{"message":"","today":"2020-06-16","seleList":[{"poweroffId":2019102131020031,"sgpoweroffId":null,"subsName":"","lineName":"10kV木桥D422线","pubTranName":"富阳市忠达通讯电器厂,亨通纸业2#,富阳市宏运金属压延厂,杭州富阳安锡金属制品有限公司,富阳市东洲街道红旗村村民委员会,富阳市宏运金属压延厂,杭州翊达建材有限公司1#变,富阳市中刚实业有限公司配电变压器,亨通纸业1#,富阳市东洲街道小铭建筑材料经营部,富阳宏源木制品有限公司变压器间隔配电变压器,富阳天隆电动车有限公司,富阳张工五金工具有限公司,富阳市东洲街道永林化纤加工厂,","scope":"浙江省-杭州市-富阳区-东洲街道(杭州富阳区东洲街道小铭建筑材料经营部,杭州富阳宏运金属压延厂,杭州富阳天隆电动车有限公司,杭州富阳张工五金工具有限公司,杭州富阳安锡金属制品有限公司,富阳市东洲街道红旗村村民委员会,富阳宏源木制品有限公司,杭州富阳区东洲街道永林化纤加工厂,杭州富阳忠达通讯电器厂,杭州富阳中刚实业有限公司,杭州翊达建材有限公司)","startTime":"2019-10-21 08:14:00","stopDate":"2019-10-21 10:00:00","orgNo":"3340170","typeCode":"电网故障停限电","poweroffArea":"110kV东洲变:木桥D422线亨通分线后段","poweroffReason":"高压开关跳闸","powerTime":"2019-10-21 09:10:53","powerComm":"已送电","subsNo":"","lineNo":"","tgNo":"","tgName":null,"infoStatus":"1","orgName":"国网浙江杭州市富阳区供电公司","typeName":null,"infoStatusName":null,"dateDay":null,"orgNos":null,"nowTime":null,"countyName":null,"streetName":null,"villageName":null,"roadName":null,"communityName":null,"tranName":null,"sdLineName":null,"cityCode":"3340170","cityName":"国网浙江杭州市富阳区供电公司","provinceCode":null,"stopTime":"2019-10-21 10:00:00","powerType":"全部","powerOffArea":"110kV东洲变:木桥D422线亨通分线后段","powerOffReason":"高压开关跳闸","powerOffId":"2019102131020031"},{"poweroffId":2019102131020015,"sgpoweroffId":null,"subsName":"","lineName":"10kV勾庄H401线","pubTranName":"艺旺包装（良辰酒店）,","scope":"浙江省-杭州市-余杭区-良渚街道-杭州艺旺包装材料有限公司、良渚博物院一带","startTime":"2019-10-21 07:19:00","stopDate":"2019-10-21 10:00:00","orgNo":"3340140","typeCode":"电网故障停限电","poweroffArea":"35kV良渚变:勾庄H401线艺旺包装(良辰酒店）艺旺包装配变","poweroffReason":"高压开关跳闸 原停电结束时间为2019-10-21 12:00:00,为减少客户停电时间,加快工作进度,提前送电,现变更停电结束时间为2019-10-21 10:00:00","powerTime":"2019-10-21 09:19:39","powerComm":"已送电","subsNo":"","lineNo":"","tgNo":"","tgName":null,"infoStatus":"1","orgName":"国网浙江杭州市余杭区供电有限公司","typeName":null,"infoStatusName":null,"dateDay":null,"orgNos":null,"nowTime":null,"countyName":null,"streetName":null,"villageName":null,"roadName":null,"communityName":null,"tranName":null,"sdLineName":null,"cityCode":"3340140","cityName":"国网浙江杭州市余杭区供电有限公司","provinceCode":null,"stopTime":"2019-10-21 10:00:00","powerType":"全部","powerOffArea":"35kV良渚变:勾庄H401线艺旺包装(良辰酒店）艺旺包装配变","powerOffReason":"高压开关跳闸 原停电结束时间为2019-10-21 12:00:00,为减少客户停电时间,加快工作进度,提前送电,现变更停电结束时间为2019-10-21 10:00:00","powerOffId":"2019102131020015"},{"poweroffId":2019102131020001,"sgpoweroffId":null,"subsName":"","lineName":"10kV万泉D738线","pubTranName":"松溪村军堰1#干河公变,","scope":"浙江省-杭州市-富阳区-新登镇-昌东行政村-昌东自然村,新登镇-松溪行政村(松溪家园自然村,军堰自然村)","startTime":"2019-10-21 01:49:24","stopDate":"2019-10-21 02:30:00","orgNo":"3340170","typeCode":"电网故障停限电","poweroffArea":"110kV松溪变:万泉D738线-松溪村军堰1#干河公变后段","poweroffReason":"高压开关跳闸","powerTime":"2019-10-21 02:11:39","powerComm":"已送电","subsNo":"","lineNo":"","tgNo":"","tgName":null,"infoStatus":"1","orgName":"国网浙江杭州市富阳区供电公司","typeName":null,"infoStatusName":null,"dateDay":null,"orgNos":null,"nowTime":null,"countyName":null,"streetName":null,"villageName":null,"roadName":null,"communityName":null,"tranName":null,"sdLineName":null,"cityCode":"3340170","cityName":"国网浙江杭州市富阳区供电公司","provinceCode":null,"stopTime":"2019-10-21 02:30:00","powerType":"全部","powerOffArea":"110kV松溪变:万泉D738线-松溪村军堰1#干河公变后段","powerOffReason":"高压开关跳闸","powerOffId":"2019102131020001"},{"poweroffId":2019102031020142,"sgpoweroffId":null,"subsName":"","lineName":"10kV洪福G904线","pubTranName":"方桥5组2号公变,方桥5组公变,方桥9组公变,方桥5组3号公变,方桥9组2号公变,","scope":"浙江省-杭州市-余杭区-乔司街道-方桥行政村(目野自然村,方桥自然村)","startTime":"2019-10-20 21:10:00","stopDate":"2019-10-20 23:00:00","orgNo":"3340140","typeCode":"电网故障停限电","poweroffArea":"110kV庙港变:洪福G904线-方桥5组分线开关后段","poweroffReason":"高压开关跳闸 方桥9组2#变令克底座烧毁","powerTime":"2019-10-20 22:19:00","powerComm":"已送电","subsNo":"","lineNo":"","tgNo":"","tgName":null,"infoStatus":"1","orgName":"国网浙江杭州市余杭区供电有限公司","typeName":null,"infoStatusName":null,"dateDay":null,"orgNos":null,"nowTime":null,"countyName":null,"streetName":null,"villageName":null,"roadName":null,"communityName":null,"tranName":null,"sdLineName":null,"cityCode":"3340140","cityName":"国网浙江杭州市余杭区供电有限公司","provinceCode":null,"stopTime":"2019-10-20 23:00:00","powerType":"全部","powerOffArea":"110kV庙港变:洪福G904线-方桥5组分线开关后段","powerOffReason":"高压开关跳闸 方桥9组2#变令克底座烧毁","powerOffId":"2019102031020142"},{"poweroffId":2019102031020141,"sgpoweroffId":null,"subsName":"","lineName":"10kV大树D219线","pubTranName":"高桥村舒姑洋2号村委口公变,","scope":"浙江省-杭州市-富阳区-银湖街道(高桥行政村-舒姑垟自然村,郜村行政村-郜村自然村)","startTime":"2019-10-20 21:01:26","stopDate":"2019-10-20 22:00:00","orgNo":"3340170","typeCode":"电网故障停限电","poweroffArea":"110kV银湖变:大树D219线-高桥村舒姑洋2号村委口公变后段","poweroffReason":"高压开关跳闸 原停电结束时间为2019-10-20 23:01:26,为减少客户停电时间,加快工作进度,提前送电,现变更停电结束时间为2019-10-20 22:00:00","powerTime":"2019-10-20 21:23:50","powerComm":"已送电","subsNo":"","lineNo":"","tgNo":"","tgName":null,"infoStatus":"1","orgName":"国网浙江杭州市富阳区供电公司","typeName":null,"infoStatusName":null,"dateDay":null,"orgNos":null,"nowTime":null,"countyName":null,"streetName":null,"villageName":null,"roadName":null,"communityName":null,"tranName":null,"sdLineName":null,"cityCode":"3340170","cityName":"国网浙江杭州市富阳区供电公司","provinceCode":null,"stopTime":"2019-10-20 22:00:00","powerType":"全部","powerOffArea":"110kV银湖变:大树D219线-高桥村舒姑洋2号村委口公变后段","powerOffReason":"高压开关跳闸 原停电结束时间为2019-10-20 23:01:26,为减少客户停电时间,加快工作进度,提前送电,现变更停电结束时间为2019-10-20 22:00:00","powerOffId":"2019102031020141"},{"poweroffId":2019102031020116,"sgpoweroffId":null,"subsName":"","lineName":"10kV洋小T324线","pubTranName":"下洋洲2号公变,","scope":"浙江省-杭州市-桐庐县-城南街道-下洋洲行政村-下洋洲自然村-洋洲路","startTime":"2019-10-20 16:28:29","stopDate":"2019-10-20 18:28:29","orgNo":"3340150","typeCode":"电网故障停限电","poweroffArea":"110kV洋洲变:洋小T324线-下洋洲2号公变后段","poweroffReason":"(低压停电信息)低压开关跳闸","powerTime":"2019-10-20 18:10:13","powerComm":"已送电","subsNo":"","lineNo":"","tgNo":"","tgName":null,"infoStatus":"1","orgName":"国网浙江桐庐县供电公司","typeName":null,"infoStatusName":null,"dateDay":null,"orgNos":null,"nowTime":null,"countyName":null,"streetName":null,"villageName":null,"roadName":null,"communityName":null,"tranName":null,"sdLineName":null,"cityCode":"3340150","cityName":"国网浙江桐庐县供电公司","provinceCode":null,"stopTime":"2019-10-20 18:28:29","powerType":"全部","powerOffArea":"110kV洋洲变:洋小T324线-下洋洲2号公变后段","powerOffReason":"(低压停电信息)低压开关跳闸","powerOffId":"2019102031020116"},{"poweroffId":2019102031020094,"sgpoweroffId":null,"subsName":"","lineName":"10kV东关Y122线","pubTranName":"梅城集镇电影院公变,","scope":"浙江省-杭州市-建德市-梅城镇-总府社区(北门街,将军弄巷,石板井头巷,府前街),梅城镇(梅花社区-府前街,龙泉行政村-北门街、,勤俭路)一带用户","startTime":"2019-10-20 14:16:00","stopDate":"2019-10-20 16:16:00","orgNo":"3340180","typeCode":"电网故障停限电","poweroffArea":"110kV梅城变:东关Y122线-梅城集镇电影院公变后段","poweroffReason":"(低压停电信息)低压开关跳闸","powerTime":"2019-10-20 15:45:00","powerComm":"已送电","subsNo":"","lineNo":"","tgNo":"","tgName":null,"infoStatus":"1","orgName":"国网浙江建德市供电有限公司","typeName":null,"infoStatusName":null,"dateDay":null,"orgNos":null,"nowTime":null,"countyName":null,"streetName":null,"villageName":null,"roadName":null,"communityName":null,"tranName":null,"sdLineName":null,"cityCode":"3340180","cityName":"国网浙江建德市供电有限公司","provinceCode":null,"stopTime":"2019-10-20 16:16:00","powerType":"全部","powerOffArea":"110kV梅城变:东关Y122线-梅城集镇电影院公变后段","powerOffReason":"(低压停电信息)低压开关跳闸","powerOffId":"2019102031020094"},{"poweroffId":2019102031020093,"sgpoweroffId":null,"subsName":"","lineName":"10kV严州Y303线","pubTranName":"龙泉村严东关台区,","scope":"浙江省-杭州市-建德市-梅城镇-严陵社区-严东关路一带用户","startTime":"2019-10-20 13:56:00","stopDate":"2019-10-20 16:00:00","orgNo":"3340180","typeCode":"电网故障停限电","poweroffArea":"110kV梅城变:严州Y303线-龙泉村严东关台区后段","poweroffReason":"(低压停电信息)低压开关跳闸","powerTime":"2019-10-20 15:24:00","powerComm":"已送电","subsNo":"","lineNo":"","tgNo":"","tgName":null,"infoStatus":"1","orgName":"国网浙江建德市供电有限公司","typeName":null,"infoStatusName":null,"dateDay":null,"orgNos":null,"nowTime":null,"countyName":null,"streetName":null,"villageName":null,"roadName":null,"communityName":null,"tranName":null,"sdLineName":null,"cityCode":"3340180","cityName":"国网浙江建德市供电有限公司","provinceCode":null,"stopTime":"2019-10-20 16:00:00","powerType":"全部","powerOffArea":"110kV梅城变:严州Y303线-龙泉村严东关台区后段","powerOffReason":"(低压停电信息)低压开关跳闸","powerOffId":"2019102031020093"},{"poweroffId":2019102031020085,"sgpoweroffId":null,"subsName":"","lineName":"10kV罗山T377线","pubTranName":"奇源高家1号公变,","scope":"浙江省-杭州市-桐庐县-百江镇-奇源行政村-陆家自然村","startTime":"2019-10-20 13:38:20","stopDate":"2019-10-20 15:38:20","orgNo":"3340150","typeCode":"电网故障停限电","poweroffArea":"110kV百江变:罗山T377线-奇源高家1号公变后段","poweroffReason":"(低压停电信息)低压开关跳闸","powerTime":"2019-10-20 15:10:11","powerComm":"已送电","subsNo":"","lineNo":"","tgNo":"","tgName":null,"infoStatus":"1","orgName":"国网浙江桐庐县供电公司","typeName":null,"infoStatusName":null,"dateDay":null,"orgNos":null,"nowTime":null,"countyName":null,"streetName":null,"villageName":null,"roadName":null,"communityName":null,"tranName":null,"sdLineName":null,"cityCode":"3340150","cityName":"国网浙江桐庐县供电公司","provinceCode":null,"stopTime":"2019-10-20 15:38:20","powerType":"全部","powerOffArea":"110kV百江变:罗山T377线-奇源高家1号公变后段","powerOffReason":"(低压停电信息)低压开关跳闸","powerOffId":"2019102031020085"},{"poweroffId":2019102031020084,"sgpoweroffId":null,"subsName":"","lineName":"10kV吴马V493线","pubTranName":"杭州临安汉瑞科技有限公司1#,","scope":"浙江省杭州市临安区锦北街道金马行政村杭州临安汉瑞科技有限公司一带","startTime":"2019-10-31 08:00:00","stopDate":"2019-10-31 14:00:00","orgNo":"3340160","typeCode":"计划停电","poweroffArea":"110kV平山变:吴马V493线-汉瑞科技令克后段","poweroffReason":"配变增容","powerTime":"2019-10-31 13:50:13","powerComm":"已送电","subsNo":"","lineNo":"","tgNo":"","tgName":null,"infoStatus":"1","orgName":"国网浙江临安市供电公司","typeName":null,"infoStatusName":null,"dateDay":null,"orgNos":null,"nowTime":null,"countyName":null,"streetName":null,"villageName":null,"roadName":null,"communityName":null,"tranName":null,"sdLineName":null,"cityCode":"3340160","cityName":"国网浙江临安市供电公司","provinceCode":null,"stopTime":"2019-10-31 14:00:00","powerType":"全部","powerOffArea":"110kV平山变:吴马V493线-汉瑞科技令克后段","powerOffReason":"配变增容","powerOffId":"2019102031020084"}],"pageModel":{"pageNow":977,"totalCount":17789,"totalPage":1779,"tableRows":0,"pageCount":10,"beginCount":9760},"isExperi":"1"}