{"message":"","today":"2020-06-16","seleList":[{"poweroffId":2019102031020081,"sgpoweroffId":null,"subsName":"","lineName":"10kV衣锦V113线","pubTranName":"电影院公变,","scope":"浙江省-杭州市-临安市-锦城街道-衣锦街与塔山路交叉附近一带","startTime":"2019-10-29 13:45:00","stopDate":"2019-10-29 17:20:00","orgNo":"3340160","typeCode":"计划停电","poweroffArea":"110kV临安变:衣锦V113线-电影院公变低压总闸刀后段","poweroffReason":"(低压停电信息)线路改接","powerTime":"2019-10-29 17:09:50","powerComm":"已送电","subsNo":"","lineNo":"","tgNo":"","tgName":null,"infoStatus":"1","orgName":"国网浙江临安市供电公司","typeName":null,"infoStatusName":null,"dateDay":null,"orgNos":null,"nowTime":null,"countyName":null,"streetName":null,"villageName":null,"roadName":null,"communityName":null,"tranName":null,"sdLineName":null,"cityCode":"3340160","cityName":"国网浙江临安市供电公司","provinceCode":null,"stopTime":"2019-10-29 17:20:00","powerType":"全部","powerOffArea":"110kV临安变:衣锦V113线-电影院公变低压总闸刀后段","powerOffReason":"(低压停电信息)线路改接","powerOffId":"2019102031020081"},{"poweroffId":2019102031020079,"sgpoweroffId":null,"subsName":"","lineName":"10kV府前V360线","pubTranName":"林干校2#公变,","scope":"浙江省-杭州市-临安市-锦城街道-衣锦街与塔山路交叉附近一带","startTime":"2019-10-29 13:45:00","stopDate":"2019-10-29 17:20:00","orgNo":"3340160","typeCode":"计划停电","poweroffArea":"110kV临安变:府前V360线-林干校2#公变低压总闸刀后段","poweroffReason":"(低压停电信息)线路改接","powerTime":"2019-10-29 17:09:53","powerComm":"已送电","subsNo":"","lineNo":"","tgNo":"","tgName":null,"infoStatus":"1","orgName":"国网浙江临安市供电公司","typeName":null,"infoStatusName":null,"dateDay":null,"orgNos":null,"nowTime":null,"countyName":null,"streetName":null,"villageName":null,"roadName":null,"communityName":null,"tranName":null,"sdLineName":null,"cityCode":"3340160","cityName":"国网浙江临安市供电公司","provinceCode":null,"stopTime":"2019-10-29 17:20:00","powerType":"全部","powerOffArea":"110kV临安变:府前V360线-林干校2#公变低压总闸刀后段","powerOffReason":"(低压停电信息)线路改接","powerOffId":"2019102031020079"},{"poweroffId":2019102031020077,"sgpoweroffId":null,"subsName":"","lineName":"10kV国土V361线","pubTranName":"老车站公变（2）,","scope":"浙江省-杭州市-临安市-锦城街道-钱王街（钱王街与天目路交叉口以东）附近一带","startTime":"2019-10-29 07:50:00","stopDate":"2019-10-29 11:50:00","orgNo":"3340160","typeCode":"计划停电","poweroffArea":"110kV临安变:国土V361线-老车站公变（2）后段","poweroffReason":"(低压停电信息)缺陷处理","powerTime":"2019-10-29 11:40:26","powerComm":"已送电","subsNo":"","lineNo":"","tgNo":"","tgName":null,"infoStatus":"1","orgName":"国网浙江临安市供电公司","typeName":null,"infoStatusName":null,"dateDay":null,"orgNos":null,"nowTime":null,"countyName":null,"streetName":null,"villageName":null,"roadName":null,"communityName":null,"tranName":null,"sdLineName":null,"cityCode":"3340160","cityName":"国网浙江临安市供电公司","provinceCode":null,"stopTime":"2019-10-29 11:50:00","powerType":"全部","powerOffArea":"110kV临安变:国土V361线-老车站公变（2）后段","powerOffReason":"(低压停电信息)缺陷处理","powerOffId":"2019102031020077"},{"poweroffId":2019102031020074,"sgpoweroffId":null,"subsName":"","lineName":"10kV白路T316线","pubTranName":"桐庐医疗光学仪器总厂(职工宿舍楼),裕华科技,杭州市桐庐医疗光学仪器总厂,","scope":"浙江省-杭州市-桐庐县-城南街道(杨州路，桐庐裕华科技企业孵化器有限公司,杭州桐庐医疗光学仪器有限公司)","startTime":"2019-10-20 12:37:00","stopDate":"2019-10-20 14:37:00","orgNo":"3340150","typeCode":"电网故障停限电","poweroffArea":"110kV洋洲变:白路T316线光学仪器用户站医疗器械后段","poweroffReason":"高压开关跳闸","powerTime":"2019-10-20 14:14:56","powerComm":"已送电","subsNo":"","lineNo":"","tgNo":"","tgName":null,"infoStatus":"1","orgName":"国网浙江桐庐县供电公司","typeName":null,"infoStatusName":null,"dateDay":null,"orgNos":null,"nowTime":null,"countyName":null,"streetName":null,"villageName":null,"roadName":null,"communityName":null,"tranName":null,"sdLineName":null,"cityCode":"3340150","cityName":"国网浙江桐庐县供电公司","provinceCode":null,"stopTime":"2019-10-20 14:37:00","powerType":"全部","powerOffArea":"110kV洋洲变:白路T316线光学仪器用户站医疗器械后段","powerOffReason":"高压开关跳闸","powerOffId":"2019102031020074"},{"poweroffId":2019102031020072,"sgpoweroffId":null,"subsName":"","lineName":"10kV昌东D701线","pubTranName":"昌东村众甫8号毛坞里公变,富阳市水务有限公司,昌东村昌东4#缪家公变,浙江三江房地产开发有限公司,昌东村昌东9号长山顶公变,昌东村草庵新村2#公变变压器,昌东村昌东1#桃园新村公变,昌东村昌东8号外蒋公变,昌东村昌东6#罗家山公变,昌东村草庵新村1#公变配电变压器,昌东村昌东2#打牌岭公变,昌东村众甫1#界牌岭公变,杭州富阳大自然食品有限公司1#变,昌东村草庵新村3#公变变压器,昌东村众甫2号麻立丁公变,","scope":"浙江省-杭州市-富阳区-新登镇-昌东行政村(众甫自然村,昌东自然村,万泉自然村);新登镇(浙江三江房地产开发有限公司,杭州富阳水务有限公司,杭州富阳大自然食品有限公司)","startTime":"2019-10-20 12:45:00","stopDate":"2019-10-20 14:00:00","orgNo":"3340170","typeCode":"电网故障停限电","poweroffArea":"110kV松溪变:昌东D701线昌东D7015开关后段","poweroffReason":"高压开关跳闸","powerTime":"2019-10-20 13:48:52","powerComm":"已送电","subsNo":"","lineNo":"","tgNo":"","tgName":null,"infoStatus":"1","orgName":"国网浙江杭州市富阳区供电公司","typeName":null,"infoStatusName":null,"dateDay":null,"orgNos":null,"nowTime":null,"countyName":null,"streetName":null,"villageName":null,"roadName":null,"communityName":null,"tranName":null,"sdLineName":null,"cityCode":"3340170","cityName":"国网浙江杭州市富阳区供电公司","provinceCode":null,"stopTime":"2019-10-20 14:00:00","powerType":"全部","powerOffArea":"110kV松溪变:昌东D701线昌东D7015开关后段","powerOffReason":"高压开关跳闸","powerOffId":"2019102031020072"},{"poweroffId":2019102031020050,"sgpoweroffId":null,"subsName":"","lineName":"10kV单家C167线","pubTranName":"罗幕村14#变,","scope":"浙江省-杭州市-萧山区-义桥镇-罗幕行政村-王家桥自然村、浙江省杭州市萧山区义桥镇王家桥农贸市场等一带","startTime":"2019-10-20 09:50:16","stopDate":"2019-10-20 12:00:16","orgNo":"3340130","typeCode":"电网故障停限电","poweroffArea":"110kV许贤变:单家C167线-罗幕村14#变台区低压开关","poweroffReason":"(低压停电信息)低压开关跳闸","powerTime":"2019-10-20 11:19:34","powerComm":"已送电","subsNo":"","lineNo":"","tgNo":"","tgName":null,"infoStatus":"1","orgName":"国网浙江杭州市萧山区供电有限公司","typeName":null,"infoStatusName":null,"dateDay":null,"orgNos":null,"nowTime":null,"countyName":null,"streetName":null,"villageName":null,"roadName":null,"communityName":null,"tranName":null,"sdLineName":null,"cityCode":"3340130","cityName":"国网浙江杭州市萧山区供电有限公司","provinceCode":null,"stopTime":"2019-10-20 12:00:16","powerType":"全部","powerOffArea":"110kV许贤变:单家C167线-罗幕村14#变台区低压开关","powerOffReason":"(低压停电信息)低压开关跳闸","powerOffId":"2019102031020050"},{"poweroffId":2019102031020016,"sgpoweroffId":null,"subsName":"","lineName":"10kV新创502线","pubTranName":"闸北村7#变,","scope":"浙江省-杭州市-萧山区-河庄街道-闸北行政村-闸北自然村、河庄街道闸北村、闸北行政村一带","startTime":"2019-10-20 07:14:18","stopDate":"2019-10-20 11:40:18","orgNo":"3340120","typeCode":"电网故障停限电","poweroffArea":"35kV永丰变:新创502线-闸北村7#变台区低压开关","poweroffReason":"(低压停电信息)低压开关跳闸","powerTime":"2019-10-20 10:48:49","powerComm":"已送电","subsNo":"","lineNo":"","tgNo":"","tgName":null,"infoStatus":"1","orgName":"国网浙江杭州市钱塘新区供电公司","typeName":null,"infoStatusName":null,"dateDay":null,"orgNos":null,"nowTime":null,"countyName":null,"streetName":null,"villageName":null,"roadName":null,"communityName":null,"tranName":null,"sdLineName":null,"cityCode":"3340120","cityName":"国网浙江杭州市钱塘新区供电公司","provinceCode":null,"stopTime":"2019-10-20 11:40:18","powerType":"全部","powerOffArea":"35kV永丰变:新创502线-闸北村7#变台区低压开关","powerOffReason":"(低压停电信息)低压开关跳闸","powerOffId":"2019102031020016"},{"poweroffId":2019102031020008,"sgpoweroffId":null,"subsName":"","lineName":"10kV结网G079线","pubTranName":"河建中心二级61200483803#变,屯里村1组2#公变,屯里村慈航桥公变,横山二级翻水站,河建中心二级61200483802#变,杭州余杭经济开发建设有限公司,","scope":"浙江省-杭州市-余杭区-经济开发区-屯里社区-屯里自然村,临平街道-屯里行政村(屯里村,兹行桥自然村);临平街道-杭州市余杭区河道建设管理中心,东湖街道-杭州余杭区河道建设管理中心","startTime":"2019-10-20 06:02:00","stopDate":"2019-10-20 09:00:00","orgNo":"3340140","typeCode":"电网故障停限电","poweroffArea":"110kV星桥变:结网G079线北桥分线开关后段","poweroffReason":"高压开关跳闸","powerTime":"2019-10-20 08:40:00","powerComm":"已送电","subsNo":"","lineNo":"","tgNo":"","tgName":null,"infoStatus":"1","orgName":"国网浙江杭州市余杭区供电有限公司","typeName":null,"infoStatusName":null,"dateDay":null,"orgNos":null,"nowTime":null,"countyName":null,"streetName":null,"villageName":null,"roadName":null,"communityName":null,"tranName":null,"sdLineName":null,"cityCode":"3340140","cityName":"国网浙江杭州市余杭区供电有限公司","provinceCode":null,"stopTime":"2019-10-20 09:00:00","powerType":"全部","powerOffArea":"110kV星桥变:结网G079线北桥分线开关后段","powerOffReason":"高压开关跳闸","powerOffId":"2019102031020008"},{"poweroffId":2019101931020155,"sgpoweroffId":null,"subsName":"","lineName":"10kV常绿D268线","pubTranName":"大章村12号黄泥山公变,","scope":"浙江省-杭州市-富阳区-常绿镇-大章村行政村(常三中心自然村,前田畈自然村,后田畈自然村)一带","startTime":"2019-10-29 15:20:00","stopDate":"2019-10-29 16:00:00","orgNo":"3340170","typeCode":"计划停电","poweroffArea":"35kV盛村变:常绿D268线-大章村12号黄泥山公变后段","poweroffReason":"场口2019年10kV常绿D268线双溪分线改造工程：常绿D268线58#杆25#杆大章村分线58#杆双溪支线8#杆黄泥山支线3#杆大章村2#黄泥山公变：1、搭接大章村2#黄泥山公变至配电屏进线侧电缆头；2、拆除备用电源至配电屏电缆等工作。","powerTime":"2019-10-29 15:57:15","powerComm":"已送电","subsNo":"","lineNo":"","tgNo":"","tgName":null,"infoStatus":"1","orgName":"国网浙江杭州市富阳区供电公司","typeName":null,"infoStatusName":null,"dateDay":null,"orgNos":null,"nowTime":null,"countyName":null,"streetName":null,"villageName":null,"roadName":null,"communityName":null,"tranName":null,"sdLineName":null,"cityCode":"3340170","cityName":"国网浙江杭州市富阳区供电公司","provinceCode":null,"stopTime":"2019-10-29 16:00:00","powerType":"全部","powerOffArea":"35kV盛村变:常绿D268线-大章村12号黄泥山公变后段","powerOffReason":"场口2019年10kV常绿D268线双溪分线改造工程：常绿D268线58#杆25#杆大章村分线58#杆双溪支线8#杆黄泥山支线3#杆大章村2#黄泥山公变：1、搭接大章村2#黄泥山公变至配电屏进线侧电缆头；2、拆除备用电源至配电屏电缆等工作。","powerOffId":"2019101931020155"},{"poweroffId":2019101931020154,"sgpoweroffId":null,"subsName":"","lineName":"10kV常绿D268线","pubTranName":"大章村12号黄泥山公变,","scope":"浙江省-杭州市-富阳区-常绿镇-大章村行政村(常三中心自然村,前田畈自然村,后田畈自然村)一带","startTime":"2019-10-29 08:30:00","stopDate":"2019-10-29 10:15:00","orgNo":"3340170","typeCode":"计划停电","poweroffArea":"35kV盛村变:常绿D268线-大章村12#黄泥山公变熔断器后段","poweroffReason":"常绿D268线58#杆双溪支线8#杆黄泥山支线3#杆大章村2#黄泥山公变：1、拆除大章村2#黄泥山公变至配电屏进线侧电缆头。原停电结束时间为2019-10-29 09:15:00,因工作复杂原因,现变更停电结束时间为2019-10-29 10:15:00","powerTime":"2019-10-29 09:52:17","powerComm":"已送电","subsNo":"","lineNo":"","tgNo":"","tgName":null,"infoStatus":"1","orgName":"国网浙江杭州市富阳区供电公司","typeName":null,"infoStatusName":null,"dateDay":null,"orgNos":null,"nowTime":null,"countyName":null,"streetName":null,"villageName":null,"roadName":null,"communityName":null,"tranName":null,"sdLineName":null,"cityCode":"3340170","cityName":"国网浙江杭州市富阳区供电公司","provinceCode":null,"stopTime":"2019-10-29 10:15:00","powerType":"全部","powerOffArea":"35kV盛村变:常绿D268线-大章村12#黄泥山公变熔断器后段","powerOffReason":"常绿D268线58#杆双溪支线8#杆黄泥山支线3#杆大章村2#黄泥山公变：1、拆除大章村2#黄泥山公变至配电屏进线侧电缆头。原停电结束时间为2019-10-29 09:15:00,因工作复杂原因,现变更停电结束时间为2019-10-29 10:15:00","powerOffId":"2019101931020154"}],"pageModel":{"pageNow":978,"totalCount":17789,"totalPage":1779,"tableRows":0,"pageCount":10,"beginCount":9770},"isExperi":"1"}