{"message":"","today":"2020-06-16","seleList":[{"poweroffId":2019101931020136,"sgpoweroffId":null,"subsName":"","lineName":"10kV图山D502线","pubTranName":"上图山村3号医院公变,","scope":"浙江省-杭州市-富阳区-场口镇-上图山行政村-上图山自然村一带","startTime":"2019-10-28 15:50:00","stopDate":"2019-10-28 18:30:00","orgNo":"3340170","typeCode":"计划停电","poweroffArea":"110kV常安变:图山D502线-上图山村3号医院公变后段","poweroffReason":"场口2019年10kV窈口D381线等线路改造工程：图山D502线128#杆医院公变拆除T接箱电缆工作。原停电结束时间为2019-10-28 16:30:00,因现场抢修难度大,现变更停电结束时间为2019-10-28 18:30:00","powerTime":"2019-10-28 17:49:41","powerComm":"已送电","subsNo":"","lineNo":"","tgNo":"","tgName":null,"infoStatus":"1","orgName":"国网浙江杭州市富阳区供电公司","typeName":null,"infoStatusName":null,"dateDay":null,"orgNos":null,"nowTime":null,"countyName":null,"streetName":null,"villageName":null,"roadName":null,"communityName":null,"tranName":null,"sdLineName":null,"cityCode":"3340170","cityName":"国网浙江杭州市富阳区供电公司","provinceCode":null,"stopTime":"2019-10-28 18:30:00","powerType":"全部","powerOffArea":"110kV常安变:图山D502线-上图山村3号医院公变后段","powerOffReason":"场口2019年10kV窈口D381线等线路改造工程：图山D502线128#杆医院公变拆除T接箱电缆工作。原停电结束时间为2019-10-28 16:30:00,因现场抢修难度大,现变更停电结束时间为2019-10-28 18:30:00","powerOffId":"2019101931020136"},{"poweroffId":2019101931020134,"sgpoweroffId":null,"subsName":"","lineName":"10kV图山D502线","pubTranName":"白石胶村5号赵村坞公变,白石胶村6号路边公变,白石胶村2号村边公变,白石胶村1号煤井公变,杭州鹏源旅行用品有限公司,杭州市富阳区场口镇白石皎村股份经济合作社（垃圾中转站）1#变,白石胶村3号溪边公变,白石胶村4号陈后公变,上图山村5#大门山公变,富阳市创新造纸机械有限公司,","scope":"浙江省-杭州市-富阳区-场口镇-上图山行政村-上图山自然村,场口镇-白石胶行政村(赵村坞自然村,白石胶自然村,陈后自然村),场口镇-白石皎行政村(赵村坞,白石皎自然村);场口镇-白石胶行政村(杭州鹏源旅行用品有限公司,杭州创新轻工机械有限公司,杭州市富阳区场口镇白石皎村股份经济合作社)一带","startTime":"2019-10-28 15:50:00","stopDate":"2019-10-28 18:30:00","orgNo":"3340170","typeCode":"计划停电","poweroffArea":"110kV常安变:图山D502线-白石胶分线后段","poweroffReason":"场口2019年10kV窈口D381线等线路改造工程：拆除图山D502线135#杆白石胶分线12#杆备用电源电缆头等工作。原停电结束时间为2019-10-28 16:30:00,因现场抢修难度大,现变更停电结束时间为2019-10-28 18:30:00","powerTime":"2019-10-28 17:49:26","powerComm":"已送电","subsNo":"","lineNo":"","tgNo":"","tgName":null,"infoStatus":"1","orgName":"国网浙江杭州市富阳区供电公司","typeName":null,"infoStatusName":null,"dateDay":null,"orgNos":null,"nowTime":null,"countyName":null,"streetName":null,"villageName":null,"roadName":null,"communityName":null,"tranName":null,"sdLineName":null,"cityCode":"3340170","cityName":"国网浙江杭州市富阳区供电公司","provinceCode":null,"stopTime":"2019-10-28 18:30:00","powerType":"全部","powerOffArea":"110kV常安变:图山D502线-白石胶分线后段","powerOffReason":"场口2019年10kV窈口D381线等线路改造工程：拆除图山D502线135#杆白石胶分线12#杆备用电源电缆头等工作。原停电结束时间为2019-10-28 16:30:00,因现场抢修难度大,现变更停电结束时间为2019-10-28 18:30:00","powerOffId":"2019101931020134"},{"poweroffId":2019101931020132,"sgpoweroffId":null,"subsName":"","lineName":"10kV图山D502线","pubTranName":"上图山村2#朝头山公变,上图山村1#双家边公变,上图山村4#石亩岭公变,","scope":"浙江省-杭州市-富阳区-场口镇(上图山行政村-上图山自然村,东梓行政村-东梓关自然村)一带","startTime":"2019-10-28 08:30:00","stopDate":"2019-10-28 18:30:00","orgNo":"3340170","typeCode":"计划停电","poweroffArea":"110kV常安变:图山D502线-图山D5024开关后段","poweroffReason":"场口2019年10kV窈口D381线等线路改造工程：图山D502线：1、新立电杆6支；2、单回路改双回路；原停电结束时间为2019-10-28 16:30:00,因现场抢修难度大,现变更停电结束时间为2019-10-28 18:30:00","powerTime":"2019-10-28 17:50:00","powerComm":"已送电","subsNo":"","lineNo":"","tgNo":"","tgName":null,"infoStatus":"1","orgName":"国网浙江杭州市富阳区供电公司","typeName":null,"infoStatusName":null,"dateDay":null,"orgNos":null,"nowTime":null,"countyName":null,"streetName":null,"villageName":null,"roadName":null,"communityName":null,"tranName":null,"sdLineName":null,"cityCode":"3340170","cityName":"国网浙江杭州市富阳区供电公司","provinceCode":null,"stopTime":"2019-10-28 18:30:00","powerType":"全部","powerOffArea":"110kV常安变:图山D502线-图山D5024开关后段","powerOffReason":"场口2019年10kV窈口D381线等线路改造工程：图山D502线：1、新立电杆6支；2、单回路改双回路；原停电结束时间为2019-10-28 16:30:00,因现场抢修难度大,现变更停电结束时间为2019-10-28 18:30:00","powerOffId":"2019101931020132"},{"poweroffId":2019101931020130,"sgpoweroffId":null,"subsName":"","lineName":"10kV图山D502线","pubTranName":"杭州鹏源旅行用品有限公司,白石胶村2号村边公变,白石胶村4号陈后公变,白石胶村5号赵村坞公变,白石胶村1号煤井公变,杭州市富阳区场口镇白石皎村股份经济合作社（垃圾中转站）1#变,上图山村5#大门山公变,白石胶村3号溪边公变,白石胶村6号路边公变,富阳市创新造纸机械有限公司,","scope":"浙江省-杭州市-富阳区-场口镇-上图山行政村-上图山自然村,场口镇-白石胶行政村(赵村坞自然村,白石胶自然村,陈后自然村),场口镇-白石皎行政村(赵村坞,白石皎自然村);场口镇-白石胶行政村(杭州鹏源旅行用品有限公司,杭州创新轻工机械有限公司,杭州市富阳区场口镇白石皎村股份经济合作社)一带","startTime":"2019-10-28 08:30:00","stopDate":"2019-10-28 09:15:00","orgNo":"3340170","typeCode":"计划停电","poweroffArea":"110kV常安变:图山D502线-白石胶分线后段","poweroffReason":"场口2019年10kV常绿D268线双溪分线改造工程：备用电源电缆头搭接至图山D502线135#杆白石胶分线12#杆等工作。","powerTime":"2019-10-28 09:12:39","powerComm":"已送电","subsNo":"","lineNo":"","tgNo":"","tgName":null,"infoStatus":"1","orgName":"国网浙江杭州市富阳区供电公司","typeName":null,"infoStatusName":null,"dateDay":null,"orgNos":null,"nowTime":null,"countyName":null,"streetName":null,"villageName":null,"roadName":null,"communityName":null,"tranName":null,"sdLineName":null,"cityCode":"3340170","cityName":"国网浙江杭州市富阳区供电公司","provinceCode":null,"stopTime":"2019-10-28 09:15:00","powerType":"全部","powerOffArea":"110kV常安变:图山D502线-白石胶分线后段","powerOffReason":"场口2019年10kV常绿D268线双溪分线改造工程：备用电源电缆头搭接至图山D502线135#杆白石胶分线12#杆等工作。","powerOffId":"2019101931020130"},{"poweroffId":2019101931020127,"sgpoweroffId":null,"subsName":"","lineName":"10kV常绿D268线","pubTranName":"双溪村1#双溪坞公变,","scope":"浙江省-杭州市-富阳区-常绿镇-双溪行政村(双溪坞自然村,杨树坑自然村)","startTime":"2019-10-29 08:30:00","stopDate":"2019-10-29 10:15:00","orgNo":"3340170","typeCode":"计划停电","poweroffArea":"35kV盛村变:常绿D268线-双溪村1#双溪坞公变后段","poweroffReason":"常绿D268线58#杆25#杆双溪支线62#杆双溪村1#双溪坞公变：1、拆除双溪村1#双溪坞公变至配电屏进线侧电缆头；。原停电结束时间为2019-10-29 09:15:00,因工作复杂原因,现变更停电结束时间为2019-10-29 10:15:00","powerTime":"2019-10-29 09:52:44","powerComm":"已送电","subsNo":"","lineNo":"","tgNo":"","tgName":null,"infoStatus":"1","orgName":"国网浙江杭州市富阳区供电公司","typeName":null,"infoStatusName":null,"dateDay":null,"orgNos":null,"nowTime":null,"countyName":null,"streetName":null,"villageName":null,"roadName":null,"communityName":null,"tranName":null,"sdLineName":null,"cityCode":"3340170","cityName":"国网浙江杭州市富阳区供电公司","provinceCode":null,"stopTime":"2019-10-29 10:15:00","powerType":"全部","powerOffArea":"35kV盛村变:常绿D268线-双溪村1#双溪坞公变后段","powerOffReason":"常绿D268线58#杆25#杆双溪支线62#杆双溪村1#双溪坞公变：1、拆除双溪村1#双溪坞公变至配电屏进线侧电缆头；。原停电结束时间为2019-10-29 09:15:00,因工作复杂原因,现变更停电结束时间为2019-10-29 10:15:00","powerOffId":"2019101931020127"},{"poweroffId":2019101931020126,"sgpoweroffId":null,"subsName":"","lineName":"10kV常绿D268线","pubTranName":"双溪村2#杨树坑公变,","scope":"浙江省-杭州市-富阳区-常绿镇-双溪行政村-杨树坑自然村","startTime":"2019-10-29 08:30:00","stopDate":"2019-10-29 10:15:00","orgNo":"3340170","typeCode":"计划停电","poweroffArea":"35kV盛村变:常绿D268线-双溪村2#杨树坑公变后段","poweroffReason":"常绿D268线58#杆25#杆双溪支线77#杆双溪村2#杨树坑公变：1、拆除双溪村2#杨树坑公变至配电屏进线侧电缆头。原停电结束时间为2019-10-29 09:15:00,因工作复杂原因,现变更停电结束时间为2019-10-29 10:15:00","powerTime":"2019-10-29 09:26:05","powerComm":"已送电","subsNo":"","lineNo":"","tgNo":"","tgName":null,"infoStatus":"1","orgName":"国网浙江杭州市富阳区供电公司","typeName":null,"infoStatusName":null,"dateDay":null,"orgNos":null,"nowTime":null,"countyName":null,"streetName":null,"villageName":null,"roadName":null,"communityName":null,"tranName":null,"sdLineName":null,"cityCode":"3340170","cityName":"国网浙江杭州市富阳区供电公司","provinceCode":null,"stopTime":"2019-10-29 10:15:00","powerType":"全部","powerOffArea":"35kV盛村变:常绿D268线-双溪村2#杨树坑公变后段","powerOffReason":"常绿D268线58#杆25#杆双溪支线77#杆双溪村2#杨树坑公变：1、拆除双溪村2#杨树坑公变至配电屏进线侧电缆头。原停电结束时间为2019-10-29 09:15:00,因工作复杂原因,现变更停电结束时间为2019-10-29 10:15:00","powerOffId":"2019101931020126"},{"poweroffId":2019101931020125,"sgpoweroffId":null,"subsName":"","lineName":"10kV图山D502线","pubTranName":"下图山村3#田畈公变,","scope":"浙江省-杭州市-富阳区-场口镇-下图山行政村-下图山自然村","startTime":"2019-10-28 08:30:00","stopDate":"2019-10-28 09:15:00","orgNo":"3340170","typeCode":"计划停电","poweroffArea":"110kV常安变:图山D502线-下图山村3#田畈公变后段","poweroffReason":"场口2019年10kV窈口D381线等线路改造工程：图山D502线141#杆田畈分线2#杆下图山村3#田畈公变拆除低压电缆并搭接于T接箱出线侧等工作。","powerTime":"2019-10-28 09:13:01","powerComm":"已送电","subsNo":"","lineNo":"","tgNo":"","tgName":null,"infoStatus":"1","orgName":"国网浙江杭州市富阳区供电公司","typeName":null,"infoStatusName":null,"dateDay":null,"orgNos":null,"nowTime":null,"countyName":null,"streetName":null,"villageName":null,"roadName":null,"communityName":null,"tranName":null,"sdLineName":null,"cityCode":"3340170","cityName":"国网浙江杭州市富阳区供电公司","provinceCode":null,"stopTime":"2019-10-28 09:15:00","powerType":"全部","powerOffArea":"110kV常安变:图山D502线-下图山村3#田畈公变后段","powerOffReason":"场口2019年10kV窈口D381线等线路改造工程：图山D502线141#杆田畈分线2#杆下图山村3#田畈公变拆除低压电缆并搭接于T接箱出线侧等工作。","powerOffId":"2019101931020125"},{"poweroffId":2019101931020124,"sgpoweroffId":null,"subsName":"","lineName":"10kV图山D502线","pubTranName":"上图山村3号医院公变,","scope":"浙江省-杭州市-富阳区-场口镇-上图山行政村-上图山自然村一带","startTime":"2019-10-28 08:30:00","stopDate":"2019-10-28 09:15:00","orgNo":"3340170","typeCode":"计划停电","poweroffArea":"110kV常安变:图山D502线-上图山村3号医院公变后段","poweroffReason":"场口2019年10kV窈口D381线等线路改造工程：图山D502线128#杆医院公变分线1#杆上图山村3#医院公变拆除低压电缆并搭接于T接箱出线侧等工作。","powerTime":"2019-10-28 09:12:00","powerComm":"已送电","subsNo":"","lineNo":"","tgNo":"","tgName":null,"infoStatus":"1","orgName":"国网浙江杭州市富阳区供电公司","typeName":null,"infoStatusName":null,"dateDay":null,"orgNos":null,"nowTime":null,"countyName":null,"streetName":null,"villageName":null,"roadName":null,"communityName":null,"tranName":null,"sdLineName":null,"cityCode":"3340170","cityName":"国网浙江杭州市富阳区供电公司","provinceCode":null,"stopTime":"2019-10-28 09:15:00","powerType":"全部","powerOffArea":"110kV常安变:图山D502线-上图山村3号医院公变后段","powerOffReason":"场口2019年10kV窈口D381线等线路改造工程：图山D502线128#杆医院公变分线1#杆上图山村3#医院公变拆除低压电缆并搭接于T接箱出线侧等工作。","powerOffId":"2019101931020124"},{"poweroffId":2019101931020109,"sgpoweroffId":null,"subsName":"","lineName":"10kV惠围A128线","pubTranName":"顺丰家园4#公变,","scope":"浙江省-杭州市-萧山区-宁围镇-宁围街道-丰东行政村-文明路、顺丰家园小区、顺丰家园24幢等一带","startTime":"2019-10-19 14:15:23","stopDate":"2019-10-19 15:54:23","orgNo":"3340130","typeCode":"电网故障停限电","poweroffArea":"110kV惠兴变:惠围A128线-顺丰家园4#公变台区低压开关","poweroffReason":"（低压停电信息）低压漏电保护器短路故障","powerTime":"2019-10-19 15:02:52","powerComm":"已送电","subsNo":"","lineNo":"","tgNo":"","tgName":null,"infoStatus":"1","orgName":"国网浙江杭州市萧山区供电有限公司","typeName":null,"infoStatusName":null,"dateDay":null,"orgNos":null,"nowTime":null,"countyName":null,"streetName":null,"villageName":null,"roadName":null,"communityName":null,"tranName":null,"sdLineName":null,"cityCode":"3340130","cityName":"国网浙江杭州市萧山区供电有限公司","provinceCode":null,"stopTime":"2019-10-19 15:54:23","powerType":"全部","powerOffArea":"110kV惠兴变:惠围A128线-顺丰家园4#公变台区低压开关","powerOffReason":"（低压停电信息）低压漏电保护器短路故障","powerOffId":"2019101931020109"},{"poweroffId":2019101931020108,"sgpoweroffId":null,"subsName":"","lineName":"10kV百丈H563线","pubTranName":"半山村外半山公变,石竹园村甘岭2号公变,石竹园村南庄坞2号公变,百丈村吴家头公变,百丈街道赤大坞公变,仙岩村九东山二组公变,翻沙厂,百丈镇政府(幼儿园)6120207942,釜托寺,半山村后坞公变,沙厂,石竹园村孙家舍6组公变,石竹园村鱼石岭公变,仙岩村朱家堂公变,梁永富6110114047,杭州余杭锋恩钢塑制品厂,石竹园村鱼石岭2号公变,仙岩村九东山一组公变,百丈街道天登寺脚公变,百丈街道新马路上公变,仙岩毛竹拉丝厂,石竹园村何家边公变,石竹园村2号村变,半山村里半山欧变,石竹园村里百丈公变,百丈村三组2号变,百丈村三组公变,百丈站变2,百丈镇政府2号公变,石竹园村大坑场公变,半山村里半山公变,杭州恒力竹木工艺有限公司6111010384,百丈街道新马路下公变,汪水子竹木加工厂,石竹园村大坑场2号变,石竹园村洋坞公变,百丈街道农居点公变,百丈村山下2号公变,政府10号路灯变6120842661,泗溪村上村公变,石竹园村村公变,仙岩村陆家坞公变,振宇竹木,百丈中心小学,半山村后坞口公变,仙岩村阳山头公变,泗溪村前山公变,百丈街道刹猪场公变,百丈机械1#,半山村余坞公变,石竹园村中百丈下村公变,百丈卫生中心,百丈街道市场公变,百丈大酒店,百丈垃圾处理612082559301#专变,石竹园村中百丈公变,百丈镇政府（办公楼）6111016911,仙岩村小学公变,泗溪村加工场公变,百丈工艺石料厂6110114040,汪水子竹木2#,云丰竹木,半山村独松2号公变,杭州富诚竹木工艺有限公司,泗溪村坑口公变,石竹园村南庄坞公变,仙岩村大树棚公变,圣鑫健身器,杭州儒商工贸有限公司6110114011,百丈村木桥头公变,华美家用电器6120305556,洋利电气612026579701#专变,石竹园村孙家舍2号变,百丈街道政府公变,双枪竹木,半山村牙山公变,泗溪村上凉亭公变,石竹园村甘岭公变,万洪织带,半山村方家塘公变,万红织带2,杭州余杭百丈加油站有限公司6110114177,百丈街道公变,泗溪村加工厂2号公变,天涌海绵,半山村独松3号公变,石竹园村孙家舍公变,杭州凯米橡塑有限公司6110118076,仙岩村大庙公变,永鑫石矿,半山村朱家桥公变,半山村彩坞公变,泗溪村遥沙台公变,百丈村吴家头2号变,新港竹木612004324601#专变,百丈牙山水厂公变,半山村独松1号公变,仙岩村王家堂公变,杭州余杭区百丈镇祖华竹制品加工厂,欣达钢塑6110114032,百福展柜6120244908,百丈村山下公变,石竹园村羊坞2号公变,双枪科技612003053502#专变,","scope":"浙江省-杭州市-余杭区-百丈镇-百丈行政村(百丈自然村,石竹园自然村),鸬鸟镇(雅城行政村-雅城自然村,太平山行政村-太平山自然村,山沟沟行政村-山沟沟自然村),黄湖镇(清波行政村-清波自然村,赐壁行政村-赐壁自然村,王位山行政村-独山桥自然村),百丈镇(石竹园行政村-石竹园自然村,泗溪行政村-泗溪自然村,半山行政村-半山自然村,溪口行政村-溪口自然村,仙岩行政村-仙岩自然村);百丈镇(梁永富,杭州恒力竹木工艺有限公司,百丈工艺石料厂,余杭区百丈镇人民政府,杭州凯米橡塑有限公司,杭州儒商工贸有限公司,杭州余杭百丈加油站有限公司,杭州市余杭区百丈釜托禅寺,杭州欣达钢塑复合管有限公司,杭州大辰竹木有限公司,杭州漫轩电子商务有限公司,杭州余杭百丈大酒店有限公司,双枪科技股份有限公司,杭州市余杭区百丈镇人民政府,杭州万宏织带有限公司,杭州富诚竹木工艺有限公司,杭州天荷食品有限公司,杭州天涌海绵制品有限公司,杭州余杭锋恩钢塑制品厂,杭州华美家用电器有限公司,杭州百福展柜有限公司,杭州市余杭区百丈镇中心小学,杭州新港竹木工艺有限公司,洋利电气(杭州)有限公司,杭州百丈机械铸造有限公司)","startTime":"2019-10-19 13:50:00","stopDate":"2019-10-19 16:50:00","orgNo":"3340140","typeCode":"电网故障停限电","poweroffArea":"35kV黄湖变:百丈H563线半山分线76号杆开关后段","poweroffReason":"高压开关跳闸","powerTime":"2019-10-19 16:09:11","powerComm":"已送电","subsNo":"","lineNo":"","tgNo":"","tgName":null,"infoStatus":"1","orgName":"国网浙江杭州市余杭区供电有限公司","typeName":null,"infoStatusName":null,"dateDay":null,"orgNos":null,"nowTime":null,"countyName":null,"streetName":null,"villageName":null,"roadName":null,"communityName":null,"tranName":null,"sdLineName":null,"cityCode":"3340140","cityName":"国网浙江杭州市余杭区供电有限公司","provinceCode":null,"stopTime":"2019-10-19 16:50:00","powerType":"全部","powerOffArea":"35kV黄湖变:百丈H563线半山分线76号杆开关后段","powerOffReason":"高压开关跳闸","powerOffId":"2019101931020108"}],"pageModel":{"pageNow":980,"totalCount":17789,"totalPage":1779,"tableRows":0,"pageCount":10,"beginCount":9790},"isExperi":"1"}