{"message":"","today":"2020-06-16","seleList":[{"poweroffId":2019101931020095,"sgpoweroffId":null,"subsName":"","lineName":"10kV家东T565线","pubTranName":"凤镇村2号公变,","scope":"浙江省-杭州市-桐庐县(城南街道-新建行政村-新建自然村,凤川街道-翙岗行政村-凤镇自然村)翙岗行政村凤镇村环镇南路文体中心601室","startTime":"2019-10-19 12:23:10","stopDate":"2019-10-19 13:40:10","orgNo":"3340150","typeCode":"电网故障停限电","poweroffArea":"110kV旺家变:家东T565线-凤镇村2号公变后段","poweroffReason":"高压开关跳闸 原停电结束时间为2019-10-19 16:30:10,为减少客户停电时间,加快工作进度,提前送电,现变更停电结束时间为2019-10-19 13:40:10","powerTime":"2019-10-19 13:31:23","powerComm":"已送电","subsNo":"","lineNo":"","tgNo":"","tgName":null,"infoStatus":"1","orgName":"国网浙江桐庐县供电公司","typeName":null,"infoStatusName":null,"dateDay":null,"orgNos":null,"nowTime":null,"countyName":null,"streetName":null,"villageName":null,"roadName":null,"communityName":null,"tranName":null,"sdLineName":null,"cityCode":"3340150","cityName":"国网浙江桐庐县供电公司","provinceCode":null,"stopTime":"2019-10-19 13:40:10","powerType":"全部","powerOffArea":"110kV旺家变:家东T565线-凤镇村2号公变后段","powerOffReason":"高压开关跳闸 原停电结束时间为2019-10-19 16:30:10,为减少客户停电时间,加快工作进度,提前送电,现变更停电结束时间为2019-10-19 13:40:10","powerOffId":"2019101931020095"},{"poweroffId":2019101931020079,"sgpoweroffId":null,"subsName":"","lineName":"10kV国航C147线","pubTranName":"杭州煜辉活塞销厂,杭州公安局萧山分局,花神庙村5#变,","scope":"浙江省-杭州市-萧山区-靖江街道-花神庙社区-花神庙自然村;靖江街道-花神庙社区(杭州市公安局萧山区分局,杭州煜辉活塞销厂)一带","startTime":"2019-10-19 13:00:34","stopDate":"2019-10-19 16:35:34","orgNo":"3340130","typeCode":"电网故障停限电","poweroffArea":"110kV梅西变:国航C147线-公安分线后段","poweroffReason":"高压柱上断路器短路故障 原停电结束时间: 2019-10-19 17:00:34，变更停电结束时间: 2019-10-19 16:35:34.由于抢修工作提前完成,故需要提前送电。","powerTime":"2019-10-19 15:42:04","powerComm":"已送电","subsNo":"","lineNo":"","tgNo":"","tgName":null,"infoStatus":"1","orgName":"国网浙江杭州市萧山区供电有限公司","typeName":null,"infoStatusName":null,"dateDay":null,"orgNos":null,"nowTime":null,"countyName":null,"streetName":null,"villageName":null,"roadName":null,"communityName":null,"tranName":null,"sdLineName":null,"cityCode":"3340130","cityName":"国网浙江杭州市萧山区供电有限公司","provinceCode":null,"stopTime":"2019-10-19 16:35:34","powerType":"全部","powerOffArea":"110kV梅西变:国航C147线-公安分线后段","powerOffReason":"高压柱上断路器短路故障 原停电结束时间: 2019-10-19 17:00:34，变更停电结束时间: 2019-10-19 16:35:34.由于抢修工作提前完成,故需要提前送电。","powerOffId":"2019101931020079"},{"poweroffId":2019101931020077,"sgpoweroffId":null,"subsName":"","lineName":"10kV秋口V542线","pubTranName":"临安市富鑫造纸厂,杭州越普机械有限公司1#,三口乡秋口村,张家坞配变,杭州海鑫纸业有限公司3,临安海达纸业有限公司,锦南供电营业所用变,界联村白洋畈,秋水览山小区1#,秋口村青塘头,临安吉晨生物质能源科技有限公司配变配电变压器,杭州圣超新型建材有限公司,杭州临安青山湖酷爱食品有限公司,杭州磊钦渔具有限公司1#,界联村钟头坞,杭州磊软渔具有限公司,大口山配变,临安市惠民竹器厂,秋口升压变,杭州管康塑业有限公司1#,秋口村寺田畈,1＃变,苏成,界头村,秋口2#配变,杭州管康塑业有限公司2#,秋水览山小区2#,杭州海鑫纸业有限公司2#,临安汉普线缆有限公司,临安恒佳炭业有限公司,炼川村炼坞里,小平里配变,秋口村青草坞,杭州圣超新型建材有限公司,杭州临安青山湖酷爱食品有限公司,界联村施坞里,","scope":"浙江省-杭州市-临安市-青山湖街道-蒋杨行政村-蒋杨自然村,青山湖街道-青山行政村(科技大道2988号,青山自然村),板桥镇-秋口行政村(炼川自然村,秋口自然村,秋水览山小区),板桥镇(界联行政村-界联自然村,灵溪行政村-高墙自然村,牌联行政村-牌联自然村,板桥行政村-板桥自然村,环湖行政村-岙里自然村,三口行政村-三口自然村,上田行政村-上田自然村);板桥镇(杭州临安青山湖酷爱食品有限公司,杭州圣超新型建材有限公司,苏成,杭州磊钦渔具有限公司,临安市鸿森鞋业有限公司,杭州临安远方电缆厂,杭州海鑫纸业有限公司,临安腾鑫纸业有限公司,临安市惠民竹器厂,杭州越普机械有限公司,临安恒佳炭业有限公司,杭州管康塑业有限公司)一带","startTime":"2019-10-19 10:21:54","stopDate":"2019-10-19 12:35:31","orgNo":"3340160","typeCode":"电网故障停限电","poweroffArea":"110kV板桥变:秋口V542线秋口V542线5421开关后段","poweroffReason":"高压开关跳闸 原停电结束时间为2019-10-19 14:22:31,为减少客户停电时间,加快工作进度,提前送电,现变更停电结束时间为2019-10-19 12:35:31","powerTime":"2019-10-19 12:23:52","powerComm":"已送电","subsNo":"","lineNo":"","tgNo":"","tgName":null,"infoStatus":"1","orgName":"国网浙江临安市供电公司","typeName":null,"infoStatusName":null,"dateDay":null,"orgNos":null,"nowTime":null,"countyName":null,"streetName":null,"villageName":null,"roadName":null,"communityName":null,"tranName":null,"sdLineName":null,"cityCode":"3340160","cityName":"国网浙江临安市供电公司","provinceCode":null,"stopTime":"2019-10-19 12:35:31","powerType":"全部","powerOffArea":"110kV板桥变:秋口V542线秋口V542线5421开关后段","powerOffReason":"高压开关跳闸 原停电结束时间为2019-10-19 14:22:31,为减少客户停电时间,加快工作进度,提前送电,现变更停电结束时间为2019-10-19 12:35:31","powerOffId":"2019101931020077"},{"poweroffId":2019101931020073,"sgpoweroffId":null,"subsName":"","lineName":"10kV青何D731线","pubTranName":"唐昌村唐昌2#洛家门口公变,富阳华隆鞋业有限公司,昌岭村依洛1号蔡家公变,杭州好莳橡胶制品有限公司,唐昌村唐昌1号孙家公变,青何村民政1#虎啸亭公变,乐和村2#乐和公变,杭州市富阳区环境保护监测站,青何村青何3#大坞里公变,青何村龙峰1#袁家公变,昌岭村乐和5#后山公变,杭州富阳行之橡胶制品有限公司,富阳富源鞋业有限公司,青何村7号产坞里公变,昌岭村依洛5#公变,唐昌村青山1#石家公变,昌岭村乐和7号油车头公变,依洛村3号前坞公变,青何村青何1#翁家公变,杭州洲美转印制品有限公司,青何村青何2#殿边公变,青何村民政5#弯里公变,万瑞达纸业,唐昌村唐昌3号野猪殿公变,青何村龙峰2#朱家公变,青何村民政2号产坞公变,富阳市永昌青何竹器厂,唐昌村青山3#杨家公变,青何村民政4#上许家公变,杭州三江混凝土外加剂材料有限公司,富阳市永昌镇永乐耐火材料厂1#变,唐昌村青山5#侯家公变,青何村青何5#陈家墩公变,富阳市永昌镇国平竹制品加工厂,唐昌村青山2#楼家公变,青何村民政6号潘家坞公变,依洛村4#郑家公变,青何村民政3#下许家公变,富阳青山纸箱厂1#变,依洛村2#依洛公变,乐和村1号邵家公变,唐昌村青山4号唐村坞口公变,青何村龙峰3#李家公变,乐和村3号魏家公变,昌岭村乐和6号潘家公变,青何村青何4号凹坎坞公变,杭州富阳勋辉塑业有限公司,杭州富阳千禧笋厂,洲美2#变,乐和村4#花园里公变,","scope":"浙江省-杭州市-富阳区-永昌镇-青何行政村(民政自然村,龙峰自然村,青何自然村),永昌镇-唐昌行政村(唐昌自然村,青山自然村),永昌镇-昌岭行政村(魏家自然村,洛坞殿自然村,郑家自然村,乐和自然村,邵家自然村,后山自然村,昌岭自然村,花园里自然村,前坞自然村,依洛自然村,白峰山自然村,白栗山自然村,上蔡家自然村),永昌镇-永昌行政村-永昌自然村,春建乡-铁坎行政村-大目坞自然村;永昌镇(杭州富阳富源鞋业有限公司,杭州富阳勋辉塑业有限公司,杭州三江混凝土外加剂材料有限公司,杭州富阳华浩鞋业有限公司,富阳市永昌镇国平竹制品加工厂,杭州好莳橡胶制品有限公司,杭州富阳行之远橡塑制品有限公司,杭州富阳青山纸箱厂,杭州富阳万瑞达纸业有限公司,杭州洲美转印制品有限公司,杭州市富阳区环境保护监测站,杭州富阳千禧笋厂,杭州富阳青何竹制品有限公司,富阳市永昌镇永乐耐火材料厂)","startTime":"2019-10-19 10:09:00","stopDate":"2019-10-19 12:09:00","orgNo":"3340170","typeCode":"电网故障停限电","poweroffArea":"110kV松溪变:青何D731线青何D7314开关后段","poweroffReason":"高压开关跳闸","powerTime":"2019-10-19 11:59:02","powerComm":"已送电","subsNo":"","lineNo":"","tgNo":"","tgName":null,"infoStatus":"1","orgName":"国网浙江杭州市富阳区供电公司","typeName":null,"infoStatusName":null,"dateDay":null,"orgNos":null,"nowTime":null,"countyName":null,"streetName":null,"villageName":null,"roadName":null,"communityName":null,"tranName":null,"sdLineName":null,"cityCode":"3340170","cityName":"国网浙江杭州市富阳区供电公司","provinceCode":null,"stopTime":"2019-10-19 12:09:00","powerType":"全部","powerOffArea":"110kV松溪变:青何D731线青何D7314开关后段","powerOffReason":"高压开关跳闸","powerOffId":"2019101931020073"},{"poweroffId":2019101931020042,"sgpoweroffId":null,"subsName":"","lineName":"10kV徐坑Y774线","pubTranName":"岭源村外源台区,岭源村斗里台区,岭源村岭脚台区,建德壶笑天茶场,里塘垅台区,岭源村枧头台区,岭脚村岗上变台区,岭源村里何源台区,杭黄前VI标岭源外源村2#搅拌站,杭州杭千高速公路发展有限公司,岭源村虬村台区,","scope":"浙江省-杭州市-建德市-杨村桥镇-杨村桥行政村岭源自然村,岭源行政村岭脚自然村,外源自然村,岗上自然村,虬村自然村,里和自然村,枧头自然村,斗里自然村,杭州杭千高速公路发展有限公司,中铁三局集团桥隧工程有限公司,建德壶笑天茶场一带用户.","startTime":"2019-10-19 08:39:00","stopDate":"2019-10-19 11:00:00","orgNo":"3340180","typeCode":"电网故障停限电","poweroffArea":"110kV乾潭变:徐坑Y774线-里和支线0#真空开关后段","poweroffReason":"高压开关跳闸 原停电结束时间为2019-10-19 12:00:00,为减少客户停电时间,加快工作进度,提前送电,现变更停电结束时间为2019-10-19 11:00:00","powerTime":"2019-10-19 10:35:00","powerComm":"已送电","subsNo":"","lineNo":"","tgNo":"","tgName":null,"infoStatus":"1","orgName":"国网浙江建德市供电有限公司","typeName":null,"infoStatusName":null,"dateDay":null,"orgNos":null,"nowTime":null,"countyName":null,"streetName":null,"villageName":null,"roadName":null,"communityName":null,"tranName":null,"sdLineName":null,"cityCode":"3340180","cityName":"国网浙江建德市供电有限公司","provinceCode":null,"stopTime":"2019-10-19 11:00:00","powerType":"全部","powerOffArea":"110kV乾潭变:徐坑Y774线-里和支线0#真空开关后段","powerOffReason":"高压开关跳闸 原停电结束时间为2019-10-19 12:00:00,为减少客户停电时间,加快工作进度,提前送电,现变更停电结束时间为2019-10-19 11:00:00","powerOffId":"2019101931020042"},{"poweroffId":2019101931020027,"sgpoweroffId":null,"subsName":"","lineName":"10kV浦水C174线","pubTranName":"华东钢构2#,丁家庄3#变,杭州浦阳江水泥有限公司,杭州浦阳江水泥有限公司,浦水水泥厂2#,浦水水泥厂1#,华东钢构1#,","scope":"浙江省-杭州市-萧山区-义桥镇-丁家庄行政村(丁家庄自然村,戴家里自然村);浙江省-杭州市-萧山区-义桥镇-徐童山下行政村-杭州浦阳江水泥有限公司,义桥镇-丁家庄行政村(杭州浦阳江水泥有限公司,杭州萧山交投资产经营开发有限公司)一带","startTime":"2019-10-19 07:59:01","stopDate":"2019-10-19 09:59:01","orgNo":"3340130","typeCode":"电网故障停限电","poweroffArea":"110kV许贤变:浦水C174线-浦水C1741开关后段","poweroffReason":"高压开关跳闸","powerTime":"2019-10-19 09:07:10","powerComm":"已送电","subsNo":"","lineNo":"","tgNo":"","tgName":null,"infoStatus":"1","orgName":"国网浙江杭州市萧山区供电有限公司","typeName":null,"infoStatusName":null,"dateDay":null,"orgNos":null,"nowTime":null,"countyName":null,"streetName":null,"villageName":null,"roadName":null,"communityName":null,"tranName":null,"sdLineName":null,"cityCode":"3340130","cityName":"国网浙江杭州市萧山区供电有限公司","provinceCode":null,"stopTime":"2019-10-19 09:59:01","powerType":"全部","powerOffArea":"110kV许贤变:浦水C174线-浦水C1741开关后段","powerOffReason":"高压开关跳闸","powerOffId":"2019101931020027"},{"poweroffId":2019101931020021,"sgpoweroffId":null,"subsName":"","lineName":"10kV港城A815线","pubTranName":"岩峰村13#变,岩峰村6#变,杭州大宁油嘴油泵有限公司,岩峰小区1#变,1#变,杭州成邦沥青混凝土有限公司,岩峰村11#变,岩峰村5#变,南兴村9#变,5#变,杭州益森砂浆有限公司,岩峰村3#变,青龙内衣(1316105751),恒绣花边,杭州市萧山区人民政府南阳街道办事处,岩峰村10#变,岩峰村12#变,1#变,岩峰村18#变,岩峰村4#变,南兴村10#变,岩峰村9#变,岩峰村7#变,3#变,岩峰村14#变,4#变,岩峰村8#变,岩峰村17#变,2#变,岩峰村16#变,沈氏铝业(1321022628),南兴村18#变,锦鸿包装,岩峰村1#变,岩峰村15#变,南兴村15#变,萧山亚美精细化工厂(1315078249),","scope":"浙江省-杭州市-萧山区-南阳街道-横蓬行政村-横蓬自然村,南阳街道-南兴行政村(南北自然村,南兴自然村,南联自然村),南阳街道-岩峰行政村(岩峰自然村,港城大道,十米路);南阳街道-南兴行政村(华锦建设集团股份有限公司,中铁武汉电气化局集团工程有限公司),南阳街道-岩峰行政村(杭州益森实业有限公司,杭州青龙内衣厂,杭州沈士铝业有限公司,杭州锦鸿包装有限公司,杭州大宁油嘴油泵有限公司,杭州恒秀花边有限公司,杭州市萧山区人民政府南阳街道办事处),南阳街道(横蓬行政村-杭州萧山亚美精细化工有限公司,东风行政村-浙江德晨置业有限公司,龙虎行政村-杭州成邦沥青混凝土有限公司)、南阳街道岩峰行政村、南阳街道岩峰村461号一带","startTime":"2019-10-19 07:30:16","stopDate":"2019-10-19 10:36:16","orgNo":"3340130","typeCode":"电网故障停限电","poweroffArea":"110kV黎明变:港城A815线","poweroffReason":"高压柱上断路器短路故障 原停电结束时间: 2019-10-19 11:36:16,变更停电结束时间: 2019-10-19 10:36:16。由于抢修工作提前完成,故需要提前送电。","powerTime":"2019-10-19 09:54:03","powerComm":"已送电","subsNo":"","lineNo":"","tgNo":"","tgName":null,"infoStatus":"1","orgName":"国网浙江杭州市萧山区供电有限公司","typeName":null,"infoStatusName":null,"dateDay":null,"orgNos":null,"nowTime":null,"countyName":null,"streetName":null,"villageName":null,"roadName":null,"communityName":null,"tranName":null,"sdLineName":null,"cityCode":"3340130","cityName":"国网浙江杭州市萧山区供电有限公司","provinceCode":null,"stopTime":"2019-10-19 10:36:16","powerType":"全部","powerOffArea":"110kV黎明变:港城A815线","powerOffReason":"高压柱上断路器短路故障 原停电结束时间: 2019-10-19 11:36:16,变更停电结束时间: 2019-10-19 10:36:16。由于抢修工作提前完成,故需要提前送电。","powerOffId":"2019101931020021"},{"poweroffId":2019101931020017,"sgpoweroffId":null,"subsName":"","lineName":"10kV永磁A392线","pubTranName":"新北村3#变,","scope":"浙江省-杭州市-萧山区-宁围镇、宁围街道(盈一行政村-盈一自然村,二桥行政村-新北自然村)等一带","startTime":"2019-10-19 07:30:19","stopDate":"2019-10-19 18:55:19","orgNo":"3340130","typeCode":"电网故障停限电","poweroffArea":"110kV顺坝变:永磁A392线-新北村3#变台区低压开关","poweroffReason":"（低压停电信息）低压漏电保护器短路故障 原停电结束时间：2019-10-19 17:59:19，变更停电结束时间：2019-10-19 18:55:19，抢修工作尚未完成，仍需抢修。","powerTime":"2019-10-19 18:08:22","powerComm":"已送电","subsNo":"","lineNo":"","tgNo":"","tgName":null,"infoStatus":"1","orgName":"国网浙江杭州市萧山区供电有限公司","typeName":null,"infoStatusName":null,"dateDay":null,"orgNos":null,"nowTime":null,"countyName":null,"streetName":null,"villageName":null,"roadName":null,"communityName":null,"tranName":null,"sdLineName":null,"cityCode":"3340130","cityName":"国网浙江杭州市萧山区供电有限公司","provinceCode":null,"stopTime":"2019-10-19 18:55:19","powerType":"全部","powerOffArea":"110kV顺坝变:永磁A392线-新北村3#变台区低压开关","powerOffReason":"（低压停电信息）低压漏电保护器短路故障 原停电结束时间：2019-10-19 17:59:19，变更停电结束时间：2019-10-19 18:55:19，抢修工作尚未完成，仍需抢修。","powerOffId":"2019101931020017"},{"poweroffId":2019101831020692,"sgpoweroffId":null,"subsName":"","lineName":"10kV陡门H775线","pubTranName":"仙宅村林坞新村公变,","scope":"浙江省-杭州市-余杭区-余杭街道-仙宅行政村-新岭自然村","startTime":"2019-10-25 08:30:00","stopDate":"2019-10-25 15:40:00","orgNo":"3340140","typeCode":"临时停电","poweroffArea":"35kV长岗临时变:陡门H775线-仙宅村林坞新村公变后段浙江省杭州市余杭区余杭街道仙宅村林坞新村一带","poweroffReason":"(低压停电信息)计划工作 原停电结束时间为2019-10-25 17:00:00,为减少客户停电时间,加快工作进度,提前送电,现变更停电结束时间为2019-10-25 15:40:00","powerTime":"2019-10-25 15:18:08","powerComm":"已送电","subsNo":"","lineNo":"","tgNo":"","tgName":null,"infoStatus":"1","orgName":"国网浙江杭州市余杭区供电有限公司","typeName":null,"infoStatusName":null,"dateDay":null,"orgNos":null,"nowTime":null,"countyName":null,"streetName":null,"villageName":null,"roadName":null,"communityName":null,"tranName":null,"sdLineName":null,"cityCode":"3340140","cityName":"国网浙江杭州市余杭区供电有限公司","provinceCode":null,"stopTime":"2019-10-25 15:40:00","powerType":"全部","powerOffArea":"35kV长岗临时变:陡门H775线-仙宅村林坞新村公变后段浙江省杭州市余杭区余杭街道仙宅村林坞新村一带","powerOffReason":"(低压停电信息)计划工作 原停电结束时间为2019-10-25 17:00:00,为减少客户停电时间,加快工作进度,提前送电,现变更停电结束时间为2019-10-25 15:40:00","powerOffId":"2019101831020692"},{"poweroffId":2019101831020684,"sgpoweroffId":null,"subsName":"","lineName":"10kV高地G917线","pubTranName":"高地5组3号公变,","scope":"浙江省-杭州市-余杭区-南苑街道-高地社区-高地","startTime":"2019-10-18 18:51:00","stopDate":"2019-10-18 20:51:00","orgNo":"3340140","typeCode":"电网故障停限电","poweroffArea":"110kV庙港变:高地G917线高地5组3号公变配变","poweroffReason":"高压开关跳闸","powerTime":"2019-10-18 20:12:00","powerComm":"已送电","subsNo":"","lineNo":"","tgNo":"","tgName":null,"infoStatus":"1","orgName":"国网浙江杭州市余杭区供电有限公司","typeName":null,"infoStatusName":null,"dateDay":null,"orgNos":null,"nowTime":null,"countyName":null,"streetName":null,"villageName":null,"roadName":null,"communityName":null,"tranName":null,"sdLineName":null,"cityCode":"3340140","cityName":"国网浙江杭州市余杭区供电有限公司","provinceCode":null,"stopTime":"2019-10-18 20:51:00","powerType":"全部","powerOffArea":"110kV庙港变:高地G917线高地5组3号公变配变","powerOffReason":"高压开关跳闸","powerOffId":"2019101831020684"}],"pageModel":{"pageNow":981,"totalCount":17789,"totalPage":1779,"tableRows":0,"pageCount":10,"beginCount":9800},"isExperi":"1"}