{"message":"","today":"2020-06-16","seleList":[{"poweroffId":2019101831020630,"sgpoweroffId":null,"subsName":"","lineName":"10kV富华D230线","pubTranName":"杭州中宙建工集团有限公司1#变,","scope":"浙江省杭州市富阳区银湖街道中宙建工集团有限公司一带","startTime":"2019-10-28 08:40:00","stopDate":"2019-10-28 17:00:00","orgNo":"3340170","typeCode":"计划停电","poweroffArea":"110kV银湖变:富华D230线-富阳市工贸资产经营投资集团有限公司后段","poweroffReason":"配合客户内部检修","powerTime":"2019-10-28 16:50:56","powerComm":"已送电","subsNo":"","lineNo":"","tgNo":"","tgName":null,"infoStatus":"1","orgName":"国网浙江杭州市富阳区供电公司","typeName":null,"infoStatusName":null,"dateDay":null,"orgNos":null,"nowTime":null,"countyName":null,"streetName":null,"villageName":null,"roadName":null,"communityName":null,"tranName":null,"sdLineName":null,"cityCode":"3340170","cityName":"国网浙江杭州市富阳区供电公司","provinceCode":null,"stopTime":"2019-10-28 17:00:00","powerType":"全部","powerOffArea":"110kV银湖变:富华D230线-富阳市工贸资产经营投资集团有限公司后段","powerOffReason":"配合客户内部检修","powerOffId":"2019101831020630"},{"poweroffId":2019101831020629,"sgpoweroffId":null,"subsName":"","lineName":"10kV胥口D712线","pubTranName":"元村村6#村委边公变,","scope":"浙江省杭州市富阳区新登镇元村村委边自然村一带","startTime":"2019-10-31 08:30:00","stopDate":"2019-10-31 16:30:00","orgNo":"3340170","typeCode":"计划停电","poweroffArea":"110kV松溪变:胥口D712线-元村村6#村委边公变低压开关后段","poweroffReason":"(低压停电信息)新兴西路电力线路改造工程：元村6#村委边公变01线、02线、03线线路改电缆低压割接、电缆进户、交接箱搭接等工作","powerTime":"2019-10-31 16:03:02","powerComm":"已送电","subsNo":"","lineNo":"","tgNo":"","tgName":null,"infoStatus":"1","orgName":"国网浙江杭州市富阳区供电公司","typeName":null,"infoStatusName":null,"dateDay":null,"orgNos":null,"nowTime":null,"countyName":null,"streetName":null,"villageName":null,"roadName":null,"communityName":null,"tranName":null,"sdLineName":null,"cityCode":"3340170","cityName":"国网浙江杭州市富阳区供电公司","provinceCode":null,"stopTime":"2019-10-31 16:30:00","powerType":"全部","powerOffArea":"110kV松溪变:胥口D712线-元村村6#村委边公变低压开关后段","powerOffReason":"(低压停电信息)新兴西路电力线路改造工程：元村6#村委边公变01线、02线、03线线路改电缆低压割接、电缆进户、交接箱搭接等工作","powerOffId":"2019101831020629"},{"poweroffId":2019101831020628,"sgpoweroffId":null,"subsName":"","lineName":"10kV祥高7409线","pubTranName":"石桥(二),","scope":"浙江省-杭州市-下城区(东新街道-长青苑社区-东新路,石桥街道-石桥社区-石祥路)，浙江省杭州市下城区石桥苑46-50号、明珠实验小学、幼儿园附近，杭州市路灯管理所","startTime":"2019-11-01 12:50:00","stopDate":"2019-11-01 20:00:00","orgNo":"3340101","typeCode":"计划停电","poweroffArea":"110kV安桥变:祥高7409线-华经站2#间隔石桥二分线、华经站3#间隔","poweroffReason":"杭州市路灯管理所迁址，T接箱拆头停通电 原停电结束时间为2019-11-01 17:30:00,因工程量大原因,现变更停电结束时间为2019-11-01 20:00:00","powerTime":"2019-11-01 19:02:16","powerComm":"已送电","subsNo":"","lineNo":"","tgNo":"","tgName":null,"infoStatus":"1","orgName":"浙江杭州电力客户服务中心","typeName":null,"infoStatusName":null,"dateDay":null,"orgNos":null,"nowTime":null,"countyName":null,"streetName":null,"villageName":null,"roadName":null,"communityName":null,"tranName":null,"sdLineName":null,"cityCode":"3340101","cityName":"浙江杭州电力客户服务中心","provinceCode":null,"stopTime":"2019-11-01 20:00:00","powerType":"全部","powerOffArea":"110kV安桥变:祥高7409线-华经站2#间隔石桥二分线、华经站3#间隔","powerOffReason":"杭州市路灯管理所迁址，T接箱拆头停通电 原停电结束时间为2019-11-01 17:30:00,因工程量大原因,现变更停电结束时间为2019-11-01 20:00:00","powerOffId":"2019101831020628"},{"poweroffId":2019101831020625,"sgpoweroffId":null,"subsName":"","lineName":"10kV隆河7304线","pubTranName":"杨荷,","scope":"浙江省-杭州市-拱墅区-小河街道-董家新村社区(莫干山路,和睦路),和睦街道-和睦社区-和睦路,小河街道-小河社区-小河路，浙江省杭州市拱墅区三宝新村5-1幢、5-2幢、家友超市、农贸市场附近","startTime":"2019-10-30 09:30:00","stopDate":"2019-10-30 15:30:00","orgNo":"3340101","typeCode":"计划停电","poweroffArea":"220kV登云变:隆河7304线-杨荷分线（三宝站-杨荷分站）","poweroffReason":"2019年杭州市区三宝新村等公变增容布点及低压台区改造二期工程 1、低压电缆拆、搭头试验。 原停电结束时间为2019-10-30 17:30:00,为减少客户停电时间,加快工作进度,提前送电,现变更停电结束时间为2019-10-30 15:30:00","powerTime":"2019-10-30 15:00:59","powerComm":"已送电","subsNo":"","lineNo":"","tgNo":"","tgName":null,"infoStatus":"1","orgName":"浙江杭州电力客户服务中心","typeName":null,"infoStatusName":null,"dateDay":null,"orgNos":null,"nowTime":null,"countyName":null,"streetName":null,"villageName":null,"roadName":null,"communityName":null,"tranName":null,"sdLineName":null,"cityCode":"3340101","cityName":"浙江杭州电力客户服务中心","provinceCode":null,"stopTime":"2019-10-30 15:30:00","powerType":"全部","powerOffArea":"220kV登云变:隆河7304线-杨荷分线（三宝站-杨荷分站）","powerOffReason":"2019年杭州市区三宝新村等公变增容布点及低压台区改造二期工程 1、低压电缆拆、搭头试验。 原停电结束时间为2019-10-30 17:30:00,为减少客户停电时间,加快工作进度,提前送电,现变更停电结束时间为2019-10-30 15:30:00","powerOffId":"2019101831020625"},{"poweroffId":2019101831020624,"sgpoweroffId":null,"subsName":"","lineName":"10kV七登8767线","pubTranName":"陆坞五,","scope":"浙江省-杭州市-拱墅区-上塘街道-拱宸社区-陆家坞，浙江省杭州市拱墅区上塘路与上绍路交叉口东南侧附近","startTime":"2019-10-30 09:30:00","stopDate":"2019-10-30 17:00:00","orgNo":"3340101","typeCode":"计划停电","poweroffArea":"110kV大关变:七登8767线-陆坞三五线（陆坞三站-陆坞五站），陆坞五配变、陆坞五站3#间隔，置古站13#间隔","poweroffReason":"拱宸社区陆家坞地块整治项目电力（永久）上改下工程 原停电结束时间为2019-10-30 16:30:00,因工程量大原因,现变更停电结束时间为2019-10-30 17:00:00","powerTime":"2019-10-30 16:02:59","powerComm":"已送电","subsNo":"","lineNo":"","tgNo":"","tgName":null,"infoStatus":"1","orgName":"浙江杭州电力客户服务中心","typeName":null,"infoStatusName":null,"dateDay":null,"orgNos":null,"nowTime":null,"countyName":null,"streetName":null,"villageName":null,"roadName":null,"communityName":null,"tranName":null,"sdLineName":null,"cityCode":"3340101","cityName":"浙江杭州电力客户服务中心","provinceCode":null,"stopTime":"2019-10-30 17:00:00","powerType":"全部","powerOffArea":"110kV大关变:七登8767线-陆坞三五线（陆坞三站-陆坞五站），陆坞五配变、陆坞五站3#间隔，置古站13#间隔","powerOffReason":"拱宸社区陆家坞地块整治项目电力（永久）上改下工程 原停电结束时间为2019-10-30 16:30:00,因工程量大原因,现变更停电结束时间为2019-10-30 17:00:00","powerOffId":"2019101831020624"},{"poweroffId":2019101831020622,"sgpoweroffId":null,"subsName":"","lineName":"10kV钢厂8453线","pubTranName":"灯充,","scope":"浙江省-杭州市-拱墅区-半山街道-半山社区-沈半路，浙江省杭州市拱墅区沈半路279号附近充电桩","startTime":"2019-10-30 09:30:00","stopDate":"2019-10-30 13:00:00","orgNo":"3340101","typeCode":"计划停电","poweroffArea":"110kV永宁变:钢厂8453线-灯市站灯充分线","poweroffReason":"原停电结束时间为2019-10-30 12:00:00,因工程量大原因,现变更停电结束时间为2019-10-30 13:00:00","powerTime":"2019-10-30 12:15:59","powerComm":"已送电","subsNo":"","lineNo":"","tgNo":"","tgName":null,"infoStatus":"1","orgName":"浙江杭州电力客户服务中心","typeName":null,"infoStatusName":null,"dateDay":null,"orgNos":null,"nowTime":null,"countyName":null,"streetName":null,"villageName":null,"roadName":null,"communityName":null,"tranName":null,"sdLineName":null,"cityCode":"3340101","cityName":"浙江杭州电力客户服务中心","provinceCode":null,"stopTime":"2019-10-30 13:00:00","powerType":"全部","powerOffArea":"110kV永宁变:钢厂8453线-灯市站灯充分线","powerOffReason":"原停电结束时间为2019-10-30 12:00:00,因工程量大原因,现变更停电结束时间为2019-10-30 13:00:00","powerOffId":"2019101831020622"},{"poweroffId":2019101831020621,"sgpoweroffId":null,"subsName":"","lineName":"10kV杭办6862线","pubTranName":"红道(三),","scope":"浙江省-杭州市-拱墅区-大关街道-香积社区-香积寺路，无低压用户","startTime":"2019-10-29 09:30:00","stopDate":"2019-10-29 12:00:00","orgNo":"3340101","typeCode":"计划停电","poweroffArea":"110kV文化变:杭办6862线-香红分线（香巷分站-红道三站）","poweroffReason":"红道三站、红道（三）欧变拆除 原停电结束时间为2019-10-29 17:30:00,为减少客户停电时间,加快工作进度,提前送电,现变更停电结束时间为2019-10-29 12:00:00","powerTime":"2019-10-29 11:14:49","powerComm":"已送电","subsNo":"","lineNo":"","tgNo":"","tgName":null,"infoStatus":"1","orgName":"浙江杭州电力客户服务中心","typeName":null,"infoStatusName":null,"dateDay":null,"orgNos":null,"nowTime":null,"countyName":null,"streetName":null,"villageName":null,"roadName":null,"communityName":null,"tranName":null,"sdLineName":null,"cityCode":"3340101","cityName":"浙江杭州电力客户服务中心","provinceCode":null,"stopTime":"2019-10-29 12:00:00","powerType":"全部","powerOffArea":"110kV文化变:杭办6862线-香红分线（香巷分站-红道三站）","powerOffReason":"红道三站、红道（三）欧变拆除 原停电结束时间为2019-10-29 17:30:00,为减少客户停电时间,加快工作进度,提前送电,现变更停电结束时间为2019-10-29 12:00:00","powerOffId":"2019101831020621"},{"poweroffId":2019101831020617,"sgpoweroffId":null,"subsName":"","lineName":"10kV四联D961线","pubTranName":"四联村6#高坞公变,","scope":"浙江省杭州市富阳区银湖街道四联村一带","startTime":"2019-10-31 09:15:00","stopDate":"2019-10-31 13:00:00","orgNo":"3340170","typeCode":"计划停电","poweroffArea":"110kV九龙变:四联D961线-四联村6#高坞公变后段","poweroffReason":"迎东2019年周公坞村2#斜坞口公变等0.4KV低压线路改造工程：四联6#高坞公变换配电屏一组、拆装低压进、出线电缆等工作","powerTime":"2019-10-31 12:14:04","powerComm":"已送电","subsNo":"","lineNo":"","tgNo":"","tgName":null,"infoStatus":"1","orgName":"国网浙江杭州市富阳区供电公司","typeName":null,"infoStatusName":null,"dateDay":null,"orgNos":null,"nowTime":null,"countyName":null,"streetName":null,"villageName":null,"roadName":null,"communityName":null,"tranName":null,"sdLineName":null,"cityCode":"3340170","cityName":"国网浙江杭州市富阳区供电公司","provinceCode":null,"stopTime":"2019-10-31 13:00:00","powerType":"全部","powerOffArea":"110kV九龙变:四联D961线-四联村6#高坞公变后段","powerOffReason":"迎东2019年周公坞村2#斜坞口公变等0.4KV低压线路改造工程：四联6#高坞公变换配电屏一组、拆装低压进、出线电缆等工作","powerOffId":"2019101831020617"},{"poweroffId":2019101831020616,"sgpoweroffId":null,"subsName":"","lineName":"10kV石墓D217线","pubTranName":"郜村宋家塘1#黄溪洋公变,","scope":"浙江省杭州市富阳区银湖街道宋家塘村一带","startTime":"2019-10-30 17:10:00","stopDate":"2019-10-30 18:10:00","orgNo":"3340170","typeCode":"计划停电","poweroffArea":"110kV银湖变:石墓D217线-郜村宋家塘1#黄溪洋公变后段","poweroffReason":"郜村宋家塘1#黄溪洋公变低压由发电机改接至变压器","powerTime":"2019-10-30 17:43:04","powerComm":"已送电","subsNo":"","lineNo":"","tgNo":"","tgName":null,"infoStatus":"1","orgName":"国网浙江杭州市富阳区供电公司","typeName":null,"infoStatusName":null,"dateDay":null,"orgNos":null,"nowTime":null,"countyName":null,"streetName":null,"villageName":null,"roadName":null,"communityName":null,"tranName":null,"sdLineName":null,"cityCode":"3340170","cityName":"国网浙江杭州市富阳区供电公司","provinceCode":null,"stopTime":"2019-10-30 18:10:00","powerType":"全部","powerOffArea":"110kV银湖变:石墓D217线-郜村宋家塘1#黄溪洋公变后段","powerOffReason":"郜村宋家塘1#黄溪洋公变低压由发电机改接至变压器","powerOffId":"2019101831020616"},{"poweroffId":2019101831020615,"sgpoweroffId":null,"subsName":"","lineName":"10kV上陈D295线","pubTranName":"周公坞村3号村委口公变,","scope":"浙江省杭州市富阳区银湖街道周公坞村一带","startTime":"2019-10-31 13:10:00","stopDate":"2019-10-31 17:30:00","orgNo":"3340170","typeCode":"计划停电","poweroffArea":"35kV新义变:上陈D295线-周公坞村3号村委口公变后段","poweroffReason":"迎东2019年周公坞村2#斜坞口公变等0.4KV低压线路改造工程：周公坞村3#村委公变、更换配电屏一组、进线电缆一根、拆装低压出线电缆等工作","powerTime":"2019-10-31 17:20:21","powerComm":"已送电","subsNo":"","lineNo":"","tgNo":"","tgName":null,"infoStatus":"1","orgName":"国网浙江杭州市富阳区供电公司","typeName":null,"infoStatusName":null,"dateDay":null,"orgNos":null,"nowTime":null,"countyName":null,"streetName":null,"villageName":null,"roadName":null,"communityName":null,"tranName":null,"sdLineName":null,"cityCode":"3340170","cityName":"国网浙江杭州市富阳区供电公司","provinceCode":null,"stopTime":"2019-10-31 17:30:00","powerType":"全部","powerOffArea":"35kV新义变:上陈D295线-周公坞村3号村委口公变后段","powerOffReason":"迎东2019年周公坞村2#斜坞口公变等0.4KV低压线路改造工程：周公坞村3#村委公变、更换配电屏一组、进线电缆一根、拆装低压出线电缆等工作","powerOffId":"2019101831020615"}],"pageModel":{"pageNow":984,"totalCount":17789,"totalPage":1779,"tableRows":0,"pageCount":10,"beginCount":9830},"isExperi":"1"}