{"message":"","today":"2020-06-16","seleList":[{"poweroffId":2019101831020601,"sgpoweroffId":null,"subsName":"","lineName":"10kV石墓D217线","pubTranName":"富阳千禧园艺场,","scope":"浙江省-杭州市-富阳区-银湖街道-郜村行政村-杭州富阳千禧园艺场农家乐","startTime":"2019-10-30 06:10:00","stopDate":"2019-10-30 16:00:00","orgNo":"3340170","typeCode":"计划停电","poweroffArea":"110kV银湖变:石墓D217线-千禧园分线后段","poweroffReason":"配合客户内部检修","powerTime":"2019-10-30 15:50:03","powerComm":"已送电","subsNo":"","lineNo":"","tgNo":"","tgName":null,"infoStatus":"1","orgName":"国网浙江杭州市富阳区供电公司","typeName":null,"infoStatusName":null,"dateDay":null,"orgNos":null,"nowTime":null,"countyName":null,"streetName":null,"villageName":null,"roadName":null,"communityName":null,"tranName":null,"sdLineName":null,"cityCode":"3340170","cityName":"国网浙江杭州市富阳区供电公司","provinceCode":null,"stopTime":"2019-10-30 16:00:00","powerType":"全部","powerOffArea":"110kV银湖变:石墓D217线-千禧园分线后段","powerOffReason":"配合客户内部检修","powerOffId":"2019101831020601"},{"poweroffId":2019101831020597,"sgpoweroffId":null,"subsName":"","lineName":"10kV石墓D217线","pubTranName":"郜村宋家塘横溪洋里5#公变,","scope":"浙江省杭州市富阳区银湖街道宋家塘村一带","startTime":"2019-10-30 07:30:00","stopDate":"2019-10-30 08:30:00","orgNo":"3340170","typeCode":"计划停电","poweroffArea":"110kV银湖变:石墓D217线-郜村宋家塘横溪洋里5#公变后段","poweroffReason":"郜村宋家塘横溪洋里5#公变低压由变压器改接至发电机","powerTime":"2019-10-30 08:22:18","powerComm":"已送电","subsNo":"","lineNo":"","tgNo":"","tgName":null,"infoStatus":"1","orgName":"国网浙江杭州市富阳区供电公司","typeName":null,"infoStatusName":null,"dateDay":null,"orgNos":null,"nowTime":null,"countyName":null,"streetName":null,"villageName":null,"roadName":null,"communityName":null,"tranName":null,"sdLineName":null,"cityCode":"3340170","cityName":"国网浙江杭州市富阳区供电公司","provinceCode":null,"stopTime":"2019-10-30 08:30:00","powerType":"全部","powerOffArea":"110kV银湖变:石墓D217线-郜村宋家塘横溪洋里5#公变后段","powerOffReason":"郜村宋家塘横溪洋里5#公变低压由变压器改接至发电机","powerOffId":"2019101831020597"},{"poweroffId":2019101831020596,"sgpoweroffId":null,"subsName":"","lineName":"10kV石墓D217线","pubTranName":"上大庄村8号下横溪洋公变,","scope":"浙江省杭州市富阳区银湖街道上大庄村一带","startTime":"2019-10-30 07:30:00","stopDate":"2019-10-30 08:30:00","orgNo":"3340170","typeCode":"计划停电","poweroffArea":"110kV银湖变:石墓D217线-上大庄村8号下横溪洋公变后段","poweroffReason":"上大庄村8#下横溪洋公变低压由变压器改接至发电机","powerTime":"2019-10-30 08:22:09","powerComm":"已送电","subsNo":"","lineNo":"","tgNo":"","tgName":null,"infoStatus":"1","orgName":"国网浙江杭州市富阳区供电公司","typeName":null,"infoStatusName":null,"dateDay":null,"orgNos":null,"nowTime":null,"countyName":null,"streetName":null,"villageName":null,"roadName":null,"communityName":null,"tranName":null,"sdLineName":null,"cityCode":"3340170","cityName":"国网浙江杭州市富阳区供电公司","provinceCode":null,"stopTime":"2019-10-30 08:30:00","powerType":"全部","powerOffArea":"110kV银湖变:石墓D217线-上大庄村8号下横溪洋公变后段","powerOffReason":"上大庄村8#下横溪洋公变低压由变压器改接至发电机","powerOffId":"2019101831020596"},{"poweroffId":2019101831020595,"sgpoweroffId":null,"subsName":"","lineName":"10kV石墓D217线","pubTranName":"郜村宋家塘1#黄溪洋公变,","scope":"浙江省杭州市富阳区银湖街道宋家塘村一带","startTime":"2019-10-30 07:30:00","stopDate":"2019-10-30 08:30:00","orgNo":"3340170","typeCode":"计划停电","poweroffArea":"110kV银湖变:石墓D217线-郜村宋家塘1#黄溪洋公变后段","poweroffReason":"郜村宋家塘1#黄溪洋公变低压由变压器改接至发电机","powerTime":"2019-10-30 08:22:00","powerComm":"已送电","subsNo":"","lineNo":"","tgNo":"","tgName":null,"infoStatus":"1","orgName":"国网浙江杭州市富阳区供电公司","typeName":null,"infoStatusName":null,"dateDay":null,"orgNos":null,"nowTime":null,"countyName":null,"streetName":null,"villageName":null,"roadName":null,"communityName":null,"tranName":null,"sdLineName":null,"cityCode":"3340170","cityName":"国网浙江杭州市富阳区供电公司","provinceCode":null,"stopTime":"2019-10-30 08:30:00","powerType":"全部","powerOffArea":"110kV银湖变:石墓D217线-郜村宋家塘1#黄溪洋公变后段","powerOffReason":"郜村宋家塘1#黄溪洋公变低压由变压器改接至发电机","powerOffId":"2019101831020595"},{"poweroffId":2019101831020593,"sgpoweroffId":null,"subsName":"","lineName":"10kV石墓D217线","pubTranName":"郜村宋家塘3号野亩垅公变,郜村宋家塘2号北渠边公变,富阳市皇天畈水利管理处,富阳锦冠生态农业开发有限公司,宋家塘野亩垄2#桥头公变,","scope":"浙江省杭州市富阳区银湖街道宋家塘村一带","startTime":"2019-10-30 08:20:00","stopDate":"2019-10-30 08:30:00","orgNo":"3340170","typeCode":"计划停电","poweroffArea":"110kV银湖变:石墓D217线-宋家塘分线后段","poweroffReason":"10kV发电车倒负荷短时停电","powerTime":"2019-10-30 08:21:46","powerComm":"已送电","subsNo":"","lineNo":"","tgNo":"","tgName":null,"infoStatus":"1","orgName":"国网浙江杭州市富阳区供电公司","typeName":null,"infoStatusName":null,"dateDay":null,"orgNos":null,"nowTime":null,"countyName":null,"streetName":null,"villageName":null,"roadName":null,"communityName":null,"tranName":null,"sdLineName":null,"cityCode":"3340170","cityName":"国网浙江杭州市富阳区供电公司","provinceCode":null,"stopTime":"2019-10-30 08:30:00","powerType":"全部","powerOffArea":"110kV银湖变:石墓D217线-宋家塘分线后段","powerOffReason":"10kV发电车倒负荷短时停电","powerOffId":"2019101831020593"},{"poweroffId":2019101831020591,"sgpoweroffId":null,"subsName":"","lineName":"10kV石墓D217线","pubTranName":"上大庄村11号下横溪洋公变,","scope":"浙江省杭州市富阳区银湖街道上大庄村一带","startTime":"2019-10-30 06:30:00","stopDate":"2019-10-30 07:30:00","orgNo":"3340170","typeCode":"计划停电","poweroffArea":"110kV银湖变:石墓D217线-上大庄村11号下横溪洋公变后段","poweroffReason":"上大庄村11号下横溪洋公变低压由变压器改接至发电机","powerTime":"2019-10-30 07:20:33","powerComm":"已送电","subsNo":"","lineNo":"","tgNo":"","tgName":null,"infoStatus":"1","orgName":"国网浙江杭州市富阳区供电公司","typeName":null,"infoStatusName":null,"dateDay":null,"orgNos":null,"nowTime":null,"countyName":null,"streetName":null,"villageName":null,"roadName":null,"communityName":null,"tranName":null,"sdLineName":null,"cityCode":"3340170","cityName":"国网浙江杭州市富阳区供电公司","provinceCode":null,"stopTime":"2019-10-30 07:30:00","powerType":"全部","powerOffArea":"110kV银湖变:石墓D217线-上大庄村11号下横溪洋公变后段","powerOffReason":"上大庄村11号下横溪洋公变低压由变压器改接至发电机","powerOffId":"2019101831020591"},{"poweroffId":2019101831020590,"sgpoweroffId":null,"subsName":"","lineName":"10kV三山D402线","pubTranName":"浙江鑫耐铝熔铸设备材料有限公司1#,","scope":"浙江省-杭州市-富阳区-鹿山街道-鹿山工业园区-浙江鑫耐铝熔铸设备材料有限公司","startTime":"2019-10-29 08:10:00","stopDate":"2019-10-29 17:00:00","orgNo":"3340170","typeCode":"计划停电","poweroffArea":"110kV长春变:三山D402线-鑫耐铝熔铸进线后段","poweroffReason":"配合客户内部检修 原停电结束时间为2019-10-29 13:10:00,因工作复杂原因,现变更停电结束时间为2019-10-29 17:00:00","powerTime":"2019-10-29 16:06:03","powerComm":"已送电","subsNo":"","lineNo":"","tgNo":"","tgName":null,"infoStatus":"1","orgName":"国网浙江杭州市富阳区供电公司","typeName":null,"infoStatusName":null,"dateDay":null,"orgNos":null,"nowTime":null,"countyName":null,"streetName":null,"villageName":null,"roadName":null,"communityName":null,"tranName":null,"sdLineName":null,"cityCode":"3340170","cityName":"国网浙江杭州市富阳区供电公司","provinceCode":null,"stopTime":"2019-10-29 17:00:00","powerType":"全部","powerOffArea":"110kV长春变:三山D402线-鑫耐铝熔铸进线后段","powerOffReason":"配合客户内部检修 原停电结束时间为2019-10-29 13:10:00,因工作复杂原因,现变更停电结束时间为2019-10-29 17:00:00","powerOffId":"2019101831020590"},{"poweroffId":2019101831020589,"sgpoweroffId":null,"subsName":"","lineName":"10kV石墓D217线","pubTranName":"上大庄村4#横溪洋公变,","scope":"浙江省杭州市富阳区银湖街道上大庄村一带","startTime":"2019-10-30 06:30:00","stopDate":"2019-10-30 07:30:00","orgNo":"3340170","typeCode":"计划停电","poweroffArea":"110kV银湖变:石墓D217线-上大庄村4#横溪洋公变后段","poweroffReason":"上大庄村4#横溪洋公变低压由变压器改接至发电机","powerTime":"2019-10-30 07:20:21","powerComm":"已送电","subsNo":"","lineNo":"","tgNo":"","tgName":null,"infoStatus":"1","orgName":"国网浙江杭州市富阳区供电公司","typeName":null,"infoStatusName":null,"dateDay":null,"orgNos":null,"nowTime":null,"countyName":null,"streetName":null,"villageName":null,"roadName":null,"communityName":null,"tranName":null,"sdLineName":null,"cityCode":"3340170","cityName":"国网浙江杭州市富阳区供电公司","provinceCode":null,"stopTime":"2019-10-30 07:30:00","powerType":"全部","powerOffArea":"110kV银湖变:石墓D217线-上大庄村4#横溪洋公变后段","powerOffReason":"上大庄村4#横溪洋公变低压由变压器改接至发电机","powerOffId":"2019101831020589"},{"poweroffId":2019101831020588,"sgpoweroffId":null,"subsName":"","lineName":"10kV石墓D217线","pubTranName":"上大庄村15号下横溪洋公变,","scope":"浙江省杭州市富阳区银湖街道上大庄村一带","startTime":"2019-10-30 06:30:00","stopDate":"2019-10-30 07:30:00","orgNo":"3340170","typeCode":"计划停电","poweroffArea":"110kV银湖变:石墓D217线-上大庄村15号下横溪洋公变后段","poweroffReason":"上大庄村15号下横溪洋公变低压由变压器改接至发电机","powerTime":"2019-10-30 07:20:09","powerComm":"已送电","subsNo":"","lineNo":"","tgNo":"","tgName":null,"infoStatus":"1","orgName":"国网浙江杭州市富阳区供电公司","typeName":null,"infoStatusName":null,"dateDay":null,"orgNos":null,"nowTime":null,"countyName":null,"streetName":null,"villageName":null,"roadName":null,"communityName":null,"tranName":null,"sdLineName":null,"cityCode":"3340170","cityName":"国网浙江杭州市富阳区供电公司","provinceCode":null,"stopTime":"2019-10-30 07:30:00","powerType":"全部","powerOffArea":"110kV银湖变:石墓D217线-上大庄村15号下横溪洋公变后段","powerOffReason":"上大庄村15号下横溪洋公变低压由变压器改接至发电机","powerOffId":"2019101831020588"},{"poweroffId":2019101831020587,"sgpoweroffId":null,"subsName":"","lineName":"10kV上陈D295线","pubTranName":"周公坞村2号公变,","scope":"浙江省杭州市富阳区银湖街道周公坞村一带","startTime":"2019-10-29 13:10:00","stopDate":"2019-10-29 17:30:00","orgNo":"3340170","typeCode":"计划停电","poweroffArea":"35kV新义变:上陈D295线-周公坞村2号公变后段","poweroffReason":"迎东2019年周公坞村2#斜坞口公变等0.4KV低压线路改造工程：周公坞村2号公变、更换配电屏一组、进线电缆一根、拆装低压出线电缆等工作","powerTime":"2019-10-29 16:36:26","powerComm":"已送电","subsNo":"","lineNo":"","tgNo":"","tgName":null,"infoStatus":"1","orgName":"国网浙江杭州市富阳区供电公司","typeName":null,"infoStatusName":null,"dateDay":null,"orgNos":null,"nowTime":null,"countyName":null,"streetName":null,"villageName":null,"roadName":null,"communityName":null,"tranName":null,"sdLineName":null,"cityCode":"3340170","cityName":"国网浙江杭州市富阳区供电公司","provinceCode":null,"stopTime":"2019-10-29 17:30:00","powerType":"全部","powerOffArea":"35kV新义变:上陈D295线-周公坞村2号公变后段","powerOffReason":"迎东2019年周公坞村2#斜坞口公变等0.4KV低压线路改造工程：周公坞村2号公变、更换配电屏一组、进线电缆一根、拆装低压出线电缆等工作","powerOffId":"2019101831020587"}],"pageModel":{"pageNow":986,"totalCount":17789,"totalPage":1779,"tableRows":0,"pageCount":10,"beginCount":9850},"isExperi":"1"}