{"message":"","today":"2020-06-16","seleList":[{"poweroffId":2019101831020493,"sgpoweroffId":null,"subsName":"","lineName":"10kV富华D230线","pubTranName":"浙江交工集团股份有限公司,","scope":"浙江省-杭州市-富阳区-富春街道-金桥社区-浙江交工集团股份有限公司","startTime":"2019-10-28 07:40:00","stopDate":"2019-10-28 17:00:00","orgNo":"3340170","typeCode":"计划停电","poweroffArea":"110kV银湖变:富华D230线-浙江交工集团股份有限公司后段","poweroffReason":"配合客户内部检修，因政策原因，变更停电地理区域","powerTime":"2019-10-28 16:51:23","powerComm":"已送电","subsNo":"","lineNo":"","tgNo":"","tgName":null,"infoStatus":"1","orgName":"国网浙江杭州市富阳区供电公司","typeName":null,"infoStatusName":null,"dateDay":null,"orgNos":null,"nowTime":null,"countyName":null,"streetName":null,"villageName":null,"roadName":null,"communityName":null,"tranName":null,"sdLineName":null,"cityCode":"3340170","cityName":"国网浙江杭州市富阳区供电公司","provinceCode":null,"stopTime":"2019-10-28 17:00:00","powerType":"全部","powerOffArea":"110kV银湖变:富华D230线-浙江交工集团股份有限公司后段","powerOffReason":"配合客户内部检修，因政策原因，变更停电地理区域","powerOffId":"2019101831020493"},{"poweroffId":2019101831020492,"sgpoweroffId":null,"subsName":"","lineName":"10kV富华D230线","pubTranName":"杭州富阳永达金属制品有限公司,","scope":"浙江省杭州市富阳区银湖街道永达金属制品有限公司一带","startTime":"2019-10-28 06:40:00","stopDate":"2019-10-28 17:00:00","orgNo":"3340170","typeCode":"计划停电","poweroffArea":"110kV银湖变:富华D230线-杭州富阳永达金属制品有限公司后段","poweroffReason":"配合客户内部检修","powerTime":"2019-10-28 16:51:14","powerComm":"已送电","subsNo":"","lineNo":"","tgNo":"","tgName":null,"infoStatus":"1","orgName":"国网浙江杭州市富阳区供电公司","typeName":null,"infoStatusName":null,"dateDay":null,"orgNos":null,"nowTime":null,"countyName":null,"streetName":null,"villageName":null,"roadName":null,"communityName":null,"tranName":null,"sdLineName":null,"cityCode":"3340170","cityName":"国网浙江杭州市富阳区供电公司","provinceCode":null,"stopTime":"2019-10-28 17:00:00","powerType":"全部","powerOffArea":"110kV银湖变:富华D230线-杭州富阳永达金属制品有限公司后段","powerOffReason":"配合客户内部检修","powerOffId":"2019101831020492"},{"poweroffId":2019101831020488,"sgpoweroffId":null,"subsName":"","lineName":"10kV迎丰V783线","pubTranName":"勤丰村吴家,","scope":"浙江省-杭州市-临安市-湍口镇-湍源村吴家一带。","startTime":"2019-11-02 12:20:00","stopDate":"2019-11-02 16:40:00","orgNo":"3340160","typeCode":"计划停电","poweroffArea":"35kV湍口变:迎丰V783线-勤丰村吴家配变","poweroffReason":"低压改造","powerTime":"2019-11-02 16:28:50","powerComm":"已送电","subsNo":"","lineNo":"","tgNo":"","tgName":null,"infoStatus":"1","orgName":"国网浙江临安市供电公司","typeName":null,"infoStatusName":null,"dateDay":null,"orgNos":null,"nowTime":null,"countyName":null,"streetName":null,"villageName":null,"roadName":null,"communityName":null,"tranName":null,"sdLineName":null,"cityCode":"3340160","cityName":"国网浙江临安市供电公司","provinceCode":null,"stopTime":"2019-11-02 16:40:00","powerType":"全部","powerOffArea":"35kV湍口变:迎丰V783线-勤丰村吴家配变","powerOffReason":"低压改造","powerOffId":"2019101831020488"},{"poweroffId":2019101831020486,"sgpoweroffId":null,"subsName":"","lineName":"10kV迎丰V783线","pubTranName":"陆家村阮家,","scope":"浙江省-杭州市-临安市-湍口镇-湍源村阮家一带。","startTime":"2019-11-02 07:50:00","stopDate":"2019-11-02 11:40:00","orgNo":"3340160","typeCode":"计划停电","poweroffArea":"35kV湍口变:迎丰V783线-陆家村阮家配变","poweroffReason":"低压改造","powerTime":"2019-11-02 11:30:16","powerComm":"已送电","subsNo":"","lineNo":"","tgNo":"","tgName":null,"infoStatus":"1","orgName":"国网浙江临安市供电公司","typeName":null,"infoStatusName":null,"dateDay":null,"orgNos":null,"nowTime":null,"countyName":null,"streetName":null,"villageName":null,"roadName":null,"communityName":null,"tranName":null,"sdLineName":null,"cityCode":"3340160","cityName":"国网浙江临安市供电公司","provinceCode":null,"stopTime":"2019-11-02 11:40:00","powerType":"全部","powerOffArea":"35kV湍口变:迎丰V783线-陆家村阮家配变","powerOffReason":"低压改造","powerOffId":"2019101831020486"},{"poweroffId":2019101831020485,"sgpoweroffId":null,"subsName":"","lineName":"10kV二村V457线","pubTranName":"良源电站1#,良源电站2#,临安市良源水电有限公司（厂用电）,临安市华业水力发电有限公司(厂用电）,临安市良源水电有限公司,临安市华业水力发电有限公司(厂用电),临安市良源水电有限公司,临安市良源水电有限公司,二村电站,二村电站,良源电站,","scope":"浙江省-杭州市-临安市-昌化镇-后葛村二村电站一带。","startTime":"2019-11-01 06:00:00","stopDate":"2019-11-01 22:30:00","orgNo":"3340160","typeCode":"计划停电","poweroffArea":"110kV昌化变:二村V457线全线","poweroffReason":"昌化变检修","powerTime":"2019-11-01 22:20:23","powerComm":"已送电","subsNo":"","lineNo":"","tgNo":"","tgName":null,"infoStatus":"1","orgName":"国网浙江临安市供电公司","typeName":null,"infoStatusName":null,"dateDay":null,"orgNos":null,"nowTime":null,"countyName":null,"streetName":null,"villageName":null,"roadName":null,"communityName":null,"tranName":null,"sdLineName":null,"cityCode":"3340160","cityName":"国网浙江临安市供电公司","provinceCode":null,"stopTime":"2019-11-01 22:30:00","powerType":"全部","powerOffArea":"110kV昌化变:二村V457线全线","powerOffReason":"昌化变检修","powerOffId":"2019101831020485"},{"poweroffId":2019101831020484,"sgpoweroffId":null,"subsName":"","lineName":"10kV迎丰V783线","pubTranName":"陆家村考坑,","scope":"浙江省-杭州市-临安市-湍口镇-湍源村考坑一带。","startTime":"2019-11-01 12:20:00","stopDate":"2019-11-01 16:40:00","orgNo":"3340160","typeCode":"计划停电","poweroffArea":"35kV湍口变:迎丰V783线-陆家村考坑配变","poweroffReason":"低压改造","powerTime":"2019-11-01 16:29:11","powerComm":"已送电","subsNo":"","lineNo":"","tgNo":"","tgName":null,"infoStatus":"1","orgName":"国网浙江临安市供电公司","typeName":null,"infoStatusName":null,"dateDay":null,"orgNos":null,"nowTime":null,"countyName":null,"streetName":null,"villageName":null,"roadName":null,"communityName":null,"tranName":null,"sdLineName":null,"cityCode":"3340160","cityName":"国网浙江临安市供电公司","provinceCode":null,"stopTime":"2019-11-01 16:40:00","powerType":"全部","powerOffArea":"35kV湍口变:迎丰V783线-陆家村考坑配变","powerOffReason":"低压改造","powerOffId":"2019101831020484"},{"poweroffId":2019101831020482,"sgpoweroffId":null,"subsName":"","lineName":"10kV龙井V474线","pubTranName":"龙井村,","scope":"浙江省-杭州市-临安市-龙岗镇-龙井村一带。","startTime":"2019-11-01 07:50:00","stopDate":"2019-11-01 15:10:00","orgNo":"3340160","typeCode":"计划停电","poweroffArea":"110kV龙岗变:龙井V474线龙井村配变","poweroffReason":"低压改造","powerTime":"2019-11-01 14:57:49","powerComm":"已送电","subsNo":"","lineNo":"","tgNo":"","tgName":null,"infoStatus":"1","orgName":"国网浙江临安市供电公司","typeName":null,"infoStatusName":null,"dateDay":null,"orgNos":null,"nowTime":null,"countyName":null,"streetName":null,"villageName":null,"roadName":null,"communityName":null,"tranName":null,"sdLineName":null,"cityCode":"3340160","cityName":"国网浙江临安市供电公司","provinceCode":null,"stopTime":"2019-11-01 15:10:00","powerType":"全部","powerOffArea":"110kV龙岗变:龙井V474线龙井村配变","powerOffReason":"低压改造","powerOffId":"2019101831020482"},{"poweroffId":2019101831020481,"sgpoweroffId":null,"subsName":"","lineName":"10kV萧潘C425线","pubTranName":"盛和苑2#公变,","scope":"浙江省-杭州市-萧山区-蜀山街道-沈家里社区-沈家里路盛和苑4幢、盛和苑118号及其周边一带","startTime":"2019-10-18 15:35:00","stopDate":"2019-10-18 17:00:00","orgNo":"3340130","typeCode":"电网故障停限电","poweroffArea":"110kV萧山变:萧潘C425线-盛和苑2#公变后段","poweroffReason":"调整电压","powerTime":"2019-10-18 16:02:20","powerComm":"已送电","subsNo":"","lineNo":"","tgNo":"","tgName":null,"infoStatus":"1","orgName":"国网浙江杭州市萧山区供电有限公司","typeName":null,"infoStatusName":null,"dateDay":null,"orgNos":null,"nowTime":null,"countyName":null,"streetName":null,"villageName":null,"roadName":null,"communityName":null,"tranName":null,"sdLineName":null,"cityCode":"3340130","cityName":"国网浙江杭州市萧山区供电有限公司","provinceCode":null,"stopTime":"2019-10-18 17:00:00","powerType":"全部","powerOffArea":"110kV萧山变:萧潘C425线-盛和苑2#公变后段","powerOffReason":"调整电压","powerOffId":"2019101831020481"},{"poweroffId":2019101831020480,"sgpoweroffId":null,"subsName":"","lineName":"10kV迎丰V783线","pubTranName":"陆家村,","scope":"浙江省-杭州市-临安市-湍口镇湍源村陆家一带。","startTime":"2019-11-01 07:50:00","stopDate":"2019-11-01 11:40:00","orgNo":"3340160","typeCode":"计划停电","poweroffArea":"35kV湍口变:迎丰V783线-陆家村配变","poweroffReason":"低压改造","powerTime":"2019-11-01 11:30:35","powerComm":"已送电","subsNo":"","lineNo":"","tgNo":"","tgName":null,"infoStatus":"1","orgName":"国网浙江临安市供电公司","typeName":null,"infoStatusName":null,"dateDay":null,"orgNos":null,"nowTime":null,"countyName":null,"streetName":null,"villageName":null,"roadName":null,"communityName":null,"tranName":null,"sdLineName":null,"cityCode":"3340160","cityName":"国网浙江临安市供电公司","provinceCode":null,"stopTime":"2019-11-01 11:40:00","powerType":"全部","powerOffArea":"35kV湍口变:迎丰V783线-陆家村配变","powerOffReason":"低压改造","powerOffId":"2019101831020480"},{"poweroffId":2019101831020479,"sgpoweroffId":null,"subsName":"","lineName":"10kV岛石V168线","pubTranName":"姚家村（枫树下）,","scope":"浙江省-杭州市-临安市-岛石镇-银坑村姚家枫树下一带。","startTime":"2019-11-01 07:50:00","stopDate":"2019-11-01 11:40:00","orgNo":"3340160","typeCode":"计划停电","poweroffArea":"35kV岛石变:岛石V168线-姚家村（枫树下）配变","poweroffReason":"低压改造","powerTime":"2019-11-01 11:30:17","powerComm":"已送电","subsNo":"","lineNo":"","tgNo":"","tgName":null,"infoStatus":"1","orgName":"国网浙江临安市供电公司","typeName":null,"infoStatusName":null,"dateDay":null,"orgNos":null,"nowTime":null,"countyName":null,"streetName":null,"villageName":null,"roadName":null,"communityName":null,"tranName":null,"sdLineName":null,"cityCode":"3340160","cityName":"国网浙江临安市供电公司","provinceCode":null,"stopTime":"2019-11-01 11:40:00","powerType":"全部","powerOffArea":"35kV岛石变:岛石V168线-姚家村（枫树下）配变","powerOffReason":"低压改造","powerOffId":"2019101831020479"}],"pageModel":{"pageNow":989,"totalCount":17789,"totalPage":1779,"tableRows":0,"pageCount":10,"beginCount":9880},"isExperi":"1"}