{"message":"","today":"2020-06-16","seleList":[{"poweroffId":2019101831020398,"sgpoweroffId":null,"subsName":"","lineName":"10kV南浦D756线","pubTranName":"杭州富阳水利建设投资有限公司1号变,","scope":"浙江省-杭州市-富阳区-杭州富阳水利建设投资有限公司一带","startTime":"2019-10-29 07:20:00","stopDate":"2019-10-29 13:00:00","orgNo":"3340170","typeCode":"计划停电","poweroffArea":"110kV春联变:南浦D756线-杭州富阳水利建设投资有限公司用户侧开关后段","poweroffReason":"配合用户内部检修","powerTime":"2019-10-29 12:30:18","powerComm":"已送电","subsNo":"","lineNo":"","tgNo":"","tgName":null,"infoStatus":"1","orgName":"国网浙江杭州市富阳区供电公司","typeName":null,"infoStatusName":null,"dateDay":null,"orgNos":null,"nowTime":null,"countyName":null,"streetName":null,"villageName":null,"roadName":null,"communityName":null,"tranName":null,"sdLineName":null,"cityCode":"3340170","cityName":"国网浙江杭州市富阳区供电公司","provinceCode":null,"stopTime":"2019-10-29 13:00:00","powerType":"全部","powerOffArea":"110kV春联变:南浦D756线-杭州富阳水利建设投资有限公司用户侧开关后段","powerOffReason":"配合用户内部检修","powerOffId":"2019101831020398"},{"poweroffId":2019101831020396,"sgpoweroffId":null,"subsName":"","lineName":"10kV南浦D756线","pubTranName":"富阳市富顺纸业有限公司1#变,","scope":"浙江省-杭州市-富阳区-杭州富阳富顺纸业有限公司一带","startTime":"2019-10-29 08:00:00","stopDate":"2019-10-29 13:00:00","orgNo":"3340170","typeCode":"计划停电","poweroffArea":"110kV春联变:南浦D756线-富阳市富顺纸业有限公司熔断器后段","poweroffReason":"江滨南大道东延道路拓宽电力线路迁改工程：新放JKLYJ-10-240导线2档，拆除旧导线5档，旧杆拆除4支，线路拆、搭头等工作。","powerTime":"2019-10-29 12:28:02","powerComm":"已送电","subsNo":"","lineNo":"","tgNo":"","tgName":null,"infoStatus":"1","orgName":"国网浙江杭州市富阳区供电公司","typeName":null,"infoStatusName":null,"dateDay":null,"orgNos":null,"nowTime":null,"countyName":null,"streetName":null,"villageName":null,"roadName":null,"communityName":null,"tranName":null,"sdLineName":null,"cityCode":"3340170","cityName":"国网浙江杭州市富阳区供电公司","provinceCode":null,"stopTime":"2019-10-29 13:00:00","powerType":"全部","powerOffArea":"110kV春联变:南浦D756线-富阳市富顺纸业有限公司熔断器后段","powerOffReason":"江滨南大道东延道路拓宽电力线路迁改工程：新放JKLYJ-10-240导线2档，拆除旧导线5档，旧杆拆除4支，线路拆、搭头等工作。","powerOffId":"2019101831020396"},{"poweroffId":2019101831020389,"sgpoweroffId":null,"subsName":"","lineName":"10kV南浦D756线","pubTranName":"富阳市东山供水有限公司1#变,","scope":"浙江省-杭州市-富阳区-春江街道-杭州富阳东山供水有限公司一带","startTime":"2019-10-29 07:00:00","stopDate":"2019-10-29 13:00:00","orgNo":"3340170","typeCode":"计划停电","poweroffArea":"110kV春联变:南浦D756线-富阳市东山供水有限公司站内开关后段","poweroffReason":"配合用户内部检修","powerTime":"2019-10-29 12:29:45","powerComm":"已送电","subsNo":"","lineNo":"","tgNo":"","tgName":null,"infoStatus":"1","orgName":"国网浙江杭州市富阳区供电公司","typeName":null,"infoStatusName":null,"dateDay":null,"orgNos":null,"nowTime":null,"countyName":null,"streetName":null,"villageName":null,"roadName":null,"communityName":null,"tranName":null,"sdLineName":null,"cityCode":"3340170","cityName":"国网浙江杭州市富阳区供电公司","provinceCode":null,"stopTime":"2019-10-29 13:00:00","powerType":"全部","powerOffArea":"110kV春联变:南浦D756线-富阳市东山供水有限公司站内开关后段","powerOffReason":"配合用户内部检修","powerOffId":"2019101831020389"},{"poweroffId":2019101831020388,"sgpoweroffId":null,"subsName":"","lineName":"10kV万常G055线","pubTranName":"高地农居点7号公变,高地农居点4号公变,","scope":"浙江省杭州市余杭区南苑街道：高地农居点一带","startTime":"2019-11-01 08:30:00","stopDate":"2019-11-01 17:00:00","orgNo":"3340140","typeCode":"计划停电","poweroffArea":"110kV外乔变:万常G055线高地农居点4#变、高地农居点7#公变令克开关。","poweroffReason":"高地农居点4#变增至400kVA，调换电缆1根，高地农居点7#公变调换低压电缆1根。 原停电结束时间为2019-10-28 17:00:00,因XXX原因,现变更停电结束时间为2019-11-01 17:00:00","powerTime":"2019-11-01 16:26:49","powerComm":"已送电","subsNo":"","lineNo":"","tgNo":"","tgName":null,"infoStatus":"1","orgName":"国网浙江杭州市余杭区供电有限公司","typeName":null,"infoStatusName":null,"dateDay":null,"orgNos":null,"nowTime":null,"countyName":null,"streetName":null,"villageName":null,"roadName":null,"communityName":null,"tranName":null,"sdLineName":null,"cityCode":"3340140","cityName":"国网浙江杭州市余杭区供电有限公司","provinceCode":null,"stopTime":"2019-11-01 17:00:00","powerType":"全部","powerOffArea":"110kV外乔变:万常G055线高地农居点4#变、高地农居点7#公变令克开关。","powerOffReason":"高地农居点4#变增至400kVA，调换电缆1根，高地农居点7#公变调换低压电缆1根。 原停电结束时间为2019-10-28 17:00:00,因XXX原因,现变更停电结束时间为2019-11-01 17:00:00","powerOffId":"2019101831020388"},{"poweroffId":2019101831020384,"sgpoweroffId":null,"subsName":"","lineName":"10kV南浦D756线","pubTranName":"浙江裕众建设集团有限公司1号基建变（外沙村）,","scope":"浙江省-杭州市-富阳区-浙江裕众建设集团有限公司一带","startTime":"2019-10-29 07:40:00","stopDate":"2019-10-29 13:00:00","orgNo":"3340170","typeCode":"计划停电","poweroffArea":"110kV春联变:南浦D756线-浙江裕众建设集团有限公司开关后段","poweroffReason":"配合用户内部检修","powerTime":"2019-10-29 12:29:20","powerComm":"已送电","subsNo":"","lineNo":"","tgNo":"","tgName":null,"infoStatus":"1","orgName":"国网浙江杭州市富阳区供电公司","typeName":null,"infoStatusName":null,"dateDay":null,"orgNos":null,"nowTime":null,"countyName":null,"streetName":null,"villageName":null,"roadName":null,"communityName":null,"tranName":null,"sdLineName":null,"cityCode":"3340170","cityName":"国网浙江杭州市富阳区供电公司","provinceCode":null,"stopTime":"2019-10-29 13:00:00","powerType":"全部","powerOffArea":"110kV春联变:南浦D756线-浙江裕众建设集团有限公司开关后段","powerOffReason":"配合用户内部检修","powerOffId":"2019101831020384"},{"poweroffId":2019101831020381,"sgpoweroffId":null,"subsName":"","lineName":"10kV浦东D198线","pubTranName":"杭州华博消防设备有限公司1#变,","scope":"浙江省-杭州市-富阳区-大源镇-杭州华博消防设备有限公司一带","startTime":"2019-10-28 07:00:00","stopDate":"2019-10-28 19:00:00","orgNo":"3340170","typeCode":"计划停电","poweroffArea":"110kV大源变:浦东D198线-杭州华博消防设备有限公司熔断器后段","poweroffReason":"配合用户内部检修，原停电结束时间为2019-10-28 16:00:00,因现场抢修难度大,现变更停电结束时间为2019-10-28 19:00:00","powerTime":"2019-10-28 18:12:19","powerComm":"已送电","subsNo":"","lineNo":"","tgNo":"","tgName":null,"infoStatus":"1","orgName":"国网浙江杭州市富阳区供电公司","typeName":null,"infoStatusName":null,"dateDay":null,"orgNos":null,"nowTime":null,"countyName":null,"streetName":null,"villageName":null,"roadName":null,"communityName":null,"tranName":null,"sdLineName":null,"cityCode":"3340170","cityName":"国网浙江杭州市富阳区供电公司","provinceCode":null,"stopTime":"2019-10-28 19:00:00","powerType":"全部","powerOffArea":"110kV大源变:浦东D198线-杭州华博消防设备有限公司熔断器后段","powerOffReason":"配合用户内部检修，原停电结束时间为2019-10-28 16:00:00,因现场抢修难度大,现变更停电结束时间为2019-10-28 19:00:00","powerOffId":"2019101831020381"},{"poweroffId":2019101831020380,"sgpoweroffId":null,"subsName":"","lineName":"10kV浦东D198线","pubTranName":"浙江亚裕消防科技有限公司6620229253-1#变,","scope":"浙江省-杭州市-富阳区-大源镇-浙江亚裕消防科技有限公司一带","startTime":"2019-10-28 07:20:00","stopDate":"2019-10-28 19:00:00","orgNo":"3340170","typeCode":"计划停电","poweroffArea":"110kV大源变:浦东D198线-浙江亚裕消防科技有限公司用户侧开关后段","poweroffReason":"配合用户内部检修，原停电结束时间为2019-10-28 16:00:00,因现场抢修难度大,现变更停电结束时间为2019-10-28 19:00:00","powerTime":"2019-10-28 18:11:56","powerComm":"已送电","subsNo":"","lineNo":"","tgNo":"","tgName":null,"infoStatus":"1","orgName":"国网浙江杭州市富阳区供电公司","typeName":null,"infoStatusName":null,"dateDay":null,"orgNos":null,"nowTime":null,"countyName":null,"streetName":null,"villageName":null,"roadName":null,"communityName":null,"tranName":null,"sdLineName":null,"cityCode":"3340170","cityName":"国网浙江杭州市富阳区供电公司","provinceCode":null,"stopTime":"2019-10-28 19:00:00","powerType":"全部","powerOffArea":"110kV大源变:浦东D198线-浙江亚裕消防科技有限公司用户侧开关后段","powerOffReason":"配合用户内部检修，原停电结束时间为2019-10-28 16:00:00,因现场抢修难度大,现变更停电结束时间为2019-10-28 19:00:00","powerOffId":"2019101831020380"},{"poweroffId":2019101831020378,"sgpoweroffId":null,"subsName":"","lineName":"10kV浦东D198线","pubTranName":"浙江科扬智能科技有限公司,","scope":"浙江省-杭州市-富阳区-大源镇-浙江科扬智能科技有限公司一带","startTime":"2019-10-28 07:40:00","stopDate":"2019-10-28 19:00:00","orgNo":"3340170","typeCode":"计划停电","poweroffArea":"110kV大源变:浦东D198线-浙江科扬智能科技有限公司进线熔断器后段","poweroffReason":"配合用户内部检修，原停电结束时间为2019-10-28 16:00:00,因现场抢修难度大,现变更停电结束时间为2019-10-28 19:00:00","powerTime":"2019-10-28 18:11:44","powerComm":"已送电","subsNo":"","lineNo":"","tgNo":"","tgName":null,"infoStatus":"1","orgName":"国网浙江杭州市富阳区供电公司","typeName":null,"infoStatusName":null,"dateDay":null,"orgNos":null,"nowTime":null,"countyName":null,"streetName":null,"villageName":null,"roadName":null,"communityName":null,"tranName":null,"sdLineName":null,"cityCode":"3340170","cityName":"国网浙江杭州市富阳区供电公司","provinceCode":null,"stopTime":"2019-10-28 19:00:00","powerType":"全部","powerOffArea":"110kV大源变:浦东D198线-浙江科扬智能科技有限公司进线熔断器后段","powerOffReason":"配合用户内部检修，原停电结束时间为2019-10-28 16:00:00,因现场抢修难度大,现变更停电结束时间为2019-10-28 19:00:00","powerOffId":"2019101831020378"},{"poweroffId":2019101831020376,"sgpoweroffId":null,"subsName":"","lineName":"10kV浦东D198线","pubTranName":"大源镇永庆村4#水文站公变,","scope":"浙江省-杭州市-富阳区-大源镇-永庆村一带","startTime":"2019-10-28 08:00:00","stopDate":"2019-10-28 19:00:00","orgNo":"3340170","typeCode":"计划停电","poweroffArea":"110kV大源变:浦东D198线-永庆村4#变支线开关后段","poweroffReason":"大源过镇线电力迁改工程：大源镇永庆村4#水文站公变移位，导线移位，新上计量箱1台，新立15米杆1支，拆除旧杆7支工作。原停电结束时间为2019-10-28 16:00:00,因现场抢修难度大,现变更停电结束时间为2019-10-28 19:00:00","powerTime":"2019-10-28 18:11:34","powerComm":"已送电","subsNo":"","lineNo":"","tgNo":"","tgName":null,"infoStatus":"1","orgName":"国网浙江杭州市富阳区供电公司","typeName":null,"infoStatusName":null,"dateDay":null,"orgNos":null,"nowTime":null,"countyName":null,"streetName":null,"villageName":null,"roadName":null,"communityName":null,"tranName":null,"sdLineName":null,"cityCode":"3340170","cityName":"国网浙江杭州市富阳区供电公司","provinceCode":null,"stopTime":"2019-10-28 19:00:00","powerType":"全部","powerOffArea":"110kV大源变:浦东D198线-永庆村4#变支线开关后段","powerOffReason":"大源过镇线电力迁改工程：大源镇永庆村4#水文站公变移位，导线移位，新上计量箱1台，新立15米杆1支，拆除旧杆7支工作。原停电结束时间为2019-10-28 16:00:00,因现场抢修难度大,现变更停电结束时间为2019-10-28 19:00:00","powerOffId":"2019101831020376"},{"poweroffId":2019101831020374,"sgpoweroffId":null,"subsName":"","lineName":"10kV牧场D723线","pubTranName":"松溪村新堰1#六边家公变,","scope":"浙江省杭州市富阳区新登镇新堰行政村六边家自然村一带","startTime":"2019-10-28 07:30:00","stopDate":"2019-10-28 11:30:00","orgNo":"3340170","typeCode":"计划停电","poweroffArea":"110kV松溪变:牧场D723线-松溪村新堰1#六边家公变低压开关后段","poweroffReason":"(低压停电信息)照明03线拆装CJ-35*4*1档、架设JKLYJ-35*4*1档、人工拔旧杆10米1支、运杆、安装落户线BS-JKLYJ-2*25*1户、导线搭接、安装横担、拉线","powerTime":"2019-10-28 11:20:27","powerComm":"已送电","subsNo":"","lineNo":"","tgNo":"","tgName":null,"infoStatus":"1","orgName":"国网浙江杭州市富阳区供电公司","typeName":null,"infoStatusName":null,"dateDay":null,"orgNos":null,"nowTime":null,"countyName":null,"streetName":null,"villageName":null,"roadName":null,"communityName":null,"tranName":null,"sdLineName":null,"cityCode":"3340170","cityName":"国网浙江杭州市富阳区供电公司","provinceCode":null,"stopTime":"2019-10-28 11:30:00","powerType":"全部","powerOffArea":"110kV松溪变:牧场D723线-松溪村新堰1#六边家公变低压开关后段","powerOffReason":"(低压停电信息)照明03线拆装CJ-35*4*1档、架设JKLYJ-35*4*1档、人工拔旧杆10米1支、运杆、安装落户线BS-JKLYJ-2*25*1户、导线搭接、安装横担、拉线","powerOffId":"2019101831020374"}],"pageModel":{"pageNow":991,"totalCount":17789,"totalPage":1779,"tableRows":0,"pageCount":10,"beginCount":9900},"isExperi":"1"}