{"message":"","today":"2020-06-16","seleList":[{"poweroffId":2019101831020335,"sgpoweroffId":null,"subsName":"","lineName":"10kV高园D250线","pubTranName":"舒菇洋村10号山头坞东公变,","scope":"浙江省-杭州市-富阳区-银湖街道-高桥行政村(舒姑垟自然村,山头坞自然村)","startTime":"2019-10-29 07:30:00","stopDate":"2019-10-29 16:30:00","orgNo":"3340170","typeCode":"计划停电","poweroffArea":"110kV白鹤变:高园D250线-舒菇洋村10号山头坞东公变低压开关后段","poweroffReason":"(低压停电信息)更换导线7档，更换出线电缆1路，接户线搭接等工作。（迎东2019年沈家坞9#里村口公变等低压台区改造工程）","powerTime":"2019-10-29 16:16:01","powerComm":"已送电","subsNo":"","lineNo":"","tgNo":"","tgName":null,"infoStatus":"1","orgName":"国网浙江杭州市富阳区供电公司","typeName":null,"infoStatusName":null,"dateDay":null,"orgNos":null,"nowTime":null,"countyName":null,"streetName":null,"villageName":null,"roadName":null,"communityName":null,"tranName":null,"sdLineName":null,"cityCode":"3340170","cityName":"国网浙江杭州市富阳区供电公司","provinceCode":null,"stopTime":"2019-10-29 16:30:00","powerType":"全部","powerOffArea":"110kV白鹤变:高园D250线-舒菇洋村10号山头坞东公变低压开关后段","powerOffReason":"(低压停电信息)更换导线7档，更换出线电缆1路，接户线搭接等工作。（迎东2019年沈家坞9#里村口公变等低压台区改造工程）","powerOffId":"2019101831020335"},{"poweroffId":2019101831020334,"sgpoweroffId":null,"subsName":"","lineName":"10kV西山D785线","pubTranName":"中埠村3号杜坞公变,","scope":"浙江省-杭州市-富阳区-环山乡-中埠行政村-中埠自然村一带","startTime":"2019-10-29 08:30:00","stopDate":"2019-10-29 16:10:00","orgNo":"3340170","typeCode":"计划停电","poweroffArea":"110kV王洲变:西山D785线-中埠村3号杜坞公变后段","poweroffReason":"(低压停电信息)中埠村3#杜坞公变拆除接户线、吊车拔杆、人工运杆等工作","powerTime":"2019-10-29 15:55:09","powerComm":"已送电","subsNo":"","lineNo":"","tgNo":"","tgName":null,"infoStatus":"1","orgName":"国网浙江杭州市富阳区供电公司","typeName":null,"infoStatusName":null,"dateDay":null,"orgNos":null,"nowTime":null,"countyName":null,"streetName":null,"villageName":null,"roadName":null,"communityName":null,"tranName":null,"sdLineName":null,"cityCode":"3340170","cityName":"国网浙江杭州市富阳区供电公司","provinceCode":null,"stopTime":"2019-10-29 16:10:00","powerType":"全部","powerOffArea":"110kV王洲变:西山D785线-中埠村3号杜坞公变后段","powerOffReason":"(低压停电信息)中埠村3#杜坞公变拆除接户线、吊车拔杆、人工运杆等工作","powerOffId":"2019101831020334"},{"poweroffId":2019101831020332,"sgpoweroffId":null,"subsName":"","lineName":"10kV沪瑞D620线","pubTranName":"上沙村2#村中公变,","scope":"浙江省杭州市富阳区场口镇上沙行政村一带","startTime":"2019-10-29 08:30:00","stopDate":"2019-10-29 16:10:00","orgNo":"3340170","typeCode":"计划停电","poweroffArea":"110kV鸿丰变:沪瑞D620线-上沙村2#村中公变低压出线后段","poweroffReason":"(低压停电信息)更换电缆一组及杆上搭接等工作","powerTime":"2019-10-29 15:54:56","powerComm":"已送电","subsNo":"","lineNo":"","tgNo":"","tgName":null,"infoStatus":"1","orgName":"国网浙江杭州市富阳区供电公司","typeName":null,"infoStatusName":null,"dateDay":null,"orgNos":null,"nowTime":null,"countyName":null,"streetName":null,"villageName":null,"roadName":null,"communityName":null,"tranName":null,"sdLineName":null,"cityCode":"3340170","cityName":"国网浙江杭州市富阳区供电公司","provinceCode":null,"stopTime":"2019-10-29 16:10:00","powerType":"全部","powerOffArea":"110kV鸿丰变:沪瑞D620线-上沙村2#村中公变低压出线后段","powerOffReason":"(低压停电信息)更换电缆一组及杆上搭接等工作","powerOffId":"2019101831020332"},{"poweroffId":2019101831020331,"sgpoweroffId":null,"subsName":"","lineName":"10kV浦东D198线","pubTranName":"大源镇永庆村4#水文站公变,","scope":"浙江省杭州市富阳区大源镇大源村永庆自然村一带","startTime":"2019-10-28 08:20:00","stopDate":"2019-10-28 19:00:00","orgNo":"3340170","typeCode":"计划停电","poweroffArea":"110kV大源变:浦东D198线-大源镇永庆村4#水文站公变低压开关后段","poweroffReason":"(低压停电信息)大源过镇连接线拓宽-配电线路迁改(临时)工程拆装低压出线电缆、拆旧、搭接等工作，原停电结束时间为2019-10-28 17:40:00,因现场抢修难度大,现变更停电结束时间为2019-10-28 19:00:00","powerTime":"2019-10-28 18:12:07","powerComm":"已送电","subsNo":"","lineNo":"","tgNo":"","tgName":null,"infoStatus":"1","orgName":"国网浙江杭州市富阳区供电公司","typeName":null,"infoStatusName":null,"dateDay":null,"orgNos":null,"nowTime":null,"countyName":null,"streetName":null,"villageName":null,"roadName":null,"communityName":null,"tranName":null,"sdLineName":null,"cityCode":"3340170","cityName":"国网浙江杭州市富阳区供电公司","provinceCode":null,"stopTime":"2019-10-28 19:00:00","powerType":"全部","powerOffArea":"110kV大源变:浦东D198线-大源镇永庆村4#水文站公变低压开关后段","powerOffReason":"(低压停电信息)大源过镇连接线拓宽-配电线路迁改(临时)工程拆装低压出线电缆、拆旧、搭接等工作，原停电结束时间为2019-10-28 17:40:00,因现场抢修难度大,现变更停电结束时间为2019-10-28 19:00:00","powerOffId":"2019101831020331"},{"poweroffId":2019101831020328,"sgpoweroffId":null,"subsName":"","lineName":"10kV潘塘D521线","pubTranName":"永庆新区3#公变,","scope":"浙江省杭州市富阳区大源镇大源村永庆自然村一带","startTime":"2019-10-28 08:00:00","stopDate":"2019-10-28 17:40:00","orgNo":"3340170","typeCode":"计划停电","poweroffArea":"110kV大源变:潘塘D521线-永庆新区3#公变低压开关后段","poweroffReason":"(低压停电信息)大源过镇连接线拓宽-配电线路迁改(临时)工程低压线路拆装、表计移位等工作","powerTime":"2019-10-28 17:28:31","powerComm":"已送电","subsNo":"","lineNo":"","tgNo":"","tgName":null,"infoStatus":"1","orgName":"国网浙江杭州市富阳区供电公司","typeName":null,"infoStatusName":null,"dateDay":null,"orgNos":null,"nowTime":null,"countyName":null,"streetName":null,"villageName":null,"roadName":null,"communityName":null,"tranName":null,"sdLineName":null,"cityCode":"3340170","cityName":"国网浙江杭州市富阳区供电公司","provinceCode":null,"stopTime":"2019-10-28 17:40:00","powerType":"全部","powerOffArea":"110kV大源变:潘塘D521线-永庆新区3#公变低压开关后段","powerOffReason":"(低压停电信息)大源过镇连接线拓宽-配电线路迁改(临时)工程低压线路拆装、表计移位等工作","powerOffId":"2019101831020328"},{"poweroffId":2019101831020327,"sgpoweroffId":null,"subsName":"","lineName":"10kV乘庄D702线","pubTranName":"松溪村松溪4号赤坎坞公变,","scope":"浙江省杭州市富阳区新登镇松溪行政村松溪新街自然村一带","startTime":"2019-10-28 13:00:00","stopDate":"2019-10-28 17:00:00","orgNo":"3340170","typeCode":"计划停电","poweroffArea":"110kV松溪变:乘庄D702线-松溪村松溪4号赤坎坞公变低压开关后段","poweroffReason":"(低压停电信息)赤坎坞01线、赤坎坞02线、配合高压停电、桂设操作接地线代替工作接地线2付、协助高压桂设1付桂设操作接地线代替工作接地线","powerTime":"2019-10-28 16:50:24","powerComm":"已送电","subsNo":"","lineNo":"","tgNo":"","tgName":null,"infoStatus":"1","orgName":"国网浙江杭州市富阳区供电公司","typeName":null,"infoStatusName":null,"dateDay":null,"orgNos":null,"nowTime":null,"countyName":null,"streetName":null,"villageName":null,"roadName":null,"communityName":null,"tranName":null,"sdLineName":null,"cityCode":"3340170","cityName":"国网浙江杭州市富阳区供电公司","provinceCode":null,"stopTime":"2019-10-28 17:00:00","powerType":"全部","powerOffArea":"110kV松溪变:乘庄D702线-松溪村松溪4号赤坎坞公变低压开关后段","powerOffReason":"(低压停电信息)赤坎坞01线、赤坎坞02线、配合高压停电、桂设操作接地线代替工作接地线2付、协助高压桂设1付桂设操作接地线代替工作接地线","powerOffId":"2019101831020327"},{"poweroffId":2019101831020326,"sgpoweroffId":null,"subsName":"","lineName":"10kV桐洲D842线","pubTranName":"董赵村3号江边公变,","scope":"浙江省-杭州市-富阳区-新桐乡-江洲行政村(汤赵自然村,董赵自然村)","startTime":"2019-11-03 07:30:00","stopDate":"2019-11-03 16:50:00","orgNo":"3340170","typeCode":"计划停电","poweroffArea":"110kV新桐变:桐洲D842线-董赵村3号江边公变后段","poweroffReason":"(低压停电信息)青云2019年蒋家村12#林场公变等低压台区改造工程照明2#线安装电缆4*50-4根，安装T接箱4只，搭接等工作。原停电结束时间为2019-10-28 16:50:00,因政策原因,现变更停电结束时间为2019-11-03 16:50:00","powerTime":"2019-11-03 16:21:52","powerComm":"已送电","subsNo":"","lineNo":"","tgNo":"","tgName":null,"infoStatus":"1","orgName":"国网浙江杭州市富阳区供电公司","typeName":null,"infoStatusName":null,"dateDay":null,"orgNos":null,"nowTime":null,"countyName":null,"streetName":null,"villageName":null,"roadName":null,"communityName":null,"tranName":null,"sdLineName":null,"cityCode":"3340170","cityName":"国网浙江杭州市富阳区供电公司","provinceCode":null,"stopTime":"2019-11-03 16:50:00","powerType":"全部","powerOffArea":"110kV新桐变:桐洲D842线-董赵村3号江边公变后段","powerOffReason":"(低压停电信息)青云2019年蒋家村12#林场公变等低压台区改造工程照明2#线安装电缆4*50-4根，安装T接箱4只，搭接等工作。原停电结束时间为2019-10-28 16:50:00,因政策原因,现变更停电结束时间为2019-11-03 16:50:00","powerOffId":"2019101831020326"},{"poweroffId":2019101831020325,"sgpoweroffId":null,"subsName":"","lineName":"10kV御园D726线","pubTranName":"恒远1#公变,","scope":"浙江省-杭州市-富阳区-鹿山街道-陆家行政村(依江路,江滨西大道)","startTime":"2019-10-28 08:50:00","stopDate":"2019-10-28 16:40:00","orgNo":"3340170","typeCode":"计划停电","poweroffArea":"110kV陆家变:御园D726线-恒远1号公变后段","poweroffReason":"(低压停电信息)恒远1#公变电缆改接，分支箱移位等工作。","powerTime":"2019-10-28 16:30:09","powerComm":"已送电","subsNo":"","lineNo":"","tgNo":"","tgName":null,"infoStatus":"1","orgName":"国网浙江杭州市富阳区供电公司","typeName":null,"infoStatusName":null,"dateDay":null,"orgNos":null,"nowTime":null,"countyName":null,"streetName":null,"villageName":null,"roadName":null,"communityName":null,"tranName":null,"sdLineName":null,"cityCode":"3340170","cityName":"国网浙江杭州市富阳区供电公司","provinceCode":null,"stopTime":"2019-10-28 16:40:00","powerType":"全部","powerOffArea":"110kV陆家变:御园D726线-恒远1号公变后段","powerOffReason":"(低压停电信息)恒远1#公变电缆改接，分支箱移位等工作。","powerOffId":"2019101831020325"},{"poweroffId":2019101831020324,"sgpoweroffId":null,"subsName":"","lineName":"10kV水南D357线","pubTranName":"如意花园3#公变,","scope":"浙江省-杭州市-富阳区-富春街道-城西社区(丁婆弄,江滨西大道,屠家弄)一带","startTime":"2019-10-28 08:30:00","stopDate":"2019-10-28 16:30:00","orgNo":"3340170","typeCode":"计划停电","poweroffArea":"110kV富鹿变:水南D357线-如意花园3#公变后段","poweroffReason":"(低压停电信息)如意花园3#公变1#开关1#出线-1T表箱更换及T接箱移位等工作。","powerTime":"2019-10-28 16:20:12","powerComm":"已送电","subsNo":"","lineNo":"","tgNo":"","tgName":null,"infoStatus":"1","orgName":"国网浙江杭州市富阳区供电公司","typeName":null,"infoStatusName":null,"dateDay":null,"orgNos":null,"nowTime":null,"countyName":null,"streetName":null,"villageName":null,"roadName":null,"communityName":null,"tranName":null,"sdLineName":null,"cityCode":"3340170","cityName":"国网浙江杭州市富阳区供电公司","provinceCode":null,"stopTime":"2019-10-28 16:30:00","powerType":"全部","powerOffArea":"110kV富鹿变:水南D357线-如意花园3#公变后段","powerOffReason":"(低压停电信息)如意花园3#公变1#开关1#出线-1T表箱更换及T接箱移位等工作。","powerOffId":"2019101831020324"},{"poweroffId":2019101831020323,"sgpoweroffId":null,"subsName":"","lineName":"10kV永和D821线","pubTranName":"蒋家桥北1号公变,","scope":"浙江省-杭州市-富阳区-富春街道-后周社区-蒋家桥路,富春街道-金秋社区(金桥北路,蒋家桥路)一带","startTime":"2019-10-28 08:20:00","stopDate":"2019-10-28 15:40:00","orgNo":"3340170","typeCode":"计划停电","poweroffArea":"110kV容大变:永和D821线-蒋家桥北1号公变后段","poweroffReason":"(低压停电信息)国网浙江富阳供电公司2019年客户计量装置建设与改造:10kV金色D824线，0.4kV蒋家桥北1#公变2#开关1#出线对0.4KV蒋家桥40#-48#进行表箱改造等工作","powerTime":"2019-10-28 15:30:16","powerComm":"已送电","subsNo":"","lineNo":"","tgNo":"","tgName":null,"infoStatus":"1","orgName":"国网浙江杭州市富阳区供电公司","typeName":null,"infoStatusName":null,"dateDay":null,"orgNos":null,"nowTime":null,"countyName":null,"streetName":null,"villageName":null,"roadName":null,"communityName":null,"tranName":null,"sdLineName":null,"cityCode":"3340170","cityName":"国网浙江杭州市富阳区供电公司","provinceCode":null,"stopTime":"2019-10-28 15:40:00","powerType":"全部","powerOffArea":"110kV容大变:永和D821线-蒋家桥北1号公变后段","powerOffReason":"(低压停电信息)国网浙江富阳供电公司2019年客户计量装置建设与改造:10kV金色D824线，0.4kV蒋家桥北1#公变2#开关1#出线对0.4KV蒋家桥40#-48#进行表箱改造等工作","powerOffId":"2019101831020323"}],"pageModel":{"pageNow":993,"totalCount":17789,"totalPage":1779,"tableRows":0,"pageCount":10,"beginCount":9920},"isExperi":"1"}