{"message":"","today":"2020-06-16","seleList":[{"poweroffId":2019101831020122,"sgpoweroffId":null,"subsName":"","lineName":"10kV胥口D712线","pubTranName":"元村村6#村委边公变,","scope":"浙江省杭州市富阳区新登镇元村村委边自然村一带","startTime":"2019-11-01 08:30:00","stopDate":"2019-11-01 16:30:00","orgNo":"3340170","typeCode":"计划停电","poweroffArea":"110kV松溪变:胥口D712线-元村村6#村委边公变低压开关后段","poweroffReason":"(低压停电信息)新兴西路电力线路改造工程：元村6#村委边公变01线、02线、03线线路改电缆低压割接、电缆进户、交接箱搭接等工作","powerTime":"2019-11-01 16:16:21","powerComm":"已送电","subsNo":"","lineNo":"","tgNo":"","tgName":null,"infoStatus":"1","orgName":"国网浙江杭州市富阳区供电公司","typeName":null,"infoStatusName":null,"dateDay":null,"orgNos":null,"nowTime":null,"countyName":null,"streetName":null,"villageName":null,"roadName":null,"communityName":null,"tranName":null,"sdLineName":null,"cityCode":"3340170","cityName":"国网浙江杭州市富阳区供电公司","provinceCode":null,"stopTime":"2019-11-01 16:30:00","powerType":"全部","powerOffArea":"110kV松溪变:胥口D712线-元村村6#村委边公变低压开关后段","powerOffReason":"(低压停电信息)新兴西路电力线路改造工程：元村6#村委边公变01线、02线、03线线路改电缆低压割接、电缆进户、交接箱搭接等工作","powerOffId":"2019101831020122"},{"poweroffId":2019101831020115,"sgpoweroffId":null,"subsName":"","lineName":"10kV芦茨T196线","pubTranName":"白云源,梅树坞2号公变,梅树坞4号公变,梅树坞1号公变,桐庐县富春江镇山里人家饭店,梅树坞3号公变,","scope":"浙江省-杭州市-桐庐县-富春江镇-芦茨行政村(双源自然村,梅树坞自然村);富春江镇-芦茨行政村(桐庐县富春江镇山里人家饭店,杭州白云源风景区旅游开发有限公司)","startTime":"2019-10-31 08:00:00","stopDate":"2019-10-31 16:00:00","orgNo":"3340150","typeCode":"计划停电","poweroffArea":"110kV外董变:芦茨T196线-龙门F8378智能开关后段","poweroffReason":"杭州桐庐富春江石舍T1961线龙门分线78号杆后段线路改造工程 杭州桐庐富春江大竹垅村配变及低压线路改造工程","powerTime":"2019-10-31 15:52:44","powerComm":"已送电","subsNo":"","lineNo":"","tgNo":"","tgName":null,"infoStatus":"1","orgName":"国网浙江桐庐县供电公司","typeName":null,"infoStatusName":null,"dateDay":null,"orgNos":null,"nowTime":null,"countyName":null,"streetName":null,"villageName":null,"roadName":null,"communityName":null,"tranName":null,"sdLineName":null,"cityCode":"3340150","cityName":"国网浙江桐庐县供电公司","provinceCode":null,"stopTime":"2019-10-31 16:00:00","powerType":"全部","powerOffArea":"110kV外董变:芦茨T196线-龙门F8378智能开关后段","powerOffReason":"杭州桐庐富春江石舍T1961线龙门分线78号杆后段线路改造工程 杭州桐庐富春江大竹垅村配变及低压线路改造工程","powerOffId":"2019101831020115"},{"poweroffId":2019101831020111,"sgpoweroffId":null,"subsName":"","lineName":"10kV吴家052线","pubTranName":"袁家浦农一,","scope":"浙江省杭州市西湖区双浦镇袁家浦村袁家浦农一公变附近一带用户","startTime":"2019-10-30 09:30:00","stopDate":"2019-10-30 17:00:00","orgNo":"3340101","typeCode":"计划停电","poweroffArea":"35kV袁浦临:吴家052线-袁家浦农一后段","poweroffReason":"袁浦小城镇整治主网架高压及土建一期工程CZ2017-12-006-YXQQ 周富线空线拆除（带电配合）","powerTime":"2019-10-30 16:16:52","powerComm":"已送电","subsNo":"","lineNo":"","tgNo":"","tgName":null,"infoStatus":"1","orgName":"浙江杭州电力客户服务中心","typeName":null,"infoStatusName":null,"dateDay":null,"orgNos":null,"nowTime":null,"countyName":null,"streetName":null,"villageName":null,"roadName":null,"communityName":null,"tranName":null,"sdLineName":null,"cityCode":"3340101","cityName":"浙江杭州电力客户服务中心","provinceCode":null,"stopTime":"2019-10-30 17:00:00","powerType":"全部","powerOffArea":"35kV袁浦临:吴家052线-袁家浦农一后段","powerOffReason":"袁浦小城镇整治主网架高压及土建一期工程CZ2017-12-006-YXQQ 周富线空线拆除（带电配合）","powerOffId":"2019101831020111"},{"poweroffId":2019101831020105,"sgpoweroffId":null,"subsName":"","lineName":"10kV阳山T212线","pubTranName":"庙下2号公变,","scope":"浙江省-杭州市-桐庐县-横村镇-东南行政村-庙下自然村","startTime":"2019-10-18 09:42:08","stopDate":"2019-10-18 17:30:08","orgNo":"3340150","typeCode":"电网故障停限电","poweroffArea":"110kV方埠变:阳山T212线-庙下2号公变后段","poweroffReason":"(低压停电信息)低压开关跳闸","powerTime":"2019-10-18 17:10:45","powerComm":"已送电","subsNo":"","lineNo":"","tgNo":"","tgName":null,"infoStatus":"1","orgName":"国网浙江桐庐县供电公司","typeName":null,"infoStatusName":null,"dateDay":null,"orgNos":null,"nowTime":null,"countyName":null,"streetName":null,"villageName":null,"roadName":null,"communityName":null,"tranName":null,"sdLineName":null,"cityCode":"3340150","cityName":"国网浙江桐庐县供电公司","provinceCode":null,"stopTime":"2019-10-18 17:30:08","powerType":"全部","powerOffArea":"110kV方埠变:阳山T212线-庙下2号公变后段","powerOffReason":"(低压停电信息)低压开关跳闸","powerOffId":"2019101831020105"},{"poweroffId":2019101831020102,"sgpoweroffId":null,"subsName":"","lineName":"10kV华联9949线","pubTranName":"后村一,","scope":"浙江省杭州市西湖区三墩镇华联村后村一公变附近用户","startTime":"2019-10-29 09:00:00","stopDate":"2019-10-29 10:00:00","orgNo":"3340101","typeCode":"计划停电","poweroffArea":"110kV墩北变:华联9949线-后村一后段","poweroffReason":"后村一站后村一配变调电压分接头消缺工作","powerTime":"2019-10-29 09:40:59","powerComm":"已送电","subsNo":"","lineNo":"","tgNo":"","tgName":null,"infoStatus":"1","orgName":"浙江杭州电力客户服务中心","typeName":null,"infoStatusName":null,"dateDay":null,"orgNos":null,"nowTime":null,"countyName":null,"streetName":null,"villageName":null,"roadName":null,"communityName":null,"tranName":null,"sdLineName":null,"cityCode":"3340101","cityName":"浙江杭州电力客户服务中心","provinceCode":null,"stopTime":"2019-10-29 10:00:00","powerType":"全部","powerOffArea":"110kV墩北变:华联9949线-后村一后段","powerOffReason":"后村一站后村一配变调电压分接头消缺工作","powerOffId":"2019101831020102"},{"poweroffId":2019101831020100,"sgpoweroffId":null,"subsName":"","lineName":"10kV西关T177线","pubTranName":"玉华公寓1号公变,","scope":"浙江省-杭州市-桐庐县-分水镇(武盛行政村-东门大道,玉华社区-东门路)","startTime":"2019-10-18 09:38:36","stopDate":"2019-10-18 11:00:36","orgNo":"3340150","typeCode":"电网故障停限电","poweroffArea":"110kV分水变:西关T177线-玉华F4402令克后段","poweroffReason":"高压开关跳闸","powerTime":"2019-10-18 10:46:08","powerComm":"已送电","subsNo":"","lineNo":"","tgNo":"","tgName":null,"infoStatus":"1","orgName":"国网浙江桐庐县供电公司","typeName":null,"infoStatusName":null,"dateDay":null,"orgNos":null,"nowTime":null,"countyName":null,"streetName":null,"villageName":null,"roadName":null,"communityName":null,"tranName":null,"sdLineName":null,"cityCode":"3340150","cityName":"国网浙江桐庐县供电公司","provinceCode":null,"stopTime":"2019-10-18 11:00:36","powerType":"全部","powerOffArea":"110kV分水变:西关T177线-玉华F4402令克后段","powerOffReason":"高压开关跳闸","powerOffId":"2019101831020100"},{"poweroffId":2019101831020095,"sgpoweroffId":null,"subsName":"","lineName":"10kV红坞T117线","pubTranName":"塔坞路3号公变,","scope":"浙江省-杭州市-桐庐县-桐君街道-圆通社区-塔坞路一带","startTime":"2019-10-18 09:31:15","stopDate":"2019-10-18 11:00:15","orgNo":"3340150","typeCode":"电网故障停限电","poweroffArea":"110kV桐庐变:红坞T117线-塔坞路3号公变后段","poweroffReason":"(低压停电信息)低压开关跳闸","powerTime":"2019-10-18 10:45:32","powerComm":"已送电","subsNo":"","lineNo":"","tgNo":"","tgName":null,"infoStatus":"1","orgName":"国网浙江桐庐县供电公司","typeName":null,"infoStatusName":null,"dateDay":null,"orgNos":null,"nowTime":null,"countyName":null,"streetName":null,"villageName":null,"roadName":null,"communityName":null,"tranName":null,"sdLineName":null,"cityCode":"3340150","cityName":"国网浙江桐庐县供电公司","provinceCode":null,"stopTime":"2019-10-18 11:00:15","powerType":"全部","powerOffArea":"110kV桐庐变:红坞T117线-塔坞路3号公变后段","powerOffReason":"(低压停电信息)低压开关跳闸","powerOffId":"2019101831020095"},{"poweroffId":2019101831020087,"sgpoweroffId":null,"subsName":"","lineName":"10kV珠村163线","pubTranName":"桐庐吉诚农业开发有限公司,杭州伟都钢构有限公司,后浦村周家2号公变,大庙陈家垅2号公变,东华大湾里1号公变,后浦村陈家垅3号公变,","scope":"浙江省-杭州市-桐庐县-瑶琳镇-东琳行政村-东华自然村,瑶琳镇-后浦行政村(青后,大庙自然村);瑶琳镇-后浦行政村(杭州伟都钢构有限公司,桐庐吉诚农业开发有限公司)","startTime":"2019-10-29 08:00:00","stopDate":"2019-10-29 16:00:00","orgNo":"3340150","typeCode":"计划停电","poweroffArea":"35kV瑶琳变:珠村163线-大湾里F6041开关后段","poweroffReason":"工程施工","powerTime":"2019-10-29 15:50:59","powerComm":"已送电","subsNo":"","lineNo":"","tgNo":"","tgName":null,"infoStatus":"1","orgName":"国网浙江桐庐县供电公司","typeName":null,"infoStatusName":null,"dateDay":null,"orgNos":null,"nowTime":null,"countyName":null,"streetName":null,"villageName":null,"roadName":null,"communityName":null,"tranName":null,"sdLineName":null,"cityCode":"3340150","cityName":"国网浙江桐庐县供电公司","provinceCode":null,"stopTime":"2019-10-29 16:00:00","powerType":"全部","powerOffArea":"35kV瑶琳变:珠村163线-大湾里F6041开关后段","powerOffReason":"工程施工","powerOffId":"2019101831020087"},{"poweroffId":2019101831020081,"sgpoweroffId":null,"subsName":"","lineName":"10kV上官D265线","pubTranName":"剡溪村1#徐村工业园区公变,","scope":"浙江省-杭州市-富阳区-上官乡-剡溪行政村-徐村自然村","startTime":"2019-10-18 09:28:00","stopDate":"2019-10-18 10:10:00","orgNo":"3340170","typeCode":"电网故障停限电","poweroffArea":"35kV盛村变:上官D265线-剡溪村1#徐村工业园区公变后段","poweroffReason":"高压开关跳闸","powerTime":"2019-10-18 09:40:18","powerComm":"已送电","subsNo":"","lineNo":"","tgNo":"","tgName":null,"infoStatus":"1","orgName":"国网浙江杭州市富阳区供电公司","typeName":null,"infoStatusName":null,"dateDay":null,"orgNos":null,"nowTime":null,"countyName":null,"streetName":null,"villageName":null,"roadName":null,"communityName":null,"tranName":null,"sdLineName":null,"cityCode":"3340170","cityName":"国网浙江杭州市富阳区供电公司","provinceCode":null,"stopTime":"2019-10-18 10:10:00","powerType":"全部","powerOffArea":"35kV盛村变:上官D265线-剡溪村1#徐村工业园区公变后段","powerOffReason":"高压开关跳闸","powerOffId":"2019101831020081"},{"poweroffId":2019101831020034,"sgpoweroffId":null,"subsName":"","lineName":"10kV澄源Y443线","pubTranName":"西门村沙田畈台区,卜家蓬村小岗坞台区,周村村张家台区,周村胡村溪台区,童家村新村台区,童家村许家台区,1#,卜家蓬村小坞口台区,周村胡村台区,余洪村枣源台区,卜家蓬村小山台区,绿荷塘二级电站专变1#,周村村方家台区,绿荷塘二级电站专变2#,绿荷塘村赵家台区,绿荷塘村杨柳塘台区,建德市创鑫金属制品厂,余洪村麻地堆台区,西华村后堪坪台区,绿荷塘村伊坞台区,周村天山源台区,西华村华龙路台区配电变压器,西华村笔峰台区,绿荷塘村上仓台区,周村村庙后台区,童家村澄源台区,西华村赛源台区,周村村葫芦岭台区,绿荷塘村洪家山台区,绿荷塘一级电站专变,童家村东山脚台区,余洪村前村畈台区,西华村上叶台区,绿荷塘村西坞口台区,卜家蓬村前山塘台区,周村村马盘山台区,绿荷塘村马江山台区,绿荷塘村沙畈台区,绿荷塘村樟山坞台区,建德市寿昌镇童家马洪坑沙场,余洪村东湾台区,建德市明大印花涂料厂,卜家蓬村周柴坞台区,西华村里洪台区,1#,卜家蓬村葛塘庙台区,建德市珑达塑业有限公司,童家村乌龙岗台区,西华村大林源台区,西华村西华台区,周村村里塘源台区,童家村童家台区,周村村赖家台区,周村村郭首源台区,童家村邵家桥台区,周村揭家台区,杭州江南春堂生物科技有限公司,西华村项墩头台区,杭州绿荷塘古楠木森林公园有限公司,周村马洪坑台区,建德市童家乡林场,","scope":"浙江省-杭州市-建德市-寿昌镇-西门行政村-小卜家蓬自然村,寿昌镇-卜家蓬行政村(前山塘自然村,卜家蓬自然村,周柴坞自然村,小山自然村,月塘下自然村,小岗坞自然村),寿昌镇-绿荷塘行政村(沙畈自然村,赵家自然村,洪家山自然村,上仓自然村,杨柳塘自然村,大桥头自然村,樟山坞自然村,伊坞自然村,西坞口自然村,马江山自然村),寿昌镇-西华行政村(西华自然村,赛源自然村,华龙路自然村,西源路,笔峰自然村,上叶自然村,大林源自然村,后堪坪自然村,荷花路,仓坪路,里洪自然村,樟山坞自然村,项墩头自然村),寿昌镇-童家行政村(新村自然村,童家自然村,东山脚自然村,乌龙岗自然村,邵家桥自然村,蒋家自然村,大坞岗自然村,澄源自然村,曾家自然村,汪家自然村,许家自然村,童家新村,下邵自然村),寿昌镇-余洪行政村(枣园自然村,前村畈自然村,麻地堆自然村),寿昌镇-周村行政村(周村自然村,天山源自然村,郭首源自然村,游家自然村,张家自然村,马盘山自然村,里塘源自然村,百人埠自然村,庙后自然村,夏家自然村,后畈自然村,前畈自然村,赖家自然村,葫芦岭自然村,揭家自然村,胡村自然村,胡村溪自然村,瓦空坪自然村,马洪坑自然村);寿昌镇(建德市童家乡绿荷塘水库电站,杭州江南春堂生物科技有限公司,杭州隆运汽车部件有限责任公司,建德市明大印花涂料厂,建德市珑达塑业有限公司,杭州绿荷塘古楠木森林公园有限公司,建德市童家乡林场,建德腾耐建材有限公司)","startTime":"2019-10-18 08:08:00","stopDate":"2019-10-18 09:00:00","orgNo":"3340180","typeCode":"电网故障停限电","poweroffArea":"110kV家蓬变:澄源Y443线澄源Y4431开关后段","poweroffReason":"高压开关跳闸 原停电结束时间为2019-10-18 11:00:00,为减少客户停电时间,加快工作进度,提前送电,现变更停电结束时间为2019-10-18 09:00:00","powerTime":"2019-10-18 08:40:00","powerComm":"已送电","subsNo":"","lineNo":"","tgNo":"","tgName":null,"infoStatus":"1","orgName":"国网浙江建德市供电有限公司","typeName":null,"infoStatusName":null,"dateDay":null,"orgNos":null,"nowTime":null,"countyName":null,"streetName":null,"villageName":null,"roadName":null,"communityName":null,"tranName":null,"sdLineName":null,"cityCode":"3340180","cityName":"国网浙江建德市供电有限公司","provinceCode":null,"stopTime":"2019-10-18 09:00:00","powerType":"全部","powerOffArea":"110kV家蓬变:澄源Y443线澄源Y4431开关后段","powerOffReason":"高压开关跳闸 原停电结束时间为2019-10-18 11:00:00,为减少客户停电时间,加快工作进度,提前送电,现变更停电结束时间为2019-10-18 09:00:00","powerOffId":"2019101831020034"}],"pageModel":{"pageNow":997,"totalCount":17789,"totalPage":1779,"tableRows":0,"pageCount":10,"beginCount":9960},"isExperi":"1"}