{"message":"","today":"2020-06-16","seleList":[{"poweroffId":2019101831020024,"sgpoweroffId":null,"subsName":"","lineName":"10kV维城G118线","pubTranName":"杭州溢盈制衣,货物运输配载中心,金壁之都,","scope":"浙江省-杭州市-余杭区-南苑街道(杭州余杭货物运输配载服务中心,杭州金壁之都娱乐餐饮有限公司,杭州力拓机械有限公司)","startTime":"2019-10-18 07:30:00","stopDate":"2019-10-18 10:50:00","orgNo":"3340140","typeCode":"电网故障停限电","poweroffArea":"110kV临平变:维城G118线石化临平油库分线开关后段","poweroffReason":"高压开关跳闸 原停电结束时间为2019-10-18 10:20:00,因现场环境复杂原因,现变更停电结束时间为2019-10-18 10:50:00","powerTime":"2019-10-18 10:47:59","powerComm":"已送电","subsNo":"","lineNo":"","tgNo":"","tgName":null,"infoStatus":"1","orgName":"国网浙江杭州市余杭区供电有限公司","typeName":null,"infoStatusName":null,"dateDay":null,"orgNos":null,"nowTime":null,"countyName":null,"streetName":null,"villageName":null,"roadName":null,"communityName":null,"tranName":null,"sdLineName":null,"cityCode":"3340140","cityName":"国网浙江杭州市余杭区供电有限公司","provinceCode":null,"stopTime":"2019-10-18 10:50:00","powerType":"全部","powerOffArea":"110kV临平变:维城G118线石化临平油库分线开关后段","powerOffReason":"高压开关跳闸 原停电结束时间为2019-10-18 10:20:00,因现场环境复杂原因,现变更停电结束时间为2019-10-18 10:50:00","powerOffId":"2019101831020024"},{"poweroffId":2019101731020302,"sgpoweroffId":null,"subsName":"","lineName":"10kV六堡961线","pubTranName":"六(6)农,","scope":"浙江省-杭州市-江干区-六堡村一区部分用户、二区部分用户、周边路灯、村门口配电房等用户","startTime":"2019-10-30 11:30:00","stopDate":"2019-10-30 14:30:00","orgNo":"3340101","typeCode":"计划停电","poweroffArea":"110kV彭埠变:六堡961线-六(6)农后段","poweroffReason":"(低压停电信息)杭州市城东新城建设投资有限公司10kV五堡953线、六堡961线部分线路迁改工程 原停电结束时间为2019-10-30 13:30:00,因工作量大原因,现变更停电结束时间为2019-10-30 14:30:00","powerTime":"2019-10-30 14:12:01","powerComm":"已送电","subsNo":"","lineNo":"","tgNo":"","tgName":null,"infoStatus":"1","orgName":"浙江杭州电力客户服务中心","typeName":null,"infoStatusName":null,"dateDay":null,"orgNos":null,"nowTime":null,"countyName":null,"streetName":null,"villageName":null,"roadName":null,"communityName":null,"tranName":null,"sdLineName":null,"cityCode":"3340101","cityName":"浙江杭州电力客户服务中心","provinceCode":null,"stopTime":"2019-10-30 14:30:00","powerType":"全部","powerOffArea":"110kV彭埠变:六堡961线-六(6)农后段","powerOffReason":"(低压停电信息)杭州市城东新城建设投资有限公司10kV五堡953线、六堡961线部分线路迁改工程 原停电结束时间为2019-10-30 13:30:00,因工作量大原因,现变更停电结束时间为2019-10-30 14:30:00","powerOffId":"2019101731020302"},{"poweroffId":2019101731020300,"sgpoweroffId":null,"subsName":"","lineName":"10kV上官D265线","pubTranName":"剡溪村6#睦村村口公变,","scope":"浙江省-杭州市-富阳区-上官乡-剡溪行政村-睦村自然村","startTime":"2019-10-17 18:47:56","stopDate":"2019-10-17 19:20:56","orgNo":"3340170","typeCode":"电网故障停限电","poweroffArea":"35kV盛村变:上官D265线-剡溪村6#睦村村口公变后段","poweroffReason":"高压开关跳闸","powerTime":"2019-10-17 18:59:56","powerComm":"已送电","subsNo":"","lineNo":"","tgNo":"","tgName":null,"infoStatus":"1","orgName":"国网浙江杭州市富阳区供电公司","typeName":null,"infoStatusName":null,"dateDay":null,"orgNos":null,"nowTime":null,"countyName":null,"streetName":null,"villageName":null,"roadName":null,"communityName":null,"tranName":null,"sdLineName":null,"cityCode":"3340170","cityName":"国网浙江杭州市富阳区供电公司","provinceCode":null,"stopTime":"2019-10-17 19:20:56","powerType":"全部","powerOffArea":"35kV盛村变:上官D265线-剡溪村6#睦村村口公变后段","powerOffReason":"高压开关跳闸","powerOffId":"2019101731020300"},{"poweroffId":2019101731020298,"sgpoweroffId":null,"subsName":"","lineName":"10kV沧滩Y102线","pubTranName":"新林公变,","scope":"浙江省-杭州市-建德市-新安江街道-罗桐社区-新安路、新林路、环城北路一带用户。","startTime":"2019-10-17 17:57:00","stopDate":"2019-10-17 19:57:00","orgNo":"3340180","typeCode":"电网故障停限电","poweroffArea":"110kV新安江变:沧滩Y102线-新林公变后段","poweroffReason":"(低压停电信息)低压开关跳闸","powerTime":"2019-10-17 18:59:00","powerComm":"已送电","subsNo":"","lineNo":"","tgNo":"","tgName":null,"infoStatus":"1","orgName":"国网浙江建德市供电有限公司","typeName":null,"infoStatusName":null,"dateDay":null,"orgNos":null,"nowTime":null,"countyName":null,"streetName":null,"villageName":null,"roadName":null,"communityName":null,"tranName":null,"sdLineName":null,"cityCode":"3340180","cityName":"国网浙江建德市供电有限公司","provinceCode":null,"stopTime":"2019-10-17 19:57:00","powerType":"全部","powerOffArea":"110kV新安江变:沧滩Y102线-新林公变后段","powerOffReason":"(低压停电信息)低压开关跳闸","powerOffId":"2019101731020298"},{"poweroffId":2019101731020221,"sgpoweroffId":null,"subsName":"","lineName":"10kV久峰C955线","pubTranName":"河杨湖5#变,","scope":"浙江省-杭州市-萧山区-戴村镇(河杨湖行政村-杨家桥自然村,张家弄行政村-张家弄自然村),浙江省杭州市萧山区戴村镇杨家桥等一带","startTime":"2019-10-17 14:58:22","stopDate":"2019-10-17 17:00:22","orgNo":"3340130","typeCode":"电网故障停限电","poweroffArea":"110kV永兴变:久峰C955线-河杨湖5#变台区低压开关","poweroffReason":"(低压停电信息)低压开关跳闸","powerTime":"2019-10-17 16:06:14","powerComm":"已送电","subsNo":"","lineNo":"","tgNo":"","tgName":null,"infoStatus":"1","orgName":"国网浙江杭州市萧山区供电有限公司","typeName":null,"infoStatusName":null,"dateDay":null,"orgNos":null,"nowTime":null,"countyName":null,"streetName":null,"villageName":null,"roadName":null,"communityName":null,"tranName":null,"sdLineName":null,"cityCode":"3340130","cityName":"国网浙江杭州市萧山区供电有限公司","provinceCode":null,"stopTime":"2019-10-17 17:00:22","powerType":"全部","powerOffArea":"110kV永兴变:久峰C955线-河杨湖5#变台区低压开关","powerOffReason":"(低压停电信息)低压开关跳闸","powerOffId":"2019101731020221"},{"poweroffId":2019101731020197,"sgpoweroffId":null,"subsName":"","lineName":"10kV陈村C457线","pubTranName":"湖东村3#变,","scope":"浙江省-杭州市-萧山区-蜀山街道-湖东行政村-沈家坞自然村","startTime":"2019-10-25 08:30:00","stopDate":"2019-10-25 16:30:00","orgNo":"3340130","typeCode":"计划停电","poweroffArea":"110kV萧山变:陈村C457线-湖东村3#后段","poweroffReason":"湖东村3#变杆上变400kVA改630kVA欧变，拆除导线4档，新放导线1档，新装真空开关1台，低压电缆更换","powerTime":"2019-10-25 15:50:49","powerComm":"已送电","subsNo":"","lineNo":"","tgNo":"","tgName":null,"infoStatus":"1","orgName":"国网浙江杭州市萧山区供电有限公司","typeName":null,"infoStatusName":null,"dateDay":null,"orgNos":null,"nowTime":null,"countyName":null,"streetName":null,"villageName":null,"roadName":null,"communityName":null,"tranName":null,"sdLineName":null,"cityCode":"3340130","cityName":"国网浙江杭州市萧山区供电有限公司","provinceCode":null,"stopTime":"2019-10-25 16:30:00","powerType":"全部","powerOffArea":"110kV萧山变:陈村C457线-湖东村3#后段","powerOffReason":"湖东村3#变杆上变400kVA改630kVA欧变，拆除导线4档，新放导线1档，新装真空开关1台，低压电缆更换","powerOffId":"2019101731020197"},{"poweroffId":2019101731020196,"sgpoweroffId":null,"subsName":"","lineName":"10kV西许C212线","pubTranName":"西许村15#变,","scope":"浙江省-杭州市-萧山区-新塘街道-西许行政村(西许自然村,西湖自然村)","startTime":"2019-10-25 09:30:00","stopDate":"2019-10-25 17:30:00","orgNo":"3340130","typeCode":"计划停电","poweroffArea":"110kV霞江变:西许C212线-西许村15#变后段","poweroffReason":"新布点西许村25#变，令克更换开关","powerTime":"2019-10-25 16:32:11","powerComm":"已送电","subsNo":"","lineNo":"","tgNo":"","tgName":null,"infoStatus":"1","orgName":"国网浙江杭州市萧山区供电有限公司","typeName":null,"infoStatusName":null,"dateDay":null,"orgNos":null,"nowTime":null,"countyName":null,"streetName":null,"villageName":null,"roadName":null,"communityName":null,"tranName":null,"sdLineName":null,"cityCode":"3340130","cityName":"国网浙江杭州市萧山区供电有限公司","provinceCode":null,"stopTime":"2019-10-25 17:30:00","powerType":"全部","powerOffArea":"110kV霞江变:西许C212线-西许村15#变后段","powerOffReason":"新布点西许村25#变，令克更换开关","powerOffId":"2019101731020196"},{"poweroffId":2019101731020195,"sgpoweroffId":null,"subsName":"","lineName":"10kV和平C209线","pubTranName":"徐纪产,","scope":"浙江省-杭州市-萧山区-新塘街道-傅楼行政村-徐纪产","startTime":"2019-10-26 09:00:00","stopDate":"2019-10-26 12:00:00","orgNo":"3340130","typeCode":"计划停电","poweroffArea":"110kV霞江变:和平C209线首端，和平C2092开关（自），和平C2093开关新之间","poweroffReason":"配合停电：娄下C206线13#杆电缆引线消缺处理","powerTime":"2019-10-26 11:13:21","powerComm":"已送电","subsNo":"","lineNo":"","tgNo":"","tgName":null,"infoStatus":"1","orgName":"国网浙江杭州市萧山区供电有限公司","typeName":null,"infoStatusName":null,"dateDay":null,"orgNos":null,"nowTime":null,"countyName":null,"streetName":null,"villageName":null,"roadName":null,"communityName":null,"tranName":null,"sdLineName":null,"cityCode":"3340130","cityName":"国网浙江杭州市萧山区供电有限公司","provinceCode":null,"stopTime":"2019-10-26 12:00:00","powerType":"全部","powerOffArea":"110kV霞江变:和平C209线首端，和平C2092开关（自），和平C2093开关新之间","powerOffReason":"配合停电：娄下C206线13#杆电缆引线消缺处理","powerOffId":"2019101731020195"},{"poweroffId":2019101731020164,"sgpoweroffId":null,"subsName":"","lineName":"10kV蔡家D893线","pubTranName":"新华村2#村中公变,","scope":"浙江省-杭州市-富阳区-灵桥镇-新华行政村-新华自然村","startTime":"2019-10-17 13:30:16","stopDate":"2019-10-17 15:30:16","orgNo":"3340170","typeCode":"电网故障停限电","poweroffArea":"110kV永春变:蔡家D893线-新华村2#村中公变后段","poweroffReason":"高压开关跳闸","powerTime":"2019-10-17 14:39:39","powerComm":"已送电","subsNo":"","lineNo":"","tgNo":"","tgName":null,"infoStatus":"1","orgName":"国网浙江杭州市富阳区供电公司","typeName":null,"infoStatusName":null,"dateDay":null,"orgNos":null,"nowTime":null,"countyName":null,"streetName":null,"villageName":null,"roadName":null,"communityName":null,"tranName":null,"sdLineName":null,"cityCode":"3340170","cityName":"国网浙江杭州市富阳区供电公司","provinceCode":null,"stopTime":"2019-10-17 15:30:16","powerType":"全部","powerOffArea":"110kV永春变:蔡家D893线-新华村2#村中公变后段","powerOffReason":"高压开关跳闸","powerOffId":"2019101731020164"},{"poweroffId":2019101731020151,"sgpoweroffId":null,"subsName":"","lineName":"10kV昌盛C931线","pubTranName":"杭州萧山利丰机械厂,杭州萧山食品公司党山购销部,杭州顺兴实业有限公司,杭州华利尔实业有限公司3#,杭州顺兴实业有限公司,党山供电营业所2#变,群益村4#变,杭州顺兴实业有限公司,1#变,","scope":"浙江省-杭州市-萧山区-瓜沥镇-南大房社区-党山路,瓜沥镇-群益行政村、群益自然村,丈午自然村、浙江省-杭州市-萧山区-瓜沥镇-党山行政村-杭州萧山食品公司党山购销部,瓜沥镇-群益行政村、杭州康利达卫浴有限公司,杭州顺兴实业有限公司,杭州华利尔实业有限公司,杭州萧山利丰机械厂、群益村一带","startTime":"2019-10-17 13:00:20","stopDate":"2019-10-17 14:40:20","orgNo":"3340130","typeCode":"电网故障停限电","poweroffArea":"110kV党山变:昌盛C931线-昌盛C931线顺兴分线开关后段","poweroffReason":"高压柱上断路器短路故障 原停电结束时间为2019-10-17 15:30:20,为减少客户停电时间,加快工作进度,提前送电,现变更停电结束时间为2019-10-17 14:40:20","powerTime":"2019-10-17 14:00:29","powerComm":"已送电","subsNo":"","lineNo":"","tgNo":"","tgName":null,"infoStatus":"1","orgName":"国网浙江杭州市萧山区供电有限公司","typeName":null,"infoStatusName":null,"dateDay":null,"orgNos":null,"nowTime":null,"countyName":null,"streetName":null,"villageName":null,"roadName":null,"communityName":null,"tranName":null,"sdLineName":null,"cityCode":"3340130","cityName":"国网浙江杭州市萧山区供电有限公司","provinceCode":null,"stopTime":"2019-10-17 14:40:20","powerType":"全部","powerOffArea":"110kV党山变:昌盛C931线-昌盛C931线顺兴分线开关后段","powerOffReason":"高压柱上断路器短路故障 原停电结束时间为2019-10-17 15:30:20,为减少客户停电时间,加快工作进度,提前送电,现变更停电结束时间为2019-10-17 14:40:20","powerOffId":"2019101731020151"}],"pageModel":{"pageNow":998,"totalCount":17789,"totalPage":1779,"tableRows":0,"pageCount":10,"beginCount":9970},"isExperi":"1"}