{"message":"","today":"2020-06-16","seleList":[{"poweroffId":2019101631020265,"sgpoweroffId":null,"subsName":"","lineName":"10kV联胜G909线","pubTranName":"怡丰城4#基建变,沈大物业,羽虎服饰,杭州余杭重大基础设施建设有限公司61208688071#变压器,羽虎服饰2#变,联胜6组（竹鸡塘）公变,中铁四局（6120859254）02号专变,长流服饰,中铁四局（6120859254）01号专变,杰瑞服装,上海国动网络通信有限公司杭州分公司,1#变压器,新城二中1#基建变,江寅工贸,翁梅12组（南吴郭村）公变,德力密封件,一佳精密轴承,杭州中临建筑工程有限公司61208065661#变压器,杭州嘉溢制衣有限公司61208104741#变压器,杭州博众家具有限公司,交警大队Ⅱ段（6120840115）02#专变,余杭水利建设投资有限公司变压器,南苑街道1#路灯变,联胜7组（于位塘）公变,华星轴配,方桥小区5号公变,翁梅9组公变,红木仓储基建变,高地9组2#变,杭州中临建筑工程有限公司61208066721#变压器,翁梅社区居委会,南苑幼儿园,东海加油站,联胜村委公变,新城二中2#基建变,高地9组3#变,杭州艺尚建设开发有限公司61208548731#变压器,春天市政250,龙华制衣,乔司化工厂,","scope":"浙江省-杭州市-余杭区-乔司街道-方桥行政村(方桥自然村,目野自然村),南苑街道-高地社区(高地自然村,高地村,高地),南苑街道(翁梅社区-翁梅,联胜社区-联胜自然村);乔司街道(杭州沈大物业管理有限公司,余杭区良山学校乔司校区,杭州羽虎服饰有限公司,杭州亚明化工有限公司,杭州市余杭区河道建设管理中心),南苑街道(杭州怡丰成房地产开发有限公司,红木仓储(杭州)有限公司,杭州余杭城市建设集团有限公司,杭州中临建筑工程有限公司,杭州嘉溢制衣有限公司,杭州艺尚建设开发有限公司,中铁四局集团有限公司城市轨道交通工程分公司,浙江东海石油实业有限公司,杭州市余杭区南苑街道中心幼儿园,杭州华星轴承有限公司,陆建福,杭州市余杭区人民政府南苑街道办事处,杭州洲通速递有限公司,杭州一佳精密轴承有限公司,杭州市余杭区南苑街道翁梅社区居民委员会,杭州余杭龙华制衣有限公司,上海国动网络通信有限公司杭州分公司,杭州市公安局余杭区分局交通警察大队,杭州市余杭区公路管理处)","startTime":"2019-10-16 21:11:00","stopDate":"2019-10-16 23:11:00","orgNo":"3340140","typeCode":"电网故障停限电","poweroffArea":"110kV庙港变:联胜G909线联胜G9093开关后段","poweroffReason":"高压开关跳闸","powerTime":"2019-10-16 22:16:22","powerComm":"已送电","subsNo":"","lineNo":"","tgNo":"","tgName":null,"infoStatus":"1","orgName":"国网浙江杭州市余杭区供电有限公司","typeName":null,"infoStatusName":null,"dateDay":null,"orgNos":null,"nowTime":null,"countyName":null,"streetName":null,"villageName":null,"roadName":null,"communityName":null,"tranName":null,"sdLineName":null,"cityCode":"3340140","cityName":"国网浙江杭州市余杭区供电有限公司","provinceCode":null,"stopTime":"2019-10-16 23:11:00","powerType":"全部","powerOffArea":"110kV庙港变:联胜G909线联胜G9093开关后段","powerOffReason":"高压开关跳闸","powerOffId":"2019101631020265"},{"poweroffId":2019101631020254,"sgpoweroffId":null,"subsName":"","lineName":"10kV国信Y224线","pubTranName":"邵坑坞3号公变,","scope":"浙江省-杭州市-建德市-新安江街道-健安社区-广兴北路69幢1单元202室一带用户","startTime":"2019-10-16 16:58:00","stopDate":"2019-10-16 18:10:00","orgNo":"3340180","typeCode":"电网故障停限电","poweroffArea":"110kV白沙变:养生堂Y106线-邵坑坞3号公变后段","poweroffReason":"(低压停电信息)低压熔芯烧毁","powerTime":"2019-10-16 17:49:00","powerComm":"已送电","subsNo":"","lineNo":"","tgNo":"","tgName":null,"infoStatus":"1","orgName":"国网浙江建德市供电有限公司","typeName":null,"infoStatusName":null,"dateDay":null,"orgNos":null,"nowTime":null,"countyName":null,"streetName":null,"villageName":null,"roadName":null,"communityName":null,"tranName":null,"sdLineName":null,"cityCode":"3340180","cityName":"国网浙江建德市供电有限公司","provinceCode":null,"stopTime":"2019-10-16 18:10:00","powerType":"全部","powerOffArea":"110kV白沙变:养生堂Y106线-邵坑坞3号公变后段","powerOffReason":"(低压停电信息)低压熔芯烧毁","powerOffId":"2019101631020254"},{"poweroffId":2019101631020251,"sgpoweroffId":null,"subsName":"","lineName":"10kV电校566线","pubTranName":"福雷德(六),","scope":"浙江省杭州市江干区福雷德小区3号楼Q单元2-20层照明","startTime":"2019-10-25 12:00:00","stopDate":"2019-10-25 14:00:00","orgNo":"3340101","typeCode":"计划停电","poweroffArea":"110kV下沙变:电校566线-福雷德（六）低压B6-1、B6-2、B6-3开关","poweroffReason":"(低压停电信息)福雷德六变充电桩配套","powerTime":"2019-10-25 13:41:33","powerComm":"已送电","subsNo":"","lineNo":"","tgNo":"","tgName":null,"infoStatus":"1","orgName":"浙江杭州电力客户服务中心","typeName":null,"infoStatusName":null,"dateDay":null,"orgNos":null,"nowTime":null,"countyName":null,"streetName":null,"villageName":null,"roadName":null,"communityName":null,"tranName":null,"sdLineName":null,"cityCode":"3340101","cityName":"浙江杭州电力客户服务中心","provinceCode":null,"stopTime":"2019-10-25 14:00:00","powerType":"全部","powerOffArea":"110kV下沙变:电校566线-福雷德（六）低压B6-1、B6-2、B6-3开关","powerOffReason":"(低压停电信息)福雷德六变充电桩配套","powerOffId":"2019101631020251"},{"poweroffId":2019101631020250,"sgpoweroffId":null,"subsName":"","lineName":"10kV下文8222线","pubTranName":"","scope":"浙江省杭州市江干区金沙家园14号楼东单元动力备供、14号楼西单元动力备供、7号楼住宅及动力主供、8号楼动力主供、8号楼住宅及商铺、9号楼备供等用户","startTime":"2019-10-25 09:30:00","stopDate":"2019-10-25 12:00:00","orgNo":"3340101","typeCode":"计划停电","poweroffArea":"110kV高教变:下文8222线首端，新沙（八）低压B8-1、B8-2、B8-3、B8-4、B8-5、B8-6、B8-7开关","poweroffReason":"(低压停电信息)高沙路641号商铺增容 原停电结束时间为2019-10-25 11:00:00,因工作量大原因,现变更停电结束时间为2019-10-25 12:00:00","powerTime":"2019-10-25 11:41:59","powerComm":"已送电","subsNo":"","lineNo":"","tgNo":"","tgName":null,"infoStatus":"1","orgName":"浙江杭州电力客户服务中心","typeName":null,"infoStatusName":null,"dateDay":null,"orgNos":null,"nowTime":null,"countyName":null,"streetName":null,"villageName":null,"roadName":null,"communityName":null,"tranName":null,"sdLineName":null,"cityCode":"3340101","cityName":"浙江杭州电力客户服务中心","provinceCode":null,"stopTime":"2019-10-25 12:00:00","powerType":"全部","powerOffArea":"110kV高教变:下文8222线首端，新沙（八）低压B8-1、B8-2、B8-3、B8-4、B8-5、B8-6、B8-7开关","powerOffReason":"(低压停电信息)高沙路641号商铺增容 原停电结束时间为2019-10-25 11:00:00,因工作量大原因,现变更停电结束时间为2019-10-25 12:00:00","powerOffId":"2019101631020250"},{"poweroffId":2019101631020240,"sgpoweroffId":null,"subsName":"","lineName":"10kV九年H372线","pubTranName":"杭州余杭交通集团有限公司,","scope":"浙江省杭州市余杭区良渚街道：良渚大道路灯一带","startTime":"2019-10-27 09:00:00","stopDate":"2019-10-27 13:00:00","orgNo":"3340140","typeCode":"计划停电","poweroffArea":"九年H372线良渚大道路灯变分线","poweroffReason":"菜鸟开关站待用03间隔至良渚大道路灯变电缆制作、搭接和试验工作","powerTime":"2019-10-27 12:19:55","powerComm":"已送电","subsNo":"","lineNo":"","tgNo":"","tgName":null,"infoStatus":"1","orgName":"国网浙江杭州市余杭区供电有限公司","typeName":null,"infoStatusName":null,"dateDay":null,"orgNos":null,"nowTime":null,"countyName":null,"streetName":null,"villageName":null,"roadName":null,"communityName":null,"tranName":null,"sdLineName":null,"cityCode":"3340140","cityName":"国网浙江杭州市余杭区供电有限公司","provinceCode":null,"stopTime":"2019-10-27 13:00:00","powerType":"全部","powerOffArea":"九年H372线良渚大道路灯变分线","powerOffReason":"菜鸟开关站待用03间隔至良渚大道路灯变电缆制作、搭接和试验工作","powerOffId":"2019101631020240"},{"poweroffId":2019101631020234,"sgpoweroffId":null,"subsName":"","lineName":"10kV洞桥D334线","pubTranName":"洞桥镇3#桥头公变,","scope":"浙江省-杭州市-富阳区-洞桥镇-里仁行政村-农居点自然村,洞桥镇-洞桥行政村(凌家自然村,陈林自然村,沈家西自然村,木家坞自然村,洞桥自然村,徐家自然村,里仁街自然村,农居点自然村,于家自然村,假山头自然村,溪田坞自然村,洞桥头自然村)","startTime":"2019-10-16 16:04:34","stopDate":"2019-10-16 19:00:00","orgNo":"3340170","typeCode":"电网故障停限电","poweroffArea":"110kV万市变:洞桥D334线-洞桥镇3#桥头公变后段","poweroffReason":"高压开关跳闸","powerTime":"2019-10-16 18:39:50","powerComm":"已送电","subsNo":"","lineNo":"","tgNo":"","tgName":null,"infoStatus":"1","orgName":"国网浙江杭州市富阳区供电公司","typeName":null,"infoStatusName":null,"dateDay":null,"orgNos":null,"nowTime":null,"countyName":null,"streetName":null,"villageName":null,"roadName":null,"communityName":null,"tranName":null,"sdLineName":null,"cityCode":"3340170","cityName":"国网浙江杭州市富阳区供电公司","provinceCode":null,"stopTime":"2019-10-16 19:00:00","powerType":"全部","powerOffArea":"110kV万市变:洞桥D334线-洞桥镇3#桥头公变后段","powerOffReason":"高压开关跳闸","powerOffId":"2019101631020234"},{"poweroffId":2019101631020233,"sgpoweroffId":null,"subsName":"","lineName":"10kV大源Y686线","pubTranName":"朝阳村庙边台区,","scope":"浙江省-杭州市-建德市-大同镇 朝阳行政村 庙边自然村一带用户。","startTime":"2019-10-25 06:30:00","stopDate":"2019-10-25 16:30:00","orgNo":"3340180","typeCode":"计划停电","poweroffArea":"110kV大同变:大源Y686线-朝阳村庙边台区后段","poweroffReason":"清潭支线50#杆支接原庙边台区支线0#-1#杆旧线路拆除","powerTime":"2019-10-25 16:16:00","powerComm":"已送电","subsNo":"","lineNo":"","tgNo":"","tgName":null,"infoStatus":"1","orgName":"国网浙江建德市供电有限公司","typeName":null,"infoStatusName":null,"dateDay":null,"orgNos":null,"nowTime":null,"countyName":null,"streetName":null,"villageName":null,"roadName":null,"communityName":null,"tranName":null,"sdLineName":null,"cityCode":"3340180","cityName":"国网浙江建德市供电有限公司","provinceCode":null,"stopTime":"2019-10-25 16:30:00","powerType":"全部","powerOffArea":"110kV大同变:大源Y686线-朝阳村庙边台区后段","powerOffReason":"清潭支线50#杆支接原庙边台区支线0#-1#杆旧线路拆除","powerOffId":"2019101631020233"},{"poweroffId":2019101631020174,"sgpoweroffId":null,"subsName":"","lineName":"10kV环联D788线","pubTranName":"环一村3号西山桥公变,","scope":"浙江省-杭州市-富阳区-环山乡-环一行政村-西山桥自然村","startTime":"2019-10-16 13:47:24","stopDate":"2019-10-16 14:15:24","orgNo":"3340170","typeCode":"电网故障停限电","poweroffArea":"110kV王洲变:环联D788线-环一村3#西山桥公变后段","poweroffReason":"高压开关跳闸","powerTime":"2019-10-16 13:56:08","powerComm":"已送电","subsNo":"","lineNo":"","tgNo":"","tgName":null,"infoStatus":"1","orgName":"国网浙江杭州市富阳区供电公司","typeName":null,"infoStatusName":null,"dateDay":null,"orgNos":null,"nowTime":null,"countyName":null,"streetName":null,"villageName":null,"roadName":null,"communityName":null,"tranName":null,"sdLineName":null,"cityCode":"3340170","cityName":"国网浙江杭州市富阳区供电公司","provinceCode":null,"stopTime":"2019-10-16 14:15:24","powerType":"全部","powerOffArea":"110kV王洲变:环联D788线-环一村3#西山桥公变后段","powerOffReason":"高压开关跳闸","powerOffId":"2019101631020174"},{"poweroffId":2019101631020173,"sgpoweroffId":null,"subsName":"","lineName":"10kV竹园H712线","pubTranName":"竹园村前村公变,竹园建材,舟枕石矿,竹园村红胜对家公变,竹园村红光公变,竹园村竹园公变,鼎盛交通二绕二标3#变,孙鸣华建材,钱江制冷,检票站,竹园村官塘公变,竹园村鲍家公变,竹园村桃园公变,竹园村红胜公变,竹园村里山坞公变,竹园村费家公变,竹园生态农业,竹园村顾家公变,舟桥建材,临余公路6#路灯,竹园村石矿公变,竹园村上舍圩公变,竹园村踏子弄公变,竹园村白坟三组公变,竹园村南山公变,交工（竹园村）,竹园村六组公变,竹园村大洋圩公变,竹园村小弄公变,云雾阁正式变,竹园村竹园村委公变,竹园村林家公变,竹园村千家公变,竹园村徐家组公变,竹园村红元公变,增生链条,竹园村梅岭公变,竹园村树弄公变,","scope":"浙江省-杭州市-余杭区-余杭街道-竹园行政村(竹园自然村,鲍家自然村,徐家自然村);余杭街道(杭州市余杭区收费管理所,杭州余杭竹园生态农业有限公司,杭州正生链传动有限公司,杭州旺山建材有限公司,杭州竹园建材厂,杭州钱江农业科技有限公司,杭州余杭创新投资有限公司,杭州余杭区余杭镇孙鸿华建材经营部,杭州舟桥建材有限公司,浙江鼎盛交通建设有限公司,杭州云雾阁生态农业开发有限公司,浙江交工路桥建设有限公司)","startTime":"2019-10-16 13:37:00","stopDate":"2019-10-16 19:00:00","orgNo":"3340140","typeCode":"电网故障停限电","poweroffArea":"110kV余杭变:竹园H712线竹园H7122开关后段","poweroffReason":"高压开关跳闸 原停电结束时间为2019-10-16 16:37:00,因现场情况复杂，施工难度大原因,现变更停电结束时间为2019-10-16 19:00:00","powerTime":"2019-10-16 18:47:59","powerComm":"已送电","subsNo":"","lineNo":"","tgNo":"","tgName":null,"infoStatus":"1","orgName":"国网浙江杭州市余杭区供电有限公司","typeName":null,"infoStatusName":null,"dateDay":null,"orgNos":null,"nowTime":null,"countyName":null,"streetName":null,"villageName":null,"roadName":null,"communityName":null,"tranName":null,"sdLineName":null,"cityCode":"3340140","cityName":"国网浙江杭州市余杭区供电有限公司","provinceCode":null,"stopTime":"2019-10-16 19:00:00","powerType":"全部","powerOffArea":"110kV余杭变:竹园H712线竹园H7122开关后段","powerOffReason":"高压开关跳闸 原停电结束时间为2019-10-16 16:37:00,因现场情况复杂，施工难度大原因,现变更停电结束时间为2019-10-16 19:00:00","powerOffId":"2019101631020173"},{"poweroffId":2019101631020147,"sgpoweroffId":null,"subsName":"","lineName":"10kV洞桥D334线","pubTranName":"洞桥镇3#桥头公变,","scope":"浙江省-杭州市-富阳区-洞桥镇-里仁行政村-农居点自然村,洞桥镇-洞桥行政村(凌家自然村,陈林自然村,沈家西自然村,木家坞自然村,洞桥自然村,徐家自然村,里仁街自然村,农居点自然村,于家自然村,假山头自然村,溪田坞自然村,洞桥头自然村)","startTime":"2019-10-16 12:06:00","stopDate":"2019-10-16 14:06:00","orgNo":"3340170","typeCode":"电网故障停限电","poweroffArea":"110kV万市变:洞桥D334线洞桥镇3#桥头公变配变","poweroffReason":"高压开关跳闸","powerTime":"2019-10-16 13:31:28","powerComm":"已送电","subsNo":"","lineNo":"","tgNo":"","tgName":null,"infoStatus":"1","orgName":"国网浙江杭州市富阳区供电公司","typeName":null,"infoStatusName":null,"dateDay":null,"orgNos":null,"nowTime":null,"countyName":null,"streetName":null,"villageName":null,"roadName":null,"communityName":null,"tranName":null,"sdLineName":null,"cityCode":"3340170","cityName":"国网浙江杭州市富阳区供电公司","provinceCode":null,"stopTime":"2019-10-16 14:06:00","powerType":"全部","powerOffArea":"110kV万市变:洞桥D334线洞桥镇3#桥头公变配变","powerOffReason":"高压开关跳闸","powerOffId":"2019101631020147"}],"pageModel":{"pageNow":1000,"totalCount":17789,"totalPage":1779,"tableRows":0,"pageCount":10,"beginCount":9990},"isExperi":"1"}