{"message":"","today":"2020-06-16","seleList":[{"poweroffId":2019101631020007,"sgpoweroffId":null,"subsName":"","lineName":"10kV芦茨T196线","pubTranName":"石舍1号公变,","scope":"浙江省-杭州市-桐庐县-富春江镇-石舍行政村-石舍自然村","startTime":"2019-10-16 07:24:56","stopDate":"2019-10-16 16:24:56","orgNo":"3340150","typeCode":"电网故障停限电","poweroffArea":"110kV外董变:芦茨T196线-石舍1号公变后段","poweroffReason":"(低压停电信息)低压开关跳闸","powerTime":"2019-10-16 16:09:18","powerComm":"已送电","subsNo":"","lineNo":"","tgNo":"","tgName":null,"infoStatus":"1","orgName":"国网浙江桐庐县供电公司","typeName":null,"infoStatusName":null,"dateDay":null,"orgNos":null,"nowTime":null,"countyName":null,"streetName":null,"villageName":null,"roadName":null,"communityName":null,"tranName":null,"sdLineName":null,"cityCode":"3340150","cityName":"国网浙江桐庐县供电公司","provinceCode":null,"stopTime":"2019-10-16 16:24:56","powerType":"全部","powerOffArea":"110kV外董变:芦茨T196线-石舍1号公变后段","powerOffReason":"(低压停电信息)低压开关跳闸","powerOffId":"2019101631020007"},{"poweroffId":2019101631020006,"sgpoweroffId":null,"subsName":"","lineName":"10kV玉琮H443线","pubTranName":"增容,西塘河村大塘坝3号公变,大塘坝机埠,西塘河村张吴村公变,西塘河村大塘坝4号公变,西塘河村大塘坝5号公变,西塘河村姚家塘5号公变,西塘河村大塘坝公变,西塘河村大塘坝2号公变,西塘河村张吴村2号公变,西塘河村姚家塘4号公变,西塘河村姚家塘3号公变,西塘河村姚家塘公变,西塘河村姚家塘2号公变,","scope":"浙江省-杭州市-余杭区-良渚街道-西塘河行政村(大塘坝自然村,西溪路);良渚街道(杭州余杭西塘河股份经济合作社,杭州余杭区良渚国平白条鱼养殖基地)","startTime":"2019-10-16 07:00:00","stopDate":"2019-10-16 12:00:00","orgNo":"3340140","typeCode":"电网故障停限电","poweroffArea":"110kV勾庄变:玉琮H443线玉琮H4431开关后段","poweroffReason":"高压开关跳闸 原停电结束时间为2019-10-16 10:00:00,因现场施工环境复杂原因,现变更停电结束时间为2019-10-16 12:00:00","powerTime":"2019-10-16 11:12:42","powerComm":"已送电","subsNo":"","lineNo":"","tgNo":"","tgName":null,"infoStatus":"1","orgName":"国网浙江杭州市余杭区供电有限公司","typeName":null,"infoStatusName":null,"dateDay":null,"orgNos":null,"nowTime":null,"countyName":null,"streetName":null,"villageName":null,"roadName":null,"communityName":null,"tranName":null,"sdLineName":null,"cityCode":"3340140","cityName":"国网浙江杭州市余杭区供电有限公司","provinceCode":null,"stopTime":"2019-10-16 12:00:00","powerType":"全部","powerOffArea":"110kV勾庄变:玉琮H443线玉琮H4431开关后段","powerOffReason":"高压开关跳闸 原停电结束时间为2019-10-16 10:00:00,因现场施工环境复杂原因,现变更停电结束时间为2019-10-16 12:00:00","powerOffId":"2019101631020006"},{"poweroffId":2019101631020001,"sgpoweroffId":null,"subsName":"","lineName":"10kV利民D241线","pubTranName":"杭州富阳水利建设投资有限公司 1#,小沙村2号南公变,杭州富阳水利建设投资有限公司 2#,富阳万龙塑料包装有限公司,浙江省第一水电建设集团股份有限公司 1#,富阳燃料有限责任公司,","scope":"浙江省-杭州市-富阳区-东洲街道-富春江行政村-小沙自然村;东洲街道(杭州富阳水利建设投资有限公司,浙江省第一水电建设集团股份有限公司)","startTime":"2019-10-16 06:09:02","stopDate":"2019-10-16 08:20:00","orgNo":"3340170","typeCode":"电网故障停限电","poweroffArea":"110kV白鹤变:利民D241线煤场分线后段","poweroffReason":"高压开关跳闸","powerTime":"2019-10-16 07:44:02","powerComm":"已送电","subsNo":"","lineNo":"","tgNo":"","tgName":null,"infoStatus":"1","orgName":"国网浙江杭州市富阳区供电公司","typeName":null,"infoStatusName":null,"dateDay":null,"orgNos":null,"nowTime":null,"countyName":null,"streetName":null,"villageName":null,"roadName":null,"communityName":null,"tranName":null,"sdLineName":null,"cityCode":"3340170","cityName":"国网浙江杭州市富阳区供电公司","provinceCode":null,"stopTime":"2019-10-16 08:20:00","powerType":"全部","powerOffArea":"110kV白鹤变:利民D241线煤场分线后段","powerOffReason":"高压开关跳闸","powerOffId":"2019101631020001"},{"poweroffId":2019101531020278,"sgpoweroffId":null,"subsName":"","lineName":"10kV夏山C258线","pubTranName":"金山村2#变,","scope":"浙江省-杭州市-萧山区-所前镇-金山行政村-娄家湾自然村一带","startTime":"2019-10-15 19:49:07","stopDate":"2019-10-15 20:49:07","orgNo":"3340130","typeCode":"电网故障停限电","poweroffArea":"110kV所前变:夏山C258线-金山村2#变后段","poweroffReason":"外力破坏引起夏山C258线高压架空线断线故障 原停电结束时间为2019-10-15 21:49:07,为减少客户停电时间,加快工作进度,提前送电,现变更停电结束时间为2019-10-15 20:49:07","powerTime":"2019-10-15 20:27:41","powerComm":"已送电","subsNo":"","lineNo":"","tgNo":"","tgName":null,"infoStatus":"1","orgName":"国网浙江杭州市萧山区供电有限公司","typeName":null,"infoStatusName":null,"dateDay":null,"orgNos":null,"nowTime":null,"countyName":null,"streetName":null,"villageName":null,"roadName":null,"communityName":null,"tranName":null,"sdLineName":null,"cityCode":"3340130","cityName":"国网浙江杭州市萧山区供电有限公司","provinceCode":null,"stopTime":"2019-10-15 20:49:07","powerType":"全部","powerOffArea":"110kV所前变:夏山C258线-金山村2#变后段","powerOffReason":"外力破坏引起夏山C258线高压架空线断线故障 原停电结束时间为2019-10-15 21:49:07,为减少客户停电时间,加快工作进度,提前送电,现变更停电结束时间为2019-10-15 20:49:07","powerOffId":"2019101531020278"},{"poweroffId":2019101531020257,"sgpoweroffId":null,"subsName":"","lineName":"10kV苏家G103线","pubTranName":"杭州市余杭区白蚁防治所,2＃,藕花洲泵站变,","scope":"浙江省-杭州市-余杭区-星桥街道(杭州余杭城东净水有限公司,杭州市余杭区白蚁防治所)","startTime":"2019-10-15 17:20:00","stopDate":"2019-10-15 19:30:00","orgNo":"3340140","typeCode":"电网故障停限电","poweroffArea":"110kV临平变:苏家G103线泵站分支箱分线开关后段","poweroffReason":"高压开关跳闸","powerTime":"2019-10-15 18:56:09","powerComm":"已送电","subsNo":"","lineNo":"","tgNo":"","tgName":null,"infoStatus":"1","orgName":"国网浙江杭州市余杭区供电有限公司","typeName":null,"infoStatusName":null,"dateDay":null,"orgNos":null,"nowTime":null,"countyName":null,"streetName":null,"villageName":null,"roadName":null,"communityName":null,"tranName":null,"sdLineName":null,"cityCode":"3340140","cityName":"国网浙江杭州市余杭区供电有限公司","provinceCode":null,"stopTime":"2019-10-15 19:30:00","powerType":"全部","powerOffArea":"110kV临平变:苏家G103线泵站分支箱分线开关后段","powerOffReason":"高压开关跳闸","powerOffId":"2019101531020257"},{"poweroffId":2019101531020220,"sgpoweroffId":null,"subsName":"","lineName":"10kV紫霞A780线","pubTranName":"河上镇紫霞村1#变,河上镇紫霞村3#变,众联村3#变,杭州姬发金属家具有限公司,河上镇紫霞村12#变,河上镇紫霞村10#变,1#,杭州萧山供水有限公司,众联村1#变,河上镇紫霞村11#变,大桥村7#变,众联村2#变,紫东村6#变,河上镇紫霞村8#变,众联村15#变,河上镇紫霞村4#变,","scope":"浙江省-杭州市-萧山区-河上镇-紫霞行政村(翔农自然村,欢乐自然村,强农自然村,六房头自然村,麻园自然村),河上镇-众联行政村(联合自然村,众利自然村,王家自然村),河上镇-紫东行政村(紫东自然村,胡家自然村),河上镇-大桥行政村(大桥自然村,青年路);河上镇(大桥行政村-杭州姬发金属家具有限公司,下门行政村-杭州萧山供水有限公司,众联行政村-浙江越达交通工程有限公司)一带","startTime":"2019-10-15 15:22:03","stopDate":"2019-10-15 17:22:03","orgNo":"3340130","typeCode":"电网故障停限电","poweroffArea":"110kV大西变:紫霞A780线-紫霞A7801开关后段","poweroffReason":"高压开关跳闸","powerTime":"2019-10-15 16:31:01","powerComm":"已送电","subsNo":"","lineNo":"","tgNo":"","tgName":null,"infoStatus":"1","orgName":"国网浙江杭州市萧山区供电有限公司","typeName":null,"infoStatusName":null,"dateDay":null,"orgNos":null,"nowTime":null,"countyName":null,"streetName":null,"villageName":null,"roadName":null,"communityName":null,"tranName":null,"sdLineName":null,"cityCode":"3340130","cityName":"国网浙江杭州市萧山区供电有限公司","provinceCode":null,"stopTime":"2019-10-15 17:22:03","powerType":"全部","powerOffArea":"110kV大西变:紫霞A780线-紫霞A7801开关后段","powerOffReason":"高压开关跳闸","powerOffId":"2019101531020220"},{"poweroffId":2019101531020201,"sgpoweroffId":null,"subsName":"","lineName":"10kV协同8472线","pubTranName":"固塘变,","scope":"浙江省-杭州市-滨江区-西兴街道-西陵社区-古塘路，浙江省杭州市滨江区西陵社区协同村01-53号东单元与西单元，移动单相表。","startTime":"2019-11-06 09:30:00","stopDate":"2019-11-06 11:30:00","orgNo":"3340101","typeCode":"计划停电","poweroffArea":"220kV兴南变:协同8472线-固塘变后段","poweroffReason":"(低压停电信息)非居新装","powerTime":"2019-11-06 10:50:38","powerComm":"已送电","subsNo":"","lineNo":"","tgNo":"","tgName":null,"infoStatus":"1","orgName":"浙江杭州电力客户服务中心","typeName":null,"infoStatusName":null,"dateDay":null,"orgNos":null,"nowTime":null,"countyName":null,"streetName":null,"villageName":null,"roadName":null,"communityName":null,"tranName":null,"sdLineName":null,"cityCode":"3340101","cityName":"浙江杭州电力客户服务中心","provinceCode":null,"stopTime":"2019-11-06 11:30:00","powerType":"全部","powerOffArea":"220kV兴南变:协同8472线-固塘变后段","powerOffReason":"(低压停电信息)非居新装","powerOffId":"2019101531020201"},{"poweroffId":2019101531020200,"sgpoweroffId":null,"subsName":"","lineName":"10kV三江6285线","pubTranName":"西苑十二变,","scope":"浙江省-杭州市-滨江区-长河街道-江三社区-滨康路，浙江省杭州市滨江区江三社区长江西苑38幢低压居民。","startTime":"2019-11-05 09:30:00","stopDate":"2019-11-05 11:30:00","orgNo":"3340101","typeCode":"计划停电","poweroffArea":"110kV之江变:三江6285线-西苑十二变后段B12-3、B12-4低压","poweroffReason":"(低压停电信息)居民新装","powerTime":"2019-11-05 10:33:59","powerComm":"已送电","subsNo":"","lineNo":"","tgNo":"","tgName":null,"infoStatus":"1","orgName":"浙江杭州电力客户服务中心","typeName":null,"infoStatusName":null,"dateDay":null,"orgNos":null,"nowTime":null,"countyName":null,"streetName":null,"villageName":null,"roadName":null,"communityName":null,"tranName":null,"sdLineName":null,"cityCode":"3340101","cityName":"浙江杭州电力客户服务中心","provinceCode":null,"stopTime":"2019-11-05 11:30:00","powerType":"全部","powerOffArea":"110kV之江变:三江6285线-西苑十二变后段B12-3、B12-4低压","powerOffReason":"(低压停电信息)居民新装","powerOffId":"2019101531020200"},{"poweroffId":2019101531020182,"sgpoweroffId":null,"subsName":"","lineName":"10kV夏山C258线","pubTranName":"金山村9#变,金山村6#变,夏山埭村,越王村2#变,越王村1#变,山联村12#变,山联村5#变,杭州明成木业有限公司,山联村10#变,山联村7#变,山联村14#变,杭州源本农业发展有限公司,金山村15#变,山联村3#变,杭州迪生车业有限公司,蓝海基地1#专变,金山村3#变,金山村5#变,变压器,越王村3#变,杭州泰博热处理有限公司,杭州优利克五金工具有限公司,山联村1#变,杭州蓝莓生态农业有限公司,杭州迪曼特轴承有限公司,山联村6#变,越王村6#变,金山村11#变,越王村7#变,杭州力能坚机械有限公司,金山村10#变,变压器,山联村8#变,杭州大禾市政工程有限公司,金山村8#变,杭州市萧山区所前人镇民政府,山联村13#变,山联村4#变,变压器,祥龙机械2#,金山村2#变,越王村9#变,杭州景源环保设备有限公司,传芳村,杭州市萧山区公路管理处专变,越王村4#变,山联村9#变,杭州潘工工具有限公司,杭州天然气有限公司,越王村5#变,山联村11#变,山联村2#变,越王村8#变,所前工具,祥龙机械1#,","scope":"浙江省-杭州市-萧山区-所前镇-越山行政村-郑家自然村,所前镇-山联行政村(夏山埭自然村,渔家埭自然村,赵坞自然村,池头沈自然村,山里沈自然村),所前镇-越王行政村(山里沈自然村,夏家埭自然村,东山夏自然村,上安王自然村,岭下胡自然村),所前镇-金山行政村(娄家湾自然村,张家坂自然村,钱家湾自然村);所前镇-金山行政村(杭州旭达轴承有限公司,杭州天然气有限公司),所前镇-山联行政村(杭州潘工工具有限公司,杭州景源环保设备有限公司,杭州明成木业有限公司,夏山埭村,杭州蓝海生态农业有限公司,杭州所前工具有限公司,杭州力能坚机械有限公司,杭州赵氏茶叶专业合作社,杭州大禾市政工程有限公司),所前镇-越王行政村(杭州泰博热处理有限公司,杭州优利克五金工具有限公司,杭州迪生车业有限公司,杭州萧山祥龙机械有限公司,杭州源本农业发展有限公司,杭州市萧山区所前镇人民政府),所前镇(传芳行政村-传芳村,越山行政村-杭州市萧山区公路管理处)一带。浙江省杭州市萧山区所前镇金山行政村蔡东樊胡居杭州天然气有限公司，浙江省杭州市萧山区所前镇赵乌村216号，浙江省杭州市萧山区所前镇越王行政村观前路790号。","startTime":"2019-10-15 14:46:46","stopDate":"2019-10-15 20:30:46","orgNo":"3340130","typeCode":"电网故障停限电","poweroffArea":"110kV所前变:夏山C258线-夏山C2582开关后段","poweroffReason":"外力破坏引起夏山C258线高压架空线断线故障 原停电结束时间为2019-10-15 21:30:46,为减少客户停电时间,加快工作进度,提前送电,现变更停电结束时间为2019-10-15 20:30:46","powerTime":"2019-10-15 19:55:02","powerComm":"已送电","subsNo":"","lineNo":"","tgNo":"","tgName":null,"infoStatus":"1","orgName":"国网浙江杭州市萧山区供电有限公司","typeName":null,"infoStatusName":null,"dateDay":null,"orgNos":null,"nowTime":null,"countyName":null,"streetName":null,"villageName":null,"roadName":null,"communityName":null,"tranName":null,"sdLineName":null,"cityCode":"3340130","cityName":"国网浙江杭州市萧山区供电有限公司","provinceCode":null,"stopTime":"2019-10-15 20:30:46","powerType":"全部","powerOffArea":"110kV所前变:夏山C258线-夏山C2582开关后段","powerOffReason":"外力破坏引起夏山C258线高压架空线断线故障 原停电结束时间为2019-10-15 21:30:46,为减少客户停电时间,加快工作进度,提前送电,现变更停电结束时间为2019-10-15 20:30:46","powerOffId":"2019101531020182"},{"poweroffId":2019101531020176,"sgpoweroffId":null,"subsName":"","lineName":"10kV杜甫H438线","pubTranName":"杭州良渚新城城建投资有限公司,杭州良渚新城城建投资有限公司,杭州良渚新城城建投资有限公司,杭州良渚新城城建投资有限公司,杭州良渚新城城建投资有限公司,","scope":"浙江省-杭州市-余杭区-良渚街道(杜甫行政村-杭州良渚新城城建投资有限公司,良渚文化村社区-杭州良渚新城城建投资有限公司)","startTime":"2019-10-15 14:33:00","stopDate":"2019-10-15 16:33:00","orgNo":"3340140","typeCode":"电网故障停限电","poweroffArea":"110kV勾庄变:杜甫H438线-杜甫4期基建分线开关后段","poweroffReason":"高压开关跳闸","powerTime":"2019-10-15 16:17:00","powerComm":"已送电","subsNo":"","lineNo":"","tgNo":"","tgName":null,"infoStatus":"1","orgName":"国网浙江杭州市余杭区供电有限公司","typeName":null,"infoStatusName":null,"dateDay":null,"orgNos":null,"nowTime":null,"countyName":null,"streetName":null,"villageName":null,"roadName":null,"communityName":null,"tranName":null,"sdLineName":null,"cityCode":"3340140","cityName":"国网浙江杭州市余杭区供电有限公司","provinceCode":null,"stopTime":"2019-10-15 16:33:00","powerType":"全部","powerOffArea":"110kV勾庄变:杜甫H438线-杜甫4期基建分线开关后段","powerOffReason":"高压开关跳闸","powerOffId":"2019101531020176"}],"pageModel":{"pageNow":1002,"totalCount":17789,"totalPage":1779,"tableRows":0,"pageCount":10,"beginCount":10010},"isExperi":"1"}