{"message":"","today":"2020-06-16","seleList":[{"poweroffId":2019101531020175,"sgpoweroffId":null,"subsName":"","lineName":"10kV皇印D392线","pubTranName":"洞桥村16#十房里公变,1#,2#,洞桥村7#沈家公变,洞桥村5#旗山公变,洞桥村14#井山新村公变,杭州蓝锋铝业有限公司变压器,洞桥村1#皇印石公变,洞桥村8#龙王坎公变,新兴车料2#,洞桥村6#凌家公变,洞桥村13#石剪口公变,","scope":"浙江省-杭州市-富阳区-万市镇-万市行政村-西门路自然村,洞桥镇-洞桥行政村(沈家自然村,塘湾里自然村,凌家自然村,二茶棵自然村,洞桥自然村,于家自然村,旗山自然村,上林自然村,马家自然村,沈家西自然村,徐家自然村,景山自然村,十房里自然村,假山头自然村,皇印石自然村,王家自然村,木家坞自然村),洞桥镇(里仁行政村-章母何家自然村,石羊行政村-杨家自然村);洞桥镇-洞桥行政村(浙江容大电力工程有限公司,杭州新兴车料有限公司)","startTime":"2019-10-15 14:33:29","stopDate":"2019-10-15 16:30:29","orgNo":"3340170","typeCode":"电网故障停限电","poweroffArea":"110kV万市变:皇印D392线-上林D3354开关后段","poweroffReason":"高压开关跳闸 原停电结束时间为2019-10-15 17:30:29,为减少客户停电时间,加快工作进度,提前送电,现变更停电结束时间为2019-10-15 16:30:29","powerTime":"2019-10-15 15:45:29","powerComm":"已送电","subsNo":"","lineNo":"","tgNo":"","tgName":null,"infoStatus":"1","orgName":"国网浙江杭州市富阳区供电公司","typeName":null,"infoStatusName":null,"dateDay":null,"orgNos":null,"nowTime":null,"countyName":null,"streetName":null,"villageName":null,"roadName":null,"communityName":null,"tranName":null,"sdLineName":null,"cityCode":"3340170","cityName":"国网浙江杭州市富阳区供电公司","provinceCode":null,"stopTime":"2019-10-15 16:30:29","powerType":"全部","powerOffArea":"110kV万市变:皇印D392线-上林D3354开关后段","powerOffReason":"高压开关跳闸 原停电结束时间为2019-10-15 17:30:29,为减少客户停电时间,加快工作进度,提前送电,现变更停电结束时间为2019-10-15 16:30:29","powerOffId":"2019101531020175"},{"poweroffId":2019101531020147,"sgpoweroffId":null,"subsName":"","lineName":"10kV站用T176线","pubTranName":"小源石塘1号公变,","scope":"浙江省-杭州市-桐庐县-分水镇-小源行政村-塔岭自然村","startTime":"2019-10-15 12:15:07","stopDate":"2019-10-15 14:30:07","orgNo":"3340150","typeCode":"电网故障停限电","poweroffArea":"110kV分水变:站用T176线-小源石塘1号公变后段","poweroffReason":"高压开关跳闸","powerTime":"2019-10-15 14:20:37","powerComm":"已送电","subsNo":"","lineNo":"","tgNo":"","tgName":null,"infoStatus":"1","orgName":"国网浙江桐庐县供电公司","typeName":null,"infoStatusName":null,"dateDay":null,"orgNos":null,"nowTime":null,"countyName":null,"streetName":null,"villageName":null,"roadName":null,"communityName":null,"tranName":null,"sdLineName":null,"cityCode":"3340150","cityName":"国网浙江桐庐县供电公司","provinceCode":null,"stopTime":"2019-10-15 14:30:07","powerType":"全部","powerOffArea":"110kV分水变:站用T176线-小源石塘1号公变后段","powerOffReason":"高压开关跳闸","powerOffId":"2019101531020147"},{"poweroffId":2019101531020146,"sgpoweroffId":null,"subsName":"","lineName":"10kV东辉T373线","pubTranName":"塔岭1号公变,","scope":"浙江省-杭州市-桐庐县-百江镇-东辉行政村-塔岭自然村","startTime":"2019-10-15 12:13:45","stopDate":"2019-10-15 14:30:45","orgNo":"3340150","typeCode":"电网故障停限电","poweroffArea":"110kV百江变:东辉T373线-塔岭1号公变后段","poweroffReason":"高压开关跳闸","powerTime":"2019-10-15 14:21:10","powerComm":"已送电","subsNo":"","lineNo":"","tgNo":"","tgName":null,"infoStatus":"1","orgName":"国网浙江桐庐县供电公司","typeName":null,"infoStatusName":null,"dateDay":null,"orgNos":null,"nowTime":null,"countyName":null,"streetName":null,"villageName":null,"roadName":null,"communityName":null,"tranName":null,"sdLineName":null,"cityCode":"3340150","cityName":"国网浙江桐庐县供电公司","provinceCode":null,"stopTime":"2019-10-15 14:30:45","powerType":"全部","powerOffArea":"110kV百江变:东辉T373线-塔岭1号公变后段","powerOffReason":"高压开关跳闸","powerOffId":"2019101531020146"},{"poweroffId":2019101531020137,"sgpoweroffId":null,"subsName":"","lineName":"10kV富康T113线","pubTranName":"中国银行1号公变,","scope":"浙江省-杭州市-桐庐县-桐君街道-迎春社区(邮电路,桐君路,开元街,双桂一弄),桐君街道-南门社区(开元街,桐君路)双桂一弄","startTime":"2019-10-15 11:46:51","stopDate":"2019-10-15 13:46:51","orgNo":"3340150","typeCode":"电网故障停限电","poweroffArea":"110kV桐庐变:富康T113线-中国银行1号公变后段","poweroffReason":"高压开关跳闸","powerTime":"2019-10-15 13:30:33","powerComm":"已送电","subsNo":"","lineNo":"","tgNo":"","tgName":null,"infoStatus":"1","orgName":"国网浙江桐庐县供电公司","typeName":null,"infoStatusName":null,"dateDay":null,"orgNos":null,"nowTime":null,"countyName":null,"streetName":null,"villageName":null,"roadName":null,"communityName":null,"tranName":null,"sdLineName":null,"cityCode":"3340150","cityName":"国网浙江桐庐县供电公司","provinceCode":null,"stopTime":"2019-10-15 13:46:51","powerType":"全部","powerOffArea":"110kV桐庐变:富康T113线-中国银行1号公变后段","powerOffReason":"高压开关跳闸","powerOffId":"2019101531020137"},{"poweroffId":2019101531020128,"sgpoweroffId":null,"subsName":"","lineName":"10kV尖湖A529线","pubTranName":"尖湖村6#变,","scope":"浙江省-杭州市-萧山区-浦阳镇-尖湖行政村-化山自然村一带","startTime":"2019-10-15 11:00:31","stopDate":"2019-10-15 13:00:31","orgNo":"3340130","typeCode":"电网故障停限电","poweroffArea":"110kV浦阳变:尖湖A529线-尖湖村6#变台区低压开关","poweroffReason":"(低压停电信息)低压熔断器短路故障","powerTime":"2019-10-15 12:27:24","powerComm":"已送电","subsNo":"","lineNo":"","tgNo":"","tgName":null,"infoStatus":"1","orgName":"国网浙江杭州市萧山区供电有限公司","typeName":null,"infoStatusName":null,"dateDay":null,"orgNos":null,"nowTime":null,"countyName":null,"streetName":null,"villageName":null,"roadName":null,"communityName":null,"tranName":null,"sdLineName":null,"cityCode":"3340130","cityName":"国网浙江杭州市萧山区供电有限公司","provinceCode":null,"stopTime":"2019-10-15 13:00:31","powerType":"全部","powerOffArea":"110kV浦阳变:尖湖A529线-尖湖村6#变台区低压开关","powerOffReason":"(低压停电信息)低压熔断器短路故障","powerOffId":"2019101531020128"},{"poweroffId":2019101531020123,"sgpoweroffId":null,"subsName":"","lineName":"10kV姚坝G971线","pubTranName":"永宏绸厂,杭州华金喷漆有限公司,协力电缆,","scope":"浙江省杭州市余杭区运河街道：永宏绸厂、华金喷塑、协力电缆一带","startTime":"2019-10-24 08:00:00","stopDate":"2019-10-24 16:00:00","orgNo":"3340140","typeCode":"计划停电","poweroffArea":"110kV博陆变:姚坝G971线-华金喷漆分线开关后段;姚坝G971线-协力电缆后段;姚坝G971线-亭趾制塑厂（永宏绸厂）后段","poweroffReason":"浙江省杭州市余杭区运河街道：永宏绸厂、华金喷塑、协力电缆一带","powerTime":"2019-10-24 15:30:00","powerComm":"已送电","subsNo":"","lineNo":"","tgNo":"","tgName":null,"infoStatus":"1","orgName":"国网浙江杭州市余杭区供电有限公司","typeName":null,"infoStatusName":null,"dateDay":null,"orgNos":null,"nowTime":null,"countyName":null,"streetName":null,"villageName":null,"roadName":null,"communityName":null,"tranName":null,"sdLineName":null,"cityCode":"3340140","cityName":"国网浙江杭州市余杭区供电有限公司","provinceCode":null,"stopTime":"2019-10-24 16:00:00","powerType":"全部","powerOffArea":"110kV博陆变:姚坝G971线-华金喷漆分线开关后段;姚坝G971线-协力电缆后段;姚坝G971线-亭趾制塑厂（永宏绸厂）后段","powerOffReason":"浙江省杭州市余杭区运河街道：永宏绸厂、华金喷塑、协力电缆一带","powerOffId":"2019101531020123"},{"poweroffId":2019101531020122,"sgpoweroffId":null,"subsName":"","lineName":"10kV长征G032线","pubTranName":"运河镇博陆村长寿桥北变,运河镇双桥村梁字湾公变,杭州亿展新材料有限公司400配变,运河镇双桥村河北埭南公变,杭州余杭临博搪瓷有限公司（长征五金厂）,双桥村大闸2号公变,运河镇双桥村梁字湾东公变,长顺塑料,运河镇双桥村大闸变公变,运河镇双桥村李家坝公变,森润无纺布科技400变,双桥村李家坝桥头公变,运河镇双桥村上家河公变,双桥村李家坝西公变,运河镇双桥村河北埭北公变,运河镇双桥村李家坝东公变,松元化纤,双桥村戴家里公变,运河镇双桥村盛家河北公变,杭州联合玻璃有限公司（玻璃仓库）,","scope":"浙江省杭州市余杭区运河街道：双桥村李家坝、李家坝西、李家坝桥头、戴家里、梁字湾东、梁家湾、上家河、盛家河北、松元化纤、李家坝东、河北埭南、河北埭北、双桥村大闸、双桥村大闸（二）、博陆村长寿桥北临博搪瓷有限公司、亿展纺织品、长顺塑料、杭州联合玻璃有限公司一带","startTime":"2019-10-23 08:00:00","stopDate":"2019-10-23 16:00:00","orgNo":"3340140","typeCode":"计划停电","poweroffArea":"110kV五杭变:长征G032线首端，长征G0321开关，长征G0323开关之间","poweroffReason":"长征G032线5#杆至27#杆调换导线22档。新布双桥村李家坝东2#变、新立15米杆2基","powerTime":"2019-10-23 15:45:00","powerComm":"已送电","subsNo":"","lineNo":"","tgNo":"","tgName":null,"infoStatus":"1","orgName":"国网浙江杭州市余杭区供电有限公司","typeName":null,"infoStatusName":null,"dateDay":null,"orgNos":null,"nowTime":null,"countyName":null,"streetName":null,"villageName":null,"roadName":null,"communityName":null,"tranName":null,"sdLineName":null,"cityCode":"3340140","cityName":"国网浙江杭州市余杭区供电有限公司","provinceCode":null,"stopTime":"2019-10-23 16:00:00","powerType":"全部","powerOffArea":"110kV五杭变:长征G032线首端，长征G0321开关，长征G0323开关之间","powerOffReason":"长征G032线5#杆至27#杆调换导线22档。新布双桥村李家坝东2#变、新立15米杆2基","powerOffId":"2019101531020122"},{"poweroffId":2019101531020121,"sgpoweroffId":null,"subsName":"","lineName":"10kV石坝G039线","pubTranName":"交通项目管理公司160,","scope":"浙江省杭州市余杭区运河街道：余杭区公路管理处，石坝村1组一带","startTime":"2019-10-21 08:00:00","stopDate":"2019-10-21 16:00:00","orgNo":"3340140","typeCode":"临时停电","poweroffArea":"110kV五杭变:石坝G039线-10KV侧进线开关后段","poweroffReason":"石坝039线62#杆-69#杆上改下；69#杆-70#杆新立电杆以及，新装真空开关1台","powerTime":"2019-10-21 15:35:00","powerComm":"已送电","subsNo":"","lineNo":"","tgNo":"","tgName":null,"infoStatus":"1","orgName":"国网浙江杭州市余杭区供电有限公司","typeName":null,"infoStatusName":null,"dateDay":null,"orgNos":null,"nowTime":null,"countyName":null,"streetName":null,"villageName":null,"roadName":null,"communityName":null,"tranName":null,"sdLineName":null,"cityCode":"3340140","cityName":"国网浙江杭州市余杭区供电有限公司","provinceCode":null,"stopTime":"2019-10-21 16:00:00","powerType":"全部","powerOffArea":"110kV五杭变:石坝G039线-10KV侧进线开关后段","powerOffReason":"石坝039线62#杆-69#杆上改下；69#杆-70#杆新立电杆以及，新装真空开关1台","powerOffId":"2019101531020121"},{"poweroffId":2019101531020103,"sgpoweroffId":null,"subsName":"","lineName":"10kV径山H545线","pubTranName":"绿景村绿景塘公变,","scope":"浙江省-杭州市-余杭区-径山镇-绿景行政村(绿景自然村,冷水桥自然村,桥北自然村,狄家山自然村,绿景塘自然村)","startTime":"2019-10-15 10:20:00","stopDate":"2019-10-15 12:20:00","orgNo":"3340140","typeCode":"电网故障停限电","poweroffArea":"110kV潘板变:径山H545线绿景村绿景塘公变配变","poweroffReason":"高压开关跳闸","powerTime":"2019-10-15 11:57:00","powerComm":"已送电","subsNo":"","lineNo":"","tgNo":"","tgName":null,"infoStatus":"1","orgName":"国网浙江杭州市余杭区供电有限公司","typeName":null,"infoStatusName":null,"dateDay":null,"orgNos":null,"nowTime":null,"countyName":null,"streetName":null,"villageName":null,"roadName":null,"communityName":null,"tranName":null,"sdLineName":null,"cityCode":"3340140","cityName":"国网浙江杭州市余杭区供电有限公司","provinceCode":null,"stopTime":"2019-10-15 12:20:00","powerType":"全部","powerOffArea":"110kV潘板变:径山H545线绿景村绿景塘公变配变","powerOffReason":"高压开关跳闸","powerOffId":"2019101531020103"},{"poweroffId":2019101531020100,"sgpoweroffId":null,"subsName":"","lineName":"10kV潭山D711线","pubTranName":"元村3#潭山三山口公变,富阳市新城石粉厂,富春五金,杭州市公安消防支队富阳区大队1#,富阳市新登镇奔月针织厂,官塘村外官1#殿边公变,富阳新登东恒大理石厂,杭州富阳富隆有机肥有限公司1#变,元村9#三山公路边公变,路灯管理所,富阳三丰橡塑鞋业有限公司1#变,南方焊管厂,横山复合材料,杭州富阳区新登镇塔山水泥预制构件厂1#变,海正药业,金慈村4#石牛山公变,杭州市公安消防支队富阳区大队,金慈村5#潘家公变,1#,富蒙生态1#变,元村1号潭山头公变,元村5#小溪口公变,元村2#潭山大塔地公变,杭州富阳新登城镇建设投资集团有限公司1#变,贤明塔泡塑1#变,官塘村官塘6#小官塘公变,金慈村1#上金慈公变,杭州市富阳区新登镇中学,杭州富阳成旭自动化设备有限公司,杭州富阳龙源鞋业有限公司1#变,葛溪村3#七板桥公变,金慈村2#下金慈公变,杭州富阳南方燃气有限公司,胥口集镇1#公变,元村12号三山火山上公变,富阳龙兴混凝土有限公司,路灯管理所,葛溪村2号七板徐家公变,富阳市新登镇曹奎废品收购部,官塘村外官2号戚家坞公变,金慈村6#假山头公变,葛溪村1#七板袁家公变,官塘村外官7号水库公变,元村8号三山石桥头公变,杭州旭丰胶管有限公司,杭州富阳恒鑫房地产有限公司1#变,元村7#阴山上公变,","scope":"浙江省-杭州市-富阳区-新登镇-元村行政村(潭山头自然村,三山自然村,大塔地自然村,元村自然村,阴山自然村),胥口镇-金慈行政村(下金慈自然村,程家自然村,灰塘自然村,假山头自然村,上金慈自然村,石牛山自然村,潘家自然村),胥口镇-葛溪行政村(七板自然村,葛溪自然村),新登镇-官塘行政村(外官自然村,官塘自然村),胥口镇(棠棣行政村-汪家自然村,胥口行政村-胥口自然村),新登镇(松溪行政村-松溪自然村,南津行政村-上钟家自然村,塔山行政村-城北自然村,长垄行政村-涨地上自然村,长兰行政村-上陈家自然村);新登镇-元村行政村(杭州富阳三丰橡塑鞋业有限公司,杭州富阳成旭自动化设备有限公司,杭州富阳龙兴混凝土有限公司,杭州富阳区新登镇东恒天然大理石厂,杭州旭丰胶管有限公司,杭州富春五金制品有限公司,杭州富阳南光焊管厂,杭州富阳横山复合材料有限公司,杭州川野食品有限公司,富阳市新城石粉厂,杭州富阳贤明塔泡塑机械有限公司,杭州富阳龙源鞋业有限公司,杭州富阳富隆有机肥有限公司),新登镇-塔山行政村(杭州富阳南方燃气有限公司,杭州富阳城市照明工程有限公司),新登镇-长垄行政村(杭州富阳区新登镇奔月针织厂,杭州宫泰钢网有限公司),新登镇-官塘行政村(杭州富阳城市照明工程有限公司,杭州市富阳区新登镇中学,杭州市公安消防支队富阳区大队),胥口镇(葛溪行政村-杭州富阳新登城镇建设投资集团有限公司,下练行政村-海正药业(杭州)有限公司,金慈行政村-杭州富阳富蒙生态农业开发有限公司),新登镇(惠来社区-杭州富阳恒鑫房地产有限公司,潘堰行政村-富阳市新登镇曹奎废品收购部)","startTime":"2019-10-15 10:13:48","stopDate":"2019-10-15 11:13:48","orgNo":"3340170","typeCode":"电网故障停限电","poweroffArea":"110kV松溪变:潭山D711线-潭山D7113开关后段","poweroffReason":"高压开关跳闸 原停电结束时间为2019-10-15 12:13:48,为减少客户停电时间,加快工作进度,提前送电,现变更停电结束时间为2019-10-15 11:13:48","powerTime":"2019-10-15 10:52:42","powerComm":"已送电","subsNo":"","lineNo":"","tgNo":"","tgName":null,"infoStatus":"1","orgName":"国网浙江杭州市富阳区供电公司","typeName":null,"infoStatusName":null,"dateDay":null,"orgNos":null,"nowTime":null,"countyName":null,"streetName":null,"villageName":null,"roadName":null,"communityName":null,"tranName":null,"sdLineName":null,"cityCode":"3340170","cityName":"国网浙江杭州市富阳区供电公司","provinceCode":null,"stopTime":"2019-10-15 11:13:48","powerType":"全部","powerOffArea":"110kV松溪变:潭山D711线-潭山D7113开关后段","powerOffReason":"高压开关跳闸 原停电结束时间为2019-10-15 12:13:48,为减少客户停电时间,加快工作进度,提前送电,现变更停电结束时间为2019-10-15 11:13:48","powerOffId":"2019101531020100"}],"pageModel":{"pageNow":1003,"totalCount":17789,"totalPage":1779,"tableRows":0,"pageCount":10,"beginCount":10020},"isExperi":"1"}