{"message":"","today":"2020-06-16","seleList":[{"poweroffId":2019101431020164,"sgpoweroffId":null,"subsName":"","lineName":"10kV头蓬461线","pubTranName":"杭州弘博纸业有限公司,新湾街道24#变,宏图房地产(新湾）,","scope":"浙江省-杭州市-萧山区-新湾街道(新北桥社区-自然村,三新行政村-新湾自然村);浙江省-杭州市-萧山区-新湾街道-三新行政村-杭州弘博纸业有限公司","startTime":"2019-10-24 10:20:00","stopDate":"2019-10-24 17:30:00","orgNo":"3340120","typeCode":"计划停电","poweroffArea":"35kV新湾变:头蓬461线-杭州弘博纸业有限公司进线开关后段","poweroffReason":"10kV共盛站头新461A线13/08#杆带电拆头","powerTime":"2019-10-24 16:49:31","powerComm":"已送电","subsNo":"","lineNo":"","tgNo":"","tgName":null,"infoStatus":"1","orgName":"国网浙江杭州市钱塘新区供电公司","typeName":null,"infoStatusName":null,"dateDay":null,"orgNos":null,"nowTime":null,"countyName":null,"streetName":null,"villageName":null,"roadName":null,"communityName":null,"tranName":null,"sdLineName":null,"cityCode":"3340120","cityName":"国网浙江杭州市钱塘新区供电公司","provinceCode":null,"stopTime":"2019-10-24 17:30:00","powerType":"全部","powerOffArea":"35kV新湾变:头蓬461线-杭州弘博纸业有限公司进线开关后段","powerOffReason":"10kV共盛站头新461A线13/08#杆带电拆头","powerOffId":"2019101431020164"},{"poweroffId":2019101431020161,"sgpoweroffId":null,"subsName":"","lineName":"10kV乐泉H840线","pubTranName":"永乐村李家埭公变,永乐村东门外,","scope":"浙江省-杭州市-余杭区-仓前街道永乐村李家埭、东门外一带","startTime":"2019-10-14 11:07:56","stopDate":"2019-10-14 12:57:00","orgNo":"3340140","typeCode":"电网故障停限电","poweroffArea":"110kV永乐变:乐泉H840线塔山H619线李家埭分线开关后段","poweroffReason":"高压开关跳闸","powerTime":"2019-10-14 12:05:00","powerComm":"已送电","subsNo":"","lineNo":"","tgNo":"","tgName":null,"infoStatus":"1","orgName":"国网浙江杭州市余杭区供电有限公司","typeName":null,"infoStatusName":null,"dateDay":null,"orgNos":null,"nowTime":null,"countyName":null,"streetName":null,"villageName":null,"roadName":null,"communityName":null,"tranName":null,"sdLineName":null,"cityCode":"3340140","cityName":"国网浙江杭州市余杭区供电有限公司","provinceCode":null,"stopTime":"2019-10-14 12:57:00","powerType":"全部","powerOffArea":"110kV永乐变:乐泉H840线塔山H619线李家埭分线开关后段","powerOffReason":"高压开关跳闸","powerOffId":"2019101431020161"},{"poweroffId":2019101431020159,"sgpoweroffId":null,"subsName":"","lineName":"10kV窄溪T257线","pubTranName":"前村2号公变,前村3号公变,杭州天地工艺礼品有限公司,","scope":"浙江省-杭州市-桐庐县-江南镇-窄溪行政村(窄石路,前村自然村,窄溪镇);浙江省-杭州市-桐庐县-江南镇-窄溪行政村-杭州天地工艺礼品有限公司","startTime":"2019-10-23 08:30:00","stopDate":"2019-10-23 14:00:00","orgNo":"3340150","typeCode":"计划停电","poweroffArea":"110kV石阜变:窄溪T257线-天地F5212开关后段","poweroffReason":"杭州桐庐江南镇窄石路10千伏金浦764线等小城镇环境综合整治项目","powerTime":"2019-10-23 13:51:43","powerComm":"已送电","subsNo":"","lineNo":"","tgNo":"","tgName":null,"infoStatus":"1","orgName":"国网浙江桐庐县供电公司","typeName":null,"infoStatusName":null,"dateDay":null,"orgNos":null,"nowTime":null,"countyName":null,"streetName":null,"villageName":null,"roadName":null,"communityName":null,"tranName":null,"sdLineName":null,"cityCode":"3340150","cityName":"国网浙江桐庐县供电公司","provinceCode":null,"stopTime":"2019-10-23 14:00:00","powerType":"全部","powerOffArea":"110kV石阜变:窄溪T257线-天地F5212开关后段","powerOffReason":"杭州桐庐江南镇窄石路10千伏金浦764线等小城镇环境综合整治项目","powerOffId":"2019101431020159"},{"poweroffId":2019101431020157,"sgpoweroffId":null,"subsName":"","lineName":"10kV桥西8336线","pubTranName":"华村(4),纸宿(2),勤丰(8),李明,拱河4,纸宿(1),","scope":"浙江省-杭州市-西湖区-西溪街道-西溪社区-文三路九莲新村41幢138号;和睦街道-华丰社区-华丰造纸厂,祥符街道-陆家圩社区-华丰造纸厂","startTime":"2019-10-14 10:50:21","stopDate":"2019-10-14 17:40:21","orgNo":"3340101","typeCode":"电网故障停限电","poweroffArea":"110kV祥符变:桥西8336线-8732开关后段","poweroffReason":"高压开关跳闸 原停电结束时间为2019-10-14 12:50:21,由于施工现场环境比较复杂原因,现变更停电结束时间为2019-10-14 17:40:21","powerTime":"2019-10-14 16:50:42","powerComm":"已送电","subsNo":"","lineNo":"","tgNo":"","tgName":null,"infoStatus":"1","orgName":"浙江杭州电力客户服务中心","typeName":null,"infoStatusName":null,"dateDay":null,"orgNos":null,"nowTime":null,"countyName":null,"streetName":null,"villageName":null,"roadName":null,"communityName":null,"tranName":null,"sdLineName":null,"cityCode":"3340101","cityName":"浙江杭州电力客户服务中心","provinceCode":null,"stopTime":"2019-10-14 17:40:21","powerType":"全部","powerOffArea":"110kV祥符变:桥西8336线-8732开关后段","powerOffReason":"高压开关跳闸 原停电结束时间为2019-10-14 12:50:21,由于施工现场环境比较复杂原因,现变更停电结束时间为2019-10-14 17:40:21","powerOffId":"2019101431020157"},{"poweroffId":2019101431020155,"sgpoweroffId":null,"subsName":"","lineName":"10kV三鑫T277线","pubTranName":"竹桐坞村1号公变,","scope":"浙江省-杭州市-桐庐县-凤川街道-三鑫行政村-竹桐坞自然村","startTime":"2019-10-14 10:43:49","stopDate":"2019-10-14 17:43:49","orgNo":"3340150","typeCode":"电网故障停限电","poweroffArea":"110kV石阜变:三鑫T277线-竹桐坞村1号公变后段","poweroffReason":"(低压停电信息)低压开关跳闸 原停电结束时间为2019-10-14 12:43:49,因抢修人员不足原因,现变更停电结束时间为2019-10-14 17:43:49","powerTime":"2019-10-14 17:30:30","powerComm":"已送电","subsNo":"","lineNo":"","tgNo":"","tgName":null,"infoStatus":"1","orgName":"国网浙江桐庐县供电公司","typeName":null,"infoStatusName":null,"dateDay":null,"orgNos":null,"nowTime":null,"countyName":null,"streetName":null,"villageName":null,"roadName":null,"communityName":null,"tranName":null,"sdLineName":null,"cityCode":"3340150","cityName":"国网浙江桐庐县供电公司","provinceCode":null,"stopTime":"2019-10-14 17:43:49","powerType":"全部","powerOffArea":"110kV石阜变:三鑫T277线-竹桐坞村1号公变后段","powerOffReason":"(低压停电信息)低压开关跳闸 原停电结束时间为2019-10-14 12:43:49,因抢修人员不足原因,现变更停电结束时间为2019-10-14 17:43:49","powerOffId":"2019101431020155"},{"poweroffId":2019101431020153,"sgpoweroffId":null,"subsName":"","lineName":"10kV蓬园A54线","pubTranName":"白浪村3#变,","scope":"浙江省-杭州市-萧山区-义蓬街道-白浪行政村-白浪自然村","startTime":"2019-10-18 09:00:00","stopDate":"2019-10-18 13:00:00","orgNo":"3340120","typeCode":"计划停电","poweroffArea":"110kV白浪变:蓬园A54线-白浪村3#变后段","poweroffReason":"(低压停电信息)白浪村3#变低压割接至白浪村12#变 原停电结束时间为2019-10-18 17:30:00,为减少客户停电时间,加快工作进度,提前送电,现变更停电结束时间为2019-10-18 13:00:00","powerTime":"2019-10-18 12:20:18","powerComm":"已送电","subsNo":"","lineNo":"","tgNo":"","tgName":null,"infoStatus":"1","orgName":"国网浙江杭州市钱塘新区供电公司","typeName":null,"infoStatusName":null,"dateDay":null,"orgNos":null,"nowTime":null,"countyName":null,"streetName":null,"villageName":null,"roadName":null,"communityName":null,"tranName":null,"sdLineName":null,"cityCode":"3340120","cityName":"国网浙江杭州市钱塘新区供电公司","provinceCode":null,"stopTime":"2019-10-18 13:00:00","powerType":"全部","powerOffArea":"110kV白浪变:蓬园A54线-白浪村3#变后段","powerOffReason":"(低压停电信息)白浪村3#变低压割接至白浪村12#变 原停电结束时间为2019-10-18 17:30:00,为减少客户停电时间,加快工作进度,提前送电,现变更停电结束时间为2019-10-18 13:00:00","powerOffId":"2019101431020153"},{"poweroffId":2019101431020147,"sgpoweroffId":null,"subsName":"","lineName":"10kV渔山D913线","pubTranName":"富阳雅菲农林开发有限公司变压器,五爱村3#石马头公变,黎明村3#下街公变,杭州富阳门窗有限公司,三元村4#公路旁大街公变,五一村6#陈家桥公变,墅溪村林峰1号寺坞岭岗公变,五岭村五爱4#新桥头公变,曙光村3#石孔里公变,黎明村5#车站公变,葛村2#路下公变,五爱村2#木莲蓬公变,五一村5#板壁石公变,旭光村5#新区公变,葛村4#支路口北公变,三元村3#大街公变,葛村1#路上公变,五岭村五爱5#毛蓬坞公变,黎明村2#上街公变,五一村1#桥头公变,黎明村1#纸厂公变,曙光村4#中岭栋公变,五爱村1号村中公变,勤俭村3#村中公变,五一村2#庄里公变,旭光村2号公路公变,曙光村1#村中公变,葛村5号水坑沿公变,旭光村3#横山头公变,五岭村五爱6#公路公变,富阳市中岭钢窗厂,旭光村1#村中公变,黎明村6#鱼头山公变,五一村4#前山公变,墅溪村林峰3#大爿山公变,曙光村2#老虎山脚公变,富阳旭光金属制品厂,杭州春磊建材有限公司,旭光村6号风车坞公变,三元村7#学校旁公变,勤俭村2号厅上门公变,葛村3#支路口公变,勤俭村5号林道公变,黎明村4号老桥头公变,新瑞碳酸钙1#变,旭光村4#桥头公变,勤俭村1号村中公变,五一村3#操场公变,","scope":"浙江省-杭州市-富阳区-渔山乡-五岭行政村(五爱自然村,曙光自然村),渔山乡-大葛行政村(勤建自然村,勤俭自然村,葛村自然村,旭光自然村),渔山乡-渔山行政村(黎明自然村,曙光自然村,五一自然村,三元自然村),渔山乡-墅溪行政村(林峰自然村,林峰新村自然村);渔山乡(杭州富阳门窗有限公司,杭州富阳旭光金属制品厂,富阳市中岭钢窗厂,杭州春磊建材有限公司,富阳市新瑞碳酸钙厂,富阳雅菲农林开发有限公司)","startTime":"2019-10-14 10:15:15","stopDate":"2019-10-14 15:09:00","orgNo":"3340170","typeCode":"电网故障停限电","poweroffArea":"110kV里渔变:渔山D913线渔山D913E开关后段","poweroffReason":"高压开关跳闸，原停电结束时间为2019-10-14 12:09:00,因现场抢修难度大,现变更停电结束时间为2019-10-14 15:09:00","powerTime":"2019-10-14 14:56:08","powerComm":"已送电","subsNo":"","lineNo":"","tgNo":"","tgName":null,"infoStatus":"1","orgName":"国网浙江杭州市富阳区供电公司","typeName":null,"infoStatusName":null,"dateDay":null,"orgNos":null,"nowTime":null,"countyName":null,"streetName":null,"villageName":null,"roadName":null,"communityName":null,"tranName":null,"sdLineName":null,"cityCode":"3340170","cityName":"国网浙江杭州市富阳区供电公司","provinceCode":null,"stopTime":"2019-10-14 15:09:00","powerType":"全部","powerOffArea":"110kV里渔变:渔山D913线渔山D913E开关后段","powerOffReason":"高压开关跳闸，原停电结束时间为2019-10-14 12:09:00,因现场抢修难度大,现变更停电结束时间为2019-10-14 15:09:00","powerOffId":"2019101431020147"},{"poweroffId":2019101431020145,"sgpoweroffId":null,"subsName":"","lineName":"10kV前染963线","pubTranName":"新峰村5#变,","scope":"浙江省-杭州市-萧山区-前进街道-临江行政村-新峰自然村","startTime":"2019-10-15 09:20:00","stopDate":"2019-10-15 14:00:00","orgNo":"3340120","typeCode":"计划停电","poweroffArea":"110kV前进变:前染963线-新峰村5#变后段","poweroffReason":"新峰村5#变低压配电屏更换 原停电结束时间为2019-10-15 16:00:00,为减少客户停电时间,加快工作进度,提前送电,现变更停电结束时间为2019-10-15 14:00:00","powerTime":"2019-10-15 13:32:06","powerComm":"已送电","subsNo":"","lineNo":"","tgNo":"","tgName":null,"infoStatus":"1","orgName":"国网浙江杭州市钱塘新区供电公司","typeName":null,"infoStatusName":null,"dateDay":null,"orgNos":null,"nowTime":null,"countyName":null,"streetName":null,"villageName":null,"roadName":null,"communityName":null,"tranName":null,"sdLineName":null,"cityCode":"3340120","cityName":"国网浙江杭州市钱塘新区供电公司","provinceCode":null,"stopTime":"2019-10-15 14:00:00","powerType":"全部","powerOffArea":"110kV前进变:前染963线-新峰村5#变后段","powerOffReason":"新峰村5#变低压配电屏更换 原停电结束时间为2019-10-15 16:00:00,为减少客户停电时间,加快工作进度,提前送电,现变更停电结束时间为2019-10-15 14:00:00","powerOffId":"2019101431020145"},{"poweroffId":2019101431020144,"sgpoweroffId":null,"subsName":"","lineName":"10kV站用T176线","pubTranName":"新盛家园1号公变,","scope":"浙江省-杭州市-桐庐县-分水镇-东溪行政村-东溪自然村,分水镇-桥东行政村(怀恩路,武盛东街)","startTime":"2019-10-25 08:30:00","stopDate":"2019-10-25 14:30:00","orgNo":"3340150","typeCode":"计划停电","poweroffArea":"110kV分水变:站用T176线-新盛F4321开关后段","poweroffReason":"杭州桐庐分水里邵分线等线路改造工程","powerTime":"2019-10-25 13:50:07","powerComm":"已送电","subsNo":"","lineNo":"","tgNo":"","tgName":null,"infoStatus":"1","orgName":"国网浙江桐庐县供电公司","typeName":null,"infoStatusName":null,"dateDay":null,"orgNos":null,"nowTime":null,"countyName":null,"streetName":null,"villageName":null,"roadName":null,"communityName":null,"tranName":null,"sdLineName":null,"cityCode":"3340150","cityName":"国网浙江桐庐县供电公司","provinceCode":null,"stopTime":"2019-10-25 14:30:00","powerType":"全部","powerOffArea":"110kV分水变:站用T176线-新盛F4321开关后段","powerOffReason":"杭州桐庐分水里邵分线等线路改造工程","powerOffId":"2019101431020144"},{"poweroffId":2019101431020143,"sgpoweroffId":null,"subsName":"","lineName":"10kV站用T176线","pubTranName":"库委会,桥东中塘坞1号公变,桥东中塘坞2号公变,桥东河塘山1号公变,桥东中塘坞5号公变,桥东中塘坞4号公变,","scope":"浙江省-杭州市-桐庐县-分水镇(东溪行政村-新安自然村,桥东行政村-桥东自然村)","startTime":"2019-10-24 08:00:00","stopDate":"2019-10-24 15:00:00","orgNo":"3340150","typeCode":"计划停电","poweroffArea":"110kV分水变:站用T176线-河塘F4323令克后段;站用T176线-库管F4325令克后段;站用T176线-中坞F4326令克后段;站用T176线-中坞F4344令克后段;站用T176线-中坞F4327令克后段;站用T176线-中坞F4349跌落式熔断器后段","poweroffReason":"杭州桐庐分水站用176线坞H9190线等配电线路及设备大修工程 原停电结束时间为2019-10-24 14:00:00,因现场人员准备不足原因,现变更停电结束时间为2019-10-24 15:00:00","powerTime":"2019-10-24 14:45:38","powerComm":"已送电","subsNo":"","lineNo":"","tgNo":"","tgName":null,"infoStatus":"1","orgName":"国网浙江桐庐县供电公司","typeName":null,"infoStatusName":null,"dateDay":null,"orgNos":null,"nowTime":null,"countyName":null,"streetName":null,"villageName":null,"roadName":null,"communityName":null,"tranName":null,"sdLineName":null,"cityCode":"3340150","cityName":"国网浙江桐庐县供电公司","provinceCode":null,"stopTime":"2019-10-24 15:00:00","powerType":"全部","powerOffArea":"110kV分水变:站用T176线-河塘F4323令克后段;站用T176线-库管F4325令克后段;站用T176线-中坞F4326令克后段;站用T176线-中坞F4344令克后段;站用T176线-中坞F4327令克后段;站用T176线-中坞F4349跌落式熔断器后段","powerOffReason":"杭州桐庐分水站用176线坞H9190线等配电线路及设备大修工程 原停电结束时间为2019-10-24 14:00:00,因现场人员准备不足原因,现变更停电结束时间为2019-10-24 15:00:00","powerOffId":"2019101431020143"}],"pageModel":{"pageNow":1007,"totalCount":17789,"totalPage":1779,"tableRows":0,"pageCount":10,"beginCount":10060},"isExperi":"1"}