{"message":"","today":"2020-06-16","seleList":[{"poweroffId":2019101331020166,"sgpoweroffId":null,"subsName":"","lineName":"10kV花戏V551线","pubTranName":"居仁村外村,上田村叶家头,横坞里公变,小田坞变,临安市板桥镇上田股份经济合作社1#,板桥乡花戏村外大坑,花戏村里大坑,庐山村,居仁新布点,临安市板桥花戏制砖厂1#,花戏村花戏台,庐山新村配变,板桥站上路里配变,杭州临安灵光照明电器有限公司,花戏村,让田村让路里,中国电信股份有限公司临安分公司,让佃村田坞里,花戏村牧村,临安红焱机械链条有限公司,让田村花牌头,居仁村里村,","scope":"浙江省-杭州市-临安市-板桥镇花戏村花戏台，上佃村田坞里，庐山新村，让田村花牌头，花戏村里大坑，杭州周航科技有限公司，花戏村牧村，横坞里，小田坞，临安市板桥花戏制砖厂，居仁新布点，中国电信股份有限公司临安分公司，杭州临安灵光照明电器有限公司，居仁村里村，桥站上路里，让田村让路里，上田村叶家头，花戏村，上田股份经济合作社，板桥乡花戏村外大坑，居仁村外村，庐山村一带","startTime":"2019-10-22 14:30:00","stopDate":"2019-10-22 16:30:00","orgNo":"3340160","typeCode":"计划停电","poweroffArea":"110kV板桥变:花戏V551线-花戏V551线5513开关后段","poweroffReason":"线路改造 原停电结束时间为2019-10-22 15:00:00,因设备原因,现变更停电结束时间为2019-10-22 16:30:00","powerTime":"2019-10-22 16:21:00","powerComm":"已送电","subsNo":"","lineNo":"","tgNo":"","tgName":null,"infoStatus":"1","orgName":"国网浙江临安市供电公司","typeName":null,"infoStatusName":null,"dateDay":null,"orgNos":null,"nowTime":null,"countyName":null,"streetName":null,"villageName":null,"roadName":null,"communityName":null,"tranName":null,"sdLineName":null,"cityCode":"3340160","cityName":"国网浙江临安市供电公司","provinceCode":null,"stopTime":"2019-10-22 16:30:00","powerType":"全部","powerOffArea":"110kV板桥变:花戏V551线-花戏V551线5513开关后段","powerOffReason":"线路改造 原停电结束时间为2019-10-22 15:00:00,因设备原因,现变更停电结束时间为2019-10-22 16:30:00","powerOffId":"2019101331020166"},{"poweroffId":2019101331020165,"sgpoweroffId":null,"subsName":"","lineName":"10kV花戏V551线","pubTranName":"居仁村外村,小田坞变,杭州临安灵光照明电器有限公司,临安红焱机械链条有限公司,横坞里公变,上田村叶家头,让田村花牌头,居仁村里村,花戏村花戏台,让田村让路里,板桥乡花戏村外大坑,临安市板桥镇上田股份经济合作社1#,板桥站上路里配变,临安市板桥花戏制砖厂1#,花戏村里大坑,花戏村牧村,花戏村,庐山新村配变,庐山村,居仁新布点,中国电信股份有限公司临安分公司,让佃村田坞里,","scope":"浙江省-杭州市-临安市-板桥镇花戏村花戏台，上佃村田坞里，庐山新村，让田村花牌头，花戏村里大坑，杭州周航科技有限公司，花戏村牧村，横坞里，小田坞，临安市板桥花戏制砖厂，居仁新布点，中国电信股份有限公司临安分公司，杭州临安灵光照明电器有限公司，居仁村里村，桥站上路里，让田村让路里，上田村叶家头，花戏村，上田股份经济合作社，板桥乡花戏村外大坑，居仁村外村，庐山村一带","startTime":"2019-10-22 10:00:00","stopDate":"2019-10-22 10:30:00","orgNo":"3340160","typeCode":"计划停电","poweroffArea":"110kV板桥变:花戏V551线-花戏V551线5513开关后段","poweroffReason":"线路改造","powerTime":"2019-10-22 10:21:19","powerComm":"已送电","subsNo":"","lineNo":"","tgNo":"","tgName":null,"infoStatus":"1","orgName":"国网浙江临安市供电公司","typeName":null,"infoStatusName":null,"dateDay":null,"orgNos":null,"nowTime":null,"countyName":null,"streetName":null,"villageName":null,"roadName":null,"communityName":null,"tranName":null,"sdLineName":null,"cityCode":"3340160","cityName":"国网浙江临安市供电公司","provinceCode":null,"stopTime":"2019-10-22 10:30:00","powerType":"全部","powerOffArea":"110kV板桥变:花戏V551线-花戏V551线5513开关后段","powerOffReason":"线路改造","powerOffId":"2019101331020165"},{"poweroffId":2019101331020158,"sgpoweroffId":null,"subsName":"","lineName":"10kV东村A488线","pubTranName":"东村村4#变,","scope":"浙江省-杭州市-萧山区-益农镇-东村行政村-东村自然村、东村村一带","startTime":"2019-10-13 19:03:52","stopDate":"2019-10-13 21:20:52","orgNo":"3340130","typeCode":"电网故障停限电","poweroffArea":"110kV群围变:东村A488线-东村村4#变台区低压开关","poweroffReason":"(低压停电信息)低压熔断器短路故障 原停电结束时间: 2019-10-13 21:30:52,变更停电结束时间: 2019-10-13 21:20:52。由于抢修工作提前完成,故需要提前送电。","powerTime":"2019-10-13 20:24:18","powerComm":"已送电","subsNo":"","lineNo":"","tgNo":"","tgName":null,"infoStatus":"1","orgName":"国网浙江杭州市萧山区供电有限公司","typeName":null,"infoStatusName":null,"dateDay":null,"orgNos":null,"nowTime":null,"countyName":null,"streetName":null,"villageName":null,"roadName":null,"communityName":null,"tranName":null,"sdLineName":null,"cityCode":"3340130","cityName":"国网浙江杭州市萧山区供电有限公司","provinceCode":null,"stopTime":"2019-10-13 21:20:52","powerType":"全部","powerOffArea":"110kV群围变:东村A488线-东村村4#变台区低压开关","powerOffReason":"(低压停电信息)低压熔断器短路故障 原停电结束时间: 2019-10-13 21:30:52,变更停电结束时间: 2019-10-13 21:20:52。由于抢修工作提前完成,故需要提前送电。","powerOffId":"2019101331020158"},{"poweroffId":2019101331020152,"sgpoweroffId":null,"subsName":"","lineName":"10kV涌广835线","pubTranName":"元华公寓一变,中国电信股份有限公司浙江分公司,涌金广场专变双路内部二,杭州解百集团股份有限公司,浦东发展银行杭州分行,涌金广场专变双路内部一,元华旅店公寓专变双路内部二,杭州解百集团股份有限公司,杭州市城市基础设施建设发展中心,杭州市城市基础设施建设发展中心,元华旅店公寓专变双路内部一,聚景苑变,清波商厦专变I,","scope":"浙江省-杭州市-上城区-清波街道-清波门社区-延安路,湖滨街道-涌金门社区(人民路,柳营路,元华广场,延安路,西湖大道,涌金广场);清波街道-劳动路社区(杭州绿洋物业管理有限公司,上海浦东发展银行股份有限公司杭州分行),湖滨街道-吴山路社区(浙江耀江物业管理有限公司,杭州市市政设施发展中心,杭州解百集团股份有限公司),湖滨街道-涌金门社区(浙江银杏物业管理有限公司)","startTime":"2019-10-13 18:33:33","stopDate":"2019-10-13 20:05:59","orgNo":"3340101","typeCode":"电网故障停限电","poweroffArea":"110kV涌金变:涌广835线","poweroffReason":"高压开关跳闸 原停电结束时间为2019-10-13 23:59:59,为减少客户停电时间,加快工作进度,提前送电,现变更停电结束时间为2019-10-13 20:05:59","powerTime":"2019-10-13 19:20:26","powerComm":"已送电","subsNo":"","lineNo":"","tgNo":"","tgName":null,"infoStatus":"1","orgName":"浙江杭州电力客户服务中心","typeName":null,"infoStatusName":null,"dateDay":null,"orgNos":null,"nowTime":null,"countyName":null,"streetName":null,"villageName":null,"roadName":null,"communityName":null,"tranName":null,"sdLineName":null,"cityCode":"3340101","cityName":"浙江杭州电力客户服务中心","provinceCode":null,"stopTime":"2019-10-13 20:05:59","powerType":"全部","powerOffArea":"110kV涌金变:涌广835线","powerOffReason":"高压开关跳闸 原停电结束时间为2019-10-13 23:59:59,为减少客户停电时间,加快工作进度,提前送电,现变更停电结束时间为2019-10-13 20:05:59","powerOffId":"2019101331020152"},{"poweroffId":2019101331020109,"sgpoweroffId":null,"subsName":"","lineName":"10kV旧县T225线","pubTranName":"旧县村5号公变,","scope":"浙江省-杭州市-桐庐县-旧县街道-旧县行政村(宁国寺路,旧县自然村,上联自然村)","startTime":"2019-10-13 14:32:38","stopDate":"2019-10-13 17:32:38","orgNo":"3340150","typeCode":"电网故障停限电","poweroffArea":"35kV西武变:旧县T225线-旧县村5号公变后段","poweroffReason":"(低压停电信息)低压开关跳闸 原停电结束时间为2019-10-13 16:32:38,因材料不足原因,现变更停电结束时间为2019-10-13 17:32:38","powerTime":"2019-10-13 17:08:47","powerComm":"已送电","subsNo":"","lineNo":"","tgNo":"","tgName":null,"infoStatus":"1","orgName":"国网浙江桐庐县供电公司","typeName":null,"infoStatusName":null,"dateDay":null,"orgNos":null,"nowTime":null,"countyName":null,"streetName":null,"villageName":null,"roadName":null,"communityName":null,"tranName":null,"sdLineName":null,"cityCode":"3340150","cityName":"国网浙江桐庐县供电公司","provinceCode":null,"stopTime":"2019-10-13 17:32:38","powerType":"全部","powerOffArea":"35kV西武变:旧县T225线-旧县村5号公变后段","powerOffReason":"(低压停电信息)低压开关跳闸 原停电结束时间为2019-10-13 16:32:38,因材料不足原因,现变更停电结束时间为2019-10-13 17:32:38","powerOffId":"2019101331020109"},{"poweroffId":2019101331020078,"sgpoweroffId":null,"subsName":"","lineName":"10kV洋塘T101线","pubTranName":"三清秀苑1号公变,","scope":"浙江省-杭州市-桐庐县-桐君街道-洋塘社区-洋塘路","startTime":"2019-10-13 12:40:37","stopDate":"2019-10-13 14:40:37","orgNo":"3340150","typeCode":"电网故障停限电","poweroffArea":"110kV桐庐变:洋塘T101线-三清秀苑1号公变后段","poweroffReason":"高压开关跳闸","powerTime":"2019-10-13 14:31:59","powerComm":"已送电","subsNo":"","lineNo":"","tgNo":"","tgName":null,"infoStatus":"1","orgName":"国网浙江桐庐县供电公司","typeName":null,"infoStatusName":null,"dateDay":null,"orgNos":null,"nowTime":null,"countyName":null,"streetName":null,"villageName":null,"roadName":null,"communityName":null,"tranName":null,"sdLineName":null,"cityCode":"3340150","cityName":"国网浙江桐庐县供电公司","provinceCode":null,"stopTime":"2019-10-13 14:40:37","powerType":"全部","powerOffArea":"110kV桐庐变:洋塘T101线-三清秀苑1号公变后段","powerOffReason":"高压开关跳闸","powerOffId":"2019101331020078"},{"poweroffId":2019101331020066,"sgpoweroffId":null,"subsName":"","lineName":"10kV方桥G907线","pubTranName":"永东2组2号公变,","scope":"浙江省-杭州市-余杭区-乔司街道-永和行政村(永和自然村,永东自然村)","startTime":"2019-10-13 10:09:40","stopDate":"2019-10-13 13:00:00","orgNo":"3340140","typeCode":"电网故障停限电","poweroffArea":"110kV庙港变:方桥G907线-永东2组2号公变后段","poweroffReason":"高压开关跳闸 原停电结束时间为2019-10-13 12:39:00,因现场情况复杂原因,现变更停电结束时间为2019-10-13 13:00:00","powerTime":"2019-10-13 12:05:02","powerComm":"已送电","subsNo":"","lineNo":"","tgNo":"","tgName":null,"infoStatus":"1","orgName":"国网浙江杭州市余杭区供电有限公司","typeName":null,"infoStatusName":null,"dateDay":null,"orgNos":null,"nowTime":null,"countyName":null,"streetName":null,"villageName":null,"roadName":null,"communityName":null,"tranName":null,"sdLineName":null,"cityCode":"3340140","cityName":"国网浙江杭州市余杭区供电有限公司","provinceCode":null,"stopTime":"2019-10-13 13:00:00","powerType":"全部","powerOffArea":"110kV庙港变:方桥G907线-永东2组2号公变后段","powerOffReason":"高压开关跳闸 原停电结束时间为2019-10-13 12:39:00,因现场情况复杂原因,现变更停电结束时间为2019-10-13 13:00:00","powerOffId":"2019101331020066"},{"poweroffId":2019101331020062,"sgpoweroffId":null,"subsName":"","lineName":"10kV燕方G255线","pubTranName":"双陈村陈家洋公变,双陈村陈家洋1#公变,","scope":"浙江省-杭州市-余杭区-仁和街道-双陈行政村(计家坝自然村,穆家坝自然村,陈家洋自然村)","startTime":"2019-10-13 09:45:00","stopDate":"2019-10-13 12:30:00","orgNo":"3340140","typeCode":"电网故障停限电","poweroffArea":"110kV仁镇变:燕方G255线双陈村陈家洋公变配变","poweroffReason":"高压开关跳闸","powerTime":"2019-10-13 11:41:00","powerComm":"已送电","subsNo":"","lineNo":"","tgNo":"","tgName":null,"infoStatus":"1","orgName":"国网浙江杭州市余杭区供电有限公司","typeName":null,"infoStatusName":null,"dateDay":null,"orgNos":null,"nowTime":null,"countyName":null,"streetName":null,"villageName":null,"roadName":null,"communityName":null,"tranName":null,"sdLineName":null,"cityCode":"3340140","cityName":"国网浙江杭州市余杭区供电有限公司","provinceCode":null,"stopTime":"2019-10-13 12:30:00","powerType":"全部","powerOffArea":"110kV仁镇变:燕方G255线双陈村陈家洋公变配变","powerOffReason":"高压开关跳闸","powerOffId":"2019101331020062"},{"poweroffId":2019101331020014,"sgpoweroffId":null,"subsName":"","lineName":"10kV田村C238线","pubTranName":"岩上村6#变,萧南村8#变,萧南村4#变,浙江交工集团股份有限公司,岩下村13#变,萧南村3#变,岩下村5#变,岩上村4#变,岩下村3#变,浙江交工集团股份有限公司（1321507629）,萧南村6#变,岩上村1#变,萧南村7#变,浙江交工集团股份有限公司,浙江交工集团股份有限公司（1321507629）,萧南村10#变,岩下村2#变,萧南村11#变,萧南村9#变,岩上村7#变,萧南村2#变,萧南村5#变,浙江交工集团股份有限公司,岩下村6#变,岩上村5#变,岩下村7#变,1#,岩上村2#变,萧南村1#变,岩下村8#变,杰伟,岩下村1#变,萧南村12#变,华树纺织,岩上村3#变,","scope":"浙江省-杭州市-萧山区-楼塔镇-岩山行政村-岩下自然村,楼塔镇-岩上行政村(后畈自然村,前畈自然村),楼塔镇-萧南行政村(田村自然村,长山坞桥头自然村,长山坞自然村,长山坞大贝坞自然村,长山坞西沈自然村,长山坞东升自然村,田村江畈自然村,田村金畈自然村);浙江省-杭州市-萧山区-楼塔镇-岩上行政村-浙江交工集团股份有限公司,楼塔镇-岩山行政村(杭州杰伟塑业有限公司,杭州萧山华树纺织有限公司,浙江交工集团股份有限公司)等一带","startTime":"2019-10-13 06:46:30","stopDate":"2019-10-13 08:46:30","orgNo":"3340130","typeCode":"电网故障停限电","poweroffArea":"35kV楼塔变:田村C238线-田村C238线开关后段","poweroffReason":"高压开关跳闸","powerTime":"2019-10-13 08:18:15","powerComm":"已送电","subsNo":"","lineNo":"","tgNo":"","tgName":null,"infoStatus":"1","orgName":"国网浙江杭州市萧山区供电有限公司","typeName":null,"infoStatusName":null,"dateDay":null,"orgNos":null,"nowTime":null,"countyName":null,"streetName":null,"villageName":null,"roadName":null,"communityName":null,"tranName":null,"sdLineName":null,"cityCode":"3340130","cityName":"国网浙江杭州市萧山区供电有限公司","provinceCode":null,"stopTime":"2019-10-13 08:46:30","powerType":"全部","powerOffArea":"35kV楼塔变:田村C238线-田村C238线开关后段","powerOffReason":"高压开关跳闸","powerOffId":"2019101331020014"},{"poweroffId":2019101331020013,"sgpoweroffId":null,"subsName":"","lineName":"10kV东吴C234线","pubTranName":"吉达汽配,楼家塔4#变,杭州纱艺投资管理有限公司,楼家塔13#变,管村村28#变,楼英村4#变,管村村16#变,1#,楼塔中心幼儿园,楼家塔12#变,管村村15#变,萧山公路段,1#,楼英村9#变,楼家塔14#变,楼家塔2#变,杭州特好美纺织有限公司,杭州三八金花边有限公司,杭州万松岭书画有限公司,管村村19#变,楼英村15#变,楼英村14#变,楼英村8#变,梦雨饰品,2#,重阳铁粉,","scope":"浙江省-杭州市-萧山区-楼塔镇-楼家塔行政村(下溪滩自然村,楼二自然村,独山新区,楼三自然村),楼塔镇-楼英行政村(楼一自然村,楼英自然村,楼四自然村,沙埂弄,下溪滩,楼英新区,古越路,楼一新区,楼二自然村),楼塔镇(管村行政村-东山吴自然村,大同三行政村-路下院自然村);楼塔镇-楼家塔行政村(杭州市萧山区公路管理处,杭州梦雨饰品有限公司,杭州吉达汽车配件有限公司,杭州万松岭书画有限公司),楼塔镇-楼英行政村(萧山区楼塔镇中心幼儿园,杭州南方尼龙粘扣有限公司,杭州万松岭书画有限公司),楼塔镇(管村行政村-杭州萧山楼塔镇重阳铁粉纸袋厂,岩上行政村-杭州纱艺投资管理有限公司,杭州萧山白墙培训学校有限公司)等一带","startTime":"2019-10-13 06:45:22","stopDate":"2019-10-13 08:45:22","orgNo":"3340130","typeCode":"电网故障停限电","poweroffArea":"35kV楼塔变:东吴C234线-东吴C234线开关后段","poweroffReason":"高压开关跳闸","powerTime":"2019-10-13 08:16:35","powerComm":"已送电","subsNo":"","lineNo":"","tgNo":"","tgName":null,"infoStatus":"1","orgName":"国网浙江杭州市萧山区供电有限公司","typeName":null,"infoStatusName":null,"dateDay":null,"orgNos":null,"nowTime":null,"countyName":null,"streetName":null,"villageName":null,"roadName":null,"communityName":null,"tranName":null,"sdLineName":null,"cityCode":"3340130","cityName":"国网浙江杭州市萧山区供电有限公司","provinceCode":null,"stopTime":"2019-10-13 08:45:22","powerType":"全部","powerOffArea":"35kV楼塔变:东吴C234线-东吴C234线开关后段","powerOffReason":"高压开关跳闸","powerOffId":"2019101331020013"}],"pageModel":{"pageNow":1009,"totalCount":17789,"totalPage":1779,"tableRows":0,"pageCount":10,"beginCount":10080},"isExperi":"1"}