{"message":"","today":"2020-06-16","seleList":[{"poweroffId":2019101231020413,"sgpoweroffId":null,"subsName":"","lineName":"10kV高坪D134线","pubTranName":"南津村9#民桥草青岭公变,南津村4#民桥杨子山公变,","scope":"浙江省杭州市富阳区新登镇南津行政村民桥自然村一带","startTime":"2019-10-24 08:30:00","stopDate":"2019-10-24 16:30:00","orgNo":"3340170","typeCode":"计划停电","poweroffArea":"110kV新登变:高坪D134线52#杆杨子山分线","poweroffReason":"新登2019年10kV上练D713线等线路改造工程：杨子山分线立杆1基、拔杆3基、8#+1杆-10#杆、导线拆除及南津村9#民桥草青岭公变低压割接等工作","powerTime":"2019-10-24 16:15:17","powerComm":"已送电","subsNo":"","lineNo":"","tgNo":"","tgName":null,"infoStatus":"1","orgName":"国网浙江杭州市富阳区供电公司","typeName":null,"infoStatusName":null,"dateDay":null,"orgNos":null,"nowTime":null,"countyName":null,"streetName":null,"villageName":null,"roadName":null,"communityName":null,"tranName":null,"sdLineName":null,"cityCode":"3340170","cityName":"国网浙江杭州市富阳区供电公司","provinceCode":null,"stopTime":"2019-10-24 16:30:00","powerType":"全部","powerOffArea":"110kV新登变:高坪D134线52#杆杨子山分线","powerOffReason":"新登2019年10kV上练D713线等线路改造工程：杨子山分线立杆1基、拔杆3基、8#+1杆-10#杆、导线拆除及南津村9#民桥草青岭公变低压割接等工作","powerOffId":"2019101231020413"},{"poweroffId":2019101231020407,"sgpoweroffId":null,"subsName":"","lineName":"10kV胥口D712线","pubTranName":"元村4#洋桥头公变,","scope":"浙江省杭州市富阳区新登镇元村行政村洋桥头自然村一带","startTime":"2019-10-25 07:40:00","stopDate":"2019-10-25 17:00:00","orgNo":"3340170","typeCode":"计划停电","poweroffArea":"110kV松溪变:胥口D712线-元村4#洋桥头公变低压开关后段","poweroffReason":"(低压停电信息)吊车立杆12米3支、安装横担5付、拉线3付、导线导线JKLYJ-120*4*4档线路移位、导线落户线搭接","powerTime":"2019-10-25 16:46:06","powerComm":"已送电","subsNo":"","lineNo":"","tgNo":"","tgName":null,"infoStatus":"1","orgName":"国网浙江杭州市富阳区供电公司","typeName":null,"infoStatusName":null,"dateDay":null,"orgNos":null,"nowTime":null,"countyName":null,"streetName":null,"villageName":null,"roadName":null,"communityName":null,"tranName":null,"sdLineName":null,"cityCode":"3340170","cityName":"国网浙江杭州市富阳区供电公司","provinceCode":null,"stopTime":"2019-10-25 17:00:00","powerType":"全部","powerOffArea":"110kV松溪变:胥口D712线-元村4#洋桥头公变低压开关后段","powerOffReason":"(低压停电信息)吊车立杆12米3支、安装横担5付、拉线3付、导线导线JKLYJ-120*4*4档线路移位、导线落户线搭接","powerOffId":"2019101231020407"},{"poweroffId":2019101231020406,"sgpoweroffId":null,"subsName":"","lineName":"10kV湘岭D714线","pubTranName":"潘堰村7#炉头后塘坞公变,","scope":"浙江省杭州市富阳区新登镇潘堰村行政村炉头后塘坞自然村一带","startTime":"2019-10-24 07:40:00","stopDate":"2019-10-24 17:00:00","orgNo":"3340170","typeCode":"计划停电","poweroffArea":"110kV松溪变:湘岭D714线-潘堰村7#炉头后塘坞公变低压开关后段","poweroffReason":"(低压停电信息)03线架设JKLYJ-70*4*6档、拆除JKLYJ-35*4*6档、架设BS-JKLYJ-4*35*3档、接户线搭接","powerTime":"2019-10-24 16:44:30","powerComm":"已送电","subsNo":"","lineNo":"","tgNo":"","tgName":null,"infoStatus":"1","orgName":"国网浙江杭州市富阳区供电公司","typeName":null,"infoStatusName":null,"dateDay":null,"orgNos":null,"nowTime":null,"countyName":null,"streetName":null,"villageName":null,"roadName":null,"communityName":null,"tranName":null,"sdLineName":null,"cityCode":"3340170","cityName":"国网浙江杭州市富阳区供电公司","provinceCode":null,"stopTime":"2019-10-24 17:00:00","powerType":"全部","powerOffArea":"110kV松溪变:湘岭D714线-潘堰村7#炉头后塘坞公变低压开关后段","powerOffReason":"(低压停电信息)03线架设JKLYJ-70*4*6档、拆除JKLYJ-35*4*6档、架设BS-JKLYJ-4*35*3档、接户线搭接","powerOffId":"2019101231020406"},{"poweroffId":2019101231020404,"sgpoweroffId":null,"subsName":"","lineName":"10kV大兆D605线","pubTranName":"史家村史家4#清廷湾公变,","scope":"浙江省杭州市富阳区大源镇史家村一带","startTime":"2019-10-24 08:00:00","stopDate":"2019-10-24 16:40:00","orgNo":"3340170","typeCode":"计划停电","poweroffArea":"35kV溪东变:大兆D605线-史家村史家4#清廷湾公变低压开关后段","poweroffReason":"(低压停电信息)江南2019年缺陷处理工程人工运杆、吊车立杆、拆架导线、放设接户线、搭接等工作","powerTime":"2019-10-24 16:25:12","powerComm":"已送电","subsNo":"","lineNo":"","tgNo":"","tgName":null,"infoStatus":"1","orgName":"国网浙江杭州市富阳区供电公司","typeName":null,"infoStatusName":null,"dateDay":null,"orgNos":null,"nowTime":null,"countyName":null,"streetName":null,"villageName":null,"roadName":null,"communityName":null,"tranName":null,"sdLineName":null,"cityCode":"3340170","cityName":"国网浙江杭州市富阳区供电公司","provinceCode":null,"stopTime":"2019-10-24 16:40:00","powerType":"全部","powerOffArea":"35kV溪东变:大兆D605线-史家村史家4#清廷湾公变低压开关后段","powerOffReason":"(低压停电信息)江南2019年缺陷处理工程人工运杆、吊车立杆、拆架导线、放设接户线、搭接等工作","powerOffId":"2019101231020404"},{"poweroffId":2019101231020390,"sgpoweroffId":null,"subsName":"","lineName":"10kV宫前D603线","pubTranName":"蒋家村15号老虎头公变,","scope":"浙江省-杭州市-富阳区-大源镇-蒋家村一带","startTime":"2019-10-23 17:15:00","stopDate":"2019-10-23 18:15:00","orgNo":"3340170","typeCode":"计划停电","poweroffArea":"35kV溪东变:宫前D603线-太源纸厂分线1#开关后段","poweroffReason":"短时停电配合蒋家村15老虎头公变负荷恢复","powerTime":"2019-10-23 17:42:49","powerComm":"已送电","subsNo":"","lineNo":"","tgNo":"","tgName":null,"infoStatus":"1","orgName":"国网浙江杭州市富阳区供电公司","typeName":null,"infoStatusName":null,"dateDay":null,"orgNos":null,"nowTime":null,"countyName":null,"streetName":null,"villageName":null,"roadName":null,"communityName":null,"tranName":null,"sdLineName":null,"cityCode":"3340170","cityName":"国网浙江杭州市富阳区供电公司","provinceCode":null,"stopTime":"2019-10-23 18:15:00","powerType":"全部","powerOffArea":"35kV溪东变:宫前D603线-太源纸厂分线1#开关后段","powerOffReason":"短时停电配合蒋家村15老虎头公变负荷恢复","powerOffId":"2019101231020390"},{"poweroffId":2019101231020389,"sgpoweroffId":null,"subsName":"","lineName":"10kV宫前D603线","pubTranName":"蒋家村16号黄泥潭公变,","scope":"浙江省-杭州市-富阳区-大源镇-蒋家村一带","startTime":"2019-10-23 17:00:00","stopDate":"2019-10-23 18:00:00","orgNo":"3340170","typeCode":"计划停电","poweroffArea":"35kV溪东变:宫前D603线-蒋家黄泥潭分线开关后段","poweroffReason":"短时停电配合蒋家村16#黄泥潭公变负荷恢复","powerTime":"2019-10-23 17:42:08","powerComm":"已送电","subsNo":"","lineNo":"","tgNo":"","tgName":null,"infoStatus":"1","orgName":"国网浙江杭州市富阳区供电公司","typeName":null,"infoStatusName":null,"dateDay":null,"orgNos":null,"nowTime":null,"countyName":null,"streetName":null,"villageName":null,"roadName":null,"communityName":null,"tranName":null,"sdLineName":null,"cityCode":"3340170","cityName":"国网浙江杭州市富阳区供电公司","provinceCode":null,"stopTime":"2019-10-23 18:00:00","powerType":"全部","powerOffArea":"35kV溪东变:宫前D603线-蒋家黄泥潭分线开关后段","powerOffReason":"短时停电配合蒋家村16#黄泥潭公变负荷恢复","powerOffId":"2019101231020389"},{"poweroffId":2019101231020388,"sgpoweroffId":null,"subsName":"","lineName":"10kV宫前D603线","pubTranName":"蒋家村13#红砖厂新区公变,富阳市东山寺,蒋家村11#桥东村委公变,蒋家村东方1号东方公变,大源镇蒋家村东方3#祠堂公变,蒋家村9#东方凤山公变,富阳市大源镇中意碳酸钙厂,蒋家村蒋家8#红砖厂公变,","scope":"浙江省-杭州市-富阳区-大源镇-蒋家村一带","startTime":"2019-10-23 16:30:00","stopDate":"2019-10-23 17:00:00","orgNo":"3340170","typeCode":"计划停电","poweroffArea":"35kV溪东变:宫前D603线-东方分线开关后段","poweroffReason":"短时停电配合原宫前D603线94#杆东方分线1+2#杆后段负荷恢复","powerTime":"2019-10-23 16:39:53","powerComm":"已送电","subsNo":"","lineNo":"","tgNo":"","tgName":null,"infoStatus":"1","orgName":"国网浙江杭州市富阳区供电公司","typeName":null,"infoStatusName":null,"dateDay":null,"orgNos":null,"nowTime":null,"countyName":null,"streetName":null,"villageName":null,"roadName":null,"communityName":null,"tranName":null,"sdLineName":null,"cityCode":"3340170","cityName":"国网浙江杭州市富阳区供电公司","provinceCode":null,"stopTime":"2019-10-23 17:00:00","powerType":"全部","powerOffArea":"35kV溪东变:宫前D603线-东方分线开关后段","powerOffReason":"短时停电配合原宫前D603线94#杆东方分线1+2#杆后段负荷恢复","powerOffId":"2019101231020388"},{"poweroffId":2019101231020387,"sgpoweroffId":null,"subsName":"","lineName":"10kV翡翠H801线","pubTranName":"花井头港桥基建,华丰村委1#,华丰村委2#,","scope":"浙江省杭州市余杭区闲林街道：华丰社区华丰村委、地铁3号线花井头港桥建设工地一带","startTime":"2019-10-25 09:30:00","stopDate":"2019-10-25 14:40:00","orgNo":"3340140","typeCode":"计划停电","poweroffArea":"蒙卡开关站翡翠H801线华丰村委分支箱原停电结束时间为2019-10-25 15:30:00,为减少客户停电时间,加快工作进度,提前送电,现变更停电结束时间为2019-10-25 14:40:00","poweroffReason":"杭州市地铁集团有限责任公司 原停电结束时间为2019-10-25 15:30:00,为减少客户停电时间,加快工作进度,提前送电,现变更停电结束时间为2019-10-25 14:40:00","powerTime":"2019-10-25 14:07:41","powerComm":"已送电","subsNo":"","lineNo":"","tgNo":"","tgName":null,"infoStatus":"1","orgName":"国网浙江杭州市余杭区供电有限公司","typeName":null,"infoStatusName":null,"dateDay":null,"orgNos":null,"nowTime":null,"countyName":null,"streetName":null,"villageName":null,"roadName":null,"communityName":null,"tranName":null,"sdLineName":null,"cityCode":"3340140","cityName":"国网浙江杭州市余杭区供电有限公司","provinceCode":null,"stopTime":"2019-10-25 14:40:00","powerType":"全部","powerOffArea":"蒙卡开关站翡翠H801线华丰村委分支箱原停电结束时间为2019-10-25 15:30:00,为减少客户停电时间,加快工作进度,提前送电,现变更停电结束时间为2019-10-25 14:40:00","powerOffReason":"杭州市地铁集团有限责任公司 原停电结束时间为2019-10-25 15:30:00,为减少客户停电时间,加快工作进度,提前送电,现变更停电结束时间为2019-10-25 14:40:00","powerOffId":"2019101231020387"},{"poweroffId":2019101231020386,"sgpoweroffId":null,"subsName":"","lineName":"10kV玉屏H685线","pubTranName":"闲湖城（卧龙湾）2#公变,闲湖城（卧龙湾）1#公变,","scope":"浙江省杭州市余杭区闲林街道：闲湖城小区卧龙湾一带","startTime":"2019-10-24 09:30:00","stopDate":"2019-10-24 12:30:00","orgNo":"3340140","typeCode":"计划停电","poweroffArea":"钻石开关站玉屏H685线卧龙1分线","poweroffReason":"配网工程（2019年杭州余杭科技城地区10千伏环网柜更换工程）：钻石开关站玉屏H685线卧龙1分线拆头，改接至Ⅰ段2号间隔","powerTime":"2019-10-24 12:26:28","powerComm":"已送电","subsNo":"","lineNo":"","tgNo":"","tgName":null,"infoStatus":"1","orgName":"国网浙江杭州市余杭区供电有限公司","typeName":null,"infoStatusName":null,"dateDay":null,"orgNos":null,"nowTime":null,"countyName":null,"streetName":null,"villageName":null,"roadName":null,"communityName":null,"tranName":null,"sdLineName":null,"cityCode":"3340140","cityName":"国网浙江杭州市余杭区供电有限公司","provinceCode":null,"stopTime":"2019-10-24 12:30:00","powerType":"全部","powerOffArea":"钻石开关站玉屏H685线卧龙1分线","powerOffReason":"配网工程（2019年杭州余杭科技城地区10千伏环网柜更换工程）：钻石开关站玉屏H685线卧龙1分线拆头，改接至Ⅰ段2号间隔","powerOffId":"2019101231020386"},{"poweroffId":2019101231020384,"sgpoweroffId":null,"subsName":"","lineName":"10kV圣堂H509线","pubTranName":"浙江博时市政园林建设有限公司6120842642基建变,","scope":"浙江省杭州市余杭区瓶窑镇：博时市政园林建设有限公司一带","startTime":"2019-10-23 08:40:00","stopDate":"2019-10-23 14:00:00","orgNo":"3340140","typeCode":"计划停电","poweroffArea":"圣堂H509线下塘湾分线开关后段","poweroffReason":"计划工作 原停电结束时间为2019-10-23 12:40:00,因带电作业车堵车原因,现变更停电结束时间为2019-10-23 14:00:00","powerTime":"2019-10-23 13:49:31","powerComm":"已送电","subsNo":"","lineNo":"","tgNo":"","tgName":null,"infoStatus":"1","orgName":"国网浙江杭州市余杭区供电有限公司","typeName":null,"infoStatusName":null,"dateDay":null,"orgNos":null,"nowTime":null,"countyName":null,"streetName":null,"villageName":null,"roadName":null,"communityName":null,"tranName":null,"sdLineName":null,"cityCode":"3340140","cityName":"国网浙江杭州市余杭区供电有限公司","provinceCode":null,"stopTime":"2019-10-23 14:00:00","powerType":"全部","powerOffArea":"圣堂H509线下塘湾分线开关后段","powerOffReason":"计划工作 原停电结束时间为2019-10-23 12:40:00,因带电作业车堵车原因,现变更停电结束时间为2019-10-23 14:00:00","powerOffId":"2019101231020384"}],"pageModel":{"pageNow":1012,"totalCount":17789,"totalPage":1779,"tableRows":0,"pageCount":10,"beginCount":10110},"isExperi":"1"}