{"message":"","today":"2020-06-15","seleList":[{"poweroffId":2020052531020242,"sgpoweroffId":null,"subsName":"","lineName":"10kV长树G664线","pubTranName":"东湖5组（里家角）公变,东湖5组（里家角）2号公变,","scope":"浙江省-杭州市-余杭区-南苑街道：东湖5组（里家角）一带","startTime":"2020-06-03 12:00:00","stopDate":"2020-06-03 16:30:00","orgNo":"3340140","typeCode":"计划停电","poweroffArea":"长树G664线东湖5组（里家角）分线1#杆令克（带电作业配合引线拆除）","poweroffReason":"计划工作 原停电结束时间为2020-06-03 19:00:00,为减少客户停电时间,加快工作进度,提前送电,现变更停电结束时间为2020-06-03 16:30:00","powerTime":"2020-06-03 16:10:13","powerComm":"因施工力量加强，现场进度较快，提前送电","subsNo":"","lineNo":"","tgNo":"","tgName":null,"infoStatus":"1","orgName":"国网浙江杭州市余杭区供电有限公司","typeName":null,"infoStatusName":null,"dateDay":null,"orgNos":null,"nowTime":null,"countyName":null,"streetName":null,"villageName":null,"roadName":null,"communityName":null,"tranName":null,"sdLineName":null,"cityCode":"3340140","cityName":"国网浙江杭州市余杭区供电有限公司","provinceCode":null,"stopTime":"2020-06-03 16:30:00","powerType":"全部","powerOffArea":"长树G664线东湖5组（里家角）分线1#杆令克（带电作业配合引线拆除）","powerOffReason":"计划工作 原停电结束时间为2020-06-03 19:00:00,为减少客户停电时间,加快工作进度,提前送电,现变更停电结束时间为2020-06-03 16:30:00","powerOffId":"2020052531020242"},{"poweroffId":2020052531020240,"sgpoweroffId":null,"subsName":"","lineName":"10kV香下H546线","pubTranName":"西山村麻栗滩公变,耀友农产品,杭州月华包装有限公司6120919238,中国电信股份有限公司杭州余杭区分公司6120305560,杭州方绿茶业有限公司6110534061,","scope":"浙江省-杭州市-余杭区-径山镇：西山村麻栗滩、杭州耀发农产品开发有限公司、杭州方绿茶业有限公司、杭州月华包装有限公司、中国电信股份有限公司杭州余杭区分公司一带","startTime":"2020-06-03 09:30:00","stopDate":"2020-06-03 17:30:00","orgNo":"3340140","typeCode":"计划停电","poweroffArea":"110kV潘板变:香下H546线平山农场分线","poweroffReason":"计划工作","powerTime":"2020-06-03 17:10:59","powerComm":"已送电","subsNo":"","lineNo":"","tgNo":"","tgName":null,"infoStatus":"1","orgName":"国网浙江杭州市余杭区供电有限公司","typeName":null,"infoStatusName":null,"dateDay":null,"orgNos":null,"nowTime":null,"countyName":null,"streetName":null,"villageName":null,"roadName":null,"communityName":null,"tranName":null,"sdLineName":null,"cityCode":"3340140","cityName":"国网浙江杭州市余杭区供电有限公司","provinceCode":null,"stopTime":"2020-06-03 17:30:00","powerType":"全部","powerOffArea":"110kV潘板变:香下H546线平山农场分线","powerOffReason":"计划工作","powerOffId":"2020052531020240"},{"poweroffId":2020052531020238,"sgpoweroffId":null,"subsName":"","lineName":"10kV金缘H437线","pubTranName":"浙大化工,中国电信,西塘河村吴王机埠,东西塘河(6120890211)01#专变,勾庄村河洋桥北2号公变,勾庄村河洋桥北公变,勾庄村东斗河北2号公变,绿佳农副产品公司,","scope":"浙江省-杭州市-余杭区-良渚街道：勾庄村河洋桥、浙大化工、绿佳农副产品、中国电信、西塘河村吴王机埠、良渚新城基建工地、勾庄村东斗河一带","startTime":"2020-06-03 08:30:00","stopDate":"2020-06-03 19:00:00","orgNo":"3340140","typeCode":"计划停电","poweroffArea":"110kV勾庄变:金缘H437线-金缘H4372开关后段","poweroffReason":"勾庄变铭雅H428线新电缆环入新上兰亭、山阴开关站Ⅰ段，电缆环出至原铭雅线26号杆 原停电结束时间为2020-06-03 18:30:00,因天气原因,延迟送电,现变更停电结束时间为2020-06-03 19:00:00","powerTime":"2020-06-03 18:59:40","powerComm":"已送电","subsNo":"","lineNo":"","tgNo":"","tgName":null,"infoStatus":"1","orgName":"国网浙江杭州市余杭区供电有限公司","typeName":null,"infoStatusName":null,"dateDay":null,"orgNos":null,"nowTime":null,"countyName":null,"streetName":null,"villageName":null,"roadName":null,"communityName":null,"tranName":null,"sdLineName":null,"cityCode":"3340140","cityName":"国网浙江杭州市余杭区供电有限公司","provinceCode":null,"stopTime":"2020-06-03 19:00:00","powerType":"全部","powerOffArea":"110kV勾庄变:金缘H437线-金缘H4372开关后段","powerOffReason":"勾庄变铭雅H428线新电缆环入新上兰亭、山阴开关站Ⅰ段，电缆环出至原铭雅线26号杆 原停电结束时间为2020-06-03 18:30:00,因天气原因,延迟送电,现变更停电结束时间为2020-06-03 19:00:00","powerOffId":"2020052531020238"},{"poweroffId":2020052531020237,"sgpoweroffId":null,"subsName":"","lineName":"10kV石大G919线","pubTranName":"永西6组4号公变,永西6组3号公变,","scope":"浙江省-杭州市-余杭区-乔司街道：永西6组一带","startTime":"2020-06-02 08:30:00","stopDate":"2020-06-02 13:00:00","orgNo":"3340140","typeCode":"计划停电","poweroffArea":"石大G919线永西6组4#分线开关","poweroffReason":"计划工作 原停电结束时间为2020-06-02 17:00:00,为减少客户停电时间,加快工作进度,提前送电,现变更停电结束时间为2020-06-02 13:00:00","powerTime":"2020-06-02 12:38:40","powerComm":"因施工力量加强，现场进度较快，提前送电","subsNo":"","lineNo":"","tgNo":"","tgName":null,"infoStatus":"1","orgName":"国网浙江杭州市余杭区供电有限公司","typeName":null,"infoStatusName":null,"dateDay":null,"orgNos":null,"nowTime":null,"countyName":null,"streetName":null,"villageName":null,"roadName":null,"communityName":null,"tranName":null,"sdLineName":null,"cityCode":"3340140","cityName":"国网浙江杭州市余杭区供电有限公司","provinceCode":null,"stopTime":"2020-06-02 13:00:00","powerType":"全部","powerOffArea":"石大G919线永西6组4#分线开关","powerOffReason":"计划工作 原停电结束时间为2020-06-02 17:00:00,为减少客户停电时间,加快工作进度,提前送电,现变更停电结束时间为2020-06-02 13:00:00","powerOffId":"2020052531020237"},{"poweroffId":2020052531020234,"sgpoweroffId":null,"subsName":"","lineName":"10kV玉琮H443线","pubTranName":"中铁五局集团有限公司,西塘河村姚家塘2号公变,西塘河村姚家塘3号公变,","scope":"浙江省-杭州市-余杭区-良渚街道：西塘河村姚家塘、中铁五局基建工地一带","startTime":"2020-06-02 08:30:00","stopDate":"2020-06-02 19:00:00","orgNo":"3340140","typeCode":"计划停电","poweroffArea":"110kV勾庄变:玉琮H443线-姚家塘2分线开关后段","poweroffReason":"勾庄变-玉琮H4432开关间迁改工作 原停电结束时间为2020-06-02 16:30:00,因施工受阻原因,延迟送电,现变更停电结束时间为2020-06-02 19:00:00","powerTime":"2020-06-02 18:09:27","powerComm":"已送电","subsNo":"","lineNo":"","tgNo":"","tgName":null,"infoStatus":"1","orgName":"国网浙江杭州市余杭区供电有限公司","typeName":null,"infoStatusName":null,"dateDay":null,"orgNos":null,"nowTime":null,"countyName":null,"streetName":null,"villageName":null,"roadName":null,"communityName":null,"tranName":null,"sdLineName":null,"cityCode":"3340140","cityName":"国网浙江杭州市余杭区供电有限公司","provinceCode":null,"stopTime":"2020-06-02 19:00:00","powerType":"全部","powerOffArea":"110kV勾庄变:玉琮H443线-姚家塘2分线开关后段","powerOffReason":"勾庄变-玉琮H4432开关间迁改工作 原停电结束时间为2020-06-02 16:30:00,因施工受阻原因,延迟送电,现变更停电结束时间为2020-06-02 19:00:00","powerOffId":"2020052531020234"},{"poweroffId":2020052531020232,"sgpoweroffId":null,"subsName":"","lineName":"10kV云湾H367线","pubTranName":"海能加油站,","scope":"浙江省-杭州市-余杭区-良渚街道：海能加油站一带","startTime":"2020-06-02 08:30:00","stopDate":"2020-06-02 16:30:00","orgNo":"3340140","typeCode":"计划停电","poweroffArea":"110kV学里变:云湾H367线-云湾H3671开关后段","poweroffReason":"云湾H367线海能加油站改接至11号杆","powerTime":"","powerComm":"","subsNo":"","lineNo":"","tgNo":"","tgName":null,"infoStatus":"1","orgName":"国网浙江杭州市余杭区供电有限公司","typeName":null,"infoStatusName":null,"dateDay":null,"orgNos":null,"nowTime":null,"countyName":null,"streetName":null,"villageName":null,"roadName":null,"communityName":null,"tranName":null,"sdLineName":null,"cityCode":"3340140","cityName":"国网浙江杭州市余杭区供电有限公司","provinceCode":null,"stopTime":"2020-06-02 16:30:00","powerType":"未送电","powerOffArea":"110kV学里变:云湾H367线-云湾H3671开关后段","powerOffReason":"云湾H367线海能加油站改接至11号杆","powerOffId":"2020052531020232"},{"poweroffId":2020052531020231,"sgpoweroffId":null,"subsName":"","lineName":"10kV鸿雁H802线","pubTranName":"浙江飞碟汽车制造有限公司,西子混凝土,","scope":"浙江省-杭州市-余杭区-五常街道：杭州西子混凝土有限公司、浙江飞碟汽车制造有限公司一带","startTime":"2020-06-02 09:30:00","stopDate":"2020-06-02 12:30:00","orgNo":"3340140","typeCode":"计划停电","poweroffArea":"鸿雁开关站鸿雁H802线鸿雁分支箱分线","poweroffReason":"业扩工程（科技城建设公司荆长大道提升改造鸿雁H802线等线路迁改工程）：鸿雁分支箱健康印务分线电缆拆除工作","powerTime":"","powerComm":"","subsNo":"","lineNo":"","tgNo":"","tgName":null,"infoStatus":"1","orgName":"国网浙江杭州市余杭区供电有限公司","typeName":null,"infoStatusName":null,"dateDay":null,"orgNos":null,"nowTime":null,"countyName":null,"streetName":null,"villageName":null,"roadName":null,"communityName":null,"tranName":null,"sdLineName":null,"cityCode":"3340140","cityName":"国网浙江杭州市余杭区供电有限公司","provinceCode":null,"stopTime":"2020-06-02 12:30:00","powerType":"未送电","powerOffArea":"鸿雁开关站鸿雁H802线鸿雁分支箱分线","powerOffReason":"业扩工程（科技城建设公司荆长大道提升改造鸿雁H802线等线路迁改工程）：鸿雁分支箱健康印务分线电缆拆除工作","powerOffId":"2020052531020231"},{"poweroffId":2020052531020229,"sgpoweroffId":null,"subsName":"","lineName":"10kV紫荆H873线","pubTranName":"紫荆村车口小学公变,吉树木业,紫荆村方家弄公变,杭州市余杭区中泰中心幼儿园,紫荆村钱家公变,","scope":"浙江省-杭州市-余杭区-中泰街道：新泰村车口畈小学、车口畈幼儿园、吉树木业厂、紫荆村方家弄、紫荆村钱家一带","startTime":"2020-06-01 08:40:00","stopDate":"2020-06-01 19:00:00","orgNo":"3340140","typeCode":"临时停电","poweroffArea":"110kV中泰变:紫荆H873线首端，巴礼H87312开关，巴礼H87311开关之间","poweroffReason":"计划工作","powerTime":"2020-06-01 18:50:03","powerComm":"已送电","subsNo":"","lineNo":"","tgNo":"","tgName":null,"infoStatus":"1","orgName":"国网浙江杭州市余杭区供电有限公司","typeName":null,"infoStatusName":null,"dateDay":null,"orgNos":null,"nowTime":null,"countyName":null,"streetName":null,"villageName":null,"roadName":null,"communityName":null,"tranName":null,"sdLineName":null,"cityCode":"3340140","cityName":"国网浙江杭州市余杭区供电有限公司","provinceCode":null,"stopTime":"2020-06-01 19:00:00","powerType":"全部","powerOffArea":"110kV中泰变:紫荆H873线首端，巴礼H87312开关，巴礼H87311开关之间","powerOffReason":"计划工作","powerOffId":"2020052531020229"},{"poweroffId":2020052531020227,"sgpoweroffId":null,"subsName":"","lineName":"10kV木溪H254线","pubTranName":"张堰村村委公变,张堰农居点1号公变,张堰村方家塘1号公变,张堰村埠头公变,张堰农居点2号公变,","scope":"浙江省-杭州市-余杭区-瓶窑镇：张堰农居点、张堰村村委、张堰村埠头、张堰村方家塘一带","startTime":"2020-06-01 09:30:00","stopDate":"2020-06-01 16:30:00","orgNo":"3340140","typeCode":"临时停电","poweroffArea":"110kV彭公变:木溪H254线张堰村委分线73号杆开关后段","poweroffReason":"计划工作","powerTime":"2020-06-01 15:53:22","powerComm":"已送电","subsNo":"","lineNo":"","tgNo":"","tgName":null,"infoStatus":"1","orgName":"国网浙江杭州市余杭区供电有限公司","typeName":null,"infoStatusName":null,"dateDay":null,"orgNos":null,"nowTime":null,"countyName":null,"streetName":null,"villageName":null,"roadName":null,"communityName":null,"tranName":null,"sdLineName":null,"cityCode":"3340140","cityName":"国网浙江杭州市余杭区供电有限公司","provinceCode":null,"stopTime":"2020-06-01 16:30:00","powerType":"全部","powerOffArea":"110kV彭公变:木溪H254线张堰村委分线73号杆开关后段","powerOffReason":"计划工作","powerOffId":"2020052531020227"},{"poweroffId":2020052531020226,"sgpoweroffId":null,"subsName":"","lineName":"10kV鸿雁H802线","pubTranName":"健康印务,","scope":"浙江省-杭州市-余杭区-五常街道：杭州健康印务有限公司一带","startTime":"2020-06-01 09:30:00","stopDate":"2020-06-01 16:30:00","orgNo":"3340140","typeCode":"临时停电","poweroffArea":"鸿雁H802线健康印务分线","poweroffReason":"业扩工程（科技城建设公司荆长大道提升改造鸿雁H802线等线路迁改工程）：鸿雁H802线上庄开关站待用G05号间隔新出电缆改接健康印务专变","powerTime":"","powerComm":"","subsNo":"","lineNo":"","tgNo":"","tgName":null,"infoStatus":"1","orgName":"国网浙江杭州市余杭区供电有限公司","typeName":null,"infoStatusName":null,"dateDay":null,"orgNos":null,"nowTime":null,"countyName":null,"streetName":null,"villageName":null,"roadName":null,"communityName":null,"tranName":null,"sdLineName":null,"cityCode":"3340140","cityName":"国网浙江杭州市余杭区供电有限公司","provinceCode":null,"stopTime":"2020-06-01 16:30:00","powerType":"未送电","powerOffArea":"鸿雁H802线健康印务分线","powerOffReason":"业扩工程（科技城建设公司荆长大道提升改造鸿雁H802线等线路迁改工程）：鸿雁H802线上庄开关站待用G05号间隔新出电缆改接健康印务专变","powerOffId":"2020052531020226"}],"pageModel":{"pageNow":102,"totalCount":17786,"totalPage":1779,"tableRows":0,"pageCount":10,"beginCount":1010},"isExperi":"1"}