{"message":"","today":"2020-06-16","seleList":[{"poweroffId":2019101231020175,"sgpoweroffId":null,"subsName":"","lineName":"10kV夏中R18A线","pubTranName":"临岐高峰村高峰公变,","scope":"浙江省-杭州市-淳安县-临岐镇-高峰行政村(高峰自然村,高峰村)","startTime":"2019-10-21 07:30:00","stopDate":"2019-10-21 11:30:00","orgNo":"3340190","typeCode":"计划停电","poweroffArea":"35kV临岐变:夏中R18A线-高峰配变跌落式熔断器后段","poweroffReason":"夏中R18A线高峰台区配变增容变压器更换","powerTime":"2019-10-21 11:01:55","powerComm":"已送电","subsNo":"","lineNo":"","tgNo":"","tgName":null,"infoStatus":"1","orgName":"国网浙江淳安县供电有限公司","typeName":null,"infoStatusName":null,"dateDay":null,"orgNos":null,"nowTime":null,"countyName":null,"streetName":null,"villageName":null,"roadName":null,"communityName":null,"tranName":null,"sdLineName":null,"cityCode":"3340190","cityName":"国网浙江淳安县供电有限公司","provinceCode":null,"stopTime":"2019-10-21 11:30:00","powerType":"全部","powerOffArea":"35kV临岐变:夏中R18A线-高峰配变跌落式熔断器后段","powerOffReason":"夏中R18A线高峰台区配变增容变压器更换","powerOffId":"2019101231020175"},{"poweroffId":2019101231020174,"sgpoweroffId":null,"subsName":"","lineName":"10kV鹤里V256线","pubTranName":"临安市立荣五金工具厂,","scope":"浙江省-杭州市-临安市-太阳镇-临安市立荣五金工具厂一带","startTime":"2019-10-25 08:00:00","stopDate":"2019-10-25 15:00:00","orgNo":"3340160","typeCode":"计划停电","poweroffArea":"鹤里V256线寨村分线6#杆立荣五金工具分支线","poweroffReason":"立荣五金工具配变移位02项：鹤里V256线寨村分线6#杆立荣五金工具配变移位，立荣五金分支线0#-1#杆架线","powerTime":"2019-10-25 14:50:11","powerComm":"已送电","subsNo":"","lineNo":"","tgNo":"","tgName":null,"infoStatus":"1","orgName":"国网浙江临安市供电公司","typeName":null,"infoStatusName":null,"dateDay":null,"orgNos":null,"nowTime":null,"countyName":null,"streetName":null,"villageName":null,"roadName":null,"communityName":null,"tranName":null,"sdLineName":null,"cityCode":"3340160","cityName":"国网浙江临安市供电公司","provinceCode":null,"stopTime":"2019-10-25 15:00:00","powerType":"全部","powerOffArea":"鹤里V256线寨村分线6#杆立荣五金工具分支线","powerOffReason":"立荣五金工具配变移位02项：鹤里V256线寨村分线6#杆立荣五金工具配变移位，立荣五金分支线0#-1#杆架线","powerOffId":"2019101231020174"},{"poweroffId":2019101231020173,"sgpoweroffId":null,"subsName":"","lineName":"10kV鹤里V256线","pubTranName":"10kV鹤里村[木灵坞]公变,","scope":"浙江省-杭州市-临安市-太阳镇-木灵坞一带","startTime":"2019-10-24 08:00:00","stopDate":"2019-10-24 16:00:00","orgNo":"3340160","typeCode":"计划停电","poweroffArea":"鹤里村（木灵坞）公变令克","poweroffReason":"木灵坞公变移位02项：鹤里村（木灵坞）公变移位，鹤里V256线323#杆新装令克一组，木灵坞公变分线0#-1#杆架线、低压割接 原停电结束时间为2019-10-24 15:00:00,因设备原因,现变更停电结束时间为2019-10-24 16:00:00","powerTime":"2019-10-24 15:23:12","powerComm":"已送电","subsNo":"","lineNo":"","tgNo":"","tgName":null,"infoStatus":"1","orgName":"国网浙江临安市供电公司","typeName":null,"infoStatusName":null,"dateDay":null,"orgNos":null,"nowTime":null,"countyName":null,"streetName":null,"villageName":null,"roadName":null,"communityName":null,"tranName":null,"sdLineName":null,"cityCode":"3340160","cityName":"国网浙江临安市供电公司","provinceCode":null,"stopTime":"2019-10-24 16:00:00","powerType":"全部","powerOffArea":"鹤里村（木灵坞）公变令克","powerOffReason":"木灵坞公变移位02项：鹤里村（木灵坞）公变移位，鹤里V256线323#杆新装令克一组，木灵坞公变分线0#-1#杆架线、低压割接 原停电结束时间为2019-10-24 15:00:00,因设备原因,现变更停电结束时间为2019-10-24 16:00:00","powerOffId":"2019101231020173"},{"poweroffId":2019101231020172,"sgpoweroffId":null,"subsName":"","lineName":"10kV千洪V121线","pubTranName":"浙江丰铎建设有限公司1#,10kV杨洪村[杨洪双溪口]公变,10kV杨洪村[甘溪]公变,10kV杨洪村[桃树湾]公变,千洪电站,","scope":"浙江省-杭州市-临安市-於潜镇-浙江丰铎建设有限公司、杨洪双溪口、甘溪、千洪电站、桃树湾一带","startTime":"2019-10-23 08:00:00","stopDate":"2019-10-23 16:00:00","orgNo":"3340160","typeCode":"计划停电","poweroffArea":"千洪V121线杨洪分线103#杆开关","poweroffReason":"千洪V121线杨洪分线108#-123#、143#-184#杆移位，杨洪分线108#杆杨洪村（甘溪）公变移位（拓扑关系不变）","powerTime":"2019-10-23 15:32:47","powerComm":"已送电","subsNo":"","lineNo":"","tgNo":"","tgName":null,"infoStatus":"1","orgName":"国网浙江临安市供电公司","typeName":null,"infoStatusName":null,"dateDay":null,"orgNos":null,"nowTime":null,"countyName":null,"streetName":null,"villageName":null,"roadName":null,"communityName":null,"tranName":null,"sdLineName":null,"cityCode":"3340160","cityName":"国网浙江临安市供电公司","provinceCode":null,"stopTime":"2019-10-23 16:00:00","powerType":"全部","powerOffArea":"千洪V121线杨洪分线103#杆开关","powerOffReason":"千洪V121线杨洪分线108#-123#、143#-184#杆移位，杨洪分线108#杆杨洪村（甘溪）公变移位（拓扑关系不变）","powerOffId":"2019101231020172"},{"poweroffId":2019101231020171,"sgpoweroffId":null,"subsName":"","lineName":"10kV溪口R181线","pubTranName":"丰茂村丰茂配变,","scope":"浙江省-杭州市-淳安县-文昌镇-丰茂行政村(丰茂自然村,算坑自然村)","startTime":"2019-10-22 14:30:00","stopDate":"2019-10-22 18:30:00","orgNo":"3340190","typeCode":"计划停电","poweroffArea":"35kV临岐变:溪口R181线-丰茂配变电缆进线跌落式熔断器后段","poweroffReason":"卸岭R196线丰茂台区配变增容变压器更换","powerTime":"2019-10-22 17:33:32","powerComm":"已送电","subsNo":"","lineNo":"","tgNo":"","tgName":null,"infoStatus":"1","orgName":"国网浙江淳安县供电有限公司","typeName":null,"infoStatusName":null,"dateDay":null,"orgNos":null,"nowTime":null,"countyName":null,"streetName":null,"villageName":null,"roadName":null,"communityName":null,"tranName":null,"sdLineName":null,"cityCode":"3340190","cityName":"国网浙江淳安县供电有限公司","provinceCode":null,"stopTime":"2019-10-22 18:30:00","powerType":"全部","powerOffArea":"35kV临岐变:溪口R181线-丰茂配变电缆进线跌落式熔断器后段","powerOffReason":"卸岭R196线丰茂台区配变增容变压器更换","powerOffId":"2019101231020171"},{"poweroffId":2019101231020170,"sgpoweroffId":null,"subsName":"","lineName":"10kV夏中R18A线","pubTranName":"临岐村合浦配变,","scope":"浙江省-杭州市-淳安县-临岐镇-临岐行政村-合浦自然村","startTime":"2019-10-22 07:30:00","stopDate":"2019-10-22 11:30:00","orgNo":"3340190","typeCode":"计划停电","poweroffArea":"35kV临岐变:夏中R18A线-合蒲支线跌落式熔断器后段","poweroffReason":"夏中R18A线合浦台区配变增容变压器更换","powerTime":"2019-10-22 10:32:02","powerComm":"已送电","subsNo":"","lineNo":"","tgNo":"","tgName":null,"infoStatus":"1","orgName":"国网浙江淳安县供电有限公司","typeName":null,"infoStatusName":null,"dateDay":null,"orgNos":null,"nowTime":null,"countyName":null,"streetName":null,"villageName":null,"roadName":null,"communityName":null,"tranName":null,"sdLineName":null,"cityCode":"3340190","cityName":"国网浙江淳安县供电有限公司","provinceCode":null,"stopTime":"2019-10-22 11:30:00","powerType":"全部","powerOffArea":"35kV临岐变:夏中R18A线-合蒲支线跌落式熔断器后段","powerOffReason":"夏中R18A线合浦台区配变增容变压器更换","powerOffId":"2019101231020170"},{"poweroffId":2019101231020169,"sgpoweroffId":null,"subsName":"","lineName":"10kV瑶山R183线","pubTranName":"临岐吴峰村鲁村公变,","scope":"浙江省-杭州市-淳安县-临岐镇-吴峰行政村(吴丰自然村,下鲁自然村,上鲁自然村)","startTime":"2019-10-23 07:30:00","stopDate":"2019-10-23 12:30:00","orgNo":"3340190","typeCode":"计划停电","poweroffArea":"35kV临岐变:瑶山R183线-鲁村支线跌落式熔断器后段","poweroffReason":"瑶山R183线鲁村台区配变增容进出电缆更换","powerTime":"2019-10-23 11:36:12","powerComm":"已送电","subsNo":"","lineNo":"","tgNo":"","tgName":null,"infoStatus":"1","orgName":"国网浙江淳安县供电有限公司","typeName":null,"infoStatusName":null,"dateDay":null,"orgNos":null,"nowTime":null,"countyName":null,"streetName":null,"villageName":null,"roadName":null,"communityName":null,"tranName":null,"sdLineName":null,"cityCode":"3340190","cityName":"国网浙江淳安县供电有限公司","provinceCode":null,"stopTime":"2019-10-23 12:30:00","powerType":"全部","powerOffArea":"35kV临岐变:瑶山R183线-鲁村支线跌落式熔断器后段","powerOffReason":"瑶山R183线鲁村台区配变增容进出电缆更换","powerOffId":"2019101231020169"},{"poweroffId":2019101231020168,"sgpoweroffId":null,"subsName":"","lineName":"10kV古镇8910线","pubTranName":"广宿,道指,万德,外汽,","scope":"浙江省杭州市西湖区古墩路广电宿舍1幢1单元、1幢2单元、道路综合整治指挥部、佳诺古墩酒店有限公司、外事旅游汽车有限公司及附近一带","startTime":"2019-10-24 09:30:00","stopDate":"2019-10-24 16:30:00","orgNo":"3340101","typeCode":"计划停电","poweroffArea":"110kV丰潭变:古镇8910线-广宿后段;古镇8910线-道指后段;古镇8910线-万德后段;古镇8910线-外汽后段","poweroffReason":"杭州地铁3号线古墩路站10kV电力迁改工程 ； 原停电结束时间为2019-10-24 17:00:00,为减少客户停电时间,加快工作进度,提前送电,现变更停电结束时间为2019-10-24 16:30:00","powerTime":"2019-10-24 16:01:59","powerComm":"已送电","subsNo":"","lineNo":"","tgNo":"","tgName":null,"infoStatus":"1","orgName":"浙江杭州电力客户服务中心","typeName":null,"infoStatusName":null,"dateDay":null,"orgNos":null,"nowTime":null,"countyName":null,"streetName":null,"villageName":null,"roadName":null,"communityName":null,"tranName":null,"sdLineName":null,"cityCode":"3340101","cityName":"浙江杭州电力客户服务中心","provinceCode":null,"stopTime":"2019-10-24 16:30:00","powerType":"全部","powerOffArea":"110kV丰潭变:古镇8910线-广宿后段;古镇8910线-道指后段;古镇8910线-万德后段;古镇8910线-外汽后段","powerOffReason":"杭州地铁3号线古墩路站10kV电力迁改工程 ； 原停电结束时间为2019-10-24 17:00:00,为减少客户停电时间,加快工作进度,提前送电,现变更停电结束时间为2019-10-24 16:30:00","powerOffId":"2019101231020168"},{"poweroffId":2019101231020164,"sgpoweroffId":null,"subsName":"","lineName":"10kV屏门R182线","pubTranName":"临岐项家村项家公变,","scope":"浙江省-杭州市-淳安县-屏门乡-项家行政村(项家自然村,项家村)","startTime":"2019-10-24 07:30:00","stopDate":"2019-10-24 12:30:00","orgNo":"3340190","typeCode":"计划停电","poweroffArea":"35kV临岐变:屏门R182线-临岐项家村项家公变后段","poweroffReason":"屏门R182线项家台区配变增容变压器更换","powerTime":"2019-10-24 11:54:41","powerComm":"已送电","subsNo":"","lineNo":"","tgNo":"","tgName":null,"infoStatus":"1","orgName":"国网浙江淳安县供电有限公司","typeName":null,"infoStatusName":null,"dateDay":null,"orgNos":null,"nowTime":null,"countyName":null,"streetName":null,"villageName":null,"roadName":null,"communityName":null,"tranName":null,"sdLineName":null,"cityCode":"3340190","cityName":"国网浙江淳安县供电有限公司","provinceCode":null,"stopTime":"2019-10-24 12:30:00","powerType":"全部","powerOffArea":"35kV临岐变:屏门R182线-临岐项家村项家公变后段","powerOffReason":"屏门R182线项家台区配变增容变压器更换","powerOffId":"2019101231020164"},{"poweroffId":2019101231020162,"sgpoweroffId":null,"subsName":"","lineName":"10kV夏中R18A线","pubTranName":"临岐梅口村上钟头公变,","scope":"浙江省-杭州市-淳安县-临岐镇-梅口行政村(钟头自然村,梅口自然村)","startTime":"2019-10-25 07:30:00","stopDate":"2019-10-25 11:30:00","orgNo":"3340190","typeCode":"计划停电","poweroffArea":"35kV临岐变:夏中R18A线-临岐梅口村上钟头公变后段","poweroffReason":"夏中R18A线上钟头台区配变增容变压器更换","powerTime":"2019-10-25 10:30:46","powerComm":"现场工作已完成","subsNo":"","lineNo":"","tgNo":"","tgName":null,"infoStatus":"1","orgName":"国网浙江淳安县供电有限公司","typeName":null,"infoStatusName":null,"dateDay":null,"orgNos":null,"nowTime":null,"countyName":null,"streetName":null,"villageName":null,"roadName":null,"communityName":null,"tranName":null,"sdLineName":null,"cityCode":"3340190","cityName":"国网浙江淳安县供电有限公司","provinceCode":null,"stopTime":"2019-10-25 11:30:00","powerType":"全部","powerOffArea":"35kV临岐变:夏中R18A线-临岐梅口村上钟头公变后段","powerOffReason":"夏中R18A线上钟头台区配变增容变压器更换","powerOffId":"2019101231020162"}],"pageModel":{"pageNow":1021,"totalCount":17789,"totalPage":1779,"tableRows":0,"pageCount":10,"beginCount":10200},"isExperi":"1"}