{"message":"","today":"2020-06-16","seleList":[{"poweroffId":2019101231020128,"sgpoweroffId":null,"subsName":"","lineName":"10kV双林D786线","pubTranName":"真佳溪村1#后溪桥头公变,","scope":"浙江省-杭州市-富阳区-场口镇-真佳溪行政村(红溪自然村,后溪自然村)一带","startTime":"2019-10-24 08:40:00","stopDate":"2019-10-24 16:10:00","orgNo":"3340170","typeCode":"计划停电","poweroffArea":"110kV王洲变:双林D786线-真佳溪村1#后溪桥头公变低压出线后段","poweroffReason":"(低压停电信息)吊车立杆、挖机配合施工（挖洞）安装横担、线路割接杆上搭接等工作","powerTime":"2019-10-24 15:55:44","powerComm":"已送电","subsNo":"","lineNo":"","tgNo":"","tgName":null,"infoStatus":"1","orgName":"国网浙江杭州市富阳区供电公司","typeName":null,"infoStatusName":null,"dateDay":null,"orgNos":null,"nowTime":null,"countyName":null,"streetName":null,"villageName":null,"roadName":null,"communityName":null,"tranName":null,"sdLineName":null,"cityCode":"3340170","cityName":"国网浙江杭州市富阳区供电公司","provinceCode":null,"stopTime":"2019-10-24 16:10:00","powerType":"全部","powerOffArea":"110kV王洲变:双林D786线-真佳溪村1#后溪桥头公变低压出线后段","powerOffReason":"(低压停电信息)吊车立杆、挖机配合施工（挖洞）安装横担、线路割接杆上搭接等工作","powerOffId":"2019101231020128"},{"poweroffId":2019101231020127,"sgpoweroffId":null,"subsName":"","lineName":"10kV浮桥T116线","pubTranName":"桐庐梦芳奇工艺针织厂,桐庐富春美术印刷有限公司,杭州春江阀门有限公司,范华永,桐庐县水政监察大队,杭州市桐江职业技术学校,桐庐县道路运输管理处,","scope":"浙江省-杭州市-桐庐县-桐君街道-桥北居委会-桐庐富春美术印刷有限公司,桐君街道-浮桥埠行政村(杭州春江阀门有限公司,桐庐梦芳奇工艺针织厂,桐庐县道路运输管理处),桐君街道-洋塘社区(桐庐县水政监察大队,范华永)","startTime":"2019-10-17 07:00:00","stopDate":"2019-10-17 12:00:00","orgNo":"3340150","typeCode":"临时停电","poweroffArea":"110kV桐庐变:浮桥T116线-梦芳奇工艺针织厂后段","poweroffReason":"杭州桐庐桐君金鑫T114线等线路改造工程 原停电结束时间为2019-10-17 11:00:00,因现场工作安排原因,现变更停电结束时间为2019-10-17 12:00:00","powerTime":"2019-10-17 11:50:54","powerComm":"已送电","subsNo":"","lineNo":"","tgNo":"","tgName":null,"infoStatus":"1","orgName":"国网浙江桐庐县供电公司","typeName":null,"infoStatusName":null,"dateDay":null,"orgNos":null,"nowTime":null,"countyName":null,"streetName":null,"villageName":null,"roadName":null,"communityName":null,"tranName":null,"sdLineName":null,"cityCode":"3340150","cityName":"国网浙江桐庐县供电公司","provinceCode":null,"stopTime":"2019-10-17 12:00:00","powerType":"全部","powerOffArea":"110kV桐庐变:浮桥T116线-梦芳奇工艺针织厂后段","powerOffReason":"杭州桐庐桐君金鑫T114线等线路改造工程 原停电结束时间为2019-10-17 11:00:00,因现场工作安排原因,现变更停电结束时间为2019-10-17 12:00:00","powerOffId":"2019101231020127"},{"poweroffId":2019101231020126,"sgpoweroffId":null,"subsName":"","lineName":"10kV交通D364线","pubTranName":"秋丰村49号湖南山公变,","scope":"浙江省-杭州市-富阳区-富春街道-秋丰行政村-秋丰自然村","startTime":"2019-10-23 07:10:00","stopDate":"2019-10-23 16:50:00","orgNo":"3340170","typeCode":"计划停电","poweroffArea":"110kV富鹿变:交通D364线-秋丰村49号湖南山后段","poweroffReason":"(低压停电信息)青云2019年东山村4#桥头公变等低压台区改造工程更换落户线25处，搭接等工作","powerTime":"2019-10-23 16:21:02","powerComm":"已送电","subsNo":"","lineNo":"","tgNo":"","tgName":null,"infoStatus":"1","orgName":"国网浙江杭州市富阳区供电公司","typeName":null,"infoStatusName":null,"dateDay":null,"orgNos":null,"nowTime":null,"countyName":null,"streetName":null,"villageName":null,"roadName":null,"communityName":null,"tranName":null,"sdLineName":null,"cityCode":"3340170","cityName":"国网浙江杭州市富阳区供电公司","provinceCode":null,"stopTime":"2019-10-23 16:50:00","powerType":"全部","powerOffArea":"110kV富鹿变:交通D364线-秋丰村49号湖南山后段","powerOffReason":"(低压停电信息)青云2019年东山村4#桥头公变等低压台区改造工程更换落户线25处，搭接等工作","powerOffId":"2019101231020126"},{"poweroffId":2019101231020123,"sgpoweroffId":null,"subsName":"","lineName":"10kV洋绛D782线","pubTranName":"联群村5号金家公变,","scope":"浙江省杭州市富阳区场口镇联群行政村金家自然村一带","startTime":"2019-10-23 08:40:00","stopDate":"2019-10-23 16:40:00","orgNo":"3340170","typeCode":"计划停电","poweroffArea":"110kV王洲变:洋绛D782线-联群村5#金家公变低压出线后段","poweroffReason":"(低压停电信息)吊车立杆、挖机配合施工（挖洞）安装横担、做拉线、架线等工作","powerTime":"2019-10-23 16:19:59","powerComm":"已送电","subsNo":"","lineNo":"","tgNo":"","tgName":null,"infoStatus":"1","orgName":"国网浙江杭州市富阳区供电公司","typeName":null,"infoStatusName":null,"dateDay":null,"orgNos":null,"nowTime":null,"countyName":null,"streetName":null,"villageName":null,"roadName":null,"communityName":null,"tranName":null,"sdLineName":null,"cityCode":"3340170","cityName":"国网浙江杭州市富阳区供电公司","provinceCode":null,"stopTime":"2019-10-23 16:40:00","powerType":"全部","powerOffArea":"110kV王洲变:洋绛D782线-联群村5#金家公变低压出线后段","powerOffReason":"(低压停电信息)吊车立杆、挖机配合施工（挖洞）安装横担、做拉线、架线等工作","powerOffId":"2019101231020123"},{"poweroffId":2019101231020119,"sgpoweroffId":null,"subsName":"","lineName":"10kV春建D202线","pubTranName":"西邮村1#村委旁公变,","scope":"浙江省-杭州市-富阳区-富春街道-西邮行政村-西邮自然村","startTime":"2019-10-22 08:20:00","stopDate":"2019-10-22 17:20:00","orgNo":"3340170","typeCode":"计划停电","poweroffArea":"35kV大青变:春建D202线-西邮村1#村委旁公变后段","poweroffReason":"(低压停电信息)青云2019年铁坎村5#横坞公变等低压台区改造工程进户线搭接20处+进表，架线等工作","powerTime":"2019-10-22 17:05:16","powerComm":"已送电","subsNo":"","lineNo":"","tgNo":"","tgName":null,"infoStatus":"1","orgName":"国网浙江杭州市富阳区供电公司","typeName":null,"infoStatusName":null,"dateDay":null,"orgNos":null,"nowTime":null,"countyName":null,"streetName":null,"villageName":null,"roadName":null,"communityName":null,"tranName":null,"sdLineName":null,"cityCode":"3340170","cityName":"国网浙江杭州市富阳区供电公司","provinceCode":null,"stopTime":"2019-10-22 17:20:00","powerType":"全部","powerOffArea":"35kV大青变:春建D202线-西邮村1#村委旁公变后段","powerOffReason":"(低压停电信息)青云2019年铁坎村5#横坞公变等低压台区改造工程进户线搭接20处+进表，架线等工作","powerOffId":"2019101231020119"},{"poweroffId":2019101231020118,"sgpoweroffId":null,"subsName":"","lineName":"10kV场口D504线","pubTranName":"真佳溪村11#化竹村口公变,","scope":"浙江省杭州市富阳区场口镇真佳溪行政村化竹自然村一带","startTime":"2019-10-22 08:40:00","stopDate":"2019-10-22 14:10:00","orgNo":"3340170","typeCode":"计划停电","poweroffArea":"110kV常安变:场口D504线-真佳溪村11#化竹村口公变低压出线后段","poweroffReason":"(低压停电信息)更换接户线、接户线搭接等工作","powerTime":"2019-10-22 13:55:17","powerComm":"已送电","subsNo":"","lineNo":"","tgNo":"","tgName":null,"infoStatus":"1","orgName":"国网浙江杭州市富阳区供电公司","typeName":null,"infoStatusName":null,"dateDay":null,"orgNos":null,"nowTime":null,"countyName":null,"streetName":null,"villageName":null,"roadName":null,"communityName":null,"tranName":null,"sdLineName":null,"cityCode":"3340170","cityName":"国网浙江杭州市富阳区供电公司","provinceCode":null,"stopTime":"2019-10-22 14:10:00","powerType":"全部","powerOffArea":"110kV常安变:场口D504线-真佳溪村11#化竹村口公变低压出线后段","powerOffReason":"(低压停电信息)更换接户线、接户线搭接等工作","powerOffId":"2019101231020118"},{"poweroffId":2019101231020117,"sgpoweroffId":null,"subsName":"","lineName":"10kV庙湾H289线","pubTranName":"永乐村唐家桥公变,永乐村竹园蓬公变,永乐村西蔡庙公变,","scope":"浙江省-杭州市-余杭区-仓前街道-永乐行政村(永乐自然村,唐家桥自然村,西蔡庙自然村,王家桥自然村,张家田畈自然村,通义桥自然村)","startTime":"2019-10-12 09:20:00","stopDate":"2019-10-12 18:01:00","orgNo":"3340140","typeCode":"电网故障停限电","poweroffArea":"110kV柏庙变:庙湾H289线西蔡庙东分线开关后段","poweroffReason":"高压开关跳闸","powerTime":"2019-10-12 17:10:32","powerComm":"已送电","subsNo":"","lineNo":"","tgNo":"","tgName":null,"infoStatus":"1","orgName":"国网浙江杭州市余杭区供电有限公司","typeName":null,"infoStatusName":null,"dateDay":null,"orgNos":null,"nowTime":null,"countyName":null,"streetName":null,"villageName":null,"roadName":null,"communityName":null,"tranName":null,"sdLineName":null,"cityCode":"3340140","cityName":"国网浙江杭州市余杭区供电有限公司","provinceCode":null,"stopTime":"2019-10-12 18:01:00","powerType":"全部","powerOffArea":"110kV柏庙变:庙湾H289线西蔡庙东分线开关后段","powerOffReason":"高压开关跳闸","powerOffId":"2019101231020117"},{"poweroffId":2019101231020112,"sgpoweroffId":null,"subsName":"","lineName":"10kV春建D202线","pubTranName":"西邮村1#村委旁公变,","scope":"浙江省-杭州市-富阳区-富春街道-西邮行政村-西邮自然村","startTime":"2019-10-21 08:20:00","stopDate":"2019-10-21 17:20:00","orgNo":"3340170","typeCode":"计划停电","poweroffArea":"35kV大青变:春建D202线-西邮村1#村委旁公变后段","poweroffReason":"(低压停电信息)青云2019年铁坎村5#横坞公变等低压台区改造工程进户线搭接20处+进表，架线等工作","powerTime":"2019-10-21 17:05:38","powerComm":"已送电","subsNo":"","lineNo":"","tgNo":"","tgName":null,"infoStatus":"1","orgName":"国网浙江杭州市富阳区供电公司","typeName":null,"infoStatusName":null,"dateDay":null,"orgNos":null,"nowTime":null,"countyName":null,"streetName":null,"villageName":null,"roadName":null,"communityName":null,"tranName":null,"sdLineName":null,"cityCode":"3340170","cityName":"国网浙江杭州市富阳区供电公司","provinceCode":null,"stopTime":"2019-10-21 17:20:00","powerType":"全部","powerOffArea":"35kV大青变:春建D202线-西邮村1#村委旁公变后段","powerOffReason":"(低压停电信息)青云2019年铁坎村5#横坞公变等低压台区改造工程进户线搭接20处+进表，架线等工作","powerOffId":"2019101231020112"},{"poweroffId":2019101231020110,"sgpoweroffId":null,"subsName":"","lineName":"10kV龙门D787线","pubTranName":"龙门一村2号龙五龙兴桥公变,龙门一村7号四边山公变,","scope":"浙江省-杭州市-富阳区-龙门镇-龙门七村行政村-菜场自然村,龙门镇-龙门一村行政村(四边山自然村,龙兴桥自然村)一带","startTime":"2019-10-21 08:40:00","stopDate":"2019-10-21 17:20:00","orgNo":"3340170","typeCode":"计划停电","poweroffArea":"110kV王洲变:龙门D787线-龙门一村2号龙五龙兴桥公变后段;龙门D787线-龙门一村7号四边山公变后段","poweroffReason":"(低压停电信息)龙门一村7#四边山公变安装出线电缆、做拉线、台区割接、杆上搭接等工作；龙门一村2#龙五龙兴桥公变（配合停电）","powerTime":"2019-10-21 17:05:28","powerComm":"已送电","subsNo":"","lineNo":"","tgNo":"","tgName":null,"infoStatus":"1","orgName":"国网浙江杭州市富阳区供电公司","typeName":null,"infoStatusName":null,"dateDay":null,"orgNos":null,"nowTime":null,"countyName":null,"streetName":null,"villageName":null,"roadName":null,"communityName":null,"tranName":null,"sdLineName":null,"cityCode":"3340170","cityName":"国网浙江杭州市富阳区供电公司","provinceCode":null,"stopTime":"2019-10-21 17:20:00","powerType":"全部","powerOffArea":"110kV王洲变:龙门D787线-龙门一村2号龙五龙兴桥公变后段;龙门D787线-龙门一村7号四边山公变后段","powerOffReason":"(低压停电信息)龙门一村7#四边山公变安装出线电缆、做拉线、台区割接、杆上搭接等工作；龙门一村2#龙五龙兴桥公变（配合停电）","powerOffId":"2019101231020110"},{"poweroffId":2019101231020109,"sgpoweroffId":null,"subsName":"","lineName":"10kV下干D385线","pubTranName":"新绿村7#花园塘公变,","scope":"浙江省杭州市富阳区湖源乡新绿村一带","startTime":"2019-10-21 08:50:00","stopDate":"2019-10-21 16:10:00","orgNo":"3340170","typeCode":"计划停电","poweroffArea":"35kV湖源变:下干D385线-新绿村7#花园塘公变低压开关后段","poweroffReason":"(低压停电信息)人工挖洞、立杆、吊车立杆、拆装横担、接户线改接等工作","powerTime":"2019-10-21 15:55:13","powerComm":"已送电","subsNo":"","lineNo":"","tgNo":"","tgName":null,"infoStatus":"1","orgName":"国网浙江杭州市富阳区供电公司","typeName":null,"infoStatusName":null,"dateDay":null,"orgNos":null,"nowTime":null,"countyName":null,"streetName":null,"villageName":null,"roadName":null,"communityName":null,"tranName":null,"sdLineName":null,"cityCode":"3340170","cityName":"国网浙江杭州市富阳区供电公司","provinceCode":null,"stopTime":"2019-10-21 16:10:00","powerType":"全部","powerOffArea":"35kV湖源变:下干D385线-新绿村7#花园塘公变低压开关后段","powerOffReason":"(低压停电信息)人工挖洞、立杆、吊车立杆、拆装横担、接户线改接等工作","powerOffId":"2019101231020109"}],"pageModel":{"pageNow":1023,"totalCount":17789,"totalPage":1779,"tableRows":0,"pageCount":10,"beginCount":10220},"isExperi":"1"}