{"message":"","today":"2020-06-16","seleList":[{"poweroffId":2019101131020425,"sgpoweroffId":null,"subsName":"","lineName":"10kV柴埠T557线","pubTranName":"滩头8号公变,","scope":"浙江省-杭州市-桐庐县-城南街道-滩头行政村-滩头自然村","startTime":"2019-10-21 07:30:00","stopDate":"2019-10-21 12:30:00","orgNo":"3340150","typeCode":"计划停电","poweroffArea":"110kV旺家变:柴埠T557线-滩头F0873开关后段","poweroffReason":"滩头8号公变换箱变","powerTime":"2019-10-21 12:20:23","powerComm":"已送电","subsNo":"","lineNo":"","tgNo":"","tgName":null,"infoStatus":"1","orgName":"国网浙江桐庐县供电公司","typeName":null,"infoStatusName":null,"dateDay":null,"orgNos":null,"nowTime":null,"countyName":null,"streetName":null,"villageName":null,"roadName":null,"communityName":null,"tranName":null,"sdLineName":null,"cityCode":"3340150","cityName":"国网浙江桐庐县供电公司","provinceCode":null,"stopTime":"2019-10-21 12:30:00","powerType":"全部","powerOffArea":"110kV旺家变:柴埠T557线-滩头F0873开关后段","powerOffReason":"滩头8号公变换箱变","powerOffId":"2019101131020425"},{"poweroffId":2019101131020419,"sgpoweroffId":null,"subsName":"","lineName":"10kV桐浦D844线","pubTranName":"阆坞村汪家1#洪家岭公变,","scope":"浙江省-杭州市-富阳区-渌渚镇-阆坞行政村(汪家洪家岭自然村,汪家自然村)","startTime":"2019-10-11 16:04:05","stopDate":"2019-10-11 17:34:05","orgNo":"3340170","typeCode":"电网故障停限电","poweroffArea":"110kV新桐变:桐浦D844线-阆坞村汪家1#洪家岭公变后段","poweroffReason":"高压开关跳闸","powerTime":"2019-10-11 16:44:01","powerComm":"已送电","subsNo":"","lineNo":"","tgNo":"","tgName":null,"infoStatus":"1","orgName":"国网浙江杭州市富阳区供电公司","typeName":null,"infoStatusName":null,"dateDay":null,"orgNos":null,"nowTime":null,"countyName":null,"streetName":null,"villageName":null,"roadName":null,"communityName":null,"tranName":null,"sdLineName":null,"cityCode":"3340170","cityName":"国网浙江杭州市富阳区供电公司","provinceCode":null,"stopTime":"2019-10-11 17:34:05","powerType":"全部","powerOffArea":"110kV新桐变:桐浦D844线-阆坞村汪家1#洪家岭公变后段","powerOffReason":"高压开关跳闸","powerOffId":"2019101131020419"},{"poweroffId":2019101131020397,"sgpoweroffId":null,"subsName":"","lineName":"10kV灵栖Y174线","pubTranName":"曹源村曹源台区,","scope":"浙江省-杭州市-建德市-航头镇-曹源行政村 尖坞自然村,源口自然村一带用户","startTime":"2019-10-11 15:50:01","stopDate":"2019-10-11 17:00:00","orgNo":"3340180","typeCode":"电网故障停限电","poweroffArea":"110kV航头变:灵栖Y174线-曹源村曹源台区后段","poweroffReason":"(低压停电信息)低压开关跳闸 原停电结束时间为2019-10-11 18:00:00,为减少客户停电时间,加快工作进度,提前送电,现变更停电结束时间为2019-10-11 17:00:00","powerTime":"2019-10-11 16:19:00","powerComm":"已送电","subsNo":"","lineNo":"","tgNo":"","tgName":null,"infoStatus":"1","orgName":"国网浙江建德市供电有限公司","typeName":null,"infoStatusName":null,"dateDay":null,"orgNos":null,"nowTime":null,"countyName":null,"streetName":null,"villageName":null,"roadName":null,"communityName":null,"tranName":null,"sdLineName":null,"cityCode":"3340180","cityName":"国网浙江建德市供电有限公司","provinceCode":null,"stopTime":"2019-10-11 17:00:00","powerType":"全部","powerOffArea":"110kV航头变:灵栖Y174线-曹源村曹源台区后段","powerOffReason":"(低压停电信息)低压开关跳闸 原停电结束时间为2019-10-11 18:00:00,为减少客户停电时间,加快工作进度,提前送电,现变更停电结束时间为2019-10-11 17:00:00","powerOffId":"2019101131020397"},{"poweroffId":2019101131020396,"sgpoweroffId":null,"subsName":"","lineName":"10kV恩化C899线","pubTranName":"恩希爱(杭州)化工有限公司5#,恩希爱(杭州)化工有限公司6#,恩希爱(杭州)化工有限公司4#,恩希爱(杭州)化工有限公司7,恩希爱(杭州)化工有限公司3#,恩希爱(杭州)化工有限公司1#,恩希爱(杭州)化工有限公司8#,恩希爱(杭州)化工有限公司2#,","scope":"浙江省-杭州市-萧山区-宁围镇-宁围街道-经济技术开发区-钱江社区-恩希爱(杭州)薄膜有限公司等一带","startTime":"2019-10-11 15:44:57","stopDate":"2019-10-11 19:44:53","orgNo":"3340130","typeCode":"电网故障停限电","poweroffArea":"110kV鸿达变:恩化C899线-恩化C899线开关后段","poweroffReason":"高压柱上断路器短路故障 原停电结束时间：2019-10-11 17:44:57，变更停电结束时间：2019-10-11 19:44:53，抢修工作尚未完成，仍需抢修","powerTime":"2019-10-11 18:56:05","powerComm":"已送电","subsNo":"","lineNo":"","tgNo":"","tgName":null,"infoStatus":"1","orgName":"国网浙江杭州市萧山区供电有限公司","typeName":null,"infoStatusName":null,"dateDay":null,"orgNos":null,"nowTime":null,"countyName":null,"streetName":null,"villageName":null,"roadName":null,"communityName":null,"tranName":null,"sdLineName":null,"cityCode":"3340130","cityName":"国网浙江杭州市萧山区供电有限公司","provinceCode":null,"stopTime":"2019-10-11 19:44:53","powerType":"全部","powerOffArea":"110kV鸿达变:恩化C899线-恩化C899线开关后段","powerOffReason":"高压柱上断路器短路故障 原停电结束时间：2019-10-11 17:44:57，变更停电结束时间：2019-10-11 19:44:53，抢修工作尚未完成，仍需抢修","powerOffId":"2019101131020396"},{"poweroffId":2019101131020393,"sgpoweroffId":null,"subsName":"","lineName":"10kV梅蓉T102线","pubTranName":"桐庐县市政园林建设管理处,桐庐桐郡置业有限公司,","scope":"浙江省-杭州市-桐庐县-桐君街道(君山行政村-桐庐富春供水有限公司,东门社区-桐庐桐郡置业有限公司)","startTime":"2019-10-17 07:00:00","stopDate":"2019-10-17 21:05:00","orgNo":"3340150","typeCode":"临时停电","poweroffArea":"110kV桐庐变:梅蓉T102线首端，桐郡F3332开关，大通水电之间","poweroffReason":"杭州桐庐桐君金鑫T114线等线路改造工程 原停电结束时间为2019-10-17 14:00:00,因操作设备原因,现变更停电结束时间为2019-10-17 21:05:00","powerTime":"2019-10-17 20:41:07","powerComm":"已送电","subsNo":"","lineNo":"","tgNo":"","tgName":null,"infoStatus":"1","orgName":"国网浙江桐庐县供电公司","typeName":null,"infoStatusName":null,"dateDay":null,"orgNos":null,"nowTime":null,"countyName":null,"streetName":null,"villageName":null,"roadName":null,"communityName":null,"tranName":null,"sdLineName":null,"cityCode":"3340150","cityName":"国网浙江桐庐县供电公司","provinceCode":null,"stopTime":"2019-10-17 21:05:00","powerType":"全部","powerOffArea":"110kV桐庐变:梅蓉T102线首端，桐郡F3332开关，大通水电之间","powerOffReason":"杭州桐庐桐君金鑫T114线等线路改造工程 原停电结束时间为2019-10-17 14:00:00,因操作设备原因,现变更停电结束时间为2019-10-17 21:05:00","powerOffId":"2019101131020393"},{"poweroffId":2019101131020328,"sgpoweroffId":null,"subsName":"","lineName":"10kV浮桥T116线","pubTranName":"通用厂宿舍1号公变,","scope":"浙江省-杭州市-桐庐县-桐君街道-通用厂宿舍一带","startTime":"2019-10-16 08:20:00","stopDate":"2019-10-16 16:20:00","orgNo":"3340150","typeCode":"临时停电","poweroffArea":"110kV桐庐变:浮桥T116线-通用厂宿舍1号公变10kV跌落式熔断器后段","poweroffReason":"桐庐桐君麻蓬村等台区配变及低压线路改造工程","powerTime":"2019-10-16 16:10:13","powerComm":"已送电","subsNo":"","lineNo":"","tgNo":"","tgName":null,"infoStatus":"1","orgName":"国网浙江桐庐县供电公司","typeName":null,"infoStatusName":null,"dateDay":null,"orgNos":null,"nowTime":null,"countyName":null,"streetName":null,"villageName":null,"roadName":null,"communityName":null,"tranName":null,"sdLineName":null,"cityCode":"3340150","cityName":"国网浙江桐庐县供电公司","provinceCode":null,"stopTime":"2019-10-16 16:20:00","powerType":"全部","powerOffArea":"110kV桐庐变:浮桥T116线-通用厂宿舍1号公变10kV跌落式熔断器后段","powerOffReason":"桐庐桐君麻蓬村等台区配变及低压线路改造工程","powerOffId":"2019101131020328"},{"poweroffId":2019101131020316,"sgpoweroffId":null,"subsName":"","lineName":"10kV越三A006线","pubTranName":"湖头陈花苑5#公变,","scope":"浙江省-杭州市-萧山区-城厢街道-湖头陈社区-萧杭路，湖头陈社区，湖头陈花苑一带","startTime":"2019-10-11 14:28:52","stopDate":"2019-10-11 23:00:00","orgNo":"3340130","typeCode":"电网故障停限电","poweroffArea":"110kV越王变:越三A006线-湖头陈花苑5#公变开关后段","poweroffReason":"高压开关跳闸 原停电结束时间：2019-10-11 20:30:00，变更停电结束时间：2019-10-11 23:00:00，变更停电结束时间原因：由于抢修工作难度加大，故需要延迟送电。","powerTime":"2019-10-11 22:01:40","powerComm":"已送电","subsNo":"","lineNo":"","tgNo":"","tgName":null,"infoStatus":"1","orgName":"国网浙江杭州市萧山区供电有限公司","typeName":null,"infoStatusName":null,"dateDay":null,"orgNos":null,"nowTime":null,"countyName":null,"streetName":null,"villageName":null,"roadName":null,"communityName":null,"tranName":null,"sdLineName":null,"cityCode":"3340130","cityName":"国网浙江杭州市萧山区供电有限公司","provinceCode":null,"stopTime":"2019-10-11 23:00:00","powerType":"全部","powerOffArea":"110kV越王变:越三A006线-湖头陈花苑5#公变开关后段","powerOffReason":"高压开关跳闸 原停电结束时间：2019-10-11 20:30:00，变更停电结束时间：2019-10-11 23:00:00，变更停电结束时间原因：由于抢修工作难度加大，故需要延迟送电。","powerOffId":"2019101131020316"},{"poweroffId":2019101131020307,"sgpoweroffId":null,"subsName":"","lineName":"10kV展宏C390线","pubTranName":"红山农场一分场4#公变,","scope":"浙江省-杭州市-萧山区-新街镇-新街街道、红山农场、同舟社区、一分场、红山农场、红山农场一分厂等一带","startTime":"2019-10-11 14:14:09","stopDate":"2019-10-11 16:43:09","orgNo":"3340130","typeCode":"电网故障停限电","poweroffArea":"110kV红山变:展宏C390线-红山农场一分场4#公变台区低压开关","poweroffReason":"（低压停电信息）低压漏电保护器短路故障 原停电结束时间：2019-10-11 18:29:09，变更停电结束时间：2019-10-11 16:43:09，由于增派人员，抢修工作提前完成，故需要提前送电。","powerTime":"2019-10-11 15:55:23","powerComm":"已送电","subsNo":"","lineNo":"","tgNo":"","tgName":null,"infoStatus":"1","orgName":"国网浙江杭州市萧山区供电有限公司","typeName":null,"infoStatusName":null,"dateDay":null,"orgNos":null,"nowTime":null,"countyName":null,"streetName":null,"villageName":null,"roadName":null,"communityName":null,"tranName":null,"sdLineName":null,"cityCode":"3340130","cityName":"国网浙江杭州市萧山区供电有限公司","provinceCode":null,"stopTime":"2019-10-11 16:43:09","powerType":"全部","powerOffArea":"110kV红山变:展宏C390线-红山农场一分场4#公变台区低压开关","powerOffReason":"（低压停电信息）低压漏电保护器短路故障 原停电结束时间：2019-10-11 18:29:09，变更停电结束时间：2019-10-11 16:43:09，由于增派人员，抢修工作提前完成，故需要提前送电。","powerOffId":"2019101131020307"},{"poweroffId":2019101131020300,"sgpoweroffId":null,"subsName":"","lineName":"10kV紫华D963线","pubTranName":"紫云山庄1#公变,","scope":"浙江省-杭州市-富阳区-银湖街道-银湖行政村(紫云山庄,银湖自然村)","startTime":"2019-10-11 14:07:57","stopDate":"2019-10-11 15:07:57","orgNo":"3340170","typeCode":"电网故障停限电","poweroffArea":"110kV九龙变:紫华D963线-紫云山庄1#公变后段","poweroffReason":"(低压停电信息)低压开关跳闸 原停电结束时间为2019-10-11 16:07:57,为减少客户停电时间,加快工作进度,提前送电,现变更停电结束时间为2019-10-11 15:07:57","powerTime":"2019-10-11 14:41:16","powerComm":"已送电","subsNo":"","lineNo":"","tgNo":"","tgName":null,"infoStatus":"1","orgName":"国网浙江杭州市富阳区供电公司","typeName":null,"infoStatusName":null,"dateDay":null,"orgNos":null,"nowTime":null,"countyName":null,"streetName":null,"villageName":null,"roadName":null,"communityName":null,"tranName":null,"sdLineName":null,"cityCode":"3340170","cityName":"国网浙江杭州市富阳区供电公司","provinceCode":null,"stopTime":"2019-10-11 15:07:57","powerType":"全部","powerOffArea":"110kV九龙变:紫华D963线-紫云山庄1#公变后段","powerOffReason":"(低压停电信息)低压开关跳闸 原停电结束时间为2019-10-11 16:07:57,为减少客户停电时间,加快工作进度,提前送电,现变更停电结束时间为2019-10-11 15:07:57","powerOffId":"2019101131020300"},{"poweroffId":2019101131020296,"sgpoweroffId":null,"subsName":"","lineName":"10kV凤凰Y323线","pubTranName":"镇头村胡公山台区,","scope":"浙江省-杭州市-建德市-三都镇-镇头行政村-胡公山自然村一带用户","startTime":"2019-10-11 13:51:00","stopDate":"2019-10-11 16:00:00","orgNo":"3340180","typeCode":"电网故障停限电","poweroffArea":"35kV三都变:凤凰Y323线镇头村胡公山台区令克配变","poweroffReason":"(低压停电信息)低压开关跳闸","powerTime":"2019-10-11 15:11:00","powerComm":"已送电","subsNo":"","lineNo":"","tgNo":"","tgName":null,"infoStatus":"1","orgName":"国网浙江建德市供电有限公司","typeName":null,"infoStatusName":null,"dateDay":null,"orgNos":null,"nowTime":null,"countyName":null,"streetName":null,"villageName":null,"roadName":null,"communityName":null,"tranName":null,"sdLineName":null,"cityCode":"3340180","cityName":"国网浙江建德市供电有限公司","provinceCode":null,"stopTime":"2019-10-11 16:00:00","powerType":"全部","powerOffArea":"35kV三都变:凤凰Y323线镇头村胡公山台区令克配变","powerOffReason":"(低压停电信息)低压开关跳闸","powerOffId":"2019101131020296"}],"pageModel":{"pageNow":1026,"totalCount":17789,"totalPage":1779,"tableRows":0,"pageCount":10,"beginCount":10250},"isExperi":"1"}