{"message":"","today":"2020-06-16","seleList":[{"poweroffId":2019101131020261,"sgpoweroffId":null,"subsName":"","lineName":"20kV扬帆B244线","pubTranName":"世纪之光4#公变,","scope":"浙江省-杭州市-萧山区-宁围镇-宁围街道-丰二行政村-文明路、世纪之光小区、钱江之光名城小区等一带","startTime":"2019-10-11 13:01:23","stopDate":"2019-10-11 14:29:20","orgNo":"3340130","typeCode":"电网故障停限电","poweroffArea":"110kV奥体变:扬帆B244线-世纪之光4#公变台区低压开关","poweroffReason":"（低压停电信息）低压漏电保护器短路故障 原停电结束时间：2019-10-11 17:57:23，变更停电结束时间： 2019-10-11 14:29:20，由于增派人员，抢修工作提前完成，故需要提前送电。","powerTime":"2019-10-11 13:45:09","powerComm":"已送电","subsNo":"","lineNo":"","tgNo":"","tgName":null,"infoStatus":"1","orgName":"国网浙江杭州市萧山区供电有限公司","typeName":null,"infoStatusName":null,"dateDay":null,"orgNos":null,"nowTime":null,"countyName":null,"streetName":null,"villageName":null,"roadName":null,"communityName":null,"tranName":null,"sdLineName":null,"cityCode":"3340130","cityName":"国网浙江杭州市萧山区供电有限公司","provinceCode":null,"stopTime":"2019-10-11 14:29:20","powerType":"全部","powerOffArea":"110kV奥体变:扬帆B244线-世纪之光4#公变台区低压开关","powerOffReason":"（低压停电信息）低压漏电保护器短路故障 原停电结束时间：2019-10-11 17:57:23，变更停电结束时间： 2019-10-11 14:29:20，由于增派人员，抢修工作提前完成，故需要提前送电。","powerOffId":"2019101131020261"},{"poweroffId":2019101131020260,"sgpoweroffId":null,"subsName":"","lineName":"10kV宇城9228线","pubTranName":"塘苑(六),","scope":"浙江省杭州市江干区丁桥大唐苑11-12,15-16幢附近","startTime":"2019-10-23 09:40:00","stopDate":"2019-10-23 14:30:00","orgNo":"3340101","typeCode":"计划停电","poweroffArea":"110kV东风变:宇城9228线-塘苑（六）变高压总开关（无低压总开）","poweroffReason":"大唐苑小区西北公共停车位表计新装 原停电结束时间为2019-10-23 17:30:00,为减少客户停电时间,加快工作进度,提前送电,现变更停电结束时间为2019-10-23 14:30:00","powerTime":"2019-10-23 13:51:59","powerComm":"已送电","subsNo":"","lineNo":"","tgNo":"","tgName":null,"infoStatus":"1","orgName":"浙江杭州电力客户服务中心","typeName":null,"infoStatusName":null,"dateDay":null,"orgNos":null,"nowTime":null,"countyName":null,"streetName":null,"villageName":null,"roadName":null,"communityName":null,"tranName":null,"sdLineName":null,"cityCode":"3340101","cityName":"浙江杭州电力客户服务中心","provinceCode":null,"stopTime":"2019-10-23 14:30:00","powerType":"全部","powerOffArea":"110kV东风变:宇城9228线-塘苑（六）变高压总开关（无低压总开）","powerOffReason":"大唐苑小区西北公共停车位表计新装 原停电结束时间为2019-10-23 17:30:00,为减少客户停电时间,加快工作进度,提前送电,现变更停电结束时间为2019-10-23 14:30:00","powerOffId":"2019101131020260"},{"poweroffId":2019101131020247,"sgpoweroffId":null,"subsName":"","lineName":"10kV百岁T168线","pubTranName":"舒家村洪武山2号公变,毕浦乡林场,舒家村外陈家3号公变,舒家村仲霞1号公变,舒家村钓坞口5号公变,舒家村里陈家4号公变,舒家里舒家6号公变,桐庐舒家竹笋专业合作社,","scope":"浙江省-杭州市-桐庐县-瑶琳镇-舒家行政村-回里;瑶琳镇(文源行政村-毕浦乡林场,舒家行政村-桐庐舒家竹笋专业合作社)","startTime":"2019-10-23 07:30:00","stopDate":"2019-10-23 16:30:00","orgNo":"3340150","typeCode":"计划停电","poweroffArea":"35kV瑶琳变:百岁T168线-舒家F6068开关后段","poweroffReason":"工程施工","powerTime":"2019-10-23 16:20:37","powerComm":"已送电","subsNo":"","lineNo":"","tgNo":"","tgName":null,"infoStatus":"1","orgName":"国网浙江桐庐县供电公司","typeName":null,"infoStatusName":null,"dateDay":null,"orgNos":null,"nowTime":null,"countyName":null,"streetName":null,"villageName":null,"roadName":null,"communityName":null,"tranName":null,"sdLineName":null,"cityCode":"3340150","cityName":"国网浙江桐庐县供电公司","provinceCode":null,"stopTime":"2019-10-23 16:30:00","powerType":"全部","powerOffArea":"35kV瑶琳变:百岁T168线-舒家F6068开关后段","powerOffReason":"工程施工","powerOffId":"2019101131020247"},{"poweroffId":2019101131020246,"sgpoweroffId":null,"subsName":"","lineName":"10kV盐场A289线","pubTranName":"南沙村春风6#变,","scope":"浙江省-杭州市-萧山区义蓬街道南沙行政村、义蓬街道南沙行政村、南沙自然村、新湾街道、创新行政村、创新自然村、头蓬街道头蓬社区、春风村、盐场村、南沙村春风村、南沙村盐场、仓北村、创新村一带","startTime":"2019-10-11 12:05:41","stopDate":"2019-10-11 17:55:41","orgNo":"3340120","typeCode":"电网故障停限电","poweroffArea":"110kV建湾变:盐场A289线-南沙村春风6#变台区低压开关","poweroffReason":"(低压停电信息)低压开关跳闸","powerTime":"2019-10-11 17:01:50","powerComm":"已送电","subsNo":"","lineNo":"","tgNo":"","tgName":null,"infoStatus":"1","orgName":"国网浙江杭州市钱塘新区供电公司","typeName":null,"infoStatusName":null,"dateDay":null,"orgNos":null,"nowTime":null,"countyName":null,"streetName":null,"villageName":null,"roadName":null,"communityName":null,"tranName":null,"sdLineName":null,"cityCode":"3340120","cityName":"国网浙江杭州市钱塘新区供电公司","provinceCode":null,"stopTime":"2019-10-11 17:55:41","powerType":"全部","powerOffArea":"110kV建湾变:盐场A289线-南沙村春风6#变台区低压开关","powerOffReason":"(低压停电信息)低压开关跳闸","powerOffId":"2019101131020246"},{"poweroffId":2019101131020228,"sgpoweroffId":null,"subsName":"","lineName":"10kV胜大D862线","pubTranName":"山建村于丰3号北公变,浙江全至电子科技有限公司1#变-6620244645,富阳市欧利纸制品有限公司,杭州富阳江南新城建设投资集团有限公司,杭州丰达纸业有限公司4#变,杭州丰达纸业有限公司3#变,杭州丰达纸业有限公司2#高压电机,亭山变检修变,杭州丰达纸业有限公司1#高压电机,","scope":"浙江省-杭州市-富阳区-春江街道-山建行政村-裕丰自然村;春江街道-山建行政村(富阳市欧利纸制品有限公司,浙江全至电子科技有限公司,杭州富春湾新城建设投资集团有限公司,杭州丰达纸业有限公司)","startTime":"2019-10-11 13:00:37","stopDate":"2019-10-11 16:00:37","orgNo":"3340170","typeCode":"电网故障停限电","poweroffArea":"110kV华共变:胜大D862线-胜大D862线开关后段","poweroffReason":"高压开关跳闸 原停电结束时间为2019-10-11 17:00:37,为减少客户停电时间,加快工作进度,提前送电,现变更停电结束时间为2019-10-11 16:00:37","powerTime":"2019-10-11 15:16:43","powerComm":"已送电","subsNo":"","lineNo":"","tgNo":"","tgName":null,"infoStatus":"1","orgName":"国网浙江杭州市富阳区供电公司","typeName":null,"infoStatusName":null,"dateDay":null,"orgNos":null,"nowTime":null,"countyName":null,"streetName":null,"villageName":null,"roadName":null,"communityName":null,"tranName":null,"sdLineName":null,"cityCode":"3340170","cityName":"国网浙江杭州市富阳区供电公司","provinceCode":null,"stopTime":"2019-10-11 16:00:37","powerType":"全部","powerOffArea":"110kV华共变:胜大D862线-胜大D862线开关后段","powerOffReason":"高压开关跳闸 原停电结束时间为2019-10-11 17:00:37,为减少客户停电时间,加快工作进度,提前送电,现变更停电结束时间为2019-10-11 16:00:37","powerOffId":"2019101131020228"},{"poweroffId":2019101131020224,"sgpoweroffId":null,"subsName":"","lineName":"10kV蓝天D872线","pubTranName":"山建村于丰1#东公变,富阳丰盛建设有限公司,","scope":"浙江省-杭州市-富阳区-春江街道-山建行政村-裕丰自然村;浙江省-杭州市-富阳区-春江街道-山建行政村-富阳丰盛建设有限公司","startTime":"2019-10-11 13:00:48","stopDate":"2019-10-11 16:00:48","orgNo":"3340170","typeCode":"电网故障停限电","poweroffArea":"110kV华共变:蓝天D872线-蓝天D8721开关后段","poweroffReason":"高压开关跳闸 原停电结束时间为2019-10-11 17:00:48,为减少客户停电时间,加快工作进度,提前送电,现变更停电结束时间为2019-10-11 16:00:48","powerTime":"2019-10-11 15:16:57","powerComm":"已送电","subsNo":"","lineNo":"","tgNo":"","tgName":null,"infoStatus":"1","orgName":"国网浙江杭州市富阳区供电公司","typeName":null,"infoStatusName":null,"dateDay":null,"orgNos":null,"nowTime":null,"countyName":null,"streetName":null,"villageName":null,"roadName":null,"communityName":null,"tranName":null,"sdLineName":null,"cityCode":"3340170","cityName":"国网浙江杭州市富阳区供电公司","provinceCode":null,"stopTime":"2019-10-11 16:00:48","powerType":"全部","powerOffArea":"110kV华共变:蓝天D872线-蓝天D8721开关后段","powerOffReason":"高压开关跳闸 原停电结束时间为2019-10-11 17:00:48,为减少客户停电时间,加快工作进度,提前送电,现变更停电结束时间为2019-10-11 16:00:48","powerOffId":"2019101131020224"},{"poweroffId":2019101131020207,"sgpoweroffId":null,"subsName":"","lineName":"10kV锻造C334线","pubTranName":"沿塘村10#变,","scope":"浙江省-杭州市-萧山区-瓜沥镇-沿塘行政村(国新路,沿塘自然村,高塘路)","startTime":"2019-10-19 08:00:00","stopDate":"2019-10-19 16:00:00","orgNo":"3340130","typeCode":"计划停电","poweroffArea":"110kV沿塘变:锻造C334线-沿塘村10#变后段","poweroffReason":"浙江省杭州市萧山区瓜沥镇沿塘村11组，2组一带","powerTime":"2019-10-19 15:44:26","powerComm":"已送电","subsNo":"","lineNo":"","tgNo":"","tgName":null,"infoStatus":"1","orgName":"国网浙江杭州市萧山区供电有限公司","typeName":null,"infoStatusName":null,"dateDay":null,"orgNos":null,"nowTime":null,"countyName":null,"streetName":null,"villageName":null,"roadName":null,"communityName":null,"tranName":null,"sdLineName":null,"cityCode":"3340130","cityName":"国网浙江杭州市萧山区供电有限公司","provinceCode":null,"stopTime":"2019-10-19 16:00:00","powerType":"全部","powerOffArea":"110kV沿塘变:锻造C334线-沿塘村10#变后段","powerOffReason":"浙江省杭州市萧山区瓜沥镇沿塘村11组，2组一带","powerOffId":"2019101131020207"},{"poweroffId":2019101131020201,"sgpoweroffId":null,"subsName":"","lineName":"10kV蓝天D872线","pubTranName":"山建村于丰1#东公变,","scope":"浙江省-杭州市-富阳区-春江街道-山建行政村-裕丰自然村","startTime":"2019-10-11 10:43:39","stopDate":"2019-10-11 12:43:39","orgNo":"3340170","typeCode":"电网故障停限电","poweroffArea":"110kV华共变:蓝天D872线-山建村于丰1#东公变后段","poweroffReason":"高压开关跳闸","powerTime":"2019-10-11 12:12:24","powerComm":"已送电","subsNo":"","lineNo":"","tgNo":"","tgName":null,"infoStatus":"1","orgName":"国网浙江杭州市富阳区供电公司","typeName":null,"infoStatusName":null,"dateDay":null,"orgNos":null,"nowTime":null,"countyName":null,"streetName":null,"villageName":null,"roadName":null,"communityName":null,"tranName":null,"sdLineName":null,"cityCode":"3340170","cityName":"国网浙江杭州市富阳区供电公司","provinceCode":null,"stopTime":"2019-10-11 12:43:39","powerType":"全部","powerOffArea":"110kV华共变:蓝天D872线-山建村于丰1#东公变后段","powerOffReason":"高压开关跳闸","powerOffId":"2019101131020201"},{"poweroffId":2019101131020154,"sgpoweroffId":null,"subsName":"","lineName":"10kV江城937线","pubTranName":"始板东村变,始板新村一变,始板新村三变,勇进实验中学,始板新村二变,客运变,中天建设施,始板东村变,始板新村四变,始板二,","scope":"浙江省-杭州市-上城区-望江街道-始版桥社区(始板桥东村,始版桥东村,海潮路),上城区-望江街道-兴隆社区-东宝路;望江街道(中天建设集团有限公司,始版桥社区-杭州市勇进实验学校)","startTime":"2019-10-11 10:07:36","stopDate":"2019-10-11 13:07:36","orgNo":"3340101","typeCode":"电网故障停限电","poweroffArea":"110kV秋涛变:江城937线-秋宝线后段","poweroffReason":"高压开关跳闸 原停电结束时间为2019-10-11 16:07:36,为减少客户停电时间,加快工作进度,提前送电,现变更停电结束时间为2019-10-11 13:07:36","powerTime":"2019-10-11 12:36:38","powerComm":"已送电","subsNo":"","lineNo":"","tgNo":"","tgName":null,"infoStatus":"1","orgName":"浙江杭州电力客户服务中心","typeName":null,"infoStatusName":null,"dateDay":null,"orgNos":null,"nowTime":null,"countyName":null,"streetName":null,"villageName":null,"roadName":null,"communityName":null,"tranName":null,"sdLineName":null,"cityCode":"3340101","cityName":"浙江杭州电力客户服务中心","provinceCode":null,"stopTime":"2019-10-11 13:07:36","powerType":"全部","powerOffArea":"110kV秋涛变:江城937线-秋宝线后段","powerOffReason":"高压开关跳闸 原停电结束时间为2019-10-11 16:07:36,为减少客户停电时间,加快工作进度,提前送电,现变更停电结束时间为2019-10-11 13:07:36","powerOffId":"2019101131020154"},{"poweroffId":2019101131020153,"sgpoweroffId":null,"subsName":"","lineName":"10kV陶春H558线","pubTranName":"求是村陶村桥中村公变,求是村喻家头公变,求是村陶村桥上村公变,","scope":"浙江省-杭州市-余杭区-径山镇-径山行政村-径山自然村,径山镇-求是行政村(求是自然村,陶桥自然村,上自然村,下自然村,下东组自然村)","startTime":"2019-10-11 10:08:00","stopDate":"2019-10-11 13:08:00","orgNo":"3340140","typeCode":"电网故障停限电","poweroffArea":"110kV潘板变:陶春H558线陶村桥上村分线开关后段","poweroffReason":"高压开关跳闸","powerTime":"2019-10-11 12:20:00","powerComm":"已送电","subsNo":"","lineNo":"","tgNo":"","tgName":null,"infoStatus":"1","orgName":"国网浙江杭州市余杭区供电有限公司","typeName":null,"infoStatusName":null,"dateDay":null,"orgNos":null,"nowTime":null,"countyName":null,"streetName":null,"villageName":null,"roadName":null,"communityName":null,"tranName":null,"sdLineName":null,"cityCode":"3340140","cityName":"国网浙江杭州市余杭区供电有限公司","provinceCode":null,"stopTime":"2019-10-11 13:08:00","powerType":"全部","powerOffArea":"110kV潘板变:陶春H558线陶村桥上村分线开关后段","powerOffReason":"高压开关跳闸","powerOffId":"2019101131020153"}],"pageModel":{"pageNow":1027,"totalCount":17789,"totalPage":1779,"tableRows":0,"pageCount":10,"beginCount":10260},"isExperi":"1"}