{"message":"","today":"2020-06-16","seleList":[{"poweroffId":2019101031020254,"sgpoweroffId":null,"subsName":"","lineName":"10kV前河G333线","pubTranName":"奉口村獐南公变,杭州大地海洋环保股份有限公司612084183602#专变,杭州余杭仁和镇石料加工厂,杭州大地海洋环保股份有限公司612084183401#专变,杭州华东家禽交易中心有限公司,","scope":"浙江省杭州市余杭区仁和街道奉口村獐南、杭州华东家禽交易中心有限公司、杭州余杭仁和镇石料加工厂、杭州大地海洋环保股份有限公司一带","startTime":"2019-10-18 08:20:00","stopDate":"2019-10-18 14:20:00","orgNo":"3340140","typeCode":"计划停电","poweroffArea":"110kV洛山变:前河G333线獐湾分线开关16#杆开关后段","poweroffReason":"2019年杭州余杭塘栖10kV周家G292线等分支线消缺工程：獐南分线2#杆后段拆除拆除，奉口村獐南公变割接至青华G340线天猫基建分线工作","powerTime":"2019-10-18 14:08:59","powerComm":"已送电","subsNo":"","lineNo":"","tgNo":"","tgName":null,"infoStatus":"1","orgName":"国网浙江杭州市余杭区供电有限公司","typeName":null,"infoStatusName":null,"dateDay":null,"orgNos":null,"nowTime":null,"countyName":null,"streetName":null,"villageName":null,"roadName":null,"communityName":null,"tranName":null,"sdLineName":null,"cityCode":"3340140","cityName":"国网浙江杭州市余杭区供电有限公司","provinceCode":null,"stopTime":"2019-10-18 14:20:00","powerType":"全部","powerOffArea":"110kV洛山变:前河G333线獐湾分线开关16#杆开关后段","powerOffReason":"2019年杭州余杭塘栖10kV周家G292线等分支线消缺工程：獐南分线2#杆后段拆除拆除，奉口村獐南公变割接至青华G340线天猫基建分线工作","powerOffId":"2019101031020254"},{"poweroffId":2019101031020238,"sgpoweroffId":null,"subsName":"","lineName":"10kV三白G371线","pubTranName":"三白潭村洪介舍2号公变,三白潭村洪介舍公变,","scope":"浙江省-杭州市-余杭区-仁和街道-三白潭行政村(洪介舍自然村,洪家舍自然村,建设桥自然村),仁和街道-东塘行政村(荡田口自然村,马峰头自然村,前庄湾自然村),仁和街道(葛墩行政村-窑湾自然村,新桥行政村-露霞村自然村)","startTime":"2019-10-10 16:11:00","stopDate":"2019-10-10 18:11:00","orgNo":"3340140","typeCode":"电网故障停限电","poweroffArea":"110kV东塘变:三白G371线洪介舍分线开关后段","poweroffReason":"高压开关跳闸","powerTime":"2019-10-10 17:42:44","powerComm":"已送电","subsNo":"","lineNo":"","tgNo":"","tgName":null,"infoStatus":"1","orgName":"国网浙江杭州市余杭区供电有限公司","typeName":null,"infoStatusName":null,"dateDay":null,"orgNos":null,"nowTime":null,"countyName":null,"streetName":null,"villageName":null,"roadName":null,"communityName":null,"tranName":null,"sdLineName":null,"cityCode":"3340140","cityName":"国网浙江杭州市余杭区供电有限公司","provinceCode":null,"stopTime":"2019-10-10 18:11:00","powerType":"全部","powerOffArea":"110kV东塘变:三白G371线洪介舍分线开关后段","powerOffReason":"高压开关跳闸","powerOffId":"2019101031020238"},{"poweroffId":2019101031020217,"sgpoweroffId":null,"subsName":"","lineName":"10kV冠园9541线","pubTranName":"浦冠二,","scope":"浙江省-杭州市-滨江区-浦沿街道-东冠社区-东冠路，浙江省杭州市滨江区东冠新农村50-70号。","startTime":"2019-10-21 10:30:00","stopDate":"2019-10-21 12:00:00","orgNo":"3340101","typeCode":"计划停电","poweroffArea":"110kV冠山变:冠园9541线-浦冠二后段","poweroffReason":"(低压停电信息)非居新装 原停电结束时间为2019-10-21 12:30:00,为减少客户停电时间,加快工作进度,提前送电,现变更停电结束时间为2019-10-21 12:00:00","powerTime":"2019-10-21 11:07:59","powerComm":"已送电","subsNo":"","lineNo":"","tgNo":"","tgName":null,"infoStatus":"1","orgName":"浙江杭州电力客户服务中心","typeName":null,"infoStatusName":null,"dateDay":null,"orgNos":null,"nowTime":null,"countyName":null,"streetName":null,"villageName":null,"roadName":null,"communityName":null,"tranName":null,"sdLineName":null,"cityCode":"3340101","cityName":"浙江杭州电力客户服务中心","provinceCode":null,"stopTime":"2019-10-21 12:00:00","powerType":"全部","powerOffArea":"110kV冠山变:冠园9541线-浦冠二后段","powerOffReason":"(低压停电信息)非居新装 原停电结束时间为2019-10-21 12:30:00,为减少客户停电时间,加快工作进度,提前送电,现变更停电结束时间为2019-10-21 12:00:00","powerOffId":"2019101031020217"},{"poweroffId":2019101031020215,"sgpoweroffId":null,"subsName":"","lineName":"10kV山丁9526线","pubTranName":"大房,","scope":"浙江省-杭州市-滨江区-浦沿街道-新生社区-新生路，浙江省杭州市滨江区东冠社区岩大房过渡房。","startTime":"2019-10-21 09:00:00","stopDate":"2019-10-21 11:00:00","orgNo":"3340101","typeCode":"计划停电","poweroffArea":"110kV冠山变:山丁9526线-大房后段","poweroffReason":"(低压停电信息)非居新装 原停电结束时间为2019-10-21 12:30:00,为减少客户停电时间,加快工作进度,提前送电,现变更停电结束时间为2019-10-21 11:00:00","powerTime":"2019-10-21 10:15:59","powerComm":"已送电","subsNo":"","lineNo":"","tgNo":"","tgName":null,"infoStatus":"1","orgName":"浙江杭州电力客户服务中心","typeName":null,"infoStatusName":null,"dateDay":null,"orgNos":null,"nowTime":null,"countyName":null,"streetName":null,"villageName":null,"roadName":null,"communityName":null,"tranName":null,"sdLineName":null,"cityCode":"3340101","cityName":"浙江杭州电力客户服务中心","provinceCode":null,"stopTime":"2019-10-21 11:00:00","powerType":"全部","powerOffArea":"110kV冠山变:山丁9526线-大房后段","powerOffReason":"(低压停电信息)非居新装 原停电结束时间为2019-10-21 12:30:00,为减少客户停电时间,加快工作进度,提前送电,现变更停电结束时间为2019-10-21 11:00:00","powerOffId":"2019101031020215"},{"poweroffId":2019101031020182,"sgpoweroffId":null,"subsName":"","lineName":"10kV浪石T205线","pubTranName":"大钱畈1号公变,","scope":"浙江省-杭州市-桐庐县-横村镇-元村行政村-大畈自然村","startTime":"2019-10-10 14:37:39","stopDate":"2019-10-10 16:37:39","orgNo":"3340150","typeCode":"电网故障停限电","poweroffArea":"110kV方埠变:浪石T205线-大钱畈1号公变后段","poweroffReason":"(低压停电信息)低压开关跳闸","powerTime":"2019-10-10 16:20:27","powerComm":"已送电","subsNo":"","lineNo":"","tgNo":"","tgName":null,"infoStatus":"1","orgName":"国网浙江桐庐县供电公司","typeName":null,"infoStatusName":null,"dateDay":null,"orgNos":null,"nowTime":null,"countyName":null,"streetName":null,"villageName":null,"roadName":null,"communityName":null,"tranName":null,"sdLineName":null,"cityCode":"3340150","cityName":"国网浙江桐庐县供电公司","provinceCode":null,"stopTime":"2019-10-10 16:37:39","powerType":"全部","powerOffArea":"110kV方埠变:浪石T205线-大钱畈1号公变后段","powerOffReason":"(低压停电信息)低压开关跳闸","powerOffId":"2019101031020182"},{"poweroffId":2019101031020160,"sgpoweroffId":null,"subsName":"","lineName":"10kV张房G090线","pubTranName":"星桥7组2号公变,","scope":"浙江省-杭州市-余杭区-星桥街道-星桥社区(星桥自然村,五云中路,星桥,星桥五云中路)","startTime":"2019-10-10 13:49:00","stopDate":"2019-10-10 15:45:00","orgNo":"3340140","typeCode":"电网故障停限电","poweroffArea":"110kV星桥变:张房G090线-星桥7组2号公变后段","poweroffReason":"高压开关跳闸","powerTime":"2019-10-10 15:03:00","powerComm":"已送电","subsNo":"","lineNo":"","tgNo":"","tgName":null,"infoStatus":"1","orgName":"国网浙江杭州市余杭区供电有限公司","typeName":null,"infoStatusName":null,"dateDay":null,"orgNos":null,"nowTime":null,"countyName":null,"streetName":null,"villageName":null,"roadName":null,"communityName":null,"tranName":null,"sdLineName":null,"cityCode":"3340140","cityName":"国网浙江杭州市余杭区供电有限公司","provinceCode":null,"stopTime":"2019-10-10 15:45:00","powerType":"全部","powerOffArea":"110kV星桥变:张房G090线-星桥7组2号公变后段","powerOffReason":"高压开关跳闸","powerOffId":"2019101031020160"},{"poweroffId":2019101031020157,"sgpoweroffId":null,"subsName":"","lineName":"10kV林峰A393线","pubTranName":"盈二村5#变,","scope":"浙江省-杭州市-萧山区-宁围街道-盈二行政村-盈二自然村","startTime":"2019-10-18 08:35:00","stopDate":"2019-10-18 14:30:00","orgNo":"3340130","typeCode":"计划停电","poweroffArea":"110kV顺坝变:林峰A393线-林峰A3932开关后段","poweroffReason":"林峰线81#杆分支割接至永磁线，97#杆新装环网开关","powerTime":"2019-10-18 14:01:22","powerComm":"已送电","subsNo":"","lineNo":"","tgNo":"","tgName":null,"infoStatus":"1","orgName":"国网浙江杭州市萧山区供电有限公司","typeName":null,"infoStatusName":null,"dateDay":null,"orgNos":null,"nowTime":null,"countyName":null,"streetName":null,"villageName":null,"roadName":null,"communityName":null,"tranName":null,"sdLineName":null,"cityCode":"3340130","cityName":"国网浙江杭州市萧山区供电有限公司","provinceCode":null,"stopTime":"2019-10-18 14:30:00","powerType":"全部","powerOffArea":"110kV顺坝变:林峰A393线-林峰A3932开关后段","powerOffReason":"林峰线81#杆分支割接至永磁线，97#杆新装环网开关","powerOffId":"2019101031020157"},{"poweroffId":2019101031020156,"sgpoweroffId":null,"subsName":"","lineName":"10kV永磁A392线","pubTranName":"部队9#,红博苑实业1#,红博苑实业,滨江果业,盈二村24#变,","scope":"浙江省-杭州市-萧山区-经济技术开发区-钱江社区(盈二村,中国人民解放军73021部队农副业基地,杭州滨江果业有限公司,浙江红博苑投资有限公司)","startTime":"2019-10-18 08:35:00","stopDate":"2019-10-18 14:30:00","orgNo":"3340130","typeCode":"计划停电","poweroffArea":"110kV顺坝变:永磁A392线-永磁A3922开关后段","poweroffReason":"林峰线81#杆分支割接至永磁线，97#杆新装环网开关","powerTime":"2019-10-18 14:00:59","powerComm":"已送电","subsNo":"","lineNo":"","tgNo":"","tgName":null,"infoStatus":"1","orgName":"国网浙江杭州市萧山区供电有限公司","typeName":null,"infoStatusName":null,"dateDay":null,"orgNos":null,"nowTime":null,"countyName":null,"streetName":null,"villageName":null,"roadName":null,"communityName":null,"tranName":null,"sdLineName":null,"cityCode":"3340130","cityName":"国网浙江杭州市萧山区供电有限公司","provinceCode":null,"stopTime":"2019-10-18 14:30:00","powerType":"全部","powerOffArea":"110kV顺坝变:永磁A392线-永磁A3922开关后段","powerOffReason":"林峰线81#杆分支割接至永磁线，97#杆新装环网开关","powerOffId":"2019101031020156"},{"poweroffId":2019101031020110,"sgpoweroffId":null,"subsName":"","lineName":"10kV联华C422线","pubTranName":"杭州萧山众安物业管理有限公司2#2,溪头黄社区3#变,杭州萧山众安物业管理有限公司2#1,萧山区第十高级中学,萧山区朝晖初级中学,杭州市萧山区计划生育宣传技术指导站1#变压器间隔配电变压器,城市河道管理处,浙江佑诚建设有限公司,溪头黄社区2#变,变压器,城市投资建设有限公司,","scope":"浙江省-杭州市-萧山区-蜀山街道-溪头黄社区(萧金路,溪头黄自然村);浙江省-杭州市-萧山区-城厢街道-南门江社区-浙江众安物业服务有限公司,蜀山街道-祝家桥社区(萧山区朝晖初级中学,杭州市萧山区第十高级中学),蜀山街道-联华社区(杭州市萧山区计划生育宣传技术指导站,杭州市萧山区城市河道管理处),蜀山街道(沈家里社区-浙江佑诚建设有限公司,湖山社区-杭州市萧山区市政绿化养护保障中心),蜀山街道山水苑社区山水苑小区潘水路山水苑二期一带","startTime":"2019-10-10 10:42:00","stopDate":"2019-10-10 17:35:00","orgNo":"3340130","typeCode":"电网故障停限电","poweroffArea":"110kV萧山变:联华C422线","poweroffReason":"外力破坏导致高压柱上断路器短路故障 原停电结束时间：2019-10-10 18:30:00，变更停电结束时间：2019-10-10 17:35:00，由于增派人员，抢修提前完成，故需要提前送电。","powerTime":"2019-10-10 17:05:22","powerComm":"已送电","subsNo":"","lineNo":"","tgNo":"","tgName":null,"infoStatus":"1","orgName":"国网浙江杭州市萧山区供电有限公司","typeName":null,"infoStatusName":null,"dateDay":null,"orgNos":null,"nowTime":null,"countyName":null,"streetName":null,"villageName":null,"roadName":null,"communityName":null,"tranName":null,"sdLineName":null,"cityCode":"3340130","cityName":"国网浙江杭州市萧山区供电有限公司","provinceCode":null,"stopTime":"2019-10-10 17:35:00","powerType":"全部","powerOffArea":"110kV萧山变:联华C422线","powerOffReason":"外力破坏导致高压柱上断路器短路故障 原停电结束时间：2019-10-10 18:30:00，变更停电结束时间：2019-10-10 17:35:00，由于增派人员，抢修提前完成，故需要提前送电。","powerOffId":"2019101031020110"},{"poweroffId":2019101031020107,"sgpoweroffId":null,"subsName":"","lineName":"10kV毛园H265线","pubTranName":"彭公村卸车里村1号公变,彭公村卸车里村2号公变,杭州沈园农林开发有限公司6120211525,","scope":"浙江省-杭州市-余杭区-瓶窑镇-彭公行政村(卸车里自然村,卸车6组,卸车自然村,卸车自然村口,卸车中自然村);瓶窑镇-杭州沈园农林开发有限公司","startTime":"2019-10-10 10:35:00","stopDate":"2019-10-10 12:35:00","orgNo":"3340140","typeCode":"电网故障停限电","poweroffArea":"110kV彭公变:毛园H265线卸车里村分线63号杆开关后段","poweroffReason":"高压开关跳闸","powerTime":"2019-10-10 12:02:00","powerComm":"已送电","subsNo":"","lineNo":"","tgNo":"","tgName":null,"infoStatus":"1","orgName":"国网浙江杭州市余杭区供电有限公司","typeName":null,"infoStatusName":null,"dateDay":null,"orgNos":null,"nowTime":null,"countyName":null,"streetName":null,"villageName":null,"roadName":null,"communityName":null,"tranName":null,"sdLineName":null,"cityCode":"3340140","cityName":"国网浙江杭州市余杭区供电有限公司","provinceCode":null,"stopTime":"2019-10-10 12:35:00","powerType":"全部","powerOffArea":"110kV彭公变:毛园H265线卸车里村分线63号杆开关后段","powerOffReason":"高压开关跳闸","powerOffId":"2019101031020107"}],"pageModel":{"pageNow":1029,"totalCount":17789,"totalPage":1779,"tableRows":0,"pageCount":10,"beginCount":10280},"isExperi":"1"}