{"message":"","today":"2020-06-16","seleList":[{"poweroffId":2019100831020174,"sgpoweroffId":null,"subsName":"","lineName":"10kV和平C209线","pubTranName":"朱家坛村8#变,","scope":"浙江省-杭州市-萧山区-新塘街道-朱家坛行政村(后朱自然村,前朱自然村,朱家坛自然村)","startTime":"2019-10-16 08:30:00","stopDate":"2019-10-16 16:30:00","orgNo":"3340130","typeCode":"计划停电","poweroffArea":"110kV霞江变:和平C209线-朱家坛村8#变后段","poweroffReason":"朱家坛村8#变更换JP柜","powerTime":"2019-10-16 15:35:31","powerComm":"已送电","subsNo":"","lineNo":"","tgNo":"","tgName":null,"infoStatus":"1","orgName":"国网浙江杭州市萧山区供电有限公司","typeName":null,"infoStatusName":null,"dateDay":null,"orgNos":null,"nowTime":null,"countyName":null,"streetName":null,"villageName":null,"roadName":null,"communityName":null,"tranName":null,"sdLineName":null,"cityCode":"3340130","cityName":"国网浙江杭州市萧山区供电有限公司","provinceCode":null,"stopTime":"2019-10-16 16:30:00","powerType":"全部","powerOffArea":"110kV霞江变:和平C209线-朱家坛村8#变后段","powerOffReason":"朱家坛村8#变更换JP柜","powerOffId":"2019100831020174"},{"poweroffId":2019100831020150,"sgpoweroffId":null,"subsName":"","lineName":"10kV方桥G907线","pubTranName":"永东2组公变,","scope":"浙江省-杭州市-余杭区-乔司街道-永和行政村(永和自然村,永东自然村)一带","startTime":"2019-10-08 16:59:47","stopDate":"2019-10-08 18:30:47","orgNo":"3340140","typeCode":"电网故障停限电","poweroffArea":"110kV庙港变:方桥G907线-永东2组公变后段","poweroffReason":"高压开关跳闸 原停电结束时间为2019-10-08 20:59:47,为减少客户停电时间,加快工作进度,提前送电,现变更停电结束时间为2019-10-08 18:30:47","powerTime":"2019-10-08 18:05:31","powerComm":"已送电","subsNo":"","lineNo":"","tgNo":"","tgName":null,"infoStatus":"1","orgName":"国网浙江杭州市余杭区供电有限公司","typeName":null,"infoStatusName":null,"dateDay":null,"orgNos":null,"nowTime":null,"countyName":null,"streetName":null,"villageName":null,"roadName":null,"communityName":null,"tranName":null,"sdLineName":null,"cityCode":"3340140","cityName":"国网浙江杭州市余杭区供电有限公司","provinceCode":null,"stopTime":"2019-10-08 18:30:47","powerType":"全部","powerOffArea":"110kV庙港变:方桥G907线-永东2组公变后段","powerOffReason":"高压开关跳闸 原停电结束时间为2019-10-08 20:59:47,为减少客户停电时间,加快工作进度,提前送电,现变更停电结束时间为2019-10-08 18:30:47","powerOffId":"2019100831020150"},{"poweroffId":2019100831020117,"sgpoweroffId":null,"subsName":"","lineName":"10kV陈园C841线","pubTranName":"陈家园村11#变,","scope":"浙江省-杭州市-萧山区-新街镇-新街街道-陈家园行政村-陈家园自然村、陈家园村等一带","startTime":"2019-10-08 14:03:36","stopDate":"2019-10-08 19:03:36","orgNo":"3340130","typeCode":"电网故障停限电","poweroffArea":"110kV罗山变:陈园C841线-陈家园村11#变台区低压开关","poweroffReason":"(低压停电信息)低压漏电保护器短路故障","powerTime":"2019-10-08 18:10:15","powerComm":"已送电","subsNo":"","lineNo":"","tgNo":"","tgName":null,"infoStatus":"1","orgName":"国网浙江杭州市萧山区供电有限公司","typeName":null,"infoStatusName":null,"dateDay":null,"orgNos":null,"nowTime":null,"countyName":null,"streetName":null,"villageName":null,"roadName":null,"communityName":null,"tranName":null,"sdLineName":null,"cityCode":"3340130","cityName":"国网浙江杭州市萧山区供电有限公司","provinceCode":null,"stopTime":"2019-10-08 19:03:36","powerType":"全部","powerOffArea":"110kV罗山变:陈园C841线-陈家园村11#变台区低压开关","powerOffReason":"(低压停电信息)低压漏电保护器短路故障","powerOffId":"2019100831020117"},{"poweroffId":2019100831020098,"sgpoweroffId":null,"subsName":"","lineName":"10kV六堡961线","pubTranName":"沿江管廊1#,杭高6,沿江管廊2#,杭高6,沿江管廊3#,杭高6,杭高6,沿江地道2,","scope":"浙江省-杭州市-江干区-彭埠镇(七堡社区-浙江省杭州高级中学,彭埠社区-杭州市市政设施发展中心,杭州市钱江新城建设开发有限公司)","startTime":"2019-10-08 11:51:06","stopDate":"2019-10-08 20:51:06","orgNo":"3340101","typeCode":"电网故障停限电","poweroffArea":"110kV彭埠变:六堡961线，7905，7935，7936之间","poweroffReason":"高压开关跳闸 原停电结束时间为2019-10-08 17:51:06,因由于施工现场环境比较复杂，存在不确定因素，因此预估施工时间不足，延迟送电了,现变更停电结束时间为2019-10-08 20:51:06","powerTime":"2019-10-08 20:02:08","powerComm":"已送电","subsNo":"","lineNo":"","tgNo":"","tgName":null,"infoStatus":"1","orgName":"浙江杭州电力客户服务中心","typeName":null,"infoStatusName":null,"dateDay":null,"orgNos":null,"nowTime":null,"countyName":null,"streetName":null,"villageName":null,"roadName":null,"communityName":null,"tranName":null,"sdLineName":null,"cityCode":"3340101","cityName":"浙江杭州电力客户服务中心","provinceCode":null,"stopTime":"2019-10-08 20:51:06","powerType":"全部","powerOffArea":"110kV彭埠变:六堡961线，7905，7935，7936之间","powerOffReason":"高压开关跳闸 原停电结束时间为2019-10-08 17:51:06,因由于施工现场环境比较复杂，存在不确定因素，因此预估施工时间不足，延迟送电了,现变更停电结束时间为2019-10-08 20:51:06","powerOffId":"2019100831020098"},{"poweroffId":2019100831020094,"sgpoweroffId":null,"subsName":"","lineName":"10kV巨星D926线","pubTranName":"富阳市丰磊石料厂2#变,富阳市丰磊石料厂1#变,富阳市渔山乡汪春砂石经营部,杭州富登混凝土有限公司1#变,富阳市渔山乡荣刚砂石经营部,富阳市渔山乡志尧砂石经营部1#变,杭州富阳丰磊石料有限公司,富阳市渔山乡交工石粉经营部,","scope":"浙江省-杭州市-富阳区-渔山乡(杭州富阳丰磊石料有限公司,杭州富阳区渔山乡交工建材经营部,杭州富阳区渔山乡荣刚砂石经营部,杭州富阳区渔山乡汪春砂石经营部,杭州富登混凝土有限公司,富阳市渔山乡志尧砂石经营部)","startTime":"2019-10-08 11:16:00","stopDate":"2019-10-08 13:16:00","orgNo":"3340170","typeCode":"电网故障停限电","poweroffArea":"110kV里渔变:巨星D926线丰磊石料分线开关后段","poweroffReason":"高压开关跳闸","powerTime":"2019-10-08 12:46:38","powerComm":"已送电","subsNo":"","lineNo":"","tgNo":"","tgName":null,"infoStatus":"1","orgName":"国网浙江杭州市富阳区供电公司","typeName":null,"infoStatusName":null,"dateDay":null,"orgNos":null,"nowTime":null,"countyName":null,"streetName":null,"villageName":null,"roadName":null,"communityName":null,"tranName":null,"sdLineName":null,"cityCode":"3340170","cityName":"国网浙江杭州市富阳区供电公司","provinceCode":null,"stopTime":"2019-10-08 13:16:00","powerType":"全部","powerOffArea":"110kV里渔变:巨星D926线丰磊石料分线开关后段","powerOffReason":"高压开关跳闸","powerOffId":"2019100831020094"},{"poweroffId":2019100831020042,"sgpoweroffId":null,"subsName":"","lineName":"10kV五堡953线","pubTranName":"七横,七堡地块施3,钱和施二,七堡地块施6,七堡地块施4,之路施十,水利1,河口施(1),六(4)农,四七堡安置施3,钱和施一,水利1,东新施4,钱塘农园2,沿江管廊5#,航灯(2),杭高6,钱塘农园4,电灯(2),之路施七,河口施(2),钱塘农园1,四七堡安置施2,东新施1,四七堡安置施4,七堡(2)农,东新施3,杭高6,七堡(20)农,四七堡安置施1,七堡地块施1,沿江管廊4#,钱塘农园3,东新施2,沿江地道2,七堡地块施5,之路施九,钱和施三,钱新(1),之路施十二,之路施十一,沿江管廊6#,六(14)农,七堡(16)农,杭高6,之路施八,港建,七堡地块施2,","scope":"浙江省-杭州市-江干区-彭埠镇-七堡社区-大王庙路;下沙街道-下沙社区(杭州市路灯管理所,杭州市城东新城建设投资有限公司),九堡镇-九堡社区(杭州市钱江新城建设指挥部,杭州市路灯管理所,浙江省水利河口研究院,杭州港口建设开发公司),彭埠街道-七堡社区(浙江省水利河口研究院,杭州市钱江新城建设开发有限公司),彭埠镇(七堡社区-浙江省杭州高级中学,彭埠社区-杭州市市政设施发展中心,杭州市城东新城建设投资有限公司,杭州市钱江新城建设开发有限公司),彭埠街道-杭州市城东新城建设投资有限公司,九堡镇-杨公社区-杭州钱和置业有限公司","startTime":"2019-10-08 09:10:27","stopDate":"2019-10-08 15:10:27","orgNo":"3340101","typeCode":"电网故障停限电","poweroffArea":"110kV彭埠变:五堡953线","poweroffReason":"高压开关跳闸","powerTime":"2019-10-08 14:37:17","powerComm":"已送电","subsNo":"","lineNo":"","tgNo":"","tgName":null,"infoStatus":"1","orgName":"浙江杭州电力客户服务中心","typeName":null,"infoStatusName":null,"dateDay":null,"orgNos":null,"nowTime":null,"countyName":null,"streetName":null,"villageName":null,"roadName":null,"communityName":null,"tranName":null,"sdLineName":null,"cityCode":"3340101","cityName":"浙江杭州电力客户服务中心","provinceCode":null,"stopTime":"2019-10-08 15:10:27","powerType":"全部","powerOffArea":"110kV彭埠变:五堡953线","powerOffReason":"高压开关跳闸","powerOffId":"2019100831020042"},{"poweroffId":2019100831020006,"sgpoweroffId":null,"subsName":"","lineName":"10kV仙宅H777线","pubTranName":"长岗纸箱,长岗家园1号公变,良辰机械,长岗机站,仙宅茶叶,仙宅村仙宅公变,仙宅村洪家公变,1#,仙宅村荷花池公变,中天线缆,长岗家园2号公变,仙宅股份经济合作社,仙宅村西头公变,余杭供水,二绕鼎盛交通,金创塑胶正式变,长岗农场1号公变,吉友塑料,二绕二标新上基变,3#,仙宅村里村公变,贝莱特,长岗家园3号公变,晨厦建筑,林坞口路灯变,银帆电梯,仙宅村林坞中村公变,仙宅村里村2号公变,仙宅村潘家公变,长岗农场2号公变,通用机械,4#,2#,","scope":"浙江省-杭州市-余杭区-余杭街道-仙宅行政村(仙宅自然村,新岭自然村,余长公路);余杭街道(杭州长岗彩印包装有限公司,贝达药业股份有限公司,中国移动通信集团浙江有限公司余杭分公司,浙江鼎盛交通建设有限公司,杭州良辰机械制造有限公司,杭州乾峰科技有限公司,杭州余杭晨厦建筑工程队,浙江贝莱特蓝莓综合开发有限公司,浙江中天电线电缆有限公司,杭州好一科技有限公司,杭州余杭制水有限公司,杭州云曼星酒店管理有限公司,杭州金创塑胶有限公司,杭州余杭仙宅股份经济合作社,杭州市余杭区人民政府余杭街道办事处)","startTime":"2019-10-08 05:39:00","stopDate":"2019-10-08 09:39:00","orgNo":"3340140","typeCode":"电网故障停限电","poweroffArea":"35kV长岗临时变:仙宅H777线仙宅H7770开关后段","poweroffReason":"高压开关跳闸 原停电结束时间为2019-10-08 07:39:00,因现场情况复杂原因,现变更停电结束时间为2019-10-08 09:39:00","powerTime":"2019-10-08 08:47:10","powerComm":"已送电","subsNo":"","lineNo":"","tgNo":"","tgName":null,"infoStatus":"1","orgName":"国网浙江杭州市余杭区供电有限公司","typeName":null,"infoStatusName":null,"dateDay":null,"orgNos":null,"nowTime":null,"countyName":null,"streetName":null,"villageName":null,"roadName":null,"communityName":null,"tranName":null,"sdLineName":null,"cityCode":"3340140","cityName":"国网浙江杭州市余杭区供电有限公司","provinceCode":null,"stopTime":"2019-10-08 09:39:00","powerType":"全部","powerOffArea":"35kV长岗临时变:仙宅H777线仙宅H7770开关后段","powerOffReason":"高压开关跳闸 原停电结束时间为2019-10-08 07:39:00,因现场情况复杂原因,现变更停电结束时间为2019-10-08 09:39:00","powerOffId":"2019100831020006"},{"poweroffId":2019100831020002,"sgpoweroffId":null,"subsName":"","lineName":"10kV道古G994线","pubTranName":"城建铁路400,星罗彩钢板,中宏2#基建,丁山4组（涧河口）公变,泰格电子630kVA配变,美力生彩印,海源汽修,澳利斯橡塑变2#,旺旺仓库,王莹机械,丽娜服饰,丁山3组（涧河口）公变,丁山凉亭,永南电瓶车,宣杭铁路1#基建变,横山2组（安家潭）2号公变,博宏纱线,杭州余杭城市建设集团有限公司61208261091#变压器,丁山6组（方兴村）公变,星桥街道办事处,横山2组（安家潭）公变,飞达电子照明2#,澳利斯橡塑变1#,飞达电子照明1#,","scope":"浙江省-杭州市-余杭区-星桥街道-枉山社区-枉山,临平街道-丁山社区(丁山,方兴渡自然村);星桥街道(杭州博宏纱线有限公司,杭州余杭丽娜服饰有限公司,杭州永南电瓶车厂,杭州星罗彩钢板活动房有限公司,杭州王莹机械有限公司,杭州海源汽车修理有限公司,杭州市余杭区人民政府星桥街道办事处,杭州澳利斯橡塑保温材料有限公司,杭州泰格电子电器有限公司,杭州美力生彩印有限公司,杭州飞达电子照明有限公司,),临平街道(杭州余杭丁山股份经济合作社,杭州旺旺食品有限公司)","startTime":"2019-10-08 00:53:00","stopDate":"2019-10-08 07:53:00","orgNo":"3340140","typeCode":"电网故障停限电","poweroffArea":"110kV茅山变:道古G994线道古开关站丁山分线后段","poweroffReason":"高压开关跳闸","powerTime":"2019-10-08 07:04:00","powerComm":"已送电","subsNo":"","lineNo":"","tgNo":"","tgName":null,"infoStatus":"1","orgName":"国网浙江杭州市余杭区供电有限公司","typeName":null,"infoStatusName":null,"dateDay":null,"orgNos":null,"nowTime":null,"countyName":null,"streetName":null,"villageName":null,"roadName":null,"communityName":null,"tranName":null,"sdLineName":null,"cityCode":"3340140","cityName":"国网浙江杭州市余杭区供电有限公司","provinceCode":null,"stopTime":"2019-10-08 07:53:00","powerType":"全部","powerOffArea":"110kV茅山变:道古G994线道古开关站丁山分线后段","powerOffReason":"高压开关跳闸","powerOffId":"2019100831020002"},{"poweroffId":2019100731020082,"sgpoweroffId":null,"subsName":"","lineName":"10kV和平C209线","pubTranName":"朱家坛村3#变,","scope":"浙江省-杭州市-萧山区-新塘街道-朱家坛行政村(庙东金自然村,朱家坛自然村,后朱自然村)","startTime":"2019-10-15 08:30:00","stopDate":"2019-10-15 16:30:00","orgNo":"3340130","typeCode":"计划停电","poweroffArea":"110kV霞江变:和平C209线-朱家坛村3#变后段","poweroffReason":"朱家坛村3#变更换JP柜","powerTime":"2019-10-15 15:57:32","powerComm":"已送电","subsNo":"","lineNo":"","tgNo":"","tgName":null,"infoStatus":"1","orgName":"国网浙江杭州市萧山区供电有限公司","typeName":null,"infoStatusName":null,"dateDay":null,"orgNos":null,"nowTime":null,"countyName":null,"streetName":null,"villageName":null,"roadName":null,"communityName":null,"tranName":null,"sdLineName":null,"cityCode":"3340130","cityName":"国网浙江杭州市萧山区供电有限公司","provinceCode":null,"stopTime":"2019-10-15 16:30:00","powerType":"全部","powerOffArea":"110kV霞江变:和平C209线-朱家坛村3#变后段","powerOffReason":"朱家坛村3#变更换JP柜","powerOffId":"2019100731020082"},{"poweroffId":2019100731020081,"sgpoweroffId":null,"subsName":"","lineName":"10kV拱秀A587线","pubTranName":"回澜南园5#公变,","scope":"浙江省-杭州市-萧山区-城厢街道-回澜南苑社区-回澜路、回澜南园、回澜南园18幢一带","startTime":"2019-10-07 21:45:37","stopDate":"2019-10-08 03:40:00","orgNo":"3340130","typeCode":"电网故障停限电","poweroffArea":"110kV城东变:拱秀A587线-回澜南园5#公变后段","poweroffReason":"(低压停电信息)低压电缆坏 原停电结束时间为2019-10-07 23:45:37,因抢修难度大原因,现变更停电结束时间为2019-10-08 03:45:00","powerTime":"2019-10-08 03:09:51","powerComm":"已送电","subsNo":"","lineNo":"","tgNo":"","tgName":null,"infoStatus":"1","orgName":"国网浙江杭州市萧山区供电有限公司","typeName":null,"infoStatusName":null,"dateDay":null,"orgNos":null,"nowTime":null,"countyName":null,"streetName":null,"villageName":null,"roadName":null,"communityName":null,"tranName":null,"sdLineName":null,"cityCode":"3340130","cityName":"国网浙江杭州市萧山区供电有限公司","provinceCode":null,"stopTime":"2019-10-08 03:40:00","powerType":"全部","powerOffArea":"110kV城东变:拱秀A587线-回澜南园5#公变后段","powerOffReason":"(低压停电信息)低压电缆坏 原停电结束时间为2019-10-07 23:45:37,因抢修难度大原因,现变更停电结束时间为2019-10-08 03:45:00","powerOffId":"2019100731020081"}],"pageModel":{"pageNow":1035,"totalCount":17789,"totalPage":1779,"tableRows":0,"pageCount":10,"beginCount":10340},"isExperi":"1"}