{"message":"","today":"2020-06-16","seleList":[{"poweroffId":2019100631020099,"sgpoweroffId":null,"subsName":"","lineName":"10kV荆村8060线","pubTranName":"如意苑四,","scope":"浙江省-杭州市-西湖区-蒋村街道-蒋村花园社区-晴川街-蒋村花园小区如意苑","startTime":"2019-10-06 15:22:55","stopDate":"2019-10-06 20:16:55","orgNo":"3340101","typeCode":"电网故障停限电","poweroffArea":"110kV紫荆变:荆村8060线-如意苑四变","poweroffReason":"(低压停电信息)低压开关跳闸 原停电结束时间为2019-10-06 21:22:55,为减少客户停电时间,加快工作进度,提前送电,现变更停电结束时间为2019-10-06 20:16:55","powerTime":"2019-10-06 19:35:29","powerComm":"已送电","subsNo":"","lineNo":"","tgNo":"","tgName":null,"infoStatus":"1","orgName":"浙江杭州电力客户服务中心","typeName":null,"infoStatusName":null,"dateDay":null,"orgNos":null,"nowTime":null,"countyName":null,"streetName":null,"villageName":null,"roadName":null,"communityName":null,"tranName":null,"sdLineName":null,"cityCode":"3340101","cityName":"浙江杭州电力客户服务中心","provinceCode":null,"stopTime":"2019-10-06 20:16:55","powerType":"全部","powerOffArea":"110kV紫荆变:荆村8060线-如意苑四变","powerOffReason":"(低压停电信息)低压开关跳闸 原停电结束时间为2019-10-06 21:22:55,为减少客户停电时间,加快工作进度,提前送电,现变更停电结束时间为2019-10-06 20:16:55","powerOffId":"2019100631020099"},{"poweroffId":2019100631020093,"sgpoweroffId":null,"subsName":"","lineName":"10kV南湖H709线","pubTranName":"城西2号公变,","scope":"浙江省-杭州市-余杭区-余杭街道(山西园社区-城西路,南安社区-城西路)","startTime":"2019-10-06 14:34:00","stopDate":"2019-10-06 21:30:00","orgNo":"3340140","typeCode":"电网故障停限电","poweroffArea":"110kV余杭变:南湖H709线-城西2号公变后段","poweroffReason":"高压开关跳闸 原停电结束时间为2019-10-06 16:34:00,因现场情况复杂，抢修难度大原因,现变更停电结束时间为2019-10-06 21:30:00 18：36故障点已隔离后段用户已转供，故缩小停电范围","powerTime":"2019-10-06 20:48:35","powerComm":"已送电","subsNo":"","lineNo":"","tgNo":"","tgName":null,"infoStatus":"1","orgName":"国网浙江杭州市余杭区供电有限公司","typeName":null,"infoStatusName":null,"dateDay":null,"orgNos":null,"nowTime":null,"countyName":null,"streetName":null,"villageName":null,"roadName":null,"communityName":null,"tranName":null,"sdLineName":null,"cityCode":"3340140","cityName":"国网浙江杭州市余杭区供电有限公司","provinceCode":null,"stopTime":"2019-10-06 21:30:00","powerType":"全部","powerOffArea":"110kV余杭变:南湖H709线-城西2号公变后段","powerOffReason":"高压开关跳闸 原停电结束时间为2019-10-06 16:34:00,因现场情况复杂，抢修难度大原因,现变更停电结束时间为2019-10-06 21:30:00 18：36故障点已隔离后段用户已转供，故缩小停电范围","powerOffId":"2019100631020093"},{"poweroffId":2019100631020066,"sgpoweroffId":null,"subsName":"","lineName":"10kV洪庄D292线","pubTranName":"杭州富春弹簧有限公司,杭州兴发弹簧有限公司,","scope":"浙江省-杭州市-富阳区-银湖街道(杭州富春弹簧有限公司,杭州兴发弹簧有限公司)","startTime":"2019-10-06 11:00:00","stopDate":"2019-10-06 14:00:00","orgNo":"3340170","typeCode":"电网故障停限电","poweroffArea":"35kV新义变:洪庄D292线富春弹簧厂分线后段","poweroffReason":"高压开关跳闸","powerTime":"2019-10-06 13:32:58","powerComm":"已送电","subsNo":"","lineNo":"","tgNo":"","tgName":null,"infoStatus":"1","orgName":"国网浙江杭州市富阳区供电公司","typeName":null,"infoStatusName":null,"dateDay":null,"orgNos":null,"nowTime":null,"countyName":null,"streetName":null,"villageName":null,"roadName":null,"communityName":null,"tranName":null,"sdLineName":null,"cityCode":"3340170","cityName":"国网浙江杭州市富阳区供电公司","provinceCode":null,"stopTime":"2019-10-06 14:00:00","powerType":"全部","powerOffArea":"35kV新义变:洪庄D292线富春弹簧厂分线后段","powerOffReason":"高压开关跳闸","powerOffId":"2019100631020066"},{"poweroffId":2019100631020057,"sgpoweroffId":null,"subsName":"","lineName":"10kV桥南Y202线","pubTranName":"新广商苑公变,","scope":"浙江省-杭州市-建德市-新安江街道-府西社区-严东关路一带用户","startTime":"2019-10-06 09:54:00","stopDate":"2019-10-06 15:30:00","orgNo":"3340180","typeCode":"电网故障停限电","poweroffArea":"110kV白沙变:桥南Y202线-新广商苑公变后段","poweroffReason":"(低压停电信息)低压开关跳闸 原停电结束时间为2019-10-06 16:00:00,为减少客户停电时间,加快工作进度,提前送电,现变更停电结束时间为2019-10-06 15:30:00","powerTime":"2019-10-06 14:41:46","powerComm":"已送电","subsNo":"","lineNo":"","tgNo":"","tgName":null,"infoStatus":"1","orgName":"国网浙江建德市供电有限公司","typeName":null,"infoStatusName":null,"dateDay":null,"orgNos":null,"nowTime":null,"countyName":null,"streetName":null,"villageName":null,"roadName":null,"communityName":null,"tranName":null,"sdLineName":null,"cityCode":"3340180","cityName":"国网浙江建德市供电有限公司","provinceCode":null,"stopTime":"2019-10-06 15:30:00","powerType":"全部","powerOffArea":"110kV白沙变:桥南Y202线-新广商苑公变后段","powerOffReason":"(低压停电信息)低压开关跳闸 原停电结束时间为2019-10-06 16:00:00,为减少客户停电时间,加快工作进度,提前送电,现变更停电结束时间为2019-10-06 15:30:00","powerOffId":"2019100631020057"},{"poweroffId":2019100631020053,"sgpoweroffId":null,"subsName":"","lineName":"10kV众丽A328线","pubTranName":"杭州越翔科纺整理有限公司,横埂头村12#变,靖一村19#变,靖一村8#变,靖一村4#变,1#电机,浙江争好服饰有限公司1变压器,浙江争好服饰有限公司,靖一村20#变,靖一村2#变,杭州萧山瓜沥凤条化纤布厂,靖一村3#变,靖一村17#变,","scope":"浙江省-杭州市-萧山区-瓜沥镇-横埂头行政村-横埂头自然村,瓜沥镇-靖一行政村(靖一自然村,临港工业区);瓜沥镇(靖一行政村-杭州萧山瓜沥凤条化纤布厂,渭水桥行政村-浙江争好服饰有限公司,横埂头行政村-浙江争好服饰有限公司)一带","startTime":"2019-10-06 09:32:33","stopDate":"2019-10-06 11:25:33","orgNo":"3340130","typeCode":"电网故障停限电","poweroffArea":"110kV靖江变:众丽A328线-众丽A328线争好分线开关后段","poweroffReason":"高压柱上断路器短路故障 原停电结束时间为2019-10-06 13:35:33,为减少客户停电时间,加快工作进度,提前送电,现变更停电结束时间为2019-10-06 11:25:33","powerTime":"2019-10-06 10:32:51","powerComm":"已送电","subsNo":"","lineNo":"","tgNo":"","tgName":null,"infoStatus":"1","orgName":"国网浙江杭州市萧山区供电有限公司","typeName":null,"infoStatusName":null,"dateDay":null,"orgNos":null,"nowTime":null,"countyName":null,"streetName":null,"villageName":null,"roadName":null,"communityName":null,"tranName":null,"sdLineName":null,"cityCode":"3340130","cityName":"国网浙江杭州市萧山区供电有限公司","provinceCode":null,"stopTime":"2019-10-06 11:25:33","powerType":"全部","powerOffArea":"110kV靖江变:众丽A328线-众丽A328线争好分线开关后段","powerOffReason":"高压柱上断路器短路故障 原停电结束时间为2019-10-06 13:35:33,为减少客户停电时间,加快工作进度,提前送电,现变更停电结束时间为2019-10-06 11:25:33","powerOffId":"2019100631020053"},{"poweroffId":2019100631020050,"sgpoweroffId":null,"subsName":"","lineName":"10kV蒋家D408线","pubTranName":"蒋家村16号富棉公变,","scope":"浙江省-杭州市-富阳区-鹿山街道-南山行政村-晖山自然村,鹿山街道-蒋家行政村(最光路,阳光路,青春路,蒋家自然村,徐家路,中心路,环厂路)","startTime":"2019-10-06 09:18:56","stopDate":"2019-10-06 11:30:56","orgNo":"3340170","typeCode":"电网故障停限电","poweroffArea":"110kV长春变:蒋家D408线-蒋家村16号富棉公变后段","poweroffReason":"高压开关跳闸","powerTime":"2019-10-06 10:41:42","powerComm":"已送电","subsNo":"","lineNo":"","tgNo":"","tgName":null,"infoStatus":"1","orgName":"国网浙江杭州市富阳区供电公司","typeName":null,"infoStatusName":null,"dateDay":null,"orgNos":null,"nowTime":null,"countyName":null,"streetName":null,"villageName":null,"roadName":null,"communityName":null,"tranName":null,"sdLineName":null,"cityCode":"3340170","cityName":"国网浙江杭州市富阳区供电公司","provinceCode":null,"stopTime":"2019-10-06 11:30:56","powerType":"全部","powerOffArea":"110kV长春变:蒋家D408线-蒋家村16号富棉公变后段","powerOffReason":"高压开关跳闸","powerOffId":"2019100631020050"},{"poweroffId":2019100631020008,"sgpoweroffId":null,"subsName":"","lineName":"10kV新山G193线","pubTranName":"冯金5组公变,朝阳4组1号公变,新山1组5号公变,新山4组公变,耀华化工,葛家8组4号公变,新山2组2号公变,冯金6组5号公变,新山3组5号公变,新三3组1号公变,新山3组3号公变,新山4组5号公变,葛家7组公变,新山3组4号公变,新山1组6号公变,新山1组公变,新山1组2号公变,葛家7组6号公变,新山1组3号公变,葛家8组8号公变,冯金5组6号公变,葛家7组3号公变,新山4组2号公变,新山3组6号公变,新山3组2号公变,新山4组4号公变,新山1组4号公变,冯金6组1号公变,冯金5组9号公变,葛家7组2号公变,新山4组3号公变,","scope":"浙江省-杭州市-余杭区-乔司镇-朝阳行政村-新三自然村,乔司街道-葛家车行政村(香樟树下自然村,吴家车自然村,牛头基自然村,葛家车自然村,南西马自然村,白井头自然村),乔司街道-朝阳行政村(新三自然村,冯东自然村,冯西自然村),乔司街道(三角行政村-学稼自然村,五星行政村-泥桥自然村);乔司街道-杭州耀华化工设备制造厂","startTime":"2019-10-06 06:34:00","stopDate":"2019-10-06 08:34:00","orgNo":"3340140","typeCode":"电网故障停限电","poweroffArea":"35kV乔镇变:新山G193线新山G1932开关后段","poweroffReason":"高压开关跳闸 原停电结束时间为2019-10-06 09:34:00,为减少客户停电时间,加快工作进度,提前送电,现变更停电结束时间为2019-10-06 08:34:00","powerTime":"2019-10-06 08:08:16","powerComm":"已送电","subsNo":"","lineNo":"","tgNo":"","tgName":null,"infoStatus":"1","orgName":"国网浙江杭州市余杭区供电有限公司","typeName":null,"infoStatusName":null,"dateDay":null,"orgNos":null,"nowTime":null,"countyName":null,"streetName":null,"villageName":null,"roadName":null,"communityName":null,"tranName":null,"sdLineName":null,"cityCode":"3340140","cityName":"国网浙江杭州市余杭区供电有限公司","provinceCode":null,"stopTime":"2019-10-06 08:34:00","powerType":"全部","powerOffArea":"35kV乔镇变:新山G193线新山G1932开关后段","powerOffReason":"高压开关跳闸 原停电结束时间为2019-10-06 09:34:00,为减少客户停电时间,加快工作进度,提前送电,现变更停电结束时间为2019-10-06 08:34:00","powerOffId":"2019100631020008"},{"poweroffId":2019100631020001,"sgpoweroffId":null,"subsName":"","lineName":"10kV金色D824线","pubTranName":"公置7#公变,永兴中学教师公寓1#公变,金色家园五号变,金色家园十三号变,金色家园七号变,金色家园十五号变,公置1#公变,金色家园十一号变,富阳市富春第二幼儿园(郦城分园),金周1号公变,金色家园一号变,安置房1#公变,金色家园十七号变,公置3#公变,永兴中学教师公寓2#公变,公置5#公变,杭州万科容大房地产有限公司（金色家园十九号变）,金周3号公变,金色家园九号变,金周5号公变,郦城1#公变,郦城2#公变,金色家园三号变,安置房2#公变,","scope":"浙江省-杭州市-富阳区-富春街道-后周社区(公园西路,文居街,文教北路,公望街,文采路,文采路169号),富春街道-凤浦社区(公望街,公园路,文教北路,文采路),富春街道-金秋社区(文采路,金桥北路),富春街道(虎山社区-公园路,秦望社区-文采路);富春街道(富阳市富春第二幼儿园(郦城分园),杭州万科容大房地产有限公司)","startTime":"2019-10-06 00:20:46","stopDate":"2019-10-06 02:50:00","orgNo":"3340170","typeCode":"电网故障停限电","poweroffArea":"110kV容大变:金色D824线金周开关站金色D824线开关后段","poweroffReason":"高压开关跳闸 原停电结束时间为2019-10-06 02:12:00,因施工难度大原因,现变更停电结束时间为2019-10-06 02:50:00","powerTime":"2019-10-06 02:12:24","powerComm":"已送电","subsNo":"","lineNo":"","tgNo":"","tgName":null,"infoStatus":"1","orgName":"国网浙江杭州市富阳区供电公司","typeName":null,"infoStatusName":null,"dateDay":null,"orgNos":null,"nowTime":null,"countyName":null,"streetName":null,"villageName":null,"roadName":null,"communityName":null,"tranName":null,"sdLineName":null,"cityCode":"3340170","cityName":"国网浙江杭州市富阳区供电公司","provinceCode":null,"stopTime":"2019-10-06 02:50:00","powerType":"全部","powerOffArea":"110kV容大变:金色D824线金周开关站金色D824线开关后段","powerOffReason":"高压开关跳闸 原停电结束时间为2019-10-06 02:12:00,因施工难度大原因,现变更停电结束时间为2019-10-06 02:50:00","powerOffId":"2019100631020001"},{"poweroffId":2019100531020163,"sgpoweroffId":null,"subsName":"","lineName":"10kV宝地H609线","pubTranName":"杭临轨道凤新路站基建3#变,瑞城花园(2)临时,瑞城花园(1)临时,瑞城房产,腾达建设集团股份有限公司2#专变（6120880107）,华坞村杨家山公变,华坞村姚家公变,腾达建设集团股份有限公司1#专变（6120880107）,中铁新上基建变1#,瑞城花园(3)临时,杭临轨道凤新路站基建1#,中铁新上基建变2#,15省道6#路灯变,隧道杨家山,","scope":"浙江省-杭州市-余杭区-余杭街道-华坞行政村-东西大道;余杭街道-华坞行政村(浙江省隧道工程集团有限公司,杭州瑞成房地产开发有限公司,杭州市余杭区公路管理处,中铁隧道局集团有限公司市政工程公司,杭州财源土石方工程有限公司,腾达建设集团股份有限公司)","startTime":"2019-10-05 23:30:00","stopDate":"2019-10-06 01:00:00","orgNo":"3340140","typeCode":"电网故障停限电","poweroffArea":"110kV桃源变:宝地H609线-华坞杨家山分线后段","poweroffReason":"高压开关跳闸 原停电结束时间为2019-10-06 02:00:00,为减少客户停电时间,加快工作进度,提前送电,现变更停电结束时间为2019-10-06 01:00:00","powerTime":"2019-10-06 00:28:22","powerComm":"已送电","subsNo":"","lineNo":"","tgNo":"","tgName":null,"infoStatus":"1","orgName":"国网浙江杭州市余杭区供电有限公司","typeName":null,"infoStatusName":null,"dateDay":null,"orgNos":null,"nowTime":null,"countyName":null,"streetName":null,"villageName":null,"roadName":null,"communityName":null,"tranName":null,"sdLineName":null,"cityCode":"3340140","cityName":"国网浙江杭州市余杭区供电有限公司","provinceCode":null,"stopTime":"2019-10-06 01:00:00","powerType":"全部","powerOffArea":"110kV桃源变:宝地H609线-华坞杨家山分线后段","powerOffReason":"高压开关跳闸 原停电结束时间为2019-10-06 02:00:00,为减少客户停电时间,加快工作进度,提前送电,现变更停电结束时间为2019-10-06 01:00:00","powerOffId":"2019100531020163"},{"poweroffId":2019100531020161,"sgpoweroffId":null,"subsName":"","lineName":"10kV大树D219线","pubTranName":"受降村6号大树下新农村公变,","scope":"浙江省-杭州市-富阳区-银湖街道-受降行政村(甘坑口自然村,黄沙畈自然村,大树下自然村)","startTime":"2019-10-05 21:11:47","stopDate":"2019-10-05 23:11:47","orgNo":"3340170","typeCode":"电网故障停限电","poweroffArea":"110kV银湖变:大树D219线-受降村6号大树下新农村公变后段","poweroffReason":"高压开关跳闸","powerTime":"2019-10-05 22:15:19","powerComm":"已送电","subsNo":"","lineNo":"","tgNo":"","tgName":null,"infoStatus":"1","orgName":"国网浙江杭州市富阳区供电公司","typeName":null,"infoStatusName":null,"dateDay":null,"orgNos":null,"nowTime":null,"countyName":null,"streetName":null,"villageName":null,"roadName":null,"communityName":null,"tranName":null,"sdLineName":null,"cityCode":"3340170","cityName":"国网浙江杭州市富阳区供电公司","provinceCode":null,"stopTime":"2019-10-05 23:11:47","powerType":"全部","powerOffArea":"110kV银湖变:大树D219线-受降村6号大树下新农村公变后段","powerOffReason":"高压开关跳闸","powerOffId":"2019100531020161"}],"pageModel":{"pageNow":1037,"totalCount":17789,"totalPage":1779,"tableRows":0,"pageCount":10,"beginCount":10360},"isExperi":"1"}