{"message":"","today":"2020-06-16","seleList":[{"poweroffId":2019100331020161,"sgpoweroffId":null,"subsName":"","lineName":"10kV霞东C216线","pubTranName":"塘里陈社区13#变,杭州市萧山区新塘街道塘里陈社区居民委员会变压器,","scope":"浙江省-杭州市-萧山区-新塘街道-塘里陈社区-塘里陈自然村;浙江省-杭州市-萧山区-新塘街道-塘里陈社区-杭州市萧山区新塘街道塘里陈社区居民委员会","startTime":"2019-10-14 08:30:00","stopDate":"2019-10-14 16:30:00","orgNo":"3340130","typeCode":"计划停电","poweroffArea":"110kV霞江变:霞东C216线首端，塘里陈社区13#变，杭州市萧山区新塘街道塘里陈社区居民委员会变压器之间","poweroffReason":"塘里陈社区13#变下400kVA上630kVA欧变","powerTime":"2019-10-14 15:42:41","powerComm":"已送电","subsNo":"","lineNo":"","tgNo":"","tgName":null,"infoStatus":"1","orgName":"国网浙江杭州市萧山区供电有限公司","typeName":null,"infoStatusName":null,"dateDay":null,"orgNos":null,"nowTime":null,"countyName":null,"streetName":null,"villageName":null,"roadName":null,"communityName":null,"tranName":null,"sdLineName":null,"cityCode":"3340130","cityName":"国网浙江杭州市萧山区供电有限公司","provinceCode":null,"stopTime":"2019-10-14 16:30:00","powerType":"全部","powerOffArea":"110kV霞江变:霞东C216线首端，塘里陈社区13#变，杭州市萧山区新塘街道塘里陈社区居民委员会变压器之间","powerOffReason":"塘里陈社区13#变下400kVA上630kVA欧变","powerOffId":"2019100331020161"},{"poweroffId":2019100331020154,"sgpoweroffId":null,"subsName":"","lineName":"10kV顺坝C550线","pubTranName":"盈一村4#变,","scope":"浙江省-杭州市-萧山区-宁围镇、宁围街道-盈一行政村-盈一自然村等一带","startTime":"2019-10-03 16:50:14","stopDate":"2019-10-03 18:59:14","orgNo":"3340130","typeCode":"电网故障停限电","poweroffArea":"35kV钱江变:顺坝C550线-盈一村4#变台区低压开关","poweroffReason":"（低压停电信息）低压漏电保护器短路故障","powerTime":"2019-10-03 18:06:49","powerComm":"已送电","subsNo":"","lineNo":"","tgNo":"","tgName":null,"infoStatus":"1","orgName":"国网浙江杭州市萧山区供电有限公司","typeName":null,"infoStatusName":null,"dateDay":null,"orgNos":null,"nowTime":null,"countyName":null,"streetName":null,"villageName":null,"roadName":null,"communityName":null,"tranName":null,"sdLineName":null,"cityCode":"3340130","cityName":"国网浙江杭州市萧山区供电有限公司","provinceCode":null,"stopTime":"2019-10-03 18:59:14","powerType":"全部","powerOffArea":"35kV钱江变:顺坝C550线-盈一村4#变台区低压开关","powerOffReason":"（低压停电信息）低压漏电保护器短路故障","powerOffId":"2019100331020154"},{"poweroffId":2019100331020145,"sgpoweroffId":null,"subsName":"","lineName":"10kV芝厦T190线","pubTranName":"外董3号公变,320收费站,梓坞1号公变,芝厦4号公变,三鼎炉渣,大竹垅2号公变,杭黄五标二分部配变,平顶山1号公变,金兴矿业,外董2号公变,蒋家埠加油站,百帮机械,杭州中水水力发电设备有限公司,芝厦6号公变,杭州仞利道路机械制造有限公司,桐庐丽新重钙粉厂,杰华机械,强力尼龙厂,大庄2号公变,外洋2号公变,外洋1号公变,春江物资再生有限公司,桐庐万美针纺织有限公司变压器,浙江沃德威先种猪有限公司,桐庐派顺胶管有限公司,芝厦加油站,坚强装饰材料,里董1号公变,里董2号公变,里董4号公变,桐庐顺峰塑业有限公司变压器,芝厦3号公变,里董3号公变,淼达纸艺,三叶钙粉厂,胡庆余堂1,远大笔业,芝厦门里政府路灯变,桐庐富鑫机电制造有限公司变压器,象山桥平顶山路灯变,阳光机械厂,汇鑫矿业,杭州凌洲塑胶科技有限公司变压器,建德羊毛坞1号公变,金家排涝站,富春发电设备厂,政府路灯变,溪南1号公变,浙江沃德威先种猪有限公司,星冠线缆设备厂,桐庐县富春江镇人民政府水利管理站,象山桥1号公变,百顺五金,蒋家埠1号公变,桐庐嘉宝基础工程有限公司,外董1号公变,德庄矿业,小庄1号公变,冠和线缆设备厂,溪南2号公变,上泗4号公变,梓坞2号公变,桐庐鼎力建材有限公司变压器,蒋家埠2号公变,芝厦1号公变,桐庐华羽机械制造有限公司,桐庐钦荣石粉厂,胡庆余堂,大竹垅1号公变,桐庐羊毛坞1号公变,大庄1号公变,蒋家埠3号公变,芝厦5号公变,米山1号公变,芝厦2号公变,","scope":"浙江省-杭州市-桐庐县-富春江镇-象山桥行政村(米山自然村,平顶山自然村,象山桥自然村),富春江镇-严陵行政村(外董自然村,蒋家埠自然村)","startTime":"2019-10-03 15:37:00","stopDate":"2019-10-03 23:59:00","orgNo":"3340150","typeCode":"电网故障停限电","poweroffArea":"110kV外董变:芝厦T190线芝厦T1906智能开关后段","poweroffReason":"高压开关跳闸 原停电结束时间为2019-10-03 21:00:00,因材料不足原因,现变更停电结束时间为2019-10-03 23:59:00","powerTime":"2019-10-03 23:54:25","powerComm":"已送电","subsNo":"","lineNo":"","tgNo":"","tgName":null,"infoStatus":"1","orgName":"国网浙江桐庐县供电公司","typeName":null,"infoStatusName":null,"dateDay":null,"orgNos":null,"nowTime":null,"countyName":null,"streetName":null,"villageName":null,"roadName":null,"communityName":null,"tranName":null,"sdLineName":null,"cityCode":"3340150","cityName":"国网浙江桐庐县供电公司","provinceCode":null,"stopTime":"2019-10-03 23:59:00","powerType":"全部","powerOffArea":"110kV外董变:芝厦T190线芝厦T1906智能开关后段","powerOffReason":"高压开关跳闸 原停电结束时间为2019-10-03 21:00:00,因材料不足原因,现变更停电结束时间为2019-10-03 23:59:00","powerOffId":"2019100331020145"},{"poweroffId":2019100331020142,"sgpoweroffId":null,"subsName":"","lineName":"10kV陈家C327线","pubTranName":"陈家园村1#变,","scope":"浙江省-杭州市-萧山区-新街镇、新街街道-陈家园行政村-陈家园自然村、新街街道陈家园行政村陈家园自然村2组27号、新街镇陈家园村1号变等一带","startTime":"2019-10-03 15:23:00","stopDate":"2019-10-03 17:40:00","orgNo":"3340130","typeCode":"电网故障停限电","poweroffArea":"110kV沿塘变:陈家C327线-陈家园村1#变台区低压开关","poweroffReason":"（低压停电信息）低压漏电保护器短路故障","powerTime":"2019-10-03 16:42:27","powerComm":"已送电","subsNo":"","lineNo":"","tgNo":"","tgName":null,"infoStatus":"1","orgName":"国网浙江杭州市萧山区供电有限公司","typeName":null,"infoStatusName":null,"dateDay":null,"orgNos":null,"nowTime":null,"countyName":null,"streetName":null,"villageName":null,"roadName":null,"communityName":null,"tranName":null,"sdLineName":null,"cityCode":"3340130","cityName":"国网浙江杭州市萧山区供电有限公司","provinceCode":null,"stopTime":"2019-10-03 17:40:00","powerType":"全部","powerOffArea":"110kV沿塘变:陈家C327线-陈家园村1#变台区低压开关","powerOffReason":"（低压停电信息）低压漏电保护器短路故障","powerOffId":"2019100331020142"},{"poweroffId":2019100331020118,"sgpoweroffId":null,"subsName":"","lineName":"10kV彭家D342线","pubTranName":"彭家村6#下街公变,杭州蓝宇建筑材料有限公司2,中国电信股份有限公司富阳分公司1#变,杭州市富阳区万市镇人民政府,彭家村11#渚源汤家坞公变,彭家村12#外渚源公变,彭家村7#李家公变,何家村11号农居点公变,何家村10号子皮山公变,彭家村8#上街公变,杭州富阳腾飞锻造有限公司,何家村7#小城坎公变,彭家村18号方家公变,何家村4#新桥头公变,何家村9#龙王坎公变,何家村2#花家庙公变,何家村1#太平桥公变,彭家村9#高白塘公变,富阳市南新富财石粉厂,彭家村13#太山坞公变,富阳市水务有限公司,何家村6#朱坞里公变,何家村3#潘家公变,彭家村14#新村公变,彭家村10#大礼堂公变,何家村5#何家公变,晨虹化工,何家村8#前家庄公变,彭家村17#路下丘公变,","scope":"浙江省-杭州市-富阳区-万市镇-白石行政村-唐家桥自然村,万市镇-彭家行政村(何家自然村,渚源自然村,高白塘自然村,彭家自然村,汤家坞自然村,多福寺自然村,渚源坞自然村,外渚源坞自然村,太山坞自然村,李家自然村,午目里自然村,洪家自然村,方家自然村,张家自然村,东叙自然村),万市镇-何家行政村(外朱坞自然村,全家庄自然村,邵家自然村,何家自然村,里朱坞自然村,新桥头自然村,梨树坞自然村,柿塘坞自然村,花家庙自然村,新坞里自然村,张家自然村,小城坎自然村,王家自然村,潘家自然村,金竹山自然村);万市镇-彭家行政村(杭州富阳腾飞锻造有限公司,中国电信股份有限公司富阳分公司,杭州富阳南新富财石粉厂),万市镇-何家行政村(富阳市晨虹化工包装制品厂,杭州富阳水务有限公司)","startTime":"2019-10-03 13:59:15","stopDate":"2019-10-03 14:59:15","orgNo":"3340170","typeCode":"电网故障停限电","poweroffArea":"110kV万市变:彭家D342线-彭家D342线187#杆分段开关后段","poweroffReason":"高压开关跳闸 原停电结束时间为2019-10-03 15:59:15,为减少客户停电时间,加快工作进度,提前送电,现变更停电结束时间为2019-10-03 14:59:15","powerTime":"2019-10-03 14:24:02","powerComm":"已送电","subsNo":"","lineNo":"","tgNo":"","tgName":null,"infoStatus":"1","orgName":"国网浙江杭州市富阳区供电公司","typeName":null,"infoStatusName":null,"dateDay":null,"orgNos":null,"nowTime":null,"countyName":null,"streetName":null,"villageName":null,"roadName":null,"communityName":null,"tranName":null,"sdLineName":null,"cityCode":"3340170","cityName":"国网浙江杭州市富阳区供电公司","provinceCode":null,"stopTime":"2019-10-03 14:59:15","powerType":"全部","powerOffArea":"110kV万市变:彭家D342线-彭家D342线187#杆分段开关后段","powerOffReason":"高压开关跳闸 原停电结束时间为2019-10-03 15:59:15,为减少客户停电时间,加快工作进度,提前送电,现变更停电结束时间为2019-10-03 14:59:15","powerOffId":"2019100331020118"},{"poweroffId":2019100331020113,"sgpoweroffId":null,"subsName":"","lineName":"10kV欢潭A354线","pubTranName":"新江村1#变,","scope":"浙江省-杭州市-萧山区-进化镇-新江行政村-泥桥头自然村，浙江省杭州市萧山区进化镇新江行政村泥桥头自然村一带","startTime":"2019-10-03 13:43:43","stopDate":"2019-10-03 15:50:43","orgNo":"3340130","typeCode":"电网故障停限电","poweroffArea":"110kV进化变:欢潭A354线-新江村1#变台区低压开关","poweroffReason":"(低压停电信息)低压熔断器短路故障","powerTime":"2019-10-03 15:00:06","powerComm":"已送电","subsNo":"","lineNo":"","tgNo":"","tgName":null,"infoStatus":"1","orgName":"国网浙江杭州市萧山区供电有限公司","typeName":null,"infoStatusName":null,"dateDay":null,"orgNos":null,"nowTime":null,"countyName":null,"streetName":null,"villageName":null,"roadName":null,"communityName":null,"tranName":null,"sdLineName":null,"cityCode":"3340130","cityName":"国网浙江杭州市萧山区供电有限公司","provinceCode":null,"stopTime":"2019-10-03 15:50:43","powerType":"全部","powerOffArea":"110kV进化变:欢潭A354线-新江村1#变台区低压开关","powerOffReason":"(低压停电信息)低压熔断器短路故障","powerOffId":"2019100331020113"},{"poweroffId":2019100331020104,"sgpoweroffId":null,"subsName":"","lineName":"10kV仓前H711线","pubTranName":"溪塔村蔡家公变,城北农居点公变,镇农办2#,溪塔水泵房,太炎小学北校区,溪塔村闻家公变,溪塔村章王公变,超裕电讯(2),余杭二中,顺帆2#,杭氧机电设备,顺帆1#,通北路基建变,15省道路灯,溪塔村王家组公变,S15路灯变(1),上湖村城北机埠公变,镇农办1#,创浙屠宰变,","scope":"浙江省-杭州市-余杭区-余杭街道-上湖行政村-上湖自然村,余杭街道-溪塔行政村(溪塔自然村,溪塔村,章王自然村);余杭街道-溪塔行政村(杭州飞拓建材科技有限公司,杭州余杭粮油加工有限公司,浙江瑞华建设有限公司,杭州凯润机械制造有限公司,杭州余杭城西净水有限公司,杭州市余杭区公路管理处,杭州市余杭区太炎中学),余杭街道(义桥行政村-杭州市余杭区余杭镇人民政府,上湖行政村-杭州顺帆化学有限公司,凤联社区-杭州创浙畜禽屠宰有限公司,通济社区-杭州市余杭区人民政府余杭街道办事处)一带","startTime":"2019-10-03 13:00:00","stopDate":"2019-10-03 15:00:00","orgNo":"3340140","typeCode":"电网故障停限电","poweroffArea":"110kV余杭变:仓前H711线首端，仓前H7111开关，仓前H7110开关之间","poweroffReason":"高压开关跳闸","powerTime":"2019-10-03 14:05:00","powerComm":"已送电","subsNo":"","lineNo":"","tgNo":"","tgName":null,"infoStatus":"1","orgName":"国网浙江杭州市余杭区供电有限公司","typeName":null,"infoStatusName":null,"dateDay":null,"orgNos":null,"nowTime":null,"countyName":null,"streetName":null,"villageName":null,"roadName":null,"communityName":null,"tranName":null,"sdLineName":null,"cityCode":"3340140","cityName":"国网浙江杭州市余杭区供电有限公司","provinceCode":null,"stopTime":"2019-10-03 15:00:00","powerType":"全部","powerOffArea":"110kV余杭变:仓前H711线首端，仓前H7111开关，仓前H7110开关之间","powerOffReason":"高压开关跳闸","powerOffId":"2019100331020104"},{"poweroffId":2019100331020097,"sgpoweroffId":null,"subsName":"","lineName":"10kV凤潭Y340线","pubTranName":"乾潭村七星坞台区,","scope":"浙江省-杭州市-建德市 乾潭镇 乾潭村七星坞自然村一带用户","startTime":"2019-10-03 11:58:00","stopDate":"2019-10-03 14:00:00","orgNo":"3340180","typeCode":"电网故障停限电","poweroffArea":"110kV钦堂变:凤潭Y340线乾潭村七星坞台区断路器配变","poweroffReason":"(低压停电信息)低压开关跳闸","powerTime":"2019-10-03 13:40:00","powerComm":"已送电","subsNo":"","lineNo":"","tgNo":"","tgName":null,"infoStatus":"1","orgName":"国网浙江建德市供电有限公司","typeName":null,"infoStatusName":null,"dateDay":null,"orgNos":null,"nowTime":null,"countyName":null,"streetName":null,"villageName":null,"roadName":null,"communityName":null,"tranName":null,"sdLineName":null,"cityCode":"3340180","cityName":"国网浙江建德市供电有限公司","provinceCode":null,"stopTime":"2019-10-03 14:00:00","powerType":"全部","powerOffArea":"110kV钦堂变:凤潭Y340线乾潭村七星坞台区断路器配变","powerOffReason":"(低压停电信息)低压开关跳闸","powerOffId":"2019100331020097"},{"poweroffId":2019100331020076,"sgpoweroffId":null,"subsName":"","lineName":"10kV鸿雁H802线","pubTranName":"西溪湿地1#路灯,荆丰村大寨桥,顾家桥村永兴,五常路灯1,五常卫生院,","scope":"浙江省-杭州市-余杭区-五常街道-顾家桥行政村-顾家桥自然村;五常街道-五常社区(杭州西溪国家湿地公园三期工程有限公司,杭州市余杭区五常街道社区卫生服务中心,杭州市余杭区人民政府五常街道办事处)一带","startTime":"2019-10-03 10:16:26","stopDate":"2019-10-03 12:16:26","orgNo":"3340140","typeCode":"电网故障停限电","poweroffArea":"110kV油车变:鸿雁H802线-大寨桥分线开关后段","poweroffReason":"高压开关跳闸","powerTime":"2019-10-03 11:42:55","powerComm":"已送电","subsNo":"","lineNo":"","tgNo":"","tgName":null,"infoStatus":"1","orgName":"国网浙江杭州市余杭区供电有限公司","typeName":null,"infoStatusName":null,"dateDay":null,"orgNos":null,"nowTime":null,"countyName":null,"streetName":null,"villageName":null,"roadName":null,"communityName":null,"tranName":null,"sdLineName":null,"cityCode":"3340140","cityName":"国网浙江杭州市余杭区供电有限公司","provinceCode":null,"stopTime":"2019-10-03 12:16:26","powerType":"全部","powerOffArea":"110kV油车变:鸿雁H802线-大寨桥分线开关后段","powerOffReason":"高压开关跳闸","powerOffId":"2019100331020076"},{"poweroffId":2019100331020058,"sgpoweroffId":null,"subsName":"","lineName":"10kV仪表6739线","pubTranName":"庆综2#,金宿,红雷,微研1#,庆综1#,双冠光仪2#,罗马（一）,文艺双路内部二2#,双冠光仪2#,仪宿,警宿,仪宿(3),景鸿天波2#,文艺双路内部二1#,交转1#,双冠光仪1#,广播,杭州科硕曼酒店有限公司,邮讯,罗马（三）,景鸿天波1#,教育发展中心1#,文艺双路内部一,","scope":"浙江省-杭州市-西湖区-翠苑街道-黄姑山社区(黄姑山路,天目山路曲荷巷,天目山路,学院路),翠苑街道-九莲社区(天目山路曲荷巷,教工路,天目山路,学院路),翠苑街道-保亭社区-黄姑山路,西溪街道-文天社区-天目山路;浙江省-杭州市-西湖区-西溪街道-文天社区-中国电信股份有限公司杭州分公司,翠苑街道-黄姑山社区(杭州五鑫宾馆有限公司,杭州高新东方科技园有限公司,杭州景鸿房地产开发有限公司),古荡街道-皇姑山社区(杭州科硕曼酒店有限公司,浙江天科高新技术发展有限公司),古荡街道(古荡社区-交通运输部杭州疗养院,嘉绿苑社区-浙江耀江物业管理有限公司),翠苑街道(古荡湾社区-杭州世贸西湖四季艺联都市酒店有限公司,双冠控股集团有限公司)","startTime":"2019-10-03 09:25:39","stopDate":"2019-10-03 10:00:39","orgNo":"3340101","typeCode":"电网故障停限电","poweroffArea":"110kV黄体变:仪表6739线","poweroffReason":"高压开关跳闸 原停电结束时间为2019-10-03 15:25:39,为减少客户停电时间,加快工作进度,提前送电,现变更停电结束时间为2019-10-03 10:00:39","powerTime":"2019-10-03 09:40:35","powerComm":"已送电","subsNo":"","lineNo":"","tgNo":"","tgName":null,"infoStatus":"1","orgName":"浙江杭州电力客户服务中心","typeName":null,"infoStatusName":null,"dateDay":null,"orgNos":null,"nowTime":null,"countyName":null,"streetName":null,"villageName":null,"roadName":null,"communityName":null,"tranName":null,"sdLineName":null,"cityCode":"3340101","cityName":"浙江杭州电力客户服务中心","provinceCode":null,"stopTime":"2019-10-03 10:00:39","powerType":"全部","powerOffArea":"110kV黄体变:仪表6739线","powerOffReason":"高压开关跳闸 原停电结束时间为2019-10-03 15:25:39,为减少客户停电时间,加快工作进度,提前送电,现变更停电结束时间为2019-10-03 10:00:39","powerOffId":"2019100331020058"}],"pageModel":{"pageNow":1041,"totalCount":17789,"totalPage":1779,"tableRows":0,"pageCount":10,"beginCount":10400},"isExperi":"1"}