{"message":"","today":"2020-06-15","seleList":[{"poweroffId":2020052431020155,"sgpoweroffId":null,"subsName":"","lineName":"10kV怡合T199线","pubTranName":"外范1号公变,","scope":"浙江省-杭州市-桐庐县-分水镇-外范行政村-外范家自然村9组","startTime":"2020-05-24 19:00:21","stopDate":"2020-05-24 22:00:21","orgNo":"3340150","typeCode":"电网故障停限电","poweroffArea":"35kV合村变:怡合T199线-外范1号公变后段","poweroffReason":"(低压停电信息)低压开关跳闸","powerTime":"2020-05-24 21:30:46","powerComm":"已送电","subsNo":"","lineNo":"","tgNo":"","tgName":null,"infoStatus":"1","orgName":"国网浙江桐庐县供电公司","typeName":null,"infoStatusName":null,"dateDay":null,"orgNos":null,"nowTime":null,"countyName":null,"streetName":null,"villageName":null,"roadName":null,"communityName":null,"tranName":null,"sdLineName":null,"cityCode":"3340150","cityName":"国网浙江桐庐县供电公司","provinceCode":null,"stopTime":"2020-05-24 22:00:21","powerType":"全部","powerOffArea":"35kV合村变:怡合T199线-外范1号公变后段","powerOffReason":"(低压停电信息)低压开关跳闸","powerOffId":"2020052431020155"},{"poweroffId":2020052431020136,"sgpoweroffId":null,"subsName":"","lineName":"10kV先申A223线","pubTranName":"沿江村3#变,","scope":"浙江省-杭州市-萧山区-新街镇、新街街道(盈中行政村-盈中自然村,沿江行政村-沿江自然村)等一带","startTime":"2020-05-24 17:10:45","stopDate":"2020-05-24 18:25:45","orgNo":"3340130","typeCode":"电网故障停限电","poweroffArea":"110kV先锋变:先申A223线-沿江村3#变台区低压开关","poweroffReason":"（低压停电信息）低压漏电保护器短路故障 原停电结束时间为2020-05-24 19:10:45,为减少客户停电时间,加快工作进度,提前送电,现变更停电结束时间为2020-05-24 18:25:45","powerTime":"2020-05-24 17:30:19","powerComm":"已送电","subsNo":"","lineNo":"","tgNo":"","tgName":null,"infoStatus":"1","orgName":"国网浙江杭州市萧山区供电有限公司","typeName":null,"infoStatusName":null,"dateDay":null,"orgNos":null,"nowTime":null,"countyName":null,"streetName":null,"villageName":null,"roadName":null,"communityName":null,"tranName":null,"sdLineName":null,"cityCode":"3340130","cityName":"国网浙江杭州市萧山区供电有限公司","provinceCode":null,"stopTime":"2020-05-24 18:25:45","powerType":"全部","powerOffArea":"110kV先锋变:先申A223线-沿江村3#变台区低压开关","powerOffReason":"（低压停电信息）低压漏电保护器短路故障 原停电结束时间为2020-05-24 19:10:45,为减少客户停电时间,加快工作进度,提前送电,现变更停电结束时间为2020-05-24 18:25:45","powerOffId":"2020052431020136"},{"poweroffId":2020052431020134,"sgpoweroffId":null,"subsName":"","lineName":"10kV石瑞V134线","pubTranName":"朱白大湾口,朱白村横路,石坦村.半坞,朱白村庵里,朱白村吉建,朱白村,石坦村,","scope":"浙江省-杭州市-临安市-昌化镇-朱白行政村(朱白自然村,大湾口自然村,石坦自然村,吉建自然村,半坞自然村)","startTime":"2020-05-24 16:46:00","stopDate":"2020-05-24 22:00:00","orgNo":"3340160","typeCode":"电网故障停限电","poweroffArea":"110kV昌化变:石瑞V134线石坦分线开关后段","poweroffReason":"高压开关跳闸 原停电结束时间为2020-05-24 20:46:00,因天气原因,延迟送电,现变更停电结束时间为2020-05-24 22:00:00","powerTime":"2020-05-24 21:06:34","powerComm":"已送电","subsNo":"","lineNo":"","tgNo":"","tgName":null,"infoStatus":"1","orgName":"国网浙江临安市供电公司","typeName":null,"infoStatusName":null,"dateDay":null,"orgNos":null,"nowTime":null,"countyName":null,"streetName":null,"villageName":null,"roadName":null,"communityName":null,"tranName":null,"sdLineName":null,"cityCode":"3340160","cityName":"国网浙江临安市供电公司","provinceCode":null,"stopTime":"2020-05-24 22:00:00","powerType":"全部","powerOffArea":"110kV昌化变:石瑞V134线石坦分线开关后段","powerOffReason":"高压开关跳闸 原停电结束时间为2020-05-24 20:46:00,因天气原因,延迟送电,现变更停电结束时间为2020-05-24 22:00:00","powerOffId":"2020052431020134"},{"poweroffId":2020052431020132,"sgpoweroffId":null,"subsName":"","lineName":"10kV宅前T125线","pubTranName":"浙江桐庐百草园中药材开发有限公司,石塘下3号公变,石塘下1号公变,石塘下2号公变,","scope":"浙江省-杭州市-桐庐县-富春江镇-孝门行政村-石塘下自然村;富春江镇-浙江桐庐百草园中药材开发有限公司","startTime":"2020-05-24 16:32:32","stopDate":"2020-05-24 18:32:32","orgNo":"3340150","typeCode":"电网故障停限电","poweroffArea":"110kV外董变:宅前T125线金家F8065智能开关后段","poweroffReason":"高压开关跳闸","powerTime":"2020-05-24 18:03:10","powerComm":"已送电","subsNo":"","lineNo":"","tgNo":"","tgName":null,"infoStatus":"1","orgName":"国网浙江桐庐县供电公司","typeName":null,"infoStatusName":null,"dateDay":null,"orgNos":null,"nowTime":null,"countyName":null,"streetName":null,"villageName":null,"roadName":null,"communityName":null,"tranName":null,"sdLineName":null,"cityCode":"3340150","cityName":"国网浙江桐庐县供电公司","provinceCode":null,"stopTime":"2020-05-24 18:32:32","powerType":"全部","powerOffArea":"110kV外董变:宅前T125线金家F8065智能开关后段","powerOffReason":"高压开关跳闸","powerOffId":"2020052431020132"},{"poweroffId":2020052431020096,"sgpoweroffId":null,"subsName":"","lineName":"10kV宅里T330线","pubTranName":"宅里大户里1号公变,桐庐明凯农业开发有限公司,宅里1号公变,桐庐县横村村镇建设开发有限公司变压器,宅里村2号公变,孙家村外星屋,孙家郭居山1号公变,1#专变,翠坪1号公变,宅里后门凸1号公变,","scope":"浙江省-杭州市-桐庐县-瑶琳镇-潘联行政村-翠坪自然村,横村镇-孙家行政村(郭居山自然村,孙家自然村,泥墙坞自然村),横村镇-宅里行政村(宅里自然村,后门凸自然村,大户里自然村,中畈里自然村);横村镇(孙家村外星屋,桐庐明凯农业开发有限公司,桐庐县横村村镇建设开发有限公司)","startTime":"2020-05-24 14:30:00","stopDate":"2020-05-24 18:30:00","orgNo":"3340150","typeCode":"电网故障停限电","poweroffArea":"110kV横村变:宅里T330线宅里T3303智能开关后段","poweroffReason":"高压开关跳闸","powerTime":"2020-05-24 18:00:34","powerComm":"已送电","subsNo":"","lineNo":"","tgNo":"","tgName":null,"infoStatus":"1","orgName":"国网浙江桐庐县供电公司","typeName":null,"infoStatusName":null,"dateDay":null,"orgNos":null,"nowTime":null,"countyName":null,"streetName":null,"villageName":null,"roadName":null,"communityName":null,"tranName":null,"sdLineName":null,"cityCode":"3340150","cityName":"国网浙江桐庐县供电公司","provinceCode":null,"stopTime":"2020-05-24 18:30:00","powerType":"全部","powerOffArea":"110kV横村变:宅里T330线宅里T3303智能开关后段","powerOffReason":"高压开关跳闸","powerOffId":"2020052431020096"},{"poweroffId":2020052431020093,"sgpoweroffId":null,"subsName":"","lineName":"10kV肇和H436线","pubTranName":"东塘河村金家抖2号公变,东塘河村金家抖公变,东塘河村东洋村北公变,","scope":"浙江省-杭州市-余杭区-良渚街道-东塘河行政村-吴家桥自然村","startTime":"2020-05-24 14:00:00","stopDate":"2020-05-24 16:00:00","orgNo":"3340140","typeCode":"电网故障停限电","poweroffArea":"110kV勾庄变:肇和H436线金家角分线开关后段","poweroffReason":"高压开关跳闸","powerTime":"2020-05-24 15:52:00","powerComm":"已送电","subsNo":"","lineNo":"","tgNo":"","tgName":null,"infoStatus":"1","orgName":"国网浙江杭州市余杭区供电有限公司","typeName":null,"infoStatusName":null,"dateDay":null,"orgNos":null,"nowTime":null,"countyName":null,"streetName":null,"villageName":null,"roadName":null,"communityName":null,"tranName":null,"sdLineName":null,"cityCode":"3340140","cityName":"国网浙江杭州市余杭区供电有限公司","provinceCode":null,"stopTime":"2020-05-24 16:00:00","powerType":"全部","powerOffArea":"110kV勾庄变:肇和H436线金家角分线开关后段","powerOffReason":"高压开关跳闸","powerOffId":"2020052431020093"},{"poweroffId":2020052431020088,"sgpoweroffId":null,"subsName":"","lineName":"10kV东钱A670线","pubTranName":"新盛村17#变,","scope":"浙江省-杭州市-萧山区-新街镇、新街街道-新盛行政村-新盛自然村等一带","startTime":"2020-05-24 13:47:00","stopDate":"2020-05-24 15:47:00","orgNo":"3340130","typeCode":"电网故障停限电","poweroffArea":"110kV东霖变:东钱A670线新盛村17#变配变","poweroffReason":"(低压停电信息)低压开关跳闸","powerTime":"2020-05-24 15:02:04","powerComm":"已送电","subsNo":"","lineNo":"","tgNo":"","tgName":null,"infoStatus":"1","orgName":"国网浙江杭州市萧山区供电有限公司","typeName":null,"infoStatusName":null,"dateDay":null,"orgNos":null,"nowTime":null,"countyName":null,"streetName":null,"villageName":null,"roadName":null,"communityName":null,"tranName":null,"sdLineName":null,"cityCode":"3340130","cityName":"国网浙江杭州市萧山区供电有限公司","provinceCode":null,"stopTime":"2020-05-24 15:47:00","powerType":"全部","powerOffArea":"110kV东霖变:东钱A670线新盛村17#变配变","powerOffReason":"(低压停电信息)低压开关跳闸","powerOffId":"2020052431020088"},{"poweroffId":2020052431020086,"sgpoweroffId":null,"subsName":"","lineName":"10kV东钱A670线","pubTranName":"新盛村17#变,","scope":"浙江省-杭州市-萧山区-新街镇、新街街道-新盛行政村-新盛自然村等一带","startTime":"2020-05-24 13:45:20","stopDate":"2020-05-24 16:05:20","orgNo":"3340130","typeCode":"电网故障停限电","poweroffArea":"110kV东霖变:东钱A670线-新盛村17#变台区低压开关","poweroffReason":"(低压停电信息)低压开关跳闸","powerTime":"2020-05-24 15:07:25","powerComm":"已送电","subsNo":"","lineNo":"","tgNo":"","tgName":null,"infoStatus":"1","orgName":"国网浙江杭州市萧山区供电有限公司","typeName":null,"infoStatusName":null,"dateDay":null,"orgNos":null,"nowTime":null,"countyName":null,"streetName":null,"villageName":null,"roadName":null,"communityName":null,"tranName":null,"sdLineName":null,"cityCode":"3340130","cityName":"国网浙江杭州市萧山区供电有限公司","provinceCode":null,"stopTime":"2020-05-24 16:05:20","powerType":"全部","powerOffArea":"110kV东霖变:东钱A670线-新盛村17#变台区低压开关","powerOffReason":"(低压停电信息)低压开关跳闸","powerOffId":"2020052431020086"},{"poweroffId":2020052431020080,"sgpoweroffId":null,"subsName":"","lineName":"10kV启东0313线","pubTranName":"河庄街道13#变,","scope":"浙江省-杭州市-萧山区-河庄街道(闸北行政村-闸北自然村,文伟行政村-文伟自然村,新围行政村-新围自然村)","startTime":"2020-05-24 12:56:37","stopDate":"2020-05-24 15:25:37","orgNo":"3340120","typeCode":"电网故障停限电","poweroffArea":"110kV启江变:启东0313线-河庄街道13#变后段","poweroffReason":"(低压停电信息)低压开关跳闸","powerTime":"2020-05-24 14:38:15","powerComm":"已送电","subsNo":"","lineNo":"","tgNo":"","tgName":null,"infoStatus":"1","orgName":"国网浙江杭州市钱塘新区供电公司","typeName":null,"infoStatusName":null,"dateDay":null,"orgNos":null,"nowTime":null,"countyName":null,"streetName":null,"villageName":null,"roadName":null,"communityName":null,"tranName":null,"sdLineName":null,"cityCode":"3340120","cityName":"国网浙江杭州市钱塘新区供电公司","provinceCode":null,"stopTime":"2020-05-24 15:25:37","powerType":"全部","powerOffArea":"110kV启江变:启东0313线-河庄街道13#变后段","powerOffReason":"(低压停电信息)低压开关跳闸","powerOffId":"2020052431020080"},{"poweroffId":2020052431020070,"sgpoweroffId":null,"subsName":"","lineName":"10kV贤德D333线","pubTranName":"贤德村11#赤山坞公变,","scope":"浙江省-杭州市-富阳区-洞桥镇-贤德行政村(何村坞自然村,吕公自然村,农居点自然村,罗家坞自然村,宜桥头自然村,中塘寺自然村,黄家自然村)","startTime":"2020-05-24 11:41:18","stopDate":"2020-05-24 14:00:18","orgNo":"3340170","typeCode":"电网故障停限电","poweroffArea":"110kV万市变:贤德D333线-贤德村11#赤山坞公变后段","poweroffReason":"高压开关跳闸","powerTime":"2020-05-24 13:01:01","powerComm":"已送电","subsNo":"","lineNo":"","tgNo":"","tgName":null,"infoStatus":"1","orgName":"国网浙江杭州市富阳区供电公司","typeName":null,"infoStatusName":null,"dateDay":null,"orgNos":null,"nowTime":null,"countyName":null,"streetName":null,"villageName":null,"roadName":null,"communityName":null,"tranName":null,"sdLineName":null,"cityCode":"3340170","cityName":"国网浙江杭州市富阳区供电公司","provinceCode":null,"stopTime":"2020-05-24 14:00:18","powerType":"全部","powerOffArea":"110kV万市变:贤德D333线-贤德村11#赤山坞公变后段","powerOffReason":"高压开关跳闸","powerOffId":"2020052431020070"}],"pageModel":{"pageNow":105,"totalCount":17786,"totalPage":1779,"tableRows":0,"pageCount":10,"beginCount":1040},"isExperi":"1"}