{"message":"","today":"2020-06-16","seleList":[{"poweroffId":2019100131020082,"sgpoweroffId":null,"subsName":"","lineName":"10kV寿镇Y183线","pubTranName":"寿昌集镇雅居公变,","scope":"浙江省-杭州市-建德市-寿昌镇-西湖社区中山路,溪边路,湖滨路 望江社区 梅家巷,湖心巷,建国路,中山路,城北自然村,湖滨路 西门行政村 中山路,城中行政村 建国路,东昌社区 中山路一带用户","startTime":"2019-10-01 06:26:00","stopDate":"2019-10-01 07:30:00","orgNo":"3340180","typeCode":"电网故障停限电","poweroffArea":"35kV河南里变:寿镇Y183线-寿昌集镇雅居公变后段","poweroffReason":"(低压停电信息)低压开关跳闸 原停电结束时间为2019-10-01 08:40:00,为减少客户停电时间,加快工作进度,提前送电,现变更停电结束时间为2019-10-01 07:30:00","powerTime":"2019-10-01 07:00:00","powerComm":"已送电","subsNo":"","lineNo":"","tgNo":"","tgName":null,"infoStatus":"1","orgName":"国网浙江建德市供电有限公司","typeName":null,"infoStatusName":null,"dateDay":null,"orgNos":null,"nowTime":null,"countyName":null,"streetName":null,"villageName":null,"roadName":null,"communityName":null,"tranName":null,"sdLineName":null,"cityCode":"3340180","cityName":"国网浙江建德市供电有限公司","provinceCode":null,"stopTime":"2019-10-01 07:30:00","powerType":"全部","powerOffArea":"35kV河南里变:寿镇Y183线-寿昌集镇雅居公变后段","powerOffReason":"(低压停电信息)低压开关跳闸 原停电结束时间为2019-10-01 08:40:00,为减少客户停电时间,加快工作进度,提前送电,现变更停电结束时间为2019-10-01 07:30:00","powerOffId":"2019100131020082"},{"poweroffId":2019100131020068,"sgpoweroffId":null,"subsName":"","lineName":"10kV双菱6469线","pubTranName":"汽机,回桥,成套,采杭,","scope":"浙江省-杭州市-江干区-四季青街道-定海社区(杭州,杭海路,乌龙庙),采荷街道(夕照社区-杭海路-,双菱社区-采荷路);采荷街道-杭州长成电器设备有限公司,四季青街道-杭州华日电冰箱股份有限公司","startTime":"2019-10-01 06:08:00","stopDate":"2019-10-01 10:40:00","orgNo":"3340101","typeCode":"电网故障停限电","poweroffArea":"110kV五福变:双菱6469线花塘站采杭分线后段","poweroffReason":"高压开关跳闸 原停电结束时间为2019-10-01 12:08:00,为减少客户停电时间,加快工作进度,提前送电,现变更停电结束时间为2019-10-01 10:40:00","powerTime":"2019-10-01 10:15:18","powerComm":"已送电","subsNo":"","lineNo":"","tgNo":"","tgName":null,"infoStatus":"1","orgName":"浙江杭州电力客户服务中心","typeName":null,"infoStatusName":null,"dateDay":null,"orgNos":null,"nowTime":null,"countyName":null,"streetName":null,"villageName":null,"roadName":null,"communityName":null,"tranName":null,"sdLineName":null,"cityCode":"3340101","cityName":"浙江杭州电力客户服务中心","provinceCode":null,"stopTime":"2019-10-01 10:40:00","powerType":"全部","powerOffArea":"110kV五福变:双菱6469线花塘站采杭分线后段","powerOffReason":"高压开关跳闸 原停电结束时间为2019-10-01 12:08:00,为减少客户停电时间,加快工作进度,提前送电,现变更停电结束时间为2019-10-01 10:40:00","powerOffId":"2019100131020068"},{"poweroffId":2019100131020064,"sgpoweroffId":null,"subsName":"","lineName":"10kV江警6473线","pubTranName":"水湘苑五变,","scope":"浙江省-杭州市-江干区(凯旋街道-景华社区-昙花庵路,四季青街道-水湘社区-杭州)","startTime":"2019-10-01 06:04:39","stopDate":"2019-10-01 06:58:39","orgNo":"3340101","typeCode":"电网故障停限电","poweroffArea":"110kV五福变:江警6473线-水湘苑五变后段","poweroffReason":"高压开关跳闸 原停电结束时间为2019-10-01 12:04:39,为减少客户停电时间,加快工作进度,提前送电,现变更停电结束时间为2019-10-01 06:58:39","powerTime":"2019-10-01 06:18:11","powerComm":"已送电","subsNo":"","lineNo":"","tgNo":"","tgName":null,"infoStatus":"1","orgName":"浙江杭州电力客户服务中心","typeName":null,"infoStatusName":null,"dateDay":null,"orgNos":null,"nowTime":null,"countyName":null,"streetName":null,"villageName":null,"roadName":null,"communityName":null,"tranName":null,"sdLineName":null,"cityCode":"3340101","cityName":"浙江杭州电力客户服务中心","provinceCode":null,"stopTime":"2019-10-01 06:58:39","powerType":"全部","powerOffArea":"110kV五福变:江警6473线-水湘苑五变后段","powerOffReason":"高压开关跳闸 原停电结束时间为2019-10-01 12:04:39,为减少客户停电时间,加快工作进度,提前送电,现变更停电结束时间为2019-10-01 06:58:39","powerOffId":"2019100131020064"},{"poweroffId":2019100131020029,"sgpoweroffId":null,"subsName":"","lineName":"10kV江警6473线","pubTranName":"金骏房地产1#,湘西三变,运园九变,水湘东苑一变,02,老年活动中心1#,运园一变,水湘南苑一变,杭州市城市建设发展有限公司1,中豪湘座2#,02,1#,运园二变,运园八变,湘西十一变,德华工贸有限公司1#,湘西一变,运园十变,运园十一变,运园五变,宋都房产双路内部一,三堡北苑三变,德华工贸有限公司2#,水湘苑五变,运园四变,运园七变,运园三变,水湘东苑三变,水湘东苑五变,湘西七变,运园六变,运河综合保护开发,三堡北苑一变,水湘南苑三变,湘西五变,水湘东苑七变,湘西九变,杭州市钱江新城建设指挥部1,","scope":"浙江省-杭州市-江干区-四季青街道-定海社区-庆春东路钱江璐,四季青街道-三堡社区(太平门直街,杭州),四季青街道-水湘社区(杭州,昙花庵路,三新路),误彭埠镇-误新塘社区(严家弄,杭州,严家弄路),凯旋街道-景华社区(昙花庵路,凯旋路);四季青街道-三叉社区(杭州欧凯假日大酒店有限公司,杭州瑞滨物业管理有限公司),四季青街道-水湘社区(杭州市景华中学,杭州越华物业管理有限公司),凯旋街道-景昙社区(杭州市运河综合保护开发建设集团有限责任公司,杭州事润贸易有限公司),四季青街道(钱江苑社区-杭州军绿物业管理有限公司,三堡社区-杭州市景和小学),误彭埠镇-误彭埠社区-浙江广厦物业管理有限公司,凯旋街道-景华社区-杭州城发资产经营管理有限公司","startTime":"2019-10-01 04:13:32","stopDate":"2019-10-01 06:13:32","orgNo":"3340101","typeCode":"电网故障停限电","poweroffArea":"110kV五福变:江警6473线","poweroffReason":"高压开关跳闸 原停电结束时间为2019-10-01 08:13:32,为减少客户停电时间,加快工作进度,提前送电,现变更停电结束时间为2019-10-01 06:13:32","powerTime":"2019-10-01 05:47:51","powerComm":"已送电","subsNo":"","lineNo":"","tgNo":"","tgName":null,"infoStatus":"1","orgName":"浙江杭州电力客户服务中心","typeName":null,"infoStatusName":null,"dateDay":null,"orgNos":null,"nowTime":null,"countyName":null,"streetName":null,"villageName":null,"roadName":null,"communityName":null,"tranName":null,"sdLineName":null,"cityCode":"3340101","cityName":"浙江杭州电力客户服务中心","provinceCode":null,"stopTime":"2019-10-01 06:13:32","powerType":"全部","powerOffArea":"110kV五福变:江警6473线","powerOffReason":"高压开关跳闸 原停电结束时间为2019-10-01 08:13:32,为减少客户停电时间,加快工作进度,提前送电,现变更停电结束时间为2019-10-01 06:13:32","powerOffId":"2019100131020029"},{"poweroffId":2019093031020460,"sgpoweroffId":null,"subsName":"","lineName":"10kV李家Y677线","pubTranName":"劳村村路南台区,","scope":"浙江省-杭州市-建德市-大同镇-寻芳行政村-兴隆庙自然村,大同镇-劳村行政村 城南西路,城南路,路南自然村,西门自然村,城南东路95号,城南东路一带用户","startTime":"2019-09-30 23:22:00","stopDate":"2019-10-01 00:40:00","orgNo":"3340180","typeCode":"电网故障停限电","poweroffArea":"110kV大同变:李家Y677线-劳村村路南台区后段","poweroffReason":"(低压停电信息)低压开关跳闸 原停电结束时间为2019-10-01 02:30:00,为减少客户停电时间,加快工作进度,提前送电,现变更停电结束时间为2019-10-01 00:40:00","powerTime":"2019-10-01 00:15:00","powerComm":"已送电","subsNo":"","lineNo":"","tgNo":"","tgName":null,"infoStatus":"1","orgName":"国网浙江建德市供电有限公司","typeName":null,"infoStatusName":null,"dateDay":null,"orgNos":null,"nowTime":null,"countyName":null,"streetName":null,"villageName":null,"roadName":null,"communityName":null,"tranName":null,"sdLineName":null,"cityCode":"3340180","cityName":"国网浙江建德市供电有限公司","provinceCode":null,"stopTime":"2019-10-01 00:40:00","powerType":"全部","powerOffArea":"110kV大同变:李家Y677线-劳村村路南台区后段","powerOffReason":"(低压停电信息)低压开关跳闸 原停电结束时间为2019-10-01 02:30:00,为减少客户停电时间,加快工作进度,提前送电,现变更停电结束时间为2019-10-01 00:40:00","powerOffId":"2019093031020460"},{"poweroffId":2019093031020437,"sgpoweroffId":null,"subsName":"","lineName":"10kV大桥V384线","pubTranName":"路灯管理所,路灯管理所,余村[牧家桥2#]公变,浙江杭州鑫富药业股份有限公司,杭州临安湖景绿道建设有限公司1#,余村[牧家桥]公变,临安市公路段储油库,","scope":"浙江省杭州市临安区锦城街道余村居委会(余村自然村,牧家头自然村);临安市路灯管理所,杭州鑫富科技有限公司,临安钱王公路工程有限公司,杭州临安湖景绿道建设有限公司一带","startTime":"2019-10-14 07:30:00","stopDate":"2019-10-14 17:00:00","orgNo":"3340160","typeCode":"计划停电","poweroffArea":"35kV渔村变:大桥V384线","poweroffReason":"新出线路","powerTime":"2019-10-14 16:46:28","powerComm":"已送电","subsNo":"","lineNo":"","tgNo":"","tgName":null,"infoStatus":"1","orgName":"国网浙江临安市供电公司","typeName":null,"infoStatusName":null,"dateDay":null,"orgNos":null,"nowTime":null,"countyName":null,"streetName":null,"villageName":null,"roadName":null,"communityName":null,"tranName":null,"sdLineName":null,"cityCode":"3340160","cityName":"国网浙江临安市供电公司","provinceCode":null,"stopTime":"2019-10-14 17:00:00","powerType":"全部","powerOffArea":"35kV渔村变:大桥V384线","powerOffReason":"新出线路","powerOffId":"2019093031020437"},{"poweroffId":2019093031020436,"sgpoweroffId":null,"subsName":"","lineName":"10kV横溪V492线","pubTranName":"新溪村[陈家山脚2#]公变,","scope":"浙江省杭州市临安区锦城街道新溪桥行政村(陈家山脚自然村,新溪自然村)一带","startTime":"2019-10-17 08:00:00","stopDate":"2019-10-17 12:30:00","orgNo":"3340160","typeCode":"计划停电","poweroffArea":"110kV平山变:横溪V492线-新溪村[陈家山脚2#]公变后段","poweroffReason":"低压改造","powerTime":"2019-10-17 12:10:32","powerComm":"已送电","subsNo":"","lineNo":"","tgNo":"","tgName":null,"infoStatus":"1","orgName":"国网浙江临安市供电公司","typeName":null,"infoStatusName":null,"dateDay":null,"orgNos":null,"nowTime":null,"countyName":null,"streetName":null,"villageName":null,"roadName":null,"communityName":null,"tranName":null,"sdLineName":null,"cityCode":"3340160","cityName":"国网浙江临安市供电公司","provinceCode":null,"stopTime":"2019-10-17 12:30:00","powerType":"全部","powerOffArea":"110kV平山变:横溪V492线-新溪村[陈家山脚2#]公变后段","powerOffReason":"低压改造","powerOffId":"2019093031020436"},{"poweroffId":2019093031020435,"sgpoweroffId":null,"subsName":"","lineName":"10kV鑫富V404线","pubTranName":"浙江杭州鑫富药业股份有限公司,浙江杭州鑫富药业股份有限公司,浙江杭州鑫富药业股份有限公司,浙江杭州鑫富药业股份有限公司,浙江杭州鑫富药业股份有限公司,浙江杭州鑫富药业股份有限公司,浙江杭州鑫富药业股份有限公司,","scope":"浙江省杭州市临安区锦南街道卦畈行政村杭州鑫富科技有限公司一带","startTime":"2019-10-18 09:00:00","stopDate":"2019-10-18 13:30:00","orgNo":"3340160","typeCode":"计划停电","poweroffArea":"110kV秀水变:鑫富V404线","poweroffReason":"缺陷处理","powerTime":"2019-10-18 13:00:30","powerComm":"已送电","subsNo":"","lineNo":"","tgNo":"","tgName":null,"infoStatus":"1","orgName":"国网浙江临安市供电公司","typeName":null,"infoStatusName":null,"dateDay":null,"orgNos":null,"nowTime":null,"countyName":null,"streetName":null,"villageName":null,"roadName":null,"communityName":null,"tranName":null,"sdLineName":null,"cityCode":"3340160","cityName":"国网浙江临安市供电公司","provinceCode":null,"stopTime":"2019-10-18 13:30:00","powerType":"全部","powerOffArea":"110kV秀水变:鑫富V404线","powerOffReason":"缺陷处理","powerOffId":"2019093031020435"},{"poweroffId":2019093031020434,"sgpoweroffId":null,"subsName":"","lineName":"10kV横溪V492线","pubTranName":"新溪村[陈家山脚]公变,","scope":"浙江省杭州市临安区锦城街道新溪桥行政村(新溪自然村,陈家山脚自然村)一带","startTime":"2019-10-18 08:00:00","stopDate":"2019-10-18 12:30:00","orgNo":"3340160","typeCode":"计划停电","poweroffArea":"110kV平山变:横溪V492线-新溪村[陈家山脚]公变后段","poweroffReason":"低压改造","powerTime":"2019-10-18 12:04:46","powerComm":"已送电","subsNo":"","lineNo":"","tgNo":"","tgName":null,"infoStatus":"1","orgName":"国网浙江临安市供电公司","typeName":null,"infoStatusName":null,"dateDay":null,"orgNos":null,"nowTime":null,"countyName":null,"streetName":null,"villageName":null,"roadName":null,"communityName":null,"tranName":null,"sdLineName":null,"cityCode":"3340160","cityName":"国网浙江临安市供电公司","provinceCode":null,"stopTime":"2019-10-18 12:30:00","powerType":"全部","powerOffArea":"110kV平山变:横溪V492线-新溪村[陈家山脚]公变后段","powerOffReason":"低压改造","powerOffId":"2019093031020434"},{"poweroffId":2019093031020418,"sgpoweroffId":null,"subsName":"","lineName":"10kV泥桥G908线","pubTranName":"水西3组3号公变,水西新村1号公变,水西2组4号公变,水西3组5号公变,中国建筑第八工程局有限公司1#,世纪大道1#路灯变,石大线北收费站,水西新村2号公变,银福五金静电公司,水西3组4号公变,水西4组5号公变,余杭区公安分局100永久,水西4组公变,富源水泥制管,水西3组公变,水西3组6号公变,杭州银富五金,水西2组2号公变,水西3组2号公变,水西4组2号公变,水西2组公变,城建石大路基建2#变,水西2组3号公变,","scope":"浙江省-杭州市-余杭区-乔司街道-葛家车行政村-吴家车自然村,乔司街道-和睦桥行政村(八字桥自然村,和顺桥自然村,水东自然村,茅家桥自然村);浙江省-杭州市-余杭区-南苑街道-新城社区-杭州市余杭区城建建设处,乔司街道-和睦桥行政村(杭州余杭银福五金静电电器有限公司,杭州盛明机械设备有限公司),乔司街道(五星行政村-浙江杭浦高速公路有限公司,良熟行政村-中国建筑第八工程局有限公司)","startTime":"2019-09-30 18:07:00","stopDate":"2019-09-30 23:59:00","orgNo":"3340140","typeCode":"电网故障停限电","poweroffArea":"110kV庙港变:泥桥G908线-泥桥G9084开关后段","poweroffReason":"高压开关跳闸(原停电结束时间为2019-09-30 20:30:00,因抢修环境比较复杂,现变更停电结束时间为2019-09-30 23:59:00)","powerTime":"2019-09-30 23:27:45","powerComm":"已送电","subsNo":"","lineNo":"","tgNo":"","tgName":null,"infoStatus":"1","orgName":"国网浙江杭州市余杭区供电有限公司","typeName":null,"infoStatusName":null,"dateDay":null,"orgNos":null,"nowTime":null,"countyName":null,"streetName":null,"villageName":null,"roadName":null,"communityName":null,"tranName":null,"sdLineName":null,"cityCode":"3340140","cityName":"国网浙江杭州市余杭区供电有限公司","provinceCode":null,"stopTime":"2019-09-30 23:59:00","powerType":"全部","powerOffArea":"110kV庙港变:泥桥G908线-泥桥G9084开关后段","powerOffReason":"高压开关跳闸(原停电结束时间为2019-09-30 20:30:00,因抢修环境比较复杂,现变更停电结束时间为2019-09-30 23:59:00)","powerOffId":"2019093031020418"}],"pageModel":{"pageNow":1047,"totalCount":17789,"totalPage":1779,"tableRows":0,"pageCount":10,"beginCount":10460},"isExperi":"1"}