{"message":"","today":"2020-06-16","seleList":[{"poweroffId":2019093031020308,"sgpoweroffId":null,"subsName":"","lineName":"10kV徐坑Y774线","pubTranName":"岭源村后弄台区,","scope":"浙江省-杭州市-建德市-杨村桥镇-岭源行政村 岭脚自然村,后弄自然村一带用户","startTime":"2019-09-30 15:43:00","stopDate":"2019-09-30 18:00:00","orgNo":"3340180","typeCode":"电网故障停限电","poweroffArea":"110kV乾潭变:徐坑Y774线-岭源村后弄台区后段","poweroffReason":"(低压停电信息)低压导线断线","powerTime":"2019-09-30 17:01:00","powerComm":"已送电","subsNo":"","lineNo":"","tgNo":"","tgName":null,"infoStatus":"1","orgName":"国网浙江建德市供电有限公司","typeName":null,"infoStatusName":null,"dateDay":null,"orgNos":null,"nowTime":null,"countyName":null,"streetName":null,"villageName":null,"roadName":null,"communityName":null,"tranName":null,"sdLineName":null,"cityCode":"3340180","cityName":"国网浙江建德市供电有限公司","provinceCode":null,"stopTime":"2019-09-30 18:00:00","powerType":"全部","powerOffArea":"110kV乾潭变:徐坑Y774线-岭源村后弄台区后段","powerOffReason":"(低压停电信息)低压导线断线","powerOffId":"2019093031020308"},{"poweroffId":2019093031020306,"sgpoweroffId":null,"subsName":"","lineName":"10kV泥桥G908线","pubTranName":"水西4组5号公变,城建石大路基建2#变,水西5组5号公变,世纪大道1#路灯变,沪杭高铁2#变,水西5组2号公变,中国建筑第八工程局有限公司1#,水西5组公变,水西4组3号公变,和睦3组5号公变,余杭区公安分局100永久,水西5组4号公变,水西2组公变,水西2组3号公变,泰丰电缆架桥,杭州银富五金,和睦6组公变,水西4组公变,振华家私,和睦新村委公变,汉王装饰,富源水泥制管,和睦1组公变,和睦2组公变,水西4组2号公变,水西3组公变,水西5组3号公变,水西新村1号公变,天海办公,水西4-5组公变,银福五金静电公司,水西2组2号公变,石大线北收费站,水西3组3号公变,沪杭高铁1#变,和睦1组2号公变,力圣家私400kVA配变,和睦2组2号公变,水西新村2号公变,水西3组4号公变,和睦6组2号公变,水西2组4号公变,水西3组6号公变,和睦2组3号公变,水西3组2号公变,水西5组6号公变,和睦1组3号公变,水西3组5号公变,水西5组8号公变,","scope":"浙江省-杭州市-余杭区-乔司街道-和睦桥行政村(水东自然村,茅家桥自然村,八字桥自然村,庙桥头自然村,和睦村北自然村,和顺桥自然村,西杨桥自然村,藕荷桥自然村),乔司街道(五星行政村-青石自然村,葛家车行政村-吴家车自然村);南苑街道-杭州市余杭区城建建设处,乔司街道(杭州余杭银福五金静电电器有限公司,杭州盛明机械设备有限公司,浙江自强建筑工程有限公司,浙江杭浦高速公路有限公司,沪杭铁路客运股份有限公司,杭州家可工贸有限公司,杭州力圣家私有限公司,杭州汉王装饰设计工程有限公司,杭州天海办公家具有限公司,中国建筑第八工程局有限公司)","startTime":"2019-09-30 15:50:00","stopDate":"2019-09-30 17:50:00","orgNo":"3340140","typeCode":"电网故障停限电","poweroffArea":"110kV庙港变:泥桥G908线泥桥G9082开关后段","poweroffReason":"高压开关跳闸","powerTime":"2019-09-30 17:33:00","powerComm":"已送电","subsNo":"","lineNo":"","tgNo":"","tgName":null,"infoStatus":"1","orgName":"国网浙江杭州市余杭区供电有限公司","typeName":null,"infoStatusName":null,"dateDay":null,"orgNos":null,"nowTime":null,"countyName":null,"streetName":null,"villageName":null,"roadName":null,"communityName":null,"tranName":null,"sdLineName":null,"cityCode":"3340140","cityName":"国网浙江杭州市余杭区供电有限公司","provinceCode":null,"stopTime":"2019-09-30 17:50:00","powerType":"全部","powerOffArea":"110kV庙港变:泥桥G908线泥桥G9082开关后段","powerOffReason":"高压开关跳闸","powerOffId":"2019093031020306"},{"poweroffId":2019093031020261,"sgpoweroffId":null,"subsName":"","lineName":"10kV上喻T570线","pubTranName":"旺家弄村1号公变,","scope":"浙江省-杭州市-桐庐县-凤川街道-园林行政村-旺家弄自然村","startTime":"2019-10-17 08:00:00","stopDate":"2019-10-17 16:00:00","orgNo":"3340150","typeCode":"计划停电","poweroffArea":"110kV旺家变:上喻T570线-旺家F7251令克后段","poweroffReason":"配变增容","powerTime":"2019-10-17 15:42:05","powerComm":"已送电","subsNo":"","lineNo":"","tgNo":"","tgName":null,"infoStatus":"1","orgName":"国网浙江桐庐县供电公司","typeName":null,"infoStatusName":null,"dateDay":null,"orgNos":null,"nowTime":null,"countyName":null,"streetName":null,"villageName":null,"roadName":null,"communityName":null,"tranName":null,"sdLineName":null,"cityCode":"3340150","cityName":"国网浙江桐庐县供电公司","provinceCode":null,"stopTime":"2019-10-17 16:00:00","powerType":"全部","powerOffArea":"110kV旺家变:上喻T570线-旺家F7251令克后段","powerOffReason":"配变增容","powerOffId":"2019093031020261"},{"poweroffId":2019093031020259,"sgpoweroffId":null,"subsName":"","lineName":"10kV三鑫T277线","pubTranName":"凤源村1号公变,","scope":"浙江省-杭州市-桐庐县-凤川街道-外源行政村-凤源自然村","startTime":"2019-10-15 08:00:00","stopDate":"2019-10-15 12:00:00","orgNo":"3340150","typeCode":"计划停电","poweroffArea":"110kV石阜变:三鑫T277线-凤源F7074开关后段","poweroffReason":"裸导线绝缘化改造","powerTime":"2019-10-15 11:48:49","powerComm":"已送电","subsNo":"","lineNo":"","tgNo":"","tgName":null,"infoStatus":"1","orgName":"国网浙江桐庐县供电公司","typeName":null,"infoStatusName":null,"dateDay":null,"orgNos":null,"nowTime":null,"countyName":null,"streetName":null,"villageName":null,"roadName":null,"communityName":null,"tranName":null,"sdLineName":null,"cityCode":"3340150","cityName":"国网浙江桐庐县供电公司","provinceCode":null,"stopTime":"2019-10-15 12:00:00","powerType":"全部","powerOffArea":"110kV石阜变:三鑫T277线-凤源F7074开关后段","powerOffReason":"裸导线绝缘化改造","powerOffId":"2019093031020259"},{"poweroffId":2019093031020210,"sgpoweroffId":null,"subsName":"","lineName":"10kV汉塘T312线","pubTranName":"鲍戴家1号公变,","scope":"浙江省-杭州市-桐庐县-城南街道-仁智行政村(下田坞自然村,石墙里自然村,仁智戴家自然村)","startTime":"2019-10-16 08:00:00","stopDate":"2019-10-16 16:30:00","orgNo":"3340150","typeCode":"计划停电","poweroffArea":"110kV洋洲变:汉塘T312线-鲍戴F0099令克后段","poweroffReason":"鲍戴家1号公变调换JP柜","powerTime":"2019-10-16 16:10:29","powerComm":"已送电","subsNo":"","lineNo":"","tgNo":"","tgName":null,"infoStatus":"1","orgName":"国网浙江桐庐县供电公司","typeName":null,"infoStatusName":null,"dateDay":null,"orgNos":null,"nowTime":null,"countyName":null,"streetName":null,"villageName":null,"roadName":null,"communityName":null,"tranName":null,"sdLineName":null,"cityCode":"3340150","cityName":"国网浙江桐庐县供电公司","provinceCode":null,"stopTime":"2019-10-16 16:30:00","powerType":"全部","powerOffArea":"110kV洋洲变:汉塘T312线-鲍戴F0099令克后段","powerOffReason":"鲍戴家1号公变调换JP柜","powerOffId":"2019093031020210"},{"poweroffId":2019093031020206,"sgpoweroffId":null,"subsName":"","lineName":"10kV贤德D333线","pubTranName":"石羊村9#蒋家山公变,","scope":"浙江省-杭州市-富阳区-洞桥镇-洞桥行政村-潘家自然村,洞桥镇-石羊行政村(石羊坞自然村,潘家自然村,寿家自然村)","startTime":"2019-09-30 14:07:00","stopDate":"2019-09-30 15:15:00","orgNo":"3340170","typeCode":"电网故障停限电","poweroffArea":"110kV万市变:贤德D333线石羊村9#蒋家山公变配变","poweroffReason":"高压开关跳闸","powerTime":"2019-09-30 14:17:42","powerComm":"已送电","subsNo":"","lineNo":"","tgNo":"","tgName":null,"infoStatus":"1","orgName":"国网浙江杭州市富阳区供电公司","typeName":null,"infoStatusName":null,"dateDay":null,"orgNos":null,"nowTime":null,"countyName":null,"streetName":null,"villageName":null,"roadName":null,"communityName":null,"tranName":null,"sdLineName":null,"cityCode":"3340170","cityName":"国网浙江杭州市富阳区供电公司","provinceCode":null,"stopTime":"2019-09-30 15:15:00","powerType":"全部","powerOffArea":"110kV万市变:贤德D333线石羊村9#蒋家山公变配变","powerOffReason":"高压开关跳闸","powerOffId":"2019093031020206"},{"poweroffId":2019093031020185,"sgpoweroffId":null,"subsName":"","lineName":"10kV平峰V555线","pubTranName":"环胡村牧家桥,","scope":"浙江省-杭州市-临安市-板桥镇环湖村牧家桥一带","startTime":"2019-10-11 08:20:00","stopDate":"2019-10-11 11:20:00","orgNo":"3340160","typeCode":"计划停电","poweroffArea":"110kV板桥变:停平峰V555线平峰村分线15#杆环湖村牧家桥配变低压总闸刀以后","poweroffReason":"发电车开关安装","powerTime":"2019-10-11 11:10:26","powerComm":"已送电","subsNo":"","lineNo":"","tgNo":"","tgName":null,"infoStatus":"1","orgName":"国网浙江临安市供电公司","typeName":null,"infoStatusName":null,"dateDay":null,"orgNos":null,"nowTime":null,"countyName":null,"streetName":null,"villageName":null,"roadName":null,"communityName":null,"tranName":null,"sdLineName":null,"cityCode":"3340160","cityName":"国网浙江临安市供电公司","provinceCode":null,"stopTime":"2019-10-11 11:20:00","powerType":"全部","powerOffArea":"110kV板桥变:停平峰V555线平峰村分线15#杆环湖村牧家桥配变低压总闸刀以后","powerOffReason":"发电车开关安装","powerOffId":"2019093031020185"},{"poweroffId":2019093031020160,"sgpoweroffId":null,"subsName":"","lineName":"10kV泉口V614线","pubTranName":"横畈泉口村(上),","scope":"浙江省-杭州市-临安市-青山湖街道横畈泉口村(上)一带","startTime":"2019-10-11 08:00:00","stopDate":"2019-10-11 11:20:00","orgNo":"3340160","typeCode":"计划停电","poweroffArea":"110kV雅观变:停泉口V614线华笑6142线笑园站上泉口分线14#杆横畈泉口村(上)配变低压总闸刀以后","poweroffReason":"计划检修","powerTime":"2019-10-11 11:10:12","powerComm":"已送电","subsNo":"","lineNo":"","tgNo":"","tgName":null,"infoStatus":"1","orgName":"国网浙江临安市供电公司","typeName":null,"infoStatusName":null,"dateDay":null,"orgNos":null,"nowTime":null,"countyName":null,"streetName":null,"villageName":null,"roadName":null,"communityName":null,"tranName":null,"sdLineName":null,"cityCode":"3340160","cityName":"国网浙江临安市供电公司","provinceCode":null,"stopTime":"2019-10-11 11:20:00","powerType":"全部","powerOffArea":"110kV雅观变:停泉口V614线华笑6142线笑园站上泉口分线14#杆横畈泉口村(上)配变低压总闸刀以后","powerOffReason":"计划检修","powerOffId":"2019093031020160"},{"poweroffId":2019093031020158,"sgpoweroffId":null,"subsName":"","lineName":"10kV中试V425线","pubTranName":"临安市青山镇万富织带厂1#,","scope":"浙江省-杭州市-临安市-青山湖街道临安市青山镇万富织带厂，杭州康洁无纺制品有限公司一带","startTime":"2019-10-16 08:00:00","stopDate":"2019-10-16 17:00:00","orgNo":"3340160","typeCode":"计划停电","poweroffArea":"110kV石泉变:1、停中试V425线中小板块分线11#杆万富织带厂支线令克以后 2、停中试V425线中小板块分线12#杆杭州康洁无纺制品有限公司支线令克以后","poweroffReason":"计划检修","powerTime":"2019-10-16 16:53:36","powerComm":"已送电","subsNo":"","lineNo":"","tgNo":"","tgName":null,"infoStatus":"1","orgName":"国网浙江临安市供电公司","typeName":null,"infoStatusName":null,"dateDay":null,"orgNos":null,"nowTime":null,"countyName":null,"streetName":null,"villageName":null,"roadName":null,"communityName":null,"tranName":null,"sdLineName":null,"cityCode":"3340160","cityName":"国网浙江临安市供电公司","provinceCode":null,"stopTime":"2019-10-16 17:00:00","powerType":"全部","powerOffArea":"110kV石泉变:1、停中试V425线中小板块分线11#杆万富织带厂支线令克以后 2、停中试V425线中小板块分线12#杆杭州康洁无纺制品有限公司支线令克以后","powerOffReason":"计划检修","powerOffId":"2019093031020158"},{"poweroffId":2019093031020156,"sgpoweroffId":null,"subsName":"","lineName":"10kV平峰V555线","pubTranName":"平峰村大门里,李国强,","scope":"浙江省-杭州市-临安市-板桥镇李国强，平峰村大门里一带","startTime":"2019-10-15 07:20:00","stopDate":"2019-10-15 17:40:00","orgNo":"3340160","typeCode":"计划停电","poweroffArea":"110kV板桥变:(1)停平峰V555线44#杆5552开关--大桥V384线6#杆3842开关之间。 (2)停建材V545线44#杆5452开关--琴山V389线6#杆3892开关之间 (3)停平峰V555线平峰村分线4#杆分断开关以后","poweroffReason":"计划检修","powerTime":"2019-10-15 17:26:53","powerComm":"已送电","subsNo":"","lineNo":"","tgNo":"","tgName":null,"infoStatus":"1","orgName":"国网浙江临安市供电公司","typeName":null,"infoStatusName":null,"dateDay":null,"orgNos":null,"nowTime":null,"countyName":null,"streetName":null,"villageName":null,"roadName":null,"communityName":null,"tranName":null,"sdLineName":null,"cityCode":"3340160","cityName":"国网浙江临安市供电公司","provinceCode":null,"stopTime":"2019-10-15 17:40:00","powerType":"全部","powerOffArea":"110kV板桥变:(1)停平峰V555线44#杆5552开关--大桥V384线6#杆3842开关之间。 (2)停建材V545线44#杆5452开关--琴山V389线6#杆3892开关之间 (3)停平峰V555线平峰村分线4#杆分断开关以后","powerOffReason":"计划检修","powerOffId":"2019093031020156"}],"pageModel":{"pageNow":1048,"totalCount":17789,"totalPage":1779,"tableRows":0,"pageCount":10,"beginCount":10470},"isExperi":"1"}