{"message":"","today":"2020-06-16","seleList":[{"poweroffId":2019093031020154,"sgpoweroffId":null,"subsName":"","lineName":"10kV平峰V555线","pubTranName":"临安杭徽高速公路有限公司,山湖印3#,山湖印1#,环胡村牧家桥,平峰村,浙江杭州大马水泥有限公司,","scope":"浙江省-杭州市-临安市-板桥镇平峰村，山湖印，浙江杭州大马水泥有限公司，浙江杭徽高速公路有限公司杭徽管理处，环胡村牧家桥一带","startTime":"2019-10-15 17:00:00","stopDate":"2019-10-15 17:30:00","orgNo":"3340160","typeCode":"计划停电","poweroffArea":"110kV板桥变:(1)停平峰V555线44#杆5552开关--大桥V384线6#杆3842开关之间。 (2)停建材V545线44#杆5452开关--琴山V389线6#杆3892开关之间 (3)停平峰V555线平峰村分线4#杆分断开关以后","poweroffReason":"计划检修","powerTime":"2019-10-15 17:20:25","powerComm":"已送电","subsNo":"","lineNo":"","tgNo":"","tgName":null,"infoStatus":"1","orgName":"国网浙江临安市供电公司","typeName":null,"infoStatusName":null,"dateDay":null,"orgNos":null,"nowTime":null,"countyName":null,"streetName":null,"villageName":null,"roadName":null,"communityName":null,"tranName":null,"sdLineName":null,"cityCode":"3340160","cityName":"国网浙江临安市供电公司","provinceCode":null,"stopTime":"2019-10-15 17:30:00","powerType":"全部","powerOffArea":"110kV板桥变:(1)停平峰V555线44#杆5552开关--大桥V384线6#杆3842开关之间。 (2)停建材V545线44#杆5452开关--琴山V389线6#杆3892开关之间 (3)停平峰V555线平峰村分线4#杆分断开关以后","powerOffReason":"计划检修","powerOffId":"2019093031020154"},{"poweroffId":2019093031020139,"sgpoweroffId":null,"subsName":"","lineName":"10kV平峰V555线","pubTranName":"山湖印3#,平峰村,浙江杭州大马水泥有限公司,临安杭徽高速公路有限公司,山湖印1#,环胡村牧家桥,","scope":"浙江省-杭州市-临安市-板桥镇平峰村，山湖印，浙江杭州大马水泥有限公司，浙江杭徽高速公路有限公司杭徽管理处，环胡村牧家桥一带","startTime":"2019-10-15 07:20:00","stopDate":"2019-10-15 07:50:00","orgNo":"3340160","typeCode":"计划停电","poweroffArea":"110kV板桥变:(1)停平峰V555线44#杆5552开关--大桥V384线6#杆3842开关之间。 (2)停建材V545线44#杆5452开关--琴山V389线6#杆3892开关之间 (3)停平峰V555线平峰村分线4#杆分断开关以后","poweroffReason":"计划检修","powerTime":"2019-10-15 07:40:20","powerComm":"已送电","subsNo":"","lineNo":"","tgNo":"","tgName":null,"infoStatus":"1","orgName":"国网浙江临安市供电公司","typeName":null,"infoStatusName":null,"dateDay":null,"orgNos":null,"nowTime":null,"countyName":null,"streetName":null,"villageName":null,"roadName":null,"communityName":null,"tranName":null,"sdLineName":null,"cityCode":"3340160","cityName":"国网浙江临安市供电公司","provinceCode":null,"stopTime":"2019-10-15 07:50:00","powerType":"全部","powerOffArea":"110kV板桥变:(1)停平峰V555线44#杆5552开关--大桥V384线6#杆3842开关之间。 (2)停建材V545线44#杆5452开关--琴山V389线6#杆3892开关之间 (3)停平峰V555线平峰村分线4#杆分断开关以后","powerOffReason":"计划检修","powerOffId":"2019093031020139"},{"poweroffId":2019093031020132,"sgpoweroffId":null,"subsName":"","lineName":"10kV如龙V556线","pubTranName":"板桥如龙村金家板,","scope":"浙江省-杭州市-临安市-板桥镇-如龙行政村板桥如龙村金家板一带","startTime":"2019-10-14 08:00:00","stopDate":"2019-10-14 13:00:00","orgNo":"3340160","typeCode":"计划停电","poweroffArea":"110kV板桥变:停如龙V556线88#杆板桥如龙村金家板配变令克以后","poweroffReason":"低压线路改造工程","powerTime":"2019-10-14 12:50:12","powerComm":"已送电","subsNo":"","lineNo":"","tgNo":"","tgName":null,"infoStatus":"1","orgName":"国网浙江临安市供电公司","typeName":null,"infoStatusName":null,"dateDay":null,"orgNos":null,"nowTime":null,"countyName":null,"streetName":null,"villageName":null,"roadName":null,"communityName":null,"tranName":null,"sdLineName":null,"cityCode":"3340160","cityName":"国网浙江临安市供电公司","provinceCode":null,"stopTime":"2019-10-14 13:00:00","powerType":"全部","powerOffArea":"110kV板桥变:停如龙V556线88#杆板桥如龙村金家板配变令克以后","powerOffReason":"低压线路改造工程","powerOffId":"2019093031020132"},{"poweroffId":2019093031020129,"sgpoweroffId":null,"subsName":"","lineName":"10kV南市H740线","pubTranName":"天赋花苑(2)公变,弗兰西斯1,米厂公变,中市公变,杭州东海春房地产开发有限公司,天赋花苑(1)公变,","scope":"浙江省杭州市余杭区闲林街道：天赋花苑小区、米厂宿舍、中市、东海房产建设工地、弗兰西斯厂一带","startTime":"2019-10-16 09:30:00","stopDate":"2019-10-16 15:00:00","orgNo":"3340140","typeCode":"计划停电","poweroffArea":"南市H740线天赋分支箱分线原停电结束时间为2019-10-16 17:30:00,为减少客户停电时间,加快工作进度,提前送电,现变更停电结束时间为2019-10-16 15:00:00","poweroffReason":"业扩工程（悦青蓝10kV进线工程） 原停电结束时间为2019-10-16 17:30:00,为减少客户停电时间,加快工作进度,提前送电,现变更停电结束时间为2019-10-16 15:00:00","powerTime":"2019-10-16 14:57:12","powerComm":"已送电","subsNo":"","lineNo":"","tgNo":"","tgName":null,"infoStatus":"1","orgName":"国网浙江杭州市余杭区供电有限公司","typeName":null,"infoStatusName":null,"dateDay":null,"orgNos":null,"nowTime":null,"countyName":null,"streetName":null,"villageName":null,"roadName":null,"communityName":null,"tranName":null,"sdLineName":null,"cityCode":"3340140","cityName":"国网浙江杭州市余杭区供电有限公司","provinceCode":null,"stopTime":"2019-10-16 15:00:00","powerType":"全部","powerOffArea":"南市H740线天赋分支箱分线原停电结束时间为2019-10-16 17:30:00,为减少客户停电时间,加快工作进度,提前送电,现变更停电结束时间为2019-10-16 15:00:00","powerOffReason":"业扩工程（悦青蓝10kV进线工程） 原停电结束时间为2019-10-16 17:30:00,为减少客户停电时间,加快工作进度,提前送电,现变更停电结束时间为2019-10-16 15:00:00","powerOffId":"2019093031020129"},{"poweroffId":2019093031020128,"sgpoweroffId":null,"subsName":"","lineName":"10kV里项H735线","pubTranName":"闲林水厂7号基建,里项村洞山,大合检测,","scope":"浙江省杭州市余杭区闲林街道：西溪源村洞山、闲林水厂建设工地一带","startTime":"2019-10-16 09:30:00","stopDate":"2019-10-16 15:00:00","orgNo":"3340140","typeCode":"计划停电","poweroffArea":"里项H735线洞山分线","poweroffReason":"业扩工程：里项H735线洞山公变分线改接至洞山开关站Ⅱ段 原停电结束时间为2019-10-16 17:30:00,为减少客户停电时间,加快工作进度,提前送电,现变更停电结束时间为2019-10-16 15:00:00","powerTime":"2019-10-16 14:36:39","powerComm":"已送电","subsNo":"","lineNo":"","tgNo":"","tgName":null,"infoStatus":"1","orgName":"国网浙江杭州市余杭区供电有限公司","typeName":null,"infoStatusName":null,"dateDay":null,"orgNos":null,"nowTime":null,"countyName":null,"streetName":null,"villageName":null,"roadName":null,"communityName":null,"tranName":null,"sdLineName":null,"cityCode":"3340140","cityName":"国网浙江杭州市余杭区供电有限公司","provinceCode":null,"stopTime":"2019-10-16 15:00:00","powerType":"全部","powerOffArea":"里项H735线洞山分线","powerOffReason":"业扩工程：里项H735线洞山公变分线改接至洞山开关站Ⅱ段 原停电结束时间为2019-10-16 17:30:00,为减少客户停电时间,加快工作进度,提前送电,现变更停电结束时间为2019-10-16 15:00:00","powerOffId":"2019093031020128"},{"poweroffId":2019093031020126,"sgpoweroffId":null,"subsName":"","lineName":"10kV茶师H755线","pubTranName":"杭州未来科技城建设有限公司,文二西路东侧泵站,","scope":"浙江省杭州市余杭区五常街道：文二西路东侧泵站、文二路与荆长路交叉口路灯一带","startTime":"2019-10-18 08:40:00","stopDate":"2019-10-18 11:30:00","orgNo":"3340140","typeCode":"计划停电","poweroffArea":"蔚澜开关站茶师H755线文二西路1号分支箱分线原停电结束时间为2019-10-18 14:40:00,为减少客户停电时间,加快工作进度,提前送电,现变更停电结束时间为2019-10-18 11:30:00","poweroffReason":"业扩工程（泰峪房产基建拆除工程）原停电结束时间为2019-10-18 14:40:00,为减少客户停电时间,加快工作进度,提前送电,现变更停电结束时间为2019-10-18 11:30:00","powerTime":"2019-10-18 11:06:48","powerComm":"已送电","subsNo":"","lineNo":"","tgNo":"","tgName":null,"infoStatus":"1","orgName":"国网浙江杭州市余杭区供电有限公司","typeName":null,"infoStatusName":null,"dateDay":null,"orgNos":null,"nowTime":null,"countyName":null,"streetName":null,"villageName":null,"roadName":null,"communityName":null,"tranName":null,"sdLineName":null,"cityCode":"3340140","cityName":"国网浙江杭州市余杭区供电有限公司","provinceCode":null,"stopTime":"2019-10-18 11:30:00","powerType":"全部","powerOffArea":"蔚澜开关站茶师H755线文二西路1号分支箱分线原停电结束时间为2019-10-18 14:40:00,为减少客户停电时间,加快工作进度,提前送电,现变更停电结束时间为2019-10-18 11:30:00","powerOffReason":"业扩工程（泰峪房产基建拆除工程）原停电结束时间为2019-10-18 14:40:00,为减少客户停电时间,加快工作进度,提前送电,现变更停电结束时间为2019-10-18 11:30:00","powerOffId":"2019093031020126"},{"poweroffId":2019093031020124,"sgpoweroffId":null,"subsName":"","lineName":"10kV桦树H684线","pubTranName":"杭州市闲林水库管理,杭州市闲林水库管理处,杭州市闲林水库管理,","scope":"浙江省杭州市余杭区闲林街道：闲林水厂库一带","startTime":"2019-10-14 08:40:00","stopDate":"2019-10-14 10:50:00","orgNo":"3340140","typeCode":"计划停电","poweroffArea":"桦树H684线水库分支箱分线","poweroffReason":"业扩工程：拆除桦树H684线浩博旅游基建一分线3#杆后段导线2档、开关一台。 原停电结束时间为2019-10-14 14:40:00,为减少客户停电时间,加快工作进度,提前送电,现变更停电结束时间为2019-10-14 10:50:00","powerTime":"2019-10-14 10:13:06","powerComm":"已送电","subsNo":"","lineNo":"","tgNo":"","tgName":null,"infoStatus":"1","orgName":"国网浙江杭州市余杭区供电有限公司","typeName":null,"infoStatusName":null,"dateDay":null,"orgNos":null,"nowTime":null,"countyName":null,"streetName":null,"villageName":null,"roadName":null,"communityName":null,"tranName":null,"sdLineName":null,"cityCode":"3340140","cityName":"国网浙江杭州市余杭区供电有限公司","provinceCode":null,"stopTime":"2019-10-14 10:50:00","powerType":"全部","powerOffArea":"桦树H684线水库分支箱分线","powerOffReason":"业扩工程：拆除桦树H684线浩博旅游基建一分线3#杆后段导线2档、开关一台。 原停电结束时间为2019-10-14 14:40:00,为减少客户停电时间,加快工作进度,提前送电,现变更停电结束时间为2019-10-14 10:50:00","powerOffId":"2019093031020124"},{"poweroffId":2019093031020123,"sgpoweroffId":null,"subsName":"","lineName":"10kV里项H735线","pubTranName":"闲林水厂8号基建,闲林水厂2号基建,","scope":"浙江省杭州市余杭区闲林街道：闲林水厂建设工地一带","startTime":"2019-10-11 09:30:00","stopDate":"2019-10-11 18:00:00","orgNo":"3340140","typeCode":"计划停电","poweroffArea":"里项H735线闲林水厂4号分支箱","poweroffReason":"业扩工程：里项H735线闲林水厂4号分支箱改接至里项开关站Ⅰ段5号间隔 原停电结束时间为2019-10-11 17:30:00,因施工力量不足原因,现变更停电结束时间为2019-10-11 18:00:00","powerTime":"2019-10-11 17:44:06","powerComm":"已送电","subsNo":"","lineNo":"","tgNo":"","tgName":null,"infoStatus":"1","orgName":"国网浙江杭州市余杭区供电有限公司","typeName":null,"infoStatusName":null,"dateDay":null,"orgNos":null,"nowTime":null,"countyName":null,"streetName":null,"villageName":null,"roadName":null,"communityName":null,"tranName":null,"sdLineName":null,"cityCode":"3340140","cityName":"国网浙江杭州市余杭区供电有限公司","provinceCode":null,"stopTime":"2019-10-11 18:00:00","powerType":"全部","powerOffArea":"里项H735线闲林水厂4号分支箱","powerOffReason":"业扩工程：里项H735线闲林水厂4号分支箱改接至里项开关站Ⅰ段5号间隔 原停电结束时间为2019-10-11 17:30:00,因施工力量不足原因,现变更停电结束时间为2019-10-11 18:00:00","powerOffId":"2019093031020123"},{"poweroffId":2019093031020122,"sgpoweroffId":null,"subsName":"","lineName":"10kV华美H796线","pubTranName":"新湖海创4号基建,新湖海创3号基建 6120654449专变,新湖海创1号基建,新湖海创2号基建,","scope":"浙江省杭州市余杭区仓前街道：新湖海创建设建设工地一带","startTime":"2019-10-10 09:30:00","stopDate":"2019-10-10 16:30:00","orgNo":"3340140","typeCode":"计划停电","poweroffArea":"华美H796线新湖海创基建分线","poweroffReason":"华美H796线新湖海创基建分线0-2号杆线路拆除，2号杆新放线一档，并新出电缆至沙田投资分线4+1号杆（带电作业配合华美H796线沙田投资分线4-5号杆插杆1基，耐张开断大号侧下线，4+1号杆开关引线搭接）","powerTime":"2019-10-10 15:58:56","powerComm":"已送电","subsNo":"","lineNo":"","tgNo":"","tgName":null,"infoStatus":"1","orgName":"国网浙江杭州市余杭区供电有限公司","typeName":null,"infoStatusName":null,"dateDay":null,"orgNos":null,"nowTime":null,"countyName":null,"streetName":null,"villageName":null,"roadName":null,"communityName":null,"tranName":null,"sdLineName":null,"cityCode":"3340140","cityName":"国网浙江杭州市余杭区供电有限公司","provinceCode":null,"stopTime":"2019-10-10 16:30:00","powerType":"全部","powerOffArea":"华美H796线新湖海创基建分线","powerOffReason":"华美H796线新湖海创基建分线0-2号杆线路拆除，2号杆新放线一档，并新出电缆至沙田投资分线4+1号杆（带电作业配合华美H796线沙田投资分线4-5号杆插杆1基，耐张开断大号侧下线，4+1号杆开关引线搭接）","powerOffId":"2019093031020122"},{"poweroffId":2019093031020121,"sgpoweroffId":null,"subsName":"","lineName":"10kV东源D339线","pubTranName":"万市村11#考坎坞公变,","scope":"浙江省-杭州市-富阳区-万市镇-槎源坞行政村-东源自然村,万市镇-万市行政村(骆家自然村,考坎坞自然村,下陈家自然村,东元自然村,镇头自然村)","startTime":"2019-09-30 12:14:35","stopDate":"2019-09-30 14:00:35","orgNo":"3340170","typeCode":"电网故障停限电","poweroffArea":"110kV万市变:东源D339线-万市村11#考坎坞公变后段","poweroffReason":"(低压停电信息)低压开关跳闸","powerTime":"2019-09-30 13:02:39","powerComm":"已送电","subsNo":"","lineNo":"","tgNo":"","tgName":null,"infoStatus":"1","orgName":"国网浙江杭州市富阳区供电公司","typeName":null,"infoStatusName":null,"dateDay":null,"orgNos":null,"nowTime":null,"countyName":null,"streetName":null,"villageName":null,"roadName":null,"communityName":null,"tranName":null,"sdLineName":null,"cityCode":"3340170","cityName":"国网浙江杭州市富阳区供电公司","provinceCode":null,"stopTime":"2019-09-30 14:00:35","powerType":"全部","powerOffArea":"110kV万市变:东源D339线-万市村11#考坎坞公变后段","powerOffReason":"(低压停电信息)低压开关跳闸","powerOffId":"2019093031020121"}],"pageModel":{"pageNow":1049,"totalCount":17789,"totalPage":1779,"tableRows":0,"pageCount":10,"beginCount":10480},"isExperi":"1"}