{"message":"","today":"2020-06-16","seleList":[{"poweroffId":2019092731020686,"sgpoweroffId":null,"subsName":"","lineName":"10kV宫前D603线","pubTranName":"天津城建集团有限公司宫前自然村拌和站3号变,","scope":"浙江省-杭州市-富阳区-大源镇-东前行政村-天津城建集团有限公司一带","startTime":"2019-10-14 13:10:00","stopDate":"2019-10-15 17:00:00","orgNo":"3340170","typeCode":"计划停电","poweroffArea":"35kV溪东变:宫前D603线-天津城建集团有限公司断路器后段","poweroffReason":"用户内部消缺配合停电","powerTime":"2019-10-15 16:36:23","powerComm":"已送电","subsNo":"","lineNo":"","tgNo":"","tgName":null,"infoStatus":"1","orgName":"国网浙江杭州市富阳区供电公司","typeName":null,"infoStatusName":null,"dateDay":null,"orgNos":null,"nowTime":null,"countyName":null,"streetName":null,"villageName":null,"roadName":null,"communityName":null,"tranName":null,"sdLineName":null,"cityCode":"3340170","cityName":"国网浙江杭州市富阳区供电公司","provinceCode":null,"stopTime":"2019-10-15 17:00:00","powerType":"全部","powerOffArea":"35kV溪东变:宫前D603线-天津城建集团有限公司断路器后段","powerOffReason":"用户内部消缺配合停电","powerOffId":"2019092731020686"},{"poweroffId":2019092731020685,"sgpoweroffId":null,"subsName":"","lineName":"10kV宫前D603线","pubTranName":"天津城建集团有限公司宫前自然村拌和站1号变,","scope":"浙江省-杭州市-富阳区-大源镇-东前行政村-天津城建集团有限公司一带","startTime":"2019-10-14 12:30:00","stopDate":"2019-10-15 17:00:00","orgNo":"3340170","typeCode":"计划停电","poweroffArea":"35kV溪东变:宫前D603线-天津城建集团有限公司断路器后段","poweroffReason":"配合用户内部检修","powerTime":"2019-10-15 16:34:23","powerComm":"已送电","subsNo":"","lineNo":"","tgNo":"","tgName":null,"infoStatus":"1","orgName":"国网浙江杭州市富阳区供电公司","typeName":null,"infoStatusName":null,"dateDay":null,"orgNos":null,"nowTime":null,"countyName":null,"streetName":null,"villageName":null,"roadName":null,"communityName":null,"tranName":null,"sdLineName":null,"cityCode":"3340170","cityName":"国网浙江杭州市富阳区供电公司","provinceCode":null,"stopTime":"2019-10-15 17:00:00","powerType":"全部","powerOffArea":"35kV溪东变:宫前D603线-天津城建集团有限公司断路器后段","powerOffReason":"配合用户内部检修","powerOffId":"2019092731020685"},{"poweroffId":2019092731020684,"sgpoweroffId":null,"subsName":"","lineName":"10kV宫前D603线","pubTranName":"天津城建集团有限公司宫前自然村拌和站4号变,","scope":"浙江省-杭州市-富阳区-大源镇-东前行政村-天津城建集团有限公司一带","startTime":"2019-10-14 13:30:00","stopDate":"2019-10-15 17:00:00","orgNo":"3340170","typeCode":"计划停电","poweroffArea":"35kV溪东变:宫前D603线-天津城建集团有限公司断路器后段","poweroffReason":"配合用户内部检修","powerTime":"2019-10-15 16:34:14","powerComm":"已送电","subsNo":"","lineNo":"","tgNo":"","tgName":null,"infoStatus":"1","orgName":"国网浙江杭州市富阳区供电公司","typeName":null,"infoStatusName":null,"dateDay":null,"orgNos":null,"nowTime":null,"countyName":null,"streetName":null,"villageName":null,"roadName":null,"communityName":null,"tranName":null,"sdLineName":null,"cityCode":"3340170","cityName":"国网浙江杭州市富阳区供电公司","provinceCode":null,"stopTime":"2019-10-15 17:00:00","powerType":"全部","powerOffArea":"35kV溪东变:宫前D603线-天津城建集团有限公司断路器后段","powerOffReason":"配合用户内部检修","powerOffId":"2019092731020684"},{"poweroffId":2019092731020683,"sgpoweroffId":null,"subsName":"","lineName":"10kV宫前D603线","pubTranName":"天津城建集团有限公司拌和站6号基建变,","scope":"浙江省-杭州市-富阳区-大源镇-东前行政村-天津城建集团有限公司一带","startTime":"2019-10-14 14:10:00","stopDate":"2019-10-15 17:00:00","orgNo":"3340170","typeCode":"计划停电","poweroffArea":"35kV溪东变:宫前D603线-天津城建集团有限公司断路器后段","poweroffReason":"用户内部消缺配合停电","powerTime":"2019-10-15 16:33:22","powerComm":"已送电","subsNo":"","lineNo":"","tgNo":"","tgName":null,"infoStatus":"1","orgName":"国网浙江杭州市富阳区供电公司","typeName":null,"infoStatusName":null,"dateDay":null,"orgNos":null,"nowTime":null,"countyName":null,"streetName":null,"villageName":null,"roadName":null,"communityName":null,"tranName":null,"sdLineName":null,"cityCode":"3340170","cityName":"国网浙江杭州市富阳区供电公司","provinceCode":null,"stopTime":"2019-10-15 17:00:00","powerType":"全部","powerOffArea":"35kV溪东变:宫前D603线-天津城建集团有限公司断路器后段","powerOffReason":"用户内部消缺配合停电","powerOffId":"2019092731020683"},{"poweroffId":2019092731020682,"sgpoweroffId":null,"subsName":"","lineName":"10kV锦福V215线","pubTranName":"锦福新村2＃变,锦福新村公变,法院小区公变,临安市人民法院2#,","scope":"浙江省-杭州市-临安市-锦城街道-临安市人民法院，法院小区，锦福新村一带。","startTime":"2019-10-12 10:40:00","stopDate":"2019-10-12 16:30:00","orgNo":"3340160","typeCode":"计划停电","poweroffArea":"110kV锦城变:锦福V215线首端，广场站2156开关，聚福站2158开关之间","poweroffReason":"缺陷处理","powerTime":"2019-10-12 16:20:17","powerComm":"已送电","subsNo":"","lineNo":"","tgNo":"","tgName":null,"infoStatus":"1","orgName":"国网浙江临安市供电公司","typeName":null,"infoStatusName":null,"dateDay":null,"orgNos":null,"nowTime":null,"countyName":null,"streetName":null,"villageName":null,"roadName":null,"communityName":null,"tranName":null,"sdLineName":null,"cityCode":"3340160","cityName":"国网浙江临安市供电公司","provinceCode":null,"stopTime":"2019-10-12 16:30:00","powerType":"全部","powerOffArea":"110kV锦城变:锦福V215线首端，广场站2156开关，聚福站2158开关之间","powerOffReason":"缺陷处理","powerOffId":"2019092731020682"},{"poweroffId":2019092731020681,"sgpoweroffId":null,"subsName":"","lineName":"10kV宫前D603线","pubTranName":"天津城建集团有限公司宫前自然村拌和站2号变,","scope":"浙江省-杭州市-富阳区-大源镇-东前行政村-天津城建集团有限公司一带","startTime":"2019-10-14 12:50:00","stopDate":"2019-10-15 17:00:00","orgNo":"3340170","typeCode":"计划停电","poweroffArea":"35kV溪东变:宫前D603线-天津城建集团有限公司断路器后段","poweroffReason":"停电配合用户内部消缺","powerTime":"2019-10-15 16:33:09","powerComm":"已送电","subsNo":"","lineNo":"","tgNo":"","tgName":null,"infoStatus":"1","orgName":"国网浙江杭州市富阳区供电公司","typeName":null,"infoStatusName":null,"dateDay":null,"orgNos":null,"nowTime":null,"countyName":null,"streetName":null,"villageName":null,"roadName":null,"communityName":null,"tranName":null,"sdLineName":null,"cityCode":"3340170","cityName":"国网浙江杭州市富阳区供电公司","provinceCode":null,"stopTime":"2019-10-15 17:00:00","powerType":"全部","powerOffArea":"35kV溪东变:宫前D603线-天津城建集团有限公司断路器后段","powerOffReason":"停电配合用户内部消缺","powerOffId":"2019092731020681"},{"poweroffId":2019092731020680,"sgpoweroffId":null,"subsName":"","lineName":"10kV卦畈V374线","pubTranName":"玲珑村[玲珑站]公变,","scope":"浙江省-杭州市-临安市-玲珑街道玲珑村玲珑站一带。","startTime":"2019-10-09 07:40:00","stopDate":"2019-10-09 15:30:00","orgNo":"3340160","typeCode":"计划停电","poweroffArea":"110kV玲珑变:卦畈V374线-玲珑村[玲珑站]公变后段","poweroffReason":"杭州临安清风3#公变等台区增容工程","powerTime":"2019-10-09 15:00:53","powerComm":"已送电","subsNo":"","lineNo":"","tgNo":"","tgName":null,"infoStatus":"1","orgName":"国网浙江临安市供电公司","typeName":null,"infoStatusName":null,"dateDay":null,"orgNos":null,"nowTime":null,"countyName":null,"streetName":null,"villageName":null,"roadName":null,"communityName":null,"tranName":null,"sdLineName":null,"cityCode":"3340160","cityName":"国网浙江临安市供电公司","provinceCode":null,"stopTime":"2019-10-09 15:30:00","powerType":"全部","powerOffArea":"110kV玲珑变:卦畈V374线-玲珑村[玲珑站]公变后段","powerOffReason":"杭州临安清风3#公变等台区增容工程","powerOffId":"2019092731020680"},{"poweroffId":2019092731020676,"sgpoweroffId":null,"subsName":"","lineName":"10kV电料V214线","pubTranName":"科技大楼公变,","scope":"浙江省-杭州市-临安市-锦城街道-科技大楼一带。","startTime":"2019-10-15 08:00:00","stopDate":"2019-10-15 14:30:00","orgNo":"3340160","typeCode":"计划停电","poweroffArea":"110kV锦城变:电料V214线-科技大楼公变后段","poweroffReason":"杭州临安10千伏临安人家隐患美变等集中更换治理工程","powerTime":"2019-10-15 14:20:26","powerComm":"已送电","subsNo":"","lineNo":"","tgNo":"","tgName":null,"infoStatus":"1","orgName":"国网浙江临安市供电公司","typeName":null,"infoStatusName":null,"dateDay":null,"orgNos":null,"nowTime":null,"countyName":null,"streetName":null,"villageName":null,"roadName":null,"communityName":null,"tranName":null,"sdLineName":null,"cityCode":"3340160","cityName":"国网浙江临安市供电公司","provinceCode":null,"stopTime":"2019-10-15 14:30:00","powerType":"全部","powerOffArea":"110kV锦城变:电料V214线-科技大楼公变后段","powerOffReason":"杭州临安10千伏临安人家隐患美变等集中更换治理工程","powerOffId":"2019092731020676"},{"poweroffId":2019092731020650,"sgpoweroffId":null,"subsName":"","lineName":"10kV上里D409线","pubTranName":"新新村1#上村公变,","scope":"浙江省-杭州市-富阳区-鹿山街道-新祥行政村-新新自然村","startTime":"2019-10-17 07:10:00","stopDate":"2019-10-17 12:50:00","orgNo":"3340170","typeCode":"计划停电","poweroffArea":"110kV长春变:上里D409线-新新村1号上村公变后段","poweroffReason":"(低压停电信息)青云2019年蒋家村12#林场公变等低压台区改造工程照明1#线吊车立杆3支，拆架1kV70*4*2档，架设BS-4*35*2挡，更换落户线8处，搭接等工作","powerTime":"2019-10-17 12:35:04","powerComm":"已送电","subsNo":"","lineNo":"","tgNo":"","tgName":null,"infoStatus":"1","orgName":"国网浙江杭州市富阳区供电公司","typeName":null,"infoStatusName":null,"dateDay":null,"orgNos":null,"nowTime":null,"countyName":null,"streetName":null,"villageName":null,"roadName":null,"communityName":null,"tranName":null,"sdLineName":null,"cityCode":"3340170","cityName":"国网浙江杭州市富阳区供电公司","provinceCode":null,"stopTime":"2019-10-17 12:50:00","powerType":"全部","powerOffArea":"110kV长春变:上里D409线-新新村1号上村公变后段","powerOffReason":"(低压停电信息)青云2019年蒋家村12#林场公变等低压台区改造工程照明1#线吊车立杆3支，拆架1kV70*4*2档，架设BS-4*35*2挡，更换落户线8处，搭接等工作","powerOffId":"2019092731020650"},{"poweroffId":2019092731020649,"sgpoweroffId":null,"subsName":"","lineName":"10kV三山D402线","pubTranName":"春安村1#村中公变,","scope":"浙江省-杭州市-富阳区-鹿山街道-汤家埠行政村(官房自然村,汤家埠自然村,春安自然村,屋基上自然村)","startTime":"2019-10-17 13:30:00","stopDate":"2019-10-17 16:50:00","orgNo":"3340170","typeCode":"计划停电","poweroffArea":"110kV长春变:三山D402线-春安村1号村中公变后段","poweroffReason":"(低压停电信息)青云2019年蒋家村12#林场公变等低压台区改造工程照明1#线1#-6杆拆除旧电缆，安装YJV-4*35电缆8米，搭接等工作","powerTime":"2019-10-17 16:35:05","powerComm":"已送电","subsNo":"","lineNo":"","tgNo":"","tgName":null,"infoStatus":"1","orgName":"国网浙江杭州市富阳区供电公司","typeName":null,"infoStatusName":null,"dateDay":null,"orgNos":null,"nowTime":null,"countyName":null,"streetName":null,"villageName":null,"roadName":null,"communityName":null,"tranName":null,"sdLineName":null,"cityCode":"3340170","cityName":"国网浙江杭州市富阳区供电公司","provinceCode":null,"stopTime":"2019-10-17 16:50:00","powerType":"全部","powerOffArea":"110kV长春变:三山D402线-春安村1号村中公变后段","powerOffReason":"(低压停电信息)青云2019年蒋家村12#林场公变等低压台区改造工程照明1#线1#-6杆拆除旧电缆，安装YJV-4*35电缆8米，搭接等工作","powerOffId":"2019092731020649"}],"pageModel":{"pageNow":1062,"totalCount":17789,"totalPage":1779,"tableRows":0,"pageCount":10,"beginCount":10610},"isExperi":"1"}