{"message":"","today":"2020-06-16","seleList":[{"poweroffId":2019092731020392,"sgpoweroffId":null,"subsName":"","lineName":"10kV羊山H530线","pubTranName":"新窑社区堤防公变,","scope":"浙江省杭州市余杭区瓶窑镇：新窑社区堤防一带","startTime":"2019-10-17 08:40:00","stopDate":"2019-10-17 16:40:00","orgNo":"3340140","typeCode":"计划停电","poweroffArea":"110kV凤山变:羊绿景村冷水桥新凉亭公变后段","poweroffReason":"计划工作","powerTime":"2019-10-17 16:30:26","powerComm":"已送电","subsNo":"","lineNo":"","tgNo":"","tgName":null,"infoStatus":"1","orgName":"国网浙江杭州市余杭区供电有限公司","typeName":null,"infoStatusName":null,"dateDay":null,"orgNos":null,"nowTime":null,"countyName":null,"streetName":null,"villageName":null,"roadName":null,"communityName":null,"tranName":null,"sdLineName":null,"cityCode":"3340140","cityName":"国网浙江杭州市余杭区供电有限公司","provinceCode":null,"stopTime":"2019-10-17 16:40:00","powerType":"全部","powerOffArea":"110kV凤山变:羊绿景村冷水桥新凉亭公变后段","powerOffReason":"计划工作","powerOffId":"2019092731020392"},{"poweroffId":2019092731020391,"sgpoweroffId":null,"subsName":"","lineName":"10kV牌头H562线","pubTranName":"王位山村干山坞公变,王位山村陆家庄公变,王位山村白石坞公变,","scope":"浙江省杭州市余杭区黄湖镇：王位山村白石坞公变、王位山村干山坞公变、王位山村陆家庄公变一带","startTime":"2019-10-14 08:40:00","stopDate":"2019-10-14 15:40:00","orgNo":"3340140","typeCode":"计划停电","poweroffArea":"35kV黄湖变:牌头H562线陆家庄分线开关后段","poweroffReason":"计划工作","powerTime":"2019-10-14 14:51:08","powerComm":"已送电","subsNo":"","lineNo":"","tgNo":"","tgName":null,"infoStatus":"1","orgName":"国网浙江杭州市余杭区供电有限公司","typeName":null,"infoStatusName":null,"dateDay":null,"orgNos":null,"nowTime":null,"countyName":null,"streetName":null,"villageName":null,"roadName":null,"communityName":null,"tranName":null,"sdLineName":null,"cityCode":"3340140","cityName":"国网浙江杭州市余杭区供电有限公司","provinceCode":null,"stopTime":"2019-10-14 15:40:00","powerType":"全部","powerOffArea":"35kV黄湖变:牌头H562线陆家庄分线开关后段","powerOffReason":"计划工作","powerOffId":"2019092731020391"},{"poweroffId":2019092731020390,"sgpoweroffId":null,"subsName":"","lineName":"10kV长盘D722线","pubTranName":"湘河村6号联山殿后山公变,","scope":"浙江省杭州市富阳区新登镇湘河行政村联山殿后山自然村一带","startTime":"2019-10-14 08:30:00","stopDate":"2019-10-14 15:00:00","orgNo":"3340170","typeCode":"计划停电","poweroffArea":"110kV松溪变:长盘D722线365#杆湘河村6#联山殿后山公变","poweroffReason":"长盘D722线365#杆湘河村6#联山殿后山公变拆装进线头一组、更换配电屏、拆除JKLYJ-70*4出线二路、敷设出线电缆YJV-4*2150二路、架设导线JKLYJ-120*4*2档、更换落户线BS_JKLYJ-2*25*1户","powerTime":"2019-10-14 14:50:06","powerComm":"已送电","subsNo":"","lineNo":"","tgNo":"","tgName":null,"infoStatus":"1","orgName":"国网浙江杭州市富阳区供电公司","typeName":null,"infoStatusName":null,"dateDay":null,"orgNos":null,"nowTime":null,"countyName":null,"streetName":null,"villageName":null,"roadName":null,"communityName":null,"tranName":null,"sdLineName":null,"cityCode":"3340170","cityName":"国网浙江杭州市富阳区供电公司","provinceCode":null,"stopTime":"2019-10-14 15:00:00","powerType":"全部","powerOffArea":"110kV松溪变:长盘D722线365#杆湘河村6#联山殿后山公变","powerOffReason":"长盘D722线365#杆湘河村6#联山殿后山公变拆装进线头一组、更换配电屏、拆除JKLYJ-70*4出线二路、敷设出线电缆YJV-4*2150二路、架设导线JKLYJ-120*4*2档、更换落户线BS_JKLYJ-2*25*1户","powerOffId":"2019092731020390"},{"poweroffId":2019092731020389,"sgpoweroffId":null,"subsName":"","lineName":"10kV百丈H563线","pubTranName":"半山村牙山公变,","scope":"浙江省杭州市余杭区百丈镇：半山村牙山一带","startTime":"2019-10-13 08:40:00","stopDate":"2019-10-13 16:40:00","orgNo":"3340140","typeCode":"计划停电","poweroffArea":"35kV黄湖变:百丈H563线牙山分线","poweroffReason":"计划工作","powerTime":"2019-10-13 15:45:15","powerComm":"已送电","subsNo":"","lineNo":"","tgNo":"","tgName":null,"infoStatus":"1","orgName":"国网浙江杭州市余杭区供电有限公司","typeName":null,"infoStatusName":null,"dateDay":null,"orgNos":null,"nowTime":null,"countyName":null,"streetName":null,"villageName":null,"roadName":null,"communityName":null,"tranName":null,"sdLineName":null,"cityCode":"3340140","cityName":"国网浙江杭州市余杭区供电有限公司","provinceCode":null,"stopTime":"2019-10-13 16:40:00","powerType":"全部","powerOffArea":"35kV黄湖变:百丈H563线牙山分线","powerOffReason":"计划工作","powerOffId":"2019092731020389"},{"poweroffId":2019092731020388,"sgpoweroffId":null,"subsName":"","lineName":"10kV方桥G907线","pubTranName":"乔司小学,南苑街道排涝,共和加油站,双和建筑61207071321#变压器,羊头坝闸站,","scope":"浙江省杭州市余杭区乔司街道：共和加油站、南苑街道排涝、城建羊头坝闸站、迎宾路拓宽堆放厂基建变、乔司小学一带","startTime":"2019-10-13 08:30:00","stopDate":"2019-10-13 13:30:00","orgNo":"3340140","typeCode":"计划停电","poweroffArea":"110kV庙港变:方桥G9075开关-景城开关站方桥G907线。","poweroffReason":"杭州市余杭区人民政府乔司街道办事处乔司小学新上2台315kVA基建变工程：方桥G907线新上乔司小学分支箱乔司中心小学基建分线电缆搭接和乔司中心小学基建分线导线搭头。","powerTime":"2019-10-13 12:33:10","powerComm":"工作结束","subsNo":"","lineNo":"","tgNo":"","tgName":null,"infoStatus":"1","orgName":"国网浙江杭州市余杭区供电有限公司","typeName":null,"infoStatusName":null,"dateDay":null,"orgNos":null,"nowTime":null,"countyName":null,"streetName":null,"villageName":null,"roadName":null,"communityName":null,"tranName":null,"sdLineName":null,"cityCode":"3340140","cityName":"国网浙江杭州市余杭区供电有限公司","provinceCode":null,"stopTime":"2019-10-13 13:30:00","powerType":"全部","powerOffArea":"110kV庙港变:方桥G9075开关-景城开关站方桥G907线。","powerOffReason":"杭州市余杭区人民政府乔司街道办事处乔司小学新上2台315kVA基建变工程：方桥G907线新上乔司小学分支箱乔司中心小学基建分线电缆搭接和乔司中心小学基建分线导线搭头。","powerOffId":"2019092731020388"},{"poweroffId":2019092731020385,"sgpoweroffId":null,"subsName":"","lineName":"10kV胥口D712线","pubTranName":"元村11#农居点公变,","scope":"浙江省杭州市富阳区新登镇元村行政村农居点自然村一带","startTime":"2019-10-15 08:30:00","stopDate":"2019-10-15 14:30:00","orgNo":"3340170","typeCode":"计划停电","poweroffArea":"110kV松溪变:胥口D712线104#杆胥灵联线26#杆长垅分线1#杆元村村委支线17#杆元村11#农居点公变（14#杆带电作业拆头）、胥灵2号开关站5#间隔","poweroffReason":"新兴西路电力线路改造工程：元村村委支线14#杆-17#杆导线拆除、17#杆电缆上杆搭头等工作","powerTime":"2019-10-15 14:03:25","powerComm":"已送电","subsNo":"","lineNo":"","tgNo":"","tgName":null,"infoStatus":"1","orgName":"国网浙江杭州市富阳区供电公司","typeName":null,"infoStatusName":null,"dateDay":null,"orgNos":null,"nowTime":null,"countyName":null,"streetName":null,"villageName":null,"roadName":null,"communityName":null,"tranName":null,"sdLineName":null,"cityCode":"3340170","cityName":"国网浙江杭州市富阳区供电公司","provinceCode":null,"stopTime":"2019-10-15 14:30:00","powerType":"全部","powerOffArea":"110kV松溪变:胥口D712线104#杆胥灵联线26#杆长垅分线1#杆元村村委支线17#杆元村11#农居点公变（14#杆带电作业拆头）、胥灵2号开关站5#间隔","powerOffReason":"新兴西路电力线路改造工程：元村村委支线14#杆-17#杆导线拆除、17#杆电缆上杆搭头等工作","powerOffId":"2019092731020385"},{"poweroffId":2019092731020382,"sgpoweroffId":null,"subsName":"","lineName":"10kV上游G066线","pubTranName":"三角村经联社2#,三角村经联社1#,","scope":"浙江省杭州市余杭区乔司街道：三角村经联社一带","startTime":"2019-10-11 13:30:00","stopDate":"2019-10-11 15:00:00","orgNo":"3340140","typeCode":"计划停电","poweroffArea":"110kV外乔变:上游G066线三角村经联社分线三角经联社2#分支箱分线","poweroffReason":"2019年杭州余杭南苑10kV冯金G906线等分支线消缺工程：三角村经联社销户电缆拆头。","powerTime":"2019-10-11 14:39:50","powerComm":"已送电","subsNo":"","lineNo":"","tgNo":"","tgName":null,"infoStatus":"1","orgName":"国网浙江杭州市余杭区供电有限公司","typeName":null,"infoStatusName":null,"dateDay":null,"orgNos":null,"nowTime":null,"countyName":null,"streetName":null,"villageName":null,"roadName":null,"communityName":null,"tranName":null,"sdLineName":null,"cityCode":"3340140","cityName":"国网浙江杭州市余杭区供电有限公司","provinceCode":null,"stopTime":"2019-10-11 15:00:00","powerType":"全部","powerOffArea":"110kV外乔变:上游G066线三角村经联社分线三角经联社2#分支箱分线","powerOffReason":"2019年杭州余杭南苑10kV冯金G906线等分支线消缺工程：三角村经联社销户电缆拆头。","powerOffId":"2019092731020382"},{"poweroffId":2019092731020381,"sgpoweroffId":null,"subsName":"","lineName":"10kV胥口D712线","pubTranName":"元村村6#村委边公变,","scope":"浙江省杭州市富阳区新登镇元村行政村村委路一带","startTime":"2019-10-15 08:30:00","stopDate":"2019-10-15 14:30:00","orgNo":"3340170","typeCode":"计划停电","poweroffArea":"110kV松溪变:胥口D712线104#杆胥灵联线26#杆长垅分线1#杆元村村委支线13#杆元村村委边支线（带电作业拆头）、胥灵2号开关站3#间隔","poweroffReason":"新登2019年10kV上练D713线等线路改造工程：元村村委支线13#杆元村村委边支线带电作业拆头、导线拆除、新电缆上杆、搭头等工作。","powerTime":"2019-10-15 14:03:14","powerComm":"已送电","subsNo":"","lineNo":"","tgNo":"","tgName":null,"infoStatus":"1","orgName":"国网浙江杭州市富阳区供电公司","typeName":null,"infoStatusName":null,"dateDay":null,"orgNos":null,"nowTime":null,"countyName":null,"streetName":null,"villageName":null,"roadName":null,"communityName":null,"tranName":null,"sdLineName":null,"cityCode":"3340170","cityName":"国网浙江杭州市富阳区供电公司","provinceCode":null,"stopTime":"2019-10-15 14:30:00","powerType":"全部","powerOffArea":"110kV松溪变:胥口D712线104#杆胥灵联线26#杆长垅分线1#杆元村村委支线13#杆元村村委边支线（带电作业拆头）、胥灵2号开关站3#间隔","powerOffReason":"新登2019年10kV上练D713线等线路改造工程：元村村委支线13#杆元村村委边支线带电作业拆头、导线拆除、新电缆上杆、搭头等工作。","powerOffId":"2019092731020381"},{"poweroffId":2019092731020380,"sgpoweroffId":null,"subsName":"","lineName":"10kV沿山G113线","pubTranName":"临平山庄二期1号公变,杭州市余杭区城市管理综合行政执法局,景星观2号公变,临平山庄公变,啤酒厂营业房公变,","scope":"浙江省杭州市余杭区南苑街道：临平山庄、啤酒厂、景星观一带","startTime":"2019-10-11 08:30:00","stopDate":"2019-10-11 10:30:00","orgNo":"3340140","typeCode":"计划停电","poweroffArea":"110kV临平变:科技开关站沿山G113线景星观分支箱分线。","poweroffReason":"2019年杭州余杭南苑10kV冯金G906线等分支线消缺工程 原停电结束时间为2019-10-11 12:00:00,为减少客户停电时间,加快工作进度,提前送电,现变更停电结束时间为2019-10-11 10:30:00","powerTime":"2019-10-11 09:48:33","powerComm":"已送电","subsNo":"","lineNo":"","tgNo":"","tgName":null,"infoStatus":"1","orgName":"国网浙江杭州市余杭区供电有限公司","typeName":null,"infoStatusName":null,"dateDay":null,"orgNos":null,"nowTime":null,"countyName":null,"streetName":null,"villageName":null,"roadName":null,"communityName":null,"tranName":null,"sdLineName":null,"cityCode":"3340140","cityName":"国网浙江杭州市余杭区供电有限公司","provinceCode":null,"stopTime":"2019-10-11 10:30:00","powerType":"全部","powerOffArea":"110kV临平变:科技开关站沿山G113线景星观分支箱分线。","powerOffReason":"2019年杭州余杭南苑10kV冯金G906线等分支线消缺工程 原停电结束时间为2019-10-11 12:00:00,为减少客户停电时间,加快工作进度,提前送电,现变更停电结束时间为2019-10-11 10:30:00","powerOffId":"2019092731020380"},{"poweroffId":2019092731020378,"sgpoweroffId":null,"subsName":"","lineName":"10kV藕花G114线","pubTranName":"中山花苑2号公变,中山花苑1号公变,","scope":"浙江省杭州市余杭区南苑街道：中山花苑小区一带","startTime":"2019-10-10 08:30:00","stopDate":"2019-10-10 15:30:00","orgNo":"3340140","typeCode":"计划停电","poweroffArea":"110kV临平变:藕花开关站藕花G114线中康分线。","poweroffReason":"美变调换工程：藕花开关站藕花G114线中康分线中山花苑1#、中山花苑2#美变调换。 原停电结束时间为2019-10-10 17:00:00,为减少客户停电时间,加快工作进度,提前送电,现变更停电结束时间为2019-10-10 15:30:00","powerTime":"2019-10-10 14:49:30","powerComm":"已送电","subsNo":"","lineNo":"","tgNo":"","tgName":null,"infoStatus":"1","orgName":"国网浙江杭州市余杭区供电有限公司","typeName":null,"infoStatusName":null,"dateDay":null,"orgNos":null,"nowTime":null,"countyName":null,"streetName":null,"villageName":null,"roadName":null,"communityName":null,"tranName":null,"sdLineName":null,"cityCode":"3340140","cityName":"国网浙江杭州市余杭区供电有限公司","provinceCode":null,"stopTime":"2019-10-10 15:30:00","powerType":"全部","powerOffArea":"110kV临平变:藕花开关站藕花G114线中康分线。","powerOffReason":"美变调换工程：藕花开关站藕花G114线中康分线中山花苑1#、中山花苑2#美变调换。 原停电结束时间为2019-10-10 17:00:00,为减少客户停电时间,加快工作进度,提前送电,现变更停电结束时间为2019-10-10 15:30:00","powerOffId":"2019092731020378"}],"pageModel":{"pageNow":1067,"totalCount":17789,"totalPage":1779,"tableRows":0,"pageCount":10,"beginCount":10660},"isExperi":"1"}