{"message":"","today":"2020-06-16","seleList":[{"poweroffId":2019092731020376,"sgpoweroffId":null,"subsName":"","lineName":"10kV洪庄D292线","pubTranName":"杜墓村1#上公变,","scope":"浙江省杭州市富阳区银湖街道杜墓村一带","startTime":"2019-10-14 09:00:00","stopDate":"2019-10-14 16:30:00","orgNo":"3340170","typeCode":"计划停电","poweroffArea":"洪庄D292线58#杆杜墓分线51#杆杜墓二支线","poweroffReason":"迎东2019年虎哨杏村3#麻墩公变等10kV配变增容布点工程：杜墓村1#上公变由200kVA增容至400kVA，终端更换等工作","powerTime":"2019-10-14 16:19:58","powerComm":"已送电","subsNo":"","lineNo":"","tgNo":"","tgName":null,"infoStatus":"1","orgName":"国网浙江杭州市富阳区供电公司","typeName":null,"infoStatusName":null,"dateDay":null,"orgNos":null,"nowTime":null,"countyName":null,"streetName":null,"villageName":null,"roadName":null,"communityName":null,"tranName":null,"sdLineName":null,"cityCode":"3340170","cityName":"国网浙江杭州市富阳区供电公司","provinceCode":null,"stopTime":"2019-10-14 16:30:00","powerType":"全部","powerOffArea":"洪庄D292线58#杆杜墓分线51#杆杜墓二支线","powerOffReason":"迎东2019年虎哨杏村3#麻墩公变等10kV配变增容布点工程：杜墓村1#上公变由200kVA增容至400kVA，终端更换等工作","powerOffId":"2019092731020376"},{"poweroffId":2019092731020375,"sgpoweroffId":null,"subsName":"","lineName":"10kV杭千D427线","pubTranName":"民联村3#三段公变,","scope":"浙江省杭州市富阳区东洲街道民联村一带","startTime":"2019-10-17 15:00:00","stopDate":"2019-10-17 16:00:00","orgNo":"3340170","typeCode":"计划停电","poweroffArea":"杭千D427线东桥二号开关站3#间隔七号路分线2#杆民联支线2#杆民联村3#三段公变","poweroffReason":"民联村3#三段公变低压由发电机改接至变压器","powerTime":"2019-10-17 15:45:31","powerComm":"已送电","subsNo":"","lineNo":"","tgNo":"","tgName":null,"infoStatus":"1","orgName":"国网浙江杭州市富阳区供电公司","typeName":null,"infoStatusName":null,"dateDay":null,"orgNos":null,"nowTime":null,"countyName":null,"streetName":null,"villageName":null,"roadName":null,"communityName":null,"tranName":null,"sdLineName":null,"cityCode":"3340170","cityName":"国网浙江杭州市富阳区供电公司","provinceCode":null,"stopTime":"2019-10-17 16:00:00","powerType":"全部","powerOffArea":"杭千D427线东桥二号开关站3#间隔七号路分线2#杆民联支线2#杆民联村3#三段公变","powerOffReason":"民联村3#三段公变低压由发电机改接至变压器","powerOffId":"2019092731020375"},{"poweroffId":2019092731020374,"sgpoweroffId":null,"subsName":"","lineName":"10kV塘埠H257线","pubTranName":"塘埠村长岭村公变,杭州市余杭区瓶窑镇塘埠村村民委员会6111087248,","scope":"浙江省杭州市余杭区瓶窑镇：塘埠村长岭村、瓶窑镇塘埠村村民委员会一带","startTime":"2019-10-10 08:40:00","stopDate":"2019-10-10 13:40:00","orgNo":"3340140","typeCode":"计划停电","poweroffArea":"110kV彭公变:塘埠H257线长岭小队分线28号杆开关后段","poweroffReason":"计划工作","powerTime":"2019-10-10 13:30:54","powerComm":"已送电","subsNo":"","lineNo":"","tgNo":"","tgName":null,"infoStatus":"1","orgName":"国网浙江杭州市余杭区供电有限公司","typeName":null,"infoStatusName":null,"dateDay":null,"orgNos":null,"nowTime":null,"countyName":null,"streetName":null,"villageName":null,"roadName":null,"communityName":null,"tranName":null,"sdLineName":null,"cityCode":"3340140","cityName":"国网浙江杭州市余杭区供电有限公司","provinceCode":null,"stopTime":"2019-10-10 13:40:00","powerType":"全部","powerOffArea":"110kV彭公变:塘埠H257线长岭小队分线28号杆开关后段","powerOffReason":"计划工作","powerOffId":"2019092731020374"},{"poweroffId":2019092731020373,"sgpoweroffId":null,"subsName":"","lineName":"10kV头格G061线","pubTranName":"1#,","scope":"浙江省杭州市余杭区乔司街道：赭山港泵站一带","startTime":"2019-10-09 08:30:00","stopDate":"2019-10-09 17:00:00","orgNo":"3340140","typeCode":"计划停电","poweroffArea":"110kV外乔变:胜格开关站格立G0611线-格立G06112开关。","poweroffReason":"杭州余杭乔司地区配变台区改造工程：胜德G0581线15#杆新上学稼7组2#公变（格立G0611线陪停）。","powerTime":"2019-10-09 16:18:00","powerComm":"已送电","subsNo":"","lineNo":"","tgNo":"","tgName":null,"infoStatus":"1","orgName":"国网浙江杭州市余杭区供电有限公司","typeName":null,"infoStatusName":null,"dateDay":null,"orgNos":null,"nowTime":null,"countyName":null,"streetName":null,"villageName":null,"roadName":null,"communityName":null,"tranName":null,"sdLineName":null,"cityCode":"3340140","cityName":"国网浙江杭州市余杭区供电有限公司","provinceCode":null,"stopTime":"2019-10-09 17:00:00","powerType":"全部","powerOffArea":"110kV外乔变:胜格开关站格立G0611线-格立G06112开关。","powerOffReason":"杭州余杭乔司地区配变台区改造工程：胜德G0581线15#杆新上学稼7组2#公变（格立G0611线陪停）。","powerOffId":"2019092731020373"},{"poweroffId":2019092731020372,"sgpoweroffId":null,"subsName":"","lineName":"10kV长亭H663线","pubTranName":"2#,富力西溪悦城9#公变,2#,富力西溪悦城13#公变,2#,乐淘城2号公变,乐淘城3号公变,富力西溪悦城12#公变,4#,2#,2#,富力西溪悦城7#公变,4#,富力西溪悦城8#公变,4#,乐淘城1号公变,富力西溪悦城10#公变,富力西溪悦城14#公变,乐淘城4号公变,富力西溪悦城11#公变,","scope":"浙江省-杭州市-余杭区-五常街道-文一社区-文一西路,五常街道-永福社区(溪望路,高教路,常二路);浙江省-杭州市-余杭区-五常街道-永福社区-广州天力物业发展有限公司杭州分公司,五常街道-文一社区(阿里未来酒店管理(浙江)有限公司,传富(杭州)置业有限公司,绿城物业服务集团有限公司余杭分公司)","startTime":"2019-09-27 13:49:00","stopDate":"2019-09-27 14:30:00","orgNo":"3340140","typeCode":"电网故障停限电","poweroffArea":"110kV永福变:长亭H663线","poweroffReason":"高压开关跳闸 原停电结束时间为2019-09-27 17:20:00,为减少客户停电时间,加快工作进度,提前送电,现变更停电结束时间为2019-09-27 14:30:00","powerTime":"2019-09-27 14:05:00","powerComm":"已送电","subsNo":"","lineNo":"","tgNo":"","tgName":null,"infoStatus":"1","orgName":"国网浙江杭州市余杭区供电有限公司","typeName":null,"infoStatusName":null,"dateDay":null,"orgNos":null,"nowTime":null,"countyName":null,"streetName":null,"villageName":null,"roadName":null,"communityName":null,"tranName":null,"sdLineName":null,"cityCode":"3340140","cityName":"国网浙江杭州市余杭区供电有限公司","provinceCode":null,"stopTime":"2019-09-27 14:30:00","powerType":"全部","powerOffArea":"110kV永福变:长亭H663线","powerOffReason":"高压开关跳闸 原停电结束时间为2019-09-27 17:20:00,为减少客户停电时间,加快工作进度,提前送电,现变更停电结束时间为2019-09-27 14:30:00","powerOffId":"2019092731020372"},{"poweroffId":2019092731020363,"sgpoweroffId":null,"subsName":"","lineName":"10kV径山H545线","pubTranName":"绿景村冷水桥新凉亭公变,","scope":"浙江省杭州市余杭区瓶窑镇：绿景村冷水桥新凉亭一带","startTime":"2019-10-09 08:40:00","stopDate":"2019-10-09 16:40:00","orgNo":"3340140","typeCode":"计划停电","poweroffArea":"110kV潘板变:径山H545线绿景村冷水桥新凉亭公变后段","poweroffReason":"计划工作","powerTime":"2019-10-09 16:06:02","powerComm":"已送电","subsNo":"","lineNo":"","tgNo":"","tgName":null,"infoStatus":"1","orgName":"国网浙江杭州市余杭区供电有限公司","typeName":null,"infoStatusName":null,"dateDay":null,"orgNos":null,"nowTime":null,"countyName":null,"streetName":null,"villageName":null,"roadName":null,"communityName":null,"tranName":null,"sdLineName":null,"cityCode":"3340140","cityName":"国网浙江杭州市余杭区供电有限公司","provinceCode":null,"stopTime":"2019-10-09 16:40:00","powerType":"全部","powerOffArea":"110kV潘板变:径山H545线绿景村冷水桥新凉亭公变后段","powerOffReason":"计划工作","powerOffId":"2019092731020363"},{"poweroffId":2019092731020359,"sgpoweroffId":null,"subsName":"","lineName":"10kV东八D469线","pubTranName":"杭州富阳江丰电机厂,","scope":"浙江省杭州市富阳区东洲街道紫铜村江丰电机厂一带","startTime":"2019-10-17 09:00:00","stopDate":"2019-10-17 17:00:00","orgNo":"3340170","typeCode":"计划停电","poweroffArea":"东八D469线八号路一号开关站5#间隔八号路分线11#杆三号路支线30#杆排涝支线","poweroffReason":"迎东2019年10kV东八D469线等线路改造工程：拆装导线四档，分支线改接等工作","powerTime":"2019-10-17 16:45:29","powerComm":"已送电","subsNo":"","lineNo":"","tgNo":"","tgName":null,"infoStatus":"1","orgName":"国网浙江杭州市富阳区供电公司","typeName":null,"infoStatusName":null,"dateDay":null,"orgNos":null,"nowTime":null,"countyName":null,"streetName":null,"villageName":null,"roadName":null,"communityName":null,"tranName":null,"sdLineName":null,"cityCode":"3340170","cityName":"国网浙江杭州市富阳区供电公司","provinceCode":null,"stopTime":"2019-10-17 17:00:00","powerType":"全部","powerOffArea":"东八D469线八号路一号开关站5#间隔八号路分线11#杆三号路支线30#杆排涝支线","powerOffReason":"迎东2019年10kV东八D469线等线路改造工程：拆装导线四档，分支线改接等工作","powerOffId":"2019092731020359"},{"poweroffId":2019092731020348,"sgpoweroffId":null,"subsName":"","lineName":"10kV十月D225线","pubTranName":"沈家坞1号坑东公变,","scope":"浙江省杭州市富阳区银湖街道沈家坞村一带","startTime":"2019-10-18 09:00:00","stopDate":"2019-10-18 15:00:00","orgNo":"3340170","typeCode":"计划停电","poweroffArea":"110kV银湖变:十月D225线-沈家坞1号坑东公变后段","poweroffReason":"迎东2019年沈家坞9#里村口公变等低压台区改造工程：沈家坞1#坑东公变更换配电屏1套，新做高拉1组，新架导线1档，横担移位1处，搭接等工作。","powerTime":"2019-10-18 14:31:02","powerComm":"已送电","subsNo":"","lineNo":"","tgNo":"","tgName":null,"infoStatus":"1","orgName":"国网浙江杭州市富阳区供电公司","typeName":null,"infoStatusName":null,"dateDay":null,"orgNos":null,"nowTime":null,"countyName":null,"streetName":null,"villageName":null,"roadName":null,"communityName":null,"tranName":null,"sdLineName":null,"cityCode":"3340170","cityName":"国网浙江杭州市富阳区供电公司","provinceCode":null,"stopTime":"2019-10-18 15:00:00","powerType":"全部","powerOffArea":"110kV银湖变:十月D225线-沈家坞1号坑东公变后段","powerOffReason":"迎东2019年沈家坞9#里村口公变等低压台区改造工程：沈家坞1#坑东公变更换配电屏1套，新做高拉1组，新架导线1档，横担移位1处，搭接等工作。","powerOffId":"2019092731020348"},{"poweroffId":2019092731020342,"sgpoweroffId":null,"subsName":"","lineName":"10kV巨星D926线","pubTranName":"万众村1#村中公变,","scope":"浙江省-杭州市-富阳区-渔山乡-墅溪行政村-万众自然村一带","startTime":"2019-10-14 08:00:00","stopDate":"2019-10-14 16:40:00","orgNo":"3340170","typeCode":"计划停电","poweroffArea":"110kV里渔变:巨星D926线-万众村1号村中低压开关后段","poweroffReason":"(低压停电信息)江南2019缺陷处理工程架导线、搭接等工作，万众村4号浦西公变（配合停电）","powerTime":"2019-10-14 16:26:27","powerComm":"已送电","subsNo":"","lineNo":"","tgNo":"","tgName":null,"infoStatus":"1","orgName":"国网浙江杭州市富阳区供电公司","typeName":null,"infoStatusName":null,"dateDay":null,"orgNos":null,"nowTime":null,"countyName":null,"streetName":null,"villageName":null,"roadName":null,"communityName":null,"tranName":null,"sdLineName":null,"cityCode":"3340170","cityName":"国网浙江杭州市富阳区供电公司","provinceCode":null,"stopTime":"2019-10-14 16:40:00","powerType":"全部","powerOffArea":"110kV里渔变:巨星D926线-万众村1号村中低压开关后段","powerOffReason":"(低压停电信息)江南2019缺陷处理工程架导线、搭接等工作，万众村4号浦西公变（配合停电）","powerOffId":"2019092731020342"},{"poweroffId":2019092731020341,"sgpoweroffId":null,"subsName":"","lineName":"10kV巨星D926线","pubTranName":"万众村4号浦西公变,","scope":"浙江省-杭州市-富阳区-渔山乡-墅溪行政村-万众村自然村-浦西自然村一带","startTime":"2019-10-14 08:00:00","stopDate":"2019-10-14 12:40:00","orgNo":"3340170","typeCode":"计划停电","poweroffArea":"110kV里渔变:巨星D926线-万众村4号浦西低压开关后段","poweroffReason":"(低压停电信息)江南2019缺陷处理工程配合万众村1号村中公变拆旧等工作","powerTime":"2019-10-14 12:20:28","powerComm":"已送电","subsNo":"","lineNo":"","tgNo":"","tgName":null,"infoStatus":"1","orgName":"国网浙江杭州市富阳区供电公司","typeName":null,"infoStatusName":null,"dateDay":null,"orgNos":null,"nowTime":null,"countyName":null,"streetName":null,"villageName":null,"roadName":null,"communityName":null,"tranName":null,"sdLineName":null,"cityCode":"3340170","cityName":"国网浙江杭州市富阳区供电公司","provinceCode":null,"stopTime":"2019-10-14 12:40:00","powerType":"全部","powerOffArea":"110kV里渔变:巨星D926线-万众村4号浦西低压开关后段","powerOffReason":"(低压停电信息)江南2019缺陷处理工程配合万众村1号村中公变拆旧等工作","powerOffId":"2019092731020341"}],"pageModel":{"pageNow":1068,"totalCount":17789,"totalPage":1779,"tableRows":0,"pageCount":10,"beginCount":10670},"isExperi":"1"}