{"message":"","today":"2020-06-16","seleList":[{"poweroffId":2019092731020337,"sgpoweroffId":null,"subsName":"","lineName":"10kV电池6401线","pubTranName":"天鸿2#变,天鸿1#变,","scope":"浙江省杭州市西湖区邮电新村7-19幢附近，杭州美仁物业管理有限公司（双路用户停单侧）","startTime":"2019-10-09 09:30:00","stopDate":"2019-10-09 15:00:00","orgNo":"3340101","typeCode":"计划停电","poweroffArea":"110kV武林变:电池6401线-天鸿一线（建宿站-天鸿站）；天鸿站母线；双路用户天鸿单侧","poweroffReason":"天鸿站换柜 原停电结束时间为2019-10-09 17:30:00,为减少客户停电时间,加快工作进度,提前送电,现变更停电结束时间为2019-10-09 15:00:00","powerTime":"2019-10-09 14:27:59","powerComm":"已送电","subsNo":"","lineNo":"","tgNo":"","tgName":null,"infoStatus":"1","orgName":"浙江杭州电力客户服务中心","typeName":null,"infoStatusName":null,"dateDay":null,"orgNos":null,"nowTime":null,"countyName":null,"streetName":null,"villageName":null,"roadName":null,"communityName":null,"tranName":null,"sdLineName":null,"cityCode":"3340101","cityName":"浙江杭州电力客户服务中心","provinceCode":null,"stopTime":"2019-10-09 15:00:00","powerType":"全部","powerOffArea":"110kV武林变:电池6401线-天鸿一线（建宿站-天鸿站）；天鸿站母线；双路用户天鸿单侧","powerOffReason":"天鸿站换柜 原停电结束时间为2019-10-09 17:30:00,为减少客户停电时间,加快工作进度,提前送电,现变更停电结束时间为2019-10-09 15:00:00","powerOffId":"2019092731020337"},{"poweroffId":2019092731020335,"sgpoweroffId":null,"subsName":"","lineName":"10kV紫荆H873线","pubTranName":"紫荆村沙坑公变,新泰村乌龙山公变,双源塑业,新泰村东溪村公变,新泰村杨澄弄西公变,紫荆村铜岭桥公变,紫荆村钱家公变,紫荆村路家头公变,紫荆村竹园棚公变,紫荆村小学公变,广联复合(1),环筑建材,紫荆村石盂寺公变,紫荆村车口小学公变,凯翔塑业,杭州市余杭区中泰中心幼儿园,华易鞋业,新泰村杨澄弄公变,紫荆村丁家公变,交工路桥二绕三标4#基建变,紫荆村外塘坞2号公变,紫荆村横大公变,新泰村沙塘公变,紫荆村铜岭坑公变,紫荆村后东坞公变,紫荆村巴家桥公变,紫荆村黄家坎公变,一展塑业,新泰村新泰牧场公变,吉树木业,新泰村岑家弄公变,宝力物资,交工路桥二绕三标1#基建,紫荆村车口畈公变,新泰村东溪桥砖厂变,紫荆村外塘坞公变,新泰村东溪桥东公变,交工路桥二绕三标6#基建,沥青拌和,新泰村岑家弄2号公变,交工路桥二绕三标7#基建变,新泰村桐山坞公变,中泰武校,东溪桥石灰厂,新泰村洪家公变,交工路桥二绕三标8#基建变,泰山塑化,紫荆村上皇庙水库公变,紫荆村里塘坞公变,交工路桥二绕三标5#基建变,新泰村马岭脚公变,交工路桥二绕三标16#基建变,交工路桥二绕三标2#基建变,紫荆村沈家坞公变,紫荆村上皇庙公变,非凡橡胶,紫荆村寺前公变,新泰村西坞岭公变,金红彩瓦,紫荆村方家弄公变,紫荆村后东坞庙公变,丰硕物业,广联复合(2),新泰村扇子山公变,汇雅腾鞋业（6120040909）01#专变,玉皇泉水,二绕三标新上基变,汇雅腾鞋业（6120040909）02#专变,交工路桥二绕三标3#基建变,","scope":"浙江省-杭州市-余杭区-中泰街道(新泰行政村-新泰自然村,紫荆行政村-紫荆自然村,桃源社区-东西大道,石鸽社区-中泰路);中泰街道(杭州吉龙盛饮品有限公司,余杭市泰山东溪桥石灰厂,杭州广联复合材料有限公司,杭州双源塑业有限公司,杭州市余杭区中泰武术学校,杭州余杭区中泰街道黄太峰建材经营部,浙江交工路桥建设有限公司,杭州汇雅腾鞋业有限公司,浙江欧耐斯屋面瓦业有限公司,杭州盛翔化工有限公司,杭州一展塑业有限公司,杭州凯翔塑业有限公司,杭州杰泰助剂有限公司,杭州环筑建材有限公司,杭州宝力物资再生利用有限公司,杭州国泽实业有限公司,杭州晶冉五金制造有限公司,杭州市余杭区中泰中心幼儿园)","startTime":"2019-09-27 13:10:00","stopDate":"2019-09-27 14:30:00","orgNo":"3340140","typeCode":"电网故障停限电","poweroffArea":"110kV中泰变:紫荆H873线新泰分线开关后段","poweroffReason":"高压开关跳闸 原停电结束时间为2019-09-27 19:10:00,为减少客户停电时间,加快工作进度,提前送电,现变更停电结束时间为2019-09-27 14:30:00","powerTime":"2019-09-27 14:06:00","powerComm":"已送电","subsNo":"","lineNo":"","tgNo":"","tgName":null,"infoStatus":"1","orgName":"国网浙江杭州市余杭区供电有限公司","typeName":null,"infoStatusName":null,"dateDay":null,"orgNos":null,"nowTime":null,"countyName":null,"streetName":null,"villageName":null,"roadName":null,"communityName":null,"tranName":null,"sdLineName":null,"cityCode":"3340140","cityName":"国网浙江杭州市余杭区供电有限公司","provinceCode":null,"stopTime":"2019-09-27 14:30:00","powerType":"全部","powerOffArea":"110kV中泰变:紫荆H873线新泰分线开关后段","powerOffReason":"高压开关跳闸 原停电结束时间为2019-09-27 19:10:00,为减少客户停电时间,加快工作进度,提前送电,现变更停电结束时间为2019-09-27 14:30:00","powerOffId":"2019092731020335"},{"poweroffId":2019092731020331,"sgpoweroffId":null,"subsName":"","lineName":"10kV新桐D411线","pubTranName":"富阳市新桐乡程坟茂坤加油点1#变,富阳市民政局,程坟村2#长山弄公变,程坟村1#下埠头公变,浙江协源祥燃料有限公司,浙江交工宏途交通建设有限公司1#变,富阳市民政局,程坟村5号十亩里公变,富阳市火葬场,浙江交工宏途交通建设有限公司2#变,富阳市新桐乡华伟新型墙体建材厂,浙江交工宏途交通建设有限公司 7标1#基建变,浙江交工宏途交通建设有限公司1#变,富阳伟通水泥制品厂（普通合伙）,浙江交工宏途交通建设有限公司1#变,富阳市金城新型墙体建材厂,1#变,浙江交工宏途交通建设有限公司4#变,叶元荣砂场,富阳市新桐乡建发塑料厂,杭州富兴化纤有限公司,浙江交工宏途交通建设有限公司 7标2#变,浙江交工宏途交通建设有限公司1#变,浙江交工宏途交通建设有限公司 7标3#变,","scope":"浙江省-杭州市-富阳区-新桐乡-程浦行政村(程坟自然村,长山弄自然村);环山乡-浙江交工宏途交通建设有限公司,鹿山街道(杭州富阳财水货运码头,浙江交工宏途交通建设有限公司,富阳市民政局),新桐乡(富阳市金城新型墙体建材厂,叶元荣砂场,杭州市富阳区殡仪馆,富阳市新桐乡程坟茂坤加油点,浙江交工宏途交通建设有限公司,杭州富阳区新桐乡华伟新型墙体建材厂)","startTime":"2019-09-27 12:58:00","stopDate":"2019-09-27 14:58:00","orgNo":"3340170","typeCode":"电网故障停限电","poweroffArea":"110kV长春变:新桐D411线新桐D4113开关后段","poweroffReason":"高压开关跳闸","powerTime":"2019-09-27 14:18:21","powerComm":"已送电","subsNo":"","lineNo":"","tgNo":"","tgName":null,"infoStatus":"1","orgName":"国网浙江杭州市富阳区供电公司","typeName":null,"infoStatusName":null,"dateDay":null,"orgNos":null,"nowTime":null,"countyName":null,"streetName":null,"villageName":null,"roadName":null,"communityName":null,"tranName":null,"sdLineName":null,"cityCode":"3340170","cityName":"国网浙江杭州市富阳区供电公司","provinceCode":null,"stopTime":"2019-09-27 14:58:00","powerType":"全部","powerOffArea":"110kV长春变:新桐D411线新桐D4113开关后段","powerOffReason":"高压开关跳闸","powerOffId":"2019092731020331"},{"poweroffId":2019092731020317,"sgpoweroffId":null,"subsName":"","lineName":"10kV菜市752线","pubTranName":"万安北苑四变,万安北苑三变,金港商厦管理服务中心,","scope":"浙江省杭州市上城区建国路万安城市花园1幢—3幢附近一带。杭州市上城区万安城市花园4幢、7幢附近一带。浙江省杭州市上城区建国路金港商厦","startTime":"2019-10-17 09:30:00","stopDate":"2019-10-17 15:30:00","orgNo":"3340101","typeCode":"计划停电","poweroffArea":"110kV中心变:菜市752线-万北二线后段","poweroffReason":"杭州地铁5号线平海路站10kV电力三期迁改工程（城源）CZ2019-03-063-YNQQ 万北二线电缆迁改 原停电结束时间为17:00:00,为减少客户停电时间,加快工作进度,提前送电,现变更停电结束时间为15:30:00","powerTime":"2019-10-17 14:42:59","powerComm":"已送电","subsNo":"","lineNo":"","tgNo":"","tgName":null,"infoStatus":"1","orgName":"浙江杭州电力客户服务中心","typeName":null,"infoStatusName":null,"dateDay":null,"orgNos":null,"nowTime":null,"countyName":null,"streetName":null,"villageName":null,"roadName":null,"communityName":null,"tranName":null,"sdLineName":null,"cityCode":"3340101","cityName":"浙江杭州电力客户服务中心","provinceCode":null,"stopTime":"2019-10-17 15:30:00","powerType":"全部","powerOffArea":"110kV中心变:菜市752线-万北二线后段","powerOffReason":"杭州地铁5号线平海路站10kV电力三期迁改工程（城源）CZ2019-03-063-YNQQ 万北二线电缆迁改 原停电结束时间为17:00:00,为减少客户停电时间,加快工作进度,提前送电,现变更停电结束时间为15:30:00","powerOffId":"2019092731020317"},{"poweroffId":2019092731020315,"sgpoweroffId":null,"subsName":"","lineName":"10kV秋涛6014线","pubTranName":"中铁城建施二,","scope":"浙江省杭州市江干区石塘南路中铁城建公司","startTime":"2019-10-17 09:30:00","stopDate":"2019-10-17 18:00:00","orgNo":"3340101","typeCode":"计划停电","poweroffArea":"110kV望江变:秋涛6014线-铁建施线后段","poweroffReason":"石塘南路小区秋塘站II段换柜工程（古荡1811HZ1800WS06A0000000）秋塘站II段更换 原停电结束时间为17:00:00,因工作量大原因,现变更停电结束时间为18:00:00","powerTime":"2019-10-17 17:07:37","powerComm":"已送电","subsNo":"","lineNo":"","tgNo":"","tgName":null,"infoStatus":"1","orgName":"浙江杭州电力客户服务中心","typeName":null,"infoStatusName":null,"dateDay":null,"orgNos":null,"nowTime":null,"countyName":null,"streetName":null,"villageName":null,"roadName":null,"communityName":null,"tranName":null,"sdLineName":null,"cityCode":"3340101","cityName":"浙江杭州电力客户服务中心","provinceCode":null,"stopTime":"2019-10-17 18:00:00","powerType":"全部","powerOffArea":"110kV望江变:秋涛6014线-铁建施线后段","powerOffReason":"石塘南路小区秋塘站II段换柜工程（古荡1811HZ1800WS06A0000000）秋塘站II段更换 原停电结束时间为17:00:00,因工作量大原因,现变更停电结束时间为18:00:00","powerOffId":"2019092731020315"},{"poweroffId":2019092731020314,"sgpoweroffId":null,"subsName":"","lineName":"10kV万安751线","pubTranName":"万安北苑二变,金港商厦管理服务中心,万安北苑一变,","scope":"浙江省杭州市上城区建国路万安城市花园6幢、9幢、建国中路213号附近一带。杭州市上城区万安城市花园5幢、8幢、建国中路193号附近一带。浙江省杭州市上城区建国路金港商厦","startTime":"2019-10-16 09:30:00","stopDate":"2019-10-16 15:00:00","orgNo":"3340101","typeCode":"计划停电","poweroffArea":"110kV中心变:万安751线-万北一线后段","poweroffReason":"杭州地铁5号线平海路站10kV电力三期迁改工程（城源）CZ2019-03-063-YNQQ 万北一线电缆迁改 原停电结束时间为17:00:00,为减少客户停电时间,加快工作进度,提前送电,现变更停电结束时间为15:00:00","powerTime":"2019-10-16 14:30:55","powerComm":"已送电","subsNo":"","lineNo":"","tgNo":"","tgName":null,"infoStatus":"1","orgName":"浙江杭州电力客户服务中心","typeName":null,"infoStatusName":null,"dateDay":null,"orgNos":null,"nowTime":null,"countyName":null,"streetName":null,"villageName":null,"roadName":null,"communityName":null,"tranName":null,"sdLineName":null,"cityCode":"3340101","cityName":"浙江杭州电力客户服务中心","provinceCode":null,"stopTime":"2019-10-16 15:00:00","powerType":"全部","powerOffArea":"110kV中心变:万安751线-万北一线后段","powerOffReason":"杭州地铁5号线平海路站10kV电力三期迁改工程（城源）CZ2019-03-063-YNQQ 万北一线电缆迁改 原停电结束时间为17:00:00,为减少客户停电时间,加快工作进度,提前送电,现变更停电结束时间为15:00:00","powerOffId":"2019092731020314"},{"poweroffId":2019092731020313,"sgpoweroffId":null,"subsName":"","lineName":"10kV平江8724线","pubTranName":"钱置二变,","scope":"浙江省杭州市江干区庆春东路新塘路口钱江五苑附近一带","startTime":"2019-10-15 09:30:00","stopDate":"2019-10-15 12:30:00","orgNo":"3340101","typeCode":"计划停电","poweroffArea":"110kV剧院变:平江8724线-钱置变二线熔断器后段","poweroffReason":"杭州市钱江新城建设指挥部钱江苑开关柜消缺 原停电结束时间为2019-10-15 17:30:00,为减少客户停电时间,加快工作进度,提前送电,现变更停电结束时间为2019-10-15 12:30:00","powerTime":"2019-10-15 11:57:59","powerComm":"已送电","subsNo":"","lineNo":"","tgNo":"","tgName":null,"infoStatus":"1","orgName":"浙江杭州电力客户服务中心","typeName":null,"infoStatusName":null,"dateDay":null,"orgNos":null,"nowTime":null,"countyName":null,"streetName":null,"villageName":null,"roadName":null,"communityName":null,"tranName":null,"sdLineName":null,"cityCode":"3340101","cityName":"浙江杭州电力客户服务中心","provinceCode":null,"stopTime":"2019-10-15 12:30:00","powerType":"全部","powerOffArea":"110kV剧院变:平江8724线-钱置变二线熔断器后段","powerOffReason":"杭州市钱江新城建设指挥部钱江苑开关柜消缺 原停电结束时间为2019-10-15 17:30:00,为减少客户停电时间,加快工作进度,提前送电,现变更停电结束时间为2019-10-15 12:30:00","powerOffId":"2019092731020313"},{"poweroffId":2019092731020312,"sgpoweroffId":null,"subsName":"","lineName":"10kV菜市752线","pubTranName":"万安桥停车库2#,","scope":"浙江省杭州市上城区建国路万安桥停车库","startTime":"2019-10-15 09:30:00","stopDate":"2019-10-15 16:30:00","orgNo":"3340101","typeCode":"计划停电","poweroffArea":"110kV中心变:菜市752线-万停二线后段","poweroffReason":"杭州地铁5号线平海路站10kV电力三期迁改工程 原停电结束时间为2019-10-15 17:00:00,为减少客户停电时间,加快工作进度,提前送电,现变更停电结束时间为2019-10-15 16:30:00","powerTime":"2019-10-15 15:44:59","powerComm":"已送电","subsNo":"","lineNo":"","tgNo":"","tgName":null,"infoStatus":"1","orgName":"浙江杭州电力客户服务中心","typeName":null,"infoStatusName":null,"dateDay":null,"orgNos":null,"nowTime":null,"countyName":null,"streetName":null,"villageName":null,"roadName":null,"communityName":null,"tranName":null,"sdLineName":null,"cityCode":"3340101","cityName":"浙江杭州电力客户服务中心","provinceCode":null,"stopTime":"2019-10-15 16:30:00","powerType":"全部","powerOffArea":"110kV中心变:菜市752线-万停二线后段","powerOffReason":"杭州地铁5号线平海路站10kV电力三期迁改工程 原停电结束时间为2019-10-15 17:00:00,为减少客户停电时间,加快工作进度,提前送电,现变更停电结束时间为2019-10-15 16:30:00","powerOffId":"2019092731020312"},{"poweroffId":2019092731020310,"sgpoweroffId":null,"subsName":"","lineName":"10kV胡林H538线","pubTranName":"长命村胡林老村委公变,","scope":"浙江省-杭州市-余杭区-瓶窑镇-长命行政村(庄地自然村,胡林老自然村)","startTime":"2019-10-11 08:30:00","stopDate":"2019-10-11 16:30:00","orgNo":"3340140","typeCode":"计划停电","poweroffArea":"110kV凤山变:胡林H538线-胡林老村委一带","poweroffReason":"(低压停电信息)计划工作","powerTime":"2019-10-11 16:10:26","powerComm":"已送电","subsNo":"","lineNo":"","tgNo":"","tgName":null,"infoStatus":"1","orgName":"国网浙江杭州市余杭区供电有限公司","typeName":null,"infoStatusName":null,"dateDay":null,"orgNos":null,"nowTime":null,"countyName":null,"streetName":null,"villageName":null,"roadName":null,"communityName":null,"tranName":null,"sdLineName":null,"cityCode":"3340140","cityName":"国网浙江杭州市余杭区供电有限公司","provinceCode":null,"stopTime":"2019-10-11 16:30:00","powerType":"全部","powerOffArea":"110kV凤山变:胡林H538线-胡林老村委一带","powerOffReason":"(低压停电信息)计划工作","powerOffId":"2019092731020310"},{"poweroffId":2019092731020309,"sgpoweroffId":null,"subsName":"","lineName":"10kV万安751线","pubTranName":"万安桥停车库1#,","scope":"浙江省杭州市上城区建国路万安桥停车库","startTime":"2019-10-14 09:30:00","stopDate":"2019-10-14 15:50:00","orgNo":"3340101","typeCode":"计划停电","poweroffArea":"110kV中心变:万安751线-万停一线后段","poweroffReason":"杭州地铁5号线平海路站10kV电力三期迁改工程（城源）CZ2019-03-063-YNQQ 万停一线电缆迁改 原停电结束时间为17:00:00,为减少客户停电时间,加快工作进度,提前送电,现变更停电结束时间为15:50:00","powerTime":"2019-10-14 14:53:59","powerComm":"已送电","subsNo":"","lineNo":"","tgNo":"","tgName":null,"infoStatus":"1","orgName":"浙江杭州电力客户服务中心","typeName":null,"infoStatusName":null,"dateDay":null,"orgNos":null,"nowTime":null,"countyName":null,"streetName":null,"villageName":null,"roadName":null,"communityName":null,"tranName":null,"sdLineName":null,"cityCode":"3340101","cityName":"浙江杭州电力客户服务中心","provinceCode":null,"stopTime":"2019-10-14 15:50:00","powerType":"全部","powerOffArea":"110kV中心变:万安751线-万停一线后段","powerOffReason":"杭州地铁5号线平海路站10kV电力三期迁改工程（城源）CZ2019-03-063-YNQQ 万停一线电缆迁改 原停电结束时间为17:00:00,为减少客户停电时间,加快工作进度,提前送电,现变更停电结束时间为15:50:00","powerOffId":"2019092731020309"}],"pageModel":{"pageNow":1069,"totalCount":17789,"totalPage":1779,"tableRows":0,"pageCount":10,"beginCount":10680},"isExperi":"1"}