{"message":"","today":"2020-06-16","seleList":[{"poweroffId":2019092731020259,"sgpoweroffId":null,"subsName":"","lineName":"10kV富源V509线","pubTranName":"10kV横鑫村[小昔横坞口]公变,杭州亚中铝业有限公司1#,10kV昔口村[昔口张家]公变,10kV横鑫村[石井坞口]公变,杭州亚中铝业有限公司,10kV横鑫村[正坞口]公变,临安东升木竹纤维制品厂,10kV横鑫村[正坞罗鼓园]公变,10kV南山村[董村里]公变,10kV横鑫村[小昔楼家]公变,10kV下埠村[南山口]公变,10kV昔口村[张家下]公变,10kV横鑫村[外横岭]公变,10kV昔口村[钱家后坎]公变,10kV昔口村[昔口钱家]公变,10kV横鑫村[后横岭]公变,10kV昔口村[泥洞畈]公变,10kV横鑫村[横岭坞口]公变,10kV昔口村[昔口毛亭]公变,10kV横鑫村[乌金大礼堂]公变,10kV横鑫村[正坞方家]公变,10kV横鑫村[正坞沙滩头]公变,杭州亚中铝业有限公司,10kV南山村[董村外]公变,10kV横鑫村[小昔塔岭]公变,10kV横鑫村[竹库湾]公变,","scope":"浙江省-杭州市-临安市-於潜镇-南山口、董村外、董村里、张家下、昔口张家、昔口毛亭、昔口钱家、泥洞畈、钱家后坎、乌金大礼堂、后横岭、外横岭、小昔塔岭、小昔楼家、小昔横坞口、横岭坞口、正坞口、正坞方家、正坞沙滩头、正坞罗鼓园、石井坞口、竹库湾、临安东升木业有限公司、杭州亚中铝业有限公司一带","startTime":"2019-10-15 06:00:00","stopDate":"2019-10-15 06:30:00","orgNo":"3340160","typeCode":"计划停电","poweroffArea":"富源V509线","poweroffReason":"配合太阳变改造","powerTime":"2019-10-15 06:20:03","powerComm":"已送电","subsNo":"","lineNo":"","tgNo":"","tgName":null,"infoStatus":"1","orgName":"国网浙江临安市供电公司","typeName":null,"infoStatusName":null,"dateDay":null,"orgNos":null,"nowTime":null,"countyName":null,"streetName":null,"villageName":null,"roadName":null,"communityName":null,"tranName":null,"sdLineName":null,"cityCode":"3340160","cityName":"国网浙江临安市供电公司","provinceCode":null,"stopTime":"2019-10-15 06:30:00","powerType":"全部","powerOffArea":"富源V509线","powerOffReason":"配合太阳变改造","powerOffId":"2019092731020259"},{"poweroffId":2019092731020258,"sgpoweroffId":null,"subsName":"","lineName":"10kV绍鲁V502线","pubTranName":"10kV光明村[敖干村企业]公变,","scope":"浙江省-杭州市-临安市-於潜镇-敖干企业变一带","startTime":"2019-10-14 08:20:00","stopDate":"2019-10-14 16:10:00","orgNo":"3340160","typeCode":"计划停电","poweroffArea":"绍鲁V502线敖干分线1+1#杆光明村（敖干企业变）公变低压","poweroffReason":"绍鲁V502线敖干分线1+1#杆光明村（敖干企业变）公变低压盛家2000线、徐家1000线出线电缆、接户线调换","powerTime":"2019-10-14 16:00:08","powerComm":"已送电","subsNo":"","lineNo":"","tgNo":"","tgName":null,"infoStatus":"1","orgName":"国网浙江临安市供电公司","typeName":null,"infoStatusName":null,"dateDay":null,"orgNos":null,"nowTime":null,"countyName":null,"streetName":null,"villageName":null,"roadName":null,"communityName":null,"tranName":null,"sdLineName":null,"cityCode":"3340160","cityName":"国网浙江临安市供电公司","provinceCode":null,"stopTime":"2019-10-14 16:10:00","powerType":"全部","powerOffArea":"绍鲁V502线敖干分线1+1#杆光明村（敖干企业变）公变低压","powerOffReason":"绍鲁V502线敖干分线1+1#杆光明村（敖干企业变）公变低压盛家2000线、徐家1000线出线电缆、接户线调换","powerOffId":"2019092731020258"},{"poweroffId":2019092731020257,"sgpoweroffId":null,"subsName":"","lineName":"10kV双庙V253线","pubTranName":"10kV景村村[景村企业]公变,临安神舟工具有限公司,10kV景村村[景村村]公变,","scope":"浙江省-杭州市-临安市-太阳镇-景村村、临安神舟工具有限公司、景村企业一带","startTime":"2019-10-12 08:00:00","stopDate":"2019-10-12 18:00:00","orgNo":"3340160","typeCode":"计划停电","poweroffArea":"双庙V253线117#杆景村分线","poweroffReason":"临安市於潜10千伏双庙V253线等分支线线路改造02项:双庙V253线122#杆新装景村分线开关，双庙V253线117#杆景村分线割接至122#杆.","powerTime":"2019-10-12 17:50:14","powerComm":"已送电","subsNo":"","lineNo":"","tgNo":"","tgName":null,"infoStatus":"1","orgName":"国网浙江临安市供电公司","typeName":null,"infoStatusName":null,"dateDay":null,"orgNos":null,"nowTime":null,"countyName":null,"streetName":null,"villageName":null,"roadName":null,"communityName":null,"tranName":null,"sdLineName":null,"cityCode":"3340160","cityName":"国网浙江临安市供电公司","provinceCode":null,"stopTime":"2019-10-12 18:00:00","powerType":"全部","powerOffArea":"双庙V253线117#杆景村分线","powerOffReason":"临安市於潜10千伏双庙V253线等分支线线路改造02项:双庙V253线122#杆新装景村分线开关，双庙V253线117#杆景村分线割接至122#杆.","powerOffId":"2019092731020257"},{"poweroffId":2019092731020256,"sgpoweroffId":null,"subsName":"","lineName":"10kV窈口D381线","pubTranName":"杨家坞村4#后潘坞公变,","scope":"浙江省杭州市富阳区湖源乡杨家坞村一带","startTime":"2019-10-18 08:50:00","stopDate":"2019-10-18 16:40:00","orgNo":"3340170","typeCode":"计划停电","poweroffArea":"35kV湖源变:窈口D381线-杨家坞村4#后潘坞公变低压开关后段","poweroffReason":"(低压停电信息)放接户线及杆上搭接、线路改接等工作","powerTime":"2019-10-18 16:28:29","powerComm":"已送电","subsNo":"","lineNo":"","tgNo":"","tgName":null,"infoStatus":"1","orgName":"国网浙江杭州市富阳区供电公司","typeName":null,"infoStatusName":null,"dateDay":null,"orgNos":null,"nowTime":null,"countyName":null,"streetName":null,"villageName":null,"roadName":null,"communityName":null,"tranName":null,"sdLineName":null,"cityCode":"3340170","cityName":"国网浙江杭州市富阳区供电公司","provinceCode":null,"stopTime":"2019-10-18 16:40:00","powerType":"全部","powerOffArea":"35kV湖源变:窈口D381线-杨家坞村4#后潘坞公变低压开关后段","powerOffReason":"(低压停电信息)放接户线及杆上搭接、线路改接等工作","powerOffId":"2019092731020256"},{"poweroffId":2019092731020255,"sgpoweroffId":null,"subsName":"","lineName":"10kV赤松D236线","pubTranName":"舒姑洋5#陆家岭公变,","scope":"浙江省-杭州市-富阳区-银湖街道-高桥行政村(舒姑垟自然村,高桥自然村,马塘桥自然村)","startTime":"2019-10-18 07:30:00","stopDate":"2019-10-18 12:00:00","orgNo":"3340170","typeCode":"计划停电","poweroffArea":"110kV白鹤变:赤松D236线-舒姑洋5#陆家岭公变低压开关后段","poweroffReason":"(低压停电信息)新装T接箱1只，新装YJV22/4*70电缆55米，更换接户线2处，搭接等工作。（迎东2019年沈家坞9#里村口公变等低压台区改造工程）","powerTime":"2019-10-18 11:45:14","powerComm":"已送电","subsNo":"","lineNo":"","tgNo":"","tgName":null,"infoStatus":"1","orgName":"国网浙江杭州市富阳区供电公司","typeName":null,"infoStatusName":null,"dateDay":null,"orgNos":null,"nowTime":null,"countyName":null,"streetName":null,"villageName":null,"roadName":null,"communityName":null,"tranName":null,"sdLineName":null,"cityCode":"3340170","cityName":"国网浙江杭州市富阳区供电公司","provinceCode":null,"stopTime":"2019-10-18 12:00:00","powerType":"全部","powerOffArea":"110kV白鹤变:赤松D236线-舒姑洋5#陆家岭公变低压开关后段","powerOffReason":"(低压停电信息)新装T接箱1只，新装YJV22/4*70电缆55米，更换接户线2处，搭接等工作。（迎东2019年沈家坞9#里村口公变等低压台区改造工程）","powerOffId":"2019092731020255"},{"poweroffId":2019092731020254,"sgpoweroffId":null,"subsName":"","lineName":"10kV高桥D220线","pubTranName":"舒姑洋11号工贸2公变,","scope":"浙江省-杭州市-富阳区-银湖街道-郜村行政村-郜村自然村,银湖街道-高桥行政村(舒姑垟自然村,高尔夫路)","startTime":"2019-10-17 07:30:00","stopDate":"2019-10-17 16:30:00","orgNo":"3340170","typeCode":"计划停电","poweroffArea":"110kV银湖变:高桥D220线-舒姑洋11号工贸2公变低压开关后段","poweroffReason":"(低压停电信息)新装出线电缆1路，新架导线2档，更换接户线10处，搭接等工作。（迎东2019年沈家坞9#里村口公变等低压台区改造工程）","powerTime":"2019-10-17 16:15:08","powerComm":"已送电","subsNo":"","lineNo":"","tgNo":"","tgName":null,"infoStatus":"1","orgName":"国网浙江杭州市富阳区供电公司","typeName":null,"infoStatusName":null,"dateDay":null,"orgNos":null,"nowTime":null,"countyName":null,"streetName":null,"villageName":null,"roadName":null,"communityName":null,"tranName":null,"sdLineName":null,"cityCode":"3340170","cityName":"国网浙江杭州市富阳区供电公司","provinceCode":null,"stopTime":"2019-10-17 16:30:00","powerType":"全部","powerOffArea":"110kV银湖变:高桥D220线-舒姑洋11号工贸2公变低压开关后段","powerOffReason":"(低压停电信息)新装出线电缆1路，新架导线2档，更换接户线10处，搭接等工作。（迎东2019年沈家坞9#里村口公变等低压台区改造工程）","powerOffId":"2019092731020254"},{"poweroffId":2019092731020251,"sgpoweroffId":null,"subsName":"","lineName":"10kV李家D384线","pubTranName":"新二村5#中塔公变,","scope":"浙江省杭州市富阳区湖源乡新二村一带","startTime":"2019-10-14 08:50:00","stopDate":"2019-10-14 16:40:00","orgNo":"3340170","typeCode":"计划停电","poweroffArea":"35kV湖源变:李家D384线-新二村5#中塔公变低压开关后段","poweroffReason":"(低压停电信息)装横担、做拉线、架线、拆旧、线路改接等工作","powerTime":"2019-10-14 16:26:45","powerComm":"已送电","subsNo":"","lineNo":"","tgNo":"","tgName":null,"infoStatus":"1","orgName":"国网浙江杭州市富阳区供电公司","typeName":null,"infoStatusName":null,"dateDay":null,"orgNos":null,"nowTime":null,"countyName":null,"streetName":null,"villageName":null,"roadName":null,"communityName":null,"tranName":null,"sdLineName":null,"cityCode":"3340170","cityName":"国网浙江杭州市富阳区供电公司","provinceCode":null,"stopTime":"2019-10-14 16:40:00","powerType":"全部","powerOffArea":"35kV湖源变:李家D384线-新二村5#中塔公变低压开关后段","powerOffReason":"(低压停电信息)装横担、做拉线、架线、拆旧、线路改接等工作","powerOffId":"2019092731020251"},{"poweroffId":2019092731020247,"sgpoweroffId":null,"subsName":"","lineName":"10kV山居D588线","pubTranName":"观前村3#桥头公变1,","scope":"浙江省-杭州市-富阳区-银湖街道-观前行政村-观前自然村","startTime":"2019-10-16 08:20:00","stopDate":"2019-10-16 17:20:00","orgNo":"3340170","typeCode":"计划停电","poweroffArea":"110kV高桥变:山居D588线-观前村3#桥头公变低压开关后段","poweroffReason":"(低压停电信息)杭州市富阳区观前村拆迁区块电力迁改工程拆旧13档等工作","powerTime":"2019-10-16 17:05:13","powerComm":"已送电","subsNo":"","lineNo":"","tgNo":"","tgName":null,"infoStatus":"1","orgName":"国网浙江杭州市富阳区供电公司","typeName":null,"infoStatusName":null,"dateDay":null,"orgNos":null,"nowTime":null,"countyName":null,"streetName":null,"villageName":null,"roadName":null,"communityName":null,"tranName":null,"sdLineName":null,"cityCode":"3340170","cityName":"国网浙江杭州市富阳区供电公司","provinceCode":null,"stopTime":"2019-10-16 17:20:00","powerType":"全部","powerOffArea":"110kV高桥变:山居D588线-观前村3#桥头公变低压开关后段","powerOffReason":"(低压停电信息)杭州市富阳区观前村拆迁区块电力迁改工程拆旧13档等工作","powerOffId":"2019092731020247"},{"poweroffId":2019092731020228,"sgpoweroffId":null,"subsName":"","lineName":"10kV南安D336线","pubTranName":"何务村3#煤矿公变,","scope":"浙江省杭州市富阳区万市镇何务行政村煤矿自然村一带","startTime":"2019-10-16 08:00:00","stopDate":"2019-10-16 16:50:00","orgNo":"3340170","typeCode":"计划停电","poweroffArea":"110kV万市变:南安D336线-何务村3#煤矿公变低压开关后段","poweroffReason":"(低压停电信息)安装横担4付、架设JKLYJ-70*4*6档、拆除JKLYJ-70*4*1档、架设JKLYJ-120*4*5档、安装临时拉线1组、搭接等工作（旁站监理）","powerTime":"2019-10-16 16:35:13","powerComm":"已送电","subsNo":"","lineNo":"","tgNo":"","tgName":null,"infoStatus":"1","orgName":"国网浙江杭州市富阳区供电公司","typeName":null,"infoStatusName":null,"dateDay":null,"orgNos":null,"nowTime":null,"countyName":null,"streetName":null,"villageName":null,"roadName":null,"communityName":null,"tranName":null,"sdLineName":null,"cityCode":"3340170","cityName":"国网浙江杭州市富阳区供电公司","provinceCode":null,"stopTime":"2019-10-16 16:50:00","powerType":"全部","powerOffArea":"110kV万市变:南安D336线-何务村3#煤矿公变低压开关后段","powerOffReason":"(低压停电信息)安装横担4付、架设JKLYJ-70*4*6档、拆除JKLYJ-70*4*1档、架设JKLYJ-120*4*5档、安装临时拉线1组、搭接等工作（旁站监理）","powerOffId":"2019092731020228"},{"poweroffId":2019092731020227,"sgpoweroffId":null,"subsName":"","lineName":"10kV高桥D220线","pubTranName":"高桥村舒姑洋4#工贸公变,","scope":"浙江省-杭州市-富阳区-银湖街道-高桥行政村(舒姑垟自然村,高尔夫路)","startTime":"2019-10-16 07:30:00","stopDate":"2019-10-16 16:30:00","orgNo":"3340170","typeCode":"计划停电","poweroffArea":"110kV银湖变:高桥D220线-高桥村舒姑洋4#工贸公变低压开关后段","poweroffReason":"(低压停电信息)更换接户线25处，搭接等工作。（迎东2019年沈家坞9#里村口公变等低压台区改造工程）","powerTime":"2019-10-16 16:15:07","powerComm":"已送电","subsNo":"","lineNo":"","tgNo":"","tgName":null,"infoStatus":"1","orgName":"国网浙江杭州市富阳区供电公司","typeName":null,"infoStatusName":null,"dateDay":null,"orgNos":null,"nowTime":null,"countyName":null,"streetName":null,"villageName":null,"roadName":null,"communityName":null,"tranName":null,"sdLineName":null,"cityCode":"3340170","cityName":"国网浙江杭州市富阳区供电公司","provinceCode":null,"stopTime":"2019-10-16 16:30:00","powerType":"全部","powerOffArea":"110kV银湖变:高桥D220线-高桥村舒姑洋4#工贸公变低压开关后段","powerOffReason":"(低压停电信息)更换接户线25处，搭接等工作。（迎东2019年沈家坞9#里村口公变等低压台区改造工程）","powerOffId":"2019092731020227"}],"pageModel":{"pageNow":1073,"totalCount":17789,"totalPage":1779,"tableRows":0,"pageCount":10,"beginCount":10720},"isExperi":"1"}