{"message":"","today":"2020-06-16","seleList":[{"poweroffId":2019092731020211,"sgpoweroffId":null,"subsName":"","lineName":"10kV山居D588线","pubTranName":"观前村4号村委口公变,","scope":"浙江省-杭州市-富阳区-银湖街道-观前行政村-观前自然村","startTime":"2019-10-15 08:20:00","stopDate":"2019-10-15 17:20:00","orgNo":"3340170","typeCode":"计划停电","poweroffArea":"110kV高桥变:山居D588线-观前村4号村委口公变低压开关后段","poweroffReason":"(低压停电信息)杭州市富阳区观前村拆迁区块电力迁改工程拆旧15档等工作","powerTime":"2019-10-15 17:10:02","powerComm":"已送电","subsNo":"","lineNo":"","tgNo":"","tgName":null,"infoStatus":"1","orgName":"国网浙江杭州市富阳区供电公司","typeName":null,"infoStatusName":null,"dateDay":null,"orgNos":null,"nowTime":null,"countyName":null,"streetName":null,"villageName":null,"roadName":null,"communityName":null,"tranName":null,"sdLineName":null,"cityCode":"3340170","cityName":"国网浙江杭州市富阳区供电公司","provinceCode":null,"stopTime":"2019-10-15 17:20:00","powerType":"全部","powerOffArea":"110kV高桥变:山居D588线-观前村4号村委口公变低压开关后段","powerOffReason":"(低压停电信息)杭州市富阳区观前村拆迁区块电力迁改工程拆旧15档等工作","powerOffId":"2019092731020211"},{"poweroffId":2019092731020210,"sgpoweroffId":null,"subsName":"","lineName":"10kV梓树D973线","pubTranName":"大庄村14号东坞公变,","scope":"浙江省-杭州市-富阳区-银湖街道-大庄行政村(上大庄自然村,白纸槽自然村)","startTime":"2019-10-15 07:30:00","stopDate":"2019-10-15 17:00:00","orgNo":"3340170","typeCode":"计划停电","poweroffArea":"110kV九龙变:梓树D973线-大庄村14号东坞公变低压开关后段","poweroffReason":"(低压停电信息)拆除旧电缆1路新装电缆2路，新架导线8档，拆旧搭接等工作。（迎东2019年沈家坞9#里村口公变等低压台区改造工程）","powerTime":"2019-10-15 16:33:59","powerComm":"已送电","subsNo":"","lineNo":"","tgNo":"","tgName":null,"infoStatus":"1","orgName":"国网浙江杭州市富阳区供电公司","typeName":null,"infoStatusName":null,"dateDay":null,"orgNos":null,"nowTime":null,"countyName":null,"streetName":null,"villageName":null,"roadName":null,"communityName":null,"tranName":null,"sdLineName":null,"cityCode":"3340170","cityName":"国网浙江杭州市富阳区供电公司","provinceCode":null,"stopTime":"2019-10-15 17:00:00","powerType":"全部","powerOffArea":"110kV九龙变:梓树D973线-大庄村14号东坞公变低压开关后段","powerOffReason":"(低压停电信息)拆除旧电缆1路新装电缆2路，新架导线8档，拆旧搭接等工作。（迎东2019年沈家坞9#里村口公变等低压台区改造工程）","powerOffId":"2019092731020210"},{"poweroffId":2019092731020209,"sgpoweroffId":null,"subsName":"","lineName":"10kV梓树D973线","pubTranName":"上大庄村3#白纸槽公变,","scope":"浙江省-杭州市-富阳区-银湖街道-大庄行政村(白纸槽自然村,上大庄自然村)","startTime":"2019-10-15 07:30:00","stopDate":"2019-10-15 14:00:00","orgNo":"3340170","typeCode":"计划停电","poweroffArea":"110kV九龙变:梓树D973线-上大庄村3#白纸槽公变低压开关后段","poweroffReason":"(低压停电信息)拆旧做水平拉1档等工作。（迎东2019年沈家坞9#里村口公变等低压台区改造工程）","powerTime":"2019-10-15 13:23:38","powerComm":"已送电","subsNo":"","lineNo":"","tgNo":"","tgName":null,"infoStatus":"1","orgName":"国网浙江杭州市富阳区供电公司","typeName":null,"infoStatusName":null,"dateDay":null,"orgNos":null,"nowTime":null,"countyName":null,"streetName":null,"villageName":null,"roadName":null,"communityName":null,"tranName":null,"sdLineName":null,"cityCode":"3340170","cityName":"国网浙江杭州市富阳区供电公司","provinceCode":null,"stopTime":"2019-10-15 14:00:00","powerType":"全部","powerOffArea":"110kV九龙变:梓树D973线-上大庄村3#白纸槽公变低压开关后段","powerOffReason":"(低压停电信息)拆旧做水平拉1档等工作。（迎东2019年沈家坞9#里村口公变等低压台区改造工程）","powerOffId":"2019092731020209"},{"poweroffId":2019092731020206,"sgpoweroffId":null,"subsName":"","lineName":"10kV大树D219线","pubTranName":"高桥村舒姑洋9号山头坞西公变,","scope":"浙江省-杭州市-富阳区-银湖街道-郜村行政村-郜村自然村,银湖街道-高桥行政村(舒姑垟自然村,高桥自然村,山头坞自然村)","startTime":"2019-10-14 07:30:00","stopDate":"2019-10-14 16:00:00","orgNo":"3340170","typeCode":"计划停电","poweroffArea":"110kV银湖变:大树D219线-高桥村舒姑洋9号山头坞西公变低压开关后段","poweroffReason":"(低压停电信息)新架JKLYJ4*120*1档，更换接户线20处，搭接等工作。（迎东2019年沈家坞9#里村口公变等低压台区改造工程）","powerTime":"2019-10-14 16:00:00","powerComm":"已送电","subsNo":"","lineNo":"","tgNo":"","tgName":null,"infoStatus":"1","orgName":"国网浙江杭州市富阳区供电公司","typeName":null,"infoStatusName":null,"dateDay":null,"orgNos":null,"nowTime":null,"countyName":null,"streetName":null,"villageName":null,"roadName":null,"communityName":null,"tranName":null,"sdLineName":null,"cityCode":"3340170","cityName":"国网浙江杭州市富阳区供电公司","provinceCode":null,"stopTime":"2019-10-14 16:00:00","powerType":"全部","powerOffArea":"110kV银湖变:大树D219线-高桥村舒姑洋9号山头坞西公变低压开关后段","powerOffReason":"(低压停电信息)新架JKLYJ4*120*1档，更换接户线20处，搭接等工作。（迎东2019年沈家坞9#里村口公变等低压台区改造工程）","powerOffId":"2019092731020206"},{"poweroffId":2019092731020204,"sgpoweroffId":null,"subsName":"","lineName":"10kV大树D219线","pubTranName":"舒姑洋村7#山头坞公变,","scope":"浙江省-杭州市-富阳区-银湖街道-郜村行政村-郜村自然村,银湖街道-高桥行政村(山头坞自然村,舒姑垟自然村)","startTime":"2019-10-14 07:30:00","stopDate":"2019-10-14 10:30:00","orgNo":"3340170","typeCode":"计划停电","poweroffArea":"110kV银湖变:大树D219线-舒姑洋村7#山头坞公变低压开关后段","poweroffReason":"(低压停电信息)拆除出线电缆1路等工作。（迎东2019年沈家坞9#里村口公变等低压台区改造工程）","powerTime":"2019-10-14 10:20:00","powerComm":"已送电","subsNo":"","lineNo":"","tgNo":"","tgName":null,"infoStatus":"1","orgName":"国网浙江杭州市富阳区供电公司","typeName":null,"infoStatusName":null,"dateDay":null,"orgNos":null,"nowTime":null,"countyName":null,"streetName":null,"villageName":null,"roadName":null,"communityName":null,"tranName":null,"sdLineName":null,"cityCode":"3340170","cityName":"国网浙江杭州市富阳区供电公司","provinceCode":null,"stopTime":"2019-10-14 10:30:00","powerType":"全部","powerOffArea":"110kV银湖变:大树D219线-舒姑洋村7#山头坞公变低压开关后段","powerOffReason":"(低压停电信息)拆除出线电缆1路等工作。（迎东2019年沈家坞9#里村口公变等低压台区改造工程）","powerOffId":"2019092731020204"},{"poweroffId":2019092731020183,"sgpoweroffId":null,"subsName":"","lineName":"10kV蓝顿8520线","pubTranName":"紫金（三）,紫金（二）,","scope":"浙江省杭州市西湖区紫金公寓小区2幢、3幢、6幢、7幢、11幢、12幢附近一带用户","startTime":"2019-10-18 09:30:00","stopDate":"2019-10-18 11:00:00","orgNo":"3340101","typeCode":"计划停电","poweroffArea":"110kV文三变:蓝顿8520线首端，紫金（二），紫金（三）之间","poweroffReason":"紫金小区美变更换工程（华西）紫金（二）、紫金（三）美变更换；原停电结束时间为2019-10-18 17:00:00,为减少客户停电时间,加快工作进度,提前送电,现变更停电结束时间为2019-10-18 11:00:00","powerTime":"2019-10-18 10:31:59","powerComm":"已送电","subsNo":"","lineNo":"","tgNo":"","tgName":null,"infoStatus":"1","orgName":"浙江杭州电力客户服务中心","typeName":null,"infoStatusName":null,"dateDay":null,"orgNos":null,"nowTime":null,"countyName":null,"streetName":null,"villageName":null,"roadName":null,"communityName":null,"tranName":null,"sdLineName":null,"cityCode":"3340101","cityName":"浙江杭州电力客户服务中心","provinceCode":null,"stopTime":"2019-10-18 11:00:00","powerType":"全部","powerOffArea":"110kV文三变:蓝顿8520线首端，紫金（二），紫金（三）之间","powerOffReason":"紫金小区美变更换工程（华西）紫金（二）、紫金（三）美变更换；原停电结束时间为2019-10-18 17:00:00,为减少客户停电时间,加快工作进度,提前送电,现变更停电结束时间为2019-10-18 11:00:00","powerOffId":"2019092731020183"},{"poweroffId":2019092731020165,"sgpoweroffId":null,"subsName":"","lineName":"10kV紫桂8040线","pubTranName":"桂花三变,","scope":"浙江省杭州市西湖区桂花城南屏苑9幢附近一带用户","startTime":"2019-10-14 09:30:00","stopDate":"2019-10-14 11:00:00","orgNo":"3340101","typeCode":"计划停电","poweroffArea":"110kV紫荆变:紫桂8040线-桂花三变后段","poweroffReason":"(低压停电信息)桂花城南屏苑9-11-39车位表计新装 （沈志洋15068828986）；原停电结束时间为2019-10-14 12:00:00,为减少客户停电时间,加快工作进度,提前送电,现变更停电结束时间为2019-10-14 11:00:00","powerTime":"2019-10-14 10:03:59","powerComm":"已送电","subsNo":"","lineNo":"","tgNo":"","tgName":null,"infoStatus":"1","orgName":"浙江杭州电力客户服务中心","typeName":null,"infoStatusName":null,"dateDay":null,"orgNos":null,"nowTime":null,"countyName":null,"streetName":null,"villageName":null,"roadName":null,"communityName":null,"tranName":null,"sdLineName":null,"cityCode":"3340101","cityName":"浙江杭州电力客户服务中心","provinceCode":null,"stopTime":"2019-10-14 11:00:00","powerType":"全部","powerOffArea":"110kV紫荆变:紫桂8040线-桂花三变后段","powerOffReason":"(低压停电信息)桂花城南屏苑9-11-39车位表计新装 （沈志洋15068828986）；原停电结束时间为2019-10-14 12:00:00,为减少客户停电时间,加快工作进度,提前送电,现变更停电结束时间为2019-10-14 11:00:00","powerOffId":"2019092731020165"},{"poweroffId":2019092731020160,"sgpoweroffId":null,"subsName":"","lineName":"10kV梓树D973线","pubTranName":"梓树村9#夹弄里公变,","scope":"浙江省-杭州市-富阳区-银湖街道(东坞山行政村-东坞山自然村,梓树行政村-梓树自然村)","startTime":"2019-09-27 10:12:04","stopDate":"2019-09-27 11:12:04","orgNo":"3340170","typeCode":"电网故障停限电","poweroffArea":"110kV九龙变:梓树D973线-梓树村9#夹弄里公变后段","poweroffReason":"高压开关跳闸","powerTime":"2019-09-27 10:34:41","powerComm":"已送电","subsNo":"","lineNo":"","tgNo":"","tgName":null,"infoStatus":"1","orgName":"国网浙江杭州市富阳区供电公司","typeName":null,"infoStatusName":null,"dateDay":null,"orgNos":null,"nowTime":null,"countyName":null,"streetName":null,"villageName":null,"roadName":null,"communityName":null,"tranName":null,"sdLineName":null,"cityCode":"3340170","cityName":"国网浙江杭州市富阳区供电公司","provinceCode":null,"stopTime":"2019-09-27 11:12:04","powerType":"全部","powerOffArea":"110kV九龙变:梓树D973线-梓树村9#夹弄里公变后段","powerOffReason":"高压开关跳闸","powerOffId":"2019092731020160"},{"poweroffId":2019092731020158,"sgpoweroffId":null,"subsName":"","lineName":"10kV紫桂8040线","pubTranName":"桂花七变,","scope":"浙江省杭州市西湖区桂花城栖霞苑17幢附近一带用户","startTime":"2019-10-14 09:00:00","stopDate":"2019-10-14 10:20:00","orgNo":"3340101","typeCode":"计划停电","poweroffArea":"110kV紫荆变:紫桂8040线-桂花七变后段","poweroffReason":"(低压停电信息)栖霞苑C13和陈7-3车位表计新装 （沈志洋15068828986）；原停电结束时间为2019-10-14 11:00:00,为减少客户停电时间,加快工作进度,提前送电,现变更停电结束时间为2019-10-14 10:20:00","powerTime":"2019-10-14 09:25:59","powerComm":"已送电","subsNo":"","lineNo":"","tgNo":"","tgName":null,"infoStatus":"1","orgName":"浙江杭州电力客户服务中心","typeName":null,"infoStatusName":null,"dateDay":null,"orgNos":null,"nowTime":null,"countyName":null,"streetName":null,"villageName":null,"roadName":null,"communityName":null,"tranName":null,"sdLineName":null,"cityCode":"3340101","cityName":"浙江杭州电力客户服务中心","provinceCode":null,"stopTime":"2019-10-14 10:20:00","powerType":"全部","powerOffArea":"110kV紫荆变:紫桂8040线-桂花七变后段","powerOffReason":"(低压停电信息)栖霞苑C13和陈7-3车位表计新装 （沈志洋15068828986）；原停电结束时间为2019-10-14 11:00:00,为减少客户停电时间,加快工作进度,提前送电,现变更停电结束时间为2019-10-14 10:20:00","powerOffId":"2019092731020158"},{"poweroffId":2019092731020150,"sgpoweroffId":null,"subsName":"","lineName":"10kV庙山6318线","pubTranName":"东苑变,","scope":"浙江省杭州市西湖区东方苑23幢至28幢附近一带用户","startTime":"2019-10-09 11:50:00","stopDate":"2019-10-09 13:00:00","orgNo":"3340101","typeCode":"计划停电","poweroffArea":"110kV转塘变:庙山6318线-东苑变后段","poweroffReason":"(低压停电信息)转塘社区之江路187-1号表计销户3 （金阳寿15067160345）","powerTime":"2019-10-09 12:07:34","powerComm":"已送电","subsNo":"","lineNo":"","tgNo":"","tgName":null,"infoStatus":"1","orgName":"浙江杭州电力客户服务中心","typeName":null,"infoStatusName":null,"dateDay":null,"orgNos":null,"nowTime":null,"countyName":null,"streetName":null,"villageName":null,"roadName":null,"communityName":null,"tranName":null,"sdLineName":null,"cityCode":"3340101","cityName":"浙江杭州电力客户服务中心","provinceCode":null,"stopTime":"2019-10-09 13:00:00","powerType":"全部","powerOffArea":"110kV转塘变:庙山6318线-东苑变后段","powerOffReason":"(低压停电信息)转塘社区之江路187-1号表计销户3 （金阳寿15067160345）","powerOffId":"2019092731020150"}],"pageModel":{"pageNow":1074,"totalCount":17789,"totalPage":1779,"tableRows":0,"pageCount":10,"beginCount":10730},"isExperi":"1"}