{"message":"","today":"2020-06-16","seleList":[{"poweroffId":2019092731020134,"sgpoweroffId":null,"subsName":"","lineName":"10kV白云H884线","pubTranName":"中桥村卢家湾公变,白云村陈家墩公变,中桥村朱桥庙公变,白云村章岭公变,白云村鸡笼山公变,中桥汽水厂,中桥村马里2号公变,白云村东坞公变,中桥村杨桥村公变,浙江交工路桥绕城西复线三标13#基建变,白云村,白云村汪家头公变,白云村毛家桥公变,白云村青草湾公变,中桥村赵界坞公变,二绕三标新上基变,中桥村船桥山公变,中桥村白洋岭公变,白云村石坞山公变,浙石石粉,白云村大坞口公变,杨桥抗旱,中桥村沙村公变,中桥村村委公变,安盈建筑,中桥村皇坟头公变,白云村铜山公变,培华建材,朱桥白云石子厂,中明白云石矿,白云村下铜山公变,浙江交工路桥绕城西复线三标9#基建变,白云村西坞公变,中桥村马里公变,西泽曼科技,中桥村后殿礼堂公变,中桥村半山公变,白云村白石桥公变,景顺电子,白云村叶家头公变,云丰石料,章岭黑石矿,白云村章家岭公变,定慧塑业,白云村天井湾公变,七介山石矿,1#,中桥村后殿公变,中桥村,白云村小山桥公变,中桥村杨家头公变,白云村黄石坎2号公变,浙江交工路桥绕城西复线三标12#基建变,中桥村沙村2号公变,悠扬生态农业变,白云村黄石坎公变,中桥村茶凉公变,中桥村外马里公变,白云村卢家头公变,中泰章岭石粉,","scope":"浙江省-杭州市-余杭区-中泰街道-中桥行政村(小羊坞自然村,中桥自然村,杨界山自然村,板桥山自然村),中泰街道(南湖行政村-南湖自然村,枫岭行政村-枫岭自然村,白云行政村-白云自然村);中泰街道(杭州余杭中泰章岭白云石料厂,浙江交工路桥建设有限公司,杭州余杭中桥股份经济合作社,杭州旅游实业发展有限公司,杭州余杭区中泰乡日金白云石料销售站,杭州余杭区余杭景顺电子厂,杭州悠扬生态农业开发有限公司)一带","startTime":"2019-09-27 09:36:00","stopDate":"2019-09-27 13:36:00","orgNo":"3340140","typeCode":"电网故障停限电","poweroffArea":"110kV中泰变:白云H884线中桥开关站中桥开关站铜山分线负荷开关后段","poweroffReason":"高压开关跳闸 原停电结束时间为2019-09-27 15:36:00,为减少客户停电时间,加快工作进度,提前送电,现变更停电结束时间为2019-09-27 13:36:00","powerTime":"2019-09-27 13:08:00","powerComm":"已送电","subsNo":"","lineNo":"","tgNo":"","tgName":null,"infoStatus":"1","orgName":"国网浙江杭州市余杭区供电有限公司","typeName":null,"infoStatusName":null,"dateDay":null,"orgNos":null,"nowTime":null,"countyName":null,"streetName":null,"villageName":null,"roadName":null,"communityName":null,"tranName":null,"sdLineName":null,"cityCode":"3340140","cityName":"国网浙江杭州市余杭区供电有限公司","provinceCode":null,"stopTime":"2019-09-27 13:36:00","powerType":"全部","powerOffArea":"110kV中泰变:白云H884线中桥开关站中桥开关站铜山分线负荷开关后段","powerOffReason":"高压开关跳闸 原停电结束时间为2019-09-27 15:36:00,为减少客户停电时间,加快工作进度,提前送电,现变更停电结束时间为2019-09-27 13:36:00","powerOffId":"2019092731020134"},{"poweroffId":2019092731020105,"sgpoweroffId":null,"subsName":"","lineName":"10kV市心D577线","pubTranName":"市东弄4#公变,","scope":"浙江省-杭州市-富阳区-富春街道-盘龙山社区(龙山路,市东弄,龙浦街,幸福路)一带","startTime":"2019-10-15 07:00:00","stopDate":"2019-10-15 17:00:00","orgNo":"3340170","typeCode":"计划停电","poweroffArea":"110kV春江变:市心D577线-市东弄4#公变后段","poweroffReason":"(低压停电信息)0.4kV低压1#出线、2#出线电缆拆除","powerTime":"2019-10-15 16:36:53","powerComm":"已送电","subsNo":"","lineNo":"","tgNo":"","tgName":null,"infoStatus":"1","orgName":"国网浙江杭州市富阳区供电公司","typeName":null,"infoStatusName":null,"dateDay":null,"orgNos":null,"nowTime":null,"countyName":null,"streetName":null,"villageName":null,"roadName":null,"communityName":null,"tranName":null,"sdLineName":null,"cityCode":"3340170","cityName":"国网浙江杭州市富阳区供电公司","provinceCode":null,"stopTime":"2019-10-15 17:00:00","powerType":"全部","powerOffArea":"110kV春江变:市心D577线-市东弄4#公变后段","powerOffReason":"(低压停电信息)0.4kV低压1#出线、2#出线电缆拆除","powerOffId":"2019092731020105"},{"poweroffId":2019092731020104,"sgpoweroffId":null,"subsName":"","lineName":"10kV市心D577线","pubTranName":"市东弄5#公变,","scope":"浙江省-杭州市-富阳区-富春街道-盘龙山社区(市东弄,龙浦街,龙山路)一带","startTime":"2019-10-15 07:00:00","stopDate":"2019-10-15 17:00:00","orgNo":"3340170","typeCode":"计划停电","poweroffArea":"110kV春江变:市心D577线-市东弄5#公变后段","poweroffReason":"(低压停电信息)0.4kV低压1#出线、2#出线电缆拆除","powerTime":"2019-10-15 16:31:42","powerComm":"已送电","subsNo":"","lineNo":"","tgNo":"","tgName":null,"infoStatus":"1","orgName":"国网浙江杭州市富阳区供电公司","typeName":null,"infoStatusName":null,"dateDay":null,"orgNos":null,"nowTime":null,"countyName":null,"streetName":null,"villageName":null,"roadName":null,"communityName":null,"tranName":null,"sdLineName":null,"cityCode":"3340170","cityName":"国网浙江杭州市富阳区供电公司","provinceCode":null,"stopTime":"2019-10-15 17:00:00","powerType":"全部","powerOffArea":"110kV春江变:市心D577线-市东弄5#公变后段","powerOffReason":"(低压停电信息)0.4kV低压1#出线、2#出线电缆拆除","powerOffId":"2019092731020104"},{"poweroffId":2019092731020103,"sgpoweroffId":null,"subsName":"","lineName":"10kV市心D577线","pubTranName":"市东弄2#公变,","scope":"浙江省-杭州市-富阳区-富春街道-盘龙山社区(市东弄,幸福路)一带","startTime":"2019-10-14 07:00:00","stopDate":"2019-10-14 17:00:00","orgNo":"3340170","typeCode":"计划停电","poweroffArea":"110kV春江变:市心D577线-市东弄2#公变后段","poweroffReason":"(低压停电信息)0.4kV低压1#出线、2#出线电缆拆除","powerTime":"2019-10-14 16:50:18","powerComm":"已送电","subsNo":"","lineNo":"","tgNo":"","tgName":null,"infoStatus":"1","orgName":"国网浙江杭州市富阳区供电公司","typeName":null,"infoStatusName":null,"dateDay":null,"orgNos":null,"nowTime":null,"countyName":null,"streetName":null,"villageName":null,"roadName":null,"communityName":null,"tranName":null,"sdLineName":null,"cityCode":"3340170","cityName":"国网浙江杭州市富阳区供电公司","provinceCode":null,"stopTime":"2019-10-14 17:00:00","powerType":"全部","powerOffArea":"110kV春江变:市心D577线-市东弄2#公变后段","powerOffReason":"(低压停电信息)0.4kV低压1#出线、2#出线电缆拆除","powerOffId":"2019092731020103"},{"poweroffId":2019092731020102,"sgpoweroffId":null,"subsName":"","lineName":"10kV市心D577线","pubTranName":"市东弄3#公变,","scope":"浙江省-杭州市-富阳区-富春街道-盘龙山社区(市心路,市东弄)一带","startTime":"2019-10-14 07:00:00","stopDate":"2019-10-14 17:00:00","orgNo":"3340170","typeCode":"计划停电","poweroffArea":"110kV春江变:市心D577线-市东弄3#公变后段","poweroffReason":"(低压停电信息)0.4kV低压1#出线、2#出线电缆拆除","powerTime":"2019-10-14 16:50:07","powerComm":"已送电","subsNo":"","lineNo":"","tgNo":"","tgName":null,"infoStatus":"1","orgName":"国网浙江杭州市富阳区供电公司","typeName":null,"infoStatusName":null,"dateDay":null,"orgNos":null,"nowTime":null,"countyName":null,"streetName":null,"villageName":null,"roadName":null,"communityName":null,"tranName":null,"sdLineName":null,"cityCode":"3340170","cityName":"国网浙江杭州市富阳区供电公司","provinceCode":null,"stopTime":"2019-10-14 17:00:00","powerType":"全部","powerOffArea":"110kV春江变:市心D577线-市东弄3#公变后段","powerOffReason":"(低压停电信息)0.4kV低压1#出线、2#出线电缆拆除","powerOffId":"2019092731020102"},{"poweroffId":2019092731020101,"sgpoweroffId":null,"subsName":"","lineName":"10kV上官D265线","pubTranName":"芳村1号羊桥头公变,","scope":"浙江省-杭州市-富阳区-上官乡-芳村行政村-芳村自然村一带","startTime":"2019-10-14 08:50:00","stopDate":"2019-10-14 16:40:00","orgNo":"3340170","typeCode":"计划停电","poweroffArea":"35kV盛村变:上官D265线-芳村1号羊桥头公变后段","poweroffReason":"(低压停电信息)芳村1#羊桥头公变拆除导线3档、做拉线、接户线割接、杆上搭接等工作","powerTime":"2019-10-14 16:26:36","powerComm":"已送电","subsNo":"","lineNo":"","tgNo":"","tgName":null,"infoStatus":"1","orgName":"国网浙江杭州市富阳区供电公司","typeName":null,"infoStatusName":null,"dateDay":null,"orgNos":null,"nowTime":null,"countyName":null,"streetName":null,"villageName":null,"roadName":null,"communityName":null,"tranName":null,"sdLineName":null,"cityCode":"3340170","cityName":"国网浙江杭州市富阳区供电公司","provinceCode":null,"stopTime":"2019-10-14 16:40:00","powerType":"全部","powerOffArea":"35kV盛村变:上官D265线-芳村1号羊桥头公变后段","powerOffReason":"(低压停电信息)芳村1#羊桥头公变拆除导线3档、做拉线、接户线割接、杆上搭接等工作","powerOffId":"2019092731020101"},{"poweroffId":2019092731020100,"sgpoweroffId":null,"subsName":"","lineName":"10kV后周D554线","pubTranName":"振兴路9号公变,","scope":"浙江省-杭州市-富阳区-富春街道-后周社区(振兴路,春秋北路)一带","startTime":"2019-10-14 08:10:00","stopDate":"2019-10-14 12:20:00","orgNo":"3340170","typeCode":"计划停电","poweroffArea":"110kV春江变:后周D554线-振兴路9号公变后段","poweroffReason":"(低压停电信息)2019年青云地区0.4kV配电线路缺陷处理割接、新增电缆1路、搭接等工作","powerTime":"2019-10-14 12:10:23","powerComm":"已送电","subsNo":"","lineNo":"","tgNo":"","tgName":null,"infoStatus":"1","orgName":"国网浙江杭州市富阳区供电公司","typeName":null,"infoStatusName":null,"dateDay":null,"orgNos":null,"nowTime":null,"countyName":null,"streetName":null,"villageName":null,"roadName":null,"communityName":null,"tranName":null,"sdLineName":null,"cityCode":"3340170","cityName":"国网浙江杭州市富阳区供电公司","provinceCode":null,"stopTime":"2019-10-14 12:20:00","powerType":"全部","powerOffArea":"110kV春江变:后周D554线-振兴路9号公变后段","powerOffReason":"(低压停电信息)2019年青云地区0.4kV配电线路缺陷处理割接、新增电缆1路、搭接等工作","powerOffId":"2019092731020100"},{"poweroffId":2019092731020099,"sgpoweroffId":null,"subsName":"","lineName":"10kV后周D554线","pubTranName":"振兴路7#公变,","scope":"浙江省-杭州市-富阳区-富春街道-后周社区(春秋北路,振兴路)一带","startTime":"2019-10-14 08:10:00","stopDate":"2019-10-14 12:20:00","orgNo":"3340170","typeCode":"计划停电","poweroffArea":"110kV春江变:后周D554线-振兴路7#公变后段","poweroffReason":"(低压停电信息)2019年青云地区0.4kV配电线路缺陷处理拆除出线电缆1路、其中1路移位、等工作","powerTime":"2019-10-14 12:10:13","powerComm":"已送电","subsNo":"","lineNo":"","tgNo":"","tgName":null,"infoStatus":"1","orgName":"国网浙江杭州市富阳区供电公司","typeName":null,"infoStatusName":null,"dateDay":null,"orgNos":null,"nowTime":null,"countyName":null,"streetName":null,"villageName":null,"roadName":null,"communityName":null,"tranName":null,"sdLineName":null,"cityCode":"3340170","cityName":"国网浙江杭州市富阳区供电公司","provinceCode":null,"stopTime":"2019-10-14 12:20:00","powerType":"全部","powerOffArea":"110kV春江变:后周D554线-振兴路7#公变后段","powerOffReason":"(低压停电信息)2019年青云地区0.4kV配电线路缺陷处理拆除出线电缆1路、其中1路移位、等工作","powerOffId":"2019092731020099"},{"poweroffId":2019092731020098,"sgpoweroffId":null,"subsName":"","lineName":"10kV江馆D351线","pubTranName":"富阳市路灯安装维修管理所1,","scope":"浙江省-杭州市-富阳区-富春街道-江滨社区-杭州富阳城市照明工程有限公司","startTime":"2019-10-18 08:00:00","stopDate":"2019-10-18 16:30:00","orgNo":"3340170","typeCode":"计划停电","poweroffArea":"110kV富鹿变:江馆D351线-富阳市路灯安装维修管理所熔断器后段","poweroffReason":"配合客户内部检修 原停电结束时间为2019-10-18 14:30:00,因工作复杂原因,现变更停电结束时间为2019-10-18 16:30:00","powerTime":"2019-10-18 16:08:42","powerComm":"已送电","subsNo":"","lineNo":"","tgNo":"","tgName":null,"infoStatus":"1","orgName":"国网浙江杭州市富阳区供电公司","typeName":null,"infoStatusName":null,"dateDay":null,"orgNos":null,"nowTime":null,"countyName":null,"streetName":null,"villageName":null,"roadName":null,"communityName":null,"tranName":null,"sdLineName":null,"cityCode":"3340170","cityName":"国网浙江杭州市富阳区供电公司","provinceCode":null,"stopTime":"2019-10-18 16:30:00","powerType":"全部","powerOffArea":"110kV富鹿变:江馆D351线-富阳市路灯安装维修管理所熔断器后段","powerOffReason":"配合客户内部检修 原停电结束时间为2019-10-18 14:30:00,因工作复杂原因,现变更停电结束时间为2019-10-18 16:30:00","powerOffId":"2019092731020098"},{"poweroffId":2019092731020097,"sgpoweroffId":null,"subsName":"","lineName":"10kV江馆D351线","pubTranName":"文教西路4号公变,鹿山村10#文教西路公变,鹿山村11#文教西路3公变,鹿山村3#文教路西2公变,","scope":"浙江省-杭州市-富阳区-富春街道-鹿山社区(文教北路,西堤南路,文教路,鹿山路,西山路)一带","startTime":"2019-10-18 08:30:00","stopDate":"2019-10-18 16:30:00","orgNo":"3340170","typeCode":"计划停电","poweroffArea":"110kV富鹿变:江馆D351线首端，鹿山村10#文教西路公变，鹿山村3#文教路西2公变，鹿山村11#文教西路3公变，文教西路4号公变之间","poweroffReason":"青云2019年振兴路8#公变等10kV配变增容布点工程：10kV鹿山村10#文教西路公变移位及电缆改接等工作。 原停电结束时间为2019-10-18 14:30:00,因工作复杂原因,现变更停电结束时间为2019-10-18 16:30:00","powerTime":"2019-10-18 16:08:28","powerComm":"已送电","subsNo":"","lineNo":"","tgNo":"","tgName":null,"infoStatus":"1","orgName":"国网浙江杭州市富阳区供电公司","typeName":null,"infoStatusName":null,"dateDay":null,"orgNos":null,"nowTime":null,"countyName":null,"streetName":null,"villageName":null,"roadName":null,"communityName":null,"tranName":null,"sdLineName":null,"cityCode":"3340170","cityName":"国网浙江杭州市富阳区供电公司","provinceCode":null,"stopTime":"2019-10-18 16:30:00","powerType":"全部","powerOffArea":"110kV富鹿变:江馆D351线首端，鹿山村10#文教西路公变，鹿山村3#文教路西2公变，鹿山村11#文教西路3公变，文教西路4号公变之间","powerOffReason":"青云2019年振兴路8#公变等10kV配变增容布点工程：10kV鹿山村10#文教西路公变移位及电缆改接等工作。 原停电结束时间为2019-10-18 14:30:00,因工作复杂原因,现变更停电结束时间为2019-10-18 16:30:00","powerOffId":"2019092731020097"}],"pageModel":{"pageNow":1075,"totalCount":17789,"totalPage":1779,"tableRows":0,"pageCount":10,"beginCount":10740},"isExperi":"1"}