{"message":"","today":"2020-06-16","seleList":[{"poweroffId":2019092631020312,"sgpoweroffId":null,"subsName":"","lineName":"10kV松口Y324线","pubTranName":"建德市红腾生物工程有限公司,建德市星明特种铸造有限责任公司2#,杭州博雅家居用品有限公司,建德市优丽文化用品有限公司,建德市星明特种铸造有限责任公司1#,1#变,1#变,1#变,建德市三信防腐设备有限公司,建德新安江绿帆达食品有限公司,杭州意中能源科技有限公司,建德市星明特种铸造有限责任公司,杭州凯特电器有限公司,杭州特斯林网业有限公司2#,杭州开扩农业设施有限公司,建德市三都农村住房改造有限公司1#变,浙江融聚节能设备制造有限公司,杭州特斯林网业有限公司1#,杭州宇曜五金有限责任公司,1#变,建德市宏华工艺品有限公司,","scope":"浙江省-杭州市-建德市-三都镇浙江邦特塑料科技有限公司,建德市三都农村住房改造有限公司,杭州特斯林网业有限公司,建德市优丽文化用品有限公司,杭州开扩农业设施有限公司,建德新安江绿帆达食品有限公司,建德市红腾生物工程有限公司,杭州新蔓科技有限公司,杭州凯特电器有限公司,杭州意中能源科技有限公司,杭州景都木结构工程有限责任公司,杭州博雅家居用品有限公司,建德市三信防腐设备有限公司,建德市星明特种铸造有限责任公司,建德市普天木业中心,浙江融聚节能设备制造有限公司一带用户","startTime":"2019-09-26 23:09:00","stopDate":"2019-09-27 01:30:00","orgNo":"3340180","typeCode":"电网故障停限电","poweroffArea":"35kV三都变:松口Y324线松口Y3241开关后段","poweroffReason":"高压开关跳闸","powerTime":"2019-09-27 00:36:00","powerComm":"已送电","subsNo":"","lineNo":"","tgNo":"","tgName":null,"infoStatus":"1","orgName":"国网浙江建德市供电有限公司","typeName":null,"infoStatusName":null,"dateDay":null,"orgNos":null,"nowTime":null,"countyName":null,"streetName":null,"villageName":null,"roadName":null,"communityName":null,"tranName":null,"sdLineName":null,"cityCode":"3340180","cityName":"国网浙江建德市供电有限公司","provinceCode":null,"stopTime":"2019-09-27 01:30:00","powerType":"全部","powerOffArea":"35kV三都变:松口Y324线松口Y3241开关后段","powerOffReason":"高压开关跳闸","powerOffId":"2019092631020312"},{"poweroffId":2019092631020303,"sgpoweroffId":null,"subsName":"","lineName":"10kV站用T176线","pubTranName":"狮子山公寓1号公变,","scope":"浙江省-杭州市-桐庐县-分水镇-桥东行政村-怀恩路","startTime":"2019-10-18 08:15:00","stopDate":"2019-10-18 14:30:00","orgNo":"3340150","typeCode":"计划停电","poweroffArea":"110kV分水变:站用T176线-狮山F4320开关后段","poweroffReason":"杭州桐庐分水里邵分线等线路改造工程。原计划停电开始时间2019-10-18 08:30，由于用户需求原因，更改停电开始时间为2019-10-18 08:15。","powerTime":"2019-10-18 14:11:50","powerComm":"已送电","subsNo":"","lineNo":"","tgNo":"","tgName":null,"infoStatus":"1","orgName":"国网浙江桐庐县供电公司","typeName":null,"infoStatusName":null,"dateDay":null,"orgNos":null,"nowTime":null,"countyName":null,"streetName":null,"villageName":null,"roadName":null,"communityName":null,"tranName":null,"sdLineName":null,"cityCode":"3340150","cityName":"国网浙江桐庐县供电公司","provinceCode":null,"stopTime":"2019-10-18 14:30:00","powerType":"全部","powerOffArea":"110kV分水变:站用T176线-狮山F4320开关后段","powerOffReason":"杭州桐庐分水里邵分线等线路改造工程。原计划停电开始时间2019-10-18 08:30，由于用户需求原因，更改停电开始时间为2019-10-18 08:15。","powerOffId":"2019092631020303"},{"poweroffId":2019092631020302,"sgpoweroffId":null,"subsName":"","lineName":"10kV站用T176线","pubTranName":"金都公寓1号公变,","scope":"浙江省-杭州市-桐庐县-分水镇-桥东行政村-怀恩路","startTime":"2019-10-18 08:15:00","stopDate":"2019-10-18 14:30:00","orgNo":"3340150","typeCode":"计划停电","poweroffArea":"110kV分水变:站用T176线-金都F4319开关后段","poweroffReason":"杭州桐庐分水里邵分线等线路改造工程.原计划停电开始时间2019-10-18 08:30，由于用户需求原因，更改停电开始时间为2019-10-18 08:15。","powerTime":"2019-10-18 14:11:07","powerComm":"已送电","subsNo":"","lineNo":"","tgNo":"","tgName":null,"infoStatus":"1","orgName":"国网浙江桐庐县供电公司","typeName":null,"infoStatusName":null,"dateDay":null,"orgNos":null,"nowTime":null,"countyName":null,"streetName":null,"villageName":null,"roadName":null,"communityName":null,"tranName":null,"sdLineName":null,"cityCode":"3340150","cityName":"国网浙江桐庐县供电公司","provinceCode":null,"stopTime":"2019-10-18 14:30:00","powerType":"全部","powerOffArea":"110kV分水变:站用T176线-金都F4319开关后段","powerOffReason":"杭州桐庐分水里邵分线等线路改造工程.原计划停电开始时间2019-10-18 08:30，由于用户需求原因，更改停电开始时间为2019-10-18 08:15。","powerOffId":"2019092631020302"},{"poweroffId":2019092631020296,"sgpoweroffId":null,"subsName":"","lineName":"10kV万泉D738线","pubTranName":"富阳宵井竹制品加工厂,","scope":"浙江省-杭州市-富阳区-富春街道-宵井行政村-富阳宵井竹制品加工厂","startTime":"2019-09-26 19:34:15","stopDate":"2019-09-26 20:34:15","orgNo":"3340170","typeCode":"电网故障停限电","poweroffArea":"110kV松溪变:万泉D738线-富阳宵井竹制品加工厂后段","poweroffReason":"高压开关跳闸","powerTime":"2019-09-26 19:40:03","powerComm":"已送电","subsNo":"","lineNo":"","tgNo":"","tgName":null,"infoStatus":"1","orgName":"国网浙江杭州市富阳区供电公司","typeName":null,"infoStatusName":null,"dateDay":null,"orgNos":null,"nowTime":null,"countyName":null,"streetName":null,"villageName":null,"roadName":null,"communityName":null,"tranName":null,"sdLineName":null,"cityCode":"3340170","cityName":"国网浙江杭州市富阳区供电公司","provinceCode":null,"stopTime":"2019-09-26 20:34:15","powerType":"全部","powerOffArea":"110kV松溪变:万泉D738线-富阳宵井竹制品加工厂后段","powerOffReason":"高压开关跳闸","powerOffId":"2019092631020296"},{"poweroffId":2019092631020283,"sgpoweroffId":null,"subsName":"","lineName":"10kV大源Y686线","pubTranName":"镇源村田蓬里台区配电变压器,","scope":"浙江省-杭州市-建德市-大同镇-镇源行政村 田蓬里自然村,邵家自然村,镇源自然村一带用户","startTime":"2019-09-26 17:08:00","stopDate":"2019-09-26 18:40:00","orgNo":"3340180","typeCode":"电网故障停限电","poweroffArea":"110kV大同变:大源Y686线-镇源村田蓬里台区配电变压器后段","poweroffReason":"(低压停电信息)低压开关跳闸 原停电结束时间为2019-09-26 19:30:00,为减少客户停电时间,加快工作进度,提前送电,现变更停电结束时间为2019-09-26 18:40:00","powerTime":"2019-09-26 18:11:00","powerComm":"已送电","subsNo":"","lineNo":"","tgNo":"","tgName":null,"infoStatus":"1","orgName":"国网浙江建德市供电有限公司","typeName":null,"infoStatusName":null,"dateDay":null,"orgNos":null,"nowTime":null,"countyName":null,"streetName":null,"villageName":null,"roadName":null,"communityName":null,"tranName":null,"sdLineName":null,"cityCode":"3340180","cityName":"国网浙江建德市供电有限公司","provinceCode":null,"stopTime":"2019-09-26 18:40:00","powerType":"全部","powerOffArea":"110kV大同变:大源Y686线-镇源村田蓬里台区配电变压器后段","powerOffReason":"(低压停电信息)低压开关跳闸 原停电结束时间为2019-09-26 19:30:00,为减少客户停电时间,加快工作进度,提前送电,现变更停电结束时间为2019-09-26 18:40:00","powerOffId":"2019092631020283"},{"poweroffId":2019092631020274,"sgpoweroffId":null,"subsName":"","lineName":"10kV虎项A563线","pubTranName":"变压器,杭州鸿翔纺织有限公司,杭州萧山志华化纤厂,杭州萧山建顺化纤有限公司,","scope":"浙江省-杭州市-萧山区-衙前镇-项漾行政村(杭州萧山志华化纤厂,杭州萧山项兴祥化纤厂,杭州鸿翔纺织有限公司,杭州建顺化纤有限公司)","startTime":"2019-09-26 19:30:56","stopDate":"2019-09-26 22:00:56","orgNo":"3340130","typeCode":"电网故障停限电","poweroffArea":"110kV成虎变:虎项A563线-虎项A5631开关后段","poweroffReason":"外力破坏引起虎项A563线高压柱上断路器短路跳闸 原停电结束时间为2019-09-26 21:00:39,因由于抢修工作难度大，故需要延迟送电的原因，现变更停电结束时间为2019-09-26 22:00:39","powerTime":"2019-09-26 21:31:59","powerComm":"已送电","subsNo":"","lineNo":"","tgNo":"","tgName":null,"infoStatus":"1","orgName":"国网浙江杭州市萧山区供电有限公司","typeName":null,"infoStatusName":null,"dateDay":null,"orgNos":null,"nowTime":null,"countyName":null,"streetName":null,"villageName":null,"roadName":null,"communityName":null,"tranName":null,"sdLineName":null,"cityCode":"3340130","cityName":"国网浙江杭州市萧山区供电有限公司","provinceCode":null,"stopTime":"2019-09-26 22:00:56","powerType":"全部","powerOffArea":"110kV成虎变:虎项A563线-虎项A5631开关后段","powerOffReason":"外力破坏引起虎项A563线高压柱上断路器短路跳闸 原停电结束时间为2019-09-26 21:00:39,因由于抢修工作难度大，故需要延迟送电的原因，现变更停电结束时间为2019-09-26 22:00:39","powerOffId":"2019092631020274"},{"poweroffId":2019092631020221,"sgpoweroffId":null,"subsName":"","lineName":"10kV成漾A573线","pubTranName":"杭州晨业来服饰绣品有限公司,杭州建栋实业有限公司1#,杭州晟漾纺织厂,杭州金亦源不锈钢有限公司,项漾村12#变,项漾村15#变,项漾村8#变,杭州壮大纱业有限公司,项漾村10#变,杭州愉友纺织有限公司,杭州达沃斯针纺有限公司,项漾村13#变,变压器,杭州建栋实业有限公司2#,项漾村11#变,","scope":"浙江省-杭州市-萧山区-衙前镇-项漾行政村(优胜路,草漾路,南大路,优胜自然村,旗杆路,草漾自然村,新华北路,河北岸,南岸路,兴华路,北岸路,兴华北路,北岸二路,胡家路,大池路,建新路,四房路,新庵路,东岸路,临铁路,章家新路,新安路,新华路);衙前镇-项漾行政村(杭州萧山佳裕化纤布厂,杭州佳邦化纤有限公司,杭州壮大纱业有限公司,杭州愉友纺织有限公司,杭州达沃斯针纺有限公司,杭州晨业来服饰绣品有限公司,杭州金亦源不锈钢有限公司,杭州晟漾纺织厂),浙江省杭州市萧山区衙前镇项漾行政村草漾片兴华路32号,浙江省杭州市萧山区衙前镇项漾行政村草漾新区,浙江省杭州市萧山区衙前镇项漾行政村优胜片菜场","startTime":"2019-09-26 15:40:39","stopDate":"2019-09-26 22:00:39","orgNo":"3340130","typeCode":"电网故障停限电","poweroffArea":"110kV成虎变:成漾A573线成漾A5731开关后段","poweroffReason":"外力破坏引起成漾A573线高压柱上断路器短路跳闸 原停电结束时间为2019-09-26 21:00:39,因由于抢修工作难度大，故需要延迟送电的原因，现变更停电结束时间为2019-09-26 22:00:39","powerTime":"2019-09-26 21:31:35","powerComm":"已送电","subsNo":"","lineNo":"","tgNo":"","tgName":null,"infoStatus":"1","orgName":"国网浙江杭州市萧山区供电有限公司","typeName":null,"infoStatusName":null,"dateDay":null,"orgNos":null,"nowTime":null,"countyName":null,"streetName":null,"villageName":null,"roadName":null,"communityName":null,"tranName":null,"sdLineName":null,"cityCode":"3340130","cityName":"国网浙江杭州市萧山区供电有限公司","provinceCode":null,"stopTime":"2019-09-26 22:00:39","powerType":"全部","powerOffArea":"110kV成虎变:成漾A573线成漾A5731开关后段","powerOffReason":"外力破坏引起成漾A573线高压柱上断路器短路跳闸 原停电结束时间为2019-09-26 21:00:39,因由于抢修工作难度大，故需要延迟送电的原因，现变更停电结束时间为2019-09-26 22:00:39","powerOffId":"2019092631020221"},{"poweroffId":2019092631020219,"sgpoweroffId":null,"subsName":"","lineName":"10kV定杨A260线","pubTranName":"步行街4#变,","scope":"浙江省-杭州市-萧山区-义桥镇-义桥行政村-时代大道、浙江省杭州市萧山区义桥镇东方文化园步行街5断等一带","startTime":"2019-09-26 15:30:12","stopDate":"2019-09-26 18:00:12","orgNo":"3340130","typeCode":"电网故障停限电","poweroffArea":"110kV定山变:定杨A260线-步行街4#变台区低压开关","poweroffReason":"（低压停电信息）外力破坏引起低压电缆被挖断","powerTime":"2019-09-26 17:30:39","powerComm":"已送电","subsNo":"","lineNo":"","tgNo":"","tgName":null,"infoStatus":"1","orgName":"国网浙江杭州市萧山区供电有限公司","typeName":null,"infoStatusName":null,"dateDay":null,"orgNos":null,"nowTime":null,"countyName":null,"streetName":null,"villageName":null,"roadName":null,"communityName":null,"tranName":null,"sdLineName":null,"cityCode":"3340130","cityName":"国网浙江杭州市萧山区供电有限公司","provinceCode":null,"stopTime":"2019-09-26 18:00:12","powerType":"全部","powerOffArea":"110kV定山变:定杨A260线-步行街4#变台区低压开关","powerOffReason":"（低压停电信息）外力破坏引起低压电缆被挖断","powerOffId":"2019092631020219"},{"poweroffId":2019092631020187,"sgpoweroffId":null,"subsName":"","lineName":"10kV许家9156线","pubTranName":"赞岭(三),赞岭(九),赞岭(五),赞岭(七),赞岭(一),","scope":"浙江省-杭州市-西湖区-转塘街道-美院社区-鸡山路","startTime":"2019-09-26 15:08:04","stopDate":"2019-09-26 17:30:04","orgNo":"3340101","typeCode":"电网故障停限电","poweroffArea":"110kV象山变:许家9156线-赞岭(一)、赞岭(三)、赞岭(五)、赞岭(七)、赞岭(九)","poweroffReason":"高压开关跳闸 原停电结束时间为2019-09-26 21:08:04,为减少客户停电时间,加快工作进度,提前送电,现变更停电结束时间为2019-09-26 17:30:04","powerTime":"2019-09-26 16:48:28","powerComm":"已送电","subsNo":"","lineNo":"","tgNo":"","tgName":null,"infoStatus":"1","orgName":"浙江杭州电力客户服务中心","typeName":null,"infoStatusName":null,"dateDay":null,"orgNos":null,"nowTime":null,"countyName":null,"streetName":null,"villageName":null,"roadName":null,"communityName":null,"tranName":null,"sdLineName":null,"cityCode":"3340101","cityName":"浙江杭州电力客户服务中心","provinceCode":null,"stopTime":"2019-09-26 17:30:04","powerType":"全部","powerOffArea":"110kV象山变:许家9156线-赞岭(一)、赞岭(三)、赞岭(五)、赞岭(七)、赞岭(九)","powerOffReason":"高压开关跳闸 原停电结束时间为2019-09-26 21:08:04,为减少客户停电时间,加快工作进度,提前送电,现变更停电结束时间为2019-09-26 17:30:04","powerOffId":"2019092631020187"},{"poweroffId":2019092631020175,"sgpoweroffId":null,"subsName":"","lineName":"10kV春江T103线","pubTranName":"桐庐县人民政府桐君街道办事处,工人文化宫,公安局宿舍1号公变,南门弄车充1号公变,","scope":"浙江省-杭州市-桐庐县-桐君街道-南门社区(南门弄,石明弄,富春路,西湖弄,迎春路);桐君街道-南门社区(桐庐县人民政府桐君街道办事处,桐庐县工人文化宫)","startTime":"2019-10-12 07:00:00","stopDate":"2019-10-12 11:00:00","orgNo":"3340150","typeCode":"计划停电","poweroffArea":"110kV桐庐变:春江T103线-公安2034线后段","poweroffReason":"桐君街道办事处专变令克调换及引线更换等工作线路消缺","powerTime":"2019-10-12 10:36:33","powerComm":"已送电","subsNo":"","lineNo":"","tgNo":"","tgName":null,"infoStatus":"1","orgName":"国网浙江桐庐县供电公司","typeName":null,"infoStatusName":null,"dateDay":null,"orgNos":null,"nowTime":null,"countyName":null,"streetName":null,"villageName":null,"roadName":null,"communityName":null,"tranName":null,"sdLineName":null,"cityCode":"3340150","cityName":"国网浙江桐庐县供电公司","provinceCode":null,"stopTime":"2019-10-12 11:00:00","powerType":"全部","powerOffArea":"110kV桐庐变:春江T103线-公安2034线后段","powerOffReason":"桐君街道办事处专变令克调换及引线更换等工作线路消缺","powerOffId":"2019092631020175"}],"pageModel":{"pageNow":1077,"totalCount":17789,"totalPage":1779,"tableRows":0,"pageCount":10,"beginCount":10760},"isExperi":"1"}