{"message":"","today":"2020-06-16","seleList":[{"poweroffId":2019092631020066,"sgpoweroffId":null,"subsName":"","lineName":"10kV建新A190线","pubTranName":"山后新农村基建变1#,安徽省交通建设股份有限公司1#,1#,湘东村5#变,山后村3#变,安徽省交通建设股份有限公司,山后村11#变,山后村2#变,湘东村4#变,湘东村7#变,山后村7#变,湘东村6#变,山后新农村基建变2#,山后村6#变,变压器,湘东村8#变,安徽省交通建设股份有限公司,中国石油天然气股份有限公司浙江杭州销售分公司,杭州国益路桥经营管理有限公司,杭州市萧山区义桥镇人民政府,山后村13#变,杭州国益路桥经营管理有限公司,山后村1#变,山后村5#变,山后村4#变,山后村12#变,山后村9#变,","scope":"浙江省-杭州市-萧山区-义桥镇-山后行政村(山后自然村,孔家埠自然村,东小华家自然村,河南桥自然村,双桥头自然村,宏大房自然村,亭子头自然村),义桥镇-湘东行政村(戚家山下自然村,建新自然村,打油陈自然村);义桥镇-山后行政村(杭州国益路桥经营管理有限公司,中国石油天然气股份有限公司浙江杭州销售分公司,杭州市萧山区义桥镇人民政府,杭州萧山义桥山后股份经济联合社,安徽省交通建设股份有限公司),义桥镇(民丰行政村-杭州国益路桥经营管理有限公司,义桥行政村-杭州市萧山区义桥镇人民政府,湘东行政村-杭州特来电新能源有限公司)等一带","startTime":"2019-09-26 09:02:23","stopDate":"2019-09-26 10:02:23","orgNo":"3340130","typeCode":"电网故障停限电","poweroffArea":"110kV群建变:建新A190线-建新A1901开关后段","poweroffReason":"高压开关跳闸","powerTime":"2019-09-26 09:35:56","powerComm":"已送电","subsNo":"","lineNo":"","tgNo":"","tgName":null,"infoStatus":"1","orgName":"国网浙江杭州市萧山区供电有限公司","typeName":null,"infoStatusName":null,"dateDay":null,"orgNos":null,"nowTime":null,"countyName":null,"streetName":null,"villageName":null,"roadName":null,"communityName":null,"tranName":null,"sdLineName":null,"cityCode":"3340130","cityName":"国网浙江杭州市萧山区供电有限公司","provinceCode":null,"stopTime":"2019-09-26 10:02:23","powerType":"全部","powerOffArea":"110kV群建变:建新A190线-建新A1901开关后段","powerOffReason":"高压开关跳闸","powerOffId":"2019092631020066"},{"poweroffId":2019092631020019,"sgpoweroffId":null,"subsName":"","lineName":"10kV宁镇A108线","pubTranName":"宁围集镇5#公变,","scope":"浙江省-杭州市-萧山区-宁围镇-宁围街道-振宁社区(集镇自然村,生兴路)、宁围集镇等一带","startTime":"2019-09-26 07:27:50","stopDate":"2019-09-26 12:27:38","orgNo":"3340130","typeCode":"电网故障停限电","poweroffArea":"110kV惠兴变:宁镇A108线-宁围集镇5#公变台区低压开关","poweroffReason":"(低压停电信息)低压漏电保护器短路故障","powerTime":"2019-09-26 11:31:39","powerComm":"已送电","subsNo":"","lineNo":"","tgNo":"","tgName":null,"infoStatus":"1","orgName":"国网浙江杭州市萧山区供电有限公司","typeName":null,"infoStatusName":null,"dateDay":null,"orgNos":null,"nowTime":null,"countyName":null,"streetName":null,"villageName":null,"roadName":null,"communityName":null,"tranName":null,"sdLineName":null,"cityCode":"3340130","cityName":"国网浙江杭州市萧山区供电有限公司","provinceCode":null,"stopTime":"2019-09-26 12:27:38","powerType":"全部","powerOffArea":"110kV惠兴变:宁镇A108线-宁围集镇5#公变台区低压开关","powerOffReason":"(低压停电信息)低压漏电保护器短路故障","powerOffId":"2019092631020019"},{"poweroffId":2019092531020219,"sgpoweroffId":null,"subsName":"","lineName":"10kV蒋家D408线","pubTranName":"蒋家村1#村中公变,","scope":"浙江省-杭州市-富阳区-新桐乡-程浦行政村-程坟自然村,鹿山街道-蒋家行政村(平安路,金鑫路,村中心路,新建路,蒋家自然村)","startTime":"2019-09-25 20:10:32","stopDate":"2019-09-25 23:30:00","orgNo":"3340170","typeCode":"电网故障停限电","poweroffArea":"110kV长春变:蒋家D408线-蒋家村1#村中公变后段","poweroffReason":"(低压停电信息)低压开关跳闸，原停电结束时间为2019-09-25 21:10:32,因系统原因,现变更停电结束时间为2019-09-25 23:30:29","powerTime":"2019-09-25 23:21:04","powerComm":"已送电","subsNo":"","lineNo":"","tgNo":"","tgName":null,"infoStatus":"1","orgName":"国网浙江杭州市富阳区供电公司","typeName":null,"infoStatusName":null,"dateDay":null,"orgNos":null,"nowTime":null,"countyName":null,"streetName":null,"villageName":null,"roadName":null,"communityName":null,"tranName":null,"sdLineName":null,"cityCode":"3340170","cityName":"国网浙江杭州市富阳区供电公司","provinceCode":null,"stopTime":"2019-09-25 23:30:00","powerType":"全部","powerOffArea":"110kV长春变:蒋家D408线-蒋家村1#村中公变后段","powerOffReason":"(低压停电信息)低压开关跳闸，原停电结束时间为2019-09-25 21:10:32,因系统原因,现变更停电结束时间为2019-09-25 23:30:29","powerOffId":"2019092531020219"},{"poweroffId":2019092531020214,"sgpoweroffId":null,"subsName":"","lineName":"10kV渌渚D133线","pubTranName":"百前村5#马路边公变,","scope":"浙江省-杭州市-富阳区-渌渚镇-百前行政村(马路边自然村,母子苓自然村,沃口自然村)","startTime":"2019-09-25 19:13:58","stopDate":"2019-09-25 22:30:58","orgNo":"3340170","typeCode":"电网故障停限电","poweroffArea":"110kV新登变:渌渚D133线-百前村5#马路边公变后段","poweroffReason":"(低压停电信息)低压开关跳闸，原停电结束时间为2019-09-25 20:30:58,因现场抢修难度大,现变更停电结束时间为2019-09-25 22:30:58","powerTime":"2019-09-25 22:24:30","powerComm":"已送电","subsNo":"","lineNo":"","tgNo":"","tgName":null,"infoStatus":"1","orgName":"国网浙江杭州市富阳区供电公司","typeName":null,"infoStatusName":null,"dateDay":null,"orgNos":null,"nowTime":null,"countyName":null,"streetName":null,"villageName":null,"roadName":null,"communityName":null,"tranName":null,"sdLineName":null,"cityCode":"3340170","cityName":"国网浙江杭州市富阳区供电公司","provinceCode":null,"stopTime":"2019-09-25 22:30:58","powerType":"全部","powerOffArea":"110kV新登变:渌渚D133线-百前村5#马路边公变后段","powerOffReason":"(低压停电信息)低压开关跳闸，原停电结束时间为2019-09-25 20:30:58,因现场抢修难度大,现变更停电结束时间为2019-09-25 22:30:58","powerOffId":"2019092531020214"},{"poweroffId":2019092531020202,"sgpoweroffId":null,"subsName":"","lineName":"10kV七登8767线","pubTranName":"陆坞三,陆坞一,陆坞五,","scope":"浙江省-杭州市-拱墅区-上塘街道-拱宸社区-陆家坞一带","startTime":"2019-09-25 17:59:32","stopDate":"2019-09-26 02:50:32","orgNo":"3340101","typeCode":"电网故障停限电","poweroffArea":"110kV大关变:七登8767线-陆坞五变,陆坞三变,陆坞一变","poweroffReason":"高压开关跳闸 原停电结束时间为2019-09-25 19:59:32,因预估施工时间不足原因,现变更停电结束时间为2019-09-26 02:50:32","powerTime":"2019-09-26 02:03:31","powerComm":"已送电","subsNo":"","lineNo":"","tgNo":"","tgName":null,"infoStatus":"1","orgName":"浙江杭州电力客户服务中心","typeName":null,"infoStatusName":null,"dateDay":null,"orgNos":null,"nowTime":null,"countyName":null,"streetName":null,"villageName":null,"roadName":null,"communityName":null,"tranName":null,"sdLineName":null,"cityCode":"3340101","cityName":"浙江杭州电力客户服务中心","provinceCode":null,"stopTime":"2019-09-26 02:50:32","powerType":"全部","powerOffArea":"110kV大关变:七登8767线-陆坞五变,陆坞三变,陆坞一变","powerOffReason":"高压开关跳闸 原停电结束时间为2019-09-25 19:59:32,因预估施工时间不足原因,现变更停电结束时间为2019-09-26 02:50:32","powerOffId":"2019092531020202"},{"poweroffId":2019092531020199,"sgpoweroffId":null,"subsName":"","lineName":"10kV里洪H553线","pubTranName":"双溪村坑西公变,","scope":"浙江省-杭州市-余杭区-径山镇-双溪行政村(坑西自然村,双溪村),径山镇(四岭行政村-四岭自然村,径山行政村-径山自然村)一带","startTime":"2019-09-25 17:29:00","stopDate":"2019-09-25 19:29:00","orgNo":"3340140","typeCode":"电网故障停限电","poweroffArea":"110kV潘板变:里洪H553线-双溪村坑西公变后段","poweroffReason":"(低压停电信息)低压开关跳闸","powerTime":"2019-09-25 19:10:00","powerComm":"已送电","subsNo":"","lineNo":"","tgNo":"","tgName":null,"infoStatus":"1","orgName":"国网浙江杭州市余杭区供电有限公司","typeName":null,"infoStatusName":null,"dateDay":null,"orgNos":null,"nowTime":null,"countyName":null,"streetName":null,"villageName":null,"roadName":null,"communityName":null,"tranName":null,"sdLineName":null,"cityCode":"3340140","cityName":"国网浙江杭州市余杭区供电有限公司","provinceCode":null,"stopTime":"2019-09-25 19:29:00","powerType":"全部","powerOffArea":"110kV潘板变:里洪H553线-双溪村坑西公变后段","powerOffReason":"(低压停电信息)低压开关跳闸","powerOffId":"2019092531020199"},{"poweroffId":2019092531020184,"sgpoweroffId":null,"subsName":"","lineName":"10kV七登8767线","pubTranName":"登公三变,关道一,上塘镇(2),盛泉,建华公寓,拱建关施3,明珠2#,拱墅行政2#,地铁关施3,陆坞三,上塘镇,拱建关施1,万年,广银大厦2#,陆坞五,地铁关施1,拱建关施2,明珠1#,中水红建,陆坞一,地铁关施4,地铁关施2,红建(3),登公一变,","scope":"浙江省-杭州市-拱墅区-上塘街道(拱宸社区-陆家坞,沈半路,八丈井社区-上塘路,七古登社区-东教路,七古登公寓);上塘街道-八丈井社区(杭州广银大酒店有限公司,杭州市公安局交通警察支队,杭州大宸发投资有限公司,浙江建华集团有限公司),大关街道(香积社区-杭州明珠大厦,中铁十一局集团城市轨道工程有限公司,大关社区-杭州市拱墅区城市建设发展中心),上塘街道(绍兴路社区-杭州市拱墅区城市河道保护管理中心)","startTime":"2019-09-25 16:31:59","stopDate":"2019-09-25 18:31:59","orgNo":"3340101","typeCode":"电网故障停限电","poweroffArea":"110kV大关变:七登8767线","poweroffReason":"高压开关跳闸 原停电结束时间为2019-09-25 20:31:59,为减少客户停电时间,加快工作进度,提前送电,现变更停电结束时间为2019-09-25 18:31:59","powerTime":"2019-09-25 17:51:24","powerComm":"已送电","subsNo":"","lineNo":"","tgNo":"","tgName":null,"infoStatus":"1","orgName":"浙江杭州电力客户服务中心","typeName":null,"infoStatusName":null,"dateDay":null,"orgNos":null,"nowTime":null,"countyName":null,"streetName":null,"villageName":null,"roadName":null,"communityName":null,"tranName":null,"sdLineName":null,"cityCode":"3340101","cityName":"浙江杭州电力客户服务中心","provinceCode":null,"stopTime":"2019-09-25 18:31:59","powerType":"全部","powerOffArea":"110kV大关变:七登8767线","powerOffReason":"高压开关跳闸 原停电结束时间为2019-09-25 20:31:59,为减少客户停电时间,加快工作进度,提前送电,现变更停电结束时间为2019-09-25 18:31:59","powerOffId":"2019092531020184"},{"poweroffId":2019092531020172,"sgpoweroffId":null,"subsName":"","lineName":"10kV长征G032线","pubTranName":"运河镇戚家桥村仁安桥公变,运河镇戚家桥村孟家旺2号公变,运河镇戚家桥村潘家里公变,杭州铎佳纺织品有限公司,运河镇戚家桥村孟家旺公变,戚家桥村仁安桥2号公变,","scope":"浙江省-杭州市-余杭区-运河街道-戚家桥行政村(孟家横自然村,戚家桥自然村,戚家桥,仁安桥自然村,潘家里自然村);浙江省-杭州市-余杭区-运河街道-戚家桥行政村-杭州铎佳纺织品有限公司","startTime":"2019-09-25 15:50:00","stopDate":"2019-09-25 18:30:00","orgNo":"3340140","typeCode":"电网故障停限电","poweroffArea":"110kV五杭变:长征G032线-长征G032线仁安桥分线开关后段","poweroffReason":"高压开关跳闸","powerTime":"2019-09-25 18:05:00","powerComm":"已送电","subsNo":"","lineNo":"","tgNo":"","tgName":null,"infoStatus":"1","orgName":"国网浙江杭州市余杭区供电有限公司","typeName":null,"infoStatusName":null,"dateDay":null,"orgNos":null,"nowTime":null,"countyName":null,"streetName":null,"villageName":null,"roadName":null,"communityName":null,"tranName":null,"sdLineName":null,"cityCode":"3340140","cityName":"国网浙江杭州市余杭区供电有限公司","provinceCode":null,"stopTime":"2019-09-25 18:30:00","powerType":"全部","powerOffArea":"110kV五杭变:长征G032线-长征G032线仁安桥分线开关后段","powerOffReason":"高压开关跳闸","powerOffId":"2019092531020172"},{"poweroffId":2019092531020171,"sgpoweroffId":null,"subsName":"","lineName":"10kV丽四C116线","pubTranName":"杭州恺兴房地产开发有限公司1#变压器,杭州萧山城市新能源汽车服务有限公司#1,3#变压器,","scope":"浙江省-杭州市-萧山区(城厢街道-百尺溇社区-杭州萧山城市新能源汽车服务有限公司,北干街道-兴议行政村-杭州恺兴房地产开发有限公司)","startTime":"2019-10-11 08:30:00","stopDate":"2019-10-11 17:00:00","orgNo":"3340130","typeCode":"计划停电","poweroffArea":"110kV丽都变:丽四C116线-新能源后段","poweroffReason":"丽四开G23至玺上开G21电缆迁改 原停电结束时间为2019-10-11 20:30:00,因人员增派，工作提前结束,现变更停电结束时间为2019-10-11 17:00:00","powerTime":"2019-10-11 16:06:43","powerComm":"已送电","subsNo":"","lineNo":"","tgNo":"","tgName":null,"infoStatus":"1","orgName":"国网浙江杭州市萧山区供电有限公司","typeName":null,"infoStatusName":null,"dateDay":null,"orgNos":null,"nowTime":null,"countyName":null,"streetName":null,"villageName":null,"roadName":null,"communityName":null,"tranName":null,"sdLineName":null,"cityCode":"3340130","cityName":"国网浙江杭州市萧山区供电有限公司","provinceCode":null,"stopTime":"2019-10-11 17:00:00","powerType":"全部","powerOffArea":"110kV丽都变:丽四C116线-新能源后段","powerOffReason":"丽四开G23至玺上开G21电缆迁改 原停电结束时间为2019-10-11 20:30:00,因人员增派，工作提前结束,现变更停电结束时间为2019-10-11 17:00:00","powerOffId":"2019092531020171"},{"poweroffId":2019092531020112,"sgpoweroffId":null,"subsName":"","lineName":"10kV成衙A576线","pubTranName":"四翔村13#变,明华村8#变,四翔村12#变,四翔村3#变,明华村14#变,明华村9#变,杭州方鑫纺织有限公司,四翔村5#变,四翔村4#变,四翔村7#变,四翔村14#变,","scope":"浙江省-杭州市-萧山区-衙前镇-毕公桥社区-,衙前镇-明华行政村(东三路,前方路,育才路,明华自然村,七房路,东黄路,念方路,前明路,后东路),衙前镇-四翔行政村(立交西路,桥东路,立交东路,张家埭中路,桥西路,四村自然村,中方西路,中方中路,中方南路,张家埭北路,张家埭南路,前进西路,河东南路,中方北路,张家埭小区,河西北路,河东北路);浙江省-杭州市-萧山区-衙前镇-衙前行政村-杭州方鑫纺织有限公司一带","startTime":"2019-09-25 12:11:46","stopDate":"2019-09-25 13:40:46","orgNo":"3340130","typeCode":"电网故障停限电","poweroffArea":"110kV成虎变:成衙A576线-成衙A576线杰生化纤分线开关（自）后段","poweroffReason":"高压柱上断路器短路故障","powerTime":"2019-09-25 13:05:37","powerComm":"已送电","subsNo":"","lineNo":"","tgNo":"","tgName":null,"infoStatus":"1","orgName":"国网浙江杭州市萧山区供电有限公司","typeName":null,"infoStatusName":null,"dateDay":null,"orgNos":null,"nowTime":null,"countyName":null,"streetName":null,"villageName":null,"roadName":null,"communityName":null,"tranName":null,"sdLineName":null,"cityCode":"3340130","cityName":"国网浙江杭州市萧山区供电有限公司","provinceCode":null,"stopTime":"2019-09-25 13:40:46","powerType":"全部","powerOffArea":"110kV成虎变:成衙A576线-成衙A576线杰生化纤分线开关（自）后段","powerOffReason":"高压柱上断路器短路故障","powerOffId":"2019092531020112"}],"pageModel":{"pageNow":1079,"totalCount":17789,"totalPage":1779,"tableRows":0,"pageCount":10,"beginCount":10780},"isExperi":"1"}