{"message":"","today":"2020-06-16","seleList":[{"poweroffId":2019092431020109,"sgpoweroffId":null,"subsName":"","lineName":"10kV袁沙6603线","pubTranName":"麦桥,杭南千1#,麦桥三,麦桥二,枫桦施,杭南千2#,杭南显二,杭南灯,","scope":"浙江省-杭州市-西湖区-双浦镇-麦岭沙社区-麦岭沙村道;双浦镇-麦岭沙社区(杭州之江国家旅游度假区基础设施建设开发中心,杭州杭千高速公路发展有限公司),转塘街道-桕联社区-杭州之江国家旅游度假区基础设施建设开发中心,双浦镇-杭州杭千高速公路发展有限公司","startTime":"2019-09-24 11:37:45","stopDate":"2019-09-24 13:40:45","orgNo":"3340101","typeCode":"电网故障停限电","poweroffArea":"110kV周浦变:袁沙6603线-桕内分线后段","poweroffReason":"高压开关跳闸 原停电结束时间为2019-09-24 14:37:45,为减少客户停电时间,加快工作进度,提前送电,现变更停电结束时间为2019-09-24 13:40:45","powerTime":"2019-09-24 13:10:49","powerComm":"已送电","subsNo":"","lineNo":"","tgNo":"","tgName":null,"infoStatus":"1","orgName":"浙江杭州电力客户服务中心","typeName":null,"infoStatusName":null,"dateDay":null,"orgNos":null,"nowTime":null,"countyName":null,"streetName":null,"villageName":null,"roadName":null,"communityName":null,"tranName":null,"sdLineName":null,"cityCode":"3340101","cityName":"浙江杭州电力客户服务中心","provinceCode":null,"stopTime":"2019-09-24 13:40:45","powerType":"全部","powerOffArea":"110kV周浦变:袁沙6603线-桕内分线后段","powerOffReason":"高压开关跳闸 原停电结束时间为2019-09-24 14:37:45,为减少客户停电时间,加快工作进度,提前送电,现变更停电结束时间为2019-09-24 13:40:45","powerOffId":"2019092431020109"},{"poweroffId":2019092431020056,"sgpoweroffId":null,"subsName":"","lineName":"10kV大洲Y152线","pubTranName":"金洲村佑伶坞台区,金洲村潘村台区,建德市下涯镇金伟汽配商行,下涯金洲村避署岭台区,下涯村下坞口台区,大洲村北坞口台区,配水三标许村2#支洞变压器,金洲村金村台区,大洲村大洲台区,下涯集镇和美3#公变,金洲村许村台区,金洲村梅树坞台区,下涯村白佛寺台区,大洲村芳山口台区,金洲村七坞口台区,大洲村大前台区,下涯村寺坞台区,春秋村上坞里台区,大洲村下畈台区,春秋村对面台区,大洲村西坞台区,下涯集镇和美1#公变,大洲村后村台区,大洲村罗坞台区,春秋村胡村,金洲村溪东台区,建德市中凯塑料制品厂,建德市祥盛塑胶材料厂,下涯集镇和美7#公变变压器,金洲村七坞台区,建德市金湖木制品厂,建德市向日葵橡塑有限公司,下涯集镇和美5#公变变压器,春秋村倪村,大洲村芳山台区,建德市下涯养殖场变压器,金洲村洪村台区,春秋村对面2#台区,大洲村日晒坞台区,大洲村上畈台区,春秋村苏家台区,中铁三局集团有限公司杭黄铁路站前VI标项目部(4#搅拌站)变压器,金洲村阳坞台区,大洲村田蓬台区,大洲村田社台区,大洲村罗庄台区,杭州电力设备制造有限公司建德冠源成套电器制造分公司,大洲村庄畈台区,下涯村唐村台区,","scope":"浙江省-杭州市-建德市-下涯镇-下涯集镇-邮电路自然村,下涯镇-金洲行政村(许村自然村,七坞自然村,洪村自然村,溪东自然村,潘村自然村,金村自然村,佑岭坞自然村),下涯镇-春秋行政村(对面自然村,苏家自然村,上坞里自然村),下涯镇-大洲行政村(田社自然村,西坞自然村,芳山自然村,芳山口自然村,大洲自然村,大洲前村自然村,大洲后村自然村,北坞自然村,日晒坞自然村,罗坞自然村,罗庄自然村,庄畈自然村,田蓬自然村,北坞口自然村),下涯镇-下涯行政村(寺坞自然村,白佛寺自然村,唐村坞自然村,下涯自然村,溪上自然村,下坞口自然村);下涯镇(中铁三局集团桥隧工程有限公司,建德市下涯养殖场,浙江省围海建设集团股份有限公司,建德市金湖木制品厂,建德市中凯塑料制品厂,建德市祥盛塑胶材料厂,建德市向日葵橡塑有限公司,杭州电力设备制造有限公司建德冠源成套电气制造分公司,建德市下涯镇金伟汽配商行)","startTime":"2019-09-24 09:24:00","stopDate":"2019-09-24 12:30:00","orgNo":"3340180","typeCode":"电网故障停限电","poweroffArea":"110kV沿口变:大洲Y152线大洲Y1521开关后段","poweroffReason":"高压开关跳闸","powerTime":"2019-09-24 12:02:00","powerComm":"已送电","subsNo":"","lineNo":"","tgNo":"","tgName":null,"infoStatus":"1","orgName":"国网浙江建德市供电有限公司","typeName":null,"infoStatusName":null,"dateDay":null,"orgNos":null,"nowTime":null,"countyName":null,"streetName":null,"villageName":null,"roadName":null,"communityName":null,"tranName":null,"sdLineName":null,"cityCode":"3340180","cityName":"国网浙江建德市供电有限公司","provinceCode":null,"stopTime":"2019-09-24 12:30:00","powerType":"全部","powerOffArea":"110kV沿口变:大洲Y152线大洲Y1521开关后段","powerOffReason":"高压开关跳闸","powerOffId":"2019092431020056"},{"poweroffId":2019092431020030,"sgpoweroffId":null,"subsName":"","lineName":"10kV洞桥D334线","pubTranName":"洞桥村1#皇印石公变,","scope":"浙江省-杭州市-富阳区-洞桥镇-石羊行政村-杨家自然村,洞桥镇-洞桥行政村(凌家自然村,十房里自然村,木家坞自然村,旗山自然村,王家自然村,沈家自然村,洞桥自然村,假山头自然村,皇印石自然村,于家自然村)","startTime":"2019-09-24 08:32:51","stopDate":"2019-09-24 18:00:00","orgNo":"3340170","typeCode":"电网故障停限电","poweroffArea":"110kV万市变:洞桥D334线-洞桥村1#皇印石公变后段","poweroffReason":"(低压停电信息)低压开关跳闸","powerTime":"2019-09-24 17:45:23","powerComm":"已送电","subsNo":"","lineNo":"","tgNo":"","tgName":null,"infoStatus":"1","orgName":"国网浙江杭州市富阳区供电公司","typeName":null,"infoStatusName":null,"dateDay":null,"orgNos":null,"nowTime":null,"countyName":null,"streetName":null,"villageName":null,"roadName":null,"communityName":null,"tranName":null,"sdLineName":null,"cityCode":"3340170","cityName":"国网浙江杭州市富阳区供电公司","provinceCode":null,"stopTime":"2019-09-24 18:00:00","powerType":"全部","powerOffArea":"110kV万市变:洞桥D334线-洞桥村1#皇印石公变后段","powerOffReason":"(低压停电信息)低压开关跳闸","powerOffId":"2019092431020030"},{"poweroffId":2019092431020025,"sgpoweroffId":null,"subsName":"","lineName":"10kV洞桥D334线","pubTranName":"洞桥镇2#八房里公变,","scope":"浙江省-杭州市-富阳区-洞桥镇-洞桥行政村(十房里自然村,范家自然村,里仁街自然村,八房里自然村,洞桥头自然村,于家自然村,沈家西自然村,洞桥自然村,凌家自然村,佳坞里自然村)","startTime":"2019-09-24 08:17:14","stopDate":"2019-09-24 18:00:00","orgNo":"3340170","typeCode":"电网故障停限电","poweroffArea":"110kV万市变:洞桥D334线-洞桥镇2#八房里后段","poweroffReason":"(低压停电信息)低压开关跳闸","powerTime":"2019-09-24 17:50:10","powerComm":"已送电","subsNo":"","lineNo":"","tgNo":"","tgName":null,"infoStatus":"1","orgName":"国网浙江杭州市富阳区供电公司","typeName":null,"infoStatusName":null,"dateDay":null,"orgNos":null,"nowTime":null,"countyName":null,"streetName":null,"villageName":null,"roadName":null,"communityName":null,"tranName":null,"sdLineName":null,"cityCode":"3340170","cityName":"国网浙江杭州市富阳区供电公司","provinceCode":null,"stopTime":"2019-09-24 18:00:00","powerType":"全部","powerOffArea":"110kV万市变:洞桥D334线-洞桥镇2#八房里后段","powerOffReason":"(低压停电信息)低压开关跳闸","powerOffId":"2019092431020025"},{"poweroffId":2019092431020013,"sgpoweroffId":null,"subsName":"","lineName":"10kV新江C536线","pubTranName":"杭州萧山浦阳江建设开发有限公司1#,浙江杭锻精密机械有限公司,桃北新村14#变,杭州麻棉纺织厂,杭州融阳政房地产开发有限公司,甬森玻璃,杭州弗若斯自动化设备有限公司,桃北新村4#变,桃北新村12#变,杭州萧山华宇焊接电器设备厂,杭州融阳政房地产开发有限公司,桃北新村23#变,万事利,桃北新村26#变,杭州泰兴气体有限公司,杭州特帮实业有限公司,桃北新村1#变,桃北新村5#变,杭州帕莱逊机械有限公司,杭州市萧山区育苗学校,桃北新村11#变,桃北新村10#变,天成,杭州麻棉纺织厂,永润鞋业,杭州萧山天成机械有限公司,变压器,桃北新村17#变,中国电信股份有限公司杭州萧山区分公司,2#,桃北新村3#变,杭州宇步鞋业有限公司,桃北新村9#变,于家机埠,杭州尖力机械有限公司,杭州力攀机械有限公司,电动工具,桃北新村21#变,奇联纺织,桃北新村28#变,桃北新村13#变,桃北新村8#变,欧时鞋业,杭州融阳政房地产开发有限公司,桃北新村15#变,桃北新村29#变,桃北新村18#变,泰兴纺织,杭州萧山普天塑业有限公司,桃北新村16#变,桃北新村27#变,造纸机械,杭州融阳政房地产开发有限公司2,浙江才联环保科技有限公司,杭州开进机械有限公司,杭州荣煕实业有限公司,杭州力亿轴承有限公司,浙江省交通工程建设集团有限公司杭金衢高速公路拓宽工程,桃北新村30#变,浦阳集镇1#变,桃北新村20#变,桃北新村6#变,1#,桃北新村22#变,万达,桃北新村2#变,杭州融阳政房地产开发有限公司1,","scope":"浙江省-杭州市-萧山区-浦阳镇-桃北新行政村(许家自然村,小湖孙自然村,横塘倪自然村,桃北新村自然村),浦阳镇-尖山行政村(振浦路,下山俞自然村);浙江省-杭州市-萧山区-浦阳镇-新谊行政村-杭州弗若斯自动化设备有限公司,浦阳镇-桃北新行政村(杭州力攀机械有限公司,杭州宇步鞋业有限公司,杭州屹茂鞋业有限公司,杭州融阳政房地产开发有限公司,杭州萧山华宇焊接电器设备厂,杭州欣昊鞋业有限公司,杭州尖力机械有限公司,杭州信达消防设备有限公司,杭州萧山万达车配厂,浙江杭锻精密机械有限公司,杭州萧山浦阳桃北新村股份经济联合社,杭州甬森玻璃有限公司,杭州奇联纺织机械有限公司,杭州萧山电动工具配件厂,杭州萧山普天塑业有限公司,杭州麻棉纺织厂,杭州梁力钣金有限公司,杭州市萧山区浦阳镇人民政府,杭州佳得焊不锈钢设备有限公司,浙江才联环保科技有限公司,杭州开进机械有限公司),浦阳镇-尖山行政村(杭州萧山污水处理有限公司,杭州荣煕实业有限公司,杭州特帮实业有限公司,杭州泰兴气体有限公司,中国电信股份有限公司杭州萧山区分公司,杭州永润鞋业有限公司,杭州天启机械有限公司,杭州萧山浦阳造纸机械设备厂,杭州市萧山区育苗学校,杭州萧山泰成纺机配件厂,杭州力亿轴承有限公司)等一带","startTime":"2019-09-24 07:34:03","stopDate":"2019-09-24 09:55:03","orgNo":"3340130","typeCode":"电网故障停限电","poweroffArea":"35kV径游变:新江C536线-新江C536线开关后段","poweroffReason":"外力破坏引起高压架空线路断线 原停电结束时间为2019-09-24 10:34:03,为减少客户停电时间,加快工作进度,提前送电,现变更停电结束时间为2019-09-24 09:55:03","powerTime":"2019-09-24 09:01:56","powerComm":"已送电","subsNo":"","lineNo":"","tgNo":"","tgName":null,"infoStatus":"1","orgName":"国网浙江杭州市萧山区供电有限公司","typeName":null,"infoStatusName":null,"dateDay":null,"orgNos":null,"nowTime":null,"countyName":null,"streetName":null,"villageName":null,"roadName":null,"communityName":null,"tranName":null,"sdLineName":null,"cityCode":"3340130","cityName":"国网浙江杭州市萧山区供电有限公司","provinceCode":null,"stopTime":"2019-09-24 09:55:03","powerType":"全部","powerOffArea":"35kV径游变:新江C536线-新江C536线开关后段","powerOffReason":"外力破坏引起高压架空线路断线 原停电结束时间为2019-09-24 10:34:03,为减少客户停电时间,加快工作进度,提前送电,现变更停电结束时间为2019-09-24 09:55:03","powerOffId":"2019092431020013"},{"poweroffId":2019092431020004,"sgpoweroffId":null,"subsName":"","lineName":"10kV在城H701线","pubTranName":"余杭供电所2号公变,南渠街2号公变,南渠街1号公变,通济公变,南渠街3号公变,蓝源置业6120826083I段1#,","scope":"浙江省-杭州市-余杭区-余杭街道-南渠社区(南渠街,直街,南渠北路),余杭街道-通济社区(通济路,新桥路,直街);浙江省-杭州市-余杭区-余杭街道-山西园社区-杭州蓝源置业有限公司","startTime":"2019-09-24 05:49:00","stopDate":"2019-09-24 07:00:00","orgNo":"3340140","typeCode":"电网故障停限电","poweroffArea":"110kV余杭变:在城H701线-通济分线开关后段","poweroffReason":"高压开关跳闸 原停电结束时间为2019-09-24 08:49:00,为减少客户停电时间,加快工作进度,提前送电,现变更停电结束时间为2019-09-24 07:00:00","powerTime":"2019-09-24 06:38:36","powerComm":"已送电","subsNo":"","lineNo":"","tgNo":"","tgName":null,"infoStatus":"1","orgName":"国网浙江杭州市余杭区供电有限公司","typeName":null,"infoStatusName":null,"dateDay":null,"orgNos":null,"nowTime":null,"countyName":null,"streetName":null,"villageName":null,"roadName":null,"communityName":null,"tranName":null,"sdLineName":null,"cityCode":"3340140","cityName":"国网浙江杭州市余杭区供电有限公司","provinceCode":null,"stopTime":"2019-09-24 07:00:00","powerType":"全部","powerOffArea":"110kV余杭变:在城H701线-通济分线开关后段","powerOffReason":"高压开关跳闸 原停电结束时间为2019-09-24 08:49:00,为减少客户停电时间,加快工作进度,提前送电,现变更停电结束时间为2019-09-24 07:00:00","powerOffId":"2019092431020004"},{"poweroffId":2019092331020162,"sgpoweroffId":null,"subsName":"","lineName":"10kV深澳251线","pubTranName":"深澳村2号公变,","scope":"浙江省-杭州市-桐庐县-江南镇-深澳行政村-五村自然村","startTime":"2019-09-23 16:40:36","stopDate":"2019-09-23 18:40:36","orgNo":"3340150","typeCode":"电网故障停限电","poweroffArea":"110kV石阜变:深澳251线-深澳村2号公变后段","poweroffReason":"(低压停电信息)低压开关跳闸","powerTime":"2019-09-23 18:11:40","powerComm":"已送电","subsNo":"","lineNo":"","tgNo":"","tgName":null,"infoStatus":"1","orgName":"国网浙江桐庐县供电公司","typeName":null,"infoStatusName":null,"dateDay":null,"orgNos":null,"nowTime":null,"countyName":null,"streetName":null,"villageName":null,"roadName":null,"communityName":null,"tranName":null,"sdLineName":null,"cityCode":"3340150","cityName":"国网浙江桐庐县供电公司","provinceCode":null,"stopTime":"2019-09-23 18:40:36","powerType":"全部","powerOffArea":"110kV石阜变:深澳251线-深澳村2号公变后段","powerOffReason":"(低压停电信息)低压开关跳闸","powerOffId":"2019092331020162"},{"poweroffId":2019092331020123,"sgpoweroffId":null,"subsName":"","lineName":"10kV杭饭503线","pubTranName":"华北变,","scope":"浙江省-杭州市-西湖区-西湖街道-栖霞岭社区(北山路,栖霞岭),紫阳街道(太庙社区-中山南路,十五奎巷社区-中山南路),西湖街道(灵隐社区-白乐桥,净寺社区-长桥阔石板),上城区-清波街道-清河坊社区-河坊街,西湖区-北山街道-宝石社区-曙光路","startTime":"2019-09-23 15:19:13","stopDate":"2019-09-23 17:00:13","orgNo":"3340101","typeCode":"电网故障停限电","poweroffArea":"35kV求是变:杭饭503线-华北变后段","poweroffReason":"高压开关跳闸 原停电结束时间为2019-09-23 19:19:13,为减少客户停电时间,加快工作进度,提前送电,现变更停电结束时间为2019-09-23 17:00:13","powerTime":"2019-09-23 16:27:00","powerComm":"已送电","subsNo":"","lineNo":"","tgNo":"","tgName":null,"infoStatus":"1","orgName":"浙江杭州电力客户服务中心","typeName":null,"infoStatusName":null,"dateDay":null,"orgNos":null,"nowTime":null,"countyName":null,"streetName":null,"villageName":null,"roadName":null,"communityName":null,"tranName":null,"sdLineName":null,"cityCode":"3340101","cityName":"浙江杭州电力客户服务中心","provinceCode":null,"stopTime":"2019-09-23 17:00:13","powerType":"全部","powerOffArea":"35kV求是变:杭饭503线-华北变后段","powerOffReason":"高压开关跳闸 原停电结束时间为2019-09-23 19:19:13,为减少客户停电时间,加快工作进度,提前送电,现变更停电结束时间为2019-09-23 17:00:13","powerOffId":"2019092331020123"},{"poweroffId":2019092331020119,"sgpoweroffId":null,"subsName":"","lineName":"10kV广爱9781线","pubTranName":"万璟住施2#,星农,郭厍,路灯箱变,公交集团,泰嘉实业2#,石祥施(29),祥予,岗安(十),岗安(八),泰嘉实业1#,德泰2,花农施2#,岗安(六),路桥,花园岗(4),花农施4#,拱经住施,祥符(8),万瑜住施3#,星桥(2)农,市桥(2),万璟住施3#,德泰3,祥环,万瑜住施4#,德泰1,万璟住施1#,岗安(二),花农施3#,花农施5#,星居,太公,泰嘉实业3#,花农施1#,万瑜住施1#,岗安(十二),岗安(四),群乐,西湖印刷,","scope":"浙江省-杭州市-拱墅区-祥符街道-星桥社区(莫干山路,杭行路),祥符街道(,新文社区-莫干山路,勤丰社区-登云路,花园岗社区-花园港街);杭州万璟置业有限公司,祥符街道-孔家埭社区(杭州正信物资回收有限公司,祥符环卫站,杭州西湖印刷实业有限公司),祥符街道-花园岗社区(杭州花园岗股份经济合作社,杭州市拱墅区农转居多层公寓建设管理中心),上塘街道-瓜山社区(杭州市市政设施发展中心,杭州德奥汽车有限公司),祥符街道-祥符社区(杭州群乐包装有限公司,杭州泰嘉物业管理有限公司),祥符街道(庆隆社区-富阳桥梁工程队,杭州市拱墅区经济发展投资有限公司,映月社区-杭州市公共交通集团有限公司,渡驾桥社区-杭州市路灯管理所,星桥社区-杭州万瑜置业有限公司)","startTime":"2019-09-23 14:43:16","stopDate":"2019-09-23 16:45:16","orgNo":"3340101","typeCode":"电网故障停限电","poweroffArea":"110kV红旗变:广爱9781线","poweroffReason":"高压开关跳闸 原停电结束时间为2019-09-23 18:43:16,为减少客户停电时间,加快工作进度,提前送电,现变更停电结束时间为2019-09-23 16:45:16","powerTime":"2019-09-23 16:07:46","powerComm":"已送电","subsNo":"","lineNo":"","tgNo":"","tgName":null,"infoStatus":"1","orgName":"浙江杭州电力客户服务中心","typeName":null,"infoStatusName":null,"dateDay":null,"orgNos":null,"nowTime":null,"countyName":null,"streetName":null,"villageName":null,"roadName":null,"communityName":null,"tranName":null,"sdLineName":null,"cityCode":"3340101","cityName":"浙江杭州电力客户服务中心","provinceCode":null,"stopTime":"2019-09-23 16:45:16","powerType":"全部","powerOffArea":"110kV红旗变:广爱9781线","powerOffReason":"高压开关跳闸 原停电结束时间为2019-09-23 18:43:16,为减少客户停电时间,加快工作进度,提前送电,现变更停电结束时间为2019-09-23 16:45:16","powerOffId":"2019092331020119"},{"poweroffId":2019092331020109,"sgpoweroffId":null,"subsName":"","lineName":"10kV国航C147线","pubTranName":"花神庙村5#变,","scope":"浙江省-杭州市-萧山区-靖江街道-花神庙社区-花神庙自然村、花神庙村一带","startTime":"2019-09-23 14:10:24","stopDate":"2019-09-23 16:55:24","orgNo":"3340130","typeCode":"电网故障停限电","poweroffArea":"110kV梅西变:国航C147线-花神庙村5#变台区低压开关","poweroffReason":"（低压停电信息）低压熔断器短路故障","powerTime":"2019-09-23 16:45:43","powerComm":"已送电","subsNo":"","lineNo":"","tgNo":"","tgName":null,"infoStatus":"1","orgName":"国网浙江杭州市萧山区供电有限公司","typeName":null,"infoStatusName":null,"dateDay":null,"orgNos":null,"nowTime":null,"countyName":null,"streetName":null,"villageName":null,"roadName":null,"communityName":null,"tranName":null,"sdLineName":null,"cityCode":"3340130","cityName":"国网浙江杭州市萧山区供电有限公司","provinceCode":null,"stopTime":"2019-09-23 16:55:24","powerType":"全部","powerOffArea":"110kV梅西变:国航C147线-花神庙村5#变台区低压开关","powerOffReason":"（低压停电信息）低压熔断器短路故障","powerOffId":"2019092331020109"}],"pageModel":{"pageNow":1082,"totalCount":17789,"totalPage":1779,"tableRows":0,"pageCount":10,"beginCount":10810},"isExperi":"1"}