{"message":"","today":"2020-06-16","seleList":[{"poweroffId":2019092231020100,"sgpoweroffId":null,"subsName":"","lineName":"10kV渔庄C857线","pubTranName":"1#,1#电机,长巷村9#变,杭州萧宏纺织有限公司,杭州城佳化纤有限公司（0001360955）1#,渔庄村6#变,渔庄村5#变,杭州丹仪箱包有限公司,杭州城佳化纤有限公司（0001360955）2#,方天线业1#母线变压器,2#电动机,","scope":"浙江省-杭州市-萧山区-瓜沥镇-长巷行政村-长巷自然村,瓜沥镇-渔庄行政村(东湖头自然村,后湖头自然村,渔庄自然村,沿湖弄);浙江省-杭州市-萧山区-瓜沥镇-群联行政村-丹仪箱包(杭州)有限公司,瓜沥镇-低田畈行政村(杭州方天有限公司,杭州城佳化纤有限公司),瓜沥镇-渔庄行政村(杭州萧宏纺织有限公司,杭州越翔科纺整理有限公司)一带","startTime":"2019-09-22 09:35:36","stopDate":"2019-09-22 12:30:36","orgNo":"3340130","typeCode":"电网故障停限电","poweroffArea":"110kV昭东变:渔庄C857线-渔庄C8571开关后段","poweroffReason":"高压柱上断路器短路故障 原停电结束时间:2019-09-22 16:52:36,变更停电结束时间:2019-09-22 12:30:36。由于抢修工作提前完成,故需要提前送电。","powerTime":"2019-09-22 11:38:23","powerComm":"已送电","subsNo":"","lineNo":"","tgNo":"","tgName":null,"infoStatus":"1","orgName":"国网浙江杭州市萧山区供电有限公司","typeName":null,"infoStatusName":null,"dateDay":null,"orgNos":null,"nowTime":null,"countyName":null,"streetName":null,"villageName":null,"roadName":null,"communityName":null,"tranName":null,"sdLineName":null,"cityCode":"3340130","cityName":"国网浙江杭州市萧山区供电有限公司","provinceCode":null,"stopTime":"2019-09-22 12:30:36","powerType":"全部","powerOffArea":"110kV昭东变:渔庄C857线-渔庄C8571开关后段","powerOffReason":"高压柱上断路器短路故障 原停电结束时间:2019-09-22 16:52:36,变更停电结束时间:2019-09-22 12:30:36。由于抢修工作提前完成,故需要提前送电。","powerOffId":"2019092231020100"},{"poweroffId":2019092231020087,"sgpoweroffId":null,"subsName":"","lineName":"10kV拔山D942线","pubTranName":"龙星村4号洋家埭公变,","scope":"浙江省-杭州市-富阳区-富春街道-三桥行政村(杨家埭自然村,龙星自然村)","startTime":"2019-09-22 09:22:51","stopDate":"2019-09-22 11:22:51","orgNo":"3340170","typeCode":"电网故障停限电","poweroffArea":"110kV育才变:拔山D942线-龙星村4号洋家埭公变后段","poweroffReason":"(低压停电信息)低压开关跳闸","powerTime":"2019-09-22 11:07:59","powerComm":"已送电","subsNo":"","lineNo":"","tgNo":"","tgName":null,"infoStatus":"1","orgName":"国网浙江杭州市富阳区供电公司","typeName":null,"infoStatusName":null,"dateDay":null,"orgNos":null,"nowTime":null,"countyName":null,"streetName":null,"villageName":null,"roadName":null,"communityName":null,"tranName":null,"sdLineName":null,"cityCode":"3340170","cityName":"国网浙江杭州市富阳区供电公司","provinceCode":null,"stopTime":"2019-09-22 11:22:51","powerType":"全部","powerOffArea":"110kV育才变:拔山D942线-龙星村4号洋家埭公变后段","powerOffReason":"(低压停电信息)低压开关跳闸","powerOffId":"2019092231020087"},{"poweroffId":2019092231020080,"sgpoweroffId":null,"subsName":"","lineName":"10kV庙坞D830线","pubTranName":"包家淇4号公路公变,","scope":"浙江省-杭州市-富阳区-新桐乡-新桐行政村(下际自然村,包家淇自然村)","startTime":"2019-09-22 08:55:16","stopDate":"2019-09-22 10:00:00","orgNo":"3340170","typeCode":"电网故障停限电","poweroffArea":"110kV新桐变:庙坞D830线-包家淇4号公路公变后段","poweroffReason":"(低压停电信息)低压开关跳闸","powerTime":"2019-09-22 09:45:29","powerComm":"已送电","subsNo":"","lineNo":"","tgNo":"","tgName":null,"infoStatus":"1","orgName":"国网浙江杭州市富阳区供电公司","typeName":null,"infoStatusName":null,"dateDay":null,"orgNos":null,"nowTime":null,"countyName":null,"streetName":null,"villageName":null,"roadName":null,"communityName":null,"tranName":null,"sdLineName":null,"cityCode":"3340170","cityName":"国网浙江杭州市富阳区供电公司","provinceCode":null,"stopTime":"2019-09-22 10:00:00","powerType":"全部","powerOffArea":"110kV新桐变:庙坞D830线-包家淇4号公路公变后段","powerOffReason":"(低压停电信息)低压开关跳闸","powerOffId":"2019092231020080"},{"poweroffId":2019092231020052,"sgpoweroffId":null,"subsName":"","lineName":"10kV金染C858线","pubTranName":"长巷村18#变,","scope":"浙江省-杭州市-萧山区-瓜沥镇-长巷行政村(长巷自然村,新岸桥自然村)一带","startTime":"2019-09-22 07:50:04","stopDate":"2019-09-22 10:50:04","orgNo":"3340130","typeCode":"电网故障停限电","poweroffArea":"110kV昭东变:金染C858线-长巷村18#变台区低压开关","poweroffReason":"(低压停电信息)低压架空导线断线故障 原停电结束时间:2019-09-22 13:00:04,变更停电结束时间:2019-09-22 10:50:04。由于抢修工作提前完成,故需要提前送电。","powerTime":"2019-09-22 10:00:22","powerComm":"已送电","subsNo":"","lineNo":"","tgNo":"","tgName":null,"infoStatus":"1","orgName":"国网浙江杭州市萧山区供电有限公司","typeName":null,"infoStatusName":null,"dateDay":null,"orgNos":null,"nowTime":null,"countyName":null,"streetName":null,"villageName":null,"roadName":null,"communityName":null,"tranName":null,"sdLineName":null,"cityCode":"3340130","cityName":"国网浙江杭州市萧山区供电有限公司","provinceCode":null,"stopTime":"2019-09-22 10:50:04","powerType":"全部","powerOffArea":"110kV昭东变:金染C858线-长巷村18#变台区低压开关","powerOffReason":"(低压停电信息)低压架空导线断线故障 原停电结束时间:2019-09-22 13:00:04,变更停电结束时间:2019-09-22 10:50:04。由于抢修工作提前完成,故需要提前送电。","powerOffId":"2019092231020052"},{"poweroffId":2019092231020018,"sgpoweroffId":null,"subsName":"","lineName":"10kV空港A823线","pubTranName":"潮上云临南苑1#公变,南阳南翔名苑4#变,南阳初级中学,浙江卓越物业服务有限公司2#,潮上云临南苑11#公变,1#变,潮都华庭5#变,潮都华庭3#变,潮都华庭7#变,3#变,南兴村4#变,南阳B保1#变,2#变,潮上云临南苑3#公变,杭州空港经济区管理委员会4#,南阳B保3#变,南阳南翔名苑2#变,南阳南翔名苑3#变,南阳南翔名苑1#变,南安1#变,南阳B保4#变,杭州空港经济区管理委员会2#,浙江卓越物业服务有限公司,潮上云临南苑5#公变,杭州临空酒店有限公司,潮都华庭1#变,南阳南翔名苑5#变,潮上云临南苑13#公变,南阳南翔名苑6#变,南阳B保2#变,浙江卓越物业服务有限公司1#,南阳南翔名苑7#变,南阳南翔名苑8#变,杭州空港经济区管理委员会3#,南安2#变,潮上云临南苑7#公变,潮上云临南苑9#公变,杭州空港经济区管理委员会1#,","scope":"浙江省-杭州市-萧山区-南阳街道-南丰行政村-南丰自然村,南阳街道-南兴行政村(南联自然村,潮都西路,潮都华庭),南阳街道-南翔行政村(向阳路,南翔自然村),南阳街道-东风行政村(南阳大道,向阳路,达昌公寓,东风自然村),南阳街道-雷山行政村(向阳路,向阳嘉苑,雷山自然村);南阳街道-南兴行政村(杭州空港经济区管理委员会,浙江卓越物业服务有限公司,杭州空港投资开发有限公司),南阳街道(南阳社区-萧山区南阳初级中学,东风行政村-杭州临空酒店有限公司)一带","startTime":"2019-09-22 04:02:01","stopDate":"2019-09-22 06:10:01","orgNo":"3340130","typeCode":"电网故障停限电","poweroffArea":"110kV黎明变:空港A823线","poweroffReason":"高压柱上断路器短路故障 原停电结束时间:2019-09-22 09:02:01,变更停电结束时间:2019-09-22 06:10:01。由于抢修工作提前完成,故需要提前送电。","powerTime":"2019-09-22 05:18:26","powerComm":"已送电","subsNo":"","lineNo":"","tgNo":"","tgName":null,"infoStatus":"1","orgName":"国网浙江杭州市萧山区供电有限公司","typeName":null,"infoStatusName":null,"dateDay":null,"orgNos":null,"nowTime":null,"countyName":null,"streetName":null,"villageName":null,"roadName":null,"communityName":null,"tranName":null,"sdLineName":null,"cityCode":"3340130","cityName":"国网浙江杭州市萧山区供电有限公司","provinceCode":null,"stopTime":"2019-09-22 06:10:01","powerType":"全部","powerOffArea":"110kV黎明变:空港A823线","powerOffReason":"高压柱上断路器短路故障 原停电结束时间:2019-09-22 09:02:01,变更停电结束时间:2019-09-22 06:10:01。由于抢修工作提前完成,故需要提前送电。","powerOffId":"2019092231020018"},{"poweroffId":2019092231020006,"sgpoweroffId":null,"subsName":"","lineName":"10kV瓜港A078线","pubTranName":"杭州万氏线业有限公司,杭州萧顺纺织有限公司,杭州斯波尔机械有限公司变压器,沙田头村17#变,工农村3#变,萧山区瓜沥镇坎山小学,杭州萧山污水处理有限公司3#,杭州萧山污水处理有限公司2#,工农村20#变,杭州萧山恩联纺织厂,群谊村1#变,杭州旭美绣品有限公司,群谊村2#变,杭州萧山精艺花边绣品有限公司,工农村2#变,车辆综合性能检测配变,沙田头村4#变,群谊村9#变,群谊村8#变,杭州越窑陶瓷品有限公司,杭州正丰机械有限公司,张神殿村3#变,杭州正丰机械有限公司2#,杭州萧山天马化工有限公司,张神殿村9#变,杭州萧山坎山宗宝涵管厂,群谊村3#变,杭州市萧山区瓜沥镇人民政府10#,杭州志华电机有限公司,沙田头村6#变,沙田头村7#变,杭州萧山东南纺机有限公司,杭州冠力物业管理有限公司,杭州国诚化纤有限公司,杭州市萧山区瓜沥镇人民政府9#,杭州市萧山区瓜沥镇人民政府8#,沙田头村10#变,工农村11#变,","scope":"浙江省-杭州市-萧山区-瓜沥镇-张神殿行政村(建新路,张神殿自然村),瓜沥镇-工农行政村(长池头路,工农自然村,上山路,八柯路,工新路,建新路,鱼青山路),瓜沥镇-群谊行政村(工新路,八柯路,群谊自然村,武肃路,人民路),瓜沥镇(沙田头行政村-沙田头自然村,振兴社区-人民路);瓜沥镇-工农行政村(杭州萧顺纺织有限公司,杭州正丰机械有限公司,杭州旭美绣品有限公司,杭州萧山天马化工有限公司,杭州万氏业有限公司,杭州萧山坎山宗宝涵管厂,杭州越窑陶瓷品有限公司,杭州国诚化纤有限公司,杭州市萧山区瓜沥镇人民政府,杭州萧山东南纺机有限公司),瓜沥镇-群谊行政村(萧山区瓜沥镇坎山小学,杭州志华电机有限公司,杭州萧山精艺花边绣品有限公司,杭州萧山污水处理有限公司,杭州冠力物业管理有限公司,杭州斯波尔机械有限公司),瓜沥镇(沙田头行政村-杭州萧山恩联纺织厂,东社行政村-杭州市萧山区瓜沥镇人民政府,张神殿行政村-杭州萧山车辆综合性能检测有限公司)一带","startTime":"2019-09-22 00:08:28","stopDate":"2019-09-22 03:10:28","orgNo":"3340130","typeCode":"电网故障停限电","poweroffArea":"110kV航坞变:瓜港A078线-瓜港A078线开关后段","poweroffReason":"高压柱上断路器短路故障 原停电结束时间:2019-09-22 05:03:28,变更停电结束时间:2019-09-22 03:10:28。由于抢修工作提前完成,故需要提前送电。","powerTime":"2019-09-22 02:32:04","powerComm":"已送电","subsNo":"","lineNo":"","tgNo":"","tgName":null,"infoStatus":"1","orgName":"国网浙江杭州市萧山区供电有限公司","typeName":null,"infoStatusName":null,"dateDay":null,"orgNos":null,"nowTime":null,"countyName":null,"streetName":null,"villageName":null,"roadName":null,"communityName":null,"tranName":null,"sdLineName":null,"cityCode":"3340130","cityName":"国网浙江杭州市萧山区供电有限公司","provinceCode":null,"stopTime":"2019-09-22 03:10:28","powerType":"全部","powerOffArea":"110kV航坞变:瓜港A078线-瓜港A078线开关后段","powerOffReason":"高压柱上断路器短路故障 原停电结束时间:2019-09-22 05:03:28,变更停电结束时间:2019-09-22 03:10:28。由于抢修工作提前完成,故需要提前送电。","powerOffId":"2019092231020006"},{"poweroffId":2019092131020310,"sgpoweroffId":null,"subsName":"","lineName":"10kV二桥C551线","pubTranName":"盈二安置房3#,杭州恒瑞置业有限公司,杭州贵龙置业有限公司变压器,浙江国泰建设集团有限公司,鸿发置业,盈二安置房5#,宁围镇盈丰中心小学,杭州铭泰置业有限公司,盈二安置房7#,盈二安置房8#,浙江省大成建设集团有限公司,盈二安置房4#,杭州萧山宁围丰北股份经济联合社变压器,盈二安置房6#,浙江耀厦控股集团有限公司,盈二村2#变,亨德利,杭州市萧山钱江世纪城管理委员会,杭州市萧山钱江世纪城管理委员会,萧山钱江世纪城开发建设（盈二安置房）配电变压器2,盈二村13#变,萧山钱江世纪城开发建设（盈二安置房）配电变压器1,钱江农场,","scope":"浙江省-杭州市-萧山区-宁围镇、宁围街道-盈二行政村-盈二自然村;浙江省-杭州市-萧山区-经济技术开发区-钱江社区-浙江卓越物业服务有限公司,宁围街道-丰北行政村(浙江鸿发置业有限公司,杭州贵龙置业有限公司,杭州恒瑞置业有限公司,杭州铭泰置业有限公司,杭州市萧山钱江世纪城管理委员会,杭州萧山宁围丰北股份经济联合社,萧山区盈丰小学),宁围街道(利二行政村-杭州亨德利置业有限公司,盈二行政村-杭州萧山钱江世纪城开发建设有限责任公司,盈一行政村-杭州市萧山钱江世纪城管理委员会,二桥行政村-浙江耀厦控股集团有限公司,丰二行政村-浙江国泰建设集团有限公司)宁围街道丰北村667号营丰小学、宁围镇宁围社区新宁大厦、宁围镇沿江世纪城丰北四小、宁峰路丰北一苑对面的工地等一带","startTime":"2019-09-21 20:23:10","stopDate":"2019-09-21 23:59:10","orgNo":"3340130","typeCode":"电网故障停限电","poweroffArea":"35kV钱江变:二桥C551线","poweroffReason":"高压柱上断路器短路故障","powerTime":"2019-09-21 23:02:14","powerComm":"已送电","subsNo":"","lineNo":"","tgNo":"","tgName":null,"infoStatus":"1","orgName":"国网浙江杭州市萧山区供电有限公司","typeName":null,"infoStatusName":null,"dateDay":null,"orgNos":null,"nowTime":null,"countyName":null,"streetName":null,"villageName":null,"roadName":null,"communityName":null,"tranName":null,"sdLineName":null,"cityCode":"3340130","cityName":"国网浙江杭州市萧山区供电有限公司","provinceCode":null,"stopTime":"2019-09-21 23:59:10","powerType":"全部","powerOffArea":"35kV钱江变:二桥C551线","powerOffReason":"高压柱上断路器短路故障","powerOffId":"2019092131020310"},{"poweroffId":2019092131020295,"sgpoweroffId":null,"subsName":"","lineName":"10kV空间9045线","pubTranName":"空间2,新天4,渡驾桥综2,新天8,新天2,办公育苗,新天12,新天14,空间3,新天10,育苗,新天6,","scope":"浙江省-杭州市-拱墅区-祥符街道-吉如社区(杭行路,杭印街,湖州街,新安天苑小区,360空间小区，大河宸章小区);","startTime":"2019-09-21 19:31:56","stopDate":"2019-09-21 21:31:56","orgNo":"3340101","typeCode":"电网故障停限电","poweroffArea":"110kV桥西变:空间9045线","poweroffReason":"高压开关跳闸","powerTime":"2019-09-21 20:40:14","powerComm":"已送电","subsNo":"","lineNo":"","tgNo":"","tgName":null,"infoStatus":"1","orgName":"浙江杭州电力客户服务中心","typeName":null,"infoStatusName":null,"dateDay":null,"orgNos":null,"nowTime":null,"countyName":null,"streetName":null,"villageName":null,"roadName":null,"communityName":null,"tranName":null,"sdLineName":null,"cityCode":"3340101","cityName":"浙江杭州电力客户服务中心","provinceCode":null,"stopTime":"2019-09-21 21:31:56","powerType":"全部","powerOffArea":"110kV桥西变:空间9045线","powerOffReason":"高压开关跳闸","powerOffId":"2019092131020295"},{"poweroffId":2019092131020255,"sgpoweroffId":null,"subsName":"","lineName":"10kV金利A842线","pubTranName":"钱江世纪城基建变变压器间隔配电变压器,中国建筑第八工程局有限公司,浙江泰隆商业银行股份有限公司1#,变压器2,2#,中国建筑第八工程局有限公司,1#,1#,炬日实业,合丰村13#变,3#,中国建筑第八工程局有限公司,中国建筑第八工程局有限公司,恒利企业5#,中国建筑第八工程局有限公司,变压器,4#,恒利企业2#,纽安能置业2#,2#,浙江国泰建设集团有限公司2#,变压器,中国建设第八工程局有限公司,2,纽安能置业1#,1,纽安能置业4#,中建八局1#,浙江国泰建设集团有限公司,恒利企业,变压器2,中国建筑第八工程局有限公司,纽安能置业3#,中国建筑第八工程局有限公司,3#,信融置业,","scope":"浙江省-杭州市-萧山区-宁围镇、宁围街道-金二社区-金二自然村;浙江省-杭州市-萧山区-北干街道-博奥路-杭州萧山钱江世纪城开发建设有限责任公司,宁围街道-丰二行政村(浙江泰隆商业银行股份有限公司,杭州萧山钱江世纪城开发建设有限责任公司),宁围镇、宁围街道-利二行政村(恒利企业管理(杭州)有限公司,杭州炬日实业有限公司,杭州纽安能置业有限公司,宏润建设集团股份有限公司),宁围镇、宁围街道(顺坝行政村-中国建筑第八工程局有限公司,钱江世纪城社区-浙江国泰建设集团有限公司,中国建筑第八工程局有限公司,恒利企业管理（杭州）有限公司,振宁社区-杭州萧山钱江世纪城开发建设有限责任公司)博奥路与关阑路交叉口红润建设、观澜路与博奥路交叉口、宁围街道振宁社区奥体中心、利一路与博奥路十字路口靠西边工地上、利一路跟金鸡路交叉口的大厦等一带","startTime":"2019-09-21 17:43:21","stopDate":"2019-09-21 20:20:21","orgNo":"3340130","typeCode":"电网故障停限电","poweroffArea":"110kV金设变:金利A842线","poweroffReason":"高压柱上断路器短路故障 原停电结束时间：2019-09-21 21:20:21，变更停电结束时间：2019-09-21 20:20:21，由于增派人员，抢修提前完成，故需要提前送电。","powerTime":"2019-09-21 19:28:41","powerComm":"已送电","subsNo":"","lineNo":"","tgNo":"","tgName":null,"infoStatus":"1","orgName":"国网浙江杭州市萧山区供电有限公司","typeName":null,"infoStatusName":null,"dateDay":null,"orgNos":null,"nowTime":null,"countyName":null,"streetName":null,"villageName":null,"roadName":null,"communityName":null,"tranName":null,"sdLineName":null,"cityCode":"3340130","cityName":"国网浙江杭州市萧山区供电有限公司","provinceCode":null,"stopTime":"2019-09-21 20:20:21","powerType":"全部","powerOffArea":"110kV金设变:金利A842线","powerOffReason":"高压柱上断路器短路故障 原停电结束时间：2019-09-21 21:20:21，变更停电结束时间：2019-09-21 20:20:21，由于增派人员，抢修提前完成，故需要提前送电。","powerOffId":"2019092131020255"},{"poweroffId":2019092131020248,"sgpoweroffId":null,"subsName":"","lineName":"10kV都锦8303线","pubTranName":"狮虎变,","scope":"浙江省-杭州市-下城区-天水街道-戒坛寺巷社区-狮虎桥路,天水街道-灯芯巷社区(灯芯巷,狮虎桥路)","startTime":"2019-09-21 17:34:07","stopDate":"2019-09-21 18:34:07","orgNo":"3340101","typeCode":"电网故障停限电","poweroffArea":"110kV昭庆变:都锦8303线-狮虎变后段","poweroffReason":"(低压停电信息)低压开关跳闸 原预计停电结束时间19:34:07,由于施工现场环境比较复杂，存在不确定因素，因此预估施工时间适当放长了，而实际施工进行得比较顺利，因此提前送电了。","powerTime":"2019-09-21 18:05:15","powerComm":"已送电","subsNo":"","lineNo":"","tgNo":"","tgName":null,"infoStatus":"1","orgName":"浙江杭州电力客户服务中心","typeName":null,"infoStatusName":null,"dateDay":null,"orgNos":null,"nowTime":null,"countyName":null,"streetName":null,"villageName":null,"roadName":null,"communityName":null,"tranName":null,"sdLineName":null,"cityCode":"3340101","cityName":"浙江杭州电力客户服务中心","provinceCode":null,"stopTime":"2019-09-21 18:34:07","powerType":"全部","powerOffArea":"110kV昭庆变:都锦8303线-狮虎变后段","powerOffReason":"(低压停电信息)低压开关跳闸 原预计停电结束时间19:34:07,由于施工现场环境比较复杂，存在不确定因素，因此预估施工时间适当放长了，而实际施工进行得比较顺利，因此提前送电了。","powerOffId":"2019092131020248"}],"pageModel":{"pageNow":1085,"totalCount":17789,"totalPage":1779,"tableRows":0,"pageCount":10,"beginCount":10840},"isExperi":"1"}