{"message":"","today":"2020-06-16","seleList":[{"poweroffId":2019092131020235,"sgpoweroffId":null,"subsName":"","lineName":"10kV潘家T403线","pubTranName":"尖端路2号公变,","scope":"浙江省-杭州市-桐庐县-城南街道-金中行政村-青山自然村,城南街道-兰田行政村(兰田自然村,尖端路)，尖端路436号一带","startTime":"2019-09-21 16:51:53","stopDate":"2019-09-21 20:51:53","orgNo":"3340150","typeCode":"电网故障停限电","poweroffArea":"110kV枫塘变:潘家T403线-尖端路2号公变后段","poweroffReason":"高压开关跳闸","powerTime":"2019-09-21 20:40:36","powerComm":"已送电","subsNo":"","lineNo":"","tgNo":"","tgName":null,"infoStatus":"1","orgName":"国网浙江桐庐县供电公司","typeName":null,"infoStatusName":null,"dateDay":null,"orgNos":null,"nowTime":null,"countyName":null,"streetName":null,"villageName":null,"roadName":null,"communityName":null,"tranName":null,"sdLineName":null,"cityCode":"3340150","cityName":"国网浙江桐庐县供电公司","provinceCode":null,"stopTime":"2019-09-21 20:51:53","powerType":"全部","powerOffArea":"110kV枫塘变:潘家T403线-尖端路2号公变后段","powerOffReason":"高压开关跳闸","powerOffId":"2019092131020235"},{"poweroffId":2019092131020220,"sgpoweroffId":null,"subsName":"","lineName":"10kV前河G333线","pubTranName":"永胜村姚家坝公变,杭州海兴机械有限公司,浙江贝利建设集团有限公司612085358101#专变,杭州华东家禽交易中心有限公司,杭州大地海洋环保股份有限公司612084183602#专变,杭州余杭仁和镇石料加工厂,永胜村姚家坝南公变,杭州大地海洋环保股份有限公司612084183401#专变,螺丝坝排涝,方鹏水产,奉口村獐南公变,","scope":"浙江省-杭州市-余杭区-仁和街道-奉口行政村(獐湾自然村,树东村自然村),仁和街道-永胜行政村(姚家坝自然村,钟介里自然村);仁和街道-洛阳行政村(浙江贝利建设集团有限公司,杭州大地海洋环保股份有限公司),仁和街道(永胜行政村-螺丝坝排涝,东风行政村-杭州华东家禽交易中心有限公司,奉口行政村-杭州余杭仁和镇石料加工厂)一带","startTime":"2019-09-21 16:10:00","stopDate":"2019-09-21 19:10:00","orgNo":"3340140","typeCode":"电网故障停限电","poweroffArea":"110kV洛山变:前河G333线-獐湾分线开关后段","poweroffReason":"高压开关跳闸 原停电结束时间为2019-09-21 23:10:00,为减少客户停电时间,加快工作进度,提前送电,现变更停电结束时间为2019-09-21 19:10:00","powerTime":"2019-09-21 18:35:00","powerComm":"已送电","subsNo":"","lineNo":"","tgNo":"","tgName":null,"infoStatus":"1","orgName":"国网浙江杭州市余杭区供电有限公司","typeName":null,"infoStatusName":null,"dateDay":null,"orgNos":null,"nowTime":null,"countyName":null,"streetName":null,"villageName":null,"roadName":null,"communityName":null,"tranName":null,"sdLineName":null,"cityCode":"3340140","cityName":"国网浙江杭州市余杭区供电有限公司","provinceCode":null,"stopTime":"2019-09-21 19:10:00","powerType":"全部","powerOffArea":"110kV洛山变:前河G333线-獐湾分线开关后段","powerOffReason":"高压开关跳闸 原停电结束时间为2019-09-21 23:10:00,为减少客户停电时间,加快工作进度,提前送电,现变更停电结束时间为2019-09-21 19:10:00","powerOffId":"2019092131020220"},{"poweroffId":2019092131020202,"sgpoweroffId":null,"subsName":"","lineName":"10kV环保H606线","pubTranName":"星慧电器,假日之约1号公变,丽湖房产基建2#,丽湖房产基建2#,凤凰村石矿公变,02省道路灯(6),阿宝物流,凤凰村张家公变,丽湖房产基建3#,金阳化工,凤凰村石矿公变,丽湖房产基建1#,凤凰村凤凰岭公变,瑞达交通,丽湖房产基建1#,假日之约1号公变,金阳化工,阿宝物流,星慧电器,02省道路灯(6),凤凰村凤凰岭公变,能源加油站,丽湖房产基建3#,能源加油站,瑞达交通,凤凰村张家公变,","scope":"浙江省-杭州市-余杭区-余杭街道-凤凰山行政村(凤凰山自然村,城南路,张家自然村),余杭街道-凤联社区(凤凰自然村,禹航路);余杭街道-华坞行政村(杭州阿宝物流有限公司,金阳化工有限公司,杭州星慧电器有限公司,杭州市余杭区城市管理综合行政执法局),余杭街道(山西园社区-杭州余杭杭石交通能源有限责任公司,凤凰山行政村-杭州余杭瑞达交通工程有限公司,凤联社区-杭州丽湖房地产开发有限公司)","startTime":"2019-09-21 15:11:00","stopDate":"2019-09-21 17:11:00","orgNo":"3340140","typeCode":"电网故障停限电","poweroffArea":"110kV桃源变:环保H606线-凤凰岭分线开关后段","poweroffReason":"高压开关跳闸 原停电结束时间为2019-09-21 22:11:00,为减少客户停电时间,加快工作进度,提前送电,现变更停电结束时间为2019-09-21 17:11:00","powerTime":"2019-09-21 16:23:00","powerComm":"已送电","subsNo":"","lineNo":"","tgNo":"","tgName":null,"infoStatus":"1","orgName":"国网浙江杭州市余杭区供电有限公司","typeName":null,"infoStatusName":null,"dateDay":null,"orgNos":null,"nowTime":null,"countyName":null,"streetName":null,"villageName":null,"roadName":null,"communityName":null,"tranName":null,"sdLineName":null,"cityCode":"3340140","cityName":"国网浙江杭州市余杭区供电有限公司","provinceCode":null,"stopTime":"2019-09-21 17:11:00","powerType":"全部","powerOffArea":"110kV桃源变:环保H606线-凤凰岭分线开关后段","powerOffReason":"高压开关跳闸 原停电结束时间为2019-09-21 22:11:00,为减少客户停电时间,加快工作进度,提前送电,现变更停电结束时间为2019-09-21 17:11:00","powerOffId":"2019092131020202"},{"poweroffId":2019092131020188,"sgpoweroffId":null,"subsName":"","lineName":"10kV洛阳G336线","pubTranName":"獐山电管站2#公变,","scope":"浙江省-杭州市-余杭区-仁和街道-三白潭行政村-庙西湾自然村,仁和街道-獐山社区(石城中路,前庄湾自然村,獐山桥自然村,观音桥自然村,奉欣路自然村,和旺街,獐山石矿)一带","startTime":"2019-09-21 14:54:00","stopDate":"2019-09-21 17:00:00","orgNo":"3340140","typeCode":"电网故障停限电","poweroffArea":"110kV洛山变:洛阳G336线-獐山电管站2#公变后段","poweroffReason":"(低压停电信息)低压开关跳闸 原停电结束时间为2019-09-21 19:00:00,为减少客户停电时间,加快工作进度,提前送电,现变更停电结束时间为2019-09-21 17:00:00","powerTime":"2019-09-21 16:26:00","powerComm":"已送电","subsNo":"","lineNo":"","tgNo":"","tgName":null,"infoStatus":"1","orgName":"国网浙江杭州市余杭区供电有限公司","typeName":null,"infoStatusName":null,"dateDay":null,"orgNos":null,"nowTime":null,"countyName":null,"streetName":null,"villageName":null,"roadName":null,"communityName":null,"tranName":null,"sdLineName":null,"cityCode":"3340140","cityName":"国网浙江杭州市余杭区供电有限公司","provinceCode":null,"stopTime":"2019-09-21 17:00:00","powerType":"全部","powerOffArea":"110kV洛山变:洛阳G336线-獐山电管站2#公变后段","powerOffReason":"(低压停电信息)低压开关跳闸 原停电结束时间为2019-09-21 19:00:00,为减少客户停电时间,加快工作进度,提前送电,现变更停电结束时间为2019-09-21 17:00:00","powerOffId":"2019092131020188"},{"poweroffId":2019092131020177,"sgpoweroffId":null,"subsName":"","lineName":"10kV前河G333线","pubTranName":"永胜村姚家坝南公变,杭州联东金晨投资有限公司,浙江贝利建设集团有限公司612085358101#专变,杭州顺水消防安装工程有限公司,方鹏水产,杭州余杭仁和镇石料加工厂,永胜村姚家坝公变,螺丝坝排涝,杭州大地海洋环保股份有限公司612084183602#专变,奉口村獐南公变,联东物业（6120631720）2#变,杭州大地海洋环保股份有限公司612084183401#专变,联东金晨612063172001#变压器,中天建设集团有限公司612085366901#专变,杭州海兴机械有限公司,洛阳村洛阳桥公变,仁和街道螺丝坝公变,杭州华东家禽交易中心有限公司,","scope":"浙江省-杭州市-余杭区-仁和街道-奉口行政村(獐湾自然村,树东村自然村),仁和街道-永胜行政村(姚家坝自然村,螺丝坝自然村,螺蛳桥自然村,螺丝桥自然村,钟介里自然村);仁和街道-洛阳行政村(浙江贝利建设集团有限公司,中天建设集团有限公司,杭州联东金晨投资有限公司,杭州顺水消防安装工程有限公司,北京联东物业管理股份有限公司杭州分公司,杭州大地海洋环保股份有限公司),仁和街道(永胜行政村-螺丝坝排涝,东风行政村-杭州华东家禽交易中心有限公司,奉口行政村-杭州余杭仁和镇石料加工厂)","startTime":"2019-09-21 14:23:00","stopDate":"2019-09-21 16:23:00","orgNo":"3340140","typeCode":"电网故障停限电","poweroffArea":"110kV洛山变:前河G333线","poweroffReason":"高压开关跳闸 原停电结束时间为2019-09-21 22:23:00,为减少客户停电时间,加快工作进度,提前送电,现变更停电结束时间为2019-09-21 16:23:00","powerTime":"2019-09-21 16:11:00","powerComm":"已送电","subsNo":"","lineNo":"","tgNo":"","tgName":null,"infoStatus":"1","orgName":"国网浙江杭州市余杭区供电有限公司","typeName":null,"infoStatusName":null,"dateDay":null,"orgNos":null,"nowTime":null,"countyName":null,"streetName":null,"villageName":null,"roadName":null,"communityName":null,"tranName":null,"sdLineName":null,"cityCode":"3340140","cityName":"国网浙江杭州市余杭区供电有限公司","provinceCode":null,"stopTime":"2019-09-21 16:23:00","powerType":"全部","powerOffArea":"110kV洛山变:前河G333线","powerOffReason":"高压开关跳闸 原停电结束时间为2019-09-21 22:23:00,为减少客户停电时间,加快工作进度,提前送电,现变更停电结束时间为2019-09-21 16:23:00","powerOffId":"2019092131020177"},{"poweroffId":2019092131020145,"sgpoweroffId":null,"subsName":"","lineName":"10kV紫花8567线","pubTranName":"凤凰南苑二变,","scope":"浙江省-杭州市-上城区-紫阳街道-凤凰社区-凤凰南苑小区18幢","startTime":"2019-09-21 12:55:06","stopDate":"2019-09-21 18:00:06","orgNo":"3340101","typeCode":"电网故障停限电","poweroffArea":"220kV候潮变:紫花8567线-凤凰南苑二变后段","poweroffReason":"(低压停电信息)低压开关跳闸 原预计停电结束时间16:55:06,由于施工现场环境比较复杂，存在不确定因素，因此预估施工时间不足，延 迟送电了","powerTime":"2019-09-21 17:25:52","powerComm":"已送电","subsNo":"","lineNo":"","tgNo":"","tgName":null,"infoStatus":"1","orgName":"浙江杭州电力客户服务中心","typeName":null,"infoStatusName":null,"dateDay":null,"orgNos":null,"nowTime":null,"countyName":null,"streetName":null,"villageName":null,"roadName":null,"communityName":null,"tranName":null,"sdLineName":null,"cityCode":"3340101","cityName":"浙江杭州电力客户服务中心","provinceCode":null,"stopTime":"2019-09-21 18:00:06","powerType":"全部","powerOffArea":"220kV候潮变:紫花8567线-凤凰南苑二变后段","powerOffReason":"(低压停电信息)低压开关跳闸 原预计停电结束时间16:55:06,由于施工现场环境比较复杂，存在不确定因素，因此预估施工时间不足，延 迟送电了","powerOffId":"2019092131020145"},{"poweroffId":2019092131020130,"sgpoweroffId":null,"subsName":"","lineName":"10kV梦妮C324线","pubTranName":"万安村4#变,","scope":"浙江省-杭州市-萧山区-瓜沥镇-万安行政村(万安自然村,新东公路)一带","startTime":"2019-09-21 12:00:16","stopDate":"2019-09-21 17:20:16","orgNo":"3340130","typeCode":"电网故障停限电","poweroffArea":"110kV沿塘变:梦妮C324线-万安村4#变台区低压开关","poweroffReason":"(低压停电信息) 低压漏电保护器短路故障 原停电结束时间:2019-09-21 17:12:16，变更停电结束时间:2019-09-21 17:20:16。由于抢修工作难度大,故需要延迟送电。","powerTime":"2019-09-21 16:25:19","powerComm":"已送电","subsNo":"","lineNo":"","tgNo":"","tgName":null,"infoStatus":"1","orgName":"国网浙江杭州市萧山区供电有限公司","typeName":null,"infoStatusName":null,"dateDay":null,"orgNos":null,"nowTime":null,"countyName":null,"streetName":null,"villageName":null,"roadName":null,"communityName":null,"tranName":null,"sdLineName":null,"cityCode":"3340130","cityName":"国网浙江杭州市萧山区供电有限公司","provinceCode":null,"stopTime":"2019-09-21 17:20:16","powerType":"全部","powerOffArea":"110kV沿塘变:梦妮C324线-万安村4#变台区低压开关","powerOffReason":"(低压停电信息) 低压漏电保护器短路故障 原停电结束时间:2019-09-21 17:12:16，变更停电结束时间:2019-09-21 17:20:16。由于抢修工作难度大,故需要延迟送电。","powerOffId":"2019092131020130"},{"poweroffId":2019092131020074,"sgpoweroffId":null,"subsName":"","lineName":"10kV沙体Y201线","pubTranName":"碧江花苑7#公变,","scope":"浙江省-杭州市-建德市-新安江街道-溪头社区-严州大道巴萨名门小区，碧江花苑小区 ，拉里维娜小区以及周边商铺等一带用户。","startTime":"2019-09-21 08:59:00","stopDate":"2019-09-21 17:10:00","orgNo":"3340180","typeCode":"电网故障停限电","poweroffArea":"110kV白沙变:沙体Y201线-碧江花苑7#公变后段","poweroffReason":"(低压停电信息)低压开关跳闸 原停电结束时间为2019-09-21 18:00:00,为减少客户停电时间,加快工作进度,提前送电,现变更停电结束时间为2019-09-21 17:10:00","powerTime":"2019-09-21 16:44:00","powerComm":"已送电","subsNo":"","lineNo":"","tgNo":"","tgName":null,"infoStatus":"1","orgName":"国网浙江建德市供电有限公司","typeName":null,"infoStatusName":null,"dateDay":null,"orgNos":null,"nowTime":null,"countyName":null,"streetName":null,"villageName":null,"roadName":null,"communityName":null,"tranName":null,"sdLineName":null,"cityCode":"3340180","cityName":"国网浙江建德市供电有限公司","provinceCode":null,"stopTime":"2019-09-21 17:10:00","powerType":"全部","powerOffArea":"110kV白沙变:沙体Y201线-碧江花苑7#公变后段","powerOffReason":"(低压停电信息)低压开关跳闸 原停电结束时间为2019-09-21 18:00:00,为减少客户停电时间,加快工作进度,提前送电,现变更停电结束时间为2019-09-21 17:10:00","powerOffId":"2019092131020074"},{"poweroffId":2019092131020072,"sgpoweroffId":null,"subsName":"","lineName":"10kV河上C486线","pubTranName":"里都村5#变,","scope":"浙江省-杭州市-萧山区-楼塔镇-管村行政村-管村自然村,河上镇-里都行政村(里谢自然村,高都自然村)一带","startTime":"2019-09-21 09:06:42","stopDate":"2019-09-21 13:00:42","orgNo":"3340130","typeCode":"电网故障停限电","poweroffArea":"35kV河上变:河上C486线-里都村5#变台区低压开关","poweroffReason":"(低压停电信息)低压熔断器短路故障","powerTime":"2019-09-21 12:18:03","powerComm":"已送电","subsNo":"","lineNo":"","tgNo":"","tgName":null,"infoStatus":"1","orgName":"国网浙江杭州市萧山区供电有限公司","typeName":null,"infoStatusName":null,"dateDay":null,"orgNos":null,"nowTime":null,"countyName":null,"streetName":null,"villageName":null,"roadName":null,"communityName":null,"tranName":null,"sdLineName":null,"cityCode":"3340130","cityName":"国网浙江杭州市萧山区供电有限公司","provinceCode":null,"stopTime":"2019-09-21 13:00:42","powerType":"全部","powerOffArea":"35kV河上变:河上C486线-里都村5#变台区低压开关","powerOffReason":"(低压停电信息)低压熔断器短路故障","powerOffId":"2019092131020072"},{"poweroffId":2019092131020065,"sgpoweroffId":null,"subsName":"","lineName":"10kV怡合199线","pubTranName":"高塘1号公变,大山1号公变,高塘2号公变,","scope":"浙江省-杭州市-桐庐县-分水镇-外范行政村(高塘村自然村,大山自然村)","startTime":"2019-09-21 08:53:36","stopDate":"2019-09-21 11:53:36","orgNo":"3340150","typeCode":"电网故障停限电","poweroffArea":"35kV合村变:怡合199线-里范F9574智能开关1后段","poweroffReason":"高压开关跳闸","powerTime":"2019-09-21 11:40:20","powerComm":"已送电","subsNo":"","lineNo":"","tgNo":"","tgName":null,"infoStatus":"1","orgName":"国网浙江桐庐县供电公司","typeName":null,"infoStatusName":null,"dateDay":null,"orgNos":null,"nowTime":null,"countyName":null,"streetName":null,"villageName":null,"roadName":null,"communityName":null,"tranName":null,"sdLineName":null,"cityCode":"3340150","cityName":"国网浙江桐庐县供电公司","provinceCode":null,"stopTime":"2019-09-21 11:53:36","powerType":"全部","powerOffArea":"35kV合村变:怡合199线-里范F9574智能开关1后段","powerOffReason":"高压开关跳闸","powerOffId":"2019092131020065"}],"pageModel":{"pageNow":1086,"totalCount":17789,"totalPage":1779,"tableRows":0,"pageCount":10,"beginCount":10850},"isExperi":"1"}