{"message":"","today":"2020-06-16","seleList":[{"poweroffId":2019092131020050,"sgpoweroffId":null,"subsName":"","lineName":"10kV金秋D947线","pubTranName":"杭州友邦鞋业有限公司,富阳鼎豪金属制品有限公司,富阳市春天大药房,杭州富阳龙腾机械电器有限公司,杭州申富动力机械有限公司,杭州安杰诺经贸富阳分公司,杭州申富动力机械有限公司,富阳市衡立五金压铸厂,富阳晨信机械有限公司,","scope":"浙江省-杭州市-富阳区-富春街道(富阳市春天大药房,杭州衡立五金压铸厂,杭州友邦鞋业有限公司,杭州富阳龙腾机械电器有限公司,杭州富阳鼎豪金属制品有限公司,杭州申富动力机械有限公司,杭州安杰诺经贸有限公司富阳分公司)","startTime":"2019-09-21 08:04:53","stopDate":"2019-09-21 10:04:53","orgNo":"3340170","typeCode":"电网故障停限电","poweroffArea":"110kV育才变:金秋D947线荣晨支线1#杆开关后段","poweroffReason":"高压开关跳闸","powerTime":"2019-09-21 09:04:13","powerComm":"已送电","subsNo":"","lineNo":"","tgNo":"","tgName":null,"infoStatus":"1","orgName":"国网浙江杭州市富阳区供电公司","typeName":null,"infoStatusName":null,"dateDay":null,"orgNos":null,"nowTime":null,"countyName":null,"streetName":null,"villageName":null,"roadName":null,"communityName":null,"tranName":null,"sdLineName":null,"cityCode":"3340170","cityName":"国网浙江杭州市富阳区供电公司","provinceCode":null,"stopTime":"2019-09-21 10:04:53","powerType":"全部","powerOffArea":"110kV育才变:金秋D947线荣晨支线1#杆开关后段","powerOffReason":"高压开关跳闸","powerOffId":"2019092131020050"},{"poweroffId":2019092131020041,"sgpoweroffId":null,"subsName":"","lineName":"10kV之湘A331线","pubTranName":"瓜沥镇新港村10#变,","scope":"浙江省-杭州市-萧山区-瓜沥镇-新港行政村-新港自然村、新港村一带","startTime":"2019-09-21 07:40:36","stopDate":"2019-09-21 10:30:36","orgNo":"3340130","typeCode":"电网故障停限电","poweroffArea":"110kV靖江变:之湘A331线-瓜沥镇新港村10#变台区低压开关","poweroffReason":"(低压停电信息)低压漏电保护器短路故障","powerTime":"2019-09-21 09:52:25","powerComm":"已送电","subsNo":"","lineNo":"","tgNo":"","tgName":null,"infoStatus":"1","orgName":"国网浙江杭州市萧山区供电有限公司","typeName":null,"infoStatusName":null,"dateDay":null,"orgNos":null,"nowTime":null,"countyName":null,"streetName":null,"villageName":null,"roadName":null,"communityName":null,"tranName":null,"sdLineName":null,"cityCode":"3340130","cityName":"国网浙江杭州市萧山区供电有限公司","provinceCode":null,"stopTime":"2019-09-21 10:30:36","powerType":"全部","powerOffArea":"110kV靖江变:之湘A331线-瓜沥镇新港村10#变台区低压开关","powerOffReason":"(低压停电信息)低压漏电保护器短路故障","powerOffId":"2019092131020041"},{"poweroffId":2019092031020302,"sgpoweroffId":null,"subsName":"","lineName":"10kV鼎凯A475线","pubTranName":"杭州八达制线厂,杭州亿腾塑胶有限公司开关,祎华纺织,杭州美吉高塑胶有限公司,银洋纺织,杭州萧山桃园拼纱加工厂,甘露村10#变,甘露村14#变,鼎凯化纤1#,东桥村15#变,金峰纺织(1315078443),东桥村7#变,甘露村13#变,银洋纺织,银洋进出口,东桥村4#变,杭州萧山鸿涛纺织有限公司,东桥村17#变,东桥村12#变,鼎凯化纤2#,","scope":"浙江省-杭州市-萧山区-靖江街道(东桥行政村-东桥自然村,甘露行政村-甘露自然村);靖江街道-甘露行政村(杭州金峰纺织有限公司,杭州萧山桃园拼纱加工厂,杭州鼎凯化纤有限公司,杭州美吉高塑胶有限公司,杭州金达厂),靖江街道-东桥行政村(杭州祎华纺织有限公司,杭州铭创纺织有限公司,杭州亿腾塑胶有限公司,杭州铭盛天玑纺织有限公司,杭州萧山鸿涛纺织有限公司)、靖江光明行政村一带","startTime":"2019-09-20 21:30:52","stopDate":"2019-09-20 23:30:52","orgNo":"3340130","typeCode":"电网故障停限电","poweroffArea":"110kV幸福变:鼎凯A475线-鼎凯A4752开关后段","poweroffReason":"高压柱上断路器短路故障","powerTime":"2019-09-20 23:15:13","powerComm":"已送电","subsNo":"","lineNo":"","tgNo":"","tgName":null,"infoStatus":"1","orgName":"国网浙江杭州市萧山区供电有限公司","typeName":null,"infoStatusName":null,"dateDay":null,"orgNos":null,"nowTime":null,"countyName":null,"streetName":null,"villageName":null,"roadName":null,"communityName":null,"tranName":null,"sdLineName":null,"cityCode":"3340130","cityName":"国网浙江杭州市萧山区供电有限公司","provinceCode":null,"stopTime":"2019-09-20 23:30:52","powerType":"全部","powerOffArea":"110kV幸福变:鼎凯A475线-鼎凯A4752开关后段","powerOffReason":"高压柱上断路器短路故障","powerOffId":"2019092031020302"},{"poweroffId":2019092031020289,"sgpoweroffId":null,"subsName":"","lineName":"10kV洛阳G336线","pubTranName":"杭州优稳自动化系统有限公司612084920701#专变,杭州仁和先进制造业投资有限公司612081388401#专变,杭州军安钢渣建材制造有限公司,杭州老介福丝绸有限公司,3#,浙江德洛电力设备股份有限公司612084389401#专变,2#,杭州市余杭区人民政府仁和街道办事处东风幼儿园,仁和镇人民政府,獐山电管站2#公变,杭州丰禾测控技术有限公司612085324301#专变,","scope":"浙江省-杭州市-余杭区-仁和街道-三白潭行政村-庙西湾自然村,仁和街道-獐山社区(前庄湾自然村,奉欣路自然村,石城中路,獐山桥自然村,观音桥自然村,和旺街,獐山石矿);浙江省-杭州市-余杭区-仁和街道-獐山社区-杭州仁和先进制造业投资有限公司,仁和街道-东风行政村(杭州市余杭区人民政府仁和街道办事处,仁和镇人民政府,浙江德洛电力设备股份有限公司),仁和街道-奉口行政村(杭州老介福丝绸有限公司,杭州军安钢渣建材制造有限公司),仁和街道-洛阳行政村(杭州丰禾测控技术有限公司,杭州优稳自动化系统有限公司)","startTime":"2019-09-20 18:50:08","stopDate":"2019-09-20 21:50:08","orgNo":"3340140","typeCode":"电网故障停限电","poweroffArea":"110kV洛山变:洛阳G336线首端，洛阳G3361开关，东北G33641开关之间","poweroffReason":"高压开关跳闸","powerTime":"2019-09-20 21:39:33","powerComm":"已送电","subsNo":"","lineNo":"","tgNo":"","tgName":null,"infoStatus":"1","orgName":"国网浙江杭州市余杭区供电有限公司","typeName":null,"infoStatusName":null,"dateDay":null,"orgNos":null,"nowTime":null,"countyName":null,"streetName":null,"villageName":null,"roadName":null,"communityName":null,"tranName":null,"sdLineName":null,"cityCode":"3340140","cityName":"国网浙江杭州市余杭区供电有限公司","provinceCode":null,"stopTime":"2019-09-20 21:50:08","powerType":"全部","powerOffArea":"110kV洛山变:洛阳G336线首端，洛阳G3361开关，东北G33641开关之间","powerOffReason":"高压开关跳闸","powerOffId":"2019092031020289"},{"poweroffId":2019092031020288,"sgpoweroffId":null,"subsName":"","lineName":"10kV外山G335线","pubTranName":"威浩实业（6120393641）2#变,2#,杭州华达,威仕达机电（6120259982））1#变,杭州华达喷射真空设备有限公司612029418901#专变,良渚组团,杭州仁和先进制造业投资有限公司612030536101#专变,仁和社区卫生服务中心1#,良渚组团2#基建,东风村史家角公变,2#,杭州威浩实业有限公司,威浩实业（6120393641）1#变,建达标识,杭州高德菲斯科技有限公司1#,仁和社区卫生服务中心2#,2#专变,威仕达机电（6120259982））2#变,1#,东风村獐山桥公变,杭州山立净化设备股份有限公司,1#,浙江搏路尚新能源有限公司,大康腌腊,杭州高德菲斯科技有限公司2#,","scope":"浙江省-杭州市-余杭区-仁和街道-东风行政村-史家角自然村,仁和街道-獐山社区(史家角自然村,史介角自然村,观音桥自然村,奉欣路自然村,獐山桥自然村,獐山石矿,观音桥路);仁和街道-东风行政村(杭州建达标识系统工程有限公司,杭州市余杭区仁和街道社区卫生服务中心,杭州精诚三和定时器实业有限公司,杭州米格电机有限公司),仁和街道-奉口行政村(杭州山立净化设备股份有限公司,杭州威浩实业有限公司),仁和街道-洛阳行政村(杭州仁和先进制造业投资有限公司,杭州威仕达机电科技有限公司,杭州华达喷射真空设备有限公司),仁和街道(獐山社区-杭州仁和先进制造业投资有限公司,东山行政村-浙江搏路尚新能源有限公司)","startTime":"2019-09-20 18:48:03","stopDate":"2019-09-20 22:10:03","orgNo":"3340140","typeCode":"电网故障停限电","poweroffArea":"110kV洛山变:外山G335线首端，山和G33531开关，东和开关站山和G3353线之间","poweroffReason":"高压开关跳闸 原停电结束时间为2019-09-20 21:10:03,因施工难度大原因,现变更停电结束时间为2019-09-20 22:10:03","powerTime":"2019-09-20 21:50:15","powerComm":"已送电","subsNo":"","lineNo":"","tgNo":"","tgName":null,"infoStatus":"1","orgName":"国网浙江杭州市余杭区供电有限公司","typeName":null,"infoStatusName":null,"dateDay":null,"orgNos":null,"nowTime":null,"countyName":null,"streetName":null,"villageName":null,"roadName":null,"communityName":null,"tranName":null,"sdLineName":null,"cityCode":"3340140","cityName":"国网浙江杭州市余杭区供电有限公司","provinceCode":null,"stopTime":"2019-09-20 22:10:03","powerType":"全部","powerOffArea":"110kV洛山变:外山G335线首端，山和G33531开关，东和开关站山和G3353线之间","powerOffReason":"高压开关跳闸 原停电结束时间为2019-09-20 21:10:03,因施工难度大原因,现变更停电结束时间为2019-09-20 22:10:03","powerOffId":"2019092031020288"},{"poweroffId":2019092031020267,"sgpoweroffId":null,"subsName":"","lineName":"10kV火星A294线","pubTranName":"建华村14#变,","scope":"浙江省-杭州市-萧山区-新湾街道-建华行政村-建华自然村","startTime":"2019-09-22 08:30:00","stopDate":"2019-09-22 15:30:00","orgNo":"3340120","typeCode":"计划停电","poweroffArea":"110kV建湾变:火星A294线-建华村分线后段","poweroffReason":"火星A294线建华分线线路迁改 原停电结束时间为2019-09-22 17:30:00,为减少客户停电时间,加快工作进度,提前送电,现变更停电结束时间为2019-09-22 15:30:00","powerTime":"2019-09-22 15:11:25","powerComm":"已送电","subsNo":"","lineNo":"","tgNo":"","tgName":null,"infoStatus":"1","orgName":"国网浙江杭州市钱塘新区供电公司","typeName":null,"infoStatusName":null,"dateDay":null,"orgNos":null,"nowTime":null,"countyName":null,"streetName":null,"villageName":null,"roadName":null,"communityName":null,"tranName":null,"sdLineName":null,"cityCode":"3340120","cityName":"国网浙江杭州市钱塘新区供电公司","provinceCode":null,"stopTime":"2019-09-22 15:30:00","powerType":"全部","powerOffArea":"110kV建湾变:火星A294线-建华村分线后段","powerOffReason":"火星A294线建华分线线路迁改 原停电结束时间为2019-09-22 17:30:00,为减少客户停电时间,加快工作进度,提前送电,现变更停电结束时间为2019-09-22 15:30:00","powerOffId":"2019092031020267"},{"poweroffId":2019092031020234,"sgpoweroffId":null,"subsName":"","lineName":"10kV秋山D925线","pubTranName":"渔山村三元8号安置公变,","scope":"浙江省杭州市富阳区渔山乡渔山三元安置自然村一带","startTime":"2019-10-11 08:00:00","stopDate":"2019-10-11 15:10:00","orgNo":"3340170","typeCode":"计划停电","poweroffArea":"110kV里渔变:秋山D925线-渔山村三元8号安置后段","poweroffReason":"(低压停电信息)江南2019年勤俭村1#村中公变等台区低压线路改造工程拆架导线、挖洞、做拉线搭接等工作渔山2#三元江边公变（配合停电）","powerTime":"2019-10-11 14:40:16","powerComm":"已送电","subsNo":"","lineNo":"","tgNo":"","tgName":null,"infoStatus":"1","orgName":"国网浙江杭州市富阳区供电公司","typeName":null,"infoStatusName":null,"dateDay":null,"orgNos":null,"nowTime":null,"countyName":null,"streetName":null,"villageName":null,"roadName":null,"communityName":null,"tranName":null,"sdLineName":null,"cityCode":"3340170","cityName":"国网浙江杭州市富阳区供电公司","provinceCode":null,"stopTime":"2019-10-11 15:10:00","powerType":"全部","powerOffArea":"110kV里渔变:秋山D925线-渔山村三元8号安置后段","powerOffReason":"(低压停电信息)江南2019年勤俭村1#村中公变等台区低压线路改造工程拆架导线、挖洞、做拉线搭接等工作渔山2#三元江边公变（配合停电）","powerOffId":"2019092031020234"},{"poweroffId":2019092031020232,"sgpoweroffId":null,"subsName":"","lineName":"10kV杭歌8594线","pubTranName":"朝七(10),","scope":"浙江省杭州市下城区河东路黎明园小区17幢、河东路23#煤气站附近","startTime":"2019-10-10 13:30:00","stopDate":"2019-10-10 15:30:00","orgNo":"3340101","typeCode":"计划停电","poweroffArea":"220kV霞湾变:杭歌8594线-朝七（10）变东路低压开关","poweroffReason":"(低压停电信息)河东路33号表计增容 原停电结束时间为2019-10-10 17:30:00,为减少客户停电时间,加快工作进度,提前送电,现变更停电结束时间为2019-10-10 15:30:00","powerTime":"2019-10-10 14:34:59","powerComm":"已送电","subsNo":"","lineNo":"","tgNo":"","tgName":null,"infoStatus":"1","orgName":"浙江杭州电力客户服务中心","typeName":null,"infoStatusName":null,"dateDay":null,"orgNos":null,"nowTime":null,"countyName":null,"streetName":null,"villageName":null,"roadName":null,"communityName":null,"tranName":null,"sdLineName":null,"cityCode":"3340101","cityName":"浙江杭州电力客户服务中心","provinceCode":null,"stopTime":"2019-10-10 15:30:00","powerType":"全部","powerOffArea":"220kV霞湾变:杭歌8594线-朝七（10）变东路低压开关","powerOffReason":"(低压停电信息)河东路33号表计增容 原停电结束时间为2019-10-10 17:30:00,为减少客户停电时间,加快工作进度,提前送电,现变更停电结束时间为2019-10-10 15:30:00","powerOffId":"2019092031020232"},{"poweroffId":2019092031020228,"sgpoweroffId":null,"subsName":"","lineName":"10kV洛阳G336线","pubTranName":"杭州力神机械有限公司,3#,仁和镇人民政府,杭州市设备安装有限公司,杭州杭氧环保成套设备有限公司,杭州仁和先进制造业投资有限公司612081388401#专变,杭州军安钢渣建材制造有限公司,2#,杭州老介福丝绸有限公司,金民管业1#,杭州市余杭区人民政府仁和街道办事处东风幼儿园,金民管业3#,浙江德洛电力设备股份有限公司612084389401#专变,布老虎变,东风村华士桥西2号公变,杭州丰禾测控技术有限公司612085324301#专变,良塘公路灯箱变,金民管业2#,杭州优稳自动化系统有限公司612084920701#专变,余杭区仁和镇人民政府,獐山电管站2#公变,","scope":"浙江省-杭州市-余杭区-仁和街道-三白潭行政村-庙西湾自然村,仁和街道-东风行政村(华墅桥自然村,史家角自然村,华士角自然村,华墅角自然村),仁和街道-獐山社区(前庄湾自然村,奉欣路自然村,石城中路,獐山桥自然村,观音桥自然村,和旺街,獐山石矿);浙江省-杭州市-余杭区-仁和街道-獐山社区-杭州仁和先进制造业投资有限公司,仁和街道-东风行政村(浙江腾川家居发展有限公司,杭州市余杭区城市管理综合行政执法局,杭州力神机械有限公司,杭州金民管业有限公司,余杭区仁和镇人民政府,杭州市设备安装有限公司,杭州市余杭区人民政府仁和街道办事处,仁和镇人民政府,浙江德洛电力设备股份有限公司),仁和街道-奉口行政村(杭州老介福丝绸有限公司,杭州军安钢渣建材制造有限公司),仁和街道-洛阳行政村(杭州丰禾测控技术有限公司,杭州优稳自动化系统有限公司)","startTime":"2019-09-20 15:54:00","stopDate":"2019-09-20 18:54:00","orgNo":"3340140","typeCode":"电网故障停限电","poweroffArea":"110kV洛山变:洛阳G336线","poweroffReason":"高压开关跳闸 原停电结束时间为2019-09-20 17:54:00,因现场复杂原因,现变更停电结束时间为2019-09-20 18:54:00","powerTime":"2019-09-20 18:48:00","powerComm":"已送电","subsNo":"","lineNo":"","tgNo":"","tgName":null,"infoStatus":"1","orgName":"国网浙江杭州市余杭区供电有限公司","typeName":null,"infoStatusName":null,"dateDay":null,"orgNos":null,"nowTime":null,"countyName":null,"streetName":null,"villageName":null,"roadName":null,"communityName":null,"tranName":null,"sdLineName":null,"cityCode":"3340140","cityName":"国网浙江杭州市余杭区供电有限公司","provinceCode":null,"stopTime":"2019-09-20 18:54:00","powerType":"全部","powerOffArea":"110kV洛山变:洛阳G336线","powerOffReason":"高压开关跳闸 原停电结束时间为2019-09-20 17:54:00,因现场复杂原因,现变更停电结束时间为2019-09-20 18:54:00","powerOffId":"2019092031020228"},{"poweroffId":2019092031020226,"sgpoweroffId":null,"subsName":"","lineName":"10kV汤青D789线","pubTranName":"浙江圣昌交通科技有限公司1#基建变,","scope":"浙江省-杭州市-富阳区-场口镇-场口新区-浙江圣昌交通科技有限公司","startTime":"2019-10-11 08:30:00","stopDate":"2019-10-11 15:30:00","orgNo":"3340170","typeCode":"计划停电","poweroffArea":"110kV王洲变:汤青D789线-大华分线开关后段","poweroffReason":"汤青D789线汤青五号开关站5#间隔大华分线-5#杆之间拆除双回导线4档，拆除电杆4支，拆除高压电缆1根，拆移真空开关1台，电缆上杆搭接等工作。","powerTime":"2019-10-11 15:00:26","powerComm":"已送电","subsNo":"","lineNo":"","tgNo":"","tgName":null,"infoStatus":"1","orgName":"国网浙江杭州市富阳区供电公司","typeName":null,"infoStatusName":null,"dateDay":null,"orgNos":null,"nowTime":null,"countyName":null,"streetName":null,"villageName":null,"roadName":null,"communityName":null,"tranName":null,"sdLineName":null,"cityCode":"3340170","cityName":"国网浙江杭州市富阳区供电公司","provinceCode":null,"stopTime":"2019-10-11 15:30:00","powerType":"全部","powerOffArea":"110kV王洲变:汤青D789线-大华分线开关后段","powerOffReason":"汤青D789线汤青五号开关站5#间隔大华分线-5#杆之间拆除双回导线4档，拆除电杆4支，拆除高压电缆1根，拆移真空开关1台，电缆上杆搭接等工作。","powerOffId":"2019092031020226"}],"pageModel":{"pageNow":1087,"totalCount":17789,"totalPage":1779,"tableRows":0,"pageCount":10,"beginCount":10860},"isExperi":"1"}