{"message":"","today":"2020-06-16","seleList":[{"poweroffId":2019092031020201,"sgpoweroffId":null,"subsName":"","lineName":"10kV东村D501线","pubTranName":"董家村3号三房公变,","scope":"浙江省-杭州市-富阳区-常安镇-大田行政村-大田自然村,常安镇-董家行政村(三房自然村,董家自然村)一带","startTime":"2019-10-10 14:50:00","stopDate":"2019-10-10 15:30:00","orgNo":"3340170","typeCode":"计划停电","poweroffArea":"110kV常安变:东村D501线-董家村3#三房公变后段","poweroffReason":"东村D501线3#环街分线2#杆董家支线2#杆三房支线1#杆董家村3#三房公变拆除T接箱电缆并搭接于变压器等工作。","powerTime":"2019-10-10 15:20:03","powerComm":"已送电","subsNo":"","lineNo":"","tgNo":"","tgName":null,"infoStatus":"1","orgName":"国网浙江杭州市富阳区供电公司","typeName":null,"infoStatusName":null,"dateDay":null,"orgNos":null,"nowTime":null,"countyName":null,"streetName":null,"villageName":null,"roadName":null,"communityName":null,"tranName":null,"sdLineName":null,"cityCode":"3340170","cityName":"国网浙江杭州市富阳区供电公司","provinceCode":null,"stopTime":"2019-10-10 15:30:00","powerType":"全部","powerOffArea":"110kV常安变:东村D501线-董家村3#三房公变后段","powerOffReason":"东村D501线3#环街分线2#杆董家支线2#杆三房支线1#杆董家村3#三房公变拆除T接箱电缆并搭接于变压器等工作。","powerOffId":"2019092031020201"},{"poweroffId":2019092031020200,"sgpoweroffId":null,"subsName":"","lineName":"10kV湘主D286线","pubTranName":"仙里村3#野坞口公变,","scope":"浙江省杭州市富阳区新登镇仙里行政村野坞口自然村一带","startTime":"2019-10-10 08:40:00","stopDate":"2019-10-10 14:00:00","orgNo":"3340170","typeCode":"计划停电","poweroffArea":"110kV清泉变:10KV湘主D286线98#杆湘长联线53#杆仙里村3#野坞口公变","poweroffReason":"湘主D286线53#杆仙里村3#野坞口公变敷设进线电缆YJV-4*240一路、拆除进线电缆YJV-4*150一路、更换配电屏、拆除出线电缆VLV-4*120二路.敷设出线电缆YJV-4*150二路、拆除BS-JKLYJ-4*16一路.","powerTime":"2019-10-10 13:50:24","powerComm":"已送电","subsNo":"","lineNo":"","tgNo":"","tgName":null,"infoStatus":"1","orgName":"国网浙江杭州市富阳区供电公司","typeName":null,"infoStatusName":null,"dateDay":null,"orgNos":null,"nowTime":null,"countyName":null,"streetName":null,"villageName":null,"roadName":null,"communityName":null,"tranName":null,"sdLineName":null,"cityCode":"3340170","cityName":"国网浙江杭州市富阳区供电公司","provinceCode":null,"stopTime":"2019-10-10 14:00:00","powerType":"全部","powerOffArea":"110kV清泉变:10KV湘主D286线98#杆湘长联线53#杆仙里村3#野坞口公变","powerOffReason":"湘主D286线53#杆仙里村3#野坞口公变敷设进线电缆YJV-4*240一路、拆除进线电缆YJV-4*150一路、更换配电屏、拆除出线电缆VLV-4*120二路.敷设出线电缆YJV-4*150二路、拆除BS-JKLYJ-4*16一路.","powerOffId":"2019092031020200"},{"poweroffId":2019092031020199,"sgpoweroffId":null,"subsName":"","lineName":"10kV园北D945线","pubTranName":"湖塍村4号庙山上公变,","scope":"浙江省-杭州市-富阳区-富春街道-湖塍行政村-庙山自然村","startTime":"2019-10-10 08:50:00","stopDate":"2019-10-10 13:30:00","orgNo":"3340170","typeCode":"计划停电","poweroffArea":"110kV育才变:园北D945线-湖塍村4#庙山上公变后段","poweroffReason":"工贸资产新上基建部工程：庙山上支线5#杆安装真空开关一台，立杆4基，架线2档，新上工贸资产基建变1台等工作。","powerTime":"2019-10-10 13:20:17","powerComm":"已送电","subsNo":"","lineNo":"","tgNo":"","tgName":null,"infoStatus":"1","orgName":"国网浙江杭州市富阳区供电公司","typeName":null,"infoStatusName":null,"dateDay":null,"orgNos":null,"nowTime":null,"countyName":null,"streetName":null,"villageName":null,"roadName":null,"communityName":null,"tranName":null,"sdLineName":null,"cityCode":"3340170","cityName":"国网浙江杭州市富阳区供电公司","provinceCode":null,"stopTime":"2019-10-10 13:30:00","powerType":"全部","powerOffArea":"110kV育才变:园北D945线-湖塍村4#庙山上公变后段","powerOffReason":"工贸资产新上基建部工程：庙山上支线5#杆安装真空开关一台，立杆4基，架线2档，新上工贸资产基建变1台等工作。","powerOffId":"2019092031020199"},{"poweroffId":2019092031020198,"sgpoweroffId":null,"subsName":"","lineName":"10kV东村D501线","pubTranName":"董家村3号三房公变,","scope":"浙江省-杭州市-富阳区-常安镇-大田行政村-大田自然村,常安镇-董家行政村(三房自然村,董家自然村)一带","startTime":"2019-10-10 08:30:00","stopDate":"2019-10-10 09:15:00","orgNo":"3340170","typeCode":"计划停电","poweroffArea":"110kV常安变:东村D501线-董家村3#三房公变后段","poweroffReason":"东村D501线3#环街分线2#杆董家支线2#杆三房支线1#杆董家村3#三房公变拆除低压电缆并搭接于T接箱出线侧等工作。","powerTime":"2019-10-10 09:13:46","powerComm":"已送电","subsNo":"","lineNo":"","tgNo":"","tgName":null,"infoStatus":"1","orgName":"国网浙江杭州市富阳区供电公司","typeName":null,"infoStatusName":null,"dateDay":null,"orgNos":null,"nowTime":null,"countyName":null,"streetName":null,"villageName":null,"roadName":null,"communityName":null,"tranName":null,"sdLineName":null,"cityCode":"3340170","cityName":"国网浙江杭州市富阳区供电公司","provinceCode":null,"stopTime":"2019-10-10 09:15:00","powerType":"全部","powerOffArea":"110kV常安变:东村D501线-董家村3#三房公变后段","powerOffReason":"东村D501线3#环街分线2#杆董家支线2#杆三房支线1#杆董家村3#三房公变拆除低压电缆并搭接于T接箱出线侧等工作。","powerOffId":"2019092031020198"},{"poweroffId":2019092031020197,"sgpoweroffId":null,"subsName":"","lineName":"10kV环联D788线","pubTranName":"环一村4#新农村公变,","scope":"浙江省-杭州市-富阳区-环山乡-环一行政村(环一新村自然村,桥头自然村,环一村中自然村)一带","startTime":"2019-10-09 09:00:00","stopDate":"2019-10-09 16:00:00","orgNo":"3340170","typeCode":"计划停电","poweroffArea":"110kV王洲变:环联D788线-环一村4#新农村公变后段","poweroffReason":"环联D788线63#杆环一水库分线7#杆环一村4#新农村公变拆除400kVA杆上变1台，拆除电杆1支，拆移低压出线电缆3根至箱变，安装真空开关1台，敷设高压电缆1根及上杆，更换终端、互感器等工作。","powerTime":"2019-10-09 15:28:18","powerComm":"已送电","subsNo":"","lineNo":"","tgNo":"","tgName":null,"infoStatus":"1","orgName":"国网浙江杭州市富阳区供电公司","typeName":null,"infoStatusName":null,"dateDay":null,"orgNos":null,"nowTime":null,"countyName":null,"streetName":null,"villageName":null,"roadName":null,"communityName":null,"tranName":null,"sdLineName":null,"cityCode":"3340170","cityName":"国网浙江杭州市富阳区供电公司","provinceCode":null,"stopTime":"2019-10-09 16:00:00","powerType":"全部","powerOffArea":"110kV王洲变:环联D788线-环一村4#新农村公变后段","powerOffReason":"环联D788线63#杆环一水库分线7#杆环一村4#新农村公变拆除400kVA杆上变1台，拆除电杆1支，拆移低压出线电缆3根至箱变，安装真空开关1台，敷设高压电缆1根及上杆，更换终端、互感器等工作。","powerOffId":"2019092031020197"},{"poweroffId":2019092031020196,"sgpoweroffId":null,"subsName":"","lineName":"10kV龙门D787线","pubTranName":"龙门七村7号大村菜场公变,","scope":"浙江省-杭州市-富阳区-龙门镇-龙门七村行政村(前溪自然村,菜场自然村)","startTime":"2019-10-09 08:30:00","stopDate":"2019-10-09 15:30:00","orgNo":"3340170","typeCode":"计划停电","poweroffArea":"110kV王洲变:龙门D787线-龙门七村7号大村菜场公变后段","poweroffReason":"龙门D787线139#杆菜场分线1#杆龙门七村7#大村菜场公变拆除400kVA杆上变1台，拆除电杆1支，拆移低压出线电缆3根至箱变，安装真空开关1台，敷设高压电缆1根及上杆，更换终端、互感器等工作。","powerTime":"2019-10-09 14:44:28","powerComm":"已送电","subsNo":"","lineNo":"","tgNo":"","tgName":null,"infoStatus":"1","orgName":"国网浙江杭州市富阳区供电公司","typeName":null,"infoStatusName":null,"dateDay":null,"orgNos":null,"nowTime":null,"countyName":null,"streetName":null,"villageName":null,"roadName":null,"communityName":null,"tranName":null,"sdLineName":null,"cityCode":"3340170","cityName":"国网浙江杭州市富阳区供电公司","provinceCode":null,"stopTime":"2019-10-09 15:30:00","powerType":"全部","powerOffArea":"110kV王洲变:龙门D787线-龙门七村7号大村菜场公变后段","powerOffReason":"龙门D787线139#杆菜场分线1#杆龙门七村7#大村菜场公变拆除400kVA杆上变1台，拆除电杆1支，拆移低压出线电缆3根至箱变，安装真空开关1台，敷设高压电缆1根及上杆，更换终端、互感器等工作。","powerOffId":"2019092031020196"},{"poweroffId":2019092031020195,"sgpoweroffId":null,"subsName":"","lineName":"10kV彭家D342线","pubTranName":"何家村1#太平桥公变,","scope":"浙江省杭州市富阳区万市镇何家行政村太平桥自然村一带","startTime":"2019-10-10 08:40:00","stopDate":"2019-10-10 12:30:00","orgNo":"3340170","typeCode":"计划停电","poweroffArea":"110kV万市变:10KV彭家D342线188号杆渔洲分线41号杆太平桥支线2号杆","poweroffReason":"彭家D342线何家村1#太平桥公变、更换配电屏一组、拆装进出线电缆头、吊车吊屏","powerTime":"2019-10-10 12:20:12","powerComm":"已送电","subsNo":"","lineNo":"","tgNo":"","tgName":null,"infoStatus":"1","orgName":"国网浙江杭州市富阳区供电公司","typeName":null,"infoStatusName":null,"dateDay":null,"orgNos":null,"nowTime":null,"countyName":null,"streetName":null,"villageName":null,"roadName":null,"communityName":null,"tranName":null,"sdLineName":null,"cityCode":"3340170","cityName":"国网浙江杭州市富阳区供电公司","provinceCode":null,"stopTime":"2019-10-10 12:30:00","powerType":"全部","powerOffArea":"110kV万市变:10KV彭家D342线188号杆渔洲分线41号杆太平桥支线2号杆","powerOffReason":"彭家D342线何家村1#太平桥公变、更换配电屏一组、拆装进出线电缆头、吊车吊屏","powerOffId":"2019092031020195"},{"poweroffId":2019092031020194,"sgpoweroffId":null,"subsName":"","lineName":"10kV青何D731线","pubTranName":"青何村龙峰2#朱家公变,","scope":"浙江省杭州市富阳区永昌镇青何行政村龙峰朱家自然村一带","startTime":"2019-10-10 10:00:00","stopDate":"2019-10-10 11:00:00","orgNo":"3340170","typeCode":"计划停电","poweroffArea":"110kV松溪变:青何D731线157#杆龙峰分线33#杆青何村龙峰2#朱家公变","poweroffReason":"三相不平衡装置安装工程：青何村龙峰2#朱家公变三相不平衡安装等工作","powerTime":"2019-10-10 10:50:17","powerComm":"已送电","subsNo":"","lineNo":"","tgNo":"","tgName":null,"infoStatus":"1","orgName":"国网浙江杭州市富阳区供电公司","typeName":null,"infoStatusName":null,"dateDay":null,"orgNos":null,"nowTime":null,"countyName":null,"streetName":null,"villageName":null,"roadName":null,"communityName":null,"tranName":null,"sdLineName":null,"cityCode":"3340170","cityName":"国网浙江杭州市富阳区供电公司","provinceCode":null,"stopTime":"2019-10-10 11:00:00","powerType":"全部","powerOffArea":"110kV松溪变:青何D731线157#杆龙峰分线33#杆青何村龙峰2#朱家公变","powerOffReason":"三相不平衡装置安装工程：青何村龙峰2#朱家公变三相不平衡安装等工作","powerOffId":"2019092031020194"},{"poweroffId":2019092031020193,"sgpoweroffId":null,"subsName":"","lineName":"10kV青何D731线","pubTranName":"青何村青何1#翁家公变,","scope":"浙江省杭州市富阳区永昌镇青何行政村翁家自然村一带","startTime":"2019-10-10 08:30:00","stopDate":"2019-10-10 09:30:00","orgNo":"3340170","typeCode":"计划停电","poweroffArea":"110kV松溪变:青何D731线156#杆翁家分线","poweroffReason":"三相不平衡装置安装工程：青何村1#翁家公变三相不平衡安装等工作","powerTime":"2019-10-10 09:19:45","powerComm":"已送电","subsNo":"","lineNo":"","tgNo":"","tgName":null,"infoStatus":"1","orgName":"国网浙江杭州市富阳区供电公司","typeName":null,"infoStatusName":null,"dateDay":null,"orgNos":null,"nowTime":null,"countyName":null,"streetName":null,"villageName":null,"roadName":null,"communityName":null,"tranName":null,"sdLineName":null,"cityCode":"3340170","cityName":"国网浙江杭州市富阳区供电公司","provinceCode":null,"stopTime":"2019-10-10 09:30:00","powerType":"全部","powerOffArea":"110kV松溪变:青何D731线156#杆翁家分线","powerOffReason":"三相不平衡装置安装工程：青何村1#翁家公变三相不平衡安装等工作","powerOffId":"2019092031020193"},{"poweroffId":2019092031020192,"sgpoweroffId":null,"subsName":"","lineName":"10kV梓树D973线","pubTranName":"富阳市路灯安装维修管理所,","scope":"浙江省杭州市富阳区银湖街道路灯安装维修管理所一带","startTime":"2019-10-09 09:10:00","stopDate":"2019-10-09 16:30:00","orgNo":"3340170","typeCode":"计划停电","poweroffArea":"110kV九龙变:梓树D973线-九龙分线后段","poweroffReason":"杭州富阳迎东地区10千伏民联支线等线路改造工程:九龙分线绝缘化改造，分支线改接等工作","powerTime":"2019-10-09 16:07:56","powerComm":"已送电","subsNo":"","lineNo":"","tgNo":"","tgName":null,"infoStatus":"1","orgName":"国网浙江杭州市富阳区供电公司","typeName":null,"infoStatusName":null,"dateDay":null,"orgNos":null,"nowTime":null,"countyName":null,"streetName":null,"villageName":null,"roadName":null,"communityName":null,"tranName":null,"sdLineName":null,"cityCode":"3340170","cityName":"国网浙江杭州市富阳区供电公司","provinceCode":null,"stopTime":"2019-10-09 16:30:00","powerType":"全部","powerOffArea":"110kV九龙变:梓树D973线-九龙分线后段","powerOffReason":"杭州富阳迎东地区10千伏民联支线等线路改造工程:九龙分线绝缘化改造，分支线改接等工作","powerOffId":"2019092031020192"}],"pageModel":{"pageNow":1089,"totalCount":17789,"totalPage":1779,"tableRows":0,"pageCount":10,"beginCount":10880},"isExperi":"1"}