{"message":"","today":"2020-06-16","seleList":[{"poweroffId":2019092031020110,"sgpoweroffId":null,"subsName":"","lineName":"10kV芝厦T190线","pubTranName":"浙江沃德威先种猪有限公司,金虎金属粉末厂,梓坞2号公变,胡庆余堂1,坚强装饰材料,浙江沃德威先种猪有限公司,德庄矿业,杭黄基建三十,桐庐钦荣石粉厂,里董1号公变,大庄1号公变,里董2号公变,大庄2号公变,里董4号公变,梓坞1号公变,小庄1号公变,里董3号公变,桐庐丽新重钙粉厂,外董3号公变,","scope":"浙江省-杭州市-桐庐县-富春江镇-里董行政村(里董自然村,严家自然村,梓坞自然村,小庄自然村),富春江镇(严陵行政村-外董自然村,大庄行政村-大庄自然村);富春江镇(浙江沃德威先种猪有限公司,桐庐坚强装饰材料厂,桐庐丽新重钙粉厂,桐庐钦荣石粉厂,杭州胡庆余堂药材种植有限公司,杭州德庄矿业有限公司)","startTime":"2019-09-20 12:09:00","stopDate":"2019-09-20 15:00:00","orgNo":"3340150","typeCode":"电网故障停限电","poweroffArea":"110kV外董变:芝厦T190线大庄F8157开关后段","poweroffReason":"高压开关跳闸","powerTime":"2019-09-20 14:50:20","powerComm":"已送电","subsNo":"","lineNo":"","tgNo":"","tgName":null,"infoStatus":"1","orgName":"国网浙江桐庐县供电公司","typeName":null,"infoStatusName":null,"dateDay":null,"orgNos":null,"nowTime":null,"countyName":null,"streetName":null,"villageName":null,"roadName":null,"communityName":null,"tranName":null,"sdLineName":null,"cityCode":"3340150","cityName":"国网浙江桐庐县供电公司","provinceCode":null,"stopTime":"2019-09-20 15:00:00","powerType":"全部","powerOffArea":"110kV外董变:芝厦T190线大庄F8157开关后段","powerOffReason":"高压开关跳闸","powerOffId":"2019092031020110"},{"poweroffId":2019092031020109,"sgpoweroffId":null,"subsName":"","lineName":"10kV李家D384线","pubTranName":"新二村5#中塔公变,","scope":"浙江省杭州市富阳区湖源乡新三村一带","startTime":"2019-10-12 08:50:00","stopDate":"2019-10-12 16:40:00","orgNo":"3340170","typeCode":"计划停电","poweroffArea":"35kV湖源变:李家D384线-新二村5#中塔公变低压开关后段","poweroffReason":"(低压停电信息)吊车立杆、装横担、做拉线、架线、搭接等工作","powerTime":"2019-10-12 16:25:02","powerComm":"已送电","subsNo":"","lineNo":"","tgNo":"","tgName":null,"infoStatus":"1","orgName":"国网浙江杭州市富阳区供电公司","typeName":null,"infoStatusName":null,"dateDay":null,"orgNos":null,"nowTime":null,"countyName":null,"streetName":null,"villageName":null,"roadName":null,"communityName":null,"tranName":null,"sdLineName":null,"cityCode":"3340170","cityName":"国网浙江杭州市富阳区供电公司","provinceCode":null,"stopTime":"2019-10-12 16:40:00","powerType":"全部","powerOffArea":"35kV湖源变:李家D384线-新二村5#中塔公变低压开关后段","powerOffReason":"(低压停电信息)吊车立杆、装横担、做拉线、架线、搭接等工作","powerOffId":"2019092031020109"},{"poweroffId":2019092031020108,"sgpoweroffId":null,"subsName":"","lineName":"10kV李家D384线","pubTranName":"新二村5#中塔公变,","scope":"浙江省杭州市富阳区湖源乡新三村一带","startTime":"2019-10-11 08:50:00","stopDate":"2019-10-11 16:40:00","orgNo":"3340170","typeCode":"计划停电","poweroffArea":"35kV湖源变:李家D384线-新二村5#中塔公变低压开关后段","poweroffReason":"(低压停电信息)吊车立杆、装横担、做拉线、安装出线电缆及杆上搭接等工作","powerTime":"2019-10-11 16:10:23","powerComm":"已送电","subsNo":"","lineNo":"","tgNo":"","tgName":null,"infoStatus":"1","orgName":"国网浙江杭州市富阳区供电公司","typeName":null,"infoStatusName":null,"dateDay":null,"orgNos":null,"nowTime":null,"countyName":null,"streetName":null,"villageName":null,"roadName":null,"communityName":null,"tranName":null,"sdLineName":null,"cityCode":"3340170","cityName":"国网浙江杭州市富阳区供电公司","provinceCode":null,"stopTime":"2019-10-11 16:40:00","powerType":"全部","powerOffArea":"35kV湖源变:李家D384线-新二村5#中塔公变低压开关后段","powerOffReason":"(低压停电信息)吊车立杆、装横担、做拉线、安装出线电缆及杆上搭接等工作","powerOffId":"2019092031020108"},{"poweroffId":2019092031020106,"sgpoweroffId":null,"subsName":"","lineName":"10kV白石D640线","pubTranName":"宋家溪2#学校公变,","scope":"浙江省杭州市富阳区场口镇宋家溪村一带","startTime":"2019-10-09 08:40:00","stopDate":"2019-10-09 15:40:00","orgNo":"3340170","typeCode":"计划停电","poweroffArea":"110kV鸿丰变:白石D640线-宋家溪2#学校公变低压出线后段","poweroffReason":"(低压停电信息)更换出线电缆2路，杆上搭接等工作","powerTime":"2019-10-09 15:27:16","powerComm":"已送电","subsNo":"","lineNo":"","tgNo":"","tgName":null,"infoStatus":"1","orgName":"国网浙江杭州市富阳区供电公司","typeName":null,"infoStatusName":null,"dateDay":null,"orgNos":null,"nowTime":null,"countyName":null,"streetName":null,"villageName":null,"roadName":null,"communityName":null,"tranName":null,"sdLineName":null,"cityCode":"3340170","cityName":"国网浙江杭州市富阳区供电公司","provinceCode":null,"stopTime":"2019-10-09 15:40:00","powerType":"全部","powerOffArea":"110kV鸿丰变:白石D640线-宋家溪2#学校公变低压出线后段","powerOffReason":"(低压停电信息)更换出线电缆2路，杆上搭接等工作","powerOffId":"2019092031020106"},{"poweroffId":2019092031020101,"sgpoweroffId":null,"subsName":"","lineName":"10kV菜市752线","pubTranName":"联合银行3#,联合银行2#,","scope":"浙江省杭州市上城区联合银行","startTime":"2019-10-10 09:00:00","stopDate":"2019-10-10 16:00:00","orgNo":"3340101","typeCode":"计划停电","poweroffArea":"110kV中心变:菜市752线-杭银二线后段","poweroffReason":"杭州地铁5号线平海路站10kV电力三期迁改工程（城源）CZ2019-03-063-YNQQ 杭银二线电缆迁改 原停电结束时间为17:30:00,为减少客户停电时间,加快工作进度,提前送电,现变更停电结束时间为16:00:00","powerTime":"2019-10-10 15:24:59","powerComm":"已送电","subsNo":"","lineNo":"","tgNo":"","tgName":null,"infoStatus":"1","orgName":"浙江杭州电力客户服务中心","typeName":null,"infoStatusName":null,"dateDay":null,"orgNos":null,"nowTime":null,"countyName":null,"streetName":null,"villageName":null,"roadName":null,"communityName":null,"tranName":null,"sdLineName":null,"cityCode":"3340101","cityName":"浙江杭州电力客户服务中心","provinceCode":null,"stopTime":"2019-10-10 16:00:00","powerType":"全部","powerOffArea":"110kV中心变:菜市752线-杭银二线后段","powerOffReason":"杭州地铁5号线平海路站10kV电力三期迁改工程（城源）CZ2019-03-063-YNQQ 杭银二线电缆迁改 原停电结束时间为17:30:00,为减少客户停电时间,加快工作进度,提前送电,现变更停电结束时间为16:00:00","powerOffId":"2019092031020101"},{"poweroffId":2019092031020100,"sgpoweroffId":null,"subsName":"","lineName":"10kV万安751线","pubTranName":"联合银行1#,联合银行4#,","scope":"浙江省杭州市上城区联合银行","startTime":"2019-10-09 09:30:00","stopDate":"2019-10-09 15:00:00","orgNo":"3340101","typeCode":"计划停电","poweroffArea":"110kV中心变:万安751线-杭银一线后段","poweroffReason":"杭州地铁5号线平海路站10kV电力三期迁改工程（城源）原停电结束时间为2019-10-09 17:30:00,为减少客户停电时间,加快工作进度,提前送电,现变更停电结束时间为2019-10-09 15:00:00","powerTime":"2019-10-09 14:25:59","powerComm":"已送电","subsNo":"","lineNo":"","tgNo":"","tgName":null,"infoStatus":"1","orgName":"浙江杭州电力客户服务中心","typeName":null,"infoStatusName":null,"dateDay":null,"orgNos":null,"nowTime":null,"countyName":null,"streetName":null,"villageName":null,"roadName":null,"communityName":null,"tranName":null,"sdLineName":null,"cityCode":"3340101","cityName":"浙江杭州电力客户服务中心","provinceCode":null,"stopTime":"2019-10-09 15:00:00","powerType":"全部","powerOffArea":"110kV中心变:万安751线-杭银一线后段","powerOffReason":"杭州地铁5号线平海路站10kV电力三期迁改工程（城源）原停电结束时间为2019-10-09 17:30:00,为减少客户停电时间,加快工作进度,提前送电,现变更停电结束时间为2019-10-09 15:00:00","powerOffId":"2019092031020100"},{"poweroffId":2019092031020076,"sgpoweroffId":null,"subsName":"","lineName":"10kV友谊051线","pubTranName":"机电,金制,杭州继勇实业有限公司,运输,黄沙,绕南,1,工程队,","scope":"浙江省杭州市西湖区双浦镇杭州继勇实业有限公司、泰盈金属制品有限公司、千辉通实业有限公司、三丰建设有限公司、程强五金纸箱包装厂、之江度假区桐菊餐饮服务部、美达五金器材有限公司、袁家浦村黄沙桥附近一带","startTime":"2019-10-10 09:30:00","stopDate":"2019-10-10 13:00:00","orgNo":"3340101","typeCode":"计划停电","poweroffArea":"35kV袁浦临:友谊051线-黄沙后段;友谊051线-杭州继勇实业有限公司后段;友谊051线-金制后段;友谊051线-1后段;友谊051线-工程队后段;友谊051线-机电后段;友谊051线-运输后段;友谊051线-绕南后段","poweroffReason":"袁浦小城镇整治主网架高压及土建一期工程CZ2017-12-006-YXQQ 黄沙分线改接；原停电结束时间为2019-10-10 17:00:00,为减少客户停电时间,加快工作进度,提前送电,现变更停电结束时间为2019-10-10 13:00:00","powerTime":"2019-10-10 12:19:59","powerComm":"已送电","subsNo":"","lineNo":"","tgNo":"","tgName":null,"infoStatus":"1","orgName":"浙江杭州电力客户服务中心","typeName":null,"infoStatusName":null,"dateDay":null,"orgNos":null,"nowTime":null,"countyName":null,"streetName":null,"villageName":null,"roadName":null,"communityName":null,"tranName":null,"sdLineName":null,"cityCode":"3340101","cityName":"浙江杭州电力客户服务中心","provinceCode":null,"stopTime":"2019-10-10 13:00:00","powerType":"全部","powerOffArea":"35kV袁浦临:友谊051线-黄沙后段;友谊051线-杭州继勇实业有限公司后段;友谊051线-金制后段;友谊051线-1后段;友谊051线-工程队后段;友谊051线-机电后段;友谊051线-运输后段;友谊051线-绕南后段","powerOffReason":"袁浦小城镇整治主网架高压及土建一期工程CZ2017-12-006-YXQQ 黄沙分线改接；原停电结束时间为2019-10-10 17:00:00,为减少客户停电时间,加快工作进度,提前送电,现变更停电结束时间为2019-10-10 13:00:00","powerOffId":"2019092031020076"},{"poweroffId":2019092031020060,"sgpoweroffId":null,"subsName":"","lineName":"10kV油管C927线","pubTranName":"党山村1#变,","scope":"浙江省-杭州市-萧山区-瓜沥镇-南大房社区-党山路,瓜沥镇-党山行政村(井岭路,里湖弄,党山自然村,党山路)、瓜沥镇党山村井岭路12号一带","startTime":"2019-09-20 08:30:14","stopDate":"2019-09-20 16:10:14","orgNo":"3340130","typeCode":"电网故障停限电","poweroffArea":"110kV党山变:油管C927线-党山村1#变台区低压开关","poweroffReason":"(低压停电信息)低压架空导线断线故障","powerTime":"2019-09-20 15:58:12","powerComm":"已送电","subsNo":"","lineNo":"","tgNo":"","tgName":null,"infoStatus":"1","orgName":"国网浙江杭州市萧山区供电有限公司","typeName":null,"infoStatusName":null,"dateDay":null,"orgNos":null,"nowTime":null,"countyName":null,"streetName":null,"villageName":null,"roadName":null,"communityName":null,"tranName":null,"sdLineName":null,"cityCode":"3340130","cityName":"国网浙江杭州市萧山区供电有限公司","provinceCode":null,"stopTime":"2019-09-20 16:10:14","powerType":"全部","powerOffArea":"110kV党山变:油管C927线-党山村1#变台区低压开关","powerOffReason":"(低压停电信息)低压架空导线断线故障","powerOffId":"2019092031020060"},{"poweroffId":2019092031020018,"sgpoweroffId":null,"subsName":"","lineName":"10kV乐东H549线","pubTranName":"漕桥村夹板郎公变,漕桥村新村委公变,","scope":"浙江省-杭州市-余杭区-径山镇-潘坂桥行政村-潘坂桥自然村,径山镇-漕桥行政村(夹畈浪自然村,漕桥自然村,香下桥自然村)","startTime":"2019-09-20 06:53:00","stopDate":"2019-09-20 16:53:00","orgNo":"3340140","typeCode":"电网故障停限电","poweroffArea":"110kV潘板变:乐东H549线首端，漕桥村新村委公变，漕桥村夹板郎公变之间","poweroffReason":"高压开关跳闸 原停电结束时间为2019-09-20 09:53:00,因现场施工环境复杂原因,现变更停电结束时间为2019-09-20 16:53:00","powerTime":"2019-09-20 16:28:00","powerComm":"已送电","subsNo":"","lineNo":"","tgNo":"","tgName":null,"infoStatus":"1","orgName":"国网浙江杭州市余杭区供电有限公司","typeName":null,"infoStatusName":null,"dateDay":null,"orgNos":null,"nowTime":null,"countyName":null,"streetName":null,"villageName":null,"roadName":null,"communityName":null,"tranName":null,"sdLineName":null,"cityCode":"3340140","cityName":"国网浙江杭州市余杭区供电有限公司","provinceCode":null,"stopTime":"2019-09-20 16:53:00","powerType":"全部","powerOffArea":"110kV潘板变:乐东H549线首端，漕桥村新村委公变，漕桥村夹板郎公变之间","powerOffReason":"高压开关跳闸 原停电结束时间为2019-09-20 09:53:00,因现场施工环境复杂原因,现变更停电结束时间为2019-09-20 16:53:00","powerOffId":"2019092031020018"},{"poweroffId":2019092031020002,"sgpoweroffId":null,"subsName":"","lineName":"10kV随园H363线","pubTranName":"竹径茶语2-1#公变,竹径茶语2-2#公变,","scope":"浙江省-杭州市-余杭区-良渚街道竹径茶语一带","startTime":"2019-09-20 04:26:49","stopDate":"2019-09-20 11:30:45","orgNo":"3340140","typeCode":"电网故障停限电","poweroffArea":"110kV学里变:随园H363线-竹径3＃公变后段","poweroffReason":"高压开关跳闸 原停电结束时间为2019-09-20 10:00:45,因现场情况复杂原因,现变更停电结束时间为2019-09-20 11:30:45","powerTime":"2019-09-20 11:01:00","powerComm":"已送电","subsNo":"","lineNo":"","tgNo":"","tgName":null,"infoStatus":"1","orgName":"国网浙江杭州市余杭区供电有限公司","typeName":null,"infoStatusName":null,"dateDay":null,"orgNos":null,"nowTime":null,"countyName":null,"streetName":null,"villageName":null,"roadName":null,"communityName":null,"tranName":null,"sdLineName":null,"cityCode":"3340140","cityName":"国网浙江杭州市余杭区供电有限公司","provinceCode":null,"stopTime":"2019-09-20 11:30:45","powerType":"全部","powerOffArea":"110kV学里变:随园H363线-竹径3＃公变后段","powerOffReason":"高压开关跳闸 原停电结束时间为2019-09-20 10:00:45,因现场情况复杂原因,现变更停电结束时间为2019-09-20 11:30:45","powerOffId":"2019092031020002"}],"pageModel":{"pageNow":1094,"totalCount":17789,"totalPage":1779,"tableRows":0,"pageCount":10,"beginCount":10930},"isExperi":"1"}