{"message":"","today":"2020-06-16","seleList":[{"poweroffId":2019091831020136,"sgpoweroffId":null,"subsName":"","lineName":"10kV东源D339线","pubTranName":"众源村15号新东山畈公变,","scope":"浙江省-杭州市-富阳区-万市镇-众缘行政村(东山畈自然村,傅家自然村)","startTime":"2019-09-18 13:05:50","stopDate":"2019-09-18 16:00:50","orgNo":"3340170","typeCode":"电网故障停限电","poweroffArea":"110kV万市变:东源D339线-众源村15号新东山畈公变后段","poweroffReason":"(低压停电信息)低压开关跳闸","powerTime":"2019-09-18 15:45:27","powerComm":"已送电","subsNo":"","lineNo":"","tgNo":"","tgName":null,"infoStatus":"1","orgName":"国网浙江杭州市富阳区供电公司","typeName":null,"infoStatusName":null,"dateDay":null,"orgNos":null,"nowTime":null,"countyName":null,"streetName":null,"villageName":null,"roadName":null,"communityName":null,"tranName":null,"sdLineName":null,"cityCode":"3340170","cityName":"国网浙江杭州市富阳区供电公司","provinceCode":null,"stopTime":"2019-09-18 16:00:50","powerType":"全部","powerOffArea":"110kV万市变:东源D339线-众源村15号新东山畈公变后段","powerOffReason":"(低压停电信息)低压开关跳闸","powerOffId":"2019091831020136"},{"poweroffId":2019091831020114,"sgpoweroffId":null,"subsName":"","lineName":"10kV板桥H803线","pubTranName":"杭州海峡工具有限公司,金岭通信,依达印花,五常派出所,清海印务,","scope":"浙江省-杭州市-余杭区-五常街道-五常社区(杭州依达电脑印花有限公司,杭州同城企业管理有限公司,杭州海峡工具有限公司),五常街道(横板桥社区-杭州市公安局余杭区分局,荆山社区-杭州金岭通信电子元件有限公司)","startTime":"2019-09-18 11:11:00","stopDate":"2019-09-18 14:00:00","orgNo":"3340140","typeCode":"电网故障停限电","poweroffArea":"110kV油车变:板桥H803线-分线开关后段","poweroffReason":"高压开关跳闸","powerTime":"2019-09-18 13:12:00","powerComm":"已修复送电","subsNo":"","lineNo":"","tgNo":"","tgName":null,"infoStatus":"1","orgName":"国网浙江杭州市余杭区供电有限公司","typeName":null,"infoStatusName":null,"dateDay":null,"orgNos":null,"nowTime":null,"countyName":null,"streetName":null,"villageName":null,"roadName":null,"communityName":null,"tranName":null,"sdLineName":null,"cityCode":"3340140","cityName":"国网浙江杭州市余杭区供电有限公司","provinceCode":null,"stopTime":"2019-09-18 14:00:00","powerType":"全部","powerOffArea":"110kV油车变:板桥H803线-分线开关后段","powerOffReason":"高压开关跳闸","powerOffId":"2019091831020114"},{"poweroffId":2019091831020061,"sgpoweroffId":null,"subsName":"","lineName":"10kV云石C954线","pubTranName":"沈村5#变,","scope":"浙江省-杭州市-萧山区-戴村镇-沈村行政村-沈村自然村、浙江省杭州市萧山区戴村镇沈村行政村471号等一带","startTime":"2019-09-18 08:31:52","stopDate":"2019-09-18 10:10:52","orgNo":"3340130","typeCode":"电网故障停限电","poweroffArea":"110kV永兴变:云石C954线-沈村5#变台区低压开关","poweroffReason":"（低压停电信息）低压漏电保护器短路故障 原停电结束时间为2019-09-18 10:55:52,为减少客户停电时间,加快工作进度,提前送电,现变更停电结束时间为2019-09-18 10:10:52","powerTime":"2019-09-18 09:19:42","powerComm":"已送电","subsNo":"","lineNo":"","tgNo":"","tgName":null,"infoStatus":"1","orgName":"国网浙江杭州市萧山区供电有限公司","typeName":null,"infoStatusName":null,"dateDay":null,"orgNos":null,"nowTime":null,"countyName":null,"streetName":null,"villageName":null,"roadName":null,"communityName":null,"tranName":null,"sdLineName":null,"cityCode":"3340130","cityName":"国网浙江杭州市萧山区供电有限公司","provinceCode":null,"stopTime":"2019-09-18 10:10:52","powerType":"全部","powerOffArea":"110kV永兴变:云石C954线-沈村5#变台区低压开关","powerOffReason":"（低压停电信息）低压漏电保护器短路故障 原停电结束时间为2019-09-18 10:55:52,为减少客户停电时间,加快工作进度,提前送电,现变更停电结束时间为2019-09-18 10:10:52","powerOffId":"2019091831020061"},{"poweroffId":2019091831020059,"sgpoweroffId":null,"subsName":"","lineName":"10kV彭家D342线","pubTranName":"何家村6#朱坞里公变,","scope":"浙江省-杭州市-富阳区-万市镇-何家行政村(里朱坞自然村,金竹山自然村,何家自然村,外朱坞自然村)","startTime":"2019-09-18 08:52:46","stopDate":"2019-09-18 16:00:00","orgNo":"3340170","typeCode":"电网故障停限电","poweroffArea":"110kV万市变:彭家D342线-何家村6#朱坞里公变后段","poweroffReason":"(低压停电信息)低压开关跳闸","powerTime":"2019-09-18 15:11:06","powerComm":"已送电","subsNo":"","lineNo":"","tgNo":"","tgName":null,"infoStatus":"1","orgName":"国网浙江杭州市富阳区供电公司","typeName":null,"infoStatusName":null,"dateDay":null,"orgNos":null,"nowTime":null,"countyName":null,"streetName":null,"villageName":null,"roadName":null,"communityName":null,"tranName":null,"sdLineName":null,"cityCode":"3340170","cityName":"国网浙江杭州市富阳区供电公司","provinceCode":null,"stopTime":"2019-09-18 16:00:00","powerType":"全部","powerOffArea":"110kV万市变:彭家D342线-何家村6#朱坞里公变后段","powerOffReason":"(低压停电信息)低压开关跳闸","powerOffId":"2019091831020059"},{"poweroffId":2019091831020014,"sgpoweroffId":null,"subsName":"","lineName":"10kV下干D385线","pubTranName":"新绿村4#下南坞公变,新绿村1#刘村公变,1#主变,新绿村7#花园塘公变,常南村3号柳树湾公变,新绿村3号大角公变,双喜村9号村委公变,常南村1号罗坞公变,景山村3号牛峰岭公变,常南村4号上南坞公变,新绿村6#胡家公变,新绿村2#双江口公变,双喜村1#梅洲公变,新绿村5号下干公变,常南村2号洪家公变,","scope":"浙江省-杭州市-富阳区-常安镇-景山行政村-牛峰岭自然村,湖源乡-常南行政村(柳树弯自然村,罗坞自然村,洪家自然村,上南坞自然村),湖源乡-新绿行政村(双江口自然村,胡家自然村,下干自然村,花园塘自然村,刘村自然村,费家自然村,大角自然村),湖源乡(双喜行政村-梅洲自然村,新一行政村-小章村自然村);湖源乡-杭州富阳康树乐养护院有限公司","startTime":"2019-09-18 06:37:39","stopDate":"2019-09-18 08:29:00","orgNo":"3340170","typeCode":"电网故障停限电","poweroffArea":"35kV湖源变:下干D385线下干D3851开关后段","poweroffReason":"高压开关跳闸","powerTime":"2019-09-18 08:07:03","powerComm":"已送电","subsNo":"","lineNo":"","tgNo":"","tgName":null,"infoStatus":"1","orgName":"国网浙江杭州市富阳区供电公司","typeName":null,"infoStatusName":null,"dateDay":null,"orgNos":null,"nowTime":null,"countyName":null,"streetName":null,"villageName":null,"roadName":null,"communityName":null,"tranName":null,"sdLineName":null,"cityCode":"3340170","cityName":"国网浙江杭州市富阳区供电公司","provinceCode":null,"stopTime":"2019-09-18 08:29:00","powerType":"全部","powerOffArea":"35kV湖源变:下干D385线下干D3851开关后段","powerOffReason":"高压开关跳闸","powerOffId":"2019091831020014"},{"poweroffId":2019091831020007,"sgpoweroffId":null,"subsName":"","lineName":"10kV解百V216线","pubTranName":"茶机厂公变,气象局3#公变,滨江公寓1＃变,水建公寓公变,锦江公寓2#公变,滨江公寓2＃变,土管局公变,杭州临安远通电缆有限公司,气象局2#公变,苕溪电站,锦江公寓1#公变,临天六弄公变,气象局4#公变,州市临安区城市建设投资集团有限公司,锦江公寓3#公变,","scope":"浙江省-杭州市-临安市-锦城街道-万马社区-临天路,锦城街道-新民里社区(临天路,新民街),锦城街道-苕溪社区(临天八弄,临天路,临天九弄,苕溪南路,新民街,临天十弄);锦城街道(苕溪电站,宾江公寓、锦江公寓、水建公寓)","startTime":"2019-09-18 05:47:00","stopDate":"2019-09-18 09:33:00","orgNo":"3340160","typeCode":"电网故障停限电","poweroffArea":"110kV锦城变:解百V216线苕溪电站分线开关后段","poweroffReason":"高压开关跳闸","powerTime":"2019-09-18 09:20:30","powerComm":"已送电","subsNo":"","lineNo":"","tgNo":"","tgName":null,"infoStatus":"1","orgName":"国网浙江临安市供电公司","typeName":null,"infoStatusName":null,"dateDay":null,"orgNos":null,"nowTime":null,"countyName":null,"streetName":null,"villageName":null,"roadName":null,"communityName":null,"tranName":null,"sdLineName":null,"cityCode":"3340160","cityName":"国网浙江临安市供电公司","provinceCode":null,"stopTime":"2019-09-18 09:33:00","powerType":"全部","powerOffArea":"110kV锦城变:解百V216线苕溪电站分线开关后段","powerOffReason":"高压开关跳闸","powerOffId":"2019091831020007"},{"poweroffId":2019091831020006,"sgpoweroffId":null,"subsName":"","lineName":"10kV上练D713线","pubTranName":"新崤村2#闻家公变,白氏科技1#变,新崤村5#横溪公变,杭州海富植物有限公司,下练村7#白家东公变,里坞村1#留下公变,里坞村3#范家公变,富阳市岩石岭水库管理处,查岭村5#西珠潭公变,里坞村7#塘下公变,下练村5#闻家桥公变,上练村8#冷水坑公变,查岭村6#农居点公变,新崤村8#官塘公变,富阳林峰塑胶制品厂,新崤村1号赵家公变,富阳市凯鑫冲压件厂,下练村3#白家公变,新崤村7#外坞石公变,下练村8号村东公变,下练村1#三义祠公变,新崤村4号畈里公变,下练村6号虎山脚公变,杭州东仪纸业有限公司,钱潮临时变,海正药业(杭州)有限公司,海富植物1#变,上练村1#小溪口公变,富阳市超宝油漆有限公司,里坞村9号留下后山公变,顶宏包装印刷1#变,富阳市葛仙洞旅游开发有限公司,洞桥五金1#变,富阳步达水处理设备有限公司,杭州富阳钱潮建材有限公司,新崤村9#山脚跟公变,里坞村2号殿山公变,上练村3号接马头公变,上练村2#章家公变,查岭村3#新马路公变,里坞村8#新水库公变变压器间隔配电变压器,白氏科技2#变,下练村4#碧东坞公变,大钟纺织1#变,富阳市岩石岭水库管理处,下练村2#梅岭公变,上练村4#洗马潭公变,查岭村4#叠子山公变,里坞村5#石塘公变,新崤村3#弯子里公变,富阳富春桃源风景旅游开发有限公司,海正办公楼,胥口村4#泥塍头公变,杭州金竺机械有限公司,胥口政府1#变,查岭村2#堰坝头公变,新崤村6#蒋家公变,城投基建1#变,查岭村1#大岭公变,上练合作社1#变,","scope":"浙江省-杭州市-富阳区-胥口镇-棠棣行政村-汪家自然村,胥口镇-下练行政村(虎山脚自然村,碧东坞自然村,闻家桥自然村,白家自然村,三义祠自然村,梅岭自然村,凌家山自然村),胥口镇-胥口行政村(马家山自然村,泥塍头自然村,胥口自然村),胥口镇-新崤行政村(弯子里自然村,蒋家自然村,官塘自然村,畈里自然村,闻家自然村,胡家山自然村,山脚跟自然村,赵家自然村,外坞石自然村,横溪自然村),胥口镇-里坞行政村(殿山自然村,塘下自然村,范家自然村,留下自然村,杨家自然村,石塘自然村,水坞自然村),胥口镇-查岭行政村(堰坝头自然村,碟子山自然村,新马路自然村,查岭自然村,大岭自然村,西珠潭自然村),胥口镇-上练行政村(章家自然村,小溪口自然村,冷水坑自然村,洗马潭自然村,接马头自然村);胥口镇(杭州市富阳区岩石岭水库管理处,杭州富阳林峰塑胶制品厂,富阳市凯鑫冲压件厂,杭州富阳葛仙洞旅游开发有限公司,杭州富阳超宝油漆有限公司,海正药业(杭州)有限公司,杭州胥口南方水泥有限公司,杭州东仪纸业有限公司,杭州步达水处理设备有限公司,杭州富阳新登城镇建设投资集团有限公司,杭州大钟纺织有限公司,杭州富阳富春桃源风景旅游开发有限公司,杭州沁瑞包装有限公司,杭州海富植物有限公司,杭州金竺机械有限公司,杭州顶宏包装印刷有限公司)","startTime":"2019-09-18 05:38:25","stopDate":"2019-09-18 07:27:00","orgNo":"3340170","typeCode":"电网故障停限电","poweroffArea":"110kV松溪变:上练D713线上练D7136开关后段","poweroffReason":"高压开关跳闸","powerTime":"2019-09-18 06:34:52","powerComm":"已送电","subsNo":"","lineNo":"","tgNo":"","tgName":null,"infoStatus":"1","orgName":"国网浙江杭州市富阳区供电公司","typeName":null,"infoStatusName":null,"dateDay":null,"orgNos":null,"nowTime":null,"countyName":null,"streetName":null,"villageName":null,"roadName":null,"communityName":null,"tranName":null,"sdLineName":null,"cityCode":"3340170","cityName":"国网浙江杭州市富阳区供电公司","provinceCode":null,"stopTime":"2019-09-18 07:27:00","powerType":"全部","powerOffArea":"110kV松溪变:上练D713线上练D7136开关后段","powerOffReason":"高压开关跳闸","powerOffId":"2019091831020006"},{"poweroffId":2019091731020219,"sgpoweroffId":null,"subsName":"","lineName":"10kV汉塘T312线","pubTranName":"岩桥1号公变,","scope":"浙江省-杭州市-桐庐县-城南街道-下洋洲行政村-下洋洲自然村,城南街道-岩桥行政村(岩桥自然村,桥外自然村)","startTime":"2019-09-17 16:51:46","stopDate":"2019-09-17 19:50:46","orgNo":"3340150","typeCode":"电网故障停限电","poweroffArea":"110kV洋洲变:汉塘T312线-岩桥1号公变后段","poweroffReason":"高压开关跳闸","powerTime":"2019-09-17 19:38:43","powerComm":"已送电","subsNo":"","lineNo":"","tgNo":"","tgName":null,"infoStatus":"1","orgName":"国网浙江桐庐县供电公司","typeName":null,"infoStatusName":null,"dateDay":null,"orgNos":null,"nowTime":null,"countyName":null,"streetName":null,"villageName":null,"roadName":null,"communityName":null,"tranName":null,"sdLineName":null,"cityCode":"3340150","cityName":"国网浙江桐庐县供电公司","provinceCode":null,"stopTime":"2019-09-17 19:50:46","powerType":"全部","powerOffArea":"110kV洋洲变:汉塘T312线-岩桥1号公变后段","powerOffReason":"高压开关跳闸","powerOffId":"2019091731020219"},{"poweroffId":2019091731020197,"sgpoweroffId":null,"subsName":"","lineName":"10kV春华D205线","pubTranName":"青云桥村铁坞口5#公变,","scope":"浙江省-杭州市-富阳区-富春街道-青云桥行政村(青云桥自然村,铁坞口自然村)","startTime":"2019-09-17 15:42:28","stopDate":"2019-09-17 16:42:28","orgNo":"3340170","typeCode":"电网故障停限电","poweroffArea":"35kV大青变:春华D205线-青云桥村铁坞口5#公变后段","poweroffReason":"(低压停电信息)低压开关跳闸","powerTime":"2019-09-17 16:23:56","powerComm":"已送电","subsNo":"","lineNo":"","tgNo":"","tgName":null,"infoStatus":"1","orgName":"国网浙江杭州市富阳区供电公司","typeName":null,"infoStatusName":null,"dateDay":null,"orgNos":null,"nowTime":null,"countyName":null,"streetName":null,"villageName":null,"roadName":null,"communityName":null,"tranName":null,"sdLineName":null,"cityCode":"3340170","cityName":"国网浙江杭州市富阳区供电公司","provinceCode":null,"stopTime":"2019-09-17 16:42:28","powerType":"全部","powerOffArea":"35kV大青变:春华D205线-青云桥村铁坞口5#公变后段","powerOffReason":"(低压停电信息)低压开关跳闸","powerOffId":"2019091731020197"},{"poweroffId":2019091731020185,"sgpoweroffId":null,"subsName":"","lineName":"10kV山南C202线","pubTranName":"浙江兴南链条股份有限公司,青云铸钢,萧山市山南化纤织造厂,杭州畅志纺织品有限公司,杭州畅志纺织品有限公司,","scope":"浙江省-杭州市-萧山区-衙前镇-山南富行政村(杭州畅志纺织品有限公司,杭州启兴机械制造有限公司,杭州申嘉纺织有限公司,杭州青云控股集团有限公司)一带","startTime":"2019-09-17 15:18:16","stopDate":"2019-09-17 17:18:16","orgNo":"3340130","typeCode":"电网故障停限电","poweroffArea":"110kV翔凤变:山南C202线-山南C2022开关后段","poweroffReason":"外力破坏引起山南C202线高压柱上断路器短路故障","powerTime":"2019-09-17 16:51:01","powerComm":"全部送电","subsNo":"","lineNo":"","tgNo":"","tgName":null,"infoStatus":"1","orgName":"国网浙江杭州市萧山区供电有限公司","typeName":null,"infoStatusName":null,"dateDay":null,"orgNos":null,"nowTime":null,"countyName":null,"streetName":null,"villageName":null,"roadName":null,"communityName":null,"tranName":null,"sdLineName":null,"cityCode":"3340130","cityName":"国网浙江杭州市萧山区供电有限公司","provinceCode":null,"stopTime":"2019-09-17 17:18:16","powerType":"全部","powerOffArea":"110kV翔凤变:山南C202线-山南C2022开关后段","powerOffReason":"外力破坏引起山南C202线高压柱上断路器短路故障","powerOffId":"2019091731020185"}],"pageModel":{"pageNow":1098,"totalCount":17789,"totalPage":1779,"tableRows":0,"pageCount":10,"beginCount":10970},"isExperi":"1"}