{"message":"","today":"2020-06-16","seleList":[{"poweroffId":2019091731020148,"sgpoweroffId":null,"subsName":"","lineName":"10kV江村Y229线","pubTranName":"白沙社区汤家台区,","scope":"浙江省-杭州市-建德市-新安江街道 白沙社区 汤家自然村一带用户。","startTime":"2019-09-25 08:30:00","stopDate":"2019-09-25 11:00:00","orgNo":"3340180","typeCode":"计划停电","poweroffArea":"110kV白沙变:江村Y229线-白沙社区汤家台区令克后段","poweroffReason":"更楼0.4千伏汤家台区低压改造工程","powerTime":"2019-09-25 10:11:00","powerComm":"已送电","subsNo":"","lineNo":"","tgNo":"","tgName":null,"infoStatus":"1","orgName":"国网浙江建德市供电有限公司","typeName":null,"infoStatusName":null,"dateDay":null,"orgNos":null,"nowTime":null,"countyName":null,"streetName":null,"villageName":null,"roadName":null,"communityName":null,"tranName":null,"sdLineName":null,"cityCode":"3340180","cityName":"国网浙江建德市供电有限公司","provinceCode":null,"stopTime":"2019-09-25 11:00:00","powerType":"全部","powerOffArea":"110kV白沙变:江村Y229线-白沙社区汤家台区令克后段","powerOffReason":"更楼0.4千伏汤家台区低压改造工程","powerOffId":"2019091731020148"},{"poweroffId":2019091731020147,"sgpoweroffId":null,"subsName":"","lineName":"10kV管村Y678线","pubTranName":"管村村桥西台区,管村村平岗岭台区,三溪村三溪台区,上三溪台区,三溪村平岗坞台区,三溪村下三溪台区配变,三溪村坞洋苏台区,三溪村毛坞口台区,","scope":"浙江省-杭州市-建德市-大同镇 管村行政村桥西自然村、平岗岭自然村；李家镇三溪行政村平岗坞自然村、上三溪自然村、下三溪自然村、三溪自然村、毛坞口自然村、坞洋苏自然村等一带用户。","startTime":"2019-09-25 07:00:00","stopDate":"2019-09-25 09:30:00","orgNo":"3340180","typeCode":"计划停电","poweroffArea":"110kV大同变:管村Y678线-三溪支线1#杆开关后段","poweroffReason":"大同0.4千伏三溪台区低压改造工程","powerTime":"2019-09-25 09:06:00","powerComm":"已送电","subsNo":"","lineNo":"","tgNo":"","tgName":null,"infoStatus":"1","orgName":"国网浙江建德市供电有限公司","typeName":null,"infoStatusName":null,"dateDay":null,"orgNos":null,"nowTime":null,"countyName":null,"streetName":null,"villageName":null,"roadName":null,"communityName":null,"tranName":null,"sdLineName":null,"cityCode":"3340180","cityName":"国网浙江建德市供电有限公司","provinceCode":null,"stopTime":"2019-09-25 09:30:00","powerType":"全部","powerOffArea":"110kV大同变:管村Y678线-三溪支线1#杆开关后段","powerOffReason":"大同0.4千伏三溪台区低压改造工程","powerOffId":"2019091731020147"},{"poweroffId":2019091731020131,"sgpoweroffId":null,"subsName":"","lineName":"10kV程头Y138线","pubTranName":"乾潭镇黄立洋东台区,","scope":"浙江省-杭州市-建德市-乾潭镇-黄立洋工业园区樱花木门一带用户","startTime":"2019-09-17 13:24:00","stopDate":"2019-09-17 15:30:00","orgNo":"3340180","typeCode":"电网故障停限电","poweroffArea":"110kV乾潭变:程头Y138线-乾潭镇黄立洋东台区后段","poweroffReason":"(低压停电信息)低压开关跳闸","powerTime":"2019-09-17 14:40:00","powerComm":"已送电","subsNo":"","lineNo":"","tgNo":"","tgName":null,"infoStatus":"1","orgName":"国网浙江建德市供电有限公司","typeName":null,"infoStatusName":null,"dateDay":null,"orgNos":null,"nowTime":null,"countyName":null,"streetName":null,"villageName":null,"roadName":null,"communityName":null,"tranName":null,"sdLineName":null,"cityCode":"3340180","cityName":"国网浙江建德市供电有限公司","provinceCode":null,"stopTime":"2019-09-17 15:30:00","powerType":"全部","powerOffArea":"110kV乾潭变:程头Y138线-乾潭镇黄立洋东台区后段","powerOffReason":"(低压停电信息)低压开关跳闸","powerOffId":"2019091731020131"},{"poweroffId":2019091731020107,"sgpoweroffId":null,"subsName":"","lineName":"10kV明星D424线","pubTranName":"民建村1#东公变,民建村7号四八九公变,民建村6号邵家公变,民建村4#村中公变,民建村2号中公变,","scope":"浙江省-杭州市-富阳区-东洲街道-建华行政村-民建自然村","startTime":"2019-09-17 11:18:00","stopDate":"2019-09-17 16:18:00","orgNo":"3340170","typeCode":"电网故障停限电","poweroffArea":"110kV东洲变:明星D424线红星支线开关后段","poweroffReason":"高压开关跳闸原停电结束时间为2019-09-17 13:18:00,因抢修难度较大原因,现变更停电结束时间为2019-09-17 16:18:00","powerTime":"2019-09-17 16:03:21","powerComm":"已送电","subsNo":"","lineNo":"","tgNo":"","tgName":null,"infoStatus":"1","orgName":"国网浙江杭州市富阳区供电公司","typeName":null,"infoStatusName":null,"dateDay":null,"orgNos":null,"nowTime":null,"countyName":null,"streetName":null,"villageName":null,"roadName":null,"communityName":null,"tranName":null,"sdLineName":null,"cityCode":"3340170","cityName":"国网浙江杭州市富阳区供电公司","provinceCode":null,"stopTime":"2019-09-17 16:18:00","powerType":"全部","powerOffArea":"110kV东洲变:明星D424线红星支线开关后段","powerOffReason":"高压开关跳闸原停电结束时间为2019-09-17 13:18:00,因抢修难度较大原因,现变更停电结束时间为2019-09-17 16:18:00","powerOffId":"2019091731020107"},{"poweroffId":2019091731020091,"sgpoweroffId":null,"subsName":"","lineName":"10kV浙龙D977线","pubTranName":"栖溪苑2#公变,","scope":"浙江省-杭州市-富阳区-银湖街道-大庄行政村(大庄自然村,九龙大道)","startTime":"2019-09-17 10:07:48","stopDate":"2019-09-17 11:07:48","orgNo":"3340170","typeCode":"电网故障停限电","poweroffArea":"110kV九龙变:浙龙D977线-栖溪苑2#公变后段","poweroffReason":"高压开关跳闸","powerTime":"2019-09-17 10:14:28","powerComm":"已送电","subsNo":"","lineNo":"","tgNo":"","tgName":null,"infoStatus":"1","orgName":"国网浙江杭州市富阳区供电公司","typeName":null,"infoStatusName":null,"dateDay":null,"orgNos":null,"nowTime":null,"countyName":null,"streetName":null,"villageName":null,"roadName":null,"communityName":null,"tranName":null,"sdLineName":null,"cityCode":"3340170","cityName":"国网浙江杭州市富阳区供电公司","provinceCode":null,"stopTime":"2019-09-17 11:07:48","powerType":"全部","powerOffArea":"110kV九龙变:浙龙D977线-栖溪苑2#公变后段","powerOffReason":"高压开关跳闸","powerOffId":"2019091731020091"},{"poweroffId":2019091731020090,"sgpoweroffId":null,"subsName":"","lineName":"10kV翔宇C195线","pubTranName":"杭州萧山国琴纺织有限公司,衙前集镇10#变,四翔村1#变,市政园林16#,1#,杭州晨露化纤有限公司,航球纺织,四翔村2#变,衙前集镇9#变,杭州佳港化纤有限公司,变压器,衙前集镇3#变,凤凰纺织1#,凤凰纺织2#,杭州旺卓纺织有限公司,","scope":"浙江省-杭州市-萧山区-衙前镇-凤凰行政村(凤凰自然村,新华路,农贸路,衙前路,芝华路),衙前镇-四翔行政村(河西南路,河东北路,四村自然村,河东南路,河西北路,张家埭中路),衙前镇-毕公桥社区(,农协路,永乐桥路,永乐路,新华路,老街路,芝华路,农贸路,之华路);浙江省-杭州市-萧山区-衙前镇-凤凰行政村-杭州萧山凤凰纺织有限公司,衙前镇-明华行政村(杭州澳帕针织有限公司,杭州旺卓纺织有限公司,杭州佳港化纤有限公司,杭州黄雯英宾馆酒店用品有限公司),衙前镇-四翔行政村(杭州萧山国琴纺织有限公司,杭州航球纺织有限公司,杭州市萧山区市政绿化养护保障中心,杭州晨露化纤有限公司),凤凰行政村农贸路自华公寓,明华村,凤凰村文化路17号,四翔行政村四村片河东南路15-1号,四翔行政村四村片，衙前镇风声大酒店前，凤凰行政村衙前路172号一带","startTime":"2019-09-17 10:04:48","stopDate":"2019-09-17 14:30:48","orgNo":"3340130","typeCode":"电网故障停限电","poweroffArea":"110kV翔凤变:翔宇C195线-翔宇C195线开关后段","poweroffReason":"外力破坏引起翔宇C195线高压柱上断路器短路故障 原停电结束时间为2019-09-17 13:00:48,因抢修工作难度大原因,现变更停电结束时间为2019-09-17 14:30:48","powerTime":"2019-09-17 13:55:28","powerComm":"全部送电","subsNo":"","lineNo":"","tgNo":"","tgName":null,"infoStatus":"1","orgName":"国网浙江杭州市萧山区供电有限公司","typeName":null,"infoStatusName":null,"dateDay":null,"orgNos":null,"nowTime":null,"countyName":null,"streetName":null,"villageName":null,"roadName":null,"communityName":null,"tranName":null,"sdLineName":null,"cityCode":"3340130","cityName":"国网浙江杭州市萧山区供电有限公司","provinceCode":null,"stopTime":"2019-09-17 14:30:48","powerType":"全部","powerOffArea":"110kV翔凤变:翔宇C195线-翔宇C195线开关后段","powerOffReason":"外力破坏引起翔宇C195线高压柱上断路器短路故障 原停电结束时间为2019-09-17 13:00:48,因抢修工作难度大原因,现变更停电结束时间为2019-09-17 14:30:48","powerOffId":"2019091731020090"},{"poweroffId":2019091731020089,"sgpoweroffId":null,"subsName":"","lineName":"10kV独山G137线","pubTranName":"龙旋村莫家浜变,","scope":"浙江省-杭州市-余杭区-崇贤街道-龙旋行政村(213县道,莫家浜自然村)一带","startTime":"2019-09-17 10:04:00","stopDate":"2019-09-17 12:04:00","orgNo":"3340140","typeCode":"电网故障停限电","poweroffArea":"35kV沾桥变:独山G137线-龙旋村莫家浜变后段","poweroffReason":"(低压停电信息)低压开关跳闸","powerTime":"2019-09-17 12:02:00","powerComm":"已送电","subsNo":"","lineNo":"","tgNo":"","tgName":null,"infoStatus":"1","orgName":"国网浙江杭州市余杭区供电有限公司","typeName":null,"infoStatusName":null,"dateDay":null,"orgNos":null,"nowTime":null,"countyName":null,"streetName":null,"villageName":null,"roadName":null,"communityName":null,"tranName":null,"sdLineName":null,"cityCode":"3340140","cityName":"国网浙江杭州市余杭区供电有限公司","provinceCode":null,"stopTime":"2019-09-17 12:04:00","powerType":"全部","powerOffArea":"35kV沾桥变:独山G137线-龙旋村莫家浜变后段","powerOffReason":"(低压停电信息)低压开关跳闸","powerOffId":"2019091731020089"},{"poweroffId":2019091731020059,"sgpoweroffId":null,"subsName":"","lineName":"10kV东藩C639线","pubTranName":"东藩小区6#公变,东藩小区5#公变,东藩小区4#公变,东藩小区7#公变,东藩小区3#公变,","scope":"浙江省-杭州市-萧山区-临浦镇(蔡东藩社区-人民路,石塔社区-浴美施路,东藩社区-人民路,东麓池社区-东藩路)一带","startTime":"2019-09-17 08:56:00","stopDate":"2019-09-17 10:56:00","orgNo":"3340130","typeCode":"电网故障停限电","poweroffArea":"110kV临浦变:东藩C639线万安I开万安I开G13备用一线后段","poweroffReason":"高压开关跳闸","powerTime":"2019-09-17 10:14:05","powerComm":"已送电","subsNo":"","lineNo":"","tgNo":"","tgName":null,"infoStatus":"1","orgName":"国网浙江杭州市萧山区供电有限公司","typeName":null,"infoStatusName":null,"dateDay":null,"orgNos":null,"nowTime":null,"countyName":null,"streetName":null,"villageName":null,"roadName":null,"communityName":null,"tranName":null,"sdLineName":null,"cityCode":"3340130","cityName":"国网浙江杭州市萧山区供电有限公司","provinceCode":null,"stopTime":"2019-09-17 10:56:00","powerType":"全部","powerOffArea":"110kV临浦变:东藩C639线万安I开万安I开G13备用一线后段","powerOffReason":"高压开关跳闸","powerOffId":"2019091731020059"},{"poweroffId":2019091731020055,"sgpoweroffId":null,"subsName":"","lineName":"10kV新桐D411线","pubTranName":"程坟村1#下埠头公变,","scope":"浙江省-杭州市-富阳区-新桐乡-程浦行政村-程坟自然村","startTime":"2019-09-17 08:57:32","stopDate":"2019-09-17 12:00:32","orgNo":"3340170","typeCode":"电网故障停限电","poweroffArea":"110kV长春变:新桐D411线-程坟村1#下埠头公变后段","poweroffReason":"(低压停电信息)低压开关跳闸","powerTime":"2019-09-17 11:05:18","powerComm":"已送电","subsNo":"","lineNo":"","tgNo":"","tgName":null,"infoStatus":"1","orgName":"国网浙江杭州市富阳区供电公司","typeName":null,"infoStatusName":null,"dateDay":null,"orgNos":null,"nowTime":null,"countyName":null,"streetName":null,"villageName":null,"roadName":null,"communityName":null,"tranName":null,"sdLineName":null,"cityCode":"3340170","cityName":"国网浙江杭州市富阳区供电公司","provinceCode":null,"stopTime":"2019-09-17 12:00:32","powerType":"全部","powerOffArea":"110kV长春变:新桐D411线-程坟村1#下埠头公变后段","powerOffReason":"(低压停电信息)低压开关跳闸","powerOffId":"2019091731020055"},{"poweroffId":2019091731020003,"sgpoweroffId":null,"subsName":"","lineName":"10kV大岭8867线","pubTranName":"轻塑,外桐经,外桐(四),外桐(六),邮工,外桐(二),外桐(一),变压器2,变压器1,外桐坞村,外桐(三),合肥,养生充,大岭(一),转基二,外桐(五),唐家一变,","scope":"浙江省-杭州市-西湖区-转塘街道-大清社区(清谷路),转塘街道(外桐坞社区-龙坞社区-葛衙庄);转塘街道(杭州中商重型商用车轴科技有限公司,浙江省邮电工程建设有限公司,浙江弘道科技有限公司,转塘社区-杭州之江国家旅游度假区基础设施建设开发中心,外桐坞社区-杭州龙坞茶镇茶叶有限公司,杭州之江经营管理集团有限公司)","startTime":"2019-09-17 00:06:47","stopDate":"2019-09-17 02:00:47","orgNo":"3340101","typeCode":"电网故障停限电","poweroffArea":"110kV留下变:大岭8867线汇合分线","poweroffReason":"高压开关跳闸 原停电结束时间为2019-09-17 07:06:47,为减少客户停电时间,加快工作进度,提前送电,现变更停电结束时间为2019-09-17 02:00:47","powerTime":"2019-09-17 01:07:46","powerComm":"已送电","subsNo":"","lineNo":"","tgNo":"","tgName":null,"infoStatus":"1","orgName":"浙江杭州电力客户服务中心","typeName":null,"infoStatusName":null,"dateDay":null,"orgNos":null,"nowTime":null,"countyName":null,"streetName":null,"villageName":null,"roadName":null,"communityName":null,"tranName":null,"sdLineName":null,"cityCode":"3340101","cityName":"浙江杭州电力客户服务中心","provinceCode":null,"stopTime":"2019-09-17 02:00:47","powerType":"全部","powerOffArea":"110kV留下变:大岭8867线汇合分线","powerOffReason":"高压开关跳闸 原停电结束时间为2019-09-17 07:06:47,为减少客户停电时间,加快工作进度,提前送电,现变更停电结束时间为2019-09-17 02:00:47","powerOffId":"2019091731020003"}],"pageModel":{"pageNow":1099,"totalCount":17789,"totalPage":1779,"tableRows":0,"pageCount":10,"beginCount":10980},"isExperi":"1"}