{"message":"","today":"2020-06-15","seleList":[{"poweroffId":2020052231020840,"sgpoweroffId":null,"subsName":"","lineName":"10kV汽南D312线","pubTranName":"6#变,","scope":"浙江省-杭州市-富阳区-春江街道-民主行政村-杭州富阳江南国际商城有限公司一带","startTime":"2020-06-03 05:40:00","stopDate":"2020-06-03 20:00:00","orgNo":"3340170","typeCode":"计划停电","poweroffArea":"110kV建设变:汽南D312线-江南商贸城分线开关后段","poweroffReason":"配合用户内部检修 原停电结束时间为2020-06-03 16:00:00,因政策原因,延迟送电,现变更停电结束时间为2020-06-03 20:00:00","powerTime":"2020-06-03 19:57:23","powerComm":"已送电","subsNo":"","lineNo":"","tgNo":"","tgName":null,"infoStatus":"1","orgName":"国网浙江杭州市富阳区供电公司","typeName":null,"infoStatusName":null,"dateDay":null,"orgNos":null,"nowTime":null,"countyName":null,"streetName":null,"villageName":null,"roadName":null,"communityName":null,"tranName":null,"sdLineName":null,"cityCode":"3340170","cityName":"国网浙江杭州市富阳区供电公司","provinceCode":null,"stopTime":"2020-06-03 20:00:00","powerType":"全部","powerOffArea":"110kV建设变:汽南D312线-江南商贸城分线开关后段","powerOffReason":"配合用户内部检修 原停电结束时间为2020-06-03 16:00:00,因政策原因,延迟送电,现变更停电结束时间为2020-06-03 20:00:00","powerOffId":"2020052231020840"},{"poweroffId":2020052231020838,"sgpoweroffId":null,"subsName":"","lineName":"10kV红火D673线","pubTranName":"杭州富阳永乐造纸厂1号变,","scope":"浙江省-杭州市-富阳区-春江街道-临江行政村-杭州富阳永乐造纸厂","startTime":"2020-06-03 06:00:00","stopDate":"2020-06-03 20:00:00","orgNo":"3340170","typeCode":"计划停电","poweroffArea":"110kV临江变:红火D673线-富阳市永乐造纸厂开关后段","poweroffReason":"配合用户内部检修 原停电结束时间为2020-06-03 16:00:00,因政策原因,延迟送电,现变更停电结束时间为2020-06-03 20:00:00","powerTime":"2020-06-03 19:50:46","powerComm":"已送电","subsNo":"","lineNo":"","tgNo":"","tgName":null,"infoStatus":"1","orgName":"国网浙江杭州市富阳区供电公司","typeName":null,"infoStatusName":null,"dateDay":null,"orgNos":null,"nowTime":null,"countyName":null,"streetName":null,"villageName":null,"roadName":null,"communityName":null,"tranName":null,"sdLineName":null,"cityCode":"3340170","cityName":"国网浙江杭州市富阳区供电公司","provinceCode":null,"stopTime":"2020-06-03 20:00:00","powerType":"全部","powerOffArea":"110kV临江变:红火D673线-富阳市永乐造纸厂开关后段","powerOffReason":"配合用户内部检修 原停电结束时间为2020-06-03 16:00:00,因政策原因,延迟送电,现变更停电结束时间为2020-06-03 20:00:00","powerOffId":"2020052231020838"},{"poweroffId":2020052231020837,"sgpoweroffId":null,"subsName":"","lineName":"10kV汽南D312线","pubTranName":"浙江交工集团股份有限公司富阳分公司1号基建变,","scope":"浙江省-杭州市-富阳区-春江街道-民主行政村-浙江交工集团股份有限公司富阳分公司","startTime":"2020-06-03 06:20:00","stopDate":"2020-06-03 20:00:00","orgNo":"3340170","typeCode":"计划停电","poweroffArea":"110kV建设变:汽南D312线-浙江交工集团股份有限公司富阳分公司开关后段","poweroffReason":"配合用户内部检修 原停电结束时间为2020-06-03 16:00:00,因政策原因,延迟送电,现变更停电结束时间为2020-06-03 20:00:00","powerTime":"2020-06-03 19:58:07","powerComm":"已送电","subsNo":"","lineNo":"","tgNo":"","tgName":null,"infoStatus":"1","orgName":"国网浙江杭州市富阳区供电公司","typeName":null,"infoStatusName":null,"dateDay":null,"orgNos":null,"nowTime":null,"countyName":null,"streetName":null,"villageName":null,"roadName":null,"communityName":null,"tranName":null,"sdLineName":null,"cityCode":"3340170","cityName":"国网浙江杭州市富阳区供电公司","provinceCode":null,"stopTime":"2020-06-03 20:00:00","powerType":"全部","powerOffArea":"110kV建设变:汽南D312线-浙江交工集团股份有限公司富阳分公司开关后段","powerOffReason":"配合用户内部检修 原停电结束时间为2020-06-03 16:00:00,因政策原因,延迟送电,现变更停电结束时间为2020-06-03 20:00:00","powerOffId":"2020052231020837"},{"poweroffId":2020052231020836,"sgpoweroffId":null,"subsName":"","lineName":"10kV红火D673线","pubTranName":"华共村4#超市公变,","scope":"浙江省-杭州市-富阳区-春江街道-临江行政村-华共自然村一带","startTime":"2020-06-03 07:00:00","stopDate":"2020-06-03 08:00:00","orgNo":"3340170","typeCode":"计划停电","poweroffArea":"110kV临江变:红火D673线-华共村4#超市公变开关后段","poweroffReason":"江南大道电力线路迁改工程一期：配合华共村4#超市公变负荷转供至0.4kV发电车短时停电。","powerTime":"2020-06-03 07:42:04","powerComm":"已送电","subsNo":"","lineNo":"","tgNo":"","tgName":null,"infoStatus":"1","orgName":"国网浙江杭州市富阳区供电公司","typeName":null,"infoStatusName":null,"dateDay":null,"orgNos":null,"nowTime":null,"countyName":null,"streetName":null,"villageName":null,"roadName":null,"communityName":null,"tranName":null,"sdLineName":null,"cityCode":"3340170","cityName":"国网浙江杭州市富阳区供电公司","provinceCode":null,"stopTime":"2020-06-03 08:00:00","powerType":"全部","powerOffArea":"110kV临江变:红火D673线-华共村4#超市公变开关后段","powerOffReason":"江南大道电力线路迁改工程一期：配合华共村4#超市公变负荷转供至0.4kV发电车短时停电。","powerOffId":"2020052231020836"},{"poweroffId":2020052231020832,"sgpoweroffId":null,"subsName":"","lineName":"10kV星河G814线","pubTranName":"运河镇章家河村罗梗坝3号,","scope":"浙江省-杭州市-余杭区-东湖街道：章家河村罗梗坝一带","startTime":"2020-06-01 08:30:00","stopDate":"2020-06-01 16:30:00","orgNo":"3340140","typeCode":"计划停电","poweroffArea":"110kV建富变:星河G814线-运河镇章家河村罗梗坝3号后段","poweroffReason":"(低压停电信息)配网工程（2020年杭州余杭东湖街道0.4千伏章家河村罗梗坝公变等配变台区改造工程）：章家河罗梗坝3#公变新出电缆1根、新放集束线4档、新放导线1档、新章家河罗梗坝7#公变新出电缆2根及开耐张2处","powerTime":"2020-06-01 16:00:46","powerComm":"已送电","subsNo":"","lineNo":"","tgNo":"","tgName":null,"infoStatus":"1","orgName":"国网浙江杭州市余杭区供电有限公司","typeName":null,"infoStatusName":null,"dateDay":null,"orgNos":null,"nowTime":null,"countyName":null,"streetName":null,"villageName":null,"roadName":null,"communityName":null,"tranName":null,"sdLineName":null,"cityCode":"3340140","cityName":"国网浙江杭州市余杭区供电有限公司","provinceCode":null,"stopTime":"2020-06-01 16:30:00","powerType":"全部","powerOffArea":"110kV建富变:星河G814线-运河镇章家河村罗梗坝3号后段","powerOffReason":"(低压停电信息)配网工程（2020年杭州余杭东湖街道0.4千伏章家河村罗梗坝公变等配变台区改造工程）：章家河罗梗坝3#公变新出电缆1根、新放集束线4档、新放导线1档、新章家河罗梗坝7#公变新出电缆2根及开耐张2处","powerOffId":"2020052231020832"},{"poweroffId":2020052231020830,"sgpoweroffId":null,"subsName":"","lineName":"10kV东村D501线","pubTranName":"东村坞1号村中公变,","scope":"浙江省-杭州市-富阳区-常安镇-东村坞一带","startTime":"2020-06-04 08:30:00","stopDate":"2020-06-04 16:10:00","orgNo":"3340170","typeCode":"计划停电","poweroffArea":"110kV常安变:东村D501线-东村坞1号村中公变低压开关后段","poweroffReason":"(低压停电信息)装横担、做拉线、架线、线路改接、接户线改接等工作；","powerTime":"2020-06-04 15:50:30","powerComm":"已送电","subsNo":"","lineNo":"","tgNo":"","tgName":null,"infoStatus":"1","orgName":"国网浙江杭州市富阳区供电公司","typeName":null,"infoStatusName":null,"dateDay":null,"orgNos":null,"nowTime":null,"countyName":null,"streetName":null,"villageName":null,"roadName":null,"communityName":null,"tranName":null,"sdLineName":null,"cityCode":"3340170","cityName":"国网浙江杭州市富阳区供电公司","provinceCode":null,"stopTime":"2020-06-04 16:10:00","powerType":"全部","powerOffArea":"110kV常安变:东村D501线-东村坞1号村中公变低压开关后段","powerOffReason":"(低压停电信息)装横担、做拉线、架线、线路改接、接户线改接等工作；","powerOffId":"2020052231020830"},{"poweroffId":2020052231020829,"sgpoweroffId":null,"subsName":"","lineName":"10kV东兴D560线","pubTranName":"杭州市富阳区公路管理段,","scope":"浙江省-杭州市-富阳区-富春街道-虎山社区-杭州市富阳区公路管理部","startTime":"2020-06-05 08:30:00","stopDate":"2020-06-05 16:30:00","orgNo":"3340170","typeCode":"计划停电","poweroffArea":"110kV春江变:东兴D560线-杭州市富阳区公路管理段后段","poweroffReason":"青云2020年缺陷处理工程：树线矛盾停电集中整治","powerTime":"2020-06-05 16:20:18","powerComm":"已送电","subsNo":"","lineNo":"","tgNo":"","tgName":null,"infoStatus":"1","orgName":"国网浙江杭州市富阳区供电公司","typeName":null,"infoStatusName":null,"dateDay":null,"orgNos":null,"nowTime":null,"countyName":null,"streetName":null,"villageName":null,"roadName":null,"communityName":null,"tranName":null,"sdLineName":null,"cityCode":"3340170","cityName":"国网浙江杭州市富阳区供电公司","provinceCode":null,"stopTime":"2020-06-05 16:30:00","powerType":"全部","powerOffArea":"110kV春江变:东兴D560线-杭州市富阳区公路管理段后段","powerOffReason":"青云2020年缺陷处理工程：树线矛盾停电集中整治","powerOffId":"2020052231020829"},{"poweroffId":2020052231020826,"sgpoweroffId":null,"subsName":"","lineName":"10kV悦墅D987线","pubTranName":"金汇之星6号公变,","scope":"浙江省-杭州市-富阳区-富春街道-金秋社区金浦路388号金汇之星北侧公厕一带","startTime":"2020-05-25 10:20:00","stopDate":"2020-05-25 11:40:00","orgNo":"3340170","typeCode":"临时停电","poweroffArea":"110kV育才变:悦墅D987线-金汇之星6号公变后段","poweroffReason":"(低压停电信息)金汇之星6号公变3#开关金浦路388号金汇之星北侧公厕（杭州富阳城建集团城市基础设施建设有限公司6620268959）单相表1只及搭接工作。","powerTime":"2020-05-25 11:27:40","powerComm":"已送电","subsNo":"","lineNo":"","tgNo":"","tgName":null,"infoStatus":"1","orgName":"国网浙江杭州市富阳区供电公司","typeName":null,"infoStatusName":null,"dateDay":null,"orgNos":null,"nowTime":null,"countyName":null,"streetName":null,"villageName":null,"roadName":null,"communityName":null,"tranName":null,"sdLineName":null,"cityCode":"3340170","cityName":"国网浙江杭州市富阳区供电公司","provinceCode":null,"stopTime":"2020-05-25 11:40:00","powerType":"全部","powerOffArea":"110kV育才变:悦墅D987线-金汇之星6号公变后段","powerOffReason":"(低压停电信息)金汇之星6号公变3#开关金浦路388号金汇之星北侧公厕（杭州富阳城建集团城市基础设施建设有限公司6620268959）单相表1只及搭接工作。","powerOffId":"2020052231020826"},{"poweroffId":2020052231020823,"sgpoweroffId":null,"subsName":"","lineName":"10kV中光D555线","pubTranName":"虎山村汪家3号公变,","scope":"浙江省-杭州市-富阳区-富春街道-虎山社区公望街7号隧道口一带","startTime":"2020-05-25 08:30:00","stopDate":"2020-05-25 10:10:00","orgNo":"3340170","typeCode":"临时停电","poweroffArea":"110kV春江变:中光D555线-虎山村汪家3号公变后段","poweroffReason":"(低压停电信息)虎山村汪家3号公变1#开关1#出线公望街7号隧道口（中国电信股份有限公司富阳分公司6620268962）三相表1只及电缆搭接工作。","powerTime":"2020-05-25 10:00:09","powerComm":"已送电","subsNo":"","lineNo":"","tgNo":"","tgName":null,"infoStatus":"1","orgName":"国网浙江杭州市富阳区供电公司","typeName":null,"infoStatusName":null,"dateDay":null,"orgNos":null,"nowTime":null,"countyName":null,"streetName":null,"villageName":null,"roadName":null,"communityName":null,"tranName":null,"sdLineName":null,"cityCode":"3340170","cityName":"国网浙江杭州市富阳区供电公司","provinceCode":null,"stopTime":"2020-05-25 10:10:00","powerType":"全部","powerOffArea":"110kV春江变:中光D555线-虎山村汪家3号公变后段","powerOffReason":"(低压停电信息)虎山村汪家3号公变1#开关1#出线公望街7号隧道口（中国电信股份有限公司富阳分公司6620268962）三相表1只及电缆搭接工作。","powerOffId":"2020052231020823"},{"poweroffId":2020052231020820,"sgpoweroffId":null,"subsName":"","lineName":"10kV于合Y160线","pubTranName":"许乐村长地台区,","scope":"浙江省-杭州市-建德市-更楼街道 许乐行政村 长地自然村区域用户。","startTime":"2020-06-03 08:30:00","stopDate":"2020-06-03 10:30:00","orgNo":"3340180","typeCode":"计划停电","poweroffArea":"110kV更楼变:于合Y160线-长地支线0#杆令克后段","poweroffReason":"配合许乐村长地台区电缆缺陷处理","powerTime":"2020-06-03 09:55:00","powerComm":"已送电","subsNo":"","lineNo":"","tgNo":"","tgName":null,"infoStatus":"1","orgName":"国网浙江建德市供电有限公司","typeName":null,"infoStatusName":null,"dateDay":null,"orgNos":null,"nowTime":null,"countyName":null,"streetName":null,"villageName":null,"roadName":null,"communityName":null,"tranName":null,"sdLineName":null,"cityCode":"3340180","cityName":"国网浙江建德市供电有限公司","provinceCode":null,"stopTime":"2020-06-03 10:30:00","powerType":"全部","powerOffArea":"110kV更楼变:于合Y160线-长地支线0#杆令克后段","powerOffReason":"配合许乐村长地台区电缆缺陷处理","powerOffId":"2020052231020820"}],"pageModel":{"pageNow":111,"totalCount":17786,"totalPage":1779,"tableRows":0,"pageCount":10,"beginCount":1100},"isExperi":"1"}