{"message":"","today":"2020-06-16","seleList":[{"poweroffId":2019091631020070,"sgpoweroffId":null,"subsName":"","lineName":"10kV东村A488线","pubTranName":"益农村7#变,益农村6#变,杭州科宝钢业有限公司,益农村1#变,益农村8#变,益农村10#变,益农村9#变,益农村14#变,杭州三超建材有限公司,益农村2#变,杭州润意特洁具有限公司,","scope":"浙江省-杭州市-萧山区-益农镇-东村行政村-东村自然村,益农镇-益农行政村(益农自然村,小埠头自然村);浙江省-杭州市-萧山区-益农镇-东江行政村-杭州科宝钢业有限公司,益农镇-益农行政村、杭州润意特洁具有限公司,杭州三超建材有限公司一带","startTime":"2019-09-16 09:15:41","stopDate":"2019-09-16 11:30:41","orgNo":"3340130","typeCode":"电网故障停限电","poweroffArea":"110kV群围变:东村A488线-东村A488线科宝分线开关（自）后段","poweroffReason":"高压柱上断路器短路故障 原停电结束时间:2019-09-16 12:30:03,变更停电结束时间:2019-09-16 11:30:03。由于抢修工作提前完成,故需要提前送电。","powerTime":"2019-09-16 10:40:19","powerComm":"已送电","subsNo":"","lineNo":"","tgNo":"","tgName":null,"infoStatus":"1","orgName":"国网浙江杭州市萧山区供电有限公司","typeName":null,"infoStatusName":null,"dateDay":null,"orgNos":null,"nowTime":null,"countyName":null,"streetName":null,"villageName":null,"roadName":null,"communityName":null,"tranName":null,"sdLineName":null,"cityCode":"3340130","cityName":"国网浙江杭州市萧山区供电有限公司","provinceCode":null,"stopTime":"2019-09-16 11:30:41","powerType":"全部","powerOffArea":"110kV群围变:东村A488线-东村A488线科宝分线开关（自）后段","powerOffReason":"高压柱上断路器短路故障 原停电结束时间:2019-09-16 12:30:03,变更停电结束时间:2019-09-16 11:30:03。由于抢修工作提前完成,故需要提前送电。","powerOffId":"2019091631020070"},{"poweroffId":2019091631020067,"sgpoweroffId":null,"subsName":"","lineName":"10kV光昌R186线","pubTranName":"临岐塘边村奎星桥公变,","scope":"浙江省-杭州市-淳安县-左口乡(塘边行政村-奎星桥自然村,龙源庄行政村-奎星桥自然村)","startTime":"2019-09-20 08:00:00","stopDate":"2019-09-20 11:00:00","orgNo":"3340190","typeCode":"临时停电","poweroffArea":"35kV临岐变:光昌R186线-临岐塘边村奎星桥公变后段","poweroffReason":"光昌R186线奎新桥台区配变更换","powerTime":"2019-09-20 10:24:38","powerComm":"已送电","subsNo":"","lineNo":"","tgNo":"","tgName":null,"infoStatus":"1","orgName":"国网浙江淳安县供电有限公司","typeName":null,"infoStatusName":null,"dateDay":null,"orgNos":null,"nowTime":null,"countyName":null,"streetName":null,"villageName":null,"roadName":null,"communityName":null,"tranName":null,"sdLineName":null,"cityCode":"3340190","cityName":"国网浙江淳安县供电有限公司","provinceCode":null,"stopTime":"2019-09-20 11:00:00","powerType":"全部","powerOffArea":"35kV临岐变:光昌R186线-临岐塘边村奎星桥公变后段","powerOffReason":"光昌R186线奎新桥台区配变更换","powerOffId":"2019091631020067"},{"poweroffId":2019091631020060,"sgpoweroffId":null,"subsName":"","lineName":"10kV雅马L005线","pubTranName":"嘉利公寓1#公变,","scope":"浙江省-杭州市-萧山区、宁围镇、宁围街道-经济技术开发区-市北社区-建设二路、宁税路、通惠北路、万向路、嘉利公寓、生生物业等一带","startTime":"2019-09-16 09:14:31","stopDate":"2019-09-16 12:16:31","orgNo":"3340130","typeCode":"电网故障停限电","poweroffArea":"35kV市北变:雅马L005线-嘉利公寓1#公变台区低压开关","poweroffReason":"(低压停电信息)低压漏电保护器短路故障 原停电结束时间：2019-09-16 13:30:31，变更停电结束时间：2019-09-16 12:16:31，由于增派人员，抢修工作提前完成，故需要提前送电。","powerTime":"2019-09-16 11:22:35","powerComm":"已送电","subsNo":"","lineNo":"","tgNo":"","tgName":null,"infoStatus":"1","orgName":"国网浙江杭州市萧山区供电有限公司","typeName":null,"infoStatusName":null,"dateDay":null,"orgNos":null,"nowTime":null,"countyName":null,"streetName":null,"villageName":null,"roadName":null,"communityName":null,"tranName":null,"sdLineName":null,"cityCode":"3340130","cityName":"国网浙江杭州市萧山区供电有限公司","provinceCode":null,"stopTime":"2019-09-16 12:16:31","powerType":"全部","powerOffArea":"35kV市北变:雅马L005线-嘉利公寓1#公变台区低压开关","powerOffReason":"(低压停电信息)低压漏电保护器短路故障 原停电结束时间：2019-09-16 13:30:31，变更停电结束时间：2019-09-16 12:16:31，由于增派人员，抢修工作提前完成，故需要提前送电。","powerOffId":"2019091631020060"},{"poweroffId":2019091631020019,"sgpoweroffId":null,"subsName":"","lineName":"10kV友耐A399线","pubTranName":"盈二村6#变,钱江农场四连,瑞晟物业（名扬阁）,盈二村14#变,瑞晟物业（名扬阁）,杭州泰定机械有限公司,新北村12#变,新北村24#变,建宏商品,盈二村3#变,新北村15#变,盈二村27#变,新北村7#变,新北村16#变,新北村14#变,","scope":"浙江省-杭州市-萧山区-宁围镇、宁围街道(盈二行政村-盈二自然村,二桥行政村-新北自然村,新安行政村-新安自然村,盈一行政村-盈一自然村,新华行政村-新华自然村);浙江省-杭州市-萧山区-宁围街道-二桥行政村-杭州泰定机械有限公司,经济技术开发区-钱江社区(浙江卓越物业服务有限公司,浙江萧山建宏商品混凝土有限责任公司,杭州瑞晟物业服务有限公司)等一带","startTime":"2019-09-16 07:24:25","stopDate":"2019-09-16 11:33:25","orgNo":"3340130","typeCode":"电网故障停限电","poweroffArea":"110kV顺坝变:友耐A399线","poweroffReason":"高压柱上断路器短路故障 原停电结束时间：12:50:25，变更停电结束时间：11:33:25，由于增派人员，抢修工作提前完成，故需要提前送电。","powerTime":"2019-09-16 10:46:15","powerComm":"已送电","subsNo":"","lineNo":"","tgNo":"","tgName":null,"infoStatus":"1","orgName":"国网浙江杭州市萧山区供电有限公司","typeName":null,"infoStatusName":null,"dateDay":null,"orgNos":null,"nowTime":null,"countyName":null,"streetName":null,"villageName":null,"roadName":null,"communityName":null,"tranName":null,"sdLineName":null,"cityCode":"3340130","cityName":"国网浙江杭州市萧山区供电有限公司","provinceCode":null,"stopTime":"2019-09-16 11:33:25","powerType":"全部","powerOffArea":"110kV顺坝变:友耐A399线","powerOffReason":"高压柱上断路器短路故障 原停电结束时间：12:50:25，变更停电结束时间：11:33:25，由于增派人员，抢修工作提前完成，故需要提前送电。","powerOffId":"2019091631020019"},{"poweroffId":2019091631020007,"sgpoweroffId":null,"subsName":"","lineName":"10kV东村A488线","pubTranName":"益农村7#变,","scope":"浙江省-杭州市-萧山区-益农镇-益农行政村(益农自然村,小埠头自然村)、益农村一带","startTime":"2019-09-16 06:34:03","stopDate":"2019-09-16 11:30:03","orgNo":"3340130","typeCode":"电网故障停限电","poweroffArea":"110kV群围变:东村A488线-益农村7#变台区低压开关","poweroffReason":"(低压停电信息)低压熔断器短路故障 原停电结束时间:2019-09-16 12:30:03,变更停电结束时间:2019-09-16 11:30:03。由于抢修工作提前完成,故需要提前送电。","powerTime":"2019-09-16 10:40:19","powerComm":"已送电","subsNo":"","lineNo":"","tgNo":"","tgName":null,"infoStatus":"1","orgName":"国网浙江杭州市萧山区供电有限公司","typeName":null,"infoStatusName":null,"dateDay":null,"orgNos":null,"nowTime":null,"countyName":null,"streetName":null,"villageName":null,"roadName":null,"communityName":null,"tranName":null,"sdLineName":null,"cityCode":"3340130","cityName":"国网浙江杭州市萧山区供电有限公司","provinceCode":null,"stopTime":"2019-09-16 11:30:03","powerType":"全部","powerOffArea":"110kV群围变:东村A488线-益农村7#变台区低压开关","powerOffReason":"(低压停电信息)低压熔断器短路故障 原停电结束时间:2019-09-16 12:30:03,变更停电结束时间:2019-09-16 11:30:03。由于抢修工作提前完成,故需要提前送电。","powerOffId":"2019091631020007"},{"poweroffId":2019091531020199,"sgpoweroffId":null,"subsName":"","lineName":"10kV新林A909线","pubTranName":"杭州清渊塑业包装有限公司,杭州伟宏化纤纺织有限公司,杭州胜霸化工有限公司,变压器,1#,2#,","scope":"浙江省-杭州市-萧山区-新塘街道-娄下陈行政村-杭州清渊塑业包装有限公司,衙前镇-南庄王行政村(杭州名扬模架有限公司,杭州胜霸化工有限公司,杭州邦球纺织有限公司,杭州伟宏化纤纺织股份有限公司)","startTime":"2019-09-23 09:00:00","stopDate":"2019-09-23 15:00:00","orgNo":"3340130","typeCode":"计划停电","poweroffArea":"110kV新明变:新林A909线","poweroffReason":"新林A909线01/02#杆和01/03#杆直线杆改耐张杆，耐张开断","powerTime":"2019-09-23 14:36:09","powerComm":"已送电","subsNo":"","lineNo":"","tgNo":"","tgName":null,"infoStatus":"1","orgName":"国网浙江杭州市萧山区供电有限公司","typeName":null,"infoStatusName":null,"dateDay":null,"orgNos":null,"nowTime":null,"countyName":null,"streetName":null,"villageName":null,"roadName":null,"communityName":null,"tranName":null,"sdLineName":null,"cityCode":"3340130","cityName":"国网浙江杭州市萧山区供电有限公司","provinceCode":null,"stopTime":"2019-09-23 15:00:00","powerType":"全部","powerOffArea":"110kV新明变:新林A909线","powerOffReason":"新林A909线01/02#杆和01/03#杆直线杆改耐张杆，耐张开断","powerOffId":"2019091531020199"},{"poweroffId":2019091531020195,"sgpoweroffId":null,"subsName":"","lineName":"10kV蚕宣9118线","pubTranName":"宣家（4-2）农,宣家(3-4)农,宣家(2-4)农,宣家（2-2）农,宣家（4-1）农,宣家(2-3)农,宣幼,宣家(2-1)农,宣家(4)农,宣家（3-3）农,宣家(3-1)农,天惠,绿波,宣家(3)农,宣家(2)农,宣家(3-2)农,","scope":"浙江省-杭州市-江干区(九堡街道-宣家埠社区-九横路,九堡镇-格畈社区-九横路);九堡镇(杭州绿波工贸有限公司,浙江天惠保健品有限公司,杭州市江干区九堡镇人民政府)","startTime":"2019-09-15 22:13:45","stopDate":"2019-09-16 01:42:45","orgNo":"3340101","typeCode":"电网故障停限电","poweroffArea":"110kV蚕桑变:蚕宣9118线首端，7801，7681之间","poweroffReason":"高压开关跳闸 原停电结束时间为2019-09-16 04:13:45,为减少客户停电时间,加快工作进度,提前送电,现变更停电结束时间为2019-09-16 01:42:45","powerTime":"2019-09-16 01:02:11","powerComm":"送电","subsNo":"","lineNo":"","tgNo":"","tgName":null,"infoStatus":"1","orgName":"浙江杭州电力客户服务中心","typeName":null,"infoStatusName":null,"dateDay":null,"orgNos":null,"nowTime":null,"countyName":null,"streetName":null,"villageName":null,"roadName":null,"communityName":null,"tranName":null,"sdLineName":null,"cityCode":"3340101","cityName":"浙江杭州电力客户服务中心","provinceCode":null,"stopTime":"2019-09-16 01:42:45","powerType":"全部","powerOffArea":"110kV蚕桑变:蚕宣9118线首端，7801，7681之间","powerOffReason":"高压开关跳闸 原停电结束时间为2019-09-16 04:13:45,为减少客户停电时间,加快工作进度,提前送电,现变更停电结束时间为2019-09-16 01:42:45","powerOffId":"2019091531020195"},{"poweroffId":2019091531020177,"sgpoweroffId":null,"subsName":"","lineName":"10kV陆桥H788线","pubTranName":"万景村鱼家角公变,","scope":"浙江省-杭州市-余杭区-闲林街道-华丰行政村-茹家桥南自然村,闲林街道-万景行政村(万景自然村,吴家角自然村)一带","startTime":"2019-09-15 18:06:00","stopDate":"2019-09-15 20:06:00","orgNo":"3340140","typeCode":"电网故障停限电","poweroffArea":"110kV仓前变:陆桥H788线-万景村鱼家角公变后段","poweroffReason":"(低压停电信息)低压开关跳闸","powerTime":"2019-09-15 19:16:00","powerComm":"已送电","subsNo":"","lineNo":"","tgNo":"","tgName":null,"infoStatus":"1","orgName":"国网浙江杭州市余杭区供电有限公司","typeName":null,"infoStatusName":null,"dateDay":null,"orgNos":null,"nowTime":null,"countyName":null,"streetName":null,"villageName":null,"roadName":null,"communityName":null,"tranName":null,"sdLineName":null,"cityCode":"3340140","cityName":"国网浙江杭州市余杭区供电有限公司","provinceCode":null,"stopTime":"2019-09-15 20:06:00","powerType":"全部","powerOffArea":"110kV仓前变:陆桥H788线-万景村鱼家角公变后段","powerOffReason":"(低压停电信息)低压开关跳闸","powerOffId":"2019091531020177"},{"poweroffId":2019091531020171,"sgpoweroffId":null,"subsName":"","lineName":"10kV青龙508线","pubTranName":"建设村5#变,杰阳纺织涂层,天然气公司01#,三联村3#变,三联村2#变,百合花集团2#,三联村10#变,三联村8#变,文伟村6#变,朱氏卫浴,中石油,宏伟铸造厂,百合花集团1#,三联村7#变,建设村20#变,赢通塑料制品,文伟村7#变,三联村13#变,范豪布业,雄信轴承厂,歌山建设二,三联村12#变,江东大桥,三联村14#变,三联村11#变,闸北村16#变,三联村9#变,南阳街道办事处1#,歌山建设01#,水利管理所1#,建设村12#变,三联村1#变,三联村15#变,水利工程管理01#,三联村5#变,鸿发五金,福南化工,天然气,樱花涂料厂,舒乐化工,南阳岩峰山场,搪瓷配件厂,田盛金属01#,","scope":"浙江省-杭州市-萧山区-河庄街道(建设行政村-建设自然村,闸北行政村-闸北自然村,三联行政村-三联自然村,文伟行政村-文伟自然村);河庄街道-建设行政村(杭州雄信轴承有限公司,杭州萧山鸿发五金厂,歌山建设集团有限公司),河庄街道-文伟行政村(杭州百合房地产开发有限公司,杭州江东大桥建设发展有限公司),河庄街道-三联行政村(中石油管道有限责任公司西气东输分公司,杭州范豪布业有限公司,浙江省天然气开发有限公司,歌山建设集团有限公司),南阳街道-岩峰行政村(杭州福南化工有限公司,杭州南阳樱花涂料有限公司,杭州萧山南阳岩峰山场,杭州萧山搪瓷配件厂,杭州朱氏卫浴有限公司,杭州杰阳纺织涂层有限公司,杭州炜赢实业有限公司),南阳街道-龙虎行政村(杭州舒乐化工有限公司,杭州萧山田盛金属制品有限公司,杭州宏伟铸造厂),河庄街道-杭州天然气有限公司,围垦垦区-一工段片区-杭州大江东产业集聚区水利工程管理所,南阳街道-横蓬行政村-杭州市萧山区人民政府南阳街道办事处","startTime":"2019-09-24 15:30:00","stopDate":"2019-09-24 16:00:00","orgNo":"3340120","typeCode":"计划停电","poweroffArea":"35kV永丰变:青龙508线","poweroffReason":"配合青龙508线倒负荷工作","powerTime":"2019-09-24 15:38:26","powerComm":"已送电","subsNo":"","lineNo":"","tgNo":"","tgName":null,"infoStatus":"1","orgName":"国网浙江杭州市钱塘新区供电公司","typeName":null,"infoStatusName":null,"dateDay":null,"orgNos":null,"nowTime":null,"countyName":null,"streetName":null,"villageName":null,"roadName":null,"communityName":null,"tranName":null,"sdLineName":null,"cityCode":"3340120","cityName":"国网浙江杭州市钱塘新区供电公司","provinceCode":null,"stopTime":"2019-09-24 16:00:00","powerType":"全部","powerOffArea":"35kV永丰变:青龙508线","powerOffReason":"配合青龙508线倒负荷工作","powerOffId":"2019091531020171"},{"poweroffId":2019091531020170,"sgpoweroffId":null,"subsName":"","lineName":"10kV青龙508线","pubTranName":"三联村15#变,歌山建设二,赢通塑料制品,三联村2#变,三联村3#变,三联村8#变,三联村1#变,三联村11#变,歌山建设01#,百合花集团2#,中石油,樱花涂料厂,三联村5#变,朱氏卫浴,文伟村7#变,雄信轴承厂,天然气公司01#,江东大桥,三联村12#变,舒乐化工,福南化工,建设村20#变,南阳街道办事处1#,水利工程管理01#,三联村9#变,文伟村6#变,建设村12#变,宏伟铸造厂,杰阳纺织涂层,搪瓷配件厂,水利管理所1#,南阳岩峰山场,闸北村16#变,建设村5#变,三联村14#变,三联村7#变,百合花集团1#,田盛金属01#,天然气,范豪布业,三联村13#变,鸿发五金,三联村10#变,","scope":"浙江省-杭州市-萧山区-河庄街道(建设行政村-建设自然村,闸北行政村-闸北自然村,三联行政村-三联自然村,文伟行政村-文伟自然村);河庄街道-建设行政村(杭州雄信轴承有限公司,杭州萧山鸿发五金厂,歌山建设集团有限公司),河庄街道-文伟行政村(杭州百合房地产开发有限公司,杭州江东大桥建设发展有限公司),河庄街道-三联行政村(中石油管道有限责任公司西气东输分公司,杭州范豪布业有限公司,浙江省天然气开发有限公司,歌山建设集团有限公司),南阳街道-岩峰行政村(杭州福南化工有限公司,杭州南阳樱花涂料有限公司,杭州萧山南阳岩峰山场,杭州萧山搪瓷配件厂,杭州朱氏卫浴有限公司,杭州杰阳纺织涂层有限公司,杭州炜赢实业有限公司),南阳街道-龙虎行政村(杭州舒乐化工有限公司,杭州萧山田盛金属制品有限公司,杭州宏伟铸造厂),河庄街道-杭州天然气有限公司,围垦垦区-一工段片区-杭州大江东产业集聚区水利工程管理所,南阳街道-横蓬行政村-杭州市萧山区人民政府南阳街道办事处","startTime":"2019-09-24 09:00:00","stopDate":"2019-09-24 09:30:00","orgNo":"3340120","typeCode":"计划停电","poweroffArea":"35kV永丰变:青龙508线","poweroffReason":"配合青龙508线倒负荷工作","powerTime":"2019-09-24 09:16:53","powerComm":"已送电","subsNo":"","lineNo":"","tgNo":"","tgName":null,"infoStatus":"1","orgName":"国网浙江杭州市钱塘新区供电公司","typeName":null,"infoStatusName":null,"dateDay":null,"orgNos":null,"nowTime":null,"countyName":null,"streetName":null,"villageName":null,"roadName":null,"communityName":null,"tranName":null,"sdLineName":null,"cityCode":"3340120","cityName":"国网浙江杭州市钱塘新区供电公司","provinceCode":null,"stopTime":"2019-09-24 09:30:00","powerType":"全部","powerOffArea":"35kV永丰变:青龙508线","powerOffReason":"配合青龙508线倒负荷工作","powerOffId":"2019091531020170"}],"pageModel":{"pageNow":1102,"totalCount":17789,"totalPage":1779,"tableRows":0,"pageCount":10,"beginCount":11010},"isExperi":"1"}