{"message":"","today":"2020-06-16","seleList":[{"poweroffId":2019091531020169,"sgpoweroffId":null,"subsName":"","lineName":"10kV前染963线","pubTranName":"新峰村1#变,","scope":"浙江省-杭州市-萧山区-前进街道-临江行政村-新峰自然村","startTime":"2019-09-23 09:00:00","stopDate":"2019-09-23 17:30:00","orgNo":"3340120","typeCode":"计划停电","poweroffArea":"110kV前进变:前染963线-新峰村1#变后段","poweroffReason":"(低压停电信息)新峰村1#变低压台区改造","powerTime":"2019-09-23 16:35:03","powerComm":"已送电","subsNo":"","lineNo":"","tgNo":"","tgName":null,"infoStatus":"1","orgName":"国网浙江杭州市钱塘新区供电公司","typeName":null,"infoStatusName":null,"dateDay":null,"orgNos":null,"nowTime":null,"countyName":null,"streetName":null,"villageName":null,"roadName":null,"communityName":null,"tranName":null,"sdLineName":null,"cityCode":"3340120","cityName":"国网浙江杭州市钱塘新区供电公司","provinceCode":null,"stopTime":"2019-09-23 17:30:00","powerType":"全部","powerOffArea":"110kV前进变:前染963线-新峰村1#变后段","powerOffReason":"(低压停电信息)新峰村1#变低压台区改造","powerOffId":"2019091531020169"},{"poweroffId":2019091531020164,"sgpoweroffId":null,"subsName":"","lineName":"10kV汇锦V327线","pubTranName":"南苑小区4＃公变,南苑小区7#公变,","scope":"浙江省-杭州市-临安市-锦城街道-南苑小区一带","startTime":"2019-09-23 07:10:00","stopDate":"2019-09-23 17:00:00","orgNo":"3340160","typeCode":"计划停电","poweroffArea":"110kV锦南变:汇锦V327线南苑小区4＃公变；南苑小区7#公变低压总闸刀后段","poweroffReason":"(低压停电信息)上改下割接","powerTime":"2019-09-23 16:50:12","powerComm":"已送电","subsNo":"","lineNo":"","tgNo":"","tgName":null,"infoStatus":"1","orgName":"国网浙江临安市供电公司","typeName":null,"infoStatusName":null,"dateDay":null,"orgNos":null,"nowTime":null,"countyName":null,"streetName":null,"villageName":null,"roadName":null,"communityName":null,"tranName":null,"sdLineName":null,"cityCode":"3340160","cityName":"国网浙江临安市供电公司","provinceCode":null,"stopTime":"2019-09-23 17:00:00","powerType":"全部","powerOffArea":"110kV锦南变:汇锦V327线南苑小区4＃公变；南苑小区7#公变低压总闸刀后段","powerOffReason":"(低压停电信息)上改下割接","powerOffId":"2019091531020164"},{"poweroffId":2019091531020163,"sgpoweroffId":null,"subsName":"","lineName":"10kV汇锦V327线","pubTranName":"南苑小区5＃公变,南苑小区6＃公变,","scope":"浙江省-杭州市-临安市-锦城街道-南苑小区一带","startTime":"2019-09-24 07:10:00","stopDate":"2019-09-24 17:00:00","orgNo":"3340160","typeCode":"计划停电","poweroffArea":"110kV锦南变:汇锦V327线-南苑小区分线07#南苑小区5#公变;汇锦V327线-南苑小区分线10#南苑小区6#公变低压总闸刀后段","poweroffReason":"(低压停电信息)线路改造","powerTime":"2019-09-24 16:50:30","powerComm":"已送电","subsNo":"","lineNo":"","tgNo":"","tgName":null,"infoStatus":"1","orgName":"国网浙江临安市供电公司","typeName":null,"infoStatusName":null,"dateDay":null,"orgNos":null,"nowTime":null,"countyName":null,"streetName":null,"villageName":null,"roadName":null,"communityName":null,"tranName":null,"sdLineName":null,"cityCode":"3340160","cityName":"国网浙江临安市供电公司","provinceCode":null,"stopTime":"2019-09-24 17:00:00","powerType":"全部","powerOffArea":"110kV锦南变:汇锦V327线-南苑小区分线07#南苑小区5#公变;汇锦V327线-南苑小区分线10#南苑小区6#公变低压总闸刀后段","powerOffReason":"(低压停电信息)线路改造","powerOffId":"2019091531020163"},{"poweroffId":2019091531020156,"sgpoweroffId":null,"subsName":"","lineName":"10kV钱安357线","pubTranName":"钱江安置小区10#箱变,钱江安置小区9#箱变,","scope":"浙江省-杭州市-萧山区-河庄街道-向前行政村-向前自然村","startTime":"2019-09-17 08:30:00","stopDate":"2019-09-17 19:00:00","orgNo":"3340120","typeCode":"计划停电","poweroffArea":"110kV河庄变:钱安357线-安置五线后段;钱安357线-钱江安置五线后段","poweroffReason":"钱江安置小区9#美变、钱江安置小区10#美变更换为欧变 原停电结束时间为2019-09-17 17:30:00,因工作量大原因,现变更停电结束时间为2019-09-17 19:00:00","powerTime":"2019-09-17 18:43:50","powerComm":"已送电","subsNo":"","lineNo":"","tgNo":"","tgName":null,"infoStatus":"1","orgName":"国网浙江杭州市钱塘新区供电公司","typeName":null,"infoStatusName":null,"dateDay":null,"orgNos":null,"nowTime":null,"countyName":null,"streetName":null,"villageName":null,"roadName":null,"communityName":null,"tranName":null,"sdLineName":null,"cityCode":"3340120","cityName":"国网浙江杭州市钱塘新区供电公司","provinceCode":null,"stopTime":"2019-09-17 19:00:00","powerType":"全部","powerOffArea":"110kV河庄变:钱安357线-安置五线后段;钱安357线-钱江安置五线后段","powerOffReason":"钱江安置小区9#美变、钱江安置小区10#美变更换为欧变 原停电结束时间为2019-09-17 17:30:00,因工作量大原因,现变更停电结束时间为2019-09-17 19:00:00","powerOffId":"2019091531020156"},{"poweroffId":2019091531020155,"sgpoweroffId":null,"subsName":"","lineName":"10kV蜀南345线","pubTranName":"同一村1#变,","scope":"浙江省-杭州市-萧山区-河庄街道-同一行政村-同一自然村","startTime":"2019-09-16 09:00:00","stopDate":"2019-09-16 14:30:00","orgNo":"3340120","typeCode":"计划停电","poweroffArea":"110kV河庄变:蜀南345线-同一村1#变后段","poweroffReason":"(低压停电信息)同一村1#变低压割接至同一村19#变 原停电结束时间为2019-09-16 16:30:00,为减少客户停电时间,加快工作进度,提前送电,现变更停电结束时间为2019-09-16 14:30:00","powerTime":"2019-09-16 14:17:15","powerComm":"已送电","subsNo":"","lineNo":"","tgNo":"","tgName":null,"infoStatus":"1","orgName":"国网浙江杭州市钱塘新区供电公司","typeName":null,"infoStatusName":null,"dateDay":null,"orgNos":null,"nowTime":null,"countyName":null,"streetName":null,"villageName":null,"roadName":null,"communityName":null,"tranName":null,"sdLineName":null,"cityCode":"3340120","cityName":"国网浙江杭州市钱塘新区供电公司","provinceCode":null,"stopTime":"2019-09-16 14:30:00","powerType":"全部","powerOffArea":"110kV河庄变:蜀南345线-同一村1#变后段","powerOffReason":"(低压停电信息)同一村1#变低压割接至同一村19#变 原停电结束时间为2019-09-16 16:30:00,为减少客户停电时间,加快工作进度,提前送电,现变更停电结束时间为2019-09-16 14:30:00","powerOffId":"2019091531020155"},{"poweroffId":2019091531020154,"sgpoweroffId":null,"subsName":"","lineName":"10kV向公347线","pubTranName":"新和村11#变,","scope":"浙江省-杭州市-萧山区-河庄街道-新和行政村-新和自然村","startTime":"2019-09-20 09:00:00","stopDate":"2019-09-20 17:30:00","orgNo":"3340120","typeCode":"计划停电","poweroffArea":"110kV河庄变:向公347线-新和村11#变后段","poweroffReason":"(低压停电信息)向公347线线路迁改工作 原停电结束时间为2019-09-20 16:30:00,因工作量较大原因,现变更停电结束时间为2019-09-20 17:30:00","powerTime":"2019-09-20 16:35:44","powerComm":"已送电","subsNo":"","lineNo":"","tgNo":"","tgName":null,"infoStatus":"1","orgName":"国网浙江杭州市钱塘新区供电公司","typeName":null,"infoStatusName":null,"dateDay":null,"orgNos":null,"nowTime":null,"countyName":null,"streetName":null,"villageName":null,"roadName":null,"communityName":null,"tranName":null,"sdLineName":null,"cityCode":"3340120","cityName":"国网浙江杭州市钱塘新区供电公司","provinceCode":null,"stopTime":"2019-09-20 17:30:00","powerType":"全部","powerOffArea":"110kV河庄变:向公347线-新和村11#变后段","powerOffReason":"(低压停电信息)向公347线线路迁改工作 原停电结束时间为2019-09-20 16:30:00,因工作量较大原因,现变更停电结束时间为2019-09-20 17:30:00","powerOffId":"2019091531020154"},{"poweroffId":2019091531020152,"sgpoweroffId":null,"subsName":"","lineName":"10kV梅海975线","pubTranName":"东海村2#变,","scope":"浙江省-杭州市-萧山区-临江街道-萧东行政村-东海自然村","startTime":"2019-09-18 09:00:00","stopDate":"2019-09-18 15:00:00","orgNo":"3340120","typeCode":"计划停电","poweroffArea":"110kV前进变:梅海975线-东海村2#变后段","poweroffReason":"东海村2#变低压配电屏更换 原停电结束时间为2019-09-18 17:30:00,为减少客户停电时间,加快工作进度,提前送电,现变更停电结束时间为2019-09-18 15:00:00","powerTime":"2019-09-18 14:41:35","powerComm":"已送电","subsNo":"","lineNo":"","tgNo":"","tgName":null,"infoStatus":"1","orgName":"国网浙江杭州市钱塘新区供电公司","typeName":null,"infoStatusName":null,"dateDay":null,"orgNos":null,"nowTime":null,"countyName":null,"streetName":null,"villageName":null,"roadName":null,"communityName":null,"tranName":null,"sdLineName":null,"cityCode":"3340120","cityName":"国网浙江杭州市钱塘新区供电公司","provinceCode":null,"stopTime":"2019-09-18 15:00:00","powerType":"全部","powerOffArea":"110kV前进变:梅海975线-东海村2#变后段","powerOffReason":"东海村2#变低压配电屏更换 原停电结束时间为2019-09-18 17:30:00,为减少客户停电时间,加快工作进度,提前送电,现变更停电结束时间为2019-09-18 15:00:00","powerOffId":"2019091531020152"},{"poweroffId":2019091531020151,"sgpoweroffId":null,"subsName":"","lineName":"10kV钱安357线","pubTranName":"钱安安置一配变,钱江安置二十配变,蜀南二配变,钱江安置六配变,钱江安置十五配变,钱江安置十一配变,钱江安置三配变,钱江安置五配变,钱江安置8#变,钱安安置二配变,蜀南三配变,钱江安置二十一配变,钱江安置十二配变,钱民花苑18#箱变,钱江安置小区7#箱变,钱江安置十三配变,钱民花苑17#箱变,钱江安置四配变,钱江安置十四配变,钱民花苑16#箱变,蜀南一配变,钱民花苑19#箱变,","scope":"浙江省-杭州市-萧山区-河庄街道-蜀南行政村(蜀南自然村,河庄大道),河庄街道(群建行政村-群建自然村,群欢行政村-群欢自然村、向红行政村-向红自然村,向前行政村-向前自然村)","startTime":"2019-09-18 13:00:00","stopDate":"2019-09-18 13:30:00","orgNo":"3340120","typeCode":"计划停电","poweroffArea":"110kV河庄变:钱安357线","poweroffReason":"配合110kV河庄变钱安357线电缆改迁倒负荷。 原停电结束时间为2019-09-17 19:00:00,因用户原因,现变更停电结束时间为2019-09-18 13:30:00","powerTime":"2019-09-18 13:22:33","powerComm":"已送电","subsNo":"","lineNo":"","tgNo":"","tgName":null,"infoStatus":"1","orgName":"国网浙江杭州市钱塘新区供电公司","typeName":null,"infoStatusName":null,"dateDay":null,"orgNos":null,"nowTime":null,"countyName":null,"streetName":null,"villageName":null,"roadName":null,"communityName":null,"tranName":null,"sdLineName":null,"cityCode":"3340120","cityName":"国网浙江杭州市钱塘新区供电公司","provinceCode":null,"stopTime":"2019-09-18 13:30:00","powerType":"全部","powerOffArea":"110kV河庄变:钱安357线","powerOffReason":"配合110kV河庄变钱安357线电缆改迁倒负荷。 原停电结束时间为2019-09-17 19:00:00,因用户原因,现变更停电结束时间为2019-09-18 13:30:00","powerOffId":"2019091531020151"},{"poweroffId":2019091531020150,"sgpoweroffId":null,"subsName":"","lineName":"10kV钱安357线","pubTranName":"钱江安置三配变,钱江安置四配变,钱江安置小区7#箱变,钱民花苑18#箱变,钱江安置十二配变,钱民花苑19#箱变,蜀南二配变,钱江安置五配变,蜀南三配变,钱民花苑16#箱变,钱江安置十一配变,钱江安置十四配变,钱民花苑17#箱变,钱江安置8#变,钱江安置六配变,钱江安置十三配变,蜀南一配变,钱安安置二配变,钱江安置十五配变,钱安安置一配变,钱江安置二十配变,钱江安置二十一配变,","scope":"浙江省-杭州市-萧山区-河庄街道-蜀南行政村(蜀南自然村,河庄大道),河庄街道(群建行政村-群建自然村,群欢行政村-群欢自然村、向红行政村-向红自然村,向前行政村-向前自然村)","startTime":"2019-09-17 09:15:00","stopDate":"2019-09-17 09:45:00","orgNo":"3340120","typeCode":"计划停电","poweroffArea":"110kV河庄变:钱安357线","poweroffReason":"配合110kV河庄变10kV钱安357线倒负荷工作 原停电结束时间为2019-09-17 09:15:00,因围墙围住开关站原因,现变更停电结束时间为2019-09-17 09:45:00","powerTime":"2019-09-17 09:22:22","powerComm":"已送电","subsNo":"","lineNo":"","tgNo":"","tgName":null,"infoStatus":"1","orgName":"国网浙江杭州市钱塘新区供电公司","typeName":null,"infoStatusName":null,"dateDay":null,"orgNos":null,"nowTime":null,"countyName":null,"streetName":null,"villageName":null,"roadName":null,"communityName":null,"tranName":null,"sdLineName":null,"cityCode":"3340120","cityName":"国网浙江杭州市钱塘新区供电公司","provinceCode":null,"stopTime":"2019-09-17 09:45:00","powerType":"全部","powerOffArea":"110kV河庄变:钱安357线","powerOffReason":"配合110kV河庄变10kV钱安357线倒负荷工作 原停电结束时间为2019-09-17 09:15:00,因围墙围住开关站原因,现变更停电结束时间为2019-09-17 09:45:00","powerOffId":"2019091531020150"},{"poweroffId":2019091531020149,"sgpoweroffId":null,"subsName":"","lineName":"10kV安小T278线","pubTranName":"孙黄家村1号公变,","scope":"浙江省-杭州市-桐庐县-江南镇-窄溪行政村-孙家自然村,江南镇-锦江行政村(黄家自然村,五联姚家坞自然村,五联胡家坞自然村)","startTime":"2019-09-15 16:19:46","stopDate":"2019-09-15 17:30:46","orgNo":"3340150","typeCode":"电网故障停限电","poweroffArea":"110kV石阜变:安小T278线-孙黄家村1号公变后段","poweroffReason":"(低压停电信息)低压开关跳闸","powerTime":"2019-09-15 17:09:37","powerComm":"已送电。","subsNo":"","lineNo":"","tgNo":"","tgName":null,"infoStatus":"1","orgName":"国网浙江桐庐县供电公司","typeName":null,"infoStatusName":null,"dateDay":null,"orgNos":null,"nowTime":null,"countyName":null,"streetName":null,"villageName":null,"roadName":null,"communityName":null,"tranName":null,"sdLineName":null,"cityCode":"3340150","cityName":"国网浙江桐庐县供电公司","provinceCode":null,"stopTime":"2019-09-15 17:30:46","powerType":"全部","powerOffArea":"110kV石阜变:安小T278线-孙黄家村1号公变后段","powerOffReason":"(低压停电信息)低压开关跳闸","powerOffId":"2019091531020149"}],"pageModel":{"pageNow":1103,"totalCount":17789,"totalPage":1779,"tableRows":0,"pageCount":10,"beginCount":11020},"isExperi":"1"}