{"message":"","today":"2020-06-16","seleList":[{"poweroffId":2019091531020020,"sgpoweroffId":null,"subsName":"","lineName":"10kV绪塘Y157线","pubTranName":"建德市农科开发服务有限公司,杭州晓东电器有限公司,杭州盛泰乳胶有限公司,1#变,杨村桥村大湾脚台区,建德市下涯新市砖瓦厂,建德市机关事务管理局,梓源村洪洞坞台区变压器间隔配电变压器,梓源村狮子山台区变压器,杭州畅达休闲用品有限公司,绪塘村螺丝湾台区,乌驹市村毛家塘台区,浙江省建德市永丽彩印厂,1#,梓源村草莓广场台区,高新技术产业园管委会1#变,绪塘村绪塘变台区,华宇悦府4号公变,乌驹市村长塘台区,绪塘村考里台区,乌驹市村宋明塘台区,中国石油化工股份有限公司浙江杭州石油分公司,小垅里台区,建德市新盛木制品有限公司,建德市寿昌成龙钢材拉丝厂,站前广场公交充电桩配变,绪塘村里程口台区,泉水塘台区,建德市华海合金钢铸造有限公司,绪塘村山下台区,下涯村下路山台区,2#变,绪塘村外头蓬台区,建德市下涯镇吉南拉丝加工厂,建德市杨村桥程辉种禽场,建德市杨村桥镇东方养鸡场,大岭脚台区,绪塘村灰灶湾台区,建德市杨村桥化工厂,水泵房200kvA,绪塘村叶头坞台区,华宇悦府2号公变,杨村桥村大山上台区,华宇悦府6号公变,乌驹市村赵家台区,中铁三局集团有限公司杭黄铁路站前VI标项目部(钢筋厂),杨村桥村马步街台区,","scope":"浙江省-杭州市-建德市-下涯镇-下涯行政村-下涯自然村,杨村桥镇-杨村桥行政村 大山上自然村,马步街自然村,王谢自然村,百旗街,西源新村自然村,百旗山自然村,大湾脚自然村,杨村桥自然村 ,杨村桥镇-绪塘行政村 考里自然村,灰灶湾自然村,绪塘自然村,山下自然村,大岭脚自然村,小垅里自然村,里程自然村,里程口自然村,叶头坞自然村,螺丝湾自然村,泉水塘自然村 ,下涯镇-乌驹市行政村(赵家自然村,宋明塘自然村,柏树下自然村,下市自然村,长塘自然村,毛家塘自然村),杨村桥镇-梓源行政村 草莓苑自然村,洪坞自然村,狮子山自然村,新星楼自然村,梓溪自然村,亭子边自然村,梓源自然村);杨村桥镇(,建德明德基础设施投资有限公司,建德市寿昌成龙钢材拉丝厂,杭州固科塑胶有限公司,建德嘉农农业科技有限公司,建德市杨村桥程辉种禽场,建德市杨村桥镇东方养鸡场,中国石化销售股份有限公司浙江杭州石油分公司,中铁三局集团桥隧工程有限公司 ,下涯镇(中国共产党建德市委党校,杭州建德高铁新区投资发展有限公司,建德市华海合金钢铸造有限公司,建德市下涯新市砖瓦厂,杭州晓东电器有限公司,建德市下涯镇吉南拉丝加工厂,浙江省建德市永丽彩印厂,建德市新盛木制品有限公司,建德市万达闸器厂一带用户","startTime":"2019-09-15 06:53:00","stopDate":"2019-09-15 10:00:00","orgNo":"3340180","typeCode":"电网故障停限电","poweroffArea":"110kV沿口变:绪塘Y157线溪山Y1571开关后段","poweroffReason":"高压开关跳闸 原停电结束时间为2019-09-15 08:53:00,因施工现场环境比较复杂，存在不确定因素，因此预估施工时间不足，,现变更停电结束时间为2019-09-15 10:00:00","powerTime":"2019-09-15 09:15:00","powerComm":"已送电","subsNo":"","lineNo":"","tgNo":"","tgName":null,"infoStatus":"1","orgName":"国网浙江建德市供电有限公司","typeName":null,"infoStatusName":null,"dateDay":null,"orgNos":null,"nowTime":null,"countyName":null,"streetName":null,"villageName":null,"roadName":null,"communityName":null,"tranName":null,"sdLineName":null,"cityCode":"3340180","cityName":"国网浙江建德市供电有限公司","provinceCode":null,"stopTime":"2019-09-15 10:00:00","powerType":"全部","powerOffArea":"110kV沿口变:绪塘Y157线溪山Y1571开关后段","powerOffReason":"高压开关跳闸 原停电结束时间为2019-09-15 08:53:00,因施工现场环境比较复杂，存在不确定因素，因此预估施工时间不足，,现变更停电结束时间为2019-09-15 10:00:00","powerOffId":"2019091531020020"},{"poweroffId":2019091531020002,"sgpoweroffId":null,"subsName":"","lineName":"10kV长春D403线","pubTranName":"杭州宸都房地产开发有限公司2#基建变,长春村1号村委公变,杭州宸都房地产开发有限公司 6#变,富阳市路灯安装维修管理所,富阳市水务有限公司,上新眺2#金家桥公变,杭州富阳城建集团鹿山新区建设有限公司1#,长春村2#村中公变,杭州市富阳区人民政府鹿山街道办事处 垃圾处理站1#变,上新眺3号村中公变,长春村4号下村公变,浙江银湖建设有限公司,鹿山街4#金排公变,金家桥排涝站,公安局1#基建变,鹿山街道办事处变压器,三联村田畈里,公安局2#基建变,上新眺1号上村公变,富阳市红凤养兔场,春安村3#安全公变,人民政府鹿山街道办事处变压器,杭州宸都房地产有限公司5#基建变,杭州宸都房地产开发有限公司1#基建变,长春村3号上村公变,杭州宸都房地产开发有限公司4#基建变,杭州富阳城建集团鹿山新区建设有限公司2#,浙江春江轻纺集团有限责任公司,杭州富阳城建集团鹿山新区建设有限公司3,富阳市路灯安装维修管理所,浙江勤业建工集团有限公司1#变,杭州富阳城建集团鹿山新区建设有限公司4#,杭州宸都房地产开发有限公司3#变,长春村,浙江勤业建工集团有限公司1#变,杭州富阳水务有限公司1#变,","scope":"浙江省-杭州市-富阳区-鹿山街道-汤家埠行政村(春安自然村,安全自然村),鹿山街道-江滨行政村(长春自然村,上新眺自然村,延河路,中兴路),鹿山街道(蒋家行政村-蒋家自然村,谢家溪行政村-谢家溪自然村);富春街道-杭州富阳城市照明工程有限公司,鹿山街道(杭州市富阳区鹿山街道江滨村股份经济合作社,金家桥排涝站,杭州市富阳区鹿山街道蒋家村股份经济合作社,杭州宸都房地产开发有限公司,浙江勤业建工集团有限公司,浙江省建工集团有限责任公司,杭州富阳城市照明工程有限公司,浙江春江轻纺集团有限责任公司,杭州富阳红凤养兔场,杭州富阳水务有限公司,杭州市富阳区人民政府鹿山街道办事处)","startTime":"2019-09-15 00:30:00","stopDate":"2019-09-15 02:30:00","orgNo":"3340170","typeCode":"电网故障停限电","poweroffArea":"110kV长春变:长春D403线长春D4031开关后段","poweroffReason":"高压开关跳闸原停电结束时间为2019-09-15 01:30:00,因抢修难度较大原因,现变更停电结束时间为2019-09-15 02:30:00","powerTime":"2019-09-15 02:20:13","powerComm":"已送电","subsNo":"","lineNo":"","tgNo":"","tgName":null,"infoStatus":"1","orgName":"国网浙江杭州市富阳区供电公司","typeName":null,"infoStatusName":null,"dateDay":null,"orgNos":null,"nowTime":null,"countyName":null,"streetName":null,"villageName":null,"roadName":null,"communityName":null,"tranName":null,"sdLineName":null,"cityCode":"3340170","cityName":"国网浙江杭州市富阳区供电公司","provinceCode":null,"stopTime":"2019-09-15 02:30:00","powerType":"全部","powerOffArea":"110kV长春变:长春D403线长春D4031开关后段","powerOffReason":"高压开关跳闸原停电结束时间为2019-09-15 01:30:00,因抢修难度较大原因,现变更停电结束时间为2019-09-15 02:30:00","powerOffId":"2019091531020002"},{"poweroffId":2019091431020124,"sgpoweroffId":null,"subsName":"","lineName":"10kV春联T394线","pubTranName":"金中小区1号公变,","scope":"浙江省-杭州市-桐庐县-城南街道-金中行政村(城南路,三联自然村)金中小区一带。","startTime":"2019-09-14 19:39:13","stopDate":"2019-09-14 21:39:13","orgNo":"3340150","typeCode":"电网故障停限电","poweroffArea":"110kV迎春变:春联T394线-金中小区1号公变后段","poweroffReason":"高压开关跳闸","powerTime":"2019-09-14 21:20:36","powerComm":"已送电。","subsNo":"","lineNo":"","tgNo":"","tgName":null,"infoStatus":"1","orgName":"国网浙江桐庐县供电公司","typeName":null,"infoStatusName":null,"dateDay":null,"orgNos":null,"nowTime":null,"countyName":null,"streetName":null,"villageName":null,"roadName":null,"communityName":null,"tranName":null,"sdLineName":null,"cityCode":"3340150","cityName":"国网浙江桐庐县供电公司","provinceCode":null,"stopTime":"2019-09-14 21:39:13","powerType":"全部","powerOffArea":"110kV迎春变:春联T394线-金中小区1号公变后段","powerOffReason":"高压开关跳闸","powerOffId":"2019091431020124"},{"poweroffId":2019091431020118,"sgpoweroffId":null,"subsName":"","lineName":"10kV卞家H519线","pubTranName":"长命印刷厂变1#,长命印刷厂变3#,杭州市余杭区蒲公英学校6110108310,长命印刷厂变2#,","scope":"浙江省-杭州市-余杭区-瓶窑镇-长命行政村(杭州市余杭区蒲公英学校,杭州美丽洲实业有限公司)一带","startTime":"2019-09-14 17:44:00","stopDate":"2019-09-14 22:00:00","orgNo":"3340140","typeCode":"电网故障停限电","poweroffArea":"110kV凤山变:卞家H519线-长命印刷厂分线开关后段","poweroffReason":"高压开关跳闸","powerTime":"2019-09-14 21:30:00","powerComm":"已送电","subsNo":"","lineNo":"","tgNo":"","tgName":null,"infoStatus":"1","orgName":"国网浙江杭州市余杭区供电有限公司","typeName":null,"infoStatusName":null,"dateDay":null,"orgNos":null,"nowTime":null,"countyName":null,"streetName":null,"villageName":null,"roadName":null,"communityName":null,"tranName":null,"sdLineName":null,"cityCode":"3340140","cityName":"国网浙江杭州市余杭区供电有限公司","provinceCode":null,"stopTime":"2019-09-14 22:00:00","powerType":"全部","powerOffArea":"110kV凤山变:卞家H519线-长命印刷厂分线开关后段","powerOffReason":"高压开关跳闸","powerOffId":"2019091431020118"},{"poweroffId":2019091431020110,"sgpoweroffId":null,"subsName":"","lineName":"10kV河口C160线","pubTranName":"佛山村5#变,佛山村2#变,杭州萧山云石提花沙发布厂,杭州家得好日用品有限公司1#,佛山村6#变,佛山村3#变,佛山村4#变,杭州蓝达工艺制品有限公司,青山村8#变,浙江华东轻钢建材有限公司（马谷线）,杭州家得好日用品有限公司2#,佛山村7#变,杭州青山粉末冶金厂,青山村15#变,佛山村1#变,杭州杰超机械厂,杭州蓝达工艺制品有限公司,","scope":"浙江省-杭州市-萧山区-戴村镇-青山行政村(石牛山自然村,南坞自然村),戴村镇-佛山行政村(佛山自然村,上堡自然村);浙江省-杭州市-萧山区-戴村镇-青山行政村-杭州青山粉末冶金厂,戴村镇-沈村行政村(杭州家得好日用品有限公司,浙江华东轻钢建材有限公司,杭州蓝达工艺制品有限公司),戴村镇-佛山行政村(杭州蓝达工艺制品有限公司,杭州汇燊基布业有限公司,杭州杰超机械厂)等一带","startTime":"2019-09-14 16:24:48","stopDate":"2019-09-14 18:24:48","orgNo":"3340130","typeCode":"电网故障停限电","poweroffArea":"110kV许贤变:河口C160线-河口C1605开关后段","poweroffReason":"高压柱上断路器短路故障","powerTime":"2019-09-14 17:48:30","powerComm":"已送电","subsNo":"","lineNo":"","tgNo":"","tgName":null,"infoStatus":"1","orgName":"国网浙江杭州市萧山区供电有限公司","typeName":null,"infoStatusName":null,"dateDay":null,"orgNos":null,"nowTime":null,"countyName":null,"streetName":null,"villageName":null,"roadName":null,"communityName":null,"tranName":null,"sdLineName":null,"cityCode":"3340130","cityName":"国网浙江杭州市萧山区供电有限公司","provinceCode":null,"stopTime":"2019-09-14 18:24:48","powerType":"全部","powerOffArea":"110kV许贤变:河口C160线-河口C1605开关后段","powerOffReason":"高压柱上断路器短路故障","powerOffId":"2019091431020110"},{"poweroffId":2019091431020106,"sgpoweroffId":null,"subsName":"","lineName":"10kV葛家Y708线","pubTranName":"葛家村葛家台区,","scope":"浙江省-杭州市-建德市-梅城镇-葛家行政村 葛家自然村,葛家埠自然村,南洋路,新村南峰路一带用户","startTime":"2019-09-14 15:38:00","stopDate":"2019-09-14 17:00:00","orgNo":"3340180","typeCode":"电网故障停限电","poweroffArea":"110kV南峰变:葛家Y708线-葛家村葛家台区后段","poweroffReason":"(低压停电信息)低压开关跳闸 原停电结束时间为2019-09-14 17:30:00,为减少客户停电时间,加快工作进度,提前送电,现变更停电结束时间为2019-09-14 17:00:00","powerTime":"2019-09-14 16:18:00","powerComm":"已送电","subsNo":"","lineNo":"","tgNo":"","tgName":null,"infoStatus":"1","orgName":"国网浙江建德市供电有限公司","typeName":null,"infoStatusName":null,"dateDay":null,"orgNos":null,"nowTime":null,"countyName":null,"streetName":null,"villageName":null,"roadName":null,"communityName":null,"tranName":null,"sdLineName":null,"cityCode":"3340180","cityName":"国网浙江建德市供电有限公司","provinceCode":null,"stopTime":"2019-09-14 17:00:00","powerType":"全部","powerOffArea":"110kV南峰变:葛家Y708线-葛家村葛家台区后段","powerOffReason":"(低压停电信息)低压开关跳闸 原停电结束时间为2019-09-14 17:30:00,为减少客户停电时间,加快工作进度,提前送电,现变更停电结束时间为2019-09-14 17:00:00","powerOffId":"2019091431020106"},{"poweroffId":2019091431020090,"sgpoweroffId":null,"subsName":"","lineName":"10kV夏山C258线","pubTranName":"杭州泰博热处理有限公司,变压器,杭州迪生车业有限公司,山联村9#变,越王村5#变,杭州市萧山区公路管理处专变,金山村11#变,山联村14#变,山联村5#变,金山村9#变,杭州迪曼特轴承有限公司,山联村12#变,杭州景源环保设备有限公司,杭州蓝莓生态农业有限公司,山联村8#变,山联村11#变,杭州市萧山区所前人镇民政府,变压器,杭州潘工工具有限公司,山联村4#变,祥龙机械2#,金山村2#变,山联村13#变,山联村2#变,越王村4#变,越王村6#变,越王村7#变,山联村3#变,山联村10#变,金山村6#变,杭州优利克五金工具有限公司,越王村1#变,金山村8#变,杭州明成木业有限公司,越王村9#变,传芳村,越王村2#变,金山村3#变,金山村10#变,越王村8#变,杭州天然气有限公司,所前工具,山联村7#变,山联村1#变,变压器,金山村15#变,杭州源本农业发展有限公司,越王村3#变,杭州大禾市政工程有限公司,夏山埭村,杭州力能坚机械有限公司,山联村6#变,金山村5#变,祥龙机械1#,蓝海基地1#专变,","scope":"浙江省-杭州市-萧山区-所前镇-越山行政村-郑家自然村,所前镇-山联行政村(夏山埭自然村,渔家埭自然村,赵坞自然村,池头沈自然村,山里沈自然村),所前镇-越王行政村(山里沈自然村,夏家埭自然村,东山夏自然村,上安王自然村,岭下胡自然村),所前镇-金山行政村(娄家湾自然村,张家坂自然村,钱家湾自然村);所前镇-金山行政村(杭州旭达轴承有限公司,杭州天然气有限公司),所前镇-山联行政村(杭州潘工工具有限公司,杭州景源环保设备有限公司,杭州明成木业有限公司,夏山埭村,杭州蓝海生态农业有限公司,杭州所前工具有限公司,杭州力能坚机械有限公司,杭州赵氏茶叶专业合作社,杭州大禾市政工程有限公司),所前镇-越王行政村(杭州泰博热处理有限公司,杭州优利克五金工具有限公司,杭州迪生车业有限公司,杭州萧山祥龙机械有限公司,杭州源本农业发展有限公司,杭州市萧山区所前镇人民政府,中铁二十四局集团浙江工程有限公司杭黄铁路站前Ⅲ标项目二分部),所前镇(传芳行政村-传芳村,越山行政村-杭州市萧山区公路管理处)，浙江省杭州市萧山区所前镇山联行政村，浙江省杭州市萧山区所前镇赵坞村，浙江省杭州市萧山区所前镇越王村一带","startTime":"2019-09-14 13:30:10","stopDate":"2019-09-14 16:00:10","orgNo":"3340130","typeCode":"电网故障停限电","poweroffArea":"110kV所前变:夏山C258线夏山C2581开关后段","poweroffReason":"外力破坏引起高压柱上断路器短路跳闸 原停电结束时间为2019-09-14 16:30:10,为减少客户停电时间,加快工作进度,提前送电,现变更停电结束时间为2019-09-14 16:00:10","powerTime":"2019-09-14 15:06:56","powerComm":"已送电","subsNo":"","lineNo":"","tgNo":"","tgName":null,"infoStatus":"1","orgName":"国网浙江杭州市萧山区供电有限公司","typeName":null,"infoStatusName":null,"dateDay":null,"orgNos":null,"nowTime":null,"countyName":null,"streetName":null,"villageName":null,"roadName":null,"communityName":null,"tranName":null,"sdLineName":null,"cityCode":"3340130","cityName":"国网浙江杭州市萧山区供电有限公司","provinceCode":null,"stopTime":"2019-09-14 16:00:10","powerType":"全部","powerOffArea":"110kV所前变:夏山C258线夏山C2581开关后段","powerOffReason":"外力破坏引起高压柱上断路器短路跳闸 原停电结束时间为2019-09-14 16:30:10,为减少客户停电时间,加快工作进度,提前送电,现变更停电结束时间为2019-09-14 16:00:10","powerOffId":"2019091431020090"},{"poweroffId":2019091431020086,"sgpoweroffId":null,"subsName":"","lineName":"10kV戴宏A400线","pubTranName":"钱江链条传动,钱江新村2区1#变,1#变,杭州萧山宁围旅游用品厂1#变,杭州永磁集团有限公司1#变,钱江农场6#公变,2#变,中德华能,名扬阁2#公变,杭州深远工贸有限公司（1321411548）,杭州永磁集团有限公司2#变,名扬阁1#公变,杭州萧山中发机械厂变压器,钱江农场7#公变,苏美达车业,部队5#,钱江农场1#公变,","scope":"浙江省-杭州市-萧山区-经济技术开发区-钱江社区(钱农西路,钱农东路),宁围街道-盈二行政村-盈二自然村,经济技术开发区-市北社区-钱农四路;经济技术开发区-钱江社区(杭州钱江链传动有限公司,杭州中德华能新型涂料有限公司,杭州钱鸿苏美达车业有限公司,中国人民解放军73021部队农副业基地,杭州鸿利型钢有限公司,杭州深远工贸有限公司,杭州萧山宁围旅游用品厂,杭州永磁集团有限公司)等一带","startTime":"2019-09-14 13:38:35","stopDate":"2019-09-14 16:00:35","orgNo":"3340130","typeCode":"电网故障停限电","poweroffArea":"110kV顺坝变:戴宏A400线-戴宏A4002线开关后段","poweroffReason":"高压柱上断路器短路故障 原停电结束时间为2019-09-14 17:30:35,为减少客户停电时间,加快工作进度,提前送电,现变更停电结束时间为2019-09-14 16:00:35","powerTime":"2019-09-14 15:05:45","powerComm":"已送电","subsNo":"","lineNo":"","tgNo":"","tgName":null,"infoStatus":"1","orgName":"国网浙江杭州市萧山区供电有限公司","typeName":null,"infoStatusName":null,"dateDay":null,"orgNos":null,"nowTime":null,"countyName":null,"streetName":null,"villageName":null,"roadName":null,"communityName":null,"tranName":null,"sdLineName":null,"cityCode":"3340130","cityName":"国网浙江杭州市萧山区供电有限公司","provinceCode":null,"stopTime":"2019-09-14 16:00:35","powerType":"全部","powerOffArea":"110kV顺坝变:戴宏A400线-戴宏A4002线开关后段","powerOffReason":"高压柱上断路器短路故障 原停电结束时间为2019-09-14 17:30:35,为减少客户停电时间,加快工作进度,提前送电,现变更停电结束时间为2019-09-14 16:00:35","powerOffId":"2019091431020086"},{"poweroffId":2019091431020083,"sgpoweroffId":null,"subsName":"","lineName":"10kV泗化A348线","pubTranName":"江西俞2#变,杭州市萧山区进化镇人民政府,江西俞12#变,中石化（泥桥头加油站）,傅家排灌站（1321339137）2#,杭州萧山东升邮电通讯配套厂,欢潭村14#变,祝家村5#变,1#,杭州创都交通工程有限公司,杭州萧山祝氏造纸机械厂,杭州易维特电器有限公司,傅家排灌站（1321339137）1#,杭州萧山浦阳江建设开发有限公司,","scope":"浙江省-杭州市-萧山区-浦阳镇-江西俞行政村(新塘自然村,江西俞自然村,新江口自然村,塘角头自然村),进化镇(祝家行政村-泗洲自然村,欢潭行政村-傅家自然村);进化镇-新江行政村(杭州萧山祝氏造纸机械厂,杭州萧山东升邮电通讯配套厂(普通合伙),中石化碧辟(浙江)石油有限公司杭州分公司,杭州创都交通工程有限公司,杭州市萧山区进化镇人民政府),进化镇-欢潭行政村-杭州市萧山区进化镇人民政府,浦阳镇-江西俞行政村-杭州市萧山区浦阳镇人民政府等一带","startTime":"2019-09-14 13:28:36","stopDate":"2019-09-14 16:00:36","orgNo":"3340130","typeCode":"电网故障停限电","poweroffArea":"110kV进化变:泗化A348线-泗化A3481开关后段","poweroffReason":"高压柱上断路器短路故障","powerTime":"2019-09-14 15:05:00","powerComm":"已送电","subsNo":"","lineNo":"","tgNo":"","tgName":null,"infoStatus":"1","orgName":"国网浙江杭州市萧山区供电有限公司","typeName":null,"infoStatusName":null,"dateDay":null,"orgNos":null,"nowTime":null,"countyName":null,"streetName":null,"villageName":null,"roadName":null,"communityName":null,"tranName":null,"sdLineName":null,"cityCode":"3340130","cityName":"国网浙江杭州市萧山区供电有限公司","provinceCode":null,"stopTime":"2019-09-14 16:00:36","powerType":"全部","powerOffArea":"110kV进化变:泗化A348线-泗化A3481开关后段","powerOffReason":"高压柱上断路器短路故障","powerOffId":"2019091431020083"},{"poweroffId":2019091431020078,"sgpoweroffId":null,"subsName":"","lineName":"10kV前峰961线","pubTranName":"前进街道9#变,","scope":"浙江省-杭州市-萧山区-前进街道临江行政村-长征自然村,前进街道社区、临江村、前进村、长征村、前进街道、临江街道一带","startTime":"2019-09-14 13:12:32","stopDate":"2019-09-14 15:12:32","orgNo":"3340120","typeCode":"电网故障停限电","poweroffArea":"110kV前进变:前峰961线-前进街道9#变后段","poweroffReason":"(低压停电信息)低压开关跳闸","powerTime":"2019-09-14 14:28:56","powerComm":"已送电","subsNo":"","lineNo":"","tgNo":"","tgName":null,"infoStatus":"1","orgName":"国网浙江杭州市钱塘新区供电公司","typeName":null,"infoStatusName":null,"dateDay":null,"orgNos":null,"nowTime":null,"countyName":null,"streetName":null,"villageName":null,"roadName":null,"communityName":null,"tranName":null,"sdLineName":null,"cityCode":"3340120","cityName":"国网浙江杭州市钱塘新区供电公司","provinceCode":null,"stopTime":"2019-09-14 15:12:32","powerType":"全部","powerOffArea":"110kV前进变:前峰961线-前进街道9#变后段","powerOffReason":"(低压停电信息)低压开关跳闸","powerOffId":"2019091431020078"}],"pageModel":{"pageNow":1105,"totalCount":17789,"totalPage":1779,"tableRows":0,"pageCount":10,"beginCount":11040},"isExperi":"1"}