{"message":"","today":"2020-06-16","seleList":[{"poweroffId":2019091431020052,"sgpoweroffId":null,"subsName":"","lineName":"10kV高桥Y679线","pubTranName":"胡村源村胡村源台区,","scope":"浙江省-杭州市-建德市-大同镇-胡村源行政村-胡村源自然村一带用户","startTime":"2019-09-14 11:16:00","stopDate":"2019-09-14 12:30:00","orgNo":"3340180","typeCode":"电网故障停限电","poweroffArea":"110kV大同变:高桥Y679线-胡村源村胡村源台区后段","poweroffReason":"(低压停电信息)低压开关跳闸 原停电结束时间为2019-09-14 13:30:00,为减少客户停电时间,加快工作进度,提前送电,现变更停电结束时间为2019-09-14 12:30:00","powerTime":"2019-09-14 11:47:00","powerComm":"已送电","subsNo":"","lineNo":"","tgNo":"","tgName":null,"infoStatus":"1","orgName":"国网浙江建德市供电有限公司","typeName":null,"infoStatusName":null,"dateDay":null,"orgNos":null,"nowTime":null,"countyName":null,"streetName":null,"villageName":null,"roadName":null,"communityName":null,"tranName":null,"sdLineName":null,"cityCode":"3340180","cityName":"国网浙江建德市供电有限公司","provinceCode":null,"stopTime":"2019-09-14 12:30:00","powerType":"全部","powerOffArea":"110kV大同变:高桥Y679线-胡村源村胡村源台区后段","powerOffReason":"(低压停电信息)低压开关跳闸 原停电结束时间为2019-09-14 13:30:00,为减少客户停电时间,加快工作进度,提前送电,现变更停电结束时间为2019-09-14 12:30:00","powerOffId":"2019091431020052"},{"poweroffId":2019091431020051,"sgpoweroffId":null,"subsName":"","lineName":"10kV郭村Y801线","pubTranName":"齐平村齐村畈台区,","scope":"浙江省-杭州市-建德市-莲花镇-齐平行政村 齐村畈自然村,宋岸自然村一带用户","startTime":"2019-09-14 10:49:00","stopDate":"2019-09-14 12:00:00","orgNo":"3340180","typeCode":"电网故障停限电","poweroffArea":"35kV莲花变:郭村Y801线-齐平村齐村畈台区后段","poweroffReason":"(低压停电信息)低压开关跳闸","powerTime":"2019-09-14 11:31:00","powerComm":"已送电","subsNo":"","lineNo":"","tgNo":"","tgName":null,"infoStatus":"1","orgName":"国网浙江建德市供电有限公司","typeName":null,"infoStatusName":null,"dateDay":null,"orgNos":null,"nowTime":null,"countyName":null,"streetName":null,"villageName":null,"roadName":null,"communityName":null,"tranName":null,"sdLineName":null,"cityCode":"3340180","cityName":"国网浙江建德市供电有限公司","provinceCode":null,"stopTime":"2019-09-14 12:00:00","powerType":"全部","powerOffArea":"35kV莲花变:郭村Y801线-齐平村齐村畈台区后段","powerOffReason":"(低压停电信息)低压开关跳闸","powerOffId":"2019091431020051"},{"poweroffId":2019091431020049,"sgpoweroffId":null,"subsName":"","lineName":"10kV罗桐Y109线","pubTranName":"康安公变,","scope":"浙江省-杭州市-建德市-新安江街道 新安社区-康安新村路,府东社区-康安路一带用户","startTime":"2019-09-14 10:41:00","stopDate":"2019-09-14 11:40:00","orgNo":"3340180","typeCode":"电网故障停限电","poweroffArea":"110kV新安江变:罗桐Y109线-康安公变后段","poweroffReason":"(低压停电信息)低压电缆烧毁","powerTime":"2019-09-14 11:09:00","powerComm":"已送电","subsNo":"","lineNo":"","tgNo":"","tgName":null,"infoStatus":"1","orgName":"国网浙江建德市供电有限公司","typeName":null,"infoStatusName":null,"dateDay":null,"orgNos":null,"nowTime":null,"countyName":null,"streetName":null,"villageName":null,"roadName":null,"communityName":null,"tranName":null,"sdLineName":null,"cityCode":"3340180","cityName":"国网浙江建德市供电有限公司","provinceCode":null,"stopTime":"2019-09-14 11:40:00","powerType":"全部","powerOffArea":"110kV新安江变:罗桐Y109线-康安公变后段","powerOffReason":"(低压停电信息)低压电缆烧毁","powerOffId":"2019091431020049"},{"poweroffId":2019091431020043,"sgpoweroffId":null,"subsName":"","lineName":"10kV快城G991线","pubTranName":"石油小林站,1#,2#,杭州市余杭区新星幼儿园315配变,","scope":"浙江省-杭州市-余杭区-经济开发区-杭州市余杭区临平第三小学,东湖街道(杭州中油石油天然气销售有限公司,杭州市余杭区临平街道中心幼儿园)","startTime":"2019-09-14 09:32:41","stopDate":"2019-09-14 11:32:41","orgNo":"3340140","typeCode":"电网故障停限电","poweroffArea":"110kV茅山变:快城G991线丰家环网站城北中学分支箱分线后段","poweroffReason":"高压开关跳闸","powerTime":"2019-09-14 10:42:17","powerComm":"已送电","subsNo":"","lineNo":"","tgNo":"","tgName":null,"infoStatus":"1","orgName":"国网浙江杭州市余杭区供电有限公司","typeName":null,"infoStatusName":null,"dateDay":null,"orgNos":null,"nowTime":null,"countyName":null,"streetName":null,"villageName":null,"roadName":null,"communityName":null,"tranName":null,"sdLineName":null,"cityCode":"3340140","cityName":"国网浙江杭州市余杭区供电有限公司","provinceCode":null,"stopTime":"2019-09-14 11:32:41","powerType":"全部","powerOffArea":"110kV茅山变:快城G991线丰家环网站城北中学分支箱分线后段","powerOffReason":"高压开关跳闸","powerOffId":"2019091431020043"},{"poweroffId":2019091431020021,"sgpoweroffId":null,"subsName":"","lineName":"10kV永富C980线","pubTranName":"杭州市萧山区戴村人民政府,康美塑化,大石盖6#变,永富村19#变,永富村16#变,杭州市萧山区义桥镇人民政府（积堰山机埠）2#,永富村6#变,杭州天地人和休闲用品有限公司,变压器,1#,同泽塑业,杭州莹飞塑胶有限公司,杭州华越塑料有限公司,永富村5#变,2#,三巨汽配,杭州业新钢结构有限公司,永富村8#变,永富村13#变,万通塑胶,永富村4#变,杭州萧山电力水泥制品实验厂,永富村11#变,三巨汽配,永富村15#变,都拓科技,永富村7#变,永富村9#变,永富村1#变,同创实业,永富村18#变,杭州舒易家具有限公司,永富村2#变,永富村14#变,杭州三巨汽配有限公司,永富村10#变,永富村17#变,杭州普立希机械设备有限公司,杭州市萧山区义桥镇人民政府（积堰山机埠）1#,永富村12#变,永富村3#变,大石盖10#变,杭州恒笛纺织印花有限公司,大石盖7#变,","scope":"浙江省-杭州市-萧山区-戴村镇-大石盖行政村(石盖自然村,畈里自然村),戴村镇-永富行政村(建民自然村,姚家山下自然村,积堰山自然村,马安自然村,新宅自然村,冗里自然村,黄洞岭自然村,山坎头自然村,小东坞自然村,大东坞自然村);浙江省-杭州市-萧山区-义桥镇-徐童山下行政村-杭州市萧山区义桥镇人民政府,戴村镇-大石盖行政村(杭州舒易家具有限公司,杭州都拓科技有限公司,杭州佳龙光学玻璃有限公司,杭州恒笛纺织印花有限公司,杭州普立希机械设备有限公司,杭州市萧山区戴村镇人民政府,杭州业新钢结构有限公司,杭州三巨汽配有限公司),戴村镇-永富行政村(杭州杭冶机械有限公司,杭州莹飞塑胶有限公司,杭州同创实业有限公司,杭州汇锆特铸造有限公司,杭州万通塑胶有限公司,杭州康美塑化有限公司,杭州同泽塑业有限公司,杭州华越塑料有限公司),戴村镇(南三行政村-杭州天地人和休闲用品有限公司,灵山行政村-杭州伟民农业开发有限公司、浙江省杭州市萧山区戴村镇大石盖行政村畈里自然村22号、浙江省杭州市萧山区戴村镇大时代村等一带","startTime":"2019-09-14 07:29:37","stopDate":"2019-09-14 09:31:37","orgNo":"3340130","typeCode":"电网故障停限电","poweroffArea":"110kV永兴变:永富C980线-永富C9801开关后段","poweroffReason":"高压柱上断路器短路故障","powerTime":"2019-09-14 08:41:28","powerComm":"已送电","subsNo":"","lineNo":"","tgNo":"","tgName":null,"infoStatus":"1","orgName":"国网浙江杭州市萧山区供电有限公司","typeName":null,"infoStatusName":null,"dateDay":null,"orgNos":null,"nowTime":null,"countyName":null,"streetName":null,"villageName":null,"roadName":null,"communityName":null,"tranName":null,"sdLineName":null,"cityCode":"3340130","cityName":"国网浙江杭州市萧山区供电有限公司","provinceCode":null,"stopTime":"2019-09-14 09:31:37","powerType":"全部","powerOffArea":"110kV永兴变:永富C980线-永富C9801开关后段","powerOffReason":"高压柱上断路器短路故障","powerOffId":"2019091431020021"},{"poweroffId":2019091431020006,"sgpoweroffId":null,"subsName":"","lineName":"10kV立新D124线","pubTranName":"富阳市新登镇幼儿园(干变),富阳市路灯安装维修管理所,彭家弄1#公变,人民政府1#变,塔山新苑1#公变,塔山新苑2#公变,塔山村2#田缺口公变,共和街1#彭家公变,茶店弄1#公变,浙江永通钢构材料有限公司,新登小城市建设1#变,塔山村1#东皇殿公变,隆宇建设1#变,","scope":"浙江省-杭州市-富阳区-新登镇-共和行政村-共和北路,新登镇-塔山行政村(立新路,工厂路,新苑路),新登镇-古城社区(共和街,登城北路,共和北路,城墙北路,彭家弄,秀山一弄,秀山三弄,新城街,秀山弄),新登镇-惠来社区(塔山村,立新路,塔山路四弄,塔山路三弄,塔山路二弄,塔山路,惠来路,登城北路,塔山,塔山路五弄,塔山湾,叶家弄,工厂路);新登镇(杭州富阳新登小城市建设有限公司,杭州市富阳区新登镇第一幼儿园,浙江永通钢构材料有限公司,杭州富阳城市照明工程有限公司,杭州市富阳区新登镇中心小学)","startTime":"2019-09-14 05:31:35","stopDate":"2019-09-14 06:05:00","orgNo":"3340170","typeCode":"电网故障停限电","poweroffArea":"110kV新登变:立新D124线立新D1242开关后段","poweroffReason":"高压开关跳闸 原停电结束时间为2019-09-14 08:00:00,为减少客户停电时间,加快工作进度,提前送电,现变更停电结束时间为2019-09-14 06:05:00","powerTime":"2019-09-14 05:58:02","powerComm":"已送电","subsNo":"","lineNo":"","tgNo":"","tgName":null,"infoStatus":"1","orgName":"国网浙江杭州市富阳区供电公司","typeName":null,"infoStatusName":null,"dateDay":null,"orgNos":null,"nowTime":null,"countyName":null,"streetName":null,"villageName":null,"roadName":null,"communityName":null,"tranName":null,"sdLineName":null,"cityCode":"3340170","cityName":"国网浙江杭州市富阳区供电公司","provinceCode":null,"stopTime":"2019-09-14 06:05:00","powerType":"全部","powerOffArea":"110kV新登变:立新D124线立新D1242开关后段","powerOffReason":"高压开关跳闸 原停电结束时间为2019-09-14 08:00:00,为减少客户停电时间,加快工作进度,提前送电,现变更停电结束时间为2019-09-14 06:05:00","powerOffId":"2019091431020006"},{"poweroffId":2019091431020004,"sgpoweroffId":null,"subsName":"","lineName":"10kV窄溪T257线","pubTranName":"陈庄安置小区1号公变,桐庐县供电局,古里庄村1号公变,窄溪新近江饭店,江南府小区4号公变,陈庄安置小区3号公变,富前路2号公变,胡家边村1号公变,高山头1号公变,张家溪口抽水〈窄溪〉,江南府小区2号公变,桐庐银利来针织有限公司,大元里村1号公变,陈庄安置小区5号公变,桐庐城市建设投资有限公司(320路灯变2#),农贸市场1号公变,窄溪安置小区1号公变,胡家边村2号公变,前村5号公变,桐庐伟邦房地产开发有限公司,江南府小区3号公变,绿园小区2号公变,桐庐县江南初级中学,东都名苑2#专变,陈庄安置小区6号公变,桐庐明发针织有限公司,桐庐浙石第二加油站有限公司,杭州华敏通讯有限公司,前村2号公变,江南府小区1号公变,前村1号公变,寺基上1号公变,前村4号公变,张家边村1号公变,前村安置小区1号公变,前村3号公变,桐庐县公安局江南派出所,金浦路1号公变,绿园小区1号公变,窄溪自来水厂,浙江兴腾物业管理有限公司,杭州天地工艺礼品有限公司,桐庐县江南镇通航砂石经营部,富前路1号公变,陈庄安置小区4号公变,陈庄安置小区2号公变,金浦路2号公变,定安路1号公变,锦绣江南小区1号公变,","scope":"浙江省-杭州市-桐庐县-江南镇-窄溪行政村(江滨路,定安路,富后弄,富前路,古城自然村,前村自然村,大元里自然村,窄溪镇,窄石路,大元路,集市路,市场路,金浦南路,鼓楼街,金浦路,陈庄支路,高山路,三联西路,江南路,窄溪西路,移民自然村);江南镇(桐庐明发针织有限公司,桐庐县江南镇渔塘小院民宿,桐庐浙石第二加油站有限公司,杭州华敏通讯有限公司,窄溪自来水厂,桐庐县江南镇通航砂石经营部,国网浙江桐庐县供电公司(江南镇),张家溪口抽水〈窄溪〉,桐庐银利来针织有限公司,杭州天地工艺礼品有限公司,桐庐县江南镇人民政府国道路灯二号,桐庐伟邦房地产开发有限公司,杭州东都房地产开发有限公司,桐庐县江南初级中学)","startTime":"2019-09-14 01:40:00","stopDate":"2019-09-14 09:36:00","orgNo":"3340150","typeCode":"电网故障停限电","poweroffArea":"110kV石阜变:窄溪T257线窄溪开关站窄溪T257线后段","poweroffReason":"高压开关跳闸","powerTime":"2019-09-14 09:06:24","powerComm":"已送电","subsNo":"","lineNo":"","tgNo":"","tgName":null,"infoStatus":"1","orgName":"国网浙江桐庐县供电公司","typeName":null,"infoStatusName":null,"dateDay":null,"orgNos":null,"nowTime":null,"countyName":null,"streetName":null,"villageName":null,"roadName":null,"communityName":null,"tranName":null,"sdLineName":null,"cityCode":"3340150","cityName":"国网浙江桐庐县供电公司","provinceCode":null,"stopTime":"2019-09-14 09:36:00","powerType":"全部","powerOffArea":"110kV石阜变:窄溪T257线窄溪开关站窄溪T257线后段","powerOffReason":"高压开关跳闸","powerOffId":"2019091431020004"},{"poweroffId":2019091431020002,"sgpoweroffId":null,"subsName":"","lineName":"10kV宅里T330线","pubTranName":"深畈1号公变,","scope":"浙江省-杭州市-桐庐县-横村镇-横村行政村-深畈自然村（深畈村委大楼旁边6幢1单元一带 ）","startTime":"2019-09-14 00:48:27","stopDate":"2019-09-14 07:00:27","orgNo":"3340150","typeCode":"电网故障停限电","poweroffArea":"110kV横村变:宅里T330线-深畈1号公变后段","poweroffReason":"高压开关跳闸","powerTime":"2019-09-14 06:53:10","powerComm":"已送电","subsNo":"","lineNo":"","tgNo":"","tgName":null,"infoStatus":"1","orgName":"国网浙江桐庐县供电公司","typeName":null,"infoStatusName":null,"dateDay":null,"orgNos":null,"nowTime":null,"countyName":null,"streetName":null,"villageName":null,"roadName":null,"communityName":null,"tranName":null,"sdLineName":null,"cityCode":"3340150","cityName":"国网浙江桐庐县供电公司","provinceCode":null,"stopTime":"2019-09-14 07:00:27","powerType":"全部","powerOffArea":"110kV横村变:宅里T330线-深畈1号公变后段","powerOffReason":"高压开关跳闸","powerOffId":"2019091431020002"},{"poweroffId":2019091331020192,"sgpoweroffId":null,"subsName":"","lineName":"10kV石祥8819线","pubTranName":"塑胶,瓜南(3)农,城院施工3#,瓜山,城院施工1#,物车1#变,城院施工4#,2,詹医,拱石,瓜山一变,开茂施工4#,1,汽铸1#,隽逸二,上塘办施,隽逸四,开茂施工1#,隽逸六,汽铸2#,3,变压器,上石照明1,开茂施工2#,1,塘施(3),市桥(1),开茂施工3#,1,瓜毡,","scope":"浙江省-杭州市-拱墅区-上塘街道-瓜山社区-石祥路,上塘街道(皋亭社区-隽逸路,隽逸花苑小区);上塘街道-瓜山社区(杭州市市政设施发展中心,浙江元通大厦有限公司,杭州瓜山村经济合作社,杭州詹氏中医骨伤医院,浙江大学城市学院)","startTime":"2019-09-13 20:46:23","stopDate":"2019-09-13 23:30:23","orgNo":"3340101","typeCode":"电网故障停限电","poweroffArea":"110kV拱宸变:石祥8819线","poweroffReason":"高压开关跳闸 原预计停电结束时间22:46:23,由于施工现场环境比较复杂，存在不确定因素，因此预估施工时间不足，延迟送电了","powerTime":"2019-09-13 22:48:07","powerComm":"送电","subsNo":"","lineNo":"","tgNo":"","tgName":null,"infoStatus":"1","orgName":"浙江杭州电力客户服务中心","typeName":null,"infoStatusName":null,"dateDay":null,"orgNos":null,"nowTime":null,"countyName":null,"streetName":null,"villageName":null,"roadName":null,"communityName":null,"tranName":null,"sdLineName":null,"cityCode":"3340101","cityName":"浙江杭州电力客户服务中心","provinceCode":null,"stopTime":"2019-09-13 23:30:23","powerType":"全部","powerOffArea":"110kV拱宸变:石祥8819线","powerOffReason":"高压开关跳闸 原预计停电结束时间22:46:23,由于施工现场环境比较复杂，存在不确定因素，因此预估施工时间不足，延迟送电了","powerOffId":"2019091331020192"},{"poweroffId":2019091331020191,"sgpoweroffId":null,"subsName":"","lineName":"10kV速达9429线","pubTranName":"春城,省机1#变,城中沈施4,皋南(3),皋南(1),城中沈施3,风情小镇,皋南(2),地铁长滨2,地铁长滨1,城中沈施1,地铁长浜4,西文地施2,地铁长滨3,省机1#变,西文地施1,地铁长浜5,","scope":"浙江省-杭州市-拱墅区-上塘街道-皋亭社区(沈半路280号东侧,皋亭村,沈半路);浙江省-杭州市-拱墅区-上塘街道-皋亭社区(浙江元通大厦有限公司,杭州传文投资管理有限公司),上塘街道(杭州市拱墅区城中村改造指挥部上塘分指挥部,善贤社区-杭州市地铁集团有限责任公司)","startTime":"2019-09-13 20:47:42","stopDate":"2019-09-13 22:47:42","orgNo":"3340101","typeCode":"电网故障停限电","poweroffArea":"110kV石桥变:速达9429线","poweroffReason":"高压开关跳闸","powerTime":"2019-09-13 22:18:56","powerComm":"送电","subsNo":"","lineNo":"","tgNo":"","tgName":null,"infoStatus":"1","orgName":"浙江杭州电力客户服务中心","typeName":null,"infoStatusName":null,"dateDay":null,"orgNos":null,"nowTime":null,"countyName":null,"streetName":null,"villageName":null,"roadName":null,"communityName":null,"tranName":null,"sdLineName":null,"cityCode":"3340101","cityName":"浙江杭州电力客户服务中心","provinceCode":null,"stopTime":"2019-09-13 22:47:42","powerType":"全部","powerOffArea":"110kV石桥变:速达9429线","powerOffReason":"高压开关跳闸","powerOffId":"2019091331020191"}],"pageModel":{"pageNow":1106,"totalCount":17789,"totalPage":1779,"tableRows":0,"pageCount":10,"beginCount":11050},"isExperi":"1"}