{"message":"","today":"2020-06-16","seleList":[{"poweroffId":2019091231020534,"sgpoweroffId":null,"subsName":"","lineName":"10kV洪庄D292线","pubTranName":"颜家坞1#公变,","scope":"浙江省杭州市富阳区银湖街道杜墓村颜家坞村一带","startTime":"2019-09-25 09:00:00","stopDate":"2019-09-25 16:30:00","orgNo":"3340170","typeCode":"计划停电","poweroffArea":"35kV新义变:洪庄D292线-颜家坞1#公变后段","poweroffReason":"迎东2019年虎哨杏村3#麻墩公变等10kV配变增容布点工程：颜家坞1#公变由200kVA增容至400kVA及低压线路改接等工作","powerTime":"2019-09-25 16:01:17","powerComm":"已送电","subsNo":"","lineNo":"","tgNo":"","tgName":null,"infoStatus":"1","orgName":"国网浙江杭州市富阳区供电公司","typeName":null,"infoStatusName":null,"dateDay":null,"orgNos":null,"nowTime":null,"countyName":null,"streetName":null,"villageName":null,"roadName":null,"communityName":null,"tranName":null,"sdLineName":null,"cityCode":"3340170","cityName":"国网浙江杭州市富阳区供电公司","provinceCode":null,"stopTime":"2019-09-25 16:30:00","powerType":"全部","powerOffArea":"35kV新义变:洪庄D292线-颜家坞1#公变后段","powerOffReason":"迎东2019年虎哨杏村3#麻墩公变等10kV配变增容布点工程：颜家坞1#公变由200kVA增容至400kVA及低压线路改接等工作","powerOffId":"2019091231020534"},{"poweroffId":2019091231020530,"sgpoweroffId":null,"subsName":"","lineName":"10kV图山D502线","pubTranName":"下图山村4号新区公变,","scope":"浙江省-杭州市-富阳区-场口镇-下图山行政村-下图山自然村一带","startTime":"2019-09-25 08:30:00","stopDate":"2019-09-25 18:30:00","orgNo":"3340170","typeCode":"计划停电","poweroffArea":"110kV常安变:图山D502线-下图山村4#新区公变开关后段","poweroffReason":"图山D502线151#杆新区分线1#杆下图山村4#新区公变拆除低压电缆并搭接于T接箱出线侧等工作。原停电结束时间为2019-09-25 09:15:00,因政策原因,现变更停电结束时间为2019-09-25 18:30:00","powerTime":"2019-09-25 18:20:34","powerComm":"已送电","subsNo":"","lineNo":"","tgNo":"","tgName":null,"infoStatus":"1","orgName":"国网浙江杭州市富阳区供电公司","typeName":null,"infoStatusName":null,"dateDay":null,"orgNos":null,"nowTime":null,"countyName":null,"streetName":null,"villageName":null,"roadName":null,"communityName":null,"tranName":null,"sdLineName":null,"cityCode":"3340170","cityName":"国网浙江杭州市富阳区供电公司","provinceCode":null,"stopTime":"2019-09-25 18:30:00","powerType":"全部","powerOffArea":"110kV常安变:图山D502线-下图山村4#新区公变开关后段","powerOffReason":"图山D502线151#杆新区分线1#杆下图山村4#新区公变拆除低压电缆并搭接于T接箱出线侧等工作。原停电结束时间为2019-09-25 09:15:00,因政策原因,现变更停电结束时间为2019-09-25 18:30:00","powerOffId":"2019091231020530"},{"poweroffId":2019091231020525,"sgpoweroffId":null,"subsName":"","lineName":"10kV劳动D365线","pubTranName":"杭州杭富轨道交通有限公司 2#,","scope":"浙江省-杭州市-富阳区-富春街道-金桥社区-中铁一局集团第五工程有限公司","startTime":"2019-10-09 07:00:00","stopDate":"2019-10-09 18:00:00","orgNo":"3340170","typeCode":"计划停电","poweroffArea":"110kV富鹿变:劳动D365线-中铁一局集团第五工程有限公司后段;劳动D365线-中铁一局集团第五工程有限公司后段","poweroffReason":"配合客户内部检修 原停电结束时间为2019-10-09 16:00:00,因工作复杂原因,现变更停电结束时间为2019-10-09 18:00:00","powerTime":"2019-10-09 17:33:20","powerComm":"已送电","subsNo":"","lineNo":"","tgNo":"","tgName":null,"infoStatus":"1","orgName":"国网浙江杭州市富阳区供电公司","typeName":null,"infoStatusName":null,"dateDay":null,"orgNos":null,"nowTime":null,"countyName":null,"streetName":null,"villageName":null,"roadName":null,"communityName":null,"tranName":null,"sdLineName":null,"cityCode":"3340170","cityName":"国网浙江杭州市富阳区供电公司","provinceCode":null,"stopTime":"2019-10-09 18:00:00","powerType":"全部","powerOffArea":"110kV富鹿变:劳动D365线-中铁一局集团第五工程有限公司后段;劳动D365线-中铁一局集团第五工程有限公司后段","powerOffReason":"配合客户内部检修 原停电结束时间为2019-10-09 16:00:00,因工作复杂原因,现变更停电结束时间为2019-10-09 18:00:00","powerOffId":"2019091231020525"},{"poweroffId":2019091231020520,"sgpoweroffId":null,"subsName":"","lineName":"10kV阳山D615线","pubTranName":"徐家村3#大元操场公变,","scope":"浙江省-杭州市-富阳区-场口镇-徐家行政村(大元里自然村,大元自然村)一带","startTime":"2019-09-24 08:30:00","stopDate":"2019-09-24 15:30:00","orgNo":"3340170","typeCode":"计划停电","poweroffArea":"110kV鸿丰变:阳山D615线-大元操场分线后段","poweroffReason":"阳山D615线40#杆大元操场分线2#杆徐家村3#大元操场公变原200kVA配变至400kVA，更换电杆1支、跌落式开关1组、终端更换，低压电缆及配变附件等工作。","powerTime":"2019-09-24 15:21:33","powerComm":"已送电","subsNo":"","lineNo":"","tgNo":"","tgName":null,"infoStatus":"1","orgName":"国网浙江杭州市富阳区供电公司","typeName":null,"infoStatusName":null,"dateDay":null,"orgNos":null,"nowTime":null,"countyName":null,"streetName":null,"villageName":null,"roadName":null,"communityName":null,"tranName":null,"sdLineName":null,"cityCode":"3340170","cityName":"国网浙江杭州市富阳区供电公司","provinceCode":null,"stopTime":"2019-09-24 15:30:00","powerType":"全部","powerOffArea":"110kV鸿丰变:阳山D615线-大元操场分线后段","powerOffReason":"阳山D615线40#杆大元操场分线2#杆徐家村3#大元操场公变原200kVA配变至400kVA，更换电杆1支、跌落式开关1组、终端更换，低压电缆及配变附件等工作。","powerOffId":"2019091231020520"},{"poweroffId":2019091231020518,"sgpoweroffId":null,"subsName":"","lineName":"10kV灵埠D621线","pubTranName":"灵桥镇人民政府,","scope":"浙江省-杭州市-富阳区-灵桥镇-灵桥行政村-灵桥镇人民政府一带","startTime":"2019-09-24 07:20:00","stopDate":"2019-09-24 15:00:00","orgNo":"3340170","typeCode":"计划停电","poweroffArea":"110kV灵桥变:灵埠D621线-灵桥镇人民政府站内开关后段","poweroffReason":"配合用户内部缺陷检修","powerTime":"2019-09-24 14:52:30","powerComm":"已送电","subsNo":"","lineNo":"","tgNo":"","tgName":null,"infoStatus":"1","orgName":"国网浙江杭州市富阳区供电公司","typeName":null,"infoStatusName":null,"dateDay":null,"orgNos":null,"nowTime":null,"countyName":null,"streetName":null,"villageName":null,"roadName":null,"communityName":null,"tranName":null,"sdLineName":null,"cityCode":"3340170","cityName":"国网浙江杭州市富阳区供电公司","provinceCode":null,"stopTime":"2019-09-24 15:00:00","powerType":"全部","powerOffArea":"110kV灵桥变:灵埠D621线-灵桥镇人民政府站内开关后段","powerOffReason":"配合用户内部缺陷检修","powerOffId":"2019091231020518"},{"poweroffId":2019091231020516,"sgpoweroffId":null,"subsName":"","lineName":"10kV灵埠D621线","pubTranName":"富阳市灵桥镇工业供水有限公司,","scope":"浙江省-杭州市-富阳区-灵桥镇-灵桥行政村-杭州富阳区灵桥镇工业供水有限公司一带","startTime":"2019-09-24 07:00:00","stopDate":"2019-09-24 15:00:00","orgNo":"3340170","typeCode":"计划停电","poweroffArea":"110kV灵桥变:灵埠D621线-富阳市灵桥镇工业供水有限公司站内开关后段","poweroffReason":"配合用户内部检修","powerTime":"2019-09-24 14:50:18","powerComm":"已送电","subsNo":"","lineNo":"","tgNo":"","tgName":null,"infoStatus":"1","orgName":"国网浙江杭州市富阳区供电公司","typeName":null,"infoStatusName":null,"dateDay":null,"orgNos":null,"nowTime":null,"countyName":null,"streetName":null,"villageName":null,"roadName":null,"communityName":null,"tranName":null,"sdLineName":null,"cityCode":"3340170","cityName":"国网浙江杭州市富阳区供电公司","provinceCode":null,"stopTime":"2019-09-24 15:00:00","powerType":"全部","powerOffArea":"110kV灵桥变:灵埠D621线-富阳市灵桥镇工业供水有限公司站内开关后段","powerOffReason":"配合用户内部检修","powerOffId":"2019091231020516"},{"poweroffId":2019091231020508,"sgpoweroffId":null,"subsName":"","lineName":"10kV李家D384线","pubTranName":"新二村7#后坞公变,","scope":"浙江省-杭州市-富阳区-湖源乡-新二村一带","startTime":"2019-09-23 13:25:00","stopDate":"2019-09-23 16:30:00","orgNo":"3340170","typeCode":"计划停电","poweroffArea":"35kV湖源变:李家D384线-新二村7#后坞公变后段","poweroffReason":"李家D384线103#杆钟塔分线33#杆后坞支线13#杆新二村7#后坞公变拆除T接箱电缆并搭接于变压器等工作。原停电开始时间2019-09-23 15:50:00，因客户原因变更至2019-09-23 13:25:00","powerTime":"2019-09-23 15:31:57","powerComm":"已送电","subsNo":"","lineNo":"","tgNo":"","tgName":null,"infoStatus":"1","orgName":"国网浙江杭州市富阳区供电公司","typeName":null,"infoStatusName":null,"dateDay":null,"orgNos":null,"nowTime":null,"countyName":null,"streetName":null,"villageName":null,"roadName":null,"communityName":null,"tranName":null,"sdLineName":null,"cityCode":"3340170","cityName":"国网浙江杭州市富阳区供电公司","provinceCode":null,"stopTime":"2019-09-23 16:30:00","powerType":"全部","powerOffArea":"35kV湖源变:李家D384线-新二村7#后坞公变后段","powerOffReason":"李家D384线103#杆钟塔分线33#杆后坞支线13#杆新二村7#后坞公变拆除T接箱电缆并搭接于变压器等工作。原停电开始时间2019-09-23 15:50:00，因客户原因变更至2019-09-23 13:25:00","powerOffId":"2019091231020508"},{"poweroffId":2019091231020507,"sgpoweroffId":null,"subsName":"","lineName":"10kV李家D384线","pubTranName":"新二村1号鸡宝岭公变,","scope":"浙江省-杭州市-富阳区-湖源乡-新二村一带","startTime":"2019-09-23 13:25:00","stopDate":"2019-09-23 16:30:00","orgNo":"3340170","typeCode":"计划停电","poweroffArea":"35kV湖源变:李家D384线-新二村1号鸡宝岭公变后段","poweroffReason":"李家D384线103#杆钟塔分线20#杆新二村1#鸡宝岭公变拆除T接箱电缆并搭接于变压器等工作。原停电开始时间2019-09-23 15:50:00，因客户原因变更至2019-09-23 13:25:00","powerTime":"2019-09-23 15:31:28","powerComm":"已送电","subsNo":"","lineNo":"","tgNo":"","tgName":null,"infoStatus":"1","orgName":"国网浙江杭州市富阳区供电公司","typeName":null,"infoStatusName":null,"dateDay":null,"orgNos":null,"nowTime":null,"countyName":null,"streetName":null,"villageName":null,"roadName":null,"communityName":null,"tranName":null,"sdLineName":null,"cityCode":"3340170","cityName":"国网浙江杭州市富阳区供电公司","provinceCode":null,"stopTime":"2019-09-23 16:30:00","powerType":"全部","powerOffArea":"35kV湖源变:李家D384线-新二村1号鸡宝岭公变后段","powerOffReason":"李家D384线103#杆钟塔分线20#杆新二村1#鸡宝岭公变拆除T接箱电缆并搭接于变压器等工作。原停电开始时间2019-09-23 15:50:00，因客户原因变更至2019-09-23 13:25:00","powerOffId":"2019091231020507"},{"poweroffId":2019091231020506,"sgpoweroffId":null,"subsName":"","lineName":"10kV河埠350线","pubTranName":"小泗埠村4#变,金星村9#变,建一村8#变,杭州江东横一线路灯箱变5#,民主村6#变,建一村1#变,大江东投资2#,全民村4#变,大江东投资3#,杰宇服装,金星村12#变,聚昌化纤,冬如春卫浴,河庄翔和装饰,全民村8#变,北京城建01,建一村7#变,大江东投资1#,杭州江东横一线路灯箱变2#,建一村3#变,建一村11#变,01,建一村10#变,杭州江东横一线路灯箱变3#,金星村10#变,小泗埠村2#变,杭州江东横一线路灯箱变1#,小泗埠村13#变,1#,北京城建01,建一村4#变,聚昌机械厂,大江东投资4#,杭州江东横一线路灯箱变4#,建一五金,建一村2#变,水利水电临十一,金星村6#变,建一村5#变,杭州江东市政公用事业服务有限公司,","scope":"浙江省-杭州市-萧山区-义蓬街道(小泗埠行政村-小泗埠自然村,全民行政村-全民自然村,金星行政村-金星自然村),河庄街道(建一行政村-建一自然村,民主行政村-民主自然村);义蓬街道-金星行政村(中国水利水电第十四工程局有限公司杭州大江东基础设施项目经理部,北京城建中南土木工程集团有限公司),河庄街道-建一行政村(杭州杰宇时装有限公司,杭州聚昌化纤有限公司,萧山市聚昌机械附件有限公司,杭州萧山建一五金有限公司,杭州千路新型建材有限公司,杭州冬如春卫浴洁具有限公司,杭州吉祥电动车有限公司),前进街道-前进工业园区-杭州大江东投资开发有限公司,义蓬街道-全民行政村-中国水利水电第十四工程局有限公司,河庄街道-江东开发区园区-杭州江东市政公用事业服务有限公司,河庄街道建一村一组,河庄街道建一行政村一带","startTime":"2019-09-12 15:27:40","stopDate":"2019-09-12 17:00:40","orgNo":"3340120","typeCode":"电网故障停限电","poweroffArea":"110kV河庄变:河埠350线","poweroffReason":"高压开关跳闸","powerTime":"2019-09-12 16:28:03","powerComm":"已送电","subsNo":"","lineNo":"","tgNo":"","tgName":null,"infoStatus":"1","orgName":"国网浙江杭州市钱塘新区供电公司","typeName":null,"infoStatusName":null,"dateDay":null,"orgNos":null,"nowTime":null,"countyName":null,"streetName":null,"villageName":null,"roadName":null,"communityName":null,"tranName":null,"sdLineName":null,"cityCode":"3340120","cityName":"国网浙江杭州市钱塘新区供电公司","provinceCode":null,"stopTime":"2019-09-12 17:00:40","powerType":"全部","powerOffArea":"110kV河庄变:河埠350线","powerOffReason":"高压开关跳闸","powerOffId":"2019091231020506"},{"poweroffId":2019091231020485,"sgpoweroffId":null,"subsName":"","lineName":"10kV秋山D925线","pubTranName":"里山排涝站,","scope":"浙江省-杭州市-富阳区-里山镇-里山行政村-里山排涝站一带","startTime":"2019-09-23 07:00:00","stopDate":"2019-09-23 14:00:00","orgNo":"3340170","typeCode":"计划停电","poweroffArea":"110kV里渔变:秋山D925线-里山排涝站跌落式熔断器后段","poweroffReason":"江南2019年里渔变间隔更换工程：秋山D925线出线间隔更换至备用D920线工作。","powerTime":"2019-09-23 13:50:46","powerComm":"已送电","subsNo":"","lineNo":"","tgNo":"","tgName":null,"infoStatus":"1","orgName":"国网浙江杭州市富阳区供电公司","typeName":null,"infoStatusName":null,"dateDay":null,"orgNos":null,"nowTime":null,"countyName":null,"streetName":null,"villageName":null,"roadName":null,"communityName":null,"tranName":null,"sdLineName":null,"cityCode":"3340170","cityName":"国网浙江杭州市富阳区供电公司","provinceCode":null,"stopTime":"2019-09-23 14:00:00","powerType":"全部","powerOffArea":"110kV里渔变:秋山D925线-里山排涝站跌落式熔断器后段","powerOffReason":"江南2019年里渔变间隔更换工程：秋山D925线出线间隔更换至备用D920线工作。","powerOffId":"2019091231020485"}],"pageModel":{"pageNow":1112,"totalCount":17789,"totalPage":1779,"tableRows":0,"pageCount":10,"beginCount":11110},"isExperi":"1"}