{"message":"","today":"2020-06-16","seleList":[{"poweroffId":2019091231020484,"sgpoweroffId":null,"subsName":"","lineName":"10kV李家D384线","pubTranName":"新二村1号鸡宝岭公变,","scope":"浙江省-杭州市-富阳区-湖源乡-新二村一带","startTime":"2019-09-23 08:30:00","stopDate":"2019-09-23 09:15:00","orgNo":"3340170","typeCode":"计划停电","poweroffArea":"35kV湖源变:李家D384线-新二村1号鸡宝岭后段","poweroffReason":"李家D384线103#杆钟塔分线20#杆新二村1#鸡宝岭公变拆除低压电缆并搭接于T接箱出线侧等工作。","powerTime":"2019-09-23 09:12:53","powerComm":"已送电","subsNo":"","lineNo":"","tgNo":"","tgName":null,"infoStatus":"1","orgName":"国网浙江杭州市富阳区供电公司","typeName":null,"infoStatusName":null,"dateDay":null,"orgNos":null,"nowTime":null,"countyName":null,"streetName":null,"villageName":null,"roadName":null,"communityName":null,"tranName":null,"sdLineName":null,"cityCode":"3340170","cityName":"国网浙江杭州市富阳区供电公司","provinceCode":null,"stopTime":"2019-09-23 09:15:00","powerType":"全部","powerOffArea":"35kV湖源变:李家D384线-新二村1号鸡宝岭后段","powerOffReason":"李家D384线103#杆钟塔分线20#杆新二村1#鸡宝岭公变拆除低压电缆并搭接于T接箱出线侧等工作。","powerOffId":"2019091231020484"},{"poweroffId":2019091231020482,"sgpoweroffId":null,"subsName":"","lineName":"10kV李家D384线","pubTranName":"新二村7#后坞公变,","scope":"浙江省-杭州市-富阳区-湖源乡-新二村一带","startTime":"2019-09-23 08:30:00","stopDate":"2019-09-23 09:15:00","orgNo":"3340170","typeCode":"计划停电","poweroffArea":"35kV湖源变:李家D384线-新二村7#后坞公变后段","poweroffReason":"李家D384线103#杆钟塔分线33#杆后坞支线13#杆新二村7#后坞公变拆除低压电缆并搭接于T接箱出线侧等工作。","powerTime":"2019-09-23 09:12:42","powerComm":"已送电","subsNo":"","lineNo":"","tgNo":"","tgName":null,"infoStatus":"1","orgName":"国网浙江杭州市富阳区供电公司","typeName":null,"infoStatusName":null,"dateDay":null,"orgNos":null,"nowTime":null,"countyName":null,"streetName":null,"villageName":null,"roadName":null,"communityName":null,"tranName":null,"sdLineName":null,"cityCode":"3340170","cityName":"国网浙江杭州市富阳区供电公司","provinceCode":null,"stopTime":"2019-09-23 09:15:00","powerType":"全部","powerOffArea":"35kV湖源变:李家D384线-新二村7#后坞公变后段","powerOffReason":"李家D384线103#杆钟塔分线33#杆后坞支线13#杆新二村7#后坞公变拆除低压电缆并搭接于T接箱出线侧等工作。","powerOffId":"2019091231020482"},{"poweroffId":2019091231020468,"sgpoweroffId":null,"subsName":"","lineName":"10kV天目V298线","pubTranName":"配电变压器,天目山管理局,","scope":"浙江省-杭州市-临安市-天目山镇天目山管理局,天目山旅游建设有限公司","startTime":"2019-09-23 08:30:00","stopDate":"2019-09-23 16:30:00","orgNo":"3340160","typeCode":"计划停电","poweroffArea":"停35kV西天目变天目V298线147#杆2983开关至浮玉站2985开关之间","poweroffReason":"缺陷处理","powerTime":"2019-09-23 16:17:36","powerComm":"已送电","subsNo":"","lineNo":"","tgNo":"","tgName":null,"infoStatus":"1","orgName":"国网浙江临安市供电公司","typeName":null,"infoStatusName":null,"dateDay":null,"orgNos":null,"nowTime":null,"countyName":null,"streetName":null,"villageName":null,"roadName":null,"communityName":null,"tranName":null,"sdLineName":null,"cityCode":"3340160","cityName":"国网浙江临安市供电公司","provinceCode":null,"stopTime":"2019-09-23 16:30:00","powerType":"全部","powerOffArea":"停35kV西天目变天目V298线147#杆2983开关至浮玉站2985开关之间","powerOffReason":"缺陷处理","powerOffId":"2019091231020468"},{"poweroffId":2019091231020466,"sgpoweroffId":null,"subsName":"","lineName":"10kV千家Y408线","pubTranName":"溪沿村小江溪台区,","scope":"浙江省-杭州市-建德市-航头镇-溪沿行政村 大山畈自然村,溪沿自然村,小江溪自然村一带用户。","startTime":"2019-09-12 15:15:00","stopDate":"2019-09-12 17:30:00","orgNo":"3340180","typeCode":"电网故障停限电","poweroffArea":"110kV航头变:千家Y408线-溪沿村小江溪台区后段","poweroffReason":"(低压停电信息)低压开关跳闸","powerTime":"2019-09-12 17:05:00","powerComm":"已送电","subsNo":"","lineNo":"","tgNo":"","tgName":null,"infoStatus":"1","orgName":"国网浙江建德市供电有限公司","typeName":null,"infoStatusName":null,"dateDay":null,"orgNos":null,"nowTime":null,"countyName":null,"streetName":null,"villageName":null,"roadName":null,"communityName":null,"tranName":null,"sdLineName":null,"cityCode":"3340180","cityName":"国网浙江建德市供电有限公司","provinceCode":null,"stopTime":"2019-09-12 17:30:00","powerType":"全部","powerOffArea":"110kV航头变:千家Y408线-溪沿村小江溪台区后段","powerOffReason":"(低压停电信息)低压开关跳闸","powerOffId":"2019091231020466"},{"poweroffId":2019091231020462,"sgpoweroffId":null,"subsName":"","lineName":"10kV洞桥D334线","pubTranName":"洞桥村1#皇印石公变,富阳鑫南机械有限公司,洞桥村12#假山头公变,","scope":"浙江省杭州市富阳区洞桥镇洞桥行政村一带","startTime":"2019-09-24 08:30:00","stopDate":"2019-09-24 17:30:00","orgNo":"3340170","typeCode":"计划停电","poweroffArea":"110kV万市变:洞桥D334线全线","poweroffReason":"万市变新出10kV双回路：1）分支改接、真空开关拆装3处、立杆1支、导线上提、弧垂调整、新装分段开关2台。2）原洞桥、上林线35#杆-45#杆调换导线、分支改接、吊车立杆2支、真空开关安装3台等工作","powerTime":"2019-09-24 17:21:55","powerComm":"已送电","subsNo":"","lineNo":"","tgNo":"","tgName":null,"infoStatus":"1","orgName":"国网浙江杭州市富阳区供电公司","typeName":null,"infoStatusName":null,"dateDay":null,"orgNos":null,"nowTime":null,"countyName":null,"streetName":null,"villageName":null,"roadName":null,"communityName":null,"tranName":null,"sdLineName":null,"cityCode":"3340170","cityName":"国网浙江杭州市富阳区供电公司","provinceCode":null,"stopTime":"2019-09-24 17:30:00","powerType":"全部","powerOffArea":"110kV万市变:洞桥D334线全线","powerOffReason":"万市变新出10kV双回路：1）分支改接、真空开关拆装3处、立杆1支、导线上提、弧垂调整、新装分段开关2台。2）原洞桥、上林线35#杆-45#杆调换导线、分支改接、吊车立杆2支、真空开关安装3台等工作","powerOffId":"2019091231020462"},{"poweroffId":2019091231020460,"sgpoweroffId":null,"subsName":"","lineName":"10kV上林D335线","pubTranName":"富阳天使链罩有限责任公司,杭州富阳金欣机电有限公司1#变,富锚机械,杭州新兴车料有限公司,洞桥村4#落马变公变,","scope":"浙江省杭州市富阳区洞桥镇洞桥行政村一带","startTime":"2019-09-24 08:30:00","stopDate":"2019-09-24 17:30:00","orgNo":"3340170","typeCode":"计划停电","poweroffArea":"110kV万市变:上林D335线全线","poweroffReason":"万市变新出10kV双回路：1）分支改接、真空开关拆装3处、立杆1支、导线上提、弧垂调整、新装分段开关2台。2）原洞桥、上林线35#杆-45#杆调换导线、分支改接、吊车立杆2支、真空开关安装3台等工作","powerTime":"2019-09-24 17:21:33","powerComm":"已送电","subsNo":"","lineNo":"","tgNo":"","tgName":null,"infoStatus":"1","orgName":"国网浙江杭州市富阳区供电公司","typeName":null,"infoStatusName":null,"dateDay":null,"orgNos":null,"nowTime":null,"countyName":null,"streetName":null,"villageName":null,"roadName":null,"communityName":null,"tranName":null,"sdLineName":null,"cityCode":"3340170","cityName":"国网浙江杭州市富阳区供电公司","provinceCode":null,"stopTime":"2019-09-24 17:30:00","powerType":"全部","powerOffArea":"110kV万市变:上林D335线全线","powerOffReason":"万市变新出10kV双回路：1）分支改接、真空开关拆装3处、立杆1支、导线上提、弧垂调整、新装分段开关2台。2）原洞桥、上林线35#杆-45#杆调换导线、分支改接、吊车立杆2支、真空开关安装3台等工作","powerOffId":"2019091231020460"},{"poweroffId":2019091231020449,"sgpoweroffId":null,"subsName":"","lineName":"10kV大塘D797线","pubTranName":"华丰村4号馒头山村中公变,","scope":"浙江省杭州市富阳区场口镇华丰行政村馒头山自然村一带","startTime":"2019-09-25 08:40:00","stopDate":"2019-09-25 15:10:00","orgNo":"3340170","typeCode":"计划停电","poweroffArea":"110kV王洲变:大塘D797线-华丰村4#馒头山村中公变低压出线后段","poweroffReason":"(低压停电信息)更换出线电缆一路、杆上搭接等工作","powerTime":"2019-09-25 14:40:41","powerComm":"已送电","subsNo":"","lineNo":"","tgNo":"","tgName":null,"infoStatus":"1","orgName":"国网浙江杭州市富阳区供电公司","typeName":null,"infoStatusName":null,"dateDay":null,"orgNos":null,"nowTime":null,"countyName":null,"streetName":null,"villageName":null,"roadName":null,"communityName":null,"tranName":null,"sdLineName":null,"cityCode":"3340170","cityName":"国网浙江杭州市富阳区供电公司","provinceCode":null,"stopTime":"2019-09-25 15:10:00","powerType":"全部","powerOffArea":"110kV王洲变:大塘D797线-华丰村4#馒头山村中公变低压出线后段","powerOffReason":"(低压停电信息)更换出线电缆一路、杆上搭接等工作","powerOffId":"2019091231020449"},{"poweroffId":2019091231020435,"sgpoweroffId":null,"subsName":"","lineName":"10kV上林D335线","pubTranName":"洞桥村16#十房里公变,2#,杭州蓝锋铝业有限公司变压器,洞桥村14#井山新村公变,新兴车料2#,洞桥村6#凌家公变,洞桥村13#石剪口公变,洞桥村5#旗山公变,洞桥村7#沈家公变,洞桥村8#龙王坎公变,1#,","scope":"浙江省杭州市富阳区洞桥镇洞桥行政村一带","startTime":"2019-09-24 17:40:00","stopDate":"2019-09-24 18:00:00","orgNo":"3340170","typeCode":"计划停电","poweroffArea":"110kV万市变:上林D335线38#杆后段","poweroffReason":"配合10kV发电车接入工作","powerTime":"2019-09-24 17:50:24","powerComm":"已送电","subsNo":"","lineNo":"","tgNo":"","tgName":null,"infoStatus":"1","orgName":"国网浙江杭州市富阳区供电公司","typeName":null,"infoStatusName":null,"dateDay":null,"orgNos":null,"nowTime":null,"countyName":null,"streetName":null,"villageName":null,"roadName":null,"communityName":null,"tranName":null,"sdLineName":null,"cityCode":"3340170","cityName":"国网浙江杭州市富阳区供电公司","provinceCode":null,"stopTime":"2019-09-24 18:00:00","powerType":"全部","powerOffArea":"110kV万市变:上林D335线38#杆后段","powerOffReason":"配合10kV发电车接入工作","powerOffId":"2019091231020435"},{"poweroffId":2019091231020424,"sgpoweroffId":null,"subsName":"","lineName":"10kV陆桥H788线","pubTranName":"南新桥,","scope":"浙江省杭州市余杭区闲林街道：万景村南新桥一带","startTime":"2019-09-25 08:40:00","stopDate":"2019-09-25 18:00:00","orgNo":"3340140","typeCode":"计划停电","poweroffArea":"陆桥H788线南新桥分线13号杆开关","poweroffReason":"计划工作","powerTime":"2019-09-25 17:25:45","powerComm":"已送电","subsNo":"","lineNo":"","tgNo":"","tgName":null,"infoStatus":"1","orgName":"国网浙江杭州市余杭区供电有限公司","typeName":null,"infoStatusName":null,"dateDay":null,"orgNos":null,"nowTime":null,"countyName":null,"streetName":null,"villageName":null,"roadName":null,"communityName":null,"tranName":null,"sdLineName":null,"cityCode":"3340140","cityName":"国网浙江杭州市余杭区供电有限公司","provinceCode":null,"stopTime":"2019-09-25 18:00:00","powerType":"全部","powerOffArea":"陆桥H788线南新桥分线13号杆开关","powerOffReason":"计划工作","powerOffId":"2019091231020424"},{"poweroffId":2019091231020423,"sgpoweroffId":null,"subsName":"","lineName":"10kV陆桥H788线","pubTranName":"佑腾包装,骏翔箱包,立丹机械,畅兴食品,恒杭工贸,骏翔箱包,万景村鱼家角公变,佑腾包装,","scope":"浙江省杭州市余杭区闲林街道：立丹机械厂、畅兴食品厂、恒杭工贸厂、骏翔箱包厂、天贝纸塑厂一带","startTime":"2019-09-25 08:40:00","stopDate":"2019-09-25 18:00:00","orgNo":"3340140","typeCode":"计划停电","poweroffArea":"陆桥H788线鱼家角分线、陆桥H788线骏翔箱包分线","poweroffReason":"计划工作","powerTime":"2019-09-25 17:26:18","powerComm":"已送电","subsNo":"","lineNo":"","tgNo":"","tgName":null,"infoStatus":"1","orgName":"国网浙江杭州市余杭区供电有限公司","typeName":null,"infoStatusName":null,"dateDay":null,"orgNos":null,"nowTime":null,"countyName":null,"streetName":null,"villageName":null,"roadName":null,"communityName":null,"tranName":null,"sdLineName":null,"cityCode":"3340140","cityName":"国网浙江杭州市余杭区供电有限公司","provinceCode":null,"stopTime":"2019-09-25 18:00:00","powerType":"全部","powerOffArea":"陆桥H788线鱼家角分线、陆桥H788线骏翔箱包分线","powerOffReason":"计划工作","powerOffId":"2019091231020423"}],"pageModel":{"pageNow":1113,"totalCount":17789,"totalPage":1779,"tableRows":0,"pageCount":10,"beginCount":11120},"isExperi":"1"}