{"message":"","today":"2020-06-15","seleList":[{"poweroffId":2020052231020759,"sgpoweroffId":null,"subsName":"","lineName":"10kV紫东A787线","pubTranName":"众联村14#变,","scope":"浙江省-杭州市-萧山区-河上镇-众联行政村-联合自然村等","startTime":"2020-05-22 16:35:41","stopDate":"2020-05-22 17:25:41","orgNo":"3340130","typeCode":"电网故障停限电","poweroffArea":"110kV大西变:紫东A787线-众联村14#变低压开关","poweroffReason":"(低压停电信息)低压漏电保护器跳闸","powerTime":"2020-05-22 16:50:26","powerComm":"已送电","subsNo":"","lineNo":"","tgNo":"","tgName":null,"infoStatus":"1","orgName":"国网浙江杭州市萧山区供电有限公司","typeName":null,"infoStatusName":null,"dateDay":null,"orgNos":null,"nowTime":null,"countyName":null,"streetName":null,"villageName":null,"roadName":null,"communityName":null,"tranName":null,"sdLineName":null,"cityCode":"3340130","cityName":"国网浙江杭州市萧山区供电有限公司","provinceCode":null,"stopTime":"2020-05-22 17:25:41","powerType":"全部","powerOffArea":"110kV大西变:紫东A787线-众联村14#变低压开关","powerOffReason":"(低压停电信息)低压漏电保护器跳闸","powerOffId":"2020052231020759"},{"poweroffId":2020052231020756,"sgpoweroffId":null,"subsName":"","lineName":"10kV拔山D942线","pubTranName":"中铁十二局集团有限公司,","scope":"浙江省-杭州市-富阳区-富春街道-杨清庙行政村-中铁十二局集团有限公司","startTime":"2020-06-03 09:00:00","stopDate":"2020-06-03 13:30:00","orgNo":"3340170","typeCode":"计划停电","poweroffArea":"110kV育才变:拔山D942线-中铁十二局集团有限公司后段","poweroffReason":"中铁十二局集团有限公司湖杭铁路项目经理部二分部基建变工程：架设导线1档，配变搭头线改接等工作。","powerTime":"2020-06-03 13:07:48","powerComm":"已送电","subsNo":"","lineNo":"","tgNo":"","tgName":null,"infoStatus":"1","orgName":"国网浙江杭州市富阳区供电公司","typeName":null,"infoStatusName":null,"dateDay":null,"orgNos":null,"nowTime":null,"countyName":null,"streetName":null,"villageName":null,"roadName":null,"communityName":null,"tranName":null,"sdLineName":null,"cityCode":"3340170","cityName":"国网浙江杭州市富阳区供电公司","provinceCode":null,"stopTime":"2020-06-03 13:30:00","powerType":"全部","powerOffArea":"110kV育才变:拔山D942线-中铁十二局集团有限公司后段","powerOffReason":"中铁十二局集团有限公司湖杭铁路项目经理部二分部基建变工程：架设导线1档，配变搭头线改接等工作。","powerOffId":"2020052231020756"},{"poweroffId":2020052231020728,"sgpoweroffId":null,"subsName":"","lineName":"10kV状元D417线","pubTranName":"栋山村3#渠道公变,","scope":"浙江省-杭州市-富阳区-鹿山街道-南山行政村-栋山自然村","startTime":"2020-06-07 17:35:00","stopDate":"2020-06-07 18:15:00","orgNo":"3340170","typeCode":"计划停电","poweroffArea":"110kV长春变:状元D417线-栋山村3#渠道公变后段","poweroffReason":"青云2019年10kv状元D417线电站分线等线路改造工程：栋山村3#渠道公变变压器0.4kv出线电缆恢复","powerTime":"2020-06-07 18:00:12","powerComm":"已送电","subsNo":"","lineNo":"","tgNo":"","tgName":null,"infoStatus":"1","orgName":"国网浙江杭州市富阳区供电公司","typeName":null,"infoStatusName":null,"dateDay":null,"orgNos":null,"nowTime":null,"countyName":null,"streetName":null,"villageName":null,"roadName":null,"communityName":null,"tranName":null,"sdLineName":null,"cityCode":"3340170","cityName":"国网浙江杭州市富阳区供电公司","provinceCode":null,"stopTime":"2020-06-07 18:15:00","powerType":"全部","powerOffArea":"110kV长春变:状元D417线-栋山村3#渠道公变后段","powerOffReason":"青云2019年10kv状元D417线电站分线等线路改造工程：栋山村3#渠道公变变压器0.4kv出线电缆恢复","powerOffId":"2020052231020728"},{"poweroffId":2020052231020724,"sgpoweroffId":null,"subsName":"","lineName":"10kV状元D417线","pubTranName":"中铁三局集团第二工程有限公司24#变,","scope":"浙江省-杭州市-富阳区-鹿山街道-南山行政村-中铁三局集团第二工程有限公司","startTime":"2020-06-07 07:40:00","stopDate":"2020-06-07 19:00:00","orgNo":"3340170","typeCode":"计划停电","poweroffArea":"110kV长春变:状元D417线-中铁三局集团第二工程有限公司24#变后段","poweroffReason":"青云2019年10kv状元D417线电站分线等线路改造工程：客户内部检修 原停电结束时间为2020-06-07 17:30:00,因现场故障情况复杂,现变更停电结束时间为2020-06-07 19:00:00","powerTime":"2020-06-07 18:18:25","powerComm":"已送电","subsNo":"","lineNo":"","tgNo":"","tgName":null,"infoStatus":"1","orgName":"国网浙江杭州市富阳区供电公司","typeName":null,"infoStatusName":null,"dateDay":null,"orgNos":null,"nowTime":null,"countyName":null,"streetName":null,"villageName":null,"roadName":null,"communityName":null,"tranName":null,"sdLineName":null,"cityCode":"3340170","cityName":"国网浙江杭州市富阳区供电公司","provinceCode":null,"stopTime":"2020-06-07 19:00:00","powerType":"全部","powerOffArea":"110kV长春变:状元D417线-中铁三局集团第二工程有限公司24#变后段","powerOffReason":"青云2019年10kv状元D417线电站分线等线路改造工程：客户内部检修 原停电结束时间为2020-06-07 17:30:00,因现场故障情况复杂,现变更停电结束时间为2020-06-07 19:00:00","powerOffId":"2020052231020724"},{"poweroffId":2020052231020720,"sgpoweroffId":null,"subsName":"","lineName":"10kV状元D417线","pubTranName":"中铁三局集团第二工程有限公司1#变,","scope":"浙江省-杭州市-富阳区-鹿山街道-南山行政村-中铁三局集团第二工程有限公司","startTime":"2020-06-07 07:00:00","stopDate":"2020-06-07 19:00:00","orgNo":"3340170","typeCode":"计划停电","poweroffArea":"110kV长春变:状元D417线-中铁三局集团第二工程有限公司1#变后段","poweroffReason":"客户内部检修 原停电结束时间为2020-06-07 17:30:00,因现场故障情况复杂,现变更停电结束时间为2020-06-07 19:00:00","powerTime":"2020-06-07 18:18:15","powerComm":"已送电","subsNo":"","lineNo":"","tgNo":"","tgName":null,"infoStatus":"1","orgName":"国网浙江杭州市富阳区供电公司","typeName":null,"infoStatusName":null,"dateDay":null,"orgNos":null,"nowTime":null,"countyName":null,"streetName":null,"villageName":null,"roadName":null,"communityName":null,"tranName":null,"sdLineName":null,"cityCode":"3340170","cityName":"国网浙江杭州市富阳区供电公司","provinceCode":null,"stopTime":"2020-06-07 19:00:00","powerType":"全部","powerOffArea":"110kV长春变:状元D417线-中铁三局集团第二工程有限公司1#变后段","powerOffReason":"客户内部检修 原停电结束时间为2020-06-07 17:30:00,因现场故障情况复杂,现变更停电结束时间为2020-06-07 19:00:00","powerOffId":"2020052231020720"},{"poweroffId":2020052231020717,"sgpoweroffId":null,"subsName":"","lineName":"10kV状元D417线","pubTranName":"中铁三局集团第二工程有限公司 22#变,","scope":"浙江省-杭州市-富阳区-鹿山街道-南山行政村-中铁三局集团第二工程有限公司","startTime":"2020-06-07 07:20:00","stopDate":"2020-06-07 19:00:00","orgNo":"3340170","typeCode":"计划停电","poweroffArea":"110kV长春变:状元D417线-中铁三局集团第二工程有限公司 22#变后段","poweroffReason":"青云2019年10kv状元D417线电站分线等线路改造工程：客户内部检修 原停电结束时间为2020-06-07 17:30:00,因现场故障情况复杂,现变更停电结束时间为2020-06-07 19:00:00","powerTime":"2020-06-07 18:18:03","powerComm":"已送电","subsNo":"","lineNo":"","tgNo":"","tgName":null,"infoStatus":"1","orgName":"国网浙江杭州市富阳区供电公司","typeName":null,"infoStatusName":null,"dateDay":null,"orgNos":null,"nowTime":null,"countyName":null,"streetName":null,"villageName":null,"roadName":null,"communityName":null,"tranName":null,"sdLineName":null,"cityCode":"3340170","cityName":"国网浙江杭州市富阳区供电公司","provinceCode":null,"stopTime":"2020-06-07 19:00:00","powerType":"全部","powerOffArea":"110kV长春变:状元D417线-中铁三局集团第二工程有限公司 22#变后段","powerOffReason":"青云2019年10kv状元D417线电站分线等线路改造工程：客户内部检修 原停电结束时间为2020-06-07 17:30:00,因现场故障情况复杂,现变更停电结束时间为2020-06-07 19:00:00","powerOffId":"2020052231020717"},{"poweroffId":2020052231020711,"sgpoweroffId":null,"subsName":"","lineName":"10kV滨体7243线","pubTranName":"江娱施,国税,江娱施2,","scope":"浙江省-杭州市-滨江区-长河街道-长河社区-杭州江滨娱乐有限公司,长河街道-江二社区(杭州江滨娱乐有限公司,杭州市公安局滨江区分局)","startTime":"2020-06-03 09:30:00","stopDate":"2020-06-03 15:50:00","orgNo":"3340101","typeCode":"计划停电","poweroffArea":"110kV江虹变:滨体7243线首端，江娱施，国税，江娱施2之间","poweroffReason":"二地块线路迁改工程PD2019-12-018-QJ 国税支线2号杆新装开关、新放电缆至木制公站 原停电结束时间为2020-06-03 17:00:00,为减少客户停电时间,加快工作进度,提前送电,现变更停电结束时间为2020-06-03 15:50:00","powerTime":"2020-06-03 15:09:59","powerComm":"已送电","subsNo":"","lineNo":"","tgNo":"","tgName":null,"infoStatus":"1","orgName":"浙江杭州电力客户服务中心","typeName":null,"infoStatusName":null,"dateDay":null,"orgNos":null,"nowTime":null,"countyName":null,"streetName":null,"villageName":null,"roadName":null,"communityName":null,"tranName":null,"sdLineName":null,"cityCode":"3340101","cityName":"浙江杭州电力客户服务中心","provinceCode":null,"stopTime":"2020-06-03 15:50:00","powerType":"全部","powerOffArea":"110kV江虹变:滨体7243线首端，江娱施，国税，江娱施2之间","powerOffReason":"二地块线路迁改工程PD2019-12-018-QJ 国税支线2号杆新装开关、新放电缆至木制公站 原停电结束时间为2020-06-03 17:00:00,为减少客户停电时间,加快工作进度,提前送电,现变更停电结束时间为2020-06-03 15:50:00","powerOffId":"2020052231020711"},{"poweroffId":2020052231020710,"sgpoweroffId":null,"subsName":"","lineName":"10kV状元D417线","pubTranName":"中铁三局集团第二工程有限公司1#变,","scope":"浙江省-杭州市-富阳区-鹿山街道-南山行政村-中铁三局集团第二工程有限公司","startTime":"2020-06-07 08:00:00","stopDate":"2020-06-07 19:00:00","orgNo":"3340170","typeCode":"计划停电","poweroffArea":"110kV长春变:状元D417线-状元D417线电站柱上熔断器后段","poweroffReason":"客户内部检修 原停电结束时间为2020-06-07 17:30:00,因现场故障情况复杂,现变更停电结束时间为2020-06-07 19:00:00","powerTime":"2020-06-07 18:17:53","powerComm":"已送电","subsNo":"","lineNo":"","tgNo":"","tgName":null,"infoStatus":"1","orgName":"国网浙江杭州市富阳区供电公司","typeName":null,"infoStatusName":null,"dateDay":null,"orgNos":null,"nowTime":null,"countyName":null,"streetName":null,"villageName":null,"roadName":null,"communityName":null,"tranName":null,"sdLineName":null,"cityCode":"3340170","cityName":"国网浙江杭州市富阳区供电公司","provinceCode":null,"stopTime":"2020-06-07 19:00:00","powerType":"全部","powerOffArea":"110kV长春变:状元D417线-状元D417线电站柱上熔断器后段","powerOffReason":"客户内部检修 原停电结束时间为2020-06-07 17:30:00,因现场故障情况复杂,现变更停电结束时间为2020-06-07 19:00:00","powerOffId":"2020052231020710"},{"poweroffId":2020052231020706,"sgpoweroffId":null,"subsName":"","lineName":"10kV滨体7243线","pubTranName":"周家园五,","scope":"浙江省-杭州市-滨江区-长河街道(江二社区-江二,天官社区-天官路天官公寓)浙江省杭州市滨江区长河街道江二农贸市场附近","startTime":"2020-06-01 09:30:00","stopDate":"2020-06-01 15:40:00","orgNo":"3340101","typeCode":"计划停电","poweroffArea":"110kV江虹变:滨体7243线-周家园五后段","poweroffReason":"拆迁安置房江二地块线路迁改工程PD2019-12-018-QJ 新设开关站，周家园五进线电缆改接 原停电结束时间为2020-06-01 17:00:00,为减少客户停电时间,加快工作进度,提前送电,现变更停电结束时间为2020-06-01 15:40:00","powerTime":"2020-06-01 14:44:59","powerComm":"已送电","subsNo":"","lineNo":"","tgNo":"","tgName":null,"infoStatus":"1","orgName":"浙江杭州电力客户服务中心","typeName":null,"infoStatusName":null,"dateDay":null,"orgNos":null,"nowTime":null,"countyName":null,"streetName":null,"villageName":null,"roadName":null,"communityName":null,"tranName":null,"sdLineName":null,"cityCode":"3340101","cityName":"浙江杭州电力客户服务中心","provinceCode":null,"stopTime":"2020-06-01 15:40:00","powerType":"全部","powerOffArea":"110kV江虹变:滨体7243线-周家园五后段","powerOffReason":"拆迁安置房江二地块线路迁改工程PD2019-12-018-QJ 新设开关站，周家园五进线电缆改接 原停电结束时间为2020-06-01 17:00:00,为减少客户停电时间,加快工作进度,提前送电,现变更停电结束时间为2020-06-01 15:40:00","powerOffId":"2020052231020706"},{"poweroffId":2020052231020704,"sgpoweroffId":null,"subsName":"","lineName":"10kV三溪D337线","pubTranName":"大溪村16#炎田坞公变,大溪村8#东畈公变,","scope":"浙江省-杭州市-富阳区-洞桥镇-大溪行政村-东畈自然村、炎田坞自然村一带","startTime":"2020-06-07 09:00:00","stopDate":"2020-06-07 17:00:00","orgNo":"3340170","typeCode":"计划停电","poweroffArea":"110kV万市变:三溪D337线-大溪村8#东畈公变后段","poweroffReason":"俞毕线线路迁改工程:三贤联线75#杆至102#杆线路杆子移位、拉线制作、0.4kv割接等工作","powerTime":"2020-06-07 16:51:40","powerComm":"已送电","subsNo":"","lineNo":"","tgNo":"","tgName":null,"infoStatus":"1","orgName":"国网浙江杭州市富阳区供电公司","typeName":null,"infoStatusName":null,"dateDay":null,"orgNos":null,"nowTime":null,"countyName":null,"streetName":null,"villageName":null,"roadName":null,"communityName":null,"tranName":null,"sdLineName":null,"cityCode":"3340170","cityName":"国网浙江杭州市富阳区供电公司","provinceCode":null,"stopTime":"2020-06-07 17:00:00","powerType":"全部","powerOffArea":"110kV万市变:三溪D337线-大溪村8#东畈公变后段","powerOffReason":"俞毕线线路迁改工程:三贤联线75#杆至102#杆线路杆子移位、拉线制作、0.4kv割接等工作","powerOffId":"2020052231020704"}],"pageModel":{"pageNow":113,"totalCount":17786,"totalPage":1779,"tableRows":0,"pageCount":10,"beginCount":1120},"isExperi":"1"}