{"message":"","today":"2020-06-16","seleList":[{"poweroffId":2019091231020325,"sgpoweroffId":null,"subsName":"","lineName":"10kV桐洲D842线","pubTranName":"孙家村2号村口公变,","scope":"浙江省-杭州市-富阳区-新桐乡-江洲行政村-孙家自然村","startTime":"2019-09-24 07:10:00","stopDate":"2019-09-24 16:50:00","orgNo":"3340170","typeCode":"计划停电","poweroffArea":"110kV新桐变:桐洲D842线-孙家村2号村口公变后段","poweroffReason":"(低压停电信息)青云2019年蒋家村12#林场公变等低压台区改造工程照明1#线架设BS-4*35*4档，更换落户线和表箱15处，照明3#线架设BS-4*35*2档，更换落户线和表箱10处，搭接等工作","powerTime":"2019-09-24 16:40:14","powerComm":"已送电","subsNo":"","lineNo":"","tgNo":"","tgName":null,"infoStatus":"1","orgName":"国网浙江杭州市富阳区供电公司","typeName":null,"infoStatusName":null,"dateDay":null,"orgNos":null,"nowTime":null,"countyName":null,"streetName":null,"villageName":null,"roadName":null,"communityName":null,"tranName":null,"sdLineName":null,"cityCode":"3340170","cityName":"国网浙江杭州市富阳区供电公司","provinceCode":null,"stopTime":"2019-09-24 16:50:00","powerType":"全部","powerOffArea":"110kV新桐变:桐洲D842线-孙家村2号村口公变后段","powerOffReason":"(低压停电信息)青云2019年蒋家村12#林场公变等低压台区改造工程照明1#线架设BS-4*35*4档，更换落户线和表箱15处，照明3#线架设BS-4*35*2档，更换落户线和表箱10处，搭接等工作","powerOffId":"2019091231020325"},{"poweroffId":2019091231020322,"sgpoweroffId":null,"subsName":"","lineName":"10kV桐洲D842线","pubTranName":"孙家村2号村口公变,","scope":"浙江省-杭州市-富阳区-新桐乡-江洲行政村-孙家自然村","startTime":"2019-09-23 07:10:00","stopDate":"2019-09-23 16:50:00","orgNo":"3340170","typeCode":"计划停电","poweroffArea":"110kV新桐变:桐洲D842线-孙家村2号村口公变后段","poweroffReason":"(低压停电信息)青云2019年蒋家村12#林场公变等低压台区改造工程照明2#线更换落户线和表箱25处，搭接等工作","powerTime":"2019-09-23 16:34:26","powerComm":"已送电","subsNo":"","lineNo":"","tgNo":"","tgName":null,"infoStatus":"1","orgName":"国网浙江杭州市富阳区供电公司","typeName":null,"infoStatusName":null,"dateDay":null,"orgNos":null,"nowTime":null,"countyName":null,"streetName":null,"villageName":null,"roadName":null,"communityName":null,"tranName":null,"sdLineName":null,"cityCode":"3340170","cityName":"国网浙江杭州市富阳区供电公司","provinceCode":null,"stopTime":"2019-09-23 16:50:00","powerType":"全部","powerOffArea":"110kV新桐变:桐洲D842线-孙家村2号村口公变后段","powerOffReason":"(低压停电信息)青云2019年蒋家村12#林场公变等低压台区改造工程照明2#线更换落户线和表箱25处，搭接等工作","powerOffId":"2019091231020322"},{"poweroffId":2019091231020320,"sgpoweroffId":null,"subsName":"","lineName":"10kV唐昌D539线","pubTranName":"官山村官山2号上楼家公变,","scope":"浙江省杭州市富阳区新登镇官山行政村罗家自然村一带","startTime":"2019-09-23 07:20:00","stopDate":"2019-09-23 13:00:00","orgNo":"3340170","typeCode":"计划停电","poweroffArea":"110kV清泉变:唐昌D539线-官山村官山2号上楼家公变低压开关后段","poweroffReason":"(低压停电信息)10KV唐昌D539线官山村官山3#罗家公变0.4KV（未通电）敷设出线电缆YJV-4*150二路、拆装横担各1付。10KV唐昌D539线官山村官山2#上楼家公变0.4KV（配合停电）罗家01线6#杆至7#杆开断点、拆装横担各2付","powerTime":"2019-09-23 12:43:37","powerComm":"已送电","subsNo":"","lineNo":"","tgNo":"","tgName":null,"infoStatus":"1","orgName":"国网浙江杭州市富阳区供电公司","typeName":null,"infoStatusName":null,"dateDay":null,"orgNos":null,"nowTime":null,"countyName":null,"streetName":null,"villageName":null,"roadName":null,"communityName":null,"tranName":null,"sdLineName":null,"cityCode":"3340170","cityName":"国网浙江杭州市富阳区供电公司","provinceCode":null,"stopTime":"2019-09-23 13:00:00","powerType":"全部","powerOffArea":"110kV清泉变:唐昌D539线-官山村官山2号上楼家公变低压开关后段","powerOffReason":"(低压停电信息)10KV唐昌D539线官山村官山3#罗家公变0.4KV（未通电）敷设出线电缆YJV-4*150二路、拆装横担各1付。10KV唐昌D539线官山村官山2#上楼家公变0.4KV（配合停电）罗家01线6#杆至7#杆开断点、拆装横担各2付","powerOffId":"2019091231020320"},{"poweroffId":2019091231020306,"sgpoweroffId":null,"subsName":"","lineName":"10kV姚家T243线","pubTranName":"姚家坞村1号公变,","scope":"浙江省-杭州市-桐庐县-江南镇-锦江行政村-五联姚家坞自然村","startTime":"2019-09-12 13:32:35","stopDate":"2019-09-12 15:32:35","orgNo":"3340150","typeCode":"电网故障停限电","poweroffArea":"110kV石阜变:姚家T243线-姚家坞村1号公变后段","poweroffReason":"高压开关跳闸","powerTime":"2019-09-12 15:14:12","powerComm":"已送电","subsNo":"","lineNo":"","tgNo":"","tgName":null,"infoStatus":"1","orgName":"国网浙江桐庐县供电公司","typeName":null,"infoStatusName":null,"dateDay":null,"orgNos":null,"nowTime":null,"countyName":null,"streetName":null,"villageName":null,"roadName":null,"communityName":null,"tranName":null,"sdLineName":null,"cityCode":"3340150","cityName":"国网浙江桐庐县供电公司","provinceCode":null,"stopTime":"2019-09-12 15:32:35","powerType":"全部","powerOffArea":"110kV石阜变:姚家T243线-姚家坞村1号公变后段","powerOffReason":"高压开关跳闸","powerOffId":"2019091231020306"},{"poweroffId":2019091231020300,"sgpoweroffId":null,"subsName":"","lineName":"10kV千家Y408线","pubTranName":"大店口村大店口台区,","scope":"浙江省-杭州市-建德市-航头镇-大店口行政村-大店口自然村，大店口工业园区一带用户。","startTime":"2019-09-12 13:04:00","stopDate":"2019-09-12 15:00:00","orgNo":"3340180","typeCode":"电网故障停限电","poweroffArea":"110kV航头变:千家Y408线-大店口村大店口台区后段","poweroffReason":"(低压停电信息)低压开关跳闸 原停电结束时间为2019-09-12 16:00:00,为减少客户停电时间,加快工作进度,提前送电,现变更停电结束时间为2019-09-12 15:00:00","powerTime":"2019-09-12 14:46:00","powerComm":"已送电","subsNo":"","lineNo":"","tgNo":"","tgName":null,"infoStatus":"1","orgName":"国网浙江建德市供电有限公司","typeName":null,"infoStatusName":null,"dateDay":null,"orgNos":null,"nowTime":null,"countyName":null,"streetName":null,"villageName":null,"roadName":null,"communityName":null,"tranName":null,"sdLineName":null,"cityCode":"3340180","cityName":"国网浙江建德市供电有限公司","provinceCode":null,"stopTime":"2019-09-12 15:00:00","powerType":"全部","powerOffArea":"110kV航头变:千家Y408线-大店口村大店口台区后段","powerOffReason":"(低压停电信息)低压开关跳闸 原停电结束时间为2019-09-12 16:00:00,为减少客户停电时间,加快工作进度,提前送电,现变更停电结束时间为2019-09-12 15:00:00","powerOffId":"2019091231020300"},{"poweroffId":2019091231020271,"sgpoweroffId":null,"subsName":"","lineName":"10kV上林D335线","pubTranName":"富锚机械,","scope":"浙江省杭州市富阳区洞桥镇杭州富锚机械有限公司","startTime":"2019-09-24 06:50:00","stopDate":"2019-09-24 17:30:00","orgNo":"3340170","typeCode":"计划停电","poweroffArea":"110kV万市变:上林D335线11#杆落马坞分线2#杆杭州富锚机械有限公司","poweroffReason":"配合用户侧内部检修停电工作","powerTime":"2019-09-24 17:22:16","powerComm":"已送电","subsNo":"","lineNo":"","tgNo":"","tgName":null,"infoStatus":"1","orgName":"国网浙江杭州市富阳区供电公司","typeName":null,"infoStatusName":null,"dateDay":null,"orgNos":null,"nowTime":null,"countyName":null,"streetName":null,"villageName":null,"roadName":null,"communityName":null,"tranName":null,"sdLineName":null,"cityCode":"3340170","cityName":"国网浙江杭州市富阳区供电公司","provinceCode":null,"stopTime":"2019-09-24 17:30:00","powerType":"全部","powerOffArea":"110kV万市变:上林D335线11#杆落马坞分线2#杆杭州富锚机械有限公司","powerOffReason":"配合用户侧内部检修停电工作","powerOffId":"2019091231020271"},{"poweroffId":2019091231020270,"sgpoweroffId":null,"subsName":"","lineName":"10kV洞桥D334线","pubTranName":"富阳鑫南机械有限公司,","scope":"浙江省杭州市富阳区洞桥镇富阳鑫南机械有限公司","startTime":"2019-09-24 06:30:00","stopDate":"2019-09-24 17:30:00","orgNo":"3340170","typeCode":"计划停电","poweroffArea":"110kV万市变:洞桥D334线21#杆假山头分线2#杆富阳鑫南机械有限公司","poweroffReason":"配合用户侧内部检修停电工作","powerTime":"2019-09-24 17:22:04","powerComm":"已送电","subsNo":"","lineNo":"","tgNo":"","tgName":null,"infoStatus":"1","orgName":"国网浙江杭州市富阳区供电公司","typeName":null,"infoStatusName":null,"dateDay":null,"orgNos":null,"nowTime":null,"countyName":null,"streetName":null,"villageName":null,"roadName":null,"communityName":null,"tranName":null,"sdLineName":null,"cityCode":"3340170","cityName":"国网浙江杭州市富阳区供电公司","provinceCode":null,"stopTime":"2019-09-24 17:30:00","powerType":"全部","powerOffArea":"110kV万市变:洞桥D334线21#杆假山头分线2#杆富阳鑫南机械有限公司","powerOffReason":"配合用户侧内部检修停电工作","powerOffId":"2019091231020270"},{"poweroffId":2019091231020269,"sgpoweroffId":null,"subsName":"","lineName":"10kV上林D335线","pubTranName":"杭州富阳金欣机电有限公司1#变,","scope":"浙江省杭州市富阳区洞桥镇杭州富阳金欣机电有限公司","startTime":"2019-09-24 07:10:00","stopDate":"2019-09-24 17:30:00","orgNo":"3340170","typeCode":"计划停电","poweroffArea":"110kV万市变:上林D335线33#杆新兴分线3#杆杭州富阳金鑫机电有限公司","poweroffReason":"配合用户侧内部检修停电工作","powerTime":"2019-09-24 17:21:17","powerComm":"已送电","subsNo":"","lineNo":"","tgNo":"","tgName":null,"infoStatus":"1","orgName":"国网浙江杭州市富阳区供电公司","typeName":null,"infoStatusName":null,"dateDay":null,"orgNos":null,"nowTime":null,"countyName":null,"streetName":null,"villageName":null,"roadName":null,"communityName":null,"tranName":null,"sdLineName":null,"cityCode":"3340170","cityName":"国网浙江杭州市富阳区供电公司","provinceCode":null,"stopTime":"2019-09-24 17:30:00","powerType":"全部","powerOffArea":"110kV万市变:上林D335线33#杆新兴分线3#杆杭州富阳金鑫机电有限公司","powerOffReason":"配合用户侧内部检修停电工作","powerOffId":"2019091231020269"},{"poweroffId":2019091231020267,"sgpoweroffId":null,"subsName":"","lineName":"10kV上林D335线","pubTranName":"富阳天使链罩有限责任公司,","scope":"浙江省-杭州市-富阳区-洞桥镇-洞桥行政村-杭州富阳钰煊五金有限公司","startTime":"2019-09-24 07:30:00","stopDate":"2019-09-24 17:30:00","orgNo":"3340170","typeCode":"计划停电","poweroffArea":"110kV万市变:上林D335线-天使链罩后段","poweroffReason":"配合用户侧内部检修停电工作","powerTime":"2019-09-24 17:21:06","powerComm":"已送电","subsNo":"","lineNo":"","tgNo":"","tgName":null,"infoStatus":"1","orgName":"国网浙江杭州市富阳区供电公司","typeName":null,"infoStatusName":null,"dateDay":null,"orgNos":null,"nowTime":null,"countyName":null,"streetName":null,"villageName":null,"roadName":null,"communityName":null,"tranName":null,"sdLineName":null,"cityCode":"3340170","cityName":"国网浙江杭州市富阳区供电公司","provinceCode":null,"stopTime":"2019-09-24 17:30:00","powerType":"全部","powerOffArea":"110kV万市变:上林D335线-天使链罩后段","powerOffReason":"配合用户侧内部检修停电工作","powerOffId":"2019091231020267"},{"poweroffId":2019091231020266,"sgpoweroffId":null,"subsName":"","lineName":"10kV上林D335线","pubTranName":"新兴车料2#,","scope":"浙江省-杭州市-富阳区-洞桥镇-洞桥行政村-杭州新兴车料有限公司","startTime":"2019-09-24 07:50:00","stopDate":"2019-09-24 17:30:00","orgNo":"3340170","typeCode":"计划停电","poweroffArea":"110kV万市变:上林D335线-新兴支线后段","poweroffReason":"配合用户侧内部检修停电工作","powerTime":"2019-09-24 17:20:31","powerComm":"已送电","subsNo":"","lineNo":"","tgNo":"","tgName":null,"infoStatus":"1","orgName":"国网浙江杭州市富阳区供电公司","typeName":null,"infoStatusName":null,"dateDay":null,"orgNos":null,"nowTime":null,"countyName":null,"streetName":null,"villageName":null,"roadName":null,"communityName":null,"tranName":null,"sdLineName":null,"cityCode":"3340170","cityName":"国网浙江杭州市富阳区供电公司","provinceCode":null,"stopTime":"2019-09-24 17:30:00","powerType":"全部","powerOffArea":"110kV万市变:上林D335线-新兴支线后段","powerOffReason":"配合用户侧内部检修停电工作","powerOffId":"2019091231020266"}],"pageModel":{"pageNow":1116,"totalCount":17789,"totalPage":1779,"tableRows":0,"pageCount":10,"beginCount":11150},"isExperi":"1"}