{"message":"","today":"2020-06-16","seleList":[{"poweroffId":2019091231020209,"sgpoweroffId":null,"subsName":"","lineName":"10kV上马Y671线","pubTranName":"江头村江头新村台区,竹源村丰山台区,江头村石塔坞台区,江头村上茶坪台区间隔配电变压器,竹源村大源口台区,建德市大同镇同心石材石矿有限公司,江头村茶坪台区配电变压器,江头村刘家台区,竹源村马家台区,杨家公变,江头村童源台区配电变压器,竹源村赖家台区,江头村文山台区,江头村官山源台区间隔配电变压器,竹源村童村台区,","scope":"浙江省-杭州市-建德市-大同镇-管村桥行政村-蝴蝶厂自然村,大同镇-江头行政村(杨家自然村,石塔坞自然村,刘家自然村,江头新村自然村,茶坪自然村,官山源自然村,上茶坪自然村,童源自然村,文山自然村),大同镇-竹源行政村(童村自然村,丰山自然村,马家自然村,赖家自然村);大同镇-建德市大同镇同心石材石矿有限公司一带用户。","startTime":"2019-09-12 10:50:00","stopDate":"2019-09-12 13:30:00","orgNo":"3340180","typeCode":"电网故障停限电","poweroffArea":"110kV大同变:上马Y671线石塔坞支线6#杆真空开关后段","poweroffReason":"高压开关跳闸","powerTime":"2019-09-12 13:01:00","powerComm":"已送电","subsNo":"","lineNo":"","tgNo":"","tgName":null,"infoStatus":"1","orgName":"国网浙江建德市供电有限公司","typeName":null,"infoStatusName":null,"dateDay":null,"orgNos":null,"nowTime":null,"countyName":null,"streetName":null,"villageName":null,"roadName":null,"communityName":null,"tranName":null,"sdLineName":null,"cityCode":"3340180","cityName":"国网浙江建德市供电有限公司","provinceCode":null,"stopTime":"2019-09-12 13:30:00","powerType":"全部","powerOffArea":"110kV大同变:上马Y671线石塔坞支线6#杆真空开关后段","powerOffReason":"高压开关跳闸","powerOffId":"2019091231020209"},{"poweroffId":2019091231020186,"sgpoweroffId":null,"subsName":"","lineName":"10kV郭东8157线","pubTranName":"","scope":"浙江省杭州市上城区大有公司及充电桩用户","startTime":"2019-09-16 09:30:00","stopDate":"2019-09-16 17:00:00","orgNo":"3340101","typeCode":"临时停电","poweroffArea":"110kV横河变:郭东8157线-南局一线后段","poweroffReason":"(低压停电信息)中江三变等缺陷设备改造工程（古荡1811HZ1602U310A0000000）南局站更换","powerTime":"2019-09-16 16:13:01","powerComm":"已送电","subsNo":"","lineNo":"","tgNo":"","tgName":null,"infoStatus":"1","orgName":"浙江杭州电力客户服务中心","typeName":null,"infoStatusName":null,"dateDay":null,"orgNos":null,"nowTime":null,"countyName":null,"streetName":null,"villageName":null,"roadName":null,"communityName":null,"tranName":null,"sdLineName":null,"cityCode":"3340101","cityName":"浙江杭州电力客户服务中心","provinceCode":null,"stopTime":"2019-09-16 17:00:00","powerType":"全部","powerOffArea":"110kV横河变:郭东8157线-南局一线后段","powerOffReason":"(低压停电信息)中江三变等缺陷设备改造工程（古荡1811HZ1602U310A0000000）南局站更换","powerOffId":"2019091231020186"},{"poweroffId":2019091231020183,"sgpoweroffId":null,"subsName":"","lineName":"10kV大东6447线","pubTranName":"十五家园变I,","scope":"浙江省杭州市上城区十五家园14-39 1F附近一带、14-39 2F 1号附近一带、14-40 2F 1号附近一带、14-40 2F 2号附近一带、15-36 2F 1号附近一带","startTime":"2019-09-17 09:30:00","stopDate":"2019-09-17 15:50:00","orgNo":"3340101","typeCode":"临时停电","poweroffArea":"110kV新华变:大东6447线-家园变一线后段","poweroffReason":"(低压停电信息)更换表箱及表箱盘线等辅材 原停电结束时间为2019-09-17 17:30:00,为减少客户停电时间,加快工作进度,提前送电,现变更停电结束时间为2019-09-17 15:50:00","powerTime":"2019-09-17 14:58:59","powerComm":"已送电","subsNo":"","lineNo":"","tgNo":"","tgName":null,"infoStatus":"1","orgName":"浙江杭州电力客户服务中心","typeName":null,"infoStatusName":null,"dateDay":null,"orgNos":null,"nowTime":null,"countyName":null,"streetName":null,"villageName":null,"roadName":null,"communityName":null,"tranName":null,"sdLineName":null,"cityCode":"3340101","cityName":"浙江杭州电力客户服务中心","provinceCode":null,"stopTime":"2019-09-17 15:50:00","powerType":"全部","powerOffArea":"110kV新华变:大东6447线-家园变一线后段","powerOffReason":"(低压停电信息)更换表箱及表箱盘线等辅材 原停电结束时间为2019-09-17 17:30:00,为减少客户停电时间,加快工作进度,提前送电,现变更停电结束时间为2019-09-17 15:50:00","powerOffId":"2019091231020183"},{"poweroffId":2019091231020178,"sgpoweroffId":null,"subsName":"","lineName":"10kV梅高9859线","pubTranName":"胭脂变3,","scope":"浙江省杭州市下城区胭脂新村9-3、胭脂新村9-4、胭脂新村9-5附近一带","startTime":"2019-09-19 09:30:00","stopDate":"2019-09-19 16:00:00","orgNo":"3340101","typeCode":"临时停电","poweroffArea":"110kV广场变:梅高9859线-胭宅三线后段","poweroffReason":"(低压停电信息)胭脂新村9-3、胭脂新村9-4、胭脂新村9-5表箱改造 原停电结束时间为2019-09-19 17:00:00,为减少客户停电时间,加快工作进度,提前送电,现变更停电结束时间为2019-09-19 16:00:00","powerTime":"2019-09-19 15:18:01","powerComm":"已送电","subsNo":"","lineNo":"","tgNo":"","tgName":null,"infoStatus":"1","orgName":"浙江杭州电力客户服务中心","typeName":null,"infoStatusName":null,"dateDay":null,"orgNos":null,"nowTime":null,"countyName":null,"streetName":null,"villageName":null,"roadName":null,"communityName":null,"tranName":null,"sdLineName":null,"cityCode":"3340101","cityName":"浙江杭州电力客户服务中心","provinceCode":null,"stopTime":"2019-09-19 16:00:00","powerType":"全部","powerOffArea":"110kV广场变:梅高9859线-胭宅三线后段","powerOffReason":"(低压停电信息)胭脂新村9-3、胭脂新村9-4、胭脂新村9-5表箱改造 原停电结束时间为2019-09-19 17:00:00,为减少客户停电时间,加快工作进度,提前送电,现变更停电结束时间为2019-09-19 16:00:00","powerOffId":"2019091231020178"},{"poweroffId":2019091231020176,"sgpoweroffId":null,"subsName":"","lineName":"10kV东洋H427线","pubTranName":"东塘河村徐家坝南2号公变,东塘河村徐家坝南公变,","scope":"浙江省杭州市余杭区良渚街道：徐家坝南、徐家坝南2一带","startTime":"2019-09-25 08:40:00","stopDate":"2019-09-25 13:40:00","orgNo":"3340140","typeCode":"计划停电","poweroffArea":"110kV勾庄变:东洋H427线-徐家坝南2号公变跌落式熔断器后段;东洋H427线-徐家坝南公变跌落式熔断器后段","poweroffReason":"东洋H427线东塘河村徐家坝南公变由315kVA增容至630kVA。","powerTime":"2019-09-25 13:02:59","powerComm":"已送电","subsNo":"","lineNo":"","tgNo":"","tgName":null,"infoStatus":"1","orgName":"国网浙江杭州市余杭区供电有限公司","typeName":null,"infoStatusName":null,"dateDay":null,"orgNos":null,"nowTime":null,"countyName":null,"streetName":null,"villageName":null,"roadName":null,"communityName":null,"tranName":null,"sdLineName":null,"cityCode":"3340140","cityName":"国网浙江杭州市余杭区供电有限公司","provinceCode":null,"stopTime":"2019-09-25 13:40:00","powerType":"全部","powerOffArea":"110kV勾庄变:东洋H427线-徐家坝南2号公变跌落式熔断器后段;东洋H427线-徐家坝南公变跌落式熔断器后段","powerOffReason":"东洋H427线东塘河村徐家坝南公变由315kVA增容至630kVA。","powerOffId":"2019091231020176"},{"poweroffId":2019091231020172,"sgpoweroffId":null,"subsName":"","lineName":"10kV打网H426线","pubTranName":"西塘河村闻家里公变,西塘河村闻家里西公变,","scope":"浙江省杭州市余杭区良渚街道：闻家里西、闻家里一带","startTime":"2019-09-24 08:40:00","stopDate":"2019-09-24 13:40:00","orgNo":"3340140","typeCode":"计划停电","poweroffArea":"110kV勾庄变:打网H426线-闻家变分线跌落式熔断器后段","poweroffReason":"打网H426线闻家里公变由315kVA增容至630kVA。","powerTime":"2019-09-24 13:11:54","powerComm":"已送电","subsNo":"","lineNo":"","tgNo":"","tgName":null,"infoStatus":"1","orgName":"国网浙江杭州市余杭区供电有限公司","typeName":null,"infoStatusName":null,"dateDay":null,"orgNos":null,"nowTime":null,"countyName":null,"streetName":null,"villageName":null,"roadName":null,"communityName":null,"tranName":null,"sdLineName":null,"cityCode":"3340140","cityName":"国网浙江杭州市余杭区供电有限公司","provinceCode":null,"stopTime":"2019-09-24 13:40:00","powerType":"全部","powerOffArea":"110kV勾庄变:打网H426线-闻家变分线跌落式熔断器后段","powerOffReason":"打网H426线闻家里公变由315kVA增容至630kVA。","powerOffId":"2019091231020172"},{"poweroffId":2019091231020170,"sgpoweroffId":null,"subsName":"","lineName":"10kV立太H431线","pubTranName":"中青创基建变1,中青创基建变7,中青创基建变2,中青创基建变6,中交第二航务工程局有限公司余杭分公司,中青创基建变8,路灯变,中青创基建变5,中青创基建变4,中青创基建变3,","scope":"浙江省杭州市余杭区良渚街道：路灯、中青创基建变5、中青创基建变6、中青创基建变7、中青创基建变8、中交公司一带","startTime":"2019-09-24 09:20:00","stopDate":"2019-09-24 13:20:00","orgNo":"3340140","typeCode":"计划停电","poweroffArea":"110kV勾庄变:立太H431线-普飞分支箱分线后段","poweroffReason":"新西开关站调换老旧开关柜","powerTime":"2019-09-24 13:10:37","powerComm":"已送电","subsNo":"","lineNo":"","tgNo":"","tgName":null,"infoStatus":"1","orgName":"国网浙江杭州市余杭区供电有限公司","typeName":null,"infoStatusName":null,"dateDay":null,"orgNos":null,"nowTime":null,"countyName":null,"streetName":null,"villageName":null,"roadName":null,"communityName":null,"tranName":null,"sdLineName":null,"cityCode":"3340140","cityName":"国网浙江杭州市余杭区供电有限公司","provinceCode":null,"stopTime":"2019-09-24 13:20:00","powerType":"全部","powerOffArea":"110kV勾庄变:立太H431线-普飞分支箱分线后段","powerOffReason":"新西开关站调换老旧开关柜","powerOffId":"2019091231020170"},{"poweroffId":2019091231020166,"sgpoweroffId":null,"subsName":"","lineName":"10kV云会H408线","pubTranName":"玉都佳苑1#公变,东西大道2#路灯变,良渚人民政府（垃圾中转站）,玉都佳苑3#公变,良渚村经济联合,玉都佳苑2#公变,","scope":"浙江省杭州市余杭区良渚街道：玉都佳苑1、玉都佳苑2、玉都佳苑3、东西大道路灯1、春天花园酒店、东西大道路灯2一带","startTime":"2019-09-23 09:20:00","stopDate":"2019-09-23 16:50:00","orgNo":"3340140","typeCode":"计划停电","poweroffArea":"35kV良渚变:云会H408线-东西大道2#路灯变分线开关后段","poweroffReason":"东玉开关站调换老旧开关柜 原停电结束时间为2019-09-23 16:20:00,因施工力量不足原因,现变更停电结束时间为2019-09-23 16:50:00","powerTime":"2019-09-23 16:25:06","powerComm":"已送电","subsNo":"","lineNo":"","tgNo":"","tgName":null,"infoStatus":"1","orgName":"国网浙江杭州市余杭区供电有限公司","typeName":null,"infoStatusName":null,"dateDay":null,"orgNos":null,"nowTime":null,"countyName":null,"streetName":null,"villageName":null,"roadName":null,"communityName":null,"tranName":null,"sdLineName":null,"cityCode":"3340140","cityName":"国网浙江杭州市余杭区供电有限公司","provinceCode":null,"stopTime":"2019-09-23 16:50:00","powerType":"全部","powerOffArea":"35kV良渚变:云会H408线-东西大道2#路灯变分线开关后段","powerOffReason":"东玉开关站调换老旧开关柜 原停电结束时间为2019-09-23 16:20:00,因施工力量不足原因,现变更停电结束时间为2019-09-23 16:50:00","powerOffId":"2019091231020166"},{"poweroffId":2019091231020160,"sgpoweroffId":null,"subsName":"","lineName":"10kV藕花G114线","pubTranName":"派出所,藕花洲小区4号公变,","scope":"浙江省杭州市余杭区南苑街道：藕花洲小区、派出所一带","startTime":"2019-09-21 08:30:00","stopDate":"2019-09-21 14:25:00","orgNo":"3340140","typeCode":"计划停电","poweroffArea":"110kV临平变:藕花G114线藕花洲小区4#变、派出所变。","poweroffReason":"2019年杭州余杭南苑地区10千伏柱上开关更换工程：派出所变调换令克1组、电缆上杆搭接、引线调换。 原停电结束时间为2019-09-21 13:00:00,因XXX原因,现变更停电结束时间为2019-09-21 14:25:00","powerTime":"2019-09-21 14:22:00","powerComm":"已送电","subsNo":"","lineNo":"","tgNo":"","tgName":null,"infoStatus":"1","orgName":"国网浙江杭州市余杭区供电有限公司","typeName":null,"infoStatusName":null,"dateDay":null,"orgNos":null,"nowTime":null,"countyName":null,"streetName":null,"villageName":null,"roadName":null,"communityName":null,"tranName":null,"sdLineName":null,"cityCode":"3340140","cityName":"国网浙江杭州市余杭区供电有限公司","provinceCode":null,"stopTime":"2019-09-21 14:25:00","powerType":"全部","powerOffArea":"110kV临平变:藕花G114线藕花洲小区4#变、派出所变。","powerOffReason":"2019年杭州余杭南苑地区10千伏柱上开关更换工程：派出所变调换令克1组、电缆上杆搭接、引线调换。 原停电结束时间为2019-09-21 13:00:00,因XXX原因,现变更停电结束时间为2019-09-21 14:25:00","powerOffId":"2019091231020160"},{"poweroffId":2019091231020153,"sgpoweroffId":null,"subsName":"","lineName":"10kV康乐D354线","pubTranName":"三江花园1#公变,","scope":"浙江省-杭州市-富阳区-富春街道-春南社区(秦望路,春秋南路)一带","startTime":"2019-09-23 08:20:00","stopDate":"2019-09-23 13:40:00","orgNo":"3340170","typeCode":"计划停电","poweroffArea":"110kV富鹿变:康乐D354线-三江花园1#公变后段","poweroffReason":"(低压停电信息)国网浙江富阳供电公司2019年客户计量装置建设与改造:10kV康乐D354线，0.4kV三江花园1#公变，1#开关1#出线-1T对0.4KV（6611039334)三江花园物业进行表箱改造等工作","powerTime":"2019-09-23 13:27:49","powerComm":"已送电","subsNo":"","lineNo":"","tgNo":"","tgName":null,"infoStatus":"1","orgName":"国网浙江杭州市富阳区供电公司","typeName":null,"infoStatusName":null,"dateDay":null,"orgNos":null,"nowTime":null,"countyName":null,"streetName":null,"villageName":null,"roadName":null,"communityName":null,"tranName":null,"sdLineName":null,"cityCode":"3340170","cityName":"国网浙江杭州市富阳区供电公司","provinceCode":null,"stopTime":"2019-09-23 13:40:00","powerType":"全部","powerOffArea":"110kV富鹿变:康乐D354线-三江花园1#公变后段","powerOffReason":"(低压停电信息)国网浙江富阳供电公司2019年客户计量装置建设与改造:10kV康乐D354线，0.4kV三江花园1#公变，1#开关1#出线-1T对0.4KV（6611039334)三江花园物业进行表箱改造等工作","powerOffId":"2019091231020153"}],"pageModel":{"pageNow":1119,"totalCount":17789,"totalPage":1779,"tableRows":0,"pageCount":10,"beginCount":11180},"isExperi":"1"}