{"message":"","today":"2020-06-16","seleList":[{"poweroffId":2019091231020143,"sgpoweroffId":null,"subsName":"","lineName":"10kV雪湾C242线","pubTranName":"楼家塔5#变,","scope":"浙江省-杭州市-萧山区-楼塔镇-楼家塔行政村(楼三自然村,楼二自然村,协和里,下祠弄,毛家弄,溪口路,洲口路),楼塔镇-楼英行政村(和平弄,楼二自然村,楼一自然村,集镇公变,洲口路)","startTime":"2019-09-23 08:30:00","stopDate":"2019-09-23 15:00:00","orgNo":"3340130","typeCode":"计划停电","poweroffArea":"35kV楼塔变:雪湾C242线-洲口开G13楼家塔5#变后段","poweroffReason":"雪湾C242线洲口开G13楼家塔5#变下315上630kVA欧变一台，低压割接等。 原停电结束时间为2019-09-23 16:30:00,为减少客户停电时间,加快工作进度,提前送电,现变更停电结束时间为2019-09-23 15:00:00","powerTime":"2019-09-23 14:32:28","powerComm":"已送电","subsNo":"","lineNo":"","tgNo":"","tgName":null,"infoStatus":"1","orgName":"国网浙江杭州市萧山区供电有限公司","typeName":null,"infoStatusName":null,"dateDay":null,"orgNos":null,"nowTime":null,"countyName":null,"streetName":null,"villageName":null,"roadName":null,"communityName":null,"tranName":null,"sdLineName":null,"cityCode":"3340130","cityName":"国网浙江杭州市萧山区供电有限公司","provinceCode":null,"stopTime":"2019-09-23 15:00:00","powerType":"全部","powerOffArea":"35kV楼塔变:雪湾C242线-洲口开G13楼家塔5#变后段","powerOffReason":"雪湾C242线洲口开G13楼家塔5#变下315上630kVA欧变一台，低压割接等。 原停电结束时间为2019-09-23 16:30:00,为减少客户停电时间,加快工作进度,提前送电,现变更停电结束时间为2019-09-23 15:00:00","powerOffId":"2019091231020143"},{"poweroffId":2019091231020135,"sgpoweroffId":null,"subsName":"","lineName":"10kV长阳9791线","pubTranName":"清苑（三）,","scope":"浙江省杭州市西湖区都市水乡水清苑4幢、5幢附近一带用户及商铺","startTime":"2019-09-19 09:00:00","stopDate":"2019-09-19 14:50:00","orgNo":"3340101","typeCode":"临时停电","poweroffArea":"110kV红旗变:长阳9791线-清苑（三）后段","poweroffReason":"(低压停电信息)2019年杭州市区陆家圩社区水清苑公变增容布点及低压台区改造工程（古墩）清苑（二）变、清苑（三)变低压改造1；原停电结束时间为 17:00,为减少客户停电时间,加快工作进度,提前送电,现变更停电结束时间为 14:50","powerTime":"2019-09-19 13:58:59","powerComm":"已送电","subsNo":"","lineNo":"","tgNo":"","tgName":null,"infoStatus":"1","orgName":"浙江杭州电力客户服务中心","typeName":null,"infoStatusName":null,"dateDay":null,"orgNos":null,"nowTime":null,"countyName":null,"streetName":null,"villageName":null,"roadName":null,"communityName":null,"tranName":null,"sdLineName":null,"cityCode":"3340101","cityName":"浙江杭州电力客户服务中心","provinceCode":null,"stopTime":"2019-09-19 14:50:00","powerType":"全部","powerOffArea":"110kV红旗变:长阳9791线-清苑（三）后段","powerOffReason":"(低压停电信息)2019年杭州市区陆家圩社区水清苑公变增容布点及低压台区改造工程（古墩）清苑（二）变、清苑（三)变低压改造1；原停电结束时间为 17:00,为减少客户停电时间,加快工作进度,提前送电,现变更停电结束时间为 14:50","powerOffId":"2019091231020135"},{"poweroffId":2019091231020131,"sgpoweroffId":null,"subsName":"","lineName":"10kV官一C944线","pubTranName":"前兴村6#变,","scope":"浙江省-杭州市-萧山区-瓜沥镇-前兴行政村新东公路,前兴自然村、前兴村一带","startTime":"2019-09-12 09:35:20","stopDate":"2019-09-12 11:50:20","orgNo":"3340130","typeCode":"电网故障停限电","poweroffArea":"110kV党山变:官一C944线-前兴村6#变台区低压开关","poweroffReason":"(低压停电信息)低压熔断器短路故障 原停电结束时间:2019-09-12 16:40:20,变更停电结束时间:2019-09-12 11:50:20。由于抢修工作提前完成,故需要提前送电。","powerTime":"2019-09-12 11:06:20","powerComm":"已送电","subsNo":"","lineNo":"","tgNo":"","tgName":null,"infoStatus":"1","orgName":"国网浙江杭州市萧山区供电有限公司","typeName":null,"infoStatusName":null,"dateDay":null,"orgNos":null,"nowTime":null,"countyName":null,"streetName":null,"villageName":null,"roadName":null,"communityName":null,"tranName":null,"sdLineName":null,"cityCode":"3340130","cityName":"国网浙江杭州市萧山区供电有限公司","provinceCode":null,"stopTime":"2019-09-12 11:50:20","powerType":"全部","powerOffArea":"110kV党山变:官一C944线-前兴村6#变台区低压开关","powerOffReason":"(低压停电信息)低压熔断器短路故障 原停电结束时间:2019-09-12 16:40:20,变更停电结束时间:2019-09-12 11:50:20。由于抢修工作提前完成,故需要提前送电。","powerOffId":"2019091231020131"},{"poweroffId":2019091231020127,"sgpoweroffId":null,"subsName":"","lineName":"10kV姚家V297线","pubTranName":"10kV田干村[波修坞]公变,","scope":"浙江省-杭州市-临安市-於潜镇波修坞一带","startTime":"2019-09-24 08:00:00","stopDate":"2019-09-24 13:10:00","orgNo":"3340160","typeCode":"计划停电","poweroffArea":"姚家V297线波修坞支线1#杆田干村（波修坞公变）低压","poweroffReason":"姚家V297线波修坞支线1#杆田干村（波修坞公变）低压出线电缆调换","powerTime":"2019-09-24 13:00:19","powerComm":"已送电","subsNo":"","lineNo":"","tgNo":"","tgName":null,"infoStatus":"1","orgName":"国网浙江临安市供电公司","typeName":null,"infoStatusName":null,"dateDay":null,"orgNos":null,"nowTime":null,"countyName":null,"streetName":null,"villageName":null,"roadName":null,"communityName":null,"tranName":null,"sdLineName":null,"cityCode":"3340160","cityName":"国网浙江临安市供电公司","provinceCode":null,"stopTime":"2019-09-24 13:10:00","powerType":"全部","powerOffArea":"姚家V297线波修坞支线1#杆田干村（波修坞公变）低压","powerOffReason":"姚家V297线波修坞支线1#杆田干村（波修坞公变）低压出线电缆调换","powerOffId":"2019091231020127"},{"poweroffId":2019091231020125,"sgpoweroffId":null,"subsName":"","lineName":"10kV姚家V297线","pubTranName":"10kV绍鲁村[绍鲁马路边]公变,","scope":"浙江省-杭州市-临安市-於潜镇绍鲁马路边一带","startTime":"2019-09-23 08:00:00","stopDate":"2019-09-23 13:10:00","orgNo":"3340160","typeCode":"计划停电","poweroffArea":"10KV绍鲁村（马路边）公变低压","poweroffReason":"绍鲁村低压改造：10KV绍鲁村（马路边）公变低压上街1000线1#-3#杆、学校2000线1#-4#杆老线路拆除，1#杆搭头","powerTime":"2019-09-23 13:00:12","powerComm":"已送电","subsNo":"","lineNo":"","tgNo":"","tgName":null,"infoStatus":"1","orgName":"国网浙江临安市供电公司","typeName":null,"infoStatusName":null,"dateDay":null,"orgNos":null,"nowTime":null,"countyName":null,"streetName":null,"villageName":null,"roadName":null,"communityName":null,"tranName":null,"sdLineName":null,"cityCode":"3340160","cityName":"国网浙江临安市供电公司","provinceCode":null,"stopTime":"2019-09-23 13:10:00","powerType":"全部","powerOffArea":"10KV绍鲁村（马路边）公变低压","powerOffReason":"绍鲁村低压改造：10KV绍鲁村（马路边）公变低压上街1000线1#-3#杆、学校2000线1#-4#杆老线路拆除，1#杆搭头","powerOffId":"2019091231020125"},{"poweroffId":2019091231020118,"sgpoweroffId":null,"subsName":"","lineName":"10kV广播8644线","pubTranName":"武园2#,","scope":"浙江省-杭州市-西湖区-西溪街道-下马塍社区-马塍路,西溪街道-文天社区(天目山路,武林花园)","startTime":"2019-09-12 09:35:36","stopDate":"2019-09-12 12:35:36","orgNo":"3340101","typeCode":"电网故障停限电","poweroffArea":"220kV庆丰变:广播8644线-武园2#后段","poweroffReason":"(低压停电信息)低压开关跳闸 原停电结束时间为2019-09-12 17:35:36,为减少客户停电时间,加快工作进度,提前送电,现变更停电结束时间为2019-09-12 12:35:36","powerTime":"2019-09-12 11:59:18","powerComm":"送电","subsNo":"","lineNo":"","tgNo":"","tgName":null,"infoStatus":"1","orgName":"浙江杭州电力客户服务中心","typeName":null,"infoStatusName":null,"dateDay":null,"orgNos":null,"nowTime":null,"countyName":null,"streetName":null,"villageName":null,"roadName":null,"communityName":null,"tranName":null,"sdLineName":null,"cityCode":"3340101","cityName":"浙江杭州电力客户服务中心","provinceCode":null,"stopTime":"2019-09-12 12:35:36","powerType":"全部","powerOffArea":"220kV庆丰变:广播8644线-武园2#后段","powerOffReason":"(低压停电信息)低压开关跳闸 原停电结束时间为2019-09-12 17:35:36,为减少客户停电时间,加快工作进度,提前送电,现变更停电结束时间为2019-09-12 12:35:36","powerOffId":"2019091231020118"},{"poweroffId":2019091231020096,"sgpoweroffId":null,"subsName":"","lineName":"10kV孙家C336线","pubTranName":"杭州萧山污水处理有限公司,杭州萧山裕盛纺织有限公司,杭州正开废品回收有限公司,荣新村5#变,杭州华伟兴业印染有限公司,杭州萧山盛裕纺织有限公司,","scope":"浙江省-杭州市-萧山区-瓜沥镇荣新行政村-武肃路,群谊行政村-衙党公路);瓜沥镇-群谊行政村、杭州正开废品回收有限公司,杭州萧山污水处理有限公司,瓜沥镇-荣新行政村(杭州萧山裕盛纺织有限公司,杭州华伟兴业印染有限公司一带","startTime":"2019-09-12 08:43:40","stopDate":"2019-09-12 10:30:40","orgNo":"3340130","typeCode":"电网故障停限电","poweroffArea":"110kV沿塘变:孙家C336线-孙家C3362开关后段","poweroffReason":"高压柱上断路器短路故障","powerTime":"2019-09-12 09:45:33","powerComm":"已送电","subsNo":"","lineNo":"","tgNo":"","tgName":null,"infoStatus":"1","orgName":"国网浙江杭州市萧山区供电有限公司","typeName":null,"infoStatusName":null,"dateDay":null,"orgNos":null,"nowTime":null,"countyName":null,"streetName":null,"villageName":null,"roadName":null,"communityName":null,"tranName":null,"sdLineName":null,"cityCode":"3340130","cityName":"国网浙江杭州市萧山区供电有限公司","provinceCode":null,"stopTime":"2019-09-12 10:30:40","powerType":"全部","powerOffArea":"110kV沿塘变:孙家C336线-孙家C3362开关后段","powerOffReason":"高压柱上断路器短路故障","powerOffId":"2019091231020096"},{"poweroffId":2019091231020095,"sgpoweroffId":null,"subsName":"","lineName":"10kV紫桂8040线","pubTranName":"桂花六,","scope":"浙江省杭州市西湖区桂花城栖霞苑9幢等用户","startTime":"2019-09-19 09:30:00","stopDate":"2019-09-19 11:30:00","orgNo":"3340101","typeCode":"临时停电","poweroffArea":"110kV紫荆变:紫桂8040线-桂花六后段","poweroffReason":"(低压停电信息)栖霞苑C519-27车位表计新装2 （沈志洋15068828986）","powerTime":"2019-09-19 10:40:59","powerComm":"已送电","subsNo":"","lineNo":"","tgNo":"","tgName":null,"infoStatus":"1","orgName":"浙江杭州电力客户服务中心","typeName":null,"infoStatusName":null,"dateDay":null,"orgNos":null,"nowTime":null,"countyName":null,"streetName":null,"villageName":null,"roadName":null,"communityName":null,"tranName":null,"sdLineName":null,"cityCode":"3340101","cityName":"浙江杭州电力客户服务中心","provinceCode":null,"stopTime":"2019-09-19 11:30:00","powerType":"全部","powerOffArea":"110kV紫荆变:紫桂8040线-桂花六后段","powerOffReason":"(低压停电信息)栖霞苑C519-27车位表计新装2 （沈志洋15068828986）","powerOffId":"2019091231020095"},{"poweroffId":2019091231020093,"sgpoweroffId":null,"subsName":"","lineName":"10kV新华6442线","pubTranName":"东清变II,","scope":"浙江省-杭州市-下城区-长庆街道-王马社区(富润里,遥祥寺巷)","startTime":"2019-09-12 09:20:23","stopDate":"2019-09-12 11:46:23","orgNo":"3340101","typeCode":"电网故障停限电","poweroffArea":"110kV新华变:新华6442线-东清变II后段","poweroffReason":"(低压停电信息)低压开关跳闸 原预计停电结束时间2019-09-12 15:20:23,由于施工现场环境比较复杂，存在不确定因素，因此预估施工时间适当放长了， 而实际施工进行得比较顺利，因此提前送电了","powerTime":"2019-09-12 11:16:51","powerComm":"送电","subsNo":"","lineNo":"","tgNo":"","tgName":null,"infoStatus":"1","orgName":"浙江杭州电力客户服务中心","typeName":null,"infoStatusName":null,"dateDay":null,"orgNos":null,"nowTime":null,"countyName":null,"streetName":null,"villageName":null,"roadName":null,"communityName":null,"tranName":null,"sdLineName":null,"cityCode":"3340101","cityName":"浙江杭州电力客户服务中心","provinceCode":null,"stopTime":"2019-09-12 11:46:23","powerType":"全部","powerOffArea":"110kV新华变:新华6442线-东清变II后段","powerOffReason":"(低压停电信息)低压开关跳闸 原预计停电结束时间2019-09-12 15:20:23,由于施工现场环境比较复杂，存在不确定因素，因此预估施工时间适当放长了， 而实际施工进行得比较顺利，因此提前送电了","powerOffId":"2019091231020093"},{"poweroffId":2019091231020079,"sgpoweroffId":null,"subsName":"","lineName":"10kV窄溪T257线","pubTranName":"绿园小区1号公变,","scope":"浙江省-杭州市-桐庐县-江南镇-窄溪行政村-大元路-江南绿源小区","startTime":"2019-09-12 09:05:18","stopDate":"2019-09-12 11:05:18","orgNo":"3340150","typeCode":"电网故障停限电","poweroffArea":"110kV石阜变:窄溪T257线-绿园小区1号公变后段","poweroffReason":"高压开关跳闸","powerTime":"2019-09-12 10:45:15","powerComm":"已送电","subsNo":"","lineNo":"","tgNo":"","tgName":null,"infoStatus":"1","orgName":"国网浙江桐庐县供电公司","typeName":null,"infoStatusName":null,"dateDay":null,"orgNos":null,"nowTime":null,"countyName":null,"streetName":null,"villageName":null,"roadName":null,"communityName":null,"tranName":null,"sdLineName":null,"cityCode":"3340150","cityName":"国网浙江桐庐县供电公司","provinceCode":null,"stopTime":"2019-09-12 11:05:18","powerType":"全部","powerOffArea":"110kV石阜变:窄溪T257线-绿园小区1号公变后段","powerOffReason":"高压开关跳闸","powerOffId":"2019091231020079"}],"pageModel":{"pageNow":1120,"totalCount":17789,"totalPage":1779,"tableRows":0,"pageCount":10,"beginCount":11190},"isExperi":"1"}