{"message":"","today":"2020-06-16","seleList":[{"poweroffId":2019090931020133,"sgpoweroffId":null,"subsName":"","lineName":"10kV庭院H610线","pubTranName":"申达塑胶,天华塑钢,污水7#泵站（1）,公交上和路口站,杰力电气,","scope":"浙江省杭州市余杭区余杭街道：天华塑钢厂、杰力电气厂、申达塑胶厂、快速公交02省道上和路口站、沈家店污水泵房一带","startTime":"2019-09-20 08:40:00","stopDate":"2019-09-20 16:30:00","orgNo":"3340140","typeCode":"计划停电","poweroffArea":"110kV桃源变:庭院H610线-污水7#泵站（1）后段;庭院H610线-上文山分支箱分线后段","poweroffReason":"计划工作","powerTime":"2019-09-20 16:19:45","powerComm":"已送电","subsNo":"","lineNo":"","tgNo":"","tgName":null,"infoStatus":"1","orgName":"国网浙江杭州市余杭区供电有限公司","typeName":null,"infoStatusName":null,"dateDay":null,"orgNos":null,"nowTime":null,"countyName":null,"streetName":null,"villageName":null,"roadName":null,"communityName":null,"tranName":null,"sdLineName":null,"cityCode":"3340140","cityName":"国网浙江杭州市余杭区供电有限公司","provinceCode":null,"stopTime":"2019-09-20 16:30:00","powerType":"全部","powerOffArea":"110kV桃源变:庭院H610线-污水7#泵站（1）后段;庭院H610线-上文山分支箱分线后段","powerOffReason":"计划工作","powerOffId":"2019090931020133"},{"poweroffId":2019090931020130,"sgpoweroffId":null,"subsName":"","lineName":"10kV闲镇H682线","pubTranName":"盛雅公寓,","scope":"浙江省杭州市余杭区闲林街道：盛雅公寓一带","startTime":"2019-09-19 08:40:00","stopDate":"2019-09-19 13:00:00","orgNo":"3340140","typeCode":"计划停电","poweroffArea":"花园开关站闲镇H682线盛雅公寓分线","poweroffReason":"配网工程：盛雅公寓更换630kVA欧变一台 原停电结束时间为2019-09-19 16:40:00,为减少客户停电时间,加快工作进度,提前送电,现变更停电结束时间为2019-09-19 13:00:00","powerTime":"2019-09-19 12:31:31","powerComm":"已送电","subsNo":"","lineNo":"","tgNo":"","tgName":null,"infoStatus":"1","orgName":"国网浙江杭州市余杭区供电有限公司","typeName":null,"infoStatusName":null,"dateDay":null,"orgNos":null,"nowTime":null,"countyName":null,"streetName":null,"villageName":null,"roadName":null,"communityName":null,"tranName":null,"sdLineName":null,"cityCode":"3340140","cityName":"国网浙江杭州市余杭区供电有限公司","provinceCode":null,"stopTime":"2019-09-19 13:00:00","powerType":"全部","powerOffArea":"花园开关站闲镇H682线盛雅公寓分线","powerOffReason":"配网工程：盛雅公寓更换630kVA欧变一台 原停电结束时间为2019-09-19 16:40:00,为减少客户停电时间,加快工作进度,提前送电,现变更停电结束时间为2019-09-19 13:00:00","powerOffId":"2019090931020130"},{"poweroffId":2019090931020129,"sgpoweroffId":null,"subsName":"","lineName":"10kV衢海H651线","pubTranName":"龙软工棚,","scope":"浙江省杭州市余杭区仓前街道：龙软工棚一带","startTime":"2019-09-20 08:40:00","stopDate":"2019-09-20 16:40:00","orgNo":"3340140","typeCode":"计划停电","poweroffArea":"衢海开关站衢海H651线银帆市政分线","poweroffReason":"计划工作 原停电结束时间为2019-09-19 16:40:00,因用户原因,现变更停电结束时间为2019-09-20 16:40:00","powerTime":"2019-09-20 16:08:44","powerComm":"已送电","subsNo":"","lineNo":"","tgNo":"","tgName":null,"infoStatus":"1","orgName":"国网浙江杭州市余杭区供电有限公司","typeName":null,"infoStatusName":null,"dateDay":null,"orgNos":null,"nowTime":null,"countyName":null,"streetName":null,"villageName":null,"roadName":null,"communityName":null,"tranName":null,"sdLineName":null,"cityCode":"3340140","cityName":"国网浙江杭州市余杭区供电有限公司","provinceCode":null,"stopTime":"2019-09-20 16:40:00","powerType":"全部","powerOffArea":"衢海开关站衢海H651线银帆市政分线","powerOffReason":"计划工作 原停电结束时间为2019-09-19 16:40:00,因用户原因,现变更停电结束时间为2019-09-20 16:40:00","powerOffId":"2019090931020129"},{"poweroffId":2019090931020127,"sgpoweroffId":null,"subsName":"","lineName":"10kV黄镇H565线","pubTranName":"兰泰包装2#,杭州国鼎医用敷料有限公司,约翰文环保科技,兰泰包装1#,博济医药,","scope":"浙江省杭州市余杭区黄湖镇：杭州普济医药技术开发有限公司、杭州国鼎明睿实业有限公司、杭州兰泰包装有限公司、杭州实兴服饰有限公司一带","startTime":"2019-09-19 08:40:00","stopDate":"2019-09-19 13:40:00","orgNo":"3340140","typeCode":"计划停电","poweroffArea":"110KV黄湖变：黄镇H565线普技医药分线","poweroffReason":"计划工作","powerTime":"2019-09-19 13:33:26","powerComm":"已送电","subsNo":"","lineNo":"","tgNo":"","tgName":null,"infoStatus":"1","orgName":"国网浙江杭州市余杭区供电有限公司","typeName":null,"infoStatusName":null,"dateDay":null,"orgNos":null,"nowTime":null,"countyName":null,"streetName":null,"villageName":null,"roadName":null,"communityName":null,"tranName":null,"sdLineName":null,"cityCode":"3340140","cityName":"国网浙江杭州市余杭区供电有限公司","provinceCode":null,"stopTime":"2019-09-19 13:40:00","powerType":"全部","powerOffArea":"110KV黄湖变：黄镇H565线普技医药分线","powerOffReason":"计划工作","powerOffId":"2019090931020127"},{"poweroffId":2019090931020125,"sgpoweroffId":null,"subsName":"","lineName":"10kV共和G911线","pubTranName":"杭州市余杭区乔司卫生院,乔司卫生院,乔司新街16组2号公变,乔司新街16组公变,乔司卫生院315基建变,","scope":"浙江省杭州市余杭区乔司街道：乔司卫生院、乔司新街16组一带","startTime":"2019-09-18 08:30:00","stopDate":"2019-09-18 18:00:00","orgNo":"3340140","typeCode":"计划停电","poweroffArea":"110kV庙港变:保庆环网站II段共和G911线乔司卫生院分线","poweroffReason":"杭州凯达电力建设有限公司乔司街道集镇老街区块电力上改下工程：乔司卫生院分线1#杆电缆做对接，移用新街16组1#、2#变及电缆搭接，移用开关1台，新放卫生院专变电缆1根并搭接，拆除4#杆卫生院专变开关及电缆。","powerTime":"2019-09-18 17:29:19","powerComm":"施工结束","subsNo":"","lineNo":"","tgNo":"","tgName":null,"infoStatus":"1","orgName":"国网浙江杭州市余杭区供电有限公司","typeName":null,"infoStatusName":null,"dateDay":null,"orgNos":null,"nowTime":null,"countyName":null,"streetName":null,"villageName":null,"roadName":null,"communityName":null,"tranName":null,"sdLineName":null,"cityCode":"3340140","cityName":"国网浙江杭州市余杭区供电有限公司","provinceCode":null,"stopTime":"2019-09-18 18:00:00","powerType":"全部","powerOffArea":"110kV庙港变:保庆环网站II段共和G911线乔司卫生院分线","powerOffReason":"杭州凯达电力建设有限公司乔司街道集镇老街区块电力上改下工程：乔司卫生院分线1#杆电缆做对接，移用新街16组1#、2#变及电缆搭接，移用开关1台，新放卫生院专变电缆1根并搭接，拆除4#杆卫生院专变开关及电缆。","powerOffId":"2019090931020125"},{"poweroffId":2019090931020124,"sgpoweroffId":null,"subsName":"","lineName":"10kV仙宅H777线","pubTranName":"仙宅村荷花池公变,","scope":"浙江省杭州市余杭区余杭街道：仙宅村荷花池一带","startTime":"2019-09-18 08:40:00","stopDate":"2019-09-18 16:30:00","orgNo":"3340140","typeCode":"计划停电","poweroffArea":"35kV长岗临时变:仙宅H777线-仙宅村荷花池公变后段","poweroffReason":"计划工作","powerTime":"2019-09-18 16:28:06","powerComm":"已送电","subsNo":"","lineNo":"","tgNo":"","tgName":null,"infoStatus":"1","orgName":"国网浙江杭州市余杭区供电有限公司","typeName":null,"infoStatusName":null,"dateDay":null,"orgNos":null,"nowTime":null,"countyName":null,"streetName":null,"villageName":null,"roadName":null,"communityName":null,"tranName":null,"sdLineName":null,"cityCode":"3340140","cityName":"国网浙江杭州市余杭区供电有限公司","provinceCode":null,"stopTime":"2019-09-18 16:30:00","powerType":"全部","powerOffArea":"35kV长岗临时变:仙宅H777线-仙宅村荷花池公变后段","powerOffReason":"计划工作","powerOffId":"2019090931020124"},{"poweroffId":2019090931020123,"sgpoweroffId":null,"subsName":"","lineName":"10kV百丈H563线","pubTranName":"石竹园村洋坞公变,石竹园村何家边公变,汪水子竹木加工厂,石竹园村鱼石岭2号公变,汪水子竹木2#,百丈镇政府(幼儿园)6120207942,石竹园村羊坞2号公变,","scope":"浙江省杭州市余杭区百丈镇：百丈镇政府(幼儿园)、石竹园村洋坞、汪水子竹木加工厂、汪水子竹木公司、石竹园村何家边、石竹园村鱼石岭一带","startTime":"2019-09-18 08:40:00","stopDate":"2019-09-18 13:00:00","orgNo":"3340140","typeCode":"计划停电","poweroffArea":"百丈H563线羊坞分线 因施工力量加强，工作进度提前，故计划工作结束时间更改为13：00。","poweroffReason":"计划工作 原停电结束时间为2019-09-18 15:40:00,为减少客户停电时间,加快工作进度,提前送电,现变更停电结束时间为2019-09-18 13:00:00","powerTime":"2019-09-18 12:44:36","powerComm":"已送电","subsNo":"","lineNo":"","tgNo":"","tgName":null,"infoStatus":"1","orgName":"国网浙江杭州市余杭区供电有限公司","typeName":null,"infoStatusName":null,"dateDay":null,"orgNos":null,"nowTime":null,"countyName":null,"streetName":null,"villageName":null,"roadName":null,"communityName":null,"tranName":null,"sdLineName":null,"cityCode":"3340140","cityName":"国网浙江杭州市余杭区供电有限公司","provinceCode":null,"stopTime":"2019-09-18 13:00:00","powerType":"全部","powerOffArea":"百丈H563线羊坞分线 因施工力量加强，工作进度提前，故计划工作结束时间更改为13：00。","powerOffReason":"计划工作 原停电结束时间为2019-09-18 15:40:00,为减少客户停电时间,加快工作进度,提前送电,现变更停电结束时间为2019-09-18 13:00:00","powerOffId":"2019090931020123"},{"poweroffId":2019090931020121,"sgpoweroffId":null,"subsName":"","lineName":"10kV万乐7006线","pubTranName":"临丁路路灯变（一）,","scope":"浙江省杭州市余杭区星桥街道：临丁路路灯一带","startTime":"2019-09-18 08:30:00","stopDate":"2019-09-18 15:30:00","orgNo":"3340140","typeCode":"计划停电","poweroffArea":"110kV锦唐变:万乐7006线胜利分线5#杆开关至15+1#开关","poweroffReason":"杭州市余杭区人民政府星桥街道办事处星桥地铁3号线车辆基地高压线杆迁改工程。 原停电结束时间为2019-09-18 13:00:00,因现场情况复杂，无法按时完成相关工作原因,现变更停电结束时间为2019-09-18 15:30:00","powerTime":"2019-09-18 14:53:46","powerComm":"施工结束","subsNo":"","lineNo":"","tgNo":"","tgName":null,"infoStatus":"1","orgName":"国网浙江杭州市余杭区供电有限公司","typeName":null,"infoStatusName":null,"dateDay":null,"orgNos":null,"nowTime":null,"countyName":null,"streetName":null,"villageName":null,"roadName":null,"communityName":null,"tranName":null,"sdLineName":null,"cityCode":"3340140","cityName":"国网浙江杭州市余杭区供电有限公司","provinceCode":null,"stopTime":"2019-09-18 15:30:00","powerType":"全部","powerOffArea":"110kV锦唐变:万乐7006线胜利分线5#杆开关至15+1#开关","powerOffReason":"杭州市余杭区人民政府星桥街道办事处星桥地铁3号线车辆基地高压线杆迁改工程。 原停电结束时间为2019-09-18 13:00:00,因现场情况复杂，无法按时完成相关工作原因,现变更停电结束时间为2019-09-18 15:30:00","powerOffId":"2019090931020121"},{"poweroffId":2019090931020120,"sgpoweroffId":null,"subsName":"","lineName":"10kV桦树H684线","pubTranName":"灵溪村王街,","scope":"浙江省杭州市余杭区闲林街道：灵溪村王街一带","startTime":"2019-09-17 08:30:00","stopDate":"2019-09-17 17:30:00","orgNo":"3340140","typeCode":"计划停电","poweroffArea":"(低压停电信息)桦树H684线王街公变低压刀闸","poweroffReason":"(低压停电信息)桦树H684线王街公变低压刀闸","powerTime":"2019-09-17 16:52:53","powerComm":"已送电","subsNo":"","lineNo":"","tgNo":"","tgName":null,"infoStatus":"1","orgName":"国网浙江杭州市余杭区供电有限公司","typeName":null,"infoStatusName":null,"dateDay":null,"orgNos":null,"nowTime":null,"countyName":null,"streetName":null,"villageName":null,"roadName":null,"communityName":null,"tranName":null,"sdLineName":null,"cityCode":"3340140","cityName":"国网浙江杭州市余杭区供电有限公司","provinceCode":null,"stopTime":"2019-09-17 17:30:00","powerType":"全部","powerOffArea":"(低压停电信息)桦树H684线王街公变低压刀闸","powerOffReason":"(低压停电信息)桦树H684线王街公变低压刀闸","powerOffId":"2019090931020120"},{"poweroffId":2019090931020119,"sgpoweroffId":null,"subsName":"","lineName":"10kV景福H541线","pubTranName":"小古城村塔山公变,","scope":"浙江省杭州市余杭区径山镇：小古城村塔山一带","startTime":"2019-09-17 08:30:00","stopDate":"2019-09-17 16:30:00","orgNo":"3340140","typeCode":"计划停电","poweroffArea":"小古城村塔山一带","poweroffReason":"(低压停电信息)低压计划","powerTime":"2019-09-17 16:07:10","powerComm":"全部送电","subsNo":"","lineNo":"","tgNo":"","tgName":null,"infoStatus":"1","orgName":"国网浙江杭州市余杭区供电有限公司","typeName":null,"infoStatusName":null,"dateDay":null,"orgNos":null,"nowTime":null,"countyName":null,"streetName":null,"villageName":null,"roadName":null,"communityName":null,"tranName":null,"sdLineName":null,"cityCode":"3340140","cityName":"国网浙江杭州市余杭区供电有限公司","provinceCode":null,"stopTime":"2019-09-17 16:30:00","powerType":"全部","powerOffArea":"小古城村塔山一带","powerOffReason":"(低压停电信息)低压计划","powerOffId":"2019090931020119"}],"pageModel":{"pageNow":1131,"totalCount":17789,"totalPage":1779,"tableRows":0,"pageCount":10,"beginCount":11300},"isExperi":"1"}