{"message":"","today":"2020-06-16","seleList":[{"poweroffId":2019090931020116,"sgpoweroffId":null,"subsName":"","lineName":"10kV仓前H711线","pubTranName":"超裕电讯(2),杭氧机电设备,太炎小学北校区,镇农办2#,余杭二中,镇农办1#,通北路基建变,溪塔村蔡家公变,","scope":"浙江省杭州市余杭区余杭街道：溪塔村永丰蔡家、超裕(2)厂、镇农办、余杭屠宰场、天正绝缘厂、余杭一中太炎校区、太炎小学城北校区基建工地、通北路基建工地一带","startTime":"2019-09-17 08:40:00","stopDate":"2019-09-17 14:30:00","orgNo":"3340140","typeCode":"计划停电","poweroffArea":"110kV余杭变:仓前H711线-镇农办1#后段;仓前H711线-超裕（2）后段;仓前H711线-仓前H711线余杭二中分线开关后段","poweroffReason":"计划工作","powerTime":"2019-09-17 14:07:18","powerComm":"工作结束","subsNo":"","lineNo":"","tgNo":"","tgName":null,"infoStatus":"1","orgName":"国网浙江杭州市余杭区供电有限公司","typeName":null,"infoStatusName":null,"dateDay":null,"orgNos":null,"nowTime":null,"countyName":null,"streetName":null,"villageName":null,"roadName":null,"communityName":null,"tranName":null,"sdLineName":null,"cityCode":"3340140","cityName":"国网浙江杭州市余杭区供电有限公司","provinceCode":null,"stopTime":"2019-09-17 14:30:00","powerType":"全部","powerOffArea":"110kV余杭变:仓前H711线-镇农办1#后段;仓前H711线-超裕（2）后段;仓前H711线-仓前H711线余杭二中分线开关后段","powerOffReason":"计划工作","powerOffId":"2019090931020116"},{"poweroffId":2019090931020112,"sgpoweroffId":null,"subsName":"","lineName":"10kV香格H521线","pubTranName":"果园里场,","scope":"浙江省杭州市余杭区瓶窑镇：杭州市大观山果园一带","startTime":"2019-09-17 08:40:00","stopDate":"2019-09-17 13:40:00","orgNo":"3340140","typeCode":"计划停电","poweroffArea":"香格H521线杰达塑胶分线","poweroffReason":"计划工作","powerTime":"2019-09-17 13:14:58","powerComm":"全部送电","subsNo":"","lineNo":"","tgNo":"","tgName":null,"infoStatus":"1","orgName":"国网浙江杭州市余杭区供电有限公司","typeName":null,"infoStatusName":null,"dateDay":null,"orgNos":null,"nowTime":null,"countyName":null,"streetName":null,"villageName":null,"roadName":null,"communityName":null,"tranName":null,"sdLineName":null,"cityCode":"3340140","cityName":"国网浙江杭州市余杭区供电有限公司","provinceCode":null,"stopTime":"2019-09-17 13:40:00","powerType":"全部","powerOffArea":"香格H521线杰达塑胶分线","powerOffReason":"计划工作","powerOffId":"2019090931020112"},{"poweroffId":2019090931020109,"sgpoweroffId":null,"subsName":"","lineName":"10kV消防H728线","pubTranName":"新苑公寓(2)公变,","scope":"浙江省杭州市余杭区闲林街道：新苑公寓一带","startTime":"2019-09-16 08:40:00","stopDate":"2019-09-16 15:00:00","orgNo":"3340140","typeCode":"临时停电","poweroffArea":"新苑公寓1号站消防H728线新苑公寓2号公变分线原停电结束时间2019-09-16 16:40:00变更停电结束时间2019-09-16 15:00:00","poweroffReason":"配网工程（2019年杭州余杭闲林地区0.4千伏配变台区改造工程）：新苑公寓2号公变更换630KVA欧变一台工作原停电结束时间2019-09-16 16:40:00变更停电结束时间2019-09-16 15:00:00","powerTime":"2019-09-16 14:37:24","powerComm":"已送电","subsNo":"","lineNo":"","tgNo":"","tgName":null,"infoStatus":"1","orgName":"国网浙江杭州市余杭区供电有限公司","typeName":null,"infoStatusName":null,"dateDay":null,"orgNos":null,"nowTime":null,"countyName":null,"streetName":null,"villageName":null,"roadName":null,"communityName":null,"tranName":null,"sdLineName":null,"cityCode":"3340140","cityName":"国网浙江杭州市余杭区供电有限公司","provinceCode":null,"stopTime":"2019-09-16 15:00:00","powerType":"全部","powerOffArea":"新苑公寓1号站消防H728线新苑公寓2号公变分线原停电结束时间2019-09-16 16:40:00变更停电结束时间2019-09-16 15:00:00","powerOffReason":"配网工程（2019年杭州余杭闲林地区0.4千伏配变台区改造工程）：新苑公寓2号公变更换630KVA欧变一台工作原停电结束时间2019-09-16 16:40:00变更停电结束时间2019-09-16 15:00:00","powerOffId":"2019090931020109"},{"poweroffId":2019090931020107,"sgpoweroffId":null,"subsName":"","lineName":"10kV香下H546线","pubTranName":"西山村公变,","scope":"浙江省杭州市余杭区径山镇:长乐西山村一带","startTime":"2019-09-16 08:30:00","stopDate":"2019-09-16 16:30:00","orgNo":"3340140","typeCode":"计划停电","poweroffArea":"径山镇长乐西山村一带","poweroffReason":"(低压停电信息)计划工作","powerTime":"2019-09-16 15:55:33","powerComm":"已送电","subsNo":"","lineNo":"","tgNo":"","tgName":null,"infoStatus":"1","orgName":"国网浙江杭州市余杭区供电有限公司","typeName":null,"infoStatusName":null,"dateDay":null,"orgNos":null,"nowTime":null,"countyName":null,"streetName":null,"villageName":null,"roadName":null,"communityName":null,"tranName":null,"sdLineName":null,"cityCode":"3340140","cityName":"国网浙江杭州市余杭区供电有限公司","provinceCode":null,"stopTime":"2019-09-16 16:30:00","powerType":"全部","powerOffArea":"径山镇长乐西山村一带","powerOffReason":"(低压停电信息)计划工作","powerOffId":"2019090931020107"},{"poweroffId":2019090931020106,"sgpoweroffId":null,"subsName":"","lineName":"10kV长河H616线","pubTranName":"杭州华雪制冷设备有限公司,","scope":"浙江省杭州市余杭区余杭街道：余杭工业城星媛纸塑厂一带","startTime":"2019-09-16 09:30:00","stopDate":"2019-09-16 16:30:00","orgNo":"3340140","typeCode":"计划停电","poweroffArea":"110kV桃源变:长河H616线-星媛纸塑分线开关后段","poweroffReason":"计划工作","powerTime":"2019-09-16 16:13:49","powerComm":"已全部送电。","subsNo":"","lineNo":"","tgNo":"","tgName":null,"infoStatus":"1","orgName":"国网浙江杭州市余杭区供电有限公司","typeName":null,"infoStatusName":null,"dateDay":null,"orgNos":null,"nowTime":null,"countyName":null,"streetName":null,"villageName":null,"roadName":null,"communityName":null,"tranName":null,"sdLineName":null,"cityCode":"3340140","cityName":"国网浙江杭州市余杭区供电有限公司","provinceCode":null,"stopTime":"2019-09-16 16:30:00","powerType":"全部","powerOffArea":"110kV桃源变:长河H616线-星媛纸塑分线开关后段","powerOffReason":"计划工作","powerOffId":"2019090931020106"},{"poweroffId":2019090931020105,"sgpoweroffId":null,"subsName":"","lineName":"10kV枫岭H887线","pubTranName":"岑岭村郭家六组公变,","scope":"浙江省杭州市余杭区中泰街道：岑岭村郭家六组一带","startTime":"2019-09-16 08:40:00","stopDate":"2019-09-16 16:30:00","orgNo":"3340140","typeCode":"计划停电","poweroffArea":"110kV中泰变:枫岭H887线-郭家六组后段","poweroffReason":"计划工作","powerTime":"2019-09-16 16:12:44","powerComm":"已全部送电。","subsNo":"","lineNo":"","tgNo":"","tgName":null,"infoStatus":"1","orgName":"国网浙江杭州市余杭区供电有限公司","typeName":null,"infoStatusName":null,"dateDay":null,"orgNos":null,"nowTime":null,"countyName":null,"streetName":null,"villageName":null,"roadName":null,"communityName":null,"tranName":null,"sdLineName":null,"cityCode":"3340140","cityName":"国网浙江杭州市余杭区供电有限公司","provinceCode":null,"stopTime":"2019-09-16 16:30:00","powerType":"全部","powerOffArea":"110kV中泰变:枫岭H887线-郭家六组后段","powerOffReason":"计划工作","powerOffId":"2019090931020105"},{"poweroffId":2019090931020103,"sgpoweroffId":null,"subsName":"","lineName":"10kV桦树H684线","pubTranName":"桦树村竺坞,","scope":"浙江省杭州市余杭区闲林街道：桦树村竺坞一带","startTime":"2019-09-16 08:30:00","stopDate":"2019-09-16 14:00:00","orgNo":"3340140","typeCode":"计划停电","poweroffArea":"桦树H684线竺坞1#变低压刀闸","poweroffReason":"(低压停电信息)闲林低压配变台区改造工程：桦树H864线竺坞1#变低压台区新出低压电缆一根并搭接。","powerTime":"2019-09-16 13:56:12","powerComm":"已送电","subsNo":"","lineNo":"","tgNo":"","tgName":null,"infoStatus":"1","orgName":"国网浙江杭州市余杭区供电有限公司","typeName":null,"infoStatusName":null,"dateDay":null,"orgNos":null,"nowTime":null,"countyName":null,"streetName":null,"villageName":null,"roadName":null,"communityName":null,"tranName":null,"sdLineName":null,"cityCode":"3340140","cityName":"国网浙江杭州市余杭区供电有限公司","provinceCode":null,"stopTime":"2019-09-16 14:00:00","powerType":"全部","powerOffArea":"桦树H684线竺坞1#变低压刀闸","powerOffReason":"(低压停电信息)闲林低压配变台区改造工程：桦树H864线竺坞1#变低压台区新出低压电缆一根并搭接。","powerOffId":"2019090931020103"},{"poweroffId":2019090931020097,"sgpoweroffId":null,"subsName":"","lineName":"10kV程头Y138线","pubTranName":"建德市迪佳纺织品有限公司,杭州胜奇纺塑有限公司,1#变压器,建德市铧阳机械链条有限公司,1#,杭州乾春实业有限公司1#变压器,建德市乾潭镇雁鸽五金加工厂,乾潭镇黄立洋东台区,杭州梅园工艺寝饰有限公司,建德市不凡家纺有限公司,建德市华玲塑钢铝合金门窗厂,爱迈思工艺品（杭州）有限公司,","scope":"浙江省-杭州市-建德市-乾潭镇 黄立洋工业园区 黄立洋东自然村一带用户。","startTime":"2019-09-17 06:15:00","stopDate":"2019-09-17 13:00:00","orgNo":"3340180","typeCode":"计划停电","poweroffArea":"110kV乾潭变:程头Y138线-五金工业园区支线0#杆真空开关后段","poweroffReason":"杭州建德10千伏乾潭地区业扩配套工程 原停电结束时间为2019-09-17 12:15:00,因施工现场环境比较复杂，存在不确定因素,现变更停电结束时间为2019-09-17 13:00:00","powerTime":"2019-09-17 12:31:00","powerComm":"已送电","subsNo":"","lineNo":"","tgNo":"","tgName":null,"infoStatus":"1","orgName":"国网浙江建德市供电有限公司","typeName":null,"infoStatusName":null,"dateDay":null,"orgNos":null,"nowTime":null,"countyName":null,"streetName":null,"villageName":null,"roadName":null,"communityName":null,"tranName":null,"sdLineName":null,"cityCode":"3340180","cityName":"国网浙江建德市供电有限公司","provinceCode":null,"stopTime":"2019-09-17 13:00:00","powerType":"全部","powerOffArea":"110kV乾潭变:程头Y138线-五金工业园区支线0#杆真空开关后段","powerOffReason":"杭州建德10千伏乾潭地区业扩配套工程 原停电结束时间为2019-09-17 12:15:00,因施工现场环境比较复杂，存在不确定因素,现变更停电结束时间为2019-09-17 13:00:00","powerOffId":"2019090931020097"},{"poweroffId":2019090931020090,"sgpoweroffId":null,"subsName":"","lineName":"10kV桐君T112线","pubTranName":"供电宿舍1号公变,","scope":"浙江省-杭州市-桐庐县-桐君街道(圆通社区-富春路,金鑫社区-富春路,迎宾社区-富春路)桐君街道富春路485号","startTime":"2019-09-09 10:15:32","stopDate":"2019-09-09 12:00:32","orgNo":"3340150","typeCode":"电网故障停限电","poweroffArea":"110kV桐庐变:桐君T112线-供电宿舍1号公变后段","poweroffReason":"高压开关跳闸","powerTime":"2019-09-09 11:47:28","powerComm":"已送电。","subsNo":"","lineNo":"","tgNo":"","tgName":null,"infoStatus":"1","orgName":"国网浙江桐庐县供电公司","typeName":null,"infoStatusName":null,"dateDay":null,"orgNos":null,"nowTime":null,"countyName":null,"streetName":null,"villageName":null,"roadName":null,"communityName":null,"tranName":null,"sdLineName":null,"cityCode":"3340150","cityName":"国网浙江桐庐县供电公司","provinceCode":null,"stopTime":"2019-09-09 12:00:32","powerType":"全部","powerOffArea":"110kV桐庐变:桐君T112线-供电宿舍1号公变后段","powerOffReason":"高压开关跳闸","powerOffId":"2019090931020090"},{"poweroffId":2019090931020088,"sgpoweroffId":null,"subsName":"","lineName":"10kV东门A614线","pubTranName":"","scope":"浙江省-杭州市-萧山区-城厢街道-陈公桥社区（回澜路，育才路）","startTime":"2019-09-09 10:00:39","stopDate":"2019-09-09 10:34:56","orgNo":"3340130","typeCode":"电网故障停限电","poweroffArea":"110kV城东变:东门A614线-洄澜南苑12#公变后段","poweroffReason":"低压开关跳闸 原停电结束时间：2019-09-09 10:09:00，变更停电结束时间：2019-09-09 10:30:56，变更停电结束时间原因：录入错误","powerTime":"2019-09-09 10:33:48","powerComm":"已送电","subsNo":"","lineNo":"","tgNo":"","tgName":null,"infoStatus":"1","orgName":"国网浙江杭州市萧山区供电有限公司","typeName":null,"infoStatusName":null,"dateDay":null,"orgNos":null,"nowTime":null,"countyName":null,"streetName":null,"villageName":null,"roadName":null,"communityName":null,"tranName":null,"sdLineName":null,"cityCode":"3340130","cityName":"国网浙江杭州市萧山区供电有限公司","provinceCode":null,"stopTime":"2019-09-09 10:34:56","powerType":"全部","powerOffArea":"110kV城东变:东门A614线-洄澜南苑12#公变后段","powerOffReason":"低压开关跳闸 原停电结束时间：2019-09-09 10:09:00，变更停电结束时间：2019-09-09 10:30:56，变更停电结束时间原因：录入错误","powerOffId":"2019090931020088"}],"pageModel":{"pageNow":1132,"totalCount":17789,"totalPage":1779,"tableRows":0,"pageCount":10,"beginCount":11310},"isExperi":"1"}