{"message":"","today":"2020-06-16","seleList":[{"poweroffId":2019090931020079,"sgpoweroffId":null,"subsName":"","lineName":"10kV金浦D818线","pubTranName":"泊金湾1号变,泊金湾2号变,","scope":"浙江省-杭州市-富阳区-富春街道-金桥社区-金凤路一带","startTime":"2019-09-17 08:10:00","stopDate":"2019-09-17 08:20:00","orgNo":"3340170","typeCode":"计划停电","poweroffArea":"110kV容大变:金浦D818线首端，泊金湾1号变，泊金湾2号变之间","poweroffReason":"短时倒负荷停电","powerTime":"2019-09-17 08:15:26","powerComm":"已送电","subsNo":"","lineNo":"","tgNo":"","tgName":null,"infoStatus":"1","orgName":"国网浙江杭州市富阳区供电公司","typeName":null,"infoStatusName":null,"dateDay":null,"orgNos":null,"nowTime":null,"countyName":null,"streetName":null,"villageName":null,"roadName":null,"communityName":null,"tranName":null,"sdLineName":null,"cityCode":"3340170","cityName":"国网浙江杭州市富阳区供电公司","provinceCode":null,"stopTime":"2019-09-17 08:20:00","powerType":"全部","powerOffArea":"110kV容大变:金浦D818线首端，泊金湾1号变，泊金湾2号变之间","powerOffReason":"短时倒负荷停电","powerOffId":"2019090931020079"},{"poweroffId":2019090931020078,"sgpoweroffId":null,"subsName":"","lineName":"10kV栋山D410线","pubTranName":"后石路1#村中公变,后石路2#村公路公变,栋山村7号公路公变配变,","scope":"浙江省-杭州市-富阳区-鹿山街道-南山行政村(栋山自然村,南山自然村,前山自然村,后石路自然村,栋山村自然村,水碓头自然村)一带","startTime":"2019-09-20 08:00:00","stopDate":"2019-09-20 16:30:00","orgNo":"3340170","typeCode":"计划停电","poweroffArea":"110kV长春变:栋山D410线首端，后石路1#村中公变，后石路2#村公路公变，栋山村7号公路公变配变之间","poweroffReason":"交投公司蒋大线线路移位工程：配合带电作业拉断负荷，原停电结束时间为2019-09-20 16:00:00,因抢修难度大,现变更停电结束时间为2019-09-20 16:30:00","powerTime":"2019-09-20 16:28:01","powerComm":"已送电","subsNo":"","lineNo":"","tgNo":"","tgName":null,"infoStatus":"1","orgName":"国网浙江杭州市富阳区供电公司","typeName":null,"infoStatusName":null,"dateDay":null,"orgNos":null,"nowTime":null,"countyName":null,"streetName":null,"villageName":null,"roadName":null,"communityName":null,"tranName":null,"sdLineName":null,"cityCode":"3340170","cityName":"国网浙江杭州市富阳区供电公司","provinceCode":null,"stopTime":"2019-09-20 16:30:00","powerType":"全部","powerOffArea":"110kV长春变:栋山D410线首端，后石路1#村中公变，后石路2#村公路公变，栋山村7号公路公变配变之间","powerOffReason":"交投公司蒋大线线路移位工程：配合带电作业拉断负荷，原停电结束时间为2019-09-20 16:00:00,因抢修难度大,现变更停电结束时间为2019-09-20 16:30:00","powerOffId":"2019090931020078"},{"poweroffId":2019090931020077,"sgpoweroffId":null,"subsName":"","lineName":"10kV炼铜D405线","pubTranName":"浙江富冶集团有限公司,","scope":"浙江省-杭州市-富阳区-鹿山街道-谢家溪行政村-浙江富冶集团有限公司","startTime":"2019-09-22 08:30:00","stopDate":"2019-09-22 16:00:00","orgNo":"3340170","typeCode":"计划停电","poweroffArea":"110kV长春变:炼铜D405线-浙江富冶集团有限公司后段","poweroffReason":"青云地区2019年缺陷处理工程：10kV炼铜D405线15#杆至28#杆隐患消除（砍树）等工作。","powerTime":"2019-09-22 15:45:27","powerComm":"已送电","subsNo":"","lineNo":"","tgNo":"","tgName":null,"infoStatus":"1","orgName":"国网浙江杭州市富阳区供电公司","typeName":null,"infoStatusName":null,"dateDay":null,"orgNos":null,"nowTime":null,"countyName":null,"streetName":null,"villageName":null,"roadName":null,"communityName":null,"tranName":null,"sdLineName":null,"cityCode":"3340170","cityName":"国网浙江杭州市富阳区供电公司","provinceCode":null,"stopTime":"2019-09-22 16:00:00","powerType":"全部","powerOffArea":"110kV长春变:炼铜D405线-浙江富冶集团有限公司后段","powerOffReason":"青云地区2019年缺陷处理工程：10kV炼铜D405线15#杆至28#杆隐患消除（砍树）等工作。","powerOffId":"2019090931020077"},{"poweroffId":2019090931020075,"sgpoweroffId":null,"subsName":"","lineName":"10kV洪庄D292线","pubTranName":"洪庄村9号横坞公变,","scope":"浙江省-杭州市-富阳区-银湖街道-洪庄行政村-横坞自然村","startTime":"2019-09-21 07:10:00","stopDate":"2019-09-21 16:30:00","orgNo":"3340170","typeCode":"计划停电","poweroffArea":"35kV新义变:洪庄D292线-洪庄村9号横坞公变低压开关后段","poweroffReason":"(低压停电信息)新装电缆1路，拆除旧线11档，新架导线8档，拆架导线1档，搭接等工作。（迎东2019年峡岭村3#周家坛公变等配电线路及设备大修工程）","powerTime":"2019-09-21 16:03:08","powerComm":"已送电","subsNo":"","lineNo":"","tgNo":"","tgName":null,"infoStatus":"1","orgName":"国网浙江杭州市富阳区供电公司","typeName":null,"infoStatusName":null,"dateDay":null,"orgNos":null,"nowTime":null,"countyName":null,"streetName":null,"villageName":null,"roadName":null,"communityName":null,"tranName":null,"sdLineName":null,"cityCode":"3340170","cityName":"国网浙江杭州市富阳区供电公司","provinceCode":null,"stopTime":"2019-09-21 16:30:00","powerType":"全部","powerOffArea":"35kV新义变:洪庄D292线-洪庄村9号横坞公变低压开关后段","powerOffReason":"(低压停电信息)新装电缆1路，拆除旧线11档，新架导线8档，拆架导线1档，搭接等工作。（迎东2019年峡岭村3#周家坛公变等配电线路及设备大修工程）","powerOffId":"2019090931020075"},{"poweroffId":2019090931020074,"sgpoweroffId":null,"subsName":"","lineName":"10kV四联D961线","pubTranName":"四联村8号高坞里公变,","scope":"浙江省-杭州市-富阳区-银湖街道-银湖行政村(高坞口自然村,四联自然村)","startTime":"2019-09-21 07:30:00","stopDate":"2019-09-21 16:30:00","orgNo":"3340170","typeCode":"计划停电","poweroffArea":"110kV九龙变:四联D961线-四联村8号高坞里公变低压开关后段","poweroffReason":"(低压停电信息)新装导线1档，更换导线3档，更换接户线25处，搭接等工作。（迎东2019年沈家坞9#里村口公变等低压台区改造工程）","powerTime":"2019-09-21 16:02:05","powerComm":"已送电","subsNo":"","lineNo":"","tgNo":"","tgName":null,"infoStatus":"1","orgName":"国网浙江杭州市富阳区供电公司","typeName":null,"infoStatusName":null,"dateDay":null,"orgNos":null,"nowTime":null,"countyName":null,"streetName":null,"villageName":null,"roadName":null,"communityName":null,"tranName":null,"sdLineName":null,"cityCode":"3340170","cityName":"国网浙江杭州市富阳区供电公司","provinceCode":null,"stopTime":"2019-09-21 16:30:00","powerType":"全部","powerOffArea":"110kV九龙变:四联D961线-四联村8号高坞里公变低压开关后段","powerOffReason":"(低压停电信息)新装导线1档，更换导线3档，更换接户线25处，搭接等工作。（迎东2019年沈家坞9#里村口公变等低压台区改造工程）","powerOffId":"2019090931020074"},{"poweroffId":2019090931020071,"sgpoweroffId":null,"subsName":"","lineName":"10kV上陈D295线","pubTranName":"观前村1号杨家坎公变,","scope":"浙江省-杭州市-富阳区-银湖街道-观前行政村(观前自然村,黄泥山自然村,杨家坑自然村)","startTime":"2019-09-20 08:30:00","stopDate":"2019-09-20 17:10:00","orgNo":"3340170","typeCode":"计划停电","poweroffArea":"35kV新义变:上陈D295线-观前村1号杨家坎公变低压开关后段","poweroffReason":"(低压停电信息)杭州市富阳区观前村拆迁区块电力迁改工程拆旧10档等工作","powerTime":"2019-09-20 16:54:46","powerComm":"已送电","subsNo":"","lineNo":"","tgNo":"","tgName":null,"infoStatus":"1","orgName":"国网浙江杭州市富阳区供电公司","typeName":null,"infoStatusName":null,"dateDay":null,"orgNos":null,"nowTime":null,"countyName":null,"streetName":null,"villageName":null,"roadName":null,"communityName":null,"tranName":null,"sdLineName":null,"cityCode":"3340170","cityName":"国网浙江杭州市富阳区供电公司","provinceCode":null,"stopTime":"2019-09-20 17:10:00","powerType":"全部","powerOffArea":"35kV新义变:上陈D295线-观前村1号杨家坎公变低压开关后段","powerOffReason":"(低压停电信息)杭州市富阳区观前村拆迁区块电力迁改工程拆旧10档等工作","powerOffId":"2019090931020071"},{"poweroffId":2019090931020023,"sgpoweroffId":null,"subsName":"","lineName":"10kV华丰C622线","pubTranName":"江南村(九号坝)9#变,","scope":"浙江省-杭州市-萧山区-新街街道-新街镇，江南村-江南行政村-江南自然村等一带","startTime":"2019-09-09 07:23:14","stopDate":"2019-09-09 09:15:14","orgNo":"3340130","typeCode":"电网故障停限电","poweroffArea":"110kV新街变:华丰C622线-江南村(九号坝)9#变台区低压开关","poweroffReason":"(低压停电信息)低压漏电保护器短路故障 原停电结束时间：2019-10-05 09:30:14，变更停电结束时间：2019-09-09 09:15:14，由于增派人员，抢修提前完成，故需要提前送电。","powerTime":"2019-09-09 08:20:39","powerComm":"已送电","subsNo":"","lineNo":"","tgNo":"","tgName":null,"infoStatus":"1","orgName":"国网浙江杭州市萧山区供电有限公司","typeName":null,"infoStatusName":null,"dateDay":null,"orgNos":null,"nowTime":null,"countyName":null,"streetName":null,"villageName":null,"roadName":null,"communityName":null,"tranName":null,"sdLineName":null,"cityCode":"3340130","cityName":"国网浙江杭州市萧山区供电有限公司","provinceCode":null,"stopTime":"2019-09-09 09:15:14","powerType":"全部","powerOffArea":"110kV新街变:华丰C622线-江南村(九号坝)9#变台区低压开关","powerOffReason":"(低压停电信息)低压漏电保护器短路故障 原停电结束时间：2019-10-05 09:30:14，变更停电结束时间：2019-09-09 09:15:14，由于增派人员，抢修提前完成，故需要提前送电。","powerOffId":"2019090931020023"},{"poweroffId":2019090931020022,"sgpoweroffId":null,"subsName":"","lineName":"10kV梧村T244线","pubTranName":"双义村3号公变,","scope":"浙江省-杭州市-桐庐县-江南镇(石阜行政村-石阜自然村,小潘行政村-双义自然村)","startTime":"2019-09-09 07:23:07","stopDate":"2019-09-09 09:00:07","orgNo":"3340150","typeCode":"电网故障停限电","poweroffArea":"110kV石阜变:梧村T244线-双义村3号公变后段","poweroffReason":"(低压停电信息)低压开关跳闸","powerTime":"2019-09-09 08:40:16","powerComm":"已送电。","subsNo":"","lineNo":"","tgNo":"","tgName":null,"infoStatus":"1","orgName":"国网浙江桐庐县供电公司","typeName":null,"infoStatusName":null,"dateDay":null,"orgNos":null,"nowTime":null,"countyName":null,"streetName":null,"villageName":null,"roadName":null,"communityName":null,"tranName":null,"sdLineName":null,"cityCode":"3340150","cityName":"国网浙江桐庐县供电公司","provinceCode":null,"stopTime":"2019-09-09 09:00:07","powerType":"全部","powerOffArea":"110kV石阜变:梧村T244线-双义村3号公变后段","powerOffReason":"(低压停电信息)低压开关跳闸","powerOffId":"2019090931020022"},{"poweroffId":2019090931020017,"sgpoweroffId":null,"subsName":"","lineName":"10kV戴家Y800线","pubTranName":"戴家村老虎岩台区,","scope":"浙江省-杭州市-建德市-莲花镇-戴家行政村-戴家自然村、老虎岩一带用户。","startTime":"2019-09-09 07:04:00","stopDate":"2019-09-09 09:00:00","orgNo":"3340180","typeCode":"电网故障停限电","poweroffArea":"35kV莲花变:戴家Y800线-戴家村老虎岩台区后段","poweroffReason":"(低压停电信息)低压开关跳闸","powerTime":"2019-09-09 08:56:00","powerComm":"已送电","subsNo":"","lineNo":"","tgNo":"","tgName":null,"infoStatus":"1","orgName":"国网浙江建德市供电有限公司","typeName":null,"infoStatusName":null,"dateDay":null,"orgNos":null,"nowTime":null,"countyName":null,"streetName":null,"villageName":null,"roadName":null,"communityName":null,"tranName":null,"sdLineName":null,"cityCode":"3340180","cityName":"国网浙江建德市供电有限公司","provinceCode":null,"stopTime":"2019-09-09 09:00:00","powerType":"全部","powerOffArea":"35kV莲花变:戴家Y800线-戴家村老虎岩台区后段","powerOffReason":"(低压停电信息)低压开关跳闸","powerOffId":"2019090931020017"},{"poweroffId":2019090831020166,"sgpoweroffId":null,"subsName":"","lineName":"10kV道训9141线","pubTranName":"钱工,横桥养殖,保障,金景灯,打水,新天建材3,金家岭三变,经合社,金村一,新天2#,金家岭二变,1,杨家,工营,浙宿,部泵,金岭灯,浙农,新天建材4,变压器1,富轨施五3,警犬,新天1#,万森,双中1#,部队专变,路市,双中2#,富轨施五2,变压器3,路灯专变,变压器2,杨家二,富轨施五,","scope":"浙江省-杭州市-西湖区-转塘街道-村口社区-村口村道,双浦镇(袁家浦社区-袁浦街,杭江行政村-金家弄村道,板桥行政村-板桥村道);转塘街道-中村村社区(83027部队水井,浙江申达塑料机械有限公司,杭州浙大科农种业有限公司,杭州市西湖区仙家弄养殖场,中国铁塔股份有限公司杭州市分公司,浙江省林产有限公司,中国人民解放军75210部队,83013部队教导队,杭州之江国家旅游度假区基础设施开发中心,杭州市水务控股集团有限公司之江分公司,浙江香山文化艺术有限公司,浙江省杭州第七中学),转塘街道-金家岭社区(杭州市公安局,杭州钱塘工程机械制造有限公司),转塘街道(转塘社区-杭州市路灯管理所,方家畈社区-杭州之江度假区方家畈茶园,村口社区-中铁隧道局集团有限公司市政工程公司,双流社区-中铁隧道局集团有限公司市政工程公司)","startTime":"2019-09-08 22:25:54","stopDate":"2019-09-08 23:45:54","orgNo":"3340101","typeCode":"电网故障停限电","poweroffArea":"110kV象山变:道训9141线","poweroffReason":"高压开关跳闸 原预计停电结束时间2019-09-09 07:25:54,由于施工现场环境比较复杂，存在不确定因素，因此预估施工时间适当放长了，而实际施工进行得比较顺利，因此提前送电了","powerTime":"2019-09-08 23:16:55","powerComm":"送电","subsNo":"","lineNo":"","tgNo":"","tgName":null,"infoStatus":"1","orgName":"浙江杭州电力客户服务中心","typeName":null,"infoStatusName":null,"dateDay":null,"orgNos":null,"nowTime":null,"countyName":null,"streetName":null,"villageName":null,"roadName":null,"communityName":null,"tranName":null,"sdLineName":null,"cityCode":"3340101","cityName":"浙江杭州电力客户服务中心","provinceCode":null,"stopTime":"2019-09-08 23:45:54","powerType":"全部","powerOffArea":"110kV象山变:道训9141线","powerOffReason":"高压开关跳闸 原预计停电结束时间2019-09-09 07:25:54,由于施工现场环境比较复杂，存在不确定因素，因此预估施工时间适当放长了，而实际施工进行得比较顺利，因此提前送电了","powerOffId":"2019090831020166"}],"pageModel":{"pageNow":1133,"totalCount":17789,"totalPage":1779,"tableRows":0,"pageCount":10,"beginCount":11320},"isExperi":"1"}