{"message":"","today":"2020-06-16","seleList":[{"poweroffId":2019090831020110,"sgpoweroffId":null,"subsName":"","lineName":"10kV文苑D366线","pubTranName":"肖邦7号公变,","scope":"浙江省-杭州市-富阳区-富春街道(城西社区-文教路,鹿山社区-文教路)","startTime":"2019-09-08 14:46:44","stopDate":"2019-09-08 15:46:44","orgNo":"3340170","typeCode":"电网故障停限电","poweroffArea":"110kV富鹿变:文苑D366线-肖邦7号公变后段","poweroffReason":"高压开关跳闸，原停电结束时间2019-09-08 16:46:44，因抢修力量加强变更至2019-09-08 15:46:44","powerTime":"2019-09-08 15:07:07","powerComm":"已送电","subsNo":"","lineNo":"","tgNo":"","tgName":null,"infoStatus":"1","orgName":"国网浙江杭州市富阳区供电公司","typeName":null,"infoStatusName":null,"dateDay":null,"orgNos":null,"nowTime":null,"countyName":null,"streetName":null,"villageName":null,"roadName":null,"communityName":null,"tranName":null,"sdLineName":null,"cityCode":"3340170","cityName":"国网浙江杭州市富阳区供电公司","provinceCode":null,"stopTime":"2019-09-08 15:46:44","powerType":"全部","powerOffArea":"110kV富鹿变:文苑D366线-肖邦7号公变后段","powerOffReason":"高压开关跳闸，原停电结束时间2019-09-08 16:46:44，因抢修力量加强变更至2019-09-08 15:46:44","powerOffId":"2019090831020110"},{"poweroffId":2019090831020090,"sgpoweroffId":null,"subsName":"","lineName":"10kV章村D382线","pubTranName":"富阳多宝电子有限公司,新一村2号章村公变,新一村4#杨龙头公变,新一村3#乡政府公变,富阳多宝电子有限公司,新一村1号溪边公变,","scope":"浙江省-杭州市-富阳区-湖源乡(新一行政村-小章村自然村,双喜行政村-高田坎自然村);浙江省-杭州市-富阳区-湖源乡-新一行政村-杭州多宝电子有限公司","startTime":"2019-09-08 12:44:41","stopDate":"2019-09-08 14:44:41","orgNo":"3340170","typeCode":"电网故障停限电","poweroffArea":"35kV湖源变:章村D382线-章村D3822开关后段","poweroffReason":"高压开关跳闸","powerTime":"2019-09-08 13:51:39","powerComm":"已送电","subsNo":"","lineNo":"","tgNo":"","tgName":null,"infoStatus":"1","orgName":"国网浙江杭州市富阳区供电公司","typeName":null,"infoStatusName":null,"dateDay":null,"orgNos":null,"nowTime":null,"countyName":null,"streetName":null,"villageName":null,"roadName":null,"communityName":null,"tranName":null,"sdLineName":null,"cityCode":"3340170","cityName":"国网浙江杭州市富阳区供电公司","provinceCode":null,"stopTime":"2019-09-08 14:44:41","powerType":"全部","powerOffArea":"35kV湖源变:章村D382线-章村D3822开关后段","powerOffReason":"高压开关跳闸","powerOffId":"2019090831020090"},{"poweroffId":2019090831020088,"sgpoweroffId":null,"subsName":"","lineName":"10kV金鑫T114线","pubTranName":"金鑫小区1号公变,","scope":"浙江省-杭州市-桐庐县-桐君街道-金鑫社区(金鑫小区26幢2单元)","startTime":"2019-09-08 12:28:14","stopDate":"2019-09-08 14:28:14","orgNo":"3340150","typeCode":"电网故障停限电","poweroffArea":"110kV桐庐变:金鑫T114线-金鑫小区1号公变后段","poweroffReason":"高压开关跳闸","powerTime":"2019-09-08 14:19:14","powerComm":"已送电。","subsNo":"","lineNo":"","tgNo":"","tgName":null,"infoStatus":"1","orgName":"国网浙江桐庐县供电公司","typeName":null,"infoStatusName":null,"dateDay":null,"orgNos":null,"nowTime":null,"countyName":null,"streetName":null,"villageName":null,"roadName":null,"communityName":null,"tranName":null,"sdLineName":null,"cityCode":"3340150","cityName":"国网浙江桐庐县供电公司","provinceCode":null,"stopTime":"2019-09-08 14:28:14","powerType":"全部","powerOffArea":"110kV桐庐变:金鑫T114线-金鑫小区1号公变后段","powerOffReason":"高压开关跳闸","powerOffId":"2019090831020088"},{"poweroffId":2019090831020082,"sgpoweroffId":null,"subsName":"","lineName":"10kV东关Y122线","pubTranName":"梅城集镇西门后街公变,","scope":"浙江省-杭州市-建德市-梅城镇-严陵社区-正大街,梅城镇-梅花社区(双井弄巷,西门街,府前街,西门后街,小西门街)一带用户。","startTime":"2019-09-08 11:28:00","stopDate":"2019-09-08 13:30:00","orgNo":"3340180","typeCode":"电网故障停限电","poweroffArea":"110kV梅城变:东关Y122线-梅城集镇西门后街公变后段","poweroffReason":"(低压停电信息)低压开关跳闸","powerTime":"2019-09-08 12:35:00","powerComm":"已送电（实际是一户无电）","subsNo":"","lineNo":"","tgNo":"","tgName":null,"infoStatus":"1","orgName":"国网浙江建德市供电有限公司","typeName":null,"infoStatusName":null,"dateDay":null,"orgNos":null,"nowTime":null,"countyName":null,"streetName":null,"villageName":null,"roadName":null,"communityName":null,"tranName":null,"sdLineName":null,"cityCode":"3340180","cityName":"国网浙江建德市供电有限公司","provinceCode":null,"stopTime":"2019-09-08 13:30:00","powerType":"全部","powerOffArea":"110kV梅城变:东关Y122线-梅城集镇西门后街公变后段","powerOffReason":"(低压停电信息)低压开关跳闸","powerOffId":"2019090831020082"},{"poweroffId":2019090831020070,"sgpoweroffId":null,"subsName":"","lineName":"10kV陶春H558线","pubTranName":"求是村陶村桥下村公变,","scope":"浙江省-杭州市-余杭区-径山镇-求是行政村(下自然村,求是自然村,陶桥自然村)","startTime":"2019-09-08 10:33:00","stopDate":"2019-09-08 15:00:00","orgNo":"3340140","typeCode":"电网故障停限电","poweroffArea":"110kV潘板变:陶春H558线-陶春桥下村分线9号杆开关后段","poweroffReason":"高压开关跳闸","powerTime":"2019-09-08 14:18:00","powerComm":"已送电","subsNo":"","lineNo":"","tgNo":"","tgName":null,"infoStatus":"1","orgName":"国网浙江杭州市余杭区供电有限公司","typeName":null,"infoStatusName":null,"dateDay":null,"orgNos":null,"nowTime":null,"countyName":null,"streetName":null,"villageName":null,"roadName":null,"communityName":null,"tranName":null,"sdLineName":null,"cityCode":"3340140","cityName":"国网浙江杭州市余杭区供电有限公司","provinceCode":null,"stopTime":"2019-09-08 15:00:00","powerType":"全部","powerOffArea":"110kV潘板变:陶春H558线-陶春桥下村分线9号杆开关后段","powerOffReason":"高压开关跳闸","powerOffId":"2019090831020070"},{"poweroffId":2019090831020064,"sgpoweroffId":null,"subsName":"","lineName":"10kV桐君T112线","pubTranName":"桐庐县美丽桐君开发有限公司,","scope":"浙江省-杭州市-桐庐县-桐君街道-桐庐县美丽桐君开发有限公司","startTime":"2019-09-08 10:07:00","stopDate":"2019-09-08 12:07:00","orgNo":"3340150","typeCode":"电网故障停限电","poweroffArea":"110kV桐庐变:桐君T112线桐庐县美丽桐君开发有限公司配变","poweroffReason":"高压开关跳闸","powerTime":"2019-09-08 12:00:45","powerComm":"已送电","subsNo":"","lineNo":"","tgNo":"","tgName":null,"infoStatus":"1","orgName":"国网浙江桐庐县供电公司","typeName":null,"infoStatusName":null,"dateDay":null,"orgNos":null,"nowTime":null,"countyName":null,"streetName":null,"villageName":null,"roadName":null,"communityName":null,"tranName":null,"sdLineName":null,"cityCode":"3340150","cityName":"国网浙江桐庐县供电公司","provinceCode":null,"stopTime":"2019-09-08 12:07:00","powerType":"全部","powerOffArea":"110kV桐庐变:桐君T112线桐庐县美丽桐君开发有限公司配变","powerOffReason":"高压开关跳闸","powerOffId":"2019090831020064"},{"poweroffId":2019090831020039,"sgpoweroffId":null,"subsName":"","lineName":"10kV站用T176线","pubTranName":"桥东三叉口1号公变,","scope":"浙江省-杭州市-桐庐县-分水镇-武盛行政村-东关自然村,分水镇-桥东行政村(怀恩路,桥东自然村,周王坞自然村，东城路7号老婆婆饭店)","startTime":"2019-09-08 08:23:36","stopDate":"2019-09-08 10:23:36","orgNo":"3340150","typeCode":"电网故障停限电","poweroffArea":"110kV分水变:站用T176线-桥东三叉口1号公变后段","poweroffReason":"高压开关跳闸","powerTime":"2019-09-08 10:10:57","powerComm":"已送电","subsNo":"","lineNo":"","tgNo":"","tgName":null,"infoStatus":"1","orgName":"国网浙江桐庐县供电公司","typeName":null,"infoStatusName":null,"dateDay":null,"orgNos":null,"nowTime":null,"countyName":null,"streetName":null,"villageName":null,"roadName":null,"communityName":null,"tranName":null,"sdLineName":null,"cityCode":"3340150","cityName":"国网浙江桐庐县供电公司","provinceCode":null,"stopTime":"2019-09-08 10:23:36","powerType":"全部","powerOffArea":"110kV分水变:站用T176线-桥东三叉口1号公变后段","powerOffReason":"高压开关跳闸","powerOffId":"2019090831020039"},{"poweroffId":2019090831020027,"sgpoweroffId":null,"subsName":"","lineName":"10kV来四A438线","pubTranName":"和庭小区2#公变,和庭小区1#公变,市政拆迁安置房(基建变),汇宇和庭专变2#,广和公寓5#公变,浙江中南建设集团有限公司,2#,杭州荣伟物资有限公司1316014891,杭州萧山茶亭中医院(筹),浙江广播电视大学萧山学院1#,杭州绿都卧城置业有限公司,憬天国际3#公变,杭州久安物业服务有限公司,憬天国际1#公变,变压器,广和公寓6#公变,浙江中南建设集团有限公司,广和公寓7#公变,广和公寓1#公变,浙江中南建设集团有限公司,1#,南江壹号名邸6#公变,广和公寓3#公变,戚家池社区2#变,变压器,汇宇和庭基建变,姚江岸小区2#公变,市政园林1#,姚江岸小区4#公变,1#,杭州德信蜀山置业有限公司,憬天国际2#公变,南江壹号名邸2#公变,南江壹号名邸8#公变,浙江大陆控股集团有限公司1#,消防大队1#,姚江岸小区5#公变,汇宇和庭专变1#,变压器,消防大队2#,浙江大陆控股集团有限公司2#,2#,杭州德信蜀山置业有限公司,广和公寓2#公变,姚江岸小区3#公变,姚江岸小区1#公变,王有史社区经济联合社临时施工变,杭州慧根机电设备有限公司,杭州市萧山区星都早教园,广和公寓4#公变,城市河道管理处5#,南江壹号名邸4#公变,吕才庄村1#变,浙江广播电视大学萧山学院2#,","scope":"浙江省-杭州市-萧山区-新塘街道-吕才庄社区(吕才庄自然村,高桥路,南江壹号名邸小区),新塘街道(汇宇社区-通惠路,姚江岸社区-姚江岸自然村),蜀山街道(章潘桥行政村-姚家畈自然村,山水苑社区-品文街)，广和小区;蜀山街道-戚家池社区(杭州久安物业服务有限公司,杭州德信蜀山置业有限公司,浙江中南建设集团有限公司),蜀山街道-曹家桥社区(萧山区公安分局消防大队,杭州市萧山区艾乐幼儿园),新塘街道-吕才庄社区(绿城物业服务集团有限公司萧山分公司,杭州市萧山区市政绿化养护保障中心,杭州市萧山区教育局),蜀山街道-山水苑社区(浙江大陆控股集团有限公司,杭州久安物业服务有限公司),蜀山街道-向阳社区(杭州荣伟物资有限公司,杭州市公安局萧山区分局),新塘街道(王有史社区-杭州市萧山区新塘街道王有史社区经济联合社,文源社区-杭州市萧山区城市河道管理处,金家浜社区-浙江广播电视大学萧山学院,姚江岸社区-杭州市萧山区星原早教中心,琴山下社区-杭州帝凯物业服务有限公司),城厢街道-潘水社区-杭州市萧山区市政绿化养护保障中心,蜀山街道-联丰社区-杭州久安物业服务有限公司一带、浙江省杭州市萧山区蜀山街道广河公寓12幢3三元301","startTime":"2019-09-08 07:47:04","stopDate":"2019-09-08 09:30:04","orgNo":"3340130","typeCode":"电网故障停限电","poweroffArea":"110kV来苏变:来四A438线-来四A438线开关后段","poweroffReason":"外力破坏引起来四A438线高压柱上断路器短路故障 原停电结束时间：2019-09-08 11:47:04，变更停电结束时间：2019-09-08 09:30:04，由于增派人员，抢修提前完成，故需要提前送电。","powerTime":"2019-09-08 08:48:07","powerComm":"已送电","subsNo":"","lineNo":"","tgNo":"","tgName":null,"infoStatus":"1","orgName":"国网浙江杭州市萧山区供电有限公司","typeName":null,"infoStatusName":null,"dateDay":null,"orgNos":null,"nowTime":null,"countyName":null,"streetName":null,"villageName":null,"roadName":null,"communityName":null,"tranName":null,"sdLineName":null,"cityCode":"3340130","cityName":"国网浙江杭州市萧山区供电有限公司","provinceCode":null,"stopTime":"2019-09-08 09:30:04","powerType":"全部","powerOffArea":"110kV来苏变:来四A438线-来四A438线开关后段","powerOffReason":"外力破坏引起来四A438线高压柱上断路器短路故障 原停电结束时间：2019-09-08 11:47:04，变更停电结束时间：2019-09-08 09:30:04，由于增派人员，抢修提前完成，故需要提前送电。","powerOffId":"2019090831020027"},{"poweroffId":2019090831020017,"sgpoweroffId":null,"subsName":"","lineName":"10kV科迪A500线","pubTranName":"1#变,杭州松翔混凝土工程有限公司,杭州益围铝业有限公司,民围村7#变,杭州兴海铸造有限公司2#,东江村4#变,1#变,东江村1#变,群围村8#变,东江村6#变,1#变,民围村4#变,民围村1#变,民围村12#变,浙江以勒化学纤维有限公司,杭州久辉装饰材料有限公司,民围村18#变,群围村5#变,东江村3#变,杭州万隆轴承附件有限公司,杭州万隆轴承附件有限公司,民围村17#变,东江村8#变,群围村11#变,民围村15#变,东江村2#变,群围村1#变,东江村9#变,东江村10#变,民围村10#变,杭州戈迪装饰材料有限公司,三围村14#变,东江村5#变,东江村11#变,民围村8#变,杭州金鼎实业有限公司,东江村13#变,杭州东润商品混凝土有限公司,1#变,杭州兴海铸造有限公司1#,群围村14#变,民围村2#变,1#变,杭州邦特典杰建材有限公司,三围村8#变,民围村14#变,民围村13#变,杭州新华泰表面工程有限公司,丹诗丽装饰变压器,东江村12#变,杭州佳悦化纤有限公司,","scope":"浙江省-杭州市-萧山区-益农镇群围行政村-群围自然村,三围行政村-三围自然村,民围行政村-民围自然村,东江行政村-东江自然村,镇龙殿行政村-镇龙殿自然村;益农镇-民围行政村、杭州久辉装饰材料有限公司,杭州丹诗丽装饰有限公司,杭州万隆轴承附件有限公司,杭州戈迪装饰材料有限公司,浙江以勒化学纤维有限公司,杭州新华泰表面工程有限公司,杭州大航新型建材有限公司,杭州松翔混凝土工程有限公司,杭州兴海铸造有限公司,杭州东润商品混凝土有限公司,杭州仁迪家居有限公司,杭州以勒纺织有限公司,杭州顺君化纤有限公司,益农镇-群围行政村、杭州益围铝业有限公司,杭州金鼎实业有限公司,杭州佳悦化纤有限公司,杭州邦特典杰建材有限公司,杭州卓呈新材料有限公司、群围村、三围村、民围村、东江村、镇龙殿村一带","startTime":"2019-09-08 06:49:46","stopDate":"2019-09-08 13:49:46","orgNo":"3340130","typeCode":"电网故障停限电","poweroffArea":"110kV群围变:科迪A500线-科迪A5001开关后段","poweroffReason":"高压柱上断路器短路故障","powerTime":"2019-09-08 13:00:18","powerComm":"已送电","subsNo":"","lineNo":"","tgNo":"","tgName":null,"infoStatus":"1","orgName":"国网浙江杭州市萧山区供电有限公司","typeName":null,"infoStatusName":null,"dateDay":null,"orgNos":null,"nowTime":null,"countyName":null,"streetName":null,"villageName":null,"roadName":null,"communityName":null,"tranName":null,"sdLineName":null,"cityCode":"3340130","cityName":"国网浙江杭州市萧山区供电有限公司","provinceCode":null,"stopTime":"2019-09-08 13:49:46","powerType":"全部","powerOffArea":"110kV群围变:科迪A500线-科迪A5001开关后段","powerOffReason":"高压柱上断路器短路故障","powerOffId":"2019090831020017"},{"poweroffId":2019090831020012,"sgpoweroffId":null,"subsName":"","lineName":"10kV多瑙A395线","pubTranName":"钱塘江灌区管理处,1#,中国移动4#,2#,3#,2#,浙江交工集团股份有限公司计量点,自祥铸造,万通管业,1#,3#,3#,杭州钱塘江灌区,3#,2#,1#,杭州铁路工务段,1#,杭甬高速,2#,","scope":"浙江省-杭州市-萧山区-宁围镇、宁围街道-二桥行政村(中国移动通信集团浙江有限公司萧山分公司,杭州市萧山区钱塘江灌区管理处,上海铁路局杭州工务段,杭州万通管业有限公司,浙江沪杭甬高速公路股份有限公司杭州管理处,浙江交工集团股份有限公司),经济技术开发区-钱江社区-杭州自祥铸造有限公司,宁围街道-丰北行政村-杭州市萧山钱江世纪城管理委员会、宁围路民祥路交叉口、宁围镇丰北行政村宁一路与飞虹路交叉口西南角亚运项目4号等一带","startTime":"2019-09-08 06:40:35","stopDate":"2019-09-08 10:05:35","orgNo":"3340130","typeCode":"电网故障停限电","poweroffArea":"110kV顺坝变:多瑙A395线","poweroffReason":"高压柱上断路器短路故障，原停电结束时间：14;40，变更停电结束时间：10:05，由于增派人员，抢修工作提前完成，故需要提前送电。","powerTime":"2019-09-08 09:18:20","powerComm":"已送电","subsNo":"","lineNo":"","tgNo":"","tgName":null,"infoStatus":"1","orgName":"国网浙江杭州市萧山区供电有限公司","typeName":null,"infoStatusName":null,"dateDay":null,"orgNos":null,"nowTime":null,"countyName":null,"streetName":null,"villageName":null,"roadName":null,"communityName":null,"tranName":null,"sdLineName":null,"cityCode":"3340130","cityName":"国网浙江杭州市萧山区供电有限公司","provinceCode":null,"stopTime":"2019-09-08 10:05:35","powerType":"全部","powerOffArea":"110kV顺坝变:多瑙A395线","powerOffReason":"高压柱上断路器短路故障，原停电结束时间：14;40，变更停电结束时间：10:05，由于增派人员，抢修工作提前完成，故需要提前送电。","powerOffId":"2019090831020012"}],"pageModel":{"pageNow":1135,"totalCount":17789,"totalPage":1779,"tableRows":0,"pageCount":10,"beginCount":11340},"isExperi":"1"}