{"message":"","today":"2020-06-16","seleList":[{"poweroffId":2019090731020215,"sgpoweroffId":null,"subsName":"","lineName":"10kV合兴6963线","pubTranName":"东宁地铁2#,铁投（50）,创路（1）,东宁地铁1#,","scope":"浙江省-杭州市-江干区(笕桥街道-新风社区-杭州市城东新城建设投资有限公司,彭埠街道-中铁四局集团有限公司城市轨道交通工程分公司,彭埠镇-新风社区-杭州市路灯管理所)","startTime":"2019-09-07 23:15:04","stopDate":"2019-09-08 02:00:00","orgNo":"3340101","typeCode":"电网故障停限电","poweroffArea":"110kV彭埠变:合兴6963线-7647后段","poweroffReason":"高压开关跳闸 原预计停电结束时间05:15:04,由于施工现场环境比较复杂，存在不确定因素，因此预估施工时间适当放长了，而实际施工进行得比较顺利，因此提前送电了","powerTime":"2019-09-08 01:08:57","powerComm":"已送电","subsNo":"","lineNo":"","tgNo":"","tgName":null,"infoStatus":"1","orgName":"浙江杭州电力客户服务中心","typeName":null,"infoStatusName":null,"dateDay":null,"orgNos":null,"nowTime":null,"countyName":null,"streetName":null,"villageName":null,"roadName":null,"communityName":null,"tranName":null,"sdLineName":null,"cityCode":"3340101","cityName":"浙江杭州电力客户服务中心","provinceCode":null,"stopTime":"2019-09-08 02:00:00","powerType":"全部","powerOffArea":"110kV彭埠变:合兴6963线-7647后段","powerOffReason":"高压开关跳闸 原预计停电结束时间05:15:04,由于施工现场环境比较复杂，存在不确定因素，因此预估施工时间适当放长了，而实际施工进行得比较顺利，因此提前送电了","powerOffId":"2019090731020215"},{"poweroffId":2019090731020214,"sgpoweroffId":null,"subsName":"","lineName":"10kV曹家G242线","pubTranName":"三星村西墩公变,","scope":"浙江省-杭州市-余杭区-塘栖镇-三星行政村-三星村","startTime":"2019-09-07 23:00:15","stopDate":"2019-09-08 01:00:15","orgNo":"3340140","typeCode":"电网故障停限电","poweroffArea":"110kV宏畔变:曹家G242线-三星村西墩公变后段","poweroffReason":"高压开关跳闸","powerTime":"2019-09-08 00:15:23","powerComm":"已送电","subsNo":"","lineNo":"","tgNo":"","tgName":null,"infoStatus":"1","orgName":"国网浙江杭州市余杭区供电有限公司","typeName":null,"infoStatusName":null,"dateDay":null,"orgNos":null,"nowTime":null,"countyName":null,"streetName":null,"villageName":null,"roadName":null,"communityName":null,"tranName":null,"sdLineName":null,"cityCode":"3340140","cityName":"国网浙江杭州市余杭区供电有限公司","provinceCode":null,"stopTime":"2019-09-08 01:00:15","powerType":"全部","powerOffArea":"110kV宏畔变:曹家G242线-三星村西墩公变后段","powerOffReason":"高压开关跳闸","powerOffId":"2019090731020214"},{"poweroffId":2019090731020199,"sgpoweroffId":null,"subsName":"","lineName":"10kV国盛C829线","pubTranName":"舜达伟业,杭绍城际轨道交通1#,兴昌纺织,兴昌纺织,兴昌纺织,兴昌纺织,新世纪包装雨具,","scope":"浙江省-杭州市-萧山区-新街街道-元沙行政村(浙江舜达伟业物资有限公司,绍兴市柯桥区杭绍城际轨道交通建设投资有限公司,杭州萧山新世纪包装雨具厂,杭州兴昌纺织有限公司)","startTime":"2019-09-18 07:35:00","stopDate":"2019-09-18 16:40:00","orgNo":"3340130","typeCode":"计划停电","poweroffArea":"110kV罗山变:国盛C829线-兴昌纺织开关后段;国盛C829线-新世纪包装雨具后段;国盛C829线-断路器后段;国盛C829线-瞬达伟业开关后段","poweroffReason":"原国盛线74/B01#杆、74/A02#杆用户割接至新线路，原架空线拆除 原停电结束时间：2019-09-18 14:30:00，变更停电结束时间：2019-09-18 16:40:00，由于抢修工作难度大，故需要延迟送电。","powerTime":"2019-09-18 15:44:24","powerComm":"已送电","subsNo":"","lineNo":"","tgNo":"","tgName":null,"infoStatus":"1","orgName":"国网浙江杭州市萧山区供电有限公司","typeName":null,"infoStatusName":null,"dateDay":null,"orgNos":null,"nowTime":null,"countyName":null,"streetName":null,"villageName":null,"roadName":null,"communityName":null,"tranName":null,"sdLineName":null,"cityCode":"3340130","cityName":"国网浙江杭州市萧山区供电有限公司","provinceCode":null,"stopTime":"2019-09-18 16:40:00","powerType":"全部","powerOffArea":"110kV罗山变:国盛C829线-兴昌纺织开关后段;国盛C829线-新世纪包装雨具后段;国盛C829线-断路器后段;国盛C829线-瞬达伟业开关后段","powerOffReason":"原国盛线74/B01#杆、74/A02#杆用户割接至新线路，原架空线拆除 原停电结束时间：2019-09-18 14:30:00，变更停电结束时间：2019-09-18 16:40:00，由于抢修工作难度大，故需要延迟送电。","powerOffId":"2019090731020199"},{"poweroffId":2019090731020198,"sgpoweroffId":null,"subsName":"","lineName":"10kV国盛C829线","pubTranName":"杭州万成箱包有限公司,伟达化工,兴达彩印,杭州大乘金属制品有限公司,新鑫钢结构,观福塑料,","scope":"浙江省-杭州市-萧山区-新街街道-元沙行政村(杭州大乘金属制品有限公司,杭州江南弹簧有限公司,浙江新鑫钢结构有限公司,杭州盛展机电有限公司,杭州伟达化工有限公司,杭州萧山兴达彩印包装有限公司,杭州萧山观福塑料有限公司)","startTime":"2019-09-17 06:35:00","stopDate":"2019-09-17 12:30:00","orgNo":"3340130","typeCode":"计划停电","poweroffArea":"110kV罗山变:国盛C829线-观福塑料后段;国盛C829线-兴达彩印后段;国盛C829线-伟达化工后段;国盛C829线-新鑫钢构后段;国盛C829线-万盛箱包后段;国盛C829线-大乘金属制品后段","poweroffReason":"原国盛线87/01#杆、85/01#杆、81/01#杆、77#杆、76#杆用户割接至新线路","powerTime":"2019-09-17 12:00:47","powerComm":"已送电","subsNo":"","lineNo":"","tgNo":"","tgName":null,"infoStatus":"1","orgName":"国网浙江杭州市萧山区供电有限公司","typeName":null,"infoStatusName":null,"dateDay":null,"orgNos":null,"nowTime":null,"countyName":null,"streetName":null,"villageName":null,"roadName":null,"communityName":null,"tranName":null,"sdLineName":null,"cityCode":"3340130","cityName":"国网浙江杭州市萧山区供电有限公司","provinceCode":null,"stopTime":"2019-09-17 12:30:00","powerType":"全部","powerOffArea":"110kV罗山变:国盛C829线-观福塑料后段;国盛C829线-兴达彩印后段;国盛C829线-伟达化工后段;国盛C829线-新鑫钢构后段;国盛C829线-万盛箱包后段;国盛C829线-大乘金属制品后段","powerOffReason":"原国盛线87/01#杆、85/01#杆、81/01#杆、77#杆、76#杆用户割接至新线路","powerOffId":"2019090731020198"},{"poweroffId":2019090731020182,"sgpoweroffId":null,"subsName":"","lineName":"10kV新江C536线","pubTranName":"变压器,桃北新村26#变,万达,杭州泰兴气体有限公司,桃北新村23#变,电动工具,甬森玻璃,万事利,桃北新村3#变,桃北新村14#变,天成,浙江杭锻精密机械有限公司,桃北新村5#变,桃北新村13#变,杭州荣煕实业有限公司,桃北新村12#变,桃北新村29#变,于家机埠,桃北新村20#变,桃北新村1#变,杭州麻棉纺织厂,杭州弗若斯自动化设备有限公司,奇联纺织,2#,杭州尖力机械有限公司,杭州市萧山区育苗学校,杭州融阳政房地产开发有限公司2,杭州力攀机械有限公司,杭州融阳政房地产开发有限公司,杭州宇步鞋业有限公司,桃北新村28#变,浦阳集镇1#变,桃北新村6#变,桃北新村4#变,桃北新村9#变,杭州开进机械有限公司,永润鞋业,杭州融阳政房地产开发有限公司1,泰兴纺织,桃北新村17#变,杭州萧山天成机械有限公司,桃北新村10#变,桃北新村21#变,杭州萧山浦阳江建设开发有限公司1#,浙江省交通工程建设集团有限公司杭金衢高速公路拓宽工程,桃北新村15#变,桃北新村18#变,桃北新村11#变,桃北新村8#变,杭州融阳政房地产开发有限公司,杭州特帮实业有限公司,杭州麻棉纺织厂,杭州萧山普天塑业有限公司,桃北新村30#变,1#,桃北新村27#变,杭州萧山华宇焊接电器设备厂,杭州力亿轴承有限公司,桃北新村2#变,造纸机械,杭州融阳政房地产开发有限公司,桃北新村16#变,浙江才联环保科技有限公司,杭州帕莱逊机械有限公司,欧时鞋业,中国电信股份有限公司杭州萧山区分公司,桃北新村22#变,","scope":"浙江省-杭州市-萧山区-浦阳镇-桃北新行政村(许家自然村,小湖孙自然村,横塘倪自然村,桃北新村自然村),浦阳镇-尖山行政村(振浦路,下山俞自然村);浙江省-杭州市-萧山区-浦阳镇-新谊行政村-杭州弗若斯自动化设备有限公司,浦阳镇-桃北新行政村(杭州力攀机械有限公司,杭州宇步鞋业有限公司,杭州屹茂鞋业有限公司,杭州融阳政房地产开发有限公司,杭州萧山华宇焊接电器设备厂,杭州欣昊鞋业有限公司,杭州尖力机械有限公司,杭州信达消防设备有限公司,杭州萧山万达车配厂,浙江杭锻精密机械有限公司,杭州萧山浦阳桃北新村股份经济联合社,杭州甬森玻璃有限公司,杭州奇联纺织机械有限公司,杭州萧山电动工具配件厂,杭州萧山普天塑业有限公司,杭州麻棉纺织厂,杭州梁力钣金有限公司,杭州市萧山区浦阳镇人民政府,杭州佳得焊不锈钢设备有限公司,浙江才联环保科技有限公司,杭州开进机械有限公司),浦阳镇-尖山行政村(杭州萧山污水处理有限公司,杭州荣煕实业有限公司,杭州特帮实业有限公司,杭州泰兴气体有限公司,中国电信股份有限公司杭州萧山区分公司,杭州永润鞋业有限公司,杭州天启机械有限公司,杭州萧山浦阳造纸机械设备厂,杭州市萧山区育苗学校,杭州萧山泰成纺机配件厂,杭州力亿轴承有限公司)等一带","startTime":"2019-09-07 18:43:16","stopDate":"2019-09-07 23:00:16","orgNo":"3340130","typeCode":"电网故障停限电","poweroffArea":"35kV径游变:新江C536线-新江C536线开关后段","poweroffReason":"外力破坏引起高压架空线断线故障 原停电结束时间：2019-09-07 22:00，变更停电结束时间：2019-09-07 23:00，由于抢修现场抢修难度大，故需要延迟送电。","powerTime":"2019-09-07 22:08:20","powerComm":"已送电","subsNo":"","lineNo":"","tgNo":"","tgName":null,"infoStatus":"1","orgName":"国网浙江杭州市萧山区供电有限公司","typeName":null,"infoStatusName":null,"dateDay":null,"orgNos":null,"nowTime":null,"countyName":null,"streetName":null,"villageName":null,"roadName":null,"communityName":null,"tranName":null,"sdLineName":null,"cityCode":"3340130","cityName":"国网浙江杭州市萧山区供电有限公司","provinceCode":null,"stopTime":"2019-09-07 23:00:16","powerType":"全部","powerOffArea":"35kV径游变:新江C536线-新江C536线开关后段","powerOffReason":"外力破坏引起高压架空线断线故障 原停电结束时间：2019-09-07 22:00，变更停电结束时间：2019-09-07 23:00，由于抢修现场抢修难度大，故需要延迟送电。","powerOffId":"2019090731020182"},{"poweroffId":2019090731020165,"sgpoweroffId":null,"subsName":"","lineName":"10kV中秋D223线","pubTranName":"受降集镇9号红波路公变,","scope":"浙江省-杭州市-富阳区-银湖街道-新常行政村(虎啸杏自然村,大山脚自然村,上宋自然村,中秋自然村市场路,中秋自然村红波路,上宋自然村市场路),银湖街道-受降行政村(上宋自然村,中秋自然村红波三弄,中秋自然村红波路,中秋自然村上宋街,虎啸杏自然村,中秋自然村通政路,中秋自然村,中秋自然村市场路,大山脚自然村)","startTime":"2019-09-07 17:41:35","stopDate":"2019-09-07 18:30:35","orgNo":"3340170","typeCode":"电网故障停限电","poweroffArea":"110kV银湖变:中秋D223线-受降集镇9号红波路公变熔断器后段","poweroffReason":"(低压停电信息)低压开关跳闸","powerTime":"2019-09-07 18:12:59","powerComm":"已送电","subsNo":"","lineNo":"","tgNo":"","tgName":null,"infoStatus":"1","orgName":"国网浙江杭州市富阳区供电公司","typeName":null,"infoStatusName":null,"dateDay":null,"orgNos":null,"nowTime":null,"countyName":null,"streetName":null,"villageName":null,"roadName":null,"communityName":null,"tranName":null,"sdLineName":null,"cityCode":"3340170","cityName":"国网浙江杭州市富阳区供电公司","provinceCode":null,"stopTime":"2019-09-07 18:30:35","powerType":"全部","powerOffArea":"110kV银湖变:中秋D223线-受降集镇9号红波路公变熔断器后段","powerOffReason":"(低压停电信息)低压开关跳闸","powerOffId":"2019090731020165"},{"poweroffId":2019090731020162,"sgpoweroffId":null,"subsName":"","lineName":"10kV双竹H567线","pubTranName":"黄湖街道营业所老街公变,","scope":"浙江省-杭州市-余杭区-黄湖镇(清波行政村-清波自然村,虎山行政村-吴四坊自然村)一带","startTime":"2019-09-07 17:24:00","stopDate":"2019-09-07 19:24:00","orgNo":"3340140","typeCode":"电网故障停限电","poweroffArea":"35kV黄湖变:双竹H567线-黄湖街道营业所老街公变后段","poweroffReason":"(低压停电信息)低压开关跳闸","powerTime":"2019-09-07 19:11:00","powerComm":"已送电","subsNo":"","lineNo":"","tgNo":"","tgName":null,"infoStatus":"1","orgName":"国网浙江杭州市余杭区供电有限公司","typeName":null,"infoStatusName":null,"dateDay":null,"orgNos":null,"nowTime":null,"countyName":null,"streetName":null,"villageName":null,"roadName":null,"communityName":null,"tranName":null,"sdLineName":null,"cityCode":"3340140","cityName":"国网浙江杭州市余杭区供电有限公司","provinceCode":null,"stopTime":"2019-09-07 19:24:00","powerType":"全部","powerOffArea":"35kV黄湖变:双竹H567线-黄湖街道营业所老街公变后段","powerOffReason":"(低压停电信息)低压开关跳闸","powerOffId":"2019090731020162"},{"poweroffId":2019090731020146,"sgpoweroffId":null,"subsName":"","lineName":"10kV东辉T373线","pubTranName":"翰板陈家1号公变,浩源1号公变,东辉村1号公变,东树坑村外1号公变,后河道坞口1号公变,孟坑坞1号公变,东辉电管站1号公变,六坑里1号公变,后河村委会,东树坑村里1号公变,麻坑湾1号公变,翰板村1号公变,六坑外1号公变,坑口1号公变,后河村1号公变,坞石1号公变,东辉下村1号公变,郭村1号公变,仰家1号公变,道坞1号公变,塔岭1号公变,","scope":"浙江省-杭州市-淳安县-文昌镇-东树坑行政村(东树坑外自然村,东树坑里自然村),百江镇-翰板行政村(翰板自然村,陈家自然村),百江镇-郭村行政村(浩源自然村,郭村自然村),百江镇-后河行政村(后河自然村,坞石自然村,仰家自然村,道坞自然村,道坞口自然村),百江镇-东辉行政村(东辉下村自然村,东辉村自然村,麻坑湾自然村,坑口自然村,塔岭自然村,东辉电管站自然村),百江镇-小京行政村(六坑里自然村,六坑外自然村,炮台山自然村);百江镇-后河村委会","startTime":"2019-09-07 15:39:00","stopDate":"2019-09-07 17:25:00","orgNo":"3340150","typeCode":"电网故障停限电","poweroffArea":"110kV百江变:东辉T373线东辉4318后段","poweroffReason":"(低压停电信息)低压开关跳闸","powerTime":"2019-09-07 16:55:41","powerComm":"已送电","subsNo":"","lineNo":"","tgNo":"","tgName":null,"infoStatus":"1","orgName":"国网浙江桐庐县供电公司","typeName":null,"infoStatusName":null,"dateDay":null,"orgNos":null,"nowTime":null,"countyName":null,"streetName":null,"villageName":null,"roadName":null,"communityName":null,"tranName":null,"sdLineName":null,"cityCode":"3340150","cityName":"国网浙江桐庐县供电公司","provinceCode":null,"stopTime":"2019-09-07 17:25:00","powerType":"全部","powerOffArea":"110kV百江变:东辉T373线东辉4318后段","powerOffReason":"(低压停电信息)低压开关跳闸","powerOffId":"2019090731020146"},{"poweroffId":2019090731020137,"sgpoweroffId":null,"subsName":"","lineName":"10kV文苑D366线","pubTranName":"肖邦7号公变,","scope":"浙江省-杭州市-富阳区-富春街道(城西社区-文教路,鹿山社区-文教路)","startTime":"2019-09-07 15:05:00","stopDate":"2019-09-07 17:05:00","orgNo":"3340170","typeCode":"电网故障停限电","poweroffArea":"110kV富鹿变:文苑D366线肖邦7号公变配变","poweroffReason":"高压开关跳闸","powerTime":"2019-09-07 16:09:23","powerComm":"已送电","subsNo":"","lineNo":"","tgNo":"","tgName":null,"infoStatus":"1","orgName":"国网浙江杭州市富阳区供电公司","typeName":null,"infoStatusName":null,"dateDay":null,"orgNos":null,"nowTime":null,"countyName":null,"streetName":null,"villageName":null,"roadName":null,"communityName":null,"tranName":null,"sdLineName":null,"cityCode":"3340170","cityName":"国网浙江杭州市富阳区供电公司","provinceCode":null,"stopTime":"2019-09-07 17:05:00","powerType":"全部","powerOffArea":"110kV富鹿变:文苑D366线肖邦7号公变配变","powerOffReason":"高压开关跳闸","powerOffId":"2019090731020137"},{"poweroffId":2019090731020131,"sgpoweroffId":null,"subsName":"","lineName":"10kV青童R395线","pubTranName":"千岛湖大道3#公变,","scope":"浙江省-杭州市-淳安县-千岛湖镇(新城社区-睦州大道,马路行政村-马路自然村)","startTime":"2019-09-18 08:00:00","stopDate":"2019-09-18 13:00:00","orgNo":"3340190","typeCode":"计划停电","poweroffArea":"110kV珍珠变:青童R395线-千岛湖大道3号0641线隔离开关后段","poweroffReason":"千岛湖大道3号改接","powerTime":"2019-09-18 12:46:54","powerComm":"现场工作已完成","subsNo":"","lineNo":"","tgNo":"","tgName":null,"infoStatus":"1","orgName":"国网浙江淳安县供电有限公司","typeName":null,"infoStatusName":null,"dateDay":null,"orgNos":null,"nowTime":null,"countyName":null,"streetName":null,"villageName":null,"roadName":null,"communityName":null,"tranName":null,"sdLineName":null,"cityCode":"3340190","cityName":"国网浙江淳安县供电有限公司","provinceCode":null,"stopTime":"2019-09-18 13:00:00","powerType":"全部","powerOffArea":"110kV珍珠变:青童R395线-千岛湖大道3号0641线隔离开关后段","powerOffReason":"千岛湖大道3号改接","powerOffId":"2019090731020131"}],"pageModel":{"pageNow":1136,"totalCount":17789,"totalPage":1779,"tableRows":0,"pageCount":10,"beginCount":11350},"isExperi":"1"}