{"message":"","today":"2020-06-16","seleList":[{"poweroffId":2019090631020696,"sgpoweroffId":null,"subsName":"","lineName":"10kV栋山D410线","pubTranName":"百乐（杭州）建材有限公司,","scope":"浙江省-杭州市-富阳区-鹿山街道-南山行政村-百乐（杭州）建材有限公司","startTime":"2019-09-20 07:30:00","stopDate":"2019-09-20 16:30:00","orgNo":"3340170","typeCode":"计划停电","poweroffArea":"110kV长春变:栋山D410线-百乐（杭州）建材有限公司后段","poweroffReason":"配合用户内部检修，原停电结束时间为2019-09-20 16:00:00,因抢修难度大,现变更停电结束时间为2019-09-20 16:30:00","powerTime":"2019-09-20 16:27:48","powerComm":"已送电","subsNo":"","lineNo":"","tgNo":"","tgName":null,"infoStatus":"1","orgName":"国网浙江杭州市富阳区供电公司","typeName":null,"infoStatusName":null,"dateDay":null,"orgNos":null,"nowTime":null,"countyName":null,"streetName":null,"villageName":null,"roadName":null,"communityName":null,"tranName":null,"sdLineName":null,"cityCode":"3340170","cityName":"国网浙江杭州市富阳区供电公司","provinceCode":null,"stopTime":"2019-09-20 16:30:00","powerType":"全部","powerOffArea":"110kV长春变:栋山D410线-百乐（杭州）建材有限公司后段","powerOffReason":"配合用户内部检修，原停电结束时间为2019-09-20 16:00:00,因抢修难度大,现变更停电结束时间为2019-09-20 16:30:00","powerOffId":"2019090631020696"},{"poweroffId":2019090631020693,"sgpoweroffId":null,"subsName":"","lineName":"10kV新建D262线","pubTranName":"勤功村1号大月门公变,富阳恒毅塑业有限公司,勤功村3#村口公变,富阳新星球厂,富阳市双丰塑料制品厂,勤功村2号岭脚跟公变,","scope":"浙江省-杭州市-富阳区-大源镇-骆村行政村-杭州富阳恒毅塑业有限公司,大源镇-勤功行政村(杭州富阳区大源镇勤功海绵制品厂,富阳新星球厂)一带","startTime":"2019-09-19 15:45:00","stopDate":"2019-09-19 16:00:00","orgNo":"3340170","typeCode":"计划停电","poweroffArea":"35kV盛村变:新建D262线-勤功分线开关后段","poweroffReason":"短时停电配合新建D262线41#杆勤功分线负荷恢复，原停电时间为2019-09-20因政策原因变更至2019-09-19","powerTime":"2019-09-19 15:51:16","powerComm":"已送电","subsNo":"","lineNo":"","tgNo":"","tgName":null,"infoStatus":"1","orgName":"国网浙江杭州市富阳区供电公司","typeName":null,"infoStatusName":null,"dateDay":null,"orgNos":null,"nowTime":null,"countyName":null,"streetName":null,"villageName":null,"roadName":null,"communityName":null,"tranName":null,"sdLineName":null,"cityCode":"3340170","cityName":"国网浙江杭州市富阳区供电公司","provinceCode":null,"stopTime":"2019-09-19 16:00:00","powerType":"全部","powerOffArea":"35kV盛村变:新建D262线-勤功分线开关后段","powerOffReason":"短时停电配合新建D262线41#杆勤功分线负荷恢复，原停电时间为2019-09-20因政策原因变更至2019-09-19","powerOffId":"2019090631020693"},{"poweroffId":2019090631020692,"sgpoweroffId":null,"subsName":"","lineName":"10kV导岭D298线","pubTranName":"金竺村3#下浒公变,","scope":"浙江省杭州市富阳区银湖街道金竺村下浒村一带","startTime":"2019-09-16 08:30:00","stopDate":"2019-09-16 17:20:00","orgNo":"3340170","typeCode":"计划停电","poweroffArea":"35kV新义变:导岭D298线-金竺村3#下浒公变低压开关后段","poweroffReason":"(低压停电信息)杭州市富阳区金竺村3#下浒公变等0.4kV线路迁改工程 导线搭接、开耐涨1处、拆旧农用线20档、等工作 原停电结束时间为2019-09-16 17:10:00,因XXX原因,现变更停电结束时间为2019-09-16 17:20:00","powerTime":"2019-09-16 17:16:34","powerComm":"已送电","subsNo":"","lineNo":"","tgNo":"","tgName":null,"infoStatus":"1","orgName":"国网浙江杭州市富阳区供电公司","typeName":null,"infoStatusName":null,"dateDay":null,"orgNos":null,"nowTime":null,"countyName":null,"streetName":null,"villageName":null,"roadName":null,"communityName":null,"tranName":null,"sdLineName":null,"cityCode":"3340170","cityName":"国网浙江杭州市富阳区供电公司","provinceCode":null,"stopTime":"2019-09-16 17:20:00","powerType":"全部","powerOffArea":"35kV新义变:导岭D298线-金竺村3#下浒公变低压开关后段","powerOffReason":"(低压停电信息)杭州市富阳区金竺村3#下浒公变等0.4kV线路迁改工程 导线搭接、开耐涨1处、拆旧农用线20档、等工作 原停电结束时间为2019-09-16 17:10:00,因XXX原因,现变更停电结束时间为2019-09-16 17:20:00","powerOffId":"2019090631020692"},{"poweroffId":2019090631020687,"sgpoweroffId":null,"subsName":"","lineName":"10kV新建D262线","pubTranName":"富阳市双丰塑料制品厂,勤功村1号大月门公变,富阳恒毅塑业有限公司,勤功村3#村口公变,勤功村2号岭脚跟公变,富阳新星球厂,","scope":"浙江省-杭州市-富阳区-大源镇(勤功行政村-勤功自然村,亭山行政村-东升自然村)一带","startTime":"2019-09-19 07:40:00","stopDate":"2019-09-19 07:55:00","orgNo":"3340170","typeCode":"计划停电","poweroffArea":"35kV盛村变:新建D262线-勤功分线开关后段","poweroffReason":"短时停电配合新建D262线41#杆勤功分线负荷转供至10千伏发电车，原停电时间为2019-09-20因政策原因变更至2019-09-19","powerTime":"2019-09-19 07:47:42","powerComm":"已送电","subsNo":"","lineNo":"","tgNo":"","tgName":null,"infoStatus":"1","orgName":"国网浙江杭州市富阳区供电公司","typeName":null,"infoStatusName":null,"dateDay":null,"orgNos":null,"nowTime":null,"countyName":null,"streetName":null,"villageName":null,"roadName":null,"communityName":null,"tranName":null,"sdLineName":null,"cityCode":"3340170","cityName":"国网浙江杭州市富阳区供电公司","provinceCode":null,"stopTime":"2019-09-19 07:55:00","powerType":"全部","powerOffArea":"35kV盛村变:新建D262线-勤功分线开关后段","powerOffReason":"短时停电配合新建D262线41#杆勤功分线负荷转供至10千伏发电车，原停电时间为2019-09-20因政策原因变更至2019-09-19","powerOffId":"2019090631020687"},{"poweroffId":2019090631020681,"sgpoweroffId":null,"subsName":"","lineName":"10kV汇锦V327线","pubTranName":"路广公变,","scope":"浙江省-杭州市-临安市-锦城街道-路广公司一带。","startTime":"2019-09-20 08:40:00","stopDate":"2019-09-20 13:00:00","orgNo":"3340160","typeCode":"计划停电","poweroffArea":"110kV锦南变:汇锦V327线-路广公变后段","poweroffReason":"线路改造","powerTime":"2019-09-20 12:50:14","powerComm":"已送电","subsNo":"","lineNo":"","tgNo":"","tgName":null,"infoStatus":"1","orgName":"国网浙江临安市供电公司","typeName":null,"infoStatusName":null,"dateDay":null,"orgNos":null,"nowTime":null,"countyName":null,"streetName":null,"villageName":null,"roadName":null,"communityName":null,"tranName":null,"sdLineName":null,"cityCode":"3340160","cityName":"国网浙江临安市供电公司","provinceCode":null,"stopTime":"2019-09-20 13:00:00","powerType":"全部","powerOffArea":"110kV锦南变:汇锦V327线-路广公变后段","powerOffReason":"线路改造","powerOffId":"2019090631020681"},{"poweroffId":2019090631020679,"sgpoweroffId":null,"subsName":"","lineName":"10kV汇锦V327线","pubTranName":"南苑小区3＃公变,","scope":"浙江省-杭州市-临安市-锦城街道-南苑小区一带。","startTime":"2019-09-20 08:10:00","stopDate":"2019-09-20 12:30:00","orgNo":"3340160","typeCode":"计划停电","poweroffArea":"110kV锦南变:汇锦V327线-南苑小区3＃公变后段","poweroffReason":"线路改造","powerTime":"2019-09-20 12:20:13","powerComm":"已送电","subsNo":"","lineNo":"","tgNo":"","tgName":null,"infoStatus":"1","orgName":"国网浙江临安市供电公司","typeName":null,"infoStatusName":null,"dateDay":null,"orgNos":null,"nowTime":null,"countyName":null,"streetName":null,"villageName":null,"roadName":null,"communityName":null,"tranName":null,"sdLineName":null,"cityCode":"3340160","cityName":"国网浙江临安市供电公司","provinceCode":null,"stopTime":"2019-09-20 12:30:00","powerType":"全部","powerOffArea":"110kV锦南变:汇锦V327线-南苑小区3＃公变后段","powerOffReason":"线路改造","powerOffId":"2019090631020679"},{"poweroffId":2019090631020678,"sgpoweroffId":null,"subsName":"","lineName":"10kV汇锦V327线","pubTranName":"南苑小区2＃公变,","scope":"浙江省-杭州市-临安市-锦城街道-南苑小区一带。","startTime":"2019-09-20 07:40:00","stopDate":"2019-09-20 12:00:00","orgNo":"3340160","typeCode":"计划停电","poweroffArea":"110kV锦南变:汇锦V327线-南苑小区2＃公变后段","poweroffReason":"线路改造","powerTime":"2019-09-20 11:50:18","powerComm":"已送电","subsNo":"","lineNo":"","tgNo":"","tgName":null,"infoStatus":"1","orgName":"国网浙江临安市供电公司","typeName":null,"infoStatusName":null,"dateDay":null,"orgNos":null,"nowTime":null,"countyName":null,"streetName":null,"villageName":null,"roadName":null,"communityName":null,"tranName":null,"sdLineName":null,"cityCode":"3340160","cityName":"国网浙江临安市供电公司","provinceCode":null,"stopTime":"2019-09-20 12:00:00","powerType":"全部","powerOffArea":"110kV锦南变:汇锦V327线-南苑小区2＃公变后段","powerOffReason":"线路改造","powerOffId":"2019090631020678"},{"poweroffId":2019090631020677,"sgpoweroffId":null,"subsName":"","lineName":"10kV彭钢6954线","pubTranName":"江施1#,城础(3),城础（1）,江施2#,地消,城础(4),江施3#,杭移（2）,城础（2）,","scope":"浙江省-杭州市-江干区-彭埠镇-备塘路-杭州市城市基础设施建设发展中心,彭埠镇-彭埠社区(中国移动通信集团浙江有限公司杭州分公司,杭州市江干区艮山东路北区块开发建设指挥部办公室,)","startTime":"2019-09-06 16:17:47","stopDate":"2019-09-06 18:45:47","orgNo":"3340101","typeCode":"电网故障停限电","poweroffArea":"110kV彭埠变:彭钢6954线-消移二分线后段","poweroffReason":"高压开关跳闸 原预计停电结束时间2019-09-06 21:17:47,由于施工现场环境比较复杂，存在不确定因素，因此预估施工时间适当放长了， 而实际施工进行得比较顺利，因此提前送电了","powerTime":"2019-09-06 17:59:45","powerComm":"已送电","subsNo":"","lineNo":"","tgNo":"","tgName":null,"infoStatus":"1","orgName":"浙江杭州电力客户服务中心","typeName":null,"infoStatusName":null,"dateDay":null,"orgNos":null,"nowTime":null,"countyName":null,"streetName":null,"villageName":null,"roadName":null,"communityName":null,"tranName":null,"sdLineName":null,"cityCode":"3340101","cityName":"浙江杭州电力客户服务中心","provinceCode":null,"stopTime":"2019-09-06 18:45:47","powerType":"全部","powerOffArea":"110kV彭埠变:彭钢6954线-消移二分线后段","powerOffReason":"高压开关跳闸 原预计停电结束时间2019-09-06 21:17:47,由于施工现场环境比较复杂，存在不确定因素，因此预估施工时间适当放长了， 而实际施工进行得比较顺利，因此提前送电了","powerOffId":"2019090631020677"},{"poweroffId":2019090631020676,"sgpoweroffId":null,"subsName":"","lineName":"10kV汇锦V327线","pubTranName":"南苑小区1＃公变,","scope":"浙江省-杭州市-临安市-锦城街道-南苑小区一带。","startTime":"2019-09-20 07:10:00","stopDate":"2019-09-20 11:30:00","orgNo":"3340160","typeCode":"计划停电","poweroffArea":"110kV锦南变:汇锦V327线-南苑小区1＃公变后段","poweroffReason":"导线架设","powerTime":"2019-09-20 11:20:21","powerComm":"已送电","subsNo":"","lineNo":"","tgNo":"","tgName":null,"infoStatus":"1","orgName":"国网浙江临安市供电公司","typeName":null,"infoStatusName":null,"dateDay":null,"orgNos":null,"nowTime":null,"countyName":null,"streetName":null,"villageName":null,"roadName":null,"communityName":null,"tranName":null,"sdLineName":null,"cityCode":"3340160","cityName":"国网浙江临安市供电公司","provinceCode":null,"stopTime":"2019-09-20 11:30:00","powerType":"全部","powerOffArea":"110kV锦南变:汇锦V327线-南苑小区1＃公变后段","powerOffReason":"导线架设","powerOffId":"2019090631020676"},{"poweroffId":2019090631020675,"sgpoweroffId":null,"subsName":"","lineName":"10kV明星D424线","pubTranName":"富阳市路灯安装维修管理所,","scope":"浙江省杭州市富阳区东洲街道路灯安装维修管理所一带","startTime":"2019-09-19 09:15:00","stopDate":"2019-09-19 16:30:00","orgNo":"3340170","typeCode":"计划停电","poweroffArea":"110kV东洲变:明星D424线-明星路灯支线熔断器后段","poweroffReason":"10kV明星D424线明星路渣土厂移位工程：拆线16档，拔杆15基，立杆1基，架线1档，拉线制作等","powerTime":"2019-09-19 16:22:07","powerComm":"已送电","subsNo":"","lineNo":"","tgNo":"","tgName":null,"infoStatus":"1","orgName":"国网浙江杭州市富阳区供电公司","typeName":null,"infoStatusName":null,"dateDay":null,"orgNos":null,"nowTime":null,"countyName":null,"streetName":null,"villageName":null,"roadName":null,"communityName":null,"tranName":null,"sdLineName":null,"cityCode":"3340170","cityName":"国网浙江杭州市富阳区供电公司","provinceCode":null,"stopTime":"2019-09-19 16:30:00","powerType":"全部","powerOffArea":"110kV东洲变:明星D424线-明星路灯支线熔断器后段","powerOffReason":"10kV明星D424线明星路渣土厂移位工程：拆线16档，拔杆15基，立杆1基，架线1档，拉线制作等","powerOffId":"2019090631020675"}],"pageModel":{"pageNow":1140,"totalCount":17789,"totalPage":1779,"tableRows":0,"pageCount":10,"beginCount":11390},"isExperi":"1"}