{"message":"","today":"2020-06-16","seleList":[{"poweroffId":2019090631020673,"sgpoweroffId":null,"subsName":"","lineName":"10kV十月D225线","pubTranName":"沈家坞村9#里村口公变,","scope":"浙江省杭州市富阳区银湖街道沈家坞村里村口村一带","startTime":"2019-09-20 07:30:00","stopDate":"2019-09-20 16:30:00","orgNo":"3340170","typeCode":"计划停电","poweroffArea":"110kV银湖变:十月D225线-沈家坞村9#里村口公变低压开关后段","poweroffReason":"(低压停电信息)更换导线7档，接户线搭接等工作。（迎东2019年沈家坞9#里村口公变等低压台区改造工程）","powerTime":"2019-09-20 16:20:47","powerComm":"已送电","subsNo":"","lineNo":"","tgNo":"","tgName":null,"infoStatus":"1","orgName":"国网浙江杭州市富阳区供电公司","typeName":null,"infoStatusName":null,"dateDay":null,"orgNos":null,"nowTime":null,"countyName":null,"streetName":null,"villageName":null,"roadName":null,"communityName":null,"tranName":null,"sdLineName":null,"cityCode":"3340170","cityName":"国网浙江杭州市富阳区供电公司","provinceCode":null,"stopTime":"2019-09-20 16:30:00","powerType":"全部","powerOffArea":"110kV银湖变:十月D225线-沈家坞村9#里村口公变低压开关后段","powerOffReason":"(低压停电信息)更换导线7档，接户线搭接等工作。（迎东2019年沈家坞9#里村口公变等低压台区改造工程）","powerOffId":"2019090631020673"},{"poweroffId":2019090631020672,"sgpoweroffId":null,"subsName":"","lineName":"10kV上陈D295线","pubTranName":"观前村12号杨家坎公变,","scope":"浙江省杭州市富阳区银湖街道观前村杨家坎村一带","startTime":"2019-09-19 08:30:00","stopDate":"2019-09-19 17:10:00","orgNo":"3340170","typeCode":"计划停电","poweroffArea":"35kV新义变:上陈D295线-观前村12号杨家坎公变低压开关后段","poweroffReason":"(低压停电信息)杭州市富阳区观前村拆迁区块电力迁改工程拆旧15档等工作","powerTime":"2019-09-19 16:55:21","powerComm":"已送电","subsNo":"","lineNo":"","tgNo":"","tgName":null,"infoStatus":"1","orgName":"国网浙江杭州市富阳区供电公司","typeName":null,"infoStatusName":null,"dateDay":null,"orgNos":null,"nowTime":null,"countyName":null,"streetName":null,"villageName":null,"roadName":null,"communityName":null,"tranName":null,"sdLineName":null,"cityCode":"3340170","cityName":"国网浙江杭州市富阳区供电公司","provinceCode":null,"stopTime":"2019-09-19 17:10:00","powerType":"全部","powerOffArea":"35kV新义变:上陈D295线-观前村12号杨家坎公变低压开关后段","powerOffReason":"(低压停电信息)杭州市富阳区观前村拆迁区块电力迁改工程拆旧15档等工作","powerOffId":"2019090631020672"},{"poweroffId":2019090631020670,"sgpoweroffId":null,"subsName":"","lineName":"10kV十月D225线","pubTranName":"沈家坞5#里村公变1,","scope":"浙江省杭州市富阳区银湖街道沈家坞村里村一带","startTime":"2019-09-19 07:30:00","stopDate":"2019-09-19 16:30:00","orgNo":"3340170","typeCode":"计划停电","poweroffArea":"110kV银湖变:十月D225线-沈家坞5#里村公变低压开关后段","poweroffReason":"(低压停电信息)拆装导线3档，更换导线5档，接户线搭接等工作。（迎东2019年沈家坞9#里村口公变等低压台区改造工程）","powerTime":"2019-09-19 16:21:48","powerComm":"已送电","subsNo":"","lineNo":"","tgNo":"","tgName":null,"infoStatus":"1","orgName":"国网浙江杭州市富阳区供电公司","typeName":null,"infoStatusName":null,"dateDay":null,"orgNos":null,"nowTime":null,"countyName":null,"streetName":null,"villageName":null,"roadName":null,"communityName":null,"tranName":null,"sdLineName":null,"cityCode":"3340170","cityName":"国网浙江杭州市富阳区供电公司","provinceCode":null,"stopTime":"2019-09-19 16:30:00","powerType":"全部","powerOffArea":"110kV银湖变:十月D225线-沈家坞5#里村公变低压开关后段","powerOffReason":"(低压停电信息)拆装导线3档，更换导线5档，接户线搭接等工作。（迎东2019年沈家坞9#里村口公变等低压台区改造工程）","powerOffId":"2019090631020670"},{"poweroffId":2019090631020668,"sgpoweroffId":null,"subsName":"","lineName":"10kV竹桥D304线","pubTranName":"民主村新联5#西公变,","scope":"浙江省-杭州市-富阳区-春江街道-民主行政村-直塘自然村一带","startTime":"2019-09-18 08:40:00","stopDate":"2019-09-18 16:40:00","orgNo":"3340170","typeCode":"计划停电","poweroffArea":"110kV建设变:竹桥D304线-民主村新联5#西公变跌落式熔断器后段","poweroffReason":"江南2019年山建村5#新区公变等台区低压线路改造工程：民主村新联5#西公变：更换JP柜1组、更换低压进线电缆、拆装低压出线电缆1路、更换低压出线电缆1路、搭接等工作","powerTime":"2019-09-18 16:25:25","powerComm":"已送电","subsNo":"","lineNo":"","tgNo":"","tgName":null,"infoStatus":"1","orgName":"国网浙江杭州市富阳区供电公司","typeName":null,"infoStatusName":null,"dateDay":null,"orgNos":null,"nowTime":null,"countyName":null,"streetName":null,"villageName":null,"roadName":null,"communityName":null,"tranName":null,"sdLineName":null,"cityCode":"3340170","cityName":"国网浙江杭州市富阳区供电公司","provinceCode":null,"stopTime":"2019-09-18 16:40:00","powerType":"全部","powerOffArea":"110kV建设变:竹桥D304线-民主村新联5#西公变跌落式熔断器后段","powerOffReason":"江南2019年山建村5#新区公变等台区低压线路改造工程：民主村新联5#西公变：更换JP柜1组、更换低压进线电缆、拆装低压出线电缆1路、更换低压出线电缆1路、搭接等工作","powerOffId":"2019090631020668"},{"poweroffId":2019090631020667,"sgpoweroffId":null,"subsName":"","lineName":"10kV大树D219线","pubTranName":"大树下村2号石矿公变,","scope":"浙江省杭州市富阳区银湖街道受降村大树下石矿村一带","startTime":"2019-09-18 07:30:00","stopDate":"2019-09-18 16:30:00","orgNo":"3340170","typeCode":"计划停电","poweroffArea":"110kV银湖变:大树D219线-大树下村2号石矿公变低压开关后段","poweroffReason":"(低压停电信息)更换接户线20处，搭接等工作。（迎东2019年沈家坞9#里村口公变等低压台区改造工程）","powerTime":"2019-09-18 16:19:57","powerComm":"已送电","subsNo":"","lineNo":"","tgNo":"","tgName":null,"infoStatus":"1","orgName":"国网浙江杭州市富阳区供电公司","typeName":null,"infoStatusName":null,"dateDay":null,"orgNos":null,"nowTime":null,"countyName":null,"streetName":null,"villageName":null,"roadName":null,"communityName":null,"tranName":null,"sdLineName":null,"cityCode":"3340170","cityName":"国网浙江杭州市富阳区供电公司","provinceCode":null,"stopTime":"2019-09-18 16:30:00","powerType":"全部","powerOffArea":"110kV银湖变:大树D219线-大树下村2号石矿公变低压开关后段","powerOffReason":"(低压停电信息)更换接户线20处，搭接等工作。（迎东2019年沈家坞9#里村口公变等低压台区改造工程）","powerOffId":"2019090631020667"},{"poweroffId":2019090631020665,"sgpoweroffId":null,"subsName":"","lineName":"10kV西坞D257线","pubTranName":"富阳市锅炉部件厂,","scope":"浙江省杭州市富阳区银湖街道富阳市锅炉部件厂一带","startTime":"2019-09-18 09:30:00","stopDate":"2019-09-18 16:30:00","orgNo":"3340170","typeCode":"计划停电","poweroffArea":"35kV新义变:西坞D257线-锅炉厂分线开关后段","poweroffReason":"高桥连接线迁改工程：立杆3基，拔杆4基，架线3档，拆线5档等工作","powerTime":"2019-09-18 16:03:06","powerComm":"已送电","subsNo":"","lineNo":"","tgNo":"","tgName":null,"infoStatus":"1","orgName":"国网浙江杭州市富阳区供电公司","typeName":null,"infoStatusName":null,"dateDay":null,"orgNos":null,"nowTime":null,"countyName":null,"streetName":null,"villageName":null,"roadName":null,"communityName":null,"tranName":null,"sdLineName":null,"cityCode":"3340170","cityName":"国网浙江杭州市富阳区供电公司","provinceCode":null,"stopTime":"2019-09-18 16:30:00","powerType":"全部","powerOffArea":"35kV新义变:西坞D257线-锅炉厂分线开关后段","powerOffReason":"高桥连接线迁改工程：立杆3基，拔杆4基，架线3档，拆线5档等工作","powerOffId":"2019090631020665"},{"poweroffId":2019090631020664,"sgpoweroffId":null,"subsName":"","lineName":"10kV武山V299线","pubTranName":"10kV武山村[吴家桥头]公变,","scope":"浙江省-杭州市-临安市-天目山镇-武山行政村吴家桥头一带","startTime":"2019-09-18 08:00:00","stopDate":"2019-09-18 15:30:00","orgNo":"3340160","typeCode":"计划停电","poweroffArea":"停35kV西天目变武山V299线吴家桥头支线武山村（吴家桥头）公变低压闸刀","poweroffReason":"线路改造","powerTime":"2019-09-18 15:21:22","powerComm":"已送电","subsNo":"","lineNo":"","tgNo":"","tgName":null,"infoStatus":"1","orgName":"国网浙江临安市供电公司","typeName":null,"infoStatusName":null,"dateDay":null,"orgNos":null,"nowTime":null,"countyName":null,"streetName":null,"villageName":null,"roadName":null,"communityName":null,"tranName":null,"sdLineName":null,"cityCode":"3340160","cityName":"国网浙江临安市供电公司","provinceCode":null,"stopTime":"2019-09-18 15:30:00","powerType":"全部","powerOffArea":"停35kV西天目变武山V299线吴家桥头支线武山村（吴家桥头）公变低压闸刀","powerOffReason":"线路改造","powerOffId":"2019090631020664"},{"poweroffId":2019090631020662,"sgpoweroffId":null,"subsName":"","lineName":"10kV建国V170线","pubTranName":"10kV周云村[里周万]公变,","scope":"浙江省-杭州市-临安市-天目山镇-周云村里周万一带","startTime":"2019-09-17 08:00:00","stopDate":"2019-09-17 14:30:00","orgNo":"3340160","typeCode":"计划停电","poweroffArea":"停35kV藻溪变建国V170线10kV周云村[里周万]公变低压闸刀","poweroffReason":"布点 原停电结束时间为2019-09-17 13:00:00,因现场工作未处理完成原因,现变更停电结束时间为2019-09-17 14:30:00","powerTime":"2019-09-17 14:20:09","powerComm":"已送电","subsNo":"","lineNo":"","tgNo":"","tgName":null,"infoStatus":"1","orgName":"国网浙江临安市供电公司","typeName":null,"infoStatusName":null,"dateDay":null,"orgNos":null,"nowTime":null,"countyName":null,"streetName":null,"villageName":null,"roadName":null,"communityName":null,"tranName":null,"sdLineName":null,"cityCode":"3340160","cityName":"国网浙江临安市供电公司","provinceCode":null,"stopTime":"2019-09-17 14:30:00","powerType":"全部","powerOffArea":"停35kV藻溪变建国V170线10kV周云村[里周万]公变低压闸刀","powerOffReason":"布点 原停电结束时间为2019-09-17 13:00:00,因现场工作未处理完成原因,现变更停电结束时间为2019-09-17 14:30:00","powerOffId":"2019090631020662"},{"poweroffId":2019090631020661,"sgpoweroffId":null,"subsName":"","lineName":"10kV上召V177线","pubTranName":"临安永丽线业有限公司,10kV桂芳桥村[桂芳二]公变,","scope":"浙江省-杭州市-临安市-天目山镇-桂芳桥行政村临安永丽线业有限公司,桂芳二一带","startTime":"2019-09-17 07:30:00","stopDate":"2019-09-17 13:30:00","orgNo":"3340160","typeCode":"计划停电","poweroffArea":"停35kV藻溪变上召V177线31#杆桂芳分线令克","poweroffReason":"增容 原停电结束时间为2019-09-17 12:20:00,因XXX原因,现变更停电结束时间为2019-09-17 13:30:00","powerTime":"2019-09-17 13:21:12","powerComm":"已送电","subsNo":"","lineNo":"","tgNo":"","tgName":null,"infoStatus":"1","orgName":"国网浙江临安市供电公司","typeName":null,"infoStatusName":null,"dateDay":null,"orgNos":null,"nowTime":null,"countyName":null,"streetName":null,"villageName":null,"roadName":null,"communityName":null,"tranName":null,"sdLineName":null,"cityCode":"3340160","cityName":"国网浙江临安市供电公司","provinceCode":null,"stopTime":"2019-09-17 13:30:00","powerType":"全部","powerOffArea":"停35kV藻溪变上召V177线31#杆桂芳分线令克","powerOffReason":"增容 原停电结束时间为2019-09-17 12:20:00,因XXX原因,现变更停电结束时间为2019-09-17 13:30:00","powerOffId":"2019090631020661"},{"poweroffId":2019090631020658,"sgpoweroffId":null,"subsName":"","lineName":"10kV大树D219线","pubTranName":"受降村7#大树下甘坑口里公变,","scope":"浙江省杭州市富阳区银湖街道受降村大树下甘坑口里村一带","startTime":"2019-09-16 07:30:00","stopDate":"2019-09-16 16:30:00","orgNo":"3340170","typeCode":"计划停电","poweroffArea":"110kV银湖变:大树D219线-受降村7#大树下甘坑口里公变低压开关后段","poweroffReason":"(低压停电信息)更换接户线30处，搭接等工作。（迎东2019年沈家坞9#里村口公变等低压台区改造工程）","powerTime":"2019-09-16 16:20:26","powerComm":"已送电","subsNo":"","lineNo":"","tgNo":"","tgName":null,"infoStatus":"1","orgName":"国网浙江杭州市富阳区供电公司","typeName":null,"infoStatusName":null,"dateDay":null,"orgNos":null,"nowTime":null,"countyName":null,"streetName":null,"villageName":null,"roadName":null,"communityName":null,"tranName":null,"sdLineName":null,"cityCode":"3340170","cityName":"国网浙江杭州市富阳区供电公司","provinceCode":null,"stopTime":"2019-09-16 16:30:00","powerType":"全部","powerOffArea":"110kV银湖变:大树D219线-受降村7#大树下甘坑口里公变低压开关后段","powerOffReason":"(低压停电信息)更换接户线30处，搭接等工作。（迎东2019年沈家坞9#里村口公变等低压台区改造工程）","powerOffId":"2019090631020658"}],"pageModel":{"pageNow":1141,"totalCount":17789,"totalPage":1779,"tableRows":0,"pageCount":10,"beginCount":11400},"isExperi":"1"}