{"message":"","today":"2020-06-16","seleList":[{"poweroffId":2019090631020496,"sgpoweroffId":null,"subsName":"","lineName":"10kV九堡T202线","pubTranName":"奚家坑1号公变,","scope":"浙江省-杭州市-桐庐县-横村镇-横村行政村-奚家坑自然村","startTime":"2019-09-16 07:00:00","stopDate":"2019-09-16 15:00:00","orgNo":"3340150","typeCode":"计划停电","poweroffArea":"110kV方埠变:九堡T202线-奚家F1613后段","poweroffReason":"杭州桐庐塘宝山等台区配变增容及线路改造工程","powerTime":"2019-09-16 14:46:08","powerComm":"全部送电","subsNo":"","lineNo":"","tgNo":"","tgName":null,"infoStatus":"1","orgName":"国网浙江桐庐县供电公司","typeName":null,"infoStatusName":null,"dateDay":null,"orgNos":null,"nowTime":null,"countyName":null,"streetName":null,"villageName":null,"roadName":null,"communityName":null,"tranName":null,"sdLineName":null,"cityCode":"3340150","cityName":"国网浙江桐庐县供电公司","provinceCode":null,"stopTime":"2019-09-16 15:00:00","powerType":"全部","powerOffArea":"110kV方埠变:九堡T202线-奚家F1613后段","powerOffReason":"杭州桐庐塘宝山等台区配变增容及线路改造工程","powerOffId":"2019090631020496"},{"poweroffId":2019090631020482,"sgpoweroffId":null,"subsName":"","lineName":"10kV华电8595线","pubTranName":"朝七(6),","scope":"浙江省-杭州市-下城区-朝晖街道-塘南社区-潮王路、朝晖七区35、36、37、38幢一带","startTime":"2019-09-06 14:32:57","stopDate":"2019-09-06 15:40:57","orgNo":"3340101","typeCode":"电网故障停限电","poweroffArea":"220kV霞湾变:华电8595线-朝七(6)后段","poweroffReason":"高压开关跳闸 原预计停电结束时间2019-09-06 20:32:57,由于施工现场环境比较复杂，存在不确定因素，因此预估施工时间适当放长了， 而实际施工进行得比较顺利，因此提前送电了","powerTime":"2019-09-06 15:06:02","powerComm":"已送电","subsNo":"","lineNo":"","tgNo":"","tgName":null,"infoStatus":"1","orgName":"浙江杭州电力客户服务中心","typeName":null,"infoStatusName":null,"dateDay":null,"orgNos":null,"nowTime":null,"countyName":null,"streetName":null,"villageName":null,"roadName":null,"communityName":null,"tranName":null,"sdLineName":null,"cityCode":"3340101","cityName":"浙江杭州电力客户服务中心","provinceCode":null,"stopTime":"2019-09-06 15:40:57","powerType":"全部","powerOffArea":"220kV霞湾变:华电8595线-朝七(6)后段","powerOffReason":"高压开关跳闸 原预计停电结束时间2019-09-06 20:32:57,由于施工现场环境比较复杂，存在不确定因素，因此预估施工时间适当放长了， 而实际施工进行得比较顺利，因此提前送电了","powerOffId":"2019090631020482"},{"poweroffId":2019090631020469,"sgpoweroffId":null,"subsName":"","lineName":"10kV横村9222线","pubTranName":"横塘(10-1)农,","scope":"浙江省杭州市江干区笕丁路东侧136-146号、横塘七区27号附近一带","startTime":"2019-09-18 09:30:00","stopDate":"2019-09-18 11:00:00","orgNo":"3340101","typeCode":"计划停电","poweroffArea":"110kV东风变:横村9222线-横塘(10-1)农后段","poweroffReason":"横塘(10-1)农整改二次回路更换终端。原停电结束时间为2019-09-18 12:30:00,为减少客户停电时间,加快工作进度,提前送电,现变更停电结束时间为2019-09-18 11:00:00","powerTime":"2019-09-18 10:26:59","powerComm":"已送电","subsNo":"","lineNo":"","tgNo":"","tgName":null,"infoStatus":"1","orgName":"浙江杭州电力客户服务中心","typeName":null,"infoStatusName":null,"dateDay":null,"orgNos":null,"nowTime":null,"countyName":null,"streetName":null,"villageName":null,"roadName":null,"communityName":null,"tranName":null,"sdLineName":null,"cityCode":"3340101","cityName":"浙江杭州电力客户服务中心","provinceCode":null,"stopTime":"2019-09-18 11:00:00","powerType":"全部","powerOffArea":"110kV东风变:横村9222线-横塘(10-1)农后段","powerOffReason":"横塘(10-1)农整改二次回路更换终端。原停电结束时间为2019-09-18 12:30:00,为减少客户停电时间,加快工作进度,提前送电,现变更停电结束时间为2019-09-18 11:00:00","powerOffId":"2019090631020469"},{"poweroffId":2019090631020467,"sgpoweroffId":null,"subsName":"","lineName":"10kV阳普166线","pubTranName":"桐庐顺风丝绸有限公司1号专变,桐庐垂云通天河旅游有限公司,杨家小学边6号公变,桐庐顺风丝绸有限公司,桐庐阳普永恒法兰制造厂,杨家麻车边3号公变,","scope":"浙江省-杭州市-桐庐县-瑶琳镇-东琳行政村-杨家自然村;瑶琳镇-东琳行政村(桐庐顺风丝绸有限公司,桐庐垂云通天河旅游有限公司,桐庐阳普永恒法兰制造厂)","startTime":"2019-09-17 07:30:00","stopDate":"2019-09-17 16:30:00","orgNo":"3340150","typeCode":"计划停电","poweroffArea":"35kV瑶琳变:阳普166线-垂云F6064开关后段","poweroffReason":"工程施工","powerTime":"2019-09-17 16:19:51","powerComm":"已送电。","subsNo":"","lineNo":"","tgNo":"","tgName":null,"infoStatus":"1","orgName":"国网浙江桐庐县供电公司","typeName":null,"infoStatusName":null,"dateDay":null,"orgNos":null,"nowTime":null,"countyName":null,"streetName":null,"villageName":null,"roadName":null,"communityName":null,"tranName":null,"sdLineName":null,"cityCode":"3340150","cityName":"国网浙江桐庐县供电公司","provinceCode":null,"stopTime":"2019-09-17 16:30:00","powerType":"全部","powerOffArea":"35kV瑶琳变:阳普166线-垂云F6064开关后段","powerOffReason":"工程施工","powerOffId":"2019090631020467"},{"poweroffId":2019090631020462,"sgpoweroffId":null,"subsName":"","lineName":"10kV恒达G640线","pubTranName":"肖家桥3号公变,","scope":"浙江省-杭州市-余杭区-东湖街道-桂芳桥社区-东大街","startTime":"2019-09-06 14:16:00","stopDate":"2019-09-06 17:16:00","orgNo":"3340140","typeCode":"电网故障停限电","poweroffArea":"110kV南苑变:恒达G640线-肖家桥3号公变后段","poweroffReason":"(低压停电信息)低压开关跳闸","powerTime":"2019-09-06 16:29:00","powerComm":"已送电","subsNo":"","lineNo":"","tgNo":"","tgName":null,"infoStatus":"1","orgName":"国网浙江杭州市余杭区供电有限公司","typeName":null,"infoStatusName":null,"dateDay":null,"orgNos":null,"nowTime":null,"countyName":null,"streetName":null,"villageName":null,"roadName":null,"communityName":null,"tranName":null,"sdLineName":null,"cityCode":"3340140","cityName":"国网浙江杭州市余杭区供电有限公司","provinceCode":null,"stopTime":"2019-09-06 17:16:00","powerType":"全部","powerOffArea":"110kV南苑变:恒达G640线-肖家桥3号公变后段","powerOffReason":"(低压停电信息)低压开关跳闸","powerOffId":"2019090631020462"},{"poweroffId":2019090631020459,"sgpoweroffId":null,"subsName":"","lineName":"10kV恒达G640线","pubTranName":"肖家桥2号公变,","scope":"浙江省-杭州市-余杭区-东湖街道-桂芳桥社区(史家埭路,朝阳东路,东大街,东湖中路)","startTime":"2019-09-06 14:13:00","stopDate":"2019-09-06 17:13:00","orgNo":"3340140","typeCode":"电网故障停限电","poweroffArea":"110kV南苑变:恒达G640线-肖家桥二号后段","poweroffReason":"(低压停电信息)低压开关跳闸","powerTime":"2019-09-06 16:29:00","powerComm":"已送电","subsNo":"","lineNo":"","tgNo":"","tgName":null,"infoStatus":"1","orgName":"国网浙江杭州市余杭区供电有限公司","typeName":null,"infoStatusName":null,"dateDay":null,"orgNos":null,"nowTime":null,"countyName":null,"streetName":null,"villageName":null,"roadName":null,"communityName":null,"tranName":null,"sdLineName":null,"cityCode":"3340140","cityName":"国网浙江杭州市余杭区供电有限公司","provinceCode":null,"stopTime":"2019-09-06 17:13:00","powerType":"全部","powerOffArea":"110kV南苑变:恒达G640线-肖家桥二号后段","powerOffReason":"(低压停电信息)低压开关跳闸","powerOffId":"2019090631020459"},{"poweroffId":2019090631020426,"sgpoweroffId":null,"subsName":"","lineName":"10kV昌东D701线","pubTranName":"昌东村众甫1#界牌岭公变,富阳市水务有限公司,","scope":"浙江省杭州市富阳区新登镇昌东村行政村众甫界牌岭自然村一带","startTime":"2019-09-20 08:30:00","stopDate":"2019-09-20 09:30:00","orgNo":"3340170","typeCode":"计划停电","poweroffArea":"110kV松溪变:昌东D701线166#杆后段（175#杆后段倒送）、上山D540线135#杆后段（144#杆后段倒送）","poweroffReason":"新登2019年10kV唐昌村唐昌4#小岭头公变等台区增容布点工程：昌东D701线173#杆界牌岭分线线路拆除等工作","powerTime":"2019-09-20 09:20:14","powerComm":"已送电","subsNo":"","lineNo":"","tgNo":"","tgName":null,"infoStatus":"1","orgName":"国网浙江杭州市富阳区供电公司","typeName":null,"infoStatusName":null,"dateDay":null,"orgNos":null,"nowTime":null,"countyName":null,"streetName":null,"villageName":null,"roadName":null,"communityName":null,"tranName":null,"sdLineName":null,"cityCode":"3340170","cityName":"国网浙江杭州市富阳区供电公司","provinceCode":null,"stopTime":"2019-09-20 09:30:00","powerType":"全部","powerOffArea":"110kV松溪变:昌东D701线166#杆后段（175#杆后段倒送）、上山D540线135#杆后段（144#杆后段倒送）","powerOffReason":"新登2019年10kV唐昌村唐昌4#小岭头公变等台区增容布点工程：昌东D701线173#杆界牌岭分线线路拆除等工作","powerOffId":"2019090631020426"},{"poweroffId":2019090631020421,"sgpoweroffId":null,"subsName":"","lineName":"10kV长盘D722线","pubTranName":"枫瑞村8#菖卜松家坞公变,","scope":"浙江省杭州市富阳区洞桥镇枫瑞行政村菖卜松家坞自然村一带","startTime":"2019-09-19 08:30:00","stopDate":"2019-09-19 13:30:00","orgNo":"3340170","typeCode":"计划停电","poweroffArea":"110kV松溪变:10KV长盘D722线287#杆长三联线61#杆菖蒲分线3#杆枫瑞村8#菖卜松家坞公变","poweroffReason":"10KV长盘D722线287#杆长三联线61#杆菖蒲分线3#杆枫瑞村8#菖卜松家坞公变、拆除进线电缆VLV-4*120一路、敷设出线电缆YJV-4*150二路","powerTime":"2019-09-19 12:48:13","powerComm":"已送电","subsNo":"","lineNo":"","tgNo":"","tgName":null,"infoStatus":"1","orgName":"国网浙江杭州市富阳区供电公司","typeName":null,"infoStatusName":null,"dateDay":null,"orgNos":null,"nowTime":null,"countyName":null,"streetName":null,"villageName":null,"roadName":null,"communityName":null,"tranName":null,"sdLineName":null,"cityCode":"3340170","cityName":"国网浙江杭州市富阳区供电公司","provinceCode":null,"stopTime":"2019-09-19 13:30:00","powerType":"全部","powerOffArea":"110kV松溪变:10KV长盘D722线287#杆长三联线61#杆菖蒲分线3#杆枫瑞村8#菖卜松家坞公变","powerOffReason":"10KV长盘D722线287#杆长三联线61#杆菖蒲分线3#杆枫瑞村8#菖卜松家坞公变、拆除进线电缆VLV-4*120一路、敷设出线电缆YJV-4*150二路","powerOffId":"2019090631020421"},{"poweroffId":2019090631020419,"sgpoweroffId":null,"subsName":"","lineName":"10kV彭家D342线","pubTranName":"晨虹化工,","scope":"浙江省杭州市富阳区万市镇富阳区晨虹化工包装制品厂、何家行政村朱坞里自然村一带","startTime":"2019-09-18 08:45:00","stopDate":"2019-09-18 16:45:00","orgNo":"3340170","typeCode":"计划停电","poweroffArea":"110kV万市变:富阳市晨虹化工包装制品厂","poweroffReason":"新登2019年10kV唐昌村唐昌4#小岭头公变等台区增容布点工程：渔洲分线105#杆、106#杆杆子更换；106#杆后段延伸架设导线、何家村6#朱坞里公变与何务村新增杆上变低压割接、低压电缆搭头等工作","powerTime":"2019-09-18 16:30:16","powerComm":"已送电","subsNo":"","lineNo":"","tgNo":"","tgName":null,"infoStatus":"1","orgName":"国网浙江杭州市富阳区供电公司","typeName":null,"infoStatusName":null,"dateDay":null,"orgNos":null,"nowTime":null,"countyName":null,"streetName":null,"villageName":null,"roadName":null,"communityName":null,"tranName":null,"sdLineName":null,"cityCode":"3340170","cityName":"国网浙江杭州市富阳区供电公司","provinceCode":null,"stopTime":"2019-09-18 16:45:00","powerType":"全部","powerOffArea":"110kV万市变:富阳市晨虹化工包装制品厂","powerOffReason":"新登2019年10kV唐昌村唐昌4#小岭头公变等台区增容布点工程：渔洲分线105#杆、106#杆杆子更换；106#杆后段延伸架设导线、何家村6#朱坞里公变与何务村新增杆上变低压割接、低压电缆搭头等工作","powerOffId":"2019090631020419"},{"poweroffId":2019090631020418,"sgpoweroffId":null,"subsName":"","lineName":"10kV牧场D723线","pubTranName":"乘庄村6#牧场公变,","scope":"浙江省杭州市富阳区新登镇乘庄行政村牧场自然村一带","startTime":"2019-09-17 09:00:00","stopDate":"2019-09-17 14:00:00","orgNo":"3340170","typeCode":"计划停电","poweroffArea":"110kV松溪变:10KV牧场D723线47#杆牧场分线4#杆乘庄村6#牧场公变","poweroffReason":"10KV牧场D723线47#杆牧场分线4#杆乘庄村6#牧场公变照明01线、照明02线、照明03线拆除进线电缆YJV-4*150一路、敷设进线电缆YJV-4*240一路、更换配电屏、拆除出线电缆VLV-4*120三路、敷设出线电缆YJV-4*150三路","powerTime":"2019-09-17 13:30:37","powerComm":"已送电","subsNo":"","lineNo":"","tgNo":"","tgName":null,"infoStatus":"1","orgName":"国网浙江杭州市富阳区供电公司","typeName":null,"infoStatusName":null,"dateDay":null,"orgNos":null,"nowTime":null,"countyName":null,"streetName":null,"villageName":null,"roadName":null,"communityName":null,"tranName":null,"sdLineName":null,"cityCode":"3340170","cityName":"国网浙江杭州市富阳区供电公司","provinceCode":null,"stopTime":"2019-09-17 14:00:00","powerType":"全部","powerOffArea":"110kV松溪变:10KV牧场D723线47#杆牧场分线4#杆乘庄村6#牧场公变","powerOffReason":"10KV牧场D723线47#杆牧场分线4#杆乘庄村6#牧场公变照明01线、照明02线、照明03线拆除进线电缆YJV-4*150一路、敷设进线电缆YJV-4*240一路、更换配电屏、拆除出线电缆VLV-4*120三路、敷设出线电缆YJV-4*150三路","powerOffId":"2019090631020418"}],"pageModel":{"pageNow":1144,"totalCount":17789,"totalPage":1779,"tableRows":0,"pageCount":10,"beginCount":11430},"isExperi":"1"}