{"message":"","today":"2020-06-16","seleList":[{"poweroffId":2019090631020417,"sgpoweroffId":null,"subsName":"","lineName":"10kV南津D138线","pubTranName":"双庙村7#徐家汪家岭公变,","scope":"浙江省杭州市富阳区新登镇双庙行政村徐家汪家岭自然村一带","startTime":"2019-09-16 09:20:00","stopDate":"2019-09-16 14:30:00","orgNo":"3340170","typeCode":"计划停电","poweroffArea":"110kV新登变:10KV南津D138线115#杆汪家分线2#杆双庙村7#徐家汪家岭公变","poweroffReason":"10KV南津D138线115#杆汪家分线2#杆双庙村7#徐家汪家岭公变照明01线、农用03线拆装进线电缆头一组、拆除出线电缆二路，原停电开始时间为2019-09-16 09:30:00，因政策原因变更至2019-09-16 09:20:00","powerTime":"2019-09-16 14:20:11","powerComm":"已送电","subsNo":"","lineNo":"","tgNo":"","tgName":null,"infoStatus":"1","orgName":"国网浙江杭州市富阳区供电公司","typeName":null,"infoStatusName":null,"dateDay":null,"orgNos":null,"nowTime":null,"countyName":null,"streetName":null,"villageName":null,"roadName":null,"communityName":null,"tranName":null,"sdLineName":null,"cityCode":"3340170","cityName":"国网浙江杭州市富阳区供电公司","provinceCode":null,"stopTime":"2019-09-16 14:30:00","powerType":"全部","powerOffArea":"110kV新登变:10KV南津D138线115#杆汪家分线2#杆双庙村7#徐家汪家岭公变","powerOffReason":"10KV南津D138线115#杆汪家分线2#杆双庙村7#徐家汪家岭公变照明01线、农用03线拆装进线电缆头一组、拆除出线电缆二路，原停电开始时间为2019-09-16 09:30:00，因政策原因变更至2019-09-16 09:20:00","powerOffId":"2019090631020417"},{"poweroffId":2019090631020408,"sgpoweroffId":null,"subsName":"","lineName":"10kV昌东D701线","pubTranName":"昌东村众甫1#界牌岭公变,","scope":"浙江省杭州市富阳区新登镇昌东行政村界牌岭自然村一带","startTime":"2019-09-20 07:20:00","stopDate":"2019-09-20 15:30:00","orgNo":"3340170","typeCode":"计划停电","poweroffArea":"110kV松溪变:昌东D701线-昌东村众甫1#界牌岭公变低压开关后段","poweroffReason":"(低压停电信息)照明01线、照明02线拆除出线电缆VLV-4*120二路、敷设出线电缆YJV-4*150二路、安装杆上表计2只、安装表箱电缆YJV-4*95*20米、架设BS-JKLYJ-4*35*4档","powerTime":"2019-09-20 15:20:07","powerComm":"已送电","subsNo":"","lineNo":"","tgNo":"","tgName":null,"infoStatus":"1","orgName":"国网浙江杭州市富阳区供电公司","typeName":null,"infoStatusName":null,"dateDay":null,"orgNos":null,"nowTime":null,"countyName":null,"streetName":null,"villageName":null,"roadName":null,"communityName":null,"tranName":null,"sdLineName":null,"cityCode":"3340170","cityName":"国网浙江杭州市富阳区供电公司","provinceCode":null,"stopTime":"2019-09-20 15:30:00","powerType":"全部","powerOffArea":"110kV松溪变:昌东D701线-昌东村众甫1#界牌岭公变低压开关后段","powerOffReason":"(低压停电信息)照明01线、照明02线拆除出线电缆VLV-4*120二路、敷设出线电缆YJV-4*150二路、安装杆上表计2只、安装表箱电缆YJV-4*95*20米、架设BS-JKLYJ-4*35*4档","powerOffId":"2019090631020408"},{"poweroffId":2019090631020405,"sgpoweroffId":null,"subsName":"","lineName":"10kV何家D717线","pubTranName":"包秦村包秦1#王家公变,","scope":"浙江省杭州市富阳区永昌镇包秦行政村王家自然村一带","startTime":"2019-09-17 08:00:00","stopDate":"2019-09-17 16:50:00","orgNo":"3340170","typeCode":"计划停电","poweroffArea":"110kV松溪变:何家D717线-包秦村包秦1#王家公变低压开关后段","poweroffReason":"(低压停电信息)照明03线人工运杆15米5支、吊车立杆15米5支10米1支、人工挖洞等工作。（旁站监理)","powerTime":"2019-09-17 16:23:42","powerComm":"已送电","subsNo":"","lineNo":"","tgNo":"","tgName":null,"infoStatus":"1","orgName":"国网浙江杭州市富阳区供电公司","typeName":null,"infoStatusName":null,"dateDay":null,"orgNos":null,"nowTime":null,"countyName":null,"streetName":null,"villageName":null,"roadName":null,"communityName":null,"tranName":null,"sdLineName":null,"cityCode":"3340170","cityName":"国网浙江杭州市富阳区供电公司","provinceCode":null,"stopTime":"2019-09-17 16:50:00","powerType":"全部","powerOffArea":"110kV松溪变:何家D717线-包秦村包秦1#王家公变低压开关后段","powerOffReason":"(低压停电信息)照明03线人工运杆15米5支、吊车立杆15米5支10米1支、人工挖洞等工作。（旁站监理)","powerOffId":"2019090631020405"},{"poweroffId":2019090631020400,"sgpoweroffId":null,"subsName":"","lineName":"10kV电池6401线","pubTranName":"建宿(4),川味,建宿(3),建宿(5),建宿(2),","scope":"浙江省杭州市西湖区建工新村附近一带，莫干山路347号附近一带","startTime":"2019-09-16 09:30:00","stopDate":"2019-09-16 11:00:00","orgNo":"3340101","typeCode":"计划停电","poweroffArea":"110kV武林变:电池6401线-川站分线后段","poweroffReason":"川味站川站分线、建宿2分线站内电缆头消缺。原停电结束时间为2019-09-16 12:30:00,为减少客户停电时间,加快工作进度,提前送电,现变更停电结束时间为2019-09-16 11:00:00","powerTime":"2019-09-16 10:20:59","powerComm":"已送电","subsNo":"","lineNo":"","tgNo":"","tgName":null,"infoStatus":"1","orgName":"浙江杭州电力客户服务中心","typeName":null,"infoStatusName":null,"dateDay":null,"orgNos":null,"nowTime":null,"countyName":null,"streetName":null,"villageName":null,"roadName":null,"communityName":null,"tranName":null,"sdLineName":null,"cityCode":"3340101","cityName":"浙江杭州电力客户服务中心","provinceCode":null,"stopTime":"2019-09-16 11:00:00","powerType":"全部","powerOffArea":"110kV武林变:电池6401线-川站分线后段","powerOffReason":"川味站川站分线、建宿2分线站内电缆头消缺。原停电结束时间为2019-09-16 12:30:00,为减少客户停电时间,加快工作进度,提前送电,现变更停电结束时间为2019-09-16 11:00:00","powerOffId":"2019090631020400"},{"poweroffId":2019090631020383,"sgpoweroffId":null,"subsName":"","lineName":"10kV院士T440线","pubTranName":"南门苑1号公变,","scope":"浙江省-杭州市-桐庐县-分水镇-武盛行政村(市达路230号一带)","startTime":"2019-09-06 12:58:52","stopDate":"2019-09-06 15:00:52","orgNo":"3340150","typeCode":"电网故障停限电","poweroffArea":"110kV天英变:院士T440线-南门苑1号公变后段","poweroffReason":"高压开关跳闸","powerTime":"2019-09-06 14:50:29","powerComm":"已送电。","subsNo":"","lineNo":"","tgNo":"","tgName":null,"infoStatus":"1","orgName":"国网浙江桐庐县供电公司","typeName":null,"infoStatusName":null,"dateDay":null,"orgNos":null,"nowTime":null,"countyName":null,"streetName":null,"villageName":null,"roadName":null,"communityName":null,"tranName":null,"sdLineName":null,"cityCode":"3340150","cityName":"国网浙江桐庐县供电公司","provinceCode":null,"stopTime":"2019-09-06 15:00:52","powerType":"全部","powerOffArea":"110kV天英变:院士T440线-南门苑1号公变后段","powerOffReason":"高压开关跳闸","powerOffId":"2019090631020383"},{"poweroffId":2019090631020373,"sgpoweroffId":null,"subsName":"","lineName":"10kV横山V381线","pubTranName":"钱锦花园小区9#公变,钱锦花园小区7#公变,钱锦花园小区3#公变,钱锦花园小区5#公变,钱锦花园小区1#公变,","scope":"浙江省杭州市临安区锦城街道钱锦花园小区一带","startTime":"2019-09-17 08:00:00","stopDate":"2019-09-17 11:00:00","orgNo":"3340160","typeCode":"计划停电","poweroffArea":"35kV渔村变:横山V381线-钱锦花园开闭所分线后段","poweroffReason":"线路割接","powerTime":"2019-09-17 10:50:39","powerComm":"已送电","subsNo":"","lineNo":"","tgNo":"","tgName":null,"infoStatus":"1","orgName":"国网浙江临安市供电公司","typeName":null,"infoStatusName":null,"dateDay":null,"orgNos":null,"nowTime":null,"countyName":null,"streetName":null,"villageName":null,"roadName":null,"communityName":null,"tranName":null,"sdLineName":null,"cityCode":"3340160","cityName":"国网浙江临安市供电公司","provinceCode":null,"stopTime":"2019-09-17 11:00:00","powerType":"全部","powerOffArea":"35kV渔村变:横山V381线-钱锦花园开闭所分线后段","powerOffReason":"线路割接","powerOffId":"2019090631020373"},{"poweroffId":2019090631020372,"sgpoweroffId":null,"subsName":"","lineName":"10kV柯家V330线","pubTranName":"杭州市临安区交通投资发展有限公司,柯家村[沙畈]公变,杭州市临安区新锦投资开发有限公司1#,","scope":"浙江省杭州市临安区锦南街道柯家行政村沙畈自然村，杭州市临安区交通投资发展有限公司，杭州市临安区新锦投资集团有限公司一带","startTime":"2019-09-16 08:00:00","stopDate":"2019-09-16 10:30:00","orgNo":"3340160","typeCode":"计划停电","poweroffArea":"110kV锦南变:柯家V330线-公路段轧石厂分线06#后段","poweroffReason":"线路拆除","powerTime":"2019-09-16 10:05:57","powerComm":"已送电","subsNo":"","lineNo":"","tgNo":"","tgName":null,"infoStatus":"1","orgName":"国网浙江临安市供电公司","typeName":null,"infoStatusName":null,"dateDay":null,"orgNos":null,"nowTime":null,"countyName":null,"streetName":null,"villageName":null,"roadName":null,"communityName":null,"tranName":null,"sdLineName":null,"cityCode":"3340160","cityName":"国网浙江临安市供电公司","provinceCode":null,"stopTime":"2019-09-16 10:30:00","powerType":"全部","powerOffArea":"110kV锦南变:柯家V330线-公路段轧石厂分线06#后段","powerOffReason":"线路拆除","powerOffId":"2019090631020372"},{"poweroffId":2019090631020371,"sgpoweroffId":null,"subsName":"","lineName":"10kV许家H410线","pubTranName":"收费站,良塘公路公变,良渚村鱼桥头公变,良渚村钱粮村公变,东美展览,良渚职高基建1＃,凯迪纺织,良渚村县桥头2号公变,仰家塘村干家塘公变,东西大道3#路灯变,中国电信,良渚村茅庵村公变,良渚村闻家塘公变,良渚村谢安舍公变,新思路金属,良渚村仰家塘公变,良渚村李家塘公变,沈良路1#路灯变,3#,新源畜禽2,良渚村鱼桥头2号公变,农夫乐园2#,农夫乐园1#,良渚村许家塘2号公变,良渚村烘丁桥2号公变,良渚村姚家塘公变,良渚村县桥头公变,1#,纤石土石方,良渚村白池圩公变,良渚村仰家塘2号公变,良渚村殷家桥公变,德雅包装,良渚村荀山塔下公变,浙江诺里亚投资管理股份有限公司,和顺服装,良渚村烘丁桥公变,德雅包装,良渚村许家塘公变,良渚塑胶2,良渚村吴家塘公变,良渚塑胶1,新源畜禽1,","scope":"浙江省-杭州市-余杭区-仁和街道-獐山社区-东西大道,良渚街道-良渚行政村(吴家埭自然村,良渚自然村,仰家塘自然村,良渚路,良塘公路,玉琮路),良渚街道-石桥行政村(朱家荡自然村,石桥自然村),良渚街道-施家湾社区(东方路,外环路,玉琮路,良渚支路,良塘路,良博路,良塘公路,荀山自然村,良渚路,水口头自然村),良渚街道(荀山行政村-荀山自然村,铭雅社区-古墩路,西塘河行政村-丁公自然村,良渚文化村社区-风情大道,杜甫行政村-杜甫自然村,良港行政村-良渚路,棕榈湾社区-玉琮路);良渚街道-金家渡行政村(杭州良渚塑胶有限责任公司,杭州市余杭区人民政府良渚街道办事处),良渚街道-良渚行政村(杭州市余杭区公路养护与应急保障中心,杭州陆兴汽车有限公司,中国电信股份有限公司杭州余杭区分公司,杭州良渚服饰有限公司,杭州凯迪纺织制品有限公司,杭州良成电子科技有限公司,杭州市余杭区良渚荀梓幼儿园,杭州三祺酒店管理有限公司,杭州新源畜禽开发有限公司,杭州市余杭区良渚镇人民政府,良渚镇人民政府),良渚街道(勾庄行政村-杭州良渚塑胶有限责任公司,新港行政村-杭州余杭城西净水有限公司)","startTime":"2019-09-06 12:40:31","stopDate":"2019-09-06 15:30:00","orgNo":"3340140","typeCode":"电网故障停限电","poweroffArea":"35kV良渚变:许家H410线","poweroffReason":"高压开关跳闸","powerTime":"2019-09-06 14:45:00","powerComm":"已送电","subsNo":"","lineNo":"","tgNo":"","tgName":null,"infoStatus":"1","orgName":"国网浙江杭州市余杭区供电有限公司","typeName":null,"infoStatusName":null,"dateDay":null,"orgNos":null,"nowTime":null,"countyName":null,"streetName":null,"villageName":null,"roadName":null,"communityName":null,"tranName":null,"sdLineName":null,"cityCode":"3340140","cityName":"国网浙江杭州市余杭区供电有限公司","provinceCode":null,"stopTime":"2019-09-06 15:30:00","powerType":"全部","powerOffArea":"35kV良渚变:许家H410线","powerOffReason":"高压开关跳闸","powerOffId":"2019090631020371"},{"poweroffId":2019090631020352,"sgpoweroffId":null,"subsName":"","lineName":"10kV新华D320线","pubTranName":"游乐园1#变,","scope":"浙江省-杭州市-富阳区-东洲街道-新沙行政村-杭州新沙岛旅游开发有限公司一带","startTime":"2019-09-17 06:00:00","stopDate":"2019-09-17 16:30:00","orgNo":"3340170","typeCode":"计划停电","poweroffArea":"110kV建设变:新华D320线-新沙旅游开发支线跌落式熔断器后段;","poweroffReason":"用户内部消缺配合停电","powerTime":"2019-09-17 16:10:59","powerComm":"已送电","subsNo":"","lineNo":"","tgNo":"","tgName":null,"infoStatus":"1","orgName":"国网浙江杭州市富阳区供电公司","typeName":null,"infoStatusName":null,"dateDay":null,"orgNos":null,"nowTime":null,"countyName":null,"streetName":null,"villageName":null,"roadName":null,"communityName":null,"tranName":null,"sdLineName":null,"cityCode":"3340170","cityName":"国网浙江杭州市富阳区供电公司","provinceCode":null,"stopTime":"2019-09-17 16:30:00","powerType":"全部","powerOffArea":"110kV建设变:新华D320线-新沙旅游开发支线跌落式熔断器后段;","powerOffReason":"用户内部消缺配合停电","powerOffId":"2019090631020352"},{"poweroffId":2019090631020350,"sgpoweroffId":null,"subsName":"","lineName":"10kV新华D320线","pubTranName":"杭州新沙岛旅游开发有限公司,","scope":"浙江省-杭州市-富阳区-东洲街道-新沙行政村-杭州新沙岛旅游开发有限公司一带","startTime":"2019-09-17 05:20:00","stopDate":"2019-09-17 16:30:00","orgNo":"3340170","typeCode":"计划停电","poweroffArea":"110kV建设变:新华D320线-杭州新沙岛旅游开发有限公司站内熔断器后段","poweroffReason":"配合用户内部检修","powerTime":"2019-09-17 16:07:56","powerComm":"已送电","subsNo":"","lineNo":"","tgNo":"","tgName":null,"infoStatus":"1","orgName":"国网浙江杭州市富阳区供电公司","typeName":null,"infoStatusName":null,"dateDay":null,"orgNos":null,"nowTime":null,"countyName":null,"streetName":null,"villageName":null,"roadName":null,"communityName":null,"tranName":null,"sdLineName":null,"cityCode":"3340170","cityName":"国网浙江杭州市富阳区供电公司","provinceCode":null,"stopTime":"2019-09-17 16:30:00","powerType":"全部","powerOffArea":"110kV建设变:新华D320线-杭州新沙岛旅游开发有限公司站内熔断器后段","powerOffReason":"配合用户内部检修","powerOffId":"2019090631020350"}],"pageModel":{"pageNow":1145,"totalCount":17789,"totalPage":1779,"tableRows":0,"pageCount":10,"beginCount":11440},"isExperi":"1"}