{"message":"","today":"2020-06-16","seleList":[{"poweroffId":2019090631020345,"sgpoweroffId":null,"subsName":"","lineName":"10kV新华D320线","pubTranName":"小沙农用变,","scope":"浙江省-杭州市-富阳区-东洲街道-新沙行政村-小沙村一带","startTime":"2019-09-17 05:40:00","stopDate":"2019-09-17 16:30:00","orgNo":"3340170","typeCode":"计划停电","poweroffArea":"110kV建设变:新华D320线-新沙农用支线开关后段","poweroffReason":"停电配合用户内部消缺","powerTime":"2019-09-17 16:10:44","powerComm":"已送电","subsNo":"","lineNo":"","tgNo":"","tgName":null,"infoStatus":"1","orgName":"国网浙江杭州市富阳区供电公司","typeName":null,"infoStatusName":null,"dateDay":null,"orgNos":null,"nowTime":null,"countyName":null,"streetName":null,"villageName":null,"roadName":null,"communityName":null,"tranName":null,"sdLineName":null,"cityCode":"3340170","cityName":"国网浙江杭州市富阳区供电公司","provinceCode":null,"stopTime":"2019-09-17 16:30:00","powerType":"全部","powerOffArea":"110kV建设变:新华D320线-新沙农用支线开关后段","powerOffReason":"停电配合用户内部消缺","powerOffId":"2019090631020345"},{"poweroffId":2019090631020344,"sgpoweroffId":null,"subsName":"","lineName":"10kV城镇D166线","pubTranName":"大源镇14#朝阳路公变,","scope":"浙江省-杭州市-富阳区-大源镇(大源行政村-永庆自然村,亭山行政村-东升自然村)一带","startTime":"2019-09-16 08:40:00","stopDate":"2019-09-16 16:40:00","orgNo":"3340170","typeCode":"计划停电","poweroffArea":"110kV大源变:城镇D166线-大源镇14#朝阳路公变跌落式熔断器后段","poweroffReason":"江南2019年山建村5#新区公变等台区低压线路改造工程：大源镇14#朝阳路公变：更换JP柜1组、拆装出线电缆2根、拆装进线电缆1根、拆旧、架线、表计安装、接户线搭接等工作","powerTime":"2019-09-16 16:30:08","powerComm":"已送电","subsNo":"","lineNo":"","tgNo":"","tgName":null,"infoStatus":"1","orgName":"国网浙江杭州市富阳区供电公司","typeName":null,"infoStatusName":null,"dateDay":null,"orgNos":null,"nowTime":null,"countyName":null,"streetName":null,"villageName":null,"roadName":null,"communityName":null,"tranName":null,"sdLineName":null,"cityCode":"3340170","cityName":"国网浙江杭州市富阳区供电公司","provinceCode":null,"stopTime":"2019-09-16 16:40:00","powerType":"全部","powerOffArea":"110kV大源变:城镇D166线-大源镇14#朝阳路公变跌落式熔断器后段","powerOffReason":"江南2019年山建村5#新区公变等台区低压线路改造工程：大源镇14#朝阳路公变：更换JP柜1组、拆装出线电缆2根、拆装进线电缆1根、拆旧、架线、表计安装、接户线搭接等工作","powerOffId":"2019090631020344"},{"poweroffId":2019090631020343,"sgpoweroffId":null,"subsName":"","lineName":"10kV桐洲D842线","pubTranName":"俞家村4号江边公变,","scope":"浙江省-杭州市-富阳区-新桐乡-俞家行政村-俞家自然村","startTime":"2019-09-21 07:10:00","stopDate":"2019-09-21 16:50:00","orgNo":"3340170","typeCode":"计划停电","poweroffArea":"110kV新桐变:桐洲D842线-俞家村4号江边公变后段","poweroffReason":"(低压停电信息)青云2019年蒋家村12#林场公变等低压台区改造工程照明2#线更换落户线和表箱15处，搭接等工作","powerTime":"2019-09-21 16:40:16","powerComm":"已送电","subsNo":"","lineNo":"","tgNo":"","tgName":null,"infoStatus":"1","orgName":"国网浙江杭州市富阳区供电公司","typeName":null,"infoStatusName":null,"dateDay":null,"orgNos":null,"nowTime":null,"countyName":null,"streetName":null,"villageName":null,"roadName":null,"communityName":null,"tranName":null,"sdLineName":null,"cityCode":"3340170","cityName":"国网浙江杭州市富阳区供电公司","provinceCode":null,"stopTime":"2019-09-21 16:50:00","powerType":"全部","powerOffArea":"110kV新桐变:桐洲D842线-俞家村4号江边公变后段","powerOffReason":"(低压停电信息)青云2019年蒋家村12#林场公变等低压台区改造工程照明2#线更换落户线和表箱15处，搭接等工作","powerOffId":"2019090631020343"},{"poweroffId":2019090631020341,"sgpoweroffId":null,"subsName":"","lineName":"10kV咸康D208线","pubTranName":"徐家坞3号徐家坞公变,","scope":"浙江省-杭州市-富阳区-春建乡-徐家坞行政村-徐家坞自然村","startTime":"2019-09-17 08:30:00","stopDate":"2019-09-17 17:10:00","orgNo":"3340170","typeCode":"计划停电","poweroffArea":"35kV大青变:咸康D208线-徐家坞3号徐家坞后段","poweroffReason":"(低压停电信息)春建乡徐家坞村股份经济合作社0.4kV线路移位工程挖机立杆2支、新架导线2档导线移位、按装横担拉线拆旧等工","powerTime":"2019-09-17 16:37:46","powerComm":"已送电","subsNo":"","lineNo":"","tgNo":"","tgName":null,"infoStatus":"1","orgName":"国网浙江杭州市富阳区供电公司","typeName":null,"infoStatusName":null,"dateDay":null,"orgNos":null,"nowTime":null,"countyName":null,"streetName":null,"villageName":null,"roadName":null,"communityName":null,"tranName":null,"sdLineName":null,"cityCode":"3340170","cityName":"国网浙江杭州市富阳区供电公司","provinceCode":null,"stopTime":"2019-09-17 17:10:00","powerType":"全部","powerOffArea":"35kV大青变:咸康D208线-徐家坞3号徐家坞后段","powerOffReason":"(低压停电信息)春建乡徐家坞村股份经济合作社0.4kV线路移位工程挖机立杆2支、新架导线2档导线移位、按装横担拉线拆旧等工","powerOffId":"2019090631020341"},{"poweroffId":2019090631020340,"sgpoweroffId":null,"subsName":"","lineName":"10kV桐洲D842线","pubTranName":"董赵村1号村南公变,","scope":"浙江省-杭州市-富阳区-新桐乡(江洲行政村-董赵自然村,新中行政村-庙坞口自然村)","startTime":"2019-09-17 07:10:00","stopDate":"2019-09-17 16:50:00","orgNo":"3340170","typeCode":"计划停电","poweroffArea":"110kV新桐变:桐洲D842线-董赵村1号村南公变后段","poweroffReason":"(低压停电信息)青云2019年蒋家村12#林场公变等低压台区改造工程照明2#线拆旧，架设1kV120*4*4挡，拆架1kV120*4*3挡，架设BS-4*35*3档，更换落户线和表箱15处，搭接等工作","powerTime":"2019-09-17 16:23:03","powerComm":"已送电","subsNo":"","lineNo":"","tgNo":"","tgName":null,"infoStatus":"1","orgName":"国网浙江杭州市富阳区供电公司","typeName":null,"infoStatusName":null,"dateDay":null,"orgNos":null,"nowTime":null,"countyName":null,"streetName":null,"villageName":null,"roadName":null,"communityName":null,"tranName":null,"sdLineName":null,"cityCode":"3340170","cityName":"国网浙江杭州市富阳区供电公司","provinceCode":null,"stopTime":"2019-09-17 16:50:00","powerType":"全部","powerOffArea":"110kV新桐变:桐洲D842线-董赵村1号村南公变后段","powerOffReason":"(低压停电信息)青云2019年蒋家村12#林场公变等低压台区改造工程照明2#线拆旧，架设1kV120*4*4挡，拆架1kV120*4*3挡，架设BS-4*35*3档，更换落户线和表箱15处，搭接等工作","powerOffId":"2019090631020340"},{"poweroffId":2019090631020338,"sgpoweroffId":null,"subsName":"","lineName":"10kV桐洲D842线","pubTranName":"董赵村1号村南公变,","scope":"浙江省-杭州市-富阳区-新桐乡(江洲行政村-董赵自然村,新中行政村-庙坞口自然村)","startTime":"2019-09-16 07:10:00","stopDate":"2019-09-16 16:50:00","orgNo":"3340170","typeCode":"计划停电","poweroffArea":"110kV新桐变:桐洲D842线-董赵村1号村南公变后段","poweroffReason":"(低压停电信息)青云2019年蒋家村12#林场公变等低压台区改造工程照明1#线拆旧，架设1kV120*4*4挡，更换落户线和表箱15处，搭接等工作","powerTime":"2019-09-16 16:40:08","powerComm":"已送电","subsNo":"","lineNo":"","tgNo":"","tgName":null,"infoStatus":"1","orgName":"国网浙江杭州市富阳区供电公司","typeName":null,"infoStatusName":null,"dateDay":null,"orgNos":null,"nowTime":null,"countyName":null,"streetName":null,"villageName":null,"roadName":null,"communityName":null,"tranName":null,"sdLineName":null,"cityCode":"3340170","cityName":"国网浙江杭州市富阳区供电公司","provinceCode":null,"stopTime":"2019-09-16 16:50:00","powerType":"全部","powerOffArea":"110kV新桐变:桐洲D842线-董赵村1号村南公变后段","powerOffReason":"(低压停电信息)青云2019年蒋家村12#林场公变等低压台区改造工程照明1#线拆旧，架设1kV120*4*4挡，更换落户线和表箱15处，搭接等工作","powerOffId":"2019090631020338"},{"poweroffId":2019090631020337,"sgpoweroffId":null,"subsName":"","lineName":"10kV大兴D513线","pubTranName":"安禾村1号安一公变,","scope":"浙江省杭州市富阳区常安镇安一村一带","startTime":"2019-09-16 08:30:00","stopDate":"2019-09-16 16:10:00","orgNo":"3340170","typeCode":"计划停电","poweroffArea":"110kV常安变:大兴D513线-安禾村1号安一公变低压开关后段","poweroffReason":"(低压停电信息)拆旧、线路改接、接户线改接等工作","powerTime":"2019-09-16 16:00:24","powerComm":"已送电","subsNo":"","lineNo":"","tgNo":"","tgName":null,"infoStatus":"1","orgName":"国网浙江杭州市富阳区供电公司","typeName":null,"infoStatusName":null,"dateDay":null,"orgNos":null,"nowTime":null,"countyName":null,"streetName":null,"villageName":null,"roadName":null,"communityName":null,"tranName":null,"sdLineName":null,"cityCode":"3340170","cityName":"国网浙江杭州市富阳区供电公司","provinceCode":null,"stopTime":"2019-09-16 16:10:00","powerType":"全部","powerOffArea":"110kV常安变:大兴D513线-安禾村1号安一公变低压开关后段","powerOffReason":"(低压停电信息)拆旧、线路改接、接户线改接等工作","powerOffId":"2019090631020337"},{"poweroffId":2019090631020336,"sgpoweroffId":null,"subsName":"","lineName":"10kV芦茨T196线","pubTranName":"长洲1号公变,富春江旅游公司（水厂）,杭州桐庐严子陵水电有限公司变压器,杭州桐庐严子陵水电有限公司白云源坝后电站,石笋1号公变,","scope":"浙江省-杭州市-桐庐县-富春江镇-石舍行政村(长州自然村,石笋自然村);富春江镇-石舍行政村(桐庐长洲源饮用水有限公司,杭州桐庐严子陵水电有限公司)","startTime":"2019-09-06 11:18:47","stopDate":"2019-09-06 14:18:47","orgNo":"3340150","typeCode":"电网故障停限电","poweroffArea":"110kV外董变:芦茨T196线-石舍1968开关后段","poweroffReason":"高压开关跳闸","powerTime":"2019-09-06 14:00:25","powerComm":"已送电","subsNo":"","lineNo":"","tgNo":"","tgName":null,"infoStatus":"1","orgName":"国网浙江桐庐县供电公司","typeName":null,"infoStatusName":null,"dateDay":null,"orgNos":null,"nowTime":null,"countyName":null,"streetName":null,"villageName":null,"roadName":null,"communityName":null,"tranName":null,"sdLineName":null,"cityCode":"3340150","cityName":"国网浙江桐庐县供电公司","provinceCode":null,"stopTime":"2019-09-06 14:18:47","powerType":"全部","powerOffArea":"110kV外董变:芦茨T196线-石舍1968开关后段","powerOffReason":"高压开关跳闸","powerOffId":"2019090631020336"},{"poweroffId":2019090631020335,"sgpoweroffId":null,"subsName":"","lineName":"10kV沪瑞D620线","pubTranName":"东梓村5号屠家公变,","scope":"浙江省杭州市富阳区场口镇东梓行政村屠家自然村一带","startTime":"2019-09-16 08:40:00","stopDate":"2019-09-16 16:10:00","orgNo":"3340170","typeCode":"计划停电","poweroffArea":"110kV鸿丰变:沪瑞D620线-东梓村5号屠家公变低压出线后段","poweroffReason":"(低压停电信息)更换出线电缆2路、杆上搭接等工作","powerTime":"2019-09-16 16:00:07","powerComm":"已送电","subsNo":"","lineNo":"","tgNo":"","tgName":null,"infoStatus":"1","orgName":"国网浙江杭州市富阳区供电公司","typeName":null,"infoStatusName":null,"dateDay":null,"orgNos":null,"nowTime":null,"countyName":null,"streetName":null,"villageName":null,"roadName":null,"communityName":null,"tranName":null,"sdLineName":null,"cityCode":"3340170","cityName":"国网浙江杭州市富阳区供电公司","provinceCode":null,"stopTime":"2019-09-16 16:10:00","powerType":"全部","powerOffArea":"110kV鸿丰变:沪瑞D620线-东梓村5号屠家公变低压出线后段","powerOffReason":"(低压停电信息)更换出线电缆2路、杆上搭接等工作","powerOffId":"2019090631020335"},{"poweroffId":2019090631020334,"sgpoweroffId":null,"subsName":"","lineName":"10kV洲际9345线","pubTranName":"阳台2,","scope":"浙江省杭州市江干区城市阳台附近一带","startTime":"2019-09-19 09:30:00","stopDate":"2019-09-19 16:00:00","orgNo":"3340101","typeCode":"计划停电","poweroffArea":"110kV市民变:洲际9345线-阳台二线后段","poweroffReason":"(低压停电信息)杭州市钱江新城建设指挥部，展览馆用电需要增容 原停电结束时间为17:00:00,为减少客户停电时间,加快工作进度,提前送电,现变更停电结束时间为16:00:00","powerTime":"2019-09-19 15:25:59","powerComm":"已送电","subsNo":"","lineNo":"","tgNo":"","tgName":null,"infoStatus":"1","orgName":"浙江杭州电力客户服务中心","typeName":null,"infoStatusName":null,"dateDay":null,"orgNos":null,"nowTime":null,"countyName":null,"streetName":null,"villageName":null,"roadName":null,"communityName":null,"tranName":null,"sdLineName":null,"cityCode":"3340101","cityName":"浙江杭州电力客户服务中心","provinceCode":null,"stopTime":"2019-09-19 16:00:00","powerType":"全部","powerOffArea":"110kV市民变:洲际9345线-阳台二线后段","powerOffReason":"(低压停电信息)杭州市钱江新城建设指挥部，展览馆用电需要增容 原停电结束时间为17:00:00,为减少客户停电时间,加快工作进度,提前送电,现变更停电结束时间为16:00:00","powerOffId":"2019090631020334"}],"pageModel":{"pageNow":1146,"totalCount":17789,"totalPage":1779,"tableRows":0,"pageCount":10,"beginCount":11450},"isExperi":"1"}