{"message":"","today":"2020-06-16","seleList":[{"poweroffId":2019090631020332,"sgpoweroffId":null,"subsName":"","lineName":"10kV洲际9345线","pubTranName":"阳台2,","scope":"浙江省杭州市江干区城市阳台附近一带","startTime":"2019-09-18 09:30:00","stopDate":"2019-09-18 19:00:00","orgNo":"3340101","typeCode":"计划停电","poweroffArea":"110kV市民变:洲际9345线-阳台一线后段","poweroffReason":"（低压停电信息）原停电结束时间为2019-09-18 18:00,因工作量大原因,现变更停电结束时间为2019-09-18 19:00","powerTime":"2019-09-18 18:25:21","powerComm":"已送电","subsNo":"","lineNo":"","tgNo":"","tgName":null,"infoStatus":"1","orgName":"浙江杭州电力客户服务中心","typeName":null,"infoStatusName":null,"dateDay":null,"orgNos":null,"nowTime":null,"countyName":null,"streetName":null,"villageName":null,"roadName":null,"communityName":null,"tranName":null,"sdLineName":null,"cityCode":"3340101","cityName":"浙江杭州电力客户服务中心","provinceCode":null,"stopTime":"2019-09-18 19:00:00","powerType":"全部","powerOffArea":"110kV市民变:洲际9345线-阳台一线后段","powerOffReason":"（低压停电信息）原停电结束时间为2019-09-18 18:00,因工作量大原因,现变更停电结束时间为2019-09-18 19:00","powerOffId":"2019090631020332"},{"poweroffId":2019090631020329,"sgpoweroffId":null,"subsName":"","lineName":"10kV贯桥8323线","pubTranName":"公安消防专变,麒麟二变,","scope":"浙江省杭州市下城区观巷50号、57、59、67、布店弄12—17号、孩儿巷98号、106号、麒麟街1号、2号附近一带。浙江省杭州市下城区公安分局","startTime":"2019-09-18 09:30:00","stopDate":"2019-09-18 11:30:00","orgNo":"3340101","typeCode":"计划停电","poweroffArea":"110kV昭庆变:贯桥8323线-公消一线后段","poweroffReason":"(低压停电信息)浙江省公安厅消防局，用户设备安装，广福站3#间隔公消一线T接“公安消防专变”用户电缆拆头 原停电结束时间为2019-09-18 17:00:00,为减少客户停电时间,加快工作进度,提前送电,现变更停电结束时间为11:30:00","powerTime":"2019-09-18 10:38:59","powerComm":"已送电","subsNo":"","lineNo":"","tgNo":"","tgName":null,"infoStatus":"1","orgName":"浙江杭州电力客户服务中心","typeName":null,"infoStatusName":null,"dateDay":null,"orgNos":null,"nowTime":null,"countyName":null,"streetName":null,"villageName":null,"roadName":null,"communityName":null,"tranName":null,"sdLineName":null,"cityCode":"3340101","cityName":"浙江杭州电力客户服务中心","provinceCode":null,"stopTime":"2019-09-18 11:30:00","powerType":"全部","powerOffArea":"110kV昭庆变:贯桥8323线-公消一线后段","powerOffReason":"(低压停电信息)浙江省公安厅消防局，用户设备安装，广福站3#间隔公消一线T接“公安消防专变”用户电缆拆头 原停电结束时间为2019-09-18 17:00:00,为减少客户停电时间,加快工作进度,提前送电,现变更停电结束时间为11:30:00","powerOffId":"2019090631020329"},{"poweroffId":2019090631020327,"sgpoweroffId":null,"subsName":"","lineName":"10kV春南8014线","pubTranName":"华景南苑二变,","scope":"浙江省杭州市江干区凯旋路华景南苑8幢附近一带","startTime":"2019-09-18 12:30:00","stopDate":"2019-09-18 13:50:00","orgNo":"3340101","typeCode":"计划停电","poweroffArea":"110kV庆春变:春南8014线-华南二线后段","poweroffReason":"(低压停电信息)浙江省杭州市江干区凯旋街道华景南苑13幢北面 原停电结束时间为2019-09-18 17:00:00,为减少客户停电时间,加快工作进度,提前送电,现变更停电结束时间为2019-09-18 13:50:00","powerTime":"2019-09-18 12:53:59","powerComm":"已送电","subsNo":"","lineNo":"","tgNo":"","tgName":null,"infoStatus":"1","orgName":"浙江杭州电力客户服务中心","typeName":null,"infoStatusName":null,"dateDay":null,"orgNos":null,"nowTime":null,"countyName":null,"streetName":null,"villageName":null,"roadName":null,"communityName":null,"tranName":null,"sdLineName":null,"cityCode":"3340101","cityName":"浙江杭州电力客户服务中心","provinceCode":null,"stopTime":"2019-09-18 13:50:00","powerType":"全部","powerOffArea":"110kV庆春变:春南8014线-华南二线后段","powerOffReason":"(低压停电信息)浙江省杭州市江干区凯旋街道华景南苑13幢北面 原停电结束时间为2019-09-18 17:00:00,为减少客户停电时间,加快工作进度,提前送电,现变更停电结束时间为2019-09-18 13:50:00","powerOffId":"2019090631020327"},{"poweroffId":2019090631020325,"sgpoweroffId":null,"subsName":"","lineName":"10kV东农6477线","pubTranName":"景二五变,景二二变,景二一变,","scope":"浙江省杭州市江干区景芳路景芳二区茅以升实验学校、景芳二区附近一带","startTime":"2019-09-17 09:30:00","stopDate":"2019-09-17 11:10:00","orgNo":"3340101","typeCode":"计划停电","poweroffArea":"110kV五福变:东农6477线-景宅一线后段","poweroffReason":"(低压停电信息)杭州市茅以升实验学校公变电源拆除 原停电结束时间为2019-09-17 17:00:00,为减少客户停电时间,加快工作进度,提前送电,现变更停电结束时间为2019-09-17 11:10:00","powerTime":"2019-09-17 10:14:59","powerComm":"已送电","subsNo":"","lineNo":"","tgNo":"","tgName":null,"infoStatus":"1","orgName":"浙江杭州电力客户服务中心","typeName":null,"infoStatusName":null,"dateDay":null,"orgNos":null,"nowTime":null,"countyName":null,"streetName":null,"villageName":null,"roadName":null,"communityName":null,"tranName":null,"sdLineName":null,"cityCode":"3340101","cityName":"浙江杭州电力客户服务中心","provinceCode":null,"stopTime":"2019-09-17 11:10:00","powerType":"全部","powerOffArea":"110kV五福变:东农6477线-景宅一线后段","powerOffReason":"(低压停电信息)杭州市茅以升实验学校公变电源拆除 原停电结束时间为2019-09-17 17:00:00,为减少客户停电时间,加快工作进度,提前送电,现变更停电结束时间为2019-09-17 11:10:00","powerOffId":"2019090631020325"},{"poweroffId":2019090631020323,"sgpoweroffId":null,"subsName":"","lineName":"10kV武教8325线","pubTranName":"群艺馆专变,爱情故事,教场,","scope":"浙江省杭州市下城区武林路57号、82号、86号、88号、133号、141号、193号附近一带。浙江省杭州市下城区群艺馆、爱情故事有限公司","startTime":"2019-09-16 09:30:00","stopDate":"2019-09-16 19:00:00","orgNo":"3340101","typeCode":"计划停电","poweroffArea":"110kV昭庆变:武教8325线-福寿分线后段","poweroffReason":"(低压停电信息)浙江省文化馆，原250kVA单路供电，现申请增容至400kVA单路供电。电源接昭庆变武教8325线福寿路站2#间隔福寿分线T接（ 原停电结束时间为2019-09-16 18:00:00,因工作量变大原因,现变更停电结束时间为19:00:00","powerTime":"2019-09-16 18:44:50","powerComm":"已送电","subsNo":"","lineNo":"","tgNo":"","tgName":null,"infoStatus":"1","orgName":"浙江杭州电力客户服务中心","typeName":null,"infoStatusName":null,"dateDay":null,"orgNos":null,"nowTime":null,"countyName":null,"streetName":null,"villageName":null,"roadName":null,"communityName":null,"tranName":null,"sdLineName":null,"cityCode":"3340101","cityName":"浙江杭州电力客户服务中心","provinceCode":null,"stopTime":"2019-09-16 19:00:00","powerType":"全部","powerOffArea":"110kV昭庆变:武教8325线-福寿分线后段","powerOffReason":"(低压停电信息)浙江省文化馆，原250kVA单路供电，现申请增容至400kVA单路供电。电源接昭庆变武教8325线福寿路站2#间隔福寿分线T接（ 原停电结束时间为2019-09-16 18:00:00,因工作量变大原因,现变更停电结束时间为19:00:00","powerOffId":"2019090631020323"},{"poweroffId":2019090631020319,"sgpoweroffId":null,"subsName":"","lineName":"10kV东河6439线","pubTranName":"新华坊二变2,","scope":"浙江省杭州市下城区新华坊18幢高层动力、照明，17幢高层动力备用，新华坊15、16、46幢附近一带","startTime":"2019-09-16 09:30:00","stopDate":"2019-09-16 13:30:00","orgNo":"3340101","typeCode":"计划停电","poweroffArea":"110kV新华变:东河6439线-华宅二线后段","poweroffReason":"(低压停电信息)中江三变等缺陷设备改造工程(古荡1811HZ1602U310A0000000）华宅二线电缆更换 原停电结束时间为2019-09-16 17:00:00,为减少客户停电时间,加快工作进度,提前送电,现变更停电结束时间为13:30:00","powerTime":"2019-09-16 12:53:59","powerComm":"已送电","subsNo":"","lineNo":"","tgNo":"","tgName":null,"infoStatus":"1","orgName":"浙江杭州电力客户服务中心","typeName":null,"infoStatusName":null,"dateDay":null,"orgNos":null,"nowTime":null,"countyName":null,"streetName":null,"villageName":null,"roadName":null,"communityName":null,"tranName":null,"sdLineName":null,"cityCode":"3340101","cityName":"浙江杭州电力客户服务中心","provinceCode":null,"stopTime":"2019-09-16 13:30:00","powerType":"全部","powerOffArea":"110kV新华变:东河6439线-华宅二线后段","powerOffReason":"(低压停电信息)中江三变等缺陷设备改造工程(古荡1811HZ1602U310A0000000）华宅二线电缆更换 原停电结束时间为2019-09-16 17:00:00,为减少客户停电时间,加快工作进度,提前送电,现变更停电结束时间为13:30:00","powerOffId":"2019090631020319"},{"poweroffId":2019090631020311,"sgpoweroffId":null,"subsName":"","lineName":"10kV九溪6804线","pubTranName":"六和变,历纪专变,","scope":"浙江省杭州市西湖区之江路六和塔百货商店、邮政所、望塔土产商店、祥和酒家、望江楼、六和塔、烈士纪念馆附近一带。浙江省杭州市历史纪念馆","startTime":"2019-09-11 09:30:00","stopDate":"2019-09-11 15:30:00","orgNo":"3340101","typeCode":"临时停电","poweroffArea":"110kV复兴变:九溪6804线-大桥分线后段","poweroffReason":"(低压停电信息)原停电结束时间为17:30，为减少客户停电时间，加快工作进度，提前送电，现变更停电结束时间为15:30。","powerTime":"2019-09-11 14:45:59","powerComm":"已送电","subsNo":"","lineNo":"","tgNo":"","tgName":null,"infoStatus":"1","orgName":"浙江杭州电力客户服务中心","typeName":null,"infoStatusName":null,"dateDay":null,"orgNos":null,"nowTime":null,"countyName":null,"streetName":null,"villageName":null,"roadName":null,"communityName":null,"tranName":null,"sdLineName":null,"cityCode":"3340101","cityName":"浙江杭州电力客户服务中心","provinceCode":null,"stopTime":"2019-09-11 15:30:00","powerType":"全部","powerOffArea":"110kV复兴变:九溪6804线-大桥分线后段","powerOffReason":"(低压停电信息)原停电结束时间为17:30，为减少客户停电时间，加快工作进度，提前送电，现变更停电结束时间为15:30。","powerOffId":"2019090631020311"},{"poweroffId":2019090631020307,"sgpoweroffId":null,"subsName":"","lineName":"10kV水漾6351线","pubTranName":"镇东变,","scope":"浙江省杭州市上城区抚宁巷、镇东楼附近一带","startTime":"2019-09-10 10:10:00","stopDate":"2019-09-10 12:00:00","orgNo":"3340101","typeCode":"临时停电","poweroffArea":"110kV滨江变:水漾6351线-镇变一线后段","poweroffReason":"(低压停电信息)镇东变东二低压 低压消缺。原停电结束时间17:00，变更停电结束时间12:00，原因由于施工现场环境比较复杂，存在不确定因素，因此预估施工时间适当放长了，而实际施工进行得比较顺利，因此该工作提前结束。","powerTime":"2019-09-10 11:16:59","powerComm":"已送电","subsNo":"","lineNo":"","tgNo":"","tgName":null,"infoStatus":"1","orgName":"浙江杭州电力客户服务中心","typeName":null,"infoStatusName":null,"dateDay":null,"orgNos":null,"nowTime":null,"countyName":null,"streetName":null,"villageName":null,"roadName":null,"communityName":null,"tranName":null,"sdLineName":null,"cityCode":"3340101","cityName":"浙江杭州电力客户服务中心","provinceCode":null,"stopTime":"2019-09-10 12:00:00","powerType":"全部","powerOffArea":"110kV滨江变:水漾6351线-镇变一线后段","powerOffReason":"(低压停电信息)镇东变东二低压 低压消缺。原停电结束时间17:00，变更停电结束时间12:00，原因由于施工现场环境比较复杂，存在不确定因素，因此预估施工时间适当放长了，而实际施工进行得比较顺利，因此该工作提前结束。","powerOffId":"2019090631020307"},{"poweroffId":2019090631020296,"sgpoweroffId":null,"subsName":"","lineName":"10kV赐壁H267线","pubTranName":"奇鹤村奇坑村2号公变,","scope":"浙江省-杭州市-余杭区-瓶窑镇-奇鹤行政村(奇坑自然村,白鹤自然村,骑坑外村)","startTime":"2019-09-16 08:30:00","stopDate":"2019-09-16 10:30:00","orgNo":"3340140","typeCode":"计划停电","poweroffArea":"110kV彭公变:赐壁H267线-奇坑一带","poweroffReason":"(低压停电信息)","powerTime":"2019-09-16 10:09:16","powerComm":"已送电","subsNo":"","lineNo":"","tgNo":"","tgName":null,"infoStatus":"1","orgName":"国网浙江杭州市余杭区供电有限公司","typeName":null,"infoStatusName":null,"dateDay":null,"orgNos":null,"nowTime":null,"countyName":null,"streetName":null,"villageName":null,"roadName":null,"communityName":null,"tranName":null,"sdLineName":null,"cityCode":"3340140","cityName":"国网浙江杭州市余杭区供电有限公司","provinceCode":null,"stopTime":"2019-09-16 10:30:00","powerType":"全部","powerOffArea":"110kV彭公变:赐壁H267线-奇坑一带","powerOffReason":"(低压停电信息)","powerOffId":"2019090631020296"},{"poweroffId":2019090631020255,"sgpoweroffId":null,"subsName":"","lineName":"10kV北星H371线","pubTranName":"七贤桥村歌罗桥公变,","scope":"浙江省-杭州市-余杭区-良渚街道-七贤桥村歌罗桥一带","startTime":"2019-09-19 09:30:39","stopDate":"2019-09-19 12:00:00","orgNo":"3340140","typeCode":"计划停电","poweroffArea":"110kV学里变:北星H371线-七贤桥村歌罗桥公变","poweroffReason":"(低压停电信息)北星H371线七贤桥村歌罗桥公变低压线路消缺","powerTime":"2019-09-19 11:30:33","powerComm":"已送电","subsNo":"","lineNo":"","tgNo":"","tgName":null,"infoStatus":"1","orgName":"国网浙江杭州市余杭区供电有限公司","typeName":null,"infoStatusName":null,"dateDay":null,"orgNos":null,"nowTime":null,"countyName":null,"streetName":null,"villageName":null,"roadName":null,"communityName":null,"tranName":null,"sdLineName":null,"cityCode":"3340140","cityName":"国网浙江杭州市余杭区供电有限公司","provinceCode":null,"stopTime":"2019-09-19 12:00:00","powerType":"全部","powerOffArea":"110kV学里变:北星H371线-七贤桥村歌罗桥公变","powerOffReason":"(低压停电信息)北星H371线七贤桥村歌罗桥公变低压线路消缺","powerOffId":"2019090631020255"}],"pageModel":{"pageNow":1147,"totalCount":17789,"totalPage":1779,"tableRows":0,"pageCount":10,"beginCount":11460},"isExperi":"1"}