{"message":"","today":"2020-06-16","seleList":[{"poweroffId":2019090631020176,"sgpoweroffId":null,"subsName":"","lineName":"10kV瑶山T172线","pubTranName":"三合石家1号公变,桐庐友人塑料制品有限公司1#变,三合石家3号公变,三合石家4号公变,上海住联房地产(集团)有限公司1#变,中国人民解放军73226部队57分队1#变,","scope":"浙江省-杭州市-桐庐县-分水镇-三合行政村(三合自然村,石家自然村,罗布场农居点,马源自然村,张家自然村);分水镇-三合行政村(中国人民解放军73226部队57分队,桐庐友人塑料制品有限公司,上海住联房地产(集团)有限公司)","startTime":"2019-09-19 06:30:00","stopDate":"2019-09-19 14:30:00","orgNo":"3340150","typeCode":"计划停电","poweroffArea":"110kV分水变:瑶山T172线-三合T1722开关1后段","poweroffReason":"杭州桐庐分水马源179线马源分线配电线路及设备大修工程","powerTime":"2019-09-19 14:20:27","powerComm":"已送电","subsNo":"","lineNo":"","tgNo":"","tgName":null,"infoStatus":"1","orgName":"国网浙江桐庐县供电公司","typeName":null,"infoStatusName":null,"dateDay":null,"orgNos":null,"nowTime":null,"countyName":null,"streetName":null,"villageName":null,"roadName":null,"communityName":null,"tranName":null,"sdLineName":null,"cityCode":"3340150","cityName":"国网浙江桐庐县供电公司","provinceCode":null,"stopTime":"2019-09-19 14:30:00","powerType":"全部","powerOffArea":"110kV分水变:瑶山T172线-三合T1722开关1后段","powerOffReason":"杭州桐庐分水马源179线马源分线配电线路及设备大修工程","powerOffId":"2019090631020176"},{"poweroffId":2019090631020135,"sgpoweroffId":null,"subsName":"","lineName":"10kV华琪8493线","pubTranName":"康苑二变,","scope":"浙江省-杭州市-滨江区-西兴街道-襄七房社区-聚园路","startTime":"2019-09-06 09:31:30","stopDate":"2019-09-06 13:00:30","orgNo":"3340101","typeCode":"电网故障停限电","poweroffArea":"220kV兴南变:华琪8493线-康苑二变后段","poweroffReason":"(低压停电信息)低压开关跳闸 原预计停电结束时间2019-09-06 15:31:30,由于施工现场环境比较复杂，存在不确定因素，因此预估施工时间适当放长了， 而实际施工进行得比较顺利，因此提前送电了","powerTime":"2019-09-06 12:19:51","powerComm":"已送电","subsNo":"","lineNo":"","tgNo":"","tgName":null,"infoStatus":"1","orgName":"浙江杭州电力客户服务中心","typeName":null,"infoStatusName":null,"dateDay":null,"orgNos":null,"nowTime":null,"countyName":null,"streetName":null,"villageName":null,"roadName":null,"communityName":null,"tranName":null,"sdLineName":null,"cityCode":"3340101","cityName":"浙江杭州电力客户服务中心","provinceCode":null,"stopTime":"2019-09-06 13:00:30","powerType":"全部","powerOffArea":"220kV兴南变:华琪8493线-康苑二变后段","powerOffReason":"(低压停电信息)低压开关跳闸 原预计停电结束时间2019-09-06 15:31:30,由于施工现场环境比较复杂，存在不确定因素，因此预估施工时间适当放长了， 而实际施工进行得比较顺利，因此提前送电了","powerOffId":"2019090631020135"},{"poweroffId":2019090631020133,"sgpoweroffId":null,"subsName":"","lineName":"10kV缤星9710线","pubTranName":"1#,2#,4#,3#,1#,","scope":"浙江省-杭州市-滨江区-西兴街道-共联村社区-杭州高新技术产业开发区资产经营有限公司，","startTime":"2019-09-16 09:30:00","stopDate":"2019-09-16 18:00:00","orgNo":"3340101","typeCode":"计划停电","poweroffArea":"110kV府前变:缤星9710线首端，1#，2#，3#，4#之间;缤星9710线-1#后段","poweroffReason":"泛在物联网工作配合：孵化站II段割接","powerTime":"2019-09-16 17:06:44","powerComm":"已送电","subsNo":"","lineNo":"","tgNo":"","tgName":null,"infoStatus":"1","orgName":"浙江杭州电力客户服务中心","typeName":null,"infoStatusName":null,"dateDay":null,"orgNos":null,"nowTime":null,"countyName":null,"streetName":null,"villageName":null,"roadName":null,"communityName":null,"tranName":null,"sdLineName":null,"cityCode":"3340101","cityName":"浙江杭州电力客户服务中心","provinceCode":null,"stopTime":"2019-09-16 18:00:00","powerType":"全部","powerOffArea":"110kV府前变:缤星9710线首端，1#，2#，3#，4#之间;缤星9710线-1#后段","powerOffReason":"泛在物联网工作配合：孵化站II段割接","powerOffId":"2019090631020133"},{"poweroffId":2019090631020084,"sgpoweroffId":null,"subsName":"","lineName":"10kV庆东8006线","pubTranName":"杭州市市政设施监管中心,杭州市市政设施监管中心,采二,","scope":"浙江省杭州市江干区解隧二双路单侧","startTime":"2019-09-07 09:30:00","stopDate":"2019-09-07 17:00:00","orgNo":"3340101","typeCode":"临时停电","poweroffArea":"110kV庆春变:庆东8006线-解隧一线后段","poweroffReason":"(低压停电信息)杭州市采荷二小,用户更换高压进线柜","powerTime":"2019-09-07 16:12:04","powerComm":"已送电","subsNo":"","lineNo":"","tgNo":"","tgName":null,"infoStatus":"1","orgName":"浙江杭州电力客户服务中心","typeName":null,"infoStatusName":null,"dateDay":null,"orgNos":null,"nowTime":null,"countyName":null,"streetName":null,"villageName":null,"roadName":null,"communityName":null,"tranName":null,"sdLineName":null,"cityCode":"3340101","cityName":"浙江杭州电力客户服务中心","provinceCode":null,"stopTime":"2019-09-07 17:00:00","powerType":"全部","powerOffArea":"110kV庆春变:庆东8006线-解隧一线后段","powerOffReason":"(低压停电信息)杭州市采荷二小,用户更换高压进线柜","powerOffId":"2019090631020084"},{"poweroffId":2019090631020079,"sgpoweroffId":null,"subsName":"","lineName":"10kV金开H462线","pubTranName":"航星塑粉,小洋坝村上洋桥南公变,勾庄村浅港头公变,振华工业称重,振华工业称重,迪迪企业,小洋坝村上洋桥南2号公变,假日风情,微风服饰,杭州捷可凌电气设备有限公司,中瀛电脑绣花1#,成功机电,勾庄村盛家门3号公变,江南复合包装厂,科器电源3#,科器电源1#,金马纺织,配变,勾庄村董家门北公变,3#,科器电源2#,江南复合包装厂,勾庄村浅港头公变,杭州新中瀛刺绣有限公司,科器电源4#,勾庄村盛家门3号公变,变压器,","scope":"浙江省-杭州市-余杭区-良渚街道-行宫塘行政村-厍头斗自然村,良渚街道-勾庄行政村(沈家塘自然村,沈港塘自然村,庙长桥路);浙江省-杭州市-余杭区-良渚街道-行宫塘行政村-杭州金马轴承材料有限公司,良渚街道-勾庄行政村(杭州迪迪文化发展有限公司,杭州正瑞包装有限公司,杭州航星塑粉有限公司,杭州江南复合包装有限公司,杭州科器电源实业有限公司,杭州假日风情家具制造有限公司,杭州微风服饰有限公司,杭州捷可凌电气设备有限公司,杭州靖铭源实业有限公司,杭州新中瀛刺绣有限公司,杭州天乙投资管理有限公司)","startTime":"2019-09-06 08:38:00","stopDate":"2019-09-06 15:00:00","orgNo":"3340140","typeCode":"电网故障停限电","poweroffArea":"110kV金渡变:金开H462线-金开H4621开关后段;金开H462线首端，金开H4622开关，金开H4621开关之间","poweroffReason":"高压开关跳闸","powerTime":"2019-09-06 14:46:00","powerComm":"已送电","subsNo":"","lineNo":"","tgNo":"","tgName":null,"infoStatus":"1","orgName":"国网浙江杭州市余杭区供电有限公司","typeName":null,"infoStatusName":null,"dateDay":null,"orgNos":null,"nowTime":null,"countyName":null,"streetName":null,"villageName":null,"roadName":null,"communityName":null,"tranName":null,"sdLineName":null,"cityCode":"3340140","cityName":"国网浙江杭州市余杭区供电有限公司","provinceCode":null,"stopTime":"2019-09-06 15:00:00","powerType":"全部","powerOffArea":"110kV金渡变:金开H462线-金开H4621开关后段;金开H462线首端，金开H4622开关，金开H4621开关之间","powerOffReason":"高压开关跳闸","powerOffId":"2019090631020079"},{"poweroffId":2019090631020045,"sgpoweroffId":null,"subsName":"","lineName":"10kV埋桥H468线","pubTranName":"2#,污水泵站,人民印刷厂,配变,4#,成悦照明,瀛家风尚,锦图针织（杭丝时装）,3＃,5#,小洋坝村长斗桥公变,迪迪照明电子,人民印刷（原佳信达印务）2#配变,人民印刷（6120103709）2#变,锦图针织（杭丝时装）,杭州杭丝时装实业有限公司,","scope":"浙江省-杭州市-余杭区-良渚街道-小洋坝行政村-良运街;良渚街道(杭州瀛家风尚建材有限公司,杭州成悦照明科技有限公司,杭州广测环境技术有限公司,杭州余杭人民印刷有限公司,杭州杭丝时装集团有限公司,杭州余杭城西净水有限公司)","startTime":"2019-09-06 07:42:00","stopDate":"2019-09-06 14:42:00","orgNo":"3340140","typeCode":"电网故障停限电","poweroffArea":"110kV金渡变:埋桥H468线埋桥H4681开关后段","poweroffReason":"高压开关跳闸","powerTime":"2019-09-06 14:38:00","powerComm":"已送电","subsNo":"","lineNo":"","tgNo":"","tgName":null,"infoStatus":"1","orgName":"国网浙江杭州市余杭区供电有限公司","typeName":null,"infoStatusName":null,"dateDay":null,"orgNos":null,"nowTime":null,"countyName":null,"streetName":null,"villageName":null,"roadName":null,"communityName":null,"tranName":null,"sdLineName":null,"cityCode":"3340140","cityName":"国网浙江杭州市余杭区供电有限公司","provinceCode":null,"stopTime":"2019-09-06 14:42:00","powerType":"全部","powerOffArea":"110kV金渡变:埋桥H468线埋桥H4681开关后段","powerOffReason":"高压开关跳闸","powerOffId":"2019090631020045"},{"poweroffId":2019090631020030,"sgpoweroffId":null,"subsName":"","lineName":"10kV水月G348线","pubTranName":"2#,3#,1＃,","scope":"浙江省-杭州市-余杭区-仁和街道-奉口行政村-杭州余杭制水有限公司一带","startTime":"2019-09-06 07:10:00","stopDate":"2019-09-06 10:10:00","orgNo":"3340140","typeCode":"电网故障停限电","poweroffArea":"110kV洛山变:水月G348线","poweroffReason":"高压开关跳闸","powerTime":"2019-09-06 09:55:00","powerComm":"已送电","subsNo":"","lineNo":"","tgNo":"","tgName":null,"infoStatus":"1","orgName":"国网浙江杭州市余杭区供电有限公司","typeName":null,"infoStatusName":null,"dateDay":null,"orgNos":null,"nowTime":null,"countyName":null,"streetName":null,"villageName":null,"roadName":null,"communityName":null,"tranName":null,"sdLineName":null,"cityCode":"3340140","cityName":"国网浙江杭州市余杭区供电有限公司","provinceCode":null,"stopTime":"2019-09-06 10:10:00","powerType":"全部","powerOffArea":"110kV洛山变:水月G348线","powerOffReason":"高压开关跳闸","powerOffId":"2019090631020030"},{"poweroffId":2019090631020025,"sgpoweroffId":null,"subsName":"","lineName":"10kV牌头H562线","pubTranName":"杭州有你竹木板材有限公司6110111124,1#,杭州新湖鸬鸟置业有限公司（6120853294）02#专变,王位山村干山坞公变,王位山村浪河口加工厂公变,王位山村段大公变,梁旭竹木6111037941,王位山村黄泥头公变,昆仑润滑剂6120555909,王位山村上打石湾公变,众鼎集装箱6120147823,国隆加热6120018544,王位山村独山三组公变,王位山村浪河口粉丝厂公变,王位山村高村五队2号公变,王位山村砖瓦厂公变,恒顺工程塑料6120464316,王位山村高村公变,王位山村高村五组公变,杭州中港陶业有限公司6111040526,杭州新湖鸬鸟置业有限公司（6120853294）01#专变,王位山村打石湾公变,梁旭竹木6120222324,浙环机械6111055056,王位山村白石坞公变,杭州澳盟实业有限公司6110111050,杭州金辉塑化有限公司6111040704,王位山村独山村公变,政府8号路灯变6120842663,杭州越扬玻璃有限公司6110111038,王位山村陆家庄公变,王位山村太平山公变,王位山村钱家门口公变,王位山村太平山2号公变,杭州振盛机械制造厂6111030595,王位山村桃园公变,王位山村宝幢寺公变,爵典木业6111090241,王位山村浪河口2号公变,","scope":"浙江省-杭州市-余杭区-黄湖镇-王位山行政村(王位山自然村,浪河口自然村,走马堂自然村,太平山自然村,下黄泥潭自然村,车路边自然村,高自然村,牛城自然村,段大自然村,独山桥自然村,上黄泥潭自然村,陆家庄自然村),黄湖镇-清波行政村-清波自然村,鸬鸟镇-前庄行政村-前庄自然村,百丈镇-溪口行政村-溪口自然村;鸬鸟镇(杭州中港陶业有限公司,杭州新湖鸬鸟置业有限公司新湖希尔顿花园酒店分公司,杭州新湖鸬鸟置业有限公司),黄湖镇(杭州金辉塑化有限公司,杭州澳盟实业有限公司,杭州有你竹木板材有限公司,杭州越扬玻璃有限公司,杭州振盛机械制造厂,杭州余杭区黄湖镇梁旭竹木工艺品厂,杭州爵典木业有限公司,杭州国隆加热设备有限公司,杭州浙环机械配件有限公司,杭州众鼎集装箱移动板房有限公司,杭州恒顺工程塑料有限公司,杭州昆仑特种润滑剂有限公司,杭州市余杭区黄湖镇人民政府)","startTime":"2019-09-06 06:24:00","stopDate":"2019-09-06 12:24:00","orgNo":"3340140","typeCode":"电网故障停限电","poweroffArea":"35kV黄湖变:牌头H562线牌头H5621开关 后段","poweroffReason":"高压开关跳闸","powerTime":"2019-09-06 11:45:00","powerComm":"已修复送电","subsNo":"","lineNo":"","tgNo":"","tgName":null,"infoStatus":"1","orgName":"国网浙江杭州市余杭区供电有限公司","typeName":null,"infoStatusName":null,"dateDay":null,"orgNos":null,"nowTime":null,"countyName":null,"streetName":null,"villageName":null,"roadName":null,"communityName":null,"tranName":null,"sdLineName":null,"cityCode":"3340140","cityName":"国网浙江杭州市余杭区供电有限公司","provinceCode":null,"stopTime":"2019-09-06 12:24:00","powerType":"全部","powerOffArea":"35kV黄湖变:牌头H562线牌头H5621开关 后段","powerOffReason":"高压开关跳闸","powerOffId":"2019090631020025"},{"poweroffId":2019090631020021,"sgpoweroffId":null,"subsName":"","lineName":"10kV牌头H562线","pubTranName":"王位山村干山坞公变,梁旭竹木6111037941,王位山村白石坞公变,爵典木业6111090241,王位山村砖瓦厂公变,梁旭竹木6120222324,王位山村太平山公变,浙环机械6111055056,王位山村陆家庄公变,国隆加热6120018544,","scope":"浙江省-杭州市-余杭区-黄湖镇-王位山行政村(王位山自然村,浪河口自然村,走马堂自然村,牛城自然村,陆家庄自然村);黄湖镇(杭州余杭区黄湖镇梁旭竹木工艺品厂,杭州爵典木业有限公司,杭州国隆加热设备有限公司,杭州浙环机械配件有限公司)","startTime":"2019-09-06 06:24:00","stopDate":"2019-09-06 12:24:00","orgNo":"3340140","typeCode":"电网故障停限电","poweroffArea":"35kV黄湖变:牌头H562线太平山2分线开关后段","poweroffReason":"高压开关跳闸","powerTime":"2019-09-06 11:44:00","powerComm":"已修复送电","subsNo":"","lineNo":"","tgNo":"","tgName":null,"infoStatus":"1","orgName":"国网浙江杭州市余杭区供电有限公司","typeName":null,"infoStatusName":null,"dateDay":null,"orgNos":null,"nowTime":null,"countyName":null,"streetName":null,"villageName":null,"roadName":null,"communityName":null,"tranName":null,"sdLineName":null,"cityCode":"3340140","cityName":"国网浙江杭州市余杭区供电有限公司","provinceCode":null,"stopTime":"2019-09-06 12:24:00","powerType":"全部","powerOffArea":"35kV黄湖变:牌头H562线太平山2分线开关后段","powerOffReason":"高压开关跳闸","powerOffId":"2019090631020021"},{"poweroffId":2019090631020017,"sgpoweroffId":null,"subsName":"","lineName":"10kV太平H547线","pubTranName":"双溪村友谊公变,双溪村中心农居点2号公变,四岭村岑家畈公变,四岭村里村公变,杭州余杭宇宙塑料编织厂6110115010,四岭村麻车堰公变,四岭村千岱岭公变,四岭村菜田坞公变,潘板桥村罗丝坞公变,双溪大道3#路灯箱变,双溪村竹山茶厂公变,2#,四岭水库2#,四岭村上仕村2号公变,双溪村团结公变,四岭村灵风寺公变,1#,政府12号路灯变6120842806,千岱酒店配电变压器,双溪村水磨苑公变,四岭村里车坑1号公变,手帕厂,杭州市余杭区同安寺6120385014,径山旅游（同安驿）6120550763,四岭村沙塘1号公变,双溪村竹山加工场公变,潘板桥村下龙西公变,径山旅游（双碑廊）6120550774,四岭村新村公变,潘板桥村招元弄公变,四岭水库1#,双溪村下竹山公变,双溪影视基地配电变压器,径山旅游6120550759,潘板桥村羊棚坞公变,双溪村高桥洞2号公变,四岭村上仕村公变,四岭村外窑角公变,潘板桥村上龙西公变,四岭村里车坑2号公变,双溪村高桥洞公变,四岭村外车坑公变,四岭村四岭公变,四岭村下仕村1号公变,2#,四岭村后房公变,双溪四岭水厂,杭州余杭双溪电工仪器厂6110115013,双溪村凉亭2号公变,四岭村外车坑2号公变,四岭村下仕村2号公变,双溪村凉亭1号公变,双溪村中学公变,","scope":"浙江省-杭州市-余杭区-径山镇-潘坂桥行政村(螺丝坞自然村,草凉亭自然村,下龙西自然村,上龙西自然村,汪家自然村,夹坞自然村,潘坂桥自然村,羊堋自然村,招贤弄自然村),径山镇-双溪行政村(竹山自然村,双溪村,下竹山自然村,化城自然村,上街自然村,上竹山自然村,凉亭头自然村),径山镇-四岭行政村(四岭自然村,千代坑自然村,菜田坑自然村,里车坑自然村,林风寺自然村,后房自然村,乾皇新自然村,沙塘自然村,仕自然村,下仕自然村,麻车堰自然村,岑田自然村),径山镇(径山行政村-径山自然村,小古城行政村-小古城自然村,平山头行政村-石家堰组自然村,麻车头行政村-沙塘自然村,长乐行政村-大坞组自然村);径山镇(杭州市余杭区同安寺,杭州余杭双溪电工仪器厂,杭州余杭径山旅游度假有限公司,杭州余杭宇宙塑料编织厂,杭州市余杭区径山镇人民政府,杭州市余杭区四岭水库管理所,杭州余杭制水有限公司,杭州品越电子有限公司,杭州双溪旅游开发有限公司,杭州千岱酒店有限公司,杭州市余杭区径山镇双溪中心小学)","startTime":"2019-09-06 06:00:00","stopDate":"2019-09-06 12:15:00","orgNo":"3340140","typeCode":"电网故障停限电","poweroffArea":"110kV潘板变:太平H547线罗坞开关站罗坞开关站14号负荷开关后段","poweroffReason":"高压开关跳闸","powerTime":"2019-09-06 11:46:00","powerComm":"已修复送电","subsNo":"","lineNo":"","tgNo":"","tgName":null,"infoStatus":"1","orgName":"国网浙江杭州市余杭区供电有限公司","typeName":null,"infoStatusName":null,"dateDay":null,"orgNos":null,"nowTime":null,"countyName":null,"streetName":null,"villageName":null,"roadName":null,"communityName":null,"tranName":null,"sdLineName":null,"cityCode":"3340140","cityName":"国网浙江杭州市余杭区供电有限公司","provinceCode":null,"stopTime":"2019-09-06 12:15:00","powerType":"全部","powerOffArea":"110kV潘板变:太平H547线罗坞开关站罗坞开关站14号负荷开关后段","powerOffReason":"高压开关跳闸","powerOffId":"2019090631020017"}],"pageModel":{"pageNow":1149,"totalCount":17789,"totalPage":1779,"tableRows":0,"pageCount":10,"beginCount":11480},"isExperi":"1"}