{"message":"","today":"2020-06-16","seleList":[{"poweroffId":2019090531020340,"sgpoweroffId":null,"subsName":"","lineName":"10kV安顶D909线","pubTranName":"1#,民强村2号下沿畈公变,大坞底2#小路边公变,幸福村2#沙墩桥头公变,灵峰村春建2号公变,国富村1＃溪边公变,东何村1#桥头公变,灵峰村国庆5号路边公变,国庆村1#水厂旁公变,杭州市富阳广播电视台1#变,安顶村3#桥头公变,大坞底1#皮活台公变,国庆村3#鸡笼坞公变,安顶村6号官田湾公变,2#,富阳市大源农牧场,何村1号黄梅坞口公变,国庆村2#鸡笼坞口公变,安顶村2#大田档公变,大坞底3#车站公变,灵峰村国庆4#鸡笼岭公变,富阳振兴制动材料厂,灵峰村春建4#新区公变,何村2号公路边公变,幸福村3#村口公变,民强村7#金家山公变,幸福村1号三门头公变,富阳市云之泉饮用水有限公司,大坞底4号潘家山公变,春建村3#金家山公变,安顶村4号田鸡坪公变,安顶村9号金堂基公变,民强村5号溪边公变,安顶村7#山坎上公变,富阳云母制品厂,民强村3#石塔坞公变,大葛村勤俭4#安顶公变,春建村5号春建桥公变,民强村1#村委公变,民强村8号精舍公变,马鞍山村国富2#宜春坞公变,安顶村1#村委公变,马鞍山村国富3#村上公变,勤俭村6号水池公变,石埭村2#路边公变,民强村4#应家塘公变,安顶村8号蜈蚣路公变,安顶村5号仰天坞公变,何村3#溪边公变,民强村6#下沿畈新区公变变压器,石埭村1#教堂公变,安顶村东何2#路边公变,","scope":"浙江省-杭州市-富阳区-里山镇-马鞍山行政村(何村自然村,国富自然村),渔山乡-大葛行政村(勤建自然村,勤俭自然村),里山镇-安顶行政村(安顶自然村,大坞底自然村,东何自然村,石埭自然村),里山镇-灵峰行政村(国庆自然村,春建自然村,幸福自然村),里山镇-民强行政村-民强自然村,灵桥镇-灵桥行政村-胜利自然村;里山镇(杭州富阳云母制品厂,杭州富阳振兴制动材料厂,富阳市云之泉饮用水有限公司,杭州富阳国有农林资产经营有限公司,杭州市富阳广播电视台)","startTime":"2019-09-05 17:48:48","stopDate":"2019-09-05 19:42:00","orgNo":"3340170","typeCode":"电网故障停限电","poweroffArea":"110kV里渔变:安顶D909线安顶D9092开关后段","poweroffReason":"高压开关跳闸","powerTime":"2019-09-05 19:19:45","powerComm":"已送电","subsNo":"","lineNo":"","tgNo":"","tgName":null,"infoStatus":"1","orgName":"国网浙江杭州市富阳区供电公司","typeName":null,"infoStatusName":null,"dateDay":null,"orgNos":null,"nowTime":null,"countyName":null,"streetName":null,"villageName":null,"roadName":null,"communityName":null,"tranName":null,"sdLineName":null,"cityCode":"3340170","cityName":"国网浙江杭州市富阳区供电公司","provinceCode":null,"stopTime":"2019-09-05 19:42:00","powerType":"全部","powerOffArea":"110kV里渔变:安顶D909线安顶D9092开关后段","powerOffReason":"高压开关跳闸","powerOffId":"2019090531020340"},{"poweroffId":2019090531020327,"sgpoweroffId":null,"subsName":"","lineName":"10kV白龙H859线","pubTranName":"钱庄食品,永安村钱家公变,","scope":"浙江省-杭州市-余杭区-余杭街道-永安行政村(下木桥自然村,永安自然村,钱家自然村);余杭街道-杭州钱庄食品有限公司","startTime":"2019-09-05 17:15:00","stopDate":"2019-09-05 19:15:00","orgNo":"3340140","typeCode":"电网故障停限电","poweroffArea":"110kV永乐变:白龙H859线钱庄分线开关后段","poweroffReason":"高压开关跳闸","powerTime":"2019-09-05 18:24:00","powerComm":"已送电","subsNo":"","lineNo":"","tgNo":"","tgName":null,"infoStatus":"1","orgName":"国网浙江杭州市余杭区供电有限公司","typeName":null,"infoStatusName":null,"dateDay":null,"orgNos":null,"nowTime":null,"countyName":null,"streetName":null,"villageName":null,"roadName":null,"communityName":null,"tranName":null,"sdLineName":null,"cityCode":"3340140","cityName":"国网浙江杭州市余杭区供电有限公司","provinceCode":null,"stopTime":"2019-09-05 19:15:00","powerType":"全部","powerOffArea":"110kV永乐变:白龙H859线钱庄分线开关后段","powerOffReason":"高压开关跳闸","powerOffId":"2019090531020327"},{"poweroffId":2019090531020324,"sgpoweroffId":null,"subsName":"","lineName":"10kV汇锦V327线","pubTranName":"南苑小区1＃公变,","scope":"浙江省-杭州市-临安市-锦城街道-新民里社区-南苑小区5幢、6幢、7幢、10幢、11幢、12幢、13幢一带","startTime":"2019-09-13 07:20:00","stopDate":"2019-09-13 16:30:00","orgNo":"3340160","typeCode":"计划停电","poweroffArea":"110kV锦南变:汇锦V327线-南苑小区1＃公变低压总闸刀后段","poweroffReason":"(低压停电信息)线路割接","powerTime":"2019-09-13 16:20:16","powerComm":"已送电","subsNo":"","lineNo":"","tgNo":"","tgName":null,"infoStatus":"1","orgName":"国网浙江临安市供电公司","typeName":null,"infoStatusName":null,"dateDay":null,"orgNos":null,"nowTime":null,"countyName":null,"streetName":null,"villageName":null,"roadName":null,"communityName":null,"tranName":null,"sdLineName":null,"cityCode":"3340160","cityName":"国网浙江临安市供电公司","provinceCode":null,"stopTime":"2019-09-13 16:30:00","powerType":"全部","powerOffArea":"110kV锦南变:汇锦V327线-南苑小区1＃公变低压总闸刀后段","powerOffReason":"(低压停电信息)线路割接","powerOffId":"2019090531020324"},{"poweroffId":2019090531020319,"sgpoweroffId":null,"subsName":"","lineName":"10kV大坞V356线","pubTranName":"高桥,","scope":"浙江省-杭州市-临安市-高虹镇高桥村一带","startTime":"2019-09-12 08:00:00","stopDate":"2019-09-12 15:10:00","orgNo":"3340160","typeCode":"临时停电","poweroffArea":"110kV高虹变:停大坞V356线高桥分线4#杆高桥配变低压总闸刀以后","poweroffReason":"一户一表工作","powerTime":"2019-09-12 14:21:52","powerComm":"已送电","subsNo":"","lineNo":"","tgNo":"","tgName":null,"infoStatus":"1","orgName":"国网浙江临安市供电公司","typeName":null,"infoStatusName":null,"dateDay":null,"orgNos":null,"nowTime":null,"countyName":null,"streetName":null,"villageName":null,"roadName":null,"communityName":null,"tranName":null,"sdLineName":null,"cityCode":"3340160","cityName":"国网浙江临安市供电公司","provinceCode":null,"stopTime":"2019-09-12 15:10:00","powerType":"全部","powerOffArea":"110kV高虹变:停大坞V356线高桥分线4#杆高桥配变低压总闸刀以后","powerOffReason":"一户一表工作","powerOffId":"2019090531020319"},{"poweroffId":2019090531020318,"sgpoweroffId":null,"subsName":"","lineName":"10kV雅市V635线","pubTranName":"杭州宝业建筑工业化制造有限公司1#,","scope":"浙江省-杭州市-临安市-青山湖街道杭州宝业建筑工业化制造有限公司一带","startTime":"2019-09-12 09:30:00","stopDate":"2019-09-12 14:30:00","orgNo":"3340160","typeCode":"计划停电","poweroffArea":"110kV雅观变:停雅市V635线德福线缆分线8#杆宝业线缆支线令克以后","poweroffReason":"增容工作","powerTime":"2019-09-12 14:20:12","powerComm":"已送电","subsNo":"","lineNo":"","tgNo":"","tgName":null,"infoStatus":"1","orgName":"国网浙江临安市供电公司","typeName":null,"infoStatusName":null,"dateDay":null,"orgNos":null,"nowTime":null,"countyName":null,"streetName":null,"villageName":null,"roadName":null,"communityName":null,"tranName":null,"sdLineName":null,"cityCode":"3340160","cityName":"国网浙江临安市供电公司","provinceCode":null,"stopTime":"2019-09-12 14:30:00","powerType":"全部","powerOffArea":"110kV雅观变:停雅市V635线德福线缆分线8#杆宝业线缆支线令克以后","powerOffReason":"增容工作","powerOffId":"2019090531020318"},{"poweroffId":2019090531020315,"sgpoweroffId":null,"subsName":"","lineName":"10kV杨家T106线","pubTranName":"桐庐水洪电缆配件厂,桐庐三创塑料制品有限公司,桐庐县桐君街道爱民沙石经营部,桐庐华安建材有限公司(基建)二 配电变压器,桐庐县桐君街道爱民沙石经营部,麻蓬吴家坞1号公变,桐庐华安建材有限公司(基建)一,","scope":"浙江省-杭州市-桐庐县-桐君街道-麻蓬行政村-吴家坞自然村;桐君街道-麻蓬行政村(桐庐水洪电缆配件厂,桐庐三创塑料制品有限公司,桐庐华安建材有限公司)","startTime":"2019-09-17 07:00:00","stopDate":"2019-09-17 15:00:00","orgNo":"3340150","typeCode":"计划停电","poweroffArea":"110kV桐庐变:杨家T106线-金村F3120智能开关后段","poweroffReason":"杭州桐庐桐君110kV桐庐变新出金村T105线工程","powerTime":"2019-09-17 14:51:07","powerComm":"已送电。","subsNo":"","lineNo":"","tgNo":"","tgName":null,"infoStatus":"1","orgName":"国网浙江桐庐县供电公司","typeName":null,"infoStatusName":null,"dateDay":null,"orgNos":null,"nowTime":null,"countyName":null,"streetName":null,"villageName":null,"roadName":null,"communityName":null,"tranName":null,"sdLineName":null,"cityCode":"3340150","cityName":"国网浙江桐庐县供电公司","provinceCode":null,"stopTime":"2019-09-17 15:00:00","powerType":"全部","powerOffArea":"110kV桐庐变:杨家T106线-金村F3120智能开关后段","powerOffReason":"杭州桐庐桐君110kV桐庐变新出金村T105线工程","powerOffId":"2019090531020315"},{"poweroffId":2019090531020299,"sgpoweroffId":null,"subsName":"","lineName":"10kV益围C652线","pubTranName":"益农供电营业所8#变,","scope":"浙江省-杭州市-萧山区-益农镇-久联行政村-久新自然村,益农镇-弘扬社区(兴贸路,益农路)、兴农小区一带","startTime":"2019-09-05 16:19:21","stopDate":"2019-09-05 18:10:21","orgNo":"3340130","typeCode":"电网故障停限电","poweroffArea":"35kV益农变:益围C652线-益农供电营业所8#变台区低压开关","poweroffReason":"(低压停电信息)低压漏电保护器短路故障 原停电结束时间:2019-09-05 19:10:21，变更停电结束时间:2019-09-05 18:10:21。由于抢修工作提前完成，故需要提前送电。","powerTime":"2019-09-05 17:28:42","powerComm":"已送电","subsNo":"","lineNo":"","tgNo":"","tgName":null,"infoStatus":"1","orgName":"国网浙江杭州市萧山区供电有限公司","typeName":null,"infoStatusName":null,"dateDay":null,"orgNos":null,"nowTime":null,"countyName":null,"streetName":null,"villageName":null,"roadName":null,"communityName":null,"tranName":null,"sdLineName":null,"cityCode":"3340130","cityName":"国网浙江杭州市萧山区供电有限公司","provinceCode":null,"stopTime":"2019-09-05 18:10:21","powerType":"全部","powerOffArea":"35kV益农变:益围C652线-益农供电营业所8#变台区低压开关","powerOffReason":"(低压停电信息)低压漏电保护器短路故障 原停电结束时间:2019-09-05 19:10:21，变更停电结束时间:2019-09-05 18:10:21。由于抢修工作提前完成，故需要提前送电。","powerOffId":"2019090531020299"},{"poweroffId":2019090531020252,"sgpoweroffId":null,"subsName":"","lineName":"20kV清观B267线","pubTranName":"14#变,5#,杭州市钱江新城建设指挥部2#,21#,11#,2#,19#,13#,9#,17#,8#变,10#变,3#,1#,6#变,12,15#,4#变,7#,","scope":"浙江省-杭州市-萧山区-宁围镇、宁围街道-钱江世纪城社区-浙商银行股份有限公司,宁围街道-利二行政村(杭州萧山钱江世纪城沿江建设开发有限公司,宏润建设集团股份有限公司)、浙江省杭州市萧山区钱江世纪公园B11栋等一带","startTime":"2019-09-05 15:18:48","stopDate":"2019-09-05 18:18:48","orgNo":"3340130","typeCode":"电网故障停限电","poweroffArea":"110kV清江变:清观B267线开关后段","poweroffReason":"高压柱上断路器短路故障","powerTime":"2019-09-05 17:19:45","powerComm":"已送电","subsNo":"","lineNo":"","tgNo":"","tgName":null,"infoStatus":"1","orgName":"国网浙江杭州市萧山区供电有限公司","typeName":null,"infoStatusName":null,"dateDay":null,"orgNos":null,"nowTime":null,"countyName":null,"streetName":null,"villageName":null,"roadName":null,"communityName":null,"tranName":null,"sdLineName":null,"cityCode":"3340130","cityName":"国网浙江杭州市萧山区供电有限公司","provinceCode":null,"stopTime":"2019-09-05 18:18:48","powerType":"全部","powerOffArea":"110kV清江变:清观B267线开关后段","powerOffReason":"高压柱上断路器短路故障","powerOffId":"2019090531020252"},{"poweroffId":2019090531020236,"sgpoweroffId":null,"subsName":"","lineName":"10kV梧村T244线","pubTranName":"梧村2号公变,","scope":"浙江省-杭州市-桐庐县-江南镇-梧村行政村-梧村自然村","startTime":"2019-09-12 08:00:00","stopDate":"2019-09-12 16:00:00","orgNo":"3340150","typeCode":"临时停电","poweroffArea":"110kV石阜变:梧村T244线-梧村F5313令克后段","poweroffReason":"杭州桐庐江南梧村2号公变等台区低压线路改造工程 原停电结束时间：2019-09-12 15:00:00，现停电结束时间：2019-09-12 16:00:00 原因：因人员准备不足","powerTime":"2019-09-12 15:44:41","powerComm":"已送电","subsNo":"","lineNo":"","tgNo":"","tgName":null,"infoStatus":"1","orgName":"国网浙江桐庐县供电公司","typeName":null,"infoStatusName":null,"dateDay":null,"orgNos":null,"nowTime":null,"countyName":null,"streetName":null,"villageName":null,"roadName":null,"communityName":null,"tranName":null,"sdLineName":null,"cityCode":"3340150","cityName":"国网浙江桐庐县供电公司","provinceCode":null,"stopTime":"2019-09-12 16:00:00","powerType":"全部","powerOffArea":"110kV石阜变:梧村T244线-梧村F5313令克后段","powerOffReason":"杭州桐庐江南梧村2号公变等台区低压线路改造工程 原停电结束时间：2019-09-12 15:00:00，现停电结束时间：2019-09-12 16:00:00 原因：因人员准备不足","powerOffId":"2019090531020236"},{"poweroffId":2019090531020232,"sgpoweroffId":null,"subsName":"","lineName":"10kV经贸C634线","pubTranName":"临浦集镇13#变,","scope":"浙江省-杭州市-萧山区-临浦镇-峙山西路-峙山西苑小区,临浦镇-东麓池社区(峙山西路,峙山北路,东麓池弄)，浙江省杭州市萧山区临浦镇峙山西路峙山西苑小区4幢3单元401室一带","startTime":"2019-09-05 14:47:36","stopDate":"2019-09-05 16:00:36","orgNo":"3340130","typeCode":"电网故障停限电","poweroffArea":"110kV临浦变:经贸C634线-临浦集镇13#变台区低压开关","poweroffReason":"(低压停电信息)低压熔断器短路故障 原停电结束时间：2019-09-05 16:50，变更停电结束时间：2019-09-05 16:00，由于增派人员，抢修提前完成，故需要提前送电。","powerTime":"2019-09-05 15:34:48","powerComm":"已送电","subsNo":"","lineNo":"","tgNo":"","tgName":null,"infoStatus":"1","orgName":"国网浙江杭州市萧山区供电有限公司","typeName":null,"infoStatusName":null,"dateDay":null,"orgNos":null,"nowTime":null,"countyName":null,"streetName":null,"villageName":null,"roadName":null,"communityName":null,"tranName":null,"sdLineName":null,"cityCode":"3340130","cityName":"国网浙江杭州市萧山区供电有限公司","provinceCode":null,"stopTime":"2019-09-05 16:00:36","powerType":"全部","powerOffArea":"110kV临浦变:经贸C634线-临浦集镇13#变台区低压开关","powerOffReason":"(低压停电信息)低压熔断器短路故障 原停电结束时间：2019-09-05 16:50，变更停电结束时间：2019-09-05 16:00，由于增派人员，抢修提前完成，故需要提前送电。","powerOffId":"2019090531020232"}],"pageModel":{"pageNow":1151,"totalCount":17789,"totalPage":1779,"tableRows":0,"pageCount":10,"beginCount":11500},"isExperi":"1"}