{"message":"","today":"2020-06-15","seleList":[{"poweroffId":2020052231020455,"sgpoweroffId":null,"subsName":"","lineName":"10kV盾八D593线","pubTranName":"中铁十九局集团轨道交通工程有限公司2#盾构机,中铁十九局集团轨道交通工程有限公司1#盾构机,中铁十九局集团轨道交通工程有限公司3#变,","scope":"浙江省-杭州市-富阳区-银湖街道-中铁十九局集团轨道交通工程有限公司","startTime":"2020-06-01 06:30:00","stopDate":"2020-06-01 22:50:00","orgNo":"3340170","typeCode":"计划停电","poweroffArea":"110kV高桥变:盾八D593线-出线2后段","poweroffReason":"配合高桥变10kVII、III段母线停电","powerTime":"2020-06-01 22:38:13","powerComm":"已送电","subsNo":"","lineNo":"","tgNo":"","tgName":null,"infoStatus":"1","orgName":"国网浙江杭州市富阳区供电公司","typeName":null,"infoStatusName":null,"dateDay":null,"orgNos":null,"nowTime":null,"countyName":null,"streetName":null,"villageName":null,"roadName":null,"communityName":null,"tranName":null,"sdLineName":null,"cityCode":"3340170","cityName":"国网浙江杭州市富阳区供电公司","provinceCode":null,"stopTime":"2020-06-01 22:50:00","powerType":"全部","powerOffArea":"110kV高桥变:盾八D593线-出线2后段","powerOffReason":"配合高桥变10kVII、III段母线停电","powerOffId":"2020052231020455"},{"poweroffId":2020052231020453,"sgpoweroffId":null,"subsName":"","lineName":"10kV盾高D592线","pubTranName":"中铁十六局集团有限公司3#变,中铁十六局集团有限公司2#盾构机,中铁十六局集团有限公司4#变,中铁十六局集团有限公司1#盾构机,","scope":"浙江省-杭州市-富阳区-银湖街道-中铁十六局集团有限公司","startTime":"2020-06-01 06:30:00","stopDate":"2020-06-01 22:50:00","orgNo":"3340170","typeCode":"计划停电","poweroffArea":"110kV高桥变:盾高D592线","poweroffReason":"配合高桥变10kVII、III段母线停电","powerTime":"2020-06-01 22:37:57","powerComm":"已送电","subsNo":"","lineNo":"","tgNo":"","tgName":null,"infoStatus":"1","orgName":"国网浙江杭州市富阳区供电公司","typeName":null,"infoStatusName":null,"dateDay":null,"orgNos":null,"nowTime":null,"countyName":null,"streetName":null,"villageName":null,"roadName":null,"communityName":null,"tranName":null,"sdLineName":null,"cityCode":"3340170","cityName":"国网浙江杭州市富阳区供电公司","provinceCode":null,"stopTime":"2020-06-01 22:50:00","powerType":"全部","powerOffArea":"110kV高桥变:盾高D592线","powerOffReason":"配合高桥变10kVII、III段母线停电","powerOffId":"2020052231020453"},{"poweroffId":2020052231020451,"sgpoweroffId":null,"subsName":"","lineName":"10kV盾北D591线","pubTranName":"杭州杭富轨道交通有限公司2#变,杭州杭富轨道交通有限公司1#变,杭州杭富轨道交通有限公司3#变,杭州杭富轨道交通有限公司5#变,杭州杭富轨道交通有限公司4#变,","scope":"浙江省-杭州市-富阳区-银湖街道-中铁一局集团城市轨道交通工程有限公司","startTime":"2020-06-01 06:10:00","stopDate":"2020-06-01 22:50:00","orgNo":"3340170","typeCode":"计划停电","poweroffArea":"110kV高桥变:盾北D591线-7#后段","poweroffReason":"配合高桥变10kVII、III段母线停电","powerTime":"2020-06-01 22:37:47","powerComm":"已送电","subsNo":"","lineNo":"","tgNo":"","tgName":null,"infoStatus":"1","orgName":"国网浙江杭州市富阳区供电公司","typeName":null,"infoStatusName":null,"dateDay":null,"orgNos":null,"nowTime":null,"countyName":null,"streetName":null,"villageName":null,"roadName":null,"communityName":null,"tranName":null,"sdLineName":null,"cityCode":"3340170","cityName":"国网浙江杭州市富阳区供电公司","provinceCode":null,"stopTime":"2020-06-01 22:50:00","powerType":"全部","powerOffArea":"110kV高桥变:盾北D591线-7#后段","powerOffReason":"配合高桥变10kVII、III段母线停电","powerOffId":"2020052231020451"},{"poweroffId":2020052231020450,"sgpoweroffId":null,"subsName":"","lineName":"10kV尔园7228线","pubTranName":"春波三变,","scope":"浙江省-杭州市-滨江区-长河街道-江一社区(江陵路,春波路)","startTime":"2020-05-26 09:30:00","stopDate":"2020-05-26 17:00:00","orgNo":"3340101","typeCode":"临时停电","poweroffArea":"110kV江虹变:尔园7228线-春波三变后段","poweroffReason":"(低压停电信息)杭州市滨江区人民政府长河街道办事处长江小区、春波小区加装电梯线路迁改工程（一期）PD2020-04-053-QJ","powerTime":"2020-05-26 16:00:37","powerComm":"已送电","subsNo":"","lineNo":"","tgNo":"","tgName":null,"infoStatus":"1","orgName":"浙江杭州电力客户服务中心","typeName":null,"infoStatusName":null,"dateDay":null,"orgNos":null,"nowTime":null,"countyName":null,"streetName":null,"villageName":null,"roadName":null,"communityName":null,"tranName":null,"sdLineName":null,"cityCode":"3340101","cityName":"浙江杭州电力客户服务中心","provinceCode":null,"stopTime":"2020-05-26 17:00:00","powerType":"全部","powerOffArea":"110kV江虹变:尔园7228线-春波三变后段","powerOffReason":"(低压停电信息)杭州市滨江区人民政府长河街道办事处长江小区、春波小区加装电梯线路迁改工程（一期）PD2020-04-053-QJ","powerOffId":"2020052231020450"},{"poweroffId":2020052231020447,"sgpoweroffId":null,"subsName":"","lineName":"10kV盾北D591线","pubTranName":"浙江省隧道工程集团有限公司1#盾构机,浙江省隧道工程集团有限公司3#变,浙江省隧道工程集团有限公司2#盾构机,","scope":"浙江省-杭州市-富阳区-银湖街道-浙江省隧道工程集团有限公司一带","startTime":"2020-06-01 06:30:00","stopDate":"2020-06-01 22:50:00","orgNo":"3340170","typeCode":"计划停电","poweroffArea":"110kV高桥变:盾北D591线-6#后段","poweroffReason":"配合高桥变10kVII、III段母线停电","powerTime":"2020-06-01 22:37:35","powerComm":"已送电","subsNo":"","lineNo":"","tgNo":"","tgName":null,"infoStatus":"1","orgName":"国网浙江杭州市富阳区供电公司","typeName":null,"infoStatusName":null,"dateDay":null,"orgNos":null,"nowTime":null,"countyName":null,"streetName":null,"villageName":null,"roadName":null,"communityName":null,"tranName":null,"sdLineName":null,"cityCode":"3340170","cityName":"国网浙江杭州市富阳区供电公司","provinceCode":null,"stopTime":"2020-06-01 22:50:00","powerType":"全部","powerOffArea":"110kV高桥变:盾北D591线-6#后段","powerOffReason":"配合高桥变10kVII、III段母线停电","powerOffId":"2020052231020447"},{"poweroffId":2020052231020443,"sgpoweroffId":null,"subsName":"","lineName":"10kV常绿D268线","pubTranName":"黄弹村2号中央村公变,","scope":"浙江省-杭州市-富阳区-常绿镇-黄弹行政村-池头坞自然村一带","startTime":"2020-06-01 12:00:00","stopDate":"2020-06-01 17:10:00","orgNo":"3340170","typeCode":"计划停电","poweroffArea":"35kV盛村变:常绿D268线-黄弹村2号中央村公变开关后段","poweroffReason":"常绿D268线25#杆大章村分线15#杆黄弹支线20#杆黄弹村中支线1#杆黄弹村2#中央村公变更换配电屏一套及更换0.4kv进线电缆一组等工作；","powerTime":"2020-06-01 16:36:14","powerComm":"已送电","subsNo":"","lineNo":"","tgNo":"","tgName":null,"infoStatus":"1","orgName":"国网浙江杭州市富阳区供电公司","typeName":null,"infoStatusName":null,"dateDay":null,"orgNos":null,"nowTime":null,"countyName":null,"streetName":null,"villageName":null,"roadName":null,"communityName":null,"tranName":null,"sdLineName":null,"cityCode":"3340170","cityName":"国网浙江杭州市富阳区供电公司","provinceCode":null,"stopTime":"2020-06-01 17:10:00","powerType":"全部","powerOffArea":"35kV盛村变:常绿D268线-黄弹村2号中央村公变开关后段","powerOffReason":"常绿D268线25#杆大章村分线15#杆黄弹支线20#杆黄弹村中支线1#杆黄弹村2#中央村公变更换配电屏一套及更换0.4kv进线电缆一组等工作；","powerOffId":"2020052231020443"},{"poweroffId":2020052231020441,"sgpoweroffId":null,"subsName":"","lineName":"10kV创园D974线","pubTranName":"科创2号公变,","scope":"浙江省-杭州市-富阳区-银湖街道-银湖科创园一带","startTime":"2020-06-01 13:00:00","stopDate":"2020-06-01 16:30:00","orgNo":"3340170","typeCode":"计划停电","poweroffArea":"110kV九龙变:创园D974线-科创2号公变后段","poweroffReason":"科创2号公变终端检修工作","powerTime":"2020-06-01 16:24:06","powerComm":"已送电","subsNo":"","lineNo":"","tgNo":"","tgName":null,"infoStatus":"1","orgName":"国网浙江杭州市富阳区供电公司","typeName":null,"infoStatusName":null,"dateDay":null,"orgNos":null,"nowTime":null,"countyName":null,"streetName":null,"villageName":null,"roadName":null,"communityName":null,"tranName":null,"sdLineName":null,"cityCode":"3340170","cityName":"国网浙江杭州市富阳区供电公司","provinceCode":null,"stopTime":"2020-06-01 16:30:00","powerType":"全部","powerOffArea":"110kV九龙变:创园D974线-科创2号公变后段","powerOffReason":"科创2号公变终端检修工作","powerOffId":"2020052231020441"},{"poweroffId":2020052231020423,"sgpoweroffId":null,"subsName":"","lineName":"10kV盾五D567线","pubTranName":"杭富轨道5标文创园站3#变,杭富轨道5标文创园站1#盾构机,杭富轨道5标文创园站2#盾构机,","scope":"浙江省-杭州市-富阳区-银湖街道-中铁上海工程局集团有限公司城市轨道交通工程分公司","startTime":"2020-06-01 09:15:00","stopDate":"2020-06-01 16:30:00","orgNo":"3340170","typeCode":"计划停电","poweroffArea":"110kV高桥变:盾五D567线","poweroffReason":"杭州至富阳城际铁路迁改工程：盾五D567线电缆移位，其中制作中间接头1处及电缆核相等工作","powerTime":"2020-06-01 16:23:56","powerComm":"已送电","subsNo":"","lineNo":"","tgNo":"","tgName":null,"infoStatus":"1","orgName":"国网浙江杭州市富阳区供电公司","typeName":null,"infoStatusName":null,"dateDay":null,"orgNos":null,"nowTime":null,"countyName":null,"streetName":null,"villageName":null,"roadName":null,"communityName":null,"tranName":null,"sdLineName":null,"cityCode":"3340170","cityName":"国网浙江杭州市富阳区供电公司","provinceCode":null,"stopTime":"2020-06-01 16:30:00","powerType":"全部","powerOffArea":"110kV高桥变:盾五D567线","powerOffReason":"杭州至富阳城际铁路迁改工程：盾五D567线电缆移位，其中制作中间接头1处及电缆核相等工作","powerOffId":"2020052231020423"},{"poweroffId":2020052231020422,"sgpoweroffId":null,"subsName":"","lineName":"10kV杭园G282线","pubTranName":"杭州余杭公交场站管理有限公司,天猫技术开发区基建（6120882250）01#专变,路灯箱变,杭州市投资开发有限公司,泉漳村西坝公变,天猫技术开发区基建（6120882250）02#专变,杭州余杭公交场站管理有限公司,路灯箱变,泉漳村西坝公变,泉漳村丁家桥公变,泉漳村丁家桥公变,","scope":"浙江省-杭州市-余杭区-东湖街道：泉漳村丁家桥、泉漳村西坝、杭州市开发投资有限公司、浙江天猫技术有限公司、余杭公共交通有限公司一带","startTime":"2020-05-29 09:00:00","stopDate":"2020-05-29 16:40:00","orgNo":"3340140","typeCode":"计划停电","poweroffArea":"110kV渔桥变:杭园G282线首端，杭园G2822开关，杭园G2823开关之间;杭园G282线-杭园G282线投资开发分线跌落式熔断器后段;杭园G282线首端，杭园G2823开关，杭园G2822开关之间","poweroffReason":"配网工程（杭州余杭经济开发建设有限公司道路整修杭园G282线线路迁改工程：新立电杆3基，新放导线3档） 原停电结束时间为2020-05-31 16:40:00,为减少客户停电时间,加快工作进度,提前送电,现变更停电结束时间为2020-05-29 16:40:00","powerTime":"2020-05-29 15:41:00","powerComm":"已送电","subsNo":"","lineNo":"","tgNo":"","tgName":null,"infoStatus":"1","orgName":"国网浙江杭州市余杭区供电有限公司","typeName":null,"infoStatusName":null,"dateDay":null,"orgNos":null,"nowTime":null,"countyName":null,"streetName":null,"villageName":null,"roadName":null,"communityName":null,"tranName":null,"sdLineName":null,"cityCode":"3340140","cityName":"国网浙江杭州市余杭区供电有限公司","provinceCode":null,"stopTime":"2020-05-29 16:40:00","powerType":"全部","powerOffArea":"110kV渔桥变:杭园G282线首端，杭园G2822开关，杭园G2823开关之间;杭园G282线-杭园G282线投资开发分线跌落式熔断器后段;杭园G282线首端，杭园G2823开关，杭园G2822开关之间","powerOffReason":"配网工程（杭州余杭经济开发建设有限公司道路整修杭园G282线线路迁改工程：新立电杆3基，新放导线3档） 原停电结束时间为2020-05-31 16:40:00,为减少客户停电时间,加快工作进度,提前送电,现变更停电结束时间为2020-05-29 16:40:00","powerOffId":"2020052231020422"},{"poweroffId":2020052231020421,"sgpoweroffId":null,"subsName":"","lineName":"10kV艮北7117线","pubTranName":"红(2-1)组,","scope":"浙江省-杭州市-江干区-误彭埠镇(误红五月社区-红普路,误七堡社区-杭海路,误云峰社区-艮山东路)","startTime":"2020-05-22 14:12:59","stopDate":"2020-05-22 16:30:25","orgNo":"3340120","typeCode":"电网故障停限电","poweroffArea":"110kV牛田变:艮北7117线红(2-1)组配变","poweroffReason":"(低压停电信息)低压开关跳闸 原停电结束时间为2020-05-22 17:59:25,为减少客户停电时间,加快工作进度,提前送电,现变更停电结束时间为2020-05-22 16:30:25","powerTime":"2020-05-22 16:01:43","powerComm":"已送电","subsNo":"","lineNo":"","tgNo":"","tgName":null,"infoStatus":"1","orgName":"国网浙江杭州市钱塘新区供电公司","typeName":null,"infoStatusName":null,"dateDay":null,"orgNos":null,"nowTime":null,"countyName":null,"streetName":null,"villageName":null,"roadName":null,"communityName":null,"tranName":null,"sdLineName":null,"cityCode":"3340120","cityName":"国网浙江杭州市钱塘新区供电公司","provinceCode":null,"stopTime":"2020-05-22 16:30:25","powerType":"全部","powerOffArea":"110kV牛田变:艮北7117线红(2-1)组配变","powerOffReason":"(低压停电信息)低压开关跳闸 原停电结束时间为2020-05-22 17:59:25,为减少客户停电时间,加快工作进度,提前送电,现变更停电结束时间为2020-05-22 16:30:25","powerOffId":"2020052231020421"}],"pageModel":{"pageNow":117,"totalCount":17786,"totalPage":1779,"tableRows":0,"pageCount":10,"beginCount":1160},"isExperi":"1"}