{"message":"","today":"2020-06-16","seleList":[{"poweroffId":2019090431020195,"sgpoweroffId":null,"subsName":"","lineName":"10kV新江C536线","pubTranName":"桃北新村18#变,","scope":"浙江省-杭州市-萧山区-浦阳镇-桃北新行政村(小湖孙自然村,横塘倪自然村)，杭州萧山浦阳江建设开发有限公司等一带","startTime":"2019-09-04 12:54:23","stopDate":"2019-09-04 15:54:23","orgNo":"3340130","typeCode":"电网故障停限电","poweroffArea":"35kV径游变:新江C536线-桃北新村18#变低压开关","poweroffReason":"(低压停电信息)低压开关跳闸","powerTime":"2019-09-04 14:57:17","powerComm":"已送电","subsNo":"","lineNo":"","tgNo":"","tgName":null,"infoStatus":"1","orgName":"国网浙江杭州市萧山区供电有限公司","typeName":null,"infoStatusName":null,"dateDay":null,"orgNos":null,"nowTime":null,"countyName":null,"streetName":null,"villageName":null,"roadName":null,"communityName":null,"tranName":null,"sdLineName":null,"cityCode":"3340130","cityName":"国网浙江杭州市萧山区供电有限公司","provinceCode":null,"stopTime":"2019-09-04 15:54:23","powerType":"全部","powerOffArea":"35kV径游变:新江C536线-桃北新村18#变低压开关","powerOffReason":"(低压停电信息)低压开关跳闸","powerOffId":"2019090431020195"},{"poweroffId":2019090431020190,"sgpoweroffId":null,"subsName":"","lineName":"10kV长阳9791线","pubTranName":"清苑（一）,","scope":"浙江省杭州市西湖区都市水乡水清苑9幢、8幢附近一带用户及商铺","startTime":"2019-09-12 09:00:00","stopDate":"2019-09-12 13:30:00","orgNo":"3340101","typeCode":"计划停电","poweroffArea":"110kV红旗变:长阳9791线-清苑（一）后段","poweroffReason":"(低压停电信息)2019年杭州市区陆家圩社区水清苑公变增容布点及低压台区改造工程（古墩）清苑（一）变低压改造;原停电结束时间为 14:00,为减少客户停电时间,加快工作进度,提前送电,现变更停电结束时间为 13:30。","powerTime":"2019-09-12 12:43:59","powerComm":"已送电","subsNo":"","lineNo":"","tgNo":"","tgName":null,"infoStatus":"1","orgName":"浙江杭州电力客户服务中心","typeName":null,"infoStatusName":null,"dateDay":null,"orgNos":null,"nowTime":null,"countyName":null,"streetName":null,"villageName":null,"roadName":null,"communityName":null,"tranName":null,"sdLineName":null,"cityCode":"3340101","cityName":"浙江杭州电力客户服务中心","provinceCode":null,"stopTime":"2019-09-12 13:30:00","powerType":"全部","powerOffArea":"110kV红旗变:长阳9791线-清苑（一）后段","powerOffReason":"(低压停电信息)2019年杭州市区陆家圩社区水清苑公变增容布点及低压台区改造工程（古墩）清苑（一）变低压改造;原停电结束时间为 14:00,为减少客户停电时间,加快工作进度,提前送电,现变更停电结束时间为 13:30。","powerOffId":"2019090431020190"},{"poweroffId":2019090431020172,"sgpoweroffId":null,"subsName":"","lineName":"10kV岭后Y101线","pubTranName":"岭后社区朱家埠台区,","scope":"浙江省-杭州市-建德市-新安江街道-岭后社区-朱家埠自然村，沁雅山庄，杭州全江新台有限公司一带用户。","startTime":"2019-09-04 10:35:00","stopDate":"2019-09-04 13:30:00","orgNo":"3340180","typeCode":"电网故障停限电","poweroffArea":"110kV新安江变:岭后Y101线-岭后社区朱家埠台区后段","poweroffReason":"(低压停电信息)砍伐树木导致低压线路断线 （原预计停电结束时间14:00，由于施工现场环境比较复杂，存在不确定因素，因此预估施工时间适当放长了，目前故障已修复，现将停电时间变更至13:30。）","powerTime":"2019-09-04 12:51:00","powerComm":"已送电","subsNo":"","lineNo":"","tgNo":"","tgName":null,"infoStatus":"1","orgName":"国网浙江建德市供电有限公司","typeName":null,"infoStatusName":null,"dateDay":null,"orgNos":null,"nowTime":null,"countyName":null,"streetName":null,"villageName":null,"roadName":null,"communityName":null,"tranName":null,"sdLineName":null,"cityCode":"3340180","cityName":"国网浙江建德市供电有限公司","provinceCode":null,"stopTime":"2019-09-04 13:30:00","powerType":"全部","powerOffArea":"110kV新安江变:岭后Y101线-岭后社区朱家埠台区后段","powerOffReason":"(低压停电信息)砍伐树木导致低压线路断线 （原预计停电结束时间14:00，由于施工现场环境比较复杂，存在不确定因素，因此预估施工时间适当放长了，目前故障已修复，现将停电时间变更至13:30。）","powerOffId":"2019090431020172"},{"poweroffId":2019090431020164,"sgpoweroffId":null,"subsName":"","lineName":"10kV江曹A525线","pubTranName":"曹坞村4#变,","scope":"浙江省-杭州市-萧山区-浦阳镇-曹坞行政村-上曹坞自然村，浙江省杭州市萧山区浦阳镇曹坞村等一带","startTime":"2019-09-04 10:30:53","stopDate":"2019-09-04 11:43:53","orgNo":"3340130","typeCode":"电网故障停限电","poweroffArea":"110kV浦阳变:江曹A525线-曹坞村4#变低压开关","poweroffReason":"(低压停电信息)低压开关跳闸","powerTime":"2019-09-04 11:37:18","powerComm":"已送电","subsNo":"","lineNo":"","tgNo":"","tgName":null,"infoStatus":"1","orgName":"国网浙江杭州市萧山区供电有限公司","typeName":null,"infoStatusName":null,"dateDay":null,"orgNos":null,"nowTime":null,"countyName":null,"streetName":null,"villageName":null,"roadName":null,"communityName":null,"tranName":null,"sdLineName":null,"cityCode":"3340130","cityName":"国网浙江杭州市萧山区供电有限公司","provinceCode":null,"stopTime":"2019-09-04 11:43:53","powerType":"全部","powerOffArea":"110kV浦阳变:江曹A525线-曹坞村4#变低压开关","powerOffReason":"(低压停电信息)低压开关跳闸","powerOffId":"2019090431020164"},{"poweroffId":2019090431020148,"sgpoweroffId":null,"subsName":"","lineName":"10kV樱多A085线","pubTranName":"工农村18#变,工农村4#变,杭州建邦助剂有限公司,工农村14#变,工农村16#变,杭州市萧山区瓜沥镇人民政府10#,杭州顺吉机械配件厂,杭州凤恒塑料制品有限公司,杭州浩发制冷配件厂,杭州先盛电子有限公司,杭州钢强液压机械厂,杭州广亚装饰有限公司,浙江大行建设有限公司变压器,杭州建鼎机械有限公司,工农村21#变,工农村1#变,1#变,杭州新晟禾实业有限公司,工农村19#变,杭州朱胜化纤有限公司变压器间隔配电变压器,杭州荣祖电器有限公司,杭州萧山灯泡加工厂,工农村10#变,杭州一波机械有限公司,杭州振丰科技有限公司,杭州联欣机械有限公司,杭州樱多电器有限公司,1#变,工农村22#变,","scope":"浙江省-杭州市-萧山区-瓜沥镇-工农行政村(八柯线路,工农自然村,戴家路,牧场路,工新路,上山路,小桥板路,长池头路,建设四路,小农场一路,小池头路);瓜沥镇-工农行政村(杭州钢强液压机械厂,杭州新晟禾实业有限公司,杭州一波机械有限公司,杭州联欣机械有限公司,杭州凤恒塑料制品有限公司,杭州浩发制冷配件厂,杭州樱多电器有限公司,杭州萧山灯泡加工厂,杭州先盛电子有限公司,浙江大行建设有限公司,杭州顺吉机械有限公司,杭州萧山利雅汽车配件厂(普通合伙),杭州振丰科技有限公司,杭州荣祖电器有限公司,杭州建鼎机械有限公司,杭州广亚装饰有限公司,杭州市萧山区瓜沥镇人民政府,杭州朱胜化纤有限公司,杭州宁扬机械有限公司)","startTime":"2019-09-12 09:00:00","stopDate":"2019-09-12 10:30:00","orgNo":"3340130","typeCode":"计划停电","poweroffArea":"110kV航坞变:樱多A085线首端，樱多A0852开关，樱多A0853开关之间","poweroffReason":"樱多A085线26-26/01#杆导线拆断，26/01#杆负荷割接至工农A071线12#杆后段","powerTime":"2019-09-12 10:15:34","powerComm":"已送电","subsNo":"","lineNo":"","tgNo":"","tgName":null,"infoStatus":"1","orgName":"国网浙江杭州市萧山区供电有限公司","typeName":null,"infoStatusName":null,"dateDay":null,"orgNos":null,"nowTime":null,"countyName":null,"streetName":null,"villageName":null,"roadName":null,"communityName":null,"tranName":null,"sdLineName":null,"cityCode":"3340130","cityName":"国网浙江杭州市萧山区供电有限公司","provinceCode":null,"stopTime":"2019-09-12 10:30:00","powerType":"全部","powerOffArea":"110kV航坞变:樱多A085线首端，樱多A0852开关，樱多A0853开关之间","powerOffReason":"樱多A085线26-26/01#杆导线拆断，26/01#杆负荷割接至工农A071线12#杆后段","powerOffId":"2019090431020148"},{"poweroffId":2019090431020141,"sgpoweroffId":null,"subsName":"","lineName":"10kV安镇Y331线","pubTranName":"安仁村安仁台区,","scope":"浙江省-杭州市-建德市-乾潭镇-安仁行政村-安仁自然村，安仁工业园区一带用户。","startTime":"2019-09-04 10:04:00","stopDate":"2019-09-04 12:30:00","orgNo":"3340180","typeCode":"电网故障停限电","poweroffArea":"110kV钦堂变:安镇Y331线-安仁村安仁台区后段","poweroffReason":"(低压停电信息)低压开关跳闸","powerTime":"2019-09-04 11:40:00","powerComm":"已送电（实际是一户停电）","subsNo":"","lineNo":"","tgNo":"","tgName":null,"infoStatus":"1","orgName":"国网浙江建德市供电有限公司","typeName":null,"infoStatusName":null,"dateDay":null,"orgNos":null,"nowTime":null,"countyName":null,"streetName":null,"villageName":null,"roadName":null,"communityName":null,"tranName":null,"sdLineName":null,"cityCode":"3340180","cityName":"国网浙江建德市供电有限公司","provinceCode":null,"stopTime":"2019-09-04 12:30:00","powerType":"全部","powerOffArea":"110kV钦堂变:安镇Y331线-安仁村安仁台区后段","powerOffReason":"(低压停电信息)低压开关跳闸","powerOffId":"2019090431020141"},{"poweroffId":2019090431020138,"sgpoweroffId":null,"subsName":"","lineName":"10kV胜达C623线","pubTranName":"新盛村30#变,","scope":"浙江省-杭州市-萧山区-新街街道-新街镇-新盛村，新盛行政村-新盛自然村等一带","startTime":"2019-09-04 10:07:17","stopDate":"2019-09-04 12:10:17","orgNo":"3340130","typeCode":"电网故障停限电","poweroffArea":"110kV新街变:胜达C623线-新盛村30#变台区低压开关","poweroffReason":"(低压停电信息)低压漏电保护器短路故障","powerTime":"2019-09-04 11:14:25","powerComm":"已送电","subsNo":"","lineNo":"","tgNo":"","tgName":null,"infoStatus":"1","orgName":"国网浙江杭州市萧山区供电有限公司","typeName":null,"infoStatusName":null,"dateDay":null,"orgNos":null,"nowTime":null,"countyName":null,"streetName":null,"villageName":null,"roadName":null,"communityName":null,"tranName":null,"sdLineName":null,"cityCode":"3340130","cityName":"国网浙江杭州市萧山区供电有限公司","provinceCode":null,"stopTime":"2019-09-04 12:10:17","powerType":"全部","powerOffArea":"110kV新街变:胜达C623线-新盛村30#变台区低压开关","powerOffReason":"(低压停电信息)低压漏电保护器短路故障","powerOffId":"2019090431020138"},{"poweroffId":2019090431020128,"sgpoweroffId":null,"subsName":"","lineName":"10kV快城G991线","pubTranName":"杭州市余杭区临平街道中心幼儿园315配变,临平开发区管委会2#路灯变,司马路灯变,","scope":"浙江省杭州市余杭区东湖街道：坤鑫置业、开发区管委会2号路灯、司马路路灯、临平街道中心幼儿园、临平街道中心幼儿园顺达花园分园一带","startTime":"2019-09-14 09:30:00","stopDate":"2019-09-14 11:30:00","orgNo":"3340140","typeCode":"计划停电","poweroffArea":"110kV茅山变:快城G991线-司马埭分支箱分线后段。原停电结束时间为2019-09-14 12:30:00,为减少客户停电时间,加快工作进度,提前送电,现变更停电结束时间为2019-09-14 11:30:00","poweroffReason":"美孚房产基建分线拆除1#杆至7#杆导线及司马埭分支箱、拆除美孚房产基建分线电缆1根 原停电结束时间为2019-09-14 12:30:00,为减少客户停电时间,加快工作进度,提前送电,现变更停电结束时间为2019-09-14 11:30:00","powerTime":"2019-09-14 10:50:41","powerComm":"完成工作，已送电。","subsNo":"","lineNo":"","tgNo":"","tgName":null,"infoStatus":"1","orgName":"国网浙江杭州市余杭区供电有限公司","typeName":null,"infoStatusName":null,"dateDay":null,"orgNos":null,"nowTime":null,"countyName":null,"streetName":null,"villageName":null,"roadName":null,"communityName":null,"tranName":null,"sdLineName":null,"cityCode":"3340140","cityName":"国网浙江杭州市余杭区供电有限公司","provinceCode":null,"stopTime":"2019-09-14 11:30:00","powerType":"全部","powerOffArea":"110kV茅山变:快城G991线-司马埭分支箱分线后段。原停电结束时间为2019-09-14 12:30:00,为减少客户停电时间,加快工作进度,提前送电,现变更停电结束时间为2019-09-14 11:30:00","powerOffReason":"美孚房产基建分线拆除1#杆至7#杆导线及司马埭分支箱、拆除美孚房产基建分线电缆1根 原停电结束时间为2019-09-14 12:30:00,为减少客户停电时间,加快工作进度,提前送电,现变更停电结束时间为2019-09-14 11:30:00","powerOffId":"2019090431020128"},{"poweroffId":2019090431020113,"sgpoweroffId":null,"subsName":"","lineName":"10kV宅里T330线","pubTranName":"深畈庄头1号公变,","scope":"浙江省-杭州市-桐庐县-横村镇-横村行政村-深畈自然村","startTime":"2019-09-04 09:34:48","stopDate":"2019-09-04 10:56:48","orgNo":"3340150","typeCode":"电网故障停限电","poweroffArea":"110kV横村变:宅里T330线-深畈庄头1号公变后段","poweroffReason":"高压开关跳闸","powerTime":"2019-09-04 10:30:25","powerComm":"已送电","subsNo":"","lineNo":"","tgNo":"","tgName":null,"infoStatus":"1","orgName":"国网浙江桐庐县供电公司","typeName":null,"infoStatusName":null,"dateDay":null,"orgNos":null,"nowTime":null,"countyName":null,"streetName":null,"villageName":null,"roadName":null,"communityName":null,"tranName":null,"sdLineName":null,"cityCode":"3340150","cityName":"国网浙江桐庐县供电公司","provinceCode":null,"stopTime":"2019-09-04 10:56:48","powerType":"全部","powerOffArea":"110kV横村变:宅里T330线-深畈庄头1号公变后段","powerOffReason":"高压开关跳闸","powerOffId":"2019090431020113"},{"poweroffId":2019090431020094,"sgpoweroffId":null,"subsName":"","lineName":"10kV白郎7265线","pubTranName":"河口孙二,","scope":"浙江省-杭州市-滨江区-长河街道-汤家井社区-汤家井，浙江省杭州市滨江区汤家井合作医疗站周边。","startTime":"2019-09-16 09:30:00","stopDate":"2019-09-16 11:30:00","orgNo":"3340101","typeCode":"计划停电","poweroffArea":"110kV白马变:白郎7265线-河口孙二后段","poweroffReason":"(低压停电信息)非居移表","powerTime":"2019-09-16 10:32:59","powerComm":"已送电","subsNo":"","lineNo":"","tgNo":"","tgName":null,"infoStatus":"1","orgName":"浙江杭州电力客户服务中心","typeName":null,"infoStatusName":null,"dateDay":null,"orgNos":null,"nowTime":null,"countyName":null,"streetName":null,"villageName":null,"roadName":null,"communityName":null,"tranName":null,"sdLineName":null,"cityCode":"3340101","cityName":"浙江杭州电力客户服务中心","provinceCode":null,"stopTime":"2019-09-16 11:30:00","powerType":"全部","powerOffArea":"110kV白马变:白郎7265线-河口孙二后段","powerOffReason":"(低压停电信息)非居移表","powerOffId":"2019090431020094"}],"pageModel":{"pageNow":1155,"totalCount":17789,"totalPage":1779,"tableRows":0,"pageCount":10,"beginCount":11540},"isExperi":"1"}