{"message":"","today":"2020-06-16","seleList":[{"poweroffId":2019090431020092,"sgpoweroffId":null,"subsName":"","lineName":"10kV石门C162线","pubTranName":"河西村4#变,河西村6#变,","scope":"浙江省-杭州市-萧山区-义桥镇-河西行政村(河西址自然村,杨家浜自然村,河西自然村,后河西址自然村)等一带","startTime":"2019-09-04 08:42:42","stopDate":"2019-09-04 14:30:42","orgNo":"3340130","typeCode":"电网故障停限电","poweroffArea":"110kV许贤变:石门C162线河西村6#变，河西村4#变低压开关","poweroffReason":"(低压停电信息)低压开关跳闸 原停电结束时间：2019-09-04 17:30，变更停电结束时间：2019-09-04 14:30，由于增派人员，抢修提前完成，故需要提前送电。","powerTime":"2019-09-04 14:02:41","powerComm":"已送电","subsNo":"","lineNo":"","tgNo":"","tgName":null,"infoStatus":"1","orgName":"国网浙江杭州市萧山区供电有限公司","typeName":null,"infoStatusName":null,"dateDay":null,"orgNos":null,"nowTime":null,"countyName":null,"streetName":null,"villageName":null,"roadName":null,"communityName":null,"tranName":null,"sdLineName":null,"cityCode":"3340130","cityName":"国网浙江杭州市萧山区供电有限公司","provinceCode":null,"stopTime":"2019-09-04 14:30:42","powerType":"全部","powerOffArea":"110kV许贤变:石门C162线河西村6#变，河西村4#变低压开关","powerOffReason":"(低压停电信息)低压开关跳闸 原停电结束时间：2019-09-04 17:30，变更停电结束时间：2019-09-04 14:30，由于增派人员，抢修提前完成，故需要提前送电。","powerOffId":"2019090431020092"},{"poweroffId":2019090431020088,"sgpoweroffId":null,"subsName":"","lineName":"10kV八甲8387线","pubTranName":"沙虞一,","scope":"浙江省-杭州市-滨江区-浦沿街道-新生社区-新生路， 浙江省杭州市滨江区新生社区沙浪虞一带。","startTime":"2019-09-19 09:30:00","stopDate":"2019-09-19 11:30:00","orgNo":"3340101","typeCode":"计划停电","poweroffArea":"110kV新生变:八甲8387线-沙虞一后段","poweroffReason":"(低压停电信息)居民增容","powerTime":"2019-09-19 10:39:59","powerComm":"已送电","subsNo":"","lineNo":"","tgNo":"","tgName":null,"infoStatus":"1","orgName":"浙江杭州电力客户服务中心","typeName":null,"infoStatusName":null,"dateDay":null,"orgNos":null,"nowTime":null,"countyName":null,"streetName":null,"villageName":null,"roadName":null,"communityName":null,"tranName":null,"sdLineName":null,"cityCode":"3340101","cityName":"浙江杭州电力客户服务中心","provinceCode":null,"stopTime":"2019-09-19 11:30:00","powerType":"全部","powerOffArea":"110kV新生变:八甲8387线-沙虞一后段","powerOffReason":"(低压停电信息)居民增容","powerOffId":"2019090431020088"},{"poweroffId":2019090431020080,"sgpoweroffId":null,"subsName":"","lineName":"10kV紫薇8990线","pubTranName":"百合一变,","scope":"浙江省-杭州市-滨江区-长河街道-中兴社区-江汉路浙江省杭州市滨江区中兴花园百合苑66幢2单元住宅，66幢地下车库主供，66幢2单元主供，新月路370-382号商铺。","startTime":"2019-09-12 09:00:00","stopDate":"2019-09-12 11:20:00","orgNo":"3340101","typeCode":"计划停电","poweroffArea":"110kV江一变:紫薇8990线-百合一变后段","poweroffReason":"(低压停电信息)非居增容.原停电结束时间为12:30，为减少客户停电时间，加快工作进度，提前送电，现变更停电结束时间为11:20.","powerTime":"2019-09-12 10:51:59","powerComm":"已送电","subsNo":"","lineNo":"","tgNo":"","tgName":null,"infoStatus":"1","orgName":"浙江杭州电力客户服务中心","typeName":null,"infoStatusName":null,"dateDay":null,"orgNos":null,"nowTime":null,"countyName":null,"streetName":null,"villageName":null,"roadName":null,"communityName":null,"tranName":null,"sdLineName":null,"cityCode":"3340101","cityName":"浙江杭州电力客户服务中心","provinceCode":null,"stopTime":"2019-09-12 11:20:00","powerType":"全部","powerOffArea":"110kV江一变:紫薇8990线-百合一变后段","powerOffReason":"(低压停电信息)非居增容.原停电结束时间为12:30，为减少客户停电时间，加快工作进度，提前送电，现变更停电结束时间为11:20.","powerOffId":"2019090431020080"},{"poweroffId":2019090431020065,"sgpoweroffId":null,"subsName":"","lineName":"10kV沙湾T185线","pubTranName":"江景公寓1号公变,","scope":"浙江省-杭州市-桐庐县-富春江镇(大洋坪社区-扬帆路,横山行政村-盛家自然村)","startTime":"2019-09-04 08:45:30","stopDate":"2019-09-04 13:32:30","orgNo":"3340150","typeCode":"电网故障停限电","poweroffArea":"110kV外董变:沙湾T185线-江景公寓1号公变后段","poweroffReason":"高压开关跳闸","powerTime":"2019-09-04 13:18:35","powerComm":"全部送电","subsNo":"","lineNo":"","tgNo":"","tgName":null,"infoStatus":"1","orgName":"国网浙江桐庐县供电公司","typeName":null,"infoStatusName":null,"dateDay":null,"orgNos":null,"nowTime":null,"countyName":null,"streetName":null,"villageName":null,"roadName":null,"communityName":null,"tranName":null,"sdLineName":null,"cityCode":"3340150","cityName":"国网浙江桐庐县供电公司","provinceCode":null,"stopTime":"2019-09-04 13:32:30","powerType":"全部","powerOffArea":"110kV外董变:沙湾T185线-江景公寓1号公变后段","powerOffReason":"高压开关跳闸","powerOffId":"2019090431020065"},{"poweroffId":2019090431020063,"sgpoweroffId":null,"subsName":"","lineName":"10kV石大G919线","pubTranName":"杭浦高速杭州北收费站,水西闻家洋公变,和睦13组1号公变,","scope":"浙江省-杭州市-余杭区-乔司街道-和睦桥行政村-八字桥自然村;乔司街道-浙江杭浦高速公路有限公司","startTime":"2019-09-04 08:28:00","stopDate":"2019-09-04 11:28:00","orgNo":"3340140","typeCode":"电网故障停限电","poweroffArea":"110kV庙港变:石大G919线收费站分线开关后段","poweroffReason":"高压开关跳闸","powerTime":"2019-09-04 10:55:00","powerComm":"已送电","subsNo":"","lineNo":"","tgNo":"","tgName":null,"infoStatus":"1","orgName":"国网浙江杭州市余杭区供电有限公司","typeName":null,"infoStatusName":null,"dateDay":null,"orgNos":null,"nowTime":null,"countyName":null,"streetName":null,"villageName":null,"roadName":null,"communityName":null,"tranName":null,"sdLineName":null,"cityCode":"3340140","cityName":"国网浙江杭州市余杭区供电有限公司","provinceCode":null,"stopTime":"2019-09-04 11:28:00","powerType":"全部","powerOffArea":"110kV庙港变:石大G919线收费站分线开关后段","powerOffReason":"高压开关跳闸","powerOffId":"2019090431020063"},{"poweroffId":2019090431020052,"sgpoweroffId":null,"subsName":"","lineName":"10kV保险C118线","pubTranName":"城河公变,","scope":"浙江省-杭州市-萧山区-城厢街道-百尺溇社区(人民路,陈家弄),城厢街道-藕湖浜社区(人民路,萧然南路),城厢街道-江寺社区(城河街,人民路,文化路,江寺路)、小朱家弄4号、人民路160号、203号、221号、223号、225号、237号、195号、117号、217号、229-4号、241-243号、城河街112号、115-117号、110-111号、98号、包家弄3楼、张家弄1-6幢、萧然南路156号、江寺路105号、地税、东张家弄1-6幢一带","startTime":"2019-09-04 08:48:14","stopDate":"2019-09-04 16:30:00","orgNo":"3340130","typeCode":"电网故障停限电","poweroffArea":"110kV丽都变:保险C118线-城河公变后段","poweroffReason":"新上变压器","powerTime":"2019-09-04 16:24:52","powerComm":"已送电","subsNo":"","lineNo":"","tgNo":"","tgName":null,"infoStatus":"1","orgName":"国网浙江杭州市萧山区供电有限公司","typeName":null,"infoStatusName":null,"dateDay":null,"orgNos":null,"nowTime":null,"countyName":null,"streetName":null,"villageName":null,"roadName":null,"communityName":null,"tranName":null,"sdLineName":null,"cityCode":"3340130","cityName":"国网浙江杭州市萧山区供电有限公司","provinceCode":null,"stopTime":"2019-09-04 16:30:00","powerType":"全部","powerOffArea":"110kV丽都变:保险C118线-城河公变后段","powerOffReason":"新上变压器","powerOffId":"2019090431020052"},{"poweroffId":2019090331020313,"sgpoweroffId":null,"subsName":"","lineName":"10kV环塘A601线","pubTranName":"杭州恒成制衣有限公司,杭州豪胜时装有限公司,伊璐玖商务酒店,豪胜时装,","scope":"浙江省-杭州市-萧山区-新塘街道-畈里童社区(杭州豪胜时装有限公司,杭州恒成制衣有限公司,杭州伊璐玖商务酒店有限公司)","startTime":"2019-09-11 08:30:00","stopDate":"2019-09-11 15:30:00","orgNo":"3340130","typeCode":"计划停电","poweroffArea":"110kV城东变:环塘A601线-环南分线后段","poweroffReason":"柳羽开G15环南分支箱电缆改接至文华开G12间隔","powerTime":"2019-09-11 15:04:36","powerComm":"已送电","subsNo":"","lineNo":"","tgNo":"","tgName":null,"infoStatus":"1","orgName":"国网浙江杭州市萧山区供电有限公司","typeName":null,"infoStatusName":null,"dateDay":null,"orgNos":null,"nowTime":null,"countyName":null,"streetName":null,"villageName":null,"roadName":null,"communityName":null,"tranName":null,"sdLineName":null,"cityCode":"3340130","cityName":"国网浙江杭州市萧山区供电有限公司","provinceCode":null,"stopTime":"2019-09-11 15:30:00","powerType":"全部","powerOffArea":"110kV城东变:环塘A601线-环南分线后段","powerOffReason":"柳羽开G15环南分支箱电缆改接至文华开G12间隔","powerOffId":"2019090331020313"},{"poweroffId":2019090331020302,"sgpoweroffId":null,"subsName":"","lineName":"10kV陶春H558线","pubTranName":"前溪村袁家公变,","scope":"浙江省-杭州市-余杭区-径山镇-前溪行政村(前溪自然村,袁家桥自然村,秦家墩自然村)一带","startTime":"2019-09-03 20:11:00","stopDate":"2019-09-03 23:30:00","orgNo":"3340140","typeCode":"电网故障停限电","poweroffArea":"110kV潘板变:陶春H558线-前溪村袁家公变后段","poweroffReason":"(低压停电信息)低压开关跳闸","powerTime":"2019-09-03 22:35:00","powerComm":"已送电","subsNo":"","lineNo":"","tgNo":"","tgName":null,"infoStatus":"1","orgName":"国网浙江杭州市余杭区供电有限公司","typeName":null,"infoStatusName":null,"dateDay":null,"orgNos":null,"nowTime":null,"countyName":null,"streetName":null,"villageName":null,"roadName":null,"communityName":null,"tranName":null,"sdLineName":null,"cityCode":"3340140","cityName":"国网浙江杭州市余杭区供电有限公司","provinceCode":null,"stopTime":"2019-09-03 23:30:00","powerType":"全部","powerOffArea":"110kV潘板变:陶春H558线-前溪村袁家公变后段","powerOffReason":"(低压停电信息)低压开关跳闸","powerOffId":"2019090331020302"},{"poweroffId":2019090331020298,"sgpoweroffId":null,"subsName":"","lineName":"10kV化纤G152线","pubTranName":"杭州众望化纤有限公司,众望布艺,欧利雅特纺织2#,杭州众望化纤有限公司,欧利雅特纺织,杭州崇钢集团,","scope":"浙江省-杭州市-余杭区-崇贤街道-沿山行政村(众望布艺股份有限公司,杭州众望化纤有限公司)一带","startTime":"2019-09-03 19:54:00","stopDate":"2019-09-03 23:00:00","orgNo":"3340140","typeCode":"电网故障停限电","poweroffArea":"35kV南山变:化纤G152线","poweroffReason":"高压开关跳闸","powerTime":"2019-09-03 22:43:44","powerComm":"已修复","subsNo":"","lineNo":"","tgNo":"","tgName":null,"infoStatus":"1","orgName":"国网浙江杭州市余杭区供电有限公司","typeName":null,"infoStatusName":null,"dateDay":null,"orgNos":null,"nowTime":null,"countyName":null,"streetName":null,"villageName":null,"roadName":null,"communityName":null,"tranName":null,"sdLineName":null,"cityCode":"3340140","cityName":"国网浙江杭州市余杭区供电有限公司","provinceCode":null,"stopTime":"2019-09-03 23:00:00","powerType":"全部","powerOffArea":"35kV南山变:化纤G152线","powerOffReason":"高压开关跳闸","powerOffId":"2019090331020298"},{"poweroffId":2019090331020297,"sgpoweroffId":null,"subsName":"","lineName":"10kV白众A707线","pubTranName":"东方村12#变,","scope":"浙江省-杭州市-萧山区-瓜沥镇-东方行政村-东方自然村、瓜沥镇东方村、瓜沥镇东方村2组一带","startTime":"2019-09-03 19:45:32","stopDate":"2019-09-03 20:50:32","orgNo":"3340130","typeCode":"电网故障停限电","poweroffArea":"110kV白川变:白众A707线-东方村12#变台区低压开关","poweroffReason":"(低压停电信息)低压漏电保护器短路故障","powerTime":"2019-09-03 20:20:10","powerComm":"已送电","subsNo":"","lineNo":"","tgNo":"","tgName":null,"infoStatus":"1","orgName":"国网浙江杭州市萧山区供电有限公司","typeName":null,"infoStatusName":null,"dateDay":null,"orgNos":null,"nowTime":null,"countyName":null,"streetName":null,"villageName":null,"roadName":null,"communityName":null,"tranName":null,"sdLineName":null,"cityCode":"3340130","cityName":"国网浙江杭州市萧山区供电有限公司","provinceCode":null,"stopTime":"2019-09-03 20:50:32","powerType":"全部","powerOffArea":"110kV白川变:白众A707线-东方村12#变台区低压开关","powerOffReason":"(低压停电信息)低压漏电保护器短路故障","powerOffId":"2019090331020297"}],"pageModel":{"pageNow":1156,"totalCount":17789,"totalPage":1779,"tableRows":0,"pageCount":10,"beginCount":11550},"isExperi":"1"}