{"message":"","today":"2020-06-15","seleList":[{"poweroffId":2020052231020420,"sgpoweroffId":null,"subsName":"","lineName":"10kV地平G967线","pubTranName":"艺新制线,蝉源纺织品,生泰养殖公司,老板（一）,运河镇螺蛳桥村江水湾公变,老板（二）,运河街道明智村宋家河农用变,","scope":"浙江省-杭州市-余杭区-运河街道：艺新制线xian、杭州老板电器有限公司、江水湾、蝉源纺织品、道家圩村、生泰养殖公司一带","startTime":"2020-05-30 08:40:00","stopDate":"2020-05-30 15:00:00","orgNo":"3340140","typeCode":"计划停电","poweroffArea":"110kV博陆变:地平G967线-江水湾分线开关后段","poweroffReason":"配网工程（2020年杭州余杭公司东湖10kV铁铺G990线等配电线路整治工程：江水湾分线8#杆至11#杆调换导线及电杆） 为减少客户停电时间,加快工作进度,提前送电,现变更停电结束时间为2020-05-30 15:00:00","powerTime":"2020-05-30 14:22:27","powerComm":"已送电","subsNo":"","lineNo":"","tgNo":"","tgName":null,"infoStatus":"1","orgName":"国网浙江杭州市余杭区供电有限公司","typeName":null,"infoStatusName":null,"dateDay":null,"orgNos":null,"nowTime":null,"countyName":null,"streetName":null,"villageName":null,"roadName":null,"communityName":null,"tranName":null,"sdLineName":null,"cityCode":"3340140","cityName":"国网浙江杭州市余杭区供电有限公司","provinceCode":null,"stopTime":"2020-05-30 15:00:00","powerType":"全部","powerOffArea":"110kV博陆变:地平G967线-江水湾分线开关后段","powerOffReason":"配网工程（2020年杭州余杭公司东湖10kV铁铺G990线等配电线路整治工程：江水湾分线8#杆至11#杆调换导线及电杆） 为减少客户停电时间,加快工作进度,提前送电,现变更停电结束时间为2020-05-30 15:00:00","powerOffId":"2020052231020420"},{"poweroffId":2020052231020415,"sgpoweroffId":null,"subsName":"","lineName":"10kV下干D385线","pubTranName":"常南村2号洪家公变,","scope":"浙江省-杭州市-富阳区-湖源乡-常南村一带","startTime":"2020-06-02 08:30:00","stopDate":"2020-06-02 14:00:00","orgNo":"3340170","typeCode":"计划停电","poweroffArea":"35kV湖源变:下干D385线-常南村2号洪家公变低压开关后段","poweroffReason":"(低压停电信息)常南村2#洪家公变2#出线3#杆-8#杆之间新立电杆4支，拆除电杆4支，拆移导线5档，横担安装、拉线制作及线路搭头等工作。","powerTime":"2020-06-02 13:50:12","powerComm":"已送电","subsNo":"","lineNo":"","tgNo":"","tgName":null,"infoStatus":"1","orgName":"国网浙江杭州市富阳区供电公司","typeName":null,"infoStatusName":null,"dateDay":null,"orgNos":null,"nowTime":null,"countyName":null,"streetName":null,"villageName":null,"roadName":null,"communityName":null,"tranName":null,"sdLineName":null,"cityCode":"3340170","cityName":"国网浙江杭州市富阳区供电公司","provinceCode":null,"stopTime":"2020-06-02 14:00:00","powerType":"全部","powerOffArea":"35kV湖源变:下干D385线-常南村2号洪家公变低压开关后段","powerOffReason":"(低压停电信息)常南村2#洪家公变2#出线3#杆-8#杆之间新立电杆4支，拆除电杆4支，拆移导线5档，横担安装、拉线制作及线路搭头等工作。","powerOffId":"2020052231020415"},{"poweroffId":2020052231020414,"sgpoweroffId":null,"subsName":"","lineName":"10kV环联D788线","pubTranName":"环三村5号假山沙田头公变,杭州富阳纸筒芯厂,","scope":"浙江省-杭州市-富阳区-环山乡-环三行政村-假山自然村;浙江省-杭州市-富阳区-环山乡-环三行政村-杭州富阳纸筒芯厂","startTime":"2020-05-22 14:02:59","stopDate":"2020-05-22 17:00:59","orgNo":"3340170","typeCode":"电网故障停限电","poweroffArea":"110kV王洲变:环联D788线-假山分线8#杆开关后段","poweroffReason":"高压开关跳闸","powerTime":"2020-05-22 16:03:00","powerComm":"已送电","subsNo":"","lineNo":"","tgNo":"","tgName":null,"infoStatus":"1","orgName":"国网浙江杭州市富阳区供电公司","typeName":null,"infoStatusName":null,"dateDay":null,"orgNos":null,"nowTime":null,"countyName":null,"streetName":null,"villageName":null,"roadName":null,"communityName":null,"tranName":null,"sdLineName":null,"cityCode":"3340170","cityName":"国网浙江杭州市富阳区供电公司","provinceCode":null,"stopTime":"2020-05-22 17:00:59","powerType":"全部","powerOffArea":"110kV王洲变:环联D788线-假山分线8#杆开关后段","powerOffReason":"高压开关跳闸","powerOffId":"2020052231020414"},{"poweroffId":2020052231020411,"sgpoweroffId":null,"subsName":"","lineName":"10kV洪庄D292线","pubTranName":"虎尾坞村2#里公变,","scope":"浙江省-杭州市-富阳区-银湖街道(新生行政村-虎尾坞自然村,虎尾坞行政村-虎尾坞自然村)","startTime":"2020-06-04 13:30:00","stopDate":"2020-06-04 15:10:00","orgNo":"3340170","typeCode":"计划停电","poweroffArea":"35kV新义变:洪庄D292线-虎尾坞村2#里公变低压开关后段","poweroffReason":"(低压停电信息)吊车拔立电杆1支、单横担拆装1组、等工作","powerTime":"2020-06-04 14:56:03","powerComm":"已送电","subsNo":"","lineNo":"","tgNo":"","tgName":null,"infoStatus":"1","orgName":"国网浙江杭州市富阳区供电公司","typeName":null,"infoStatusName":null,"dateDay":null,"orgNos":null,"nowTime":null,"countyName":null,"streetName":null,"villageName":null,"roadName":null,"communityName":null,"tranName":null,"sdLineName":null,"cityCode":"3340170","cityName":"国网浙江杭州市富阳区供电公司","provinceCode":null,"stopTime":"2020-06-04 15:10:00","powerType":"全部","powerOffArea":"35kV新义变:洪庄D292线-虎尾坞村2#里公变低压开关后段","powerOffReason":"(低压停电信息)吊车拔立电杆1支、单横担拆装1组、等工作","powerOffId":"2020052231020411"},{"poweroffId":2020052231020402,"sgpoweroffId":null,"subsName":"","lineName":"10kV建国V170线","pubTranName":"10kV严家村[下安配变]公变,","scope":"浙江省-杭州市-临安市-天目山镇-严家行政村-下安","startTime":"2020-06-04 14:00:00","stopDate":"2020-06-04 15:50:00","orgNo":"3340160","typeCode":"计划停电","poweroffArea":"35kV藻溪变:建国V170线落云分线黄泥塘支线停严家分支线下安支支线21#杆严家村下安公变令克","poweroffReason":"增容布点 原停电结束时间为2020-06-04 16:30:00,为减少客户停电时间,加快工作进度,提前送电,现变更停电结束时间为2020-06-04 15:50:00","powerTime":"2020-06-04 15:10:17","powerComm":"已送电","subsNo":"","lineNo":"","tgNo":"","tgName":null,"infoStatus":"1","orgName":"国网浙江临安市供电公司","typeName":null,"infoStatusName":null,"dateDay":null,"orgNos":null,"nowTime":null,"countyName":null,"streetName":null,"villageName":null,"roadName":null,"communityName":null,"tranName":null,"sdLineName":null,"cityCode":"3340160","cityName":"国网浙江临安市供电公司","provinceCode":null,"stopTime":"2020-06-04 15:50:00","powerType":"全部","powerOffArea":"35kV藻溪变:建国V170线落云分线黄泥塘支线停严家分支线下安支支线21#杆严家村下安公变令克","powerOffReason":"增容布点 原停电结束时间为2020-06-04 16:30:00,为减少客户停电时间,加快工作进度,提前送电,现变更停电结束时间为2020-06-04 15:50:00","powerOffId":"2020052231020402"},{"poweroffId":2020052231020400,"sgpoweroffId":null,"subsName":"","lineName":"10kV建国V170线","pubTranName":"10kV严家村[严家花岭头]公变,","scope":"浙江省-杭州市-临安市-天目山镇严家行政村严家花岭头一带","startTime":"2020-06-04 07:30:00","stopDate":"2020-06-04 11:30:00","orgNo":"3340160","typeCode":"计划停电","poweroffArea":"35kV藻溪变建国V170线落云分线黄泥塘支线花岭头分支线1#杆花岭头分支线令克","poweroffReason":"增容布点","powerTime":"2020-06-04 10:47:02","powerComm":"已送电","subsNo":"","lineNo":"","tgNo":"","tgName":null,"infoStatus":"1","orgName":"国网浙江临安市供电公司","typeName":null,"infoStatusName":null,"dateDay":null,"orgNos":null,"nowTime":null,"countyName":null,"streetName":null,"villageName":null,"roadName":null,"communityName":null,"tranName":null,"sdLineName":null,"cityCode":"3340160","cityName":"国网浙江临安市供电公司","provinceCode":null,"stopTime":"2020-06-04 11:30:00","powerType":"全部","powerOffArea":"35kV藻溪变建国V170线落云分线黄泥塘支线花岭头分支线1#杆花岭头分支线令克","powerOffReason":"增容布点","powerOffId":"2020052231020400"},{"poweroffId":2020052231020394,"sgpoweroffId":null,"subsName":"","lineName":"10kV金秋D947线","pubTranName":"春华村13号公变,","scope":"浙江省-杭州市-富阳区-富春街道-春华行政村(春华路,春华自然村,潘村路,宝山路,学士路)","startTime":"2020-06-07 07:40:00","stopDate":"2020-06-07 11:20:00","orgNo":"3340170","typeCode":"计划停电","poweroffArea":"110kV育才变:金秋D947线-春华村13号后段","poweroffReason":"(低压停电信息)青云2020年龙星村5#罗家岭公变等低压线路改造工程照明2#线更换落户线2处，搭接等工作","powerTime":"2020-06-07 11:10:19","powerComm":"已送电","subsNo":"","lineNo":"","tgNo":"","tgName":null,"infoStatus":"1","orgName":"国网浙江杭州市富阳区供电公司","typeName":null,"infoStatusName":null,"dateDay":null,"orgNos":null,"nowTime":null,"countyName":null,"streetName":null,"villageName":null,"roadName":null,"communityName":null,"tranName":null,"sdLineName":null,"cityCode":"3340170","cityName":"国网浙江杭州市富阳区供电公司","provinceCode":null,"stopTime":"2020-06-07 11:20:00","powerType":"全部","powerOffArea":"110kV育才变:金秋D947线-春华村13号后段","powerOffReason":"(低压停电信息)青云2020年龙星村5#罗家岭公变等低压线路改造工程照明2#线更换落户线2处，搭接等工作","powerOffId":"2020052231020394"},{"poweroffId":2020052231020388,"sgpoweroffId":null,"subsName":"","lineName":"10kV春华D205线","pubTranName":"春华村24号省道边公变,","scope":"浙江省-杭州市-富阳区-富春街道-春华行政村(潘村路,学士路,春华自然村)","startTime":"2020-06-05 07:30:00","stopDate":"2020-06-05 11:50:00","orgNo":"3340170","typeCode":"计划停电","poweroffArea":"35kV大青变:春华D205线-春华村24号省道边后段","poweroffReason":"(低压停电信息)青云2020年龙星村5#罗家岭公变等低压线路改造工程照明2#线更换落户线2处，架设1kV70*4-28米搭接等工作","powerTime":"2020-06-05 11:37:18","powerComm":"已送电","subsNo":"","lineNo":"","tgNo":"","tgName":null,"infoStatus":"1","orgName":"国网浙江杭州市富阳区供电公司","typeName":null,"infoStatusName":null,"dateDay":null,"orgNos":null,"nowTime":null,"countyName":null,"streetName":null,"villageName":null,"roadName":null,"communityName":null,"tranName":null,"sdLineName":null,"cityCode":"3340170","cityName":"国网浙江杭州市富阳区供电公司","provinceCode":null,"stopTime":"2020-06-05 11:50:00","powerType":"全部","powerOffArea":"35kV大青变:春华D205线-春华村24号省道边后段","powerOffReason":"(低压停电信息)青云2020年龙星村5#罗家岭公变等低压线路改造工程照明2#线更换落户线2处，架设1kV70*4-28米搭接等工作","powerOffId":"2020052231020388"},{"poweroffId":2020052231020387,"sgpoweroffId":null,"subsName":"","lineName":"10kV后山D833线","pubTranName":"包家淇7号菜场公变,","scope":"浙江省-杭州市-富阳区-新桐乡-新桐行政村-包家淇自然村","startTime":"2020-06-02 08:20:00","stopDate":"2020-06-02 16:30:00","orgNo":"3340170","typeCode":"计划停电","poweroffArea":"110kV新桐变:后山D833线-包家淇7号菜场公变后段","poweroffReason":"(低压停电信息)安装拉线3组，架设BS-4*70*2档，拆旧4档，拆装BS-4*35*1档，吊车拔旧杆1支，搭接等工作","powerTime":"2020-06-02 16:20:07","powerComm":"已送电","subsNo":"","lineNo":"","tgNo":"","tgName":null,"infoStatus":"1","orgName":"国网浙江杭州市富阳区供电公司","typeName":null,"infoStatusName":null,"dateDay":null,"orgNos":null,"nowTime":null,"countyName":null,"streetName":null,"villageName":null,"roadName":null,"communityName":null,"tranName":null,"sdLineName":null,"cityCode":"3340170","cityName":"国网浙江杭州市富阳区供电公司","provinceCode":null,"stopTime":"2020-06-02 16:30:00","powerType":"全部","powerOffArea":"110kV新桐变:后山D833线-包家淇7号菜场公变后段","powerOffReason":"(低压停电信息)安装拉线3组，架设BS-4*70*2档，拆旧4档，拆装BS-4*35*1档，吊车拔旧杆1支，搭接等工作","powerOffId":"2020052231020387"},{"poweroffId":2020052231020386,"sgpoweroffId":null,"subsName":"","lineName":"10kV庄著0344线","pubTranName":"帝景园2#变,帝凯房产1#,帝景园4#变,帝景园1#变,帝景园3#变,景湾假日酒店3#,帝景园5#变,","scope":"浙江省-杭州市-萧山区-河庄街道-同二行政村-永丰路;河庄街道(帝景园小区、江东行政村-杭州帝凯物业服务有限公司,同一行政村-杭州湾景假日酒店有限公司)","startTime":"2020-05-28 09:30:00","stopDate":"2020-05-28 09:55:00","orgNo":"3340120","typeCode":"临时停电","poweroffArea":"110kV河庄变:庄著0344线-帝园站I段","poweroffReason":"10kV帝园站I段倒负荷 原停电结束时间为2020-05-28 09:30:00,因现场门锁故障原因,延迟送电,现变更停电结束时间为2020-05-28 09:55:00","powerTime":"2020-05-28 09:37:30","powerComm":"已送电","subsNo":"","lineNo":"","tgNo":"","tgName":null,"infoStatus":"1","orgName":"国网浙江杭州市钱塘新区供电公司","typeName":null,"infoStatusName":null,"dateDay":null,"orgNos":null,"nowTime":null,"countyName":null,"streetName":null,"villageName":null,"roadName":null,"communityName":null,"tranName":null,"sdLineName":null,"cityCode":"3340120","cityName":"国网浙江杭州市钱塘新区供电公司","provinceCode":null,"stopTime":"2020-05-28 09:55:00","powerType":"全部","powerOffArea":"110kV河庄变:庄著0344线-帝园站I段","powerOffReason":"10kV帝园站I段倒负荷 原停电结束时间为2020-05-28 09:30:00,因现场门锁故障原因,延迟送电,现变更停电结束时间为2020-05-28 09:55:00","powerOffId":"2020052231020386"}],"pageModel":{"pageNow":118,"totalCount":17786,"totalPage":1779,"tableRows":0,"pageCount":10,"beginCount":1170},"isExperi":"1"}