{"message":"","today":"2020-06-16","seleList":[{"poweroffId":2019090131020054,"sgpoweroffId":null,"subsName":"","lineName":"10kV里仁G218线","pubTranName":"杭州强龙纺织品有限公司,杭州塘栖金属制品有限公司,西界河村塘南公变,","scope":"浙江省杭州市余杭区塘栖镇：西界河村塘南、杭州塘栖金属制品有限公司、杭州维特利新金属制品有限公司一带","startTime":"2019-09-10 08:20:00","stopDate":"2019-09-10 16:30:00","orgNo":"3340140","typeCode":"计划停电","poweroffArea":"110kV广济变:里仁G218线中转油库分线","poweroffReason":"2019年杭州余杭塘栖10千伏西庄线改造工程:中转油库分线调换导线7档，安装过电压保护器工作。","powerTime":"2019-09-10 16:21:38","powerComm":"已送电","subsNo":"","lineNo":"","tgNo":"","tgName":null,"infoStatus":"1","orgName":"国网浙江杭州市余杭区供电有限公司","typeName":null,"infoStatusName":null,"dateDay":null,"orgNos":null,"nowTime":null,"countyName":null,"streetName":null,"villageName":null,"roadName":null,"communityName":null,"tranName":null,"sdLineName":null,"cityCode":"3340140","cityName":"国网浙江杭州市余杭区供电有限公司","provinceCode":null,"stopTime":"2019-09-10 16:30:00","powerType":"全部","powerOffArea":"110kV广济变:里仁G218线中转油库分线","powerOffReason":"2019年杭州余杭塘栖10千伏西庄线改造工程:中转油库分线调换导线7档，安装过电压保护器工作。","powerOffId":"2019090131020054"},{"poweroffId":2019090131020052,"sgpoweroffId":null,"subsName":"","lineName":"10kV万地G136线","pubTranName":"华庭1#专变（杭州晨信物业管理有限公司）,","scope":"浙江省杭州市余杭区崇贤街道：浙江杰康物业管理有限公司一带","startTime":"2019-09-09 08:20:00","stopDate":"2019-09-09 19:00:00","orgNo":"3340140","typeCode":"计划停电","poweroffArea":"35kV沾桥变:万地G136线橄榄开关站II段榄南G1361线-锦昌开关站II段南昌G1362线","poweroffReason":"2019年杭州余杭塘栖10千伏尚品线橄榄开关站改造工程：万地G136线中南开关站II段更换开关柜工作。","powerTime":"2019-09-09 18:34:24","powerComm":"已送电","subsNo":"","lineNo":"","tgNo":"","tgName":null,"infoStatus":"1","orgName":"国网浙江杭州市余杭区供电有限公司","typeName":null,"infoStatusName":null,"dateDay":null,"orgNos":null,"nowTime":null,"countyName":null,"streetName":null,"villageName":null,"roadName":null,"communityName":null,"tranName":null,"sdLineName":null,"cityCode":"3340140","cityName":"国网浙江杭州市余杭区供电有限公司","provinceCode":null,"stopTime":"2019-09-09 19:00:00","powerType":"全部","powerOffArea":"35kV沾桥变:万地G136线橄榄开关站II段榄南G1361线-锦昌开关站II段南昌G1362线","powerOffReason":"2019年杭州余杭塘栖10千伏尚品线橄榄开关站改造工程：万地G136线中南开关站II段更换开关柜工作。","powerOffId":"2019090131020052"},{"poweroffId":2019090131020051,"sgpoweroffId":null,"subsName":"","lineName":"10kV贺塘G850线","pubTranName":"杭州临鼎园林工程有限公司612084998801#专变,四维村三木桥变,杭州余杭交通集团有限公612083874401#专变,金家斗排涝闸站,","scope":"浙江省杭州市余杭区崇贤街道：四维村三木桥、杭州市余杭区崇贤街道文化体育服务中心、杭州市余杭区崇贤镇四维村村民委员会、杭州临鼎园林工程有限公司一带","startTime":"2019-09-09 08:20:00","stopDate":"2019-09-09 12:00:00","orgNo":"3340140","typeCode":"计划停电","poweroffArea":"35kV独山变:贺塘G850线四维村王家塘分线开关","poweroffReason":"杭州市余杭区人民政府崇贤街道办事处四维安置区块贺塘G850线迁改工程：新立电杆4基，新放导线5档，新做拉线6组，拆除导线5档，拔除电杆4基，拆除拉线2组","powerTime":"2019-09-09 11:36:43","powerComm":"已送电","subsNo":"","lineNo":"","tgNo":"","tgName":null,"infoStatus":"1","orgName":"国网浙江杭州市余杭区供电有限公司","typeName":null,"infoStatusName":null,"dateDay":null,"orgNos":null,"nowTime":null,"countyName":null,"streetName":null,"villageName":null,"roadName":null,"communityName":null,"tranName":null,"sdLineName":null,"cityCode":"3340140","cityName":"国网浙江杭州市余杭区供电有限公司","provinceCode":null,"stopTime":"2019-09-09 12:00:00","powerType":"全部","powerOffArea":"35kV独山变:贺塘G850线四维村王家塘分线开关","powerOffReason":"杭州市余杭区人民政府崇贤街道办事处四维安置区块贺塘G850线迁改工程：新立电杆4基，新放导线5档，新做拉线6组，拆除导线5档，拔除电杆4基，拆除拉线2组","powerOffId":"2019090131020051"},{"poweroffId":2019090131020043,"sgpoweroffId":null,"subsName":"","lineName":"10kV河口C160线","pubTranName":"杭州蓝达工艺制品有限公司,佛山村4#变,佛山村5#变,杭州萧山云石提花沙发布厂,青山村8#变,佛山村2#变,杭州青山粉末冶金厂,佛山村1#变,杭州杰超机械厂,佛山村7#变,佛山村3#变,青山村15#变,杭州蓝达工艺制品有限公司,浙江华东轻钢建材有限公司（马谷线）,佛山村6#变,杭州家得好日用品有限公司2#,杭州家得好日用品有限公司1#,","scope":"浙江省-杭州市-萧山区-戴村镇-青山行政村(石牛山自然村,南坞自然村),戴村镇-佛山行政村(佛山自然村,上堡自然村);浙江省-杭州市-萧山区-戴村镇-青山行政村-杭州青山粉末冶金厂,戴村镇-沈村行政村(杭州家得好日用品有限公司,浙江华东轻钢建材有限公司,杭州蓝达工艺制品有限公司),戴村镇-佛山行政村(杭州蓝达工艺制品有限公司,杭州汇燊基布业有限公司,杭州杰超机械厂)等一带","startTime":"2019-09-01 08:22:32","stopDate":"2019-09-01 10:22:32","orgNo":"3340130","typeCode":"电网故障停限电","poweroffArea":"110kV许贤变:河口C160线-河口C1603开关后段","poweroffReason":"高压开关跳闸","powerTime":"2019-09-01 09:37:32","powerComm":"已送电","subsNo":"","lineNo":"","tgNo":"","tgName":null,"infoStatus":"1","orgName":"国网浙江杭州市萧山区供电有限公司","typeName":null,"infoStatusName":null,"dateDay":null,"orgNos":null,"nowTime":null,"countyName":null,"streetName":null,"villageName":null,"roadName":null,"communityName":null,"tranName":null,"sdLineName":null,"cityCode":"3340130","cityName":"国网浙江杭州市萧山区供电有限公司","provinceCode":null,"stopTime":"2019-09-01 10:22:32","powerType":"全部","powerOffArea":"110kV许贤变:河口C160线-河口C1603开关后段","powerOffReason":"高压开关跳闸","powerOffId":"2019090131020043"},{"poweroffId":2019090131020042,"sgpoweroffId":null,"subsName":"","lineName":"10kV许家9156线","pubTranName":"村家三,村家五,龙建,村家十一,村家十三,淮通建材,象家一变,金溢一,象家五变,朔机1,篁外(九),转租施(3),赞岭(七),篁外(十九),象家七变,篁外(五),村居(一),双社,转塘镇集镇建设总指挥部,篁外(十七),赞岭(一),双红,杭州市西湖区转塘集镇建设总指挥部,篁外(十五),八角灯,村居(三)变,篁外(十一),村居(七)变,象家九变,转租施(2),兆玖七变,篁外(三),篁外(十三),篁外(七),兆玖三变,双居,赞岭(三),村家充,朔机2,村家一,村居(五),村家九,转租施(1),赞岭(五),村家七,象家十一变,象家三变,兆玖五变,篁外(一),兆玖一变,赞岭(九),","scope":"浙江省-杭州市-西湖区-转塘街道-双流社区-镇南路,转塘街道-村口社区(,村口村道,鸡山路),转塘街道-美院社区(鸡山路,320国道)-杭州中融城市花园业主委员会,转塘街道-中村村社区(浙江申达机器制造股份有限公司,杭州市西湖区转塘镇集镇建设总指挥部),转塘街道-双流社区(杭州淮通建材有限公司,杭州龙银建材有限公司,杭州市西湖区转塘街道双流社区居民委员会),转塘街道(象山社区-杭州市西湖区转塘集镇建设总指挥部,凌家桥社区-杭州市路灯管理所)","startTime":"2019-09-01 08:12:30","stopDate":"2019-09-01 09:40:30","orgNo":"3340101","typeCode":"电网故障停限电","poweroffArea":"110kV象山变:许家9156线","poweroffReason":"高压开关跳闸 原预计停电结束时间2019-09-01 12:12:30,由于施工现场环境比较复杂，存在不确定因素，因此预估施工时间适当放长了， 而实际施工进行得比较顺利，因此提前送电了","powerTime":"2019-09-01 08:55:20","powerComm":"已送电","subsNo":"","lineNo":"","tgNo":"","tgName":null,"infoStatus":"1","orgName":"浙江杭州电力客户服务中心","typeName":null,"infoStatusName":null,"dateDay":null,"orgNos":null,"nowTime":null,"countyName":null,"streetName":null,"villageName":null,"roadName":null,"communityName":null,"tranName":null,"sdLineName":null,"cityCode":"3340101","cityName":"浙江杭州电力客户服务中心","provinceCode":null,"stopTime":"2019-09-01 09:40:30","powerType":"全部","powerOffArea":"110kV象山变:许家9156线","powerOffReason":"高压开关跳闸 原预计停电结束时间2019-09-01 12:12:30,由于施工现场环境比较复杂，存在不确定因素，因此预估施工时间适当放长了， 而实际施工进行得比较顺利，因此提前送电了","powerOffId":"2019090131020042"},{"poweroffId":2019090131020040,"sgpoweroffId":null,"subsName":"","lineName":"10kV开肆L001线","pubTranName":"金宁时装1#,开元旅业,农业银行,2#,1#,萧山电影院,东方一品6#公变,物业变,工商银行,金宁时装2#,杭州兴达市政公用服务有限公司,东方一品1#,东方一品2#,东方一品1#,东方一品1#,杭州易淘投资管理有限公司,东方一品1#,东方一品5#公变,杭州兴达市政公用服务有限公司配电变压器,东方一品1#,华谊服饰,萧山经济技术开发区国有资产经营有限公司1#,明成制衣,杭州兴达市政公用服务有限公司（路灯）,开肆公变,杭州旷世物业服务有限公司,杭州宏松建设有限公司,","scope":"浙江省-杭州市-萧山区-经济技术开发区、宁围镇、宁围街道-市北社区(建设一路,市心北路);经济技术开发区-市北社区(杭州兴达市政公用服务有限公司,浙江开元酒店管理股份有限公司杭州开元名都大酒店,杭州明成制衣有限公司,杭州华谊服装有限公司,杭州易淘投资管理有限公司,中国农业银行股份有限公司萧山分行,杭州旷世物业服务有限公司,广东中奥物业管理有限公司萧山分公司,杭州诗翔科技有限公司,杭州市工商行政管理局萧山分局经济技术开发区工商所,杭州宏松建设有限公司,浙江九州量子信息技术股份有限公司,浙江创锐商业经营管理有限公司、浙江省杭州市萧山区北干街道建设一路等一带","startTime":"2019-09-01 07:56:57","stopDate":"2019-09-01 10:56:57","orgNo":"3340130","typeCode":"电网故障停限电","poweroffArea":"35kV市北变:开肆L001线开关后段","poweroffReason":"高压柱上断路器短路故障","powerTime":"2019-09-01 10:13:01","powerComm":"已送电","subsNo":"","lineNo":"","tgNo":"","tgName":null,"infoStatus":"1","orgName":"国网浙江杭州市萧山区供电有限公司","typeName":null,"infoStatusName":null,"dateDay":null,"orgNos":null,"nowTime":null,"countyName":null,"streetName":null,"villageName":null,"roadName":null,"communityName":null,"tranName":null,"sdLineName":null,"cityCode":"3340130","cityName":"国网浙江杭州市萧山区供电有限公司","provinceCode":null,"stopTime":"2019-09-01 10:56:57","powerType":"全部","powerOffArea":"35kV市北变:开肆L001线开关后段","powerOffReason":"高压柱上断路器短路故障","powerOffId":"2019090131020040"},{"poweroffId":2019090131020015,"sgpoweroffId":null,"subsName":"","lineName":"10kV富丽C115线","pubTranName":"鞋厂公变,","scope":"浙江省-杭州市-萧山区-城厢街道-江寺社区江寺路、文化路、税务局、博物馆一带","startTime":"2019-09-01 06:20:59","stopDate":"2019-09-01 09:30:59","orgNo":"3340130","typeCode":"电网故障停限电","poweroffArea":"110kV丽都变:富丽C115线-鞋厂公变后段","poweroffReason":"（低压停电信息）低压开关跳闸，原停电结束时间：2019-09-01 11:30:59，变更停电结束时间：2019-09-01 09:30:59，变更停电结束时间原因：由于加派抢修人员，抢修工作提前结束，故需要提前送电。","powerTime":"2019-09-01 08:42:17","powerComm":"已送电","subsNo":"","lineNo":"","tgNo":"","tgName":null,"infoStatus":"1","orgName":"国网浙江杭州市萧山区供电有限公司","typeName":null,"infoStatusName":null,"dateDay":null,"orgNos":null,"nowTime":null,"countyName":null,"streetName":null,"villageName":null,"roadName":null,"communityName":null,"tranName":null,"sdLineName":null,"cityCode":"3340130","cityName":"国网浙江杭州市萧山区供电有限公司","provinceCode":null,"stopTime":"2019-09-01 09:30:59","powerType":"全部","powerOffArea":"110kV丽都变:富丽C115线-鞋厂公变后段","powerOffReason":"（低压停电信息）低压开关跳闸，原停电结束时间：2019-09-01 11:30:59，变更停电结束时间：2019-09-01 09:30:59，变更停电结束时间原因：由于加派抢修人员，抢修工作提前结束，故需要提前送电。","powerOffId":"2019090131020015"},{"poweroffId":2019090131020011,"sgpoweroffId":null,"subsName":"","lineName":"10kV许工C176线","pubTranName":"杭州万雄工具制造有限公司,杭州泽铧织造有限公司,杭州东亚织造有限公司,杭州众木机电有限公司变压器间隔配电变压器,浙江阿童木医药有限公司2#,杭州佳美上浆厂,杭州众木机电有限公司,浙江阿童木医药有限公司1#,杭州博日达绣品有限公司,1#,杭州博日达绣品有限公司2#,","scope":"浙江省-杭州市-萧山区-义桥镇-田丰行政村(杭州众木机电有限公司,金凌实业(杭州)有限公司,杭州航川实业有限公司),义桥镇-罗幕行政村(浙江阿童木医药有限公司,杭州佳美上浆厂),义桥镇-蛟山行政村(杭州博日达绣品有限公司,杭州东亚织造有限公司,杭州泽铧织造有限公司)等一带","startTime":"2019-09-01 06:13:07","stopDate":"2019-09-01 09:30:07","orgNo":"3340130","typeCode":"电网故障停限电","poweroffArea":"110kV许贤变:许工C176线开关后段","poweroffReason":"高压开关跳闸 原停电结束时间：2019-09-01 08:13，变更停电结束时间：2019-09-01 09:30，由于抢修现场抢修难度大，故需要延迟送电。","powerTime":"2019-09-01 08:34:41","powerComm":"已送电","subsNo":"","lineNo":"","tgNo":"","tgName":null,"infoStatus":"1","orgName":"国网浙江杭州市萧山区供电有限公司","typeName":null,"infoStatusName":null,"dateDay":null,"orgNos":null,"nowTime":null,"countyName":null,"streetName":null,"villageName":null,"roadName":null,"communityName":null,"tranName":null,"sdLineName":null,"cityCode":"3340130","cityName":"国网浙江杭州市萧山区供电有限公司","provinceCode":null,"stopTime":"2019-09-01 09:30:07","powerType":"全部","powerOffArea":"110kV许贤变:许工C176线开关后段","powerOffReason":"高压开关跳闸 原停电结束时间：2019-09-01 08:13，变更停电结束时间：2019-09-01 09:30，由于抢修现场抢修难度大，故需要延迟送电。","powerOffId":"2019090131020011"},{"poweroffId":2019090131020008,"sgpoweroffId":null,"subsName":"","lineName":"10kV河口C160线","pubTranName":"杭州浙迪机械工具有限公司,青山村8#变,佛山村4#变,变压器,佛山村2#变,七里店4#变,佛山村6#变,七里店7#变,七里店2#变,杭州塘坞五金机械配件厂,青山村15#变,杭州萧山恒峰铸造机械厂,杭州青山粉末冶金厂,杭州东福源旅游开发有限公司,杭州奥博康体育用品有限公司,升光村4#变,杭州卓铖工具有限公司,杭州萧山云石提花沙发布厂,杭州家得好日用品有限公司1#,七里店1#变,七里店10#变,佛山村7#变,杭州蓝达工艺制品有限公司,杭州中强建筑粘合剂有限公司,佛山村5#变,升光村1#变,杭州萧山科宇塑料制品厂,升光村3#变,浙江华东轻钢建材有限公司（马谷线）,杭州家得好日用品有限公司2#,杭州蓝达工艺制品有限公司,杭州耐帆实业有限公司,杭州杰超机械厂,佛山村3#变,佛山村1#变,升光村2#变,","scope":"浙江省-杭州市-萧山区-义桥镇-昇光行政村-塘坞自然村,义桥镇-七里店行政村(姜家坞自然村,七里店自然村,蚕花自然村,笠帽坞自然村,陈家门自然村),戴村镇-青山行政村(南坞自然村,石牛山自然村),戴村镇-佛山行政村(上堡自然村,佛山自然村);浙江省-杭州市-萧山区-戴村镇-青山行政村-杭州青山粉末冶金厂,义桥镇-七里店行政村(杭州中强建筑粘合剂有限公司,杭州浙迪机械工具有限公司,杭州奥博康体育用品有限公司),戴村镇-佛山行政村(杭州蓝达工艺制品有限公司,杭州汇燊基布业有限公司,杭州杰超机械厂),义桥镇-昇光行政村(杭州萧山科宇塑料制品厂,杭州萧山恒峰铸造机械厂,杭州东福源旅游开发有限公司,杭州耐帆实业有限公司,杭州塘坞五金机械配件厂,杭州卓铖工具有限公司),戴村镇-沈村行政村(杭州家得好日用品有限公司,浙江华东轻钢建材有限公司,杭州蓝达工艺制品有限公司)，浙江省杭州市萧山区戴村镇佛山村1号等一带","startTime":"2019-09-01 05:53:48","stopDate":"2019-09-01 08:30:48","orgNo":"3340130","typeCode":"电网故障停限电","poweroffArea":"110kV许贤变:河口C160线开关后段","poweroffReason":"高压开关跳闸 原停电结束时间：2019-09-01 09:30，变更停电结束时间：2019-09-01 08:30，由于增派人员，抢修提前完成，故需要提前送电。","powerTime":"2019-09-01 07:47:07","powerComm":"已送电","subsNo":"","lineNo":"","tgNo":"","tgName":null,"infoStatus":"1","orgName":"国网浙江杭州市萧山区供电有限公司","typeName":null,"infoStatusName":null,"dateDay":null,"orgNos":null,"nowTime":null,"countyName":null,"streetName":null,"villageName":null,"roadName":null,"communityName":null,"tranName":null,"sdLineName":null,"cityCode":"3340130","cityName":"国网浙江杭州市萧山区供电有限公司","provinceCode":null,"stopTime":"2019-09-01 08:30:48","powerType":"全部","powerOffArea":"110kV许贤变:河口C160线开关后段","powerOffReason":"高压开关跳闸 原停电结束时间：2019-09-01 09:30，变更停电结束时间：2019-09-01 08:30，由于增派人员，抢修提前完成，故需要提前送电。","powerOffId":"2019090131020008"},{"poweroffId":2019090131020002,"sgpoweroffId":null,"subsName":"","lineName":"10kV紫藤9937线","pubTranName":"紫语九,","scope":"浙江省杭州市西湖区三墩镇吉鸿社区莲紫路紫西花语城小区","startTime":"2019-09-01 01:09:37","stopDate":"2019-09-01 02:30:37","orgNo":"3340101","typeCode":"电网故障停限电","poweroffArea":"110kV墩北变:紫藤9937线-紫语九配变","poweroffReason":"高压开关跳闸 原预计停电结束时间2019-09-01 08:09:37,由于施工现场环境比较复杂，存在不确定因素，因此预估施工时间适当放长了，而实际施工进行得比较顺利，因此提前送电了","powerTime":"2019-09-01 01:49:43","powerComm":"已送电","subsNo":"","lineNo":"","tgNo":"","tgName":null,"infoStatus":"1","orgName":"浙江杭州电力客户服务中心","typeName":null,"infoStatusName":null,"dateDay":null,"orgNos":null,"nowTime":null,"countyName":null,"streetName":null,"villageName":null,"roadName":null,"communityName":null,"tranName":null,"sdLineName":null,"cityCode":"3340101","cityName":"浙江杭州电力客户服务中心","provinceCode":null,"stopTime":"2019-09-01 02:30:37","powerType":"全部","powerOffArea":"110kV墩北变:紫藤9937线-紫语九配变","powerOffReason":"高压开关跳闸 原预计停电结束时间2019-09-01 08:09:37,由于施工现场环境比较复杂，存在不确定因素，因此预估施工时间适当放长了，而实际施工进行得比较顺利，因此提前送电了","powerOffId":"2019090131020002"}],"pageModel":{"pageNow":1166,"totalCount":17789,"totalPage":1779,"tableRows":0,"pageCount":10,"beginCount":11650},"isExperi":"1"}