{"message":"","today":"2020-06-16","seleList":[{"poweroffId":2019083031020502,"sgpoweroffId":null,"subsName":"","lineName":"10kV谢家D746线","pubTranName":"富阳市森煌木制品有限公司 2#变,","scope":"浙江省-杭州市-富阳区-鹿山街道-谢家溪行政村-杭州富阳森煌木制品有限公司","startTime":"2019-09-09 08:00:00","stopDate":"2019-09-09 16:00:00","orgNo":"3340170","typeCode":"计划停电","poweroffArea":"110kV陆家变:谢家D746线-富阳市森煌木制品有限公司 2#变后段","poweroffReason":"配合用户内部检修","powerTime":"2019-09-09 15:50:24","powerComm":"已送电","subsNo":"","lineNo":"","tgNo":"","tgName":null,"infoStatus":"1","orgName":"国网浙江杭州市富阳区供电公司","typeName":null,"infoStatusName":null,"dateDay":null,"orgNos":null,"nowTime":null,"countyName":null,"streetName":null,"villageName":null,"roadName":null,"communityName":null,"tranName":null,"sdLineName":null,"cityCode":"3340170","cityName":"国网浙江杭州市富阳区供电公司","provinceCode":null,"stopTime":"2019-09-09 16:00:00","powerType":"全部","powerOffArea":"110kV陆家变:谢家D746线-富阳市森煌木制品有限公司 2#变后段","powerOffReason":"配合用户内部检修","powerOffId":"2019083031020502"},{"poweroffId":2019083031020489,"sgpoweroffId":null,"subsName":"","lineName":"10kV谢家D746线","pubTranName":"谢家溪7号直坞公变,谢家溪11号桔子园公变,谢家溪1#战备路公变,谢家溪13号西坞公变,谢家溪10号秦坞公变,","scope":"浙江省-杭州市-富阳区-鹿山街道-谢家溪行政村(西大路,上门路,下门弄,沿山路,谈家路,谢家溪自然村,战备路,上门弄,下门路,迎宾路,开发路,中心路,横樟路,环村路,屠家弄,泉潭弄,孙家弄)一带","startTime":"2019-09-09 08:10:00","stopDate":"2019-09-09 08:20:00","orgNo":"3340170","typeCode":"计划停电","poweroffArea":"110kV陆家变:谢家D746线首端，谢家溪1#战备路公变，谢家溪11号桔子园公变，谢家溪13号西坞公变，谢家溪10号秦坞公变，谢家溪7号直坞公变之间","poweroffReason":"短时停电配合谢家溪二分线负荷转供至10千伏发电车","powerTime":"2019-09-09 08:16:24","powerComm":"已送电","subsNo":"","lineNo":"","tgNo":"","tgName":null,"infoStatus":"1","orgName":"国网浙江杭州市富阳区供电公司","typeName":null,"infoStatusName":null,"dateDay":null,"orgNos":null,"nowTime":null,"countyName":null,"streetName":null,"villageName":null,"roadName":null,"communityName":null,"tranName":null,"sdLineName":null,"cityCode":"3340170","cityName":"国网浙江杭州市富阳区供电公司","provinceCode":null,"stopTime":"2019-09-09 08:20:00","powerType":"全部","powerOffArea":"110kV陆家变:谢家D746线首端，谢家溪1#战备路公变，谢家溪11号桔子园公变，谢家溪13号西坞公变，谢家溪10号秦坞公变，谢家溪7号直坞公变之间","powerOffReason":"短时停电配合谢家溪二分线负荷转供至10千伏发电车","powerOffId":"2019083031020489"},{"poweroffId":2019083031020481,"sgpoweroffId":null,"subsName":"","lineName":"10kV谢家D746线","pubTranName":"杭州贝斯特气体有限公司 1#变,","scope":"浙江省-杭州市-富阳区-鹿山街道-汤家埠行政村-杭州贝斯特气体有限公司","startTime":"2019-09-12 08:00:00","stopDate":"2019-09-12 16:00:00","orgNo":"3340170","typeCode":"计划停电","poweroffArea":"110kV陆家变:谢家D746线-杭州贝斯特气体有限公司 1#变后段","poweroffReason":"配合用户内部检修","powerTime":"2019-09-12 15:51:14","powerComm":"已送电","subsNo":"","lineNo":"","tgNo":"","tgName":null,"infoStatus":"1","orgName":"国网浙江杭州市富阳区供电公司","typeName":null,"infoStatusName":null,"dateDay":null,"orgNos":null,"nowTime":null,"countyName":null,"streetName":null,"villageName":null,"roadName":null,"communityName":null,"tranName":null,"sdLineName":null,"cityCode":"3340170","cityName":"国网浙江杭州市富阳区供电公司","provinceCode":null,"stopTime":"2019-09-12 16:00:00","powerType":"全部","powerOffArea":"110kV陆家变:谢家D746线-杭州贝斯特气体有限公司 1#变后段","powerOffReason":"配合用户内部检修","powerOffId":"2019083031020481"},{"poweroffId":2019083031020479,"sgpoweroffId":null,"subsName":"","lineName":"10kV航运C120线","pubTranName":"南市花园5#公变,南市花园1#公变,南市花园2#公变,南市花园3#公变,南市花园4#公变,","scope":"浙江省-杭州市-萧山区-城厢街道-南市社区-拱秀路","startTime":"2019-09-12 08:30:00","stopDate":"2019-09-12 16:30:00","orgNo":"3340130","typeCode":"计划停电","poweroffArea":"110kV丽都变:航运C120线-南市分线后段","poweroffReason":"南市花园2-5#公变下630kVA上630VA，割接至新上开闭所 原停电结束时间为2019-09-12 13:30:00,因现场阻工原因,现变更停电结束时间为2019-09-12 16:30:00","powerTime":"2019-09-12 16:06:11","powerComm":"已送电","subsNo":"","lineNo":"","tgNo":"","tgName":null,"infoStatus":"1","orgName":"国网浙江杭州市萧山区供电有限公司","typeName":null,"infoStatusName":null,"dateDay":null,"orgNos":null,"nowTime":null,"countyName":null,"streetName":null,"villageName":null,"roadName":null,"communityName":null,"tranName":null,"sdLineName":null,"cityCode":"3340130","cityName":"国网浙江杭州市萧山区供电有限公司","provinceCode":null,"stopTime":"2019-09-12 16:30:00","powerType":"全部","powerOffArea":"110kV丽都变:航运C120线-南市分线后段","powerOffReason":"南市花园2-5#公变下630kVA上630VA，割接至新上开闭所 原停电结束时间为2019-09-12 13:30:00,因现场阻工原因,现变更停电结束时间为2019-09-12 16:30:00","powerOffId":"2019083031020479"},{"poweroffId":2019083031020478,"sgpoweroffId":null,"subsName":"","lineName":"10kV谢家D746线","pubTranName":"浙江易普润滑设备制造有限公司 1#变,","scope":"浙江省-杭州市-富阳区-鹿山街道-谢家溪行政村-浙江易普润滑设备制造有限公司","startTime":"2019-09-12 07:40:00","stopDate":"2019-09-12 16:00:00","orgNo":"3340170","typeCode":"计划停电","poweroffArea":"110kV陆家变:谢家D746线-浙江易普润滑设备制造有限公司 1#变后段","poweroffReason":"配合用户内部检修","powerTime":"2019-09-12 15:50:59","powerComm":"已送电","subsNo":"","lineNo":"","tgNo":"","tgName":null,"infoStatus":"1","orgName":"国网浙江杭州市富阳区供电公司","typeName":null,"infoStatusName":null,"dateDay":null,"orgNos":null,"nowTime":null,"countyName":null,"streetName":null,"villageName":null,"roadName":null,"communityName":null,"tranName":null,"sdLineName":null,"cityCode":"3340170","cityName":"国网浙江杭州市富阳区供电公司","provinceCode":null,"stopTime":"2019-09-12 16:00:00","powerType":"全部","powerOffArea":"110kV陆家变:谢家D746线-浙江易普润滑设备制造有限公司 1#变后段","powerOffReason":"配合用户内部检修","powerOffId":"2019083031020478"},{"poweroffId":2019083031020477,"sgpoweroffId":null,"subsName":"","lineName":"10kV谢家D746线","pubTranName":"富阳市路灯安装维修管理所,","scope":"浙江省-杭州市-富阳区-鹿山街道-鹿山工业园区-富阳区路灯安装维修管理所","startTime":"2019-09-12 06:20:00","stopDate":"2019-09-12 16:00:00","orgNo":"3340170","typeCode":"计划停电","poweroffArea":"110kV陆家变:谢家D746线-富阳市路灯安装维修管理所后段","poweroffReason":"配合用户内部检修","powerTime":"2019-09-12 15:50:43","powerComm":"已送电","subsNo":"","lineNo":"","tgNo":"","tgName":null,"infoStatus":"1","orgName":"国网浙江杭州市富阳区供电公司","typeName":null,"infoStatusName":null,"dateDay":null,"orgNos":null,"nowTime":null,"countyName":null,"streetName":null,"villageName":null,"roadName":null,"communityName":null,"tranName":null,"sdLineName":null,"cityCode":"3340170","cityName":"国网浙江杭州市富阳区供电公司","provinceCode":null,"stopTime":"2019-09-12 16:00:00","powerType":"全部","powerOffArea":"110kV陆家变:谢家D746线-富阳市路灯安装维修管理所后段","powerOffReason":"配合用户内部检修","powerOffId":"2019083031020477"},{"poweroffId":2019083031020476,"sgpoweroffId":null,"subsName":"","lineName":"10kV谢家D746线","pubTranName":"杭州伟业通信有限公司,","scope":"浙江省-杭州市-富阳区-鹿山街道-谢家溪行政村-杭州伟业通信有限公司","startTime":"2019-09-12 07:20:00","stopDate":"2019-09-12 16:00:00","orgNo":"3340170","typeCode":"计划停电","poweroffArea":"110kV陆家变:谢家D746线-杭州伟业通信有限公司后段","poweroffReason":"配合用户内部检修","powerTime":"2019-09-12 15:50:29","powerComm":"已送电","subsNo":"","lineNo":"","tgNo":"","tgName":null,"infoStatus":"1","orgName":"国网浙江杭州市富阳区供电公司","typeName":null,"infoStatusName":null,"dateDay":null,"orgNos":null,"nowTime":null,"countyName":null,"streetName":null,"villageName":null,"roadName":null,"communityName":null,"tranName":null,"sdLineName":null,"cityCode":"3340170","cityName":"国网浙江杭州市富阳区供电公司","provinceCode":null,"stopTime":"2019-09-12 16:00:00","powerType":"全部","powerOffArea":"110kV陆家变:谢家D746线-杭州伟业通信有限公司后段","powerOffReason":"配合用户内部检修","powerOffId":"2019083031020476"},{"poweroffId":2019083031020475,"sgpoweroffId":null,"subsName":"","lineName":"10kV人民C417线","pubTranName":"2#变压器,杭州恺兴房地产开发有限公司4#变压器,杭州萧山城市建设投资集团有限公司,","scope":"浙江省-杭州市-萧山区-北干街道(工人路社区-杭州萧山城市建设投资集团有限公司,兴议行政村-杭州恺兴房地产开发有限公司)","startTime":"2019-09-12 08:30:00","stopDate":"2019-09-12 16:30:00","orgNo":"3340130","typeCode":"计划停电","poweroffArea":"110kV湘湖变:人民C417线-城市建设投资后段","poweroffReason":"圣和开G15至玺上开G11电缆迁改","powerTime":"2019-09-12 15:34:01","powerComm":"已送电","subsNo":"","lineNo":"","tgNo":"","tgName":null,"infoStatus":"1","orgName":"国网浙江杭州市萧山区供电有限公司","typeName":null,"infoStatusName":null,"dateDay":null,"orgNos":null,"nowTime":null,"countyName":null,"streetName":null,"villageName":null,"roadName":null,"communityName":null,"tranName":null,"sdLineName":null,"cityCode":"3340130","cityName":"国网浙江杭州市萧山区供电有限公司","provinceCode":null,"stopTime":"2019-09-12 16:30:00","powerType":"全部","powerOffArea":"110kV湘湖变:人民C417线-城市建设投资后段","powerOffReason":"圣和开G15至玺上开G11电缆迁改","powerOffId":"2019083031020475"},{"poweroffId":2019083031020474,"sgpoweroffId":null,"subsName":"","lineName":"10kV谢家D746线","pubTranName":"杭州五圣圆化学有限公司,","scope":"浙江省-杭州市-富阳区-鹿山街道-蒋家行政村-杭州五圣圆化学有限公司","startTime":"2019-09-12 07:00:00","stopDate":"2019-09-12 16:00:00","orgNo":"3340170","typeCode":"计划停电","poweroffArea":"110kV陆家变:谢家D746线-杭州五圣圆化学有限公司后段","poweroffReason":"配合用户内部检修","powerTime":"2019-09-12 15:50:15","powerComm":"已送电","subsNo":"","lineNo":"","tgNo":"","tgName":null,"infoStatus":"1","orgName":"国网浙江杭州市富阳区供电公司","typeName":null,"infoStatusName":null,"dateDay":null,"orgNos":null,"nowTime":null,"countyName":null,"streetName":null,"villageName":null,"roadName":null,"communityName":null,"tranName":null,"sdLineName":null,"cityCode":"3340170","cityName":"国网浙江杭州市富阳区供电公司","provinceCode":null,"stopTime":"2019-09-12 16:00:00","powerType":"全部","powerOffArea":"110kV陆家变:谢家D746线-杭州五圣圆化学有限公司后段","powerOffReason":"配合用户内部检修","powerOffId":"2019083031020474"},{"poweroffId":2019083031020473,"sgpoweroffId":null,"subsName":"","lineName":"10kV国美C770线","pubTranName":"中冠物业管理1#,新钱塘实业发展2#,新钱塘实业发展1#,城中花园4#公变,浙江金帝物业服务有限公司商业2#,城中花园5#公变,杭州倍客家市场经营管理有限公司,","scope":"浙江省-杭州市-萧山区-北干街道-星都社区-市心中路;北干街道(星都社区-杭州图腾酒店有限公司,绿茵园社区-浙江新钱塘实业发展有限公司,北干一苑社区-杭州中野传媒有限公司)、城中花园一带","startTime":"2019-09-10 08:30:00","stopDate":"2019-09-10 18:50:00","orgNo":"3340130","typeCode":"计划停电","poweroffArea":"110kV通惠变:国美C770线-金中C7702线后段","poweroffReason":"金城开G17电缆终端拆除，中东开更换，新建分支开1座，国美开G24至中东开G11，中东开G16至玺上开G17，电缆辐射试验搭接，原停电结束时间：2019-09-10 21:00:00，变更停电结束时间原因：停电工作提前完成","powerTime":"2019-09-10 17:53:22","powerComm":"已送电","subsNo":"","lineNo":"","tgNo":"","tgName":null,"infoStatus":"1","orgName":"国网浙江杭州市萧山区供电有限公司","typeName":null,"infoStatusName":null,"dateDay":null,"orgNos":null,"nowTime":null,"countyName":null,"streetName":null,"villageName":null,"roadName":null,"communityName":null,"tranName":null,"sdLineName":null,"cityCode":"3340130","cityName":"国网浙江杭州市萧山区供电有限公司","provinceCode":null,"stopTime":"2019-09-10 18:50:00","powerType":"全部","powerOffArea":"110kV通惠变:国美C770线-金中C7702线后段","powerOffReason":"金城开G17电缆终端拆除，中东开更换，新建分支开1座，国美开G24至中东开G11，中东开G16至玺上开G17，电缆辐射试验搭接，原停电结束时间：2019-09-10 21:00:00，变更停电结束时间原因：停电工作提前完成","powerOffId":"2019083031020473"}],"pageModel":{"pageNow":1170,"totalCount":17789,"totalPage":1779,"tableRows":0,"pageCount":10,"beginCount":11690},"isExperi":"1"}