{"message":"","today":"2020-06-16","seleList":[{"poweroffId":2019083031020472,"sgpoweroffId":null,"subsName":"","lineName":"10kV东门A614线","pubTranName":"回澜南园12#公变,","scope":"浙江省-杭州市-萧山区-城厢街道-陈公桥社区(回澜路,育才路)","startTime":"2019-09-09 10:30:00","stopDate":"2019-09-09 16:30:00","orgNo":"3340130","typeCode":"计划停电","poweroffArea":"110kV城东变:东门A614线-回澜南苑12#公变后段","poweroffReason":"回澜南苑11#公变迁改至财政分支开G12间隔，电缆敷设试验搭接","powerTime":"2019-09-09 16:16:55","powerComm":"已送电","subsNo":"","lineNo":"","tgNo":"","tgName":null,"infoStatus":"1","orgName":"国网浙江杭州市萧山区供电有限公司","typeName":null,"infoStatusName":null,"dateDay":null,"orgNos":null,"nowTime":null,"countyName":null,"streetName":null,"villageName":null,"roadName":null,"communityName":null,"tranName":null,"sdLineName":null,"cityCode":"3340130","cityName":"国网浙江杭州市萧山区供电有限公司","provinceCode":null,"stopTime":"2019-09-09 16:30:00","powerType":"全部","powerOffArea":"110kV城东变:东门A614线-回澜南苑12#公变后段","powerOffReason":"回澜南苑11#公变迁改至财政分支开G12间隔，电缆敷设试验搭接","powerOffId":"2019083031020472"},{"poweroffId":2019083031020471,"sgpoweroffId":null,"subsName":"","lineName":"10kV拱秀A587线","pubTranName":"回澜南园1#公变,回澜南园6#公变,回澜南园9#公变,回澜南园10#公变,回澜南园3#公变,车家埭村,回澜南园11#公变,","scope":"浙江省-杭州市-萧山区-城厢街道(陈公桥社区-回澜路,回澜北苑社区-回澜路,回澜南苑社区-回澜路);浙江省-杭州市-萧山区-城厢街道-车家埭社区-杭州萧山城厢车家埭股份经济联合社","startTime":"2019-09-09 08:30:00","stopDate":"2019-09-09 13:30:00","orgNo":"3340130","typeCode":"计划停电","poweroffArea":"110kV城东变:拱秀A587线-洄南分线后段","poweroffReason":"回澜南园11#公变拆除","powerTime":"2019-09-09 13:13:40","powerComm":"已送电","subsNo":"","lineNo":"","tgNo":"","tgName":null,"infoStatus":"1","orgName":"国网浙江杭州市萧山区供电有限公司","typeName":null,"infoStatusName":null,"dateDay":null,"orgNos":null,"nowTime":null,"countyName":null,"streetName":null,"villageName":null,"roadName":null,"communityName":null,"tranName":null,"sdLineName":null,"cityCode":"3340130","cityName":"国网浙江杭州市萧山区供电有限公司","provinceCode":null,"stopTime":"2019-09-09 13:30:00","powerType":"全部","powerOffArea":"110kV城东变:拱秀A587线-洄南分线后段","powerOffReason":"回澜南园11#公变拆除","powerOffId":"2019083031020471"},{"poweroffId":2019083031020469,"sgpoweroffId":null,"subsName":"","lineName":"10kV桦树H684线","pubTranName":"桦树村里长子坞,","scope":"浙江省杭州市余杭区闲林前街道：桦树村里长子坞一带","startTime":"2019-09-12 09:30:00","stopDate":"2019-09-12 15:30:00","orgNo":"3340140","typeCode":"计划停电","poweroffArea":"桦树H684线里长子坞令克开关原停电结束时间2019-09-12 17:30:00 变更停电结束时间2019-09-12 15:30:00 变更原因：为减少客户停电时间,加快工作进度,提前送电","poweroffReason":"计划工作原停电结束时间为2019-09-12 17:30:00,为减少客户停电时间,加快工作进度,提前送电,现变更停电结束时间为2019-09-12 15:30:00","powerTime":"2019-09-12 14:50:25","powerComm":"已送电","subsNo":"","lineNo":"","tgNo":"","tgName":null,"infoStatus":"1","orgName":"国网浙江杭州市余杭区供电有限公司","typeName":null,"infoStatusName":null,"dateDay":null,"orgNos":null,"nowTime":null,"countyName":null,"streetName":null,"villageName":null,"roadName":null,"communityName":null,"tranName":null,"sdLineName":null,"cityCode":"3340140","cityName":"国网浙江杭州市余杭区供电有限公司","provinceCode":null,"stopTime":"2019-09-12 15:30:00","powerType":"全部","powerOffArea":"桦树H684线里长子坞令克开关原停电结束时间2019-09-12 17:30:00 变更停电结束时间2019-09-12 15:30:00 变更原因：为减少客户停电时间,加快工作进度,提前送电","powerOffReason":"计划工作原停电结束时间为2019-09-12 17:30:00,为减少客户停电时间,加快工作进度,提前送电,现变更停电结束时间为2019-09-12 15:30:00","powerOffId":"2019083031020469"},{"poweroffId":2019083031020468,"sgpoweroffId":null,"subsName":"","lineName":"10kV铁矿H726线","pubTranName":"永乐新村2号公变,","scope":"浙江省杭州市余杭区闲林街道：永乐新村一带","startTime":"2019-09-12 08:40:00","stopDate":"2019-09-12 12:40:00","orgNo":"3340140","typeCode":"计划停电","poweroffArea":"赛淘开关站铁矿H726线永乐新村2分线原停电结束时间2019-09-12 14:40:00 变更停电结束时间2019-09-12 12:40:00 变更原因：为减少客户停电时间,加快工作进度,提前送电","poweroffReason":"业扩工程（杭州余杭重大基础设施建设有限公司闲林分公司永乐新村2#变移位工程）原停电结束时间为2019-09-12 14:40:00,为减少客户停电时间,加快工作进度,提前送电,现变更停电结束时间为2019-09-12 12:40:00","powerTime":"2019-09-12 12:18:10","powerComm":"已送电","subsNo":"","lineNo":"","tgNo":"","tgName":null,"infoStatus":"1","orgName":"国网浙江杭州市余杭区供电有限公司","typeName":null,"infoStatusName":null,"dateDay":null,"orgNos":null,"nowTime":null,"countyName":null,"streetName":null,"villageName":null,"roadName":null,"communityName":null,"tranName":null,"sdLineName":null,"cityCode":"3340140","cityName":"国网浙江杭州市余杭区供电有限公司","provinceCode":null,"stopTime":"2019-09-12 12:40:00","powerType":"全部","powerOffArea":"赛淘开关站铁矿H726线永乐新村2分线原停电结束时间2019-09-12 14:40:00 变更停电结束时间2019-09-12 12:40:00 变更原因：为减少客户停电时间,加快工作进度,提前送电","powerOffReason":"业扩工程（杭州余杭重大基础设施建设有限公司闲林分公司永乐新村2#变移位工程）原停电结束时间为2019-09-12 14:40:00,为减少客户停电时间,加快工作进度,提前送电,现变更停电结束时间为2019-09-12 12:40:00","powerOffId":"2019083031020468"},{"poweroffId":2019083031020467,"sgpoweroffId":null,"subsName":"","lineName":"10kV创意H772线","pubTranName":"文一村运河新桥,","scope":"浙江省杭州市余杭区五常街道：文一社区运河新桥一带","startTime":"2019-09-11 08:40:00","stopDate":"2019-09-11 14:40:00","orgNo":"3340140","typeCode":"计划停电","poweroffArea":"创意H772线滕家分线23号杆开关","poweroffReason":"业扩工程（北控环境余杭塘河河道整治乐泉H840线等线路上改下工程）：创意H772线滕家分线23号杆开关后段线路迁改工作","powerTime":"2019-09-11 14:29:50","powerComm":"已送电。","subsNo":"","lineNo":"","tgNo":"","tgName":null,"infoStatus":"1","orgName":"国网浙江杭州市余杭区供电有限公司","typeName":null,"infoStatusName":null,"dateDay":null,"orgNos":null,"nowTime":null,"countyName":null,"streetName":null,"villageName":null,"roadName":null,"communityName":null,"tranName":null,"sdLineName":null,"cityCode":"3340140","cityName":"国网浙江杭州市余杭区供电有限公司","provinceCode":null,"stopTime":"2019-09-11 14:40:00","powerType":"全部","powerOffArea":"创意H772线滕家分线23号杆开关","powerOffReason":"业扩工程（北控环境余杭塘河河道整治乐泉H840线等线路上改下工程）：创意H772线滕家分线23号杆开关后段线路迁改工作","powerOffId":"2019083031020467"},{"poweroffId":2019083031020466,"sgpoweroffId":null,"subsName":"","lineName":"10kV灵源H655线","pubTranName":"高桥村李家塘2#公变,","scope":"浙江省杭州市余杭区仓前街道：高桥村李家塘一带","startTime":"2019-09-09 08:40:00","stopDate":"2019-09-09 17:00:00","orgNo":"3340140","typeCode":"计划停电","poweroffArea":"灵源H6553开关-H6554开关 原停电结束时间2019-09-09 17:40:00 变更停电结束时间2019-09-09 17:00:00 变更原因：施工力量充足，工作提前完成。","poweroffReason":"配网工程（2019年杭州余杭科技城地区网琪线绝缘化改造工程）原停电结束时间2019-09-09 17:40:00 变更停电结束时间2019-09-09 17:00:00 变更原因：施工力量充足，工作提前完成。","powerTime":"2019-09-09 16:22:44","powerComm":"已送电","subsNo":"","lineNo":"","tgNo":"","tgName":null,"infoStatus":"1","orgName":"国网浙江杭州市余杭区供电有限公司","typeName":null,"infoStatusName":null,"dateDay":null,"orgNos":null,"nowTime":null,"countyName":null,"streetName":null,"villageName":null,"roadName":null,"communityName":null,"tranName":null,"sdLineName":null,"cityCode":"3340140","cityName":"国网浙江杭州市余杭区供电有限公司","provinceCode":null,"stopTime":"2019-09-09 17:00:00","powerType":"全部","powerOffArea":"灵源H6553开关-H6554开关 原停电结束时间2019-09-09 17:40:00 变更停电结束时间2019-09-09 17:00:00 变更原因：施工力量充足，工作提前完成。","powerOffReason":"配网工程（2019年杭州余杭科技城地区网琪线绝缘化改造工程）原停电结束时间2019-09-09 17:40:00 变更停电结束时间2019-09-09 17:00:00 变更原因：施工力量充足，工作提前完成。","powerOffId":"2019083031020466"},{"poweroffId":2019083031020465,"sgpoweroffId":null,"subsName":"","lineName":"10kV东辉T373线","pubTranName":"外塔脚1号公变,桐庐朝发装饰材料厂1号变,桐庐县百江镇宏聚木制品厂,严家坪1号公变,桐庐县百江镇招堂木制品厂,道坪1号公变,大年坞1号公变,桐庐小京水电开发有限公司,倒坞口1号公变,","scope":"浙江省-杭州市-桐庐县-百江镇-小京行政村(倒坞口自然村,外塔脚自然村,严家坪自然村,大年坞自然村);百江镇-小京行政村(桐庐朝发装饰材料厂,桐庐小京水电开发有限公司,桐庐县百江镇老郑木制品加工厂,桐庐县百江镇宏聚木制品厂)","startTime":"2019-09-07 07:30:00","stopDate":"2019-09-07 08:20:00","orgNo":"3340150","typeCode":"计划停电","poweroffArea":"110kV百江变:东辉T373线-东辉T3734智能开关后段","poweroffReason":"0.4kV发电车保供电，原停电结束时间2019年9月7日8：00，变更停电结束时间2019年9月7日8：20，原因：天气原因。","powerTime":"2019-09-07 08:14:55","powerComm":"已送电。","subsNo":"","lineNo":"","tgNo":"","tgName":null,"infoStatus":"1","orgName":"国网浙江桐庐县供电公司","typeName":null,"infoStatusName":null,"dateDay":null,"orgNos":null,"nowTime":null,"countyName":null,"streetName":null,"villageName":null,"roadName":null,"communityName":null,"tranName":null,"sdLineName":null,"cityCode":"3340150","cityName":"国网浙江桐庐县供电公司","provinceCode":null,"stopTime":"2019-09-07 08:20:00","powerType":"全部","powerOffArea":"110kV百江变:东辉T373线-东辉T3734智能开关后段","powerOffReason":"0.4kV发电车保供电，原停电结束时间2019年9月7日8：00，变更停电结束时间2019年9月7日8：20，原因：天气原因。","powerOffId":"2019083031020465"},{"poweroffId":2019083031020464,"sgpoweroffId":null,"subsName":"","lineName":"10kV东辉T373线","pubTranName":"后河村委会,仰家1号公变,六坑里1号公变,翰板陈家1号公变,东树坑村里1号公变,塔岭1号公变,郭村1号公变,麻坑湾1号公变,东辉下村1号公变,浩源1号公变,东辉电管站1号公变,坑口1号公变,翰板村1号公变,道坞1号公变,坞石1号公变,后河道坞口1号公变,六坑外1号公变,东树坑村外1号公变,孟坑坞1号公变,后河村1号公变,东辉村1号公变,","scope":"浙江省-杭州市-淳安县-文昌镇-东树坑行政村(东树坑外自然村,东树坑里自然村),百江镇-翰板行政村(翰板自然村,陈家自然村),百江镇-郭村行政村(浩源自然村,郭村自然村),百江镇-后河行政村(坞石自然村,后河自然村,仰家自然村,道坞自然村,道坞口自然村),百江镇-东辉行政村(东辉村自然村,东辉下村自然村,麻坑湾自然村,坑口自然村,塔岭自然村,东辉电管站自然村),百江镇-小京行政村(六坑里自然村,六坑外自然村,炮台山自然村);浙江省-杭州市-桐庐县-百江镇-后河行政村-后河村委会","startTime":"2019-09-07 07:30:00","stopDate":"2019-09-07 08:30:00","orgNo":"3340150","typeCode":"计划停电","poweroffArea":"110kV百江变:东辉T373线-东辉4318后段","poweroffReason":"10kV发电车保供电 原停电结束时间2019年9月7日 07:30:00，变更停电结束时间：2019年9月7日 8:30:00，原因：天气原因需要延期","powerTime":"2019-09-07 08:15:13","powerComm":"已送电","subsNo":"","lineNo":"","tgNo":"","tgName":null,"infoStatus":"1","orgName":"国网浙江桐庐县供电公司","typeName":null,"infoStatusName":null,"dateDay":null,"orgNos":null,"nowTime":null,"countyName":null,"streetName":null,"villageName":null,"roadName":null,"communityName":null,"tranName":null,"sdLineName":null,"cityCode":"3340150","cityName":"国网浙江桐庐县供电公司","provinceCode":null,"stopTime":"2019-09-07 08:30:00","powerType":"全部","powerOffArea":"110kV百江变:东辉T373线-东辉4318后段","powerOffReason":"10kV发电车保供电 原停电结束时间2019年9月7日 07:30:00，变更停电结束时间：2019年9月7日 8:30:00，原因：天气原因需要延期","powerOffId":"2019083031020464"},{"poweroffId":2019083031020462,"sgpoweroffId":null,"subsName":"","lineName":"10kV谢家D746线","pubTranName":"蒋家村17号化工厂,蒋家村5号泉井桥公变,蒋家村15号泉井桥新区公变,蒋家村10号水塔公变,","scope":"浙江省-杭州市-富阳区-鹿山街道-蒋家行政村(杨家井自然村,葱门头自然村,一号路,金鑫路,工农路,料塘路,蒋家自然村,中心路)一带","startTime":"2019-09-12 08:10:00","stopDate":"2019-09-12 08:20:00","orgNo":"3340170","typeCode":"计划停电","poweroffArea":"110kV陆家变:谢家D746线首端，蒋家村15号泉井桥新区公变，蒋家村10号水塔公变之间;谢家D746线-蒋家村17号化工厂后段;谢家D746线-蒋家村5#泉井桥公变熔断器后段","poweroffReason":"短时停电配合蒋家二分线5#杆后段负荷转供至10千伏发电车","powerTime":"2019-09-12 08:19:00","powerComm":"已送电","subsNo":"","lineNo":"","tgNo":"","tgName":null,"infoStatus":"1","orgName":"国网浙江杭州市富阳区供电公司","typeName":null,"infoStatusName":null,"dateDay":null,"orgNos":null,"nowTime":null,"countyName":null,"streetName":null,"villageName":null,"roadName":null,"communityName":null,"tranName":null,"sdLineName":null,"cityCode":"3340170","cityName":"国网浙江杭州市富阳区供电公司","provinceCode":null,"stopTime":"2019-09-12 08:20:00","powerType":"全部","powerOffArea":"110kV陆家变:谢家D746线首端，蒋家村15号泉井桥新区公变，蒋家村10号水塔公变之间;谢家D746线-蒋家村17号化工厂后段;谢家D746线-蒋家村5#泉井桥公变熔断器后段","powerOffReason":"短时停电配合蒋家二分线5#杆后段负荷转供至10千伏发电车","powerOffId":"2019083031020462"},{"poweroffId":2019083031020461,"sgpoweroffId":null,"subsName":"","lineName":"10kV图山D502线","pubTranName":"白石胶村6号路边公变,白石胶村5号赵村坞公变,白石胶村1号煤井公变,杭州鹏源旅行用品有限公司,","scope":"浙江省杭州市富阳区场口镇白石胶村一带","startTime":"2019-09-10 17:15:00","stopDate":"2019-09-10 18:00:00","orgNo":"3340170","typeCode":"计划停电","poweroffArea":"110kV常安变:图山D502线-白石胶分线22#开关后段","poweroffReason":"白石胶村6#路边公变配电屏进线电缆处至发电机电缆拆除工作","powerTime":"2019-09-10 17:46:55","powerComm":"已送电","subsNo":"","lineNo":"","tgNo":"","tgName":null,"infoStatus":"1","orgName":"国网浙江杭州市富阳区供电公司","typeName":null,"infoStatusName":null,"dateDay":null,"orgNos":null,"nowTime":null,"countyName":null,"streetName":null,"villageName":null,"roadName":null,"communityName":null,"tranName":null,"sdLineName":null,"cityCode":"3340170","cityName":"国网浙江杭州市富阳区供电公司","provinceCode":null,"stopTime":"2019-09-10 18:00:00","powerType":"全部","powerOffArea":"110kV常安变:图山D502线-白石胶分线22#开关后段","powerOffReason":"白石胶村6#路边公变配电屏进线电缆处至发电机电缆拆除工作","powerOffId":"2019083031020461"}],"pageModel":{"pageNow":1171,"totalCount":17789,"totalPage":1779,"tableRows":0,"pageCount":10,"beginCount":11700},"isExperi":"1"}