{"message":"","today":"2020-06-16","seleList":[{"poweroffId":2019083031020433,"sgpoweroffId":null,"subsName":"","lineName":"10kV罗宅D396线","pubTranName":"万市村3#西山下公变,","scope":"浙江省杭州市富阳区万市镇万市行政村西山下自然村一带","startTime":"2019-09-12 07:30:00","stopDate":"2019-09-12 14:30:00","orgNo":"3340170","typeCode":"计划停电","poweroffArea":"110kV万市变:10KV罗宅D396线槎源分线2#杆西山下支线","poweroffReason":"10KV罗宅D396线槎源分线2#杆西山下支线1#杆万市村3#西山下公变吊车拔杆15米1支、立杆15米1支、拆装变压器一台、JP柜一台、、拆除出线电缆YJV-4*120二路、敷设出线电缆YJV-4*150三路、安装水平拉线、搭接电缆","powerTime":"2019-09-12 14:20:10","powerComm":"已送电","subsNo":"","lineNo":"","tgNo":"","tgName":null,"infoStatus":"1","orgName":"国网浙江杭州市富阳区供电公司","typeName":null,"infoStatusName":null,"dateDay":null,"orgNos":null,"nowTime":null,"countyName":null,"streetName":null,"villageName":null,"roadName":null,"communityName":null,"tranName":null,"sdLineName":null,"cityCode":"3340170","cityName":"国网浙江杭州市富阳区供电公司","provinceCode":null,"stopTime":"2019-09-12 14:30:00","powerType":"全部","powerOffArea":"110kV万市变:10KV罗宅D396线槎源分线2#杆西山下支线","powerOffReason":"10KV罗宅D396线槎源分线2#杆西山下支线1#杆万市村3#西山下公变吊车拔杆15米1支、立杆15米1支、拆装变压器一台、JP柜一台、、拆除出线电缆YJV-4*120二路、敷设出线电缆YJV-4*150三路、安装水平拉线、搭接电缆","powerOffId":"2019083031020433"},{"poweroffId":2019083031020432,"sgpoweroffId":null,"subsName":"","lineName":"10kV坪西R321线","pubTranName":"上坑村,","scope":"浙江省-杭州市-淳安县-千岛湖镇-云村行政村-上坑自然村","startTime":"2019-09-06 07:30:00","stopDate":"2019-09-06 12:30:00","orgNo":"3340190","typeCode":"临时停电","poweroffArea":"110kV坪山变:坪西R321线-上坑村配变跌落式熔断器后段","poweroffReason":"上坑配变增容更换变压器","powerTime":"2019-09-06 11:43:37","powerComm":"现场工作已完成","subsNo":"","lineNo":"","tgNo":"","tgName":null,"infoStatus":"1","orgName":"国网浙江淳安县供电有限公司","typeName":null,"infoStatusName":null,"dateDay":null,"orgNos":null,"nowTime":null,"countyName":null,"streetName":null,"villageName":null,"roadName":null,"communityName":null,"tranName":null,"sdLineName":null,"cityCode":"3340190","cityName":"国网浙江淳安县供电有限公司","provinceCode":null,"stopTime":"2019-09-06 12:30:00","powerType":"全部","powerOffArea":"110kV坪山变:坪西R321线-上坑村配变跌落式熔断器后段","powerOffReason":"上坑配变增容更换变压器","powerOffId":"2019083031020432"},{"poweroffId":2019083031020431,"sgpoweroffId":null,"subsName":"","lineName":"10kV上陈D295线","pubTranName":"杭州泗洲家禽养殖有限公司,","scope":"浙江省杭州市富阳区银湖街道泗洲村杭州泗洲家禽养殖有限公司一带","startTime":"2019-09-11 05:15:00","stopDate":"2019-09-11 18:00:00","orgNo":"3340170","typeCode":"计划停电","poweroffArea":"35kV新义变:上陈D295线-家禽支分线开关后段","poweroffReason":"配合用户内部检修 原停电结束时间为2019-09-11 17:00:00,因施工难度大原因,现变更停电结束时间为2019-09-11 18:00:00","powerTime":"2019-09-11 17:46:29","powerComm":"已送电","subsNo":"","lineNo":"","tgNo":"","tgName":null,"infoStatus":"1","orgName":"国网浙江杭州市富阳区供电公司","typeName":null,"infoStatusName":null,"dateDay":null,"orgNos":null,"nowTime":null,"countyName":null,"streetName":null,"villageName":null,"roadName":null,"communityName":null,"tranName":null,"sdLineName":null,"cityCode":"3340170","cityName":"国网浙江杭州市富阳区供电公司","provinceCode":null,"stopTime":"2019-09-11 18:00:00","powerType":"全部","powerOffArea":"35kV新义变:上陈D295线-家禽支分线开关后段","powerOffReason":"配合用户内部检修 原停电结束时间为2019-09-11 17:00:00,因施工难度大原因,现变更停电结束时间为2019-09-11 18:00:00","powerOffId":"2019083031020431"},{"poweroffId":2019083031020430,"sgpoweroffId":null,"subsName":"","lineName":"10kV上陈D295线","pubTranName":"富阳市皇天畈水利管理处,","scope":"浙江省杭州市富阳区银湖街道泗洲村富阳区皇天畈水利管理处一带","startTime":"2019-09-11 05:00:00","stopDate":"2019-09-11 17:00:00","orgNo":"3340170","typeCode":"计划停电","poweroffArea":"35kV新义变:上陈D295线-富阳市皇天畈水利管理处后段","poweroffReason":"配合用户内部检修 原停电结束时间为2019-09-11 15:00:00,因施工难度大原因,现变更停电结束时间为2019-09-11 17:00:00","powerTime":"2019-09-11 16:22:51","powerComm":"已送电","subsNo":"","lineNo":"","tgNo":"","tgName":null,"infoStatus":"1","orgName":"国网浙江杭州市富阳区供电公司","typeName":null,"infoStatusName":null,"dateDay":null,"orgNos":null,"nowTime":null,"countyName":null,"streetName":null,"villageName":null,"roadName":null,"communityName":null,"tranName":null,"sdLineName":null,"cityCode":"3340170","cityName":"国网浙江杭州市富阳区供电公司","provinceCode":null,"stopTime":"2019-09-11 17:00:00","powerType":"全部","powerOffArea":"35kV新义变:上陈D295线-富阳市皇天畈水利管理处后段","powerOffReason":"配合用户内部检修 原停电结束时间为2019-09-11 15:00:00,因施工难度大原因,现变更停电结束时间为2019-09-11 17:00:00","powerOffId":"2019083031020430"},{"poweroffId":2019083031020429,"sgpoweroffId":null,"subsName":"","lineName":"10kV上陈D295线","pubTranName":"泗洲村3号白洋溪公变,泗洲村委8#公变,观前村1号杨家坎公变,泗洲村6#下白洋溪公变,泗洲村7号南公变,观前村7#杨家坎公变,","scope":"浙江省杭州市富阳区银湖街道泗洲村、观前村一带","startTime":"2019-09-11 07:00:00","stopDate":"2019-09-11 18:00:00","orgNo":"3340170","typeCode":"计划停电","poweroffArea":"35kV新义变:上陈D295线-泗洲二分线后段","poweroffReason":"杭州富阳青云地区2018年110kV高桥变10kV高桥13线新建工程：泗洲村3#白洋溪公变等公变终端检修等工作。原停电结束时间为2019-09-11 17:00:00,因施工难度大原因,现变更停电结束时间为2019-09-11 18:00:00","powerTime":"2019-09-11 17:46:13","powerComm":"已送电","subsNo":"","lineNo":"","tgNo":"","tgName":null,"infoStatus":"1","orgName":"国网浙江杭州市富阳区供电公司","typeName":null,"infoStatusName":null,"dateDay":null,"orgNos":null,"nowTime":null,"countyName":null,"streetName":null,"villageName":null,"roadName":null,"communityName":null,"tranName":null,"sdLineName":null,"cityCode":"3340170","cityName":"国网浙江杭州市富阳区供电公司","provinceCode":null,"stopTime":"2019-09-11 18:00:00","powerType":"全部","powerOffArea":"35kV新义变:上陈D295线-泗洲二分线后段","powerOffReason":"杭州富阳青云地区2018年110kV高桥变10kV高桥13线新建工程：泗洲村3#白洋溪公变等公变终端检修等工作。原停电结束时间为2019-09-11 17:00:00,因施工难度大原因,现变更停电结束时间为2019-09-11 18:00:00","powerOffId":"2019083031020429"},{"poweroffId":2019083031020424,"sgpoweroffId":null,"subsName":"","lineName":"10kV上陈D295线","pubTranName":"富阳强盛钢带弹簧有限公司,","scope":"浙江省杭州市富阳区银湖街道泗洲村富阳强盛钢带弹簧有限公司一带","startTime":"2019-09-11 05:45:00","stopDate":"2019-09-11 18:00:00","orgNo":"3340170","typeCode":"计划停电","poweroffArea":"35kV新义变:上陈D295线-强盛支线开关后段","poweroffReason":"配合用户内部检修 原停电结束时间为2019-09-11 17:00:00,因施工难度大原因,现变更停电结束时间为2019-09-11 18:00:00","powerTime":"2019-09-11 17:45:59","powerComm":"已送电","subsNo":"","lineNo":"","tgNo":"","tgName":null,"infoStatus":"1","orgName":"国网浙江杭州市富阳区供电公司","typeName":null,"infoStatusName":null,"dateDay":null,"orgNos":null,"nowTime":null,"countyName":null,"streetName":null,"villageName":null,"roadName":null,"communityName":null,"tranName":null,"sdLineName":null,"cityCode":"3340170","cityName":"国网浙江杭州市富阳区供电公司","provinceCode":null,"stopTime":"2019-09-11 18:00:00","powerType":"全部","powerOffArea":"35kV新义变:上陈D295线-强盛支线开关后段","powerOffReason":"配合用户内部检修 原停电结束时间为2019-09-11 17:00:00,因施工难度大原因,现变更停电结束时间为2019-09-11 18:00:00","powerOffId":"2019083031020424"},{"poweroffId":2019083031020423,"sgpoweroffId":null,"subsName":"","lineName":"10kV上陈D295线","pubTranName":"杭州市富阳区文化广电新闻出版局1#变,","scope":"浙江省杭州市富阳区银湖街道泗洲村富阳区文化广电新闻出版局一带","startTime":"2019-09-11 05:30:00","stopDate":"2019-09-11 18:00:00","orgNo":"3340170","typeCode":"计划停电","poweroffArea":"35kV新义变:上陈D295线-文广支线开关后段","poweroffReason":"配合用户内部检修 原停电结束时间为2019-09-11 17:00:00,因施工难度大原因,现变更停电结束时间为2019-09-11 18:00:00","powerTime":"2019-09-11 17:45:37","powerComm":"已送电","subsNo":"","lineNo":"","tgNo":"","tgName":null,"infoStatus":"1","orgName":"国网浙江杭州市富阳区供电公司","typeName":null,"infoStatusName":null,"dateDay":null,"orgNos":null,"nowTime":null,"countyName":null,"streetName":null,"villageName":null,"roadName":null,"communityName":null,"tranName":null,"sdLineName":null,"cityCode":"3340170","cityName":"国网浙江杭州市富阳区供电公司","provinceCode":null,"stopTime":"2019-09-11 18:00:00","powerType":"全部","powerOffArea":"35kV新义变:上陈D295线-文广支线开关后段","powerOffReason":"配合用户内部检修 原停电结束时间为2019-09-11 17:00:00,因施工难度大原因,现变更停电结束时间为2019-09-11 18:00:00","powerOffId":"2019083031020423"},{"poweroffId":2019083031020420,"sgpoweroffId":null,"subsName":"","lineName":"10kV上陈D295线","pubTranName":"杭州富阳水务有限公司 2#,","scope":"浙江省-杭州市-富阳区-银湖街道-泗洲行政村-杭州富阳水务有限公司","startTime":"2019-09-11 06:00:00","stopDate":"2019-09-11 18:00:00","orgNo":"3340170","typeCode":"计划停电","poweroffArea":"35kV新义变:上陈D295线-杭州富阳水务有限公司后段;上陈D295线-杭州富阳交通发展投资集团有限公司后段","poweroffReason":"配合用户内部检修 原停电结束时间为2019-09-11 17:00:00,因施工难度大原因,现变更停电结束时间为2019-09-11 18:00:00","powerTime":"2019-09-11 17:45:23","powerComm":"已送电","subsNo":"","lineNo":"","tgNo":"","tgName":null,"infoStatus":"1","orgName":"国网浙江杭州市富阳区供电公司","typeName":null,"infoStatusName":null,"dateDay":null,"orgNos":null,"nowTime":null,"countyName":null,"streetName":null,"villageName":null,"roadName":null,"communityName":null,"tranName":null,"sdLineName":null,"cityCode":"3340170","cityName":"国网浙江杭州市富阳区供电公司","provinceCode":null,"stopTime":"2019-09-11 18:00:00","powerType":"全部","powerOffArea":"35kV新义变:上陈D295线-杭州富阳水务有限公司后段;上陈D295线-杭州富阳交通发展投资集团有限公司后段","powerOffReason":"配合用户内部检修 原停电结束时间为2019-09-11 17:00:00,因施工难度大原因,现变更停电结束时间为2019-09-11 18:00:00","powerOffId":"2019083031020420"},{"poweroffId":2019083031020418,"sgpoweroffId":null,"subsName":"","lineName":"10kV塘埠H257线","pubTranName":"塘埠村方家村公变,塘埠村马树边公变,塘埠村白湖公变,","scope":"浙江省杭州市余杭区瓶窑镇：塘埠村马树边、塘埠村白湖、塘埠村方家村一带","startTime":"2019-09-10 08:40:00","stopDate":"2019-09-10 18:10:00","orgNo":"3340140","typeCode":"计划停电","poweroffArea":"白湖分线38号杆开关后段","poweroffReason":"计划工作","powerTime":"2019-09-10 17:20:25","powerComm":"已送电","subsNo":"","lineNo":"","tgNo":"","tgName":null,"infoStatus":"1","orgName":"国网浙江杭州市余杭区供电有限公司","typeName":null,"infoStatusName":null,"dateDay":null,"orgNos":null,"nowTime":null,"countyName":null,"streetName":null,"villageName":null,"roadName":null,"communityName":null,"tranName":null,"sdLineName":null,"cityCode":"3340140","cityName":"国网浙江杭州市余杭区供电有限公司","provinceCode":null,"stopTime":"2019-09-10 18:10:00","powerType":"全部","powerOffArea":"白湖分线38号杆开关后段","powerOffReason":"计划工作","powerOffId":"2019083031020418"},{"poweroffId":2019083031020417,"sgpoweroffId":null,"subsName":"","lineName":"10kV湘岭D714线","pubTranName":"官塘村外官4#下邱家公变,","scope":"浙江省杭州市富阳区新登镇官塘行政村外官下邱家自然村一带","startTime":"2019-09-11 07:00:00","stopDate":"2019-09-11 14:00:00","orgNo":"3340170","typeCode":"计划停电","poweroffArea":"110kV松溪变:10KV湘岭D714线53#杆下邱家分线","poweroffReason":"10KV湘岭D714线53#杆下邱家分线1#杆官塘村外官4#下邱家公变、吊车拔杆12米1支立杆15米1支、拆装杆上变一套、更换配电屏、拆除进线电缆YJV-4*150一路、敷设进线电缆YJV-4*240一路、拆装出线电缆头三路","powerTime":"2019-09-11 13:00:45","powerComm":"已送电","subsNo":"","lineNo":"","tgNo":"","tgName":null,"infoStatus":"1","orgName":"国网浙江杭州市富阳区供电公司","typeName":null,"infoStatusName":null,"dateDay":null,"orgNos":null,"nowTime":null,"countyName":null,"streetName":null,"villageName":null,"roadName":null,"communityName":null,"tranName":null,"sdLineName":null,"cityCode":"3340170","cityName":"国网浙江杭州市富阳区供电公司","provinceCode":null,"stopTime":"2019-09-11 14:00:00","powerType":"全部","powerOffArea":"110kV松溪变:10KV湘岭D714线53#杆下邱家分线","powerOffReason":"10KV湘岭D714线53#杆下邱家分线1#杆官塘村外官4#下邱家公变、吊车拔杆12米1支立杆15米1支、拆装杆上变一套、更换配电屏、拆除进线电缆YJV-4*150一路、敷设进线电缆YJV-4*240一路、拆装出线电缆头三路","powerOffId":"2019083031020417"}],"pageModel":{"pageNow":1173,"totalCount":17789,"totalPage":1779,"tableRows":0,"pageCount":10,"beginCount":11720},"isExperi":"1"}