{"message":"","today":"2020-06-15","seleList":[{"poweroffId":2020052231020385,"sgpoweroffId":null,"subsName":"","lineName":"10kV后山D833线","pubTranName":"包家淇8号长轮坞公变,","scope":"浙江省-杭州市-富阳区-新桐乡-新桐行政村-包家淇自然村","startTime":"2020-06-02 08:20:00","stopDate":"2020-06-02 12:00:00","orgNo":"3340170","typeCode":"计划停电","poweroffArea":"110kV新桐变:后山D833线-包家淇8号长轮坞公变后段","poweroffReason":"(低压停电信息)（配合停电）割接等工作","powerTime":"2020-06-02 11:50:15","powerComm":"已送电","subsNo":"","lineNo":"","tgNo":"","tgName":null,"infoStatus":"1","orgName":"国网浙江杭州市富阳区供电公司","typeName":null,"infoStatusName":null,"dateDay":null,"orgNos":null,"nowTime":null,"countyName":null,"streetName":null,"villageName":null,"roadName":null,"communityName":null,"tranName":null,"sdLineName":null,"cityCode":"3340170","cityName":"国网浙江杭州市富阳区供电公司","provinceCode":null,"stopTime":"2020-06-02 12:00:00","powerType":"全部","powerOffArea":"110kV新桐变:后山D833线-包家淇8号长轮坞公变后段","powerOffReason":"(低压停电信息)（配合停电）割接等工作","powerOffId":"2020052231020385"},{"poweroffId":2020052231020383,"sgpoweroffId":null,"subsName":"","lineName":"10kV湘主D286线","pubTranName":"湘主村2#下堰桥公变,","scope":"浙江省-杭州市-富阳区-新登镇-湘主行政村-下堰桥自然村一带","startTime":"2020-06-04 07:40:00","stopDate":"2020-06-04 17:00:00","orgNo":"3340170","typeCode":"计划停电","poweroffArea":"110kV清泉变:湘主D286线-湘主村2#下堰桥公变低压开关后段","poweroffReason":"(低压停电信息)落户线、导线搭接、安装更换落户线BS-JKLYJ-2*25*3户、BS-JKLYJ-4*35*10户、安装安装墙上支架20只、表箱13只","powerTime":"2020-06-04 16:42:28","powerComm":"已送电","subsNo":"","lineNo":"","tgNo":"","tgName":null,"infoStatus":"1","orgName":"国网浙江杭州市富阳区供电公司","typeName":null,"infoStatusName":null,"dateDay":null,"orgNos":null,"nowTime":null,"countyName":null,"streetName":null,"villageName":null,"roadName":null,"communityName":null,"tranName":null,"sdLineName":null,"cityCode":"3340170","cityName":"国网浙江杭州市富阳区供电公司","provinceCode":null,"stopTime":"2020-06-04 17:00:00","powerType":"全部","powerOffArea":"110kV清泉变:湘主D286线-湘主村2#下堰桥公变低压开关后段","powerOffReason":"(低压停电信息)落户线、导线搭接、安装更换落户线BS-JKLYJ-2*25*3户、BS-JKLYJ-4*35*10户、安装安装墙上支架20只、表箱13只","powerOffId":"2020052231020383"},{"poweroffId":2020052231020378,"sgpoweroffId":null,"subsName":"","lineName":"10kV钱龚V876线","pubTranName":"上甘村[桥洞里]公变,","scope":"浙江省-杭州市-临安区-锦南街道-上甘行政村-桥洞里自然村一带","startTime":"2020-06-03 08:00:00","stopDate":"2020-06-03 17:00:00","orgNo":"3340160","typeCode":"计划停电","poweroffArea":"110kV杨岱变:钱龚V876线-桥洞里分支线跌落式熔断器后段","poweroffReason":"美丽公路工作 原停电结束时间为2020-06-03 19:00:00,为减少客户停电时间,加快工作进度,提前送电,现变更停电结束时间为2020-06-03 17:00:00","powerTime":"2020-06-03 16:08:54","powerComm":"已送电","subsNo":"","lineNo":"","tgNo":"","tgName":null,"infoStatus":"1","orgName":"国网浙江临安市供电公司","typeName":null,"infoStatusName":null,"dateDay":null,"orgNos":null,"nowTime":null,"countyName":null,"streetName":null,"villageName":null,"roadName":null,"communityName":null,"tranName":null,"sdLineName":null,"cityCode":"3340160","cityName":"国网浙江临安市供电公司","provinceCode":null,"stopTime":"2020-06-03 17:00:00","powerType":"全部","powerOffArea":"110kV杨岱变:钱龚V876线-桥洞里分支线跌落式熔断器后段","powerOffReason":"美丽公路工作 原停电结束时间为2020-06-03 19:00:00,为减少客户停电时间,加快工作进度,提前送电,现变更停电结束时间为2020-06-03 17:00:00","powerOffId":"2020052231020378"},{"poweroffId":2020052231020376,"sgpoweroffId":null,"subsName":"","lineName":"10kV钱龚V876线","pubTranName":"上甘村[大同]公变,","scope":"浙江省-杭州市-临安区-锦南街道-上甘行政村-大同自然村一带","startTime":"2020-06-03 08:00:00","stopDate":"2020-06-03 17:00:00","orgNo":"3340160","typeCode":"计划停电","poweroffArea":"110kV杨岱变:钱龚V876线-上甘村[大同]公变后段","poweroffReason":"同杆低压线路移位(低压停电信息) 原停电结束时间为2020-06-03 19:00:00,为减少客户停电时间,加快工作进度,提前送电,现变更停电结束时间为2020-06-03 17:00:00","powerTime":"2020-06-03 16:08:33","powerComm":"已送电","subsNo":"","lineNo":"","tgNo":"","tgName":null,"infoStatus":"1","orgName":"国网浙江临安市供电公司","typeName":null,"infoStatusName":null,"dateDay":null,"orgNos":null,"nowTime":null,"countyName":null,"streetName":null,"villageName":null,"roadName":null,"communityName":null,"tranName":null,"sdLineName":null,"cityCode":"3340160","cityName":"国网浙江临安市供电公司","provinceCode":null,"stopTime":"2020-06-03 17:00:00","powerType":"全部","powerOffArea":"110kV杨岱变:钱龚V876线-上甘村[大同]公变后段","powerOffReason":"同杆低压线路移位(低压停电信息) 原停电结束时间为2020-06-03 19:00:00,为减少客户停电时间,加快工作进度,提前送电,现变更停电结束时间为2020-06-03 17:00:00","powerOffId":"2020052231020376"},{"poweroffId":2020052231020375,"sgpoweroffId":null,"subsName":"","lineName":"10kV杨华V731线","pubTranName":"南庄村[合塘口],","scope":"浙江省-杭州市-临安区-太湖源镇-南庄行政村-合塘自然村一带","startTime":"2020-06-05 08:00:00","stopDate":"2020-06-05 13:00:00","orgNo":"3340160","typeCode":"计划停电","poweroffArea":"110kV杨岭变:杨华V731线-南庄村[合塘口]后段","poweroffReason":"公变增容工作","powerTime":"2020-06-05 12:50:36","powerComm":"已送电","subsNo":"","lineNo":"","tgNo":"","tgName":null,"infoStatus":"1","orgName":"国网浙江临安市供电公司","typeName":null,"infoStatusName":null,"dateDay":null,"orgNos":null,"nowTime":null,"countyName":null,"streetName":null,"villageName":null,"roadName":null,"communityName":null,"tranName":null,"sdLineName":null,"cityCode":"3340160","cityName":"国网浙江临安市供电公司","provinceCode":null,"stopTime":"2020-06-05 13:00:00","powerType":"全部","powerOffArea":"110kV杨岭变:杨华V731线-南庄村[合塘口]后段","powerOffReason":"公变增容工作","powerOffId":"2020052231020375"},{"poweroffId":2020052231020374,"sgpoweroffId":null,"subsName":"","lineName":"10kV钱龚V876线","pubTranName":"上甘村[百公苓]公变,","scope":"浙江省-杭州市-临安市-锦南街道-上甘行政村-百公岭自然村一带","startTime":"2020-06-02 08:00:00","stopDate":"2020-06-02 13:00:00","orgNo":"3340160","typeCode":"计划停电","poweroffArea":"110kV杨岱变:钱龚V876线-上甘村[百公苓]公变后段","poweroffReason":"同杆低压线路移位(低压停电信息)","powerTime":"2020-06-02 12:30:19","powerComm":"已送电","subsNo":"","lineNo":"","tgNo":"","tgName":null,"infoStatus":"1","orgName":"国网浙江临安市供电公司","typeName":null,"infoStatusName":null,"dateDay":null,"orgNos":null,"nowTime":null,"countyName":null,"streetName":null,"villageName":null,"roadName":null,"communityName":null,"tranName":null,"sdLineName":null,"cityCode":"3340160","cityName":"国网浙江临安市供电公司","provinceCode":null,"stopTime":"2020-06-02 13:00:00","powerType":"全部","powerOffArea":"110kV杨岱变:钱龚V876线-上甘村[百公苓]公变后段","powerOffReason":"同杆低压线路移位(低压停电信息)","powerOffId":"2020052231020374"},{"poweroffId":2020052231020373,"sgpoweroffId":null,"subsName":"","lineName":"10kV钱龚V876线","pubTranName":"上甘村[百公岭上]公变,","scope":"浙江省-杭州市-临安市-锦南街道-上甘行政村-百公岭自然村一带","startTime":"2020-06-02 08:00:00","stopDate":"2020-06-02 13:00:00","orgNo":"3340160","typeCode":"计划停电","poweroffArea":"110kV杨岱变:钱龚V876线-岭上分支线01#后段","poweroffReason":"美丽公路工作","powerTime":"2020-06-02 12:30:18","powerComm":"已送电","subsNo":"","lineNo":"","tgNo":"","tgName":null,"infoStatus":"1","orgName":"国网浙江临安市供电公司","typeName":null,"infoStatusName":null,"dateDay":null,"orgNos":null,"nowTime":null,"countyName":null,"streetName":null,"villageName":null,"roadName":null,"communityName":null,"tranName":null,"sdLineName":null,"cityCode":"3340160","cityName":"国网浙江临安市供电公司","provinceCode":null,"stopTime":"2020-06-02 13:00:00","powerType":"全部","powerOffArea":"110kV杨岱变:钱龚V876线-岭上分支线01#后段","powerOffReason":"美丽公路工作","powerOffId":"2020052231020373"},{"poweroffId":2020052231020372,"sgpoweroffId":null,"subsName":"","lineName":"10kV秀申V399线","pubTranName":"卦畈村[畈湾口]公变,","scope":"浙江省-杭州市-临安市-锦南街道-卦畈行政村-上卦畈自然村一带","startTime":"2020-06-02 08:30:00","stopDate":"2020-06-02 12:30:00","orgNo":"3340160","typeCode":"计划停电","poweroffArea":"110kV秀水变:秀申V399线-卦畈村[畈湾口]公变后段","poweroffReason":"配合安装开关(低压停电信息) 原停电结束时间为2020-06-02 13:00:00,为减少客户停电时间,加快工作进度,提前送电,现变更停电结束时间为2020-06-02 12:30:00","powerTime":"2020-06-02 11:53:29","powerComm":"已送电","subsNo":"","lineNo":"","tgNo":"","tgName":null,"infoStatus":"1","orgName":"国网浙江临安市供电公司","typeName":null,"infoStatusName":null,"dateDay":null,"orgNos":null,"nowTime":null,"countyName":null,"streetName":null,"villageName":null,"roadName":null,"communityName":null,"tranName":null,"sdLineName":null,"cityCode":"3340160","cityName":"国网浙江临安市供电公司","provinceCode":null,"stopTime":"2020-06-02 12:30:00","powerType":"全部","powerOffArea":"110kV秀水变:秀申V399线-卦畈村[畈湾口]公变后段","powerOffReason":"配合安装开关(低压停电信息) 原停电结束时间为2020-06-02 13:00:00,为减少客户停电时间,加快工作进度,提前送电,现变更停电结束时间为2020-06-02 12:30:00","powerOffId":"2020052231020372"},{"poweroffId":2020052231020369,"sgpoweroffId":null,"subsName":"","lineName":"10kV三口V552线","pubTranName":"葱坑董公坞,","scope":"浙江省-杭州市-临安市-板桥镇-葱坑行政村-葱坑董公坞","startTime":"2020-06-05 08:00:00","stopDate":"2020-06-05 12:30:00","orgNo":"3340160","typeCode":"计划停电","poweroffArea":"110kV板桥变:三口V552线冲坑分线38#杆葱坑董公坞配变低压总闸刀以后","poweroffReason":"增容布点工程","powerTime":"2020-06-05 12:20:23","powerComm":"已送电","subsNo":"","lineNo":"","tgNo":"","tgName":null,"infoStatus":"1","orgName":"国网浙江临安市供电公司","typeName":null,"infoStatusName":null,"dateDay":null,"orgNos":null,"nowTime":null,"countyName":null,"streetName":null,"villageName":null,"roadName":null,"communityName":null,"tranName":null,"sdLineName":null,"cityCode":"3340160","cityName":"国网浙江临安市供电公司","provinceCode":null,"stopTime":"2020-06-05 12:30:00","powerType":"全部","powerOffArea":"110kV板桥变:三口V552线冲坑分线38#杆葱坑董公坞配变低压总闸刀以后","powerOffReason":"增容布点工程","powerOffId":"2020052231020369"},{"poweroffId":2020052231020366,"sgpoweroffId":null,"subsName":"","lineName":"10kV科弦V746线","pubTranName":"颐和山庄2#台区4#变,","scope":"浙江省-杭州市-临安市-锦北街道-民主行政村-颐和山庄","startTime":"2020-06-04 08:10:00","stopDate":"2020-06-04 13:00:00","orgNo":"3340160","typeCode":"计划停电","poweroffArea":"110kV科创变:科弦V746线颐和山庄2#台区高配G3间隔开关","poweroffReason":"配变故障处理","powerTime":"2020-06-04 12:19:28","powerComm":"已送电","subsNo":"","lineNo":"","tgNo":"","tgName":null,"infoStatus":"1","orgName":"国网浙江临安市供电公司","typeName":null,"infoStatusName":null,"dateDay":null,"orgNos":null,"nowTime":null,"countyName":null,"streetName":null,"villageName":null,"roadName":null,"communityName":null,"tranName":null,"sdLineName":null,"cityCode":"3340160","cityName":"国网浙江临安市供电公司","provinceCode":null,"stopTime":"2020-06-04 13:00:00","powerType":"全部","powerOffArea":"110kV科创变:科弦V746线颐和山庄2#台区高配G3间隔开关","powerOffReason":"配变故障处理","powerOffId":"2020052231020366"}],"pageModel":{"pageNow":119,"totalCount":17786,"totalPage":1779,"tableRows":0,"pageCount":10,"beginCount":1180},"isExperi":"1"}