{"message":"","today":"2020-06-16","seleList":[{"poweroffId":2019083031020416,"sgpoweroffId":null,"subsName":"","lineName":"10kV月池H618线","pubTranName":"宝塔星苑4号公变,","scope":"浙江省杭州市余杭区余杭街道：宝塔星苑小区一带","startTime":"2019-09-11 08:40:00","stopDate":"2019-09-11 16:30:00","orgNo":"3340140","typeCode":"计划停电","poweroffArea":"110kV桃源变:月池H618线-宝塔星苑4号公变进线跌落式熔断器后段","poweroffReason":"计划工作","powerTime":"2019-09-11 15:52:55","powerComm":"已送电","subsNo":"","lineNo":"","tgNo":"","tgName":null,"infoStatus":"1","orgName":"国网浙江杭州市余杭区供电有限公司","typeName":null,"infoStatusName":null,"dateDay":null,"orgNos":null,"nowTime":null,"countyName":null,"streetName":null,"villageName":null,"roadName":null,"communityName":null,"tranName":null,"sdLineName":null,"cityCode":"3340140","cityName":"国网浙江杭州市余杭区供电有限公司","provinceCode":null,"stopTime":"2019-09-11 16:30:00","powerType":"全部","powerOffArea":"110kV桃源变:月池H618线-宝塔星苑4号公变进线跌落式熔断器后段","powerOffReason":"计划工作","powerOffId":"2019083031020416"},{"poweroffId":2019083031020412,"sgpoweroffId":null,"subsName":"","lineName":"10kV赐壁H267线","pubTranName":"奇鹤村白鹤村公变,交工路桥6120702419(800-3)#专变,交工路桥6120702415(800-1)#专变,奇鹤村界岭2号公变,奇鹤村界岭1号公变,奇鹤村长岭脚公变,交工路桥6120702418(800-2)#专变,交工路桥6120702420(800-4)#专变,","scope":"浙江省杭州市余杭区瓶窑镇：奇鹤村长岭脚、奇鹤村白鹤村、奇鹤村界岭、交工路桥一带","startTime":"2019-09-09 08:40:00","stopDate":"2019-09-09 12:30:00","orgNo":"3340140","typeCode":"计划停电","poweroffArea":"瓶窑镇-赐壁H267线白鹤分线60号杆开关后段 因施工力量增强，提前送电 原送电时间2019-9-9 14：40 现送电时间2019-9-9 12：30","poweroffReason":"计划工作","powerTime":"2019-09-09 11:51:38","powerComm":"已送电","subsNo":"","lineNo":"","tgNo":"","tgName":null,"infoStatus":"1","orgName":"国网浙江杭州市余杭区供电有限公司","typeName":null,"infoStatusName":null,"dateDay":null,"orgNos":null,"nowTime":null,"countyName":null,"streetName":null,"villageName":null,"roadName":null,"communityName":null,"tranName":null,"sdLineName":null,"cityCode":"3340140","cityName":"国网浙江杭州市余杭区供电有限公司","provinceCode":null,"stopTime":"2019-09-09 12:30:00","powerType":"全部","powerOffArea":"瓶窑镇-赐壁H267线白鹤分线60号杆开关后段 因施工力量增强，提前送电 原送电时间2019-9-9 14：40 现送电时间2019-9-9 12：30","powerOffReason":"计划工作","powerOffId":"2019083031020412"},{"poweroffId":2019083031020411,"sgpoweroffId":null,"subsName":"","lineName":"10kV上凉H544线","pubTranName":"求是村许家村1号公变,水泥砖厂,径山中心幼儿园II段（6120879820）02#专变,","scope":"浙江省杭州市余杭区径山镇：径山镇盛浆水泥砖厂、径山镇中心幼儿园、平求是村许家村一带","startTime":"2019-09-09 08:40:00","stopDate":"2019-09-09 11:30:00","orgNo":"3340140","typeCode":"计划停电","poweroffArea":"上凉H544线许家村分线 因施工力量增强，提前送电 原送电时间2019-9-9 12：40 现送电时间2019-9-9 11：30","poweroffReason":"计划工作","powerTime":"2019-09-09 11:17:46","powerComm":"已送电","subsNo":"","lineNo":"","tgNo":"","tgName":null,"infoStatus":"1","orgName":"国网浙江杭州市余杭区供电有限公司","typeName":null,"infoStatusName":null,"dateDay":null,"orgNos":null,"nowTime":null,"countyName":null,"streetName":null,"villageName":null,"roadName":null,"communityName":null,"tranName":null,"sdLineName":null,"cityCode":"3340140","cityName":"国网浙江杭州市余杭区供电有限公司","provinceCode":null,"stopTime":"2019-09-09 11:30:00","powerType":"全部","powerOffArea":"上凉H544线许家村分线 因施工力量增强，提前送电 原送电时间2019-9-9 12：40 现送电时间2019-9-9 11：30","powerOffReason":"计划工作","powerOffId":"2019083031020411"},{"poweroffId":2019083031020402,"sgpoweroffId":null,"subsName":"","lineName":"10kV站用T176线","pubTranName":"保安潘家3号公变,桐庐玉露茶业有限公司1#变,","scope":"浙江省-杭州市-桐庐县-分水镇-保安行政村(义林自然村,潘家自然村);浙江省-杭州市-桐庐县-分水镇-保安行政村-桐庐玉露茶业有限公司","startTime":"2019-09-12 07:30:00","stopDate":"2019-09-12 16:00:00","orgNo":"3340150","typeCode":"计划停电","poweroffArea":"110kV分水变:站用T176线-潘家F4933令克后段","poweroffReason":"杭州桐庐分水保安182线小源分线等配电线路及设备大修工程 原停电结束时间：2019-09-12 15:00:00，现停电结束时间：2019-09-12 16:00:00，原因：人员准备不足。","powerTime":"2019-09-12 15:44:28","powerComm":"已送电","subsNo":"","lineNo":"","tgNo":"","tgName":null,"infoStatus":"1","orgName":"国网浙江桐庐县供电公司","typeName":null,"infoStatusName":null,"dateDay":null,"orgNos":null,"nowTime":null,"countyName":null,"streetName":null,"villageName":null,"roadName":null,"communityName":null,"tranName":null,"sdLineName":null,"cityCode":"3340150","cityName":"国网浙江桐庐县供电公司","provinceCode":null,"stopTime":"2019-09-12 16:00:00","powerType":"全部","powerOffArea":"110kV分水变:站用T176线-潘家F4933令克后段","powerOffReason":"杭州桐庐分水保安182线小源分线等配电线路及设备大修工程 原停电结束时间：2019-09-12 15:00:00，现停电结束时间：2019-09-12 16:00:00，原因：人员准备不足。","powerOffId":"2019083031020402"},{"poweroffId":2019083031020401,"sgpoweroffId":null,"subsName":"","lineName":"10kV桐洲D842线","pubTranName":"汤赵村1#村口公变,","scope":"浙江省-杭州市-富阳区-新桐乡-江洲行政村(董家自然村,汤家自然村,汤赵自然村)","startTime":"2019-09-12 07:10:00","stopDate":"2019-09-12 16:50:00","orgNo":"3340170","typeCode":"计划停电","poweroffArea":"110kV新桐变:桐洲D842线-汤赵村1号村口公变后段","poweroffReason":"(低压停电信息)青云2019年蒋家村12#林场公变等低压台区改造工程照明1#线拆旧，架设BS-4*70*7档，更换落户线10处，照明2#线拆旧，架设BS-4*35*1档，，架设BS-4*70*2档，更换落户线10处，搭接等工作","powerTime":"2019-09-12 16:40:15","powerComm":"已送电","subsNo":"","lineNo":"","tgNo":"","tgName":null,"infoStatus":"1","orgName":"国网浙江杭州市富阳区供电公司","typeName":null,"infoStatusName":null,"dateDay":null,"orgNos":null,"nowTime":null,"countyName":null,"streetName":null,"villageName":null,"roadName":null,"communityName":null,"tranName":null,"sdLineName":null,"cityCode":"3340170","cityName":"国网浙江杭州市富阳区供电公司","provinceCode":null,"stopTime":"2019-09-12 16:50:00","powerType":"全部","powerOffArea":"110kV新桐变:桐洲D842线-汤赵村1号村口公变后段","powerOffReason":"(低压停电信息)青云2019年蒋家村12#林场公变等低压台区改造工程照明1#线拆旧，架设BS-4*70*7档，更换落户线10处，照明2#线拆旧，架设BS-4*35*1档，，架设BS-4*70*2档，更换落户线10处，搭接等工作","powerOffId":"2019083031020401"},{"poweroffId":2019083031020397,"sgpoweroffId":null,"subsName":"","lineName":"10kV桃舜A542线","pubTranName":"双元链条,申航化工,杭州双元链条有限公司,桃湖村4#变,国力建材,杭州市萧山区浦阳镇人民政府（桃源机埠）1#,双元链条,杭州市萧山区浦阳镇人民政府（桃源机埠）2#,桃湖村8#变,","scope":"浙江省-杭州市-萧山区-浦阳镇-桃湖行政村(洪水湾自然村,彭家桥自然村);浦阳镇(杭州双元链条有限公司,杭州新程印刷厂,杭州国力建材有限公司,杭州申航新材料有限公司,杭州市萧山区浦阳镇人民政府)等一带","startTime":"2019-08-30 14:11:00","stopDate":"2019-08-30 16:30:00","orgNo":"3340130","typeCode":"电网故障停限电","poweroffArea":"110kV浦阳变:桃舜A542线桃舜A542线桃湖村分线开关后段","poweroffReason":"高压开关跳闸","powerTime":"2019-08-30 15:35:46","powerComm":"已送电","subsNo":"","lineNo":"","tgNo":"","tgName":null,"infoStatus":"1","orgName":"国网浙江杭州市萧山区供电有限公司","typeName":null,"infoStatusName":null,"dateDay":null,"orgNos":null,"nowTime":null,"countyName":null,"streetName":null,"villageName":null,"roadName":null,"communityName":null,"tranName":null,"sdLineName":null,"cityCode":"3340130","cityName":"国网浙江杭州市萧山区供电有限公司","provinceCode":null,"stopTime":"2019-08-30 16:30:00","powerType":"全部","powerOffArea":"110kV浦阳变:桃舜A542线桃舜A542线桃湖村分线开关后段","powerOffReason":"高压开关跳闸","powerOffId":"2019083031020397"},{"poweroffId":2019083031020396,"sgpoweroffId":null,"subsName":"","lineName":"10kV桐洲D842线","pubTranName":"俞家村1#村中公变,","scope":"浙江省-杭州市-富阳区-新桐乡-俞家行政村-俞家自然村","startTime":"2019-09-11 07:10:00","stopDate":"2019-09-11 16:50:00","orgNo":"3340170","typeCode":"计划停电","poweroffArea":"110kV新桐变:桐洲D842线-俞家村1号村中公变后段","poweroffReason":"(低压停电信息)青云2019年蒋家村12#林场公变等低压台区改造工程照明2#线更换落户线20处，搭接等工作","powerTime":"2019-09-11 16:30:31","powerComm":"已送电","subsNo":"","lineNo":"","tgNo":"","tgName":null,"infoStatus":"1","orgName":"国网浙江杭州市富阳区供电公司","typeName":null,"infoStatusName":null,"dateDay":null,"orgNos":null,"nowTime":null,"countyName":null,"streetName":null,"villageName":null,"roadName":null,"communityName":null,"tranName":null,"sdLineName":null,"cityCode":"3340170","cityName":"国网浙江杭州市富阳区供电公司","provinceCode":null,"stopTime":"2019-09-11 16:50:00","powerType":"全部","powerOffArea":"110kV新桐变:桐洲D842线-俞家村1号村中公变后段","powerOffReason":"(低压停电信息)青云2019年蒋家村12#林场公变等低压台区改造工程照明2#线更换落户线20处，搭接等工作","powerOffId":"2019083031020396"},{"poweroffId":2019083031020390,"sgpoweroffId":null,"subsName":"","lineName":"10kV香下H546线","pubTranName":"平山村黑岭公变,平山村石家堰公变,","scope":"浙江省杭州市余杭区瓶窑镇：平山村石家堰、平山村黑岭一带","startTime":"2019-09-12 08:40:00","stopDate":"2019-09-12 19:30:00","orgNo":"3340140","typeCode":"计划停电","poweroffArea":"香下H546线黑岭分线 原停电结束时间为2019-09-12 20:00:00,因施工力量增强原因,现变更停电结束时间为2019-09-12 19:30:00","poweroffReason":"计划工作 原停电结束时间为2019-09-12 20:00:00,为减少客户停电时间,加快工作进度,提前送电,现变更停电结束时间为2019-09-12 19:30:00","powerTime":"2019-09-12 18:51:17","powerComm":"已送电","subsNo":"","lineNo":"","tgNo":"","tgName":null,"infoStatus":"1","orgName":"国网浙江杭州市余杭区供电有限公司","typeName":null,"infoStatusName":null,"dateDay":null,"orgNos":null,"nowTime":null,"countyName":null,"streetName":null,"villageName":null,"roadName":null,"communityName":null,"tranName":null,"sdLineName":null,"cityCode":"3340140","cityName":"国网浙江杭州市余杭区供电有限公司","provinceCode":null,"stopTime":"2019-09-12 19:30:00","powerType":"全部","powerOffArea":"香下H546线黑岭分线 原停电结束时间为2019-09-12 20:00:00,因施工力量增强原因,现变更停电结束时间为2019-09-12 19:30:00","powerOffReason":"计划工作 原停电结束时间为2019-09-12 20:00:00,为减少客户停电时间,加快工作进度,提前送电,现变更停电结束时间为2019-09-12 19:30:00","powerOffId":"2019083031020390"},{"poweroffId":2019083031020386,"sgpoweroffId":null,"subsName":"","lineName":"10kV景福H541线","pubTranName":"小古城村侯家公变,小古城村横坑6组公变,小古城村杨家畈1号公变,小古城村横坑5组公变,小古城村杨家畈2号公变,","scope":"浙江省杭州市余杭区瓶窑镇：小古城村横坑、小古城村侯家、小古城村杨家畈一带","startTime":"2019-09-11 08:40:00","stopDate":"2019-09-11 17:30:00","orgNo":"3340140","typeCode":"计划停电","poweroffArea":"景福H541线杨家畈2#分线","poweroffReason":"计划工作 原停电结束时间为2019-09-11 14:40:00,因XXX原因,现变更停电结束时间为2019-09-11 17:30:00","powerTime":"2019-09-11 17:02:17","powerComm":"全部送电","subsNo":"","lineNo":"","tgNo":"","tgName":null,"infoStatus":"1","orgName":"国网浙江杭州市余杭区供电有限公司","typeName":null,"infoStatusName":null,"dateDay":null,"orgNos":null,"nowTime":null,"countyName":null,"streetName":null,"villageName":null,"roadName":null,"communityName":null,"tranName":null,"sdLineName":null,"cityCode":"3340140","cityName":"国网浙江杭州市余杭区供电有限公司","provinceCode":null,"stopTime":"2019-09-11 17:30:00","powerType":"全部","powerOffArea":"景福H541线杨家畈2#分线","powerOffReason":"计划工作 原停电结束时间为2019-09-11 14:40:00,因XXX原因,现变更停电结束时间为2019-09-11 17:30:00","powerOffId":"2019083031020386"},{"poweroffId":2019083031020385,"sgpoweroffId":null,"subsName":"","lineName":"10kV唐公G968线","pubTranName":"中水渭村,","scope":"浙江省杭州市余杭区运河街道:五杭北水渭东一带","startTime":"2019-09-11 08:00:00","stopDate":"2019-09-11 13:00:00","orgNo":"3340140","typeCode":"计划停电","poweroffArea":"110kV博陆变:唐公G968线-唐公G968线五杭联合加工分线后段。原停电结束时间为2019-09-11 16:00:00,为减少客户停电时间,加快工作进度,提前送电,现变更停电结束时间为2019-09-11 13:00:00","poweroffReason":"五杭北水渭东公变增量至400kVA并调换计量箱 原停电结束时间为2019-09-11 16:00:00,为减少客户停电时间,加快工作进度,提前送电,现变更停电结束时间为2019-09-11 13:00:00","powerTime":"2019-09-11 12:39:29","powerComm":"完成工作已送电。","subsNo":"","lineNo":"","tgNo":"","tgName":null,"infoStatus":"1","orgName":"国网浙江杭州市余杭区供电有限公司","typeName":null,"infoStatusName":null,"dateDay":null,"orgNos":null,"nowTime":null,"countyName":null,"streetName":null,"villageName":null,"roadName":null,"communityName":null,"tranName":null,"sdLineName":null,"cityCode":"3340140","cityName":"国网浙江杭州市余杭区供电有限公司","provinceCode":null,"stopTime":"2019-09-11 13:00:00","powerType":"全部","powerOffArea":"110kV博陆变:唐公G968线-唐公G968线五杭联合加工分线后段。原停电结束时间为2019-09-11 16:00:00,为减少客户停电时间,加快工作进度,提前送电,现变更停电结束时间为2019-09-11 13:00:00","powerOffReason":"五杭北水渭东公变增量至400kVA并调换计量箱 原停电结束时间为2019-09-11 16:00:00,为减少客户停电时间,加快工作进度,提前送电,现变更停电结束时间为2019-09-11 13:00:00","powerOffId":"2019083031020385"}],"pageModel":{"pageNow":1174,"totalCount":17789,"totalPage":1779,"tableRows":0,"pageCount":10,"beginCount":11730},"isExperi":"1"}