{"message":"","today":"2020-06-16","seleList":[{"poweroffId":2019083031020288,"sgpoweroffId":null,"subsName":"","lineName":"10kV留南8869线","pubTranName":"留街,横股经变压器,清扬2,","scope":"浙江省-杭州市-西湖区-留下街道(东穆坞行政村,横街社区-留泗路);留下街道-横街社区(杭州横街股份经济合作社,杭州市水务控股集团有限公司九溪水厂)","startTime":"2019-08-30 12:03:46","stopDate":"2019-08-30 15:00:00","orgNo":"3340101","typeCode":"电网故障停限电","poweroffArea":"110kV留下变:留南8869线-留街分线后段","poweroffReason":"高压开关跳闸 原预计停电结束时间2019-08-30 17:03:46,由于施工现场环境比较复杂，存在不确定因素，因此预估施工时间适当放长了， 而实际施工进行得比较顺利，因此提前送电了","powerTime":"2019-08-30 14:18:31","powerComm":"送电","subsNo":"","lineNo":"","tgNo":"","tgName":null,"infoStatus":"1","orgName":"浙江杭州电力客户服务中心","typeName":null,"infoStatusName":null,"dateDay":null,"orgNos":null,"nowTime":null,"countyName":null,"streetName":null,"villageName":null,"roadName":null,"communityName":null,"tranName":null,"sdLineName":null,"cityCode":"3340101","cityName":"浙江杭州电力客户服务中心","provinceCode":null,"stopTime":"2019-08-30 15:00:00","powerType":"全部","powerOffArea":"110kV留下变:留南8869线-留街分线后段","powerOffReason":"高压开关跳闸 原预计停电结束时间2019-08-30 17:03:46,由于施工现场环境比较复杂，存在不确定因素，因此预估施工时间适当放长了， 而实际施工进行得比较顺利，因此提前送电了","powerOffId":"2019083031020288"},{"poweroffId":2019083031020279,"sgpoweroffId":null,"subsName":"","lineName":"10kV严家V175线","pubTranName":"10kV杲村村[郜家一]公变,","scope":"浙江省-杭州市-临安市-天目山镇-杲村行政村郜家一一带","startTime":"2019-09-12 07:30:00","stopDate":"2019-09-12 15:00:00","orgNo":"3340160","typeCode":"计划停电","poweroffArea":"停35kV藻溪变严家V175线郜家分线94#杆郜家一支线令克","poweroffReason":"改造","powerTime":"2019-09-12 14:20:51","powerComm":"已送电","subsNo":"","lineNo":"","tgNo":"","tgName":null,"infoStatus":"1","orgName":"国网浙江临安市供电公司","typeName":null,"infoStatusName":null,"dateDay":null,"orgNos":null,"nowTime":null,"countyName":null,"streetName":null,"villageName":null,"roadName":null,"communityName":null,"tranName":null,"sdLineName":null,"cityCode":"3340160","cityName":"国网浙江临安市供电公司","provinceCode":null,"stopTime":"2019-09-12 15:00:00","powerType":"全部","powerOffArea":"停35kV藻溪变严家V175线郜家分线94#杆郜家一支线令克","powerOffReason":"改造","powerOffId":"2019083031020279"},{"poweroffId":2019083031020278,"sgpoweroffId":null,"subsName":"","lineName":"10kV门口V295线","pubTranName":"10kV告岭村[东关村]公变,10kV告岭村[东关中宝坑]公变,10kV告岭村[东关火堂湾]公变,10kV告岭村[东关田春堂]公变,","scope":"浙江省-杭州市-临安市-天目山镇-东关田春堂,东关村,东关中宝坑,东关火堂湾一带","startTime":"2019-09-10 07:00:00","stopDate":"2019-09-10 13:00:00","orgNo":"3340160","typeCode":"计划停电","poweroffArea":"停35kV西天目变门口V295线东关分线76#杆田春堂支线令克","poweroffReason":"增容","powerTime":"2019-09-10 12:33:49","powerComm":"已送电","subsNo":"","lineNo":"","tgNo":"","tgName":null,"infoStatus":"1","orgName":"国网浙江临安市供电公司","typeName":null,"infoStatusName":null,"dateDay":null,"orgNos":null,"nowTime":null,"countyName":null,"streetName":null,"villageName":null,"roadName":null,"communityName":null,"tranName":null,"sdLineName":null,"cityCode":"3340160","cityName":"国网浙江临安市供电公司","provinceCode":null,"stopTime":"2019-09-10 13:00:00","powerType":"全部","powerOffArea":"停35kV西天目变门口V295线东关分线76#杆田春堂支线令克","powerOffReason":"增容","powerOffId":"2019083031020278"},{"poweroffId":2019083031020261,"sgpoweroffId":null,"subsName":"","lineName":"10kV如龙V556线","pubTranName":"如龙村小庙里,","scope":"浙江省-杭州市-临安市-板桥镇如龙村小庙里一带","startTime":"2019-09-11 07:30:00","stopDate":"2019-09-11 12:30:00","orgNo":"3340160","typeCode":"计划停电","poweroffArea":"110kV板桥变:停如龙V556线56#杆如龙村小庙里公变令克以后","poweroffReason":"线路改造","powerTime":"2019-09-11 12:02:26","powerComm":"已送电","subsNo":"","lineNo":"","tgNo":"","tgName":null,"infoStatus":"1","orgName":"国网浙江临安市供电公司","typeName":null,"infoStatusName":null,"dateDay":null,"orgNos":null,"nowTime":null,"countyName":null,"streetName":null,"villageName":null,"roadName":null,"communityName":null,"tranName":null,"sdLineName":null,"cityCode":"3340160","cityName":"国网浙江临安市供电公司","provinceCode":null,"stopTime":"2019-09-11 12:30:00","powerType":"全部","powerOffArea":"110kV板桥变:停如龙V556线56#杆如龙村小庙里公变令克以后","powerOffReason":"线路改造","powerOffId":"2019083031020261"},{"poweroffId":2019083031020249,"sgpoweroffId":null,"subsName":"","lineName":"10kV长盘D722线","pubTranName":"长盘村长盘2号竹园里公变,","scope":"浙江省杭州市富阳区永昌镇长盘行政村竹园里自然村一带","startTime":"2019-09-10 07:00:00","stopDate":"2019-09-10 14:00:00","orgNo":"3340170","typeCode":"计划停电","poweroffArea":"110kV松溪变:长盘D722线-长盘村长盘2号竹园里公变低压开关后段","poweroffReason":"(低压停电信息)新增公变0.4kv（未通电）、照明01线、02线敷设出线电缆YJV-4*150二路、架设导线JKLYJ-120*4*2档、安装横担4付、拉线2支、长盘2#竹园里公变0.4kv（配合停电）顺塘坞02线5-5#、5-6#杆导线割接（开断点2处）","powerTime":"2019-09-10 13:45:14","powerComm":"已送电","subsNo":"","lineNo":"","tgNo":"","tgName":null,"infoStatus":"1","orgName":"国网浙江杭州市富阳区供电公司","typeName":null,"infoStatusName":null,"dateDay":null,"orgNos":null,"nowTime":null,"countyName":null,"streetName":null,"villageName":null,"roadName":null,"communityName":null,"tranName":null,"sdLineName":null,"cityCode":"3340170","cityName":"国网浙江杭州市富阳区供电公司","provinceCode":null,"stopTime":"2019-09-10 14:00:00","powerType":"全部","powerOffArea":"110kV松溪变:长盘D722线-长盘村长盘2号竹园里公变低压开关后段","powerOffReason":"(低压停电信息)新增公变0.4kv（未通电）、照明01线、02线敷设出线电缆YJV-4*150二路、架设导线JKLYJ-120*4*2档、安装横担4付、拉线2支、长盘2#竹园里公变0.4kv（配合停电）顺塘坞02线5-5#、5-6#杆导线割接（开断点2处）","powerOffId":"2019083031020249"},{"poweroffId":2019083031020241,"sgpoweroffId":null,"subsName":"","lineName":"10kV唐昌D539线","pubTranName":"官山村清泉1#平家山公变,","scope":"浙江省杭州市富阳区新登镇官山行政村平家山自然村一带","startTime":"2019-09-09 07:00:00","stopDate":"2019-09-09 16:30:00","orgNo":"3340170","typeCode":"计划停电","poweroffArea":"110kV清泉变:唐昌D539线-官山村清泉1#平家山公变低压开关后段","poweroffReason":"(低压停电信息)10KV唐昌D539线官山村新增公变0.4kv敷设YJV22-4*150二路、架设JKLYJ-120*4*4档、导线搭接、官山村清泉1#平家山公变0.4kv（配合停电）徐家01线拆除JKLYJ-70*4*9档、人工拔旧杆7支","powerTime":"2019-09-09 16:07:17","powerComm":"已送电","subsNo":"","lineNo":"","tgNo":"","tgName":null,"infoStatus":"1","orgName":"国网浙江杭州市富阳区供电公司","typeName":null,"infoStatusName":null,"dateDay":null,"orgNos":null,"nowTime":null,"countyName":null,"streetName":null,"villageName":null,"roadName":null,"communityName":null,"tranName":null,"sdLineName":null,"cityCode":"3340170","cityName":"国网浙江杭州市富阳区供电公司","provinceCode":null,"stopTime":"2019-09-09 16:30:00","powerType":"全部","powerOffArea":"110kV清泉变:唐昌D539线-官山村清泉1#平家山公变低压开关后段","powerOffReason":"(低压停电信息)10KV唐昌D539线官山村新增公变0.4kv敷设YJV22-4*150二路、架设JKLYJ-120*4*4档、导线搭接、官山村清泉1#平家山公变0.4kv（配合停电）徐家01线拆除JKLYJ-70*4*9档、人工拔旧杆7支","powerOffId":"2019083031020241"},{"poweroffId":2019083031020236,"sgpoweroffId":null,"subsName":"","lineName":"10kV新浦D845线","pubTranName":"新浦村二联3#马路旁公变,","scope":"浙江省杭州市富阳区渌渚镇新浦行政村二联马路边自然村一带","startTime":"2019-09-09 07:30:00","stopDate":"2019-09-09 16:30:00","orgNo":"3340170","typeCode":"计划停电","poweroffArea":"110kV新桐变:新浦D845线-新浦村二联3#马路旁公变低压开关后段","poweroffReason":"(低压停电信息)帆布厂01线、马路边02线、山庄03线敷设YJV22-4*150出线电缆3路、拆除VLV-4*150出线电缆3路。（旁站监理）","powerTime":"2019-09-09 16:07:00","powerComm":"已送电","subsNo":"","lineNo":"","tgNo":"","tgName":null,"infoStatus":"1","orgName":"国网浙江杭州市富阳区供电公司","typeName":null,"infoStatusName":null,"dateDay":null,"orgNos":null,"nowTime":null,"countyName":null,"streetName":null,"villageName":null,"roadName":null,"communityName":null,"tranName":null,"sdLineName":null,"cityCode":"3340170","cityName":"国网浙江杭州市富阳区供电公司","provinceCode":null,"stopTime":"2019-09-09 16:30:00","powerType":"全部","powerOffArea":"110kV新桐变:新浦D845线-新浦村二联3#马路旁公变低压开关后段","powerOffReason":"(低压停电信息)帆布厂01线、马路边02线、山庄03线敷设YJV22-4*150出线电缆3路、拆除VLV-4*150出线电缆3路。（旁站监理）","powerOffId":"2019083031020236"},{"poweroffId":2019083031020203,"sgpoweroffId":null,"subsName":"","lineName":"10kV金桥D367线","pubTranName":"五小1#公变,","scope":"浙江省-杭州市-富阳区-富春街道-春南社区-菜市街,富春街道-春秋社区(田园路,菜市街)一带","startTime":"2019-09-15 08:00:00","stopDate":"2019-09-15 16:40:00","orgNo":"3340170","typeCode":"计划停电","poweroffArea":"110kV富鹿变:金桥D367线-五小一号公变后段","poweroffReason":"(低压停电信息)0.4kV低压1#出线、2#出线电缆改接 原停电时间为2019-09-12，因政策原因变更至2019-09-15","powerTime":"2019-09-15 15:52:47","powerComm":"已送电","subsNo":"","lineNo":"","tgNo":"","tgName":null,"infoStatus":"1","orgName":"国网浙江杭州市富阳区供电公司","typeName":null,"infoStatusName":null,"dateDay":null,"orgNos":null,"nowTime":null,"countyName":null,"streetName":null,"villageName":null,"roadName":null,"communityName":null,"tranName":null,"sdLineName":null,"cityCode":"3340170","cityName":"国网浙江杭州市富阳区供电公司","provinceCode":null,"stopTime":"2019-09-15 16:40:00","powerType":"全部","powerOffArea":"110kV富鹿变:金桥D367线-五小一号公变后段","powerOffReason":"(低压停电信息)0.4kV低压1#出线、2#出线电缆改接 原停电时间为2019-09-12，因政策原因变更至2019-09-15","powerOffId":"2019083031020203"},{"poweroffId":2019083031020188,"sgpoweroffId":null,"subsName":"","lineName":"10kV东山G252线","pubTranName":"栅庄桥村塘家湾南公变,","scope":"浙江省-杭州市-余杭区-仁和街道-栅庄桥行政村(唐家湾自然村,栅庄桥自然村,翁家塘自然村)","startTime":"2019-08-30 10:10:14","stopDate":"2019-08-30 10:59:00","orgNo":"3340140","typeCode":"电网故障停限电","poweroffArea":"110kV仁镇变:东山G252线-栅庄桥村塘家湾南公变后段","poweroffReason":"高压开关跳闸","powerTime":"2019-08-30 10:28:00","powerComm":"已修复送电","subsNo":"","lineNo":"","tgNo":"","tgName":null,"infoStatus":"1","orgName":"国网浙江杭州市余杭区供电有限公司","typeName":null,"infoStatusName":null,"dateDay":null,"orgNos":null,"nowTime":null,"countyName":null,"streetName":null,"villageName":null,"roadName":null,"communityName":null,"tranName":null,"sdLineName":null,"cityCode":"3340140","cityName":"国网浙江杭州市余杭区供电有限公司","provinceCode":null,"stopTime":"2019-08-30 10:59:00","powerType":"全部","powerOffArea":"110kV仁镇变:东山G252线-栅庄桥村塘家湾南公变后段","powerOffReason":"高压开关跳闸","powerOffId":"2019083031020188"},{"poweroffId":2019083031020185,"sgpoweroffId":null,"subsName":"","lineName":"10kV金桥D367线","pubTranName":"菜市街公变,","scope":"浙江省-杭州市-富阳区-富春街道(春秋社区-春秋南路,春南社区-春秋南路)一带","startTime":"2019-09-12 08:00:00","stopDate":"2019-09-12 16:40:00","orgNo":"3340170","typeCode":"计划停电","poweroffArea":"110kV富鹿变:金桥D367线-菜市街公变后段","poweroffReason":"(低压停电信息)0.4kV低压1#出线、2#出线电缆改接","powerTime":"2019-09-12 16:30:25","powerComm":"已送电","subsNo":"","lineNo":"","tgNo":"","tgName":null,"infoStatus":"1","orgName":"国网浙江杭州市富阳区供电公司","typeName":null,"infoStatusName":null,"dateDay":null,"orgNos":null,"nowTime":null,"countyName":null,"streetName":null,"villageName":null,"roadName":null,"communityName":null,"tranName":null,"sdLineName":null,"cityCode":"3340170","cityName":"国网浙江杭州市富阳区供电公司","provinceCode":null,"stopTime":"2019-09-12 16:40:00","powerType":"全部","powerOffArea":"110kV富鹿变:金桥D367线-菜市街公变后段","powerOffReason":"(低压停电信息)0.4kV低压1#出线、2#出线电缆改接","powerOffId":"2019083031020185"}],"pageModel":{"pageNow":1177,"totalCount":17789,"totalPage":1779,"tableRows":0,"pageCount":10,"beginCount":11760},"isExperi":"1"}