{"message":"","today":"2020-06-16","seleList":[{"poweroffId":2019083031020184,"sgpoweroffId":null,"subsName":"","lineName":"10kV荷庄D763线","pubTranName":"外沙村1#秧田坎公变,","scope":"浙江省-杭州市-富阳区-灵桥镇-外沙行政村-秧田坎自然村一带","startTime":"2019-09-12 08:00:00","stopDate":"2019-09-12 16:40:00","orgNo":"3340170","typeCode":"计划停电","poweroffArea":"110kV春联变:荷庄D763线-外沙村1号秧田坎低压开关后段","poweroffReason":"(低压停电信息)江南2019年勤俭村1#村中公变等台区低压线路改造工程立杆、拆架导线、搭接等工作","powerTime":"2019-09-12 16:30:12","powerComm":"已送电","subsNo":"","lineNo":"","tgNo":"","tgName":null,"infoStatus":"1","orgName":"国网浙江杭州市富阳区供电公司","typeName":null,"infoStatusName":null,"dateDay":null,"orgNos":null,"nowTime":null,"countyName":null,"streetName":null,"villageName":null,"roadName":null,"communityName":null,"tranName":null,"sdLineName":null,"cityCode":"3340170","cityName":"国网浙江杭州市富阳区供电公司","provinceCode":null,"stopTime":"2019-09-12 16:40:00","powerType":"全部","powerOffArea":"110kV春联变:荷庄D763线-外沙村1号秧田坎低压开关后段","powerOffReason":"(低压停电信息)江南2019年勤俭村1#村中公变等台区低压线路改造工程立杆、拆架导线、搭接等工作","powerOffId":"2019083031020184"},{"poweroffId":2019083031020183,"sgpoweroffId":null,"subsName":"","lineName":"10kV大树D219线","pubTranName":"受降村7#大树下甘坑口里公变,","scope":"浙江省杭州市富阳区银湖街道受降村大树下自然村一带","startTime":"2019-09-12 07:30:00","stopDate":"2019-09-12 16:30:00","orgNo":"3340170","typeCode":"计划停电","poweroffArea":"110kV银湖变:大树D219线-受降村7#大树下甘坑口里公变低压开关后段","poweroffReason":"(低压停电信息)更换导线7档，更换接户线20处，搭接等工作。","powerTime":"2019-09-12 16:20:22","powerComm":"已送电","subsNo":"","lineNo":"","tgNo":"","tgName":null,"infoStatus":"1","orgName":"国网浙江杭州市富阳区供电公司","typeName":null,"infoStatusName":null,"dateDay":null,"orgNos":null,"nowTime":null,"countyName":null,"streetName":null,"villageName":null,"roadName":null,"communityName":null,"tranName":null,"sdLineName":null,"cityCode":"3340170","cityName":"国网浙江杭州市富阳区供电公司","provinceCode":null,"stopTime":"2019-09-12 16:30:00","powerType":"全部","powerOffArea":"110kV银湖变:大树D219线-受降村7#大树下甘坑口里公变低压开关后段","powerOffReason":"(低压停电信息)更换导线7档，更换接户线20处，搭接等工作。","powerOffId":"2019083031020183"},{"poweroffId":2019083031020177,"sgpoweroffId":null,"subsName":"","lineName":"10kV盛村D266线","pubTranName":"大盛村2号盛村泻清坞公变,","scope":"浙江省-杭州市-富阳区-上官乡-大盛行政村-盛村自然村一带；","startTime":"2019-09-12 08:30:00","stopDate":"2019-09-12 16:30:00","orgNo":"3340170","typeCode":"计划停电","poweroffArea":"35kV盛村变:盛村D266线-大盛村2号盛村泻清坞公变后段","poweroffReason":"(低压停电信息)场口2019年10kV小剡村3#前山园公变等台区增容布点工程：大盛村2#盛村泻清坞公变负荷割接：架设低压双回导线3档，拆除低压单回导线3档，低压电缆上杆、搭接等工作。","powerTime":"2019-09-12 16:19:14","powerComm":"已送电","subsNo":"","lineNo":"","tgNo":"","tgName":null,"infoStatus":"1","orgName":"国网浙江杭州市富阳区供电公司","typeName":null,"infoStatusName":null,"dateDay":null,"orgNos":null,"nowTime":null,"countyName":null,"streetName":null,"villageName":null,"roadName":null,"communityName":null,"tranName":null,"sdLineName":null,"cityCode":"3340170","cityName":"国网浙江杭州市富阳区供电公司","provinceCode":null,"stopTime":"2019-09-12 16:30:00","powerType":"全部","powerOffArea":"35kV盛村变:盛村D266线-大盛村2号盛村泻清坞公变后段","powerOffReason":"(低压停电信息)场口2019年10kV小剡村3#前山园公变等台区增容布点工程：大盛村2#盛村泻清坞公变负荷割接：架设低压双回导线3档，拆除低压单回导线3档，低压电缆上杆、搭接等工作。","powerOffId":"2019083031020177"},{"poweroffId":2019083031020173,"sgpoweroffId":null,"subsName":"","lineName":"10kV康乐D354线","pubTranName":"田园路5号公变,","scope":"浙江省-杭州市-富阳区-富春街道-春晖社区-菜市街,富春街道-春秋社区(桂花西路,菜市街,田园路),富春街道-城西社区(桂花西路,菜市街,城西街)一带","startTime":"2019-09-11 08:00:00","stopDate":"2019-09-11 16:40:00","orgNo":"3340170","typeCode":"计划停电","poweroffArea":"110kV富鹿变:康乐D354线-田园路5号公变后段","poweroffReason":"(低压停电信息)0.4kV低压4#出线、6#出线电缆改接","powerTime":"2019-09-11 16:25:18","powerComm":"已送电","subsNo":"","lineNo":"","tgNo":"","tgName":null,"infoStatus":"1","orgName":"国网浙江杭州市富阳区供电公司","typeName":null,"infoStatusName":null,"dateDay":null,"orgNos":null,"nowTime":null,"countyName":null,"streetName":null,"villageName":null,"roadName":null,"communityName":null,"tranName":null,"sdLineName":null,"cityCode":"3340170","cityName":"国网浙江杭州市富阳区供电公司","provinceCode":null,"stopTime":"2019-09-11 16:40:00","powerType":"全部","powerOffArea":"110kV富鹿变:康乐D354线-田园路5号公变后段","powerOffReason":"(低压停电信息)0.4kV低压4#出线、6#出线电缆改接","powerOffId":"2019083031020173"},{"poweroffId":2019083031020170,"sgpoweroffId":null,"subsName":"","lineName":"10kV石墓D217线","pubTranName":"云水山居1#公变,","scope":"浙江省杭州市富阳区银湖街道云水山居小区一带","startTime":"2019-09-10 13:30:00","stopDate":"2019-09-10 17:10:00","orgNo":"3340170","typeCode":"计划停电","poweroffArea":"110kV银湖变:石墓D217线-云水山居1#公变低压开关后段","poweroffReason":"(低压停电信息)迎东2019年0.4kV配网缺陷工程调换电缆1路、按装三箱三表位1只、等工作","powerTime":"2019-09-10 16:55:14","powerComm":"已送电","subsNo":"","lineNo":"","tgNo":"","tgName":null,"infoStatus":"1","orgName":"国网浙江杭州市富阳区供电公司","typeName":null,"infoStatusName":null,"dateDay":null,"orgNos":null,"nowTime":null,"countyName":null,"streetName":null,"villageName":null,"roadName":null,"communityName":null,"tranName":null,"sdLineName":null,"cityCode":"3340170","cityName":"国网浙江杭州市富阳区供电公司","provinceCode":null,"stopTime":"2019-09-10 17:10:00","powerType":"全部","powerOffArea":"110kV银湖变:石墓D217线-云水山居1#公变低压开关后段","powerOffReason":"(低压停电信息)迎东2019年0.4kV配网缺陷工程调换电缆1路、按装三箱三表位1只、等工作","powerOffId":"2019083031020170"},{"poweroffId":2019083031020165,"sgpoweroffId":null,"subsName":"","lineName":"10kV大兆D605线","pubTranName":"大兆村3#康北坞公变,","scope":"浙江省杭州市富阳区大源镇虹赤村康北坞村一带","startTime":"2019-09-10 08:00:00","stopDate":"2019-09-10 16:40:00","orgNo":"3340170","typeCode":"计划停电","poweroffArea":"35kV溪东变:大兆D605线-大兆村3#康北坞公变低压开关后段","poweroffReason":"(低压停电信息)江南2019缺陷处理工程拆架导线、拔立电杆、搭接等工作","powerTime":"2019-09-10 16:26:53","powerComm":"已送电","subsNo":"","lineNo":"","tgNo":"","tgName":null,"infoStatus":"1","orgName":"国网浙江杭州市富阳区供电公司","typeName":null,"infoStatusName":null,"dateDay":null,"orgNos":null,"nowTime":null,"countyName":null,"streetName":null,"villageName":null,"roadName":null,"communityName":null,"tranName":null,"sdLineName":null,"cityCode":"3340170","cityName":"国网浙江杭州市富阳区供电公司","provinceCode":null,"stopTime":"2019-09-10 16:40:00","powerType":"全部","powerOffArea":"35kV溪东变:大兆D605线-大兆村3#康北坞公变低压开关后段","powerOffReason":"(低压停电信息)江南2019缺陷处理工程拆架导线、拔立电杆、搭接等工作","powerOffId":"2019083031020165"},{"poweroffId":2019083031020163,"sgpoweroffId":null,"subsName":"","lineName":"10kV金桥D367线","pubTranName":"镇二中公变,","scope":"浙江省-杭州市-富阳区-富春街道-春秋社区(菜市街,春秋南路),富春街道(春南社区-春秋南路,春晖社区-春秋南路)一带","startTime":"2019-09-10 08:00:00","stopDate":"2019-09-10 16:40:00","orgNo":"3340170","typeCode":"计划停电","poweroffArea":"110kV富鹿变:金桥D367线-镇二中公变后段","poweroffReason":"(低压停电信息)0.4kV镇二中公变低压1#出线、2#出线电缆改接至镇二中2号公变","powerTime":"2019-09-10 16:27:05","powerComm":"已送电","subsNo":"","lineNo":"","tgNo":"","tgName":null,"infoStatus":"1","orgName":"国网浙江杭州市富阳区供电公司","typeName":null,"infoStatusName":null,"dateDay":null,"orgNos":null,"nowTime":null,"countyName":null,"streetName":null,"villageName":null,"roadName":null,"communityName":null,"tranName":null,"sdLineName":null,"cityCode":"3340170","cityName":"国网浙江杭州市富阳区供电公司","provinceCode":null,"stopTime":"2019-09-10 16:40:00","powerType":"全部","powerOffArea":"110kV富鹿变:金桥D367线-镇二中公变后段","powerOffReason":"(低压停电信息)0.4kV镇二中公变低压1#出线、2#出线电缆改接至镇二中2号公变","powerOffId":"2019083031020163"},{"poweroffId":2019083031020159,"sgpoweroffId":null,"subsName":"","lineName":"10kV康乐D354线","pubTranName":"镇二中2号公变,","scope":"浙江省-杭州市-富阳区-富春街道(春秋社区-春秋南路,春南社区-春秋南路)一带","startTime":"2019-09-10 08:00:00","stopDate":"2019-09-10 16:40:00","orgNo":"3340170","typeCode":"计划停电","poweroffArea":"110kV富鹿变:康乐D354线-镇二中2号公变后段","poweroffReason":"(低压停电信息)0.4kV镇二中公变低压1#出线、2#出线电缆改接至镇二中2号公变","powerTime":"2019-09-10 16:26:34","powerComm":"已送电","subsNo":"","lineNo":"","tgNo":"","tgName":null,"infoStatus":"1","orgName":"国网浙江杭州市富阳区供电公司","typeName":null,"infoStatusName":null,"dateDay":null,"orgNos":null,"nowTime":null,"countyName":null,"streetName":null,"villageName":null,"roadName":null,"communityName":null,"tranName":null,"sdLineName":null,"cityCode":"3340170","cityName":"国网浙江杭州市富阳区供电公司","provinceCode":null,"stopTime":"2019-09-10 16:40:00","powerType":"全部","powerOffArea":"110kV富鹿变:康乐D354线-镇二中2号公变后段","powerOffReason":"(低压停电信息)0.4kV镇二中公变低压1#出线、2#出线电缆改接至镇二中2号公变","powerOffId":"2019083031020159"},{"poweroffId":2019083031020155,"sgpoweroffId":null,"subsName":"","lineName":"10kV上陈D295线","pubTranName":"泗洲村2#学校变,","scope":"浙江省杭州市富阳区银湖街道泗洲村学校一带","startTime":"2019-09-09 13:10:00","stopDate":"2019-09-09 17:10:00","orgNo":"3340170","typeCode":"计划停电","poweroffArea":"35kV新义变:上陈D295线-泗洲村2#学校变低压开关后段","poweroffReason":"(低压停电信息)迎东2019年0.4kV配网缺陷工程按装拉线2组、等工作","powerTime":"2019-09-09 16:51:34","powerComm":"已送电","subsNo":"","lineNo":"","tgNo":"","tgName":null,"infoStatus":"1","orgName":"国网浙江杭州市富阳区供电公司","typeName":null,"infoStatusName":null,"dateDay":null,"orgNos":null,"nowTime":null,"countyName":null,"streetName":null,"villageName":null,"roadName":null,"communityName":null,"tranName":null,"sdLineName":null,"cityCode":"3340170","cityName":"国网浙江杭州市富阳区供电公司","provinceCode":null,"stopTime":"2019-09-09 17:10:00","powerType":"全部","powerOffArea":"35kV新义变:上陈D295线-泗洲村2#学校变低压开关后段","powerOffReason":"(低压停电信息)迎东2019年0.4kV配网缺陷工程按装拉线2组、等工作","powerOffId":"2019083031020155"},{"poweroffId":2019083031020154,"sgpoweroffId":null,"subsName":"","lineName":"10kV浜河973线","pubTranName":"柳郡二变,柳郡十四变,柳郡十变,柳郡四变,柳郡八变,柳郡六变,","scope":"浙江省杭州市江干区彭埠街道兴隆社区九和路杨柳郡园四区一带","startTime":"2019-08-30 09:51:43","stopDate":"2019-08-30 13:00:00","orgNo":"3340101","typeCode":"电网故障停限电","poweroffArea":"110kV彭埠变:浜河973线-柳郡六变；柳郡二变；柳郡四变；柳郡八变；柳郡十变；柳郡十四变","poweroffReason":"高压开关跳闸 原预计停电结束时间2019-08-30 14:51:43,由于施工现场环境比较复杂，存在不确定因素，因此预估施工时间适当放长了， 而实际施工进行得比较顺利，因此提前送电了","powerTime":"2019-08-30 12:16:15","powerComm":"送电","subsNo":"","lineNo":"","tgNo":"","tgName":null,"infoStatus":"1","orgName":"浙江杭州电力客户服务中心","typeName":null,"infoStatusName":null,"dateDay":null,"orgNos":null,"nowTime":null,"countyName":null,"streetName":null,"villageName":null,"roadName":null,"communityName":null,"tranName":null,"sdLineName":null,"cityCode":"3340101","cityName":"浙江杭州电力客户服务中心","provinceCode":null,"stopTime":"2019-08-30 13:00:00","powerType":"全部","powerOffArea":"110kV彭埠变:浜河973线-柳郡六变；柳郡二变；柳郡四变；柳郡八变；柳郡十变；柳郡十四变","powerOffReason":"高压开关跳闸 原预计停电结束时间2019-08-30 14:51:43,由于施工现场环境比较复杂，存在不确定因素，因此预估施工时间适当放长了， 而实际施工进行得比较顺利，因此提前送电了","powerOffId":"2019083031020154"}],"pageModel":{"pageNow":1178,"totalCount":17789,"totalPage":1779,"tableRows":0,"pageCount":10,"beginCount":11770},"isExperi":"1"}