{"message":"","today":"2020-06-16","seleList":[{"poweroffId":2019083031020113,"sgpoweroffId":null,"subsName":"","lineName":"10kV杭磁6399线","pubTranName":"东部软件园4#,信科资产,东部软件园1#,东部软件园2#,东部软件园3#,","scope":"浙江省-杭州市-西湖区-西溪街道(花园亭社区-久融新能源科技有限公司,求智社区-杭州信科资产管理有限公司)","startTime":"2019-08-30 09:11:33","stopDate":"2019-08-30 10:11:33","orgNo":"3340101","typeCode":"电网故障停限电","poweroffArea":"110kV武林变:杭磁6399线","poweroffReason":"高压开关跳闸 原预计停电结束时间15:11:33,由于施工现场环境比较复杂，存在不确定因素，因此预估施工时间适当放长了，而实际施工进行得比较顺利，因此提前送电了","powerTime":"2019-08-30 09:27:11","powerComm":"送电","subsNo":"","lineNo":"","tgNo":"","tgName":null,"infoStatus":"1","orgName":"浙江杭州电力客户服务中心","typeName":null,"infoStatusName":null,"dateDay":null,"orgNos":null,"nowTime":null,"countyName":null,"streetName":null,"villageName":null,"roadName":null,"communityName":null,"tranName":null,"sdLineName":null,"cityCode":"3340101","cityName":"浙江杭州电力客户服务中心","provinceCode":null,"stopTime":"2019-08-30 10:11:33","powerType":"全部","powerOffArea":"110kV武林变:杭磁6399线","powerOffReason":"高压开关跳闸 原预计停电结束时间15:11:33,由于施工现场环境比较复杂，存在不确定因素，因此预估施工时间适当放长了，而实际施工进行得比较顺利，因此提前送电了","powerOffId":"2019083031020113"},{"poweroffId":2019083031020053,"sgpoweroffId":null,"subsName":"","lineName":"10kV良加H362线","pubTranName":"东莲村木桥头公变,","scope":"浙江省-杭州市-余杭区-良渚街道-东莲村木桥头一带","startTime":"2019-09-12 08:30:00","stopDate":"2019-09-12 15:20:00","orgNo":"3340140","typeCode":"计划停电","poweroffArea":"110kV学里变:良加H362线-东莲村木桥头公变","poweroffReason":"(低压停电信息)良加H362线东莲村木桥头公变低压线路改造 原停电结束时间为2019-09-12 16:30:00,为减少客户停电时间,加快工作进度,提前送电,现变更停电结束时间为2019-09-12 15:20:00","powerTime":"2019-09-12 14:53:11","powerComm":"已送电","subsNo":"","lineNo":"","tgNo":"","tgName":null,"infoStatus":"1","orgName":"国网浙江杭州市余杭区供电有限公司","typeName":null,"infoStatusName":null,"dateDay":null,"orgNos":null,"nowTime":null,"countyName":null,"streetName":null,"villageName":null,"roadName":null,"communityName":null,"tranName":null,"sdLineName":null,"cityCode":"3340140","cityName":"国网浙江杭州市余杭区供电有限公司","provinceCode":null,"stopTime":"2019-09-12 15:20:00","powerType":"全部","powerOffArea":"110kV学里变:良加H362线-东莲村木桥头公变","powerOffReason":"(低压停电信息)良加H362线东莲村木桥头公变低压线路改造 原停电结束时间为2019-09-12 16:30:00,为减少客户停电时间,加快工作进度,提前送电,现变更停电结束时间为2019-09-12 15:20:00","powerOffId":"2019083031020053"},{"poweroffId":2019083031020052,"sgpoweroffId":null,"subsName":"","lineName":"10kV金明G343线","pubTranName":"石桥村梁东村公变,","scope":"浙江省-杭州市-余杭区-良渚街道-石桥村梁东村一带","startTime":"2019-09-12 08:30:00","stopDate":"2019-09-12 12:30:00","orgNo":"3340140","typeCode":"计划停电","poweroffArea":"110kV洛山变:金明G343线-石桥村梁东村公变","poweroffReason":"(低压停电信息)金明G343线石桥村梁东村公变51#-54#用户接户线新放 原停电结束时间为2019-09-12 13:30:00,为减少客户停电时间,加快工作进度,提前送电,现变更停电结束时间为2019-09-12 12:30:00","powerTime":"2019-09-12 11:44:58","powerComm":"已送电","subsNo":"","lineNo":"","tgNo":"","tgName":null,"infoStatus":"1","orgName":"国网浙江杭州市余杭区供电有限公司","typeName":null,"infoStatusName":null,"dateDay":null,"orgNos":null,"nowTime":null,"countyName":null,"streetName":null,"villageName":null,"roadName":null,"communityName":null,"tranName":null,"sdLineName":null,"cityCode":"3340140","cityName":"国网浙江杭州市余杭区供电有限公司","provinceCode":null,"stopTime":"2019-09-12 12:30:00","powerType":"全部","powerOffArea":"110kV洛山变:金明G343线-石桥村梁东村公变","powerOffReason":"(低压停电信息)金明G343线石桥村梁东村公变51#-54#用户接户线新放 原停电结束时间为2019-09-12 13:30:00,为减少客户停电时间,加快工作进度,提前送电,现变更停电结束时间为2019-09-12 12:30:00","powerOffId":"2019083031020052"},{"poweroffId":2019083031020051,"sgpoweroffId":null,"subsName":"","lineName":"10kV笼山D252线","pubTranName":"民丰村6号青龙头公变,","scope":"浙江省-杭州市-富阳区-东洲街道-鸡笼山行政村-民丰自然村","startTime":"2019-08-30 08:30:03","stopDate":"2019-08-30 11:30:03","orgNo":"3340170","typeCode":"电网故障停限电","poweroffArea":"110kV白鹤变:笼山D252线-民丰村6号青龙头公变后段","poweroffReason":"高压开关跳闸","powerTime":"2019-08-30 11:06:11","powerComm":"已送电","subsNo":"","lineNo":"","tgNo":"","tgName":null,"infoStatus":"1","orgName":"国网浙江杭州市富阳区供电公司","typeName":null,"infoStatusName":null,"dateDay":null,"orgNos":null,"nowTime":null,"countyName":null,"streetName":null,"villageName":null,"roadName":null,"communityName":null,"tranName":null,"sdLineName":null,"cityCode":"3340170","cityName":"国网浙江杭州市富阳区供电公司","provinceCode":null,"stopTime":"2019-08-30 11:30:03","powerType":"全部","powerOffArea":"110kV白鹤变:笼山D252线-民丰村6号青龙头公变后段","powerOffReason":"高压开关跳闸","powerOffId":"2019083031020051"},{"poweroffId":2019083031020011,"sgpoweroffId":null,"subsName":"","lineName":"10kV金龙T461线","pubTranName":"梅苑新居3号公变,","scope":"浙江省-杭州市-桐庐县-城南街道-下杭社区-春江路，梅苑门口店面一带","startTime":"2019-08-30 05:32:19","stopDate":"2019-08-30 09:32:19","orgNo":"3340150","typeCode":"电网故障停限电","poweroffArea":"110kV下杭变:金龙T461线-梅苑新居3号公变后段","poweroffReason":"高压开关跳闸","powerTime":"2019-08-30 09:20:24","powerComm":"全部送电","subsNo":"","lineNo":"","tgNo":"","tgName":null,"infoStatus":"1","orgName":"国网浙江桐庐县供电公司","typeName":null,"infoStatusName":null,"dateDay":null,"orgNos":null,"nowTime":null,"countyName":null,"streetName":null,"villageName":null,"roadName":null,"communityName":null,"tranName":null,"sdLineName":null,"cityCode":"3340150","cityName":"国网浙江桐庐县供电公司","provinceCode":null,"stopTime":"2019-08-30 09:32:19","powerType":"全部","powerOffArea":"110kV下杭变:金龙T461线-梅苑新居3号公变后段","powerOffReason":"高压开关跳闸","powerOffId":"2019083031020011"},{"poweroffId":2019082931020524,"sgpoweroffId":null,"subsName":"","lineName":"10kV施区D967线","pubTranName":"施园7号公变配变,","scope":"浙江省-杭州市-富阳区-银湖街道-东坞山行政村-富闲路","startTime":"2019-08-29 22:52:00","stopDate":"2019-08-30 01:32:00","orgNo":"3340170","typeCode":"电网故障停限电","poweroffArea":"110kV九龙变:施区D967线施园7号公变配变配变","poweroffReason":"高压开关跳闸原结束时间2019-08-30 00:52:00因抢修难度较大延至2019-08-30 01:32:00","powerTime":"2019-08-30 01:07:33","powerComm":"已复归","subsNo":"","lineNo":"","tgNo":"","tgName":null,"infoStatus":"1","orgName":"国网浙江杭州市富阳区供电公司","typeName":null,"infoStatusName":null,"dateDay":null,"orgNos":null,"nowTime":null,"countyName":null,"streetName":null,"villageName":null,"roadName":null,"communityName":null,"tranName":null,"sdLineName":null,"cityCode":"3340170","cityName":"国网浙江杭州市富阳区供电公司","provinceCode":null,"stopTime":"2019-08-30 01:32:00","powerType":"全部","powerOffArea":"110kV九龙变:施区D967线施园7号公变配变配变","powerOffReason":"高压开关跳闸原结束时间2019-08-30 00:52:00因抢修难度较大延至2019-08-30 01:32:00","powerOffId":"2019082931020524"},{"poweroffId":2019082931020522,"sgpoweroffId":null,"subsName":"","lineName":"10kV金西T263线","pubTranName":"大丰童家1号公变,","scope":"浙江省-杭州市-桐庐县-城南街道-上杭社区-春江西路,城南街道-大丰行政村(大丰自然村,方家自然村,童家自然村,谢家自然村)大丰农具点","startTime":"2019-08-29 22:48:50","stopDate":"2019-08-29 23:59:50","orgNo":"3340150","typeCode":"电网故障停限电","poweroffArea":"35kV三合变:金西T263线-大丰童家1号公变后段","poweroffReason":"高压开关跳闸","powerTime":"2019-08-29 23:42:37","powerComm":"已送电。","subsNo":"","lineNo":"","tgNo":"","tgName":null,"infoStatus":"1","orgName":"国网浙江桐庐县供电公司","typeName":null,"infoStatusName":null,"dateDay":null,"orgNos":null,"nowTime":null,"countyName":null,"streetName":null,"villageName":null,"roadName":null,"communityName":null,"tranName":null,"sdLineName":null,"cityCode":"3340150","cityName":"国网浙江桐庐县供电公司","provinceCode":null,"stopTime":"2019-08-29 23:59:50","powerType":"全部","powerOffArea":"35kV三合变:金西T263线-大丰童家1号公变后段","powerOffReason":"高压开关跳闸","powerOffId":"2019082931020522"},{"poweroffId":2019082931020504,"sgpoweroffId":null,"subsName":"","lineName":"10kV红卫G801线","pubTranName":"杭州舜邦户外用品有限公司,庄里村经联社,中启橱柜400,公安局服务保障中心,杭州杰西嘉机械有限公司,杭州杭正电子科技有限公司,浙江欧伦电气有限公司,杭州鹏飞食品有限公司,临平针织厂250配变,陈家木桥村1组2号公变,陈家木桥村下祥河,倍仕得,杭州康格灯饰有限公司,浙江欧伦电气有限公司,方汇建筑基建变,杭州星宇石材装饰有限公司,杭州伟富,陈家木桥村一组,杭州溢佳制衣有限公司,杭州浙泰电气有限公司,浙江瑞盛石业有限公司,浙江品冠家具制造有限公司,杭州伟富毛绒纺织有限公司,秀美窗帘秀美窗帘,杭州古歌实业有限公司,杭州万吉织造有限公司,","scope":"浙江省-杭州市-余杭区-临平街道-陈家木桥行政村-陈家木桥自然村;运河街道-杭州凯超养老投资管理有限公司,经济开发区(杭州杭正电子科技有限公司,浙江欧伦电气有限公司,倍仕得电气科技(杭州)股份有限公司,杭州恒远建筑有限公司),东湖街道(杭州方汇建设工程检测有限公司,浙江品冠家具制造有限公司,杭州市公安局余杭区分局服务保障中心,杭州浙泰电气有限公司,浙江中仑企业管理有限公司,杭州环桥丝织品有限公司,杭州恒雄展示器材有限公司,杭州鹏飞食品有限公司,杭州凯超养老投资管理有限公司,杭州杰西嘉机械有限公司,杭州星宇链业有限公司,杭州中启橱柜有限公司,杭州超路实业有限公司),临平街道(杭州海豪实业有限公司,浙江瑞盛石业有限公司,浙江欧伦电气有限公司,杭州溢佳制衣有限公司)","startTime":"2019-08-29 19:22:00","stopDate":"2019-08-29 21:59:00","orgNo":"3340140","typeCode":"电网故障停限电","poweroffArea":"110kV建富变:红卫G801线下祥河分线开关后段","poweroffReason":"高压开关跳闸","powerTime":"2019-08-29 21:37:00","powerComm":"已送电","subsNo":"","lineNo":"","tgNo":"","tgName":null,"infoStatus":"1","orgName":"国网浙江杭州市余杭区供电有限公司","typeName":null,"infoStatusName":null,"dateDay":null,"orgNos":null,"nowTime":null,"countyName":null,"streetName":null,"villageName":null,"roadName":null,"communityName":null,"tranName":null,"sdLineName":null,"cityCode":"3340140","cityName":"国网浙江杭州市余杭区供电有限公司","provinceCode":null,"stopTime":"2019-08-29 21:59:00","powerType":"全部","powerOffArea":"110kV建富变:红卫G801线下祥河分线开关后段","powerOffReason":"高压开关跳闸","powerOffId":"2019082931020504"},{"poweroffId":2019082931020503,"sgpoweroffId":null,"subsName":"","lineName":"10kV金龙T461线","pubTranName":"梅苑新居2号公变,","scope":"浙江省-杭州市-桐庐县-城南街道-下杭社区-春江路梅苑新居，梅园新居一带","startTime":"2019-08-29 19:29:41","stopDate":"2019-08-29 21:29:41","orgNo":"3340150","typeCode":"电网故障停限电","poweroffArea":"110kV下杭变:金龙T461线-梅苑新居2号公变后段","poweroffReason":"高压开关跳闸","powerTime":"2019-08-29 21:20:21","powerComm":"已送电。","subsNo":"","lineNo":"","tgNo":"","tgName":null,"infoStatus":"1","orgName":"国网浙江桐庐县供电公司","typeName":null,"infoStatusName":null,"dateDay":null,"orgNos":null,"nowTime":null,"countyName":null,"streetName":null,"villageName":null,"roadName":null,"communityName":null,"tranName":null,"sdLineName":null,"cityCode":"3340150","cityName":"国网浙江桐庐县供电公司","provinceCode":null,"stopTime":"2019-08-29 21:29:41","powerType":"全部","powerOffArea":"110kV下杭变:金龙T461线-梅苑新居2号公变后段","powerOffReason":"高压开关跳闸","powerOffId":"2019082931020503"},{"poweroffId":2019082931020466,"sgpoweroffId":null,"subsName":"","lineName":"10kV和乡8877线","pubTranName":"石油生活区(1)公用,","scope":"浙江省-杭州市-余杭区-五常街道(沿山河社区-沿山河自然村,白庙行政村-白庙自然村)一带","startTime":"2019-08-29 17:27:00","stopDate":"2019-08-29 19:30:00","orgNo":"3340140","typeCode":"电网故障停限电","poweroffArea":"110kV留下变:和乡8877线-石油生活区(1)公用后段","poweroffReason":"(低压停电信息)低压开关跳闸","powerTime":"2019-08-29 18:55:00","powerComm":"已送电","subsNo":"","lineNo":"","tgNo":"","tgName":null,"infoStatus":"1","orgName":"国网浙江杭州市余杭区供电有限公司","typeName":null,"infoStatusName":null,"dateDay":null,"orgNos":null,"nowTime":null,"countyName":null,"streetName":null,"villageName":null,"roadName":null,"communityName":null,"tranName":null,"sdLineName":null,"cityCode":"3340140","cityName":"国网浙江杭州市余杭区供电有限公司","provinceCode":null,"stopTime":"2019-08-29 19:30:00","powerType":"全部","powerOffArea":"110kV留下变:和乡8877线-石油生活区(1)公用后段","powerOffReason":"(低压停电信息)低压开关跳闸","powerOffId":"2019082931020466"}],"pageModel":{"pageNow":1180,"totalCount":17789,"totalPage":1779,"tableRows":0,"pageCount":10,"beginCount":11790},"isExperi":"1"}