{"message":"","today":"2020-06-16","seleList":[{"poweroffId":2019082931020315,"sgpoweroffId":null,"subsName":"","lineName":"10kV港城A815线","pubTranName":"浙江中吉网络技术有限公司,南兴村9#变,岩峰村1#变,岩峰村17#变,岩峰村5#变,南兴村18#变,岩峰村3#变,南兴村10#变,岩峰村11#变,南兴村15#变,","scope":"浙江省-杭州市-萧山区-南阳街道-南兴行政村(南北自然村,南兴自然村,南联自然村),南阳街道(岩峰行政村-岩峰自然村,横蓬行政村-横蓬自然村);浙江省-杭州市-萧山区-南阳街道-岩峰行政村-浙江中吉网络技术有限公司","startTime":"2019-09-07 08:45:00","stopDate":"2019-09-07 11:45:00","orgNo":"3340130","typeCode":"计划停电","poweroffArea":"110kV黎明变:港城A815线-河蓬A8152开关后段","poweroffReason":"港城A815线河岩站河蓬A815线18-26/03#杆新立15M/1基，新做拉线1组，电缆敷设、制作试验、搭接，拆线11档，拆空台区1个，拆开关1台，拆拉线3组。38#-38/01#杆拆线1档，拆拉线1组，新做拉线1组","powerTime":"2019-09-07 11:38:21","powerComm":"已送电","subsNo":"","lineNo":"","tgNo":"","tgName":null,"infoStatus":"1","orgName":"国网浙江杭州市萧山区供电有限公司","typeName":null,"infoStatusName":null,"dateDay":null,"orgNos":null,"nowTime":null,"countyName":null,"streetName":null,"villageName":null,"roadName":null,"communityName":null,"tranName":null,"sdLineName":null,"cityCode":"3340130","cityName":"国网浙江杭州市萧山区供电有限公司","provinceCode":null,"stopTime":"2019-09-07 11:45:00","powerType":"全部","powerOffArea":"110kV黎明变:港城A815线-河蓬A8152开关后段","powerOffReason":"港城A815线河岩站河蓬A815线18-26/03#杆新立15M/1基，新做拉线1组，电缆敷设、制作试验、搭接，拆线11档，拆空台区1个，拆开关1台，拆拉线3组。38#-38/01#杆拆线1档，拆拉线1组，新做拉线1组","powerOffId":"2019082931020315"},{"poweroffId":2019082931020310,"sgpoweroffId":null,"subsName":"","lineName":"10kV吉山A365线","pubTranName":"欢潭村6#变,欢潭村20#变,欢潭村5#变,海江五金,欢潭村23#变,欢潭村4#变,","scope":"浙江省-杭州市-萧山区-进化镇-欢潭行政村-欢潭自然村;浙江省-杭州市-萧山区-进化镇-欢潭行政村-杭州萧山进化镇海江五金机械厂","startTime":"2019-09-12 08:30:00","stopDate":"2019-09-12 15:30:00","orgNo":"3340130","typeCode":"计划停电","poweroffArea":"110kV进化变:吉山A365线-欢医开G16欢潭村分线后段","poweroffReason":"吉山A365线线路迁改 原停电时间 2019-09-13 08:30:00至15:30:00，现更改为 2019-09-12 08:30:00至15:30:00，原因为9月13日时逢中秋节","powerTime":"2019-09-12 14:33:06","powerComm":"已送电","subsNo":"","lineNo":"","tgNo":"","tgName":null,"infoStatus":"1","orgName":"国网浙江杭州市萧山区供电有限公司","typeName":null,"infoStatusName":null,"dateDay":null,"orgNos":null,"nowTime":null,"countyName":null,"streetName":null,"villageName":null,"roadName":null,"communityName":null,"tranName":null,"sdLineName":null,"cityCode":"3340130","cityName":"国网浙江杭州市萧山区供电有限公司","provinceCode":null,"stopTime":"2019-09-12 15:30:00","powerType":"全部","powerOffArea":"110kV进化变:吉山A365线-欢医开G16欢潭村分线后段","powerOffReason":"吉山A365线线路迁改 原停电时间 2019-09-13 08:30:00至15:30:00，现更改为 2019-09-12 08:30:00至15:30:00，原因为9月13日时逢中秋节","powerOffId":"2019082931020310"},{"poweroffId":2019082931020309,"sgpoweroffId":null,"subsName":"","lineName":"10kV田村C238线","pubTranName":"萧南村1#变,萧南村3#变,萧南村5#变,","scope":"浙江省-杭州市-萧山区-楼塔镇-萧南行政村-田村自然村","startTime":"2019-09-12 08:30:00","stopDate":"2019-09-12 17:30:00","orgNo":"3340130","typeCode":"计划停电","poweroffArea":"35kV楼塔变:田村C238线-田村C2387开关后段","poweroffReason":"田村C238线172#杆后段更换240导线7档","powerTime":"2019-09-12 16:35:05","powerComm":"已送电","subsNo":"","lineNo":"","tgNo":"","tgName":null,"infoStatus":"1","orgName":"国网浙江杭州市萧山区供电有限公司","typeName":null,"infoStatusName":null,"dateDay":null,"orgNos":null,"nowTime":null,"countyName":null,"streetName":null,"villageName":null,"roadName":null,"communityName":null,"tranName":null,"sdLineName":null,"cityCode":"3340130","cityName":"国网浙江杭州市萧山区供电有限公司","provinceCode":null,"stopTime":"2019-09-12 17:30:00","powerType":"全部","powerOffArea":"35kV楼塔变:田村C238线-田村C2387开关后段","powerOffReason":"田村C238线172#杆后段更换240导线7档","powerOffId":"2019082931020309"},{"poweroffId":2019082931020308,"sgpoweroffId":null,"subsName":"","lineName":"10kV后郑C953线","pubTranName":"戴村村6#变,","scope":"浙江省-杭州市-萧山区-戴村镇-戴村行政村(锦绣路,戴村自然村)","startTime":"2019-09-11 08:30:00","stopDate":"2019-09-11 15:30:00","orgNo":"3340130","typeCode":"计划停电","poweroffArea":"110kV永兴变:后郑C953线-锦绣开G13戴村村6#变后段","poweroffReason":"锦绣开G13戴村村6#变下250上630kVA欧变，低压割接。","powerTime":"2019-09-11 14:53:24","powerComm":"已送电","subsNo":"","lineNo":"","tgNo":"","tgName":null,"infoStatus":"1","orgName":"国网浙江杭州市萧山区供电有限公司","typeName":null,"infoStatusName":null,"dateDay":null,"orgNos":null,"nowTime":null,"countyName":null,"streetName":null,"villageName":null,"roadName":null,"communityName":null,"tranName":null,"sdLineName":null,"cityCode":"3340130","cityName":"国网浙江杭州市萧山区供电有限公司","provinceCode":null,"stopTime":"2019-09-11 15:30:00","powerType":"全部","powerOffArea":"110kV永兴变:后郑C953线-锦绣开G13戴村村6#变后段","powerOffReason":"锦绣开G13戴村村6#变下250上630kVA欧变，低压割接。","powerOffId":"2019082931020308"},{"poweroffId":2019082931020295,"sgpoweroffId":null,"subsName":"","lineName":"10kV金缘H437线","pubTranName":"勾庄村东斗河北2号公变,","scope":"浙江省-杭州市-余杭区-良渚街道-西塘河行政村(邱家斗自然村,吴家兜)一带","startTime":"2019-08-29 14:23:00","stopDate":"2019-08-29 16:00:00","orgNo":"3340140","typeCode":"电网故障停限电","poweroffArea":"110kV勾庄变:金缘H437线-勾庄村东斗河北2号公变后段","poweroffReason":"(低压停电信息)低压开关跳闸","powerTime":"2019-08-29 15:50:00","powerComm":"已送电","subsNo":"","lineNo":"","tgNo":"","tgName":null,"infoStatus":"1","orgName":"国网浙江杭州市余杭区供电有限公司","typeName":null,"infoStatusName":null,"dateDay":null,"orgNos":null,"nowTime":null,"countyName":null,"streetName":null,"villageName":null,"roadName":null,"communityName":null,"tranName":null,"sdLineName":null,"cityCode":"3340140","cityName":"国网浙江杭州市余杭区供电有限公司","provinceCode":null,"stopTime":"2019-08-29 16:00:00","powerType":"全部","powerOffArea":"110kV勾庄变:金缘H437线-勾庄村东斗河北2号公变后段","powerOffReason":"(低压停电信息)低压开关跳闸","powerOffId":"2019082931020295"},{"poweroffId":2019082931020287,"sgpoweroffId":null,"subsName":"","lineName":"10kV北联9636线","pubTranName":"松福(十)变,","scope":"浙江省-杭州市-杭州市经济技术开发区-下沙街道-幸福雅苑B区学林街6幢商铺","startTime":"2019-09-10 10:30:00","stopDate":"2019-09-10 16:00:00","orgNo":"3340101","typeCode":"计划停电","poweroffArea":"110kV教北变:北联9636线-松福(十)变B10-6低压开关","poweroffReason":"(低压停电信息)下沙街道松合幸福雅苑B区学林街6幢商北边电信机房 低压非居民新装；计划停电结束时间13：00因工作量大原因导致延时送电，预计送电时间：2019-09-10 16:00","powerTime":"2019-09-10 15:18:59","powerComm":"已送电","subsNo":"","lineNo":"","tgNo":"","tgName":null,"infoStatus":"1","orgName":"浙江杭州电力客户服务中心","typeName":null,"infoStatusName":null,"dateDay":null,"orgNos":null,"nowTime":null,"countyName":null,"streetName":null,"villageName":null,"roadName":null,"communityName":null,"tranName":null,"sdLineName":null,"cityCode":"3340101","cityName":"浙江杭州电力客户服务中心","provinceCode":null,"stopTime":"2019-09-10 16:00:00","powerType":"全部","powerOffArea":"110kV教北变:北联9636线-松福(十)变B10-6低压开关","powerOffReason":"(低压停电信息)下沙街道松合幸福雅苑B区学林街6幢商北边电信机房 低压非居民新装；计划停电结束时间13：00因工作量大原因导致延时送电，预计送电时间：2019-09-10 16:00","powerOffId":"2019082931020287"},{"poweroffId":2019082931020286,"sgpoweroffId":null,"subsName":"","lineName":"10kV月雅6653线","pubTranName":"","scope":"浙江省杭州市江干区金堡街29号-53号商铺","startTime":"2019-09-10 09:30:00","stopDate":"2019-09-10 12:00:00","orgNo":"3340101","typeCode":"计划停电","poweroffArea":"110kV九堡变:月雅6653线首端，泊林（七）变低压开关","poweroffReason":"(低压停电信息)九堡镇蓝桥社区金堡街39号 低压非居民增容","powerTime":"2019-09-10 11:10:59","powerComm":"已送电","subsNo":"","lineNo":"","tgNo":"","tgName":null,"infoStatus":"1","orgName":"浙江杭州电力客户服务中心","typeName":null,"infoStatusName":null,"dateDay":null,"orgNos":null,"nowTime":null,"countyName":null,"streetName":null,"villageName":null,"roadName":null,"communityName":null,"tranName":null,"sdLineName":null,"cityCode":"3340101","cityName":"浙江杭州电力客户服务中心","provinceCode":null,"stopTime":"2019-09-10 12:00:00","powerType":"全部","powerOffArea":"110kV九堡变:月雅6653线首端，泊林（七）变低压开关","powerOffReason":"(低压停电信息)九堡镇蓝桥社区金堡街39号 低压非居民增容","powerOffId":"2019082931020286"},{"poweroffId":2019082931020275,"sgpoweroffId":null,"subsName":"","lineName":"10kV展宏C390线","pubTranName":"红山农场一分场2#公变,","scope":"浙江省-杭州市-萧山区-新街镇-新街街道-萧山区-红山农场-同舟社区-一分场等一带","startTime":"2019-08-29 13:25:29","stopDate":"2019-08-29 15:25:29","orgNo":"3340130","typeCode":"电网故障停限电","poweroffArea":"110kV红山变:展宏C390线-红山农场一分场2#公变台区低压开关","poweroffReason":"（低压停电信息）低压漏电保护器短路故障","powerTime":"2019-08-29 14:27:39","powerComm":"已送电","subsNo":"","lineNo":"","tgNo":"","tgName":null,"infoStatus":"1","orgName":"国网浙江杭州市萧山区供电有限公司","typeName":null,"infoStatusName":null,"dateDay":null,"orgNos":null,"nowTime":null,"countyName":null,"streetName":null,"villageName":null,"roadName":null,"communityName":null,"tranName":null,"sdLineName":null,"cityCode":"3340130","cityName":"国网浙江杭州市萧山区供电有限公司","provinceCode":null,"stopTime":"2019-08-29 15:25:29","powerType":"全部","powerOffArea":"110kV红山变:展宏C390线-红山农场一分场2#公变台区低压开关","powerOffReason":"（低压停电信息）低压漏电保护器短路故障","powerOffId":"2019082931020275"},{"poweroffId":2019082931020255,"sgpoweroffId":null,"subsName":"","lineName":"10kV姚家T243线","pubTranName":"横山埠村4号公变,","scope":"浙江省-杭州市-桐庐县-江南镇-横山埠行政村-横山埠自然村","startTime":"2019-08-29 12:37:21","stopDate":"2019-08-29 13:37:21","orgNo":"3340150","typeCode":"电网故障停限电","poweroffArea":"110kV石阜变:姚家T243线-横山埠村4号公变后段","poweroffReason":"(低压停电信息)低压开关跳闸","powerTime":"2019-08-29 13:08:32","powerComm":"已送电","subsNo":"","lineNo":"","tgNo":"","tgName":null,"infoStatus":"1","orgName":"国网浙江桐庐县供电公司","typeName":null,"infoStatusName":null,"dateDay":null,"orgNos":null,"nowTime":null,"countyName":null,"streetName":null,"villageName":null,"roadName":null,"communityName":null,"tranName":null,"sdLineName":null,"cityCode":"3340150","cityName":"国网浙江桐庐县供电公司","provinceCode":null,"stopTime":"2019-08-29 13:37:21","powerType":"全部","powerOffArea":"110kV石阜变:姚家T243线-横山埠村4号公变后段","powerOffReason":"(低压停电信息)低压开关跳闸","powerOffId":"2019082931020255"},{"poweroffId":2019082931020225,"sgpoweroffId":null,"subsName":"","lineName":"10kV石鼓Y212线","pubTranName":"长林村长林口台区,","scope":"浙江省-杭州市-建德市-李家镇-长林行政村 下高坞自然村,樟坞自然村,后宅自然村,长林口自然村一带用户。","startTime":"2019-08-29 11:30:00","stopDate":"2019-08-29 13:30:00","orgNo":"3340180","typeCode":"电网故障停限电","poweroffArea":"35kV李家变:石鼓Y212线-长林村长林口台区后段","poweroffReason":"(低压停电信息)低压导线断线 原预计停电结束时间14：00，由于施工现场环境比较复杂，存在不确定因素，因此预估施工时间适当放长了,目前故障已修复，现将停电结束时间变更至13：30","powerTime":"2019-08-29 12:55:00","powerComm":"已送电","subsNo":"","lineNo":"","tgNo":"","tgName":null,"infoStatus":"1","orgName":"国网浙江建德市供电有限公司","typeName":null,"infoStatusName":null,"dateDay":null,"orgNos":null,"nowTime":null,"countyName":null,"streetName":null,"villageName":null,"roadName":null,"communityName":null,"tranName":null,"sdLineName":null,"cityCode":"3340180","cityName":"国网浙江建德市供电有限公司","provinceCode":null,"stopTime":"2019-08-29 13:30:00","powerType":"全部","powerOffArea":"35kV李家变:石鼓Y212线-长林村长林口台区后段","powerOffReason":"(低压停电信息)低压导线断线 原预计停电结束时间14：00，由于施工现场环境比较复杂，存在不确定因素，因此预估施工时间适当放长了,目前故障已修复，现将停电结束时间变更至13：30","powerOffId":"2019082931020225"}],"pageModel":{"pageNow":1182,"totalCount":17789,"totalPage":1779,"tableRows":0,"pageCount":10,"beginCount":11810},"isExperi":"1"}