{"message":"","today":"2020-06-16","seleList":[{"poweroffId":2019082931020206,"sgpoweroffId":null,"subsName":"","lineName":"10kV大路C378线","pubTranName":"大地化工,红磊布厂,景耀玻璃,浙江金首水泥有限公司,浙江金首水泥有限公司,磁性材料,2#,景耀玻璃,","scope":"浙江省-杭州市-萧山区-新街镇-新街街道-红山农场-同心社区-杭州红港化纤有限公司,经济技术开发区-红垦社区(杭州大地化工有限公司,杭州红山磁性材料有限公司),红山农场-同德社区(杭州红磊纺织有限公司,浙江金首水泥有限公司、浙江省杭州市萧山区红山农场红磊布毯等一带","startTime":"2019-08-29 10:46:54","stopDate":"2019-08-29 13:01:54","orgNo":"3340130","typeCode":"电网故障停限电","poweroffArea":"110kV红山变:大路C378线-大路C3782开关后段","poweroffReason":"高压柱上断路器短路故障 原停电结束时间：2019-08-29 14:38:54，变更停电结束时间：2019-08-29 13:01:54，由于增派人员，抢修工作提前完成，故需要提前送电。","powerTime":"2019-08-29 12:14:24","powerComm":"已送电","subsNo":"","lineNo":"","tgNo":"","tgName":null,"infoStatus":"1","orgName":"国网浙江杭州市萧山区供电有限公司","typeName":null,"infoStatusName":null,"dateDay":null,"orgNos":null,"nowTime":null,"countyName":null,"streetName":null,"villageName":null,"roadName":null,"communityName":null,"tranName":null,"sdLineName":null,"cityCode":"3340130","cityName":"国网浙江杭州市萧山区供电有限公司","provinceCode":null,"stopTime":"2019-08-29 13:01:54","powerType":"全部","powerOffArea":"110kV红山变:大路C378线-大路C3782开关后段","powerOffReason":"高压柱上断路器短路故障 原停电结束时间：2019-08-29 14:38:54，变更停电结束时间：2019-08-29 13:01:54，由于增派人员，抢修工作提前完成，故需要提前送电。","powerOffId":"2019082931020206"},{"poweroffId":2019082931020170,"sgpoweroffId":null,"subsName":"","lineName":"10kV文祥9775线","pubTranName":"新经,","scope":"浙江省-杭州市-拱墅区-祥符街道-新文社区-杭州康鸿工贸有限公司","startTime":"2019-08-29 10:03:38","stopDate":"2019-08-29 11:25:38","orgNo":"3340101","typeCode":"电网故障停限电","poweroffArea":"110kV红旗变:文祥9775线-新经后段","poweroffReason":"高压开关跳闸 原预计停电结束时间2019-08-29 17:03:38,由于施工现场环境比较复杂，存在不确定因素，因此预估施工时间适当放长了，而实际施工进行得比较顺利，因此提前送电了","powerTime":"2019-08-29 10:39:34","powerComm":"送电","subsNo":"","lineNo":"","tgNo":"","tgName":null,"infoStatus":"1","orgName":"浙江杭州电力客户服务中心","typeName":null,"infoStatusName":null,"dateDay":null,"orgNos":null,"nowTime":null,"countyName":null,"streetName":null,"villageName":null,"roadName":null,"communityName":null,"tranName":null,"sdLineName":null,"cityCode":"3340101","cityName":"浙江杭州电力客户服务中心","provinceCode":null,"stopTime":"2019-08-29 11:25:38","powerType":"全部","powerOffArea":"110kV红旗变:文祥9775线-新经后段","powerOffReason":"高压开关跳闸 原预计停电结束时间2019-08-29 17:03:38,由于施工现场环境比较复杂，存在不确定因素，因此预估施工时间适当放长了，而实际施工进行得比较顺利，因此提前送电了","powerOffId":"2019082931020170"},{"poweroffId":2019082931020167,"sgpoweroffId":null,"subsName":"","lineName":"10kV文祥9775线","pubTranName":"合作社(1),","scope":"浙江省-杭州市-拱墅区-祥符街道-新文社区-杭州康鸿工贸有限公司","startTime":"2019-08-29 10:01:00","stopDate":"2019-08-29 11:25:00","orgNo":"3340101","typeCode":"电网故障停限电","poweroffArea":"110kV红旗变:文祥9775线-合作社(1)","poweroffReason":"高压开关跳闸 原预计停电结束时间2019-08-29 17:01:00,由于施工现场环境比较复杂，存在不确定因素，因此预估施工时间适当放长了，而实际施工进行得比较顺利，因此提前送电了","powerTime":"2019-08-29 10:39:18","powerComm":"送电","subsNo":"","lineNo":"","tgNo":"","tgName":null,"infoStatus":"1","orgName":"浙江杭州电力客户服务中心","typeName":null,"infoStatusName":null,"dateDay":null,"orgNos":null,"nowTime":null,"countyName":null,"streetName":null,"villageName":null,"roadName":null,"communityName":null,"tranName":null,"sdLineName":null,"cityCode":"3340101","cityName":"浙江杭州电力客户服务中心","provinceCode":null,"stopTime":"2019-08-29 11:25:00","powerType":"全部","powerOffArea":"110kV红旗变:文祥9775线-合作社(1)","powerOffReason":"高压开关跳闸 原预计停电结束时间2019-08-29 17:01:00,由于施工现场环境比较复杂，存在不确定因素，因此预估施工时间适当放长了，而实际施工进行得比较顺利，因此提前送电了","powerOffId":"2019082931020167"},{"poweroffId":2019082931020156,"sgpoweroffId":null,"subsName":"","lineName":"10kV千鹤Y121线","pubTranName":"十里埠村十里埠台区,","scope":"浙江省-杭州市-建德市-杨村桥镇-十里埠行政村 苏村自然村,十里埠自然村一带用户。","startTime":"2019-08-29 09:38:00","stopDate":"2019-08-29 12:00:00","orgNo":"3340180","typeCode":"电网故障停限电","poweroffArea":"110kV梅城变:千鹤Y121线-十里埠村十里埠台区后段","poweroffReason":"(低压停电信息)低压熔芯烧毁","powerTime":"2019-08-29 11:15:00","powerComm":"已送电","subsNo":"","lineNo":"","tgNo":"","tgName":null,"infoStatus":"1","orgName":"国网浙江建德市供电有限公司","typeName":null,"infoStatusName":null,"dateDay":null,"orgNos":null,"nowTime":null,"countyName":null,"streetName":null,"villageName":null,"roadName":null,"communityName":null,"tranName":null,"sdLineName":null,"cityCode":"3340180","cityName":"国网浙江建德市供电有限公司","provinceCode":null,"stopTime":"2019-08-29 12:00:00","powerType":"全部","powerOffArea":"110kV梅城变:千鹤Y121线-十里埠村十里埠台区后段","powerOffReason":"(低压停电信息)低压熔芯烧毁","powerOffId":"2019082931020156"},{"poweroffId":2019082931020128,"sgpoweroffId":null,"subsName":"","lineName":"10kV蚕农9101线","pubTranName":"湾南(6)农,","scope":"浙江省-杭州市-江干区-下沙街道-湾南社区部分用户","startTime":"2019-09-09 09:30:00","stopDate":"2019-09-09 12:00:00","orgNo":"3340101","typeCode":"计划停电","poweroffArea":"110kV蚕桑变:蚕农9101线-湾南(6)农","poweroffReason":"(低压停电信息)浙江省杭州市江干区下沙街道湾南社区低压非居民接入","powerTime":"2019-09-09 11:15:30","powerComm":"已送电","subsNo":"","lineNo":"","tgNo":"","tgName":null,"infoStatus":"1","orgName":"浙江杭州电力客户服务中心","typeName":null,"infoStatusName":null,"dateDay":null,"orgNos":null,"nowTime":null,"countyName":null,"streetName":null,"villageName":null,"roadName":null,"communityName":null,"tranName":null,"sdLineName":null,"cityCode":"3340101","cityName":"浙江杭州电力客户服务中心","provinceCode":null,"stopTime":"2019-09-09 12:00:00","powerType":"全部","powerOffArea":"110kV蚕桑变:蚕农9101线-湾南(6)农","powerOffReason":"(低压停电信息)浙江省杭州市江干区下沙街道湾南社区低压非居民接入","powerOffId":"2019082931020128"},{"poweroffId":2019082931020123,"sgpoweroffId":null,"subsName":"","lineName":"10kV彭家D342线","pubTranName":"万市集镇6#花家公变,","scope":"浙江省-杭州市-富阳区-万市镇-万市行政村(朱村自然村,老万市自然村,花家自然村)","startTime":"2019-08-29 09:10:41","stopDate":"2019-08-29 11:10:41","orgNo":"3340170","typeCode":"电网故障停限电","poweroffArea":"110kV万市变:彭家D342线-万市集镇6#花家公变后段","poweroffReason":"高压开关跳闸","powerTime":"2019-08-29 10:43:39","powerComm":"已送电","subsNo":"","lineNo":"","tgNo":"","tgName":null,"infoStatus":"1","orgName":"国网浙江杭州市富阳区供电公司","typeName":null,"infoStatusName":null,"dateDay":null,"orgNos":null,"nowTime":null,"countyName":null,"streetName":null,"villageName":null,"roadName":null,"communityName":null,"tranName":null,"sdLineName":null,"cityCode":"3340170","cityName":"国网浙江杭州市富阳区供电公司","provinceCode":null,"stopTime":"2019-08-29 11:10:41","powerType":"全部","powerOffArea":"110kV万市变:彭家D342线-万市集镇6#花家公变后段","powerOffReason":"高压开关跳闸","powerOffId":"2019082931020123"},{"poweroffId":2019082931020120,"sgpoweroffId":null,"subsName":"","lineName":"10kV藕花G114线","pubTranName":"藕花洲小区4号公变,","scope":"浙江省-杭州市-余杭区-南苑街道-河南埭社区(河南埭路,菜市路,爱民路,藕花洲大街)一带","startTime":"2019-08-29 09:08:00","stopDate":"2019-08-29 10:08:00","orgNo":"3340140","typeCode":"电网故障停限电","poweroffArea":"110kV临平变:藕花G114线-藕花洲小区4号公变后段","poweroffReason":"(低压停电信息)低压开关跳闸","powerTime":"2019-08-29 09:52:00","powerComm":"已送电","subsNo":"","lineNo":"","tgNo":"","tgName":null,"infoStatus":"1","orgName":"国网浙江杭州市余杭区供电有限公司","typeName":null,"infoStatusName":null,"dateDay":null,"orgNos":null,"nowTime":null,"countyName":null,"streetName":null,"villageName":null,"roadName":null,"communityName":null,"tranName":null,"sdLineName":null,"cityCode":"3340140","cityName":"国网浙江杭州市余杭区供电有限公司","provinceCode":null,"stopTime":"2019-08-29 10:08:00","powerType":"全部","powerOffArea":"110kV临平变:藕花G114线-藕花洲小区4号公变后段","powerOffReason":"(低压停电信息)低压开关跳闸","powerOffId":"2019082931020120"},{"poweroffId":2019082931020088,"sgpoweroffId":null,"subsName":"","lineName":"10kV德圣A464线","pubTranName":"杭州万晧投资管理有限公司,1#变,中国电信股份有限公司杭州萧山区分公司（梅西）,党湾供电营业所9#变,裕民村4#变,团结村16#变,德北村14#变,党湾供电营业所10#变,德北村9#变,杭州佳妮纺织有限公司,裕民村3#变,杭州聚炬日家具有限公司,德北村12#变,团结村14#变,德北村3#变,杭州嘉和减速机有限公司1#变压器间隔配电变压器,裕民村7#变,德北村10#变,德北村2#变,党湾供电营业所8#变,大西村2#变,德北村8#变,杭州萧顺交通工程有限公司,德北村6#变,德北村5#变,协谊村15#变,党湾镇裕民村成梅布厂,杭州丝顺纺织有限公司,德北村11#变,浙江蓝天鹤舞控股有限公司,1#变,裕民村2#变,裕民村1#变,杭州宝盛建设集团有限公司,大西村5#变,杭州金全布业有限公司,杭州国贤塑业有限公司,德北村7#变,裕民村15#变,德北村4#变,德北村1#变,","scope":"浙江省-杭州市-萧山区-靖江街道-协谊行政村-协谊自然村,党湾镇-裕民行政村(裕民五路,裕民自然村,裕民四路,新农村,爱华路,裕民六路,裕民七路),党湾镇(德北行政村-德北自然村,大西行政村-大西自然村,团结行政村-团结自然村);党湾镇-裕民行政村(杭州佳妮纺织有限公司,党湾镇裕民村成梅布厂,杭州金全布业有限公司,杭州丝顺纺织有限公司,杭州嘉和减速机有限公司),党湾镇-德北行政村(杭州聚炬日家具有限公司,中国电信股份有限公司杭州萧山区分公司,浙江蓝天鹤舞控股有限公司,杭州万晧供应链科技有限公司,杭州国贤塑业有限公司,杭州萧顺交通工程有限公司,杭州三助环境工程有限责任公司),党湾镇-团结行政村(浙江宝盛建设集团有限公司,杭州港海建设有限公司)、党湾镇德北行政村加油站旁站、党湾镇大西行政村20组19户、党湾镇文化路锦绣学府一带","startTime":"2019-08-29 08:01:45","stopDate":"2019-08-29 09:50:45","orgNo":"3340130","typeCode":"电网故障停限电","poweroffArea":"110kV幸福变:德圣A464线后段","poweroffReason":"高压柱上断路器短路故障 原停电结束时间:2019-08-29 10:07:45,变更停电结束时间:2019-08-29 09:50:45。由于抢修工作提前完成,故需要提前送电。","powerTime":"2019-08-29 09:25:10","powerComm":"已送电","subsNo":"","lineNo":"","tgNo":"","tgName":null,"infoStatus":"1","orgName":"国网浙江杭州市萧山区供电有限公司","typeName":null,"infoStatusName":null,"dateDay":null,"orgNos":null,"nowTime":null,"countyName":null,"streetName":null,"villageName":null,"roadName":null,"communityName":null,"tranName":null,"sdLineName":null,"cityCode":"3340130","cityName":"国网浙江杭州市萧山区供电有限公司","provinceCode":null,"stopTime":"2019-08-29 09:50:45","powerType":"全部","powerOffArea":"110kV幸福变:德圣A464线后段","powerOffReason":"高压柱上断路器短路故障 原停电结束时间:2019-08-29 10:07:45,变更停电结束时间:2019-08-29 09:50:45。由于抢修工作提前完成,故需要提前送电。","powerOffId":"2019082931020088"},{"poweroffId":2019082931020082,"sgpoweroffId":null,"subsName":"","lineName":"10kV江南Y137线","pubTranName":"阳光商城台区,","scope":"浙江省-杭州市-建德市-乾潭镇-乾潭行政村-子胥路,乾潭镇-乾潭集镇 市场路,子胥路,育才东路,附小南路阳光佳园一带用户","startTime":"2019-08-29 07:35:00","stopDate":"2019-08-29 08:30:00","orgNo":"3340180","typeCode":"电网故障停限电","poweroffArea":"110kV乾潭变:江南Y137线-阳光商城台区后段","poweroffReason":"(低压停电信息)低压开关跳闸","powerTime":"2019-08-29 08:00:00","powerComm":"已送电","subsNo":"","lineNo":"","tgNo":"","tgName":null,"infoStatus":"1","orgName":"国网浙江建德市供电有限公司","typeName":null,"infoStatusName":null,"dateDay":null,"orgNos":null,"nowTime":null,"countyName":null,"streetName":null,"villageName":null,"roadName":null,"communityName":null,"tranName":null,"sdLineName":null,"cityCode":"3340180","cityName":"国网浙江建德市供电有限公司","provinceCode":null,"stopTime":"2019-08-29 08:30:00","powerType":"全部","powerOffArea":"110kV乾潭变:江南Y137线-阳光商城台区后段","powerOffReason":"(低压停电信息)低压开关跳闸","powerOffId":"2019082931020082"},{"poweroffId":2019082931020072,"sgpoweroffId":null,"subsName":"","lineName":"10kV彭家D342线","pubTranName":"万市集镇7#老万市公变,","scope":"浙江省-杭州市-富阳区-万市镇-槎源坞行政村-洞山坞自然村,万市镇-万市行政村(花家自然村,老万市自然村)","startTime":"2019-08-29 07:02:25","stopDate":"2019-08-29 11:00:00","orgNo":"3340170","typeCode":"电网故障停限电","poweroffArea":"110kV万市变:彭家D342线-万市集镇7#老万市后段","poweroffReason":"(低压停电信息)低压开关跳闸","powerTime":"2019-08-29 10:43:19","powerComm":"已送电","subsNo":"","lineNo":"","tgNo":"","tgName":null,"infoStatus":"1","orgName":"国网浙江杭州市富阳区供电公司","typeName":null,"infoStatusName":null,"dateDay":null,"orgNos":null,"nowTime":null,"countyName":null,"streetName":null,"villageName":null,"roadName":null,"communityName":null,"tranName":null,"sdLineName":null,"cityCode":"3340170","cityName":"国网浙江杭州市富阳区供电公司","provinceCode":null,"stopTime":"2019-08-29 11:00:00","powerType":"全部","powerOffArea":"110kV万市变:彭家D342线-万市集镇7#老万市后段","powerOffReason":"(低压停电信息)低压开关跳闸","powerOffId":"2019082931020072"}],"pageModel":{"pageNow":1183,"totalCount":17789,"totalPage":1779,"tableRows":0,"pageCount":10,"beginCount":11820},"isExperi":"1"}