{"message":"","today":"2020-06-16","seleList":[{"poweroffId":2019082931020065,"sgpoweroffId":null,"subsName":"","lineName":"10kV永磁A392线","pubTranName":"顺坝村4#变,","scope":"浙江省-杭州市-萧山区-宁围镇、宁围街道-顺坝行政村-顺坝自然村等一带","startTime":"2019-08-29 06:46:26","stopDate":"2019-08-29 08:25:26","orgNo":"3340130","typeCode":"电网故障停限电","poweroffArea":"110kV顺坝变:永磁A392线-顺坝村4#变台区低压开关","poweroffReason":"（低压停电信息）低压漏电保护器短路故障 原停电结束时间：2019-08-29 09:25:26，变更停电结束时间：2019-08-29 08:25:26，由于增派人员，抢修提前完成，故需要提前送电。","powerTime":"2019-08-29 07:57:12","powerComm":"已送电","subsNo":"","lineNo":"","tgNo":"","tgName":null,"infoStatus":"1","orgName":"国网浙江杭州市萧山区供电有限公司","typeName":null,"infoStatusName":null,"dateDay":null,"orgNos":null,"nowTime":null,"countyName":null,"streetName":null,"villageName":null,"roadName":null,"communityName":null,"tranName":null,"sdLineName":null,"cityCode":"3340130","cityName":"国网浙江杭州市萧山区供电有限公司","provinceCode":null,"stopTime":"2019-08-29 08:25:26","powerType":"全部","powerOffArea":"110kV顺坝变:永磁A392线-顺坝村4#变台区低压开关","powerOffReason":"（低压停电信息）低压漏电保护器短路故障 原停电结束时间：2019-08-29 09:25:26，变更停电结束时间：2019-08-29 08:25:26，由于增派人员，抢修提前完成，故需要提前送电。","powerOffId":"2019082931020065"},{"poweroffId":2019082931020053,"sgpoweroffId":null,"subsName":"","lineName":"10kV径山H545线","pubTranName":"平山村中平山公变,绿景村后诸2号公变,平山村下平山公变,明康汇生态农业集团杭州种植有限公司6110534065,平山村梅林公变,俞才荣6110534064,平山村平山公变,平山村黄家弄公变,","scope":"浙江省-杭州市-余杭区-径山镇-平山头行政村(中平山组自然村,黄家墩组自然村,平山自然村,梅岭组自然村,上自然村组自然村,上平山组自然村),径山镇-绿景行政村(桥北自然村,后诸自然村,绿景自然村),径山镇(西山行政村-西山自然村,径山行政村-径山自然村,小古城行政村-小古城自然村,潘坂桥行政村-潘坂桥自然村);径山镇(明康汇生态农业集团杭州种植有限公司,俞才荣)一带","startTime":"2019-08-29 06:15:00","stopDate":"2019-08-29 10:00:00","orgNo":"3340140","typeCode":"电网故障停限电","poweroffArea":"110kV潘板变:径山H545线梅林分线38#杆开关后段","poweroffReason":"高压开关跳闸","powerTime":"2019-08-29 09:06:00","powerComm":"已送电","subsNo":"","lineNo":"","tgNo":"","tgName":null,"infoStatus":"1","orgName":"国网浙江杭州市余杭区供电有限公司","typeName":null,"infoStatusName":null,"dateDay":null,"orgNos":null,"nowTime":null,"countyName":null,"streetName":null,"villageName":null,"roadName":null,"communityName":null,"tranName":null,"sdLineName":null,"cityCode":"3340140","cityName":"国网浙江杭州市余杭区供电有限公司","provinceCode":null,"stopTime":"2019-08-29 10:00:00","powerType":"全部","powerOffArea":"110kV潘板变:径山H545线梅林分线38#杆开关后段","powerOffReason":"高压开关跳闸","powerOffId":"2019082931020053"},{"poweroffId":2019082931020030,"sgpoweroffId":null,"subsName":"","lineName":"10kV中沙A147线","pubTranName":"单木桥村12#变,","scope":"浙江省杭州市萧山区瓜沥镇单木桥行政村、单木桥自然村、单木桥村、党山镇单木桥村一带","startTime":"2019-08-29 00:46:38","stopDate":"2019-08-29 02:30:38","orgNo":"3340130","typeCode":"电网故障停限电","poweroffArea":"220kV甘露变:中沙A147线-单木桥村12#变台区低压开关","poweroffReason":"(低压停电信息)低压漏电保护器短路故障","powerTime":"2019-08-29 01:42:23","powerComm":"已送电","subsNo":"","lineNo":"","tgNo":"","tgName":null,"infoStatus":"1","orgName":"国网浙江杭州市萧山区供电有限公司","typeName":null,"infoStatusName":null,"dateDay":null,"orgNos":null,"nowTime":null,"countyName":null,"streetName":null,"villageName":null,"roadName":null,"communityName":null,"tranName":null,"sdLineName":null,"cityCode":"3340130","cityName":"国网浙江杭州市萧山区供电有限公司","provinceCode":null,"stopTime":"2019-08-29 02:30:38","powerType":"全部","powerOffArea":"220kV甘露变:中沙A147线-单木桥村12#变台区低压开关","powerOffReason":"(低压停电信息)低压漏电保护器短路故障","powerOffId":"2019082931020030"},{"poweroffId":2019082931020025,"sgpoweroffId":null,"subsName":"","lineName":"10kV仇村Y135线","pubTranName":"牌楼村里蓬台区,","scope":"浙江省-杭州市-建德市-乾潭镇-牌楼行政村-牌楼自然村一带用户","startTime":"2019-08-29 00:52:06","stopDate":"2019-08-29 02:56:06","orgNo":"3340180","typeCode":"电网故障停限电","poweroffArea":"110kV乾潭变:仇村Y135线-牌楼村里蓬台区后段","poweroffReason":"(低压停电信息)低压开关跳闸","powerTime":"2019-08-29 02:07:00","powerComm":"已送电","subsNo":"","lineNo":"","tgNo":"","tgName":null,"infoStatus":"1","orgName":"国网浙江建德市供电有限公司","typeName":null,"infoStatusName":null,"dateDay":null,"orgNos":null,"nowTime":null,"countyName":null,"streetName":null,"villageName":null,"roadName":null,"communityName":null,"tranName":null,"sdLineName":null,"cityCode":"3340180","cityName":"国网浙江建德市供电有限公司","provinceCode":null,"stopTime":"2019-08-29 02:56:06","powerType":"全部","powerOffArea":"110kV乾潭变:仇村Y135线-牌楼村里蓬台区后段","powerOffReason":"(低压停电信息)低压开关跳闸","powerOffId":"2019082931020025"},{"poweroffId":2019082931020021,"sgpoweroffId":null,"subsName":"","lineName":"10kV芝厦T190线","pubTranName":"外洋1号公变,","scope":"浙江省-杭州市-桐庐县-富春江镇-孝门行政村-外洋自然村","startTime":"2019-08-29 00:39:03","stopDate":"2019-08-29 01:50:03","orgNo":"3340150","typeCode":"电网故障停限电","poweroffArea":"110kV外董变:芝厦T190线-外洋1号公变后段","poweroffReason":"高压开关跳闸","powerTime":"2019-08-29 01:21:16","powerComm":"全部送电","subsNo":"","lineNo":"","tgNo":"","tgName":null,"infoStatus":"1","orgName":"国网浙江桐庐县供电公司","typeName":null,"infoStatusName":null,"dateDay":null,"orgNos":null,"nowTime":null,"countyName":null,"streetName":null,"villageName":null,"roadName":null,"communityName":null,"tranName":null,"sdLineName":null,"cityCode":"3340150","cityName":"国网浙江桐庐县供电公司","provinceCode":null,"stopTime":"2019-08-29 01:50:03","powerType":"全部","powerOffArea":"110kV外董变:芝厦T190线-外洋1号公变后段","powerOffReason":"高压开关跳闸","powerOffId":"2019082931020021"},{"poweroffId":2019082831020500,"sgpoweroffId":null,"subsName":"","lineName":"10kV场口D504线","pubTranName":"富阳市常安镇农村五保供养服务中心,富阳市振华文体用品厂,东山下村2号青山公变,真佳溪村6#前溪村北公变2,真佳溪村8#化竹溪滩公变,真佳溪村20#化竹上台埠公变,杭州富阳中科通信器材有限公司1#变,东山下村1号东山公变,真佳溪村5#前溪溪边公变,富阳市常安镇东山下村经济合作社1#变,富阳市常安镇人民政府,杭州英力汽车零部件有限公司,杭州长命电池有限公司1#变,杭州富阳中科通信器材有限公司2#变,真佳溪村11#化竹村口公变,东山下村3号新区公变,横溪村2号工业区公变,董家村2号华村公变,横溪村3号学校公变,杭州富阳常安静电喷塑厂1#变,横溪村1号大礼堂公变,","scope":"浙江省-杭州市-富阳区-常安镇-横溪行政村-横溪自然村,场口镇-真佳溪行政村(化竹自然村,前溪自然村,后溪自然村),常安镇-董家行政村(三房自然村,华村自然村),常安镇-东山行政村(青山村自然村,东山下自然村);常安镇(杭州富阳振华文体用品有限公司,富阳市常安镇人民政府,杭州市富阳区常安镇东山下村股份经济合作社,富阳市常安镇农村五保供养服务中心,杭州长命电池有限公司,杭州富阳中科通信器材有限公司,杭州英力汽车零部件有限公司,杭州富阳常安静电喷塑厂)","startTime":"2019-08-28 23:59:07","stopDate":"2019-08-29 04:20:00","orgNo":"3340170","typeCode":"电网故障停限电","poweroffArea":"110kV常安变:场口D504线场口D5041开关后段","poweroffReason":"高压开关跳闸，原停电结束时间为2019-08-29 01:49:00因现场抢修难度大变更至2019-08-29 04:20:00","powerTime":"2019-08-29 04:01:57","powerComm":"已送电","subsNo":"","lineNo":"","tgNo":"","tgName":null,"infoStatus":"1","orgName":"国网浙江杭州市富阳区供电公司","typeName":null,"infoStatusName":null,"dateDay":null,"orgNos":null,"nowTime":null,"countyName":null,"streetName":null,"villageName":null,"roadName":null,"communityName":null,"tranName":null,"sdLineName":null,"cityCode":"3340170","cityName":"国网浙江杭州市富阳区供电公司","provinceCode":null,"stopTime":"2019-08-29 04:20:00","powerType":"全部","powerOffArea":"110kV常安变:场口D504线场口D5041开关后段","powerOffReason":"高压开关跳闸，原停电结束时间为2019-08-29 01:49:00因现场抢修难度大变更至2019-08-29 04:20:00","powerOffId":"2019082831020500"},{"poweroffId":2019082831020494,"sgpoweroffId":null,"subsName":"","lineName":"10kV三溪D337线","pubTranName":"三溪村11#郎家坞公变,三溪村10#羊坞变公变,中国石化销售有限公司浙江杭州石油分公司,三溪村2#西年坞公变,三溪村16#二房里公变,富阳洞桥镇旦锋生态养殖场,三溪村5#西坎坞公变,三溪村6#大塔地公变,三溪村15#农居点公变,三溪村17号枫林公变,富阳贝宏电器有限公司,三溪村13#上门前公变,袁家村5#七坞口公变,三溪村4#大院里公变,袁家村4#白坞口公变,三溪村9#小山上公变,金泉纸业,鑫鹿链罩厂,三溪村8#九房里公变,袁家村8#团圆里公变,大溪村13#俞家山目坞口公变,三溪村7#三房里公变,杭州富阳永兴包装厂,三溪村14#对山公变,大乐村1#章家公变,洞桥镇宏翔塑料制品厂,修改成中国电信股份有限公司富阳分公司（万市俞家山）,大乐村3#健坞公变,三溪村3#沙帽山公变,三溪村1#鲍家畈公变,三溪村12#磨盘山公变,欧拓普生物技术,洞桥政府1#变,大溪村1#青台上公变,永顺工贸2#变,杭州富阳永兴包装厂,大乐村2#朱家公变,大乐村4号江江坞公变,永顺工贸1#变,","scope":"浙江省-杭州市-富阳区-洞桥镇-枫瑞行政村-菖蒲俞家自然村,洞桥镇-大溪行政村(俞家山自然村,沙帽山自然村,毛山上自然村,堰头自然村,何家自然村,大坞何家自然村,姚宅自然村),洞桥镇-大乐行政村(大乐坞自然村,虎石坞口自然村,里云洞坞自然村,章家自然村,俭坞自然村,朱家自然村,健坞里自然村,大青山坞口自然村,半坞自然村,章家金竹坞自然村,章家迈家坞树华门前自然村),洞桥镇-洞桥行政村(大乐村朱家自然村,卸坞里自然村),洞桥镇-三溪行政村(西坑坞自然村,高子坞自然村,磨盘山自然村,雷山自然村,门前坞自然村,三溪袁家自然村,枫林自然村,九房里自然村,潘坞口自然村,对山自然村,三房里自然村,大园里自然村,小山上自然村,土福湾自然村,大塔地自然村,黄宅自然村,大青坞自然村,二房里自然村,沙帽山自然村,三溪自然村,鲍家畈自然村,西云路自然村,西年坞自然村,牧家坞自然村,纱帽山自然村,羊坞里自然村,三溪路自然村),洞桥镇-袁家行政村(袁家自然村,高村岭自然村,查坑坞自然村);洞桥镇(中国电信股份有限公司富阳分公司,杭州富阳贝宏电器有限公司,杭州富阳金源纸业有限公司,杭州欧拓普生物技术有限公司,杭州鑫鹿链罩有限公司,富阳市洞桥镇宏翔塑料制品厂,富阳洞桥镇旦锋生态养殖场,中国石化销售股份有限公司浙江杭州石油分公司,杭州富阳永顺工贸有限公司,杭州市富阳区洞桥镇人民政府)","startTime":"2019-08-28 23:42:24","stopDate":"2019-08-29 03:14:00","orgNo":"3340170","typeCode":"电网故障停限电","poweroffArea":"110kV万市变:三溪D337线三溪D3373开关后段","poweroffReason":"高压开关跳闸，该故障原停电结束时间为2019-08-29 01:14:00因现场抢修难度大变更至2019-08-29 03:14:00","powerTime":"2019-08-29 02:25:28","powerComm":"已送电","subsNo":"","lineNo":"","tgNo":"","tgName":null,"infoStatus":"1","orgName":"国网浙江杭州市富阳区供电公司","typeName":null,"infoStatusName":null,"dateDay":null,"orgNos":null,"nowTime":null,"countyName":null,"streetName":null,"villageName":null,"roadName":null,"communityName":null,"tranName":null,"sdLineName":null,"cityCode":"3340170","cityName":"国网浙江杭州市富阳区供电公司","provinceCode":null,"stopTime":"2019-08-29 03:14:00","powerType":"全部","powerOffArea":"110kV万市变:三溪D337线三溪D3373开关后段","powerOffReason":"高压开关跳闸，该故障原停电结束时间为2019-08-29 01:14:00因现场抢修难度大变更至2019-08-29 03:14:00","powerOffId":"2019082831020494"},{"poweroffId":2019082831020487,"sgpoweroffId":null,"subsName":"","lineName":"10kV陶春H558线","pubTranName":"前溪村陈其畈公变,求是村罗介头公变,杭州余杭农林径山经营有限公司（蚕种场2）6111002533,求是村陶村桥公变,杭州余杭求是股份经济合作社（排涝）6120812436,老虎墩,前溪村陈坝畈公变,求是村苏家头公变,浙江鼎盛交通建设有限公司6120816094,前溪村招家堰公变,求是村陶村桥上村公变,杭州余杭农林径山经营有限公司（天宝蚕种）6110118072,前溪村李家村公变,倪家排,前溪村倪家头公变,杭州余杭太平山股份经济合作社（军马场）6110116043,前溪村袁家公变,求是村陶村桥下村公变,陶春排,姚家排1,潘板陶村桥村（大草畈）6110116048,求是村陶村桥中村公变,前溪村杨家村公变,求是村喻家头公变,径山镇政府（罗家头排）6110103030,中森金属拉丝厂（速森电缆）,","scope":"浙江省-杭州市-余杭区-径山镇-前溪行政村(袁家桥自然村,前溪自然村,李上自然村,陈基畈自然村,百步自然村,景子畈自然村,倪家头自然村,秦家墩自然村,王家墩自然村,崇阳庙自然村),径山镇-求是行政村(求是自然村,陶桥自然村,罗家头自然村,下自然村,毛潘线,上自然村,下东组自然村),径山镇(径山行政村-径山自然村,西山行政村-邵家畈自然村,长乐行政村-大坞组自然村);径山镇(杭州余杭农林径山经营有限公司,杭州余杭太平山股份经济合作社,潘板陶村桥村,杭州市余杭区径山镇人民政府,杭州余杭求是股份经济合作社,浙江鼎盛交通建设有限公司,径山镇政府,杭州速森线缆材料有限公司,杭州余杭前溪股份经济合作社,潘板排涝站)一带","startTime":"2019-08-28 23:30:00","stopDate":"2019-08-29 02:00:00","orgNo":"3340140","typeCode":"电网故障停限电","poweroffArea":"110kV潘板变:陶春H558线陶春H558线倪家头分线开关后段","poweroffReason":"高压开关跳闸","powerTime":"2019-08-29 01:07:00","powerComm":"已送电","subsNo":"","lineNo":"","tgNo":"","tgName":null,"infoStatus":"1","orgName":"国网浙江杭州市余杭区供电有限公司","typeName":null,"infoStatusName":null,"dateDay":null,"orgNos":null,"nowTime":null,"countyName":null,"streetName":null,"villageName":null,"roadName":null,"communityName":null,"tranName":null,"sdLineName":null,"cityCode":"3340140","cityName":"国网浙江杭州市余杭区供电有限公司","provinceCode":null,"stopTime":"2019-08-29 02:00:00","powerType":"全部","powerOffArea":"110kV潘板变:陶春H558线陶春H558线倪家头分线开关后段","powerOffReason":"高压开关跳闸","powerOffId":"2019082831020487"},{"poweroffId":2019082831020486,"sgpoweroffId":null,"subsName":"","lineName":"10kV儒桥T438线","pubTranName":"儒桥后山1号公变,","scope":"浙江省-杭州市-桐庐县-分水镇-儒桥行政村(陈家自然村,后山自然村,汤家自然村,儒桥自然村,赵家自然村)","startTime":"2019-08-28 23:30:00","stopDate":"2019-08-29 01:50:00","orgNo":"3340150","typeCode":"电网故障停限电","poweroffArea":"110kV天英变:儒桥T438线后山F4838令克配变","poweroffReason":"高压开关跳闸","powerTime":"2019-08-29 01:20:54","powerComm":"全部送电","subsNo":"","lineNo":"","tgNo":"","tgName":null,"infoStatus":"1","orgName":"国网浙江桐庐县供电公司","typeName":null,"infoStatusName":null,"dateDay":null,"orgNos":null,"nowTime":null,"countyName":null,"streetName":null,"villageName":null,"roadName":null,"communityName":null,"tranName":null,"sdLineName":null,"cityCode":"3340150","cityName":"国网浙江桐庐县供电公司","provinceCode":null,"stopTime":"2019-08-29 01:50:00","powerType":"全部","powerOffArea":"110kV天英变:儒桥T438线后山F4838令克配变","powerOffReason":"高压开关跳闸","powerOffId":"2019082831020486"},{"poweroffId":2019082831020485,"sgpoweroffId":null,"subsName":"","lineName":"10kV儒桥T438线","pubTranName":"大路庙边1号公变,","scope":"浙江省-杭州市-桐庐县-分水镇-大路行政村(刘家自然村,大路自然村)","startTime":"2019-08-28 23:30:00","stopDate":"2019-08-29 01:10:00","orgNo":"3340150","typeCode":"电网故障停限电","poweroffArea":"110kV天英变:儒桥T438线大路庙边1号环网站庙边3621线配变","poweroffReason":"高压开关跳闸","powerTime":"2019-08-29 00:39:06","powerComm":"全部送电","subsNo":"","lineNo":"","tgNo":"","tgName":null,"infoStatus":"1","orgName":"国网浙江桐庐县供电公司","typeName":null,"infoStatusName":null,"dateDay":null,"orgNos":null,"nowTime":null,"countyName":null,"streetName":null,"villageName":null,"roadName":null,"communityName":null,"tranName":null,"sdLineName":null,"cityCode":"3340150","cityName":"国网浙江桐庐县供电公司","provinceCode":null,"stopTime":"2019-08-29 01:10:00","powerType":"全部","powerOffArea":"110kV天英变:儒桥T438线大路庙边1号环网站庙边3621线配变","powerOffReason":"高压开关跳闸","powerOffId":"2019082831020485"}],"pageModel":{"pageNow":1184,"totalCount":17789,"totalPage":1779,"tableRows":0,"pageCount":10,"beginCount":11830},"isExperi":"1"}