{"message":"","today":"2020-06-16","seleList":[{"poweroffId":2019082831020484,"sgpoweroffId":null,"subsName":"","lineName":"10kV歌舞T142线","pubTranName":"金家岭1号公变,","scope":"浙江省-杭州市-桐庐县-钟山乡-城下行政村(城下自然村,金家岭自然村,徐家自然村)","startTime":"2019-08-28 23:29:00","stopDate":"2019-08-29 01:10:00","orgNo":"3340150","typeCode":"电网故障停限电","poweroffArea":"35kV钟山变:歌舞T142线金家岭1号公变配变","poweroffReason":"高压开关跳闸","powerTime":"2019-08-29 00:38:47","powerComm":"全部送电","subsNo":"","lineNo":"","tgNo":"","tgName":null,"infoStatus":"1","orgName":"国网浙江桐庐县供电公司","typeName":null,"infoStatusName":null,"dateDay":null,"orgNos":null,"nowTime":null,"countyName":null,"streetName":null,"villageName":null,"roadName":null,"communityName":null,"tranName":null,"sdLineName":null,"cityCode":"3340150","cityName":"国网浙江桐庐县供电公司","provinceCode":null,"stopTime":"2019-08-29 01:10:00","powerType":"全部","powerOffArea":"35kV钟山变:歌舞T142线金家岭1号公变配变","powerOffReason":"高压开关跳闸","powerOffId":"2019082831020484"},{"poweroffId":2019082831020477,"sgpoweroffId":null,"subsName":"","lineName":"10kV俞赵T121线","pubTranName":"桐庐鑫达木艺厂变压器,农机学校,城投路灯变,桐庐秀峰加油站有限公司变压器,桐庐鑫达木艺厂,桐庐县殡仪馆,桐庐众合塑料制品有限公司,佳佳工具厂,1#专变,杭州爱丽娜房地产开发有限公司变压器,桐庐县市政园林建设管理处,","scope":"浙江省-杭州市-桐庐县-富春江镇(桐庐秀峰加油站有限公司,桐庐县市政园林建设管理处,桐庐运通塑料包装厂,桐庐农机学校,桐庐县殡仪馆,桐庐鑫达木艺厂,桐庐众合塑料制品有限公司,杭州爱丽娜房地产开发有限公司,杭州富泰新材料科技有限公司)","startTime":"2019-08-28 23:12:00","stopDate":"2019-08-29 01:01:00","orgNo":"3340150","typeCode":"电网故障停限电","poweroffArea":"110kV外董变:俞赵T121线俞赵T1215开关后段","poweroffReason":"高压开关跳闸","powerTime":"2019-08-29 00:38:27","powerComm":"全部送电","subsNo":"","lineNo":"","tgNo":"","tgName":null,"infoStatus":"1","orgName":"国网浙江桐庐县供电公司","typeName":null,"infoStatusName":null,"dateDay":null,"orgNos":null,"nowTime":null,"countyName":null,"streetName":null,"villageName":null,"roadName":null,"communityName":null,"tranName":null,"sdLineName":null,"cityCode":"3340150","cityName":"国网浙江桐庐县供电公司","provinceCode":null,"stopTime":"2019-08-29 01:01:00","powerType":"全部","powerOffArea":"110kV外董变:俞赵T121线俞赵T1215开关后段","powerOffReason":"高压开关跳闸","powerOffId":"2019082831020477"},{"poweroffId":2019082831020476,"sgpoweroffId":null,"subsName":"","lineName":"10kV程坟D832线","pubTranName":"蛇浦村,蛇浦村5#公路公变,蛇浦村排涝,蛇浦村4#戴家公变,新店下机埠打水,浙江澄宇环保新材料股份有限公司2#,杭州鑫磊脱硫剂有限公司,杭州鑫磊脱硫剂有限公司,富阳市新桐乡程浦村村民委员会,富阳市新桐建材有限公司,程坟村8号公官屋公变,富阳市新桐乡鹅卵石加工场,浙江澄宇环保新材料股份有限公司1#,富阳市新桐乡包新轧砂场,富阳市金浦石料有限公司(码头变),蛇浦村山上打水,程坟村4号上埠头公变,富阳市富春宣纸有限公司,杭州鑫磊脱硫剂有限公司,浙江日昌升建材有限公司,蛇浦村1号桥头公变,富阳市金浦石料有限公司,浙江澄宇环保新材料股份有限公司（6620228478） 1#变,蛇浦村3#前山公变,富阳市金浦石料有限公司,富阳市新鑫金属表面处理厂,杭州鑫磊脱硫剂有限公司1#变,蛇浦村2#凌家公变,","scope":"浙江省-杭州市-富阳区-新桐乡-程浦行政村(凌家自然村,蛇浦自然村,章家自然村,程坟自然村,上埠头自然村);新桐乡(杭州市富阳区新桐乡程浦村股份经济合作社,新店下机埠打水,浙江日昌升建材有限公司,富阳市新桐乡包新轧砂场,杭州富阳新桐建材有限公司,杭州富阳富春宣纸有限公司,富阳市新桐乡鹅卵石加工场,杭州富阳新鑫金属表面处理厂,浙江澄宇环保新材料股份有限公司)","startTime":"2019-08-28 23:16:15","stopDate":"2019-08-29 01:10:00","orgNo":"3340170","typeCode":"电网故障停限电","poweroffArea":"110kV新桐变:程坟D832线程坟D8324开关后段","poweroffReason":"高压开关跳闸","powerTime":"2019-08-29 00:37:24","powerComm":"已送电","subsNo":"","lineNo":"","tgNo":"","tgName":null,"infoStatus":"1","orgName":"国网浙江杭州市富阳区供电公司","typeName":null,"infoStatusName":null,"dateDay":null,"orgNos":null,"nowTime":null,"countyName":null,"streetName":null,"villageName":null,"roadName":null,"communityName":null,"tranName":null,"sdLineName":null,"cityCode":"3340170","cityName":"国网浙江杭州市富阳区供电公司","provinceCode":null,"stopTime":"2019-08-29 01:10:00","powerType":"全部","powerOffArea":"110kV新桐变:程坟D832线程坟D8324开关后段","powerOffReason":"高压开关跳闸","powerOffId":"2019082831020476"},{"poweroffId":2019082831020475,"sgpoweroffId":null,"subsName":"","lineName":"10kV新渌D834线","pubTranName":"富阳蓝雅贸易有限公司,富阳市渌渚镇岘口村村民委员会,渌渚镇2#打石山公变,渌渚镇1号政府公变,岘口村3#榨州公变,富阳市岘口制砂有限公司,渌渚镇砚口村5#大坞公变,安业实业2#变,富阳市兴平石英砂厂,岘口村4#荷家埠公变,富阳市渌渚制砂有限公司,中国电信股份有限公司富阳分公司,岘口村6#新建路公变,富阳绿能精制粉剂有限公司1#,安业实业1#变,富阳市渌渚镇岘口沙场,富阳绿能精制粉剂有限公司2#,国网浙江富阳市供电公司,","scope":"浙江省-杭州市-富阳区-渌渚镇-岘口行政村(柘州自然村,邵家自然村,新建路自然村,镇政府自然村,荷家埠自然村,大坞自然村,打石山自然村);渌渚镇(杭州富阳岘口制砂有限公司,中国电信股份有限公司富阳分公司,富阳市渌渚镇岘口村村民委员会,杭州富阳区渌渚镇岘口沙场,国网浙江杭州市富阳区供电公司,富阳市渌渚制砂有限公司,杭州富阳绿能粉剂有限公司,杭州富阳兴平石英砂厂,杭州富阳安业实业有限公司,杭州蓝麦新型建材有限公司)","startTime":"2019-08-28 23:08:00","stopDate":"2019-08-29 01:08:00","orgNo":"3340170","typeCode":"电网故障停限电","poweroffArea":"110kV新桐变:新渌D834线新渌D8345开关后段","poweroffReason":"高压开关跳闸","powerTime":"2019-08-29 00:35:12","powerComm":"已送电","subsNo":"","lineNo":"","tgNo":"","tgName":null,"infoStatus":"1","orgName":"国网浙江杭州市富阳区供电公司","typeName":null,"infoStatusName":null,"dateDay":null,"orgNos":null,"nowTime":null,"countyName":null,"streetName":null,"villageName":null,"roadName":null,"communityName":null,"tranName":null,"sdLineName":null,"cityCode":"3340170","cityName":"国网浙江杭州市富阳区供电公司","provinceCode":null,"stopTime":"2019-08-29 01:08:00","powerType":"全部","powerOffArea":"110kV新桐变:新渌D834线新渌D8345开关后段","powerOffReason":"高压开关跳闸","powerOffId":"2019082831020475"},{"poweroffId":2019082831020470,"sgpoweroffId":null,"subsName":"","lineName":"10kV歌舞T142线","pubTranName":"魏丰王家1号公变,","scope":"浙江省-杭州市-桐庐县-钟山乡-魏丰行政村(魏家自然村,濮家自然村,王家自然村)","startTime":"2019-08-28 23:01:02","stopDate":"2019-08-29 08:00:02","orgNo":"3340150","typeCode":"电网故障停限电","poweroffArea":"35kV钟山变:歌舞T142线-魏丰王家1号公变后段","poweroffReason":"高压开关跳闸 原停电结束时间2019年-8月-29日01:01:02，变更停电结束时间：2019年-8月-29日 08:00:02，原因：天气原因","powerTime":"2019-08-29 07:31:05","powerComm":"全部送电","subsNo":"","lineNo":"","tgNo":"","tgName":null,"infoStatus":"1","orgName":"国网浙江桐庐县供电公司","typeName":null,"infoStatusName":null,"dateDay":null,"orgNos":null,"nowTime":null,"countyName":null,"streetName":null,"villageName":null,"roadName":null,"communityName":null,"tranName":null,"sdLineName":null,"cityCode":"3340150","cityName":"国网浙江桐庐县供电公司","provinceCode":null,"stopTime":"2019-08-29 08:00:02","powerType":"全部","powerOffArea":"35kV钟山变:歌舞T142线-魏丰王家1号公变后段","powerOffReason":"高压开关跳闸 原停电结束时间2019年-8月-29日01:01:02，变更停电结束时间：2019年-8月-29日 08:00:02，原因：天气原因","powerOffId":"2019082831020470"},{"poweroffId":2019082831020468,"sgpoweroffId":null,"subsName":"","lineName":"10kV阳山T212线","pubTranName":"阳山畈2号公变,","scope":"浙江省-杭州市-桐庐县-横村镇-阳山畈行政村-阳山畈自然村","startTime":"2019-08-28 23:00:55","stopDate":"2019-08-29 01:00:55","orgNo":"3340150","typeCode":"电网故障停限电","poweroffArea":"110kV方埠变:阳山T212线-阳山畈2号公变后段","poweroffReason":"高压开关跳闸","powerTime":"2019-08-29 00:38:00","powerComm":"全部送电","subsNo":"","lineNo":"","tgNo":"","tgName":null,"infoStatus":"1","orgName":"国网浙江桐庐县供电公司","typeName":null,"infoStatusName":null,"dateDay":null,"orgNos":null,"nowTime":null,"countyName":null,"streetName":null,"villageName":null,"roadName":null,"communityName":null,"tranName":null,"sdLineName":null,"cityCode":"3340150","cityName":"国网浙江桐庐县供电公司","provinceCode":null,"stopTime":"2019-08-29 01:00:55","powerType":"全部","powerOffArea":"110kV方埠变:阳山T212线-阳山畈2号公变后段","powerOffReason":"高压开关跳闸","powerOffId":"2019082831020468"},{"poweroffId":2019082831020466,"sgpoweroffId":null,"subsName":"","lineName":"10kV仇村Y135线","pubTranName":"罗村村枫坞口台区,仇村村仇村台区,罗村三级电站,罗村村汪活源台区,下包村上章台区,大畈村连塘台区,下包村下包村台区,仇村村谢家台区,牌楼村垅庄台区,仇村村山根台区,罗村村浪源台区,罗村村外蓬台区,牌楼村黄柏坞台区,邵家村邵家台区,幸福村罗村台区,下包村母子岭台区,邵家村银珠畈台区,罗村村周家坞口台区,邵家村陈家畈台区,浙江省杭州市建德市乾潭镇罗村二级电站1#变,幸福村乌丰坞台区,建德市樟虎教学设备制造有限公司,罗村村田包台区,建德市罗村水库林场,浙江省水电建筑基础工程有限公司,1#变,仇村村下徐畈台区,下包村戴家台区,邵家村桩头畈台区,牌楼村小垅台区,牌楼村毛园垄台区,1#变压器,幸福村瑞坑台区,罗村村大珠台区,邵家村下吴台区,云上旅店1#专变,仇村村白羊坞台区,罗村村天井源台区,下包村章家台区,牌楼村竹船坞台区,罗村村郎财坞台区,牌楼村里蓬台区,红毛坞台区,建德市大罗砂石料有限公司变压器间隔,罗村村大横坞台区,牌楼村下菜地台区,配水五标山岗坞支洞,1#变压器,牌楼村牌楼台区,幸福村高峰台区,牌楼村郭家台区,牌楼村白洋头台区,邵家村杨田山台区,罗村村沃坞口台区,罗村村枫坞口脚台区,牌楼村降下垅台区,邵家村胥岭台区,罗村村关山脚台区,建德市罗村水力发电站,建德市杨毅五金工具有限公司,邵家村胥岭脚台区,仇村村红山庙台区,罗村村狮峰台区,","scope":"浙江省-杭州市-建德市-钟山乡-歌舞行政村-歌舞自然村,乾潭镇-下包村行政村 下包自然村,章家自然村,母子岭自然村,钱家自然村,乾潭镇-仇村行政村(山根自然村,谢家自然村,仇村自然村,下徐畈自然村,红山庙自然村,白羊坞自然村),乾潭镇-罗村行政村 田包自然村,枫坞口自然村,沃坞口自然村,大横坞自然村,天井源自然村,外蓬自然村,汪活源自然村,大珠自然村,浪源自然村,狮峰自然村,枫坞口脚自然村,周家坞口自然村,乾潭镇-牌楼行政村(牌楼自然村,垅庄自然村 ,乾潭镇-邵家行政村 下吴自然村,胥岭自然村,桩头畈自然村,邵家自然村,杨田山自然村,陈家畈自然村 ,乾潭镇-幸福行政村 罗村自然村,高峰自然村,瑞坑自然村),乾潭镇 大畈行政村-连塘自然村,乾一行政村-新庄自然村);乾潭镇-仇村行政村 建德市大罗砂石料有限公司,浙江樟虎教学设备制造有限公司),乾潭镇-大畈行政村 建德市路达家具有限公司,建德市双龙旋具有限公司),乾潭镇-罗村行政村 建德市罗村水库林场,建德市罗村水力发电有限公司 ,乾潭镇-邵家行政村 建德云上旅店有限公司,罗村三级电站,乾潭镇 牌楼行政村-建德市杨毅五金工具有限公司,下包村行政村-上海建工水利水电建设有限公司一带用户","startTime":"2019-08-28 22:47:00","stopDate":"2019-08-29 02:00:00","orgNo":"3340180","typeCode":"电网故障停限电","poweroffArea":"110kV乾潭变:仇村Y135线","poweroffReason":"高压开关跳闸 原预计停电结束时间00:54，由于施工现场环境比较复杂，存在不确定因素，因此预估施工时间不足，延迟送电至02:00.","powerTime":"2019-08-29 01:24:00","powerComm":"已送电","subsNo":"","lineNo":"","tgNo":"","tgName":null,"infoStatus":"1","orgName":"国网浙江建德市供电有限公司","typeName":null,"infoStatusName":null,"dateDay":null,"orgNos":null,"nowTime":null,"countyName":null,"streetName":null,"villageName":null,"roadName":null,"communityName":null,"tranName":null,"sdLineName":null,"cityCode":"3340180","cityName":"国网浙江建德市供电有限公司","provinceCode":null,"stopTime":"2019-08-29 02:00:00","powerType":"全部","powerOffArea":"110kV乾潭变:仇村Y135线","powerOffReason":"高压开关跳闸 原预计停电结束时间00:54，由于施工现场环境比较复杂，存在不确定因素，因此预估施工时间不足，延迟送电至02:00.","powerOffId":"2019082831020466"},{"poweroffId":2019082831020464,"sgpoweroffId":null,"subsName":"","lineName":"10kV芦茨T196线","pubTranName":"蟹坑口1号公变,1#专变,杭州桐庐严子陵水电有限公司芦茨一级电站,桐庐放语空文化创意有限公司变压器,桐庐富春江紫光水务有限公司,桐庐县富春江镇天空民宿,芦茨村5号公变,芦茨壹号度假公寓1号公变,严陵坞1号公变,1#专变,梅树坞1号公变,芦茨8号公变,芦茨村2号公变,桐庐飞腾公路工程有限公司,杭州桐庐严子陵水电有限公司芦茨三级电站,桐庐县富春江镇一茶一坐农庄,桐庐陈坑坞电站,枫林2号公变,梓舍里饭店,芦茨9号公变,钓台春江公司,桐庐山韵生态农业开发公司,桐庐飞腾公路工程有限公司,茆坪3号公变,1#,芦茨村1号公变,梅树坞3号公变,富春江旅游公司（水厂）,芦茨6号公变,芦茨村4号公变,桐庐县富春江镇山里人家饭店,桐庐飞腾公路工程有限公司,青龙坞酒店变压器,浙江桐庐白云源饮品有限公司变压器,杭州微旅居文化传播有限公司变压器,桐庐潜庐酒店管理有限公司变压器,双源3号公变,石笋1号公变,石舍1号公变,茆坪4号公变,电厂机修,杭州完美生活品牌管理有限公司,蟹坑口2号公变,梅树坞4号公变,芦茨邵家2号公变,钓鱼岛4号,杭州桐庐严子陵水电有限公司变压器,富渔宾馆,长洲1号公变,枫林1号公变,富春江小三峡分公司,茆坪2号公变,中国电信股份有限公司桐庐分公司变压器,杭州桐庐严子陵水电有限公司芦茨五级电站,杭州桐庐严子陵水电有限公司芦茨四级电站,环境治理公司,芦茨邵家1号公变,双源2号公变,杭州慢谷旅游开发有限公司变压器,钓台宿舍,芦茨7号公变,梅树坞2号公变,传弼1号公变,芦茨3号公变,双源1号公变,桐庐县芦茨乡南坞口电站,桐庐县芦茨乡蟹坑口电站,白云源,深坑1号公变,大母山1号公变,桐庐芦茨1号酒店管理有限公司,起雾山移居点1号公变,杭州桐庐严子陵水电有限公司白云源坝后电站,国网浙江省电力公司培训中心,桐庐飞腾公路工程有限公司,茆坪1号公变,","scope":"浙江省-杭州市-桐庐县-富春江镇-芦茨行政村(严陵坞自然村,大母山自然村,芦茨自然村,深坑自然村,双源自然村,梅树坞自然村,蟹坑口自然村),富春江镇-石舍行政村(枫林自然村,长州自然村,石笋自然村,石舍自然村,传弼自然村),富春江镇-茆坪行政村(茆坪自然村,茆坪邵家自然村,百步街自然村);富春江镇-黄坡岭社区(浙江富春江旅游股份有限公司富春江小三峡分公司,桐庐光典民间资本管理服务有限公司,国网新源水电有限公司富春江水力发电厂,桐庐富春江紫光水务有限公司,国网浙江省电力有限公司培训中心),富春江镇-石舍行政村(桐庐长洲源饮用水有限公司,桐庐飞腾公路工程有限公司,杭州桐庐严子陵水电有限公司,杭州完美生活品牌管理有限公司),富春江镇-茆坪行政村(桐庐陈坑坞电站,杭州桐庐严子陵水电有限公司,桐庐县富春江镇天空民宿,杭州慢谷旅游开发有限公司,桐庐中磊建材有限公司),富春江镇-芦茨行政村(杭州桐庐严子陵水电有限公司,浙江富春江旅游股份有限公司富春江小三峡分公司,桐庐县富春江镇一茶一坐农庄,桐庐飞腾公路工程有限公司,桐庐国华农庄有限公司,桐庐县芦茨乡蟹坑口电站,桐庐县芦茨乡南坞口电站,桐庐芦茨壹号酒店管理有限公司,桐庐县富春江镇山里人家饭店,杭州桐庐严子陵水电有限公司芦茨四级电站,桐庐山韵生态农业开发有限公司,杭州白云源风景区旅游开发有限公司,中国电信股份有限公司桐庐分公司,杭州微旅居文化传播有限公司,浙江桐庐白云源饮品有限公司,桐庐潜庐酒店管理有限公司,桐庐喜新恋旧酒店管理有限公司,国网浙江桐庐县供电有限公司),富春江镇(大洋坪社区-桐庐七里泷环境治理有限公司,桐庐放语空文化创意有限公司)","startTime":"2019-08-28 22:51:06","stopDate":"2019-08-29 00:51:06","orgNo":"3340150","typeCode":"电网故障停限电","poweroffArea":"110kV外董变:芦茨T196线","poweroffReason":"高压开关跳闸","powerTime":"2019-08-28 23:35:29","powerComm":"全部送电","subsNo":"","lineNo":"","tgNo":"","tgName":null,"infoStatus":"1","orgName":"国网浙江桐庐县供电公司","typeName":null,"infoStatusName":null,"dateDay":null,"orgNos":null,"nowTime":null,"countyName":null,"streetName":null,"villageName":null,"roadName":null,"communityName":null,"tranName":null,"sdLineName":null,"cityCode":"3340150","cityName":"国网浙江桐庐县供电公司","provinceCode":null,"stopTime":"2019-08-29 00:51:06","powerType":"全部","powerOffArea":"110kV外董变:芦茨T196线","powerOffReason":"高压开关跳闸","powerOffId":"2019082831020464"},{"poweroffId":2019082831020455,"sgpoweroffId":null,"subsName":"","lineName":"10kV传化C543线","pubTranName":"宁牧村23#变,光富汽车,污水处理1#,宁新村19#变,宁牧村22#变,3#,蓝海包装,中佳纺织,威玛轴承,杭州市萧山区市政园林公用事业管理处（传化）,宁鑫轴承,传化集团3#,文堂橡塑,腾达建设,新安村18#变,科峰轴承,志仁汽配,2#,宁新村3#变,新安村32#变,宁新村18#变,全盛纺织,宁新村20#变,宁牧村3#变,新安村5#变,宁新村4#变,宁新,永久汽配,新安村4#变,1#,杭通汽车轴承,喜加乐商务酒店,宁新村30#变,","scope":"浙江省-杭州市-萧山区-宁围镇、宁围街道-新安行政村(新宁路,新安自然村),宁围街道(宁新行政村-宁新自然村,宁牧行政村-宁牧自然村);浙江省-杭州市-萧山区-宁围街道-二桥行政村-杭州萧山污水处理有限公司,宁围街道-宁新行政村(杭州喜加乐商务酒店有限公司,浙江中佳纺织有限公司,杭州萧山文堂橡塑制品有限公司,杭州佑军机械有限公司,杭州东展科技服务有限公司,杭州杭通汽车轴承有限公司,浙江东风南方宁新汽车销售服务有限公司,杭州市萧山区市政绿化养护保障中心),宁围街道-新安行政村(杭州蓝海包装制品有限公司,杭州萧山永久汽车配件有限公司,杭州萌芽物业服务有限公司),宁围街道-宁牧行政村(杭州科峰轴承有限公司,杭州全盛纺织有限公司,杭州光富汽车配件厂,杭州威玛轴承制造有限公司,杭州市萧山区人民政府宁围街道办事处)经济开发区厂花工业西区、宁围镇新宁陆、宁围镇宁新村等一带","startTime":"2019-08-28 22:25:31","stopDate":"2019-08-29 01:20:31","orgNo":"3340130","typeCode":"电网故障停限电","poweroffArea":"35kV钱江变:传化C543线开关后段","poweroffReason":"高压柱上断路器短路故障 原停电结束时间：2019-08-29 03:20:31，变更停电结束时间：2019-08-29 01:20:31，由于增派人员，抢修提前完成，故需要提前送电。","powerTime":"2019-08-29 00:46:41","powerComm":"已送电","subsNo":"","lineNo":"","tgNo":"","tgName":null,"infoStatus":"1","orgName":"国网浙江杭州市萧山区供电有限公司","typeName":null,"infoStatusName":null,"dateDay":null,"orgNos":null,"nowTime":null,"countyName":null,"streetName":null,"villageName":null,"roadName":null,"communityName":null,"tranName":null,"sdLineName":null,"cityCode":"3340130","cityName":"国网浙江杭州市萧山区供电有限公司","provinceCode":null,"stopTime":"2019-08-29 01:20:31","powerType":"全部","powerOffArea":"35kV钱江变:传化C543线开关后段","powerOffReason":"高压柱上断路器短路故障 原停电结束时间：2019-08-29 03:20:31，变更停电结束时间：2019-08-29 01:20:31，由于增派人员，抢修提前完成，故需要提前送电。","powerOffId":"2019082831020455"},{"poweroffId":2019082831020450,"sgpoweroffId":null,"subsName":"","lineName":"10kV青何D731线","pubTranName":"杭州富阳勋辉塑业有限公司,青何村民政1#虎啸亭公变,青何村龙峰1#袁家公变,杭州三江混凝土外加剂材料有限公司,杭州好莳橡胶制品有限公司,青何村龙峰3#李家公变,富阳华隆鞋业有限公司,富阳市永昌青何竹器厂,万瑞达纸业,青何村龙峰2#朱家公变,青何村民政4#上许家公变,杭州洲美转印制品有限公司,杭州富阳行之橡胶制品有限公司,唐昌村青山2#楼家公变,富阳青山纸箱厂1#变,杭州市富阳区环境保护监测站,唐昌村青山3#杨家公变,唐昌村青山4号唐村坞口公变,青何村青何4号凹坎坞公变,青何村青何5#陈家墩公变,青何村7号产坞里公变,青何村青何2#殿边公变,洲美2#变,青何村青何1#翁家公变,唐昌村青山1#石家公变,杭州富阳千禧笋厂,富阳市永昌镇国平竹制品加工厂,青何村民政2号产坞公变,青何村民政6号潘家坞公变,唐昌村青山5#侯家公变,民政村3#下许家公变,青何村民政5#弯里公变,富阳市永昌镇永乐耐火材料厂1#变,青何村青何3#大坞里公变,","scope":"浙江省-杭州市-富阳区-永昌镇-青何行政村(民政自然村,青何自然村,龙峰自然村),永昌镇-唐昌行政村(唐昌自然村,青山自然村);永昌镇(杭州富阳勋辉塑业有限公司,杭州三江混凝土外加剂材料有限公司,杭州富阳华浩鞋业有限公司,富阳市永昌镇国平竹制品加工厂,杭州好莳橡胶制品有限公司,杭州富阳行之远橡塑制品有限公司,杭州富阳青山纸箱厂,杭州富阳万瑞达纸业有限公司,杭州洲美转印制品有限公司,杭州市富阳区环境保护监测站,杭州富阳千禧笋厂,杭州富阳青何竹制品有限公司,富阳市永昌镇永乐耐火材料厂)","startTime":"2019-08-28 22:11:09","stopDate":"2019-08-29 00:04:00","orgNo":"3340170","typeCode":"电网故障停限电","poweroffArea":"110kV松溪变:青何D731线青何D7314开关后段","poweroffReason":"高压开关跳闸","powerTime":"2019-08-28 23:20:15","powerComm":"已送电","subsNo":"","lineNo":"","tgNo":"","tgName":null,"infoStatus":"1","orgName":"国网浙江杭州市富阳区供电公司","typeName":null,"infoStatusName":null,"dateDay":null,"orgNos":null,"nowTime":null,"countyName":null,"streetName":null,"villageName":null,"roadName":null,"communityName":null,"tranName":null,"sdLineName":null,"cityCode":"3340170","cityName":"国网浙江杭州市富阳区供电公司","provinceCode":null,"stopTime":"2019-08-29 00:04:00","powerType":"全部","powerOffArea":"110kV松溪变:青何D731线青何D7314开关后段","powerOffReason":"高压开关跳闸","powerOffId":"2019082831020450"}],"pageModel":{"pageNow":1185,"totalCount":17789,"totalPage":1779,"tableRows":0,"pageCount":10,"beginCount":11840},"isExperi":"1"}