{"message":"","today":"2020-06-16","seleList":[{"poweroffId":2019082631020170,"sgpoweroffId":null,"subsName":"","lineName":"10kV恒升8645线","pubTranName":"宁溪,上宁村,","scope":"浙江省杭州市西湖区上宁新村1-9幢，南1-南3幢附近一带","startTime":"2019-09-12 09:00:00","stopDate":"2019-09-12 16:30:00","orgNo":"3340101","typeCode":"计划停电","poweroffArea":"220kV庆丰变:恒升8645线（庆丰变-宁溪站），上宁村分线间隔，宁溪配变间隔，宁恒86451线（宁溪站-恒升站）","poweroffReason":"杭州市西湖区220千伏庆丰变3号主变扩建工程10千伏迁改工程.原停电结束时间为2019-09-12 17:30:00,为减少客户停电时间,加快工作进度,提前送电,现变更停电结束时间为2019-09-12 16:30:00","powerTime":"2019-09-12 15:58:59","powerComm":"已送电","subsNo":"","lineNo":"","tgNo":"","tgName":null,"infoStatus":"1","orgName":"浙江杭州电力客户服务中心","typeName":null,"infoStatusName":null,"dateDay":null,"orgNos":null,"nowTime":null,"countyName":null,"streetName":null,"villageName":null,"roadName":null,"communityName":null,"tranName":null,"sdLineName":null,"cityCode":"3340101","cityName":"浙江杭州电力客户服务中心","provinceCode":null,"stopTime":"2019-09-12 16:30:00","powerType":"全部","powerOffArea":"220kV庆丰变:恒升8645线（庆丰变-宁溪站），上宁村分线间隔，宁溪配变间隔，宁恒86451线（宁溪站-恒升站）","powerOffReason":"杭州市西湖区220千伏庆丰变3号主变扩建工程10千伏迁改工程.原停电结束时间为2019-09-12 17:30:00,为减少客户停电时间,加快工作进度,提前送电,现变更停电结束时间为2019-09-12 16:30:00","powerOffId":"2019082631020170"},{"poweroffId":2019082631020169,"sgpoweroffId":null,"subsName":"","lineName":"10kV亭北8415线","pubTranName":"雅苑（一）,","scope":"浙江省杭州市下城区水岸雅苑2幢、3幢、5幢、水岸雅苑幼儿园、消防水泵及商铺附近一带","startTime":"2019-09-05 13:30:00","stopDate":"2019-09-05 15:10:00","orgNo":"3340101","typeCode":"计划停电","poweroffArea":"110kV长木变:亭北8415线-雅苑（一）后段","poweroffReason":"雅苑（一）整改二次回路接线（蔡13858061601）.原停电结束时间17:30、变更停电结束时间15:10原因由于施工现场环境比较复杂，存在不确定因素，因此预估施工时间适当放长了，而实际施工进行得比较顺利，因此该工作提前结束。","powerTime":"2019-09-05 14:20:59","powerComm":"已送电","subsNo":"","lineNo":"","tgNo":"","tgName":null,"infoStatus":"1","orgName":"浙江杭州电力客户服务中心","typeName":null,"infoStatusName":null,"dateDay":null,"orgNos":null,"nowTime":null,"countyName":null,"streetName":null,"villageName":null,"roadName":null,"communityName":null,"tranName":null,"sdLineName":null,"cityCode":"3340101","cityName":"浙江杭州电力客户服务中心","provinceCode":null,"stopTime":"2019-09-05 15:10:00","powerType":"全部","powerOffArea":"110kV长木变:亭北8415线-雅苑（一）后段","powerOffReason":"雅苑（一）整改二次回路接线（蔡13858061601）.原停电结束时间17:30、变更停电结束时间15:10原因由于施工现场环境比较复杂，存在不确定因素，因此预估施工时间适当放长了，而实际施工进行得比较顺利，因此该工作提前结束。","powerOffId":"2019082631020169"},{"poweroffId":2019082631020168,"sgpoweroffId":null,"subsName":"","lineName":"10kV古湾6799线","pubTranName":"古村,中宿,高法(1),","scope":"浙江省杭州市西湖区华星路97号1幢、2幢、华星路188号1幢、2幢、3幢、4幢、杭州市西湖区人民政府翠苑街道办事处、古荡村附近一带","startTime":"2019-09-05 09:30:00","stopDate":"2019-09-05 11:20:00","orgNo":"3340101","typeCode":"计划停电","poweroffArea":"110kV高技变:古湾6799线银宿站Ⅰ段3#间隔古高分线古村 中宿","poweroffReason":"中宿整改二次回路（蔡13858061601）。原停电结束时间17:30、变更停电结束时间11:20原因由于施工现场环境比较复杂，存在不确定因素，因此预估施工时间适当放长了，而实际施工进行得比较顺利，因此该工作提前结束。","powerTime":"2019-09-05 10:42:59","powerComm":"已送电","subsNo":"","lineNo":"","tgNo":"","tgName":null,"infoStatus":"1","orgName":"浙江杭州电力客户服务中心","typeName":null,"infoStatusName":null,"dateDay":null,"orgNos":null,"nowTime":null,"countyName":null,"streetName":null,"villageName":null,"roadName":null,"communityName":null,"tranName":null,"sdLineName":null,"cityCode":"3340101","cityName":"浙江杭州电力客户服务中心","provinceCode":null,"stopTime":"2019-09-05 11:20:00","powerType":"全部","powerOffArea":"110kV高技变:古湾6799线银宿站Ⅰ段3#间隔古高分线古村 中宿","powerOffReason":"中宿整改二次回路（蔡13858061601）。原停电结束时间17:30、变更停电结束时间11:20原因由于施工现场环境比较复杂，存在不确定因素，因此预估施工时间适当放长了，而实际施工进行得比较顺利，因此该工作提前结束。","powerOffId":"2019082631020168"},{"poweroffId":2019082631020167,"sgpoweroffId":null,"subsName":"","lineName":"10kV和展8945线","pubTranName":"茗盛(七),茗盛(五),茗盛(三),茗盛(一),","scope":"浙江省杭州市下城区东新园小区茗盛苑1,2,4,7,8,12幢附近一带","startTime":"2019-09-04 09:30:00","stopDate":"2019-09-04 14:30:00","orgNo":"3340101","typeCode":"计划停电","poweroffArea":"110kV东新变:和展8945线望景站Ⅰ段4#间隔茗盛一线茗盛（一）茗盛（三） 望景站Ⅰ段5#间隔茗盛三线茗盛（七）茗盛（五）","poweroffReason":"茗盛（七）变整改二次回路.原停电结束时间17:30、变更停电结束时间14:30原因由于施工现场环境比较复杂，存在不确定因素，因此预估施工时间适当放长了，而实际施工进行得比较顺利，因此该工作提前结束。","powerTime":"2019-09-04 13:58:59","powerComm":"已送电","subsNo":"","lineNo":"","tgNo":"","tgName":null,"infoStatus":"1","orgName":"浙江杭州电力客户服务中心","typeName":null,"infoStatusName":null,"dateDay":null,"orgNos":null,"nowTime":null,"countyName":null,"streetName":null,"villageName":null,"roadName":null,"communityName":null,"tranName":null,"sdLineName":null,"cityCode":"3340101","cityName":"浙江杭州电力客户服务中心","provinceCode":null,"stopTime":"2019-09-04 14:30:00","powerType":"全部","powerOffArea":"110kV东新变:和展8945线望景站Ⅰ段4#间隔茗盛一线茗盛（一）茗盛（三） 望景站Ⅰ段5#间隔茗盛三线茗盛（七）茗盛（五）","powerOffReason":"茗盛（七）变整改二次回路.原停电结束时间17:30、变更停电结束时间14:30原因由于施工现场环境比较复杂，存在不确定因素，因此预估施工时间适当放长了，而实际施工进行得比较顺利，因此该工作提前结束。","powerOffId":"2019082631020167"},{"poweroffId":2019082631020165,"sgpoweroffId":null,"subsName":"","lineName":"10kV三亭8069线","pubTranName":"橘园（三）,","scope":"浙江省杭州市江干区三里新城橘苑5-8幢附近一带","startTime":"2019-09-04 13:30:00","stopDate":"2019-09-04 15:40:00","orgNo":"3340101","typeCode":"计划停电","poweroffArea":"110kV东站变:三亭8069线橘园二站Ⅰ段2#间隔橘公三线橘园（三）","poweroffReason":"橘园（三）变整改二次回路。原停电结束时间17:30、变更停电结束时间15:40原因由于施工现场环境比较复杂，存在不确定因素，因此预估施工时间适当放长了，而实际施工进行得比较顺利，因此该工作提前结束。","powerTime":"2019-09-04 14:57:59","powerComm":"已送电","subsNo":"","lineNo":"","tgNo":"","tgName":null,"infoStatus":"1","orgName":"浙江杭州电力客户服务中心","typeName":null,"infoStatusName":null,"dateDay":null,"orgNos":null,"nowTime":null,"countyName":null,"streetName":null,"villageName":null,"roadName":null,"communityName":null,"tranName":null,"sdLineName":null,"cityCode":"3340101","cityName":"浙江杭州电力客户服务中心","provinceCode":null,"stopTime":"2019-09-04 15:40:00","powerType":"全部","powerOffArea":"110kV东站变:三亭8069线橘园二站Ⅰ段2#间隔橘公三线橘园（三）","powerOffReason":"橘园（三）变整改二次回路。原停电结束时间17:30、变更停电结束时间15:40原因由于施工现场环境比较复杂，存在不确定因素，因此预估施工时间适当放长了，而实际施工进行得比较顺利，因此该工作提前结束。","powerOffId":"2019082631020165"},{"poweroffId":2019082631020162,"sgpoweroffId":null,"subsName":"","lineName":"10kV芳洲8435线","pubTranName":"芳苑（二）,","scope":"浙江省杭州市下城区北景芳洲苑7-9幢及商铺附近一带","startTime":"2019-09-18 09:00:00","stopDate":"2019-09-18 18:30:00","orgNo":"3340101","typeCode":"计划停电","poweroffArea":"110kV永宁变:芳洲8435线芳苑一站芳苑二配变","poweroffReason":"芳苑二变美变更换（工单处理） 原停电结束时间为2019-09-18 17:30:00,因工作量大原因,现变更停电结束时间为2019-09-18 18:30:00","powerTime":"2019-09-18 18:19:56","powerComm":"已送电","subsNo":"","lineNo":"","tgNo":"","tgName":null,"infoStatus":"1","orgName":"浙江杭州电力客户服务中心","typeName":null,"infoStatusName":null,"dateDay":null,"orgNos":null,"nowTime":null,"countyName":null,"streetName":null,"villageName":null,"roadName":null,"communityName":null,"tranName":null,"sdLineName":null,"cityCode":"3340101","cityName":"浙江杭州电力客户服务中心","provinceCode":null,"stopTime":"2019-09-18 18:30:00","powerType":"全部","powerOffArea":"110kV永宁变:芳洲8435线芳苑一站芳苑二配变","powerOffReason":"芳苑二变美变更换（工单处理） 原停电结束时间为2019-09-18 17:30:00,因工作量大原因,现变更停电结束时间为2019-09-18 18:30:00","powerOffId":"2019082631020162"},{"poweroffId":2019082631020144,"sgpoweroffId":null,"subsName":"","lineName":"10kV白泥D226线","pubTranName":"唐家坞12号溪下公变,","scope":"浙江省-杭州市-富阳区-银湖街道-唐家坞行政村(溪下自然村,唐家坞自然村)","startTime":"2019-08-26 10:36:37","stopDate":"2019-08-26 11:32:00","orgNo":"3340170","typeCode":"电网故障停限电","poweroffArea":"110kV银湖变:白泥D226线唐家坞12号溪下公变配变","poweroffReason":"高压开关跳闸，原停电结束时间 2019-08-26 12:32:00，因抢修力量加强变更至2019-08-26 11:32:00","powerTime":"2019-08-26 10:48:25","powerComm":"已送电","subsNo":"","lineNo":"","tgNo":"","tgName":null,"infoStatus":"1","orgName":"国网浙江杭州市富阳区供电公司","typeName":null,"infoStatusName":null,"dateDay":null,"orgNos":null,"nowTime":null,"countyName":null,"streetName":null,"villageName":null,"roadName":null,"communityName":null,"tranName":null,"sdLineName":null,"cityCode":"3340170","cityName":"国网浙江杭州市富阳区供电公司","provinceCode":null,"stopTime":"2019-08-26 11:32:00","powerType":"全部","powerOffArea":"110kV银湖变:白泥D226线唐家坞12号溪下公变配变","powerOffReason":"高压开关跳闸，原停电结束时间 2019-08-26 12:32:00，因抢修力量加强变更至2019-08-26 11:32:00","powerOffId":"2019082631020144"},{"poweroffId":2019082631020130,"sgpoweroffId":null,"subsName":"","lineName":"10kV泥桥G908线","pubTranName":"水西4-5组公变,","scope":"浙江省-杭州市-余杭区-乔司街道-和睦桥行政村-和顺桥自然村一带","startTime":"2019-08-26 10:01:00","stopDate":"2019-08-26 12:01:00","orgNo":"3340140","typeCode":"电网故障停限电","poweroffArea":"110kV庙港变:泥桥G908线水西4-5组公变配变","poweroffReason":"(低压停电信息)低压开关跳闸","powerTime":"2019-08-26 11:11:00","powerComm":"已送电","subsNo":"","lineNo":"","tgNo":"","tgName":null,"infoStatus":"1","orgName":"国网浙江杭州市余杭区供电有限公司","typeName":null,"infoStatusName":null,"dateDay":null,"orgNos":null,"nowTime":null,"countyName":null,"streetName":null,"villageName":null,"roadName":null,"communityName":null,"tranName":null,"sdLineName":null,"cityCode":"3340140","cityName":"国网浙江杭州市余杭区供电有限公司","provinceCode":null,"stopTime":"2019-08-26 12:01:00","powerType":"全部","powerOffArea":"110kV庙港变:泥桥G908线水西4-5组公变配变","powerOffReason":"(低压停电信息)低压开关跳闸","powerOffId":"2019082631020130"},{"poweroffId":2019082631020129,"sgpoweroffId":null,"subsName":"","lineName":"10kV泥桥G908线","pubTranName":"水西4组5号公变,","scope":"浙江省-杭州市-余杭区-乔司街道-和睦桥行政村-和顺桥自然村一带","startTime":"2019-08-26 09:58:00","stopDate":"2019-08-26 11:58:00","orgNo":"3340140","typeCode":"电网故障停限电","poweroffArea":"110kV庙港变:泥桥G908线-水西4组5号公变后段","poweroffReason":"(低压停电信息)低压开关跳闸","powerTime":"2019-08-26 11:11:00","powerComm":"已送电","subsNo":"","lineNo":"","tgNo":"","tgName":null,"infoStatus":"1","orgName":"国网浙江杭州市余杭区供电有限公司","typeName":null,"infoStatusName":null,"dateDay":null,"orgNos":null,"nowTime":null,"countyName":null,"streetName":null,"villageName":null,"roadName":null,"communityName":null,"tranName":null,"sdLineName":null,"cityCode":"3340140","cityName":"国网浙江杭州市余杭区供电有限公司","provinceCode":null,"stopTime":"2019-08-26 11:58:00","powerType":"全部","powerOffArea":"110kV庙港变:泥桥G908线-水西4组5号公变后段","powerOffReason":"(低压停电信息)低压开关跳闸","powerOffId":"2019082631020129"},{"poweroffId":2019082631020105,"sgpoweroffId":null,"subsName":"","lineName":"10kV株林D243线","pubTranName":"横山村1#村中公变,","scope":"浙江省-杭州市-富阳区-东洲街道-黄公望行政村(横山自然村,株林坞自然村)","startTime":"2019-09-07 07:30:00","stopDate":"2019-09-07 16:30:00","orgNo":"3340170","typeCode":"计划停电","poweroffArea":"110kV白鹤变:株林D243线-横山村1#村中公变低压开关后段","poweroffReason":"(低压停电信息)迎东2019年五丰村13#大机埠公变等低压线路改造工程拆旧导线7档，新架集束导线12档，接户线搭接等工作。","powerTime":"2019-09-07 16:19:46","powerComm":"已送电","subsNo":"","lineNo":"","tgNo":"","tgName":null,"infoStatus":"1","orgName":"国网浙江杭州市富阳区供电公司","typeName":null,"infoStatusName":null,"dateDay":null,"orgNos":null,"nowTime":null,"countyName":null,"streetName":null,"villageName":null,"roadName":null,"communityName":null,"tranName":null,"sdLineName":null,"cityCode":"3340170","cityName":"国网浙江杭州市富阳区供电公司","provinceCode":null,"stopTime":"2019-09-07 16:30:00","powerType":"全部","powerOffArea":"110kV白鹤变:株林D243线-横山村1#村中公变低压开关后段","powerOffReason":"(低压停电信息)迎东2019年五丰村13#大机埠公变等低压线路改造工程拆旧导线7档，新架集束导线12档，接户线搭接等工作。","powerOffId":"2019082631020105"}],"pageModel":{"pageNow":1196,"totalCount":17789,"totalPage":1779,"tableRows":0,"pageCount":10,"beginCount":11950},"isExperi":"1"}