{"message":"","today":"2020-06-16","seleList":[{"poweroffId":2019082431020188,"sgpoweroffId":null,"subsName":"","lineName":"10kV抢二A018线","pubTranName":"湘湖家园22#公变,","scope":"浙江省-杭州市-萧山区-城厢街道-湘湖社区-跨月路，湘湖家园79幢1单元一带","startTime":"2019-08-24 21:48:21","stopDate":"2019-08-24 23:30:00","orgNo":"3340130","typeCode":"电网故障停限电","poweroffArea":"110kV越王变:抢二A018线-湘湖家园22#公变台区低压开关","poweroffReason":"（低压停电信息）低压漏电保护器短路故障","powerTime":"2019-08-24 22:38:08","powerComm":"已送电","subsNo":"","lineNo":"","tgNo":"","tgName":null,"infoStatus":"1","orgName":"国网浙江杭州市萧山区供电有限公司","typeName":null,"infoStatusName":null,"dateDay":null,"orgNos":null,"nowTime":null,"countyName":null,"streetName":null,"villageName":null,"roadName":null,"communityName":null,"tranName":null,"sdLineName":null,"cityCode":"3340130","cityName":"国网浙江杭州市萧山区供电有限公司","provinceCode":null,"stopTime":"2019-08-24 23:30:00","powerType":"全部","powerOffArea":"110kV越王变:抢二A018线-湘湖家园22#公变台区低压开关","powerOffReason":"（低压停电信息）低压漏电保护器短路故障","powerOffId":"2019082431020188"},{"poweroffId":2019082431020172,"sgpoweroffId":null,"subsName":"","lineName":"10kV珠村163线","pubTranName":"后浦村周家2号公变,","scope":"浙江省-杭州市-桐庐县-瑶琳镇-后浦行政村-青后","startTime":"2019-09-02 06:30:00","stopDate":"2019-09-02 09:30:00","orgNo":"3340150","typeCode":"计划停电","poweroffArea":"35kV瑶琳变:珠村163线-周家F6042令克后段","poweroffReason":"消缺","powerTime":"2019-09-02 09:23:55","powerComm":"已送电。","subsNo":"","lineNo":"","tgNo":"","tgName":null,"infoStatus":"1","orgName":"国网浙江桐庐县供电公司","typeName":null,"infoStatusName":null,"dateDay":null,"orgNos":null,"nowTime":null,"countyName":null,"streetName":null,"villageName":null,"roadName":null,"communityName":null,"tranName":null,"sdLineName":null,"cityCode":"3340150","cityName":"国网浙江桐庐县供电公司","provinceCode":null,"stopTime":"2019-09-02 09:30:00","powerType":"全部","powerOffArea":"35kV瑶琳变:珠村163线-周家F6042令克后段","powerOffReason":"消缺","powerOffId":"2019082431020172"},{"poweroffId":2019082431020170,"sgpoweroffId":null,"subsName":"","lineName":"10kV洋塘T101线","pubTranName":"平腰村1号公变,","scope":"浙江省-杭州市-桐庐县-桐君街道-洋塘社区-平腰自然村","startTime":"2019-08-24 19:28:50","stopDate":"2019-08-24 21:28:50","orgNo":"3340150","typeCode":"电网故障停限电","poweroffArea":"110kV桐庐变:洋塘T101线-平腰村1号公变后段","poweroffReason":"高压开关跳闸","powerTime":"2019-08-24 21:20:18","powerComm":"已送电。","subsNo":"","lineNo":"","tgNo":"","tgName":null,"infoStatus":"1","orgName":"国网浙江桐庐县供电公司","typeName":null,"infoStatusName":null,"dateDay":null,"orgNos":null,"nowTime":null,"countyName":null,"streetName":null,"villageName":null,"roadName":null,"communityName":null,"tranName":null,"sdLineName":null,"cityCode":"3340150","cityName":"国网浙江桐庐县供电公司","provinceCode":null,"stopTime":"2019-08-24 21:28:50","powerType":"全部","powerOffArea":"110kV桐庐变:洋塘T101线-平腰村1号公变后段","powerOffReason":"高压开关跳闸","powerOffId":"2019082431020170"},{"poweroffId":2019082431020125,"sgpoweroffId":null,"subsName":"","lineName":"10kV石码Y163线","pubTranName":"更楼社区搬运站公变,","scope":"浙江省-杭州市-建德市 更楼街道 更楼社区 石马路,黄岙行政村-黄岙自然村 新四村一带用户","startTime":"2019-08-24 15:14:00","stopDate":"2019-08-24 16:30:00","orgNo":"3340180","typeCode":"电网故障停限电","poweroffArea":"110kV更楼变:石码Y163线-更楼社区搬运站公变后段","poweroffReason":"(低压停电信息)低压开关跳闸 原预计停电结束时间18:00，由于施工现场环境比较复杂，存在不确定因素，因此预估施工时间适当放长了，目前故障已修复，现将停电时间变更至16:30。","powerTime":"2019-08-24 16:01:00","powerComm":"已送电","subsNo":"","lineNo":"","tgNo":"","tgName":null,"infoStatus":"1","orgName":"国网浙江建德市供电有限公司","typeName":null,"infoStatusName":null,"dateDay":null,"orgNos":null,"nowTime":null,"countyName":null,"streetName":null,"villageName":null,"roadName":null,"communityName":null,"tranName":null,"sdLineName":null,"cityCode":"3340180","cityName":"国网浙江建德市供电有限公司","provinceCode":null,"stopTime":"2019-08-24 16:30:00","powerType":"全部","powerOffArea":"110kV更楼变:石码Y163线-更楼社区搬运站公变后段","powerOffReason":"(低压停电信息)低压开关跳闸 原预计停电结束时间18:00，由于施工现场环境比较复杂，存在不确定因素，因此预估施工时间适当放长了，目前故障已修复，现将停电时间变更至16:30。","powerOffId":"2019082431020125"},{"poweroffId":2019082431020097,"sgpoweroffId":null,"subsName":"","lineName":"10kV银乔C832线","pubTranName":"元沙村7#变,","scope":"浙江省-杭州市-萧山区-新街镇-新街街道-元沙行政村-元沙自然村、元沙村等一带","startTime":"2019-08-24 13:59:53","stopDate":"2019-08-24 16:15:53","orgNo":"3340130","typeCode":"电网故障停限电","poweroffArea":"110kV罗山变:银乔C832线-元沙村7#变台区低压开关","poweroffReason":"（低压停电信息）低压漏电保护器短路故障 原停电结束时间：2019-08-24 17:20:53，变更停电结束时间：2019-08-24 16:15:53，由于增派人员，抢修工作提前完成，故需要提前送电。","powerTime":"2019-08-24 15:35:37","powerComm":"已送电","subsNo":"","lineNo":"","tgNo":"","tgName":null,"infoStatus":"1","orgName":"国网浙江杭州市萧山区供电有限公司","typeName":null,"infoStatusName":null,"dateDay":null,"orgNos":null,"nowTime":null,"countyName":null,"streetName":null,"villageName":null,"roadName":null,"communityName":null,"tranName":null,"sdLineName":null,"cityCode":"3340130","cityName":"国网浙江杭州市萧山区供电有限公司","provinceCode":null,"stopTime":"2019-08-24 16:15:53","powerType":"全部","powerOffArea":"110kV罗山变:银乔C832线-元沙村7#变台区低压开关","powerOffReason":"（低压停电信息）低压漏电保护器短路故障 原停电结束时间：2019-08-24 17:20:53，变更停电结束时间：2019-08-24 16:15:53，由于增派人员，抢修工作提前完成，故需要提前送电。","powerOffId":"2019082431020097"},{"poweroffId":2019082431020093,"sgpoweroffId":null,"subsName":"","lineName":"10kV新桥C106线","pubTranName":"怡景公寓公变,","scope":"浙江省-杭州市-萧山区-城厢街道(百尺溇社区-百尺溇路,南门江社区-萧然南路)，怡景公寓一带","startTime":"2019-08-24 13:51:56","stopDate":"2019-08-24 18:30:00","orgNo":"3340130","typeCode":"电网故障停限电","poweroffArea":"110kV丽都变:新桥C106线-怡景公寓公变台区低压开关","poweroffReason":"（低压停电信息）外力破坏造成低压电缆挖断 原停电结束时间：2019-08-24 19:00:00，变更停电结束时间：2019-08-24 18:30:00，变更停电结束时间原因：由于抢修工作提前结束，故需要提前送电。","powerTime":"2019-08-24 17:32:25","powerComm":"已送电","subsNo":"","lineNo":"","tgNo":"","tgName":null,"infoStatus":"1","orgName":"国网浙江杭州市萧山区供电有限公司","typeName":null,"infoStatusName":null,"dateDay":null,"orgNos":null,"nowTime":null,"countyName":null,"streetName":null,"villageName":null,"roadName":null,"communityName":null,"tranName":null,"sdLineName":null,"cityCode":"3340130","cityName":"国网浙江杭州市萧山区供电有限公司","provinceCode":null,"stopTime":"2019-08-24 18:30:00","powerType":"全部","powerOffArea":"110kV丽都变:新桥C106线-怡景公寓公变台区低压开关","powerOffReason":"（低压停电信息）外力破坏造成低压电缆挖断 原停电结束时间：2019-08-24 19:00:00，变更停电结束时间：2019-08-24 18:30:00，变更停电结束时间原因：由于抢修工作提前结束，故需要提前送电。","powerOffId":"2019082431020093"},{"poweroffId":2019082431020088,"sgpoweroffId":null,"subsName":"","lineName":"10kV胜达C623线","pubTranName":"新盛村30#变,","scope":"浙江省-杭州市-萧山区-新街镇-新街街道-新盛行政村-新盛自然村、新盛村等一带","startTime":"2019-08-24 13:14:04","stopDate":"2019-08-24 16:23:52","orgNo":"3340130","typeCode":"电网故障停限电","poweroffArea":"110kV新街变:胜达C623线-新盛村30#变台区低压开关","poweroffReason":"（低压停电信息）低压漏电保护器短路故障","powerTime":"2019-08-24 15:31:28","powerComm":"已送电","subsNo":"","lineNo":"","tgNo":"","tgName":null,"infoStatus":"1","orgName":"国网浙江杭州市萧山区供电有限公司","typeName":null,"infoStatusName":null,"dateDay":null,"orgNos":null,"nowTime":null,"countyName":null,"streetName":null,"villageName":null,"roadName":null,"communityName":null,"tranName":null,"sdLineName":null,"cityCode":"3340130","cityName":"国网浙江杭州市萧山区供电有限公司","provinceCode":null,"stopTime":"2019-08-24 16:23:52","powerType":"全部","powerOffArea":"110kV新街变:胜达C623线-新盛村30#变台区低压开关","powerOffReason":"（低压停电信息）低压漏电保护器短路故障","powerOffId":"2019082431020088"},{"poweroffId":2019082431020075,"sgpoweroffId":null,"subsName":"","lineName":"10kV曹家G242线","pubTranName":"三星村九亩顷公变,","scope":"浙江省-杭州市-余杭区-塘栖镇-三星行政村-三星村，西河村白河头，三星村廊下，三星村长并墩，三星村周家湾一带","startTime":"2019-08-24 11:45:35","stopDate":"2019-08-24 17:00:00","orgNo":"3340140","typeCode":"电网故障停限电","poweroffArea":"110kV宏畔变:曹家G242线首端，九亩顷，三星村九亩顷公变之间","poweroffReason":"高压开关跳闸","powerTime":"2019-08-24 16:26:00","powerComm":"已送电","subsNo":"","lineNo":"","tgNo":"","tgName":null,"infoStatus":"1","orgName":"国网浙江杭州市余杭区供电有限公司","typeName":null,"infoStatusName":null,"dateDay":null,"orgNos":null,"nowTime":null,"countyName":null,"streetName":null,"villageName":null,"roadName":null,"communityName":null,"tranName":null,"sdLineName":null,"cityCode":"3340140","cityName":"国网浙江杭州市余杭区供电有限公司","provinceCode":null,"stopTime":"2019-08-24 17:00:00","powerType":"全部","powerOffArea":"110kV宏畔变:曹家G242线首端，九亩顷，三星村九亩顷公变之间","powerOffReason":"高压开关跳闸","powerOffId":"2019082431020075"},{"poweroffId":2019082431020065,"sgpoweroffId":null,"subsName":"","lineName":"10kV徐韩Y675线","pubTranName":"徐韩村徐家台区,","scope":"浙江省-杭州市-建德市 大同镇 徐韩行政村 柏树底自然村,鹅头山自然村,徐家自然村，大同工业园区一带用户。","startTime":"2019-08-24 09:55:00","stopDate":"2019-08-24 11:00:00","orgNo":"3340180","typeCode":"电网故障停限电","poweroffArea":"110kV大同变:徐韩Y675线-徐韩村徐家台区后段","poweroffReason":"(低压停电信息)低压开关跳闸 原预计停电结束时间12:30，由于施工现场环境比较复杂，存在不确定因素，因此预估施工时间适当放长了，目前故障已修复，现将停电时间变更至11:00。","powerTime":"2019-08-24 10:40:00","powerComm":"送电","subsNo":"","lineNo":"","tgNo":"","tgName":null,"infoStatus":"1","orgName":"国网浙江建德市供电有限公司","typeName":null,"infoStatusName":null,"dateDay":null,"orgNos":null,"nowTime":null,"countyName":null,"streetName":null,"villageName":null,"roadName":null,"communityName":null,"tranName":null,"sdLineName":null,"cityCode":"3340180","cityName":"国网浙江建德市供电有限公司","provinceCode":null,"stopTime":"2019-08-24 11:00:00","powerType":"全部","powerOffArea":"110kV大同变:徐韩Y675线-徐韩村徐家台区后段","powerOffReason":"(低压停电信息)低压开关跳闸 原预计停电结束时间12:30，由于施工现场环境比较复杂，存在不确定因素，因此预估施工时间适当放长了，目前故障已修复，现将停电时间变更至11:00。","powerOffId":"2019082431020065"},{"poweroffId":2019082431020063,"sgpoweroffId":null,"subsName":"","lineName":"10kV拱秀A587线","pubTranName":"回澜南园4#公变,","scope":"浙江省-杭州市-萧山区-城厢街道-回澜南苑社区-回澜路，回澜南园110幢、洄澜小区一带","startTime":"2019-08-24 10:03:03","stopDate":"2019-08-24 12:00:00","orgNo":"3340130","typeCode":"电网故障停限电","poweroffArea":"110kV城东变:拱秀A587线-回澜南园4#公变台区低压开关","poweroffReason":"（低压停电信息）外力破坏导致低压电缆被挖断 原停电结束时间：2019-08-24 15:00:00，变更停电结束时间：2019-08-24 12:00:00，变更停电结束时间原因：由于抢修工作提前结束，故需要提前送电。","powerTime":"2019-08-24 11:20:19","powerComm":"已送电","subsNo":"","lineNo":"","tgNo":"","tgName":null,"infoStatus":"1","orgName":"国网浙江杭州市萧山区供电有限公司","typeName":null,"infoStatusName":null,"dateDay":null,"orgNos":null,"nowTime":null,"countyName":null,"streetName":null,"villageName":null,"roadName":null,"communityName":null,"tranName":null,"sdLineName":null,"cityCode":"3340130","cityName":"国网浙江杭州市萧山区供电有限公司","provinceCode":null,"stopTime":"2019-08-24 12:00:00","powerType":"全部","powerOffArea":"110kV城东变:拱秀A587线-回澜南园4#公变台区低压开关","powerOffReason":"（低压停电信息）外力破坏导致低压电缆被挖断 原停电结束时间：2019-08-24 15:00:00，变更停电结束时间：2019-08-24 12:00:00，变更停电结束时间原因：由于抢修工作提前结束，故需要提前送电。","powerOffId":"2019082431020063"}],"pageModel":{"pageNow":1201,"totalCount":17789,"totalPage":1779,"tableRows":0,"pageCount":10,"beginCount":12000},"isExperi":"1"}