{"message":"","today":"2020-06-16","seleList":[{"poweroffId":2019082331020675,"sgpoweroffId":null,"subsName":"","lineName":"10kV拱秀A587线","pubTranName":"回澜南园5#公变,","scope":"浙江省-杭州市-萧山区-城厢街道-回澜南苑社区-回澜路、回澜南园100幢、回澜南园100幢下面商铺、新奇大商铺一带","startTime":"2019-08-23 16:42:21","stopDate":"2019-08-23 21:30:00","orgNo":"3340130","typeCode":"电网故障停限电","poweroffArea":"110kV城东变:拱秀A587线-回澜南园5#公变后段","poweroffReason":"（低压停电信息）低压电缆烧损","powerTime":"2019-08-23 20:32:26","powerComm":"已送电","subsNo":"","lineNo":"","tgNo":"","tgName":null,"infoStatus":"1","orgName":"国网浙江杭州市萧山区供电有限公司","typeName":null,"infoStatusName":null,"dateDay":null,"orgNos":null,"nowTime":null,"countyName":null,"streetName":null,"villageName":null,"roadName":null,"communityName":null,"tranName":null,"sdLineName":null,"cityCode":"3340130","cityName":"国网浙江杭州市萧山区供电有限公司","provinceCode":null,"stopTime":"2019-08-23 21:30:00","powerType":"全部","powerOffArea":"110kV城东变:拱秀A587线-回澜南园5#公变后段","powerOffReason":"（低压停电信息）低压电缆烧损","powerOffId":"2019082331020675"},{"poweroffId":2019082331020653,"sgpoweroffId":null,"subsName":"","lineName":"10kV河庄0505线","pubTranName":"河庄派出所,天宇房产2#变,帝凯房产2#,宏图房产6#变,建设村7#变,帝景园9#变,宏图房产5#变,同二村二配变,农商银行01#,同二村14#变,河庄街道十八配变,河庄邮电所,河庄八配变,同二村十二配变,宏图房产8#变,帝景园8#变,同二村四配变,宏图房产9#变,天宇房产1#变,建设村9#变,宏图房产7#变,同二村1#变,帝景园10#变,河庄街道1#变,同二村十三配变,钱江小学,巍巍房产,宏图房产4#变,同二村9#变,宏图房产2#变,宏图房产1#变,雄鹏轴承,河庄政府02,景湾假日酒店2#,河庄街道六配变,1,荣盛羊毛衫,明达摩,帝景园7#变,建设村23#变,帝景园6#变,河庄街道三配变,明远纺织01#,同二村十配变,宏充一配变,宏图房产3#变,中铁十六局,","scope":"浙江省-杭州市-萧山区-河庄街道-同二行政村(同二自然村,河庄大道,永丰路),河庄街道-城隍庙社区(永丰路,城隍庙永丰路,蜀山南路,城隍庙,河中路,城皇庙),河庄街道(建设行政村-建设自然村,同一行政村-同一自然村);浙江省-杭州市-萧山区-围垦垦区-二十工段片区-中国电信股份有限公司杭州萧山区分公司,河庄街道-建设行政村(萧山区钱江小学,杭州萧山鲸花电泵有限公司,杭州市萧山区人民政府河庄街道办事处),河庄街道-江东行政村(杭州帝凯物业服务有限公司,杭州佳诚物业服务有限公司),河庄街道-同二行政村(杭州市公安局大江东产业集聚区分局,杭州萧山荣盛羊毛衫有限公司,杭州明达摩配附件厂,杭州明远纺织有限公司,浙江萧山农村商业银行股份有限公司),河庄街道(同一行政村-杭州湾景假日酒店有限公司,中铁十六局集团有限公司)","startTime":"2019-09-07 10:00:00","stopDate":"2019-09-07 10:30:00","orgNo":"3340120","typeCode":"计划停电","poweroffArea":"35kV永丰变:河庄0505线-2420后段","poweroffReason":"河庄0505线配合永丰变1#主变检修工作倒负荷工作","powerTime":"2019-09-07 10:04:00","powerComm":"已送电","subsNo":"","lineNo":"","tgNo":"","tgName":null,"infoStatus":"1","orgName":"国网浙江杭州市钱塘新区供电公司","typeName":null,"infoStatusName":null,"dateDay":null,"orgNos":null,"nowTime":null,"countyName":null,"streetName":null,"villageName":null,"roadName":null,"communityName":null,"tranName":null,"sdLineName":null,"cityCode":"3340120","cityName":"国网浙江杭州市钱塘新区供电公司","provinceCode":null,"stopTime":"2019-09-07 10:30:00","powerType":"全部","powerOffArea":"35kV永丰变:河庄0505线-2420后段","powerOffReason":"河庄0505线配合永丰变1#主变检修工作倒负荷工作","powerOffId":"2019082331020653"},{"poweroffId":2019082331020652,"sgpoweroffId":null,"subsName":"","lineName":"10kV新创502线","pubTranName":"文伟村4#变,新围麻站,孝贤塑业,爱丽达服饰,文伟村2#变,启聪纺织,亮达服饰绣品,奇观制衣厂,万奇服饰制造有限公司,盛璐纺织,文伟村9#变,钱潮公路工程,江东市政,闸北村7#变,朗鑫实业,闸北村3#变,文伟村1#变,盛铭绣品,江东机械厂,汇杰有机硅,文伟村8#变,","scope":"浙江省-杭州市-萧山区-河庄街道(文伟行政村-文伟自然村,闸北行政村-闸北自然村);河庄街道-闸北行政村(浙江汇杰有机硅股份有限公司,杭州奇观制衣有限公司,杭州江东机械设备有限公司,杭州太明金属制品有限公司,杭州盛铭绣品有限公司,杭州万奇服饰有限公司,杭州泛美工贸有限公司,杭州云迪绣品有限公司,杭州博江科技有限公司,杭州萧山孝贤塑业有限公司,杭州宝璐嬴绣品有限公司,杭州绣齐绣品有限公司),河庄街道(文伟行政村-杭州朗鑫实业有限公司,江东开发区园区-杭州江东市政公用事业服务有限公司)","startTime":"2019-09-07 09:00:00","stopDate":"2019-09-07 09:30:00","orgNo":"3340120","typeCode":"计划停电","poweroffArea":"35kV永丰变:新创502线","poweroffReason":"新创502线负荷倒回工作","powerTime":"2019-09-07 09:13:00","powerComm":"已送电","subsNo":"","lineNo":"","tgNo":"","tgName":null,"infoStatus":"1","orgName":"国网浙江杭州市钱塘新区供电公司","typeName":null,"infoStatusName":null,"dateDay":null,"orgNos":null,"nowTime":null,"countyName":null,"streetName":null,"villageName":null,"roadName":null,"communityName":null,"tranName":null,"sdLineName":null,"cityCode":"3340120","cityName":"国网浙江杭州市钱塘新区供电公司","provinceCode":null,"stopTime":"2019-09-07 09:30:00","powerType":"全部","powerOffArea":"35kV永丰变:新创502线","powerOffReason":"新创502线负荷倒回工作","powerOffId":"2019082331020652"},{"poweroffId":2019082331020651,"sgpoweroffId":null,"subsName":"","lineName":"10kV春光0810线","pubTranName":"春雷村10#变,春雷村4#变,","scope":"浙江省-杭州市-萧山区-义蓬街道-春雷行政村-春雷自然村","startTime":"2019-09-05 09:00:00","stopDate":"2019-09-05 18:00:00","orgNo":"3340120","typeCode":"计划停电","poweroffArea":"35kV头蓬变:春光0810线-春光810线03/01柱上开关后段","poweroffReason":"春光0810线4#杆至11#杆线路上改下工作","powerTime":"2019-09-05 17:58:21","powerComm":"已送电","subsNo":"","lineNo":"","tgNo":"","tgName":null,"infoStatus":"1","orgName":"国网浙江杭州市钱塘新区供电公司","typeName":null,"infoStatusName":null,"dateDay":null,"orgNos":null,"nowTime":null,"countyName":null,"streetName":null,"villageName":null,"roadName":null,"communityName":null,"tranName":null,"sdLineName":null,"cityCode":"3340120","cityName":"国网浙江杭州市钱塘新区供电公司","provinceCode":null,"stopTime":"2019-09-05 18:00:00","powerType":"全部","powerOffArea":"35kV头蓬变:春光0810线-春光810线03/01柱上开关后段","powerOffReason":"春光0810线4#杆至11#杆线路上改下工作","powerOffId":"2019082331020651"},{"poweroffId":2019082331020650,"sgpoweroffId":null,"subsName":"","lineName":"10kV江东0302线","pubTranName":"头蓬街道10#变,头蓬街道6#变,","scope":"浙江省-杭州市-萧山区-义蓬街道-头蓬社区-集镇","startTime":"2019-09-04 09:00:00","stopDate":"2019-09-04 17:00:00","orgNo":"3340120","typeCode":"计划停电","poweroffArea":"110kV启江变:江东0302线，头蓬街道6#变，头蓬街道10#变之间","poweroffReason":"(低压停电信息)头蓬街道10#变低压割接至头蓬街道6#变","powerTime":"2019-09-04 16:52:09","powerComm":"已送电","subsNo":"","lineNo":"","tgNo":"","tgName":null,"infoStatus":"1","orgName":"国网浙江杭州市钱塘新区供电公司","typeName":null,"infoStatusName":null,"dateDay":null,"orgNos":null,"nowTime":null,"countyName":null,"streetName":null,"villageName":null,"roadName":null,"communityName":null,"tranName":null,"sdLineName":null,"cityCode":"3340120","cityName":"国网浙江杭州市钱塘新区供电公司","provinceCode":null,"stopTime":"2019-09-04 17:00:00","powerType":"全部","powerOffArea":"110kV启江变:江东0302线，头蓬街道6#变，头蓬街道10#变之间","powerOffReason":"(低压停电信息)头蓬街道10#变低压割接至头蓬街道6#变","powerOffId":"2019082331020650"},{"poweroffId":2019082331020649,"sgpoweroffId":null,"subsName":"","lineName":"10kV蜀山506线","pubTranName":"1,新围初中01#,闸北村8#变,","scope":"浙江省-杭州市-萧山区-河庄街道-闸北行政村-闸北自然村;河庄街道(闸北行政村-杭州萧山新围医院,新围行政村-杭州市萧山区人民政府河庄街道办事处)","startTime":"2019-09-03 09:00:00","stopDate":"2019-09-03 12:00:00","orgNo":"3340120","typeCode":"计划停电","poweroffArea":"35kV永丰变:蜀山506线首端，闸北分线01#开关刀闸，蜀山506线之间","poweroffReason":"10kV蜀山506线闸北分线18#杆电缆搭头处拆头","powerTime":"2019-09-03 11:03:00","powerComm":"已送电","subsNo":"","lineNo":"","tgNo":"","tgName":null,"infoStatus":"1","orgName":"国网浙江杭州市钱塘新区供电公司","typeName":null,"infoStatusName":null,"dateDay":null,"orgNos":null,"nowTime":null,"countyName":null,"streetName":null,"villageName":null,"roadName":null,"communityName":null,"tranName":null,"sdLineName":null,"cityCode":"3340120","cityName":"国网浙江杭州市钱塘新区供电公司","provinceCode":null,"stopTime":"2019-09-03 12:00:00","powerType":"全部","powerOffArea":"35kV永丰变:蜀山506线首端，闸北分线01#开关刀闸，蜀山506线之间","powerOffReason":"10kV蜀山506线闸北分线18#杆电缆搭头处拆头","powerOffId":"2019082331020649"},{"poweroffId":2019082331020648,"sgpoweroffId":null,"subsName":"","lineName":"10kV蜀山506线","pubTranName":"江东锦绣4#变,万众生态,河庄卫生院,公交二变,江东市政,江东锦绣1#变,佳诚物业,江东锦绣3#变,天宇房产,江东锦绣2#变,","scope":"浙江省-杭州市-萧山区-河庄街道-同二行政村-河庄大道;河庄街道-蜀南行政村(杭州市萧山区河庄街道社区卫生服务中心,杭州万众生态农庄有限公司),河庄街道(江东行政村-杭州佳诚物业服务有限公司,江东开发区园区-杭州江东市政公用事业服务有限公司,闸北行政村-杭州大江东投资开发有限公司,同二行政村-杭州天宇房地产开发有限公司)","startTime":"2019-09-03 08:45:00","stopDate":"2019-09-03 09:15:00","orgNo":"3340120","typeCode":"计划停电","poweroffArea":"35kV永丰变:蜀山506线","poweroffReason":"10kV河卫站闸北分线后段配合倒负荷","powerTime":"2019-09-03 09:11:09","powerComm":"已送电","subsNo":"","lineNo":"","tgNo":"","tgName":null,"infoStatus":"1","orgName":"国网浙江杭州市钱塘新区供电公司","typeName":null,"infoStatusName":null,"dateDay":null,"orgNos":null,"nowTime":null,"countyName":null,"streetName":null,"villageName":null,"roadName":null,"communityName":null,"tranName":null,"sdLineName":null,"cityCode":"3340120","cityName":"国网浙江杭州市钱塘新区供电公司","provinceCode":null,"stopTime":"2019-09-03 09:15:00","powerType":"全部","powerOffArea":"35kV永丰变:蜀山506线","powerOffReason":"10kV河卫站闸北分线后段配合倒负荷","powerOffId":"2019082331020648"},{"poweroffId":2019082331020647,"sgpoweroffId":null,"subsName":"","lineName":"10kV新创502线","pubTranName":"文伟村8#变,文伟村1#变,爱丽达服饰,汇杰有机硅,江东机械厂,钱潮公路工程,盛璐纺织,亮达服饰绣品,奇观制衣厂,盛铭绣品,新围麻站,孝贤塑业,万奇服饰制造有限公司,闸北村3#变,文伟村2#变,闸北村7#变,文伟村9#变,朗鑫实业,启聪纺织,江东市政,文伟村4#变,","scope":"浙江省-杭州市-萧山区-河庄街道(文伟行政村-文伟自然村,闸北行政村-闸北自然村);河庄街道-闸北行政村(浙江汇杰有机硅股份有限公司,杭州奇观制衣有限公司,杭州江东机械设备有限公司,杭州太明金属制品有限公司,杭州盛铭绣品有限公司,杭州万奇服饰有限公司,杭州泛美工贸有限公司,杭州云迪绣品有限公司,杭州博江科技有限公司,杭州萧山孝贤塑业有限公司,杭州宝璐嬴绣品有限公司,杭州绣齐绣品有限公司),河庄街道(文伟行政村-杭州朗鑫实业有限公司,江东开发区园区-杭州江东市政公用事业服务有限公司)","startTime":"2019-09-03 08:45:00","stopDate":"2019-09-03 09:25:00","orgNo":"3340120","typeCode":"计划停电","poweroffArea":"35kV永丰变:新创502线-2404后段","poweroffReason":"配合永丰变新创502线电缆更换及永丰变1#主变检修工作倒负荷工作","powerTime":"2019-09-03 09:13:00","powerComm":"已送电","subsNo":"","lineNo":"","tgNo":"","tgName":null,"infoStatus":"1","orgName":"国网浙江杭州市钱塘新区供电公司","typeName":null,"infoStatusName":null,"dateDay":null,"orgNos":null,"nowTime":null,"countyName":null,"streetName":null,"villageName":null,"roadName":null,"communityName":null,"tranName":null,"sdLineName":null,"cityCode":"3340120","cityName":"国网浙江杭州市钱塘新区供电公司","provinceCode":null,"stopTime":"2019-09-03 09:25:00","powerType":"全部","powerOffArea":"35kV永丰变:新创502线-2404后段","powerOffReason":"配合永丰变新创502线电缆更换及永丰变1#主变检修工作倒负荷工作","powerOffId":"2019082331020647"},{"poweroffId":2019082331020640,"sgpoweroffId":null,"subsName":"","lineName":"10kV金昌8911线","pubTranName":"五西（10）,","scope":"浙江省-杭州市-西湖区-文新街道-府新社区-文三西路-五联西苑59幢一带","startTime":"2019-08-23 16:12:29","stopDate":"2019-08-23 17:10:29","orgNo":"3340101","typeCode":"电网故障停限电","poweroffArea":"110kV丰潭变:金昌8911线-五西（10）后段","poweroffReason":"高压开关跳闸 原预计停电结束时间2019-08-23 20:12:29,由于施工现场环境比较复杂，存在不确定因素，因此预估施工时间适当放长了，而实际施工进行得比较顺利，因此提前送电了","powerTime":"2019-08-23 16:33:23","powerComm":"已送电","subsNo":"","lineNo":"","tgNo":"","tgName":null,"infoStatus":"1","orgName":"浙江杭州电力客户服务中心","typeName":null,"infoStatusName":null,"dateDay":null,"orgNos":null,"nowTime":null,"countyName":null,"streetName":null,"villageName":null,"roadName":null,"communityName":null,"tranName":null,"sdLineName":null,"cityCode":"3340101","cityName":"浙江杭州电力客户服务中心","provinceCode":null,"stopTime":"2019-08-23 17:10:29","powerType":"全部","powerOffArea":"110kV丰潭变:金昌8911线-五西（10）后段","powerOffReason":"高压开关跳闸 原预计停电结束时间2019-08-23 20:12:29,由于施工现场环境比较复杂，存在不确定因素，因此预估施工时间适当放长了，而实际施工进行得比较顺利，因此提前送电了","powerOffId":"2019082331020640"},{"poweroffId":2019082331020617,"sgpoweroffId":null,"subsName":"","lineName":"10kV俞家D843线","pubTranName":"后山边1号村西公变,","scope":"浙江省-杭州市-富阳区-新桐乡-春渚行政村-后山边自然村","startTime":"2019-09-07 07:10:00","stopDate":"2019-09-07 16:50:00","orgNo":"3340170","typeCode":"计划停电","poweroffArea":"110kV新桐变:俞家D843线-后山边1号村西公变后段","poweroffReason":"(低压停电信息)青云2019年蒋家村12#林场公变等低压台区改造工程照明2#线拆旧，架设1kV70*4*3档，拆架1kV120*4*2档，拆架1kV-70*4*2档，更换落户线20处，搭接等工作","powerTime":"2019-09-07 16:38:50","powerComm":"已送电","subsNo":"","lineNo":"","tgNo":"","tgName":null,"infoStatus":"1","orgName":"国网浙江杭州市富阳区供电公司","typeName":null,"infoStatusName":null,"dateDay":null,"orgNos":null,"nowTime":null,"countyName":null,"streetName":null,"villageName":null,"roadName":null,"communityName":null,"tranName":null,"sdLineName":null,"cityCode":"3340170","cityName":"国网浙江杭州市富阳区供电公司","provinceCode":null,"stopTime":"2019-09-07 16:50:00","powerType":"全部","powerOffArea":"110kV新桐变:俞家D843线-后山边1号村西公变后段","powerOffReason":"(低压停电信息)青云2019年蒋家村12#林场公变等低压台区改造工程照明2#线拆旧，架设1kV70*4*3档，拆架1kV120*4*2档，拆架1kV-70*4*2档，更换落户线20处，搭接等工作","powerOffId":"2019082331020617"}],"pageModel":{"pageNow":1203,"totalCount":17789,"totalPage":1779,"tableRows":0,"pageCount":10,"beginCount":12020},"isExperi":"1"}