{"message":"","today":"2020-06-16","seleList":[{"poweroffId":2019082331020613,"sgpoweroffId":null,"subsName":"","lineName":"10kV花玉8791线","pubTranName":"南玉村变,石板五变,阔石二变,","scope":"浙江省杭州市西湖区阔石板一带","startTime":"2019-09-10 09:30:00","stopDate":"2019-09-10 19:00:00","orgNo":"3340101","typeCode":"计划停电","poweroffArea":"110kV花港变:花玉8791线首端，石板五变，阔石二变，南玉村变之间","poweroffReason":"(低压停电信息) 计划停电结束时间17:00，因工作量大原因导致延时送电，预计送电时间：2019-9-10 19:00.","powerTime":"2019-09-10 18:31:43","powerComm":"已送电","subsNo":"","lineNo":"","tgNo":"","tgName":null,"infoStatus":"1","orgName":"浙江杭州电力客户服务中心","typeName":null,"infoStatusName":null,"dateDay":null,"orgNos":null,"nowTime":null,"countyName":null,"streetName":null,"villageName":null,"roadName":null,"communityName":null,"tranName":null,"sdLineName":null,"cityCode":"3340101","cityName":"浙江杭州电力客户服务中心","provinceCode":null,"stopTime":"2019-09-10 19:00:00","powerType":"全部","powerOffArea":"110kV花港变:花玉8791线首端，石板五变，阔石二变，南玉村变之间","powerOffReason":"(低压停电信息) 计划停电结束时间17:00，因工作量大原因导致延时送电，预计送电时间：2019-9-10 19:00.","powerOffId":"2019082331020613"},{"poweroffId":2019082331020612,"sgpoweroffId":null,"subsName":"","lineName":"10kV花玉8791线","pubTranName":"石板二变,阔石一变,石板一变,","scope":"浙江省杭州市西湖区阔石板一带","startTime":"2019-09-09 09:30:00","stopDate":"2019-09-09 16:00:00","orgNo":"3340101","typeCode":"计划停电","poweroffArea":"110kV花港变:花玉8791线首端，阔石一变，石板一变，石板二变之间","poweroffReason":"(低压停电信息)原停电结束时间17:00，变更停电结束时间16:00，原因由于施工现场环境比较复杂，存在不确定因素，因此预估施工时间适当放长了，而实际施工进行得比较顺利，因此该工作提前结束。","powerTime":"2019-09-09 15:15:59","powerComm":"已送电","subsNo":"","lineNo":"","tgNo":"","tgName":null,"infoStatus":"1","orgName":"浙江杭州电力客户服务中心","typeName":null,"infoStatusName":null,"dateDay":null,"orgNos":null,"nowTime":null,"countyName":null,"streetName":null,"villageName":null,"roadName":null,"communityName":null,"tranName":null,"sdLineName":null,"cityCode":"3340101","cityName":"浙江杭州电力客户服务中心","provinceCode":null,"stopTime":"2019-09-09 16:00:00","powerType":"全部","powerOffArea":"110kV花港变:花玉8791线首端，阔石一变，石板一变，石板二变之间","powerOffReason":"(低压停电信息)原停电结束时间17:00，变更停电结束时间16:00，原因由于施工现场环境比较复杂，存在不确定因素，因此预估施工时间适当放长了，而实际施工进行得比较顺利，因此该工作提前结束。","powerOffId":"2019082331020612"},{"poweroffId":2019082331020578,"sgpoweroffId":null,"subsName":"","lineName":"10kV迪青A396线","pubTranName":"文春机械,广业建筑机械,杭州惠亚农业科技有限公司,杭州惠亚农业科技有限公司,志航汽车,京奥新科技1#,京奥新科技2#,杭州海塘机械,顺坝村1#变,江干区庆飞沙场,杭州迪青生态农庄有限公司,1#变,杭州海塘机械,九堡杨公社区,樱道机械,程杰车业,国泰,顺坝村7#变,乐天有机肥,渊景农业,京奥新科技,天成通风,华信自行车架有限公司,杭州文春机械有限公司,璐易砂石场,京奥新科技,杭州顺昊餐饮有限公司,八堡畜牧,徐祥水产,巨星蓄电池,利磊建筑,正方商品混凝土,杭州正方实业公司,宇葳机械,杭州渊景农业开发有限公司,顺坝村17#变,建科水泥,万华轴承,亦能生物科技,创业物业,江南大地,杭州惠亚农科技有限公司,志达沙场,","scope":"浙江省-杭州市-萧山区-宁围镇、宁围街道-顺坝行政村-顺坝自然村;浙江省-杭州市-萧山区-新街镇、新街街道-江南行政村-杭州建科水泥助剂有限公司,经济技术开发区-钱江社区(杭州萧山宁围镇璐易砂石服务部,传化智联股份有限公司,浙江传化江南大地发展有限公司,杭州萧山钱江农场庆飞砂石场,浙江广业建筑机械设备制造有限公司,杭州樱道机械有限公司,杭州正方商品混凝土搅拌厂,杭州正方实业集团有限公司),宁围街道-顺坝行政村(杭州万华轴承有限公司,杭州巨星蓄电池厂,杭州天成通风设备厂,杭州市江干区九堡镇杨公社区居民委员会,杭州迪青生态农庄有限公司,杭州江干区八堡畜牧养殖场,杭州亦能生物科技有限公司,杭州嘉誉物流有限公司,杭州文春机械有限公司,杭州海塘机械有限公司,杭州萧山城投资产经营开发有限公司,杭州渊景农业开发有限公司,杭州利磊建筑装饰有限公司,杭州京奥新科技开发有限公司,杭州顺昊餐饮有限公司,杭州八桥农产品有限公司,杭州惠亚农业科技有限公司),宁围街道(二桥行政村-杭州萧山宁围志达砂石场,丰北行政村-杭州乐天有机肥有限公司,宁新行政村-杭州文春机械有限公司)等一带","startTime":"2019-08-23 15:48:25","stopDate":"2019-08-23 19:20:25","orgNo":"3340130","typeCode":"电网故障停限电","poweroffArea":"110kV顺坝变:迪青A396线开关后段","poweroffReason":"高压柱上断路器短路故障","powerTime":"2019-08-23 18:28:22","powerComm":"已送电","subsNo":"","lineNo":"","tgNo":"","tgName":null,"infoStatus":"1","orgName":"国网浙江杭州市萧山区供电有限公司","typeName":null,"infoStatusName":null,"dateDay":null,"orgNos":null,"nowTime":null,"countyName":null,"streetName":null,"villageName":null,"roadName":null,"communityName":null,"tranName":null,"sdLineName":null,"cityCode":"3340130","cityName":"国网浙江杭州市萧山区供电有限公司","provinceCode":null,"stopTime":"2019-08-23 19:20:25","powerType":"全部","powerOffArea":"110kV顺坝变:迪青A396线开关后段","powerOffReason":"高压柱上断路器短路故障","powerOffId":"2019082331020578"},{"poweroffId":2019082331020558,"sgpoweroffId":null,"subsName":"","lineName":"10kV咸康D208线","pubTranName":"云二村6号公变,","scope":"浙江省-杭州市-富阳区-春建乡-春建行政村-云二自然村","startTime":"2019-08-23 15:37:42","stopDate":"2019-08-23 16:40:00","orgNo":"3340170","typeCode":"电网故障停限电","poweroffArea":"35kV大青变:咸康D208线-云二村6号公变后段","poweroffReason":"(低压停电信息)低压开关跳闸","powerTime":"2019-08-23 16:30:23","powerComm":"已送电","subsNo":"","lineNo":"","tgNo":"","tgName":null,"infoStatus":"1","orgName":"国网浙江杭州市富阳区供电公司","typeName":null,"infoStatusName":null,"dateDay":null,"orgNos":null,"nowTime":null,"countyName":null,"streetName":null,"villageName":null,"roadName":null,"communityName":null,"tranName":null,"sdLineName":null,"cityCode":"3340170","cityName":"国网浙江杭州市富阳区供电公司","provinceCode":null,"stopTime":"2019-08-23 16:40:00","powerType":"全部","powerOffArea":"35kV大青变:咸康D208线-云二村6号公变后段","powerOffReason":"(低压停电信息)低压开关跳闸","powerOffId":"2019082331020558"},{"poweroffId":2019082331020552,"sgpoweroffId":null,"subsName":"","lineName":"10kV海常H643线","pubTranName":"隽安工棚,中国建筑第八工程局有限公司,中国建筑第八工程局有限公司,","scope":"浙江省杭州市余杭区仓前街道：隽安工棚、中建八局建设工地一带","startTime":"2019-09-04 08:40:00","stopDate":"2019-09-04 14:40:00","orgNo":"3340140","typeCode":"计划停电","poweroffArea":"东河开关站海常H643线东河分支箱分线","poweroffReason":"计划工作","powerTime":"2019-09-04 14:21:22","powerComm":"已送电","subsNo":"","lineNo":"","tgNo":"","tgName":null,"infoStatus":"1","orgName":"国网浙江杭州市余杭区供电有限公司","typeName":null,"infoStatusName":null,"dateDay":null,"orgNos":null,"nowTime":null,"countyName":null,"streetName":null,"villageName":null,"roadName":null,"communityName":null,"tranName":null,"sdLineName":null,"cityCode":"3340140","cityName":"国网浙江杭州市余杭区供电有限公司","provinceCode":null,"stopTime":"2019-09-04 14:40:00","powerType":"全部","powerOffArea":"东河开关站海常H643线东河分支箱分线","powerOffReason":"计划工作","powerOffId":"2019082331020552"},{"poweroffId":2019082331020550,"sgpoweroffId":null,"subsName":"","lineName":"10kV海曙H653线","pubTranName":"1#变压器,南通工棚,宝力工棚,","scope":"浙江省杭州市余杭区仓前街道：南通工棚、宝力工棚、左岸建设工地一带","startTime":"2019-09-04 08:40:00","stopDate":"2019-09-04 14:40:00","orgNo":"3340140","typeCode":"计划停电","poweroffArea":"圣殿开关站海曙H653线海智分支箱分线","poweroffReason":"计划工作","powerTime":"2019-09-04 14:20:58","powerComm":"已送电","subsNo":"","lineNo":"","tgNo":"","tgName":null,"infoStatus":"1","orgName":"国网浙江杭州市余杭区供电有限公司","typeName":null,"infoStatusName":null,"dateDay":null,"orgNos":null,"nowTime":null,"countyName":null,"streetName":null,"villageName":null,"roadName":null,"communityName":null,"tranName":null,"sdLineName":null,"cityCode":"3340140","cityName":"国网浙江杭州市余杭区供电有限公司","provinceCode":null,"stopTime":"2019-09-04 14:40:00","powerType":"全部","powerOffArea":"圣殿开关站海曙H653线海智分支箱分线","powerOffReason":"计划工作","powerOffId":"2019082331020550"},{"poweroffId":2019082331020547,"sgpoweroffId":null,"subsName":"","lineName":"10kV铁矿H726线","pubTranName":"金泽公寓公变,","scope":"浙江省杭州市余杭区闲林街道：金泽公寓一带","startTime":"2019-09-03 08:40:00","stopDate":"2019-09-03 11:00:00","orgNo":"3340140","typeCode":"计划停电","poweroffArea":"铁矿H726线金泽公寓分线 原停电结束时间2019-09-03 12:40:00 变更停电结束时间2019-09-03 11:00:00 变更原因：施工力量充足，工作提前完成","poweroffReason":"配网工程（线路消缺）：金泽公寓分线6号杆拉线移位工作 原停电结束时间2019-09-03 12:40:00 变更停电结束时间2019-09-03 11:00:00 变更原因：施工力量充足，工作提前完成","powerTime":"2019-09-03 10:31:05","powerComm":"已送电","subsNo":"","lineNo":"","tgNo":"","tgName":null,"infoStatus":"1","orgName":"国网浙江杭州市余杭区供电有限公司","typeName":null,"infoStatusName":null,"dateDay":null,"orgNos":null,"nowTime":null,"countyName":null,"streetName":null,"villageName":null,"roadName":null,"communityName":null,"tranName":null,"sdLineName":null,"cityCode":"3340140","cityName":"国网浙江杭州市余杭区供电有限公司","provinceCode":null,"stopTime":"2019-09-03 11:00:00","powerType":"全部","powerOffArea":"铁矿H726线金泽公寓分线 原停电结束时间2019-09-03 12:40:00 变更停电结束时间2019-09-03 11:00:00 变更原因：施工力量充足，工作提前完成","powerOffReason":"配网工程（线路消缺）：金泽公寓分线6号杆拉线移位工作 原停电结束时间2019-09-03 12:40:00 变更停电结束时间2019-09-03 11:00:00 变更原因：施工力量充足，工作提前完成","powerOffId":"2019082331020547"},{"poweroffId":2019082331020540,"sgpoweroffId":null,"subsName":"","lineName":"10kV东辉T373线","pubTranName":"小京口新区1号公变新,桐庐县05.16省道有限责任公司,冯家1号公变,桐庐县百江镇青水弯休闲农庄,冯家赵家1号公变,炮台山1号公变,小京口新区1号公变,广王电站,桐庐县百江镇晨星塑料拉丝厂变压器,小京口1号公变,白前庵1号公变,徐村畈1号公变,白水1号公变,","scope":"浙江省-杭州市-桐庐县-百江镇-百江行政村(冯家赵家自然村,冯家自然村,白前奄自然村,白水自然村,徐家畈自然村,广王自然村),百江镇-小京行政村(六坑外自然村,炮台山自然村,小京口自然村,小京口新区自然村);浙江省-杭州市-桐庐县-百江镇-小京行政村-桐庐县05.16省道有限责任公司,百江镇-百江行政村(广王电站,桐庐县百江镇青水弯休闲农庄,桐庐县百江镇晨星塑料拉丝厂)","startTime":"2019-09-07 08:00:00","stopDate":"2019-09-07 16:30:00","orgNo":"3340150","typeCode":"计划停电","poweroffArea":"110kV百江变:东辉T373线-东辉4316后段","poweroffReason":"1、东辉T373线10-15号杆架设导线及支线搭接拆除旧导线工作 原停电结束时间2019年9月7日 15:30:00，变更停电结束时间：2019年9月7日 16:30:00，原因：现场施工人员不足","powerTime":"2019-09-07 16:11:11","powerComm":"已送电","subsNo":"","lineNo":"","tgNo":"","tgName":null,"infoStatus":"1","orgName":"国网浙江桐庐县供电公司","typeName":null,"infoStatusName":null,"dateDay":null,"orgNos":null,"nowTime":null,"countyName":null,"streetName":null,"villageName":null,"roadName":null,"communityName":null,"tranName":null,"sdLineName":null,"cityCode":"3340150","cityName":"国网浙江桐庐县供电公司","provinceCode":null,"stopTime":"2019-09-07 16:30:00","powerType":"全部","powerOffArea":"110kV百江变:东辉T373线-东辉4316后段","powerOffReason":"1、东辉T373线10-15号杆架设导线及支线搭接拆除旧导线工作 原停电结束时间2019年9月7日 15:30:00，变更停电结束时间：2019年9月7日 16:30:00，原因：现场施工人员不足","powerOffId":"2019082331020540"},{"poweroffId":2019082331020521,"sgpoweroffId":null,"subsName":"","lineName":"10kV仙宅H777线","pubTranName":"仙宅村西头公变,贝莱特,2#,仙宅股份经济合作社,长岗家园2号公变,二绕二标新上基变,仙宅村仙宅公变,仙宅村洪家公变,仙宅村里村2号公变,仙宅村里村公变,长岗农场1号公变,余杭供水,仙宅村荷花池公变,长岗机站,仙宅村潘家公变,仙宅村林坞中村公变,4#,吉友塑料,金创塑胶正式变,1#,3#,良辰机械,长岗农场2号公变,中天线缆,二绕鼎盛交通,通用机械,长岗纸箱,林坞口路灯变,银帆电梯,晨厦建筑,长岗家园3号公变,长岗家园1号公变,仙宅茶叶,","scope":"浙江省-杭州市-余杭区-余杭街道-仙宅行政村(余长公路,仙宅自然村,新岭自然村);浙江省-杭州市-余杭区-余杭街道-华坞行政村-中国移动通信集团浙江有限公司余杭分公司,余杭街道-仙宅行政村(杭州长岗彩印包装有限公司,贝达药业股份有限公司,浙江鼎盛交通建设有限公司,杭州良辰机械制造有限公司,杭州乾峰科技有限公司,杭州余杭晨厦建筑工程队,浙江贝莱特蓝莓综合开发有限公司,浙江中天电线电缆有限公司,杭州好一科技有限公司,杭州余杭制水有限公司,杭州云曼星酒店管理有限公司,杭州金创塑胶有限公司,杭州余杭仙宅股份经济合作社,杭州市余杭区人民政府余杭街道办事处)","startTime":"2019-08-23 15:14:00","stopDate":"2019-08-23 19:00:00","orgNo":"3340140","typeCode":"电网故障停限电","poweroffArea":"35kV长岗临时变:仙宅H777线","poweroffReason":"高压开关跳闸","powerTime":"2019-08-23 18:42:00","powerComm":"已修复送电","subsNo":"","lineNo":"","tgNo":"","tgName":null,"infoStatus":"1","orgName":"国网浙江杭州市余杭区供电有限公司","typeName":null,"infoStatusName":null,"dateDay":null,"orgNos":null,"nowTime":null,"countyName":null,"streetName":null,"villageName":null,"roadName":null,"communityName":null,"tranName":null,"sdLineName":null,"cityCode":"3340140","cityName":"国网浙江杭州市余杭区供电有限公司","provinceCode":null,"stopTime":"2019-08-23 19:00:00","powerType":"全部","powerOffArea":"35kV长岗临时变:仙宅H777线","powerOffReason":"高压开关跳闸","powerOffId":"2019082331020521"},{"poweroffId":2019082331020512,"sgpoweroffId":null,"subsName":"","lineName":"10kV北头9482线","pubTranName":"","scope":"浙江省杭州市江干区头格江景家园12幢公共电源备供，14幢西单元，14幢东单元","startTime":"2019-09-06 14:00:00","stopDate":"2019-09-06 16:00:00","orgNo":"3340101","typeCode":"计划停电","poweroffArea":"110kV上沙变:北头9482线首端，头社十四变","poweroffReason":"(低压停电信息)原停电结束时间17:30，变更停电结束时间16:00，原因由于施工现场比较复杂，存在不确定因素，因此预估施工时间适当放长了，而实际施工进行比较顺利，因此该工作提前结束。","powerTime":"2019-09-06 15:12:59","powerComm":"已送电","subsNo":"","lineNo":"","tgNo":"","tgName":null,"infoStatus":"1","orgName":"浙江杭州电力客户服务中心","typeName":null,"infoStatusName":null,"dateDay":null,"orgNos":null,"nowTime":null,"countyName":null,"streetName":null,"villageName":null,"roadName":null,"communityName":null,"tranName":null,"sdLineName":null,"cityCode":"3340101","cityName":"浙江杭州电力客户服务中心","provinceCode":null,"stopTime":"2019-09-06 16:00:00","powerType":"全部","powerOffArea":"110kV上沙变:北头9482线首端，头社十四变","powerOffReason":"(低压停电信息)原停电结束时间17:30，变更停电结束时间16:00，原因由于施工现场比较复杂，存在不确定因素，因此预估施工时间适当放长了，而实际施工进行比较顺利，因此该工作提前结束。","powerOffId":"2019082331020512"}],"pageModel":{"pageNow":1204,"totalCount":17789,"totalPage":1779,"tableRows":0,"pageCount":10,"beginCount":12030},"isExperi":"1"}