{"message":"","today":"2020-06-16","seleList":[{"poweroffId":2019082331020480,"sgpoweroffId":null,"subsName":"","lineName":"10kV四联D961线","pubTranName":"四联村6#高坞公变,","scope":"浙江省杭州市富阳区银湖街道四联村高坞一带","startTime":"2019-09-06 07:30:00","stopDate":"2019-09-06 16:30:00","orgNo":"3340170","typeCode":"计划停电","poweroffArea":"110kV九龙变:四联D961线-四联村6#高坞公变低压开关后段","poweroffReason":"(低压停电信息)迎东2019年沈家坞9#里村口公变等低压台区改造工程更换导线14档，接户线搭接等工作。","powerTime":"2019-09-06 16:15:29","powerComm":"已送电","subsNo":"","lineNo":"","tgNo":"","tgName":null,"infoStatus":"1","orgName":"国网浙江杭州市富阳区供电公司","typeName":null,"infoStatusName":null,"dateDay":null,"orgNos":null,"nowTime":null,"countyName":null,"streetName":null,"villageName":null,"roadName":null,"communityName":null,"tranName":null,"sdLineName":null,"cityCode":"3340170","cityName":"国网浙江杭州市富阳区供电公司","provinceCode":null,"stopTime":"2019-09-06 16:30:00","powerType":"全部","powerOffArea":"110kV九龙变:四联D961线-四联村6#高坞公变低压开关后段","powerOffReason":"(低压停电信息)迎东2019年沈家坞9#里村口公变等低压台区改造工程更换导线14档，接户线搭接等工作。","powerOffId":"2019082331020480"},{"poweroffId":2019082331020479,"sgpoweroffId":null,"subsName":"","lineName":"10kV湘岭D714线","pubTranName":"官塘村外官3#落家亭公变,","scope":"浙江省杭州市富阳区新登镇官塘行政村落家亭自然村一带","startTime":"2019-09-05 07:00:00","stopDate":"2019-09-05 17:00:00","orgNo":"3340170","typeCode":"计划停电","poweroffArea":"110kV松溪变:湘岭D714线-官塘村外官3#落家亭公变低压开关后段","poweroffReason":"(低压停电信息)照明01线拆除旧导线JKLYJ-35*4*5档、JKLYJ-70*4*10档、架设导线JKLYJ-120*4*15档、安装横担拉线、拆旧横担拉线、导线搭接","powerTime":"2019-09-05 16:30:42","powerComm":"已送电","subsNo":"","lineNo":"","tgNo":"","tgName":null,"infoStatus":"1","orgName":"国网浙江杭州市富阳区供电公司","typeName":null,"infoStatusName":null,"dateDay":null,"orgNos":null,"nowTime":null,"countyName":null,"streetName":null,"villageName":null,"roadName":null,"communityName":null,"tranName":null,"sdLineName":null,"cityCode":"3340170","cityName":"国网浙江杭州市富阳区供电公司","provinceCode":null,"stopTime":"2019-09-05 17:00:00","powerType":"全部","powerOffArea":"110kV松溪变:湘岭D714线-官塘村外官3#落家亭公变低压开关后段","powerOffReason":"(低压停电信息)照明01线拆除旧导线JKLYJ-35*4*5档、JKLYJ-70*4*10档、架设导线JKLYJ-120*4*15档、安装横担拉线、拆旧横担拉线、导线搭接","powerOffId":"2019082331020479"},{"poweroffId":2019082331020478,"sgpoweroffId":null,"subsName":"","lineName":"10kV天钟D434线","pubTranName":"太平村2号江口公变,","scope":"浙江省杭州市富阳区春江街道太平村一带","startTime":"2019-09-05 08:00:00","stopDate":"2019-09-05 16:40:00","orgNo":"3340170","typeCode":"计划停电","poweroffArea":"110kV天钟变:天钟D434线-太平村2号江口公变低压开关后段","poweroffReason":"(低压停电信息)挖洞、立杆、拆架导线、接户线搭接等工作","powerTime":"2019-09-05 16:10:34","powerComm":"已送电","subsNo":"","lineNo":"","tgNo":"","tgName":null,"infoStatus":"1","orgName":"国网浙江杭州市富阳区供电公司","typeName":null,"infoStatusName":null,"dateDay":null,"orgNos":null,"nowTime":null,"countyName":null,"streetName":null,"villageName":null,"roadName":null,"communityName":null,"tranName":null,"sdLineName":null,"cityCode":"3340170","cityName":"国网浙江杭州市富阳区供电公司","provinceCode":null,"stopTime":"2019-09-05 16:40:00","powerType":"全部","powerOffArea":"110kV天钟变:天钟D434线-太平村2号江口公变低压开关后段","powerOffReason":"(低压停电信息)挖洞、立杆、拆架导线、接户线搭接等工作","powerOffId":"2019082331020478"},{"poweroffId":2019082331020477,"sgpoweroffId":null,"subsName":"","lineName":"10kV四联D961线","pubTranName":"四联村6#高坞公变,","scope":"浙江省杭州市富阳区银湖街道四联村高坞一带","startTime":"2019-09-05 07:30:00","stopDate":"2019-09-05 16:30:00","orgNo":"3340170","typeCode":"计划停电","poweroffArea":"110kV九龙变:四联D961线-四联村6#高坞公变低压开关后段","poweroffReason":"(低压停电信息)迎东2019年沈家坞9#里村口公变等低压台区改造工程更换导线12档，接户线搭接等工作。","powerTime":"2019-09-05 16:00:44","powerComm":"已送电","subsNo":"","lineNo":"","tgNo":"","tgName":null,"infoStatus":"1","orgName":"国网浙江杭州市富阳区供电公司","typeName":null,"infoStatusName":null,"dateDay":null,"orgNos":null,"nowTime":null,"countyName":null,"streetName":null,"villageName":null,"roadName":null,"communityName":null,"tranName":null,"sdLineName":null,"cityCode":"3340170","cityName":"国网浙江杭州市富阳区供电公司","provinceCode":null,"stopTime":"2019-09-05 16:30:00","powerType":"全部","powerOffArea":"110kV九龙变:四联D961线-四联村6#高坞公变低压开关后段","powerOffReason":"(低压停电信息)迎东2019年沈家坞9#里村口公变等低压台区改造工程更换导线12档，接户线搭接等工作。","powerOffId":"2019082331020477"},{"poweroffId":2019082331020475,"sgpoweroffId":null,"subsName":"","lineName":"10kV宏福D214线","pubTranName":"集镇6#中学公变,","scope":"浙江省杭州市富阳区银湖街道中秋村一带","startTime":"2019-09-05 07:40:00","stopDate":"2019-09-05 15:30:00","orgNo":"3340170","typeCode":"计划停电","poweroffArea":"110kV银湖变:宏福D214线-集镇6#中学公变低压开关后段","poweroffReason":"(低压停电信息)迎东2019年峡岭村3#周家坛公变等配电线路及设备大修工程更换导线3档，更换接户线10处搭接等工作。","powerTime":"2019-09-05 15:00:43","powerComm":"已送电","subsNo":"","lineNo":"","tgNo":"","tgName":null,"infoStatus":"1","orgName":"国网浙江杭州市富阳区供电公司","typeName":null,"infoStatusName":null,"dateDay":null,"orgNos":null,"nowTime":null,"countyName":null,"streetName":null,"villageName":null,"roadName":null,"communityName":null,"tranName":null,"sdLineName":null,"cityCode":"3340170","cityName":"国网浙江杭州市富阳区供电公司","provinceCode":null,"stopTime":"2019-09-05 15:30:00","powerType":"全部","powerOffArea":"110kV银湖变:宏福D214线-集镇6#中学公变低压开关后段","powerOffReason":"(低压停电信息)迎东2019年峡岭村3#周家坛公变等配电线路及设备大修工程更换导线3档，更换接户线10处搭接等工作。","powerOffId":"2019082331020475"},{"poweroffId":2019082331020474,"sgpoweroffId":null,"subsName":"","lineName":"10kV新阳D841线","pubTranName":"新浦村二联2号凌家公变,","scope":"浙江省杭州市富阳区渌渚镇新浦村二联凌家自然村一带","startTime":"2019-09-05 07:00:00","stopDate":"2019-09-05 12:00:00","orgNo":"3340170","typeCode":"计划停电","poweroffArea":"110kV新桐变:新阳D841线-新浦村二联2号凌家公变低压开关后段后段","poweroffReason":"(低压停电信息)新登2019年新登变10千伏渌渚线新建工程：新浦村二联2#凌家公变西凌02线9#杆移位、立杆等工作","powerTime":"2019-09-05 11:31:03","powerComm":"已送电","subsNo":"","lineNo":"","tgNo":"","tgName":null,"infoStatus":"1","orgName":"国网浙江杭州市富阳区供电公司","typeName":null,"infoStatusName":null,"dateDay":null,"orgNos":null,"nowTime":null,"countyName":null,"streetName":null,"villageName":null,"roadName":null,"communityName":null,"tranName":null,"sdLineName":null,"cityCode":"3340170","cityName":"国网浙江杭州市富阳区供电公司","provinceCode":null,"stopTime":"2019-09-05 12:00:00","powerType":"全部","powerOffArea":"110kV新桐变:新阳D841线-新浦村二联2号凌家公变低压开关后段后段","powerOffReason":"(低压停电信息)新登2019年新登变10千伏渌渚线新建工程：新浦村二联2#凌家公变西凌02线9#杆移位、立杆等工作","powerOffId":"2019082331020474"},{"poweroffId":2019082331020472,"sgpoweroffId":null,"subsName":"","lineName":"10kV宫前D603线","pubTranName":"东前村溪东1#溪东公变,","scope":"浙江省杭州市富阳区大源镇东前村溪东村一带","startTime":"2019-09-04 08:00:00","stopDate":"2019-09-04 16:40:00","orgNo":"3340170","typeCode":"计划停电","poweroffArea":"35kV溪东变:宫前D603线-东前村溪东1#溪东公变低压开关后段","poweroffReason":"(低压停电信息)架线、拆旧、接户线搭接等工作","powerTime":"2019-09-04 16:25:43","powerComm":"已送电","subsNo":"","lineNo":"","tgNo":"","tgName":null,"infoStatus":"1","orgName":"国网浙江杭州市富阳区供电公司","typeName":null,"infoStatusName":null,"dateDay":null,"orgNos":null,"nowTime":null,"countyName":null,"streetName":null,"villageName":null,"roadName":null,"communityName":null,"tranName":null,"sdLineName":null,"cityCode":"3340170","cityName":"国网浙江杭州市富阳区供电公司","provinceCode":null,"stopTime":"2019-09-04 16:40:00","powerType":"全部","powerOffArea":"35kV溪东变:宫前D603线-东前村溪东1#溪东公变低压开关后段","powerOffReason":"(低压停电信息)架线、拆旧、接户线搭接等工作","powerOffId":"2019082331020472"},{"poweroffId":2019082331020471,"sgpoweroffId":null,"subsName":"","lineName":"10kV洪庄D292线","pubTranName":"洪庄村9号横坞公变,","scope":"浙江省杭州市富阳区银湖街道洪庄村一带","startTime":"2019-09-08 07:30:00","stopDate":"2019-09-08 16:30:00","orgNo":"3340170","typeCode":"计划停电","poweroffArea":"35kV新义变:洪庄D292线-洪庄村9号横坞公变低压开关后段","poweroffReason":"(低压停电信息)迎东2019年峡岭村3#周家坛公变等配电线路及设备大修工程更换导线5档，新架导线4档，更换接户线20处，搭接等工作。 原计划停电时间为2019-09-06，因政策原因变更至2019-09-08","powerTime":"2019-09-08 16:17:34","powerComm":"已送电","subsNo":"","lineNo":"","tgNo":"","tgName":null,"infoStatus":"1","orgName":"国网浙江杭州市富阳区供电公司","typeName":null,"infoStatusName":null,"dateDay":null,"orgNos":null,"nowTime":null,"countyName":null,"streetName":null,"villageName":null,"roadName":null,"communityName":null,"tranName":null,"sdLineName":null,"cityCode":"3340170","cityName":"国网浙江杭州市富阳区供电公司","provinceCode":null,"stopTime":"2019-09-08 16:30:00","powerType":"全部","powerOffArea":"35kV新义变:洪庄D292线-洪庄村9号横坞公变低压开关后段","powerOffReason":"(低压停电信息)迎东2019年峡岭村3#周家坛公变等配电线路及设备大修工程更换导线5档，新架导线4档，更换接户线20处，搭接等工作。 原计划停电时间为2019-09-06，因政策原因变更至2019-09-08","powerOffId":"2019082331020471"},{"poweroffId":2019082331020470,"sgpoweroffId":null,"subsName":"","lineName":"10kV昌东D701线","pubTranName":"昌东村众甫1#界牌岭公变,","scope":"浙江省杭州市富阳区新登镇昌东行政村界牌岭自然村一带","startTime":"2019-09-04 07:00:00","stopDate":"2019-09-04 15:30:00","orgNo":"3340170","typeCode":"计划停电","poweroffArea":"110kV松溪变:昌东D701线-昌东村众甫1#界牌岭公变低压开关后段","poweroffReason":"(低压停电信息)照明01线、照明02线拆除出线电缆VLV-4*120二路、敷设出线电缆YJV-4*150二路、安装杆上表计2只安装表箱电缆YJV-4*95*20米、架设BS-JKLYJ-4*35*4档","powerTime":"2019-09-04 15:15:31","powerComm":"已送电","subsNo":"","lineNo":"","tgNo":"","tgName":null,"infoStatus":"1","orgName":"国网浙江杭州市富阳区供电公司","typeName":null,"infoStatusName":null,"dateDay":null,"orgNos":null,"nowTime":null,"countyName":null,"streetName":null,"villageName":null,"roadName":null,"communityName":null,"tranName":null,"sdLineName":null,"cityCode":"3340170","cityName":"国网浙江杭州市富阳区供电公司","provinceCode":null,"stopTime":"2019-09-04 15:30:00","powerType":"全部","powerOffArea":"110kV松溪变:昌东D701线-昌东村众甫1#界牌岭公变低压开关后段","powerOffReason":"(低压停电信息)照明01线、照明02线拆除出线电缆VLV-4*120二路、敷设出线电缆YJV-4*150二路、安装杆上表计2只安装表箱电缆YJV-4*95*20米、架设BS-JKLYJ-4*35*4档","powerOffId":"2019082331020470"},{"poweroffId":2019082331020469,"sgpoweroffId":null,"subsName":"","lineName":"10kV贤德D333线","pubTranName":"查口村9#文昌阁公变,","scope":"浙江省杭州市富阳区洞桥镇查口行政村文昌阁自然村一带","startTime":"2019-09-04 06:10:00","stopDate":"2019-09-04 12:00:00","orgNo":"3340170","typeCode":"计划停电","poweroffArea":"110kV万市变:贤德D333线-查口村9#文昌阁公变低压开关后段","poweroffReason":"(低压停电信息)敷设YJV22-4*50*70米、制作电缆头等工作。","powerTime":"2019-09-04 11:45:20","powerComm":"已送电","subsNo":"","lineNo":"","tgNo":"","tgName":null,"infoStatus":"1","orgName":"国网浙江杭州市富阳区供电公司","typeName":null,"infoStatusName":null,"dateDay":null,"orgNos":null,"nowTime":null,"countyName":null,"streetName":null,"villageName":null,"roadName":null,"communityName":null,"tranName":null,"sdLineName":null,"cityCode":"3340170","cityName":"国网浙江杭州市富阳区供电公司","provinceCode":null,"stopTime":"2019-09-04 12:00:00","powerType":"全部","powerOffArea":"110kV万市变:贤德D333线-查口村9#文昌阁公变低压开关后段","powerOffReason":"(低压停电信息)敷设YJV22-4*50*70米、制作电缆头等工作。","powerOffId":"2019082331020469"}],"pageModel":{"pageNow":1206,"totalCount":17789,"totalPage":1779,"tableRows":0,"pageCount":10,"beginCount":12050},"isExperi":"1"}