{"message":"","today":"2020-06-16","seleList":[{"poweroffId":2019082331020302,"sgpoweroffId":null,"subsName":"","lineName":"10kV顺水G264线","pubTranName":"云会村茅家坟头公变,","scope":"浙江省杭州市余杭区仁和街道:云会村茅家坟头一带","startTime":"2019-09-03 08:20:00","stopDate":"2019-09-03 15:00:00","orgNo":"3340140","typeCode":"计划停电","poweroffArea":"110kV仁镇变:顺水G264线茅家坟头分线","poweroffReason":"杭州余杭仁和地区2018年九龙村等配变台区改造工程；顺水G264线茅家坟头变低压线路；新放导线11档，拆除旧导线15档，新上低压电缆2根，安装横担，做拉线及搭接接户线13户工作；","powerTime":"2019-09-03 14:36:35","powerComm":"已送电","subsNo":"","lineNo":"","tgNo":"","tgName":null,"infoStatus":"1","orgName":"国网浙江杭州市余杭区供电有限公司","typeName":null,"infoStatusName":null,"dateDay":null,"orgNos":null,"nowTime":null,"countyName":null,"streetName":null,"villageName":null,"roadName":null,"communityName":null,"tranName":null,"sdLineName":null,"cityCode":"3340140","cityName":"国网浙江杭州市余杭区供电有限公司","provinceCode":null,"stopTime":"2019-09-03 15:00:00","powerType":"全部","powerOffArea":"110kV仁镇变:顺水G264线茅家坟头分线","powerOffReason":"杭州余杭仁和地区2018年九龙村等配变台区改造工程；顺水G264线茅家坟头变低压线路；新放导线11档，拆除旧导线15档，新上低压电缆2根，安装横担，做拉线及搭接接户线13户工作；","powerOffId":"2019082331020302"},{"poweroffId":2019082331020300,"sgpoweroffId":null,"subsName":"","lineName":"10kV青何D731线","pubTranName":"富阳富源鞋业有限公司,","scope":"浙江省杭州市富阳区永昌镇富阳富源鞋业有限公司一带","startTime":"2019-09-04 08:30:00","stopDate":"2019-09-04 14:30:00","orgNo":"3340170","typeCode":"计划停电","poweroffArea":"110kV松溪变:青何D731线102#杆青咸联线198#杆叮咚山泉分线","poweroffReason":"青咸联线198#杆叮咚山泉分线0#杆-1#杆导线、保险丝开关调换真空开关等工作","powerTime":"2019-09-04 14:15:11","powerComm":"已送电","subsNo":"","lineNo":"","tgNo":"","tgName":null,"infoStatus":"1","orgName":"国网浙江杭州市富阳区供电公司","typeName":null,"infoStatusName":null,"dateDay":null,"orgNos":null,"nowTime":null,"countyName":null,"streetName":null,"villageName":null,"roadName":null,"communityName":null,"tranName":null,"sdLineName":null,"cityCode":"3340170","cityName":"国网浙江杭州市富阳区供电公司","provinceCode":null,"stopTime":"2019-09-04 14:30:00","powerType":"全部","powerOffArea":"110kV松溪变:青何D731线102#杆青咸联线198#杆叮咚山泉分线","powerOffReason":"青咸联线198#杆叮咚山泉分线0#杆-1#杆导线、保险丝开关调换真空开关等工作","powerOffId":"2019082331020300"},{"poweroffId":2019082331020295,"sgpoweroffId":null,"subsName":"","lineName":"10kV长盘D722线","pubTranName":"杭州市富阳区新登镇和山村股份经济合作社1#变,","scope":"浙江省杭州市富阳区新登镇和山村股份经济合作社一带","startTime":"2019-09-03 08:30:00","stopDate":"2019-09-03 14:30:00","orgNo":"3340170","typeCode":"计划停电","poweroffArea":"110kV松溪变:长盘D722线253#杆陈家分线","poweroffReason":"长盘D722线253#杆保险丝开关调换真空开关；陈家分线0#杆-14#杆导线调换、旧杆拔除等工作","powerTime":"2019-09-03 14:20:09","powerComm":"已送电","subsNo":"","lineNo":"","tgNo":"","tgName":null,"infoStatus":"1","orgName":"国网浙江杭州市富阳区供电公司","typeName":null,"infoStatusName":null,"dateDay":null,"orgNos":null,"nowTime":null,"countyName":null,"streetName":null,"villageName":null,"roadName":null,"communityName":null,"tranName":null,"sdLineName":null,"cityCode":"3340170","cityName":"国网浙江杭州市富阳区供电公司","provinceCode":null,"stopTime":"2019-09-03 14:30:00","powerType":"全部","powerOffArea":"110kV松溪变:长盘D722线253#杆陈家分线","powerOffReason":"长盘D722线253#杆保险丝开关调换真空开关；陈家分线0#杆-14#杆导线调换、旧杆拔除等工作","powerOffId":"2019082331020295"},{"poweroffId":2019082331020291,"sgpoweroffId":null,"subsName":"","lineName":"10kV溪勘H818线","pubTranName":"火烧洋,杭州余杭何母桥股份经济合作社,","scope":"浙江省杭州市余杭区闲林街道:火烧洋、杭州余杭何母桥股份经济合作社一带","startTime":"2019-08-30 08:40:00","stopDate":"2019-08-30 13:20:00","orgNo":"3340140","typeCode":"临时停电","poweroffArea":"溪勘H818线俞家头分线4号杆开关","poweroffReason":"业扩工程（科技城建设公司良睦路建设溪勘H818线等线路迁改工程）：拆除俞家头分线4-5号杆3*300电缆160米、新放3*120电缆150米并搭接。","powerTime":"2019-08-30 12:56:12","powerComm":"已送电。","subsNo":"","lineNo":"","tgNo":"","tgName":null,"infoStatus":"1","orgName":"国网浙江杭州市余杭区供电有限公司","typeName":null,"infoStatusName":null,"dateDay":null,"orgNos":null,"nowTime":null,"countyName":null,"streetName":null,"villageName":null,"roadName":null,"communityName":null,"tranName":null,"sdLineName":null,"cityCode":"3340140","cityName":"国网浙江杭州市余杭区供电有限公司","provinceCode":null,"stopTime":"2019-08-30 13:20:00","powerType":"全部","powerOffArea":"溪勘H818线俞家头分线4号杆开关","powerOffReason":"业扩工程（科技城建设公司良睦路建设溪勘H818线等线路迁改工程）：拆除俞家头分线4-5号杆3*300电缆160米、新放3*120电缆150米并搭接。","powerOffId":"2019082331020291"},{"poweroffId":2019082331020285,"sgpoweroffId":null,"subsName":"","lineName":"10kV东源D339线","pubTranName":"万市村9#下陈家公变,","scope":"浙江省杭州市富阳区万市镇万市行政村下陈家自然村一带","startTime":"2019-09-02 07:00:00","stopDate":"2019-09-02 15:00:00","orgNo":"3340170","typeCode":"计划停电","poweroffArea":"110kV万市变:东源D339线49#杆后段","poweroffReason":"东源D339线51#+1杆立钢管塔1基、真空开关安装、导线架设等工作","powerTime":"2019-09-02 14:45:21","powerComm":"已送电","subsNo":"","lineNo":"","tgNo":"","tgName":null,"infoStatus":"1","orgName":"国网浙江杭州市富阳区供电公司","typeName":null,"infoStatusName":null,"dateDay":null,"orgNos":null,"nowTime":null,"countyName":null,"streetName":null,"villageName":null,"roadName":null,"communityName":null,"tranName":null,"sdLineName":null,"cityCode":"3340170","cityName":"国网浙江杭州市富阳区供电公司","provinceCode":null,"stopTime":"2019-09-02 15:00:00","powerType":"全部","powerOffArea":"110kV万市变:东源D339线49#杆后段","powerOffReason":"东源D339线51#+1杆立钢管塔1基、真空开关安装、导线架设等工作","powerOffId":"2019082331020285"},{"poweroffId":2019082331020277,"sgpoweroffId":null,"subsName":"","lineName":"10kV咸康D208线","pubTranName":"赔销坞1#坞口公变变压器,","scope":"浙江省-杭州市-富阳区-春建乡-咸康行政村(坞口自然村,赔销坞自然村)","startTime":"2019-09-02 08:10:00","stopDate":"2019-09-02 15:45:00","orgNo":"3340170","typeCode":"计划停电","poweroffArea":"35kV大青变:咸康D208线-赔销坞1#坞口后段","poweroffReason":"（低压停电信息）青云2019年铁坎村5#横坞公变等低压台区改造工程新架BS4*70-1档、进户线搭接、按装横担1块，等工作","powerTime":"2019-09-02 15:38:13","powerComm":"已送电","subsNo":"","lineNo":"","tgNo":"","tgName":null,"infoStatus":"1","orgName":"国网浙江杭州市富阳区供电公司","typeName":null,"infoStatusName":null,"dateDay":null,"orgNos":null,"nowTime":null,"countyName":null,"streetName":null,"villageName":null,"roadName":null,"communityName":null,"tranName":null,"sdLineName":null,"cityCode":"3340170","cityName":"国网浙江杭州市富阳区供电公司","provinceCode":null,"stopTime":"2019-09-02 15:45:00","powerType":"全部","powerOffArea":"35kV大青变:咸康D208线-赔销坞1#坞口后段","powerOffReason":"（低压停电信息）青云2019年铁坎村5#横坞公变等低压台区改造工程新架BS4*70-1档、进户线搭接、按装横担1块，等工作","powerOffId":"2019082331020277"},{"poweroffId":2019082331020271,"sgpoweroffId":null,"subsName":"","lineName":"10kV明星D424线","pubTranName":"民建村2号中公变,","scope":"浙江省-杭州市-富阳区-东洲街道-建华行政村-民建自然村","startTime":"2019-09-04 13:10:00","stopDate":"2019-09-04 16:45:00","orgNo":"3340170","typeCode":"计划停电","poweroffArea":"110kV东洲变:明星D424线-民建村2号中公变低压开关后段","poweroffReason":"(低压停电信息)明星D424线村中支线、民建二支线线路移位工程拆旧2档、吊车拔立电杆1支、按装拉线2组、等工作","powerTime":"2019-09-04 16:30:11","powerComm":"已送电","subsNo":"","lineNo":"","tgNo":"","tgName":null,"infoStatus":"1","orgName":"国网浙江杭州市富阳区供电公司","typeName":null,"infoStatusName":null,"dateDay":null,"orgNos":null,"nowTime":null,"countyName":null,"streetName":null,"villageName":null,"roadName":null,"communityName":null,"tranName":null,"sdLineName":null,"cityCode":"3340170","cityName":"国网浙江杭州市富阳区供电公司","provinceCode":null,"stopTime":"2019-09-04 16:45:00","powerType":"全部","powerOffArea":"110kV东洲变:明星D424线-民建村2号中公变低压开关后段","powerOffReason":"(低压停电信息)明星D424线村中支线、民建二支线线路移位工程拆旧2档、吊车拔立电杆1支、按装拉线2组、等工作","powerOffId":"2019082331020271"},{"poweroffId":2019082331020270,"sgpoweroffId":null,"subsName":"","lineName":"10kV新春D938线","pubTranName":"下高村9#公变1,","scope":"浙江省-杭州市-富阳区-春建乡-春建行政村(下高自然村,上高自然村)","startTime":"2019-09-03 08:10:00","stopDate":"2019-09-03 15:45:00","orgNo":"3340170","typeCode":"计划停电","poweroffArea":"110kV育才变:新春D938线-下高村9#后段","poweroffReason":"(低压停电信息)导线拆装架线等工作","powerTime":"2019-09-03 15:35:11","powerComm":"已送电","subsNo":"","lineNo":"","tgNo":"","tgName":null,"infoStatus":"1","orgName":"国网浙江杭州市富阳区供电公司","typeName":null,"infoStatusName":null,"dateDay":null,"orgNos":null,"nowTime":null,"countyName":null,"streetName":null,"villageName":null,"roadName":null,"communityName":null,"tranName":null,"sdLineName":null,"cityCode":"3340170","cityName":"国网浙江杭州市富阳区供电公司","provinceCode":null,"stopTime":"2019-09-03 15:45:00","powerType":"全部","powerOffArea":"110kV育才变:新春D938线-下高村9#后段","powerOffReason":"(低压停电信息)导线拆装架线等工作","powerOffId":"2019082331020270"},{"poweroffId":2019082331020267,"sgpoweroffId":null,"subsName":"","lineName":"10kV新浦D845线","pubTranName":"新浦村二联1#塘坞里公变,","scope":"浙江省杭州市富阳区渌渚镇新浦行政村二联塘坞里自然村一带","startTime":"2019-09-06 06:00:00","stopDate":"2019-09-06 13:30:00","orgNo":"3340170","typeCode":"计划停电","poweroffArea":"110kV新桐变:新浦D845线-新浦村二联1#塘坞里公变低压开关后段","poweroffReason":"(低压停电信息)孙家02线1#至1-6#杆架设JKLYJ-70*4*6档、安装拉线2组、新敷设2路YJV22-4*150*60米、1路YJV22-4*50*35米，拆除1路YJV-4*50*30米、2路VLV-4*150*56米、电缆头搭接。（旁站监理）","powerTime":"2019-09-06 13:15:31","powerComm":"已送电","subsNo":"","lineNo":"","tgNo":"","tgName":null,"infoStatus":"1","orgName":"国网浙江杭州市富阳区供电公司","typeName":null,"infoStatusName":null,"dateDay":null,"orgNos":null,"nowTime":null,"countyName":null,"streetName":null,"villageName":null,"roadName":null,"communityName":null,"tranName":null,"sdLineName":null,"cityCode":"3340170","cityName":"国网浙江杭州市富阳区供电公司","provinceCode":null,"stopTime":"2019-09-06 13:30:00","powerType":"全部","powerOffArea":"110kV新桐变:新浦D845线-新浦村二联1#塘坞里公变低压开关后段","powerOffReason":"(低压停电信息)孙家02线1#至1-6#杆架设JKLYJ-70*4*6档、安装拉线2组、新敷设2路YJV22-4*150*60米、1路YJV22-4*50*35米，拆除1路YJV-4*50*30米、2路VLV-4*150*56米、电缆头搭接。（旁站监理）","powerOffId":"2019082331020267"},{"poweroffId":2019082331020266,"sgpoweroffId":null,"subsName":"","lineName":"10kV丰盛H595线","pubTranName":"南庄兜村黄家斗2号公变,","scope":"浙江省-杭州市-余杭区-良渚街道-南庄兜村黄家斗2号一带","startTime":"2019-09-03 08:30:00","stopDate":"2019-09-03 16:30:00","orgNo":"3340140","typeCode":"计划停电","poweroffArea":"110kV南庄变:丰盛H595线-南庄兜村黄家斗2号公变","poweroffReason":"(低压停电信息)丰盛H595线南庄兜村黄家斗2号公变低压线路改造(新放120导线8档、落户线搭接14户、拆旧)","powerTime":"2019-09-03 16:22:53","powerComm":"现场已送电","subsNo":"","lineNo":"","tgNo":"","tgName":null,"infoStatus":"1","orgName":"国网浙江杭州市余杭区供电有限公司","typeName":null,"infoStatusName":null,"dateDay":null,"orgNos":null,"nowTime":null,"countyName":null,"streetName":null,"villageName":null,"roadName":null,"communityName":null,"tranName":null,"sdLineName":null,"cityCode":"3340140","cityName":"国网浙江杭州市余杭区供电有限公司","provinceCode":null,"stopTime":"2019-09-03 16:30:00","powerType":"全部","powerOffArea":"110kV南庄变:丰盛H595线-南庄兜村黄家斗2号公变","powerOffReason":"(低压停电信息)丰盛H595线南庄兜村黄家斗2号公变低压线路改造(新放120导线8档、落户线搭接14户、拆旧)","powerOffId":"2019082331020266"}],"pageModel":{"pageNow":1211,"totalCount":17789,"totalPage":1779,"tableRows":0,"pageCount":10,"beginCount":12100},"isExperi":"1"}