{"message":"","today":"2020-06-15","seleList":[{"poweroffId":2020052231020283,"sgpoweroffId":null,"subsName":"","lineName":"10kV顺溪V261线","pubTranName":"颊口村前坑村中,临安市清凉峰玻纤有限公司,颊口村前坑亭子边,","scope":"浙江省-杭州市-临安市-清凉峰镇颊口村前坑、颊口村村中、临安市清凉峰玻纤有限公司。","startTime":"2020-06-02 12:40:00","stopDate":"2020-06-02 16:20:00","orgNo":"3340160","typeCode":"计划停电","poweroffArea":"35kV颊口变:顺溪V261线-前坑分线令克后段","poweroffReason":"颊口村前坑增容布点 原停电结束时间为2020-06-02 17:20:00,为减少客户停电时间,加快工作进度,提前送电,现变更停电结束时间为2020-06-02 16:20:00","powerTime":"2020-06-02 15:33:49","powerComm":"已送电","subsNo":"","lineNo":"","tgNo":"","tgName":null,"infoStatus":"1","orgName":"国网浙江临安市供电公司","typeName":null,"infoStatusName":null,"dateDay":null,"orgNos":null,"nowTime":null,"countyName":null,"streetName":null,"villageName":null,"roadName":null,"communityName":null,"tranName":null,"sdLineName":null,"cityCode":"3340160","cityName":"国网浙江临安市供电公司","provinceCode":null,"stopTime":"2020-06-02 16:20:00","powerType":"全部","powerOffArea":"35kV颊口变:顺溪V261线-前坑分线令克后段","powerOffReason":"颊口村前坑增容布点 原停电结束时间为2020-06-02 17:20:00,为减少客户停电时间,加快工作进度,提前送电,现变更停电结束时间为2020-06-02 16:20:00","powerOffId":"2020052231020283"},{"poweroffId":2020052231020282,"sgpoweroffId":null,"subsName":"","lineName":"10kV蔡家D893线","pubTranName":"月台村1#村中公变,","scope":"浙江省-杭州市-富阳区-灵桥镇-新华行政村-月台自然村一带","startTime":"2020-06-05 08:00:00","stopDate":"2020-06-05 17:00:00","orgNo":"3340170","typeCode":"计划停电","poweroffArea":"110kV永春变:蔡家D893线-月台村1号村中低压开关后段","poweroffReason":"(低压停电信息)拆装导线1档，更换接户线20处，搭接等工作。（江南2020年菖蒲村3#桐湾口公变等台区低压线路改造工程）","powerTime":"2020-06-05 16:45:25","powerComm":"已送电","subsNo":"","lineNo":"","tgNo":"","tgName":null,"infoStatus":"1","orgName":"国网浙江杭州市富阳区供电公司","typeName":null,"infoStatusName":null,"dateDay":null,"orgNos":null,"nowTime":null,"countyName":null,"streetName":null,"villageName":null,"roadName":null,"communityName":null,"tranName":null,"sdLineName":null,"cityCode":"3340170","cityName":"国网浙江杭州市富阳区供电公司","provinceCode":null,"stopTime":"2020-06-05 17:00:00","powerType":"全部","powerOffArea":"110kV永春变:蔡家D893线-月台村1号村中低压开关后段","powerOffReason":"(低压停电信息)拆装导线1档，更换接户线20处，搭接等工作。（江南2020年菖蒲村3#桐湾口公变等台区低压线路改造工程）","powerOffId":"2020052231020282"},{"poweroffId":2020052231020278,"sgpoweroffId":null,"subsName":"","lineName":"10kV金秋D947线","pubTranName":"春华村9号宝山脚公变,","scope":"浙江省-杭州市-富阳区-富春街道-春华行政村(春华自然村,春华路,学士路,珠宝路,宝山路)","startTime":"2020-06-05 12:30:00","stopDate":"2020-06-05 16:50:00","orgNo":"3340170","typeCode":"计划停电","poweroffArea":"110kV育才变:金秋D947线-春华村9号宝山脚后段","poweroffReason":"(低压停电信息)青云2020年龙星村5#罗家岭公变等低压线路改造工程照明2#线更换落户线5处，搭接等工作","powerTime":"2020-06-05 16:34:20","powerComm":"已送电","subsNo":"","lineNo":"","tgNo":"","tgName":null,"infoStatus":"1","orgName":"国网浙江杭州市富阳区供电公司","typeName":null,"infoStatusName":null,"dateDay":null,"orgNos":null,"nowTime":null,"countyName":null,"streetName":null,"villageName":null,"roadName":null,"communityName":null,"tranName":null,"sdLineName":null,"cityCode":"3340170","cityName":"国网浙江杭州市富阳区供电公司","provinceCode":null,"stopTime":"2020-06-05 16:50:00","powerType":"全部","powerOffArea":"110kV育才变:金秋D947线-春华村9号宝山脚后段","powerOffReason":"(低压停电信息)青云2020年龙星村5#罗家岭公变等低压线路改造工程照明2#线更换落户线5处，搭接等工作","powerOffId":"2020052231020278"},{"poweroffId":2020052231020277,"sgpoweroffId":null,"subsName":"","lineName":"10kV水南V131线","pubTranName":"朱秀村朱源塘,","scope":"浙江省-杭州市-临安市-河桥镇-聚秀村朱源塘","startTime":"2020-06-01 07:40:00","stopDate":"2020-06-01 12:20:00","orgNo":"3340160","typeCode":"计划停电","poweroffArea":"110kV昌化变:水南V131线-朱秀村朱源塘配变","poweroffReason":"增容布点工程","powerTime":"2020-06-01 11:53:19","powerComm":"已送电","subsNo":"","lineNo":"","tgNo":"","tgName":null,"infoStatus":"1","orgName":"国网浙江临安市供电公司","typeName":null,"infoStatusName":null,"dateDay":null,"orgNos":null,"nowTime":null,"countyName":null,"streetName":null,"villageName":null,"roadName":null,"communityName":null,"tranName":null,"sdLineName":null,"cityCode":"3340160","cityName":"国网浙江临安市供电公司","provinceCode":null,"stopTime":"2020-06-01 12:20:00","powerType":"全部","powerOffArea":"110kV昌化变:水南V131线-朱秀村朱源塘配变","powerOffReason":"增容布点工程","powerOffId":"2020052231020277"},{"poweroffId":2020052231020276,"sgpoweroffId":null,"subsName":"","lineName":"10kV昌西V142线","pubTranName":"双石村,","scope":"浙江省-杭州市-临安市-龙岗镇五星村双石","startTime":"2020-06-01 07:40:00","stopDate":"2020-06-01 12:20:00","orgNo":"3340160","typeCode":"计划停电","poweroffArea":"110kV龙岗变:昌西V142线-双石村配变","poweroffReason":"双石村配变增容布点工程","powerTime":"2020-06-01 11:43:42","powerComm":"已送电","subsNo":"","lineNo":"","tgNo":"","tgName":null,"infoStatus":"1","orgName":"国网浙江临安市供电公司","typeName":null,"infoStatusName":null,"dateDay":null,"orgNos":null,"nowTime":null,"countyName":null,"streetName":null,"villageName":null,"roadName":null,"communityName":null,"tranName":null,"sdLineName":null,"cityCode":"3340160","cityName":"国网浙江临安市供电公司","provinceCode":null,"stopTime":"2020-06-01 12:20:00","powerType":"全部","powerOffArea":"110kV龙岗变:昌西V142线-双石村配变","powerOffReason":"双石村配变增容布点工程","powerOffId":"2020052231020276"},{"poweroffId":2020052231020275,"sgpoweroffId":null,"subsName":"","lineName":"10kV环联D788线","pubTranName":"环三村2#候军坞公变,","scope":"浙江省-杭州市-富阳区-环山乡-环三行政村-侯军坞自然村一带","startTime":"2020-06-05 08:30:00","stopDate":"2020-06-05 16:10:00","orgNo":"3340170","typeCode":"计划停电","poweroffArea":"110kV王洲变:环联D788线-环三村2号候军坞公变后段","poweroffReason":"(低压停电信息)环三村2#候军坞公变拆旧线4档、新放4*35集束线5档、做拉线2组、动力表箱拆移及杆上搭头等工作；","powerTime":"2020-06-05 15:55:53","powerComm":"已送电","subsNo":"","lineNo":"","tgNo":"","tgName":null,"infoStatus":"1","orgName":"国网浙江杭州市富阳区供电公司","typeName":null,"infoStatusName":null,"dateDay":null,"orgNos":null,"nowTime":null,"countyName":null,"streetName":null,"villageName":null,"roadName":null,"communityName":null,"tranName":null,"sdLineName":null,"cityCode":"3340170","cityName":"国网浙江杭州市富阳区供电公司","provinceCode":null,"stopTime":"2020-06-05 16:10:00","powerType":"全部","powerOffArea":"110kV王洲变:环联D788线-环三村2号候军坞公变后段","powerOffReason":"(低压停电信息)环三村2#候军坞公变拆旧线4档、新放4*35集束线5档、做拉线2组、动力表箱拆移及杆上搭头等工作；","powerOffId":"2020052231020275"},{"poweroffId":2020052231020273,"sgpoweroffId":null,"subsName":"","lineName":"10kV洪庄D292线","pubTranName":"洪庄村8号水坞公变,","scope":"浙江省-杭州市-富阳区-银湖街道-洪庄行政村-武林自然村","startTime":"2020-06-05 08:20:00","stopDate":"2020-06-05 13:40:00","orgNo":"3340170","typeCode":"计划停电","poweroffArea":"35kV新义变:洪庄D292线-洪庄村8号水坞公变低压开关后段","poweroffReason":"(低压停电信息)吊车拔立电杆1支、新装导线1档开耐涨、按装拉线2组、搭接等工作","powerTime":"2020-06-05 13:28:10","powerComm":"已送电","subsNo":"","lineNo":"","tgNo":"","tgName":null,"infoStatus":"1","orgName":"国网浙江杭州市富阳区供电公司","typeName":null,"infoStatusName":null,"dateDay":null,"orgNos":null,"nowTime":null,"countyName":null,"streetName":null,"villageName":null,"roadName":null,"communityName":null,"tranName":null,"sdLineName":null,"cityCode":"3340170","cityName":"国网浙江杭州市富阳区供电公司","provinceCode":null,"stopTime":"2020-06-05 13:40:00","powerType":"全部","powerOffArea":"35kV新义变:洪庄D292线-洪庄村8号水坞公变低压开关后段","powerOffReason":"(低压停电信息)吊车拔立电杆1支、新装导线1档开耐涨、按装拉线2组、搭接等工作","powerOffId":"2020052231020273"},{"poweroffId":2020052231020255,"sgpoweroffId":null,"subsName":"","lineName":"10kV安顶D909线","pubTranName":"国庆村1#水厂旁公变,","scope":"浙江省-杭州市-富阳区-里山镇-灵峰行政村-国庆自然村一带","startTime":"2020-06-05 08:00:00","stopDate":"2020-06-05 17:00:00","orgNo":"3340170","typeCode":"计划停电","poweroffArea":"110kV里渔变:安顶D909线-国庆村1号水厂旁低压开关后段","poweroffReason":"(低压停电信息)新架JKLYJ4*120*4档，新装低压出线电缆1路，更换接户线3处搭接等工作。 原停电结束时间为2020-06-04 17:00:00,因现场故障情况复杂,现变更停电结束时间为2020-06-05 17:00:00","powerTime":"2020-06-05 16:46:07","powerComm":"已送电","subsNo":"","lineNo":"","tgNo":"","tgName":null,"infoStatus":"1","orgName":"国网浙江杭州市富阳区供电公司","typeName":null,"infoStatusName":null,"dateDay":null,"orgNos":null,"nowTime":null,"countyName":null,"streetName":null,"villageName":null,"roadName":null,"communityName":null,"tranName":null,"sdLineName":null,"cityCode":"3340170","cityName":"国网浙江杭州市富阳区供电公司","provinceCode":null,"stopTime":"2020-06-05 17:00:00","powerType":"全部","powerOffArea":"110kV里渔变:安顶D909线-国庆村1号水厂旁低压开关后段","powerOffReason":"(低压停电信息)新架JKLYJ4*120*4档，新装低压出线电缆1路，更换接户线3处搭接等工作。 原停电结束时间为2020-06-04 17:00:00,因现场故障情况复杂,现变更停电结束时间为2020-06-05 17:00:00","powerOffId":"2020052231020255"},{"poweroffId":2020052231020252,"sgpoweroffId":null,"subsName":"","lineName":"10kV金秋D947线","pubTranName":"春华村23号公变,","scope":"浙江省-杭州市-富阳区-富春街道-春华行政村(春华路,学士路,宝山路,潘村路,春华自然村)","startTime":"2020-06-04 07:30:00","stopDate":"2020-06-04 16:50:00","orgNo":"3340170","typeCode":"计划停电","poweroffArea":"110kV育才变:金秋D947线-春华村23号后段","poweroffReason":"(低压停电信息)青云2020年龙星村5#罗家岭公变等低压线路改造工程安装墙横担，照明2#线更换落户线5处，架设沿墙1kV120*4-170米，搭接等工作","powerTime":"2020-06-04 16:33:30","powerComm":"已送电","subsNo":"","lineNo":"","tgNo":"","tgName":null,"infoStatus":"1","orgName":"国网浙江杭州市富阳区供电公司","typeName":null,"infoStatusName":null,"dateDay":null,"orgNos":null,"nowTime":null,"countyName":null,"streetName":null,"villageName":null,"roadName":null,"communityName":null,"tranName":null,"sdLineName":null,"cityCode":"3340170","cityName":"国网浙江杭州市富阳区供电公司","provinceCode":null,"stopTime":"2020-06-04 16:50:00","powerType":"全部","powerOffArea":"110kV育才变:金秋D947线-春华村23号后段","powerOffReason":"(低压停电信息)青云2020年龙星村5#罗家岭公变等低压线路改造工程安装墙横担，照明2#线更换落户线5处，架设沿墙1kV120*4-170米，搭接等工作","powerOffId":"2020052231020252"},{"poweroffId":2020052231020239,"sgpoweroffId":null,"subsName":"","lineName":"10kV十月D225线","pubTranName":"沈家坞1号坑东公变,","scope":"浙江省-杭州市-富阳区-银湖街道-沈家坞行政村(坑东自然村,外沈家坞自然村,筱岭自然村,沈家坞自然村)","startTime":"2020-06-03 13:30:00","stopDate":"2020-06-03 17:10:00","orgNo":"3340170","typeCode":"计划停电","poweroffArea":"110kV银湖变:十月D225线-沈家坞1号坑东公变低压开关后段","poweroffReason":"(低压停电信息)吊车立杆1支、拆装导线1档、按装拉线1组、新放BS-4*70-1档、搭接等工作","powerTime":"2020-06-03 16:42:51","powerComm":"已送电","subsNo":"","lineNo":"","tgNo":"","tgName":null,"infoStatus":"1","orgName":"国网浙江杭州市富阳区供电公司","typeName":null,"infoStatusName":null,"dateDay":null,"orgNos":null,"nowTime":null,"countyName":null,"streetName":null,"villageName":null,"roadName":null,"communityName":null,"tranName":null,"sdLineName":null,"cityCode":"3340170","cityName":"国网浙江杭州市富阳区供电公司","provinceCode":null,"stopTime":"2020-06-03 17:10:00","powerType":"全部","powerOffArea":"110kV银湖变:十月D225线-沈家坞1号坑东公变低压开关后段","powerOffReason":"(低压停电信息)吊车立杆1支、拆装导线1档、按装拉线1组、新放BS-4*70-1档、搭接等工作","powerOffId":"2020052231020239"}],"pageModel":{"pageNow":123,"totalCount":17786,"totalPage":1779,"tableRows":0,"pageCount":10,"beginCount":1220},"isExperi":"1"}