{"message":"","today":"2020-06-16","seleList":[{"poweroffId":2019082231020328,"sgpoweroffId":null,"subsName":"","lineName":"10kV里黄Y702线","pubTranName":"望山村王山顶台区,","scope":"浙江省-杭州市-建德市-梅城镇-望山行政村-王山顶自然村一带用户。","startTime":"2019-08-22 21:12:00","stopDate":"2019-08-22 23:00:00","orgNo":"3340180","typeCode":"电网故障停限电","poweroffArea":"110kV南峰变:里黄Y702线-望山村王山顶台区后段","poweroffReason":"(低压停电信息)低压开关跳闸","powerTime":"2019-08-22 22:12:00","powerComm":"已送电","subsNo":"","lineNo":"","tgNo":"","tgName":null,"infoStatus":"1","orgName":"国网浙江建德市供电有限公司","typeName":null,"infoStatusName":null,"dateDay":null,"orgNos":null,"nowTime":null,"countyName":null,"streetName":null,"villageName":null,"roadName":null,"communityName":null,"tranName":null,"sdLineName":null,"cityCode":"3340180","cityName":"国网浙江建德市供电有限公司","provinceCode":null,"stopTime":"2019-08-22 23:00:00","powerType":"全部","powerOffArea":"110kV南峰变:里黄Y702线-望山村王山顶台区后段","powerOffReason":"(低压停电信息)低压开关跳闸","powerOffId":"2019082231020328"},{"poweroffId":2019082231020290,"sgpoweroffId":null,"subsName":"","lineName":"10kV株林D243线","pubTranName":"株林坞1#南公变,","scope":"浙江省-杭州市-富阳区-东洲街道-黄公望行政村-株林坞自然村","startTime":"2019-08-22 17:56:00","stopDate":"2019-08-22 18:56:00","orgNo":"3340170","typeCode":"电网故障停限电","poweroffArea":"110kV白鹤变:株林D243线-株林坞1#南公变后段","poweroffReason":"(低压停电信息)低压开关跳闸","powerTime":"2019-08-22 18:41:16","powerComm":"已送电","subsNo":"","lineNo":"","tgNo":"","tgName":null,"infoStatus":"1","orgName":"国网浙江杭州市富阳区供电公司","typeName":null,"infoStatusName":null,"dateDay":null,"orgNos":null,"nowTime":null,"countyName":null,"streetName":null,"villageName":null,"roadName":null,"communityName":null,"tranName":null,"sdLineName":null,"cityCode":"3340170","cityName":"国网浙江杭州市富阳区供电公司","provinceCode":null,"stopTime":"2019-08-22 18:56:00","powerType":"全部","powerOffArea":"110kV白鹤变:株林D243线-株林坞1#南公变后段","powerOffReason":"(低压停电信息)低压开关跳闸","powerOffId":"2019082231020290"},{"poweroffId":2019082231020277,"sgpoweroffId":null,"subsName":"","lineName":"10kV大联T448线","pubTranName":"江南新村1号公变,","scope":"浙江省-杭州市-桐庐县-城南街道-下杭社区(江南新村小区)","startTime":"2019-08-22 17:18:30","stopDate":"2019-08-22 18:18:30","orgNo":"3340150","typeCode":"电网故障停限电","poweroffArea":"110kV下杭变:大联T448线-江南新村1号公变后段","poweroffReason":"(低压停电信息)低压开关跳闸","powerTime":"2019-08-22 17:55:08","powerComm":"已送电","subsNo":"","lineNo":"","tgNo":"","tgName":null,"infoStatus":"1","orgName":"国网浙江桐庐县供电公司","typeName":null,"infoStatusName":null,"dateDay":null,"orgNos":null,"nowTime":null,"countyName":null,"streetName":null,"villageName":null,"roadName":null,"communityName":null,"tranName":null,"sdLineName":null,"cityCode":"3340150","cityName":"国网浙江桐庐县供电公司","provinceCode":null,"stopTime":"2019-08-22 18:18:30","powerType":"全部","powerOffArea":"110kV下杭变:大联T448线-江南新村1号公变后段","powerOffReason":"(低压停电信息)低压开关跳闸","powerOffId":"2019082231020277"},{"poweroffId":2019082231020264,"sgpoweroffId":null,"subsName":"","lineName":"10kV上陈D295线","pubTranName":"观前村12号杨家坎公变,","scope":"浙江省-杭州市-富阳区-银湖街道-观前行政村(黄泥山自然村,杨家坑自然村)","startTime":"2019-08-22 16:31:12","stopDate":"2019-08-22 17:31:12","orgNo":"3340170","typeCode":"电网故障停限电","poweroffArea":"35kV新义变:上陈D295线-观前村12号杨家坎公变后段","poweroffReason":"(低压停电信息)低压开关跳闸","powerTime":"2019-08-22 16:47:12","powerComm":"已送电","subsNo":"","lineNo":"","tgNo":"","tgName":null,"infoStatus":"1","orgName":"国网浙江杭州市富阳区供电公司","typeName":null,"infoStatusName":null,"dateDay":null,"orgNos":null,"nowTime":null,"countyName":null,"streetName":null,"villageName":null,"roadName":null,"communityName":null,"tranName":null,"sdLineName":null,"cityCode":"3340170","cityName":"国网浙江杭州市富阳区供电公司","provinceCode":null,"stopTime":"2019-08-22 17:31:12","powerType":"全部","powerOffArea":"35kV新义变:上陈D295线-观前村12号杨家坎公变后段","powerOffReason":"(低压停电信息)低压开关跳闸","powerOffId":"2019082231020264"},{"poweroffId":2019082231020247,"sgpoweroffId":null,"subsName":"","lineName":"10kV方庙8523线","pubTranName":"周家村,","scope":"浙江省杭州市西湖区顺天汽车销售服务有限公司、周家村附近一带用户","startTime":"2019-08-26 09:30:00","stopDate":"2019-08-26 16:00:00","orgNo":"3340101","typeCode":"临时停电","poweroffArea":"110kV文三变:方庙8523线-周家村后段","poweroffReason":"杭州地铁3号线百家园路站10kV电力迁改一期工程1、周村分线拆除； 2、周家村配变移位，改接至新周家站10#间隔，低压做相应改接；原停电结束时间17:00、变更停电结束时间16:00原因原预估施工较复杂，而实际进行较顺利，因此工作提前结束了。","powerTime":"2019-08-26 15:25:59","powerComm":"已送电","subsNo":"","lineNo":"","tgNo":"","tgName":null,"infoStatus":"1","orgName":"浙江杭州电力客户服务中心","typeName":null,"infoStatusName":null,"dateDay":null,"orgNos":null,"nowTime":null,"countyName":null,"streetName":null,"villageName":null,"roadName":null,"communityName":null,"tranName":null,"sdLineName":null,"cityCode":"3340101","cityName":"浙江杭州电力客户服务中心","provinceCode":null,"stopTime":"2019-08-26 16:00:00","powerType":"全部","powerOffArea":"110kV文三变:方庙8523线-周家村后段","powerOffReason":"杭州地铁3号线百家园路站10kV电力迁改一期工程1、周村分线拆除； 2、周家村配变移位，改接至新周家站10#间隔，低压做相应改接；原停电结束时间17:00、变更停电结束时间16:00原因原预估施工较复杂，而实际进行较顺利，因此工作提前结束了。","powerOffId":"2019082231020247"},{"poweroffId":2019082231020228,"sgpoweroffId":null,"subsName":"","lineName":"10kV留金9678线","pubTranName":"西名4#配变,西名1#配变,西名2#配变,西名3#配变,","scope":"浙江省杭州市西湖区西溪明园附近一带用户","startTime":"2019-08-28 09:30:00","stopDate":"2019-08-28 14:00:00","orgNo":"3340101","typeCode":"临时停电","poweroffArea":"220kV古荡变:留金9678线-名苑一线后段","poweroffReason":"杭州地铁3号线百家园路站10kV电力迁改一期工程 名苑一线中间开口，天溪站侧部分拆除，剩余电缆与新电缆对接后改接至新天溪站8#间隔；原停电结束时间17:00、变更停电结束时间14:00原因原预估施工较复杂，而实际进行较顺利，因此工作提前结束了。","powerTime":"2019-08-28 13:15:59","powerComm":"已送电","subsNo":"","lineNo":"","tgNo":"","tgName":null,"infoStatus":"1","orgName":"浙江杭州电力客户服务中心","typeName":null,"infoStatusName":null,"dateDay":null,"orgNos":null,"nowTime":null,"countyName":null,"streetName":null,"villageName":null,"roadName":null,"communityName":null,"tranName":null,"sdLineName":null,"cityCode":"3340101","cityName":"浙江杭州电力客户服务中心","provinceCode":null,"stopTime":"2019-08-28 14:00:00","powerType":"全部","powerOffArea":"220kV古荡变:留金9678线-名苑一线后段","powerOffReason":"杭州地铁3号线百家园路站10kV电力迁改一期工程 名苑一线中间开口，天溪站侧部分拆除，剩余电缆与新电缆对接后改接至新天溪站8#间隔；原停电结束时间17:00、变更停电结束时间14:00原因原预估施工较复杂，而实际进行较顺利，因此工作提前结束了。","powerOffId":"2019082231020228"},{"poweroffId":2019082231020226,"sgpoweroffId":null,"subsName":"","lineName":"10kV道训9141线","pubTranName":"村口,1,","scope":"浙江省杭州市西湖区村口村附近一带用户","startTime":"2019-08-28 09:30:00","stopDate":"2019-08-28 14:00:00","orgNo":"3340101","typeCode":"临时停电","poweroffArea":"110kV象山变:道训9141线-村口后段;道训9141线-1后段","poweroffReason":"道训9141线音院南站许家分线消缺工作（星光葛法权）；原停电结束时间17:00、变更停电结束时间14:00原因原预估施工较复杂，而实际进行较顺利，因此工作提前结束了。","powerTime":"2019-08-28 13:13:59","powerComm":"已送电","subsNo":"","lineNo":"","tgNo":"","tgName":null,"infoStatus":"1","orgName":"浙江杭州电力客户服务中心","typeName":null,"infoStatusName":null,"dateDay":null,"orgNos":null,"nowTime":null,"countyName":null,"streetName":null,"villageName":null,"roadName":null,"communityName":null,"tranName":null,"sdLineName":null,"cityCode":"3340101","cityName":"浙江杭州电力客户服务中心","provinceCode":null,"stopTime":"2019-08-28 14:00:00","powerType":"全部","powerOffArea":"110kV象山变:道训9141线-村口后段;道训9141线-1后段","powerOffReason":"道训9141线音院南站许家分线消缺工作（星光葛法权）；原停电结束时间17:00、变更停电结束时间14:00原因原预估施工较复杂，而实际进行较顺利，因此工作提前结束了。","powerOffId":"2019082231020226"},{"poweroffId":2019082231020212,"sgpoweroffId":null,"subsName":"","lineName":"10kV东桦6325线","pubTranName":"新沙三,","scope":"浙江省杭州市西湖区新沙村附近一带部分用户","startTime":"2019-08-30 13:00:00","stopDate":"2019-08-30 14:30:00","orgNo":"3340101","typeCode":"计划停电","poweroffArea":"110kV转塘变:东桦6325线-新沙三后段","poweroffReason":"（低压停电信息）双浦镇新沙村389号表计新装；原停电结束时间15:00、变更停电结束时间14:30原因原预估施工较复杂，而实际进行较顺利，因此工作提前结束了。","powerTime":"2019-08-30 13:31:59","powerComm":"已送电","subsNo":"","lineNo":"","tgNo":"","tgName":null,"infoStatus":"1","orgName":"浙江杭州电力客户服务中心","typeName":null,"infoStatusName":null,"dateDay":null,"orgNos":null,"nowTime":null,"countyName":null,"streetName":null,"villageName":null,"roadName":null,"communityName":null,"tranName":null,"sdLineName":null,"cityCode":"3340101","cityName":"浙江杭州电力客户服务中心","provinceCode":null,"stopTime":"2019-08-30 14:30:00","powerType":"全部","powerOffArea":"110kV转塘变:东桦6325线-新沙三后段","powerOffReason":"（低压停电信息）双浦镇新沙村389号表计新装；原停电结束时间15:00、变更停电结束时间14:30原因原预估施工较复杂，而实际进行较顺利，因此工作提前结束了。","powerOffId":"2019082231020212"},{"poweroffId":2019082231020207,"sgpoweroffId":null,"subsName":"","lineName":"10kV洋绛D782线","pubTranName":"瓜桥埠村3号长塘公变,瓜桥埠村5号华家村北公变,联群村1号祠堂公变,联群村2号加工厂公变,","scope":"浙江省-杭州市-富阳区-场口镇-联群行政村-联群自然村,场口镇-瓜桥埠行政村(华家自然村,瓜桥埠自然村)","startTime":"2019-08-22 15:23:28","stopDate":"2019-08-22 16:30:28","orgNo":"3340170","typeCode":"电网故障停限电","poweroffArea":"110kV王洲变:洋绛D782线-洋绛D7827开关后段","poweroffReason":"高压开关跳闸，原停电结束时间2019-08-22 17:23:28，因抢修力度加强变更至2019-08-22 16:30:28","powerTime":"2019-08-22 15:41:34","powerComm":"已送电","subsNo":"","lineNo":"","tgNo":"","tgName":null,"infoStatus":"1","orgName":"国网浙江杭州市富阳区供电公司","typeName":null,"infoStatusName":null,"dateDay":null,"orgNos":null,"nowTime":null,"countyName":null,"streetName":null,"villageName":null,"roadName":null,"communityName":null,"tranName":null,"sdLineName":null,"cityCode":"3340170","cityName":"国网浙江杭州市富阳区供电公司","provinceCode":null,"stopTime":"2019-08-22 16:30:28","powerType":"全部","powerOffArea":"110kV王洲变:洋绛D782线-洋绛D7827开关后段","powerOffReason":"高压开关跳闸，原停电结束时间2019-08-22 17:23:28，因抢修力度加强变更至2019-08-22 16:30:28","powerOffId":"2019082231020207"},{"poweroffId":2019082231020204,"sgpoweroffId":null,"subsName":"","lineName":"10kV拱秀A587线","pubTranName":"回澜南园3#公变,","scope":"浙江省-杭州市-萧山区-城厢街道-回澜南苑社区-回澜路、回澜南园、回澜南苑一带","startTime":"2019-08-22 15:15:20","stopDate":"2019-08-22 17:40:20","orgNo":"3340130","typeCode":"电网故障停限电","poweroffArea":"110kV城东变:拱秀A587线-回澜南园3#公变后段","poweroffReason":"（低压停电信息）由于外力破坏导致低压电缆坏，原停电结束时间：2019-08-22 18:30:20，变更停电结束时间：2019-08-22 17:40:20，变更停电结束时间原因：由于加派抢修人员，故抢修工作提前结束，需要提前送电。","powerTime":"2019-08-22 16:54:08","powerComm":"已送电","subsNo":"","lineNo":"","tgNo":"","tgName":null,"infoStatus":"1","orgName":"国网浙江杭州市萧山区供电有限公司","typeName":null,"infoStatusName":null,"dateDay":null,"orgNos":null,"nowTime":null,"countyName":null,"streetName":null,"villageName":null,"roadName":null,"communityName":null,"tranName":null,"sdLineName":null,"cityCode":"3340130","cityName":"国网浙江杭州市萧山区供电有限公司","provinceCode":null,"stopTime":"2019-08-22 17:40:20","powerType":"全部","powerOffArea":"110kV城东变:拱秀A587线-回澜南园3#公变后段","powerOffReason":"（低压停电信息）由于外力破坏导致低压电缆坏，原停电结束时间：2019-08-22 18:30:20，变更停电结束时间：2019-08-22 17:40:20，变更停电结束时间原因：由于加派抢修人员，故抢修工作提前结束，需要提前送电。","powerOffId":"2019082231020204"}],"pageModel":{"pageNow":1215,"totalCount":17789,"totalPage":1779,"tableRows":0,"pageCount":10,"beginCount":12140},"isExperi":"1"}