{"message":"","today":"2020-06-16","seleList":[{"poweroffId":2019082231020127,"sgpoweroffId":null,"subsName":"","lineName":"10kV沙程Y200线","pubTranName":"临江花园1#公变,","scope":"浙江省-杭州市-建德市-新安江街道-府西社区 江滨路,严东关路.临江花苑小区一带用户","startTime":"2019-08-22 12:37:00","stopDate":"2019-08-22 13:40:00","orgNo":"3340180","typeCode":"电网故障停限电","poweroffArea":"110kV白沙变:沙程Y200线-临江花园1#公变后段","poweroffReason":"(低压停电信息)低压开关跳闸","powerTime":"2019-08-22 13:15:00","powerComm":"已送电","subsNo":"","lineNo":"","tgNo":"","tgName":null,"infoStatus":"1","orgName":"国网浙江建德市供电有限公司","typeName":null,"infoStatusName":null,"dateDay":null,"orgNos":null,"nowTime":null,"countyName":null,"streetName":null,"villageName":null,"roadName":null,"communityName":null,"tranName":null,"sdLineName":null,"cityCode":"3340180","cityName":"国网浙江建德市供电有限公司","provinceCode":null,"stopTime":"2019-08-22 13:40:00","powerType":"全部","powerOffArea":"110kV白沙变:沙程Y200线-临江花园1#公变后段","powerOffReason":"(低压停电信息)低压开关跳闸","powerOffId":"2019082231020127"},{"poweroffId":2019082231020122,"sgpoweroffId":null,"subsName":"","lineName":"10kV子陵T124线","pubTranName":"镇委2号公变,","scope":"浙江省-杭州市-桐庐县-富春江镇-大洋坪社区(七里泷大街,春江路),富春江镇(横山行政村-横山自然村,七里泷行政村-邵家自然村)","startTime":"2019-08-22 11:50:50","stopDate":"2019-08-22 13:30:50","orgNo":"3340150","typeCode":"电网故障停限电","poweroffArea":"110kV外董变:子陵T124线-镇委2号公变后段","poweroffReason":"高压开关跳闸","powerTime":"2019-08-22 13:11:42","powerComm":"已送电","subsNo":"","lineNo":"","tgNo":"","tgName":null,"infoStatus":"1","orgName":"国网浙江桐庐县供电公司","typeName":null,"infoStatusName":null,"dateDay":null,"orgNos":null,"nowTime":null,"countyName":null,"streetName":null,"villageName":null,"roadName":null,"communityName":null,"tranName":null,"sdLineName":null,"cityCode":"3340150","cityName":"国网浙江桐庐县供电公司","provinceCode":null,"stopTime":"2019-08-22 13:30:50","powerType":"全部","powerOffArea":"110kV外董变:子陵T124线-镇委2号公变后段","powerOffReason":"高压开关跳闸","powerOffId":"2019082231020122"},{"poweroffId":2019082231020114,"sgpoweroffId":null,"subsName":"","lineName":"10kV碧天G183线","pubTranName":"双电公变,","scope":"浙江省-杭州市-余杭区-东湖街道-罗庄社区(邱山大街,罗庄),东湖街道-庙东社区(碧天路,邱山大街),临平街道(邱山社区-邱山大街,工农新村社区-邱山大街)","startTime":"2019-08-22 10:54:00","stopDate":"2019-08-22 15:00:00","orgNo":"3340140","typeCode":"电网故障停限电","poweroffArea":"110kV丘山变:碧天G183线-双电公变后段","poweroffReason":"(低压停电信息)低压开关跳闸","powerTime":"2019-08-22 14:22:00","powerComm":"已送电","subsNo":"","lineNo":"","tgNo":"","tgName":null,"infoStatus":"1","orgName":"国网浙江杭州市余杭区供电有限公司","typeName":null,"infoStatusName":null,"dateDay":null,"orgNos":null,"nowTime":null,"countyName":null,"streetName":null,"villageName":null,"roadName":null,"communityName":null,"tranName":null,"sdLineName":null,"cityCode":"3340140","cityName":"国网浙江杭州市余杭区供电有限公司","provinceCode":null,"stopTime":"2019-08-22 15:00:00","powerType":"全部","powerOffArea":"110kV丘山变:碧天G183线-双电公变后段","powerOffReason":"(低压停电信息)低压开关跳闸","powerOffId":"2019082231020114"},{"poweroffId":2019082231020104,"sgpoweroffId":null,"subsName":"","lineName":"10kV旧县T225线","pubTranName":"合岭村4号公变,","scope":"浙江省-杭州市-桐庐县-旧县街道-洪儒行政村-尹峰自然村,旧县街道-合岭行政村(尹峰自然村,大岭头自然村,上尹峰自然村)","startTime":"2019-08-22 10:16:37","stopDate":"2019-08-22 13:30:37","orgNo":"3340150","typeCode":"电网故障停限电","poweroffArea":"35kV西武变:旧县T225线-合岭村4号公变后段","poweroffReason":"高压开关跳闸","powerTime":"2019-08-22 13:11:15","powerComm":"已送电","subsNo":"","lineNo":"","tgNo":"","tgName":null,"infoStatus":"1","orgName":"国网浙江桐庐县供电公司","typeName":null,"infoStatusName":null,"dateDay":null,"orgNos":null,"nowTime":null,"countyName":null,"streetName":null,"villageName":null,"roadName":null,"communityName":null,"tranName":null,"sdLineName":null,"cityCode":"3340150","cityName":"国网浙江桐庐县供电公司","provinceCode":null,"stopTime":"2019-08-22 13:30:37","powerType":"全部","powerOffArea":"35kV西武变:旧县T225线-合岭村4号公变后段","powerOffReason":"高压开关跳闸","powerOffId":"2019082231020104"},{"poweroffId":2019082231020092,"sgpoweroffId":null,"subsName":"","lineName":"10kV尚品G837线","pubTranName":"北秀向阳苑西区7号公变,","scope":"浙江省-杭州市-余杭区-崇贤街道-向阳行政村-塘康路一带","startTime":"2019-08-22 09:54:00","stopDate":"2019-08-22 11:45:00","orgNo":"3340140","typeCode":"电网故障停限电","poweroffArea":"110kV北庄变:尚品G837线崇贤北秀向阳苑西区7#公变配变","poweroffReason":"(低压停电信息)低压开关跳闸","powerTime":"2019-08-22 11:00:00","powerComm":"已送电","subsNo":"","lineNo":"","tgNo":"","tgName":null,"infoStatus":"1","orgName":"国网浙江杭州市余杭区供电有限公司","typeName":null,"infoStatusName":null,"dateDay":null,"orgNos":null,"nowTime":null,"countyName":null,"streetName":null,"villageName":null,"roadName":null,"communityName":null,"tranName":null,"sdLineName":null,"cityCode":"3340140","cityName":"国网浙江杭州市余杭区供电有限公司","provinceCode":null,"stopTime":"2019-08-22 11:45:00","powerType":"全部","powerOffArea":"110kV北庄变:尚品G837线崇贤北秀向阳苑西区7#公变配变","powerOffReason":"(低压停电信息)低压开关跳闸","powerOffId":"2019082231020092"},{"poweroffId":2019082231020081,"sgpoweroffId":null,"subsName":"","lineName":"10kV江北Y207线","pubTranName":"时代1#公变,","scope":"浙江省-杭州市-建德市-新安江街道-府西社区 桥西巷,临江花苑小区一带用户。","startTime":"2019-08-22 09:00:00","stopDate":"2019-08-22 10:20:00","orgNo":"3340180","typeCode":"电网故障停限电","poweroffArea":"110kV白沙变:江北Y207线-时代1#公变后段","poweroffReason":"(低压停电信息)低压开关跳闸 原预计停电结束时间12:00，目前故障已修复，现将停电时间变更至10:20。","powerTime":"2019-08-22 09:44:00","powerComm":"已送电","subsNo":"","lineNo":"","tgNo":"","tgName":null,"infoStatus":"1","orgName":"国网浙江建德市供电有限公司","typeName":null,"infoStatusName":null,"dateDay":null,"orgNos":null,"nowTime":null,"countyName":null,"streetName":null,"villageName":null,"roadName":null,"communityName":null,"tranName":null,"sdLineName":null,"cityCode":"3340180","cityName":"国网浙江建德市供电有限公司","provinceCode":null,"stopTime":"2019-08-22 10:20:00","powerType":"全部","powerOffArea":"110kV白沙变:江北Y207线-时代1#公变后段","powerOffReason":"(低压停电信息)低压开关跳闸 原预计停电结束时间12:00，目前故障已修复，现将停电时间变更至10:20。","powerOffId":"2019082231020081"},{"poweroffId":2019082231020032,"sgpoweroffId":null,"subsName":"","lineName":"10kV永富C980线","pubTranName":"康美塑化,永富村6#变,万通塑胶,杭州莹飞塑胶有限公司,杭州业新钢结构有限公司,变压器,永富村16#变,永富村15#变,永富村11#变,永富村17#变,大石盖10#变,杭州普立希机械设备有限公司,杭州天地人和休闲用品有限公司,杭州华越塑料有限公司,同泽塑业,永富村13#变,永富村4#变,杭州萧山电力水泥制品实验厂,杭州市萧山区义桥镇人民政府（积堰山机埠）1#,杭州三巨汽配有限公司,杭州恒笛纺织印花有限公司,三巨汽配,永富村12#变,大石盖6#变,1#,杭州舒易家具有限公司,永富村19#变,大石盖7#变,永富村5#变,杭州市萧山区戴村人民政府,永富村7#变,永富村18#变,永富村3#变,杭州市萧山区义桥镇人民政府（积堰山机埠）2#,永富村14#变,永富村2#变,永富村10#变,2#,三巨汽配,永富村8#变,同创实业,永富村1#变,永富村9#变,都拓科技,","scope":"浙江省-杭州市-萧山区-戴村镇-大石盖行政村(畈里自然村,石盖自然村),戴村镇-永富行政村(建民自然村,积堰山自然村,姚家山下自然村,马安自然村,冗里自然村,新宅自然村,黄洞岭自然村,山坎头自然村,小东坞自然村,大东坞自然村);浙江省-杭州市-萧山区-义桥镇-徐童山下行政村-杭州市萧山区义桥镇人民政府,戴村镇-大石盖行政村(杭州舒易家具有限公司,杭州都拓科技有限公司,杭州佳龙光学玻璃有限公司,杭州恒笛纺织印花有限公司,杭州普立希机械设备有限公司,杭州市萧山区戴村镇人民政府,杭州业新钢结构有限公司,杭州三巨汽配有限公司),戴村镇-永富行政村(杭州杭冶机械有限公司,杭州莹飞塑胶有限公司,杭州同创实业有限公司,杭州汇锆特铸造有限公司,杭州万通塑胶有限公司,杭州康美塑化有限公司,杭州同泽塑业有限公司,杭州华越塑料有限公司),戴村镇(南三行政村-杭州天地人和休闲用品有限公司,灵山行政村-杭州伟民农业开发有限公司)等一带","startTime":"2019-08-22 07:19:35","stopDate":"2019-08-22 09:19:35","orgNo":"3340130","typeCode":"电网故障停限电","poweroffArea":"110kV永兴变:永富C980线-永富C9801开关后段","poweroffReason":"高压架空线路断线故障","powerTime":"2019-08-22 08:24:23","powerComm":"已送电","subsNo":"","lineNo":"","tgNo":"","tgName":null,"infoStatus":"1","orgName":"国网浙江杭州市萧山区供电有限公司","typeName":null,"infoStatusName":null,"dateDay":null,"orgNos":null,"nowTime":null,"countyName":null,"streetName":null,"villageName":null,"roadName":null,"communityName":null,"tranName":null,"sdLineName":null,"cityCode":"3340130","cityName":"国网浙江杭州市萧山区供电有限公司","provinceCode":null,"stopTime":"2019-08-22 09:19:35","powerType":"全部","powerOffArea":"110kV永兴变:永富C980线-永富C9801开关后段","powerOffReason":"高压架空线路断线故障","powerOffId":"2019082231020032"},{"poweroffId":2019082231020018,"sgpoweroffId":null,"subsName":"","lineName":"10kV育才D812线","pubTranName":"春秋苑1#变,德邑上城七号变,后戴3#公变,春秋苑2#变,","scope":"浙江省-杭州市-富阳区-富春街道-后周社区(戴家墩路,春秋北路,春秋北路169弄)","startTime":"2019-08-22 06:15:00","stopDate":"2019-08-22 08:15:00","orgNo":"3340170","typeCode":"电网故障停限电","poweroffArea":"110kV容大变:育才D812线德邑上城开关站育德D8126线开关后段","poweroffReason":"高压开关跳闸","powerTime":"2019-08-22 07:24:14","powerComm":"已送电","subsNo":"","lineNo":"","tgNo":"","tgName":null,"infoStatus":"1","orgName":"国网浙江杭州市富阳区供电公司","typeName":null,"infoStatusName":null,"dateDay":null,"orgNos":null,"nowTime":null,"countyName":null,"streetName":null,"villageName":null,"roadName":null,"communityName":null,"tranName":null,"sdLineName":null,"cityCode":"3340170","cityName":"国网浙江杭州市富阳区供电公司","provinceCode":null,"stopTime":"2019-08-22 08:15:00","powerType":"全部","powerOffArea":"110kV容大变:育才D812线德邑上城开关站育德D8126线开关后段","powerOffReason":"高压开关跳闸","powerOffId":"2019082231020018"},{"poweroffId":2019082231020013,"sgpoweroffId":null,"subsName":"","lineName":"10kV天风840线","pubTranName":"旧藩变,","scope":"浙江省-杭州市-上城区-清波街道(清河坊社区-粮道山,清波门社区-三衙前),江干区-采荷街道-夕照社区-秋涛路,上城区-小营街道-葵巷社区-环城东路","startTime":"2019-08-22 05:54:43","stopDate":"2019-08-22 07:58:21","orgNo":"3340101","typeCode":"电网故障停限电","poweroffArea":"110kV涌金变:天风840线-旧藩变后段","poweroffReason":"高压开关跳闸 原预计停电结束时间2019-08-22 11:54:43,由于施工现场环境比较复杂，存在不确定因素，因此预估施工时间适当放长了，而实际施工进行得比较顺利，因此提前送电了","powerTime":"2019-08-22 07:18:30","powerComm":"已送电","subsNo":"","lineNo":"","tgNo":"","tgName":null,"infoStatus":"1","orgName":"浙江杭州电力客户服务中心","typeName":null,"infoStatusName":null,"dateDay":null,"orgNos":null,"nowTime":null,"countyName":null,"streetName":null,"villageName":null,"roadName":null,"communityName":null,"tranName":null,"sdLineName":null,"cityCode":"3340101","cityName":"浙江杭州电力客户服务中心","provinceCode":null,"stopTime":"2019-08-22 07:58:21","powerType":"全部","powerOffArea":"110kV涌金变:天风840线-旧藩变后段","powerOffReason":"高压开关跳闸 原预计停电结束时间2019-08-22 11:54:43,由于施工现场环境比较复杂，存在不确定因素，因此预估施工时间适当放长了，而实际施工进行得比较顺利，因此提前送电了","powerOffId":"2019082231020013"},{"poweroffId":2019082131020313,"sgpoweroffId":null,"subsName":"","lineName":"10kV梅城Y120线","pubTranName":"梅城集镇龙山公变,","scope":"浙江省-杭州市-建德市-梅城镇-龙山村-龙山公寓一带用户。","startTime":"2019-08-21 21:28:00","stopDate":"2019-08-21 23:59:00","orgNo":"3340180","typeCode":"电网故障停限电","poweroffArea":"110kV梅城变:梅城Y120线-梅城集镇龙山公变后段","poweroffReason":"(低压停电信息)过负荷导致低压熔芯烧故障（原预计停电结束时间23:00，由于施工现场环境比较复杂，存在不确定因素，因此预估施工时间不足，延迟送电至23:59.）","powerTime":"2019-08-21 23:23:00","powerComm":"已送电","subsNo":"","lineNo":"","tgNo":"","tgName":null,"infoStatus":"1","orgName":"国网浙江建德市供电有限公司","typeName":null,"infoStatusName":null,"dateDay":null,"orgNos":null,"nowTime":null,"countyName":null,"streetName":null,"villageName":null,"roadName":null,"communityName":null,"tranName":null,"sdLineName":null,"cityCode":"3340180","cityName":"国网浙江建德市供电有限公司","provinceCode":null,"stopTime":"2019-08-21 23:59:00","powerType":"全部","powerOffArea":"110kV梅城变:梅城Y120线-梅城集镇龙山公变后段","powerOffReason":"(低压停电信息)过负荷导致低压熔芯烧故障（原预计停电结束时间23:00，由于施工现场环境比较复杂，存在不确定因素，因此预估施工时间不足，延迟送电至23:59.）","powerOffId":"2019082131020313"}],"pageModel":{"pageNow":1217,"totalCount":17789,"totalPage":1779,"tableRows":0,"pageCount":10,"beginCount":12160},"isExperi":"1"}