{"message":"","today":"2020-06-16","seleList":[{"poweroffId":2019082131020167,"sgpoweroffId":null,"subsName":"","lineName":"10kV沙程Y200线","pubTranName":"建工路102015公变,","scope":"浙江省-杭州市-建德市-新安江街道-罗桐社区 新安路,建工路,江滨路，近江花园一带用户。","startTime":"2019-08-21 12:45:00","stopDate":"2019-08-21 14:30:00","orgNo":"3340180","typeCode":"电网故障停限电","poweroffArea":"110kV白沙变:沙程Y200线-建工路102015公变后段","poweroffReason":"(低压停电信息)过负荷导致低压开关跳闸（原预计停电结束时间16:00，由于施工现场环境比较复杂，存在不确定因素，因此预估施工时间适当放长了，目前故障已修复，现将停电时间变更至14:30。）","powerTime":"2019-08-21 13:45:00","powerComm":"已送电","subsNo":"","lineNo":"","tgNo":"","tgName":null,"infoStatus":"1","orgName":"国网浙江建德市供电有限公司","typeName":null,"infoStatusName":null,"dateDay":null,"orgNos":null,"nowTime":null,"countyName":null,"streetName":null,"villageName":null,"roadName":null,"communityName":null,"tranName":null,"sdLineName":null,"cityCode":"3340180","cityName":"国网浙江建德市供电有限公司","provinceCode":null,"stopTime":"2019-08-21 14:30:00","powerType":"全部","powerOffArea":"110kV白沙变:沙程Y200线-建工路102015公变后段","powerOffReason":"(低压停电信息)过负荷导致低压开关跳闸（原预计停电结束时间16:00，由于施工现场环境比较复杂，存在不确定因素，因此预估施工时间适当放长了，目前故障已修复，现将停电时间变更至14:30。）","powerOffId":"2019082131020167"},{"poweroffId":2019082131020162,"sgpoweroffId":null,"subsName":"","lineName":"10kV九房H379线","pubTranName":"东莲村王家门前公变,","scope":"浙江省-杭州市-余杭区-良渚街道-七贤桥行政村-九曲桥自然村","startTime":"2019-08-21 12:15:00","stopDate":"2019-08-21 14:30:00","orgNo":"3340140","typeCode":"电网故障停限电","poweroffArea":"110kV学里变:九房H379线-东莲村王家门前公变后段","poweroffReason":"(低压停电信息)低压开关跳闸","powerTime":"2019-08-21 14:00:00","powerComm":"已送电","subsNo":"","lineNo":"","tgNo":"","tgName":null,"infoStatus":"1","orgName":"国网浙江杭州市余杭区供电有限公司","typeName":null,"infoStatusName":null,"dateDay":null,"orgNos":null,"nowTime":null,"countyName":null,"streetName":null,"villageName":null,"roadName":null,"communityName":null,"tranName":null,"sdLineName":null,"cityCode":"3340140","cityName":"国网浙江杭州市余杭区供电有限公司","provinceCode":null,"stopTime":"2019-08-21 14:30:00","powerType":"全部","powerOffArea":"110kV学里变:九房H379线-东莲村王家门前公变后段","powerOffReason":"(低压停电信息)低压开关跳闸","powerOffId":"2019082131020162"},{"poweroffId":2019082131020160,"sgpoweroffId":null,"subsName":"","lineName":"10kV南华A219线","pubTranName":"塞得克金属,兆丰汽车零配件制造2#,曼雅琪服饰,1#,乐思达,红垦农场三阳安居房2#公变,永固汽车零部件,兆丰汽车零配件制造1#,杭州市萧山区红垦农场1#,精视电子,丰佳五金,红垦农场三阳安居房1#公变,省送变电,裕隆涂装,1#,精视电子2#,红垦农场1#公变,兆丰机电1#,红垦农场三阳安居房3#公变,明洋塑胶,红垦农场2#公变,2#变,市北农机,1#,浙江省送变电,","scope":"浙江省-杭州市-萧山区-新街镇、新街街道-红垦社区、红垦小区,红泰三路,垦辉二路,红垦路,垦辉二路13号、经济技术开发区-红垦社区(浙江省送电工程有限公司,杭州利程制有限公司,浙江兆丰机电股份有限公司,杭州伟乐包装印刷有限公司,杭州丰佳实业有限公司,杭州永固汽车零部件有限公司,赛德克金属表面处理技术(杭州)有限公司,杭州曼雅琪服饰有限公司,杭州萧山市北农机有限公司,杭州精视电子有限公司,杭州裕隆涂装工程有限公司,杭州市萧山区红垦农场,杭州萧山经济技术开发区国有资产经营有限公司,经济技术开发区(市北社区-浙江乐思达消防电器有限公司,红垦农场-杭州市萧山区红垦农场、萧山区经济技术开发区红垦农场、萧山区新街街道红垦小区、杭州市萧山区红垦农场等一带","startTime":"2019-08-21 11:55:19","stopDate":"2019-08-21 14:11:37","orgNo":"3340130","typeCode":"电网故障停限电","poweroffArea":"110kV先锋变:南华A219线开关后段","poweroffReason":"高压柱上断路器短路故障 原停电结束时间：2019-08-21 15:02:19，变更停电结束时间：2019-08-21 14:11:37，由于增派人员，抢修提前完成，故需要提前送电。","powerTime":"2019-08-21 13:16:33","powerComm":"已送电","subsNo":"","lineNo":"","tgNo":"","tgName":null,"infoStatus":"1","orgName":"国网浙江杭州市萧山区供电有限公司","typeName":null,"infoStatusName":null,"dateDay":null,"orgNos":null,"nowTime":null,"countyName":null,"streetName":null,"villageName":null,"roadName":null,"communityName":null,"tranName":null,"sdLineName":null,"cityCode":"3340130","cityName":"国网浙江杭州市萧山区供电有限公司","provinceCode":null,"stopTime":"2019-08-21 14:11:37","powerType":"全部","powerOffArea":"110kV先锋变:南华A219线开关后段","powerOffReason":"高压柱上断路器短路故障 原停电结束时间：2019-08-21 15:02:19，变更停电结束时间：2019-08-21 14:11:37，由于增派人员，抢修提前完成，故需要提前送电。","powerOffId":"2019082131020160"},{"poweroffId":2019082131020140,"sgpoweroffId":null,"subsName":"","lineName":"10kV海洋8650线","pubTranName":"速中(2),","scope":"浙江省-杭州市-西湖区-西溪街道-西溪河东社区(西溪河东,西溪河东路),西溪街道-求智社区(西溪河东,西溪河东路,文三路)","startTime":"2019-08-21 10:51:42","stopDate":"2019-08-21 12:51:42","orgNo":"3340101","typeCode":"电网故障停限电","poweroffArea":"220kV庆丰变:海洋8650线-速中(2)","poweroffReason":"高压开关跳闸","powerTime":"2019-08-21 12:02:21","powerComm":"送电","subsNo":"","lineNo":"","tgNo":"","tgName":null,"infoStatus":"1","orgName":"浙江杭州电力客户服务中心","typeName":null,"infoStatusName":null,"dateDay":null,"orgNos":null,"nowTime":null,"countyName":null,"streetName":null,"villageName":null,"roadName":null,"communityName":null,"tranName":null,"sdLineName":null,"cityCode":"3340101","cityName":"浙江杭州电力客户服务中心","provinceCode":null,"stopTime":"2019-08-21 12:51:42","powerType":"全部","powerOffArea":"220kV庆丰变:海洋8650线-速中(2)","powerOffReason":"高压开关跳闸","powerOffId":"2019082131020140"},{"poweroffId":2019082131020100,"sgpoweroffId":null,"subsName":"","lineName":"10kV河桥V781线","pubTranName":"中鑫村上卜（下方家）,秀溪村秀下杨干,杭州临安上卜砩石矿,上卜村,杭州宁远农业技术开发有限公司,秀下章屋里,秀下村村中,秀下村项家,杭州宁远农业技术开发有限公司,秀溪村洞坞,上卜村里东家,","scope":"浙江省-杭州市-临安市-河桥镇-中鑫村上卜,秀溪村,秀下,双溪，杭州宁远农业技术开发有限公司,杭州临安上卜砩石矿一带。","startTime":"2019-08-29 07:30:00","stopDate":"2019-08-29 10:30:00","orgNo":"3340160","typeCode":"计划停电","poweroffArea":"35kV湍口变:河桥V781线7814开关至7816开关之间","poweroffReason":"优质工程整改","powerTime":"2019-08-29 10:20:48","powerComm":"已送电","subsNo":"","lineNo":"","tgNo":"","tgName":null,"infoStatus":"1","orgName":"国网浙江临安市供电公司","typeName":null,"infoStatusName":null,"dateDay":null,"orgNos":null,"nowTime":null,"countyName":null,"streetName":null,"villageName":null,"roadName":null,"communityName":null,"tranName":null,"sdLineName":null,"cityCode":"3340160","cityName":"国网浙江临安市供电公司","provinceCode":null,"stopTime":"2019-08-29 10:30:00","powerType":"全部","powerOffArea":"35kV湍口变:河桥V781线7814开关至7816开关之间","powerOffReason":"优质工程整改","powerOffId":"2019082131020100"},{"poweroffId":2019082131020099,"sgpoweroffId":null,"subsName":"","lineName":"10kV湍河V301线","pubTranName":"临安市河桥轧石场,临安市昌化公路工程处,昌文公路改建工程路面项目部,朱下村(一),朱下村（二）,誉光村(二)荷村,临安市青龙山水电开发有限公司（厂用电）,临安市华裕水电开发有限公司(青龙山水电站),","scope":"浙江省-杭州市-临安市-河桥镇-中鑫村朱下、誉光村,河桥村，临安市青龙山水电开发有限公司，临安市河桥轧石场一带。","startTime":"2019-08-29 07:30:00","stopDate":"2019-08-29 10:30:00","orgNo":"3340160","typeCode":"计划停电","poweroffArea":"35kV湍口变:湍河V301线首端，3014开关，3016之间","poweroffReason":"优质工程整改","powerTime":"2019-08-29 10:21:17","powerComm":"已送电","subsNo":"","lineNo":"","tgNo":"","tgName":null,"infoStatus":"1","orgName":"国网浙江临安市供电公司","typeName":null,"infoStatusName":null,"dateDay":null,"orgNos":null,"nowTime":null,"countyName":null,"streetName":null,"villageName":null,"roadName":null,"communityName":null,"tranName":null,"sdLineName":null,"cityCode":"3340160","cityName":"国网浙江临安市供电公司","provinceCode":null,"stopTime":"2019-08-29 10:30:00","powerType":"全部","powerOffArea":"35kV湍口变:湍河V301线首端，3014开关，3016之间","powerOffReason":"优质工程整改","powerOffId":"2019082131020099"},{"poweroffId":2019082131020097,"sgpoweroffId":null,"subsName":"","lineName":"10kV锻造C334线","pubTranName":"沿塘村2#变,","scope":"浙江省-杭州市-萧山区-瓜沥镇-沿塘行政村(方家直路,宁围路,高塘路,四组横路,沿塘自然村)、瓜沥镇沿塘村一带","startTime":"2019-08-21 09:15:42","stopDate":"2019-08-21 12:20:42","orgNo":"3340130","typeCode":"电网故障停限电","poweroffArea":"110kV沿塘变:锻造C334线-沿塘村2#变台区低压开关","poweroffReason":"(低压停电信息)低压漏电保护器短路故障","powerTime":"2019-08-21 11:25:42","powerComm":"已送电","subsNo":"","lineNo":"","tgNo":"","tgName":null,"infoStatus":"1","orgName":"国网浙江杭州市萧山区供电有限公司","typeName":null,"infoStatusName":null,"dateDay":null,"orgNos":null,"nowTime":null,"countyName":null,"streetName":null,"villageName":null,"roadName":null,"communityName":null,"tranName":null,"sdLineName":null,"cityCode":"3340130","cityName":"国网浙江杭州市萧山区供电有限公司","provinceCode":null,"stopTime":"2019-08-21 12:20:42","powerType":"全部","powerOffArea":"110kV沿塘变:锻造C334线-沿塘村2#变台区低压开关","powerOffReason":"(低压停电信息)低压漏电保护器短路故障","powerOffId":"2019082131020097"},{"poweroffId":2019082131020094,"sgpoweroffId":null,"subsName":"","lineName":"10kV塔山D136线","pubTranName":"葛溪路1#登城公变,","scope":"浙江省-杭州市-富阳区-新登镇-登云社区(新兴路,新兴街,新兴街九弄,新兴西路,共和南路,葛溪西路,城河西路,葛溪路,新兴街七弄),新登镇(东安社区-登云南路,惠来社区-葛溪西路,古城社区-共和南路)","startTime":"2019-08-21 09:25:53","stopDate":"2019-08-21 11:00:53","orgNo":"3340170","typeCode":"电网故障停限电","poweroffArea":"110kV新登变:塔山D136线-葛溪路1#登城公变后段","poweroffReason":"(低压停电信息)低压开关跳闸 原停电结束时间为2019-08-21 12:30:53，因现场抢修力量加强变更至2019-08-21 11:00:53","powerTime":"2019-08-21 10:37:00","powerComm":"已送电","subsNo":"","lineNo":"","tgNo":"","tgName":null,"infoStatus":"1","orgName":"国网浙江杭州市富阳区供电公司","typeName":null,"infoStatusName":null,"dateDay":null,"orgNos":null,"nowTime":null,"countyName":null,"streetName":null,"villageName":null,"roadName":null,"communityName":null,"tranName":null,"sdLineName":null,"cityCode":"3340170","cityName":"国网浙江杭州市富阳区供电公司","provinceCode":null,"stopTime":"2019-08-21 11:00:53","powerType":"全部","powerOffArea":"110kV新登变:塔山D136线-葛溪路1#登城公变后段","powerOffReason":"(低压停电信息)低压开关跳闸 原停电结束时间为2019-08-21 12:30:53，因现场抢修力量加强变更至2019-08-21 11:00:53","powerOffId":"2019082131020094"},{"poweroffId":2019082131020090,"sgpoweroffId":null,"subsName":"","lineName":"10kV富丽C115线","pubTranName":"富丽公变,","scope":"浙江省-杭州市-萧山区-城厢街道(燕子河社区-萧绍路,梅花楼社区-萧绍路)、富丽花园、富丽花园12幢一带","startTime":"2019-08-21 09:17:20","stopDate":"2019-08-21 11:00:00","orgNo":"3340130","typeCode":"电网故障停限电","poweroffArea":"110kV丽都变:富丽C115线-富丽公变台区低压开关","poweroffReason":"（低压停电信息）低压漏电保护器短路故障 原停电结束时间：2019-08-21 13:00:00，变更停电结束时间：2019-08-21 11:00:00，变更停电结束时间原因：由于抢修工作提前结束，故需要提前送电。","powerTime":"2019-08-21 10:19:43","powerComm":"已送电","subsNo":"","lineNo":"","tgNo":"","tgName":null,"infoStatus":"1","orgName":"国网浙江杭州市萧山区供电有限公司","typeName":null,"infoStatusName":null,"dateDay":null,"orgNos":null,"nowTime":null,"countyName":null,"streetName":null,"villageName":null,"roadName":null,"communityName":null,"tranName":null,"sdLineName":null,"cityCode":"3340130","cityName":"国网浙江杭州市萧山区供电有限公司","provinceCode":null,"stopTime":"2019-08-21 11:00:00","powerType":"全部","powerOffArea":"110kV丽都变:富丽C115线-富丽公变台区低压开关","powerOffReason":"（低压停电信息）低压漏电保护器短路故障 原停电结束时间：2019-08-21 13:00:00，变更停电结束时间：2019-08-21 11:00:00，变更停电结束时间原因：由于抢修工作提前结束，故需要提前送电。","powerOffId":"2019082131020090"},{"poweroffId":2019082131020068,"sgpoweroffId":null,"subsName":"","lineName":"10kV铁矿H726线","pubTranName":"融辉置业2#基建变,融辉置业3#基建,融辉置业1#基建变,","scope":"浙江省-杭州市-余杭区-闲林街道-杭州融辉置业有限公司一带","startTime":"2019-08-21 08:40:00","stopDate":"2019-08-21 10:40:00","orgNo":"3340140","typeCode":"电网故障停限电","poweroffArea":"110kV闲林变:铁矿H726线融辉基建分线开关后段","poweroffReason":"高压开关跳闸","powerTime":"2019-08-21 09:55:00","powerComm":"已送电","subsNo":"","lineNo":"","tgNo":"","tgName":null,"infoStatus":"1","orgName":"国网浙江杭州市余杭区供电有限公司","typeName":null,"infoStatusName":null,"dateDay":null,"orgNos":null,"nowTime":null,"countyName":null,"streetName":null,"villageName":null,"roadName":null,"communityName":null,"tranName":null,"sdLineName":null,"cityCode":"3340140","cityName":"国网浙江杭州市余杭区供电有限公司","provinceCode":null,"stopTime":"2019-08-21 10:40:00","powerType":"全部","powerOffArea":"110kV闲林变:铁矿H726线融辉基建分线开关后段","powerOffReason":"高压开关跳闸","powerOffId":"2019082131020068"}],"pageModel":{"pageNow":1219,"totalCount":17789,"totalPage":1779,"tableRows":0,"pageCount":10,"beginCount":12180},"isExperi":"1"}