{"message":"","today":"2020-06-16","seleList":[{"poweroffId":2019082131020058,"sgpoweroffId":null,"subsName":"","lineName":"10kV群英C653线","pubTranName":"勤联村16#变,","scope":"浙江省-杭州市-萧山区-党湾镇-勤联行政村-勤联自然村、党湾镇勤联村、党湾镇勤联村14组一带","startTime":"2019-08-21 08:25:33","stopDate":"2019-08-21 12:20:33","orgNo":"3340130","typeCode":"电网故障停限电","poweroffArea":"35kV益农变:群英C653线-勤联村16#变台区低压开关","poweroffReason":"(低压停电信息)低压漏电保护器短路故障","powerTime":"2019-08-21 11:52:35","powerComm":"已送电","subsNo":"","lineNo":"","tgNo":"","tgName":null,"infoStatus":"1","orgName":"国网浙江杭州市萧山区供电有限公司","typeName":null,"infoStatusName":null,"dateDay":null,"orgNos":null,"nowTime":null,"countyName":null,"streetName":null,"villageName":null,"roadName":null,"communityName":null,"tranName":null,"sdLineName":null,"cityCode":"3340130","cityName":"国网浙江杭州市萧山区供电有限公司","provinceCode":null,"stopTime":"2019-08-21 12:20:33","powerType":"全部","powerOffArea":"35kV益农变:群英C653线-勤联村16#变台区低压开关","powerOffReason":"(低压停电信息)低压漏电保护器短路故障","powerOffId":"2019082131020058"},{"poweroffId":2019082131020042,"sgpoweroffId":null,"subsName":"","lineName":"10kV江南Y137线","pubTranName":"乾潭村杳岭脚台区,","scope":"浙江省-杭州市-建德市-乾潭镇-乾潭行政村-杳岭脚自然村一带用户","startTime":"2019-08-21 07:45:00","stopDate":"2019-08-21 15:00:00","orgNo":"3340180","typeCode":"电网故障停限电","poweroffArea":"110kV乾潭变:江南Y137线-乾潭村杳岭脚台区后段","poweroffReason":"(低压停电信息)低压开关跳闸（原预计停电结束时间18:00，由于施工现场环境比较复杂，存在不确定因素，因此预估施工时间适当放长了，目前故障已修复，现将停电时间变更至15:00。）","powerTime":"2019-08-21 14:45:00","powerComm":"已送电","subsNo":"","lineNo":"","tgNo":"","tgName":null,"infoStatus":"1","orgName":"国网浙江建德市供电有限公司","typeName":null,"infoStatusName":null,"dateDay":null,"orgNos":null,"nowTime":null,"countyName":null,"streetName":null,"villageName":null,"roadName":null,"communityName":null,"tranName":null,"sdLineName":null,"cityCode":"3340180","cityName":"国网浙江建德市供电有限公司","provinceCode":null,"stopTime":"2019-08-21 15:00:00","powerType":"全部","powerOffArea":"110kV乾潭变:江南Y137线-乾潭村杳岭脚台区后段","powerOffReason":"(低压停电信息)低压开关跳闸（原预计停电结束时间18:00，由于施工现场环境比较复杂，存在不确定因素，因此预估施工时间适当放长了，目前故障已修复，现将停电时间变更至15:00。）","powerOffId":"2019082131020042"},{"poweroffId":2019082131020034,"sgpoweroffId":null,"subsName":"","lineName":"10kV子陵T124线","pubTranName":"镇委2号公变,","scope":"浙江省-杭州市-桐庐县-富春江镇-大洋坪社区(七里泷大街,春江路),富春江镇(横山行政村-横山自然村,七里泷行政村-邵家自然村)","startTime":"2019-08-21 07:33:36","stopDate":"2019-08-21 12:33:36","orgNo":"3340150","typeCode":"电网故障停限电","poweroffArea":"110kV外董变:子陵T124线-镇委2号公变后段","poweroffReason":"高压开关跳闸","powerTime":"2019-08-21 12:06:11","powerComm":"全部送电","subsNo":"","lineNo":"","tgNo":"","tgName":null,"infoStatus":"1","orgName":"国网浙江桐庐县供电公司","typeName":null,"infoStatusName":null,"dateDay":null,"orgNos":null,"nowTime":null,"countyName":null,"streetName":null,"villageName":null,"roadName":null,"communityName":null,"tranName":null,"sdLineName":null,"cityCode":"3340150","cityName":"国网浙江桐庐县供电公司","provinceCode":null,"stopTime":"2019-08-21 12:33:36","powerType":"全部","powerOffArea":"110kV外董变:子陵T124线-镇委2号公变后段","powerOffReason":"高压开关跳闸","powerOffId":"2019082131020034"},{"poweroffId":2019082131020017,"sgpoweroffId":null,"subsName":"","lineName":"10kV工厂D125线","pubTranName":"杭州富阳博纳水净化设备有限公司,杭州富阳美术印刷有限公司1#变,富阳市路灯安装维修管理所1#变,金塑机械,杭州桑尼能源科技有限公司富阳分公司,谈山1#公变,富阳市洪泰胶木电器有限公司,杭州裕华钢网有限公司1#,富阳威佛尔塑机有限公司,浙江润源电力技术有限公司,杭州裕华钢网有限公司2#,杭州佳瑞五金制品有限公司,新登建设2#,城投福利中心1#变,富阳大山纸盒厂,塔山村3#城北孝弯里公变,塔山村2#城北罗家公变,杭州富阳区新登镇月琴家庭农场1#变,富阳市新登镇成人文化技术学校,方圆塑机1#变,方圆塑机2#变,新登建设1#,塔山村3号朱家公变,鑫鹏旧货贸易1#变,天龙皮业,塔山村1号城北钢办山公变,塔山村6#城北三里亭公变,杭州中软塑胶有限公司,塔山村5#城北七家坞公变,","scope":"浙江省-杭州市-富阳区-新登镇-塔山行政村(城北自然村,朱家自然村),新登镇-惠来社区(登城北路,工厂路,新兴西路,塔山湾,塔山村,塔山朱家,塔山童家),新登镇(乘庄行政村-牧场自然村,双江行政村-双江自然村,登云社区-新兴西路,双庙行政村-双庙自然村);新登镇(杭州富阳洪泰胶木电器有限公司,富阳市新登镇成人文化技术学校,杭州富阳城市照明工程有限公司,杭州长森五金制品有限公司,杭州富阳新登城镇建设投资集团有限公司,杭州富阳新登小城市建设有限公司,杭州富阳鑫鹏旧货贸易有限公司,杭州富阳博纳水净化设备有限公司,杭州威佛尔建材有限公司,杭州裕华钢网有限公司,杭州富阳大山纸盒厂,杭州桑尼能源科技股份有限公司富阳分公司,杭州方圆塑机股份有限公司,杭州富阳金塑机械有限公司,杭州富阳美术印刷有限公司,杭州天龙皮业有限公司,杭州中软塑胶有限公司,杭州富阳亿源实业有限公司,杭州富阳区新登镇月琴家庭农场)","startTime":"2019-08-21 06:38:00","stopDate":"2019-08-21 08:38:00","orgNo":"3340170","typeCode":"电网故障停限电","poweroffArea":"110kV新登变:工厂D125线工厂D1252开关后段","poweroffReason":"高压开关跳闸","powerTime":"2019-08-21 07:40:11","powerComm":"已送电","subsNo":"","lineNo":"","tgNo":"","tgName":null,"infoStatus":"1","orgName":"国网浙江杭州市富阳区供电公司","typeName":null,"infoStatusName":null,"dateDay":null,"orgNos":null,"nowTime":null,"countyName":null,"streetName":null,"villageName":null,"roadName":null,"communityName":null,"tranName":null,"sdLineName":null,"cityCode":"3340170","cityName":"国网浙江杭州市富阳区供电公司","provinceCode":null,"stopTime":"2019-08-21 08:38:00","powerType":"全部","powerOffArea":"110kV新登变:工厂D125线工厂D1252开关后段","powerOffReason":"高压开关跳闸","powerOffId":"2019082131020017"},{"poweroffId":2019082131020016,"sgpoweroffId":null,"subsName":"","lineName":"10kV沙大Y203线","pubTranName":"望江1#公变,","scope":"浙江省-杭州市-建德市-新安江街道-明珠社区- 望江豪庭一带用户","startTime":"2019-08-21 06:15:00","stopDate":"2019-08-21 07:50:00","orgNo":"3340180","typeCode":"电网故障停限电","poweroffArea":"110kV白沙变:沙大Y203线-望江1#公变后段","poweroffReason":"(低压停电信息)低压开关跳闸","powerTime":"2019-08-21 07:00:00","powerComm":"已送电","subsNo":"","lineNo":"","tgNo":"","tgName":null,"infoStatus":"1","orgName":"国网浙江建德市供电有限公司","typeName":null,"infoStatusName":null,"dateDay":null,"orgNos":null,"nowTime":null,"countyName":null,"streetName":null,"villageName":null,"roadName":null,"communityName":null,"tranName":null,"sdLineName":null,"cityCode":"3340180","cityName":"国网浙江建德市供电有限公司","provinceCode":null,"stopTime":"2019-08-21 07:50:00","powerType":"全部","powerOffArea":"110kV白沙变:沙大Y203线-望江1#公变后段","powerOffReason":"(低压停电信息)低压开关跳闸","powerOffId":"2019082131020016"},{"poweroffId":2019082131020008,"sgpoweroffId":null,"subsName":"","lineName":"10kV径山H545线","pubTranName":"绿景村杨树畈公变,平山村下平山公变,顺帆包装6120516193,绿景村桥北堰山公变,平山村平山公变,西子农业,俞才荣6110534064,绿景村圣塘头公变,绿景村冷水桥大队公变,路灯变,绿景防水配电变压器,绿景村狄家山公变,绿景村后阳公变,平山村中平山公变,长西线5号路灯变6120449248,绿景村后诸2号公变,绿景村冷水桥老村委公变,绿景村冷水桥砖瓦厂公变,绿景村汗岭1号公变,绿景村桥北加工厂公变,绿景村路口公变,绿景村绿景塘公变,花之韵612063519801#专变,平山村黄家弄公变,长西线4号路灯变6120449247,平山村梅林公变,绿景村汗岭2号公变,利川生态,余杭轻工化工,交通项目管理6120449246,绿景村冷水桥大村公变,静嘉装饰6120491427,利川生态农业开发配电变压器,绿景村后诸1号公变,明康汇生态农业集团杭州种植有限公司6110534065,绿景村冷上公变,","scope":"浙江省-杭州市-余杭区-径山镇-平山头行政村(中平山组自然村,黄家墩组自然村,平山自然村,梅岭组自然村,上自然村组自然村,上平山组自然村),径山镇-绿景行政村(后诸自然村,绿景自然村,桥北自然村,冷水桥自然村,汗岭自然村,绿景塘自然村,后阳自然村,堰山自然村,圣塘头自然村,狄家山自然村,千口桥,进贤自然村,杨树畈自然村),径山镇(长乐行政村-长乐片,西山行政村-西山自然村,径山行政村-径山自然村,潘坂桥行政村-潘坂桥自然村,小古城行政村-小古城自然村);径山镇-潘坂桥行政村(明康汇生态农业集团杭州种植有限公司,俞才荣),径山镇-绿景行政村(杭州顺帆包装制品有限公司,杭州余杭化工轻工有限公司,杭州利川生态农业开发有限公司,杭州市余杭区径山镇人民政府,杭州市余杭区径山镇绿景防水材料厂,杭州静嘉装饰工程有限公司),径山镇(漕桥行政村-杭州花之韵农业投资有限公司,径山行政村-杭州西子农业开发有限公司,长乐行政村-杭州市余杭区公路管理处)一带","startTime":"2019-08-21 05:35:00","stopDate":"2019-08-21 09:35:00","orgNo":"3340140","typeCode":"电网故障停限电","poweroffArea":"110kV潘板变:径山H545线-圣塘头分线31#杆开关后段","poweroffReason":"高压开关跳闸","powerTime":"2019-08-21 09:06:00","powerComm":"已送电","subsNo":"","lineNo":"","tgNo":"","tgName":null,"infoStatus":"1","orgName":"国网浙江杭州市余杭区供电有限公司","typeName":null,"infoStatusName":null,"dateDay":null,"orgNos":null,"nowTime":null,"countyName":null,"streetName":null,"villageName":null,"roadName":null,"communityName":null,"tranName":null,"sdLineName":null,"cityCode":"3340140","cityName":"国网浙江杭州市余杭区供电有限公司","provinceCode":null,"stopTime":"2019-08-21 09:35:00","powerType":"全部","powerOffArea":"110kV潘板变:径山H545线-圣塘头分线31#杆开关后段","powerOffReason":"高压开关跳闸","powerOffId":"2019082131020008"},{"poweroffId":2019082031020323,"sgpoweroffId":null,"subsName":"","lineName":"10kV锦华T331线","pubTranName":"横富小区1号公变,","scope":"浙江省-杭州市-桐庐县-横村镇-横村行政村(横富路,锦华路，横富小区，恒付路)","startTime":"2019-08-20 23:11:31","stopDate":"2019-08-21 02:01:31","orgNo":"3340150","typeCode":"电网故障停限电","poweroffArea":"110kV横村变:锦华T331线-横富小区1号公变后段","poweroffReason":"高压开关跳闸，原定结束时间8月21日09：11：31，现变更结束时间8月21日02：01：31，原因为提前抢修完毕。","powerTime":"2019-08-21 01:42:05","powerComm":"全部送电","subsNo":"","lineNo":"","tgNo":"","tgName":null,"infoStatus":"1","orgName":"国网浙江桐庐县供电公司","typeName":null,"infoStatusName":null,"dateDay":null,"orgNos":null,"nowTime":null,"countyName":null,"streetName":null,"villageName":null,"roadName":null,"communityName":null,"tranName":null,"sdLineName":null,"cityCode":"3340150","cityName":"国网浙江桐庐县供电公司","provinceCode":null,"stopTime":"2019-08-21 02:01:31","powerType":"全部","powerOffArea":"110kV横村变:锦华T331线-横富小区1号公变后段","powerOffReason":"高压开关跳闸，原定结束时间8月21日09：11：31，现变更结束时间8月21日02：01：31，原因为提前抢修完毕。","powerOffId":"2019082031020323"},{"poweroffId":2019082031020315,"sgpoweroffId":null,"subsName":"","lineName":"10kV锦华T331线","pubTranName":"横富小区1号公变,","scope":"浙江省-杭州市-桐庐县-横村镇-横村行政村(横富路,锦华路，恒付路，横富小区)","startTime":"2019-08-20 21:23:02","stopDate":"2019-08-20 23:23:02","orgNo":"3340150","typeCode":"电网故障停限电","poweroffArea":"110kV横村变:锦华T331线-横富小区1号公变后段","poweroffReason":"高压开关跳闸","powerTime":"2019-08-20 23:10:57","powerComm":"全部送电","subsNo":"","lineNo":"","tgNo":"","tgName":null,"infoStatus":"1","orgName":"国网浙江桐庐县供电公司","typeName":null,"infoStatusName":null,"dateDay":null,"orgNos":null,"nowTime":null,"countyName":null,"streetName":null,"villageName":null,"roadName":null,"communityName":null,"tranName":null,"sdLineName":null,"cityCode":"3340150","cityName":"国网浙江桐庐县供电公司","provinceCode":null,"stopTime":"2019-08-20 23:23:02","powerType":"全部","powerOffArea":"110kV横村变:锦华T331线-横富小区1号公变后段","powerOffReason":"高压开关跳闸","powerOffId":"2019082031020315"},{"poweroffId":2019082031020309,"sgpoweroffId":null,"subsName":"","lineName":"10kV古镇8910线","pubTranName":"西新二变,道指,巡警,溪科大厦1#,茅家埠村1#,地三施九,路灯箱变,古荡充,地铁施十二2,地三施九3,西站2#,紫金公交施1#,广宿,万德,地三施九2,汽西,西党,地铁施十二1,地铁施十二3,古荡施,外汽,金泉投资2#,杭州石油,城建西,西站1#,公交施四,西站3#,茅家埠村2#,","scope":"浙江省-杭州市-西湖区-双浦镇-杭富行政村-杭富村道,古荡街道(古荡社区-西溪路,莲花社区-西溪路),留下街道(东岳社区-西溪路,留下社区-西溪路,金鱼井社区-花坞路);浙江省-杭州市-西湖区-西溪街道-花园亭社区-中天建设集团有限公司,古荡街道-古墩社区(杭州西溪科技有限公司,杭州市路灯管理所,杭州福牛投资管理有限公司,西湖区道路综合整治指挥部,杭州市西湖区城市管理局,杭州市公共交通集团有限公司),留下街道-东岳社区(西湖公安分局巡警大队,杭州玉泉物业管理有限公司,杭州市廉政教育中心,杭州索为酒店管理有限公司,浙江外事旅游股份有限公司,杭州长运客运站场有限公司,中国石化销售股份有限公司浙江杭州石油分公司)","startTime":"2019-08-20 20:53:56","stopDate":"2019-08-20 21:53:56","orgNo":"3340101","typeCode":"电网故障停限电","poweroffArea":"110kV丰潭变:古镇8910线","poweroffReason":"高压开关跳闸","powerTime":"2019-08-20 21:03:59","powerComm":"送电","subsNo":"","lineNo":"","tgNo":"","tgName":null,"infoStatus":"1","orgName":"浙江杭州电力客户服务中心","typeName":null,"infoStatusName":null,"dateDay":null,"orgNos":null,"nowTime":null,"countyName":null,"streetName":null,"villageName":null,"roadName":null,"communityName":null,"tranName":null,"sdLineName":null,"cityCode":"3340101","cityName":"浙江杭州电力客户服务中心","provinceCode":null,"stopTime":"2019-08-20 21:53:56","powerType":"全部","powerOffArea":"110kV丰潭变:古镇8910线","powerOffReason":"高压开关跳闸","powerOffId":"2019082031020309"},{"poweroffId":2019082031020288,"sgpoweroffId":null,"subsName":"","lineName":"10kV中侨T315线","pubTranName":"富春华庭3号公变,","scope":"浙江省-杭州市-桐庐县-城南街道-梅林社区-桑园路-洋洲路-富春华庭-梅溪公寓","startTime":"2019-08-20 18:00:00","stopDate":"2019-08-20 21:00:00","orgNo":"3340150","typeCode":"电网故障停限电","poweroffArea":"110kV洋洲变:中侨T315线富春华庭3号变环网站富春华庭3号公变线配变","poweroffReason":"高压开关跳闸","powerTime":"2019-08-20 20:40:50","powerComm":"全部送电","subsNo":"","lineNo":"","tgNo":"","tgName":null,"infoStatus":"1","orgName":"国网浙江桐庐县供电公司","typeName":null,"infoStatusName":null,"dateDay":null,"orgNos":null,"nowTime":null,"countyName":null,"streetName":null,"villageName":null,"roadName":null,"communityName":null,"tranName":null,"sdLineName":null,"cityCode":"3340150","cityName":"国网浙江桐庐县供电公司","provinceCode":null,"stopTime":"2019-08-20 21:00:00","powerType":"全部","powerOffArea":"110kV洋洲变:中侨T315线富春华庭3号变环网站富春华庭3号公变线配变","powerOffReason":"高压开关跳闸","powerOffId":"2019082031020288"}],"pageModel":{"pageNow":1220,"totalCount":17789,"totalPage":1779,"tableRows":0,"pageCount":10,"beginCount":12190},"isExperi":"1"}