{"message":"","today":"2020-06-16","seleList":[{"poweroffId":2019082031020287,"sgpoweroffId":null,"subsName":"","lineName":"10kV天井T450线","pubTranName":"桐庐县市政园林建设管理处,浙江坤兴建设有限公司,桐庐龙腾物业管理有限公司,梅林溪1号公变,梅林污水路灯变,金久城市花园2#专变,","scope":"浙江省-杭州市-桐庐县-城南街道-梅林社区(春江东路,瑶琳路);城南街道(浙江坤兴建设有限公司,桐庐县市政园林建设管理处,浙江福腾物业服务有限公司,桐庐万诚物业管理有限公司,桐庐县市政园林建设管理处(梅林溪路灯))","startTime":"2019-08-20 17:35:00","stopDate":"2019-08-20 20:59:00","orgNo":"3340150","typeCode":"电网故障停限电","poweroffArea":"110kV下杭变:天井T450线梅污开关站阳梅T4502线后段","poweroffReason":"高压开关跳闸","powerTime":"2019-08-20 20:40:16","powerComm":"已送电","subsNo":"","lineNo":"","tgNo":"","tgName":null,"infoStatus":"1","orgName":"国网浙江桐庐县供电公司","typeName":null,"infoStatusName":null,"dateDay":null,"orgNos":null,"nowTime":null,"countyName":null,"streetName":null,"villageName":null,"roadName":null,"communityName":null,"tranName":null,"sdLineName":null,"cityCode":"3340150","cityName":"国网浙江桐庐县供电公司","provinceCode":null,"stopTime":"2019-08-20 20:59:00","powerType":"全部","powerOffArea":"110kV下杭变:天井T450线梅污开关站阳梅T4502线后段","powerOffReason":"高压开关跳闸","powerOffId":"2019082031020287"},{"poweroffId":2019082031020286,"sgpoweroffId":null,"subsName":"","lineName":"10kV天井T450线","pubTranName":"下杭垃圾中转站,浙江中置房地产开发有限公司,中国移动通信集团浙江有限公司桐庐分公司,","scope":"浙江省-杭州市-桐庐县-城南街道(浙江中置房地产开发有限公司(基建),桐庐县环境卫生管理处,中国移动通信集团浙江有限公司桐庐分公司)","startTime":"2019-08-20 17:41:00","stopDate":"2019-08-20 20:41:00","orgNo":"3340150","typeCode":"电网故障停限电","poweroffArea":"110kV下杭变:天井T450线阳石开关站中置F7192线后段","poweroffReason":"高压开关跳闸","powerTime":"2019-08-20 20:29:44","powerComm":"已送电","subsNo":"","lineNo":"","tgNo":"","tgName":null,"infoStatus":"1","orgName":"国网浙江桐庐县供电公司","typeName":null,"infoStatusName":null,"dateDay":null,"orgNos":null,"nowTime":null,"countyName":null,"streetName":null,"villageName":null,"roadName":null,"communityName":null,"tranName":null,"sdLineName":null,"cityCode":"3340150","cityName":"国网浙江桐庐县供电公司","provinceCode":null,"stopTime":"2019-08-20 20:41:00","powerType":"全部","powerOffArea":"110kV下杭变:天井T450线阳石开关站中置F7192线后段","powerOffReason":"高压开关跳闸","powerOffId":"2019082031020286"},{"poweroffId":2019082031020285,"sgpoweroffId":null,"subsName":"","lineName":"10kV中侨T315线","pubTranName":"梅溪公寓1号公变,凤嘉毛纺,立山宿舍变,","scope":"浙江省-杭州市-桐庐县-城南街道-梅林社区-春江东路;城南街道(杭州凤嘉纺织有限公司(宿舍),浙江立山国际置业有限公司)","startTime":"2019-08-20 18:00:00","stopDate":"2019-08-20 21:00:00","orgNo":"3340150","typeCode":"电网故障停限电","poweroffArea":"110kV洋洲变:中侨T315线梅溪环网站凤嘉毛纺变进线电缆后段","poweroffReason":"高压开关跳闸","powerTime":"2019-08-20 20:40:33","powerComm":"全部送电","subsNo":"","lineNo":"","tgNo":"","tgName":null,"infoStatus":"1","orgName":"国网浙江桐庐县供电公司","typeName":null,"infoStatusName":null,"dateDay":null,"orgNos":null,"nowTime":null,"countyName":null,"streetName":null,"villageName":null,"roadName":null,"communityName":null,"tranName":null,"sdLineName":null,"cityCode":"3340150","cityName":"国网浙江桐庐县供电公司","provinceCode":null,"stopTime":"2019-08-20 21:00:00","powerType":"全部","powerOffArea":"110kV洋洲变:中侨T315线梅溪环网站凤嘉毛纺变进线电缆后段","powerOffReason":"高压开关跳闸","powerOffId":"2019082031020285"},{"poweroffId":2019082031020284,"sgpoweroffId":null,"subsName":"","lineName":"10kV中侨T315线","pubTranName":"富春华庭1号公变,桐药1号公变,富春华庭3号公变,富春华庭2号公变,桐庐碧于天保健品有限公司变压器,1#,棕榈地科技专变,中侨公寓1号公变,立山宿舍变,杭州索德医疗设备有限公司,梅溪公寓1号公变,凤嘉毛纺,富春华庭4号公变,金义1号公变,杭州海庐箱包有限公司(宿舍)1#,桐庐经济开发区管理委员会,香樟花园2#专变,","scope":"浙江省-杭州市-桐庐县-城南街道-梅林社区(春江东路,梅林路,桑园路);城南街道(桐庐县富春科技建设投资有限公司,杭州碧于天保健品有限公司,杭州凤嘉纺织有限公司(宿舍),杭州索德医疗设备有限公司,杭州棕榈地科技开发有限公司,桐庐德安居老年公寓,杭州海庐箱包有限公司,浙江兴腾物业管理有限公司,浙江立山国际置业有限公司)","startTime":"2019-08-20 17:59:00","stopDate":"2019-08-20 20:59:00","orgNo":"3340150","typeCode":"电网故障停限电","poweroffArea":"110kV洋洲变:中侨T315线中侨6131后段","poweroffReason":"高压开关跳闸","powerTime":"2019-08-20 20:40:36","powerComm":"已送电","subsNo":"","lineNo":"","tgNo":"","tgName":null,"infoStatus":"1","orgName":"国网浙江桐庐县供电公司","typeName":null,"infoStatusName":null,"dateDay":null,"orgNos":null,"nowTime":null,"countyName":null,"streetName":null,"villageName":null,"roadName":null,"communityName":null,"tranName":null,"sdLineName":null,"cityCode":"3340150","cityName":"国网浙江桐庐县供电公司","provinceCode":null,"stopTime":"2019-08-20 20:59:00","powerType":"全部","powerOffArea":"110kV洋洲变:中侨T315线中侨6131后段","powerOffReason":"高压开关跳闸","powerOffId":"2019082031020284"},{"poweroffId":2019082031020246,"sgpoweroffId":null,"subsName":"","lineName":"10kV时路9539线","pubTranName":"陈家二变,","scope":"浙江省-杭州市-滨江区-长河街道-山一村社区-山一，浙江省杭州市滨江区山一社区陈家157号、159号、152号、148号、149号住户。","startTime":"2019-09-02 09:30:00","stopDate":"2019-09-02 11:30:00","orgNo":"3340101","typeCode":"计划停电","poweroffArea":"110kV冠山变:时路9539线-陈家二变后段B2-2","poweroffReason":"（低压停电信息）居民移表","powerTime":"2019-09-02 11:01:59","powerComm":"已送电","subsNo":"","lineNo":"","tgNo":"","tgName":null,"infoStatus":"1","orgName":"浙江杭州电力客户服务中心","typeName":null,"infoStatusName":null,"dateDay":null,"orgNos":null,"nowTime":null,"countyName":null,"streetName":null,"villageName":null,"roadName":null,"communityName":null,"tranName":null,"sdLineName":null,"cityCode":"3340101","cityName":"浙江杭州电力客户服务中心","provinceCode":null,"stopTime":"2019-09-02 11:30:00","powerType":"全部","powerOffArea":"110kV冠山变:时路9539线-陈家二变后段B2-2","powerOffReason":"（低压停电信息）居民移表","powerOffId":"2019082031020246"},{"poweroffId":2019082031020238,"sgpoweroffId":null,"subsName":"","lineName":"10kV风情8094线","pubTranName":"迎北六变,","scope":"浙江省-杭州市-滨江区-西兴街道(迎春片区-迎春路,共联村社区-江汉东路)，浙江省杭州市滨江区迎春北苑20号楼1单元2单元住户20号楼商铺16号至38号。","startTime":"2019-08-30 09:30:00","stopDate":"2019-08-30 11:30:00","orgNo":"3340101","typeCode":"计划停电","poweroffArea":"110kV西兴变:风情8094线-迎北六变后段B6-1","poweroffReason":"（低压停电信息）非居新装","powerTime":"2019-08-30 10:33:59","powerComm":"已送电","subsNo":"","lineNo":"","tgNo":"","tgName":null,"infoStatus":"1","orgName":"浙江杭州电力客户服务中心","typeName":null,"infoStatusName":null,"dateDay":null,"orgNos":null,"nowTime":null,"countyName":null,"streetName":null,"villageName":null,"roadName":null,"communityName":null,"tranName":null,"sdLineName":null,"cityCode":"3340101","cityName":"浙江杭州电力客户服务中心","provinceCode":null,"stopTime":"2019-08-30 11:30:00","powerType":"全部","powerOffArea":"110kV西兴变:风情8094线-迎北六变后段B6-1","powerOffReason":"（低压停电信息）非居新装","powerOffId":"2019082031020238"},{"poweroffId":2019082031020235,"sgpoweroffId":null,"subsName":"","lineName":"10kV腾龙9545线","pubTranName":"章苏二,","scope":"浙江省-杭州市-滨江区-长河街道-山一村社区(山一,山一村),浦沿街道(冠一村社区-冠一村,冠二社区-滨文路,浦联村社区-浦联路,新生社区-新生路)，浙江省杭州市滨江区山一社区章苏57号、56号、55号、17号、6号住户。","startTime":"2019-08-29 09:30:00","stopDate":"2019-08-29 11:30:00","orgNo":"3340101","typeCode":"计划停电","poweroffArea":"110kV冠山变:腾龙9545线-章苏二后段B2-6","poweroffReason":"(低压停电信息)（低压停电信息）居民移表","powerTime":"2019-08-29 10:58:39","powerComm":"已送电","subsNo":"","lineNo":"","tgNo":"","tgName":null,"infoStatus":"1","orgName":"浙江杭州电力客户服务中心","typeName":null,"infoStatusName":null,"dateDay":null,"orgNos":null,"nowTime":null,"countyName":null,"streetName":null,"villageName":null,"roadName":null,"communityName":null,"tranName":null,"sdLineName":null,"cityCode":"3340101","cityName":"浙江杭州电力客户服务中心","provinceCode":null,"stopTime":"2019-08-29 11:30:00","powerType":"全部","powerOffArea":"110kV冠山变:腾龙9545线-章苏二后段B2-6","powerOffReason":"(低压停电信息)（低压停电信息）居民移表","powerOffId":"2019082031020235"},{"poweroffId":2019082031020232,"sgpoweroffId":null,"subsName":"","lineName":"10kV彭钢6954线","pubTranName":"钢厂,城建管廊,","scope":"浙江省杭州市江干区彭埠钢材市场现货交易、杭州市城市建设发展集团有限公司","startTime":"2019-08-30 09:30:00","stopDate":"2019-08-30 14:00:00","orgNo":"3340101","typeCode":"计划停电","poweroffArea":"110kV彭埠变:云农站云6农分线","poweroffReason":"彭钢6954线云6农分线4#杆-5#杆拆除。计划停电结束时间13：00，因工作量大原因导致延时送电，预计送电时间2019-8-30 14：00","powerTime":"2019-08-30 13:24:59","powerComm":"已送电","subsNo":"","lineNo":"","tgNo":"","tgName":null,"infoStatus":"1","orgName":"浙江杭州电力客户服务中心","typeName":null,"infoStatusName":null,"dateDay":null,"orgNos":null,"nowTime":null,"countyName":null,"streetName":null,"villageName":null,"roadName":null,"communityName":null,"tranName":null,"sdLineName":null,"cityCode":"3340101","cityName":"浙江杭州电力客户服务中心","provinceCode":null,"stopTime":"2019-08-30 14:00:00","powerType":"全部","powerOffArea":"110kV彭埠变:云农站云6农分线","powerOffReason":"彭钢6954线云6农分线4#杆-5#杆拆除。计划停电结束时间13：00，因工作量大原因导致延时送电，预计送电时间2019-8-30 14：00","powerOffId":"2019082031020232"},{"poweroffId":2019082031020231,"sgpoweroffId":null,"subsName":"","lineName":"10kV蓬园A54线","pubTranName":"蓬园村1#变,","scope":"浙江省-杭州市-萧山区-义蓬街道-蓬园行政村-蓬园自然村、蓬园村一带","startTime":"2019-08-20 15:51:04","stopDate":"2019-08-20 17:51:04","orgNo":"3340120","typeCode":"电网故障停限电","poweroffArea":"110kV白浪变:蓬园A54线-蓬园村1#变台区低压开关","poweroffReason":"(低压停电信息)低压开关跳闸","powerTime":"2019-08-20 16:58:54","powerComm":"已送电","subsNo":"","lineNo":"","tgNo":"","tgName":null,"infoStatus":"1","orgName":"国网浙江杭州市钱塘新区供电公司","typeName":null,"infoStatusName":null,"dateDay":null,"orgNos":null,"nowTime":null,"countyName":null,"streetName":null,"villageName":null,"roadName":null,"communityName":null,"tranName":null,"sdLineName":null,"cityCode":"3340120","cityName":"国网浙江杭州市钱塘新区供电公司","provinceCode":null,"stopTime":"2019-08-20 17:51:04","powerType":"全部","powerOffArea":"110kV白浪变:蓬园A54线-蓬园村1#变台区低压开关","powerOffReason":"(低压停电信息)低压开关跳闸","powerOffId":"2019082031020231"},{"poweroffId":2019082031020227,"sgpoweroffId":null,"subsName":"","lineName":"10kV昕印C629线","pubTranName":"同兴村13#变,","scope":"浙江省-杭州市-萧山区-新街街道-新街镇-同兴行政村-同兴自然村，浙江省杭州市萧山区新街街道同兴行政村同兴自然村4组327号，浙江省杭州市萧山区新街街道长山三号桥等一带","startTime":"2019-08-20 15:32:03","stopDate":"2019-08-20 17:00:59","orgNo":"3340130","typeCode":"电网故障停限电","poweroffArea":"110kV新街变:昕印C629线-同兴13#变台区低压开关","poweroffReason":"(低压停电信息)低压漏电保护器短路故障","powerTime":"2019-08-20 16:25:47","powerComm":"已送电","subsNo":"","lineNo":"","tgNo":"","tgName":null,"infoStatus":"1","orgName":"国网浙江杭州市萧山区供电有限公司","typeName":null,"infoStatusName":null,"dateDay":null,"orgNos":null,"nowTime":null,"countyName":null,"streetName":null,"villageName":null,"roadName":null,"communityName":null,"tranName":null,"sdLineName":null,"cityCode":"3340130","cityName":"国网浙江杭州市萧山区供电有限公司","provinceCode":null,"stopTime":"2019-08-20 17:00:59","powerType":"全部","powerOffArea":"110kV新街变:昕印C629线-同兴13#变台区低压开关","powerOffReason":"(低压停电信息)低压漏电保护器短路故障","powerOffId":"2019082031020227"}],"pageModel":{"pageNow":1221,"totalCount":17789,"totalPage":1779,"tableRows":0,"pageCount":10,"beginCount":12200},"isExperi":"1"}