{"message":"","today":"2020-06-16","seleList":[{"poweroffId":2019082031020073,"sgpoweroffId":null,"subsName":"","lineName":"10kV潼江C632线","pubTranName":"临一村2#变,","scope":"浙江省-杭州市-萧山区-临浦镇-临一行政村(塘郎姚自然村,施家闸自然村)，浙江省杭州市萧山区临一村螳螂窑村22号前面一带","startTime":"2019-08-20 08:55:51","stopDate":"2019-08-20 10:30:51","orgNo":"3340130","typeCode":"电网故障停限电","poweroffArea":"110kV临浦变:潼江C632线-临一村2#变台区低压开关","poweroffReason":"(低压停电信息)低压熔断器短路故障 原停电结束时间：2019-08-20 10:59，变更停电结束时间：2019-08-20 10:30，由于增派人员，抢修提前完成，故需要提前送电。","powerTime":"2019-08-20 10:04:00","powerComm":"已送电","subsNo":"","lineNo":"","tgNo":"","tgName":null,"infoStatus":"1","orgName":"国网浙江杭州市萧山区供电有限公司","typeName":null,"infoStatusName":null,"dateDay":null,"orgNos":null,"nowTime":null,"countyName":null,"streetName":null,"villageName":null,"roadName":null,"communityName":null,"tranName":null,"sdLineName":null,"cityCode":"3340130","cityName":"国网浙江杭州市萧山区供电有限公司","provinceCode":null,"stopTime":"2019-08-20 10:30:51","powerType":"全部","powerOffArea":"110kV临浦变:潼江C632线-临一村2#变台区低压开关","powerOffReason":"(低压停电信息)低压熔断器短路故障 原停电结束时间：2019-08-20 10:59，变更停电结束时间：2019-08-20 10:30，由于增派人员，抢修提前完成，故需要提前送电。","powerOffId":"2019082031020073"},{"poweroffId":2019082031020065,"sgpoweroffId":null,"subsName":"","lineName":"10kV长山C776线","pubTranName":"龙湖天钜13#公变,杭州萧山城区建设有限公司1#变压器,杭州萧山城区建设有限公司8#变压器,001#,004#,4#物业专变,龙湖天钜1#公变,杭州萧山城区建设有限公司4#变压器,萧山区人民武装部,龙湖天钜7#公变,杭州萧山城区建设有限公司9#变压器,河道管理处变压器间隔配电变压器,005#,龙湖天钜5#公变,银河小学,杭州萧山城区建设有限公司3#变压器,杭州萧山城区建设有限公司2#变压器,杭州萧山城区建设有限公司6#变压器,001#,杭州萧山城区建设有限公司7#变压器,龙湖天钜3#公变,3#物业专变,杭州萧山城区建设有限公司5#变压器,龙湖天钜9#公变,龙湖天钜11#公变,","scope":"浙江省-杭州市-萧山区-北干街道-塘湾行政村(萧山区银河实验小学,杭州萧山城区建设有限公司),北干街道(城北行政村-萧山区人民武装部,北干二苑社区-杭州市萧山区城市河道管理处,博学路-杭州龙昊房地产开发有限公司)、银河小学、龙湖天矩、龙湖天玺、人武部、河道管理处一带","startTime":"2019-08-20 08:35:50","stopDate":"2019-08-20 16:30:50","orgNo":"3340130","typeCode":"电网故障停限电","poweroffArea":"110kV通惠变:长山C776线开关后段","poweroffReason":"通长开开闭所整体更换","powerTime":"2019-08-20 15:39:41","powerComm":"已送电","subsNo":"","lineNo":"","tgNo":"","tgName":null,"infoStatus":"1","orgName":"国网浙江杭州市萧山区供电有限公司","typeName":null,"infoStatusName":null,"dateDay":null,"orgNos":null,"nowTime":null,"countyName":null,"streetName":null,"villageName":null,"roadName":null,"communityName":null,"tranName":null,"sdLineName":null,"cityCode":"3340130","cityName":"国网浙江杭州市萧山区供电有限公司","provinceCode":null,"stopTime":"2019-08-20 16:30:50","powerType":"全部","powerOffArea":"110kV通惠变:长山C776线开关后段","powerOffReason":"通长开开闭所整体更换","powerOffId":"2019082031020065"},{"poweroffId":2019082031020062,"sgpoweroffId":null,"subsName":"","lineName":"10kV天万G011线","pubTranName":"钱塘11组（吴庵村）1号公变,","scope":"浙江省-杭州市-余杭区-南苑街道-钱塘社区(吴庵自然村,钱塘)一带","startTime":"2019-08-20 08:33:41","stopDate":"2019-08-20 10:33:41","orgNo":"3340140","typeCode":"电网故障停限电","poweroffArea":"110kV外乔变:天万G011线-钱塘11组后段","poweroffReason":"(低压停电信息)低压开关跳闸","powerTime":"2019-08-20 10:18:00","powerComm":"已送电","subsNo":"","lineNo":"","tgNo":"","tgName":null,"infoStatus":"1","orgName":"国网浙江杭州市余杭区供电有限公司","typeName":null,"infoStatusName":null,"dateDay":null,"orgNos":null,"nowTime":null,"countyName":null,"streetName":null,"villageName":null,"roadName":null,"communityName":null,"tranName":null,"sdLineName":null,"cityCode":"3340140","cityName":"国网浙江杭州市余杭区供电有限公司","provinceCode":null,"stopTime":"2019-08-20 10:33:41","powerType":"全部","powerOffArea":"110kV外乔变:天万G011线-钱塘11组后段","powerOffReason":"(低压停电信息)低压开关跳闸","powerOffId":"2019082031020062"},{"poweroffId":2019082031020058,"sgpoweroffId":null,"subsName":"","lineName":"10kV永中D802线","pubTranName":"凤浦路3#公变,","scope":"浙江省-杭州市-富阳区-富春街道-金秋社区-凤浦路,富春街道-凤浦社区(文教路,凤浦路)","startTime":"2019-08-20 08:31:14","stopDate":"2019-08-20 09:00:14","orgNo":"3340170","typeCode":"电网故障停限电","poweroffArea":"110kV容大变:永中D802线-凤浦路3#公变后段","poweroffReason":"高压开关跳闸原结束时间2019-08-20 10:00:14因抢修力度加大提前至2019-08-20 09:00:14","powerTime":"2019-08-20 08:50:37","powerComm":"已送电","subsNo":"","lineNo":"","tgNo":"","tgName":null,"infoStatus":"1","orgName":"国网浙江杭州市富阳区供电公司","typeName":null,"infoStatusName":null,"dateDay":null,"orgNos":null,"nowTime":null,"countyName":null,"streetName":null,"villageName":null,"roadName":null,"communityName":null,"tranName":null,"sdLineName":null,"cityCode":"3340170","cityName":"国网浙江杭州市富阳区供电公司","provinceCode":null,"stopTime":"2019-08-20 09:00:14","powerType":"全部","powerOffArea":"110kV容大变:永中D802线-凤浦路3#公变后段","powerOffReason":"高压开关跳闸原结束时间2019-08-20 10:00:14因抢修力度加大提前至2019-08-20 09:00:14","powerOffId":"2019082031020058"},{"poweroffId":2019082031020057,"sgpoweroffId":null,"subsName":"","lineName":"10kV卸岭R196线","pubTranName":"丰茂村算坑配变,临岐丰茂村杨岭坞公变,","scope":"浙江省-杭州市-淳安县-文昌镇-光昌边行政村-光昌边自然村,文昌镇-丰茂行政村(扬岸自然村,算坑自然村,丰茂自然村)","startTime":"2019-08-20 14:00:00","stopDate":"2019-08-20 17:30:00","orgNo":"3340190","typeCode":"临时停电","poweroffArea":"35kV潭头变:卸岭R196线-杨岭坞公变跌落式熔断器后段;卸岭R196线-算坑配变跌落式熔断器后段","poweroffReason":"卸岭R196线丰茂支线57号杆安装三遥开关（带电作业配合）","powerTime":"2019-08-20 16:49:31","powerComm":"现场工作已完成","subsNo":"","lineNo":"","tgNo":"","tgName":null,"infoStatus":"1","orgName":"国网浙江淳安县供电有限公司","typeName":null,"infoStatusName":null,"dateDay":null,"orgNos":null,"nowTime":null,"countyName":null,"streetName":null,"villageName":null,"roadName":null,"communityName":null,"tranName":null,"sdLineName":null,"cityCode":"3340190","cityName":"国网浙江淳安县供电有限公司","provinceCode":null,"stopTime":"2019-08-20 17:30:00","powerType":"全部","powerOffArea":"35kV潭头变:卸岭R196线-杨岭坞公变跌落式熔断器后段;卸岭R196线-算坑配变跌落式熔断器后段","powerOffReason":"卸岭R196线丰茂支线57号杆安装三遥开关（带电作业配合）","powerOffId":"2019082031020057"},{"poweroffId":2019082031020035,"sgpoweroffId":null,"subsName":"","lineName":"10kV洞桥D334线","pubTranName":"里仁村4号佳坞里公变,","scope":"浙江省-杭州市-富阳区-洞桥镇-里仁行政村(佳坞里农居点自然村,乌堰口自然村,农居点自然村,佳坞里自然村,槐树下自然村,新灶上自然村,何家自然村)","startTime":"2019-08-20 07:44:48","stopDate":"2019-08-20 11:00:48","orgNo":"3340170","typeCode":"电网故障停限电","poweroffArea":"110kV万市变:洞桥D334线-里仁村4#佳坞里公变后段","poweroffReason":"(低压停电信息)低压开关跳闸","powerTime":"2019-08-20 10:31:29","powerComm":"已送电","subsNo":"","lineNo":"","tgNo":"","tgName":null,"infoStatus":"1","orgName":"国网浙江杭州市富阳区供电公司","typeName":null,"infoStatusName":null,"dateDay":null,"orgNos":null,"nowTime":null,"countyName":null,"streetName":null,"villageName":null,"roadName":null,"communityName":null,"tranName":null,"sdLineName":null,"cityCode":"3340170","cityName":"国网浙江杭州市富阳区供电公司","provinceCode":null,"stopTime":"2019-08-20 11:00:48","powerType":"全部","powerOffArea":"110kV万市变:洞桥D334线-里仁村4#佳坞里公变后段","powerOffReason":"(低压停电信息)低压开关跳闸","powerOffId":"2019082031020035"},{"poweroffId":2019082031020016,"sgpoweroffId":null,"subsName":"","lineName":"10kV石桥Y446线","pubTranName":"十八桥村十八桥台区,","scope":"浙江省-杭州市-建德市-寿昌镇 十八桥自然村一带用户","startTime":"2019-08-20 06:10:00","stopDate":"2019-08-20 09:30:00","orgNo":"3340180","typeCode":"电网故障停限电","poweroffArea":"110kV家蓬变:石桥Y446线-十八桥村十八桥台区后段","poweroffReason":"(低压停电信息)低压开关跳闸 原预计停电结束时间12:00，由于施工现场环境比较复杂，存在不确定因素，因此预估施工时间适当放长了,目前故障已修复，现将停电结束时间变更至9:30","powerTime":"2019-08-20 08:58:00","powerComm":"已送电","subsNo":"","lineNo":"","tgNo":"","tgName":null,"infoStatus":"1","orgName":"国网浙江建德市供电有限公司","typeName":null,"infoStatusName":null,"dateDay":null,"orgNos":null,"nowTime":null,"countyName":null,"streetName":null,"villageName":null,"roadName":null,"communityName":null,"tranName":null,"sdLineName":null,"cityCode":"3340180","cityName":"国网浙江建德市供电有限公司","provinceCode":null,"stopTime":"2019-08-20 09:30:00","powerType":"全部","powerOffArea":"110kV家蓬变:石桥Y446线-十八桥村十八桥台区后段","powerOffReason":"(低压停电信息)低压开关跳闸 原预计停电结束时间12:00，由于施工现场环境比较复杂，存在不确定因素，因此预估施工时间适当放长了,目前故障已修复，现将停电结束时间变更至9:30","powerOffId":"2019082031020016"},{"poweroffId":2019082031020011,"sgpoweroffId":null,"subsName":"","lineName":"10kV高坪D134线","pubTranName":"孙杨路2#公变,","scope":"浙江省-杭州市-富阳区-新登镇-南津行政村(贤明路,南四,油车里自然村,教工弄,南四路,安康路)","startTime":"2019-08-20 05:26:19","stopDate":"2019-08-20 07:00:19","orgNo":"3340170","typeCode":"电网故障停限电","poweroffArea":"110kV新登变:高坪D134线-孙杨路2＃公变(欧变)后段","poweroffReason":"(低压停电信息)低压开关跳闸","powerTime":"2019-08-20 06:04:24","powerComm":"已送电","subsNo":"","lineNo":"","tgNo":"","tgName":null,"infoStatus":"1","orgName":"国网浙江杭州市富阳区供电公司","typeName":null,"infoStatusName":null,"dateDay":null,"orgNos":null,"nowTime":null,"countyName":null,"streetName":null,"villageName":null,"roadName":null,"communityName":null,"tranName":null,"sdLineName":null,"cityCode":"3340170","cityName":"国网浙江杭州市富阳区供电公司","provinceCode":null,"stopTime":"2019-08-20 07:00:19","powerType":"全部","powerOffArea":"110kV新登变:高坪D134线-孙杨路2＃公变(欧变)后段","powerOffReason":"(低压停电信息)低压开关跳闸","powerOffId":"2019082031020011"},{"poweroffId":2019082031020006,"sgpoweroffId":null,"subsName":"","lineName":"10kV天通T118线","pubTranName":"广场路6号公变,","scope":"浙江省-杭州市-桐庐县-桐君街道-南门社区-迎春路,桐君街道-迎春社区(迎春街,迎春路,广场路、青年公寓、体育场路2号)","startTime":"2019-08-20 03:20:38","stopDate":"2019-08-20 07:30:38","orgNo":"3340150","typeCode":"电网故障停限电","poweroffArea":"110kV桐庐变:天通T118线-广场路6号公变后段","poweroffReason":"高压开关跳闸","powerTime":"2019-08-20 07:10:09","powerComm":"已送电","subsNo":"","lineNo":"","tgNo":"","tgName":null,"infoStatus":"1","orgName":"国网浙江桐庐县供电公司","typeName":null,"infoStatusName":null,"dateDay":null,"orgNos":null,"nowTime":null,"countyName":null,"streetName":null,"villageName":null,"roadName":null,"communityName":null,"tranName":null,"sdLineName":null,"cityCode":"3340150","cityName":"国网浙江桐庐县供电公司","provinceCode":null,"stopTime":"2019-08-20 07:30:38","powerType":"全部","powerOffArea":"110kV桐庐变:天通T118线-广场路6号公变后段","powerOffReason":"高压开关跳闸","powerOffId":"2019082031020006"},{"poweroffId":2019082031020002,"sgpoweroffId":null,"subsName":"","lineName":"10kV金龙T461线","pubTranName":"家景星城3号公变,","scope":"浙江省-杭州市-桐庐县-城南街道-下杭社区(瑶琳路,春江路、佳（家）景新城小区）","startTime":"2019-08-20 00:29:57","stopDate":"2019-08-20 07:30:34","orgNo":"3340150","typeCode":"电网故障停限电","poweroffArea":"110kV下杭变:金龙T461线-家景星城3号公变后段","poweroffReason":"高压开关跳闸","powerTime":"2019-08-20 07:09:49","powerComm":"已送电","subsNo":"","lineNo":"","tgNo":"","tgName":null,"infoStatus":"1","orgName":"国网浙江桐庐县供电公司","typeName":null,"infoStatusName":null,"dateDay":null,"orgNos":null,"nowTime":null,"countyName":null,"streetName":null,"villageName":null,"roadName":null,"communityName":null,"tranName":null,"sdLineName":null,"cityCode":"3340150","cityName":"国网浙江桐庐县供电公司","provinceCode":null,"stopTime":"2019-08-20 07:30:34","powerType":"全部","powerOffArea":"110kV下杭变:金龙T461线-家景星城3号公变后段","powerOffReason":"高压开关跳闸","powerOffId":"2019082031020002"}],"pageModel":{"pageNow":1223,"totalCount":17789,"totalPage":1779,"tableRows":0,"pageCount":10,"beginCount":12220},"isExperi":"1"}