{"message":"","today":"2020-06-16","seleList":[{"poweroffId":2019081931020268,"sgpoweroffId":null,"subsName":"","lineName":"10kV新桥C106线","pubTranName":"怡景公寓公变,","scope":"浙江省-杭州市-萧山区-城厢街道百尺溇社区百尺溇路、南门江社区萧然南路、怡景公寓一带","startTime":"2019-08-19 15:40:16","stopDate":"2019-08-19 18:10:16","orgNo":"3340130","typeCode":"电网故障停限电","poweroffArea":"110kV丽都变:新桥C106线-怡景公寓公变后段","poweroffReason":"（低压停电信息）低压电缆被挖断，原停电结束时间：2019-08-19 19:40:16，变更停电结束时间：2019-08-19 18:10:16，变更停电结束时间原因：由于加派抢修人员，抢修工作提前结束，故需要提前送电。","powerTime":"2019-08-19 17:16:22","powerComm":"已送电","subsNo":"","lineNo":"","tgNo":"","tgName":null,"infoStatus":"1","orgName":"国网浙江杭州市萧山区供电有限公司","typeName":null,"infoStatusName":null,"dateDay":null,"orgNos":null,"nowTime":null,"countyName":null,"streetName":null,"villageName":null,"roadName":null,"communityName":null,"tranName":null,"sdLineName":null,"cityCode":"3340130","cityName":"国网浙江杭州市萧山区供电有限公司","provinceCode":null,"stopTime":"2019-08-19 18:10:16","powerType":"全部","powerOffArea":"110kV丽都变:新桥C106线-怡景公寓公变后段","powerOffReason":"（低压停电信息）低压电缆被挖断，原停电结束时间：2019-08-19 19:40:16，变更停电结束时间：2019-08-19 18:10:16，变更停电结束时间原因：由于加派抢修人员，抢修工作提前结束，故需要提前送电。","powerOffId":"2019081931020268"},{"poweroffId":2019081931020263,"sgpoweroffId":null,"subsName":"","lineName":"10kV梅蓉T102线","pubTranName":"君山村3号公变,","scope":"浙江省-杭州市-桐庐县-桐君街道街君山行政村-坞泥口自然村","startTime":"2019-08-28 10:00:00","stopDate":"2019-08-28 17:00:00","orgNo":"3340150","typeCode":"计划停电","poweroffArea":"110kV桐庐变:梅蓉T102线-君山村3号公变10kV跌落式熔断器后段","poweroffReason":"杭州桐庐桐君君山等台区配变及低压线路改造工程","powerTime":"2019-08-28 16:51:46","powerComm":"已送电","subsNo":"","lineNo":"","tgNo":"","tgName":null,"infoStatus":"1","orgName":"国网浙江桐庐县供电公司","typeName":null,"infoStatusName":null,"dateDay":null,"orgNos":null,"nowTime":null,"countyName":null,"streetName":null,"villageName":null,"roadName":null,"communityName":null,"tranName":null,"sdLineName":null,"cityCode":"3340150","cityName":"国网浙江桐庐县供电公司","provinceCode":null,"stopTime":"2019-08-28 17:00:00","powerType":"全部","powerOffArea":"110kV桐庐变:梅蓉T102线-君山村3号公变10kV跌落式熔断器后段","powerOffReason":"杭州桐庐桐君君山等台区配变及低压线路改造工程","powerOffId":"2019081931020263"},{"poweroffId":2019081931020262,"sgpoweroffId":null,"subsName":"","lineName":"10kV梅蓉T102线","pubTranName":"君山村3号公变,君山村4号公变,桐庐力天置业有限公司,桐庐红狮水泥有限公司（基建）,","scope":"浙江省-杭州市-桐庐县-桐君街道君山行政村-坞泥口自然村桐庐红狮水泥有限公司,桐庐力天置业有限公司","startTime":"2019-08-28 06:00:00","stopDate":"2019-08-28 10:00:00","orgNo":"3340150","typeCode":"计划停电","poweroffArea":"110kV桐庐变:梅蓉T102线-坞泥F3137开关1后段","poweroffReason":"杭州桐庐桐君君山等台区配变及低压线路改造工程","powerTime":"2019-08-28 09:50:52","powerComm":"已送电","subsNo":"","lineNo":"","tgNo":"","tgName":null,"infoStatus":"1","orgName":"国网浙江桐庐县供电公司","typeName":null,"infoStatusName":null,"dateDay":null,"orgNos":null,"nowTime":null,"countyName":null,"streetName":null,"villageName":null,"roadName":null,"communityName":null,"tranName":null,"sdLineName":null,"cityCode":"3340150","cityName":"国网浙江桐庐县供电公司","provinceCode":null,"stopTime":"2019-08-28 10:00:00","powerType":"全部","powerOffArea":"110kV桐庐变:梅蓉T102线-坞泥F3137开关1后段","powerOffReason":"杭州桐庐桐君君山等台区配变及低压线路改造工程","powerOffId":"2019081931020262"},{"poweroffId":2019081931020250,"sgpoweroffId":null,"subsName":"","lineName":"10kV安小T278线","pubTranName":"孙家村1号公变,孙家村2号公变,","scope":"浙江省-杭州市-桐庐县-江南镇-窄溪行政村(孙家自然村)","startTime":"2019-08-19 15:13:12","stopDate":"2019-08-19 17:13:12","orgNo":"3340150","typeCode":"电网故障停限电","poweroffArea":"110kV石阜变:孙家T119线首端，孙家村1号公变，孙家村2号公变之间","poweroffReason":"高压开关跳闸","powerTime":"2019-08-19 17:00:15","powerComm":"已送电","subsNo":"","lineNo":"","tgNo":"","tgName":null,"infoStatus":"1","orgName":"国网浙江桐庐县供电公司","typeName":null,"infoStatusName":null,"dateDay":null,"orgNos":null,"nowTime":null,"countyName":null,"streetName":null,"villageName":null,"roadName":null,"communityName":null,"tranName":null,"sdLineName":null,"cityCode":"3340150","cityName":"国网浙江桐庐县供电公司","provinceCode":null,"stopTime":"2019-08-19 17:13:12","powerType":"全部","powerOffArea":"110kV石阜变:孙家T119线首端，孙家村1号公变，孙家村2号公变之间","powerOffReason":"高压开关跳闸","powerOffId":"2019081931020250"},{"poweroffId":2019081931020247,"sgpoweroffId":null,"subsName":"","lineName":"20kV丰一B201线","pubTranName":"江南丽锦G2#公变,","scope":"浙江省-杭州市-萧山区-宁围镇-宁围街道-盈一行政村-市心北路、江南丽锦小区等一带","startTime":"2019-08-19 15:14:38","stopDate":"2019-08-19 15:59:38","orgNo":"3340130","typeCode":"电网故障停限电","poweroffArea":"110kV顺丰变:丰一B201线-江南丽锦G2#公变台区低压开关","poweroffReason":"（低压停电信息）低压漏电保护器短路故障 原停电结束时间：2019-08-19 16:59:38，变更停电结束时间：2019-08-19 15:59:38，由于增派人员，抢修工作提前完成，故需要提前送电。","powerTime":"2019-08-19 15:28:16","powerComm":"已送电","subsNo":"","lineNo":"","tgNo":"","tgName":null,"infoStatus":"1","orgName":"国网浙江杭州市萧山区供电有限公司","typeName":null,"infoStatusName":null,"dateDay":null,"orgNos":null,"nowTime":null,"countyName":null,"streetName":null,"villageName":null,"roadName":null,"communityName":null,"tranName":null,"sdLineName":null,"cityCode":"3340130","cityName":"国网浙江杭州市萧山区供电有限公司","provinceCode":null,"stopTime":"2019-08-19 15:59:38","powerType":"全部","powerOffArea":"110kV顺丰变:丰一B201线-江南丽锦G2#公变台区低压开关","powerOffReason":"（低压停电信息）低压漏电保护器短路故障 原停电结束时间：2019-08-19 16:59:38，变更停电结束时间：2019-08-19 15:59:38，由于增派人员，抢修工作提前完成，故需要提前送电。","powerOffId":"2019081931020247"},{"poweroffId":2019081931020228,"sgpoweroffId":null,"subsName":"","lineName":"10kV东辉T373线","pubTranName":"郭村1号公变,","scope":"浙江省-杭州市-桐庐县-百江镇(郭村行政村-郭村自然村,东辉行政村-坑口自然村)","startTime":"2019-08-19 14:30:44","stopDate":"2019-08-19 16:25:44","orgNo":"3340150","typeCode":"电网故障停限电","poweroffArea":"110kV百江变:东辉T373线-郭村1号公变后段","poweroffReason":"高压开关跳闸","powerTime":"2019-08-19 16:10:26","powerComm":"已送电","subsNo":"","lineNo":"","tgNo":"","tgName":null,"infoStatus":"1","orgName":"国网浙江桐庐县供电公司","typeName":null,"infoStatusName":null,"dateDay":null,"orgNos":null,"nowTime":null,"countyName":null,"streetName":null,"villageName":null,"roadName":null,"communityName":null,"tranName":null,"sdLineName":null,"cityCode":"3340150","cityName":"国网浙江桐庐县供电公司","provinceCode":null,"stopTime":"2019-08-19 16:25:44","powerType":"全部","powerOffArea":"110kV百江变:东辉T373线-郭村1号公变后段","powerOffReason":"高压开关跳闸","powerOffId":"2019081931020228"},{"poweroffId":2019081931020223,"sgpoweroffId":null,"subsName":"","lineName":"10kV新隆6610线","pubTranName":"张家弄二,浦塘,下新浦,赵家三,钱水施1,拉丝厂,大丰[二],金海边二,葛埭三,赵家二,村变,龙潭,养鳖,金海边,赵家四,养鱼,龙潭二,杭千施二,地空施一,建中,皇冠,葛埭,袁械,俞家畈,张家弄,杭州市路灯管理所,新浦赵,浦经,袁富泵,大丰三,葛埭二,西陈,大丰,下新浦二,钱水施2,小学边,支家,","scope":"浙江省-杭州市-西湖区-留下街道-东岳社区-西溪路,双浦镇-新浦沿行政村(新浦沿村道,新浦沿),双浦镇-板桥行政村(板桥村道,板桥村),转塘街道(石龙山社区-石龙山村道,叶埠桥社区-叶埠桥村道),双浦镇(浦塘行政村-浦塘村道,东江嘴行政村-东江嘴村道,夏家桥行政村-夏家桥村道,湖埠行政村-湖埠村道,外张行政村-外张村道,灵山行政村-灵山村道,张家埭行政村-张家埭村、张家弄、大丰村、西陈、丁家桥、财主埭、桑园地、白鸟村、五圣堂);双浦镇(板桥行政村-周浦乡板桥村,周浦乡张家弄村,下羊行政村);浙江省-杭州市-西湖区-双浦镇-浦塘行政村(杭州顺达饲料厂,杭州杭千高速公路发展有限公司,杭州南江涂料有限公司,杭州市市政设施监管中心,杭州袁浦机械有限公司,杭州市路灯管理所,兰溪口行政村-杭州钱南原水有限公司)","startTime":"2019-08-19 14:18:27","stopDate":"2019-08-19 16:18:27","orgNo":"3340101","typeCode":"电网故障停限电","poweroffArea":"110kV周浦变:新隆6610线","poweroffReason":"高压开关跳闸","powerTime":"2019-08-19 15:33:54","powerComm":"送电","subsNo":"","lineNo":"","tgNo":"","tgName":null,"infoStatus":"1","orgName":"浙江杭州电力客户服务中心","typeName":null,"infoStatusName":null,"dateDay":null,"orgNos":null,"nowTime":null,"countyName":null,"streetName":null,"villageName":null,"roadName":null,"communityName":null,"tranName":null,"sdLineName":null,"cityCode":"3340101","cityName":"浙江杭州电力客户服务中心","provinceCode":null,"stopTime":"2019-08-19 16:18:27","powerType":"全部","powerOffArea":"110kV周浦变:新隆6610线","powerOffReason":"高压开关跳闸","powerOffId":"2019081931020223"},{"poweroffId":2019081931020209,"sgpoweroffId":null,"subsName":"","lineName":"10kV佛日G081线","pubTranName":"汤家村委公变,","scope":"浙江省-杭州市-余杭区-星桥街道-汤家社区一带","startTime":"2019-08-19 13:57:52","stopDate":"2019-08-19 16:30:00","orgNo":"3340140","typeCode":"电网故障停限电","poweroffArea":"110kV星桥变:佛日G081线-汤家村委公变后段","poweroffReason":"高压开关跳闸","powerTime":"2019-08-19 16:29:00","powerComm":"已送电","subsNo":"","lineNo":"","tgNo":"","tgName":null,"infoStatus":"1","orgName":"国网浙江杭州市余杭区供电有限公司","typeName":null,"infoStatusName":null,"dateDay":null,"orgNos":null,"nowTime":null,"countyName":null,"streetName":null,"villageName":null,"roadName":null,"communityName":null,"tranName":null,"sdLineName":null,"cityCode":"3340140","cityName":"国网浙江杭州市余杭区供电有限公司","provinceCode":null,"stopTime":"2019-08-19 16:30:00","powerType":"全部","powerOffArea":"110kV星桥变:佛日G081线-汤家村委公变后段","powerOffReason":"高压开关跳闸","powerOffId":"2019081931020209"},{"poweroffId":2019081931020201,"sgpoweroffId":null,"subsName":"","lineName":"10kV歌舞T142线","pubTranName":"歌舞1号公变,","scope":"浙江省-杭州市-桐庐县-钟山乡-歌舞行政村-歌舞自然村","startTime":"2019-08-19 13:42:20","stopDate":"2019-08-19 15:42:20","orgNo":"3340150","typeCode":"电网故障停限电","poweroffArea":"35kV钟山变:歌舞T142线-歌舞1号公变后段","poweroffReason":"高压开关跳闸","powerTime":"2019-08-19 15:25:27","powerComm":"已送电","subsNo":"","lineNo":"","tgNo":"","tgName":null,"infoStatus":"1","orgName":"国网浙江桐庐县供电公司","typeName":null,"infoStatusName":null,"dateDay":null,"orgNos":null,"nowTime":null,"countyName":null,"streetName":null,"villageName":null,"roadName":null,"communityName":null,"tranName":null,"sdLineName":null,"cityCode":"3340150","cityName":"国网浙江桐庐县供电公司","provinceCode":null,"stopTime":"2019-08-19 15:42:20","powerType":"全部","powerOffArea":"35kV钟山变:歌舞T142线-歌舞1号公变后段","powerOffReason":"高压开关跳闸","powerOffId":"2019081931020201"},{"poweroffId":2019081931020189,"sgpoweroffId":null,"subsName":"","lineName":"10kV春农T398线","pubTranName":"大奇山花苑2号公变,","scope":"浙江省-杭州市-桐庐县-城南街道-上杭社区-云栖中路、大奇山花苑","startTime":"2019-08-19 13:08:47","stopDate":"2019-08-19 16:30:04","orgNo":"3340150","typeCode":"电网故障停限电","poweroffArea":"110kV迎春变:春农T398线-大奇山花苑2号公变后段","poweroffReason":"高压开关跳闸","powerTime":"2019-08-19 16:20:19","powerComm":"已送电","subsNo":"","lineNo":"","tgNo":"","tgName":null,"infoStatus":"1","orgName":"国网浙江桐庐县供电公司","typeName":null,"infoStatusName":null,"dateDay":null,"orgNos":null,"nowTime":null,"countyName":null,"streetName":null,"villageName":null,"roadName":null,"communityName":null,"tranName":null,"sdLineName":null,"cityCode":"3340150","cityName":"国网浙江桐庐县供电公司","provinceCode":null,"stopTime":"2019-08-19 16:30:04","powerType":"全部","powerOffArea":"110kV迎春变:春农T398线-大奇山花苑2号公变后段","powerOffReason":"高压开关跳闸","powerOffId":"2019081931020189"}],"pageModel":{"pageNow":1225,"totalCount":17789,"totalPage":1779,"tableRows":0,"pageCount":10,"beginCount":12240},"isExperi":"1"}