{"message":"","today":"2020-06-16","seleList":[{"poweroffId":2019081931020161,"sgpoweroffId":null,"subsName":"","lineName":"10kV瓜港A078线","pubTranName":"工农村3#变,","scope":"浙江省-杭州市-萧山区-瓜沥镇-群谊行政村-群谊自然村,瓜沥镇-工农行政村(建新路,八柯路,工新路,长池头路)、坎山镇工农村、群谊村一带","startTime":"2019-08-19 11:15:46","stopDate":"2019-08-19 13:15:46","orgNo":"3340130","typeCode":"电网故障停限电","poweroffArea":"110kV航坞变:瓜港A078线-工农村3#变台区低压开关","poweroffReason":"(低压停电信息)低压电杆断杆故障 原停电结束时间:2019-08-19 20:15:46,变更停电结束时间:2019-08-19 13:15:46。由于抢修工作提前完成,故需要提前送电。","powerTime":"2019-08-19 12:20:10","powerComm":"已送电","subsNo":"","lineNo":"","tgNo":"","tgName":null,"infoStatus":"1","orgName":"国网浙江杭州市萧山区供电有限公司","typeName":null,"infoStatusName":null,"dateDay":null,"orgNos":null,"nowTime":null,"countyName":null,"streetName":null,"villageName":null,"roadName":null,"communityName":null,"tranName":null,"sdLineName":null,"cityCode":"3340130","cityName":"国网浙江杭州市萧山区供电有限公司","provinceCode":null,"stopTime":"2019-08-19 13:15:46","powerType":"全部","powerOffArea":"110kV航坞变:瓜港A078线-工农村3#变台区低压开关","powerOffReason":"(低压停电信息)低压电杆断杆故障 原停电结束时间:2019-08-19 20:15:46,变更停电结束时间:2019-08-19 13:15:46。由于抢修工作提前完成,故需要提前送电。","powerOffId":"2019081931020161"},{"poweroffId":2019081931020147,"sgpoweroffId":null,"subsName":"","lineName":"10kV徐七T338线","pubTranName":"柳岩村委1号公变,","scope":"浙江省-杭州市-桐庐县-横村镇-柳岩行政村-柳岩自然村","startTime":"2019-08-19 10:46:29","stopDate":"2019-08-19 13:46:29","orgNo":"3340150","typeCode":"电网故障停限电","poweroffArea":"110kV横村变:徐七T338线-柳岩村委1号公变后段","poweroffReason":"高压开关跳闸","powerTime":"2019-08-19 13:38:17","powerComm":"已送电","subsNo":"","lineNo":"","tgNo":"","tgName":null,"infoStatus":"1","orgName":"国网浙江桐庐县供电公司","typeName":null,"infoStatusName":null,"dateDay":null,"orgNos":null,"nowTime":null,"countyName":null,"streetName":null,"villageName":null,"roadName":null,"communityName":null,"tranName":null,"sdLineName":null,"cityCode":"3340150","cityName":"国网浙江桐庐县供电公司","provinceCode":null,"stopTime":"2019-08-19 13:46:29","powerType":"全部","powerOffArea":"110kV横村变:徐七T338线-柳岩村委1号公变后段","powerOffReason":"高压开关跳闸","powerOffId":"2019081931020147"},{"poweroffId":2019081931020143,"sgpoweroffId":null,"subsName":"","lineName":"10kV泥桥G908线","pubTranName":"水西5组公变,振华家私,和睦2组3号公变,汉王装饰,天海办公,和睦2组公变,泰丰电缆架桥,水西4-5组公变,沪杭高铁2#变,水西4组3号公变,和睦1组2号公变,水西5组6号公变,水西5组2号公变,水西5组4号公变,和睦新村委公变,水西5组5号公变,水西5组3号公变,和睦1组3号公变,和睦1组公变,力圣家私400kVA配变,水西5组8号公变,和睦2组2号公变,沪杭高铁1#变,","scope":"浙江省-杭州市-余杭区-乔司街道-五星行政村-青石自然村,乔司街道-和睦桥行政村(水东自然村,庙桥头自然村,茅家桥自然村,和睦村北自然村,八字桥自然村,和顺桥自然村);乔司街道(浙江自强建筑工程有限公司,沪杭铁路客运专线股份有限公司,杭州家可工贸有限公司,杭州力圣家私有限公司,杭州汉王装饰设计工程有限公司,杭州天海办公家具有限公司)","startTime":"2019-08-19 10:28:00","stopDate":"2019-08-19 15:28:00","orgNo":"3340140","typeCode":"电网故障停限电","poweroffArea":"110kV庙港变:泥桥G908线泥桥G9083开关后段","poweroffReason":"高压开关跳闸","powerTime":"2019-08-19 14:46:00","powerComm":"已送电","subsNo":"","lineNo":"","tgNo":"","tgName":null,"infoStatus":"1","orgName":"国网浙江杭州市余杭区供电有限公司","typeName":null,"infoStatusName":null,"dateDay":null,"orgNos":null,"nowTime":null,"countyName":null,"streetName":null,"villageName":null,"roadName":null,"communityName":null,"tranName":null,"sdLineName":null,"cityCode":"3340140","cityName":"国网浙江杭州市余杭区供电有限公司","provinceCode":null,"stopTime":"2019-08-19 15:28:00","powerType":"全部","powerOffArea":"110kV庙港变:泥桥G908线泥桥G9083开关后段","powerOffReason":"高压开关跳闸","powerOffId":"2019081931020143"},{"poweroffId":2019081931020130,"sgpoweroffId":null,"subsName":"","lineName":"10kV安仁Y134线","pubTranName":"陵上新村大茶园台区,","scope":"浙江省-杭州市-建德市-乾潭镇-陵上新村行政村 陵上自然村,大茶园自然村,陵上新村一带用户","startTime":"2019-08-19 10:10:00","stopDate":"2019-08-19 12:30:00","orgNo":"3340180","typeCode":"电网故障停限电","poweroffArea":"110kV乾潭变:安仁Y134线-陵上新村大茶园台区后段","poweroffReason":"安仁Y134线36号杆高压开关引线烧毁","powerTime":"2019-08-19 11:35:05","powerComm":"已送电","subsNo":"","lineNo":"","tgNo":"","tgName":null,"infoStatus":"1","orgName":"国网浙江建德市供电有限公司","typeName":null,"infoStatusName":null,"dateDay":null,"orgNos":null,"nowTime":null,"countyName":null,"streetName":null,"villageName":null,"roadName":null,"communityName":null,"tranName":null,"sdLineName":null,"cityCode":"3340180","cityName":"国网浙江建德市供电有限公司","provinceCode":null,"stopTime":"2019-08-19 12:30:00","powerType":"全部","powerOffArea":"110kV乾潭变:安仁Y134线-陵上新村大茶园台区后段","powerOffReason":"安仁Y134线36号杆高压开关引线烧毁","powerOffId":"2019081931020130"},{"poweroffId":2019081931020105,"sgpoweroffId":null,"subsName":"","lineName":"10kV陈米G352线","pubTranName":"杭州市余杭区仁和街道农民多层公寓建设管理中心,奉口村徐家角公变,奉口村北埭公变,奉口村南埭公变,东风村周介坝2号公变,杭州精工机械有限公司,奉口村奉东公变,冠重机械1#,奉口村树东村公变,多层公寓5#基建变,东风村俞家门南公变,东风村永和坝公变,多层公寓6#基建变,东风村下港公变,冠重机械2#,东风村三星公变,东风村周介坝公变,奉口村奉口北公变,杭州市余杭区仁和街道农民多层公寓建设管理中心,东风村吴家斗公变,杭州余杭九龙股份经济合作社,","scope":"浙江省-杭州市-余杭区-仁和街道-东塘行政村-大桥自然村,仁和街道-奉口行政村(徐家角自然村,朱家角自然村,奉口自然村,北埭自然村,南埭自然村,獐湾自然村,树东村自然村),仁和街道-东风行政村(下港自然村,余家门自然村,吴介斗路自然村,拥护坝自然村,木桥头自然村,吴家斗自然村,仲家塘自然村,张家塘自然村,范家塘自然村,永和坝自然村,张家舍自然村,管家塘自然村,三星自然村,周介坝自然村,小坝儿自然村,马介塘自然村,潘家角自然村,马家塘自然村,塘湾自然村,东风路),仁和街道-洛阳行政村(洛阳桥自然村,余山自然村,顺水桥自然村,南庄桥自然村);浙江省-杭州市-余杭区-仁和街道-九龙行政村-浙江恒泽生态农业科技有限公司,仁和街道-奉口行政村(杭州冠重矿山机械有限公司,杭州精工机械有限公司)","startTime":"2019-08-19 09:45:00","stopDate":"2019-08-19 14:45:00","orgNo":"3340140","typeCode":"电网故障停限电","poweroffArea":"110kV洛山变:陈米G352线","poweroffReason":"高压开关跳闸","powerTime":"2019-08-19 13:58:00","powerComm":"已修复送电","subsNo":"","lineNo":"","tgNo":"","tgName":null,"infoStatus":"1","orgName":"国网浙江杭州市余杭区供电有限公司","typeName":null,"infoStatusName":null,"dateDay":null,"orgNos":null,"nowTime":null,"countyName":null,"streetName":null,"villageName":null,"roadName":null,"communityName":null,"tranName":null,"sdLineName":null,"cityCode":"3340140","cityName":"国网浙江杭州市余杭区供电有限公司","provinceCode":null,"stopTime":"2019-08-19 14:45:00","powerType":"全部","powerOffArea":"110kV洛山变:陈米G352线","powerOffReason":"高压开关跳闸","powerOffId":"2019081931020105"},{"poweroffId":2019081931020103,"sgpoweroffId":null,"subsName":"","lineName":"10kV施区D967线","pubTranName":"施家园花苑16号公变配变,","scope":"浙江省-杭州市-富阳区-银湖街道-东坞山行政村-施家园自然村","startTime":"2019-08-19 09:28:00","stopDate":"2019-08-19 10:15:00","orgNo":"3340170","typeCode":"电网故障停限电","poweroffArea":"110kV九龙变:施区D967线施家园花苑16号公变配变配变","poweroffReason":"高压开关跳闸，原故障停电结束时间为2019-08-19 11:28:00因抢修力度大变更至2019-08-19 10:15:00","powerTime":"2019-08-19 09:57:26","powerComm":"已送电","subsNo":"","lineNo":"","tgNo":"","tgName":null,"infoStatus":"1","orgName":"国网浙江杭州市富阳区供电公司","typeName":null,"infoStatusName":null,"dateDay":null,"orgNos":null,"nowTime":null,"countyName":null,"streetName":null,"villageName":null,"roadName":null,"communityName":null,"tranName":null,"sdLineName":null,"cityCode":"3340170","cityName":"国网浙江杭州市富阳区供电公司","provinceCode":null,"stopTime":"2019-08-19 10:15:00","powerType":"全部","powerOffArea":"110kV九龙变:施区D967线施家园花苑16号公变配变配变","powerOffReason":"高压开关跳闸，原故障停电结束时间为2019-08-19 11:28:00因抢修力度大变更至2019-08-19 10:15:00","powerOffId":"2019081931020103"},{"poweroffId":2019081931020102,"sgpoweroffId":null,"subsName":"","lineName":"10kV春农T398线","pubTranName":"大奇山花苑2号公变,","scope":"浙江省-杭州市-桐庐县-城南街道-上杭社区-云栖中路、大奇山花苑","startTime":"2019-08-19 09:39:13","stopDate":"2019-08-19 11:39:13","orgNo":"3340150","typeCode":"电网故障停限电","poweroffArea":"110kV迎春变:春农T398线-大奇山花苑2号公变后段","poweroffReason":"高压开关跳闸","powerTime":"2019-08-19 11:11:39","powerComm":"全部送电","subsNo":"","lineNo":"","tgNo":"","tgName":null,"infoStatus":"1","orgName":"国网浙江桐庐县供电公司","typeName":null,"infoStatusName":null,"dateDay":null,"orgNos":null,"nowTime":null,"countyName":null,"streetName":null,"villageName":null,"roadName":null,"communityName":null,"tranName":null,"sdLineName":null,"cityCode":"3340150","cityName":"国网浙江桐庐县供电公司","provinceCode":null,"stopTime":"2019-08-19 11:39:13","powerType":"全部","powerOffArea":"110kV迎春变:春农T398线-大奇山花苑2号公变后段","powerOffReason":"高压开关跳闸","powerOffId":"2019081931020102"},{"poweroffId":2019081931020096,"sgpoweroffId":null,"subsName":"","lineName":"10kV芝厦T190线","pubTranName":"米山1号公变,","scope":"浙江省-杭州市-桐庐县-富春江镇-象山桥行政村-米山自然村","startTime":"2019-08-19 09:30:00","stopDate":"2019-08-19 13:30:00","orgNo":"3340150","typeCode":"电网故障停限电","poweroffArea":"110kV外董变:芝厦T190线淼达F8185令克配变","poweroffReason":"高压开关跳闸","powerTime":"2019-08-19 13:19:37","powerComm":"已处理","subsNo":"","lineNo":"","tgNo":"","tgName":null,"infoStatus":"1","orgName":"国网浙江桐庐县供电公司","typeName":null,"infoStatusName":null,"dateDay":null,"orgNos":null,"nowTime":null,"countyName":null,"streetName":null,"villageName":null,"roadName":null,"communityName":null,"tranName":null,"sdLineName":null,"cityCode":"3340150","cityName":"国网浙江桐庐县供电公司","provinceCode":null,"stopTime":"2019-08-19 13:30:00","powerType":"全部","powerOffArea":"110kV外董变:芝厦T190线淼达F8185令克配变","powerOffReason":"高压开关跳闸","powerOffId":"2019081931020096"},{"poweroffId":2019081931020081,"sgpoweroffId":null,"subsName":"","lineName":"10kV闲镇H682线","pubTranName":"清水输水3#基建变,明日康建设,塘岭(2)公用,钱江机床,塘岭(1)公用,清水输水1#基建变,联荣村北山畈,杭州万宇润滑油有限公司,清水输水2#基建变,杭州市西郊监狱,杭州市西郊监狱,","scope":"浙江省-杭州市-余杭区-闲林街道-联荣行政村(北山畈自然村,联荣自然村,闲林东路),闲林街道-北山社区(闲林东路,社区,天目山西路);闲林街道(杭州万宇润滑油有限公司,杭州市西郊监狱,杭州天堂伞业集团有限公司,杭州市水务控股集团有限公司,杭州明日康建设有限公司)","startTime":"2019-08-19 09:08:00","stopDate":"2019-08-19 14:08:00","orgNo":"3340140","typeCode":"电网故障停限电","poweroffArea":"110kV闲林变:闲镇H682线闲林北山畈2#公变闲林北山畈2#公变出线开关后段","poweroffReason":"高压开关跳闸","powerTime":"2019-08-19 13:43:00","powerComm":"已修复","subsNo":"","lineNo":"","tgNo":"","tgName":null,"infoStatus":"1","orgName":"国网浙江杭州市余杭区供电有限公司","typeName":null,"infoStatusName":null,"dateDay":null,"orgNos":null,"nowTime":null,"countyName":null,"streetName":null,"villageName":null,"roadName":null,"communityName":null,"tranName":null,"sdLineName":null,"cityCode":"3340140","cityName":"国网浙江杭州市余杭区供电有限公司","provinceCode":null,"stopTime":"2019-08-19 14:08:00","powerType":"全部","powerOffArea":"110kV闲林变:闲镇H682线闲林北山畈2#公变闲林北山畈2#公变出线开关后段","powerOffReason":"高压开关跳闸","powerOffId":"2019081931020081"},{"poweroffId":2019081931020076,"sgpoweroffId":null,"subsName":"","lineName":"10kV新桥C106线","pubTranName":"怡景公寓公变,","scope":"浙江省-杭州市-萧山区-城厢街道百尺溇社区百尺溇路、南门江社区萧然南路、怡景公寓一带","startTime":"2019-08-19 09:08:03","stopDate":"2019-08-19 11:08:03","orgNo":"3340130","typeCode":"电网故障停限电","poweroffArea":"110kV丽都变:新桥C106线-怡景公寓公变后段","poweroffReason":"（低压停电信息）低压电缆因外力破坏破损","powerTime":"2019-08-19 10:24:20","powerComm":"已送电","subsNo":"","lineNo":"","tgNo":"","tgName":null,"infoStatus":"1","orgName":"国网浙江杭州市萧山区供电有限公司","typeName":null,"infoStatusName":null,"dateDay":null,"orgNos":null,"nowTime":null,"countyName":null,"streetName":null,"villageName":null,"roadName":null,"communityName":null,"tranName":null,"sdLineName":null,"cityCode":"3340130","cityName":"国网浙江杭州市萧山区供电有限公司","provinceCode":null,"stopTime":"2019-08-19 11:08:03","powerType":"全部","powerOffArea":"110kV丽都变:新桥C106线-怡景公寓公变后段","powerOffReason":"（低压停电信息）低压电缆因外力破坏破损","powerOffId":"2019081931020076"}],"pageModel":{"pageNow":1226,"totalCount":17789,"totalPage":1779,"tableRows":0,"pageCount":10,"beginCount":12250},"isExperi":"1"}