{"message":"","today":"2020-06-16","seleList":[{"poweroffId":2019081931020059,"sgpoweroffId":null,"subsName":"","lineName":"10kV安小T278线","pubTranName":"江滨路1号公变,","scope":"浙江省-杭州市-桐庐县-江南镇-窄溪行政村(江滨路,孙家自然村,窄溪镇,渔业自然村)","startTime":"2019-08-19 08:41:27","stopDate":"2019-08-19 11:00:27","orgNo":"3340150","typeCode":"电网故障停限电","poweroffArea":"110kV石阜变:安小T278线-江滨路1号公变后段","poweroffReason":"高压开关跳闸","powerTime":"2019-08-19 10:45:23","powerComm":"已送电","subsNo":"","lineNo":"","tgNo":"","tgName":null,"infoStatus":"1","orgName":"国网浙江桐庐县供电公司","typeName":null,"infoStatusName":null,"dateDay":null,"orgNos":null,"nowTime":null,"countyName":null,"streetName":null,"villageName":null,"roadName":null,"communityName":null,"tranName":null,"sdLineName":null,"cityCode":"3340150","cityName":"国网浙江桐庐县供电公司","provinceCode":null,"stopTime":"2019-08-19 11:00:27","powerType":"全部","powerOffArea":"110kV石阜变:安小T278线-江滨路1号公变后段","powerOffReason":"高压开关跳闸","powerOffId":"2019081931020059"},{"poweroffId":2019081931020052,"sgpoweroffId":null,"subsName":"","lineName":"10kV金恒H586线","pubTranName":"余杭区公路管理处1#变,城市建设开发公司,1＃,运河村庙桥头北公变,正北汽车综合服务区2#,运河农居点3号公变,杭州良渚文化城集团有限公司,杭州良渚文化城集团有限公司,运河农居点4号公变,杭州良渚文化城集团有限公司,中交一公局集团有限公司,恒德专变,运河村运河新村公变,金恒德汽车1#变,恒德专变,恒德1#变*,运河农居点1号公变,","scope":"浙江省-杭州市-余杭区-良渚街道-运河行政村(运河自然村,运河路,郁宅自然村);浙江省-杭州市-余杭区-良渚街道-良渚行政村-杭州金恒德物业服务有限公司,良渚街道-运河行政村(杭州金恒德物业服务有限公司,中交一公局集团有限公司,杭州良渚文化城集团有限公司),良渚街道-勾庄行政村(杭州市余杭区人民政府良渚街道办事处,浙江正北实业有限公司,腾达建设集团股份有限公司)一带","startTime":"2019-08-19 08:28:00","stopDate":"2019-08-19 11:28:00","orgNo":"3340140","typeCode":"电网故障停限电","poweroffArea":"110kV南庄变:金恒H586线","poweroffReason":"高压开关跳闸","powerTime":"2019-08-19 10:58:00","powerComm":"已送电","subsNo":"","lineNo":"","tgNo":"","tgName":null,"infoStatus":"1","orgName":"国网浙江杭州市余杭区供电有限公司","typeName":null,"infoStatusName":null,"dateDay":null,"orgNos":null,"nowTime":null,"countyName":null,"streetName":null,"villageName":null,"roadName":null,"communityName":null,"tranName":null,"sdLineName":null,"cityCode":"3340140","cityName":"国网浙江杭州市余杭区供电有限公司","provinceCode":null,"stopTime":"2019-08-19 11:28:00","powerType":"全部","powerOffArea":"110kV南庄变:金恒H586线","powerOffReason":"高压开关跳闸","powerOffId":"2019081931020052"},{"poweroffId":2019081931020020,"sgpoweroffId":null,"subsName":"","lineName":"10kV陈米G352线","pubTranName":"奉口村奉东公变,奉口村奉口北公变,东风村永和坝公变,东风村吴家斗公变,杭州余杭九龙股份经济合作社,奉口村南埭公变,冠重机械1#,东风村俞家门南公变,杭州精工机械有限公司,奉口村北埭公变,奉口村徐家角公变,多层公寓5#基建变,东风村周介坝2号公变,东风村周介坝公变,冠重机械2#,奉口村树东村公变,东风村下港公变,东风村三星公变,杭州市余杭区仁和街道农民多层公寓建设管理中心,多层公寓6#基建变,杭州市余杭区仁和街道农民多层公寓建设管理中心,","scope":"浙江省-杭州市-余杭区-仁和街道-东塘行政村-大桥自然村,仁和街道-奉口行政村(徐家角自然村,朱家角自然村,奉口自然村,北埭自然村,南埭自然村,獐湾自然村,树东村自然村),仁和街道-东风行政村(下港自然村,余家门自然村,吴介斗路自然村,拥护坝自然村,木桥头自然村,吴家斗自然村,仲家塘自然村,张家塘自然村,范家塘自然村,永和坝自然村,张家舍自然村,管家塘自然村,三星自然村,周介坝自然村,小坝儿自然村,马介塘自然村,潘家角自然村,马家塘自然村,塘湾自然村,东风路),仁和街道-洛阳行政村(洛阳桥自然村,余山自然村,顺水桥自然村,南庄桥自然村);浙江省-杭州市-余杭区-仁和街道-九龙行政村-浙江恒泽生态农业科技有限公司,仁和街道-奉口行政村(杭州冠重矿山机械有限公司,杭州精工机械有限公司)","startTime":"2019-08-19 06:45:33","stopDate":"2019-08-19 10:00:00","orgNo":"3340140","typeCode":"电网故障停限电","poweroffArea":"110kV洛山变:陈米G352线","poweroffReason":"高压开关跳闸","powerTime":"2019-08-19 09:43:00","powerComm":"已送电","subsNo":"","lineNo":"","tgNo":"","tgName":null,"infoStatus":"1","orgName":"国网浙江杭州市余杭区供电有限公司","typeName":null,"infoStatusName":null,"dateDay":null,"orgNos":null,"nowTime":null,"countyName":null,"streetName":null,"villageName":null,"roadName":null,"communityName":null,"tranName":null,"sdLineName":null,"cityCode":"3340140","cityName":"国网浙江杭州市余杭区供电有限公司","provinceCode":null,"stopTime":"2019-08-19 10:00:00","powerType":"全部","powerOffArea":"110kV洛山变:陈米G352线","powerOffReason":"高压开关跳闸","powerOffId":"2019081931020020"},{"poweroffId":2019081931020009,"sgpoweroffId":null,"subsName":"","lineName":"10kV阡府9713线","pubTranName":"金龙三变,","scope":"浙江省-杭州市-滨江区-长河街道-中兴社区-金龙大厦小区","startTime":"2019-08-19 02:25:12","stopDate":"2019-08-19 08:15:12","orgNo":"3340101","typeCode":"电网故障停限电","poweroffArea":"110kV府前变:阡府9713线-金龙三变后段","poweroffReason":"(低压停电信息)低压开关跳闸 原预计停电结束时间2019-08-19 10:25:12,由于施工现场环境比较复杂，存在不确定因素，因此预估施工时间适当放长了，而实际施工进行得比较顺利，因此提前送电了","powerTime":"2019-08-19 07:37:20","powerComm":"已送电","subsNo":"","lineNo":"","tgNo":"","tgName":null,"infoStatus":"1","orgName":"浙江杭州电力客户服务中心","typeName":null,"infoStatusName":null,"dateDay":null,"orgNos":null,"nowTime":null,"countyName":null,"streetName":null,"villageName":null,"roadName":null,"communityName":null,"tranName":null,"sdLineName":null,"cityCode":"3340101","cityName":"浙江杭州电力客户服务中心","provinceCode":null,"stopTime":"2019-08-19 08:15:12","powerType":"全部","powerOffArea":"110kV府前变:阡府9713线-金龙三变后段","powerOffReason":"(低压停电信息)低压开关跳闸 原预计停电结束时间2019-08-19 10:25:12,由于施工现场环境比较复杂，存在不确定因素，因此预估施工时间适当放长了，而实际施工进行得比较顺利，因此提前送电了","powerOffId":"2019081931020009"},{"poweroffId":2019081831020349,"sgpoweroffId":null,"subsName":"","lineName":"10kV徐七T338线","pubTranName":"柳岩村委1号公变,","scope":"浙江省-杭州市-桐庐县-横村镇-柳岩行政村-柳岩自然村","startTime":"2019-08-18 22:33:59","stopDate":"2019-08-19 12:00:59","orgNo":"3340150","typeCode":"电网故障停限电","poweroffArea":"110kV横村变:徐七T338线-柳岩村委1号公变后段","poweroffReason":"(低压停电信息)低压开关跳闸","powerTime":"2019-08-19 11:33:09","powerComm":"全部送电","subsNo":"","lineNo":"","tgNo":"","tgName":null,"infoStatus":"1","orgName":"国网浙江桐庐县供电公司","typeName":null,"infoStatusName":null,"dateDay":null,"orgNos":null,"nowTime":null,"countyName":null,"streetName":null,"villageName":null,"roadName":null,"communityName":null,"tranName":null,"sdLineName":null,"cityCode":"3340150","cityName":"国网浙江桐庐县供电公司","provinceCode":null,"stopTime":"2019-08-19 12:00:59","powerType":"全部","powerOffArea":"110kV横村变:徐七T338线-柳岩村委1号公变后段","powerOffReason":"(低压停电信息)低压开关跳闸","powerOffId":"2019081831020349"},{"poweroffId":2019081831020348,"sgpoweroffId":null,"subsName":"","lineName":"10kV油管C927线","pubTranName":"党山村6#变,","scope":"浙江省-杭州市-萧山区-瓜沥镇-信源行政村(信源自然村,党柯路),瓜沥镇-党山行政村(党山自然村,后梅林自然村)、瓜沥镇信源村一带","startTime":"2019-08-18 22:17:06","stopDate":"2019-08-18 23:45:06","orgNo":"3340130","typeCode":"电网故障停限电","poweroffArea":"110kV党山变:油管C927线-党山村6#变台区低压开关","poweroffReason":"(低压停电信息)低压架空导线断线故障 原停电结束时间:2019-08-19 03:21:06,变更停电结束时间:2019-08-18 23:45:06。由于抢修工作提前完成,故需要提前送电。","powerTime":"2019-08-18 22:55:20","powerComm":"已送电","subsNo":"","lineNo":"","tgNo":"","tgName":null,"infoStatus":"1","orgName":"国网浙江杭州市萧山区供电有限公司","typeName":null,"infoStatusName":null,"dateDay":null,"orgNos":null,"nowTime":null,"countyName":null,"streetName":null,"villageName":null,"roadName":null,"communityName":null,"tranName":null,"sdLineName":null,"cityCode":"3340130","cityName":"国网浙江杭州市萧山区供电有限公司","provinceCode":null,"stopTime":"2019-08-18 23:45:06","powerType":"全部","powerOffArea":"110kV党山变:油管C927线-党山村6#变台区低压开关","powerOffReason":"(低压停电信息)低压架空导线断线故障 原停电结束时间:2019-08-19 03:21:06,变更停电结束时间:2019-08-18 23:45:06。由于抢修工作提前完成,故需要提前送电。","powerOffId":"2019081831020348"},{"poweroffId":2019081831020345,"sgpoweroffId":null,"subsName":"","lineName":"10kV桐浦D844线","pubTranName":"新港村港东1#将台山公变,山亚村1#俞家公变,新港村港东2#新村公变,中国石化销售有限公司浙江杭州石油分公司,新港村港东3号村委公变,俞良平沙场,山亚村2#新村公变,","scope":"浙江省-杭州市-富阳区-渌渚镇-山亚行政村(俞家自然村,山亚新村自然村,上畈新村自然村),渌渚镇-新港行政村(将台山自然村,港东新村自然村);浙江省-杭州市-富阳区-渌渚镇-山亚行政村-中国石化销售股份有限公司浙江杭州石油分公司","startTime":"2019-08-18 22:16:52","stopDate":"2019-08-19 02:16:52","orgNo":"3340170","typeCode":"电网故障停限电","poweroffArea":"110kV新桐变:桐浦D844线首端，桐浦D8444开关，桐浦D8445开关之间","poweroffReason":"高压开关跳闸","powerTime":"2019-08-19 02:00:55","powerComm":"已送电","subsNo":"","lineNo":"","tgNo":"","tgName":null,"infoStatus":"1","orgName":"国网浙江杭州市富阳区供电公司","typeName":null,"infoStatusName":null,"dateDay":null,"orgNos":null,"nowTime":null,"countyName":null,"streetName":null,"villageName":null,"roadName":null,"communityName":null,"tranName":null,"sdLineName":null,"cityCode":"3340170","cityName":"国网浙江杭州市富阳区供电公司","provinceCode":null,"stopTime":"2019-08-19 02:16:52","powerType":"全部","powerOffArea":"110kV新桐变:桐浦D844线首端，桐浦D8444开关，桐浦D8445开关之间","powerOffReason":"高压开关跳闸","powerOffId":"2019081831020345"},{"poweroffId":2019081831020341,"sgpoweroffId":null,"subsName":"","lineName":"10kV阳城C708线","pubTranName":"杭州靓爽清洗有限公司,欣阳精细化工2#,阳城精细化工(1315084345),赭山村9#变,南阳污水收集(1321067152),瑞格机械,福莱特塑料,冯氏彩钢板(1316000772),新晨颜料(1316003741),福莱特塑料,江城化工(1315078561),航峰金属材料(1316005506),欣阳精细,天昊化工(1315082312),新晨颜料(1316081609),超帆防腐设备,","scope":"浙江省-杭州市-萧山区-南阳街道-永利行政村-永利自然村,南阳街道-赭山社区(永利路,永里路);浙江省-杭州市-萧山区-南阳街道-赭山社区-杭州超帆防腐设备有限公司,南阳街道-坞里行政村(杭州翠宝厨卫有限公司,杭州航峰金属材料制造有限公司,杭州新晨颜料有限公司,杭州萧山南阳污水收集中心,杭州福莱特塑料开发有限公司,杭州安涂森实业有限公司,杭州冯氏彩钢板有限公司,杭州欣阳精细化工有限公司),南阳街道-远大行政村(杭州萧山天昊化工有限公司,杭州萧山江城化工有限公司,杭州靓爽清洗有限公司一带","startTime":"2019-08-18 22:10:23","stopDate":"2019-08-18 23:55:23","orgNo":"3340130","typeCode":"电网故障停限电","poweroffArea":"35kV赭山变:阳城C708线-阳城C708线福莱特分线后段","poweroffReason":"高压柱上断路器短路故障","powerTime":"2019-08-18 23:12:35","powerComm":"已送电","subsNo":"","lineNo":"","tgNo":"","tgName":null,"infoStatus":"1","orgName":"国网浙江杭州市萧山区供电有限公司","typeName":null,"infoStatusName":null,"dateDay":null,"orgNos":null,"nowTime":null,"countyName":null,"streetName":null,"villageName":null,"roadName":null,"communityName":null,"tranName":null,"sdLineName":null,"cityCode":"3340130","cityName":"国网浙江杭州市萧山区供电有限公司","provinceCode":null,"stopTime":"2019-08-18 23:55:23","powerType":"全部","powerOffArea":"35kV赭山变:阳城C708线-阳城C708线福莱特分线后段","powerOffReason":"高压柱上断路器短路故障","powerOffId":"2019081831020341"},{"poweroffId":2019081831020336,"sgpoweroffId":null,"subsName":"","lineName":"10kV南诸Y689线","pubTranName":"永平村砚塘台区,","scope":"浙江省-杭州市-建德市-大同镇-永平行政村 砚塘自然村,水泥厂自然村一带用户。","startTime":"2019-08-18 21:48:00","stopDate":"2019-08-19 01:00:00","orgNo":"3340180","typeCode":"电网故障停限电","poweroffArea":"110kV大同变:南诸Y689线-永平村砚塘台区后段","poweroffReason":"(低压停电信息)低压熔芯烧毁 原预计停电结束时间23:50，由于施工现场环境比较复杂，存在不确定因素，因此预估施工时间不足，延迟送电至19日01:00","powerTime":"2019-08-19 00:12:00","powerComm":"已送电","subsNo":"","lineNo":"","tgNo":"","tgName":null,"infoStatus":"1","orgName":"国网浙江建德市供电有限公司","typeName":null,"infoStatusName":null,"dateDay":null,"orgNos":null,"nowTime":null,"countyName":null,"streetName":null,"villageName":null,"roadName":null,"communityName":null,"tranName":null,"sdLineName":null,"cityCode":"3340180","cityName":"国网浙江建德市供电有限公司","provinceCode":null,"stopTime":"2019-08-19 01:00:00","powerType":"全部","powerOffArea":"110kV大同变:南诸Y689线-永平村砚塘台区后段","powerOffReason":"(低压停电信息)低压熔芯烧毁 原预计停电结束时间23:50，由于施工现场环境比较复杂，存在不确定因素，因此预估施工时间不足，延迟送电至19日01:00","powerOffId":"2019081831020336"},{"poweroffId":2019081831020335,"sgpoweroffId":null,"subsName":"","lineName":"10kV桐浦D844线","pubTranName":"杭州富阳富顺活性钙有限公司2#变,富阳市渌渚大同石英砂二厂,富阳长奇生物科技有限公司,巍翔科技,山亚村上畈1#戚家公变,岘口村2号邵家公变,山亚村1#俞家公变,杭州富阳兴峰碳酸钙有限公司,山亚村上畈2#新村公变,富顺活性钙2#变,山亚村3#上港公变,博源固体废物回收,山亚村6#凌家公变,杭州富阳富顺活性钙有限公司1#变,岘口村7#金家公变,山亚村5#麻山公变,新港村港东2#新村公变,新港村港东1#将台山公变,阆坞村阆港1#桥里公变,山亚村2#新村公变,富阳市渌渚镇山亚村村民委员会,俞良平沙场,渌渚镇山亚村村民委员会,阆坞村大同2#吕家公变,富阳市渌渚镇迎军制砂厂,阆坞村大同4#村委公变,阆坞村大同1#邵家公变,中国石化销售有限公司浙江杭州石油分公司,岘口村1#徐家公变,富阳长奇生物科技有限公司,富阳市山亚制砂有限公司,2#主变,阆坞村汪家1#洪家岭公变,阆坞村大同3#新村公变,阆坞村汪家2#公变,阆坞村阆港2号孙家公变,新港村港东3号村委公变,","scope":"浙江省-杭州市-富阳区-渌渚镇-山亚行政村(俞家自然村,山亚新村自然村,上畈新村自然村,上港自然村,戚家自然村,麻山自然村,凌徐自然村),渌渚镇-新港行政村(将台山自然村,港东新村自然村),渌渚镇-阆坞行政村(汪家洪家岭自然村,汪家自然村,大同邵家自然村,大同吕家自然村,阆港桥里自然村,阆港孙家自然村,大同新村自然村,大同村委自然村),渌渚镇-岘口行政村(邵家自然村,新建路自然村,徐家自然村,金家自然村);浙江省-杭州市-富阳区-渌渚镇-岘口行政村-杭州富阳博源固体废物回收有限公司,渌渚镇-山亚行政村(富阳市渌渚镇山亚村村民委员会,富阳市山亚制砂有限公司,杭州山亚南方水泥有限公司,浙江巍翔科技集团有限公司,富阳市渌渚镇迎军制砂厂,中国石化销售股份有限公司浙江杭州石油分公司),渌渚镇-阆坞行政村(杭州富阳兴峰碳酸钙有限公司,杭州垚盛建设工程有限公司,富阳市渌渚大同石英砂二厂,杭州富阳长奇生物科技有限公司,杭州富阳路顺建材有限公司,杭州富阳富顺活性钙有限公司)","startTime":"2019-08-18 21:58:15","stopDate":"2019-08-18 22:30:15","orgNo":"3340170","typeCode":"电网故障停限电","poweroffArea":"110kV新桐变:桐浦D844线-桐浦D8444开关后段","poweroffReason":"高压开关跳闸","powerTime":"2019-08-18 22:18:23","powerComm":"已送电","subsNo":"","lineNo":"","tgNo":"","tgName":null,"infoStatus":"1","orgName":"国网浙江杭州市富阳区供电公司","typeName":null,"infoStatusName":null,"dateDay":null,"orgNos":null,"nowTime":null,"countyName":null,"streetName":null,"villageName":null,"roadName":null,"communityName":null,"tranName":null,"sdLineName":null,"cityCode":"3340170","cityName":"国网浙江杭州市富阳区供电公司","provinceCode":null,"stopTime":"2019-08-18 22:30:15","powerType":"全部","powerOffArea":"110kV新桐变:桐浦D844线-桐浦D8444开关后段","powerOffReason":"高压开关跳闸","powerOffId":"2019081831020335"}],"pageModel":{"pageNow":1227,"totalCount":17789,"totalPage":1779,"tableRows":0,"pageCount":10,"beginCount":12260},"isExperi":"1"}