{"message":"","today":"2020-06-16","seleList":[{"poweroffId":2019081831020286,"sgpoweroffId":null,"subsName":"","lineName":"10kV荣联C522线","pubTranName":"城北新村1#公变,","scope":"浙江省-杭州市-萧山区-北干街道-工人路社区-工人路城北新村、城北新村小区1幢2单元一带","startTime":"2019-08-18 20:26:43","stopDate":"2019-08-18 22:00:00","orgNo":"3340130","typeCode":"电网故障停限电","poweroffArea":"110kV湘湖变:荣联C522线-城北新村1#公变台区低压开关","poweroffReason":"（低压停电信息）低压漏电保护器短路故障","powerTime":"2019-08-18 21:07:14","powerComm":"已送电","subsNo":"","lineNo":"","tgNo":"","tgName":null,"infoStatus":"1","orgName":"国网浙江杭州市萧山区供电有限公司","typeName":null,"infoStatusName":null,"dateDay":null,"orgNos":null,"nowTime":null,"countyName":null,"streetName":null,"villageName":null,"roadName":null,"communityName":null,"tranName":null,"sdLineName":null,"cityCode":"3340130","cityName":"国网浙江杭州市萧山区供电有限公司","provinceCode":null,"stopTime":"2019-08-18 22:00:00","powerType":"全部","powerOffArea":"110kV湘湖变:荣联C522线-城北新村1#公变台区低压开关","powerOffReason":"（低压停电信息）低压漏电保护器短路故障","powerOffId":"2019081831020286"},{"poweroffId":2019081831020285,"sgpoweroffId":null,"subsName":"","lineName":"10kV中豪T241线","pubTranName":"梅蓉排涝站,桐庐亿林新能源有限公司,桐庐县窄溪小学,玉翰1号公变,桐庐久利金属有限公司,桐庐炜炜碳酸钙厂,杭州品鉴文化创意有限公司变压器间隔配电变压器,桐庐炜炜碳酸钙厂,1#,桐庐炜炜碳酸钙厂,桐庐亿林新能源有限公司,桐庐久利金属有限公司,","scope":"浙江省-杭州市-桐庐县-江南镇-窄溪行政村-窄石路;桐君街道-梅蓉行政村(梅蓉排涝站,桐庐炜炜碳酸钙厂,桐庐永昌铁镍合金有限公司,桐庐亿林新能源有限公司),江南镇-窄溪行政村(桐庐县窄溪小学,杭州品鉴文化创意有限公司,桐庐民安物业管理有限公司，江南名苑小区)","startTime":"2019-08-18 20:26:57","stopDate":"2019-08-18 23:29:57","orgNo":"3340150","typeCode":"电网故障停限电","poweroffArea":"110kV石阜变:中豪T241线","poweroffReason":"(低压停电信息)低压开关跳闸","powerTime":"2019-08-18 23:26:55","powerComm":"已送电","subsNo":"","lineNo":"","tgNo":"","tgName":null,"infoStatus":"1","orgName":"国网浙江桐庐县供电公司","typeName":null,"infoStatusName":null,"dateDay":null,"orgNos":null,"nowTime":null,"countyName":null,"streetName":null,"villageName":null,"roadName":null,"communityName":null,"tranName":null,"sdLineName":null,"cityCode":"3340150","cityName":"国网浙江桐庐县供电公司","provinceCode":null,"stopTime":"2019-08-18 23:29:57","powerType":"全部","powerOffArea":"110kV石阜变:中豪T241线","powerOffReason":"(低压停电信息)低压开关跳闸","powerOffId":"2019081831020285"},{"poweroffId":2019081831020275,"sgpoweroffId":null,"subsName":"","lineName":"10kV徐七T338线","pubTranName":"柳岩村委1号公变,","scope":"浙江省-杭州市-桐庐县-横村镇-柳岩行政村-柳岩自然村","startTime":"2019-08-18 20:01:40","stopDate":"2019-08-18 23:01:40","orgNo":"3340150","typeCode":"电网故障停限电","poweroffArea":"110kV横村变:徐七T338线-柳岩村委1号公变后段","poweroffReason":"(低压停电信息)低压开关跳闸","powerTime":"2019-08-18 22:36:00","powerComm":"已送电","subsNo":"","lineNo":"","tgNo":"","tgName":null,"infoStatus":"1","orgName":"国网浙江桐庐县供电公司","typeName":null,"infoStatusName":null,"dateDay":null,"orgNos":null,"nowTime":null,"countyName":null,"streetName":null,"villageName":null,"roadName":null,"communityName":null,"tranName":null,"sdLineName":null,"cityCode":"3340150","cityName":"国网浙江桐庐县供电公司","provinceCode":null,"stopTime":"2019-08-18 23:01:40","powerType":"全部","powerOffArea":"110kV横村变:徐七T338线-柳岩村委1号公变后段","powerOffReason":"(低压停电信息)低压开关跳闸","powerOffId":"2019081831020275"},{"poweroffId":2019081831020273,"sgpoweroffId":null,"subsName":"","lineName":"10kV安仁Y134线","pubTranName":"陵上新村陵上台区,","scope":"浙江省-杭州市-建德市-乾潭镇-幸福行政村-幸福自然村，陵上新村行政村-大茶园自然村,官浪塘自然村,陵上自然村一带用户。","startTime":"2019-08-18 19:48:00","stopDate":"2019-08-18 21:00:00","orgNo":"3340180","typeCode":"电网故障停限电","poweroffArea":"110kV乾潭变:安仁Y134线-陵上新村陵上台区后段","poweroffReason":"(低压停电信息)低压开关跳闸 原预计停电结束时间22:00，目前故障已修复，现将停电时间变更至21:00。","powerTime":"2019-08-18 20:50:00","powerComm":"已送电","subsNo":"","lineNo":"","tgNo":"","tgName":null,"infoStatus":"1","orgName":"国网浙江建德市供电有限公司","typeName":null,"infoStatusName":null,"dateDay":null,"orgNos":null,"nowTime":null,"countyName":null,"streetName":null,"villageName":null,"roadName":null,"communityName":null,"tranName":null,"sdLineName":null,"cityCode":"3340180","cityName":"国网浙江建德市供电有限公司","provinceCode":null,"stopTime":"2019-08-18 21:00:00","powerType":"全部","powerOffArea":"110kV乾潭变:安仁Y134线-陵上新村陵上台区后段","powerOffReason":"(低压停电信息)低压开关跳闸 原预计停电结束时间22:00，目前故障已修复，现将停电时间变更至21:00。","powerOffId":"2019081831020273"},{"poweroffId":2019081831020272,"sgpoweroffId":null,"subsName":"","lineName":"10kV玉琮H443线","pubTranName":"西塘河村大塘坝公变,西塘河村张吴村2号公变,西塘河村大塘坝4号公变,西塘河村大塘坝3号公变,西塘河村张吴村公变,","scope":"浙江省-杭州市-余杭区-良渚街道-西塘河行政村(大塘坝自然村,西溪路)一带","startTime":"2019-08-18 19:49:00","stopDate":"2019-08-18 21:00:00","orgNo":"3340140","typeCode":"电网故障停限电","poweroffArea":"110kV勾庄变:玉琮H443线-玉琮H443线大塘坝分线开关后段","poweroffReason":"高压开关跳闸","powerTime":"2019-08-18 20:54:00","powerComm":"已送电","subsNo":"","lineNo":"","tgNo":"","tgName":null,"infoStatus":"1","orgName":"国网浙江杭州市余杭区供电有限公司","typeName":null,"infoStatusName":null,"dateDay":null,"orgNos":null,"nowTime":null,"countyName":null,"streetName":null,"villageName":null,"roadName":null,"communityName":null,"tranName":null,"sdLineName":null,"cityCode":"3340140","cityName":"国网浙江杭州市余杭区供电有限公司","provinceCode":null,"stopTime":"2019-08-18 21:00:00","powerType":"全部","powerOffArea":"110kV勾庄变:玉琮H443线-玉琮H443线大塘坝分线开关后段","powerOffReason":"高压开关跳闸","powerOffId":"2019081831020272"},{"poweroffId":2019081831020271,"sgpoweroffId":null,"subsName":"","lineName":"10kV春联394线","pubTranName":"石珠1号公变,","scope":"浙江省-杭州市-桐庐县-城南街道-金东行政村-石珠自然村","startTime":"2019-08-18 19:49:42","stopDate":"2019-08-18 21:49:42","orgNo":"3340150","typeCode":"电网故障停限电","poweroffArea":"110kV迎春变:春联394线-石珠1号公变后段","poweroffReason":"(低压停电信息)低压开关跳闸","powerTime":"2019-08-18 21:43:14","powerComm":"已送电","subsNo":"","lineNo":"","tgNo":"","tgName":null,"infoStatus":"1","orgName":"国网浙江桐庐县供电公司","typeName":null,"infoStatusName":null,"dateDay":null,"orgNos":null,"nowTime":null,"countyName":null,"streetName":null,"villageName":null,"roadName":null,"communityName":null,"tranName":null,"sdLineName":null,"cityCode":"3340150","cityName":"国网浙江桐庐县供电公司","provinceCode":null,"stopTime":"2019-08-18 21:49:42","powerType":"全部","powerOffArea":"110kV迎春变:春联394线-石珠1号公变后段","powerOffReason":"(低压停电信息)低压开关跳闸","powerOffId":"2019081831020271"},{"poweroffId":2019081831020269,"sgpoweroffId":null,"subsName":"","lineName":"10kV西中H510线","pubTranName":"窑北村黄家园公变,窑北村常青河2号公变,窑北村秀才弄公变,窑北村金家墩公变,窑北村徐家头公变,窑北村半刁山公变,窑北村十亩头1号公变,窑北村十亩头2号公变,渔老大,窑北村何中桥公变,杭州余杭瓶窑煤气有限公司6110118074,窑北村常青河1号公变,","scope":"浙江省-杭州市-余杭区-瓶窑镇-南山行政村-南山自然村,瓶窑镇-窑北行政村(张家墩自然村,十亩头自然村,半刁山自然村,何中桥自然村,常青河自然村,通凉亭自然村,西中加工场自然村,大滩自然村,黄家园自然村,西中水库自然村,王家自然村,徐家头自然村,徐家头,长庆河组,秀才弄自然村,十亩头组,金家墩自然村,翁家头,毛元岭自然村,(何中)十亩头自然村);瓶窑镇-瓶窑行政村(杭州余杭瓶窑煤气有限公司,杭州鱼佬大生态农庄(普通合伙))一带","startTime":"2019-08-18 19:43:00","stopDate":"2019-08-18 23:00:00","orgNo":"3340140","typeCode":"电网故障停限电","poweroffArea":"35kV瓶镇变:西中H510线","poweroffReason":"高压开关跳闸","powerTime":"2019-08-18 22:51:00","powerComm":"已送电","subsNo":"","lineNo":"","tgNo":"","tgName":null,"infoStatus":"1","orgName":"国网浙江杭州市余杭区供电有限公司","typeName":null,"infoStatusName":null,"dateDay":null,"orgNos":null,"nowTime":null,"countyName":null,"streetName":null,"villageName":null,"roadName":null,"communityName":null,"tranName":null,"sdLineName":null,"cityCode":"3340140","cityName":"国网浙江杭州市余杭区供电有限公司","provinceCode":null,"stopTime":"2019-08-18 23:00:00","powerType":"全部","powerOffArea":"35kV瓶镇变:西中H510线","powerOffReason":"高压开关跳闸","powerOffId":"2019081831020269"},{"poweroffId":2019081831020265,"sgpoweroffId":null,"subsName":"","lineName":"10kV五联C205线","pubTranName":"浙江奥兰特家纺有限公司2#,五联村2#变,五联村6#变,变压器,变压器,浙江兴隆羽绒有限公司,和通家用纺织品,杭州市萧山区公路管理处,五联村4#变,杭州金芝瑶生物科技有限公司变压器,变压器,杭州亚澳制衣有限公司,五联村11#变,新塘街道五联村经济合作社,五联村14#变,变压器,杭州干氏玻璃家具制造有限公司,浙江中新电力集团萧山电力承装有限公司,五联村9#变,杭州萧山万达塑料瓶有限公司,五联村19#变,浙江奥兰特家纺有限公司1#,奇皓纺织,中方厨具有限公司,变压器,五联村3#变,变压器,固陵汽配,五联村16#变,","scope":"浙江省-杭州市-萧山区-新塘街道-五联行政村(南沿埭自然村,单家埭自然村,后河自然村,庵前胡自然村,萧绍东路,五联自然村);新塘街道-五联行政村(杭州金芝瑶生物科技有限公司,杭州萧山三星装饰有限公司,杭州萧山干氏玻璃家俱制造有限公司,杭州萧山万达塑料瓶有限公司,杭州萧山放心食品配送中心有限公司,杭州市萧山区公路管理处,浙江中新电力工程建设有限公司,杭州萧山新塘街道五联村经济联合社,杭州汇星服饰有限公司,杭州维美家用纺织品有限公司),新塘街道-西许行政村(浙江兴隆羽绒有限公司,杭州中方厨具有限公司,杭州和通家用纺织品有限公司,杭州金芝瑶生物科技有限公司),新塘街道(姑娘桥行政村-浙江萧山固陵汽配有限公司,琴山下社区-浙江奥兰特家纺有限公司)一带","startTime":"2019-08-18 19:20:43","stopDate":"2019-08-18 21:02:43","orgNo":"3340130","typeCode":"电网故障停限电","poweroffArea":"110kV霞江变:五联C205线","poweroffReason":"高压柱上断路器短路故障","powerTime":"2019-08-18 20:50:14","powerComm":"全部送电","subsNo":"","lineNo":"","tgNo":"","tgName":null,"infoStatus":"1","orgName":"国网浙江杭州市萧山区供电有限公司","typeName":null,"infoStatusName":null,"dateDay":null,"orgNos":null,"nowTime":null,"countyName":null,"streetName":null,"villageName":null,"roadName":null,"communityName":null,"tranName":null,"sdLineName":null,"cityCode":"3340130","cityName":"国网浙江杭州市萧山区供电有限公司","provinceCode":null,"stopTime":"2019-08-18 21:02:43","powerType":"全部","powerOffArea":"110kV霞江变:五联C205线","powerOffReason":"高压柱上断路器短路故障","powerOffId":"2019081831020265"},{"poweroffId":2019081831020258,"sgpoweroffId":null,"subsName":"","lineName":"10kV东胜A658线","pubTranName":"盛东村14#变,","scope":"浙江省-杭州市-萧山区-新街镇、新街街道-盛东行政村-盛东自然村等一带","startTime":"2019-08-18 19:17:51","stopDate":"2019-08-18 21:59:51","orgNo":"3340130","typeCode":"电网故障停限电","poweroffArea":"110kV东霖变:东胜A658线-盛东村14#变台区低压开关","poweroffReason":"（低压停电信息）低压漏电保护器短路故障","powerTime":"2019-08-18 21:23:05","powerComm":"已送电","subsNo":"","lineNo":"","tgNo":"","tgName":null,"infoStatus":"1","orgName":"国网浙江杭州市萧山区供电有限公司","typeName":null,"infoStatusName":null,"dateDay":null,"orgNos":null,"nowTime":null,"countyName":null,"streetName":null,"villageName":null,"roadName":null,"communityName":null,"tranName":null,"sdLineName":null,"cityCode":"3340130","cityName":"国网浙江杭州市萧山区供电有限公司","provinceCode":null,"stopTime":"2019-08-18 21:59:51","powerType":"全部","powerOffArea":"110kV东霖变:东胜A658线-盛东村14#变台区低压开关","powerOffReason":"（低压停电信息）低压漏电保护器短路故障","powerOffId":"2019081831020258"},{"poweroffId":2019081831020255,"sgpoweroffId":null,"subsName":"","lineName":"10kV凌村H570线","pubTranName":"山沟沟村后山公变,径山旅游6120550770,山沟沟村盛家塘公变,鸬鸟街道太平集镇公变,羊毛衫厂2,太平山村店边公变,太平山村金鸡山公变,太平山村灵村坞1号公变,山沟沟村宋村下村公变,山沟沟宾馆,鸬鸟太平街道公变,笋厂,山沟沟村上高村公变,山沟沟村叶家堂公变,太平山村上泮公变,太平山村塘坞公变,太平山村中锡康2号公变,太平山村后坞公变,山沟沟村斗坞公变,山沟沟村汤坑公变,太平山村祝家湾公变,太平山村螺丝滩公变,山沟沟村观口公变,山沟沟村下溪头公变,太平山村太平集镇2号公变,太公堂村盛家头公变,山沟沟村汤坑2号公变,太公堂村尖山脚公变,太平山村庙外头公变,太平山村中锡坑公变,山沟沟村下余村公变,太公堂村下村公变,太公堂村石桥头公变,太公堂村村公变,山沟沟村毛塘公变,太平山村半岭公变,太平山村下泮公变,太平山村外锡康公变,太平山村里锡康调头场公变,太公堂村灵村坞2号公变,山沟沟村宋村2号村变,太平山村里锡康公变,光大利合6120867007,鸬鸟水厂6120051834,径山旅游（洗尘雾）6120550768,药厂,太平山村后坞上村公变,山沟沟村阳畈公变,羊毛衫厂1,太平山村里阮坞堂公变,山沟沟村上高公变,太平山村塘坞2号公变,太平山村施家坞公变,太公堂村大鹿寺公变,山沟沟村宋村公变,太平山村杨柳树公变,","scope":"浙江省-杭州市-余杭区-鸬鸟镇-太平山行政村(半岭自然村,太平山自然村,上潘自然村,外锡康自然村,里锡康自然村,俞家塘自然村,后坞自然村,施家坞自然村,官庙自然村,下潘自然村),鸬鸟镇-山沟沟行政村(下溪头自然村,山沟沟自然村,灌口自然村,下余自然村,上高自然村,后山自然村,嵩自然村,小泥山自然村,汤坑自然村,阳畈自然村,山沟沟,茅塘自然村),鸬鸟镇-太公堂行政村(太公堂自然村,尖山脚自然村,盛家头自然村,大麓寺自然村,凌自然村坞自然村),鸬鸟镇(雅城行政村-雅城自然村,前庄行政村-前庄自然村),黄湖镇(清波行政村-清波自然村,青山行政村-青山自然村),百丈镇(溪口行政村-溪口自然村,石竹园行政村-石竹园自然村);鸬鸟镇-太平山行政村(杭州余杭径山旅游度假有限公司,杭州太平针织时装有限公司),鸬鸟镇-山沟沟行政村(杭州余杭径山旅游度假有限公司,杭州黎鹰生态农业开发有限公司,杭州阿汤生态农业开发有限公司,杭州山沟沟旅游度假有限公司),鸬鸟镇(前庄行政村-杭州市余杭区鸬鸟镇人民政府,太公堂行政村-杭州余杭区鸬鸟太平太公堂炳芳竹制品工艺厂)","startTime":"2019-08-18 19:16:00","stopDate":"2019-08-18 23:16:00","orgNo":"3340140","typeCode":"电网故障停限电","poweroffArea":"35kV黄湖变:凌村H570线-凌村H5705开关后段","poweroffReason":"高压开关跳闸","powerTime":"2019-08-18 22:34:00","powerComm":"已送电","subsNo":"","lineNo":"","tgNo":"","tgName":null,"infoStatus":"1","orgName":"国网浙江杭州市余杭区供电有限公司","typeName":null,"infoStatusName":null,"dateDay":null,"orgNos":null,"nowTime":null,"countyName":null,"streetName":null,"villageName":null,"roadName":null,"communityName":null,"tranName":null,"sdLineName":null,"cityCode":"3340140","cityName":"国网浙江杭州市余杭区供电有限公司","provinceCode":null,"stopTime":"2019-08-18 23:16:00","powerType":"全部","powerOffArea":"35kV黄湖变:凌村H570线-凌村H5705开关后段","powerOffReason":"高压开关跳闸","powerOffId":"2019081831020255"}],"pageModel":{"pageNow":1229,"totalCount":17789,"totalPage":1779,"tableRows":0,"pageCount":10,"beginCount":12280},"isExperi":"1"}