{"message":"","today":"2020-06-16","seleList":[{"poweroffId":2019081831020252,"sgpoweroffId":null,"subsName":"","lineName":"10kV振兴T250线","pubTranName":"沈家村2号公变,","scope":"浙江省-杭州市-桐庐县-江南镇-窄溪行政村-沈家自然村","startTime":"2019-08-18 18:59:00","stopDate":"2019-08-18 20:59:00","orgNo":"3340150","typeCode":"电网故障停限电","poweroffArea":"110kV石阜变:振兴T250线沈家村2号公变配变","poweroffReason":"(低压停电信息)低压开关跳闸","powerTime":"2019-08-18 20:37:53","powerComm":"已送电","subsNo":"","lineNo":"","tgNo":"","tgName":null,"infoStatus":"1","orgName":"国网浙江桐庐县供电公司","typeName":null,"infoStatusName":null,"dateDay":null,"orgNos":null,"nowTime":null,"countyName":null,"streetName":null,"villageName":null,"roadName":null,"communityName":null,"tranName":null,"sdLineName":null,"cityCode":"3340150","cityName":"国网浙江桐庐县供电公司","provinceCode":null,"stopTime":"2019-08-18 20:59:00","powerType":"全部","powerOffArea":"110kV石阜变:振兴T250线沈家村2号公变配变","powerOffReason":"(低压停电信息)低压开关跳闸","powerOffId":"2019081831020252"},{"poweroffId":2019081831020249,"sgpoweroffId":null,"subsName":"","lineName":"10kV安桥D203线","pubTranName":"富阳市富春街道建业石料厂,横山下4#油树坞公变,富阳市路灯安装维修管理所,富阳市君龙水泥砖有限公司,富阳市富春街道横山下村村民委员会,富阳市职业高级中学变压器2,横山下3#油树坞公变,富阳学院1,富阳市云来亚化工有限公司,横山下2号油树坞公变,富阳市职业高级中学变压器1,富阳市横山矿粉厂,","scope":"浙江省-杭州市-富阳区-富春街道-青云桥行政村(油树坞自然村,温州厂自然村,青云桥自然村,冷水塘自然村,横山下自然村);富春街道(富阳市富春街道横山下村村民委员会,富阳市君龙水泥砖有限公司,杭州富阳横山矿粉厂,杭州富阳城市照明工程有限公司,富阳市职业高级中学)","startTime":"2019-08-18 19:06:00","stopDate":"2019-08-18 21:06:00","orgNo":"3340170","typeCode":"电网故障停限电","poweroffArea":"35kV大青变:安桥D203线安桥D2031开关后段","poweroffReason":"高压开关跳闸","powerTime":"2019-08-18 20:46:40","powerComm":"已送电","subsNo":"","lineNo":"","tgNo":"","tgName":null,"infoStatus":"1","orgName":"国网浙江杭州市富阳区供电公司","typeName":null,"infoStatusName":null,"dateDay":null,"orgNos":null,"nowTime":null,"countyName":null,"streetName":null,"villageName":null,"roadName":null,"communityName":null,"tranName":null,"sdLineName":null,"cityCode":"3340170","cityName":"国网浙江杭州市富阳区供电公司","provinceCode":null,"stopTime":"2019-08-18 21:06:00","powerType":"全部","powerOffArea":"35kV大青变:安桥D203线安桥D2031开关后段","powerOffReason":"高压开关跳闸","powerOffId":"2019081831020249"},{"poweroffId":2019081831020248,"sgpoweroffId":null,"subsName":"","lineName":"10kV王村C259线","pubTranName":"浙江大庄实业集团有限公司1#,新河村8#变,2#,浙江大庄实业集团有限公司2#,杭州驰丰机械有限公司,新河村1#变,杭州好耐五金机械有限公司（王村）1#,浙江大庄实业集团有限公司3#,新河村3#变,","scope":"浙江省-杭州市-萧山区-临浦镇-新河行政村(油车桥自然村,五间头自然村,老十房自然村);临浦镇-新河行政村(杭州好耐五金机械有限公司,杭州大索科技有限公司,杭州驰丰机械有限公司)等一带","startTime":"2019-08-18 19:05:45","stopDate":"2019-08-18 21:35:45","orgNo":"3340130","typeCode":"电网故障停限电","poweroffArea":"110kV所前变:王村C259线-王村C2593开关后段","poweroffReason":"高压开关跳闸","powerTime":"2019-08-18 21:02:55","powerComm":"已送电","subsNo":"","lineNo":"","tgNo":"","tgName":null,"infoStatus":"1","orgName":"国网浙江杭州市萧山区供电有限公司","typeName":null,"infoStatusName":null,"dateDay":null,"orgNos":null,"nowTime":null,"countyName":null,"streetName":null,"villageName":null,"roadName":null,"communityName":null,"tranName":null,"sdLineName":null,"cityCode":"3340130","cityName":"国网浙江杭州市萧山区供电有限公司","provinceCode":null,"stopTime":"2019-08-18 21:35:45","powerType":"全部","powerOffArea":"110kV所前变:王村C259线-王村C2593开关后段","powerOffReason":"高压开关跳闸","powerOffId":"2019081831020248"},{"poweroffId":2019081831020245,"sgpoweroffId":null,"subsName":"","lineName":"10kV桐浦D844线","pubTranName":"富顺活性钙2#变,阆坞村大同2#吕家公变,岘口村7#金家公变,渌渚镇山亚村村民委员会,山亚村上畈2#新村公变,新港村港东1#将台山公变,富阳市渌渚镇山亚村村民委员会,阆坞村大同1#邵家公变,中国石化销售有限公司浙江杭州石油分公司,杭州富阳富顺活性钙有限公司2#变,富阳长奇生物科技有限公司,杭州富阳富顺活性钙有限公司1#变,俞良平沙场,阆坞村阆港1#桥里公变,山亚村3#上港公变,阆坞村大同3#新村公变,杭州富阳兴峰碳酸钙有限公司,富阳市渌渚镇迎军制砂厂,阆坞村汪家1#洪家岭公变,岘口村2号邵家公变,阆坞村大同4#村委公变,山亚村1#俞家公变,富阳市渌渚大同石英砂二厂,巍翔科技,阆坞村汪家2#公变,山亚村上畈1#戚家公变,山亚村5#麻山公变,新港村港东3号村委公变,新港村港东2#新村公变,山亚村6#凌家公变,富阳长奇生物科技有限公司,阆坞村阆港2号孙家公变,2#主变,岘口村1#徐家公变,博源固体废物回收,富阳市山亚制砂有限公司,山亚村2#新村公变,","scope":"浙江省-杭州市-富阳区-渌渚镇-山亚行政村(俞家自然村,山亚新村自然村,上畈新村自然村,上港自然村,戚家自然村,麻山自然村,凌徐自然村),渌渚镇-新港行政村(将台山自然村,港东新村自然村),渌渚镇-阆坞行政村(汪家洪家岭自然村,汪家自然村,大同邵家自然村,大同吕家自然村,阆港桥里自然村,阆港孙家自然村,大同新村自然村,大同村委自然村),渌渚镇-岘口行政村(邵家自然村,新建路自然村,徐家自然村,金家自然村);浙江省-杭州市-富阳区-渌渚镇-岘口行政村-杭州富阳博源固体废物回收有限公司,渌渚镇-山亚行政村(富阳市渌渚镇山亚村村民委员会,富阳市山亚制砂有限公司,杭州山亚南方水泥有限公司,浙江巍翔科技集团有限公司,富阳市渌渚镇迎军制砂厂,中国石化销售股份有限公司浙江杭州石油分公司),渌渚镇-阆坞行政村(杭州富阳兴峰碳酸钙有限公司,杭州垚盛建设工程有限公司,富阳市渌渚大同石英砂二厂,杭州富阳长奇生物科技有限公司,杭州富阳路顺建材有限公司,杭州富阳富顺活性钙有限公司)","startTime":"2019-08-18 19:05:13","stopDate":"2019-08-18 21:05:13","orgNo":"3340170","typeCode":"电网故障停限电","poweroffArea":"110kV新桐变:桐浦D844线-桐浦D8444开关后段","poweroffReason":"高压开关跳闸","powerTime":"2019-08-18 20:46:17","powerComm":"已送电","subsNo":"","lineNo":"","tgNo":"","tgName":null,"infoStatus":"1","orgName":"国网浙江杭州市富阳区供电公司","typeName":null,"infoStatusName":null,"dateDay":null,"orgNos":null,"nowTime":null,"countyName":null,"streetName":null,"villageName":null,"roadName":null,"communityName":null,"tranName":null,"sdLineName":null,"cityCode":"3340170","cityName":"国网浙江杭州市富阳区供电公司","provinceCode":null,"stopTime":"2019-08-18 21:05:13","powerType":"全部","powerOffArea":"110kV新桐变:桐浦D844线-桐浦D8444开关后段","powerOffReason":"高压开关跳闸","powerOffId":"2019081831020245"},{"poweroffId":2019081831020239,"sgpoweroffId":null,"subsName":"","lineName":"10kV秋夕G317线","pubTranName":"邵家坝村罗家坝公变,锦宏金属,邵家坝村邵家坝大队公变,邵家坝村邵家坝一组公变,邵家坝村罗家坝南公变,杭州利乐纸管有限公司,","scope":"浙江省-杭州市-余杭区-塘栖镇-邵家坝行政村(邵家坝村,邵家坝);塘栖镇-邵家坝行政村(杭州锦宏金属制品有限公司,杭州利乐纸管有限公司)","startTime":"2019-08-18 18:58:00","stopDate":"2019-08-18 20:58:00","orgNo":"3340140","typeCode":"电网故障停限电","poweroffArea":"110kV西苑变:秋夕G317线-邵家坝分线分段开关后段","poweroffReason":"高压开关跳闸","powerTime":"2019-08-18 20:53:00","powerComm":"已送电","subsNo":"","lineNo":"","tgNo":"","tgName":null,"infoStatus":"1","orgName":"国网浙江杭州市余杭区供电有限公司","typeName":null,"infoStatusName":null,"dateDay":null,"orgNos":null,"nowTime":null,"countyName":null,"streetName":null,"villageName":null,"roadName":null,"communityName":null,"tranName":null,"sdLineName":null,"cityCode":"3340140","cityName":"国网浙江杭州市余杭区供电有限公司","provinceCode":null,"stopTime":"2019-08-18 20:58:00","powerType":"全部","powerOffArea":"110kV西苑变:秋夕G317线-邵家坝分线分段开关后段","powerOffReason":"高压开关跳闸","powerOffId":"2019081831020239"},{"poweroffId":2019081831020231,"sgpoweroffId":null,"subsName":"","lineName":"10kV三峰A213线","pubTranName":"三峰村3#变,","scope":"浙江省-杭州市-萧山区-临浦镇-三峰行政村-周家湖自然村、浙江省杭州市萧山区临浦镇三峰行政村朱明德家、浙江省杭州市萧山区山峰村、浙江省杭州市萧山区临浦镇山峰村周家武258号等一带","startTime":"2019-08-18 18:47:24","stopDate":"2019-08-18 21:10:24","orgNo":"3340130","typeCode":"电网故障停限电","poweroffArea":"110kV群建变:三峰A213线-三峰村3#变台区低压开关","poweroffReason":"(低压停电信息)低压开关跳闸 原停电结束时间：2019-08-18 21:47，变更停电结束时间：2019-08-18 21:10，由于增派人员，抢修提前完成，故需要提前送电。","powerTime":"2019-08-18 20:33:23","powerComm":"已送电","subsNo":"","lineNo":"","tgNo":"","tgName":null,"infoStatus":"1","orgName":"国网浙江杭州市萧山区供电有限公司","typeName":null,"infoStatusName":null,"dateDay":null,"orgNos":null,"nowTime":null,"countyName":null,"streetName":null,"villageName":null,"roadName":null,"communityName":null,"tranName":null,"sdLineName":null,"cityCode":"3340130","cityName":"国网浙江杭州市萧山区供电有限公司","provinceCode":null,"stopTime":"2019-08-18 21:10:24","powerType":"全部","powerOffArea":"110kV群建变:三峰A213线-三峰村3#变台区低压开关","powerOffReason":"(低压停电信息)低压开关跳闸 原停电结束时间：2019-08-18 21:47，变更停电结束时间：2019-08-18 21:10，由于增派人员，抢修提前完成，故需要提前送电。","powerOffId":"2019081831020231"},{"poweroffId":2019081831020227,"sgpoweroffId":null,"subsName":"","lineName":"10kV龙虎C704线","pubTranName":"永利村5#变,赭山村16#变,电器塑料厂(1315077216),萧山万丰医药,赭山村13#变,凯泉织造(1315086017),中原机械厂(1316085191),坞里村3#变,兴旺经编(1321024851),红垦防腐,永利村1#变,永利村10#变,邮电所,奔月线业(1321022323),中江彩瓦,坞里村6#变,赭山村8#变,赭山村11#变,圣山集团,赭山村7#变,永利村7#变,永利村9#变,周氏建材厂(1316004240),杭州市萧山区机动车驾驶员考试服务中心,赭山村10#变,阳力化工(1315081476),永利植绒(1315085235),坞里村1#变,阳城酿洒(1315077196),永利村11#变,永利村12#变,永利村3#变,永利村6#变,远大村6#变,","scope":"浙江省-杭州市-萧山区-南阳街道-远大行政村-长远自然村,南阳街道-永利行政村(永利自然村,永利路,永里路),南阳街道-坞里行政村(坞里自然村,美狮西路),南阳街道-赭山社区(塘上街,冯祠弄,塘下街,魁星阁弄,麻花弄,禅机弄,永利路,永里路,俞家弄,中街,坝头弄,赭山家园,阳城路,大井弄,赭山自然村);南阳街道-永利行政村(杭州中原机械厂,杭州永利植绒有限公司,杭州萧山电器塑料厂,杭州萧山万丰医药有限责任公司),南阳街道-坞里行政村(杭州凯泉织造有限公司,杭州欧帝亚卫浴有限公司,杭州萧山周氏建材厂,杭州萧山红垦保温防腐有限公司,杭州中江彩瓦有限公司,圣山集团有限公司,杭州市萧山区机动车驾驶员考试服务中心有限公司),南阳街道(龙虎行政村-杭州阳力化工设备有限公司,远大行政村-杭州萧山阳城酿酒有限公司,赭东行政村-杭州萧山兴旺经编纺织有限公司,横蓬行政村-中国铁塔股份有限公司杭州市分公司)一带","startTime":"2019-08-18 18:42:06","stopDate":"2019-08-18 23:42:06","orgNo":"3340130","typeCode":"电网故障停限电","poweroffArea":"35kV赭山变:龙虎C704线-龙虎C7041开关后段","poweroffReason":"高压柱上断路器短路故障 原停电结束时间: 2019-08-18 22:42:06，变更停电结束时间: 2019-08-18 23:42:06.由于抢修工作难度大,故需要延迟送电。","powerTime":"2019-08-18 23:09:38","powerComm":"已送电","subsNo":"","lineNo":"","tgNo":"","tgName":null,"infoStatus":"1","orgName":"国网浙江杭州市萧山区供电有限公司","typeName":null,"infoStatusName":null,"dateDay":null,"orgNos":null,"nowTime":null,"countyName":null,"streetName":null,"villageName":null,"roadName":null,"communityName":null,"tranName":null,"sdLineName":null,"cityCode":"3340130","cityName":"国网浙江杭州市萧山区供电有限公司","provinceCode":null,"stopTime":"2019-08-18 23:42:06","powerType":"全部","powerOffArea":"35kV赭山变:龙虎C704线-龙虎C7041开关后段","powerOffReason":"高压柱上断路器短路故障 原停电结束时间: 2019-08-18 22:42:06，变更停电结束时间: 2019-08-18 23:42:06.由于抢修工作难度大,故需要延迟送电。","powerOffId":"2019081831020227"},{"poweroffId":2019081831020222,"sgpoweroffId":null,"subsName":"","lineName":"10kV单家C167线","pubTranName":"神马五金,罗幕村5#变,罗幕村7#变,金隆粉煤灰3#,侨美布业,永成自行车配件,杭州萧山德江化纤织造有限公司,罗幕村4#变,金隆粉煤灰2#,罗幕村2#变,罗幕村23#变,罗幕村1#变,杭州萧山金隆粉煤灰有限公司,杭州金盾印务有限公司,金隆粉煤灰4#,","scope":"浙江省-杭州市-萧山区-义桥镇-罗峰社区-王家桥街,义桥镇-罗幕行政村(单家自然村,王家桥自然村,张家畈自然村,前黄自然村,后黄自然村);浙江省-杭州市-萧山区-义桥镇-田丰行政村-杭州金盾印务有限公司,义桥镇-罗幕行政村(杭州永诚自行车配件厂,杭州萧山侨美布业织造厂,杭州萧山神马五金工具有限公司,杭州萧山金隆粉煤灰有限公司,杭州萧山德江化纤织造有限公司)等一带","startTime":"2019-08-18 18:35:17","stopDate":"2019-08-18 21:35:17","orgNo":"3340130","typeCode":"电网故障停限电","poweroffArea":"110kV许贤变:单家C167线-单家C167线单家分线开关后段","poweroffReason":"高压开关跳闸","powerTime":"2019-08-18 21:01:01","powerComm":"已送电","subsNo":"","lineNo":"","tgNo":"","tgName":null,"infoStatus":"1","orgName":"国网浙江杭州市萧山区供电有限公司","typeName":null,"infoStatusName":null,"dateDay":null,"orgNos":null,"nowTime":null,"countyName":null,"streetName":null,"villageName":null,"roadName":null,"communityName":null,"tranName":null,"sdLineName":null,"cityCode":"3340130","cityName":"国网浙江杭州市萧山区供电有限公司","provinceCode":null,"stopTime":"2019-08-18 21:35:17","powerType":"全部","powerOffArea":"110kV许贤变:单家C167线-单家C167线单家分线开关后段","powerOffReason":"高压开关跳闸","powerOffId":"2019081831020222"},{"poweroffId":2019081831020221,"sgpoweroffId":null,"subsName":"","lineName":"10kV后黄C175线","pubTranName":"王家桥竹木制品,杭州金博利服饰有限公司,萧山区义桥镇许贤幼儿园,罗幕村21#变,第二小学,晨宇布艺,凯达机电,同人环保技术,杭州给排水公司,杭州大豪实业有限公司,罗幕村9#变,罗幕村15#变,","scope":"浙江省-杭州市-萧山区-义桥镇-罗峰社区-王家桥街,义桥镇-罗幕行政村(罗幕,单家自然村,前黄自然村,王家桥自然村);浙江省-杭州市-萧山区-义桥镇-河西行政村-杭州萧山许贤王家桥竹木制品厂,义桥镇-田丰行政村(杭州鑫沅科技有限公司,杭州萧山给排水工程有限公司,杭州金博利服饰有限公司,杭州同人环保技术工程有限公司),义桥镇-罗幕行政村(萧山区义桥镇第二小学,杭州晨宇布业织造有限公司,杭州凯达机电有限公司,萧山区义桥镇许贤幼儿园)等一带","startTime":"2019-08-18 18:34:26","stopDate":"2019-08-18 21:00:26","orgNo":"3340130","typeCode":"电网故障停限电","poweroffArea":"110kV许贤变:后黄C175线-后黄C1751开关后段","poweroffReason":"高压开关跳闸 原停电结束时间：2019-08-18 21:34，变更停电结束时间：2019-08-18 21:00，由于增派人员，抢修提前完成，故需要提前送电。","powerTime":"2019-08-18 20:11:10","powerComm":"已送电","subsNo":"","lineNo":"","tgNo":"","tgName":null,"infoStatus":"1","orgName":"国网浙江杭州市萧山区供电有限公司","typeName":null,"infoStatusName":null,"dateDay":null,"orgNos":null,"nowTime":null,"countyName":null,"streetName":null,"villageName":null,"roadName":null,"communityName":null,"tranName":null,"sdLineName":null,"cityCode":"3340130","cityName":"国网浙江杭州市萧山区供电有限公司","provinceCode":null,"stopTime":"2019-08-18 21:00:26","powerType":"全部","powerOffArea":"110kV许贤变:后黄C175线-后黄C1751开关后段","powerOffReason":"高压开关跳闸 原停电结束时间：2019-08-18 21:34，变更停电结束时间：2019-08-18 21:00，由于增派人员，抢修提前完成，故需要提前送电。","powerOffId":"2019081831020221"},{"poweroffId":2019081831020220,"sgpoweroffId":null,"subsName":"","lineName":"10kV群大A191线","pubTranName":"王村村2#变,王村村1#变,浙江省萧山棉麻研究所,新河村6#变,杭州市萧山区临浦镇人民政府,新河村4#变,新河村7#变,杭州琳峰塑业有限公司,临浦镇政府-快速通道-王村路灯,新河村11#变,新河村14#变,新河村13#变,新河村9#变,新河村2#变,新河村10#变,王村村6#变,浙江省萧山棉麻研究所,王村村3#变,新河村12#变,新河村5#变,王村村10#变,","scope":"浙江省-杭州市-萧山区-临浦镇-王村行政村(王自然村,张家自然村),临浦镇-新河行政村(油车桥自然村,西葛自然村,五间头自然村,三庄自然村,六庄自然村);浙江省-杭州市-萧山区-临浦镇-新河行政村-杭州琳峰塑业有限公司,临浦镇-王村行政村(浙江省萧山棉麻研究所,杭州市萧山区临浦镇人民政府)、临浦镇-王村行政村(浙江省萧山棉麻研究所,杭州市萧山区临浦镇人民政府)、杭州市萧山区临浦镇王村村、浙江省杭州市萧山区临浦镇新河村（新区）、浙江省杭州市萧山区临浦镇王村149号、浙江省杭州市萧山区临浦镇油车桥村二组69号等一带","startTime":"2019-08-18 18:26:32","stopDate":"2019-08-18 21:33:32","orgNo":"3340130","typeCode":"电网故障停限电","poweroffArea":"110kV群建变:群大A191线-群大A1911开关后段","poweroffReason":"高压开关跳闸","powerTime":"2019-08-18 21:00:24","powerComm":"已送电","subsNo":"","lineNo":"","tgNo":"","tgName":null,"infoStatus":"1","orgName":"国网浙江杭州市萧山区供电有限公司","typeName":null,"infoStatusName":null,"dateDay":null,"orgNos":null,"nowTime":null,"countyName":null,"streetName":null,"villageName":null,"roadName":null,"communityName":null,"tranName":null,"sdLineName":null,"cityCode":"3340130","cityName":"国网浙江杭州市萧山区供电有限公司","provinceCode":null,"stopTime":"2019-08-18 21:33:32","powerType":"全部","powerOffArea":"110kV群建变:群大A191线-群大A1911开关后段","powerOffReason":"高压开关跳闸","powerOffId":"2019081831020220"}],"pageModel":{"pageNow":1230,"totalCount":17789,"totalPage":1779,"tableRows":0,"pageCount":10,"beginCount":12290},"isExperi":"1"}