{"message":"","today":"2020-06-16","seleList":[{"poweroffId":2019081831020182,"sgpoweroffId":null,"subsName":"","lineName":"10kV银乔C832线","pubTranName":"元沙村21#变,","scope":"浙江省-杭州市-萧山区-新街镇、新街街道-元沙行政村-元沙自然村等一带","startTime":"2019-08-18 17:55:13","stopDate":"2019-08-18 19:55:13","orgNo":"3340130","typeCode":"电网故障停限电","poweroffArea":"110kV罗山变:银乔C832线-元沙村21#变台区低压开关","poweroffReason":"（低压停电信息）低压漏电保护器短路故障","powerTime":"2019-08-18 19:00:15","powerComm":"以送电","subsNo":"","lineNo":"","tgNo":"","tgName":null,"infoStatus":"1","orgName":"国网浙江杭州市萧山区供电有限公司","typeName":null,"infoStatusName":null,"dateDay":null,"orgNos":null,"nowTime":null,"countyName":null,"streetName":null,"villageName":null,"roadName":null,"communityName":null,"tranName":null,"sdLineName":null,"cityCode":"3340130","cityName":"国网浙江杭州市萧山区供电有限公司","provinceCode":null,"stopTime":"2019-08-18 19:55:13","powerType":"全部","powerOffArea":"110kV罗山变:银乔C832线-元沙村21#变台区低压开关","powerOffReason":"（低压停电信息）低压漏电保护器短路故障","powerOffId":"2019081831020182"},{"poweroffId":2019081831020180,"sgpoweroffId":null,"subsName":"","lineName":"10kV南丰C699线","pubTranName":"南丰村4#变,杭州德信锦玉置业有限公司2#变,南丰村6#变,南丰村10#变,宏峰制衣厂,南丰村1#变,远大村12#变,南丰小区2#变,南丰村11#变,杭州传佳涂装有限公司变压器间隔配电变压器,开元安装,晨杰水泥,泡沫包装(1315078393),南围精密机械,杭州德信锦玉置业有限公司1#变,南丰村15#变,南丰村9#变,远大村4#变,凌红纺织,南丰村7#变,南丰村3#变,南丰村12#变,南丰村2#变,","scope":"浙江省-杭州市-萧山区-南阳街道-东风行政村-东风自然村,南阳街道-远大行政村(长远自然村,南围自然村),南阳街道-南丰行政村(南丰自然村,港城大道,南丰大道);南阳街道-远大行政村(浙江省工业设备安装集团有限公司压力容器制造厂,杭州萧山南围精密机械配件厂,杭州凌红纺织厂),南阳街道-南丰行政村(杭州萧山宏峰制衣厂,杭州德信锦玉置业有限公司),南阳街道(南阳社区-杭州萧山泡沫包装有限公司,坞里行政村-杭州萧山南阳晨杰水泥制品加工厂,东风行政村-杭州传佳涂装有限公司)一带","startTime":"2019-08-18 17:53:58","stopDate":"2019-08-18 21:53:58","orgNo":"3340130","typeCode":"电网故障停限电","poweroffArea":"35kV赭山变:南丰C699线","poweroffReason":"高压柱上断路器短路故障","powerTime":"2019-08-18 21:50:19","powerComm":"已送电","subsNo":"","lineNo":"","tgNo":"","tgName":null,"infoStatus":"1","orgName":"国网浙江杭州市萧山区供电有限公司","typeName":null,"infoStatusName":null,"dateDay":null,"orgNos":null,"nowTime":null,"countyName":null,"streetName":null,"villageName":null,"roadName":null,"communityName":null,"tranName":null,"sdLineName":null,"cityCode":"3340130","cityName":"国网浙江杭州市萧山区供电有限公司","provinceCode":null,"stopTime":"2019-08-18 21:53:58","powerType":"全部","powerOffArea":"35kV赭山变:南丰C699线","powerOffReason":"高压柱上断路器短路故障","powerOffId":"2019081831020180"},{"poweroffId":2019081831020178,"sgpoweroffId":null,"subsName":"","lineName":"10kV勾运H328线","pubTranName":"良渚经济开发区1#路灯变,","scope":"浙江省-杭州市-余杭区-良渚街道-长桥行政村-杭州良渚经济园发展有限公司一带","startTime":"2019-08-18 17:50:40","stopDate":"2019-08-18 20:50:00","orgNo":"3340140","typeCode":"电网故障停限电","poweroffArea":"110kV长桥变:勾运H328线-长桥村委后段","poweroffReason":"高压开关跳闸","powerTime":"2019-08-18 20:41:00","powerComm":"已送电","subsNo":"","lineNo":"","tgNo":"","tgName":null,"infoStatus":"1","orgName":"国网浙江杭州市余杭区供电有限公司","typeName":null,"infoStatusName":null,"dateDay":null,"orgNos":null,"nowTime":null,"countyName":null,"streetName":null,"villageName":null,"roadName":null,"communityName":null,"tranName":null,"sdLineName":null,"cityCode":"3340140","cityName":"国网浙江杭州市余杭区供电有限公司","provinceCode":null,"stopTime":"2019-08-18 20:50:00","powerType":"全部","powerOffArea":"110kV长桥变:勾运H328线-长桥村委后段","powerOffReason":"高压开关跳闸","powerOffId":"2019081831020178"},{"poweroffId":2019081831020175,"sgpoweroffId":null,"subsName":"","lineName":"10kV神龙362线","pubTranName":"杭州萧山神龙铝业有限公司,永得利无纺布1#,龙虎村19#变,阳城造漆厂(1315077828),万鹰机械有限公司(1321044556),龙虎村15#变,龙虎村22#变,阳城颜料(1315077823),龙虎村2#变,龙虎村8#变,1#变,龙虎村6#变,银格旅游(1316020023),龙虎村18#变,龙虎村21#变,龙虎村3#变,龙虎村12#变,龙虎村7#变,龙虎村14#变,杭州宏冰服饰有限公司,钱江度假村(1315078827),龙虎村10#变,萧象内燃机(1316071577),永得利无纺布2#,龙虎村9#变,龙虎村16#变,龙虎村1#变,杭州汇邦建设有限公司1#,阳城颜料(1315077823),杭州中立达科技有限公司,神龙铝业,双峰机电(1316013744),龙虎村4#变,龙虎小区1#变,龙虎村11#变,","scope":"浙江省-杭州市-萧山区-南阳街道-南丰行政村-南丰自然村,南阳街道-龙虎行政村(龙虎自然村,南庄路);南阳街道-龙虎行政村(杭州港铖汽配有限公司,杭州萧山神龙铝业有限公司,杭州银格实业有限公司,杭州萧山阳城造漆厂,杭州柏慧建材有限公司,杭州萧山双峰化建机电设备厂,杭州萧山钱江观潮度假村有限公司,杭州宏冰服饰有限公司,杭州永得利无纺布有限公司,杭州汇邦建设有限公司,杭州成邦沥青混凝土有限公司),南阳街道(坞里行政村-杭州萧山神龙铝业有限公司,远大行政村-杭州阳城颜料化工有限公司,南兴行政村-杭州中立达科技有限公司)、南阳街道龙虎村东林组、南阳街道龙虎行政村龙虎自然村20组1031号、南阳街道龙虎行政村、南阳街道龙虎村、南阳街道龙虎行政村龙虎自然村16组433号一带","startTime":"2019-08-18 17:40:09","stopDate":"2019-08-19 00:40:09","orgNo":"3340130","typeCode":"电网故障停限电","poweroffArea":"110kV河庄变:神龙362线-神龙3621开关后段","poweroffReason":"高压柱上断路器短路故障 原停电结束时间: 2019-08-18 21:48:09，变更停电结束时间: 2019-08-19 00:40:09，由于抢修工作难度大,故需要延迟送电。","powerTime":"2019-08-18 23:45:48","powerComm":"已送电","subsNo":"","lineNo":"","tgNo":"","tgName":null,"infoStatus":"1","orgName":"国网浙江杭州市萧山区供电有限公司","typeName":null,"infoStatusName":null,"dateDay":null,"orgNos":null,"nowTime":null,"countyName":null,"streetName":null,"villageName":null,"roadName":null,"communityName":null,"tranName":null,"sdLineName":null,"cityCode":"3340130","cityName":"国网浙江杭州市萧山区供电有限公司","provinceCode":null,"stopTime":"2019-08-19 00:40:09","powerType":"全部","powerOffArea":"110kV河庄变:神龙362线-神龙3621开关后段","powerOffReason":"高压柱上断路器短路故障 原停电结束时间: 2019-08-18 21:48:09，变更停电结束时间: 2019-08-19 00:40:09，由于抢修工作难度大,故需要延迟送电。","powerOffId":"2019081831020175"},{"poweroffId":2019081831020133,"sgpoweroffId":null,"subsName":"","lineName":"10kV陈园C841线","pubTranName":"陈家园村10#变,","scope":"浙江省-杭州市-萧山区-新街镇、新街街道-陈家园行政村-陈家园自然村等一带","startTime":"2019-08-18 16:19:23","stopDate":"2019-08-18 18:59:23","orgNo":"3340130","typeCode":"电网故障停限电","poweroffArea":"110kV罗山变:陈园C841线-陈家园村10#变台区低压开关","poweroffReason":"（低压停电信息）低压漏电保护器短路故障","powerTime":"2019-08-18 18:04:44","powerComm":"已送电","subsNo":"","lineNo":"","tgNo":"","tgName":null,"infoStatus":"1","orgName":"国网浙江杭州市萧山区供电有限公司","typeName":null,"infoStatusName":null,"dateDay":null,"orgNos":null,"nowTime":null,"countyName":null,"streetName":null,"villageName":null,"roadName":null,"communityName":null,"tranName":null,"sdLineName":null,"cityCode":"3340130","cityName":"国网浙江杭州市萧山区供电有限公司","provinceCode":null,"stopTime":"2019-08-18 18:59:23","powerType":"全部","powerOffArea":"110kV罗山变:陈园C841线-陈家园村10#变台区低压开关","powerOffReason":"（低压停电信息）低压漏电保护器短路故障","powerOffId":"2019081831020133"},{"poweroffId":2019081831020124,"sgpoweroffId":null,"subsName":"","lineName":"10kV东三G916线","pubTranName":"葛家3组公变,","scope":"浙江省-杭州市-余杭区-乔司街道-葛家车行政村(张家角自然村,葛家车自然村,南西马自然村,吴家车自然村)一带","startTime":"2019-08-18 15:43:00","stopDate":"2019-08-18 19:10:00","orgNo":"3340140","typeCode":"电网故障停限电","poweroffArea":"110kV庙港变:东三G916线-葛家3组公变后段","poweroffReason":"(低压停电信息)低压开关跳闸","powerTime":"2019-08-18 19:04:00","powerComm":"已送电","subsNo":"","lineNo":"","tgNo":"","tgName":null,"infoStatus":"1","orgName":"国网浙江杭州市余杭区供电有限公司","typeName":null,"infoStatusName":null,"dateDay":null,"orgNos":null,"nowTime":null,"countyName":null,"streetName":null,"villageName":null,"roadName":null,"communityName":null,"tranName":null,"sdLineName":null,"cityCode":"3340140","cityName":"国网浙江杭州市余杭区供电有限公司","provinceCode":null,"stopTime":"2019-08-18 19:10:00","powerType":"全部","powerOffArea":"110kV庙港变:东三G916线-葛家3组公变后段","powerOffReason":"(低压停电信息)低压开关跳闸","powerOffId":"2019081831020124"},{"poweroffId":2019081831020111,"sgpoweroffId":null,"subsName":"","lineName":"10kV站用T176线","pubTranName":"桥东2号公变,","scope":"浙江省-杭州市-桐庐县-分水镇-桥东行政村(桥东自然村,新淳东路)","startTime":"2019-08-18 14:09:08","stopDate":"2019-08-18 15:30:08","orgNo":"3340150","typeCode":"电网故障停限电","poweroffArea":"110kV分水变:站用T176线-桥东2号公变后段","poweroffReason":"高压开关跳闸","powerTime":"2019-08-18 15:10:31","powerComm":"已送电","subsNo":"","lineNo":"","tgNo":"","tgName":null,"infoStatus":"1","orgName":"国网浙江桐庐县供电公司","typeName":null,"infoStatusName":null,"dateDay":null,"orgNos":null,"nowTime":null,"countyName":null,"streetName":null,"villageName":null,"roadName":null,"communityName":null,"tranName":null,"sdLineName":null,"cityCode":"3340150","cityName":"国网浙江桐庐县供电公司","provinceCode":null,"stopTime":"2019-08-18 15:30:08","powerType":"全部","powerOffArea":"110kV分水变:站用T176线-桥东2号公变后段","powerOffReason":"高压开关跳闸","powerOffId":"2019081831020111"},{"poweroffId":2019081831020106,"sgpoweroffId":null,"subsName":"","lineName":"10kV申联C942线","pubTranName":"群力村10#变,杭州亿翔塑胶制品有限公司2#,杭州伊思达装饰材料有限公司,前兴村15#变,杭州萧山轩泰机械有限公司,浙江卫鼎卫浴有限公司,杭州鑫隆卫浴洁具厂,杭州萧山条珍涤丝整理有限公司,杭州峰瑶绣品有限公司,杭州萧山福瑞迪卫浴洁具厂,群力村12#变,群力村9#变,群力村6#变,1#变,车路湾村6#变,杭州萧山党山恒诚绣花厂,杭州党瑞贸易有限公司,前兴村7#变,群力村5#变,1#变,杭州经典卫浴装饰材料有限公司,杭州萧山党山群力轻纺机械五金厂,群力村2#变,杭州夥珍纺织有限公司,前兴村11#变,杭州申联宝塑实业有限公司1#,党山供电营业所单相变14#变,群力村8#变,杭州钦斯涤丝整理有限公司,前兴村3#变,1#变,杭州东方型钢机械有限公司,杭州良晟塑业有限公司,杭州鲁江涤粒有限公司,车路湾村10#变,群力村11#变,前兴村4#变,杭州申联宝塑实业有限公司2#,群力村3#变,1#变,群力村4#变,","scope":"浙江省-杭州市-萧山区-瓜沥镇-前兴行政村-前兴自然村,瓜沥镇-车路湾行政村(车路湾自然村,车安路),瓜沥镇-群力行政村(群力自然村,新东公路);浙江省-杭州市-萧山区-瓜沥镇-官一行政村-杭州萧山瓜沥镇官一村经济联合社,瓜沥镇-车路湾行政村(杭州经典卫浴装饰材料有限公司,杭州党瑞贸易有限公司,杭州萧山条珍涤丝整理有限公司,杭州伊思达装饰材料有限公司,杭州鲁江涤粒有限公司),瓜沥镇-群力行政村(杭州峰瑶绣品有限公司,杭州良晟塑业有限公司,杭州亿翔塑胶制品有限公司,杭州萧山福瑞迪卫浴洁具厂,杭州彩乐化纤有限公司,杭州钦斯涤丝整理有限公司,杭州鑫隆卫浴洁具厂,杭州轩泰机械有限公司,杭州萧山党山恒诚绣花厂,杭州东方型钢机械有限公司,杭州申联宝塑实业有限公司,杭州航凯装饰材料有限公司,杭州萧山党山群力轻纺机械五金厂,杭州东建能源科技有限公司),瓜沥镇-党山行政村(浙江卫鼎卫浴有限公司,杭州夥珍纺织有限公司)","startTime":"2019-08-18 13:40:36","stopDate":"2019-08-18 16:00:36","orgNo":"3340130","typeCode":"电网故障停限电","poweroffArea":"110kV党山变:申联C942线-申联C9421开关后段","poweroffReason":"高压柱上断路器短路故障 原停电结束时间:2019-08-18 17:42:36，变更停电结束时间:2019-08-18 16:00:36。由于抢修工作提前完成,故需要提前送电。","powerTime":"2019-08-18 15:13:33","powerComm":"已送电","subsNo":"","lineNo":"","tgNo":"","tgName":null,"infoStatus":"1","orgName":"国网浙江杭州市萧山区供电有限公司","typeName":null,"infoStatusName":null,"dateDay":null,"orgNos":null,"nowTime":null,"countyName":null,"streetName":null,"villageName":null,"roadName":null,"communityName":null,"tranName":null,"sdLineName":null,"cityCode":"3340130","cityName":"国网浙江杭州市萧山区供电有限公司","provinceCode":null,"stopTime":"2019-08-18 16:00:36","powerType":"全部","powerOffArea":"110kV党山变:申联C942线-申联C9421开关后段","powerOffReason":"高压柱上断路器短路故障 原停电结束时间:2019-08-18 17:42:36，变更停电结束时间:2019-08-18 16:00:36。由于抢修工作提前完成,故需要提前送电。","powerOffId":"2019081831020106"},{"poweroffId":2019081831020084,"sgpoweroffId":null,"subsName":"","lineName":"10kV十桥317线","pubTranName":"01,天海饲料,02,国联农业,天潮水产,国亚水产养殖,天潮水产,04,国亚水产,天潮水产,浩然纺织1#,03,","scope":"浙江省-杭州市-萧山区-义蓬街道-义盛行政村-杭州萧山天潮水产养殖有限公司,围垦垦区-六工段片区(杭州国联农业科技开发有限公司,杭州萧山天潮养殖水产有限公司,杭州俞柏夫水产养殖有限公司,杭州浩然纺织科技有限公司,杭州萧山天潮水产养殖有限公司,杭州天海饲料有限公司),围垦垦区(萧山2.3万亩垦区-杭州俞柏夫水产养殖有限公司,外六工段片区-杭州浩然纺织科技有限公司)","startTime":"2019-08-28 08:15:00","stopDate":"2019-08-28 08:45:00","orgNo":"3340120","typeCode":"计划停电","poweroffArea":"110kV启江变:十桥317线-十桥317线02号开关(S)后段","poweroffReason":"110kV启江变I段母线检修，十桥317线配合倒负荷","powerTime":"2019-08-28 08:35:58","powerComm":"已送电","subsNo":"","lineNo":"","tgNo":"","tgName":null,"infoStatus":"1","orgName":"国网浙江杭州市钱塘新区供电公司","typeName":null,"infoStatusName":null,"dateDay":null,"orgNos":null,"nowTime":null,"countyName":null,"streetName":null,"villageName":null,"roadName":null,"communityName":null,"tranName":null,"sdLineName":null,"cityCode":"3340120","cityName":"国网浙江杭州市钱塘新区供电公司","provinceCode":null,"stopTime":"2019-08-28 08:45:00","powerType":"全部","powerOffArea":"110kV启江变:十桥317线-十桥317线02号开关(S)后段","powerOffReason":"110kV启江变I段母线检修，十桥317线配合倒负荷","powerOffId":"2019081831020084"},{"poweroffId":2019081831020083,"sgpoweroffId":null,"subsName":"","lineName":"10kV化工303线","pubTranName":"钱浪涂料,力禾颜料,沃肯新材料01,青龙化工,百汇化工2#高压电机,楼塔（雪湾）,恒龙化工,楼塔垦种（四）,楼塔村经济合作社,新龙化工2#,新龙化工1#,三联村,新龙化工3#,明兴化工,荣彩实业,百汇化工1#,泰谱环境,楼塔镇人民政府,","scope":"浙江省-杭州市-萧山区-经济技术开发区-江东工业园区-杭州幄肯新材料科技有限公司,围垦垦区-六工段片区(楼塔垦种,杭州帝景化工有限公司,浙江钱浪涂料科技有限公司,杭州金丰环保科技有限公司,杭州青化社化工有限公司,杭州新龙化工有限公司,萧山区楼塔镇人民政府围垦办事处,杭州江东农场开发有限公司,浙江力禾集团有限公司,杭州荣彩实业有限公司),义蓬街道(春雷行政村-杭州恒龙化学品有限公司,春光行政村-杭州泰谱环境科技有限公司)","startTime":"2019-08-28 08:15:00","stopDate":"2019-08-28 08:45:00","orgNo":"3340120","typeCode":"计划停电","poweroffArea":"110kV启江变:化工303线-化工303线03柱上开关后段","poweroffReason":"化工303线配合110kv启江变主变及母线检修倒负荷工作","powerTime":"2019-08-28 08:35:18","powerComm":"已送电","subsNo":"","lineNo":"","tgNo":"","tgName":null,"infoStatus":"1","orgName":"国网浙江杭州市钱塘新区供电公司","typeName":null,"infoStatusName":null,"dateDay":null,"orgNos":null,"nowTime":null,"countyName":null,"streetName":null,"villageName":null,"roadName":null,"communityName":null,"tranName":null,"sdLineName":null,"cityCode":"3340120","cityName":"国网浙江杭州市钱塘新区供电公司","provinceCode":null,"stopTime":"2019-08-28 08:45:00","powerType":"全部","powerOffArea":"110kV启江变:化工303线-化工303线03柱上开关后段","powerOffReason":"化工303线配合110kv启江变主变及母线检修倒负荷工作","powerOffId":"2019081831020083"}],"pageModel":{"pageNow":1232,"totalCount":17789,"totalPage":1779,"tableRows":0,"pageCount":10,"beginCount":12310},"isExperi":"1"}