{"message":"","today":"2020-06-16","seleList":[{"poweroffId":2019081831020082,"sgpoweroffId":null,"subsName":"","lineName":"10kV十桥317线","pubTranName":"浩然纺织1#,天海饲料,天潮水产,国联农业,04,国亚水产养殖,天潮水产,天潮水产,02,国亚水产,01,03,","scope":"浙江省-杭州市-萧山区-义蓬街道-义盛行政村-杭州萧山天潮水产养殖有限公司,围垦垦区-六工段片区(杭州国联农业科技开发有限公司,杭州萧山天潮养殖水产有限公司,杭州俞柏夫水产养殖有限公司,杭州浩然纺织科技有限公司,杭州萧山天潮水产养殖有限公司,杭州天海饲料有限公司),围垦垦区(萧山2.3万亩垦区-杭州俞柏夫水产养殖有限公司,外六工段片区-杭州浩然纺织科技有限公司)","startTime":"2019-08-26 18:20:00","stopDate":"2019-08-26 18:50:00","orgNo":"3340120","typeCode":"计划停电","poweroffArea":"110kV启江变:十桥317线-十桥317线02号开关(S)后段","poweroffReason":"110kV启江变I段母线检修，十桥317线配合倒负荷","powerTime":"2019-08-26 18:35:19","powerComm":"已送电","subsNo":"","lineNo":"","tgNo":"","tgName":null,"infoStatus":"1","orgName":"国网浙江杭州市钱塘新区供电公司","typeName":null,"infoStatusName":null,"dateDay":null,"orgNos":null,"nowTime":null,"countyName":null,"streetName":null,"villageName":null,"roadName":null,"communityName":null,"tranName":null,"sdLineName":null,"cityCode":"3340120","cityName":"国网浙江杭州市钱塘新区供电公司","provinceCode":null,"stopTime":"2019-08-26 18:50:00","powerType":"全部","powerOffArea":"110kV启江变:十桥317线-十桥317线02号开关(S)后段","powerOffReason":"110kV启江变I段母线检修，十桥317线配合倒负荷","powerOffId":"2019081831020082"},{"poweroffId":2019081831020081,"sgpoweroffId":null,"subsName":"","lineName":"10kV化工303线","pubTranName":"楼塔垦种（四）,恒龙化工,力禾颜料,明兴化工,新龙化工3#,三联村,沃肯新材料01,楼塔村经济合作社,青龙化工,楼塔（雪湾）,新龙化工2#,楼塔镇人民政府,百汇化工1#,荣彩实业,百汇化工2#高压电机,新龙化工1#,泰谱环境,钱浪涂料,","scope":"浙江省-杭州市-萧山区-经济技术开发区-江东工业园区-杭州幄肯新材料科技有限公司,围垦垦区-六工段片区(楼塔垦种,杭州帝景化工有限公司,浙江钱浪涂料科技有限公司,杭州金丰环保科技有限公司,杭州青化社化工有限公司,杭州新龙化工有限公司,萧山区楼塔镇人民政府围垦办事处,杭州江东农场开发有限公司,浙江力禾集团有限公司,杭州荣彩实业有限公司),义蓬街道(春雷行政村-杭州恒龙化学品有限公司,春光行政村-杭州泰谱环境科技有限公司)","startTime":"2019-08-25 16:00:00","stopDate":"2019-08-25 16:30:00","orgNo":"3340120","typeCode":"临时停电","poweroffArea":"110kV启江变:化工303线-化工303线03柱上开关后段","poweroffReason":"化工303线配合110kv启江变主变及母线检修倒负荷工作","powerTime":"2019-08-25 16:11:39","powerComm":"已送电","subsNo":"","lineNo":"","tgNo":"","tgName":null,"infoStatus":"1","orgName":"国网浙江杭州市钱塘新区供电公司","typeName":null,"infoStatusName":null,"dateDay":null,"orgNos":null,"nowTime":null,"countyName":null,"streetName":null,"villageName":null,"roadName":null,"communityName":null,"tranName":null,"sdLineName":null,"cityCode":"3340120","cityName":"国网浙江杭州市钱塘新区供电公司","provinceCode":null,"stopTime":"2019-08-25 16:30:00","powerType":"全部","powerOffArea":"110kV启江变:化工303线-化工303线03柱上开关后段","powerOffReason":"化工303线配合110kv启江变主变及母线检修倒负荷工作","powerOffId":"2019081831020081"},{"poweroffId":2019081831020078,"sgpoweroffId":null,"subsName":"","lineName":"10kV樱多A085线","pubTranName":"工农村1#变,工农村17#变,杭州市萧山区瓜沥镇人民政府10#,杭州一雨纺织有限公司,工农村19#变,杭州广亚装饰有限公司,1#变,工农村10#变,杭州浩发制冷配件厂,工农村9#变,工农村12#变,杭州振丰科技有限公司,杭州一波机械有限公司,杭州荣祖电器有限公司,杭州樱多电器有限公司,工农村5#变,杭州钢强液压机械厂,工农村21#变,杭州先盛电子有限公司,杭州华民化纤辅料有限公司,浙江大行建设有限公司变压器,杭州萧山城市建筑有限公司,工农村18#变,杭州联欣机械有限公司,工农村4#变,杭州建邦助剂有限公司,杭州顺吉机械配件厂,工农村14#变,工农村16#变,杭州新晟禾实业有限公司,工农村22#变,杭州萧山灯泡加工厂,杭州朱胜化纤有限公司变压器间隔配电变压器,杭州市萧山区瓜沥镇人民政府11#,杭州建鼎机械有限公司,荣新村11#变,杭州凤恒塑料制品有限公司,工农村15#变,","scope":"浙江省-杭州市-萧山区-瓜沥镇-荣新行政村(衙党公路,武肃路,荣新自然村),瓜沥镇-工农行政村(八柯路,牧场路,工农自然村,戴家路,长池头路,工新路,上山路,小农场二路,小农场一路,小桥板路,建设四路,小农场三路,小池头路);瓜沥镇-工农行政村(杭州华民化纤辅料有限公司,杭州钢强液压机械厂,杭州新晟禾实业有限公司,杭州一波机械有限公司,杭州联欣机械有限公司,杭州凤恒塑料制品有限公司,杭州浩发制冷配件厂,杭州樱多电器有限公司,杭州萧山灯泡加工厂,杭州先盛电子有限公司,浙江大行建设有限公司,杭州顺吉机械有限公司,杭州萧山利雅汽车配件厂(普通合伙),杭州振丰科技有限公司,杭州荣祖电器有限公司,杭州建鼎机械有限公司,杭州广亚装饰有限公司,杭州市萧山区瓜沥镇人民政府,杭州朱胜化纤有限公司,杭州萧山城市建筑有限公司,杭州宁扬机械有限公司)、瓜沥镇工农村、坎山镇（瓜沥镇）工农村、工农村11组、坎山街道瓜沥镇荣新村一带","startTime":"2019-08-18 10:50:22","stopDate":"2019-08-18 13:50:22","orgNo":"3340130","typeCode":"电网故障停限电","poweroffArea":"110kV航坞变:樱多A085线-樱多A0851开关后段","poweroffReason":"高压柱上断路器短路故障 原停电结束时间: 2019-08-18 12:52:22，变更停电结束时间: 2019-08-18 13:50:22.由于抢修工作难度大,故需要延迟送电。","powerTime":"2019-08-18 13:20:55","powerComm":"已送电","subsNo":"","lineNo":"","tgNo":"","tgName":null,"infoStatus":"1","orgName":"国网浙江杭州市萧山区供电有限公司","typeName":null,"infoStatusName":null,"dateDay":null,"orgNos":null,"nowTime":null,"countyName":null,"streetName":null,"villageName":null,"roadName":null,"communityName":null,"tranName":null,"sdLineName":null,"cityCode":"3340130","cityName":"国网浙江杭州市萧山区供电有限公司","provinceCode":null,"stopTime":"2019-08-18 13:50:22","powerType":"全部","powerOffArea":"110kV航坞变:樱多A085线-樱多A0851开关后段","powerOffReason":"高压柱上断路器短路故障 原停电结束时间: 2019-08-18 12:52:22，变更停电结束时间: 2019-08-18 13:50:22.由于抢修工作难度大,故需要延迟送电。","powerOffId":"2019081831020078"},{"poweroffId":2019081831020066,"sgpoweroffId":null,"subsName":"","lineName":"10kV席家A351线","pubTranName":"大汤坞16#变,大汤坞3#变,大汤坞6#变,大汤坞9#变,杭州固凯五金有限公司,都发食品,大汤坞1#变,大汤坞8#变,杭州联发冷拉型钢公司,大汤坞13#变,杭州易锦塑料制品有限公司,大汤坞2#变,大汤坞15#变,大汤坞7#变,大汤坞11#变,大汤坞4#变,杭州洁水管业有限公司,大汤坞5#变,兴佳陶土,光驰通信,杭州恒豪钢结构有限公司,鸿图金属,杭州牛牛百货有限公司,振兴金属,公路管理处（席家）,","scope":"浙江省-杭州市-萧山区-进化镇-大汤坞新行政村(大汤坞自然村,新垫黄自然村,汤山自然村,席家自然村);进化镇-大汤坞新行政村(杭州鸿图金属制造有限公司,杭州萧山进化镇振业金属加工场,杭州联发冷拉型钢有限公司,杭州恒豪钢结构有限公司,杭州市萧山区公路管理处,杭州固凯五金有限公司),进化镇-三浦行政村(杭州光驰通信技术有限公司,杭州牛牛百货有限公司,杭州洁水管业有限公司,杭州易锦塑料制品有限公司),进化镇(欢潭行政村-杭州兴佳铁铸件有限公司,城山行政村-杭州博楠旺园林景观有限公司)、浙江省杭州市萧山区进化镇大汤坞新垫黄村、浙江省杭州市萧山区近华镇大唐吴新村新建黄等一带","startTime":"2019-08-18 10:04:13","stopDate":"2019-08-18 12:10:13","orgNo":"3340130","typeCode":"电网故障停限电","poweroffArea":"110kV进化变:席家A351线-席家A3511开关后段","poweroffReason":"高压柱上断路器短路故障 原停电结束时间：2019-08-18 13:04，变更停电结束时间：2019-08-18 12:10，由于增派人员，抢修提前完成，故需要提前送电。","powerTime":"2019-08-18 11:16:14","powerComm":"已送电","subsNo":"","lineNo":"","tgNo":"","tgName":null,"infoStatus":"1","orgName":"国网浙江杭州市萧山区供电有限公司","typeName":null,"infoStatusName":null,"dateDay":null,"orgNos":null,"nowTime":null,"countyName":null,"streetName":null,"villageName":null,"roadName":null,"communityName":null,"tranName":null,"sdLineName":null,"cityCode":"3340130","cityName":"国网浙江杭州市萧山区供电有限公司","provinceCode":null,"stopTime":"2019-08-18 12:10:13","powerType":"全部","powerOffArea":"110kV进化变:席家A351线-席家A3511开关后段","powerOffReason":"高压柱上断路器短路故障 原停电结束时间：2019-08-18 13:04，变更停电结束时间：2019-08-18 12:10，由于增派人员，抢修提前完成，故需要提前送电。","powerOffId":"2019081831020066"},{"poweroffId":2019081831020056,"sgpoweroffId":null,"subsName":"","lineName":"10kV横西H642线","pubTranName":"高桥村陈家角,","scope":"浙江省杭州市余杭区仓前街道:高桥行政村陈家角一带","startTime":"2019-08-26 08:30:00","stopDate":"2019-08-26 12:30:00","orgNo":"3340140","typeCode":"计划停电","poweroffArea":"110kV永福变:横西H642线-高桥村陈家角后段","poweroffReason":"(低压停电信息)高桥村陈家角变拆除甲线1-2号杆导线一档、电缆一根、拔除10米电杆2基。","powerTime":"2019-08-26 12:48:10","powerComm":"已送电","subsNo":"","lineNo":"","tgNo":"","tgName":null,"infoStatus":"1","orgName":"国网浙江杭州市余杭区供电有限公司","typeName":null,"infoStatusName":null,"dateDay":null,"orgNos":null,"nowTime":null,"countyName":null,"streetName":null,"villageName":null,"roadName":null,"communityName":null,"tranName":null,"sdLineName":null,"cityCode":"3340140","cityName":"国网浙江杭州市余杭区供电有限公司","provinceCode":null,"stopTime":"2019-08-26 12:30:00","powerType":"全部","powerOffArea":"110kV永福变:横西H642线-高桥村陈家角后段","powerOffReason":"(低压停电信息)高桥村陈家角变拆除甲线1-2号杆导线一档、电缆一根、拔除10米电杆2基。","powerOffId":"2019081831020056"},{"poweroffId":2019081831020040,"sgpoweroffId":null,"subsName":"","lineName":"10kV搜侯H430线","pubTranName":"7#,1#,1#,3#,欧文充电桩公变,5#,","scope":"浙江省-杭州市-余杭区-良渚街道-杜甫行政村-浙江亿丰商业投资管理有限公司一带","startTime":"2019-08-18 08:13:39","stopDate":"2019-08-18 11:00:00","orgNo":"3340140","typeCode":"电网故障停限电","poweroffArea":"110kV勾庄变:搜侯H430线","poweroffReason":"高压开关跳闸 原停电结束时间2019-08-18 16:00:00 变更停电结束时间原因：抢修力量充足 提前完成抢修","powerTime":"2019-08-18 10:35:35","powerComm":"已送电","subsNo":"","lineNo":"","tgNo":"","tgName":null,"infoStatus":"1","orgName":"国网浙江杭州市余杭区供电有限公司","typeName":null,"infoStatusName":null,"dateDay":null,"orgNos":null,"nowTime":null,"countyName":null,"streetName":null,"villageName":null,"roadName":null,"communityName":null,"tranName":null,"sdLineName":null,"cityCode":"3340140","cityName":"国网浙江杭州市余杭区供电有限公司","provinceCode":null,"stopTime":"2019-08-18 11:00:00","powerType":"全部","powerOffArea":"110kV勾庄变:搜侯H430线","powerOffReason":"高压开关跳闸 原停电结束时间2019-08-18 16:00:00 变更停电结束时间原因：抢修力量充足 提前完成抢修","powerOffId":"2019081831020040"},{"poweroffId":2019081831020038,"sgpoweroffId":null,"subsName":"","lineName":"10kV金舟H442线","pubTranName":"金舟电炉,吉冈工具公司,联发集团杭州房地产开发有限公司计量点,金舟电炉,金舟电炉,","scope":"浙江省-杭州市-余杭区-良渚街道-杜甫行政村-联发集团杭州房地产开发有限公司,良渚街道-良渚行政村(杭州吉冈工具有限公司,杭州骏马轴承有限公司)一带","startTime":"2019-08-18 08:13:00","stopDate":"2019-08-18 11:00:00","orgNo":"3340140","typeCode":"电网故障停限电","poweroffArea":"110kV勾庄变:金舟H442线","poweroffReason":"高压开关跳闸 原停电结束时间2019-08-18 16:00:00 变更停电结束时间原因：抢修力量充足 提前完成抢修","powerTime":"2019-08-18 10:35:58","powerComm":"已送电","subsNo":"","lineNo":"","tgNo":"","tgName":null,"infoStatus":"1","orgName":"国网浙江杭州市余杭区供电有限公司","typeName":null,"infoStatusName":null,"dateDay":null,"orgNos":null,"nowTime":null,"countyName":null,"streetName":null,"villageName":null,"roadName":null,"communityName":null,"tranName":null,"sdLineName":null,"cityCode":"3340140","cityName":"国网浙江杭州市余杭区供电有限公司","provinceCode":null,"stopTime":"2019-08-18 11:00:00","powerType":"全部","powerOffArea":"110kV勾庄变:金舟H442线","powerOffReason":"高压开关跳闸 原停电结束时间2019-08-18 16:00:00 变更停电结束时间原因：抢修力量充足 提前完成抢修","powerOffId":"2019081831020038"},{"poweroffId":2019081831020035,"sgpoweroffId":null,"subsName":"","lineName":"10kV环东A697线","pubTranName":"永谊桥公变,","scope":"浙江省杭州市萧山区瓜沥镇明朗行政村、明朗自然村、瓜沥镇塘头社区塘北弄、人民路,河东路一带","startTime":"2019-08-18 07:40:18","stopDate":"2019-08-18 10:40:18","orgNo":"3340130","typeCode":"电网故障停限电","poweroffArea":"110kV白川变:环东A697线-永谊桥公变台区低压开关","poweroffReason":"(低压停电信息)低压漏电保护器短路故障","powerTime":"2019-08-18 10:30:32","powerComm":"已送电","subsNo":"","lineNo":"","tgNo":"","tgName":null,"infoStatus":"1","orgName":"国网浙江杭州市萧山区供电有限公司","typeName":null,"infoStatusName":null,"dateDay":null,"orgNos":null,"nowTime":null,"countyName":null,"streetName":null,"villageName":null,"roadName":null,"communityName":null,"tranName":null,"sdLineName":null,"cityCode":"3340130","cityName":"国网浙江杭州市萧山区供电有限公司","provinceCode":null,"stopTime":"2019-08-18 10:40:18","powerType":"全部","powerOffArea":"110kV白川变:环东A697线-永谊桥公变台区低压开关","powerOffReason":"(低压停电信息)低压漏电保护器短路故障","powerOffId":"2019081831020035"},{"poweroffId":2019081831020016,"sgpoweroffId":null,"subsName":"","lineName":"10kV新坝A186线","pubTranName":"杭州萧山学敏车辆配件厂,杭州高信工具有限公司,杭州萧山义桥木器建材厂,杭州宇超机械有限公司,义桥村10#变,新坝村5#变,杭州美时利车圈有限公司,杭州市萧山区浦阳江流域管理处,杭州伟隆实业有限公司,新坝村1#变,新坝村6#变,杭州萧山第三纸箱厂,杭州保峰五金制造有限公司,杭州萧山荣盛金属涂装有限公司,浙江红苹果电子有限公司,新坝村3#变,新坝村11#变,杭州恒力轴承有限公司,杭州飞硕机械有限公司,杭州萧山祥明机械铸造厂,新坝村8#变,杭州永利百合实业有限公司,义桥村21#变,义桥村9#变,新坝村2#变,义桥村11#变,杭州森佳包装有限公司,新坝村9#变,联三村1#变,杭州远耀电子有限公司,浙江摩鼎机械有限公司,新坝村4#变,联三村3#变,新坝村10#变,杭州陆恒机械有限公司,","scope":"浙江省-杭州市-萧山区-义桥镇-罗峰社区-东方路,义桥镇-新坝行政村(联新自然村,新坝,下埠自然村,上埠自然村,孙家里自然村,方家里自然村),义桥镇-义桥行政村(茅山头自然村,后茅山自然村),义桥镇-联三行政村(曹家里自然村,联村自然村,金家堰兜自然村,曹家地自然村);浙江省-杭州市-萧山区-义桥镇-徐童山下行政村-杭州美时利车圈有限公司,义桥镇-新坝行政村(杭州市萧山区浦阳江流域管理处,杭州萧山荣盛金属涂装有限公司,杭州萧山第三纸箱厂,杭州伟隆实业有限公司,杭州保峰五金制造有限公司,杭州森佳包装有限公司,杭州远耀电子有限公司,杭州萧山祥明机械铸造厂,杭州陆恒机械有限公司,杭州飞硕机械有限公司),义桥镇-联三行政村(杭州永利百合实业有限公司,杭州高信工具有限公司),义桥镇-义桥行政村(浙江红苹果电子有限公司,杭州萧山义桥木器建材厂,杭州恒力轴承有限公司,杭州宇超机械有限公司,浙江摩鼎纳米科技有限公司)、浙江省杭州市萧山区义桥镇新坝村等一带","startTime":"2019-08-18 06:14:15","stopDate":"2019-08-18 08:10:15","orgNo":"3340130","typeCode":"电网故障停限电","poweroffArea":"110kV群建变:新坝A186线-新坝A1861开关后段","poweroffReason":"高压柱上断路器短路故障 原停电结束时间：2019-08-18 09:30，变更停电结束时间：2019-08-18 08:10，由于增派人员，抢修提前完成，故需要提前送电。","powerTime":"2019-08-18 07:28:35","powerComm":"已送电","subsNo":"","lineNo":"","tgNo":"","tgName":null,"infoStatus":"1","orgName":"国网浙江杭州市萧山区供电有限公司","typeName":null,"infoStatusName":null,"dateDay":null,"orgNos":null,"nowTime":null,"countyName":null,"streetName":null,"villageName":null,"roadName":null,"communityName":null,"tranName":null,"sdLineName":null,"cityCode":"3340130","cityName":"国网浙江杭州市萧山区供电有限公司","provinceCode":null,"stopTime":"2019-08-18 08:10:15","powerType":"全部","powerOffArea":"110kV群建变:新坝A186线-新坝A1861开关后段","powerOffReason":"高压柱上断路器短路故障 原停电结束时间：2019-08-18 09:30，变更停电结束时间：2019-08-18 08:10，由于增派人员，抢修提前完成，故需要提前送电。","powerOffId":"2019081831020016"},{"poweroffId":2019081831010025,"sgpoweroffId":null,"subsName":"","lineName":"10kV相岛V832线","pubTranName":"竹岭村,峡谷源村源头,玉山村(里),东塔村浮桥,国石村中梅,上溪村,赤岭村,狮溪电站,临安市龙岗镇东塔股份经济合作,毛塔村,落塘村,狮溪村,临安市玉岩昌化石矿业有限公司,玉山村,玉山村永安,峡谷源村新庄,平溪村叶家坞,平溪村,国石村汪家,太平村,国石村平溪钱家,毛塔村后山,朱岭村,中梅村,中国电信有限公司临安分公司,","scope":"浙江省杭州市临安区昌化镇中国电信有限公司临安分公司,玉山村永安,狮溪电站,平溪村,国石村汪家,赤岭村,中梅村,毛塔村后山,落塘村,国石村平溪钱家,毛塔村,玉山村(里),临安市玉岩昌化石矿业有限公司,国石村中梅,狮溪村,峡谷源村新庄,竹岭村,玉山村,上溪村,临安市龙岗镇东塔股份经济合作社（光伏发电）,东塔村浮桥,峡谷源村源头,太平村,临安市昌化公路工程处一带","startTime":"2019-08-18 19:20:24","stopDate":"2019-08-18 21:00:48","orgNo":"3340160","typeCode":"电网故障停限电","poweroffArea":"35kV相见变:相岛V832线-上溪分线007#杆开关后段","poweroffReason":"高压开关故障处理","powerTime":"2019-08-18 20:34:49","powerComm":"已送电","subsNo":"","lineNo":"","tgNo":"","tgName":null,"infoStatus":"1","orgName":"国网浙江临安市供电公司","typeName":null,"infoStatusName":null,"dateDay":null,"orgNos":null,"nowTime":null,"countyName":null,"streetName":null,"villageName":null,"roadName":null,"communityName":null,"tranName":null,"sdLineName":null,"cityCode":"3340160","cityName":"国网浙江临安市供电公司","provinceCode":null,"stopTime":"2019-08-18 21:00:48","powerType":"全部","powerOffArea":"35kV相见变:相岛V832线-上溪分线007#杆开关后段","powerOffReason":"高压开关故障处理","powerOffId":"2019081831010025"}],"pageModel":{"pageNow":1233,"totalCount":17789,"totalPage":1779,"tableRows":0,"pageCount":10,"beginCount":12320},"isExperi":"1"}