{"message":"","today":"2020-06-15","seleList":[{"poweroffId":2020052231020221,"sgpoweroffId":null,"subsName":"","lineName":"10kV鹤里V256线","pubTranName":"10kV横路村[鹤岭云雾]公变,","scope":"浙江省-杭州市-临安市-太阳镇-鹤岭云雾一带","startTime":"2020-06-03 07:10:00","stopDate":"2020-06-03 12:20:00","orgNo":"3340160","typeCode":"计划停电","poweroffArea":"35kV太阳变:鹤里V256线寨村分线千秋关支线鹤岭分支线21#杆云雾支支线","poweroffReason":"10千伏大地村马腿村等增容布点：鹤里V256线寨村分线千秋关支线云雾支支线8#杆横路村（鹤里云雾）公变50KVA增容至200KVA，原12米杆换15米杆","powerTime":"2020-06-03 11:51:41","powerComm":"已送电","subsNo":"","lineNo":"","tgNo":"","tgName":null,"infoStatus":"1","orgName":"国网浙江临安市供电公司","typeName":null,"infoStatusName":null,"dateDay":null,"orgNos":null,"nowTime":null,"countyName":null,"streetName":null,"villageName":null,"roadName":null,"communityName":null,"tranName":null,"sdLineName":null,"cityCode":"3340160","cityName":"国网浙江临安市供电公司","provinceCode":null,"stopTime":"2020-06-03 12:20:00","powerType":"全部","powerOffArea":"35kV太阳变:鹤里V256线寨村分线千秋关支线鹤岭分支线21#杆云雾支支线","powerOffReason":"10千伏大地村马腿村等增容布点：鹤里V256线寨村分线千秋关支线云雾支支线8#杆横路村（鹤里云雾）公变50KVA增容至200KVA，原12米杆换15米杆","powerOffId":"2020052231020221"},{"poweroffId":2020052231020220,"sgpoweroffId":null,"subsName":"","lineName":"10kV昌南V452线","pubTranName":"10kV锦坑桥村[锦坑桥康坞]公变,","scope":"浙江省-杭州市-临安市-太阳镇-锦坑桥康坞一带","startTime":"2020-06-02 13:10:00","stopDate":"2020-06-02 17:20:00","orgNo":"3340160","typeCode":"计划停电","poweroffArea":"110kV昌化变:昌南V452线云浪分线62#杆锦坑桥康坞支线","poweroffReason":"10千伏大地村马腿村等增容布点：昌南V452线云浪分线锦坑桥康坞支线31#杆锦坑桥村（锦坑桥康坞）公变由原屋顶式改为杆上式，配变50KVA增容至200KVA，新立15#杆两基。","powerTime":"2020-06-02 16:28:11","powerComm":"已送电","subsNo":"","lineNo":"","tgNo":"","tgName":null,"infoStatus":"1","orgName":"国网浙江临安市供电公司","typeName":null,"infoStatusName":null,"dateDay":null,"orgNos":null,"nowTime":null,"countyName":null,"streetName":null,"villageName":null,"roadName":null,"communityName":null,"tranName":null,"sdLineName":null,"cityCode":"3340160","cityName":"国网浙江临安市供电公司","provinceCode":null,"stopTime":"2020-06-02 17:20:00","powerType":"全部","powerOffArea":"110kV昌化变:昌南V452线云浪分线62#杆锦坑桥康坞支线","powerOffReason":"10千伏大地村马腿村等增容布点：昌南V452线云浪分线锦坑桥康坞支线31#杆锦坑桥村（锦坑桥康坞）公变由原屋顶式改为杆上式，配变50KVA增容至200KVA，新立15#杆两基。","powerOffId":"2020052231020220"},{"poweroffId":2020052231020219,"sgpoweroffId":null,"subsName":"","lineName":"10kV双庙V253线","pubTranName":"10kV太阳村[高拔梨坞口]公变,","scope":"浙江省-杭州市-临安市-太阳镇-高拔梨坞口一带","startTime":"2020-06-02 07:10:00","stopDate":"2020-06-02 11:00:00","orgNo":"3340160","typeCode":"计划停电","poweroffArea":"35kV太阳变:双庙V253线鸵鸟场分线10#杆梨坞口支线","poweroffReason":"原停电结束时间为2020-06-02 12:20:00,为减少客户停电时间,加快工作进度,提前送电,现变更停电结束时间为2020-06-02 11:00:00","powerTime":"2020-06-02 10:14:00","powerComm":"已送电","subsNo":"","lineNo":"","tgNo":"","tgName":null,"infoStatus":"1","orgName":"国网浙江临安市供电公司","typeName":null,"infoStatusName":null,"dateDay":null,"orgNos":null,"nowTime":null,"countyName":null,"streetName":null,"villageName":null,"roadName":null,"communityName":null,"tranName":null,"sdLineName":null,"cityCode":"3340160","cityName":"国网浙江临安市供电公司","provinceCode":null,"stopTime":"2020-06-02 11:00:00","powerType":"全部","powerOffArea":"35kV太阳变:双庙V253线鸵鸟场分线10#杆梨坞口支线","powerOffReason":"原停电结束时间为2020-06-02 12:20:00,为减少客户停电时间,加快工作进度,提前送电,现变更停电结束时间为2020-06-02 11:00:00","powerOffId":"2020052231020219"},{"poweroffId":2020052231020218,"sgpoweroffId":null,"subsName":"","lineName":"10kV横路V128线","pubTranName":"10kV百园村[上骆企业]公变,","scope":"浙江省-杭州市-临安市-於潜镇-上骆企业一带","startTime":"2020-06-02 07:50:00","stopDate":"2020-06-02 11:10:00","orgNo":"3340160","typeCode":"计划停电","poweroffArea":"110kV於潜变:横路V128线上骆企业分线3#杆上骆企业变低压直坞2000线","poweroffReason":"(低压停电信息)临金高速迁改：横路V128线上骆企业分线3#杆上骆企业变低压直坞2000线13#杆后段上改下","powerTime":"2020-06-02 11:00:07","powerComm":"已送电","subsNo":"","lineNo":"","tgNo":"","tgName":null,"infoStatus":"1","orgName":"国网浙江临安市供电公司","typeName":null,"infoStatusName":null,"dateDay":null,"orgNos":null,"nowTime":null,"countyName":null,"streetName":null,"villageName":null,"roadName":null,"communityName":null,"tranName":null,"sdLineName":null,"cityCode":"3340160","cityName":"国网浙江临安市供电公司","provinceCode":null,"stopTime":"2020-06-02 11:10:00","powerType":"全部","powerOffArea":"110kV於潜变:横路V128线上骆企业分线3#杆上骆企业变低压直坞2000线","powerOffReason":"(低压停电信息)临金高速迁改：横路V128线上骆企业分线3#杆上骆企业变低压直坞2000线13#杆后段上改下","powerOffId":"2020052231020218"},{"poweroffId":2020052231020217,"sgpoweroffId":null,"subsName":"","lineName":"10kV城后V512线","pubTranName":"10kV海龙村[龙寺]公变,","scope":"浙江省-杭州市-临安市-潜川镇-龙寺一带","startTime":"2020-06-01 13:00:00","stopDate":"2020-06-01 17:20:00","orgNo":"3340160","typeCode":"计划停电","poweroffArea":"110kV塔山临:城后V512线城后V512线海龙分线建新支线29#杆龙寺分支线","poweroffReason":"10千伏海龙村龙寺等台区增容：城后V512线海龙分线建新支线龙寺分支线34#杆海龙村（龙寺）公变80KVA增容至200KVA、34#杆配变移位至37#杆","powerTime":"2020-06-01 17:04:07","powerComm":"已送电","subsNo":"","lineNo":"","tgNo":"","tgName":null,"infoStatus":"1","orgName":"国网浙江临安市供电公司","typeName":null,"infoStatusName":null,"dateDay":null,"orgNos":null,"nowTime":null,"countyName":null,"streetName":null,"villageName":null,"roadName":null,"communityName":null,"tranName":null,"sdLineName":null,"cityCode":"3340160","cityName":"国网浙江临安市供电公司","provinceCode":null,"stopTime":"2020-06-01 17:20:00","powerType":"全部","powerOffArea":"110kV塔山临:城后V512线城后V512线海龙分线建新支线29#杆龙寺分支线","powerOffReason":"10千伏海龙村龙寺等台区增容：城后V512线海龙分线建新支线龙寺分支线34#杆海龙村（龙寺）公变80KVA增容至200KVA、34#杆配变移位至37#杆","powerOffId":"2020052231020217"},{"poweroffId":2020052231020215,"sgpoweroffId":null,"subsName":"","lineName":"10kV下埠V503线","pubTranName":"10kV观山村[甲子山岸头]公变,","scope":"浙江省-杭州市-临安市-於潜镇-甲子山岸头一带","startTime":"2020-06-01 08:20:00","stopDate":"2020-06-01 16:40:00","orgNo":"3340160","typeCode":"计划停电","poweroffArea":"110kV於潜变:下埠V503线10KV观山村（甲子山岸头）公变低压路边3000线","poweroffReason":"(低压停电信息)配合於潜变新出临金高速专线35#-42#杆架线","powerTime":"2020-06-01 16:30:11","powerComm":"已送电","subsNo":"","lineNo":"","tgNo":"","tgName":null,"infoStatus":"1","orgName":"国网浙江临安市供电公司","typeName":null,"infoStatusName":null,"dateDay":null,"orgNos":null,"nowTime":null,"countyName":null,"streetName":null,"villageName":null,"roadName":null,"communityName":null,"tranName":null,"sdLineName":null,"cityCode":"3340160","cityName":"国网浙江临安市供电公司","provinceCode":null,"stopTime":"2020-06-01 16:40:00","powerType":"全部","powerOffArea":"110kV於潜变:下埠V503线10KV观山村（甲子山岸头）公变低压路边3000线","powerOffReason":"(低压停电信息)配合於潜变新出临金高速专线35#-42#杆架线","powerOffId":"2020052231020215"},{"poweroffId":2020052231020214,"sgpoweroffId":null,"subsName":"","lineName":"10kV横路V128线","pubTranName":"10kV百园村[周潭坞口]公变,","scope":"浙江省-杭州市-临安市-於潜镇-周潭坞口一带","startTime":"2020-06-01 07:50:00","stopDate":"2020-06-01 16:10:00","orgNo":"3340160","typeCode":"计划停电","poweroffArea":"110kV於潜变横路V128线周坦分线12#杆百园村（周潭坞口）配变低压周潭坞口下村2000线","poweroffReason":"(低压停电信息)临金高速迁改：横路V128线周坦分线12#杆百园村（周潭坞口）配变低压周潭坞口下村2000线7#杆后段上改下，农用线迁改","powerTime":"2020-06-01 16:00:39","powerComm":"已送电","subsNo":"","lineNo":"","tgNo":"","tgName":null,"infoStatus":"1","orgName":"国网浙江临安市供电公司","typeName":null,"infoStatusName":null,"dateDay":null,"orgNos":null,"nowTime":null,"countyName":null,"streetName":null,"villageName":null,"roadName":null,"communityName":null,"tranName":null,"sdLineName":null,"cityCode":"3340160","cityName":"国网浙江临安市供电公司","provinceCode":null,"stopTime":"2020-06-01 16:10:00","powerType":"全部","powerOffArea":"110kV於潜变横路V128线周坦分线12#杆百园村（周潭坞口）配变低压周潭坞口下村2000线","powerOffReason":"(低压停电信息)临金高速迁改：横路V128线周坦分线12#杆百园村（周潭坞口）配变低压周潭坞口下村2000线7#杆后段上改下，农用线迁改","powerOffId":"2020052231020214"},{"poweroffId":2020052231020212,"sgpoweroffId":null,"subsName":"","lineName":"10kV石墓D217线","pubTranName":"上大庄村4#横溪洋公变,","scope":"浙江省-杭州市-富阳区-银湖街道-大庄行政村(横溪洋自然村,上大庄自然村,大庄自然村)","startTime":"2020-06-03 08:20:00","stopDate":"2020-06-03 12:10:00","orgNo":"3340170","typeCode":"计划停电","poweroffArea":"110kV银湖变:石墓D217线-上大庄村4#横溪洋公变低压开关后段","poweroffReason":"(低压停电信息)吊车拔除电杆1支、新立1支、新架导线1档、调换进户线1对、搭接等工作","powerTime":"2020-06-03 11:59:58","powerComm":"已送电","subsNo":"","lineNo":"","tgNo":"","tgName":null,"infoStatus":"1","orgName":"国网浙江杭州市富阳区供电公司","typeName":null,"infoStatusName":null,"dateDay":null,"orgNos":null,"nowTime":null,"countyName":null,"streetName":null,"villageName":null,"roadName":null,"communityName":null,"tranName":null,"sdLineName":null,"cityCode":"3340170","cityName":"国网浙江杭州市富阳区供电公司","provinceCode":null,"stopTime":"2020-06-03 12:10:00","powerType":"全部","powerOffArea":"110kV银湖变:石墓D217线-上大庄村4#横溪洋公变低压开关后段","powerOffReason":"(低压停电信息)吊车拔除电杆1支、新立1支、新架导线1档、调换进户线1对、搭接等工作","powerOffId":"2020052231020212"},{"poweroffId":2020052231020210,"sgpoweroffId":null,"subsName":"","lineName":"10kV滨北D369线","pubTranName":"宜家弄公变,","scope":"浙江省-杭州市-富阳区-富春街道-鹳山社区(达夫路,富春路,宜家弄,市心路,富春街)一带","startTime":"2020-06-03 08:30:00","stopDate":"2020-06-03 12:10:00","orgNo":"3340170","typeCode":"计划停电","poweroffArea":"110kV富鹿变:滨北D369线-宜家弄公变后段","poweroffReason":"(低压停电信息)国网浙江富阳供电公司2020年客户计量装置建设与改造:0.4kV宜家弄公变2#开关1#出线（6611038414）宜家弄3号3单元进行表箱改造等工作","powerTime":"2020-06-03 11:59:48","powerComm":"已送电","subsNo":"","lineNo":"","tgNo":"","tgName":null,"infoStatus":"1","orgName":"国网浙江杭州市富阳区供电公司","typeName":null,"infoStatusName":null,"dateDay":null,"orgNos":null,"nowTime":null,"countyName":null,"streetName":null,"villageName":null,"roadName":null,"communityName":null,"tranName":null,"sdLineName":null,"cityCode":"3340170","cityName":"国网浙江杭州市富阳区供电公司","provinceCode":null,"stopTime":"2020-06-03 12:10:00","powerType":"全部","powerOffArea":"110kV富鹿变:滨北D369线-宜家弄公变后段","powerOffReason":"(低压停电信息)国网浙江富阳供电公司2020年客户计量装置建设与改造:0.4kV宜家弄公变2#开关1#出线（6611038414）宜家弄3号3单元进行表箱改造等工作","powerOffId":"2020052231020210"},{"poweroffId":2020052231020208,"sgpoweroffId":null,"subsName":"","lineName":"10kV荷庄D763线","pubTranName":"外沙村4#塘路公变,","scope":"浙江省-杭州市-富阳区-灵桥镇-外沙行政村-外沙自然村-塘路自然村一带","startTime":"2020-06-02 08:00:00","stopDate":"2020-06-02 17:00:00","orgNo":"3340170","typeCode":"计划停电","poweroffArea":"110kV春联变:荷庄D763线-外沙村4号塘路低压开关后段","poweroffReason":"(低压停电信息)江南2020年五爱村7#新路公变等台区布点增容工程：新放导线1档，低压割接等工作。","powerTime":"2020-06-02 16:50:49","powerComm":"已送电","subsNo":"","lineNo":"","tgNo":"","tgName":null,"infoStatus":"1","orgName":"国网浙江杭州市富阳区供电公司","typeName":null,"infoStatusName":null,"dateDay":null,"orgNos":null,"nowTime":null,"countyName":null,"streetName":null,"villageName":null,"roadName":null,"communityName":null,"tranName":null,"sdLineName":null,"cityCode":"3340170","cityName":"国网浙江杭州市富阳区供电公司","provinceCode":null,"stopTime":"2020-06-02 17:00:00","powerType":"全部","powerOffArea":"110kV春联变:荷庄D763线-外沙村4号塘路低压开关后段","powerOffReason":"(低压停电信息)江南2020年五爱村7#新路公变等台区布点增容工程：新放导线1档，低压割接等工作。","powerOffId":"2020052231020208"}],"pageModel":{"pageNow":125,"totalCount":17786,"totalPage":1779,"tableRows":0,"pageCount":10,"beginCount":1240},"isExperi":"1"}