{"message":"","today":"2020-06-16","seleList":[{"poweroffId":2019081831010024,"sgpoweroffId":null,"subsName":"","lineName":"10kV江围0316线","pubTranName":"屠氏制线厂,新江村2#变,海江纺织,南阳南丰垦种,新东村4#变,新江村9#变,新江村12#变,江南养殖,新江村7#变,可峰包装,新江村5#变,翁炳炎化纤厂,杭州海皖包装,江南养殖,新东村6#变,永博铭化纤针织,鸿豪化纺,宏恒五金,江乐蔬菜酱品,新东村5#变,江南养殖（一）,南阳镇南丰村,江建村2#变,新江村6#变,星博传动机械,明达玻璃,新江村4#变,新江村3#变,新江村10#变,幸宝健康01#,新东化纤厂,新江村8#变,群欢村5#变,新江村1#变,翁氏布业,新江村11#变,华妍化纤,江南猪场,江东村9#变,帝派实业,新创村10#变,南阳五垦,江建村7#变,","scope":"浙江省-杭州市-萧山区-河庄街道江东行政村,江东自然村,群欢行政村,群欢自然村,新江行政村,新江自然村,杭州帝派实业有限公司,杭州海皖包装材料有限公司,杭州宏恒五金厂,杭州华妍化纤有限公司,杭州可锋包装制品厂,杭州联大塑业有限公司,杭州梦吉雅卫浴洁具有限公司,杭州明达玻璃有限公司,杭州屠氏厂,杭州翁氏布业有限公司,杭州萧山海江纺织有限公司,杭州萧山江乐蔬菜酱品有限公司,杭州萧山江南养殖有限公司,杭州萧山南阳街道南丰村经济合作社,杭州星博传动机械有限公司,杭州永博铭化纤针织有限公司,河庄新东化纤厂,南阳镇南丰村(围垦五工段),萧山区南阳镇南丰村(围垦用电),新东翁炳贤化纤厂,河庄街道江东村11组,河庄街道新创村,大江东河庄,新江行政村一带","startTime":"2019-08-18 18:37:29","stopDate":"2019-08-19 01:30:36","orgNo":"3340120","typeCode":"电网故障停限电","poweroffArea":"110kV启江变:江围0316线","poweroffReason":"高压开关跳闸 原停电结束时间：01:00，变更停电结束时间：01:30，由于更换开关，故需要延长抢修时间。","powerTime":"2019-08-19 00:55:25","powerComm":"已送电","subsNo":"","lineNo":"","tgNo":"","tgName":null,"infoStatus":"1","orgName":"国网浙江杭州市钱塘新区供电公司","typeName":null,"infoStatusName":null,"dateDay":null,"orgNos":null,"nowTime":null,"countyName":null,"streetName":null,"villageName":null,"roadName":null,"communityName":null,"tranName":null,"sdLineName":null,"cityCode":"3340120","cityName":"国网浙江杭州市钱塘新区供电公司","provinceCode":null,"stopTime":"2019-08-19 01:30:36","powerType":"全部","powerOffArea":"110kV启江变:江围0316线","powerOffReason":"高压开关跳闸 原停电结束时间：01:00，变更停电结束时间：01:30，由于更换开关，故需要延长抢修时间。","powerOffId":"2019081831010024"},{"poweroffId":2019081831010023,"sgpoweroffId":null,"subsName":"","lineName":"10kV新水0466线","pubTranName":"共建村6#变,钱江石材厂,梅林村2#变,新湾街道14#变,共建村5#变,共建村17#变,新湾街道13#变,梅林村1#变,钱江石材厂,新湾街道10#变,梅林村6#变,梅林村10#变,新湾邮电所,新湾街道8#变,明大水产1#,萧围水泥厂,新龙村1#变,梅林村8#变,明大水产2#,新湾街道22#变,新湾二十一配变,新湾街道2#变,","scope":"浙江省-杭州市-萧山区-新湾街道共建行政村梅林村,共建行政村,共建自然村,梅林自然村,三新行政村-新龙自然村,新北桥社区,杭州赤龙混凝土有限公司,杭州梅林湾石材有限公司,杭州明大水产品有限公司,中国电信股份有限公司杭州萧山区分公司,新湾镇供电村9组3号,闸口路,创健村,闸口路184号新湾初中对面,新湾街道闸口路后面,闸口路老市场后面,南提路28号,达克路,南提路28号,新关街道共建村23组16号,升岭路150号,闸口路与兴隆路交叉口一带","startTime":"2019-08-18 17:32:40","stopDate":"2019-08-19 01:40:35","orgNo":"3340120","typeCode":"电网故障停限电","poweroffArea":"35kV新湾变:新水0466线","poweroffReason":"高压开关跳闸 原停电结束时间：01:30，变更停电结束时间：01:40，由于更换开关，故需要延长抢修时间。","powerTime":"2019-08-19 01:08:23","powerComm":"已送电","subsNo":"","lineNo":"","tgNo":"","tgName":null,"infoStatus":"1","orgName":"国网浙江杭州市钱塘新区供电公司","typeName":null,"infoStatusName":null,"dateDay":null,"orgNos":null,"nowTime":null,"countyName":null,"streetName":null,"villageName":null,"roadName":null,"communityName":null,"tranName":null,"sdLineName":null,"cityCode":"3340120","cityName":"国网浙江杭州市钱塘新区供电公司","provinceCode":null,"stopTime":"2019-08-19 01:40:35","powerType":"全部","powerOffArea":"35kV新湾变:新水0466线","powerOffReason":"高压开关跳闸 原停电结束时间：01:30，变更停电结束时间：01:40，由于更换开关，故需要延长抢修时间。","powerOffId":"2019081831010023"},{"poweroffId":2019081831010019,"sgpoweroffId":null,"subsName":"","lineName":"10kV无他V141线","pubTranName":"无他村（四）,","scope":"浙江省-杭州市-临安市-龙岗镇(无他行政村-无他自然村);杭州临安无他求是食品炒货有限公司;汤家湾行政村-前山下自然村,龙岗镇-林坑行政村(林川自然村,西坞自然村,东坞自然村);龙岗镇-浙江省商业集团有限公司龙岗服务区一带","startTime":"2019-08-18 17:02:30","stopDate":"2019-08-18 20:00:09","orgNo":"3340160","typeCode":"电网故障停限电","poweroffArea":"110kV龙岗变:无他V141线-无他分线3#后段","poweroffReason":"高压开关故障处理","powerTime":"2019-08-18 19:38:30","powerComm":"已送电","subsNo":"","lineNo":"","tgNo":"","tgName":null,"infoStatus":"1","orgName":"国网浙江临安市供电公司","typeName":null,"infoStatusName":null,"dateDay":null,"orgNos":null,"nowTime":null,"countyName":null,"streetName":null,"villageName":null,"roadName":null,"communityName":null,"tranName":null,"sdLineName":null,"cityCode":"3340160","cityName":"国网浙江临安市供电公司","provinceCode":null,"stopTime":"2019-08-18 20:00:09","powerType":"全部","powerOffArea":"110kV龙岗变:无他V141线-无他分线3#后段","powerOffReason":"高压开关故障处理","powerOffId":"2019081831010019"},{"poweroffId":2019081831010018,"sgpoweroffId":null,"subsName":"","lineName":"10kV相岛V832线","pubTranName":"仙人塘村胡家,大峡谷镇中心学校,仙人塘村,仙人塘村叶家,","scope":"浙江省-杭州市-临安市-龙岗镇-华光潭行政村(石浪自然村,兔川自然村),龙岗镇-峡谷源行政村(源头自然村,新庄自然村),龙岗镇-仙人塘行政村(仙人塘自然村,新兴自然村,上阴山自然村),龙岗镇-国石行政村(平溪自然村,中梅自然村),龙岗镇-玉山行政村(玉山自然村,永安自然村),龙岗镇-华川行政村(外川自然村,内川自然村),龙岗镇-上溪行政村(竹岭自然村,上溪自然村,落塘自然村),龙岗镇-鱼跳行政村(鱼跳自然村,赤岭自然村,朱岭自然村),龙岗镇-太平行政村(太平自然村,狮溪自然村),龙岗镇-望湖行政村(下山自然村,茶园自然村),龙岗镇-东塔行政村(后山自然村,浮桥自然村,毛塔自然村),龙岗镇(龙井桥行政村-亭子山自然村,五星行政村-三垅自然村);太平行政村,龙岗镇(,大峡谷镇中心学校,临安市玉岩昌化石矿业有限公司,中国电信股份有限公司临安分公司,杭州市临安区昌化公路段,浙江浙能华光潭水力发电有限公司,临安市大峡谷周胡电站)一带","startTime":"2019-08-18 16:57:41","stopDate":"2019-08-18 20:00:55","orgNo":"3340160","typeCode":"电网故障停限电","poweroffArea":"35kV相见变:相岛V832线-仙人塘分线开关后段","poweroffReason":"35kV相见变相岛V832线仙人塘分线开关跳","powerTime":"2019-08-18 19:37:56","powerComm":"已送电","subsNo":"","lineNo":"","tgNo":"","tgName":null,"infoStatus":"1","orgName":"国网浙江临安市供电公司","typeName":null,"infoStatusName":null,"dateDay":null,"orgNos":null,"nowTime":null,"countyName":null,"streetName":null,"villageName":null,"roadName":null,"communityName":null,"tranName":null,"sdLineName":null,"cityCode":"3340160","cityName":"国网浙江临安市供电公司","provinceCode":null,"stopTime":"2019-08-18 20:00:55","powerType":"全部","powerOffArea":"35kV相见变:相岛V832线-仙人塘分线开关后段","powerOffReason":"35kV相见变相岛V832线仙人塘分线开关跳","powerOffId":"2019081831010018"},{"poweroffId":2019081731020254,"sgpoweroffId":null,"subsName":"","lineName":"10kV新龙T426线","pubTranName":"新龙藏家1号公变,","scope":"浙江省-杭州市-桐庐县-分水镇-新龙行政村-藏家自然村","startTime":"2019-08-17 22:43:07","stopDate":"2019-08-17 23:43:07","orgNo":"3340150","typeCode":"电网故障停限电","poweroffArea":"110kV天英变:新龙T426线-新龙藏家1号公变后段","poweroffReason":"高压开关跳闸","powerTime":"2019-08-17 23:35:04","powerComm":"已送电。","subsNo":"","lineNo":"","tgNo":"","tgName":null,"infoStatus":"1","orgName":"国网浙江桐庐县供电公司","typeName":null,"infoStatusName":null,"dateDay":null,"orgNos":null,"nowTime":null,"countyName":null,"streetName":null,"villageName":null,"roadName":null,"communityName":null,"tranName":null,"sdLineName":null,"cityCode":"3340150","cityName":"国网浙江桐庐县供电公司","provinceCode":null,"stopTime":"2019-08-17 23:43:07","powerType":"全部","powerOffArea":"110kV天英变:新龙T426线-新龙藏家1号公变后段","powerOffReason":"高压开关跳闸","powerOffId":"2019081731020254"},{"poweroffId":2019081731020186,"sgpoweroffId":null,"subsName":"","lineName":"10kV葛家G914线","pubTranName":"大井2组4号公变,建联3号公变,大井2组3号公变,蓝翔汽轮机2#,乔司立新服装有限公司,蓝翔汽轮机1#,建联2号公变,杭州牧森服饰有限公司,建联公变,大井1组公变,大井2组公变,立新服饰,永固防雨制品（橡胶制品厂）,","scope":"浙江省-杭州市-余杭区-乔司街道-葛家车行政村(吴家车自然村,葛家车自然村,香樟树下自然村);乔司街道-葛家车行政村(杭州永乐服饰有限公司,杭州牧森服饰有限公司,杭州余杭区乔司镇立新服装厂)","startTime":"2019-08-17 16:46:00","stopDate":"2019-08-17 20:00:00","orgNo":"3340140","typeCode":"电网故障停限电","poweroffArea":"110kV庙港变:葛家G914线-大井分支箱分线后段","poweroffReason":"高压开关跳闸","powerTime":"2019-08-17 19:10:00","powerComm":"已送电","subsNo":"","lineNo":"","tgNo":"","tgName":null,"infoStatus":"1","orgName":"国网浙江杭州市余杭区供电有限公司","typeName":null,"infoStatusName":null,"dateDay":null,"orgNos":null,"nowTime":null,"countyName":null,"streetName":null,"villageName":null,"roadName":null,"communityName":null,"tranName":null,"sdLineName":null,"cityCode":"3340140","cityName":"国网浙江杭州市余杭区供电有限公司","provinceCode":null,"stopTime":"2019-08-17 20:00:00","powerType":"全部","powerOffArea":"110kV庙港变:葛家G914线-大井分支箱分线后段","powerOffReason":"高压开关跳闸","powerOffId":"2019081731020186"},{"poweroffId":2019081731020185,"sgpoweroffId":null,"subsName":"","lineName":"10kV亿家H423线","pubTranName":"欧文实业612060236101#专变,亿丰二期商业专变,1#,恺泽房地产物业专变I段01#变,碧水澜天5号公变,严村4#公变,桂语里1#公变,碧水澜天13号公变,1#,未来城2#公变,未来城7#公变,桂语里2#公变,碧水澜天6号公变,桂语里6#公变,亿丰二期商业1#专变,碧水澜天14号公变,桂语里8#公变,1#,严村2#公变,碧水澜天16号公变,3#,1#,未来城4#公变,严村3#公变,未来城1#公变,蔚蓝3#公变,碧水澜天15号公变,蔚蓝2#公变,严村6#公变,桂语里7#公变,未来城11#公变,桂语里5#公变,未来城3#公变,3#,碧水澜天10号公变,桂语里3#公变,未来城8#公变,4#,3#,蔚蓝4#公变,桂语里4#公变,蔚蓝1#公变,严村1#公变,1#,严村5#公变,碧水澜天9号公变,未来城12#公变,","scope":"浙江省-杭州市-余杭区-良渚街道-杜甫行政村(古墩路,疏港公路,立新路),良渚街道(蔚蓝郡社区-新104国道,良渚行政村-良渚自然村);浙江省-杭州市-余杭区-良渚街道-康铭华庭社区-杭州恺泽房地产开发有限公司,良渚街道-杜甫行政村(永旺梦乐城(浙江)商业管理有限公司,杭州农副物流管理有限公司,上海万科物业服务有限公司余杭分公司),良渚街道-良渚行政村(杭州安宁物业有限公司,杭州农副物流管理有限公司,杭州万科物业服务有限公司,杭州欧文实业有限公司)","startTime":"2019-08-17 16:30:47","stopDate":"2019-08-17 19:30:00","orgNo":"3340140","typeCode":"电网故障停限电","poweroffArea":"110kV勾庄变:亿家H423线","poweroffReason":"高压开关跳闸","powerTime":"2019-08-17 19:10:00","powerComm":"已送电","subsNo":"","lineNo":"","tgNo":"","tgName":null,"infoStatus":"1","orgName":"国网浙江杭州市余杭区供电有限公司","typeName":null,"infoStatusName":null,"dateDay":null,"orgNos":null,"nowTime":null,"countyName":null,"streetName":null,"villageName":null,"roadName":null,"communityName":null,"tranName":null,"sdLineName":null,"cityCode":"3340140","cityName":"国网浙江杭州市余杭区供电有限公司","provinceCode":null,"stopTime":"2019-08-17 19:30:00","powerType":"全部","powerOffArea":"110kV勾庄变:亿家H423线","powerOffReason":"高压开关跳闸","powerOffId":"2019081731020185"},{"poweroffId":2019081731020183,"sgpoweroffId":null,"subsName":"","lineName":"10kV搜侯H430线","pubTranName":"5#,7#,欧文充电桩公变,1#,3#,1#,","scope":"浙江省-杭州市-余杭区-良渚街道-杜甫行政村-浙江亿丰商业投资管理有限公司一带","startTime":"2019-08-17 16:29:00","stopDate":"2019-08-18 09:00:00","orgNo":"3340140","typeCode":"电网故障停限电","poweroffArea":"110kV勾庄变:搜侯H430线","poweroffReason":"高压开关跳闸","powerTime":"2019-08-18 08:10:47","powerComm":"已送电","subsNo":"","lineNo":"","tgNo":"","tgName":null,"infoStatus":"1","orgName":"国网浙江杭州市余杭区供电有限公司","typeName":null,"infoStatusName":null,"dateDay":null,"orgNos":null,"nowTime":null,"countyName":null,"streetName":null,"villageName":null,"roadName":null,"communityName":null,"tranName":null,"sdLineName":null,"cityCode":"3340140","cityName":"国网浙江杭州市余杭区供电有限公司","provinceCode":null,"stopTime":"2019-08-18 09:00:00","powerType":"全部","powerOffArea":"110kV勾庄变:搜侯H430线","powerOffReason":"高压开关跳闸","powerOffId":"2019081731020183"},{"poweroffId":2019081731020181,"sgpoweroffId":null,"subsName":"","lineName":"10kV亿家H423线","pubTranName":"碧水澜天15号公变,碧水澜天5号公变,4#,桂语里7#公变,碧水澜天10号公变,1#,桂语里8#公变,1#,桂语里3#公变,蔚蓝4#公变,桂语里2#公变,1#,1#,1#,碧水澜天9号公变,桂语里5#公变,严村5#公变,严村4#公变,蔚蓝3#公变,碧水澜天6号公变,严村6#公变,蔚蓝1#公变,未来城1#公变,未来城7#公变,亿丰二期商业1#专变,桂语里1#公变,3#,碧水澜天14号公变,未来城2#公变,未来城3#公变,桂语里4#公变,碧水澜天13号公变,未来城4#公变,亿丰二期商业专变,严村3#公变,未来城11#公变,恺泽房地产物业专变I段01#变,3#,3#,严村2#公变,蔚蓝2#公变,未来城12#公变,严村1#公变,欧文实业612060236101#专变,桂语里6#公变,碧水澜天16号公变,未来城8#公变,","scope":"浙江省-杭州市-余杭区-良渚街道-杜甫行政村(古墩路,疏港公路,立新路),良渚街道(蔚蓝郡社区-新104国道,良渚行政村-良渚自然村);浙江省-杭州市-余杭区-良渚街道-康铭华庭社区-杭州恺泽房地产开发有限公司,良渚街道-杜甫行政村(永旺梦乐城(浙江)商业管理有限公司,杭州农副物流管理有限公司,上海万科物业服务有限公司余杭分公司),良渚街道-良渚行政村(杭州安宁物业有限公司,杭州农副物流管理有限公司,杭州万科物业服务有限公司,杭州欧文实业有限公司)一带","startTime":"2019-08-17 16:22:00","stopDate":"2019-08-17 19:30:00","orgNo":"3340140","typeCode":"电网故障停限电","poweroffArea":"110kV勾庄变:亿家H423线","poweroffReason":"高压开关跳闸","powerTime":"2019-08-17 19:09:00","powerComm":"已送电","subsNo":"","lineNo":"","tgNo":"","tgName":null,"infoStatus":"1","orgName":"国网浙江杭州市余杭区供电有限公司","typeName":null,"infoStatusName":null,"dateDay":null,"orgNos":null,"nowTime":null,"countyName":null,"streetName":null,"villageName":null,"roadName":null,"communityName":null,"tranName":null,"sdLineName":null,"cityCode":"3340140","cityName":"国网浙江杭州市余杭区供电有限公司","provinceCode":null,"stopTime":"2019-08-17 19:30:00","powerType":"全部","powerOffArea":"110kV勾庄变:亿家H423线","powerOffReason":"高压开关跳闸","powerOffId":"2019081731020181"},{"poweroffId":2019081731020177,"sgpoweroffId":null,"subsName":"","lineName":"10kV金舟H442线","pubTranName":"金舟电炉,联发集团杭州房地产开发有限公司计量点,金舟电炉,吉冈工具公司,金舟电炉,","scope":"浙江省-杭州市-余杭区-良渚街道-杜甫行政村-联发集团杭州房地产开发有限公司,良渚街道-良渚行政村(杭州吉冈工具有限公司,杭州骏马轴承有限公司)一带","startTime":"2019-08-17 16:06:00","stopDate":"2019-08-18 09:00:00","orgNo":"3340140","typeCode":"电网故障停限电","poweroffArea":"110kV勾庄变:金舟H442线","poweroffReason":"高压开关跳闸","powerTime":"2019-08-18 08:08:00","powerComm":"已送电","subsNo":"","lineNo":"","tgNo":"","tgName":null,"infoStatus":"1","orgName":"国网浙江杭州市余杭区供电有限公司","typeName":null,"infoStatusName":null,"dateDay":null,"orgNos":null,"nowTime":null,"countyName":null,"streetName":null,"villageName":null,"roadName":null,"communityName":null,"tranName":null,"sdLineName":null,"cityCode":"3340140","cityName":"国网浙江杭州市余杭区供电有限公司","provinceCode":null,"stopTime":"2019-08-18 09:00:00","powerType":"全部","powerOffArea":"110kV勾庄变:金舟H442线","powerOffReason":"高压开关跳闸","powerOffId":"2019081731020177"}],"pageModel":{"pageNow":1234,"totalCount":17789,"totalPage":1779,"tableRows":0,"pageCount":10,"beginCount":12330},"isExperi":"1"}