{"message":"","today":"2020-06-16","seleList":[{"poweroffId":2019081631020348,"sgpoweroffId":null,"subsName":"","lineName":"10kV双林G942线","pubTranName":"红旗村三号桥南公变,","scope":"浙江省杭州市余杭区南苑街道：丁塘村三号桥一带","startTime":"2019-08-28 07:00:00","stopDate":"2019-08-28 17:30:00","orgNo":"3340140","typeCode":"计划停电","poweroffArea":"110kV亭趾变:东门开关站双林G942线三号桥南分线。","poweroffReason":"2019年杭州余杭南苑10kV冯金G906线等分支线消缺工程：三号桥南变增至400kVA、新出4*150电缆1个根、新放集束线3档。 原停电结束时间15：20，由于现场情况复杂，无法按时完成相关工作，现变更停电结束时间17：30.","powerTime":"2019-08-28 16:31:00","powerComm":"施工结束","subsNo":"","lineNo":"","tgNo":"","tgName":null,"infoStatus":"1","orgName":"国网浙江杭州市余杭区供电有限公司","typeName":null,"infoStatusName":null,"dateDay":null,"orgNos":null,"nowTime":null,"countyName":null,"streetName":null,"villageName":null,"roadName":null,"communityName":null,"tranName":null,"sdLineName":null,"cityCode":"3340140","cityName":"国网浙江杭州市余杭区供电有限公司","provinceCode":null,"stopTime":"2019-08-28 17:30:00","powerType":"全部","powerOffArea":"110kV亭趾变:东门开关站双林G942线三号桥南分线。","powerOffReason":"2019年杭州余杭南苑10kV冯金G906线等分支线消缺工程：三号桥南变增至400kVA、新出4*150电缆1个根、新放集束线3档。 原停电结束时间15：20，由于现场情况复杂，无法按时完成相关工作，现变更停电结束时间17：30.","powerOffId":"2019081631020348"},{"poweroffId":2019081631020346,"sgpoweroffId":null,"subsName":"","lineName":"10kV大井G009线","pubTranName":"安置房12号东公变,乔司安置房12号公变,","scope":"浙江省杭州市余杭区乔司街道：乔司安置房小区一带","startTime":"2019-08-28 07:00:00","stopDate":"2019-08-28 12:00:00","orgNo":"3340140","typeCode":"计划停电","poweroffArea":"110kV外乔变:大井G009线安置房12#公变、安置房12#东公变。","poweroffReason":"2019年杭州余杭乔司地区葛家村JP柜村改造工程、紧急公变增补：安置房12公变增至400kVA、调换计量箱。 原停电结束时间13：20，因检修力量充足，提前完成工作任务，现变更停电结束时间12：00。","powerTime":"2019-08-28 11:17:25","powerComm":"施工结束","subsNo":"","lineNo":"","tgNo":"","tgName":null,"infoStatus":"1","orgName":"国网浙江杭州市余杭区供电有限公司","typeName":null,"infoStatusName":null,"dateDay":null,"orgNos":null,"nowTime":null,"countyName":null,"streetName":null,"villageName":null,"roadName":null,"communityName":null,"tranName":null,"sdLineName":null,"cityCode":"3340140","cityName":"国网浙江杭州市余杭区供电有限公司","provinceCode":null,"stopTime":"2019-08-28 12:00:00","powerType":"全部","powerOffArea":"110kV外乔变:大井G009线安置房12#公变、安置房12#东公变。","powerOffReason":"2019年杭州余杭乔司地区葛家村JP柜村改造工程、紧急公变增补：安置房12公变增至400kVA、调换计量箱。 原停电结束时间13：20，因检修力量充足，提前完成工作任务，现变更停电结束时间12：00。","powerOffId":"2019081631020346"},{"poweroffId":2019081631020345,"sgpoweroffId":null,"subsName":"","lineName":"10kV胥口D712线","pubTranName":"高联村2#白亭子公变,","scope":"浙江省杭州市富阳区胥口镇高联行政村白亭子自然村一带","startTime":"2019-08-30 06:00:00","stopDate":"2019-08-30 12:30:00","orgNo":"3340170","typeCode":"计划停电","poweroffArea":"110kV松溪变:胥口D712线-高联村2#白亭子公变后段","poweroffReason":"(低压停电信息)新桥头01线6#杆后段线路移位、挖机配合施工（挖洞）吊车拔立杆12米杆3基、安装横担4付、拆装拉线4组、拆装JKLYJ-120*4*2档、拆JKLYJ-120*4*1档、拆JKLYJ-35*4*1档、装JKLYJ-70*4*1档搭接拆旧等。","powerTime":"2019-08-30 12:20:14","powerComm":"已送电","subsNo":"","lineNo":"","tgNo":"","tgName":null,"infoStatus":"1","orgName":"国网浙江杭州市富阳区供电公司","typeName":null,"infoStatusName":null,"dateDay":null,"orgNos":null,"nowTime":null,"countyName":null,"streetName":null,"villageName":null,"roadName":null,"communityName":null,"tranName":null,"sdLineName":null,"cityCode":"3340170","cityName":"国网浙江杭州市富阳区供电公司","provinceCode":null,"stopTime":"2019-08-30 12:30:00","powerType":"全部","powerOffArea":"110kV松溪变:胥口D712线-高联村2#白亭子公变后段","powerOffReason":"(低压停电信息)新桥头01线6#杆后段线路移位、挖机配合施工（挖洞）吊车拔立杆12米杆3基、安装横担4付、拆装拉线4组、拆装JKLYJ-120*4*2档、拆JKLYJ-120*4*1档、拆JKLYJ-35*4*1档、装JKLYJ-70*4*1档搭接拆旧等。","powerOffId":"2019081631020345"},{"poweroffId":2019081631020343,"sgpoweroffId":null,"subsName":"","lineName":"10kV千家D297线","pubTranName":"芳地村1#马家坞公变,","scope":"浙江省杭州市富阳区银湖街道芳地村一带","startTime":"2019-08-29 06:30:00","stopDate":"2019-08-29 13:30:00","orgNo":"3340170","typeCode":"计划停电","poweroffArea":"35kV新义变:千家D297线-芳地村1#马家坞公变低压开关后段","poweroffReason":"(低压停电信息)迎东2019年沈家坞9#里村口公变等低压台区改造工程导线移位1档，新架导线6档，搭接等工作。","powerTime":"2019-08-29 13:15:15","powerComm":"已送电","subsNo":"","lineNo":"","tgNo":"","tgName":null,"infoStatus":"1","orgName":"国网浙江杭州市富阳区供电公司","typeName":null,"infoStatusName":null,"dateDay":null,"orgNos":null,"nowTime":null,"countyName":null,"streetName":null,"villageName":null,"roadName":null,"communityName":null,"tranName":null,"sdLineName":null,"cityCode":"3340170","cityName":"国网浙江杭州市富阳区供电公司","provinceCode":null,"stopTime":"2019-08-29 13:30:00","powerType":"全部","powerOffArea":"35kV新义变:千家D297线-芳地村1#马家坞公变低压开关后段","powerOffReason":"(低压停电信息)迎东2019年沈家坞9#里村口公变等低压台区改造工程导线移位1档，新架导线6档，搭接等工作。","powerOffId":"2019081631020343"},{"poweroffId":2019081631020334,"sgpoweroffId":null,"subsName":"","lineName":"10kV湘岭D714线","pubTranName":"官塘村外官3#落家亭公变,","scope":"浙江省杭州市富阳区新登镇外官行政村洛家亭自然村一带","startTime":"2019-08-29 07:10:00","stopDate":"2019-08-29 17:00:00","orgNo":"3340170","typeCode":"计划停电","poweroffArea":"110kV松溪变:湘岭D714线-官塘村外官3#落家亭公变低压开关后段","poweroffReason":"(低压停电信息)人工挖洞20个、人工运杆30支（12米28支、10米2支）吊车立杆、安装横担拉线（旁站监理）","powerTime":"2019-08-29 16:43:12","powerComm":"已送电","subsNo":"","lineNo":"","tgNo":"","tgName":null,"infoStatus":"1","orgName":"国网浙江杭州市富阳区供电公司","typeName":null,"infoStatusName":null,"dateDay":null,"orgNos":null,"nowTime":null,"countyName":null,"streetName":null,"villageName":null,"roadName":null,"communityName":null,"tranName":null,"sdLineName":null,"cityCode":"3340170","cityName":"国网浙江杭州市富阳区供电公司","provinceCode":null,"stopTime":"2019-08-29 17:00:00","powerType":"全部","powerOffArea":"110kV松溪变:湘岭D714线-官塘村外官3#落家亭公变低压开关后段","powerOffReason":"(低压停电信息)人工挖洞20个、人工运杆30支（12米28支、10米2支）吊车立杆、安装横担拉线（旁站监理）","powerOffId":"2019081631020334"},{"poweroffId":2019081631020332,"sgpoweroffId":null,"subsName":"","lineName":"10kV胥口D712线","pubTranName":"高联村9#徐家公变,","scope":"浙江省杭州市富阳区胥口镇高联行政村徐家自然村一带","startTime":"2019-08-29 06:00:00","stopDate":"2019-08-29 15:30:00","orgNo":"3340170","typeCode":"计划停电","poweroffArea":"110kV松溪变:胥口D712线-高联村9#徐家公变后段","poweroffReason":"(低压停电信息)徐家02线6#杆移位，挖机配合施工（挖洞）吊车拔立杆15米杆2基、12米杆1基、新立10米杆1基、安装横担4付、拉线3组、水平拉线2组、拆除拉线3组、拆装JKLYJ-120*4*6档、架JKLYJ-120*4*1档、搭接拆旧等工作。","powerTime":"2019-08-29 15:15:58","powerComm":"已送电","subsNo":"","lineNo":"","tgNo":"","tgName":null,"infoStatus":"1","orgName":"国网浙江杭州市富阳区供电公司","typeName":null,"infoStatusName":null,"dateDay":null,"orgNos":null,"nowTime":null,"countyName":null,"streetName":null,"villageName":null,"roadName":null,"communityName":null,"tranName":null,"sdLineName":null,"cityCode":"3340170","cityName":"国网浙江杭州市富阳区供电公司","provinceCode":null,"stopTime":"2019-08-29 15:30:00","powerType":"全部","powerOffArea":"110kV松溪变:胥口D712线-高联村9#徐家公变后段","powerOffReason":"(低压停电信息)徐家02线6#杆移位，挖机配合施工（挖洞）吊车拔立杆15米杆2基、12米杆1基、新立10米杆1基、安装横担4付、拉线3组、水平拉线2组、拆除拉线3组、拆装JKLYJ-120*4*6档、架JKLYJ-120*4*1档、搭接拆旧等工作。","powerOffId":"2019081631020332"},{"poweroffId":2019081631020331,"sgpoweroffId":null,"subsName":"","lineName":"10kV中秋D223线","pubTranName":"大山脚村3号野坞公变,","scope":"浙江省杭州市富阳区银湖街道祝家村一带","startTime":"2019-08-29 06:30:00","stopDate":"2019-08-29 13:45:00","orgNo":"3340170","typeCode":"计划停电","poweroffArea":"110kV银湖变:中秋D223线-大山脚村3号野坞公变低压开关后段","poweroffReason":"(低压停电信息)富证工出（2018）72号地块（交界岭）0.4千伏改造进户线搭接吊车立杆1支等工作","powerTime":"2019-08-29 13:30:35","powerComm":"已送电","subsNo":"","lineNo":"","tgNo":"","tgName":null,"infoStatus":"1","orgName":"国网浙江杭州市富阳区供电公司","typeName":null,"infoStatusName":null,"dateDay":null,"orgNos":null,"nowTime":null,"countyName":null,"streetName":null,"villageName":null,"roadName":null,"communityName":null,"tranName":null,"sdLineName":null,"cityCode":"3340170","cityName":"国网浙江杭州市富阳区供电公司","provinceCode":null,"stopTime":"2019-08-29 13:45:00","powerType":"全部","powerOffArea":"110kV银湖变:中秋D223线-大山脚村3号野坞公变低压开关后段","powerOffReason":"(低压停电信息)富证工出（2018）72号地块（交界岭）0.4千伏改造进户线搭接吊车立杆1支等工作","powerOffId":"2019081631020331"},{"poweroffId":2019081631020330,"sgpoweroffId":null,"subsName":"","lineName":"10kV祝家D983线","pubTranName":"祝家村4#交界岭公变,","scope":"浙江省杭州市富阳区银湖街道祝家村一带","startTime":"2019-08-29 06:30:00","stopDate":"2019-08-29 13:45:00","orgNo":"3340170","typeCode":"计划停电","poweroffArea":"110kV九龙变:祝家D983线-祝家村4#交界岭公变低压开关后段","poweroffReason":"(低压停电信息)富证工出（2018）72号地块（交界岭）0.4千伏改造新放电缆1路，拆旧线5档，拆旧电缆1路，搭接等工作","powerTime":"2019-08-29 13:30:18","powerComm":"已送电","subsNo":"","lineNo":"","tgNo":"","tgName":null,"infoStatus":"1","orgName":"国网浙江杭州市富阳区供电公司","typeName":null,"infoStatusName":null,"dateDay":null,"orgNos":null,"nowTime":null,"countyName":null,"streetName":null,"villageName":null,"roadName":null,"communityName":null,"tranName":null,"sdLineName":null,"cityCode":"3340170","cityName":"国网浙江杭州市富阳区供电公司","provinceCode":null,"stopTime":"2019-08-29 13:45:00","powerType":"全部","powerOffArea":"110kV九龙变:祝家D983线-祝家村4#交界岭公变低压开关后段","powerOffReason":"(低压停电信息)富证工出（2018）72号地块（交界岭）0.4千伏改造新放电缆1路，拆旧线5档，拆旧电缆1路，搭接等工作","powerOffId":"2019081631020330"},{"poweroffId":2019081631020323,"sgpoweroffId":null,"subsName":"","lineName":"10kV兰庄D604线","pubTranName":"稠溪村春一3#村委公变,","scope":"浙江省杭州市富阳区大源镇稠溪村一带","startTime":"2019-08-29 07:00:00","stopDate":"2019-08-29 12:40:00","orgNo":"3340170","typeCode":"计划停电","poweroffArea":"35kV溪东变:兰庄D604线-稠溪村春一3#村委公变低压开关后段","poweroffReason":"(低压停电信息)江南2019年山建村5#新区公变等台区低压线路改造工程拆架导线、拆装电缆、接户线搭接等工作","powerTime":"2019-08-29 12:25:33","powerComm":"已送电","subsNo":"","lineNo":"","tgNo":"","tgName":null,"infoStatus":"1","orgName":"国网浙江杭州市富阳区供电公司","typeName":null,"infoStatusName":null,"dateDay":null,"orgNos":null,"nowTime":null,"countyName":null,"streetName":null,"villageName":null,"roadName":null,"communityName":null,"tranName":null,"sdLineName":null,"cityCode":"3340170","cityName":"国网浙江杭州市富阳区供电公司","provinceCode":null,"stopTime":"2019-08-29 12:40:00","powerType":"全部","powerOffArea":"35kV溪东变:兰庄D604线-稠溪村春一3#村委公变低压开关后段","powerOffReason":"(低压停电信息)江南2019年山建村5#新区公变等台区低压线路改造工程拆架导线、拆装电缆、接户线搭接等工作","powerOffId":"2019081631020323"},{"poweroffId":2019081631020321,"sgpoweroffId":null,"subsName":"","lineName":"10kV文苑D366线","pubTranName":"斜风新村2#公变,","scope":"浙江省-杭州市-富阳区-富春街道-鹿山社区(文教路100弄,文教路)一带","startTime":"2019-08-29 08:00:00","stopDate":"2019-08-29 12:10:00","orgNo":"3340170","typeCode":"计划停电","poweroffArea":"110kV富鹿变:文苑D366线-斜风新村2#公变后段","poweroffReason":"(低压停电信息)国网浙江富阳供电公司2019年客户计量装置建设与改造:10kV文苑D366线，0.4kV鹿山村斜风2#公变，1#开关1#出线-1T对0.4KV文教路100-32号楼进行表箱改造等工作","powerTime":"2019-08-29 11:55:30","powerComm":"已送电","subsNo":"","lineNo":"","tgNo":"","tgName":null,"infoStatus":"1","orgName":"国网浙江杭州市富阳区供电公司","typeName":null,"infoStatusName":null,"dateDay":null,"orgNos":null,"nowTime":null,"countyName":null,"streetName":null,"villageName":null,"roadName":null,"communityName":null,"tranName":null,"sdLineName":null,"cityCode":"3340170","cityName":"国网浙江杭州市富阳区供电公司","provinceCode":null,"stopTime":"2019-08-29 12:10:00","powerType":"全部","powerOffArea":"110kV富鹿变:文苑D366线-斜风新村2#公变后段","powerOffReason":"(低压停电信息)国网浙江富阳供电公司2019年客户计量装置建设与改造:10kV文苑D366线，0.4kV鹿山村斜风2#公变，1#开关1#出线-1T对0.4KV文教路100-32号楼进行表箱改造等工作","powerOffId":"2019081631020321"}],"pageModel":{"pageNow":1239,"totalCount":17789,"totalPage":1779,"tableRows":0,"pageCount":10,"beginCount":12380},"isExperi":"1"}