{"message":"","today":"2020-06-16","seleList":[{"poweroffId":2019081631020182,"sgpoweroffId":null,"subsName":"","lineName":"10kV石门V353线","pubTranName":"杭州临安自来水有限公司,","scope":"浙江省-杭州市-临安市-高虹镇-高乐行政村-杭州临安自来水有限公司一带","startTime":"2019-08-28 07:10:00","stopDate":"2019-08-28 17:00:00","orgNo":"3340160","typeCode":"计划停电","poweroffArea":"110kV高虹变:停石门V353线35#杆杭州临安自来水有限公司配变令克以后","poweroffReason":"线路移位","powerTime":"2019-08-28 16:50:09","powerComm":"已送电","subsNo":"","lineNo":"","tgNo":"","tgName":null,"infoStatus":"1","orgName":"国网浙江临安市供电公司","typeName":null,"infoStatusName":null,"dateDay":null,"orgNos":null,"nowTime":null,"countyName":null,"streetName":null,"villageName":null,"roadName":null,"communityName":null,"tranName":null,"sdLineName":null,"cityCode":"3340160","cityName":"国网浙江临安市供电公司","provinceCode":null,"stopTime":"2019-08-28 17:00:00","powerType":"全部","powerOffArea":"110kV高虹变:停石门V353线35#杆杭州临安自来水有限公司配变令克以后","powerOffReason":"线路移位","powerOffId":"2019081631020182"},{"poweroffId":2019081631020179,"sgpoweroffId":null,"subsName":"","lineName":"10kV咸康D208线","pubTranName":"上俞村1号上俞公变,","scope":"浙江省-杭州市-富阳区-春建乡-咸康行政村(章家坞自然村,上俞自然村)","startTime":"2019-08-31 07:30:00","stopDate":"2019-08-31 17:45:00","orgNo":"3340170","typeCode":"计划停电","poweroffArea":"35kV大青变:咸康D208线-上俞村1号上俞后段","poweroffReason":"(低压停电信息)青云2019年铁坎村5#横坞公变等低压台区改造工程安装横担，架线3档，拆旧2档，更换进户线，出电缆1组，搭接等工作","powerTime":"2019-08-31 17:35:22","powerComm":"已送电","subsNo":"","lineNo":"","tgNo":"","tgName":null,"infoStatus":"1","orgName":"国网浙江杭州市富阳区供电公司","typeName":null,"infoStatusName":null,"dateDay":null,"orgNos":null,"nowTime":null,"countyName":null,"streetName":null,"villageName":null,"roadName":null,"communityName":null,"tranName":null,"sdLineName":null,"cityCode":"3340170","cityName":"国网浙江杭州市富阳区供电公司","provinceCode":null,"stopTime":"2019-08-31 17:45:00","powerType":"全部","powerOffArea":"35kV大青变:咸康D208线-上俞村1号上俞后段","powerOffReason":"(低压停电信息)青云2019年铁坎村5#横坞公变等低压台区改造工程安装横担，架线3档，拆旧2档，更换进户线，出电缆1组，搭接等工作","powerOffId":"2019081631020179"},{"poweroffId":2019081631020178,"sgpoweroffId":null,"subsName":"","lineName":"10kV桐洲D842线","pubTranName":"孙家村2号村口公变,","scope":"浙江省-杭州市-富阳区-新桐乡-江洲行政村-孙家自然村","startTime":"2019-08-31 06:40:00","stopDate":"2019-08-31 12:50:00","orgNo":"3340170","typeCode":"计划停电","poweroffArea":"110kV新桐变:桐洲D842线-孙家村2号村口公变后段","poweroffReason":"(低压停电信息)青云2019年蒋家村12#林场公变等低压台区改造工程照明3#线拆旧，架设BS-4*35*3档，更换落户线18处，搭接等工作","powerTime":"2019-08-31 12:40:11","powerComm":"已送电","subsNo":"","lineNo":"","tgNo":"","tgName":null,"infoStatus":"1","orgName":"国网浙江杭州市富阳区供电公司","typeName":null,"infoStatusName":null,"dateDay":null,"orgNos":null,"nowTime":null,"countyName":null,"streetName":null,"villageName":null,"roadName":null,"communityName":null,"tranName":null,"sdLineName":null,"cityCode":"3340170","cityName":"国网浙江杭州市富阳区供电公司","provinceCode":null,"stopTime":"2019-08-31 12:50:00","powerType":"全部","powerOffArea":"110kV新桐变:桐洲D842线-孙家村2号村口公变后段","powerOffReason":"(低压停电信息)青云2019年蒋家村12#林场公变等低压台区改造工程照明3#线拆旧，架设BS-4*35*3档，更换落户线18处，搭接等工作","powerOffId":"2019081631020178"},{"poweroffId":2019081631020177,"sgpoweroffId":null,"subsName":"","lineName":"10kV湘主D286线","pubTranName":"马弓村2#李家公变,","scope":"浙江省杭州市富阳区新登镇马弓行政村李家自然村一带","startTime":"2019-08-31 06:30:00","stopDate":"2019-08-31 11:00:00","orgNo":"3340170","typeCode":"计划停电","poweroffArea":"110kV清泉变:湘主D286线-马弓村2#李家公变低压开关后段","poweroffReason":"(低压停电信息) 架设JKLYJ-70*4*4档、拆除JKLYJ-35*4*4档、接户线搭接","powerTime":"2019-08-31 10:48:44","powerComm":"已送电","subsNo":"","lineNo":"","tgNo":"","tgName":null,"infoStatus":"1","orgName":"国网浙江杭州市富阳区供电公司","typeName":null,"infoStatusName":null,"dateDay":null,"orgNos":null,"nowTime":null,"countyName":null,"streetName":null,"villageName":null,"roadName":null,"communityName":null,"tranName":null,"sdLineName":null,"cityCode":"3340170","cityName":"国网浙江杭州市富阳区供电公司","provinceCode":null,"stopTime":"2019-08-31 11:00:00","powerType":"全部","powerOffArea":"110kV清泉变:湘主D286线-马弓村2#李家公变低压开关后段","powerOffReason":"(低压停电信息) 架设JKLYJ-70*4*4档、拆除JKLYJ-35*4*4档、接户线搭接","powerOffId":"2019081631020177"},{"poweroffId":2019081631020176,"sgpoweroffId":null,"subsName":"","lineName":"10kV咸康D208线","pubTranName":"上俞村5号公园公变,","scope":"浙江省-杭州市-富阳区-春建乡-咸康行政村-上俞自然村","startTime":"2019-08-30 07:30:00","stopDate":"2019-08-30 17:45:00","orgNo":"3340170","typeCode":"计划停电","poweroffArea":"35kV大青变:咸康D208线-上俞村5号公园后段","poweroffReason":"(低压停电信息)青云2019年铁坎村5#横坞公变等低压台区改造工程安装横担，拉线3组，架线16档，拆旧16档，更换进户线，出电缆1组，搭接等工作","powerTime":"2019-08-30 17:30:31","powerComm":"已送电","subsNo":"","lineNo":"","tgNo":"","tgName":null,"infoStatus":"1","orgName":"国网浙江杭州市富阳区供电公司","typeName":null,"infoStatusName":null,"dateDay":null,"orgNos":null,"nowTime":null,"countyName":null,"streetName":null,"villageName":null,"roadName":null,"communityName":null,"tranName":null,"sdLineName":null,"cityCode":"3340170","cityName":"国网浙江杭州市富阳区供电公司","provinceCode":null,"stopTime":"2019-08-30 17:45:00","powerType":"全部","powerOffArea":"35kV大青变:咸康D208线-上俞村5号公园后段","powerOffReason":"(低压停电信息)青云2019年铁坎村5#横坞公变等低压台区改造工程安装横担，拉线3组，架线16档，拆旧16档，更换进户线，出电缆1组，搭接等工作","powerOffId":"2019081631020176"},{"poweroffId":2019081631020174,"sgpoweroffId":null,"subsName":"","lineName":"10kV咸康D208线","pubTranName":"上俞村1号上俞公变,","scope":"浙江省-杭州市-富阳区-春建乡-咸康行政村(章家坞自然村,上俞自然村)","startTime":"2019-08-30 07:30:00","stopDate":"2019-08-30 17:45:00","orgNo":"3340170","typeCode":"计划停电","poweroffArea":"35kV大青变:咸康D208线-上俞村1号上俞后段","poweroffReason":"(低压停电信息)青云2019年铁坎村5#横坞公变等低压台区改造工程上俞村1号上俞公变农用线表后端（配合停电）","powerTime":"2019-08-30 17:30:18","powerComm":"已送电","subsNo":"","lineNo":"","tgNo":"","tgName":null,"infoStatus":"1","orgName":"国网浙江杭州市富阳区供电公司","typeName":null,"infoStatusName":null,"dateDay":null,"orgNos":null,"nowTime":null,"countyName":null,"streetName":null,"villageName":null,"roadName":null,"communityName":null,"tranName":null,"sdLineName":null,"cityCode":"3340170","cityName":"国网浙江杭州市富阳区供电公司","provinceCode":null,"stopTime":"2019-08-30 17:45:00","powerType":"全部","powerOffArea":"35kV大青变:咸康D208线-上俞村1号上俞后段","powerOffReason":"(低压停电信息)青云2019年铁坎村5#横坞公变等低压台区改造工程上俞村1号上俞公变农用线表后端（配合停电）","powerOffId":"2019081631020174"},{"poweroffId":2019081631020170,"sgpoweroffId":null,"subsName":"","lineName":"10kV桐浦D844线","pubTranName":"山亚村上畈2#新村公变,","scope":"浙江省杭州市富阳区渌渚镇山亚行政村上畈新村自然村一带","startTime":"2019-08-30 06:00:00","stopDate":"2019-08-30 13:30:00","orgNo":"3340170","typeCode":"计划停电","poweroffArea":"110kV新桐变:桐浦D844线-山亚村上畈2#新村公变压低开关后段","poweroffReason":"(低压停电信息)敷设电缆YJV-22*4*150*105一路（旁站监理）","powerTime":"2019-08-30 13:21:17","powerComm":"已送电","subsNo":"","lineNo":"","tgNo":"","tgName":null,"infoStatus":"1","orgName":"国网浙江杭州市富阳区供电公司","typeName":null,"infoStatusName":null,"dateDay":null,"orgNos":null,"nowTime":null,"countyName":null,"streetName":null,"villageName":null,"roadName":null,"communityName":null,"tranName":null,"sdLineName":null,"cityCode":"3340170","cityName":"国网浙江杭州市富阳区供电公司","provinceCode":null,"stopTime":"2019-08-30 13:30:00","powerType":"全部","powerOffArea":"110kV新桐变:桐浦D844线-山亚村上畈2#新村公变压低开关后段","powerOffReason":"(低压停电信息)敷设电缆YJV-22*4*150*105一路（旁站监理）","powerOffId":"2019081631020170"},{"poweroffId":2019081631020168,"sgpoweroffId":null,"subsName":"","lineName":"10kV桐洲D842线","pubTranName":"孙家村2号村口公变,","scope":"浙江省-杭州市-富阳区-新桐乡-江洲行政村-孙家自然村","startTime":"2019-08-30 06:40:00","stopDate":"2019-08-30 12:50:00","orgNo":"3340170","typeCode":"计划停电","poweroffArea":"110kV新桐变:桐洲D842线-孙家村2号村口公变后段","poweroffReason":"(低压停电信息)青云2019年蒋家村12#林场公变等低压台区改造工程照明1#线拆旧，架设1kV120*4*2档，架设BS-4*35*5档更换落户线18处，搭接等工作","powerTime":"2019-08-30 12:41:41","powerComm":"已送电","subsNo":"","lineNo":"","tgNo":"","tgName":null,"infoStatus":"1","orgName":"国网浙江杭州市富阳区供电公司","typeName":null,"infoStatusName":null,"dateDay":null,"orgNos":null,"nowTime":null,"countyName":null,"streetName":null,"villageName":null,"roadName":null,"communityName":null,"tranName":null,"sdLineName":null,"cityCode":"3340170","cityName":"国网浙江杭州市富阳区供电公司","provinceCode":null,"stopTime":"2019-08-30 12:50:00","powerType":"全部","powerOffArea":"110kV新桐变:桐洲D842线-孙家村2号村口公变后段","powerOffReason":"(低压停电信息)青云2019年蒋家村12#林场公变等低压台区改造工程照明1#线拆旧，架设1kV120*4*2档，架设BS-4*35*5档更换落户线18处，搭接等工作","powerOffId":"2019081631020168"},{"poweroffId":2019081631020167,"sgpoweroffId":null,"subsName":"","lineName":"10kV南津D138线","pubTranName":"南津村6#安乐公变,","scope":"浙江省杭州市富阳区新登镇南津行政村安乐村一带","startTime":"2019-08-29 06:00:00","stopDate":"2019-08-29 13:30:00","orgNo":"3340170","typeCode":"计划停电","poweroffArea":"110kV新登变:南津D138线-南津村6#安乐公变低压开关后段","poweroffReason":"(低压停电信息)严家01线2#杆后段吊车立杆2支、吊车拔杆3支、导线移位JKLYJ-120*4*5档、拆除JKLYJ-120*4*1档、架设JKLYJ-70*4*1档、安装拉线2组、高桩拉1组、架设BS-JKLYJ-4*35*3档。","powerTime":"2019-08-29 13:15:43","powerComm":"已送电","subsNo":"","lineNo":"","tgNo":"","tgName":null,"infoStatus":"1","orgName":"国网浙江杭州市富阳区供电公司","typeName":null,"infoStatusName":null,"dateDay":null,"orgNos":null,"nowTime":null,"countyName":null,"streetName":null,"villageName":null,"roadName":null,"communityName":null,"tranName":null,"sdLineName":null,"cityCode":"3340170","cityName":"国网浙江杭州市富阳区供电公司","provinceCode":null,"stopTime":"2019-08-29 13:30:00","powerType":"全部","powerOffArea":"110kV新登变:南津D138线-南津村6#安乐公变低压开关后段","powerOffReason":"(低压停电信息)严家01线2#杆后段吊车立杆2支、吊车拔杆3支、导线移位JKLYJ-120*4*5档、拆除JKLYJ-120*4*1档、架设JKLYJ-70*4*1档、安装拉线2组、高桩拉1组、架设BS-JKLYJ-4*35*3档。","powerOffId":"2019081631020167"},{"poweroffId":2019081631020164,"sgpoweroffId":null,"subsName":"","lineName":"10kV桐洲D842线","pubTranName":"董赵村3号江边公变,","scope":"浙江省-杭州市-富阳区-新桐乡-江洲行政村(汤赵自然村,董赵自然村)","startTime":"2019-08-29 06:40:00","stopDate":"2019-08-29 12:50:00","orgNo":"3340170","typeCode":"计划停电","poweroffArea":"110kV新桐变:桐洲D842线-董赵村3号江边公变后段","poweroffReason":"(低压停电信息)青云2019年蒋家村12#林场公变等低压台区改造工程拆旧，架设1kV120*4*2档，架设BS-4*35*5档，更换落户线20处，搭接等工作","powerTime":"2019-08-29 12:35:14","powerComm":"已送电","subsNo":"","lineNo":"","tgNo":"","tgName":null,"infoStatus":"1","orgName":"国网浙江杭州市富阳区供电公司","typeName":null,"infoStatusName":null,"dateDay":null,"orgNos":null,"nowTime":null,"countyName":null,"streetName":null,"villageName":null,"roadName":null,"communityName":null,"tranName":null,"sdLineName":null,"cityCode":"3340170","cityName":"国网浙江杭州市富阳区供电公司","provinceCode":null,"stopTime":"2019-08-29 12:50:00","powerType":"全部","powerOffArea":"110kV新桐变:桐洲D842线-董赵村3号江边公变后段","powerOffReason":"(低压停电信息)青云2019年蒋家村12#林场公变等低压台区改造工程拆旧，架设1kV120*4*2档，架设BS-4*35*5档，更换落户线20处，搭接等工作","powerOffId":"2019081631020164"}],"pageModel":{"pageNow":1244,"totalCount":17789,"totalPage":1779,"tableRows":0,"pageCount":10,"beginCount":12430},"isExperi":"1"}