{"message":"","today":"2020-06-16","seleList":[{"poweroffId":2019081631020144,"sgpoweroffId":null,"subsName":"","lineName":"10kV桐洲D842线","pubTranName":"后山边2号农居点公变,","scope":"浙江省-杭州市-富阳区-新桐乡-春渚行政村-后山边自然村","startTime":"2019-08-26 06:40:00","stopDate":"2019-08-26 12:50:00","orgNo":"3340170","typeCode":"计划停电","poweroffArea":"110kV新桐变:桐洲D842线-后山边2号农居点公变后段","poweroffReason":"(低压停电信息)青云2019年蒋家村12#林场公变等低压台区改造工程照明2#线拆旧，架设1kV70*4*3档，拆架1kV120*4*2档，拆架1kV-70*4*2档，更换落户线20处，搭接等工作","powerTime":"2019-08-26 12:34:30","powerComm":"已送电","subsNo":"","lineNo":"","tgNo":"","tgName":null,"infoStatus":"1","orgName":"国网浙江杭州市富阳区供电公司","typeName":null,"infoStatusName":null,"dateDay":null,"orgNos":null,"nowTime":null,"countyName":null,"streetName":null,"villageName":null,"roadName":null,"communityName":null,"tranName":null,"sdLineName":null,"cityCode":"3340170","cityName":"国网浙江杭州市富阳区供电公司","provinceCode":null,"stopTime":"2019-08-26 12:50:00","powerType":"全部","powerOffArea":"110kV新桐变:桐洲D842线-后山边2号农居点公变后段","powerOffReason":"(低压停电信息)青云2019年蒋家村12#林场公变等低压台区改造工程照明2#线拆旧，架设1kV70*4*3档，拆架1kV120*4*2档，拆架1kV-70*4*2档，更换落户线20处，搭接等工作","powerOffId":"2019081631020144"},{"poweroffId":2019081631020118,"sgpoweroffId":null,"subsName":"","lineName":"10kV苎东C260线","pubTranName":"杭州中嘉再生资源利用有限公司,","scope":"浙江省-杭州市-萧山区-临浦镇-通二行政村-杭州邦磊汽车零部件有限公司","startTime":"2019-08-27 08:30:00","stopDate":"2019-08-27 20:00:00","orgNo":"3340130","typeCode":"计划停电","poweroffArea":"110kV所前变:苎东C260线-中嘉再生资源跌落式熔断器后段","poweroffReason":"邦磊汽配令克落火线改接至临通C649线 原停电结束时间：2019-08-27 17:30，变更停电结束时间：2019-08-27 20:00，由于施工难度大，故需要延迟送电。","powerTime":"2019-08-27 19:24:57","powerComm":"已送电","subsNo":"","lineNo":"","tgNo":"","tgName":null,"infoStatus":"1","orgName":"国网浙江杭州市萧山区供电有限公司","typeName":null,"infoStatusName":null,"dateDay":null,"orgNos":null,"nowTime":null,"countyName":null,"streetName":null,"villageName":null,"roadName":null,"communityName":null,"tranName":null,"sdLineName":null,"cityCode":"3340130","cityName":"国网浙江杭州市萧山区供电有限公司","provinceCode":null,"stopTime":"2019-08-27 20:00:00","powerType":"全部","powerOffArea":"110kV所前变:苎东C260线-中嘉再生资源跌落式熔断器后段","powerOffReason":"邦磊汽配令克落火线改接至临通C649线 原停电结束时间：2019-08-27 17:30，变更停电结束时间：2019-08-27 20:00，由于施工难度大，故需要延迟送电。","powerOffId":"2019081631020118"},{"poweroffId":2019081631020117,"sgpoweroffId":null,"subsName":"","lineName":"10kV苎东C260线","pubTranName":"杭州萧山利达纺织服饰有限公司,","scope":"浙江省-杭州市-萧山区-临浦镇-塘郎孙行政村-杭州萧山利达纺织服饰有限公司","startTime":"2019-08-27 08:30:00","stopDate":"2019-08-27 20:00:00","orgNo":"3340130","typeCode":"计划停电","poweroffArea":"110kV所前变:苎东C260线-利达纺织跌落式熔断器后段","poweroffReason":"杭州萧山利达纺织服饰有限公司令克落火线改接至临通C649线 原停电结束时间：2019-08-27 17:30，变更停电结束时间：2019-08-27 20:00，由于施工难度大，故需要延迟送电。","powerTime":"2019-08-27 19:24:28","powerComm":"已送电","subsNo":"","lineNo":"","tgNo":"","tgName":null,"infoStatus":"1","orgName":"国网浙江杭州市萧山区供电有限公司","typeName":null,"infoStatusName":null,"dateDay":null,"orgNos":null,"nowTime":null,"countyName":null,"streetName":null,"villageName":null,"roadName":null,"communityName":null,"tranName":null,"sdLineName":null,"cityCode":"3340130","cityName":"国网浙江杭州市萧山区供电有限公司","provinceCode":null,"stopTime":"2019-08-27 20:00:00","powerType":"全部","powerOffArea":"110kV所前变:苎东C260线-利达纺织跌落式熔断器后段","powerOffReason":"杭州萧山利达纺织服饰有限公司令克落火线改接至临通C649线 原停电结束时间：2019-08-27 17:30，变更停电结束时间：2019-08-27 20:00，由于施工难度大，故需要延迟送电。","powerOffId":"2019081631020117"},{"poweroffId":2019081631020084,"sgpoweroffId":null,"subsName":"","lineName":"10kV诸虞H302线","pubTranName":"吴山前村寡山斗,","scope":"浙江省-杭州市-余杭区-仓前街道-吴山前行政村(汪家头自然村,寡山前自然村,河东塘自然村,吴山前自然村)一带","startTime":"2019-08-16 09:04:00","stopDate":"2019-08-16 11:04:00","orgNo":"3340140","typeCode":"电网故障停限电","poweroffArea":"110kV柏庙变:诸虞H302线-吴山前村寡山斗后段","poweroffReason":"(低压停电信息)低压开关跳闸","powerTime":"2019-08-16 11:00:00","powerComm":"已送电","subsNo":"","lineNo":"","tgNo":"","tgName":null,"infoStatus":"1","orgName":"国网浙江杭州市余杭区供电有限公司","typeName":null,"infoStatusName":null,"dateDay":null,"orgNos":null,"nowTime":null,"countyName":null,"streetName":null,"villageName":null,"roadName":null,"communityName":null,"tranName":null,"sdLineName":null,"cityCode":"3340140","cityName":"国网浙江杭州市余杭区供电有限公司","provinceCode":null,"stopTime":"2019-08-16 11:04:00","powerType":"全部","powerOffArea":"110kV柏庙变:诸虞H302线-吴山前村寡山斗后段","powerOffReason":"(低压停电信息)低压开关跳闸","powerOffId":"2019081631020084"},{"poweroffId":2019081631020070,"sgpoweroffId":null,"subsName":"","lineName":"10kV鸿华C919线","pubTranName":"盛乐村17#变,","scope":"浙江省-杭州市-萧山区-新街镇、新街街道-盛乐行政村-盛乐自然村等一带","startTime":"2019-08-16 08:51:37","stopDate":"2019-08-16 09:51:37","orgNo":"3340130","typeCode":"电网故障停限电","poweroffArea":"110kV鸿达变:鸿华C919线-盛乐17#变台区低压开关","poweroffReason":"（低压停电信息）低压漏电保护器短路故障","powerTime":"2019-08-16 09:29:39","powerComm":"已送电","subsNo":"","lineNo":"","tgNo":"","tgName":null,"infoStatus":"1","orgName":"国网浙江杭州市萧山区供电有限公司","typeName":null,"infoStatusName":null,"dateDay":null,"orgNos":null,"nowTime":null,"countyName":null,"streetName":null,"villageName":null,"roadName":null,"communityName":null,"tranName":null,"sdLineName":null,"cityCode":"3340130","cityName":"国网浙江杭州市萧山区供电有限公司","provinceCode":null,"stopTime":"2019-08-16 09:51:37","powerType":"全部","powerOffArea":"110kV鸿达变:鸿华C919线-盛乐17#变台区低压开关","powerOffReason":"（低压停电信息）低压漏电保护器短路故障","powerOffId":"2019081631020070"},{"poweroffId":2019081631020062,"sgpoweroffId":null,"subsName":"","lineName":"10kV云湾H367线","pubTranName":"杜甫村九年庄公变,","scope":"浙江省-杭州市-余杭区-良渚街道-杜甫村九年庄一带 原停电结束时间16点30分，由于现场施工力量强大，现要求提前至11点30分","startTime":"2019-08-27 08:30:00","stopDate":"2019-08-27 11:30:00","orgNo":"3340140","typeCode":"计划停电","poweroffArea":"110kV学里变:云湾H367线-杜甫村九年庄公变 原停电结束时间16点30分，由于现场施工力量强大，现要求提前至11点30分","poweroffReason":"(低压停电信息)云湾H367线杜甫村九年庄公变低压线路改造","powerTime":"2019-08-27 10:42:21","powerComm":"现场已完工","subsNo":"","lineNo":"","tgNo":"","tgName":null,"infoStatus":"1","orgName":"国网浙江杭州市余杭区供电有限公司","typeName":null,"infoStatusName":null,"dateDay":null,"orgNos":null,"nowTime":null,"countyName":null,"streetName":null,"villageName":null,"roadName":null,"communityName":null,"tranName":null,"sdLineName":null,"cityCode":"3340140","cityName":"国网浙江杭州市余杭区供电有限公司","provinceCode":null,"stopTime":"2019-08-27 11:30:00","powerType":"全部","powerOffArea":"110kV学里变:云湾H367线-杜甫村九年庄公变 原停电结束时间16点30分，由于现场施工力量强大，现要求提前至11点30分","powerOffReason":"(低压停电信息)云湾H367线杜甫村九年庄公变低压线路改造","powerOffId":"2019081631020062"},{"poweroffId":2019081631020019,"sgpoweroffId":null,"subsName":"","lineName":"10kV养生堂Y106线","pubTranName":"芹坑坞106011公变,","scope":"浙江省-杭州市-建德市-新安江街道-罗桐社区 新电路,芹坑坞一带用户","startTime":"2019-08-16 06:01:00","stopDate":"2019-08-16 08:30:00","orgNo":"3340180","typeCode":"电网故障停限电","poweroffArea":"110kV新安江变:养生堂Y106线-芹坑坞106011公变后段","poweroffReason":"(低压停电信息)低压开关跳闸","powerTime":"2019-08-16 07:54:40","powerComm":"已送电","subsNo":"","lineNo":"","tgNo":"","tgName":null,"infoStatus":"1","orgName":"国网浙江建德市供电有限公司","typeName":null,"infoStatusName":null,"dateDay":null,"orgNos":null,"nowTime":null,"countyName":null,"streetName":null,"villageName":null,"roadName":null,"communityName":null,"tranName":null,"sdLineName":null,"cityCode":"3340180","cityName":"国网浙江建德市供电有限公司","provinceCode":null,"stopTime":"2019-08-16 08:30:00","powerType":"全部","powerOffArea":"110kV新安江变:养生堂Y106线-芹坑坞106011公变后段","powerOffReason":"(低压停电信息)低压开关跳闸","powerOffId":"2019081631020019"},{"poweroffId":2019081631020015,"sgpoweroffId":null,"subsName":"","lineName":"10kV开创D618线","pubTranName":"浙江欧力达液压机械有限公司1#变,浙江建瑞幕墙装饰有限公司,杭州顺豪金属制品有限公司,1#变,杭州安耐特实业有限公司2#变,杭州谊和科技有限公司,1#变,浙江珍琦护理用品有限公司2#变,浙江欧力达液压机械有限公司2#变,杭州富凡实业有限公司,3#,","scope":"浙江省-杭州市-富阳区-场口镇-场口工业园区(浙江珍琦护理用品有限公司,杭州谊和科技有限公司,杭州富凡实业有限公司,杭州顺豪金属制品有限公司,浙江建瑞幕墙装饰有限公司,浙江欧力达液压机械有限公司,杭州安耐特实业有限公司)","startTime":"2019-08-16 05:39:21","stopDate":"2019-08-16 07:39:21","orgNo":"3340170","typeCode":"电网故障停限电","poweroffArea":"110kV鸿丰变:开创D618线-开创D6184开关后段","poweroffReason":"高压开关跳闸","powerTime":"2019-08-16 06:41:00","powerComm":"已送电","subsNo":"","lineNo":"","tgNo":"","tgName":null,"infoStatus":"1","orgName":"国网浙江杭州市富阳区供电公司","typeName":null,"infoStatusName":null,"dateDay":null,"orgNos":null,"nowTime":null,"countyName":null,"streetName":null,"villageName":null,"roadName":null,"communityName":null,"tranName":null,"sdLineName":null,"cityCode":"3340170","cityName":"国网浙江杭州市富阳区供电公司","provinceCode":null,"stopTime":"2019-08-16 07:39:21","powerType":"全部","powerOffArea":"110kV鸿丰变:开创D618线-开创D6184开关后段","powerOffReason":"高压开关跳闸","powerOffId":"2019081631020015"},{"poweroffId":2019081631020003,"sgpoweroffId":null,"subsName":"","lineName":"10kV新镇C620线","pubTranName":"江南村(新街)4#变,","scope":"浙江省-杭州市-萧山区-新街镇、新街街道-江南行政村-江南自然村等一带","startTime":"2019-08-16 00:34:20","stopDate":"2019-08-16 02:35:20","orgNo":"3340130","typeCode":"电网故障停限电","poweroffArea":"110kV新街变:新镇C620线-江南村(新街)4#变台区低压开关","poweroffReason":"（低压停电信息）低压漏电保护器短路故障 原停电结束时间：2019-08-16 03:25:20，变更停电结束时间：2019-08-16 02:35:20，由于增派人员，抢修提前完成，故需要提前送电。","powerTime":"2019-08-16 01:42:27","powerComm":"已送电","subsNo":"","lineNo":"","tgNo":"","tgName":null,"infoStatus":"1","orgName":"国网浙江杭州市萧山区供电有限公司","typeName":null,"infoStatusName":null,"dateDay":null,"orgNos":null,"nowTime":null,"countyName":null,"streetName":null,"villageName":null,"roadName":null,"communityName":null,"tranName":null,"sdLineName":null,"cityCode":"3340130","cityName":"国网浙江杭州市萧山区供电有限公司","provinceCode":null,"stopTime":"2019-08-16 02:35:20","powerType":"全部","powerOffArea":"110kV新街变:新镇C620线-江南村(新街)4#变台区低压开关","powerOffReason":"（低压停电信息）低压漏电保护器短路故障 原停电结束时间：2019-08-16 03:25:20，变更停电结束时间：2019-08-16 02:35:20，由于增派人员，抢修提前完成，故需要提前送电。","powerOffId":"2019081631020003"},{"poweroffId":2019081631010025,"sgpoweroffId":null,"subsName":"","lineName":"10kV金浪A52线","pubTranName":"仓北村1#变,","scope":"浙江省-杭州市-萧山区-义蓬街道仓北行政村-仓北自然村、仓北村一带","startTime":"2019-08-16 16:00:21","stopDate":"2019-08-16 18:00:22","orgNo":"3340120","typeCode":"电网故障停限电","poweroffArea":"110kV白浪变:金浪A52线-仓北村1#变台区低压开关","poweroffReason":"低压漏电保护器短路故障","powerTime":"2019-08-16 17:05:35","powerComm":"已送电","subsNo":"","lineNo":"","tgNo":"","tgName":null,"infoStatus":"1","orgName":"国网浙江杭州市钱塘新区供电公司","typeName":null,"infoStatusName":null,"dateDay":null,"orgNos":null,"nowTime":null,"countyName":null,"streetName":null,"villageName":null,"roadName":null,"communityName":null,"tranName":null,"sdLineName":null,"cityCode":"3340120","cityName":"国网浙江杭州市钱塘新区供电公司","provinceCode":null,"stopTime":"2019-08-16 18:00:22","powerType":"全部","powerOffArea":"110kV白浪变:金浪A52线-仓北村1#变台区低压开关","powerOffReason":"低压漏电保护器短路故障","powerOffId":"2019081631010025"}],"pageModel":{"pageNow":1246,"totalCount":17789,"totalPage":1779,"tableRows":0,"pageCount":10,"beginCount":12450},"isExperi":"1"}