{"message":"","today":"2020-06-16","seleList":[{"poweroffId":2019081531020237,"sgpoweroffId":null,"subsName":"","lineName":"10kV创意H772线","pubTranName":"1#变压器,浙江康誉置业有限公司,1#变压器,1#变压器,1#变压器,金东水产,文一村运河新桥,1#变压器,1#变压器,1#变压器,西曙示范区2#专变,浙江康誉置业有限公司,杭州未来科技城建设有限公司,1#变压器,西曙示范区,","scope":"浙江省-杭州市-余杭区-五常街道(文一行政村-文一自然村,文一社区-文一西路);五常街道-文一社区(杭州金东特种水产养殖有限公司,杭州未来科技城建设有限公司,浙江康誉置业有限公司,中铁二局工程有限公司,中铁一局集团建筑安装工程有限公司,宏润建设集团股份有限公司,浙江振丰建设有限公司)","startTime":"2019-08-15 15:28:00","stopDate":"2019-08-15 18:30:00","orgNo":"3340140","typeCode":"电网故障停限电","poweroffArea":"110kV五常变:创意H772线-8#备用间隔后段","poweroffReason":"高压开关跳闸","powerTime":"2019-08-15 17:55:00","powerComm":"已修复","subsNo":"","lineNo":"","tgNo":"","tgName":null,"infoStatus":"1","orgName":"国网浙江杭州市余杭区供电有限公司","typeName":null,"infoStatusName":null,"dateDay":null,"orgNos":null,"nowTime":null,"countyName":null,"streetName":null,"villageName":null,"roadName":null,"communityName":null,"tranName":null,"sdLineName":null,"cityCode":"3340140","cityName":"国网浙江杭州市余杭区供电有限公司","provinceCode":null,"stopTime":"2019-08-15 18:30:00","powerType":"全部","powerOffArea":"110kV五常变:创意H772线-8#备用间隔后段","powerOffReason":"高压开关跳闸","powerOffId":"2019081531020237"},{"poweroffId":2019081531020208,"sgpoweroffId":null,"subsName":"","lineName":"10kV劳动D365线","pubTranName":"杭州杭富轨道交通有限公司 3#,富阳市第一建筑工程有限责任公司,星光园3#公变,1#变,杭州雅宝食品有限公司,富阳市食品安全检验检测中心,富宸锦苑1#公变,钢圈厂路1#公变,杭州杭富轨道交通有限公司 4#,劳动路6#公变,诚庐4号公变变压器,富宸锦苑2#公变,诚庐8号公变变压器,诚庐6号公变配变,星光园2#公变,杭州杭富轨道交通有限公司 2#,1#变,汇丰大厦1号变,杭州星帅尔电器股份有限公司,汇丰大厦2#变,星光园1#公变,诚庐2号公变变压器,浙江金固股份有限公司,杭州富阳市佳博净化工程有限公司,2#变,","scope":"浙江省-杭州市-富阳区-富春街道-太平桥社区(金桥南路,桂花西路,体育场路,钢圈厂路),富春街道-金桥社区(横凉亭路,金桥南路),富春街道-秦望社区(金桥南路,秦望路);富春街道(杭州富阳佳博净化工程有限公司,杭州雅宝食品有限公司,中铁一局集团第五工程有限公司,杭州日报报业集团有限公司,杭州市生态环境局富阳分局,富阳市第一建筑工程有限责任公司,杭州星帅尔电器股份有限公司)","startTime":"2019-08-15 14:35:00","stopDate":"2019-08-15 16:35:00","orgNo":"3340170","typeCode":"电网故障停限电","poweroffArea":"110kV富鹿变:劳动D365线劳动路一号开关站劳环D3652线后段","poweroffReason":"高压开关跳闸","powerTime":"2019-08-15 15:57:14","powerComm":"已送电","subsNo":"","lineNo":"","tgNo":"","tgName":null,"infoStatus":"1","orgName":"国网浙江杭州市富阳区供电公司","typeName":null,"infoStatusName":null,"dateDay":null,"orgNos":null,"nowTime":null,"countyName":null,"streetName":null,"villageName":null,"roadName":null,"communityName":null,"tranName":null,"sdLineName":null,"cityCode":"3340170","cityName":"国网浙江杭州市富阳区供电公司","provinceCode":null,"stopTime":"2019-08-15 16:35:00","powerType":"全部","powerOffArea":"110kV富鹿变:劳动D365线劳动路一号开关站劳环D3652线后段","powerOffReason":"高压开关跳闸","powerOffId":"2019081531020208"},{"poweroffId":2019081531020200,"sgpoweroffId":null,"subsName":"","lineName":"10kV渔山D913线","pubTranName":"五一村6#陈家桥公变,","scope":"浙江省-杭州市-富阳区-渔山乡-渔山行政村(黎明自然村,五一自然村)","startTime":"2019-08-15 14:29:21","stopDate":"2019-08-15 15:29:21","orgNo":"3340170","typeCode":"电网故障停限电","poweroffArea":"110kV里渔变:渔山D913线-五一村6#陈家桥公变后段","poweroffReason":"(低压停电信息)低压开关跳闸","powerTime":"2019-08-15 14:47:21","powerComm":"已送电","subsNo":"","lineNo":"","tgNo":"","tgName":null,"infoStatus":"1","orgName":"国网浙江杭州市富阳区供电公司","typeName":null,"infoStatusName":null,"dateDay":null,"orgNos":null,"nowTime":null,"countyName":null,"streetName":null,"villageName":null,"roadName":null,"communityName":null,"tranName":null,"sdLineName":null,"cityCode":"3340170","cityName":"国网浙江杭州市富阳区供电公司","provinceCode":null,"stopTime":"2019-08-15 15:29:21","powerType":"全部","powerOffArea":"110kV里渔变:渔山D913线-五一村6#陈家桥公变后段","powerOffReason":"(低压停电信息)低压开关跳闸","powerOffId":"2019081531020200"},{"poweroffId":2019081531020196,"sgpoweroffId":null,"subsName":"","lineName":"10kV精工H529线","pubTranName":"华兴社区桃园1号公变,","scope":"浙江省-杭州市-余杭区-瓶窑镇-华兴社区(小区路,新窑路)","startTime":"2019-08-23 08:00:00","stopDate":"2019-08-23 16:30:00","orgNo":"3340140","typeCode":"计划停电","poweroffArea":"110kV凤山变:精工H529线-华兴社区桃园小区一带","poweroffReason":"(低压停电信息)","powerTime":"2019-08-23 16:01:57","powerComm":"已送电","subsNo":"","lineNo":"","tgNo":"","tgName":null,"infoStatus":"1","orgName":"国网浙江杭州市余杭区供电有限公司","typeName":null,"infoStatusName":null,"dateDay":null,"orgNos":null,"nowTime":null,"countyName":null,"streetName":null,"villageName":null,"roadName":null,"communityName":null,"tranName":null,"sdLineName":null,"cityCode":"3340140","cityName":"国网浙江杭州市余杭区供电有限公司","provinceCode":null,"stopTime":"2019-08-23 16:30:00","powerType":"全部","powerOffArea":"110kV凤山变:精工H529线-华兴社区桃园小区一带","powerOffReason":"(低压停电信息)","powerOffId":"2019081531020196"},{"poweroffId":2019081531020192,"sgpoweroffId":null,"subsName":"","lineName":"10kV新桥C106线","pubTranName":"高桥15#公变,","scope":"浙江省-杭州市-萧山区-城厢街道-高桥社区(高桥路,拱秀路),城厢街道(潘水社区-潘水路,拱秀社区-高桥路)，高桥98幢、高桥98-1、高桥98-2、高桥98-3、高桥98-5一带","startTime":"2019-08-15 14:10:56","stopDate":"2019-08-15 17:00:00","orgNo":"3340130","typeCode":"电网故障停限电","poweroffArea":"110kV丽都变:新桥C106线-高桥15#公变台区低压开关","poweroffReason":"(低压停电信息)低压漏电保护器短路故障","powerTime":"2019-08-15 16:05:17","powerComm":"已送电","subsNo":"","lineNo":"","tgNo":"","tgName":null,"infoStatus":"1","orgName":"国网浙江杭州市萧山区供电有限公司","typeName":null,"infoStatusName":null,"dateDay":null,"orgNos":null,"nowTime":null,"countyName":null,"streetName":null,"villageName":null,"roadName":null,"communityName":null,"tranName":null,"sdLineName":null,"cityCode":"3340130","cityName":"国网浙江杭州市萧山区供电有限公司","provinceCode":null,"stopTime":"2019-08-15 17:00:00","powerType":"全部","powerOffArea":"110kV丽都变:新桥C106线-高桥15#公变台区低压开关","powerOffReason":"(低压停电信息)低压漏电保护器短路故障","powerOffId":"2019081531020192"},{"poweroffId":2019081531020186,"sgpoweroffId":null,"subsName":"","lineName":"10kV下涯Y301线","pubTranName":"杨村桥村杨村桥台区,","scope":"浙江省-杭州市-建德市-杨村桥镇-杨村桥行政村-杨村桥前街自然村一带用户","startTime":"2019-08-15 13:55:00","stopDate":"2019-08-15 15:00:00","orgNo":"3340180","typeCode":"电网故障停限电","poweroffArea":"110kV梅城变:下涯Y301线-杨村桥村杨村桥台区后段","poweroffReason":"(低压停电信息)低压开关跳闸 原预计停电结束时间16:04，预估时间过长，目前故障已修复，现将停电时间变更至15:00","powerTime":"2019-08-15 14:32:46","powerComm":"已送电（下派为多户无电，实际为表后空开跳闸）","subsNo":"","lineNo":"","tgNo":"","tgName":null,"infoStatus":"1","orgName":"国网浙江建德市供电有限公司","typeName":null,"infoStatusName":null,"dateDay":null,"orgNos":null,"nowTime":null,"countyName":null,"streetName":null,"villageName":null,"roadName":null,"communityName":null,"tranName":null,"sdLineName":null,"cityCode":"3340180","cityName":"国网浙江建德市供电有限公司","provinceCode":null,"stopTime":"2019-08-15 15:00:00","powerType":"全部","powerOffArea":"110kV梅城变:下涯Y301线-杨村桥村杨村桥台区后段","powerOffReason":"(低压停电信息)低压开关跳闸 原预计停电结束时间16:04，预估时间过长，目前故障已修复，现将停电时间变更至15:00","powerOffId":"2019081531020186"},{"poweroffId":2019081531020183,"sgpoweroffId":null,"subsName":"","lineName":"10kV杨家T106线","pubTranName":"浮桥埠村9号公变,","scope":"浙江省-杭州市-桐庐县-桐君街道-浮桥埠行政村(五桂山自然村,桥北路,浮桥埠自然村,上高岭自然村)","startTime":"2019-08-15 13:52:14","stopDate":"2019-08-15 16:30:14","orgNo":"3340150","typeCode":"电网故障停限电","poweroffArea":"110kV桐庐变:杨家T106线-浮桥埠村9号公变后段","poweroffReason":"高压开关跳闸","powerTime":"2019-08-15 16:10:30","powerComm":"全部送电","subsNo":"","lineNo":"","tgNo":"","tgName":null,"infoStatus":"1","orgName":"国网浙江桐庐县供电公司","typeName":null,"infoStatusName":null,"dateDay":null,"orgNos":null,"nowTime":null,"countyName":null,"streetName":null,"villageName":null,"roadName":null,"communityName":null,"tranName":null,"sdLineName":null,"cityCode":"3340150","cityName":"国网浙江桐庐县供电公司","provinceCode":null,"stopTime":"2019-08-15 16:30:14","powerType":"全部","powerOffArea":"110kV桐庐变:杨家T106线-浮桥埠村9号公变后段","powerOffReason":"高压开关跳闸","powerOffId":"2019081531020183"},{"poweroffId":2019081531020151,"sgpoweroffId":null,"subsName":"","lineName":"10kV东钱A670线","pubTranName":"同兴村15#变,","scope":"浙江省-杭州市-萧山区-新街镇、新街街道-同兴行政村-同兴自然村等一带","startTime":"2019-08-15 12:06:09","stopDate":"2019-08-15 15:45:09","orgNo":"3340130","typeCode":"电网故障停限电","poweroffArea":"110kV东霖变:东钱A670线-同兴村15#变台区低压开关","poweroffReason":"（低压停电信息）低压漏电保护器短路故障","powerTime":"2019-08-15 14:50:21","powerComm":"已送电","subsNo":"","lineNo":"","tgNo":"","tgName":null,"infoStatus":"1","orgName":"国网浙江杭州市萧山区供电有限公司","typeName":null,"infoStatusName":null,"dateDay":null,"orgNos":null,"nowTime":null,"countyName":null,"streetName":null,"villageName":null,"roadName":null,"communityName":null,"tranName":null,"sdLineName":null,"cityCode":"3340130","cityName":"国网浙江杭州市萧山区供电有限公司","provinceCode":null,"stopTime":"2019-08-15 15:45:09","powerType":"全部","powerOffArea":"110kV东霖变:东钱A670线-同兴村15#变台区低压开关","powerOffReason":"（低压停电信息）低压漏电保护器短路故障","powerOffId":"2019081531020151"},{"poweroffId":2019081531020137,"sgpoweroffId":null,"subsName":"","lineName":"10kV葛家G914线","pubTranName":"大井2组3号公变,","scope":"浙江省杭州市余杭区乔司街道：葛家车村2组3组一带","startTime":"2019-08-27 07:00:00","stopDate":"2019-08-27 16:00:00","orgNo":"3340140","typeCode":"计划停电","poweroffArea":"110kV庙港变:葛家G914线大井2组3#变后段","poweroffReason":"(低压停电信息)配网工程（2019年杭州余杭乔司地区和睦村等配变台区改造工程）：台架整改、调换计量箱、调换12米杆3基、调换导线3档","powerTime":"2019-08-27 15:38:51","powerComm":"工作结束","subsNo":"","lineNo":"","tgNo":"","tgName":null,"infoStatus":"1","orgName":"国网浙江杭州市余杭区供电有限公司","typeName":null,"infoStatusName":null,"dateDay":null,"orgNos":null,"nowTime":null,"countyName":null,"streetName":null,"villageName":null,"roadName":null,"communityName":null,"tranName":null,"sdLineName":null,"cityCode":"3340140","cityName":"国网浙江杭州市余杭区供电有限公司","provinceCode":null,"stopTime":"2019-08-27 16:00:00","powerType":"全部","powerOffArea":"110kV庙港变:葛家G914线大井2组3#变后段","powerOffReason":"(低压停电信息)配网工程（2019年杭州余杭乔司地区和睦村等配变台区改造工程）：台架整改、调换计量箱、调换12米杆3基、调换导线3档","powerOffId":"2019081531020137"},{"poweroffId":2019081531020134,"sgpoweroffId":null,"subsName":"","lineName":"10kV冯金G906线","pubTranName":"葛家7组4号公变,","scope":"浙江省杭州市余杭区乔司街道：葛家车村17组一带","startTime":"2019-08-26 07:00:00","stopDate":"2019-08-26 14:30:00","orgNo":"3340140","typeCode":"计划停电","poweroffArea":"110kV庙港变:冯金G906线葛家7组4号公变后段","poweroffReason":"(低压停电信息)配网工程（2019年杭州余杭乔司地区方桥社区等配变台区改造工程）：葛家7组4#变低压割接至新箱变、放低压电缆2根","powerTime":"2019-08-26 13:55:02","powerComm":"施工结束","subsNo":"","lineNo":"","tgNo":"","tgName":null,"infoStatus":"1","orgName":"国网浙江杭州市余杭区供电有限公司","typeName":null,"infoStatusName":null,"dateDay":null,"orgNos":null,"nowTime":null,"countyName":null,"streetName":null,"villageName":null,"roadName":null,"communityName":null,"tranName":null,"sdLineName":null,"cityCode":"3340140","cityName":"国网浙江杭州市余杭区供电有限公司","provinceCode":null,"stopTime":"2019-08-26 14:30:00","powerType":"全部","powerOffArea":"110kV庙港变:冯金G906线葛家7组4号公变后段","powerOffReason":"(低压停电信息)配网工程（2019年杭州余杭乔司地区方桥社区等配变台区改造工程）：葛家7组4#变低压割接至新箱变、放低压电缆2根","powerOffId":"2019081531020134"}],"pageModel":{"pageNow":1248,"totalCount":17789,"totalPage":1779,"tableRows":0,"pageCount":10,"beginCount":12470},"isExperi":"1"}