{"message":"","today":"2020-06-16","seleList":[{"poweroffId":2019081431020146,"sgpoweroffId":null,"subsName":"","lineName":"10kV梓树D973线","pubTranName":"上大庄村3#白纸槽公变,","scope":"浙江省-杭州市-富阳区-银湖街道-大庄行政村(白纸槽自然村,上大庄自然村)","startTime":"2019-08-14 15:08:00","stopDate":"2019-08-14 16:08:00","orgNo":"3340170","typeCode":"电网故障停限电","poweroffArea":"110kV九龙变:梓树D973线-上大庄村3#白纸槽公变后段","poweroffReason":"高压开关跳闸","powerTime":"2019-08-14 15:21:49","powerComm":"已送电","subsNo":"","lineNo":"","tgNo":"","tgName":null,"infoStatus":"1","orgName":"国网浙江杭州市富阳区供电公司","typeName":null,"infoStatusName":null,"dateDay":null,"orgNos":null,"nowTime":null,"countyName":null,"streetName":null,"villageName":null,"roadName":null,"communityName":null,"tranName":null,"sdLineName":null,"cityCode":"3340170","cityName":"国网浙江杭州市富阳区供电公司","provinceCode":null,"stopTime":"2019-08-14 16:08:00","powerType":"全部","powerOffArea":"110kV九龙变:梓树D973线-上大庄村3#白纸槽公变后段","powerOffReason":"高压开关跳闸","powerOffId":"2019081431020146"},{"poweroffId":2019081431020137,"sgpoweroffId":null,"subsName":"","lineName":"10kV院士T440线","pubTranName":"武盛移民村1号公变,","scope":"浙江省-杭州市-桐庐县-分水镇-武盛行政村(白沙自然村,玉泉自然村,院士路,东关自然村),分水镇-玉华社区(九龙路,院士路)","startTime":"2019-08-14 14:57:16","stopDate":"2019-08-14 17:00:16","orgNo":"3340150","typeCode":"电网故障停限电","poweroffArea":"110kV天英变:院士T440线-武盛移民村1号公变后段","poweroffReason":"高压开关跳闸","powerTime":"2019-08-14 16:47:20","powerComm":"已送电","subsNo":"","lineNo":"","tgNo":"","tgName":null,"infoStatus":"1","orgName":"国网浙江桐庐县供电公司","typeName":null,"infoStatusName":null,"dateDay":null,"orgNos":null,"nowTime":null,"countyName":null,"streetName":null,"villageName":null,"roadName":null,"communityName":null,"tranName":null,"sdLineName":null,"cityCode":"3340150","cityName":"国网浙江桐庐县供电公司","provinceCode":null,"stopTime":"2019-08-14 17:00:16","powerType":"全部","powerOffArea":"110kV天英变:院士T440线-武盛移民村1号公变后段","powerOffReason":"高压开关跳闸","powerOffId":"2019081431020137"},{"poweroffId":2019081431020121,"sgpoweroffId":null,"subsName":"","lineName":"10kV大义C853线","pubTranName":"大义村11#变,大义村12#变,","scope":"浙江省-杭州市-萧山区-瓜沥镇-大义行政村-大义自然村","startTime":"2019-08-22 08:30:00","stopDate":"2019-08-22 14:05:00","orgNo":"3340130","typeCode":"计划停电","poweroffArea":"110kV昭东变:大义C853线-大义村12#变后段;大义C853线-大义村11#变后段","poweroffReason":"大义村11#变令克下160kVA上315kVA 原停电结束时间:2019-08-22 14:30:00,变更停电结束时间:2019-08-22 14:05:00。由于计划工作提前完成，故需要提前送电。","powerTime":"2019-08-22 13:14:30","powerComm":"已送电","subsNo":"","lineNo":"","tgNo":"","tgName":null,"infoStatus":"1","orgName":"国网浙江杭州市萧山区供电有限公司","typeName":null,"infoStatusName":null,"dateDay":null,"orgNos":null,"nowTime":null,"countyName":null,"streetName":null,"villageName":null,"roadName":null,"communityName":null,"tranName":null,"sdLineName":null,"cityCode":"3340130","cityName":"国网浙江杭州市萧山区供电有限公司","provinceCode":null,"stopTime":"2019-08-22 14:05:00","powerType":"全部","powerOffArea":"110kV昭东变:大义C853线-大义村12#变后段;大义C853线-大义村11#变后段","powerOffReason":"大义村11#变令克下160kVA上315kVA 原停电结束时间:2019-08-22 14:30:00,变更停电结束时间:2019-08-22 14:05:00。由于计划工作提前完成，故需要提前送电。","powerOffId":"2019081431020121"},{"poweroffId":2019081431020107,"sgpoweroffId":null,"subsName":"","lineName":"10kV塘埠H257线","pubTranName":"塘埠村许家头公变,塘埠村吴家头1号公变,塘埠村石门1号公变,交工路桥白湖612069571401#专变,塘埠村白湖公变,坛石寺,杭州灵强润滑油脂有限公司6111029930,交工路桥612070446501#专变,科联兔业612084968101#专变,塘埠村朱家弄2号公变,交工路桥塘埠612069571301#专变,塘埠村东队2号公变,塘埠村枉山头2号公变,塘埠村朱家弄1号公变,政府5号路灯变6120841570,赐壁村件坞公变,杭州大明茶叶有限公司6110117206,塘埠村西坞公变,塘埠村石门2号公变,塘埠村村委公变,赐壁村件坞2号公变,塘埠村六谷山口公变,塘埠村里西坞公变,彭公石门电站6110117022,雷欧压滤机,塘埠村东队1号公变,塘埠村马树边公变,竹制品厂（2）,塘埠村许家口公变,杭州市余杭区瓶窑镇塘埠村村民委员会6111087248,塘埠村枉山头1号公变,塘埠村长岭村公变,杭州余杭铁岭石材有限公司6111079476,杭州余杭区瓶窑镇德胜沙石厂6111020715,塘埠村六谷山公变,塘埠村方家村公变,塘埠村俞家口公变,塘埠村王家头公变,塘埠村王家村公变,塘埠村东坞公变,塘埠村吴家头2号公变,彭公石门大队6110117201,塘埠村刘家山公变,塘埠村桥上公变,","scope":"浙江省-杭州市-余杭区-黄湖镇-赐壁行政村(赐壁自然村,杨家堂自然村),瓶窑镇-彭公行政村(彭公岭自然村,东皇坞外自然村,彭安路),瓶窑镇-奇鹤行政村(白鹤自然村,奇坑自然村),瓶窑镇-塘埠行政村(塘埠自然村,长岭自然村,西坞自然村,里西坞自然村,俞家口自然村,白湖自然村,马树边自然村,许家口自然村,石门外自然村,横山组,枉山头自然村,吴家头自然村,六谷山自然村,西坞4组,东坞自然村,方家自然村,横坑组,王家自然村,朱家弄自然村,桥上自然村,刘家山自然村,许家头自然村,乔下组,一堡村,东队自然村,六谷山口自然村,石门4组,长岭5组),瓶窑镇(瓶窑行政村-花园路,石濑行政村-翁家自然村),百丈镇-溪口行政村-溪口自然村,鸬鸟镇-雅城行政村-雅城自然村;瓶窑镇(彭公石门大队,杭州余杭铁岭石材有限公司,杭州余杭区瓶窑镇德胜沙石厂,彭公石门电站,杭州市余杭区瓶窑镇塘埠村村民委员会,杭州大明茶叶有限公司,杭州灵强润滑油脂有限公司,浙江交工路桥建设有限公司,杭州余杭彭公石门竹制品工艺厂(普通合伙),浙江京杭交通工程有限公司,杭州市余杭区坛石寺,杭州余杭科联兔业专业合作社,杭州市余杭区瓶窑镇人民政府)一带","startTime":"2019-08-14 13:02:00","stopDate":"2019-08-14 15:02:00","orgNo":"3340140","typeCode":"电网故障停限电","poweroffArea":"110kV彭公变:塘埠H257线樱琴H25731开关后段","poweroffReason":"高压开关跳闸","powerTime":"2019-08-14 14:45:00","powerComm":"已送电","subsNo":"","lineNo":"","tgNo":"","tgName":null,"infoStatus":"1","orgName":"国网浙江杭州市余杭区供电有限公司","typeName":null,"infoStatusName":null,"dateDay":null,"orgNos":null,"nowTime":null,"countyName":null,"streetName":null,"villageName":null,"roadName":null,"communityName":null,"tranName":null,"sdLineName":null,"cityCode":"3340140","cityName":"国网浙江杭州市余杭区供电有限公司","provinceCode":null,"stopTime":"2019-08-14 15:02:00","powerType":"全部","powerOffArea":"110kV彭公变:塘埠H257线樱琴H25731开关后段","powerOffReason":"高压开关跳闸","powerOffId":"2019081431020107"},{"poweroffId":2019081431020094,"sgpoweroffId":null,"subsName":"","lineName":"10kV新山G193线","pubTranName":"新三3号公变,新山村委1号公变,余杭水务100KVA,新山村委2号公变,新山2组3号公变,新山2组公变,","scope":"浙江省-杭州市-余杭区-乔司街道(朝阳行政村-新三自然村,乔司社区-仙塘西街后);浙江省-杭州市-余杭区-乔司街道-朝阳行政村-杭州余杭临平供排水有限公司","startTime":"2019-08-14 11:32:36","stopDate":"2019-08-14 17:00:00","orgNo":"3340140","typeCode":"电网故障停限电","poweroffArea":"35kV乔镇变:新山G193线-新山村委开关后段","poweroffReason":"高压开关跳闸","powerTime":"2019-08-14 16:36:00","powerComm":"现场已送电","subsNo":"","lineNo":"","tgNo":"","tgName":null,"infoStatus":"1","orgName":"国网浙江杭州市余杭区供电有限公司","typeName":null,"infoStatusName":null,"dateDay":null,"orgNos":null,"nowTime":null,"countyName":null,"streetName":null,"villageName":null,"roadName":null,"communityName":null,"tranName":null,"sdLineName":null,"cityCode":"3340140","cityName":"国网浙江杭州市余杭区供电有限公司","provinceCode":null,"stopTime":"2019-08-14 17:00:00","powerType":"全部","powerOffArea":"35kV乔镇变:新山G193线-新山村委开关后段","powerOffReason":"高压开关跳闸","powerOffId":"2019081431020094"},{"poweroffId":2019081431020075,"sgpoweroffId":null,"subsName":"","lineName":"10kV街二C628线","pubTranName":"新东名苑1#公变,新和人家2#变,新街镇人民政府,新和人家3#变,新东名苑5#公变,新东名苑3#公变,新东名苑8#公变,杭州萧山清和商务酒店,银河速冻3#,钱啤居委会7#公变,钱江居委会4#变,新东名苑2#公变,新街镇人民政府1#,钱江居委会3#公变,钱啤居委会1#公变,新东名苑7#公变,银河速冻2#,杭州艾力森实业有限公司,银河速冻5#,银河速冻4#,新东名苑4#公变,新和人家1#变,新和人家4#变,新东名苑6#公变,","scope":"浙江省-杭州市-萧山区-经济技术开发区-红垦社区(北塘河南,海塘路1388号),新街街道-盛东行政村(香樟路,盛东自然村),新街街道-新润社区(海塘路,北塘东路),新街街道(新和社区-文轩路,花城社区-北塘东路);新街街道-盛东行政村(杭州市萧山区新街镇人民政府,浙江开元物业管理股份有限公司杭州分公司),新街街道(山末址行政村-浙江银河食品有限公司,新和社区-杭州萧山清和商务酒店、新和人家小区、新和人家、新和人家钱江幼儿园、浙江省杭州市萧山区新街街道新和人家、浙江省杭州市萧山区文轩路24号新河人家、浙江省杭州市萧山区海棠路1388号等一带","startTime":"2019-08-14 10:29:26","stopDate":"2019-08-14 16:49:28","orgNo":"3340130","typeCode":"电网故障停限电","poweroffArea":"110kV新街变:街二C628线","poweroffReason":"高压柱上断路器短路故障 原停电结束时间：2019-08-14 19:58:28，变更停电结束时间：2019-08-14 16:49:28，由于增派人员，抢修工作提前完成，故需要提前送电。","powerTime":"2019-08-14 15:59:08","powerComm":"已送电","subsNo":"","lineNo":"","tgNo":"","tgName":null,"infoStatus":"1","orgName":"国网浙江杭州市萧山区供电有限公司","typeName":null,"infoStatusName":null,"dateDay":null,"orgNos":null,"nowTime":null,"countyName":null,"streetName":null,"villageName":null,"roadName":null,"communityName":null,"tranName":null,"sdLineName":null,"cityCode":"3340130","cityName":"国网浙江杭州市萧山区供电有限公司","provinceCode":null,"stopTime":"2019-08-14 16:49:28","powerType":"全部","powerOffArea":"110kV新街变:街二C628线","powerOffReason":"高压柱上断路器短路故障 原停电结束时间：2019-08-14 19:58:28，变更停电结束时间：2019-08-14 16:49:28，由于增派人员，抢修工作提前完成，故需要提前送电。","powerOffId":"2019081431020075"},{"poweroffId":2019081431020067,"sgpoweroffId":null,"subsName":"","lineName":"10kV联益G958线","pubTranName":"运河镇兴旺村北田头南公变,运河镇兴旺村北田头北2号公变,亭趾前方桥泵站,兴旺村金家角2号公变,众聚园纺织（6110206069）1#变,奥赛德布艺1#,运河镇亭趾村前方桥公变,运河镇兴旺村北田头北公变,运河镇兴旺村杨家墩腾桥公变,水务公司基建变（亭趾）,浙江杭州余杭农村商业银行股份有限公司运河支行,也万加和,水厂总泵2#,杭州涌运金属回收有限公司,运河镇运河供电营业所公变,运河镇兴旺村杨家墩新区北,农业综合开发办,运河镇兴旺村北兴公变,温州大都市建设开发有限公司,水厂总泵2#,杭州圣艾侬壁布有限公司,运河街道兴旺农居点3#变压器,杭州康宁丝绸有限公司,运河镇兴旺村金家角南公变,奥赛德布艺2#,杭州余杭都杭织造有限公司,杭州海发纺织植绒有限公司,运河镇兴旺村杨家墩新区南公变,金兔旅游用品,运河镇兴旺村杨家墩新区3号公变,兴旺村北兴2号公变,水厂总泵1#,杨家墩排涝,杭州奥赛德布艺有限公司（6110206055）03号专变,","scope":"浙江省-杭州市-余杭区-运河街道-兴旺行政村(杨家墩,杨介墩,兴旺自然村,联新路,杨家墩自然村,兴旺,北田头自然村),运河街道-亭趾行政村(亭趾,亭趾自然村,前方桥自然村),运河街道-亭趾社区-日辉路,东湖街道-红丰社区-东湖北路;运河街道-亭趾行政村(亭趾前方桥泵站,农业综合开发办,杭州余杭区运河镇亭趾妙庆冲板场),运河街道-兴旺行政村(杭州向东机械制造有限公司,杭州海发纺织植绒有限公司,杭州康宁丝绸有限公司,温州大都市建设开发有限公司余杭分公司,浙江杭州余杭农村商业银行股份有限公司,杭州市余杭区人民政府运河街道办事处,杭州圣艾侬壁布有限公司,杭州涌运金属回收有限公司),运河街道-亭趾社区(杭州义千实业有限公司,杭州余杭制水有限公司,杭州奥赛德布艺有限公司),塘栖镇-丁河行政村-丁河庞家墩村杨家墩,运河街道-兴旺社区-杭州众聚园纺织有限公司一带","startTime":"2019-08-14 10:15:00","stopDate":"2019-08-14 14:00:00","orgNo":"3340140","typeCode":"电网故障停限电","poweroffArea":"110kV博陆变:联益G958线","poweroffReason":"高压开关跳闸","powerTime":"2019-08-14 13:30:00","powerComm":"已送电","subsNo":"","lineNo":"","tgNo":"","tgName":null,"infoStatus":"1","orgName":"国网浙江杭州市余杭区供电有限公司","typeName":null,"infoStatusName":null,"dateDay":null,"orgNos":null,"nowTime":null,"countyName":null,"streetName":null,"villageName":null,"roadName":null,"communityName":null,"tranName":null,"sdLineName":null,"cityCode":"3340140","cityName":"国网浙江杭州市余杭区供电有限公司","provinceCode":null,"stopTime":"2019-08-14 14:00:00","powerType":"全部","powerOffArea":"110kV博陆变:联益G958线","powerOffReason":"高压开关跳闸","powerOffId":"2019081431020067"},{"poweroffId":2019081431020045,"sgpoweroffId":null,"subsName":"","lineName":"10kV川崎C895线","pubTranName":"都市阳光（卓越物业）,都市阳光1#公变,胜达包装2#,都市阳光3#公变,杭州新城美佳房地产开发有限公司,兴达市政3#,华瑞中心1#公变,城市建设,杭州新城美佳房地产开发有限公司,高盛物业1#,工业陶瓷,中国移动3#,浙江中玻进出口有限公司,杭州新锦置业有限公司,商业房产4#,商业房产1#,一方房地产2#,变压器2,都市阳光4#公变,杭州新锦置业有限公司,胜达包装1#,华能金属,商业房产5#,天辰国际2#公变,华瑞中心2#公变,商业房产3#,新世纪机电,华瑞中心4#公变,华瑞中心3#公变,商业房产6#,都市阳光2#公变,变压器1,","scope":"浙江省-杭州市-萧山区-宁围镇-宁围街道、经济技术开发区-市北社区(市心北路,建设二路);浙江省-杭州市-萧山区-萧山经济技术开发区-市北社区-杭州新锦置业有限公司,经济技术开发区-市北社区(广东中奥物业管理有限公司萧山分公司,杭州兴达市政公用服务有限公司,杭州萧山工业陶瓷物资有限公司,浙江大胜达包装股份有限公司,杭州萧山商业房产物业管理有限公司,杭州新世纪机电设备有限公司,浙江卓越物业服务有限公司,杭州新城美佳房地产开发有限公司,杭州高盛物业管理有限公司萧山分公司),北干街道-塘湾行政村(杭州萧山城区投资开发有限公司,杭州萧山城市建设发展有限公司,中国移动通信集团浙江有限公司萧山分公司,浙江中玻进出口有限公司等一带","startTime":"2019-08-14 09:21:56","stopDate":"2019-08-14 12:58:56","orgNo":"3340130","typeCode":"电网故障停限电","poweroffArea":"110kV万安变:川崎C895线","poweroffReason":"高压柱上断路器短路故障 原停电结束时间：2019-08-14 14:58:56，变更停电结束时间：2019-08-14 12:58:56，由于增派人员，抢修工作提前完成，故需要提前送电。","powerTime":"2019-08-14 12:08:26","powerComm":"已送电","subsNo":"","lineNo":"","tgNo":"","tgName":null,"infoStatus":"1","orgName":"国网浙江杭州市萧山区供电有限公司","typeName":null,"infoStatusName":null,"dateDay":null,"orgNos":null,"nowTime":null,"countyName":null,"streetName":null,"villageName":null,"roadName":null,"communityName":null,"tranName":null,"sdLineName":null,"cityCode":"3340130","cityName":"国网浙江杭州市萧山区供电有限公司","provinceCode":null,"stopTime":"2019-08-14 12:58:56","powerType":"全部","powerOffArea":"110kV万安变:川崎C895线","powerOffReason":"高压柱上断路器短路故障 原停电结束时间：2019-08-14 14:58:56，变更停电结束时间：2019-08-14 12:58:56，由于增派人员，抢修工作提前完成，故需要提前送电。","powerOffId":"2019081431020045"},{"poweroffId":2019081431020035,"sgpoweroffId":null,"subsName":"","lineName":"10kV惠五A110线","pubTranName":"保利霞飞郡5#公变,","scope":"浙江省-杭州市-萧山区-北干街道-市北社区-建设二路、保利霞飞郡一带","startTime":"2019-08-14 09:00:00","stopDate":"2019-08-14 10:30:00","orgNo":"3340130","typeCode":"电网故障停限电","poweroffArea":"110kV惠兴变:惠五A110线-保利霞飞郡5#公变台区低压开关","poweroffReason":"（低压停电信息）低压互感器烧损，原停电结束时间：2019-08-014 10:30:00，变更停电结束时间原因：停电工作提前完成","powerTime":"2019-08-14 09:49:26","powerComm":"已送电","subsNo":"","lineNo":"","tgNo":"","tgName":null,"infoStatus":"1","orgName":"国网浙江杭州市萧山区供电有限公司","typeName":null,"infoStatusName":null,"dateDay":null,"orgNos":null,"nowTime":null,"countyName":null,"streetName":null,"villageName":null,"roadName":null,"communityName":null,"tranName":null,"sdLineName":null,"cityCode":"3340130","cityName":"国网浙江杭州市萧山区供电有限公司","provinceCode":null,"stopTime":"2019-08-14 10:30:00","powerType":"全部","powerOffArea":"110kV惠兴变:惠五A110线-保利霞飞郡5#公变台区低压开关","powerOffReason":"（低压停电信息）低压互感器烧损，原停电结束时间：2019-08-014 10:30:00，变更停电结束时间原因：停电工作提前完成","powerOffId":"2019081431020035"},{"poweroffId":2019081431020024,"sgpoweroffId":null,"subsName":"","lineName":"10kV丝化C377线","pubTranName":"红山农场五分场2#公变,","scope":"浙江省-杭州市-萧山区-新街镇-新街街道-红山农场-同德社区(五分场,北锋路)、同舟社区、同舟社区新小区、等一带","startTime":"2019-08-14 08:34:19","stopDate":"2019-08-14 11:22:19","orgNo":"3340130","typeCode":"电网故障停限电","poweroffArea":"110kV红山变:丝化C377线-红山农场五分场2#公变台区低压开关","poweroffReason":"（低压停电信息）低压漏电保护器短路故障 原停电结束时间：2019-08-14 13:59:19，变更停电结束时间：2019-08-14 11:22:19，由于增派人员，抢修工作提前完成，故需要提前送电。","powerTime":"2019-08-14 10:51:04","powerComm":"已送电","subsNo":"","lineNo":"","tgNo":"","tgName":null,"infoStatus":"1","orgName":"国网浙江杭州市萧山区供电有限公司","typeName":null,"infoStatusName":null,"dateDay":null,"orgNos":null,"nowTime":null,"countyName":null,"streetName":null,"villageName":null,"roadName":null,"communityName":null,"tranName":null,"sdLineName":null,"cityCode":"3340130","cityName":"国网浙江杭州市萧山区供电有限公司","provinceCode":null,"stopTime":"2019-08-14 11:22:19","powerType":"全部","powerOffArea":"110kV红山变:丝化C377线-红山农场五分场2#公变台区低压开关","powerOffReason":"（低压停电信息）低压漏电保护器短路故障 原停电结束时间：2019-08-14 13:59:19，变更停电结束时间：2019-08-14 11:22:19，由于增派人员，抢修工作提前完成，故需要提前送电。","powerOffId":"2019081431020024"}],"pageModel":{"pageNow":1252,"totalCount":17789,"totalPage":1779,"tableRows":0,"pageCount":10,"beginCount":12510},"isExperi":"1"}