{"message":"","today":"2020-06-16","seleList":[{"poweroffId":2019081331020237,"sgpoweroffId":null,"subsName":"","lineName":"10kV来所A425线","pubTranName":"杭州萧山万顺液压制动制造厂,章潘桥村立新2#变,","scope":"浙江省-杭州市-萧山区-蜀山街道-章潘桥行政村-杭州萧山万顺液压制动制造厂","startTime":"2019-08-21 08:30:00","stopDate":"2019-08-21 16:30:00","orgNo":"3340130","typeCode":"计划停电","poweroffArea":"110kV来苏变:来所A425线-杭州萧山万顺液压制动制造厂后段;来所A425线-章潘桥村立新2#变后段","poweroffReason":"章潘桥村立新2#变下250kVA上400kVA，拆除裸导线5档，更换JP柜，更换跌落式熔断器，新立12米杆一支，新放线3档","powerTime":"2019-08-21 16:19:02","powerComm":"已送电","subsNo":"","lineNo":"","tgNo":"","tgName":null,"infoStatus":"1","orgName":"国网浙江杭州市萧山区供电有限公司","typeName":null,"infoStatusName":null,"dateDay":null,"orgNos":null,"nowTime":null,"countyName":null,"streetName":null,"villageName":null,"roadName":null,"communityName":null,"tranName":null,"sdLineName":null,"cityCode":"3340130","cityName":"国网浙江杭州市萧山区供电有限公司","provinceCode":null,"stopTime":"2019-08-21 16:30:00","powerType":"全部","powerOffArea":"110kV来苏变:来所A425线-杭州萧山万顺液压制动制造厂后段;来所A425线-章潘桥村立新2#变后段","powerOffReason":"章潘桥村立新2#变下250kVA上400kVA，拆除裸导线5档，更换JP柜，更换跌落式熔断器，新立12米杆一支，新放线3档","powerOffId":"2019081331020237"},{"poweroffId":2019081331020235,"sgpoweroffId":null,"subsName":"","lineName":"10kV八字A150线","pubTranName":"裕民村14#变,","scope":"浙江省-杭州市-萧山区-党湾镇-裕民行政村、裕民一路、裕民自然村、党湾镇裕民村1路一带","startTime":"2019-08-13 20:20:20","stopDate":"2019-08-13 22:10:20","orgNo":"3340130","typeCode":"电网故障停限电","poweroffArea":"220kV甘露变:八字A150线-裕民村14#变台区低压开关","poweroffReason":"(低压停电信息)低压熔断器短路故障","powerTime":"2019-08-13 21:20:24","powerComm":"已送电","subsNo":"","lineNo":"","tgNo":"","tgName":null,"infoStatus":"1","orgName":"国网浙江杭州市萧山区供电有限公司","typeName":null,"infoStatusName":null,"dateDay":null,"orgNos":null,"nowTime":null,"countyName":null,"streetName":null,"villageName":null,"roadName":null,"communityName":null,"tranName":null,"sdLineName":null,"cityCode":"3340130","cityName":"国网浙江杭州市萧山区供电有限公司","provinceCode":null,"stopTime":"2019-08-13 22:10:20","powerType":"全部","powerOffArea":"220kV甘露变:八字A150线-裕民村14#变台区低压开关","powerOffReason":"(低压停电信息)低压熔断器短路故障","powerOffId":"2019081331020235"},{"poweroffId":2019081331020232,"sgpoweroffId":null,"subsName":"","lineName":"10kV友耐A399线","pubTranName":"新北村7#变,","scope":"浙江省-杭州市-萧山区-宁围镇、宁围街道-二桥行政村-新北自然村等一带","startTime":"2019-08-13 19:52:13","stopDate":"2019-08-13 22:25:13","orgNo":"3340130","typeCode":"电网故障停限电","poweroffArea":"110kV顺坝变:友耐A399线-新北村7#变台区低压开关","poweroffReason":"（低压停电信息）低压漏电保护器短路故障","powerTime":"2019-08-13 21:51:46","powerComm":"已送电","subsNo":"","lineNo":"","tgNo":"","tgName":null,"infoStatus":"1","orgName":"国网浙江杭州市萧山区供电有限公司","typeName":null,"infoStatusName":null,"dateDay":null,"orgNos":null,"nowTime":null,"countyName":null,"streetName":null,"villageName":null,"roadName":null,"communityName":null,"tranName":null,"sdLineName":null,"cityCode":"3340130","cityName":"国网浙江杭州市萧山区供电有限公司","provinceCode":null,"stopTime":"2019-08-13 22:25:13","powerType":"全部","powerOffArea":"110kV顺坝变:友耐A399线-新北村7#变台区低压开关","powerOffReason":"（低压停电信息）低压漏电保护器短路故障","powerOffId":"2019081331020232"},{"poweroffId":2019081331020228,"sgpoweroffId":null,"subsName":"","lineName":"10kV谢田Y786线","pubTranName":"庄丰村庄丰台区,","scope":"浙江省-杭州市-建德市-钦堂乡-庄丰行政村-庄丰自然村一带用户","startTime":"2019-08-13 19:00:00","stopDate":"2019-08-13 21:10:00","orgNo":"3340180","typeCode":"电网故障停限电","poweroffArea":"110kV钦堂变:谢田Y786线-庄丰村庄丰台区后段","poweroffReason":"(低压停电信息)低压开关跳闸","powerTime":"2019-08-13 20:52:00","powerComm":"已送电","subsNo":"","lineNo":"","tgNo":"","tgName":null,"infoStatus":"1","orgName":"国网浙江建德市供电有限公司","typeName":null,"infoStatusName":null,"dateDay":null,"orgNos":null,"nowTime":null,"countyName":null,"streetName":null,"villageName":null,"roadName":null,"communityName":null,"tranName":null,"sdLineName":null,"cityCode":"3340180","cityName":"国网浙江建德市供电有限公司","provinceCode":null,"stopTime":"2019-08-13 21:10:00","powerType":"全部","powerOffArea":"110kV钦堂变:谢田Y786线-庄丰村庄丰台区后段","powerOffReason":"(低压停电信息)低压开关跳闸","powerOffId":"2019081331020228"},{"poweroffId":2019081331020224,"sgpoweroffId":null,"subsName":"","lineName":"10kV浮桥T116线","pubTranName":"绸厂宿舍1号公变,","scope":"浙江省-杭州市-桐庐县-桐君街道-金鑫社区-富春路,桐君街道-桥北居委会(富春路,桥北路,泰鑫路)，桥北居委会富春路655号","startTime":"2019-08-13 18:40:51","stopDate":"2019-08-13 20:40:51","orgNo":"3340150","typeCode":"电网故障停限电","poweroffArea":"110kV桐庐变:浮桥T116线-绸厂宿舍1号公变后段","poweroffReason":"高压开关跳闸","powerTime":"2019-08-13 20:30:17","powerComm":"已送电。","subsNo":"","lineNo":"","tgNo":"","tgName":null,"infoStatus":"1","orgName":"国网浙江桐庐县供电公司","typeName":null,"infoStatusName":null,"dateDay":null,"orgNos":null,"nowTime":null,"countyName":null,"streetName":null,"villageName":null,"roadName":null,"communityName":null,"tranName":null,"sdLineName":null,"cityCode":"3340150","cityName":"国网浙江桐庐县供电公司","provinceCode":null,"stopTime":"2019-08-13 20:40:51","powerType":"全部","powerOffArea":"110kV桐庐变:浮桥T116线-绸厂宿舍1号公变后段","powerOffReason":"高压开关跳闸","powerOffId":"2019081331020224"},{"poweroffId":2019081331020221,"sgpoweroffId":null,"subsName":"","lineName":"10kV立祥Y139线","pubTranName":"黄立垟园区宏达公变,","scope":"浙江省-杭州市-建德市-乾潭镇-黄立洋工业园区-黄立洋一带用户。","startTime":"2019-08-13 17:44:00","stopDate":"2019-08-13 19:00:00","orgNo":"3340180","typeCode":"电网故障停限电","poweroffArea":"110kV乾潭变:立祥Y139线-黄立垟园区宏达公变后段","poweroffReason":"(低压停电信息)低压开关跳闸 原预计停电结束时间20：00，由于施工现场环境比较复杂，存在不确定因素，因此预估施工时间适当放长了,目前故障已修复，现将停电结束时间变更至19：00","powerTime":"2019-08-13 18:32:00","powerComm":"已送电（实际为一户停电）","subsNo":"","lineNo":"","tgNo":"","tgName":null,"infoStatus":"1","orgName":"国网浙江建德市供电有限公司","typeName":null,"infoStatusName":null,"dateDay":null,"orgNos":null,"nowTime":null,"countyName":null,"streetName":null,"villageName":null,"roadName":null,"communityName":null,"tranName":null,"sdLineName":null,"cityCode":"3340180","cityName":"国网浙江建德市供电有限公司","provinceCode":null,"stopTime":"2019-08-13 19:00:00","powerType":"全部","powerOffArea":"110kV乾潭变:立祥Y139线-黄立垟园区宏达公变后段","powerOffReason":"(低压停电信息)低压开关跳闸 原预计停电结束时间20：00，由于施工现场环境比较复杂，存在不确定因素，因此预估施工时间适当放长了,目前故障已修复，现将停电结束时间变更至19：00","powerOffId":"2019081331020221"},{"poweroffId":2019081331020219,"sgpoweroffId":null,"subsName":"","lineName":"10kV青龙508线","pubTranName":"百合花集团1#,舒乐化工,樱花涂料厂,天然气公司01#,宏伟铸造厂,中石油,三联村13#变,三联村7#变,水利工程管理01#,三联村4#变,南阳街道办事处1#,南阳岩峰山场,天然气,福南化工,三联村2#变,江东大桥,文伟村6#变,三联村5#变,百合花集团2#,三联村9#变,三联村10#变,文伟村7#变,田盛金属01#,三联村12#变,三联村15#变,朱氏卫浴,水利管理所1#,三联村11#变,","scope":"浙江省-杭州市-萧山区-河庄街道(三联行政村-三联自然村,文伟行政村-文伟自然村);河庄街道-文伟行政村(杭州百合房地产开发有限公司,杭州江东大桥建设发展有限公司),河庄街道-三联行政村(中石油管道有限责任公司西气东输分公司,浙江省天然气开发有限公司),南阳街道-岩峰行政村(杭州福南化工有限公司,杭州南阳樱花涂料有限公司,杭州萧山南阳岩峰山场,杭州朱氏卫浴有限公司),南阳街道-龙虎行政村(杭州舒乐化工有限公司,杭州萧山田盛金属制品有限公司,杭州宏伟铸造厂),河庄街道-杭州天然气有限公司,围垦垦区-一工段片区-杭州大江东产业集聚区水利工程管理所,南阳街道-横蓬行政村-杭州市萧山区人民政府南阳街道办事处","startTime":"2019-08-21 18:25:00","stopDate":"2019-08-21 19:00:00","orgNo":"3340120","typeCode":"计划停电","poweroffArea":"35kV永丰变:青龙508线首端，2433，分路令克之间","poweroffReason":"10kV青龙508线25#开关后段倒负荷","powerTime":"2019-08-21 18:35:39","powerComm":"送电正常","subsNo":"","lineNo":"","tgNo":"","tgName":null,"infoStatus":"1","orgName":"国网浙江杭州市钱塘新区供电公司","typeName":null,"infoStatusName":null,"dateDay":null,"orgNos":null,"nowTime":null,"countyName":null,"streetName":null,"villageName":null,"roadName":null,"communityName":null,"tranName":null,"sdLineName":null,"cityCode":"3340120","cityName":"国网浙江杭州市钱塘新区供电公司","provinceCode":null,"stopTime":"2019-08-21 19:00:00","powerType":"全部","powerOffArea":"35kV永丰变:青龙508线首端，2433，分路令克之间","powerOffReason":"10kV青龙508线25#开关后段倒负荷","powerOffId":"2019081331020219"},{"poweroffId":2019081331020218,"sgpoweroffId":null,"subsName":"","lineName":"10kV青龙508线","pubTranName":"三联村14#变,歌山建设二,闸北村16#变,三联村8#变,鸿发五金,歌山建设01#,","scope":"浙江省-杭州市-萧山区-河庄街道(三联行政村-三联自然村,闸北行政村-闸北自然村);浙江省-杭州市-萧山区-河庄街道-三联行政村-歌山建设集团有限公司,河庄街道-建设行政村(杭州萧山鸿发五金厂,歌山建设集团有限公司)","startTime":"2019-08-21 08:00:00","stopDate":"2019-08-21 18:30:00","orgNo":"3340120","typeCode":"计划停电","poweroffArea":"35kV永丰变:青龙508线首端，2432，2433之间","poweroffReason":"青龙508线10#-20#杆，三联村8#变移位工作","powerTime":"2019-08-21 18:10:51","powerComm":"已送电","subsNo":"","lineNo":"","tgNo":"","tgName":null,"infoStatus":"1","orgName":"国网浙江杭州市钱塘新区供电公司","typeName":null,"infoStatusName":null,"dateDay":null,"orgNos":null,"nowTime":null,"countyName":null,"streetName":null,"villageName":null,"roadName":null,"communityName":null,"tranName":null,"sdLineName":null,"cityCode":"3340120","cityName":"国网浙江杭州市钱塘新区供电公司","provinceCode":null,"stopTime":"2019-08-21 18:30:00","powerType":"全部","powerOffArea":"35kV永丰变:青龙508线首端，2432，2433之间","powerOffReason":"青龙508线10#-20#杆，三联村8#变移位工作","powerOffId":"2019081331020218"},{"poweroffId":2019081331020217,"sgpoweroffId":null,"subsName":"","lineName":"10kV青龙508线","pubTranName":"范豪布业,三联村3#变,三联村1#变,","scope":"浙江省-杭州市-萧山区-河庄街道-三联行政村-三联自然村;浙江省-杭州市-萧山区-河庄街道-三联行政村-杭州范豪布业有限公司","startTime":"2019-08-21 07:45:00","stopDate":"2019-08-21 17:00:00","orgNo":"3340120","typeCode":"计划停电","poweroffArea":"35kV永丰变:青龙508线-分路令克后段","poweroffReason":"青龙508线山场北分线01-03#杆上改下工作","powerTime":"2019-08-21 16:17:44","powerComm":"已送电","subsNo":"","lineNo":"","tgNo":"","tgName":null,"infoStatus":"1","orgName":"国网浙江杭州市钱塘新区供电公司","typeName":null,"infoStatusName":null,"dateDay":null,"orgNos":null,"nowTime":null,"countyName":null,"streetName":null,"villageName":null,"roadName":null,"communityName":null,"tranName":null,"sdLineName":null,"cityCode":"3340120","cityName":"国网浙江杭州市钱塘新区供电公司","provinceCode":null,"stopTime":"2019-08-21 17:00:00","powerType":"全部","powerOffArea":"35kV永丰变:青龙508线-分路令克后段","powerOffReason":"青龙508线山场北分线01-03#杆上改下工作","powerOffId":"2019081331020217"},{"poweroffId":2019081331020216,"sgpoweroffId":null,"subsName":"","lineName":"10kV青龙508线","pubTranName":"天然气,三联村5#变,南阳岩峰山场,三联村10#变,水利工程管理01#,文伟村7#变,三联村9#变,南阳街道办事处1#,百合花集团2#,田盛金属01#,天然气公司01#,百合花集团1#,福南化工,三联村13#变,三联村11#变,三联村7#变,三联村4#变,舒乐化工,水利管理所1#,三联村12#变,樱花涂料厂,江东大桥,三联村15#变,宏伟铸造厂,中石油,文伟村6#变,朱氏卫浴,三联村2#变,","scope":"浙江省-杭州市-萧山区-河庄街道(三联行政村-三联自然村,文伟行政村-文伟自然村);河庄街道-文伟行政村(杭州百合房地产开发有限公司,杭州江东大桥建设发展有限公司),河庄街道-三联行政村(中石油管道有限责任公司西气东输分公司,浙江省天然气开发有限公司),南阳街道-岩峰行政村(杭州福南化工有限公司,杭州南阳樱花涂料有限公司,杭州萧山南阳岩峰山场,杭州朱氏卫浴有限公司),南阳街道-龙虎行政村(杭州舒乐化工有限公司,杭州萧山田盛金属制品有限公司,杭州宏伟铸造厂),河庄街道-杭州天然气有限公司,围垦垦区-一工段片区-杭州大江东产业集聚区水利工程管理所,南阳街道-横蓬行政村-杭州市萧山区人民政府南阳街道办事处","startTime":"2019-08-21 08:00:00","stopDate":"2019-08-21 08:55:00","orgNo":"3340120","typeCode":"计划停电","poweroffArea":"35kV永丰变:青龙508线首端，2433，分路令克之间","poweroffReason":"青龙508线25号杆后段倒负荷","powerTime":"2019-08-21 08:50:48","powerComm":"送电正常","subsNo":"","lineNo":"","tgNo":"","tgName":null,"infoStatus":"1","orgName":"国网浙江杭州市钱塘新区供电公司","typeName":null,"infoStatusName":null,"dateDay":null,"orgNos":null,"nowTime":null,"countyName":null,"streetName":null,"villageName":null,"roadName":null,"communityName":null,"tranName":null,"sdLineName":null,"cityCode":"3340120","cityName":"国网浙江杭州市钱塘新区供电公司","provinceCode":null,"stopTime":"2019-08-21 08:55:00","powerType":"全部","powerOffArea":"35kV永丰变:青龙508线首端，2433，分路令克之间","powerOffReason":"青龙508线25号杆后段倒负荷","powerOffId":"2019081331020216"}],"pageModel":{"pageNow":1254,"totalCount":17789,"totalPage":1779,"tableRows":0,"pageCount":10,"beginCount":12530},"isExperi":"1"}