{"message":"","today":"2020-06-16","seleList":[{"poweroffId":2019081331020201,"sgpoweroffId":null,"subsName":"","lineName":"10kV歌舞T142线","pubTranName":"高塘岭1号公变,","scope":"浙江省-杭州市-桐庐县-钟山乡-高峰行政村-高塘岭脚自然村","startTime":"2019-08-13 16:40:35","stopDate":"2019-08-13 17:40:35","orgNo":"3340150","typeCode":"电网故障停限电","poweroffArea":"35kV钟山变:歌舞T142线-高塘岭1号公变后段","poweroffReason":"(低压停电信息)低压开关跳闸","powerTime":"2019-08-13 17:30:19","powerComm":"已送电。","subsNo":"","lineNo":"","tgNo":"","tgName":null,"infoStatus":"1","orgName":"国网浙江桐庐县供电公司","typeName":null,"infoStatusName":null,"dateDay":null,"orgNos":null,"nowTime":null,"countyName":null,"streetName":null,"villageName":null,"roadName":null,"communityName":null,"tranName":null,"sdLineName":null,"cityCode":"3340150","cityName":"国网浙江桐庐县供电公司","provinceCode":null,"stopTime":"2019-08-13 17:40:35","powerType":"全部","powerOffArea":"35kV钟山变:歌舞T142线-高塘岭1号公变后段","powerOffReason":"(低压停电信息)低压开关跳闸","powerOffId":"2019081331020201"},{"poweroffId":2019081331020184,"sgpoweroffId":null,"subsName":"","lineName":"10kV谢田Y786线","pubTranName":"建德市大岩山矿业有限公司,钦堂村茶叶山台区,建德市伟华包装装潢印刷有限公司,建德市钦堂乡钦大毛竹加工厂,六亩里台区,配电变压器,钦堂村樟坞口台区,2#变,钦堂村学校台区,建德市大岩山矿业有限公司,钦堂村大岩山台区,建德市祥瑞砂石料有限公司,建德市秀洁伟业装饰材料厂,大岩山矿业有限公司,","scope":"浙江省-杭州市-建德市-钦堂乡-钦堂行政村 钦堂自然村,大岩山自然村,溪西自然村,梅州自然村;钦堂乡-钦堂行政村 建德市伟华包装装潢印刷有限公司,建德市秀洁伟业装饰材料厂,建德市大岩山矿业有限公司,建德市祥瑞砂石料有限公司,建德市钦堂乡钦大毛竹加工厂一带用户。","startTime":"2019-08-13 15:54:00","stopDate":"2019-08-13 19:30:00","orgNo":"3340180","typeCode":"电网故障停限电","poweroffArea":"110kV钦堂变:谢田Y786线-大岩山支线0#杆真空开关后段","poweroffReason":"外力破坏导致高压电缆断线故障","powerTime":"2019-08-13 19:10:00","powerComm":"已送电","subsNo":"","lineNo":"","tgNo":"","tgName":null,"infoStatus":"1","orgName":"国网浙江建德市供电有限公司","typeName":null,"infoStatusName":null,"dateDay":null,"orgNos":null,"nowTime":null,"countyName":null,"streetName":null,"villageName":null,"roadName":null,"communityName":null,"tranName":null,"sdLineName":null,"cityCode":"3340180","cityName":"国网浙江建德市供电有限公司","provinceCode":null,"stopTime":"2019-08-13 19:30:00","powerType":"全部","powerOffArea":"110kV钦堂变:谢田Y786线-大岩山支线0#杆真空开关后段","powerOffReason":"外力破坏导致高压电缆断线故障","powerOffId":"2019081331020184"},{"poweroffId":2019081331020180,"sgpoweroffId":null,"subsName":"","lineName":"10kV求是H557线","pubTranName":"潘板桥村感塘村公变,","scope":"浙江省-杭州市-余杭区-径山镇-潘坂桥行政村-吴山自然村,龙皇路,感塘自然村,感塘村,汪家自然村,潘坂桥自然村一带","startTime":"2019-08-20 07:40:00","stopDate":"2019-08-20 10:30:00","orgNo":"3340140","typeCode":"临时停电","poweroffArea":"110kV潘板变:求是H557线-潘板桥村感塘村公变后段","poweroffReason":"(低压停电信息)计划工作","powerTime":"2019-08-20 10:21:27","powerComm":"已送电","subsNo":"","lineNo":"","tgNo":"","tgName":null,"infoStatus":"1","orgName":"国网浙江杭州市余杭区供电有限公司","typeName":null,"infoStatusName":null,"dateDay":null,"orgNos":null,"nowTime":null,"countyName":null,"streetName":null,"villageName":null,"roadName":null,"communityName":null,"tranName":null,"sdLineName":null,"cityCode":"3340140","cityName":"国网浙江杭州市余杭区供电有限公司","provinceCode":null,"stopTime":"2019-08-20 10:30:00","powerType":"全部","powerOffArea":"110kV潘板变:求是H557线-潘板桥村感塘村公变后段","powerOffReason":"(低压停电信息)计划工作","powerOffId":"2019081331020180"},{"poweroffId":2019081331020167,"sgpoweroffId":null,"subsName":"","lineName":"10kV双义253线","pubTranName":"上莲塘村1号公变,","scope":"浙江省-杭州市-桐庐县-江南镇-莲塘行政村(潘家自然村,吴家店自然村,莲塘自然村)","startTime":"2019-08-13 15:38:47","stopDate":"2019-08-13 17:38:47","orgNo":"3340150","typeCode":"电网故障停限电","poweroffArea":"110kV石阜变:双义253线-上莲塘村1号公变后段","poweroffReason":"(低压停电信息)低压开关跳闸","powerTime":"2019-08-13 17:30:35","powerComm":"已送电。","subsNo":"","lineNo":"","tgNo":"","tgName":null,"infoStatus":"1","orgName":"国网浙江桐庐县供电公司","typeName":null,"infoStatusName":null,"dateDay":null,"orgNos":null,"nowTime":null,"countyName":null,"streetName":null,"villageName":null,"roadName":null,"communityName":null,"tranName":null,"sdLineName":null,"cityCode":"3340150","cityName":"国网浙江桐庐县供电公司","provinceCode":null,"stopTime":"2019-08-13 17:38:47","powerType":"全部","powerOffArea":"110kV石阜变:双义253线-上莲塘村1号公变后段","powerOffReason":"(低压停电信息)低压开关跳闸","powerOffId":"2019081331020167"},{"poweroffId":2019081331020163,"sgpoweroffId":null,"subsName":"","lineName":"10kV程头Y138线","pubTranName":"新程村黄立洋台区,万龙村大路上台区,江东村桔子山台区配电变压器,爱迈思工艺品（杭州）有限公司,杭州罗龙科技实业有限公司,建德市华玲塑钢铝合金门窗厂,浙江斐凌工具有限公司3#志变,大畈村桔子山台区,杭州鼎丰电气有限公司,杭州梅园工艺寝饰有限公司,建德市迪佳纺织品有限公司,建德市五行化纤有限公司2#,建德市铧阳机械链条有限公司,乾潭镇第二小学,杭州乾春实业有限公司1#变压器,杭州胜奇纺塑有限公司,建德市乾潭镇雁鸽五金加工厂,大畈村蔡家台区,建德市鸿源木业有限公司,乾潭镇黄立洋北台区,1#变压器,建德市五行化纤有限公司1#,万龙村天星桥台区,乾潭镇黄立洋东台区,建德市不凡家纺有限公司,","scope":"浙江省-杭州市-建德市-乾潭镇-大畈行政村(连塘自然村,蔡家自然村,大畈自然村),大洋镇-江东行政村(上徐自然村,何家坞自然村,血坞龙自然村,杨宅后自然村,三角坂自然村,后垅自然村),乾潭镇(万龙行政村-大路上自然村,黄立洋工业园区-黄立洋,新程行政村-黄立洋自然村,牌楼行政村-牌楼自然村);乾潭镇(建德市不凡家纺有限公司,乾潭镇第二小学,杭州胜奇纺塑有限公司,杭州萌辰科技有限公司,建德市恒达五金工具有限公司,建德市铧阳机械链条有限公司,建德市迪佳纺织品有限公司,樱花木门(建德)有限公司,杭州沧海笑家居有限公司,杭州乾春实业有限公司,建德市恒发工具有限公司,建德市鸿源木业有限公司,杭州罗龙科技实业有限公司,杭州鼎丰电气有限公司,建德市乾潭镇雁鸽五金加工厂,浙江斐凌工具有限公司)一带用户。","startTime":"2019-08-13 15:32:00","stopDate":"2019-08-13 18:00:00","orgNo":"3340180","typeCode":"电网故障停限电","poweroffArea":"110kV乾潭变:程头Y138线程头138线01#开关后段","poweroffReason":"挖机施工导致高压开关跳闸故障（原预计停电结束时间19:00，由于施工现场环境比较复杂，存在不确定因素，因此预估施工时间适当放长了，目前故障已修复，现将停电时间变更至18:00。）","powerTime":"2019-08-13 17:47:00","powerComm":"已送电","subsNo":"","lineNo":"","tgNo":"","tgName":null,"infoStatus":"1","orgName":"国网浙江建德市供电有限公司","typeName":null,"infoStatusName":null,"dateDay":null,"orgNos":null,"nowTime":null,"countyName":null,"streetName":null,"villageName":null,"roadName":null,"communityName":null,"tranName":null,"sdLineName":null,"cityCode":"3340180","cityName":"国网浙江建德市供电有限公司","provinceCode":null,"stopTime":"2019-08-13 18:00:00","powerType":"全部","powerOffArea":"110kV乾潭变:程头Y138线程头138线01#开关后段","powerOffReason":"挖机施工导致高压开关跳闸故障（原预计停电结束时间19:00，由于施工现场环境比较复杂，存在不确定因素，因此预估施工时间适当放长了，目前故障已修复，现将停电时间变更至18:00。）","powerOffId":"2019081331020163"},{"poweroffId":2019081331020161,"sgpoweroffId":null,"subsName":"","lineName":"10kV东社C785线","pubTranName":"东社村13#变,东社村1#变,","scope":"浙江省-杭州市-萧山区-瓜沥镇-东社行政村(东社自然村,中心路,工新路,河西中路)","startTime":"2019-08-21 09:30:00","stopDate":"2019-08-21 11:30:00","orgNo":"3340130","typeCode":"计划停电","poweroffArea":"35kV坎山变:东社C785线-东社村1#变后段;东社C785线-东社村13#变后段","poweroffReason":"综合变令克消缺 原停电结束时间:2019-08-21 16:30:00,变更停电结束时间:2019-08-21 11:30:00。由于计划工作提前完成,故需要提前送电。","powerTime":"2019-08-21 10:50:10","powerComm":"已送电","subsNo":"","lineNo":"","tgNo":"","tgName":null,"infoStatus":"1","orgName":"国网浙江杭州市萧山区供电有限公司","typeName":null,"infoStatusName":null,"dateDay":null,"orgNos":null,"nowTime":null,"countyName":null,"streetName":null,"villageName":null,"roadName":null,"communityName":null,"tranName":null,"sdLineName":null,"cityCode":"3340130","cityName":"国网浙江杭州市萧山区供电有限公司","provinceCode":null,"stopTime":"2019-08-21 11:30:00","powerType":"全部","powerOffArea":"35kV坎山变:东社C785线-东社村1#变后段;东社C785线-东社村13#变后段","powerOffReason":"综合变令克消缺 原停电结束时间:2019-08-21 16:30:00,变更停电结束时间:2019-08-21 11:30:00。由于计划工作提前完成,故需要提前送电。","powerOffId":"2019081331020161"},{"poweroffId":2019081331020130,"sgpoweroffId":null,"subsName":"","lineName":"10kV祥村G102线","pubTranName":"苏家村委公变,","scope":"浙江省杭州市余杭区南苑街道:保障桥社区苏家社区一带","startTime":"2019-08-21 07:00:00","stopDate":"2019-08-21 10:20:00","orgNo":"3340140","typeCode":"计划停电","poweroffArea":"110kV临平变:祥村G102线苏家村委公变","poweroffReason":"(低压停电信息)配网工程2019年余杭公司南苑钱塘台区等0.4kV配电线路整治工程拆除导线1档、做拉线1组。原停电结束时间12：00，因检修力量充足，提前完成工作任务，现变更停电结束时间10：20。","powerTime":"2019-08-21 09:38:07","powerComm":"施工结束","subsNo":"","lineNo":"","tgNo":"","tgName":null,"infoStatus":"1","orgName":"国网浙江杭州市余杭区供电有限公司","typeName":null,"infoStatusName":null,"dateDay":null,"orgNos":null,"nowTime":null,"countyName":null,"streetName":null,"villageName":null,"roadName":null,"communityName":null,"tranName":null,"sdLineName":null,"cityCode":"3340140","cityName":"国网浙江杭州市余杭区供电有限公司","provinceCode":null,"stopTime":"2019-08-21 10:20:00","powerType":"全部","powerOffArea":"110kV临平变:祥村G102线苏家村委公变","powerOffReason":"(低压停电信息)配网工程2019年余杭公司南苑钱塘台区等0.4kV配电线路整治工程拆除导线1档、做拉线1组。原停电结束时间12：00，因检修力量充足，提前完成工作任务，现变更停电结束时间10：20。","powerOffId":"2019081331020130"},{"poweroffId":2019081331020128,"sgpoweroffId":null,"subsName":"","lineName":"10kV多瑙A395线","pubTranName":"1#,杭州铁路工务段,2#,浙江交工集团股份有限公司计量点,3#,2#,1#,杭州钱塘江灌区,2#,3#,2#,杭甬高速,1#,万通管业,1#,中国移动4#,3#,自祥铸造,钱塘江灌区管理处,3#,","scope":"浙江省-杭州市-萧山区-宁围镇、宁围街道-二桥行政村(中国移动通信集团浙江有限公司萧山分公司,杭州市萧山区钱塘江灌区管理处,上海铁路局杭州工务段,杭州万通管业有限公司,浙江沪杭甬高速公路股份有限公司杭州管理处,浙江交工集团股份有限公司),经济技术开发区-钱江社区-杭州自祥铸造有限公司,宁围街道-丰北行政村-杭州市萧山钱江世纪城管理委员会等一带","startTime":"2019-08-13 14:39:52","stopDate":"2019-08-13 16:59:52","orgNo":"3340130","typeCode":"电网故障停限电","poweroffArea":"110kV顺坝变:多瑙A395线开关后段","poweroffReason":"高压柱上断路器短路故障","powerTime":"2019-08-13 16:16:02","powerComm":"已送电","subsNo":"","lineNo":"","tgNo":"","tgName":null,"infoStatus":"1","orgName":"国网浙江杭州市萧山区供电有限公司","typeName":null,"infoStatusName":null,"dateDay":null,"orgNos":null,"nowTime":null,"countyName":null,"streetName":null,"villageName":null,"roadName":null,"communityName":null,"tranName":null,"sdLineName":null,"cityCode":"3340130","cityName":"国网浙江杭州市萧山区供电有限公司","provinceCode":null,"stopTime":"2019-08-13 16:59:52","powerType":"全部","powerOffArea":"110kV顺坝变:多瑙A395线开关后段","powerOffReason":"高压柱上断路器短路故障","powerOffId":"2019081331020128"},{"poweroffId":2019081331020127,"sgpoweroffId":null,"subsName":"","lineName":"10kV迪青A396线","pubTranName":"建科水泥,文春机械,京奥新科技,八堡畜牧,樱道机械,天成通风,顺坝村1#变,万华轴承,乐天有机肥,京奥新科技1#,杭州惠亚农业科技有限公司,华信自行车架有限公司,杭州文春机械有限公司,顺坝村7#变,正方商品混凝土,杭州正方实业公司,亦能生物科技,广业建筑机械,京奥新科技,创业物业,九堡杨公社区,利磊建筑,杭州海塘机械,顺坝村17#变,志达沙场,宇葳机械,璐易砂石场,1#变,徐祥水产,杭州渊景农业开发有限公司,杭州惠亚农科技有限公司,程杰车业,京奥新科技2#,杭州顺昊餐饮有限公司,杭州迪青生态农庄有限公司,志航汽车,江干区庆飞沙场,江南大地,杭州海塘机械,巨星蓄电池,杭州惠亚农业科技有限公司,渊景农业,国泰,","scope":"浙江省-杭州市-萧山区-宁围镇、宁围街道-顺坝行政村-顺坝自然村;浙江省-杭州市-萧山区-新街街道-江南行政村-杭州建科水泥助剂有限公司,经济技术开发区-钱江社区(杭州萧山宁围镇璐易砂石服务部,传化智联股份有限公司,浙江传化江南大地发展有限公司,杭州萧山钱江农场庆飞砂石场,浙江广业建筑机械设备制造有限公司,杭州樱道机械有限公司,杭州正方商品混凝土搅拌厂,杭州正方实业集团有限公司),宁围街道-顺坝行政村(杭州万华轴承有限公司,杭州巨星蓄电池厂,杭州天成通风设备厂,杭州市江干区九堡镇杨公社区居民委员会,杭州迪青生态农庄有限公司,杭州江干区八堡畜牧养殖场,杭州亦能生物科技有限公司,杭州嘉誉物流有限公司,杭州文春机械有限公司,杭州海塘机械有限公司,杭州萧山城投资产经营开发有限公司,杭州渊景农业开发有限公司,杭州利磊建筑装饰有限公司,杭州京奥新科技开发有限公司,杭州顺昊餐饮有限公司,杭州八桥农产品有限公司,杭州惠亚农业科技有限公司),宁围街道(二桥行政村-杭州萧山宁围志达砂石场,丰北行政村-杭州乐天有机肥有限公司,宁新行政村-杭州文春机械有限公司)等一带","startTime":"2019-08-13 14:38:05","stopDate":"2019-08-13 16:59:05","orgNo":"3340130","typeCode":"电网故障停限电","poweroffArea":"110kV顺坝变:迪青A396线开关后段","poweroffReason":"高压柱上断路器短路故障","powerTime":"2019-08-13 16:15:35","powerComm":"已送电","subsNo":"","lineNo":"","tgNo":"","tgName":null,"infoStatus":"1","orgName":"国网浙江杭州市萧山区供电有限公司","typeName":null,"infoStatusName":null,"dateDay":null,"orgNos":null,"nowTime":null,"countyName":null,"streetName":null,"villageName":null,"roadName":null,"communityName":null,"tranName":null,"sdLineName":null,"cityCode":"3340130","cityName":"国网浙江杭州市萧山区供电有限公司","provinceCode":null,"stopTime":"2019-08-13 16:59:05","powerType":"全部","powerOffArea":"110kV顺坝变:迪青A396线开关后段","powerOffReason":"高压柱上断路器短路故障","powerOffId":"2019081331020127"},{"poweroffId":2019081331020125,"sgpoweroffId":null,"subsName":"","lineName":"10kV胥口D712线","pubTranName":"胥口村5#徐家山公变变压器,","scope":"浙江省-杭州市-富阳区-胥口镇-胥口行政村(泥塍头自然村,马家山自然村,刘家坟头自然村,胥口自然村)","startTime":"2019-08-13 14:26:02","stopDate":"2019-08-13 16:00:02","orgNo":"3340170","typeCode":"电网故障停限电","poweroffArea":"110kV松溪变:胥口D712线-胥口村5#徐家山公变变压器后段","poweroffReason":"(低压停电信息)低压开关跳闸","powerTime":"2019-08-13 15:41:30","powerComm":"已送电","subsNo":"","lineNo":"","tgNo":"","tgName":null,"infoStatus":"1","orgName":"国网浙江杭州市富阳区供电公司","typeName":null,"infoStatusName":null,"dateDay":null,"orgNos":null,"nowTime":null,"countyName":null,"streetName":null,"villageName":null,"roadName":null,"communityName":null,"tranName":null,"sdLineName":null,"cityCode":"3340170","cityName":"国网浙江杭州市富阳区供电公司","provinceCode":null,"stopTime":"2019-08-13 16:00:02","powerType":"全部","powerOffArea":"110kV松溪变:胥口D712线-胥口村5#徐家山公变变压器后段","powerOffReason":"(低压停电信息)低压开关跳闸","powerOffId":"2019081331020125"}],"pageModel":{"pageNow":1255,"totalCount":17789,"totalPage":1779,"tableRows":0,"pageCount":10,"beginCount":12540},"isExperi":"1"}