{"message":"","today":"2020-06-16","seleList":[{"poweroffId":2019081331010123,"sgpoweroffId":null,"subsName":"","lineName":"10kV大兴D513线","pubTranName":"大田村8号卫生院公变,","scope":"浙江省-杭州市-富阳区-常安镇(大田村行政村-大田卫生院自然村)一带;","startTime":"2019-08-14 06:30:00","stopDate":"2019-08-14 12:50:11","orgNo":"3340170","typeCode":"电网故障停限电","poweroffArea":"110kV常安变:大兴D513线-大田村8号卫生院后段","poweroffReason":"低压配电设备故障，原停电结束时间：2019-08-14 12:40:47，现变更为：2019-08-14 12:50:11，因政策原因延迟送电","powerTime":"2019-08-14 12:11:20","powerComm":"已送电","subsNo":"","lineNo":"","tgNo":"","tgName":null,"infoStatus":"1","orgName":"国网浙江杭州市富阳区供电公司","typeName":null,"infoStatusName":null,"dateDay":null,"orgNos":null,"nowTime":null,"countyName":null,"streetName":null,"villageName":null,"roadName":null,"communityName":null,"tranName":null,"sdLineName":null,"cityCode":"3340170","cityName":"国网浙江杭州市富阳区供电公司","provinceCode":null,"stopTime":"2019-08-14 12:50:11","powerType":"全部","powerOffArea":"110kV常安变:大兴D513线-大田村8号卫生院后段","powerOffReason":"低压配电设备故障，原停电结束时间：2019-08-14 12:40:47，现变更为：2019-08-14 12:50:11，因政策原因延迟送电","powerOffId":"2019081331010123"},{"poweroffId":2019081231020286,"sgpoweroffId":null,"subsName":"","lineName":"10kV沈家D212线","pubTranName":"大树下村8号村委口二公变,受降大树下村5号塘溪堰公变,大树下村1#村委公变,大树下村4#黄沙畈公变,1#变,","scope":"浙江省-杭州市-富阳区-银湖街道-银湖行政村-祝家村自然村,银湖街道-受降行政村(大树下自然村,甘口自然村,黄沙畈自然村);浙江省-杭州市-富阳区-银湖街道-受降行政村-杭州市富阳区皇天畈水利管理处","startTime":"2019-08-12 23:35:03","stopDate":"2019-08-13 00:35:03","orgNo":"3340170","typeCode":"电网故障停限电","poweroffArea":"110kV银湖变:沈家D212线-大树下分线开关后段","poweroffReason":"(低压停电信息)低压开关跳闸","powerTime":"2019-08-12 23:55:33","powerComm":"已送电","subsNo":"","lineNo":"","tgNo":"","tgName":null,"infoStatus":"1","orgName":"国网浙江杭州市富阳区供电公司","typeName":null,"infoStatusName":null,"dateDay":null,"orgNos":null,"nowTime":null,"countyName":null,"streetName":null,"villageName":null,"roadName":null,"communityName":null,"tranName":null,"sdLineName":null,"cityCode":"3340170","cityName":"国网浙江杭州市富阳区供电公司","provinceCode":null,"stopTime":"2019-08-13 00:35:03","powerType":"全部","powerOffArea":"110kV银湖变:沈家D212线-大树下分线开关后段","powerOffReason":"(低压停电信息)低压开关跳闸","powerOffId":"2019081231020286"},{"poweroffId":2019081231020274,"sgpoweroffId":null,"subsName":"","lineName":"10kV展宏C390线","pubTranName":"红山农场一分场2#公变,","scope":"浙江省-杭州市-萧山区-新街镇-新街街道，红山农场-同舟社区-一分场、浙江省杭州市萧山区新街街道红山龙塔通周社区等一带","startTime":"2019-08-12 21:37:32","stopDate":"2019-08-13 01:30:59","orgNo":"3340130","typeCode":"电网故障停限电","poweroffArea":"110kV红山变:展宏C390线-红山一分场2#变台区低压开关","poweroffReason":"(低压停电信息)低压漏电保护器短路故障 原停电结束时间：2019-08-12 23:45、变更停电结束时间：2019-08-13 01:30，由于抢修工作难度大，故需要延迟送电。","powerTime":"2019-08-13 00:35:51","powerComm":"已送电","subsNo":"","lineNo":"","tgNo":"","tgName":null,"infoStatus":"1","orgName":"国网浙江杭州市萧山区供电有限公司","typeName":null,"infoStatusName":null,"dateDay":null,"orgNos":null,"nowTime":null,"countyName":null,"streetName":null,"villageName":null,"roadName":null,"communityName":null,"tranName":null,"sdLineName":null,"cityCode":"3340130","cityName":"国网浙江杭州市萧山区供电有限公司","provinceCode":null,"stopTime":"2019-08-13 01:30:59","powerType":"全部","powerOffArea":"110kV红山变:展宏C390线-红山一分场2#变台区低压开关","powerOffReason":"(低压停电信息)低压漏电保护器短路故障 原停电结束时间：2019-08-12 23:45、变更停电结束时间：2019-08-13 01:30，由于抢修工作难度大，故需要延迟送电。","powerOffId":"2019081231020274"},{"poweroffId":2019081231020271,"sgpoweroffId":null,"subsName":"","lineName":"10kV山末C624线","pubTranName":"山末址村13#变,凯达制衣厂,1#,山末址村22#变,山末址村17#变,山末址村21#变,山末址村26#变,国际机场,山末址村18#变,山末址村3#变,山末址村30#变,山末址村11#变,远翅塑料2#,高速公路,山末址村15#变,山末址村27#变,远翅塑料1#,山末址村19#变,山末址村6#变,山末址村28#变,1#,山末址村12#变,山末址村23#变,山末址村2#变,山末址村5#变,市政路灯3#,山末址村1#变,山末址村10#变,盛展机电,山末址村24#变,","scope":"浙江省-杭州市-萧山区-新街街道-新街镇-山末址行政村(山末址自然村,03省道东复线);新街街道-山末址行政村(杭州萧山国际机场有限公司,浙江省交通投资集团有限公司杭金衢分公司杭绍管理处,杭州市萧山区新街镇人民政府,杭州飞加纺织有限公司,杭州富泰仓储有限公司),新街街道(元沙行政村-杭州盛展机电有限公司,双圩行政村-中铁四局集团第二工程有限公司)、远翅控股有限公司、浙江省杭州市萧山区新街镇山末址村对过1098号等一带","startTime":"2019-08-12 20:47:00","stopDate":"2019-08-13 09:00:59","orgNo":"3340130","typeCode":"电网故障停限电","poweroffArea":"110kV新街变:山末C624线","poweroffReason":"高压柱上断路器短路故障 原停电结束时间：2019-08-12 23:00，变更停电结束时间：2019-08-13 09:00，由于抢修工作难度大，故需要延迟送电。","powerTime":"2019-08-13 08:12:17","powerComm":"已送电","subsNo":"","lineNo":"","tgNo":"","tgName":null,"infoStatus":"1","orgName":"国网浙江杭州市萧山区供电有限公司","typeName":null,"infoStatusName":null,"dateDay":null,"orgNos":null,"nowTime":null,"countyName":null,"streetName":null,"villageName":null,"roadName":null,"communityName":null,"tranName":null,"sdLineName":null,"cityCode":"3340130","cityName":"国网浙江杭州市萧山区供电有限公司","provinceCode":null,"stopTime":"2019-08-13 09:00:59","powerType":"全部","powerOffArea":"110kV新街变:山末C624线","powerOffReason":"高压柱上断路器短路故障 原停电结束时间：2019-08-12 23:00，变更停电结束时间：2019-08-13 09:00，由于抢修工作难度大，故需要延迟送电。","powerOffId":"2019081231020271"},{"poweroffId":2019081231020262,"sgpoweroffId":null,"subsName":"","lineName":"10kV金西T263线","pubTranName":"周家1号公变,","scope":"浙江省-杭州市-桐庐县-城南街道-春江行政村(春江自然村,周家自然村，杨家自然村)","startTime":"2019-08-12 19:32:01","stopDate":"2019-08-12 21:00:01","orgNo":"3340150","typeCode":"电网故障停限电","poweroffArea":"35kV三合变:金西T263线-周家1号公变后段","poweroffReason":"(低压停电信息)低压开关跳闸","powerTime":"2019-08-12 20:40:14","powerComm":"已送电","subsNo":"","lineNo":"","tgNo":"","tgName":null,"infoStatus":"1","orgName":"国网浙江桐庐县供电公司","typeName":null,"infoStatusName":null,"dateDay":null,"orgNos":null,"nowTime":null,"countyName":null,"streetName":null,"villageName":null,"roadName":null,"communityName":null,"tranName":null,"sdLineName":null,"cityCode":"3340150","cityName":"国网浙江桐庐县供电公司","provinceCode":null,"stopTime":"2019-08-12 21:00:01","powerType":"全部","powerOffArea":"35kV三合变:金西T263线-周家1号公变后段","powerOffReason":"(低压停电信息)低压开关跳闸","powerOffId":"2019081231020262"},{"poweroffId":2019081231020245,"sgpoweroffId":null,"subsName":"","lineName":"10kV学田T107线","pubTranName":"康乐路6号公变,","scope":"浙江省-杭州市-桐庐县-桐君街道-东门社区(广场路,康乐路),桐君街道-迎春社区(康乐路,学田路)","startTime":"2019-08-12 17:32:16","stopDate":"2019-08-12 19:32:16","orgNo":"3340150","typeCode":"电网故障停限电","poweroffArea":"110kV桐庐变:学田T107线-康乐路6号公变后段","poweroffReason":"(低压停电信息)低压开关跳闸","powerTime":"2019-08-12 19:02:50","powerComm":"已送电","subsNo":"","lineNo":"","tgNo":"","tgName":null,"infoStatus":"1","orgName":"国网浙江桐庐县供电公司","typeName":null,"infoStatusName":null,"dateDay":null,"orgNos":null,"nowTime":null,"countyName":null,"streetName":null,"villageName":null,"roadName":null,"communityName":null,"tranName":null,"sdLineName":null,"cityCode":"3340150","cityName":"国网浙江桐庐县供电公司","provinceCode":null,"stopTime":"2019-08-12 19:32:16","powerType":"全部","powerOffArea":"110kV桐庐变:学田T107线-康乐路6号公变后段","powerOffReason":"(低压停电信息)低压开关跳闸","powerOffId":"2019081231020245"},{"poweroffId":2019081231020226,"sgpoweroffId":null,"subsName":"","lineName":"10kV三山D402线","pubTranName":"春安村1#村中公变,富阳格林机械制造有限公司,杭州广胜管业有限公司,富阳市春安加油站有限公司,春安村6#排楼公变,春安村9#徐新公变,春安村8#江边公变,","scope":"浙江省-杭州市-富阳区-鹿山街道-汤家埠行政村(春安自然村,屋基上自然村,汤家埠自然村,官房自然村,牌楼下自然村);鹿山街道(杭州富阳格林机械制造有限公司,杭州广胜管业有限公司,杭州富阳春安加油站有限公司)","startTime":"2019-08-12 16:50:00","stopDate":"2019-08-12 18:50:00","orgNo":"3340170","typeCode":"电网故障停限电","poweroffArea":"110kV长春变:三山D402线三山D402线41#杆开关后段","poweroffReason":"高压开关跳闸","powerTime":"2019-08-12 18:15:35","powerComm":"已送电","subsNo":"","lineNo":"","tgNo":"","tgName":null,"infoStatus":"1","orgName":"国网浙江杭州市富阳区供电公司","typeName":null,"infoStatusName":null,"dateDay":null,"orgNos":null,"nowTime":null,"countyName":null,"streetName":null,"villageName":null,"roadName":null,"communityName":null,"tranName":null,"sdLineName":null,"cityCode":"3340170","cityName":"国网浙江杭州市富阳区供电公司","provinceCode":null,"stopTime":"2019-08-12 18:50:00","powerType":"全部","powerOffArea":"110kV长春变:三山D402线三山D402线41#杆开关后段","powerOffReason":"高压开关跳闸","powerOffId":"2019081231020226"},{"poweroffId":2019081231020225,"sgpoweroffId":null,"subsName":"","lineName":"10kV汤家D418线","pubTranName":"杭州骊峰山生态农业开发有限公司,汤家埠1#埠头公变,春安村5号市场公变,春安村2#新房公变,三山上里联合机埠,富阳市路灯安装维修管理所1#变,汤家埠4号集镇公变,汤家埠村,汤家埠村,汤家埠春安村11#公变,富阳市鹿山街道汤家埠沙场,杭州润德车轮制造有限公司2#,杭州市富阳区人民政府鹿山街道办事处1#变,杭州润德车轮制造有限公司1#,富阳市禹航新型建材有限公司,杭州市富阳区人民政府鹿山街道办事处2#变,汤家埠5号孙家公变,汤家埠2号闻家公变,","scope":"浙江省-杭州市-富阳区-鹿山街道-汤家埠行政村(闻家自然村,汤家埠自然村,春安自然村,大房自然村,孙家自然村,埠头自然村);鹿山街道(杭州市富阳区鹿山街道汤家埠村股份经济合作社,杭州骊峰山生态农业开发有限公司,富阳市鹿山街道汤家埠沙场,杭州富阳禹航新型建材有限公司,杭州富阳城市照明工程有限公司,杭州市富阳区人民政府鹿山街道办事处,杭州润德车轮制造有限公司)","startTime":"2019-08-12 16:48:00","stopDate":"2019-08-12 18:48:00","orgNo":"3340170","typeCode":"电网故障停限电","poweroffArea":"110kV长春变:汤家D418线汤家D4181开关后段","poweroffReason":"高压开关跳闸","powerTime":"2019-08-12 18:15:21","powerComm":"已送电","subsNo":"","lineNo":"","tgNo":"","tgName":null,"infoStatus":"1","orgName":"国网浙江杭州市富阳区供电公司","typeName":null,"infoStatusName":null,"dateDay":null,"orgNos":null,"nowTime":null,"countyName":null,"streetName":null,"villageName":null,"roadName":null,"communityName":null,"tranName":null,"sdLineName":null,"cityCode":"3340170","cityName":"国网浙江杭州市富阳区供电公司","provinceCode":null,"stopTime":"2019-08-12 18:48:00","powerType":"全部","powerOffArea":"110kV长春变:汤家D418线汤家D4181开关后段","powerOffReason":"高压开关跳闸","powerOffId":"2019081231020225"},{"poweroffId":2019081231020210,"sgpoweroffId":null,"subsName":"","lineName":"10kV许源R244线","pubTranName":"淳安县里商乡里阳村村民委员会配变,上江埠移动基站配变,淳安县千岛湖国家森林公园,渔政上江专变,淳安县福林交通设施有限公司配变,卸坑公变,淳安县环湖公路上江埠大桥及接线工程建设指挥部,公路养护朝阳隧道路灯专变,港口桥检测站专变,","scope":"浙江省-杭州市-淳安县-里商乡-里阳行政村(小坑自然村,驮坑自然村,卸坑自然村),大墅镇-桐川行政村-稠木坞自然村,枫树岭镇-汪村行政村-汪家田自然村;浙江省-杭州市-淳安县-大墅镇-桃源凌家行政村-淳安县公路养护工程有限公司,里商乡-里阳行政村(淳安县里商乡里阳村村民委员会,淳安县福林交通设施有限公司,中国移动通信集团浙江有限公司淳安分公司,杭州千岛湖国家森林公园旅游发展有限公司,淳安县公路养护工程有限公司),千岛湖镇-江滨社区(淳安县公路段,淳安县渔政渔港监督管理局)","startTime":"2019-08-13 09:00:00","stopDate":"2019-08-13 11:00:00","orgNo":"3340190","typeCode":"临时停电","poweroffArea":"35kV里商变:许源R244线首端，许源R244线33号杆真空断路器，许源R244线51号杆真空断路器之间","poweroffReason":"台风过后许源244线线路设备修复","powerTime":"2019-08-13 10:48:28","powerComm":"现场工作已完成","subsNo":"","lineNo":"","tgNo":"","tgName":null,"infoStatus":"1","orgName":"国网浙江淳安县供电有限公司","typeName":null,"infoStatusName":null,"dateDay":null,"orgNos":null,"nowTime":null,"countyName":null,"streetName":null,"villageName":null,"roadName":null,"communityName":null,"tranName":null,"sdLineName":null,"cityCode":"3340190","cityName":"国网浙江淳安县供电有限公司","provinceCode":null,"stopTime":"2019-08-13 11:00:00","powerType":"全部","powerOffArea":"35kV里商变:许源R244线首端，许源R244线33号杆真空断路器，许源R244线51号杆真空断路器之间","powerOffReason":"台风过后许源244线线路设备修复","powerOffId":"2019081231020210"},{"poweroffId":2019081231020206,"sgpoweroffId":null,"subsName":"","lineName":"10kV新镇C620线","pubTranName":"双圩村14#变,双圩村3#变,江南村(新街)2#变,山末址村20#变,山末址村8#变,杭州市萧山区人民政府新街街道办事处,钱江居委会1#公变,山末址村7#变,杭州市萧山区人民政府新街街道办事处1321370659,新宇塑料,元沙村8#变,元沙村14#变,萧山区新街镇新街中心小学双圩分校,江南村(新街)6#变,双圩村8#变,中力特种玻璃,永利工贸1#,江南村(新街)4#变,双圩村1#变,元沙村17#变,山末址村25#变,远大箱包,双圩村15#变,新街供销社2#,山末址村4#变,山末址村29#变,永利工贸2#,汉缘食品,农用机械配件,新街供销社1#,盈中村14#变,双圩村18#变,双圩村4#变,同兴村12#变,浙江银河食品有限公司配电变压器,江南村(新街)1#变,双圩村5#变,双圩村16#变,双圩村10#变,山末址村16#变,江南村(新街)8#变,","scope":"浙江省-杭州市-萧山区-新街街道-新街镇-新润社区(海塘路,北塘东路),新街街道(花城社区-国槐路,山末址行政村-山末址自然村,双圩行政村-双圩自然村,江南行政村-江南自然村,元沙行政村-元沙自然村,盈中行政村-盈中自然村,新和社区-文轩路);新街街道-山末址行政村(浙江银河食品有限公司,杭州萧山永利工贸有限公司),新街街道-双圩行政村(杭州远大箱包有限公司,杭州萧山新宇塑料薄膜包装厂,浙江四和机械有限公司,萧山区新街镇新街中心小学双圩分校),新街街道-花城社区(杭州萧山满溢超市有限公司,杭州市萧山区人民政府新街街道办事处)、浙江省杭州市萧山区新街镇双圩村、浙江省杭州市萧山区新街街道麻纺厂宿舍等一带","startTime":"2019-08-12 15:50:38","stopDate":"2019-08-12 19:00:49","orgNo":"3340130","typeCode":"电网故障停限电","poweroffArea":"110kV新街变:新镇C620线","poweroffReason":"高压柱上断路器短路故障 原停电结束时间：19:50，变更停电结束时间：19:00，由于增派人员，抢修工作提前完成，故需要提前送电。","powerTime":"2019-08-12 18:06:59","powerComm":"已送电","subsNo":"","lineNo":"","tgNo":"","tgName":null,"infoStatus":"1","orgName":"国网浙江杭州市萧山区供电有限公司","typeName":null,"infoStatusName":null,"dateDay":null,"orgNos":null,"nowTime":null,"countyName":null,"streetName":null,"villageName":null,"roadName":null,"communityName":null,"tranName":null,"sdLineName":null,"cityCode":"3340130","cityName":"国网浙江杭州市萧山区供电有限公司","provinceCode":null,"stopTime":"2019-08-12 19:00:49","powerType":"全部","powerOffArea":"110kV新街变:新镇C620线","powerOffReason":"高压柱上断路器短路故障 原停电结束时间：19:50，变更停电结束时间：19:00，由于增派人员，抢修工作提前完成，故需要提前送电。","powerOffId":"2019081231020206"}],"pageModel":{"pageNow":1258,"totalCount":17789,"totalPage":1779,"tableRows":0,"pageCount":10,"beginCount":12570},"isExperi":"1"}