{"message":"","today":"2020-06-15","seleList":[{"poweroffId":2020052131020346,"sgpoweroffId":null,"subsName":"","lineName":"10kV笕九9827线","pubTranName":"畈居(三),畈居(一),畈居（九）,","scope":"浙江省-杭州市-江干区-误九堡镇-误杨公社区-杨公路,误九堡镇-误格畈社区(红普路,九环路)","startTime":"2020-05-21 23:53:00","stopDate":"2020-05-22 01:00:00","orgNo":"3340120","typeCode":"电网故障停限电","poweroffArea":"110kV笕桥变:笕九9827线格畈村一站畈村一线后段","poweroffReason":"高压开关跳闸 原停电结束时间为2020-05-22 01:53:00,为减少客户停电时间,加快工作进度,提前送电,现变更停电结束时间为2020-05-22 01:00:00","powerTime":"2020-05-22 00:12:14","powerComm":"已送电","subsNo":"","lineNo":"","tgNo":"","tgName":null,"infoStatus":"1","orgName":"国网浙江杭州市钱塘新区供电公司","typeName":null,"infoStatusName":null,"dateDay":null,"orgNos":null,"nowTime":null,"countyName":null,"streetName":null,"villageName":null,"roadName":null,"communityName":null,"tranName":null,"sdLineName":null,"cityCode":"3340120","cityName":"国网浙江杭州市钱塘新区供电公司","provinceCode":null,"stopTime":"2020-05-22 01:00:00","powerType":"全部","powerOffArea":"110kV笕桥变:笕九9827线格畈村一站畈村一线后段","powerOffReason":"高压开关跳闸 原停电结束时间为2020-05-22 01:53:00,为减少客户停电时间,加快工作进度,提前送电,现变更停电结束时间为2020-05-22 01:00:00","powerOffId":"2020052131020346"},{"poweroffId":2020052131020313,"sgpoweroffId":null,"subsName":"","lineName":"10kV众力C933线","pubTranName":"群益村5#变,","scope":"浙江省-杭州市-萧山区-瓜沥镇-群益行政村-群益自然村","startTime":"2020-05-31 09:00:00","stopDate":"2020-05-31 13:10:00","orgNo":"3340130","typeCode":"计划停电","poweroffArea":"110kV党山变:众力C933线-群益村5#变跌落式熔断器后段","poweroffReason":"群益村5#变漏油更换400kVA一台 原停电结束时间为2020-05-31 15:00:00,为减少客户停电时间,加快工作进度,提前送电,现变更停电结束时间为2020-05-31 13:10:00","powerTime":"2020-05-31 12:18:08","powerComm":"已送电","subsNo":"","lineNo":"","tgNo":"","tgName":null,"infoStatus":"1","orgName":"国网浙江杭州市萧山区供电有限公司","typeName":null,"infoStatusName":null,"dateDay":null,"orgNos":null,"nowTime":null,"countyName":null,"streetName":null,"villageName":null,"roadName":null,"communityName":null,"tranName":null,"sdLineName":null,"cityCode":"3340130","cityName":"国网浙江杭州市萧山区供电有限公司","provinceCode":null,"stopTime":"2020-05-31 13:10:00","powerType":"全部","powerOffArea":"110kV党山变:众力C933线-群益村5#变跌落式熔断器后段","powerOffReason":"群益村5#变漏油更换400kVA一台 原停电结束时间为2020-05-31 15:00:00,为减少客户停电时间,加快工作进度,提前送电,现变更停电结束时间为2020-05-31 13:10:00","powerOffId":"2020052131020313"},{"poweroffId":2020052131020276,"sgpoweroffId":null,"subsName":"","lineName":"10kV栋山D410线","pubTranName":"晖山村5号下台门公变,","scope":"浙江省-杭州市-富阳区-鹿山街道-南山行政村(晖山自然村,后山自然村)","startTime":"2020-05-23 08:30:00","stopDate":"2020-05-23 17:00:00","orgNo":"3340170","typeCode":"临时停电","poweroffArea":"110kV长春变:栋山D410线-晖山村5号下台门公变后段","poweroffReason":"(低压停电信息)中铁十二局集团有限公司湖杭铁路项目经理部三分部线路迁改工程：低压配合停电等工作","powerTime":"2020-05-23 16:36:59","powerComm":"已送电","subsNo":"","lineNo":"","tgNo":"","tgName":null,"infoStatus":"1","orgName":"国网浙江杭州市富阳区供电公司","typeName":null,"infoStatusName":null,"dateDay":null,"orgNos":null,"nowTime":null,"countyName":null,"streetName":null,"villageName":null,"roadName":null,"communityName":null,"tranName":null,"sdLineName":null,"cityCode":"3340170","cityName":"国网浙江杭州市富阳区供电公司","provinceCode":null,"stopTime":"2020-05-23 17:00:00","powerType":"全部","powerOffArea":"110kV长春变:栋山D410线-晖山村5号下台门公变后段","powerOffReason":"(低压停电信息)中铁十二局集团有限公司湖杭铁路项目经理部三分部线路迁改工程：低压配合停电等工作","powerOffId":"2020052131020276"},{"poweroffId":2020052131020274,"sgpoweroffId":null,"subsName":"","lineName":"10kV蒋家D408线","pubTranName":"蒋家村16号富棉公变,","scope":"浙江省-杭州市-富阳区-鹿山街道-南山行政村-晖山自然村,鹿山街道-蒋家行政村(青春路,蒋家自然村,中心路,环厂路,阳光路,最光路,徐家路)","startTime":"2020-05-23 08:30:00","stopDate":"2020-05-23 17:00:00","orgNo":"3340170","typeCode":"临时停电","poweroffArea":"110kV长春变:蒋家D408线-蒋家村16号富棉公变后段","poweroffReason":"(低压停电信息)中铁十二局集团有限公司湖杭铁路项目经理部三分部线路迁改工程：低压配合停电等工作","powerTime":"2020-05-23 16:36:36","powerComm":"已送电","subsNo":"","lineNo":"","tgNo":"","tgName":null,"infoStatus":"1","orgName":"国网浙江杭州市富阳区供电公司","typeName":null,"infoStatusName":null,"dateDay":null,"orgNos":null,"nowTime":null,"countyName":null,"streetName":null,"villageName":null,"roadName":null,"communityName":null,"tranName":null,"sdLineName":null,"cityCode":"3340170","cityName":"国网浙江杭州市富阳区供电公司","provinceCode":null,"stopTime":"2020-05-23 17:00:00","powerType":"全部","powerOffArea":"110kV长春变:蒋家D408线-蒋家村16号富棉公变后段","powerOffReason":"(低压停电信息)中铁十二局集团有限公司湖杭铁路项目经理部三分部线路迁改工程：低压配合停电等工作","powerOffId":"2020052131020274"},{"poweroffId":2020052131020268,"sgpoweroffId":null,"subsName":"","lineName":"10kV蔡家D893线","pubTranName":"杭州鸿世电器有限公司,","scope":"浙江省-杭州市-富阳区-灵桥镇-新华行政村-杭州鸿世电器股份有限公司一带","startTime":"2020-05-24 08:00:00","stopDate":"2020-05-24 16:30:00","orgNo":"3340170","typeCode":"临时停电","poweroffArea":"110kV永春变:蔡家D893线-鸿世电器分线开关后段","poweroffReason":"江南区域学校空调业扩配套工程：鸿世电器分线6#杆安装保险丝1组，电缆上杆、线路搭头等工作。","powerTime":"2020-05-24 16:15:19","powerComm":"已送电","subsNo":"","lineNo":"","tgNo":"","tgName":null,"infoStatus":"1","orgName":"国网浙江杭州市富阳区供电公司","typeName":null,"infoStatusName":null,"dateDay":null,"orgNos":null,"nowTime":null,"countyName":null,"streetName":null,"villageName":null,"roadName":null,"communityName":null,"tranName":null,"sdLineName":null,"cityCode":"3340170","cityName":"国网浙江杭州市富阳区供电公司","provinceCode":null,"stopTime":"2020-05-24 16:30:00","powerType":"全部","powerOffArea":"110kV永春变:蔡家D893线-鸿世电器分线开关后段","powerOffReason":"江南区域学校空调业扩配套工程：鸿世电器分线6#杆安装保险丝1组，电缆上杆、线路搭头等工作。","powerOffId":"2020052131020268"},{"poweroffId":2020052131020266,"sgpoweroffId":null,"subsName":"","lineName":"10kV象横9155线","pubTranName":"方家畈,","scope":"浙江省-杭州市-西湖区-转塘街道(江口社区-江口村道,方家畈社区-梦园路)","startTime":"2020-05-21 15:57:00","stopDate":"2020-05-21 18:57:00","orgNo":"3340101","typeCode":"电网故障停限电","poweroffArea":"110kV象山变:象横9155线方家畈配变","poweroffReason":"高压开关跳闸 原停电结束时间为2020-05-21 17:57:00,因施工现场环境复杂原因,延迟送电,现变更停电结束时间为2020-05-21 18:57:00","powerTime":"2020-05-21 18:10:10","powerComm":"已送电","subsNo":"","lineNo":"","tgNo":"","tgName":null,"infoStatus":"1","orgName":"浙江杭州电力客户服务中心","typeName":null,"infoStatusName":null,"dateDay":null,"orgNos":null,"nowTime":null,"countyName":null,"streetName":null,"villageName":null,"roadName":null,"communityName":null,"tranName":null,"sdLineName":null,"cityCode":"3340101","cityName":"浙江杭州电力客户服务中心","provinceCode":null,"stopTime":"2020-05-21 18:57:00","powerType":"全部","powerOffArea":"110kV象山变:象横9155线方家畈配变","powerOffReason":"高压开关跳闸 原停电结束时间为2020-05-21 17:57:00,因施工现场环境复杂原因,延迟送电,现变更停电结束时间为2020-05-21 18:57:00","powerOffId":"2020052131020266"},{"poweroffId":2020052131020265,"sgpoweroffId":null,"subsName":"","lineName":"10kV巨星D926线","pubTranName":"曙星村排涝变,","scope":"浙江省-杭州市-富阳区-渔山乡-墅溪行政村-曙星村排涝站一带","startTime":"2020-05-23 08:00:00","stopDate":"2020-05-23 15:00:00","orgNo":"3340170","typeCode":"临时停电","poweroffArea":"110kV里渔变:巨星D926线-曙星村排涝变跌落式熔断器后段","poweroffReason":"G235富阳灵桥至渔山段工程-排涝站配电工程：新放YJV22-10-3*70电缆1根，250KVA箱变1台，拆除250KVA杆上变1台，电缆头制作，试验、搭接等工作。","powerTime":"2020-05-23 14:29:56","powerComm":"已送电","subsNo":"","lineNo":"","tgNo":"","tgName":null,"infoStatus":"1","orgName":"国网浙江杭州市富阳区供电公司","typeName":null,"infoStatusName":null,"dateDay":null,"orgNos":null,"nowTime":null,"countyName":null,"streetName":null,"villageName":null,"roadName":null,"communityName":null,"tranName":null,"sdLineName":null,"cityCode":"3340170","cityName":"国网浙江杭州市富阳区供电公司","provinceCode":null,"stopTime":"2020-05-23 15:00:00","powerType":"全部","powerOffArea":"110kV里渔变:巨星D926线-曙星村排涝变跌落式熔断器后段","powerOffReason":"G235富阳灵桥至渔山段工程-排涝站配电工程：新放YJV22-10-3*70电缆1根，250KVA箱变1台，拆除250KVA杆上变1台，电缆头制作，试验、搭接等工作。","powerOffId":"2020052131020265"},{"poweroffId":2020052131020263,"sgpoweroffId":null,"subsName":"","lineName":"10kV界桐R405线","pubTranName":"施家坪村隧道口公变,","scope":"浙江省-杭州市-淳安县-界首乡-施家坪行政村-三联自然村","startTime":"2020-05-27 08:00:00","stopDate":"2020-05-27 16:00:00","orgNo":"3340190","typeCode":"临时停电","poweroffArea":"110kV界首变:界桐R405线-施家坪村隧道口公变后段","poweroffReason":"界桐R405线75号杆至78号杆杆线移位","powerTime":"2020-05-27 15:06:45","powerComm":"已送电","subsNo":"","lineNo":"","tgNo":"","tgName":null,"infoStatus":"1","orgName":"国网浙江淳安县供电有限公司","typeName":null,"infoStatusName":null,"dateDay":null,"orgNos":null,"nowTime":null,"countyName":null,"streetName":null,"villageName":null,"roadName":null,"communityName":null,"tranName":null,"sdLineName":null,"cityCode":"3340190","cityName":"国网浙江淳安县供电有限公司","provinceCode":null,"stopTime":"2020-05-27 16:00:00","powerType":"全部","powerOffArea":"110kV界首变:界桐R405线-施家坪村隧道口公变后段","powerOffReason":"界桐R405线75号杆至78号杆杆线移位","powerOffId":"2020052131020263"},{"poweroffId":2020052131020244,"sgpoweroffId":null,"subsName":"","lineName":"10kV民族T148线","pubTranName":"桐庐万通石材有限公司,沈家1号公变,桐庐金诚石材有限公司变压器,桐庐鑫达石材工程有限公司,桐庐威尔特石业有限公司,衣冠1号公变,桐庐联翔石材有限公司,桐庐潮林石材工艺厂,大岭脚1号公变,","scope":"浙江省-杭州市-桐庐县-莪山畲族乡-沈冠行政村(沈家自然村,皂树田自然村,衣冠自然村);莪山畲族乡(桐庐联翔石材有限公司,桐庐鑫达石材工程有限公司,桐庐潮林石材工艺厂,桐庐万通石材有限公司,浙江金诚石材有限公司)","startTime":"2020-05-21 15:09:00","stopDate":"2020-05-21 18:01:00","orgNo":"3340150","typeCode":"电网故障停限电","poweroffArea":"35kV钟山变:民族T148线民族T1484开关后段","poweroffReason":"高压开关跳闸","powerTime":"2020-05-21 17:34:58","powerComm":"已送电","subsNo":"","lineNo":"","tgNo":"","tgName":null,"infoStatus":"1","orgName":"国网浙江桐庐县供电公司","typeName":null,"infoStatusName":null,"dateDay":null,"orgNos":null,"nowTime":null,"countyName":null,"streetName":null,"villageName":null,"roadName":null,"communityName":null,"tranName":null,"sdLineName":null,"cityCode":"3340150","cityName":"国网浙江桐庐县供电公司","provinceCode":null,"stopTime":"2020-05-21 18:01:00","powerType":"全部","powerOffArea":"35kV钟山变:民族T148线民族T1484开关后段","powerOffReason":"高压开关跳闸","powerOffId":"2020052131020244"},{"poweroffId":2020052131020239,"sgpoweroffId":null,"subsName":"","lineName":"10kV民族T148线","pubTranName":"衣冠1号公变,","scope":"浙江省-杭州市-桐庐县-莪山畲族乡-沈冠行政村(沈家自然村,衣冠自然村)","startTime":"2020-05-21 14:57:00","stopDate":"2020-05-21 17:57:00","orgNo":"3340150","typeCode":"电网故障停限电","poweroffArea":"35kV钟山变:民族T148线-衣冠1号公变后段","poweroffReason":"(低压停电信息)低压开关跳闸","powerTime":"2020-05-21 17:34:45","powerComm":"已送电","subsNo":"","lineNo":"","tgNo":"","tgName":null,"infoStatus":"1","orgName":"国网浙江桐庐县供电公司","typeName":null,"infoStatusName":null,"dateDay":null,"orgNos":null,"nowTime":null,"countyName":null,"streetName":null,"villageName":null,"roadName":null,"communityName":null,"tranName":null,"sdLineName":null,"cityCode":"3340150","cityName":"国网浙江桐庐县供电公司","provinceCode":null,"stopTime":"2020-05-21 17:57:00","powerType":"全部","powerOffArea":"35kV钟山变:民族T148线-衣冠1号公变后段","powerOffReason":"(低压停电信息)低压开关跳闸","powerOffId":"2020052131020239"}],"pageModel":{"pageNow":128,"totalCount":17786,"totalPage":1779,"tableRows":0,"pageCount":10,"beginCount":1270},"isExperi":"1"}