{"message":"","today":"2020-06-16","seleList":[{"poweroffId":2019081131020071,"sgpoweroffId":null,"subsName":"","lineName":"10kV白云H884线","pubTranName":"中桥村后殿礼堂公变,","scope":"浙江省-杭州市-余杭区-中泰街道-中桥行政村-中桥自然村一带","startTime":"2019-08-11 09:08:00","stopDate":"2019-08-11 11:08:00","orgNo":"3340140","typeCode":"电网故障停限电","poweroffArea":"110kV中泰变:白云H884线-中桥村后殿礼堂公变后段","poweroffReason":"(低压停电信息)低压开关跳闸","powerTime":"2019-08-11 10:11:00","powerComm":"已送电","subsNo":"","lineNo":"","tgNo":"","tgName":null,"infoStatus":"1","orgName":"国网浙江杭州市余杭区供电有限公司","typeName":null,"infoStatusName":null,"dateDay":null,"orgNos":null,"nowTime":null,"countyName":null,"streetName":null,"villageName":null,"roadName":null,"communityName":null,"tranName":null,"sdLineName":null,"cityCode":"3340140","cityName":"国网浙江杭州市余杭区供电有限公司","provinceCode":null,"stopTime":"2019-08-11 11:08:00","powerType":"全部","powerOffArea":"110kV中泰变:白云H884线-中桥村后殿礼堂公变后段","powerOffReason":"(低压停电信息)低压开关跳闸","powerOffId":"2019081131020071"},{"poweroffId":2019081131020059,"sgpoweroffId":null,"subsName":"","lineName":"10kV四翔A574线","pubTranName":"欣宏线业,杭州明华纺织有限公司,杭州萧山军民布厂,杭州明华纺织有限公司,明华村10#变,2#,杭州萧山冬娟纺织有限公司,杭州港华纺织有限公司1#,高压电机,杭州秀邦纺织品有限公司,杭州江南电机有限公司,明华村11#变,杭州高翔纺织有限公司,明华村5#变,明华村1#变,杭州栋栋纺织有限公司,杭州明华纺织有限公司,萧山高翔纺织有限公司,明华村13#变,明华村7#变,","scope":"浙江省-杭州市-萧山区-衙前镇-明华行政村(前方,前方路,衙前路,明华自然村,陈家路,桥东岸路,育才路,明华小区,桥南路,原料市场,念房路,前明路);衙前镇-明华行政村(杭州明华纺织有限公司,杭州港华纺织有限公司,杭州秀邦纺织品有限公司,杭州萧山军民布厂,杭州栋栋纺织有限公司,杭州萧山冬娟纺织有限公司,杭州高翔纺织有限公司,杭州黄雯英宾馆酒店用品有限公司),衙前镇-四翔行政村(杭州江南电机股份有限公司,杭州欣宏有限公司)一带","startTime":"2019-08-11 08:58:31","stopDate":"2019-08-11 10:40:31","orgNo":"3340130","typeCode":"电网故障停限电","poweroffArea":"110kV成虎变:四翔A574线","poweroffReason":"高压柱上断路器短路故障","powerTime":"2019-08-11 10:30:42","powerComm":"全部送电","subsNo":"","lineNo":"","tgNo":"","tgName":null,"infoStatus":"1","orgName":"国网浙江杭州市萧山区供电有限公司","typeName":null,"infoStatusName":null,"dateDay":null,"orgNos":null,"nowTime":null,"countyName":null,"streetName":null,"villageName":null,"roadName":null,"communityName":null,"tranName":null,"sdLineName":null,"cityCode":"3340130","cityName":"国网浙江杭州市萧山区供电有限公司","provinceCode":null,"stopTime":"2019-08-11 10:40:31","powerType":"全部","powerOffArea":"110kV成虎变:四翔A574线","powerOffReason":"高压柱上断路器短路故障","powerOffId":"2019081131020059"},{"poweroffId":2019081131020044,"sgpoweroffId":null,"subsName":"","lineName":"10kV窄溪T257线","pubTranName":"农贸市场1号公变,","scope":"浙江省-杭州市-桐庐县-江南镇-窄溪行政村(大元里自然村,大元路,集市路,窄溪镇,金浦路,窄溪西路,金浦南路,江南路,富前路,鼓楼街,市场路)","startTime":"2019-08-11 08:35:58","stopDate":"2019-08-11 10:35:58","orgNo":"3340150","typeCode":"电网故障停限电","poweroffArea":"110kV石阜变:窄溪T257线-农贸市场1号公变后段","poweroffReason":"高压开关跳闸","powerTime":"2019-08-11 10:20:14","powerComm":"已送电","subsNo":"","lineNo":"","tgNo":"","tgName":null,"infoStatus":"1","orgName":"国网浙江桐庐县供电公司","typeName":null,"infoStatusName":null,"dateDay":null,"orgNos":null,"nowTime":null,"countyName":null,"streetName":null,"villageName":null,"roadName":null,"communityName":null,"tranName":null,"sdLineName":null,"cityCode":"3340150","cityName":"国网浙江桐庐县供电公司","provinceCode":null,"stopTime":"2019-08-11 10:35:58","powerType":"全部","powerOffArea":"110kV石阜变:窄溪T257线-农贸市场1号公变后段","powerOffReason":"高压开关跳闸","powerOffId":"2019081131020044"},{"poweroffId":2019081131020013,"sgpoweroffId":null,"subsName":"","lineName":"10kV高岭Y802线","pubTranName":"友谊村屋基畈台区,","scope":"浙江省-杭州市-建德市-洋溪街道-友谊行政村-屋基畈自然村、蛇坑自然村、红丘塘自然村、下田自然村、高岭自然村、巧山自然村、芳村自然村、庵前自然村一带用户。","startTime":"2019-08-11 07:03:00","stopDate":"2019-08-11 12:00:00","orgNo":"3340180","typeCode":"电网故障停限电","poweroffArea":"35kV莲花变:高岭Y802线-友谊村屋基畈台区后段","poweroffReason":"(低压停电信息)低压开关跳闸 原预计停电结束时间12:30，预估时间过长，目前故障已修复，现将停电时间变更至12:00","powerTime":"2019-08-11 11:08:50","powerComm":"已送电","subsNo":"","lineNo":"","tgNo":"","tgName":null,"infoStatus":"1","orgName":"国网浙江建德市供电有限公司","typeName":null,"infoStatusName":null,"dateDay":null,"orgNos":null,"nowTime":null,"countyName":null,"streetName":null,"villageName":null,"roadName":null,"communityName":null,"tranName":null,"sdLineName":null,"cityCode":"3340180","cityName":"国网浙江建德市供电有限公司","provinceCode":null,"stopTime":"2019-08-11 12:00:00","powerType":"全部","powerOffArea":"35kV莲花变:高岭Y802线-友谊村屋基畈台区后段","powerOffReason":"(低压停电信息)低压开关跳闸 原预计停电结束时间12:30，预估时间过长，目前故障已修复，现将停电时间变更至12:00","powerOffId":"2019081131020013"},{"poweroffId":2019081131020004,"sgpoweroffId":null,"subsName":"","lineName":"10kV七里D978线","pubTranName":"日悦阁4#变,","scope":"浙江省-杭州市-富阳区-银湖街道-梓树行政村-梓树自然村","startTime":"2019-08-11 05:56:58","stopDate":"2019-08-11 07:56:58","orgNo":"3340170","typeCode":"电网故障停限电","poweroffArea":"110kV九龙变:七里D978线-日悦阁4#变后段","poweroffReason":"高压开关跳闸","powerTime":"2019-08-11 06:58:02","powerComm":"已送电","subsNo":"","lineNo":"","tgNo":"","tgName":null,"infoStatus":"1","orgName":"国网浙江杭州市富阳区供电公司","typeName":null,"infoStatusName":null,"dateDay":null,"orgNos":null,"nowTime":null,"countyName":null,"streetName":null,"villageName":null,"roadName":null,"communityName":null,"tranName":null,"sdLineName":null,"cityCode":"3340170","cityName":"国网浙江杭州市富阳区供电公司","provinceCode":null,"stopTime":"2019-08-11 07:56:58","powerType":"全部","powerOffArea":"110kV九龙变:七里D978线-日悦阁4#变后段","powerOffReason":"高压开关跳闸","powerOffId":"2019081131020004"},{"poweroffId":2019081131020003,"sgpoweroffId":null,"subsName":"","lineName":"10kV东坞D971线","pubTranName":"施园4号公变,","scope":"浙江省-杭州市-富阳区-银湖街道-东坞山行政村-东坞山自然村、施家园自然村","startTime":"2019-08-11 05:41:40","stopDate":"2019-08-11 07:41:40","orgNo":"3340170","typeCode":"电网故障停限电","poweroffArea":"110kV九龙变:东坞D971线-施园4号公变后段","poweroffReason":"高压开关跳闸","powerTime":"2019-08-11 06:57:45","powerComm":"已送电","subsNo":"","lineNo":"","tgNo":"","tgName":null,"infoStatus":"1","orgName":"国网浙江杭州市富阳区供电公司","typeName":null,"infoStatusName":null,"dateDay":null,"orgNos":null,"nowTime":null,"countyName":null,"streetName":null,"villageName":null,"roadName":null,"communityName":null,"tranName":null,"sdLineName":null,"cityCode":"3340170","cityName":"国网浙江杭州市富阳区供电公司","provinceCode":null,"stopTime":"2019-08-11 07:41:40","powerType":"全部","powerOffArea":"110kV九龙变:东坞D971线-施园4号公变后段","powerOffReason":"高压开关跳闸","powerOffId":"2019081131020003"},{"poweroffId":2019081131020002,"sgpoweroffId":null,"subsName":"","lineName":"10kV永立G270线","pubTranName":"杭州云会印染整理有限公司,九龙村人民墩公变,九龙村骆家斗公变,九龙村冯家墩公变,九龙村李家桥公变,九龙村丁家门公变,杭州山立净化设备股份有限公司,栅庄桥村栅庄桥西公变,九龙村北水角公变,九龙村林家桥公变,杭州云会印染整理有限公司2#,杭州余杭水务有限公司,九龙村人民墩西公变,九龙村烘荡漾公变,九龙村北水角南公变,栅庄桥村金家门北公变,杭州天翔新型建材股份有限公司611109037701#专变,栅庄桥村栅庄桥公变,栅庄桥村塘家湾公变,栅庄桥村翁家塘公变,九龙村缪家里公变,云会村施家斗西公变,九龙村汪家里公变,九龙村丁家门2号公变,中国石油天然气股份有限公司浙江杭州销售分公司,栅庄桥村金家门公变,九龙村骆家斗南公变,九龙村烘荡漾东公变,栅庄桥村车里公变,杭州山立净化设备有限公司,九龙村汪家里西公变,","scope":"浙江省-杭州市-余杭区-仁和街道-栅庄桥行政村(木克桥自然村,车里自然村,翁家埭自然村,俞家庄自然村,翁家塘自然村,栅庄桥自然村,金港庵自然村,唐家湾自然村,杨家斗自然村,南陈家角自然村,河口埭自然村,倪家里自然村,杨家兜自然村,南坝头自然村),仁和街道-九龙行政村(店头村,烘荡洋自然村,孙家抖自然村,人民墩自然村,冯家墩自然村,黄家门自然村,俞家门自然村,李家桥自然村,莫家塘自然村,骆家斗自然村,王家荡自然村,骆家抖自然村,沈家门自然村,坝廊自然村,计家里自然村,张花弄自然村,王家门自然村,坝郎自然村,林家桥自然村,凌家埭自然村,汪家里自然村,缪家里自然村,何家门自然村,莫家荡自然村,丁家门自然村,周家里自然村,王家池自然村,北水角自然村,施家斗自然村),仁和街道-洛阳行政村(洛阳桥自然村,余山自然村,顺水桥自然村),仁和街道-东风行政村(丁家坝自然村,马家塘自然村,马介塘自然村),仁和街道-云会行政村(施家洋自然村,水路里自然村,马介塘自然村,西南山自然村,施家斗自然村),仁和街道(葛墩行政村-坝儿斗自然村,东山行政村-豆腐桥自然村,新桥行政村-长木桥自然村);浙江省-杭州市-余杭区-仁和街道-东风行政村-杭州余杭城西净水有限公司,仁和街道-九龙行政村(中国石油天然气股份有限公司浙江杭州销售分公司,杭州优尼克消毒设备有限公司),仁和街道-云会行政村(杭州云会印染整理有限公司,杭州天翔新型建材股份有限公司)","startTime":"2019-08-11 05:36:37","stopDate":"2019-08-11 09:30:00","orgNo":"3340140","typeCode":"电网故障停限电","poweroffArea":"110kV仁镇变:永立G270线","poweroffReason":"高压开关跳闸","powerTime":"2019-08-11 09:00:00","powerComm":"已送电","subsNo":"","lineNo":"","tgNo":"","tgName":null,"infoStatus":"1","orgName":"国网浙江杭州市余杭区供电有限公司","typeName":null,"infoStatusName":null,"dateDay":null,"orgNos":null,"nowTime":null,"countyName":null,"streetName":null,"villageName":null,"roadName":null,"communityName":null,"tranName":null,"sdLineName":null,"cityCode":"3340140","cityName":"国网浙江杭州市余杭区供电有限公司","provinceCode":null,"stopTime":"2019-08-11 09:30:00","powerType":"全部","powerOffArea":"110kV仁镇变:永立G270线","powerOffReason":"高压开关跳闸","powerOffId":"2019081131020002"},{"poweroffId":2019081131020001,"sgpoweroffId":null,"subsName":"","lineName":"10kV云石C954线","pubTranName":"方溪村8#变,沈村4#变,青山村12#变,浙江九龙厨具集团有限公司,青山村1#变,顾家溪1#变,萧山区戴村镇云石中心小学,业新钢构,沈村3#变,杭州萧山云峰涂料厂,杭州业新钢结构有限公司,青山村4#变,骆家舍4#变,沈村2#变,青山村6#变,辉煌卫生用品1#,方溪村5#变,枫桥村4#变,特种建材,尖山下4#变,青山村10#变,沈村5#变,沈村6#变,青山村14#变,沈村1#变,姜宇热缩,尖山下3#变,骆家舍5#变,方溪村6#变,浙伟实业,杭州鼎绣工艺品有限公司,杭州业新钢结构有限公司,骆家舍6#变,枫桥村3#变,虹路包装,辉煌卫生用品2#,尖山下2#变,尖山下5#变,球冠实业(渡假山庄),顾家溪2#变,方溪村7#变,方溪村4#变,顾家溪3#变,锦琪热缩,青山村11#变,电信萧山公司（云石）,青山村7#变,浙江凯普顿厨房设备有限公司,枫桥村2#变,方溪村3#变,杭州亿达五金有限公司,家家实业,青山村5#变,青山村2#变,星云丝织工贸有限公司,骆家舍3#变,枫桥村1#变,尖山下1#变,青山村9#变,强达塑胶,杭州萧山春潇农业开发有限公司,尖山下6#变,枫桥村5#变,沈村7#变,顾家溪5#变,柯佳伞件厂,顾家溪4#变,戴村镇人民政府,骆家舍2#变,方溪村10#变,青山村3#变,杭州佳锦织造厂,方溪村1#变,方溪村2#变,方溪村9#变,","scope":"浙江省-杭州市-萧山区-戴村镇-顾家溪行政村(平山自然村,勤工自然村),戴村镇-骆家舍行政村(骆村自然村,下骆家舍自然村,船山自然村,上骆家舍自然村),戴村镇-尖山下行政村(尖山下自然村,洪潭桥自然村,上门自然村,长爿田自然村),戴村镇-方溪行政村(增丰自然村,顶山自然村,征山自然村),戴村镇-枫桥行政村(响石桥自然村,枫树自然村),戴村镇-青山行政村(石牛山自然村,明堂自然村,狮山自然村,南坞自然村),戴村镇-沈村行政村(沈村自然村,汪家山下自然村);浙江省-杭州市-萧山区-戴村镇-顾家溪行政村-杭州亿达五金有限公司,戴村镇-尖山下行政村(杭州浙伟实业有限公司,杭州萧山姜字热缩制品厂,杭州辉煌卫生用品有限公司),戴村镇-方溪行政村(杭州萧山戴村镇柯佳伞件厂,杭州佳锦织造厂),戴村镇-枫桥行政村(杭州业新钢结构有限公司,杭州萧山云峰涂料厂,中国电信股份有限公司杭州萧山区分公司),戴村镇-青山行政村(浙江华东轻钢建材有限公司,杭州强达塑胶五金厂,萧山区戴村镇云石中心小学,杭州鼎绣工艺品有限公司,杭州云石生态休闲旅游开发有限公司,浙江九龙厨具集团有限公司),戴村镇-沈村行政村(杭州业新钢结构有限公司,杭州萧山昌达机械配件厂,杭州家家实业有限公司,杭州银泰农旅投资发展有限公司,杭州市萧山区戴村镇人民政府,浙江凯普顿厨房设备有限公司,杭州虹路包装彩印有限公司,杭州宏士机械有限公司)浙江省杭州市萧山区戴村镇方溪行政村等一带","startTime":"2019-08-11 03:53:16","stopDate":"2019-08-11 06:00:16","orgNo":"3340130","typeCode":"电网故障停限电","poweroffArea":"110kV永兴变:云石C954线-云石C9541开关后段","poweroffReason":"高压开关跳闸 原停电结束时间：2019-08-11 08:59，变更停电结束时间：2019-08-11 06:00，由于增派人员，抢修提前完成，故需要提前送电。","powerTime":"2019-08-11 05:38:31","powerComm":"已送电","subsNo":"","lineNo":"","tgNo":"","tgName":null,"infoStatus":"1","orgName":"国网浙江杭州市萧山区供电有限公司","typeName":null,"infoStatusName":null,"dateDay":null,"orgNos":null,"nowTime":null,"countyName":null,"streetName":null,"villageName":null,"roadName":null,"communityName":null,"tranName":null,"sdLineName":null,"cityCode":"3340130","cityName":"国网浙江杭州市萧山区供电有限公司","provinceCode":null,"stopTime":"2019-08-11 06:00:16","powerType":"全部","powerOffArea":"110kV永兴变:云石C954线-云石C9541开关后段","powerOffReason":"高压开关跳闸 原停电结束时间：2019-08-11 08:59，变更停电结束时间：2019-08-11 06:00，由于增派人员，抢修提前完成，故需要提前送电。","powerOffId":"2019081131020001"},{"poweroffId":2019081131010135,"sgpoweroffId":null,"subsName":"","lineName":"10kV前十968线","pubTranName":"长河垦种,瓜沥垦种,围垦水利,水祥黑鱼,水祥水产养殖,益农垦农,益农垦种（二）,萧围指挥部,新湾前峰村,西兴(南),大洋庄园（一）,东梅村4#变,纪产农业,新湾四垦（二）,水利水电临十六,瓜沥垦种,河庄江东村,长山垦种,锦昌农业,水祥水产养殖,瓜沥垦种,新湾冯娄村,郑洁水产,益农垦种,坎山垦种,东梅村7#变,坎山垦种,宁围垦种,益农垦种,江南地基工程,天益水产,坎山垦种,宁围垦种,新中垦种,创建村(围垦）,东梅村5#变,新湾三新村（一）,盈中村,新湾四垦（一）,南方型钢,盈丰垦种,党山垦种,党湾勤联村,宁围垦种,大洋庄园（二）,水产养殖,围垦水利工程管理所,之江养殖,荣达废料回收公司,钱江出口养殖,新湾农办,绿宇生物,盈丰垦种（二）,东梅村6#变,瓜沥垦种（四）,天益水产,前进街道7#变,","scope":"浙江省-杭州市-萧山区-临江街道(萧东行政村-东梅自然村),前进街道(前进街道社区-前进自然村);(5.2万亩宁围镇垦种管理站(镇农办),5.2万亩盈丰垦种,长河(南),长山(前)垦种,党山镇车路湾村(5.2万围垦垦种),瓜沥垦种,瓜力垦种,杭州大洋庄园农业发展有限公司,杭州纪产农业开发有限公司,杭州嘉伦农业科技有限公司,杭州江南地基工程有限公司,杭州锦昌农业开发有限公司,杭州绿宇生物工程有限公司,杭州荣达工业废料回收有限公司,杭州市萧山区坎山镇农业办公室（围垦用电）,杭州市萧山区围垦指挥部（围垦用电）,杭州市萧山区益农镇(围垦用电),杭州市萧山区益农镇农办（围垦用电）,杭州水祥水产养殖有限公司,杭州天益水产养殖有限公司,杭州萧山南方型钢有限公司,杭州萧山之江养殖有限公司,杭州郑浩水产养殖有限公司,河庄镇江东村(围垦用电),坎山,宁围(前),宁围垦种管理站(盈丰片5.2万亩垦种),宁围镇垦种管理站,西兴(南),萧山区党湾镇勤联村民委员会(垦种),萧山区瓜沥镇新围农场,萧山区瓜沥镇新围农场(围垦用电),萧山区坎山镇群谊村（围垦用电）,萧山区宁围镇新中村(盈丰垦种),萧山区围垦水利工程管理所,萧山区新街镇盈中村（围垦）,萧山区新湾镇创建村（围垦用电）,萧山区新湾镇冯娄村(四垦种),萧山区新湾镇前峰村(围垦用电),萧山区新湾镇三新村(围垦用电),新湾农办(四垦种),新湾四垦种,益农垦种,中国水利水电第四工程局有限公司杭州大江东基础设施工程项目部);围垦十工段,萧东村,二万门岭乡镇前青,围垦垦区萧山5.2万亩垦区一带","startTime":"2019-08-11 09:52:32","stopDate":"2019-08-11 20:00:22","orgNo":"3340120","typeCode":"电网故障停限电","poweroffArea":"110kV前进变:前十968线","poweroffReason":"高压开关跳闸 原停电结束时间：16:31，变更停电结束时间：20:00，由于更换开关，故需要延长抢修时间。","powerTime":"2019-08-11 19:50:26","powerComm":"已送电","subsNo":"","lineNo":"","tgNo":"","tgName":null,"infoStatus":"1","orgName":"国网浙江杭州市钱塘新区供电公司","typeName":null,"infoStatusName":null,"dateDay":null,"orgNos":null,"nowTime":null,"countyName":null,"streetName":null,"villageName":null,"roadName":null,"communityName":null,"tranName":null,"sdLineName":null,"cityCode":"3340120","cityName":"国网浙江杭州市钱塘新区供电公司","provinceCode":null,"stopTime":"2019-08-11 20:00:22","powerType":"全部","powerOffArea":"110kV前进变:前十968线","powerOffReason":"高压开关跳闸 原停电结束时间：16:31，变更停电结束时间：20:00，由于更换开关，故需要延长抢修时间。","powerOffId":"2019081131010135"},{"poweroffId":2019081131010127,"sgpoweroffId":null,"subsName":"","lineName":"10kV丁坝JZ01线","pubTranName":"梅林村三配变,共建村7#变,杭州真如仓储物流有限公司,杭州汇林食品有限公司01#,华春减速机,永宝机械,国华包装,中频机械,梅林村5#变,中频机械2#,华春汽车活塞厂,梅林村9#变,共建村14#变,梅林村4#变,","scope":"浙江省-杭州市-萧山区-新湾街道丁坝桥头,丁坝赤龙水泥厂东门对面,共建村10组28号,共建行政村,共建自然村,梅林自然村,杭州国华包装材料有限公司,杭州华春减速机厂,杭州华春汽车活塞有限公司,杭州汇林食品集团有限公司,杭州永宝机械厂,杭州真如仓储物流有限公司,杭州中濒机械设备铸造厂一带","startTime":"2019-08-11 10:07:36","stopDate":"2019-08-11 15:30:57","orgNo":"3340120","typeCode":"电网故障停限电","poweroffArea":"35kV新湾变:丁坝JZ01线","poweroffReason":"高压开关跳闸 原停电结束时间：16:14，变更停电结束时间：15:30，由于工作提前完成，故需要提前送电。","powerTime":"2019-08-11 15:01:02","powerComm":"已送电","subsNo":"","lineNo":"","tgNo":"","tgName":null,"infoStatus":"1","orgName":"国网浙江杭州市钱塘新区供电公司","typeName":null,"infoStatusName":null,"dateDay":null,"orgNos":null,"nowTime":null,"countyName":null,"streetName":null,"villageName":null,"roadName":null,"communityName":null,"tranName":null,"sdLineName":null,"cityCode":"3340120","cityName":"国网浙江杭州市钱塘新区供电公司","provinceCode":null,"stopTime":"2019-08-11 15:30:57","powerType":"全部","powerOffArea":"35kV新湾变:丁坝JZ01线","powerOffReason":"高压开关跳闸 原停电结束时间：16:14，变更停电结束时间：15:30，由于工作提前完成，故需要提前送电。","powerOffId":"2019081131010127"}],"pageModel":{"pageNow":1265,"totalCount":17789,"totalPage":1779,"tableRows":0,"pageCount":10,"beginCount":12640},"isExperi":"1"}