{"message":"","today":"2020-06-16","seleList":[{"poweroffId":2019081031020683,"sgpoweroffId":null,"subsName":"","lineName":"10kV石墓D217线","pubTranName":"云水山居17#公变,富阳市高桥镇勤丰村村民委员会,杭州百斯特门窗有限公司2#变,云水山居21号公变配变,云水山居24号公变,杭州东本节能材料有限公司,勤乐村上郜5号木桥头东公变,杭州金丰管件有限公司,云水山居14号公变,云水山居19号公变配变,勤丰村白龙寺2#戴家坞公变,杭州金宇房地产开发有限公司,云水山居28号公变,勤乐村石墓3号猫头山公变,勤乐村上郜4#北渠公变,杭州华晨工贸有限公司,杭州百斯特门窗有限公司1#变,勤乐村石墓村1#村中公变,云水山居16#公变,杭州金宇房地产开发有限公司1#变,云水山居11#公变,云水山居22号公变配变,勤乐村石墓4#蚌壳山公变,云水山居23号公变,云水山居20号公变配变,浙江省富阳利江消防器材厂,浙江交工集团股份有限公司2#变,杭州百斯特门窗有限公司,勤丰村4号和尚庄公变,勤丰村6号北渠南公变,云水山居4#公变,勤丰村8号和尚庄公变,杭州美通实业有限公司,云水山居27号公变,浙江交工集团股份有限公司2#变,2#变,浙江交工集团股份有限公司合上庄1#变,杭州绿城银湖置业有限公司 3#,云水山居12#公变,杭州农趣食品有限公司,杭州绿城银湖置业有限公司2#,富阳富强实业有限公司,杭州绿城银湖置业有限公司 1#,银湖街道勤丰村村民委员会公变,云水山居18#公变,勤丰村3#黄泥山公变,杭州富阳华仪仪表有限公司1#变,云水山居2#公变,杭州富阳长江发电机有限公司,云水山居25号公变,云水山居1#公变,云水山居13号公变,云水山居29号公变,云水山居26号公变,杭州绿城银湖置业有限公司 1#,勤丰村白龙寺1#村口公变,浙江交工集团股份有限公司1#变,杭州金宇房地产开发有限公司,勤乐村上郜1号上郜公变,杭州富阳章诚机械制造有限公司1#变,勤乐村上郜2号木桥头公变,勤乐村上郜3号安头蓬公变,云水山居3#公变,云水山居15#公变,","scope":"浙江省-杭州市-富阳区-银湖街道-勤乐行政村(安头蓬自然村,上郜自然村,木桥头自然村,猫头山自然村,石墓自然村,蚌壳山自然村),银湖街道-勤丰行政村(勤丰自然村,和尚庄自然村,黄泥山自然村,白龙寺自然村),银湖街道-高桥行政村-高桦路,富春街道-勤丰行政村-勤丰村;富春街道-富阳市高桥镇勤丰村村民委员会,银湖街道(浙江省富阳利江消防器材厂,杭州富阳长江发电机有限公司,杭州百斯特门窗有限公司,杭州东本节能材料有限公司,杭州金宇房地产开发有限公司,杭州绿城银湖置业有限公司,杭州梦亮包装制品有限公司,杭州富阳华仪仪表有限公司,杭州美通实业有限公司,杭州富阳章诚机械制造有限公司,浙江交工集团股份有限公司,杭州东昱艺术培训有限公司)","startTime":"2019-08-10 23:35:00","stopDate":"2019-08-11 01:35:00","orgNo":"3340170","typeCode":"电网故障停限电","poweroffArea":"110kV银湖变:石墓D217线石墓D2174开关后段","poweroffReason":"高压开关跳闸","powerTime":"2019-08-11 01:15:30","powerComm":"已送电","subsNo":"","lineNo":"","tgNo":"","tgName":null,"infoStatus":"1","orgName":"国网浙江杭州市富阳区供电公司","typeName":null,"infoStatusName":null,"dateDay":null,"orgNos":null,"nowTime":null,"countyName":null,"streetName":null,"villageName":null,"roadName":null,"communityName":null,"tranName":null,"sdLineName":null,"cityCode":"3340170","cityName":"国网浙江杭州市富阳区供电公司","provinceCode":null,"stopTime":"2019-08-11 01:35:00","powerType":"全部","powerOffArea":"110kV银湖变:石墓D217线石墓D2174开关后段","powerOffReason":"高压开关跳闸","powerOffId":"2019081031020683"},{"poweroffId":2019081031020670,"sgpoweroffId":null,"subsName":"","lineName":"10kV项家D512线","pubTranName":"横槎村1号上公变,","scope":"浙江省-杭州市-富阳区-常安镇-横槎行政村-横槎自然村、杏梅坞自然村","startTime":"2019-08-10 23:14:00","stopDate":"2019-08-11 02:14:00","orgNo":"3340170","typeCode":"电网故障停限电","poweroffArea":"110kV常安变:项家D512线横槎村1号上公变配变","poweroffReason":"高压开关跳闸 原停电结束时间为2019-08-11 01:14:00，因现场抢修难度大变更至2019-08-11 02:14:00","powerTime":"2019-08-11 01:42:10","powerComm":"已送电","subsNo":"","lineNo":"","tgNo":"","tgName":null,"infoStatus":"1","orgName":"国网浙江杭州市富阳区供电公司","typeName":null,"infoStatusName":null,"dateDay":null,"orgNos":null,"nowTime":null,"countyName":null,"streetName":null,"villageName":null,"roadName":null,"communityName":null,"tranName":null,"sdLineName":null,"cityCode":"3340170","cityName":"国网浙江杭州市富阳区供电公司","provinceCode":null,"stopTime":"2019-08-11 02:14:00","powerType":"全部","powerOffArea":"110kV常安变:项家D512线横槎村1号上公变配变","powerOffReason":"高压开关跳闸 原停电结束时间为2019-08-11 01:14:00，因现场抢修难度大变更至2019-08-11 02:14:00","powerOffId":"2019081031020670"},{"poweroffId":2019081031020647,"sgpoweroffId":null,"subsName":"","lineName":"10kV双联H877线","pubTranName":"岑岭村塘坞里公变,岑岭村塘坞里2号公变,","scope":"浙江省-杭州市-余杭区-中泰街道-岑岭行政村(岑岭自然村,塘坞弄自然村)","startTime":"2019-08-10 22:53:13","stopDate":"2019-08-11 03:53:13","orgNo":"3340140","typeCode":"电网故障停限电","poweroffArea":"110kV中泰变:双联H877线-塘坞里分线跌落式熔断器后段","poweroffReason":"高压开关跳闸","powerTime":"2019-08-11 03:22:00","powerComm":"已送电","subsNo":"","lineNo":"","tgNo":"","tgName":null,"infoStatus":"1","orgName":"国网浙江杭州市余杭区供电有限公司","typeName":null,"infoStatusName":null,"dateDay":null,"orgNos":null,"nowTime":null,"countyName":null,"streetName":null,"villageName":null,"roadName":null,"communityName":null,"tranName":null,"sdLineName":null,"cityCode":"3340140","cityName":"国网浙江杭州市余杭区供电有限公司","provinceCode":null,"stopTime":"2019-08-11 03:53:13","powerType":"全部","powerOffArea":"110kV中泰变:双联H877线-塘坞里分线跌落式熔断器后段","powerOffReason":"高压开关跳闸","powerOffId":"2019081031020647"},{"poweroffId":2019081031020640,"sgpoweroffId":null,"subsName":"","lineName":"10kV白泥D226线","pubTranName":"富阳九龙混凝土有限公司,富阳九龙混凝土有限公司2#变,杭州富阳电信器材有限公司,杭州月桂袜业有限公司,唐家坞1号祝家湾公变,杭州月桂袜业有限公司1#变,杭州易原建材有限公司,杭州富阳电信器材有限公司,富阳市永恒涂装有限公司,富阳市永恒涂装有限公司,唐家坞2#高塘坎公变,","scope":"浙江省-杭州市-富阳区-银湖街道-唐家坞行政村(溪下自然村,祝家湾自然村,唐家坞自然村,高塘坎自然村);银湖街道-坑西行政村(杭州富阳易原道路设施有限公司,浙江万能通信器材集团有限公司,杭州富阳永恒涂装有限公司),银湖街道(高桥行政村-杭州月桂袜业有限公司,沈家坞行政村-杭州富阳九龙混凝土有限公司)","startTime":"2019-08-10 22:38:01","stopDate":"2019-08-11 00:38:01","orgNo":"3340170","typeCode":"电网故障停限电","poweroffArea":"110kV银湖变:白泥D226线-白泥D2265开关后段","poweroffReason":"高压开关跳闸","powerTime":"2019-08-10 23:46:34","powerComm":"已送电","subsNo":"","lineNo":"","tgNo":"","tgName":null,"infoStatus":"1","orgName":"国网浙江杭州市富阳区供电公司","typeName":null,"infoStatusName":null,"dateDay":null,"orgNos":null,"nowTime":null,"countyName":null,"streetName":null,"villageName":null,"roadName":null,"communityName":null,"tranName":null,"sdLineName":null,"cityCode":"3340170","cityName":"国网浙江杭州市富阳区供电公司","provinceCode":null,"stopTime":"2019-08-11 00:38:01","powerType":"全部","powerOffArea":"110kV银湖变:白泥D226线-白泥D2265开关后段","powerOffReason":"高压开关跳闸","powerOffId":"2019081031020640"},{"poweroffId":2019081031020638,"sgpoweroffId":null,"subsName":"","lineName":"10kV临中A087线","pubTranName":"沙田头村16#变,","scope":"浙江省-杭州市-萧山区-瓜沥镇-沙田头行政村-沙田头自然村、沙田头村一带","startTime":"2019-08-10 22:15:26","stopDate":"2019-08-11 00:38:26","orgNo":"3340130","typeCode":"电网故障停限电","poweroffArea":"110kV航坞变:临中A087线-沙田头村16#变台区低压开关","poweroffReason":"（低压停电信息）低压漏电保护器短路故障 原停电结束时间：2019-08-11 01:30:26，变更停电结束时间：2019-08-11 00:38:26，由于抢修工作提前完成，故需要提前送电。","powerTime":"2019-08-10 23:48:48","powerComm":"已送电","subsNo":"","lineNo":"","tgNo":"","tgName":null,"infoStatus":"1","orgName":"国网浙江杭州市萧山区供电有限公司","typeName":null,"infoStatusName":null,"dateDay":null,"orgNos":null,"nowTime":null,"countyName":null,"streetName":null,"villageName":null,"roadName":null,"communityName":null,"tranName":null,"sdLineName":null,"cityCode":"3340130","cityName":"国网浙江杭州市萧山区供电有限公司","provinceCode":null,"stopTime":"2019-08-11 00:38:26","powerType":"全部","powerOffArea":"110kV航坞变:临中A087线-沙田头村16#变台区低压开关","powerOffReason":"（低压停电信息）低压漏电保护器短路故障 原停电结束时间：2019-08-11 01:30:26，变更停电结束时间：2019-08-11 00:38:26，由于抢修工作提前完成，故需要提前送电。","powerOffId":"2019081031020638"},{"poweroffId":2019081031020632,"sgpoweroffId":null,"subsName":"","lineName":"10kV项家D512线","pubTranName":"杏梅坞村4#乌龟坪公变,横槎村3号乔麦岭公变,小剡村3号前山园公变,横槎村7号横坑埠公变,礼门村2号下公变,杭州富阳李荣富家庭农场有,杏梅坞村3#上家坞公变,杭州富阳永安旅游开发有限公司1#变,杏梅坞村2#后亩山公变,礼门村1号上公变,横槎村8#新区公变,杏梅坞村1#马家坞公变,富阳永安旅游开发有限公司,小剡村2#小剡公变,常安镇4号集镇公变,小剡村4号前山坞公变,横槎村1号上公变,横槎村9号桥头公变,项家村1#村中公变,小剡村1号上边公变,","scope":"浙江省-杭州市-富阳区-常安镇-杏梅坞行政村(后亩山自然村,马家坞自然村,上家坞自然村),常安镇-小剡行政村(前山园自然村,小剡村自然村,上边自然村,前山坞自然村),常安镇-横槎行政村(横槎自然村,横坑自然村),常安镇(礼门行政村-礼门自然村,项家行政村-项家自然村,大田行政村-大田自然村);常安镇(杭州富阳李荣富家庭农场有限公司,杭州富阳永安旅游开发有限公司)","startTime":"2019-08-10 21:55:00","stopDate":"2019-08-10 23:00:00","orgNo":"3340170","typeCode":"电网故障停限电","poweroffArea":"110kV常安变:项家D512线项家D5122开关1后段","poweroffReason":"高压开关跳闸 原停电结束时间为2019-08-10 23:55:00，因现场抢修力量加强变更至2019-08-10 23:00:00","powerTime":"2019-08-10 22:29:31","powerComm":"已送电","subsNo":"","lineNo":"","tgNo":"","tgName":null,"infoStatus":"1","orgName":"国网浙江杭州市富阳区供电公司","typeName":null,"infoStatusName":null,"dateDay":null,"orgNos":null,"nowTime":null,"countyName":null,"streetName":null,"villageName":null,"roadName":null,"communityName":null,"tranName":null,"sdLineName":null,"cityCode":"3340170","cityName":"国网浙江杭州市富阳区供电公司","provinceCode":null,"stopTime":"2019-08-10 23:00:00","powerType":"全部","powerOffArea":"110kV常安变:项家D512线项家D5122开关1后段","powerOffReason":"高压开关跳闸 原停电结束时间为2019-08-10 23:55:00，因现场抢修力量加强变更至2019-08-10 23:00:00","powerOffId":"2019081031020632"},{"poweroffId":2019081031020623,"sgpoweroffId":null,"subsName":"","lineName":"10kV十月D225线","pubTranName":"浙江永耀旅游文化发展有限公司1#变,筱岭村3号下村公变,杭州蚕种场,沈家坞4#小沈家坞公变,浙江华新交通工程有限公司,沈家坞3#夏家岭公变,沈家坞5#里村公变1,沈家坞村9#里村口公变,坑西村3号里坑西公变,峡岭村1#公变,坑西村峡岭5号夕阳坞口公变,沈家坞村10号里村上公变,坑西村4#外坑西公变,杭州迪坤市政建设有限公司,杭州市富阳区天水教育培训学校2#变,坑西村筱岭横路头5#公变,杭州富阳志康科技有限公司 1#,峡岭村3号周家坛公变,沈家坞7#骆家岭顶公变,杭州权峰环保建材有限公司1#变,沈家坞11号外村泥鳅岗公变,坑西村1#集镇公变,杭州市富阳区天水教育培训学校1#变,富阳市高桥镇进祥石粉经营部,富阳市新建水泥机械有限公司,沈家坞村7#外小沈家坞公变,杭州舜仁沥青砼工程有限公司,杭州凌正建设工程有限公司1#变,沈家坞2#外村公变,沈家坞6#骆家岭公变,峡岭村2#夕阳坞公变,筱岭村4#村口公变,杭州凌正建设工程有限公司2#变,沈家坞1号坑东公变,沈家坞部队,坑西村2#公变,筱岭村2#火巴山公变,杭州顺茂实业有限公司,筱岭村1#中村公变,坑西村峡岭4号峡岭顶公变,杭州垚金锌业有限公司,","scope":"浙江省-杭州市-富阳区-银湖街道-沈家坞行政村(里沈家坞自然村,沈家坞自然村,外沈家坞自然村,骆家岭自然村,筱岭自然村,坑东自然村),银湖街道-坑西行政村(坑西自然村,峡岭自然村,筱岭自然村,里坑西自然村,外坑西自然村,周家谭自然村),银湖街道(金竺行政村-上浒自然村,高桥行政村-高桥自然村);银湖街道(沈家坞部队,浙江华新交通工程有限公司,杭州迪坤市政建设有限公司,杭州垚金锌业有限公司,富阳市高桥镇进祥石粉经营部,杭州市蚕桑技术推广总站,杭州凌正建设工程有限公司,杭州市富阳区天水教育培训学校,杭州舜仁沥青砼工程有限公司,杭州富阳新建机械有限公司,杭州顺茂实业有限公司,杭州富阳舒力科技有限公司,浙江永耀旅游文化发展有限公司)","startTime":"2019-08-10 21:35:00","stopDate":"2019-08-11 00:35:00","orgNo":"3340170","typeCode":"电网故障停限电","poweroffArea":"110kV银湖变:十月D225线十月D2254开关后段","poweroffReason":"高压开关跳闸 原停电结束时间为2019-08-10 23:35:00，因天气原因延至2019-08-11 00:35:00","powerTime":"2019-08-10 23:46:03","powerComm":"已送电","subsNo":"","lineNo":"","tgNo":"","tgName":null,"infoStatus":"1","orgName":"国网浙江杭州市富阳区供电公司","typeName":null,"infoStatusName":null,"dateDay":null,"orgNos":null,"nowTime":null,"countyName":null,"streetName":null,"villageName":null,"roadName":null,"communityName":null,"tranName":null,"sdLineName":null,"cityCode":"3340170","cityName":"国网浙江杭州市富阳区供电公司","provinceCode":null,"stopTime":"2019-08-11 00:35:00","powerType":"全部","powerOffArea":"110kV银湖变:十月D225线十月D2254开关后段","powerOffReason":"高压开关跳闸 原停电结束时间为2019-08-10 23:35:00，因天气原因延至2019-08-11 00:35:00","powerOffId":"2019081031020623"},{"poweroffId":2019081031020617,"sgpoweroffId":null,"subsName":"","lineName":"10kV羊山H530线","pubTranName":"凤溪花苑2号公变,","scope":"浙江省-杭州市-余杭区-瓶窑镇-华兴社区(东兴路,新窑路)","startTime":"2019-08-10 21:11:32","stopDate":"2019-08-11 07:11:32","orgNo":"3340140","typeCode":"电网故障停限电","poweroffArea":"110kV凤山变:羊山H530线-凤溪花苑2后段","poweroffReason":"高压开关跳闸","powerTime":"2019-08-11 06:26:00","powerComm":"已送电","subsNo":"","lineNo":"","tgNo":"","tgName":null,"infoStatus":"1","orgName":"国网浙江杭州市余杭区供电有限公司","typeName":null,"infoStatusName":null,"dateDay":null,"orgNos":null,"nowTime":null,"countyName":null,"streetName":null,"villageName":null,"roadName":null,"communityName":null,"tranName":null,"sdLineName":null,"cityCode":"3340140","cityName":"国网浙江杭州市余杭区供电有限公司","provinceCode":null,"stopTime":"2019-08-11 07:11:32","powerType":"全部","powerOffArea":"110kV凤山变:羊山H530线-凤溪花苑2后段","powerOffReason":"高压开关跳闸","powerOffId":"2019081031020617"},{"poweroffId":2019081031020613,"sgpoweroffId":null,"subsName":"","lineName":"10kV目野G920线","pubTranName":"中交美庐（杭州）置业有限公司61208256731#变压器,中交美庐（杭州）置业有限公司61208256751#变压器,中交美庐（杭州）置业有限公司61208256761#变压器,中交美庐（杭州）置业有限公司61208256741#变压器,","scope":"浙江省-杭州市-余杭区-乔司街道(良熟社区-中交美庐（杭州）置业有限公司,良熟行政村-中交美庐（杭州）置业有限公司)","startTime":"2019-08-10 20:47:28","stopDate":"2019-08-10 23:47:00","orgNo":"3340140","typeCode":"电网故障停限电","poweroffArea":"110kV庙港变:目野G920线-中交美庐基建分线后段","poweroffReason":"高压开关跳闸","powerTime":"2019-08-10 23:30:26","powerComm":"已送电","subsNo":"","lineNo":"","tgNo":"","tgName":null,"infoStatus":"1","orgName":"国网浙江杭州市余杭区供电有限公司","typeName":null,"infoStatusName":null,"dateDay":null,"orgNos":null,"nowTime":null,"countyName":null,"streetName":null,"villageName":null,"roadName":null,"communityName":null,"tranName":null,"sdLineName":null,"cityCode":"3340140","cityName":"国网浙江杭州市余杭区供电有限公司","provinceCode":null,"stopTime":"2019-08-10 23:47:00","powerType":"全部","powerOffArea":"110kV庙港变:目野G920线-中交美庐基建分线后段","powerOffReason":"高压开关跳闸","powerOffId":"2019081031020613"},{"poweroffId":2019081031020600,"sgpoweroffId":null,"subsName":"","lineName":"10kV圣堂H509线","pubTranName":"南山村南山公变,","scope":"浙江省-杭州市-余杭区-瓶窑镇-南山行政村杨火庙自然村,南山自然村一带","startTime":"2019-08-10 19:56:00","stopDate":"2019-08-10 23:00:00","orgNo":"3340140","typeCode":"电网故障停限电","poweroffArea":"35kV瓶镇变:圣堂H509线-南山变后段","poweroffReason":"(低压停电信息)低压开关跳闸","powerTime":"2019-08-10 22:47:46","powerComm":"已修复","subsNo":"","lineNo":"","tgNo":"","tgName":null,"infoStatus":"1","orgName":"国网浙江杭州市余杭区供电有限公司","typeName":null,"infoStatusName":null,"dateDay":null,"orgNos":null,"nowTime":null,"countyName":null,"streetName":null,"villageName":null,"roadName":null,"communityName":null,"tranName":null,"sdLineName":null,"cityCode":"3340140","cityName":"国网浙江杭州市余杭区供电有限公司","provinceCode":null,"stopTime":"2019-08-10 23:00:00","powerType":"全部","powerOffArea":"35kV瓶镇变:圣堂H509线-南山变后段","powerOffReason":"(低压停电信息)低压开关跳闸","powerOffId":"2019081031020600"}],"pageModel":{"pageNow":1266,"totalCount":17789,"totalPage":1779,"tableRows":0,"pageCount":10,"beginCount":12650},"isExperi":"1"}