{"message":"","today":"2020-06-16","seleList":[{"poweroffId":2019081031020591,"sgpoweroffId":null,"subsName":"","lineName":"10kV陶春H558线","pubTranName":"西安寺村桐家头公变,","scope":"浙江省-杭州市-余杭区-瓶窑镇-西安寺行政村-桐家头自然村一带","startTime":"2019-08-10 19:15:00","stopDate":"2019-08-10 21:15:00","orgNo":"3340140","typeCode":"电网故障停限电","poweroffArea":"110kV潘板变:陶春H558线-西安寺村桐家头公变后段","poweroffReason":"(低压停电信息)低压开关跳闸","powerTime":"2019-08-10 21:00:04","powerComm":"已送电","subsNo":"","lineNo":"","tgNo":"","tgName":null,"infoStatus":"1","orgName":"国网浙江杭州市余杭区供电有限公司","typeName":null,"infoStatusName":null,"dateDay":null,"orgNos":null,"nowTime":null,"countyName":null,"streetName":null,"villageName":null,"roadName":null,"communityName":null,"tranName":null,"sdLineName":null,"cityCode":"3340140","cityName":"国网浙江杭州市余杭区供电有限公司","provinceCode":null,"stopTime":"2019-08-10 21:15:00","powerType":"全部","powerOffArea":"110kV潘板变:陶春H558线-西安寺村桐家头公变后段","powerOffReason":"(低压停电信息)低压开关跳闸","powerOffId":"2019081031020591"},{"poweroffId":2019081031020586,"sgpoweroffId":null,"subsName":"","lineName":"10kV安溪H404线","pubTranName":"安溪村下溪机埠公变,","scope":"浙江省杭州市余杭区良渚街道安溪村西头村、安溪村下溪机埠一带","startTime":"2019-08-10 19:04:00","stopDate":"2019-08-10 20:40:00","orgNo":"3340140","typeCode":"电网故障停限电","poweroffArea":"35kV良渚变:安溪H404线-安溪村下溪机埠公变后段","poweroffReason":"(低压停电信息)低压开关跳闸","powerTime":"2019-08-10 20:01:00","powerComm":"已送电","subsNo":"","lineNo":"","tgNo":"","tgName":null,"infoStatus":"1","orgName":"国网浙江杭州市余杭区供电有限公司","typeName":null,"infoStatusName":null,"dateDay":null,"orgNos":null,"nowTime":null,"countyName":null,"streetName":null,"villageName":null,"roadName":null,"communityName":null,"tranName":null,"sdLineName":null,"cityCode":"3340140","cityName":"国网浙江杭州市余杭区供电有限公司","provinceCode":null,"stopTime":"2019-08-10 20:40:00","powerType":"全部","powerOffArea":"35kV良渚变:安溪H404线-安溪村下溪机埠公变后段","powerOffReason":"(低压停电信息)低压开关跳闸","powerOffId":"2019081031020586"},{"poweroffId":2019081031020581,"sgpoweroffId":null,"subsName":"","lineName":"10kV后山D833线","pubTranName":"新店村,杭州市富阳区新桐乡新桐村经济合作社2#,杭州市富阳区新桐乡新桐村经济合作社1#,包家棋村打水,包家淇村江边打水,包家淇7号菜场公变,包家棋村排涝,包家淇8号长轮坞公变,新店村1#村中公变,","scope":"浙江省-杭州市-富阳区-新桐乡-新桐行政村(新店自然村,包家淇自然村);新桐乡-新桐行政村(杭州市富阳区新桐乡新桐村股份经济合作社,杭州市富阳区新桐乡新桐村经济合作社)","startTime":"2019-08-10 18:45:08","stopDate":"2019-08-10 19:45:08","orgNo":"3340170","typeCode":"电网故障停限电","poweroffArea":"110kV新桐变:后山D833线-后山D8332开关后段","poweroffReason":"(低压停电信息)低压开关跳闸","powerTime":"2019-08-10 19:16:37","powerComm":"已送电","subsNo":"","lineNo":"","tgNo":"","tgName":null,"infoStatus":"1","orgName":"国网浙江杭州市富阳区供电公司","typeName":null,"infoStatusName":null,"dateDay":null,"orgNos":null,"nowTime":null,"countyName":null,"streetName":null,"villageName":null,"roadName":null,"communityName":null,"tranName":null,"sdLineName":null,"cityCode":"3340170","cityName":"国网浙江杭州市富阳区供电公司","provinceCode":null,"stopTime":"2019-08-10 19:45:08","powerType":"全部","powerOffArea":"110kV新桐变:后山D833线-后山D8332开关后段","powerOffReason":"(低压停电信息)低压开关跳闸","powerOffId":"2019081031020581"},{"poweroffId":2019081031020580,"sgpoweroffId":null,"subsName":"","lineName":"10kV荷村6485线","pubTranName":"公宿,","scope":"浙江省-杭州市-江干区-采荷街道-双菱社区-采荷路,采荷街道-荷花塘社区一带","startTime":"2019-08-10 18:43:23","stopDate":"2019-08-10 20:10:23","orgNo":"3340101","typeCode":"电网故障停限电","poweroffArea":"110kV五福变:荷村6485线-公宿后段","poweroffReason":"(低压停电信息)低压开关跳闸 原预计停电结束时间2019-08-10 22:43:23,由于施工现场环境比较复杂，存在不确定因素，因此预估施工时间适当放长了，而实际施工进行得比较顺利，因此提前送电了","powerTime":"2019-08-10 19:32:06","powerComm":"已送电","subsNo":"","lineNo":"","tgNo":"","tgName":null,"infoStatus":"1","orgName":"浙江杭州电力客户服务中心","typeName":null,"infoStatusName":null,"dateDay":null,"orgNos":null,"nowTime":null,"countyName":null,"streetName":null,"villageName":null,"roadName":null,"communityName":null,"tranName":null,"sdLineName":null,"cityCode":"3340101","cityName":"浙江杭州电力客户服务中心","provinceCode":null,"stopTime":"2019-08-10 20:10:23","powerType":"全部","powerOffArea":"110kV五福变:荷村6485线-公宿后段","powerOffReason":"(低压停电信息)低压开关跳闸 原预计停电结束时间2019-08-10 22:43:23,由于施工现场环境比较复杂，存在不确定因素，因此预估施工时间适当放长了，而实际施工进行得比较顺利，因此提前送电了","powerOffId":"2019081031020580"},{"poweroffId":2019081031020578,"sgpoweroffId":null,"subsName":"","lineName":"10kV方桥G907线","pubTranName":"永东4组3号公变,","scope":"浙江省-杭州市-余杭区-乔司街道-永和行政村(永和自然村,永东自然村)","startTime":"2019-08-10 18:27:00","stopDate":"2019-08-10 23:59:00","orgNo":"3340140","typeCode":"电网故障停限电","poweroffArea":"110kV庙港变:方桥G907线永东4组3号公变配变 因施工难度大，故变更停电结束时间，原停电结束时间2019-08-10 23:27:00，变更后停电结束时间2019-08-10 23:59:00","poweroffReason":"高压开关跳闸","powerTime":"2019-08-10 23:40:00","powerComm":"已送电","subsNo":"","lineNo":"","tgNo":"","tgName":null,"infoStatus":"1","orgName":"国网浙江杭州市余杭区供电有限公司","typeName":null,"infoStatusName":null,"dateDay":null,"orgNos":null,"nowTime":null,"countyName":null,"streetName":null,"villageName":null,"roadName":null,"communityName":null,"tranName":null,"sdLineName":null,"cityCode":"3340140","cityName":"国网浙江杭州市余杭区供电有限公司","provinceCode":null,"stopTime":"2019-08-10 23:59:00","powerType":"全部","powerOffArea":"110kV庙港变:方桥G907线永东4组3号公变配变 因施工难度大，故变更停电结束时间，原停电结束时间2019-08-10 23:27:00，变更后停电结束时间2019-08-10 23:59:00","powerOffReason":"高压开关跳闸","powerOffId":"2019081031020578"},{"poweroffId":2019081031020577,"sgpoweroffId":null,"subsName":"","lineName":"10kV芦茨T196线","pubTranName":"梅树坞1号公变,","scope":"浙江省-杭州市-桐庐县-富春江镇-芦茨行政村(梅树坞自然村,双源自然村)","startTime":"2019-08-10 18:39:55","stopDate":"2019-08-10 20:39:55","orgNo":"3340150","typeCode":"电网故障停限电","poweroffArea":"110kV外董变:芦茨T196线-梅树坞1号公变后段","poweroffReason":"高压开关跳闸","powerTime":"2019-08-10 20:21:32","powerComm":"已送电。","subsNo":"","lineNo":"","tgNo":"","tgName":null,"infoStatus":"1","orgName":"国网浙江桐庐县供电公司","typeName":null,"infoStatusName":null,"dateDay":null,"orgNos":null,"nowTime":null,"countyName":null,"streetName":null,"villageName":null,"roadName":null,"communityName":null,"tranName":null,"sdLineName":null,"cityCode":"3340150","cityName":"国网浙江桐庐县供电公司","provinceCode":null,"stopTime":"2019-08-10 20:39:55","powerType":"全部","powerOffArea":"110kV外董变:芦茨T196线-梅树坞1号公变后段","powerOffReason":"高压开关跳闸","powerOffId":"2019081031020577"},{"poweroffId":2019081031020573,"sgpoweroffId":null,"subsName":"","lineName":"10kV后山D833线","pubTranName":"新店村,包家棋村排涝,杭州市富阳区新桐乡新桐村经济合作社2#,包家棋村打水,新店村1#村中公变,杭州市富阳区新桐乡新桐村经济合作社1#,","scope":"浙江省-杭州市-富阳区-新桐乡-新桐行政村-新店自然村;新桐乡-新桐行政村(杭州市富阳区新桐乡新桐村股份经济合作社,杭州市富阳区新桐乡新桐村经济合作社)","startTime":"2019-08-10 18:30:55","stopDate":"2019-08-10 19:30:55","orgNo":"3340170","typeCode":"电网故障停限电","poweroffArea":"110kV新桐变:后山D833线-后山D8333开关后段","poweroffReason":"高压开关跳闸","powerTime":"2019-08-10 19:16:16","powerComm":"已送电","subsNo":"","lineNo":"","tgNo":"","tgName":null,"infoStatus":"1","orgName":"国网浙江杭州市富阳区供电公司","typeName":null,"infoStatusName":null,"dateDay":null,"orgNos":null,"nowTime":null,"countyName":null,"streetName":null,"villageName":null,"roadName":null,"communityName":null,"tranName":null,"sdLineName":null,"cityCode":"3340170","cityName":"国网浙江杭州市富阳区供电公司","provinceCode":null,"stopTime":"2019-08-10 19:30:55","powerType":"全部","powerOffArea":"110kV新桐变:后山D833线-后山D8333开关后段","powerOffReason":"高压开关跳闸","powerOffId":"2019081031020573"},{"poweroffId":2019081031020554,"sgpoweroffId":null,"subsName":"","lineName":"10kV红界A472线","pubTranName":"镇中村11#变,红界村8#变,杭州虎旺绣品有限公司,红界村4#变,杭州钱江制衣有限公司,红界村3#变,红界村9#变,杭州典创卫浴有限公司,杭州帆德花边有限公司,红界村10#变,红界村5#变,杭州萧山明扬卫浴洁具有限公司,红界村11#变,红界村2#变,红界村1#变,庆丰村7#变,红界村7#变,杭州威格斯服饰有限公司,杭州红运针织厂,杭州禾合实业有限公司,","scope":"浙江省-杭州市-萧山区-党湾镇-红界行政村(红界自然村,新农村),党湾镇(庆丰行政村-庆丰自然村,镇中行政村-镇中自然村);浙江省-杭州市-萧山区-党湾镇-庆丰行政村-杭州禾合实业有限公司,党湾镇-红界行政村(杭州典创卫浴有限公司,杭州虎旺绣品有限公司,杭州帆德花边有限公司,杭州红运针织厂,杭州相依纺织有限公司,杭州萧山明扬卫浴洁具有限公司,杭州威格斯服饰有限公司)一带","startTime":"2019-08-10 17:20:48","stopDate":"2019-08-10 19:04:48","orgNo":"3340130","typeCode":"电网故障停限电","poweroffArea":"110kV幸福变:红界A472线首端，红界A4722开关，红界A4724开关（自）之间","poweroffReason":"高压柱上断路器短路故障 原停电结束时间：2019-08-10 21:20:48，变更停电结束时间：2019-08-10 19:04:48，由于抢修工作提前完成，故需要提前送电。","powerTime":"2019-08-10 18:09:15","powerComm":"已送电","subsNo":"","lineNo":"","tgNo":"","tgName":null,"infoStatus":"1","orgName":"国网浙江杭州市萧山区供电有限公司","typeName":null,"infoStatusName":null,"dateDay":null,"orgNos":null,"nowTime":null,"countyName":null,"streetName":null,"villageName":null,"roadName":null,"communityName":null,"tranName":null,"sdLineName":null,"cityCode":"3340130","cityName":"国网浙江杭州市萧山区供电有限公司","provinceCode":null,"stopTime":"2019-08-10 19:04:48","powerType":"全部","powerOffArea":"110kV幸福变:红界A472线首端，红界A4722开关，红界A4724开关（自）之间","powerOffReason":"高压柱上断路器短路故障 原停电结束时间：2019-08-10 21:20:48，变更停电结束时间：2019-08-10 19:04:48，由于抢修工作提前完成，故需要提前送电。","powerOffId":"2019081031020554"},{"poweroffId":2019081031020553,"sgpoweroffId":null,"subsName":"","lineName":"10kV东藩C639线","pubTranName":"临浦集镇27#变,","scope":"浙江省-杭州市-萧山区-临浦镇-东麓池社区(东麓池弄,峙山北路)、临浦集镇西江塘小区、中商超市等一带","startTime":"2019-08-10 17:17:46","stopDate":"2019-08-10 19:30:46","orgNo":"3340130","typeCode":"电网故障停限电","poweroffArea":"110kV临浦变:东藩C639线-临浦集镇27#变台区低压开关","poweroffReason":"(低压停电信息)低压开关跳闸","powerTime":"2019-08-10 19:11:23","powerComm":"已送电","subsNo":"","lineNo":"","tgNo":"","tgName":null,"infoStatus":"1","orgName":"国网浙江杭州市萧山区供电有限公司","typeName":null,"infoStatusName":null,"dateDay":null,"orgNos":null,"nowTime":null,"countyName":null,"streetName":null,"villageName":null,"roadName":null,"communityName":null,"tranName":null,"sdLineName":null,"cityCode":"3340130","cityName":"国网浙江杭州市萧山区供电有限公司","provinceCode":null,"stopTime":"2019-08-10 19:30:46","powerType":"全部","powerOffArea":"110kV临浦变:东藩C639线-临浦集镇27#变台区低压开关","powerOffReason":"(低压停电信息)低压开关跳闸","powerOffId":"2019081031020553"},{"poweroffId":2019081031020546,"sgpoweroffId":null,"subsName":"","lineName":"10kV家东T565线","pubTranName":"梅山村2号公变,","scope":"浙江省-杭州市-桐庐县-凤川街道-翙岗行政村-梅山自然村","startTime":"2019-08-10 16:41:00","stopDate":"2019-08-10 18:10:00","orgNo":"3340150","typeCode":"电网故障停限电","poweroffArea":"110kV旺家变:家东T565线-梅山村2号公变后段","poweroffReason":"高压开关跳闸","powerTime":"2019-08-10 17:44:10","powerComm":"已送电。","subsNo":"","lineNo":"","tgNo":"","tgName":null,"infoStatus":"1","orgName":"国网浙江桐庐县供电公司","typeName":null,"infoStatusName":null,"dateDay":null,"orgNos":null,"nowTime":null,"countyName":null,"streetName":null,"villageName":null,"roadName":null,"communityName":null,"tranName":null,"sdLineName":null,"cityCode":"3340150","cityName":"国网浙江桐庐县供电公司","provinceCode":null,"stopTime":"2019-08-10 18:10:00","powerType":"全部","powerOffArea":"110kV旺家变:家东T565线-梅山村2号公变后段","powerOffReason":"高压开关跳闸","powerOffId":"2019081031020546"}],"pageModel":{"pageNow":1267,"totalCount":17789,"totalPage":1779,"tableRows":0,"pageCount":10,"beginCount":12660},"isExperi":"1"}