{"message":"","today":"2020-06-16","seleList":[{"poweroffId":2019081031020495,"sgpoweroffId":null,"subsName":"","lineName":"10kV通北D898线","pubTranName":"永丰村俞家爿3#村西公变,","scope":"浙江省-杭州市-富阳区-灵桥镇(永丰行政村-俞家爿自然村,灵桥行政村-黄泥沙自然村)","startTime":"2019-08-10 14:47:51","stopDate":"2019-08-10 16:15:51","orgNo":"3340170","typeCode":"电网故障停限电","poweroffArea":"110kV永春变:通北D898线-永丰村俞家爿3#村西公变后段","poweroffReason":"高压开关跳闸","powerTime":"2019-08-10 16:00:40","powerComm":"已送电","subsNo":"","lineNo":"","tgNo":"","tgName":null,"infoStatus":"1","orgName":"国网浙江杭州市富阳区供电公司","typeName":null,"infoStatusName":null,"dateDay":null,"orgNos":null,"nowTime":null,"countyName":null,"streetName":null,"villageName":null,"roadName":null,"communityName":null,"tranName":null,"sdLineName":null,"cityCode":"3340170","cityName":"国网浙江杭州市富阳区供电公司","provinceCode":null,"stopTime":"2019-08-10 16:15:51","powerType":"全部","powerOffArea":"110kV永春变:通北D898线-永丰村俞家爿3#村西公变后段","powerOffReason":"高压开关跳闸","powerOffId":"2019081031020495"},{"poweroffId":2019081031020492,"sgpoweroffId":null,"subsName":"","lineName":"10kV炬日A466线","pubTranName":"幸福村13#变,张潭村8#变,杭州明优汽车零部件有限公司,杭州吉尚木业有限公司,杭州恒烨纺织有限公司,八里桥村5#变,杭州萧山新中滚针轴承厂,八里桥村10#变,幸福村19#变,八里桥村3#变,八里桥村6#变,杭州好飞尔装饰材料有限公司,杭州爱信文具有限公司,杭州异次元机电有限公司,1#变,幸福村17#变,八里桥村7#变,八里桥村2#变,杭州宇飞板业有限公司变压器,杭州萧山党山祥德卫浴洁具厂,杭州潇丹塑业科技有限公司2#,幸福村16#变,杭州华普物业服务有限公司,幸福村18#变,八里桥村8#变,镇中村1#变,杭州爱信文具有限公司,杭州潇丹塑业科技有限公司,八里桥村14#变,八里桥村9#变,杭州惠人纺织有限公司,","scope":"浙江省-杭州市-萧山区-瓜沥镇-张潭行政村-大潭自然村,瓜沥镇-八里桥行政村(八里桥自然村,八世路,新农村自然村,北塘东路,青开路),党湾镇(镇中行政村-镇中自然村,幸福行政村-幸福自然村);瓜沥镇-八里桥行政村(杭州恒烨纺织有限公司,杭州好飞尔实业有限公司,杭州萧山党山祥德卫浴洁具厂,杭州宇飞板业有限公司,杭州异次元机电有限公司,杭州吉尚家居科技有限公司,杭州萧山建浩新材料厂),党湾镇-镇中行政村(杭州惠人纺织有限公司,杭州明优汽车零部件有限公司),党湾镇-幸福行政村(杭州爱信文具有限公司,杭州华普物业服务有限公司,杭州萧山新中滚针轴承厂,杭州潇丹塑业科技有限公司)一带","startTime":"2019-08-10 14:38:32","stopDate":"2019-08-10 16:38:32","orgNo":"3340130","typeCode":"电网故障停限电","poweroffArea":"110kV幸福变:炬日A466线-炬日A4662开关后段","poweroffReason":"高压柱上断路器短路故障 原停电结束时间：2019-08-10 19:41:32，变更停电结束时间：2019-08-10 16:38:32，由于抢修工作提前完成，故要提前送电。","powerTime":"2019-08-10 15:42:07","powerComm":"已送电","subsNo":"","lineNo":"","tgNo":"","tgName":null,"infoStatus":"1","orgName":"国网浙江杭州市萧山区供电有限公司","typeName":null,"infoStatusName":null,"dateDay":null,"orgNos":null,"nowTime":null,"countyName":null,"streetName":null,"villageName":null,"roadName":null,"communityName":null,"tranName":null,"sdLineName":null,"cityCode":"3340130","cityName":"国网浙江杭州市萧山区供电有限公司","provinceCode":null,"stopTime":"2019-08-10 16:38:32","powerType":"全部","powerOffArea":"110kV幸福变:炬日A466线-炬日A4662开关后段","powerOffReason":"高压柱上断路器短路故障 原停电结束时间：2019-08-10 19:41:32，变更停电结束时间：2019-08-10 16:38:32，由于抢修工作提前完成，故要提前送电。","powerOffId":"2019081031020492"},{"poweroffId":2019081031020490,"sgpoweroffId":null,"subsName":"","lineName":"10kV新桐D411线","pubTranName":"浙江交工宏途交通建设有限公司1#变,浙江交工宏途交通建设有限公司4#变,浙江交工宏途交通建设有限公司1#变,浙江交工宏途交通建设有限公司2#变,富阳市民政局,浙江交工宏途交通建设有限公司1#变,浙江交工宏途交通建设有限公司1#变,","scope":"浙江省-杭州市-富阳区-鹿山街道-汤家埠行政村(浙江交工宏途交通建设有限公司,富阳市民政局),环山乡-中埠行政村-浙江交工宏途交通建设有限公司,新桐乡-程浦行政村-浙江交工宏途交通建设有限公司","startTime":"2019-08-10 14:38:45","stopDate":"2019-08-10 17:00:45","orgNo":"3340170","typeCode":"电网故障停限电","poweroffArea":"110kV长春变:新桐D411线首端，浙江交工宏途交通建设有限公司，浙江交工宏途交通建设有限公司，浙江交工宏途交通建设有限公司之间","poweroffReason":"高压开关跳闸","powerTime":"2019-08-10 16:37:32","powerComm":"已送电","subsNo":"","lineNo":"","tgNo":"","tgName":null,"infoStatus":"1","orgName":"国网浙江杭州市富阳区供电公司","typeName":null,"infoStatusName":null,"dateDay":null,"orgNos":null,"nowTime":null,"countyName":null,"streetName":null,"villageName":null,"roadName":null,"communityName":null,"tranName":null,"sdLineName":null,"cityCode":"3340170","cityName":"国网浙江杭州市富阳区供电公司","provinceCode":null,"stopTime":"2019-08-10 17:00:45","powerType":"全部","powerOffArea":"110kV长春变:新桐D411线首端，浙江交工宏途交通建设有限公司，浙江交工宏途交通建设有限公司，浙江交工宏途交通建设有限公司之间","powerOffReason":"高压开关跳闸","powerOffId":"2019081031020490"},{"poweroffId":2019081031020487,"sgpoweroffId":null,"subsName":"","lineName":"10kV长北C656线","pubTranName":"利围村10#变,群英安置区1#变,兴围村14#变,党山镇党山村,益农镇人民政府,1#变,益农供电营业所单相变2#变,利围村14#变,萧山区党山镇张潭村经济合作社,浙江盛元化纤有限公司,兴围村11#变,利围村13#变,利围村9#变,群英村17#变,杭州市萧山区益农镇农业办公室,一农围垦精养渔场,杭州市萧山区党山镇人民政府5#,益农供电营业所6#变,利围村4#变,利围村3#变,群英村14#变,杭州市萧山区党山镇人民政府1#,萧山区党山镇开源村村民委员会,群英村8#变,萧山区党山镇车路湾村村民居委会1#,萧山区党山镇张潭村经济合作社,萧山区党山镇车路湾村村民居委会2#,萧山区党湾镇群益村,浙江盛元化纤有限公司,群英村11#变,群英村6#变,利围村6#变,利围村15#变,群英村19#变,利围村8#变,长北村3#变,群英村5#变,兴围村5#变,萧山区党山镇众安村村民委员会,杭州萧山党山镇众安村,萧山区党山镇长联村村民委员会,萧山区党山镇车路湾村村民居委会3#,杭州萧山瓜沥镇永联村经济联合社,长北村9#变,利围村11#变,杭州强通科技有限公司,利围村1#变,杭州市萧山区党山镇人民政府2#,1#变,浙江盛元化纤有限公司,群英安置区2#变,杭州萧山速腾化纤整理加工厂,","scope":"浙江省-杭州市-萧山区-益农镇-东沙行政村(东沙自然村,红阳路),益农镇(群英行政村-群英自然村,东联行政村-东联自然村,利围行政村-利围自然村,长北行政村-长北自然村,兴围行政村-兴围自然村);益农镇-利围行政村(萧山区党山镇车路湾村村民委员会,杭州市萧山区益农镇农业办公室,党山镇党山村),瓜沥镇-兴围行政村(杭州市萧山区益农镇人民政府,杭州市萧山区党山镇人民政府,杭州萧山瓜沥镇永联村经济联合社,杭州萧山党山镇众安村,萧山区党山镇群益村),益农镇-群英行政村(杭州强通科技有限公司,杭州萧山益农镇群英村经济联合社),益农镇-长北行政村(萧山区党山镇张潭村经济合作社,萧山区党山镇众安村村民委员会,杭州萧山瓜沥镇信源村经济联合社),益农镇-益农行政村(一农围垦精养渔场,萧山区党山镇长联村村民委员会,浙江盛元化纤有限公司),瓜沥镇(开源行政村-萧山区党山镇开源村村民委员会,张潭行政村-杭州萧山党山镇张潭村经济联合社,前兴行政村-杭州萧山速腾化纤整理加工厂,党山行政村-杭州市萧山区党山镇人民政府)一带","startTime":"2019-08-10 14:19:51","stopDate":"2019-08-10 17:20:51","orgNo":"3340130","typeCode":"电网故障停限电","poweroffArea":"35kV益农变:长北C656线-长北C656线开关后段","poweroffReason":"高压柱上断路器短路故障 原停电结束时间：2019-08-10 19:28:51，变更停电结束时间：2019-08-10 17:20:51，由于抢修工作提前完成，故需要提前完成。","powerTime":"2019-08-10 16:24:14","powerComm":"已送电","subsNo":"","lineNo":"","tgNo":"","tgName":null,"infoStatus":"1","orgName":"国网浙江杭州市萧山区供电有限公司","typeName":null,"infoStatusName":null,"dateDay":null,"orgNos":null,"nowTime":null,"countyName":null,"streetName":null,"villageName":null,"roadName":null,"communityName":null,"tranName":null,"sdLineName":null,"cityCode":"3340130","cityName":"国网浙江杭州市萧山区供电有限公司","provinceCode":null,"stopTime":"2019-08-10 17:20:51","powerType":"全部","powerOffArea":"35kV益农变:长北C656线-长北C656线开关后段","powerOffReason":"高压柱上断路器短路故障 原停电结束时间：2019-08-10 19:28:51，变更停电结束时间：2019-08-10 17:20:51，由于抢修工作提前完成，故需要提前完成。","powerOffId":"2019081031020487"},{"poweroffId":2019081031020485,"sgpoweroffId":null,"subsName":"","lineName":"10kV径山H545线","pubTranName":"绿景村后诸2号公变,桥北加2#,","scope":"浙江省-杭州市-余杭区-径山镇-绿景行政村(绿景自然村,后诸自然村,桥北自然村);浙江省-杭州市-余杭区-径山镇-潘坂桥行政村-明康汇生态农业集团杭州种植有限公司一带","startTime":"2019-08-10 14:24:00","stopDate":"2019-08-10 17:24:00","orgNo":"3340140","typeCode":"电网故障停限电","poweroffArea":"110kV潘板变:径山H545线-明康汇农业分线开关后段","poweroffReason":"高压开关跳闸","powerTime":"2019-08-10 16:32:00","powerComm":"已送电","subsNo":"","lineNo":"","tgNo":"","tgName":null,"infoStatus":"1","orgName":"国网浙江杭州市余杭区供电有限公司","typeName":null,"infoStatusName":null,"dateDay":null,"orgNos":null,"nowTime":null,"countyName":null,"streetName":null,"villageName":null,"roadName":null,"communityName":null,"tranName":null,"sdLineName":null,"cityCode":"3340140","cityName":"国网浙江杭州市余杭区供电有限公司","provinceCode":null,"stopTime":"2019-08-10 17:24:00","powerType":"全部","powerOffArea":"110kV潘板变:径山H545线-明康汇农业分线开关后段","powerOffReason":"高压开关跳闸","powerOffId":"2019081031020485"},{"poweroffId":2019081031020484,"sgpoweroffId":null,"subsName":"","lineName":"10kV紫文8929线","pubTranName":"金昌(二),","scope":"浙江省-杭州市-西湖区-文新街道-府新社区-文三西路-金都花园","startTime":"2019-08-10 14:21:59","stopDate":"2019-08-10 16:30:00","orgNo":"3340101","typeCode":"电网故障停限电","poweroffArea":"110kV丰潭变:紫文8929线-金昌(二)后段","poweroffReason":"(低压停电信息)低压开关跳闸 原预计停电结束时间2019-08-10 18:21:59,由于施工现场环境比较复杂，存在不确定因素，因此预估施工时间适当放长了，而实际施工进行得比较顺利，因此提前送电了","powerTime":"2019-08-10 15:54:04","powerComm":"送电","subsNo":"","lineNo":"","tgNo":"","tgName":null,"infoStatus":"1","orgName":"浙江杭州电力客户服务中心","typeName":null,"infoStatusName":null,"dateDay":null,"orgNos":null,"nowTime":null,"countyName":null,"streetName":null,"villageName":null,"roadName":null,"communityName":null,"tranName":null,"sdLineName":null,"cityCode":"3340101","cityName":"浙江杭州电力客户服务中心","provinceCode":null,"stopTime":"2019-08-10 16:30:00","powerType":"全部","powerOffArea":"110kV丰潭变:紫文8929线-金昌(二)后段","powerOffReason":"(低压停电信息)低压开关跳闸 原预计停电结束时间2019-08-10 18:21:59,由于施工现场环境比较复杂，存在不确定因素，因此预估施工时间适当放长了，而实际施工进行得比较顺利，因此提前送电了","powerOffId":"2019081031020484"},{"poweroffId":2019081031020483,"sgpoweroffId":null,"subsName":"","lineName":"10kV利时7152线","pubTranName":"沿灯(2),沿灯(1),","scope":"浙江省-杭州市-江干区-白杨街道-白杨社区-杭州经济技术开发区城市管理办公室","startTime":"2019-08-10 14:18:11","stopDate":"2019-08-10 19:18:11","orgNo":"3340101","typeCode":"电网故障停限电","poweroffArea":"110kV沿江变:利时7152线-保税(1)分线分路开关后段","poweroffReason":"高压开关跳闸","powerTime":"2019-08-10 18:30:11","powerComm":"送电","subsNo":"","lineNo":"","tgNo":"","tgName":null,"infoStatus":"1","orgName":"浙江杭州电力客户服务中心","typeName":null,"infoStatusName":null,"dateDay":null,"orgNos":null,"nowTime":null,"countyName":null,"streetName":null,"villageName":null,"roadName":null,"communityName":null,"tranName":null,"sdLineName":null,"cityCode":"3340101","cityName":"浙江杭州电力客户服务中心","provinceCode":null,"stopTime":"2019-08-10 19:18:11","powerType":"全部","powerOffArea":"110kV沿江变:利时7152线-保税(1)分线分路开关后段","powerOffReason":"高压开关跳闸","powerOffId":"2019081031020483"},{"poweroffId":2019081031020477,"sgpoweroffId":null,"subsName":"","lineName":"10kV高岭Y802线","pubTranName":"昴畈村东山台区,友谊村高岭台区,昴畈村桥头边台区,洋溪街道友谊村经济合作社,莲花村里薛台区,建德市千峰塑业有限责任公司,建德市莲花向阳塑胶材料厂,建德市华益塑料材料有限公司,浙江广川建设有限公司 （红丘塘）临变变压器,浙江广川建设有限公司(洋坞口砂石加工系统)变压器,1#,友谊村巧山台区,莲花村中薛台区,友谊村红丘塘台区,建德市豪丰木业制品厂,莲花村小岭后台区,友谊村芳村台区,友谊村蛇坑台区,友谊村屋基畈台区,建德市新安江街道葛坞方解石矿,莲花村外薛台区,建德市三创工艺品有限公司,杭州新安江旅业发展有限公司,建德市中中石粉厂1#,友谊村庵前台区,配水二标莲花溪施工变1#临变,建德市广天三峰矿业有限公司,建德市莲花橡塑材料厂,莲花村吴家台区,建德市洋溪街道桑园砂石料站,建德市汇金塑胶材料厂,莲花山水2#公变台区,建德中房旅业发展有限公司,友谊村下田台区,","scope":"浙江省-杭州市-建德市-下涯镇-春秋行政村-苏家自然村,洋溪街道-友谊行政村(蛇坑自然村,红丘塘自然村,下田自然村,屋基畈自然村,高岭自然村,巧山自然村,芳村自然村,庵前自然村),莲花镇-莲花行政村(吴家自然村,外薛自然村,薛上自然村,小岭后自然村,莲花路,莲花山水大厦,广元路),莲花镇-昴畈行政村(东山自然村,桥头边自然村,昴畈自然村);新安江街道-岭后社区(建德中房旅业发展有限公司,建德市新安旅游投资有限公司),洋溪街道-友谊行政村(浙江广川建设有限公司,建德市莲花橡塑材料厂,建德市华益塑料材料有限公司,建德市广天三峰矿业有限公司,建德市中中塑胶有限公司,建德市洋溪街道桑园砂石料站,建德市三创工艺品有限公司),莲花镇-莲花行政村(浙江广川建设有限公司,建德市豪丰木业制品厂,建德市莲农生物有机肥有限公司,建德市千峰塑业有限责任公司,建德市新莲塑化材料厂),洋溪街道-建德市洋溪街道友谊股份经济合作社,莲花镇-昴畈行政村-建德市汇金塑胶材料厂,新安江街道-葛坞社区-建德市新安江街道葛坞方解石矿一带用户。","startTime":"2019-08-10 13:57:04","stopDate":"2019-08-10 16:57:04","orgNo":"3340180","typeCode":"电网故障停限电","poweroffArea":"35kV莲花变:高岭Y802线","poweroffReason":"台风天气树木碰线导致开关跳闸","powerTime":"2019-08-10 16:41:00","powerComm":"已送电","subsNo":"","lineNo":"","tgNo":"","tgName":null,"infoStatus":"1","orgName":"国网浙江建德市供电有限公司","typeName":null,"infoStatusName":null,"dateDay":null,"orgNos":null,"nowTime":null,"countyName":null,"streetName":null,"villageName":null,"roadName":null,"communityName":null,"tranName":null,"sdLineName":null,"cityCode":"3340180","cityName":"国网浙江建德市供电有限公司","provinceCode":null,"stopTime":"2019-08-10 16:57:04","powerType":"全部","powerOffArea":"35kV莲花变:高岭Y802线","powerOffReason":"台风天气树木碰线导致开关跳闸","powerOffId":"2019081031020477"},{"poweroffId":2019081031020474,"sgpoweroffId":null,"subsName":"","lineName":"10kV东潭G877线","pubTranName":"姚家埭村凤凰桥公变,杭州海峰铸造有限公司1#,杭州海峰铸造有限公司,大运河铸造,泉漳小学612058619701#专变,邮电所,杭州淦源机电设备有限公司,宏达变,中国移动余杭分公司,姚家埭村南河洋公变,姚家埭村姜家河公变,姚家埭村张家坝公变,","scope":"浙江省-杭州市-余杭区-塘栖镇-姚家埭凤凰桥一带","startTime":"2019-08-10 13:51:14","stopDate":"2019-08-10 15:51:14","orgNo":"3340140","typeCode":"电网故障停限电","poweroffArea":"110kV漳河变:东潭G877线-凤凰桥分线12#杆后段","poweroffReason":"东潭G877线-凤凰桥分线12#杆后段高压线路断线","powerTime":"2019-08-10 15:15:00","powerComm":"已送电","subsNo":"","lineNo":"","tgNo":"","tgName":null,"infoStatus":"1","orgName":"国网浙江杭州市余杭区供电有限公司","typeName":null,"infoStatusName":null,"dateDay":null,"orgNos":null,"nowTime":null,"countyName":null,"streetName":null,"villageName":null,"roadName":null,"communityName":null,"tranName":null,"sdLineName":null,"cityCode":"3340140","cityName":"国网浙江杭州市余杭区供电有限公司","provinceCode":null,"stopTime":"2019-08-10 15:51:14","powerType":"全部","powerOffArea":"110kV漳河变:东潭G877线-凤凰桥分线12#杆后段","powerOffReason":"东潭G877线-凤凰桥分线12#杆后段高压线路断线","powerOffId":"2019081031020474"},{"poweroffId":2019081031020473,"sgpoweroffId":null,"subsName":"","lineName":"10kV单木C664线","pubTranName":"杭州国祥纺织有限公司,杭州绿美洁具有限公司,杭州利良针织有限公司,开源村6#变,单木桥村13#变,杭州美域高实业有限公司,杭州昕昕泡绵有限公司变压器,杭州峰城化纤有限公司变压器,杭州格里森机械有限公司间隔2变,单木桥村3#变,杭州炯炯卫浴洁具有限公司,开源村2#变,杭州博立实业有限公司,杭州康得信纺织有限公司1#,杭州萧山党山开源小木布厂,杭州双女实业有限公司,萧山党山开源恩祥布厂,党山开源第八化纤厂,杭州格里森机械有限公司间隔1变,杭州琪琪包装制品厂变压器,单木桥村15#变,单木桥村11#变,杭州信鑫经编织造有限公司,开源村9#变,开源村3#变,杭州满堂化纤有限公司,杭州党峰化纤有限公司,单木桥村4#变,杭州康得信纺织有限公司,开源村7#变,杭州董氏纺织有限公司,","scope":"浙江省-杭州市-萧山区-瓜沥镇-开源行政村(开源自然村,官街路),瓜沥镇(单木桥行政村-单木桥自然村,解放行政村-北塘东路);瓜沥镇-单木桥行政村(杭州格立森机械有限公司,杭州富宇布业有限公司,杭州康得信纺织有限公司,杭州博立实业有限公司),瓜沥镇-开源行政村(杭州国祥纺织有限公司,杭州美域高实业有限公司,杭州董氏纺织有限公司,杭州双女实业有限公司,杭州满堂化纤有限公司,杭州盛友业有限公司,党山开源第八化纤厂,杭州信鑫经编织造有限公司,杭州萧山党山开源小木布厂,萧山党山开源恩祥布厂,杭州党峰化纤有限公司,杭州峰城化纤有限公司,杭州琪琪包装制品厂),瓜沥镇(解放行政村-杭州炯炯卫浴洁具有限公司,党山行政村-杭州利良针织有限公司)一带","startTime":"2019-08-10 13:45:16","stopDate":"2019-08-10 18:10:16","orgNo":"3340130","typeCode":"电网故障停限电","poweroffArea":"35kV长沙变:单木C664线","poweroffReason":"高压柱上断路器短路故障 原停电结束时间:2019-08-10 19:45:16 ,变更停电结束时间: 2019-08-10 18:10:16。由于抢修工作提前完成,故需要提前送电。","powerTime":"2019-08-10 17:14:56","powerComm":"已送电","subsNo":"","lineNo":"","tgNo":"","tgName":null,"infoStatus":"1","orgName":"国网浙江杭州市萧山区供电有限公司","typeName":null,"infoStatusName":null,"dateDay":null,"orgNos":null,"nowTime":null,"countyName":null,"streetName":null,"villageName":null,"roadName":null,"communityName":null,"tranName":null,"sdLineName":null,"cityCode":"3340130","cityName":"国网浙江杭州市萧山区供电有限公司","provinceCode":null,"stopTime":"2019-08-10 18:10:16","powerType":"全部","powerOffArea":"35kV长沙变:单木C664线","powerOffReason":"高压柱上断路器短路故障 原停电结束时间:2019-08-10 19:45:16 ,变更停电结束时间: 2019-08-10 18:10:16。由于抢修工作提前完成,故需要提前送电。","powerOffId":"2019081031020473"}],"pageModel":{"pageNow":1269,"totalCount":17789,"totalPage":1779,"tableRows":0,"pageCount":10,"beginCount":12680},"isExperi":"1"}