{"message":"","today":"2020-06-15","seleList":[{"poweroffId":2020052131020237,"sgpoweroffId":null,"subsName":"","lineName":"10kV民族T148线","pubTranName":"沈家1号公变,","scope":"浙江省-杭州市-桐庐县-莪山畲族乡-沈冠行政村(沈家自然村,皂树田自然村,衣冠自然村)","startTime":"2020-05-21 14:56:02","stopDate":"2020-05-21 17:56:02","orgNo":"3340150","typeCode":"电网故障停限电","poweroffArea":"35kV钟山变:民族T148线-沈家1号公变后段","poweroffReason":"(低压停电信息)低压开关跳闸","powerTime":"2020-05-21 17:34:30","powerComm":"已送电","subsNo":"","lineNo":"","tgNo":"","tgName":null,"infoStatus":"1","orgName":"国网浙江桐庐县供电公司","typeName":null,"infoStatusName":null,"dateDay":null,"orgNos":null,"nowTime":null,"countyName":null,"streetName":null,"villageName":null,"roadName":null,"communityName":null,"tranName":null,"sdLineName":null,"cityCode":"3340150","cityName":"国网浙江桐庐县供电公司","provinceCode":null,"stopTime":"2020-05-21 17:56:02","powerType":"全部","powerOffArea":"35kV钟山变:民族T148线-沈家1号公变后段","powerOffReason":"(低压停电信息)低压开关跳闸","powerOffId":"2020052131020237"},{"poweroffId":2020052131020203,"sgpoweroffId":null,"subsName":"","lineName":"10kV岛石V168线","pubTranName":"银坑村（上村）,龙山村,龙山村(叉口),华光潭村洪家,临安市岛石镇小学,株川村(榔树坑),呼日村,下白村,株川村,银坑村（下村）,汤家村,茶亭村,流水村,坞口村,姚家村（枫树下）,马川村,姚家村,银坑村（平岭上）,","scope":"浙江省-杭州市-临安市-岛石镇-岛石行政村-舒家自然村,龙岗镇-华光潭行政村(坞口自然村,车阗寺自然村),岛石镇-呼日行政村(下白自然村,呼日自然村,龙山自然村,株川自然村),岛石镇-茶亭行政村(茶亭自然村,汤家自然村,流水自然村,马川自然村),岛石镇-银坑行政村(银坑自然村,姚家自然村,平岭上自然村);浙江省-杭州市-临安市-岛石镇-茶亭行政村-临安市岛石镇小学","startTime":"2020-05-21 14:00:13","stopDate":"2020-05-21 17:00:13","orgNo":"3340160","typeCode":"电网故障停限电","poweroffArea":"35kV岛石变:岛石V168线-1682开关后段","poweroffReason":"高压开关跳闸","powerTime":"2020-05-21 16:02:22","powerComm":"已送电","subsNo":"","lineNo":"","tgNo":"","tgName":null,"infoStatus":"1","orgName":"国网浙江临安市供电公司","typeName":null,"infoStatusName":null,"dateDay":null,"orgNos":null,"nowTime":null,"countyName":null,"streetName":null,"villageName":null,"roadName":null,"communityName":null,"tranName":null,"sdLineName":null,"cityCode":"3340160","cityName":"国网浙江临安市供电公司","provinceCode":null,"stopTime":"2020-05-21 17:00:13","powerType":"全部","powerOffArea":"35kV岛石变:岛石V168线-1682开关后段","powerOffReason":"高压开关跳闸","powerOffId":"2020052131020203"},{"poweroffId":2020052131020199,"sgpoweroffId":null,"subsName":"","lineName":"10kV钱部C542线","pubTranName":"盈一村14#变,","scope":"浙江省-杭州市-萧山区-宁围街道-新安行政村-新安自然村,宁围街道-盈一行政村(盈一自然村,鸿宁路)","startTime":"2020-05-29 08:45:00","stopDate":"2020-05-29 17:30:00","orgNo":"3340130","typeCode":"计划停电","poweroffArea":"35kV钱江变:钱部C542线-盈一村14#变后段","poweroffReason":"拆除盈一村14#变进线（宁月II开G22间隔至盈一村14#变）YJV22-8.7/15-3*70电缆599米，宁月II开G22间隔至盈一村14#变新放ZC-YJV22-8.7/15-3*70电缆690米","powerTime":"2020-05-29 16:43:10","powerComm":"已送电","subsNo":"","lineNo":"","tgNo":"","tgName":null,"infoStatus":"1","orgName":"国网浙江杭州市萧山区供电有限公司","typeName":null,"infoStatusName":null,"dateDay":null,"orgNos":null,"nowTime":null,"countyName":null,"streetName":null,"villageName":null,"roadName":null,"communityName":null,"tranName":null,"sdLineName":null,"cityCode":"3340130","cityName":"国网浙江杭州市萧山区供电有限公司","provinceCode":null,"stopTime":"2020-05-29 17:30:00","powerType":"全部","powerOffArea":"35kV钱江变:钱部C542线-盈一村14#变后段","powerOffReason":"拆除盈一村14#变进线（宁月II开G22间隔至盈一村14#变）YJV22-8.7/15-3*70电缆599米，宁月II开G22间隔至盈一村14#变新放ZC-YJV22-8.7/15-3*70电缆690米","powerOffId":"2020052131020199"},{"poweroffId":2020052131020197,"sgpoweroffId":null,"subsName":"","lineName":"10kV新和H776线","pubTranName":"仙宅村加工场公变,","scope":"浙江省-杭州市-余杭区-余杭街道-仙宅行政村(仙宅自然村,万石村自然村)","startTime":"2020-05-21 13:40:13","stopDate":"2020-05-21 16:40:13","orgNo":"3340140","typeCode":"电网故障停限电","poweroffArea":"35kV长岗临时变:新和H776线-仙宅村加工场公变后段","poweroffReason":"高压开关跳闸 原停电结束时间为2020-05-21 15:40:13,因现场情况复杂原因,延迟送电,现变更停电结束时间为2020-05-21 16:40:13","powerTime":"2020-05-21 16:02:00","powerComm":"已送电","subsNo":"","lineNo":"","tgNo":"","tgName":null,"infoStatus":"1","orgName":"国网浙江杭州市余杭区供电有限公司","typeName":null,"infoStatusName":null,"dateDay":null,"orgNos":null,"nowTime":null,"countyName":null,"streetName":null,"villageName":null,"roadName":null,"communityName":null,"tranName":null,"sdLineName":null,"cityCode":"3340140","cityName":"国网浙江杭州市余杭区供电有限公司","provinceCode":null,"stopTime":"2020-05-21 16:40:13","powerType":"全部","powerOffArea":"35kV长岗临时变:新和H776线-仙宅村加工场公变后段","powerOffReason":"高压开关跳闸 原停电结束时间为2020-05-21 15:40:13,因现场情况复杂原因,延迟送电,现变更停电结束时间为2020-05-21 16:40:13","powerOffId":"2020052131020197"},{"poweroffId":2020052131020177,"sgpoweroffId":null,"subsName":"","lineName":"10kV赭东A807线","pubTranName":"红山村7#变,卫锋管业(1315078082),杭州龙德信机械有限公司,赭东村14#变,赭东村18#变,盛宏绣花厂(1315078607),东风村11#变,赭东村16#变,赭东村11#变,1#变,杭州阳成塑胶厂变压器间隔配电变压器,桐乡市交通工程有限公司,2#,赭东村12#变,赭东村8#变,红山村6#变,1,永利村4#变,红山村16#变,红山村5#变,赭东村10#变,赭东村7#变,永利村2#变,1#变,红山村8#变,红山村18#变,永利村8#变,红山村9#变,红山村17#变,圣茂塑胶,赭东村19#变,震宇金属家具(1315086597),金星塑粉(1315080956),红山村15#变,东风村6#变,红山村10#变,杭州市萧山区人民政府南阳街道办事处,赭东村17#变,翔风铝业,红山村14#变,华凌轴承(1315077224),赭东村6#变,东风村7#变,东风村5#变,赭东村20#变,","scope":"浙江省-杭州市-萧山区-南阳街道-南翔行政村(南阳自然村,万丰自然村),南阳街道-赭东行政村(赭东自然村,经四路),南阳街道(红山行政村-红山自然村,东风行政村-东风自然村,永利行政村-永利自然村);浙江省-杭州市-萧山区-南阳街道-横蓬行政村-杭州华凌轴承有限公司,南阳街道-赭东行政村(萧山市南阳金星浸塑粉厂,杭州卫锋管业有限公司,杭州翔凤铝业有限公司,杭州圣茂塑胶有限公司,杭州市萧山区人民政府南阳街道办事处,杭州明缘塑料制品有限公司),南阳街道-红山行政村(杭州阳成塑胶厂,杭州诚盈针织有限公司,杭州龙德信机械有限公司,杭州震宇金属家具有限公司,杭州可淋普包装科技有限公司,桐乡市交通工程有限公司,杭州市萧山区公路管理处)浙江省杭州市萧山区南阳街道红山行政村红山自然村5组47户等","startTime":"2020-05-21 12:40:52","stopDate":"2020-05-21 15:35:52","orgNo":"3340130","typeCode":"电网故障停限电","poweroffArea":"110kV黎明变:赭东A807线-南隆A8073开关后段","poweroffReason":"高压柱上断路器跳闸 原停电结束时间为2020-05-21 16:44:52,为减少客户停电时间,加快工作进度,提前送电,现变更停电结束时间为2020-05-21 15:35:52","powerTime":"2020-05-21 14:46:37","powerComm":"已送电","subsNo":"","lineNo":"","tgNo":"","tgName":null,"infoStatus":"1","orgName":"国网浙江杭州市萧山区供电有限公司","typeName":null,"infoStatusName":null,"dateDay":null,"orgNos":null,"nowTime":null,"countyName":null,"streetName":null,"villageName":null,"roadName":null,"communityName":null,"tranName":null,"sdLineName":null,"cityCode":"3340130","cityName":"国网浙江杭州市萧山区供电有限公司","provinceCode":null,"stopTime":"2020-05-21 15:35:52","powerType":"全部","powerOffArea":"110kV黎明变:赭东A807线-南隆A8073开关后段","powerOffReason":"高压柱上断路器跳闸 原停电结束时间为2020-05-21 16:44:52,为减少客户停电时间,加快工作进度,提前送电,现变更停电结束时间为2020-05-21 15:35:52","powerOffId":"2020052131020177"},{"poweroffId":2020052131020175,"sgpoweroffId":null,"subsName":"","lineName":"10kV隆新C707线","pubTranName":"杭州市萧山区青少年劳技培训服务中心,南阳造纸厂1#,九鼎纸管,1#变,红山村11#变,佳宇泡沫制品(1316084633),华凌石材加工(1316017092),1#变,南阳造纸厂4#,1#变,南阳造纸厂3#,佳龙金属,1#变,3#变,1#变,西气东输,杭州萧山青少年劳技培训服务中心1#,萧山益佳工艺厂1321084921,红山村13#变,1#变,陆伟庆砂石,1#变,南阳造纸厂2#,2#变,","scope":"浙江省-杭州市-萧山区-南阳街道-红山行政村-红山自然村;浙江省-杭州市-萧山区-南阳街道-杭州可淋普包装科技有限公司,南阳街道-红山行政村(杭州萧山南阳镇华林石料加工场,杭州市萧山区青少年劳技培训服务中心,杭州萧山陆伟庆砂石有限公司,杭州佳宇泡沫制品有限公司,杭州萧山南阳造纸有限公司,杭州科成金属制品有限公司,杭州萧山益佳工艺五金厂,杭州九鼎纸管有限公司,中石油管道有限责任公司西气东输分公司,杭州星时达塑业有限公司,杭州市萧山区公路管理处,杭州临空再生资源有限公司),南阳街道-赭山社区(杭州仁源汽配有限公司,杭州市萧山区青少年劳技培训服务中心,浙江中纺控股集团有限公司)等","startTime":"2020-05-21 12:23:24","stopDate":"2020-05-21 15:10:24","orgNo":"3340130","typeCode":"电网故障停限电","poweroffArea":"35kV赭山变:隆新C707线-隆新C7072开关后段","poweroffReason":"高压柱上断路器跳闸 原停电结束时间为2020-05-21 15:36:24,为减少客户停电时间,加快工作进度,提前送电,现变更停电结束时间为2020-05-21 15:10:24","powerTime":"2020-05-21 14:18:33","powerComm":"已送电","subsNo":"","lineNo":"","tgNo":"","tgName":null,"infoStatus":"1","orgName":"国网浙江杭州市萧山区供电有限公司","typeName":null,"infoStatusName":null,"dateDay":null,"orgNos":null,"nowTime":null,"countyName":null,"streetName":null,"villageName":null,"roadName":null,"communityName":null,"tranName":null,"sdLineName":null,"cityCode":"3340130","cityName":"国网浙江杭州市萧山区供电有限公司","provinceCode":null,"stopTime":"2020-05-21 15:10:24","powerType":"全部","powerOffArea":"35kV赭山变:隆新C707线-隆新C7072开关后段","powerOffReason":"高压柱上断路器跳闸 原停电结束时间为2020-05-21 15:36:24,为减少客户停电时间,加快工作进度,提前送电,现变更停电结束时间为2020-05-21 15:10:24","powerOffId":"2020052131020175"},{"poweroffId":2020052131020158,"sgpoweroffId":null,"subsName":"","lineName":"10kV管村Y678线","pubTranName":"三溪村下三溪台区配变,","scope":"浙江省-杭州市-建德市-李家镇白马行政村-天井山自然村,三溪行政村-下三溪自然村","startTime":"2020-05-21 11:10:00","stopDate":"2020-05-21 12:53:00","orgNo":"3340180","typeCode":"电网故障停限电","poweroffArea":"110kV大同变:管村Y678线三溪村下三溪台区配变配变","poweroffReason":"高压开关跳闸","powerTime":"2020-05-21 12:08:00","powerComm":"已送电","subsNo":"","lineNo":"","tgNo":"","tgName":null,"infoStatus":"1","orgName":"国网浙江建德市供电有限公司","typeName":null,"infoStatusName":null,"dateDay":null,"orgNos":null,"nowTime":null,"countyName":null,"streetName":null,"villageName":null,"roadName":null,"communityName":null,"tranName":null,"sdLineName":null,"cityCode":"3340180","cityName":"国网浙江建德市供电有限公司","provinceCode":null,"stopTime":"2020-05-21 12:53:00","powerType":"全部","powerOffArea":"110kV大同变:管村Y678线三溪村下三溪台区配变配变","powerOffReason":"高压开关跳闸","powerOffId":"2020052131020158"},{"poweroffId":2020052131020142,"sgpoweroffId":null,"subsName":"","lineName":"10kV新江C536线","pubTranName":"杭州萧山浦阳江建设开发有限公司1#,2#,杭州融阳政房地产开发有限公司,电动工具,桃北新村13#变,于家机埠,桃北新村28#变,杭州力亿轴承有限公司,杭州融阳政房地产开发有限公司1,杭州市萧山区育苗学校,中国电信股份有限公司杭州萧山区分公司,浙江省交通工程建设集团有限公司杭金衢高速公路拓宽工程,桃北新村23#变,杭州融泓政房地产开发有限公司2#,桃北新村8#变,甬森玻璃,桃北新村17#变,杭州融阳政房地产开发有限公司2,桃北新村25#变,桃北新村11#变,桃北新村26#变,杭州萧山普天塑业有限公司,桃北新村1#变,桃北新村5#变,浙江泰格集成房屋有限公司,永润鞋业,桃北新村9#变,桃北新村32#公变,杭州荣煕实业有限公司,杭州融阳政房地产开发有限公司,杭州麻棉纺织厂,桃北新村6#变,桃北新村30#变,杭州融阳政房地产开发有限公司,桃北新村12#变,桃北新村29#变,杭州萧山天成机械有限公司,桃北新村10#变,浦阳集镇1#变,桃北新村15#变,桃北新村14#变,浙江杭锻精密机械有限公司,桃北新村4#变,桃北新村3#变,桃北新村27#变,桃北新村18#变,桃北新村2#变,杭州融泓政房地产开发有限公司1#,","scope":"浙江省-杭州市-萧山区-浦阳镇-桃北新行政村(横塘倪自然村,小湖孙自然村,许家自然村,桃北新村自然村),浦阳镇-尖山行政村(下山俞自然村,振浦路);浙江省-杭州市-萧山区-浦阳镇-新河口行政村-杭州融泓政房地产开发有限公司,浦阳镇-桃北新行政村(杭州融阳政房地产开发有限公司,浙江杭锻精密机械有限公司,杭州萧山浦阳桃北新村股份经济联合社,杭州甬森玻璃有限公司,杭州萧山电动工具配件厂,杭州萧山普天塑业有限公司,杭州市萧山区浦阳镇人民政府,杭州佳得焊不锈钢设备有限公司,杭州麻棉纺织厂),浦阳镇-尖山行政村(杭州荣煕实业有限公司,中国电信股份有限公司杭州萧山区分公司,杭州永润鞋业有限公司,杭州天启机械有限公司,杭州市萧山区育苗学校,杭州力亿轴承有限公司),浙江省杭州市萧山区浦阳镇桃北新行政村桃北新村36幢2单元301室,浙江省杭州市萧山区浦阳镇桃北新行政村桃北新村38幢1单元,浙江省杭州市萧山区濮阳朝北青春等","startTime":"2020-05-21 10:59:33","stopDate":"2020-05-21 16:00:33","orgNo":"3340130","typeCode":"电网故障停限电","poweroffArea":"35kV径游变:新江C536线开关后段","poweroffReason":"高压架空线路断线 原停电结束时间为2020-05-21 17:00:33,为减少客户停电时间,加快工作进度,提前送电,现变更停电结束时间为2020-05-21 16:00:33","powerTime":"2020-05-21 15:09:50","powerComm":"已送电","subsNo":"","lineNo":"","tgNo":"","tgName":null,"infoStatus":"1","orgName":"国网浙江杭州市萧山区供电有限公司","typeName":null,"infoStatusName":null,"dateDay":null,"orgNos":null,"nowTime":null,"countyName":null,"streetName":null,"villageName":null,"roadName":null,"communityName":null,"tranName":null,"sdLineName":null,"cityCode":"3340130","cityName":"国网浙江杭州市萧山区供电有限公司","provinceCode":null,"stopTime":"2020-05-21 16:00:33","powerType":"全部","powerOffArea":"35kV径游变:新江C536线开关后段","powerOffReason":"高压架空线路断线 原停电结束时间为2020-05-21 17:00:33,为减少客户停电时间,加快工作进度,提前送电,现变更停电结束时间为2020-05-21 16:00:33","powerOffId":"2020052131020142"},{"poweroffId":2020052131020140,"sgpoweroffId":null,"subsName":"","lineName":"10kV纤石H402线","pubTranName":"石桥村塘家圩1号公变,","scope":"浙江省-杭州市-余杭区-良渚街道-石桥行政村-石桥自然村","startTime":"2020-06-05 08:30:00","stopDate":"2020-06-05 15:30:00","orgNo":"3340140","typeCode":"计划停电","poweroffArea":"35kV良渚变:纤石H402线-石桥村塘家圩一带","poweroffReason":"(低压停电信息)纤石H402线石桥村塘家圩1号公变低压线路改造 原停电结束时间为2020-06-05 16:30:00,为减少客户停电时间,加快工作进度,提前送电,现变更停电结束时间为2020-06-05 15:30:00","powerTime":"2020-06-05 14:38:32","powerComm":"已送电","subsNo":"","lineNo":"","tgNo":"","tgName":null,"infoStatus":"1","orgName":"国网浙江杭州市余杭区供电有限公司","typeName":null,"infoStatusName":null,"dateDay":null,"orgNos":null,"nowTime":null,"countyName":null,"streetName":null,"villageName":null,"roadName":null,"communityName":null,"tranName":null,"sdLineName":null,"cityCode":"3340140","cityName":"国网浙江杭州市余杭区供电有限公司","provinceCode":null,"stopTime":"2020-06-05 15:30:00","powerType":"全部","powerOffArea":"35kV良渚变:纤石H402线-石桥村塘家圩一带","powerOffReason":"(低压停电信息)纤石H402线石桥村塘家圩1号公变低压线路改造 原停电结束时间为2020-06-05 16:30:00,为减少客户停电时间,加快工作进度,提前送电,现变更停电结束时间为2020-06-05 15:30:00","powerOffId":"2020052131020140"},{"poweroffId":2020052131020110,"sgpoweroffId":null,"subsName":"","lineName":"10kV溪口R181线","pubTranName":"临岐溪口村外公山公变,","scope":"浙江省-杭州市-淳安县-临岐镇-溪口行政村(外公山新村,外公山自然村)","startTime":"2020-05-27 07:50:00","stopDate":"2020-05-27 16:10:00","orgNo":"3340190","typeCode":"临时停电","poweroffArea":"35kV临岐变:溪口R181线-临岐溪口村外公山公变后段","poweroffReason":"溪口R181线外公山支线0号杆路智能开关安装。","powerTime":"2020-05-27 15:22:39","powerComm":"已送电","subsNo":"","lineNo":"","tgNo":"","tgName":null,"infoStatus":"1","orgName":"国网浙江淳安县供电有限公司","typeName":null,"infoStatusName":null,"dateDay":null,"orgNos":null,"nowTime":null,"countyName":null,"streetName":null,"villageName":null,"roadName":null,"communityName":null,"tranName":null,"sdLineName":null,"cityCode":"3340190","cityName":"国网浙江淳安县供电有限公司","provinceCode":null,"stopTime":"2020-05-27 16:10:00","powerType":"全部","powerOffArea":"35kV临岐变:溪口R181线-临岐溪口村外公山公变后段","powerOffReason":"溪口R181线外公山支线0号杆路智能开关安装。","powerOffId":"2020052131020110"}],"pageModel":{"pageNow":129,"totalCount":17786,"totalPage":1779,"tableRows":0,"pageCount":10,"beginCount":1280},"isExperi":"1"}