{"message":"","today":"2020-06-16","seleList":[{"poweroffId":2019081031020352,"sgpoweroffId":null,"subsName":"","lineName":"10kV通济C633线","pubTranName":"盛达纺织,高田陈7#变,杭州井盛包装有限公司,华家村4#变,孔兴华五金,华家村2#变,苎萝村10#变,华家村3#变,高田陈5#变,亚太纺织,苎萝村6#变,杭州烽天机械制造有限公司,临东村3#变,临东社区1#变,苎萝村9#变,高运公司1#,苎萝村7#变,高运公司3#,苎萝村11#变,阳光车业,华家村1#变,临东社区3#变,临东社区4#变,华家村5#变,杭州德鸿金属科技有限公司,杭州新河塑料制品有限公司,高田陈12#变,临东社区2#变,华通胶印,久远机械,高峰制钉,临东村1#变,荣潮孵坊,高田陈11#变,杭州德瑞宝管道科技有限公司,慧杰电子,临东社区6#变,临东社区5#变,苎萝村5#变,杭州惠伦科技有限公司,苎萝村3#变,临东村4#变,杭州顺泽精密机械有限公司,苎萝村1#变,高运公司2#,临东村2#变,金川齿轮,杭州市萧山区临浦镇人民政府,公路管理处,华家村6#变,杭州市萧山区临浦镇人民政府,","scope":"浙江省-杭州市-萧山区-临浦镇-高田陈社区(外塘自然村,傅家自然村,高田陈自然村,塘里陈自然村),临浦镇-华家行政村(华家自然村,小华家自然村),临浦镇-苎萝行政村(木汀徐自然村,屠家埭自然村,施家渡自然村,施家渡村,九房自然村),临浦镇-临东社区(浴美路西自然村,塘下屠自然村,临东小区,乌石桥自然村,浴美路);浙江省-杭州市-萧山区-临浦镇-高田陈社区-杭州市萧山区临浦镇人民政府,临浦镇-华家行政村(杭州慧杰电子科技有限公司,杭州萧山高桥运输有限公司,杭州井盛包装有限公司),临浦镇-苎萝行政村(杭州德瑞宝管道科技有限公司,杭州萧山亚太纺织有限公司,杭州兆达五金工具厂,杭州惠伦科技有限公司,杭州德鸿金属科技有限公司,杭州顺泽精密机械有限公司,杭州烽天机械制造有限公司),临浦镇-通一行政村(杭州市萧山区公路管理处,临浦荣潮孵坊),临浦镇-临东社区(杭州浦荣五金机械有限公司,杭州金川齿轮制造有限公司,杭州萧山阳光车业有限公司,杭州高军金属制品有限公司,杭州萧山华通胶印上光有限公司,杭州萧山久远机械有限公司,杭州新河塑料制品有限公司,杭州市萧山区临浦镇人民政府)一带","startTime":"2019-08-10 10:11:41","stopDate":"2019-08-10 14:11:41","orgNo":"3340130","typeCode":"电网故障停限电","poweroffArea":"110kV临浦变:通济C633线开关后段","poweroffReason":"高压开关跳闸","powerTime":"2019-08-10 13:20:51","powerComm":"已送电","subsNo":"","lineNo":"","tgNo":"","tgName":null,"infoStatus":"1","orgName":"国网浙江杭州市萧山区供电有限公司","typeName":null,"infoStatusName":null,"dateDay":null,"orgNos":null,"nowTime":null,"countyName":null,"streetName":null,"villageName":null,"roadName":null,"communityName":null,"tranName":null,"sdLineName":null,"cityCode":"3340130","cityName":"国网浙江杭州市萧山区供电有限公司","provinceCode":null,"stopTime":"2019-08-10 14:11:41","powerType":"全部","powerOffArea":"110kV临浦变:通济C633线开关后段","powerOffReason":"高压开关跳闸","powerOffId":"2019081031020352"},{"poweroffId":2019081031020351,"sgpoweroffId":null,"subsName":"","lineName":"10kV河园6152线","pubTranName":"侨宏,美苑,","scope":"浙江省-杭州市-滨江区-西兴街道-襄七房社区(杭州鸿邦汽车技术有限公司,杭州美苑景观建筑设计工程有限公司)，浙江省杭州市滨江区杭州美苑景观建筑设计工程有限公司、杭州鸿邦汽车技术有限公司","startTime":"2019-08-22 09:30:00","stopDate":"2019-08-22 22:00:00","orgNo":"3340101","typeCode":"计划停电","poweroffArea":"110kV长河变:河园6152线-化工分线后段","poweroffReason":"杭州地铁5号线江晖路站二期10kV电力迁改工程CZ2019-04-072-YAQQ（城源）明蕾站II段换柜,计划停电结束时间18:00，因工作量大原因导致延时送电，预计送电时间：2019-8-22 22:00","powerTime":"2019-08-22 21:17:17","powerComm":"已送电","subsNo":"","lineNo":"","tgNo":"","tgName":null,"infoStatus":"1","orgName":"浙江杭州电力客户服务中心","typeName":null,"infoStatusName":null,"dateDay":null,"orgNos":null,"nowTime":null,"countyName":null,"streetName":null,"villageName":null,"roadName":null,"communityName":null,"tranName":null,"sdLineName":null,"cityCode":"3340101","cityName":"浙江杭州电力客户服务中心","provinceCode":null,"stopTime":"2019-08-22 22:00:00","powerType":"全部","powerOffArea":"110kV长河变:河园6152线-化工分线后段","powerOffReason":"杭州地铁5号线江晖路站二期10kV电力迁改工程CZ2019-04-072-YAQQ（城源）明蕾站II段换柜,计划停电结束时间18:00，因工作量大原因导致延时送电，预计送电时间：2019-8-22 22:00","powerOffId":"2019081031020351"},{"poweroffId":2019081031020350,"sgpoweroffId":null,"subsName":"","lineName":"10kV丁南H708线","pubTranName":"南农宝德庵,竹园村半天山公变,","scope":"浙江省-杭州市-余杭区-余杭街道-竹园行政村-竹园自然村;浙江省-杭州市-余杭区-余杭街道-上湖行政村-杭州余杭农林南湖经营有限公司","startTime":"2019-08-10 10:11:31","stopDate":"2019-08-10 17:11:00","orgNo":"3340140","typeCode":"电网故障停限电","poweroffArea":"110kV余杭变:丁南H708线-宝德庵分线开关后段","poweroffReason":"高压开关跳闸","powerTime":"2019-08-10 16:16:00","powerComm":"已送电","subsNo":"","lineNo":"","tgNo":"","tgName":null,"infoStatus":"1","orgName":"国网浙江杭州市余杭区供电有限公司","typeName":null,"infoStatusName":null,"dateDay":null,"orgNos":null,"nowTime":null,"countyName":null,"streetName":null,"villageName":null,"roadName":null,"communityName":null,"tranName":null,"sdLineName":null,"cityCode":"3340140","cityName":"国网浙江杭州市余杭区供电有限公司","provinceCode":null,"stopTime":"2019-08-10 17:11:00","powerType":"全部","powerOffArea":"110kV余杭变:丁南H708线-宝德庵分线开关后段","powerOffReason":"高压开关跳闸","powerOffId":"2019081031020350"},{"poweroffId":2019081031020348,"sgpoweroffId":null,"subsName":"","lineName":"10kV灵桥D167线","pubTranName":"董家桥村董家桥5号桥西新区公变,","scope":"浙江省-杭州市-富阳区-灵桥镇-董家桥行政村(联合自然村,董家桥自然村)","startTime":"2019-08-10 10:09:27","stopDate":"2019-08-10 16:09:27","orgNo":"3340170","typeCode":"电网故障停限电","poweroffArea":"110kV大源变:灵桥D167线-董家桥村董家桥5号桥西新区公变后段","poweroffReason":"高压开关跳闸，原停电结束时间2019-08-10 15:09:27，因抢修难度大变更至2019-08-10 16:09:27","powerTime":"2019-08-10 16:01:47","powerComm":"已送电","subsNo":"","lineNo":"","tgNo":"","tgName":null,"infoStatus":"1","orgName":"国网浙江杭州市富阳区供电公司","typeName":null,"infoStatusName":null,"dateDay":null,"orgNos":null,"nowTime":null,"countyName":null,"streetName":null,"villageName":null,"roadName":null,"communityName":null,"tranName":null,"sdLineName":null,"cityCode":"3340170","cityName":"国网浙江杭州市富阳区供电公司","provinceCode":null,"stopTime":"2019-08-10 16:09:27","powerType":"全部","powerOffArea":"110kV大源变:灵桥D167线-董家桥村董家桥5号桥西新区公变后段","powerOffReason":"高压开关跳闸，原停电结束时间2019-08-10 15:09:27，因抢修难度大变更至2019-08-10 16:09:27","powerOffId":"2019081031020348"},{"poweroffId":2019081031020342,"sgpoweroffId":null,"subsName":"","lineName":"10kV长聚6167线","pubTranName":"功德利,包装,江陵路,雷格电气,","scope":"浙江省-杭州市-滨江区-西兴街道-庙后王社区-杭州功德利工艺品有限公司,浙江省杭州市滨江区杭州功德利工艺品有限公司、杭州雷格电气科技有限公司、杭州西兴软包装材料厂、杭州市滨江区城市管理局","startTime":"2019-08-20 09:30:00","stopDate":"2019-08-20 20:00:00","orgNo":"3340101","typeCode":"计划停电","poweroffArea":"110kV长河变:长聚6167线-功德利分线后段;长聚6167线-包装分线后段","poweroffReason":"杭州地铁5号线江晖路站二期10kV电力迁改工程CZ2019-04-072-YAQQ（城源）明蕾站I段换柜.计划停电结束时间18:00，因工作量大原因导致延时送电，预计送电时间：2019-8-20 20:00","powerTime":"2019-08-20 19:14:06","powerComm":"已送电","subsNo":"","lineNo":"","tgNo":"","tgName":null,"infoStatus":"1","orgName":"浙江杭州电力客户服务中心","typeName":null,"infoStatusName":null,"dateDay":null,"orgNos":null,"nowTime":null,"countyName":null,"streetName":null,"villageName":null,"roadName":null,"communityName":null,"tranName":null,"sdLineName":null,"cityCode":"3340101","cityName":"浙江杭州电力客户服务中心","provinceCode":null,"stopTime":"2019-08-20 20:00:00","powerType":"全部","powerOffArea":"110kV长河变:长聚6167线-功德利分线后段;长聚6167线-包装分线后段","powerOffReason":"杭州地铁5号线江晖路站二期10kV电力迁改工程CZ2019-04-072-YAQQ（城源）明蕾站I段换柜.计划停电结束时间18:00，因工作量大原因导致延时送电，预计送电时间：2019-8-20 20:00","powerOffId":"2019081031020342"},{"poweroffId":2019081031020340,"sgpoweroffId":null,"subsName":"","lineName":"10kV洪福G904线","pubTranName":"洪福7组7号公变,洪福7组5号公变,","scope":"浙江省-杭州市-余杭区-乔司街道-永西行政村(东桥头自然村,东西杨桥自然村,北西马自然村,陈公桥自然村)一带","startTime":"2019-08-10 10:05:01","stopDate":"2019-08-10 16:05:00","orgNo":"3340140","typeCode":"电网故障停限电","poweroffArea":"110kV庙港变:洪福G904线-洪福7组5#公变分线开关后段","poweroffReason":"高压开关跳闸","powerTime":"2019-08-10 15:15:00","powerComm":"已送电","subsNo":"","lineNo":"","tgNo":"","tgName":null,"infoStatus":"1","orgName":"国网浙江杭州市余杭区供电有限公司","typeName":null,"infoStatusName":null,"dateDay":null,"orgNos":null,"nowTime":null,"countyName":null,"streetName":null,"villageName":null,"roadName":null,"communityName":null,"tranName":null,"sdLineName":null,"cityCode":"3340140","cityName":"国网浙江杭州市余杭区供电有限公司","provinceCode":null,"stopTime":"2019-08-10 16:05:00","powerType":"全部","powerOffArea":"110kV庙港变:洪福G904线-洪福7组5#公变分线开关后段","powerOffReason":"高压开关跳闸","powerOffId":"2019081031020340"},{"poweroffId":2019081031020339,"sgpoweroffId":null,"subsName":"","lineName":"10kV义南C143线","pubTranName":"义南村1#变,协谊村10#变,杭州恒水水利机械有限公司变压器,杭州市萧山区人民政府靖江街道办事处,升华金属制品,杭州福恩纺织有限公司2变压器,杭州丽博橱柜有限公司,杭州丽博家居有限公司,义南村6#变,义南村16#变,义南村11#变,1#,义南村3#变,钱港化纤,义南村15#变,申发电器,杭州铭盛天玑纺织有限公司2#,杭州铭盛天玑纺织有限公司1#,杭州丽博橱柜有限公司,1#,","scope":"浙江省-杭州市-萧山区-靖江街道(义南行政村-义南自然村,协谊行政村-协谊自然村);靖江街道-义南行政村(杭州萧山福音医院,杭州丽博家居有限公司,杭州申发电气有限公司,杭州铭盛天玑纺织有限公司,杭州福恩纺织有限公司,杭州恒水水利机械有限公司),靖江街道(靖港行政村-杭州钱港化纤有限公司,花神庙社区-杭州市萧山区人民政府靖江街道办事处,协谊行政村-杭州一鼎传动机械有限公司)一带","startTime":"2019-08-10 09:55:27","stopDate":"2019-08-10 12:34:27","orgNo":"3340130","typeCode":"电网故障停限电","poweroffArea":"110kV梅西变:义南C143线-义南C143线开关后段","poweroffReason":"高压柱上断路器短路故障 原停电结束时间：2019-08-10 16:34:27，变更停电结束时间：2019-08-10 12:34:27，由于抢修工作提前完成，故需要提前送电。","powerTime":"2019-08-10 11:40:32","powerComm":"已送电","subsNo":"","lineNo":"","tgNo":"","tgName":null,"infoStatus":"1","orgName":"国网浙江杭州市萧山区供电有限公司","typeName":null,"infoStatusName":null,"dateDay":null,"orgNos":null,"nowTime":null,"countyName":null,"streetName":null,"villageName":null,"roadName":null,"communityName":null,"tranName":null,"sdLineName":null,"cityCode":"3340130","cityName":"国网浙江杭州市萧山区供电有限公司","provinceCode":null,"stopTime":"2019-08-10 12:34:27","powerType":"全部","powerOffArea":"110kV梅西变:义南C143线-义南C143线开关后段","powerOffReason":"高压柱上断路器短路故障 原停电结束时间：2019-08-10 16:34:27，变更停电结束时间：2019-08-10 12:34:27，由于抢修工作提前完成，故需要提前送电。","powerOffId":"2019081031020339"},{"poweroffId":2019081031020337,"sgpoweroffId":null,"subsName":"","lineName":"10kV石墓D217线","pubTranName":"杭州富阳城北加油站有限公司 1#,富阳万彩物资有限公司,浙江交工集团股份有限公司2#变,杭州东本节能材料有限公司,1#变,富阳富强实业有限公司,浙江省隧道工程集团有限公司1#变,郜村宋家塘横溪洋里5#公变,郜村宋家塘1#黄溪洋公变,杭州百斯特门窗有限公司,杭州绿城银湖置业有限公司 1#,浙江省富阳利江消防器材厂,杭州绿城银湖置业有限公司 1#,勤丰村6号北渠南公变,云水山居17#公变,勤乐村石墓村1#村中公变,勤丰村3#黄泥山公变,杭州富阳荷月民宿有限公司1#,勤乐村上郜2号木桥头公变,富阳市金马金属包装有限公司,勤丰村5号三角区公变,云水山居22号公变配变,勤丰村8号和尚庄公变,杭州富春食品添加剂有限公司1#变,杭州美通实业有限公司,富阳市皇天畈水利管理处,上大庄村11号下横溪洋公变,云水山居19号公变配变,杭州绿城银湖置业有限公司 3#,云水山居21号公变配变,云水山居25号公变,云水山居20号公变配变,浙江交工集团股份有限公司合上庄1#变,浙江省第一水电建设集团股份有限公司6#变,富阳锦冠生态农业开发有限公司,杭州富阳金鑫化工有限公司,杭州富阳华仪仪表有限公司1#变,云水山居14号公变,勤乐村上郜3号安头蓬公变,勤丰村4号和尚庄公变,云水山居27号公变,郜村宋家塘3号野亩垅公变,上大庄村4#横溪洋公变,杭州兴发弹簧有限公司3#变,郜村2号村委公变,浙江省第一水电建设集团股份有限公司1#变,云水山居24号公变,勤乐村上郜5号木桥头东公变,杭州富阳章诚机械制造有限公司1#变,杭州金宇房地产开发有限公司1#变,勤丰村2#陆家山里公变,云水山居23号公变,浙江省第一水电建设集团股份有限公司5#变,富阳市路灯安装维修管理所,郜村宋家塘2号北渠边公变,勤丰村白龙寺2#戴家坞公变,富阳市高桥镇勤丰村村民委员会,云水山居15#公变,大庄村黄泥洞7#公变1,勤丰村1#陆家山外公变,浙江交工集团股份有限公司2#变,2#变,富阳千禧园艺场,杭州百斯特门窗有限公司1#变,勤乐村石墓3号猫头山公变,浙江省第一水电建设集团股份有限公司4#变,云水山居26号公变,云水山居28号公变,杭州绿城银湖置业有限公司2#,云水山居12#公变,宋家塘野亩垄2#桥头公变,杭州农趣食品有限公司,云水山居18#公变,云水山居16#公变,云水山居3#公变,云水山居11#公变,浙江省第一水电建设集团股份有限公司3#变,勤乐村上郜1号上郜公变,银湖街道勤丰村村民委员会公变,浙江省第一水电建设集团股份有限公司2#变,杭州华晨工贸有限公司,宇轩建业集团有限公司 1#,勤乐村石墓4#蚌壳山公变,郜村1号村北公变,2#变,云水山居4#公变,云水山居29号公变,云水山居13号公变,杭州金宇房地产开发有限公司,上大庄村15号下横溪洋公变,勤丰村白龙寺1#村口公变,浙江交工集团股份有限公司1#变,云水山居2#公变,杭州金丰管件有限公司,杭州百斯特门窗有限公司2#变,杭州富阳长江发电机有限公司,云水山居1#公变,杭州金宇房地产开发有限公司,勤乐村上郜4#北渠公变,上大庄村8号下横溪洋公变,","scope":"浙江省-杭州市-富阳区-银湖街道-大庄行政村(横溪洋自然村,上大庄自然村,大庄自然村,潘家自然村),银湖街道-高桥行政村(高桦路,高桥自然村),银湖街道-勤乐行政村(安头蓬自然村,上郜自然村,木桥头自然村,猫头山自然村,石墓自然村,蚌壳山自然村),银湖街道-郜村行政村(郜村自然村,宋家塘自然村,下横溪自然村,野庙垅自然村),银湖街道-勤丰行政村(勤丰自然村,和尚庄自然村,黄泥山自然村,白龙寺自然村,陆家山自然村),银湖街道-受降行政村-大树下自然村,富春街道-勤丰行政村-勤丰村;浙江省-杭州市-富阳区-富春街道-勤丰行政村-富阳市高桥镇勤丰村村民委员会,银湖街道-郜村行政村(浙江省富阳利江消防器材厂,杭州富阳千禧园艺场,杭州富阳金鑫化工有限公司,杭州市富阳区皇天畈水利管理处,杭州富阳万彩物资有限公司,杭州富春食品添加剂有限公司,杭州富阳锦冠生态农业开发有限公司,杭州美通实业有限公司,杭州富阳荷月民宿有限公司,浙江省隧道工程集团有限公司),银湖街道-勤丰行政村(杭州富阳长江发电机有限公司,杭州百斯特门窗有限公司,杭州富阳金马金属包装有限公司,杭州东本节能材料有限公司,杭州金宇房地产开发有限公司,杭州兴发弹簧有限公司,杭州富阳城市照明工程有限公司,杭州梦亮包装制品有限公司,杭州富阳华仪仪表有限公司,杭州富阳章诚机械制造有限公司,浙江交工集团股份有限公司,杭州东昱艺术培训有限公司),银湖街道(勤乐行政村-杭州绿城银湖置业有限公司,高桥行政村-浙江壳牌燃油有限公司,受降行政村-宇轩建业集团有限公司)","startTime":"2019-08-10 10:01:44","stopDate":"2019-08-10 13:45:44","orgNo":"3340170","typeCode":"电网故障停限电","poweroffArea":"110kV银湖变:石墓D217线-石墓D2171开关后段","poweroffReason":"高压开关跳闸，原停电结束时间2019-08-10 13:01:44，因施工难度大变更至2019-08-10 13:45:44","powerTime":"2019-08-10 12:48:26","powerComm":"已送电","subsNo":"","lineNo":"","tgNo":"","tgName":null,"infoStatus":"1","orgName":"国网浙江杭州市富阳区供电公司","typeName":null,"infoStatusName":null,"dateDay":null,"orgNos":null,"nowTime":null,"countyName":null,"streetName":null,"villageName":null,"roadName":null,"communityName":null,"tranName":null,"sdLineName":null,"cityCode":"3340170","cityName":"国网浙江杭州市富阳区供电公司","provinceCode":null,"stopTime":"2019-08-10 13:45:44","powerType":"全部","powerOffArea":"110kV银湖变:石墓D217线-石墓D2171开关后段","powerOffReason":"高压开关跳闸，原停电结束时间2019-08-10 13:01:44，因施工难度大变更至2019-08-10 13:45:44","powerOffId":"2019081031020337"},{"poweroffId":2019081031020336,"sgpoweroffId":null,"subsName":"","lineName":"10kV恒达C135线","pubTranName":"杭州恒达钢构股份有限公司,博立格纤维,杭州博立格纤维有限公司2#,杭州博立格纤维有限公司1#,义南村13#变,4,","scope":"浙江省-杭州市-萧山区-靖江街道-义南行政村-义南自然村;靖江街道-义南行政村(杭州博立格纤维有限公司,杭州恒俊钢构有限公司)一带","startTime":"2019-08-10 10:00:24","stopDate":"2019-08-10 12:25:24","orgNo":"3340130","typeCode":"电网故障停限电","poweroffArea":"110kV梅西变:恒达C135线","poweroffReason":"高压柱上断路器短路故障 原停电结束时间：2019-08-10 16:00:24，变更停电结束时间：2019-08-10 12:25:24，由于抢修工作提前完成，故需要提前送电。","powerTime":"2019-08-10 11:34:53","powerComm":"已送电","subsNo":"","lineNo":"","tgNo":"","tgName":null,"infoStatus":"1","orgName":"国网浙江杭州市萧山区供电有限公司","typeName":null,"infoStatusName":null,"dateDay":null,"orgNos":null,"nowTime":null,"countyName":null,"streetName":null,"villageName":null,"roadName":null,"communityName":null,"tranName":null,"sdLineName":null,"cityCode":"3340130","cityName":"国网浙江杭州市萧山区供电有限公司","provinceCode":null,"stopTime":"2019-08-10 12:25:24","powerType":"全部","powerOffArea":"110kV梅西变:恒达C135线","powerOffReason":"高压柱上断路器短路故障 原停电结束时间：2019-08-10 16:00:24，变更停电结束时间：2019-08-10 12:25:24，由于抢修工作提前完成，故需要提前送电。","powerOffId":"2019081031020336"},{"poweroffId":2019081031020335,"sgpoweroffId":null,"subsName":"","lineName":"10kV双镇H542线","pubTranName":"竹海山庄612062638601#专变,双溪村狮子山公变,杭州径山祥和茶厂,双溪村台山村公变,陆羽泉茶叶6120593162,双溪村敬老院公变,双溪村双电2号公变,陆羽山庄1#,双溪村双溪旅游公变,陆羽山庄2#,双溪村台山抗旱公变,","scope":"浙江省-杭州市-余杭区-径山镇-双溪行政村(凉亭头自然村,双溪村,竹海路),径山镇(径山行政村-径山自然村,小古城行政村-小古城自然村,求是行政村-求是自然村);浙江省-杭州市-余杭区-径山镇-双溪行政村-杭州陆羽泉茶叶有限公司,径山镇-漕桥行政村(杭州陆羽君澜度假酒店有限公司,杭州双溪竹海山庄有限公司)一带","startTime":"2019-08-10 10:00:00","stopDate":"2019-08-10 17:00:00","orgNo":"3340140","typeCode":"电网故障停限电","poweroffArea":"110kV潘板变:双镇H542线-狮子山分线开关后段","poweroffReason":"高压开关跳闸","powerTime":"2019-08-10 16:15:00","powerComm":"已送电","subsNo":"","lineNo":"","tgNo":"","tgName":null,"infoStatus":"1","orgName":"国网浙江杭州市余杭区供电有限公司","typeName":null,"infoStatusName":null,"dateDay":null,"orgNos":null,"nowTime":null,"countyName":null,"streetName":null,"villageName":null,"roadName":null,"communityName":null,"tranName":null,"sdLineName":null,"cityCode":"3340140","cityName":"国网浙江杭州市余杭区供电有限公司","provinceCode":null,"stopTime":"2019-08-10 17:00:00","powerType":"全部","powerOffArea":"110kV潘板变:双镇H542线-狮子山分线开关后段","powerOffReason":"高压开关跳闸","powerOffId":"2019081031020335"}],"pageModel":{"pageNow":1274,"totalCount":17789,"totalPage":1779,"tableRows":0,"pageCount":10,"beginCount":12730},"isExperi":"1"}