{"message":"","today":"2020-06-16","seleList":[{"poweroffId":2019081031020195,"sgpoweroffId":null,"subsName":"","lineName":"10kV如意A326线","pubTranName":"杭州萧山鸿达染整有限公司2#,运西村5#变,杭州志帛花边有限公司变压器,杭州昌杰机械有限公司,杭州萧山项云林废旧物资回收站,运西村4#变,运西村10#变,运西村13#变,运西村6#变,瓜沥运西针织厂,运西村8#变,运西村3#变,2#变,运西村9#变,运西村12#变,杭州萧山瓜沥永新捻丝加工厂,运西沈管林化纤厂,杭州天丽花边有限公司,杭州萧山鸿达染整有限公司3#,运西村2#变,杭州萧山瓜沥镇宝贤化纤厂,杭州萧山鸿达染整有限公司1#,运西村7#变,","scope":"浙江省-杭州市-萧山区-瓜沥镇-运西行政村-运西自然村、运西村、瓜沥镇-运西行政村(瓜力运西针织厂,运西沈管林化纤厂,杭州萧山瓜沥镇宝贤化纤厂,杭州志帛花边有限公司,杭州萧山瓜沥永新捻丝加工厂,杭州萧山项云林废旧物资回收站,杭州萧山鸿达染整有限公司,杭州昌杰机械有限公司),靖江街道-靖东行政村-杭州天丽花边有限公司,瓜沥镇-运东行政村-杭州市萧山区瓜沥镇人民政府","startTime":"2019-08-10 06:07:33","stopDate":"2019-08-10 10:46:33","orgNo":"3340130","typeCode":"电网故障停限电","poweroffArea":"110kV靖江变:如意A326线","poweroffReason":"高压柱上断路器短路故障 原停电结束时间：2019-08-10 15:07:33，变更停电结束时间：2019-08-10 10:46:33，由于抢修工作提前完成，故需要提前送电。","powerTime":"2019-08-10 09:52:10","powerComm":"已送电","subsNo":"","lineNo":"","tgNo":"","tgName":null,"infoStatus":"1","orgName":"国网浙江杭州市萧山区供电有限公司","typeName":null,"infoStatusName":null,"dateDay":null,"orgNos":null,"nowTime":null,"countyName":null,"streetName":null,"villageName":null,"roadName":null,"communityName":null,"tranName":null,"sdLineName":null,"cityCode":"3340130","cityName":"国网浙江杭州市萧山区供电有限公司","provinceCode":null,"stopTime":"2019-08-10 10:46:33","powerType":"全部","powerOffArea":"110kV靖江变:如意A326线","powerOffReason":"高压柱上断路器短路故障 原停电结束时间：2019-08-10 15:07:33，变更停电结束时间：2019-08-10 10:46:33，由于抢修工作提前完成，故需要提前送电。","powerOffId":"2019081031020195"},{"poweroffId":2019081031020191,"sgpoweroffId":null,"subsName":"","lineName":"10kV荣联C522线","pubTranName":"湘湖林语5#公变,1#变压器,湘湖林语2#公变,杜湖村4#公变,湘湖小学,湘湖林语1#公变,钱塘江灌区管理,荣庄村12#公变,二棉路8#公变,华瑞1#,城北新村3#公变,浙江纳德物业管理有限公司,杭州萧山区邮政局,五七2#公变,石油化工分公司,杭州市萧山公共交通有限公司,城北新村2#公变,二棉路2#公变,二棉路5#公变,二棉路7#公变,二棉路3#公变,二棉路4#公变,荣联村5#公变,萧西实验学校,市政园林26#,城北新村1#公变,变压器,市政园林变压器,二棉路1#公变,二棉路6#公变,湘湖美地Z1专变1,环境卫生管理所,湘湖林语4#公变,荣联村1#公变,杭州萧山物业发展公司,1#变,荣联村2#公变,浙江萧山粮食机械有限公司,五七1#公变,浙江金凯汽车销售服务有限公司,湘湖林语3#公变,","scope":"浙江省-杭州市-萧山区-北干街道(萧然社区-萧杭路,荣庄行政村-金惠路,荣联社区-萧杭路,万寿桥社区-萧杭路,工人路社区-工人路),城厢街道(杜湖社区-萧杭路,万寿桥社区-下湘湖路);浙江省-杭州市-萧山区-北干街道-金山西苑社区-浙江萧山粮食机械有限公司,北干街道-北干二苑社区(中石化碧辟(浙江)石油有限公司杭州分公司,中国石化销售股份有限公司浙江杭州石油分公司,杭州萧山城市固废清洁直运有限公司),城厢街道-美之园社区(浙江万兴恒服务有限公司,广东碧桂园物业服务股份有限公司萧山分公司,萧山区湘湖小学),城厢街道-万寿桥社区(杭州市萧山区萧西实验学校,杭州市萧山区城市河道管理处,杭州市萧山区市政绿化养护保障中心),北干街道-萧然社区(浙江金凯汽车销售服务有限公司,中国邮政集团公司杭州市萧山区分公司,中建二局第一建筑工程有限公司),城厢街道(荣联社区-杭州萧山金沛贸易有限公司,杜湖社区-杭州市萧山区市政绿化养护保障中心,西河路社区-杭州市萧山公共交通有限公司,萧西路社区-杭州萧山国有资产投资有限公司)，五七路口、萧杭路、萧棉路、二棉路、工人路一带","startTime":"2019-08-10 06:04:38","stopDate":"2019-08-10 14:00:00","orgNo":"3340130","typeCode":"电网故障停限电","poweroffArea":"110kV湘湖变:荣联C522线","poweroffReason":"高压开关跳闸 原停电结束时间：2019-08-10 11:00:00，变更停电结束时间：2019-08-10 14:00:00，变更停电结束时间原因： 由于抢修工作难度大，故需要延迟送电。","powerTime":"2019-08-10 13:13:12","powerComm":"已送电","subsNo":"","lineNo":"","tgNo":"","tgName":null,"infoStatus":"1","orgName":"国网浙江杭州市萧山区供电有限公司","typeName":null,"infoStatusName":null,"dateDay":null,"orgNos":null,"nowTime":null,"countyName":null,"streetName":null,"villageName":null,"roadName":null,"communityName":null,"tranName":null,"sdLineName":null,"cityCode":"3340130","cityName":"国网浙江杭州市萧山区供电有限公司","provinceCode":null,"stopTime":"2019-08-10 14:00:00","powerType":"全部","powerOffArea":"110kV湘湖变:荣联C522线","powerOffReason":"高压开关跳闸 原停电结束时间：2019-08-10 11:00:00，变更停电结束时间：2019-08-10 14:00:00，变更停电结束时间原因： 由于抢修工作难度大，故需要延迟送电。","powerOffId":"2019081031020191"},{"poweroffId":2019081031020190,"sgpoweroffId":null,"subsName":"","lineName":"10kV东湘A015线","pubTranName":"杭州萧山东湘加油站有限公司变压器,东湘村14#公变,上海高力国际物业服务有限公司萧山分公司,地中海4#公变,休博园苏黎士小镇8#公变,杭州湘茗铨新能源科技有限公司,东湘村11#公变,2#,休博园奥兰多小镇8#公变,休博园苏黎士小镇9#公变,1#商业专变,市政园林1#,休博园奥兰多小镇9#公变,地中海3#公变,4#物业变,休博园苏黎士小镇1#公变,杭州滨旭置业有限公司2#,地中海2#公变,2#物业变,杭州萧山城市建设投资集团有限公司变压器配电变压器,湖头陈村6#公变,3#物业变,东湘村9#公变,东湘村6#公变,休博园苏黎士小镇7#公变,地中海1#公变,休博园苏黎士小镇2#公变,杭州滨旭置业有限公司1#,休博园奥兰多小镇5#公变,休博园苏黎士小镇6#公变,休博园奥兰多小镇6#公变,休博园奥兰多小镇4#公变,休博园苏黎士小镇4#公变,东冠集团,东湘村2#公变,地中海6#公变,地中海5#公变,东湘村7#公变,休博园苏黎士小镇3#公变,休博园苏黎士小镇5#公变,1#物业变,休博园奥兰多小镇7#公变,杭州萧山城厢旧城改造投资有限公司,2#商业专变,","scope":"浙江省-杭州市-萧山区-城厢街道-东湘社区-湘西路,城厢街道-湖头陈社区(萧杭路,休博路),城厢街道-休博园社区(休博路,湘湖路);城厢街道-休博园社区(浙江卓越物业服务有限公司,东冠集团有限公司),城厢街道-东湘社区(杭州萧山城厢旧城改造投资有限公司,杭州萧山城厢街道东湘经济合作社,杭州萧山东湘加油站有限公司,杭州湘茗铨新能源科技有限公司),北干街道(荣星行政村-杭州萧山城市建设投资集团有限公司,风情大道-杭州市萧山区市政绿化养护保障中心),城厢街道(湖头陈社区-杭州滨旭置业有限公司,萧西路社区-杭州萧山国有资产投资有限公司)，湘湖林语，美之园一带","startTime":"2019-08-10 06:01:59","stopDate":"2019-08-10 14:00:00","orgNo":"3340130","typeCode":"电网故障停限电","poweroffArea":"110kV越王变:东湘A015线-东湘A015线开关后段","poweroffReason":"高压开关跳闸 原停电结束时间：2019-08-10 11:00:00，变更停电结束时间：2019-08-10 14:00:00，变更停电结束时间原因： 由于抢修工作难度大，故需要延迟送电。","powerTime":"2019-08-10 13:16:06","powerComm":"已送电","subsNo":"","lineNo":"","tgNo":"","tgName":null,"infoStatus":"1","orgName":"国网浙江杭州市萧山区供电有限公司","typeName":null,"infoStatusName":null,"dateDay":null,"orgNos":null,"nowTime":null,"countyName":null,"streetName":null,"villageName":null,"roadName":null,"communityName":null,"tranName":null,"sdLineName":null,"cityCode":"3340130","cityName":"国网浙江杭州市萧山区供电有限公司","provinceCode":null,"stopTime":"2019-08-10 14:00:00","powerType":"全部","powerOffArea":"110kV越王变:东湘A015线-东湘A015线开关后段","powerOffReason":"高压开关跳闸 原停电结束时间：2019-08-10 11:00:00，变更停电结束时间：2019-08-10 14:00:00，变更停电结束时间原因： 由于抢修工作难度大，故需要延迟送电。","powerOffId":"2019081031020190"},{"poweroffId":2019081031020189,"sgpoweroffId":null,"subsName":"","lineName":"10kV杭申C388线","pubTranName":"天然气开发,华龙工艺1#,伯奇印花厂,陆氏机械变压器2,红山农场新小区1#公变,中汇玻璃,杭州达美文具有限公司,陆氏机械变压器1,杭州精亚机械有限公司1#,昌隆纺织,红山农场二分场5#公变,中科绿太科技,厚生纸业,杭州萧山红垦肉类加工有限公司,正达纺织,杭州可丽宝新材料有限公司,捷美特食品,华龙工艺2#,明洋塑胶,红山农场二分场1#公变,","scope":"浙江省-杭州市-萧山区-新街镇、新街街道、红山农场-同舟社区(红山大道340号,二分场商品房,一分场,新区);经济技术开发区-红垦社区(杭州陆氏机械有限公司,杭州萧山昌隆纺织厂,杭州萧山正达纺织有限公司,杭州亿洁餐具消毒有限公司,杭州萧山红垦肉类加工有限公司,杭州达美文具有限公司,杭州可丽宝新材料有限公司,杭州精亚机械有限公司),红山农场-同心社区(杭州中汇玻璃有限公司,杭州捷美特食品有限公司,浙江浙能天然气运行有限公司),红山农场-同舟社区(杭州萧山红垦农场伯奇印花厂,浙江绿太宾馆有限公司),红山农场-同德社区-杭州萧山华龙工艺品有限公司,瓜沥镇-新港行政村-杭州厚生纸业有限公司等一带","startTime":"2019-08-10 06:00:45","stopDate":"2019-08-10 10:35:45","orgNo":"3340130","typeCode":"电网故障停限电","poweroffArea":"110kV红山变:杭申C388线开关后段","poweroffReason":"高压柱上断路器短路故障 原停电结束时间：2019-08-10 14:52:45，变更停电结束时间：2019-08-10 10:35:45，由于增派人员，抢修提前完成，故需要提前送电。","powerTime":"2019-08-10 09:43:28","powerComm":"已送电","subsNo":"","lineNo":"","tgNo":"","tgName":null,"infoStatus":"1","orgName":"国网浙江杭州市萧山区供电有限公司","typeName":null,"infoStatusName":null,"dateDay":null,"orgNos":null,"nowTime":null,"countyName":null,"streetName":null,"villageName":null,"roadName":null,"communityName":null,"tranName":null,"sdLineName":null,"cityCode":"3340130","cityName":"国网浙江杭州市萧山区供电有限公司","provinceCode":null,"stopTime":"2019-08-10 10:35:45","powerType":"全部","powerOffArea":"110kV红山变:杭申C388线开关后段","powerOffReason":"高压柱上断路器短路故障 原停电结束时间：2019-08-10 14:52:45，变更停电结束时间：2019-08-10 10:35:45，由于增派人员，抢修提前完成，故需要提前送电。","powerOffId":"2019081031020189"},{"poweroffId":2019081031020187,"sgpoweroffId":null,"subsName":"","lineName":"10kV神龙362线","pubTranName":"1#变,杭州萧山神龙铝业有限公司,双峰机电(1316013744),龙虎村8#变,龙虎村11#变,龙虎村12#变,龙虎村3#变,龙虎村15#变,杭州中立达科技有限公司,龙虎村4#变,龙虎村9#变,万鹰机械有限公司(1321044556),阳城颜料(1315077823),钱江度假村(1315078827),龙虎村10#变,杭州宏冰服饰有限公司,萧象内燃机(1316071577),阳城颜料(1315077823),龙虎村16#变,龙虎小区1#变,龙虎村2#变,龙虎村18#变,龙虎村14#变,龙虎村1#变,神龙铝业,银格旅游(1316020023),龙虎村21#变,龙虎村7#变,杭州汇邦建设有限公司1#,阳城造漆厂(1315077828),龙虎村6#变,龙虎村19#变,永得利无纺布1#,永得利无纺布2#,龙虎村22#变,","scope":"浙江省-杭州市-萧山区-南阳街道-南丰行政村-南丰自然村,南阳街道-龙虎行政村(龙虎自然村,南庄路);南阳街道-龙虎行政村(杭州港铖汽配有限公司,杭州萧山神龙铝业有限公司,杭州银格实业有限公司,杭州萧山阳城造漆厂,杭州柏慧建材有限公司,杭州萧山双峰化建机电设备厂,杭州萧山钱江观潮度假村有限公司,杭州宏冰服饰有限公司,杭州永得利无纺布有限公司,杭州汇邦建设有限公司,杭州成邦沥青混凝土有限公司),南阳街道(坞里行政村-杭州萧山神龙铝业有限公司,远大行政村-杭州阳城颜料化工有限公司,南兴行政村-杭州中立达科技有限公司)一带","startTime":"2019-08-10 05:55:31","stopDate":"2019-08-10 09:55:31","orgNo":"3340130","typeCode":"电网故障停限电","poweroffArea":"110kV河庄变:神龙362线","poweroffReason":"高压柱上断路器短路故障 原停电结束时间:2019-08-10 12:55:31 ,变更停电结束时间: 2019-08-10 09:55:31 。由于抢修工作提前完成,故需要提前送电。","powerTime":"2019-08-10 09:02:05","powerComm":"已送电","subsNo":"","lineNo":"","tgNo":"","tgName":null,"infoStatus":"1","orgName":"国网浙江杭州市萧山区供电有限公司","typeName":null,"infoStatusName":null,"dateDay":null,"orgNos":null,"nowTime":null,"countyName":null,"streetName":null,"villageName":null,"roadName":null,"communityName":null,"tranName":null,"sdLineName":null,"cityCode":"3340130","cityName":"国网浙江杭州市萧山区供电有限公司","provinceCode":null,"stopTime":"2019-08-10 09:55:31","powerType":"全部","powerOffArea":"110kV河庄变:神龙362线","powerOffReason":"高压柱上断路器短路故障 原停电结束时间:2019-08-10 12:55:31 ,变更停电结束时间: 2019-08-10 09:55:31 。由于抢修工作提前完成,故需要提前送电。","powerOffId":"2019081031020187"},{"poweroffId":2019081031020180,"sgpoweroffId":null,"subsName":"","lineName":"10kV珠村163线","pubTranName":"大庙1号公变,","scope":"浙江省-杭州市-桐庐县-瑶琳镇-后浦行政村-大庙自然村","startTime":"2019-08-10 05:40:17","stopDate":"2019-08-10 13:30:17","orgNo":"3340150","typeCode":"电网故障停限电","poweroffArea":"35kV瑶琳变:珠村163线-大庙1号公变后段","poweroffReason":"高压开关跳闸，原停电结束时间2019年8月10日7：40，变更停电结束时间2019年8月10日13：30，原因：天气原因","powerTime":"2019-08-10 13:12:08","powerComm":"已送电","subsNo":"","lineNo":"","tgNo":"","tgName":null,"infoStatus":"1","orgName":"国网浙江桐庐县供电公司","typeName":null,"infoStatusName":null,"dateDay":null,"orgNos":null,"nowTime":null,"countyName":null,"streetName":null,"villageName":null,"roadName":null,"communityName":null,"tranName":null,"sdLineName":null,"cityCode":"3340150","cityName":"国网浙江桐庐县供电公司","provinceCode":null,"stopTime":"2019-08-10 13:30:17","powerType":"全部","powerOffArea":"35kV瑶琳变:珠村163线-大庙1号公变后段","powerOffReason":"高压开关跳闸，原停电结束时间2019年8月10日7：40，变更停电结束时间2019年8月10日13：30，原因：天气原因","powerOffId":"2019081031020180"},{"poweroffId":2019081031020179,"sgpoweroffId":null,"subsName":"","lineName":"10kV爱迪C932线","pubTranName":"浙江爱迪尔包装股份有限公司,杭州市萧山区党山镇人民政府4#,信源村2#变,八里桥村1#变,党山供电营业所单相变4#变,梅林村1#变,杭州萧蒙心浪服装厂,杭州君利莱实业有限公司,杭州奥利仕卫浴有限公司,党山供电营业所单相变3#变,杭州顺业物业管理有限公司,杭州珠格莱镜艺有限公司2#,杭州鑫典实业有限公司,杭州华利尔实业有限公司,碧苑七区2#公变,车路湾村11#变,党山供电营业所4#变,车路湾村12#变,梅林村14#变,科盛涤丝整理厂(1316063710),八里桥村11#变,杭州桑莱特木业有限公司,杭州星宇精密压铸有限公司,车路湾村13#变,梅林村8#变,杭州银邦金属制品有限公司,车路湾村7#变,杭州市萧山区党山镇人民政府6#,梅林村12#变,乐家卫浴洁具配变,杭州市公安局萧山区分局,党山供电营业所单相变2#变,梅林村3#变,桑莱特镜业,梅林村7#变,梅林村9#变,八里桥村13#变,杭州萧山凤凰实业有限公司,梅林村2#变,党山供电营业所单相变15#变,杭州萧山污水处理有限公司2#,杭州奔马化纤纺丝有限公司1变压器,杭州品勒洁具有限公司配变,杭州市萧山区党山金迪学校,党山供电营业所15#变,杭州双达洁具有限公司,车路湾村4#变,八里桥村4#变,杭州萧山党山信源电器五金厂,萧山市党山机械另件厂,杭州新贝卫浴有限公司,党山供电营业所单相变1#变,杭州萧山凤凰实业有限公司,2#主变,碧苑七区1#公变,杭州萧山污水处理有限公司1#,杭州珠格莱镜艺有限公司1#,","scope":"浙江省-杭州市-萧山区-瓜沥镇-山北行政村-山北自然村,党山镇山北村、车路湾村、八里桥村、信源村、新塘街道-傅楼行政村(傅家畈自然村,河南娄自然村,河北楼自然村),瓜沥镇-车路湾行政村(车安路,车路湾自然村),瓜沥镇-八里桥行政村(八里桥自然村,北塘东路,村中直路,新农村自然村,村西直路),瓜沥镇-信源行政村(信源自然村,井岭路,党益路,川北路,诚善路),瓜沥镇-南大房社区(为民路,井岭路),瓜沥镇-梅林行政村(梅林自然村,园六路,新农村自然村,园五路,梅林大道),瓜沥镇-党山行政村(井岭路,党山自然村,后梅林自然村);瓜沥镇-车路湾行政村(杭州市萧山区瓜沥镇人民政府,杭州顺业物业管理有限公司),瓜沥镇-八里桥行政村(杭州新贝卫浴有限公司,杭州星宇精密压铸有限公司),瓜沥镇-信源行政村(杭州双达洁具有限公司,杭州萧山党山信源电器五金厂),瓜沥镇-群力行政村(杭州乐家卫浴洁具有限公司,杭州君利莱实业有限公司,杭州鑫典实业有限公司,杭州华利尔实业有限公司),瓜沥镇-梅林行政村(浙江爱迪尔包装股份有限公司,杭州萧蒙心浪服装厂,萧山市党山机械另件厂),瓜沥镇-党山行政村(杭州萧山凤凰实业有限公司,杭州银邦金属制品有限公司,杭州桑莱特卫浴有限公司,杭州品勒洁具有限公司,杭州市公安局萧山区分局,杭州市萧山区党山金迪学校,杭州钱江美容柜有限公司,杭州奥利仕家居制造有限公司,杭州萧山污水处理有限公司,杭州奔马化纤纺丝有限公司,杭州市萧山区瓜沥镇社区卫生服务中心),瓜沥镇(世安桥行政村-杭州萧山党山科盛涤丝整理厂,杭州桑莱特木业有限公司)一带","startTime":"2019-08-10 05:38:14","stopDate":"2019-08-10 10:38:14","orgNo":"3340130","typeCode":"电网故障停限电","poweroffArea":"110kV党山变:爱迪C932线","poweroffReason":"高压柱上断路器短路故障","powerTime":"2019-08-10 09:39:44","powerComm":"已送电","subsNo":"","lineNo":"","tgNo":"","tgName":null,"infoStatus":"1","orgName":"国网浙江杭州市萧山区供电有限公司","typeName":null,"infoStatusName":null,"dateDay":null,"orgNos":null,"nowTime":null,"countyName":null,"streetName":null,"villageName":null,"roadName":null,"communityName":null,"tranName":null,"sdLineName":null,"cityCode":"3340130","cityName":"国网浙江杭州市萧山区供电有限公司","provinceCode":null,"stopTime":"2019-08-10 10:38:14","powerType":"全部","powerOffArea":"110kV党山变:爱迪C932线","powerOffReason":"高压柱上断路器短路故障","powerOffId":"2019081031020179"},{"poweroffId":2019081031020177,"sgpoweroffId":null,"subsName":"","lineName":"10kV肆联C472线","pubTranName":"友谊村5#变,","scope":"浙江省-杭州市-萧山区-瓜沥镇-友谊行政村-友谊自然村、友谊村、瓜沥镇友谊村高速公路后面一带","startTime":"2019-08-10 05:10:07","stopDate":"2019-08-10 08:10:07","orgNo":"3340130","typeCode":"电网故障停限电","poweroffArea":"35kV塘头变:肆联C472线-友谊村5#变台区低压开关","poweroffReason":"(低压停电信息)低压熔断器短路故障 原停电结束时间:2019-08-10 09:33:07,变更停电结束时间:2019-08-10 08:10:07。由于抢修工作提前完成,故需要提前送电。","powerTime":"2019-08-10 07:12:20","powerComm":"已送电","subsNo":"","lineNo":"","tgNo":"","tgName":null,"infoStatus":"1","orgName":"国网浙江杭州市萧山区供电有限公司","typeName":null,"infoStatusName":null,"dateDay":null,"orgNos":null,"nowTime":null,"countyName":null,"streetName":null,"villageName":null,"roadName":null,"communityName":null,"tranName":null,"sdLineName":null,"cityCode":"3340130","cityName":"国网浙江杭州市萧山区供电有限公司","provinceCode":null,"stopTime":"2019-08-10 08:10:07","powerType":"全部","powerOffArea":"35kV塘头变:肆联C472线-友谊村5#变台区低压开关","powerOffReason":"(低压停电信息)低压熔断器短路故障 原停电结束时间:2019-08-10 09:33:07,变更停电结束时间:2019-08-10 08:10:07。由于抢修工作提前完成,故需要提前送电。","powerOffId":"2019081031020177"},{"poweroffId":2019081031020173,"sgpoweroffId":null,"subsName":"","lineName":"10kV赵家C455线","pubTranName":"杭州余氏布艺织造有限公司,赵家墩村6#变,湘湖旅业投资有限公司1#配电变压器,杭州华凌钢结构高强螺栓有限公司,萧山区贺知章幼儿园,赵家墩村2#变,赵家墩村10#变,波莱特电器1#,杭州森朗无纺制品有限公司,杭州华凌钢结构高强螺栓有限公司,杭州萧山蜀山吾明养殖农庄,湘湖旅业投资有限公司4#配电变压器,湘湖旅业投资有限公司5#配电变压器,杭州瀚源房地产开发有限责任公司,杭州金丰铸造有限公司,赵家墩村1#变,赵家墩村9#变,变压器,湘湖旅业投资有限公司2#配电变压器,杭州瀚源房地产开发有限责任公司,赵家墩村7#变,赵家墩村5#变,湘湖旅业投资有限公司3#配电变压器,杭州前方齿轮有限公司,湘湖旅业投资有限公司6#配电变压器,赵家墩村4#变,杭州市公安局萧山区分局（蜀山）,杭州萧山鑫丰机械厂,波莱特电器2#,杭州金寿机械厂,赵家墩村3#变,杭州萧山兴发机械有限公司,杭州凯馨机械制造有限公司,杭州瀚源房地产开发有限责任公司,杭州市萧山区市政园林公用事业管理处,电斧电器,","scope":"浙江省-杭州市-萧山区-蜀山街道-赵家墩行政村(赵家墩自然村,王秀里自然村,桥头余自然村,坂里余自然村,大王里自然村,凌家里自然村);浙江省-杭州市-萧山区-所前镇-城南行政村-杭州萧山蜀山吾明养殖农庄,蜀山街道-赵家墩行政村(杭州凯馨机械制造有限公司,杭州华凌钢结构高强螺栓有限公司,杭州金寿机械厂,杭州余氏布艺织造有限公司,杭州金丰铸造有限公司,杭州电斧电器有限公司,杭州前方齿轮有限公司),蜀山街道-黄家章行政村(杭州萧山鑫丰机械厂,杭州波莱特电器有限公司,杭州森朗无纺制品有限公司),蜀山街道-金西行政村(杭州市公安局萧山区分局,萧山区贺知章幼儿园),蜀山街道-越寨社区(浙江湘湖旅业投资有限公司,杭州瀚源房地产开发有限责任公司),蜀山街道(湖山社区-杭州市萧山区市政绿化养护保障中心,桥头陈行政村-杭州市萧山区特殊康复中心)","startTime":"2019-08-10 05:00:00","stopDate":"2019-08-10 09:30:00","orgNo":"3340130","typeCode":"电网故障停限电","poweroffArea":"110kV萧山变:赵家C455线","poweroffReason":"高压柱上断路器短路跳闸 原停电结束时间：2019-08-10 08:00:00，变更停电结束时间2019-08-10 09:30:00，由于抢修工作难度大，故需要延迟送电。","powerTime":"2019-08-10 09:08:57","powerComm":"已送电","subsNo":"","lineNo":"","tgNo":"","tgName":null,"infoStatus":"1","orgName":"国网浙江杭州市萧山区供电有限公司","typeName":null,"infoStatusName":null,"dateDay":null,"orgNos":null,"nowTime":null,"countyName":null,"streetName":null,"villageName":null,"roadName":null,"communityName":null,"tranName":null,"sdLineName":null,"cityCode":"3340130","cityName":"国网浙江杭州市萧山区供电有限公司","provinceCode":null,"stopTime":"2019-08-10 09:30:00","powerType":"全部","powerOffArea":"110kV萧山变:赵家C455线","powerOffReason":"高压柱上断路器短路跳闸 原停电结束时间：2019-08-10 08:00:00，变更停电结束时间2019-08-10 09:30:00，由于抢修工作难度大，故需要延迟送电。","powerOffId":"2019081031020173"},{"poweroffId":2019081031020172,"sgpoweroffId":null,"subsName":"","lineName":"10kV家河G933线","pubTranName":"永溢静水,横塘村1组3#公变,横塘村一组2#变,杭州瑞冉丝绸有限公司,横塘村1组,工农绸厂,杭州余杭东方丝绸有限公司,国达绸厂,振华服装,","scope":"浙江省-杭州市-余杭区-经济开发区-横塘社区-横塘,东湖街道-横塘社区(横塘自然村,新安河自然村,横塘村);东湖街道-经济开发区(杭州余杭东方丝绸有限公司,杭州华纳纺织品有限公司,杭州鼎烁塑料制品有限公司,杭州金碧辉煌旅馆),经济开发区-工农社区-杭州瑞冉丝绸有限公司,东湖街道-双林社区-杭州国达丝绸厂一带","startTime":"2019-08-10 05:14:00","stopDate":"2019-08-10 07:00:00","orgNo":"3340140","typeCode":"电网故障停限电","poweroffArea":"110kV亭趾变:家河G933线-家河G933线绸厂分线开关后段","poweroffReason":"高压开关跳闸","powerTime":"2019-08-10 06:30:00","powerComm":"已送电","subsNo":"","lineNo":"","tgNo":"","tgName":null,"infoStatus":"1","orgName":"国网浙江杭州市余杭区供电有限公司","typeName":null,"infoStatusName":null,"dateDay":null,"orgNos":null,"nowTime":null,"countyName":null,"streetName":null,"villageName":null,"roadName":null,"communityName":null,"tranName":null,"sdLineName":null,"cityCode":"3340140","cityName":"国网浙江杭州市余杭区供电有限公司","provinceCode":null,"stopTime":"2019-08-10 07:00:00","powerType":"全部","powerOffArea":"110kV亭趾变:家河G933线-家河G933线绸厂分线开关后段","powerOffReason":"高压开关跳闸","powerOffId":"2019081031020172"}],"pageModel":{"pageNow":1280,"totalCount":17789,"totalPage":1779,"tableRows":0,"pageCount":10,"beginCount":12790},"isExperi":"1"}