{"message":"","today":"2020-06-15","seleList":[{"poweroffId":2020052131020107,"sgpoweroffId":null,"subsName":"","lineName":"10kV石瑞V134线","pubTranName":"学川村（一）,","scope":"浙江省-杭州市-临安市-河桥镇-学川行政村-学川自然村","startTime":"2020-05-21 10:05:14","stopDate":"2020-05-21 11:30:00","orgNo":"3340160","typeCode":"电网故障停限电","poweroffArea":"110kV昌化变:石瑞V134线-学川村（一）后段","poweroffReason":"高压开关跳闸 原停电结束时间为2020-05-21 12:05:14,为减少客户停电时间,加快工作进度,提前送电,现变更停电结束时间为2020-05-21 11:30:00","powerTime":"2020-05-21 10:53:12","powerComm":"已送电","subsNo":"","lineNo":"","tgNo":"","tgName":null,"infoStatus":"1","orgName":"国网浙江临安市供电公司","typeName":null,"infoStatusName":null,"dateDay":null,"orgNos":null,"nowTime":null,"countyName":null,"streetName":null,"villageName":null,"roadName":null,"communityName":null,"tranName":null,"sdLineName":null,"cityCode":"3340160","cityName":"国网浙江临安市供电公司","provinceCode":null,"stopTime":"2020-05-21 11:30:00","powerType":"全部","powerOffArea":"110kV昌化变:石瑞V134线-学川村（一）后段","powerOffReason":"高压开关跳闸 原停电结束时间为2020-05-21 12:05:14,为减少客户停电时间,加快工作进度,提前送电,现变更停电结束时间为2020-05-21 11:30:00","powerOffId":"2020052131020107"},{"poweroffId":2020052131020104,"sgpoweroffId":null,"subsName":"","lineName":"10kV秋北6481线","pubTranName":"浙江大学,凤起路快速公交,昙花庵路快速公交,","scope":"浙江省-杭州市-江干区-凯旋街道(浙江大学,杭州市公共交通集团有限公司)","startTime":"2020-05-21 09:55:24","stopDate":"2020-05-21 14:00:00","orgNo":"3340101","typeCode":"电网故障停限电","poweroffArea":"110kV五福变:秋北6481线秋景路快站秋快分线后段","poweroffReason":"高压开关跳闸 原停电结束时间为2020-05-21 11:55:24,因现场情况较为复杂原因,延迟送电,现变更停电结束时间为2020-05-21 14:00:00","powerTime":"2020-05-21 13:22:44","powerComm":"已送电","subsNo":"","lineNo":"","tgNo":"","tgName":null,"infoStatus":"1","orgName":"浙江杭州电力客户服务中心","typeName":null,"infoStatusName":null,"dateDay":null,"orgNos":null,"nowTime":null,"countyName":null,"streetName":null,"villageName":null,"roadName":null,"communityName":null,"tranName":null,"sdLineName":null,"cityCode":"3340101","cityName":"浙江杭州电力客户服务中心","provinceCode":null,"stopTime":"2020-05-21 14:00:00","powerType":"全部","powerOffArea":"110kV五福变:秋北6481线秋景路快站秋快分线后段","powerOffReason":"高压开关跳闸 原停电结束时间为2020-05-21 11:55:24,因现场情况较为复杂原因,延迟送电,现变更停电结束时间为2020-05-21 14:00:00","powerOffId":"2020052131020104"},{"poweroffId":2020052131020099,"sgpoweroffId":null,"subsName":"","lineName":"10kV来特V347线","pubTranName":"恒畈[大枫]公变,杭州临安形象塑业有限公司,临安市横畈电镀厂3#,临安市横畈电镀厂400/2#,杭州临安形象塑业有限公司2#,临安市横畈电镀有限公司,杭州临安形象塑业有限公司1#,中国电信股份有限公司临安分公司,杭州礼遥竹制品有限公司,杭州礼遥竹制品有限公司,杭州宝峰仪器设备有限公司1#,临安完美照明电器有限公司1#,","scope":"浙江省-杭州市-临安市-青山湖街道-庆北行政村-回里自然村,青山湖街道-庆南行政村(横南自然村,横畈自然村);青山湖街道(中国电信股份有限公司临安分公司,临安市横畈电镀有限公司,杭州临安形象塑业有限公司,杭州富泽装饰设计有限公司,杭州礼遥竹制品有限公司,杭州艾伦实业有限公司,杭州宝峰仪器设备有限公司)","startTime":"2020-05-21 09:37:00","stopDate":"2020-05-21 11:25:00","orgNo":"3340160","typeCode":"电网故障停限电","poweroffArea":"110kV高虹变:来特V347线3474开关后段","poweroffReason":"高压开关跳闸 原停电结束时间为2020-05-21 13:25:00,为减少客户停电时间,加快工作进度,提前送电,现变更停电结束时间为2020-05-21 11:25:00","powerTime":"2020-05-21 10:54:46","powerComm":"已送电","subsNo":"","lineNo":"","tgNo":"","tgName":null,"infoStatus":"1","orgName":"国网浙江临安市供电公司","typeName":null,"infoStatusName":null,"dateDay":null,"orgNos":null,"nowTime":null,"countyName":null,"streetName":null,"villageName":null,"roadName":null,"communityName":null,"tranName":null,"sdLineName":null,"cityCode":"3340160","cityName":"国网浙江临安市供电公司","provinceCode":null,"stopTime":"2020-05-21 11:25:00","powerType":"全部","powerOffArea":"110kV高虹变:来特V347线3474开关后段","powerOffReason":"高压开关跳闸 原停电结束时间为2020-05-21 13:25:00,为减少客户停电时间,加快工作进度,提前送电,现变更停电结束时间为2020-05-21 11:25:00","powerOffId":"2020052131020099"},{"poweroffId":2020052131020097,"sgpoweroffId":null,"subsName":"","lineName":"10kV大禾V622线","pubTranName":"临安华氏照明电器有限公司,雅观检查站公变,横畈雅观大桥变,雅观西郜配变,杭州华育教育设备有限公司1#,杭州临安三峰照明电器有限公司1#,西郜（新）,杭州临安神洲电器有限公司,龙山公变,雅观青石变,临安上源竹制品有限公司1#,临安市袁氏照明电器有限公司,杭州临安油厂,庆林大街公变,下光明,边新强,中国石油化工股份有限公司浙江杭州石油分公司,雅观小学2#公变,","scope":"浙江省-杭州市-临安市-青山湖街道-雅观行政村-雅观自然村,青山湖街道-庆南行政村(横南自然村,横畈自然村);青山湖街道(中国石化销售股份有限公司浙江杭州石油分公司,临安市袁氏照明电器有限公司,杭州临安油厂,杭州临安和丰塑化有限公司,临安上源竹制品有限公司,边新强,杭州华育教学设备有限公司,临安华氏照明电器有限公司,杭州临安三峰照明电器有限公司)","startTime":"2020-05-21 09:37:00","stopDate":"2020-05-21 11:25:00","orgNo":"3340160","typeCode":"电网故障停限电","poweroffArea":"110kV雅观变:大禾V622线大桥站大桥站6221开关后段","poweroffReason":"高压开关跳闸 原停电结束时间为2020-05-21 13:25:00,为减少客户停电时间,加快工作进度,提前送电,现变更停电结束时间为2020-05-21 11:25:00","powerTime":"2020-05-21 10:54:56","powerComm":"已送电","subsNo":"","lineNo":"","tgNo":"","tgName":null,"infoStatus":"1","orgName":"国网浙江临安市供电公司","typeName":null,"infoStatusName":null,"dateDay":null,"orgNos":null,"nowTime":null,"countyName":null,"streetName":null,"villageName":null,"roadName":null,"communityName":null,"tranName":null,"sdLineName":null,"cityCode":"3340160","cityName":"国网浙江临安市供电公司","provinceCode":null,"stopTime":"2020-05-21 11:25:00","powerType":"全部","powerOffArea":"110kV雅观变:大禾V622线大桥站大桥站6221开关后段","powerOffReason":"高压开关跳闸 原停电结束时间为2020-05-21 13:25:00,为减少客户停电时间,加快工作进度,提前送电,现变更停电结束时间为2020-05-21 11:25:00","powerOffId":"2020052131020097"},{"poweroffId":2020052131020096,"sgpoweroffId":null,"subsName":"","lineName":"10kV立太H431线","pubTranName":"骏杰公司,梦溪里11#公变,玉城公寓1#专变,金丰机械,杜甫村泮塘公变,联发集团联翔（杭州）房地产开发有限公司计量点,玉城公寓2#专变,杭州良渚新城城建投资有限公司,和业府4#公变,中交第二航务工程局有限公司余杭分公司,杭州恺泽房地产开发有限公司,绕城收费站,1#,联发集团联翔（杭州）房地产开发有限公司计量点,杭州恺泽房地产开发有限公司,中青创基建变3,梦溪里8#公变,昆华玉府6#公变,杜甫村沈家桥3号公变,联发集团联翔（杭州）房地产开发有限公司计量点,杭州玉宸地产有限公司,昆华玉府4#公变,平高置业,杭州玉宸地产有限公司,加油站,杭州恺泽房地产开发有限公司,平高置业,平高置业,中青创基建变8,配变,杭州市余杭区交通重点工程建设管理处,杭州市余杭区良渚医院,昆华玉府13#公变,中青创基建变6,蓝湾1#专变,昆华玉府9#公变,梦溪里4#公变,浙江吉祥环境建设有限公司,中粮房地产开发(杭州)有限公司,和业府3#公变,杭州良渚新城城建投资有限公司,北秀蓝湾3-2#公变,杭州恺泽房地产开发有限公司,杜甫村严村里公变,杭州恺泽房地产开发有限公司,中青创基建变5,杭州玉宸地产有限公司,联发集团联翔（杭州）房地产开发有限公司计量点,天允机电,联发集团杭州房地产开发有限公司基建变2,十六街区2#专变,2#,昆华玉府3#公变,杜甫村严村里2号公变,电信局,昆华玉府14#公变,2#,昆华玉府12#公变,杭州市余杭区良渚医院,昆华玉府11#公变,杭州市余杭区良渚医院,浙江万科南都房地产有限公司,杜甫村严家抖公变,中粮房地产开发（杭州）有限公司,和业府6#公变,杭州玉宸地产有限公司,浙江贝利建设集团有限公司,杭州良渚新城城建投资有限公司（6120874668）02号专变,梦溪里3#公变,三力货运,杜甫村沈家桥公变,梦溪里7#公变,梦溪里12#公变,杭州市余杭区良渚医院,联发集团联翔（杭州）房地产开发有限公司计量点,浙江万里建设工程有限公司,杭州市余杭区人民政府良渚街道办事处,昆华玉府7#公变,中粮房地产开发（杭州）有限公司,杭州恺泽房地产开发有限公司,昆华玉府5#公变,政府基建变,路灯变,中交第二航务工程局有限公司余杭分公司,中粮房地产开发（杭州）有限公司,蓝湾2#专变,2#,3#,昆华玉府8#公变,北秀蓝湾4#公变,杭州玉宸地产有限公司,联发集团杭州房地产开发有限公司基建变1,联发集团联翔（杭州）房地产开发有限公司计量点,十六街区1#专变,昆华玉府10#公变,北秀蓝湾3-1#公变,和业府5#公变,卡通公司,","scope":"浙江省-杭州市-余杭区-仁和街道-獐山社区-东西大道,良渚街道-杜甫行政村(杜甫自然村,疏港公路,良居路,立新路,104国道),良渚街道-良渚行政村(网周路,良渚自然村),良渚街道(纤石行政村-康良路,北秀社区-东西大道,十六街区社区-东西大道,施家湾社区-玉管路,良渚文化村社区-东西大道);良渚街道(杭州洪氏工贸有限公司,浙江宝华控股集团有限公司,杭州金丰机械有限公司,杭州余杭杭石交通能源有限责任公司,杭州荣满粮油贸易有限公司,杭州卡通文具用品有限公司,中国铁塔股份有限公司杭州市分公司,杭州玉宸地产有限公司,杭州市余杭区良渚镇人民政府,德丰物业服务集团有限公司余杭分公司,中青创文化发展有限公司,平高置业(杭州)有限公司,平高置业（杭州）有限公司,杭州安宁物业有限公司,杭州余杭中石化交通能源有限公司,杭州国益路桥经营管理有限公司,杭州良悦置业有限公司,杭州市余杭区人民政府良渚街道办事处,杭州恺泽房地产开发有限公司,联发集团杭州房地产开发有限公司,浙江昆仑物业管理有限公司余杭分公司,浙江吉祥环境建设有限公司,浙江华临建设集团有限公司,联发集团联翔（杭州）房地产开发有限公司,杭州万科物业服务有限公司,和昌物业服务集团有限公司杭州分公司,杭州市余杭区公路管理处,杭州良渚新城城建投资有限公司,浙江万里建设工程有限公司,中交第二航务工程局有限公司余杭分公司,杭州市余杭区良渚第一小学)","startTime":"2020-05-21 09:31:00","stopDate":"2020-05-21 13:31:00","orgNo":"3340140","typeCode":"电网故障停限电","poweroffArea":"110kV勾庄变:立太H431线鑫诚开关站鑫诚开关站立太H431线后段","poweroffReason":"高压开关跳闸","powerTime":"2020-05-21 12:53:37","powerComm":"已送电","subsNo":"","lineNo":"","tgNo":"","tgName":null,"infoStatus":"1","orgName":"国网浙江杭州市余杭区供电有限公司","typeName":null,"infoStatusName":null,"dateDay":null,"orgNos":null,"nowTime":null,"countyName":null,"streetName":null,"villageName":null,"roadName":null,"communityName":null,"tranName":null,"sdLineName":null,"cityCode":"3340140","cityName":"国网浙江杭州市余杭区供电有限公司","provinceCode":null,"stopTime":"2020-05-21 13:31:00","powerType":"全部","powerOffArea":"110kV勾庄变:立太H431线鑫诚开关站鑫诚开关站立太H431线后段","powerOffReason":"高压开关跳闸","powerOffId":"2020052131020096"},{"poweroffId":2020052131020089,"sgpoweroffId":null,"subsName":"","lineName":"10kV萧百C111线","pubTranName":"潘水北苑11#公变,","scope":"浙江省-杭州市-萧山区-城厢街道-潘水社区-潘水路等","startTime":"2020-05-21 08:30:00","stopDate":"2020-05-21 16:00:00","orgNo":"3340130","typeCode":"电网故障停限电","poweroffArea":"110kV丽都变:萧百C111线-潘水北苑11#公变后段","poweroffReason":"紧急消缺，潘苑开整体更换 原停电结束时间为2020-05-21 16:30:00,为减少客户停电时间,加快工作进度,提前送电,现变更停电结束时间为2020-05-21 16:00:00","powerTime":"2020-05-21 15:01:02","powerComm":"已送电","subsNo":"","lineNo":"","tgNo":"","tgName":null,"infoStatus":"1","orgName":"国网浙江杭州市萧山区供电有限公司","typeName":null,"infoStatusName":null,"dateDay":null,"orgNos":null,"nowTime":null,"countyName":null,"streetName":null,"villageName":null,"roadName":null,"communityName":null,"tranName":null,"sdLineName":null,"cityCode":"3340130","cityName":"国网浙江杭州市萧山区供电有限公司","provinceCode":null,"stopTime":"2020-05-21 16:00:00","powerType":"全部","powerOffArea":"110kV丽都变:萧百C111线-潘水北苑11#公变后段","powerOffReason":"紧急消缺，潘苑开整体更换 原停电结束时间为2020-05-21 16:30:00,为减少客户停电时间,加快工作进度,提前送电,现变更停电结束时间为2020-05-21 16:00:00","powerOffId":"2020052131020089"},{"poweroffId":2020052131020070,"sgpoweroffId":null,"subsName":"","lineName":"10kV春江T103线","pubTranName":"桐君路1号公变,","scope":"浙江省-杭州市-桐庐县-桐君街道-南门社区(开元街,太平路,桐君路,南门弄.桐君路123号,实验小学对面)","startTime":"2020-05-21 08:55:52","stopDate":"2020-05-21 17:00:52","orgNo":"3340150","typeCode":"电网故障停限电","poweroffArea":"110kV桐庐变:春江T103线-桐君路1号公变后段","poweroffReason":"(低压停电信息)低压开关跳闸 原停电结束时间为2020-05-21 10:55:52,因天气原因,延迟送电,现变更停电结束时间为2020-05-21 17:00:52","powerTime":"2020-05-21 16:40:20","powerComm":"已送电","subsNo":"","lineNo":"","tgNo":"","tgName":null,"infoStatus":"1","orgName":"国网浙江桐庐县供电公司","typeName":null,"infoStatusName":null,"dateDay":null,"orgNos":null,"nowTime":null,"countyName":null,"streetName":null,"villageName":null,"roadName":null,"communityName":null,"tranName":null,"sdLineName":null,"cityCode":"3340150","cityName":"国网浙江桐庐县供电公司","provinceCode":null,"stopTime":"2020-05-21 17:00:52","powerType":"全部","powerOffArea":"110kV桐庐变:春江T103线-桐君路1号公变后段","powerOffReason":"(低压停电信息)低压开关跳闸 原停电结束时间为2020-05-21 10:55:52,因天气原因,延迟送电,现变更停电结束时间为2020-05-21 17:00:52","powerOffId":"2020052131020070"},{"poweroffId":2020052131020044,"sgpoweroffId":null,"subsName":"","lineName":"10kV长中158线","pubTranName":"汪家里,","scope":"浙江省-杭州市-滨江区-长河街道-长河社区(长河,长江中路),长河街道(汤家桥社区-汤家桥,长二社区-长二,天官社区-天官路)","startTime":"2020-05-26 09:30:00","stopDate":"2020-05-26 17:00:00","orgNo":"3340101","typeCode":"临时停电","poweroffArea":"110kV长河变:长中158线-汪家里后段","poweroffReason":"杭州市滨江区农村多层住宅建设管理中心10KV拆迁安置房长河地块线路迁改工程PD2019-11-029-QJ 汪家公站移位、电缆移位","powerTime":"2020-05-26 16:06:35","powerComm":"已送电","subsNo":"","lineNo":"","tgNo":"","tgName":null,"infoStatus":"1","orgName":"浙江杭州电力客户服务中心","typeName":null,"infoStatusName":null,"dateDay":null,"orgNos":null,"nowTime":null,"countyName":null,"streetName":null,"villageName":null,"roadName":null,"communityName":null,"tranName":null,"sdLineName":null,"cityCode":"3340101","cityName":"浙江杭州电力客户服务中心","provinceCode":null,"stopTime":"2020-05-26 17:00:00","powerType":"全部","powerOffArea":"110kV长河变:长中158线-汪家里后段","powerOffReason":"杭州市滨江区农村多层住宅建设管理中心10KV拆迁安置房长河地块线路迁改工程PD2019-11-029-QJ 汪家公站移位、电缆移位","powerOffId":"2020052131020044"},{"poweroffId":2020052131020036,"sgpoweroffId":null,"subsName":"","lineName":"10kV浪石T205线","pubTranName":"喻宅1号公变,","scope":"浙江省-杭州市-桐庐县-横村镇-上塘行政村(喻宅自然村,上浦移民村,上浦自然村)","startTime":"2020-05-21 08:08:58","stopDate":"2020-05-21 15:50:58","orgNo":"3340150","typeCode":"电网故障停限电","poweroffArea":"110kV方埠变:浪石T205线-喻宅1号公变后段","poweroffReason":"(低压停电信息)低压开关跳闸","powerTime":"2020-05-21 15:22:47","powerComm":"已送电","subsNo":"","lineNo":"","tgNo":"","tgName":null,"infoStatus":"1","orgName":"国网浙江桐庐县供电公司","typeName":null,"infoStatusName":null,"dateDay":null,"orgNos":null,"nowTime":null,"countyName":null,"streetName":null,"villageName":null,"roadName":null,"communityName":null,"tranName":null,"sdLineName":null,"cityCode":"3340150","cityName":"国网浙江桐庐县供电公司","provinceCode":null,"stopTime":"2020-05-21 15:50:58","powerType":"全部","powerOffArea":"110kV方埠变:浪石T205线-喻宅1号公变后段","powerOffReason":"(低压停电信息)低压开关跳闸","powerOffId":"2020052131020036"},{"poweroffId":2020052131020031,"sgpoweroffId":null,"subsName":"","lineName":"10kV河口C160线","pubTranName":"佛山村2#变,","scope":"浙江省-杭州市-萧山区-戴村镇-佛山行政村(上堡自然村,佛山自然村)等","startTime":"2020-05-21 08:01:31","stopDate":"2020-05-21 09:40:31","orgNo":"3340130","typeCode":"电网故障停限电","poweroffArea":"110kV许贤变:河口C160线-佛山村2#变台区低压开关","poweroffReason":"（低压停电信息）低压漏电保护器跳闸","powerTime":"2020-05-21 08:44:17","powerComm":"已送电","subsNo":"","lineNo":"","tgNo":"","tgName":null,"infoStatus":"1","orgName":"国网浙江杭州市萧山区供电有限公司","typeName":null,"infoStatusName":null,"dateDay":null,"orgNos":null,"nowTime":null,"countyName":null,"streetName":null,"villageName":null,"roadName":null,"communityName":null,"tranName":null,"sdLineName":null,"cityCode":"3340130","cityName":"国网浙江杭州市萧山区供电有限公司","provinceCode":null,"stopTime":"2020-05-21 09:40:31","powerType":"全部","powerOffArea":"110kV许贤变:河口C160线-佛山村2#变台区低压开关","powerOffReason":"（低压停电信息）低压漏电保护器跳闸","powerOffId":"2020052131020031"}],"pageModel":{"pageNow":130,"totalCount":17786,"totalPage":1779,"tableRows":0,"pageCount":10,"beginCount":1290},"isExperi":"1"}