{"message":"","today":"2020-06-16","seleList":[{"poweroffId":2019080931020750,"sgpoweroffId":null,"subsName":"","lineName":"10kV安溪H404线","pubTranName":"安溪村应家岭公变,安溪村罗村公变,汇向机械,杜城村石前公变,安溪村西头村公变,电信,安溪村村委公变,安溪新苑1号公变,安溪村中溪公变,杜城村石前小区公变,杭州美丽洲实业有限公司计量点,安溪村排涝,杭州市余杭区人民政府良渚街道办事处,安溪茶场,安溪村钱塘坞公变,安溪村接待寺公变,安溪村下溪机埠公变,安溪新苑5号公变,安溪村俞家头公变,安溪村梅家里公变,安溪村元宝池公变,安溪村康门2号公变,安溪新苑3号公变,安溪村石岭村公变,安溪新苑2号公变,上溪石矿,安溪新苑4号公变,杭州广正建设工程有限公司,富顺弹簧厂,杜城村桥头公变,康铭华庭2#公变,安溪村金村公变,安溪村梅家涧公变,01,杭州东明山森林公园有限公司,南山林场,安溪村劳家头公变,安溪村羊后山公变,康铭华庭1#公变,杭州市余杭区人民政府良渚街道办事处,杜城村桥南斗门头公变,安溪村东明山公变,安溪新苑6号公变,安溪村冉头湾公变,第三小学612059802201#专变,梦溪山庄3#公变,安溪村葛家村公变,安溪村斜步滩公变,梦溪山庄1#公变,安溪村照山公变,杜城村厅廊公变,梦溪山庄2#公变,森林公园,浙江瑶山艺术品投资有限公司,安溪村官窑里公变,梦溪山庄4#公变,杜城村后塘村公变,杭州市余杭区人民政府良渚街道办事,杜城村蚕茧路公变,雅而典沙发制造公司,杜成村桥南村公变,杭州萧浦水利工程建设有限公司,安溪村康门1号公变,","scope":"浙江省-杭州市-余杭区-仁和街道-獐山社区-东西大道,良渚街道-安溪街道地块(安溪街道,安溪路),良渚街道-杜城行政村(前山自然村,桥南自然村,杜城自然村,石前),良渚街道-安溪行政村(中溪自然村,上溪自然村,安溪自然村,下溪自然村,石岭自然村,安溪路),良渚街道-新桥社区(古运河路,安溪街道),良渚街道(荀山行政村-荀山自然村,康铭华庭社区-安溪自然村,崇福社区-顾家埠村,良渚行政村-仰家塘自然村,小洋坝行政村-良运街);良渚街道-安溪街道地块(杭州市余杭区良渚第三小学,杭州市余杭区人民政府良渚街道办事处),良渚街道-安溪行政村(浙江农科院园艺社,安溪乡茶场,中国电信股份有限公司杭州余杭区分公司,杭州市余杭区良渚镇安溪村村民委员会,杭州峻泰家具有限公司,余杭市南山林场,杭州美丽洲实业有限公司,杭州东明山森林公园有限公司,杭州中创电气有限公司,杭州余杭安溪股份经济合作社,杭州市余杭区人民政府良渚街道办事处),良渚街道-铭雅社区(浙江瑶山艺术品投资有限公司,杭州市余杭区人民政府良渚街道办事处),良渚街道(良渚行政村-余杭市南山林场,杜城行政村-杭州余杭区良渚镇建农织袜厂)","startTime":"2019-08-09 17:26:43","stopDate":"2019-08-09 20:30:00","orgNo":"3340140","typeCode":"电网故障停限电","poweroffArea":"35kV良渚变:安溪H404线","poweroffReason":"高压开关跳闸","powerTime":"2019-08-09 20:24:00","powerComm":"已送电","subsNo":"","lineNo":"","tgNo":"","tgName":null,"infoStatus":"1","orgName":"国网浙江杭州市余杭区供电有限公司","typeName":null,"infoStatusName":null,"dateDay":null,"orgNos":null,"nowTime":null,"countyName":null,"streetName":null,"villageName":null,"roadName":null,"communityName":null,"tranName":null,"sdLineName":null,"cityCode":"3340140","cityName":"国网浙江杭州市余杭区供电有限公司","provinceCode":null,"stopTime":"2019-08-09 20:30:00","powerType":"全部","powerOffArea":"35kV良渚变:安溪H404线","powerOffReason":"高压开关跳闸","powerOffId":"2019080931020750"},{"poweroffId":2019080931020732,"sgpoweroffId":null,"subsName":"","lineName":"10kV岭源191线","pubTranName":"林场1号公变,","scope":"浙江省-杭州市-桐庐县-合村乡-三源行政村-林场自然村","startTime":"2019-08-09 17:17:08","stopDate":"2019-08-09 19:17:08","orgNo":"3340150","typeCode":"电网故障停限电","poweroffArea":"35kV合村变:岭源191线-林场1号公变后段","poweroffReason":"高压开关跳闸","powerTime":"2019-08-09 18:56:49","powerComm":"已送电。","subsNo":"","lineNo":"","tgNo":"","tgName":null,"infoStatus":"1","orgName":"国网浙江桐庐县供电公司","typeName":null,"infoStatusName":null,"dateDay":null,"orgNos":null,"nowTime":null,"countyName":null,"streetName":null,"villageName":null,"roadName":null,"communityName":null,"tranName":null,"sdLineName":null,"cityCode":"3340150","cityName":"国网浙江桐庐县供电公司","provinceCode":null,"stopTime":"2019-08-09 19:17:08","powerType":"全部","powerOffArea":"35kV合村变:岭源191线-林场1号公变后段","powerOffReason":"高压开关跳闸","powerOffId":"2019080931020732"},{"poweroffId":2019080931020730,"sgpoweroffId":null,"subsName":"","lineName":"10kV鹤里V256线","pubTranName":"太阳镇自来水厂,10kV寨村村[平公山]公变,临安市立荣五金工具厂,临安呈祥工具有限公司,临安市公安局,10kV寨村村[燕塘沈家]公变,10kV寨村村[燕塘杨家]公变,10kV横路村[炮台]公变,10kV鹤里村[朱后]公变,临安市橡胶厂,10kV横路村[鹤岭]公变,10kV横路村[后干]公变,10kV横路村[大庙]公变,10kV武村村[武村高桥头]公变,10kV寨村村[小学]公变,10kV登村村[牌坊坞口]公变,10kV大溪坞村[黄泥岭]公变,10kV鹤里村[木灵坞]公变,临安市龙皇水电有限公司,10kV横路村[陈杆]公变,10kV登村村[登村]公变,10kV上太阳村[上太阳村]公变,10kV桃源溪村[岭后]公变,临安铁桥工具有限公司,临安市宁阳照明电器有限公司,10kV寨村村[燕塘周家]公变,10kV大溪坞村[寺坑]公变,10kV大溪坞村[七里杨树坞]公变,临安市昌化公路段,10kV桃源溪村[朱相坞里]公变,10kV横路村[鹤岭云雾]公变,10kV横路村[横路中学]公变,临安市横路乡鹤岭轧石厂,10kV寨村村[寨村]公变,10kV桃源溪村[盛村]公变,10kV上太阳村[上王家]公变,10kV横路村[后干前村]公变,10kV大溪坞村[小坞口]公变,10kV大溪坞村[大溪村]公变,10kV横路村[二队]公变,10kV横路村[鹤岭口庄坞]公变,10kV大溪坞村[上七里毛竹岭]公变,10kV上太阳村[朱柏坞企业]公变,10kV上太阳村[里家]公变,10kV大溪坞村[七里墙园]公变,10kV寨村村[平公山桥头]公变,10kV武村村[武村八队]公变,临安市永锦五金工具有限公司,10kV桃源溪村[朱相坞饶家]公变,叶承群,10kV上太阳村[上太阳企业]公变,10kV鹤里村[鹤里]公变,10kV鹤里村[茅翁山]公变,10kV大溪坞村[寺坑庵]公变,10kV桃源溪村[朱相坞村]公变,10kV登村村[千秋关口]公变,10kV上太阳村[大街]公变,临安伟梦工具有限公司,浙江省临安市太阳萤石矿1#,10kV大溪坞村[大溪中畈]公变,10kV桃源溪村[桃树岭村]公变,10kV横路村[廊桥]公变,10kV桃源溪村[湖田]公变,临安东方滑动轴承有限公司,临安市奥远五金工具有限公司,10kV横路村[横路村]公变,10kV鹤里村[鹤里樊村]公变,10kV大溪坞村[上七里]公变,临安市桃园机械铸造厂,10kV桃源溪村[桃树岭龙台山]公变,10kV桃源溪村[桃树岭王家]公变,10kV寨村村[敬老院]公变,龙皇(太阳)电站,杭州临安诚信电子器材厂,10kV武村村[武村西川坞]公变,10kV谢家桥村[谢家桥]公变,10kV登村村[马家畈]公变,临安铁桥工具有限公司1#,10kV登村村[张家]公变,10kV谢家桥村[大石桥]公变,10kV上太阳村[朱柏坞黄泥坪]公变,10kV谢家桥村[章家]公变,10kV寨村村[石岭头]公变,临安市太阳镇桃源溪股份经济合作社1#,10kV谢家桥村[上全]公变,临安太阳纱管厂,10kV上太阳村[朱柏坞村]公变,10kV武村村[狮子潭]公变,10kV登村村[登村林场]公变,","scope":"浙江省-杭州市-临安市-於潜镇-谢家行政村-谢家自然村,太阳镇-大溪坞行政村(大溪坞自然村,谢家桥自然村,寺坑自然村,七里自然村),太阳镇-上太阳行政村(上王家自然村,盛家自然村,上太阳自然村,樟山头自然村,下王家自然村,李家自然村,朱柏坞自然村,黄泥坪自然村,木杓溪自然村),太阳镇-桃源溪行政村(桃树岭自然村,龙台山自然村,岭后自然村,朱相坞自然村,饶家自然村,湖田里自然村,盛村自然村,王家坞自然村,榧树下自然村),太阳镇-寨村行政村(寨村自然村,燕塘自然村),太阳镇-鹤里行政村(鹤里自然村,朱后自然村),太阳镇-横路行政村(横路自然村,鹤岭自然村,后干自然村,武村自然村),太阳镇-太阳行政村(下太阳自然村,王家自然村,太阳自然村),太阳镇(谢家桥行政村-谢家桥自然村,武村行政村-武村自然村,登村行政村-登村自然村);太阳镇-上太阳行政村(杭州临安诚信电子器材厂,临安市桃园机械铸造厂,杭州临安太阳纱管厂,杭州临安区太阳自来水厂,临安东方滑动轴承有限公司),太阳镇-桃源溪行政村(叶承群,杭州临安奥远工具有限公司,杭州临安铁桥工具有限公司,临安市龙皇水电有限公司,临安太阳萤石矿),太阳镇-横路行政村(临安市宁阳照明电器有限公司,临安祝伟石料有限公司,临安呈祥工具有限公司,杭州临安立荣五金工具有限公司,临安市橡胶厂),太阳镇-登村行政村(临安市公安局,杭州市临安区昌化公路段),太阳镇(太阳行政村-临安市永锦五金工具有限公司,谢家桥行政村-临安伟梦工具有限公司,临安市太阳镇桃源溪股份经济合作社)一带","startTime":"2019-08-09 17:12:06","stopDate":"2019-08-09 23:59:20","orgNo":"3340160","typeCode":"电网故障停限电","poweroffArea":"35kV太阳变:鹤里V256线","poweroffReason":"高压开关跳闸","powerTime":"2019-08-09 23:08:43","powerComm":"已送电","subsNo":"","lineNo":"","tgNo":"","tgName":null,"infoStatus":"1","orgName":"国网浙江临安市供电公司","typeName":null,"infoStatusName":null,"dateDay":null,"orgNos":null,"nowTime":null,"countyName":null,"streetName":null,"villageName":null,"roadName":null,"communityName":null,"tranName":null,"sdLineName":null,"cityCode":"3340160","cityName":"国网浙江临安市供电公司","provinceCode":null,"stopTime":"2019-08-09 23:59:20","powerType":"全部","powerOffArea":"35kV太阳变:鹤里V256线","powerOffReason":"高压开关跳闸","powerOffId":"2019080931020730"},{"poweroffId":2019080931020705,"sgpoweroffId":null,"subsName":"","lineName":"10kV西门C105线","pubTranName":"唐家弄公变,","scope":"浙江省-杭州市-萧山区-城厢街道-西河路社区-西河路,城厢街道-太平弄社区(河浜路,桥下达药店弄,人民路,西河路，人民路一带","startTime":"2019-08-09 16:56:55","stopDate":"2019-08-09 20:30:00","orgNo":"3340130","typeCode":"电网故障停限电","poweroffArea":"110kV丽都变:西门C105线-唐家弄公变台区低压开关","poweroffReason":"（低压停电信息）低压漏电保护器短路故障 原停电结束时间：2019-08-09 20:00:00，变更停电结束时间：2019-08-09 20:30:00变更停电结束时间原因：由于抢修工作难度大，故需要延迟送电。","powerTime":"2019-08-09 19:34:51","powerComm":"已送电","subsNo":"","lineNo":"","tgNo":"","tgName":null,"infoStatus":"1","orgName":"国网浙江杭州市萧山区供电有限公司","typeName":null,"infoStatusName":null,"dateDay":null,"orgNos":null,"nowTime":null,"countyName":null,"streetName":null,"villageName":null,"roadName":null,"communityName":null,"tranName":null,"sdLineName":null,"cityCode":"3340130","cityName":"国网浙江杭州市萧山区供电有限公司","provinceCode":null,"stopTime":"2019-08-09 20:30:00","powerType":"全部","powerOffArea":"110kV丽都变:西门C105线-唐家弄公变台区低压开关","powerOffReason":"（低压停电信息）低压漏电保护器短路故障 原停电结束时间：2019-08-09 20:00:00，变更停电结束时间：2019-08-09 20:30:00变更停电结束时间原因：由于抢修工作难度大，故需要延迟送电。","powerOffId":"2019080931020705"},{"poweroffId":2019080931020674,"sgpoweroffId":null,"subsName":"","lineName":"10kV雪湾C242线","pubTranName":"楼塔集镇5#变,","scope":"浙江省-杭州市-萧山区-楼塔镇-楼英行政村(溪口路,集镇公bian,前溪弄,楼一自然村)等一带","startTime":"2019-08-09 16:44:45","stopDate":"2019-08-09 20:58:45","orgNo":"3340130","typeCode":"电网故障停限电","poweroffArea":"35kV楼塔变:雪湾C242线-楼塔集镇5#变台区低压开关","poweroffReason":"（低压停电信息）低压熔断器短路故障 原停电结束时间：2019-08-09 19:44，变更停电结束时间：2019-08-09 20:58，由于抢修现场抢修难度大，故需要延迟送电。","powerTime":"2019-08-09 20:10:05","powerComm":"已送电","subsNo":"","lineNo":"","tgNo":"","tgName":null,"infoStatus":"1","orgName":"国网浙江杭州市萧山区供电有限公司","typeName":null,"infoStatusName":null,"dateDay":null,"orgNos":null,"nowTime":null,"countyName":null,"streetName":null,"villageName":null,"roadName":null,"communityName":null,"tranName":null,"sdLineName":null,"cityCode":"3340130","cityName":"国网浙江杭州市萧山区供电有限公司","provinceCode":null,"stopTime":"2019-08-09 20:58:45","powerType":"全部","powerOffArea":"35kV楼塔变:雪湾C242线-楼塔集镇5#变台区低压开关","powerOffReason":"（低压停电信息）低压熔断器短路故障 原停电结束时间：2019-08-09 19:44，变更停电结束时间：2019-08-09 20:58，由于抢修现场抢修难度大，故需要延迟送电。","powerOffId":"2019080931020674"},{"poweroffId":2019080931020664,"sgpoweroffId":null,"subsName":"","lineName":"10kV恒宏C374线","pubTranName":"2#,1#,杭州市南郊监狱,","scope":"浙江省-杭州市-萧山区-宁围镇-宁围街道--经济技术开发区-红垦社区、杭州市南郊监狱、浙江盛达铁塔有限公司等一带","startTime":"2019-08-09 16:43:02","stopDate":"2019-08-09 20:43:02","orgNo":"3340130","typeCode":"电网故障停限电","poweroffArea":"110kV红山变:恒宏C374线","poweroffReason":"高压柱上断路器短路故障","powerTime":"2019-08-09 20:17:24","powerComm":"已送电","subsNo":"","lineNo":"","tgNo":"","tgName":null,"infoStatus":"1","orgName":"国网浙江杭州市萧山区供电有限公司","typeName":null,"infoStatusName":null,"dateDay":null,"orgNos":null,"nowTime":null,"countyName":null,"streetName":null,"villageName":null,"roadName":null,"communityName":null,"tranName":null,"sdLineName":null,"cityCode":"3340130","cityName":"国网浙江杭州市萧山区供电有限公司","provinceCode":null,"stopTime":"2019-08-09 20:43:02","powerType":"全部","powerOffArea":"110kV红山变:恒宏C374线","powerOffReason":"高压柱上断路器短路故障","powerOffId":"2019080931020664"},{"poweroffId":2019080931020663,"sgpoweroffId":null,"subsName":"","lineName":"10kV国盛C829线","pubTranName":"杭州万成箱包有限公司,伟达化工,舜达伟业,杭州大乘金属制品有限公司,振兴箱包1#,振兴箱包,兴昌纺织,新鑫钢结构,观福塑料,兴达彩印,新世纪包装雨具,振兴箱包,兴昌纺织,金巢旅游,杭州市公安局（104国道）,杭州华创实业有限公司1#,兴昌纺织,杭绍城际轨道交通1#,兴昌纺织,","scope":"浙江省-杭州市-萧山区-新街镇-新街街道-元沙行政村(浙江新鑫钢结构有限公司,杭州伟达化工有限公司,杭州萧山新世纪包装雨具厂,杭州萧山观福塑料有限公司,杭州萧山兴达彩印包装有限公司,浙江舜达伟业物资有限公司,杭州江南弹簧有限公司,杭州金巢旅游用品有限公司,杭州振兴箱包有限公司,杭州大乘金属制品有限公司,杭州兴昌纺织有限公司),新街街道(花城社区-杭州市公安局,芝兰行政村-杭州闽浙传媒科技有限公司、浙江省杭州市萧山区新街镇元山村、浙江省杭州市萧山区新街红垦路488号盛达铁塔有限公司、浙江省杭州市萧山区新街镇塘芝沙路368号东面隔壁、浙江省杭州市萧山区新街镇塘之路洒路368号、浙江省杭州市萧山区新街街道山末址村5组303号、浙江省杭州市萧山区新街镇山末址村曹阳中心桥这里、浙江省杭州市萧山区新街街道人民路157号、浙江省杭州市萧山区新街镇新街街道花城民苑、浙江省杭州市萧山区新街街道花城名苑、浙江省杭州市萧山区新街街道花城名苑等一带","startTime":"2019-08-09 16:41:43","stopDate":"2019-08-09 23:16:43","orgNo":"3340130","typeCode":"电网故障停限电","poweroffArea":"110kV罗山变:国盛C829线","poweroffReason":"高压柱上断路器短路故障 原停电结束时间：2019-08-10 02:41:43，变更停电结束时间：2019-08-09 23:16:43，由于增派人员，抢修工作提前完成，故需要提前送电。","powerTime":"2019-08-09 22:24:25","powerComm":"已送电","subsNo":"","lineNo":"","tgNo":"","tgName":null,"infoStatus":"1","orgName":"国网浙江杭州市萧山区供电有限公司","typeName":null,"infoStatusName":null,"dateDay":null,"orgNos":null,"nowTime":null,"countyName":null,"streetName":null,"villageName":null,"roadName":null,"communityName":null,"tranName":null,"sdLineName":null,"cityCode":"3340130","cityName":"国网浙江杭州市萧山区供电有限公司","provinceCode":null,"stopTime":"2019-08-09 23:16:43","powerType":"全部","powerOffArea":"110kV罗山变:国盛C829线","powerOffReason":"高压柱上断路器短路故障 原停电结束时间：2019-08-10 02:41:43，变更停电结束时间：2019-08-09 23:16:43，由于增派人员，抢修工作提前完成，故需要提前送电。","powerOffId":"2019080931020663"},{"poweroffId":2019080931020647,"sgpoweroffId":null,"subsName":"","lineName":"10kV道训9141线","pubTranName":"部矿(一),部勤,部队宿舍,汪家,部队专变,变压器,部队宿舍2,","scope":"浙江省杭州市西湖区中村附近一带用户","startTime":"2019-08-21 09:30:00","stopDate":"2019-08-21 17:30:00","orgNo":"3340101","typeCode":"计划停电","poweroffArea":"110kV象山变:道训9141线-部队专变后段;道训9141线-周祥跌落式熔断器后段;道训9141线-汪家分线开关后段","poweroffReason":"杭州市地铁集团有限责任公司杭富线三号（一期）隧道10KV电力管线迁改工程（城源） PD2018-04-034-QX 1.中矿分线改接 2.汪家分线改接","powerTime":"2019-08-21 16:46:10","powerComm":"已送电","subsNo":"","lineNo":"","tgNo":"","tgName":null,"infoStatus":"1","orgName":"浙江杭州电力客户服务中心","typeName":null,"infoStatusName":null,"dateDay":null,"orgNos":null,"nowTime":null,"countyName":null,"streetName":null,"villageName":null,"roadName":null,"communityName":null,"tranName":null,"sdLineName":null,"cityCode":"3340101","cityName":"浙江杭州电力客户服务中心","provinceCode":null,"stopTime":"2019-08-21 17:30:00","powerType":"全部","powerOffArea":"110kV象山变:道训9141线-部队专变后段;道训9141线-周祥跌落式熔断器后段;道训9141线-汪家分线开关后段","powerOffReason":"杭州市地铁集团有限责任公司杭富线三号（一期）隧道10KV电力管线迁改工程（城源） PD2018-04-034-QX 1.中矿分线改接 2.汪家分线改接","powerOffId":"2019080931020647"},{"poweroffId":2019080931020645,"sgpoweroffId":null,"subsName":"","lineName":"10kV金渡8602线","pubTranName":"润达(二),润达(三),","scope":"浙江省杭州市西湖区润达花园9幢至17幢附近一带用户及商铺","startTime":"2019-08-21 09:20:00","stopDate":"2019-08-21 16:30:00","orgNo":"3340101","typeCode":"计划停电","poweroffArea":"110kV谢村变:金渡8602线-润达二线后段","poweroffReason":"杭州市城市基础设施建设发展中心灯彩街润达变二迁改工程（上塘）PD2018-12-008-QX 美变拆除2台、新上欧变2台（2*630kVA）；原停电结束时间17:00、变更停电结束时间16:30原因原预估施工较复杂，而实际进行较顺利，因此工作提前结束了。","powerTime":"2019-08-21 15:40:59","powerComm":"已送电","subsNo":"","lineNo":"","tgNo":"","tgName":null,"infoStatus":"1","orgName":"浙江杭州电力客户服务中心","typeName":null,"infoStatusName":null,"dateDay":null,"orgNos":null,"nowTime":null,"countyName":null,"streetName":null,"villageName":null,"roadName":null,"communityName":null,"tranName":null,"sdLineName":null,"cityCode":"3340101","cityName":"浙江杭州电力客户服务中心","provinceCode":null,"stopTime":"2019-08-21 16:30:00","powerType":"全部","powerOffArea":"110kV谢村变:金渡8602线-润达二线后段","powerOffReason":"杭州市城市基础设施建设发展中心灯彩街润达变二迁改工程（上塘）PD2018-12-008-QX 美变拆除2台、新上欧变2台（2*630kVA）；原停电结束时间17:00、变更停电结束时间16:30原因原预估施工较复杂，而实际进行较顺利，因此工作提前结束了。","powerOffId":"2019080931020645"},{"poweroffId":2019080931020643,"sgpoweroffId":null,"subsName":"","lineName":"10kV嘉景8530线","pubTranName":"康村(一),","scope":"浙江省杭州市西湖区康乐新村3幢至9幢附近一带用户","startTime":"2019-08-21 09:20:00","stopDate":"2019-08-21 15:30:00","orgNo":"3340101","typeCode":"计划停电","poweroffArea":"110kV文三变:嘉景8530线-康村一配变后段","poweroffReason":"紫金小区等低压T接箱更换工程/1811HZ18010601A0000000（华西）康村一站康村（一）变低压分支箱更换；原停电结束时间17:00、变更停电结束时间15:30原因原预估施工较复杂，而实际进行较顺利，因此工作提前结束了。","powerTime":"2019-08-21 14:45:59","powerComm":"已送电","subsNo":"","lineNo":"","tgNo":"","tgName":null,"infoStatus":"1","orgName":"浙江杭州电力客户服务中心","typeName":null,"infoStatusName":null,"dateDay":null,"orgNos":null,"nowTime":null,"countyName":null,"streetName":null,"villageName":null,"roadName":null,"communityName":null,"tranName":null,"sdLineName":null,"cityCode":"3340101","cityName":"浙江杭州电力客户服务中心","provinceCode":null,"stopTime":"2019-08-21 15:30:00","powerType":"全部","powerOffArea":"110kV文三变:嘉景8530线-康村一配变后段","powerOffReason":"紫金小区等低压T接箱更换工程/1811HZ18010601A0000000（华西）康村一站康村（一）变低压分支箱更换；原停电结束时间17:00、变更停电结束时间15:30原因原预估施工较复杂，而实际进行较顺利，因此工作提前结束了。","powerOffId":"2019080931020643"}],"pageModel":{"pageNow":1290,"totalCount":17789,"totalPage":1779,"tableRows":0,"pageCount":10,"beginCount":12890},"isExperi":"1"}