{"message":"","today":"2020-06-16","seleList":[{"poweroffId":2019080931020423,"sgpoweroffId":null,"subsName":"","lineName":"10kV永桥D716线","pubTranName":"永昌村永桥4#营业所公变1,","scope":"浙江省杭州市富阳区永昌镇永昌行政村新街一带","startTime":"2019-08-21 07:00:00","stopDate":"2019-08-21 16:30:00","orgNo":"3340170","typeCode":"计划停电","poweroffArea":"110kV松溪变:永桥D716线61#杆永昌村永桥4#营业所公变","poweroffReason":"永昌村永桥4#营业所公变安装计量箱、0.4kV电缆拆搭头、配电屏拆除等工作","powerTime":"2019-08-21 16:15:20","powerComm":"已送电","subsNo":"","lineNo":"","tgNo":"","tgName":null,"infoStatus":"1","orgName":"国网浙江杭州市富阳区供电公司","typeName":null,"infoStatusName":null,"dateDay":null,"orgNos":null,"nowTime":null,"countyName":null,"streetName":null,"villageName":null,"roadName":null,"communityName":null,"tranName":null,"sdLineName":null,"cityCode":"3340170","cityName":"国网浙江杭州市富阳区供电公司","provinceCode":null,"stopTime":"2019-08-21 16:30:00","powerType":"全部","powerOffArea":"110kV松溪变:永桥D716线61#杆永昌村永桥4#营业所公变","powerOffReason":"永昌村永桥4#营业所公变安装计量箱、0.4kV电缆拆搭头、配电屏拆除等工作","powerOffId":"2019080931020423"},{"poweroffId":2019080931020415,"sgpoweroffId":null,"subsName":"","lineName":"10kV湘岭D714线","pubTranName":"潘堰村8号炉头桥头公变,","scope":"浙江省杭州市富阳区新登镇潘堰行政村炉头自然村一带","startTime":"2019-08-22 07:00:00","stopDate":"2019-08-22 16:30:00","orgNo":"3340170","typeCode":"计划停电","poweroffArea":"110kV松溪变:湘岭D714线142#杆炉头桥分线","poweroffReason":"潘堰村8#炉头桥头公变移位、低压电缆搭接等工作","powerTime":"2019-08-22 15:35:06","powerComm":"已送电","subsNo":"","lineNo":"","tgNo":"","tgName":null,"infoStatus":"1","orgName":"国网浙江杭州市富阳区供电公司","typeName":null,"infoStatusName":null,"dateDay":null,"orgNos":null,"nowTime":null,"countyName":null,"streetName":null,"villageName":null,"roadName":null,"communityName":null,"tranName":null,"sdLineName":null,"cityCode":"3340170","cityName":"国网浙江杭州市富阳区供电公司","provinceCode":null,"stopTime":"2019-08-22 16:30:00","powerType":"全部","powerOffArea":"110kV松溪变:湘岭D714线142#杆炉头桥分线","powerOffReason":"潘堰村8#炉头桥头公变移位、低压电缆搭接等工作","powerOffId":"2019080931020415"},{"poweroffId":2019080931020412,"sgpoweroffId":null,"subsName":"","lineName":"10kV潭山D711线","pubTranName":"富阳永达水泥制品有限公司,","scope":"浙江省杭州市富阳区新登镇富阳永达水泥制品有限公司一带","startTime":"2019-08-23 07:00:00","stopDate":"2019-08-23 16:30:00","orgNo":"3340170","typeCode":"计划停电","poweroffArea":"110kV松溪变:潭山D711线13#杆后段","poweroffReason":"10kV潭山D711线、胥口D712线23#杆钢管塔移位、拔立钢管塔、22#杆开耐张、22#杆至23#杆导线更换等工作","powerTime":"2019-08-23 16:20:13","powerComm":"已送电","subsNo":"","lineNo":"","tgNo":"","tgName":null,"infoStatus":"1","orgName":"国网浙江杭州市富阳区供电公司","typeName":null,"infoStatusName":null,"dateDay":null,"orgNos":null,"nowTime":null,"countyName":null,"streetName":null,"villageName":null,"roadName":null,"communityName":null,"tranName":null,"sdLineName":null,"cityCode":"3340170","cityName":"国网浙江杭州市富阳区供电公司","provinceCode":null,"stopTime":"2019-08-23 16:30:00","powerType":"全部","powerOffArea":"110kV松溪变:潭山D711线13#杆后段","powerOffReason":"10kV潭山D711线、胥口D712线23#杆钢管塔移位、拔立钢管塔、22#杆开耐张、22#杆至23#杆导线更换等工作","powerOffId":"2019080931020412"},{"poweroffId":2019080931020410,"sgpoweroffId":null,"subsName":"","lineName":"10kV杨桥V720线","pubTranName":"金岫村[金岫],","scope":"浙江省杭州市临安区太湖源镇金岫行政村金岫自然村一带","startTime":"2019-08-22 07:00:00","stopDate":"2019-08-22 15:00:00","orgNo":"3340160","typeCode":"计划停电","poweroffArea":"110kV杨岭变:杨桥V720线-金岫村[金岫]后段","poweroffReason":"调线工作","powerTime":"2019-08-22 14:50:31","powerComm":"已送电","subsNo":"","lineNo":"","tgNo":"","tgName":null,"infoStatus":"1","orgName":"国网浙江临安市供电公司","typeName":null,"infoStatusName":null,"dateDay":null,"orgNos":null,"nowTime":null,"countyName":null,"streetName":null,"villageName":null,"roadName":null,"communityName":null,"tranName":null,"sdLineName":null,"cityCode":"3340160","cityName":"国网浙江临安市供电公司","provinceCode":null,"stopTime":"2019-08-22 15:00:00","powerType":"全部","powerOffArea":"110kV杨岭变:杨桥V720线-金岫村[金岫]后段","powerOffReason":"调线工作","powerOffId":"2019080931020410"},{"poweroffId":2019080931020409,"sgpoweroffId":null,"subsName":"","lineName":"10kV桥里V862线","pubTranName":"夏禹桥村[合庆桥]公变,","scope":"浙江省杭州市临安市玲珑街道夏禹桥行政村合庆自然村一带","startTime":"2019-08-22 07:00:00","stopDate":"2019-08-22 12:30:00","orgNo":"3340160","typeCode":"计划停电","poweroffArea":"110kV夏禹变:桥里V862线-桥里155线22#后段","poweroffReason":"新装令克","powerTime":"2019-08-22 12:20:40","powerComm":"已送电","subsNo":"","lineNo":"","tgNo":"","tgName":null,"infoStatus":"1","orgName":"国网浙江临安市供电公司","typeName":null,"infoStatusName":null,"dateDay":null,"orgNos":null,"nowTime":null,"countyName":null,"streetName":null,"villageName":null,"roadName":null,"communityName":null,"tranName":null,"sdLineName":null,"cityCode":"3340160","cityName":"国网浙江临安市供电公司","provinceCode":null,"stopTime":"2019-08-22 12:30:00","powerType":"全部","powerOffArea":"110kV夏禹变:桥里V862线-桥里155线22#后段","powerOffReason":"新装令克","powerOffId":"2019080931020409"},{"poweroffId":2019080931020405,"sgpoweroffId":null,"subsName":"","lineName":"10kV桥里V862线","pubTranName":"杭州丽文玻璃制品有限公司,","scope":"浙江省杭州市临安区玲珑街道夏禹桥行政村临安市吉龙传感专用电缆厂一带","startTime":"2019-08-22 07:00:00","stopDate":"2019-08-22 12:30:00","orgNo":"3340160","typeCode":"计划停电","poweroffArea":"110kV夏禹变:桥里V862线-桥里155线22#后段","poweroffReason":"外来施工业扩","powerTime":"2019-08-22 12:20:20","powerComm":"已送电","subsNo":"","lineNo":"","tgNo":"","tgName":null,"infoStatus":"1","orgName":"国网浙江临安市供电公司","typeName":null,"infoStatusName":null,"dateDay":null,"orgNos":null,"nowTime":null,"countyName":null,"streetName":null,"villageName":null,"roadName":null,"communityName":null,"tranName":null,"sdLineName":null,"cityCode":"3340160","cityName":"国网浙江临安市供电公司","provinceCode":null,"stopTime":"2019-08-22 12:30:00","powerType":"全部","powerOffArea":"110kV夏禹变:桥里V862线-桥里155线22#后段","powerOffReason":"外来施工业扩","powerOffId":"2019080931020405"},{"poweroffId":2019080931020403,"sgpoweroffId":null,"subsName":"","lineName":"10kV杨桥V720线","pubTranName":"金岫村[马园里],","scope":"浙江省杭州市临安市太湖源镇金岫行政村马园里一带","startTime":"2019-08-21 07:00:00","stopDate":"2019-08-21 15:00:00","orgNo":"3340160","typeCode":"计划停电","poweroffArea":"110kV杨岭变:杨桥V720线-金岫村[马园里]后段","poweroffReason":"调线工作","powerTime":"2019-08-21 14:51:29","powerComm":"已送电","subsNo":"","lineNo":"","tgNo":"","tgName":null,"infoStatus":"1","orgName":"国网浙江临安市供电公司","typeName":null,"infoStatusName":null,"dateDay":null,"orgNos":null,"nowTime":null,"countyName":null,"streetName":null,"villageName":null,"roadName":null,"communityName":null,"tranName":null,"sdLineName":null,"cityCode":"3340160","cityName":"国网浙江临安市供电公司","provinceCode":null,"stopTime":"2019-08-21 15:00:00","powerType":"全部","powerOffArea":"110kV杨岭变:杨桥V720线-金岫村[马园里]后段","powerOffReason":"调线工作","powerOffId":"2019080931020403"},{"poweroffId":2019080931020400,"sgpoweroffId":null,"subsName":"","lineName":"10kV吴马V493线","pubTranName":"金马村[大马]公变,","scope":"浙江省杭州市临安区锦北街道金马行政村(大马自然村,吴马自然村)一带","startTime":"2019-08-21 07:00:00","stopDate":"2019-08-21 12:00:00","orgNo":"3340160","typeCode":"计划停电","poweroffArea":"110kV平山变:吴马V493线-大马分线02#后段","poweroffReason":"调线工作","powerTime":"2019-08-21 11:50:18","powerComm":"已送电","subsNo":"","lineNo":"","tgNo":"","tgName":null,"infoStatus":"1","orgName":"国网浙江临安市供电公司","typeName":null,"infoStatusName":null,"dateDay":null,"orgNos":null,"nowTime":null,"countyName":null,"streetName":null,"villageName":null,"roadName":null,"communityName":null,"tranName":null,"sdLineName":null,"cityCode":"3340160","cityName":"国网浙江临安市供电公司","provinceCode":null,"stopTime":"2019-08-21 12:00:00","powerType":"全部","powerOffArea":"110kV平山变:吴马V493线-大马分线02#后段","powerOffReason":"调线工作","powerOffId":"2019080931020400"},{"poweroffId":2019080931020398,"sgpoweroffId":null,"subsName":"","lineName":"10kV陈坞V763线","pubTranName":"潘山村[四组]公变,","scope":"浙江省杭州市临安区锦北街道潘山行政村(陈家坞自然村,汤家坞自然村,潘山自然村)一带","startTime":"2019-08-20 07:00:00","stopDate":"2019-08-20 10:00:00","orgNo":"3340160","typeCode":"计划停电","poweroffArea":"110kV科创变:陈坞V763线-潘山村[四组]公变后段","poweroffReason":"地点位搭头","powerTime":"2019-08-20 09:41:43","powerComm":"已送电","subsNo":"","lineNo":"","tgNo":"","tgName":null,"infoStatus":"1","orgName":"国网浙江临安市供电公司","typeName":null,"infoStatusName":null,"dateDay":null,"orgNos":null,"nowTime":null,"countyName":null,"streetName":null,"villageName":null,"roadName":null,"communityName":null,"tranName":null,"sdLineName":null,"cityCode":"3340160","cityName":"国网浙江临安市供电公司","provinceCode":null,"stopTime":"2019-08-20 10:00:00","powerType":"全部","powerOffArea":"110kV科创变:陈坞V763线-潘山村[四组]公变后段","powerOffReason":"地点位搭头","powerOffId":"2019080931020398"},{"poweroffId":2019080931020395,"sgpoweroffId":null,"subsName":"","lineName":"10kV横街V593线","pubTranName":"钱皇铺村[硖石老坞桥]公变,","scope":"浙江省杭州市临安区锦城街道钱王铺行政村硖石老坞桥一带","startTime":"2019-08-19 07:00:00","stopDate":"2019-08-19 12:00:00","orgNo":"3340160","typeCode":"计划停电","poweroffArea":"110kV杨岭变:横街V593线-硖石分线70#后段","poweroffReason":"公变增容","powerTime":"2019-08-19 11:30:44","powerComm":"已送电","subsNo":"","lineNo":"","tgNo":"","tgName":null,"infoStatus":"1","orgName":"国网浙江临安市供电公司","typeName":null,"infoStatusName":null,"dateDay":null,"orgNos":null,"nowTime":null,"countyName":null,"streetName":null,"villageName":null,"roadName":null,"communityName":null,"tranName":null,"sdLineName":null,"cityCode":"3340160","cityName":"国网浙江临安市供电公司","provinceCode":null,"stopTime":"2019-08-19 12:00:00","powerType":"全部","powerOffArea":"110kV杨岭变:横街V593线-硖石分线70#后段","powerOffReason":"公变增容","powerOffId":"2019080931020395"}],"pageModel":{"pageNow":1294,"totalCount":17789,"totalPage":1779,"tableRows":0,"pageCount":10,"beginCount":12930},"isExperi":"1"}