{"message":"","today":"2020-06-16","seleList":[{"poweroffId":2019080931020345,"sgpoweroffId":null,"subsName":"","lineName":"10kV小砾A265线","pubTranName":"畅朗照明,杭州市萧山区钱塘江排灌总站小砾山分站,闻堰路灯变,安徽省交通建设股份有限公司,三江口村小砾山2#变,三江口村小砾山3#变,玉根机械,三江口村小砾山5#变,闻堰镇人民政府,安徽省交通建设股份有限公司,杭州市萧山区钱塘江灌区管理处,三江口村小砾山6#变,","scope":"浙江省-杭州市-萧山区-闻堰镇-三江口行政村(前吴自然村,后吴自然村,小砾山自然村);闻堰镇-三江口行政村(杭州市萧山区钱塘江灌区管理处,杭州玉根机械有限公司,浙江畅朗照明有限公司,安徽省交通建设股份有限公司),闻堰镇(三江社区-杭州博美照明电器有限公司,闻兴行政村-杭州市萧山区闻堰镇人民政府,亚太路-安徽省交通建设股份有限公司)，文苑街道三江口村小劮山,闻堰街道亚太路1887号，文夜镇其北大道4528号一带","startTime":"2019-08-09 13:42:15","stopDate":"2019-08-09 18:30:15","orgNo":"3340130","typeCode":"电网故障停限电","poweroffArea":"110kV定山变:小砾A265线小砾A2651开关后段","poweroffReason":"外力破坏引起小砾A265线高压柱上断路器短路跳闸 原停电结束时间：2019-08-09 17:30:15，变更停电结束时间2019-08-09 18:30:15，由于抢修工作难度大，故需要延迟送电。","powerTime":"2019-08-09 17:35:15","powerComm":"已送电","subsNo":"","lineNo":"","tgNo":"","tgName":null,"infoStatus":"1","orgName":"国网浙江杭州市萧山区供电有限公司","typeName":null,"infoStatusName":null,"dateDay":null,"orgNos":null,"nowTime":null,"countyName":null,"streetName":null,"villageName":null,"roadName":null,"communityName":null,"tranName":null,"sdLineName":null,"cityCode":"3340130","cityName":"国网浙江杭州市萧山区供电有限公司","provinceCode":null,"stopTime":"2019-08-09 18:30:15","powerType":"全部","powerOffArea":"110kV定山变:小砾A265线小砾A2651开关后段","powerOffReason":"外力破坏引起小砾A265线高压柱上断路器短路跳闸 原停电结束时间：2019-08-09 17:30:15，变更停电结束时间2019-08-09 18:30:15，由于抢修工作难度大，故需要延迟送电。","powerOffId":"2019080931020345"},{"poweroffId":2019080931020342,"sgpoweroffId":null,"subsName":"","lineName":"10kV农校H413线","pubTranName":"中交第二航务工程局有限公司余杭分公司,良渚村冯家桥2号公变,良渚村莫家里公变,良渚村西木桥2号公变,良渚村冯家桥公变,良渚村沈家门公变,路灯变,杭州余杭区良渚机械铸造厂,良渚村东木桥公变,良渚村张家桥公变,荣翔机械,亿丰印刷,树富塑料厂,良渚村金家门公变,良渚村张家桥2号公变,良渚村西木桥1号公变,","scope":"浙江省-杭州市-余杭区-良渚街道(良渚行政村-良渚自然村,大陆行政村-冯家桥自然村);良渚街道(杭州博强塑业有限公司,杭州亿丰印务有限公司,杭州余杭区良渚赛翔五金加工厂,杭州余杭区良渚机械铸造厂,中交第二航务工程局有限公司余杭分公司)","startTime":"2019-08-09 13:36:00","stopDate":"2019-08-09 17:00:00","orgNo":"3340140","typeCode":"电网故障停限电","poweroffArea":"35kV良渚变:农校H413线莫家里9#杆开关后段","poweroffReason":"高压开关跳闸","powerTime":"2019-08-09 16:57:00","powerComm":"已送电","subsNo":"","lineNo":"","tgNo":"","tgName":null,"infoStatus":"1","orgName":"国网浙江杭州市余杭区供电有限公司","typeName":null,"infoStatusName":null,"dateDay":null,"orgNos":null,"nowTime":null,"countyName":null,"streetName":null,"villageName":null,"roadName":null,"communityName":null,"tranName":null,"sdLineName":null,"cityCode":"3340140","cityName":"国网浙江杭州市余杭区供电有限公司","provinceCode":null,"stopTime":"2019-08-09 17:00:00","powerType":"全部","powerOffArea":"35kV良渚变:农校H413线莫家里9#杆开关后段","powerOffReason":"高压开关跳闸","powerOffId":"2019080931020342"},{"poweroffId":2019080931020333,"sgpoweroffId":null,"subsName":"","lineName":"10kV巧力A238线","pubTranName":"郡望府12#公变,杭州市地铁集团有限责任公司4#变,杭州嘉融置业有限公司,新街街道办事处1#变压器,杭州市地铁集团有限责任公司2#变,钱塘东南家园10#公变,杭州市地铁集团有限责任公司1#变,郡望府4#公变,新丽名苑10#公变,郡望府2#公变,钱塘东南家园20#公变,3#变,东南海3#变,4#变,杭州惠力房地产开发有限公司（物业）3#变压器,郡望府10#公变,郡望府20#公变,钱塘东南家园4#公变,杭州嘉融置业有限公司,杭州嘉融置业有限公司,钱塘东南家园16#公变,钱塘东南家园2#公变,鸿达市政5#,巧克力公馆SZ1#,钱塘东南家园18#公变,新盈名苑2#公变,杭州市地铁集团有限责任公司3#变,新盈名苑4#公变,杭州惠力房地产开发有限公司（物业）4#变压器,江南村(九号坝)5#变,钱塘东南家园6#公变,钱塘东南家园14#公变,江南村（九号坝）10#变,新丽名苑4#公变,新丽名苑6#公变,新丽名苑2#公变,郡望府6#公变,2#变,1#,钱塘东南家园8#公变,钱塘东南家园12#公变,新丽名苑8#公变,4#变,郡望府8#公变,杭州惠力房地产开发有限公司（物业）1#变压器,郡望府18#公变,杭州惠力房地产开发有限公司（商业）变压器,东南海1#变,郡望府14#公变,郡望府16#公变,杭州惠力房地产开发有限公司（物业）2#变压器,","scope":"浙江省-杭州市-萧山区-新街镇-新街街道-盛东行政村(枫香路,香樟路),新街街道(江南行政村-江南自然村,盛中行政村-香樟路);浙江省-杭州市-萧山区-经济技术开发区-市北社区-浙江万兴恒服务有限公司,新街街道-盛中行政村(第一太平融科物业管理(北京)有限公司杭州分公司,杭州市地铁集团有限责任公司,杭州嘉融置业有限公司),新街街道-盛东行政村(广东中奥物业管理有限公司萧山分公司,杭州市萧山区人民政府新街街道办事处),新街街道(长山社区-杭州鸿达市政公用事业服务有限公司,江南行政村-杭州市萧山区人民政府新街街道办事处,花城社区-浙江萧山农村商业银行股份有限公司等一带","startTime":"2019-08-09 13:28:22","stopDate":"2019-08-09 16:18:22","orgNo":"3340130","typeCode":"电网故障停限电","poweroffArea":"110kV先锋变:巧力A238线","poweroffReason":"高压柱上断路器短路故障 原停电结束时间：2019-08-09 20:28:22，变更停电结束时间：2019-08-09 16:18:22，由于增派人员，抢修工作提前完成，故需要提前送电。","powerTime":"2019-08-09 15:57:03","powerComm":"已送电","subsNo":"","lineNo":"","tgNo":"","tgName":null,"infoStatus":"1","orgName":"国网浙江杭州市萧山区供电有限公司","typeName":null,"infoStatusName":null,"dateDay":null,"orgNos":null,"nowTime":null,"countyName":null,"streetName":null,"villageName":null,"roadName":null,"communityName":null,"tranName":null,"sdLineName":null,"cityCode":"3340130","cityName":"国网浙江杭州市萧山区供电有限公司","provinceCode":null,"stopTime":"2019-08-09 16:18:22","powerType":"全部","powerOffArea":"110kV先锋变:巧力A238线","powerOffReason":"高压柱上断路器短路故障 原停电结束时间：2019-08-09 20:28:22，变更停电结束时间：2019-08-09 16:18:22，由于增派人员，抢修工作提前完成，故需要提前送电。","powerOffId":"2019080931020333"},{"poweroffId":2019080931020332,"sgpoweroffId":null,"subsName":"","lineName":"10kV林场T276线","pubTranName":"兰田2号公变,","scope":"浙江省-杭州市-桐庐县-城南街道(乔林行政村-乔林自然村,新建行政村-新建自然村,下杭社区-云栖路,兰田行政村-兰田自然村)","startTime":"2019-08-09 13:22:00","stopDate":"2019-08-09 15:22:00","orgNo":"3340150","typeCode":"电网故障停限电","poweroffArea":"35kV三合变:林场T276线兰田2号公变配变","poweroffReason":"(低压停电信息)低压开关跳闸","powerTime":"2019-08-09 15:03:31","powerComm":"已送电。","subsNo":"","lineNo":"","tgNo":"","tgName":null,"infoStatus":"1","orgName":"国网浙江桐庐县供电公司","typeName":null,"infoStatusName":null,"dateDay":null,"orgNos":null,"nowTime":null,"countyName":null,"streetName":null,"villageName":null,"roadName":null,"communityName":null,"tranName":null,"sdLineName":null,"cityCode":"3340150","cityName":"国网浙江桐庐县供电公司","provinceCode":null,"stopTime":"2019-08-09 15:22:00","powerType":"全部","powerOffArea":"35kV三合变:林场T276线兰田2号公变配变","powerOffReason":"(低压停电信息)低压开关跳闸","powerOffId":"2019080931020332"},{"poweroffId":2019080931020323,"sgpoweroffId":null,"subsName":"","lineName":"10kV华泰C146线","pubTranName":"花神庙村6#变,花神庙村9#变,","scope":"浙江省-杭州市-萧山区-靖江街道-花神庙社区(花神庙自然村,新港路)","startTime":"2019-08-19 08:30:00","stopDate":"2019-08-19 13:30:00","orgNo":"3340130","typeCode":"计划停电","poweroffArea":"110kV梅西变:华泰C146线-花神庙村6#变后段;华泰C146线-花神庙村9#变后段","poweroffReason":"花神庙村9#变下250上400kVA","powerTime":"2019-08-19 12:46:10","powerComm":"已送电","subsNo":"","lineNo":"","tgNo":"","tgName":null,"infoStatus":"1","orgName":"国网浙江杭州市萧山区供电有限公司","typeName":null,"infoStatusName":null,"dateDay":null,"orgNos":null,"nowTime":null,"countyName":null,"streetName":null,"villageName":null,"roadName":null,"communityName":null,"tranName":null,"sdLineName":null,"cityCode":"3340130","cityName":"国网浙江杭州市萧山区供电有限公司","provinceCode":null,"stopTime":"2019-08-19 13:30:00","powerType":"全部","powerOffArea":"110kV梅西变:华泰C146线-花神庙村6#变后段;华泰C146线-花神庙村9#变后段","powerOffReason":"花神庙村9#变下250上400kVA","powerOffId":"2019080931020323"},{"poweroffId":2019080931020311,"sgpoweroffId":null,"subsName":"","lineName":"10kV三峰A213线","pubTranName":"大庄村6#变,","scope":"浙江省-杭州市-萧山区-临浦镇-大庄行政村(西庄自然村,大庄桥自然村)等一带","startTime":"2019-08-09 13:08:28","stopDate":"2019-08-09 14:40:36","orgNo":"3340130","typeCode":"电网故障停限电","poweroffArea":"110kV群建变:三峰A213线-大庄村6#变台区低压开关","poweroffReason":"（低压停电信息）低压熔断器短路故障 原停电结束时间：2019-08-09 16:08，变更停电结束时间：2019-08-09 14:40，由于施工准备充分，故需要提前送电。","powerTime":"2019-08-09 13:58:32","powerComm":"已送电","subsNo":"","lineNo":"","tgNo":"","tgName":null,"infoStatus":"1","orgName":"国网浙江杭州市萧山区供电有限公司","typeName":null,"infoStatusName":null,"dateDay":null,"orgNos":null,"nowTime":null,"countyName":null,"streetName":null,"villageName":null,"roadName":null,"communityName":null,"tranName":null,"sdLineName":null,"cityCode":"3340130","cityName":"国网浙江杭州市萧山区供电有限公司","provinceCode":null,"stopTime":"2019-08-09 14:40:36","powerType":"全部","powerOffArea":"110kV群建变:三峰A213线-大庄村6#变台区低压开关","powerOffReason":"（低压停电信息）低压熔断器短路故障 原停电结束时间：2019-08-09 16:08，变更停电结束时间：2019-08-09 14:40，由于施工准备充分，故需要提前送电。","powerOffId":"2019080931020311"},{"poweroffId":2019080931020284,"sgpoweroffId":null,"subsName":"","lineName":"10kV项家D512线","pubTranName":"小剡村3号前山园公变,","scope":"浙江省-杭州市-富阳区-常安镇-小剡行政村-前山园自然村","startTime":"2019-08-09 12:25:52","stopDate":"2019-08-09 13:00:52","orgNo":"3340170","typeCode":"电网故障停限电","poweroffArea":"110kV常安变:项家D512线-小剡村3#前山园公变后段","poweroffReason":"(低压停电信息)低压开关跳闸","powerTime":"2019-08-09 12:43:11","powerComm":"已送电","subsNo":"","lineNo":"","tgNo":"","tgName":null,"infoStatus":"1","orgName":"国网浙江杭州市富阳区供电公司","typeName":null,"infoStatusName":null,"dateDay":null,"orgNos":null,"nowTime":null,"countyName":null,"streetName":null,"villageName":null,"roadName":null,"communityName":null,"tranName":null,"sdLineName":null,"cityCode":"3340170","cityName":"国网浙江杭州市富阳区供电公司","provinceCode":null,"stopTime":"2019-08-09 13:00:52","powerType":"全部","powerOffArea":"110kV常安变:项家D512线-小剡村3#前山园公变后段","powerOffReason":"(低压停电信息)低压开关跳闸","powerOffId":"2019080931020284"},{"poweroffId":2019080931020278,"sgpoweroffId":null,"subsName":"","lineName":"10kV沙大Y203线","pubTranName":"新安商厦203035公变,","scope":"浙江省-杭州市-建德市-新安江街道-明珠社区 新安东路,明珠路，新安商厦一带用户。","startTime":"2019-08-09 12:00:00","stopDate":"2019-08-09 13:30:00","orgNo":"3340180","typeCode":"电网故障停限电","poweroffArea":"110kV白沙变:沙大Y203线-新安商厦203035公变后段","poweroffReason":"(低压停电信息)低压熔芯烧毁","powerTime":"2019-08-09 12:43:00","powerComm":"已送电","subsNo":"","lineNo":"","tgNo":"","tgName":null,"infoStatus":"1","orgName":"国网浙江建德市供电有限公司","typeName":null,"infoStatusName":null,"dateDay":null,"orgNos":null,"nowTime":null,"countyName":null,"streetName":null,"villageName":null,"roadName":null,"communityName":null,"tranName":null,"sdLineName":null,"cityCode":"3340180","cityName":"国网浙江建德市供电有限公司","provinceCode":null,"stopTime":"2019-08-09 13:30:00","powerType":"全部","powerOffArea":"110kV白沙变:沙大Y203线-新安商厦203035公变后段","powerOffReason":"(低压停电信息)低压熔芯烧毁","powerOffId":"2019080931020278"},{"poweroffId":2019080931020269,"sgpoweroffId":null,"subsName":"","lineName":"10kV东联A490线","pubTranName":"五六二村22#变,赵家湾村4#变,东联村9#变,五六二村11#变,众力村18#变,众力村11#变,众力村5#变,东联村12#变,杭州昌正塑胶板业1#配变,赵家湾村14#变,赵家湾村10#变,五六二村20#变,东联村20#变,赵家湾村12#变,赵家湾村8#变,赵家湾村13#变,杭州萧山法诺装饰品有限公司,东联村18#变,杭州万全机械有限公司,众力村10#变,杭州三通道南接线工程有限公司12#,杭州美婷卫浴洁具厂,五六二村21#变,梦吉雅纺织配变,众力村6#变,五六二村17#变,东联村11#变,五六二村13#变,杭州萧山名贝卫浴洁具厂,杭州紫香糖业有限公司1#,杭州梦吉雅纺织有限公司,杭州紫香糖业有限公司1#,五六二村1#变,五六二村5#变,五六二村15#变,杭州天盛卫浴洁具有限公司,五六二村23#变,杭州欧思杰卫浴配变,五六二安置区1#公变,五六二村7#变,东联村4#变,东联村1#变,众力村12#变,五六二村12#变,五六二村3#变,五六二村10#变,五六二村2#变,五六二村6#变,赵家湾村5#变,五六二村4#变,益农供电营业所5#变,五六二村18#变,五六二村19#变,杭州萧山益农众力水磨石厂,赵家湾村9#变,杭州昌正塑胶板业有限公司,五六二村9#变,杭州唯尚卫浴洁具有限公司,杭州培盛卫浴材料有限公司,杭州海景物业管理有限公司,东联村7#变,杭州三通道南接线工程有限公司10#,五六二村16#变,众力村8#变,杭州三通道南接线工程有限公司11#,东联村14#变,杭州昌隆彩印包装有限公司,杭州天盛卫浴洁具有限公司,杭州萧山永良卫浴洁具厂,五六二村14#变,东联村10#变,","scope":"浙江省-杭州市-萧山区-益农镇-东联行政村(东联自然村,东一自然村),益农镇东联村、五六二村、众力村、赵家湾村、益农镇(众力行政村-众力自然村,五六二行政村-五六二自然村,赵家湾行政村-赵家湾自然村,益农行政村-五六二自然村);浙江省-杭州市-萧山区-瓜沥镇-党山行政村-杭州昌隆彩印包装有限公司,益农镇-益农行政村(杭州美婷卫浴洁具厂,杭州紫香糖业有限公司,杭州唯尚卫浴洁具有限公司,杭州梦吉雅纺织有限公司,杭州萧山名贝卫浴洁具厂,杭州培盛卫浴材料有限公司),益农镇-东联行政村(杭州万全机械有限公司,杭州萧山法诺装饰品有限公司,杭州欧思杰卫浴有限公司,杭州昌正塑胶板业有限公司,杭州天盛卫浴洁具有限公司,杭州萧山永良卫浴洁具厂,杭州三通道南工程有限公司,杭州海景物业管理有限公司),益农镇(众力行政村-杭州萧山益农众力水磨石厂,群围行政村-杭州梦吉雅纺织有限公司)一带","startTime":"2019-08-09 11:50:37","stopDate":"2019-08-09 15:30:37","orgNo":"3340130","typeCode":"电网故障停限电","poweroffArea":"110kV群围变:东联A490线","poweroffReason":"高压柱上断路器短路故障 原停电结束时间:2019-08-09 15:54:37,变更停电结束时间:2019-08-09 15:30:37。由于抢修工作提前完成,故需要提前送电。","powerTime":"2019-08-09 14:51:38","powerComm":"已送电","subsNo":"","lineNo":"","tgNo":"","tgName":null,"infoStatus":"1","orgName":"国网浙江杭州市萧山区供电有限公司","typeName":null,"infoStatusName":null,"dateDay":null,"orgNos":null,"nowTime":null,"countyName":null,"streetName":null,"villageName":null,"roadName":null,"communityName":null,"tranName":null,"sdLineName":null,"cityCode":"3340130","cityName":"国网浙江杭州市萧山区供电有限公司","provinceCode":null,"stopTime":"2019-08-09 15:30:37","powerType":"全部","powerOffArea":"110kV群围变:东联A490线","powerOffReason":"高压柱上断路器短路故障 原停电结束时间:2019-08-09 15:54:37,变更停电结束时间:2019-08-09 15:30:37。由于抢修工作提前完成,故需要提前送电。","powerOffId":"2019080931020269"},{"poweroffId":2019080931020268,"sgpoweroffId":null,"subsName":"","lineName":"10kV国盛C829线","pubTranName":"舜达伟业,兴昌纺织,振兴箱包1#,杭绍城际轨道交通1#,振兴箱包,伟达化工,兴达彩印,振兴箱包,新鑫钢结构,杭州大乘金属制品有限公司,兴昌纺织,金巢旅游,杭州万成箱包有限公司,兴昌纺织,新世纪包装雨具,杭州华创实业有限公司1#,观福塑料,兴昌纺织,杭州市公安局（104国道）,","scope":"浙江省-杭州市-萧山区-新街镇-新街街道-元沙行政村(浙江新鑫钢结构有限公司,杭州伟达化工有限公司,杭州萧山新世纪包装雨具厂,杭州萧山观福塑料有限公司,杭州萧山兴达彩印包装有限公司,浙江舜达伟业物资有限公司,杭州江南弹簧有限公司,杭州金巢旅游用品有限公司,杭州振兴箱包有限公司,杭州大乘金属制品有限公司,杭州兴昌纺织有限公司),新街街道(花城社区-杭州市公安局,芝兰行政村-杭州闽浙传媒科技有限公司等一带","startTime":"2019-08-09 11:54:00","stopDate":"2019-08-09 16:35:01","orgNo":"3340130","typeCode":"电网故障停限电","poweroffArea":"110kV罗山变:国盛C829线","poweroffReason":"高压柱上断路器短路故障 原停电结束时间：2019-08-09 20:54:00，变更停电结束时间：2019-08-09 16:35:01，由于增派人员，抢修工作提前完成，故需要提前送电。","powerTime":"2019-08-09 15:46:06","powerComm":"已送电","subsNo":"","lineNo":"","tgNo":"","tgName":null,"infoStatus":"1","orgName":"国网浙江杭州市萧山区供电有限公司","typeName":null,"infoStatusName":null,"dateDay":null,"orgNos":null,"nowTime":null,"countyName":null,"streetName":null,"villageName":null,"roadName":null,"communityName":null,"tranName":null,"sdLineName":null,"cityCode":"3340130","cityName":"国网浙江杭州市萧山区供电有限公司","provinceCode":null,"stopTime":"2019-08-09 16:35:01","powerType":"全部","powerOffArea":"110kV罗山变:国盛C829线","powerOffReason":"高压柱上断路器短路故障 原停电结束时间：2019-08-09 20:54:00，变更停电结束时间：2019-08-09 16:35:01，由于增派人员，抢修工作提前完成，故需要提前送电。","powerOffId":"2019080931020268"}],"pageModel":{"pageNow":1296,"totalCount":17789,"totalPage":1779,"tableRows":0,"pageCount":10,"beginCount":12950},"isExperi":"1"}