{"message":"","today":"2020-06-16","seleList":[{"poweroffId":2019080931020264,"sgpoweroffId":null,"subsName":"","lineName":"10kV东湘A015线","pubTranName":"东湘村2#公变,","scope":"浙江省-杭州市-萧山区-城厢街道-东湘社区-湘西路一带","startTime":"2019-08-09 11:47:53","stopDate":"2019-08-09 17:00:00","orgNo":"3340130","typeCode":"电网故障停限电","poweroffArea":"110kV越王变:东湘A015线开关后段","poweroffReason":"高压断路器短路故障 原停电结束时间：2019-08-09 20:47:53，变更停电结束时间：2019-08-09 17:00:00，变更停电结束时间原因：由于抢修工作提前结束，故需要提前送电。","powerTime":"2019-08-09 16:18:11","powerComm":"已送电","subsNo":"","lineNo":"","tgNo":"","tgName":null,"infoStatus":"1","orgName":"国网浙江杭州市萧山区供电有限公司","typeName":null,"infoStatusName":null,"dateDay":null,"orgNos":null,"nowTime":null,"countyName":null,"streetName":null,"villageName":null,"roadName":null,"communityName":null,"tranName":null,"sdLineName":null,"cityCode":"3340130","cityName":"国网浙江杭州市萧山区供电有限公司","provinceCode":null,"stopTime":"2019-08-09 17:00:00","powerType":"全部","powerOffArea":"110kV越王变:东湘A015线开关后段","powerOffReason":"高压断路器短路故障 原停电结束时间：2019-08-09 20:47:53，变更停电结束时间：2019-08-09 17:00:00，变更停电结束时间原因：由于抢修工作提前结束，故需要提前送电。","powerOffId":"2019080931020264"},{"poweroffId":2019080931020261,"sgpoweroffId":null,"subsName":"","lineName":"10kV荣联C522线","pubTranName":"1#变,荣庄村12#公变,湘湖林语2#公变,1#变压器,二棉路2#公变,石油化工分公司,浙江纳德物业管理有限公司,杭州萧山区邮政局,城北新村1#公变,浙江萧山粮食机械有限公司,五七2#公变,二棉路4#公变,城北新村2#公变,环境卫生管理所,变压器,二棉路7#公变,二棉路3#公变,杜湖村4#公变,荣联村2#公变,钱塘江灌区管理,二棉路8#公变,湘湖美地Z1专变1,湘湖林语3#公变,二棉路5#公变,浙江金凯汽车销售服务有限公司,城北新村3#公变,荣联村5#公变,荣联村1#公变,萧西实验学校,湘湖林语1#公变,湘湖小学,湘湖林语5#公变,华瑞1#,二棉路1#公变,五七1#公变,湘湖林语4#公变,杭州萧山物业发展公司,杭州市萧山公共交通有限公司,二棉路6#公变,市政园林变压器,市政园林26#,","scope":"浙江省-杭州市-萧山区-北干街道(萧然社区-萧杭路,荣庄行政村-金惠路,荣联社区-萧杭路,万寿桥社区-萧杭路,工人路社区-工人路),城厢街道(杜湖社区-萧杭路,万寿桥社区-下湘湖路);浙江省-杭州市-萧山区-北干街道-金山西苑社区-浙江萧山粮食机械有限公司,北干街道-北干二苑社区(中石化碧辟(浙江)石油有限公司杭州分公司,中国石化销售股份有限公司浙江杭州石油分公司,杭州萧山城市固废清洁直运有限公司),城厢街道-美之园社区(浙江万兴恒服务有限公司,广东碧桂园物业服务股份有限公司萧山分公司,萧山区湘湖小学),城厢街道-万寿桥社区(杭州市萧山区萧西实验学校,杭州市萧山区城市河道管理处,杭州市萧山区市政绿化养护保障中心),北干街道-萧然社区(浙江金凯汽车销售服务有限公司,中国邮政集团公司杭州市萧山区分公司,中建二局第一建筑工程有限公司),城厢街道(荣联社区-杭州萧山金沛贸易有限公司,杜湖社区-杭州市萧山区市政绿化养护保障中心,西河路社区-杭州市萧山公共交通有限公司,萧西路社区-杭州萧山国有资产投资有限公司)一带","startTime":"2019-08-09 11:43:14","stopDate":"2019-08-09 17:00:00","orgNo":"3340130","typeCode":"电网故障停限电","poweroffArea":"110kV湘湖变:荣联C522线-荣联C522线开关后段","poweroffReason":"高压柱上断路器短路故障 原停电结束时间：2019-08-09 20:43:14，变更停电结束时间：2019-08-09 17:00:00，变更停电结束时间原因：由于抢修工作提前结束，故需要提前送电。","powerTime":"2019-08-09 16:25:47","powerComm":"已送电","subsNo":"","lineNo":"","tgNo":"","tgName":null,"infoStatus":"1","orgName":"国网浙江杭州市萧山区供电有限公司","typeName":null,"infoStatusName":null,"dateDay":null,"orgNos":null,"nowTime":null,"countyName":null,"streetName":null,"villageName":null,"roadName":null,"communityName":null,"tranName":null,"sdLineName":null,"cityCode":"3340130","cityName":"国网浙江杭州市萧山区供电有限公司","provinceCode":null,"stopTime":"2019-08-09 17:00:00","powerType":"全部","powerOffArea":"110kV湘湖变:荣联C522线-荣联C522线开关后段","powerOffReason":"高压柱上断路器短路故障 原停电结束时间：2019-08-09 20:43:14，变更停电结束时间：2019-08-09 17:00:00，变更停电结束时间原因：由于抢修工作提前结束，故需要提前送电。","powerOffId":"2019080931020261"},{"poweroffId":2019080931020259,"sgpoweroffId":null,"subsName":"","lineName":"10kV沿江C619线","pubTranName":"江南村(盈上)3#变,塑料厂,汇丰呢绒,新街镇沿江行政村机场公路高架9#变配电变压器,双圩村13#变,盈中村9#变,杭州港海建设有限公司,沿江村1#变,盈中村7#变,江南村(九号坝)6#变,交通投资集团（三号）变压器,杭州保颐置业有限公司6#,沿江村13#变,沿江村7#变,沿江村18#变,双圩村7#变,杭州保颐置业有限公司2#,杭州恒杰纸制品厂,盈中村2#变,爱得利,盈中村1#变,江南村（新街）9#变,长虹路桥,杭州华磊塑料包装有限公司,盈中村8#变,沿江村9#变,江南村(盈上)1#变,沿江村11#变,沿江村8#变,江南村(盈上)5#变,盈中村10#变,双圩村9#变,新发水管厂,山末址村9#变,沿江村10#变,沿江村3#变,江南村(九号坝)1#变,沿江村19#变,盈中村17#变,1#变,沿江村4#变,杭州华元拆房有限公司,杭州保颐置业有限公司4#,双圩村2#变,盈中村18#变,1#变,杭州保颐置业有限公司3#,盈中村4#变,盈中村12#变,盈中村11#变,杭州港海建设有限,双圩村17#变,飞贺五金,沿江村15#变,沿江村17#变,沿江村14#变,1#,盈中村3#变,双圩村19#变,盈中村16#变,中石油东部管道有限公司（沿江）,03省道安置房,沿江村2#变,江南村(盈上)2#变,交通投资集团（二号）变压器,公路开发,绿典化工,双圩村12#变,盈中村15#变,杭州同源彩印包装有限公司,杭州保颐置业有限公司,杭州萧山宏烽塑胶有限公司,沿江村12#变,盈中村5#变,杭州保颐置业有限公司5#,沿江村6#变,沿江村5#变,新街镇沿江行政村机场公路地面道路19#变配变压器,","scope":"浙江省-杭州市-萧山区-新街镇-新街街道-长山头行政村(小庙北弄,横坝弄),新街街道(沿江行政村-沿江自然村,双圩行政村-双圩自然村,江南行政村-江南自然村,盈中行政村-盈中自然村,新塘头行政村-新塘头自然村,新盛行政村-新盛自然村,山末址行政村-山末址自然村);浙江省-杭州市-萧山区-新街街道-盈中行政村-杭州市萧山区人民政府新街街道办事处,新街街道-山末址行政村(浙江宁围环境服务有限公司,萧山区新街中心幼儿园),新街街道-江南行政村(杭州萧山新发塑料包装厂,杭州华磊塑料包装有限公司,杭州市萧山区人民政府新街街道办事处),新街街道-双圩行政村(杭州汇丰呢绒有限公司,杭州绿典化工有限公司,杭州萧山新街邦凯五金塑料加工厂,杭州同源彩印包装有限公司),新街街道-沿江行政村(杭州萧山国际机场高速公路建设开发有限公司,杭州市萧山区市政绿化养护保障中心,杭州飞进汽车零部件制造有限公司,杭州恒杰纸制品厂,杭州爱得利标准件有限公司,中石油管道有限责任公司西气东输分公司,杭州华元拆房有限公司,杭州港海建设有限公司、浙江省杭州市萧山区新街镇塘之路洒路368号、浙江省杭州市萧山区新街镇塘芝沙路368号东面隔壁、浙江省杭州市萧山区新街镇江南村银上桥19组52号、浙江省杭州市萧山区新街镇元山村、浙江省杭州市萧山区新街镇沿江村新农村179号、浙江省杭州市萧山区新街镇江南村华丰县、浙江省杭州市萧山区新街镇江南村银上桥19组52号等一带","startTime":"2019-08-09 11:35:57","stopDate":"2019-08-09 20:41:57","orgNo":"3340130","typeCode":"电网故障停限电","poweroffArea":"110kV新街变:沿江C619线","poweroffReason":"高压柱上断路器短路故障 原停电结束时间：2019-08-09 22:41:57，变更停电结束时间：22019-08-09 20:41:57，由于增派人员，抢修工作提前完成，故需要提前送电。","powerTime":"2019-08-09 20:13:16","powerComm":"已送电","subsNo":"","lineNo":"","tgNo":"","tgName":null,"infoStatus":"1","orgName":"国网浙江杭州市萧山区供电有限公司","typeName":null,"infoStatusName":null,"dateDay":null,"orgNos":null,"nowTime":null,"countyName":null,"streetName":null,"villageName":null,"roadName":null,"communityName":null,"tranName":null,"sdLineName":null,"cityCode":"3340130","cityName":"国网浙江杭州市萧山区供电有限公司","provinceCode":null,"stopTime":"2019-08-09 20:41:57","powerType":"全部","powerOffArea":"110kV新街变:沿江C619线","powerOffReason":"高压柱上断路器短路故障 原停电结束时间：2019-08-09 22:41:57，变更停电结束时间：22019-08-09 20:41:57，由于增派人员，抢修工作提前完成，故需要提前送电。","powerOffId":"2019080931020259"},{"poweroffId":2019080931020244,"sgpoweroffId":null,"subsName":"","lineName":"10kV李家D384线","pubTranName":"新三村1号三毛坞公变,","scope":"浙江省杭州市富阳区湖源乡新三村一带","startTime":"2019-08-22 06:40:00","stopDate":"2019-08-22 12:10:00","orgNo":"3340170","typeCode":"计划停电","poweroffArea":"35kV湖源变:李家D384线-新三村1号三毛坞公变低压开关后段","poweroffReason":"(低压停电信息)装横担、做拉线、架线、拆旧、线路移位等工作","powerTime":"2019-08-22 12:00:40","powerComm":"已送电","subsNo":"","lineNo":"","tgNo":"","tgName":null,"infoStatus":"1","orgName":"国网浙江杭州市富阳区供电公司","typeName":null,"infoStatusName":null,"dateDay":null,"orgNos":null,"nowTime":null,"countyName":null,"streetName":null,"villageName":null,"roadName":null,"communityName":null,"tranName":null,"sdLineName":null,"cityCode":"3340170","cityName":"国网浙江杭州市富阳区供电公司","provinceCode":null,"stopTime":"2019-08-22 12:10:00","powerType":"全部","powerOffArea":"35kV湖源变:李家D384线-新三村1号三毛坞公变低压开关后段","powerOffReason":"(低压停电信息)装横担、做拉线、架线、拆旧、线路移位等工作","powerOffId":"2019080931020244"},{"poweroffId":2019080931020242,"sgpoweroffId":null,"subsName":"","lineName":"10kV新江C536线","pubTranName":"桃北新村22#变,","scope":"浙江省-杭州市-萧山区-浦阳镇-桃北新行政村-小湖孙自然村等一带","startTime":"2019-08-09 11:21:41","stopDate":"2019-08-09 14:00:41","orgNo":"3340130","typeCode":"电网故障停限电","poweroffArea":"35kV径游变:新江C536线-桃北新村22#变台区低压开关","poweroffReason":"（低压停电信息）低压架空线断线故障 原停电结束时间：2019-08-09 13:21，变更停电结束时间：2019-08-09 14:00，由于抢修现场抢修难度大，故需要延迟送电。","powerTime":"2019-08-09 13:28:40","powerComm":"已送电","subsNo":"","lineNo":"","tgNo":"","tgName":null,"infoStatus":"1","orgName":"国网浙江杭州市萧山区供电有限公司","typeName":null,"infoStatusName":null,"dateDay":null,"orgNos":null,"nowTime":null,"countyName":null,"streetName":null,"villageName":null,"roadName":null,"communityName":null,"tranName":null,"sdLineName":null,"cityCode":"3340130","cityName":"国网浙江杭州市萧山区供电有限公司","provinceCode":null,"stopTime":"2019-08-09 14:00:41","powerType":"全部","powerOffArea":"35kV径游变:新江C536线-桃北新村22#变台区低压开关","powerOffReason":"（低压停电信息）低压架空线断线故障 原停电结束时间：2019-08-09 13:21，变更停电结束时间：2019-08-09 14:00，由于抢修现场抢修难度大，故需要延迟送电。","powerOffId":"2019080931020242"},{"poweroffId":2019080931020241,"sgpoweroffId":null,"subsName":"","lineName":"10kV彭家D342线","pubTranName":"彭家村5#五目里公变,","scope":"浙江省杭州市富阳区万市镇彭家行政村五目里自然村一带","startTime":"2019-08-22 06:10:00","stopDate":"2019-08-22 12:00:00","orgNo":"3340170","typeCode":"计划停电","poweroffArea":"110kV万市变:彭家D342线-彭家村5#五目里公变低压开关后段","poweroffReason":"(低压停电信息)村外02线11#杆后段人工挖洞1个、吊车立杆15米1支、安装横担线路弧垂调整搭接等工作（旁站监理）","powerTime":"2019-08-22 11:46:04","powerComm":"已送电","subsNo":"","lineNo":"","tgNo":"","tgName":null,"infoStatus":"1","orgName":"国网浙江杭州市富阳区供电公司","typeName":null,"infoStatusName":null,"dateDay":null,"orgNos":null,"nowTime":null,"countyName":null,"streetName":null,"villageName":null,"roadName":null,"communityName":null,"tranName":null,"sdLineName":null,"cityCode":"3340170","cityName":"国网浙江杭州市富阳区供电公司","provinceCode":null,"stopTime":"2019-08-22 12:00:00","powerType":"全部","powerOffArea":"110kV万市变:彭家D342线-彭家村5#五目里公变低压开关后段","powerOffReason":"(低压停电信息)村外02线11#杆后段人工挖洞1个、吊车立杆15米1支、安装横担线路弧垂调整搭接等工作（旁站监理）","powerOffId":"2019080931020241"},{"poweroffId":2019080931020239,"sgpoweroffId":null,"subsName":"","lineName":"10kV建华D852线","pubTranName":"山建村3#老区公变,","scope":"浙江省杭州市富阳区春江街道山建村一带","startTime":"2019-08-23 07:00:00","stopDate":"2019-08-23 12:40:00","orgNo":"3340170","typeCode":"计划停电","poweroffArea":"110kV华共变:建华D852线-山建村3#老区公变低压开关后段","poweroffReason":"(低压停电信息)江南2019年山建村5#新区公变等台区低压线路改造工程安装横担、拆装、新架导线、接户线搭接等工作","powerTime":"2019-08-23 12:30:22","powerComm":"已送电","subsNo":"","lineNo":"","tgNo":"","tgName":null,"infoStatus":"1","orgName":"国网浙江杭州市富阳区供电公司","typeName":null,"infoStatusName":null,"dateDay":null,"orgNos":null,"nowTime":null,"countyName":null,"streetName":null,"villageName":null,"roadName":null,"communityName":null,"tranName":null,"sdLineName":null,"cityCode":"3340170","cityName":"国网浙江杭州市富阳区供电公司","provinceCode":null,"stopTime":"2019-08-23 12:40:00","powerType":"全部","powerOffArea":"110kV华共变:建华D852线-山建村3#老区公变低压开关后段","powerOffReason":"(低压停电信息)江南2019年山建村5#新区公变等台区低压线路改造工程安装横担、拆装、新架导线、接户线搭接等工作","powerOffId":"2019080931020239"},{"poweroffId":2019080931020238,"sgpoweroffId":null,"subsName":"","lineName":"10kV马啸V262线","pubTranName":"颊口村桥东老街,","scope":"浙江省-杭州市-临安市-清凉峰镇-颊口村桥东一带。","startTime":"2019-08-21 07:40:00","stopDate":"2019-08-21 11:50:00","orgNo":"3340160","typeCode":"计划停电","poweroffArea":"35kV颊口变:马啸V262线-颊口村桥东老街配变","poweroffReason":"配变移位","powerTime":"2019-08-21 11:40:09","powerComm":"已送电","subsNo":"","lineNo":"","tgNo":"","tgName":null,"infoStatus":"1","orgName":"国网浙江临安市供电公司","typeName":null,"infoStatusName":null,"dateDay":null,"orgNos":null,"nowTime":null,"countyName":null,"streetName":null,"villageName":null,"roadName":null,"communityName":null,"tranName":null,"sdLineName":null,"cityCode":"3340160","cityName":"国网浙江临安市供电公司","provinceCode":null,"stopTime":"2019-08-21 11:50:00","powerType":"全部","powerOffArea":"35kV颊口变:马啸V262线-颊口村桥东老街配变","powerOffReason":"配变移位","powerOffId":"2019080931020238"},{"poweroffId":2019080931020236,"sgpoweroffId":null,"subsName":"","lineName":"10kV来阳A424线","pubTranName":"东庄周1#变,歌山建设集团有限公司专变6,歌山建设集团有限公司专变,杭州高超纺织有限公司,杭州绿城朝阳置业有限公司,杭州慧慧机械厂,歌山建设集团有限公司专变7,杭州世马纱线有限公司,章潘桥村蜀山2#变,姚家畈村7#变,章潘桥村蜀山4#变,章潘桥村蜀山5#变,歌山建设集团有限公司专变4,杭州世马纱线有限公司2#,杭州绿城朝阳置业有限公司,东庄周3#变,2#,姚家畈村1#变,杭州绿城朝阳置业有限公司,歌山建设集团有限公司专变5,章潘桥村蜀山3#变,歌山建设集团有限公司专变3,云祥食品,姚家畈村3#变,杭州绿城朝阳置业有限公司,歌山建设集团有限公司专变2,蜀山服务站1#变,章潘桥村蜀山1#变,杭州绿城朝阳置业有限公司,","scope":"浙江省-杭州市-萧山区-蜀山街道-朝阳社区-工业园区,蜀山街道-章潘桥行政村(蜀山自然村,立新自然村,姚家畈自然村,东庄周自然村);浙江省-杭州市-萧山区-所前镇-城南行政村-歌山建设集团有限公司,蜀山街道-章潘桥行政村(杭州萧山云祥食品有限公司,杭州志发机械有限公司,杭州高超纺织有限公司),蜀山街道-朝阳社区(杭州顺源物业服务有限公司,杭州绿城朝阳置业有限公司)，章潘桥村，蜀山街道章滩桥村蜀山村一带","startTime":"2019-08-09 11:05:27","stopDate":"2019-08-09 16:15:27","orgNo":"3340130","typeCode":"电网故障停限电","poweroffArea":"110kV来苏变:来阳A424线来阳A4241开关后段","poweroffReason":"外力破坏引起来阳A424线高压柱上断路器短路 原停电结束时间：2019-08-09 17:15:27，变更停电结束时间：2019-08-09 16:15:27，由于增派人员，抢修提前完成，故需要提前送电","powerTime":"2019-08-09 15:44:03","powerComm":"已送电","subsNo":"","lineNo":"","tgNo":"","tgName":null,"infoStatus":"1","orgName":"国网浙江杭州市萧山区供电有限公司","typeName":null,"infoStatusName":null,"dateDay":null,"orgNos":null,"nowTime":null,"countyName":null,"streetName":null,"villageName":null,"roadName":null,"communityName":null,"tranName":null,"sdLineName":null,"cityCode":"3340130","cityName":"国网浙江杭州市萧山区供电有限公司","provinceCode":null,"stopTime":"2019-08-09 16:15:27","powerType":"全部","powerOffArea":"110kV来苏变:来阳A424线来阳A4241开关后段","powerOffReason":"外力破坏引起来阳A424线高压柱上断路器短路 原停电结束时间：2019-08-09 17:15:27，变更停电结束时间：2019-08-09 16:15:27，由于增派人员，抢修提前完成，故需要提前送电","powerOffId":"2019080931020236"},{"poweroffId":2019080931020234,"sgpoweroffId":null,"subsName":"","lineName":"10kV百岁T168线","pubTranName":"方吴大溪口7号公变,方吴村移民边3号公变,","scope":"浙江省-杭州市-桐庐县-瑶琳镇-永安行政村(上王家自然村,方吴自然村)","startTime":"2019-08-20 07:30:00","stopDate":"2019-08-20 08:30:50","orgNo":"3340150","typeCode":"计划停电","poweroffArea":"35kV瑶琳变:百岁T168线-移民边F6092令克后段","poweroffReason":"局内工程，线路改造，原停电结束时间2019年8月20日17：30，变更停电结束时间2019年8月20日8：30，原因：天气原因。","powerTime":"2019-08-20 08:25:05","powerComm":"已送电。","subsNo":"","lineNo":"","tgNo":"","tgName":null,"infoStatus":"1","orgName":"国网浙江桐庐县供电公司","typeName":null,"infoStatusName":null,"dateDay":null,"orgNos":null,"nowTime":null,"countyName":null,"streetName":null,"villageName":null,"roadName":null,"communityName":null,"tranName":null,"sdLineName":null,"cityCode":"3340150","cityName":"国网浙江桐庐县供电公司","provinceCode":null,"stopTime":"2019-08-20 08:30:50","powerType":"全部","powerOffArea":"35kV瑶琳变:百岁T168线-移民边F6092令克后段","powerOffReason":"局内工程，线路改造，原停电结束时间2019年8月20日17：30，变更停电结束时间2019年8月20日8：30，原因：天气原因。","powerOffId":"2019080931020234"}],"pageModel":{"pageNow":1297,"totalCount":17789,"totalPage":1779,"tableRows":0,"pageCount":10,"beginCount":12960},"isExperi":"1"}