{"message":"","today":"2020-06-16","seleList":[{"poweroffId":2019080831020272,"sgpoweroffId":null,"subsName":"","lineName":"10kV怡合199线","pubTranName":"后柏1号公变,","scope":"浙江省-杭州市-桐庐县-合村乡-后溪行政村-后柏自然村","startTime":"2019-08-08 21:56:01","stopDate":"2019-08-08 23:56:01","orgNo":"3340150","typeCode":"电网故障停限电","poweroffArea":"35kV合村变:怡合199线-后柏1号公变后段","poweroffReason":"高压开关跳闸","powerTime":"2019-08-08 23:40:18","powerComm":"已送电","subsNo":"","lineNo":"","tgNo":"","tgName":null,"infoStatus":"1","orgName":"国网浙江桐庐县供电公司","typeName":null,"infoStatusName":null,"dateDay":null,"orgNos":null,"nowTime":null,"countyName":null,"streetName":null,"villageName":null,"roadName":null,"communityName":null,"tranName":null,"sdLineName":null,"cityCode":"3340150","cityName":"国网浙江桐庐县供电公司","provinceCode":null,"stopTime":"2019-08-08 23:56:01","powerType":"全部","powerOffArea":"35kV合村变:怡合199线-后柏1号公变后段","powerOffReason":"高压开关跳闸","powerOffId":"2019080831020272"},{"poweroffId":2019080831020269,"sgpoweroffId":null,"subsName":"","lineName":"10kV长春D403线","pubTranName":"长春村2#村中公变,","scope":"浙江省-杭州市-富阳区-鹿山街道-江滨行政村-长春自然村","startTime":"2019-08-08 21:45:18","stopDate":"2019-08-08 22:45:18","orgNo":"3340170","typeCode":"电网故障停限电","poweroffArea":"110kV长春变:长春D403线-长春村2#村中公变后段","poweroffReason":"(低压停电信息)低压开关跳闸","powerTime":"2019-08-08 22:33:17","powerComm":"已送电","subsNo":"","lineNo":"","tgNo":"","tgName":null,"infoStatus":"1","orgName":"国网浙江杭州市富阳区供电公司","typeName":null,"infoStatusName":null,"dateDay":null,"orgNos":null,"nowTime":null,"countyName":null,"streetName":null,"villageName":null,"roadName":null,"communityName":null,"tranName":null,"sdLineName":null,"cityCode":"3340170","cityName":"国网浙江杭州市富阳区供电公司","provinceCode":null,"stopTime":"2019-08-08 22:45:18","powerType":"全部","powerOffArea":"110kV长春变:长春D403线-长春村2#村中公变后段","powerOffReason":"(低压停电信息)低压开关跳闸","powerOffId":"2019080831020269"},{"poweroffId":2019080831020263,"sgpoweroffId":null,"subsName":"","lineName":"10kV安仁Y134线","pubTranName":"乾潭村老鼠窖台区,","scope":"浙江省-杭州市-建德市-乾潭镇-乾潭行政村 老鼠窖自然村一带用户","startTime":"2019-08-08 20:45:00","stopDate":"2019-08-08 22:00:00","orgNo":"3340180","typeCode":"电网故障停限电","poweroffArea":"110kV乾潭变:安仁Y134线-乾潭村老鼠窖台区后段","poweroffReason":"(低压停电信息)过负荷原因导致低压RTO熔芯烧毁","powerTime":"2019-08-08 21:17:00","powerComm":"已送电","subsNo":"","lineNo":"","tgNo":"","tgName":null,"infoStatus":"1","orgName":"国网浙江建德市供电有限公司","typeName":null,"infoStatusName":null,"dateDay":null,"orgNos":null,"nowTime":null,"countyName":null,"streetName":null,"villageName":null,"roadName":null,"communityName":null,"tranName":null,"sdLineName":null,"cityCode":"3340180","cityName":"国网浙江建德市供电有限公司","provinceCode":null,"stopTime":"2019-08-08 22:00:00","powerType":"全部","powerOffArea":"110kV乾潭变:安仁Y134线-乾潭村老鼠窖台区后段","powerOffReason":"(低压停电信息)过负荷原因导致低压RTO熔芯烧毁","powerOffId":"2019080831020263"},{"poweroffId":2019080831020257,"sgpoweroffId":null,"subsName":"","lineName":"10kV严州Y303线","pubTranName":"龙溪村教场台区,","scope":"浙江省-杭州市-建德市-梅城镇-姜山行政村-五马洲自然村,梅城镇-龙溪行政村 庵口自然村,教场自然村一带用户。","startTime":"2019-08-08 19:26:00","stopDate":"2019-08-08 20:30:00","orgNo":"3340180","typeCode":"电网故障停限电","poweroffArea":"110kV梅城变:严州Y303线-龙溪村教场台区后段","poweroffReason":"雷击导致高压熔丝烧毁 原预计停电结束时间21:30，由于施工现场环境比较复杂，存在不确定因素，因此预估施工时间适当放长了,目前故障已修复，现将停电结束时间变更至20:30","powerTime":"2019-08-08 20:04:00","powerComm":"已送电","subsNo":"","lineNo":"","tgNo":"","tgName":null,"infoStatus":"1","orgName":"国网浙江建德市供电有限公司","typeName":null,"infoStatusName":null,"dateDay":null,"orgNos":null,"nowTime":null,"countyName":null,"streetName":null,"villageName":null,"roadName":null,"communityName":null,"tranName":null,"sdLineName":null,"cityCode":"3340180","cityName":"国网浙江建德市供电有限公司","provinceCode":null,"stopTime":"2019-08-08 20:30:00","powerType":"全部","powerOffArea":"110kV梅城变:严州Y303线-龙溪村教场台区后段","powerOffReason":"雷击导致高压熔丝烧毁 原预计停电结束时间21:30，由于施工现场环境比较复杂，存在不确定因素，因此预估施工时间适当放长了,目前故障已修复，现将停电结束时间变更至20:30","powerOffId":"2019080831020257"},{"poweroffId":2019080831020254,"sgpoweroffId":null,"subsName":"","lineName":"10kV高水164线","pubTranName":"元川桥头1号公变,","scope":"浙江省-杭州市-桐庐县-瑶琳镇-元川行政村","startTime":"2019-08-08 18:56:01","stopDate":"2019-08-08 20:56:01","orgNo":"3340150","typeCode":"电网故障停限电","poweroffArea":"35kV瑶琳变:高水164线-元川桥头1号公变后段","poweroffReason":"高压开关跳闸","powerTime":"2019-08-08 20:40:22","powerComm":"已送电","subsNo":"","lineNo":"","tgNo":"","tgName":null,"infoStatus":"1","orgName":"国网浙江桐庐县供电公司","typeName":null,"infoStatusName":null,"dateDay":null,"orgNos":null,"nowTime":null,"countyName":null,"streetName":null,"villageName":null,"roadName":null,"communityName":null,"tranName":null,"sdLineName":null,"cityCode":"3340150","cityName":"国网浙江桐庐县供电公司","provinceCode":null,"stopTime":"2019-08-08 20:56:01","powerType":"全部","powerOffArea":"35kV瑶琳变:高水164线-元川桥头1号公变后段","powerOffReason":"高压开关跳闸","powerOffId":"2019080831020254"},{"poweroffId":2019080831020252,"sgpoweroffId":null,"subsName":"","lineName":"10kV上练D713线","pubTranName":"新崤村3#弯子里公变,里坞村5#石塘公变,杭州东仪纸业有限公司,里坞村7#塘下公变,洞桥五金1#变,查岭村6#农居点公变,新崤村6#蒋家公变,查岭村5#西珠潭公变,富阳市岩石岭水库管理处,富阳市葛仙洞旅游开发有限公司,新崤村7#外坞石公变,里坞村8#新水库公变变压器间隔配电变压器,大钟纺织1#变,下练村1#三义祠公变,下练村2#梅岭公变,顶宏包装印刷1#变,富阳步达水处理设备有限公司,下练村7#白家东公变,海正办公楼,杭州金竺机械有限公司,富阳富春桃源风景旅游开发有限公司,城投基建1#变,钱潮临时变,上练村3号接马头公变,里坞村3#范家公变,新崤村4号畈里公变,查岭村1#大岭公变,新崤村8#官塘公变,富阳市岩石岭水库管理处,查岭村4#叠子山公变,富阳林峰塑胶制品厂,上练村2#章家公变,新崤村2#闻家公变,富阳市凯鑫冲压件厂,里坞村1#留下公变,上练村4#洗马潭公变,新崤村5#横溪公变,下练村8号村东公变,新崤村9#山脚跟公变,杭州富阳钱潮建材有限公司,里坞村9号留下后山公变,上练村8#冷水坑公变,胥口村4#泥塍头公变,胥口政府1#变,下练村4#碧东坞公变,下练村6号虎山脚公变,白氏科技2#变,查岭村3#新马路公变,新崤村1号赵家公变,查岭村2#堰坝头公变,富阳市超宝油漆有限公司,杭州海富植物有限公司,上练合作社1#变,下练村5#闻家桥公变,海富植物1#变,里坞村2号殿山公变,海正药业(杭州)有限公司,下练村3#白家公变,上练村1#小溪口公变,白氏科技1#变,","scope":"浙江省-杭州市-富阳区-胥口镇-棠棣行政村-汪家自然村,胥口镇-下练行政村(虎山脚自然村,碧东坞自然村,闻家桥自然村,白家自然村,三义祠自然村,梅岭自然村,凌家山自然村),胥口镇-胥口行政村(马家山自然村,泥塍头自然村,胥口自然村),胥口镇-新崤行政村(弯子里自然村,蒋家自然村,官塘自然村,畈里自然村,闻家自然村,胡家山自然村,赵家自然村,山脚跟自然村,外坞石自然村,横溪自然村),胥口镇-里坞行政村(塘下自然村,殿山自然村,范家自然村,水坞自然村,留下自然村,杨家自然村,石塘自然村),胥口镇-查岭行政村(堰坝头自然村,碟子山自然村,新马路自然村,查岭自然村,大岭自然村,西珠潭自然村),胥口镇-上练行政村(冷水坑自然村,章家自然村,小溪口自然村,洗马潭自然村,接马头自然村);胥口镇(杭州市富阳区岩石岭水库管理处,杭州富阳林峰塑胶制品厂,富阳市凯鑫冲压件厂,杭州富阳葛仙洞旅游开发有限公司,杭州富阳超宝油漆有限公司,海正药业(杭州)有限公司,杭州胥口南方水泥有限公司,杭州东仪纸业有限公司,杭州步达水处理设备有限公司,杭州富阳新登城镇建设投资集团有限公司,杭州大钟纺织有限公司,杭州富阳富春桃源风景旅游开发有限公司,杭州白氏科技有限公司,杭州海富植物有限公司,杭州金竺机械有限公司,杭州顶宏包装印刷有限公司)","startTime":"2019-08-08 18:42:00","stopDate":"2019-08-08 20:42:00","orgNo":"3340170","typeCode":"电网故障停限电","poweroffArea":"110kV松溪变:上练D713线上练D7136开关后段","poweroffReason":"高压开关跳闸","powerTime":"2019-08-08 19:55:44","powerComm":"已送电","subsNo":"","lineNo":"","tgNo":"","tgName":null,"infoStatus":"1","orgName":"国网浙江杭州市富阳区供电公司","typeName":null,"infoStatusName":null,"dateDay":null,"orgNos":null,"nowTime":null,"countyName":null,"streetName":null,"villageName":null,"roadName":null,"communityName":null,"tranName":null,"sdLineName":null,"cityCode":"3340170","cityName":"国网浙江杭州市富阳区供电公司","provinceCode":null,"stopTime":"2019-08-08 20:42:00","powerType":"全部","powerOffArea":"110kV松溪变:上练D713线上练D7136开关后段","powerOffReason":"高压开关跳闸","powerOffId":"2019080831020252"},{"poweroffId":2019080831020248,"sgpoweroffId":null,"subsName":"","lineName":"10kV夏山C258线","pubTranName":"山联村7#变,金山村15#变,杭州迪生车业有限公司,越王村1#变,金山村10#变,杭州迪曼特轴承有限公司,越王村3#变,越王村4#变,杭州源本农业发展有限公司,变压器,山联村3#变,杭州潘工工具有限公司,山联村5#变,山联村13#变,杭州市萧山区公路管理处专变,山联村1#变,传芳村,蓝海基地1#专变,金山村9#变,山联村12#变,祥龙机械1#,山联村2#变,金山村3#变,金山村5#变,变压器,金山村11#变,金山村2#变,所前工具,杭州市萧山区所前人镇民政府,越王村5#变,越王村7#变,杭州力能坚机械有限公司,越王村6#变,山联村9#变,山联村11#变,变压器,山联村4#变,杭州蓝莓生态农业有限公司,金山村8#变,夏山埭村,山联村8#变,杭州大禾市政工程有限公司,杭州泰博热处理有限公司,杭州优利克五金工具有限公司,越王村9#变,山联村10#变,越王村2#变,山联村14#变,金山村6#变,杭州明成木业有限公司,祥龙机械2#,山联村6#变,越王村8#变,杭州景源环保设备有限公司,杭州天然气有限公司,","scope":"浙江省-杭州市-萧山区-临浦镇-南江行政村-张家坂自然村,所前镇-金山行政村(娄家湾自然村,张家坂自然村,钱家湾自然村),所前镇-山联行政村(夏山埭自然村,渔家埭自然村,赵坞自然村,池头沈自然村,山里沈自然村),所前镇-越王行政村(山里沈自然村,夏家埭自然村,东山夏自然村,上安王自然村,岭下胡自然村),所前镇(杜家行政村-杜家自然村,信谊行政村-西江王自然村);所前镇-金山行政村(杭州旭达轴承有限公司,杭州天然气有限公司),所前镇-山联行政村(杭州潘工工具有限公司,杭州景源环保设备有限公司,杭州明成木业有限公司,夏山埭村,杭州蓝海生态农业有限公司,杭州所前工具有限公司,杭州力能坚机械有限公司,杭州赵氏茶叶专业合作社,杭州大禾市政工程有限公司),所前镇-越王行政村(杭州泰博热处理有限公司,杭州优利克五金工具有限公司,杭州迪生车业有限公司,杭州萧山祥龙机械有限公司,杭州源本农业发展有限公司,杭州市萧山区所前镇人民政府,中铁二十四局集团浙江工程有限公司杭黄铁路站前Ⅲ标项目二分部),所前镇(传芳行政村-传芳村,越山行政村-杭州市萧山区公路管理处)一带","startTime":"2019-08-08 18:15:43","stopDate":"2019-08-08 20:15:43","orgNo":"3340130","typeCode":"电网故障停限电","poweroffArea":"110kV所前变:夏山C258线-夏山C2582开关后段","poweroffReason":"高压开关跳闸","powerTime":"2019-08-08 19:21:04","powerComm":"全部送电","subsNo":"","lineNo":"","tgNo":"","tgName":null,"infoStatus":"1","orgName":"国网浙江杭州市萧山区供电有限公司","typeName":null,"infoStatusName":null,"dateDay":null,"orgNos":null,"nowTime":null,"countyName":null,"streetName":null,"villageName":null,"roadName":null,"communityName":null,"tranName":null,"sdLineName":null,"cityCode":"3340130","cityName":"国网浙江杭州市萧山区供电有限公司","provinceCode":null,"stopTime":"2019-08-08 20:15:43","powerType":"全部","powerOffArea":"110kV所前变:夏山C258线-夏山C2582开关后段","powerOffReason":"高压开关跳闸","powerOffId":"2019080831020248"},{"poweroffId":2019080831020247,"sgpoweroffId":null,"subsName":"","lineName":"10kV瑶山T172线","pubTranName":"东溪柏山4号公变,","scope":"浙江省-杭州市-桐庐县-分水镇-东溪行政村-柏山自然村,分水镇-三合行政村(石家自然村,三合自然村、柏山魔湾口)","startTime":"2019-08-08 18:16:03","stopDate":"2019-08-08 20:16:03","orgNo":"3340150","typeCode":"电网故障停限电","poweroffArea":"110kV分水变:瑶山T172线-东溪柏山4号公变后段","poweroffReason":"高压开关跳闸","powerTime":"2019-08-08 20:00:38","powerComm":"已送电","subsNo":"","lineNo":"","tgNo":"","tgName":null,"infoStatus":"1","orgName":"国网浙江桐庐县供电公司","typeName":null,"infoStatusName":null,"dateDay":null,"orgNos":null,"nowTime":null,"countyName":null,"streetName":null,"villageName":null,"roadName":null,"communityName":null,"tranName":null,"sdLineName":null,"cityCode":"3340150","cityName":"国网浙江桐庐县供电公司","provinceCode":null,"stopTime":"2019-08-08 20:16:03","powerType":"全部","powerOffArea":"110kV分水变:瑶山T172线-东溪柏山4号公变后段","powerOffReason":"高压开关跳闸","powerOffId":"2019080831020247"},{"poweroffId":2019080831020244,"sgpoweroffId":null,"subsName":"","lineName":"10kV新北A387线","pubTranName":"思恩实业,杭州鸿达绣艺纺织品有限公司,恒泰物业管理1#,鼎立机械,上平公路,天宝汽车,新安村34#变,大力神起重,杭州萧山物资再生利用有限公司,新北村1#变,新北村21#变,杭州喜连连建材有限公司,钱江电声,市政园林公用事业管理处（通北路景观带）,恒泰物业管理2#,永鑫防盗,盈峰塑料厂,杭州鸿达绣艺纺织品有限公司,晨锋服饰,中球冠,新北村22#变,新北村9#变,新北村5#变,新北村2#变,庆源金属,排水管理,中惠服饰,市政园林21#,创赢实业,康宝轴承,新北村11#变,宁牧村32#变,亿邦钢构,新北村17#变,金恒服饰,新北村18#变,托福电器,新安村8#变,林丰汽车,","scope":"浙江省-杭州市-萧山区-宁围镇、宁围街道-二桥行政村(新北自然村,宁北自然村),宁围街道-新安行政村(新安自然村,新宁路),宁围街道-宁东社区(文明路,宁东自然村),宁围街道(宁牧行政村-宁牧自然村,宁新行政村-宁新自然村,宁税社区-宁税自然村,盈二行政村-盈二自然村,盈一行政村-盈一自然村,宁安社区-宁安自然村,新华行政村-新华自然村,振宁社区-生兴路,新中行政村-新中自然村,金二社区-金二自然村);浙江省-杭州市-萧山区-宁围街道-宁税社区-杭州市萧山区市政绿化养护保障中心,宁围街道-二桥行政村(大力神建设有限公司,杭州晨锋服饰有限公司,杭州萧山中惠服饰有限公司,浙江亿邦钢构制造有限公司,杭州康宝轴承机械有限公司,杭州萧山钱江电声器材有限公司,杭州萧山鼎立机械有限公司,杭州天宝汽车零部件有限公司,杭州萧山庆源金属制品有限公司,杭州思恩实业有限公司),宁围街道-宁新行政村(中球冠集团杭州石化有限公司,杭州萧山恒悦酒店管理有限公司),宁围街道-新安行政村(杭州鸿达绣艺纺织品有限公司,杭州盈峰塑料制品厂,杭州金恒服饰有限公司,杭州喜连连建材有限公司,杭州市萧山区市政绿化养护保障中心,杭州托福电器配件有限公司,浙江上平公路工程有限公司,杭州日美开开电子科技有限公司,杭州萧山污水处理有限公司,杭州林丰汽车配件厂,杭州萧山物资再生利用有限公司)等一带","startTime":"2019-08-08 18:07:12","stopDate":"2019-08-08 20:30:12","orgNo":"3340130","typeCode":"电网故障停限电","poweroffArea":"110kV顺坝变:新北A387线开关后段","poweroffReason":"高压柱上断路器短路故障","powerTime":"2019-08-08 19:35:34","powerComm":"已送电","subsNo":"","lineNo":"","tgNo":"","tgName":null,"infoStatus":"1","orgName":"国网浙江杭州市萧山区供电有限公司","typeName":null,"infoStatusName":null,"dateDay":null,"orgNos":null,"nowTime":null,"countyName":null,"streetName":null,"villageName":null,"roadName":null,"communityName":null,"tranName":null,"sdLineName":null,"cityCode":"3340130","cityName":"国网浙江杭州市萧山区供电有限公司","provinceCode":null,"stopTime":"2019-08-08 20:30:12","powerType":"全部","powerOffArea":"110kV顺坝变:新北A387线开关后段","powerOffReason":"高压柱上断路器短路故障","powerOffId":"2019080831020244"},{"poweroffId":2019080831020242,"sgpoweroffId":null,"subsName":"","lineName":"10kV东关Y122线","pubTranName":"总府街公变,","scope":"浙江省-杭州市-建德市-梅城镇-宝华洲社区-西门街,梅城镇-总府社区 市民路,总府街,府前街，严陵社区 宋家湖巷,市场弄巷,总府街,三板桥弄巷,东门街,观音弄巷一带用户","startTime":"2019-08-08 17:48:00","stopDate":"2019-08-08 19:00:00","orgNo":"3340180","typeCode":"电网故障停限电","poweroffArea":"110kV梅城变:东关Y122线-总府街公变后段","poweroffReason":"(低压停电信息)低压开关跳闸 原预计停电结束时间20:00，由于施工现场环境比较复杂，存在不确定因素，因此预估施工时间适当放长了,目前故障已修复，现将停电结束时间变更至19:00","powerTime":"2019-08-08 18:34:00","powerComm":"已送电","subsNo":"","lineNo":"","tgNo":"","tgName":null,"infoStatus":"1","orgName":"国网浙江建德市供电有限公司","typeName":null,"infoStatusName":null,"dateDay":null,"orgNos":null,"nowTime":null,"countyName":null,"streetName":null,"villageName":null,"roadName":null,"communityName":null,"tranName":null,"sdLineName":null,"cityCode":"3340180","cityName":"国网浙江建德市供电有限公司","provinceCode":null,"stopTime":"2019-08-08 19:00:00","powerType":"全部","powerOffArea":"110kV梅城变:东关Y122线-总府街公变后段","powerOffReason":"(低压停电信息)低压开关跳闸 原预计停电结束时间20:00，由于施工现场环境比较复杂，存在不确定因素，因此预估施工时间适当放长了,目前故障已修复，现将停电结束时间变更至19:00","powerOffId":"2019080831020242"}],"pageModel":{"pageNow":1304,"totalCount":17789,"totalPage":1779,"tableRows":0,"pageCount":10,"beginCount":13030},"isExperi":"1"}