{"message":"","today":"2020-06-16","seleList":[{"poweroffId":2019080831020097,"sgpoweroffId":null,"subsName":"","lineName":"10kV院士T440线","pubTranName":"武盛武二小1号公变,","scope":"浙江省-杭州市-桐庐县-分水镇-武盛行政村(武盛街,玉泉自然村,县东自然村,九龙路)","startTime":"2019-08-08 13:02:26","stopDate":"2019-08-08 14:30:26","orgNo":"3340150","typeCode":"电网故障停限电","poweroffArea":"110kV天英变:院士T440线-武盛武二小1号公变后段","poweroffReason":"高压开关跳闸","powerTime":"2019-08-08 14:20:45","powerComm":"已送电。","subsNo":"","lineNo":"","tgNo":"","tgName":null,"infoStatus":"1","orgName":"国网浙江桐庐县供电公司","typeName":null,"infoStatusName":null,"dateDay":null,"orgNos":null,"nowTime":null,"countyName":null,"streetName":null,"villageName":null,"roadName":null,"communityName":null,"tranName":null,"sdLineName":null,"cityCode":"3340150","cityName":"国网浙江桐庐县供电公司","provinceCode":null,"stopTime":"2019-08-08 14:30:26","powerType":"全部","powerOffArea":"110kV天英变:院士T440线-武盛武二小1号公变后段","powerOffReason":"高压开关跳闸","powerOffId":"2019080831020097"},{"poweroffId":2019080831020083,"sgpoweroffId":null,"subsName":"","lineName":"10kV院士T440线","pubTranName":"武盛县西1号公变,","scope":"浙江省-杭州市-桐庐县-分水镇-武盛行政村(县东自然村,县西自然村),分水镇(城西行政村-西关自然村,玉华社区-九龙路)，药王弄28号一带","startTime":"2019-08-08 11:23:56","stopDate":"2019-08-08 13:30:56","orgNo":"3340150","typeCode":"电网故障停限电","poweroffArea":"110kV天英变:院士T440线-武盛县西1号公变后段","poweroffReason":"高压开关跳闸","powerTime":"2019-08-08 13:20:37","powerComm":"已送电。","subsNo":"","lineNo":"","tgNo":"","tgName":null,"infoStatus":"1","orgName":"国网浙江桐庐县供电公司","typeName":null,"infoStatusName":null,"dateDay":null,"orgNos":null,"nowTime":null,"countyName":null,"streetName":null,"villageName":null,"roadName":null,"communityName":null,"tranName":null,"sdLineName":null,"cityCode":"3340150","cityName":"国网浙江桐庐县供电公司","provinceCode":null,"stopTime":"2019-08-08 13:30:56","powerType":"全部","powerOffArea":"110kV天英变:院士T440线-武盛县西1号公变后段","powerOffReason":"高压开关跳闸","powerOffId":"2019080831020083"},{"poweroffId":2019080831020079,"sgpoweroffId":null,"subsName":"","lineName":"10kV镇前9524线","pubTranName":"庙河,","scope":"浙江省-杭州市-滨江区-浦沿街道(新浦社区-新浦路,浦联村社区-浦联路)，浙江省杭州市滨江区镇前路40号-60号，王家66号住户。","startTime":"2019-08-19 09:00:00","stopDate":"2019-08-19 11:00:00","orgNo":"3340101","typeCode":"计划停电","poweroffArea":"110kV冠山变:镇前9524线-庙河后段","poweroffReason":"（低压停电信息）居民增容","powerTime":"2019-08-19 10:06:59","powerComm":"已送电","subsNo":"","lineNo":"","tgNo":"","tgName":null,"infoStatus":"1","orgName":"浙江杭州电力客户服务中心","typeName":null,"infoStatusName":null,"dateDay":null,"orgNos":null,"nowTime":null,"countyName":null,"streetName":null,"villageName":null,"roadName":null,"communityName":null,"tranName":null,"sdLineName":null,"cityCode":"3340101","cityName":"浙江杭州电力客户服务中心","provinceCode":null,"stopTime":"2019-08-19 11:00:00","powerType":"全部","powerOffArea":"110kV冠山变:镇前9524线-庙河后段","powerOffReason":"（低压停电信息）居民增容","powerOffId":"2019080831020079"},{"poweroffId":2019080831020078,"sgpoweroffId":null,"subsName":"","lineName":"10kV天寓6276线","pubTranName":"之花一变,","scope":"浙江省-杭州市-滨江区-浦沿街道-之江社区-东信大道，浙江省杭州市滨江区之江花园之安径1号3号5号11号7号9号18号，之平径8号6号，之泰径12号16号住户。原停电结束时间11:30、变更停电结束时间10:30原因由于施工现场环境比较复杂，存在不确定因素，因此预估施工时间适当放长了，而实际施工进行得比较顺利，因此该工作提前结束。","startTime":"2019-08-16 09:00:00","stopDate":"2019-08-16 10:30:00","orgNo":"3340101","typeCode":"计划停电","poweroffArea":"110kV之江变:天寓6276线-之花一变后段","poweroffReason":"（低压停电信息）移表工作","powerTime":"2019-08-16 09:58:59","powerComm":"已送电","subsNo":"","lineNo":"","tgNo":"","tgName":null,"infoStatus":"1","orgName":"浙江杭州电力客户服务中心","typeName":null,"infoStatusName":null,"dateDay":null,"orgNos":null,"nowTime":null,"countyName":null,"streetName":null,"villageName":null,"roadName":null,"communityName":null,"tranName":null,"sdLineName":null,"cityCode":"3340101","cityName":"浙江杭州电力客户服务中心","provinceCode":null,"stopTime":"2019-08-16 10:30:00","powerType":"全部","powerOffArea":"110kV之江变:天寓6276线-之花一变后段","powerOffReason":"（低压停电信息）移表工作","powerOffId":"2019080831020078"},{"poweroffId":2019080831020076,"sgpoweroffId":null,"subsName":"","lineName":"10kV吴宅T147线","pubTranName":"邵家边1号公变,","scope":"浙江省-杭州市-桐庐县-钟山乡-钟山行政村(上门自然村,邵家边自然村,吴宅自然村),钟山乡(陇西行政村-下陆自然村,城下行政村-邵家湾自然村)","startTime":"2019-08-16 07:30:00","stopDate":"2019-08-16 14:30:00","orgNo":"3340150","typeCode":"计划停电","poweroffArea":"35kV钟山变:吴宅T147线-吴石F2410令克后段","poweroffReason":"配网消缺","powerTime":"2019-08-16 14:20:24","powerComm":"已送电。","subsNo":"","lineNo":"","tgNo":"","tgName":null,"infoStatus":"1","orgName":"国网浙江桐庐县供电公司","typeName":null,"infoStatusName":null,"dateDay":null,"orgNos":null,"nowTime":null,"countyName":null,"streetName":null,"villageName":null,"roadName":null,"communityName":null,"tranName":null,"sdLineName":null,"cityCode":"3340150","cityName":"国网浙江桐庐县供电公司","provinceCode":null,"stopTime":"2019-08-16 14:30:00","powerType":"全部","powerOffArea":"35kV钟山变:吴宅T147线-吴石F2410令克后段","powerOffReason":"配网消缺","powerOffId":"2019080831020076"},{"poweroffId":2019080831020075,"sgpoweroffId":null,"subsName":"","lineName":"10kV沧滩Y102线","pubTranName":"水泵房102011公变,","scope":"浙江省-杭州市-建德市-新安江街道-罗桐社区 环城北路37、39、41、43、45、47、49、51、新安路177号76幢、72幢、75幢、73幢、81幢、69幢、83幢、71幢、77幢、165号、浙西巷、新电小区1、2幢等周边一带用户","startTime":"2019-08-08 10:38:00","stopDate":"2019-08-08 17:30:00","orgNo":"3340180","typeCode":"电网故障停限电","poweroffArea":"110kV新安江变:沧滩Y102线-水泵房102011公变后段","poweroffReason":"(低压停电信息)低压开关跳闸","powerTime":"2019-08-08 16:56:00","powerComm":"已送电","subsNo":"","lineNo":"","tgNo":"","tgName":null,"infoStatus":"1","orgName":"国网浙江建德市供电有限公司","typeName":null,"infoStatusName":null,"dateDay":null,"orgNos":null,"nowTime":null,"countyName":null,"streetName":null,"villageName":null,"roadName":null,"communityName":null,"tranName":null,"sdLineName":null,"cityCode":"3340180","cityName":"国网浙江建德市供电有限公司","provinceCode":null,"stopTime":"2019-08-08 17:30:00","powerType":"全部","powerOffArea":"110kV新安江变:沧滩Y102线-水泵房102011公变后段","powerOffReason":"(低压停电信息)低压开关跳闸","powerOffId":"2019080831020075"},{"poweroffId":2019080831020072,"sgpoweroffId":null,"subsName":"","lineName":"10kV东溪T171线","pubTranName":"东溪张家山1号公变,","scope":"浙江省-杭州市-桐庐县-分水镇-桥东行政村-桥东自然村,分水镇-东溪行政村(东溪自然村,张家山自然村,沈家畈自然村)","startTime":"2019-08-08 10:43:06","stopDate":"2019-08-08 12:00:06","orgNo":"3340150","typeCode":"电网故障停限电","poweroffArea":"110kV分水变:制笔T170线-东溪张家山1号公变后段","poweroffReason":"高压开关跳闸","powerTime":"2019-08-08 11:51:44","powerComm":"已送电","subsNo":"","lineNo":"","tgNo":"","tgName":null,"infoStatus":"1","orgName":"国网浙江桐庐县供电公司","typeName":null,"infoStatusName":null,"dateDay":null,"orgNos":null,"nowTime":null,"countyName":null,"streetName":null,"villageName":null,"roadName":null,"communityName":null,"tranName":null,"sdLineName":null,"cityCode":"3340150","cityName":"国网浙江桐庐县供电公司","provinceCode":null,"stopTime":"2019-08-08 12:00:06","powerType":"全部","powerOffArea":"110kV分水变:制笔T170线-东溪张家山1号公变后段","powerOffReason":"高压开关跳闸","powerOffId":"2019080831020072"},{"poweroffId":2019080831020065,"sgpoweroffId":null,"subsName":"","lineName":"10kV杭兴A236线","pubTranName":"远方谱色科技2#,1#,中纺印染,大治河涵闸,杭州佳力水泥公司,浙江五金,建发水泥,杭州市南郊监狱,伟成印刷1,杭州联东金乾投资有限公司,3#,杭州新时代彩印实业有限公司,污水处理2#,1#,华超紧固件,水富农业,九州通集团杭州医药公司,远方谱色科技有限公司配电变压器1,长荣玻璃1#,杭州市公安局（红十五线）,杭州市萧山区红垦农场3#,吉星塑料磨具,长荣玻璃2#,杭州市萧山区红垦农场1#,1#,辉格技（杭州）汽车配件有限公司1#配电变压器,辉格技（杭州）汽车配件有限公司配电变压器,杭州联东金乾投资有限公司1#,顺泰工程1#,顺泰工程2#,伟成印刷2,2#,2#,经纬管道,浩浩实业（杭州）有限公司,","scope":"浙江省-杭州市-萧山区-新街镇、新街街道经济技术开发区-红垦社区(辉格技(杭州)汽车配件有限公司,远方谱色科技有限公司,杭州建发水泥制品厂,杭州经纬管道制造有限公司,杭州佳力水泥有限公司,杭州萧山污水处理有限公司,杭州谢江五金制造有限公司,杭州长荣玻璃有限公司,杭州华超紧固件有限公司,杭州水富农业开发有限公司,杭州市南郊监狱,浙江九州通医药有限公司,杭州吉星塑料模具有限公司,杭州伟成印刷有限公司,浩浩实业(杭州)有限公司,杭州新时代彩印实业有限公司,杭州市萧山区红垦农场,杭州市萧山区人民法院,杭州联东金乾投资有限公司,北京联东物业管理股份有限公司杭州分公司,浙江顺泰工程建设有限公司),红山农场-同心社区(杭州市公安局,杭州萧山水利建筑工程有限公司),南阳街道-赭山社区-浙江中纺控股集团有限公司,新街街道-南郊监狱-杭州涛行科技有限公司,萧山经济技术开发区-桥南区块市北社区-浙江灵康药业有限公司等一带","startTime":"2019-08-08 10:20:54","stopDate":"2019-08-08 15:34:54","orgNo":"3340130","typeCode":"电网故障停限电","poweroffArea":"110kV先锋变:杭兴A236线开关后段","poweroffReason":"高压柱上断路器短路故障","powerTime":"2019-08-08 14:40:23","powerComm":"已送电","subsNo":"","lineNo":"","tgNo":"","tgName":null,"infoStatus":"1","orgName":"国网浙江杭州市萧山区供电有限公司","typeName":null,"infoStatusName":null,"dateDay":null,"orgNos":null,"nowTime":null,"countyName":null,"streetName":null,"villageName":null,"roadName":null,"communityName":null,"tranName":null,"sdLineName":null,"cityCode":"3340130","cityName":"国网浙江杭州市萧山区供电有限公司","provinceCode":null,"stopTime":"2019-08-08 15:34:54","powerType":"全部","powerOffArea":"110kV先锋变:杭兴A236线开关后段","powerOffReason":"高压柱上断路器短路故障","powerOffId":"2019080831020065"},{"poweroffId":2019080831020064,"sgpoweroffId":null,"subsName":"","lineName":"10kV洪庄D292线","pubTranName":"杜墓村2号下公变,杜墓村5号横岭公变,中天路桥有限公司3#变,中天路桥有限公司1#变,中天路桥有限公司2#变,杭州通用弹簧有限公司1#变,杜墓弹簧厂,富阳市大众弹簧厂,桐岭坞村2#大柯坞公变,杜墓村4#东边山公变,中天路桥有限公司5#变,中天路桥有限公司1#变,杜墓村1#上公变,颜家坞1#公变,中天路桥有限公司4#变,","scope":"浙江省-杭州市-富阳区-银湖街道-杜墓行政村(铜岭坞自然村,杜墓自然村,颜公坞自然村);银湖街道(杭州富阳大众弹簧厂,中天路桥有限公司,杭州通用弹簧有限公司)","startTime":"2019-08-08 10:10:00","stopDate":"2019-08-08 12:10:00","orgNo":"3340170","typeCode":"电网故障停限电","poweroffArea":"35kV新义变:洪庄D292线杜墓分线40号杆开关后段","poweroffReason":"高压开关跳闸","powerTime":"2019-08-08 11:23:15","powerComm":"已送电","subsNo":"","lineNo":"","tgNo":"","tgName":null,"infoStatus":"1","orgName":"国网浙江杭州市富阳区供电公司","typeName":null,"infoStatusName":null,"dateDay":null,"orgNos":null,"nowTime":null,"countyName":null,"streetName":null,"villageName":null,"roadName":null,"communityName":null,"tranName":null,"sdLineName":null,"cityCode":"3340170","cityName":"国网浙江杭州市富阳区供电公司","provinceCode":null,"stopTime":"2019-08-08 12:10:00","powerType":"全部","powerOffArea":"35kV新义变:洪庄D292线杜墓分线40号杆开关后段","powerOffReason":"高压开关跳闸","powerOffId":"2019080831020064"},{"poweroffId":2019080831020063,"sgpoweroffId":null,"subsName":"","lineName":"10kV环城522线","pubTranName":"天目一变,","scope":"浙江省-杭州市-西湖区-北山街道-金祝社区-天目山路","startTime":"2019-08-08 10:08:29","stopDate":"2019-08-08 11:39:29","orgNo":"3340101","typeCode":"电网故障停限电","poweroffArea":"110kV武林变:环城522线-天变一线后段","poweroffReason":"高压开关跳闸 原预计停电结束时间2019-08-08 17:08:29,由于施工现场环境比较复杂，存在不确定因素，因此预估施工时间适当放长了，而实际施工进行得比较顺利，因此提前送电了","powerTime":"2019-08-08 11:05:25","powerComm":"已送电","subsNo":"","lineNo":"","tgNo":"","tgName":null,"infoStatus":"1","orgName":"浙江杭州电力客户服务中心","typeName":null,"infoStatusName":null,"dateDay":null,"orgNos":null,"nowTime":null,"countyName":null,"streetName":null,"villageName":null,"roadName":null,"communityName":null,"tranName":null,"sdLineName":null,"cityCode":"3340101","cityName":"浙江杭州电力客户服务中心","provinceCode":null,"stopTime":"2019-08-08 11:39:29","powerType":"全部","powerOffArea":"110kV武林变:环城522线-天变一线后段","powerOffReason":"高压开关跳闸 原预计停电结束时间2019-08-08 17:08:29,由于施工现场环境比较复杂，存在不确定因素，因此预估施工时间适当放长了，而实际施工进行得比较顺利，因此提前送电了","powerOffId":"2019080831020063"}],"pageModel":{"pageNow":1306,"totalCount":17789,"totalPage":1779,"tableRows":0,"pageCount":10,"beginCount":13050},"isExperi":"1"}