{"message":"","today":"2020-06-16","seleList":[{"poweroffId":2019080831020062,"sgpoweroffId":null,"subsName":"","lineName":"10kV复政6808线","pubTranName":"美政花苑四变,","scope":"浙江省-杭州市-上城区-南星街道-美政桥社区(美政路,美政花苑)","startTime":"2019-08-08 10:00:34","stopDate":"2019-08-08 11:21:09","orgNo":"3340101","typeCode":"电网故障停限电","poweroffArea":"110kV复兴变:复政6808线-美政花苑四变后段","poweroffReason":"(低压停电信息)低压开关跳闸 原预计停电结束时间2019-08-08 17:00:34,由于施工现场环境比较复杂，存在不确定因素，因此预估施工时间适当放长了，而实际施工进行得比较顺利，因此提前送电了","powerTime":"2019-08-08 10:39:57","powerComm":"已送电","subsNo":"","lineNo":"","tgNo":"","tgName":null,"infoStatus":"1","orgName":"浙江杭州电力客户服务中心","typeName":null,"infoStatusName":null,"dateDay":null,"orgNos":null,"nowTime":null,"countyName":null,"streetName":null,"villageName":null,"roadName":null,"communityName":null,"tranName":null,"sdLineName":null,"cityCode":"3340101","cityName":"浙江杭州电力客户服务中心","provinceCode":null,"stopTime":"2019-08-08 11:21:09","powerType":"全部","powerOffArea":"110kV复兴变:复政6808线-美政花苑四变后段","powerOffReason":"(低压停电信息)低压开关跳闸 原预计停电结束时间2019-08-08 17:00:34,由于施工现场环境比较复杂，存在不确定因素，因此预估施工时间适当放长了，而实际施工进行得比较顺利，因此提前送电了","powerOffId":"2019080831020062"},{"poweroffId":2019080831020059,"sgpoweroffId":null,"subsName":"","lineName":"10kV丁茂9227线","pubTranName":"上东(九),","scope":"浙江省-杭州市-江干区-丁桥镇-大唐苑社区上东领地小区一带","startTime":"2019-08-08 09:55:30","stopDate":"2019-08-08 12:00:43","orgNo":"3340101","typeCode":"电网故障停限电","poweroffArea":"110kV东风变:丁茂9227线-上东九配变后段","poweroffReason":"(低压停电信息)低压开关跳闸 原预计停电结束时间2019-08-08 15:55:30,由于施工现场环境比较复杂，存在不确定因素，因此预估施工时间适当放长了，而实际施工进行得比较顺利，因此提前送电了","powerTime":"2019-08-08 11:18:29","powerComm":"已送电","subsNo":"","lineNo":"","tgNo":"","tgName":null,"infoStatus":"1","orgName":"浙江杭州电力客户服务中心","typeName":null,"infoStatusName":null,"dateDay":null,"orgNos":null,"nowTime":null,"countyName":null,"streetName":null,"villageName":null,"roadName":null,"communityName":null,"tranName":null,"sdLineName":null,"cityCode":"3340101","cityName":"浙江杭州电力客户服务中心","provinceCode":null,"stopTime":"2019-08-08 12:00:43","powerType":"全部","powerOffArea":"110kV东风变:丁茂9227线-上东九配变后段","powerOffReason":"(低压停电信息)低压开关跳闸 原预计停电结束时间2019-08-08 15:55:30,由于施工现场环境比较复杂，存在不确定因素，因此预估施工时间适当放长了，而实际施工进行得比较顺利，因此提前送电了","powerOffId":"2019080831020059"},{"poweroffId":2019080831020044,"sgpoweroffId":null,"subsName":"","lineName":"10kV万五C865线","pubTranName":"恒泰御庭园2#公变,","scope":"浙江省-杭州市-萧山区-宁围镇、宁围街道-宁东社区-文明路、恒泰御庭园小区等一带","startTime":"2019-08-08 09:11:13","stopDate":"2019-08-08 11:20:13","orgNo":"3340130","typeCode":"电网故障停限电","poweroffArea":"110kV万安变:万五C865线-恒泰御庭园2#公变台区低压开关","poweroffReason":"（低压停电信息）低压漏电保护器短路故障 原停电结束时间：2019-08-08 14:20:13，变更停电结束时间：2019-08-08 11:20:13，由于增派人员，抢修提前完成，故需要提前送电。","powerTime":"2019-08-08 10:24:26","powerComm":"已送电","subsNo":"","lineNo":"","tgNo":"","tgName":null,"infoStatus":"1","orgName":"国网浙江杭州市萧山区供电有限公司","typeName":null,"infoStatusName":null,"dateDay":null,"orgNos":null,"nowTime":null,"countyName":null,"streetName":null,"villageName":null,"roadName":null,"communityName":null,"tranName":null,"sdLineName":null,"cityCode":"3340130","cityName":"国网浙江杭州市萧山区供电有限公司","provinceCode":null,"stopTime":"2019-08-08 11:20:13","powerType":"全部","powerOffArea":"110kV万安变:万五C865线-恒泰御庭园2#公变台区低压开关","powerOffReason":"（低压停电信息）低压漏电保护器短路故障 原停电结束时间：2019-08-08 14:20:13，变更停电结束时间：2019-08-08 11:20:13，由于增派人员，抢修提前完成，故需要提前送电。","powerOffId":"2019080831020044"},{"poweroffId":2019080831020043,"sgpoweroffId":null,"subsName":"","lineName":"10kV中尚G127线","pubTranName":"中尚橄榄树1-2号公变,中尚橄榄树1-1号公变,","scope":"浙江省-杭州市-余杭区-崇贤街道-锦昌年华小区一带","startTime":"2019-08-08 09:08:00","stopDate":"2019-08-08 18:20:00","orgNo":"3340140","typeCode":"电网故障停限电","poweroffArea":"35kV沾桥变:中尚G127线-橄榄1#公变分线后段","poweroffReason":"中尚G127线-橄榄1#公变分线后段：高压进线开关柜短路故障需要更换","powerTime":"2019-08-08 17:25:00","powerComm":"已送电","subsNo":"","lineNo":"","tgNo":"","tgName":null,"infoStatus":"1","orgName":"国网浙江杭州市余杭区供电有限公司","typeName":null,"infoStatusName":null,"dateDay":null,"orgNos":null,"nowTime":null,"countyName":null,"streetName":null,"villageName":null,"roadName":null,"communityName":null,"tranName":null,"sdLineName":null,"cityCode":"3340140","cityName":"国网浙江杭州市余杭区供电有限公司","provinceCode":null,"stopTime":"2019-08-08 18:20:00","powerType":"全部","powerOffArea":"35kV沾桥变:中尚G127线-橄榄1#公变分线后段","powerOffReason":"中尚G127线-橄榄1#公变分线后段：高压进线开关柜短路故障需要更换","powerOffId":"2019080831020043"},{"poweroffId":2019080831020027,"sgpoweroffId":null,"subsName":"","lineName":"10kV沧滩Y102线","pubTranName":"新林公变,","scope":"浙江省-杭州市-建德市-新安江街道-罗桐社区-新安路268号一带用户","startTime":"2019-08-08 07:44:34","stopDate":"2019-08-08 09:30:34","orgNo":"3340180","typeCode":"电网故障停限电","poweroffArea":"110kV新安江变:沧滩Y102线-新林公变后段","poweroffReason":"(低压停电信息)低压开关跳闸","powerTime":"2019-08-08 08:34:37","powerComm":"已送电","subsNo":"","lineNo":"","tgNo":"","tgName":null,"infoStatus":"1","orgName":"国网浙江建德市供电有限公司","typeName":null,"infoStatusName":null,"dateDay":null,"orgNos":null,"nowTime":null,"countyName":null,"streetName":null,"villageName":null,"roadName":null,"communityName":null,"tranName":null,"sdLineName":null,"cityCode":"3340180","cityName":"国网浙江建德市供电有限公司","provinceCode":null,"stopTime":"2019-08-08 09:30:34","powerType":"全部","powerOffArea":"110kV新安江变:沧滩Y102线-新林公变后段","powerOffReason":"(低压停电信息)低压开关跳闸","powerOffId":"2019080831020027"},{"poweroffId":2019080831020015,"sgpoweroffId":null,"subsName":"","lineName":"10kV宝地H609线","pubTranName":"城西粮贸公变,梅家桥1-2号公变,梅家桥4-1号公变,凤凰小学（城东校区）,环境卫生管理站正式变,星望置业1#基建变,杭州未来科技城建设有限公司,中铁新上基建变1#,盐业公司,地铁5号线金星站基建3#变,余杭自来水厂,地铁5号线金星站基建2#变,亲和力餐饮,梅家桥3-2号公变,星达置业基建变,港郦置业基建2#变,杭临轨道凤新路站基建3#变,法院基建变,金星农居点基建3#变,中石油,华坞村杨家山公变,第二职高,杭州余杭交通广告有限公司,梅家桥4-2号公变,杭临轨道凤新路站基建1#,金斯敦酒店2#,第二幼儿园,余杭中学(2),珠美鞋业,华坞村姚家公变,杭州瑞鸿置业有限公司,宝塔村月荷池公变,金星村姚家畈公变,余杭街道建管中心金星农居点8#基建变,15省道6#路灯变,中交二航杆上变,金沙公寓公变,梅家桥1-1号公变,腾达建设1#基建变,嘉合基建变,星望置业2#基建变,瑞城花园(3)临时,瑞城花园(1)临时,港郦置业基建1#变,余杭街道建管中心金星农居点7#基建变,余杭中学(1),余杭镇政府,余杭中心卫生院,金星农居点基建6#变,金星农居点基建4#变,梅家桥3-1号公变,中交二航箱式变2,金星农居点基建2#变,余杭国税,梅家桥2-2号公变,中铁新上基建变2#,华坞村龙安桥公变,1#,瑞城花园(2)临时,瑞华建设,欣龙华府3号公变,凯超机械,梅家桥2-1号公变,欣龙华府2号公变,隧道杨家山,金星农居点基建1#变,凤新东路路灯变,地铁5号线金星站基建1#变,杭州瑞鸿置业有限公司,腾达建设2#基建变,瑞城房产,金星农居点5#基建变,伊莱阁,星望置业3#基建变,杭州未来科技城建设有限公司,桃源变所用,金星股份合作社,欣龙华府1号公变,","scope":"浙江省-杭州市-余杭区-余杭街道-金星行政村(文一西路,梅家桥自然村,中心路);余杭街道-杭州余杭金星股份经济合作社一带","startTime":"2019-08-08 06:47:51","stopDate":"2019-08-08 08:00:51","orgNo":"3340140","typeCode":"电网故障停限电","poweroffArea":"110kV桃源变:宝地H609线梅家环网站梅家自管站进线后段","poweroffReason":"宝地H609线梅家环网站梅家自管站进线后段 高压线路断线 原停电结束时间：2019-08-08 10:30:51 变更停电结束时间原因：现场抢修力量充沛","powerTime":"2019-08-08 07:15:32","powerComm":"已送电","subsNo":"","lineNo":"","tgNo":"","tgName":null,"infoStatus":"1","orgName":"国网浙江杭州市余杭区供电有限公司","typeName":null,"infoStatusName":null,"dateDay":null,"orgNos":null,"nowTime":null,"countyName":null,"streetName":null,"villageName":null,"roadName":null,"communityName":null,"tranName":null,"sdLineName":null,"cityCode":"3340140","cityName":"国网浙江杭州市余杭区供电有限公司","provinceCode":null,"stopTime":"2019-08-08 08:00:51","powerType":"全部","powerOffArea":"110kV桃源变:宝地H609线梅家环网站梅家自管站进线后段","powerOffReason":"宝地H609线梅家环网站梅家自管站进线后段 高压线路断线 原停电结束时间：2019-08-08 10:30:51 变更停电结束时间原因：现场抢修力量充沛","powerOffId":"2019080831020015"},{"poweroffId":2019080831020012,"sgpoweroffId":null,"subsName":"","lineName":"10kV国水A397线","pubTranName":"弹簧垫圈,杭州亚马逊置业有限公司,宁围资产经营,西兴顺坝围垦,京奥农业,星民垦殖场,仁盈堂药业,蒲沿农业车间,潮洪建材1#,001#变压器,水利博物馆5#,富易达市政园林,杭州市萧山区钱塘江灌区管理处,西兴街道星明村经济合作社,杭州萧山城市建设投资集团有限公司,杭州萧山新农都物流中心国贵食品有限公司,市政园林5#,萧滨机械1#,萧滨机械2#,亚马逊置业,水利博物馆4#变,萧滨机械3#,杭州萧山城投资产经营开发有限公司1#,浙江明德建设有限公司,杭州三助环境工程有限责任公司,水利博物馆2#,萧山明宇五金机械厂,中国铁塔股份有限公司杭州市分公司,水利博物馆4#,","scope":"浙江省-杭州市-萧山区-宁围镇-宁围街道-经济技术开发区-钱江社区(杭州市萧山区市政绿化养护保障中心,杭州潮洪建材有限公司),宁围街道-顺坝行政村(中国铁塔股份有限公司杭州市分公司,杭州市滨江区西兴街道星明村经济合作社,西兴顺坝围垦,浦沿顺坝付业基地,杭州萧山城投资产经营开发有限公司,杭州星民垦殖场,杭州亚马逊置业有限公司,中国水利博物馆,杭州萧山新农都物流中心国贵食品有限公司,杭州三助环境工程有限责任公司,杭州皓远建材有限公司,杭州萧山污水处理有限公司等一带","startTime":"2019-08-08 06:13:53","stopDate":"2019-08-08 12:13:53","orgNo":"3340130","typeCode":"电网故障停限电","poweroffArea":"110kV顺坝变:国水A397线开关后段","poweroffReason":"高压柱上断路器短路故障","powerTime":"2019-08-08 11:26:27","powerComm":"已送电","subsNo":"","lineNo":"","tgNo":"","tgName":null,"infoStatus":"1","orgName":"国网浙江杭州市萧山区供电有限公司","typeName":null,"infoStatusName":null,"dateDay":null,"orgNos":null,"nowTime":null,"countyName":null,"streetName":null,"villageName":null,"roadName":null,"communityName":null,"tranName":null,"sdLineName":null,"cityCode":"3340130","cityName":"国网浙江杭州市萧山区供电有限公司","provinceCode":null,"stopTime":"2019-08-08 12:13:53","powerType":"全部","powerOffArea":"110kV顺坝变:国水A397线开关后段","powerOffReason":"高压柱上断路器短路故障","powerOffId":"2019080831020012"},{"poweroffId":2019080831020007,"sgpoweroffId":null,"subsName":"","lineName":"10kV景福H541线","pubTranName":"小古城村赤子弄公变,","scope":"浙江省-杭州市-余杭区-径山镇-小古城行政村赤子弄一带","startTime":"2019-08-08 05:30:02","stopDate":"2019-08-08 07:30:02","orgNo":"3340140","typeCode":"电网故障停限电","poweroffArea":"110kV潘板变:景福H541线-赤子弄后段","poweroffReason":"（低压停电信息）赤子弄后段 低压线路断线故障","powerTime":"2019-08-08 07:10:40","powerComm":"已送电","subsNo":"","lineNo":"","tgNo":"","tgName":null,"infoStatus":"1","orgName":"国网浙江杭州市余杭区供电有限公司","typeName":null,"infoStatusName":null,"dateDay":null,"orgNos":null,"nowTime":null,"countyName":null,"streetName":null,"villageName":null,"roadName":null,"communityName":null,"tranName":null,"sdLineName":null,"cityCode":"3340140","cityName":"国网浙江杭州市余杭区供电有限公司","provinceCode":null,"stopTime":"2019-08-08 07:30:02","powerType":"全部","powerOffArea":"110kV潘板变:景福H541线-赤子弄后段","powerOffReason":"（低压停电信息）赤子弄后段 低压线路断线故障","powerOffId":"2019080831020007"},{"poweroffId":2019080831020005,"sgpoweroffId":null,"subsName":"","lineName":"10kV中尚G127线","pubTranName":"中尚橄榄树南区6-1号公变,中尚橄榄树2-2号公变,锦昌年华II段2#专变,锦昌年华9号公变,中尚橄榄树南区1-1号公变,崇贤锦昌年华8#公变,紫欣华庭1号公变,中尚橄榄树1-1号公变,中尚橄榄树南区5-1号公变,紫欣华庭2号公变,中尚橄榄树2-1号公变,耀翔物业1#,中尚橄榄树4-2号公变,中尚橄榄树南区1-2号公变,中尚橄榄树南区4-1号公变,中尚橄榄树1-2号公变,中尚橄榄树3-2号公变,1#,中尚橄榄树南区4-2号公变,中尚橄榄树南区5-2号公变,中尚橄榄树南区6-2号公变,锦昌3#专变,中尚橄榄树南区2-1号公变,中尚橄榄树南区3-2号公变,中尚橄榄树南区2-2号公变,锦昌年华7号公变,中尚橄榄树4-1号公变,中尚橄榄树南区3-1号公变,崇贤锦昌年华10#公变,中尚橄榄树3-1号公变,","scope":"浙江省-杭州市-余杭区-崇贤街道(前村社区-崇杭街,向阳行政村-向阳村);浙江省-杭州市-余杭区-崇贤街道-前村社区-德丰物业服务集团有限公司余杭分公司,崇贤街道-向阳行政村(杭州广亚物业管理有限公司,杭州耀翔物业服务有限公司)-橄榄树花园小区一带","startTime":"2019-08-08 04:37:25","stopDate":"2019-08-08 09:30:00","orgNo":"3340140","typeCode":"电网故障停限电","poweroffArea":"35kV沾桥变:中尚G127线","poweroffReason":"橄榄开关站中尚127线后段 高压线路断线","powerTime":"2019-08-08 09:00:00","powerComm":"已送电","subsNo":"","lineNo":"","tgNo":"","tgName":null,"infoStatus":"1","orgName":"国网浙江杭州市余杭区供电有限公司","typeName":null,"infoStatusName":null,"dateDay":null,"orgNos":null,"nowTime":null,"countyName":null,"streetName":null,"villageName":null,"roadName":null,"communityName":null,"tranName":null,"sdLineName":null,"cityCode":"3340140","cityName":"国网浙江杭州市余杭区供电有限公司","provinceCode":null,"stopTime":"2019-08-08 09:30:00","powerType":"全部","powerOffArea":"35kV沾桥变:中尚G127线","powerOffReason":"橄榄开关站中尚127线后段 高压线路断线","powerOffId":"2019080831020005"},{"poweroffId":2019080831020004,"sgpoweroffId":null,"subsName":"","lineName":"10kV地研9677线","pubTranName":"市泵一，二双路内部二,溪珠五变,达峰电子1#,溪珠三变,周家村,西溪幼园,三箭装饰,杨牌七变,路灯箱变,杨牌二变,杨牌十变,三箭装饰,望溪幼施,天堂伞厂2#,桂溪施三,花坞村二,天源,杨牌二十七变,杨洁,达峰电子2#,军泵1#变压器,天富,杨牌二十二变,嘉乐1,桂溪施四,桂溪施一,杨牌八变,部队二,化研二,中国人民解放军61191部队,高成,运河整治,杨牌九变,桂溪施二,杨民,瑞宝,杨牌一变,华通数据1#,溪珠九变,天堂伞厂1#,杨牌二十四变,杨牌三变,天印,杨牌二十三变,花坞二变,杨牌二十五变,杨股经,化宿变,杨村,溪珠一变,中国人民解放军73021部队后勤部,溪珠七变,杭州市留下镇金鱼井股份经济合作社,军加,花坞一变,氟化,杨牌二十六变,花坞,嘉乐置业3,金铜,","scope":"浙江省-杭州市-西湖区-西湖街道-梅家坞村社区-梅灵南路,留下街道-东穆坞行政村(留泗路,花牌楼自然村),留下街道-杨家牌楼社区(西溪路,百家园路,杨家牌楼,花坞路),双浦镇-新浦沿行政村(新浦沿,新浦沿村道),留下街道(东岳社区-西溪路,石马社区-留和路,金鱼井社区-西溪路),转塘街道(桕联社区-桕联村道,五云梦湖社区-五云中路,大清社区-清谷路),双浦镇(双灵行政村-双灵村道,袁家浦社区-袁浦街,麦岭沙社区-麦岭沙村道,龙池行政村-龙池村道,夏家桥行政村-夏家桥村道,杭江行政村-金家弄村道,周富行政村-周富村道,小江行政村-小江村道,兰溪口行政村-兰溪口村道,三阳行政村-三阳村道,周家埭行政村-周家埭村道,灵山行政村-灵山村道,东江嘴行政村-东江嘴村道);浙江省-杭州市-西湖区-留下街道-西溪行政村-浙江嘉乐置业有限公司,留下街道-杨家牌楼社区(杭州绿城桂溪房地产开发有限公司,杭州绿城望溪房地产开发有限公司,杭州市西湖区百家园路幼儿园,杭州市路灯管理所,杭州轩豪假日酒店有限公司,浙江新时讯通信技术有限公司,杭州天堂伞业集团有限公司,杭州留下杨家牌楼村民委员会,杭州天地印刷有限公司,73021部队装备部,杭州天富机电设备有限公司,杭州启航国际大酒店有限公司,杭州爱卡汽车维修服务有限公司,杭州三箭装饰工程有限公司,杭州杨家牌楼股份经济合作社),留下街道-金鱼井社区(浙江省化工研究院有限公司,杭州市留下镇金鱼井股份经济合作社,浙江云盈数据科技有限公司),留下街道-留下社区(浙江顺天汽车销售服务有限公司,杭州市排水有限公司),留下街道-东岳社区(杭州市花坞果园,浙江省化工研究院有限公司,杭州市排水有限公司)","startTime":"2019-08-08 00:55:24","stopDate":"2019-08-08 05:00:24","orgNo":"3340101","typeCode":"电网故障停限电","poweroffArea":"220kV古荡变:地研9677线","poweroffReason":"高压开关跳闸 原预计停电结束时间07:00:24,由于施工现场环境比较复杂，存在不确定因素，因此预估施工时间适当放长了，而实际施工进行得比较顺利，因此提前送电了","powerTime":"2019-08-08 04:38:28","powerComm":"送电","subsNo":"","lineNo":"","tgNo":"","tgName":null,"infoStatus":"1","orgName":"浙江杭州电力客户服务中心","typeName":null,"infoStatusName":null,"dateDay":null,"orgNos":null,"nowTime":null,"countyName":null,"streetName":null,"villageName":null,"roadName":null,"communityName":null,"tranName":null,"sdLineName":null,"cityCode":"3340101","cityName":"浙江杭州电力客户服务中心","provinceCode":null,"stopTime":"2019-08-08 05:00:24","powerType":"全部","powerOffArea":"220kV古荡变:地研9677线","powerOffReason":"高压开关跳闸 原预计停电结束时间07:00:24,由于施工现场环境比较复杂，存在不确定因素，因此预估施工时间适当放长了，而实际施工进行得比较顺利，因此提前送电了","powerOffId":"2019080831020004"}],"pageModel":{"pageNow":1307,"totalCount":17789,"totalPage":1779,"tableRows":0,"pageCount":10,"beginCount":13060},"isExperi":"1"}