{"message":"","today":"2020-06-16","seleList":[{"poweroffId":2019080731020087,"sgpoweroffId":null,"subsName":"","lineName":"10kV付墩A352线","pubTranName":"凤凰山1#变,傅墩村1#变,合大铸造2#,杭州云峰食品有限公司,杭州萧山盈宁建设工程有限公司,奋达邮电,杭州朗科实业有限公司,杭州嘉翔高强螺栓股份有限公司,合大铸造2#,诸坞村6#变,傅墩村9#变,泰丰五金,杭州麦可金属制品有限公司2#,傅墩村3#变,杭州希易欧新材料有限公司,傅墩村4#变,诸坞村7#变,天源伞厂,污水处理,傅墩村10#变,凤凰山3#变,傅墩村6#变,凤凰山2#变,诸坞村8#变,诸坞村4#变,诸坞村3#变,凤凰山4#变,杭州麦可金属制品有限公司1#,傅墩村7#变,杭州锦萧科技有限公司,诸坞村2#变,至城喷涂,傅墩村2#变,凤凰山6#变,凤凰山7#变,杭州红果果塑料制品有限公司,杭州炯友照明电器有限公司,傅墩村11#变,诸坞村5#变,傅墩村5#变,傅墩村8#变,诸坞村1#变,久安锅炉,凤凰山8#变,1#,合大铸造1#,杭州市萧山区歌珊老年颐养院,1#,凤凰山5#变,","scope":"浙江省-杭州市-萧山区-进化镇-诸坞行政村-诸坞自然村,进化镇-凤凰山行政村(鲁家自然村,安山陈自然村),进化镇-傅墩行政村(傅家墩自然村,孙家山自然村);进化镇-凤凰山行政村(杭州朗科实业有限公司,杭州宏盛翔业建筑科技有限公司,杭州至诚喷涂有限公司,浙江玖安锅炉压力容器制造有限公司,杭州合大铸造有限公司,杭州市萧山区歌珊老年颐养院,杭州萧山污水处理有限公司,杭州锦萧科技有限公司),进化镇-王家闸行政村(杭州嘉翔高强螺栓股份有限公司,杭州泰丰五金工具有限公司,周东芳),进化镇-傅墩行政村(杭州萧山进化镇金诚拉丝厂,杭州希易欧新材料有限公司,杭州红果果塑料制品有限公司,杭州麦可金属制品有限公司),进化镇-城山行政村(萧山市进化天源伞厂,杭州奋达邮电器材制造有限公司),进化镇(墅上王行政村-杭州炯友照明电器有限公司,诸坞行政村-中铁二十四局集团杭黄铁路站前Ⅲ标项目三分部)，浙江省杭州市萧山区进化镇诸坞村等一带","startTime":"2019-08-07 13:43:00","stopDate":"2019-08-07 15:43:00","orgNo":"3340130","typeCode":"电网故障停限电","poweroffArea":"110kV进化变:付墩A352线-付墩A352线开关后段","poweroffReason":"高压架空线路断线故障","powerTime":"2019-08-07 14:50:52","powerComm":"已送电","subsNo":"","lineNo":"","tgNo":"","tgName":null,"infoStatus":"1","orgName":"国网浙江杭州市萧山区供电有限公司","typeName":null,"infoStatusName":null,"dateDay":null,"orgNos":null,"nowTime":null,"countyName":null,"streetName":null,"villageName":null,"roadName":null,"communityName":null,"tranName":null,"sdLineName":null,"cityCode":"3340130","cityName":"国网浙江杭州市萧山区供电有限公司","provinceCode":null,"stopTime":"2019-08-07 15:43:00","powerType":"全部","powerOffArea":"110kV进化变:付墩A352线-付墩A352线开关后段","powerOffReason":"高压架空线路断线故障","powerOffId":"2019080731020087"},{"poweroffId":2019080731020086,"sgpoweroffId":null,"subsName":"","lineName":"10kV城南T173线","pubTranName":"美景花苑1号公变,","scope":"浙江省-杭州市-桐庐县-分水镇-武盛行政村(美景花园步行街一带)","startTime":"2019-08-07 13:27:29","stopDate":"2019-08-07 15:27:29","orgNo":"3340150","typeCode":"电网故障停限电","poweroffArea":"110kV分水变:城南T173线-美景花苑1号公变后段","poweroffReason":"高压开关跳闸","powerTime":"2019-08-07 15:14:22","powerComm":"已送电","subsNo":"","lineNo":"","tgNo":"","tgName":null,"infoStatus":"1","orgName":"国网浙江桐庐县供电公司","typeName":null,"infoStatusName":null,"dateDay":null,"orgNos":null,"nowTime":null,"countyName":null,"streetName":null,"villageName":null,"roadName":null,"communityName":null,"tranName":null,"sdLineName":null,"cityCode":"3340150","cityName":"国网浙江桐庐县供电公司","provinceCode":null,"stopTime":"2019-08-07 15:27:29","powerType":"全部","powerOffArea":"110kV分水变:城南T173线-美景花苑1号公变后段","powerOffReason":"高压开关跳闸","powerOffId":"2019080731020086"},{"poweroffId":2019080731020084,"sgpoweroffId":null,"subsName":"","lineName":"10kV付墩A352线","pubTranName":"傅墩村1#变,","scope":"浙江省-杭州市-萧山区-进化镇-傅墩行政村-傅家墩自然村等一带","startTime":"2019-08-07 13:09:44","stopDate":"2019-08-07 15:46:44","orgNo":"3340130","typeCode":"电网故障停限电","poweroffArea":"110kV进化变:付墩A352线-傅墩村1#变台区低压开关","poweroffReason":"(低压停电信息)低压开关跳闸","powerTime":"2019-08-07 14:50:12","powerComm":"已送电","subsNo":"","lineNo":"","tgNo":"","tgName":null,"infoStatus":"1","orgName":"国网浙江杭州市萧山区供电有限公司","typeName":null,"infoStatusName":null,"dateDay":null,"orgNos":null,"nowTime":null,"countyName":null,"streetName":null,"villageName":null,"roadName":null,"communityName":null,"tranName":null,"sdLineName":null,"cityCode":"3340130","cityName":"国网浙江杭州市萧山区供电有限公司","provinceCode":null,"stopTime":"2019-08-07 15:46:44","powerType":"全部","powerOffArea":"110kV进化变:付墩A352线-傅墩村1#变台区低压开关","powerOffReason":"(低压停电信息)低压开关跳闸","powerOffId":"2019080731020084"},{"poweroffId":2019080731020081,"sgpoweroffId":null,"subsName":"","lineName":"10kV沙大Y203线","pubTranName":"新安商厦203035公变,","scope":"浙江省-杭州市-建德市-新安江街道-明珠社区 明珠路,新安东路新安商厦D幢一带用户","startTime":"2019-08-07 12:47:06","stopDate":"2019-08-07 14:57:06","orgNo":"3340180","typeCode":"电网故障停限电","poweroffArea":"110kV白沙变:置业Y228线-新安商厦203035公变后段","poweroffReason":"(低压停电信息)低压总熔芯烧毁故障","powerTime":"2019-08-07 14:02:04","powerComm":"已送电","subsNo":"","lineNo":"","tgNo":"","tgName":null,"infoStatus":"1","orgName":"国网浙江建德市供电有限公司","typeName":null,"infoStatusName":null,"dateDay":null,"orgNos":null,"nowTime":null,"countyName":null,"streetName":null,"villageName":null,"roadName":null,"communityName":null,"tranName":null,"sdLineName":null,"cityCode":"3340180","cityName":"国网浙江建德市供电有限公司","provinceCode":null,"stopTime":"2019-08-07 14:57:06","powerType":"全部","powerOffArea":"110kV白沙变:置业Y228线-新安商厦203035公变后段","powerOffReason":"(低压停电信息)低压总熔芯烧毁故障","powerOffId":"2019080731020081"},{"poweroffId":2019080731020078,"sgpoweroffId":null,"subsName":"","lineName":"10kV湖塍D813线","pubTranName":"中天建设集团有限公司1#变,中天建设集团有限公司4#变,杭州崇德家纺有限公司,长山村1#变,杭州富阳通用锡业有限公司,杭州富阳市华银塑料厂,中天建设集团有限公司3#变,浙江海通管桩有限公司1#,观前村9号毛竹山公变,杭州德莱涂料有限公司,富阳市水务有限公司,1#,浙江海通管桩有限公司2#,新桥村8号下沙章基墩公变,水稻所4号章墩公变,中天建设集团有限公司2#变,","scope":"浙江省-杭州市-富阳区-富春街道-水稻所试验农场-水稻所路,银湖街道-高桥行政村(新桥自然村,下沙自然村),银湖街道-观前行政村(大长山自然村,黄泥山自然村,观前自然村,长山自然村);浙江省-杭州市-富阳区-富春街道-金桥社区-杭州慧诺光电科技有限公司,富春街道-湖塍行政村(杭州富阳通用锡业有限公司,杭州德莱涂料有限公司),银湖街道-高桥行政村(杭州富阳水务有限公司,杭州富阳环联汽车服务有限公司),银湖街道-观前行政村(杭州富阳华银塑料厂,长山村)","startTime":"2019-08-07 12:31:42","stopDate":"2019-08-07 15:31:42","orgNo":"3340170","typeCode":"电网故障停限电","poweroffArea":"110kV容大变:湖塍D813线-湖塍D8132开关后段","poweroffReason":"高压导线烧断","powerTime":"2019-08-07 14:35:12","powerComm":"已送电","subsNo":"","lineNo":"","tgNo":"","tgName":null,"infoStatus":"1","orgName":"国网浙江杭州市富阳区供电公司","typeName":null,"infoStatusName":null,"dateDay":null,"orgNos":null,"nowTime":null,"countyName":null,"streetName":null,"villageName":null,"roadName":null,"communityName":null,"tranName":null,"sdLineName":null,"cityCode":"3340170","cityName":"国网浙江杭州市富阳区供电公司","provinceCode":null,"stopTime":"2019-08-07 15:31:42","powerType":"全部","powerOffArea":"110kV容大变:湖塍D813线-湖塍D8132开关后段","powerOffReason":"高压导线烧断","powerOffId":"2019080731020078"},{"poweroffId":2019080731020074,"sgpoweroffId":null,"subsName":"","lineName":"10kV屏山Y445线","pubTranName":"红路村后大路台区,","scope":"浙江省-杭州市-建德市-寿昌镇-红路行政村 毛家畈自然村,后大路自然村 枣园自然村一带用户","startTime":"2019-08-07 11:35:00","stopDate":"2019-08-07 13:30:25","orgNo":"3340180","typeCode":"电网故障停限电","poweroffArea":"110kV家蓬变:屏山Y445线-红路村后大路台区后段","poweroffReason":"(低压停电信息)低压开关跳闸 原预计停电结束时间14:30，预估施工时间过长，目前故障已修复，现将停电时间变更至13:30。 变更停电设备范围、停电地理区域","powerTime":"2019-08-07 12:52:31","powerComm":"已送电","subsNo":"","lineNo":"","tgNo":"","tgName":null,"infoStatus":"1","orgName":"国网浙江建德市供电有限公司","typeName":null,"infoStatusName":null,"dateDay":null,"orgNos":null,"nowTime":null,"countyName":null,"streetName":null,"villageName":null,"roadName":null,"communityName":null,"tranName":null,"sdLineName":null,"cityCode":"3340180","cityName":"国网浙江建德市供电有限公司","provinceCode":null,"stopTime":"2019-08-07 13:30:25","powerType":"全部","powerOffArea":"110kV家蓬变:屏山Y445线-红路村后大路台区后段","powerOffReason":"(低压停电信息)低压开关跳闸 原预计停电结束时间14:30，预估施工时间过长，目前故障已修复，现将停电时间变更至13:30。 变更停电设备范围、停电地理区域","powerOffId":"2019080731020074"},{"poweroffId":2019080731020070,"sgpoweroffId":null,"subsName":"","lineName":"10kV湖塍D813线","pubTranName":"湖塍村3#郑家墩公变,","scope":"浙江省-杭州市-富阳区-富春街道-湖塍村、黄天畈、陈家山一带","startTime":"2019-08-07 11:08:30","stopDate":"2019-08-07 13:08:30","orgNo":"3340170","typeCode":"电网故障停限电","poweroffArea":"110kV容大变:湖塍D813线-湖塍村3#陈家墩公变后段","poweroffReason":"(低压停电信息)低压开关跳闸","powerTime":"2019-08-07 12:53:58","powerComm":"已送电","subsNo":"","lineNo":"","tgNo":"","tgName":null,"infoStatus":"1","orgName":"国网浙江杭州市富阳区供电公司","typeName":null,"infoStatusName":null,"dateDay":null,"orgNos":null,"nowTime":null,"countyName":null,"streetName":null,"villageName":null,"roadName":null,"communityName":null,"tranName":null,"sdLineName":null,"cityCode":"3340170","cityName":"国网浙江杭州市富阳区供电公司","provinceCode":null,"stopTime":"2019-08-07 13:08:30","powerType":"全部","powerOffArea":"110kV容大变:湖塍D813线-湖塍村3#陈家墩公变后段","powerOffReason":"(低压停电信息)低压开关跳闸","powerOffId":"2019080731020070"},{"poweroffId":2019080731020069,"sgpoweroffId":null,"subsName":"","lineName":"10kV三家G864线","pubTranName":"三家村丁家门变,","scope":"浙江省杭州市余杭区崇贤街道三家村丁家门","startTime":"2019-08-16 07:30:00","stopDate":"2019-08-16 15:30:00","orgNo":"3340140","typeCode":"计划停电","poweroffArea":"35kV独山变:三家G864线-三家村丁家门变","poweroffReason":"(低压停电信息)（配网）2019年杭州余杭崇贤0.4kV三家村配变台区改造工程:三家G864线丁家门公变低压更换接户线及表箱29户工作。","powerTime":"2019-08-16 14:54:08","powerComm":"已送电","subsNo":"","lineNo":"","tgNo":"","tgName":null,"infoStatus":"1","orgName":"国网浙江杭州市余杭区供电有限公司","typeName":null,"infoStatusName":null,"dateDay":null,"orgNos":null,"nowTime":null,"countyName":null,"streetName":null,"villageName":null,"roadName":null,"communityName":null,"tranName":null,"sdLineName":null,"cityCode":"3340140","cityName":"国网浙江杭州市余杭区供电有限公司","provinceCode":null,"stopTime":"2019-08-16 15:30:00","powerType":"全部","powerOffArea":"35kV独山变:三家G864线-三家村丁家门变","powerOffReason":"(低压停电信息)（配网）2019年杭州余杭崇贤0.4kV三家村配变台区改造工程:三家G864线丁家门公变低压更换接户线及表箱29户工作。","powerOffId":"2019080731020069"},{"poweroffId":2019080731020064,"sgpoweroffId":null,"subsName":"","lineName":"10kV百丈H563线","pubTranName":"仙岩村九东山一组公变,","scope":"浙江省杭州市余杭区百丈镇:仙岩行政村九东山一组一带","startTime":"2019-08-14 07:30:00","stopDate":"2019-08-14 12:30:00","orgNo":"3340140","typeCode":"计划停电","poweroffArea":"35kV黄湖变:百丈H563线-仙岩村九东山一组公变低压出线","poweroffReason":"(低压停电信息)计划工作","powerTime":"2019-08-14 12:07:55","powerComm":"已送电","subsNo":"","lineNo":"","tgNo":"","tgName":null,"infoStatus":"1","orgName":"国网浙江杭州市余杭区供电有限公司","typeName":null,"infoStatusName":null,"dateDay":null,"orgNos":null,"nowTime":null,"countyName":null,"streetName":null,"villageName":null,"roadName":null,"communityName":null,"tranName":null,"sdLineName":null,"cityCode":"3340140","cityName":"国网浙江杭州市余杭区供电有限公司","provinceCode":null,"stopTime":"2019-08-14 12:30:00","powerType":"全部","powerOffArea":"35kV黄湖变:百丈H563线-仙岩村九东山一组公变低压出线","powerOffReason":"(低压停电信息)计划工作","powerOffId":"2019080731020064"},{"poweroffId":2019080731020061,"sgpoweroffId":null,"subsName":"","lineName":"10kV方桥G907线","pubTranName":"永东4组3号公变,","scope":"浙江省杭州市余杭区乔司街道：永和村14组一带","startTime":"2019-08-16 06:30:00","stopDate":"2019-08-16 13:30:00","orgNo":"3340140","typeCode":"计划停电","poweroffArea":"110kV庙港变:方桥G907线永东4组3号公变后段","poweroffReason":"(低压停电信息)紧急公变增补：新出电缆1根、新放导线1档及搭接 原停电结束时间14：30，因检修力量充足，提前完成工作任务，现变更停电结束时间13：30。","powerTime":"2019-08-16 12:40:04","powerComm":"施工结束","subsNo":"","lineNo":"","tgNo":"","tgName":null,"infoStatus":"1","orgName":"国网浙江杭州市余杭区供电有限公司","typeName":null,"infoStatusName":null,"dateDay":null,"orgNos":null,"nowTime":null,"countyName":null,"streetName":null,"villageName":null,"roadName":null,"communityName":null,"tranName":null,"sdLineName":null,"cityCode":"3340140","cityName":"国网浙江杭州市余杭区供电有限公司","provinceCode":null,"stopTime":"2019-08-16 13:30:00","powerType":"全部","powerOffArea":"110kV庙港变:方桥G907线永东4组3号公变后段","powerOffReason":"(低压停电信息)紧急公变增补：新出电缆1根、新放导线1档及搭接 原停电结束时间14：30，因检修力量充足，提前完成工作任务，现变更停电结束时间13：30。","powerOffId":"2019080731020061"}],"pageModel":{"pageNow":1310,"totalCount":17789,"totalPage":1779,"tableRows":0,"pageCount":10,"beginCount":13090},"isExperi":"1"}