{"message":"","today":"2020-06-15","seleList":[{"poweroffId":2020052031020335,"sgpoweroffId":null,"subsName":"","lineName":"10kV三白G371线","pubTranName":"渔公桥村横河桥北公变,渔公桥村古荡洋公变,杭州余杭永强五金制造厂,渔公桥村阮家塘公变,渔公桥村陶家角公变,渔公桥村宋介湾公变,渔公桥村枉河桥公变,渔公桥村胡介坝公变,渔公桥村渔公桥公变,","scope":"浙江省-杭州市-余杭区-仁和街道-渔公桥行政村(古荡漾自然村,阮家里自然村,阮家塘自然村,枉河桥自然村,胡介坝自然村,胡家坝自然村,古荡洋自然村,枉河头自然村,横河头自然村,横河桥自然村,渔公桥自然村,渔公桥村,陶家角自然村,宋介湾自然村,蒋家湾自然村),仁和街道-三白潭行政村(石桥头自然村,施介墩自然村),仁和街道-新桥行政村(跳东,园里抖自然村,新桥头自然村,黄泥滩自然村),仁和街道-普宁行政村(野鸡坝自然村,郭亩坝自然村),仁和街道-东塘行政村(漾斗,陈家塘自然村,莫家坝自然村,隔河自然村,沈介墩自然村,张家塘自然村,马峰头自然村,丁家抖自然村),仁和街道-永泰行政村(阮家港自然村,朱家角自然村),仁和街道-平宅行政村(秀才斗自然村,对丰墩自然村),仁和街道(云会行政村-西南山南路,葛墩行政村-窑湾自然村);仁和街道-杭州余杭永强五金制造厂","startTime":"2020-05-20 17:05:00","stopDate":"2020-05-20 18:05:00","orgNo":"3340140","typeCode":"电网故障停限电","poweroffArea":"110kV东塘变:三白G371线枉河桥分线开关后段","poweroffReason":"高压开关跳闸 原停电结束时间为2020-05-20 19:05:00,为减少客户停电时间,加快工作进度,提前送电,现变更停电结束时间为2020-05-20 18:05:00","powerTime":"2020-05-20 17:19:40","powerComm":"已送电","subsNo":"","lineNo":"","tgNo":"","tgName":null,"infoStatus":"1","orgName":"国网浙江杭州市余杭区供电有限公司","typeName":null,"infoStatusName":null,"dateDay":null,"orgNos":null,"nowTime":null,"countyName":null,"streetName":null,"villageName":null,"roadName":null,"communityName":null,"tranName":null,"sdLineName":null,"cityCode":"3340140","cityName":"国网浙江杭州市余杭区供电有限公司","provinceCode":null,"stopTime":"2020-05-20 18:05:00","powerType":"全部","powerOffArea":"110kV东塘变:三白G371线枉河桥分线开关后段","powerOffReason":"高压开关跳闸 原停电结束时间为2020-05-20 19:05:00,为减少客户停电时间,加快工作进度,提前送电,现变更停电结束时间为2020-05-20 18:05:00","powerOffId":"2020052031020335"},{"poweroffId":2020052031020330,"sgpoweroffId":null,"subsName":"","lineName":"10kV医安6284线","pubTranName":"三排一,浦邮,电子,市政,","scope":"浙江省-杭州市-滨江区-浦沿街道-联庄社区(联庄村,江南大道)浙江省杭州市大地市政工程有限公司、中国电信股份有限公司杭州分公司，杭州天恒电容器有限公司、联庄村部分用户。","startTime":"2020-05-29 09:30:00","stopDate":"2020-05-29 10:30:00","orgNo":"3340101","typeCode":"计划停电","poweroffArea":"110kV之江变:医安6284线-电子后段;医安6284线-市政后段;医安6284线-浦邮后段;医安6284线-三排一后段","poweroffReason":"杭州市滨江区农村多层住宅建设管理中心10KV联庄路站电力迁改工程（一期） 原停电结束时间为2020-05-28 10:30:00,因天气原因,延迟送电,现变更停电结束时间为2020-05-29 10:30:00","powerTime":"2020-05-29 09:48:59","powerComm":"已送电","subsNo":"","lineNo":"","tgNo":"","tgName":null,"infoStatus":"1","orgName":"浙江杭州电力客户服务中心","typeName":null,"infoStatusName":null,"dateDay":null,"orgNos":null,"nowTime":null,"countyName":null,"streetName":null,"villageName":null,"roadName":null,"communityName":null,"tranName":null,"sdLineName":null,"cityCode":"3340101","cityName":"浙江杭州电力客户服务中心","provinceCode":null,"stopTime":"2020-05-29 10:30:00","powerType":"全部","powerOffArea":"110kV之江变:医安6284线-电子后段;医安6284线-市政后段;医安6284线-浦邮后段;医安6284线-三排一后段","powerOffReason":"杭州市滨江区农村多层住宅建设管理中心10KV联庄路站电力迁改工程（一期） 原停电结束时间为2020-05-28 10:30:00,因天气原因,延迟送电,现变更停电结束时间为2020-05-29 10:30:00","powerOffId":"2020052031020330"},{"poweroffId":2020052031020321,"sgpoweroffId":null,"subsName":"","lineName":"10kV青龙508线","pubTranName":"文伟村7#变,","scope":"浙江省-杭州市-萧山区-河庄街道-文伟行政村-文伟自然村、文伟村、三联村、河庄街道三联行政村","startTime":"2020-05-20 16:35:00","stopDate":"2020-05-20 20:56:00","orgNo":"3340120","typeCode":"电网故障停限电","poweroffArea":"35kV永丰变:青龙508线文伟村7#变配变","poweroffReason":"(低压停电信息)低压开关跳闸 原停电结束时间为2020-05-20 22:30:00,为减少客户停电时间,加快工作进度,提前送电,现变更停电结束时间为2020-05-20 20:56:00","powerTime":"2020-05-20 20:22:46","powerComm":"已送电","subsNo":"","lineNo":"","tgNo":"","tgName":null,"infoStatus":"1","orgName":"国网浙江杭州市钱塘新区供电公司","typeName":null,"infoStatusName":null,"dateDay":null,"orgNos":null,"nowTime":null,"countyName":null,"streetName":null,"villageName":null,"roadName":null,"communityName":null,"tranName":null,"sdLineName":null,"cityCode":"3340120","cityName":"国网浙江杭州市钱塘新区供电公司","provinceCode":null,"stopTime":"2020-05-20 20:56:00","powerType":"全部","powerOffArea":"35kV永丰变:青龙508线文伟村7#变配变","powerOffReason":"(低压停电信息)低压开关跳闸 原停电结束时间为2020-05-20 22:30:00,为减少客户停电时间,加快工作进度,提前送电,现变更停电结束时间为2020-05-20 20:56:00","powerOffId":"2020052031020321"},{"poweroffId":2020052031020316,"sgpoweroffId":null,"subsName":"","lineName":"10kV东桦6325线","pubTranName":"新沙村农一,","scope":"浙江省-杭州市-西湖区-双浦镇-新沙村部分用户","startTime":"2020-05-29 10:00:00","stopDate":"2020-05-29 12:00:00","orgNo":"3340101","typeCode":"计划停电","poweroffArea":"110kV转塘变:东桦6325线-新沙村农一后段","poweroffReason":"10kV东桦6325线新江分线7#杆带电拆除跌落式开关上引线、加装跌落式开关绝缘罩，带电搭接跌落式开关上引线","powerTime":"2020-05-29 11:02:59","powerComm":"已送电","subsNo":"","lineNo":"","tgNo":"","tgName":null,"infoStatus":"1","orgName":"浙江杭州电力客户服务中心","typeName":null,"infoStatusName":null,"dateDay":null,"orgNos":null,"nowTime":null,"countyName":null,"streetName":null,"villageName":null,"roadName":null,"communityName":null,"tranName":null,"sdLineName":null,"cityCode":"3340101","cityName":"浙江杭州电力客户服务中心","provinceCode":null,"stopTime":"2020-05-29 12:00:00","powerType":"全部","powerOffArea":"110kV转塘变:东桦6325线-新沙村农一后段","powerOffReason":"10kV东桦6325线新江分线7#杆带电拆除跌落式开关上引线、加装跌落式开关绝缘罩，带电搭接跌落式开关上引线","powerOffId":"2020052031020316"},{"poweroffId":2020052031020307,"sgpoweroffId":null,"subsName":"","lineName":"10kV杭千D427线","pubTranName":"学校沙4#后徐沙公变,","scope":"浙江省-杭州市-富阳区-东洲街道-学校沙行政村-学校沙自然村","startTime":"2020-05-20 16:07:50","stopDate":"2020-05-21 02:00:00","orgNo":"3340170","typeCode":"电网故障停限电","poweroffArea":"110kV东洲变:杭千D427线学校沙4#后徐沙公变配变","poweroffReason":"高压开关跳闸 原停电结束时间为2020-05-21 07:00:00,为减少客户停电时间,加快工作进度,提前送电,现变更停电结束时间为2020-05-21 02:00:00","powerTime":"2020-05-21 01:30:45","powerComm":"已送电","subsNo":"","lineNo":"","tgNo":"","tgName":null,"infoStatus":"1","orgName":"国网浙江杭州市富阳区供电公司","typeName":null,"infoStatusName":null,"dateDay":null,"orgNos":null,"nowTime":null,"countyName":null,"streetName":null,"villageName":null,"roadName":null,"communityName":null,"tranName":null,"sdLineName":null,"cityCode":"3340170","cityName":"国网浙江杭州市富阳区供电公司","provinceCode":null,"stopTime":"2020-05-21 02:00:00","powerType":"全部","powerOffArea":"110kV东洲变:杭千D427线学校沙4#后徐沙公变配变","powerOffReason":"高压开关跳闸 原停电结束时间为2020-05-21 07:00:00,为减少客户停电时间,加快工作进度,提前送电,现变更停电结束时间为2020-05-21 02:00:00","powerOffId":"2020052031020307"},{"poweroffId":2020052031020282,"sgpoweroffId":null,"subsName":"","lineName":"10kV千家Y408线","pubTranName":"珏塘村桐籽湾台区,","scope":"浙江省-杭州市-建德市-航头镇-珏塘行政村(朱塘坑自然村,珏塘自然村)","startTime":"2020-05-20 15:05:00","stopDate":"2020-05-20 16:00:00","orgNo":"3340180","typeCode":"电网故障停限电","poweroffArea":"110kV航头变:千家Y408线珏塘村桐籽湾台区配变","poweroffReason":"(低压停电信息)低压开关跳闸 原停电结束时间为2020-05-20 17:40:00,为减少客户停电时间,加快工作进度,提前送电,现变更停电结束时间为2020-05-20 16:00:00","powerTime":"2020-05-20 15:34:31","powerComm":"已送电","subsNo":"","lineNo":"","tgNo":"","tgName":null,"infoStatus":"1","orgName":"国网浙江建德市供电有限公司","typeName":null,"infoStatusName":null,"dateDay":null,"orgNos":null,"nowTime":null,"countyName":null,"streetName":null,"villageName":null,"roadName":null,"communityName":null,"tranName":null,"sdLineName":null,"cityCode":"3340180","cityName":"国网浙江建德市供电有限公司","provinceCode":null,"stopTime":"2020-05-20 16:00:00","powerType":"全部","powerOffArea":"110kV航头变:千家Y408线珏塘村桐籽湾台区配变","powerOffReason":"(低压停电信息)低压开关跳闸 原停电结束时间为2020-05-20 17:40:00,为减少客户停电时间,加快工作进度,提前送电,现变更停电结束时间为2020-05-20 16:00:00","powerOffId":"2020052031020282"},{"poweroffId":2020052031020265,"sgpoweroffId":null,"subsName":"","lineName":"10kV金城A023线","pubTranName":"杭州萧山东湘加油站有限公司变压器,东湘村6#公变,","scope":"浙江省-杭州市-萧山区-城厢街道-东湘社区-杭州萧山东湘加油站有限公司","startTime":"2020-06-11 08:30:00","stopDate":"2020-06-11 16:30:00","orgNo":"3340130","typeCode":"计划停电","poweroffArea":"110kV越王变:金城A023线-美之分线后段","poweroffReason":"彩虹开G13至美之分线01#杆电缆迁改，原有电缆拆除，新敷设电缆、试验搭接","powerTime":"2020-06-11 15:54:18","powerComm":"已送电","subsNo":"","lineNo":"","tgNo":"","tgName":null,"infoStatus":"1","orgName":"国网浙江杭州市萧山区供电有限公司","typeName":null,"infoStatusName":null,"dateDay":null,"orgNos":null,"nowTime":null,"countyName":null,"streetName":null,"villageName":null,"roadName":null,"communityName":null,"tranName":null,"sdLineName":null,"cityCode":"3340130","cityName":"国网浙江杭州市萧山区供电有限公司","provinceCode":null,"stopTime":"2020-06-11 16:30:00","powerType":"全部","powerOffArea":"110kV越王变:金城A023线-美之分线后段","powerOffReason":"彩虹开G13至美之分线01#杆电缆迁改，原有电缆拆除，新敷设电缆、试验搭接","powerOffId":"2020052031020265"},{"poweroffId":2020052031020264,"sgpoweroffId":null,"subsName":"","lineName":"10kV荷庄D763线","pubTranName":"外沙村2#村中公变,","scope":"浙江省-杭州市-富阳区-灵桥镇-外沙行政村-外沙自然村一带","startTime":"2020-05-23 08:00:00","stopDate":"2020-05-23 15:00:00","orgNo":"3340170","typeCode":"临时停电","poweroffArea":"110kV春联变:荷庄D763线-外沙村2号村中低压开关后段","poweroffReason":"(低压停电信息)江南2020年业扩配套工程：新放JKLYJ-10-70导线1档，新上真空开关1台，杆上附件安装，线路搭头等工作。","powerTime":"2020-05-23 14:39:48","powerComm":"已送电","subsNo":"","lineNo":"","tgNo":"","tgName":null,"infoStatus":"1","orgName":"国网浙江杭州市富阳区供电公司","typeName":null,"infoStatusName":null,"dateDay":null,"orgNos":null,"nowTime":null,"countyName":null,"streetName":null,"villageName":null,"roadName":null,"communityName":null,"tranName":null,"sdLineName":null,"cityCode":"3340170","cityName":"国网浙江杭州市富阳区供电公司","provinceCode":null,"stopTime":"2020-05-23 15:00:00","powerType":"全部","powerOffArea":"110kV春联变:荷庄D763线-外沙村2号村中低压开关后段","powerOffReason":"(低压停电信息)江南2020年业扩配套工程：新放JKLYJ-10-70导线1档，新上真空开关1台，杆上附件安装，线路搭头等工作。","powerOffId":"2020052031020264"},{"poweroffId":2020052031020261,"sgpoweroffId":null,"subsName":"","lineName":"10kV御道9734线","pubTranName":"四堡幼儿施,","scope":"浙江省-杭州市-江干区-彭埠街道-五堡社区-杭州市城东新城建设投资有限公司","startTime":"2020-05-20 14:29:26","stopDate":"2020-05-20 16:29:26","orgNo":"3340120","typeCode":"电网故障停限电","poweroffArea":"110kV下宁变:御道9734线-四堡幼儿施跌落式后段","poweroffReason":"高压开关跳闸","powerTime":"2020-05-20 15:40:16","powerComm":"已送电","subsNo":"","lineNo":"","tgNo":"","tgName":null,"infoStatus":"1","orgName":"国网浙江杭州市钱塘新区供电公司","typeName":null,"infoStatusName":null,"dateDay":null,"orgNos":null,"nowTime":null,"countyName":null,"streetName":null,"villageName":null,"roadName":null,"communityName":null,"tranName":null,"sdLineName":null,"cityCode":"3340120","cityName":"国网浙江杭州市钱塘新区供电公司","provinceCode":null,"stopTime":"2020-05-20 16:29:26","powerType":"全部","powerOffArea":"110kV下宁变:御道9734线-四堡幼儿施跌落式后段","powerOffReason":"高压开关跳闸","powerOffId":"2020052031020261"},{"poweroffId":2020052031020252,"sgpoweroffId":null,"subsName":"","lineName":"10kV春光0810线","pubTranName":"春雷村4#变,","scope":"浙江省-杭州市-萧山区-义蓬街道-春雷行政村-春雷自然村、义蓬街道春雷村","startTime":"2020-05-20 13:55:51","stopDate":"2020-05-20 17:30:51","orgNo":"3340120","typeCode":"电网故障停限电","poweroffArea":"35kV头蓬变:春光0810线-春雷村4#变台区低压开关","poweroffReason":"(低压停电信息)低压开关跳闸 原停电结束时间为2020-05-20 18:30:51,为减少客户停电时间,加快工作进度,提前送电,现变更停电结束时间为2020-05-20 17:30:51","powerTime":"2020-05-20 16:38:29","powerComm":"已送电","subsNo":"","lineNo":"","tgNo":"","tgName":null,"infoStatus":"1","orgName":"国网浙江杭州市钱塘新区供电公司","typeName":null,"infoStatusName":null,"dateDay":null,"orgNos":null,"nowTime":null,"countyName":null,"streetName":null,"villageName":null,"roadName":null,"communityName":null,"tranName":null,"sdLineName":null,"cityCode":"3340120","cityName":"国网浙江杭州市钱塘新区供电公司","provinceCode":null,"stopTime":"2020-05-20 17:30:51","powerType":"全部","powerOffArea":"35kV头蓬变:春光0810线-春雷村4#变台区低压开关","powerOffReason":"(低压停电信息)低压开关跳闸 原停电结束时间为2020-05-20 18:30:51,为减少客户停电时间,加快工作进度,提前送电,现变更停电结束时间为2020-05-20 17:30:51","powerOffId":"2020052031020252"}],"pageModel":{"pageNow":132,"totalCount":17786,"totalPage":1779,"tableRows":0,"pageCount":10,"beginCount":1310},"isExperi":"1"}