{"message":"","today":"2020-06-16","seleList":[{"poweroffId":2019080631020111,"sgpoweroffId":null,"subsName":"","lineName":"10kV万乐7006线","pubTranName":"万乐3组2号公变,","scope":"浙江省杭州市余杭区星桥街道:贾家社区万乐社区一带","startTime":"2019-08-19 07:30:00","stopDate":"2019-08-19 13:10:00","orgNo":"3340140","typeCode":"计划停电","poweroffArea":"110kV锦唐变:万乐7006线万乐3组2号公变","poweroffReason":"(低压停电信息)新布万乐3组4#变与万乐3组2#变低压割接：新出4*150电缆1根、开耐张2处。原停电结束时间14：00，因检修力量充足，提前完成工作任务，现变更停电结束时间13：10","powerTime":"2019-08-19 12:27:39","powerComm":"施工结束","subsNo":"","lineNo":"","tgNo":"","tgName":null,"infoStatus":"1","orgName":"国网浙江杭州市余杭区供电有限公司","typeName":null,"infoStatusName":null,"dateDay":null,"orgNos":null,"nowTime":null,"countyName":null,"streetName":null,"villageName":null,"roadName":null,"communityName":null,"tranName":null,"sdLineName":null,"cityCode":"3340140","cityName":"国网浙江杭州市余杭区供电有限公司","provinceCode":null,"stopTime":"2019-08-19 13:10:00","powerType":"全部","powerOffArea":"110kV锦唐变:万乐7006线万乐3组2号公变","powerOffReason":"(低压停电信息)新布万乐3组4#变与万乐3组2#变低压割接：新出4*150电缆1根、开耐张2处。原停电结束时间14：00，因检修力量充足，提前完成工作任务，现变更停电结束时间13：10","powerOffId":"2019080631020111"},{"poweroffId":2019080631020108,"sgpoweroffId":null,"subsName":"","lineName":"10kV南车G842线","pubTranName":"北庄村鱼池埂2号公变,","scope":"浙江省杭州市余杭区崇贤街道北庄行政村鱼池更一带 原结束时间16点30分，由于现场施工力量强大，现变更为11点20分","startTime":"2019-08-15 07:30:00","stopDate":"2019-08-15 11:20:00","orgNo":"3340140","typeCode":"计划停电","poweroffArea":"110kV北庄变:南车G842线北庄村鱼池埂2号公变 原结束时间16点30分，由于现场施工力量强大，现变更为11点20分","poweroffReason":"(低压停电信息)（配网）2019年杭州余杭崇贤0.4kV三家村配变台区改造工程:南车G842线北庄村鱼池埂2号公变低压更换接户线及表箱25户工作。","powerTime":"2019-08-15 11:01:15","powerComm":"已送电","subsNo":"","lineNo":"","tgNo":"","tgName":null,"infoStatus":"1","orgName":"国网浙江杭州市余杭区供电有限公司","typeName":null,"infoStatusName":null,"dateDay":null,"orgNos":null,"nowTime":null,"countyName":null,"streetName":null,"villageName":null,"roadName":null,"communityName":null,"tranName":null,"sdLineName":null,"cityCode":"3340140","cityName":"国网浙江杭州市余杭区供电有限公司","provinceCode":null,"stopTime":"2019-08-15 11:20:00","powerType":"全部","powerOffArea":"110kV北庄变:南车G842线北庄村鱼池埂2号公变 原结束时间16点30分，由于现场施工力量强大，现变更为11点20分","powerOffReason":"(低压停电信息)（配网）2019年杭州余杭崇贤0.4kV三家村配变台区改造工程:南车G842线北庄村鱼池埂2号公变低压更换接户线及表箱25户工作。","powerOffId":"2019080631020108"},{"poweroffId":2019080631020106,"sgpoweroffId":null,"subsName":"","lineName":"10kV独山G137线","pubTranName":"龙旋村山前2组变,","scope":"浙江省杭州市余杭区崇贤街道龙旋村山前区块，独山运河路以北，山前南村一带。 原停电结束时间17点30分，由于施工力量强大，现提前完成工作","startTime":"2019-08-14 07:30:00","stopDate":"2019-08-14 15:30:00","orgNo":"3340140","typeCode":"计划停电","poweroffArea":"35kV沾桥变:独山G137线龙旋村山前2组变 原停电结束时间17点30分，由于施工力量强大，现提前完成工作","poweroffReason":"(低压停电信息)2019年杭州余杭崇贤范家角等台区0.4kV配电线路整治工程:独山2组2号公变、独山2组公变拆除低压导线9档、新放集束导线8档、山前西公变、山前西2#公变拆除拆除低压电缆3根、新放240平方电缆等工作","powerTime":"2019-08-14 15:21:47","powerComm":"已送电","subsNo":"","lineNo":"","tgNo":"","tgName":null,"infoStatus":"1","orgName":"国网浙江杭州市余杭区供电有限公司","typeName":null,"infoStatusName":null,"dateDay":null,"orgNos":null,"nowTime":null,"countyName":null,"streetName":null,"villageName":null,"roadName":null,"communityName":null,"tranName":null,"sdLineName":null,"cityCode":"3340140","cityName":"国网浙江杭州市余杭区供电有限公司","provinceCode":null,"stopTime":"2019-08-14 15:30:00","powerType":"全部","powerOffArea":"35kV沾桥变:独山G137线龙旋村山前2组变 原停电结束时间17点30分，由于施工力量强大，现提前完成工作","powerOffReason":"(低压停电信息)2019年杭州余杭崇贤范家角等台区0.4kV配电线路整治工程:独山2组2号公变、独山2组公变拆除低压导线9档、新放集束导线8档、山前西公变、山前西2#公变拆除拆除低压电缆3根、新放240平方电缆等工作","powerOffId":"2019080631020106"},{"poweroffId":2019080631020100,"sgpoweroffId":null,"subsName":"","lineName":"10kV独山G137线","pubTranName":"龙旋村山前2组2号公变,","scope":"浙江省杭州市余杭区崇贤街道龙旋行政村南村一带 原停电结束时间17点30分，由于施工力量强大，现提前完成工作","startTime":"2019-08-14 07:30:00","stopDate":"2019-08-14 15:30:00","orgNo":"3340140","typeCode":"计划停电","poweroffArea":"35kV沾桥变:独山G137线-龙旋村山前2组2号公变 原停电结束时间17点30分，由于施工力量强大，现提前完成工作","poweroffReason":"(低压停电信息)2019年杭州余杭崇贤范家角等台区0.4kV配电线路整治工程:独山2组2号公变、独山2组公变拆除低压导线9档、新放集束导线8档、山前西公变、山前西2#公变拆除拆除低压电缆3根、新放240平方电缆2路，拆除导线3档。","powerTime":"2019-08-14 15:21:17","powerComm":"已送电","subsNo":"","lineNo":"","tgNo":"","tgName":null,"infoStatus":"1","orgName":"国网浙江杭州市余杭区供电有限公司","typeName":null,"infoStatusName":null,"dateDay":null,"orgNos":null,"nowTime":null,"countyName":null,"streetName":null,"villageName":null,"roadName":null,"communityName":null,"tranName":null,"sdLineName":null,"cityCode":"3340140","cityName":"国网浙江杭州市余杭区供电有限公司","provinceCode":null,"stopTime":"2019-08-14 15:30:00","powerType":"全部","powerOffArea":"35kV沾桥变:独山G137线-龙旋村山前2组2号公变 原停电结束时间17点30分，由于施工力量强大，现提前完成工作","powerOffReason":"(低压停电信息)2019年杭州余杭崇贤范家角等台区0.4kV配电线路整治工程:独山2组2号公变、独山2组公变拆除低压导线9档、新放集束导线8档、山前西公变、山前西2#公变拆除拆除低压电缆3根、新放240平方电缆2路，拆除导线3档。","powerOffId":"2019080631020100"},{"poweroffId":2019080631020099,"sgpoweroffId":null,"subsName":"","lineName":"10kV独山G137线","pubTranName":"龙旋村山前农居点1-1#公变,龙旋村山前农居点1-2#公变,","scope":"浙江省杭州市余杭区崇贤街道龙旋行政村山前农居点一带","startTime":"2019-08-14 08:20:00","stopDate":"2019-08-14 19:00:00","orgNo":"3340140","typeCode":"计划停电","poweroffArea":"35kV沾桥变:独山G137线首端，龙旋村山前农居点1-1#公变，龙旋村山前农居点1-2#公变","poweroffReason":"(低压停电信息)2019年杭州余杭崇贤范家角等台区0.4kV配电线路整治工程:独山2组2号公变、独山2组公变拆除低压导线9档、新放集束导线8档、山前西公变、山前西2#公变拆除拆除低压电缆3根、新放240平方电缆2路，拆除导线3档","powerTime":"2019-08-14 18:42:34","powerComm":"已送电","subsNo":"","lineNo":"","tgNo":"","tgName":null,"infoStatus":"1","orgName":"国网浙江杭州市余杭区供电有限公司","typeName":null,"infoStatusName":null,"dateDay":null,"orgNos":null,"nowTime":null,"countyName":null,"streetName":null,"villageName":null,"roadName":null,"communityName":null,"tranName":null,"sdLineName":null,"cityCode":"3340140","cityName":"国网浙江杭州市余杭区供电有限公司","provinceCode":null,"stopTime":"2019-08-14 19:00:00","powerType":"全部","powerOffArea":"35kV沾桥变:独山G137线首端，龙旋村山前农居点1-1#公变，龙旋村山前农居点1-2#公变","powerOffReason":"(低压停电信息)2019年杭州余杭崇贤范家角等台区0.4kV配电线路整治工程:独山2组2号公变、独山2组公变拆除低压导线9档、新放集束导线8档、山前西公变、山前西2#公变拆除拆除低压电缆3根、新放240平方电缆2路，拆除导线3档","powerOffId":"2019080631020099"},{"poweroffId":2019080631020098,"sgpoweroffId":null,"subsName":"","lineName":"10kV独山G137线","pubTranName":"龙旋村山前西变,","scope":"浙江省杭州市余杭区崇贤街道龙旋行政村山前南村一带 原停电结束时间17点30分，由于施工力量强大，现提前完成工作","startTime":"2019-08-14 07:30:00","stopDate":"2019-08-14 15:30:00","orgNo":"3340140","typeCode":"计划停电","poweroffArea":"35kV沾桥变:独山G137线龙旋村山前西变 原停电结束时间17点30分，由于施工力量强大，现提前完成工作","poweroffReason":"(低压停电信息)2019年杭州余杭崇贤范家角等台区0.4kV配电线路整治工程:独山2组2号公变、独山2组公变拆除低压导线9档、新放集束导线8档、山前西公变、山前西2#公变拆除拆除低压电缆3根、新放240平方电缆2路，拆除导线3档","powerTime":"2019-08-14 15:22:04","powerComm":"已送电","subsNo":"","lineNo":"","tgNo":"","tgName":null,"infoStatus":"1","orgName":"国网浙江杭州市余杭区供电有限公司","typeName":null,"infoStatusName":null,"dateDay":null,"orgNos":null,"nowTime":null,"countyName":null,"streetName":null,"villageName":null,"roadName":null,"communityName":null,"tranName":null,"sdLineName":null,"cityCode":"3340140","cityName":"国网浙江杭州市余杭区供电有限公司","provinceCode":null,"stopTime":"2019-08-14 15:30:00","powerType":"全部","powerOffArea":"35kV沾桥变:独山G137线龙旋村山前西变 原停电结束时间17点30分，由于施工力量强大，现提前完成工作","powerOffReason":"(低压停电信息)2019年杭州余杭崇贤范家角等台区0.4kV配电线路整治工程:独山2组2号公变、独山2组公变拆除低压导线9档、新放集束导线8档、山前西公变、山前西2#公变拆除拆除低压电缆3根、新放240平方电缆2路，拆除导线3档","powerOffId":"2019080631020098"},{"poweroffId":2019080631020097,"sgpoweroffId":null,"subsName":"","lineName":"10kV独山G137线","pubTranName":"龙旋村山前西二公变,","scope":"浙江省-杭州市-余杭区-崇贤街道-龙旋行政村山前南村一带 原停电结束时间17点30分，由于施工力量强大，现提前完成工作","startTime":"2019-08-14 07:30:00","stopDate":"2019-08-14 15:30:00","orgNo":"3340140","typeCode":"计划停电","poweroffArea":"35kV沾桥变:独山G137线-龙旋村山前西二公变 原停电结束时间17点30分，由于施工力量强大，现提前完成工作","poweroffReason":"(低压停电信息)2019年杭州余杭崇贤范家角等台区0.4kV配电线路整治工程:独山2组2号公变、独山2组公变拆除低压导线9档、新放集束导线8档、山前西公变、山前西2#公变拆除拆除低压电缆3根、新放240平方电缆2路，拆除导线3档。","powerTime":"2019-08-14 15:19:51","powerComm":"已送电","subsNo":"","lineNo":"","tgNo":"","tgName":null,"infoStatus":"1","orgName":"国网浙江杭州市余杭区供电有限公司","typeName":null,"infoStatusName":null,"dateDay":null,"orgNos":null,"nowTime":null,"countyName":null,"streetName":null,"villageName":null,"roadName":null,"communityName":null,"tranName":null,"sdLineName":null,"cityCode":"3340140","cityName":"国网浙江杭州市余杭区供电有限公司","provinceCode":null,"stopTime":"2019-08-14 15:30:00","powerType":"全部","powerOffArea":"35kV沾桥变:独山G137线-龙旋村山前西二公变 原停电结束时间17点30分，由于施工力量强大，现提前完成工作","powerOffReason":"(低压停电信息)2019年杭州余杭崇贤范家角等台区0.4kV配电线路整治工程:独山2组2号公变、独山2组公变拆除低压导线9档、新放集束导线8档、山前西公变、山前西2#公变拆除拆除低压电缆3根、新放240平方电缆2路，拆除导线3档。","powerOffId":"2019080631020097"},{"poweroffId":2019080631020095,"sgpoweroffId":null,"subsName":"","lineName":"10kV山后G830线","pubTranName":"龙旋村朝西埭变,","scope":"浙江省杭州市余杭区崇贤街道龙旋村朝西埭一带","startTime":"2019-08-13 07:30:00","stopDate":"2019-08-13 12:30:00","orgNo":"3340140","typeCode":"临时停电","poweroffArea":"110kV北庄变:山后G830线龙旋村朝西埭变","poweroffReason":"(低压停电信息)（国网大修）2019年杭州余杭崇贤范家角等台区0.4kV配电线路整治工程:山后G830线朝西埭公变打洞立12米杆一基，70平方调换成120平方低压导线6档，拔出电杆及接户线搭接工作。","powerTime":"2019-08-13 12:28:08","powerComm":"已送电","subsNo":"","lineNo":"","tgNo":"","tgName":null,"infoStatus":"1","orgName":"国网浙江杭州市余杭区供电有限公司","typeName":null,"infoStatusName":null,"dateDay":null,"orgNos":null,"nowTime":null,"countyName":null,"streetName":null,"villageName":null,"roadName":null,"communityName":null,"tranName":null,"sdLineName":null,"cityCode":"3340140","cityName":"国网浙江杭州市余杭区供电有限公司","provinceCode":null,"stopTime":"2019-08-13 12:30:00","powerType":"全部","powerOffArea":"110kV北庄变:山后G830线龙旋村朝西埭变","powerOffReason":"(低压停电信息)（国网大修）2019年杭州余杭崇贤范家角等台区0.4kV配电线路整治工程:山后G830线朝西埭公变打洞立12米杆一基，70平方调换成120平方低压导线6档，拔出电杆及接户线搭接工作。","powerOffId":"2019080631020095"},{"poweroffId":2019080631020094,"sgpoweroffId":null,"subsName":"","lineName":"10kV山后G830线","pubTranName":"龙旋村朝西埭2号公变,","scope":"浙江省杭州市余杭区崇贤街道龙旋行政村朝西埭一带","startTime":"2019-08-12 07:30:00","stopDate":"2019-08-12 16:30:00","orgNo":"3340140","typeCode":"临时停电","poweroffArea":"110kV北庄变:山后G830线龙旋村朝西埭2号公变","poweroffReason":"(低压停电信息)（国网大修）2019年杭州余杭崇贤范家角等台区0.4kV配电线路整治工程:山后G830线朝西埭2#公变70平方调换成120平方低压导线11档及接户线搭接工作。","powerTime":"2019-08-12 16:10:34","powerComm":"已送电","subsNo":"","lineNo":"","tgNo":"","tgName":null,"infoStatus":"1","orgName":"国网浙江杭州市余杭区供电有限公司","typeName":null,"infoStatusName":null,"dateDay":null,"orgNos":null,"nowTime":null,"countyName":null,"streetName":null,"villageName":null,"roadName":null,"communityName":null,"tranName":null,"sdLineName":null,"cityCode":"3340140","cityName":"国网浙江杭州市余杭区供电有限公司","provinceCode":null,"stopTime":"2019-08-12 16:30:00","powerType":"全部","powerOffArea":"110kV北庄变:山后G830线龙旋村朝西埭2号公变","powerOffReason":"(低压停电信息)（国网大修）2019年杭州余杭崇贤范家角等台区0.4kV配电线路整治工程:山后G830线朝西埭2#公变70平方调换成120平方低压导线11档及接户线搭接工作。","powerOffId":"2019080631020094"},{"poweroffId":2019080631020092,"sgpoweroffId":null,"subsName":"","lineName":"10kV中秋D223线","pubTranName":"大山脚6号林家公变,","scope":"浙江省-杭州市-富阳区-银湖街道-新常行政村(大山脚自然村,新常自然村)","startTime":"2019-08-06 16:04:50","stopDate":"2019-08-06 17:35:57","orgNo":"3340170","typeCode":"电网故障停限电","poweroffArea":"110kV银湖变:中秋D223线-大山脚6号林家公变后段","poweroffReason":"(低压停电信息)低压开关跳闸","powerTime":"2019-08-06 16:39:51","powerComm":"已送电","subsNo":"","lineNo":"","tgNo":"","tgName":null,"infoStatus":"1","orgName":"国网浙江杭州市富阳区供电公司","typeName":null,"infoStatusName":null,"dateDay":null,"orgNos":null,"nowTime":null,"countyName":null,"streetName":null,"villageName":null,"roadName":null,"communityName":null,"tranName":null,"sdLineName":null,"cityCode":"3340170","cityName":"国网浙江杭州市富阳区供电公司","provinceCode":null,"stopTime":"2019-08-06 17:35:57","powerType":"全部","powerOffArea":"110kV银湖变:中秋D223线-大山脚6号林家公变后段","powerOffReason":"(低压停电信息)低压开关跳闸","powerOffId":"2019080631020092"}],"pageModel":{"pageNow":1314,"totalCount":17789,"totalPage":1779,"tableRows":0,"pageCount":10,"beginCount":13130},"isExperi":"1"}