{"message":"","today":"2020-06-16","seleList":[{"poweroffId":2019080631020003,"sgpoweroffId":null,"subsName":"","lineName":"10kV桐浦D844线","pubTranName":"富阳市渌渚大同石英砂二厂,富阳长奇生物科技有限公司,阆坞村大同1#邵家公变,阆坞村大同4#村委公变,富阳长奇生物科技有限公司,杭州富阳兴峰碳酸钙有限公司,阆坞村大同2#吕家公变,阆坞村阆港1#桥里公变,阆坞村大同3#新村公变,阆坞村阆港2号孙家公变,","scope":"浙江省-杭州市-富阳区-渌渚镇-阆坞行政村(大同吕家自然村,大同邵家自然村,阆港孙家自然村,阆港桥里自然村,大同新村自然村,大同村委自然村);渌渚镇(杭州富阳兴峰碳酸钙有限公司,杭州垚盛建设工程有限公司,富阳市渌渚大同石英砂二厂,杭州富阳长奇生物科技有限公司)","startTime":"2019-08-06 05:37:00","stopDate":"2019-08-06 07:37:00","orgNo":"3340170","typeCode":"电网故障停限电","poweroffArea":"110kV新桐变:桐浦D844线石门坎支线1号杆开关后段","poweroffReason":"高压开关跳闸","powerTime":"2019-08-06 07:26:49","powerComm":"已送电","subsNo":"","lineNo":"","tgNo":"","tgName":null,"infoStatus":"1","orgName":"国网浙江杭州市富阳区供电公司","typeName":null,"infoStatusName":null,"dateDay":null,"orgNos":null,"nowTime":null,"countyName":null,"streetName":null,"villageName":null,"roadName":null,"communityName":null,"tranName":null,"sdLineName":null,"cityCode":"3340170","cityName":"国网浙江杭州市富阳区供电公司","provinceCode":null,"stopTime":"2019-08-06 07:37:00","powerType":"全部","powerOffArea":"110kV新桐变:桐浦D844线石门坎支线1号杆开关后段","powerOffReason":"高压开关跳闸","powerOffId":"2019080631020003"},{"poweroffId":2019080631010102,"sgpoweroffId":null,"subsName":"","lineName":"10kV中侨T315线","pubTranName":"上洋洲6号公变,","scope":"浙江省-杭州市-桐庐县-城南街道(上洋洲行政村-春江东路、上洋洲自然村);","startTime":"2019-08-06 11:02:35","stopDate":"2019-08-06 12:03:36","orgNo":"3340150","typeCode":"电网故障停限电","poweroffArea":"110kV洋洲变:中侨T315线-上洋洲6号公变后段","poweroffReason":"（低压停电信息）低压开关故障","powerTime":"2019-08-06 11:40:51","powerComm":"已送电。","subsNo":"","lineNo":"","tgNo":"","tgName":null,"infoStatus":"1","orgName":"国网浙江桐庐县供电公司","typeName":null,"infoStatusName":null,"dateDay":null,"orgNos":null,"nowTime":null,"countyName":null,"streetName":null,"villageName":null,"roadName":null,"communityName":null,"tranName":null,"sdLineName":null,"cityCode":"3340150","cityName":"国网浙江桐庐县供电公司","provinceCode":null,"stopTime":"2019-08-06 12:03:36","powerType":"全部","powerOffArea":"110kV洋洲变:中侨T315线-上洋洲6号公变后段","powerOffReason":"（低压停电信息）低压开关故障","powerOffId":"2019080631010102"},{"poweroffId":2019080631010013,"sgpoweroffId":null,"subsName":"","lineName":"10kV上喻T570线","pubTranName":"西庄村1号公变,","scope":"浙江省-杭州市-桐庐县-凤川街道(西庄村一带);","startTime":"2019-08-06 05:17:17","stopDate":"2019-08-06 11:17:17","orgNo":"3340150","typeCode":"电网故障停限电","poweroffArea":"110kV旺家变:上喻T570线-西庄村1号公变后段","poweroffReason":"（低压停电信息）低压开关烧故障。","powerTime":"2019-08-06 11:01:35","powerComm":"已送电。","subsNo":"","lineNo":"","tgNo":"","tgName":null,"infoStatus":"1","orgName":"国网浙江桐庐县供电公司","typeName":null,"infoStatusName":null,"dateDay":null,"orgNos":null,"nowTime":null,"countyName":null,"streetName":null,"villageName":null,"roadName":null,"communityName":null,"tranName":null,"sdLineName":null,"cityCode":"3340150","cityName":"国网浙江桐庐县供电公司","provinceCode":null,"stopTime":"2019-08-06 11:17:17","powerType":"全部","powerOffArea":"110kV旺家变:上喻T570线-西庄村1号公变后段","powerOffReason":"（低压停电信息）低压开关烧故障。","powerOffId":"2019080631010013"},{"poweroffId":2019080531020154,"sgpoweroffId":null,"subsName":"","lineName":"10kV三镇Y321线","pubTranName":"建德市三都机制炭厂,三都村潘溪台区,三都镇市场公变台区,三都镇东方新村台区,三都村刘家后台区,三都村茶店口台区,三都村里潘溪台区,","scope":"浙江省-杭州市-建德市-三都镇-松口行政村-和塘自然村,三都镇-三都行政村(里潘溪自然村,茶店口自然村,潘溪自然村,仁王寺路,刘家后自然村),三都镇-市场集镇(老镇后街,双井路,市场路,仁王寺路,振兴路,凉亭路);浙江省-杭州市-建德市-三都镇-三都集镇-建德市三都机制炭厂一带用户。","startTime":"2019-08-05 22:36:00","stopDate":"2019-08-06 01:00:00","orgNo":"3340180","typeCode":"电网故障停限电","poweroffArea":"35kV三都变:三镇Y321线-泮溪支线0#杆开关后段","poweroffReason":"泮溪支线高压线路断线（原预计停电结束时间02:30，由于施工现场环境比较复杂，存在不确定因素，因此预估施工时间适当放长了，目前故障已修复，现将停电时间变更至01:00。）","powerTime":"2019-08-06 00:18:00","powerComm":"已送电","subsNo":"","lineNo":"","tgNo":"","tgName":null,"infoStatus":"1","orgName":"国网浙江建德市供电有限公司","typeName":null,"infoStatusName":null,"dateDay":null,"orgNos":null,"nowTime":null,"countyName":null,"streetName":null,"villageName":null,"roadName":null,"communityName":null,"tranName":null,"sdLineName":null,"cityCode":"3340180","cityName":"国网浙江建德市供电有限公司","provinceCode":null,"stopTime":"2019-08-06 01:00:00","powerType":"全部","powerOffArea":"35kV三都变:三镇Y321线-泮溪支线0#杆开关后段","powerOffReason":"泮溪支线高压线路断线（原预计停电结束时间02:30，由于施工现场环境比较复杂，存在不确定因素，因此预估施工时间适当放长了，目前故障已修复，现将停电时间变更至01:00。）","powerOffId":"2019080531020154"},{"poweroffId":2019080531020152,"sgpoweroffId":null,"subsName":"","lineName":"10kV方家D201线","pubTranName":"柳溪村4号欢坞外公变,","scope":"浙江省-杭州市-富阳区-富春街道-方家井行政村(柳溪自然村,欢坞外自然村,欢坞里自然村)","startTime":"2019-08-05 20:55:19","stopDate":"2019-08-05 21:55:19","orgNo":"3340170","typeCode":"电网故障停限电","poweroffArea":"35kV大青变:方家D201线-柳溪村4号欢坞外公变 后段","poweroffReason":"高压开关跳闸","powerTime":"2019-08-05 21:50:13","powerComm":"已送电","subsNo":"","lineNo":"","tgNo":"","tgName":null,"infoStatus":"1","orgName":"国网浙江杭州市富阳区供电公司","typeName":null,"infoStatusName":null,"dateDay":null,"orgNos":null,"nowTime":null,"countyName":null,"streetName":null,"villageName":null,"roadName":null,"communityName":null,"tranName":null,"sdLineName":null,"cityCode":"3340170","cityName":"国网浙江杭州市富阳区供电公司","provinceCode":null,"stopTime":"2019-08-05 21:55:19","powerType":"全部","powerOffArea":"35kV大青变:方家D201线-柳溪村4号欢坞外公变 后段","powerOffReason":"高压开关跳闸","powerOffId":"2019080531020152"},{"poweroffId":2019080531020149,"sgpoweroffId":null,"subsName":"","lineName":"10kV三镇Y321线","pubTranName":"三都村茶店口台区,","scope":"浙江省-杭州市-建德市-三都镇-三都行政村 茶店口自然村,潘溪自然村一带用户","startTime":"2019-08-05 20:10:00","stopDate":"2019-08-05 23:10:00","orgNo":"3340180","typeCode":"电网故障停限电","poweroffArea":"35kV三都变:三镇Y321线-三都村茶店口台区后段","poweroffReason":"(低压停电信息)低压线路断线","powerTime":"2019-08-05 22:40:00","powerComm":"已送电","subsNo":"","lineNo":"","tgNo":"","tgName":null,"infoStatus":"1","orgName":"国网浙江建德市供电有限公司","typeName":null,"infoStatusName":null,"dateDay":null,"orgNos":null,"nowTime":null,"countyName":null,"streetName":null,"villageName":null,"roadName":null,"communityName":null,"tranName":null,"sdLineName":null,"cityCode":"3340180","cityName":"国网浙江建德市供电有限公司","provinceCode":null,"stopTime":"2019-08-05 23:10:00","powerType":"全部","powerOffArea":"35kV三都变:三镇Y321线-三都村茶店口台区后段","powerOffReason":"(低压停电信息)低压线路断线","powerOffId":"2019080531020149"},{"poweroffId":2019080531020148,"sgpoweroffId":null,"subsName":"","lineName":"10kV东葛C642线","pubTranName":"柏山陈3#变,杭州萧山天马化工有限公司,杭州恒大机械铸炼有限公司,杭州发达齿轮箱集团有限公司2#,杭州六庄地板有限公司,柏山陈8#变,柏山陈5#变,塘郎孙5#变,临北村4#变,高压电动机,临北村7#变,临江苑3#变,杭州发达齿轮箱集团有限公司3#,杭州巍越机械有限公司,杭州市公安局萧山区分局,临江苑2#变,杭州发达齿轮箱集团有限公司4#,杭州昌陟新型建材有限公司1#,临北村6#变,2#,柏山陈4#变,临北村1#变,杭州市萧山区临浦镇人民政府,杭州萧山医药化工有限公司,临北村2#变,杭州发达齿轮箱集团有限公司1#,杭州发达齿轮箱集团有限公司5#,临江苑1#变,柏山陈2#变,临北村8#变,绿美塑木科技,临江苑4#变,","scope":"浙江省-杭州市-萧山区-临浦镇-塘郎孙行政村(塘郎孙自然村,孙家河沿自然村,杨家弄自然村),临浦镇-柏山陈社区(柏山陈自然村,临水路,前陈自然村),临浦镇-临北行政村(郭家埭自然村,东葛弄自然村,坂里杨自然村,畈里杨自然村);临浦镇-柏山陈社区(杭州萧山医药化工有限公司,杭州昌陟新型建材有限公司,杭州恒大机械铸炼有限公司,杭州巍越机械有限公司),临浦镇-临北行政村(杭州绿美塑木科技有限公司,杭州市公安局萧山区分局),临浦镇-新河行政村(杭州萧山天马化工有限公司,先高路桥有限公司,杭州发达齿轮箱集团有限公司),临浦镇(浴美施社区-杭州市萧山区临浦镇人民政府,大庄行政村-杭州市萧山区第二高级中学)一带","startTime":"2019-08-05 20:17:34","stopDate":"2019-08-05 22:17:34","orgNo":"3340130","typeCode":"电网故障停限电","poweroffArea":"110kV临浦变:东葛C642线-东葛C6421开关后段","poweroffReason":"高压柱上断路器短路故障","powerTime":"2019-08-05 21:22:06","powerComm":"已送电","subsNo":"","lineNo":"","tgNo":"","tgName":null,"infoStatus":"1","orgName":"国网浙江杭州市萧山区供电有限公司","typeName":null,"infoStatusName":null,"dateDay":null,"orgNos":null,"nowTime":null,"countyName":null,"streetName":null,"villageName":null,"roadName":null,"communityName":null,"tranName":null,"sdLineName":null,"cityCode":"3340130","cityName":"国网浙江杭州市萧山区供电有限公司","provinceCode":null,"stopTime":"2019-08-05 22:17:34","powerType":"全部","powerOffArea":"110kV临浦变:东葛C642线-东葛C6421开关后段","powerOffReason":"高压柱上断路器短路故障","powerOffId":"2019080531020148"},{"poweroffId":2019080531020147,"sgpoweroffId":null,"subsName":"","lineName":"10kV王村C259线","pubTranName":"杭州中础建筑节能科技有限公司,浙江大庄实业集团有限公司1#,浙江瓦尔星玻璃科技有限公司,杭州好耐五金机械有限公司（王村）1#,2#,白鹿塘12#变,浙江大庄实业集团有限公司3#,杭州驰丰机械有限公司,浙江大庄实业集团有限公司2#,新河村1#变,白鹿塘6#变,临浦镇人民政府（路灯东藩大桥）,杭州欣隆实业有限公司,新河村3#变,新河村8#变,","scope":"浙江省-杭州市-萧山区-临浦镇-白鹿塘行政村-白鹿塘自然村,临浦镇-通一行政村(通一村,下戴自然村),临浦镇-新河行政村(油车桥自然村,五间头自然村,老十房自然村);临浦镇-白鹿塘行政村(杭州中础建筑节能科技有限公司,杭州欣隆实业有限公司),临浦镇-通一行政村(杭州市萧山区临浦镇人民政府,浙江瓦尔星玻璃科技有限公司),临浦镇-新河行政村(杭州好耐五金机械有限公司,杭州大索科技有限公司,杭州驰丰机械有限公司)一带","startTime":"2019-08-05 20:16:21","stopDate":"2019-08-05 22:16:21","orgNo":"3340130","typeCode":"电网故障停限电","poweroffArea":"110kV所前变:王村C259线-王村C2591开关后段","poweroffReason":"高压柱上断路器短路故障","powerTime":"2019-08-05 21:21:18","powerComm":"已送电","subsNo":"","lineNo":"","tgNo":"","tgName":null,"infoStatus":"1","orgName":"国网浙江杭州市萧山区供电有限公司","typeName":null,"infoStatusName":null,"dateDay":null,"orgNos":null,"nowTime":null,"countyName":null,"streetName":null,"villageName":null,"roadName":null,"communityName":null,"tranName":null,"sdLineName":null,"cityCode":"3340130","cityName":"国网浙江杭州市萧山区供电有限公司","provinceCode":null,"stopTime":"2019-08-05 22:16:21","powerType":"全部","powerOffArea":"110kV所前变:王村C259线-王村C2591开关后段","powerOffReason":"高压柱上断路器短路故障","powerOffId":"2019080531020147"},{"poweroffId":2019080531020146,"sgpoweroffId":null,"subsName":"","lineName":"10kV安桥D203线","pubTranName":"横山下2号油树坞公变,横山下3#油树坞公变,富阳市路灯安装维修管理所,富阳市云来亚化工有限公司,富阳市富春街道横山下村村民委员会,横山下4#油树坞公变,","scope":"浙江省-杭州市-富阳区-富春街道-青云桥行政村(温州厂自然村,青云桥自然村,油树坞自然村,横山下自然村,冷水塘自然村);富春街道(富阳市富春街道横山下村村民委员会,杭州富阳城市照明工程有限公司)","startTime":"2019-08-05 20:06:00","stopDate":"2019-08-05 22:06:00","orgNo":"3340170","typeCode":"电网故障停限电","poweroffArea":"35kV大青变:安桥D203线安桥D2032开关后段","poweroffReason":"高压开关跳闸","powerTime":"2019-08-05 21:10:14","powerComm":"已送电","subsNo":"","lineNo":"","tgNo":"","tgName":null,"infoStatus":"1","orgName":"国网浙江杭州市富阳区供电公司","typeName":null,"infoStatusName":null,"dateDay":null,"orgNos":null,"nowTime":null,"countyName":null,"streetName":null,"villageName":null,"roadName":null,"communityName":null,"tranName":null,"sdLineName":null,"cityCode":"3340170","cityName":"国网浙江杭州市富阳区供电公司","provinceCode":null,"stopTime":"2019-08-05 22:06:00","powerType":"全部","powerOffArea":"35kV大青变:安桥D203线安桥D2032开关后段","powerOffReason":"高压开关跳闸","powerOffId":"2019080531020146"},{"poweroffId":2019080531020145,"sgpoweroffId":null,"subsName":"","lineName":"10kV群大A191线","pubTranName":"新河村5#变,杭州琳峰塑业有限公司,王村村3#变,临浦镇政府-快速通道-王村路灯,新河村9#变,浙江省萧山棉麻研究所,浙江省萧山棉麻研究所,新河村13#变,王村村6#变,王村村2#变,杭州市萧山区临浦镇人民政府,王村村1#变,新河村11#变,新河村2#变,新河村6#变,王村村10#变,新河村10#变,新河村7#变,新河村14#变,新河村4#变,新河村12#变,","scope":"浙江省-杭州市-萧山区-临浦镇-王村行政村(张家自然村,王自然村),临浦镇-新河行政村(油车桥自然村,西葛自然村,五间头自然村,三庄自然村,六庄自然村);浙江省-杭州市-萧山区-临浦镇-新河行政村-杭州琳峰塑业有限公司,临浦镇-王村行政村(浙江省萧山棉麻研究所,杭州市萧山区临浦镇人民政府)、浙江省杭州市萧山区临浦镇王村行政村,浙江省杭州市萧山区临浦镇王村行政村,浙江省杭州市萧山区临浦镇王村行政村王自然村国兴,浙江省杭州市萧山区临浦镇新河村六庄新区88号,浙江省杭州市萧山区临浦镇王村村127号,浙江省杭州市萧山区临浦镇新河行政村山庄村、浙江省杭州市萧山区临浦镇新河行政村三庄自然村83号、浙江省杭州市萧山区灵湖镇新河村、浙江省杭州市萧山区临浦镇王村村123号、浙江省杭州市萧山区临浦镇新河村杭州萧冠公司、浙江省杭州市萧山区临浦镇新河行政村6庄新区23号等一带","startTime":"2019-08-05 19:45:43","stopDate":"2019-08-05 22:30:43","orgNo":"3340130","typeCode":"电网故障停限电","poweroffArea":"110kV群建变:群大A191线-群大A1911开关后段","poweroffReason":"高压柱上断路器短路故障 原停电结束时间：2019-08-05 21:49，变更停电结束时间：2019-08-05 22:30，由于施工难度大，故需要延迟送电。","powerTime":"2019-08-05 21:35:24","powerComm":"已送电","subsNo":"","lineNo":"","tgNo":"","tgName":null,"infoStatus":"1","orgName":"国网浙江杭州市萧山区供电有限公司","typeName":null,"infoStatusName":null,"dateDay":null,"orgNos":null,"nowTime":null,"countyName":null,"streetName":null,"villageName":null,"roadName":null,"communityName":null,"tranName":null,"sdLineName":null,"cityCode":"3340130","cityName":"国网浙江杭州市萧山区供电有限公司","provinceCode":null,"stopTime":"2019-08-05 22:30:43","powerType":"全部","powerOffArea":"110kV群建变:群大A191线-群大A1911开关后段","powerOffReason":"高压柱上断路器短路故障 原停电结束时间：2019-08-05 21:49，变更停电结束时间：2019-08-05 22:30，由于施工难度大，故需要延迟送电。","powerOffId":"2019080531020145"}],"pageModel":{"pageNow":1317,"totalCount":17789,"totalPage":1779,"tableRows":0,"pageCount":10,"beginCount":13160},"isExperi":"1"}