{"message":"","today":"2020-06-16","seleList":[{"poweroffId":2019080531020079,"sgpoweroffId":null,"subsName":"","lineName":"10kV新桥C106线","pubTranName":"怡景公寓公变,","scope":"浙江省-杭州市-萧山区-城厢街道(南门江社区-萧然南路,百尺溇社区-百尺溇路)、怡景公寓一带","startTime":"2019-08-05 13:20:35","stopDate":"2019-08-05 16:30:35","orgNo":"3340130","typeCode":"电网故障停限电","poweroffArea":"110kV丽都变:新桥C106线-怡景公寓公变后段","poweroffReason":"（低压停电信息）低压电缆烧损","powerTime":"2019-08-05 15:44:50","powerComm":"已送电","subsNo":"","lineNo":"","tgNo":"","tgName":null,"infoStatus":"1","orgName":"国网浙江杭州市萧山区供电有限公司","typeName":null,"infoStatusName":null,"dateDay":null,"orgNos":null,"nowTime":null,"countyName":null,"streetName":null,"villageName":null,"roadName":null,"communityName":null,"tranName":null,"sdLineName":null,"cityCode":"3340130","cityName":"国网浙江杭州市萧山区供电有限公司","provinceCode":null,"stopTime":"2019-08-05 16:30:35","powerType":"全部","powerOffArea":"110kV丽都变:新桥C106线-怡景公寓公变后段","powerOffReason":"（低压停电信息）低压电缆烧损","powerOffId":"2019080531020079"},{"poweroffId":2019080531020076,"sgpoweroffId":null,"subsName":"","lineName":"10kV荣联C522线","pubTranName":"湘湖林语1#公变,","scope":"浙江省-杭州市-萧山区-城厢街道-万寿桥社区-下湘湖路、湘湖林语、湘湖林语4幢一带","startTime":"2019-08-05 12:52:29","stopDate":"2019-08-05 14:52:29","orgNo":"3340130","typeCode":"电网故障停限电","poweroffArea":"110kV湘湖变:荣联C522线-湘湖林语1#公变后段","poweroffReason":"（低压停电信息）负荷开关跳闸","powerTime":"2019-08-05 13:57:16","powerComm":"已送电","subsNo":"","lineNo":"","tgNo":"","tgName":null,"infoStatus":"1","orgName":"国网浙江杭州市萧山区供电有限公司","typeName":null,"infoStatusName":null,"dateDay":null,"orgNos":null,"nowTime":null,"countyName":null,"streetName":null,"villageName":null,"roadName":null,"communityName":null,"tranName":null,"sdLineName":null,"cityCode":"3340130","cityName":"国网浙江杭州市萧山区供电有限公司","provinceCode":null,"stopTime":"2019-08-05 14:52:29","powerType":"全部","powerOffArea":"110kV湘湖变:荣联C522线-湘湖林语1#公变后段","powerOffReason":"（低压停电信息）负荷开关跳闸","powerOffId":"2019080531020076"},{"poweroffId":2019080531020069,"sgpoweroffId":null,"subsName":"","lineName":"10kV马铁D739线","pubTranName":"富阳市新登茶叶机械干燥设备厂1#变,叉车1#变,叉车2#变,茶叶机械干燥设备厂,1#变压器,2#变压器,4#变压器,3#变压器,","scope":"浙江省-杭州市-富阳区-新登镇-松溪行政村(国家电投集团桑尼艾罗(杭州富阳)光伏发电有限公司,浙江尤恩叉车股份有限公司,杭州富阳正成机械设备厂)","startTime":"2019-08-05 11:39:44","stopDate":"2019-08-05 14:39:44","orgNo":"3340170","typeCode":"电网故障停限电","poweroffArea":"110kV松溪变:马铁D739线-马铁D7394开关后段","poweroffReason":"(低压停电信息)低压开关跳闸","powerTime":"2019-08-05 14:25:57","powerComm":"已送电","subsNo":"","lineNo":"","tgNo":"","tgName":null,"infoStatus":"1","orgName":"国网浙江杭州市富阳区供电公司","typeName":null,"infoStatusName":null,"dateDay":null,"orgNos":null,"nowTime":null,"countyName":null,"streetName":null,"villageName":null,"roadName":null,"communityName":null,"tranName":null,"sdLineName":null,"cityCode":"3340170","cityName":"国网浙江杭州市富阳区供电公司","provinceCode":null,"stopTime":"2019-08-05 14:39:44","powerType":"全部","powerOffArea":"110kV松溪变:马铁D739线-马铁D7394开关后段","powerOffReason":"(低压停电信息)低压开关跳闸","powerOffId":"2019080531020069"},{"poweroffId":2019080531020068,"sgpoweroffId":null,"subsName":"","lineName":"10kV新镇C620线","pubTranName":"双圩村5#变,同兴村12#变,新街供销社1#,元沙村8#变,永利工贸1#,中力特种玻璃,永利工贸2#,山末址村29#变,山末址村25#变,双圩村15#变,汉缘食品,浙江银河食品有限公司配电变压器,双圩村14#变,杭州市萧山区人民政府新街街道办事处,双圩村8#变,双圩村4#变,江南村(新街)8#变,山末址村4#变,双圩村1#变,江南村(新街)2#变,远大箱包,山末址村20#变,江南村(新街)1#变,山末址村7#变,双圩村10#变,杭州市萧山区人民政府新街街道办事处1321370659,新街供销社2#,盈中村14#变,江南村(新街)6#变,元沙村17#变,农用机械配件,山末址村8#变,江南村(新街)4#变,山末址村16#变,元沙村14#变,双圩村18#变,双圩村3#变,萧山区新街镇新街中心小学双圩分校,钱江居委会1#公变,新宇塑料,双圩村16#变,","scope":"浙江省-杭州市-萧山区-新街镇、新街街道(山末址行政村-山末址自然村,花城社区-国槐路,双圩行政村-双圩自然村,江南行政村-江南自然村,元沙行政村-元沙自然村,盈中行政村-盈中自然村,新润社区-北塘东路,新和社区-文轩路);新街街道-山末址行政村(浙江银河食品有限公司,杭州萧山永利工贸有限公司),新街街道-双圩行政村(杭州远大箱包有限公司,杭州萧山新宇塑料薄膜包装厂,浙江四和机械有限公司,萧山区新街镇新街中心小学双圩分校),新街街道-花城社区(杭州萧山满溢超市有限公司,杭州市萧山区人民政府新街街道办事处)等一带","startTime":"2019-08-05 11:10:05","stopDate":"2019-08-05 23:59:05","orgNo":"3340130","typeCode":"电网故障停限电","poweroffArea":"110kV新街变:新镇C620线开关后段","poweroffReason":"高压开关跳闸 原停电结束时间：2019-08-05 20:30:05，变更停电结束时间：2019-08-05 23:59:05，由于抢修工作难度大，故需要延迟送电。","powerTime":"2019-08-05 23:41:38","powerComm":"已送电","subsNo":"","lineNo":"","tgNo":"","tgName":null,"infoStatus":"1","orgName":"国网浙江杭州市萧山区供电有限公司","typeName":null,"infoStatusName":null,"dateDay":null,"orgNos":null,"nowTime":null,"countyName":null,"streetName":null,"villageName":null,"roadName":null,"communityName":null,"tranName":null,"sdLineName":null,"cityCode":"3340130","cityName":"国网浙江杭州市萧山区供电有限公司","provinceCode":null,"stopTime":"2019-08-05 23:59:05","powerType":"全部","powerOffArea":"110kV新街变:新镇C620线开关后段","powerOffReason":"高压开关跳闸 原停电结束时间：2019-08-05 20:30:05，变更停电结束时间：2019-08-05 23:59:05，由于抢修工作难度大，故需要延迟送电。","powerOffId":"2019080531020068"},{"poweroffId":2019080531020067,"sgpoweroffId":null,"subsName":"","lineName":"10kV浮桥T116线","pubTranName":"通用厂宿舍1号公变,","scope":"浙江省-杭州市-桐庐县-桐君街道-桥北居委会-泰鑫路通用厂宿舍一带","startTime":"2019-08-15 07:30:00","stopDate":"2019-08-15 12:00:00","orgNo":"3340150","typeCode":"计划停电","poweroffArea":"110kV桐庐变:浮桥T116线-通用厂宿舍1号公变10kV跌落式熔断器后段","poweroffReason":"杭州桐庐桐君合岭4号公变等台区配变及改造工程","powerTime":"2019-08-15 11:39:50","powerComm":"全部送电","subsNo":"","lineNo":"","tgNo":"","tgName":null,"infoStatus":"1","orgName":"国网浙江桐庐县供电公司","typeName":null,"infoStatusName":null,"dateDay":null,"orgNos":null,"nowTime":null,"countyName":null,"streetName":null,"villageName":null,"roadName":null,"communityName":null,"tranName":null,"sdLineName":null,"cityCode":"3340150","cityName":"国网浙江桐庐县供电公司","provinceCode":null,"stopTime":"2019-08-15 12:00:00","powerType":"全部","powerOffArea":"110kV桐庐变:浮桥T116线-通用厂宿舍1号公变10kV跌落式熔断器后段","powerOffReason":"杭州桐庐桐君合岭4号公变等台区配变及改造工程","powerOffId":"2019080531020067"},{"poweroffId":2019080531020066,"sgpoweroffId":null,"subsName":"","lineName":"10kV桐君T112线","pubTranName":"桐庐皮革制品有限公司,","scope":"浙江省-杭州市-桐庐县-桐君街道-迎春社区-天和宾馆","startTime":"2019-08-13 08:00:00","stopDate":"2019-08-13 14:30:00","orgNo":"3340150","typeCode":"计划停电","poweroffArea":"110kV桐庐变:桐君T112线-天和2875线负荷开关1后段","poweroffReason":"杭州桐庐桐君联华站西弄856线新建环网箱工程","powerTime":"2019-08-13 14:08:02","powerComm":"已送电。","subsNo":"","lineNo":"","tgNo":"","tgName":null,"infoStatus":"1","orgName":"国网浙江桐庐县供电公司","typeName":null,"infoStatusName":null,"dateDay":null,"orgNos":null,"nowTime":null,"countyName":null,"streetName":null,"villageName":null,"roadName":null,"communityName":null,"tranName":null,"sdLineName":null,"cityCode":"3340150","cityName":"国网浙江桐庐县供电公司","provinceCode":null,"stopTime":"2019-08-13 14:30:00","powerType":"全部","powerOffArea":"110kV桐庐变:桐君T112线-天和2875线负荷开关1后段","powerOffReason":"杭州桐庐桐君联华站西弄856线新建环网箱工程","powerOffId":"2019080531020066"},{"poweroffId":2019080531020065,"sgpoweroffId":null,"subsName":"","lineName":"10kV上湖H710线","pubTranName":"1#,杭州恒立弹簧制造有限公司2#专变,","scope":"浙江省杭州市余杭区余杭街道：义桥工业城恒立弹簧厂一带","startTime":"2019-08-12 08:40:00","stopDate":"2019-08-12 11:00:21","orgNo":"3340140","typeCode":"临时停电","poweroffArea":"110kV余杭变:上湖H710线-恒立弹簧分线开关后段","poweroffReason":"计划工作 原停电结束时间11:30，因抢修力量充足，提前完成工作任务，现变更停电结束时间至11:00","powerTime":"2019-08-12 10:19:24","powerComm":"已送电","subsNo":"","lineNo":"","tgNo":"","tgName":null,"infoStatus":"1","orgName":"国网浙江杭州市余杭区供电有限公司","typeName":null,"infoStatusName":null,"dateDay":null,"orgNos":null,"nowTime":null,"countyName":null,"streetName":null,"villageName":null,"roadName":null,"communityName":null,"tranName":null,"sdLineName":null,"cityCode":"3340140","cityName":"国网浙江杭州市余杭区供电有限公司","provinceCode":null,"stopTime":"2019-08-12 11:00:21","powerType":"全部","powerOffArea":"110kV余杭变:上湖H710线-恒立弹簧分线开关后段","powerOffReason":"计划工作 原停电结束时间11:30，因抢修力量充足，提前完成工作任务，现变更停电结束时间至11:00","powerOffId":"2019080531020065"},{"poweroffId":2019080531020064,"sgpoweroffId":null,"subsName":"","lineName":"10kV小山H715线","pubTranName":"杭州市余杭区大禹小学,","scope":"浙江省杭州市余杭区余杭街道：洪桐村大禹小学永建校区一带","startTime":"2019-08-15 08:40:00","stopDate":"2019-08-15 16:30:00","orgNo":"3340140","typeCode":"计划停电","poweroffArea":"110kV余杭变:小山H715线-永建小学进线开关后段","poweroffReason":"计划工作","powerTime":"2019-08-15 15:52:33","powerComm":"已送电","subsNo":"","lineNo":"","tgNo":"","tgName":null,"infoStatus":"1","orgName":"国网浙江杭州市余杭区供电有限公司","typeName":null,"infoStatusName":null,"dateDay":null,"orgNos":null,"nowTime":null,"countyName":null,"streetName":null,"villageName":null,"roadName":null,"communityName":null,"tranName":null,"sdLineName":null,"cityCode":"3340140","cityName":"国网浙江杭州市余杭区供电有限公司","provinceCode":null,"stopTime":"2019-08-15 16:30:00","powerType":"全部","powerOffArea":"110kV余杭变:小山H715线-永建小学进线开关后段","powerOffReason":"计划工作","powerOffId":"2019080531020064"},{"poweroffId":2019080531020046,"sgpoweroffId":null,"subsName":"","lineName":"10kV五星H733线","pubTranName":"闲林村,立新三渣,1#变压器,2#,盈江机械,磊达石料,1#,闲林制钉厂,","scope":"浙江省-杭州市-余杭区-闲林街道(闲林村,杭州炬浙三渣拌和有限公司,杭州闲林五金制钉厂,杭州盈江机械制造有限公司,杭州久益机械股份有限公司)","startTime":"2019-08-05 09:30:00","stopDate":"2019-08-05 11:30:00","orgNo":"3340140","typeCode":"电网故障停限电","poweroffArea":"110kV闲林变:五星H733线朱家坞分线17#杆分段开关后段","poweroffReason":"高压开关跳闸","powerTime":"2019-08-05 10:33:00","powerComm":"已恢复送电","subsNo":"","lineNo":"","tgNo":"","tgName":null,"infoStatus":"1","orgName":"国网浙江杭州市余杭区供电有限公司","typeName":null,"infoStatusName":null,"dateDay":null,"orgNos":null,"nowTime":null,"countyName":null,"streetName":null,"villageName":null,"roadName":null,"communityName":null,"tranName":null,"sdLineName":null,"cityCode":"3340140","cityName":"国网浙江杭州市余杭区供电有限公司","provinceCode":null,"stopTime":"2019-08-05 11:30:00","powerType":"全部","powerOffArea":"110kV闲林变:五星H733线朱家坞分线17#杆分段开关后段","powerOffReason":"高压开关跳闸","powerOffId":"2019080531020046"},{"poweroffId":2019080531020038,"sgpoweroffId":null,"subsName":"","lineName":"10kV南市H740线","pubTranName":"闲林二小,闲林邮电,公交5#箱变(民丰站),天赋花苑(1)公变,医院公变,闲湖城D区基建1#,杭州万胜房地产开发有限公司,闲邮公变,宗浜斗南公变,民丰村蒋家桥公变,公交和睦路站,欣新(2)临时,闲富(1)公变,杭州万胜房地产开发有限公司,中市公变,交通能源,南市2#公变,闲湖城D区基建4#,民丰村横荆桥公变,闲林镇人民政府,闲湖城D区基建3#,嘉凯城基建变,快速公交4#箱变,闲富(2)公变,元宝池公变,民丰保庆桥,万胜房产2,米厂公变,杭州市余杭区闲林镇人民政府,民丰村太家庄公变,闲湖城D区基建2#,天赋花苑(2)公变,城市管理综合执法局,大许家埭,杭州东海春房地产开发有限公司,弗兰西斯1,杭州万胜房地产开发有限公司,南市3#公变,杭州盈江机械制造有限公司,公交6#箱变(闲林镇政府站),闲邮(2)公变,闲林街道,闲林镇新都公寓公变,交通能源,盈江机械,民丰村宗浜斗北,南市1#公变,","scope":"浙江省-杭州市-余杭区-闲林街道-方家山社区(社区,南市街,黄家路,中市街,闲富中路,学校路,闲富北路,闲林中路,西市街),闲林街道-民丰行政村(太家庄自然村,民丰自然村,蒋家桥自然村,大许家埭东自然村,大许家埭西自然村,横荆桥自然村,阮家埭自然村),闲林街道-闲林行政村(西市街,闲林中路,闲富中路,杨桥路),闲林街道(何母桥行政村-何母桥自然村,华丰行政村-茹家桥南自然村,联荣行政村-北山畈自然村);闲林街道(中国邮政集团公司杭州市余杭区分公司,杭州弗兰西斯服饰有限公司,杭州市余杭区人民政府闲林街道办事处,杭州市余杭区闲林镇中心小学,杭州盈江机械制造有限公司,杭州余杭杭石交通能源有限责任公司,杭州市余杭区城市管理综合行政执法局,杭州万胜房地产开发有限公司,杭州东海春房地产开发有限公司,杭州市公共交通集团有限公司,嘉凯城城镇化建设发展(余杭闲林)有限公司,杭州余杭闲林金祥五金厂一带","startTime":"2019-08-05 08:18:00","stopDate":"2019-08-05 14:00:00","orgNo":"3340140","typeCode":"电网故障停限电","poweroffArea":"110kV闲林变:南市H740线闲中开关站新林联线后段","poweroffReason":"南市H740线闲中开关站新林联线后段 电缆断线故障","powerTime":"2019-08-05 13:31:00","powerComm":"已送电","subsNo":"","lineNo":"","tgNo":"","tgName":null,"infoStatus":"1","orgName":"国网浙江杭州市余杭区供电有限公司","typeName":null,"infoStatusName":null,"dateDay":null,"orgNos":null,"nowTime":null,"countyName":null,"streetName":null,"villageName":null,"roadName":null,"communityName":null,"tranName":null,"sdLineName":null,"cityCode":"3340140","cityName":"国网浙江杭州市余杭区供电有限公司","provinceCode":null,"stopTime":"2019-08-05 14:00:00","powerType":"全部","powerOffArea":"110kV闲林变:南市H740线闲中开关站新林联线后段","powerOffReason":"南市H740线闲中开关站新林联线后段 电缆断线故障","powerOffId":"2019080531020038"}],"pageModel":{"pageNow":1319,"totalCount":17789,"totalPage":1779,"tableRows":0,"pageCount":10,"beginCount":13180},"isExperi":"1"}