{"message":"","today":"2020-06-16","seleList":[{"poweroffId":2019080331020002,"sgpoweroffId":null,"subsName":"","lineName":"10kV在城H701线","pubTranName":"永伟电器,江南雅居II段2#专变,南渠街2号公变,苕溪人家3-1号公变,苕溪人家1-2号公变,太炎路灯,太一工贸,通济公变,苕溪人家1-1号公变,苕溪人家2-2号公变,南渠街3号公变,余杭制水正式变,2号,百汇广场2号公变,永丰变,苕溪人家3-2号公变,县前公变,木排公变,紫辰花苑2号公变,木排2号公变,澄清1号公变,1#,大桥公变,农垦局,变压器3,1#,苕溪人家2-1号公变,苕溪人家(2)专变,北斗门公变,太炎小学,城关2号公变,超裕3#,馨华园3#,小东门公变,永丰塑料厂,南渠街1号公变,御景城1号公变,禹航商城4号公变,1＃,御景城4号公变,蓝源置业6120826083I段1#,紫辰花苑1号公变,军区教大2,1#,澄清2号公变,馨华园1#,千秋公变,2#,军区教大,余杭二院2#,勇程塑胶,苕溪2号公变,余杭供电所2号公变,新上馨华园2#基建变,万事通1#,百汇广场1号公变,杭州鑫湖置业有限公司2#专变（6120866423）,移动2#机站,","scope":"浙江省-杭州市-余杭区-余杭街道-上湖行政村(北门头自然村,太炎路),余杭街道-山西园社区(余昌路,安乐路,凤凰山路,禹航路),余杭街道-溪塔行政村(溪塔自然村,小东门路,溪塔村,刘王弄自然村),余杭街道-通济社区(通济路,太炎路,直街,新桥路,小东门路),余杭街道-南渠社区(南渠街,乌龙涧路,西险大塘,直街,余昌路,禹昌路,禹航路,南渠北路,狮山路),中泰街道(岑岭行政村-岑岭自然村,南峰行政村-南峰自然村),余杭街道(金星行政村-文一西路,仙宅行政村-仙宅自然村,凤凰山行政村-城南路,永安行政村-永安自然村,凤联社区-太炎路);余杭街道-上湖行政村(杭州余杭风机厂,杭州余杭农林南湖经营有限公司,杭州馨华园房地产开发有限公司),余杭街道-山西园社区(杭州蓝源置业有限公司,杭州余杭永伟电器有限公司,杭州市余杭区第二人民医院,杭州余杭制水有限公司,杭州鑫湖置业有限公司),余杭街道-通济社区(杭州余杭万事通线缆有限公司,杭州余杭溪塔股份经济合作社,华立科技股份有限公司,中国人民解放军73221部队,中国人民解放军七三二二一部队,杭州市余杭区余杭镇人民政府,杭州市余杭区余杭镇太炎小学,杭州通和物业管理有限公司,杭州市余杭文昌高级中学),余杭街道-南渠社区(杭州田螺物业服务有限公司,杭州道和物业管理有限公司余杭分公司,浙江金成物业管理有限公司杭州余杭分公司),余杭街道(溪塔行政村-杭州余杭溪塔股份经济合作社,华坞行政村-中国铁塔股份有限公司杭州市分公司)","startTime":"2019-08-03 05:14:50","stopDate":"2019-08-03 08:14:50","orgNo":"3340140","typeCode":"电网故障停限电","poweroffArea":"110kV余杭变:在城H701线","poweroffReason":"高压开关跳闸","powerTime":"2019-08-03 08:06:00","powerComm":"已送电","subsNo":"","lineNo":"","tgNo":"","tgName":null,"infoStatus":"1","orgName":"国网浙江杭州市余杭区供电有限公司","typeName":null,"infoStatusName":null,"dateDay":null,"orgNos":null,"nowTime":null,"countyName":null,"streetName":null,"villageName":null,"roadName":null,"communityName":null,"tranName":null,"sdLineName":null,"cityCode":"3340140","cityName":"国网浙江杭州市余杭区供电有限公司","provinceCode":null,"stopTime":"2019-08-03 08:14:50","powerType":"全部","powerOffArea":"110kV余杭变:在城H701线","powerOffReason":"高压开关跳闸","powerOffId":"2019080331020002"},{"poweroffId":2019080331020001,"sgpoweroffId":null,"subsName":"","lineName":"10kV杭千D427线","pubTranName":"浙江中医药大学中药饮片2#变压器,杭州美优乐科技有限公司,杭州德宝机电制造有限公司,杭州德宝机电制造有限公司 2#,杭州罗卡尼贸易有限公司,杭州吉众机电有限公司变压器,浙江中医药大学中药饮片有限公司,富阳航轩光电设备有限公司1#,杭州日崎印刷有限公司,民联村3#三段公变,富阳安益门业有限公司,杭州奇星通讯器材有限公司2#变,浙江万和贸易有限公司,杭州奇星通讯器材有限公司1#变,富阳航轩光电设备有限公司2#,民联村21号公变变压器,浙江省杭州市东洲街道东洲工业园,杭州浙起机械有限公司,杭州华宏通信设备有限公司,富阳航轩光电设备有限公司3#变,杭州富阳骏利电子有限公司,","scope":"浙江省-杭州市-富阳区-东洲街道-民联行政村-民联自然村;东洲街道(浙江同恒门业有限公司,杭州日崎印刷有限公司,杭州华宏通信设备有限公司,浙江中医药大学中药饮片有限公司,浙江德宝通讯科技股份有限公司,浙江航轩光电设备有限公司,杭州罗卡尼贸易有限公司,杭州大潮泵业制造有限公司,杭州普乐科技有限公司,杭州富阳骏利电子有限公司,杭州萱博健身器材有限公司,杭州吉众汽车部件有限公司,杭州吉众机电股份有限公司)","startTime":"2019-08-03 05:04:00","stopDate":"2019-08-03 07:04:00","orgNo":"3340170","typeCode":"电网故障停限电","poweroffArea":"110kV东洲变:杭千D427线七号路分线后段","poweroffReason":"高压开关跳闸","powerTime":"2019-08-03 06:06:32","powerComm":"已送电","subsNo":"","lineNo":"","tgNo":"","tgName":null,"infoStatus":"1","orgName":"国网浙江杭州市富阳区供电公司","typeName":null,"infoStatusName":null,"dateDay":null,"orgNos":null,"nowTime":null,"countyName":null,"streetName":null,"villageName":null,"roadName":null,"communityName":null,"tranName":null,"sdLineName":null,"cityCode":"3340170","cityName":"国网浙江杭州市富阳区供电公司","provinceCode":null,"stopTime":"2019-08-03 07:04:00","powerType":"全部","powerOffArea":"110kV东洲变:杭千D427线七号路分线后段","powerOffReason":"高压开关跳闸","powerOffId":"2019080331020001"},{"poweroffId":2019080331010129,"sgpoweroffId":null,"subsName":"","lineName":"10kV金西T263线","pubTranName":"周家3号公变,","scope":"浙江省-杭州市-桐庐县-城南街道(春江行政村-江联自然村、周家自然村);","startTime":"2019-08-03 15:53:54","stopDate":"2019-08-03 16:54:47","orgNo":"3340150","typeCode":"电网故障停限电","poweroffArea":"35kV三合变:金西T263线-周家3号公变后段","poweroffReason":"（低压停电信息）低压开关故障","powerTime":"2019-08-03 16:40:23","powerComm":"已送电","subsNo":"","lineNo":"","tgNo":"","tgName":null,"infoStatus":"1","orgName":"国网浙江桐庐县供电公司","typeName":null,"infoStatusName":null,"dateDay":null,"orgNos":null,"nowTime":null,"countyName":null,"streetName":null,"villageName":null,"roadName":null,"communityName":null,"tranName":null,"sdLineName":null,"cityCode":"3340150","cityName":"国网浙江桐庐县供电公司","provinceCode":null,"stopTime":"2019-08-03 16:54:47","powerType":"全部","powerOffArea":"35kV三合变:金西T263线-周家3号公变后段","powerOffReason":"（低压停电信息）低压开关故障","powerOffId":"2019080331010129"},{"poweroffId":2019080331010081,"sgpoweroffId":null,"subsName":"","lineName":"10kV锦华T331线","pubTranName":"桐庐悦达针织厂,桐庐鑫鹏服饰有限公司,桐庐汉邦塑料制品厂,","scope":"浙江省-杭州市-桐庐县-横村镇-(桐庐汉邦塑料制品厂,桐庐悦达针织厂,桐庐鑫鹏服饰有限公司，中国银行旁边一带);","startTime":"2019-08-03 12:07:04","stopDate":"2019-08-03 15:08:36","orgNo":"3340150","typeCode":"电网故障停限电","poweroffArea":"110kV横村变:锦华T331线-汉邦F1609后段","poweroffReason":"（低压停电信息）低压开关故障","powerTime":"2019-08-03 14:45:52","powerComm":"已送电","subsNo":"","lineNo":"","tgNo":"","tgName":null,"infoStatus":"1","orgName":"国网浙江桐庐县供电公司","typeName":null,"infoStatusName":null,"dateDay":null,"orgNos":null,"nowTime":null,"countyName":null,"streetName":null,"villageName":null,"roadName":null,"communityName":null,"tranName":null,"sdLineName":null,"cityCode":"3340150","cityName":"国网浙江桐庐县供电公司","provinceCode":null,"stopTime":"2019-08-03 15:08:36","powerType":"全部","powerOffArea":"110kV横村变:锦华T331线-汉邦F1609后段","powerOffReason":"（低压停电信息）低压开关故障","powerOffId":"2019080331010081"},{"poweroffId":2019080231020395,"sgpoweroffId":null,"subsName":"","lineName":"10kV交通D364线","pubTranName":"秋丰村11#湖南山2公变,","scope":"浙江省-杭州市-富阳区-富春街道-秋丰行政村-秋丰自然村","startTime":"2019-08-02 22:03:54","stopDate":"2019-08-02 23:03:54","orgNo":"3340170","typeCode":"电网故障停限电","poweroffArea":"110kV富鹿变:交通D364线-秋丰村11#湖南山2公变后段","poweroffReason":"(低压停电信息)低压开关跳闸","powerTime":"2019-08-02 22:37:16","powerComm":"已送电","subsNo":"","lineNo":"","tgNo":"","tgName":null,"infoStatus":"1","orgName":"国网浙江杭州市富阳区供电公司","typeName":null,"infoStatusName":null,"dateDay":null,"orgNos":null,"nowTime":null,"countyName":null,"streetName":null,"villageName":null,"roadName":null,"communityName":null,"tranName":null,"sdLineName":null,"cityCode":"3340170","cityName":"国网浙江杭州市富阳区供电公司","provinceCode":null,"stopTime":"2019-08-02 23:03:54","powerType":"全部","powerOffArea":"110kV富鹿变:交通D364线-秋丰村11#湖南山2公变后段","powerOffReason":"(低压停电信息)低压开关跳闸","powerOffId":"2019080231020395"},{"poweroffId":2019080231020394,"sgpoweroffId":null,"subsName":"","lineName":"20kV丰一B201线","pubTranName":"和美家6#公变,","scope":"浙江省-杭州市-萧山区-宁围镇-宁围街道-盈一行政村-市心北路、和美家、和美家小区、浙江省杭州市萧山区和美家小区等一带","startTime":"2019-08-02 21:50:09","stopDate":"2019-08-02 23:13:09","orgNo":"3340130","typeCode":"电网故障停限电","poweroffArea":"110kV顺丰变:丰一B201线-和美家6#公变台区低压开关","poweroffReason":"(低压停电信息)低压开关跳闸 原停电结束时间：23:59，变更停电结束时间：23:13，由于增派人员，抢修工作提前完成，故需要提前送电。","powerTime":"2019-08-02 22:31:19","powerComm":"已送电","subsNo":"","lineNo":"","tgNo":"","tgName":null,"infoStatus":"1","orgName":"国网浙江杭州市萧山区供电有限公司","typeName":null,"infoStatusName":null,"dateDay":null,"orgNos":null,"nowTime":null,"countyName":null,"streetName":null,"villageName":null,"roadName":null,"communityName":null,"tranName":null,"sdLineName":null,"cityCode":"3340130","cityName":"国网浙江杭州市萧山区供电有限公司","provinceCode":null,"stopTime":"2019-08-02 23:13:09","powerType":"全部","powerOffArea":"110kV顺丰变:丰一B201线-和美家6#公变台区低压开关","powerOffReason":"(低压停电信息)低压开关跳闸 原停电结束时间：23:59，变更停电结束时间：23:13，由于增派人员，抢修工作提前完成，故需要提前送电。","powerOffId":"2019080231020394"},{"poweroffId":2019080231020393,"sgpoweroffId":null,"subsName":"","lineName":"10kV明星D424线","pubTranName":"民建村1#东公变,","scope":"浙江省-杭州市-富阳区-东洲街道-建华行政村-民建自然村","startTime":"2019-08-02 20:57:21","stopDate":"2019-08-02 21:57:21","orgNo":"3340170","typeCode":"电网故障停限电","poweroffArea":"110kV东洲变:明星D424线-民建村1#东公变后段","poweroffReason":"(低压停电信息)低压开关跳闸","powerTime":"2019-08-02 21:37:06","powerComm":"已送电","subsNo":"","lineNo":"","tgNo":"","tgName":null,"infoStatus":"1","orgName":"国网浙江杭州市富阳区供电公司","typeName":null,"infoStatusName":null,"dateDay":null,"orgNos":null,"nowTime":null,"countyName":null,"streetName":null,"villageName":null,"roadName":null,"communityName":null,"tranName":null,"sdLineName":null,"cityCode":"3340170","cityName":"国网浙江杭州市富阳区供电公司","provinceCode":null,"stopTime":"2019-08-02 21:57:21","powerType":"全部","powerOffArea":"110kV东洲变:明星D424线-民建村1#东公变后段","powerOffReason":"(低压停电信息)低压开关跳闸","powerOffId":"2019080231020393"},{"poweroffId":2019080231020389,"sgpoweroffId":null,"subsName":"","lineName":"10kV施峰Y707线","pubTranName":"姜山村王圣堂台区,","scope":"浙江省-杭州市-建德市-梅城镇-姜山行政村-王圣堂自然村一带用户。","startTime":"2019-08-02 20:30:00","stopDate":"2019-08-02 21:30:00","orgNo":"3340180","typeCode":"电网故障停限电","poweroffArea":"110kV南峰变:施峰Y707线-姜山村王圣堂台区后段","poweroffReason":"(低压停电信息)低压总保跳闸 原预计停电结束时间22:40，目前故障已修复，现将停电时间变更至21:30。","powerTime":"2019-08-02 21:09:00","powerComm":"已送电","subsNo":"","lineNo":"","tgNo":"","tgName":null,"infoStatus":"1","orgName":"国网浙江建德市供电有限公司","typeName":null,"infoStatusName":null,"dateDay":null,"orgNos":null,"nowTime":null,"countyName":null,"streetName":null,"villageName":null,"roadName":null,"communityName":null,"tranName":null,"sdLineName":null,"cityCode":"3340180","cityName":"国网浙江建德市供电有限公司","provinceCode":null,"stopTime":"2019-08-02 21:30:00","powerType":"全部","powerOffArea":"110kV南峰变:施峰Y707线-姜山村王圣堂台区后段","powerOffReason":"(低压停电信息)低压总保跳闸 原预计停电结束时间22:40，目前故障已修复，现将停电时间变更至21:30。","powerOffId":"2019080231020389"},{"poweroffId":2019080231020388,"sgpoweroffId":null,"subsName":"","lineName":"10kV秋丰D985线","pubTranName":"秋丰村52号孙家垄公变,","scope":"浙江省-杭州市-富阳区-富春街道-秋丰行政村-秋丰自然村","startTime":"2019-08-02 20:08:06","stopDate":"2019-08-02 20:45:06","orgNo":"3340170","typeCode":"电网故障停限电","poweroffArea":"110kV育才变:秋丰D985线-秋丰村52号孙家垄公变后段","poweroffReason":"(低压停电信息)低压开关跳闸 原停电结束时间为2019-08-02 22:08:06，因现场抢修力量加强变更至2019-08-02 20:45:06","powerTime":"2019-08-02 20:25:02","powerComm":"已送电","subsNo":"","lineNo":"","tgNo":"","tgName":null,"infoStatus":"1","orgName":"国网浙江杭州市富阳区供电公司","typeName":null,"infoStatusName":null,"dateDay":null,"orgNos":null,"nowTime":null,"countyName":null,"streetName":null,"villageName":null,"roadName":null,"communityName":null,"tranName":null,"sdLineName":null,"cityCode":"3340170","cityName":"国网浙江杭州市富阳区供电公司","provinceCode":null,"stopTime":"2019-08-02 20:45:06","powerType":"全部","powerOffArea":"110kV育才变:秋丰D985线-秋丰村52号孙家垄公变后段","powerOffReason":"(低压停电信息)低压开关跳闸 原停电结束时间为2019-08-02 22:08:06，因现场抢修力量加强变更至2019-08-02 20:45:06","powerOffId":"2019080231020388"},{"poweroffId":2019080231020371,"sgpoweroffId":null,"subsName":"","lineName":"10kV滨北D369线","pubTranName":"周家弄1#公变,","scope":"浙江省-杭州市-富阳区-富春街道-鹳山社区(大寺弄,周家弄,桂花路,后河西路)","startTime":"2019-08-02 19:09:28","stopDate":"2019-08-02 20:30:28","orgNo":"3340170","typeCode":"电网故障停限电","poweroffArea":"110kV富鹿变:滨北D369线-周家弄1#公变后段","poweroffReason":"(低压停电信息)低压开关跳闸","powerTime":"2019-08-02 20:05:26","powerComm":"已送电","subsNo":"","lineNo":"","tgNo":"","tgName":null,"infoStatus":"1","orgName":"国网浙江杭州市富阳区供电公司","typeName":null,"infoStatusName":null,"dateDay":null,"orgNos":null,"nowTime":null,"countyName":null,"streetName":null,"villageName":null,"roadName":null,"communityName":null,"tranName":null,"sdLineName":null,"cityCode":"3340170","cityName":"国网浙江杭州市富阳区供电公司","provinceCode":null,"stopTime":"2019-08-02 20:30:28","powerType":"全部","powerOffArea":"110kV富鹿变:滨北D369线-周家弄1#公变后段","powerOffReason":"(低压停电信息)低压开关跳闸","powerOffId":"2019080231020371"}],"pageModel":{"pageNow":1327,"totalCount":17789,"totalPage":1779,"tableRows":0,"pageCount":10,"beginCount":13260},"isExperi":"1"}