{"message":"","today":"2020-06-16","seleList":[{"poweroffId":2019080231020248,"sgpoweroffId":null,"subsName":"","lineName":"10kV重阳G203线","pubTranName":"李家桥村钟家角公变,","scope":"浙江省杭州市余杭区塘栖镇:李家桥钟家角一带","startTime":"2019-08-13 07:00:00","stopDate":"2019-08-13 16:00:00","orgNo":"3340140","typeCode":"计划停电","poweroffArea":"110kV广济变重阳G203线李家桥村钟家角公变后段","poweroffReason":"(低压停电信息)低压线路改造","powerTime":"2019-08-13 15:50:00","powerComm":"工作完成","subsNo":"","lineNo":"","tgNo":"","tgName":null,"infoStatus":"1","orgName":"国网浙江杭州市余杭区供电有限公司","typeName":null,"infoStatusName":null,"dateDay":null,"orgNos":null,"nowTime":null,"countyName":null,"streetName":null,"villageName":null,"roadName":null,"communityName":null,"tranName":null,"sdLineName":null,"cityCode":"3340140","cityName":"国网浙江杭州市余杭区供电有限公司","provinceCode":null,"stopTime":"2019-08-13 16:00:00","powerType":"全部","powerOffArea":"110kV广济变重阳G203线李家桥村钟家角公变后段","powerOffReason":"(低压停电信息)低压线路改造","powerOffId":"2019080231020248"},{"poweroffId":2019080231020247,"sgpoweroffId":null,"subsName":"","lineName":"10kV兴旺D558线","pubTranName":"富阳市路灯安装维修管理所,","scope":"浙江省-杭州市-富阳区-富春街道-城东社区-杭州富阳城市照明工程有限公司","startTime":"2019-08-13 08:30:00","stopDate":"2019-08-13 12:30:00","orgNo":"3340170","typeCode":"计划停电","poweroffArea":"110kV春江变:兴旺D558线-富阳市路灯安装维修管理所后段","poweroffReason":"富春新天地综合体南侧线路拆改工程：兴旺一号开关站4#间隔路灯九线制作中间电缆接头一处；兴旺一号开关站4#间隔路灯九线至中间电缆接头电缆拆除改接至兴旺二号开关站5#间隔电缆搭接等工作。","powerTime":"2019-08-13 12:19:32","powerComm":"已送电","subsNo":"","lineNo":"","tgNo":"","tgName":null,"infoStatus":"1","orgName":"国网浙江杭州市富阳区供电公司","typeName":null,"infoStatusName":null,"dateDay":null,"orgNos":null,"nowTime":null,"countyName":null,"streetName":null,"villageName":null,"roadName":null,"communityName":null,"tranName":null,"sdLineName":null,"cityCode":"3340170","cityName":"国网浙江杭州市富阳区供电公司","provinceCode":null,"stopTime":"2019-08-13 12:30:00","powerType":"全部","powerOffArea":"110kV春江变:兴旺D558线-富阳市路灯安装维修管理所后段","powerOffReason":"富春新天地综合体南侧线路拆改工程：兴旺一号开关站4#间隔路灯九线制作中间电缆接头一处；兴旺一号开关站4#间隔路灯九线至中间电缆接头电缆拆除改接至兴旺二号开关站5#间隔电缆搭接等工作。","powerOffId":"2019080231020247"},{"poweroffId":2019080231020219,"sgpoweroffId":null,"subsName":"","lineName":"10kV闻家H292线","pubTranName":"瓶窑小学(崇化校区）,","scope":"浙江省杭州市余杭区瓶窑镇：瓶窑镇第一小学崇化校区一带","startTime":"2019-08-09 08:30:00","stopDate":"2019-08-09 17:00:52","orgNo":"3340140","typeCode":"临时停电","poweroffArea":"闻家H292线崇化小学分线","poweroffReason":"计划工作","powerTime":"2019-08-09 16:53:01","powerComm":"全部送电","subsNo":"","lineNo":"","tgNo":"","tgName":null,"infoStatus":"1","orgName":"国网浙江杭州市余杭区供电有限公司","typeName":null,"infoStatusName":null,"dateDay":null,"orgNos":null,"nowTime":null,"countyName":null,"streetName":null,"villageName":null,"roadName":null,"communityName":null,"tranName":null,"sdLineName":null,"cityCode":"3340140","cityName":"国网浙江杭州市余杭区供电有限公司","provinceCode":null,"stopTime":"2019-08-09 17:00:52","powerType":"全部","powerOffArea":"闻家H292线崇化小学分线","powerOffReason":"计划工作","powerOffId":"2019080231020219"},{"poweroffId":2019080231020217,"sgpoweroffId":null,"subsName":"","lineName":"10kV卞家H519线","pubTranName":"良琦投资,","scope":"浙江省杭州市余杭区瓶窑镇：杭州良琦投资有限公司一带","startTime":"2019-08-09 09:20:00","stopDate":"2019-08-09 12:20:00","orgNo":"3340140","typeCode":"临时停电","poweroffArea":"卞家H519线气门厂分线2号杆开关后段","poweroffReason":"计划工作","powerTime":"2019-08-09 12:16:32","powerComm":"全部送电","subsNo":"","lineNo":"","tgNo":"","tgName":null,"infoStatus":"1","orgName":"国网浙江杭州市余杭区供电有限公司","typeName":null,"infoStatusName":null,"dateDay":null,"orgNos":null,"nowTime":null,"countyName":null,"streetName":null,"villageName":null,"roadName":null,"communityName":null,"tranName":null,"sdLineName":null,"cityCode":"3340140","cityName":"国网浙江杭州市余杭区供电有限公司","provinceCode":null,"stopTime":"2019-08-09 12:20:00","powerType":"全部","powerOffArea":"卞家H519线气门厂分线2号杆开关后段","powerOffReason":"计划工作","powerOffId":"2019080231020217"},{"poweroffId":2019080231020216,"sgpoweroffId":null,"subsName":"","lineName":"10kV长征G032线","pubTranName":"运河镇双桥村李家坝东公变,","scope":"浙江省杭州市余杭区运河街道：双桥村李家坝东一带","startTime":"2019-08-16 07:00:00","stopDate":"2019-08-16 11:30:00","orgNo":"3340140","typeCode":"计划停电","poweroffArea":"110kV五杭变:长征G032线-运河镇双桥村李家坝东公变后段 因施工力量充足，原计划结束时间2019-08-16 16:00:00更改为2019-08-16 11:30:00","poweroffReason":"李家坝东公变增至400kVA 因施工力量充足，原计划结束时间2019-08-16 16:00:00更改为2019-08-16 11:30:00","powerTime":"2019-08-16 11:05:00","powerComm":"工作完成","subsNo":"","lineNo":"","tgNo":"","tgName":null,"infoStatus":"1","orgName":"国网浙江杭州市余杭区供电有限公司","typeName":null,"infoStatusName":null,"dateDay":null,"orgNos":null,"nowTime":null,"countyName":null,"streetName":null,"villageName":null,"roadName":null,"communityName":null,"tranName":null,"sdLineName":null,"cityCode":"3340140","cityName":"国网浙江杭州市余杭区供电有限公司","provinceCode":null,"stopTime":"2019-08-16 11:30:00","powerType":"全部","powerOffArea":"110kV五杭变:长征G032线-运河镇双桥村李家坝东公变后段 因施工力量充足，原计划结束时间2019-08-16 16:00:00更改为2019-08-16 11:30:00","powerOffReason":"李家坝东公变增至400kVA 因施工力量充足，原计划结束时间2019-08-16 16:00:00更改为2019-08-16 11:30:00","powerOffId":"2019080231020216"},{"poweroffId":2019080231020215,"sgpoweroffId":null,"subsName":"","lineName":"10kV鸿雁H802线","pubTranName":"余杭区五常中学,信用社,五常供服站公变,","scope":"浙江省杭州市余杭区五常街道:信用社、五常供服站公变、余杭区五常中学一带","startTime":"2019-08-17 08:40:00","stopDate":"2019-08-17 16:40:00","orgNo":"3340140","typeCode":"计划停电","poweroffArea":"鸿雁开关站鸿雁H802线五常中学分支箱分线","poweroffReason":"业扩工程（五常小学西溪校区增容工程）：鸿雁H802线原五常中线小学200kVA配变拆除，五常中学分线延伸1挡，新上开关新上630kVA箱变，五常中学分线1-4号杆调换导线，1号杆电杆校正。用户接入：杭州市余杭区五常中心小学入网搭接","powerTime":"2019-08-17 16:05:24","powerComm":"已送电。","subsNo":"","lineNo":"","tgNo":"","tgName":null,"infoStatus":"1","orgName":"国网浙江杭州市余杭区供电有限公司","typeName":null,"infoStatusName":null,"dateDay":null,"orgNos":null,"nowTime":null,"countyName":null,"streetName":null,"villageName":null,"roadName":null,"communityName":null,"tranName":null,"sdLineName":null,"cityCode":"3340140","cityName":"国网浙江杭州市余杭区供电有限公司","provinceCode":null,"stopTime":"2019-08-17 16:40:00","powerType":"全部","powerOffArea":"鸿雁开关站鸿雁H802线五常中学分支箱分线","powerOffReason":"业扩工程（五常小学西溪校区增容工程）：鸿雁H802线原五常中线小学200kVA配变拆除，五常中学分线延伸1挡，新上开关新上630kVA箱变，五常中学分线1-4号杆调换导线，1号杆电杆校正。用户接入：杭州市余杭区五常中心小学入网搭接","powerOffId":"2019080231020215"},{"poweroffId":2019080231020214,"sgpoweroffId":null,"subsName":"","lineName":"10kV世联H578线","pubTranName":"华东家禽交易中心变1#,华东家禽交易中心变2#,华东家禽交易中心变3#,","scope":"浙江省杭州市余杭区良渚街道：华东家禽交易中心一带","startTime":"2019-08-12 08:40:00","stopDate":"2019-08-12 15:10:00","orgNo":"3340140","typeCode":"计划停电","poweroffArea":"110kV南庄变:世联H578线-华东家禽交易中心后段 因施工力量加强原停电时间2019-08-12 17:40:00更改为2019-08-12 15:10:00","poweroffReason":"联华开关站I拼柜，良渚第二小学配电房400kVA增量至630kVA箱变工作。用户接入：良渚第二小学入网搭接。","powerTime":"2019-08-12 14:36:00","powerComm":"已送电","subsNo":"","lineNo":"","tgNo":"","tgName":null,"infoStatus":"1","orgName":"国网浙江杭州市余杭区供电有限公司","typeName":null,"infoStatusName":null,"dateDay":null,"orgNos":null,"nowTime":null,"countyName":null,"streetName":null,"villageName":null,"roadName":null,"communityName":null,"tranName":null,"sdLineName":null,"cityCode":"3340140","cityName":"国网浙江杭州市余杭区供电有限公司","provinceCode":null,"stopTime":"2019-08-12 15:10:00","powerType":"全部","powerOffArea":"110kV南庄变:世联H578线-华东家禽交易中心后段 因施工力量加强原停电时间2019-08-12 17:40:00更改为2019-08-12 15:10:00","powerOffReason":"联华开关站I拼柜，良渚第二小学配电房400kVA增量至630kVA箱变工作。用户接入：良渚第二小学入网搭接。","powerOffId":"2019080231020214"},{"poweroffId":2019080231020213,"sgpoweroffId":null,"subsName":"","lineName":"10kV东郊G104线","pubTranName":"市交通银行,临平第三幼儿园,月光苑3号公变,","scope":"浙江省杭州市余杭区南苑街道：月光苑小区、交通银行、临平第三幼儿园一带","startTime":"2019-08-13 07:00:00","stopDate":"2019-08-13 14:00:00","orgNo":"3340140","typeCode":"计划停电","poweroffArea":"110kV临平变:保健开关站东郊G104线交行分线。","poweroffReason":"临平三幼（本部）教育局电力扩容改造工程：临平三幼（本部）配电房250kVA增量至400kVA，10kV线路新电缆制作、试验、搭接工作、低压改造。","powerTime":"2019-08-13 13:32:05","powerComm":"施工结束","subsNo":"","lineNo":"","tgNo":"","tgName":null,"infoStatus":"1","orgName":"国网浙江杭州市余杭区供电有限公司","typeName":null,"infoStatusName":null,"dateDay":null,"orgNos":null,"nowTime":null,"countyName":null,"streetName":null,"villageName":null,"roadName":null,"communityName":null,"tranName":null,"sdLineName":null,"cityCode":"3340140","cityName":"国网浙江杭州市余杭区供电有限公司","provinceCode":null,"stopTime":"2019-08-13 14:00:00","powerType":"全部","powerOffArea":"110kV临平变:保健开关站东郊G104线交行分线。","powerOffReason":"临平三幼（本部）教育局电力扩容改造工程：临平三幼（本部）配电房250kVA增量至400kVA，10kV线路新电缆制作、试验、搭接工作、低压改造。","powerOffId":"2019080231020213"},{"poweroffId":2019080231020211,"sgpoweroffId":null,"subsName":"","lineName":"10kV勾庄H401线","pubTranName":"良渚大酒店,良渚街道中学公变,云华幼儿园,","scope":"浙江省杭州市余杭区良渚街道：良渚街道中学、良渚大酒店、云华幼儿园一带","startTime":"2019-08-13 09:40:00","stopDate":"2019-08-13 11:40:00","orgNo":"3340140","typeCode":"计划停电","poweroffArea":"35kV良渚变:勾庄H401线-成教中心分支箱分线后段","poweroffReason":"拆除良渚云华幼儿园配电房原200kVA，桥北开关站勾庄H401线待用G05间隔新上400kVA箱变工作。用户接入：良渚云华幼儿园入网搭接。","powerTime":"2019-08-13 11:12:47","powerComm":"已送电","subsNo":"","lineNo":"","tgNo":"","tgName":null,"infoStatus":"1","orgName":"国网浙江杭州市余杭区供电有限公司","typeName":null,"infoStatusName":null,"dateDay":null,"orgNos":null,"nowTime":null,"countyName":null,"streetName":null,"villageName":null,"roadName":null,"communityName":null,"tranName":null,"sdLineName":null,"cityCode":"3340140","cityName":"国网浙江杭州市余杭区供电有限公司","provinceCode":null,"stopTime":"2019-08-13 11:40:00","powerType":"全部","powerOffArea":"35kV良渚变:勾庄H401线-成教中心分支箱分线后段","powerOffReason":"拆除良渚云华幼儿园配电房原200kVA，桥北开关站勾庄H401线待用G05间隔新上400kVA箱变工作。用户接入：良渚云华幼儿园入网搭接。","powerOffId":"2019080231020211"},{"poweroffId":2019080231020210,"sgpoweroffId":null,"subsName":"","lineName":"10kV梅堰G670线","pubTranName":"梅堰小区十一号公变,九曲营路4号公变,临平二小,九曲营路3号公变,梅堰小区6号公变,","scope":"浙江省杭州市余杭区南苑街道：九曲营路小区、梅堰小区、临平二小一带","startTime":"2019-08-14 07:00:00","stopDate":"2019-08-14 14:00:00","orgNo":"3340140","typeCode":"计划停电","poweroffArea":"110kV南苑变:曲东开关站梅堰G670线梅堰分支箱分线。","poweroffReason":"临平二小教育局电力扩容改造工程:临平二小配电房400kVA增量至630kVA，10kV线路新电缆制作、试验、搭接工作、低压改造.","powerTime":"2019-08-14 13:31:50","powerComm":"施工结束","subsNo":"","lineNo":"","tgNo":"","tgName":null,"infoStatus":"1","orgName":"国网浙江杭州市余杭区供电有限公司","typeName":null,"infoStatusName":null,"dateDay":null,"orgNos":null,"nowTime":null,"countyName":null,"streetName":null,"villageName":null,"roadName":null,"communityName":null,"tranName":null,"sdLineName":null,"cityCode":"3340140","cityName":"国网浙江杭州市余杭区供电有限公司","provinceCode":null,"stopTime":"2019-08-14 14:00:00","powerType":"全部","powerOffArea":"110kV南苑变:曲东开关站梅堰G670线梅堰分支箱分线。","powerOffReason":"临平二小教育局电力扩容改造工程:临平二小配电房400kVA增量至630kVA，10kV线路新电缆制作、试验、搭接工作、低压改造.","powerOffId":"2019080231020210"}],"pageModel":{"pageNow":1329,"totalCount":17789,"totalPage":1779,"tableRows":0,"pageCount":10,"beginCount":13280},"isExperi":"1"}