{"message":"","today":"2020-06-16","seleList":[{"poweroffId":2019080231020175,"sgpoweroffId":null,"subsName":"","lineName":"10kV后周D554线","pubTranName":"春秋北路5#公变,","scope":"浙江省-杭州市-富阳区-富春街道-后周社区(春秋北路,振兴路)","startTime":"2019-08-12 08:00:00","stopDate":"2019-08-12 13:40:00","orgNo":"3340170","typeCode":"计划停电","poweroffArea":"110kV春江变:后周D554线-春秋北路5#公变后段","poweroffReason":"(低压停电信息)国网浙江富阳供电公司2019年客户计量装置建设与改造:10kV后周D554线，0.4kV春秋北路5#公变，2#开关1#出线-1T对0.KV96620041382)振兴路117号进行表箱改造及电缆敷设T接箱安装等工作","powerTime":"2019-08-12 13:10:28","powerComm":"已送电","subsNo":"","lineNo":"","tgNo":"","tgName":null,"infoStatus":"1","orgName":"国网浙江杭州市富阳区供电公司","typeName":null,"infoStatusName":null,"dateDay":null,"orgNos":null,"nowTime":null,"countyName":null,"streetName":null,"villageName":null,"roadName":null,"communityName":null,"tranName":null,"sdLineName":null,"cityCode":"3340170","cityName":"国网浙江杭州市富阳区供电公司","provinceCode":null,"stopTime":"2019-08-12 13:40:00","powerType":"全部","powerOffArea":"110kV春江变:后周D554线-春秋北路5#公变后段","powerOffReason":"(低压停电信息)国网浙江富阳供电公司2019年客户计量装置建设与改造:10kV后周D554线，0.4kV春秋北路5#公变，2#开关1#出线-1T对0.KV96620041382)振兴路117号进行表箱改造及电缆敷设T接箱安装等工作","powerOffId":"2019080231020175"},{"poweroffId":2019080231020174,"sgpoweroffId":null,"subsName":"","lineName":"10kV项家D512线","pubTranName":"小剡村4号前山坞公变,","scope":"浙江省杭州市富阳区常安镇小剡村一带","startTime":"2019-08-13 06:30:00","stopDate":"2019-08-13 12:10:00","orgNo":"3340170","typeCode":"计划停电","poweroffArea":"110kV常安变:项家D512线-小剡村4号前山坞公变低压开关后段","poweroffReason":"(低压停电信息)人工挖洞、人工立杆、拔杆、线路移位、改接、接户线改接等工作","powerTime":"2019-08-13 11:55:13","powerComm":"已送电","subsNo":"","lineNo":"","tgNo":"","tgName":null,"infoStatus":"1","orgName":"国网浙江杭州市富阳区供电公司","typeName":null,"infoStatusName":null,"dateDay":null,"orgNos":null,"nowTime":null,"countyName":null,"streetName":null,"villageName":null,"roadName":null,"communityName":null,"tranName":null,"sdLineName":null,"cityCode":"3340170","cityName":"国网浙江杭州市富阳区供电公司","provinceCode":null,"stopTime":"2019-08-13 12:10:00","powerType":"全部","powerOffArea":"110kV常安变:项家D512线-小剡村4号前山坞公变低压开关后段","powerOffReason":"(低压停电信息)人工挖洞、人工立杆、拔杆、线路移位、改接、接户线改接等工作","powerOffId":"2019080231020174"},{"poweroffId":2019080231020172,"sgpoweroffId":null,"subsName":"","lineName":"10kV宫前D603线","pubTranName":"东前村溪东1#溪东公变,","scope":"浙江省杭州市富阳区大源镇东前村溪东村一带","startTime":"2019-08-13 07:00:00","stopDate":"2019-08-13 12:40:00","orgNo":"3340170","typeCode":"计划停电","poweroffArea":"35kV溪东变:宫前D603线-东前村溪东1#溪东公变低压开关后段","poweroffReason":"(低压停电信息)江南2019年山建村5#新区公变等台区低压线路改造工程架设导线、接户线搭接等工作","powerTime":"2019-08-13 12:25:43","powerComm":"已送电","subsNo":"","lineNo":"","tgNo":"","tgName":null,"infoStatus":"1","orgName":"国网浙江杭州市富阳区供电公司","typeName":null,"infoStatusName":null,"dateDay":null,"orgNos":null,"nowTime":null,"countyName":null,"streetName":null,"villageName":null,"roadName":null,"communityName":null,"tranName":null,"sdLineName":null,"cityCode":"3340170","cityName":"国网浙江杭州市富阳区供电公司","provinceCode":null,"stopTime":"2019-08-13 12:40:00","powerType":"全部","powerOffArea":"35kV溪东变:宫前D603线-东前村溪东1#溪东公变低压开关后段","powerOffReason":"(低压停电信息)江南2019年山建村5#新区公变等台区低压线路改造工程架设导线、接户线搭接等工作","powerOffId":"2019080231020172"},{"poweroffId":2019080231020171,"sgpoweroffId":null,"subsName":"","lineName":"10kV兰庄D604线","pubTranName":"东前村宫前3号庙前畈公变,","scope":"浙江省杭州市富阳区大源镇东前村庙前畈村一带","startTime":"2019-08-14 07:00:00","stopDate":"2019-08-14 12:40:00","orgNo":"3340170","typeCode":"计划停电","poweroffArea":"35kV溪东变:兰庄D604线-东前村宫前3号庙前畈低压开关公变后段","poweroffReason":"(低压停电信息)江南2019年山建村5#新区公变等台区低压线路改造工程拆装导线6档、接户线搭接等工作","powerTime":"2019-08-14 12:26:28","powerComm":"已送电","subsNo":"","lineNo":"","tgNo":"","tgName":null,"infoStatus":"1","orgName":"国网浙江杭州市富阳区供电公司","typeName":null,"infoStatusName":null,"dateDay":null,"orgNos":null,"nowTime":null,"countyName":null,"streetName":null,"villageName":null,"roadName":null,"communityName":null,"tranName":null,"sdLineName":null,"cityCode":"3340170","cityName":"国网浙江杭州市富阳区供电公司","provinceCode":null,"stopTime":"2019-08-14 12:40:00","powerType":"全部","powerOffArea":"35kV溪东变:兰庄D604线-东前村宫前3号庙前畈低压开关公变后段","powerOffReason":"(低压停电信息)江南2019年山建村5#新区公变等台区低压线路改造工程拆装导线6档、接户线搭接等工作","powerOffId":"2019080231020171"},{"poweroffId":2019080231020170,"sgpoweroffId":null,"subsName":"","lineName":"10kV建华D852线","pubTranName":"山建村4#章家桥头公变,","scope":"浙江省杭州市富阳区春江街道山建村章家桥村一带","startTime":"2019-08-15 07:00:00","stopDate":"2019-08-15 12:40:00","orgNo":"3340170","typeCode":"计划停电","poweroffArea":"110kV华共变:建华D852线-山建村4#章家桥头公变低压开关后段","poweroffReason":"(低压停电信息)江南2019年山建村5#新区公变等台区低压线路改造工程拆装导线、搭接等工作","powerTime":"2019-08-15 12:30:18","powerComm":"已送电","subsNo":"","lineNo":"","tgNo":"","tgName":null,"infoStatus":"1","orgName":"国网浙江杭州市富阳区供电公司","typeName":null,"infoStatusName":null,"dateDay":null,"orgNos":null,"nowTime":null,"countyName":null,"streetName":null,"villageName":null,"roadName":null,"communityName":null,"tranName":null,"sdLineName":null,"cityCode":"3340170","cityName":"国网浙江杭州市富阳区供电公司","provinceCode":null,"stopTime":"2019-08-15 12:40:00","powerType":"全部","powerOffArea":"110kV华共变:建华D852线-山建村4#章家桥头公变低压开关后段","powerOffReason":"(低压停电信息)江南2019年山建村5#新区公变等台区低压线路改造工程拆装导线、搭接等工作","powerOffId":"2019080231020170"},{"poweroffId":2019080231020164,"sgpoweroffId":null,"subsName":"","lineName":"10kV建华D852线","pubTranName":"山建村3#老区公变,","scope":"浙江省杭州市富阳区春江街道山建村一带","startTime":"2019-08-16 07:00:00","stopDate":"2019-08-16 12:40:00","orgNo":"3340170","typeCode":"计划停电","poweroffArea":"110kV华共变:建华D852线-山建村3#老区公变低压开关后段","poweroffReason":"(低压停电信息)江南2019年山建村5#新区公变等台区低压线路改造工程安装横担拉线、架线2档、拆架导线2档、接户线搭接等工作","powerTime":"2019-08-16 12:10:27","powerComm":"已送电","subsNo":"","lineNo":"","tgNo":"","tgName":null,"infoStatus":"1","orgName":"国网浙江杭州市富阳区供电公司","typeName":null,"infoStatusName":null,"dateDay":null,"orgNos":null,"nowTime":null,"countyName":null,"streetName":null,"villageName":null,"roadName":null,"communityName":null,"tranName":null,"sdLineName":null,"cityCode":"3340170","cityName":"国网浙江杭州市富阳区供电公司","provinceCode":null,"stopTime":"2019-08-16 12:40:00","powerType":"全部","powerOffArea":"110kV华共变:建华D852线-山建村3#老区公变低压开关后段","powerOffReason":"(低压停电信息)江南2019年山建村5#新区公变等台区低压线路改造工程安装横担拉线、架线2档、拆架导线2档、接户线搭接等工作","powerOffId":"2019080231020164"},{"poweroffId":2019080231020163,"sgpoweroffId":null,"subsName":"","lineName":"10kV云峰6483线","pubTranName":"三堡(2)农,","scope":"浙江省-杭州市-江干区(九堡镇-八堡社区-八堡路,彭埠镇-彭埠社区-运河东路)彭埠镇彭埠社区运河东路与杭海路口路灯，九堡镇八堡社区八堡村胜稼路社区卫生院消防备用","startTime":"2019-08-15 09:30:00","stopDate":"2019-08-15 12:30:00","orgNo":"3340101","typeCode":"计划停电","poweroffArea":"110kV五福变:云峰6483线-三堡(2)农后段","poweroffReason":"(低压停电信息)三堡（2）农配变进线路径消缺工作","powerTime":"2019-08-15 12:20:59","powerComm":"已送电","subsNo":"","lineNo":"","tgNo":"","tgName":null,"infoStatus":"1","orgName":"浙江杭州电力客户服务中心","typeName":null,"infoStatusName":null,"dateDay":null,"orgNos":null,"nowTime":null,"countyName":null,"streetName":null,"villageName":null,"roadName":null,"communityName":null,"tranName":null,"sdLineName":null,"cityCode":"3340101","cityName":"浙江杭州电力客户服务中心","provinceCode":null,"stopTime":"2019-08-15 12:30:00","powerType":"全部","powerOffArea":"110kV五福变:云峰6483线-三堡(2)农后段","powerOffReason":"(低压停电信息)三堡（2）农配变进线路径消缺工作","powerOffId":"2019080231020163"},{"poweroffId":2019080231020161,"sgpoweroffId":null,"subsName":"","lineName":"10kV沈奇9421线","pubTranName":"半灯,半施,塘供,皋亭经施2#,河道1#,精蕙,省送,河风,再生,皋亭经施1#,城建,市房,金昌汽车2#,善贤(3),河道2#,金昌汽车1#,","scope":"浙江省-杭州市-拱墅区-和睦街道-化纤社区-湖州街;浙江省-杭州市-拱墅区-上塘街道-杭州皋亭股份经济合作社,半山街道-半山社区(浙江元通元瑞汽车有限公司,杭州上塘河风情小镇物业管理有限公司),上塘街道-皋亭社区(杭州皋亭股份经济合作社,杭州市市政工程集团有限公司,浙江五菱汽车销售服务有限公司,杭州欧宝机电有限公司,杭州市路灯管理所,浙江金昌汽车集团有限公司),上塘街道-善贤社区(杭州新奇特汽车服务有限公司,杭州市路桥集团股份有限公司)","startTime":"2019-08-02 13:32:51","stopDate":"2019-08-02 15:00:00","orgNo":"3340101","typeCode":"电网故障停限电","poweroffArea":"110kV石桥变:沈奇9421线","poweroffReason":"高压开关跳闸 原预计停电结束时间:15:32:51,由于施工现场环境比较复杂，存在不确定因素，因此预估施工时间适当放长了，而实际施工进行得比较顺利，因此提前送电了","powerTime":"2019-08-02 14:12:17","powerComm":"送电","subsNo":"","lineNo":"","tgNo":"","tgName":null,"infoStatus":"1","orgName":"浙江杭州电力客户服务中心","typeName":null,"infoStatusName":null,"dateDay":null,"orgNos":null,"nowTime":null,"countyName":null,"streetName":null,"villageName":null,"roadName":null,"communityName":null,"tranName":null,"sdLineName":null,"cityCode":"3340101","cityName":"浙江杭州电力客户服务中心","provinceCode":null,"stopTime":"2019-08-02 15:00:00","powerType":"全部","powerOffArea":"110kV石桥变:沈奇9421线","powerOffReason":"高压开关跳闸 原预计停电结束时间:15:32:51,由于施工现场环境比较复杂，存在不确定因素，因此预估施工时间适当放长了，而实际施工进行得比较顺利，因此提前送电了","powerOffId":"2019080231020161"},{"poweroffId":2019080231020157,"sgpoweroffId":null,"subsName":"","lineName":"10kV东横8066线","pubTranName":"横塘(8)农,横塘(8-5)农,","scope":"浙江省杭州市江干区横塘村十一组20号附近一带","startTime":"2019-08-23 09:00:00","stopDate":"2019-08-23 13:30:00","orgNo":"3340101","typeCode":"计划停电","poweroffArea":"110kV东站变:东横8066线横塘（8）农、（8-5）农低压","poweroffReason":"(低压停电信息)三村、宣家埠线路、接户线改造工程（宏迅）横塘（8）农、（8-5）农.原停电结束时间17:30、变更停电结束时间13:30原因由于施工现场环境比较复杂，存在不确定因素，因此预估施工时间适当放长了，而实际施工进行得比较顺利，因此该工作提前结束。","powerTime":"2019-08-23 12:45:59","powerComm":"已送电","subsNo":"","lineNo":"","tgNo":"","tgName":null,"infoStatus":"1","orgName":"浙江杭州电力客户服务中心","typeName":null,"infoStatusName":null,"dateDay":null,"orgNos":null,"nowTime":null,"countyName":null,"streetName":null,"villageName":null,"roadName":null,"communityName":null,"tranName":null,"sdLineName":null,"cityCode":"3340101","cityName":"浙江杭州电力客户服务中心","provinceCode":null,"stopTime":"2019-08-23 13:30:00","powerType":"全部","powerOffArea":"110kV东站变:东横8066线横塘（8）农、（8-5）农低压","powerOffReason":"(低压停电信息)三村、宣家埠线路、接户线改造工程（宏迅）横塘（8）农、（8-5）农.原停电结束时间17:30、变更停电结束时间13:30原因由于施工现场环境比较复杂，存在不确定因素，因此预估施工时间适当放长了，而实际施工进行得比较顺利，因此该工作提前结束。","powerOffId":"2019080231020157"},{"poweroffId":2019080231020156,"sgpoweroffId":null,"subsName":"","lineName":"10kV东横8066线","pubTranName":"横塘（8-2）农,横塘(8-7)农,","scope":"浙江省杭州市江干区横塘村九组35号附近一带","startTime":"2019-08-22 09:00:00","stopDate":"2019-08-22 15:00:00","orgNo":"3340101","typeCode":"计划停电","poweroffArea":"110kV东站变:东横8066线横塘（8-2）农、（8-7）农低压","poweroffReason":"(低压停电信息)三村、宣家埠线路、（宏迅） 横塘（8-2）农、（8-7）农。原停电结束时间17:30、变更停电结束时间15:00原因由于施工现场环境比较复杂，存在不确定因素，因此预估施工时间适当放长了，而实际施工进行得比较顺利，因此该工作提前结束。","powerTime":"2019-08-22 14:24:59","powerComm":"已送电","subsNo":"","lineNo":"","tgNo":"","tgName":null,"infoStatus":"1","orgName":"浙江杭州电力客户服务中心","typeName":null,"infoStatusName":null,"dateDay":null,"orgNos":null,"nowTime":null,"countyName":null,"streetName":null,"villageName":null,"roadName":null,"communityName":null,"tranName":null,"sdLineName":null,"cityCode":"3340101","cityName":"浙江杭州电力客户服务中心","provinceCode":null,"stopTime":"2019-08-22 15:00:00","powerType":"全部","powerOffArea":"110kV东站变:东横8066线横塘（8-2）农、（8-7）农低压","powerOffReason":"(低压停电信息)三村、宣家埠线路、（宏迅） 横塘（8-2）农、（8-7）农。原停电结束时间17:30、变更停电结束时间15:00原因由于施工现场环境比较复杂，存在不确定因素，因此预估施工时间适当放长了，而实际施工进行得比较顺利，因此该工作提前结束。","powerOffId":"2019080231020156"}],"pageModel":{"pageNow":1331,"totalCount":17789,"totalPage":1779,"tableRows":0,"pageCount":10,"beginCount":13300},"isExperi":"1"}