{"message":"","today":"2020-06-15","seleList":[{"poweroffId":2020052031020120,"sgpoweroffId":null,"subsName":"","lineName":"10kV航坞C473线","pubTranName":"瓜沥镇机场安置区14#变,","scope":"浙江省-杭州市-萧山区-瓜沥镇-友谊行政村-友谊路,瓜沥镇-城中社区(东灵路,友谊自然村,塘北中路北巷,东灵北路,塘北中路,友谊路)等","startTime":"2020-05-20 09:30:44","stopDate":"2020-05-20 15:30:44","orgNo":"3340130","typeCode":"电网故障停限电","poweroffArea":"35kV塘头变:航坞C473线-瓜沥镇机场安置区14#变后段","poweroffReason":"(低压停电信息)低压开关跳闸 原停电结束时间为2020-05-20 17:10:44,为减少客户停电时间,加快工作进度,提前送电,现变更停电结束时间为2020-05-20 15:30:44","powerTime":"2020-05-20 14:42:31","powerComm":"已送电","subsNo":"","lineNo":"","tgNo":"","tgName":null,"infoStatus":"1","orgName":"国网浙江杭州市萧山区供电有限公司","typeName":null,"infoStatusName":null,"dateDay":null,"orgNos":null,"nowTime":null,"countyName":null,"streetName":null,"villageName":null,"roadName":null,"communityName":null,"tranName":null,"sdLineName":null,"cityCode":"3340130","cityName":"国网浙江杭州市萧山区供电有限公司","provinceCode":null,"stopTime":"2020-05-20 15:30:44","powerType":"全部","powerOffArea":"35kV塘头变:航坞C473线-瓜沥镇机场安置区14#变后段","powerOffReason":"(低压停电信息)低压开关跳闸 原停电结束时间为2020-05-20 17:10:44,为减少客户停电时间,加快工作进度,提前送电,现变更停电结束时间为2020-05-20 15:30:44","powerOffId":"2020052031020120"},{"poweroffId":2020052031020111,"sgpoweroffId":null,"subsName":"","lineName":"10kV县府T452线","pubTranName":"瑶琳嘉苑3号公变,","scope":"浙江省-杭州市-桐庐县-城南街道-下杭社区-迎春南路","startTime":"2020-05-20 09:09:00","stopDate":"2020-05-20 16:00:00","orgNo":"3340150","typeCode":"电网故障停限电","poweroffArea":"110kV下杭变:县府T452线瑶琳嘉苑3号公变配变","poweroffReason":"高压开关跳闸","powerTime":"2020-05-20 15:38:52","powerComm":"已送电","subsNo":"","lineNo":"","tgNo":"","tgName":null,"infoStatus":"1","orgName":"国网浙江桐庐县供电公司","typeName":null,"infoStatusName":null,"dateDay":null,"orgNos":null,"nowTime":null,"countyName":null,"streetName":null,"villageName":null,"roadName":null,"communityName":null,"tranName":null,"sdLineName":null,"cityCode":"3340150","cityName":"国网浙江桐庐县供电公司","provinceCode":null,"stopTime":"2020-05-20 16:00:00","powerType":"全部","powerOffArea":"110kV下杭变:县府T452线瑶琳嘉苑3号公变配变","powerOffReason":"高压开关跳闸","powerOffId":"2020052031020111"},{"poweroffId":2020052031020110,"sgpoweroffId":null,"subsName":"","lineName":"10kV明月V482线","pubTranName":"环北路4＃公变,","scope":"浙江省-杭州市-临安市-锦城街道-环北路（环北路与西墅街）交叉以北附近","startTime":"2020-05-28 07:50:00","stopDate":"2020-05-28 15:20:00","orgNo":"3340160","typeCode":"计划停电","poweroffArea":"110kV平山变:明月V482线-环北路4＃公变低压总闸刀后段","poweroffReason":"(低压停电信息)低压线路改接 原停电结束时间为2020-05-28 16:30:00,为减少客户停电时间,加快工作进度,提前送电,现变更停电结束时间为2020-05-28 15:20:00","powerTime":"2020-05-28 14:43:58","powerComm":"已送电","subsNo":"","lineNo":"","tgNo":"","tgName":null,"infoStatus":"1","orgName":"国网浙江临安市供电公司","typeName":null,"infoStatusName":null,"dateDay":null,"orgNos":null,"nowTime":null,"countyName":null,"streetName":null,"villageName":null,"roadName":null,"communityName":null,"tranName":null,"sdLineName":null,"cityCode":"3340160","cityName":"国网浙江临安市供电公司","provinceCode":null,"stopTime":"2020-05-28 15:20:00","powerType":"全部","powerOffArea":"110kV平山变:明月V482线-环北路4＃公变低压总闸刀后段","powerOffReason":"(低压停电信息)低压线路改接 原停电结束时间为2020-05-28 16:30:00,为减少客户停电时间,加快工作进度,提前送电,现变更停电结束时间为2020-05-28 15:20:00","powerOffId":"2020052031020110"},{"poweroffId":2020052031020040,"sgpoweroffId":null,"subsName":"","lineName":"10kV东莲H536线","pubTranName":"卓雅商业6120006063,金味香料,新余宏,1,依丝宝,盛达精密611107825901#专变,","scope":"浙江省-杭州市-余杭区-瓶窑镇-华兴社区-浙江金味香料有限公司,瓶窑镇-凤都行政村(杭州结达激光刀模有限公司,杭州强立机械有限公司,杭州卓雅商业展具有限公司,杭州盛达精密压铸厂,杭州利富豪机电设备有限公司)","startTime":"2020-05-20 07:56:00","stopDate":"2020-05-20 12:30:00","orgNo":"3340140","typeCode":"电网故障停限电","poweroffArea":"110kV凤山变:东莲H536线-香格H521线飞舟车业分线开关后段","poweroffReason":"高压开关跳闸","powerTime":"2020-05-20 11:31:10","powerComm":"已送电","subsNo":"","lineNo":"","tgNo":"","tgName":null,"infoStatus":"1","orgName":"国网浙江杭州市余杭区供电有限公司","typeName":null,"infoStatusName":null,"dateDay":null,"orgNos":null,"nowTime":null,"countyName":null,"streetName":null,"villageName":null,"roadName":null,"communityName":null,"tranName":null,"sdLineName":null,"cityCode":"3340140","cityName":"国网浙江杭州市余杭区供电有限公司","provinceCode":null,"stopTime":"2020-05-20 12:30:00","powerType":"全部","powerOffArea":"110kV凤山变:东莲H536线-香格H521线飞舟车业分线开关后段","powerOffReason":"高压开关跳闸","powerOffId":"2020052031020040"},{"poweroffId":2020052031020012,"sgpoweroffId":null,"subsName":"","lineName":"10kV邱东H761线","pubTranName":"1#变压器,中国铁塔股份有限公司杭州市分公司,1#变压器,1#变压器,杭州未来科技城建设有限公司,","scope":"浙江省-杭州市-余杭区-仓前街道-杭州未来科技城建设有限公司,五常街道(中国铁塔股份有限公司杭州市分公司,杭州市市政工程集团有限公司,中国电信股份有限公司浙江网络科技分公司)","startTime":"2020-05-20 05:02:00","stopDate":"2020-05-20 08:02:00","orgNo":"3340140","typeCode":"电网故障停限电","poweroffArea":"110kV五常变:邱东H761线通新分线7号杆开关后段","poweroffReason":"高压开关跳闸","powerTime":"2020-05-20 07:48:00","powerComm":"已送电","subsNo":"","lineNo":"","tgNo":"","tgName":null,"infoStatus":"1","orgName":"国网浙江杭州市余杭区供电有限公司","typeName":null,"infoStatusName":null,"dateDay":null,"orgNos":null,"nowTime":null,"countyName":null,"streetName":null,"villageName":null,"roadName":null,"communityName":null,"tranName":null,"sdLineName":null,"cityCode":"3340140","cityName":"国网浙江杭州市余杭区供电有限公司","provinceCode":null,"stopTime":"2020-05-20 08:02:00","powerType":"全部","powerOffArea":"110kV五常变:邱东H761线通新分线7号杆开关后段","powerOffReason":"高压开关跳闸","powerOffId":"2020052031020012"},{"poweroffId":2020052031020010,"sgpoweroffId":null,"subsName":"","lineName":"10kV中丰9623线","pubTranName":"华翠（四）,","scope":"浙江省-杭州市-下城区-石桥街道(华中社区-华丰路,华丰社区-太公街)","startTime":"2020-05-20 04:15:00","stopDate":"2020-05-20 08:15:00","orgNo":"3340101","typeCode":"电网故障停限电","poweroffArea":"110kV华丰变:中丰9623线华翠（四）配变","poweroffReason":"高压开关跳闸","powerTime":"2020-05-20 07:16:51","powerComm":"已送电","subsNo":"","lineNo":"","tgNo":"","tgName":null,"infoStatus":"1","orgName":"浙江杭州电力客户服务中心","typeName":null,"infoStatusName":null,"dateDay":null,"orgNos":null,"nowTime":null,"countyName":null,"streetName":null,"villageName":null,"roadName":null,"communityName":null,"tranName":null,"sdLineName":null,"cityCode":"3340101","cityName":"浙江杭州电力客户服务中心","provinceCode":null,"stopTime":"2020-05-20 08:15:00","powerType":"全部","powerOffArea":"110kV华丰变:中丰9623线华翠（四）配变","powerOffReason":"高压开关跳闸","powerOffId":"2020052031020010"},{"poweroffId":2020052031020008,"sgpoweroffId":null,"subsName":"","lineName":"10kV丁桥8458线","pubTranName":"制板永丰,制板地铁,商业,二小2#,","scope":"浙江省-杭州市-下城区-石桥街道-永丰经济合作社,石桥街道-华丰社区(杭州市地铁集团有限责任公司,浙江商业机械厂有限公司,杭州市求知小学)","startTime":"2020-05-20 03:22:00","stopDate":"2020-05-20 17:10:00","orgNo":"3340101","typeCode":"电网故障停限电","poweroffArea":"110kV永宁变:丁桥8458线制板分线后段","poweroffReason":"高压开关跳闸 原停电结束时间为2020-05-20 08:22:00,因施工现场环境比较复杂，存在不确定因素，因此预估施工时间不足的原因,延迟送电,现变更停电结束时间为2020-05-20 17:10:00","powerTime":"2020-05-20 16:42:29","powerComm":"已送电","subsNo":"","lineNo":"","tgNo":"","tgName":null,"infoStatus":"1","orgName":"浙江杭州电力客户服务中心","typeName":null,"infoStatusName":null,"dateDay":null,"orgNos":null,"nowTime":null,"countyName":null,"streetName":null,"villageName":null,"roadName":null,"communityName":null,"tranName":null,"sdLineName":null,"cityCode":"3340101","cityName":"浙江杭州电力客户服务中心","provinceCode":null,"stopTime":"2020-05-20 17:10:00","powerType":"全部","powerOffArea":"110kV永宁变:丁桥8458线制板分线后段","powerOffReason":"高压开关跳闸 原停电结束时间为2020-05-20 08:22:00,因施工现场环境比较复杂，存在不确定因素，因此预估施工时间不足的原因,延迟送电,现变更停电结束时间为2020-05-20 17:10:00","powerOffId":"2020052031020008"},{"poweroffId":2020052031020007,"sgpoweroffId":null,"subsName":"","lineName":"10kV回龙8460线","pubTranName":"嘉枫（十四）,嘉枫（十）,嘉枫（十六）,嘉枫（四）,嘉枫（十二）,嘉枫（六）,嘉枫（二）,嘉枫（八）,","scope":"浙江省-杭州市-下城区-石桥街道-华中社区-桦枫居小区,石桥街道-华丰社区(嘉里桦枫居小区,桦枫居小区,桦枫居,华丰路)","startTime":"2020-05-20 03:20:00","stopDate":"2020-05-20 08:20:00","orgNo":"3340101","typeCode":"电网故障停限电","poweroffArea":"110kV永宁变:回龙8460线桦居站里居84601线后段","poweroffReason":"高压开关跳闸","powerTime":"2020-05-20 07:21:13","powerComm":"已送电","subsNo":"","lineNo":"","tgNo":"","tgName":null,"infoStatus":"1","orgName":"浙江杭州电力客户服务中心","typeName":null,"infoStatusName":null,"dateDay":null,"orgNos":null,"nowTime":null,"countyName":null,"streetName":null,"villageName":null,"roadName":null,"communityName":null,"tranName":null,"sdLineName":null,"cityCode":"3340101","cityName":"浙江杭州电力客户服务中心","provinceCode":null,"stopTime":"2020-05-20 08:20:00","powerType":"全部","powerOffArea":"110kV永宁变:回龙8460线桦居站里居84601线后段","powerOffReason":"高压开关跳闸","powerOffId":"2020052031020007"},{"poweroffId":2020052031020006,"sgpoweroffId":null,"subsName":"","lineName":"10kV万泉D738线","pubTranName":"杭州富阳生威新能源科技公司2#,昌东村众甫7#大塘畈公变,澳海澜庭4号公变,富阳市昌隆塑料有限公司,杭州森诚建材科技有限公司1#变,澳海澜庭3号公变,昌东村众甫3#大塘坞公变,松溪村军堰1#干河公变,1#,松溪村藻山1#长山畈公变,澳海澜庭5号公变,洪明电瓶商店,上山村上山2号万泉路公变,杭州双晟能源科技有限公司变压器,小六石1#变,富阳市富春街道贝山矿粉加工厂,杭州市富阳区新登镇人民政府1#变,澳海澜庭1号公变,上山村上山4#吴家公变,杭州富阳新诚美物业管理有限公司,松溪村军堰2号金鸡亭公变,昌鑫化工经营部,富阳日兴耐磨材料有限公司,澳海澜庭8号公变,澳海澜庭6号公变,浙江杭州石油分公司,杭州富阳新登城镇建设投资集团有限公司1#变,1#,澳海澜庭2号公变,昌东村众甫4#青田垅公变变压器,富阳中正建材有限公司,富阳宵井竹制品加工厂,浙江兴隆管业有限公司,昌东村昌东5#冒坞里公变,昌东村众甫6#顺坞里公变,松溪村松溪3号张地上公变,1#,1#,宵井化公厂,龙翔塑料1#变,蓝德环保科技集团有限责任公司,1#,富阳璐威文具礼品有限公司,富阳中正建材有限公司2#,富阳市环境卫生管理处,昌东村众甫5号谈孔坞公变,上山村上山1#官地上公变,澳海澜庭7号公变,辰晟源电子,","scope":"浙江省-杭州市-富阳区-新登镇-松溪行政村(军堰自然村,松溪家园自然村,松溪自然村,藻山自然村),新登镇-上山行政村(上山自然村,万泉路自然村),新登镇-昌东行政村(昌东自然村,众甫自然村),新登镇(新登新区-零五省道,包秦行政村-包秦自然村);富春街道-宵井行政村(杭州富阳和道市政园林有限公司,富阳日兴耐磨材料有限公司,富阳市富春街道贝山矿粉加工厂,富阳宵井竹制品加工厂,富阳市富春街道洪明电瓶商店,杭州市富阳区环境卫生管理处,富阳市富春街道昌鑫化工经营部,杭州富阳中正建材有限公司,杭州富阳惠众环保科技有限公司),新登镇-松溪行政村(杭州富阳开发区资产运营养护管理有限公司,浙江隆亨幕墙装饰工程有限公司,杭州富阳辰晟源电子有限公司,杭州富阳生威新能源科技有限公司,杭州富阳龙翔塑料制品有限公司,杭州森诚建材科技有限公司,杭州市富阳区新登镇人民政府),新登镇-上山行政村(浙江兴隆管业有限公司,杭州富阳新登小城镇投资建设有限公司,杭州富阳小六石旅游开发有限公司),新登镇-昌东行政村(中国石化销售股份有限公司浙江杭州石油分公司,杭州富阳城市照明工程有限公司)","startTime":"2020-05-20 01:42:42","stopDate":"2020-05-20 02:42:42","orgNo":"3340170","typeCode":"电网故障停限电","poweroffArea":"110kV松溪变:万泉D738线-万泉D7381开关后段","poweroffReason":"高压开关跳闸 原停电结束时间为2020-05-20 03:42:42,为减少客户停电时间,加快工作进度,提前送电,现变更停电结束时间为2020-05-20 02:42:42","powerTime":"2020-05-20 02:13:05","powerComm":"已送电","subsNo":"","lineNo":"","tgNo":"","tgName":null,"infoStatus":"1","orgName":"国网浙江杭州市富阳区供电公司","typeName":null,"infoStatusName":null,"dateDay":null,"orgNos":null,"nowTime":null,"countyName":null,"streetName":null,"villageName":null,"roadName":null,"communityName":null,"tranName":null,"sdLineName":null,"cityCode":"3340170","cityName":"国网浙江杭州市富阳区供电公司","provinceCode":null,"stopTime":"2020-05-20 02:42:42","powerType":"全部","powerOffArea":"110kV松溪变:万泉D738线-万泉D7381开关后段","powerOffReason":"高压开关跳闸 原停电结束时间为2020-05-20 03:42:42,为减少客户停电时间,加快工作进度,提前送电,现变更停电结束时间为2020-05-20 02:42:42","powerOffId":"2020052031020006"},{"poweroffId":2020052031020005,"sgpoweroffId":null,"subsName":"","lineName":"10kV青何D731线","pubTranName":"青何村青何2#殿边公变,唐昌村青山2#楼家公变,杭州好莳橡胶制品有限公司,富阳市永昌镇国平竹制品加工厂,富阳青山纸箱厂1#变,唐昌村青山3#杨家公变,万瑞达纸业,富阳市永昌镇永乐耐火材料厂1#变,青何村7号产坞里公变,依洛村4#郑家公变,洲美2#变,乐和村2#乐和公变,青何村青何4号凹坎坞公变,富阳市永昌青何竹器厂,杭州三江混凝土外加剂材料有限公司,青何村民政5#弯里公变,唐昌村1号石家公变,青何村青何5#陈家墩公变,杭州市富阳区环境保护监测站,杭州洲美转印制品有限公司,青何村民政1#虎啸亭公变,唐昌村唐昌2#洛家门口公变,唐昌村唐昌3号野猪殿公变,昌岭村乐和7号油车头公变,青何村民政4#上许家公变,昌岭村依洛1号蔡家公变,青何村龙峰2#朱家公变,青何村青何3#大坞里公变,依洛村3号前坞公变,青何村民政3#下许家公变,乐和村1号邵家公变,杭州富阳行之橡胶制品有限公司,唐昌村唐昌1号孙家公变,富阳华隆鞋业有限公司,青何村青何1#翁家公变,青何村民政6号潘家坞公变,青何村民政2号产坞公变,杭州富阳千禧笋厂,乐和村3号魏家公变,昌岭村依洛5#公变,昌岭村乐和5#后山公变,青何村龙峰3#李家公变,昌岭村乐和6号潘家公变,依洛村2#依洛公变,乐和村4#花园里公变,富阳富源鞋业有限公司,唐昌村青山1#石家公变,唐昌村青山5#侯家公变,青何村龙峰1号袁家公变,唐昌村青山4号唐村坞口公变,杭州富阳勋辉塑业有限公司,","scope":"浙江省-杭州市-富阳区-永昌镇-永昌行政村-永昌自然村,永昌镇-青何行政村(民政自然村,龙峰自然村,青何自然村),永昌镇-唐昌行政村(青山自然村,唐昌自然村),永昌镇-昌岭行政村(乐和自然村,洛坞殿自然村,邵家自然村,昌岭自然村,后山自然村,郑家自然村,花园里自然村,前坞自然村,依洛自然村,白峰山自然村,魏家自然村,白栗山自然村,上蔡家自然村);永昌镇(杭州富阳富源鞋业有限公司,杭州富阳勋辉塑业有限公司,杭州三江混凝土外加剂材料有限公司,杭州富阳华隆鞋业有限公司,富阳市永昌镇国平竹制品加工厂,杭州好莳橡胶制品有限公司,杭州富阳行之远橡塑制品有限公司,杭州富阳青山纸箱厂,杭州富阳万瑞达纸业有限公司,杭州洲美转印制品有限公司,杭州市富阳区环境保护监测站,杭州富阳千禧笋厂,杭州富阳青何竹制品有限公司,富阳市永昌镇永乐耐火材料厂)","startTime":"2020-05-20 01:05:00","stopDate":"2020-05-20 03:05:00","orgNo":"3340170","typeCode":"电网故障停限电","poweroffArea":"110kV松溪变:青何D731线青何D7314开关后段","poweroffReason":"高压开关跳闸","powerTime":"2020-05-20 02:19:17","powerComm":"已送电","subsNo":"","lineNo":"","tgNo":"","tgName":null,"infoStatus":"1","orgName":"国网浙江杭州市富阳区供电公司","typeName":null,"infoStatusName":null,"dateDay":null,"orgNos":null,"nowTime":null,"countyName":null,"streetName":null,"villageName":null,"roadName":null,"communityName":null,"tranName":null,"sdLineName":null,"cityCode":"3340170","cityName":"国网浙江杭州市富阳区供电公司","provinceCode":null,"stopTime":"2020-05-20 03:05:00","powerType":"全部","powerOffArea":"110kV松溪变:青何D731线青何D7314开关后段","powerOffReason":"高压开关跳闸","powerOffId":"2020052031020005"}],"pageModel":{"pageNow":134,"totalCount":17786,"totalPage":1779,"tableRows":0,"pageCount":10,"beginCount":1330},"isExperi":"1"}