{"message":"","today":"2020-06-16","seleList":[{"poweroffId":2019080231020015,"sgpoweroffId":null,"subsName":"","lineName":"10kV高岭Y802线","pubTranName":"昴畈村桥头边台区,","scope":"浙江省-杭州市-建德市-莲花镇-昴畈行政村 东山自然村,桥头边自然村一带用户。","startTime":"2019-08-02 07:53:00","stopDate":"2019-08-02 10:00:00","orgNo":"3340180","typeCode":"电网故障停限电","poweroffArea":"35kV莲花变:高岭Y802线-昴畈村桥头边台区后段","poweroffReason":"(低压停电信息)低压开关跳闸","powerTime":"2019-08-02 09:09:00","powerComm":"已送电","subsNo":"","lineNo":"","tgNo":"","tgName":null,"infoStatus":"1","orgName":"国网浙江建德市供电有限公司","typeName":null,"infoStatusName":null,"dateDay":null,"orgNos":null,"nowTime":null,"countyName":null,"streetName":null,"villageName":null,"roadName":null,"communityName":null,"tranName":null,"sdLineName":null,"cityCode":"3340180","cityName":"国网浙江建德市供电有限公司","provinceCode":null,"stopTime":"2019-08-02 10:00:00","powerType":"全部","powerOffArea":"35kV莲花变:高岭Y802线-昴畈村桥头边台区后段","powerOffReason":"(低压停电信息)低压开关跳闸","powerOffId":"2019080231020015"},{"poweroffId":2019080231020012,"sgpoweroffId":null,"subsName":"","lineName":"10kV拔山D942线","pubTranName":"新联村9号平山上2公变,新联村4#平山上公变,新联村12号骑龙里公变,新联村2号大青坞公变,新联村1#栗柴坞1公变,新联村5#栗柴坞2公变,新联村平山上3号公变,新联村6#寺背后公变,新联村3#骑龙里公变,拔山村新联12号栗柴坞公变,富阳市兴泰包装厂,拔山村新联11号寺背后公变,新联村14号栗柴坞公变,","scope":"浙江省-杭州市-富阳区-富春街道-拔山行政村(栗柴坞自然村,平山上自然村,大青坞自然村,寺背后自然村,骑龙里自然村);富春街道-杭州富阳兴泰包装厂","startTime":"2019-08-02 07:22:00","stopDate":"2019-08-02 09:22:00","orgNo":"3340170","typeCode":"电网故障停限电","poweroffArea":"110kV育才变:拔山D942线新联分线开关后段","poweroffReason":"高压开关跳闸","powerTime":"2019-08-02 08:35:25","powerComm":"已送电","subsNo":"","lineNo":"","tgNo":"","tgName":null,"infoStatus":"1","orgName":"国网浙江杭州市富阳区供电公司","typeName":null,"infoStatusName":null,"dateDay":null,"orgNos":null,"nowTime":null,"countyName":null,"streetName":null,"villageName":null,"roadName":null,"communityName":null,"tranName":null,"sdLineName":null,"cityCode":"3340170","cityName":"国网浙江杭州市富阳区供电公司","provinceCode":null,"stopTime":"2019-08-02 09:22:00","powerType":"全部","powerOffArea":"110kV育才变:拔山D942线新联分线开关后段","powerOffReason":"高压开关跳闸","powerOffId":"2019080231020012"},{"poweroffId":2019080231020011,"sgpoweroffId":null,"subsName":"","lineName":"10kV同科A389线","pubTranName":"兰萌艺术,1#,同济科技职业学院6#,达利（中国）,杭州市萧山区人民政府宁围街道办事处,万向集团2#,尔斯塑料,杨利石化,明峰工具,凯鹰塑钢,钱鸿苏美达2#,钱江农场2#,万向集团3#,万向集团1#,交通发展公司,恩达研磨,万大亚海,钱鸿苏美达1#,同济科技职业学院4#,杭州天诚药业有限公司,同济科技职业学院7#,真诚包装,赛励思胶粘,时代染整,同济科技职业学院2#,万向集团4#,万向集团6#,正平饲料,杭州市萧山区钱江农场,杭州萧山钱鸿交通器材有限公司,同济科技职业学院3#,同济科技职业学院 5#,万向集团5#,祥星塑料,同济科技职业学院8#,帝皇印花,","scope":"浙江省-杭州市-萧山区-宁围镇、宁围街道、红山农场、经济技术开发区-市北社区-达利(中国)有限公司,经济技术开发区-钱江社区(杭州正平生物技术有限公司,杭州杨利实业股份有限公司,杭州明峰工具有限公司,杭州乐傲机械有限公司,杭州拜尔斯塑胶制品有限公司,杭州凯鹰塑钢有限公司,杭州兰萌艺术时装有限公司,杭州思达研磨制品有限公司,浙江卓越物业服务有限公司,杭州萧山钱鸿交通器材有限公司,浙江赛励恩胶粘剂有限公司,杭州永迪电器器材厂,杭州市萧山公共交通有限公司,杭州天诚药业有限公司,万向集团公司,杭州钱鸿苏美达车业有限公司,杭州市萧山区钱江农场),宁围街道-顺坝行政村(杭州市萧山区人民政府宁围街道办事处,浙江同济科技职业学院)、浙江省杭州市萧山区宁围镇林之语小区东北角外、浙江省杭州市萧山区钱江农场乾隆二路16号、萧山区新安村二桥出口西加油站等一带","startTime":"2019-08-02 07:03:01","stopDate":"2019-08-02 11:35:04","orgNo":"3340130","typeCode":"电网故障停限电","poweroffArea":"110kV顺坝变:同科A389线首端，宝宝书院1#开关，同科A389线开关后段","poweroffReason":"高压开关跳闸 原停电结束时间：2019-08-02 14:19:04，变更停电结束时间：2019-08-02 11:35:04，由于增派人员，抢修工作提前完成，故需要提前送电。","powerTime":"2019-08-02 11:04:06","powerComm":"已送电","subsNo":"","lineNo":"","tgNo":"","tgName":null,"infoStatus":"1","orgName":"国网浙江杭州市萧山区供电有限公司","typeName":null,"infoStatusName":null,"dateDay":null,"orgNos":null,"nowTime":null,"countyName":null,"streetName":null,"villageName":null,"roadName":null,"communityName":null,"tranName":null,"sdLineName":null,"cityCode":"3340130","cityName":"国网浙江杭州市萧山区供电有限公司","provinceCode":null,"stopTime":"2019-08-02 11:35:04","powerType":"全部","powerOffArea":"110kV顺坝变:同科A389线首端，宝宝书院1#开关，同科A389线开关后段","powerOffReason":"高压开关跳闸 原停电结束时间：2019-08-02 14:19:04，变更停电结束时间：2019-08-02 11:35:04，由于增派人员，抢修工作提前完成，故需要提前送电。","powerOffId":"2019080231020011"},{"poweroffId":2019080231020010,"sgpoweroffId":null,"subsName":"","lineName":"10kV徐童C172线","pubTranName":"徐童山下6#变,徐童山下8#变,杭州同昌金属制品有限公司,杭州萧山丹丹布艺织造有限公司,杭州萧山美信装饰布厂,杭州萧山美信装饰布厂2#,杭州宋家织造有限公司,徐童山下12#变,杭州光大金属制品有限公司,徐童山下5#变,杭州萧山美信装饰布厂1#,徐童山下7#变,徐童山下11#变,徐童山下14#变,徐童山下3#变,徐童山下13#变,徐童山下9#变,杭州萧山美信装饰布厂,杭州双建轧辊模具有限公司,徐童山下1#变,徐童山下10#变,杭州萧山浦阳江建设开发有限公司,","scope":"浙江省-杭州市-萧山区-义桥镇-徐童山下行政村(包家塔自然村,赵家头自然村,五星自然村,陈家自然村,新庄自然村,方家自然村,山坞里自然村,和睦墩自然村,孙家头自然村);义桥镇-徐童山下行政村(杭州光大金属制品有限公司,杭州萧山丹丹布艺织造有限公司,杭州萧山美信装饰布厂,杭州双建轧辊模具有限公司,杭州宋家织造有限公司,杭州萧山浦阳江建设开发有限公司),义桥镇(蛟山行政村-杭州同昌金属制品有限公司,新坝行政村-杭州萧山美信装饰布厂)等一带","startTime":"2019-08-02 06:24:17","stopDate":"2019-08-02 07:55:17","orgNo":"3340130","typeCode":"电网故障停限电","poweroffArea":"110kV许贤变:徐童C172线-徐童C1722开关后段","poweroffReason":"高压柱上断路器短路故障 原停电结束时间：2019-08-02 10:24，变更停电结束时间：2019-08-02 07:55，由于增派人员，抢修提前完成，故需要提前送电。","powerTime":"2019-08-02 07:16:45","powerComm":"已送电","subsNo":"","lineNo":"","tgNo":"","tgName":null,"infoStatus":"1","orgName":"国网浙江杭州市萧山区供电有限公司","typeName":null,"infoStatusName":null,"dateDay":null,"orgNos":null,"nowTime":null,"countyName":null,"streetName":null,"villageName":null,"roadName":null,"communityName":null,"tranName":null,"sdLineName":null,"cityCode":"3340130","cityName":"国网浙江杭州市萧山区供电有限公司","provinceCode":null,"stopTime":"2019-08-02 07:55:17","powerType":"全部","powerOffArea":"110kV许贤变:徐童C172线-徐童C1722开关后段","powerOffReason":"高压柱上断路器短路故障 原停电结束时间：2019-08-02 10:24，变更停电结束时间：2019-08-02 07:55，由于增派人员，抢修提前完成，故需要提前送电。","powerOffId":"2019080231020010"},{"poweroffId":2019080231020009,"sgpoweroffId":null,"subsName":"","lineName":"10kV义南C143线","pubTranName":"义南村3#变,","scope":"浙江省-杭州市-萧山区-靖江街道-义南行政村-义南自然村、靖江镇义南村11号、靖江街道义南村16组一带","startTime":"2019-08-02 05:22:47","stopDate":"2019-08-02 09:20:47","orgNo":"3340130","typeCode":"电网故障停限电","poweroffArea":"110kV梅西变:义南C143线-义南村3#变跌落式熔断器后段","poweroffReason":"高压跌落式熔断器短路故障 原停电结束时间:07:30:47，变更停电结束时间:10:30:47，由于抢修工作难度大，故需要延迟送电。原停电结束时间: 10:30:47，变更停电结束时间: 09:20:47。由于抢修工作提前完成,故需要提前送电。","powerTime":"2019-08-02 08:42:38","powerComm":"已送电","subsNo":"","lineNo":"","tgNo":"","tgName":null,"infoStatus":"1","orgName":"国网浙江杭州市萧山区供电有限公司","typeName":null,"infoStatusName":null,"dateDay":null,"orgNos":null,"nowTime":null,"countyName":null,"streetName":null,"villageName":null,"roadName":null,"communityName":null,"tranName":null,"sdLineName":null,"cityCode":"3340130","cityName":"国网浙江杭州市萧山区供电有限公司","provinceCode":null,"stopTime":"2019-08-02 09:20:47","powerType":"全部","powerOffArea":"110kV梅西变:义南C143线-义南村3#变跌落式熔断器后段","powerOffReason":"高压跌落式熔断器短路故障 原停电结束时间:07:30:47，变更停电结束时间:10:30:47，由于抢修工作难度大，故需要延迟送电。原停电结束时间: 10:30:47，变更停电结束时间: 09:20:47。由于抢修工作提前完成,故需要提前送电。","powerOffId":"2019080231020009"},{"poweroffId":2019080231020008,"sgpoweroffId":null,"subsName":"","lineName":"10kV天钟D434线","pubTranName":"杭州富阳江南新城物业管理有限公司,浙江三星热电有限公司,南丰村3号新区公变,浙江百合集团磁性材料有限公司,南丰村1号村中公变,太平村3#超市公变,中保纸业废料再生有限公司1#变,太平村5#新区公变,富阳市正康煤业有限公司,太平村8#村委公变,富阳市拓疆精密机械有限公司,富阳市春江街道忠明纸制品厂,太平村9号红砖埠公变,豪仕发纸业1#变,富阳市名扬造纸机械有限公司,富阳市供电局职工培训中心（富田电厂）,1#变,杭州富阳易海通信设备有限公司变压器,杭千高速路1#变,太平村2号江口公变,南丰村2号天钟山公变,杭州市富阳公共交通有限公司,太平村1#沙场公变,天钟山旅游1#变,","scope":"浙江省-杭州市-富阳区-春江街道-太平行政村(太平自然村,南峰自然村);春江街道(杭州富阳正康煤业有限公司,杭州富阳名扬造纸机械有限公司,浙江百合集团磁性材料有限公司,杭州富阳江南新城物业管理有限公司,杭州市富阳公共交通有限公司,富阳市中保纸业废料再生有限公司,杭州富阳兴盛塑胶有限公司,富阳市供电局职工培训中心（富田电厂）,杭州杭千高速公路发展有限公司,杭州富阳天钟山旅游有限公司,杭州富阳日鑫模具有限公司,富阳市春江街道忠明纸制品厂,富阳市拓疆精密机械有限公司,杭州富阳易海通信设备有限公司)","startTime":"2019-08-02 05:35:00","stopDate":"2019-08-02 07:35:00","orgNo":"3340170","typeCode":"电网故障停限电","poweroffArea":"110kV天钟变:天钟D434线天钟D434线开关后段","poweroffReason":"高压开关跳闸","powerTime":"2019-08-02 07:14:08","powerComm":"已送电","subsNo":"","lineNo":"","tgNo":"","tgName":null,"infoStatus":"1","orgName":"国网浙江杭州市富阳区供电公司","typeName":null,"infoStatusName":null,"dateDay":null,"orgNos":null,"nowTime":null,"countyName":null,"streetName":null,"villageName":null,"roadName":null,"communityName":null,"tranName":null,"sdLineName":null,"cityCode":"3340170","cityName":"国网浙江杭州市富阳区供电公司","provinceCode":null,"stopTime":"2019-08-02 07:35:00","powerType":"全部","powerOffArea":"110kV天钟变:天钟D434线天钟D434线开关后段","powerOffReason":"高压开关跳闸","powerOffId":"2019080231020008"},{"poweroffId":2019080231020007,"sgpoweroffId":null,"subsName":"","lineName":"10kV新和H776线","pubTranName":"义桥村郎宅公变,浙江物产长乐创龄生物科技有限公司,中甘林区,洪源塑业,仙宅村陈家公变,仙宅村大畈公变,义桥村岗窑公变,仙宅村汪塘公变,仙宅村加工场公变,义桥村郎宅四组公变,方隆茶业,万宅靶场,建工基建,仙宅村弄里公变,仙宅村平顶山公变,亚星链条,仙宅村上屋公变,仙宅包装,汪塘2号公变,15省道1#路灯变,仙宅村董家公变,义桥村郎宅村委公变,鼎盛交通基建,义桥村郎宅康村公变,郎宅砖瓦,仙宅村幸福公变,15省道2#路灯,一区,仙宅村靶场公变,义桥村郎宅三组公变,义桥村中村公变,仙宅村建新公变,云曼酒店,义桥村蔡家公变,义桥村未时村公变,5#,康春农业,","scope":"浙江省-杭州市-余杭区-余杭街道-义桥行政村(郎宅自然村,朗宅自然村,义桥自然村),余杭街道-仙宅行政村(万石村自然村,仙宅自然村,费寺自然村),余杭街道(竹园行政村-白坟自然村,南渠社区-直街);余杭街道-义桥行政村(杭州余杭振达印务有限公司,杭州余杭农林南湖经营有限公司,杭州仙宅印刷包装有限公司,杭州康春农业开发有限公司,浙江鼎盛交通建设有限公司),余杭街道-仙宅行政村(浙江物产长乐实业有限公司,杭州洪源塑业有限公司,杭州建工集团有限责任公司,杭州方隆茶业有限公司,中国人民解放军七三二二一部队,杭州市余杭区公路管理处,浙江物产长乐创龄生物科技有限公司,杭州云曼星酒店管理有限公司)一带","startTime":"2019-08-02 05:25:01","stopDate":"2019-08-02 08:25:00","orgNo":"3340140","typeCode":"电网故障停限电","poweroffArea":"35kV长岗临时变:新和H776线-新和H7760开关后段","poweroffReason":":新和H776线-新和H7760开关后段 高压开关跳闸","powerTime":"2019-08-02 07:46:28","powerComm":"已送电","subsNo":"","lineNo":"","tgNo":"","tgName":null,"infoStatus":"1","orgName":"国网浙江杭州市余杭区供电有限公司","typeName":null,"infoStatusName":null,"dateDay":null,"orgNos":null,"nowTime":null,"countyName":null,"streetName":null,"villageName":null,"roadName":null,"communityName":null,"tranName":null,"sdLineName":null,"cityCode":"3340140","cityName":"国网浙江杭州市余杭区供电有限公司","provinceCode":null,"stopTime":"2019-08-02 08:25:00","powerType":"全部","powerOffArea":"35kV长岗临时变:新和H776线-新和H7760开关后段","powerOffReason":":新和H776线-新和H7760开关后段 高压开关跳闸","powerOffId":"2019080231020007"},{"poweroffId":2019080231020006,"sgpoweroffId":null,"subsName":"","lineName":"10kV竹径H535线","pubTranName":"城隍大道路灯变,枫林纺织(吴氏包装),三龙门窗,基督教堂,杭州利富豪机电设备有限公司6110108292,佳丽冷冻食品基建变,柠檬酸厂,少教所1#,利富豪空调3,少教所3#,三尔再生资源,少教所2#,凤都村城皇山公变,杭州百尔欣节能材料有限公司,鸿能实业6120826781专变,长命村石西2号公变,杭州余杭振华日化玻璃有限公司,2#,杭州华迪汽车配件,菲尔机械（一冉展柜）,泛利实业,力丹家具,1#,金城养殖场,和悦工贸,杭州科明机械有限公司,健身院,少教所4#,四达机械611101559201#专变,联顺筑养,宝航机械,6120431507,配变,和悦工贸2,2#,1#,圣威服饰,","scope":"浙江省-杭州市-余杭区-瓶窑镇-长命行政村-石西自然村,瓶窑镇-凤都行政村(凤都自然村,观山路,城皇山自然村,马山自然村);浙江省-杭州市-余杭区-瓶窑镇-瓶窑行政村-杭州市余杭区瓶窑镇人民政府,瓶窑镇-长命行政村(杭州佳雨冷冻食品有限公司,杭州市余杭区瓶窑长命基督教堂,杭州利富豪科技股份有限公司,杭州力丹家具有限公司,杭州和悦工艺品有限公司,杭州大地海洋环保股份有限公司,杭州余杭长明金属管件有限公司,杭州余杭振华日化玻璃有限公司,杭州利富豪机电设备有限公司,杭州凯博展示有限公司,杭州协宇建材有限公司,杭州四达机械电子有限公司),瓶窑镇-凤都行政村(杭州利富豪机电设备有限公司,杭州博大生物技术有限公司,杭州宝航机械有限公司,杭州鸿能实业有限公司,杭州百尔欣节能材料有限公司,杭州佐翰科技有限公司,杭州兴润机械有限公司,浙江省良渚强制隔离戒毒所,杭州华迪汽车仪表有限公司,杭州长命印刷有限公司,杭州泛利实业有限公司,杭州市余杭区新东方烹饪学校,杭州贵翔装饰有限公司)一带","startTime":"2019-08-02 05:12:44","stopDate":"2019-08-02 08:00:00","orgNo":"3340140","typeCode":"电网故障停限电","poweroffArea":"110kV凤山变:竹径H535线-竹径H5353开关后段","poweroffReason":"竹径H535线-竹径H5353开关后段 高压开关跳闸","powerTime":"2019-08-02 07:45:46","powerComm":"已送电","subsNo":"","lineNo":"","tgNo":"","tgName":null,"infoStatus":"1","orgName":"国网浙江杭州市余杭区供电有限公司","typeName":null,"infoStatusName":null,"dateDay":null,"orgNos":null,"nowTime":null,"countyName":null,"streetName":null,"villageName":null,"roadName":null,"communityName":null,"tranName":null,"sdLineName":null,"cityCode":"3340140","cityName":"国网浙江杭州市余杭区供电有限公司","provinceCode":null,"stopTime":"2019-08-02 08:00:00","powerType":"全部","powerOffArea":"110kV凤山变:竹径H535线-竹径H5353开关后段","powerOffReason":"竹径H535线-竹径H5353开关后段 高压开关跳闸","powerOffId":"2019080231020006"},{"poweroffId":2019080231020002,"sgpoweroffId":null,"subsName":"","lineName":"10kV交通G106线","pubTranName":"星火南路1号公变,","scope":"浙江省-杭州市-余杭区-临平街道-工农新村社区-邱山大街,临平街道-星火社区(邱山大街,星火南路)一带","startTime":"2019-08-02 01:07:00","stopDate":"2019-08-02 08:20:00","orgNo":"3340140","typeCode":"电网故障停限电","poweroffArea":"110kV临平变:交通G106线-星火南路1号公变后段","poweroffReason":"(低压停电信息)交通G106线-星火南路1号公变后段低压电缆故障（原停电结束时间：2019-08-02 12:07:00，变更停电结束时间原因：现场抢修较为顺利，已恢复送电）","powerTime":"2019-08-02 07:49:00","powerComm":"已送电","subsNo":"","lineNo":"","tgNo":"","tgName":null,"infoStatus":"1","orgName":"国网浙江杭州市余杭区供电有限公司","typeName":null,"infoStatusName":null,"dateDay":null,"orgNos":null,"nowTime":null,"countyName":null,"streetName":null,"villageName":null,"roadName":null,"communityName":null,"tranName":null,"sdLineName":null,"cityCode":"3340140","cityName":"国网浙江杭州市余杭区供电有限公司","provinceCode":null,"stopTime":"2019-08-02 08:20:00","powerType":"全部","powerOffArea":"110kV临平变:交通G106线-星火南路1号公变后段","powerOffReason":"(低压停电信息)交通G106线-星火南路1号公变后段低压电缆故障（原停电结束时间：2019-08-02 12:07:00，变更停电结束时间原因：现场抢修较为顺利，已恢复送电）","powerOffId":"2019080231020002"},{"poweroffId":2019080231020001,"sgpoweroffId":null,"subsName":"","lineName":"20kV丰一B201线","pubTranName":"和美家7#公变,","scope":"浙江省-杭州市-萧山区、宁围镇、宁围街道-盈一行政村-市心北路、萧山区宁围街道胜发和美家、萧山区飞鸿路地铁站顺发和美家、萧山区和美家小区、萧山区顺发和美家3栋35楼等一带","startTime":"2019-08-02 00:08:56","stopDate":"2019-08-02 01:21:59","orgNo":"3340130","typeCode":"电网故障停限电","poweroffArea":"110kV顺丰变:丰一B201线-和美家7#公变台区低压开关","poweroffReason":"(低压停电信息)低压开关跳闸 原停电结束时间：2019-08-02 02:21:59，变更停电结束时间：2019-08-02 01:21:59，由于增派人员，抢修工作提前完成，故需要提前送电。","powerTime":"2019-08-02 00:51:20","powerComm":"已送电","subsNo":"","lineNo":"","tgNo":"","tgName":null,"infoStatus":"1","orgName":"国网浙江杭州市萧山区供电有限公司","typeName":null,"infoStatusName":null,"dateDay":null,"orgNos":null,"nowTime":null,"countyName":null,"streetName":null,"villageName":null,"roadName":null,"communityName":null,"tranName":null,"sdLineName":null,"cityCode":"3340130","cityName":"国网浙江杭州市萧山区供电有限公司","provinceCode":null,"stopTime":"2019-08-02 01:21:59","powerType":"全部","powerOffArea":"110kV顺丰变:丰一B201线-和美家7#公变台区低压开关","powerOffReason":"(低压停电信息)低压开关跳闸 原停电结束时间：2019-08-02 02:21:59，变更停电结束时间：2019-08-02 01:21:59，由于增派人员，抢修工作提前完成，故需要提前送电。","powerOffId":"2019080231020001"}],"pageModel":{"pageNow":1335,"totalCount":17789,"totalPage":1779,"tableRows":0,"pageCount":10,"beginCount":13340},"isExperi":"1"}