{"message":"","today":"2020-06-16","seleList":[{"poweroffId":2019080231010006,"sgpoweroffId":null,"subsName":"","lineName":"10kV头镇0306线","pubTranName":"仓北村2#变,","scope":"浙江省-杭州市-萧山区-义蓬街道仓北行政村,仓北自然村,义蓬镇昌北村2组,仓北村一带","startTime":"2019-08-01 23:35:47","stopDate":"2019-08-02 03:10:00","orgNo":"3340120","typeCode":"电网故障停限电","poweroffArea":"110kV启江变:头镇0306线-仓北村2#变后段","poweroffReason":"仓北村2#变后段 低压设备故障 原停电结束时间：4:10，变更停电结束时间：3:10，由于工作提前完成，故需要提前送电。","powerTime":"2019-08-02 02:19:57","powerComm":"已送电","subsNo":"","lineNo":"","tgNo":"","tgName":null,"infoStatus":"1","orgName":"国网浙江杭州市钱塘新区供电公司","typeName":null,"infoStatusName":null,"dateDay":null,"orgNos":null,"nowTime":null,"countyName":null,"streetName":null,"villageName":null,"roadName":null,"communityName":null,"tranName":null,"sdLineName":null,"cityCode":"3340120","cityName":"国网浙江杭州市钱塘新区供电公司","provinceCode":null,"stopTime":"2019-08-02 03:10:00","powerType":"全部","powerOffArea":"110kV启江变:头镇0306线-仓北村2#变后段","powerOffReason":"仓北村2#变后段 低压设备故障 原停电结束时间：4:10，变更停电结束时间：3:10，由于工作提前完成，故需要提前送电。","powerOffId":"2019080231010006"},{"poweroffId":2019080131020147,"sgpoweroffId":null,"subsName":"","lineName":"10kV美嘉7003线","pubTranName":"丁兰（五）,","scope":"浙江省-杭州市-江干区-丁桥镇-蕙兰社区(蕙兰雅路,环丁路,丁桥兰苑小区)","startTime":"2019-08-01 23:40:14","stopDate":"2019-08-02 00:40:14","orgNo":"3340101","typeCode":"电网故障停限电","poweroffArea":"110kV锦唐变:美嘉7003线-丁兰五配变","poweroffReason":"高压开关跳闸 原预计停电结束时间2019-08-02 01:40:14,由于施工现场环境比较复杂，存在不确定因素，因此预估施工时间适当放长了，而实际施工进行得比较顺利，因此提前送电了","powerTime":"2019-08-02 00:15:22","powerComm":"已送电","subsNo":"","lineNo":"","tgNo":"","tgName":null,"infoStatus":"1","orgName":"浙江杭州电力客户服务中心","typeName":null,"infoStatusName":null,"dateDay":null,"orgNos":null,"nowTime":null,"countyName":null,"streetName":null,"villageName":null,"roadName":null,"communityName":null,"tranName":null,"sdLineName":null,"cityCode":"3340101","cityName":"浙江杭州电力客户服务中心","provinceCode":null,"stopTime":"2019-08-02 00:40:14","powerType":"全部","powerOffArea":"110kV锦唐变:美嘉7003线-丁兰五配变","powerOffReason":"高压开关跳闸 原预计停电结束时间2019-08-02 01:40:14,由于施工现场环境比较复杂，存在不确定因素，因此预估施工时间适当放长了，而实际施工进行得比较顺利，因此提前送电了","powerOffId":"2019080131020147"},{"poweroffId":2019080131020144,"sgpoweroffId":null,"subsName":"","lineName":"10kV梅堰G670线","pubTranName":"梅堰小区九号公变,","scope":"浙江省-杭州市-余杭区-东湖街道-梅堰小区一带","startTime":"2019-08-01 22:45:00","stopDate":"2019-08-02 07:30:00","orgNo":"3340140","typeCode":"电网故障停限电","poweroffArea":"110kV南苑变:梅堰G670线-梅堰小区九号后段","poweroffReason":"(低压停电信息)梅堰G670线-梅堰小区九号后段 低压电缆故障 原停电结束时间为2019-08-01 23:59:00，变更停电结束时间原因：由于抢修现场环境复杂，需延长抢修时间","powerTime":"2019-08-02 07:00:00","powerComm":"已送电","subsNo":"","lineNo":"","tgNo":"","tgName":null,"infoStatus":"1","orgName":"国网浙江杭州市余杭区供电有限公司","typeName":null,"infoStatusName":null,"dateDay":null,"orgNos":null,"nowTime":null,"countyName":null,"streetName":null,"villageName":null,"roadName":null,"communityName":null,"tranName":null,"sdLineName":null,"cityCode":"3340140","cityName":"国网浙江杭州市余杭区供电有限公司","provinceCode":null,"stopTime":"2019-08-02 07:30:00","powerType":"全部","powerOffArea":"110kV南苑变:梅堰G670线-梅堰小区九号后段","powerOffReason":"(低压停电信息)梅堰G670线-梅堰小区九号后段 低压电缆故障 原停电结束时间为2019-08-01 23:59:00，变更停电结束时间原因：由于抢修现场环境复杂，需延长抢修时间","powerOffId":"2019080131020144"},{"poweroffId":2019080131020141,"sgpoweroffId":null,"subsName":"","lineName":"10kV机专8440线","pubTranName":"半行2#,中农,中百,","scope":"浙江省杭州市拱墅区中国工商银行股份有限公司杭州半山支行、杭州中联百货有限公司、浙江世纪联华半山超市有限公司、杭州惟嘉物业管理服务有限公司","startTime":"2019-08-09 08:30:00","stopDate":"2019-08-09 13:20:00","orgNo":"3340101","typeCode":"计划停电","poweroffArea":"钢宿站活动分线、中百分线","poweroffReason":"中国工商银行股份有限公司杭州半山支行专变（半行）增容通电.计划停电结束时间12:30，因工作量大原因导致延时送电，预计送电时间:2019-08-09 13:20","powerTime":"2019-08-09 13:01:59","powerComm":"已送电","subsNo":"","lineNo":"","tgNo":"","tgName":null,"infoStatus":"1","orgName":"浙江杭州电力客户服务中心","typeName":null,"infoStatusName":null,"dateDay":null,"orgNos":null,"nowTime":null,"countyName":null,"streetName":null,"villageName":null,"roadName":null,"communityName":null,"tranName":null,"sdLineName":null,"cityCode":"3340101","cityName":"浙江杭州电力客户服务中心","provinceCode":null,"stopTime":"2019-08-09 13:20:00","powerType":"全部","powerOffArea":"钢宿站活动分线、中百分线","powerOffReason":"中国工商银行股份有限公司杭州半山支行专变（半行）增容通电.计划停电结束时间12:30，因工作量大原因导致延时送电，预计送电时间:2019-08-09 13:20","powerOffId":"2019080131020141"},{"poweroffId":2019080131020140,"sgpoweroffId":null,"subsName":"","lineName":"10kV东方6083线","pubTranName":"国都(一),国都(三),","scope":"浙江省杭州市下城区朝晖新城1、3幢附近一带，中国工商银行股份有限公司浙江省分行","startTime":"2019-08-09 09:00:00","stopDate":"2019-08-09 15:30:00","orgNo":"3340101","typeCode":"计划停电","poweroffArea":"新市站国都一分线、9#间隔","poweroffReason":"新市站I段换柜。原停电结束时间17:30、变更停电结束时间15:30原因由于施工现场环境比较复杂，存在不确定因素，因此预估施工时间适当放长了，而实际施工进行得比较顺利，因此该工作提前结束。","powerTime":"2019-08-09 14:58:59","powerComm":"已送电","subsNo":"","lineNo":"","tgNo":"","tgName":null,"infoStatus":"1","orgName":"浙江杭州电力客户服务中心","typeName":null,"infoStatusName":null,"dateDay":null,"orgNos":null,"nowTime":null,"countyName":null,"streetName":null,"villageName":null,"roadName":null,"communityName":null,"tranName":null,"sdLineName":null,"cityCode":"3340101","cityName":"浙江杭州电力客户服务中心","provinceCode":null,"stopTime":"2019-08-09 15:30:00","powerType":"全部","powerOffArea":"新市站国都一分线、9#间隔","powerOffReason":"新市站I段换柜。原停电结束时间17:30、变更停电结束时间15:30原因由于施工现场环境比较复杂，存在不确定因素，因此预估施工时间适当放长了，而实际施工进行得比较顺利，因此该工作提前结束。","powerOffId":"2019080131020140"},{"poweroffId":2019080131020139,"sgpoweroffId":null,"subsName":"","lineName":"10kV后周D554线","pubTranName":"振兴路4#公变,","scope":"浙江省-杭州市-富阳区-富春街道-后周社区(振兴路,前周路)","startTime":"2019-08-01 21:36:08","stopDate":"2019-08-01 23:36:08","orgNo":"3340170","typeCode":"电网故障停限电","poweroffArea":"110kV春江变:后周D554线-振兴路4#公变后段","poweroffReason":"高压开关跳闸","powerTime":"2019-08-01 23:20:52","powerComm":"已送电","subsNo":"","lineNo":"","tgNo":"","tgName":null,"infoStatus":"1","orgName":"国网浙江杭州市富阳区供电公司","typeName":null,"infoStatusName":null,"dateDay":null,"orgNos":null,"nowTime":null,"countyName":null,"streetName":null,"villageName":null,"roadName":null,"communityName":null,"tranName":null,"sdLineName":null,"cityCode":"3340170","cityName":"国网浙江杭州市富阳区供电公司","provinceCode":null,"stopTime":"2019-08-01 23:36:08","powerType":"全部","powerOffArea":"110kV春江变:后周D554线-振兴路4#公变后段","powerOffReason":"高压开关跳闸","powerOffId":"2019080131020139"},{"poweroffId":2019080131020137,"sgpoweroffId":null,"subsName":"","lineName":"10kV里洪H553线","pubTranName":"双溪村坑西馒头山公变,径山村禅茶1号公变,径山村禅茶4号公变,径山村禅茶2号公变,径山村馒头山公变,径山农居点6120542048,径山村禅茶3号公变,","scope":"浙江省-杭州市-余杭区-径山镇-四岭行政村-沙塘自然村,径山镇-径山行政村(馒头山自然村,里洪自然村,径山自然村),径山镇-双溪行政村(双溪村,坑西自然村);径山镇-杭州市余杭区径山镇人民政府一带","startTime":"2019-08-01 20:43:00","stopDate":"2019-08-01 23:30:00","orgNo":"3340140","typeCode":"电网故障停限电","poweroffArea":"110kV潘板变:里洪H553线禅村环网站禅村环网站2#负荷开关后段","poweroffReason":"禅村环网站禅村环网站2#负荷开关后段 电缆断线故障","powerTime":"2019-08-01 22:48:00","powerComm":"已送电","subsNo":"","lineNo":"","tgNo":"","tgName":null,"infoStatus":"1","orgName":"国网浙江杭州市余杭区供电有限公司","typeName":null,"infoStatusName":null,"dateDay":null,"orgNos":null,"nowTime":null,"countyName":null,"streetName":null,"villageName":null,"roadName":null,"communityName":null,"tranName":null,"sdLineName":null,"cityCode":"3340140","cityName":"国网浙江杭州市余杭区供电有限公司","provinceCode":null,"stopTime":"2019-08-01 23:30:00","powerType":"全部","powerOffArea":"110kV潘板变:里洪H553线禅村环网站禅村环网站2#负荷开关后段","powerOffReason":"禅村环网站禅村环网站2#负荷开关后段 电缆断线故障","powerOffId":"2019080131020137"},{"poweroffId":2019080131020136,"sgpoweroffId":null,"subsName":"","lineName":"10kV惠五A110线","pubTranName":"保利霞飞郡3#公变,","scope":"浙江省-杭州市-萧山区-北干街道-市北社区-建设二路、保利霞飞郡一带","startTime":"2019-08-01 20:42:57","stopDate":"2019-08-01 22:42:57","orgNo":"3340130","typeCode":"电网故障停限电","poweroffArea":"110kV惠兴变:惠五A110线-保利霞飞郡3#公变后段","poweroffReason":"(低压停电信息)低压开关跳闸","powerTime":"2019-08-01 22:00:53","powerComm":"已送电","subsNo":"","lineNo":"","tgNo":"","tgName":null,"infoStatus":"1","orgName":"国网浙江杭州市萧山区供电有限公司","typeName":null,"infoStatusName":null,"dateDay":null,"orgNos":null,"nowTime":null,"countyName":null,"streetName":null,"villageName":null,"roadName":null,"communityName":null,"tranName":null,"sdLineName":null,"cityCode":"3340130","cityName":"国网浙江杭州市萧山区供电有限公司","provinceCode":null,"stopTime":"2019-08-01 22:42:57","powerType":"全部","powerOffArea":"110kV惠兴变:惠五A110线-保利霞飞郡3#公变后段","powerOffReason":"(低压停电信息)低压开关跳闸","powerOffId":"2019080131020136"},{"poweroffId":2019080131020131,"sgpoweroffId":null,"subsName":"","lineName":"10kV孝丰526线","pubTranName":"桃花二变,","scope":"浙江省-杭州市-下城区-武林街道(长寿社区-环城西路,环西社区-环城西路、桃花河、桃花河新村)","startTime":"2019-08-01 19:53:05","stopDate":"2019-08-01 21:07:01","orgNo":"3340101","typeCode":"电网故障停限电","poweroffArea":"110kV武林变:孝丰526线-桃花二变后段","poweroffReason":"(低压停电信息)低压开关跳闸 原预计停电结束时间2019-08-01 23:53:05,由于施工现场环境比较复杂，存在不确定因素，因此预估施工时间适当放长了，而实际施工进行得比较顺利，因此提前送电了","powerTime":"2019-08-01 20:44:33","powerComm":"已送电","subsNo":"","lineNo":"","tgNo":"","tgName":null,"infoStatus":"1","orgName":"浙江杭州电力客户服务中心","typeName":null,"infoStatusName":null,"dateDay":null,"orgNos":null,"nowTime":null,"countyName":null,"streetName":null,"villageName":null,"roadName":null,"communityName":null,"tranName":null,"sdLineName":null,"cityCode":"3340101","cityName":"浙江杭州电力客户服务中心","provinceCode":null,"stopTime":"2019-08-01 21:07:01","powerType":"全部","powerOffArea":"110kV武林变:孝丰526线-桃花二变后段","powerOffReason":"(低压停电信息)低压开关跳闸 原预计停电结束时间2019-08-01 23:53:05,由于施工现场环境比较复杂，存在不确定因素，因此预估施工时间适当放长了，而实际施工进行得比较顺利，因此提前送电了","powerOffId":"2019080131020131"},{"poweroffId":2019080131020124,"sgpoweroffId":null,"subsName":"","lineName":"10kV管村C241线","pubTranName":"管村村17#变,","scope":"浙江省-杭州市-萧山区-楼塔镇-管村行政村(管村自然村,开发区)、浙江省杭州市萧山区楼塔镇楼塔开发区106号、浙江省杭州市萧山区楼塔镇管村开发区85号等一带","startTime":"2019-08-01 18:48:58","stopDate":"2019-08-01 22:50:58","orgNo":"3340130","typeCode":"电网故障停限电","poweroffArea":"35kV楼塔变:管村C241线-管村村17#变台区低压开关","poweroffReason":"(低压停电信息)低压开关跳闸 原停电结束时间：2019-08-01 21:50，变更停电结束时间：2019-08-01 22:50，由于抢修现场抢修难度大，故需要延迟送电。","powerTime":"2019-08-01 22:24:36","powerComm":"已送电","subsNo":"","lineNo":"","tgNo":"","tgName":null,"infoStatus":"1","orgName":"国网浙江杭州市萧山区供电有限公司","typeName":null,"infoStatusName":null,"dateDay":null,"orgNos":null,"nowTime":null,"countyName":null,"streetName":null,"villageName":null,"roadName":null,"communityName":null,"tranName":null,"sdLineName":null,"cityCode":"3340130","cityName":"国网浙江杭州市萧山区供电有限公司","provinceCode":null,"stopTime":"2019-08-01 22:50:58","powerType":"全部","powerOffArea":"35kV楼塔变:管村C241线-管村村17#变台区低压开关","powerOffReason":"(低压停电信息)低压开关跳闸 原停电结束时间：2019-08-01 21:50，变更停电结束时间：2019-08-01 22:50，由于抢修现场抢修难度大，故需要延迟送电。","powerOffId":"2019080131020124"}],"pageModel":{"pageNow":1337,"totalCount":17789,"totalPage":1779,"tableRows":0,"pageCount":10,"beginCount":13360},"isExperi":"1"}