{"message":"","today":"2020-06-16","seleList":[{"poweroffId":2019073131020138,"sgpoweroffId":null,"subsName":"","lineName":"10kV交通D364线","pubTranName":"秋丰村24#孙家弄2#公变,","scope":"浙江省-杭州市-富阳区-富春街道-秋丰行政村-秋丰自然村","startTime":"2019-07-31 22:46:50","stopDate":"2019-07-31 23:40:50","orgNo":"3340170","typeCode":"电网故障停限电","poweroffArea":"110kV富鹿变:交通D364线-秋丰村24#孙家弄2#公变后段","poweroffReason":"(低压停电信息)低压开关烧坏","powerTime":"2019-07-31 23:10:29","powerComm":"已送电","subsNo":"","lineNo":"","tgNo":"","tgName":null,"infoStatus":"1","orgName":"国网浙江杭州市富阳区供电公司","typeName":null,"infoStatusName":null,"dateDay":null,"orgNos":null,"nowTime":null,"countyName":null,"streetName":null,"villageName":null,"roadName":null,"communityName":null,"tranName":null,"sdLineName":null,"cityCode":"3340170","cityName":"国网浙江杭州市富阳区供电公司","provinceCode":null,"stopTime":"2019-07-31 23:40:50","powerType":"全部","powerOffArea":"110kV富鹿变:交通D364线-秋丰村24#孙家弄2#公变后段","powerOffReason":"(低压停电信息)低压开关烧坏","powerOffId":"2019073131020138"},{"poweroffId":2019073131020135,"sgpoweroffId":null,"subsName":"","lineName":"10kV园北D945线","pubTranName":"湖塍村4号庙山上公变,","scope":"浙江省-杭州市-富阳区-富春街道-湖塍行政村-庙山自然村","startTime":"2019-07-31 22:25:34","stopDate":"2019-07-31 23:28:24","orgNo":"3340170","typeCode":"电网故障停限电","poweroffArea":"110kV育才变:园北D945线-湖塍村4号庙山上公变后段","poweroffReason":"(低压停电信息)低压开关跳闸","powerTime":"2019-07-31 23:15:40","powerComm":"已送电","subsNo":"","lineNo":"","tgNo":"","tgName":null,"infoStatus":"1","orgName":"国网浙江杭州市富阳区供电公司","typeName":null,"infoStatusName":null,"dateDay":null,"orgNos":null,"nowTime":null,"countyName":null,"streetName":null,"villageName":null,"roadName":null,"communityName":null,"tranName":null,"sdLineName":null,"cityCode":"3340170","cityName":"国网浙江杭州市富阳区供电公司","provinceCode":null,"stopTime":"2019-07-31 23:28:24","powerType":"全部","powerOffArea":"110kV育才变:园北D945线-湖塍村4号庙山上公变后段","powerOffReason":"(低压停电信息)低压开关跳闸","powerOffId":"2019073131020135"},{"poweroffId":2019073131020131,"sgpoweroffId":null,"subsName":"","lineName":"10kV西凤8321线","pubTranName":"环宿二,","scope":"浙江省-杭州市-下城区-武林街道-环西社区(环城西路,武林路,劳工弄,环西新村)","startTime":"2019-07-31 22:11:42","stopDate":"2019-08-01 00:11:42","orgNo":"3340101","typeCode":"电网故障停限电","poweroffArea":"110kV昭庆变:西凤8321线-环宿二后段","poweroffReason":"（低压停电信息）低压开关跳闸","powerTime":"2019-07-31 23:14:41","powerComm":"送电","subsNo":"","lineNo":"","tgNo":"","tgName":null,"infoStatus":"1","orgName":"浙江杭州电力客户服务中心","typeName":null,"infoStatusName":null,"dateDay":null,"orgNos":null,"nowTime":null,"countyName":null,"streetName":null,"villageName":null,"roadName":null,"communityName":null,"tranName":null,"sdLineName":null,"cityCode":"3340101","cityName":"浙江杭州电力客户服务中心","provinceCode":null,"stopTime":"2019-08-01 00:11:42","powerType":"全部","powerOffArea":"110kV昭庆变:西凤8321线-环宿二后段","powerOffReason":"（低压停电信息）低压开关跳闸","powerOffId":"2019073131020131"},{"poweroffId":2019073131020120,"sgpoweroffId":null,"subsName":"","lineName":"10kV达业9803线","pubTranName":"森那美,盛达八变,盛达四变,融尚住施2,瑞达汽车,盛达二变,融尚住施1,融尚住施3,华盛达1#,盛达十变,万达外铺6#,万达百货1#,盛达六变,市石(7),市通施(3),中现汽车,旗路,融尚住施4,融尚住施4,5#,万达外铺2#,飞隆,","scope":"浙江省-杭州市-拱墅区-祥符街道(祥符社区-石祥路、杭行路,祥茂路、祥富路、万达广场商业街、总管堂社区-星桥街、阅城公寓、阅城新座);(浙江汇兴汽车销售有限公司,深圳市开元国际物业管理有限公司杭州分公司,杭州拱墅万达广场商业管理有限公司,杭州市市政公用建设开发有限公司,杭州融尚置地有限公司)(杭州市城市照明发展中心,浙江元通瑞达汽车有限公司,杭州森那美贸易有限公司,杭州良森汽车销售服务有限公司)(杭州市路灯管理所,金科物业服务集团有限公司杭州分公司)","startTime":"2019-07-31 17:59:20","stopDate":"2019-07-31 20:59:20","orgNo":"3340101","typeCode":"电网故障停限电","poweroffArea":"110kV红旗变:达业9803线","poweroffReason":"高压开关跳闸 原预计停电结束时间2019-07-31 22:59:20,由于施工现场环境比较复杂，存在不确定因素，因此预估施工时间适当放长了， 而实际施工进行得比较顺利，因此提前送电了","powerTime":"2019-07-31 20:24:48","powerComm":"已送电","subsNo":"","lineNo":"","tgNo":"","tgName":null,"infoStatus":"1","orgName":"浙江杭州电力客户服务中心","typeName":null,"infoStatusName":null,"dateDay":null,"orgNos":null,"nowTime":null,"countyName":null,"streetName":null,"villageName":null,"roadName":null,"communityName":null,"tranName":null,"sdLineName":null,"cityCode":"3340101","cityName":"浙江杭州电力客户服务中心","provinceCode":null,"stopTime":"2019-07-31 20:59:20","powerType":"全部","powerOffArea":"110kV红旗变:达业9803线","powerOffReason":"高压开关跳闸 原预计停电结束时间2019-07-31 22:59:20,由于施工现场环境比较复杂，存在不确定因素，因此预估施工时间适当放长了， 而实际施工进行得比较顺利，因此提前送电了","powerOffId":"2019073131020120"},{"poweroffId":2019073131020119,"sgpoweroffId":null,"subsName":"","lineName":"10kV良加H362线","pubTranName":"东莲村四郎桥桥东公变,东莲村四郎桥桥西公变,大陆村徐家畈公变,东莲村王家塘2号公变,","scope":"浙江省-杭州市-余杭区-良渚街道-七贤桥行政村-沿山自然村,良渚街道-东莲行政村(四郎桥自然村,东西大道)一带","startTime":"2019-07-31 17:53:00","stopDate":"2019-07-31 21:30:00","orgNo":"3340140","typeCode":"电网故障停限电","poweroffArea":"110kV学里变:良加H362线良加H362线东莲分线开关后段","poweroffReason":"良加H362线东莲分线开关后段 架空线断线故障","powerTime":"2019-07-31 21:20:00","powerComm":"已送电","subsNo":"","lineNo":"","tgNo":"","tgName":null,"infoStatus":"1","orgName":"国网浙江杭州市余杭区供电有限公司","typeName":null,"infoStatusName":null,"dateDay":null,"orgNos":null,"nowTime":null,"countyName":null,"streetName":null,"villageName":null,"roadName":null,"communityName":null,"tranName":null,"sdLineName":null,"cityCode":"3340140","cityName":"国网浙江杭州市余杭区供电有限公司","provinceCode":null,"stopTime":"2019-07-31 21:30:00","powerType":"全部","powerOffArea":"110kV学里变:良加H362线良加H362线东莲分线开关后段","powerOffReason":"良加H362线东莲分线开关后段 架空线断线故障","powerOffId":"2019073131020119"},{"poweroffId":2019073131020099,"sgpoweroffId":null,"subsName":"","lineName":"10kV慧国C907线","pubTranName":"志晟精密,采埃孚传动技术(杭州)有限公司变压器2#,采埃孚传动技术(杭州)有限公司变压器,","scope":"浙江省-杭州市-萧山区-经济技术开发区-钱江社区(采埃孚传动技术(杭州)有限公司,杭州志晟精密塑胶工业有限公司)","startTime":"2019-08-09 08:55:00","stopDate":"2019-08-09 17:30:00","orgNo":"3340130","typeCode":"计划停电","poweroffArea":"110kV鸿达变:慧国C907线-威塑分支后段","poweroffReason":"电缆分支箱中采埃孚传动技术(杭州)有限公司电缆拆除","powerTime":"2019-08-09 16:49:02","powerComm":"已送电","subsNo":"","lineNo":"","tgNo":"","tgName":null,"infoStatus":"1","orgName":"国网浙江杭州市萧山区供电有限公司","typeName":null,"infoStatusName":null,"dateDay":null,"orgNos":null,"nowTime":null,"countyName":null,"streetName":null,"villageName":null,"roadName":null,"communityName":null,"tranName":null,"sdLineName":null,"cityCode":"3340130","cityName":"国网浙江杭州市萧山区供电有限公司","provinceCode":null,"stopTime":"2019-08-09 17:30:00","powerType":"全部","powerOffArea":"110kV鸿达变:慧国C907线-威塑分支后段","powerOffReason":"电缆分支箱中采埃孚传动技术(杭州)有限公司电缆拆除","powerOffId":"2019073131020099"},{"poweroffId":2019073131020098,"sgpoweroffId":null,"subsName":"","lineName":"10kV冯金G906线","pubTranName":"永西5组4号公变,","scope":"浙江省杭州市余杭区乔司街道：永西村一带","startTime":"2019-08-07 07:00:00","stopDate":"2019-08-07 15:30:00","orgNo":"3340140","typeCode":"临时停电","poweroffArea":"110kV庙港变:冯金G906线永西5组4号公变后段","poweroffReason":"(低压停电信息)配网工程（2019年杭州余杭乔司地区永西社区等配变台区改造工程）：永西5组4#变调换12米杆3基、新立电杆2基、新放双回路导线3档、农灌箱移位1只、落户线搭接6户","powerTime":"2019-08-07 15:27:19","powerComm":"施工结束","subsNo":"","lineNo":"","tgNo":"","tgName":null,"infoStatus":"1","orgName":"国网浙江杭州市余杭区供电有限公司","typeName":null,"infoStatusName":null,"dateDay":null,"orgNos":null,"nowTime":null,"countyName":null,"streetName":null,"villageName":null,"roadName":null,"communityName":null,"tranName":null,"sdLineName":null,"cityCode":"3340140","cityName":"国网浙江杭州市余杭区供电有限公司","provinceCode":null,"stopTime":"2019-08-07 15:30:00","powerType":"全部","powerOffArea":"110kV庙港变:冯金G906线永西5组4号公变后段","powerOffReason":"(低压停电信息)配网工程（2019年杭州余杭乔司地区永西社区等配变台区改造工程）：永西5组4#变调换12米杆3基、新立电杆2基、新放双回路导线3档、农灌箱移位1只、落户线搭接6户","powerOffId":"2019073131020098"},{"poweroffId":2019073131020096,"sgpoweroffId":null,"subsName":"","lineName":"10kV红联G918线","pubTranName":"方桥3组2号公变,","scope":"浙江省杭州市余杭区乔司街道：方桥行政村(方桥自然村,目野自然村)一带","startTime":"2019-08-07 07:00:00","stopDate":"2019-08-07 15:30:00","orgNo":"3340140","typeCode":"临时停电","poweroffArea":"110kV庙港变:红联G918线方桥3组2号公变后段","poweroffReason":"(低压停电信息)配网工程（2019年杭州余杭乔司地区方桥社区等配变台区改造工程）：调换12米杆7基、调换导线6档、新出电缆2根","powerTime":"2019-08-07 15:26:01","powerComm":"施工结束","subsNo":"","lineNo":"","tgNo":"","tgName":null,"infoStatus":"1","orgName":"国网浙江杭州市余杭区供电有限公司","typeName":null,"infoStatusName":null,"dateDay":null,"orgNos":null,"nowTime":null,"countyName":null,"streetName":null,"villageName":null,"roadName":null,"communityName":null,"tranName":null,"sdLineName":null,"cityCode":"3340140","cityName":"国网浙江杭州市余杭区供电有限公司","provinceCode":null,"stopTime":"2019-08-07 15:30:00","powerType":"全部","powerOffArea":"110kV庙港变:红联G918线方桥3组2号公变后段","powerOffReason":"(低压停电信息)配网工程（2019年杭州余杭乔司地区方桥社区等配变台区改造工程）：调换12米杆7基、调换导线6档、新出电缆2根","powerOffId":"2019073131020096"},{"poweroffId":2019073131020095,"sgpoweroffId":null,"subsName":"","lineName":"10kV建联G924线","pubTranName":"大井1组3号公变,","scope":"浙江省杭州市余杭区乔司街道：葛家车行政村吴家车自然村一带","startTime":"2019-08-08 07:00:00","stopDate":"2019-08-08 16:00:00","orgNo":"3340140","typeCode":"计划停电","poweroffArea":"110kV庙港变:建联G924线大井1组3号公变后段","poweroffReason":"(低压停电信息)配网工程（2019年杭州余杭乔司地区和睦村等配变台区改造工程）：调换12米杆4基、调换4*120导线5档、做高拉1组","powerTime":"2019-08-08 15:21:21","powerComm":"施工结束","subsNo":"","lineNo":"","tgNo":"","tgName":null,"infoStatus":"1","orgName":"国网浙江杭州市余杭区供电有限公司","typeName":null,"infoStatusName":null,"dateDay":null,"orgNos":null,"nowTime":null,"countyName":null,"streetName":null,"villageName":null,"roadName":null,"communityName":null,"tranName":null,"sdLineName":null,"cityCode":"3340140","cityName":"国网浙江杭州市余杭区供电有限公司","provinceCode":null,"stopTime":"2019-08-08 16:00:00","powerType":"全部","powerOffArea":"110kV庙港变:建联G924线大井1组3号公变后段","powerOffReason":"(低压停电信息)配网工程（2019年杭州余杭乔司地区和睦村等配变台区改造工程）：调换12米杆4基、调换4*120导线5档、做高拉1组","powerOffId":"2019073131020095"},{"poweroffId":2019073131020088,"sgpoweroffId":null,"subsName":"","lineName":"10kV九沿7126线","pubTranName":"杨居(二),","scope":"浙江省-杭州市-江干区-江岸邻里小区16号住宅照明T接箱，16号商铺T接箱","startTime":"2019-08-09 09:30:00","stopDate":"2019-08-09 13:30:00","orgNo":"3340101","typeCode":"计划停电","poweroffArea":"110kV牛田变:九沿7126线-杨居(二)B2-2、B2-5低压开关","poweroffReason":"(低压停电信息)杨公江岸邻里小区电梯加装电源接入工程；计划停电结束时间12：30因工作量大原因导致延时送电，预计送电时间：2019-08-09 13:30","powerTime":"2019-08-09 13:03:42","powerComm":"已送电","subsNo":"","lineNo":"","tgNo":"","tgName":null,"infoStatus":"1","orgName":"浙江杭州电力客户服务中心","typeName":null,"infoStatusName":null,"dateDay":null,"orgNos":null,"nowTime":null,"countyName":null,"streetName":null,"villageName":null,"roadName":null,"communityName":null,"tranName":null,"sdLineName":null,"cityCode":"3340101","cityName":"浙江杭州电力客户服务中心","provinceCode":null,"stopTime":"2019-08-09 13:30:00","powerType":"全部","powerOffArea":"110kV牛田变:九沿7126线-杨居(二)B2-2、B2-5低压开关","powerOffReason":"(低压停电信息)杨公江岸邻里小区电梯加装电源接入工程；计划停电结束时间12：30因工作量大原因导致延时送电，预计送电时间：2019-08-09 13:30","powerOffId":"2019073131020088"}],"pageModel":{"pageNow":1344,"totalCount":17789,"totalPage":1779,"tableRows":0,"pageCount":10,"beginCount":13430},"isExperi":"1"}