{"message":"","today":"2020-06-16","seleList":[{"poweroffId":2019073131020087,"sgpoweroffId":null,"subsName":"","lineName":"10kV寓杨7115线","pubTranName":"杨居(三),","scope":"浙江省-杭州市-江干区-江岸邻里小区15#住宅照明T接箱，15#商铺T接箱","startTime":"2019-08-09 12:30:00","stopDate":"2019-08-09 15:30:00","orgNo":"3340101","typeCode":"计划停电","poweroffArea":"110kV牛田变:寓杨7115线-杨居(三)B3-1、B3-10低压开关","poweroffReason":"杨公江岸邻里小区电梯加装电源接入工程","powerTime":"2019-08-09 14:53:35","powerComm":"已送电","subsNo":"","lineNo":"","tgNo":"","tgName":null,"infoStatus":"1","orgName":"浙江杭州电力客户服务中心","typeName":null,"infoStatusName":null,"dateDay":null,"orgNos":null,"nowTime":null,"countyName":null,"streetName":null,"villageName":null,"roadName":null,"communityName":null,"tranName":null,"sdLineName":null,"cityCode":"3340101","cityName":"浙江杭州电力客户服务中心","provinceCode":null,"stopTime":"2019-08-09 15:30:00","powerType":"全部","powerOffArea":"110kV牛田变:寓杨7115线-杨居(三)B3-1、B3-10低压开关","powerOffReason":"杨公江岸邻里小区电梯加装电源接入工程","powerOffId":"2019073131020087"},{"poweroffId":2019073131020086,"sgpoweroffId":null,"subsName":"","lineName":"10kV机经8718线","pubTranName":"府专(八),","scope":"浙江省-杭州市-江干区-彭埠镇-运新花苑14#楼2单元住宅，充电桩T箱，14#楼1单元住宅，9#楼公共负荷备供","startTime":"2019-08-15 09:30:00","stopDate":"2019-08-15 12:30:00","orgNo":"3340101","typeCode":"计划停电","poweroffArea":"110kV剧院变:机经8718线-府专(八)B4-1，B8-10，B4-2，B4-3低压开关","poweroffReason":"(低压停电信息)原停电结束时间14:00，变更停电结束时间12:30，原因由于施工现场比较复杂，存在不确定因素，因此预估施工时间适当放长了，而实际施工进行比较顺利，因此该工作提前结束。","powerTime":"2019-08-15 11:43:59","powerComm":"已送电","subsNo":"","lineNo":"","tgNo":"","tgName":null,"infoStatus":"1","orgName":"浙江杭州电力客户服务中心","typeName":null,"infoStatusName":null,"dateDay":null,"orgNos":null,"nowTime":null,"countyName":null,"streetName":null,"villageName":null,"roadName":null,"communityName":null,"tranName":null,"sdLineName":null,"cityCode":"3340101","cityName":"浙江杭州电力客户服务中心","provinceCode":null,"stopTime":"2019-08-15 12:30:00","powerType":"全部","powerOffArea":"110kV剧院变:机经8718线-府专(八)B4-1，B8-10，B4-2，B4-3低压开关","powerOffReason":"(低压停电信息)原停电结束时间14:00，变更停电结束时间12:30，原因由于施工现场比较复杂，存在不确定因素，因此预估施工时间适当放长了，而实际施工进行比较顺利，因此该工作提前结束。","powerOffId":"2019073131020086"},{"poweroffId":2019073131020085,"sgpoweroffId":null,"subsName":"","lineName":"10kV运佳H599线","pubTranName":"运河村李家塘公变,运河村郁宅2号公变,运河小学（6120816044）1#变,杭州余杭良渚组团投资有限公司,富力机械,邮局,运河村郁宅1号公变,永阳,运河热处理公司,","scope":"浙江省-杭州市-余杭区-良渚街道-良渚行政村-良渚自然村,良渚街道-运河行政村(郁宅自然村,运河街道);良渚街道(杭州永扬交通器材有限公司,中国电信股份有限公司杭州余杭区分公司,杭州市余杭区良渚杭行路小学,杭州市余杭区人民政府良渚街道办事处)一带","startTime":"2019-07-31 15:57:00","stopDate":"2019-07-31 18:00:00","orgNo":"3340140","typeCode":"电网故障停限电","poweroffArea":"110kV南庄变:运佳H599线郁宅邮局分线开关后段","poweroffReason":"运佳H599线郁宅邮局分线开关后段 电缆断线故障","powerTime":"2019-07-31 17:42:00","powerComm":"已送电","subsNo":"","lineNo":"","tgNo":"","tgName":null,"infoStatus":"1","orgName":"国网浙江杭州市余杭区供电有限公司","typeName":null,"infoStatusName":null,"dateDay":null,"orgNos":null,"nowTime":null,"countyName":null,"streetName":null,"villageName":null,"roadName":null,"communityName":null,"tranName":null,"sdLineName":null,"cityCode":"3340140","cityName":"国网浙江杭州市余杭区供电有限公司","provinceCode":null,"stopTime":"2019-07-31 18:00:00","powerType":"全部","powerOffArea":"110kV南庄变:运佳H599线郁宅邮局分线开关后段","powerOffReason":"运佳H599线郁宅邮局分线开关后段 电缆断线故障","powerOffId":"2019073131020085"},{"poweroffId":2019073131020074,"sgpoweroffId":null,"subsName":"","lineName":"10kV环保H606线","pubTranName":"丽湖房产基建1#,凤凰村张家公变,02省道路灯(6),阿宝物流,能源加油站,凤凰村凤凰岭公变,星慧电器,瑞达交通,丽湖房产基建3#,丽湖房产基建2#,金阳化工,凤凰村石矿公变,假日之约1号公变,","scope":"浙江省-杭州市-余杭区-余杭街道-凤凰山行政村(凤凰山自然村,城南路,张家自然村),余杭街道-凤联社区(凤凰自然村,禹航路);余杭街道(杭州余杭杭石交通能源有限责任公司,杭州阿宝物流有限公司,杭州余杭瑞达交通工程有限公司,金阳化工有限公司,杭州星慧电器有限公司,杭州市余杭区城市管理综合行政执法局,杭州丽湖房地产开发有限公司)一带","startTime":"2019-07-31 15:05:00","stopDate":"2019-07-31 17:05:00","orgNo":"3340140","typeCode":"电网故障停限电","poweroffArea":"110kV桃源变:环保H606线凤凰岭分线开关后段","poweroffReason":"环保H606线凤凰岭分线开关后段 导线断线故障","powerTime":"2019-07-31 17:00:00","powerComm":"已送电","subsNo":"","lineNo":"","tgNo":"","tgName":null,"infoStatus":"1","orgName":"国网浙江杭州市余杭区供电有限公司","typeName":null,"infoStatusName":null,"dateDay":null,"orgNos":null,"nowTime":null,"countyName":null,"streetName":null,"villageName":null,"roadName":null,"communityName":null,"tranName":null,"sdLineName":null,"cityCode":"3340140","cityName":"国网浙江杭州市余杭区供电有限公司","provinceCode":null,"stopTime":"2019-07-31 17:05:00","powerType":"全部","powerOffArea":"110kV桃源变:环保H606线凤凰岭分线开关后段","powerOffReason":"环保H606线凤凰岭分线开关后段 导线断线故障","powerOffId":"2019073131020074"},{"poweroffId":2019073131020068,"sgpoweroffId":null,"subsName":"","lineName":"10kV钟塘G306线","pubTranName":"丁山河杭派民居3号公变,丁山河村鱼家埭公变,丁山河村西坝公变,丁山河村河南墩公变,丁河村蓬家埭公变,丁山河村郑家埭大队公变,超丁村北墩公变,丁山河村五星公变,丁山河村打鸟湾公变,丁山河村陆庄东公变,丁山河村下塘河公变,丁山河村丁家门公变,超丁村杨家墩公变,杭州大关印务有限公司,丁山河杭派民居1号公变,丁河村河家弄公变,丁山河村鲶鱼头公变,丁山河村胡家墩公变,1#,丁山河村大墩公变,丁山河杭派民居4号公变,丁河村丁河村公变,丁山河杭派民居2号公变,余杭交通集团有限公司1变压器,丁山河村陆庄公变,丁河村黄家门公变,杭州当当电子有限公司,杭州巨德汽配有限公司1变压器,超丁村鲤花头公变,丁山河村丁山河公变,丁山河村陈家墩公变,丁山河村红卫大队公变,杭州市余杭区塘栖镇人民政府612084248301#专变,丁山河村大地墩公变,超丁村庞家墩村公变,杭州奥达金属制品有限公司,超丁村中墩公变,","scope":"浙江省-杭州市-余杭区-塘栖镇-丁山河行政村(丁山河村,丁山河),塘栖镇-丁河行政村(丁河村,丁山河),塘栖镇(超山行政村-超山村,塘栖行政村-塘栖村,西苑行政村-西苑村,超丁行政村-超丁村,莫家桥行政村-莫家桥村);浙江省-杭州市-余杭区-塘栖镇-超丁行政村-杭州市余杭区塘栖镇超山中心小学,塘栖镇-丁山河行政村(杭州巨德汽配有限公司,杭州市余杭区塘栖镇人民政府),塘栖镇-丁河行政村(杭州大关印务有限公司,杭州市余杭区公路管理处一带","startTime":"2019-07-31 13:49:00","stopDate":"2019-07-31 17:00:00","orgNo":"3340140","typeCode":"电网故障停限电","poweroffArea":"110kV西苑变:钟塘G306线-上河其分线开关后段","poweroffReason":"上河其分线开关后段 电缆断线故障","powerTime":"2019-07-31 16:27:00","powerComm":"已修复送电","subsNo":"","lineNo":"","tgNo":"","tgName":null,"infoStatus":"1","orgName":"国网浙江杭州市余杭区供电有限公司","typeName":null,"infoStatusName":null,"dateDay":null,"orgNos":null,"nowTime":null,"countyName":null,"streetName":null,"villageName":null,"roadName":null,"communityName":null,"tranName":null,"sdLineName":null,"cityCode":"3340140","cityName":"国网浙江杭州市余杭区供电有限公司","provinceCode":null,"stopTime":"2019-07-31 17:00:00","powerType":"全部","powerOffArea":"110kV西苑变:钟塘G306线-上河其分线开关后段","powerOffReason":"上河其分线开关后段 电缆断线故障","powerOffId":"2019073131020068"},{"poweroffId":2019073131020067,"sgpoweroffId":null,"subsName":"","lineName":"10kV百丈H563线","pubTranName":"仙岩村九东山二组公变,","scope":"浙江省-杭州市-余杭区-百丈镇-仙岩行政村","startTime":"2019-08-08 07:30:00","stopDate":"2019-08-08 12:30:00","orgNo":"3340140","typeCode":"计划停电","poweroffArea":"百丈H563线九洞山2组低压出线","poweroffReason":"计划工作","powerTime":"2019-08-08 11:35:38","powerComm":"已送电","subsNo":"","lineNo":"","tgNo":"","tgName":null,"infoStatus":"1","orgName":"国网浙江杭州市余杭区供电有限公司","typeName":null,"infoStatusName":null,"dateDay":null,"orgNos":null,"nowTime":null,"countyName":null,"streetName":null,"villageName":null,"roadName":null,"communityName":null,"tranName":null,"sdLineName":null,"cityCode":"3340140","cityName":"国网浙江杭州市余杭区供电有限公司","provinceCode":null,"stopTime":"2019-08-08 12:30:00","powerType":"全部","powerOffArea":"百丈H563线九洞山2组低压出线","powerOffReason":"计划工作","powerOffId":"2019073131020067"},{"poweroffId":2019073131020066,"sgpoweroffId":null,"subsName":"","lineName":"10kV双竹H567线","pubTranName":"黄湖街道小学公变,","scope":"浙江省-杭州市-余杭区黄湖镇-清波行政村","startTime":"2019-08-09 07:30:00","stopDate":"2019-08-09 12:30:00","orgNo":"3340140","typeCode":"计划停电","poweroffArea":"35kV黄湖变:双竹H567线-黄湖街道小学公变低压出线","poweroffReason":"计划工作","powerTime":"2019-08-09 12:15:35","powerComm":"全部送电","subsNo":"","lineNo":"","tgNo":"","tgName":null,"infoStatus":"1","orgName":"国网浙江杭州市余杭区供电有限公司","typeName":null,"infoStatusName":null,"dateDay":null,"orgNos":null,"nowTime":null,"countyName":null,"streetName":null,"villageName":null,"roadName":null,"communityName":null,"tranName":null,"sdLineName":null,"cityCode":"3340140","cityName":"国网浙江杭州市余杭区供电有限公司","provinceCode":null,"stopTime":"2019-08-09 12:30:00","powerType":"全部","powerOffArea":"35kV黄湖变:双竹H567线-黄湖街道小学公变低压出线","powerOffReason":"计划工作","powerOffId":"2019073131020066"},{"poweroffId":2019073131020065,"sgpoweroffId":null,"subsName":"","lineName":"10kV海派H464线","pubTranName":"长桥农居点变,","scope":"浙江省-杭州市-余杭区-良渚街道-管家塘社区(良运街,好运街),良渚街道(运河行政村-良运街,长桥行政村-良运街)一带","startTime":"2019-07-31 13:29:00","stopDate":"2019-07-31 16:00:00","orgNo":"3340140","typeCode":"电网故障停限电","poweroffArea":"110kV金渡变:海派H464线-长桥农居点后段","poweroffReason":"长桥农居点后段 低压断线故障","powerTime":"2019-07-31 15:22:55","powerComm":"已修复送电","subsNo":"","lineNo":"","tgNo":"","tgName":null,"infoStatus":"1","orgName":"国网浙江杭州市余杭区供电有限公司","typeName":null,"infoStatusName":null,"dateDay":null,"orgNos":null,"nowTime":null,"countyName":null,"streetName":null,"villageName":null,"roadName":null,"communityName":null,"tranName":null,"sdLineName":null,"cityCode":"3340140","cityName":"国网浙江杭州市余杭区供电有限公司","provinceCode":null,"stopTime":"2019-07-31 16:00:00","powerType":"全部","powerOffArea":"110kV金渡变:海派H464线-长桥农居点后段","powerOffReason":"长桥农居点后段 低压断线故障","powerOffId":"2019073131020065"},{"poweroffId":2019073131020063,"sgpoweroffId":null,"subsName":"","lineName":"10kV东郊G104线","pubTranName":"朝阳西路公变,","scope":"浙江省-杭州市-余杭区-临平街道-工农新村社区北大街,工农新村,朝阳西路,邱山大街),临平街道-西大街社区朝阳西路,西大街,东湖街道桂芳桥社区-史家埭路,庙前社区-北大,临平街道庙东社区-庙东,邱山社区-邱山一带","startTime":"2019-07-31 12:53:00","stopDate":"2019-07-31 17:30:00","orgNo":"3340140","typeCode":"电网故障停限电","poweroffArea":"110kV临平变:东郊G104线-朝阳西路公变后段","poweroffReason":"朝阳西路公变后段 低压断线故障","powerTime":"2019-07-31 17:01:00","powerComm":"已修复送电","subsNo":"","lineNo":"","tgNo":"","tgName":null,"infoStatus":"1","orgName":"国网浙江杭州市余杭区供电有限公司","typeName":null,"infoStatusName":null,"dateDay":null,"orgNos":null,"nowTime":null,"countyName":null,"streetName":null,"villageName":null,"roadName":null,"communityName":null,"tranName":null,"sdLineName":null,"cityCode":"3340140","cityName":"国网浙江杭州市余杭区供电有限公司","provinceCode":null,"stopTime":"2019-07-31 17:30:00","powerType":"全部","powerOffArea":"110kV临平变:东郊G104线-朝阳西路公变后段","powerOffReason":"朝阳西路公变后段 低压断线故障","powerOffId":"2019073131020063"},{"poweroffId":2019073131020056,"sgpoweroffId":null,"subsName":"","lineName":"10kV云峰H872线","pubTranName":"申加混泥土,磊翔建材,","scope":"浙江省杭州市余杭区中泰街道：磊翔建材厂、申加混泥土长一带","startTime":"2019-08-08 08:40:00","stopDate":"2019-08-08 11:58:00","orgNo":"3340140","typeCode":"计划停电","poweroffArea":"110kV中泰变:云峰H872线-九峰环网站4号负荷开关后段 原停电结束时间17:00，因抢修力量充足，提前完成工作任务，现变更停电结束时间至11:58","poweroffReason":"计划工作","powerTime":"2019-08-08 11:23:23","powerComm":"已全部送电。","subsNo":"","lineNo":"","tgNo":"","tgName":null,"infoStatus":"1","orgName":"国网浙江杭州市余杭区供电有限公司","typeName":null,"infoStatusName":null,"dateDay":null,"orgNos":null,"nowTime":null,"countyName":null,"streetName":null,"villageName":null,"roadName":null,"communityName":null,"tranName":null,"sdLineName":null,"cityCode":"3340140","cityName":"国网浙江杭州市余杭区供电有限公司","provinceCode":null,"stopTime":"2019-08-08 11:58:00","powerType":"全部","powerOffArea":"110kV中泰变:云峰H872线-九峰环网站4号负荷开关后段 原停电结束时间17:00，因抢修力量充足，提前完成工作任务，现变更停电结束时间至11:58","powerOffReason":"计划工作","powerOffId":"2019073131020056"}],"pageModel":{"pageNow":1345,"totalCount":17789,"totalPage":1779,"tableRows":0,"pageCount":10,"beginCount":13440},"isExperi":"1"}