{"message":"","today":"2020-06-16","seleList":[{"poweroffId":2019073131020047,"sgpoweroffId":null,"subsName":"","lineName":"10kV天万G011线","pubTranName":"钱塘12组（浜岸上）2号公变,","scope":"浙江省杭州市余杭区南苑街道:钱塘社区钱塘12组一带","startTime":"2019-08-08 07:00:00","stopDate":"2019-08-08 14:30:00","orgNo":"3340140","typeCode":"计划停电","poweroffArea":"110kV外乔变:天万G011线钱塘12组（浜岸上）2#公变","poweroffReason":"(低压停电信息)钱塘12组（浜岸上）2#个别调换计量箱、装三相不平衡、调换4*150电缆1根、调换4*120导线5档","powerTime":"2019-08-08 14:12:21","powerComm":"施工结束","subsNo":"","lineNo":"","tgNo":"","tgName":null,"infoStatus":"1","orgName":"国网浙江杭州市余杭区供电有限公司","typeName":null,"infoStatusName":null,"dateDay":null,"orgNos":null,"nowTime":null,"countyName":null,"streetName":null,"villageName":null,"roadName":null,"communityName":null,"tranName":null,"sdLineName":null,"cityCode":"3340140","cityName":"国网浙江杭州市余杭区供电有限公司","provinceCode":null,"stopTime":"2019-08-08 14:30:00","powerType":"全部","powerOffArea":"110kV外乔变:天万G011线钱塘12组（浜岸上）2#公变","powerOffReason":"(低压停电信息)钱塘12组（浜岸上）2#个别调换计量箱、装三相不平衡、调换4*150电缆1根、调换4*120导线5档","powerOffId":"2019073131020047"},{"poweroffId":2019073131020038,"sgpoweroffId":null,"subsName":"","lineName":"10kV紫东8035线","pubTranName":"嘉南（七）,嘉南（五）,","scope":"浙江省-杭州市-西湖区-文新街道-新金都社区-古墩路(金都城市花园)","startTime":"2019-07-31 10:15:28","stopDate":"2019-07-31 11:15:28","orgNo":"3340101","typeCode":"电网故障停限电","poweroffArea":"110kV紫荆变:紫东8035线-嘉南（七）,嘉南（五）","poweroffReason":"高压开关跳闸 原预计停电结束时间2019-07-31 13:15:28,由于施工现场环境比较复杂，存在不确定因素，因此预估施工时间适当放长了，而实际施工进行得比较顺利，因此提前送电了","powerTime":"2019-07-31 10:43:41","powerComm":"已送电","subsNo":"","lineNo":"","tgNo":"","tgName":null,"infoStatus":"1","orgName":"浙江杭州电力客户服务中心","typeName":null,"infoStatusName":null,"dateDay":null,"orgNos":null,"nowTime":null,"countyName":null,"streetName":null,"villageName":null,"roadName":null,"communityName":null,"tranName":null,"sdLineName":null,"cityCode":"3340101","cityName":"浙江杭州电力客户服务中心","provinceCode":null,"stopTime":"2019-07-31 11:15:28","powerType":"全部","powerOffArea":"110kV紫荆变:紫东8035线-嘉南（七）,嘉南（五）","powerOffReason":"高压开关跳闸 原预计停电结束时间2019-07-31 13:15:28,由于施工现场环境比较复杂，存在不确定因素，因此预估施工时间适当放长了，而实际施工进行得比较顺利，因此提前送电了","powerOffId":"2019073131020038"},{"poweroffId":2019073131020034,"sgpoweroffId":null,"subsName":"","lineName":"10kV山后G830线","pubTranName":"龙旋村曹家墩2号公变,","scope":"浙江省杭州市余杭区崇贤街道龙旋村曹家墩一带","startTime":"2019-08-07 07:30:00","stopDate":"2019-08-07 16:30:00","orgNo":"3340140","typeCode":"临时停电","poweroffArea":"110kV北庄变:山后G830线龙旋村曹家墩2号公变","poweroffReason":"2019年杭州余杭崇贤范家角等台区0.4kV配电线路整治工程:山后G830线龙旋村曹家墩2号公变70平方调换成120平方低压导线6档及接户线搭接工作。","powerTime":"2019-08-07 16:17:49","powerComm":"已通电","subsNo":"","lineNo":"","tgNo":"","tgName":null,"infoStatus":"1","orgName":"国网浙江杭州市余杭区供电有限公司","typeName":null,"infoStatusName":null,"dateDay":null,"orgNos":null,"nowTime":null,"countyName":null,"streetName":null,"villageName":null,"roadName":null,"communityName":null,"tranName":null,"sdLineName":null,"cityCode":"3340140","cityName":"国网浙江杭州市余杭区供电有限公司","provinceCode":null,"stopTime":"2019-08-07 16:30:00","powerType":"全部","powerOffArea":"110kV北庄变:山后G830线龙旋村曹家墩2号公变","powerOffReason":"2019年杭州余杭崇贤范家角等台区0.4kV配电线路整治工程:山后G830线龙旋村曹家墩2号公变70平方调换成120平方低压导线6档及接户线搭接工作。","powerOffId":"2019073131020034"},{"poweroffId":2019073131020028,"sgpoweroffId":null,"subsName":"","lineName":"10kV北十9642线","pubTranName":"元农(四),","scope":"浙江省-杭州市-杭州市经济技术开发区-下沙街道-元成社区东盛家园17幢1号-5号商铺，华数，社区警务社","startTime":"2019-08-08 10:30:00","stopDate":"2019-08-08 12:00:00","orgNo":"3340101","typeCode":"计划停电","poweroffArea":"110kV教北变:北十9642线-元农(四)变B4-3低压开关","poweroffReason":"(低压停电信息)原停电结束时间14:00，变更停电结束时间12:00，原因由于施工现场比较复杂，存在不确定因素，因此预估施工时间适当放长了，而实际施工进行比较顺利，因此该工作提前结束。","powerTime":"2019-08-08 11:02:59","powerComm":"已送电","subsNo":"","lineNo":"","tgNo":"","tgName":null,"infoStatus":"1","orgName":"浙江杭州电力客户服务中心","typeName":null,"infoStatusName":null,"dateDay":null,"orgNos":null,"nowTime":null,"countyName":null,"streetName":null,"villageName":null,"roadName":null,"communityName":null,"tranName":null,"sdLineName":null,"cityCode":"3340101","cityName":"浙江杭州电力客户服务中心","provinceCode":null,"stopTime":"2019-08-08 12:00:00","powerType":"全部","powerOffArea":"110kV教北变:北十9642线-元农(四)变B4-3低压开关","powerOffReason":"(低压停电信息)原停电结束时间14:00，变更停电结束时间12:00，原因由于施工现场比较复杂，存在不确定因素，因此预估施工时间适当放长了，而实际施工进行比较顺利，因此该工作提前结束。","powerOffId":"2019073131020028"},{"poweroffId":2019073131020027,"sgpoweroffId":null,"subsName":"","lineName":"10kV双竹H567线","pubTranName":"虎山村吴四房公变,虎山村元台庙公变,虎山村大湾公变,杭州余杭第二阀门厂6110111002,镇政府,","scope":"浙江省-杭州市-余杭区-黄湖镇(虎山行政村-虎山自然村,清波行政村-清波自然村);黄湖镇(虎山行政村-杭州余杭第二阀门厂,赐壁行政村-杭州市余杭区黄湖镇人民政府(办公楼))一带","startTime":"2019-07-31 09:31:22","stopDate":"2019-07-31 12:31:00","orgNo":"3340140","typeCode":"电网故障停限电","poweroffArea":"35kV黄湖变:双竹H567线-大湾分线开关后段","poweroffReason":"大湾分线开关后段 导线断线故障","powerTime":"2019-07-31 12:03:00","powerComm":"已修复","subsNo":"","lineNo":"","tgNo":"","tgName":null,"infoStatus":"1","orgName":"国网浙江杭州市余杭区供电有限公司","typeName":null,"infoStatusName":null,"dateDay":null,"orgNos":null,"nowTime":null,"countyName":null,"streetName":null,"villageName":null,"roadName":null,"communityName":null,"tranName":null,"sdLineName":null,"cityCode":"3340140","cityName":"国网浙江杭州市余杭区供电有限公司","provinceCode":null,"stopTime":"2019-07-31 12:31:00","powerType":"全部","powerOffArea":"35kV黄湖变:双竹H567线-大湾分线开关后段","powerOffReason":"大湾分线开关后段 导线断线故障","powerOffId":"2019073131020027"},{"poweroffId":2019073131020024,"sgpoweroffId":null,"subsName":"","lineName":"10kV横村9222线","pubTranName":"笕直（4-1）,","scope":"浙江省-杭州市-江干区-笕桥镇(横塘社区-笕丁路,笕桥社区-笕丁路)（横塘八区）","startTime":"2019-07-31 09:26:39","stopDate":"2019-07-31 11:00:39","orgNo":"3340101","typeCode":"电网故障停限电","poweroffArea":"110kV东风变:横村9222线-笕直（4-1）后段","poweroffReason":"（低压停电信息）低压开关跳闸 原预计停电结束时间2019-07-31 13:26:39,由于施工现场环境比较复杂，存在不确定因素，因此预估施工时间适当放长了， 而实际施工进行得比较顺利，因此提前送电了","powerTime":"2019-07-31 10:30:01","powerComm":"送电","subsNo":"","lineNo":"","tgNo":"","tgName":null,"infoStatus":"1","orgName":"浙江杭州电力客户服务中心","typeName":null,"infoStatusName":null,"dateDay":null,"orgNos":null,"nowTime":null,"countyName":null,"streetName":null,"villageName":null,"roadName":null,"communityName":null,"tranName":null,"sdLineName":null,"cityCode":"3340101","cityName":"浙江杭州电力客户服务中心","provinceCode":null,"stopTime":"2019-07-31 11:00:39","powerType":"全部","powerOffArea":"110kV东风变:横村9222线-笕直（4-1）后段","powerOffReason":"（低压停电信息）低压开关跳闸 原预计停电结束时间2019-07-31 13:26:39,由于施工现场环境比较复杂，存在不确定因素，因此预估施工时间适当放长了， 而实际施工进行得比较顺利，因此提前送电了","powerOffId":"2019073131020024"},{"poweroffId":2019073131020022,"sgpoweroffId":null,"subsName":"","lineName":"10kV万胜G263线","pubTranName":"东塘村堰马公变,","scope":"浙江省杭州市余杭区仁和街道堰马一带","startTime":"2019-08-09 08:30:00","stopDate":"2019-08-09 16:30:00","orgNo":"3340140","typeCode":"计划停电","poweroffArea":"110kV仁镇变:万胜G263线-东塘村堰马公变","poweroffReason":"2019年杭州余杭仁和荡田口台区等0.4kV配电线路整治工程：万胜G263线东塘村堰马公变低压台区：安装墙架、线管，调换接户线、表箱31户及搭接工作；","powerTime":"2019-08-09 16:00:41","powerComm":"已送电","subsNo":"","lineNo":"","tgNo":"","tgName":null,"infoStatus":"1","orgName":"国网浙江杭州市余杭区供电有限公司","typeName":null,"infoStatusName":null,"dateDay":null,"orgNos":null,"nowTime":null,"countyName":null,"streetName":null,"villageName":null,"roadName":null,"communityName":null,"tranName":null,"sdLineName":null,"cityCode":"3340140","cityName":"国网浙江杭州市余杭区供电有限公司","provinceCode":null,"stopTime":"2019-08-09 16:30:00","powerType":"全部","powerOffArea":"110kV仁镇变:万胜G263线-东塘村堰马公变","powerOffReason":"2019年杭州余杭仁和荡田口台区等0.4kV配电线路整治工程：万胜G263线东塘村堰马公变低压台区：安装墙架、线管，调换接户线、表箱31户及搭接工作；","powerOffId":"2019073131020022"},{"poweroffId":2019073131020021,"sgpoweroffId":null,"subsName":"","lineName":"10kV洛山G259线","pubTranName":"花园村杨家斗东公变,","scope":"浙江省杭州市余杭区仁和街道花园村杨家斗一带","startTime":"2019-08-02 08:20:00","stopDate":"2019-08-02 16:30:00","orgNo":"3340140","typeCode":"计划停电","poweroffArea":"110kV仁镇变:洛山G259线-花园村杨家斗东公变","poweroffReason":"(低压停电信息)紧急公变增补应急抢修工程：洛山G259线花园村杨家斗东公变：变压器315kva增至400kva；","powerTime":"2019-08-02 16:23:42","powerComm":"已送电","subsNo":"","lineNo":"","tgNo":"","tgName":null,"infoStatus":"1","orgName":"国网浙江杭州市余杭区供电有限公司","typeName":null,"infoStatusName":null,"dateDay":null,"orgNos":null,"nowTime":null,"countyName":null,"streetName":null,"villageName":null,"roadName":null,"communityName":null,"tranName":null,"sdLineName":null,"cityCode":"3340140","cityName":"国网浙江杭州市余杭区供电有限公司","provinceCode":null,"stopTime":"2019-08-02 16:30:00","powerType":"全部","powerOffArea":"110kV仁镇变:洛山G259线-花园村杨家斗东公变","powerOffReason":"(低压停电信息)紧急公变增补应急抢修工程：洛山G259线花园村杨家斗东公变：变压器315kva增至400kva；","powerOffId":"2019073131020021"},{"poweroffId":2019073131020017,"sgpoweroffId":null,"subsName":"","lineName":"10kV庄湾G817线","pubTranName":"泰山村泰山街道公变,","scope":"浙江省杭州市余杭区塘栖镇泰山村一带","startTime":"2019-08-12 08:50:00","stopDate":"2019-08-12 16:00:00","orgNo":"3340140","typeCode":"计划停电","poweroffArea":"110kV建富变:庄湾G817线泰山村泰山街道公变","poweroffReason":"(低压停电信息)配合凯达：庄湾G817线泰山街道分线9杆新装开关1台、过渡装置1套及电缆上杆搭接工作；","powerTime":"2019-08-12 15:59:50","powerComm":"已送电","subsNo":"","lineNo":"","tgNo":"","tgName":null,"infoStatus":"1","orgName":"国网浙江杭州市余杭区供电有限公司","typeName":null,"infoStatusName":null,"dateDay":null,"orgNos":null,"nowTime":null,"countyName":null,"streetName":null,"villageName":null,"roadName":null,"communityName":null,"tranName":null,"sdLineName":null,"cityCode":"3340140","cityName":"国网浙江杭州市余杭区供电有限公司","provinceCode":null,"stopTime":"2019-08-12 16:00:00","powerType":"全部","powerOffArea":"110kV建富变:庄湾G817线泰山村泰山街道公变","powerOffReason":"(低压停电信息)配合凯达：庄湾G817线泰山街道分线9杆新装开关1台、过渡装置1套及电缆上杆搭接工作；","powerOffId":"2019073131020017"},{"poweroffId":2019073131020016,"sgpoweroffId":null,"subsName":"","lineName":"10kV谢家D746线","pubTranName":"蒋家村7#工农路公变,","scope":"浙江省-杭州市-富阳区-鹿山街道-蒋家行政村(葱门头自然村,城乡路,村中心路,中心路,工农路,蒋家自然村)","startTime":"2019-07-31 08:54:33","stopDate":"2019-07-31 09:54:33","orgNo":"3340170","typeCode":"电网故障停限电","poweroffArea":"110kV陆家变:谢家D746线-蒋家村7#工农路公变后段","poweroffReason":"低压开关跳闸原结束时间2019-07-31 10:54:33因抢修力度加强提前至2019-07-31 09:54:33","powerTime":"2019-07-31 09:15:19","powerComm":"已送电","subsNo":"","lineNo":"","tgNo":"","tgName":null,"infoStatus":"1","orgName":"国网浙江杭州市富阳区供电公司","typeName":null,"infoStatusName":null,"dateDay":null,"orgNos":null,"nowTime":null,"countyName":null,"streetName":null,"villageName":null,"roadName":null,"communityName":null,"tranName":null,"sdLineName":null,"cityCode":"3340170","cityName":"国网浙江杭州市富阳区供电公司","provinceCode":null,"stopTime":"2019-07-31 09:54:33","powerType":"全部","powerOffArea":"110kV陆家变:谢家D746线-蒋家村7#工农路公变后段","powerOffReason":"低压开关跳闸原结束时间2019-07-31 10:54:33因抢修力度加强提前至2019-07-31 09:54:33","powerOffId":"2019073131020016"}],"pageModel":{"pageNow":1346,"totalCount":17789,"totalPage":1779,"tableRows":0,"pageCount":10,"beginCount":13450},"isExperi":"1"}