{"message":"","today":"2020-06-16","seleList":[{"poweroffId":2019073131010062,"sgpoweroffId":null,"subsName":"","lineName":"10kV旧县T225线","pubTranName":"合岭村2号公变,","scope":"浙江省-杭州市-桐庐县-旧县街道(合岭行政村-大岭头自然村、合岭自然村);","startTime":"2019-07-31 07:24:25","stopDate":"2019-07-31 15:00:29","orgNo":"3340150","typeCode":"电网故障停限电","poweroffArea":"35kV西武变:旧县T225线-合岭村2号公变后段","poweroffReason":"（低压停电信息）低压开关故障","powerTime":"2019-07-31 14:45:21","powerComm":"已送电。","subsNo":"","lineNo":"","tgNo":"","tgName":null,"infoStatus":"1","orgName":"国网浙江桐庐县供电公司","typeName":null,"infoStatusName":null,"dateDay":null,"orgNos":null,"nowTime":null,"countyName":null,"streetName":null,"villageName":null,"roadName":null,"communityName":null,"tranName":null,"sdLineName":null,"cityCode":"3340150","cityName":"国网浙江桐庐县供电公司","provinceCode":null,"stopTime":"2019-07-31 15:00:29","powerType":"全部","powerOffArea":"35kV西武变:旧县T225线-合岭村2号公变后段","powerOffReason":"（低压停电信息）低压开关故障","powerOffId":"2019073131010062"},{"poweroffId":2019073131010056,"sgpoweroffId":null,"subsName":"","lineName":"10kV义集C515线","pubTranName":"义桥集镇7#变,","scope":"浙江省杭州市萧山区义桥镇罗峰社区，浙江省杭州市萧山区义桥镇罗峰社区罗峰新村17幢1单元，浙江省杭州市萧山区义桥镇罗峰社区罗峰新村22幢二单元101室等一带","startTime":"2019-07-31 06:40:08","stopDate":"2019-07-31 08:41:16","orgNo":"3340130","typeCode":"电网故障停限电","poweroffArea":"35kV义桥变:义集C515线-义桥集镇7#变台区低压开关","poweroffReason":"（低压停电信息）低压熔断器短路故障","powerTime":"2019-07-31 07:50:04","powerComm":"已送电","subsNo":"","lineNo":"","tgNo":"","tgName":null,"infoStatus":"1","orgName":"国网浙江杭州市萧山区供电有限公司","typeName":null,"infoStatusName":null,"dateDay":null,"orgNos":null,"nowTime":null,"countyName":null,"streetName":null,"villageName":null,"roadName":null,"communityName":null,"tranName":null,"sdLineName":null,"cityCode":"3340130","cityName":"国网浙江杭州市萧山区供电有限公司","provinceCode":null,"stopTime":"2019-07-31 08:41:16","powerType":"全部","powerOffArea":"35kV义桥变:义集C515线-义桥集镇7#变台区低压开关","powerOffReason":"（低压停电信息）低压熔断器短路故障","powerOffId":"2019073131010056"},{"poweroffId":2019073131010043,"sgpoweroffId":null,"subsName":"","lineName":"10kV天通T118线","pubTranName":"广场路1号公变,","scope":"浙江省-杭州市-桐庐县-桐君街道(迎春社区-迎春街4幢、8幢);","startTime":"2019-07-31 06:17:14","stopDate":"2019-07-31 07:30:45","orgNo":"3340150","typeCode":"电网故障停限电","poweroffArea":"110kV桐庐变:天通T118线-广场路1号公变后段","poweroffReason":"（低压停电信息）低压开关故障","powerTime":"2019-07-31 07:23:27","powerComm":"已送电","subsNo":"","lineNo":"","tgNo":"","tgName":null,"infoStatus":"1","orgName":"国网浙江桐庐县供电公司","typeName":null,"infoStatusName":null,"dateDay":null,"orgNos":null,"nowTime":null,"countyName":null,"streetName":null,"villageName":null,"roadName":null,"communityName":null,"tranName":null,"sdLineName":null,"cityCode":"3340150","cityName":"国网浙江桐庐县供电公司","provinceCode":null,"stopTime":"2019-07-31 07:30:45","powerType":"全部","powerOffArea":"110kV桐庐变:天通T118线-广场路1号公变后段","powerOffReason":"（低压停电信息）低压开关故障","powerOffId":"2019073131010043"},{"poweroffId":2019073131010019,"sgpoweroffId":null,"subsName":"","lineName":"10kV河建0349线","pubTranName":"民主村1#变,","scope":"浙江省-杭州市-萧山区-河庄街道民主行政村、民主自然村、民主村、建一村、新和村、新和行政村、河庄新和村、建一行政村、民主和平医院一带","startTime":"2019-07-31 02:07:20","stopDate":"2019-07-31 04:10:22","orgNo":"3340120","typeCode":"电网故障停限电","poweroffArea":"110kV河庄变:河建0349线-民主村1#变台区低压开关","poweroffReason":"低压漏电保护器短路故障","powerTime":"2019-07-31 03:16:13","powerComm":"已送电","subsNo":"","lineNo":"","tgNo":"","tgName":null,"infoStatus":"1","orgName":"国网浙江杭州市钱塘新区供电公司","typeName":null,"infoStatusName":null,"dateDay":null,"orgNos":null,"nowTime":null,"countyName":null,"streetName":null,"villageName":null,"roadName":null,"communityName":null,"tranName":null,"sdLineName":null,"cityCode":"3340120","cityName":"国网浙江杭州市钱塘新区供电公司","provinceCode":null,"stopTime":"2019-07-31 04:10:22","powerType":"全部","powerOffArea":"110kV河庄变:河建0349线-民主村1#变台区低压开关","powerOffReason":"低压漏电保护器短路故障","powerOffId":"2019073131010019"},{"poweroffId":2019073031020121,"sgpoweroffId":null,"subsName":"","lineName":"10kV海派H464线","pubTranName":"长桥农居点变,","scope":"浙江省-杭州市-余杭区-良渚街道-管家塘社区(好运街,良运街),良渚街道(长桥行政村-良运街,运河行政村-良运街)","startTime":"2019-07-30 23:53:49","stopDate":"2019-07-31 06:53:49","orgNo":"3340140","typeCode":"电网故障停限电","poweroffArea":"110kV金渡变:海派H464线-长桥农居点后段","poweroffReason":"（低压停电信息）海派H464线-长桥农居点后段低压线路断线 原停电结束时间2019-07-31 01:53:49 变更停电结束时间原因：现场遇突发情况","powerTime":"2019-07-31 06:05:21","powerComm":"已送电","subsNo":"","lineNo":"","tgNo":"","tgName":null,"infoStatus":"1","orgName":"国网浙江杭州市余杭区供电有限公司","typeName":null,"infoStatusName":null,"dateDay":null,"orgNos":null,"nowTime":null,"countyName":null,"streetName":null,"villageName":null,"roadName":null,"communityName":null,"tranName":null,"sdLineName":null,"cityCode":"3340140","cityName":"国网浙江杭州市余杭区供电有限公司","provinceCode":null,"stopTime":"2019-07-31 06:53:49","powerType":"全部","powerOffArea":"110kV金渡变:海派H464线-长桥农居点后段","powerOffReason":"（低压停电信息）海派H464线-长桥农居点后段低压线路断线 原停电结束时间2019-07-31 01:53:49 变更停电结束时间原因：现场遇突发情况","powerOffId":"2019073031020121"},{"poweroffId":2019073031020117,"sgpoweroffId":null,"subsName":"","lineName":"10kV方谷8180线","pubTranName":"公安二变,","scope":"浙江省-杭州市-上城区-小营街道-小营巷社区-皮市巷,小营街道(紫金社区-马市街社区)","startTime":"2019-07-30 23:19:26","stopDate":"2019-07-31 01:30:26","orgNo":"3340101","typeCode":"电网故障停限电","poweroffArea":"110kV横河变:方谷8180线-公安二变","poweroffReason":"（低压停电信息）公安二变 低压设备故障 原预计停电结束时间2019-07-31 03:19:26,由于施工现场环境比较复杂，存在不确定因素，因此预估施工时间适当放长了，而实际施工进行得比较顺利，因此提前送电了","powerTime":"2019-07-31 00:44:15","powerComm":"已送电","subsNo":"","lineNo":"","tgNo":"","tgName":null,"infoStatus":"1","orgName":"浙江杭州电力客户服务中心","typeName":null,"infoStatusName":null,"dateDay":null,"orgNos":null,"nowTime":null,"countyName":null,"streetName":null,"villageName":null,"roadName":null,"communityName":null,"tranName":null,"sdLineName":null,"cityCode":"3340101","cityName":"浙江杭州电力客户服务中心","provinceCode":null,"stopTime":"2019-07-31 01:30:26","powerType":"全部","powerOffArea":"110kV横河变:方谷8180线-公安二变","powerOffReason":"（低压停电信息）公安二变 低压设备故障 原预计停电结束时间2019-07-31 03:19:26,由于施工现场环境比较复杂，存在不确定因素，因此预估施工时间适当放长了，而实际施工进行得比较顺利，因此提前送电了","powerOffId":"2019073031020117"},{"poweroffId":2019073031020114,"sgpoweroffId":null,"subsName":"","lineName":"10kV龙洞G154线","pubTranName":"龙洞村南山公变,","scope":"浙江省-杭州市-余杭区-塘栖镇-龙洞社区,龙超路泰山行政村、泰山村","startTime":"2019-07-30 22:40:05","stopDate":"2019-07-31 01:00:05","orgNo":"3340140","typeCode":"电网故障停限电","poweroffArea":"35kV南山变:龙洞G154线-龙洞村南山公变后段","poweroffReason":"（低压停电信息）龙洞村南山公变后段 低压线路断线","powerTime":"2019-07-31 00:05:09","powerComm":"已送电","subsNo":"","lineNo":"","tgNo":"","tgName":null,"infoStatus":"1","orgName":"国网浙江杭州市余杭区供电有限公司","typeName":null,"infoStatusName":null,"dateDay":null,"orgNos":null,"nowTime":null,"countyName":null,"streetName":null,"villageName":null,"roadName":null,"communityName":null,"tranName":null,"sdLineName":null,"cityCode":"3340140","cityName":"国网浙江杭州市余杭区供电有限公司","provinceCode":null,"stopTime":"2019-07-31 01:00:05","powerType":"全部","powerOffArea":"35kV南山变:龙洞G154线-龙洞村南山公变后段","powerOffReason":"（低压停电信息）龙洞村南山公变后段 低压线路断线","powerOffId":"2019073031020114"},{"poweroffId":2019073031020112,"sgpoweroffId":null,"subsName":"","lineName":"10kV新万G195线","pubTranName":"钱塘7组3号公变,","scope":"浙江省-杭州市-余杭区-南苑街道-钱塘社区(大园自然村,钱塘7组)","startTime":"2019-07-30 22:39:04","stopDate":"2019-07-31 06:39:04","orgNo":"3340140","typeCode":"电网故障停限电","poweroffArea":"110kV外乔变:新万G195线-钱塘7组3号公变后段","poweroffReason":"（低压停电信息）新万G195线-钱塘7组3号公变后段低压线路断线 原停电结束时间2019-07-31 00:39:04 变更停电结束时间原因：现场遇突发情况","powerTime":"2019-07-31 06:05:59","powerComm":"已送电","subsNo":"","lineNo":"","tgNo":"","tgName":null,"infoStatus":"1","orgName":"国网浙江杭州市余杭区供电有限公司","typeName":null,"infoStatusName":null,"dateDay":null,"orgNos":null,"nowTime":null,"countyName":null,"streetName":null,"villageName":null,"roadName":null,"communityName":null,"tranName":null,"sdLineName":null,"cityCode":"3340140","cityName":"国网浙江杭州市余杭区供电有限公司","provinceCode":null,"stopTime":"2019-07-31 06:39:04","powerType":"全部","powerOffArea":"110kV外乔变:新万G195线-钱塘7组3号公变后段","powerOffReason":"（低压停电信息）新万G195线-钱塘7组3号公变后段低压线路断线 原停电结束时间2019-07-31 00:39:04 变更停电结束时间原因：现场遇突发情况","powerOffId":"2019073031020112"},{"poweroffId":2019073031020111,"sgpoweroffId":null,"subsName":"","lineName":"10kV顺水G264线","pubTranName":"栅庄桥村杨家斗里公变,","scope":"浙江省-杭州市-余杭区-仁和街道-云会行政村-茅家坟自然村,仁和街道-栅庄桥行政村(杨家兜自然村,杨家斗自然村,水角廊自然村)","startTime":"2019-07-30 22:13:35","stopDate":"2019-07-31 00:13:35","orgNo":"3340140","typeCode":"电网故障停限电","poweroffArea":"110kV仁镇变:顺水G264线-栅庄桥村杨家斗里公变后段","poweroffReason":"（低压停电信息）顺水G264线-栅庄桥村杨家斗里公变后段低压线路断线","powerTime":"2019-07-30 23:55:56","powerComm":"已送电","subsNo":"","lineNo":"","tgNo":"","tgName":null,"infoStatus":"1","orgName":"国网浙江杭州市余杭区供电有限公司","typeName":null,"infoStatusName":null,"dateDay":null,"orgNos":null,"nowTime":null,"countyName":null,"streetName":null,"villageName":null,"roadName":null,"communityName":null,"tranName":null,"sdLineName":null,"cityCode":"3340140","cityName":"国网浙江杭州市余杭区供电有限公司","provinceCode":null,"stopTime":"2019-07-31 00:13:35","powerType":"全部","powerOffArea":"110kV仁镇变:顺水G264线-栅庄桥村杨家斗里公变后段","powerOffReason":"（低压停电信息）顺水G264线-栅庄桥村杨家斗里公变后段低压线路断线","powerOffId":"2019073031020111"},{"poweroffId":2019073031020095,"sgpoweroffId":null,"subsName":"","lineName":"10kV五星H733线","pubTranName":"闲林镇联荣村朱家坞2号,","scope":"浙江省-杭州市-余杭区-闲林街道-联荣行政村(朱家坞自然村,联荣自然村)","startTime":"2019-07-30 18:02:00","stopDate":"2019-07-30 18:45:00","orgNo":"3340140","typeCode":"电网故障停限电","poweroffArea":"110kV闲林变:五星H733线-闲林镇联荣村朱家坞2号后段","poweroffReason":"闲林镇联荣村朱家坞2号后段 低压断线故障","powerTime":"2019-07-30 18:15:00","powerComm":"已送电","subsNo":"","lineNo":"","tgNo":"","tgName":null,"infoStatus":"1","orgName":"国网浙江杭州市余杭区供电有限公司","typeName":null,"infoStatusName":null,"dateDay":null,"orgNos":null,"nowTime":null,"countyName":null,"streetName":null,"villageName":null,"roadName":null,"communityName":null,"tranName":null,"sdLineName":null,"cityCode":"3340140","cityName":"国网浙江杭州市余杭区供电有限公司","provinceCode":null,"stopTime":"2019-07-30 18:45:00","powerType":"全部","powerOffArea":"110kV闲林变:五星H733线-闲林镇联荣村朱家坞2号后段","powerOffReason":"闲林镇联荣村朱家坞2号后段 低压断线故障","powerOffId":"2019073031020095"}],"pageModel":{"pageNow":1350,"totalCount":17789,"totalPage":1779,"tableRows":0,"pageCount":10,"beginCount":13490},"isExperi":"1"}