{"message":"","today":"2020-06-16","seleList":[{"poweroffId":2019073031020081,"sgpoweroffId":null,"subsName":"","lineName":"10kV贤家9148线","pubTranName":"小江二,","scope":"浙江省-杭州市-西湖区-转塘街道-五云梦湖社区-五云中路,双浦镇(袁家浦社区-袁浦街,下羊行政村-下杨村道,小叔房行政村-小叔房村道,三阳行政村-三阳村道,麦岭沙社区-麦岭沙村道,小江行政村-小江村道)","startTime":"2019-07-30 17:31:53","stopDate":"2019-07-30 18:31:53","orgNo":"3340101","typeCode":"电网故障停限电","poweroffArea":"110kV象山变:贤家9148线-小江二后段","poweroffReason":"高压开关跳闸 原预计停电结束时间2019-07-30 19:31:53,由于施工现场环境比较复杂，存在不确定因素，因此预估施工时间适当放长了，而实际施工进行得比较顺利，因此提前送电了","powerTime":"2019-07-30 17:50:37","powerComm":"送电","subsNo":"","lineNo":"","tgNo":"","tgName":null,"infoStatus":"1","orgName":"浙江杭州电力客户服务中心","typeName":null,"infoStatusName":null,"dateDay":null,"orgNos":null,"nowTime":null,"countyName":null,"streetName":null,"villageName":null,"roadName":null,"communityName":null,"tranName":null,"sdLineName":null,"cityCode":"3340101","cityName":"浙江杭州电力客户服务中心","provinceCode":null,"stopTime":"2019-07-30 18:31:53","powerType":"全部","powerOffArea":"110kV象山变:贤家9148线-小江二后段","powerOffReason":"高压开关跳闸 原预计停电结束时间2019-07-30 19:31:53,由于施工现场环境比较复杂，存在不确定因素，因此预估施工时间适当放长了，而实际施工进行得比较顺利，因此提前送电了","powerOffId":"2019073031020081"},{"poweroffId":2019073031020064,"sgpoweroffId":null,"subsName":"","lineName":"10kV塔山D136线","pubTranName":"东门路2号老车站公变,","scope":"浙江省-杭州市-富阳区-新登镇-惠来社区-工厂路,新登镇-东安社区(东门路,金城路,登城北路,登云路,登云北路,朝阳路,城东,东门东路,小东门)","startTime":"2019-07-30 16:06:07","stopDate":"2019-07-30 17:30:00","orgNo":"3340170","typeCode":"电网故障停限电","poweroffArea":"110kV新登变:塔山D136线-东门路2号老车站公变开关后段","poweroffReason":"低压开关跳闸","powerTime":"2019-07-30 17:21:49","powerComm":"已送电","subsNo":"","lineNo":"","tgNo":"","tgName":null,"infoStatus":"1","orgName":"国网浙江杭州市富阳区供电公司","typeName":null,"infoStatusName":null,"dateDay":null,"orgNos":null,"nowTime":null,"countyName":null,"streetName":null,"villageName":null,"roadName":null,"communityName":null,"tranName":null,"sdLineName":null,"cityCode":"3340170","cityName":"国网浙江杭州市富阳区供电公司","provinceCode":null,"stopTime":"2019-07-30 17:30:00","powerType":"全部","powerOffArea":"110kV新登变:塔山D136线-东门路2号老车站公变开关后段","powerOffReason":"低压开关跳闸","powerOffId":"2019073031020064"},{"poweroffId":2019073031020062,"sgpoweroffId":null,"subsName":"","lineName":"10kV油车G147线","pubTranName":"沿山村潘家埭变,","scope":"浙江省-杭州市-余杭区-崇贤街道-沿山行政村(梅子湾自然村,龙口浜自然村,沿山村,虎啸桥自然村,泮家塘自然村)一带","startTime":"2019-07-30 15:55:00","stopDate":"2019-07-30 20:00:00","orgNo":"3340140","typeCode":"电网故障停限电","poweroffArea":"35kV南山变:油车G147线-沿山村潘家埭变后段","poweroffReason":"沿山村潘家埭变后段 导线断线故障","powerTime":"2019-07-30 19:43:00","powerComm":"已送电","subsNo":"","lineNo":"","tgNo":"","tgName":null,"infoStatus":"1","orgName":"国网浙江杭州市余杭区供电有限公司","typeName":null,"infoStatusName":null,"dateDay":null,"orgNos":null,"nowTime":null,"countyName":null,"streetName":null,"villageName":null,"roadName":null,"communityName":null,"tranName":null,"sdLineName":null,"cityCode":"3340140","cityName":"国网浙江杭州市余杭区供电有限公司","provinceCode":null,"stopTime":"2019-07-30 20:00:00","powerType":"全部","powerOffArea":"35kV南山变:油车G147线-沿山村潘家埭变后段","powerOffReason":"沿山村潘家埭变后段 导线断线故障","powerOffId":"2019073031020062"},{"poweroffId":2019073031020057,"sgpoweroffId":null,"subsName":"","lineName":"10kV万市D338线","pubTranName":"万市集镇5#镇头公变,","scope":"浙江省-杭州市-富阳区-万市镇-罗宅行政村-白粉墙自然村,万市镇-万市行政村(朱村自然村,镇头自然村,西门北路自然村,古城路自然村,万市路自然村,龙丘变自然村,杜坞自然村,西门路自然村,万市自然村)","startTime":"2019-07-30 15:18:00","stopDate":"2019-07-30 21:00:00","orgNo":"3340170","typeCode":"电网故障停限电","poweroffArea":"110kV万市变:万市D338线万市集镇5#镇头公变配变","poweroffReason":"高压开关跳闸，该故障原停电结束时间为2019-07-30 17:18:00因故障复杂停电结束时间变更至2019-07-30 21:00:00","powerTime":"2019-07-30 20:17:28","powerComm":"已送电","subsNo":"","lineNo":"","tgNo":"","tgName":null,"infoStatus":"1","orgName":"国网浙江杭州市富阳区供电公司","typeName":null,"infoStatusName":null,"dateDay":null,"orgNos":null,"nowTime":null,"countyName":null,"streetName":null,"villageName":null,"roadName":null,"communityName":null,"tranName":null,"sdLineName":null,"cityCode":"3340170","cityName":"国网浙江杭州市富阳区供电公司","provinceCode":null,"stopTime":"2019-07-30 21:00:00","powerType":"全部","powerOffArea":"110kV万市变:万市D338线万市集镇5#镇头公变配变","powerOffReason":"高压开关跳闸，该故障原停电结束时间为2019-07-30 17:18:00因故障复杂停电结束时间变更至2019-07-30 21:00:00","powerOffId":"2019073031020057"},{"poweroffId":2019073031020055,"sgpoweroffId":null,"subsName":"","lineName":"10kV五荆H814线","pubTranName":"制高媒体宿舍,华丰通信（1）,制高多媒体1#变,绿恒电器,西溪纺织,仪表冲压,荆山岭基站,四色印刷,万业五金,天腾机电,杭州五常仪表配件五金厂,振华仪表,1#变压器,闽顺电子,中意设备,杭州五常机械厂配变,天一农化,宇优商业,鸿雁塑胶,振林服饰,常恒五金制品,佳家电器（2）,国立包装,国大食品,制高多媒体2#变,优宸皮件,盛达汽车,天龙五金,双羽塑胶,常恒五金,顾家桥家具,1#变压器,","scope":"浙江省-杭州市-余杭区-五常街道-顾家桥行政村(杭州制高媒体科技有限公司第一分公司,杭州盛达汽车座椅有限公司),五常街道-荆山社区(杭州闽顺电子有限公司,杭州荆岭仪表冲压件厂,杭州杭正电子科技有限公司,杭州五常仪表配件五金厂),五常街道-五常社区(杭州双羽塑胶有限公司,杭州余杭区五常街道顾家桥家俱加工厂,杭州中意控制设备厂,中国铁塔股份有限公司杭州市分公司,杭州华丰通信器材有限公司,杭州佳家电器有限公司,杭州宇优商业管理有限公司,杭州振林服饰有限公司,杭州天腾环境艺术有限公司,浙江鸿雁塑胶制造有限公司,杭州天龙五金机械设备有限公司,杭州余杭区五常街道有根五金冲压件厂,杭州胜业印刷有限公司,杭州金库贸易有限公司,杭州常港科技服务有限公司,杭州国立工贸集团有限公司,杭州四色印刷有限公司,杭州制高媒体科技有限公司第一分公司,杭州五常仪表配件五金厂,杭州西溪印务有限公司,杭州振华仪表配件有限公司),五常街道(五常行政村-杭州靖铭源实业有限公司,荆丰社区-杭州五常仪表配件五金厂,友谊社区-杭州制高媒体科技股份有限公司)一带","startTime":"2019-07-30 15:08:00","stopDate":"2019-07-30 19:30:00","orgNo":"3340140","typeCode":"电网故障停限电","poweroffArea":"110kV油车变:五荆H814线-后山分线开关后段","poweroffReason":"后山分线开关后段 架空线断线故障","powerTime":"2019-07-30 18:47:00","powerComm":"已送电","subsNo":"","lineNo":"","tgNo":"","tgName":null,"infoStatus":"1","orgName":"国网浙江杭州市余杭区供电有限公司","typeName":null,"infoStatusName":null,"dateDay":null,"orgNos":null,"nowTime":null,"countyName":null,"streetName":null,"villageName":null,"roadName":null,"communityName":null,"tranName":null,"sdLineName":null,"cityCode":"3340140","cityName":"国网浙江杭州市余杭区供电有限公司","provinceCode":null,"stopTime":"2019-07-30 19:30:00","powerType":"全部","powerOffArea":"110kV油车变:五荆H814线-后山分线开关后段","powerOffReason":"后山分线开关后段 架空线断线故障","powerOffId":"2019073031020055"},{"poweroffId":2019073031020053,"sgpoweroffId":null,"subsName":"","lineName":"10kV燕方G255线","pubTranName":"花园村林介斗公变,","scope":"浙江省杭州市余杭区仁和街道花园村林介斗一带","startTime":"2019-08-03 08:30:00","stopDate":"2019-08-03 17:00:00","orgNo":"3340140","typeCode":"计划停电","poweroffArea":"110kV仁镇变:燕方G255线-花园村林介斗公变","poweroffReason":"(低压停电信息)紧急公变增补应急抢修工程：燕方G255线花园村林介斗公变：变压器400kva增至630kva；","powerTime":"2019-08-03 17:00:10","powerComm":"已送电","subsNo":"","lineNo":"","tgNo":"","tgName":null,"infoStatus":"1","orgName":"国网浙江杭州市余杭区供电有限公司","typeName":null,"infoStatusName":null,"dateDay":null,"orgNos":null,"nowTime":null,"countyName":null,"streetName":null,"villageName":null,"roadName":null,"communityName":null,"tranName":null,"sdLineName":null,"cityCode":"3340140","cityName":"国网浙江杭州市余杭区供电有限公司","provinceCode":null,"stopTime":"2019-08-03 17:00:00","powerType":"全部","powerOffArea":"110kV仁镇变:燕方G255线-花园村林介斗公变","powerOffReason":"(低压停电信息)紧急公变增补应急抢修工程：燕方G255线花园村林介斗公变：变压器400kva增至630kva；","powerOffId":"2019073031020053"},{"poweroffId":2019073031020052,"sgpoweroffId":null,"subsName":"","lineName":"10kV燕方G255线","pubTranName":"花园村计家斗西公变,","scope":"浙江省杭州市余杭区仁和街道花园村计家斗一带","startTime":"2019-08-06 08:30:00","stopDate":"2019-08-06 16:30:00","orgNo":"3340140","typeCode":"临时停电","poweroffArea":"110kV仁镇变:燕方G255线-花园村计家斗西公变","poweroffReason":"紧急公变增补应急抢修工程：燕方G255线花园村计家斗西公变：新放低压导线6档，新放出线电缆一根；","powerTime":"2019-08-06 16:28:36","powerComm":"已送电","subsNo":"","lineNo":"","tgNo":"","tgName":null,"infoStatus":"1","orgName":"国网浙江杭州市余杭区供电有限公司","typeName":null,"infoStatusName":null,"dateDay":null,"orgNos":null,"nowTime":null,"countyName":null,"streetName":null,"villageName":null,"roadName":null,"communityName":null,"tranName":null,"sdLineName":null,"cityCode":"3340140","cityName":"国网浙江杭州市余杭区供电有限公司","provinceCode":null,"stopTime":"2019-08-06 16:30:00","powerType":"全部","powerOffArea":"110kV仁镇变:燕方G255线-花园村计家斗西公变","powerOffReason":"紧急公变增补应急抢修工程：燕方G255线花园村计家斗西公变：新放低压导线6档，新放出线电缆一根；","powerOffId":"2019073031020052"},{"poweroffId":2019073031020046,"sgpoweroffId":null,"subsName":"","lineName":"10kV凯雅H335线","pubTranName":"昌运里二区2#公变,","scope":"浙江省-杭州市-余杭区-良渚街道-谢村行政村-通运路-昌运里一带 原停电时间16点30分，由于现场情况复杂，需延长至17点10分","startTime":"2019-07-30 13:43:00","stopDate":"2019-07-30 17:10:00","orgNo":"3340140","typeCode":"电网故障停限电","poweroffArea":"110kV长桥变:凯雅H335线-昌运里二区2#公变后段 原停电时间16点30分，由于现场情况复杂，需延长至17点10分","poweroffReason":"昌运里二区2#公变后段 电缆断线故障","powerTime":"2019-07-30 16:42:00","powerComm":"已送电","subsNo":"","lineNo":"","tgNo":"","tgName":null,"infoStatus":"1","orgName":"国网浙江杭州市余杭区供电有限公司","typeName":null,"infoStatusName":null,"dateDay":null,"orgNos":null,"nowTime":null,"countyName":null,"streetName":null,"villageName":null,"roadName":null,"communityName":null,"tranName":null,"sdLineName":null,"cityCode":"3340140","cityName":"国网浙江杭州市余杭区供电有限公司","provinceCode":null,"stopTime":"2019-07-30 17:10:00","powerType":"全部","powerOffArea":"110kV长桥变:凯雅H335线-昌运里二区2#公变后段 原停电时间16点30分，由于现场情况复杂，需延长至17点10分","powerOffReason":"昌运里二区2#公变后段 电缆断线故障","powerOffId":"2019073031020046"},{"poweroffId":2019073031020045,"sgpoweroffId":null,"subsName":"","lineName":"10kV角沙G142线","pubTranName":"崇贤村狮子桥2号公变,","scope":"浙江省-杭州市-余杭区-崇贤街道-大安行政村-崇超路,崇贤街道-崇贤行政村(狮子桥自然村,塘康路,钱家塘自然村,北坝桥自然村)一带","startTime":"2019-07-30 13:40:00","stopDate":"2019-07-30 15:00:00","orgNo":"3340140","typeCode":"电网故障停限电","poweroffArea":"35kV南山变:角沙G142线-崇贤村狮子桥2号公变后段","poweroffReason":"崇贤村狮子桥2号公变后段 低压导线断线故障","powerTime":"2019-07-30 14:40:00","powerComm":"已送电","subsNo":"","lineNo":"","tgNo":"","tgName":null,"infoStatus":"1","orgName":"国网浙江杭州市余杭区供电有限公司","typeName":null,"infoStatusName":null,"dateDay":null,"orgNos":null,"nowTime":null,"countyName":null,"streetName":null,"villageName":null,"roadName":null,"communityName":null,"tranName":null,"sdLineName":null,"cityCode":"3340140","cityName":"国网浙江杭州市余杭区供电有限公司","provinceCode":null,"stopTime":"2019-07-30 15:00:00","powerType":"全部","powerOffArea":"35kV南山变:角沙G142线-崇贤村狮子桥2号公变后段","powerOffReason":"崇贤村狮子桥2号公变后段 低压导线断线故障","powerOffId":"2019073031020045"},{"poweroffId":2019073031020044,"sgpoweroffId":null,"subsName":"","lineName":"10kV凌家G241线","pubTranName":"宏畔村卫家埭北公变,","scope":"浙江省杭州市余杭区塘栖镇宏磻村卫家埭一带","startTime":"2019-08-05 07:00:00","stopDate":"2019-08-05 12:30:00","orgNo":"3340140","typeCode":"临时停电","poweroffArea":"110kV宏畔变:凌家G241线-宏畔村卫家埭北公变","poweroffReason":"(低压停电信息)配合凯达：凌家G241线46杆新装开关1台、过渡装置1套及电缆上杆搭接工作；","powerTime":"2019-08-05 12:16:32","powerComm":"已送电","subsNo":"","lineNo":"","tgNo":"","tgName":null,"infoStatus":"1","orgName":"国网浙江杭州市余杭区供电有限公司","typeName":null,"infoStatusName":null,"dateDay":null,"orgNos":null,"nowTime":null,"countyName":null,"streetName":null,"villageName":null,"roadName":null,"communityName":null,"tranName":null,"sdLineName":null,"cityCode":"3340140","cityName":"国网浙江杭州市余杭区供电有限公司","provinceCode":null,"stopTime":"2019-08-05 12:30:00","powerType":"全部","powerOffArea":"110kV宏畔变:凌家G241线-宏畔村卫家埭北公变","powerOffReason":"(低压停电信息)配合凯达：凌家G241线46杆新装开关1台、过渡装置1套及电缆上杆搭接工作；","powerOffId":"2019073031020044"}],"pageModel":{"pageNow":1351,"totalCount":17789,"totalPage":1779,"tableRows":0,"pageCount":10,"beginCount":13500},"isExperi":"1"}