{"message":"","today":"2020-06-16","seleList":[{"poweroffId":2019073031010318,"sgpoweroffId":null,"subsName":"","lineName":"10kV钱东C909线","pubTranName":"宁北村11#变,","scope":"浙江省-杭州市-萧山区-宁围街道、宁围镇、二桥行政村-宁北自然村、宁北社区、宁北村、二桥村等一带","startTime":"2019-07-30 22:24:34","stopDate":"2019-07-30 23:59:09","orgNo":"3340130","typeCode":"电网故障停限电","poweroffArea":"110kV鸿达变:钱东C909线-宁北村11#变台区低压开关","poweroffReason":"（低压停电信息）低压漏电保护器短路故障","powerTime":"2019-07-30 23:01:21","powerComm":"已送电","subsNo":"","lineNo":"","tgNo":"","tgName":null,"infoStatus":"1","orgName":"国网浙江杭州市萧山区供电有限公司","typeName":null,"infoStatusName":null,"dateDay":null,"orgNos":null,"nowTime":null,"countyName":null,"streetName":null,"villageName":null,"roadName":null,"communityName":null,"tranName":null,"sdLineName":null,"cityCode":"3340130","cityName":"国网浙江杭州市萧山区供电有限公司","provinceCode":null,"stopTime":"2019-07-30 23:59:09","powerType":"全部","powerOffArea":"110kV鸿达变:钱东C909线-宁北村11#变台区低压开关","powerOffReason":"（低压停电信息）低压漏电保护器短路故障","powerOffId":"2019073031010318"},{"poweroffId":2019073031010308,"sgpoweroffId":null,"subsName":"","lineName":"10kV河建0349线","pubTranName":"新和村1#变,","scope":"浙江省-杭州市-萧山区-河庄街道新和行政村、新和自然村、新和村一带","startTime":"2019-07-30 22:40:54","stopDate":"2019-07-31 04:10:04","orgNo":"3340120","typeCode":"电网故障停限电","poweroffArea":"110kV河庄变:河建0349线-新和村1#变台区低压开关","poweroffReason":"低压架空导线断线故障 原停电结束时间：6:30，变更停电结束时间：4:10，由于抢工作提前完成，故需要提前送电。","powerTime":"2019-07-31 03:20:33","powerComm":"已送电","subsNo":"","lineNo":"","tgNo":"","tgName":null,"infoStatus":"1","orgName":"国网浙江杭州市钱塘新区供电公司","typeName":null,"infoStatusName":null,"dateDay":null,"orgNos":null,"nowTime":null,"countyName":null,"streetName":null,"villageName":null,"roadName":null,"communityName":null,"tranName":null,"sdLineName":null,"cityCode":"3340120","cityName":"国网浙江杭州市钱塘新区供电公司","provinceCode":null,"stopTime":"2019-07-31 04:10:04","powerType":"全部","powerOffArea":"110kV河庄变:河建0349线-新和村1#变台区低压开关","powerOffReason":"低压架空导线断线故障 原停电结束时间：6:30，变更停电结束时间：4:10，由于抢工作提前完成，故需要提前送电。","powerOffId":"2019073031010308"},{"poweroffId":2019073031010307,"sgpoweroffId":null,"subsName":"","lineName":"10kV河建0349线","pubTranName":"河庄安置（临）02#,北京城建01,水利水电工程六局01#,建一村9#变,华成鞋业,钜元建设1#,水利水电五局01#,民主村10#变,海潮管道厂,中国水利水电第六工程局有限公司01,民主村3#变,新和村13#变,河庄安置（临）01#,海潮管道厂,和平老年康复,新和村7#变,民主村4#变,新和村6#变,民主村1#变,河庄安置（临）03#,河庄安置（临）04#,水利水电临十,01,水利水电临十五,新和村3#变,北京城建01,民主村8#变,民主村2#变,新和村2#变,北京城建01,新和村1#变,新和村4#变,水利水电l临十四,建一村6#变,新和村12#变,新和村8#变,海豹精密机械,北京城建01,水利水电临十二,河庄安置（临）05#,新和村5#变,民主模具厂,","scope":"浙江省-杭州市-萧山区-河庄街道建一行政村、建一自然村、民主行政村、民主自然村、新和行政村、新和自然村、建一村、民主村、新和村、和平老年康复中心、中国水利水电工程、民主模具厂、杭州市市辖区民主村和平医院一带","startTime":"2019-07-30 22:30:44","stopDate":"2019-07-30 23:40:47","orgNo":"3340120","typeCode":"电网故障停限电","poweroffArea":"110kV河庄变:河建0349线","poweroffReason":"高压柱上断路器短路故障 原停电结束时间：23:50，变更停电结束时间：23:40，由于抢修工作提前完成，故需要提前送电。","powerTime":"2019-07-30 23:30:04","powerComm":"已送电","subsNo":"","lineNo":"","tgNo":"","tgName":null,"infoStatus":"1","orgName":"国网浙江杭州市钱塘新区供电公司","typeName":null,"infoStatusName":null,"dateDay":null,"orgNos":null,"nowTime":null,"countyName":null,"streetName":null,"villageName":null,"roadName":null,"communityName":null,"tranName":null,"sdLineName":null,"cityCode":"3340120","cityName":"国网浙江杭州市钱塘新区供电公司","provinceCode":null,"stopTime":"2019-07-30 23:40:47","powerType":"全部","powerOffArea":"110kV河庄变:河建0349线","powerOffReason":"高压柱上断路器短路故障 原停电结束时间：23:50，变更停电结束时间：23:40，由于抢修工作提前完成，故需要提前送电。","powerOffId":"2019073031010307"},{"poweroffId":2019073031010300,"sgpoweroffId":null,"subsName":"","lineName":"10kV红友A696线","pubTranName":"红友桥公变,瓜沥镇河东公变,麻站公变,闸口公变,杭州欧美亚花边有限公司,影剧院公变,南闸公变,塘下高公变,杭州市萧山区河道管理处1#,杭州信裕线业有限公司,杭州银兴照明电器有限公司,杭州市萧山国家税务局管理局瓜沥管理站,金家弄公变,","scope":"浙江省-杭州市-萧山区-瓜沥镇(芭蕉砚社区-车站弄、环保弄、剧院弄、人民路、人民路34号、塘头街、中街,塘头社区-殿下路、东街、河东路、河东路48号、河东路4号、河西路、红友桥路、金家弄、金家弄32号、金家弄50号、茂祥弄、南闸口弄、南闸新村、人民路、人民路1119号、人民路1150号、人民路62号、人民路80号、人民路82号、市场北弄、塘北弄、塘二弄、塘三弄、塘四弄、塘五弄、塘下高、塘新二弄、塘新一弄、塘一弄、塘一弄6号、塘一弄7号、塘一弄8号、文卫弄、谢家弄、叶家汇头、闸南弄);(国家税务总局杭州市萧山区税务局,杭州欧美亚花边有限公司,杭州市萧山区河道管理处,杭州信裕业有限公司,杭州银兴照明电器有限公司)、瓜沥镇明朗行政村东部水果批发市场、瓜沥镇城中社区、瓜沥镇塘头社区、瓜沥镇南闸新村、瓜沥镇芭蕉砚社区芭蕉砚社区原耶酥教堂后门旁、瓜沥镇人民路车站弄19号、金家弄35号、瓜沥镇塘头社区金家弄21号一带","startTime":"2019-07-30 21:00:01","stopDate":"2019-07-31 00:20:46","orgNo":"3340130","typeCode":"电网故障停限电","poweroffArea":"110kV白川变:红友A696线-红友A696线红友桥分线开关（自）后段","poweroffReason":"高压柱上断路器短路故障 原停电结束时间:2019-07-31 01:13:37 ，变更停电结束时间:2019-07-31 00:20:46。由于抢修工作提前完成,故需要提前送电。","powerTime":"2019-07-30 23:36:17","powerComm":"已送电","subsNo":"","lineNo":"","tgNo":"","tgName":null,"infoStatus":"1","orgName":"国网浙江杭州市萧山区供电有限公司","typeName":null,"infoStatusName":null,"dateDay":null,"orgNos":null,"nowTime":null,"countyName":null,"streetName":null,"villageName":null,"roadName":null,"communityName":null,"tranName":null,"sdLineName":null,"cityCode":"3340130","cityName":"国网浙江杭州市萧山区供电有限公司","provinceCode":null,"stopTime":"2019-07-31 00:20:46","powerType":"全部","powerOffArea":"110kV白川变:红友A696线-红友A696线红友桥分线开关（自）后段","powerOffReason":"高压柱上断路器短路故障 原停电结束时间:2019-07-31 01:13:37 ，变更停电结束时间:2019-07-31 00:20:46。由于抢修工作提前完成,故需要提前送电。","powerOffId":"2019073031010300"},{"poweroffId":2019073031010297,"sgpoweroffId":null,"subsName":"","lineName":"10kV三都Y125线","pubTranName":"松口村郑家垅台区,","scope":"浙江省-杭州市-建德市-三都镇 松口行政村-小里自然村一带用户","startTime":"2019-07-30 21:40:00","stopDate":"2019-07-31 00:15:00","orgNo":"3340180","typeCode":"电网故障停限电","poweroffArea":"110kV南峰变:三都Y125线-郑家垅台区后段","poweroffReason":"（低压停电信息）低压开关跳闸故障 原预计停电结束时间31日01:00，由于施工现场环境比较复杂，存在不确定因素，因此预估施工时间适当放长了,目前故障已修复，现将停电结束时间变更至31日00:15","powerTime":"2019-07-30 23:42:00","powerComm":"已送电","subsNo":"","lineNo":"","tgNo":"","tgName":null,"infoStatus":"1","orgName":"国网浙江建德市供电有限公司","typeName":null,"infoStatusName":null,"dateDay":null,"orgNos":null,"nowTime":null,"countyName":null,"streetName":null,"villageName":null,"roadName":null,"communityName":null,"tranName":null,"sdLineName":null,"cityCode":"3340180","cityName":"国网浙江建德市供电有限公司","provinceCode":null,"stopTime":"2019-07-31 00:15:00","powerType":"全部","powerOffArea":"110kV南峰变:三都Y125线-郑家垅台区后段","powerOffReason":"（低压停电信息）低压开关跳闸故障 原预计停电结束时间31日01:00，由于施工现场环境比较复杂，存在不确定因素，因此预估施工时间适当放长了,目前故障已修复，现将停电结束时间变更至31日00:15","powerOffId":"2019073031010297"},{"poweroffId":2019073031010285,"sgpoweroffId":null,"subsName":"","lineName":"10kV申联C942线","pubTranName":"群力村4#变,","scope":"浙江省-杭州市-萧山区-瓜沥镇(群力行政村-群力自然村)、瓜沥镇党山群力四组、群力村一带","startTime":"2019-07-30 21:05:13","stopDate":"2019-07-30 22:50:18","orgNo":"3340130","typeCode":"电网故障停限电","poweroffArea":"110kV党山变:申联C942线-群力村4#变台区低压开关","poweroffReason":"（低压停电信息）低压漏电保护器短路故障","powerTime":"2019-07-30 21:57:27","powerComm":"已送电","subsNo":"","lineNo":"","tgNo":"","tgName":null,"infoStatus":"1","orgName":"国网浙江杭州市萧山区供电有限公司","typeName":null,"infoStatusName":null,"dateDay":null,"orgNos":null,"nowTime":null,"countyName":null,"streetName":null,"villageName":null,"roadName":null,"communityName":null,"tranName":null,"sdLineName":null,"cityCode":"3340130","cityName":"国网浙江杭州市萧山区供电有限公司","provinceCode":null,"stopTime":"2019-07-30 22:50:18","powerType":"全部","powerOffArea":"110kV党山变:申联C942线-群力村4#变台区低压开关","powerOffReason":"（低压停电信息）低压漏电保护器短路故障","powerOffId":"2019073031010285"},{"poweroffId":2019073031010283,"sgpoweroffId":null,"subsName":"","lineName":"10kV影视A390线","pubTranName":"宁北村16#变,","scope":"浙江省-杭州市-萧山区-宁围镇-宁围街道、二桥行政村、宁北自然村、宁安社区、宁安村、宁安自然村、宁安行政村等一带","startTime":"2019-07-30 21:14:16","stopDate":"2019-07-30 22:18:19","orgNo":"3340130","typeCode":"电网故障停限电","poweroffArea":"110kV顺坝变:影视A390线-宁北村16#变台区低压开关","poweroffReason":"（低压停电信息）低压漏电保护器短路故障 原停电结束时间：23:34，变更停电结束时间：22:18，由于增派人员，抢修工作提前完成，故需要提前送电。","powerTime":"2019-07-30 21:42:24","powerComm":"已送电","subsNo":"","lineNo":"","tgNo":"","tgName":null,"infoStatus":"1","orgName":"国网浙江杭州市萧山区供电有限公司","typeName":null,"infoStatusName":null,"dateDay":null,"orgNos":null,"nowTime":null,"countyName":null,"streetName":null,"villageName":null,"roadName":null,"communityName":null,"tranName":null,"sdLineName":null,"cityCode":"3340130","cityName":"国网浙江杭州市萧山区供电有限公司","provinceCode":null,"stopTime":"2019-07-30 22:18:19","powerType":"全部","powerOffArea":"110kV顺坝变:影视A390线-宁北村16#变台区低压开关","powerOffReason":"（低压停电信息）低压漏电保护器短路故障 原停电结束时间：23:34，变更停电结束时间：22:18，由于增派人员，抢修工作提前完成，故需要提前送电。","powerOffId":"2019073031010283"},{"poweroffId":2019073031010263,"sgpoweroffId":null,"subsName":"","lineName":"10kV头蓬461线","pubTranName":"新湾村1#变,","scope":"浙江省杭州市萧山区新湾街道商贸城13幢、新湾村一带","startTime":"2019-07-30 20:00:51","stopDate":"2019-07-30 21:40:34","orgNo":"3340120","typeCode":"电网故障停限电","poweroffArea":"35kV新湾变:头蓬461线-新湾村1#变台区低压开关","poweroffReason":"低压漏电保护器短路故障 原停电结束时间：22:35，变更停电结束时间：21:40，由于抢修工作提前完成，故需要提前送电。","powerTime":"2019-07-30 20:55:19","powerComm":"已送电","subsNo":"","lineNo":"","tgNo":"","tgName":null,"infoStatus":"1","orgName":"国网浙江杭州市钱塘新区供电公司","typeName":null,"infoStatusName":null,"dateDay":null,"orgNos":null,"nowTime":null,"countyName":null,"streetName":null,"villageName":null,"roadName":null,"communityName":null,"tranName":null,"sdLineName":null,"cityCode":"3340120","cityName":"国网浙江杭州市钱塘新区供电公司","provinceCode":null,"stopTime":"2019-07-30 21:40:34","powerType":"全部","powerOffArea":"35kV新湾变:头蓬461线-新湾村1#变台区低压开关","powerOffReason":"低压漏电保护器短路故障 原停电结束时间：22:35，变更停电结束时间：21:40，由于抢修工作提前完成，故需要提前送电。","powerOffId":"2019073031010263"},{"poweroffId":2019073031010254,"sgpoweroffId":null,"subsName":"","lineName":"10kV紫东A787线","pubTranName":"璇山下6#变,","scope":"浙江省-杭州市-萧山区-河上镇(璇山下行政村-璇山下自然村),浙江省杭州市萧山区河上镇璇山下行政村150号一带","startTime":"2019-07-30 19:47:15","stopDate":"2019-07-30 21:54:21","orgNo":"3340130","typeCode":"电网故障停限电","poweroffArea":"110kV大西变:紫东A787线-璇山下6#变台区低压开关","poweroffReason":"（低压停电信息）低压熔断器短路故障","powerTime":"2019-07-30 21:00:14","powerComm":"已送电","subsNo":"","lineNo":"","tgNo":"","tgName":null,"infoStatus":"1","orgName":"国网浙江杭州市萧山区供电有限公司","typeName":null,"infoStatusName":null,"dateDay":null,"orgNos":null,"nowTime":null,"countyName":null,"streetName":null,"villageName":null,"roadName":null,"communityName":null,"tranName":null,"sdLineName":null,"cityCode":"3340130","cityName":"国网浙江杭州市萧山区供电有限公司","provinceCode":null,"stopTime":"2019-07-30 21:54:21","powerType":"全部","powerOffArea":"110kV大西变:紫东A787线-璇山下6#变台区低压开关","powerOffReason":"（低压停电信息）低压熔断器短路故障","powerOffId":"2019073031010254"},{"poweroffId":2019073031010225,"sgpoweroffId":null,"subsName":"","lineName":"10kV东海062线","pubTranName":"萧农开发办,农业开发办,萧农开发办,萧山农业开发办,农业开发办,萧农开发办,萧山农业开发办东丰农场,农业开发办,萧农开发办,萧农开发办,萧农开发办,萧农开发办,萧山交投资产经营,农业开发办,萧农开发办,萧农开发区钱江水产养殖场,星光水产,天元农业,东湾养殖,萧农开发办,萧农开发办永丰农场,萧农开发办,浙江江南春建设集团有限公司（二）,龙翔养殖,银飞饲料,周鑫农业,天元农业,庞涛农业,萧农开发办,萧农开发办,水利工程所,新湾三新村,农业开发办,星光水产,萧农开发办,","scope":"浙江省杭州市萧山区围垦垦区萧山1.78万亩垦区围垦十九工段、十九工段靠近钱塘江边、杭州庞涛农业开发有限公司,杭州天元农业开发有限公司,杭州萧山交投资产经营开发有限公司,杭州萧山龙翔养殖有限责任公司,杭州萧山星光水产养殖有限公司,杭州银飞饲料有限公司,市农业开发办,市农业开发区,萧农对外开发区,萧农对外综合开发区,萧农对外综合开发区管委会,萧农外综合开发区,萧山农业对外合开发区管理委员会办公室,萧山农业对外综合开发区,萧山农业对外综合开发区东丰农场,萧山农业对外综合开发区管理委员会办公室,萧山农业对外综合开发区管委会办公室,萧山农业对外综合开发区永丰农场,萧山农业开发区钱江水产养殖场,萧山区围垦水利工程管理所,萧山区新湾镇三新村(围垦用电),浙江新东湾农业开发有限公司一带","startTime":"2019-07-30 16:05:03","stopDate":"2019-07-30 19:00:00","orgNo":"3340120","typeCode":"电网故障停限电","poweroffArea":"110kV长征变:东海062线","poweroffReason":"高压柱上断路器短路故障 原停电结束时间：19:30，变更停电结束时间：19:00，由于抢修工作提前完成，故需要提前送电。","powerTime":"2019-07-30 18:16:58","powerComm":"已送电","subsNo":"","lineNo":"","tgNo":"","tgName":null,"infoStatus":"1","orgName":"国网浙江杭州市钱塘新区供电公司","typeName":null,"infoStatusName":null,"dateDay":null,"orgNos":null,"nowTime":null,"countyName":null,"streetName":null,"villageName":null,"roadName":null,"communityName":null,"tranName":null,"sdLineName":null,"cityCode":"3340120","cityName":"国网浙江杭州市钱塘新区供电公司","provinceCode":null,"stopTime":"2019-07-30 19:00:00","powerType":"全部","powerOffArea":"110kV长征变:东海062线","powerOffReason":"高压柱上断路器短路故障 原停电结束时间：19:30，变更停电结束时间：19:00，由于抢修工作提前完成，故需要提前送电。","powerOffId":"2019073031010225"}],"pageModel":{"pageNow":1354,"totalCount":17789,"totalPage":1779,"tableRows":0,"pageCount":10,"beginCount":13530},"isExperi":"1"}