{"message":"","today":"2020-06-16","seleList":[{"poweroffId":2019073031010098,"sgpoweroffId":null,"subsName":"","lineName":"10kV白路T316线","pubTranName":"桑园村1号公变,","scope":"浙江省-杭州市-桐庐县-城南街道(桑园行政村-桑园里自然村);","startTime":"2019-07-30 09:35:40","stopDate":"2019-07-30 14:30:43","orgNo":"3340150","typeCode":"电网故障停限电","poweroffArea":"110kV洋洲变:白路T316线-桑园村1号公变后段","poweroffReason":"（低压停电信息）低压开关故障处理","powerTime":"2019-07-30 14:10:32","powerComm":"已送电","subsNo":"","lineNo":"","tgNo":"","tgName":null,"infoStatus":"1","orgName":"国网浙江桐庐县供电公司","typeName":null,"infoStatusName":null,"dateDay":null,"orgNos":null,"nowTime":null,"countyName":null,"streetName":null,"villageName":null,"roadName":null,"communityName":null,"tranName":null,"sdLineName":null,"cityCode":"3340150","cityName":"国网浙江桐庐县供电公司","provinceCode":null,"stopTime":"2019-07-30 14:30:43","powerType":"全部","powerOffArea":"110kV洋洲变:白路T316线-桑园村1号公变后段","powerOffReason":"（低压停电信息）低压开关故障处理","powerOffId":"2019073031010098"},{"poweroffId":2019073031010069,"sgpoweroffId":null,"subsName":"","lineName":"10kV珠村163线","pubTranName":"沙潭1号公变,沙潭1号公变,","scope":"浙江省-杭州市-桐庐县-瑶琳镇(高翔行政村-沙潭自然村);","startTime":"2019-07-30 08:25:05","stopDate":"2019-07-30 11:32:41","orgNo":"3340150","typeCode":"电网故障停限电","poweroffArea":"35kV瑶琳变:珠村163线-沙潭1号公变后段；珠村163线-沙潭1号公变后段","poweroffReason":"（低压停电信息）低压开关故障","powerTime":"2019-07-30 11:11:32","powerComm":"已送电","subsNo":"","lineNo":"","tgNo":"","tgName":null,"infoStatus":"1","orgName":"国网浙江桐庐县供电公司","typeName":null,"infoStatusName":null,"dateDay":null,"orgNos":null,"nowTime":null,"countyName":null,"streetName":null,"villageName":null,"roadName":null,"communityName":null,"tranName":null,"sdLineName":null,"cityCode":"3340150","cityName":"国网浙江桐庐县供电公司","provinceCode":null,"stopTime":"2019-07-30 11:32:41","powerType":"全部","powerOffArea":"35kV瑶琳变:珠村163线-沙潭1号公变后段；珠村163线-沙潭1号公变后段","powerOffReason":"（低压停电信息）低压开关故障","powerOffId":"2019073031010069"},{"poweroffId":2019073031010052,"sgpoweroffId":null,"subsName":"","lineName":"10kV孙家T119线","pubTranName":"梅蓉孙家2号公变,","scope":"浙江省杭州市桐庐县桐君街道梅蓉行政村","startTime":"2019-07-30 07:35:54","stopDate":"2019-07-30 10:00:10","orgNo":"3340150","typeCode":"电网故障停限电","poweroffArea":"110kV桐庐变:孙家T119线-梅蓉孙家2号公变后段","poweroffReason":"（低压停电信息）低压开关故障","powerTime":"2019-07-30 09:40:21","powerComm":"已送电","subsNo":"","lineNo":"","tgNo":"","tgName":null,"infoStatus":"1","orgName":"国网浙江桐庐县供电公司","typeName":null,"infoStatusName":null,"dateDay":null,"orgNos":null,"nowTime":null,"countyName":null,"streetName":null,"villageName":null,"roadName":null,"communityName":null,"tranName":null,"sdLineName":null,"cityCode":"3340150","cityName":"国网浙江桐庐县供电公司","provinceCode":null,"stopTime":"2019-07-30 10:00:10","powerType":"全部","powerOffArea":"110kV桐庐变:孙家T119线-梅蓉孙家2号公变后段","powerOffReason":"（低压停电信息）低压开关故障","powerOffId":"2019073031010052"},{"poweroffId":2019073031010039,"sgpoweroffId":null,"subsName":"","lineName":"10kV宅里T330线","pubTranName":"孙家山阴塘1号公变,孙家山阴塘1号公变,","scope":"浙江省-杭州市-桐庐县-横村镇(孙家行政村-山阴塘自然村);","startTime":"2019-07-30 07:01:08","stopDate":"2019-07-30 09:30:22","orgNo":"3340150","typeCode":"电网故障停限电","poweroffArea":"110kV横村变:宅里T330线-孙家山阴塘1号公变后段；宅里T330线-孙家山阴塘1号公变后段","poweroffReason":"（低压停电信息）低压开关故障","powerTime":"2019-07-30 09:15:21","powerComm":"已送电","subsNo":"","lineNo":"","tgNo":"","tgName":null,"infoStatus":"1","orgName":"国网浙江桐庐县供电公司","typeName":null,"infoStatusName":null,"dateDay":null,"orgNos":null,"nowTime":null,"countyName":null,"streetName":null,"villageName":null,"roadName":null,"communityName":null,"tranName":null,"sdLineName":null,"cityCode":"3340150","cityName":"国网浙江桐庐县供电公司","provinceCode":null,"stopTime":"2019-07-30 09:30:22","powerType":"全部","powerOffArea":"110kV横村变:宅里T330线-孙家山阴塘1号公变后段；宅里T330线-孙家山阴塘1号公变后段","powerOffReason":"（低压停电信息）低压开关故障","powerOffId":"2019073031010039"},{"poweroffId":2019073031010030,"sgpoweroffId":null,"subsName":"","lineName":"10kV窄溪T257线","pubTranName":"前村1号公变,","scope":"浙江省-杭州市-桐庐县-江南镇(窄溪行政村-前村自然村);","startTime":"2019-07-30 07:06:36","stopDate":"2019-07-30 10:15:24","orgNo":"3340150","typeCode":"电网故障停限电","poweroffArea":"110kV石阜变:窄溪T257线-前村1号公变后段","poweroffReason":"（低压停电信息）低压开关故障 原停电开始时间2019年07月30日 08:00:49，变更停电开始时间：2019年07月30日 07:06:36，原因：提前施工","powerTime":"2019-07-30 10:00:26","powerComm":"已送电","subsNo":"","lineNo":"","tgNo":"","tgName":null,"infoStatus":"1","orgName":"国网浙江桐庐县供电公司","typeName":null,"infoStatusName":null,"dateDay":null,"orgNos":null,"nowTime":null,"countyName":null,"streetName":null,"villageName":null,"roadName":null,"communityName":null,"tranName":null,"sdLineName":null,"cityCode":"3340150","cityName":"国网浙江桐庐县供电公司","provinceCode":null,"stopTime":"2019-07-30 10:15:24","powerType":"全部","powerOffArea":"110kV石阜变:窄溪T257线-前村1号公变后段","powerOffReason":"（低压停电信息）低压开关故障 原停电开始时间2019年07月30日 08:00:49，变更停电开始时间：2019年07月30日 07:06:36，原因：提前施工","powerOffId":"2019073031010030"},{"poweroffId":2019073031010027,"sgpoweroffId":null,"subsName":"","lineName":"10kV五星Y744线","pubTranName":"联和村联横台区,","scope":"浙江省-杭州市-建德市-下涯镇 联和行政村-联横自然村、桑园自然村一带用户。","startTime":"2019-07-30 06:28:00","stopDate":"2019-07-30 08:00:00","orgNo":"3340180","typeCode":"电网故障停限电","poweroffArea":"110kV马目变:五星Y744线-联和村联横台区后段","poweroffReason":"（低压停电信息）低压开关跳闸故障（原预计停电结束时间08:30，由于施工现场环境比较复杂，存在不确定因素，因此预估施工时间适当放长了，目前故障已修复，现将停电时间变更至08:00。）","powerTime":"2019-07-30 07:08:00","powerComm":"已送电","subsNo":"","lineNo":"","tgNo":"","tgName":null,"infoStatus":"1","orgName":"国网浙江建德市供电有限公司","typeName":null,"infoStatusName":null,"dateDay":null,"orgNos":null,"nowTime":null,"countyName":null,"streetName":null,"villageName":null,"roadName":null,"communityName":null,"tranName":null,"sdLineName":null,"cityCode":"3340180","cityName":"国网浙江建德市供电有限公司","provinceCode":null,"stopTime":"2019-07-30 08:00:00","powerType":"全部","powerOffArea":"110kV马目变:五星Y744线-联和村联横台区后段","powerOffReason":"（低压停电信息）低压开关跳闸故障（原预计停电结束时间08:30，由于施工现场环境比较复杂，存在不确定因素，因此预估施工时间适当放长了，目前故障已修复，现将停电时间变更至08:00。）","powerOffId":"2019073031010027"},{"poweroffId":2019073031010017,"sgpoweroffId":null,"subsName":"","lineName":"10kV顺和C929线","pubTranName":"党山供电营业所5#变,","scope":"浙江省-杭州市-萧山区-瓜沥镇南大房社区井岭路、为民路、为民路161号小商品市场一带","startTime":"2019-07-30 05:50:41","stopDate":"2019-07-30 07:25:00","orgNo":"3340130","typeCode":"电网故障停限电","poweroffArea":"110kV党山变:顺和C929线-党山供电营业所5#变台区低压开关","poweroffReason":"（低压停电信息）低压熔断器短路故障 原停电结束时间:2019-07-30 11:59:30，变更停电结束时间:2019-07-30 07:25:00，由于抢修工作提前完成，故需要提前送电。","powerTime":"2019-07-30 06:35:53","powerComm":"已送电","subsNo":"","lineNo":"","tgNo":"","tgName":null,"infoStatus":"1","orgName":"国网浙江杭州市萧山区供电有限公司","typeName":null,"infoStatusName":null,"dateDay":null,"orgNos":null,"nowTime":null,"countyName":null,"streetName":null,"villageName":null,"roadName":null,"communityName":null,"tranName":null,"sdLineName":null,"cityCode":"3340130","cityName":"国网浙江杭州市萧山区供电有限公司","provinceCode":null,"stopTime":"2019-07-30 07:25:00","powerType":"全部","powerOffArea":"110kV党山变:顺和C929线-党山供电营业所5#变台区低压开关","powerOffReason":"（低压停电信息）低压熔断器短路故障 原停电结束时间:2019-07-30 11:59:30，变更停电结束时间:2019-07-30 07:25:00，由于抢修工作提前完成，故需要提前送电。","powerOffId":"2019073031010017"},{"poweroffId":2019072931020176,"sgpoweroffId":null,"subsName":"","lineName":"10kV邱家V890线","pubTranName":"柯家村[横溪桥]公变,","scope":"浙江省-杭州市-临安市-锦南街道-柯家行政村(柯家头自然村,邱家头自然村,横溪亭自然村,柯家自然村)","startTime":"2019-07-29 23:18:00","stopDate":"2019-07-30 01:18:00","orgNo":"3340160","typeCode":"电网故障停限电","poweroffArea":"110kV杨岱变:邱家V890线柯家村[横溪桥]公变配变","poweroffReason":"高压开关跳闸","powerTime":"2019-07-30 00:27:04","powerComm":"已送电","subsNo":"","lineNo":"","tgNo":"","tgName":null,"infoStatus":"1","orgName":"国网浙江临安市供电公司","typeName":null,"infoStatusName":null,"dateDay":null,"orgNos":null,"nowTime":null,"countyName":null,"streetName":null,"villageName":null,"roadName":null,"communityName":null,"tranName":null,"sdLineName":null,"cityCode":"3340160","cityName":"国网浙江临安市供电公司","provinceCode":null,"stopTime":"2019-07-30 01:18:00","powerType":"全部","powerOffArea":"110kV杨岱变:邱家V890线柯家村[横溪桥]公变配变","powerOffReason":"高压开关跳闸","powerOffId":"2019072931020176"},{"poweroffId":2019072931020174,"sgpoweroffId":null,"subsName":"","lineName":"10kV向阳G126线","pubTranName":"向阳村向塘农居点公变,","scope":"浙江省-杭州市-余杭区-崇贤街道-向阳行政村(塘康路,向阳村,马家里自然村，向塘小区)一带","startTime":"2019-07-29 23:12:00","stopDate":"2019-07-30 04:30:00","orgNo":"3340140","typeCode":"电网故障停限电","poweroffArea":"35kV沾桥变:向阳G126线-向阳村向塘农居点公变后段","poweroffReason":"低压开关跳闸","powerTime":"2019-07-30 03:38:00","powerComm":"已送电","subsNo":"","lineNo":"","tgNo":"","tgName":null,"infoStatus":"1","orgName":"国网浙江杭州市余杭区供电有限公司","typeName":null,"infoStatusName":null,"dateDay":null,"orgNos":null,"nowTime":null,"countyName":null,"streetName":null,"villageName":null,"roadName":null,"communityName":null,"tranName":null,"sdLineName":null,"cityCode":"3340140","cityName":"国网浙江杭州市余杭区供电有限公司","provinceCode":null,"stopTime":"2019-07-30 04:30:00","powerType":"全部","powerOffArea":"35kV沾桥变:向阳G126线-向阳村向塘农居点公变后段","powerOffReason":"低压开关跳闸","powerOffId":"2019072931020174"},{"poweroffId":2019072931020171,"sgpoweroffId":null,"subsName":"","lineName":"10kV柴家G150线","pubTranName":"泰山村里河坝公变,","scope":"浙江省-杭州市-余杭区-塘栖镇-泰山行政村-泰山村一带","startTime":"2019-07-29 20:50:00","stopDate":"2019-07-29 22:50:00","orgNo":"3340140","typeCode":"电网故障停限电","poweroffArea":"35kV南山变:柴家G150线-泰山村里河坝公变后段","poweroffReason":"泰山村里河坝公变后段 低压断线故障","powerTime":"2019-07-29 22:25:00","powerComm":"已送电","subsNo":"","lineNo":"","tgNo":"","tgName":null,"infoStatus":"1","orgName":"国网浙江杭州市余杭区供电有限公司","typeName":null,"infoStatusName":null,"dateDay":null,"orgNos":null,"nowTime":null,"countyName":null,"streetName":null,"villageName":null,"roadName":null,"communityName":null,"tranName":null,"sdLineName":null,"cityCode":"3340140","cityName":"国网浙江杭州市余杭区供电有限公司","provinceCode":null,"stopTime":"2019-07-29 22:50:00","powerType":"全部","powerOffArea":"35kV南山变:柴家G150线-泰山村里河坝公变后段","powerOffReason":"泰山村里河坝公变后段 低压断线故障","powerOffId":"2019072931020171"}],"pageModel":{"pageNow":1356,"totalCount":17789,"totalPage":1779,"tableRows":0,"pageCount":10,"beginCount":13550},"isExperi":"1"}