{"message":"","today":"2020-06-16","seleList":[{"poweroffId":2019072931020098,"sgpoweroffId":null,"subsName":"","lineName":"10kV灵源H655线","pubTranName":"灵源村严公桥2#公变,灵源村严公桥,","scope":"浙江省-杭州市-余杭区-仓前街道(灵源行政村-灵源自然村,永乐行政村-通义桥自然村)一带","startTime":"2019-07-29 14:44:33","stopDate":"2019-07-29 16:44:33","orgNo":"3340140","typeCode":"电网故障停限电","poweroffArea":"110kV永福变:灵源H655线首端，灵源村严公桥，灵源村严公桥2#公变之间","poweroffReason":"低压开关跳闸 灵源村严公桥，灵源村严公桥2#公变之间 低压断线故障","powerTime":"2019-07-29 16:12:00","powerComm":"已送电","subsNo":"","lineNo":"","tgNo":"","tgName":null,"infoStatus":"1","orgName":"国网浙江杭州市余杭区供电有限公司","typeName":null,"infoStatusName":null,"dateDay":null,"orgNos":null,"nowTime":null,"countyName":null,"streetName":null,"villageName":null,"roadName":null,"communityName":null,"tranName":null,"sdLineName":null,"cityCode":"3340140","cityName":"国网浙江杭州市余杭区供电有限公司","provinceCode":null,"stopTime":"2019-07-29 16:44:33","powerType":"全部","powerOffArea":"110kV永福变:灵源H655线首端，灵源村严公桥，灵源村严公桥2#公变之间","powerOffReason":"低压开关跳闸 灵源村严公桥，灵源村严公桥2#公变之间 低压断线故障","powerOffId":"2019072931020098"},{"poweroffId":2019072931020095,"sgpoweroffId":null,"subsName":"","lineName":"10kV周扬7017线","pubTranName":"天星苑6号公变,","scope":"浙江省-杭州市-余杭区-星桥街道-香榭社区-广厦天都城小区","startTime":"2019-07-29 14:21:00","stopDate":"2019-07-29 15:21:00","orgNo":"3340140","typeCode":"电网故障停限电","poweroffArea":"110kV锦唐变:周扬7017线天星苑6号公变配变","poweroffReason":"低压开关跳闸天星苑6号公变配变 低压导线故障","powerTime":"2019-07-29 15:18:00","powerComm":"已送电","subsNo":"","lineNo":"","tgNo":"","tgName":null,"infoStatus":"1","orgName":"国网浙江杭州市余杭区供电有限公司","typeName":null,"infoStatusName":null,"dateDay":null,"orgNos":null,"nowTime":null,"countyName":null,"streetName":null,"villageName":null,"roadName":null,"communityName":null,"tranName":null,"sdLineName":null,"cityCode":"3340140","cityName":"国网浙江杭州市余杭区供电有限公司","provinceCode":null,"stopTime":"2019-07-29 15:21:00","powerType":"全部","powerOffArea":"110kV锦唐变:周扬7017线天星苑6号公变配变","powerOffReason":"低压开关跳闸天星苑6号公变配变 低压导线故障","powerOffId":"2019072931020095"},{"poweroffId":2019072931020092,"sgpoweroffId":null,"subsName":"","lineName":"10kV绍兴6063线","pubTranName":"朝二(1),浙江京昆艺术中心,四小区（五）2#,四区,二小区(6),二小区(5),二区,公用,浙江京昆艺术中心,省院,国体（一）,四区(3),二小区(3),二小区(一),国资,朝二,结防,四小区（五）1#,二小区(四),四小区（七）,朝二(4),朝二(2),四小区（六）,","scope":"浙江省-杭州市-下城区-文晖街道-和平苑社区-文晖路,朝晖街道-大木桥社区(文晖路,新市街),朝晖街道-玉公桥社区(文晖路,朝晖二区),朝晖街道(虹园社区-上塘路,老房地社区-新市街,大家苑社区-朝晖路);朝晖街道(市下城区国有资产管理委员会,杭州市职业病防治院,杭州市市区河道整治建设中心,浙江京昆艺术中心)","startTime":"2019-07-29 14:08:00","stopDate":"2019-07-29 15:50:00","orgNo":"3340101","typeCode":"电网故障停限电","poweroffArea":"110kV朝晖变:绍兴6063线","poweroffReason":"高压开关跳闸 原预计停电结束时间2019-07-29 18:08:00,由于施工现场环境比较复杂，存在不确定因素，因此预估施工时间适当放长了，而实际施工进行得比较顺利，因此提前送电了","powerTime":"2019-07-29 15:14:12","powerComm":"已送电","subsNo":"","lineNo":"","tgNo":"","tgName":null,"infoStatus":"1","orgName":"浙江杭州电力客户服务中心","typeName":null,"infoStatusName":null,"dateDay":null,"orgNos":null,"nowTime":null,"countyName":null,"streetName":null,"villageName":null,"roadName":null,"communityName":null,"tranName":null,"sdLineName":null,"cityCode":"3340101","cityName":"浙江杭州电力客户服务中心","provinceCode":null,"stopTime":"2019-07-29 15:50:00","powerType":"全部","powerOffArea":"110kV朝晖变:绍兴6063线","powerOffReason":"高压开关跳闸 原预计停电结束时间2019-07-29 18:08:00,由于施工现场环境比较复杂，存在不确定因素，因此预估施工时间适当放长了，而实际施工进行得比较顺利，因此提前送电了","powerOffId":"2019072931020092"},{"poweroffId":2019072931020091,"sgpoweroffId":null,"subsName":"","lineName":"10kV绿洲6071线","pubTranName":"绿苑（五）,华讯二,传染双路内部一3#,绿洲二期二2#,绿园（五）,绿洲双路内部二,办公楼2#,市儿医2#,浙江广厦物业管理有限公司,绿苑（一）,绿园（七）,油勘,绿洲二期一2#,信联,浙江广厦物业管理有限公司,传染双路内部一2#,绿园(一),绿洲二期双路内部二1#,绿洲二期一1#,机施,传染双路内部一1#,钛合2#,市儿医1#,绿洲双路内部一,绿苑（三）,华讯一,办公楼1#,钛合4#,钛合3#,钛合1#,绿苑（七）,施家(2),绿园(三),","scope":"浙江省-杭州市-下城区-朝晖街道-施家花园社区-朝晖路,文晖街道(打铁关社区-朝晖路,京都苑社区-朝晖路);大关街道-杭州望江房地产投资管理有限公司,文晖街道(杭州市儿童医院,华润万家生活超市（浙江）有限公司,南都物业服务集团股份有限公司,华信咨询设计研究院有限公司),朝晖街道(杭州市下城区机关事务管理中心,浙江广厦物业管理有限公司,杭州市机电设备有限公司,杭州市儿童医院)朝晖街道施家花园社区（绿洲花园）","startTime":"2019-07-29 14:08:00","stopDate":"2019-07-29 15:45:00","orgNo":"3340101","typeCode":"电网故障停限电","poweroffArea":"110kV朝晖变:绿洲6071线","poweroffReason":"高压开关跳闸 原预计停电结束时间2019-07-29 18:08:00,由于施工现场环境比较复杂，存在不确定因素，因此预估施工时间适当放长了，而实际施工进行得比较顺利，因此提前送电了","powerTime":"2019-07-29 15:01:22","powerComm":"已送电","subsNo":"","lineNo":"","tgNo":"","tgName":null,"infoStatus":"1","orgName":"浙江杭州电力客户服务中心","typeName":null,"infoStatusName":null,"dateDay":null,"orgNos":null,"nowTime":null,"countyName":null,"streetName":null,"villageName":null,"roadName":null,"communityName":null,"tranName":null,"sdLineName":null,"cityCode":"3340101","cityName":"浙江杭州电力客户服务中心","provinceCode":null,"stopTime":"2019-07-29 15:45:00","powerType":"全部","powerOffArea":"110kV朝晖变:绿洲6071线","powerOffReason":"高压开关跳闸 原预计停电结束时间2019-07-29 18:08:00,由于施工现场环境比较复杂，存在不确定因素，因此预估施工时间适当放长了，而实际施工进行得比较顺利，因此提前送电了","powerOffId":"2019072931020091"},{"poweroffId":2019072931020089,"sgpoweroffId":null,"subsName":"","lineName":"10kV艮上6097线","pubTranName":"浙江通讯1#,浙江通讯3#,华达通宝商厦,浙江通讯2#,福居(三),华达通宝商厦,","scope":"浙江省-杭州市-下城区-潮鸣街道-艮山门社区-环城北路;天水街道(中国联合网络通信有限公司杭州市分公司,华达通宝商厦)（艮山福居）","startTime":"2019-07-29 14:11:00","stopDate":"2019-07-29 15:45:00","orgNo":"3340101","typeCode":"电网故障停限电","poweroffArea":"110kV朝晖变:艮上6097线","poweroffReason":"高压开关跳闸 原预计停电结束时间2019-07-29 18:11:00,由于施工现场环境比较复杂，存在不确定因素，因此预估施工时间适当放长了，而实际施工进行得比较顺利，因此提前送电了","powerTime":"2019-07-29 14:59:13","powerComm":"已送电","subsNo":"","lineNo":"","tgNo":"","tgName":null,"infoStatus":"1","orgName":"浙江杭州电力客户服务中心","typeName":null,"infoStatusName":null,"dateDay":null,"orgNos":null,"nowTime":null,"countyName":null,"streetName":null,"villageName":null,"roadName":null,"communityName":null,"tranName":null,"sdLineName":null,"cityCode":"3340101","cityName":"浙江杭州电力客户服务中心","provinceCode":null,"stopTime":"2019-07-29 15:45:00","powerType":"全部","powerOffArea":"110kV朝晖变:艮上6097线","powerOffReason":"高压开关跳闸 原预计停电结束时间2019-07-29 18:11:00,由于施工现场环境比较复杂，存在不确定因素，因此预估施工时间适当放长了，而实际施工进行得比较顺利，因此提前送电了","powerOffId":"2019072931020089"},{"poweroffId":2019072931020087,"sgpoweroffId":null,"subsName":"","lineName":"10kV上坊R165线","pubTranName":"花石源公变,枫家坞公变,旅游集团下姜村五狼坞配变,洞口公变,淳安县大墅镇洞坞村村民委员会专变,","scope":"浙江省-杭州市-淳安县-大墅镇-老岭行政村-老岭自然村,大墅镇-洞坞行政村(枫家坞自然村,洞口自然村,花石源自然村,洞坞自然村);大墅镇-洞坞行政村-淳安县大墅镇洞坞村村民委员会,枫树岭镇-下姜行政村-淳安千岛湖下姜景区管理有限公司","startTime":"2019-07-30 07:30:00","stopDate":"2019-07-30 15:30:00","orgNo":"3340190","typeCode":"临时停电","poweroffArea":"35kV大市变:上坊R165线-花石源支线0号杆跌落式熔断器后段","poweroffReason":"1.花石源支线改接2.洞口公变增容","powerTime":"2019-07-30 15:19:10","powerComm":"现场工作已完成","subsNo":"","lineNo":"","tgNo":"","tgName":null,"infoStatus":"1","orgName":"国网浙江淳安县供电有限公司","typeName":null,"infoStatusName":null,"dateDay":null,"orgNos":null,"nowTime":null,"countyName":null,"streetName":null,"villageName":null,"roadName":null,"communityName":null,"tranName":null,"sdLineName":null,"cityCode":"3340190","cityName":"国网浙江淳安县供电有限公司","provinceCode":null,"stopTime":"2019-07-30 15:30:00","powerType":"全部","powerOffArea":"35kV大市变:上坊R165线-花石源支线0号杆跌落式熔断器后段","powerOffReason":"1.花石源支线改接2.洞口公变增容","powerOffId":"2019072931020087"},{"poweroffId":2019072931020086,"sgpoweroffId":null,"subsName":"","lineName":"10kV深澳251线","pubTranName":"青源村2号公变,青源村1号公变,","scope":"浙江省-杭州市-桐庐县-江南镇-青源行政村-青源自然村","startTime":"2019-08-09 07:00:00","stopDate":"2019-08-09 17:00:00","orgNo":"3340150","typeCode":"计划停电","poweroffArea":"110kV石阜变:深澳251线-青源F4056后段","poweroffReason":"杭州桐庐县江南青源村等台区配变及低压线路改造工程","powerTime":"2019-08-09 16:30:43","powerComm":"已送电。","subsNo":"","lineNo":"","tgNo":"","tgName":null,"infoStatus":"1","orgName":"国网浙江桐庐县供电公司","typeName":null,"infoStatusName":null,"dateDay":null,"orgNos":null,"nowTime":null,"countyName":null,"streetName":null,"villageName":null,"roadName":null,"communityName":null,"tranName":null,"sdLineName":null,"cityCode":"3340150","cityName":"国网浙江桐庐县供电公司","provinceCode":null,"stopTime":"2019-08-09 17:00:00","powerType":"全部","powerOffArea":"110kV石阜变:深澳251线-青源F4056后段","powerOffReason":"杭州桐庐县江南青源村等台区配变及低压线路改造工程","powerOffId":"2019072931020086"},{"poweroffId":2019072931020085,"sgpoweroffId":null,"subsName":"","lineName":"10kV大树D219线","pubTranName":"杭州长命电池有限公司,富阳市恒达控制阀厂,高桥村舒姑洋3号桥头公变,大树下村2号石矿公变,受降村7#大树下甘坑口里公变,富阳华润燃气有限公司,高桥村舒姑洋9号山头坞西公变,杭州普乐科技有限公司,杭州立琪燃气设备有限公司 1#,杭州浙锚预应力有限公司2#,杭州轩华建材有限公司,大树下村3#桥头公变,浙江交工集团股份有限公司2#变,杭州富阳东方仪表厂,杭州富阳热工仪表厂,杭州浙锚预应力有限公司,杭州良工阀门有限公司1#变,舒姑洋村1#桥上公变,浙江云森集团有限公司,杭州鸿顺管业有限公司2#变,杭州国通建设有限公司,杭州三泰工业气体设备有限公司,杭州创盈机动车检测有限公司1#,浙江云森集团有限公司,中秋村3#孙家弄公变2,富阳锦辉工贸有限公司,受降村8号孙家弄里公变,富阳市润通新能源有限公司,浙江交工集团股份有限公司2#变,宏丰实业集团有限公司1#变,杭州康金圆科技有限公司1#变,受降村6号大树下新农村公变,浙江交工集团股份有限公司千人坑1#变,杭州杭富轨道交通有限公司9标2#基建变,杭州成功超声设备有限公司,舒菇洋村8号上村公变,杭州杭富轨道交通有限公司杭富SGHF-9标基建变一,舒姑洋村7#山头坞公变,中秋村4#宋殿路东公变,高桥村舒姑洋2号村委口公变,杭州浙锚预应力有限公司1#,杭州富阳宏祥钢构材料有限公司变压器1,杭州鸿顺管业有限公司 2#,舒姑洋12号桥上南公变,浙江交工集团股份有限公司1#变,杭州昌通特种线缆有限公司,杭州浙锚预应力有限公司3#,","scope":"浙江省-杭州市-富阳区-银湖街道-郜村行政村-郜村自然村,银湖街道-受降行政村(孙家垄自然村,中秋自然村,大树下自然村,黄沙畈自然村,甘坑口自然村,受降自然村,宋殿自然村),银湖街道-高桥行政村(山头坞自然村,舒姑垟自然村,高桥自然村);东洲街道-杭州良盛电气有限公司,银湖街道(杭州轩华建材有限公司,杭州普荣智能科技有限公司,杭州富阳恒达控制阀厂,浙江云森集团有限公司,杭州富阳东方仪表厂,杭州长命电池有限公司,杭州富阳热工仪表厂,杭州富春金泰新材料有限公司,杭州国通建设有限公司,腾达建设集团股份有限公司,杭州康金圆科技有限公司,杭州成功超声设备有限公司,杭州立琪燃气设备有限公司,富阳华润燃气有限公司,杭州鸿顺管业有限公司,浙锚科技股份有限公司,杭州三泰工业气体设备有限公司,杭州富阳润通新能源有限公司,杭州创盈机动车检测有限公司,浙江交工集团股份有限公司,杭州富阳宏祥钢构材料有限公司)","startTime":"2019-07-29 13:43:00","stopDate":"2019-07-29 16:30:00","orgNo":"3340170","typeCode":"电网故障停限电","poweroffArea":"110kV银湖变:大树D219线大树一号开关站大树一号开关站1#开关后段","poweroffReason":"高压开关跳闸，原停电结束时间2019-07-29 14:43:00，因抢修力量加强变更至2019-07-29 16:30:00","powerTime":"2019-07-29 15:50:53","powerComm":"已送电","subsNo":"","lineNo":"","tgNo":"","tgName":null,"infoStatus":"1","orgName":"国网浙江杭州市富阳区供电公司","typeName":null,"infoStatusName":null,"dateDay":null,"orgNos":null,"nowTime":null,"countyName":null,"streetName":null,"villageName":null,"roadName":null,"communityName":null,"tranName":null,"sdLineName":null,"cityCode":"3340170","cityName":"国网浙江杭州市富阳区供电公司","provinceCode":null,"stopTime":"2019-07-29 16:30:00","powerType":"全部","powerOffArea":"110kV银湖变:大树D219线大树一号开关站大树一号开关站1#开关后段","powerOffReason":"高压开关跳闸，原停电结束时间2019-07-29 14:43:00，因抢修力量加强变更至2019-07-29 16:30:00","powerOffId":"2019072931020085"},{"poweroffId":2019072931020081,"sgpoweroffId":null,"subsName":"","lineName":"10kV胡林H538线","pubTranName":"长命村龙腰塘公变,","scope":"浙江省杭州市余杭区瓶窑镇：长命行政村(龙腰塘自然村)一带","startTime":"2019-08-06 08:00:00","stopDate":"2019-08-06 16:30:00","orgNo":"3340140","typeCode":"计划停电","poweroffArea":"110kV凤山变:胡林H538线龙腰塘公变闸刀后段","poweroffReason":"计划工作","powerTime":"2019-08-06 16:28:30","powerComm":"全部送电","subsNo":"","lineNo":"","tgNo":"","tgName":null,"infoStatus":"1","orgName":"国网浙江杭州市余杭区供电有限公司","typeName":null,"infoStatusName":null,"dateDay":null,"orgNos":null,"nowTime":null,"countyName":null,"streetName":null,"villageName":null,"roadName":null,"communityName":null,"tranName":null,"sdLineName":null,"cityCode":"3340140","cityName":"国网浙江杭州市余杭区供电有限公司","provinceCode":null,"stopTime":"2019-08-06 16:30:00","powerType":"全部","powerOffArea":"110kV凤山变:胡林H538线龙腰塘公变闸刀后段","powerOffReason":"计划工作","powerOffId":"2019072931020081"},{"poweroffId":2019072931020079,"sgpoweroffId":null,"subsName":"","lineName":"10kV广王T379线","pubTranName":"潘村畈1号公变,","scope":"浙江省-杭州市-桐庐县-百江镇-百江行政村(潘村畈自然村)","startTime":"2019-08-09 08:00:00","stopDate":"2019-08-09 16:00:00","orgNo":"3340150","typeCode":"计划停电","poweroffArea":"110kV百江变:广王T379线-潘畈F9203跌落式熔断器后段","poweroffReason":"潘村畈1号公变调换主副杆及配变增容等工作（200kVA增至400kVA）","powerTime":"2019-08-09 15:32:46","powerComm":"已送电。","subsNo":"","lineNo":"","tgNo":"","tgName":null,"infoStatus":"1","orgName":"国网浙江桐庐县供电公司","typeName":null,"infoStatusName":null,"dateDay":null,"orgNos":null,"nowTime":null,"countyName":null,"streetName":null,"villageName":null,"roadName":null,"communityName":null,"tranName":null,"sdLineName":null,"cityCode":"3340150","cityName":"国网浙江桐庐县供电公司","provinceCode":null,"stopTime":"2019-08-09 16:00:00","powerType":"全部","powerOffArea":"110kV百江变:广王T379线-潘畈F9203跌落式熔断器后段","powerOffReason":"潘村畈1号公变调换主副杆及配变增容等工作（200kVA增至400kVA）","powerOffId":"2019072931020079"}],"pageModel":{"pageNow":1358,"totalCount":17789,"totalPage":1779,"tableRows":0,"pageCount":10,"beginCount":13570},"isExperi":"1"}