{"message":"","today":"2020-06-16","seleList":[{"poweroffId":2019072931020029,"sgpoweroffId":null,"subsName":"","lineName":"10kV迎宾D579线","pubTranName":"光明路2#公变,","scope":"浙江省-杭州市-富阳区-富春街道-后亭子社区(迎宾路,光明路,北堤路,新建路),富春街道-镬子山社区(北堤路,新建路,镬子山)","startTime":"2019-07-29 09:29:50","stopDate":"2019-07-29 11:29:50","orgNo":"3340170","typeCode":"电网故障停限电","poweroffArea":"110kV春江变:迎宾D579线-光明路2#公变后段","poweroffReason":"高压开关跳闸","powerTime":"2019-07-29 10:55:44","powerComm":"已送电","subsNo":"","lineNo":"","tgNo":"","tgName":null,"infoStatus":"1","orgName":"国网浙江杭州市富阳区供电公司","typeName":null,"infoStatusName":null,"dateDay":null,"orgNos":null,"nowTime":null,"countyName":null,"streetName":null,"villageName":null,"roadName":null,"communityName":null,"tranName":null,"sdLineName":null,"cityCode":"3340170","cityName":"国网浙江杭州市富阳区供电公司","provinceCode":null,"stopTime":"2019-07-29 11:29:50","powerType":"全部","powerOffArea":"110kV春江变:迎宾D579线-光明路2#公变后段","powerOffReason":"高压开关跳闸","powerOffId":"2019072931020029"},{"poweroffId":2019072931020012,"sgpoweroffId":null,"subsName":"","lineName":"10kV新水0466线","pubTranName":"梅林村1#变,","scope":"浙江省-杭州市-萧山区-新湾街道-共建行政村(梅林自然村,共建自然村)","startTime":"2019-07-29 09:00:00","stopDate":"2019-07-29 17:30:00","orgNo":"3340120","typeCode":"计划停电","poweroffArea":"35kV新湾变:新水0466线-梅林村1#变后段","poweroffReason":"梅林村1#变低压割接至梅林村10#变","powerTime":"2019-07-29 17:25:19","powerComm":"已送电","subsNo":"","lineNo":"","tgNo":"","tgName":null,"infoStatus":"1","orgName":"国网浙江杭州市钱塘新区供电公司","typeName":null,"infoStatusName":null,"dateDay":null,"orgNos":null,"nowTime":null,"countyName":null,"streetName":null,"villageName":null,"roadName":null,"communityName":null,"tranName":null,"sdLineName":null,"cityCode":"3340120","cityName":"国网浙江杭州市钱塘新区供电公司","provinceCode":null,"stopTime":"2019-07-29 17:30:00","powerType":"全部","powerOffArea":"35kV新湾变:新水0466线-梅林村1#变后段","powerOffReason":"梅林村1#变低压割接至梅林村10#变","powerOffId":"2019072931020012"},{"poweroffId":2019072931020006,"sgpoweroffId":null,"subsName":"","lineName":"10kV江堤D355线","pubTranName":"迎春路4号公变,","scope":"浙江省-杭州市-富阳区-富春街道-春晖社区(桂花西路,春秋北路,春秋南路,迎春路)","startTime":"2019-07-29 08:31:14","stopDate":"2019-07-29 11:00:14","orgNo":"3340170","typeCode":"电网故障停限电","poweroffArea":"110kV富鹿变:江堤D355线-迎春路4号公变开关后段","poweroffReason":"低压开关跳闸","powerTime":"2019-07-29 10:03:56","powerComm":"已送电","subsNo":"","lineNo":"","tgNo":"","tgName":null,"infoStatus":"1","orgName":"国网浙江杭州市富阳区供电公司","typeName":null,"infoStatusName":null,"dateDay":null,"orgNos":null,"nowTime":null,"countyName":null,"streetName":null,"villageName":null,"roadName":null,"communityName":null,"tranName":null,"sdLineName":null,"cityCode":"3340170","cityName":"国网浙江杭州市富阳区供电公司","provinceCode":null,"stopTime":"2019-07-29 11:00:14","powerType":"全部","powerOffArea":"110kV富鹿变:江堤D355线-迎春路4号公变开关后段","powerOffReason":"低压开关跳闸","powerOffId":"2019072931020006"},{"poweroffId":2019072931020005,"sgpoweroffId":null,"subsName":"","lineName":"10kV唐公G968线","pubTranName":"运河镇杭南村大船头公变,","scope":"浙江省-杭州市-余杭区-运河街道-杭南行政村(杭南自然村,渡船头自然村)一带","startTime":"2019-07-29 07:47:00","stopDate":"2019-07-29 10:47:00","orgNo":"3340140","typeCode":"电网故障停限电","poweroffArea":"110kV博陆变:唐公G968线-杭南村大船头后段","poweroffReason":"低压开关跳闸","powerTime":"2019-07-29 10:25:00","powerComm":"已送电","subsNo":"","lineNo":"","tgNo":"","tgName":null,"infoStatus":"1","orgName":"国网浙江杭州市余杭区供电有限公司","typeName":null,"infoStatusName":null,"dateDay":null,"orgNos":null,"nowTime":null,"countyName":null,"streetName":null,"villageName":null,"roadName":null,"communityName":null,"tranName":null,"sdLineName":null,"cityCode":"3340140","cityName":"国网浙江杭州市余杭区供电有限公司","provinceCode":null,"stopTime":"2019-07-29 10:47:00","powerType":"全部","powerOffArea":"110kV博陆变:唐公G968线-杭南村大船头后段","powerOffReason":"低压开关跳闸","powerOffId":"2019072931020005"},{"poweroffId":2019072931020004,"sgpoweroffId":null,"subsName":"","lineName":"10kV结网G079线","pubTranName":"安徽省第一建筑工程有限公司,杭州市余杭区教育资产营运管理中心,杭州华临建筑工程有限公司小林分公司,杭州余杭重大基础设施建设有限公司,结网村张车桥公变,宣杭铁路星桥车站箱变,杭州金运房地产开发有限公司,山东中宏路桥建设有限公司,2#,杭州金运房地产开发有限公司,梅林社区2号公变,杭州市余杭区教育资产营运管理中心,梅林社区5号公变,杭州市余杭区教育资产营运管理中心,小林中心小学（6120697430）1#变,浙江交工集团股份有限公司,屯里村五组,梅林社区1号公变,文英塑料,河建中心二级61200483803#变,金屋植绒,杭州金实房地产开发有限公司,利春化纤,杭州金实房地产开发有限公司,杭州金运房地产开发有限公司,山东中宏路桥建设有限公司,杭州余杭经济开发建设有限公司,山东中宏路桥建设5#基建变,万事利生物科技公司2#,杭州市余杭区河道建设管理中心,屯里村慈航桥公变,印刷厂（金宋）,梅林社区4号公变,结网村蒋夏村公变,屯里村五组2#公变,结网村五组公变,横山二级翻水站,杭州余杭轻工机械厂,杭州金运房地产开发有限公司,杭州金实房地产开发有限公司,结网村菜场2号公变,杭州金运房地产开发有限公司,小林电管站,杭州余杭区交通项目管理有限公司,杭州金实房地产开发有限公司,杭州金运房地产开发有限公司,小林中心小学（6120697430）2#变,博大建设,杭州嘉润临平供销社有限公司50配变,山东中宏路桥建设有限公司,杭州余杭区交通项目管理有限公司,杭州市余杭区教育资产营运管理中心,河建中心二级61200483802#变,杭州金实房地产开发有限公司,梅林社区3号公变,1#,杭州金实房地产开发有限公司,结网村菜场1号公变,小林邮电所,屯里村蔡婆桥,杭州恒宇绝缘材料厂100配变,屯里村1组2#公变,","scope":"浙江省-杭州市-余杭区-临平街道-庄里行政村(梅林,梅林社区),临平街道-屯里行政村(临平大道,屯里村,蔡埠桥自然村,兹行桥自然村,吴家湾自然村),经济开发区-屯里社区(临平大道,屯里自然村),临平街道-结网行政村(临平大道,结网自然村,红卫,场路,市场路,结网,会龙桥,小林,张东桥,张车桥,梅林社区),经济开发区-结网社区-结网自然村,东湖街道-经济开发区-小林行政村,临平街道-小林行政村-小林街道;东湖街道-经济开发区(杭州恒宇绝缘材料厂,浙江华临建设集团有限公司杭州第七分公司,杭州余杭轻工机械有限公司,鼎盛控股集团有限公司,杭州万事利生物科技有限公司,杭州余杭利春化纤织造有限公司,杭州余杭区河道建设管理中心,杭州市余杭区公路管理处),塘栖镇-超山行政村(杭州金运房地产开发有限公司,杭州金实房地产开发有限公司,安徽省第一建筑工程有限公司),东湖街道(钱江经济开发区社区-杭州市余杭区教育资产营运管理中心,红丰社区-杭州余杭区交通项目管理有限公司,小林社区-杭州余杭区交通项目管理有限公司),临平街道(陈家木桥社区-杭州市余杭区河道建设管理中心,小林社区-杭州嘉润临平供销社有限公司,邱山社区-中国电信股份有限公司杭州余杭区分公司,屯里行政村-杭州市余杭区河道建设管理中心,结网行政村-杭州市余杭区小林中心小学),经济开发区-小林社区-山东中宏路桥建设有限公司,塘栖镇-漳河行政村-杭州市余杭区教育资产营运管理中心,星桥街道-汤家社区-中国铁路上海局集团有限公司乔司站一带","startTime":"2019-07-29 07:11:00","stopDate":"2019-07-29 10:11:00","orgNo":"3340140","typeCode":"电网故障停限电","poweroffArea":"110kV星桥变:结网G079线","poweroffReason":"高压开关跳闸","powerTime":"2019-07-29 09:46:00","powerComm":"已送电","subsNo":"","lineNo":"","tgNo":"","tgName":null,"infoStatus":"1","orgName":"国网浙江杭州市余杭区供电有限公司","typeName":null,"infoStatusName":null,"dateDay":null,"orgNos":null,"nowTime":null,"countyName":null,"streetName":null,"villageName":null,"roadName":null,"communityName":null,"tranName":null,"sdLineName":null,"cityCode":"3340140","cityName":"国网浙江杭州市余杭区供电有限公司","provinceCode":null,"stopTime":"2019-07-29 10:11:00","powerType":"全部","powerOffArea":"110kV星桥变:结网G079线","powerOffReason":"高压开关跳闸","powerOffId":"2019072931020004"},{"poweroffId":2019072931020003,"sgpoweroffId":null,"subsName":"","lineName":"10kV胥口D712线","pubTranName":"杭州市富阳区胥口镇人民政府1#变,高联村1#刘家公变,棠棣村8#木桥头公变,浙江宏途管业有限公司,平畈村5#华家公变,海正药业2#,灵苑村2#徐家坞公变,平畈村3#潘家公变,棠棣村2#七树湾公变,棠棣村1#汪家公变,胥口集镇2#公变,元村4#洋桥头公变,新长垅村7#雪岭头公变,高联村2#白亭子公变,中国电信股份有限公司富阳分公司（胥口机房）,佛鲁村7#童家园公变,家天下玻业,金慈村3号恢塘公变,高联村10#新桥头公变,佛鲁村8#荷花塘公变,棠棣村7#麻投垅公变,高联村4#石畈公变,灵苑村3号前山公变,佛鲁村4#灵山公变,长垅村3#马坞垅公变,平畈村7#井坞里公变,佛鲁村5#菜田湾公变,高联村3#雷公里公变,长垅村1#涨地上公变,胥口村7#村委旁公变,浙江高瑞实业有限公司,高联村8#田家公变,富阳瑞丰新能源有限公司,棠棣村6#大坞公变,富阳市万基机械有限公司,平畈村1#新安岭公变,盛创实业,顶鑫建材2#变,佛鲁村3#方家桥公变,高联村6#高山公变,胥口村3#信用社公变,高联村7#小垄坎公变,平畈村8#高凸上公变,胥口村6#联建房公变,杭州永基混凝土,长垅村6#倪家弄公变,平畈村4#王家公变,杭州富阳神怡工艺品有限公司,富阳美丽华洁具有限公司1#,顶鑫建材1#变,富阳东顺钢结构有限公司,佛鲁村6#陆家公变,长垅村5#牌坊垅公变,棠棣村3#下板公变,里坞村6#水坞公变,佛鲁村1#勇家公变,杭州冠思五金制造有限公司,富阳美丽华洁具有限公司,方圆塑机1#变,灵苑村1#灵安公变,棠棣村4#朱家坞公变变压器,高坪石材1#变,里坞村4#杨家公变,棠棣村5#桥头公变,佛鲁村2#石灰厂公变,神宇五金,高联村9#徐家公变,胥口村5#徐家山公变变压器,胥口村1号刘家坟头公变,杭新水泥制品,高联村5#黄泥岭公变,富阳美丽华洁具有限公司2#,永兴机械厂,富阳市胥口镇人民政府,元村村6#村委边公变,胥口村2#马家山公变,元村11#农居点公变,长垅村2#谢家公变,长垅村4#陈家公变,平畈村2#黄岭上公变,富阳市胥口镇新宇石材厂,平畈村6#对过公变,海正药业1#,","scope":"浙江省-杭州市-富阳区-胥口镇-佛鲁行政村(陆家山自然村,菜田湾自然村,童家园自然村,灵山自然村,方家桥自然村,陆家自然村,石灰厂自然村,勇家自然村,荷花塘自然村),胥口镇-胥口行政村(刘家坟头自然村,胥口自然村,马家山自然村,泥塍头自然村,信用社自然村),胥口镇-高联行政村(小垄坎自然村,高山自然村,雷公里自然村,新桥头自然村,石畈自然村,徐家自然村,刘家自然村,白亭子自然村,黄泥岭自然村,田家自然村,周家自然村),胥口镇-里坞行政村(杨家自然村,水坞自然村),胥口镇-灵苑行政村(灵苑自然村,徐家坞自然村,灵安自然村,前山自然村),新登镇-元村行政村(外滩自然村,潭山头自然村,元村自然村,阴山自然村,大塔地自然村),胥口镇-棠棣行政村(汪家自然村,七树湾自然村,朱家坞自然村,大坞自然村,下板自然村,新桥头自然村,麻头垅自然村),新登镇-长垄行政村(鲍家岭自然村,柿山上自然村,涨地上自然村,谢家垄自然村,渔池寺自然村,谢家自然村,胡家自然村,马坞垄自然村,泥家垄自然村,牌坊垄自然村,小长垄自然村,岙子里自然村,梅树坞自然村,麻栗树下自然村,畈洋里自然村,白虎岭自然村,雪岭头自然村),胥口镇-平畈行政村(高凸上自然村,新安岭自然村,黄岭上自然村,王家自然村,华家自然村,井坞里自然村,潘家自然村,对过自然村),胥口镇(金慈行政村-灰塘自然村,上练行政村-洗马潭自然村);胥口镇(杭州天骄电缆科技股份有限公司,杭州富阳鸿杰电器有限公司,杭州冠思五金制造有限公司,中国电信股份有限公司富阳分公司,杭州富阳区胥口镇新宇石材厂,杭州盛创实业有限公司,杭州建豪环保设备有限公司,杭州永基混凝土有限公司,杭州神宇五金工艺有限公司,海正药业（杭州）有限公司,杭州富阳区胥口镇新力石材厂,浙江高瑞实业有限公司,杭州富阳东顺钢结构有限公司,富阳市胥口镇人民政府,杭州方圆塑机股份有限公司,杭州富阳高坪石材有限公司,杭州顶鑫建材有限公司,杭州市富阳区胥口镇人民政府),新登镇(杭州富阳家天下玻业有限公司,杭州富阳瑞丰新能源有限公司,杭州富阳美丽华洁具有限公司,杭州富阳方恒塑机有限公司)","startTime":"2019-07-29 05:10:00","stopDate":"2019-07-29 07:10:00","orgNo":"3340170","typeCode":"电网故障停限电","poweroffArea":"110kV松溪变:胥口D712线胥口D7124开关后段","poweroffReason":"高压开关跳闸","powerTime":"2019-07-29 06:50:27","powerComm":"已送电","subsNo":"","lineNo":"","tgNo":"","tgName":null,"infoStatus":"1","orgName":"国网浙江杭州市富阳区供电公司","typeName":null,"infoStatusName":null,"dateDay":null,"orgNos":null,"nowTime":null,"countyName":null,"streetName":null,"villageName":null,"roadName":null,"communityName":null,"tranName":null,"sdLineName":null,"cityCode":"3340170","cityName":"国网浙江杭州市富阳区供电公司","provinceCode":null,"stopTime":"2019-07-29 07:10:00","powerType":"全部","powerOffArea":"110kV松溪变:胥口D712线胥口D7124开关后段","powerOffReason":"高压开关跳闸","powerOffId":"2019072931020003"},{"poweroffId":2019072931020002,"sgpoweroffId":null,"subsName":"","lineName":"10kV永立G270线","pubTranName":"栅庄桥村车里公变,","scope":"浙江省-杭州市-余杭区-仁和街道-栅庄桥行政村(木克桥自然村,唐家湾自然村,车里自然村,河口埭自然村)一带","startTime":"2019-07-29 03:42:43","stopDate":"2019-07-29 06:00:00","orgNo":"3340140","typeCode":"电网故障停限电","poweroffArea":"110kV仁镇变:永立G270线-栅庄桥村车里公变后段","poweroffReason":"永立G270线-栅庄桥村车里公变后段故障","powerTime":"2019-07-29 05:47:12","powerComm":"已送电","subsNo":"","lineNo":"","tgNo":"","tgName":null,"infoStatus":"1","orgName":"国网浙江杭州市余杭区供电有限公司","typeName":null,"infoStatusName":null,"dateDay":null,"orgNos":null,"nowTime":null,"countyName":null,"streetName":null,"villageName":null,"roadName":null,"communityName":null,"tranName":null,"sdLineName":null,"cityCode":"3340140","cityName":"国网浙江杭州市余杭区供电有限公司","provinceCode":null,"stopTime":"2019-07-29 06:00:00","powerType":"全部","powerOffArea":"110kV仁镇变:永立G270线-栅庄桥村车里公变后段","powerOffReason":"永立G270线-栅庄桥村车里公变后段故障","powerOffId":"2019072931020002"},{"poweroffId":2019072931020001,"sgpoweroffId":null,"subsName":"","lineName":"10kV周扬7017线","pubTranName":"天星苑5号公变,","scope":"浙江省-杭州市-余杭区-星桥街道-星都社区-广厦天都城小区天星苑一带","startTime":"2019-07-29 03:14:00","stopDate":"2019-07-29 04:00:00","orgNo":"3340140","typeCode":"电网故障停限电","poweroffArea":"110kV锦唐变:周扬7017线-天星苑5号公变后段","poweroffReason":"周扬7017线-天星苑5号公变后段高压开关跳闸，原停电结束时间6：30，变更停电时间结束原因：因现场故障已提前处理完毕","powerTime":"2019-07-29 03:41:46","powerComm":"已送电","subsNo":"","lineNo":"","tgNo":"","tgName":null,"infoStatus":"1","orgName":"国网浙江杭州市余杭区供电有限公司","typeName":null,"infoStatusName":null,"dateDay":null,"orgNos":null,"nowTime":null,"countyName":null,"streetName":null,"villageName":null,"roadName":null,"communityName":null,"tranName":null,"sdLineName":null,"cityCode":"3340140","cityName":"国网浙江杭州市余杭区供电有限公司","provinceCode":null,"stopTime":"2019-07-29 04:00:00","powerType":"全部","powerOffArea":"110kV锦唐变:周扬7017线-天星苑5号公变后段","powerOffReason":"周扬7017线-天星苑5号公变后段高压开关跳闸，原停电结束时间6：30，变更停电时间结束原因：因现场故障已提前处理完毕","powerOffId":"2019072931020001"},{"poweroffId":2019072931010311,"sgpoweroffId":null,"subsName":"","lineName":"10kV金西T263线","pubTranName":"大丰1号公变,","scope":"浙江省-杭州市-桐庐县-城南街道(大丰行政村-大丰自然村、里汪自然村、毛家自然村);","startTime":"2019-07-29 23:22:10","stopDate":"2019-07-30 07:30:04","orgNo":"3340150","typeCode":"电网故障停限电","poweroffArea":"35kV三合变:金西T263线-大丰1号公变后段","poweroffReason":"（低压停电信息）低压开关故障","powerTime":"2019-07-30 07:02:11","powerComm":"已送电。","subsNo":"","lineNo":"","tgNo":"","tgName":null,"infoStatus":"1","orgName":"国网浙江桐庐县供电公司","typeName":null,"infoStatusName":null,"dateDay":null,"orgNos":null,"nowTime":null,"countyName":null,"streetName":null,"villageName":null,"roadName":null,"communityName":null,"tranName":null,"sdLineName":null,"cityCode":"3340150","cityName":"国网浙江桐庐县供电公司","provinceCode":null,"stopTime":"2019-07-30 07:30:04","powerType":"全部","powerOffArea":"35kV三合变:金西T263线-大丰1号公变后段","powerOffReason":"（低压停电信息）低压开关故障","powerOffId":"2019072931010311"},{"poweroffId":2019072931010307,"sgpoweroffId":null,"subsName":"","lineName":"10kV上喻T570线","pubTranName":"仁智江家1号公变,","scope":"浙江省-杭州市-桐庐县-城南街道(仁智行政村-江家自然村、石墙里自然村、西坞里自然村);","startTime":"2019-07-29 22:56:32","stopDate":"2019-07-30 00:30:14","orgNo":"3340150","typeCode":"电网故障停限电","poweroffArea":"110kV旺家变:上喻T570线-仁智江家1号公变后段","poweroffReason":"（低压停电信息）低压开关故障","powerTime":"2019-07-30 00:15:33","powerComm":"已送电","subsNo":"","lineNo":"","tgNo":"","tgName":null,"infoStatus":"1","orgName":"国网浙江桐庐县供电公司","typeName":null,"infoStatusName":null,"dateDay":null,"orgNos":null,"nowTime":null,"countyName":null,"streetName":null,"villageName":null,"roadName":null,"communityName":null,"tranName":null,"sdLineName":null,"cityCode":"3340150","cityName":"国网浙江桐庐县供电公司","provinceCode":null,"stopTime":"2019-07-30 00:30:14","powerType":"全部","powerOffArea":"110kV旺家变:上喻T570线-仁智江家1号公变后段","powerOffReason":"（低压停电信息）低压开关故障","powerOffId":"2019072931010307"}],"pageModel":{"pageNow":1360,"totalCount":17789,"totalPage":1779,"tableRows":0,"pageCount":10,"beginCount":13590},"isExperi":"1"}