{"message":"","today":"2020-06-15","seleList":[{"poweroffId":2020051931020283,"sgpoweroffId":null,"subsName":"","lineName":"10kV蒋家D408线","pubTranName":"蒋家村16号富棉公变,","scope":"浙江省-杭州市-富阳区-鹿山街道-南山行政村-晖山自然村,鹿山街道-蒋家行政村(中心路,阳光路,青春路,环厂路,蒋家自然村,徐家路,最光路)","startTime":"2020-05-21 08:30:00","stopDate":"2020-05-21 17:00:00","orgNo":"3340170","typeCode":"临时停电","poweroffArea":"110kV长春变:蒋家D408线-蒋家村16号富棉公变后段","poweroffReason":"(低压停电信息)中铁十二局集团有限公司湖杭铁路项目经理部三分部线路迁改工程：低压配合停电等工作","powerTime":"2020-05-21 16:50:21","powerComm":"已送电","subsNo":"","lineNo":"","tgNo":"","tgName":null,"infoStatus":"1","orgName":"国网浙江杭州市富阳区供电公司","typeName":null,"infoStatusName":null,"dateDay":null,"orgNos":null,"nowTime":null,"countyName":null,"streetName":null,"villageName":null,"roadName":null,"communityName":null,"tranName":null,"sdLineName":null,"cityCode":"3340170","cityName":"国网浙江杭州市富阳区供电公司","provinceCode":null,"stopTime":"2020-05-21 17:00:00","powerType":"全部","powerOffArea":"110kV长春变:蒋家D408线-蒋家村16号富棉公变后段","powerOffReason":"(低压停电信息)中铁十二局集团有限公司湖杭铁路项目经理部三分部线路迁改工程：低压配合停电等工作","powerOffId":"2020051931020283"},{"poweroffId":2020051931020280,"sgpoweroffId":null,"subsName":"","lineName":"10kV帝景356线","pubTranName":"新和村15#变,","scope":"浙江省-杭州市-萧山区-河庄街道-新和行政村-新和自然村","startTime":"2020-05-21 09:00:00","stopDate":"2020-05-21 11:00:00","orgNo":"3340120","typeCode":"临时停电","poweroffArea":"110kV河庄变:帝景356线-新和村15#变后段","poweroffReason":"帝凯801线69#杆带电拆头\" 原停电结束时间为2020-05-21 13:30:00,为减少客户停电时间,加快工作进度,提前送电,现变更停电结束时间为2020-05-21 11:00:00","powerTime":"2020-05-21 10:17:12","powerComm":"已送电","subsNo":"","lineNo":"","tgNo":"","tgName":null,"infoStatus":"1","orgName":"国网浙江杭州市钱塘新区供电公司","typeName":null,"infoStatusName":null,"dateDay":null,"orgNos":null,"nowTime":null,"countyName":null,"streetName":null,"villageName":null,"roadName":null,"communityName":null,"tranName":null,"sdLineName":null,"cityCode":"3340120","cityName":"国网浙江杭州市钱塘新区供电公司","provinceCode":null,"stopTime":"2020-05-21 11:00:00","powerType":"全部","powerOffArea":"110kV河庄变:帝景356线-新和村15#变后段","powerOffReason":"帝凯801线69#杆带电拆头\" 原停电结束时间为2020-05-21 13:30:00,为减少客户停电时间,加快工作进度,提前送电,现变更停电结束时间为2020-05-21 11:00:00","powerOffId":"2020051931020280"},{"poweroffId":2020051931020274,"sgpoweroffId":null,"subsName":"","lineName":"10kV兴旺D558线","pubTranName":"巨利村5#龙舌里公变,","scope":"浙江省-杭州市-富阳区-富春街道-巨利社区老年文体中心一带","startTime":"2020-05-21 08:30:00","stopDate":"2020-05-21 10:40:00","orgNo":"3340170","typeCode":"临时停电","poweroffArea":"110kV春江变:兴旺D558线-巨利村5#龙舌里公变后段","poweroffReason":"(低压停电信息)巨利村5#龙舌里公变1#开关1#出线-1#空开巨利社区老年文体中心安装（巨利村股份经济合作社6620138650）三相表1只及安装搭接工作。","powerTime":"2020-05-21 10:30:25","powerComm":"已送电","subsNo":"","lineNo":"","tgNo":"","tgName":null,"infoStatus":"1","orgName":"国网浙江杭州市富阳区供电公司","typeName":null,"infoStatusName":null,"dateDay":null,"orgNos":null,"nowTime":null,"countyName":null,"streetName":null,"villageName":null,"roadName":null,"communityName":null,"tranName":null,"sdLineName":null,"cityCode":"3340170","cityName":"国网浙江杭州市富阳区供电公司","provinceCode":null,"stopTime":"2020-05-21 10:40:00","powerType":"全部","powerOffArea":"110kV春江变:兴旺D558线-巨利村5#龙舌里公变后段","powerOffReason":"(低压停电信息)巨利村5#龙舌里公变1#开关1#出线-1#空开巨利社区老年文体中心安装（巨利村股份经济合作社6620138650）三相表1只及安装搭接工作。","powerOffId":"2020051931020274"},{"poweroffId":2020051931020272,"sgpoweroffId":null,"subsName":"","lineName":"10kV百岁T168线","pubTranName":"全坞村新蓬4号公变,全坞村巧坞3号公变,","scope":"浙江省-杭州市-桐庐县-瑶琳镇-百岁行政村-全坞自然村","startTime":"2020-05-19 15:17:00","stopDate":"2020-05-19 18:17:00","orgNo":"3340150","typeCode":"电网故障停限电","poweroffArea":"35kV瑶琳变:百岁T168线新蓬F6089令克后段","poweroffReason":"高压开关跳闸","powerTime":"2020-05-19 18:01:15","powerComm":"已送电","subsNo":"","lineNo":"","tgNo":"","tgName":null,"infoStatus":"1","orgName":"国网浙江桐庐县供电公司","typeName":null,"infoStatusName":null,"dateDay":null,"orgNos":null,"nowTime":null,"countyName":null,"streetName":null,"villageName":null,"roadName":null,"communityName":null,"tranName":null,"sdLineName":null,"cityCode":"3340150","cityName":"国网浙江桐庐县供电公司","provinceCode":null,"stopTime":"2020-05-19 18:17:00","powerType":"全部","powerOffArea":"35kV瑶琳变:百岁T168线新蓬F6089令克后段","powerOffReason":"高压开关跳闸","powerOffId":"2020051931020272"},{"poweroffId":2020051931020241,"sgpoweroffId":null,"subsName":"","lineName":"10kV樱花9168线","pubTranName":"新西湖花园一变,","scope":"浙江省-杭州市-西湖区-转塘街道-五云梦湖社区-之江路27幢、28幢、29幢、30幢、31幢。","startTime":"2020-05-27 09:00:00","stopDate":"2020-05-27 17:00:00","orgNo":"3340101","typeCode":"计划停电","poweroffArea":"110kV象山变:樱花9168线-新西湖花园一变后段","poweroffReason":"(低压停电信息)新西湖花园小区A区29幢表计移表","powerTime":"2020-05-27 16:05:47","powerComm":"已送电","subsNo":"","lineNo":"","tgNo":"","tgName":null,"infoStatus":"1","orgName":"浙江杭州电力客户服务中心","typeName":null,"infoStatusName":null,"dateDay":null,"orgNos":null,"nowTime":null,"countyName":null,"streetName":null,"villageName":null,"roadName":null,"communityName":null,"tranName":null,"sdLineName":null,"cityCode":"3340101","cityName":"浙江杭州电力客户服务中心","provinceCode":null,"stopTime":"2020-05-27 17:00:00","powerType":"全部","powerOffArea":"110kV象山变:樱花9168线-新西湖花园一变后段","powerOffReason":"(低压停电信息)新西湖花园小区A区29幢表计移表","powerOffId":"2020051931020241"},{"poweroffId":2020051931020240,"sgpoweroffId":null,"subsName":"","lineName":"10kV钱农C681线","pubTranName":"同兴村3#变,","scope":"浙江省-杭州市-萧山区-新街镇-新街街道-同兴行政村-同兴自然村等","startTime":"2020-05-19 14:30:39","stopDate":"2020-05-19 18:35:39","orgNo":"3340130","typeCode":"电网故障停限电","poweroffArea":"110kV新街变:钱农C681线-同兴3#变台区低压开关","poweroffReason":"（低压停电信息）低压漏电保护器跳闸 原停电结束时间为2020-05-19 17:30:39,因抢修难度增大原因,延迟送电,现变更停电结束时间为2020-05-19 18:35:39","powerTime":"2020-05-19 17:38:17","powerComm":"已送电","subsNo":"","lineNo":"","tgNo":"","tgName":null,"infoStatus":"1","orgName":"国网浙江杭州市萧山区供电有限公司","typeName":null,"infoStatusName":null,"dateDay":null,"orgNos":null,"nowTime":null,"countyName":null,"streetName":null,"villageName":null,"roadName":null,"communityName":null,"tranName":null,"sdLineName":null,"cityCode":"3340130","cityName":"国网浙江杭州市萧山区供电有限公司","provinceCode":null,"stopTime":"2020-05-19 18:35:39","powerType":"全部","powerOffArea":"110kV新街变:钱农C681线-同兴3#变台区低压开关","powerOffReason":"（低压停电信息）低压漏电保护器跳闸 原停电结束时间为2020-05-19 17:30:39,因抢修难度增大原因,延迟送电,现变更停电结束时间为2020-05-19 18:35:39","powerOffId":"2020051931020240"},{"poweroffId":2020051931020224,"sgpoweroffId":null,"subsName":"","lineName":"10kV太新6487线","pubTranName":"景东一变,","scope":"浙江省-杭州市-江干区-凯旋街道(景芳社区-新塘路,景湖社区-新塘路)","startTime":"2020-05-19 13:51:00","stopDate":"2020-05-19 14:51:00","orgNo":"3340101","typeCode":"电网故障停限电","poweroffArea":"110kV五福变:太新6487线景东一变配变","poweroffReason":"高压开关跳闸 原停电结束时间为2020-05-19 16:51:00,为减少客户停电时间,加快工作进度,提前送电,现变更停电结束时间为2020-05-19 14:51:00","powerTime":"2020-05-19 14:17:41","powerComm":"已送电","subsNo":"","lineNo":"","tgNo":"","tgName":null,"infoStatus":"1","orgName":"浙江杭州电力客户服务中心","typeName":null,"infoStatusName":null,"dateDay":null,"orgNos":null,"nowTime":null,"countyName":null,"streetName":null,"villageName":null,"roadName":null,"communityName":null,"tranName":null,"sdLineName":null,"cityCode":"3340101","cityName":"浙江杭州电力客户服务中心","provinceCode":null,"stopTime":"2020-05-19 14:51:00","powerType":"全部","powerOffArea":"110kV五福变:太新6487线景东一变配变","powerOffReason":"高压开关跳闸 原停电结束时间为2020-05-19 16:51:00,为减少客户停电时间,加快工作进度,提前送电,现变更停电结束时间为2020-05-19 14:51:00","powerOffId":"2020051931020224"},{"poweroffId":2020051931020213,"sgpoweroffId":null,"subsName":"","lineName":"10kV乘庄D702线","pubTranName":"松溪村松溪1#新街公变,松溪村松溪4号赤坎坞公变,","scope":"浙江省-杭州市-富阳区-新登镇-松溪行政村(军堰自然村,松溪自然村)","startTime":"2020-05-19 13:15:40","stopDate":"2020-05-19 15:30:40","orgNo":"3340170","typeCode":"电网故障停限电","poweroffArea":"110kV松溪变:乘庄D702线-松溪村松溪4号赤坎坞公变后段;乘庄D702线-松溪村松溪1#新街公变后段","poweroffReason":"高压开关跳闸","powerTime":"2020-05-19 15:15:49","powerComm":"已送电","subsNo":"","lineNo":"","tgNo":"","tgName":null,"infoStatus":"1","orgName":"国网浙江杭州市富阳区供电公司","typeName":null,"infoStatusName":null,"dateDay":null,"orgNos":null,"nowTime":null,"countyName":null,"streetName":null,"villageName":null,"roadName":null,"communityName":null,"tranName":null,"sdLineName":null,"cityCode":"3340170","cityName":"国网浙江杭州市富阳区供电公司","provinceCode":null,"stopTime":"2020-05-19 15:30:40","powerType":"全部","powerOffArea":"110kV松溪变:乘庄D702线-松溪村松溪4号赤坎坞公变后段;乘庄D702线-松溪村松溪1#新街公变后段","powerOffReason":"高压开关跳闸","powerOffId":"2020051931020213"},{"poweroffId":2020051931020202,"sgpoweroffId":null,"subsName":"","lineName":"10kV振华C786线","pubTranName":"三岔路村16#变,三岔路村20#变,1#变,三岔路村13#变,杭州萧山兴丰废旧物资回收有限公司,振宏商品混凝土变压器,杭州萧山万华塑料制品厂1#,三岔路村21#变,杭州宸龙实业有限公司,杭州萧山建康化纤织物整理厂,孙家弄村2#变,张神殿村7#变,张神殿村2#变,1#变,东社村6#变,张神殿村10#变,三岔路村19#变,杭州佐奇机械有限公司,张神殿村1#变,杭州邻家医联投资管理有限公司2#,凤凰印染印花厂,三岔路村18#变,三岔路村7#变,孙家弄村5#变,杭州迈特汽车配件有限公司2#,浙江波皇装饰材料有限公司,三岔路村5#变,杭州萧山钱江化肥厂,张神殿村6#变,张神殿村11#变,杭州萧山立丰塑料五金厂,三岔路村9#变,杭州利登精工机械有限公司,孙家弄村16#变,杭州萧山东南电缆塑料有限公司,三岔路村17#变,杭州明光印染化工有限公司,三岔路村12#变,杭州宇佳工艺布厂,张神殿村4#变,杭州萧山兴鑫塑料电器厂变压器,杭州明光印染化工有限公司,三岔路村22#变,三岔路村6#变,三岔路村23#变,三岔路村25#变,三岔路村8#变,三岔路村15#变,杭州尧兴废旧金属回收有限公司,萧山管道二分厂,三岔路村3#变,东社村4#变,杭州傢鹤家居制品有限公司,三岔路村11#变,三岔路村14#变,杭州迈特汽车配件有限公司,1#变,国庆村3#变,杭州萧山金峰油脂化工厂,东社村5#变,国庆村1#变,杭州坎山电镀有限公司,张神殿村8#变,杭州邻家医联投资管理有限公司1#,杭州欧诗曼五金有限公司,","scope":"浙江省-杭州市-萧山区-瓜沥镇-三岔路行政村(三岔路自然村,北塘东路,光靖路,河西北路,小庵湾路),瓜沥镇-孙家弄行政村(建设四路,众安路,孙家弄自然村,北塘东路),瓜沥镇-张神殿行政村(张神殿自然村,北塘东路,建新路),瓜沥镇-东社行政村(东社自然村,建设四路,河西中路,北塘东路,红星路),瓜沥镇-国庆行政村(北塘河东路,北塘东路,国庆自然村,,紫新路,清陈路),瓜沥镇-新港行政村(新港自然村,光靖路),瓜沥镇-下街社区(草庵弄,下街,北塘东路);瓜沥镇(杭州迈特汽车配件有限公司,杭州萧山立丰塑料五金厂,杭州萧山建康化纤织物整理厂,杭州坎山电镀有限公司,杭州利登精工机械有限公司,杭州萧山第五化工厂,杭州萧山东南电缆塑料有限公司,杭州明光印染化工有限公司,凤凰印染印花厂,杭州振宏商品混凝土有限公司,杭州尧兴废旧金属回收有限公司,萧山管道二分厂,杭州宇佳工艺布厂,杭州萧山钱江化肥厂,杭州萧山兴鑫塑料电器厂,浙江波皇装饰材料有限公司,杭州佐奇机械有限公司,杭州欧诗曼五金有限公司,杭州宸龙实业有限公司,杭州立明电工器材有限公司,杭州万华塑料制品有限公司,杭州萧峰新材料有限公司,杭州傢鹤家居制品有限公司,杭州萧山兴丰废旧物资回收有限公司,杭州萧山邻家联合医院有限公司,中铁二局集团有限公司)等","startTime":"2020-05-19 12:10:00","stopDate":"2020-05-19 14:15:00","orgNo":"3340130","typeCode":"电网故障停限电","poweroffArea":"35kV坎山变:振华C786线振华C7861开关后段","poweroffReason":"高压柱上断路器跳闸 原停电结束时间为2020-05-19 15:09:00,为减少客户停电时间,加快工作进度,提前送电,现变更停电结束时间为2020-05-19 14:15:00","powerTime":"2020-05-19 13:35:24","powerComm":"已送电","subsNo":"","lineNo":"","tgNo":"","tgName":null,"infoStatus":"1","orgName":"国网浙江杭州市萧山区供电有限公司","typeName":null,"infoStatusName":null,"dateDay":null,"orgNos":null,"nowTime":null,"countyName":null,"streetName":null,"villageName":null,"roadName":null,"communityName":null,"tranName":null,"sdLineName":null,"cityCode":"3340130","cityName":"国网浙江杭州市萧山区供电有限公司","provinceCode":null,"stopTime":"2020-05-19 14:15:00","powerType":"全部","powerOffArea":"35kV坎山变:振华C786线振华C7861开关后段","powerOffReason":"高压柱上断路器跳闸 原停电结束时间为2020-05-19 15:09:00,为减少客户停电时间,加快工作进度,提前送电,现变更停电结束时间为2020-05-19 14:15:00","powerOffId":"2020051931020202"},{"poweroffId":2020051931020197,"sgpoweroffId":null,"subsName":"","lineName":"10kV解放6005线","pubTranName":"莫邪南村二变,","scope":"浙江省-杭州市-上城区-望江街道-莫邪塘社区-秋涛路一弄","startTime":"2020-05-19 11:33:00","stopDate":"2020-05-19 14:23:00","orgNo":"3340101","typeCode":"电网故障停限电","poweroffArea":"110kV望江变:解放6005线莫邪南村二变莫邪南村二变配变","poweroffReason":"高压开关跳闸 原停电结束时间为2020-05-19 13:33:00,因现场环境复杂原因,延迟送电,现变更停电结束时间为2020-05-19 14:23:00","powerTime":"2020-05-19 13:35:26","powerComm":"已送电","subsNo":"","lineNo":"","tgNo":"","tgName":null,"infoStatus":"1","orgName":"浙江杭州电力客户服务中心","typeName":null,"infoStatusName":null,"dateDay":null,"orgNos":null,"nowTime":null,"countyName":null,"streetName":null,"villageName":null,"roadName":null,"communityName":null,"tranName":null,"sdLineName":null,"cityCode":"3340101","cityName":"浙江杭州电力客户服务中心","provinceCode":null,"stopTime":"2020-05-19 14:23:00","powerType":"全部","powerOffArea":"110kV望江变:解放6005线莫邪南村二变莫邪南村二变配变","powerOffReason":"高压开关跳闸 原停电结束时间为2020-05-19 13:33:00,因现场环境复杂原因,延迟送电,现变更停电结束时间为2020-05-19 14:23:00","powerOffId":"2020051931020197"}],"pageModel":{"pageNow":137,"totalCount":17786,"totalPage":1779,"tableRows":0,"pageCount":10,"beginCount":1360},"isExperi":"1"}