{"message":"","today":"2020-06-15","seleList":[{"poweroffId":2020061231020031,"sgpoweroffId":null,"subsName":"","lineName":"10kV天荣C937线","pubTranName":"杭州华利尔实业有限公司,1#变,1#变,杭州华尔利化纤有限公司,群力村7#变,杭州康利达卫浴有限公司,杭州斯亚卫浴有限公司,群益村11#变,杭州振铭实业有限公司1#,杭州康利达卫浴有限公司,群力村13#变,车路湾村5#变,杭州托福洁具有限公司,群益村14#变,杭州恒钢金属表面处理厂,","scope":"浙江省-杭州市-萧山区-瓜沥镇-车路湾行政村(车安路,车路湾自然村),瓜沥镇(群益行政村-群益自然村,群力行政村-群力自然村);瓜沥镇(杭州建冠塑业有限公司,杭州康利达卫浴有限公司,杭州振铭实业有限公司,浙江竤伟集团有限公司,杭州华利尔实业有限公司,杭州恒钢金属表面处理厂,杭州华尔利化纤有限公司,杭州俊马塑业有限公司)","startTime":"2020-06-12 07:38:00","stopDate":"2020-06-12 10:10:00","orgNo":"3340130","typeCode":"电网故障停限电","poweroffArea":"110kV党山变:天荣C937线天荣C937线开关后段","poweroffReason":"高压开关跳闸 原停电结束时间为2020-06-12 10:38:00,为减少客户停电时间,加快工作进度,提前送电,现变更停电结束时间为2020-06-12 10:10:00","powerTime":"2020-06-12 09:20:52","powerComm":"已送电","subsNo":"","lineNo":"","tgNo":"","tgName":null,"infoStatus":"1","orgName":"国网浙江杭州市萧山区供电有限公司","typeName":null,"infoStatusName":null,"dateDay":null,"orgNos":null,"nowTime":null,"countyName":null,"streetName":null,"villageName":null,"roadName":null,"communityName":null,"tranName":null,"sdLineName":null,"cityCode":"3340130","cityName":"国网浙江杭州市萧山区供电有限公司","provinceCode":null,"stopTime":"2020-06-12 10:10:00","powerType":"全部","powerOffArea":"110kV党山变:天荣C937线天荣C937线开关后段","powerOffReason":"高压开关跳闸 原停电结束时间为2020-06-12 10:38:00,为减少客户停电时间,加快工作进度,提前送电,现变更停电结束时间为2020-06-12 10:10:00","powerOffId":"2020061231020031"},{"poweroffId":2020061231020016,"sgpoweroffId":null,"subsName":"","lineName":"10kV潭山D711线","pubTranName":"元村13号大塔地西站公变变压器,","scope":"浙江省-杭州市-富阳区-新登镇-塔山行政村-城北自然村,新登镇-元村行政村(三山自然村,潭山头自然村,大塔地自然村)","startTime":"2020-06-12 05:51:44","stopDate":"2020-06-12 07:51:44","orgNo":"3340170","typeCode":"电网故障停限电","poweroffArea":"110kV松溪变:潭山D711线-元村13号大塔地西站公变变压器后段","poweroffReason":"(低压停电信息)低压开关跳闸","powerTime":"2020-06-12 07:36:54","powerComm":"已送电","subsNo":"","lineNo":"","tgNo":"","tgName":null,"infoStatus":"1","orgName":"国网浙江杭州市富阳区供电公司","typeName":null,"infoStatusName":null,"dateDay":null,"orgNos":null,"nowTime":null,"countyName":null,"streetName":null,"villageName":null,"roadName":null,"communityName":null,"tranName":null,"sdLineName":null,"cityCode":"3340170","cityName":"国网浙江杭州市富阳区供电公司","provinceCode":null,"stopTime":"2020-06-12 07:51:44","powerType":"全部","powerOffArea":"110kV松溪变:潭山D711线-元村13号大塔地西站公变变压器后段","powerOffReason":"(低压停电信息)低压开关跳闸","powerOffId":"2020061231020016"},{"poweroffId":2020061231020005,"sgpoweroffId":null,"subsName":"","lineName":"10kV深澳T251线","pubTranName":"西坞村1号公变,","scope":"浙江省-杭州市-桐庐县-江南镇-西坞村","startTime":"2020-06-12 02:34:24","stopDate":"2020-06-12 08:00:24","orgNo":"3340150","typeCode":"电网故障停限电","poweroffArea":"110kV石阜变:深澳T251线-西坞村1号公变后段","poweroffReason":"高压开关跳闸","powerTime":"2020-06-12 07:40:29","powerComm":"已送电","subsNo":"","lineNo":"","tgNo":"","tgName":null,"infoStatus":"1","orgName":"国网浙江桐庐县供电公司","typeName":null,"infoStatusName":null,"dateDay":null,"orgNos":null,"nowTime":null,"countyName":null,"streetName":null,"villageName":null,"roadName":null,"communityName":null,"tranName":null,"sdLineName":null,"cityCode":"3340150","cityName":"国网浙江桐庐县供电公司","provinceCode":null,"stopTime":"2020-06-12 08:00:24","powerType":"全部","powerOffArea":"110kV石阜变:深澳T251线-西坞村1号公变后段","powerOffReason":"高压开关跳闸","powerOffId":"2020061231020005"},{"poweroffId":2020061231020003,"sgpoweroffId":null,"subsName":"","lineName":"10kV古城Y683线","pubTranName":"郎家村郎家台区,","scope":"浙江省-杭州市-建德市-大同镇-郎家行政村-郎家自然村","startTime":"2020-06-12 00:40:00","stopDate":"2020-06-12 02:30:00","orgNo":"3340180","typeCode":"电网故障停限电","poweroffArea":"110kV大同变:古城Y683线-郎家村郎家台区后段","poweroffReason":"(低压停电信息)低压开关跳闸","powerTime":"2020-06-12 01:38:05","powerComm":"已送电","subsNo":"","lineNo":"","tgNo":"","tgName":null,"infoStatus":"1","orgName":"国网浙江建德市供电有限公司","typeName":null,"infoStatusName":null,"dateDay":null,"orgNos":null,"nowTime":null,"countyName":null,"streetName":null,"villageName":null,"roadName":null,"communityName":null,"tranName":null,"sdLineName":null,"cityCode":"3340180","cityName":"国网浙江建德市供电有限公司","provinceCode":null,"stopTime":"2020-06-12 02:30:00","powerType":"全部","powerOffArea":"110kV大同变:古城Y683线-郎家村郎家台区后段","powerOffReason":"(低压停电信息)低压开关跳闸","powerOffId":"2020061231020003"},{"poweroffId":2020061131020638,"sgpoweroffId":null,"subsName":"","lineName":"10kV汉塘T312线","pubTranName":"石墙里1号公变,","scope":"浙江省-杭州市-桐庐县-城南街道-东兴行政村-尹家自然村,城南街道-仁智行政村(仁智戴家自然村,石墙里自然村,仁智自然村)","startTime":"2020-06-11 21:49:50","stopDate":"2020-06-11 23:49:50","orgNo":"3340150","typeCode":"电网故障停限电","poweroffArea":"110kV洋洲变:汉塘T312线-石墙里1号公变后段","poweroffReason":"(低压停电信息)低压开关跳闸","powerTime":"2020-06-11 23:30:22","powerComm":"已送电","subsNo":"","lineNo":"","tgNo":"","tgName":null,"infoStatus":"1","orgName":"国网浙江桐庐县供电公司","typeName":null,"infoStatusName":null,"dateDay":null,"orgNos":null,"nowTime":null,"countyName":null,"streetName":null,"villageName":null,"roadName":null,"communityName":null,"tranName":null,"sdLineName":null,"cityCode":"3340150","cityName":"国网浙江桐庐县供电公司","provinceCode":null,"stopTime":"2020-06-11 23:49:50","powerType":"全部","powerOffArea":"110kV洋洲变:汉塘T312线-石墙里1号公变后段","powerOffReason":"(低压停电信息)低压开关跳闸","powerOffId":"2020061131020638"},{"poweroffId":2020061131020627,"sgpoweroffId":null,"subsName":"","lineName":"10kV新叶Y341线","pubTranName":"上吴方村小塘边台区,","scope":"浙江省-杭州市-建德市-大慈岩镇-里叶行政村-里叶自然村,大慈岩镇-上吴方行政村(上吴方自然村,小塘边自然村)","startTime":"2020-06-11 21:20:00","stopDate":"2020-06-11 23:10:00","orgNo":"3340180","typeCode":"电网故障停限电","poweroffArea":"110kV慈岩变:新叶Y341线-上吴方村小塘边台区后段","poweroffReason":"(低压停电信息)低压开关跳闸","powerTime":"2020-06-11 22:44:14","powerComm":"已送电","subsNo":"","lineNo":"","tgNo":"","tgName":null,"infoStatus":"1","orgName":"国网浙江建德市供电有限公司","typeName":null,"infoStatusName":null,"dateDay":null,"orgNos":null,"nowTime":null,"countyName":null,"streetName":null,"villageName":null,"roadName":null,"communityName":null,"tranName":null,"sdLineName":null,"cityCode":"3340180","cityName":"国网浙江建德市供电有限公司","provinceCode":null,"stopTime":"2020-06-11 23:10:00","powerType":"全部","powerOffArea":"110kV慈岩变:新叶Y341线-上吴方村小塘边台区后段","powerOffReason":"(低压停电信息)低压开关跳闸","powerOffId":"2020061131020627"},{"poweroffId":2020061131020625,"sgpoweroffId":null,"subsName":"","lineName":"10kV状元D417线","pubTranName":"汤家埠3#南山公变,","scope":"浙江省-杭州市-富阳区-鹿山街道-南山行政村-栋山村自然村,鹿山街道-汤家埠行政村(南山自然村,汤家埠自然村)","startTime":"2020-06-11 21:08:29","stopDate":"2020-06-11 22:08:29","orgNo":"3340170","typeCode":"电网故障停限电","poweroffArea":"110kV长春变:状元D417线-汤家埠3#南山公变后段","poweroffReason":"(低压停电信息)低压开关跳闸","powerTime":"2020-06-11 21:59:00","powerComm":"已送电","subsNo":"","lineNo":"","tgNo":"","tgName":null,"infoStatus":"1","orgName":"国网浙江杭州市富阳区供电公司","typeName":null,"infoStatusName":null,"dateDay":null,"orgNos":null,"nowTime":null,"countyName":null,"streetName":null,"villageName":null,"roadName":null,"communityName":null,"tranName":null,"sdLineName":null,"cityCode":"3340170","cityName":"国网浙江杭州市富阳区供电公司","provinceCode":null,"stopTime":"2020-06-11 22:08:29","powerType":"全部","powerOffArea":"110kV长春变:状元D417线-汤家埠3#南山公变后段","powerOffReason":"(低压停电信息)低压开关跳闸","powerOffId":"2020061131020625"},{"poweroffId":2020061131020621,"sgpoweroffId":null,"subsName":"","lineName":"10kV传芳C254线","pubTranName":"杭州恒涛塑料包装有限公司#1主变,杭州恒涛塑料包装有限公司#2主变,","scope":"浙江省-杭州市-萧山区-所前镇-杭州恒涛塑料包装有限公司","startTime":"2020-06-11 20:49:16","stopDate":"2020-06-11 22:30:16","orgNo":"3340130","typeCode":"电网故障停限电","poweroffArea":"110kV所前变:传芳C254线恒涛塑料开关（自）后段","poweroffReason":"高压开关跳闸 原停电结束时间为2020-06-11 23:49:16,为减少客户停电时间,加快工作进度,提前送电,现变更停电结束时间为2020-06-11 22:30:16","powerTime":"2020-06-11 21:51:52","powerComm":"已送电","subsNo":"","lineNo":"","tgNo":"","tgName":null,"infoStatus":"1","orgName":"国网浙江杭州市萧山区供电有限公司","typeName":null,"infoStatusName":null,"dateDay":null,"orgNos":null,"nowTime":null,"countyName":null,"streetName":null,"villageName":null,"roadName":null,"communityName":null,"tranName":null,"sdLineName":null,"cityCode":"3340130","cityName":"国网浙江杭州市萧山区供电有限公司","provinceCode":null,"stopTime":"2020-06-11 22:30:16","powerType":"全部","powerOffArea":"110kV所前变:传芳C254线恒涛塑料开关（自）后段","powerOffReason":"高压开关跳闸 原停电结束时间为2020-06-11 23:49:16,为减少客户停电时间,加快工作进度,提前送电,现变更停电结束时间为2020-06-11 22:30:16","powerOffId":"2020061131020621"},{"poweroffId":2020061131020617,"sgpoweroffId":null,"subsName":"","lineName":"10kV河西6731线","pubTranName":"友谊三,","scope":"浙江省-杭州市-西湖区-北山街道(友谊社区-西溪路,沿山河社区-西溪路,松木场社区-铁路新村)","startTime":"2020-06-11 20:33:28","stopDate":"2020-06-11 21:42:28","orgNo":"3340101","typeCode":"电网故障停限电","poweroffArea":"110kV黄体变:河西6731线-友谊三后段","poweroffReason":"高压开关跳闸 原停电结束时间为2020-06-11 22:33:28,为减少客户停电时间,加快工作进度,提前送电,现变更停电结束时间为2020-06-11 21:42:28","powerTime":"2020-06-11 21:07:57","powerComm":"已送电","subsNo":"","lineNo":"","tgNo":"","tgName":null,"infoStatus":"1","orgName":"浙江杭州电力客户服务中心","typeName":null,"infoStatusName":null,"dateDay":null,"orgNos":null,"nowTime":null,"countyName":null,"streetName":null,"villageName":null,"roadName":null,"communityName":null,"tranName":null,"sdLineName":null,"cityCode":"3340101","cityName":"浙江杭州电力客户服务中心","provinceCode":null,"stopTime":"2020-06-11 21:42:28","powerType":"全部","powerOffArea":"110kV黄体变:河西6731线-友谊三后段","powerOffReason":"高压开关跳闸 原停电结束时间为2020-06-11 22:33:28,为减少客户停电时间,加快工作进度,提前送电,现变更停电结束时间为2020-06-11 21:42:28","powerOffId":"2020061131020617"},{"poweroffId":2020061131020602,"sgpoweroffId":null,"subsName":"","lineName":"10kV富湾T401线","pubTranName":"金溪移民村1号公变,","scope":"浙江省-杭州市-桐庐县-城南街道-金溪行政村-乌枫塘自然村（潘家村）","startTime":"2020-06-11 20:11:01","stopDate":"2020-06-11 22:11:01","orgNo":"3340150","typeCode":"电网故障停限电","poweroffArea":"110kV枫塘变:富湾T401线-金溪移民村1号公变后段","poweroffReason":"(低压停电信息)低压开关跳闸","powerTime":"2020-06-11 22:00:16","powerComm":"已送电","subsNo":"","lineNo":"","tgNo":"","tgName":null,"infoStatus":"1","orgName":"国网浙江桐庐县供电公司","typeName":null,"infoStatusName":null,"dateDay":null,"orgNos":null,"nowTime":null,"countyName":null,"streetName":null,"villageName":null,"roadName":null,"communityName":null,"tranName":null,"sdLineName":null,"cityCode":"3340150","cityName":"国网浙江桐庐县供电公司","provinceCode":null,"stopTime":"2020-06-11 22:11:01","powerType":"全部","powerOffArea":"110kV枫塘变:富湾T401线-金溪移民村1号公变后段","powerOffReason":"(低压停电信息)低压开关跳闸","powerOffId":"2020061131020602"}],"pageModel":{"pageNow":13,"totalCount":17786,"totalPage":1779,"tableRows":0,"pageCount":10,"beginCount":120},"isExperi":"1"}