{"message":"","today":"2020-06-16","seleList":[{"poweroffId":2019072931010030,"sgpoweroffId":null,"subsName":"","lineName":"10kV白路T316线","pubTranName":"桑园2号公变,","scope":"浙江省-杭州市-桐庐县-城南街道(桑园行政村-桑园里自然村、姚家自然村);","startTime":"2019-07-29 06:50:50","stopDate":"2019-07-29 08:30:10","orgNo":"3340150","typeCode":"电网故障停限电","poweroffArea":"110kV洋洲变:白路T316线-桑园2号公变后段","poweroffReason":"（低压停电信息）低压开关烧。","powerTime":"2019-07-29 08:22:22","powerComm":"已送电","subsNo":"","lineNo":"","tgNo":"","tgName":null,"infoStatus":"1","orgName":"国网浙江桐庐县供电公司","typeName":null,"infoStatusName":null,"dateDay":null,"orgNos":null,"nowTime":null,"countyName":null,"streetName":null,"villageName":null,"roadName":null,"communityName":null,"tranName":null,"sdLineName":null,"cityCode":"3340150","cityName":"国网浙江桐庐县供电公司","provinceCode":null,"stopTime":"2019-07-29 08:30:10","powerType":"全部","powerOffArea":"110kV洋洲变:白路T316线-桑园2号公变后段","powerOffReason":"（低压停电信息）低压开关烧。","powerOffId":"2019072931010030"},{"poweroffId":2019072931010029,"sgpoweroffId":null,"subsName":"","lineName":"10kV白路T316线","pubTranName":"桑园2号公变,","scope":"浙江省-杭州市-桐庐县-城南街道(桑园行政村-桑园里自然村、姚家自然村);","startTime":"2019-07-29 06:50:52","stopDate":"2019-07-29 08:30:38","orgNo":"3340150","typeCode":"电网故障停限电","poweroffArea":"110kV洋洲变:白路T316线-桑园2号公变后段","poweroffReason":"（低压停电信息）低压开关故障","powerTime":"2019-07-29 08:20:28","powerComm":"已送电","subsNo":"","lineNo":"","tgNo":"","tgName":null,"infoStatus":"1","orgName":"国网浙江桐庐县供电公司","typeName":null,"infoStatusName":null,"dateDay":null,"orgNos":null,"nowTime":null,"countyName":null,"streetName":null,"villageName":null,"roadName":null,"communityName":null,"tranName":null,"sdLineName":null,"cityCode":"3340150","cityName":"国网浙江桐庐县供电公司","provinceCode":null,"stopTime":"2019-07-29 08:30:38","powerType":"全部","powerOffArea":"110kV洋洲变:白路T316线-桑园2号公变后段","powerOffReason":"（低压停电信息）低压开关故障","powerOffId":"2019072931010029"},{"poweroffId":2019072931010019,"sgpoweroffId":null,"subsName":"","lineName":"10kV新联C039线","pubTranName":"新联村3#变,波琳五金,浦南村4#变,杭州市公安局萧山区分局,浦南制钉,伟量制衣,杭州萧山浦阳江建设开发有限公司2#,浦二村1#变,杭州宝塔电力器材有限公司,杨家磨料,浦南村5#变,临浦镇新港村11#变,杭州成发鞋业有限公司,临浦镇新港村3#变,临浦镇新港村7#变,浦南村7#变,浦南卫生院,浦二村10#变,新联村5#变,杭州市萧山区农业科学技术研究所,临浦镇新港村1#变,临浦镇新港村4#变,杭州启晨医疗器械厂,新联村8#变,江南苑2#变,浦南村9#变,杭州萧山浦阳江建设开发有限公司,杭州斯万投资管理有限公司,杭州市萧山区临浦镇人民政府,新联村12#变,临浦镇新港村5#变,江南苑1#变,临浦镇政府-快速通道-新联路灯,临浦镇新港村6#变,侨亿德衬布,临浦镇政府-快速通道-新港路灯,南江村2#变,南江村4#变,杭州萧山机动车辆安全技术检测有限公司,新联村2#变,江南苑3#变,浦二村7#变,中球冠集团杭州萧山临浦新联加油站有限公司,杭州萧山浦阳江建设开发有限公司,南江村1#变,虎祥铸造,新联村4#变,浦二村2#变,华联塑胶,杭州斯万投资管理有限公司,浦南村11#变,临浦镇新港村8#变,临浦镇政府-快速通道-浦南路灯,南江村3#变,浦南村10#变,悍马涂料,南江村5#变,杭黄铁路站前Ⅲ标项目二分部,杭州萧山浦阳江建设开发有限公司,浦南村8#变,杭州诚德发电设备有限公司,飞龙制罐,新联村11#变,雄风实业,临浦镇新港村9#变,浦南村6#变,新联村10#变,临浦管业,临浦镇新港村2#变,浙疏,杭州萧山浦阳江建设开发有限公司,江南苑4#变,杭州市萧山区临浦镇人民政府,浦二村4#变,新联村1#变,1#,浦南村12#变,","scope":"浙江省-杭州市-萧山区-临浦镇(南江行政村-桥头王自然村、西塘黄自然村、张家坂自然村、张家畈自然村,浦二行政村-后韩自然村、蒲山韩自然村、戚家里自然村、桥里自然村,浦南行政村-里吕家沿自然村、麻车倪自然村、门家塘自然村、外吕家沿自然村、文家塘自然村、坂里朱自然村,新港行政村-串心塘自然村、渡船埠自然村、洪家里自然村、李家池自然村、茅潭自然村、桥南自然村、上茅潭自然村、塘外自然村、中茅潭自然村,新联行政村-顾家埭自然村、水埠自然村、塘头钟自然村、新联自然村、杨家自然村、岙山何自然村,张家畈行政村-南秀苑小区、永翔路);(杭州宝塔电力器材有限公司,杭州波琳五金有限公司,杭州成发鞋业有限公司,杭州诚德发电设备有限公司,杭州悍马涂料玻璃有限公司,杭州临浦管业有限公司,杭州启晨医疗器械厂,杭州侨亿德衬布有限公司,杭州市公安局萧山区分局交通警察大队,杭州市萧山区临浦镇人民政府,杭州市萧山区临浦镇社区卫生服务中心,杭州市萧山区农业科学技术研究所,杭州斯万投资管理有限公司,杭州伟量制衣有限公司,杭州萧山飞龙印铁制罐有限公司,杭州萧山华联塑胶有限公司,杭州萧山机动车辆安全技术检测有限公司,杭州萧山临浦新联加油站有限公司,杭州萧山浦南制钉厂,杭州萧山浦阳江建设开发有限公司,杭州萧山雄风实业有限公司,杭州萧山杨家磨料磨具有限公司,杭州众瑞机械有限公司,浙疏一队,中铁二十四局集团贵溪桥梁厂有限公司萧山制梁场)等一带","startTime":"2019-07-29 05:59:32","stopDate":"2019-07-29 06:59:18","orgNo":"3340130","typeCode":"电网故障停限电","poweroffArea":"35kV浦南临时变:新联C039线-新联C0391开关后段","poweroffReason":"环网倒闸需临时停电","powerTime":"2019-07-29 06:31:08","powerComm":"已送电","subsNo":"","lineNo":"","tgNo":"","tgName":null,"infoStatus":"1","orgName":"国网浙江杭州市萧山区供电有限公司","typeName":null,"infoStatusName":null,"dateDay":null,"orgNos":null,"nowTime":null,"countyName":null,"streetName":null,"villageName":null,"roadName":null,"communityName":null,"tranName":null,"sdLineName":null,"cityCode":"3340130","cityName":"国网浙江杭州市萧山区供电有限公司","provinceCode":null,"stopTime":"2019-07-29 06:59:18","powerType":"全部","powerOffArea":"35kV浦南临时变:新联C039线-新联C0391开关后段","powerOffReason":"环网倒闸需临时停电","powerOffId":"2019072931010019"},{"poweroffId":2019072931010011,"sgpoweroffId":null,"subsName":"","lineName":"10kV新联C039线","pubTranName":"临浦镇新港村6#变,江南苑3#变,临浦镇新港村2#变,浦二村7#变,侨亿德衬布,南江村5#变,新联村4#变,江南苑4#变,华联塑胶,杨家磨料,浦南村7#变,1#,新联村11#变,杭州斯万投资管理有限公司,杭州启晨医疗器械厂,新联村1#变,浦南村8#变,杭州诚德发电设备有限公司,临浦镇新港村5#变,临浦镇新港村8#变,浦南村10#变,杭州萧山浦阳江建设开发有限公司,浦南村12#变,浦二村1#变,新联村12#变,新联村3#变,悍马涂料,浦二村10#变,浦南制钉,虎祥铸造,江南苑1#变,临浦镇新港村11#变,杭州宝塔电力器材有限公司,杭州萧山浦阳江建设开发有限公司,临浦镇新港村9#变,雄风实业,新联村2#变,杭州市萧山区临浦镇人民政府,杭州成发鞋业有限公司,浦二村4#变,杭州市萧山区临浦镇人民政府,杭州萧山机动车辆安全技术检测有限公司,浦南村4#变,江南苑2#变,中球冠集团杭州萧山临浦新联加油站有限公司,南江村3#变,杭州斯万投资管理有限公司,杭州萧山浦阳江建设开发有限公司,新联村5#变,杭州萧山浦阳江建设开发有限公司,飞龙制罐,临浦镇政府-快速通道-浦南路灯,南江村1#变,临浦镇新港村1#变,临浦镇政府-快速通道-新联路灯,浦二村2#变,临浦镇政府-快速通道-新港路灯,浦南卫生院,临浦镇新港村4#变,临浦管业,浦南村5#变,杭州市萧山区农业科学技术研究所,杭州市公安局萧山区分局,南江村2#变,新联村10#变,临浦镇新港村3#变,杭黄铁路站前Ⅲ标项目二分部,杭州萧山浦阳江建设开发有限公司2#,临浦镇新港村7#变,新联村8#变,南江村4#变,浦南村9#变,浦南村11#变,浦南村6#变,浙疏,伟量制衣,波琳五金,","scope":"浙江省-杭州市-萧山区-临浦镇(南江行政村-桥头王自然村、西塘黄自然村、张家坂自然村、张家畈自然村,浦二行政村-后韩自然村、蒲山韩自然村、戚家里自然村、桥里自然村,浦南行政村-里吕家沿自然村、麻车倪自然村、门家塘自然村、外吕家沿自然村、文家塘自然村、坂里朱自然村,新港行政村-串心塘自然村、渡船埠自然村、洪家里自然村、李家池自然村、茅潭自然村、桥南自然村、上茅潭自然村、塘外自然村、中茅潭自然村,新联行政村-顾家埭自然村、水埠自然村、塘头钟自然村、新联自然村、杨家自然村、岙山何自然村,张家畈行政村-南秀苑小区、永翔路);(杭州宝塔电力器材有限公司,杭州波琳五金有限公司,杭州成发鞋业有限公司,杭州诚德发电设备有限公司,杭州悍马涂料玻璃有限公司,杭州临浦管业有限公司,杭州启晨医疗器械厂,杭州侨亿德衬布有限公司,杭州市公安局萧山区分局交通警察大队,杭州市萧山区临浦镇人民政府,杭州市萧山区临浦镇社区卫生服务中心,杭州市萧山区农业科学技术研究所,杭州斯万投资管理有限公司,杭州伟量制衣有限公司,杭州萧山飞龙印铁制罐有限公司,杭州萧山华联塑胶有限公司,杭州萧山机动车辆安全技术检测有限公司,杭州萧山临浦新联加油站有限公司,杭州萧山浦南制钉厂,杭州萧山浦阳江建设开发有限公司,杭州萧山雄风实业有限公司,杭州萧山杨家磨料磨具有限公司,杭州众瑞机械有限公司,浙疏一队,中铁二十四局集团贵溪桥梁厂有限公司萧山制梁场)，浙江省杭州市萧山区林浦镇浦二村桥里村，浙江省杭州市萧山区临浦镇新联村，浙江省杭州市萧山区临浦镇新联村杨家，浙江省杭州市萧山区临浦镇水埠村，浙江省杭州市萧山区临浦镇浦南村，浙江省杭州市萧山区临浦镇南江村194，浙江省杭州市萧山区临浦镇浦南行政村麻车村五组38号，浙江省杭州市萧山区临浦镇新联村新联加油站，浙江省杭州市萧山区临浦镇浦南村坂里朱自然村，浙江省杭州市萧山区临浦镇浦二行政村1，浙江省杭州市萧山区临浦镇新港行政村塘外自然村8号，浙江省杭州市萧山区临浦镇南江村，浙江省杭州市萧山区临浦镇浦南村文家塘，浙江省杭州市萧山区临浦镇浦南村，浙江省杭州市萧山区临浦镇桥南村，浙江省杭州市萧山区临浦镇新联行政村新联新区12号，浙江省杭州市萧山区临浦镇浦南行政村麻车倪自然村仲根，浙江省杭州市萧山区临浦镇南秀苑，浙江省杭州市萧山区临浦镇南江行政村系堂皇32号坂自然村迪芳等一带","startTime":"2019-07-29 00:51:06","stopDate":"2019-07-29 03:40:17","orgNo":"3340130","typeCode":"电网故障停限电","poweroffArea":"35kV浦南临时变:新联C039线-新联C0391开关后段","poweroffReason":"高压柱上断路器短路故障 原停电结束时间：2019-07-29 05:00，变更停电结束时间：2019-07-29 03:40，由于施工准备充分，故需要提前送电。","powerTime":"2019-07-29 02:53:18","powerComm":"已送电","subsNo":"","lineNo":"","tgNo":"","tgName":null,"infoStatus":"1","orgName":"国网浙江杭州市萧山区供电有限公司","typeName":null,"infoStatusName":null,"dateDay":null,"orgNos":null,"nowTime":null,"countyName":null,"streetName":null,"villageName":null,"roadName":null,"communityName":null,"tranName":null,"sdLineName":null,"cityCode":"3340130","cityName":"国网浙江杭州市萧山区供电有限公司","provinceCode":null,"stopTime":"2019-07-29 03:40:17","powerType":"全部","powerOffArea":"35kV浦南临时变:新联C039线-新联C0391开关后段","powerOffReason":"高压柱上断路器短路故障 原停电结束时间：2019-07-29 05:00，变更停电结束时间：2019-07-29 03:40，由于施工准备充分，故需要提前送电。","powerOffId":"2019072931010011"},{"poweroffId":2019072931010006,"sgpoweroffId":null,"subsName":"","lineName":"10kV前塘C225线","pubTranName":"塘里陈社区5#变,","scope":"浙江省-杭州市-萧山区-新塘街道(塘里陈社区-塘里陈自然村)一带","startTime":"2019-07-29 00:35:57","stopDate":"2019-07-29 02:00:58","orgNo":"3340130","typeCode":"电网故障停限电","poweroffArea":"110kV霞江变:前塘C225线-塘里陈社区5#变台区低压开关","poweroffReason":"（低压停电信息）低压断路器短路故障 原停电结束时间：2019-07-29 03:30:04，变更停电结束时间：2019-07-29 02:00:58，由于增派人员，抢修提前完成，故需要提前送电。","powerTime":"2019-07-29 01:39:44","powerComm":"已送电","subsNo":"","lineNo":"","tgNo":"","tgName":null,"infoStatus":"1","orgName":"国网浙江杭州市萧山区供电有限公司","typeName":null,"infoStatusName":null,"dateDay":null,"orgNos":null,"nowTime":null,"countyName":null,"streetName":null,"villageName":null,"roadName":null,"communityName":null,"tranName":null,"sdLineName":null,"cityCode":"3340130","cityName":"国网浙江杭州市萧山区供电有限公司","provinceCode":null,"stopTime":"2019-07-29 02:00:58","powerType":"全部","powerOffArea":"110kV霞江变:前塘C225线-塘里陈社区5#变台区低压开关","powerOffReason":"（低压停电信息）低压断路器短路故障 原停电结束时间：2019-07-29 03:30:04，变更停电结束时间：2019-07-29 02:00:58，由于增派人员，抢修提前完成，故需要提前送电。","powerOffId":"2019072931010006"},{"poweroffId":2019072831020039,"sgpoweroffId":null,"subsName":"","lineName":"10kV里山D921线","pubTranName":"红光村1#上桥头公变,","scope":"浙江省-杭州市-富阳区-里山镇-里山行政村-红光自然村","startTime":"2019-07-28 19:41:33","stopDate":"2019-07-28 20:41:33","orgNo":"3340170","typeCode":"电网故障停限电","poweroffArea":"110kV里渔变:里山D921线-红光村1#上桥头公变后段","poweroffReason":"高压开关跳闸","powerTime":"2019-07-28 20:05:56","powerComm":"已送电","subsNo":"","lineNo":"","tgNo":"","tgName":null,"infoStatus":"1","orgName":"国网浙江杭州市富阳区供电公司","typeName":null,"infoStatusName":null,"dateDay":null,"orgNos":null,"nowTime":null,"countyName":null,"streetName":null,"villageName":null,"roadName":null,"communityName":null,"tranName":null,"sdLineName":null,"cityCode":"3340170","cityName":"国网浙江杭州市富阳区供电公司","provinceCode":null,"stopTime":"2019-07-28 20:41:33","powerType":"全部","powerOffArea":"110kV里渔变:里山D921线-红光村1#上桥头公变后段","powerOffReason":"高压开关跳闸","powerOffId":"2019072831020039"},{"poweroffId":2019072831020037,"sgpoweroffId":null,"subsName":"","lineName":"10kV长征G032线","pubTranName":"运河镇戚家桥村屠家湾公变,","scope":"浙江省-杭州市-余杭区-运河街道-戚家桥行政村戚家桥自然村,戚家桥,郎家斗,郎家斗自然村一带","startTime":"2019-07-28 18:23:00","stopDate":"2019-07-28 21:23:00","orgNo":"3340140","typeCode":"电网故障停限电","poweroffArea":"110kV五杭变:长征G032线-运河镇戚家桥村屠家湾公变后段","poweroffReason":"运河镇戚家桥村屠家湾公变后段低压架空线断线故障","powerTime":"2019-07-28 21:00:00","powerComm":"已送电","subsNo":"","lineNo":"","tgNo":"","tgName":null,"infoStatus":"1","orgName":"国网浙江杭州市余杭区供电有限公司","typeName":null,"infoStatusName":null,"dateDay":null,"orgNos":null,"nowTime":null,"countyName":null,"streetName":null,"villageName":null,"roadName":null,"communityName":null,"tranName":null,"sdLineName":null,"cityCode":"3340140","cityName":"国网浙江杭州市余杭区供电有限公司","provinceCode":null,"stopTime":"2019-07-28 21:23:00","powerType":"全部","powerOffArea":"110kV五杭变:长征G032线-运河镇戚家桥村屠家湾公变后段","powerOffReason":"运河镇戚家桥村屠家湾公变后段低压架空线断线故障","powerOffId":"2019072831020037"},{"poweroffId":2019072831020036,"sgpoweroffId":null,"subsName":"","lineName":"10kV绍鲁V502线","pubTranName":"10kV光明村[畔山村]公变,中国电信股份有限公司临安分公司,10kV观山村[秋村条石岭]公变,10kV绍鲁村[绍鲁村潭里]公变,10kV观山村[秋村]公变,杭州迪佳纺织有限公司,10kV后渚村[鹤村口]公变,杭州莱噢食品有限公司,10kV光明村[敖干百花潭]公变,绍鲁电站,10kV光明村[畔山村前山]公变,杭州临安金叶灭蚊制品有限公司,临安永顺金属拉丝制品厂,10kV光明村[畔山村上畔]公变,10kV田干村[绍鲁乡康坞]公变,10kV田干村[康坞水竹坞]公变,10kV田干村[田干康坞口]公变,杭州天睦机械制造有限公司,临安百花通信电缆有限公司,临安市绍鲁水电有限公司,杭州天睦机械制造有限公司,10kV后渚村[鹤村村]公变,10kV光明村[敖干村企业]公变,","scope":"浙江省-杭州市-临安市-於潜镇-田干行政村(康坞自然村,田干自然村),於潜镇-后渚行政村(鹤村自然村,后渚自然村),於潜镇-光明行政村(敖干自然村,光明自然村,畔山自然村),於潜镇(观山行政村-秋村自然村,绍鲁行政村-绍鲁自然村);於潜镇(中国电信股份有限公司临安分公司,杭州临安绍鲁水电有限公司,杭州临安永顺金属拉丝制品厂,临安百花通信电缆有限公司,杭州天睦机械制造有限公司,杭州迪佳纺织有限公司,临安市双子通讯材料有限公司,杭州临安金叶灭蚊制品有限公司)","startTime":"2019-07-28 17:20:00","stopDate":"2019-07-28 21:20:00","orgNo":"3340160","typeCode":"电网故障停限电","poweroffArea":"110kV於潜变:绍鲁V502线5022开关后段","poweroffReason":"高压开关跳闸","powerTime":"2019-07-28 21:01:00","powerComm":"已送电","subsNo":"","lineNo":"","tgNo":"","tgName":null,"infoStatus":"1","orgName":"国网浙江临安市供电公司","typeName":null,"infoStatusName":null,"dateDay":null,"orgNos":null,"nowTime":null,"countyName":null,"streetName":null,"villageName":null,"roadName":null,"communityName":null,"tranName":null,"sdLineName":null,"cityCode":"3340160","cityName":"国网浙江临安市供电公司","provinceCode":null,"stopTime":"2019-07-28 21:20:00","powerType":"全部","powerOffArea":"110kV於潜变:绍鲁V502线5022开关后段","powerOffReason":"高压开关跳闸","powerOffId":"2019072831020036"},{"poweroffId":2019072831020035,"sgpoweroffId":null,"subsName":"","lineName":"10kV振东H875线","pubTranName":"玉诚印务612013283702#专变,杭子木业,新生线路板,诺瓦特伦1#,诺瓦特伦2#,三竹科技,三竹科技,杭州蕴腾,","scope":"浙江省-杭州市-余杭区-中泰街道-石鸽社区(诺瓦特伦（杭州）电子有限公司,杭州联荣电子科技有限公司,浙江三竹科技有限公司,杭州杭子木业有限公司,杭州玉诚印务有限公司一带","startTime":"2019-07-28 17:00:00","stopDate":"2019-07-28 19:20:00","orgNo":"3340140","typeCode":"电网故障停限电","poweroffArea":"110kV中泰变:振东H875线-振东H875线5#分支箱分线开关后段","poweroffReason":"振东H875线5#分支箱分线开关后段高压架空线断线故障","powerTime":"2019-07-28 18:52:00","powerComm":"已送电","subsNo":"","lineNo":"","tgNo":"","tgName":null,"infoStatus":"1","orgName":"国网浙江杭州市余杭区供电有限公司","typeName":null,"infoStatusName":null,"dateDay":null,"orgNos":null,"nowTime":null,"countyName":null,"streetName":null,"villageName":null,"roadName":null,"communityName":null,"tranName":null,"sdLineName":null,"cityCode":"3340140","cityName":"国网浙江杭州市余杭区供电有限公司","provinceCode":null,"stopTime":"2019-07-28 19:20:00","powerType":"全部","powerOffArea":"110kV中泰变:振东H875线-振东H875线5#分支箱分线开关后段","powerOffReason":"振东H875线5#分支箱分线开关后段高压架空线断线故障","powerOffId":"2019072831020035"},{"poweroffId":2019072831020034,"sgpoweroffId":null,"subsName":"","lineName":"10kV长征G032线","pubTranName":"运河镇戚家桥村屠家湾公变,","scope":"浙江省-杭州市-余杭区-运河街道-戚家桥行政村戚家桥自然村,戚家桥,郎家斗,郎家斗自然村一带","startTime":"2019-07-28 16:37:00","stopDate":"2019-07-28 18:37:00","orgNo":"3340140","typeCode":"电网故障停限电","poweroffArea":"110kV五杭变:长征G032线运河镇戚家桥村屠家湾公变配变","poweroffReason":"运河镇戚家桥村屠家湾公变配变挖机触碰低压导线引起断线故障","powerTime":"2019-07-28 18:22:00","powerComm":"已修复送电","subsNo":"","lineNo":"","tgNo":"","tgName":null,"infoStatus":"1","orgName":"国网浙江杭州市余杭区供电有限公司","typeName":null,"infoStatusName":null,"dateDay":null,"orgNos":null,"nowTime":null,"countyName":null,"streetName":null,"villageName":null,"roadName":null,"communityName":null,"tranName":null,"sdLineName":null,"cityCode":"3340140","cityName":"国网浙江杭州市余杭区供电有限公司","provinceCode":null,"stopTime":"2019-07-28 18:37:00","powerType":"全部","powerOffArea":"110kV五杭变:长征G032线运河镇戚家桥村屠家湾公变配变","powerOffReason":"运河镇戚家桥村屠家湾公变配变挖机触碰低压导线引起断线故障","powerOffId":"2019072831020034"}],"pageModel":{"pageNow":1363,"totalCount":17789,"totalPage":1779,"tableRows":0,"pageCount":10,"beginCount":13620},"isExperi":"1"}