{"message":"","today":"2020-06-16","seleList":[{"poweroffId":2019072831010303,"sgpoweroffId":null,"subsName":"","lineName":"10kV富丽C115线","pubTranName":"绿都花园公变,万向城市花园业主委员会,丽都公寓2#公变,杭州湘宝湖大酒店有限公司,燕子里社区公变,高田村5#公变,香江大厦S2专变,万向城市花园1#公变,香江大厦1#公变,香江大厦S1专变,高田村6#公变,富丽公变,香江大厦2#公变,鞋厂公变,杭州市萧山地方税务局城厢税务一分局,丽都公寓1#公变,富丽花园公变,万向城市花园2#公变,潇湘公寓公变,杭州明华置业有限公司1#,高田村7#公变,萧山供电局专变（空调）,潇湘公寓2#公变,","scope":"浙江省-杭州市-萧山区-北干街道(高田社区-萧绍路),城厢街道(江寺社区-江寺路、金家桥路、文化路、萧绍路,梅花楼社区-萧绍路,西河路社区-萧绍路,燕子河社区-北干山南路、杭发厂宿舍小区、萧绍路);(国家税务总局杭州市萧山区税务局,国网浙江杭州市萧山区供电公司,杭州明华置业有限公司,杭州湘宝湖大酒店有限公司,万向城市花园业主委员会)富丽花园等一带","startTime":"2019-07-28 23:38:41","stopDate":"2019-07-29 01:59:09","orgNo":"3340130","typeCode":"电网故障停限电","poweroffArea":"110kV丽都变:富丽C115线开关后段","poweroffReason":"高压柱上断路器短路故障","powerTime":"2019-07-29 01:07:32","powerComm":"已送电","subsNo":"","lineNo":"","tgNo":"","tgName":null,"infoStatus":"1","orgName":"国网浙江杭州市萧山区供电有限公司","typeName":null,"infoStatusName":null,"dateDay":null,"orgNos":null,"nowTime":null,"countyName":null,"streetName":null,"villageName":null,"roadName":null,"communityName":null,"tranName":null,"sdLineName":null,"cityCode":"3340130","cityName":"国网浙江杭州市萧山区供电有限公司","provinceCode":null,"stopTime":"2019-07-29 01:59:09","powerType":"全部","powerOffArea":"110kV丽都变:富丽C115线开关后段","powerOffReason":"高压柱上断路器短路故障","powerOffId":"2019072831010303"},{"poweroffId":2019072831010287,"sgpoweroffId":null,"subsName":"","lineName":"10kV建新A190线","pubTranName":"湘东村4#变,","scope":"浙江省-杭州市-萧山区-义桥镇(湘东行政村-建新自然村、戚家山下自然村);浙江省杭州市萧山区义桥镇湘东村见新片新农村79号、浙江省杭州市萧山区义桥镇湘东村新农村56号等一带","startTime":"2019-07-28 22:38:17","stopDate":"2019-07-29 01:00:04","orgNo":"3340130","typeCode":"电网故障停限电","poweroffArea":"110kV群建变:建新A190线-湘东村4#变台区低压开关","poweroffReason":"（低压停电信息）低压熔断器短路故障 原停电结束时间：2019-07-29 04:49，变更停电结束时间：2019-07-29 01:00，由于增派人员，抢修提前完成，故需要提前送电。","powerTime":"2019-07-29 00:09:04","powerComm":"已送电","subsNo":"","lineNo":"","tgNo":"","tgName":null,"infoStatus":"1","orgName":"国网浙江杭州市萧山区供电有限公司","typeName":null,"infoStatusName":null,"dateDay":null,"orgNos":null,"nowTime":null,"countyName":null,"streetName":null,"villageName":null,"roadName":null,"communityName":null,"tranName":null,"sdLineName":null,"cityCode":"3340130","cityName":"国网浙江杭州市萧山区供电有限公司","provinceCode":null,"stopTime":"2019-07-29 01:00:04","powerType":"全部","powerOffArea":"110kV群建变:建新A190线-湘东村4#变台区低压开关","powerOffReason":"（低压停电信息）低压熔断器短路故障 原停电结束时间：2019-07-29 04:49，变更停电结束时间：2019-07-29 01:00，由于增派人员，抢修提前完成，故需要提前送电。","powerOffId":"2019072831010287"},{"poweroffId":2019072831010284,"sgpoweroffId":null,"subsName":"","lineName":"10kV上喻T570线","pubTranName":"桥外1号公变,","scope":"浙江省-杭州市-桐庐县-城南街道(岩桥行政村-桥外自然村、岩桥自然村);连桥桥爱村、岩桥行政村桥外自然村二组","startTime":"2019-07-28 22:38:52","stopDate":"2019-07-28 23:55:35","orgNo":"3340150","typeCode":"电网故障停限电","poweroffArea":"110kV旺家变:上喻T570线-桥外1号公变后段","poweroffReason":"（低压停电信息）低压开关故障","powerTime":"2019-07-28 23:50:20","powerComm":"已送电。","subsNo":"","lineNo":"","tgNo":"","tgName":null,"infoStatus":"1","orgName":"国网浙江桐庐县供电公司","typeName":null,"infoStatusName":null,"dateDay":null,"orgNos":null,"nowTime":null,"countyName":null,"streetName":null,"villageName":null,"roadName":null,"communityName":null,"tranName":null,"sdLineName":null,"cityCode":"3340150","cityName":"国网浙江桐庐县供电公司","provinceCode":null,"stopTime":"2019-07-28 23:55:35","powerType":"全部","powerOffArea":"110kV旺家变:上喻T570线-桥外1号公变后段","powerOffReason":"（低压停电信息）低压开关故障","powerOffId":"2019072831010284"},{"poweroffId":2019072831010283,"sgpoweroffId":null,"subsName":"","lineName":"10kV靖镇A325线","pubTranName":"小石桥村7#变,","scope":"浙江省-杭州市-萧山区-靖江街道小石桥社区、申达路、伟神路、靖江街道靖江镇政府西面伟神路附近一带","startTime":"2019-07-28 22:01:53","stopDate":"2019-07-28 23:55:01","orgNo":"3340130","typeCode":"电网故障停限电","poweroffArea":"110kV靖江变:靖镇A325线-小石桥村7#变台区低压开关","poweroffReason":"（低压停电信息）低压漏电保护器短路故障","powerTime":"2019-07-28 23:10:08","powerComm":"已送电","subsNo":"","lineNo":"","tgNo":"","tgName":null,"infoStatus":"1","orgName":"国网浙江杭州市萧山区供电有限公司","typeName":null,"infoStatusName":null,"dateDay":null,"orgNos":null,"nowTime":null,"countyName":null,"streetName":null,"villageName":null,"roadName":null,"communityName":null,"tranName":null,"sdLineName":null,"cityCode":"3340130","cityName":"国网浙江杭州市萧山区供电有限公司","provinceCode":null,"stopTime":"2019-07-28 23:55:01","powerType":"全部","powerOffArea":"110kV靖江变:靖镇A325线-小石桥村7#变台区低压开关","powerOffReason":"（低压停电信息）低压漏电保护器短路故障","powerOffId":"2019072831010283"},{"poweroffId":2019072831010279,"sgpoweroffId":null,"subsName":"","lineName":"10kV兴达C826线","pubTranName":"娄下陈村6#变,","scope":"浙江省-杭州市-萧山区-新塘街道(娄下陈行政村-娄下陈自然村)一带，浙江省杭州市萧山区娄下城村","startTime":"2019-07-28 22:05:30","stopDate":"2019-07-29 00:30:15","orgNo":"3340130","typeCode":"电网故障停限电","poweroffArea":"110kV罗山变:兴达C826线-娄下陈村6#变台区低压开关","poweroffReason":"（低压停电信息）低压断路器短路故障 原停电结束时间：2019-07-28 23:58:35，变更停电结束时间2019-07-29 00:30:15，由于抢修工作难度大，故需要延迟送电。","powerTime":"2019-07-28 23:45:43","powerComm":"已送电","subsNo":"","lineNo":"","tgNo":"","tgName":null,"infoStatus":"1","orgName":"国网浙江杭州市萧山区供电有限公司","typeName":null,"infoStatusName":null,"dateDay":null,"orgNos":null,"nowTime":null,"countyName":null,"streetName":null,"villageName":null,"roadName":null,"communityName":null,"tranName":null,"sdLineName":null,"cityCode":"3340130","cityName":"国网浙江杭州市萧山区供电有限公司","provinceCode":null,"stopTime":"2019-07-29 00:30:15","powerType":"全部","powerOffArea":"110kV罗山变:兴达C826线-娄下陈村6#变台区低压开关","powerOffReason":"（低压停电信息）低压断路器短路故障 原停电结束时间：2019-07-28 23:58:35，变更停电结束时间2019-07-29 00:30:15，由于抢修工作难度大，故需要延迟送电。","powerOffId":"2019072831010279"},{"poweroffId":2019072831010270,"sgpoweroffId":null,"subsName":"","lineName":"10kV金湖A442线","pubTranName":"金临湖村9#变,","scope":"浙江省-杭州市-萧山区-所前镇(金临湖行政村-单家自然村、渔临关村)一带","startTime":"2019-07-28 21:50:53","stopDate":"2019-07-28 23:20:38","orgNo":"3340130","typeCode":"电网故障停限电","poweroffArea":"110kV来苏变:金湖A442线-金临湖村9#变台区低压开关","poweroffReason":"（低压停电信息）低压漏电保护器短路故障 原停电结束时间：2019-04-21 2019-07-28 23:50:09，变更停电结束时间：2019-07-28 23:20:38，由于增派人员，抢修提前完成，故需要提前送电。","powerTime":"2019-07-28 22:45:25","powerComm":"已送电","subsNo":"","lineNo":"","tgNo":"","tgName":null,"infoStatus":"1","orgName":"国网浙江杭州市萧山区供电有限公司","typeName":null,"infoStatusName":null,"dateDay":null,"orgNos":null,"nowTime":null,"countyName":null,"streetName":null,"villageName":null,"roadName":null,"communityName":null,"tranName":null,"sdLineName":null,"cityCode":"3340130","cityName":"国网浙江杭州市萧山区供电有限公司","provinceCode":null,"stopTime":"2019-07-28 23:20:38","powerType":"全部","powerOffArea":"110kV来苏变:金湖A442线-金临湖村9#变台区低压开关","powerOffReason":"（低压停电信息）低压漏电保护器短路故障 原停电结束时间：2019-04-21 2019-07-28 23:50:09，变更停电结束时间：2019-07-28 23:20:38，由于增派人员，抢修提前完成，故需要提前送电。","powerOffId":"2019072831010270"},{"poweroffId":2019072831010263,"sgpoweroffId":null,"subsName":"","lineName":"10kV萧晖C423线","pubTranName":"曹家桥社区11#变,","scope":"浙江省-杭州市-萧山区-蜀山街道(曹家桥社区-旸二房自然村、旸四房自然村、曹家桥街面、曹家桥自然村);","startTime":"2019-07-28 21:50:54","stopDate":"2019-07-28 23:55:58","orgNo":"3340130","typeCode":"电网故障停限电","poweroffArea":"110kV萧山变:萧晖C423线-曹家桥社区11#变台区低压开关","poweroffReason":"（低压停电信息）低压漏电保护器短路故障","powerTime":"2019-07-28 23:29:46","powerComm":"已送电","subsNo":"","lineNo":"","tgNo":"","tgName":null,"infoStatus":"1","orgName":"国网浙江杭州市萧山区供电有限公司","typeName":null,"infoStatusName":null,"dateDay":null,"orgNos":null,"nowTime":null,"countyName":null,"streetName":null,"villageName":null,"roadName":null,"communityName":null,"tranName":null,"sdLineName":null,"cityCode":"3340130","cityName":"国网浙江杭州市萧山区供电有限公司","provinceCode":null,"stopTime":"2019-07-28 23:55:58","powerType":"全部","powerOffArea":"110kV萧山变:萧晖C423线-曹家桥社区11#变台区低压开关","powerOffReason":"（低压停电信息）低压漏电保护器短路故障","powerOffId":"2019072831010263"},{"poweroffId":2019072831010251,"sgpoweroffId":null,"subsName":"","lineName":"10kV孝丰526线","pubTranName":"杭州万方图书有限公司,地铁盾构(4)2#,建材,耀江发展中心,杭州市中医院2,浙江省交通规划设计研究院,地铁盾构(4)3#,镇海炼化公司杭州办,地质专变双路内部二,农行,变压器3,省行政中心管理处II,地铁盾构(4)1#,省地矿1#,变压器1,浙江省交通规划设计研究院,耀江发展中心,杭州市中医院,桃花二变,浙江中财专变,杭州市中医院,变压器,变压器2,桃花变,省行政中心管理处I,镇海炼化公司杭州办,中融变I,","scope":"浙江省-杭州市-下城区-北山街道(金祝社区-环城西路、体育场路),武林街道(环西社区-环城西路、桃花河、桃花河新村);(杭州莲花宾馆有限公司,杭州市地铁集团有限责任公司,杭州市中医院,杭州万方图书有限公司,新华通讯社浙江分社,浙江省地矿科技有限公司,浙江省地质勘查局,浙江省交通规划设计研究院有限公司,浙江省行政中心管理处,浙江耀江物业管理有限公司,中财招商投资集团有限公司,中国农业银行股份有限公司杭州西湖支行,中国人寿财产保险股份有限公司杭州市中心支公司);","startTime":"2019-07-28 20:55:20","stopDate":"2019-07-28 23:45:20","orgNo":"3340101","typeCode":"电网故障停限电","poweroffArea":"110kV武林变:孝丰526线","poweroffReason":"高压开关跳闸 原预计停电结束时间2019-07-29 02:55:20,由于施工现场环境比较复杂，存在不确定因素，因此预估施工时间适当放长了，而实际施工进行得比较顺利，因此提前送电了","powerTime":"2019-07-28 23:23:12","powerComm":"已送电","subsNo":"","lineNo":"","tgNo":"","tgName":null,"infoStatus":"1","orgName":"浙江杭州电力客户服务中心","typeName":null,"infoStatusName":null,"dateDay":null,"orgNos":null,"nowTime":null,"countyName":null,"streetName":null,"villageName":null,"roadName":null,"communityName":null,"tranName":null,"sdLineName":null,"cityCode":"3340101","cityName":"浙江杭州电力客户服务中心","provinceCode":null,"stopTime":"2019-07-28 23:45:20","powerType":"全部","powerOffArea":"110kV武林变:孝丰526线","powerOffReason":"高压开关跳闸 原预计停电结束时间2019-07-29 02:55:20,由于施工现场环境比较复杂，存在不确定因素，因此预估施工时间适当放长了，而实际施工进行得比较顺利，因此提前送电了","powerOffId":"2019072831010251"},{"poweroffId":2019072831010235,"sgpoweroffId":null,"subsName":"","lineName":"10kV钱东C909线","pubTranName":"宁北村10#变,","scope":"浙江省-杭州市-萧山区-宁围街道、宁围镇、二桥村，(二桥行政村-宁北自然村)，二桥村366号，二桥村378号等一带","startTime":"2019-07-28 20:00:59","stopDate":"2019-07-28 22:00:59","orgNo":"3340130","typeCode":"电网故障停限电","poweroffArea":"110kV鸿达变:钱东C909线-宁北村10#变台区低压开关","poweroffReason":"（低压停电信息）低压漏电保护器短路故障","powerTime":"2019-07-28 21:07:18","powerComm":"已送电","subsNo":"","lineNo":"","tgNo":"","tgName":null,"infoStatus":"1","orgName":"国网浙江杭州市萧山区供电有限公司","typeName":null,"infoStatusName":null,"dateDay":null,"orgNos":null,"nowTime":null,"countyName":null,"streetName":null,"villageName":null,"roadName":null,"communityName":null,"tranName":null,"sdLineName":null,"cityCode":"3340130","cityName":"国网浙江杭州市萧山区供电有限公司","provinceCode":null,"stopTime":"2019-07-28 22:00:59","powerType":"全部","powerOffArea":"110kV鸿达变:钱东C909线-宁北村10#变台区低压开关","powerOffReason":"（低压停电信息）低压漏电保护器短路故障","powerOffId":"2019072831010235"},{"poweroffId":2019072831010234,"sgpoweroffId":null,"subsName":"","lineName":"10kV徐坑Y774线","pubTranName":"新程村白果树台区,","scope":"浙江省-杭州市-建德市-乾潭镇 新程行政村-包家自然村、程头自然村一带用户。","startTime":"2019-07-28 19:57:00","stopDate":"2019-07-28 21:30:00","orgNo":"3340180","typeCode":"电网故障停限电","poweroffArea":"110kV乾潭变:徐坑Y774线-新程村白果树台区后段","poweroffReason":"（低压停电信息）低压开关故障 原预计停电结束时间22:30，目前故障已修复，现将停电时间变更至21:30。","powerTime":"2019-07-28 20:57:00","powerComm":"已送电","subsNo":"","lineNo":"","tgNo":"","tgName":null,"infoStatus":"1","orgName":"国网浙江建德市供电有限公司","typeName":null,"infoStatusName":null,"dateDay":null,"orgNos":null,"nowTime":null,"countyName":null,"streetName":null,"villageName":null,"roadName":null,"communityName":null,"tranName":null,"sdLineName":null,"cityCode":"3340180","cityName":"国网浙江建德市供电有限公司","provinceCode":null,"stopTime":"2019-07-28 21:30:00","powerType":"全部","powerOffArea":"110kV乾潭变:徐坑Y774线-新程村白果树台区后段","powerOffReason":"（低压停电信息）低压开关故障 原预计停电结束时间22:30，目前故障已修复，现将停电时间变更至21:30。","powerOffId":"2019072831010234"}],"pageModel":{"pageNow":1365,"totalCount":17789,"totalPage":1779,"tableRows":0,"pageCount":10,"beginCount":13640},"isExperi":"1"}