{"message":"","today":"2020-06-16","seleList":[{"poweroffId":2019072831010207,"sgpoweroffId":null,"subsName":"","lineName":"10kV陈家Y181线","pubTranName":"金桥村桥头源台区,","scope":"浙江省-杭州市-建德市-寿昌镇 金桥行政村-里诸自然村、桥头源自然村一带用户。","startTime":"2019-07-28 18:07:00","stopDate":"2019-07-28 19:30:00","orgNo":"3340180","typeCode":"电网故障停限电","poweroffArea":"35kV河南里变:陈家Y181线-金桥村桥头源台区后段","poweroffReason":"（低压停电信息）低压开关跳闸故障 原预计停电结束时间20:16，目前故障已修复，现将停电时间变更至19:30。","powerTime":"2019-07-28 19:12:00","powerComm":"已送电","subsNo":"","lineNo":"","tgNo":"","tgName":null,"infoStatus":"1","orgName":"国网浙江建德市供电有限公司","typeName":null,"infoStatusName":null,"dateDay":null,"orgNos":null,"nowTime":null,"countyName":null,"streetName":null,"villageName":null,"roadName":null,"communityName":null,"tranName":null,"sdLineName":null,"cityCode":"3340180","cityName":"国网浙江建德市供电有限公司","provinceCode":null,"stopTime":"2019-07-28 19:30:00","powerType":"全部","powerOffArea":"35kV河南里变:陈家Y181线-金桥村桥头源台区后段","powerOffReason":"（低压停电信息）低压开关跳闸故障 原预计停电结束时间20:16，目前故障已修复，现将停电时间变更至19:30。","powerOffId":"2019072831010207"},{"poweroffId":2019072831010204,"sgpoweroffId":null,"subsName":"","lineName":"10kV寿镇Y183线","pubTranName":"寿昌集镇西昌公变,","scope":"浙江省-杭州市-建德市-寿昌镇 西湖社区-马铺巷、西昌北路、西昌路、溪边路、中山路一带用户","startTime":"2019-07-28 17:45:00","stopDate":"2019-07-28 19:00:00","orgNo":"3340180","typeCode":"电网故障停限电","poweroffArea":"35kV河南里变:寿镇Y183线-寿昌集镇西昌公变后段","poweroffReason":"（低压停电信息）低压开关跳闸故障 原预计停电结束为20：00，预估时间过长，现将停电结束时间更至19：00","powerTime":"2019-07-28 18:23:00","powerComm":"已送电","subsNo":"","lineNo":"","tgNo":"","tgName":null,"infoStatus":"1","orgName":"国网浙江建德市供电有限公司","typeName":null,"infoStatusName":null,"dateDay":null,"orgNos":null,"nowTime":null,"countyName":null,"streetName":null,"villageName":null,"roadName":null,"communityName":null,"tranName":null,"sdLineName":null,"cityCode":"3340180","cityName":"国网浙江建德市供电有限公司","provinceCode":null,"stopTime":"2019-07-28 19:00:00","powerType":"全部","powerOffArea":"35kV河南里变:寿镇Y183线-寿昌集镇西昌公变后段","powerOffReason":"（低压停电信息）低压开关跳闸故障 原预计停电结束为20：00，预估时间过长，现将停电结束时间更至19：00","powerOffId":"2019072831010204"},{"poweroffId":2019072831010203,"sgpoweroffId":null,"subsName":"","lineName":"10kV云峰6483线","pubTranName":"御江五变,御流三变,道汇七变,御路十一变,都会三配变,三保地铁施1,沿塘,御江七变,三堡加油,云农(1),贝赛思小学1,越辉3,御路三变,云委,三御区施,越辉4,三排(2),三保地铁施3,贝赛思小学3#,道汇十一变,三保地铁施2,北湘(1),御江九变,四工,云(18)农,三堡船闸施,四管,码头路施,三堡,御道河闸,御江一变,御路七变,御江三变,御路五变,御流一变,御路施,道汇一变,御流五变,都会五配变,钱施(10),运河地铁施1,运河地铁施2,三堡河道施,钱塘银座4#,贝赛思幼儿1,江河汇流办公1,都会一配变,都会七配变,1,御路一变,钱塘银座3#,道汇三变,路灯,二港桥施,道汇五变,道汇九变,三排(1),大都会会所1,江河汇流商业,御路九变,排水公司1#,码头路灯,人部,粮库施1,三堡(2)农,","scope":"浙江省-杭州市-江干区-彭埠镇(云峰社区-艮山东路),四季青街道(三堡社区-三堡村,江河汇流公寓,水湘社区);(杭州东恒钱江路加油站有限公司,杭州林方装卸有限公司,杭州钱江新城益寿院老人公寓,杭州市城东新城建设投资有限公司,杭州市地铁集团有限责任公司,杭州市江干区基础设施改善中心,杭州市江干区三堡排灌站,杭州市路灯管理所,杭州市排水有限公司,杭州市钱江新城建设指挥部,杭州四季青电气设备安装工程有限公司,杭州万霆置业有限公司,杭州五盟纺织品有限公司,杭州越辉房地产开发有限公司,杭州中海宏鲲房地产有限公司,江干区人武部,江苏省交通工程集团有限公司,三堡排灌站,四季青乡三堡大队,浙江杭州钱江贝赛思外籍人员子女学校,中天控股集团有限公司,中铁隧道局集团有限公司杭州公司,中铁一局集团城市轨道交通工程有限公司);","startTime":"2019-07-28 17:46:08","stopDate":"2019-07-28 19:59:04","orgNo":"3340101","typeCode":"电网故障停限电","poweroffArea":"110kV五福变:云峰6483线","poweroffReason":"高压开关跳闸 原预计停电结束时间2019-07-28 23:46:08,由于施工现场环境比较复杂，存在不确定因素，因此预估施工时间适当放长了，而实际施工进行得比较顺利，因此提前送电了","powerTime":"2019-07-28 19:40:25","powerComm":"已送电","subsNo":"","lineNo":"","tgNo":"","tgName":null,"infoStatus":"1","orgName":"浙江杭州电力客户服务中心","typeName":null,"infoStatusName":null,"dateDay":null,"orgNos":null,"nowTime":null,"countyName":null,"streetName":null,"villageName":null,"roadName":null,"communityName":null,"tranName":null,"sdLineName":null,"cityCode":"3340101","cityName":"浙江杭州电力客户服务中心","provinceCode":null,"stopTime":"2019-07-28 19:59:04","powerType":"全部","powerOffArea":"110kV五福变:云峰6483线","powerOffReason":"高压开关跳闸 原预计停电结束时间2019-07-28 23:46:08,由于施工现场环境比较复杂，存在不确定因素，因此预估施工时间适当放长了，而实际施工进行得比较顺利，因此提前送电了","powerOffId":"2019072831010203"},{"poweroffId":2019072831010193,"sgpoweroffId":null,"subsName":"","lineName":"10kV和平C209线","pubTranName":"朱家坛村8#变,","scope":"浙江省-杭州市-萧山区-新塘街道(朱家坛行政村-后朱自然村、前朱自然村、朱家坛自然村);","startTime":"2019-07-28 16:35:19","stopDate":"2019-07-28 18:30:24","orgNo":"3340130","typeCode":"电网故障停限电","poweroffArea":"110kV霞江变:和平C209线-朱家坛村8#变后段台区低压开关","poweroffReason":"（低压停电信息）低压漏电保护器短路故障","powerTime":"2019-07-28 17:55:08","powerComm":"已送电","subsNo":"","lineNo":"","tgNo":"","tgName":null,"infoStatus":"1","orgName":"国网浙江杭州市萧山区供电有限公司","typeName":null,"infoStatusName":null,"dateDay":null,"orgNos":null,"nowTime":null,"countyName":null,"streetName":null,"villageName":null,"roadName":null,"communityName":null,"tranName":null,"sdLineName":null,"cityCode":"3340130","cityName":"国网浙江杭州市萧山区供电有限公司","provinceCode":null,"stopTime":"2019-07-28 18:30:24","powerType":"全部","powerOffArea":"110kV霞江变:和平C209线-朱家坛村8#变后段台区低压开关","powerOffReason":"（低压停电信息）低压漏电保护器短路故障","powerOffId":"2019072831010193"},{"poweroffId":2019072831010192,"sgpoweroffId":null,"subsName":"","lineName":"10kV银乔C832线","pubTranName":"元沙村10#变,","scope":"浙江省-杭州市-萧山区-新街镇-新街街道-元沙村、元沙行政村、元沙自然村、元沙新农村等一带","startTime":"2019-07-28 16:50:17","stopDate":"2019-07-28 20:46:17","orgNo":"3340130","typeCode":"电网故障停限电","poweroffArea":"110kV罗山变:银乔C832线-元沙村10#变台区低压开关","poweroffReason":"（低压停电信息）低压漏电保护器短路故障， 原停电结束时间：18:51，变更停电结束时间：20:46，抢修工作尚未完成，仍需抢修","powerTime":"2019-07-28 19:51:00","powerComm":"已送电","subsNo":"","lineNo":"","tgNo":"","tgName":null,"infoStatus":"1","orgName":"国网浙江杭州市萧山区供电有限公司","typeName":null,"infoStatusName":null,"dateDay":null,"orgNos":null,"nowTime":null,"countyName":null,"streetName":null,"villageName":null,"roadName":null,"communityName":null,"tranName":null,"sdLineName":null,"cityCode":"3340130","cityName":"国网浙江杭州市萧山区供电有限公司","provinceCode":null,"stopTime":"2019-07-28 20:46:17","powerType":"全部","powerOffArea":"110kV罗山变:银乔C832线-元沙村10#变台区低压开关","powerOffReason":"（低压停电信息）低压漏电保护器短路故障， 原停电结束时间：18:51，变更停电结束时间：20:46，抢修工作尚未完成，仍需抢修","powerOffId":"2019072831010192"},{"poweroffId":2019072831010187,"sgpoweroffId":null,"subsName":"","lineName":"10kV胜达C623线","pubTranName":"新华村36#变,","scope":"浙江省-杭州市-萧山区-宁围街道，宁围镇，新华村，新华行政村，新华村2组578号等一带","startTime":"2019-07-28 16:25:29","stopDate":"2019-07-28 17:58:59","orgNo":"3340130","typeCode":"电网故障停限电","poweroffArea":"110kV新街变:胜达C623线-新华村36#变台区低压开关","poweroffReason":"（低压停电信息）低压漏电保护器短路故障 原停电结束时间：18:35，变更停电结束时间：17:58，由于增派人员，抢修工作提前完成，故需要提前送电。","powerTime":"2019-07-28 17:22:35","powerComm":"已送电","subsNo":"","lineNo":"","tgNo":"","tgName":null,"infoStatus":"1","orgName":"国网浙江杭州市萧山区供电有限公司","typeName":null,"infoStatusName":null,"dateDay":null,"orgNos":null,"nowTime":null,"countyName":null,"streetName":null,"villageName":null,"roadName":null,"communityName":null,"tranName":null,"sdLineName":null,"cityCode":"3340130","cityName":"国网浙江杭州市萧山区供电有限公司","provinceCode":null,"stopTime":"2019-07-28 17:58:59","powerType":"全部","powerOffArea":"110kV新街变:胜达C623线-新华村36#变台区低压开关","powerOffReason":"（低压停电信息）低压漏电保护器短路故障 原停电结束时间：18:35，变更停电结束时间：17:58，由于增派人员，抢修工作提前完成，故需要提前送电。","powerOffId":"2019072831010187"},{"poweroffId":2019072831010178,"sgpoweroffId":null,"subsName":"","lineName":"10kV万盛C265线","pubTranName":"金临湖村2#变,","scope":"浙江省-杭州市-萧山区-所前镇(金临湖行政村-塘下金自然村)一带","startTime":"2019-07-28 16:04:20","stopDate":"2019-07-28 17:30:11","orgNo":"3340130","typeCode":"电网故障停限电","poweroffArea":"110kV所前变:万盛C265线-金临湖村2#变台区低压开关","poweroffReason":"（低压停电信息）因外力破坏导致低压电杆被撞断故障 原停电结束时间：2019-07-28 19:00:49，变更停电结束时间：2019-07-28 17:30:11，由于增派人员，抢修提前完成，故需要提前送电。","powerTime":"2019-07-28 17:02:25","powerComm":"已送电","subsNo":"","lineNo":"","tgNo":"","tgName":null,"infoStatus":"1","orgName":"国网浙江杭州市萧山区供电有限公司","typeName":null,"infoStatusName":null,"dateDay":null,"orgNos":null,"nowTime":null,"countyName":null,"streetName":null,"villageName":null,"roadName":null,"communityName":null,"tranName":null,"sdLineName":null,"cityCode":"3340130","cityName":"国网浙江杭州市萧山区供电有限公司","provinceCode":null,"stopTime":"2019-07-28 17:30:11","powerType":"全部","powerOffArea":"110kV所前变:万盛C265线-金临湖村2#变台区低压开关","powerOffReason":"（低压停电信息）因外力破坏导致低压电杆被撞断故障 原停电结束时间：2019-07-28 19:00:49，变更停电结束时间：2019-07-28 17:30:11，由于增派人员，抢修提前完成，故需要提前送电。","powerOffId":"2019072831010178"},{"poweroffId":2019072831010164,"sgpoweroffId":null,"subsName":"","lineName":"10kV沿江C619线","pubTranName":"双圩村13#变,","scope":"浙江省-杭州市-萧山区-新街街道、新街镇，双圩村(双圩行政村-双圩自然村)等一带","startTime":"2019-07-28 15:09:21","stopDate":"2019-07-28 18:00:59","orgNo":"3340130","typeCode":"电网故障停限电","poweroffArea":"110kV新街变:沿江C619线-双圩村13#变台区低压开关","poweroffReason":"（低压停电信息）低压漏电保护器短路故障","powerTime":"2019-07-28 17:11:44","powerComm":"已送电","subsNo":"","lineNo":"","tgNo":"","tgName":null,"infoStatus":"1","orgName":"国网浙江杭州市萧山区供电有限公司","typeName":null,"infoStatusName":null,"dateDay":null,"orgNos":null,"nowTime":null,"countyName":null,"streetName":null,"villageName":null,"roadName":null,"communityName":null,"tranName":null,"sdLineName":null,"cityCode":"3340130","cityName":"国网浙江杭州市萧山区供电有限公司","provinceCode":null,"stopTime":"2019-07-28 18:00:59","powerType":"全部","powerOffArea":"110kV新街变:沿江C619线-双圩村13#变台区低压开关","powerOffReason":"（低压停电信息）低压漏电保护器短路故障","powerOffId":"2019072831010164"},{"poweroffId":2019072831010133,"sgpoweroffId":null,"subsName":"","lineName":"10kV凤坞C483线","pubTranName":"杭州泰博包装材料有限公司,杭州浩楠农业开发有限公司,溪头村4#变,河上镇东山村10#变,河上集镇13#变,溪头村1#变,杭州市萧山区河上镇人民政府,河上集镇1#变,河上镇东山村11#变,溪头村2#变,河上集镇6#变,电器工业公司,河上镇东山村9#变,河上卫生服务中心,河上集镇5#变,1#,溪头村3#变,祥盛包装,河上集镇9#变,河上镇东山村7#变,杭州威宝时装有限公司,伟民村1#变,河上镇东山村8#变,河上集镇11#变,河上集镇8#变,河上集镇3#变,河上镇东山村1#变,河上集镇2#变,河上镇东山村2#变,河上镇东山村12#变,威宝时装,威宝时装,红品纺织,伟民村3#变,河上集镇7#变,河上集镇4#变,创辉工艺,河上集镇10#变,","scope":"浙江省-杭州市-萧山区-河上镇(长春社区长春路,东山行政村-鲍坞自然村、黑楼朱自然村、金坞自然村、上山头自然村、桃里自然村,伟民行政村-长春路、长春路92号、长春小区、大溪路、后馆弄、后溪滩、槐树路、井泉街、沙洲墩头、伟民街、伟民自然村、文化路、西山脚自然村、西山路、永仪弄、油车弄、张家弄、支堂弄,溪头行政村-大溪路、魏家竹园自然村、溪头自然村、下傅道地、竹园路);(杭州长虹路桥工程有限公司,杭州创辉工艺木制品有限公司,杭州奇升工艺花边有限公司,杭州市萧山区河上镇人民政府,杭州市萧山区河上镇社区卫生服务中心,杭州泰博包装材料有限公司,杭州威宝时装有限公司,杭州祥盛包装制品有限公司,杭州萧山电动工具有限公司)、浙江省杭州市萧山区河上镇伟民行政村西山脚自然村等一带","startTime":"2019-07-28 12:52:51","stopDate":"2019-07-28 14:30:02","orgNo":"3340130","typeCode":"电网故障停限电","poweroffArea":"35kV河上变:凤坞C483线-凤坞开G12凤里C483线后段","poweroffReason":"高压柱上断路器短路故障 原停电结束时间：2019-07-28 18:47，变更停电结束时间：2019-07-28 14:30，由于增派人员，抢修提前完成，故需要提前送电。","powerTime":"2019-07-28 13:54:31","powerComm":"已送电","subsNo":"","lineNo":"","tgNo":"","tgName":null,"infoStatus":"1","orgName":"国网浙江杭州市萧山区供电有限公司","typeName":null,"infoStatusName":null,"dateDay":null,"orgNos":null,"nowTime":null,"countyName":null,"streetName":null,"villageName":null,"roadName":null,"communityName":null,"tranName":null,"sdLineName":null,"cityCode":"3340130","cityName":"国网浙江杭州市萧山区供电有限公司","provinceCode":null,"stopTime":"2019-07-28 14:30:02","powerType":"全部","powerOffArea":"35kV河上变:凤坞C483线-凤坞开G12凤里C483线后段","powerOffReason":"高压柱上断路器短路故障 原停电结束时间：2019-07-28 18:47，变更停电结束时间：2019-07-28 14:30，由于增派人员，抢修提前完成，故需要提前送电。","powerOffId":"2019072831010133"},{"poweroffId":2019072831010103,"sgpoweroffId":null,"subsName":"","lineName":"10kV小镇Y448线","pubTranName":"寿昌集镇官山公变,","scope":"浙江省-杭州市-建德市-寿昌镇 西湖社区-官山路、湖滨路、解放路、西昌路、西湖路、西湖桥路一带用户。","startTime":"2019-07-28 10:08:00","stopDate":"2019-07-28 11:00:00","orgNo":"3340180","typeCode":"电网故障停限电","poweroffArea":"110kV家蓬变:小镇Y448线-寿昌集镇官山公变后段","poweroffReason":"（低压停电信息）低压开关跳闸故障 原预计停电结束时间12:00，目前故障已修复，现将停电时间变更至11:00。","powerTime":"2019-07-28 10:40:00","powerComm":"已送电","subsNo":"","lineNo":"","tgNo":"","tgName":null,"infoStatus":"1","orgName":"国网浙江建德市供电有限公司","typeName":null,"infoStatusName":null,"dateDay":null,"orgNos":null,"nowTime":null,"countyName":null,"streetName":null,"villageName":null,"roadName":null,"communityName":null,"tranName":null,"sdLineName":null,"cityCode":"3340180","cityName":"国网浙江建德市供电有限公司","provinceCode":null,"stopTime":"2019-07-28 11:00:00","powerType":"全部","powerOffArea":"110kV家蓬变:小镇Y448线-寿昌集镇官山公变后段","powerOffReason":"（低压停电信息）低压开关跳闸故障 原预计停电结束时间12:00，目前故障已修复，现将停电时间变更至11:00。","powerOffId":"2019072831010103"}],"pageModel":{"pageNow":1366,"totalCount":17789,"totalPage":1779,"tableRows":0,"pageCount":10,"beginCount":13650},"isExperi":"1"}