{"message":"","today":"2020-06-16","seleList":[{"poweroffId":2019072731020063,"sgpoweroffId":null,"subsName":"","lineName":"10kV建北D326线","pubTranName":"建设村10#新区公变,建安11号公变,建安4号公变,富阳市春江街道服务有限公司2#,富阳市春江街道服务有限公司1#,建安2号公变,建安6号公变,建设村12号下埠新区公变,建安8号公变,","scope":"浙江省-杭州市-富阳区-春江街道-建设行政村-建设自然村;春江街道-杭州富阳江南新城物业管理有限公司","startTime":"2019-07-27 16:30:00","stopDate":"2019-07-27 18:30:00","orgNo":"3340170","typeCode":"电网故障停限电","poweroffArea":"110kV建设变:建北D326线建锦D3265开关后段","poweroffReason":"高压开关跳闸","powerTime":"2019-07-27 17:41:39","powerComm":"已送电","subsNo":"","lineNo":"","tgNo":"","tgName":null,"infoStatus":"1","orgName":"国网浙江杭州市富阳区供电公司","typeName":null,"infoStatusName":null,"dateDay":null,"orgNos":null,"nowTime":null,"countyName":null,"streetName":null,"villageName":null,"roadName":null,"communityName":null,"tranName":null,"sdLineName":null,"cityCode":"3340170","cityName":"国网浙江杭州市富阳区供电公司","provinceCode":null,"stopTime":"2019-07-27 18:30:00","powerType":"全部","powerOffArea":"110kV建设变:建北D326线建锦D3265开关后段","powerOffReason":"高压开关跳闸","powerOffId":"2019072731020063"},{"poweroffId":2019072731020060,"sgpoweroffId":null,"subsName":"","lineName":"10kV新华D320线","pubTranName":"东洲新沙村2#村西公变,","scope":"浙江省-杭州市-富阳区-东洲街道-新沙行政村-新沙自然村","startTime":"2019-07-27 16:07:00","stopDate":"2019-07-27 18:07:00","orgNo":"3340170","typeCode":"电网故障停限电","poweroffArea":"110kV建设变:新华D320线东洲新沙村2#村西公变配变","poweroffReason":"高压开关跳闸","powerTime":"2019-07-27 18:00:45","powerComm":"已送电","subsNo":"","lineNo":"","tgNo":"","tgName":null,"infoStatus":"1","orgName":"国网浙江杭州市富阳区供电公司","typeName":null,"infoStatusName":null,"dateDay":null,"orgNos":null,"nowTime":null,"countyName":null,"streetName":null,"villageName":null,"roadName":null,"communityName":null,"tranName":null,"sdLineName":null,"cityCode":"3340170","cityName":"国网浙江杭州市富阳区供电公司","provinceCode":null,"stopTime":"2019-07-27 18:07:00","powerType":"全部","powerOffArea":"110kV建设变:新华D320线东洲新沙村2#村西公变配变","powerOffReason":"高压开关跳闸","powerOffId":"2019072731020060"},{"poweroffId":2019072731020056,"sgpoweroffId":null,"subsName":"","lineName":"10kV里鱼H560线","pubTranName":"麻车头村邵母桥南塘公变,","scope":"浙江省-杭州市-余杭区-径山镇-径山行政村-径山自然村,径山镇-麻车头行政村桥南自然村,南塘自然村,麻车头自然村一带","startTime":"2019-07-27 15:16:00","stopDate":"2019-07-27 16:16:00","orgNo":"3340140","typeCode":"电网故障停限电","poweroffArea":"110kV潘板变:里鱼H560线-麻车头村邵母桥南塘公变后段","poweroffReason":"麻车头村邵母桥南塘公变后段 低压断线故障","powerTime":"2019-07-27 15:31:00","powerComm":"已送电","subsNo":"","lineNo":"","tgNo":"","tgName":null,"infoStatus":"1","orgName":"国网浙江杭州市余杭区供电有限公司","typeName":null,"infoStatusName":null,"dateDay":null,"orgNos":null,"nowTime":null,"countyName":null,"streetName":null,"villageName":null,"roadName":null,"communityName":null,"tranName":null,"sdLineName":null,"cityCode":"3340140","cityName":"国网浙江杭州市余杭区供电有限公司","provinceCode":null,"stopTime":"2019-07-27 16:16:00","powerType":"全部","powerOffArea":"110kV潘板变:里鱼H560线-麻车头村邵母桥南塘公变后段","powerOffReason":"麻车头村邵母桥南塘公变后段 低压断线故障","powerOffId":"2019072731020056"},{"poweroffId":2019072731020053,"sgpoweroffId":null,"subsName":"","lineName":"10kV农校H413线","pubTranName":"施家湾社区老街公变,","scope":"浙江省-杭州市-余杭区-良渚街道-万年桥社区-勾庄路,良渚街道-勾庄行政村(马铺路,勾庄路,粮站弄,良博路,勾庄老街,朝辉路,勾庄街道)","startTime":"2019-07-27 14:53:00","stopDate":"2019-07-27 19:53:00","orgNo":"3340140","typeCode":"电网故障停限电","poweroffArea":"35kV良渚变:农校H413线-施家湾社区老街公变后段","poweroffReason":"施家湾社区老街公变后段 低压断线故障","powerTime":"2019-07-27 19:28:00","powerComm":"已送电","subsNo":"","lineNo":"","tgNo":"","tgName":null,"infoStatus":"1","orgName":"国网浙江杭州市余杭区供电有限公司","typeName":null,"infoStatusName":null,"dateDay":null,"orgNos":null,"nowTime":null,"countyName":null,"streetName":null,"villageName":null,"roadName":null,"communityName":null,"tranName":null,"sdLineName":null,"cityCode":"3340140","cityName":"国网浙江杭州市余杭区供电有限公司","provinceCode":null,"stopTime":"2019-07-27 19:53:00","powerType":"全部","powerOffArea":"35kV良渚变:农校H413线-施家湾社区老街公变后段","powerOffReason":"施家湾社区老街公变后段 低压断线故障","powerOffId":"2019072731020053"},{"poweroffId":2019072731020045,"sgpoweroffId":null,"subsName":"","lineName":"10kV勾运H328线","pubTranName":"配变,","scope":"浙江省-杭州市-余杭区-良渚街道-长桥行政村-杭州长桥物业管理有限公司一带","startTime":"2019-07-27 11:34:00","stopDate":"2019-07-27 17:00:00","orgNo":"3340140","typeCode":"电网故障停限电","poweroffArea":"110kV长桥变:勾运H328线-杭州余杭长桥股份经济合作社开关后段","poweroffReason":"勾运H328线-杭州余杭长桥股份经济合作社开关后段低压线路故障","powerTime":"2019-07-27 16:12:00","powerComm":"已送电","subsNo":"","lineNo":"","tgNo":"","tgName":null,"infoStatus":"1","orgName":"国网浙江杭州市余杭区供电有限公司","typeName":null,"infoStatusName":null,"dateDay":null,"orgNos":null,"nowTime":null,"countyName":null,"streetName":null,"villageName":null,"roadName":null,"communityName":null,"tranName":null,"sdLineName":null,"cityCode":"3340140","cityName":"国网浙江杭州市余杭区供电有限公司","provinceCode":null,"stopTime":"2019-07-27 17:00:00","powerType":"全部","powerOffArea":"110kV长桥变:勾运H328线-杭州余杭长桥股份经济合作社开关后段","powerOffReason":"勾运H328线-杭州余杭长桥股份经济合作社开关后段低压线路故障","powerOffId":"2019072731020045"},{"poweroffId":2019072731020044,"sgpoweroffId":null,"subsName":"","lineName":"10kV国大D575线","pubTranName":"站南弄1#公变配变,","scope":"浙江省-杭州市-富阳区-富春街道-虎山社区-迎宾路,富春街道-后亭子社区(迎宾路,站南弄),富春街道-镬子山社区(迎宾路,恩波大道，新车站)一带","startTime":"2019-07-27 11:32:24","stopDate":"2019-07-27 13:32:24","orgNo":"3340170","typeCode":"电网故障停限电","poweroffArea":"110kV春江变:国大D575线-站南弄1#公变配变后段","poweroffReason":"高压开关跳闸","powerTime":"2019-07-27 13:11:22","powerComm":"已送电","subsNo":"","lineNo":"","tgNo":"","tgName":null,"infoStatus":"1","orgName":"国网浙江杭州市富阳区供电公司","typeName":null,"infoStatusName":null,"dateDay":null,"orgNos":null,"nowTime":null,"countyName":null,"streetName":null,"villageName":null,"roadName":null,"communityName":null,"tranName":null,"sdLineName":null,"cityCode":"3340170","cityName":"国网浙江杭州市富阳区供电公司","provinceCode":null,"stopTime":"2019-07-27 13:32:24","powerType":"全部","powerOffArea":"110kV春江变:国大D575线-站南弄1#公变配变后段","powerOffReason":"高压开关跳闸","powerOffId":"2019072731020044"},{"poweroffId":2019072731020043,"sgpoweroffId":null,"subsName":"","lineName":"10kV建达A855线","pubTranName":"兴达市政9#,宁税村2#变,","scope":"浙江省-杭州市-萧山区-经济技术开发区-市北社区(宁税村,萧山经济技术开发区医院,杭州兴达市政公用服务有限公司)","startTime":"2019-08-06 08:35:00","stopDate":"2019-08-06 12:00:00","orgNo":"3340130","typeCode":"计划停电","poweroffArea":"110kV金设变:建达A855线-建达A8553开关后段","poweroffReason":"拆除市北变至税东C893线01#杆电缆","powerTime":"2019-08-06 11:16:48","powerComm":"已送电","subsNo":"","lineNo":"","tgNo":"","tgName":null,"infoStatus":"1","orgName":"国网浙江杭州市萧山区供电有限公司","typeName":null,"infoStatusName":null,"dateDay":null,"orgNos":null,"nowTime":null,"countyName":null,"streetName":null,"villageName":null,"roadName":null,"communityName":null,"tranName":null,"sdLineName":null,"cityCode":"3340130","cityName":"国网浙江杭州市萧山区供电有限公司","provinceCode":null,"stopTime":"2019-08-06 12:00:00","powerType":"全部","powerOffArea":"110kV金设变:建达A855线-建达A8553开关后段","powerOffReason":"拆除市北变至税东C893线01#杆电缆","powerOffId":"2019072731020043"},{"poweroffId":2019072731020041,"sgpoweroffId":null,"subsName":"","lineName":"10kV国大D575线","pubTranName":"清风万和苑7#公变,","scope":"浙江省-杭州市-富阳区-富春街道-后亭子社区(恩波大道303号,迎宾路,恩波大道)","startTime":"2019-07-27 11:06:33","stopDate":"2019-07-27 12:06:33","orgNo":"3340170","typeCode":"电网故障停限电","poweroffArea":"110kV春江变:国大D575线-清风万和苑7#公变后段","poweroffReason":"高压开关跳闸","powerTime":"2019-07-27 11:31:52","powerComm":"已送电","subsNo":"","lineNo":"","tgNo":"","tgName":null,"infoStatus":"1","orgName":"国网浙江杭州市富阳区供电公司","typeName":null,"infoStatusName":null,"dateDay":null,"orgNos":null,"nowTime":null,"countyName":null,"streetName":null,"villageName":null,"roadName":null,"communityName":null,"tranName":null,"sdLineName":null,"cityCode":"3340170","cityName":"国网浙江杭州市富阳区供电公司","provinceCode":null,"stopTime":"2019-07-27 12:06:33","powerType":"全部","powerOffArea":"110kV春江变:国大D575线-清风万和苑7#公变后段","powerOffReason":"高压开关跳闸","powerOffId":"2019072731020041"},{"poweroffId":2019072731020038,"sgpoweroffId":null,"subsName":"","lineName":"10kV万意C884线","pubTranName":"硅宝科技,亨德利文化（珠宝城）,北极水产,","scope":"浙江省-杭州市-萧山区-经济技术开发区-市北社区(浙江北极品水产有限公司,杭州亨德利文化创意有限公司,杭州硅宝电子科技有限公司)","startTime":"2019-08-05 08:35:00","stopDate":"2019-08-05 12:30:00","orgNo":"3340130","typeCode":"计划停电","poweroffArea":"110kV万安变:万意C884线-北极分线后段","poweroffReason":"电缆分支箱更换","powerTime":"2019-08-05 11:55:30","powerComm":"已送电","subsNo":"","lineNo":"","tgNo":"","tgName":null,"infoStatus":"1","orgName":"国网浙江杭州市萧山区供电有限公司","typeName":null,"infoStatusName":null,"dateDay":null,"orgNos":null,"nowTime":null,"countyName":null,"streetName":null,"villageName":null,"roadName":null,"communityName":null,"tranName":null,"sdLineName":null,"cityCode":"3340130","cityName":"国网浙江杭州市萧山区供电有限公司","provinceCode":null,"stopTime":"2019-08-05 12:30:00","powerType":"全部","powerOffArea":"110kV万安变:万意C884线-北极分线后段","powerOffReason":"电缆分支箱更换","powerOffId":"2019072731020038"},{"poweroffId":2019072731020037,"sgpoweroffId":null,"subsName":"","lineName":"10kV义盛678线","pubTranName":"蜜蜂安置区块7#变,蜜蜂安置区块5#变,义盛街道5#变,蜜蜂安置区块6#变,义盛街道1#变,义盛街道19#变,","scope":"浙江省-杭州市-萧山区-义蓬街道-义盛社区(振兴弄,河西弄,新镇路,集镇,义盛路,金蜂一路),义蓬街道(白浪行政村-白浪自然村,蜜蜂行政村-蜜蜂自然村)","startTime":"2019-08-08 16:30:00","stopDate":"2019-08-08 17:00:00","orgNo":"3340120","typeCode":"计划停电","poweroffArea":"35kV义盛变:义盛678线-义盛二线后段","poweroffReason":"10kv义盛一站义盛二线后段负荷倒回","powerTime":"2019-08-08 16:41:19","powerComm":"已送电","subsNo":"","lineNo":"","tgNo":"","tgName":null,"infoStatus":"1","orgName":"国网浙江杭州市钱塘新区供电公司","typeName":null,"infoStatusName":null,"dateDay":null,"orgNos":null,"nowTime":null,"countyName":null,"streetName":null,"villageName":null,"roadName":null,"communityName":null,"tranName":null,"sdLineName":null,"cityCode":"3340120","cityName":"国网浙江杭州市钱塘新区供电公司","provinceCode":null,"stopTime":"2019-08-08 17:00:00","powerType":"全部","powerOffArea":"35kV义盛变:义盛678线-义盛二线后段","powerOffReason":"10kv义盛一站义盛二线后段负荷倒回","powerOffId":"2019072731020037"}],"pageModel":{"pageNow":1370,"totalCount":17789,"totalPage":1779,"tableRows":0,"pageCount":10,"beginCount":13690},"isExperi":"1"}