{"message":"","today":"2020-06-16","seleList":[{"poweroffId":2019072731010008,"sgpoweroffId":null,"subsName":"","lineName":"10kV高都C485线","pubTranName":"启明星,联发村8#变,联发村7#变,联发村13#变,春杰制衣,2#,银鹰加油,杭州萧山岩山减速器厂1#,河上镇东山村5#变,河上镇东山村6#变,杭州奥风科技有限公司,河上镇东山村3#变,杭州力嘉链条有限公司,联发村5#变,变压器,联发村6#变,河上镇东山村4#变,联发村10#变,一帆塑胶,联发包装,1#,联发村9#变,联发村15#变,3#,天宇木业,联发村4#变,收费站,伟民村2#变,","scope":"浙江省-杭州市-萧山区-河上镇(东山行政村-黑楼朱自然村、金坞自然村、毛山头自然村、上山头自然村,联发行政村-江家桥自然村、魏家塔自然村、魏塔自然村、樟树下自然村,伟民行政村-伟民自然村、西山路);(杭州奥风科技有限公司,杭州春杰制衣有限公司,杭州力嘉链条有限公司,杭州铭迪金属包装有限公司,杭州天宇木业有限公司,杭州萧山公路开发有限公司,杭州萧山联发包装有限公司,杭州萧山岩山减速器厂,杭州萧山银鹰加油站有限责任公司,杭州一帆塑胶制品有限公司,杭州源鼎体育用品有限公司,浙江牧神机械有限公司)，浙江省杭州市萧山区河上镇联发村渭塔，浙江省杭州市萧山区河上镇东山行政村上山头自然村一带","startTime":"2019-07-27 02:37:00","stopDate":"2019-07-27 06:00:41","orgNo":"3340130","typeCode":"电网故障停限电","poweroffArea":"35kV河上变:高都C485线","poweroffReason":"高压柱上断路器短路故障 原停电结束时间：2019-07-27 08:37，变更停电结束时间：2019-07-27 06:00，由于施工准备充分，故需要提前送电。","powerTime":"2019-07-27 05:20:08","powerComm":"已送电","subsNo":"","lineNo":"","tgNo":"","tgName":null,"infoStatus":"1","orgName":"国网浙江杭州市萧山区供电有限公司","typeName":null,"infoStatusName":null,"dateDay":null,"orgNos":null,"nowTime":null,"countyName":null,"streetName":null,"villageName":null,"roadName":null,"communityName":null,"tranName":null,"sdLineName":null,"cityCode":"3340130","cityName":"国网浙江杭州市萧山区供电有限公司","provinceCode":null,"stopTime":"2019-07-27 06:00:41","powerType":"全部","powerOffArea":"35kV河上变:高都C485线","powerOffReason":"高压柱上断路器短路故障 原停电结束时间：2019-07-27 08:37，变更停电结束时间：2019-07-27 06:00，由于施工准备充分，故需要提前送电。","powerOffId":"2019072731010008"},{"poweroffId":2019072631020470,"sgpoweroffId":null,"subsName":"","lineName":"10kV陶春H558线","pubTranName":"求是村大舍2号公变,","scope":"浙江省-杭州市-余杭区-径山镇-求是行政村(陶桥自然村,求是自然村,大舍自然村)","startTime":"2019-07-26 23:39:27","stopDate":"2019-07-27 04:39:27","orgNo":"3340140","typeCode":"电网故障停限电","poweroffArea":"110kV潘板变:陶春H558线-求是村大舍2号公变后段","poweroffReason":"（低压停电信息）陶春H558线-求是村大舍2号公变后段线路断线","powerTime":"2019-07-27 04:20:36","powerComm":"已送电","subsNo":"","lineNo":"","tgNo":"","tgName":null,"infoStatus":"1","orgName":"国网浙江杭州市余杭区供电有限公司","typeName":null,"infoStatusName":null,"dateDay":null,"orgNos":null,"nowTime":null,"countyName":null,"streetName":null,"villageName":null,"roadName":null,"communityName":null,"tranName":null,"sdLineName":null,"cityCode":"3340140","cityName":"国网浙江杭州市余杭区供电有限公司","provinceCode":null,"stopTime":"2019-07-27 04:39:27","powerType":"全部","powerOffArea":"110kV潘板变:陶春H558线-求是村大舍2号公变后段","powerOffReason":"（低压停电信息）陶春H558线-求是村大舍2号公变后段线路断线","powerOffId":"2019072631020470"},{"poweroffId":2019072631020462,"sgpoweroffId":null,"subsName":"","lineName":"10kV东源D339线","pubTranName":"万市村5#骆家公变,","scope":"浙江省-杭州市-富阳区-万市镇-万市行政村(下陈家自然村,考坎坞自然村,上陈家自然村,骆家自然村,镇头自然村)","startTime":"2019-07-26 21:52:43","stopDate":"2019-07-26 22:52:43","orgNo":"3340170","typeCode":"电网故障停限电","poweroffArea":"110kV万市变:东源D339线-万市村5#骆家公变后段","poweroffReason":"(低压停电信息)低压开关跳闸","powerTime":"2019-07-26 22:06:31","powerComm":"已送电","subsNo":"","lineNo":"","tgNo":"","tgName":null,"infoStatus":"1","orgName":"国网浙江杭州市富阳区供电公司","typeName":null,"infoStatusName":null,"dateDay":null,"orgNos":null,"nowTime":null,"countyName":null,"streetName":null,"villageName":null,"roadName":null,"communityName":null,"tranName":null,"sdLineName":null,"cityCode":"3340170","cityName":"国网浙江杭州市富阳区供电公司","provinceCode":null,"stopTime":"2019-07-26 22:52:43","powerType":"全部","powerOffArea":"110kV万市变:东源D339线-万市村5#骆家公变后段","powerOffReason":"(低压停电信息)低压开关跳闸","powerOffId":"2019072631020462"},{"poweroffId":2019072631020456,"sgpoweroffId":null,"subsName":"","lineName":"10kV勾运H328线","pubTranName":"长桥农居点2-1#公变,长桥农居点1-1#公变,长桥农居点1-2#公变,杭州余杭长桥股份经济合作社,长桥农居点2-2#公变,吴家厍综合楼公变,","scope":"浙江省-杭州市-余杭区-良渚街道管家塘社区-良运街,长桥行政村-良运街良渚街道-杭州余杭长桥股份经济合作社、良运家园一带","startTime":"2019-07-26 21:08:00","stopDate":"2019-07-27 03:08:00","orgNo":"3340140","typeCode":"电网故障停限电","poweroffArea":"110kV长桥变:勾运H328线长桥农居点分支箱后段","poweroffReason":"勾运H328线长桥农居点分支箱后段高压架空线断线故障 原停电结时间2019-07-26 23:08:00 变更停电结束时间原因：现场遇突发情况","powerTime":"2019-07-27 03:00:01","powerComm":"已送电","subsNo":"","lineNo":"","tgNo":"","tgName":null,"infoStatus":"1","orgName":"国网浙江杭州市余杭区供电有限公司","typeName":null,"infoStatusName":null,"dateDay":null,"orgNos":null,"nowTime":null,"countyName":null,"streetName":null,"villageName":null,"roadName":null,"communityName":null,"tranName":null,"sdLineName":null,"cityCode":"3340140","cityName":"国网浙江杭州市余杭区供电有限公司","provinceCode":null,"stopTime":"2019-07-27 03:08:00","powerType":"全部","powerOffArea":"110kV长桥变:勾运H328线长桥农居点分支箱后段","powerOffReason":"勾运H328线长桥农居点分支箱后段高压架空线断线故障 原停电结时间2019-07-26 23:08:00 变更停电结束时间原因：现场遇突发情况","powerOffId":"2019072631020456"},{"poweroffId":2019072631020455,"sgpoweroffId":null,"subsName":"","lineName":"10kV农校H413线","pubTranName":"良渚村张家桥公变,","scope":"浙江省-杭州市-余杭区-良渚街道-良渚行政村-良渚自然村一带","startTime":"2019-07-26 21:11:00","stopDate":"2019-07-26 23:11:00","orgNo":"3340140","typeCode":"电网故障停限电","poweroffArea":"35kV良渚变:农校H413线-张家桥后段","poweroffReason":"农校H413线-张家桥公变令克跌落故障","powerTime":"2019-07-26 23:00:16","powerComm":"已送电","subsNo":"","lineNo":"","tgNo":"","tgName":null,"infoStatus":"1","orgName":"国网浙江杭州市余杭区供电有限公司","typeName":null,"infoStatusName":null,"dateDay":null,"orgNos":null,"nowTime":null,"countyName":null,"streetName":null,"villageName":null,"roadName":null,"communityName":null,"tranName":null,"sdLineName":null,"cityCode":"3340140","cityName":"国网浙江杭州市余杭区供电有限公司","provinceCode":null,"stopTime":"2019-07-26 23:11:00","powerType":"全部","powerOffArea":"35kV良渚变:农校H413线-张家桥后段","powerOffReason":"农校H413线-张家桥公变令克跌落故障","powerOffId":"2019072631020455"},{"poweroffId":2019072631020453,"sgpoweroffId":null,"subsName":"","lineName":"10kV金明G343线","pubTranName":"石桥村小桥村五组公变,","scope":"浙江省-杭州市-余杭区-良渚街道-石桥行政村石桥自然村,小桥自然村一带","startTime":"2019-07-26 20:51:00","stopDate":"2019-07-26 22:30:00","orgNo":"3340140","typeCode":"电网故障停限电","poweroffArea":"110kV洛山变:金明G343线首端，小桥村五组，石桥村小桥村五组公变之间","poweroffReason":"(低压停电信息)金明G343线首端，小桥村五组，石桥村小桥村五组公变之间架空线断线故障","powerTime":"2019-07-26 21:32:00","powerComm":"已修复送电","subsNo":"","lineNo":"","tgNo":"","tgName":null,"infoStatus":"1","orgName":"国网浙江杭州市余杭区供电有限公司","typeName":null,"infoStatusName":null,"dateDay":null,"orgNos":null,"nowTime":null,"countyName":null,"streetName":null,"villageName":null,"roadName":null,"communityName":null,"tranName":null,"sdLineName":null,"cityCode":"3340140","cityName":"国网浙江杭州市余杭区供电有限公司","provinceCode":null,"stopTime":"2019-07-26 22:30:00","powerType":"全部","powerOffArea":"110kV洛山变:金明G343线首端，小桥村五组，石桥村小桥村五组公变之间","powerOffReason":"(低压停电信息)金明G343线首端，小桥村五组，石桥村小桥村五组公变之间架空线断线故障","powerOffId":"2019072631020453"},{"poweroffId":2019072631020452,"sgpoweroffId":null,"subsName":"","lineName":"10kV永立G270线","pubTranName":"栅庄桥村栅庄桥西公变,","scope":"浙江省-杭州市-余杭区-仁和街道-栅庄桥行政村俞家庄自然村,南陈家角自然村,栅庄桥自然村,翁家塘自然村一带","startTime":"2019-07-26 20:48:00","stopDate":"2019-07-27 02:00:00","orgNo":"3340140","typeCode":"电网故障停限电","poweroffArea":"110kV仁镇变:永立G270线-栅庄桥村栅庄桥西公变后段","poweroffReason":"(低压停电信息)栅庄桥村栅庄桥西公变后段低压架空线断线故障","powerTime":"2019-07-27 01:45:15","powerComm":"已送电","subsNo":"","lineNo":"","tgNo":"","tgName":null,"infoStatus":"1","orgName":"国网浙江杭州市余杭区供电有限公司","typeName":null,"infoStatusName":null,"dateDay":null,"orgNos":null,"nowTime":null,"countyName":null,"streetName":null,"villageName":null,"roadName":null,"communityName":null,"tranName":null,"sdLineName":null,"cityCode":"3340140","cityName":"国网浙江杭州市余杭区供电有限公司","provinceCode":null,"stopTime":"2019-07-27 02:00:00","powerType":"全部","powerOffArea":"110kV仁镇变:永立G270线-栅庄桥村栅庄桥西公变后段","powerOffReason":"(低压停电信息)栅庄桥村栅庄桥西公变后段低压架空线断线故障","powerOffId":"2019072631020452"},{"poweroffId":2019072631020451,"sgpoweroffId":null,"subsName":"","lineName":"10kV径山H545线","pubTranName":"绿景村汗岭1号公变,","scope":"浙江省-杭州市-余杭区-径山镇-长乐行政村-长乐片,径山镇-绿景行政村绿景自然村,汗岭自然村,冷水桥自然村一带","startTime":"2019-07-26 20:43:00","stopDate":"2019-07-26 22:43:00","orgNo":"3340140","typeCode":"电网故障停限电","poweroffArea":"110kV潘板变:径山H545线-绿景村汗岭1号公变后段","poweroffReason":"(低压停电信息)绿景村汗岭1号公变后段低压架空线断线故障","powerTime":"2019-07-26 22:28:28","powerComm":"已送电","subsNo":"","lineNo":"","tgNo":"","tgName":null,"infoStatus":"1","orgName":"国网浙江杭州市余杭区供电有限公司","typeName":null,"infoStatusName":null,"dateDay":null,"orgNos":null,"nowTime":null,"countyName":null,"streetName":null,"villageName":null,"roadName":null,"communityName":null,"tranName":null,"sdLineName":null,"cityCode":"3340140","cityName":"国网浙江杭州市余杭区供电有限公司","provinceCode":null,"stopTime":"2019-07-26 22:43:00","powerType":"全部","powerOffArea":"110kV潘板变:径山H545线-绿景村汗岭1号公变后段","powerOffReason":"(低压停电信息)绿景村汗岭1号公变后段低压架空线断线故障","powerOffId":"2019072631020451"},{"poweroffId":2019072631020445,"sgpoweroffId":null,"subsName":"","lineName":"10kV陶春H558线","pubTranName":"求是村大舍2号公变,","scope":"浙江省-杭州市-余杭区-径山镇-求是行政村陶桥自然村,求是自然村,大舍自然村一带","startTime":"2019-07-26 19:17:00","stopDate":"2019-07-26 23:50:00","orgNo":"3340140","typeCode":"电网故障停限电","poweroffArea":"110kV潘板变:陶春H558线求是村大舍2号公变配变","poweroffReason":"(低压停电信息)求是村大舍2号公变配变低压桩头故障。因现场抢修环境复杂，需延长抢修时间至23:50分","powerTime":"2019-07-26 23:42:24","powerComm":"已送电","subsNo":"","lineNo":"","tgNo":"","tgName":null,"infoStatus":"1","orgName":"国网浙江杭州市余杭区供电有限公司","typeName":null,"infoStatusName":null,"dateDay":null,"orgNos":null,"nowTime":null,"countyName":null,"streetName":null,"villageName":null,"roadName":null,"communityName":null,"tranName":null,"sdLineName":null,"cityCode":"3340140","cityName":"国网浙江杭州市余杭区供电有限公司","provinceCode":null,"stopTime":"2019-07-26 23:50:00","powerType":"全部","powerOffArea":"110kV潘板变:陶春H558线求是村大舍2号公变配变","powerOffReason":"(低压停电信息)求是村大舍2号公变配变低压桩头故障。因现场抢修环境复杂，需延长抢修时间至23:50分","powerOffId":"2019072631020445"},{"poweroffId":2019072631020439,"sgpoweroffId":null,"subsName":"","lineName":"10kV张房G090线","pubTranName":"星桥7组2号公变,","scope":"浙江省-杭州市-余杭区-星桥街道-星桥社区星桥,星桥五云中路,五云中路,星桥自然村，星桥菜场一带","startTime":"2019-07-26 19:17:00","stopDate":"2019-07-26 20:40:00","orgNo":"3340140","typeCode":"电网故障停限电","poweroffArea":"110kV星桥变:张房G090线-星桥7组2号公变后段","poweroffReason":"(低压停电信息)星桥7组2号公变后段低压出线烧损故障","powerTime":"2019-07-26 20:24:00","powerComm":"已送电","subsNo":"","lineNo":"","tgNo":"","tgName":null,"infoStatus":"1","orgName":"国网浙江杭州市余杭区供电有限公司","typeName":null,"infoStatusName":null,"dateDay":null,"orgNos":null,"nowTime":null,"countyName":null,"streetName":null,"villageName":null,"roadName":null,"communityName":null,"tranName":null,"sdLineName":null,"cityCode":"3340140","cityName":"国网浙江杭州市余杭区供电有限公司","provinceCode":null,"stopTime":"2019-07-26 20:40:00","powerType":"全部","powerOffArea":"110kV星桥变:张房G090线-星桥7组2号公变后段","powerOffReason":"(低压停电信息)星桥7组2号公变后段低压出线烧损故障","powerOffId":"2019072631020439"}],"pageModel":{"pageNow":1378,"totalCount":17789,"totalPage":1779,"tableRows":0,"pageCount":10,"beginCount":13770},"isExperi":"1"}