{"message":"","today":"2020-06-16","seleList":[{"poweroffId":2019072631020355,"sgpoweroffId":null,"subsName":"","lineName":"10kV高农D568线","pubTranName":"富阳之信汽车有限公司,杭州富阳富茂置业有限公司4#变,杭州富阳富茂置业有限公司3#变,杭州富阳富茂置业有限公司1#变,观前村10号黄泥山公变,观前村8号村中公变,杭州金畅汽车有限公司,杭州富阳富茂置业有限公司2#变,杭州富阳富茂置业有限公司6#变,观前村2#黄泥山公变,富阳宝信汽车销售服务有限公司,中铁一局集团第五工程有限公司1#变,浙江和诚富洋汽车有限公司,富阳市奥达汽车销售服务有限公司,富阳市腾远汽车有限公司,富阳元福汽车有限公司1#变,杭州富阳之菱汽车有限公司 1#,杭州富阳富茂置业有限公司7#变,观前村11号下牌楼北公变,富阳之菱汽车有限公司 1#,观前村5#下牌楼公变,杭州富阳富茂置业有限公司5#变,","scope":"浙江省-杭州市-富阳区-银湖街道-观前行政村(观前自然村,黄泥山自然村),银湖街道(高桥工业园区-黄泥山自然村,高桥行政村-黄泥山自然村);富春街道,银湖街道(杭州富阳奥达汽车销售服务有限公司,杭州富阳腾远汽车有限公司,杭州富阳元福汽车有限公司,杭州富阳富茂置业有限公司,杭州之信汽车有限公司,杭州金畅汽车有限公司,杭州富阳宝信汽车销售服务有限公司,浙江元通富洋汽车有限公司)","startTime":"2019-07-26 16:07:00","stopDate":"2019-07-26 18:07:00","orgNo":"3340170","typeCode":"电网故障停限电","poweroffArea":"110kV高桥变:高农D568线热电厂分线开关后段","poweroffReason":"高压开关跳闸","powerTime":"2019-07-26 17:28:04","powerComm":"已送电","subsNo":"","lineNo":"","tgNo":"","tgName":null,"infoStatus":"1","orgName":"国网浙江杭州市富阳区供电公司","typeName":null,"infoStatusName":null,"dateDay":null,"orgNos":null,"nowTime":null,"countyName":null,"streetName":null,"villageName":null,"roadName":null,"communityName":null,"tranName":null,"sdLineName":null,"cityCode":"3340170","cityName":"国网浙江杭州市富阳区供电公司","provinceCode":null,"stopTime":"2019-07-26 18:07:00","powerType":"全部","powerOffArea":"110kV高桥变:高农D568线热电厂分线开关后段","powerOffReason":"高压开关跳闸","powerOffId":"2019072631020355"},{"poweroffId":2019072631020348,"sgpoweroffId":null,"subsName":"","lineName":"10kV南津D138线","pubTranName":"广福寺1#公变,","scope":"浙江省杭州市富阳区新登镇南四行政村广福寺一带","startTime":"2019-08-09 06:00:00","stopDate":"2019-08-09 13:30:00","orgNo":"3340170","typeCode":"计划停电","poweroffArea":"110kV新登变:南津D138线广福寺1#公变","poweroffReason":"(低压停电信息)锯板厂03线架设导线JKLYJ-70*4*10档、拆除导线JKLYJ-35*4*5档、导线移位JKLYJ-70*4*1档、安装横担13付、拉线5付、人工拔杆7米8支","powerTime":"2019-08-09 13:15:17","powerComm":"已送电","subsNo":"","lineNo":"","tgNo":"","tgName":null,"infoStatus":"1","orgName":"国网浙江杭州市富阳区供电公司","typeName":null,"infoStatusName":null,"dateDay":null,"orgNos":null,"nowTime":null,"countyName":null,"streetName":null,"villageName":null,"roadName":null,"communityName":null,"tranName":null,"sdLineName":null,"cityCode":"3340170","cityName":"国网浙江杭州市富阳区供电公司","provinceCode":null,"stopTime":"2019-08-09 13:30:00","powerType":"全部","powerOffArea":"110kV新登变:南津D138线广福寺1#公变","powerOffReason":"(低压停电信息)锯板厂03线架设导线JKLYJ-70*4*10档、拆除导线JKLYJ-35*4*5档、导线移位JKLYJ-70*4*1档、安装横担13付、拉线5付、人工拔杆7米8支","powerOffId":"2019072631020348"},{"poweroffId":2019072631020347,"sgpoweroffId":null,"subsName":"","lineName":"10kV灵山D143线","pubTranName":"南四村3#黄塘坞公变,","scope":"浙江省杭州市富阳区新登镇南四政村黄塘坞自然村一带","startTime":"2019-08-08 06:00:00","stopDate":"2019-08-08 13:30:00","orgNo":"3340170","typeCode":"计划停电","poweroffArea":"110kV新登变:灵山D143线南四村3#黄塘坞公变","poweroffReason":"(低压停电信息)黄塘坞03线、架设JKLYJ-70*4*9档、安装横担12付，拉线6支、拆除旧导线JKLYJ-35*4*7档、人工拔旧杆7支、拆除旧横担7付，拉线3支","powerTime":"2019-08-08 13:00:23","powerComm":"已送电","subsNo":"","lineNo":"","tgNo":"","tgName":null,"infoStatus":"1","orgName":"国网浙江杭州市富阳区供电公司","typeName":null,"infoStatusName":null,"dateDay":null,"orgNos":null,"nowTime":null,"countyName":null,"streetName":null,"villageName":null,"roadName":null,"communityName":null,"tranName":null,"sdLineName":null,"cityCode":"3340170","cityName":"国网浙江杭州市富阳区供电公司","provinceCode":null,"stopTime":"2019-08-08 13:30:00","powerType":"全部","powerOffArea":"110kV新登变:灵山D143线南四村3#黄塘坞公变","powerOffReason":"(低压停电信息)黄塘坞03线、架设JKLYJ-70*4*9档、安装横担12付，拉线6支、拆除旧导线JKLYJ-35*4*7档、人工拔旧杆7支、拆除旧横担7付，拉线3支","powerOffId":"2019072631020347"},{"poweroffId":2019072631020322,"sgpoweroffId":null,"subsName":"","lineName":"10kV浮桥T116线","pubTranName":"阆苑村4号公变,","scope":"浙江省-杭州市-桐庐县-桐君街道-浪苑行政村(荣店自然村)","startTime":"2019-08-08 07:00:00","stopDate":"2019-08-08 12:00:00","orgNo":"3340150","typeCode":"计划停电","poweroffArea":"110kV桐庐变:浮桥T116线-里包F3051令克后段","poweroffReason":"阆苑村4号公变增容","powerTime":"2019-08-08 11:50:29","powerComm":"已送电。","subsNo":"","lineNo":"","tgNo":"","tgName":null,"infoStatus":"1","orgName":"国网浙江桐庐县供电公司","typeName":null,"infoStatusName":null,"dateDay":null,"orgNos":null,"nowTime":null,"countyName":null,"streetName":null,"villageName":null,"roadName":null,"communityName":null,"tranName":null,"sdLineName":null,"cityCode":"3340150","cityName":"国网浙江桐庐县供电公司","provinceCode":null,"stopTime":"2019-08-08 12:00:00","powerType":"全部","powerOffArea":"110kV桐庐变:浮桥T116线-里包F3051令克后段","powerOffReason":"阆苑村4号公变增容","powerOffId":"2019072631020322"},{"poweroffId":2019072631020318,"sgpoweroffId":null,"subsName":"","lineName":"10kV杨家T106线","pubTranName":"麻蓬村1号公变,","scope":"浙江省-杭州市-桐庐县-桐君街道(横塘自然村)","startTime":"2019-08-07 07:00:00","stopDate":"2019-08-07 12:00:00","orgNo":"3340150","typeCode":"计划停电","poweroffArea":"110kV桐庐变:杨家T106线-里包F3047令克后段","poweroffReason":"麻蓬村1号公变增容","powerTime":"2019-08-07 11:42:23","powerComm":"已送电","subsNo":"","lineNo":"","tgNo":"","tgName":null,"infoStatus":"1","orgName":"国网浙江桐庐县供电公司","typeName":null,"infoStatusName":null,"dateDay":null,"orgNos":null,"nowTime":null,"countyName":null,"streetName":null,"villageName":null,"roadName":null,"communityName":null,"tranName":null,"sdLineName":null,"cityCode":"3340150","cityName":"国网浙江桐庐县供电公司","provinceCode":null,"stopTime":"2019-08-07 12:00:00","powerType":"全部","powerOffArea":"110kV桐庐变:杨家T106线-里包F3047令克后段","powerOffReason":"麻蓬村1号公变增容","powerOffId":"2019072631020318"},{"poweroffId":2019072631020317,"sgpoweroffId":null,"subsName":"","lineName":"10kV天钟D434线","pubTranName":"太平村3#超市公变,","scope":"浙江省-杭州市-富阳区-春江街道-太平行政村-太平自然村","startTime":"2019-07-26 15:42:23","stopDate":"2019-07-26 17:42:23","orgNo":"3340170","typeCode":"电网故障停限电","poweroffArea":"110kV天钟变:天钟D434线-太平村3#超市公变后段","poweroffReason":"(低压停电信息)低压开关跳闸","powerTime":"2019-07-26 16:52:23","powerComm":"已送电","subsNo":"","lineNo":"","tgNo":"","tgName":null,"infoStatus":"1","orgName":"国网浙江杭州市富阳区供电公司","typeName":null,"infoStatusName":null,"dateDay":null,"orgNos":null,"nowTime":null,"countyName":null,"streetName":null,"villageName":null,"roadName":null,"communityName":null,"tranName":null,"sdLineName":null,"cityCode":"3340170","cityName":"国网浙江杭州市富阳区供电公司","provinceCode":null,"stopTime":"2019-07-26 17:42:23","powerType":"全部","powerOffArea":"110kV天钟变:天钟D434线-太平村3#超市公变后段","powerOffReason":"(低压停电信息)低压开关跳闸","powerOffId":"2019072631020317"},{"poweroffId":2019072631020315,"sgpoweroffId":null,"subsName":"","lineName":"10kV浮桥T116线","pubTranName":"阆苑村2号公变,","scope":"浙江省-杭州市-桐庐县-桐君街道-浪苑行政村(塘园里自然村)","startTime":"2019-08-06 06:30:00","stopDate":"2019-08-06 14:00:00","orgNo":"3340150","typeCode":"计划停电","poweroffArea":"110kV桐庐变:浮桥T116线-塘园F3732后段","poweroffReason":"杭州桐庐桐君浮桥116线联络改造工程","powerTime":"2019-08-06 13:42:22","powerComm":"已送电","subsNo":"","lineNo":"","tgNo":"","tgName":null,"infoStatus":"1","orgName":"国网浙江桐庐县供电公司","typeName":null,"infoStatusName":null,"dateDay":null,"orgNos":null,"nowTime":null,"countyName":null,"streetName":null,"villageName":null,"roadName":null,"communityName":null,"tranName":null,"sdLineName":null,"cityCode":"3340150","cityName":"国网浙江桐庐县供电公司","provinceCode":null,"stopTime":"2019-08-06 14:00:00","powerType":"全部","powerOffArea":"110kV桐庐变:浮桥T116线-塘园F3732后段","powerOffReason":"杭州桐庐桐君浮桥116线联络改造工程","powerOffId":"2019072631020315"},{"poweroffId":2019072631020313,"sgpoweroffId":null,"subsName":"","lineName":"10kV浮桥T116线","pubTranName":"阆苑村1号公变,","scope":"浙江省-杭州市-桐庐县-桐君街道-浪苑行政村(对门自然村)","startTime":"2019-08-06 06:30:00","stopDate":"2019-08-06 14:00:00","orgNo":"3340150","typeCode":"计划停电","poweroffArea":"110kV桐庐变:浮桥T116线-对门F3731后段","poweroffReason":"杭州桐庐桐君浮桥116线联络改造工程","powerTime":"2019-08-06 13:54:28","powerComm":"已送电","subsNo":"","lineNo":"","tgNo":"","tgName":null,"infoStatus":"1","orgName":"国网浙江桐庐县供电公司","typeName":null,"infoStatusName":null,"dateDay":null,"orgNos":null,"nowTime":null,"countyName":null,"streetName":null,"villageName":null,"roadName":null,"communityName":null,"tranName":null,"sdLineName":null,"cityCode":"3340150","cityName":"国网浙江桐庐县供电公司","provinceCode":null,"stopTime":"2019-08-06 14:00:00","powerType":"全部","powerOffArea":"110kV桐庐变:浮桥T116线-对门F3731后段","powerOffReason":"杭州桐庐桐君浮桥116线联络改造工程","powerOffId":"2019072631020313"},{"poweroffId":2019072631020281,"sgpoweroffId":null,"subsName":"","lineName":"10kV园区R106线","pubTranName":"淳安中学3#配变,淳安中学1#配变,淳安中学2#配变,","scope":"浙江省-杭州市-淳安县-千岛湖镇-南苑社区-浙江省淳安中学","startTime":"2019-08-05 07:00:00","stopDate":"2019-08-05 15:30:00","orgNo":"3340190","typeCode":"计划停电","poweroffArea":"110kV千岛湖变:园区R106线-淳中0933线负荷开关后段","poweroffReason":"1.淳中0933线拆除2.南山R108线电源电缆搭接及专变送电3.珍南R399线江庭开关站专变送电","powerTime":"2019-08-05 14:42:43","powerComm":"现场工作已完成","subsNo":"","lineNo":"","tgNo":"","tgName":null,"infoStatus":"1","orgName":"国网浙江淳安县供电有限公司","typeName":null,"infoStatusName":null,"dateDay":null,"orgNos":null,"nowTime":null,"countyName":null,"streetName":null,"villageName":null,"roadName":null,"communityName":null,"tranName":null,"sdLineName":null,"cityCode":"3340190","cityName":"国网浙江淳安县供电有限公司","provinceCode":null,"stopTime":"2019-08-05 15:30:00","powerType":"全部","powerOffArea":"110kV千岛湖变:园区R106线-淳中0933线负荷开关后段","powerOffReason":"1.淳中0933线拆除2.南山R108线电源电缆搭接及专变送电3.珍南R399线江庭开关站专变送电","powerOffId":"2019072631020281"},{"poweroffId":2019072631020280,"sgpoweroffId":null,"subsName":"","lineName":"10kV紫光R238线","pubTranName":"浙江省淳安县人和医疗用品工贸有限公司专变,","scope":"浙江省-杭州市-淳安县-千岛湖镇-马路行政村-浙江省淳安县人和医疗用品工贸有限公司","startTime":"2019-08-06 08:00:00","stopDate":"2019-08-06 14:30:00","orgNo":"3340190","typeCode":"计划停电","poweroffArea":"35kV鼓山变:紫光R238线-人和医疗1166线母线隔离开关后段","poweroffReason":"浙江省淳安县人和医疗用品工贸有限公司增容","powerTime":"2019-08-06 13:48:51","powerComm":"现场工作已完成。","subsNo":"","lineNo":"","tgNo":"","tgName":null,"infoStatus":"1","orgName":"国网浙江淳安县供电有限公司","typeName":null,"infoStatusName":null,"dateDay":null,"orgNos":null,"nowTime":null,"countyName":null,"streetName":null,"villageName":null,"roadName":null,"communityName":null,"tranName":null,"sdLineName":null,"cityCode":"3340190","cityName":"国网浙江淳安县供电有限公司","provinceCode":null,"stopTime":"2019-08-06 14:30:00","powerType":"全部","powerOffArea":"35kV鼓山变:紫光R238线-人和医疗1166线母线隔离开关后段","powerOffReason":"浙江省淳安县人和医疗用品工贸有限公司增容","powerOffId":"2019072631020280"}],"pageModel":{"pageNow":1380,"totalCount":17789,"totalPage":1779,"tableRows":0,"pageCount":10,"beginCount":13790},"isExperi":"1"}