{"message":"","today":"2020-06-16","seleList":[{"poweroffId":2019072631020270,"sgpoweroffId":null,"subsName":"","lineName":"10kV新华D320线","pubTranName":"东洲新沙村4号新区公变,","scope":"浙江省-杭州市-富阳区-东洲街道-新沙行政村-新沙自然村","startTime":"2019-08-05 06:30:00","stopDate":"2019-08-05 10:30:00","orgNo":"3340170","typeCode":"计划停电","poweroffArea":"110kV建设变:新华D320线-东洲新沙村4号新区公变低压开关后段","poweroffReason":"(低压停电信息)迎东2019年新沙村5#村中公变等0.4kV低压线路改造工程拆装JKLYJ4*120*1档等工作。","powerTime":"2019-08-05 10:21:43","powerComm":"已送电","subsNo":"","lineNo":"","tgNo":"","tgName":null,"infoStatus":"1","orgName":"国网浙江杭州市富阳区供电公司","typeName":null,"infoStatusName":null,"dateDay":null,"orgNos":null,"nowTime":null,"countyName":null,"streetName":null,"villageName":null,"roadName":null,"communityName":null,"tranName":null,"sdLineName":null,"cityCode":"3340170","cityName":"国网浙江杭州市富阳区供电公司","provinceCode":null,"stopTime":"2019-08-05 10:30:00","powerType":"全部","powerOffArea":"110kV建设变:新华D320线-东洲新沙村4号新区公变低压开关后段","powerOffReason":"(低压停电信息)迎东2019年新沙村5#村中公变等0.4kV低压线路改造工程拆装JKLYJ4*120*1档等工作。","powerOffId":"2019072631020270"},{"poweroffId":2019072631020269,"sgpoweroffId":null,"subsName":"","lineName":"10kV上陈D295线","pubTranName":"上陈村7#后山畈公变,","scope":"浙江省杭州市富阳区银湖街道上陈村后山畈村一带","startTime":"2019-08-06 06:30:00","stopDate":"2019-08-06 13:30:00","orgNo":"3340170","typeCode":"计划停电","poweroffArea":"35kV新义变:上陈D295线-上陈村7#后山畈公变低压开关后段","poweroffReason":"(低压停电信息)迎东2019年沈家坞9#里村口公变等低压台区改造工程移装JKLYJ4*120导线100米，新装进户35平方电缆38米，吊车立杆2根，搭接等工作。","powerTime":"2019-08-06 13:20:44","powerComm":"已送电","subsNo":"","lineNo":"","tgNo":"","tgName":null,"infoStatus":"1","orgName":"国网浙江杭州市富阳区供电公司","typeName":null,"infoStatusName":null,"dateDay":null,"orgNos":null,"nowTime":null,"countyName":null,"streetName":null,"villageName":null,"roadName":null,"communityName":null,"tranName":null,"sdLineName":null,"cityCode":"3340170","cityName":"国网浙江杭州市富阳区供电公司","provinceCode":null,"stopTime":"2019-08-06 13:30:00","powerType":"全部","powerOffArea":"35kV新义变:上陈D295线-上陈村7#后山畈公变低压开关后段","powerOffReason":"(低压停电信息)迎东2019年沈家坞9#里村口公变等低压台区改造工程移装JKLYJ4*120导线100米，新装进户35平方电缆38米，吊车立杆2根，搭接等工作。","powerOffId":"2019072631020269"},{"poweroffId":2019072631020267,"sgpoweroffId":null,"subsName":"","lineName":"10kV张家D421线","pubTranName":"五星村4#新区公变,","scope":"浙江省-杭州市-富阳区-东洲街道-学校沙行政村-五星自然村","startTime":"2019-08-06 09:00:00","stopDate":"2019-08-06 16:30:00","orgNo":"3340170","typeCode":"计划停电","poweroffArea":"110kV东洲变:新华D320线-五星村4#新区公变低压开关后段","poweroffReason":"(低压停电信息)迎东2019年虎哨杏村3#麻墩公变等10kV配变增容布点工程：五星村4#新区公变01线低压线路1#6杆后段改接至新上五星村7#村口公变等工作","powerTime":"2019-08-06 16:21:42","powerComm":"已送电","subsNo":"","lineNo":"","tgNo":"","tgName":null,"infoStatus":"1","orgName":"国网浙江杭州市富阳区供电公司","typeName":null,"infoStatusName":null,"dateDay":null,"orgNos":null,"nowTime":null,"countyName":null,"streetName":null,"villageName":null,"roadName":null,"communityName":null,"tranName":null,"sdLineName":null,"cityCode":"3340170","cityName":"国网浙江杭州市富阳区供电公司","provinceCode":null,"stopTime":"2019-08-06 16:30:00","powerType":"全部","powerOffArea":"110kV东洲变:新华D320线-五星村4#新区公变低压开关后段","powerOffReason":"(低压停电信息)迎东2019年虎哨杏村3#麻墩公变等10kV配变增容布点工程：五星村4#新区公变01线低压线路1#6杆后段改接至新上五星村7#村口公变等工作","powerOffId":"2019072631020267"},{"poweroffId":2019072631020265,"sgpoweroffId":null,"subsName":"","lineName":"10kV新联D211线","pubTranName":"新桥村2#桥头公变,","scope":"浙江省杭州市富阳区银湖街道高桥村新桥村一带","startTime":"2019-08-07 06:40:00","stopDate":"2019-08-07 09:30:00","orgNo":"3340170","typeCode":"计划停电","poweroffArea":"110kV银湖变:新联D211线-新桥村2#桥头公变低压开关后段","poweroffReason":"(低压停电信息)迎东缺陷处理工程安装低压出线电缆1根，搭接等工作","powerTime":"2019-08-07 09:15:20","powerComm":"已送电","subsNo":"","lineNo":"","tgNo":"","tgName":null,"infoStatus":"1","orgName":"国网浙江杭州市富阳区供电公司","typeName":null,"infoStatusName":null,"dateDay":null,"orgNos":null,"nowTime":null,"countyName":null,"streetName":null,"villageName":null,"roadName":null,"communityName":null,"tranName":null,"sdLineName":null,"cityCode":"3340170","cityName":"国网浙江杭州市富阳区供电公司","provinceCode":null,"stopTime":"2019-08-07 09:30:00","powerType":"全部","powerOffArea":"110kV银湖变:新联D211线-新桥村2#桥头公变低压开关后段","powerOffReason":"(低压停电信息)迎东缺陷处理工程安装低压出线电缆1根，搭接等工作","powerOffId":"2019072631020265"},{"poweroffId":2019072631020264,"sgpoweroffId":null,"subsName":"","lineName":"10kV严家6476线","pubTranName":"杭州运河(江干段)综合整治与保护开发指挥部办公室2,杭州运河(江干段)综合整治与保护开发指挥部办公室1,","scope":"浙江省杭州市江干区运河综指施一、二工地","startTime":"2019-08-07 09:30:00","stopDate":"2019-08-07 17:00:00","orgNo":"3340101","typeCode":"计划停电","poweroffArea":"110kV五福变:严家6476线-运综施线后段","poweroffReason":"(低压停电信息)新塘苑小区塘严站换柜工程（古荡1811HZ1800WS01A0000000）塘严站I段更换","powerTime":"2019-08-07 16:29:02","powerComm":"已送电","subsNo":"","lineNo":"","tgNo":"","tgName":null,"infoStatus":"1","orgName":"浙江杭州电力客户服务中心","typeName":null,"infoStatusName":null,"dateDay":null,"orgNos":null,"nowTime":null,"countyName":null,"streetName":null,"villageName":null,"roadName":null,"communityName":null,"tranName":null,"sdLineName":null,"cityCode":"3340101","cityName":"浙江杭州电力客户服务中心","provinceCode":null,"stopTime":"2019-08-07 17:00:00","powerType":"全部","powerOffArea":"110kV五福变:严家6476线-运综施线后段","powerOffReason":"(低压停电信息)新塘苑小区塘严站换柜工程（古荡1811HZ1800WS01A0000000）塘严站I段更换","powerOffId":"2019072631020264"},{"poweroffId":2019072631020263,"sgpoweroffId":null,"subsName":"","lineName":"10kV建材6470线","pubTranName":"景湘,杰立建设施,景四三变I,景四三变II,景四二变,景四四变I,景四一变,景四四变II,","scope":"浙江省杭州市江干区景芳四区26幢、28幢、32幢、居委会附近一带，25幢、27幢、29幢、30幢、31幢附近一带，33幢—35幢、37幢附近一带，38幢—40幢及商铺、春芽实验小学附近一带，13幢至16幢、18幢至23幢附近一带，凯创园社区街、景芳四区3—9幢、12幢、大地幼儿园、杭州公交景芳四区站附近一带，杰力建设工地","startTime":"2019-08-08 09:30:00","stopDate":"2019-08-08 17:00:00","orgNo":"3340101","typeCode":"计划停电","poweroffArea":"110kV五福变:建材6470线首端，塘严64703线，严新64704线之间","poweroffReason":"(低压停电信息)(低压停电信息)新塘苑小区塘严站换柜工程（古荡1811HZ1800WS01A0000000）塘严站II段更换","powerTime":"2019-08-08 16:02:59","powerComm":"已送电","subsNo":"","lineNo":"","tgNo":"","tgName":null,"infoStatus":"1","orgName":"浙江杭州电力客户服务中心","typeName":null,"infoStatusName":null,"dateDay":null,"orgNos":null,"nowTime":null,"countyName":null,"streetName":null,"villageName":null,"roadName":null,"communityName":null,"tranName":null,"sdLineName":null,"cityCode":"3340101","cityName":"浙江杭州电力客户服务中心","provinceCode":null,"stopTime":"2019-08-08 17:00:00","powerType":"全部","powerOffArea":"110kV五福变:建材6470线首端，塘严64703线，严新64704线之间","powerOffReason":"(低压停电信息)(低压停电信息)新塘苑小区塘严站换柜工程（古荡1811HZ1800WS01A0000000）塘严站II段更换","powerOffId":"2019072631020263"},{"poweroffId":2019072631020262,"sgpoweroffId":null,"subsName":"","lineName":"10kV张家D421线","pubTranName":"学校沙6#新区2公变,","scope":"浙江省-杭州市-富阳区-东洲街道-学校沙行政村-学校沙自然村","startTime":"2019-08-07 09:00:00","stopDate":"2019-08-07 16:30:00","orgNo":"3340170","typeCode":"计划停电","poweroffArea":"110kV东洲变:张家D421线-学校沙6#新区2公变低压开关后段","poweroffReason":"(低压停电信息)迎东2019年虎哨杏村3#麻墩公变等10kV配变增容布点工程：学校沙6#新区2公变01线、02线低压线路改接至线学校沙15#码头路公变等工作","powerTime":"2019-08-07 16:20:19","powerComm":"已送电","subsNo":"","lineNo":"","tgNo":"","tgName":null,"infoStatus":"1","orgName":"国网浙江杭州市富阳区供电公司","typeName":null,"infoStatusName":null,"dateDay":null,"orgNos":null,"nowTime":null,"countyName":null,"streetName":null,"villageName":null,"roadName":null,"communityName":null,"tranName":null,"sdLineName":null,"cityCode":"3340170","cityName":"国网浙江杭州市富阳区供电公司","provinceCode":null,"stopTime":"2019-08-07 16:30:00","powerType":"全部","powerOffArea":"110kV东洲变:张家D421线-学校沙6#新区2公变低压开关后段","powerOffReason":"(低压停电信息)迎东2019年虎哨杏村3#麻墩公变等10kV配变增容布点工程：学校沙6#新区2公变01线、02线低压线路改接至线学校沙15#码头路公变等工作","powerOffId":"2019072631020262"},{"poweroffId":2019072631020261,"sgpoweroffId":null,"subsName":"","lineName":"10kV张家D421线","pubTranName":"学校沙5号新区1公变,","scope":"浙江省-杭州市-富阳区-东洲街道-学校沙行政村-学校沙自然村","startTime":"2019-08-08 09:00:00","stopDate":"2019-08-08 16:30:00","orgNo":"3340170","typeCode":"计划停电","poweroffArea":"110kV东洲变:张家D421线-学校沙5号新区1公变低压开关后段","poweroffReason":"(低压停电信息)迎东2019年虎哨杏村3#麻墩公变等10kV配变增容布点工程：学校沙5#新区1公变01线低压电缆拆除斌改接至学校沙13#村委公变等工作","powerTime":"2019-08-08 16:00:20","powerComm":"已送电","subsNo":"","lineNo":"","tgNo":"","tgName":null,"infoStatus":"1","orgName":"国网浙江杭州市富阳区供电公司","typeName":null,"infoStatusName":null,"dateDay":null,"orgNos":null,"nowTime":null,"countyName":null,"streetName":null,"villageName":null,"roadName":null,"communityName":null,"tranName":null,"sdLineName":null,"cityCode":"3340170","cityName":"国网浙江杭州市富阳区供电公司","provinceCode":null,"stopTime":"2019-08-08 16:30:00","powerType":"全部","powerOffArea":"110kV东洲变:张家D421线-学校沙5号新区1公变低压开关后段","powerOffReason":"(低压停电信息)迎东2019年虎哨杏村3#麻墩公变等10kV配变增容布点工程：学校沙5#新区1公变01线低压电缆拆除斌改接至学校沙13#村委公变等工作","powerOffId":"2019072631020261"},{"poweroffId":2019072631020247,"sgpoweroffId":null,"subsName":"","lineName":"10kV电料V214线","pubTranName":"科技大楼公变,","scope":"浙江省-杭州市-临安市-锦城街道-科技大楼一带。","startTime":"2019-08-09 07:00:00","stopDate":"2019-08-09 14:50:00","orgNo":"3340160","typeCode":"计划停电","poweroffArea":"110kV锦城变:电料V214线-科技大楼公变后段","poweroffReason":"杭州临安10千伏临安人家隐患美变等集中更换治理工程","powerTime":"2019-08-09 14:40:12","powerComm":"已送电","subsNo":"","lineNo":"","tgNo":"","tgName":null,"infoStatus":"1","orgName":"国网浙江临安市供电公司","typeName":null,"infoStatusName":null,"dateDay":null,"orgNos":null,"nowTime":null,"countyName":null,"streetName":null,"villageName":null,"roadName":null,"communityName":null,"tranName":null,"sdLineName":null,"cityCode":"3340160","cityName":"国网浙江临安市供电公司","provinceCode":null,"stopTime":"2019-08-09 14:50:00","powerType":"全部","powerOffArea":"110kV锦城变:电料V214线-科技大楼公变后段","powerOffReason":"杭州临安10千伏临安人家隐患美变等集中更换治理工程","powerOffId":"2019072631020247"},{"poweroffId":2019072631020239,"sgpoweroffId":null,"subsName":"","lineName":"10kV湘主D286线","pubTranName":"马弓村3#丹山脚公变,","scope":"浙江省杭州市富阳区新登镇马弓行政村丹山脚自然村一带","startTime":"2019-08-05 06:00:00","stopDate":"2019-08-05 13:30:00","orgNo":"3340170","typeCode":"计划停电","poweroffArea":"110kV清泉变:湘主D286线-马弓村3#丹山脚公变低压开关后段","poweroffReason":"(低压停电信息)10KV湘主D286线马弓村新增公变（未通电）架设JKLYJ-120*4*8档、安装横担拉线、导线割接、新敷设YJV22-4*150*25米、马弓村3#丹山脚公变01线5-2#杆至5-3#杆拆除JKLYJ-70*4*1档","powerTime":"2019-08-05 13:15:13","powerComm":"已送电","subsNo":"","lineNo":"","tgNo":"","tgName":null,"infoStatus":"1","orgName":"国网浙江杭州市富阳区供电公司","typeName":null,"infoStatusName":null,"dateDay":null,"orgNos":null,"nowTime":null,"countyName":null,"streetName":null,"villageName":null,"roadName":null,"communityName":null,"tranName":null,"sdLineName":null,"cityCode":"3340170","cityName":"国网浙江杭州市富阳区供电公司","provinceCode":null,"stopTime":"2019-08-05 13:30:00","powerType":"全部","powerOffArea":"110kV清泉变:湘主D286线-马弓村3#丹山脚公变低压开关后段","powerOffReason":"(低压停电信息)10KV湘主D286线马弓村新增公变（未通电）架设JKLYJ-120*4*8档、安装横担拉线、导线割接、新敷设YJV22-4*150*25米、马弓村3#丹山脚公变01线5-2#杆至5-3#杆拆除JKLYJ-70*4*1档","powerOffId":"2019072631020239"}],"pageModel":{"pageNow":1381,"totalCount":17789,"totalPage":1779,"tableRows":0,"pageCount":10,"beginCount":13800},"isExperi":"1"}