{"message":"","today":"2020-06-16","seleList":[{"poweroffId":2019072631020205,"sgpoweroffId":null,"subsName":"","lineName":"10kV杨桥V720线","pubTranName":"金岫村[金岫],","scope":"浙江省杭州市临安区太湖源镇金岫行政村(施家自然村,金岫自然村)一带","startTime":"2019-08-07 07:00:00","stopDate":"2019-08-07 15:00:00","orgNo":"3340160","typeCode":"计划停电","poweroffArea":"110kV杨岭变:杨桥V720线-金岫村[金岫]后段","poweroffReason":"杆位调线","powerTime":"2019-08-07 14:50:20","powerComm":"已送电","subsNo":"","lineNo":"","tgNo":"","tgName":null,"infoStatus":"1","orgName":"国网浙江临安市供电公司","typeName":null,"infoStatusName":null,"dateDay":null,"orgNos":null,"nowTime":null,"countyName":null,"streetName":null,"villageName":null,"roadName":null,"communityName":null,"tranName":null,"sdLineName":null,"cityCode":"3340160","cityName":"国网浙江临安市供电公司","provinceCode":null,"stopTime":"2019-08-07 15:00:00","powerType":"全部","powerOffArea":"110kV杨岭变:杨桥V720线-金岫村[金岫]后段","powerOffReason":"杆位调线","powerOffId":"2019072631020205"},{"poweroffId":2019072631020203,"sgpoweroffId":null,"subsName":"","lineName":"10kV贤德D333线","pubTranName":"洞桥村2#河西公变,","scope":"浙江省杭州市富阳区洞桥镇洞桥行政村河西自然村一带","startTime":"2019-08-08 06:00:00","stopDate":"2019-08-08 12:00:00","orgNo":"3340170","typeCode":"计划停电","poweroffArea":"110kV万市变:贤德D333线-洞桥村2#河西公变低压开关后段","poweroffReason":"(低压停电信息)徐家01线更换照明表箱97只、动力表箱4只等工作。","powerTime":"2019-08-08 11:30:45","powerComm":"已送电","subsNo":"","lineNo":"","tgNo":"","tgName":null,"infoStatus":"1","orgName":"国网浙江杭州市富阳区供电公司","typeName":null,"infoStatusName":null,"dateDay":null,"orgNos":null,"nowTime":null,"countyName":null,"streetName":null,"villageName":null,"roadName":null,"communityName":null,"tranName":null,"sdLineName":null,"cityCode":"3340170","cityName":"国网浙江杭州市富阳区供电公司","provinceCode":null,"stopTime":"2019-08-08 12:00:00","powerType":"全部","powerOffArea":"110kV万市变:贤德D333线-洞桥村2#河西公变低压开关后段","powerOffReason":"(低压停电信息)徐家01线更换照明表箱97只、动力表箱4只等工作。","powerOffId":"2019072631020203"},{"poweroffId":2019072631020202,"sgpoweroffId":null,"subsName":"","lineName":"10kV吴马V493线","pubTranName":"金马村[官塘潭]公变,","scope":"浙江省杭州市临安区锦北街道金马行政村官塘头自然村一带","startTime":"2019-08-06 07:30:00","stopDate":"2019-08-06 12:30:00","orgNo":"3340160","typeCode":"计划停电","poweroffArea":"110kV平山变:吴马V493线-上东分线16#后段","poweroffReason":"杆位调线","powerTime":"2019-08-06 12:20:21","powerComm":"全部送电","subsNo":"","lineNo":"","tgNo":"","tgName":null,"infoStatus":"1","orgName":"国网浙江临安市供电公司","typeName":null,"infoStatusName":null,"dateDay":null,"orgNos":null,"nowTime":null,"countyName":null,"streetName":null,"villageName":null,"roadName":null,"communityName":null,"tranName":null,"sdLineName":null,"cityCode":"3340160","cityName":"国网浙江临安市供电公司","provinceCode":null,"stopTime":"2019-08-06 12:30:00","powerType":"全部","powerOffArea":"110kV平山变:吴马V493线-上东分线16#后段","powerOffReason":"杆位调线","powerOffId":"2019072631020202"},{"poweroffId":2019072631020198,"sgpoweroffId":null,"subsName":"","lineName":"10kV贤德D333线","pubTranName":"洞桥村11#朱家弄公变,","scope":"浙江省杭州市富阳区洞桥镇洞桥行政村朱家自然村一带","startTime":"2019-08-09 06:00:00","stopDate":"2019-08-09 12:00:00","orgNo":"3340170","typeCode":"计划停电","poweroffArea":"110kV万市变:贤德D333线-洞桥村11#朱家弄公变低压开关后段","poweroffReason":"(低压停电信息)朱家弄01线、朱家弄02线更换照明表箱27只、动力表箱2只等工作。","powerTime":"2019-08-09 11:51:42","powerComm":"已送电","subsNo":"","lineNo":"","tgNo":"","tgName":null,"infoStatus":"1","orgName":"国网浙江杭州市富阳区供电公司","typeName":null,"infoStatusName":null,"dateDay":null,"orgNos":null,"nowTime":null,"countyName":null,"streetName":null,"villageName":null,"roadName":null,"communityName":null,"tranName":null,"sdLineName":null,"cityCode":"3340170","cityName":"国网浙江杭州市富阳区供电公司","provinceCode":null,"stopTime":"2019-08-09 12:00:00","powerType":"全部","powerOffArea":"110kV万市变:贤德D333线-洞桥村11#朱家弄公变低压开关后段","powerOffReason":"(低压停电信息)朱家弄01线、朱家弄02线更换照明表箱27只、动力表箱2只等工作。","powerOffId":"2019072631020198"},{"poweroffId":2019072631020197,"sgpoweroffId":null,"subsName":"","lineName":"10kV钱龚V876线","pubTranName":"横岭村[周家]公变,","scope":"浙江省杭州市临安区锦南街道横岭行政村周家头自然村一带","startTime":"2019-08-05 07:30:00","stopDate":"2019-08-05 12:30:00","orgNo":"3340160","typeCode":"计划停电","poweroffArea":"110kV杨岱变:钱龚V876线-周家村支线开关后段","poweroffReason":"移位立杆","powerTime":"2019-08-05 12:20:20","powerComm":"已送电","subsNo":"","lineNo":"","tgNo":"","tgName":null,"infoStatus":"1","orgName":"国网浙江临安市供电公司","typeName":null,"infoStatusName":null,"dateDay":null,"orgNos":null,"nowTime":null,"countyName":null,"streetName":null,"villageName":null,"roadName":null,"communityName":null,"tranName":null,"sdLineName":null,"cityCode":"3340160","cityName":"国网浙江临安市供电公司","provinceCode":null,"stopTime":"2019-08-05 12:30:00","powerType":"全部","powerOffArea":"110kV杨岱变:钱龚V876线-周家村支线开关后段","powerOffReason":"移位立杆","powerOffId":"2019072631020197"},{"poweroffId":2019072631020195,"sgpoweroffId":null,"subsName":"","lineName":"10kV潘山V751线","pubTranName":"临安中大建设工程有限公司1#,临安市供电局路灯管理所,杭州明迪建材有限公司,临安市胜利宝国砂场,临安市宝国砂石有限公司,浙江丰铎建设有限公司1#,临安锦城长桥建材经营部,杭州明迪建材有限公司,杭州明迪建材有限公司,","scope":"浙江省杭州市临安区锦北街道潘山行政村(浙江丰铎建设有限公司,浙江中大建设工程有限公司),锦北街道新联行政村(临安锦城长桥建材经营部,杭州明迪建材有限公司,临安市胜利宝国砂场,临安市宝国砂石有限公司，临安市供电局路灯管理所)一带","startTime":"2019-08-05 07:00:00","stopDate":"2019-08-05 12:30:00","orgNo":"3340160","typeCode":"计划停电","poweroffArea":"110kV科创变:潘山V751线-新联站G3柜明迪建材分线后段","poweroffReason":"科技大道临时迁改工程--项目七部","powerTime":"2019-08-05 12:20:40","powerComm":"已送电","subsNo":"","lineNo":"","tgNo":"","tgName":null,"infoStatus":"1","orgName":"国网浙江临安市供电公司","typeName":null,"infoStatusName":null,"dateDay":null,"orgNos":null,"nowTime":null,"countyName":null,"streetName":null,"villageName":null,"roadName":null,"communityName":null,"tranName":null,"sdLineName":null,"cityCode":"3340160","cityName":"国网浙江临安市供电公司","provinceCode":null,"stopTime":"2019-08-05 12:30:00","powerType":"全部","powerOffArea":"110kV科创变:潘山V751线-新联站G3柜明迪建材分线后段","powerOffReason":"科技大道临时迁改工程--项目七部","powerOffId":"2019072631020195"},{"poweroffId":2019072631020194,"sgpoweroffId":null,"subsName":"","lineName":"10kV同心9821线","pubTranName":"宣家(8-1)农,","scope":"浙江省杭州市江干区宣家埠村四区60号附近一带","startTime":"2019-08-05 09:30:00","stopDate":"2019-08-05 15:00:00","orgNo":"3340101","typeCode":"计划停电","poweroffArea":"蚕宣9118线34#杆东1#杆","poweroffReason":"1.10kV蚕宣9118线东1#杆带电搭接十字引线；2.新布点一台400kVA公变.原停电结束时间17:30、变更停电结束时间15:00原因由于施工现场环境比较复杂，存在不确定因素，因此预估施工时间适当放长了，而实际施工进行得比较顺利，因此该工作提前结束。","powerTime":"2019-08-05 14:12:59","powerComm":"已送电","subsNo":"","lineNo":"","tgNo":"","tgName":null,"infoStatus":"1","orgName":"浙江杭州电力客户服务中心","typeName":null,"infoStatusName":null,"dateDay":null,"orgNos":null,"nowTime":null,"countyName":null,"streetName":null,"villageName":null,"roadName":null,"communityName":null,"tranName":null,"sdLineName":null,"cityCode":"3340101","cityName":"浙江杭州电力客户服务中心","provinceCode":null,"stopTime":"2019-08-05 15:00:00","powerType":"全部","powerOffArea":"蚕宣9118线34#杆东1#杆","powerOffReason":"1.10kV蚕宣9118线东1#杆带电搭接十字引线；2.新布点一台400kVA公变.原停电结束时间17:30、变更停电结束时间15:00原因由于施工现场环境比较复杂，存在不确定因素，因此预估施工时间适当放长了，而实际施工进行得比较顺利，因此该工作提前结束。","powerOffId":"2019072631020194"},{"poweroffId":2019072631020192,"sgpoweroffId":null,"subsName":"","lineName":"10kV洪福G904线","pubTranName":"洪福8组公变,","scope":"浙江省杭州市余杭区乔司街道：洪福村8组一带","startTime":"2019-08-05 07:00:00","stopDate":"2019-08-05 15:20:00","orgNo":"3340140","typeCode":"计划停电","poweroffArea":"110kV庙港变:洪福8组变","poweroffReason":"2018年杭州余杭乔司10千伏乔镇G059线等小城镇改造工程：洪福8组变增至400kVA、装三相不平衡。","powerTime":"2019-08-05 14:42:44","powerComm":"施工结束","subsNo":"","lineNo":"","tgNo":"","tgName":null,"infoStatus":"1","orgName":"国网浙江杭州市余杭区供电有限公司","typeName":null,"infoStatusName":null,"dateDay":null,"orgNos":null,"nowTime":null,"countyName":null,"streetName":null,"villageName":null,"roadName":null,"communityName":null,"tranName":null,"sdLineName":null,"cityCode":"3340140","cityName":"国网浙江杭州市余杭区供电有限公司","provinceCode":null,"stopTime":"2019-08-05 15:20:00","powerType":"全部","powerOffArea":"110kV庙港变:洪福8组变","powerOffReason":"2018年杭州余杭乔司10千伏乔镇G059线等小城镇改造工程：洪福8组变增至400kVA、装三相不平衡。","powerOffId":"2019072631020192"},{"poweroffId":2019072631020191,"sgpoweroffId":null,"subsName":"","lineName":"10kV三桥G652线","pubTranName":"长树双林船闸公变,","scope":"浙江省杭州市余杭区南苑街道:长树社区一带","startTime":"2019-08-06 07:00:00","stopDate":"2019-08-06 14:00:00","orgNo":"3340140","typeCode":"计划停电","poweroffArea":"110kV南苑变:三桥G652线长树双林船闸公变","poweroffReason":"(低压停电信息)配网工程（2019年余杭公司南苑钱塘台区等0.4kV配电线路整治工程）：拆除长树双林船闸公变低压出线、拆除集束线7档、立10米杆1基、放集束线2档、做拉线3组","powerTime":"2019-08-06 13:02:18","powerComm":"工作结束","subsNo":"","lineNo":"","tgNo":"","tgName":null,"infoStatus":"1","orgName":"国网浙江杭州市余杭区供电有限公司","typeName":null,"infoStatusName":null,"dateDay":null,"orgNos":null,"nowTime":null,"countyName":null,"streetName":null,"villageName":null,"roadName":null,"communityName":null,"tranName":null,"sdLineName":null,"cityCode":"3340140","cityName":"国网浙江杭州市余杭区供电有限公司","provinceCode":null,"stopTime":"2019-08-06 14:00:00","powerType":"全部","powerOffArea":"110kV南苑变:三桥G652线长树双林船闸公变","powerOffReason":"(低压停电信息)配网工程（2019年余杭公司南苑钱塘台区等0.4kV配电线路整治工程）：拆除长树双林船闸公变低压出线、拆除集束线7档、立10米杆1基、放集束线2档、做拉线3组","powerOffId":"2019072631020191"},{"poweroffId":2019072631020189,"sgpoweroffId":null,"subsName":"","lineName":"10kV洪福G904线","pubTranName":"方桥9组公变,方桥5组公变,方桥5组2号公变,方桥9组2号公变,","scope":"浙江省杭州市余杭区乔司街道：方桥村9组、方桥村5组一带","startTime":"2019-08-06 07:00:00","stopDate":"2019-08-06 15:20:00","orgNo":"3340140","typeCode":"计划停电","poweroffArea":"110kV庙港变:洪福G904线方桥5组分线。","poweroffReason":"2019年杭州余杭南苑地区万常社区等配变台区改造工程：新布方桥5组3#变与方桥5组变、方桥9组变低压割接。","powerTime":"2019-08-06 14:22:50","powerComm":"工作结束","subsNo":"","lineNo":"","tgNo":"","tgName":null,"infoStatus":"1","orgName":"国网浙江杭州市余杭区供电有限公司","typeName":null,"infoStatusName":null,"dateDay":null,"orgNos":null,"nowTime":null,"countyName":null,"streetName":null,"villageName":null,"roadName":null,"communityName":null,"tranName":null,"sdLineName":null,"cityCode":"3340140","cityName":"国网浙江杭州市余杭区供电有限公司","provinceCode":null,"stopTime":"2019-08-06 15:20:00","powerType":"全部","powerOffArea":"110kV庙港变:洪福G904线方桥5组分线。","powerOffReason":"2019年杭州余杭南苑地区万常社区等配变台区改造工程：新布方桥5组3#变与方桥5组变、方桥9组变低压割接。","powerOffId":"2019072631020189"}],"pageModel":{"pageNow":1384,"totalCount":17789,"totalPage":1779,"tableRows":0,"pageCount":10,"beginCount":13830},"isExperi":"1"}