{"message":"","today":"2020-06-16","seleList":[{"poweroffId":2019072631020171,"sgpoweroffId":null,"subsName":"","lineName":"10kV安顶D909线","pubTranName":"国富村1＃溪边公变,","scope":"浙江省-杭州市-富阳区-里山镇-马鞍山行政村-国富自然村一带","startTime":"2019-08-09 07:00:00","stopDate":"2019-08-09 12:40:00","orgNo":"3340170","typeCode":"计划停电","poweroffArea":"110kV里渔变:安顶D909线-国富村1号溪边低压开关后段","poweroffReason":"(低压停电信息)江南2019年缺陷处理工程更换集束线150米、搭接等工作","powerTime":"2019-08-09 12:26:58","powerComm":"已送电","subsNo":"","lineNo":"","tgNo":"","tgName":null,"infoStatus":"1","orgName":"国网浙江杭州市富阳区供电公司","typeName":null,"infoStatusName":null,"dateDay":null,"orgNos":null,"nowTime":null,"countyName":null,"streetName":null,"villageName":null,"roadName":null,"communityName":null,"tranName":null,"sdLineName":null,"cityCode":"3340170","cityName":"国网浙江杭州市富阳区供电公司","provinceCode":null,"stopTime":"2019-08-09 12:40:00","powerType":"全部","powerOffArea":"110kV里渔变:安顶D909线-国富村1号溪边低压开关后段","powerOffReason":"(低压停电信息)江南2019年缺陷处理工程更换集束线150米、搭接等工作","powerOffId":"2019072631020171"},{"poweroffId":2019072631020170,"sgpoweroffId":null,"subsName":"","lineName":"10kV庭院H610线","pubTranName":"2#变压器,日螺纸业,吉星仪表,02省道4#路灯,震泰制冷,杭州余杭水务有限公司,土特产,","scope":"浙江省-杭州市-余杭区-余杭街道-华坞行政村(杭州日螺纸工艺有限公司,杭州余杭城西净水有限公司),余杭街道-沈家店社区(杭州吉星仪表机械有限公司,杭州余杭震泰制冷设备有限公司),余杭街道-上文山社区-杭州市余杭区城市管理综合行政执法局,闲林街道-华丰社区-杭州科凌虫控科技有限公司一带","startTime":"2019-07-26 13:42:00","stopDate":"2019-07-26 19:00:00","orgNo":"3340140","typeCode":"电网故障停限电","poweroffArea":"110kV桃源变:庭院H610线-石鸽分线11#杆后段开关后段","poweroffReason":"石鸽分线11#杆后段开关后段 架空线断线故障","powerTime":"2019-07-26 18:13:00","powerComm":"已送电","subsNo":"","lineNo":"","tgNo":"","tgName":null,"infoStatus":"1","orgName":"国网浙江杭州市余杭区供电有限公司","typeName":null,"infoStatusName":null,"dateDay":null,"orgNos":null,"nowTime":null,"countyName":null,"streetName":null,"villageName":null,"roadName":null,"communityName":null,"tranName":null,"sdLineName":null,"cityCode":"3340140","cityName":"国网浙江杭州市余杭区供电有限公司","provinceCode":null,"stopTime":"2019-07-26 19:00:00","powerType":"全部","powerOffArea":"110kV桃源变:庭院H610线-石鸽分线11#杆后段开关后段","powerOffReason":"石鸽分线11#杆后段开关后段 架空线断线故障","powerOffId":"2019072631020170"},{"poweroffId":2019072631020169,"sgpoweroffId":null,"subsName":"","lineName":"10kV夏峰R169线","pubTranName":"汪村公变,","scope":"浙江省-杭州市-淳安县-枫树岭镇-汪村行政村-汪村自然村","startTime":"2019-08-05 07:30:00","stopDate":"2019-08-05 15:30:00","orgNo":"3340190","typeCode":"计划停电","poweroffArea":"35kV大市变:夏峰R169线-汪村支线0号杆跌落式熔断器后段","poweroffReason":"1.汪村配变增容，变压器、低压柜更换。2.新建10KV毛家店支线0号杆搭接","powerTime":"2019-08-05 15:02:18","powerComm":"现场工作已完成","subsNo":"","lineNo":"","tgNo":"","tgName":null,"infoStatus":"1","orgName":"国网浙江淳安县供电有限公司","typeName":null,"infoStatusName":null,"dateDay":null,"orgNos":null,"nowTime":null,"countyName":null,"streetName":null,"villageName":null,"roadName":null,"communityName":null,"tranName":null,"sdLineName":null,"cityCode":"3340190","cityName":"国网浙江淳安县供电有限公司","provinceCode":null,"stopTime":"2019-08-05 15:30:00","powerType":"全部","powerOffArea":"35kV大市变:夏峰R169线-汪村支线0号杆跌落式熔断器后段","powerOffReason":"1.汪村配变增容，变压器、低压柜更换。2.新建10KV毛家店支线0号杆搭接","powerOffId":"2019072631020169"},{"poweroffId":2019072631020168,"sgpoweroffId":null,"subsName":"","lineName":"10kV铜矿R163线","pubTranName":"杨家山公变,","scope":"浙江省-杭州市-淳安县-枫树岭镇-衍昌行政村-杨家山自然村","startTime":"2019-08-06 13:30:00","stopDate":"2019-08-06 16:30:00","orgNo":"3340190","typeCode":"计划停电","poweroffArea":"35kV大市变:铜矿R163线-杨家山支线0号杆跌落式熔断器后段","poweroffReason":"观音宅支线0#杆搭接，低压线路切割，新观音宅配变投运","powerTime":"2019-08-06 16:04:03","powerComm":"现场工作已完成。","subsNo":"","lineNo":"","tgNo":"","tgName":null,"infoStatus":"1","orgName":"国网浙江淳安县供电有限公司","typeName":null,"infoStatusName":null,"dateDay":null,"orgNos":null,"nowTime":null,"countyName":null,"streetName":null,"villageName":null,"roadName":null,"communityName":null,"tranName":null,"sdLineName":null,"cityCode":"3340190","cityName":"国网浙江淳安县供电有限公司","provinceCode":null,"stopTime":"2019-08-06 16:30:00","powerType":"全部","powerOffArea":"35kV大市变:铜矿R163线-杨家山支线0号杆跌落式熔断器后段","powerOffReason":"观音宅支线0#杆搭接，低压线路切割，新观音宅配变投运","powerOffId":"2019072631020168"},{"poweroffId":2019072631020161,"sgpoweroffId":null,"subsName":"","lineName":"10kV研口V224线","pubTranName":"浙江青石水泥有限公司6#,临安青中金属再生利用有限公司,浙江青石水泥有限公司4#,浙江青石水泥有限公司5#,浙江青石水泥有限公司3#,临安亮亮复膜厂1#,浙江青石水泥有限公司所用变,","scope":"浙江省-杭州市-临安市-青山湖街道临安亮亮复膜厂，临安青中金属再生利用有限公司，浙江青石水泥有限公司一带","startTime":"2019-08-07 07:00:00","stopDate":"2019-08-07 16:50:00","orgNo":"3340160","typeCode":"计划停电","poweroffArea":"110kV青山变:停研口V224线变电所至研管2243线管会站2243开关之间","poweroffReason":"研口线线路缺陷处理工作","powerTime":"2019-08-07 16:27:44","powerComm":"已送电","subsNo":"","lineNo":"","tgNo":"","tgName":null,"infoStatus":"1","orgName":"国网浙江临安市供电公司","typeName":null,"infoStatusName":null,"dateDay":null,"orgNos":null,"nowTime":null,"countyName":null,"streetName":null,"villageName":null,"roadName":null,"communityName":null,"tranName":null,"sdLineName":null,"cityCode":"3340160","cityName":"国网浙江临安市供电公司","provinceCode":null,"stopTime":"2019-08-07 16:50:00","powerType":"全部","powerOffArea":"110kV青山变:停研口V224线变电所至研管2243线管会站2243开关之间","powerOffReason":"研口线线路缺陷处理工作","powerOffId":"2019072631020161"},{"poweroffId":2019072631020159,"sgpoweroffId":null,"subsName":"","lineName":"10kV斜阳V221线","pubTranName":"临安市青山湖颐养院（筹）,研口安置区2#公变,研口安置区公变,","scope":"浙江省-杭州市-临安市-青山湖街道临安市青山湖颐养院（筹），研口安置区，研口安置区2一带","startTime":"2019-08-07 07:00:00","stopDate":"2019-08-07 16:50:00","orgNo":"3340160","typeCode":"计划停电","poweroffArea":"110kV青山变:停斜阳V221线变电所至36#杆2213开关之间","poweroffReason":"研口线线路缺陷处理工作","powerTime":"2019-08-07 16:40:15","powerComm":"已送电","subsNo":"","lineNo":"","tgNo":"","tgName":null,"infoStatus":"1","orgName":"国网浙江临安市供电公司","typeName":null,"infoStatusName":null,"dateDay":null,"orgNos":null,"nowTime":null,"countyName":null,"streetName":null,"villageName":null,"roadName":null,"communityName":null,"tranName":null,"sdLineName":null,"cityCode":"3340160","cityName":"国网浙江临安市供电公司","provinceCode":null,"stopTime":"2019-08-07 16:50:00","powerType":"全部","powerOffArea":"110kV青山变:停斜阳V221线变电所至36#杆2213开关之间","powerOffReason":"研口线线路缺陷处理工作","powerOffId":"2019072631020159"},{"poweroffId":2019072631020158,"sgpoweroffId":null,"subsName":"","lineName":"10kV井里V546线","pubTranName":"青山镇岳山坞村,","scope":"浙江省-杭州市-临安市-青山湖街道青山镇岳山坞村一带","startTime":"2019-08-06 07:00:00","stopDate":"2019-08-06 13:00:00","orgNo":"3340160","typeCode":"计划停电","poweroffArea":"110kV板桥变:停井里V546线岳山坞村支线1#杆青山镇岳山坞村配变令克以后","poweroffReason":"配变增容工作","powerTime":"2019-08-06 12:38:37","powerComm":"已送电。","subsNo":"","lineNo":"","tgNo":"","tgName":null,"infoStatus":"1","orgName":"国网浙江临安市供电公司","typeName":null,"infoStatusName":null,"dateDay":null,"orgNos":null,"nowTime":null,"countyName":null,"streetName":null,"villageName":null,"roadName":null,"communityName":null,"tranName":null,"sdLineName":null,"cityCode":"3340160","cityName":"国网浙江临安市供电公司","provinceCode":null,"stopTime":"2019-08-06 13:00:00","powerType":"全部","powerOffArea":"110kV板桥变:停井里V546线岳山坞村支线1#杆青山镇岳山坞村配变令克以后","powerOffReason":"配变增容工作","powerOffId":"2019072631020158"},{"poweroffId":2019072631020157,"sgpoweroffId":null,"subsName":"","lineName":"10kV井里V546线","pubTranName":"杭州临安环湖绿道建设有限公司1#,","scope":"浙江省-杭州市-临安区板桥镇杭州临安湖景绿道建设有限公司港航管理一带","startTime":"2019-08-05 07:00:00","stopDate":"2019-08-05 13:00:00","orgNo":"3340160","typeCode":"计划停电","poweroffArea":"110kV板桥变:停井里V546线路桥集团支线1#杆令克以后","poweroffReason":"恒力业扩","powerTime":"2019-08-05 12:21:32","powerComm":"已送电","subsNo":"","lineNo":"","tgNo":"","tgName":null,"infoStatus":"1","orgName":"国网浙江临安市供电公司","typeName":null,"infoStatusName":null,"dateDay":null,"orgNos":null,"nowTime":null,"countyName":null,"streetName":null,"villageName":null,"roadName":null,"communityName":null,"tranName":null,"sdLineName":null,"cityCode":"3340160","cityName":"国网浙江临安市供电公司","provinceCode":null,"stopTime":"2019-08-05 13:00:00","powerType":"全部","powerOffArea":"110kV板桥变:停井里V546线路桥集团支线1#杆令克以后","powerOffReason":"恒力业扩","powerOffId":"2019072631020157"},{"poweroffId":2019072631020155,"sgpoweroffId":null,"subsName":"","lineName":"10kV松溪V122线","pubTranName":"10kV九里村[九里贤居坞]公变,","scope":"浙江省杭州市临安区天目山镇九里贤居坞一带","startTime":"2019-08-08 07:00:00","stopDate":"2019-08-08 16:40:00","orgNo":"3340160","typeCode":"计划停电","poweroffArea":"停110kV於潜变松溪V122线10kV九里村[九里贤居坞]公变低压闸刀","poweroffReason":"线路改造","powerTime":"2019-08-08 16:30:12","powerComm":"已送电","subsNo":"","lineNo":"","tgNo":"","tgName":null,"infoStatus":"1","orgName":"国网浙江临安市供电公司","typeName":null,"infoStatusName":null,"dateDay":null,"orgNos":null,"nowTime":null,"countyName":null,"streetName":null,"villageName":null,"roadName":null,"communityName":null,"tranName":null,"sdLineName":null,"cityCode":"3340160","cityName":"国网浙江临安市供电公司","provinceCode":null,"stopTime":"2019-08-08 16:40:00","powerType":"全部","powerOffArea":"停110kV於潜变松溪V122线10kV九里村[九里贤居坞]公变低压闸刀","powerOffReason":"线路改造","powerOffId":"2019072631020155"},{"poweroffId":2019072631020154,"sgpoweroffId":null,"subsName":"","lineName":"10kV国大D575线","pubTranName":"朱家湾2#公变,","scope":"浙江省-杭州市-富阳区-富春街道-镬子山社区-工农路,富春街道-后亭子社区(孙权路,工农路)","startTime":"2019-07-26 12:51:30","stopDate":"2019-07-26 14:00:00","orgNo":"3340170","typeCode":"电网故障停限电","poweroffArea":"110kV春江变:国大D575线-朱家湾2#公变后段","poweroffReason":"(低压停电信息)低压开关跳闸","powerTime":"2019-07-26 13:17:58","powerComm":"已送电","subsNo":"","lineNo":"","tgNo":"","tgName":null,"infoStatus":"1","orgName":"国网浙江杭州市富阳区供电公司","typeName":null,"infoStatusName":null,"dateDay":null,"orgNos":null,"nowTime":null,"countyName":null,"streetName":null,"villageName":null,"roadName":null,"communityName":null,"tranName":null,"sdLineName":null,"cityCode":"3340170","cityName":"国网浙江杭州市富阳区供电公司","provinceCode":null,"stopTime":"2019-07-26 14:00:00","powerType":"全部","powerOffArea":"110kV春江变:国大D575线-朱家湾2#公变后段","powerOffReason":"(低压停电信息)低压开关跳闸","powerOffId":"2019072631020154"}],"pageModel":{"pageNow":1386,"totalCount":17789,"totalPage":1779,"tableRows":0,"pageCount":10,"beginCount":13850},"isExperi":"1"}