{"message":"","today":"2020-06-16","seleList":[{"poweroffId":2019072631020086,"sgpoweroffId":null,"subsName":"","lineName":"10kV虹桥R175线","pubTranName":"虹桥1号公变,","scope":"浙江省-杭州市-淳安县-威坪镇-虹桥社区(东方路,兴华街)","startTime":"2019-08-05 08:00:00","stopDate":"2019-08-05 16:00:00","orgNo":"3340190","typeCode":"计划停电","poweroffArea":"110kV虹桥变:虹桥R175线-供电所支线跌落式熔断器后段","poweroffReason":"新上杭州千岛湖常清居民宿有限公司专变投运","powerTime":"2019-08-05 14:59:52","powerComm":"现场工作已完成","subsNo":"","lineNo":"","tgNo":"","tgName":null,"infoStatus":"1","orgName":"国网浙江淳安县供电有限公司","typeName":null,"infoStatusName":null,"dateDay":null,"orgNos":null,"nowTime":null,"countyName":null,"streetName":null,"villageName":null,"roadName":null,"communityName":null,"tranName":null,"sdLineName":null,"cityCode":"3340190","cityName":"国网浙江淳安县供电有限公司","provinceCode":null,"stopTime":"2019-08-05 16:00:00","powerType":"全部","powerOffArea":"110kV虹桥变:虹桥R175线-供电所支线跌落式熔断器后段","powerOffReason":"新上杭州千岛湖常清居民宿有限公司专变投运","powerOffId":"2019072631020086"},{"poweroffId":2019072631020085,"sgpoweroffId":null,"subsName":"","lineName":"10kV方宅R174线","pubTranName":"妙石村东塔公变,","scope":"浙江省-杭州市-淳安县-威坪镇-妙石行政村(东塔自然村,妙石自然村)","startTime":"2019-08-08 06:00:00","stopDate":"2019-08-08 08:30:00","orgNo":"3340190","typeCode":"计划停电","poweroffArea":"110kV虹桥变:方宅R174线-妙石村东塔公变跌落式熔断器后段","poweroffReason":"妙石村东塔公变进线电缆绝缘老化消缺","powerTime":"2019-08-08 07:34:41","powerComm":"现场工作已完成","subsNo":"","lineNo":"","tgNo":"","tgName":null,"infoStatus":"1","orgName":"国网浙江淳安县供电有限公司","typeName":null,"infoStatusName":null,"dateDay":null,"orgNos":null,"nowTime":null,"countyName":null,"streetName":null,"villageName":null,"roadName":null,"communityName":null,"tranName":null,"sdLineName":null,"cityCode":"3340190","cityName":"国网浙江淳安县供电有限公司","provinceCode":null,"stopTime":"2019-08-08 08:30:00","powerType":"全部","powerOffArea":"110kV虹桥变:方宅R174线-妙石村东塔公变跌落式熔断器后段","powerOffReason":"妙石村东塔公变进线电缆绝缘老化消缺","powerOffId":"2019072631020085"},{"poweroffId":2019072631020084,"sgpoweroffId":null,"subsName":"","lineName":"10kV方宅R174线","pubTranName":"方宅村上方公变,","scope":"浙江省-杭州市-淳安县-威坪镇-方宅行政村-上方自然村","startTime":"2019-08-09 06:00:00","stopDate":"2019-08-09 08:00:00","orgNo":"3340190","typeCode":"计划停电","poweroffArea":"110kV虹桥变:方宅R174线-方宅村上方公变跌落式熔断器后段","poweroffReason":"方宅村上方公变进线电缆绝缘老化消缺","powerTime":"2019-08-09 07:59:05","powerComm":"现场工作已完成","subsNo":"","lineNo":"","tgNo":"","tgName":null,"infoStatus":"1","orgName":"国网浙江淳安县供电有限公司","typeName":null,"infoStatusName":null,"dateDay":null,"orgNos":null,"nowTime":null,"countyName":null,"streetName":null,"villageName":null,"roadName":null,"communityName":null,"tranName":null,"sdLineName":null,"cityCode":"3340190","cityName":"国网浙江淳安县供电有限公司","provinceCode":null,"stopTime":"2019-08-09 08:00:00","powerType":"全部","powerOffArea":"110kV虹桥变:方宅R174线-方宅村上方公变跌落式熔断器后段","powerOffReason":"方宅村上方公变进线电缆绝缘老化消缺","powerOffId":"2019072631020084"},{"poweroffId":2019072631020072,"sgpoweroffId":null,"subsName":"","lineName":"10kV打网H426线","pubTranName":"西塘河村曹家里2号公变,","scope":"浙江省-杭州市-余杭区-良渚街道-西塘河行政村-中潘塘自然村","startTime":"2019-07-26 09:43:00","stopDate":"2019-07-26 10:40:00","orgNo":"3340140","typeCode":"电网故障停限电","poweroffArea":"110kV勾庄变:打网H426线-西塘河村曹家里2号公变后段","poweroffReason":"(低压停电信息) 西塘河村曹家里2号公变后段 低压断线故障","powerTime":"2019-07-26 10:01:00","powerComm":"已送电","subsNo":"","lineNo":"","tgNo":"","tgName":null,"infoStatus":"1","orgName":"国网浙江杭州市余杭区供电有限公司","typeName":null,"infoStatusName":null,"dateDay":null,"orgNos":null,"nowTime":null,"countyName":null,"streetName":null,"villageName":null,"roadName":null,"communityName":null,"tranName":null,"sdLineName":null,"cityCode":"3340140","cityName":"国网浙江杭州市余杭区供电有限公司","provinceCode":null,"stopTime":"2019-07-26 10:40:00","powerType":"全部","powerOffArea":"110kV勾庄变:打网H426线-西塘河村曹家里2号公变后段","powerOffReason":"(低压停电信息) 西塘河村曹家里2号公变后段 低压断线故障","powerOffId":"2019072631020072"},{"poweroffId":2019072631020068,"sgpoweroffId":null,"subsName":"","lineName":"10kV农校H413线","pubTranName":"良渚村沈家门公变,","scope":"浙江省-杭州市-余杭区-良渚街道-良渚村沈家门一带","startTime":"2019-08-05 08:30:00","stopDate":"2019-08-05 16:30:00","orgNo":"3340140","typeCode":"计划停电","poweroffArea":"35kV良渚变:农校H413线-良渚村沈家门公变","poweroffReason":"(低压停电信息)农校H413线良渚村沈家门公变低压线路改造","powerTime":"2019-08-05 15:36:07","powerComm":"现场已送电","subsNo":"","lineNo":"","tgNo":"","tgName":null,"infoStatus":"1","orgName":"国网浙江杭州市余杭区供电有限公司","typeName":null,"infoStatusName":null,"dateDay":null,"orgNos":null,"nowTime":null,"countyName":null,"streetName":null,"villageName":null,"roadName":null,"communityName":null,"tranName":null,"sdLineName":null,"cityCode":"3340140","cityName":"国网浙江杭州市余杭区供电有限公司","provinceCode":null,"stopTime":"2019-08-05 16:30:00","powerType":"全部","powerOffArea":"35kV良渚变:农校H413线-良渚村沈家门公变","powerOffReason":"(低压停电信息)农校H413线良渚村沈家门公变低压线路改造","powerOffId":"2019072631020068"},{"poweroffId":2019072631020067,"sgpoweroffId":null,"subsName":"","lineName":"10kV农校H413线","pubTranName":"良渚村张家桥公变,","scope":"浙江省-杭州市-余杭区-良渚街道-良渚村张家桥一带","startTime":"2019-08-07 08:30:00","stopDate":"2019-08-07 16:30:00","orgNo":"3340140","typeCode":"计划停电","poweroffArea":"35kV良渚变:农校H413线-良渚村张家桥公变","poweroffReason":"(低压停电信息)农校H413线良渚村张家桥公变低压线路改造","powerTime":"2019-08-07 15:57:36","powerComm":"工作完成","subsNo":"","lineNo":"","tgNo":"","tgName":null,"infoStatus":"1","orgName":"国网浙江杭州市余杭区供电有限公司","typeName":null,"infoStatusName":null,"dateDay":null,"orgNos":null,"nowTime":null,"countyName":null,"streetName":null,"villageName":null,"roadName":null,"communityName":null,"tranName":null,"sdLineName":null,"cityCode":"3340140","cityName":"国网浙江杭州市余杭区供电有限公司","provinceCode":null,"stopTime":"2019-08-07 16:30:00","powerType":"全部","powerOffArea":"35kV良渚变:农校H413线-良渚村张家桥公变","powerOffReason":"(低压停电信息)农校H413线良渚村张家桥公变低压线路改造","powerOffId":"2019072631020067"},{"poweroffId":2019072631020066,"sgpoweroffId":null,"subsName":"","lineName":"10kV纤石H402线","pubTranName":"良渚村吴家埭田畈里公变,","scope":"浙江省-杭州市-余杭区-良渚街道-良渚村吴家埭田畈里一带","startTime":"2019-08-08 08:30:00","stopDate":"2019-08-08 11:30:00","orgNo":"3340140","typeCode":"计划停电","poweroffArea":"35kV良渚变:纤石H402线-良渚村吴家埭田畈里公变","poweroffReason":"(低压停电信息)纤石H402线良渚村吴家埭田畈里公变低压线路消缺","powerTime":"2019-08-08 10:44:44","powerComm":"工作已完成","subsNo":"","lineNo":"","tgNo":"","tgName":null,"infoStatus":"1","orgName":"国网浙江杭州市余杭区供电有限公司","typeName":null,"infoStatusName":null,"dateDay":null,"orgNos":null,"nowTime":null,"countyName":null,"streetName":null,"villageName":null,"roadName":null,"communityName":null,"tranName":null,"sdLineName":null,"cityCode":"3340140","cityName":"国网浙江杭州市余杭区供电有限公司","provinceCode":null,"stopTime":"2019-08-08 11:30:00","powerType":"全部","powerOffArea":"35kV良渚变:纤石H402线-良渚村吴家埭田畈里公变","powerOffReason":"(低压停电信息)纤石H402线良渚村吴家埭田畈里公变低压线路消缺","powerOffId":"2019072631020066"},{"poweroffId":2019072631020065,"sgpoweroffId":null,"subsName":"","lineName":"10kV农校H413线","pubTranName":"良渚村金家门3号公变,","scope":"浙江省-杭州市-余杭区-良渚街道-良渚村金家门一带","startTime":"2019-08-08 08:30:00","stopDate":"2019-08-08 12:30:00","orgNo":"3340140","typeCode":"计划停电","poweroffArea":"35kV良渚变:农校H413线-良渚村金家门3号公变","poweroffReason":"(低压停电信息)农校H413线良渚村金家门3号公变低压线路改造","powerTime":"2019-08-08 12:06:07","powerComm":"已送电","subsNo":"","lineNo":"","tgNo":"","tgName":null,"infoStatus":"1","orgName":"国网浙江杭州市余杭区供电有限公司","typeName":null,"infoStatusName":null,"dateDay":null,"orgNos":null,"nowTime":null,"countyName":null,"streetName":null,"villageName":null,"roadName":null,"communityName":null,"tranName":null,"sdLineName":null,"cityCode":"3340140","cityName":"国网浙江杭州市余杭区供电有限公司","provinceCode":null,"stopTime":"2019-08-08 12:30:00","powerType":"全部","powerOffArea":"35kV良渚变:农校H413线-良渚村金家门3号公变","powerOffReason":"(低压停电信息)农校H413线良渚村金家门3号公变低压线路改造","powerOffId":"2019072631020065"},{"poweroffId":2019072631020064,"sgpoweroffId":null,"subsName":"","lineName":"10kV纤石H402线","pubTranName":"良渚村吴家埭许家斗公变,","scope":"浙江省-杭州市-余杭区-良渚街道-良渚村吴家埭许家斗一带","startTime":"2019-08-09 08:30:00","stopDate":"2019-08-09 12:00:00","orgNo":"3340140","typeCode":"计划停电","poweroffArea":"35kV良渚变:纤石H402线-良渚村吴家埭许家斗公变","poweroffReason":"(低压停电信息)纤石H402线良渚村吴家埭许家斗公变低压线路消缺","powerTime":"2019-08-09 11:18:52","powerComm":"工作完成","subsNo":"","lineNo":"","tgNo":"","tgName":null,"infoStatus":"1","orgName":"国网浙江杭州市余杭区供电有限公司","typeName":null,"infoStatusName":null,"dateDay":null,"orgNos":null,"nowTime":null,"countyName":null,"streetName":null,"villageName":null,"roadName":null,"communityName":null,"tranName":null,"sdLineName":null,"cityCode":"3340140","cityName":"国网浙江杭州市余杭区供电有限公司","provinceCode":null,"stopTime":"2019-08-09 12:00:00","powerType":"全部","powerOffArea":"35kV良渚变:纤石H402线-良渚村吴家埭许家斗公变","powerOffReason":"(低压停电信息)纤石H402线良渚村吴家埭许家斗公变低压线路消缺","powerOffId":"2019072631020064"},{"poweroffId":2019072631020061,"sgpoweroffId":null,"subsName":"","lineName":"10kV逸村V691线","pubTranName":"杭州友嘉机械有限公司1#,临安晓磊墙体材料有限公司,杭州临安仁正生物科技有限公司,","scope":"浙江省-杭州市-临安市-於潜镇-杭州友嘉机械有限公司、杭州临安仁正生物科技有限公司、临安晓磊墙体材料有限公司一带","startTime":"2019-08-07 06:00:00","stopDate":"2019-08-07 17:20:00","orgNo":"3340160","typeCode":"计划停电","poweroffArea":"逸村V691线118#杆晓磊墙体分线","poweroffReason":"杭州临安於潜10kV堰口V126线等线路改造：逸村V691线118#杆晓磊墙体分线调杆、调导线（单改双）","powerTime":"2019-08-07 17:11:18","powerComm":"已送电","subsNo":"","lineNo":"","tgNo":"","tgName":null,"infoStatus":"1","orgName":"国网浙江临安市供电公司","typeName":null,"infoStatusName":null,"dateDay":null,"orgNos":null,"nowTime":null,"countyName":null,"streetName":null,"villageName":null,"roadName":null,"communityName":null,"tranName":null,"sdLineName":null,"cityCode":"3340160","cityName":"国网浙江临安市供电公司","provinceCode":null,"stopTime":"2019-08-07 17:20:00","powerType":"全部","powerOffArea":"逸村V691线118#杆晓磊墙体分线","powerOffReason":"杭州临安於潜10kV堰口V126线等线路改造：逸村V691线118#杆晓磊墙体分线调杆、调导线（单改双）","powerOffId":"2019072631020061"}],"pageModel":{"pageNow":1389,"totalCount":17789,"totalPage":1779,"tableRows":0,"pageCount":10,"beginCount":13880},"isExperi":"1"}