{"message":"","today":"2020-06-16","seleList":[{"poweroffId":2019072631020056,"sgpoweroffId":null,"subsName":"","lineName":"10kV百亩V184线","pubTranName":"10kV太源村[八亩村]公变,","scope":"浙江省-杭州市-临安市-太阳镇-八亩村一带","startTime":"2019-08-09 07:00:00","stopDate":"2019-08-09 14:00:00","orgNo":"3340160","typeCode":"计划停电","poweroffArea":"百亩V184线49#杆百亩村公变","poweroffReason":"临安於潜10千伏太阳村太阳小学公变等8台区增容02项：百亩V184线49#杆10KV太源村（百亩村）公变200KVA增容至400KVA、改为杆上式、低压割接","powerTime":"2019-08-09 13:14:15","powerComm":"已送电","subsNo":"","lineNo":"","tgNo":"","tgName":null,"infoStatus":"1","orgName":"国网浙江临安市供电公司","typeName":null,"infoStatusName":null,"dateDay":null,"orgNos":null,"nowTime":null,"countyName":null,"streetName":null,"villageName":null,"roadName":null,"communityName":null,"tranName":null,"sdLineName":null,"cityCode":"3340160","cityName":"国网浙江临安市供电公司","provinceCode":null,"stopTime":"2019-08-09 14:00:00","powerType":"全部","powerOffArea":"百亩V184线49#杆百亩村公变","powerOffReason":"临安於潜10千伏太阳村太阳小学公变等8台区增容02项：百亩V184线49#杆10KV太源村（百亩村）公变200KVA增容至400KVA、改为杆上式、低压割接","powerOffId":"2019072631020056"},{"poweroffId":2019072631020051,"sgpoweroffId":null,"subsName":"","lineName":"10kV波浪9317线","pubTranName":"波文充一变,波文充二变,","scope":"浙江省杭州市江干区波文充电站","startTime":"2019-08-07 09:30:00","stopDate":"2019-08-07 16:20:00","orgNo":"3340101","typeCode":"计划停电","poweroffArea":"110kV市民变:波浪9317线首端，波文充一变，波文充二变之间","poweroffReason":"(低压停电信息)(低压停电信息)杭州地铁9号线四季青站-中央公园站原停电结束时间17:00，变更停电结束时间16:20，原因由于施工现场环境比较复杂，存在不确定因素，因此预估施工时间适当放长了，而实际施工进行得比较顺利，因此该工作提前结束。","powerTime":"2019-08-07 15:35:59","powerComm":"已送电","subsNo":"","lineNo":"","tgNo":"","tgName":null,"infoStatus":"1","orgName":"浙江杭州电力客户服务中心","typeName":null,"infoStatusName":null,"dateDay":null,"orgNos":null,"nowTime":null,"countyName":null,"streetName":null,"villageName":null,"roadName":null,"communityName":null,"tranName":null,"sdLineName":null,"cityCode":"3340101","cityName":"浙江杭州电力客户服务中心","provinceCode":null,"stopTime":"2019-08-07 16:20:00","powerType":"全部","powerOffArea":"110kV市民变:波浪9317线首端，波文充一变，波文充二变之间","powerOffReason":"(低压停电信息)(低压停电信息)杭州地铁9号线四季青站-中央公园站原停电结束时间17:00，变更停电结束时间16:20，原因由于施工现场环境比较复杂，存在不确定因素，因此预估施工时间适当放长了，而实际施工进行得比较顺利，因此该工作提前结束。","powerOffId":"2019072631020051"},{"poweroffId":2019072631020039,"sgpoweroffId":null,"subsName":"","lineName":"10kV长命H502线","pubTranName":"金都生态6120014979,大观山村西庄公变,","scope":"浙江省-杭州市-余杭区-瓶窑镇-大观山行政村-西庄自然村;瓶窑镇-杭州金都生态农业观光有限公司一带","startTime":"2019-07-26 08:58:00","stopDate":"2019-07-26 10:58:00","orgNo":"3340140","typeCode":"电网故障停限电","poweroffArea":"35kV瓶镇变:长命H502线金都生态农庄分线后段","poweroffReason":"长命H502线金都生态农庄分线后段高压真空开关烧损故障","powerTime":"2019-07-26 10:22:00","powerComm":"已送电","subsNo":"","lineNo":"","tgNo":"","tgName":null,"infoStatus":"1","orgName":"国网浙江杭州市余杭区供电有限公司","typeName":null,"infoStatusName":null,"dateDay":null,"orgNos":null,"nowTime":null,"countyName":null,"streetName":null,"villageName":null,"roadName":null,"communityName":null,"tranName":null,"sdLineName":null,"cityCode":"3340140","cityName":"国网浙江杭州市余杭区供电有限公司","provinceCode":null,"stopTime":"2019-07-26 10:58:00","powerType":"全部","powerOffArea":"35kV瓶镇变:长命H502线金都生态农庄分线后段","powerOffReason":"长命H502线金都生态农庄分线后段高压真空开关烧损故障","powerOffId":"2019072631020039"},{"poweroffId":2019072631020036,"sgpoweroffId":null,"subsName":"","lineName":"10kV庆丰H588线","pubTranName":"东塘河村曹家桥农居点2号公变,","scope":"浙江省-杭州市-余杭区-良渚街道-东塘河行政村孟家湾自然村,吴家桥自然村一带","startTime":"2019-07-26 08:56:00","stopDate":"2019-07-26 10:56:00","orgNo":"3340140","typeCode":"电网故障停限电","poweroffArea":"110kV南庄变:庆丰H588线-东塘河村曹家桥农居点2号公变后段","poweroffReason":"(低压停电信息)曹家桥农居点2号公变后段 低压导线故障","powerTime":"2019-07-26 10:22:00","powerComm":"已送电","subsNo":"","lineNo":"","tgNo":"","tgName":null,"infoStatus":"1","orgName":"国网浙江杭州市余杭区供电有限公司","typeName":null,"infoStatusName":null,"dateDay":null,"orgNos":null,"nowTime":null,"countyName":null,"streetName":null,"villageName":null,"roadName":null,"communityName":null,"tranName":null,"sdLineName":null,"cityCode":"3340140","cityName":"国网浙江杭州市余杭区供电有限公司","provinceCode":null,"stopTime":"2019-07-26 10:56:00","powerType":"全部","powerOffArea":"110kV南庄变:庆丰H588线-东塘河村曹家桥农居点2号公变后段","powerOffReason":"(低压停电信息)曹家桥农居点2号公变后段 低压导线故障","powerOffId":"2019072631020036"},{"poweroffId":2019072631020025,"sgpoweroffId":null,"subsName":"","lineName":"10kV雍景C768线","pubTranName":"嘉瑞华庭6#公变,","scope":"浙江省-杭州市-萧山区-北干街道-广德社区-金城路、嘉瑞华庭小区、帝凯物业一带","startTime":"2019-07-26 08:42:34","stopDate":"2019-07-26 10:00:34","orgNo":"3340130","typeCode":"电网故障停限电","poweroffArea":"110kV通惠变:雍景C768线-嘉瑞华庭6#公变后段","poweroffReason":"（低压停电信息）低压线路故障","powerTime":"2019-07-26 09:31:55","powerComm":"已送电","subsNo":"","lineNo":"","tgNo":"","tgName":null,"infoStatus":"1","orgName":"国网浙江杭州市萧山区供电有限公司","typeName":null,"infoStatusName":null,"dateDay":null,"orgNos":null,"nowTime":null,"countyName":null,"streetName":null,"villageName":null,"roadName":null,"communityName":null,"tranName":null,"sdLineName":null,"cityCode":"3340130","cityName":"国网浙江杭州市萧山区供电有限公司","provinceCode":null,"stopTime":"2019-07-26 10:00:34","powerType":"全部","powerOffArea":"110kV通惠变:雍景C768线-嘉瑞华庭6#公变后段","powerOffReason":"（低压停电信息）低压线路故障","powerOffId":"2019072631020025"},{"poweroffId":2019072631020019,"sgpoweroffId":null,"subsName":"","lineName":"10kV南蒋G905线","pubTranName":"民主桥2号公变,","scope":"浙江省-杭州市-余杭区-乔司街道-葛家车行政村-吴家车自然村,乔司街道-五星行政村(泥桥自然村,青石自然村,南蒋自然村)","startTime":"2019-07-26 08:30:05","stopDate":"2019-07-26 12:30:00","orgNo":"3340140","typeCode":"电网故障停限电","poweroffArea":"110kV庙港变:南蒋G905线-民主桥2号公变后段","poweroffReason":"(低压停电信息)低压开关跳闸","powerTime":"2019-07-26 11:50:00","powerComm":"已送电","subsNo":"","lineNo":"","tgNo":"","tgName":null,"infoStatus":"1","orgName":"国网浙江杭州市余杭区供电有限公司","typeName":null,"infoStatusName":null,"dateDay":null,"orgNos":null,"nowTime":null,"countyName":null,"streetName":null,"villageName":null,"roadName":null,"communityName":null,"tranName":null,"sdLineName":null,"cityCode":"3340140","cityName":"国网浙江杭州市余杭区供电有限公司","provinceCode":null,"stopTime":"2019-07-26 12:30:00","powerType":"全部","powerOffArea":"110kV庙港变:南蒋G905线-民主桥2号公变后段","powerOffReason":"(低压停电信息)低压开关跳闸","powerOffId":"2019072631020019"},{"poweroffId":2019072631020010,"sgpoweroffId":null,"subsName":"","lineName":"10kV潭山D711线","pubTranName":"葛溪村3#七板桥公变,","scope":"浙江省-杭州市-富阳区-胥口镇-葛溪行政村-七板自然村","startTime":"2019-07-26 08:04:46","stopDate":"2019-07-26 09:04:46","orgNo":"3340170","typeCode":"电网故障停限电","poweroffArea":"110kV松溪变:潭山D711线-葛溪村3#七板桥公变后段","poweroffReason":"(低压停电信息)低压开关跳闸","powerTime":"2019-07-26 08:55:11","powerComm":"已送电","subsNo":"","lineNo":"","tgNo":"","tgName":null,"infoStatus":"1","orgName":"国网浙江杭州市富阳区供电公司","typeName":null,"infoStatusName":null,"dateDay":null,"orgNos":null,"nowTime":null,"countyName":null,"streetName":null,"villageName":null,"roadName":null,"communityName":null,"tranName":null,"sdLineName":null,"cityCode":"3340170","cityName":"国网浙江杭州市富阳区供电公司","provinceCode":null,"stopTime":"2019-07-26 09:04:46","powerType":"全部","powerOffArea":"110kV松溪变:潭山D711线-葛溪村3#七板桥公变后段","powerOffReason":"(低压停电信息)低压开关跳闸","powerOffId":"2019072631020010"},{"poweroffId":2019072631020008,"sgpoweroffId":null,"subsName":"","lineName":"10kV南蒋G905线","pubTranName":"南蒋1组公变,南蒋5组3号公变,南蒋4组5号公变,南蒋5组公变,南蒋2组6号公变,南蒋5组4号公变,南蒋6组2号公变,南蒋1组3号公变,南蒋1组2号公变,南蒋6组公变,南蒋1组6号公变,五星12组1号公变,南蒋2组5号公变,南蒋2组变,南蒋2组1号公变,南蒋5组2号公变,南蒋1组5号公变,南蒋2组3#变,民主桥2号公变,","scope":"浙江省-杭州市-余杭区-乔司街道-葛家车行政村(吴家车自然村,葛家车自然村),乔司街道-五星行政村(仓桥自然村,火烧址自然村,泥桥自然村,南蒋自然村,黄天自然村,青石自然村)一带","startTime":"2019-07-26 07:36:41","stopDate":"2019-07-26 10:36:00","orgNo":"3340140","typeCode":"电网故障停限电","poweroffArea":"110kV庙港变:南蒋G905线-民主分线后段","poweroffReason":"南蒋G905线-民主分线后段导线断线故障","powerTime":"2019-07-26 09:59:00","powerComm":"已送电","subsNo":"","lineNo":"","tgNo":"","tgName":null,"infoStatus":"1","orgName":"国网浙江杭州市余杭区供电有限公司","typeName":null,"infoStatusName":null,"dateDay":null,"orgNos":null,"nowTime":null,"countyName":null,"streetName":null,"villageName":null,"roadName":null,"communityName":null,"tranName":null,"sdLineName":null,"cityCode":"3340140","cityName":"国网浙江杭州市余杭区供电有限公司","provinceCode":null,"stopTime":"2019-07-26 10:36:00","powerType":"全部","powerOffArea":"110kV庙港变:南蒋G905线-民主分线后段","powerOffReason":"南蒋G905线-民主分线后段导线断线故障","powerOffId":"2019072631020008"},{"poweroffId":2019072631020007,"sgpoweroffId":null,"subsName":"","lineName":"10kV庄湾G817线","pubTranName":"泰山村看山河东公变,","scope":"浙江省-杭州市-余杭区-塘栖镇-泰山行政村-泰山村一带","startTime":"2019-07-26 07:07:00","stopDate":"2019-07-26 10:07:00","orgNo":"3340140","typeCode":"电网故障停限电","poweroffArea":"110kV建富变:庄湾G817线-泰山村看山河东公变后段","poweroffReason":"庄湾G817线-泰山村看山河东公变后段导线断线故障","powerTime":"2019-07-26 09:19:00","powerComm":"已送电","subsNo":"","lineNo":"","tgNo":"","tgName":null,"infoStatus":"1","orgName":"国网浙江杭州市余杭区供电有限公司","typeName":null,"infoStatusName":null,"dateDay":null,"orgNos":null,"nowTime":null,"countyName":null,"streetName":null,"villageName":null,"roadName":null,"communityName":null,"tranName":null,"sdLineName":null,"cityCode":"3340140","cityName":"国网浙江杭州市余杭区供电有限公司","provinceCode":null,"stopTime":"2019-07-26 10:07:00","powerType":"全部","powerOffArea":"110kV建富变:庄湾G817线-泰山村看山河东公变后段","powerOffReason":"庄湾G817线-泰山村看山河东公变后段导线断线故障","powerOffId":"2019072631020007"},{"poweroffId":2019072631020006,"sgpoweroffId":null,"subsName":"","lineName":"10kV梓树D973线","pubTranName":"杭州大众钢结构有限公司,大庄村14号东坞公变,杭州盈动达精密机械有限公司,十月村6#高坞里公变,十月村1#下张公变,杭州富阳航诚玻璃有限公司1#变,上大庄村12号白纸槽公变,杭州梅家坞新新茶叶有限公司,上大庄村2#周家公变,受降镇十月村5#上张公变,上大庄村3#白纸槽公变,上大庄村13号徐家公变,大庄村9号周家东公变,大庄村6#白纸槽东坞公变,大庄村8号高坞口公变,上大庄1#村委公变,十月村2#平洋公变,十月村3号高坞公变,浙江金鑫管桩有限公司,上大庄村5号白纸槽公变,十月村7号上张二公变,","scope":"浙江省-杭州市-富阳区-银湖街道-大庄行政村(上大庄自然村,潘家自然村,徐家自然村,十月自然村,高坞里自然村,平垟自然村,白纸槽自然村,横溪洋自然村,秧田坎自然村,曹家自然村,张家自然村);银湖街道(浙江金鑫管桩有限公司,杭州盈动达精密机械有限公司,杭州大众钢结构有限公司,杭州梅家坞新新茶叶有限公司,杭州富阳航诚玻璃有限公司)","startTime":"2019-07-26 06:52:00","stopDate":"2019-07-26 08:52:00","orgNo":"3340170","typeCode":"电网故障停限电","poweroffArea":"110kV九龙变:梓树D973线上大庄分线1号杆开关后段","poweroffReason":"高压开关跳闸","powerTime":"2019-07-26 08:39:06","powerComm":"已送电","subsNo":"","lineNo":"","tgNo":"","tgName":null,"infoStatus":"1","orgName":"国网浙江杭州市富阳区供电公司","typeName":null,"infoStatusName":null,"dateDay":null,"orgNos":null,"nowTime":null,"countyName":null,"streetName":null,"villageName":null,"roadName":null,"communityName":null,"tranName":null,"sdLineName":null,"cityCode":"3340170","cityName":"国网浙江杭州市富阳区供电公司","provinceCode":null,"stopTime":"2019-07-26 08:52:00","powerType":"全部","powerOffArea":"110kV九龙变:梓树D973线上大庄分线1号杆开关后段","powerOffReason":"高压开关跳闸","powerOffId":"2019072631020006"}],"pageModel":{"pageNow":1390,"totalCount":17789,"totalPage":1779,"tableRows":0,"pageCount":10,"beginCount":13890},"isExperi":"1"}