{"message":"","today":"2020-06-16","seleList":[{"poweroffId":2019072631010142,"sgpoweroffId":null,"subsName":"","lineName":"10kV自在9273线","pubTranName":"乐活(一),","scope":"浙江省-杭州市-西湖区-三墩镇(自在城东苑社区-金渡北路) 金地自在城小区乐活湾","startTime":"2019-07-26 10:14:53","stopDate":"2019-07-26 11:00:53","orgNo":"3340101","typeCode":"电网故障停限电","poweroffArea":"110kV三墩变:自在9273线-乐活(一)后段","poweroffReason":"高压开关跳闸 原预计停电结束时间2019-07-26 16:14:53,由于施工现场环境比较复杂，存在不确定因素，因此预估施工时间适当放长了，而实际施工进行得比较顺利，因此提前送电了。","powerTime":"2019-07-26 10:35:55","powerComm":"送电","subsNo":"","lineNo":"","tgNo":"","tgName":null,"infoStatus":"1","orgName":"浙江杭州电力客户服务中心","typeName":null,"infoStatusName":null,"dateDay":null,"orgNos":null,"nowTime":null,"countyName":null,"streetName":null,"villageName":null,"roadName":null,"communityName":null,"tranName":null,"sdLineName":null,"cityCode":"3340101","cityName":"浙江杭州电力客户服务中心","provinceCode":null,"stopTime":"2019-07-26 11:00:53","powerType":"全部","powerOffArea":"110kV三墩变:自在9273线-乐活(一)后段","powerOffReason":"高压开关跳闸 原预计停电结束时间2019-07-26 16:14:53,由于施工现场环境比较复杂，存在不确定因素，因此预估施工时间适当放长了，而实际施工进行得比较顺利，因此提前送电了。","powerOffId":"2019072631010142"},{"poweroffId":2019072631010132,"sgpoweroffId":null,"subsName":"","lineName":"10kV梅蓉T102线","pubTranName":"君山村1号公变,","scope":"浙江省-杭州市-桐庐县-桐君街道(君山行政村-梓芳坞自然村);","startTime":"2019-07-26 09:56:00","stopDate":"2019-07-26 11:30:05","orgNo":"3340150","typeCode":"电网故障停限电","poweroffArea":"110kV桐庐变:梅蓉T102线-君山村1号公变后段","poweroffReason":"（低压停电信息）低压开关故障处理","powerTime":"2019-07-26 11:20:25","powerComm":"已送电","subsNo":"","lineNo":"","tgNo":"","tgName":null,"infoStatus":"1","orgName":"国网浙江桐庐县供电公司","typeName":null,"infoStatusName":null,"dateDay":null,"orgNos":null,"nowTime":null,"countyName":null,"streetName":null,"villageName":null,"roadName":null,"communityName":null,"tranName":null,"sdLineName":null,"cityCode":"3340150","cityName":"国网浙江桐庐县供电公司","provinceCode":null,"stopTime":"2019-07-26 11:30:05","powerType":"全部","powerOffArea":"110kV桐庐变:梅蓉T102线-君山村1号公变后段","powerOffReason":"（低压停电信息）低压开关故障处理","powerOffId":"2019072631010132"},{"poweroffId":2019072631010128,"sgpoweroffId":null,"subsName":"","lineName":"10kV东江050线","pubTranName":"胜利,","scope":"浙江省-杭州市-西湖区-双浦镇(东江嘴行政村-东江嘴村道);","startTime":"2019-07-26 09:43:27","stopDate":"2019-07-26 11:00:37","orgNo":"3340101","typeCode":"电网故障停限电","poweroffArea":"35kV袁浦临变:东江050线-胜利后段","poweroffReason":"高压开关跳闸 原预计停电结束时间2019-07-26 15:43:27,由于施工现场环境比较复杂，存在不确定因素，因此预估施工时间适当放长了，而实际施工进行得比较顺利，因此提前送电了","powerTime":"2019-07-26 10:12:24","powerComm":"送电","subsNo":"","lineNo":"","tgNo":"","tgName":null,"infoStatus":"1","orgName":"浙江杭州电力客户服务中心","typeName":null,"infoStatusName":null,"dateDay":null,"orgNos":null,"nowTime":null,"countyName":null,"streetName":null,"villageName":null,"roadName":null,"communityName":null,"tranName":null,"sdLineName":null,"cityCode":"3340101","cityName":"浙江杭州电力客户服务中心","provinceCode":null,"stopTime":"2019-07-26 11:00:37","powerType":"全部","powerOffArea":"35kV袁浦临变:东江050线-胜利后段","powerOffReason":"高压开关跳闸 原预计停电结束时间2019-07-26 15:43:27,由于施工现场环境比较复杂，存在不确定因素，因此预估施工时间适当放长了，而实际施工进行得比较顺利，因此提前送电了","powerOffId":"2019072631010128"},{"poweroffId":2019072631010103,"sgpoweroffId":null,"subsName":"","lineName":"10kV自在9273线","pubTranName":"鸿园(九),居发施（22),吉会,天悦三变,大方施(1),大方施(4),东苑(九),大方施(3),东苑(一),凯会,天悦一变,居中施,东苑(十一),乐活(五),东苑(七),鸿联1#变,东苑(三),鸿园(五),凯盛三,金地中天2#,居发施（20）,凯盛一,居发施（14）,乐活(三),吉鸿施,蓝胜施1#变,鸿联3#变,蓝胜施2#变,凯盛充,鸿园(一),鸿联5#变,城投施四,凯盛五,乐活(一),乐专变1#,三集施六,高里,天悦五变,茹家桥,鸿园(七),居发施（19）,鸿园(三),大方施(2),东苑(五),","scope":"浙江省-杭州市-西湖区-祥符街道(陆家圩社区-长阳路、丰庆路),三墩镇(吉鸿社区-吉鸿路、吉鸿家园小区和景苑、甲来路,颐兰社区-厚仁路、金地自在城、凯盛公寓,自在城东苑社区-金渡北路、潘家路、通济路);(杭州大方吉鸿商贸投资有限公司,杭州鸿联投资有限公司,杭州吉鸿股份经济合作社,杭州蓝胜吉鸿实业有限公司,杭州市居住区发展中心有限公司,杭州市文理小学,杭州西湖城市建设投资集团有限公司,深圳市金地物业管理有限公司杭州分公司);","startTime":"2019-07-26 08:59:51","stopDate":"2019-07-26 11:00:51","orgNo":"3340101","typeCode":"电网故障停限电","poweroffArea":"110kV三墩变:自在9273线","poweroffReason":"高压开关跳闸 原预计停电结束时间2019-07-26 14:59:51,由于施工现场环境比较复杂，存在不确定因素，因此预估施工时间适当放长了，而实际施工进行得比较顺利，因此提前送电了。","powerTime":"2019-07-26 10:34:39","powerComm":"送电","subsNo":"","lineNo":"","tgNo":"","tgName":null,"infoStatus":"1","orgName":"浙江杭州电力客户服务中心","typeName":null,"infoStatusName":null,"dateDay":null,"orgNos":null,"nowTime":null,"countyName":null,"streetName":null,"villageName":null,"roadName":null,"communityName":null,"tranName":null,"sdLineName":null,"cityCode":"3340101","cityName":"浙江杭州电力客户服务中心","provinceCode":null,"stopTime":"2019-07-26 11:00:51","powerType":"全部","powerOffArea":"110kV三墩变:自在9273线","powerOffReason":"高压开关跳闸 原预计停电结束时间2019-07-26 14:59:51,由于施工现场环境比较复杂，存在不确定因素，因此预估施工时间适当放长了，而实际施工进行得比较顺利，因此提前送电了。","powerOffId":"2019072631010103"},{"poweroffId":2019072631010089,"sgpoweroffId":null,"subsName":"","lineName":"10kV窄溪T257线","pubTranName":"定安路1号公变,","scope":"浙江省杭州市桐庐县江南镇窄溪老街一带","startTime":"2019-07-26 08:36:57","stopDate":"2019-07-26 11:38:51","orgNo":"3340150","typeCode":"电网故障停限电","poweroffArea":"110kV石阜变:窄溪T257线-定安路1号公变后段","poweroffReason":"（低压停电信息）低压开关故障","powerTime":"2019-07-26 11:21:01","powerComm":"已送电","subsNo":"","lineNo":"","tgNo":"","tgName":null,"infoStatus":"1","orgName":"国网浙江桐庐县供电公司","typeName":null,"infoStatusName":null,"dateDay":null,"orgNos":null,"nowTime":null,"countyName":null,"streetName":null,"villageName":null,"roadName":null,"communityName":null,"tranName":null,"sdLineName":null,"cityCode":"3340150","cityName":"国网浙江桐庐县供电公司","provinceCode":null,"stopTime":"2019-07-26 11:38:51","powerType":"全部","powerOffArea":"110kV石阜变:窄溪T257线-定安路1号公变后段","powerOffReason":"（低压停电信息）低压开关故障","powerOffId":"2019072631010089"},{"poweroffId":2019072631010083,"sgpoweroffId":null,"subsName":"","lineName":"10kV新化Y108线","pubTranName":"白沙社区桥南公变,","scope":"浙江省-杭州市-建德市-新安江街道 白沙社区-白沙路、法院路、锦江北路、三和路、运管路、中兴南路信成公寓、华隆东路、东山湾、桥南新村、杉杉山庄、茶山北路及茶山路等一带用户。","startTime":"2019-07-26 08:18:00","stopDate":"2019-07-26 13:30:00","orgNo":"3340180","typeCode":"电网故障停限电","poweroffArea":"110kV新安江变:新化Y108线-白沙社区桥南公变后段","poweroffReason":"（低压停电信息）低压开关跳闸故障 原预计停电结束时间16:00，由于施工现场环境比较复杂，存在不确定因素，因此预估施工时间适当放长了,目前故障已修复，现将停电结束时间变更至13:30","powerTime":"2019-07-26 12:56:00","powerComm":"已送电","subsNo":"","lineNo":"","tgNo":"","tgName":null,"infoStatus":"1","orgName":"国网浙江建德市供电有限公司","typeName":null,"infoStatusName":null,"dateDay":null,"orgNos":null,"nowTime":null,"countyName":null,"streetName":null,"villageName":null,"roadName":null,"communityName":null,"tranName":null,"sdLineName":null,"cityCode":"3340180","cityName":"国网浙江建德市供电有限公司","provinceCode":null,"stopTime":"2019-07-26 13:30:00","powerType":"全部","powerOffArea":"110kV新安江变:新化Y108线-白沙社区桥南公变后段","powerOffReason":"（低压停电信息）低压开关跳闸故障 原预计停电结束时间16:00，由于施工现场环境比较复杂，存在不确定因素，因此预估施工时间适当放长了,目前故障已修复，现将停电结束时间变更至13:30","powerOffId":"2019072631010083"},{"poweroffId":2019072631010070,"sgpoweroffId":null,"subsName":"","lineName":"10kV施峰Y707线","pubTranName":"姜山村王圣堂台区,","scope":"浙江省-杭州市-建德市-梅城镇 姜山行政村-第二工业固废出资中心，马南工业区一带用户。","startTime":"2019-07-26 07:50:00","stopDate":"2019-07-26 10:00:00","orgNo":"3340180","typeCode":"电网故障停限电","poweroffArea":"110kV南峰变:施峰Y707线-姜山村王圣堂台区后段","poweroffReason":"（低压停电信息）低压开关跳闸故障 原预计停电结束时间11:00，由于施工现场环境比较复杂，存在不确定因素，因此预估施工时间适当放长了，目前故障已修复，现将停电时间变更至10:00。","powerTime":"2019-07-26 09:19:00","powerComm":"已送电","subsNo":"","lineNo":"","tgNo":"","tgName":null,"infoStatus":"1","orgName":"国网浙江建德市供电有限公司","typeName":null,"infoStatusName":null,"dateDay":null,"orgNos":null,"nowTime":null,"countyName":null,"streetName":null,"villageName":null,"roadName":null,"communityName":null,"tranName":null,"sdLineName":null,"cityCode":"3340180","cityName":"国网浙江建德市供电有限公司","provinceCode":null,"stopTime":"2019-07-26 10:00:00","powerType":"全部","powerOffArea":"110kV南峰变:施峰Y707线-姜山村王圣堂台区后段","powerOffReason":"（低压停电信息）低压开关跳闸故障 原预计停电结束时间11:00，由于施工现场环境比较复杂，存在不确定因素，因此预估施工时间适当放长了，目前故障已修复，现将停电时间变更至10:00。","powerOffId":"2019072631010070"},{"poweroffId":2019072631010068,"sgpoweroffId":null,"subsName":"","lineName":"10kV下城T272线","pubTranName":"三亚宿舍1号公变,","scope":"浙江省-杭州市-桐庐县-城南街道(金中行政村-尖端路-三亚公司宿舍);","startTime":"2019-07-26 07:52:22","stopDate":"2019-07-26 10:00:27","orgNo":"3340150","typeCode":"电网故障停限电","poweroffArea":"35kV三合变:下城T272线-三亚宿舍1号公变后段","poweroffReason":"（低压停电信息）低压开关故障","powerTime":"2019-07-26 09:40:21","powerComm":"已送电","subsNo":"","lineNo":"","tgNo":"","tgName":null,"infoStatus":"1","orgName":"国网浙江桐庐县供电公司","typeName":null,"infoStatusName":null,"dateDay":null,"orgNos":null,"nowTime":null,"countyName":null,"streetName":null,"villageName":null,"roadName":null,"communityName":null,"tranName":null,"sdLineName":null,"cityCode":"3340150","cityName":"国网浙江桐庐县供电公司","provinceCode":null,"stopTime":"2019-07-26 10:00:27","powerType":"全部","powerOffArea":"35kV三合变:下城T272线-三亚宿舍1号公变后段","powerOffReason":"（低压停电信息）低压开关故障","powerOffId":"2019072631010068"},{"poweroffId":2019072631010059,"sgpoweroffId":null,"subsName":"","lineName":"10kV天通T118线","pubTranName":"学田路1号公变,","scope":"浙江省-杭州市-桐庐县-桐君街道(东门社区-康乐路、体育场路、天目路、学田路、康复中心一带);","startTime":"2019-07-26 07:34:39","stopDate":"2019-07-26 13:10:02","orgNo":"3340150","typeCode":"电网故障停限电","poweroffArea":"110kV桐庐变:天通T118线-学田路1号公变后段","poweroffReason":"（低压停电信息）低压开关故障","powerTime":"2019-07-26 12:53:18","powerComm":"已送电","subsNo":"","lineNo":"","tgNo":"","tgName":null,"infoStatus":"1","orgName":"国网浙江桐庐县供电公司","typeName":null,"infoStatusName":null,"dateDay":null,"orgNos":null,"nowTime":null,"countyName":null,"streetName":null,"villageName":null,"roadName":null,"communityName":null,"tranName":null,"sdLineName":null,"cityCode":"3340150","cityName":"国网浙江桐庐县供电公司","provinceCode":null,"stopTime":"2019-07-26 13:10:02","powerType":"全部","powerOffArea":"110kV桐庐变:天通T118线-学田路1号公变后段","powerOffReason":"（低压停电信息）低压开关故障","powerOffId":"2019072631010059"},{"poweroffId":2019072631010056,"sgpoweroffId":null,"subsName":"","lineName":"10kV孙家T119线","pubTranName":"梅蓉村7号公变,","scope":"浙江省-杭州市-桐庐县-桐君街道(梅蓉行政村-龚家自然村、罗家自然村、滩上自然村);","startTime":"2019-07-26 07:30:07","stopDate":"2019-07-26 09:00:14","orgNo":"3340150","typeCode":"电网故障停限电","poweroffArea":"110kV桐庐变:孙家T119线-梅蓉村7号公变后段","poweroffReason":"（低压停电信息）低压开关故障","powerTime":"2019-07-26 08:40:46","powerComm":"已送电","subsNo":"","lineNo":"","tgNo":"","tgName":null,"infoStatus":"1","orgName":"国网浙江桐庐县供电公司","typeName":null,"infoStatusName":null,"dateDay":null,"orgNos":null,"nowTime":null,"countyName":null,"streetName":null,"villageName":null,"roadName":null,"communityName":null,"tranName":null,"sdLineName":null,"cityCode":"3340150","cityName":"国网浙江桐庐县供电公司","provinceCode":null,"stopTime":"2019-07-26 09:00:14","powerType":"全部","powerOffArea":"110kV桐庐变:孙家T119线-梅蓉村7号公变后段","powerOffReason":"（低压停电信息）低压开关故障","powerOffId":"2019072631010056"}],"pageModel":{"pageNow":1394,"totalCount":17789,"totalPage":1779,"tableRows":0,"pageCount":10,"beginCount":13930},"isExperi":"1"}