{"message":"","today":"2020-06-16","seleList":[{"poweroffId":2019072531020157,"sgpoweroffId":null,"subsName":"","lineName":"10kV恒新G791线","pubTranName":"运河镇章家河村汤安坝公变,","scope":"浙江省杭州市余杭区运河街道：章家河村章家河一带","startTime":"2019-08-07 07:00:00","stopDate":"2019-08-07 16:00:00","orgNo":"3340140","typeCode":"计划停电","poweroffArea":"110kV建富变:恒新G791线-运河镇章家河村汤安坝公变后段","poweroffReason":"(低压停电信息)配网工程（2019年杭州余杭东湖街道0.4千伏马公桥等配变台区改造工程):调换落户线40对","powerTime":"2019-08-07 15:35:00","powerComm":"工作完成","subsNo":"","lineNo":"","tgNo":"","tgName":null,"infoStatus":"1","orgName":"国网浙江杭州市余杭区供电有限公司","typeName":null,"infoStatusName":null,"dateDay":null,"orgNos":null,"nowTime":null,"countyName":null,"streetName":null,"villageName":null,"roadName":null,"communityName":null,"tranName":null,"sdLineName":null,"cityCode":"3340140","cityName":"国网浙江杭州市余杭区供电有限公司","provinceCode":null,"stopTime":"2019-08-07 16:00:00","powerType":"全部","powerOffArea":"110kV建富变:恒新G791线-运河镇章家河村汤安坝公变后段","powerOffReason":"(低压停电信息)配网工程（2019年杭州余杭东湖街道0.4千伏马公桥等配变台区改造工程):调换落户线40对","powerOffId":"2019072531020157"},{"poweroffId":2019072531020133,"sgpoweroffId":null,"subsName":"","lineName":"10kV梓树D973线","pubTranName":"杭州梅家坞新新茶叶有限公司,十月村1#下张公变,上大庄村2#周家公变,浙江金鑫管桩有限公司,上大庄村12号白纸槽公变,十月村3号高坞公变,大庄村8号高坞口公变,受降镇十月村5#上张公变,十月村6#高坞里公变,杭州富阳航诚玻璃有限公司1#变,上大庄1#村委公变,上大庄村3#白纸槽公变,十月村2#平洋公变,上大庄村13号徐家公变,大庄村14号东坞公变,杭州盈动达精密机械有限公司,十月村7号上张二公变,上大庄村5号白纸槽公变,大庄村6#白纸槽东坞公变,杭州大众钢结构有限公司,大庄村9号周家东公变,","scope":"浙江省-杭州市-富阳区-银湖街道-大庄行政村(上大庄自然村,潘家自然村,徐家自然村,十月自然村,高坞里自然村,平垟自然村,白纸槽自然村,横溪洋自然村,秧田坎自然村,曹家自然村,张家自然村);银湖街道(浙江金鑫管桩有限公司,杭州盈动达精密机械有限公司,杭州大众钢结构有限公司,杭州梅家坞新新茶叶有限公司,杭州富阳航诚玻璃有限公司)","startTime":"2019-07-25 16:06:00","stopDate":"2019-07-25 18:06:00","orgNo":"3340170","typeCode":"电网故障停限电","poweroffArea":"110kV九龙变:梓树D973线上大庄分线1号杆开关后段","poweroffReason":"高压开关跳闸，原停电结束时间2019-07-25 19:06:00，因抢修力度加强变更至2019-07-25 18:06:00","powerTime":"2019-07-25 17:28:54","powerComm":"已送电","subsNo":"","lineNo":"","tgNo":"","tgName":null,"infoStatus":"1","orgName":"国网浙江杭州市富阳区供电公司","typeName":null,"infoStatusName":null,"dateDay":null,"orgNos":null,"nowTime":null,"countyName":null,"streetName":null,"villageName":null,"roadName":null,"communityName":null,"tranName":null,"sdLineName":null,"cityCode":"3340170","cityName":"国网浙江杭州市富阳区供电公司","provinceCode":null,"stopTime":"2019-07-25 18:06:00","powerType":"全部","powerOffArea":"110kV九龙变:梓树D973线上大庄分线1号杆开关后段","powerOffReason":"高压开关跳闸，原停电结束时间2019-07-25 19:06:00，因抢修力度加强变更至2019-07-25 18:06:00","powerOffId":"2019072531020133"},{"poweroffId":2019072531020125,"sgpoweroffId":null,"subsName":"","lineName":"10kV北星H371线","pubTranName":"大陆村九房桥公变,","scope":"浙江省-杭州市-余杭区-良渚街道-大陆行政村-九房桥自然村","startTime":"2019-07-25 15:57:00","stopDate":"2019-07-25 18:30:00","orgNo":"3340140","typeCode":"电网故障停限电","poweroffArea":"110kV学里变:北星H371线-大陆村九房桥公变后段","poweroffReason":"(低压停电信息) 大陆村九房桥公变后段 低压断线故障","powerTime":"2019-07-25 18:01:00","powerComm":"已送电","subsNo":"","lineNo":"","tgNo":"","tgName":null,"infoStatus":"1","orgName":"国网浙江杭州市余杭区供电有限公司","typeName":null,"infoStatusName":null,"dateDay":null,"orgNos":null,"nowTime":null,"countyName":null,"streetName":null,"villageName":null,"roadName":null,"communityName":null,"tranName":null,"sdLineName":null,"cityCode":"3340140","cityName":"国网浙江杭州市余杭区供电有限公司","provinceCode":null,"stopTime":"2019-07-25 18:30:00","powerType":"全部","powerOffArea":"110kV学里变:北星H371线-大陆村九房桥公变后段","powerOffReason":"(低压停电信息) 大陆村九房桥公变后段 低压断线故障","powerOffId":"2019072531020125"},{"poweroffId":2019072531020114,"sgpoweroffId":null,"subsName":"","lineName":"10kV五星H733线","pubTranName":"来山庙,","scope":"浙江省-杭州市-余杭区-闲林街道-联荣行政村来山庙自然村,联荣自然村一带","startTime":"2019-07-25 15:45:00","stopDate":"2019-07-25 18:00:00","orgNo":"3340140","typeCode":"电网故障停限电","poweroffArea":"110kV闲林变:五星H733线-来山庙后段","poweroffReason":"(低压停电信息)来山庙后段 低压导线断线故障","powerTime":"2019-07-25 17:48:00","powerComm":"已送电","subsNo":"","lineNo":"","tgNo":"","tgName":null,"infoStatus":"1","orgName":"国网浙江杭州市余杭区供电有限公司","typeName":null,"infoStatusName":null,"dateDay":null,"orgNos":null,"nowTime":null,"countyName":null,"streetName":null,"villageName":null,"roadName":null,"communityName":null,"tranName":null,"sdLineName":null,"cityCode":"3340140","cityName":"国网浙江杭州市余杭区供电有限公司","provinceCode":null,"stopTime":"2019-07-25 18:00:00","powerType":"全部","powerOffArea":"110kV闲林变:五星H733线-来山庙后段","powerOffReason":"(低压停电信息)来山庙后段 低压导线断线故障","powerOffId":"2019072531020114"},{"poweroffId":2019072531020110,"sgpoweroffId":null,"subsName":"","lineName":"10kV临江D316线","pubTranName":"临江村6#村中公变,临江村4#新区东公变,","scope":"浙江省-杭州市-富阳区-春江街道-临江行政村(临江自然村,华共自然村,富源自然村)","startTime":"2019-07-25 15:28:00","stopDate":"2019-07-25 17:28:00","orgNo":"3340170","typeCode":"电网故障停限电","poweroffArea":"110kV建设变:临江D316线临江村分线3#杆开关后段","poweroffReason":"高压开关跳闸","powerTime":"2019-07-25 16:41:45","powerComm":"已送电","subsNo":"","lineNo":"","tgNo":"","tgName":null,"infoStatus":"1","orgName":"国网浙江杭州市富阳区供电公司","typeName":null,"infoStatusName":null,"dateDay":null,"orgNos":null,"nowTime":null,"countyName":null,"streetName":null,"villageName":null,"roadName":null,"communityName":null,"tranName":null,"sdLineName":null,"cityCode":"3340170","cityName":"国网浙江杭州市富阳区供电公司","provinceCode":null,"stopTime":"2019-07-25 17:28:00","powerType":"全部","powerOffArea":"110kV建设变:临江D316线临江村分线3#杆开关后段","powerOffReason":"高压开关跳闸","powerOffId":"2019072531020110"},{"poweroffId":2019072531020109,"sgpoweroffId":null,"subsName":"","lineName":"10kV白泥D226线","pubTranName":"勤乐村石墓2#梓树岭公变,","scope":"浙江省-杭州市-富阳区-银湖街道-勤乐行政村(梓树岭自然村,蚌壳山自然村,石墓自然村)","startTime":"2019-07-25 15:21:38","stopDate":"2019-07-25 17:21:32","orgNo":"3340170","typeCode":"电网故障停限电","poweroffArea":"110kV银湖变:白泥D226线-勤乐村石墓2#梓树岭公变后段","poweroffReason":"(低压停电信息)低压开关跳闸","powerTime":"2019-07-25 16:23:25","powerComm":"已送电","subsNo":"","lineNo":"","tgNo":"","tgName":null,"infoStatus":"1","orgName":"国网浙江杭州市富阳区供电公司","typeName":null,"infoStatusName":null,"dateDay":null,"orgNos":null,"nowTime":null,"countyName":null,"streetName":null,"villageName":null,"roadName":null,"communityName":null,"tranName":null,"sdLineName":null,"cityCode":"3340170","cityName":"国网浙江杭州市富阳区供电公司","provinceCode":null,"stopTime":"2019-07-25 17:21:32","powerType":"全部","powerOffArea":"110kV银湖变:白泥D226线-勤乐村石墓2#梓树岭公变后段","powerOffReason":"(低压停电信息)低压开关跳闸","powerOffId":"2019072531020109"},{"poweroffId":2019072531020101,"sgpoweroffId":null,"subsName":"","lineName":"10kV徐桥D641线","pubTranName":"杭州富阳鑫洲纸业有限公司1#变,富阳新盈嘉水务有限公司1#变,富阳新盈嘉水务有限公司3#变,杭州富阳真力机械有限公司,富阳市灵桥镇人民政府,","scope":"浙江省-杭州市-富阳区-灵桥镇(杭州富阳真力机械有限公司,富阳市灵桥镇人民政府,杭州富阳新盈嘉水务有限公司,杭州富阳博达纺织品有限公司)","startTime":"2019-07-25 14:49:49","stopDate":"2019-07-25 16:49:51","orgNo":"3340170","typeCode":"电网故障停限电","poweroffArea":"110kV灵桥变:徐桥D641线徐桥D6411开关后段","poweroffReason":"高压开关跳闸，原停电结束时间 为2019-07-25 14:49:51，因施工难度大2019-07-25 16:49:51","powerTime":"2019-07-25 15:51:41","powerComm":"已送电","subsNo":"","lineNo":"","tgNo":"","tgName":null,"infoStatus":"1","orgName":"国网浙江杭州市富阳区供电公司","typeName":null,"infoStatusName":null,"dateDay":null,"orgNos":null,"nowTime":null,"countyName":null,"streetName":null,"villageName":null,"roadName":null,"communityName":null,"tranName":null,"sdLineName":null,"cityCode":"3340170","cityName":"国网浙江杭州市富阳区供电公司","provinceCode":null,"stopTime":"2019-07-25 16:49:51","powerType":"全部","powerOffArea":"110kV灵桥变:徐桥D641线徐桥D6411开关后段","powerOffReason":"高压开关跳闸，原停电结束时间 为2019-07-25 14:49:51，因施工难度大2019-07-25 16:49:51","powerOffId":"2019072531020101"},{"poweroffId":2019072531020095,"sgpoweroffId":null,"subsName":"","lineName":"10kV太平H547线","pubTranName":"双溪村中心农居点2号公变,","scope":"浙江省-杭州市-余杭区-径山镇-双溪行政村双溪村,上街自然村,化城自然村一带","startTime":"2019-07-25 14:39:00","stopDate":"2019-07-25 16:39:00","orgNo":"3340140","typeCode":"电网故障停限电","poweroffArea":"110kV潘板变:太平H547线-双溪村中心农居点2号公变后段","poweroffReason":"(低压停电信息)双溪村中心农居点2号公变后段 导线导线故障","powerTime":"2019-07-25 16:13:00","powerComm":"已送电","subsNo":"","lineNo":"","tgNo":"","tgName":null,"infoStatus":"1","orgName":"国网浙江杭州市余杭区供电有限公司","typeName":null,"infoStatusName":null,"dateDay":null,"orgNos":null,"nowTime":null,"countyName":null,"streetName":null,"villageName":null,"roadName":null,"communityName":null,"tranName":null,"sdLineName":null,"cityCode":"3340140","cityName":"国网浙江杭州市余杭区供电有限公司","provinceCode":null,"stopTime":"2019-07-25 16:39:00","powerType":"全部","powerOffArea":"110kV潘板变:太平H547线-双溪村中心农居点2号公变后段","powerOffReason":"(低压停电信息)双溪村中心农居点2号公变后段 导线导线故障","powerOffId":"2019072531020095"},{"poweroffId":2019072531020089,"sgpoweroffId":null,"subsName":"","lineName":"10kV东兴D560线","pubTranName":"东山花苑2号变,","scope":"浙江省-杭州市-富阳区-富春街道(东山社区-东兴路,虎山社区-东兴路)","startTime":"2019-07-25 14:05:14","stopDate":"2019-07-25 23:00:00","orgNo":"3340170","typeCode":"电网故障停限电","poweroffArea":"110kV春江变:东兴D560线-东山花苑2号变后段","poweroffReason":"高压开关跳闸（测试信息），原停电结束时间为2019-07-28 16:05:14，因抢修力量加强变更至2019-07-25 23:00:00","powerTime":"2019-07-25 22:03:46","powerComm":"已送电","subsNo":"","lineNo":"","tgNo":"","tgName":null,"infoStatus":"1","orgName":"国网浙江杭州市富阳区供电公司","typeName":null,"infoStatusName":null,"dateDay":null,"orgNos":null,"nowTime":null,"countyName":null,"streetName":null,"villageName":null,"roadName":null,"communityName":null,"tranName":null,"sdLineName":null,"cityCode":"3340170","cityName":"国网浙江杭州市富阳区供电公司","provinceCode":null,"stopTime":"2019-07-25 23:00:00","powerType":"全部","powerOffArea":"110kV春江变:东兴D560线-东山花苑2号变后段","powerOffReason":"高压开关跳闸（测试信息），原停电结束时间为2019-07-28 16:05:14，因抢修力量加强变更至2019-07-25 23:00:00","powerOffId":"2019072531020089"},{"poweroffId":2019072531020087,"sgpoweroffId":null,"subsName":"","lineName":"10kV新江C536线","pubTranName":"桃北新村25#变,","scope":"浙江省-杭州市-萧山区-浦阳镇-桃北新行政村-许家自然村","startTime":"2019-08-07 08:00:00","stopDate":"2019-08-07 12:00:00","orgNo":"3340130","typeCode":"计划停电","poweroffArea":"35kV径游变:新江C536线-桃北新村25#变后段","poweroffReason":"桃北新村25#变移位","powerTime":"2019-08-07 11:58:23","powerComm":"已送电","subsNo":"","lineNo":"","tgNo":"","tgName":null,"infoStatus":"1","orgName":"国网浙江杭州市萧山区供电有限公司","typeName":null,"infoStatusName":null,"dateDay":null,"orgNos":null,"nowTime":null,"countyName":null,"streetName":null,"villageName":null,"roadName":null,"communityName":null,"tranName":null,"sdLineName":null,"cityCode":"3340130","cityName":"国网浙江杭州市萧山区供电有限公司","provinceCode":null,"stopTime":"2019-08-07 12:00:00","powerType":"全部","powerOffArea":"35kV径游变:新江C536线-桃北新村25#变后段","powerOffReason":"桃北新村25#变移位","powerOffId":"2019072531020087"}],"pageModel":{"pageNow":1396,"totalCount":17789,"totalPage":1779,"tableRows":0,"pageCount":10,"beginCount":13950},"isExperi":"1"}