{"message":"","today":"2020-06-16","seleList":[{"poweroffId":2019072531010216,"sgpoweroffId":null,"subsName":"","lineName":"10kV欢潭A354线","pubTranName":"新江村1#变,","scope":"浙江省-杭州市-萧山区-进化镇(新江行政村-泥桥头自然村)浙江省杭州市萧山区进化镇新江村199号,浙江省杭州市萧山区进化镇新江行政村泥桥头自然村一带","startTime":"2019-07-25 15:00:56","stopDate":"2019-07-25 17:00:56","orgNo":"3340130","typeCode":"电网故障停限电","poweroffArea":"110kV进化变:欢潭A354线-新江村1#变台区低压开关","poweroffReason":"（低压停电信息）低压熔断器短路故障","powerTime":"2019-07-25 16:32:59","powerComm":"已送电","subsNo":"","lineNo":"","tgNo":"","tgName":null,"infoStatus":"1","orgName":"国网浙江杭州市萧山区供电有限公司","typeName":null,"infoStatusName":null,"dateDay":null,"orgNos":null,"nowTime":null,"countyName":null,"streetName":null,"villageName":null,"roadName":null,"communityName":null,"tranName":null,"sdLineName":null,"cityCode":"3340130","cityName":"国网浙江杭州市萧山区供电有限公司","provinceCode":null,"stopTime":"2019-07-25 17:00:56","powerType":"全部","powerOffArea":"110kV进化变:欢潭A354线-新江村1#变台区低压开关","powerOffReason":"（低压停电信息）低压熔断器短路故障","powerOffId":"2019072531010216"},{"poweroffId":2019072531010203,"sgpoweroffId":null,"subsName":"","lineName":"10kV义府A50线","pubTranName":"义蓬安置小区3#变,","scope":"浙江省-杭州市-萧山区-义蓬街道义蓬行政村、义蓬自然村、义蓬街道义蓬名苑、义蓬村一带","startTime":"2019-07-25 14:20:05","stopDate":"2019-07-25 16:50:06","orgNo":"3340120","typeCode":"电网故障停限电","poweroffArea":"110kV白浪变:义府A50线-义蓬安置小区3#变台区低压开关","poweroffReason":"低压漏电保护器短路故障","powerTime":"2019-07-25 15:58:17","powerComm":"已送电","subsNo":"","lineNo":"","tgNo":"","tgName":null,"infoStatus":"1","orgName":"国网浙江杭州市钱塘新区供电公司","typeName":null,"infoStatusName":null,"dateDay":null,"orgNos":null,"nowTime":null,"countyName":null,"streetName":null,"villageName":null,"roadName":null,"communityName":null,"tranName":null,"sdLineName":null,"cityCode":"3340120","cityName":"国网浙江杭州市钱塘新区供电公司","provinceCode":null,"stopTime":"2019-07-25 16:50:06","powerType":"全部","powerOffArea":"110kV白浪变:义府A50线-义蓬安置小区3#变台区低压开关","powerOffReason":"低压漏电保护器短路故障","powerOffId":"2019072531010203"},{"poweroffId":2019072531010201,"sgpoweroffId":null,"subsName":"","lineName":"10kV柴家A536线","pubTranName":"浦一村5#变,","scope":"浙江省-杭州市-萧山区-浦阳镇(浦一行政村-汪家埭自然村);浙江省杭州市萧山区浦阳镇浦一行政村汪家大一带","startTime":"2019-07-25 14:25:21","stopDate":"2019-07-25 16:00:27","orgNo":"3340130","typeCode":"电网故障停限电","poweroffArea":"110kV浦阳变:柴家A536线-浦一村5#变台区低压开关","poweroffReason":"（低压停电信息）低压熔断器短路故障","powerTime":"2019-07-25 15:30:25","powerComm":"已送电","subsNo":"","lineNo":"","tgNo":"","tgName":null,"infoStatus":"1","orgName":"国网浙江杭州市萧山区供电有限公司","typeName":null,"infoStatusName":null,"dateDay":null,"orgNos":null,"nowTime":null,"countyName":null,"streetName":null,"villageName":null,"roadName":null,"communityName":null,"tranName":null,"sdLineName":null,"cityCode":"3340130","cityName":"国网浙江杭州市萧山区供电有限公司","provinceCode":null,"stopTime":"2019-07-25 16:00:27","powerType":"全部","powerOffArea":"110kV浦阳变:柴家A536线-浦一村5#变台区低压开关","powerOffReason":"（低压停电信息）低压熔断器短路故障","powerOffId":"2019072531010201"},{"poweroffId":2019072531010193,"sgpoweroffId":null,"subsName":"","lineName":"10kV精诚T208线","pubTranName":"桐庐春江粘胶剂有限公司,桐庐玉珍塑料制品有限公司,桐庐大通水电设备安装有限公司,桐庐丽都服饰有限公司,桐庐万泰针织有限公司,云庐新天地2号公变,桐庐飒斯特服饰有限公司变压器,湖头上1号公变,浙江春风米兰鸥服饰有限公司,桐庐宇帆针织有限公司,桐庐丰源针织有限公司,桐庐健博运动用品有限公司,桐庐元盛工艺针织厂,桐庐盛诚笔业有限公司变压器,桐庐道忠电器五金厂,杭州天华电子有限公司,桐庐永兴印刷厂,桐庐丰羽服饰有限公司,杭州茜茜鲁服饰有限公司,祥和路新区4号公变,桐庐鑫泽针织服饰有限公司,桐庐远东工艺针织厂,浙江春风米兰鸥服饰有限公司,桐庐潍源针织有限公司,桐庐恒业针织厂,杭州昱达科技有限公司,桐庐绫慧针织有限公司,桐庐宏雁针织有限公司,杭州立威化工涂料有限公司,桐庐林佳针织厂,桐庐富特针织服饰水洗厂,杭州市桐庐皮革橡塑制品厂,杭州琪利琪羊绒服饰有限公司,祥和路新区3号公变,云庐新天地1号公变,桐庐大通水电设备安装有限公司,桐庐春瑞针织有限公司,桐庐昱昕塑料制品有限公司,桐庐宁航针纺有限公司,桐庐富兴轴瓦有限公司,桐庐万虹针纺织有限公司,桐庐新兴针织厂,杭州盛丰针织服饰有限公司,桐庐泽森针纺有限公司,杭州盛丰针织服饰有限公司,桐庐彩姿针织有限公司,桐庐广保工具箱包厂,景秀公寓1号公变,景秀公寓2号公变,湖头上2号公变,","scope":"浙江省-杭州市-桐庐县-横村镇(城东行政村-北环路、精城路、双湖自然村、祥和路);(杭州东荣制衣有限公司,杭州立威化工涂料有限公司,杭州米兰鸥服饰有限公司,杭州米兰鸥服饰有限公司宿舍,杭州盛丰针织服饰有限公司,杭州天华电子有限公司,杭州琪利琪羊绒服饰有限公司,杭州昱达科技有限公司,桐庐彩姿针织有限公司,桐庐诚宇塑料文具用品厂,桐庐春江胶粘剂有限公司,桐庐春瑞针织有限公司,桐庐道忠电器五金厂,桐庐方埠第一塑料厂,桐庐丰羽服饰有限公司,桐庐丰源针织有限公司,桐庐富特针织服饰水洗厂,桐庐富兴轴瓦有限公司,桐庐广保工具箱包厂,桐庐恒业针织厂,桐庐宏雁针织有限公司,桐庐丽都服饰有限公司,桐庐宁航针纺有限公司,桐庐盛诚笔业有限公司,桐庐万虹针纺织有限公司,桐庐万泰针织有限公司,桐庐王珍针织厂,桐庐潍源针织有限公司,桐庐县横村村镇建设开发有限公司,桐庐新兴针织厂,桐庐永兴印务有限公司,桐庐宇帆针织有限公司,桐庐玉珍塑料制品有限公司,桐庐元盛服饰有限公司,桐庐远东工艺针织厂,桐庐泽森针纺有限公司,桐庐绫慧针织有限公司,桐庐飒斯特服饰有限公司,桐庐鑫泽针织服饰有限公司,舞台张(杭州)机械制造有限公司);","startTime":"2019-07-25 14:15:56","stopDate":"2019-07-25 15:00:00","orgNo":"3340150","typeCode":"电网故障停限电","poweroffArea":"110kV方埠变:精诚T208线","poweroffReason":"（低压停电信息）低压开关故障","powerTime":"2019-07-25 14:45:19","powerComm":"已送电","subsNo":"","lineNo":"","tgNo":"","tgName":null,"infoStatus":"1","orgName":"国网浙江桐庐县供电公司","typeName":null,"infoStatusName":null,"dateDay":null,"orgNos":null,"nowTime":null,"countyName":null,"streetName":null,"villageName":null,"roadName":null,"communityName":null,"tranName":null,"sdLineName":null,"cityCode":"3340150","cityName":"国网浙江桐庐县供电公司","provinceCode":null,"stopTime":"2019-07-25 15:00:00","powerType":"全部","powerOffArea":"110kV方埠变:精诚T208线","powerOffReason":"（低压停电信息）低压开关故障","powerOffId":"2019072531010193"},{"poweroffId":2019072531010189,"sgpoweroffId":null,"subsName":"","lineName":"10kV双湖T203线","pubTranName":"桐庐富鹰针织有限公司,桐庐金利针织有限公司,方埠集镇2号公变,杭州春江阀门有限公司,杭州莎靓服饰有限公司,方埠头2号公变,柴场里2号公变,桐庐县方埠中心学校,李家2号公变,杭州姿帛针织有限公司,杭州姿帛针织有限公司,杭州邢氏塑料制品厂,双湖天桥边1号公变,怡景嘉苑2号公变,方埠集镇3号公变,柴场里5号公变,李家1号公变,杭州桐春汽车零部件制造有限公司,柴场里3号公变,怡景嘉苑1号公变,杭州天华电子有限公司,柴场里1号公变,桐庐盛辉针织厂,桐庐田生针织有限公司,桐庐县第三人民医院,双湖金家1号公变,柴场里4号公变,金色华庭1号公变,杭州桐庐新艺针织厂,桐庐县飞龙粮油工贸有限公司,杭州邢氏塑料制品厂,杭州水晶运动机械有限公司,双湖金家2号公变,桐庐五星标牌厂,变压器,桐庐红纺针织有限公司,方埠集镇1号公变,白颈庙1号公变,","scope":"浙江省-杭州市-桐庐县-横村镇(城东行政村-北环路、精城路、双湖自然村、桐千路、祥和路、徐家埠自然村,方埠行政村-方埠自然村);(杭州春江阀门有限公司,杭州莎靓服饰有限公司,杭州桐春汽车零部件制造有限公司,杭州桐庐新艺针织厂,杭州西缘实业有限公司,杭州星群针织服饰有限公司,杭州姿帛针织有限公司,桐庐富鹰针织有限公司,桐庐红纺针织有限公司,桐庐罗兰针织有限公司,桐庐盛辉针织厂,桐庐田生针织有限公司,桐庐县第三人民医院,桐庐县方埠小学,桐庐县飞龙粮油工贸有限公司,桐庐县供销发展有限公司,桐庐县横村村镇建设开发有限公司,桐庐邢氏塑料制品厂,桐庐鑫利针织有限公司);","startTime":"2019-07-25 14:11:52","stopDate":"2019-07-25 15:00:07","orgNo":"3340150","typeCode":"电网故障停限电","poweroffArea":"110kV方埠变:双湖T203线","poweroffReason":"（低压停电信息）低压开关故障","powerTime":"2019-07-25 14:46:10","powerComm":"已送电。","subsNo":"","lineNo":"","tgNo":"","tgName":null,"infoStatus":"1","orgName":"国网浙江桐庐县供电公司","typeName":null,"infoStatusName":null,"dateDay":null,"orgNos":null,"nowTime":null,"countyName":null,"streetName":null,"villageName":null,"roadName":null,"communityName":null,"tranName":null,"sdLineName":null,"cityCode":"3340150","cityName":"国网浙江桐庐县供电公司","provinceCode":null,"stopTime":"2019-07-25 15:00:07","powerType":"全部","powerOffArea":"110kV方埠变:双湖T203线","powerOffReason":"（低压停电信息）低压开关故障","powerOffId":"2019072531010189"},{"poweroffId":2019072531010166,"sgpoweroffId":null,"subsName":"","lineName":"10kV盛东C922线","pubTranName":"盛中村21#变,","scope":"浙江省杭州市萧山区新街街道、新街镇、盛中行政村、盛中村等一带","startTime":"2019-07-25 12:34:20","stopDate":"2019-07-25 16:36:14","orgNo":"3340130","typeCode":"电网故障停限电","poweroffArea":"110kV鸿达变:盛东C922线-盛中村21#变台区低压开关","poweroffReason":"（低压停电信息）低压漏电保护器短路故障","powerTime":"2019-07-25 15:40:06","powerComm":"已送电","subsNo":"","lineNo":"","tgNo":"","tgName":null,"infoStatus":"1","orgName":"国网浙江杭州市萧山区供电有限公司","typeName":null,"infoStatusName":null,"dateDay":null,"orgNos":null,"nowTime":null,"countyName":null,"streetName":null,"villageName":null,"roadName":null,"communityName":null,"tranName":null,"sdLineName":null,"cityCode":"3340130","cityName":"国网浙江杭州市萧山区供电有限公司","provinceCode":null,"stopTime":"2019-07-25 16:36:14","powerType":"全部","powerOffArea":"110kV鸿达变:盛东C922线-盛中村21#变台区低压开关","powerOffReason":"（低压停电信息）低压漏电保护器短路故障","powerOffId":"2019072531010166"},{"poweroffId":2019072531010154,"sgpoweroffId":null,"subsName":"","lineName":"10kV新化Y108线","pubTranName":"白沙社区三和公变,白沙社区东山湾公变,","scope":"浙江省-杭州市-建德市-新安江街道 白沙社区-白沙路、华隆东路、三和路、运管路 一带用户","startTime":"2019-07-25 11:55:00","stopDate":"2019-07-25 14:00:00","orgNo":"3340180","typeCode":"电网故障停限电","poweroffArea":"110kV新安江变:新化Y108线-白沙社区三和公变后段","poweroffReason":"（低压停电信息）低压开关跳闸故障","powerTime":"2019-07-25 13:10:00","powerComm":"已送电","subsNo":"","lineNo":"","tgNo":"","tgName":null,"infoStatus":"1","orgName":"国网浙江建德市供电有限公司","typeName":null,"infoStatusName":null,"dateDay":null,"orgNos":null,"nowTime":null,"countyName":null,"streetName":null,"villageName":null,"roadName":null,"communityName":null,"tranName":null,"sdLineName":null,"cityCode":"3340180","cityName":"国网浙江建德市供电有限公司","provinceCode":null,"stopTime":"2019-07-25 14:00:00","powerType":"全部","powerOffArea":"110kV新安江变:新化Y108线-白沙社区三和公变后段","powerOffReason":"（低压停电信息）低压开关跳闸故障","powerOffId":"2019072531010154"},{"poweroffId":2019072531010145,"sgpoweroffId":null,"subsName":"","lineName":"10kV杨家T106线","pubTranName":"麻蓬村1号公变,","scope":"浙江省-杭州市-桐庐县-桐君街道(麻蓬行政村-仇岭坞自然村、求里屋路口);","startTime":"2019-07-25 11:20:21","stopDate":"2019-07-25 14:23:01","orgNo":"3340150","typeCode":"电网故障停限电","poweroffArea":"110kV桐庐变:杨家T106线-麻蓬村1号公变后段","poweroffReason":"（低压停电信息）低压开关故障","powerTime":"2019-07-25 14:00:15","powerComm":"已送电。","subsNo":"","lineNo":"","tgNo":"","tgName":null,"infoStatus":"1","orgName":"国网浙江桐庐县供电公司","typeName":null,"infoStatusName":null,"dateDay":null,"orgNos":null,"nowTime":null,"countyName":null,"streetName":null,"villageName":null,"roadName":null,"communityName":null,"tranName":null,"sdLineName":null,"cityCode":"3340150","cityName":"国网浙江桐庐县供电公司","provinceCode":null,"stopTime":"2019-07-25 14:23:01","powerType":"全部","powerOffArea":"110kV桐庐变:杨家T106线-麻蓬村1号公变后段","powerOffReason":"（低压停电信息）低压开关故障","powerOffId":"2019072531010145"},{"poweroffId":2019072531010139,"sgpoweroffId":null,"subsName":"","lineName":"10kV体龙6712线","pubTranName":"西管变,变压器,浙江恒励物业管理有限公司,在用1,浙江歌舞总团排练厅2,2,黄龙变I,变压器,1#,变压器,浙江恒励物业管理有限公司,浙江歌舞总团排练厅315,","scope":"浙江省-杭州市-西湖区-北山街道(友谊社区-西溪路、友谊新村);(杭州市西湖区城市管理局,浙江歌舞总团排练厅,浙江恒励物业管理有限公司,浙江省黄龙体育中心,紫云饭店);","startTime":"2019-07-25 10:59:07","stopDate":"2019-07-25 14:20:00","orgNo":"3340101","typeCode":"电网故障停限电","poweroffArea":"110kV黄体变:体龙6712线","poweroffReason":"高压开关跳闸 原预计停电结束时间2019-07-25 16:59:07,由于施工现场环境比较复杂，存在不确定因素，因此预估施工时间适当放长了，而实际施工进行得比较顺利，因此提前送电了","powerTime":"2019-07-25 13:41:29","powerComm":"送电","subsNo":"","lineNo":"","tgNo":"","tgName":null,"infoStatus":"1","orgName":"浙江杭州电力客户服务中心","typeName":null,"infoStatusName":null,"dateDay":null,"orgNos":null,"nowTime":null,"countyName":null,"streetName":null,"villageName":null,"roadName":null,"communityName":null,"tranName":null,"sdLineName":null,"cityCode":"3340101","cityName":"浙江杭州电力客户服务中心","provinceCode":null,"stopTime":"2019-07-25 14:20:00","powerType":"全部","powerOffArea":"110kV黄体变:体龙6712线","powerOffReason":"高压开关跳闸 原预计停电结束时间2019-07-25 16:59:07,由于施工现场环境比较复杂，存在不确定因素，因此预估施工时间适当放长了，而实际施工进行得比较顺利，因此提前送电了","powerOffId":"2019072531010139"},{"poweroffId":2019072531010132,"sgpoweroffId":null,"subsName":"","lineName":"10kV四围A492线","pubTranName":"新发村7#变,","scope":"浙江省-杭州市-萧山区-益农镇(新发行政村-新发自然村);新发村一带","startTime":"2019-07-25 10:25:35","stopDate":"2019-07-25 12:10:51","orgNo":"3340130","typeCode":"电网故障停限电","poweroffArea":"110kV群围变:四围A492线-新发村7#变台区低压开关","poweroffReason":"（低压停电信息）低压漏电保护器短路故障 原停电结束时间:2019-07-25 16:27:24,变更停电结束时间:2019-07-25 12:10:51。由于抢修工作提前完成,故需要提前送电。","powerTime":"2019-07-25 11:29:38","powerComm":"已送电","subsNo":"","lineNo":"","tgNo":"","tgName":null,"infoStatus":"1","orgName":"国网浙江杭州市萧山区供电有限公司","typeName":null,"infoStatusName":null,"dateDay":null,"orgNos":null,"nowTime":null,"countyName":null,"streetName":null,"villageName":null,"roadName":null,"communityName":null,"tranName":null,"sdLineName":null,"cityCode":"3340130","cityName":"国网浙江杭州市萧山区供电有限公司","provinceCode":null,"stopTime":"2019-07-25 12:10:51","powerType":"全部","powerOffArea":"110kV群围变:四围A492线-新发村7#变台区低压开关","powerOffReason":"（低压停电信息）低压漏电保护器短路故障 原停电结束时间:2019-07-25 16:27:24,变更停电结束时间:2019-07-25 12:10:51。由于抢修工作提前完成,故需要提前送电。","powerOffId":"2019072531010132"}],"pageModel":{"pageNow":1401,"totalCount":17789,"totalPage":1779,"tableRows":0,"pageCount":10,"beginCount":14000},"isExperi":"1"}