{"message":"","today":"2020-06-16","seleList":[{"poweroffId":2019072531010027,"sgpoweroffId":null,"subsName":"","lineName":"10kV永富C980线","pubTranName":"大石盖8#变,","scope":"浙江省-杭州市-萧山区-戴村镇(大石盖行政村-石盖自然村)一带","startTime":"2019-07-25 05:47:57","stopDate":"2019-07-25 08:00:04","orgNo":"3340130","typeCode":"电网故障停限电","poweroffArea":"110kV永兴变:永富C980线-大石盖8#变台区低压开关","poweroffReason":"（低压停电信息）低压熔断器短路故障","powerTime":"2019-07-25 07:05:17","powerComm":"已送电","subsNo":"","lineNo":"","tgNo":"","tgName":null,"infoStatus":"1","orgName":"国网浙江杭州市萧山区供电有限公司","typeName":null,"infoStatusName":null,"dateDay":null,"orgNos":null,"nowTime":null,"countyName":null,"streetName":null,"villageName":null,"roadName":null,"communityName":null,"tranName":null,"sdLineName":null,"cityCode":"3340130","cityName":"国网浙江杭州市萧山区供电有限公司","provinceCode":null,"stopTime":"2019-07-25 08:00:04","powerType":"全部","powerOffArea":"110kV永兴变:永富C980线-大石盖8#变台区低压开关","powerOffReason":"（低压停电信息）低压熔断器短路故障","powerOffId":"2019072531010027"},{"poweroffId":2019072531010023,"sgpoweroffId":null,"subsName":"","lineName":"10kV窄溪T257线","pubTranName":"前村安置小区1号公变,锦绣江南小区1号公变,陈庄安置小区2号公变,桐庐明发针织有限公司,前村4号公变,陈庄安置小区6号公变,浙江兴腾物业管理有限公司,绿园小区1号公变,江南府小区2号公变,桐庐浙石第二加油站有限公司,前村2号公变,陈庄安置小区5号公变,窄溪自来水厂,桐庐县江南镇通航砂石经营部,绿园小区2号公变,桐庐县供电局,桐庐城市建设投资有限公司(320路灯变2#),金浦路1号公变,江南府小区4号公变,江南府小区1号公变,窄溪安置小区1号公变,桐庐县公安局江南派出所,农贸市场1号公变,杭州华敏通讯有限公司,前村3号公变,张家边村1号公变,前村5号公变,寺基上1号公变,桐庐县江南初级中学,富前路1号公变,古里庄村1号公变,陈庄安置小区3号公变,陈庄安置小区1号公变,大元里村1号公变,东都名苑2#专变,高山头1号公变,前村1号公变,桐庐银利来针织有限公司,金浦路2号公变,张家溪口抽水〈窄溪〉,桐庐伟邦房地产开发有限公司,定安路1号公变,胡家边村1号公变,富前路2号公变,陈庄安置小区4号公变,胡家边村2号公变,杭州天地工艺礼品有限公司,窄溪新近江饭店,江南府小区3号公变,","scope":"浙江省-杭州市-桐庐县-江南镇(窄溪行政村-陈庄支路、大元里自然村、大元路、富前路、鼓楼街、古城自然村、集市路、江南路、金浦路、前村自然村、三联西路、市场路、移民自然村、窄石路、窄溪西路、窄溪镇);(国网浙江桐庐县供电公司(江南镇),杭州东都房地产开发有限公司,杭州华敏通讯有限公司,杭州天地工艺礼品有限公司,桐庐明发针织有限公司,桐庐伟邦房地产开发有限公司,桐庐县公安局江南派出所,桐庐县江南初级中学,桐庐县江南镇人民政府国道路灯二号,桐庐县江南镇通航砂石经营部,桐庐县江南镇渔塘小院民宿,桐庐银利来针织有限公司,桐庐浙石第二加油站有限公司,窄溪自来水厂,张家溪口抽水〈窄溪〉,浙江兴腾物业管理有限公司);","startTime":"2019-07-25 05:13:03","stopDate":"2019-07-25 11:13:03","orgNo":"3340150","typeCode":"电网故障停限电","poweroffArea":"110kV石阜变:窄溪T257线","poweroffReason":"（低压停电信息）低压开关故障","powerTime":"2019-07-25 11:00:19","powerComm":"已送电。","subsNo":"","lineNo":"","tgNo":"","tgName":null,"infoStatus":"1","orgName":"国网浙江桐庐县供电公司","typeName":null,"infoStatusName":null,"dateDay":null,"orgNos":null,"nowTime":null,"countyName":null,"streetName":null,"villageName":null,"roadName":null,"communityName":null,"tranName":null,"sdLineName":null,"cityCode":"3340150","cityName":"国网浙江桐庐县供电公司","provinceCode":null,"stopTime":"2019-07-25 11:13:03","powerType":"全部","powerOffArea":"110kV石阜变:窄溪T257线","powerOffReason":"（低压停电信息）低压开关故障","powerOffId":"2019072531010023"},{"poweroffId":2019072531010018,"sgpoweroffId":null,"subsName":"","lineName":"10kV罗源Y402线","pubTranName":"航景村东庙山背台区,","scope":"浙江省 杭州市 建德市 航头镇 航景村 东庙山一带用户","startTime":"2019-07-25 04:00:00","stopDate":"2019-07-25 08:00:00","orgNo":"3340180","typeCode":"电网故障停限电","poweroffArea":"110kV航头变:罗源Y402线-航景村东庙山背台区后段","poweroffReason":"（低压停电信息）低压开关跳闸 原预计停电结束时间06:00，由于施工现场环境比较复杂，存在不确定因素，因此预估施工时间不足，延迟送电至08:00","powerTime":"2019-07-25 07:14:29","powerComm":"已送电","subsNo":"","lineNo":"","tgNo":"","tgName":null,"infoStatus":"1","orgName":"国网浙江建德市供电有限公司","typeName":null,"infoStatusName":null,"dateDay":null,"orgNos":null,"nowTime":null,"countyName":null,"streetName":null,"villageName":null,"roadName":null,"communityName":null,"tranName":null,"sdLineName":null,"cityCode":"3340180","cityName":"国网浙江建德市供电有限公司","provinceCode":null,"stopTime":"2019-07-25 08:00:00","powerType":"全部","powerOffArea":"110kV航头变:罗源Y402线-航景村东庙山背台区后段","powerOffReason":"（低压停电信息）低压开关跳闸 原预计停电结束时间06:00，由于施工现场环境比较复杂，存在不确定因素，因此预估施工时间不足，延迟送电至08:00","powerOffId":"2019072531010018"},{"poweroffId":2019072531010015,"sgpoweroffId":null,"subsName":"","lineName":"10kV永盛A323线","pubTranName":"小石桥村3#变,","scope":"浙江省-杭州市-萧山区-靖江街道小石桥社区、靖江路、黎明路、申达路、小石桥自然村、小石桥行政村、小石桥村一带","startTime":"2019-07-25 03:45:06","stopDate":"2019-07-25 07:40:57","orgNo":"3340130","typeCode":"电网故障停限电","poweroffArea":"110kV靖江变:永盛A323线-小石桥村3#变台区低压开关","poweroffReason":"（低压停电信息）低压架空导线断线故障 原停电结束时间:2019-07-25 12:45:11，变更停电结束时间:2019-07-25 07:40:57，由于抢修工作提前完成，故需要提前送电。","powerTime":"2019-07-25 07:00:24","powerComm":"已送电","subsNo":"","lineNo":"","tgNo":"","tgName":null,"infoStatus":"1","orgName":"国网浙江杭州市萧山区供电有限公司","typeName":null,"infoStatusName":null,"dateDay":null,"orgNos":null,"nowTime":null,"countyName":null,"streetName":null,"villageName":null,"roadName":null,"communityName":null,"tranName":null,"sdLineName":null,"cityCode":"3340130","cityName":"国网浙江杭州市萧山区供电有限公司","provinceCode":null,"stopTime":"2019-07-25 07:40:57","powerType":"全部","powerOffArea":"110kV靖江变:永盛A323线-小石桥村3#变台区低压开关","powerOffReason":"（低压停电信息）低压架空导线断线故障 原停电结束时间:2019-07-25 12:45:11，变更停电结束时间:2019-07-25 07:40:57，由于抢修工作提前完成，故需要提前送电。","powerOffId":"2019072531010015"},{"poweroffId":2019072531010005,"sgpoweroffId":null,"subsName":"","lineName":"10kV振新C630线","pubTranName":"长山社区6#公变,","scope":"浙江省-杭州市-萧山区、新街镇、新街街道长山社区-长山街、工人路、海塘路等一带","startTime":"2019-07-25 00:21:57","stopDate":"2019-07-25 01:23:21","orgNo":"3340130","typeCode":"电网故障停限电","poweroffArea":"110kV新街变:振新C630线-长山社区6#公变台区低压开关","poweroffReason":"（低压停电信息）低压漏电保护器短路故障","powerTime":"2019-07-25 00:36:57","powerComm":"已送电","subsNo":"","lineNo":"","tgNo":"","tgName":null,"infoStatus":"1","orgName":"国网浙江杭州市萧山区供电有限公司","typeName":null,"infoStatusName":null,"dateDay":null,"orgNos":null,"nowTime":null,"countyName":null,"streetName":null,"villageName":null,"roadName":null,"communityName":null,"tranName":null,"sdLineName":null,"cityCode":"3340130","cityName":"国网浙江杭州市萧山区供电有限公司","provinceCode":null,"stopTime":"2019-07-25 01:23:21","powerType":"全部","powerOffArea":"110kV新街变:振新C630线-长山社区6#公变台区低压开关","powerOffReason":"（低压停电信息）低压漏电保护器短路故障","powerOffId":"2019072531010005"},{"poweroffId":2019072431020130,"sgpoweroffId":null,"subsName":"","lineName":"10kV钱塘D473线","pubTranName":"民联村11#里浮沙公变,","scope":"浙江省-杭州市-富阳区-东洲街道(民联行政村-民联自然村,学校沙行政村-学校沙自然村)","startTime":"2019-07-24 22:50:45","stopDate":"2019-07-25 00:50:45","orgNo":"3340170","typeCode":"电网故障停限电","poweroffArea":"110kV东洲变:钱塘D473线-民联村11#里浮沙公变后段","poweroffReason":"高压开关跳闸","powerTime":"2019-07-25 00:40:38","powerComm":"已送电","subsNo":"","lineNo":"","tgNo":"","tgName":null,"infoStatus":"1","orgName":"国网浙江杭州市富阳区供电公司","typeName":null,"infoStatusName":null,"dateDay":null,"orgNos":null,"nowTime":null,"countyName":null,"streetName":null,"villageName":null,"roadName":null,"communityName":null,"tranName":null,"sdLineName":null,"cityCode":"3340170","cityName":"国网浙江杭州市富阳区供电公司","provinceCode":null,"stopTime":"2019-07-25 00:50:45","powerType":"全部","powerOffArea":"110kV东洲变:钱塘D473线-民联村11#里浮沙公变后段","powerOffReason":"高压开关跳闸","powerOffId":"2019072431020130"},{"poweroffId":2019072431020129,"sgpoweroffId":null,"subsName":"","lineName":"10kV城阳D144线","pubTranName":"共和街2号中学公变,","scope":"浙江省-杭州市-富阳区-新登镇-古城社区(东门路,秀山一弄,共和街,施家弄,秀山弄,秀山二弄,冬官弄,新城东街,进士弄,共和村,大东门,共和北路,秀山三弄,彭家弄)","startTime":"2019-07-24 22:32:33","stopDate":"2019-07-24 23:32:33","orgNo":"3340170","typeCode":"电网故障停限电","poweroffArea":"110kV新登变:城阳D144线-共和街2#中学公变开关后段","poweroffReason":"高压开关跳闸","powerTime":"2019-07-24 22:53:08","powerComm":"已送电","subsNo":"","lineNo":"","tgNo":"","tgName":null,"infoStatus":"1","orgName":"国网浙江杭州市富阳区供电公司","typeName":null,"infoStatusName":null,"dateDay":null,"orgNos":null,"nowTime":null,"countyName":null,"streetName":null,"villageName":null,"roadName":null,"communityName":null,"tranName":null,"sdLineName":null,"cityCode":"3340170","cityName":"国网浙江杭州市富阳区供电公司","provinceCode":null,"stopTime":"2019-07-24 23:32:33","powerType":"全部","powerOffArea":"110kV新登变:城阳D144线-共和街2#中学公变开关后段","powerOffReason":"高压开关跳闸","powerOffId":"2019072431020129"},{"poweroffId":2019072431020122,"sgpoweroffId":null,"subsName":"","lineName":"10kV临港G351线","pubTranName":"东风村岳山1#公变,杭州市余杭区仁和镇东风村村民委员会,东风村岳山公变,杭州仁窑机械设备厂,杭州顺航物流有限公司,","scope":"浙江省-杭州市-余杭区-仁和街道-东风行政村(方田圩自然村,岳山前自然村);仁和街道-东风行政村(杭州恒悦建材有限公司,杭州市余杭区仁和镇东风村村民委员会,杭州余海金属拉丝有限公司)","startTime":"2019-07-24 20:41:00","stopDate":"2019-07-25 01:00:00","orgNo":"3340140","typeCode":"电网故障停限电","poweroffArea":"110kV洛山变:临港G351线-顺杭物流分线开关后段","poweroffReason":"顺杭物流分线开关后段 电缆断线故障","powerTime":"2019-07-25 00:05:00","powerComm":"已送电","subsNo":"","lineNo":"","tgNo":"","tgName":null,"infoStatus":"1","orgName":"国网浙江杭州市余杭区供电有限公司","typeName":null,"infoStatusName":null,"dateDay":null,"orgNos":null,"nowTime":null,"countyName":null,"streetName":null,"villageName":null,"roadName":null,"communityName":null,"tranName":null,"sdLineName":null,"cityCode":"3340140","cityName":"国网浙江杭州市余杭区供电有限公司","provinceCode":null,"stopTime":"2019-07-25 01:00:00","powerType":"全部","powerOffArea":"110kV洛山变:临港G351线-顺杭物流分线开关后段","powerOffReason":"顺杭物流分线开关后段 电缆断线故障","powerOffId":"2019072431020122"},{"poweroffId":2019072431020121,"sgpoweroffId":null,"subsName":"","lineName":"10kV石坝G039线","pubTranName":"龙安桥南祥泥坝变,","scope":"浙江省-杭州市-余杭区-临平街道-龙安社区(南祥泥坝自然村,龙安自然村),临平街道-龙安行政村-龙安自然村,经济开发区-龙安社区-龙安自然村","startTime":"2019-07-24 20:09:00","stopDate":"2019-07-24 22:30:00","orgNo":"3340140","typeCode":"电网故障停限电","poweroffArea":"110kV五杭变:石坝G039线-龙安桥南祥泥坝变后段","poweroffReason":"（低压停电信息）龙安桥南祥泥坝变后段 低压断线故障","powerTime":"2019-07-24 22:00:00","powerComm":"已送电","subsNo":"","lineNo":"","tgNo":"","tgName":null,"infoStatus":"1","orgName":"国网浙江杭州市余杭区供电有限公司","typeName":null,"infoStatusName":null,"dateDay":null,"orgNos":null,"nowTime":null,"countyName":null,"streetName":null,"villageName":null,"roadName":null,"communityName":null,"tranName":null,"sdLineName":null,"cityCode":"3340140","cityName":"国网浙江杭州市余杭区供电有限公司","provinceCode":null,"stopTime":"2019-07-24 22:30:00","powerType":"全部","powerOffArea":"110kV五杭变:石坝G039线-龙安桥南祥泥坝变后段","powerOffReason":"（低压停电信息）龙安桥南祥泥坝变后段 低压断线故障","powerOffId":"2019072431020121"},{"poweroffId":2019072431020115,"sgpoweroffId":null,"subsName":"","lineName":"10kV临港G351线","pubTranName":"杭州顺航物流有限公司,东风村岳山公变,杭州市余杭区仁和镇东风村村民委员会,杭州仁窑机械设备厂,东风村岳山1#公变,","scope":"浙江省-杭州市-余杭区-仁和街道-东风行政村(方田圩自然村,岳山前自然村);仁和街道-东风行政村(杭州恒悦建材有限公司,杭州市余杭区仁和镇东风村村民委员会,杭州余海金属拉丝有限公司)","startTime":"2019-07-24 19:19:00","stopDate":"2019-07-24 21:19:00","orgNo":"3340140","typeCode":"电网故障停限电","poweroffArea":"110kV洛山变:临港G351线-顺杭物流分线开关后段","poweroffReason":":临港G351线-顺杭物流分线开关后段高压架空线断线故障","powerTime":"2019-07-24 20:43:00","powerComm":"已送电","subsNo":"","lineNo":"","tgNo":"","tgName":null,"infoStatus":"1","orgName":"国网浙江杭州市余杭区供电有限公司","typeName":null,"infoStatusName":null,"dateDay":null,"orgNos":null,"nowTime":null,"countyName":null,"streetName":null,"villageName":null,"roadName":null,"communityName":null,"tranName":null,"sdLineName":null,"cityCode":"3340140","cityName":"国网浙江杭州市余杭区供电有限公司","provinceCode":null,"stopTime":"2019-07-24 21:19:00","powerType":"全部","powerOffArea":"110kV洛山变:临港G351线-顺杭物流分线开关后段","powerOffReason":":临港G351线-顺杭物流分线开关后段高压架空线断线故障","powerOffId":"2019072431020115"}],"pageModel":{"pageNow":1403,"totalCount":17789,"totalPage":1779,"tableRows":0,"pageCount":10,"beginCount":14020},"isExperi":"1"}