{"message":"","today":"2020-06-16","seleList":[{"poweroffId":2019072431020083,"sgpoweroffId":null,"subsName":"","lineName":"10kV东莲H536线","pubTranName":"晶泉香精6120591461,亘通实业6120439953,瓶窑镇凤都行政村(南山路灯变),杭州长命摩擦材料有限公司,凤都村大夫里2号公变,杭州彩虹轮胎有限公司,神龙机械,1#,凤都村蒋家2号公变,建忠五金机械,隆强五金,释然五金,华尔美制衣,嘉驰物业612028586501#专变,金味香料,杭州华尔美制衣有限公司6120339426,1,新余宏,依丝宝,盛达精密611107825901#专变,杭州兴达高业电气有限公司,卓雅商业6120006063,嘉驰物业612028586502#专变,新锐机械612011830001#专变,凤都村北村八组公变,杭州冠勒实业有限公司,小不点服饰,","scope":"浙江省-杭州市-余杭区-瓶窑镇-凤都行政村蒋家自然村,蒋介组,北自然村中自然村,大夫路南自然村,北村5组,北自然村八组自然村自然村,大夫里自然村);瓶窑镇-长命行政村杭州公分机械设备制造有限公司,杭州得力科技股份有限公司),瓶窑镇-凤都行政村杭州华尔美制衣有限公司,杭州结达激光刀模有限公司,杭州嘉驰物业管理有限公司,杭州富创精密钣金有限公司,杭州新锐机械制造有限公司,杭州鹏啸塑料制品有限公司,杭州余杭冠泰五金有限公司,杭州兴达高业电气有限公司,浙江小布点服饰有限公司,杭州强立机械有限公司,杭州卓雅商业展具有限公司,杭州盛达精密压铸厂,杭州神彩包装印业有限公司,杭州长命摩擦材料有限公司,杭州亘通实业有限公司,杭州市余杭区瓶窑镇人民政府,杭州诠世传动有限公司,杭州晶泉香精香料有限公司,瓶窑镇华兴社区-浙江金味香料有限公司,瓶窑社区-杭州科福莱流体技术有限公司一带","startTime":"2019-07-24 16:16:00","stopDate":"2019-07-24 18:16:00","orgNo":"3340140","typeCode":"电网故障停限电","poweroffArea":"110kV凤山变:东莲H536线","poweroffReason":"东莲H536线 架空线断线故障","powerTime":"2019-07-24 17:51:00","powerComm":"已送电","subsNo":"","lineNo":"","tgNo":"","tgName":null,"infoStatus":"1","orgName":"国网浙江杭州市余杭区供电有限公司","typeName":null,"infoStatusName":null,"dateDay":null,"orgNos":null,"nowTime":null,"countyName":null,"streetName":null,"villageName":null,"roadName":null,"communityName":null,"tranName":null,"sdLineName":null,"cityCode":"3340140","cityName":"国网浙江杭州市余杭区供电有限公司","provinceCode":null,"stopTime":"2019-07-24 18:16:00","powerType":"全部","powerOffArea":"110kV凤山变:东莲H536线","powerOffReason":"东莲H536线 架空线断线故障","powerOffId":"2019072431020083"},{"poweroffId":2019072431020081,"sgpoweroffId":null,"subsName":"","lineName":"10kV公馆D351线","pubTranName":"鹿回头1号公变,","scope":"浙江省-杭州市-富阳区-富春街道-鹿山社区-文教路","startTime":"2019-07-24 16:03:31","stopDate":"2019-07-24 17:03:31","orgNo":"3340170","typeCode":"电网故障停限电","poweroffArea":"110kV富鹿变:公馆D351线-鹿回头1号公变后段","poweroffReason":"（低压停电信息）低压开关跳闸","powerTime":"2019-07-24 16:12:34","powerComm":"已送电","subsNo":"","lineNo":"","tgNo":"","tgName":null,"infoStatus":"1","orgName":"国网浙江杭州市富阳区供电公司","typeName":null,"infoStatusName":null,"dateDay":null,"orgNos":null,"nowTime":null,"countyName":null,"streetName":null,"villageName":null,"roadName":null,"communityName":null,"tranName":null,"sdLineName":null,"cityCode":"3340170","cityName":"国网浙江杭州市富阳区供电公司","provinceCode":null,"stopTime":"2019-07-24 17:03:31","powerType":"全部","powerOffArea":"110kV富鹿变:公馆D351线-鹿回头1号公变后段","powerOffReason":"（低压停电信息）低压开关跳闸","powerOffId":"2019072431020081"},{"poweroffId":2019072431020073,"sgpoweroffId":null,"subsName":"","lineName":"10kV金浦D818线","pubTranName":"金桥村章家庙5#公变,","scope":"浙江省-杭州市-富阳区-富春街道-金桥社区(金城路,金桥北路),富春街道-金秋社区(金城路,凤浦路)","startTime":"2019-07-24 15:13:04","stopDate":"2019-07-24 16:00:04","orgNo":"3340170","typeCode":"电网故障停限电","poweroffArea":"110kV容大变:金浦D818线-金桥村章家庙5#公变进线熔断器后段","poweroffReason":"（低压停电信息）低压开关跳闸 原停电结束时间为2019-07-24 17:13:04，因现场抢修力量加强变更至2019-07-24 16:00:04","powerTime":"2019-07-24 15:40:37","powerComm":"已送电","subsNo":"","lineNo":"","tgNo":"","tgName":null,"infoStatus":"1","orgName":"国网浙江杭州市富阳区供电公司","typeName":null,"infoStatusName":null,"dateDay":null,"orgNos":null,"nowTime":null,"countyName":null,"streetName":null,"villageName":null,"roadName":null,"communityName":null,"tranName":null,"sdLineName":null,"cityCode":"3340170","cityName":"国网浙江杭州市富阳区供电公司","provinceCode":null,"stopTime":"2019-07-24 16:00:04","powerType":"全部","powerOffArea":"110kV容大变:金浦D818线-金桥村章家庙5#公变进线熔断器后段","powerOffReason":"（低压停电信息）低压开关跳闸 原停电结束时间为2019-07-24 17:13:04，因现场抢修力量加强变更至2019-07-24 16:00:04","powerOffId":"2019072431020073"},{"poweroffId":2019072431020072,"sgpoweroffId":null,"subsName":"","lineName":"10kV农场D803线","pubTranName":"观前村11号下牌楼北公变,","scope":"浙江省-杭州市-富阳区-银湖街道-高桥行政村-黄泥山自然村,银湖街道-观前行政村(观前自然村,黄泥山自然村)","startTime":"2019-07-24 15:10:50","stopDate":"2019-07-24 17:10:50","orgNo":"3340170","typeCode":"电网故障停限电","poweroffArea":"110kV容大变:农场D803线-观前村11号下牌楼北公变后段","poweroffReason":"（低压停电信息）低压开关跳闸","powerTime":"2019-07-24 16:55:38","powerComm":"已送电","subsNo":"","lineNo":"","tgNo":"","tgName":null,"infoStatus":"1","orgName":"国网浙江杭州市富阳区供电公司","typeName":null,"infoStatusName":null,"dateDay":null,"orgNos":null,"nowTime":null,"countyName":null,"streetName":null,"villageName":null,"roadName":null,"communityName":null,"tranName":null,"sdLineName":null,"cityCode":"3340170","cityName":"国网浙江杭州市富阳区供电公司","provinceCode":null,"stopTime":"2019-07-24 17:10:50","powerType":"全部","powerOffArea":"110kV容大变:农场D803线-观前村11号下牌楼北公变后段","powerOffReason":"（低压停电信息）低压开关跳闸","powerOffId":"2019072431020072"},{"poweroffId":2019072431020071,"sgpoweroffId":null,"subsName":"","lineName":"10kV明星D424线","pubTranName":"民建村8号倪家公变,","scope":"浙江省-杭州市-富阳区-东洲街道-建华行政村-民建自然村","startTime":"2019-07-24 15:06:08","stopDate":"2019-07-24 16:06:08","orgNo":"3340170","typeCode":"电网故障停限电","poweroffArea":"110kV东洲变:明星D424线-民建村8号公变熔断器后段","poweroffReason":"（低压停电信息）低压开关跳闸 原停电结束时间为2019-07-24 17:06:08，因现场抢修力量加强变更至2019-07-24 16:06:08","powerTime":"2019-07-24 15:42:03","powerComm":"已送电","subsNo":"","lineNo":"","tgNo":"","tgName":null,"infoStatus":"1","orgName":"国网浙江杭州市富阳区供电公司","typeName":null,"infoStatusName":null,"dateDay":null,"orgNos":null,"nowTime":null,"countyName":null,"streetName":null,"villageName":null,"roadName":null,"communityName":null,"tranName":null,"sdLineName":null,"cityCode":"3340170","cityName":"国网浙江杭州市富阳区供电公司","provinceCode":null,"stopTime":"2019-07-24 16:06:08","powerType":"全部","powerOffArea":"110kV东洲变:明星D424线-民建村8号公变熔断器后段","powerOffReason":"（低压停电信息）低压开关跳闸 原停电结束时间为2019-07-24 17:06:08，因现场抢修力量加强变更至2019-07-24 16:06:08","powerOffId":"2019072431020071"},{"poweroffId":2019072431020066,"sgpoweroffId":null,"subsName":"","lineName":"10kV公馆D351线","pubTranName":"鹿回头1号公变,","scope":"浙江省-杭州市-富阳区-富春街道-鹿山社区-文教路","startTime":"2019-07-24 15:02:27","stopDate":"2019-07-24 16:02:27","orgNo":"3340170","typeCode":"电网故障停限电","poweroffArea":"110kV富鹿变:公馆D351线-鹿回头1号公变后段","poweroffReason":"（低压停电信息）低压开关跳闸","powerTime":"2019-07-24 15:50:21","powerComm":"已送电","subsNo":"","lineNo":"","tgNo":"","tgName":null,"infoStatus":"1","orgName":"国网浙江杭州市富阳区供电公司","typeName":null,"infoStatusName":null,"dateDay":null,"orgNos":null,"nowTime":null,"countyName":null,"streetName":null,"villageName":null,"roadName":null,"communityName":null,"tranName":null,"sdLineName":null,"cityCode":"3340170","cityName":"国网浙江杭州市富阳区供电公司","provinceCode":null,"stopTime":"2019-07-24 16:02:27","powerType":"全部","powerOffArea":"110kV富鹿变:公馆D351线-鹿回头1号公变后段","powerOffReason":"（低压停电信息）低压开关跳闸","powerOffId":"2019072431020066"},{"poweroffId":2019072431020063,"sgpoweroffId":null,"subsName":"","lineName":"10kV杭园G282线","pubTranName":"泉漳村西坝公变,","scope":"浙江省-杭州市-余杭区-塘栖镇-泉漳行政村-泉漳自然村一带","startTime":"2019-07-24 14:11:00","stopDate":"2019-07-24 17:00:00","orgNo":"3340140","typeCode":"电网故障停限电","poweroffArea":"110kV渔桥变:杭园G282线-杭园G282线西坝分线跌落式熔断器后段","poweroffReason":"杭园G282线西坝分线跌落式熔断器后段 外破断杆故障","powerTime":"2019-07-24 16:39:00","powerComm":"已送电","subsNo":"","lineNo":"","tgNo":"","tgName":null,"infoStatus":"1","orgName":"国网浙江杭州市余杭区供电有限公司","typeName":null,"infoStatusName":null,"dateDay":null,"orgNos":null,"nowTime":null,"countyName":null,"streetName":null,"villageName":null,"roadName":null,"communityName":null,"tranName":null,"sdLineName":null,"cityCode":"3340140","cityName":"国网浙江杭州市余杭区供电有限公司","provinceCode":null,"stopTime":"2019-07-24 17:00:00","powerType":"全部","powerOffArea":"110kV渔桥变:杭园G282线-杭园G282线西坝分线跌落式熔断器后段","powerOffReason":"杭园G282线西坝分线跌落式熔断器后段 外破断杆故障","powerOffId":"2019072431020063"},{"poweroffId":2019072431020061,"sgpoweroffId":null,"subsName":"","lineName":"10kV店口D941线","pubTranName":"店口村6号店口中公变,","scope":"浙江省-杭州市-富阳区-富春街道(杨清庙行政村-南山下自然村,三桥行政村-店口自然村)","startTime":"2019-07-24 14:06:50","stopDate":"2019-07-24 14:45:50","orgNo":"3340170","typeCode":"电网故障停限电","poweroffArea":"110kV育才变:店口D941线-店口村6号店口中公变柱上熔断器后段","poweroffReason":"（低压停电信息）低压开关跳闸 原停电结束时间为2019-07-24 16:06:50，因现场抢修力量加强变更至2019-07-24 14:45:50","powerTime":"2019-07-24 14:26:18","powerComm":"已送电","subsNo":"","lineNo":"","tgNo":"","tgName":null,"infoStatus":"1","orgName":"国网浙江杭州市富阳区供电公司","typeName":null,"infoStatusName":null,"dateDay":null,"orgNos":null,"nowTime":null,"countyName":null,"streetName":null,"villageName":null,"roadName":null,"communityName":null,"tranName":null,"sdLineName":null,"cityCode":"3340170","cityName":"国网浙江杭州市富阳区供电公司","provinceCode":null,"stopTime":"2019-07-24 14:45:50","powerType":"全部","powerOffArea":"110kV育才变:店口D941线-店口村6号店口中公变柱上熔断器后段","powerOffReason":"（低压停电信息）低压开关跳闸 原停电结束时间为2019-07-24 16:06:50，因现场抢修力量加强变更至2019-07-24 14:45:50","powerOffId":"2019072431020061"},{"poweroffId":2019072431020059,"sgpoweroffId":null,"subsName":"","lineName":"10kV金浦D818线","pubTranName":"金桥村金家墩3#公变,","scope":"浙江省-杭州市-富阳区-富春街道-金桥社区-金平路","startTime":"2019-07-24 13:49:51","stopDate":"2019-07-24 15:49:51","orgNo":"3340170","typeCode":"电网故障停限电","poweroffArea":"110kV容大变:金浦D818线-金桥村金家墩3#公变后段","poweroffReason":"（低压停电信息）低压开关跳闸","powerTime":"2019-07-24 15:34:25","powerComm":"已送电","subsNo":"","lineNo":"","tgNo":"","tgName":null,"infoStatus":"1","orgName":"国网浙江杭州市富阳区供电公司","typeName":null,"infoStatusName":null,"dateDay":null,"orgNos":null,"nowTime":null,"countyName":null,"streetName":null,"villageName":null,"roadName":null,"communityName":null,"tranName":null,"sdLineName":null,"cityCode":"3340170","cityName":"国网浙江杭州市富阳区供电公司","provinceCode":null,"stopTime":"2019-07-24 15:49:51","powerType":"全部","powerOffArea":"110kV容大变:金浦D818线-金桥村金家墩3#公变后段","powerOffReason":"（低压停电信息）低压开关跳闸","powerOffId":"2019072431020059"},{"poweroffId":2019072431020054,"sgpoweroffId":null,"subsName":"","lineName":"10kV风雅H474线","pubTranName":"管家塘农居点2#公变,管家塘农居点8号公变,","scope":"浙江省-杭州市-余杭区-良渚街道-管家塘社区-好运街一带","startTime":"2019-07-24 13:16:00","stopDate":"2019-07-24 16:00:00","orgNo":"3340140","typeCode":"电网故障停限电","poweroffArea":"110kV金渡变:风雅H474线首端，管家塘农居点8号公变，管家塘农居点2#公变","poweroffReason":"（低压停电信息）管家塘农居点8号公变，管家塘农居点2#公变 低压导线断线故障","powerTime":"2019-07-24 15:19:00","powerComm":"已送电","subsNo":"","lineNo":"","tgNo":"","tgName":null,"infoStatus":"1","orgName":"国网浙江杭州市余杭区供电有限公司","typeName":null,"infoStatusName":null,"dateDay":null,"orgNos":null,"nowTime":null,"countyName":null,"streetName":null,"villageName":null,"roadName":null,"communityName":null,"tranName":null,"sdLineName":null,"cityCode":"3340140","cityName":"国网浙江杭州市余杭区供电有限公司","provinceCode":null,"stopTime":"2019-07-24 16:00:00","powerType":"全部","powerOffArea":"110kV金渡变:风雅H474线首端，管家塘农居点8号公变，管家塘农居点2#公变","powerOffReason":"（低压停电信息）管家塘农居点8号公变，管家塘农居点2#公变 低压导线断线故障","powerOffId":"2019072431020054"}],"pageModel":{"pageNow":1405,"totalCount":17789,"totalPage":1779,"tableRows":0,"pageCount":10,"beginCount":14040},"isExperi":"1"}