{"message":"","today":"2020-06-16","seleList":[{"poweroffId":2019072431020017,"sgpoweroffId":null,"subsName":"","lineName":"10kV光昌R186线","pubTranName":"临岐石岭后村里丰公变,","scope":"浙江省-杭州市-淳安县-左口乡-石岭后行政村(石岭后自然村,里丰自然村)","startTime":"2019-07-26 08:00:00","stopDate":"2019-07-26 12:00:00","orgNo":"3340190","typeCode":"临时停电","poweroffArea":"35kV临岐变:光昌R186线-里丰支线0号杆开关后段","poweroffReason":"里丰支线10号杆紧急消缺","powerTime":"2019-07-26 11:12:59","powerComm":"现场工作已完成","subsNo":"","lineNo":"","tgNo":"","tgName":null,"infoStatus":"1","orgName":"国网浙江淳安县供电有限公司","typeName":null,"infoStatusName":null,"dateDay":null,"orgNos":null,"nowTime":null,"countyName":null,"streetName":null,"villageName":null,"roadName":null,"communityName":null,"tranName":null,"sdLineName":null,"cityCode":"3340190","cityName":"国网浙江淳安县供电有限公司","provinceCode":null,"stopTime":"2019-07-26 12:00:00","powerType":"全部","powerOffArea":"35kV临岐变:光昌R186线-里丰支线0号杆开关后段","powerOffReason":"里丰支线10号杆紧急消缺","powerOffId":"2019072431020017"},{"poweroffId":2019072431020015,"sgpoweroffId":null,"subsName":"","lineName":"10kV果园H403线","pubTranName":"荀山村唐家头2号公变,荀山村唐家头1号公变,","scope":"浙江省-杭州市-余杭区-良渚街道-荀山行政村-荀山自然村一带","startTime":"2019-07-24 08:31:00","stopDate":"2019-07-24 12:00:00","orgNo":"3340140","typeCode":"电网故障停限电","poweroffArea":"35kV良渚变:果园H403线首端，荀山村唐家头1号公变，荀山村唐家头2号公变","poweroffReason":"（低压停电信息）荀山村唐家头1号公变，荀山村唐家头2号公变后段 导线断线故障","powerTime":"2019-07-24 11:30:00","powerComm":"已送电","subsNo":"","lineNo":"","tgNo":"","tgName":null,"infoStatus":"1","orgName":"国网浙江杭州市余杭区供电有限公司","typeName":null,"infoStatusName":null,"dateDay":null,"orgNos":null,"nowTime":null,"countyName":null,"streetName":null,"villageName":null,"roadName":null,"communityName":null,"tranName":null,"sdLineName":null,"cityCode":"3340140","cityName":"国网浙江杭州市余杭区供电有限公司","provinceCode":null,"stopTime":"2019-07-24 12:00:00","powerType":"全部","powerOffArea":"35kV良渚变:果园H403线首端，荀山村唐家头1号公变，荀山村唐家头2号公变","powerOffReason":"（低压停电信息）荀山村唐家头1号公变，荀山村唐家头2号公变后段 导线断线故障","powerOffId":"2019072431020015"},{"poweroffId":2019072431020013,"sgpoweroffId":null,"subsName":"","lineName":"10kV山后G830线","pubTranName":"龙旋村曹家墩变,","scope":"浙江省杭州市余杭区崇贤街道龙旋行政村曹家墩一带","startTime":"2019-08-01 07:30:00","stopDate":"2019-08-01 17:30:00","orgNo":"3340140","typeCode":"计划停电","poweroffArea":"110kV北庄变:山后G830线-龙旋村曹家墩变","poweroffReason":"（国网大修）2019年杭州余杭崇贤范家角等台区0.4kV配电线路整治工程:山后G830线龙旋村曹家墩公变70平方导线调换成120导线9档及接户线改造","powerTime":"2019-08-01 17:21:24","powerComm":"已送电","subsNo":"","lineNo":"","tgNo":"","tgName":null,"infoStatus":"1","orgName":"国网浙江杭州市余杭区供电有限公司","typeName":null,"infoStatusName":null,"dateDay":null,"orgNos":null,"nowTime":null,"countyName":null,"streetName":null,"villageName":null,"roadName":null,"communityName":null,"tranName":null,"sdLineName":null,"cityCode":"3340140","cityName":"国网浙江杭州市余杭区供电有限公司","provinceCode":null,"stopTime":"2019-08-01 17:30:00","powerType":"全部","powerOffArea":"110kV北庄变:山后G830线-龙旋村曹家墩变","powerOffReason":"（国网大修）2019年杭州余杭崇贤范家角等台区0.4kV配电线路整治工程:山后G830线龙旋村曹家墩公变70平方导线调换成120导线9档及接户线改造","powerOffId":"2019072431020013"},{"poweroffId":2019072431020010,"sgpoweroffId":null,"subsName":"","lineName":"10kV上练D713线","pubTranName":"新崤村9#山脚跟公变,","scope":"浙江省-杭州市-富阳区-胥口镇-新崤行政村(畈里自然村,闻家自然村,外坞石自然村,弯子里自然村,山脚跟自然村,胡家山自然村,官塘自然村,赵家自然村)","startTime":"2019-07-24 07:35:20","stopDate":"2019-07-24 08:35:20","orgNo":"3340170","typeCode":"电网故障停限电","poweroffArea":"110kV松溪变:上练D713线-新崤村9#山脚跟公变后段","poweroffReason":"（低压停电信息）低压开关跳闸","powerTime":"2019-07-24 08:20:33","powerComm":"已送电","subsNo":"","lineNo":"","tgNo":"","tgName":null,"infoStatus":"1","orgName":"国网浙江杭州市富阳区供电公司","typeName":null,"infoStatusName":null,"dateDay":null,"orgNos":null,"nowTime":null,"countyName":null,"streetName":null,"villageName":null,"roadName":null,"communityName":null,"tranName":null,"sdLineName":null,"cityCode":"3340170","cityName":"国网浙江杭州市富阳区供电公司","provinceCode":null,"stopTime":"2019-07-24 08:35:20","powerType":"全部","powerOffArea":"110kV松溪变:上练D713线-新崤村9#山脚跟公变后段","powerOffReason":"（低压停电信息）低压开关跳闸","powerOffId":"2019072431020010"},{"poweroffId":2019072431020009,"sgpoweroffId":null,"subsName":"","lineName":"10kV文苑D366线","pubTranName":"文苑路3#公变,","scope":"浙江省杭州市富阳区富春街道太平桥社区文苑路、桂花西路一带","startTime":"2019-07-24 07:03:32","stopDate":"2019-07-24 09:03:32","orgNo":"3340170","typeCode":"电网故障停限电","poweroffArea":"110kV富鹿变:文苑D366线-文苑路3#公变后段","poweroffReason":"（低压停电信息）低压开关烧损","powerTime":"2019-07-24 08:13:22","powerComm":"已送电","subsNo":"","lineNo":"","tgNo":"","tgName":null,"infoStatus":"1","orgName":"国网浙江杭州市富阳区供电公司","typeName":null,"infoStatusName":null,"dateDay":null,"orgNos":null,"nowTime":null,"countyName":null,"streetName":null,"villageName":null,"roadName":null,"communityName":null,"tranName":null,"sdLineName":null,"cityCode":"3340170","cityName":"国网浙江杭州市富阳区供电公司","provinceCode":null,"stopTime":"2019-07-24 09:03:32","powerType":"全部","powerOffArea":"110kV富鹿变:文苑D366线-文苑路3#公变后段","powerOffReason":"（低压停电信息）低压开关烧损","powerOffId":"2019072431020009"},{"poweroffId":2019072431020001,"sgpoweroffId":null,"subsName":"","lineName":"10kV建北D326线","pubTranName":"建安4号公变,建安8号公变,富阳市春江街道服务有限公司1#,建设村10#新区公变,建安2号公变,建设村12号下埠新区公变,富阳市春江街道服务有限公司2#,建安11号公变,建安6号公变,","scope":"浙江省-杭州市-富阳区-春江街道-建设行政村-建设自然村;春江街道-杭州富阳江南新城物业管理有限公司","startTime":"2019-07-24 04:47:00","stopDate":"2019-07-24 06:47:00","orgNo":"3340170","typeCode":"电网故障停限电","poweroffArea":"110kV建设变:建北D326线建锦D3265开关后段","poweroffReason":"高压开关跳闸","powerTime":"2019-07-24 05:57:12","powerComm":"已送电","subsNo":"","lineNo":"","tgNo":"","tgName":null,"infoStatus":"1","orgName":"国网浙江杭州市富阳区供电公司","typeName":null,"infoStatusName":null,"dateDay":null,"orgNos":null,"nowTime":null,"countyName":null,"streetName":null,"villageName":null,"roadName":null,"communityName":null,"tranName":null,"sdLineName":null,"cityCode":"3340170","cityName":"国网浙江杭州市富阳区供电公司","provinceCode":null,"stopTime":"2019-07-24 06:47:00","powerType":"全部","powerOffArea":"110kV建设变:建北D326线建锦D3265开关后段","powerOffReason":"高压开关跳闸","powerOffId":"2019072431020001"},{"poweroffId":2019072431010346,"sgpoweroffId":null,"subsName":"","lineName":"10kV新场6434线","pubTranName":"皇亲苑二变,","scope":"浙江省-杭州市-下城区-天水街道(皇亲苑社区-凤起路、皇亲苑);","startTime":"2019-07-24 22:37:54","stopDate":"2019-07-25 00:30:29","orgNo":"3340101","typeCode":"电网故障停限电","poweroffArea":"110kV新华变:新场6434线-皇亲苑二变后段","poweroffReason":"（低压停电信息）皇亲苑二变后段 低压设备故障 原预计停电结束时间2019-07-25 04:37:54,由于施工现场环境比较复杂，存在不确定因素，因此预估施工时间适当放长了，而实际施工进行得比较顺利，因此提前送电了","powerTime":"2019-07-24 23:57:47","powerComm":"已送电","subsNo":"","lineNo":"","tgNo":"","tgName":null,"infoStatus":"1","orgName":"浙江杭州电力客户服务中心","typeName":null,"infoStatusName":null,"dateDay":null,"orgNos":null,"nowTime":null,"countyName":null,"streetName":null,"villageName":null,"roadName":null,"communityName":null,"tranName":null,"sdLineName":null,"cityCode":"3340101","cityName":"浙江杭州电力客户服务中心","provinceCode":null,"stopTime":"2019-07-25 00:30:29","powerType":"全部","powerOffArea":"110kV新华变:新场6434线-皇亲苑二变后段","powerOffReason":"（低压停电信息）皇亲苑二变后段 低压设备故障 原预计停电结束时间2019-07-25 04:37:54,由于施工现场环境比较复杂，存在不确定因素，因此预估施工时间适当放长了，而实际施工进行得比较顺利，因此提前送电了","powerOffId":"2019072431010346"},{"poweroffId":2019072431010336,"sgpoweroffId":null,"subsName":"","lineName":"10kV沃华T320线","pubTranName":"董家1号公变,","scope":"浙江省-杭州市-桐庐县-城南街道(滩头行政村-董家自然村、滩头自然村、董家路马家村、马家村251号一带);","startTime":"2019-07-24 22:09:37","stopDate":"2019-07-24 23:59:31","orgNo":"3340150","typeCode":"电网故障停限电","poweroffArea":"110kV洋洲变:沃华T320线-董家1号公变后段","poweroffReason":"（低压停电信息）低压开关烧故障。","powerTime":"2019-07-24 23:56:08","powerComm":"已送电。","subsNo":"","lineNo":"","tgNo":"","tgName":null,"infoStatus":"1","orgName":"国网浙江桐庐县供电公司","typeName":null,"infoStatusName":null,"dateDay":null,"orgNos":null,"nowTime":null,"countyName":null,"streetName":null,"villageName":null,"roadName":null,"communityName":null,"tranName":null,"sdLineName":null,"cityCode":"3340150","cityName":"国网浙江桐庐县供电公司","provinceCode":null,"stopTime":"2019-07-24 23:59:31","powerType":"全部","powerOffArea":"110kV洋洲变:沃华T320线-董家1号公变后段","powerOffReason":"（低压停电信息）低压开关烧故障。","powerOffId":"2019072431010336"},{"poweroffId":2019072431010333,"sgpoweroffId":null,"subsName":"","lineName":"10kV安仁Y134线","pubTranName":"陵上新村梅塘台区,","scope":"浙江省-杭州市-建德市-乾潭镇 陵上新村行政村-梅塘自然村养鸡场附近一带用户。","startTime":"2019-07-24 22:02:00","stopDate":"2019-07-24 23:00:00","orgNo":"3340180","typeCode":"电网故障停限电","poweroffArea":"110kV乾潭变:安仁Y134线-陵上新村梅塘台区后段","poweroffReason":"（低压停电信息）低压熔断器烧毁故障 原预计停电结束时间23:59，目前故障已修复，现将停电时间变更至23:00。","powerTime":"2019-07-24 22:40:36","powerComm":"已送电","subsNo":"","lineNo":"","tgNo":"","tgName":null,"infoStatus":"1","orgName":"国网浙江建德市供电有限公司","typeName":null,"infoStatusName":null,"dateDay":null,"orgNos":null,"nowTime":null,"countyName":null,"streetName":null,"villageName":null,"roadName":null,"communityName":null,"tranName":null,"sdLineName":null,"cityCode":"3340180","cityName":"国网浙江建德市供电有限公司","provinceCode":null,"stopTime":"2019-07-24 23:00:00","powerType":"全部","powerOffArea":"110kV乾潭变:安仁Y134线-陵上新村梅塘台区后段","powerOffReason":"（低压停电信息）低压熔断器烧毁故障 原预计停电结束时间23:59，目前故障已修复，现将停电时间变更至23:00。","powerOffId":"2019072431010333"},{"poweroffId":2019072431010324,"sgpoweroffId":null,"subsName":"","lineName":"10kV永富C980线","pubTranName":"大石盖6#变,","scope":"浙江省-杭州市-萧山区-戴村镇(大石盖行政村-石盖自然村、畈里自然村);浙江省杭州市萧山区戴村镇大石盖行政村6组、浙江省杭州市萧山区戴村镇大石盖行政村石盖村、浙江省杭州市萧山区戴村镇大石盖村等一带","startTime":"2019-07-24 21:48:36","stopDate":"2019-07-24 23:50:14","orgNo":"3340130","typeCode":"电网故障停限电","poweroffArea":"110kV永兴变:永富C980线-大石盖6#变台区低压开关","poweroffReason":"（低压停电信息）低压熔断器短路故障 原停电结束时间：2019-07-25 03:54，变更停电结束时间：2019-07-24 23:50，由于增派人员，抢修提前完成，故需要提前送电。","powerTime":"2019-07-24 22:56:36","powerComm":"已送电","subsNo":"","lineNo":"","tgNo":"","tgName":null,"infoStatus":"1","orgName":"国网浙江杭州市萧山区供电有限公司","typeName":null,"infoStatusName":null,"dateDay":null,"orgNos":null,"nowTime":null,"countyName":null,"streetName":null,"villageName":null,"roadName":null,"communityName":null,"tranName":null,"sdLineName":null,"cityCode":"3340130","cityName":"国网浙江杭州市萧山区供电有限公司","provinceCode":null,"stopTime":"2019-07-24 23:50:14","powerType":"全部","powerOffArea":"110kV永兴变:永富C980线-大石盖6#变台区低压开关","powerOffReason":"（低压停电信息）低压熔断器短路故障 原停电结束时间：2019-07-25 03:54，变更停电结束时间：2019-07-24 23:50，由于增派人员，抢修提前完成，故需要提前送电。","powerOffId":"2019072431010324"}],"pageModel":{"pageNow":1407,"totalCount":17789,"totalPage":1779,"tableRows":0,"pageCount":10,"beginCount":14060},"isExperi":"1"}