{"message":"","today":"2020-06-16","seleList":[{"poweroffId":2019072431010313,"sgpoweroffId":null,"subsName":"","lineName":"10kV永民A819线","pubTranName":"远大村3#变,","scope":"浙江省-杭州市-萧山区-南阳街道远大行政村、长远自然村、远大村一带","startTime":"2019-07-24 21:22:51","stopDate":"2019-07-25 02:10:38","orgNo":"3340130","typeCode":"电网故障停限电","poweroffArea":"110kV黎明变:永民A819线-远大村3#变台区低压开关","poweroffReason":"（低压停电信息）低压架空导线断线故障 原停电结束时间:2019-07-25 03:31:01,变更停电结束时间:2019-07-25 02:10:38。由于抢修工作提前完成,故需要提前送电。","powerTime":"2019-07-25 01:35:13","powerComm":"已送电","subsNo":"","lineNo":"","tgNo":"","tgName":null,"infoStatus":"1","orgName":"国网浙江杭州市萧山区供电有限公司","typeName":null,"infoStatusName":null,"dateDay":null,"orgNos":null,"nowTime":null,"countyName":null,"streetName":null,"villageName":null,"roadName":null,"communityName":null,"tranName":null,"sdLineName":null,"cityCode":"3340130","cityName":"国网浙江杭州市萧山区供电有限公司","provinceCode":null,"stopTime":"2019-07-25 02:10:38","powerType":"全部","powerOffArea":"110kV黎明变:永民A819线-远大村3#变台区低压开关","powerOffReason":"（低压停电信息）低压架空导线断线故障 原停电结束时间:2019-07-25 03:31:01,变更停电结束时间:2019-07-25 02:10:38。由于抢修工作提前完成,故需要提前送电。","powerOffId":"2019072431010313"},{"poweroffId":2019072431010286,"sgpoweroffId":null,"subsName":"","lineName":"10kV来前A440线","pubTranName":"章潘桥村犁头金3#变,","scope":"浙江省-杭州市-萧山区-蜀山街道(章潘桥行政村-犁头金自然村)一带，浙江省杭州市萧山区蜀山街道章潘桥行政村犁头金自然村大屋，浙江省杭州市萧山区蜀山街道犁头金村","startTime":"2019-07-24 20:30:04","stopDate":"2019-07-24 23:00:17","orgNo":"3340130","typeCode":"电网故障停限电","poweroffArea":"110kV来苏变:来前A440线-章潘桥村犁头金3#变台区低压开关","poweroffReason":"（低压停电信息）低压漏电保护器短路故障 原停电结束时间：2019-07-24 22:00:10，变更停电结束时间2019-07-24 23:00:17，由于抢修工作难度大，故需要延迟送电。","powerTime":"2019-07-24 22:40:44","powerComm":"已送电","subsNo":"","lineNo":"","tgNo":"","tgName":null,"infoStatus":"1","orgName":"国网浙江杭州市萧山区供电有限公司","typeName":null,"infoStatusName":null,"dateDay":null,"orgNos":null,"nowTime":null,"countyName":null,"streetName":null,"villageName":null,"roadName":null,"communityName":null,"tranName":null,"sdLineName":null,"cityCode":"3340130","cityName":"国网浙江杭州市萧山区供电有限公司","provinceCode":null,"stopTime":"2019-07-24 23:00:17","powerType":"全部","powerOffArea":"110kV来苏变:来前A440线-章潘桥村犁头金3#变台区低压开关","powerOffReason":"（低压停电信息）低压漏电保护器短路故障 原停电结束时间：2019-07-24 22:00:10，变更停电结束时间2019-07-24 23:00:17，由于抢修工作难度大，故需要延迟送电。","powerOffId":"2019072431010286"},{"poweroffId":2019072431010263,"sgpoweroffId":null,"subsName":"","lineName":"10kV黎蓬A814线","pubTranName":"南阳街道9#变,","scope":"浙江省杭州市萧山区南阳街道南虹路444号、南虹路430号、南虹路、宝丰路一带","startTime":"2019-07-24 19:35:16","stopDate":"2019-07-24 22:44:21","orgNo":"3340130","typeCode":"电网故障停限电","poweroffArea":"110kV黎明变:黎蓬A814线-南阳街道9#变台区低压开关","poweroffReason":"（低压停电信息） 低压漏电保护器短路故障","powerTime":"2019-07-24 21:51:51","powerComm":"已送电","subsNo":"","lineNo":"","tgNo":"","tgName":null,"infoStatus":"1","orgName":"国网浙江杭州市萧山区供电有限公司","typeName":null,"infoStatusName":null,"dateDay":null,"orgNos":null,"nowTime":null,"countyName":null,"streetName":null,"villageName":null,"roadName":null,"communityName":null,"tranName":null,"sdLineName":null,"cityCode":"3340130","cityName":"国网浙江杭州市萧山区供电有限公司","provinceCode":null,"stopTime":"2019-07-24 22:44:21","powerType":"全部","powerOffArea":"110kV黎明变:黎蓬A814线-南阳街道9#变台区低压开关","powerOffReason":"（低压停电信息） 低压漏电保护器短路故障","powerOffId":"2019072431010263"},{"poweroffId":2019072431010260,"sgpoweroffId":null,"subsName":"","lineName":"10kV来三A422线","pubTranName":"广悦公寓3#公变,","scope":"浙江省-杭州市-萧山区-新塘街道(吕才庄社区-高桥路)一带，浙江省杭州市萧山区新塘街道广悦公寓","startTime":"2019-07-24 19:20:25","stopDate":"2019-07-24 21:00:29","orgNo":"3340130","typeCode":"电网故障停限电","poweroffArea":"110kV来苏变:来三A422线-广悦公寓3#公变台区低压开关","poweroffReason":"（低压停电信息）低压漏电保护器短路故障","powerTime":"2019-07-24 20:06:55","powerComm":"已送电","subsNo":"","lineNo":"","tgNo":"","tgName":null,"infoStatus":"1","orgName":"国网浙江杭州市萧山区供电有限公司","typeName":null,"infoStatusName":null,"dateDay":null,"orgNos":null,"nowTime":null,"countyName":null,"streetName":null,"villageName":null,"roadName":null,"communityName":null,"tranName":null,"sdLineName":null,"cityCode":"3340130","cityName":"国网浙江杭州市萧山区供电有限公司","provinceCode":null,"stopTime":"2019-07-24 21:00:29","powerType":"全部","powerOffArea":"110kV来苏变:来三A422线-广悦公寓3#公变台区低压开关","powerOffReason":"（低压停电信息）低压漏电保护器短路故障","powerOffId":"2019072431010260"},{"poweroffId":2019072431010259,"sgpoweroffId":null,"subsName":"","lineName":"10kV永盛A323线","pubTranName":"中国电信股份有限公司杭州萧山区分公司,小石桥村14#变,小石桥村10#变,初级中学(1315081176),小石桥村6#变,小石桥村16#变,小石桥村3#变,小石桥村2#变,小石桥村20#变,鸿港华庭1#变,鸿港华庭2#变,杭州萧山航都大酒店,小石桥村19#变,小石桥村4#变,小石桥村17#变,小石桥村1#变,小石桥村11#变,鸿港华庭3#变,","scope":"浙江省-杭州市-萧山区-靖江街道小石桥社区-广场路、靖江路、黎明路、青六路、商贸街、申达路、五区、小石桥自然村、育才路、杭州萧山航都大酒店,萧山区靖江初级中学,中国电信股份有限公司杭州萧山区分公司、靖江街道小石桥社区、靖江街道小石桥社区靖江路149号、靖江街道申达路1号、靖江街道小石桥社区黎明路97号2幢1单元501室、靖江街道靖江商贸街、靖江街道申达路92号、靖江街道小石桥社区五区、靖江街道小石桥社区商贸街鸿港华庭小区7幢1单元201室一带","startTime":"2019-07-24 19:29:15","stopDate":"2019-07-25 04:30:17","orgNo":"3340130","typeCode":"电网故障停限电","poweroffArea":"110kV靖江变:永盛A323线-永盛A3232开关后段","poweroffReason":"高压柱上断路器短路故障 原停电结束时间：2019-07-25 01:29:15；变更停电结束时间：2019-07-25 04:30:17，由于抢修工作难度大，故需要延迟送电。","powerTime":"2019-07-25 03:40:14","powerComm":"已送电","subsNo":"","lineNo":"","tgNo":"","tgName":null,"infoStatus":"1","orgName":"国网浙江杭州市萧山区供电有限公司","typeName":null,"infoStatusName":null,"dateDay":null,"orgNos":null,"nowTime":null,"countyName":null,"streetName":null,"villageName":null,"roadName":null,"communityName":null,"tranName":null,"sdLineName":null,"cityCode":"3340130","cityName":"国网浙江杭州市萧山区供电有限公司","provinceCode":null,"stopTime":"2019-07-25 04:30:17","powerType":"全部","powerOffArea":"110kV靖江变:永盛A323线-永盛A3232开关后段","powerOffReason":"高压柱上断路器短路故障 原停电结束时间：2019-07-25 01:29:15；变更停电结束时间：2019-07-25 04:30:17，由于抢修工作难度大，故需要延迟送电。","powerOffId":"2019072431010259"},{"poweroffId":2019072431010247,"sgpoweroffId":null,"subsName":"","lineName":"10kV东山Y132线","pubTranName":"沛市村站边台区,","scope":"浙江省-杭州市-建德市-乾潭镇 沛市行政村 站边自然村一带用户。","startTime":"2019-07-24 18:51:00","stopDate":"2019-07-24 19:30:00","orgNo":"3340180","typeCode":"电网故障停限电","poweroffArea":"110kV乾潭变:东山Y132线-沛市村站边台区后段","poweroffReason":"（低压停电信息）低压开关跳闸故障 原预计停电结束时间20:30，目前故障已修复，现将停电时间变更至19:30。","powerTime":"2019-07-24 19:17:00","powerComm":"已送电","subsNo":"","lineNo":"","tgNo":"","tgName":null,"infoStatus":"1","orgName":"国网浙江建德市供电有限公司","typeName":null,"infoStatusName":null,"dateDay":null,"orgNos":null,"nowTime":null,"countyName":null,"streetName":null,"villageName":null,"roadName":null,"communityName":null,"tranName":null,"sdLineName":null,"cityCode":"3340180","cityName":"国网浙江建德市供电有限公司","provinceCode":null,"stopTime":"2019-07-24 19:30:00","powerType":"全部","powerOffArea":"110kV乾潭变:东山Y132线-沛市村站边台区后段","powerOffReason":"（低压停电信息）低压开关跳闸故障 原预计停电结束时间20:30，目前故障已修复，现将停电时间变更至19:30。","powerOffId":"2019072431010247"},{"poweroffId":2019072431010240,"sgpoweroffId":null,"subsName":"","lineName":"10kV金西T263线","pubTranName":"河湾1号公变,","scope":"浙江省-杭州市-桐庐县-城南街道(春江行政村-江联自然村河湾村春江西路宇杰物流公司一带。）","startTime":"2019-07-24 18:47:12","stopDate":"2019-07-24 21:48:10","orgNo":"3340150","typeCode":"电网故障停限电","poweroffArea":"35kV三合变:金西T263线-河湾1号公变后段","poweroffReason":"（低压停电信息）低压开关烧故障","powerTime":"2019-07-24 21:35:17","powerComm":"已送电。","subsNo":"","lineNo":"","tgNo":"","tgName":null,"infoStatus":"1","orgName":"国网浙江桐庐县供电公司","typeName":null,"infoStatusName":null,"dateDay":null,"orgNos":null,"nowTime":null,"countyName":null,"streetName":null,"villageName":null,"roadName":null,"communityName":null,"tranName":null,"sdLineName":null,"cityCode":"3340150","cityName":"国网浙江桐庐县供电公司","provinceCode":null,"stopTime":"2019-07-24 21:48:10","powerType":"全部","powerOffArea":"35kV三合变:金西T263线-河湾1号公变后段","powerOffReason":"（低压停电信息）低压开关烧故障","powerOffId":"2019072431010240"},{"poweroffId":2019072431010239,"sgpoweroffId":null,"subsName":"","lineName":"10kV九堡A398线","pubTranName":"顺坝村5#变,","scope":"浙江省-杭州市-萧山区宁围街道、宁围街道顺坝行政村-顺坝自然村、宁围街道顺坝行政村顺坝自然村、萧山区宁围街道胜坝村43号、宁围镇宁围街道胜坝村130号、等一带","startTime":"2019-07-24 18:45:50","stopDate":"2019-07-24 20:48:45","orgNo":"3340130","typeCode":"电网故障停限电","poweroffArea":"110kV顺坝变:九堡A398线-顺坝村5#变台区低压开关","poweroffReason":"（低压停电信息）低压漏电保护器短路故障","powerTime":"2019-07-24 19:50:15","powerComm":"已送电","subsNo":"","lineNo":"","tgNo":"","tgName":null,"infoStatus":"1","orgName":"国网浙江杭州市萧山区供电有限公司","typeName":null,"infoStatusName":null,"dateDay":null,"orgNos":null,"nowTime":null,"countyName":null,"streetName":null,"villageName":null,"roadName":null,"communityName":null,"tranName":null,"sdLineName":null,"cityCode":"3340130","cityName":"国网浙江杭州市萧山区供电有限公司","provinceCode":null,"stopTime":"2019-07-24 20:48:45","powerType":"全部","powerOffArea":"110kV顺坝变:九堡A398线-顺坝村5#变台区低压开关","powerOffReason":"（低压停电信息）低压漏电保护器短路故障","powerOffId":"2019072431010239"},{"poweroffId":2019072431010236,"sgpoweroffId":null,"subsName":"","lineName":"10kV胜达C623线","pubTranName":"新华村6#变,","scope":"浙江省-杭州市-萧山区宁围镇、宁围街道、新华行政村-新华自然村等一带","startTime":"2019-07-24 18:22:10","stopDate":"2019-07-24 20:23:37","orgNo":"3340130","typeCode":"电网故障停限电","poweroffArea":"110kV新街变:胜达C623线-新华村6#变台区低压开关","poweroffReason":"（低压停电信息）低压漏电保护器短路故障","powerTime":"2019-07-24 19:33:35","powerComm":"已送电","subsNo":"","lineNo":"","tgNo":"","tgName":null,"infoStatus":"1","orgName":"国网浙江杭州市萧山区供电有限公司","typeName":null,"infoStatusName":null,"dateDay":null,"orgNos":null,"nowTime":null,"countyName":null,"streetName":null,"villageName":null,"roadName":null,"communityName":null,"tranName":null,"sdLineName":null,"cityCode":"3340130","cityName":"国网浙江杭州市萧山区供电有限公司","provinceCode":null,"stopTime":"2019-07-24 20:23:37","powerType":"全部","powerOffArea":"110kV新街变:胜达C623线-新华村6#变台区低压开关","powerOffReason":"（低压停电信息）低压漏电保护器短路故障","powerOffId":"2019072431010236"},{"poweroffId":2019072431010231,"sgpoweroffId":null,"subsName":"","lineName":"10kV传芳C254线","pubTranName":"信谊村12#变,","scope":"浙江省杭州市萧山区所前镇信谊行政村所前镇顾家湾村一带","startTime":"2019-07-24 17:35:18","stopDate":"2019-07-24 21:30:25","orgNo":"3340130","typeCode":"电网故障停限电","poweroffArea":"110kV所前变:传芳C254线-信谊村12#变台区低压开关","poweroffReason":"（低压停电信息）车辆撞断低压电杆故障","powerTime":"2019-07-24 21:12:27","powerComm":"已送电","subsNo":"","lineNo":"","tgNo":"","tgName":null,"infoStatus":"1","orgName":"国网浙江杭州市萧山区供电有限公司","typeName":null,"infoStatusName":null,"dateDay":null,"orgNos":null,"nowTime":null,"countyName":null,"streetName":null,"villageName":null,"roadName":null,"communityName":null,"tranName":null,"sdLineName":null,"cityCode":"3340130","cityName":"国网浙江杭州市萧山区供电有限公司","provinceCode":null,"stopTime":"2019-07-24 21:30:25","powerType":"全部","powerOffArea":"110kV所前变:传芳C254线-信谊村12#变台区低压开关","powerOffReason":"（低压停电信息）车辆撞断低压电杆故障","powerOffId":"2019072431010231"}],"pageModel":{"pageNow":1408,"totalCount":17789,"totalPage":1779,"tableRows":0,"pageCount":10,"beginCount":14070},"isExperi":"1"}