{"message":"","today":"2020-06-16","seleList":[{"poweroffId":2019072331020109,"sgpoweroffId":null,"subsName":"","lineName":"10kV金浦D818线","pubTranName":"金桥村章家庙5#公变,","scope":"浙江省-杭州市-富阳区-富春街道-金桥社区(金桥北路,金城路),富春街道-金秋社区(凤浦路,金城路)","startTime":"2019-07-23 22:13:36","stopDate":"2019-07-23 23:04:36","orgNo":"3340170","typeCode":"电网故障停限电","poweroffArea":"110kV容大变:金浦D818线-金桥村章家庙5#公变后段","poweroffReason":"（低压停电信息）低压开关跳闸 原停电结束时间为2019-07-24 00:13:36，因现场抢修力量加强变更至2019-07-23 23:04:36","powerTime":"2019-07-23 22:48:08","powerComm":"已送电","subsNo":"","lineNo":"","tgNo":"","tgName":null,"infoStatus":"1","orgName":"国网浙江杭州市富阳区供电公司","typeName":null,"infoStatusName":null,"dateDay":null,"orgNos":null,"nowTime":null,"countyName":null,"streetName":null,"villageName":null,"roadName":null,"communityName":null,"tranName":null,"sdLineName":null,"cityCode":"3340170","cityName":"国网浙江杭州市富阳区供电公司","provinceCode":null,"stopTime":"2019-07-23 23:04:36","powerType":"全部","powerOffArea":"110kV容大变:金浦D818线-金桥村章家庙5#公变后段","powerOffReason":"（低压停电信息）低压开关跳闸 原停电结束时间为2019-07-24 00:13:36，因现场抢修力量加强变更至2019-07-23 23:04:36","powerOffId":"2019072331020109"},{"poweroffId":2019072331020108,"sgpoweroffId":null,"subsName":"","lineName":"10kV大树D219线","pubTranName":"舒姑洋村1#桥上公变,","scope":"浙江省-杭州市-富阳区-银湖街道-高桥行政村-舒姑垟自然村","startTime":"2019-07-23 21:51:35","stopDate":"2019-07-23 23:51:35","orgNo":"3340170","typeCode":"电网故障停限电","poweroffArea":"110kV银湖变:大树D219线-舒姑洋村1#桥上公变后段","poweroffReason":"（低压停电信息）低压开关跳闸 原停电结束时间为2019-07-23 22:51:35，因现场施工复杂延至2019-07-23 23:51:35","powerTime":"2019-07-23 23:04:08","powerComm":"已送电","subsNo":"","lineNo":"","tgNo":"","tgName":null,"infoStatus":"1","orgName":"国网浙江杭州市富阳区供电公司","typeName":null,"infoStatusName":null,"dateDay":null,"orgNos":null,"nowTime":null,"countyName":null,"streetName":null,"villageName":null,"roadName":null,"communityName":null,"tranName":null,"sdLineName":null,"cityCode":"3340170","cityName":"国网浙江杭州市富阳区供电公司","provinceCode":null,"stopTime":"2019-07-23 23:51:35","powerType":"全部","powerOffArea":"110kV银湖变:大树D219线-舒姑洋村1#桥上公变后段","powerOffReason":"（低压停电信息）低压开关跳闸 原停电结束时间为2019-07-23 22:51:35，因现场施工复杂延至2019-07-23 23:51:35","powerOffId":"2019072331020108"},{"poweroffId":2019072331020107,"sgpoweroffId":null,"subsName":"","lineName":"10kV三山D402线","pubTranName":"春安村1#村中公变,","scope":"浙江省-杭州市-富阳区-鹿山街道-汤家埠行政村(春安自然村,屋基上自然村,官房自然村,汤家埠自然村)","startTime":"2019-07-23 21:34:54","stopDate":"2019-07-23 22:15:54","orgNo":"3340170","typeCode":"电网故障停限电","poweroffArea":"110kV长春变:三山D402线-春安村1#村中公变后段","poweroffReason":"（低压停电信息）低压开关跳闸 原停电结束时间2019-07-23 23:34:54，因现场抢修力量加强变更至2019-07-23 22:15:54","powerTime":"2019-07-23 21:56:21","powerComm":"已送电","subsNo":"","lineNo":"","tgNo":"","tgName":null,"infoStatus":"1","orgName":"国网浙江杭州市富阳区供电公司","typeName":null,"infoStatusName":null,"dateDay":null,"orgNos":null,"nowTime":null,"countyName":null,"streetName":null,"villageName":null,"roadName":null,"communityName":null,"tranName":null,"sdLineName":null,"cityCode":"3340170","cityName":"国网浙江杭州市富阳区供电公司","provinceCode":null,"stopTime":"2019-07-23 22:15:54","powerType":"全部","powerOffArea":"110kV长春变:三山D402线-春安村1#村中公变后段","powerOffReason":"（低压停电信息）低压开关跳闸 原停电结束时间2019-07-23 23:34:54，因现场抢修力量加强变更至2019-07-23 22:15:54","powerOffId":"2019072331020107"},{"poweroffId":2019072331020106,"sgpoweroffId":null,"subsName":"","lineName":"10kV横塘G172线","pubTranName":"横塘村5组西公变,玲珑家园2-2#公变,横塘村五组2#变,横塘村五组,玲珑家园商铺公变,玲珑家园1-2#公变,杭州市余杭区临平第二幼儿园,横塘村5组3#公变,玲珑家园1-1#公变,横塘村三组,横塘小学,杭州余杭横塘股份经济合作社250配变,玲珑家园2-1#公变,横塘村新区2#变,","scope":"浙江省-杭州市-余杭区-东湖街道-经济开发区-天荷路,东湖街道-横塘社区(横塘新自然村,东横塘自然村,临平大道,北横塘自然村,东湖北路,横塘自然村,天荷路),东湖街道-星光社区(天荷路,东湖北路),经济开发区(横塘社区-横塘,禾丰社区-天荷路);东湖街道-横塘社区杭州市余杭区临平第二幼儿园,杭州余杭横塘股份经济合作社一带","startTime":"2019-07-23 21:20:00","stopDate":"2019-07-23 23:20:00","orgNo":"3340140","typeCode":"电网故障停限电","poweroffArea":"110kV丘山变:横塘G172线-线经纬分线1号杆分线开关后段","poweroffReason":"横塘G172线-线经纬分线1号杆分线开关后段真空开关烧损故障","powerTime":"2019-07-23 23:19:00","powerComm":"已送电","subsNo":"","lineNo":"","tgNo":"","tgName":null,"infoStatus":"1","orgName":"国网浙江杭州市余杭区供电有限公司","typeName":null,"infoStatusName":null,"dateDay":null,"orgNos":null,"nowTime":null,"countyName":null,"streetName":null,"villageName":null,"roadName":null,"communityName":null,"tranName":null,"sdLineName":null,"cityCode":"3340140","cityName":"国网浙江杭州市余杭区供电有限公司","provinceCode":null,"stopTime":"2019-07-23 23:20:00","powerType":"全部","powerOffArea":"110kV丘山变:横塘G172线-线经纬分线1号杆分线开关后段","powerOffReason":"横塘G172线-线经纬分线1号杆分线开关后段真空开关烧损故障","powerOffId":"2019072331020106"},{"poweroffId":2019072331020104,"sgpoweroffId":null,"subsName":"","lineName":"10kV店口D941线","pubTranName":"店口村3#店口下公变,","scope":"浙江省-杭州市-富阳区-富春街道-三桥行政村-店口自然村","startTime":"2019-07-23 21:20:44","stopDate":"2019-07-23 22:05:44","orgNo":"3340170","typeCode":"电网故障停限电","poweroffArea":"110kV育才变:店口D941线-店口村3#店口下公变后段","poweroffReason":"高压开关跳闸 原停电结束时间为2019-07-23 23:20:44，因现场抢修力量加强变更至2019-07-23 22:05:44","powerTime":"2019-07-23 21:48:04","powerComm":"已送电","subsNo":"","lineNo":"","tgNo":"","tgName":null,"infoStatus":"1","orgName":"国网浙江杭州市富阳区供电公司","typeName":null,"infoStatusName":null,"dateDay":null,"orgNos":null,"nowTime":null,"countyName":null,"streetName":null,"villageName":null,"roadName":null,"communityName":null,"tranName":null,"sdLineName":null,"cityCode":"3340170","cityName":"国网浙江杭州市富阳区供电公司","provinceCode":null,"stopTime":"2019-07-23 22:05:44","powerType":"全部","powerOffArea":"110kV育才变:店口D941线-店口村3#店口下公变后段","powerOffReason":"高压开关跳闸 原停电结束时间为2019-07-23 23:20:44，因现场抢修力量加强变更至2019-07-23 22:05:44","powerOffId":"2019072331020104"},{"poweroffId":2019072331020101,"sgpoweroffId":null,"subsName":"","lineName":"10kV板桥H803线","pubTranName":"清海印务,杭州天涵建筑造型设计有限公司,杭州余杭区佳斌五金配件厂,华科实业,五常派出所,中艺实业,依达印花,中坚仪表,达峰接插1,达峰接插2,佳斌五金变配电变压器,三禾粉体,江都实业,荆丰股份经济合作社,华剑工具,南江电器,杭州海峡工具有限公司,联胜路站基建,荆丰股份经济合作社,中艺经贸,胜狮链条基建,家豪五金,荆丰经联社1,金岭通信,横板桥社区联胜路口,胜狮链条,神驰工贸,舒思约克,艾斯博电装,荣鑫装饰材料,英士教育,晨洲涂料2,华科实业,三荣机电,杭州西收费站,","scope":"浙江省-杭州市-余杭区-五常街道(横板桥行政村-横板桥自然村,荆山行政村-荆山自然村);五常街道-荆丰社区(杭州余杭荆丰股份经济合作社,杭州余杭区五常街道吉泰酒店,杭州家豪五金工具有限公司),五常街道-五常社区(杭州余杭荆丰股份经济合作社,杭州市余杭区闲林镇荆丰村村民委员会,杭州万景酒店管理有限公司,杭州弘巴酒店管理有限公司,杭州艾斯博电装有限公司,杭州天涵建筑造型设计有限公司,浙江杭徽高速公路有限公司杭徽管理处,浙江英仕教育中心,杭州晨洲涂料有限公司,杭州博阳仪器仪表有限公司,杭州神驰工贸有限公司,杭州胜狮链条有限公司,杭州依达电脑印花有限公司,浙江加都健康科技有限公司,杭州同城企业管理有限公司,杭州海峡工具有限公司,杭州宇优商业管理有限公司,杭州中艺实业股份有限公司,杭州大搜车汽车服务有限公司,浙江华科实业开发有限公司,杭州市地铁集团有限责任公司),五常街道(横板桥社区-杭州市公安局余杭区分局,荆山社区-杭州金岭通信电子元件有限公司,荆丰行政村-浙江森井科技股份有限公司一带","startTime":"2019-07-23 19:50:20","stopDate":"2019-07-23 21:50:20","orgNo":"3340140","typeCode":"电网故障停限电","poweroffArea":"110kV油车变:板桥H803线","poweroffReason":"110kV油车变:板桥H803线高压架空线断线故障","powerTime":"2019-07-23 21:15:03","powerComm":"已修复送电","subsNo":"","lineNo":"","tgNo":"","tgName":null,"infoStatus":"1","orgName":"国网浙江杭州市余杭区供电有限公司","typeName":null,"infoStatusName":null,"dateDay":null,"orgNos":null,"nowTime":null,"countyName":null,"streetName":null,"villageName":null,"roadName":null,"communityName":null,"tranName":null,"sdLineName":null,"cityCode":"3340140","cityName":"国网浙江杭州市余杭区供电有限公司","provinceCode":null,"stopTime":"2019-07-23 21:50:20","powerType":"全部","powerOffArea":"110kV油车变:板桥H803线","powerOffReason":"110kV油车变:板桥H803线高压架空线断线故障","powerOffId":"2019072331020101"},{"poweroffId":2019072331020100,"sgpoweroffId":null,"subsName":"","lineName":"10kV横塘G172线","pubTranName":"杭州众望房地产开发有限公司,玲珑家园1-1#公变,横塘村红四公变,奥坦斯布艺1#,横塘6组2号公变,杭州众望房地产开发有限公司,横塘四组西变,浙江绵创科技有限公司,玲珑家园1-2#公变,横塘村小学西公变,横塘村五组2#变,杭州余杭横塘股份经济合作社250配变,玲珑家园2-2#公变,奥坦斯布艺2#,横塘村六组,杭州一丝布苟纺织科技有限公司,横塘村新区3#公变,杭州众望房地产开发有限公司,杭州绵创纺织有限公司,福良装潢,经纬大厦1#,横塘村六组（三）,杭州众望房地产开发有限公司,杭州众望房地产开发有限公司,横塘村红四2号公变,杭州市余杭区临平第二幼儿园,工商一所,玲珑家园2-1#公变,余杭区水电安装公司（广正建设）,杭州集众建材,玲珑家园商铺公变,横塘村五组,横塘村5组西公变,横塘村新区,横塘小学,横塘村三组,余杭海关（二）,横塘村新区2#变,横塘村红友,杭州众望房地产开发有限公司,众望1＃专变,杭州众望房地产开发有限公司,杭州众望房地产开发有限公司,横塘村5组3#公变,横塘村四组,东湖街道农机管理站配变,杭州众望房地产开发有限公司,","scope":"浙江省-杭州市-余杭区-东湖街道-星光社区(北沙西路,天荷路,东湖北路),东湖街道-横塘社区(横塘自然村,东横塘自然村,石柱头自然村,横塘新自然村,临平大道,北横塘自然村,塘宁路,东湖北路,新安河自然村,横塘,北沙西路,天荷路),经济开发区(横塘社区-横塘,禾丰社区-天荷路,小林社区-北沙西路),东湖街道(茅山社区-东湖北沙西路,经济开发区-天荷路);浙江省-杭州市-余杭区-东湖街道-塘湾社区-杭州奥坦斯布艺有限公司,东湖街道-经济开发区(杭州富云置业有限公司,杭州市公安局余杭区分局交通警察大队,杭州余杭集众建材有限公司,杭州广正建设工程有限公司,杭州海关驻余杭办事处,杭州市余杭区市场监督管理局开发区市场监督管理所,杭州经纬房地产有限公司),东湖街道-横塘社区(杭州一丝布苟纺织科技有限公司,杭州市余杭区临平第二幼儿园,杭州余杭横塘股份经济合作社),经济开发区(禾丰社区-杭州富云置业有限公司,红丰社区-杭州众房物业管理有限公司,横塘社区-浙江绵创科技有限公司一带","startTime":"2019-07-23 19:22:57","stopDate":"2019-07-23 21:22:57","orgNo":"3340140","typeCode":"电网故障停限电","poweroffArea":"110kV丘山变:横塘G172线","poweroffReason":"110kV丘山变:横塘G172线高压导线断线故障","powerTime":"2019-07-23 21:18:33","powerComm":"已修复送电","subsNo":"","lineNo":"","tgNo":"","tgName":null,"infoStatus":"1","orgName":"国网浙江杭州市余杭区供电有限公司","typeName":null,"infoStatusName":null,"dateDay":null,"orgNos":null,"nowTime":null,"countyName":null,"streetName":null,"villageName":null,"roadName":null,"communityName":null,"tranName":null,"sdLineName":null,"cityCode":"3340140","cityName":"国网浙江杭州市余杭区供电有限公司","provinceCode":null,"stopTime":"2019-07-23 21:22:57","powerType":"全部","powerOffArea":"110kV丘山变:横塘G172线","powerOffReason":"110kV丘山变:横塘G172线高压导线断线故障","powerOffId":"2019072331020100"},{"poweroffId":2019072331020086,"sgpoweroffId":null,"subsName":"","lineName":"10kV三家G864线","pubTranName":"三家村裘家斗南公变,","scope":"浙江省杭州市余杭区崇贤街道:三家行政村裘家斗南一带","startTime":"2019-07-29 08:37:55","stopDate":"2019-07-29 17:30:00","orgNo":"3340140","typeCode":"临时停电","poweroffArea":"35kV独山变:三家G864线-三家村裘家斗南公变","poweroffReason":"（国网大修）2019年杭州余杭崇贤范家角等台区0.4kV配电线路整治工程:三家G864线裘家斗南公变70平方调换成120平方低压导线4档及接户线搭接20对工作。","powerTime":"2019-07-29 16:56:17","powerComm":"已送电","subsNo":"","lineNo":"","tgNo":"","tgName":null,"infoStatus":"1","orgName":"国网浙江杭州市余杭区供电有限公司","typeName":null,"infoStatusName":null,"dateDay":null,"orgNos":null,"nowTime":null,"countyName":null,"streetName":null,"villageName":null,"roadName":null,"communityName":null,"tranName":null,"sdLineName":null,"cityCode":"3340140","cityName":"国网浙江杭州市余杭区供电有限公司","provinceCode":null,"stopTime":"2019-07-29 17:30:00","powerType":"全部","powerOffArea":"35kV独山变:三家G864线-三家村裘家斗南公变","powerOffReason":"（国网大修）2019年杭州余杭崇贤范家角等台区0.4kV配电线路整治工程:三家G864线裘家斗南公变70平方调换成120平方低压导线4档及接户线搭接20对工作。","powerOffId":"2019072331020086"},{"poweroffId":2019072331020083,"sgpoweroffId":null,"subsName":"","lineName":"10kV五园9245线","pubTranName":"杭州盛风电器有限公司315配变,乔司大井小学61208151871#变压器,1＃,2#,五星经济合作社2#高配2#变,","scope":"浙江省-杭州市-余杭区-乔司街道-五星行政村杭州市余杭区乔司镇五星村经济联合社,杭州盛风物业管理服务有限公司,杭州市余杭区乔司中心小学一带","startTime":"2019-07-23 16:56:00","stopDate":"2019-07-23 20:30:00","orgNo":"3340140","typeCode":"电网故障停限电","poweroffArea":"110kV东风变:五园9245线-五园92454开关后段","poweroffReason":"五园92454开关后段 架空线断线故障","powerTime":"2019-07-23 19:40:00","powerComm":"已修复送电","subsNo":"","lineNo":"","tgNo":"","tgName":null,"infoStatus":"1","orgName":"国网浙江杭州市余杭区供电有限公司","typeName":null,"infoStatusName":null,"dateDay":null,"orgNos":null,"nowTime":null,"countyName":null,"streetName":null,"villageName":null,"roadName":null,"communityName":null,"tranName":null,"sdLineName":null,"cityCode":"3340140","cityName":"国网浙江杭州市余杭区供电有限公司","provinceCode":null,"stopTime":"2019-07-23 20:30:00","powerType":"全部","powerOffArea":"110kV东风变:五园9245线-五园92454开关后段","powerOffReason":"五园92454开关后段 架空线断线故障","powerOffId":"2019072331020083"},{"poweroffId":2019072331020080,"sgpoweroffId":null,"subsName":"","lineName":"10kV山后G830线","pubTranName":"三家村范家角公变,","scope":"浙江省杭州市余杭区崇贤街道:三家村范家角一带","startTime":"2019-07-30 08:30:00","stopDate":"2019-07-30 17:30:00","orgNo":"3340140","typeCode":"临时停电","poweroffArea":"110kV北庄变:山后G830线-三家村范家角公变","poweroffReason":"（国网大修）2019年杭州余杭崇贤范家角等台区0.4kV配电线路整治工程:三家G864线范家角公变70平方调换成120平方低压导线3档及接户线搭接20对工作。","powerTime":"2019-07-30 16:49:11","powerComm":"已送电","subsNo":"","lineNo":"","tgNo":"","tgName":null,"infoStatus":"1","orgName":"国网浙江杭州市余杭区供电有限公司","typeName":null,"infoStatusName":null,"dateDay":null,"orgNos":null,"nowTime":null,"countyName":null,"streetName":null,"villageName":null,"roadName":null,"communityName":null,"tranName":null,"sdLineName":null,"cityCode":"3340140","cityName":"国网浙江杭州市余杭区供电有限公司","provinceCode":null,"stopTime":"2019-07-30 17:30:00","powerType":"全部","powerOffArea":"110kV北庄变:山后G830线-三家村范家角公变","powerOffReason":"（国网大修）2019年杭州余杭崇贤范家角等台区0.4kV配电线路整治工程:三家G864线范家角公变70平方调换成120平方低压导线3档及接户线搭接20对工作。","powerOffId":"2019072331020080"}],"pageModel":{"pageNow":1411,"totalCount":17789,"totalPage":1779,"tableRows":0,"pageCount":10,"beginCount":14100},"isExperi":"1"}