{"message":"","today":"2020-06-16","seleList":[{"poweroffId":2019072331020042,"sgpoweroffId":null,"subsName":"","lineName":"10kV邦汇C321线","pubTranName":"建盈村8#变,","scope":"浙江省-杭州市-萧山区-瓜沥镇-建盈行政村(万红路,建盈自然村)","startTime":"2019-08-01 08:00:00","stopDate":"2019-08-01 10:20:00","orgNo":"3340130","typeCode":"计划停电","poweroffArea":"110kV沿塘变:邦汇C321线-建盈村8#变后段","poweroffReason":"邦汇C321线建盈村8#变令克高温消缺 原停电结束时间: 2019-08-01 15:30:00 ,变更停电结束时间: 2019-08-01 10:20:00。由于计划工作提前完成,故需要提前送电。","powerTime":"2019-08-01 09:26:36","powerComm":"已送电","subsNo":"","lineNo":"","tgNo":"","tgName":null,"infoStatus":"1","orgName":"国网浙江杭州市萧山区供电有限公司","typeName":null,"infoStatusName":null,"dateDay":null,"orgNos":null,"nowTime":null,"countyName":null,"streetName":null,"villageName":null,"roadName":null,"communityName":null,"tranName":null,"sdLineName":null,"cityCode":"3340130","cityName":"国网浙江杭州市萧山区供电有限公司","provinceCode":null,"stopTime":"2019-08-01 10:20:00","powerType":"全部","powerOffArea":"110kV沿塘变:邦汇C321线-建盈村8#变后段","powerOffReason":"邦汇C321线建盈村8#变令克高温消缺 原停电结束时间: 2019-08-01 15:30:00 ,变更停电结束时间: 2019-08-01 10:20:00。由于计划工作提前完成,故需要提前送电。","powerOffId":"2019072331020042"},{"poweroffId":2019072331020041,"sgpoweroffId":null,"subsName":"","lineName":"10kV临港A064线","pubTranName":"杭州萧山炳宪化纤织造有限公司,杭州萧山铭达彩钢瓦厂,","scope":"浙江省-杭州市-萧山区-瓜沥镇-大园行政村-杭州萧山铭达彩光瓦厂","startTime":"2019-07-31 07:30:00","stopDate":"2019-07-31 13:30:00","orgNo":"3340130","typeCode":"计划停电","poweroffArea":"110kV航坞变:临港A064线-临科开G13铭达彩光瓦负荷开关后段;临港A064线-临科开G12炳宪化纤负荷开关后段","poweroffReason":"蓝贝临港振邦环报投","powerTime":"2019-07-31 12:58:34","powerComm":"已送电","subsNo":"","lineNo":"","tgNo":"","tgName":null,"infoStatus":"1","orgName":"国网浙江杭州市萧山区供电有限公司","typeName":null,"infoStatusName":null,"dateDay":null,"orgNos":null,"nowTime":null,"countyName":null,"streetName":null,"villageName":null,"roadName":null,"communityName":null,"tranName":null,"sdLineName":null,"cityCode":"3340130","cityName":"国网浙江杭州市萧山区供电有限公司","provinceCode":null,"stopTime":"2019-07-31 13:30:00","powerType":"全部","powerOffArea":"110kV航坞变:临港A064线-临科开G13铭达彩光瓦负荷开关后段;临港A064线-临科开G12炳宪化纤负荷开关后段","powerOffReason":"蓝贝临港振邦环报投","powerOffId":"2019072331020041"},{"poweroffId":2019072331020040,"sgpoweroffId":null,"subsName":"","lineName":"10kV万利A073线","pubTranName":"杭州萧山坎山荒田坞石料厂,杭州奥强花边有限公司,工农村8#变,1#变,杭州萧山瓜沥响焰酒吧,工农村7#变,坎山山北石料厂,工农村13#变,","scope":"浙江省-杭州市-萧山区-瓜沥镇-工农行政村(牧场路,工农自然村,戴家路,八柯线路,长池头路,万家坞自然村);浙江省-杭州市-萧山区-瓜沥镇-航民行政村-杭州奥强花边有限公司,瓜沥镇-工农行政村(坎山山北石料厂,杭州萧山瓜沥响焰酒吧,杭州萧山坎山荒田坞石料厂,河南省岩土工程有限公司)","startTime":"2019-07-31 07:00:00","stopDate":"2019-07-31 13:00:00","orgNo":"3340130","typeCode":"计划停电","poweroffArea":"110kV航坞变:万利A073线-万利A073线萧污开石料厂分线开关后段","poweroffReason":"万利A073线萧污开石料厂分线线路改造","powerTime":"2019-07-31 12:47:37","powerComm":"已送电","subsNo":"","lineNo":"","tgNo":"","tgName":null,"infoStatus":"1","orgName":"国网浙江杭州市萧山区供电有限公司","typeName":null,"infoStatusName":null,"dateDay":null,"orgNos":null,"nowTime":null,"countyName":null,"streetName":null,"villageName":null,"roadName":null,"communityName":null,"tranName":null,"sdLineName":null,"cityCode":"3340130","cityName":"国网浙江杭州市萧山区供电有限公司","provinceCode":null,"stopTime":"2019-07-31 13:00:00","powerType":"全部","powerOffArea":"110kV航坞变:万利A073线-万利A073线萧污开石料厂分线开关后段","powerOffReason":"万利A073线萧污开石料厂分线线路改造","powerOffId":"2019072331020040"},{"poweroffId":2019072331020034,"sgpoweroffId":null,"subsName":"","lineName":"10kV潭头R193线","pubTranName":"临岐西河村上白塔公变,","scope":"浙江省-杭州市-淳安县-文昌镇-西河行政村(西河村,西河自然村,上白塔自然村)","startTime":"2019-07-24 06:30:00","stopDate":"2019-07-24 09:30:00","orgNo":"3340190","typeCode":"临时停电","poweroffArea":"35kV潭头变:潭头R193线-上白塔配变跌落式熔断器后段","poweroffReason":"上白塔台区猪厂线03号杆移位配变变压器更换","powerTime":"2019-07-24 08:39:21","powerComm":"现场工作已完成","subsNo":"","lineNo":"","tgNo":"","tgName":null,"infoStatus":"1","orgName":"国网浙江淳安县供电有限公司","typeName":null,"infoStatusName":null,"dateDay":null,"orgNos":null,"nowTime":null,"countyName":null,"streetName":null,"villageName":null,"roadName":null,"communityName":null,"tranName":null,"sdLineName":null,"cityCode":"3340190","cityName":"国网浙江淳安县供电有限公司","provinceCode":null,"stopTime":"2019-07-24 09:30:00","powerType":"全部","powerOffArea":"35kV潭头变:潭头R193线-上白塔配变跌落式熔断器后段","powerOffReason":"上白塔台区猪厂线03号杆移位配变变压器更换","powerOffId":"2019072331020034"},{"poweroffId":2019072331020033,"sgpoweroffId":null,"subsName":"","lineName":"10kV泥桥G908线","pubTranName":"水西2组公变,水西新村2号公变,水西2组4号公变,水西3组公变,水西新村1号公变,中国建筑第八工程局有限公司1#,石大线北收费站,水西3组4号公变,城建石大路基建2#变,水西3组6号公变,富源水泥制管,世纪大道1#路灯变,余杭区公安分局100永久,银福五金静电公司,水西2组3号公变,水西2组2号公变,水西4组5号公变,杭州银富五金,水西3组3号公变,水西3组2号公变,水西3组5号公变,水西4组公变,水西4组2号公变,","scope":"浙江省-杭州市-余杭区-乔司街道-葛家车行政村-吴家车自然村,乔司街道-和睦桥行政村八字桥自然村,和顺桥自然村,水东自然村,茅家桥自然村;浙江省-杭州市-余杭区-南苑街道-新城社区-杭州市余杭区城建建设处,乔司街道-和睦桥行政村杭州余杭银福五金静电电器有限公司,杭州盛明机械设备有限公司,乔司街道五星行政村-浙江杭浦高速公路有限公司,良熟行政村-中国建筑第八工程局有限公司一带","startTime":"2019-07-23 10:46:00","stopDate":"2019-07-23 14:30:00","orgNo":"3340140","typeCode":"电网故障停限电","poweroffArea":"110kV庙港变:泥桥G908线-泥桥G9084开关后段","poweroffReason":"泥桥G9084开关后段 架空线断线故障","powerTime":"2019-07-23 14:21:00","powerComm":"已送电","subsNo":"","lineNo":"","tgNo":"","tgName":null,"infoStatus":"1","orgName":"国网浙江杭州市余杭区供电有限公司","typeName":null,"infoStatusName":null,"dateDay":null,"orgNos":null,"nowTime":null,"countyName":null,"streetName":null,"villageName":null,"roadName":null,"communityName":null,"tranName":null,"sdLineName":null,"cityCode":"3340140","cityName":"国网浙江杭州市余杭区供电有限公司","provinceCode":null,"stopTime":"2019-07-23 14:30:00","powerType":"全部","powerOffArea":"110kV庙港变:泥桥G908线-泥桥G9084开关后段","powerOffReason":"泥桥G9084开关后段 架空线断线故障","powerOffId":"2019072331020033"},{"poweroffId":2019072331020030,"sgpoweroffId":null,"subsName":"","lineName":"10kV青石9249线","pubTranName":"新康全食品,耀江玻璃,泥桥9组2号公变,钢模厂,森大工业,雷斯玛,泥桥9组公变,驿步鞋业61102030441#变压器,泥桥4组公变,宝松印刷,五星4组1号公变,荣兴人造板有限公司,德丰机械,鑫盛设备安装,红旗塑料,格拉斯玻璃,泥桥3组2号公变,泥桥3组公变,石大路路灯变,福来登电器2#,泥桥9组3号公变,精华热处理,泥桥3组4号公变,大井三吉,怡翔机械厂,石大路城建基建,","scope":"浙江省-杭州市-余杭区-乔司街道-五星行政村-泥桥自然村;浙江省-杭州市-余杭区-南苑街道-新城社区-杭州市余杭区城建建设处,乔司街道-五星行政村杭州豪顺电动车辆有限公司,张宝根,杭州红旗塑制品有限公司,杭州荣正家具有限公司,杭州海晟厨房设备有限公司,杭州精华热处理厂,杭州驿步鞋业有限公司,杭州凯富汽车维修服务有限公司,杭州鑫盛设备安装有限公司,陈国林,杭州天羽食品有限公司,杭州市路灯管理所,杭州福来登电器制造有限公司,杭州怡翔实业有限公司,杭州雄才实业有限公司一带","startTime":"2019-07-23 10:43:00","stopDate":"2019-07-23 14:30:00","orgNo":"3340140","typeCode":"电网故障停限电","poweroffArea":"110kV东风变:青石9249线","poweroffReason":"青石9249线 电缆断线故障","powerTime":"2019-07-23 14:21:00","powerComm":"已送电","subsNo":"","lineNo":"","tgNo":"","tgName":null,"infoStatus":"1","orgName":"国网浙江杭州市余杭区供电有限公司","typeName":null,"infoStatusName":null,"dateDay":null,"orgNos":null,"nowTime":null,"countyName":null,"streetName":null,"villageName":null,"roadName":null,"communityName":null,"tranName":null,"sdLineName":null,"cityCode":"3340140","cityName":"国网浙江杭州市余杭区供电有限公司","provinceCode":null,"stopTime":"2019-07-23 14:30:00","powerType":"全部","powerOffArea":"110kV东风变:青石9249线","powerOffReason":"青石9249线 电缆断线故障","powerOffId":"2019072331020030"},{"poweroffId":2019072331020011,"sgpoweroffId":null,"subsName":"","lineName":"10kV张家D421线","pubTranName":"学校沙11号横路公变,","scope":"浙江省-杭州市-富阳区-东洲街道-学校沙行政村-学校沙自然村","startTime":"2019-07-23 08:40:43","stopDate":"2019-07-23 16:00:43","orgNo":"3340170","typeCode":"电网故障停限电","poweroffArea":"110kV东洲变:张家D421线-学校沙11号横路公变后段","poweroffReason":"高压开关跳闸","powerTime":"2019-07-23 15:05:29","powerComm":"已送电","subsNo":"","lineNo":"","tgNo":"","tgName":null,"infoStatus":"1","orgName":"国网浙江杭州市富阳区供电公司","typeName":null,"infoStatusName":null,"dateDay":null,"orgNos":null,"nowTime":null,"countyName":null,"streetName":null,"villageName":null,"roadName":null,"communityName":null,"tranName":null,"sdLineName":null,"cityCode":"3340170","cityName":"国网浙江杭州市富阳区供电公司","provinceCode":null,"stopTime":"2019-07-23 16:00:43","powerType":"全部","powerOffArea":"110kV东洲变:张家D421线-学校沙11号横路公变后段","powerOffReason":"高压开关跳闸","powerOffId":"2019072331020011"},{"poweroffId":2019072331010287,"sgpoweroffId":null,"subsName":"","lineName":"10kV葛家Y708线","pubTranName":"葛家村葛家台区,","scope":"浙江省-杭州市-建德市-梅城镇 葛家行政村 葛家埠自然村、葛家自然村、新村一带用户","startTime":"2019-07-23 22:47:00","stopDate":"2019-07-23 23:59:00","orgNo":"3340180","typeCode":"电网故障停限电","poweroffArea":"110kV南峰变:葛家Y708线-葛家村葛家台区后段","poweroffReason":"（低压停电信息）低压开关故障","powerTime":"2019-07-23 23:15:00","powerComm":"已送电","subsNo":"","lineNo":"","tgNo":"","tgName":null,"infoStatus":"1","orgName":"国网浙江建德市供电有限公司","typeName":null,"infoStatusName":null,"dateDay":null,"orgNos":null,"nowTime":null,"countyName":null,"streetName":null,"villageName":null,"roadName":null,"communityName":null,"tranName":null,"sdLineName":null,"cityCode":"3340180","cityName":"国网浙江建德市供电有限公司","provinceCode":null,"stopTime":"2019-07-23 23:59:00","powerType":"全部","powerOffArea":"110kV南峰变:葛家Y708线-葛家村葛家台区后段","powerOffReason":"（低压停电信息）低压开关故障","powerOffId":"2019072331010287"},{"poweroffId":2019072331010272,"sgpoweroffId":null,"subsName":"","lineName":"10kV草岭Y713线","pubTranName":"葛家村老公社台区,","scope":"浙江省-杭州市-建德市-梅城镇 葛家行政村 葛家埠自然村、姚家塘自然村，南峰中学对面一带用户","startTime":"2019-07-23 22:07:00","stopDate":"2019-07-23 23:00:00","orgNo":"3340180","typeCode":"电网故障停限电","poweroffArea":"110kV南峰变:草岭Y713线-葛家村老公社台区后段","poweroffReason":"（低压停电信息）低压熔芯烧毁故障 原预计停电结束时间23:59，由于施工现场环境比较复杂，存在不确定因素，因此预估施工时间适当放长了，目前故障已修复，现将停电时间变更至23:00","powerTime":"2019-07-23 22:46:00","powerComm":"已送电","subsNo":"","lineNo":"","tgNo":"","tgName":null,"infoStatus":"1","orgName":"国网浙江建德市供电有限公司","typeName":null,"infoStatusName":null,"dateDay":null,"orgNos":null,"nowTime":null,"countyName":null,"streetName":null,"villageName":null,"roadName":null,"communityName":null,"tranName":null,"sdLineName":null,"cityCode":"3340180","cityName":"国网浙江建德市供电有限公司","provinceCode":null,"stopTime":"2019-07-23 23:00:00","powerType":"全部","powerOffArea":"110kV南峰变:草岭Y713线-葛家村老公社台区后段","powerOffReason":"（低压停电信息）低压熔芯烧毁故障 原预计停电结束时间23:59，由于施工现场环境比较复杂，存在不确定因素，因此预估施工时间适当放长了，目前故障已修复，现将停电时间变更至23:00","powerOffId":"2019072331010272"},{"poweroffId":2019072331010270,"sgpoweroffId":null,"subsName":"","lineName":"10kV邦汇C321线","pubTranName":"三盈村8#变,三盈村6#变,三盈村7#变,杭州蕊彬市政工程有限公司,三盈村12#变,1#变,三盈村10#变,建盈村12#变,杭州佳腾汽车零部件有限公司,杭州萧山钱富冷挤机械有限公司1#,杭州创旗纺织有限公司3#,建盈村10#变,杭州萧山交通投资集团基础设施建设指挥部高速10#变压器,1#变,1#变,建盈村4#变,杭州钱正锻压机械有限公司,杭州创旗纺织有限公司1#,杭州萧山交通投资集团基础设施建设指挥部4#变压器,三盈村11#变,杭州增祥机械有限公司,杭州萧山钱富冷挤机械有限公司2#,杭州萧山第四化工厂,三盈村13#变,建盈村6#变,建盈村7#变,钱富冷挤机械1#变压器,建盈村11#变,三盈村1#变,1#,三盈村5#变,杭州冠亨包装材料有限公司,三盈村14#变,三盈村4#变,杭州萧山三盈实业公司,建盈村3#变,建盈村9#变,杭州市萧山区市政园林公用事业管理处,杭州华策纸管有限公司,三盈村3#变,建盈村8#变,杭州萧山交通投资集团基础设施建设指挥部5#,建盈村2#变,建盈村5#变,建盈村1#变,中石化碧辟（浙江）石油有限公司杭州分公司,机场高速公路2变压器,杭州创旗纺织有限公司2#,三盈村9#变,","scope":"浙江省-杭州市-萧山区-瓜沥镇建盈行政村-建盈自然村、万红路、万盈路、盈钱路,三盈行政村-三盈自然村、万红路、万盈路、文明路、祥和路、盈北路、盈二路、盈南路、盈西路、盈一路、盈中路、杭州创旗纺织有限公司,杭州冠亨包装材料有限公司,杭州华策纸管有限公司,杭州佳腾汽车零部件有限公司,杭州聚兴弹簧垫圈有限公司,杭州隆翔机电设备有限公司,杭州钱正锻压机械有限公司,杭州蕊彬市政工程有限公司,杭州三助环境工程有限责任公司,杭州市萧山区瓜沥镇人民政府,杭州市萧山区市政园林公用事业管理处,杭州萧山国际机场高速公路建设开发有限公司,杭州萧山交投中石化能源有限公司,杭州萧山三盈实业公司,杭州增祥机械有限公司,浙江钱富冷挤机械有限公司,中铁十局集团第三建设有限公司、瓜沥镇三盈村、坎山镇三盈村、瓜沥镇建盈村一带","startTime":"2019-07-23 22:10:21","stopDate":"2019-07-24 01:10:16","orgNo":"3340130","typeCode":"电网故障停限电","poweroffArea":"110kV沿塘变:邦汇C321线-邦汇C3211开关后段","poweroffReason":"高压柱上断路器短路故障 原停电结束时间:2019-07-24 04:11:52,变更停电结束时间:2019-07-24 01:10:16。由于抢修工作提前完成,故需要提前送电。","powerTime":"2019-07-24 00:23:38","powerComm":"已送电","subsNo":"","lineNo":"","tgNo":"","tgName":null,"infoStatus":"1","orgName":"国网浙江杭州市萧山区供电有限公司","typeName":null,"infoStatusName":null,"dateDay":null,"orgNos":null,"nowTime":null,"countyName":null,"streetName":null,"villageName":null,"roadName":null,"communityName":null,"tranName":null,"sdLineName":null,"cityCode":"3340130","cityName":"国网浙江杭州市萧山区供电有限公司","provinceCode":null,"stopTime":"2019-07-24 01:10:16","powerType":"全部","powerOffArea":"110kV沿塘变:邦汇C321线-邦汇C3211开关后段","powerOffReason":"高压柱上断路器短路故障 原停电结束时间:2019-07-24 04:11:52,变更停电结束时间:2019-07-24 01:10:16。由于抢修工作提前完成,故需要提前送电。","powerOffId":"2019072331010270"}],"pageModel":{"pageNow":1413,"totalCount":17789,"totalPage":1779,"tableRows":0,"pageCount":10,"beginCount":14120},"isExperi":"1"}