{"message":"","today":"2020-06-16","seleList":[{"poweroffId":2019072331010148,"sgpoweroffId":null,"subsName":"","lineName":"10kV爱华C752线","pubTranName":"镇中村4#变,杭州尤金传动设备有限公司,世安桥村8#变,镇中村3#变,镇中村8#变,杭州艺河服饰有限公司,奥展实业有限公司,镇中村10#变,镇中村7#变,杭州萧山党湾松森五金配件商行变压器间隔配电变压器,杭州科光金属制品有限公司,世安桥村7#变,镇中村12#变,世安桥村9#变,浙江中邦能源科技有限公司,杭州荣春制衣有限公司,镇中村5#变,镇中村2#变,世安桥村10#变,镇中村6#变,","scope":"浙江省-杭州市-萧山区-党湾镇镇中行政村-新农村、镇中自然村、瓜沥镇世安桥行政村-八世路、车安路、世安桥自然村、新农村自然村、奥展实业有限公司,杭州科光金属制品有限公司,杭州荣春制衣有限公司,杭州萧山党湾松森五金商行,杭州艺河服饰有限公司,杭州尤金传动设备有限公司,浙江中邦能源科技有限公司一带","startTime":"2019-07-23 14:10:28","stopDate":"2019-07-23 17:20:39","orgNo":"3340130","typeCode":"电网故障停限电","poweroffArea":"35kV党湾变:爱华C752线-爱华C7521开关后段","poweroffReason":"高压柱上断路器短路故障 原停电结束时2019-07-23 20:10:28,变更停电结束时间:2019-07-23 17:20:39。由于抢修工作提前完成,故需要提前送电。","powerTime":"2019-07-23 16:37:08","powerComm":"已送电","subsNo":"","lineNo":"","tgNo":"","tgName":null,"infoStatus":"1","orgName":"国网浙江杭州市萧山区供电有限公司","typeName":null,"infoStatusName":null,"dateDay":null,"orgNos":null,"nowTime":null,"countyName":null,"streetName":null,"villageName":null,"roadName":null,"communityName":null,"tranName":null,"sdLineName":null,"cityCode":"3340130","cityName":"国网浙江杭州市萧山区供电有限公司","provinceCode":null,"stopTime":"2019-07-23 17:20:39","powerType":"全部","powerOffArea":"35kV党湾变:爱华C752线-爱华C7521开关后段","powerOffReason":"高压柱上断路器短路故障 原停电结束时2019-07-23 20:10:28,变更停电结束时间:2019-07-23 17:20:39。由于抢修工作提前完成,故需要提前送电。","powerOffId":"2019072331010148"},{"poweroffId":2019072331010147,"sgpoweroffId":null,"subsName":"","lineName":"10kV湾西A470线","pubTranName":"裕民村8#变,裕民村6#变,杭州萧山梅西医院,1#变,杭州禾呈机械有限公司,杭州蓝纺纤维有限公司,大西村13#变,裕民村9#变,杭州晶港玻璃有限公司变压器,幸福村14#变,大西村14#变,浙江冠赞投资管理有限公司,大西村4#变,大西村3#变,杭州彩妙线业有限公司,裕民村10#变,大西村10#变,大西村6#变,大西村1#变,大西村17#变,杭州盈中纺织有限公司,大西村11#变,大西村12#变,浙江鹤舞科技有限公司,幸福村8#变,大西村9#变,杭州飞尔汽车配件有限公司,大西村7#变,浙江博佳包装有限公司,大西村15#变,杭州双雨花边有限公司,大西村8#变,裕民村11#变,","scope":"浙江省-杭州市-萧山区-党湾镇大西行政村、大西自然村、幸福行政村-幸福自然村,裕民行政村-裕民二路、裕民三路、裕民四路、裕民五路、裕民自然村、杭州飞尔汽车有限公司,杭州禾呈科技股份有限公司,杭州晶港玻璃有限公司,杭州君妙有限公司,杭州蓝纺纤维有限公司,杭州欧非卡绣品有限公司,杭州双雨花边有限公司,杭州萧山梅西医院,杭州盈中纺织有限公司,浙江博佳包装有限公司,浙江冠赞投资管理有限公司,浙江鹤舞科技有限公司、党湾镇裕民行政村、党湾镇梅林大道与爱华路交叉口、党湾镇幸福行政村、党湾镇大西行政村大西自然村17组、党湾镇大西行政村13组88号一带","startTime":"2019-07-23 13:40:06","stopDate":"2019-07-23 16:30:31","orgNo":"3340130","typeCode":"电网故障停限电","poweroffArea":"110kV幸福变:湾西A470线-湾西A4701开关后段","poweroffReason":"高压柱上断路器短路故障 原停电结束时间:2019-07-23 20:02:35,变更停电结束时间:2019-07-23 16:30:31。由于抢修工作提前完成,故需要提前送电。","powerTime":"2019-07-23 15:50:06","powerComm":"已送电","subsNo":"","lineNo":"","tgNo":"","tgName":null,"infoStatus":"1","orgName":"国网浙江杭州市萧山区供电有限公司","typeName":null,"infoStatusName":null,"dateDay":null,"orgNos":null,"nowTime":null,"countyName":null,"streetName":null,"villageName":null,"roadName":null,"communityName":null,"tranName":null,"sdLineName":null,"cityCode":"3340130","cityName":"国网浙江杭州市萧山区供电有限公司","provinceCode":null,"stopTime":"2019-07-23 16:30:31","powerType":"全部","powerOffArea":"110kV幸福变:湾西A470线-湾西A4701开关后段","powerOffReason":"高压柱上断路器短路故障 原停电结束时间:2019-07-23 20:02:35,变更停电结束时间:2019-07-23 16:30:31。由于抢修工作提前完成,故需要提前送电。","powerOffId":"2019072331010147"},{"poweroffId":2019072331010145,"sgpoweroffId":null,"subsName":"","lineName":"10kV民新C744线","pubTranName":"萧山区传关医院,1#变,镇中村25#变,杭州杭工工具有限公司,镇中村13#变,镇中村14#变,镇中村21#变,杭州市萧山区党湾镇人民政府,萧山市党湾镇才良布厂,泊景湾1#变,泊景湾2#变,镇中村19#变,杭州义鸿物业管理服务有限公司2#,建业银座3#变,建业银座2#变,思熠洋服饰有限公司变压器,镇中村22#变,杭州杭刃工具有限公司,杭州义鸿物业管理服务有限公司1#,浙江萧山农村商业银行股份有限公司,建业银座1#变,","scope":"浙江省-杭州市-萧山区-党湾镇卫东桥社区-文化路、镇中路,镇中行政村-民新新农村、新农村、镇中自然村);(杭州杭工工具有限公司,杭州杭刃工具有限公司,杭州市萧山区传关医院,杭州市萧山区党湾镇人民政府,杭州思熠洋服饰有限公司,杭州义鸿物业管理服务有限公司,萧山市党湾镇才良布厂,浙江萧山农村商业银行股份有限公司一带","startTime":"2019-07-23 13:45:33","stopDate":"2019-07-23 17:30:12","orgNo":"3340130","typeCode":"电网故障停限电","poweroffArea":"35kV党湾变:民新C744线-民新C7441开关后段","poweroffReason":"高压柱上断路器短路故障 原停电结束时间:2019-07-23 19:50:11,变更停电结束时间:2019-07-23 17:30:12。由于抢修工作提前完成,故需要提前送电。","powerTime":"2019-07-23 16:46:08","powerComm":"已送电","subsNo":"","lineNo":"","tgNo":"","tgName":null,"infoStatus":"1","orgName":"国网浙江杭州市萧山区供电有限公司","typeName":null,"infoStatusName":null,"dateDay":null,"orgNos":null,"nowTime":null,"countyName":null,"streetName":null,"villageName":null,"roadName":null,"communityName":null,"tranName":null,"sdLineName":null,"cityCode":"3340130","cityName":"国网浙江杭州市萧山区供电有限公司","provinceCode":null,"stopTime":"2019-07-23 17:30:12","powerType":"全部","powerOffArea":"35kV党湾变:民新C744线-民新C7441开关后段","powerOffReason":"高压柱上断路器短路故障 原停电结束时间:2019-07-23 19:50:11,变更停电结束时间:2019-07-23 17:30:12。由于抢修工作提前完成,故需要提前送电。","powerOffId":"2019072331010145"},{"poweroffId":2019072331010139,"sgpoweroffId":null,"subsName":"","lineName":"10kV湘一C525线","pubTranName":"帝凯大厦6#公变,","scope":"浙江省-杭州市-萧山区-北干街道金泰苑社区金城路、帝凯大厦一带","startTime":"2019-07-23 13:31:02","stopDate":"2019-07-23 18:40:02","orgNo":"3340130","typeCode":"电网故障停限电","poweroffArea":"110kV湘湖变:湘一C525线-帝凯大厦6#公变后段","poweroffReason":"（低压停电信息）低压电缆故障，原停电结束时间：2019-07-23 19:30:02，变更停电结束时间：2019-07-23 18:40:02，变更停电结束时间原因：由于加派抢修人员，故抢修工作提前结束，需要提前送电。","powerTime":"2019-07-23 17:53:12","powerComm":"已送电","subsNo":"","lineNo":"","tgNo":"","tgName":null,"infoStatus":"1","orgName":"国网浙江杭州市萧山区供电有限公司","typeName":null,"infoStatusName":null,"dateDay":null,"orgNos":null,"nowTime":null,"countyName":null,"streetName":null,"villageName":null,"roadName":null,"communityName":null,"tranName":null,"sdLineName":null,"cityCode":"3340130","cityName":"国网浙江杭州市萧山区供电有限公司","provinceCode":null,"stopTime":"2019-07-23 18:40:02","powerType":"全部","powerOffArea":"110kV湘湖变:湘一C525线-帝凯大厦6#公变后段","powerOffReason":"（低压停电信息）低压电缆故障，原停电结束时间：2019-07-23 19:30:02，变更停电结束时间：2019-07-23 18:40:02，变更停电结束时间原因：由于加派抢修人员，故抢修工作提前结束，需要提前送电。","powerOffId":"2019072331010139"},{"poweroffId":2019072331010128,"sgpoweroffId":null,"subsName":"","lineName":"10kV新江T122线","pubTranName":"俞赵3号公变,","scope":"浙江省-杭州市-桐庐县-富春江镇(俞赵行政村-俞赵自然村);","startTime":"2019-07-23 12:10:44","stopDate":"2019-07-23 18:10:44","orgNo":"3340150","typeCode":"电网故障停限电","poweroffArea":"110kV外董变:新江T122线-俞赵3号公变后段","poweroffReason":"（低压停电信息）低压开关故障","powerTime":"2019-07-23 17:59:10","powerComm":"已送电","subsNo":"","lineNo":"","tgNo":"","tgName":null,"infoStatus":"1","orgName":"国网浙江桐庐县供电公司","typeName":null,"infoStatusName":null,"dateDay":null,"orgNos":null,"nowTime":null,"countyName":null,"streetName":null,"villageName":null,"roadName":null,"communityName":null,"tranName":null,"sdLineName":null,"cityCode":"3340150","cityName":"国网浙江桐庐县供电公司","provinceCode":null,"stopTime":"2019-07-23 18:10:44","powerType":"全部","powerOffArea":"110kV外董变:新江T122线-俞赵3号公变后段","powerOffReason":"（低压停电信息）低压开关故障","powerOffId":"2019072331010128"},{"poweroffId":2019072331010103,"sgpoweroffId":null,"subsName":"","lineName":"10kV永盛A323线","pubTranName":"小石桥村4#变,","scope":"浙江省-杭州市-萧山区-靖江街道小石桥社区、广场路、靖江路、黎明路、小石桥自然村、靖江街道靖江菜市场东门一带","startTime":"2019-07-23 09:35:00","stopDate":"2019-07-23 11:05:23","orgNo":"3340130","typeCode":"电网故障停限电","poweroffArea":"110kV靖江变:永盛A323线-小石桥村4#变台区低压开关","poweroffReason":"（低压停电信息）低压漏电保护器短路故障 原停电结束时间:2019-07-23 15:46:27,变更停电结束时间:2019-07-23 11:05:23。由于抢修工作提前完成,故需要提前送电。","powerTime":"2019-07-23 10:18:08","powerComm":"已送电","subsNo":"","lineNo":"","tgNo":"","tgName":null,"infoStatus":"1","orgName":"国网浙江杭州市萧山区供电有限公司","typeName":null,"infoStatusName":null,"dateDay":null,"orgNos":null,"nowTime":null,"countyName":null,"streetName":null,"villageName":null,"roadName":null,"communityName":null,"tranName":null,"sdLineName":null,"cityCode":"3340130","cityName":"国网浙江杭州市萧山区供电有限公司","provinceCode":null,"stopTime":"2019-07-23 11:05:23","powerType":"全部","powerOffArea":"110kV靖江变:永盛A323线-小石桥村4#变台区低压开关","powerOffReason":"（低压停电信息）低压漏电保护器短路故障 原停电结束时间:2019-07-23 15:46:27,变更停电结束时间:2019-07-23 11:05:23。由于抢修工作提前完成,故需要提前送电。","powerOffId":"2019072331010103"},{"poweroffId":2019072331010100,"sgpoweroffId":null,"subsName":"","lineName":"10kV新化Y108线","pubTranName":"白沙社区白沙桥公变,","scope":"浙江省-杭州市-建德市-新安江街道 白沙社区-南山路 建煌公寓一带用户.","startTime":"2019-07-23 09:29:00","stopDate":"2019-07-23 11:30:00","orgNo":"3340180","typeCode":"电网故障停限电","poweroffArea":"110kV新安江变:新化Y108线-白沙社区白沙大道公变后段","poweroffReason":"（低压停电信息）低压设备故障 原预计停电结束时间13:00，由于施工现场环境比较复杂，存在不确定因素，因此预估施工时间适当放长了，目前故障已修复，现将停电时间变更至11:30。","powerTime":"2019-07-23 11:06:00","powerComm":"已送电","subsNo":"","lineNo":"","tgNo":"","tgName":null,"infoStatus":"1","orgName":"国网浙江建德市供电有限公司","typeName":null,"infoStatusName":null,"dateDay":null,"orgNos":null,"nowTime":null,"countyName":null,"streetName":null,"villageName":null,"roadName":null,"communityName":null,"tranName":null,"sdLineName":null,"cityCode":"3340180","cityName":"国网浙江建德市供电有限公司","provinceCode":null,"stopTime":"2019-07-23 11:30:00","powerType":"全部","powerOffArea":"110kV新安江变:新化Y108线-白沙社区白沙大道公变后段","powerOffReason":"（低压停电信息）低压设备故障 原预计停电结束时间13:00，由于施工现场环境比较复杂，存在不确定因素，因此预估施工时间适当放长了，目前故障已修复，现将停电时间变更至11:30。","powerOffId":"2019072331010100"},{"poweroffId":2019072331010071,"sgpoweroffId":null,"subsName":"","lineName":"10kV传雅C173线","pubTranName":"田丰村5#变,","scope":"浙江省-杭州市-萧山区-义桥镇(田丰行政村-田家里自然村、田家自然村、小张家畈自然村)等一带","startTime":"2019-07-23 08:36:39","stopDate":"2019-07-23 09:45:35","orgNo":"3340130","typeCode":"电网故障停限电","poweroffArea":"110kV许贤变:传雅C173线-田丰村5#变台区低压开关","poweroffReason":"（低压停电信息）因外力破坏原因导致低压漏电保护器短路故障","powerTime":"2019-07-23 09:24:15","powerComm":"已送电","subsNo":"","lineNo":"","tgNo":"","tgName":null,"infoStatus":"1","orgName":"国网浙江杭州市萧山区供电有限公司","typeName":null,"infoStatusName":null,"dateDay":null,"orgNos":null,"nowTime":null,"countyName":null,"streetName":null,"villageName":null,"roadName":null,"communityName":null,"tranName":null,"sdLineName":null,"cityCode":"3340130","cityName":"国网浙江杭州市萧山区供电有限公司","provinceCode":null,"stopTime":"2019-07-23 09:45:35","powerType":"全部","powerOffArea":"110kV许贤变:传雅C173线-田丰村5#变台区低压开关","powerOffReason":"（低压停电信息）因外力破坏原因导致低压漏电保护器短路故障","powerOffId":"2019072331010071"},{"poweroffId":2019072331010056,"sgpoweroffId":null,"subsName":"","lineName":"10kV子陵T124线","pubTranName":"邵家1号公变,","scope":"浙江省-杭州市-桐庐县-富春江镇(七里泷行政村-邵家自然村);富春江镇大洋坪社区七里泷大街368号","startTime":"2019-07-23 08:11:13","stopDate":"2019-07-23 10:11:13","orgNo":"3340150","typeCode":"电网故障停限电","poweroffArea":"110kV外董变:子陵T124线-邵家1号公变后段","poweroffReason":"（低压停电信息）低压开关故障","powerTime":"2019-07-23 10:00:29","powerComm":"已送电。","subsNo":"","lineNo":"","tgNo":"","tgName":null,"infoStatus":"1","orgName":"国网浙江桐庐县供电公司","typeName":null,"infoStatusName":null,"dateDay":null,"orgNos":null,"nowTime":null,"countyName":null,"streetName":null,"villageName":null,"roadName":null,"communityName":null,"tranName":null,"sdLineName":null,"cityCode":"3340150","cityName":"国网浙江桐庐县供电公司","provinceCode":null,"stopTime":"2019-07-23 10:11:13","powerType":"全部","powerOffArea":"110kV外董变:子陵T124线-邵家1号公变后段","powerOffReason":"（低压停电信息）低压开关故障","powerOffId":"2019072331010056"},{"poweroffId":2019072331010046,"sgpoweroffId":null,"subsName":"","lineName":"10kV南峰Y127线","pubTranName":"建德市康瑞牧业有限公司,建德市万宇金属制品厂,葛家园区康桥水岸1#公变,葛家村姚家塘台区,葛家村葛家园区台区,建德市人民法院,建德市新鹏车业有限公司,建德市金博电线电缆有限公司,建德市丰鼎金属制品有限公司,建德市宇科辐条有限公司,建德市欣荣辐条有限公司,建德市万家电器电缆有限公司,葛家潘家山台区,建德市建明电器有限公司,1#变,春江花苑公变,葛家村葛家桥头台区,建德市敏达车业有限公司,葛家村平苏山台区,建德市宏泰电器有限公司,建德市前程塑料厂,1#,2#专变,建德市欣诚五金工艺厂,建德市鹏飞电子有限公司,建德市欣荣辐条有限公司,葛家村朱家塘台区,建德市全利防腐设备厂,杭州同鑫工具制造有限公司,1#,葛家村南峰码头台区,梅城集镇江南花苑公变,杭州科龙电器工具有限公司2#,杭州科龙电器工具有限公司1#,建德市超德五金工具有限公司,建德市嘉凯置业有限公司高压计量柜临时变,建德市卓安塑料电器厂,建德市梅城林氏模具厂,五马洲集中式污水处理厂,建德市梅城新城建设有限公司,建德市卓豪车业有限公司,1#,2#,建德市亚星橡胶工具厂,南峰村童家台区,建德市新安江电器开关制造有限公司,1#专变。,建德市新晟制衣有限公司,杭州中创针织有限公司,御品江南1号公变,建德市永欣辐条有限公司,浙江美工精细陶瓷科技有限公司,建德市兴业达五金工具有限公司1#变,杭州欧亚电器工具有限公司,建德市万家电器电缆有限公司1#变,建德市三森电器有限公司,建德市三环塑化有限公司,建德市万家电器电缆有限公司,","scope":"浙江省-杭州市-建德市-梅城镇 葛家行政村-春江花苑自然村、葛家埠自然村、葛家自然村、康桥水岸名苑自然村、平苏山自然村、桥头自然村、新村、严陵路、姚家塘自然村、朱家塘自然村、巽峰西路,南峰行政村 江南花苑、南峰自然村、童家自然村; 杭州建德高铁新区投资发展有限公司,杭州科龙电器工具股份有限公司,杭州欧亚电器工具有限公司,杭州同鑫工具制造有限公司,杭州中创针织有限公司,建德美工精细陶瓷科技有限公司,建德市晨鑫服装有限公司,建德市飞龙电器有限公司,建德市宏泰电器有限公司,建德市嘉凯置业有限公司,建德市建明电器有限公司,建德市康瑞牧业有限公司,建德市马南水务有限公司,建德市梅城君达针织厂,建德市梅城林氏模具厂,建德市梅城新城建设有限公司,建德市敏达车业有限公司,建德市鹏飞电子有限公司,建德市前程塑料厂,建德市全利防腐设备厂,建德市人民法院,建德市三环塑化有限公司,建德市三森电器有限公司,建德市天地源电器工具有限公司,,建德市万宇金属制品厂,,建德市欣诚五金工艺厂,建德市欣荣辐条有限公司,建德市新晟制衣有限公司,建德市兴业达五金工具有限公司,建德市轩业五金工具有限公司,建德市亚星橡胶工具厂,建德市永欣辐条有限公司,建德市宇科辐条有限公司,建德市卓安塑料电器厂,建德市卓豪车业有限公司,江苏镇江路桥工程有限公司一带用户","startTime":"2019-07-23 07:50:00","stopDate":"2019-07-23 10:30:00","orgNo":"3340180","typeCode":"电网故障停限电","poweroffArea":"110kV南峰变:南峰Y127线","poweroffReason":"高压线路故障 原预计停电结束时间12：00，由于施工现场环境比较复杂，存在不确定因素，因此预估施工时间适当放长了，目前故障已修复，现将停电时间变更至10:30。","powerTime":"2019-07-23 10:24:00","powerComm":"已送电","subsNo":"","lineNo":"","tgNo":"","tgName":null,"infoStatus":"1","orgName":"国网浙江建德市供电有限公司","typeName":null,"infoStatusName":null,"dateDay":null,"orgNos":null,"nowTime":null,"countyName":null,"streetName":null,"villageName":null,"roadName":null,"communityName":null,"tranName":null,"sdLineName":null,"cityCode":"3340180","cityName":"国网浙江建德市供电有限公司","provinceCode":null,"stopTime":"2019-07-23 10:30:00","powerType":"全部","powerOffArea":"110kV南峰变:南峰Y127线","powerOffReason":"高压线路故障 原预计停电结束时间12：00，由于施工现场环境比较复杂，存在不确定因素，因此预估施工时间适当放长了，目前故障已修复，现将停电时间变更至10:30。","powerOffId":"2019072331010046"}],"pageModel":{"pageNow":1416,"totalCount":17789,"totalPage":1779,"tableRows":0,"pageCount":10,"beginCount":14150},"isExperi":"1"}