{"message":"","today":"2020-06-16","seleList":[{"poweroffId":2019072231010205,"sgpoweroffId":null,"subsName":"","lineName":"10kV嘉树H377线","pubTranName":"箱变,杭州市余杭区交通重点工程建设管理处,郡南路灯变1,加油站,","scope":"浙江省杭州市余杭区良渚街道杭州市余杭区公路管理处,杭州余杭新都工程开发有限公司,杭州浙石顾家埠加油站有限公司一带","startTime":"2019-07-22 16:24:00","stopDate":"2019-07-22 20:00:00","orgNo":"3340140","typeCode":"电网故障停限电","poweroffArea":"110kV学里变:嘉树H377线-新云分支箱后段","poweroffReason":"新云分支箱后段 电缆断线故障","powerTime":"2019-07-22 19:15:00","powerComm":"已送电","subsNo":"","lineNo":"","tgNo":"","tgName":null,"infoStatus":"1","orgName":"国网浙江杭州市余杭区供电有限公司","typeName":null,"infoStatusName":null,"dateDay":null,"orgNos":null,"nowTime":null,"countyName":null,"streetName":null,"villageName":null,"roadName":null,"communityName":null,"tranName":null,"sdLineName":null,"cityCode":"3340140","cityName":"国网浙江杭州市余杭区供电有限公司","provinceCode":null,"stopTime":"2019-07-22 20:00:00","powerType":"全部","powerOffArea":"110kV学里变:嘉树H377线-新云分支箱后段","powerOffReason":"新云分支箱后段 电缆断线故障","powerOffId":"2019072231010205"},{"poweroffId":2019072231010196,"sgpoweroffId":null,"subsName":"","lineName":"10kV湾镇A458线","pubTranName":"梅东村12#变,","scope":"浙江省-杭州市-萧山区-党湾镇(梅东行政村-梅东自然村)、梅东村一带","startTime":"2019-07-22 15:40:27","stopDate":"2019-07-22 17:55:42","orgNo":"3340130","typeCode":"电网故障停限电","poweroffArea":"110kV幸福变:湾镇A458线-梅东村12#变台区低压开关","poweroffReason":"（低压停电信息）低压漏电保护器短路故障","powerTime":"2019-07-22 17:52:53","powerComm":"已送电","subsNo":"","lineNo":"","tgNo":"","tgName":null,"infoStatus":"1","orgName":"国网浙江杭州市萧山区供电有限公司","typeName":null,"infoStatusName":null,"dateDay":null,"orgNos":null,"nowTime":null,"countyName":null,"streetName":null,"villageName":null,"roadName":null,"communityName":null,"tranName":null,"sdLineName":null,"cityCode":"3340130","cityName":"国网浙江杭州市萧山区供电有限公司","provinceCode":null,"stopTime":"2019-07-22 17:55:42","powerType":"全部","powerOffArea":"110kV幸福变:湾镇A458线-梅东村12#变台区低压开关","powerOffReason":"（低压停电信息）低压漏电保护器短路故障","powerOffId":"2019072231010196"},{"poweroffId":2019072231010192,"sgpoweroffId":null,"subsName":"","lineName":"10kV戴村C484线","pubTranName":"中石化碧辟（浙江）石油有限公司杭州分公司,众联村5#变,众联村12#变,杭州启明星生物营养有限公司,众联村6#变,下门村10#变,杭州德鸿重型包装材料有限公司,众联村4#变,众联村7#变,众联村8#变,众联村11#变,杭州双鸟柴油机有限公司,杭州长虹路桥工程有限公司,杭州华林机械有限公司,众联村13#变,下门村11#变,杭州启明星羽毛有限公司,众联村9#变,众联村10#变,","scope":"浙江省-杭州市-萧山区-河上镇(下门行政村-白堰自然村,众联行政村-联合自然村、泉水坞自然村、泉水自然村、塘村自然村、塘村坂自然村、众利自然村、甑山坞自然村);(杭州长虹路桥工程有限公司,杭州德鸿重型包装材料有限公司,杭州华林机械有限公司,杭州启明星生物营养有限公司,杭州启明星羽毛有限公司,杭州双鸟柴油机有限公司,中石化碧辟（浙江）石油有限公司杭州分公司)一带","startTime":"2019-07-22 15:39:01","stopDate":"2019-07-22 16:10:15","orgNo":"3340130","typeCode":"电网故障停限电","poweroffArea":"35kV河上变:戴村C484线-戴村C4841开关后段","poweroffReason":"环网倒闸操作","powerTime":"2019-07-22 15:56:31","powerComm":"已送电","subsNo":"","lineNo":"","tgNo":"","tgName":null,"infoStatus":"1","orgName":"国网浙江杭州市萧山区供电有限公司","typeName":null,"infoStatusName":null,"dateDay":null,"orgNos":null,"nowTime":null,"countyName":null,"streetName":null,"villageName":null,"roadName":null,"communityName":null,"tranName":null,"sdLineName":null,"cityCode":"3340130","cityName":"国网浙江杭州市萧山区供电有限公司","provinceCode":null,"stopTime":"2019-07-22 16:10:15","powerType":"全部","powerOffArea":"35kV河上变:戴村C484线-戴村C4841开关后段","powerOffReason":"环网倒闸操作","powerOffId":"2019072231010192"},{"poweroffId":2019072231010161,"sgpoweroffId":null,"subsName":"","lineName":"10kV罗山C765线","pubTranName":"杭州市地铁集团有限责任公司变压器,城市投资有限公司2#,1#,柳桥村2#公变,城市投资有限公司1#,1#,北干二苑新安园2#公变,1321426707杭州宸盛置业有限公司2#变压器,民政府北干街道办处2#,新城德佳变压器间隔1配电变压器,永丰家园3#公变,1#,1321426707杭州宸盛置业有限公司1#变压器,1#物业,3#物业,中铁五局集团建筑工程有限责任公司变压器,1#,北干二苑新安园1#公变,新城德佳变压器间隔2配电变压器,1#变压器,1#变,杭州龙毅房地产开发有限公司5#,中穗实业,杭州龙毅房地产开发有限公司3#,新城德佳变压器间隔4配电变压器,杭州龙毅房地产开发有限公司4#,北干初中,新城德佳变压器间隔3配电变压器,杭州市萧山区市政园林公用事业管理处,塘湾村1#公变,永丰家园1#公变,杭州市萧山区城市河道管理处3#,墩里吴村4#公变,杭州龙毅房地产开发有限公司2#,杭州龙毅房地产开发有限公司1#变压器,浙江中新电力工程建设有限公司,杭州德宏物业服务有限公司变压器,#1,墩里吴村1#公变,2#,","scope":"浙江省-杭州市-萧山区-北干街道(北干二苑社区-永久路,墩里吴社区-通惠路,柳桥社区-通惠路,塘湾行政村-通惠路、新康路);(杭州德宏物业服务有限公司,杭州佳力水泥有限公司,杭州市萧山区城市河道管理处,杭州市萧山区市政园林公用事业管理处,杭州萧山城市基础设施建设有限公司,杭州萧山城市建设投资集团有限公司,杭州萧山润华大润发超市有限公司,杭州新城德佳房地产开发有限公司,杭州恺融房地产开发有限公司,杭州宸盛置业有限公司,杭州晟合建设发展有限公司,萧山区北干初级中学,萧山区人民政府北干街道办事处,浙江中穗实业有限责任公司,浙江中新电力工程建设有限公司,中国铁建大桥工程局集团有限公司,中铁二局工程有限公司,中铁五局集团建筑工程有限责任公司)一带","startTime":"2019-07-22 14:15:00","stopDate":"2019-07-22 18:00:00","orgNo":"3340130","typeCode":"电网故障停限电","poweroffArea":"110kV通惠变:罗山C765线开关后段","poweroffReason":"地产商施工外力破坏架空线路 原停电结束时间：2019-07-22 20:00:00，变更停电结束时间：2019-07-22 18:00:00，变更停电结束时间原因：由于增派人员抢修工作提前结束，故需要提前送电。","powerTime":"2019-07-22 17:04:41","powerComm":"已送电","subsNo":"","lineNo":"","tgNo":"","tgName":null,"infoStatus":"1","orgName":"国网浙江杭州市萧山区供电有限公司","typeName":null,"infoStatusName":null,"dateDay":null,"orgNos":null,"nowTime":null,"countyName":null,"streetName":null,"villageName":null,"roadName":null,"communityName":null,"tranName":null,"sdLineName":null,"cityCode":"3340130","cityName":"国网浙江杭州市萧山区供电有限公司","provinceCode":null,"stopTime":"2019-07-22 18:00:00","powerType":"全部","powerOffArea":"110kV通惠变:罗山C765线开关后段","powerOffReason":"地产商施工外力破坏架空线路 原停电结束时间：2019-07-22 20:00:00，变更停电结束时间：2019-07-22 18:00:00，变更停电结束时间原因：由于增派人员抢修工作提前结束，故需要提前送电。","powerOffId":"2019072231010161"},{"poweroffId":2019072231010143,"sgpoweroffId":null,"subsName":"","lineName":"10kV经贸C634线","pubTranName":"临浦集镇16#变,","scope":"浙江省-杭州市-萧山区-临浦镇(东麓池社区-东麓池弄、经贸区、峙山北路、峙山西路)一带","startTime":"2019-07-22 13:28:53","stopDate":"2019-07-22 15:00:00","orgNo":"3340130","typeCode":"电网故障停限电","poweroffArea":"110kV临浦变:经贸C634线-临浦集镇16#变台区低压开关","poweroffReason":"（低压停电信息）低压架空导线断线故障","powerTime":"2019-07-22 14:20:40","powerComm":"已送电","subsNo":"","lineNo":"","tgNo":"","tgName":null,"infoStatus":"1","orgName":"国网浙江杭州市萧山区供电有限公司","typeName":null,"infoStatusName":null,"dateDay":null,"orgNos":null,"nowTime":null,"countyName":null,"streetName":null,"villageName":null,"roadName":null,"communityName":null,"tranName":null,"sdLineName":null,"cityCode":"3340130","cityName":"国网浙江杭州市萧山区供电有限公司","provinceCode":null,"stopTime":"2019-07-22 15:00:00","powerType":"全部","powerOffArea":"110kV临浦变:经贸C634线-临浦集镇16#变台区低压开关","powerOffReason":"（低压停电信息）低压架空导线断线故障","powerOffId":"2019072231010143"},{"poweroffId":2019072231010119,"sgpoweroffId":null,"subsName":"","lineName":"10kV临天V644线","pubTranName":"医院公变,","scope":"浙江省-杭州市-临安市-锦城街道新民里社区新民里附近一带","startTime":"2019-07-22 14:30:00","stopDate":"2019-07-22 18:30:00","orgNo":"3340160","typeCode":"电网故障停限电","poweroffArea":"110kV锦城变:临天V644线-医院公变后段","poweroffReason":"医院公变配变存在紧急缺陷，需停电更换处理。","powerTime":"2019-07-22 16:58:11","powerComm":"现场工作结束，已恢复送电。","subsNo":"","lineNo":"","tgNo":"","tgName":null,"infoStatus":"1","orgName":"国网浙江临安市供电公司","typeName":null,"infoStatusName":null,"dateDay":null,"orgNos":null,"nowTime":null,"countyName":null,"streetName":null,"villageName":null,"roadName":null,"communityName":null,"tranName":null,"sdLineName":null,"cityCode":"3340160","cityName":"国网浙江临安市供电公司","provinceCode":null,"stopTime":"2019-07-22 18:30:00","powerType":"全部","powerOffArea":"110kV锦城变:临天V644线-医院公变后段","powerOffReason":"医院公变配变存在紧急缺陷，需停电更换处理。","powerOffId":"2019072231010119"},{"poweroffId":2019072231010117,"sgpoweroffId":null,"subsName":"","lineName":"10kV大洋Y126线","pubTranName":"大洋村小洋坞台区,","scope":"浙江省-杭州市-建德市-大洋镇 大洋行政村小洋坞自然村一带用户","startTime":"2019-07-22 11:15:00","stopDate":"2019-07-22 17:00:00","orgNo":"3340180","typeCode":"电网故障停限电","poweroffArea":"110kV南峰变:大洋Y126线-大洋村小洋坞台区后段","poweroffReason":"（低压停电信息） 低压开关跳闸故障","powerTime":"2019-07-22 16:14:00","powerComm":"已送电","subsNo":"","lineNo":"","tgNo":"","tgName":null,"infoStatus":"1","orgName":"国网浙江建德市供电有限公司","typeName":null,"infoStatusName":null,"dateDay":null,"orgNos":null,"nowTime":null,"countyName":null,"streetName":null,"villageName":null,"roadName":null,"communityName":null,"tranName":null,"sdLineName":null,"cityCode":"3340180","cityName":"国网浙江建德市供电有限公司","provinceCode":null,"stopTime":"2019-07-22 17:00:00","powerType":"全部","powerOffArea":"110kV南峰变:大洋Y126线-大洋村小洋坞台区后段","powerOffReason":"（低压停电信息） 低压开关跳闸故障","powerOffId":"2019072231010117"},{"poweroffId":2019072231010116,"sgpoweroffId":null,"subsName":"","lineName":"10kV南山Y164线","pubTranName":"白沙社区江南春公变,","scope":"浙江省-杭州市-建德市-新安江街道 白沙社区-白沙路、建煌公寓一带用户。","startTime":"2019-07-22 11:00:00","stopDate":"2019-07-22 17:00:00","orgNo":"3340180","typeCode":"电网故障停限电","poweroffArea":"110kV更楼变:南山Y164线-白沙社区江南春公变后段","poweroffReason":"（低压停电信息） 低压开关跳闸 原预计停电结束时间16:00，由于施工现场环境比较复杂，存在不确定因素，因此预估施工时间不足，延迟送电至17:00.","powerTime":"2019-07-22 16:21:00","powerComm":"已送电","subsNo":"","lineNo":"","tgNo":"","tgName":null,"infoStatus":"1","orgName":"国网浙江建德市供电有限公司","typeName":null,"infoStatusName":null,"dateDay":null,"orgNos":null,"nowTime":null,"countyName":null,"streetName":null,"villageName":null,"roadName":null,"communityName":null,"tranName":null,"sdLineName":null,"cityCode":"3340180","cityName":"国网浙江建德市供电有限公司","provinceCode":null,"stopTime":"2019-07-22 17:00:00","powerType":"全部","powerOffArea":"110kV更楼变:南山Y164线-白沙社区江南春公变后段","powerOffReason":"（低压停电信息） 低压开关跳闸 原预计停电结束时间16:00，由于施工现场环境比较复杂，存在不确定因素，因此预估施工时间不足，延迟送电至17:00.","powerOffId":"2019072231010116"},{"poweroffId":2019072231010099,"sgpoweroffId":null,"subsName":"","lineName":"10kV东藩C639线","pubTranName":"临浦集镇31#变,","scope":"浙江省-杭州市-萧山区-临浦镇(峙山北路-永翔公寓小区)一带","startTime":"2019-07-22 10:34:24","stopDate":"2019-07-22 12:00:24","orgNo":"3340130","typeCode":"电网故障停限电","poweroffArea":"110kV临浦变:东藩C639线-临浦集镇31#变台区低压开关","poweroffReason":"（低压停电信息）低压漏电保护器短路故障","powerTime":"2019-07-22 11:20:42","powerComm":"已送电","subsNo":"","lineNo":"","tgNo":"","tgName":null,"infoStatus":"1","orgName":"国网浙江杭州市萧山区供电有限公司","typeName":null,"infoStatusName":null,"dateDay":null,"orgNos":null,"nowTime":null,"countyName":null,"streetName":null,"villageName":null,"roadName":null,"communityName":null,"tranName":null,"sdLineName":null,"cityCode":"3340130","cityName":"国网浙江杭州市萧山区供电有限公司","provinceCode":null,"stopTime":"2019-07-22 12:00:24","powerType":"全部","powerOffArea":"110kV临浦变:东藩C639线-临浦集镇31#变台区低压开关","powerOffReason":"（低压停电信息）低压漏电保护器短路故障","powerOffId":"2019072231010099"},{"poweroffId":2019072231010097,"sgpoweroffId":null,"subsName":"","lineName":"10kV上喻T570线","pubTranName":"岩桥3号公变,","scope":"浙江省-杭州市-桐庐县-城南街道(岩桥行政村-岩桥自然村);","startTime":"2019-07-22 10:27:07","stopDate":"2019-07-22 14:00:34","orgNo":"3340150","typeCode":"电网故障停限电","poweroffArea":"110kV旺家变:上喻T570线-岩桥3号公变后段","poweroffReason":"（低压停电信息）低压开关故障处理","powerTime":"2019-07-22 13:45:39","powerComm":"已送电","subsNo":"","lineNo":"","tgNo":"","tgName":null,"infoStatus":"1","orgName":"国网浙江桐庐县供电公司","typeName":null,"infoStatusName":null,"dateDay":null,"orgNos":null,"nowTime":null,"countyName":null,"streetName":null,"villageName":null,"roadName":null,"communityName":null,"tranName":null,"sdLineName":null,"cityCode":"3340150","cityName":"国网浙江桐庐县供电公司","provinceCode":null,"stopTime":"2019-07-22 14:00:34","powerType":"全部","powerOffArea":"110kV旺家变:上喻T570线-岩桥3号公变后段","powerOffReason":"（低压停电信息）低压开关故障处理","powerOffId":"2019072231010097"}],"pageModel":{"pageNow":1421,"totalCount":17789,"totalPage":1779,"tableRows":0,"pageCount":10,"beginCount":14200},"isExperi":"1"}