{"message":"","today":"2020-06-16","seleList":[{"poweroffId":2019072131010227,"sgpoweroffId":null,"subsName":"","lineName":"10kV上喻T570线","pubTranName":"岩桥1号公变,","scope":"浙江省-杭州市-桐庐县-城南街道（现区域划分为凤川街道）(岩桥行政村-桥外自然村、岩桥自然村);","startTime":"2019-07-21 20:44:27","stopDate":"2019-07-21 22:30:21","orgNo":"3340150","typeCode":"电网故障停限电","poweroffArea":"110kV旺家变:上喻T570线-岩桥1号公变后段","poweroffReason":"（低压停电信息）低压开关故障","powerTime":"2019-07-21 22:22:31","powerComm":"已送电。","subsNo":"","lineNo":"","tgNo":"","tgName":null,"infoStatus":"1","orgName":"国网浙江桐庐县供电公司","typeName":null,"infoStatusName":null,"dateDay":null,"orgNos":null,"nowTime":null,"countyName":null,"streetName":null,"villageName":null,"roadName":null,"communityName":null,"tranName":null,"sdLineName":null,"cityCode":"3340150","cityName":"国网浙江桐庐县供电公司","provinceCode":null,"stopTime":"2019-07-21 22:30:21","powerType":"全部","powerOffArea":"110kV旺家变:上喻T570线-岩桥1号公变后段","powerOffReason":"（低压停电信息）低压开关故障","powerOffId":"2019072131010227"},{"poweroffId":2019072131010219,"sgpoweroffId":null,"subsName":"","lineName":"10kV五常8885线","pubTranName":"荆丰村后山桥2#公变,","scope":"浙江省杭州市余杭区五常街道友谊社区后山桥荆长路一带","startTime":"2019-07-21 20:03:00","stopDate":"2019-07-21 21:00:00","orgNo":"3340140","typeCode":"电网故障停限电","poweroffArea":"110kV留下变:五常8885线-荆丰村后山桥2#公变后段","poweroffReason":"（低压停电信息）五常8885线-荆丰村后山桥2#公变导线断线 原计划至23:03，因故障点已隔离，客户已有电，提前至21：00","powerTime":"2019-07-21 20:33:00","powerComm":"已送电","subsNo":"","lineNo":"","tgNo":"","tgName":null,"infoStatus":"1","orgName":"国网浙江杭州市余杭区供电有限公司","typeName":null,"infoStatusName":null,"dateDay":null,"orgNos":null,"nowTime":null,"countyName":null,"streetName":null,"villageName":null,"roadName":null,"communityName":null,"tranName":null,"sdLineName":null,"cityCode":"3340140","cityName":"国网浙江杭州市余杭区供电有限公司","provinceCode":null,"stopTime":"2019-07-21 21:00:00","powerType":"全部","powerOffArea":"110kV留下变:五常8885线-荆丰村后山桥2#公变后段","powerOffReason":"（低压停电信息）五常8885线-荆丰村后山桥2#公变导线断线 原计划至23:03，因故障点已隔离，客户已有电，提前至21：00","powerOffId":"2019072131010219"},{"poweroffId":2019072131010218,"sgpoweroffId":null,"subsName":"","lineName":"10kV怡合199线","pubTranName":"高塘1号公变,大山1号公变,大山脚1号公变,高塘2号公变,","scope":"浙江省-杭州市-桐庐县-分水镇(外范行政村-大山脚自然村、大山自然村、高塘村自然村);","startTime":"2019-07-21 19:58:51","stopDate":"2019-07-21 22:30:48","orgNo":"3340150","typeCode":"电网故障停限电","poweroffArea":"35kV合村变:怡合199线-里范F9574智能开关1后段","poweroffReason":"（低压停电信息）低压开关故障","powerTime":"2019-07-21 22:10:20","powerComm":"已送电","subsNo":"","lineNo":"","tgNo":"","tgName":null,"infoStatus":"1","orgName":"国网浙江桐庐县供电公司","typeName":null,"infoStatusName":null,"dateDay":null,"orgNos":null,"nowTime":null,"countyName":null,"streetName":null,"villageName":null,"roadName":null,"communityName":null,"tranName":null,"sdLineName":null,"cityCode":"3340150","cityName":"国网浙江桐庐县供电公司","provinceCode":null,"stopTime":"2019-07-21 22:30:48","powerType":"全部","powerOffArea":"35kV合村变:怡合199线-里范F9574智能开关1后段","powerOffReason":"（低压停电信息）低压开关故障","powerOffId":"2019072131010218"},{"poweroffId":2019072131010211,"sgpoweroffId":null,"subsName":"","lineName":"10kV太新6487线","pubTranName":"水湘苑三变,","scope":"浙江省-杭州市-江干区-凯旋街道(景芳社区-新塘路、昙花庵路);水湘苑小区一带","startTime":"2019-07-21 19:22:12","stopDate":"2019-07-21 23:00:12","orgNo":"3340101","typeCode":"电网故障停限电","poweroffArea":"110kV五福变:太新6487线-水湘苑三变","poweroffReason":"高压开关跳闸 原预计停电结束时间2019-07-22 03:20:12,由于施工现场环境比较复杂，存在不确定因素，因此预估施工时间适当放长了，而实际施工进行得比较顺利，因此提前送电了","powerTime":"2019-07-21 22:26:18","powerComm":"已送电","subsNo":"","lineNo":"","tgNo":"","tgName":null,"infoStatus":"1","orgName":"浙江杭州电力客户服务中心","typeName":null,"infoStatusName":null,"dateDay":null,"orgNos":null,"nowTime":null,"countyName":null,"streetName":null,"villageName":null,"roadName":null,"communityName":null,"tranName":null,"sdLineName":null,"cityCode":"3340101","cityName":"浙江杭州电力客户服务中心","provinceCode":null,"stopTime":"2019-07-21 23:00:12","powerType":"全部","powerOffArea":"110kV五福变:太新6487线-水湘苑三变","powerOffReason":"高压开关跳闸 原预计停电结束时间2019-07-22 03:20:12,由于施工现场环境比较复杂，存在不确定因素，因此预估施工时间适当放长了，而实际施工进行得比较顺利，因此提前送电了","powerOffId":"2019072131010211"},{"poweroffId":2019072131010210,"sgpoweroffId":null,"subsName":"","lineName":"10kV安仁Y134线","pubTranName":"陵上新村陵上台区,","scope":"浙江省-杭州市-建德市-乾潭镇 陵上新村行政村-大茶园自然村、官浪塘自然村、陵上自然村一带用户.","startTime":"2019-07-21 19:17:00","stopDate":"2019-07-21 21:00:00","orgNo":"3340180","typeCode":"电网故障停限电","poweroffArea":"110kV乾潭变:安仁Y134线-陵上新村陵上台区后段","poweroffReason":"(低压停电信息)低压开关跳闸故障","powerTime":"2019-07-21 20:24:00","powerComm":"已送电","subsNo":"","lineNo":"","tgNo":"","tgName":null,"infoStatus":"1","orgName":"国网浙江建德市供电有限公司","typeName":null,"infoStatusName":null,"dateDay":null,"orgNos":null,"nowTime":null,"countyName":null,"streetName":null,"villageName":null,"roadName":null,"communityName":null,"tranName":null,"sdLineName":null,"cityCode":"3340180","cityName":"国网浙江建德市供电有限公司","provinceCode":null,"stopTime":"2019-07-21 21:00:00","powerType":"全部","powerOffArea":"110kV乾潭变:安仁Y134线-陵上新村陵上台区后段","powerOffReason":"(低压停电信息)低压开关跳闸故障","powerOffId":"2019072131010210"},{"poweroffId":2019072131010191,"sgpoweroffId":null,"subsName":"","lineName":"10kV永盛A323线","pubTranName":"小石桥村11#变,","scope":"浙江省-杭州市-萧山区-靖江街道、小石桥社区-靖江路、青六路、商贸街、靖江街道商贸街301号、育才路一带","startTime":"2019-07-21 17:50:40","stopDate":"2019-07-21 20:05:07","orgNo":"3340130","typeCode":"电网故障停限电","poweroffArea":"110kV靖江变:永盛A323线-小石桥村11#变台区低压开关","poweroffReason":"（低压停电信息）低压熔断器短路故障 原停电结束时间:2019-07-21 23:58:13,变更停电结束时间:2019-07-21 20:05:07。由于抢修工作提前完成,故需要提前送电。","powerTime":"2019-07-21 19:12:20","powerComm":"已送电","subsNo":"","lineNo":"","tgNo":"","tgName":null,"infoStatus":"1","orgName":"国网浙江杭州市萧山区供电有限公司","typeName":null,"infoStatusName":null,"dateDay":null,"orgNos":null,"nowTime":null,"countyName":null,"streetName":null,"villageName":null,"roadName":null,"communityName":null,"tranName":null,"sdLineName":null,"cityCode":"3340130","cityName":"国网浙江杭州市萧山区供电有限公司","provinceCode":null,"stopTime":"2019-07-21 20:05:07","powerType":"全部","powerOffArea":"110kV靖江变:永盛A323线-小石桥村11#变台区低压开关","powerOffReason":"（低压停电信息）低压熔断器短路故障 原停电结束时间:2019-07-21 23:58:13,变更停电结束时间:2019-07-21 20:05:07。由于抢修工作提前完成,故需要提前送电。","powerOffId":"2019072131010191"},{"poweroffId":2019072131010165,"sgpoweroffId":null,"subsName":"","lineName":"10kV裴家C284线","pubTranName":"黄山村33#变,","scope":"浙江省-杭州市-萧山区-闻堰街道黄山村，闻堰镇樟树村一带","startTime":"2019-07-21 16:10:52","stopDate":"2019-07-21 18:30:59","orgNo":"3340130","typeCode":"电网故障停限电","poweroffArea":"110kV三江变:裴家C284线-黄山村33#变台区低压开关","poweroffReason":"（低压停电信息）低压熔断器短路故障","powerTime":"2019-07-21 17:31:33","powerComm":"已送电","subsNo":"","lineNo":"","tgNo":"","tgName":null,"infoStatus":"1","orgName":"国网浙江杭州市萧山区供电有限公司","typeName":null,"infoStatusName":null,"dateDay":null,"orgNos":null,"nowTime":null,"countyName":null,"streetName":null,"villageName":null,"roadName":null,"communityName":null,"tranName":null,"sdLineName":null,"cityCode":"3340130","cityName":"国网浙江杭州市萧山区供电有限公司","provinceCode":null,"stopTime":"2019-07-21 18:30:59","powerType":"全部","powerOffArea":"110kV三江变:裴家C284线-黄山村33#变台区低压开关","powerOffReason":"（低压停电信息）低压熔断器短路故障","powerOffId":"2019072131010165"},{"poweroffId":2019072131010158,"sgpoweroffId":null,"subsName":"","lineName":"10kV国酒C524线","pubTranName":"西门南公变,","scope":"浙江省-杭州市-萧山区-城厢街道(太平弄社区-西河路);西河路65号、西河路一带","startTime":"2019-07-21 15:55:00","stopDate":"2019-07-21 17:40:00","orgNo":"3340130","typeCode":"电网故障停限电","poweroffArea":"110kV湘湖变:国酒C524线-西门南公变台区低压开关","poweroffReason":"（低压停电信息）连接线断，原停电结束时间：2019-07-21 18:00:00，变更停电结束时间：2019-07-21 17:40:00，变更停电结束时间原因：由于抢修工作提前结束，故需要提前送电。","powerTime":"2019-07-21 17:01:11","powerComm":"已送电","subsNo":"","lineNo":"","tgNo":"","tgName":null,"infoStatus":"1","orgName":"国网浙江杭州市萧山区供电有限公司","typeName":null,"infoStatusName":null,"dateDay":null,"orgNos":null,"nowTime":null,"countyName":null,"streetName":null,"villageName":null,"roadName":null,"communityName":null,"tranName":null,"sdLineName":null,"cityCode":"3340130","cityName":"国网浙江杭州市萧山区供电有限公司","provinceCode":null,"stopTime":"2019-07-21 17:40:00","powerType":"全部","powerOffArea":"110kV湘湖变:国酒C524线-西门南公变台区低压开关","powerOffReason":"（低压停电信息）连接线断，原停电结束时间：2019-07-21 18:00:00，变更停电结束时间：2019-07-21 17:40:00，变更停电结束时间原因：由于抢修工作提前结束，故需要提前送电。","powerOffId":"2019072131010158"},{"poweroffId":2019072131010127,"sgpoweroffId":null,"subsName":"","lineName":"10kV赭东A807线","pubTranName":"赭东村10#变,永利村4#变,桐乡市交通工程有限公司,圣茂塑胶,赭东村18#变,赭东村11#变,红山村10#变,金星塑粉(1315080956),赭东村8#变,卫锋管业(1315078082),赭东村19#变,东风村6#变,1,赭东村14#变,赭东村7#变,盛宏绣花厂(1315078607),杭州市萧山区人民政府南阳街道办事处,红山村16#变,东风村11#变,1#变,东风村5#变,红山村17#变,赭东村16#变,赭东村6#变,赭东村17#变,红山村9#变,东风村7#变,永利村8#变,杭州龙德信机械有限公司,赭东村20#变,永利村2#变,红山村8#变,赭东村12#变,翔风铝业,华凌轴承(1315077224),红山村6#变,红山村14#变,","scope":"浙江省-杭州市-萧山区-南阳街道东风行政村-东风自然村,红山行政村-红山自然村,南翔行政村-南阳自然村、万丰自然村,永利行政村-永利自然村,赭东行政村-赭东自然村,南阳街道坞里行政村,南阳街道永利村517号,南阳街道赭山社区居委会,杭州诚盈针织有限公司,杭州华凌轴承有限公司,杭州可淋普包装科技有限公司,杭州龙德信机械有限公司,杭州明缘塑料制品有限公司,杭州圣茂塑胶有限公司,杭州市萧山区人民政府南阳街道办事处,杭州卫锋管业有限公司,杭州翔凤铝业有限公司,桐乡市交通工程有限公司,萧山市南阳金星浸塑粉厂一带","startTime":"2019-07-21 14:15:03","stopDate":"2019-07-21 15:50:04","orgNo":"3340130","typeCode":"电网故障停限电","poweroffArea":"110kV黎明变:赭东A807线-南隆A8073开关后段","poweroffReason":"高压柱上断路器短路故障 原停电结束时间:2019-07-21 20:23:25,变更停电结束时间:2019-07-21 15:50:04。由于抢修工作提前完成,故需要提前送电。","powerTime":"2019-07-21 15:03:20","powerComm":"已送电","subsNo":"","lineNo":"","tgNo":"","tgName":null,"infoStatus":"1","orgName":"国网浙江杭州市萧山区供电有限公司","typeName":null,"infoStatusName":null,"dateDay":null,"orgNos":null,"nowTime":null,"countyName":null,"streetName":null,"villageName":null,"roadName":null,"communityName":null,"tranName":null,"sdLineName":null,"cityCode":"3340130","cityName":"国网浙江杭州市萧山区供电有限公司","provinceCode":null,"stopTime":"2019-07-21 15:50:04","powerType":"全部","powerOffArea":"110kV黎明变:赭东A807线-南隆A8073开关后段","powerOffReason":"高压柱上断路器短路故障 原停电结束时间:2019-07-21 20:23:25,变更停电结束时间:2019-07-21 15:50:04。由于抢修工作提前完成,故需要提前送电。","powerOffId":"2019072131010127"},{"poweroffId":2019072131010107,"sgpoweroffId":null,"subsName":"","lineName":"10kV铭雅H428线","pubTranName":"金家渡一组2号公变,","scope":"浙江省杭州市余杭区良渚街道金家渡中苑东区、金家渡中苑西区、金家渡南苑东区、金家渡南苑西区、晔埠金属、金家渡股份经济合作社（金家渡南苑商铺）、金家渡股份经济合作社(综合楼)、金家渡股份经济合作社（西田城西区1）、金家渡股份经济合作社（西田城西区2）一带","startTime":"2019-07-21 12:49:37","stopDate":"2019-07-21 16:49:37","orgNo":"3340140","typeCode":"电网故障停限电","poweroffArea":"110kV勾庄变:大吉H476线新康大二分线11号杆后段","poweroffReason":"大吉H476线新康大二分线11号杆后段线路断线 原停电结束时间为2019-07-21 14:49:37 变更停电结束时间原因：现场遇突发情况","powerTime":"2019-07-21 16:35:53","powerComm":"已送电","subsNo":"","lineNo":"","tgNo":"","tgName":null,"infoStatus":"1","orgName":"国网浙江杭州市余杭区供电有限公司","typeName":null,"infoStatusName":null,"dateDay":null,"orgNos":null,"nowTime":null,"countyName":null,"streetName":null,"villageName":null,"roadName":null,"communityName":null,"tranName":null,"sdLineName":null,"cityCode":"3340140","cityName":"国网浙江杭州市余杭区供电有限公司","provinceCode":null,"stopTime":"2019-07-21 16:49:37","powerType":"全部","powerOffArea":"110kV勾庄变:大吉H476线新康大二分线11号杆后段","powerOffReason":"大吉H476线新康大二分线11号杆后段线路断线 原停电结束时间为2019-07-21 14:49:37 变更停电结束时间原因：现场遇突发情况","powerOffId":"2019072131010107"}],"pageModel":{"pageNow":1424,"totalCount":17789,"totalPage":1779,"tableRows":0,"pageCount":10,"beginCount":14230},"isExperi":"1"}