{"message":"","today":"2020-06-16","seleList":[{"poweroffId":2019072131010105,"sgpoweroffId":null,"subsName":"","lineName":"10kV联中T204线","pubTranName":"徐家埠公寓1号公变,","scope":"浙江省-杭州市-桐庐县-横村镇(城东行政村-桐千路，徐家埠新安村一带);","startTime":"2019-07-21 12:26:57","stopDate":"2019-07-21 15:27:51","orgNo":"3340150","typeCode":"电网故障停限电","poweroffArea":"110kV方埠变:联中T204线-徐家埠公寓1号公变后段","poweroffReason":"（低压停电信息）低压开关故障","powerTime":"2019-07-21 15:11:23","powerComm":"已送电","subsNo":"","lineNo":"","tgNo":"","tgName":null,"infoStatus":"1","orgName":"国网浙江桐庐县供电公司","typeName":null,"infoStatusName":null,"dateDay":null,"orgNos":null,"nowTime":null,"countyName":null,"streetName":null,"villageName":null,"roadName":null,"communityName":null,"tranName":null,"sdLineName":null,"cityCode":"3340150","cityName":"国网浙江桐庐县供电公司","provinceCode":null,"stopTime":"2019-07-21 15:27:51","powerType":"全部","powerOffArea":"110kV方埠变:联中T204线-徐家埠公寓1号公变后段","powerOffReason":"（低压停电信息）低压开关故障","powerOffId":"2019072131010105"},{"poweroffId":2019072131010097,"sgpoweroffId":null,"subsName":"","lineName":"10kV阀门H725线","pubTranName":"西溪海（听海苑）4#公变,","scope":"浙江省杭州市余杭区闲林街道西溪海小区听海苑6幢1单元10楼，11楼一带","startTime":"2019-07-21 11:58:04","stopDate":"2019-07-21 14:58:04","orgNo":"3340140","typeCode":"电网故障停限电","poweroffArea":"110kV闲林变:阀门H725线-西溪海（听海苑）4#公变后段","poweroffReason":"（低压停电信息）西溪海（听海苑）4#公变后段低压线路断线","powerTime":"2019-07-21 14:05:04","powerComm":"已送电","subsNo":"","lineNo":"","tgNo":"","tgName":null,"infoStatus":"1","orgName":"国网浙江杭州市余杭区供电有限公司","typeName":null,"infoStatusName":null,"dateDay":null,"orgNos":null,"nowTime":null,"countyName":null,"streetName":null,"villageName":null,"roadName":null,"communityName":null,"tranName":null,"sdLineName":null,"cityCode":"3340140","cityName":"国网浙江杭州市余杭区供电有限公司","provinceCode":null,"stopTime":"2019-07-21 14:58:04","powerType":"全部","powerOffArea":"110kV闲林变:阀门H725线-西溪海（听海苑）4#公变后段","powerOffReason":"（低压停电信息）西溪海（听海苑）4#公变后段低压线路断线","powerOffId":"2019072131010097"},{"poweroffId":2019072131010089,"sgpoweroffId":null,"subsName":"","lineName":"10kV陵上Y133线","pubTranName":"罗村新村台区,","scope":"浙江省-杭州市-建德市-乾潭镇 罗村行政村-罗村新村自然村一带用户","startTime":"2019-07-21 10:47:00","stopDate":"2019-07-21 13:00:00","orgNo":"3340180","typeCode":"电网故障停限电","poweroffArea":"110kV乾潭变:陵上Y133线-罗村新村台区后段","poweroffReason":"（低压停电信息） 低压开关跳闸","powerTime":"2019-07-21 12:07:19","powerComm":"已送电","subsNo":"","lineNo":"","tgNo":"","tgName":null,"infoStatus":"1","orgName":"国网浙江建德市供电有限公司","typeName":null,"infoStatusName":null,"dateDay":null,"orgNos":null,"nowTime":null,"countyName":null,"streetName":null,"villageName":null,"roadName":null,"communityName":null,"tranName":null,"sdLineName":null,"cityCode":"3340180","cityName":"国网浙江建德市供电有限公司","provinceCode":null,"stopTime":"2019-07-21 13:00:00","powerType":"全部","powerOffArea":"110kV乾潭变:陵上Y133线-罗村新村台区后段","powerOffReason":"（低压停电信息） 低压开关跳闸","powerOffId":"2019072131010089"},{"poweroffId":2019072131010087,"sgpoweroffId":null,"subsName":"","lineName":"10kV江南Y137线","pubTranName":"附小南路公变,","scope":"浙江省-杭州市-建德市-乾潭镇 乾潭集镇-附小南路、体育路、育才东路、育才路一带用户。","startTime":"2019-07-21 10:25:00","stopDate":"2019-07-21 11:30:00","orgNo":"3340180","typeCode":"电网故障停限电","poweroffArea":"110kV乾潭变:江南Y137线-附小南路公变后段","poweroffReason":"（低压停电信息）低压开关跳闸故障（原预计停电结束时间13:00，由于施工现场环境比较复杂，存在不确定因素，因此预估施工时间适当放长了，目前故障已修复，现将停电时间变更至11:30。）","powerTime":"2019-07-21 11:06:00","powerComm":"已送电","subsNo":"","lineNo":"","tgNo":"","tgName":null,"infoStatus":"1","orgName":"国网浙江建德市供电有限公司","typeName":null,"infoStatusName":null,"dateDay":null,"orgNos":null,"nowTime":null,"countyName":null,"streetName":null,"villageName":null,"roadName":null,"communityName":null,"tranName":null,"sdLineName":null,"cityCode":"3340180","cityName":"国网浙江建德市供电有限公司","provinceCode":null,"stopTime":"2019-07-21 11:30:00","powerType":"全部","powerOffArea":"110kV乾潭变:江南Y137线-附小南路公变后段","powerOffReason":"（低压停电信息）低压开关跳闸故障（原预计停电结束时间13:00，由于施工现场环境比较复杂，存在不确定因素，因此预估施工时间适当放长了，目前故障已修复，现将停电时间变更至11:30。）","powerOffId":"2019072131010087"},{"poweroffId":2019072131010078,"sgpoweroffId":null,"subsName":"","lineName":"10kV三颐9285线","pubTranName":"武林建筑1#,亿置二2#,杭州佰全西港物业管理有限公司3#,亿置二3#,奥实内部双路一2#,西科公交,富信贸易2#,杭州德昌五金家具有限公司,亿置二1#,西信(三),方氏施1#变,杭州佰全西港物业管理有限公司5#,方氏施2#变,西信(一),","scope":"浙江省-杭州市-西湖区-三墩镇-颐兰社区,董家路,颐景园小区,白马尊邸小区,三墩镇-金禹社区(通济路,金渡北路)厨房斗社区(杭州鑫畅实业投资有限公司,杭州市公共交通集团有限公司)","startTime":"2019-07-21 09:56:15","stopDate":"2019-07-21 10:45:27","orgNo":"3340101","typeCode":"电网故障停限电","poweroffArea":"110kV三墩变:三颐9285线","poweroffReason":"高压开关跳闸 原预计停电结束时间15:56:15,由于施工现场环境比较复杂，存在不确定因素，因此预估施工时间适当放长了，而实际施工进行得比较顺利，因此提前送电了","powerTime":"2019-07-21 10:17:22","powerComm":"送电","subsNo":"","lineNo":"","tgNo":"","tgName":null,"infoStatus":"1","orgName":"浙江杭州电力客户服务中心","typeName":null,"infoStatusName":null,"dateDay":null,"orgNos":null,"nowTime":null,"countyName":null,"streetName":null,"villageName":null,"roadName":null,"communityName":null,"tranName":null,"sdLineName":null,"cityCode":"3340101","cityName":"浙江杭州电力客户服务中心","provinceCode":null,"stopTime":"2019-07-21 10:45:27","powerType":"全部","powerOffArea":"110kV三墩变:三颐9285线","powerOffReason":"高压开关跳闸 原预计停电结束时间15:56:15,由于施工现场环境比较复杂，存在不确定因素，因此预估施工时间适当放长了，而实际施工进行得比较顺利，因此提前送电了","powerOffId":"2019072131010078"},{"poweroffId":2019072131010065,"sgpoweroffId":null,"subsName":"","lineName":"10kV靖镇A325线","pubTranName":"靖东村15#变,","scope":"浙江省-杭州市-萧山区-靖江街道靖东行政村、靖东自然村、靖东村一带","startTime":"2019-07-21 09:05:04","stopDate":"2019-07-21 13:20:14","orgNo":"3340130","typeCode":"电网故障停限电","poweroffArea":"110kV靖江变:靖镇A325线-靖东村15#变台区低压开关","poweroffReason":"（低压停电信息）低压架空导线断线故障 原停电结束时间：2019-07-21 16:30:08，变更停电结束时间：2019-07-21 13:20:14。由于抢修工作提前完成，故需要提前送电。","powerTime":"2019-07-21 12:30:17","powerComm":"已送电","subsNo":"","lineNo":"","tgNo":"","tgName":null,"infoStatus":"1","orgName":"国网浙江杭州市萧山区供电有限公司","typeName":null,"infoStatusName":null,"dateDay":null,"orgNos":null,"nowTime":null,"countyName":null,"streetName":null,"villageName":null,"roadName":null,"communityName":null,"tranName":null,"sdLineName":null,"cityCode":"3340130","cityName":"国网浙江杭州市萧山区供电有限公司","provinceCode":null,"stopTime":"2019-07-21 13:20:14","powerType":"全部","powerOffArea":"110kV靖江变:靖镇A325线-靖东村15#变台区低压开关","powerOffReason":"（低压停电信息）低压架空导线断线故障 原停电结束时间：2019-07-21 16:30:08，变更停电结束时间：2019-07-21 13:20:14。由于抢修工作提前完成，故需要提前送电。","powerOffId":"2019072131010065"},{"poweroffId":2019072131010064,"sgpoweroffId":null,"subsName":"","lineName":"10kV久峰C955线","pubTranName":"杭州萧山临浦肉类加工有限公司,河上镇人民政府2#,杭州萧山华发塑化包装有限公司,天恩建材,横二村9#变,杭州泰诚塑业有限公司,河杨湖3#变,杭州永富电子仪表有限公司,横一村9#变,河杨湖6#变,杭州志宁模具机械有限公司,杭州海尔希畜牧科技有限公司2#,杭州科海塑胶厂,横一村10#变,富宏发泡,杭州萧山戴兴塑胶厂,浦南村2#变,张家弄1#变,杭州海尔希畜牧科技有限公司3#,张家弄3#变,横一村8#变,横二村10#变,浦南村13#变,横一村4#变,杭州海尔希畜牧科技有限公司1#,横一村7#变,杭州萧山龙发塑料厂,横一村3#变,浦南村1#变,杭州市萧山区公路管理处,戴村镇人民政府（河上桥）,杭州飞凯汽车零部件有限公司,杭州凯丽鞋业有限公司,杭州萧山恒利汽车配件厂,横一村2#变,河杨湖4#变,张家弄8#变,张家弄2#变,河杨湖12#变,横一村6#变,河杨湖14#变,横二村6#变,杭州中油高盛能源有限公司,石马头12#变,张家弄6#变,杭州市萧山区戴村镇人民政府3#,汉合机械,河杨湖2#变,永兴纸箱,张家弄5#变,河杨湖16#变,河杨湖15#变,张家弄7#变,佳豪木业,奥盛鞋业,横一村5#变,张家弄4#变,河杨湖1#变,久丰机械,快霸化工,石马头4#变,河杨湖11#变,硅宝化工,横一村1#变,天宇鞋塑（天宁）,河杨湖13#变,河杨湖7#变,杭州市萧山区临浦镇人民政府,河上镇人民政府1#,河杨湖9#变,杭州星悦嘉机械有限公司,浦南村3#变,横二村5#变,河杨湖8#变,石马头2#变,河杨湖5#变,","scope":"浙江省-杭州市-萧山区-戴村镇(河杨湖行政村-河上桥自然村、后马湖自然村、杨家桥自然村,石马头行政村-石盖坞自然村、石马头自然村,张家弄行政村-张家弄自然村),临浦镇(横二行政村-后倪自然村、周家畈自然村,横一行政村-大坞坑自然村、横山傅自然村、梅里自然村,浦南行政村-田头庄自然村);(杭州奥盛鞋业有限公司,杭州飞凯汽车零部件有限公司,杭州富宏发泡鞋材有限公司,杭州硅宝化工有限公司,杭州海尔希畜牧科技有限公司,杭州汉合机械有限公司,杭州佳豪木业有限公司,杭州久丰机械有限公司,杭州凯丽鞋业有限公司,杭州科海塑胶厂,杭州快霸化工有限公司,杭州市萧山区戴村镇人民政府,杭州市萧山区公路管理处,杭州市萧山区河上镇人民政府,杭州市萧山区临浦镇人民政府,杭州泰诚塑业有限公司,杭州萧山戴兴塑胶厂,杭州萧山临浦肉类加工有限公司,杭州萧山龙发塑料厂,杭州萧山天恩建材有限公司,杭州萧山天宁鞋塑有限公司,杭州萧山永兴金属工艺喷塑厂,杭州萧山永兴纸箱厂,杭州星悦嘉机械有限公司,杭州翌发实业有限公司,杭州永富电子仪表有限公司,杭州志宁模具机械有限公司,杭州中油高盛能源有限公司);浙江省杭州市萧山区临浦镇横二村,浙江省杭州市萧山区戴村镇河杨湖行政村,浙江省杭州市萧山区戴村镇张家弄行政村张家弄自然村391号,浙江省杭州市萧山区戴村镇张家弄行政村,浙江省杭州市萧山区临浦镇衡一村,浙江省杭州市萧山区戴村镇石码头村省道红绿灯华诚超市一带","startTime":"2019-07-21 08:45:41","stopDate":"2019-07-21 10:30:19","orgNo":"3340130","typeCode":"电网故障停限电","poweroffArea":"110kV永兴变:久峰C955线","poweroffReason":"高压柱上断路器短路故障 变更停电地理区域 原停电结束时间：2019-07-21 14:53，变更停电结束时间：2019-07-21 10:30，由于增派人员，抢修提前完成，故需要提前送电。","powerTime":"2019-07-21 10:00:00","powerComm":"已送电","subsNo":"","lineNo":"","tgNo":"","tgName":null,"infoStatus":"1","orgName":"国网浙江杭州市萧山区供电有限公司","typeName":null,"infoStatusName":null,"dateDay":null,"orgNos":null,"nowTime":null,"countyName":null,"streetName":null,"villageName":null,"roadName":null,"communityName":null,"tranName":null,"sdLineName":null,"cityCode":"3340130","cityName":"国网浙江杭州市萧山区供电有限公司","provinceCode":null,"stopTime":"2019-07-21 10:30:19","powerType":"全部","powerOffArea":"110kV永兴变:久峰C955线","powerOffReason":"高压柱上断路器短路故障 变更停电地理区域 原停电结束时间：2019-07-21 14:53，变更停电结束时间：2019-07-21 10:30，由于增派人员，抢修提前完成，故需要提前送电。","powerOffId":"2019072131010064"},{"poweroffId":2019072131010062,"sgpoweroffId":null,"subsName":"","lineName":"10kV单家C167线","pubTranName":"罗幕村17#变,","scope":"浙江省-杭州市-萧山区-义桥镇(罗幕行政村-王家桥自然村)一带","startTime":"2019-07-21 08:40:19","stopDate":"2019-07-21 16:00:09","orgNo":"3340130","typeCode":"电网故障停限电","poweroffArea":"110kV许贤变:单家C167线-罗幕村17#变台区低压开关","poweroffReason":"（低压停电信息）低压熔断器短路故障","powerTime":"2019-07-21 15:09:23","powerComm":"已送电","subsNo":"","lineNo":"","tgNo":"","tgName":null,"infoStatus":"1","orgName":"国网浙江杭州市萧山区供电有限公司","typeName":null,"infoStatusName":null,"dateDay":null,"orgNos":null,"nowTime":null,"countyName":null,"streetName":null,"villageName":null,"roadName":null,"communityName":null,"tranName":null,"sdLineName":null,"cityCode":"3340130","cityName":"国网浙江杭州市萧山区供电有限公司","provinceCode":null,"stopTime":"2019-07-21 16:00:09","powerType":"全部","powerOffArea":"110kV许贤变:单家C167线-罗幕村17#变台区低压开关","powerOffReason":"（低压停电信息）低压熔断器短路故障","powerOffId":"2019072131010062"},{"poweroffId":2019072131010057,"sgpoweroffId":null,"subsName":"","lineName":"10kV庄墩9281线","pubTranName":"阳和十二变,阳和六变,阳乐四变,水城六,阳和十四变,水城四,银弘施2#变,阳和四变,阳乐六变,银弘施1#变,水城十,阳乐二变,水城八,阳乐八变,水城十二,阳和二变,阳和十变,阳乐十变,阳和八变,水城二,","scope":"浙江省-杭州市-西湖区-三墩镇(吉鸿社区-甲来路、来仁街);(杭州银弘实业有限责任公司);","startTime":"2019-07-21 08:30:01","stopDate":"2019-07-21 13:40:58","orgNo":"3340101","typeCode":"电网故障停限电","poweroffArea":"110kV三墩变:庄墩9281线","poweroffReason":"高压开关跳闸 原预计停电结束时间2019-07-21 14:30:01,由于施工现场环境比较复杂，存在不确定因素，因此预估施工时间适当放长了，而实际施工进行得比较顺利，因此提前送电了","powerTime":"2019-07-21 13:00:16","powerComm":"已送电","subsNo":"","lineNo":"","tgNo":"","tgName":null,"infoStatus":"1","orgName":"浙江杭州电力客户服务中心","typeName":null,"infoStatusName":null,"dateDay":null,"orgNos":null,"nowTime":null,"countyName":null,"streetName":null,"villageName":null,"roadName":null,"communityName":null,"tranName":null,"sdLineName":null,"cityCode":"3340101","cityName":"浙江杭州电力客户服务中心","provinceCode":null,"stopTime":"2019-07-21 13:40:58","powerType":"全部","powerOffArea":"110kV三墩变:庄墩9281线","powerOffReason":"高压开关跳闸 原预计停电结束时间2019-07-21 14:30:01,由于施工现场环境比较复杂，存在不确定因素，因此预估施工时间适当放长了，而实际施工进行得比较顺利，因此提前送电了","powerOffId":"2019072131010057"},{"poweroffId":2019072131010055,"sgpoweroffId":null,"subsName":"","lineName":"10kV东村A488线","pubTranName":"杭州萧山波涛纤整理厂,益农村14#变,益农村15#变,东村村12#变,杭州萧山益农高福达机械配件厂,益农村17#变,1#变,杭州朗天精工机械有限公司,东村村7#变,东村村14#变,益农村10#变,杭州伟邦塑胶有限公司,益农村4#变,1#变,东江村7#变,益农村7#变,东村村11#变,东江村14#变,益农村9#变,东村村19#变,东村村3#变,杭州恒佳晟纺织科技有限公司,东村村13#变,杭州萧山益农来章机械配件厂,益农村8#变,益农村13#变,杭州亿银轻纺有限公司,益农村12#变,杭州润意特洁具有限公司,杭州康蒙纱业有限公司,1#变,东村村6#变,杭州盼迪装饰材料有限公司,新发村5#变,益农村5#变,益农村11#变,益农供电营业所单相变4#变,杭州益农建材加工厂,东村村9#变,益农村2#变,新发村10#变,东村村10#变,杭州程迪装饰材料有限公司,民围村5#变,益农村6#变,杭州亿银轻纺有限公司2#,东村村18#变,益农村1#变,杭州亿银轻纺有限公司,杭州徐皓纺织品有限公司,杭州科宝钢业有限公司,民围村9#变,杭州三超建材有限公司,东村村8#变,益农村16#变,杭州升宝机械厂,益农村3#变,新发村1#变,东村村1#变,东村村2#变,东村村4#变,","scope":"浙江省-杭州市-萧山区-瓜沥镇世安桥行政村-车安路、世安桥自然村、益农镇民围村、益农行政村益农村委、亿农镇东村、益农镇东村行政村、益农行政村、新农村自然村,益农镇东村行政村-东村自然村,东江行政村-东江自然村,民围行政村-民围自然村,群围行政村-群围自然村,新发行政村-夹浜自然村、新发自然村,益农行政村-小埠头自然村、益农自然村、杭州程迪装饰材料有限公司,杭州恒佳晟纺织科技有限公司,杭州康蒙纱业有限公司,杭州科宝钢业有限公司,杭州快迪包装制品有限公司,杭州朗天精工机械有限公司,杭州美易仓储管理有限公司,杭州盼迪装饰材料有限公司,杭州润意特洁具有限公司,杭州三超建材有限公司,杭州升宝机械厂,杭州伟邦塑胶有限公司,杭州萧山益农波涛化纤整理厂,杭州萧山益农高福达机械厂,杭州萧山益农来章机械厂,杭州新银机械厂,杭州亿银轻纺有限公司,杭州益呈针纺厂,杭州益江冷冻制品有限公司,杭州益农建材加工厂一带","startTime":"2019-07-21 07:45:56","stopDate":"2019-07-21 11:35:07","orgNo":"3340130","typeCode":"电网故障停限电","poweroffArea":"110kV群围变:东村A488线-东村A4882开关（自）后段","poweroffReason":"高压柱上断路器短路故障 原停电结束时间：2019-07-21 14:04:18，变更停电结束时间：2019-07-21 11:35:07。由于抢修工作提前完成，故需要提前送电。","powerTime":"2019-07-21 10:45:23","powerComm":"已送电","subsNo":"","lineNo":"","tgNo":"","tgName":null,"infoStatus":"1","orgName":"国网浙江杭州市萧山区供电有限公司","typeName":null,"infoStatusName":null,"dateDay":null,"orgNos":null,"nowTime":null,"countyName":null,"streetName":null,"villageName":null,"roadName":null,"communityName":null,"tranName":null,"sdLineName":null,"cityCode":"3340130","cityName":"国网浙江杭州市萧山区供电有限公司","provinceCode":null,"stopTime":"2019-07-21 11:35:07","powerType":"全部","powerOffArea":"110kV群围变:东村A488线-东村A4882开关（自）后段","powerOffReason":"高压柱上断路器短路故障 原停电结束时间：2019-07-21 14:04:18，变更停电结束时间：2019-07-21 11:35:07。由于抢修工作提前完成，故需要提前送电。","powerOffId":"2019072131010055"}],"pageModel":{"pageNow":1425,"totalCount":17789,"totalPage":1779,"tableRows":0,"pageCount":10,"beginCount":14240},"isExperi":"1"}