{"message":"","today":"2020-06-16","seleList":[{"poweroffId":2019072031020033,"sgpoweroffId":null,"subsName":"","lineName":"10kV兴美8471线","pubTranName":"农波十三变,","scope":"浙江省-杭州市-滨江区-长河街道-江一社区-江陵路，浙江省杭州市滨江区春波南苑25幢一单元10-18层住户。原停电结束时间12:30、变更停电结束时间11:00原因由于施工现场环境比较复杂，存在不确定因素，因此预估施工时间适当放长了，而实际施工进行得比较顺利，因此该工作提前结束。","startTime":"2019-07-30 09:00:00","stopDate":"2019-07-30 11:00:00","orgNo":"3340101","typeCode":"计划停电","poweroffArea":"220kV兴南变:兴美8471线-农波十三变后段","poweroffReason":"（低压停电信息）非居新装","powerTime":"2019-07-30 10:30:59","powerComm":"已送电","subsNo":"","lineNo":"","tgNo":"","tgName":null,"infoStatus":"1","orgName":"浙江杭州电力客户服务中心","typeName":null,"infoStatusName":null,"dateDay":null,"orgNos":null,"nowTime":null,"countyName":null,"streetName":null,"villageName":null,"roadName":null,"communityName":null,"tranName":null,"sdLineName":null,"cityCode":"3340101","cityName":"浙江杭州电力客户服务中心","provinceCode":null,"stopTime":"2019-07-30 11:00:00","powerType":"全部","powerOffArea":"220kV兴南变:兴美8471线-农波十三变后段","powerOffReason":"（低压停电信息）非居新装","powerOffId":"2019072031020033"},{"poweroffId":2019072031020020,"sgpoweroffId":null,"subsName":"","lineName":"10kV秀峰T186线","pubTranName":"千岛湖饮水,","scope":"浙江省-杭州市-桐庐县-富春江镇-渡济行政村-北京京水建设集团有限公司","startTime":"2019-08-01 10:00:00","stopDate":"2019-08-01 13:30:00","orgNo":"3340150","typeCode":"计划停电","poweroffArea":"110kV外董变:秀峰T186线-秀峰F8298开关后段","poweroffReason":"桐庐原水经营有限公司拆除基建变（自来水工程）","powerTime":"2019-08-01 13:10:30","powerComm":"已送电","subsNo":"","lineNo":"","tgNo":"","tgName":null,"infoStatus":"1","orgName":"国网浙江桐庐县供电公司","typeName":null,"infoStatusName":null,"dateDay":null,"orgNos":null,"nowTime":null,"countyName":null,"streetName":null,"villageName":null,"roadName":null,"communityName":null,"tranName":null,"sdLineName":null,"cityCode":"3340150","cityName":"国网浙江桐庐县供电公司","provinceCode":null,"stopTime":"2019-08-01 13:30:00","powerType":"全部","powerOffArea":"110kV外董变:秀峰T186线-秀峰F8298开关后段","powerOffReason":"桐庐原水经营有限公司拆除基建变（自来水工程）","powerOffId":"2019072031020020"},{"poweroffId":2019072031020019,"sgpoweroffId":null,"subsName":"","lineName":"10kV芦茨T196线","pubTranName":"1#,大母山1号公变,杭州桐庐严子陵水电有限公司芦茨五级电站,","scope":"浙江省-杭州市-桐庐县-富春江镇-芦茨行政村-大母山自然村;富春江镇-芦茨行政村(杭州桐庐严子陵水电有限公司,国网浙江桐庐县供电有限公司)","startTime":"2019-07-31 08:00:00","stopDate":"2019-07-31 16:00:00","orgNo":"3340150","typeCode":"计划停电","poweroffArea":"110kV外董变:芦茨T196线-石舍1969后段","poweroffReason":"跨江线路绝缘化改造","powerTime":"2019-07-31 15:50:16","powerComm":"已送电。","subsNo":"","lineNo":"","tgNo":"","tgName":null,"infoStatus":"1","orgName":"国网浙江桐庐县供电公司","typeName":null,"infoStatusName":null,"dateDay":null,"orgNos":null,"nowTime":null,"countyName":null,"streetName":null,"villageName":null,"roadName":null,"communityName":null,"tranName":null,"sdLineName":null,"cityCode":"3340150","cityName":"国网浙江桐庐县供电公司","provinceCode":null,"stopTime":"2019-07-31 16:00:00","powerType":"全部","powerOffArea":"110kV外董变:芦茨T196线-石舍1969后段","powerOffReason":"跨江线路绝缘化改造","powerOffId":"2019072031020019"},{"poweroffId":2019072031020006,"sgpoweroffId":null,"subsName":"","lineName":"10kV康乐D354线","pubTranName":"南园路1＃公变,","scope":"浙江省-杭州市-富阳区-富春街道-春秋社区-春秋南路,富春街道-春南社区(南园路,春秋南路)","startTime":"2019-07-20 10:10:36","stopDate":"2019-07-20 11:10:36","orgNo":"3340170","typeCode":"电网故障停限电","poweroffArea":"110kV富鹿变:康乐D354线-南园路1＃公变后段","poweroffReason":"高压开关跳闸","powerTime":"2019-07-20 11:00:12","powerComm":"已送电","subsNo":"","lineNo":"","tgNo":"","tgName":null,"infoStatus":"1","orgName":"国网浙江杭州市富阳区供电公司","typeName":null,"infoStatusName":null,"dateDay":null,"orgNos":null,"nowTime":null,"countyName":null,"streetName":null,"villageName":null,"roadName":null,"communityName":null,"tranName":null,"sdLineName":null,"cityCode":"3340170","cityName":"国网浙江杭州市富阳区供电公司","provinceCode":null,"stopTime":"2019-07-20 11:10:36","powerType":"全部","powerOffArea":"110kV富鹿变:康乐D354线-南园路1＃公变后段","powerOffReason":"高压开关跳闸","powerOffId":"2019072031020006"},{"poweroffId":2019072031020002,"sgpoweroffId":null,"subsName":"","lineName":"10kV白泥D226线","pubTranName":"勤乐村水坞1号上公变,浙江省第一水电建设集团股份有限公司上大庄自然村路旁1#基建变,杭州云森生态农业发展有限公司1#,勤乐村水坞2#上公变,杭州云森生态农业发展有限公司2#,","scope":"浙江省-杭州市-富阳区-银湖街道-勤乐行政村-水坞自然村;银湖街道(大庄行政村-浙江省第一水电建设集团股份有限公司,勤乐行政村-杭州云森生态农业发展有限公司水坞山庄)","startTime":"2019-07-20 06:59:26","stopDate":"2019-07-20 10:00:00","orgNo":"3340170","typeCode":"电网故障停限电","poweroffArea":"110kV银湖变:白泥D226线-水坞分线开关后段","poweroffReason":"高压导线断线 原停电结束时间为2019-07-20 14:00:00，因现场抢修力量加强变更至2019-07-20 10:00:00","powerTime":"2019-07-20 09:38:07","powerComm":"已送电","subsNo":"","lineNo":"","tgNo":"","tgName":null,"infoStatus":"1","orgName":"国网浙江杭州市富阳区供电公司","typeName":null,"infoStatusName":null,"dateDay":null,"orgNos":null,"nowTime":null,"countyName":null,"streetName":null,"villageName":null,"roadName":null,"communityName":null,"tranName":null,"sdLineName":null,"cityCode":"3340170","cityName":"国网浙江杭州市富阳区供电公司","provinceCode":null,"stopTime":"2019-07-20 10:00:00","powerType":"全部","powerOffArea":"110kV银湖变:白泥D226线-水坞分线开关后段","powerOffReason":"高压导线断线 原停电结束时间为2019-07-20 14:00:00，因现场抢修力量加强变更至2019-07-20 10:00:00","powerOffId":"2019072031020002"},{"poweroffId":2019072031020001,"sgpoweroffId":null,"subsName":"","lineName":"10kV白泥D226线","pubTranName":"富阳富春江节能抗磨材料厂1#变,富阳市永恒涂装有限公司,唐家坞11#下凉亭公变,杭州易原建材有限公司,富阳九龙混凝土有限公司,富阳华市橡塑制品厂,杭州云森生态农业发展有限公司1#,杭州喜鹊投资有限公司1#变,唐家坞5#钱家坞外公变,杭州月桂袜业有限公司,富阳市永恒涂装有限公司,唐家坞8#下唐外公变,唐家坞4号桥上公变,杭州富阳天鸿通信器材有限公司银湖分公司,富阳高桥热电镀厂,唐家坞1号祝家湾公变,浙江万能通信器材集团有限公司 1#,勤乐村水坞2#上公变,杭州澳邦建材科技有限公司,唐家坞7#下唐里公变,杭州康生医疗器械有限公司,唐家坞2#高塘坎公变,唐家坞12号溪下公变,唐家坞6#前山公变,唐家坞9#蜻蜓坞公变,浙江省富阳利江消防器材厂,勤乐村水坞1号上公变,唐家坞10号黄泥地公变,杭州云森生态农业发展有限公司2#,富阳九龙混凝土有限公司2#变,唐家坞3号溪下公变,杭州月桂袜业有限公司1#变,勤乐村委6#公变,杭州富阳电信器材有限公司,浙江省第一水电建设集团股份有限公司上大庄自然村路旁1#基建变,富阳富春江节能抗磨材料厂1#变,杭州富阳电信器材有限公司,","scope":"浙江省-杭州市-富阳区-银湖街道-高桥行政村-高桥自然村,银湖街道-唐家坞行政村(唐家坞自然村,路下自然村,溪下自然村,下唐自然村,祝家湾自然村,路上自然村,高塘坎自然村,蜻蜓坞自然村,黄泥地自然村),银湖街道-勤乐行政村(水坞自然村,石墓自然村);银湖街道(杭州富阳易原道路设施有限公司,杭州富阳华市橡塑制品厂,浙江省富阳利江消防器材厂,杭州澳邦建材科技有限公司,杭州富阳天鸿通信器材有限公司银湖分公司,杭州富阳高桥热电镀厂,杭州月桂袜业有限公司,浙江万能通信器材集团有限公司,杭州康生医疗器械有限公司,浙江省第一水电建设集团股份有限公司,杭州富阳永恒涂装有限公司,杭州云森生态农业发展有限公司水坞山庄,杭州富阳九龙混凝土有限公司,杭州富阳富春江节能抗磨材料厂)","startTime":"2019-07-20 05:18:00","stopDate":"2019-07-20 07:18:00","orgNo":"3340170","typeCode":"电网故障停限电","poweroffArea":"110kV银湖变:白泥D226线白泥D2264开关后段","poweroffReason":"高压开关跳闸","powerTime":"2019-07-20 07:03:13","powerComm":"已送电","subsNo":"","lineNo":"","tgNo":"","tgName":null,"infoStatus":"1","orgName":"国网浙江杭州市富阳区供电公司","typeName":null,"infoStatusName":null,"dateDay":null,"orgNos":null,"nowTime":null,"countyName":null,"streetName":null,"villageName":null,"roadName":null,"communityName":null,"tranName":null,"sdLineName":null,"cityCode":"3340170","cityName":"国网浙江杭州市富阳区供电公司","provinceCode":null,"stopTime":"2019-07-20 07:18:00","powerType":"全部","powerOffArea":"110kV银湖变:白泥D226线白泥D2264开关后段","powerOffReason":"高压开关跳闸","powerOffId":"2019072031020001"},{"poweroffId":2019072031010257,"sgpoweroffId":null,"subsName":"","lineName":"10kV杭南G034线","pubTranName":"运河镇唐公村荷叶墩公变,","scope":"浙江省-杭州市-余杭区-运河街道唐公村荷叶墩一带","startTime":"2019-07-20 21:30:00","stopDate":"2019-07-20 23:30:00","orgNo":"3340140","typeCode":"电网故障停限电","poweroffArea":"110kV五杭变:杭南G034线-运河镇唐公村荷叶墩公变后段","poweroffReason":"（低压停电信息）杭南G034线-运河镇唐公村荷叶墩公变故障","powerTime":"2019-07-20 22:52:00","powerComm":"已送电","subsNo":"","lineNo":"","tgNo":"","tgName":null,"infoStatus":"1","orgName":"国网浙江杭州市余杭区供电有限公司","typeName":null,"infoStatusName":null,"dateDay":null,"orgNos":null,"nowTime":null,"countyName":null,"streetName":null,"villageName":null,"roadName":null,"communityName":null,"tranName":null,"sdLineName":null,"cityCode":"3340140","cityName":"国网浙江杭州市余杭区供电有限公司","provinceCode":null,"stopTime":"2019-07-20 23:30:00","powerType":"全部","powerOffArea":"110kV五杭变:杭南G034线-运河镇唐公村荷叶墩公变后段","powerOffReason":"（低压停电信息）杭南G034线-运河镇唐公村荷叶墩公变故障","powerOffId":"2019072031010257"},{"poweroffId":2019072031010253,"sgpoweroffId":null,"subsName":"","lineName":"10kV永盛A323线","pubTranName":"小石桥村11#变,","scope":"浙江省-杭州市-萧山区-靖江街道小石桥社区-靖江路、青六路、商贸街、育才路、靖江街道商贸街一带","startTime":"2019-07-20 20:50:02","stopDate":"2019-07-20 22:40:09","orgNo":"3340130","typeCode":"电网故障停限电","poweroffArea":"110kV靖江变:永盛A323线-小石桥村11#变台区低压开关","poweroffReason":"（低压停电信息）低压熔断器短路故障 原停电结束时间:2019-07-20 23:25:13，变更停电结束时间:2019-07-20 22:40:09。由于抢修工作提前完成,故需要提前送电。","powerTime":"2019-07-20 21:48:15","powerComm":"已送电","subsNo":"","lineNo":"","tgNo":"","tgName":null,"infoStatus":"1","orgName":"国网浙江杭州市萧山区供电有限公司","typeName":null,"infoStatusName":null,"dateDay":null,"orgNos":null,"nowTime":null,"countyName":null,"streetName":null,"villageName":null,"roadName":null,"communityName":null,"tranName":null,"sdLineName":null,"cityCode":"3340130","cityName":"国网浙江杭州市萧山区供电有限公司","provinceCode":null,"stopTime":"2019-07-20 22:40:09","powerType":"全部","powerOffArea":"110kV靖江变:永盛A323线-小石桥村11#变台区低压开关","powerOffReason":"（低压停电信息）低压熔断器短路故障 原停电结束时间:2019-07-20 23:25:13，变更停电结束时间:2019-07-20 22:40:09。由于抢修工作提前完成,故需要提前送电。","powerOffId":"2019072031010253"},{"poweroffId":2019072031010232,"sgpoweroffId":null,"subsName":"","lineName":"10kV同富C183线","pubTranName":"山南富村5#变,涛华纺织,繁荣纺织,杭州军诚纺织有限公司,萧山市富兴达纺织有限公司2#,山南富村11#变,杭州欧亿莱纺织有限公司2790,杭州萧山富兴达纺织有限公司,山南富村13#变,杭州富南塑料制品有限公司,山南富村9#变,杭州中帝化纤科技有限公司,四翔村8#变,萧山市富兴达纺织有限公司1#,杭州恒超锦纶有限公司,杭州青云控股集团有限公司,浙江兴南链条股份有限公司,山南富村2#变,萧山市华宁纺织装饰有限公司,创盛纺织,杭州瑜柯化纤厂,3#,山南富村10#变,山南富村7#变,山南富村8#变,","scope":"浙江省-杭州市-萧山区-衙前镇(山南富行政村-山南富自然村、山南自然村、同富自然村、新农村小区、四翔行政村-、翔凤自然村、);(杭州富南塑料制品有限公司,杭州恒超锦纶有限公司,杭州欧亿莱纺织有限公司,杭州青云控股集团有限公司,杭州涛华纺织品有限公司,杭州萧山创盛纺织厂,杭州萧山繁荣纺织有限公司,杭州萧山富兴达纺织有限公司,杭州萧山华宁纺织装饰有限公司,杭州中帝化纤科技有限公司,杭州卓舟轻纺有限公司,杭州瑜柯化纤厂,浙江兴南链条股份有限公司)，衙前镇山南富行政村新村路11号，衙前镇四翔行政村翔凤路25号，衙前镇同富村，衙前镇秋家北路一带","startTime":"2019-07-20 19:55:24","stopDate":"2019-07-21 01:30:51","orgNo":"3340130","typeCode":"电网故障停限电","poweroffArea":"110kV翔凤变:同富C183线同富C1831开关后段","poweroffReason":"外力破坏引起同富C183线高压柱上断路器短路故障 原停电结束时间：2019-07-20 23:30:31，变更停电结束时间2019-07-21 01:30:51，由于抢修工作难度大，故需要延迟送电。变更停电地理区域","powerTime":"2019-07-21 00:40:08","powerComm":"已送电","subsNo":"","lineNo":"","tgNo":"","tgName":null,"infoStatus":"1","orgName":"国网浙江杭州市萧山区供电有限公司","typeName":null,"infoStatusName":null,"dateDay":null,"orgNos":null,"nowTime":null,"countyName":null,"streetName":null,"villageName":null,"roadName":null,"communityName":null,"tranName":null,"sdLineName":null,"cityCode":"3340130","cityName":"国网浙江杭州市萧山区供电有限公司","provinceCode":null,"stopTime":"2019-07-21 01:30:51","powerType":"全部","powerOffArea":"110kV翔凤变:同富C183线同富C1831开关后段","powerOffReason":"外力破坏引起同富C183线高压柱上断路器短路故障 原停电结束时间：2019-07-20 23:30:31，变更停电结束时间2019-07-21 01:30:51，由于抢修工作难度大，故需要延迟送电。变更停电地理区域","powerOffId":"2019072031010232"},{"poweroffId":2019072031010230,"sgpoweroffId":null,"subsName":"","lineName":"10kV靖镇A325线","pubTranName":"靖东村15#变,","scope":"浙江省-杭州市-萧山区-靖江街道靖东行政村、靖东自然村、靖江街道靖东安置区块8排12号、靖江街道靖东安之区块一带","startTime":"2019-07-20 19:50:17","stopDate":"2019-07-20 21:50:10","orgNo":"3340130","typeCode":"电网故障停限电","poweroffArea":"110kV靖江变:靖镇A325线-靖东村15#变台区低压开关","poweroffReason":"（低压停电信息） 低压漏电保护器短路故障 原停电结束时间：2019-07-20 22:30:37，变更停电结束时间：2019-07-20 21:50:10，由于抢修工作提前结束，故需要提前送电。","powerTime":"2019-07-20 20:56:28","powerComm":"已送电","subsNo":"","lineNo":"","tgNo":"","tgName":null,"infoStatus":"1","orgName":"国网浙江杭州市萧山区供电有限公司","typeName":null,"infoStatusName":null,"dateDay":null,"orgNos":null,"nowTime":null,"countyName":null,"streetName":null,"villageName":null,"roadName":null,"communityName":null,"tranName":null,"sdLineName":null,"cityCode":"3340130","cityName":"国网浙江杭州市萧山区供电有限公司","provinceCode":null,"stopTime":"2019-07-20 21:50:10","powerType":"全部","powerOffArea":"110kV靖江变:靖镇A325线-靖东村15#变台区低压开关","powerOffReason":"（低压停电信息） 低压漏电保护器短路故障 原停电结束时间：2019-07-20 22:30:37，变更停电结束时间：2019-07-20 21:50:10，由于抢修工作提前结束，故需要提前送电。","powerOffId":"2019072031010230"}],"pageModel":{"pageNow":1427,"totalCount":17789,"totalPage":1779,"tableRows":0,"pageCount":10,"beginCount":14260},"isExperi":"1"}