{"message":"","today":"2020-06-16","seleList":[{"poweroffId":2019072031010222,"sgpoweroffId":null,"subsName":"","lineName":"10kV前裘0973线","pubTranName":"村经济联合社,甘露垦种,惠民特种水产,仁兴废料加工厂,靖江镇农业发展局,党湾镇梅东村,甘露四垦,联誉实业,华恩冷拉型钢,瓜沥镇如松村,瓜沥镇渔庄村,前进街道办事处,晓阳水产,昭东垦种,坎山镇勇建村,甘露四垦,水祥水产,丰乐村2#变,靖江花神庙垦种,萧围养殖三场,党湾镇庆丰村,靖江光明四垦,丰乐村1#变,瓜沥镇渔庄村,靖江镇靖南村,丰乐村3#变,新湾镇三丰村,党湾垦种,","scope":"浙江省-杭州市-萧山区-前进街道三丰行政村、三丰自然村、三丰村、前峰村、萧山区垦种、围垦、党湾五垦种,甘露垦种,甘露四垦种,杭州奥仁化纤有限公司,杭州华恩冷拉型钢有限公司,杭州惠民特种水产养殖场,杭州市萧山区靖江街道东桥村经济联合社,杭州市萧山区靖江镇农业发展局,杭州市萧山区人民政府前进街道办事处,杭州水祥水产养殖有限公司,杭州晓阳农业开发有限公司,坎山镇勇建村(坎山三垦),萧山区党湾镇梅东村（围垦用电）,萧山区党湾镇庆丰村（围垦用电）,萧山区瓜沥镇如松村村民委员会(围垦用电),萧山区瓜沥镇渔庄村(围垦用电),萧山区靖江镇光明村四垦,萧山区靖江镇花神庙社区（围垦用电）,萧山区靖江镇靖南村垦种,萧山区新湾镇三丰村（围垦用电）,萧围养殖三场,昭东垦种,浙江联誉实业有限公司一带","startTime":"2019-07-20 20:10:53","stopDate":"2019-07-20 22:00:03","orgNo":"3340120","typeCode":"电网故障停限电","poweroffArea":"110kV前进变:前裘0973线","poweroffReason":"高压柱上断路器短路故障","powerTime":"2019-07-20 21:43:14","powerComm":"已送电","subsNo":"","lineNo":"","tgNo":"","tgName":null,"infoStatus":"1","orgName":"国网浙江杭州市钱塘新区供电公司","typeName":null,"infoStatusName":null,"dateDay":null,"orgNos":null,"nowTime":null,"countyName":null,"streetName":null,"villageName":null,"roadName":null,"communityName":null,"tranName":null,"sdLineName":null,"cityCode":"3340120","cityName":"国网浙江杭州市钱塘新区供电公司","provinceCode":null,"stopTime":"2019-07-20 22:00:03","powerType":"全部","powerOffArea":"110kV前进变:前裘0973线","powerOffReason":"高压柱上断路器短路故障","powerOffId":"2019072031010222"},{"poweroffId":2019072031010221,"sgpoweroffId":null,"subsName":"","lineName":"10kV灵栖Y174线","pubTranName":"灵栖村南山脚台区,","scope":"浙江省-杭州市-建德市-航头镇 灵栖行政村-毛家自然村、南山脚自然村一带用户。","startTime":"2019-07-20 19:34:00","stopDate":"2019-07-20 21:00:00","orgNo":"3340180","typeCode":"电网故障停限电","poweroffArea":"110kV航头变:灵栖Y174线-灵栖村南山脚台区后段","poweroffReason":"（低压停电信息）低压开关跳闸故障 原预计停电结束时间21:40，目前故障已修复，现将停电时间变更至21:00。","powerTime":"2019-07-20 20:18:00","powerComm":"已送电","subsNo":"","lineNo":"","tgNo":"","tgName":null,"infoStatus":"1","orgName":"国网浙江建德市供电有限公司","typeName":null,"infoStatusName":null,"dateDay":null,"orgNos":null,"nowTime":null,"countyName":null,"streetName":null,"villageName":null,"roadName":null,"communityName":null,"tranName":null,"sdLineName":null,"cityCode":"3340180","cityName":"国网浙江建德市供电有限公司","provinceCode":null,"stopTime":"2019-07-20 21:00:00","powerType":"全部","powerOffArea":"110kV航头变:灵栖Y174线-灵栖村南山脚台区后段","powerOffReason":"（低压停电信息）低压开关跳闸故障 原预计停电结束时间21:40，目前故障已修复，现将停电时间变更至21:00。","powerOffId":"2019072031010221"},{"poweroffId":2019072031010188,"sgpoweroffId":null,"subsName":"","lineName":"10kV大坝Y129线","pubTranName":"梅城集镇东湖公寓公变,","scope":"浙江省-杭州市-建德市-梅城镇 总府社区 总府街 东湖公寓小区一带用户。","startTime":"2019-07-20 17:10:00","stopDate":"2019-07-20 18:30:00","orgNo":"3340180","typeCode":"电网故障停限电","poweroffArea":"110kV梅城变:大坝Y129线-梅城集镇东湖公寓公变后段","poweroffReason":"（低压停电信息）低压开关跳闸故障 原预计停电结束时间19:30，目前故障已修复，现将停电时间变更至18:30。","powerTime":"2019-07-20 17:51:00","powerComm":"已送电","subsNo":"","lineNo":"","tgNo":"","tgName":null,"infoStatus":"1","orgName":"国网浙江建德市供电有限公司","typeName":null,"infoStatusName":null,"dateDay":null,"orgNos":null,"nowTime":null,"countyName":null,"streetName":null,"villageName":null,"roadName":null,"communityName":null,"tranName":null,"sdLineName":null,"cityCode":"3340180","cityName":"国网浙江建德市供电有限公司","provinceCode":null,"stopTime":"2019-07-20 18:30:00","powerType":"全部","powerOffArea":"110kV梅城变:大坝Y129线-梅城集镇东湖公寓公变后段","powerOffReason":"（低压停电信息）低压开关跳闸故障 原预计停电结束时间19:30，目前故障已修复，现将停电时间变更至18:30。","powerOffId":"2019072031010188"},{"poweroffId":2019072031010177,"sgpoweroffId":null,"subsName":"","lineName":"10kV梧村T244线","pubTranName":"梧村3号公变,","scope":"浙江省-杭州市-桐庐县-江南镇(梧村行政村-梧村自然村);","startTime":"2019-07-20 16:27:57","stopDate":"2019-07-20 19:00:40","orgNo":"3340150","typeCode":"电网故障停限电","poweroffArea":"110kV石阜变:梧村T244线-梧村3号公变后段","poweroffReason":"（低压停电信息）低压开关故障","powerTime":"2019-07-20 18:45:37","powerComm":"已送电。","subsNo":"","lineNo":"","tgNo":"","tgName":null,"infoStatus":"1","orgName":"国网浙江桐庐县供电公司","typeName":null,"infoStatusName":null,"dateDay":null,"orgNos":null,"nowTime":null,"countyName":null,"streetName":null,"villageName":null,"roadName":null,"communityName":null,"tranName":null,"sdLineName":null,"cityCode":"3340150","cityName":"国网浙江桐庐县供电公司","provinceCode":null,"stopTime":"2019-07-20 19:00:40","powerType":"全部","powerOffArea":"110kV石阜变:梧村T244线-梧村3号公变后段","powerOffReason":"（低压停电信息）低压开关故障","powerOffId":"2019072031010177"},{"poweroffId":2019072031010156,"sgpoweroffId":null,"subsName":"","lineName":"10kV酒华H716线","pubTranName":"宝塔公寓1号公变,","scope":"浙江省杭州市余杭区余杭街道凤联社区禹航路、山西园宝塔公寓一带","startTime":"2019-07-20 15:30:00","stopDate":"2019-07-20 16:40:00","orgNo":"3340140","typeCode":"电网故障停限电","poweroffArea":"110kV余杭变:酒华H716线-宝塔公寓1号公变后段 因施工力量加大，故变更停电结束时间，原停电结束时间2019-07-20 18:00:00，变更后停电结束时间2019-07-20 16:40:00","poweroffReason":"（低压停电信息）酒华H716线-宝塔公寓1号公变后段断线故障","powerTime":"2019-07-20 16:25:00","powerComm":"已送电","subsNo":"","lineNo":"","tgNo":"","tgName":null,"infoStatus":"1","orgName":"国网浙江杭州市余杭区供电有限公司","typeName":null,"infoStatusName":null,"dateDay":null,"orgNos":null,"nowTime":null,"countyName":null,"streetName":null,"villageName":null,"roadName":null,"communityName":null,"tranName":null,"sdLineName":null,"cityCode":"3340140","cityName":"国网浙江杭州市余杭区供电有限公司","provinceCode":null,"stopTime":"2019-07-20 16:40:00","powerType":"全部","powerOffArea":"110kV余杭变:酒华H716线-宝塔公寓1号公变后段 因施工力量加大，故变更停电结束时间，原停电结束时间2019-07-20 18:00:00，变更后停电结束时间2019-07-20 16:40:00","powerOffReason":"（低压停电信息）酒华H716线-宝塔公寓1号公变后段断线故障","powerOffId":"2019072031010156"},{"poweroffId":2019072031010150,"sgpoweroffId":null,"subsName":"","lineName":"10kV东泰G671线","pubTranName":"10#,2#,8#,4#,6#,2#,12#,2#,","scope":"浙江省杭州市余杭区临平街道余杭区(云创商业管理(杭州)有限公司临平分公司,浙江永辉超市有限公司)、临平银泰城一带","startTime":"2019-07-20 15:25:00","stopDate":"2019-07-20 16:50:00","orgNo":"3340140","typeCode":"电网故障停限电","poweroffArea":"110kV南苑变:东泰G671线 停电范围扩大，故需要变更停电范围","poweroffReason":"东泰G671线导线故障 原计划18:25至因故障点已隔离，线路已转供，客户已有电 提前至16：50","powerTime":"2019-07-20 16:17:00","powerComm":"已送电","subsNo":"","lineNo":"","tgNo":"","tgName":null,"infoStatus":"1","orgName":"国网浙江杭州市余杭区供电有限公司","typeName":null,"infoStatusName":null,"dateDay":null,"orgNos":null,"nowTime":null,"countyName":null,"streetName":null,"villageName":null,"roadName":null,"communityName":null,"tranName":null,"sdLineName":null,"cityCode":"3340140","cityName":"国网浙江杭州市余杭区供电有限公司","provinceCode":null,"stopTime":"2019-07-20 16:50:00","powerType":"全部","powerOffArea":"110kV南苑变:东泰G671线 停电范围扩大，故需要变更停电范围","powerOffReason":"东泰G671线导线故障 原计划18:25至因故障点已隔离，线路已转供，客户已有电 提前至16：50","powerOffId":"2019072031010150"},{"poweroffId":2019072031010148,"sgpoweroffId":null,"subsName":"","lineName":"10kV雪海G651线","pubTranName":"1#,1#,3#,7#,5#,1#,11#,9#,","scope":"浙江省杭州余杭区临平街道(云创商业管理(杭州)有限公司临平分公司,浙江永辉超市有限公司);一带","startTime":"2019-07-20 15:22:00","stopDate":"2019-07-20 16:40:00","orgNo":"3340140","typeCode":"电网故障停限电","poweroffArea":"110kV南苑变:雪海G651线 因施工力量加大，故提前送电，原停电结束时间2019-07-20 18:22:00，变更后停电结束时间2019-07-20 16:40:00","poweroffReason":"雪海G651线导线断线故障","powerTime":"2019-07-20 16:22:00","powerComm":"已送电","subsNo":"","lineNo":"","tgNo":"","tgName":null,"infoStatus":"1","orgName":"国网浙江杭州市余杭区供电有限公司","typeName":null,"infoStatusName":null,"dateDay":null,"orgNos":null,"nowTime":null,"countyName":null,"streetName":null,"villageName":null,"roadName":null,"communityName":null,"tranName":null,"sdLineName":null,"cityCode":"3340140","cityName":"国网浙江杭州市余杭区供电有限公司","provinceCode":null,"stopTime":"2019-07-20 16:40:00","powerType":"全部","powerOffArea":"110kV南苑变:雪海G651线 因施工力量加大，故提前送电，原停电结束时间2019-07-20 18:22:00，变更后停电结束时间2019-07-20 16:40:00","powerOffReason":"雪海G651线导线断线故障","powerOffId":"2019072031010148"},{"poweroffId":2019072031010139,"sgpoweroffId":null,"subsName":"","lineName":"10kV城东Y209线","pubTranName":"洋富潭1#公变,","scope":"浙江省-杭州市-建德市-新安江街道 溪头社区-东山湾街一带用户。","startTime":"2019-07-20 14:55:00","stopDate":"2019-07-20 16:00:00","orgNo":"3340180","typeCode":"电网故障停限电","poweroffArea":"110kV白沙变:城东Y209线-洋富潭1#公变后段","poweroffReason":"（低压停电信息）低压开关故障 原预计停电结束时间17:00，目前故障已修复，现将停电时间变更至16:00。","powerTime":"2019-07-20 15:24:00","powerComm":"已送电","subsNo":"","lineNo":"","tgNo":"","tgName":null,"infoStatus":"1","orgName":"国网浙江建德市供电有限公司","typeName":null,"infoStatusName":null,"dateDay":null,"orgNos":null,"nowTime":null,"countyName":null,"streetName":null,"villageName":null,"roadName":null,"communityName":null,"tranName":null,"sdLineName":null,"cityCode":"3340180","cityName":"国网浙江建德市供电有限公司","provinceCode":null,"stopTime":"2019-07-20 16:00:00","powerType":"全部","powerOffArea":"110kV白沙变:城东Y209线-洋富潭1#公变后段","powerOffReason":"（低压停电信息）低压开关故障 原预计停电结束时间17:00，目前故障已修复，现将停电时间变更至16:00。","powerOffId":"2019072031010139"},{"poweroffId":2019072031010131,"sgpoweroffId":null,"subsName":"","lineName":"10kV潘家T403线","pubTranName":"中联老村委1号公变,","scope":"浙江省-杭州市-桐庐县-城南街道(金溪行政村-峙山自然村、中联自然村、城南路与峙山路交叉口一带);","startTime":"2019-07-20 14:21:30","stopDate":"2019-07-20 17:00:42","orgNo":"3340150","typeCode":"电网故障停限电","poweroffArea":"110kV枫塘变:潘家T403线-中联老村委1号公变后段","poweroffReason":"低压停电信息（低压开关故障处理）","powerTime":"2019-07-20 16:40:22","powerComm":"已送电。","subsNo":"","lineNo":"","tgNo":"","tgName":null,"infoStatus":"1","orgName":"国网浙江桐庐县供电公司","typeName":null,"infoStatusName":null,"dateDay":null,"orgNos":null,"nowTime":null,"countyName":null,"streetName":null,"villageName":null,"roadName":null,"communityName":null,"tranName":null,"sdLineName":null,"cityCode":"3340150","cityName":"国网浙江桐庐县供电公司","provinceCode":null,"stopTime":"2019-07-20 17:00:42","powerType":"全部","powerOffArea":"110kV枫塘变:潘家T403线-中联老村委1号公变后段","powerOffReason":"低压停电信息（低压开关故障处理）","powerOffId":"2019072031010131"},{"poweroffId":2019072031010125,"sgpoweroffId":null,"subsName":"","lineName":"10kV光明C384线","pubTranName":"红山农场三分场1#公变,","scope":"浙江省-杭州市-萧山区-新街镇、新街街道 红山农场(同心社区-三分场)等一带","startTime":"2019-07-20 13:38:29","stopDate":"2019-07-20 15:11:44","orgNo":"3340130","typeCode":"电网故障停限电","poweroffArea":"110kV红山变:光明C384线-红山农场三分场1#公变台区低压开关","poweroffReason":"（低压停电信息）低压漏电保护器短路故障 原停电结束时间：16:41，变更停电结束时间：15:11，由于增派人员，抢修工作提前完成，故需要提前送电。","powerTime":"2019-07-20 14:21:31","powerComm":"已送电","subsNo":"","lineNo":"","tgNo":"","tgName":null,"infoStatus":"1","orgName":"国网浙江杭州市萧山区供电有限公司","typeName":null,"infoStatusName":null,"dateDay":null,"orgNos":null,"nowTime":null,"countyName":null,"streetName":null,"villageName":null,"roadName":null,"communityName":null,"tranName":null,"sdLineName":null,"cityCode":"3340130","cityName":"国网浙江杭州市萧山区供电有限公司","provinceCode":null,"stopTime":"2019-07-20 15:11:44","powerType":"全部","powerOffArea":"110kV红山变:光明C384线-红山农场三分场1#公变台区低压开关","powerOffReason":"（低压停电信息）低压漏电保护器短路故障 原停电结束时间：16:41，变更停电结束时间：15:11，由于增派人员，抢修工作提前完成，故需要提前送电。","powerOffId":"2019072031010125"}],"pageModel":{"pageNow":1428,"totalCount":17789,"totalPage":1779,"tableRows":0,"pageCount":10,"beginCount":14270},"isExperi":"1"}