{"message":"","today":"2020-06-16","seleList":[{"poweroffId":2019072031010014,"sgpoweroffId":null,"subsName":"","lineName":"10kV新镇C620线","pubTranName":"江南村(新街)4#变,","scope":"浙江省-杭州市-萧山区-新街镇、新街街道(江南行政村-江南自然村)等一带","startTime":"2019-07-20 05:43:58","stopDate":"2019-07-20 07:55:21","orgNo":"3340130","typeCode":"电网故障停限电","poweroffArea":"110kV新街变:新镇C620线-江南村(新街)4#变台区低压开关","poweroffReason":"（低压停电信息）低压漏电保护器短路故障","powerTime":"2019-07-20 06:57:34","powerComm":"已送电","subsNo":"","lineNo":"","tgNo":"","tgName":null,"infoStatus":"1","orgName":"国网浙江杭州市萧山区供电有限公司","typeName":null,"infoStatusName":null,"dateDay":null,"orgNos":null,"nowTime":null,"countyName":null,"streetName":null,"villageName":null,"roadName":null,"communityName":null,"tranName":null,"sdLineName":null,"cityCode":"3340130","cityName":"国网浙江杭州市萧山区供电有限公司","provinceCode":null,"stopTime":"2019-07-20 07:55:21","powerType":"全部","powerOffArea":"110kV新街变:新镇C620线-江南村(新街)4#变台区低压开关","powerOffReason":"（低压停电信息）低压漏电保护器短路故障","powerOffId":"2019072031010014"},{"poweroffId":2019072031010013,"sgpoweroffId":null,"subsName":"","lineName":"10kV长河H616线","pubTranName":"华和塑胶,嘉力讯,欧航橱柜,","scope":"浙江省杭州市余杭区余杭街道杭州华和塑胶有限公司,杭州余杭随风汽车服务有限公司,杭州智成塑胶制品有限公司一带","startTime":"2019-07-20 05:40:00","stopDate":"2019-07-20 09:40:00","orgNo":"3340140","typeCode":"电网故障停限电","poweroffArea":"110kV桃源变:长河H616线-长河H616线嘉力讯分线开关后段","poweroffReason":"长河H616线-长河H616线嘉力讯分线开关后段断线故障","powerTime":"2019-07-20 08:52:00","powerComm":"已送电","subsNo":"","lineNo":"","tgNo":"","tgName":null,"infoStatus":"1","orgName":"国网浙江杭州市余杭区供电有限公司","typeName":null,"infoStatusName":null,"dateDay":null,"orgNos":null,"nowTime":null,"countyName":null,"streetName":null,"villageName":null,"roadName":null,"communityName":null,"tranName":null,"sdLineName":null,"cityCode":"3340140","cityName":"国网浙江杭州市余杭区供电有限公司","provinceCode":null,"stopTime":"2019-07-20 09:40:00","powerType":"全部","powerOffArea":"110kV桃源变:长河H616线-长河H616线嘉力讯分线开关后段","powerOffReason":"长河H616线-长河H616线嘉力讯分线开关后段断线故障","powerOffId":"2019072031010013"},{"poweroffId":2019072031010012,"sgpoweroffId":null,"subsName":"","lineName":"10kV万兆G271线","pubTranName":"杭州双马纺织品有限公司611102437801#专变,杭州大洋刀业有限公司,万兆不锈钢,东山村上施桥公变,杭州绿康医院投资管理有限公司,东山村王巷儿2号公变,云会村王家门公变,华馨家纺,云会村水产公变,瑞温实业（6120870308）2#变,云会村水路里南2号公变,极限信息科技,云会村施家斗公变,鸿艺变,松井包装,2#变压器,杭州创利布业有限公司,云会村西山公变,云会村水路里南公变,云会村西南山东公变,瑞高纺织,天然消防1,云会村裕家桥公变,云会村施家斗2号公变,天然消防2,杭州龙鼎铸锻有限公司,云会村西山斗2号公变,玛丽高,澳斯美,云会村西山斗公变,联通,云会村水产2号公变,希隆文体,中交第二航务工程局有限公司余杭分公司612087364401#专变,云会村水路里公变,云会村公变,万兆不锈钢制品(杭州)有限公司,科杰铸钢,杭州市余杭区云会中心小学,瑞温实业（6120870308）1#变,云会村南山2号公变,登峰离合器厂,东山村王巷儿公变,东山村酒厂公变,杭州创嘉印刷文化有限公司,华迪纺织,欧创布衣,杭州赛龙机电设备有限公司,云翔公司,粮食收储,杭州欧源纺织有限公司,云会村南山公变,云会村西南山公变,","scope":"浙江省-杭州市-余杭区-仁和街道(东山行政村-东山后自然村、豆腐桥自然村、横港儿自然村、后墩桥自然村、金家里自然村、毛墩坝自然村、潘家里自然村、墙门里自然村、施田畈自然村、石板路自然村、王巷儿自然村、郑家墩自然村,云会行政村-北施港自然村、店头村自然村、东山洋自然村、毛墩坝自然村、莫家塘自然村、南庄湾自然村、沈家门自然村、施家斗自然村、施家洋自然村、石灰桥自然村、水产自然村、水路里自然村、四丰桥南自然村、唐家桥自然村、王家门自然村、西南山北路自然村、西南山东路自然村、西南山路、西南山南路、西南山西路、西南山西路自然村、西南山自然村、西山斗北自然村、西山斗南自然村、西山后自然村、新房子埭自然村、裕家桥自然村);(杭州创嘉印刷文化有限公司,杭州创利布业有限公司,杭州大洋刀业有限公司,杭州鸿艺工贸有限公司,杭州华迪纺织有限公司,杭州华馨家纺有限公司,杭州九龙机械制造有限公司,杭州联德金属制品有限公司,杭州路宗机械有限公司,杭州绿康护理院有限公司,杭州欧创布艺织造有限公司,杭州仁祥泵业有限公司,杭州瑞高家用纺织品有限公司,杭州瑞温实业有限公司,杭州赛龙机电设备有限公司,杭州市余杭区云会中心小学,杭州双马纺织品有限公司,杭州松井包装有限公司,杭州天顺消防器材有限公司,杭州希隆纺织文体用品有限公司,杭州余杭区粮食收储有限责任公司良渚分公司,杭州余杭区仁和神工家俱厂,杭州余杭伟晨水产养殖有限公司,杭州余杭云会科杰铸造厂,玛丽高工艺品（杭州）有限公司,万兆不锈钢制品(杭州)有限公司,中国电信股份有限公司杭州余杭区分公司,中交第二航务工程局有限公司余杭分公司);一带","startTime":"2019-07-20 05:35:00","stopDate":"2019-07-20 09:30:00","orgNo":"3340140","typeCode":"电网故障停限电","poweroffArea":"110kV仁镇变:万兆G271线 因现场施工难度加大，故变更停电结束时间，原停电结束时间2019-07-20 09:30:00，变更后停电结束时间2019-07-20 11:30:00","poweroffReason":"万兆G271线 断线故障 原计划至11:30,因故障点已隔离，客户已有电，提前至9:30","powerTime":"2019-07-20 09:10:00","powerComm":"已送电","subsNo":"","lineNo":"","tgNo":"","tgName":null,"infoStatus":"1","orgName":"国网浙江杭州市余杭区供电有限公司","typeName":null,"infoStatusName":null,"dateDay":null,"orgNos":null,"nowTime":null,"countyName":null,"streetName":null,"villageName":null,"roadName":null,"communityName":null,"tranName":null,"sdLineName":null,"cityCode":"3340140","cityName":"国网浙江杭州市余杭区供电有限公司","provinceCode":null,"stopTime":"2019-07-20 09:30:00","powerType":"全部","powerOffArea":"110kV仁镇变:万兆G271线 因现场施工难度加大，故变更停电结束时间，原停电结束时间2019-07-20 09:30:00，变更后停电结束时间2019-07-20 11:30:00","powerOffReason":"万兆G271线 断线故障 原计划至11:30,因故障点已隔离，客户已有电，提前至9:30","powerOffId":"2019072031010012"},{"poweroffId":2019072031010011,"sgpoweroffId":null,"subsName":"","lineName":"10kV东旗G925线","pubTranName":"临东花苑4#公变,檀府十四号公变,檀府10号公变,檀府12号公变,临东花苑5#公变,檀府11号公变,檀府9号公变,2#,临东花苑1#专变,杭州余杭经济开发建设有限公司,临东花苑1#公变,临东花苑2#公变,临东花苑3#公变,新丝路,临东花苑6#公变,杭州振鸥科技有限公司,开发区路灯变1#,檀府十三号公变,","scope":"浙江省-杭州市-余杭区-东湖街道(红旗社区-超峰东路、星光街,梅堰社区-梅堰路、藕花洲大街、新颜路);(杭州恒诺印染有限公司,杭州余杭经济开发建设有限公司,浙江赞誉物业管理有限公司余杭分公司,浙江中都物业管理有限公司);","startTime":"2019-07-20 05:30:00","stopDate":"2019-07-20 09:30:00","orgNo":"3340140","typeCode":"电网故障停限电","poweroffArea":"110kV亭趾变:东旗G925线","poweroffReason":"东旗G925线 断线故障","powerTime":"2019-07-20 08:50:00","powerComm":"已送电","subsNo":"","lineNo":"","tgNo":"","tgName":null,"infoStatus":"1","orgName":"国网浙江杭州市余杭区供电有限公司","typeName":null,"infoStatusName":null,"dateDay":null,"orgNos":null,"nowTime":null,"countyName":null,"streetName":null,"villageName":null,"roadName":null,"communityName":null,"tranName":null,"sdLineName":null,"cityCode":"3340140","cityName":"国网浙江杭州市余杭区供电有限公司","provinceCode":null,"stopTime":"2019-07-20 09:30:00","powerType":"全部","powerOffArea":"110kV亭趾变:东旗G925线","powerOffReason":"东旗G925线 断线故障","powerOffId":"2019072031010011"},{"poweroffId":2019072031010008,"sgpoweroffId":null,"subsName":"","lineName":"10kV里项H735线","pubTranName":"绿野春天(6-2)公变,微薄1B公变,绿野春天2#专变,翠谷幽兰(7)公变,绿野春天(5-2)公变,绿野春天(5-1)公变,翠谷幽兰(6-2)公变,绿野春天(4-2)公变,I段专变,绿野春天(4-1)公变,翠谷幽兰(6-1)公变,绿野春天(6-1)公变,","scope":"浙江省-杭州市-余杭区-闲林街道(华丰行政村-五常大道,里项行政村-留和路、绿野春天小区);(杭州绿野物业管理有限公司余杭分公司,南都物业服务股份有限公司);","startTime":"2019-07-20 05:15:00","stopDate":"2019-07-20 09:15:00","orgNo":"3340140","typeCode":"电网故障停限电","poweroffArea":"110kV闲林变:里项H735线-春天开关站学天H7351线后段","poweroffReason":"里项H735线-春天开关站学天H7351线后段 断线故障","powerTime":"2019-07-20 08:35:00","powerComm":"已送电","subsNo":"","lineNo":"","tgNo":"","tgName":null,"infoStatus":"1","orgName":"国网浙江杭州市余杭区供电有限公司","typeName":null,"infoStatusName":null,"dateDay":null,"orgNos":null,"nowTime":null,"countyName":null,"streetName":null,"villageName":null,"roadName":null,"communityName":null,"tranName":null,"sdLineName":null,"cityCode":"3340140","cityName":"国网浙江杭州市余杭区供电有限公司","provinceCode":null,"stopTime":"2019-07-20 09:15:00","powerType":"全部","powerOffArea":"110kV闲林变:里项H735线-春天开关站学天H7351线后段","powerOffReason":"里项H735线-春天开关站学天H7351线后段 断线故障","powerOffId":"2019072031010008"},{"poweroffId":2019071931020346,"sgpoweroffId":null,"subsName":"","lineName":"10kV杜城H411线","pubTranName":"杜城村杨家塘公变,","scope":"浙江省-杭州市-余杭区-良渚街道-杜城村杨家塘一带","startTime":"2019-07-29 08:30:00","stopDate":"2019-07-29 16:30:00","orgNo":"3340140","typeCode":"计划停电","poweroffArea":"35kV良渚变:杜城H411线-杜城村杨家塘公变","poweroffReason":"杜城H411线杜城村杨家塘公变低压线路改造","powerTime":"2019-07-29 15:59:49","powerComm":"由于现场用户不同意停电，现场做了基础和三相不平衡装置台架，实际现场并未停电","subsNo":"","lineNo":"","tgNo":"","tgName":null,"infoStatus":"1","orgName":"国网浙江杭州市余杭区供电有限公司","typeName":null,"infoStatusName":null,"dateDay":null,"orgNos":null,"nowTime":null,"countyName":null,"streetName":null,"villageName":null,"roadName":null,"communityName":null,"tranName":null,"sdLineName":null,"cityCode":"3340140","cityName":"国网浙江杭州市余杭区供电有限公司","provinceCode":null,"stopTime":"2019-07-29 16:30:00","powerType":"全部","powerOffArea":"35kV良渚变:杜城H411线-杜城村杨家塘公变","powerOffReason":"杜城H411线杜城村杨家塘公变低压线路改造","powerOffId":"2019071931020346"},{"poweroffId":2019071931020345,"sgpoweroffId":null,"subsName":"","lineName":"10kV东洋H427线","pubTranName":"东塘河村徐家坝公变,","scope":"浙江省-杭州市-余杭区-良渚街道-东塘河行政村-东塘河村徐家坝一带","startTime":"2019-07-29 08:30:00","stopDate":"2019-07-29 16:30:00","orgNo":"3340140","typeCode":"计划停电","poweroffArea":"110kV勾庄变:东洋H427线-东塘河村徐家坝公变","poweroffReason":"东塘河村徐家坝公变低压线路改造","powerTime":"2019-07-29 16:45:56","powerComm":"已送电","subsNo":"","lineNo":"","tgNo":"","tgName":null,"infoStatus":"1","orgName":"国网浙江杭州市余杭区供电有限公司","typeName":null,"infoStatusName":null,"dateDay":null,"orgNos":null,"nowTime":null,"countyName":null,"streetName":null,"villageName":null,"roadName":null,"communityName":null,"tranName":null,"sdLineName":null,"cityCode":"3340140","cityName":"国网浙江杭州市余杭区供电有限公司","provinceCode":null,"stopTime":"2019-07-29 16:30:00","powerType":"全部","powerOffArea":"110kV勾庄变:东洋H427线-东塘河村徐家坝公变","powerOffReason":"东塘河村徐家坝公变低压线路改造","powerOffId":"2019071931020345"},{"poweroffId":2019071931020344,"sgpoweroffId":null,"subsName":"","lineName":"10kV后扬H414线","pubTranName":"杜城村方家斗公变,","scope":"浙江省杭州市余杭区良渚街道:杜城村方家斗一带","startTime":"2019-07-29 08:30:00","stopDate":"2019-07-29 16:30:00","orgNo":"3340140","typeCode":"计划停电","poweroffArea":"35kV良渚变:后扬H414线-杜城村方家斗公变","poweroffReason":"后扬H414线杜城村方家斗公变低压线路改造","powerTime":"2019-07-29 15:52:39","powerComm":"由于现场用户不同意停电，现场未停电","subsNo":"","lineNo":"","tgNo":"","tgName":null,"infoStatus":"1","orgName":"国网浙江杭州市余杭区供电有限公司","typeName":null,"infoStatusName":null,"dateDay":null,"orgNos":null,"nowTime":null,"countyName":null,"streetName":null,"villageName":null,"roadName":null,"communityName":null,"tranName":null,"sdLineName":null,"cityCode":"3340140","cityName":"国网浙江杭州市余杭区供电有限公司","provinceCode":null,"stopTime":"2019-07-29 16:30:00","powerType":"全部","powerOffArea":"35kV良渚变:后扬H414线-杜城村方家斗公变","powerOffReason":"后扬H414线杜城村方家斗公变低压线路改造","powerOffId":"2019071931020344"},{"poweroffId":2019071931020336,"sgpoweroffId":null,"subsName":"","lineName":"10kV之临6275线","pubTranName":"丛岭变,","scope":"浙江省杭州市滨江区临江花园7.8幢居民。原停电结束时间11:30、变更停电结束时间10:50原因由于施工现场环境比较复杂，存在不确定因素，因此预估施工时间适当放长了，而实际施工进行得比较顺利，因此该工作提前结束。","startTime":"2019-07-29 09:00:00","stopDate":"2019-07-29 10:50:00","orgNo":"3340101","typeCode":"计划停电","poweroffArea":"110kV之江变:之临6275线-丛岭变后段","poweroffReason":"（低压停电信息）移表","powerTime":"2019-07-29 10:01:59","powerComm":"已送电","subsNo":"","lineNo":"","tgNo":"","tgName":null,"infoStatus":"1","orgName":"浙江杭州电力客户服务中心","typeName":null,"infoStatusName":null,"dateDay":null,"orgNos":null,"nowTime":null,"countyName":null,"streetName":null,"villageName":null,"roadName":null,"communityName":null,"tranName":null,"sdLineName":null,"cityCode":"3340101","cityName":"浙江杭州电力客户服务中心","provinceCode":null,"stopTime":"2019-07-29 10:50:00","powerType":"全部","powerOffArea":"110kV之江变:之临6275线-丛岭变后段","powerOffReason":"（低压停电信息）移表","powerOffId":"2019071931020336"},{"poweroffId":2019071931020295,"sgpoweroffId":null,"subsName":"","lineName":"10kV冯金G906线","pubTranName":"永西5组1号变,","scope":"浙江省杭州市余杭区乔司街道：永西村一带","startTime":"2019-07-31 08:30:00","stopDate":"2019-07-31 13:00:00","orgNo":"3340140","typeCode":"计划停电","poweroffArea":"110kV庙港变:冯金G906线-永西5组1号变后段","poweroffReason":"配网工程（2019年杭州余杭乔司地区永西社区等配变台区改造工程）：电缆、表箱整改 原停电结束时间16：50，因检修力量充足，提前完成工作任务，现变更停电结束时间13：00","powerTime":"2019-07-31 12:16:04","powerComm":"施工结束","subsNo":"","lineNo":"","tgNo":"","tgName":null,"infoStatus":"1","orgName":"国网浙江杭州市余杭区供电有限公司","typeName":null,"infoStatusName":null,"dateDay":null,"orgNos":null,"nowTime":null,"countyName":null,"streetName":null,"villageName":null,"roadName":null,"communityName":null,"tranName":null,"sdLineName":null,"cityCode":"3340140","cityName":"国网浙江杭州市余杭区供电有限公司","provinceCode":null,"stopTime":"2019-07-31 13:00:00","powerType":"全部","powerOffArea":"110kV庙港变:冯金G906线-永西5组1号变后段","powerOffReason":"配网工程（2019年杭州余杭乔司地区永西社区等配变台区改造工程）：电缆、表箱整改 原停电结束时间16：50，因检修力量充足，提前完成工作任务，现变更停电结束时间13：00","powerOffId":"2019071931020295"}],"pageModel":{"pageNow":1430,"totalCount":17789,"totalPage":1779,"tableRows":0,"pageCount":10,"beginCount":14290},"isExperi":"1"}