{"message":"","today":"2020-06-16","seleList":[{"poweroffId":2019071931020157,"sgpoweroffId":null,"subsName":"","lineName":"10kV闸口6801线","pubTranName":"白塔岭变,","scope":"浙江省杭州市上城区白塔岭15.16.17.18.19.20.23.24.29.36.37.38.41.45.46.48号.白塔岭移动、白塔岭平房、白塔岭路灯、白塔岭厕所附近一带","startTime":"2019-07-29 09:30:00","stopDate":"2019-07-29 13:30:00","orgNo":"3340101","typeCode":"计划停电","poweroffArea":"110kV复兴变:闸口6801线-白塔变线后段","poweroffReason":"杭州市园林建设处白塔岭沿线部分上改下 。原停电结束时间17:00，变更停电结束时间13:30，原因由于施工现场环境比较复杂，存在不确定因素，因此预估施工时间适当放长了，而实际施工进行得比较顺利，因此该工作提前结束。","powerTime":"2019-07-29 12:49:57","powerComm":"已送电","subsNo":"","lineNo":"","tgNo":"","tgName":null,"infoStatus":"1","orgName":"浙江杭州电力客户服务中心","typeName":null,"infoStatusName":null,"dateDay":null,"orgNos":null,"nowTime":null,"countyName":null,"streetName":null,"villageName":null,"roadName":null,"communityName":null,"tranName":null,"sdLineName":null,"cityCode":"3340101","cityName":"浙江杭州电力客户服务中心","provinceCode":null,"stopTime":"2019-07-29 13:30:00","powerType":"全部","powerOffArea":"110kV复兴变:闸口6801线-白塔变线后段","powerOffReason":"杭州市园林建设处白塔岭沿线部分上改下 。原停电结束时间17:00，变更停电结束时间13:30，原因由于施工现场环境比较复杂，存在不确定因素，因此预估施工时间适当放长了，而实际施工进行得比较顺利，因此该工作提前结束。","powerOffId":"2019071931020157"},{"poweroffId":2019071931020155,"sgpoweroffId":null,"subsName":"","lineName":"10kV烟云8546线","pubTranName":"望府二变,","scope":"浙江省杭州市上城区望江府2、7幢动力主供和住宅供电附近一带，","startTime":"2019-07-31 09:00:00","stopDate":"2019-07-31 13:00:00","orgNo":"3340101","typeCode":"计划停电","poweroffArea":"220kV候潮变:烟云8546线-望府二变线后段","poweroffReason":"江枫苑等小区充电桩配套工程。原停电结束时间17:00，变更停电结束时间13:00，原因由于施工现场环境比较复杂，存在不确定因素，因此预估施工时间适当放长了，而实际施工进行得比较顺利，因此该工作提前结束。","powerTime":"2019-07-31 12:18:53","powerComm":"已送电","subsNo":"","lineNo":"","tgNo":"","tgName":null,"infoStatus":"1","orgName":"浙江杭州电力客户服务中心","typeName":null,"infoStatusName":null,"dateDay":null,"orgNos":null,"nowTime":null,"countyName":null,"streetName":null,"villageName":null,"roadName":null,"communityName":null,"tranName":null,"sdLineName":null,"cityCode":"3340101","cityName":"浙江杭州电力客户服务中心","provinceCode":null,"stopTime":"2019-07-31 13:00:00","powerType":"全部","powerOffArea":"220kV候潮变:烟云8546线-望府二变线后段","powerOffReason":"江枫苑等小区充电桩配套工程。原停电结束时间17:00，变更停电结束时间13:00，原因由于施工现场环境比较复杂，存在不确定因素，因此预估施工时间适当放长了，而实际施工进行得比较顺利，因此该工作提前结束。","powerOffId":"2019071931020155"},{"poweroffId":2019071931020154,"sgpoweroffId":null,"subsName":"","lineName":"10kV鱼鸟8557线","pubTranName":"望府三变,","scope":"浙江省杭州市上城区望江府2、7幢动力主供和住宅供电附近一带","startTime":"2019-07-31 09:00:00","stopDate":"2019-07-31 13:00:00","orgNo":"3340101","typeCode":"计划停电","poweroffArea":"220kV候潮变:鱼鸟8557线-望府三变线后段","poweroffReason":"江枫苑等小区充电桩配套工程。原停电结束时间17:00，变更停电结束时间13:00，原因由于施工现场环境比较复杂，存在不确定因素，因此预估施工时间适当放长了，而实际施工进行得比较顺利，因此该工作提前结束。","powerTime":"2019-07-31 12:12:59","powerComm":"已送电","subsNo":"","lineNo":"","tgNo":"","tgName":null,"infoStatus":"1","orgName":"浙江杭州电力客户服务中心","typeName":null,"infoStatusName":null,"dateDay":null,"orgNos":null,"nowTime":null,"countyName":null,"streetName":null,"villageName":null,"roadName":null,"communityName":null,"tranName":null,"sdLineName":null,"cityCode":"3340101","cityName":"浙江杭州电力客户服务中心","provinceCode":null,"stopTime":"2019-07-31 13:00:00","powerType":"全部","powerOffArea":"220kV候潮变:鱼鸟8557线-望府三变线后段","powerOffReason":"江枫苑等小区充电桩配套工程。原停电结束时间17:00，变更停电结束时间13:00，原因由于施工现场环境比较复杂，存在不确定因素，因此预估施工时间适当放长了，而实际施工进行得比较顺利，因此该工作提前结束。","powerOffId":"2019071931020154"},{"poweroffId":2019071931020145,"sgpoweroffId":null,"subsName":"","lineName":"10kV栖霞6506线","pubTranName":"西泠变,","scope":"浙江省杭州市西湖区北山路66号—76号附近一带","startTime":"2019-08-02 09:30:00","stopDate":"2019-08-02 13:30:00","orgNo":"3340101","typeCode":"计划停电","poweroffArea":"35kV求是变:栖霞6506线-西变二线后段","poweroffReason":"(低压停电信息)西泠变二次接线整改，原停电结束时间17:00，变更停电结束时间13:30，原因由于施工现场环境比较复杂，存在不确定因素，因此预估施工时间适当放长了，而实际施工进行得比较顺利，因此该工作提前结束。","powerTime":"2019-08-02 12:42:59","powerComm":"已送电","subsNo":"","lineNo":"","tgNo":"","tgName":null,"infoStatus":"1","orgName":"浙江杭州电力客户服务中心","typeName":null,"infoStatusName":null,"dateDay":null,"orgNos":null,"nowTime":null,"countyName":null,"streetName":null,"villageName":null,"roadName":null,"communityName":null,"tranName":null,"sdLineName":null,"cityCode":"3340101","cityName":"浙江杭州电力客户服务中心","provinceCode":null,"stopTime":"2019-08-02 13:30:00","powerType":"全部","powerOffArea":"35kV求是变:栖霞6506线-西变二线后段","powerOffReason":"(低压停电信息)西泠变二次接线整改，原停电结束时间17:00，变更停电结束时间13:30，原因由于施工现场环境比较复杂，存在不确定因素，因此预估施工时间适当放长了，而实际施工进行得比较顺利，因此该工作提前结束。","powerOffId":"2019071931020145"},{"poweroffId":2019071931020143,"sgpoweroffId":null,"subsName":"","lineName":"10kV南蒋G905线","pubTranName":"南蒋2组6号公变,","scope":"浙江省杭州市余杭区乔司街道:五星村、南蒋村一带","startTime":"2019-07-29 08:30:00","stopDate":"2019-07-29 16:50:00","orgNo":"3340140","typeCode":"计划停电","poweroffArea":"110kV庙港变:南蒋G905线南蒋2组6号公变后段","poweroffReason":"网工程（2019年杭州余杭南苑地区万常社区等配变台区改造工程）：新放导线8档、拆除导线6档、做拉线2组、移农灌箱1台","powerTime":"2019-07-29 15:57:26","powerComm":"施工结束","subsNo":"","lineNo":"","tgNo":"","tgName":null,"infoStatus":"1","orgName":"国网浙江杭州市余杭区供电有限公司","typeName":null,"infoStatusName":null,"dateDay":null,"orgNos":null,"nowTime":null,"countyName":null,"streetName":null,"villageName":null,"roadName":null,"communityName":null,"tranName":null,"sdLineName":null,"cityCode":"3340140","cityName":"国网浙江杭州市余杭区供电有限公司","provinceCode":null,"stopTime":"2019-07-29 16:50:00","powerType":"全部","powerOffArea":"110kV庙港变:南蒋G905线南蒋2组6号公变后段","powerOffReason":"网工程（2019年杭州余杭南苑地区万常社区等配变台区改造工程）：新放导线8档、拆除导线6档、做拉线2组、移农灌箱1台","powerOffId":"2019071931020143"},{"poweroffId":2019071931020141,"sgpoweroffId":null,"subsName":"","lineName":"10kV农校H413线","pubTranName":"良渚村张家桥公变,","scope":"浙江省-杭州市-余杭区-良渚街道-良渚村张家桥一带","startTime":"2019-08-02 08:30:00","stopDate":"2019-08-02 16:30:00","orgNo":"3340140","typeCode":"计划停电","poweroffArea":"35kV良渚变:农校H413线-良渚村张家桥公变","poweroffReason":"农校H413线良渚村张家桥公变低压线路改造","powerTime":"2019-08-02 15:38:39","powerComm":"现场已送点","subsNo":"","lineNo":"","tgNo":"","tgName":null,"infoStatus":"1","orgName":"国网浙江杭州市余杭区供电有限公司","typeName":null,"infoStatusName":null,"dateDay":null,"orgNos":null,"nowTime":null,"countyName":null,"streetName":null,"villageName":null,"roadName":null,"communityName":null,"tranName":null,"sdLineName":null,"cityCode":"3340140","cityName":"国网浙江杭州市余杭区供电有限公司","provinceCode":null,"stopTime":"2019-08-02 16:30:00","powerType":"全部","powerOffArea":"35kV良渚变:农校H413线-良渚村张家桥公变","powerOffReason":"农校H413线良渚村张家桥公变低压线路改造","powerOffId":"2019071931020141"},{"poweroffId":2019071931020126,"sgpoweroffId":null,"subsName":"","lineName":"10kV兰庄D604线","pubTranName":"东前村宫前3号庙前畈公变,","scope":"浙江省杭州市富阳区大源镇东前村庙前畈村一带","startTime":"2019-07-29 07:00:00","stopDate":"2019-07-29 13:00:00","orgNo":"3340170","typeCode":"计划停电","poweroffArea":"35kV溪东变:兰庄D604线-东前村宫前3号庙前畈公变低压开关后段","poweroffReason":"（低压停电信息）江南2019年缺陷处理工程安装横担、拉线、拆装导线、接户线搭接等工作，原停电结束时间为2019-07-29 12:40:00，因施工复杂变更至2019-07-29 13:00:00","powerTime":"2019-07-29 12:47:08","powerComm":"已送电","subsNo":"","lineNo":"","tgNo":"","tgName":null,"infoStatus":"1","orgName":"国网浙江杭州市富阳区供电公司","typeName":null,"infoStatusName":null,"dateDay":null,"orgNos":null,"nowTime":null,"countyName":null,"streetName":null,"villageName":null,"roadName":null,"communityName":null,"tranName":null,"sdLineName":null,"cityCode":"3340170","cityName":"国网浙江杭州市富阳区供电公司","provinceCode":null,"stopTime":"2019-07-29 13:00:00","powerType":"全部","powerOffArea":"35kV溪东变:兰庄D604线-东前村宫前3号庙前畈公变低压开关后段","powerOffReason":"（低压停电信息）江南2019年缺陷处理工程安装横担、拉线、拆装导线、接户线搭接等工作，原停电结束时间为2019-07-29 12:40:00，因施工复杂变更至2019-07-29 13:00:00","powerOffId":"2019071931020126"},{"poweroffId":2019071931020125,"sgpoweroffId":null,"subsName":"","lineName":"10kV交通D364线","pubTranName":"秋丰村53号湖南山公变,","scope":"浙江省-杭州市-富阳区-富春街道-秋丰行政村-秋丰自然村","startTime":"2019-07-31 06:40:00","stopDate":"2019-07-31 12:50:00","orgNo":"3340170","typeCode":"计划停电","poweroffArea":"110kV富鹿变:交通D364线-秋丰村53号湖南山后段","poweroffReason":"（低压停电信息）青云2019年东山村4#桥头公变等低压台区改造工程更换落户线26处，搭接等工作","powerTime":"2019-07-31 12:37:49","powerComm":"已送电","subsNo":"","lineNo":"","tgNo":"","tgName":null,"infoStatus":"1","orgName":"国网浙江杭州市富阳区供电公司","typeName":null,"infoStatusName":null,"dateDay":null,"orgNos":null,"nowTime":null,"countyName":null,"streetName":null,"villageName":null,"roadName":null,"communityName":null,"tranName":null,"sdLineName":null,"cityCode":"3340170","cityName":"国网浙江杭州市富阳区供电公司","provinceCode":null,"stopTime":"2019-07-31 12:50:00","powerType":"全部","powerOffArea":"110kV富鹿变:交通D364线-秋丰村53号湖南山后段","powerOffReason":"（低压停电信息）青云2019年东山村4#桥头公变等低压台区改造工程更换落户线26处，搭接等工作","powerOffId":"2019071931020125"},{"poweroffId":2019071931020124,"sgpoweroffId":null,"subsName":"","lineName":"10kV宫前D603线","pubTranName":"东前村溪东1#溪东公变,","scope":"浙江省杭州市富阳区大源镇东前村溪东村一带","startTime":"2019-07-31 07:00:00","stopDate":"2019-07-31 12:40:00","orgNo":"3340170","typeCode":"计划停电","poweroffArea":"35kV溪东变:宫前D603线-东前村溪东1#溪东公变低压开关后段","poweroffReason":"（低压停电信息）江南2019年缺陷处理工程安装横担、拉线、拆装导线、接户线搭接等工作","powerTime":"2019-07-31 12:30:09","powerComm":"已送电","subsNo":"","lineNo":"","tgNo":"","tgName":null,"infoStatus":"1","orgName":"国网浙江杭州市富阳区供电公司","typeName":null,"infoStatusName":null,"dateDay":null,"orgNos":null,"nowTime":null,"countyName":null,"streetName":null,"villageName":null,"roadName":null,"communityName":null,"tranName":null,"sdLineName":null,"cityCode":"3340170","cityName":"国网浙江杭州市富阳区供电公司","provinceCode":null,"stopTime":"2019-07-31 12:40:00","powerType":"全部","powerOffArea":"35kV溪东变:宫前D603线-东前村溪东1#溪东公变低压开关后段","powerOffReason":"（低压停电信息）江南2019年缺陷处理工程安装横担、拉线、拆装导线、接户线搭接等工作","powerOffId":"2019071931020124"},{"poweroffId":2019071931020123,"sgpoweroffId":null,"subsName":"","lineName":"10kV南站D321线","pubTranName":"中沙村10#新区公变,","scope":"浙江省杭州市富阳区春江街道中沙村一带","startTime":"2019-08-02 07:00:00","stopDate":"2019-08-02 12:40:00","orgNo":"3340170","typeCode":"计划停电","poweroffArea":"110kV建设变:南站D321线-中沙村10#新区公变低压开关后段","poweroffReason":"（低压停电信息）江南2019年缺陷处理工程挖洞、运杆、立杆、拆旧架线搭接等工作","powerTime":"2019-08-02 12:22:01","powerComm":"已送电","subsNo":"","lineNo":"","tgNo":"","tgName":null,"infoStatus":"1","orgName":"国网浙江杭州市富阳区供电公司","typeName":null,"infoStatusName":null,"dateDay":null,"orgNos":null,"nowTime":null,"countyName":null,"streetName":null,"villageName":null,"roadName":null,"communityName":null,"tranName":null,"sdLineName":null,"cityCode":"3340170","cityName":"国网浙江杭州市富阳区供电公司","provinceCode":null,"stopTime":"2019-08-02 12:40:00","powerType":"全部","powerOffArea":"110kV建设变:南站D321线-中沙村10#新区公变低压开关后段","powerOffReason":"（低压停电信息）江南2019年缺陷处理工程挖洞、运杆、立杆、拆旧架线搭接等工作","powerOffId":"2019071931020123"}],"pageModel":{"pageNow":1434,"totalCount":17789,"totalPage":1779,"tableRows":0,"pageCount":10,"beginCount":14330},"isExperi":"1"}