{"message":"","today":"2020-06-16","seleList":[{"poweroffId":2019071931020086,"sgpoweroffId":null,"subsName":"","lineName":"10kV大吉H476线","pubTranName":"金家渡中苑东2号公变,金家渡中苑西3号公变,金家渡中苑东1号公变,","scope":"浙江省杭州市余杭区良渚街道：金家渡中苑东1、金家渡中苑东2、 金家渡中苑西3一带","startTime":"2019-08-14 09:40:00","stopDate":"2019-08-14 14:50:00","orgNo":"3340140","typeCode":"计划停电","poweroffArea":"110kV金渡变:大吉H476线-大吉H476线金家渡中苑分线开关后段 因施工力量增强，工作提前完成，原停电结束时间：2019-08-14 17:40:00，现停电结束时间：2019-08-14 14:50:00","poweroffReason":"大吉H476线金家渡中苑分线新布2台630kVA金家渡中苑东3号公变（地埋变）","powerTime":"2019-08-14 14:26:16","powerComm":"已送电","subsNo":"","lineNo":"","tgNo":"","tgName":null,"infoStatus":"1","orgName":"国网浙江杭州市余杭区供电有限公司","typeName":null,"infoStatusName":null,"dateDay":null,"orgNos":null,"nowTime":null,"countyName":null,"streetName":null,"villageName":null,"roadName":null,"communityName":null,"tranName":null,"sdLineName":null,"cityCode":"3340140","cityName":"国网浙江杭州市余杭区供电有限公司","provinceCode":null,"stopTime":"2019-08-14 14:50:00","powerType":"全部","powerOffArea":"110kV金渡变:大吉H476线-大吉H476线金家渡中苑分线开关后段 因施工力量增强，工作提前完成，原停电结束时间：2019-08-14 17:40:00，现停电结束时间：2019-08-14 14:50:00","powerOffReason":"大吉H476线金家渡中苑分线新布2台630kVA金家渡中苑东3号公变（地埋变）","powerOffId":"2019071931020086"},{"poweroffId":2019071931020085,"sgpoweroffId":null,"subsName":"","lineName":"10kV南凤H622线","pubTranName":"余杭三小,凤凰村四组公变,余杭街道第四幼儿园基建变,","scope":"浙江省杭州市余杭区余杭街道：城南路凤凰小学城南校区、余杭街道第四幼儿园工地、凤凰村四组一带","startTime":"2019-08-02 10:00:00","stopDate":"2019-08-02 15:00:00","orgNo":"3340140","typeCode":"计划停电","poweroffArea":"110kV桃源变:南凤H622线-方汇分支箱分线后段","poweroffReason":"计划工作","powerTime":"2019-08-02 14:37:38","powerComm":"已全部送电。","subsNo":"","lineNo":"","tgNo":"","tgName":null,"infoStatus":"1","orgName":"国网浙江杭州市余杭区供电有限公司","typeName":null,"infoStatusName":null,"dateDay":null,"orgNos":null,"nowTime":null,"countyName":null,"streetName":null,"villageName":null,"roadName":null,"communityName":null,"tranName":null,"sdLineName":null,"cityCode":"3340140","cityName":"国网浙江杭州市余杭区供电有限公司","provinceCode":null,"stopTime":"2019-08-02 15:00:00","powerType":"全部","powerOffArea":"110kV桃源变:南凤H622线-方汇分支箱分线后段","powerOffReason":"计划工作","powerOffId":"2019071931020085"},{"poweroffId":2019071931020084,"sgpoweroffId":null,"subsName":"","lineName":"10kV五联D264线","pubTranName":"五联村7#石冲岭公变,","scope":"浙江省-杭州市-富阳区-常绿镇-五联行政村-石冲岭脚自然村一带","startTime":"2019-07-31 06:30:00","stopDate":"2019-07-31 12:10:00","orgNo":"3340170","typeCode":"计划停电","poweroffArea":"35kV盛村变:五联D264线-五联村7号石冲岭公变后段","poweroffReason":"（低压停电信息）五联村7#石冲岭公变安装出线电缆、接户线改接等工作","powerTime":"2019-07-31 12:00:14","powerComm":"已送电","subsNo":"","lineNo":"","tgNo":"","tgName":null,"infoStatus":"1","orgName":"国网浙江杭州市富阳区供电公司","typeName":null,"infoStatusName":null,"dateDay":null,"orgNos":null,"nowTime":null,"countyName":null,"streetName":null,"villageName":null,"roadName":null,"communityName":null,"tranName":null,"sdLineName":null,"cityCode":"3340170","cityName":"国网浙江杭州市富阳区供电公司","provinceCode":null,"stopTime":"2019-07-31 12:10:00","powerType":"全部","powerOffArea":"35kV盛村变:五联D264线-五联村7号石冲岭公变后段","powerOffReason":"（低压停电信息）五联村7#石冲岭公变安装出线电缆、接户线改接等工作","powerOffId":"2019071931020084"},{"poweroffId":2019071931020083,"sgpoweroffId":null,"subsName":"","lineName":"10kV五联D264线","pubTranName":"五联村5号菜坞口公变,","scope":"浙江省-杭州市-富阳区-常绿镇-五联行政村-菜坞口自然村一带","startTime":"2019-08-03 06:30:00","stopDate":"2019-08-03 12:10:00","orgNo":"3340170","typeCode":"计划停电","poweroffArea":"35kV盛村变:五联D264线-五联村5号菜坞口公变后段","poweroffReason":"（低压停电信息）五联村5#菜坞口公变更换两组低压出线电缆等工作","powerTime":"2019-08-03 12:00:19","powerComm":"已送电","subsNo":"","lineNo":"","tgNo":"","tgName":null,"infoStatus":"1","orgName":"国网浙江杭州市富阳区供电公司","typeName":null,"infoStatusName":null,"dateDay":null,"orgNos":null,"nowTime":null,"countyName":null,"streetName":null,"villageName":null,"roadName":null,"communityName":null,"tranName":null,"sdLineName":null,"cityCode":"3340170","cityName":"国网浙江杭州市富阳区供电公司","provinceCode":null,"stopTime":"2019-08-03 12:10:00","powerType":"全部","powerOffArea":"35kV盛村变:五联D264线-五联村5号菜坞口公变后段","powerOffReason":"（低压停电信息）五联村5#菜坞口公变更换两组低压出线电缆等工作","powerOffId":"2019071931020083"},{"poweroffId":2019071931020051,"sgpoweroffId":null,"subsName":"","lineName":"10kV城后V512线","pubTranName":"10kV海龙村[方家]公变,10kV海龙村[许家]公变,10kV海龙村[龙寺]公变,","scope":"浙江省-杭州市-临安市-潜川镇-方家、龙寺、许家一带","startTime":"2019-08-01 06:00:00","stopDate":"2019-08-01 17:20:00","orgNo":"3340160","typeCode":"计划停电","poweroffArea":"城后V512线海龙分线79#杆建新支线开关","poweroffReason":"城后V512线等分支线改造:城后V512线海龙分线建新支线1#-30#杆插杆，导线调换","powerTime":"2019-08-01 17:10:13","powerComm":"已送电","subsNo":"","lineNo":"","tgNo":"","tgName":null,"infoStatus":"1","orgName":"国网浙江临安市供电公司","typeName":null,"infoStatusName":null,"dateDay":null,"orgNos":null,"nowTime":null,"countyName":null,"streetName":null,"villageName":null,"roadName":null,"communityName":null,"tranName":null,"sdLineName":null,"cityCode":"3340160","cityName":"国网浙江临安市供电公司","provinceCode":null,"stopTime":"2019-08-01 17:20:00","powerType":"全部","powerOffArea":"城后V512线海龙分线79#杆建新支线开关","powerOffReason":"城后V512线等分支线改造:城后V512线海龙分线建新支线1#-30#杆插杆，导线调换","powerOffId":"2019071931020051"},{"poweroffId":2019071931020050,"sgpoweroffId":null,"subsName":"","lineName":"10kV紫水V505线","pubTranName":"临安锦鑫紧固件有限公司,","scope":"浙江省-杭州市-临安市-潜川镇-临安锦鑫紧固件有限公司一带","startTime":"2019-08-01 07:00:00","stopDate":"2019-08-01 16:00:00","orgNo":"3340160","typeCode":"计划停电","poweroffArea":"紫水V505线257#杆金松木业分线","poweroffReason":"紫水V505线金松木业分线割接","powerTime":"2019-08-01 15:50:16","powerComm":"已送电","subsNo":"","lineNo":"","tgNo":"","tgName":null,"infoStatus":"1","orgName":"国网浙江临安市供电公司","typeName":null,"infoStatusName":null,"dateDay":null,"orgNos":null,"nowTime":null,"countyName":null,"streetName":null,"villageName":null,"roadName":null,"communityName":null,"tranName":null,"sdLineName":null,"cityCode":"3340160","cityName":"国网浙江临安市供电公司","provinceCode":null,"stopTime":"2019-08-01 16:00:00","powerType":"全部","powerOffArea":"紫水V505线257#杆金松木业分线","powerOffReason":"紫水V505线金松木业分线割接","powerOffId":"2019071931020050"},{"poweroffId":2019071931020048,"sgpoweroffId":null,"subsName":"","lineName":"10kV塔山V232线","pubTranName":"临安市紫水树脂厂,10kV牧亭村[新梅下]公变,","scope":"浙江省-杭州市-临安市-潜川镇-新梅下、临安市紫水树脂厂一带","startTime":"2019-08-02 05:40:00","stopDate":"2019-08-02 12:00:00","orgNo":"3340160","typeCode":"计划停电","poweroffArea":"塔山V232线15#杆新梅下变分线开关","poweroffReason":"城后V512线等分支线改造：塔山V232线新梅下变分线7#-12#杆调杆调导线","powerTime":"2019-08-02 11:50:23","powerComm":"已送电","subsNo":"","lineNo":"","tgNo":"","tgName":null,"infoStatus":"1","orgName":"国网浙江临安市供电公司","typeName":null,"infoStatusName":null,"dateDay":null,"orgNos":null,"nowTime":null,"countyName":null,"streetName":null,"villageName":null,"roadName":null,"communityName":null,"tranName":null,"sdLineName":null,"cityCode":"3340160","cityName":"国网浙江临安市供电公司","provinceCode":null,"stopTime":"2019-08-02 12:00:00","powerType":"全部","powerOffArea":"塔山V232线15#杆新梅下变分线开关","powerOffReason":"城后V512线等分支线改造：塔山V232线新梅下变分线7#-12#杆调杆调导线","powerOffId":"2019071931020048"},{"poweroffId":2019071931020034,"sgpoweroffId":null,"subsName":"","lineName":"10kV石瑞V134线","pubTranName":"召黄二,","scope":"浙江省-杭州市-临安市-河桥镇-金燕村召黄一带。","startTime":"2019-07-29 06:40:00","stopDate":"2019-07-29 12:20:00","orgNo":"3340160","typeCode":"计划停电","poweroffArea":"110kV昌化变:石瑞V134线-召黄村（二）分线令克后段","poweroffReason":"美丽公路","powerTime":"2019-07-29 12:10:51","powerComm":"已送电","subsNo":"","lineNo":"","tgNo":"","tgName":null,"infoStatus":"1","orgName":"国网浙江临安市供电公司","typeName":null,"infoStatusName":null,"dateDay":null,"orgNos":null,"nowTime":null,"countyName":null,"streetName":null,"villageName":null,"roadName":null,"communityName":null,"tranName":null,"sdLineName":null,"cityCode":"3340160","cityName":"国网浙江临安市供电公司","provinceCode":null,"stopTime":"2019-07-29 12:20:00","powerType":"全部","powerOffArea":"110kV昌化变:石瑞V134线-召黄村（二）分线令克后段","powerOffReason":"美丽公路","powerOffId":"2019071931020034"},{"poweroffId":2019071931020033,"sgpoweroffId":null,"subsName":"","lineName":"10kV迎丰V783线","pubTranName":"陆家村阮家,陆家村考坑,勤丰村外方家,勤丰村吴家,陆家村,杭州临安湍口众安氡温泉度假酒店有限公司,杭州湍口忠安汇尊温泉度假村有限公司,","scope":"浙江省-杭州市-临安市-湍口镇-湍源村吴家,外方家,陆家,大溪滩,考坑，温泉二期一带。","startTime":"2019-07-30 07:10:00","stopDate":"2019-07-30 17:20:00","orgNo":"3340160","typeCode":"计划停电","poweroffArea":"35kV湍口变:迎丰V783线-陆家支线负荷开关后段","poweroffReason":"分线改造","powerTime":"2019-07-30 17:10:19","powerComm":"已送电","subsNo":"","lineNo":"","tgNo":"","tgName":null,"infoStatus":"1","orgName":"国网浙江临安市供电公司","typeName":null,"infoStatusName":null,"dateDay":null,"orgNos":null,"nowTime":null,"countyName":null,"streetName":null,"villageName":null,"roadName":null,"communityName":null,"tranName":null,"sdLineName":null,"cityCode":"3340160","cityName":"国网浙江临安市供电公司","provinceCode":null,"stopTime":"2019-07-30 17:20:00","powerType":"全部","powerOffArea":"35kV湍口变:迎丰V783线-陆家支线负荷开关后段","powerOffReason":"分线改造","powerOffId":"2019071931020033"},{"poweroffId":2019071931020032,"sgpoweroffId":null,"subsName":"","lineName":"10kV茆里V475线","pubTranName":"浙江天诚电力载波有限公司临安分公司,","scope":"浙江省-杭州市-临安市-龙岗镇-浙江天诚电力载波技术有限公司一带。","startTime":"2019-07-31 07:40:00","stopDate":"2019-07-31 11:20:00","orgNo":"3340160","typeCode":"临时停电","poweroffArea":"110kV龙岗变:茆里V475线-丰野食品公司支线7#杆开关后段","poweroffReason":"新上专变","powerTime":"2019-07-31 11:10:15","powerComm":"已送电","subsNo":"","lineNo":"","tgNo":"","tgName":null,"infoStatus":"1","orgName":"国网浙江临安市供电公司","typeName":null,"infoStatusName":null,"dateDay":null,"orgNos":null,"nowTime":null,"countyName":null,"streetName":null,"villageName":null,"roadName":null,"communityName":null,"tranName":null,"sdLineName":null,"cityCode":"3340160","cityName":"国网浙江临安市供电公司","provinceCode":null,"stopTime":"2019-07-31 11:20:00","powerType":"全部","powerOffArea":"110kV龙岗变:茆里V475线-丰野食品公司支线7#杆开关后段","powerOffReason":"新上专变","powerOffId":"2019071931020032"}],"pageModel":{"pageNow":1437,"totalCount":17789,"totalPage":1779,"tableRows":0,"pageCount":10,"beginCount":14360},"isExperi":"1"}