{"message":"","today":"2020-06-16","seleList":[{"poweroffId":2019071931020029,"sgpoweroffId":null,"subsName":"","lineName":"10kV下汤V143线","pubTranName":"上汤村老街,下汤3#变(石下),前山下村,龙岗前山下（二）,","scope":"浙江省-杭州市-临安市-龙岗镇-太平村狮溪,前山下,上汤村老街,下汤村石下一带；","startTime":"2019-08-02 06:40:00","stopDate":"2019-08-02 16:20:00","orgNo":"3340160","typeCode":"计划停电","poweroffArea":"110kV龙岗变:下汤V143线-前山下分线出线负荷开关后段","poweroffReason":"分线改造","powerTime":"2019-08-02 16:08:30","powerComm":"已送电","subsNo":"","lineNo":"","tgNo":"","tgName":null,"infoStatus":"1","orgName":"国网浙江临安市供电公司","typeName":null,"infoStatusName":null,"dateDay":null,"orgNos":null,"nowTime":null,"countyName":null,"streetName":null,"villageName":null,"roadName":null,"communityName":null,"tranName":null,"sdLineName":null,"cityCode":"3340160","cityName":"国网浙江临安市供电公司","provinceCode":null,"stopTime":"2019-08-02 16:20:00","powerType":"全部","powerOffArea":"110kV龙岗变:下汤V143线-前山下分线出线负荷开关后段","powerOffReason":"分线改造","powerOffId":"2019071931020029"},{"poweroffId":2019071931020026,"sgpoweroffId":null,"subsName":"","lineName":"10kV凤凰D586线","pubTranName":"长山村9号村委口公变,","scope":"浙江省-杭州市-富阳区-银湖街道-观前行政村(长山自然村,大长山自然村)","startTime":"2019-07-19 08:43:57","stopDate":"2019-07-19 10:00:57","orgNo":"3340170","typeCode":"电网故障停限电","poweroffArea":"110kV高桥变:凤凰D586线-长山村9号村委口熔断器后段","poweroffReason":"高压开关跳闸","powerTime":"2019-07-19 09:25:33","powerComm":"已送电","subsNo":"","lineNo":"","tgNo":"","tgName":null,"infoStatus":"1","orgName":"国网浙江杭州市富阳区供电公司","typeName":null,"infoStatusName":null,"dateDay":null,"orgNos":null,"nowTime":null,"countyName":null,"streetName":null,"villageName":null,"roadName":null,"communityName":null,"tranName":null,"sdLineName":null,"cityCode":"3340170","cityName":"国网浙江杭州市富阳区供电公司","provinceCode":null,"stopTime":"2019-07-19 10:00:57","powerType":"全部","powerOffArea":"110kV高桥变:凤凰D586线-长山村9号村委口熔断器后段","powerOffReason":"高压开关跳闸","powerOffId":"2019071931020026"},{"poweroffId":2019071931020024,"sgpoweroffId":null,"subsName":"","lineName":"10kV渔山D913线","pubTranName":"曙光村3#石孔里公变,","scope":"浙江省-杭州市-富阳区-渔山乡(渔山行政村-曙光自然村-石孔里自然村一带)","startTime":"2019-07-29 06:30:00","stopDate":"2019-07-29 15:00:00","orgNo":"3340170","typeCode":"计划停电","poweroffArea":"110kV里渔变:渔山D913线-曙光村3号石孔里低压开关后段","poweroffReason":"（低压停电信息）新装出线YJV150电缆1路，新架JKLYJ120导线12档，搭接等工作。","powerTime":"2019-07-29 14:52:16","powerComm":"已送电","subsNo":"","lineNo":"","tgNo":"","tgName":null,"infoStatus":"1","orgName":"国网浙江杭州市富阳区供电公司","typeName":null,"infoStatusName":null,"dateDay":null,"orgNos":null,"nowTime":null,"countyName":null,"streetName":null,"villageName":null,"roadName":null,"communityName":null,"tranName":null,"sdLineName":null,"cityCode":"3340170","cityName":"国网浙江杭州市富阳区供电公司","provinceCode":null,"stopTime":"2019-07-29 15:00:00","powerType":"全部","powerOffArea":"110kV里渔变:渔山D913线-曙光村3号石孔里低压开关后段","powerOffReason":"（低压停电信息）新装出线YJV150电缆1路，新架JKLYJ120导线12档，搭接等工作。","powerOffId":"2019071931020024"},{"poweroffId":2019071931020021,"sgpoweroffId":null,"subsName":"","lineName":"10kV贤德D333线","pubTranName":"大溪村12#大坞毛山公变,","scope":"浙江省杭州市富阳区洞桥镇大溪村行政村大坞毛山自然村一带","startTime":"2019-07-29 06:30:00","stopDate":"2019-07-29 13:30:00","orgNo":"3340170","typeCode":"计划停电","poweroffArea":"110kV万市变:贤德D333线-大溪村12#大坞毛山公变低压开关后段","poweroffReason":"（低压停电信息）农用03线架设导线JKLYJ-70*4*15档、拆除导线JKLYJ-70*4*15档、安装横担16付、拉线6支、拆除横担15付、拉线5支","powerTime":"2019-07-29 13:20:24","powerComm":"已送电","subsNo":"","lineNo":"","tgNo":"","tgName":null,"infoStatus":"1","orgName":"国网浙江杭州市富阳区供电公司","typeName":null,"infoStatusName":null,"dateDay":null,"orgNos":null,"nowTime":null,"countyName":null,"streetName":null,"villageName":null,"roadName":null,"communityName":null,"tranName":null,"sdLineName":null,"cityCode":"3340170","cityName":"国网浙江杭州市富阳区供电公司","provinceCode":null,"stopTime":"2019-07-29 13:30:00","powerType":"全部","powerOffArea":"110kV万市变:贤德D333线-大溪村12#大坞毛山公变低压开关后段","powerOffReason":"（低压停电信息）农用03线架设导线JKLYJ-70*4*15档、拆除导线JKLYJ-70*4*15档、安装横担16付、拉线6支、拆除横担15付、拉线5支","powerOffId":"2019071931020021"},{"poweroffId":2019071931020015,"sgpoweroffId":null,"subsName":"","lineName":"10kV胥口D712线","pubTranName":"佛鲁村7#童家园公变,","scope":"浙江省杭州市富阳区胥口镇佛鲁行政村童家园自然村一带","startTime":"2019-07-30 06:00:00","stopDate":"2019-07-30 13:30:00","orgNo":"3340170","typeCode":"计划停电","poweroffArea":"110kV松溪变:胥口D712线-佛鲁村7#童家园公变低压开关后段","poweroffReason":"（低压停电信息）童家园01线拆除JKLYJ-120*4*3档、JKLYJ-70*4*1档、BS-JKLYJ-2*25*2档、架JKLYJ-120*4*6档、敷设YJV22-4*35电缆100米、安装表箱表计、拆旧集中表箱","powerTime":"2019-07-30 13:17:02","powerComm":"已送电","subsNo":"","lineNo":"","tgNo":"","tgName":null,"infoStatus":"1","orgName":"国网浙江杭州市富阳区供电公司","typeName":null,"infoStatusName":null,"dateDay":null,"orgNos":null,"nowTime":null,"countyName":null,"streetName":null,"villageName":null,"roadName":null,"communityName":null,"tranName":null,"sdLineName":null,"cityCode":"3340170","cityName":"国网浙江杭州市富阳区供电公司","provinceCode":null,"stopTime":"2019-07-30 13:30:00","powerType":"全部","powerOffArea":"110kV松溪变:胥口D712线-佛鲁村7#童家园公变低压开关后段","powerOffReason":"（低压停电信息）童家园01线拆除JKLYJ-120*4*3档、JKLYJ-70*4*1档、BS-JKLYJ-2*25*2档、架JKLYJ-120*4*6档、敷设YJV22-4*35电缆100米、安装表箱表计、拆旧集中表箱","powerOffId":"2019071931020015"},{"poweroffId":2019071931020011,"sgpoweroffId":null,"subsName":"","lineName":"10kV南安D336线","pubTranName":"何务村5#叶家公变,","scope":"浙江省杭州市富阳区万市镇何务行政村叶家自然村一带","startTime":"2019-07-30 06:10:00","stopDate":"2019-07-30 12:00:00","orgNo":"3340170","typeCode":"计划停电","poweroffArea":"110kV万市变:南安D336线-何务村5#叶家公变低压开关后段","poweroffReason":"（低压停电信息）村西02线3#杆后段吊车立杆12米2安装横担4付、拉线3组、新架BS-JKLYJ4*35*40米、新架JKLYJ-70*4*3档、拆除JKLYJ70*4*3档、拔除旧杆2支、搭接3处等工作（旁站监理）","powerTime":"2019-07-30 11:48:02","powerComm":"已送电","subsNo":"","lineNo":"","tgNo":"","tgName":null,"infoStatus":"1","orgName":"国网浙江杭州市富阳区供电公司","typeName":null,"infoStatusName":null,"dateDay":null,"orgNos":null,"nowTime":null,"countyName":null,"streetName":null,"villageName":null,"roadName":null,"communityName":null,"tranName":null,"sdLineName":null,"cityCode":"3340170","cityName":"国网浙江杭州市富阳区供电公司","provinceCode":null,"stopTime":"2019-07-30 12:00:00","powerType":"全部","powerOffArea":"110kV万市变:南安D336线-何务村5#叶家公变低压开关后段","powerOffReason":"（低压停电信息）村西02线3#杆后段吊车立杆12米2安装横担4付、拉线3组、新架BS-JKLYJ4*35*40米、新架JKLYJ-70*4*3档、拆除JKLYJ70*4*3档、拔除旧杆2支、搭接3处等工作（旁站监理）","powerOffId":"2019071931020011"},{"poweroffId":2019071931020002,"sgpoweroffId":null,"subsName":"","lineName":"10kV洞桥D334线","pubTranName":"石羊村4#寿家公变,","scope":"浙江省-杭州市-富阳区-洞桥镇-洞桥行政村-佳坞里自然村,洞桥镇-石羊行政村(石羊坞自然村,潘家自然村,寿家自然村,倪家自然村,杨家自然村,徐家自然村)","startTime":"2019-07-19 06:24:36","stopDate":"2019-07-19 09:35:36","orgNo":"3340170","typeCode":"电网故障停限电","poweroffArea":"110kV万市变:洞桥D334线-石羊村4#寿家公变后段","poweroffReason":"（低压停电信息）低压开关跳闸","powerTime":"2019-07-19 09:25:14","powerComm":"已送电","subsNo":"","lineNo":"","tgNo":"","tgName":null,"infoStatus":"1","orgName":"国网浙江杭州市富阳区供电公司","typeName":null,"infoStatusName":null,"dateDay":null,"orgNos":null,"nowTime":null,"countyName":null,"streetName":null,"villageName":null,"roadName":null,"communityName":null,"tranName":null,"sdLineName":null,"cityCode":"3340170","cityName":"国网浙江杭州市富阳区供电公司","provinceCode":null,"stopTime":"2019-07-19 09:35:36","powerType":"全部","powerOffArea":"110kV万市变:洞桥D334线-石羊村4#寿家公变后段","powerOffReason":"（低压停电信息）低压开关跳闸","powerOffId":"2019071931020002"},{"poweroffId":2019071931020001,"sgpoweroffId":null,"subsName":"","lineName":"10kV农场D803线","pubTranName":"泗洲村委8#公变,观前村7#杨家坎公变,1#,杭州富阳水务有限公司 1#,泗洲村7号南公变,观前村12号杨家坎公变,泗洲村6#下白洋溪公变,富阳环通电力器材有限公司2#变,观前村1号杨家坎公变,杭州市城市建设基础工程有限公司 1#,富阳市高桥镇社区卫生服务中心,杭州富阳水务有限公司 2#,富阳强盛钢带弹簧有限公司,观前村3#桥头公变1,富阳市东南纸业有限公司,合丰村1#厂帮里公变,观前村6#杨家坎公变,观前村4号村委口公变,杭州杭富轨道交通有限公司 3#,杭州市富阳区文化广电新闻出版局1#变,","scope":"浙江省-杭州市-富阳区-银湖街道-观前行政村(观前自然村,杨家坑自然村,黄泥山自然村),银湖街道-高桥行政村(合丰自然村,马塘桥自然村,厂帮里自然村),银湖街道-泗洲行政村(白洋溪自然村,泗洲自然村);富春街道-中铁一局集团第五工程有限公司,银湖街道(杭州富阳强盛钢带弹簧有限公司,富阳市东南纸业有限公司,杭州市城市建设基础工程有限公司,杭州市富阳区文化广电新闻出版局,杭州市富阳区银湖街道高桥社区卫生服务中心,杭州环通电力器材有限公司,杭州富阳水务有限公司)","startTime":"2019-07-19 05:10:00","stopDate":"2019-07-19 07:10:00","orgNo":"3340170","typeCode":"电网故障停限电","poweroffArea":"110kV容大变:农场D803线农场D8030开关后段","poweroffReason":"高压开关跳闸","powerTime":"2019-07-19 06:20:49","powerComm":"已送电","subsNo":"","lineNo":"","tgNo":"","tgName":null,"infoStatus":"1","orgName":"国网浙江杭州市富阳区供电公司","typeName":null,"infoStatusName":null,"dateDay":null,"orgNos":null,"nowTime":null,"countyName":null,"streetName":null,"villageName":null,"roadName":null,"communityName":null,"tranName":null,"sdLineName":null,"cityCode":"3340170","cityName":"国网浙江杭州市富阳区供电公司","provinceCode":null,"stopTime":"2019-07-19 07:10:00","powerType":"全部","powerOffArea":"110kV容大变:农场D803线农场D8030开关后段","powerOffReason":"高压开关跳闸","powerOffId":"2019071931020001"},{"poweroffId":2019071931010246,"sgpoweroffId":null,"subsName":"","lineName":"10kV陈园C841线","pubTranName":"陈家园村5#变,","scope":"浙江省-杭州市-萧山区新街镇、新街街道陈家园行政村-陈家园自然村等一带","startTime":"2019-07-19 22:07:15","stopDate":"2019-07-19 23:59:20","orgNo":"3340130","typeCode":"电网故障停限电","poweroffArea":"110kV罗山变:陈园C841线-陈家园村5#变台区低压开关","poweroffReason":"（低压停电信息）低压漏电保护器短路故障","powerTime":"2019-07-19 23:23:39","powerComm":"已送电","subsNo":"","lineNo":"","tgNo":"","tgName":null,"infoStatus":"1","orgName":"国网浙江杭州市萧山区供电有限公司","typeName":null,"infoStatusName":null,"dateDay":null,"orgNos":null,"nowTime":null,"countyName":null,"streetName":null,"villageName":null,"roadName":null,"communityName":null,"tranName":null,"sdLineName":null,"cityCode":"3340130","cityName":"国网浙江杭州市萧山区供电有限公司","provinceCode":null,"stopTime":"2019-07-19 23:59:20","powerType":"全部","powerOffArea":"110kV罗山变:陈园C841线-陈家园村5#变台区低压开关","powerOffReason":"（低压停电信息）低压漏电保护器短路故障","powerOffId":"2019071931010246"},{"poweroffId":2019071931010241,"sgpoweroffId":null,"subsName":"","lineName":"10kV竹海H722线","pubTranName":"竹海水韵(4)公变,竹海水韵(7)公变,竹海水韵(5)公变,竹海水韵(6)公变,","scope":"浙江省-杭州市-余杭区-闲林街道竹海水韵流霞苑17.18.19幢一带","startTime":"2019-07-19 21:57:00","stopDate":"2019-07-20 09:00:00","orgNo":"3340140","typeCode":"电网故障停限电","poweroffArea":"110kV闲林变:竹海H722线-竹海3联线后段","poweroffReason":"竹海H722线-竹海3联线后段公变烧掉 因抢修人员充足，故更改停电结束时间，原停电结束时间2019-07-20 16：00，现停电结束时间2019-07-20 09：00","powerTime":"2019-07-20 08:23:00","powerComm":"已送电","subsNo":"","lineNo":"","tgNo":"","tgName":null,"infoStatus":"1","orgName":"国网浙江杭州市余杭区供电有限公司","typeName":null,"infoStatusName":null,"dateDay":null,"orgNos":null,"nowTime":null,"countyName":null,"streetName":null,"villageName":null,"roadName":null,"communityName":null,"tranName":null,"sdLineName":null,"cityCode":"3340140","cityName":"国网浙江杭州市余杭区供电有限公司","provinceCode":null,"stopTime":"2019-07-20 09:00:00","powerType":"全部","powerOffArea":"110kV闲林变:竹海H722线-竹海3联线后段","powerOffReason":"竹海H722线-竹海3联线后段公变烧掉 因抢修人员充足，故更改停电结束时间，原停电结束时间2019-07-20 16：00，现停电结束时间2019-07-20 09：00","powerOffId":"2019071931010241"}],"pageModel":{"pageNow":1438,"totalCount":17789,"totalPage":1779,"tableRows":0,"pageCount":10,"beginCount":14370},"isExperi":"1"}