{"message":"","today":"2020-06-16","seleList":[{"poweroffId":2019071931010090,"sgpoweroffId":null,"subsName":"","lineName":"10kV吉山A365线","pubTranName":"欢潭村8#变,杭州优兰发造纸机械有限公司,杭州萧山欢潭汽车制动泵厂,杭州佳成机械厂,杭州威力机械有限公司,杭州萧山青达机械胶棍制品有限公司,欢潭村2#变,杭州鼎亮建材有限公司,杭州承爵机械有限公司,欢潭村15#变,","scope":"浙江省-杭州市-萧山区-进化镇(欢潭行政村-欢潭自然村);(杭州承爵机械有限公司,杭州鼎亮建材有限公司,杭州佳成机械厂,杭州青达机械有限公司,杭州威力机械有限公司,杭州萧山欢潭汽车制动泵厂,杭州优兰发造纸机械有限公司)等一带","startTime":"2019-07-19 09:45:11","stopDate":"2019-07-19 12:30:21","orgNo":"3340130","typeCode":"电网故障停限电","poweroffArea":"110kV进化变:吉山A365线-生态开G11涂川A347线后段","poweroffReason":"外力破坏引起高压电杆倒杆故障 原停电结束时间：2019-07-19 16:30，变更停电结束时间：2019-07-19 12:30，由于增派人员，抢修提前完成，故需要提前送电。","powerTime":"2019-07-19 11:52:29","powerComm":"已送电","subsNo":"","lineNo":"","tgNo":"","tgName":null,"infoStatus":"1","orgName":"国网浙江杭州市萧山区供电有限公司","typeName":null,"infoStatusName":null,"dateDay":null,"orgNos":null,"nowTime":null,"countyName":null,"streetName":null,"villageName":null,"roadName":null,"communityName":null,"tranName":null,"sdLineName":null,"cityCode":"3340130","cityName":"国网浙江杭州市萧山区供电有限公司","provinceCode":null,"stopTime":"2019-07-19 12:30:21","powerType":"全部","powerOffArea":"110kV进化变:吉山A365线-生态开G11涂川A347线后段","powerOffReason":"外力破坏引起高压电杆倒杆故障 原停电结束时间：2019-07-19 16:30，变更停电结束时间：2019-07-19 12:30，由于增派人员，抢修提前完成，故需要提前送电。","powerOffId":"2019071931010090"},{"poweroffId":2019071931010083,"sgpoweroffId":null,"subsName":"","lineName":"10kV凤鸣252线","pubTranName":"徐石村1号公变,","scope":"浙江省-杭州市-桐庐县-江南镇(金茂行政村-满林自然村、徐石自然村);","startTime":"2019-07-19 09:21:49","stopDate":"2019-07-19 11:40:39","orgNo":"3340150","typeCode":"电网故障停限电","poweroffArea":"110kV石阜变:凤鸣252线-徐石村1号公变后段","poweroffReason":"（低压停电信息）低压开关故障","powerTime":"2019-07-19 11:23:43","powerComm":"已送电。","subsNo":"","lineNo":"","tgNo":"","tgName":null,"infoStatus":"1","orgName":"国网浙江桐庐县供电公司","typeName":null,"infoStatusName":null,"dateDay":null,"orgNos":null,"nowTime":null,"countyName":null,"streetName":null,"villageName":null,"roadName":null,"communityName":null,"tranName":null,"sdLineName":null,"cityCode":"3340150","cityName":"国网浙江桐庐县供电公司","provinceCode":null,"stopTime":"2019-07-19 11:40:39","powerType":"全部","powerOffArea":"110kV石阜变:凤鸣252线-徐石村1号公变后段","powerOffReason":"（低压停电信息）低压开关故障","powerOffId":"2019071931010083"},{"poweroffId":2019071931010063,"sgpoweroffId":null,"subsName":"","lineName":"10kV海关A586线","pubTranName":"育才东苑5#公变,物业5#,物业6#,育才东苑6#公变,城市河道管理处6#,杭州市萧山区档案局1#,菜场,杭州萧山北干诺诚酒店,杭州市萧山区档案局2#,杭州萧山北干顺峰酒楼1316047478配电变压器,幼儿园2#,中华人民共和国杭州海关驻萧山办处,育才东苑2#公变,育才东苑4#公变,育才东苑9#公变,育才东苑8#公变,金马酒店1#,育才东苑10#公变,育才西苑3#公变,物业8#,物业2#,育才东苑11#公变,育才东苑12#公变,杭州阳光休闲山庄,育才东苑1#公变,物业1#,金马酒店1#,育才东苑3#公变,杭州耀升置业有限公司1#变压器,城厢镇梅花楼村,2号,幼儿园1#,2#,物业4#,杭州市萧山区博物馆,育才东苑13#公变,萧山市政园管处,物业7#,物业3#,杭州市萧山区博物馆,萧山区回澜初中,育才西苑2#公变,杭州康发铝型材有限公司,杭州马克置业有限公司#2主变,育才东苑7#公变,","scope":"浙江省-杭州市-萧山区-城厢街道(燕子河社区-育才路,育才东苑社区-育才路、育东路);(城厢镇梅花楼村,杭州方元阳光休闲山庄有限公司,杭州佳力水泥有限公司,杭州康发铝型材有限公司,杭州马克置业有限公司,杭州市萧山区博物馆,杭州市萧山区城市河道管理处,杭州市萧山区档案局,杭州市萧山区市场建设开发服务中心,杭州市萧山区市政园林公用事业管理处,杭州萧山北干诺诚酒店,杭州萧山北干顺峰酒楼,杭州新城德佳房地产开发有限公司,杭州耀升置业有限公司,萧山区洄澜初级中学,浙江金马酒店管理有限公司,中共杭州市萧山区委老干部局,中华人民共和国杭州海关驻萧山办事处)，北干街道香悦公馆、杭州佳力水泥有限公司、浙江明日房地产有限公司、杭州市萧山区城市河道管理处、杭州萧山北干顺峰酒楼、杭州耀升置业有限公司、杭州康发铝型有限公司、杭州萧山北干诺诚酒店及其周边一带","startTime":"2019-07-19 08:26:30","stopDate":"2019-07-19 19:00:00","orgNo":"3340130","typeCode":"电网故障停限电","poweroffArea":"110kV城东变:海关A586线开关后段","poweroffReason":"设备改造升级，提高供电可靠性 原停电结束时间：2019-07-19 20:00:00，变更停电结束时间：2019-07-19 19:00:00，变更停电结束时间原因：由于增派人员工作提前结束，故需要提前送电。","powerTime":"2019-07-19 18:10:00","powerComm":"已送电","subsNo":"","lineNo":"","tgNo":"","tgName":null,"infoStatus":"1","orgName":"国网浙江杭州市萧山区供电有限公司","typeName":null,"infoStatusName":null,"dateDay":null,"orgNos":null,"nowTime":null,"countyName":null,"streetName":null,"villageName":null,"roadName":null,"communityName":null,"tranName":null,"sdLineName":null,"cityCode":"3340130","cityName":"国网浙江杭州市萧山区供电有限公司","provinceCode":null,"stopTime":"2019-07-19 19:00:00","powerType":"全部","powerOffArea":"110kV城东变:海关A586线开关后段","powerOffReason":"设备改造升级，提高供电可靠性 原停电结束时间：2019-07-19 20:00:00，变更停电结束时间：2019-07-19 19:00:00，变更停电结束时间原因：由于增派人员工作提前结束，故需要提前送电。","powerOffId":"2019071931010063"},{"poweroffId":2019071931010059,"sgpoweroffId":null,"subsName":"","lineName":"10kV东藩C639线","pubTranName":"临浦集镇31#变,","scope":"浙江省-杭州市-萧山区-临浦镇(峙山北路-永翔公寓小区);浙江省杭州市萧山区临浦镇永翔公寓12栋一带","startTime":"2019-07-19 08:20:31","stopDate":"2019-07-19 10:30:35","orgNo":"3340130","typeCode":"电网故障停限电","poweroffArea":"110kV临浦变:东藩C639线-临浦集镇31#变台区低压开关","poweroffReason":"（低压停电信息）低压漏电保护器短路故障","powerTime":"2019-07-19 09:32:31","powerComm":"已送电","subsNo":"","lineNo":"","tgNo":"","tgName":null,"infoStatus":"1","orgName":"国网浙江杭州市萧山区供电有限公司","typeName":null,"infoStatusName":null,"dateDay":null,"orgNos":null,"nowTime":null,"countyName":null,"streetName":null,"villageName":null,"roadName":null,"communityName":null,"tranName":null,"sdLineName":null,"cityCode":"3340130","cityName":"国网浙江杭州市萧山区供电有限公司","provinceCode":null,"stopTime":"2019-07-19 10:30:35","powerType":"全部","powerOffArea":"110kV临浦变:东藩C639线-临浦集镇31#变台区低压开关","powerOffReason":"（低压停电信息）低压漏电保护器短路故障","powerOffId":"2019071931010059"},{"poweroffId":2019071931010049,"sgpoweroffId":null,"subsName":"","lineName":"10kV吉山A365线","pubTranName":"欢潭村2#变,","scope":"浙江省-杭州市-萧山区-进化镇(欢潭行政村-欢潭自然村)、浙江省杭州市萧山区进化镇欢汤村古默一带","startTime":"2019-07-19 07:50:54","stopDate":"2019-07-19 10:00:00","orgNo":"3340130","typeCode":"电网故障停限电","poweroffArea":"110kV进化变:吉山A365线-欢潭村2#变台区低压开关","poweroffReason":"（低压停电信息）外力破坏引起低压架空线断线故障","powerTime":"2019-07-19 09:15:46","powerComm":"已送电","subsNo":"","lineNo":"","tgNo":"","tgName":null,"infoStatus":"1","orgName":"国网浙江杭州市萧山区供电有限公司","typeName":null,"infoStatusName":null,"dateDay":null,"orgNos":null,"nowTime":null,"countyName":null,"streetName":null,"villageName":null,"roadName":null,"communityName":null,"tranName":null,"sdLineName":null,"cityCode":"3340130","cityName":"国网浙江杭州市萧山区供电有限公司","provinceCode":null,"stopTime":"2019-07-19 10:00:00","powerType":"全部","powerOffArea":"110kV进化变:吉山A365线-欢潭村2#变台区低压开关","powerOffReason":"（低压停电信息）外力破坏引起低压架空线断线故障","powerOffId":"2019071931010049"},{"poweroffId":2019071931010035,"sgpoweroffId":null,"subsName":"","lineName":"10kV白众A707线","pubTranName":"东方村13#变,","scope":"浙江省-杭州市-萧山区-瓜沥镇东方行政村、东方自然村、东方村一带","startTime":"2019-07-19 06:50:24","stopDate":"2019-07-19 08:15:32","orgNo":"3340130","typeCode":"电网故障停限电","poweroffArea":"110kV白川变:白众A707线-东方村13#变台区低压开关","poweroffReason":"（低压停电信息） 低压漏电保护器短路故障","powerTime":"2019-07-19 07:30:06","powerComm":"已送电","subsNo":"","lineNo":"","tgNo":"","tgName":null,"infoStatus":"1","orgName":"国网浙江杭州市萧山区供电有限公司","typeName":null,"infoStatusName":null,"dateDay":null,"orgNos":null,"nowTime":null,"countyName":null,"streetName":null,"villageName":null,"roadName":null,"communityName":null,"tranName":null,"sdLineName":null,"cityCode":"3340130","cityName":"国网浙江杭州市萧山区供电有限公司","provinceCode":null,"stopTime":"2019-07-19 08:15:32","powerType":"全部","powerOffArea":"110kV白川变:白众A707线-东方村13#变台区低压开关","powerOffReason":"（低压停电信息） 低压漏电保护器短路故障","powerOffId":"2019071931010035"},{"poweroffId":2019071931010022,"sgpoweroffId":null,"subsName":"","lineName":"10kV东藩C639线","pubTranName":"临浦集镇30#变,","scope":"浙江省-杭州市-萧山区-临浦镇(西市街社区-黄坡山路、黄坡山路25)，浙江省杭州市萧山区陵浦镇永翔小区一带","startTime":"2019-07-19 05:34:39","stopDate":"2019-07-19 07:00:15","orgNo":"3340130","typeCode":"电网故障停限电","poweroffArea":"110kV临浦变:东藩C639线-临浦集镇30#变台区低压开关","poweroffReason":"（低压停电信息）低压熔断器短路故障 原停电结束时间：2019-07-19 08:00，变更停电结束时间：2019-07-19 07:00，由于施工准备充分，故需要提前送电","powerTime":"2019-07-19 06:22:13","powerComm":"已送电","subsNo":"","lineNo":"","tgNo":"","tgName":null,"infoStatus":"1","orgName":"国网浙江杭州市萧山区供电有限公司","typeName":null,"infoStatusName":null,"dateDay":null,"orgNos":null,"nowTime":null,"countyName":null,"streetName":null,"villageName":null,"roadName":null,"communityName":null,"tranName":null,"sdLineName":null,"cityCode":"3340130","cityName":"国网浙江杭州市萧山区供电有限公司","provinceCode":null,"stopTime":"2019-07-19 07:00:15","powerType":"全部","powerOffArea":"110kV临浦变:东藩C639线-临浦集镇30#变台区低压开关","powerOffReason":"（低压停电信息）低压熔断器短路故障 原停电结束时间：2019-07-19 08:00，变更停电结束时间：2019-07-19 07:00，由于施工准备充分，故需要提前送电","powerOffId":"2019071931010022"},{"poweroffId":2019071931010020,"sgpoweroffId":null,"subsName":"","lineName":"10kV双义253线","pubTranName":"王家村2号公变,王家村1号公变,奚家村1号公变,","scope":"浙江省-杭州市-桐庐县-江南镇(珠山行政村-王家自然村、俞家自然村、奚家自然村);","startTime":"2019-07-19 05:32:39","stopDate":"2019-07-19 11:32:39","orgNo":"3340150","typeCode":"电网故障停限电","poweroffArea":"110kV石阜变:双义253线-王家村1号公变后段；双义253线-王家村2号公变后段；双义253线-奚家村1号公变后段","poweroffReason":"（低压停电信息）低压开关故障处理","powerTime":"2019-07-19 11:20:16","powerComm":"已送电。","subsNo":"","lineNo":"","tgNo":"","tgName":null,"infoStatus":"1","orgName":"国网浙江桐庐县供电公司","typeName":null,"infoStatusName":null,"dateDay":null,"orgNos":null,"nowTime":null,"countyName":null,"streetName":null,"villageName":null,"roadName":null,"communityName":null,"tranName":null,"sdLineName":null,"cityCode":"3340150","cityName":"国网浙江桐庐县供电公司","provinceCode":null,"stopTime":"2019-07-19 11:32:39","powerType":"全部","powerOffArea":"110kV石阜变:双义253线-王家村1号公变后段；双义253线-王家村2号公变后段；双义253线-奚家村1号公变后段","powerOffReason":"（低压停电信息）低压开关故障处理","powerOffId":"2019071931010020"},{"poweroffId":2019071831020085,"sgpoweroffId":null,"subsName":"","lineName":"10kV童家Y178线","pubTranName":"周村村里塘源台区,周村村葫芦岭台区,周村天山源台区,周村村马盘山台区,建德市珑达塑业有限公司,周村村方家台区,周村揭家台区,周村村张家台区,周村村庙后台区,周村村赖家台区,周村村郭首源台区,杭州江南春堂生物科技有限公司,","scope":"浙江省-杭州市-建德市-寿昌镇 周村行政村 葫芦岭自然村、赖家自然村、庙后自然村、揭家自然村、天山源自然村、方家自然村、郭首源自然村、马盘山自然村、张家自然村、里塘源自然村一带用户。","startTime":"2019-07-26 06:00:00","stopDate":"2019-07-26 14:00:00","orgNo":"3340180","typeCode":"计划停电","poweroffArea":"110kV航头变:童家Y178线-周村支线0#杆真空开关后段;童家Y178线-康扬支线0#杆令克后段;童家Y178线-庙后支线0#杆令克后段;童家Y178线-揭家支线0#杆令克后段;童家Y178线-中鑫支线0#杆令克后段;童家Y178线-葫芦岭支线0#杆令克后段;童家Y178线-赖家支线0#杆令克后段","poweroffReason":"杭州建德110千伏卜家蓬变10千伏澄源、屏山线配套送出工程","powerTime":"2019-07-26 13:41:00","powerComm":"已送电","subsNo":"","lineNo":"","tgNo":"","tgName":null,"infoStatus":"1","orgName":"国网浙江建德市供电有限公司","typeName":null,"infoStatusName":null,"dateDay":null,"orgNos":null,"nowTime":null,"countyName":null,"streetName":null,"villageName":null,"roadName":null,"communityName":null,"tranName":null,"sdLineName":null,"cityCode":"3340180","cityName":"国网浙江建德市供电有限公司","provinceCode":null,"stopTime":"2019-07-26 14:00:00","powerType":"全部","powerOffArea":"110kV航头变:童家Y178线-周村支线0#杆真空开关后段;童家Y178线-康扬支线0#杆令克后段;童家Y178线-庙后支线0#杆令克后段;童家Y178线-揭家支线0#杆令克后段;童家Y178线-中鑫支线0#杆令克后段;童家Y178线-葫芦岭支线0#杆令克后段;童家Y178线-赖家支线0#杆令克后段","powerOffReason":"杭州建德110千伏卜家蓬变10千伏澄源、屏山线配套送出工程","powerOffId":"2019071831020085"},{"poweroffId":2019071831020083,"sgpoweroffId":null,"subsName":"","lineName":"10kV里山D921线","pubTranName":"红光村4#村委公变,","scope":"浙江省-杭州市-富阳区-里山镇-里山行政村-红光自然村-村委办公大楼一带","startTime":"2019-08-05 07:00:00","stopDate":"2019-08-05 12:40:00","orgNo":"3340170","typeCode":"计划停电","poweroffArea":"110kV里渔变:里山D921线-红光村4号村委低压开关后段","poweroffReason":"(低压停电信息)（低压停电信息）江南2019年缺陷处理工程人工挖洞、立杆、运杆、架设集束线、拆旧、搭接等工作 原计划停电时间为2019-08-01，因政策原因变更至2019-08-05","powerTime":"2019-08-05 12:25:23","powerComm":"已送电","subsNo":"","lineNo":"","tgNo":"","tgName":null,"infoStatus":"1","orgName":"国网浙江杭州市富阳区供电公司","typeName":null,"infoStatusName":null,"dateDay":null,"orgNos":null,"nowTime":null,"countyName":null,"streetName":null,"villageName":null,"roadName":null,"communityName":null,"tranName":null,"sdLineName":null,"cityCode":"3340170","cityName":"国网浙江杭州市富阳区供电公司","provinceCode":null,"stopTime":"2019-08-05 12:40:00","powerType":"全部","powerOffArea":"110kV里渔变:里山D921线-红光村4号村委低压开关后段","powerOffReason":"(低压停电信息)（低压停电信息）江南2019年缺陷处理工程人工挖洞、立杆、运杆、架设集束线、拆旧、搭接等工作 原计划停电时间为2019-08-01，因政策原因变更至2019-08-05","powerOffId":"2019071831020083"}],"pageModel":{"pageNow":1440,"totalCount":17789,"totalPage":1779,"tableRows":0,"pageCount":10,"beginCount":14390},"isExperi":"1"}