{"message":"","today":"2020-06-16","seleList":[{"poweroffId":2019071831020064,"sgpoweroffId":null,"subsName":"","lineName":"10kV陈坞V763线","pubTranName":"","scope":"浙江省-杭州市-临安市-锦北街道-潘山行政村(潘山自然村,陈家坞自然村,汤家坞自然村,小罗家头自然村,上家庄自然村,半武里自然村,民主自然村);锦北街道(浙江永达交通工程有限公司,浙江新广发置业有限公司,临安市人民政府锦北街道办事处,杭州易辰房地产开发有限公司,杭州绿地锦城房地产开发有限公司,临安富裕照明电子电器厂,临安市临天线缆有限公司,杭州弘瀚门窗幕墙有限公司,杭州浙灵生物科技有限公司,临安春城生态园林有限公司)一带","startTime":"2019-07-18 15:25:00","stopDate":"2019-07-18 17:56:55","orgNo":"3340160","typeCode":"电网故障停限电","poweroffArea":"110kV科创变:陈坞V763线山舍站山舍站G1柜7631开关后段","poweroffReason":"110kV科创变陈坞V763线山舍站山舍站G1柜7631开关坏","powerTime":"2019-07-18 17:41:09","powerComm":"已送电","subsNo":"","lineNo":"","tgNo":"","tgName":null,"infoStatus":"1","orgName":"国网浙江临安市供电公司","typeName":null,"infoStatusName":null,"dateDay":null,"orgNos":null,"nowTime":null,"countyName":null,"streetName":null,"villageName":null,"roadName":null,"communityName":null,"tranName":null,"sdLineName":null,"cityCode":"3340160","cityName":"国网浙江临安市供电公司","provinceCode":null,"stopTime":"2019-07-18 17:56:55","powerType":"全部","powerOffArea":"110kV科创变:陈坞V763线山舍站山舍站G1柜7631开关后段","powerOffReason":"110kV科创变陈坞V763线山舍站山舍站G1柜7631开关坏","powerOffId":"2019071831020064"},{"poweroffId":2019071831020063,"sgpoweroffId":null,"subsName":"","lineName":"10kV石临V760线","pubTranName":"","scope":"浙江省-杭州市-临安市-锦北街道-民主行政村-民主自然村;锦北街道(中铁一局集团第五工程有限公司,杭州临安西子房地产开发有限公司,绿城物业服务集团有限公司临安分公司,临安市路灯管理所)一带","startTime":"2019-07-18 15:26:00","stopDate":"2019-07-18 17:56:40","orgNo":"3340160","typeCode":"电网故障停限电","poweroffArea":"110kV科创变:石临V760线西子站G01柜湖西7602线负荷开关后段","poweroffReason":"科创变石临V760线西子站G01柜湖西7602线负荷开关后坏","powerTime":"2019-07-18 17:40:20","powerComm":"已送电","subsNo":"","lineNo":"","tgNo":"","tgName":null,"infoStatus":"1","orgName":"国网浙江临安市供电公司","typeName":null,"infoStatusName":null,"dateDay":null,"orgNos":null,"nowTime":null,"countyName":null,"streetName":null,"villageName":null,"roadName":null,"communityName":null,"tranName":null,"sdLineName":null,"cityCode":"3340160","cityName":"国网浙江临安市供电公司","provinceCode":null,"stopTime":"2019-07-18 17:56:40","powerType":"全部","powerOffArea":"110kV科创变:石临V760线西子站G01柜湖西7602线负荷开关后段","powerOffReason":"科创变石临V760线西子站G01柜湖西7602线负荷开关后坏","powerOffId":"2019071831020063"},{"poweroffId":2019071831020046,"sgpoweroffId":null,"subsName":"","lineName":"10kV九沿7126线","pubTranName":"杨居(四),","scope":"浙江省-杭州市-江干区-江岸邻里小区14幢1单元、2单元","startTime":"2019-07-25 11:00:00","stopDate":"2019-07-25 12:00:00","orgNo":"3340101","typeCode":"计划停电","poweroffArea":"110kV牛田变:九沿7126线-杨居(四)B4-3低压开关","poweroffReason":"(低压停电信息)原停电结束时间13:00，变更停电结束时间12:00，原因由于施工现场比较复杂，存在不确定因素，因此预估施工时间适当放长了，而实际施工进行比较顺利，因此该工作提前结束。","powerTime":"2019-07-25 11:25:59","powerComm":"已送电","subsNo":"","lineNo":"","tgNo":"","tgName":null,"infoStatus":"1","orgName":"浙江杭州电力客户服务中心","typeName":null,"infoStatusName":null,"dateDay":null,"orgNos":null,"nowTime":null,"countyName":null,"streetName":null,"villageName":null,"roadName":null,"communityName":null,"tranName":null,"sdLineName":null,"cityCode":"3340101","cityName":"浙江杭州电力客户服务中心","provinceCode":null,"stopTime":"2019-07-25 12:00:00","powerType":"全部","powerOffArea":"110kV牛田变:九沿7126线-杨居(四)B4-3低压开关","powerOffReason":"(低压停电信息)原停电结束时间13:00，变更停电结束时间12:00，原因由于施工现场比较复杂，存在不确定因素，因此预估施工时间适当放长了，而实际施工进行比较顺利，因此该工作提前结束。","powerOffId":"2019071831020046"},{"poweroffId":2019071831020043,"sgpoweroffId":null,"subsName":"","lineName":"10kV九沿7126线","pubTranName":"杨居(二),","scope":"浙江省-杭州市-江干区-江岸邻里小区16幢1单元、2单元","startTime":"2019-07-25 09:30:00","stopDate":"2019-07-25 11:30:00","orgNo":"3340101","typeCode":"计划停电","poweroffArea":"110kV牛田变:九沿7126线-杨居(二)B2-2低压开关","poweroffReason":"浙江省杭州市江干区九堡镇杨公社区杨公路江岸邻里小区16幢东侧装表临时用电","powerTime":"2019-07-25 10:38:59","powerComm":"已送电","subsNo":"","lineNo":"","tgNo":"","tgName":null,"infoStatus":"1","orgName":"浙江杭州电力客户服务中心","typeName":null,"infoStatusName":null,"dateDay":null,"orgNos":null,"nowTime":null,"countyName":null,"streetName":null,"villageName":null,"roadName":null,"communityName":null,"tranName":null,"sdLineName":null,"cityCode":"3340101","cityName":"浙江杭州电力客户服务中心","provinceCode":null,"stopTime":"2019-07-25 11:30:00","powerType":"全部","powerOffArea":"110kV牛田变:九沿7126线-杨居(二)B2-2低压开关","powerOffReason":"浙江省杭州市江干区九堡镇杨公社区杨公路江岸邻里小区16幢东侧装表临时用电","powerOffId":"2019071831020043"},{"poweroffId":2019071831020042,"sgpoweroffId":null,"subsName":"","lineName":"10kV史陶579线","pubTranName":"苑风二变,","scope":"浙江省-杭州市-江干区-白杨街道-大北社区-大都文苑风情小区16幢17-24层、10幢住户、10幢商铺","startTime":"2019-07-22 09:30:00","stopDate":"2019-07-22 12:00:00","orgNo":"3340101","typeCode":"计划停电","poweroffArea":"110kV下沙变:史陶579线-苑风二变后段","poweroffReason":"苑风二变CT消缺工作，计划停电结束时间11：30因工作量大原因导致延时送电，预计送电时间：2019-07-22 12:00","powerTime":"2019-07-22 11:45:00","powerComm":"已送电","subsNo":"","lineNo":"","tgNo":"","tgName":null,"infoStatus":"1","orgName":"浙江杭州电力客户服务中心","typeName":null,"infoStatusName":null,"dateDay":null,"orgNos":null,"nowTime":null,"countyName":null,"streetName":null,"villageName":null,"roadName":null,"communityName":null,"tranName":null,"sdLineName":null,"cityCode":"3340101","cityName":"浙江杭州电力客户服务中心","provinceCode":null,"stopTime":"2019-07-22 12:00:00","powerType":"全部","powerOffArea":"110kV下沙变:史陶579线-苑风二变后段","powerOffReason":"苑风二变CT消缺工作，计划停电结束时间11：30因工作量大原因导致延时送电，预计送电时间：2019-07-22 12:00","powerOffId":"2019071831020042"},{"poweroffId":2019071831020031,"sgpoweroffId":null,"subsName":"","lineName":"10kV九沿7126线","pubTranName":"杨居(八),","scope":"浙江省-杭州市-江干区-江岸邻里小区5幢1单元、2单元、3单元","startTime":"2019-07-26 11:00:00","stopDate":"2019-07-26 12:00:00","orgNo":"3340101","typeCode":"计划停电","poweroffArea":"110kV牛田变:九沿7126线-杨居(八)B8-3低压开关","poweroffReason":"(低压停电信息)原停电结束时间13:00，变更停电结束时间12:00，原因由于施工现场比较复杂，存在不确定因素，因此预估施工时间适当放长了，而实际施工进行比较顺利，因此该工作提前结束。","powerTime":"2019-07-26 11:10:59","powerComm":"已送电","subsNo":"","lineNo":"","tgNo":"","tgName":null,"infoStatus":"1","orgName":"浙江杭州电力客户服务中心","typeName":null,"infoStatusName":null,"dateDay":null,"orgNos":null,"nowTime":null,"countyName":null,"streetName":null,"villageName":null,"roadName":null,"communityName":null,"tranName":null,"sdLineName":null,"cityCode":"3340101","cityName":"浙江杭州电力客户服务中心","provinceCode":null,"stopTime":"2019-07-26 12:00:00","powerType":"全部","powerOffArea":"110kV牛田变:九沿7126线-杨居(八)B8-3低压开关","powerOffReason":"(低压停电信息)原停电结束时间13:00，变更停电结束时间12:00，原因由于施工现场比较复杂，存在不确定因素，因此预估施工时间适当放长了，而实际施工进行比较顺利，因此该工作提前结束。","powerOffId":"2019071831020031"},{"poweroffId":2019071831020030,"sgpoweroffId":null,"subsName":"","lineName":"10kV寓杨7115线","pubTranName":"杨居(九),","scope":"浙江省-杭州市-江干区-江岸邻里小区4幢1单元、2单元、3单元","startTime":"2019-07-26 09:30:00","stopDate":"2019-07-26 11:30:00","orgNo":"3340101","typeCode":"计划停电","poweroffArea":"110kV牛田变:寓杨7115线-杨居(九)B9-2低压开关","poweroffReason":"浙江省杭州市江干区九堡镇杨公社区杨公路江岸邻里小区4幢东侧装表临时用电","powerTime":"2019-07-26 11:00:19","powerComm":"已送电","subsNo":"","lineNo":"","tgNo":"","tgName":null,"infoStatus":"1","orgName":"浙江杭州电力客户服务中心","typeName":null,"infoStatusName":null,"dateDay":null,"orgNos":null,"nowTime":null,"countyName":null,"streetName":null,"villageName":null,"roadName":null,"communityName":null,"tranName":null,"sdLineName":null,"cityCode":"3340101","cityName":"浙江杭州电力客户服务中心","provinceCode":null,"stopTime":"2019-07-26 11:30:00","powerType":"全部","powerOffArea":"110kV牛田变:寓杨7115线-杨居(九)B9-2低压开关","powerOffReason":"浙江省杭州市江干区九堡镇杨公社区杨公路江岸邻里小区4幢东侧装表临时用电","powerOffId":"2019071831020030"},{"poweroffId":2019071831020027,"sgpoweroffId":null,"subsName":"","lineName":"10kV六堡961线","pubTranName":"之路施(3),之路施(4),之路施(2),","scope":"浙江省-杭州市-江干区-彭埠镇-五堡社区-杭州市钱江新城建设开发有限公司","startTime":"2019-07-31 09:30:00","stopDate":"2019-07-31 14:00:00","orgNo":"3340101","typeCode":"计划停电","poweroffArea":"110kV彭埠变:六堡961线-之路施(4)柱上跌落式熔断器后段;六堡961线-之路施(3)柱上跌落式熔断器后段;六堡961线-之路施(2)柱上跌落式熔断器后段","poweroffReason":"原停电结束时间17:30，变更停电结束时间14:00，原因由于施工现场比较复杂，存在不确定因素，因此预估施工时间适当放长了，而实际施工进行比较顺利，因此该工作提前结束。","powerTime":"2019-07-31 13:22:56","powerComm":"已送电","subsNo":"","lineNo":"","tgNo":"","tgName":null,"infoStatus":"1","orgName":"浙江杭州电力客户服务中心","typeName":null,"infoStatusName":null,"dateDay":null,"orgNos":null,"nowTime":null,"countyName":null,"streetName":null,"villageName":null,"roadName":null,"communityName":null,"tranName":null,"sdLineName":null,"cityCode":"3340101","cityName":"浙江杭州电力客户服务中心","provinceCode":null,"stopTime":"2019-07-31 14:00:00","powerType":"全部","powerOffArea":"110kV彭埠变:六堡961线-之路施(4)柱上跌落式熔断器后段;六堡961线-之路施(3)柱上跌落式熔断器后段;六堡961线-之路施(2)柱上跌落式熔断器后段","powerOffReason":"原停电结束时间17:30，变更停电结束时间14:00，原因由于施工现场比较复杂，存在不确定因素，因此预估施工时间适当放长了，而实际施工进行比较顺利，因此该工作提前结束。","powerOffId":"2019071831020027"},{"poweroffId":2019071831020002,"sgpoweroffId":null,"subsName":"","lineName":"10kV丝厂D570线","pubTranName":"花坞嘉苑1#公变,","scope":"浙江省-杭州市-富阳区-富春街道-城东社区-环山路","startTime":"2019-07-18 07:28:55","stopDate":"2019-07-18 08:28:55","orgNo":"3340170","typeCode":"电网故障停限电","poweroffArea":"110kV春江变:丝厂D570线-花坞嘉苑1#公变后段","poweroffReason":"高压开关跳闸","powerTime":"2019-07-18 07:59:19","powerComm":"已送电","subsNo":"","lineNo":"","tgNo":"","tgName":null,"infoStatus":"1","orgName":"国网浙江杭州市富阳区供电公司","typeName":null,"infoStatusName":null,"dateDay":null,"orgNos":null,"nowTime":null,"countyName":null,"streetName":null,"villageName":null,"roadName":null,"communityName":null,"tranName":null,"sdLineName":null,"cityCode":"3340170","cityName":"国网浙江杭州市富阳区供电公司","provinceCode":null,"stopTime":"2019-07-18 08:28:55","powerType":"全部","powerOffArea":"110kV春江变:丝厂D570线-花坞嘉苑1#公变后段","powerOffReason":"高压开关跳闸","powerOffId":"2019071831020002"},{"poweroffId":2019071831020001,"sgpoweroffId":null,"subsName":"","lineName":"10kV园北D945线","pubTranName":"1#变,湖塍村1#湖塍公变,长山村4号湖后头公变,湖塍村4号庙山上公变,1#,观前村长山湖后头公变,富阳市路灯安装维修管理所,富阳市路灯安装维修管理所,路港集团有限公司,1#变,1#变,","scope":"浙江省-杭州市-富阳区-富春街道-湖塍行政村(湖塍上自然村,庙山自然村),银湖街道-观前行政村(长山自然村,湖后头自然村,大长山自然村,周公坞自然村);富春街道-杭州富阳城市照明工程有限公司,银湖街道(中民筑友建设有限公司浙江分公司,杭州富阳城市照明工程有限公司)","startTime":"2019-07-18 04:54:00","stopDate":"2019-07-18 06:54:00","orgNo":"3340170","typeCode":"电网故障停限电","poweroffArea":"110kV育才变:园北D945线杭园分线开关后段","poweroffReason":"高压开关跳闸","powerTime":"2019-07-18 05:55:09","powerComm":"已送电","subsNo":"","lineNo":"","tgNo":"","tgName":null,"infoStatus":"1","orgName":"国网浙江杭州市富阳区供电公司","typeName":null,"infoStatusName":null,"dateDay":null,"orgNos":null,"nowTime":null,"countyName":null,"streetName":null,"villageName":null,"roadName":null,"communityName":null,"tranName":null,"sdLineName":null,"cityCode":"3340170","cityName":"国网浙江杭州市富阳区供电公司","provinceCode":null,"stopTime":"2019-07-18 06:54:00","powerType":"全部","powerOffArea":"110kV育才变:园北D945线杭园分线开关后段","powerOffReason":"高压开关跳闸","powerOffId":"2019071831020001"}],"pageModel":{"pageNow":1441,"totalCount":17789,"totalPage":1779,"tableRows":0,"pageCount":10,"beginCount":14400},"isExperi":"1"}