{"message":"","today":"2020-06-16","seleList":[{"poweroffId":2019071731010174,"sgpoweroffId":null,"subsName":"","lineName":"10kV杨家T106线","pubTranName":"麻蓬村8号公变,","scope":"浙江省-杭州市-桐庐县-桐君街道(麻蓬行政村-湖田塘自然村、麻蓬自然村);","startTime":"2019-07-17 14:31:28","stopDate":"2019-07-17 15:32:37","orgNo":"3340150","typeCode":"电网故障停限电","poweroffArea":"110kV桐庐变:杨家T106线-麻蓬村8号公变后段","poweroffReason":"（低压停电信息）低压开关故障","powerTime":"2019-07-17 15:10:07","powerComm":"已送电","subsNo":"","lineNo":"","tgNo":"","tgName":null,"infoStatus":"1","orgName":"国网浙江桐庐县供电公司","typeName":null,"infoStatusName":null,"dateDay":null,"orgNos":null,"nowTime":null,"countyName":null,"streetName":null,"villageName":null,"roadName":null,"communityName":null,"tranName":null,"sdLineName":null,"cityCode":"3340150","cityName":"国网浙江桐庐县供电公司","provinceCode":null,"stopTime":"2019-07-17 15:32:37","powerType":"全部","powerOffArea":"110kV桐庐变:杨家T106线-麻蓬村8号公变后段","powerOffReason":"（低压停电信息）低压开关故障","powerOffId":"2019071731010174"},{"poweroffId":2019071731010169,"sgpoweroffId":null,"subsName":"","lineName":"10kV浪石T205线","pubTranName":"喻宅1号公变,","scope":"浙江省-杭州市-桐庐县-横村镇(上塘行政村-上浦自然村);","startTime":"2019-07-17 13:57:20","stopDate":"2019-07-17 15:00:54","orgNo":"3340150","typeCode":"电网故障停限电","poweroffArea":"110kV方埠变:浪石T205线-喻宅1号公变后段","poweroffReason":"（低压停电信息）低压开关故障","powerTime":"2019-07-17 14:45:23","powerComm":"已送电。","subsNo":"","lineNo":"","tgNo":"","tgName":null,"infoStatus":"1","orgName":"国网浙江桐庐县供电公司","typeName":null,"infoStatusName":null,"dateDay":null,"orgNos":null,"nowTime":null,"countyName":null,"streetName":null,"villageName":null,"roadName":null,"communityName":null,"tranName":null,"sdLineName":null,"cityCode":"3340150","cityName":"国网浙江桐庐县供电公司","provinceCode":null,"stopTime":"2019-07-17 15:00:54","powerType":"全部","powerOffArea":"110kV方埠变:浪石T205线-喻宅1号公变后段","powerOffReason":"（低压停电信息）低压开关故障","powerOffId":"2019071731010169"},{"poweroffId":2019071731010162,"sgpoweroffId":null,"subsName":"","lineName":"10kV龙门D787线","pubTranName":"龙门七村3号龙一村东公变,","scope":"浙江省-杭州市-富阳区-龙门镇(龙门七村行政村-村东自然村)一带;","startTime":"2019-07-18 06:30:00","stopDate":"2019-07-18 08:50:00","orgNo":"3340170","typeCode":"电网故障停限电","poweroffArea":"110kV王洲变:龙门D787线-龙门七村3号龙一村东公变后段","poweroffReason":"低压配电设备故障","powerTime":"2019-07-18 08:15:51","powerComm":"工作完成，已恢复送电","subsNo":"","lineNo":"","tgNo":"","tgName":null,"infoStatus":"1","orgName":"国网浙江杭州市富阳区供电公司","typeName":null,"infoStatusName":null,"dateDay":null,"orgNos":null,"nowTime":null,"countyName":null,"streetName":null,"villageName":null,"roadName":null,"communityName":null,"tranName":null,"sdLineName":null,"cityCode":"3340170","cityName":"国网浙江杭州市富阳区供电公司","provinceCode":null,"stopTime":"2019-07-18 08:50:00","powerType":"全部","powerOffArea":"110kV王洲变:龙门D787线-龙门七村3号龙一村东公变后段","powerOffReason":"低压配电设备故障","powerOffId":"2019071731010162"},{"poweroffId":2019071731010159,"sgpoweroffId":null,"subsName":"","lineName":"10kV神龙362线","pubTranName":"钱江度假村(1315078827),龙虎村14#变,龙虎村4#变,银格旅游(1316020023),龙虎村2#变,永得利无纺布1#,龙虎村21#变,永得利无纺布2#,阳城颜料(1315077823),双峰机电(1316013744),龙虎村8#变,龙虎村9#变,杭州萧山神龙铝业有限公司,神龙铝业,龙虎村3#变,龙虎村12#变,阳城颜料(1315077823),龙虎村15#变,龙虎村19#变,龙虎村11#变,杭州宏冰服饰有限公司,龙虎村22#变,","scope":"浙江省-杭州市-萧山区-南阳街道龙虎行政村-龙虎自然村;杭州宏冰服饰有限公司,杭州萧山钱江观潮度假村有限公司,杭州萧山神龙铝业有限公司,杭州萧山双峰化建机电设备厂,杭州阳城颜料化工有限公司,杭州银格旅游用品有限公司,杭州永得利无纺布有限公司一带","startTime":"2019-07-17 13:30:06","stopDate":"2019-07-17 16:20:29","orgNo":"3340130","typeCode":"电网故障停限电","poweroffArea":"110kV河庄变:神龙362线-神龙3623开关后段","poweroffReason":"高压柱上断路器短路故障 原停电结束时间2019-07-17 17:35:13，变更停电结束时间2019-07-17 16:20:29，由于抢修工作提前完成，故需要提前送电。","powerTime":"2019-07-17 15:32:26","powerComm":"已送电","subsNo":"","lineNo":"","tgNo":"","tgName":null,"infoStatus":"1","orgName":"国网浙江杭州市萧山区供电有限公司","typeName":null,"infoStatusName":null,"dateDay":null,"orgNos":null,"nowTime":null,"countyName":null,"streetName":null,"villageName":null,"roadName":null,"communityName":null,"tranName":null,"sdLineName":null,"cityCode":"3340130","cityName":"国网浙江杭州市萧山区供电有限公司","provinceCode":null,"stopTime":"2019-07-17 16:20:29","powerType":"全部","powerOffArea":"110kV河庄变:神龙362线-神龙3623开关后段","powerOffReason":"高压柱上断路器短路故障 原停电结束时间2019-07-17 17:35:13，变更停电结束时间2019-07-17 16:20:29，由于抢修工作提前完成，故需要提前送电。","powerOffId":"2019071731010159"},{"poweroffId":2019071731010155,"sgpoweroffId":null,"subsName":"","lineName":"10kV成甬A562线","pubTranName":"项漾村4#变,","scope":"浙江省-杭州市-萧山区-衙前镇(项漾行政村-江河路、金堂桥、金堂桥路、戚家路、项甬自然村)一带、浙江省杭州市萧山区衙前镇项漾行政村优胜片菜市场西边","startTime":"2019-07-17 12:30:28","stopDate":"2019-07-17 21:00:43","orgNo":"3340130","typeCode":"电网故障停限电","poweroffArea":"110kV成虎变:成甬A562线-项漾村4#变台区低压开关","poweroffReason":"（低压停电信息）外力破坏引起低压电缆被挖断故障 原停电结束时间： 2019-07-17 17:00:33，变更停电结束时间2019-07-17 21:00:43，由于抢修工作难度大，故需要延迟送电。","powerTime":"2019-07-17 20:22:44","powerComm":"已送电","subsNo":"","lineNo":"","tgNo":"","tgName":null,"infoStatus":"1","orgName":"国网浙江杭州市萧山区供电有限公司","typeName":null,"infoStatusName":null,"dateDay":null,"orgNos":null,"nowTime":null,"countyName":null,"streetName":null,"villageName":null,"roadName":null,"communityName":null,"tranName":null,"sdLineName":null,"cityCode":"3340130","cityName":"国网浙江杭州市萧山区供电有限公司","provinceCode":null,"stopTime":"2019-07-17 21:00:43","powerType":"全部","powerOffArea":"110kV成虎变:成甬A562线-项漾村4#变台区低压开关","powerOffReason":"（低压停电信息）外力破坏引起低压电缆被挖断故障 原停电结束时间： 2019-07-17 17:00:33，变更停电结束时间2019-07-17 21:00:43，由于抢修工作难度大，故需要延迟送电。","powerOffId":"2019071731010155"},{"poweroffId":2019071731010147,"sgpoweroffId":null,"subsName":"","lineName":"10kV泊恩H620线","pubTranName":"西溪山庄7#基建变,杭州西溪山庄房地产开发有限公司,杭州西溪山庄房地产开发有限公司,西溪山庄8#基建变,杭州西溪山庄房地产开发有限公司,","scope":"浙江省杭州市余杭区余杭街道杭州西溪山庄房地产开发有限公司一带","startTime":"2019-07-17 12:26:00","stopDate":"2019-07-17 14:30:00","orgNo":"3340140","typeCode":"电网故障停限电","poweroffArea":"110kV桃源变:泊恩H620线-西溪山庄基建分支箱开关后段 原停电结束时间为16点00分，由于施工力量强大，提前完成工作，现变更至14点30分","poweroffReason":"西溪山庄基建分支箱开关后段 电缆断线故障 原停电结束时间为16点00分，由于施工力量强大，提前完成工作，现变更至14点30分","powerTime":"2019-07-17 14:02:00","powerComm":"已送电","subsNo":"","lineNo":"","tgNo":"","tgName":null,"infoStatus":"1","orgName":"国网浙江杭州市余杭区供电有限公司","typeName":null,"infoStatusName":null,"dateDay":null,"orgNos":null,"nowTime":null,"countyName":null,"streetName":null,"villageName":null,"roadName":null,"communityName":null,"tranName":null,"sdLineName":null,"cityCode":"3340140","cityName":"国网浙江杭州市余杭区供电有限公司","provinceCode":null,"stopTime":"2019-07-17 14:30:00","powerType":"全部","powerOffArea":"110kV桃源变:泊恩H620线-西溪山庄基建分支箱开关后段 原停电结束时间为16点00分，由于施工力量强大，提前完成工作，现变更至14点30分","powerOffReason":"西溪山庄基建分支箱开关后段 电缆断线故障 原停电结束时间为16点00分，由于施工力量强大，提前完成工作，现变更至14点30分","powerOffId":"2019071731010147"},{"poweroffId":2019071731010137,"sgpoweroffId":null,"subsName":"","lineName":"10kV水阁C233线","pubTranName":"1#,大黄岭11#变,大黄岭3#变,大黄岭14#变,大黄岭1#变,大黄岭5#变,华力包装,杭州宝元鞋业有限公司,大黄岭6#变,大黄岭10#变,浙江交工集团股份有限公司,杭天布艺,大黄岭2#变,大黄岭4#变,大黄岭9#变,","scope":"浙江省-杭州市-萧山区-楼塔镇(大黄岭行政村-水阁里自然村、水阁自然村、王岭脚自然村、王岭自然村、夏坞自然村、斜爿坞自然村);(杭州宝元鞋业有限公司,杭州京萧五金装饰有限公司,杭州萧山华力包装有限公司,浙江交工集团股份有限公司);浙江省杭州市萧山区楼塔镇大黄岭村一带","startTime":"2019-07-17 11:28:52","stopDate":"2019-07-17 13:00:47","orgNo":"3340130","typeCode":"电网故障停限电","poweroffArea":"35kV楼塔变:水阁C233线-水阁C233线大黄岭分线开关后段","poweroffReason":"高压柱上断路器短路故障 原停电结束时间：2019-07-17 14:00，变更停电结束时间：2019-07-17 13:00，由于增派人员，抢修提前完成，故需要提前送电。","powerTime":"2019-07-17 12:40:02","powerComm":"已送电","subsNo":"","lineNo":"","tgNo":"","tgName":null,"infoStatus":"1","orgName":"国网浙江杭州市萧山区供电有限公司","typeName":null,"infoStatusName":null,"dateDay":null,"orgNos":null,"nowTime":null,"countyName":null,"streetName":null,"villageName":null,"roadName":null,"communityName":null,"tranName":null,"sdLineName":null,"cityCode":"3340130","cityName":"国网浙江杭州市萧山区供电有限公司","provinceCode":null,"stopTime":"2019-07-17 13:00:47","powerType":"全部","powerOffArea":"35kV楼塔变:水阁C233线-水阁C233线大黄岭分线开关后段","powerOffReason":"高压柱上断路器短路故障 原停电结束时间：2019-07-17 14:00，变更停电结束时间：2019-07-17 13:00，由于增派人员，抢修提前完成，故需要提前送电。","powerOffId":"2019071731010137"},{"poweroffId":2019071731010136,"sgpoweroffId":null,"subsName":"","lineName":"10kV五洲G806线","pubTranName":"安泊厨柜,琪瑶纺织,瑞丰玻璃2#,森润无纺布2#配电变压器,浙江天工装饰工程有限公司,杭州森豪农业有限公司,双林科技,泰利得,瑞鑫纺织,杭州瑞德织造有限公司,恒威纺织,瑞丰玻璃1#,杭州十色生活家纺有限公司,杭州丹第皮革有限公司,泰利得1#,杭州瞿溪机械有限公司,森润无纺布1#变压器,杭州南博装饰材料有限公司,","scope":"浙江省杭州市余杭区东湖街道杭州安泊厨具有限公司,杭州丹弟皮革有限公司,杭州恒威纺织有限公司,杭州弘洋纺织有限公司,杭州龙金机械有限公司,杭州曼巴迈实业有限公司,杭州纳雅服饰有限公司,杭州森豪农业有限公司,杭州森润无纺布科技有限公司,杭州泰利德纺织科技有限公司,杭州易家顺纺织有限公司,浙江瑞丰玻璃有限公司,浙江天工装饰工程有限公司一带","startTime":"2019-07-17 11:35:00","stopDate":"2019-07-17 16:30:00","orgNo":"3340140","typeCode":"电网故障停限电","poweroffArea":"110kV建富变:五洲G806线 原停电结束时间为15点30分，由于现场情况复杂，现变更至16点30分","poweroffReason":"五洲G806线 架空线断线故障 原停电结束时间为15点30分，由于现场情况复杂，现变更至16点30分","powerTime":"2019-07-17 16:01:00","powerComm":"已送电","subsNo":"","lineNo":"","tgNo":"","tgName":null,"infoStatus":"1","orgName":"国网浙江杭州市余杭区供电有限公司","typeName":null,"infoStatusName":null,"dateDay":null,"orgNos":null,"nowTime":null,"countyName":null,"streetName":null,"villageName":null,"roadName":null,"communityName":null,"tranName":null,"sdLineName":null,"cityCode":"3340140","cityName":"国网浙江杭州市余杭区供电有限公司","provinceCode":null,"stopTime":"2019-07-17 16:30:00","powerType":"全部","powerOffArea":"110kV建富变:五洲G806线 原停电结束时间为15点30分，由于现场情况复杂，现变更至16点30分","powerOffReason":"五洲G806线 架空线断线故障 原停电结束时间为15点30分，由于现场情况复杂，现变更至16点30分","powerOffId":"2019071731010136"},{"poweroffId":2019071731010135,"sgpoweroffId":null,"subsName":"","lineName":"10kV红坞T117线","pubTranName":"对门山1号公变,","scope":"浙江省-杭州市-桐庐县-桐君街道(迎宾社区-对门山二弄、对门山三弄、对门山一弄、富春路、劳动路、对门山四弄17幢，39幢一带);","startTime":"2019-07-17 11:28:53","stopDate":"2019-07-17 14:34:08","orgNo":"3340150","typeCode":"电网故障停限电","poweroffArea":"110kV桐庐变:红坞T117线-对门山1号公变后段","poweroffReason":"（低压故障信息）低压开关故障","powerTime":"2019-07-17 14:10:17","powerComm":"已送电","subsNo":"","lineNo":"","tgNo":"","tgName":null,"infoStatus":"1","orgName":"国网浙江桐庐县供电公司","typeName":null,"infoStatusName":null,"dateDay":null,"orgNos":null,"nowTime":null,"countyName":null,"streetName":null,"villageName":null,"roadName":null,"communityName":null,"tranName":null,"sdLineName":null,"cityCode":"3340150","cityName":"国网浙江桐庐县供电公司","provinceCode":null,"stopTime":"2019-07-17 14:34:08","powerType":"全部","powerOffArea":"110kV桐庐变:红坞T117线-对门山1号公变后段","powerOffReason":"（低压故障信息）低压开关故障","powerOffId":"2019071731010135"},{"poweroffId":2019071731010125,"sgpoweroffId":null,"subsName":"","lineName":"10kV丽三C109线","pubTranName":"梅和名府6#公变,","scope":"浙江省杭州市萧山区城厢街道梅花楼社区金家桥路梅和名府一带","startTime":"2019-07-17 11:00:20","stopDate":"2019-07-17 15:05:20","orgNo":"3340130","typeCode":"电网故障停限电","poweroffArea":"110kV丽都变:丽三C109线-梅和名府6#公变后段","poweroffReason":"高压电缆故障，原停电结束时间：2019-07-17 17:30:20，变更停电结束时间：2019-07-17 15:05:20，变更停电结束时间原因：由于加派抢修人员，故抢修工作提前结束，需要提前送电。","powerTime":"2019-07-17 14:13:27","powerComm":"已送电","subsNo":"","lineNo":"","tgNo":"","tgName":null,"infoStatus":"1","orgName":"国网浙江杭州市萧山区供电有限公司","typeName":null,"infoStatusName":null,"dateDay":null,"orgNos":null,"nowTime":null,"countyName":null,"streetName":null,"villageName":null,"roadName":null,"communityName":null,"tranName":null,"sdLineName":null,"cityCode":"3340130","cityName":"国网浙江杭州市萧山区供电有限公司","provinceCode":null,"stopTime":"2019-07-17 15:05:20","powerType":"全部","powerOffArea":"110kV丽都变:丽三C109线-梅和名府6#公变后段","powerOffReason":"高压电缆故障，原停电结束时间：2019-07-17 17:30:20，变更停电结束时间：2019-07-17 15:05:20，变更停电结束时间原因：由于加派抢修人员，故抢修工作提前结束，需要提前送电。","powerOffId":"2019071731010125"}],"pageModel":{"pageNow":1447,"totalCount":17789,"totalPage":1779,"tableRows":0,"pageCount":10,"beginCount":14460},"isExperi":"1"}