{"message":"","today":"2020-06-15","seleList":[{"poweroffId":2020051831020040,"sgpoweroffId":null,"subsName":"","lineName":"10kV常绿D268线","pubTranName":"北坞村3号庙外公变,","scope":"浙江省-杭州市-富阳区-常绿镇-北坞行政村-庙外自然村","startTime":"2020-05-18 09:00:00","stopDate":"2020-05-18 12:30:57","orgNo":"3340170","typeCode":"电网故障停限电","poweroffArea":"35kV盛村变:常绿D268线-北坞村3号庙外公变后段","poweroffReason":"(低压停电信息)低压开关跳闸","powerTime":"2020-05-18 12:20:10","powerComm":"已送电","subsNo":"","lineNo":"","tgNo":"","tgName":null,"infoStatus":"1","orgName":"国网浙江杭州市富阳区供电公司","typeName":null,"infoStatusName":null,"dateDay":null,"orgNos":null,"nowTime":null,"countyName":null,"streetName":null,"villageName":null,"roadName":null,"communityName":null,"tranName":null,"sdLineName":null,"cityCode":"3340170","cityName":"国网浙江杭州市富阳区供电公司","provinceCode":null,"stopTime":"2020-05-18 12:30:57","powerType":"全部","powerOffArea":"35kV盛村变:常绿D268线-北坞村3号庙外公变后段","powerOffReason":"(低压停电信息)低压开关跳闸","powerOffId":"2020051831020040"},{"poweroffId":2020051831020023,"sgpoweroffId":null,"subsName":"","lineName":"10kV旧县T225线","pubTranName":"洪儒村5号公变,","scope":"浙江省-杭州市-桐庐县-旧县街道(洪儒行政村-里畈坞自然村,母岭行政村-黄昌岭自然村,合岭行政村-尹峰自然村)","startTime":"2020-05-18 07:42:04","stopDate":"2020-05-18 11:15:04","orgNo":"3340150","typeCode":"电网故障停限电","poweroffArea":"35kV西武变:旧县T225线-洪儒村5号公变后段","poweroffReason":"(低压停电信息)低压开关跳闸","powerTime":"2020-05-18 10:59:03","powerComm":"已送电","subsNo":"","lineNo":"","tgNo":"","tgName":null,"infoStatus":"1","orgName":"国网浙江桐庐县供电公司","typeName":null,"infoStatusName":null,"dateDay":null,"orgNos":null,"nowTime":null,"countyName":null,"streetName":null,"villageName":null,"roadName":null,"communityName":null,"tranName":null,"sdLineName":null,"cityCode":"3340150","cityName":"国网浙江桐庐县供电公司","provinceCode":null,"stopTime":"2020-05-18 11:15:04","powerType":"全部","powerOffArea":"35kV西武变:旧县T225线-洪儒村5号公变后段","powerOffReason":"(低压停电信息)低压开关跳闸","powerOffId":"2020051831020023"},{"poweroffId":2020051831020017,"sgpoweroffId":null,"subsName":"","lineName":"10kV大坝Y129线","pubTranName":"建德市严州橡胶厂,梅城集镇国顺房产2号公变,建德市兴盛针织有限公司,梅城镇人民政府(污水处理厂),大坝公变变压器,望江雅居2#公变,梅城集镇国顺房产公变,梅城集镇酒厂公变,大坝西公变变压器,防护工程管理站,1#变,建德市梅城镇新凌云阁大酒店,建德市梅城宾馆投资有限公司,梅城集镇宝华洲公变,梅城集镇西湖嘉园公变,梅城集镇紫园3#公变,梅城集镇东湖公寓公变,梅城集镇西湖御园2#公变变压器,大坝东公变变压器,建德市三宝塑业电器厂,梅城集镇西湖御园4号公变,西湖公变变压器,低压电器厂公变,建德市梅城鑫成五金电器厂,梅城集镇糖库公变变压器,建德市立泰缝制机械有限公司,西湖茗苑1#公变,建德市梅城镇开元寺,望江雅居1#公变,梅城集镇东湖新村2号公变,西山名邸2号公变,梅城集镇针织厂公变,建德市建松五金工具厂,东门街2#公变,梅城集镇三星街1号公变,","scope":"浙江省-杭州市-建德市-梅城镇-西湖行政村(西湖自然村,梅花南路),梅城镇-宝华洲社区(梅花南路,西门街,严陵路,西湖山巷,城南西路,西湖山,三星街,宝华洲路,西山名邸,西山岭巷,城南西路57号),梅城镇-总府社区(总府街,龙山路),梅城镇-严陵社区(城南东路,东门街,市民路,严陵路,城南弄巷,桂花弄巷,市场弄巷,王家弄巷,毛家弄巷,南大街,总府街,馒头山路,正大街);梅城镇(建德市立泰缝制机械有限公司,建德市严州橡胶厂,建德市华星电器厂,建德市三宝塑业电器厂,建德市新凌云阁餐饮管理有限公司,建德市蓝军家庭农场有限公司,防护工程管理站,建德市梅城鑫成五金电器厂,建德市梅城镇资产经营有限公司,建德市梅城镇开元寺,梅城镇人民政府(污水处理厂))","startTime":"2020-05-18 07:12:00","stopDate":"2020-05-18 09:00:00","orgNo":"3340180","typeCode":"电网故障停限电","poweroffArea":"110kV梅城变:大坝Y129线大坝Y129线开关后段","poweroffReason":"高压开关跳闸 原停电结束时间为2020-05-18 10:30:00,为减少客户停电时间,加快工作进度,提前送电,现变更停电结束时间为2020-05-18 09:00:00","powerTime":"2020-05-18 08:16:00","powerComm":"已送电","subsNo":"","lineNo":"","tgNo":"","tgName":null,"infoStatus":"1","orgName":"国网浙江建德市供电有限公司","typeName":null,"infoStatusName":null,"dateDay":null,"orgNos":null,"nowTime":null,"countyName":null,"streetName":null,"villageName":null,"roadName":null,"communityName":null,"tranName":null,"sdLineName":null,"cityCode":"3340180","cityName":"国网浙江建德市供电有限公司","provinceCode":null,"stopTime":"2020-05-18 09:00:00","powerType":"全部","powerOffArea":"110kV梅城变:大坝Y129线大坝Y129线开关后段","powerOffReason":"高压开关跳闸 原停电结束时间为2020-05-18 10:30:00,为减少客户停电时间,加快工作进度,提前送电,现变更停电结束时间为2020-05-18 09:00:00","powerOffId":"2020051831020017"},{"poweroffId":2020051831020012,"sgpoweroffId":null,"subsName":"","lineName":"10kV仙宅H777线","pubTranName":"仙宅村西头公变,晨厦建筑,仙宅村林坞中村公变,长岗家园1号公变,仙宅村里村公变,仙宅村荷花池公变,良辰机械,仙宅村仙宅公变,仙宅村里村2号公变,长岗农场1号公变,仙宅村洪家公变,4#,余杭供水,长岗机站,中天线缆,长岗农场2号公变,2#,仙宅茶叶,林坞口路灯变,贝莱特,3#,金创塑胶正式变,长岗家园2号公变,通用机械,1#,仙宅股份经济合作社,吉友塑料,长岗纸箱,长岗家园3号公变,仙宅村潘家公变,银帆电梯,","scope":"浙江省-杭州市-余杭区-余杭街道-仙宅行政村(仙宅自然村,新岭自然村,余长公路);余杭街道(杭州长岗彩印包装有限公司,贝达药业股份有限公司,中国移动通信集团浙江有限公司余杭分公司,杭州良辰机械制造有限公司,杭州乾峰科技有限公司,杭州余杭晨厦建筑工程队,浙江贝莱特蓝莓综合开发有限公司,浙江中天电线电缆有限公司,杭州好一科技有限公司,杭州余杭制水有限公司,杭州云曼星酒店管理有限公司,杭州金创塑胶有限公司,杭州余杭仙宅股份经济合作社,杭州市余杭区人民政府余杭街道办事处)","startTime":"2020-05-18 06:45:00","stopDate":"2020-05-18 08:45:00","orgNo":"3340140","typeCode":"电网故障停限电","poweroffArea":"35kV长岗临时变:仙宅H777线仙宅H7770开关后段","poweroffReason":"高压开关跳闸","powerTime":"2020-05-18 08:25:34","powerComm":"已送电","subsNo":"","lineNo":"","tgNo":"","tgName":null,"infoStatus":"1","orgName":"国网浙江杭州市余杭区供电有限公司","typeName":null,"infoStatusName":null,"dateDay":null,"orgNos":null,"nowTime":null,"countyName":null,"streetName":null,"villageName":null,"roadName":null,"communityName":null,"tranName":null,"sdLineName":null,"cityCode":"3340140","cityName":"国网浙江杭州市余杭区供电有限公司","provinceCode":null,"stopTime":"2020-05-18 08:45:00","powerType":"全部","powerOffArea":"35kV长岗临时变:仙宅H777线仙宅H7770开关后段","powerOffReason":"高压开关跳闸","powerOffId":"2020051831020012"},{"poweroffId":2020051831020006,"sgpoweroffId":null,"subsName":"","lineName":"10kV今辰T551线","pubTranName":"4#专变,杭州千芝雅卫生用品有限公司,美庐二期3号公变,美庐新城2号公变,杭州亿宏实业有限公司,杭州千芝雅卫生用品有限公司,桐庐圆通印务有限公司,浙江磐海水电设备有限公司,浙江宾利实业有限公司,杭州光典医疗器械有限公司,浙江圣兰德厨卫有限公司,杭州励平科技有限公司1号专变,桐庐美庐物业服务有限公司,杭州励平科技有限公司2号专变,杭州富利登塑胶制品有限公司2#专变,杭州欧圣链传动有限公司,3#专变,杭州环锐机械有限公司,杭州富利登塑胶制品有限公司1#专变,2#,杭州永杰研磨材料有限公司,工业路灯,浙江磐海水电设备有限公司,","scope":"浙江省-杭州市-桐庐县-凤川街道-翙岗行政村-凤川大道;凤川街道(浙江磐海科技有限公司,桐庐圆通印务有限公司,杭州永杰研磨材料有限公司,浙江圣兰德厨卫有限公司,杭州富利登塑胶制品有限公司,杭州千芝雅卫生用品有限公司,杭州亿宏实业有限公司,浙江宾利实业有限公司,杭州欧圣链传动有限公司,杭州环锐机械有限公司,杭州励平科技有限公司,桐庐经济开发区建设投资发展有限公司,杭州光典医疗器械有限公司,杭州创卓物业管理有限公司)","startTime":"2020-05-18 05:53:00","stopDate":"2020-05-18 07:53:00","orgNo":"3340150","typeCode":"电网故障停限电","poweroffArea":"110kV旺家变:今辰T551线今辰开关站今辰T551线后段","poweroffReason":"高压开关跳闸","powerTime":"2020-05-18 07:39:30","powerComm":"已送电","subsNo":"","lineNo":"","tgNo":"","tgName":null,"infoStatus":"1","orgName":"国网浙江桐庐县供电公司","typeName":null,"infoStatusName":null,"dateDay":null,"orgNos":null,"nowTime":null,"countyName":null,"streetName":null,"villageName":null,"roadName":null,"communityName":null,"tranName":null,"sdLineName":null,"cityCode":"3340150","cityName":"国网浙江桐庐县供电公司","provinceCode":null,"stopTime":"2020-05-18 07:53:00","powerType":"全部","powerOffArea":"110kV旺家变:今辰T551线今辰开关站今辰T551线后段","powerOffReason":"高压开关跳闸","powerOffId":"2020051831020006"},{"poweroffId":2020051731020179,"sgpoweroffId":null,"subsName":"","lineName":"10kV马丁7287线","pubTranName":"滨宅施5#,冠一八,冠一五,滨宅施2#,岩大房2#,滨宅施1#,彩霞施1#,浦小施1#,山二,浦小施3#,岩大房1#,木制,滨宅施3#,浦小施2#,滨宅施4#,冠一二,","scope":"浙江省-杭州市-滨江区-浦沿街道-冠二社区(火炬大道,滨文路),浦沿街道(山二村社区-火炬大道,冠一社区-冠一村,联庄社区-江南大道);浦沿街道(,杭州市滨江区农村多层住宅建设管理中心,杭州岩大房股份经济合作社,杭州市滨江区教育局)","startTime":"2020-05-17 16:13:58","stopDate":"2020-05-17 17:42:00","orgNo":"3340101","typeCode":"电网故障停限电","poweroffArea":"110kV白马变:马丁7287线浦学站家浦72871线后段","poweroffReason":"高压开关跳闸 原停电结束时间为2020-05-17 20:42:00,为减少客户停电时间,加快工作进度,提前送电,现变更停电结束时间为2020-05-17 17:42:00","powerTime":"2020-05-17 16:52:54","powerComm":"已送电","subsNo":"","lineNo":"","tgNo":"","tgName":null,"infoStatus":"1","orgName":"浙江杭州电力客户服务中心","typeName":null,"infoStatusName":null,"dateDay":null,"orgNos":null,"nowTime":null,"countyName":null,"streetName":null,"villageName":null,"roadName":null,"communityName":null,"tranName":null,"sdLineName":null,"cityCode":"3340101","cityName":"浙江杭州电力客户服务中心","provinceCode":null,"stopTime":"2020-05-17 17:42:00","powerType":"全部","powerOffArea":"110kV白马变:马丁7287线浦学站家浦72871线后段","powerOffReason":"高压开关跳闸 原停电结束时间为2020-05-17 20:42:00,为减少客户停电时间,加快工作进度,提前送电,现变更停电结束时间为2020-05-17 17:42:00","powerOffId":"2020051731020179"},{"poweroffId":2020051731020171,"sgpoweroffId":null,"subsName":"","lineName":"10kV马丁7287线","pubTranName":"冠一五,冠一二,山二,彩霞施1#,木制,冠一八,","scope":"浙江省-杭州市-滨江区-浦沿街道-冠二社区(火炬大道,滨文路),浦沿街道(山二村社区-火炬大道,冠一社区-冠一村,联庄社区-江南大道);浦沿街道","startTime":"2020-05-17 15:36:00","stopDate":"2020-05-17 17:36:00","orgNo":"3340101","typeCode":"电网故障停限电","poweroffArea":"110kV白马变:马丁7287线1308后段","poweroffReason":"高压开关跳闸","powerTime":"2020-05-17 16:49:05","powerComm":"已送电","subsNo":"","lineNo":"","tgNo":"","tgName":null,"infoStatus":"1","orgName":"浙江杭州电力客户服务中心","typeName":null,"infoStatusName":null,"dateDay":null,"orgNos":null,"nowTime":null,"countyName":null,"streetName":null,"villageName":null,"roadName":null,"communityName":null,"tranName":null,"sdLineName":null,"cityCode":"3340101","cityName":"浙江杭州电力客户服务中心","provinceCode":null,"stopTime":"2020-05-17 17:36:00","powerType":"全部","powerOffArea":"110kV白马变:马丁7287线1308后段","powerOffReason":"高压开关跳闸","powerOffId":"2020051731020171"},{"poweroffId":2020051731020170,"sgpoweroffId":null,"subsName":"","lineName":"10kV山丁9526线","pubTranName":"冠岩二,冠村二,冠村,冠二,大房,冠二二,张家,火炬,兴元,","scope":"浙江省-杭州市-滨江区-西兴街道-西陵社区-固陵路,浦沿街道-浦联社区(浦沿路,浦联路,东冠路),浦沿街道-联庄社区(江南大道,软件园四期),浦沿街道-新浦社区(浦沿路,新浦路),浦沿街道(冠二社区-滨文路,杨家墩社区-浦沿路,滨盛社区-滨盛路,山二村社区-火炬大道,六和社区-六和路,冠一社区-冠一村,新生社区-新生路),长河街道(江二社区-江二,长一社区-长一,长二社区-长二,塘子堰社区-塘子堰,江一社区-江一,山一村社区-山一,汤家井社区-汤家井,长河社区-长河路);浦沿街道(浙江国锦建设工程有限公司,杭州市滨江区城市管理局)","startTime":"2020-05-17 15:36:00","stopDate":"2020-05-17 17:36:00","orgNo":"3340101","typeCode":"电网故障停限电","poweroffArea":"110kV冠山变:山丁9526线火滨站东火6154B线后段","poweroffReason":"高压开关跳闸","powerTime":"2020-05-17 16:49:46","powerComm":"已送电","subsNo":"","lineNo":"","tgNo":"","tgName":null,"infoStatus":"1","orgName":"浙江杭州电力客户服务中心","typeName":null,"infoStatusName":null,"dateDay":null,"orgNos":null,"nowTime":null,"countyName":null,"streetName":null,"villageName":null,"roadName":null,"communityName":null,"tranName":null,"sdLineName":null,"cityCode":"3340101","cityName":"浙江杭州电力客户服务中心","provinceCode":null,"stopTime":"2020-05-17 17:36:00","powerType":"全部","powerOffArea":"110kV冠山变:山丁9526线火滨站东火6154B线后段","powerOffReason":"高压开关跳闸","powerOffId":"2020051731020170"},{"poweroffId":2020051731020167,"sgpoweroffId":null,"subsName":"","lineName":"10kV马丁7287线","pubTranName":"长一四,","scope":"浙江省-杭州市-滨江区-长河街道-长一社区-长一路","startTime":"2020-05-17 15:37:00","stopDate":"2020-05-17 17:37:00","orgNo":"3340101","typeCode":"电网故障停限电","poweroffArea":"110kV白马变:马丁7287线长一四配变","poweroffReason":"高压开关跳闸","powerTime":"2020-05-17 16:50:01","powerComm":"已送电","subsNo":"","lineNo":"","tgNo":"","tgName":null,"infoStatus":"1","orgName":"浙江杭州电力客户服务中心","typeName":null,"infoStatusName":null,"dateDay":null,"orgNos":null,"nowTime":null,"countyName":null,"streetName":null,"villageName":null,"roadName":null,"communityName":null,"tranName":null,"sdLineName":null,"cityCode":"3340101","cityName":"浙江杭州电力客户服务中心","provinceCode":null,"stopTime":"2020-05-17 17:37:00","powerType":"全部","powerOffArea":"110kV白马变:马丁7287线长一四配变","powerOffReason":"高压开关跳闸","powerOffId":"2020051731020167"},{"poweroffId":2020051731020166,"sgpoweroffId":null,"subsName":"","lineName":"10kV西园G054线","pubTranName":"东湖路景观灯3#变,九乔保障（6120883600）03号专变,君汇上品4号公变,君汇上品6号公变,九乔保障（6120883600）07号专变,稼东路路灯变,2#,三环开发公司,东湖快速路7#基建变,丰乐祥塑料,君汇上品3号公变,九乔保障（6120883600）06号专变,学稼7组变,九乔保障（6120883600）02号专变,乔司南泵站,格瑞贝司,九乔保障（6120883600）01号专变,九乔保障（6120883600）04号专变,路灯管理所,东湖路景观灯4#变,九乔保障（6120883600）05号专变,君汇上品5号公变,","scope":"浙江省-杭州市-余杭区-乔司街道-五星行政村-南蒋自然村,乔司街道-三角行政村(新凉亭自然村,学稼自然村,石塘东路);乔司街道-三角行政村(杭州市余杭区乔司镇人民政府,杭州丰乐祥塑业有限公司,杭州余杭城东净水有限公司,杭州市余杭区人民政府乔司街道办事处,中交第二航务工程局有限公司,杭州市余杭区公路管理处,杭州市余杭区城市管理局),乔司街道(浙江华临建设集团有限公司,乔司行政村-格瑞贝司(杭州)纺织服装有限公司,吴家行政村-杭州市余杭区公路管理处,连城社区-佳兆业物业管理(深圳)有限公司杭州临平分公司)","startTime":"2020-05-17 15:35:45","stopDate":"2020-05-17 18:35:45","orgNo":"3340140","typeCode":"电网故障停限电","poweroffArea":"110kV外乔变:西园G054线","poweroffReason":"高压开关跳闸","powerTime":"2020-05-17 18:00:00","powerComm":"已送电","subsNo":"","lineNo":"","tgNo":"","tgName":null,"infoStatus":"1","orgName":"国网浙江杭州市余杭区供电有限公司","typeName":null,"infoStatusName":null,"dateDay":null,"orgNos":null,"nowTime":null,"countyName":null,"streetName":null,"villageName":null,"roadName":null,"communityName":null,"tranName":null,"sdLineName":null,"cityCode":"3340140","cityName":"国网浙江杭州市余杭区供电有限公司","provinceCode":null,"stopTime":"2020-05-17 18:35:45","powerType":"全部","powerOffArea":"110kV外乔变:西园G054线","powerOffReason":"高压开关跳闸","powerOffId":"2020051731020166"}],"pageModel":{"pageNow":147,"totalCount":17787,"totalPage":1779,"tableRows":0,"pageCount":10,"beginCount":1460},"isExperi":"1"}