{"message":"","today":"2020-06-16","seleList":[{"poweroffId":2019071331010142,"sgpoweroffId":null,"subsName":"","lineName":"10kV新桥C106线","pubTranName":"高桥16#公变,","scope":"浙江省-杭州市-萧山区-城厢街道(高桥社区-高桥路)高桥住宅小区，;高桥住宅小区144、145、146、147幢一带","startTime":"2019-07-13 14:30:00","stopDate":"2019-07-13 18:30:00","orgNo":"3340130","typeCode":"电网故障停限电","poweroffArea":"110kV丽都变:新桥C106线-高桥16#公变台区低压开关","poweroffReason":"（低压停电信息）低压漏电保护器短路故障","powerTime":"2019-07-13 17:34:31","powerComm":"已送电","subsNo":"","lineNo":"","tgNo":"","tgName":null,"infoStatus":"1","orgName":"国网浙江杭州市萧山区供电有限公司","typeName":null,"infoStatusName":null,"dateDay":null,"orgNos":null,"nowTime":null,"countyName":null,"streetName":null,"villageName":null,"roadName":null,"communityName":null,"tranName":null,"sdLineName":null,"cityCode":"3340130","cityName":"国网浙江杭州市萧山区供电有限公司","provinceCode":null,"stopTime":"2019-07-13 18:30:00","powerType":"全部","powerOffArea":"110kV丽都变:新桥C106线-高桥16#公变台区低压开关","powerOffReason":"（低压停电信息）低压漏电保护器短路故障","powerOffId":"2019071331010142"},{"poweroffId":2019071331010141,"sgpoweroffId":null,"subsName":"","lineName":"10kV戴家Y800线","pubTranName":"戴家村洪家坞台区,戴家村季家前台区,徐家村徐家店台区,建德市艺丰纺织制品厂,建德市远宸化工有限公司,1#,齐平村仙人洞台区,林茶村方家坞台区,徐家村香山台区,林茶村珠畈坞口台区变压器,戴家村板桥台区,戴家村麻车坞台区,建德市莲美塑胶材料厂,林茶村肖家台区,戴家村花芬里台区,建德市丰远塑胶有限公司,戴家村戴家新村台区,建德市贤明塑胶厂,戴家村项塘坞台区,林茶村红日晒台区,戴家村姚坟里台区,建德市新安联农禽业发展有限公司,建德市晟隆塑材厂,2#变,徐家村亭畈台区,齐平村齐平台区,徐家村双山台区,徐家村上畈台区,戴家村柒弯台区,建德市聚力重钙厂,1#变,林茶村塘坞口台区,戴家村里芳台区,戴家村姚村台区,建德市兴荣塑料材料厂,林茶村汪家台区,戴家村大家畈台区,建德市金源马赛克有限公司,戴家电站专变,戴家村洋溪岭台区,戴家村老虎岩台区,建德市意祥塑业有限公司,徐家村和畈台区,建德市永明塑料制品厂,戴家村支石坞口台区,戴家村邓宅源台区,齐平村上椎台区,徐家村和溪台区,戴家村项塘坞口台区,戴家村郑家台区,戴家村坑口台区,林茶村茶园头台区,杭州宇通塑胶有限公司,徐家村源口台区,莲花齐平饲料厂,建德市银丰休闲用品有限公司,徐家村高湾坪台区,戴家村邵下坞台区,戴家村杨家台区,建德市点点塑业材料厂,齐平村宋岸台区,浙江物产京安工程科技有限公司,徐家村里边坞台区,戴家村戴家台区,建德市新新伟业塑胶制品厂,徐家村枫树底台区,林茶村塔上台区,建德市莲胜塑料助剂厂,建德市莲顺钙化有限公司,林茶村竹家坞台区,","scope":"浙江省-杭州市-建德市-莲花镇(戴家行政村-板桥自然村、大家畈自然村、戴家自然村、邓宅源自然村、花芬里自然村、季家前自然村、坑口自然村、里芳自然村、麻车坞自然村、邵下坞自然村、项塘坞自然村、杨家自然村、洋溪岭自然村、姚村自然村、姚坟里自然村、郑家自然村,林茶行政村-茶元头自然村、方家坞自然村、红日晒自然村、塘坞口自然村、汪家自然村、肖家自然村、竹家坞自然村,齐平行政村-齐平自然村、上椎自然村、宋岸自然村、仙人洞自然村,徐家行政村-枫树底自然村、高湾坪自然村、和溪自然村、和畈自然村、里边坞自然村、上畈自然村、双山自然村、亭畈自然村、香山自然村、徐家店自然村、源口自然村);(杭州宇通塑胶有限公司,建德市超越助剂有限公司,建德市戴家电站,建德市点点塑业材料厂,建德市丰远塑胶有限公司,建德市莲美塑胶材料厂,建德市莲胜塑料助剂厂,建德市莲顺钙化有限公司,建德市青辉包装制品有限公司,建德市贤明塑胶厂,建德市新安联农禽业发展有限公司,建德市新新伟业塑胶制品厂,建德市兴荣塑料材料厂,建德市艺丰纺织制品厂,建德市意祥塑业有限公司,建德市银丰休闲用品有限公司,建德市永明塑料制品厂,建德市远宸化工有限公司,建德市晟隆塑材厂,莲花齐平饲料厂,浙江拓新高分子材料股份有限公司,浙江物产京安工程科技有限公司)一带用户.","startTime":"2019-07-13 14:25:35","stopDate":"2019-07-13 18:30:00","orgNo":"3340180","typeCode":"电网故障停限电","poweroffArea":"35kV莲花变:戴家Y800线","poweroffReason":"戴家Y800线 高压杆线故障（原预计停电结束时间21:00，由于施工现场环境比较复杂，存在不确定因素，因此预估施工时间适当放长了，目前故障已修复，现将停电时间变更至18:30。）","powerTime":"2019-07-13 17:56:00","powerComm":"已送电","subsNo":"","lineNo":"","tgNo":"","tgName":null,"infoStatus":"1","orgName":"国网浙江建德市供电有限公司","typeName":null,"infoStatusName":null,"dateDay":null,"orgNos":null,"nowTime":null,"countyName":null,"streetName":null,"villageName":null,"roadName":null,"communityName":null,"tranName":null,"sdLineName":null,"cityCode":"3340180","cityName":"国网浙江建德市供电有限公司","provinceCode":null,"stopTime":"2019-07-13 18:30:00","powerType":"全部","powerOffArea":"35kV莲花变:戴家Y800线","powerOffReason":"戴家Y800线 高压杆线故障（原预计停电结束时间21:00，由于施工现场环境比较复杂，存在不确定因素，因此预估施工时间适当放长了，目前故障已修复，现将停电时间变更至18:30。）","powerOffId":"2019071331010141"},{"poweroffId":2019071331010128,"sgpoweroffId":null,"subsName":"","lineName":"10kV三鑫T277线","pubTranName":"杭州桦桐家私集团有限公司,桐庐锡仑建材有限公司,上店村2号公变,肖岭村1号公变,东毛村1号公变,华联村2号公变,杭州桦桐家私集团有限公司2#,桐庐永良针纺服饰厂,锡仑能源基建三变,桐庐飞腾公路工程有限公司,桐庐县凤川镇雷坞念佛堂,桐庐锡仑建材有限公司,凤岗村4号公变,东下坞村1号公变,雷坞村1号公变,三源村1号公变,杭州桦桐家私集团有限公司1#,江南灌区厂用,黄场坞村2号公变,桐庐锡仑建材有限公司,戴家畈村1号公变,高家村1号公变,小源溪电站,1#,华联村1号公变,中巡村1号公变,甘竹村1号公变,上店村1号公变,高家村2号公变,西毛村1号公变,杭州皮尔宇特新材料有限公司变压器配电变压器,杭州恒达海绵有限公司,凤新生态农业科技有限公司,竹桐坞村1号公变,肖岭一级电站专变,1#,3#,松香坞村1号公变,肖岭村2号公变,凤源村1号公变,桃岭村2号公变,甘竹村2号公变,桃岭村1号公变,潘西坞村1号公变,黄场坞村1号公变,凤新生态农业科技有限公司,桐庐锡仑建材有限公司,桐庐锡仑建材有限公司,西下坞村1号公变,杭州智腾电气有限公司,桐庐外源粮油专业合作社,桐庐小源山农庄,松香坞电站,","scope":"浙江省-杭州市-桐庐县-凤川街道(大源行政村-戴家畈自然村、东毛自然村、东下坞自然村、甘竹自然村、华联自然村、潘西坞自然村、西毛自然村、西下坞自然村,翙岗行政村-凤岗自然村,三鑫行政村-雷坞自然村、肖岭自然村、竹桐坞自然村,外源行政村-凤源自然村、高家自然村、三源路、上店自然村、中巡自然村,潇源行政村-黄场坞自然村、松香坞自然村、桃岭自然村);(杭州恒达海绵有限公司,杭州皮尔宇特新材料有限公司,杭州智腾电气有限公司,杭州桦桐家私集团有限公司,松香坞电站,桐庐飞腾公路工程有限公司,桐庐归园田居生态农业开发有限公司,桐庐外源粮油专业合作社,桐庐锡仑建材有限公司,桐庐县凤川镇雷坞念佛堂,桐庐县江南灌区工程管理处,桐庐永良针纺服饰厂,小源溪电站,浙江凤鑫生态农业科技有限公司);","startTime":"2019-07-13 13:36:49","stopDate":"2019-07-13 19:36:49","orgNo":"3340150","typeCode":"电网故障停限电","poweroffArea":"110kV石阜变:三鑫T277线","poweroffReason":"（低压停电信息）低压开关故障处理","powerTime":"2019-07-13 19:10:08","powerComm":"已送电。","subsNo":"","lineNo":"","tgNo":"","tgName":null,"infoStatus":"1","orgName":"国网浙江桐庐县供电公司","typeName":null,"infoStatusName":null,"dateDay":null,"orgNos":null,"nowTime":null,"countyName":null,"streetName":null,"villageName":null,"roadName":null,"communityName":null,"tranName":null,"sdLineName":null,"cityCode":"3340150","cityName":"国网浙江桐庐县供电公司","provinceCode":null,"stopTime":"2019-07-13 19:36:49","powerType":"全部","powerOffArea":"110kV石阜变:三鑫T277线","powerOffReason":"（低压停电信息）低压开关故障处理","powerOffId":"2019071331010128"},{"poweroffId":2019071331010121,"sgpoweroffId":null,"subsName":"","lineName":"10kV下沙976线","pubTranName":"三通道南接线3#,三通道南接线7#,前峰村13#变,三通道南接线2#,02,路灯箱变,林杰化工厂,前峰村1#变,江东开发建设投资1#,前峰村6#变,前峰村12#变,路灯箱变,三通道南接线4#,长征村5#变,前进街道二配变,01,新峰村2#变,前峰村9#变,前进街道六配变,义丈三垦,路灯箱变,三通道南接线6#,前峰安置区1#变,东升村5#变,前峰村11#变,路灯箱变,江东开发建设投资2#,三通道南接线5#,农港农副产品,衙前垦种（一）,前峰村8#变,前峰村7#变,路灯箱变,三通道南接线1#,前峰安置小区2#变,03,路灯箱变,前峰村2#变,","scope":"浙江省-杭州市-萧山区-前进街道(临江行政村-长征自然村、东升自然村、新峰自然村,前峰行政村-前峰自然村,前进街道社区-前进自然村);(杭州大江东新城开发有限公司,杭州江东开发建设投资有限责任公司,杭州经济技术开发区前进工业园区开发建设指挥部,杭州林杰化工有限公司,杭州农港农副产品有限公司,杭州三通道南接工程有限公司,宏图衙前三垦种,前进义丈三垦种),新湾前进街道文化路西侧一带","startTime":"2019-07-13 12:55:22","stopDate":"2019-07-13 15:20:34","orgNo":"3340120","typeCode":"电网故障停限电","poweroffArea":"110kV前进变:下沙976线","poweroffReason":"高压开关跳闸","powerTime":"2019-07-13 14:40:03","powerComm":"已送电","subsNo":"","lineNo":"","tgNo":"","tgName":null,"infoStatus":"1","orgName":"国网浙江杭州市钱塘新区供电公司","typeName":null,"infoStatusName":null,"dateDay":null,"orgNos":null,"nowTime":null,"countyName":null,"streetName":null,"villageName":null,"roadName":null,"communityName":null,"tranName":null,"sdLineName":null,"cityCode":"3340120","cityName":"国网浙江杭州市钱塘新区供电公司","provinceCode":null,"stopTime":"2019-07-13 15:20:34","powerType":"全部","powerOffArea":"110kV前进变:下沙976线","powerOffReason":"高压开关跳闸","powerOffId":"2019071331010121"},{"poweroffId":2019071331010114,"sgpoweroffId":null,"subsName":"","lineName":"10kV泰峰H883线","pubTranName":"超德斯2#,超德斯1#,泰峰村留思公变,泰峰村马家公变,杭州百基水泥有限公司,泰峰村姚家2号公变,盛翔化工,袁家岭矿,泰峰村思古山村口公变,泰峰村徐家庄2号公变,泰峰村思古山公变,江峰市政材料,泰峰村留家村公变,泰峰村马家2号公变,百基水泥3#,余杭勤奋纸箱厂,杭州热电工程有限公司,泰峰村徐家庄公变,泰峰村袁家头公变,泰峰村礼堂公变,思古山石灰厂,泰峰村思古山2号公变,泰峰村袁家头2号公变,大坑湾石矿,泰峰村姚家公变,泰峰村李家公变,泰峰村同和亭公变,泰峰村南涧加工场公变,泰峰村老乡公所公变,泰山水泥厂新(1),泰峰村紫荆山公变,","scope":"浙江省-杭州市-余杭区-中泰街道泰峰行政村-泰峰自然村，杭州百基水泥有限公司,杭州超德斯实业有限公司,杭州力盾混凝土外加剂有限公司,杭州热力管业有限公司,杭州同绿实业有限公司,杭州余杭江峰管业有限公司,杭州余杭勤奋纸箱厂一带","startTime":"2019-07-13 12:45:00","stopDate":"2019-07-13 13:50:00","orgNo":"3340140","typeCode":"电网故障停限电","poweroffArea":"110kV中泰变:泰峰H883线","poweroffReason":"泰峰H883线 接地故障 原停电结束时间2019-07-13 17:30:00 变更停电结束时间原因：现场施工力量充足 提前修复","powerTime":"2019-07-13 13:34:45","powerComm":"已送电","subsNo":"","lineNo":"","tgNo":"","tgName":null,"infoStatus":"1","orgName":"国网浙江杭州市余杭区供电有限公司","typeName":null,"infoStatusName":null,"dateDay":null,"orgNos":null,"nowTime":null,"countyName":null,"streetName":null,"villageName":null,"roadName":null,"communityName":null,"tranName":null,"sdLineName":null,"cityCode":"3340140","cityName":"国网浙江杭州市余杭区供电有限公司","provinceCode":null,"stopTime":"2019-07-13 13:50:00","powerType":"全部","powerOffArea":"110kV中泰变:泰峰H883线","powerOffReason":"泰峰H883线 接地故障 原停电结束时间2019-07-13 17:30:00 变更停电结束时间原因：现场施工力量充足 提前修复","powerOffId":"2019071331010114"},{"poweroffId":2019071331010112,"sgpoweroffId":null,"subsName":"","lineName":"10kV千家Y408线","pubTranName":"大店口村靠坑源台区,","scope":"浙江省-杭州市-建德市-航头镇 大店口行政村-大店口自然村、靠坑源自然村一带用户.","startTime":"2019-07-13 12:32:00","stopDate":"2019-07-13 15:30:00","orgNo":"3340180","typeCode":"电网故障停限电","poweroffArea":"110kV航头变:千家Y408线-大店口村靠坑源台区后段","poweroffReason":"(低压停电信息)低压开关跳闸故障(原预计停电结束时间17:00，由于施工现场环境比较复杂，存在不确定因素，因此预估施工时间适当放长了，目前故障已修复，现将停电时间变更至15:30。)","powerTime":"2019-07-13 14:45:00","powerComm":"已送电","subsNo":"","lineNo":"","tgNo":"","tgName":null,"infoStatus":"1","orgName":"国网浙江建德市供电有限公司","typeName":null,"infoStatusName":null,"dateDay":null,"orgNos":null,"nowTime":null,"countyName":null,"streetName":null,"villageName":null,"roadName":null,"communityName":null,"tranName":null,"sdLineName":null,"cityCode":"3340180","cityName":"国网浙江建德市供电有限公司","provinceCode":null,"stopTime":"2019-07-13 15:30:00","powerType":"全部","powerOffArea":"110kV航头变:千家Y408线-大店口村靠坑源台区后段","powerOffReason":"(低压停电信息)低压开关跳闸故障(原预计停电结束时间17:00，由于施工现场环境比较复杂，存在不确定因素，因此预估施工时间适当放长了，目前故障已修复，现将停电时间变更至15:30。)","powerOffId":"2019071331010112"},{"poweroffId":2019071331010108,"sgpoweroffId":null,"subsName":"","lineName":"10kV官路Y507线","pubTranName":"杨村桥村王谢台区,","scope":"浙江省-杭州市-建德市-杨村桥镇 杨村桥行政村-王谢自然村一带用户.","startTime":"2019-07-13 12:25:00","stopDate":"2019-07-13 15:00:00","orgNo":"3340180","typeCode":"电网故障停限电","poweroffArea":"110kV沿口变:官路Y507线-杨村桥村王谢台区后段","poweroffReason":"（低压停电信息）低压总保跳闸故障","powerTime":"2019-07-13 14:13:00","powerComm":"已送电","subsNo":"","lineNo":"","tgNo":"","tgName":null,"infoStatus":"1","orgName":"国网浙江建德市供电有限公司","typeName":null,"infoStatusName":null,"dateDay":null,"orgNos":null,"nowTime":null,"countyName":null,"streetName":null,"villageName":null,"roadName":null,"communityName":null,"tranName":null,"sdLineName":null,"cityCode":"3340180","cityName":"国网浙江建德市供电有限公司","provinceCode":null,"stopTime":"2019-07-13 15:00:00","powerType":"全部","powerOffArea":"110kV沿口变:官路Y507线-杨村桥村王谢台区后段","powerOffReason":"（低压停电信息）低压总保跳闸故障","powerOffId":"2019071331010108"},{"poweroffId":2019071331010099,"sgpoweroffId":null,"subsName":"","lineName":"10kV芦茨T196线","pubTranName":"杭州桐庐严子陵水电有限公司芦茨三级电站,桐庐山韵生态农业开发公司,环境治理公司,芦茨3号公变,桐庐富春江紫光水务有限公司,大母山1号公变,杭州桐庐严子陵水电有限公司芦茨一级电站,芦茨壹号度假公寓1号公变,1#,石笋1号公变,传弼1号公变,桐庐县富春江镇一茶一坐农庄,国网浙江省电力公司培训中心,桐庐放语空文化创意有限公司变压器,芦茨村4号公变,桐庐县芦茨乡蟹坑口电站,茆坪2号公变,芦茨村2号公变,芦茨邵家1号公变,梅树坞3号公变,严陵坞1号公变,芦茨6号公变,钓鱼岛4号,桐庐芦茨1号酒店管理有限公司,桐庐陈坑坞电站,1#专变,芦茨村1号公变,中国电信股份有限公司桐庐分公司变压器,桐庐飞腾公路工程有限公司,1#专变,梅树坞1号公变,钓台春江公司,茆坪3号公变,富渔宾馆,白云源,钓台宿舍,芦茨8号公变,枫林1号公变,芦茨邵家2号公变,双源3号公变,双源1号公变,富春江旅游公司（水厂）,枫林2号公变,桐庐县富春江镇山里人家饭店,长洲1号公变,杭州微旅居文化传播有限公司变压器,桐庐潜庐酒店管理有限公司变压器,桐庐县芦茨乡南坞口电站,桐庐飞腾公路工程有限公司,蟹坑口2号公变,杭州桐庐严子陵水电有限公司芦茨四级电站,杭州慢谷旅游开发有限公司变压器,芦茨村5号公变,芦茨9号公变,茆坪1号公变,梅树坞2号公变,浙江桐庐白云源饮品有限公司变压器,梅树坞4号公变,杭州桐庐严子陵水电有限公司变压器,青龙坞酒店变压器,富春江小三峡分公司,电厂机修,双源2号公变,桐庐飞腾公路工程有限公司,石舍1号公变,梓舍里饭店,桐庐县富春江镇天空民宿,深坑1号公变,杭州桐庐严子陵水电有限公司芦茨五级电站,桐庐飞腾公路工程有限公司,杭州桐庐严子陵水电有限公司白云源坝后电站,芦茨7号公变,杭州完美生活品牌管理有限公司,蟹坑口1号公变,起雾山移居点1号公变,茆坪4号公变,","scope":"浙江省-杭州市-桐庐县-富春江镇(芦茨行政村-大母山自然村、芦茨自然村、梅树坞自然村、深坑自然村、双源自然村、蟹坑口自然村、严陵坞自然村,石舍行政村-长州自然村、传弼自然村、枫林自然村、石舍自然村、石笋自然村,茆坪行政村-百步街自然村、茆坪邵家自然村、茆坪自然村);(国网新源水电有限公司富春江水力发电厂,国网浙江省电力有限公司培训中心,国网浙江桐庐县供电有限公司,杭州白云源风景区旅游开发有限公司,杭州慢谷旅游开发有限公司,杭州桐庐严子陵水电有限公司,杭州桐庐严子陵水电有限公司芦茨四级电站,杭州完美生活品牌管理有限公司,杭州微旅居文化传播有限公司,桐庐俺的青龙坞酒店管理有限公司,桐庐长洲源饮用水有限公司,桐庐陈坑坞电站,桐庐放语空文化创意有限公司,桐庐飞腾公路工程有限公司,桐庐富春江紫光水务有限公司,桐庐光典民间资本管理服务有限公司,桐庐国华农庄有限公司,桐庐芦茨壹号酒店管理有限公司,桐庐七里泷环境治理有限公司,桐庐潜庐酒店管理有限公司,桐庐山韵生态农业开发有限公司,桐庐县富春江镇山里人家饭店,桐庐县富春江镇天空民宿,桐庐县富春江镇一茶一坐农庄,桐庐县芦茨乡南坞口电站,桐庐县芦茨乡蟹坑口电站,桐庐中磊建材有限公司,浙江富春江旅游股份有限公司富春江小三峡分公司,浙江桐庐白云源饮品有限公司,中国电信股份有限公司桐庐分公司,龙门湾一带);","startTime":"2019-07-13 11:55:27","stopDate":"2019-07-13 17:00:05","orgNo":"3340150","typeCode":"电网故障停限电","poweroffArea":"110kV外董变:芦茨T196线","poweroffReason":"（低压停电信息）低压开关故障处理","powerTime":"2019-07-13 16:40:31","powerComm":"已送电","subsNo":"","lineNo":"","tgNo":"","tgName":null,"infoStatus":"1","orgName":"国网浙江桐庐县供电公司","typeName":null,"infoStatusName":null,"dateDay":null,"orgNos":null,"nowTime":null,"countyName":null,"streetName":null,"villageName":null,"roadName":null,"communityName":null,"tranName":null,"sdLineName":null,"cityCode":"3340150","cityName":"国网浙江桐庐县供电公司","provinceCode":null,"stopTime":"2019-07-13 17:00:05","powerType":"全部","powerOffArea":"110kV外董变:芦茨T196线","powerOffReason":"（低压停电信息）低压开关故障处理","powerOffId":"2019071331010099"},{"poweroffId":2019071331010094,"sgpoweroffId":null,"subsName":"","lineName":"10kV鸿泰9751线","pubTranName":"黄家（4-1）农,","scope":"浙江省-杭州市-江干区-笕桥镇(黄家社区-黄家村、相埠路、相婆路);","startTime":"2019-07-13 11:40:37","stopDate":"2019-07-13 13:10:23","orgNo":"3340101","typeCode":"电网故障停限电","poweroffArea":"110kV下宁变:鸿泰9751线-黄家（4-1）农后段","poweroffReason":"(低压停电信息)黄家（4-1）农后段低压设备故障 原预计停电结束时间2019-07-13 17:40:37,由于施工现场环境比较复杂，存在不确定因素，因此预估施工时间适当放长了，而实际施工进行得比较顺利，因此提前送电了","powerTime":"2019-07-13 12:30:32","powerComm":"已送电","subsNo":"","lineNo":"","tgNo":"","tgName":null,"infoStatus":"1","orgName":"浙江杭州电力客户服务中心","typeName":null,"infoStatusName":null,"dateDay":null,"orgNos":null,"nowTime":null,"countyName":null,"streetName":null,"villageName":null,"roadName":null,"communityName":null,"tranName":null,"sdLineName":null,"cityCode":"3340101","cityName":"浙江杭州电力客户服务中心","provinceCode":null,"stopTime":"2019-07-13 13:10:23","powerType":"全部","powerOffArea":"110kV下宁变:鸿泰9751线-黄家（4-1）农后段","powerOffReason":"(低压停电信息)黄家（4-1）农后段低压设备故障 原预计停电结束时间2019-07-13 17:40:37,由于施工现场环境比较复杂，存在不确定因素，因此预估施工时间适当放长了，而实际施工进行得比较顺利，因此提前送电了","powerOffId":"2019071331010094"},{"poweroffId":2019071331010067,"sgpoweroffId":null,"subsName":"","lineName":"10kV百亩V184线","pubTranName":"10kV太源村[八亩村]公变,10kV太源村[八亩横山殿]公变,10kV太源村[富源童家]公变,10kV太源村[班竹坞茶叶坪]公变,10kV太源村[富源小路口]公变,10kV太源村[八亩石桥坞口]公变,10kV太源村[八亩西山]公变,10kV太源村[班竹坞村里]公变,10kV太源村[班竹坞村外]公变,10kv太源村【富源外】公变,","scope":"浙江省-杭州市-临安市-太阳镇(太源行政村-八亩自然村、班竹坞自然村、茶叶坪自然村、大路口自然村、富源自然村、横山殿自然村、石桥坞自然村、童家自然村、西山自然村、小路口自然村);","startTime":"2019-07-13 09:41:10","stopDate":"2019-07-13 17:00:10","orgNo":"3340160","typeCode":"电网故障停限电","poweroffArea":"停35kV太阳变:百亩V184线-1844开关后段","poweroffReason":"百亩V184线-1844开关跳","powerTime":"2019-07-13 16:23:30","powerComm":"已送电","subsNo":"","lineNo":"","tgNo":"","tgName":null,"infoStatus":"1","orgName":"国网浙江临安市供电公司","typeName":null,"infoStatusName":null,"dateDay":null,"orgNos":null,"nowTime":null,"countyName":null,"streetName":null,"villageName":null,"roadName":null,"communityName":null,"tranName":null,"sdLineName":null,"cityCode":"3340160","cityName":"国网浙江临安市供电公司","provinceCode":null,"stopTime":"2019-07-13 17:00:10","powerType":"全部","powerOffArea":"停35kV太阳变:百亩V184线-1844开关后段","powerOffReason":"百亩V184线-1844开关跳","powerOffId":"2019071331010067"}],"pageModel":{"pageNow":1460,"totalCount":17789,"totalPage":1779,"tableRows":0,"pageCount":10,"beginCount":14590},"isExperi":"1"}