{"message":"","today":"2020-06-16","seleList":[{"poweroffId":2019071231020315,"sgpoweroffId":null,"subsName":"","lineName":"10kV浦东D198线","pubTranName":"富阳市坚盾门窗科技有限公司,浙江天瀚门窗科技有限公司1号变,杭州富阳山佳实业有限公司2#变,富阳市路灯安装维修管理所1#变,富阳市亚泰防火门有限公司配电变压器,1#变,富阳一石门业有限公司,","scope":"浙江省-杭州市-富阳区-大源镇-浙江天瀚门窗科技有限公司,大源镇-蒋家行政村(杭州富阳坚盾门窗科技有限公司,杭州富阳城市照明工程有限公司),大源镇-大源行政村(杭州富阳一石门业有限公司,杭州富阳山佳实业有限公司,杭州富阳亚泰防火门有限公司)","startTime":"2019-07-12 15:15:11","stopDate":"2019-07-12 17:15:11","orgNo":"3340170","typeCode":"电网故障停限电","poweroffArea":"110kV大源变:浦东D198线-浦东D1986开关后段","poweroffReason":"高压开关跳闸","powerTime":"2019-07-12 16:34:50","powerComm":"已送电","subsNo":"","lineNo":"","tgNo":"","tgName":null,"infoStatus":"1","orgName":"国网浙江杭州市富阳区供电公司","typeName":null,"infoStatusName":null,"dateDay":null,"orgNos":null,"nowTime":null,"countyName":null,"streetName":null,"villageName":null,"roadName":null,"communityName":null,"tranName":null,"sdLineName":null,"cityCode":"3340170","cityName":"国网浙江杭州市富阳区供电公司","provinceCode":null,"stopTime":"2019-07-12 17:15:11","powerType":"全部","powerOffArea":"110kV大源变:浦东D198线-浦东D1986开关后段","powerOffReason":"高压开关跳闸","powerOffId":"2019071231020315"},{"poweroffId":2019071231020311,"sgpoweroffId":null,"subsName":"","lineName":"10kV南安D336线","pubTranName":"白马村1#山顶公变,","scope":"浙江省杭州市富阳区万市镇白马行政村山顶自然村一带","startTime":"2019-07-24 06:30:00","stopDate":"2019-07-24 13:30:00","orgNo":"3340170","typeCode":"计划停电","poweroffArea":"110kV万市变:南安D336线-白马村1#山顶公变低压开关后段","poweroffReason":"（低压停电信息）东皇山03线导线JKLYJ-70*4*7档、拆除导线JKLYJ-70*4*2档、安装横担8付、拉线5支、拆除横担2付、拉线2支、更换落户线BS-JKLYJ-2*25*1户、人工拔杆10米2支","powerTime":"2019-07-24 13:20:16","powerComm":"已送电","subsNo":"","lineNo":"","tgNo":"","tgName":null,"infoStatus":"1","orgName":"国网浙江杭州市富阳区供电公司","typeName":null,"infoStatusName":null,"dateDay":null,"orgNos":null,"nowTime":null,"countyName":null,"streetName":null,"villageName":null,"roadName":null,"communityName":null,"tranName":null,"sdLineName":null,"cityCode":"3340170","cityName":"国网浙江杭州市富阳区供电公司","provinceCode":null,"stopTime":"2019-07-24 13:30:00","powerType":"全部","powerOffArea":"110kV万市变:南安D336线-白马村1#山顶公变低压开关后段","powerOffReason":"（低压停电信息）东皇山03线导线JKLYJ-70*4*7档、拆除导线JKLYJ-70*4*2档、安装横担8付、拉线5支、拆除横担2付、拉线2支、更换落户线BS-JKLYJ-2*25*1户、人工拔杆10米2支","powerOffId":"2019071231020311"},{"poweroffId":2019071231020309,"sgpoweroffId":null,"subsName":"","lineName":"10kV新华D320线","pubTranName":"东洲新沙村2#村西公变,","scope":"浙江省-杭州市-富阳区-东洲街道-新沙行政村-新沙自然村","startTime":"2019-07-24 06:30:00","stopDate":"2019-07-24 13:00:00","orgNo":"3340170","typeCode":"计划停电","poweroffArea":"110kV建设变:新华D320线-东洲新沙村2#村西公变低压开关后段","poweroffReason":"（低压停电信息）敷设YJV4*150电缆2路，拆除旧8表箱2只，新装T接箱2只，改接YJV4*35电缆3路等工作。","powerTime":"2019-07-24 12:47:13","powerComm":"已送电","subsNo":"","lineNo":"","tgNo":"","tgName":null,"infoStatus":"1","orgName":"国网浙江杭州市富阳区供电公司","typeName":null,"infoStatusName":null,"dateDay":null,"orgNos":null,"nowTime":null,"countyName":null,"streetName":null,"villageName":null,"roadName":null,"communityName":null,"tranName":null,"sdLineName":null,"cityCode":"3340170","cityName":"国网浙江杭州市富阳区供电公司","provinceCode":null,"stopTime":"2019-07-24 13:00:00","powerType":"全部","powerOffArea":"110kV建设变:新华D320线-东洲新沙村2#村西公变低压开关后段","powerOffReason":"（低压停电信息）敷设YJV4*150电缆2路，拆除旧8表箱2只，新装T接箱2只，改接YJV4*35电缆3路等工作。","powerOffId":"2019071231020309"},{"poweroffId":2019071231020305,"sgpoweroffId":null,"subsName":"","lineName":"10kV春建D202线","pubTranName":"西邮村3号公变,","scope":"浙江省-杭州市-富阳区-富春街道-西邮行政村-西邮自然村","startTime":"2019-07-24 06:59:00","stopDate":"2019-07-24 13:44:00","orgNo":"3340170","typeCode":"计划停电","poweroffArea":"35kV大青变:春建D202线-西邮村3号后段","poweroffReason":"（低压停电信息）进户线搭接，架线等工作","powerTime":"2019-07-24 13:30:19","powerComm":"已送电","subsNo":"","lineNo":"","tgNo":"","tgName":null,"infoStatus":"1","orgName":"国网浙江杭州市富阳区供电公司","typeName":null,"infoStatusName":null,"dateDay":null,"orgNos":null,"nowTime":null,"countyName":null,"streetName":null,"villageName":null,"roadName":null,"communityName":null,"tranName":null,"sdLineName":null,"cityCode":"3340170","cityName":"国网浙江杭州市富阳区供电公司","provinceCode":null,"stopTime":"2019-07-24 13:44:00","powerType":"全部","powerOffArea":"35kV大青变:春建D202线-西邮村3号后段","powerOffReason":"（低压停电信息）进户线搭接，架线等工作","powerOffId":"2019071231020305"},{"poweroffId":2019071231020302,"sgpoweroffId":null,"subsName":"","lineName":"10kV青何D731线","pubTranName":"青何村民政2号产坞公变,","scope":"浙江省杭州市富阳区永昌镇青何行政村民政产坞自然村一带","startTime":"2019-07-24 08:30:00","stopDate":"2019-07-24 16:30:00","orgNo":"3340170","typeCode":"计划停电","poweroffArea":"110kV松溪变:青何D731线-青何村民政2号产坞公变低压开关后段","poweroffReason":"（低压停电信息）新登2019年10kV唐昌村唐昌4#小岭头公变等台区增容布点工程：蔡坞分线29#杆青何村民政2#产坞公变与青何新布点公变低压割接、开耐张、低压电缆搭头等工作","powerTime":"2019-07-24 16:16:13","powerComm":"已送电","subsNo":"","lineNo":"","tgNo":"","tgName":null,"infoStatus":"1","orgName":"国网浙江杭州市富阳区供电公司","typeName":null,"infoStatusName":null,"dateDay":null,"orgNos":null,"nowTime":null,"countyName":null,"streetName":null,"villageName":null,"roadName":null,"communityName":null,"tranName":null,"sdLineName":null,"cityCode":"3340170","cityName":"国网浙江杭州市富阳区供电公司","provinceCode":null,"stopTime":"2019-07-24 16:30:00","powerType":"全部","powerOffArea":"110kV松溪变:青何D731线-青何村民政2号产坞公变低压开关后段","powerOffReason":"（低压停电信息）新登2019年10kV唐昌村唐昌4#小岭头公变等台区增容布点工程：蔡坞分线29#杆青何村民政2#产坞公变与青何新布点公变低压割接、开耐张、低压电缆搭头等工作","powerOffId":"2019071231020302"},{"poweroffId":2019071231020301,"sgpoweroffId":null,"subsName":"","lineName":"10kV玉泉V486线","pubTranName":"衣锦人家小区6＃公变,衣锦人家小区8＃公变,衣锦人家小区4#公变,临安市城市公共交通有限公司1,","scope":"浙江省-杭州市-临安市-锦北街道-杭州市临安公共交通有限公司,衣锦人家小区一带.","startTime":"2019-07-25 07:15:00","stopDate":"2019-07-25 17:00:00","orgNo":"3340160","typeCode":"计划停电","poweroffArea":"110kV平山变:玉泉V486线-城市公共交通玉泉分线后段;玉泉V486线-衣锦人家分线后段","poweroffReason":"新建环网柜","powerTime":"2019-07-25 16:16:19","powerComm":"已送电","subsNo":"","lineNo":"","tgNo":"","tgName":null,"infoStatus":"1","orgName":"国网浙江临安市供电公司","typeName":null,"infoStatusName":null,"dateDay":null,"orgNos":null,"nowTime":null,"countyName":null,"streetName":null,"villageName":null,"roadName":null,"communityName":null,"tranName":null,"sdLineName":null,"cityCode":"3340160","cityName":"国网浙江临安市供电公司","provinceCode":null,"stopTime":"2019-07-25 17:00:00","powerType":"全部","powerOffArea":"110kV平山变:玉泉V486线-城市公共交通玉泉分线后段;玉泉V486线-衣锦人家分线后段","powerOffReason":"新建环网柜","powerOffId":"2019071231020301"},{"poweroffId":2019071231020299,"sgpoweroffId":null,"subsName":"","lineName":"10kV花园V377线","pubTranName":"玲珑花园小区9#公变,玲珑花园10＃公变,","scope":"浙江省-杭州市-临安市-玲珑街道玲珑花园小区一带.","startTime":"2019-07-25 07:20:00","stopDate":"2019-07-25 15:30:00","orgNo":"3340160","typeCode":"计划停电","poweroffArea":"110kV玲珑变:花园V377线-玲珑花园二期9＃后段","poweroffReason":"公变美变调换欧变","powerTime":"2019-07-25 15:20:38","powerComm":"全部送电","subsNo":"","lineNo":"","tgNo":"","tgName":null,"infoStatus":"1","orgName":"国网浙江临安市供电公司","typeName":null,"infoStatusName":null,"dateDay":null,"orgNos":null,"nowTime":null,"countyName":null,"streetName":null,"villageName":null,"roadName":null,"communityName":null,"tranName":null,"sdLineName":null,"cityCode":"3340160","cityName":"国网浙江临安市供电公司","provinceCode":null,"stopTime":"2019-07-25 15:30:00","powerType":"全部","powerOffArea":"110kV玲珑变:花园V377线-玲珑花园二期9＃后段","powerOffReason":"公变美变调换欧变","powerOffId":"2019071231020299"},{"poweroffId":2019071231020298,"sgpoweroffId":null,"subsName":"","lineName":"10kV明月V482线","pubTranName":"杭州市临安区教育保障中心1#,中铁十四局集团建筑工程有限公司1#,临安市锦北街道西墅居民委员会,","scope":"浙江省-杭州市-临安市-锦城街道-中铁十四局集团建筑工程有限公司,杭州市临安区教育保障中心,临安市锦北街道西墅居民委员会一带.","startTime":"2019-07-26 07:30:00","stopDate":"2019-07-26 15:30:00","orgNo":"3340160","typeCode":"计划停电","poweroffArea":"110kV平山变:明月V482线-路灯变分支线开关后段","poweroffReason":"电缆拆除,新建环网柜","powerTime":"2019-07-26 15:20:16","powerComm":"已送电","subsNo":"","lineNo":"","tgNo":"","tgName":null,"infoStatus":"1","orgName":"国网浙江临安市供电公司","typeName":null,"infoStatusName":null,"dateDay":null,"orgNos":null,"nowTime":null,"countyName":null,"streetName":null,"villageName":null,"roadName":null,"communityName":null,"tranName":null,"sdLineName":null,"cityCode":"3340160","cityName":"国网浙江临安市供电公司","provinceCode":null,"stopTime":"2019-07-26 15:30:00","powerType":"全部","powerOffArea":"110kV平山变:明月V482线-路灯变分支线开关后段","powerOffReason":"电缆拆除,新建环网柜","powerOffId":"2019071231020298"},{"poweroffId":2019071231020295,"sgpoweroffId":null,"subsName":"","lineName":"10kV逸城D251线","pubTranName":"泉水湾25号公变,","scope":"浙江省-杭州市-富阳区-东洲街道-黄公望行政村(江滨东大道,株林坞自然村)","startTime":"2019-07-26 14:00:00","stopDate":"2019-07-26 17:10:00","orgNo":"3340170","typeCode":"计划停电","poweroffArea":"110kV白鹤变:紫铜D249线-泉水湾25号公变低压开关后段","poweroffReason":"（低压停电信息）T接箱移位等工作","powerTime":"2019-07-26 16:52:49","powerComm":"已送电","subsNo":"","lineNo":"","tgNo":"","tgName":null,"infoStatus":"1","orgName":"国网浙江杭州市富阳区供电公司","typeName":null,"infoStatusName":null,"dateDay":null,"orgNos":null,"nowTime":null,"countyName":null,"streetName":null,"villageName":null,"roadName":null,"communityName":null,"tranName":null,"sdLineName":null,"cityCode":"3340170","cityName":"国网浙江杭州市富阳区供电公司","provinceCode":null,"stopTime":"2019-07-26 17:10:00","powerType":"全部","powerOffArea":"110kV白鹤变:紫铜D249线-泉水湾25号公变低压开关后段","powerOffReason":"（低压停电信息）T接箱移位等工作","powerOffId":"2019071231020295"},{"poweroffId":2019071231020269,"sgpoweroffId":null,"subsName":"","lineName":"10kV屏门R182线","pubTranName":"淳安建来建材有限公司,","scope":"浙江省-杭州市-淳安县-屏门乡-将坑行政村-淳安建来建材有限公司","startTime":"2019-07-24 07:30:00","stopDate":"2019-07-24 15:40:00","orgNo":"3340190","typeCode":"计划停电","poweroffArea":"35kV临岐变:屏门R182线-建来建材厂支线跌落式熔断器后段","poweroffReason":"屏门182线53号杆T接淳安建来建材有限公司400千伏安专变当天新上专变投运送电（带电作业班配合）","powerTime":"2019-07-24 14:18:16","powerComm":"现场工作已完成","subsNo":"","lineNo":"","tgNo":"","tgName":null,"infoStatus":"1","orgName":"国网浙江淳安县供电有限公司","typeName":null,"infoStatusName":null,"dateDay":null,"orgNos":null,"nowTime":null,"countyName":null,"streetName":null,"villageName":null,"roadName":null,"communityName":null,"tranName":null,"sdLineName":null,"cityCode":"3340190","cityName":"国网浙江淳安县供电有限公司","provinceCode":null,"stopTime":"2019-07-24 15:40:00","powerType":"全部","powerOffArea":"35kV临岐变:屏门R182线-建来建材厂支线跌落式熔断器后段","powerOffReason":"屏门182线53号杆T接淳安建来建材有限公司400千伏安专变当天新上专变投运送电（带电作业班配合）","powerOffId":"2019071231020269"}],"pageModel":{"pageNow":1464,"totalCount":17789,"totalPage":1779,"tableRows":0,"pageCount":10,"beginCount":14630},"isExperi":"1"}