{"message":"","today":"2020-06-16","seleList":[{"poweroffId":2019071231020160,"sgpoweroffId":null,"subsName":"","lineName":"10kV横街V593线","pubTranName":"钱皇铺村[金头马坞岭]公变,","scope":"浙江省杭州市临安区锦城街道钱王铺行政村金头自然村一带","startTime":"2019-07-26 07:30:00","stopDate":"2019-07-26 12:00:00","orgNo":"3340160","typeCode":"计划停电","poweroffArea":"110kV杨岭变:横街V593线-钱皇铺村[金头马坞岭]公变后段","poweroffReason":"低压线路改造","powerTime":"2019-07-26 11:50:30","powerComm":"已送电","subsNo":"","lineNo":"","tgNo":"","tgName":null,"infoStatus":"1","orgName":"国网浙江临安市供电公司","typeName":null,"infoStatusName":null,"dateDay":null,"orgNos":null,"nowTime":null,"countyName":null,"streetName":null,"villageName":null,"roadName":null,"communityName":null,"tranName":null,"sdLineName":null,"cityCode":"3340160","cityName":"国网浙江临安市供电公司","provinceCode":null,"stopTime":"2019-07-26 12:00:00","powerType":"全部","powerOffArea":"110kV杨岭变:横街V593线-钱皇铺村[金头马坞岭]公变后段","powerOffReason":"低压线路改造","powerOffId":"2019071231020160"},{"poweroffId":2019071231020158,"sgpoweroffId":null,"subsName":"","lineName":"10kV化龙V152线","pubTranName":"双源村[林场]公变,","scope":"浙江省杭州市临安区玲珑街道双源行政村林场一带","startTime":"2019-07-25 12:30:00","stopDate":"2019-07-25 16:30:00","orgNo":"3340160","typeCode":"计划停电","poweroffArea":"110kV夏禹变:化龙V152线-双源村[林场]公变后段","poweroffReason":"安装三相不平衡装置","powerTime":"2019-07-25 16:15:24","powerComm":"已送电","subsNo":"","lineNo":"","tgNo":"","tgName":null,"infoStatus":"1","orgName":"国网浙江临安市供电公司","typeName":null,"infoStatusName":null,"dateDay":null,"orgNos":null,"nowTime":null,"countyName":null,"streetName":null,"villageName":null,"roadName":null,"communityName":null,"tranName":null,"sdLineName":null,"cityCode":"3340160","cityName":"国网浙江临安市供电公司","provinceCode":null,"stopTime":"2019-07-25 16:30:00","powerType":"全部","powerOffArea":"110kV夏禹变:化龙V152线-双源村[林场]公变后段","powerOffReason":"安装三相不平衡装置","powerOffId":"2019071231020158"},{"poweroffId":2019071231020157,"sgpoweroffId":null,"subsName":"","lineName":"10kV化龙V152线","pubTranName":"双源村[上源]公变,","scope":"浙江省杭州市临安区玲珑街道双源行政村上源自然村一带","startTime":"2019-07-25 07:30:00","stopDate":"2019-07-25 11:30:00","orgNo":"3340160","typeCode":"计划停电","poweroffArea":"110kV夏禹变:化龙V152线-双源村[上源]公变后段","poweroffReason":"安装三相不平衡装置","powerTime":"2019-07-25 10:56:38","powerComm":"全部送电","subsNo":"","lineNo":"","tgNo":"","tgName":null,"infoStatus":"1","orgName":"国网浙江临安市供电公司","typeName":null,"infoStatusName":null,"dateDay":null,"orgNos":null,"nowTime":null,"countyName":null,"streetName":null,"villageName":null,"roadName":null,"communityName":null,"tranName":null,"sdLineName":null,"cityCode":"3340160","cityName":"国网浙江临安市供电公司","provinceCode":null,"stopTime":"2019-07-25 11:30:00","powerType":"全部","powerOffArea":"110kV夏禹变:化龙V152线-双源村[上源]公变后段","powerOffReason":"安装三相不平衡装置","powerOffId":"2019071231020157"},{"poweroffId":2019071231020156,"sgpoweroffId":null,"subsName":"","lineName":"10kV杨畈V582线","pubTranName":"夏村村[浪岭脚],","scope":"浙江省杭州市临安区太湖源镇夏村行政村浪岭自然村一带","startTime":"2019-07-24 12:30:00","stopDate":"2019-07-24 16:30:00","orgNo":"3340160","typeCode":"计划停电","poweroffArea":"110kV杨岭变:杨畈V582线-夏村村[浪岭脚]后段","poweroffReason":"安装三相不平衡装置","powerTime":"2019-07-24 16:20:13","powerComm":"已送电","subsNo":"","lineNo":"","tgNo":"","tgName":null,"infoStatus":"1","orgName":"国网浙江临安市供电公司","typeName":null,"infoStatusName":null,"dateDay":null,"orgNos":null,"nowTime":null,"countyName":null,"streetName":null,"villageName":null,"roadName":null,"communityName":null,"tranName":null,"sdLineName":null,"cityCode":"3340160","cityName":"国网浙江临安市供电公司","provinceCode":null,"stopTime":"2019-07-24 16:30:00","powerType":"全部","powerOffArea":"110kV杨岭变:杨畈V582线-夏村村[浪岭脚]后段","powerOffReason":"安装三相不平衡装置","powerOffId":"2019071231020156"},{"poweroffId":2019071231020155,"sgpoweroffId":null,"subsName":"","lineName":"10kV杨西V721线","pubTranName":"青云村[岳山脚],","scope":"浙江省杭州市临安区太湖源镇青云行政村上坎岳山脚一带","startTime":"2019-07-24 07:30:00","stopDate":"2019-07-24 11:30:00","orgNo":"3340160","typeCode":"计划停电","poweroffArea":"110kV杨岭变:杨西V721线-青云村[岳山脚]后段","poweroffReason":"安装三相不平衡装置","powerTime":"2019-07-24 11:20:56","powerComm":"全部送电","subsNo":"","lineNo":"","tgNo":"","tgName":null,"infoStatus":"1","orgName":"国网浙江临安市供电公司","typeName":null,"infoStatusName":null,"dateDay":null,"orgNos":null,"nowTime":null,"countyName":null,"streetName":null,"villageName":null,"roadName":null,"communityName":null,"tranName":null,"sdLineName":null,"cityCode":"3340160","cityName":"国网浙江临安市供电公司","provinceCode":null,"stopTime":"2019-07-24 11:30:00","powerType":"全部","powerOffArea":"110kV杨岭变:杨西V721线-青云村[岳山脚]后段","powerOffReason":"安装三相不平衡装置","powerOffId":"2019071231020155"},{"poweroffId":2019071231020154,"sgpoweroffId":null,"subsName":"","lineName":"10kV吴越V382线","pubTranName":"总工会充电桩公变,余村[村中]公变,","scope":"浙江省杭州市临安区锦城街道余村居委会余村自然村,总工会充电桩一带","startTime":"2019-07-24 06:30:00","stopDate":"2019-07-24 13:30:00","orgNo":"3340160","typeCode":"计划停电","poweroffArea":"35kV渔村变:吴越V382线-吴越分线后段","poweroffReason":"通道修剪，缺陷处理","powerTime":"2019-07-24 13:20:18","powerComm":"全部送电","subsNo":"","lineNo":"","tgNo":"","tgName":null,"infoStatus":"1","orgName":"国网浙江临安市供电公司","typeName":null,"infoStatusName":null,"dateDay":null,"orgNos":null,"nowTime":null,"countyName":null,"streetName":null,"villageName":null,"roadName":null,"communityName":null,"tranName":null,"sdLineName":null,"cityCode":"3340160","cityName":"国网浙江临安市供电公司","provinceCode":null,"stopTime":"2019-07-24 13:30:00","powerType":"全部","powerOffArea":"35kV渔村变:吴越V382线-吴越分线后段","powerOffReason":"通道修剪，缺陷处理","powerOffId":"2019071231020154"},{"poweroffId":2019071231020153,"sgpoweroffId":null,"subsName":"","lineName":"10kV横山V381线","pubTranName":"余村[3#]公变,临安市东方中医药科研中心,","scope":"浙江省杭州市临安区锦城街道余村居委会余村自然村，临安市东方中医药科研中心一带","startTime":"2019-07-24 06:30:00","stopDate":"2019-07-24 13:30:00","orgNo":"3340160","typeCode":"计划停电","poweroffArea":"35kV渔村变:横山V381线-横山分线后段","poweroffReason":"通道修剪，缺陷处理","powerTime":"2019-07-24 13:20:10","powerComm":"已送电","subsNo":"","lineNo":"","tgNo":"","tgName":null,"infoStatus":"1","orgName":"国网浙江临安市供电公司","typeName":null,"infoStatusName":null,"dateDay":null,"orgNos":null,"nowTime":null,"countyName":null,"streetName":null,"villageName":null,"roadName":null,"communityName":null,"tranName":null,"sdLineName":null,"cityCode":"3340160","cityName":"国网浙江临安市供电公司","provinceCode":null,"stopTime":"2019-07-24 13:30:00","powerType":"全部","powerOffArea":"35kV渔村变:横山V381线-横山分线后段","powerOffReason":"通道修剪，缺陷处理","powerOffId":"2019071231020153"},{"poweroffId":2019071231020152,"sgpoweroffId":null,"subsName":"","lineName":"10kV杨华V731线","pubTranName":"南庄村[九组],南庄村[政府边],南庄村[东家畈],南庄村[大门坞口],","scope":"浙江省杭州市临安区太湖源镇南庄行政村（南庄自然村,大门坞自然村）一带","startTime":"2019-07-23 07:30:00","stopDate":"2019-07-23 13:00:00","orgNo":"3340160","typeCode":"计划停电","poweroffArea":"110kV杨岭变:杨华V731线-梅家支线006#后段","poweroffReason":"布点增容","powerTime":"2019-07-23 12:40:40","powerComm":"已送电","subsNo":"","lineNo":"","tgNo":"","tgName":null,"infoStatus":"1","orgName":"国网浙江临安市供电公司","typeName":null,"infoStatusName":null,"dateDay":null,"orgNos":null,"nowTime":null,"countyName":null,"streetName":null,"villageName":null,"roadName":null,"communityName":null,"tranName":null,"sdLineName":null,"cityCode":"3340160","cityName":"国网浙江临安市供电公司","provinceCode":null,"stopTime":"2019-07-23 13:00:00","powerType":"全部","powerOffArea":"110kV杨岭变:杨华V731线-梅家支线006#后段","powerOffReason":"布点增容","powerOffId":"2019071231020152"},{"poweroffId":2019071231020151,"sgpoweroffId":null,"subsName":"","lineName":"10kV塘家V396线","pubTranName":"国网浙江杭州市临安区供电有限公司,","scope":"浙江省杭州市临安区玲珑街道东山行政村国网浙江杭州市临安区供电有限公司一带","startTime":"2019-07-23 07:10:00","stopDate":"2019-07-23 17:00:00","orgNo":"3340160","typeCode":"计划停电","poweroffArea":"110kV秀水变:塘家V396线-G1#永祥站3962开关后段","poweroffReason":"秀水电缆更换","powerTime":"2019-07-23 16:50:12","powerComm":"已送电","subsNo":"","lineNo":"","tgNo":"","tgName":null,"infoStatus":"1","orgName":"国网浙江临安市供电公司","typeName":null,"infoStatusName":null,"dateDay":null,"orgNos":null,"nowTime":null,"countyName":null,"streetName":null,"villageName":null,"roadName":null,"communityName":null,"tranName":null,"sdLineName":null,"cityCode":"3340160","cityName":"国网浙江临安市供电公司","provinceCode":null,"stopTime":"2019-07-23 17:00:00","powerType":"全部","powerOffArea":"110kV秀水变:塘家V396线-G1#永祥站3962开关后段","powerOffReason":"秀水电缆更换","powerOffId":"2019071231020151"},{"poweroffId":2019071231020150,"sgpoweroffId":null,"subsName":"","lineName":"10kV里畈V580线","pubTranName":"临目村[外横渡],","scope":"浙江省杭州市临安区太湖源镇临目行政村横渡自然村一带","startTime":"2019-07-22 13:00:00","stopDate":"2019-07-22 17:00:00","orgNo":"3340160","typeCode":"计划停电","poweroffArea":"110kV杨岭变:里畈V580线-外横渡分支线1#后段","poweroffReason":"安装三相不平衡装置","powerTime":"2019-07-22 16:30:26","powerComm":"全部送电","subsNo":"","lineNo":"","tgNo":"","tgName":null,"infoStatus":"1","orgName":"国网浙江临安市供电公司","typeName":null,"infoStatusName":null,"dateDay":null,"orgNos":null,"nowTime":null,"countyName":null,"streetName":null,"villageName":null,"roadName":null,"communityName":null,"tranName":null,"sdLineName":null,"cityCode":"3340160","cityName":"国网浙江临安市供电公司","provinceCode":null,"stopTime":"2019-07-22 17:00:00","powerType":"全部","powerOffArea":"110kV杨岭变:里畈V580线-外横渡分支线1#后段","powerOffReason":"安装三相不平衡装置","powerOffId":"2019071231020150"}],"pageModel":{"pageNow":1467,"totalCount":17789,"totalPage":1779,"tableRows":0,"pageCount":10,"beginCount":14660},"isExperi":"1"}