{"message":"","today":"2020-06-15","seleList":[{"poweroffId":2020051731020157,"sgpoweroffId":null,"subsName":"","lineName":"10kV春建D202线","pubTranName":"富阳市富春街道梅山矿粉经营部,西邮村3号公变,华家埭4号华家埭2公变,富阳新瑞塑料制品有限公司,杨梅山2号杨梅山公变,西邮村1#村委旁公变,西邮村2号公路旁公变,杨梅山3#麻栗坞公变,杨梅山1号下灰坞公变,大青农垦老工厂,富阳诚明纸制品有限公司,","scope":"浙江省-杭州市-富阳区-富春街道-西邮行政村(杨梅山自然村,麻栗坞自然村,西邮自然村,高家山自然村,湖回垄自然村,湖回垅自然村,华家埭自然村,上寨自然村);富春街道(大青农垦老工厂,杭州富阳诚明纸制品有限公司,富阳新瑞塑料制品有限公司,富阳市富春街道梅山矿粉经营部)","startTime":"2020-05-17 14:01:00","stopDate":"2020-05-17 16:01:00","orgNo":"3340170","typeCode":"电网故障停限电","poweroffArea":"35kV大青变:春建D202线春建D2023开关后段","poweroffReason":"高压开关跳闸","powerTime":"2020-05-17 15:02:11","powerComm":"已送电","subsNo":"","lineNo":"","tgNo":"","tgName":null,"infoStatus":"1","orgName":"国网浙江杭州市富阳区供电公司","typeName":null,"infoStatusName":null,"dateDay":null,"orgNos":null,"nowTime":null,"countyName":null,"streetName":null,"villageName":null,"roadName":null,"communityName":null,"tranName":null,"sdLineName":null,"cityCode":"3340170","cityName":"国网浙江杭州市富阳区供电公司","provinceCode":null,"stopTime":"2020-05-17 16:01:00","powerType":"全部","powerOffArea":"35kV大青变:春建D202线春建D2023开关后段","powerOffReason":"高压开关跳闸","powerOffId":"2020051731020157"},{"poweroffId":2020051731020156,"sgpoweroffId":null,"subsName":"","lineName":"10kV拔山D942线","pubTranName":"杭州春城建材有限公司,新春村5#青浦垄公变,杭州春城建材有限公司,新春村9#青浦垄2#公变,富阳市国有农业资产经营有限公司,中铁十二局集团有限公司,新春村17号青浦垄公变,富阳腾兴机械有限公司,新春村13#青浦垄3公变,富阳市成兴化工助剂有限公司,","scope":"浙江省-杭州市-富阳区-富春街道-杨清庙行政村(清浦垅自然村,后山岭自然村,杨清庙自然村,新春自然村,山头上自然村,牌楼自然村);富春街道(杭州春城建材有限公司,杭州富阳成兴化工助剂有限公司,杭州富阳国有农业资产经营有限公司,杭州富阳腾兴机械有限公司,中铁十二局集团有限公司)","startTime":"2020-05-17 14:00:00","stopDate":"2020-05-17 16:00:00","orgNo":"3340170","typeCode":"电网故障停限电","poweroffArea":"110kV育才变:拔山D942线拔山D9423开关后段","poweroffReason":"高压开关跳闸","powerTime":"2020-05-17 15:01:58","powerComm":"已送电","subsNo":"","lineNo":"","tgNo":"","tgName":null,"infoStatus":"1","orgName":"国网浙江杭州市富阳区供电公司","typeName":null,"infoStatusName":null,"dateDay":null,"orgNos":null,"nowTime":null,"countyName":null,"streetName":null,"villageName":null,"roadName":null,"communityName":null,"tranName":null,"sdLineName":null,"cityCode":"3340170","cityName":"国网浙江杭州市富阳区供电公司","provinceCode":null,"stopTime":"2020-05-17 16:00:00","powerType":"全部","powerOffArea":"110kV育才变:拔山D942线拔山D9423开关后段","powerOffReason":"高压开关跳闸","powerOffId":"2020051731020156"},{"poweroffId":2020051731020149,"sgpoweroffId":null,"subsName":"","lineName":"10kV义和A55线","pubTranName":"新湾村3#变,","scope":"浙江省-杭州市-萧山区-新湾街道-三新行政村-新湾自然村","startTime":"2020-05-29 09:00:00","stopDate":"2020-05-29 14:30:00","orgNo":"3340120","typeCode":"计划停电","poweroffArea":"110kV白浪变:义和A55线-新湾村3#变低压闸刀后段","poweroffReason":"(低压停电信息)新湾村3#变B路出线电缆拆除等工作; 原停电结束时间为2020-05-29 17:30:00,为减少客户停电时间,加快工作进度,提前送电,现变更停电结束时间为2020-05-29 14:30:00","powerTime":"2020-05-29 13:50:19","powerComm":"已送电","subsNo":"","lineNo":"","tgNo":"","tgName":null,"infoStatus":"1","orgName":"国网浙江杭州市钱塘新区供电公司","typeName":null,"infoStatusName":null,"dateDay":null,"orgNos":null,"nowTime":null,"countyName":null,"streetName":null,"villageName":null,"roadName":null,"communityName":null,"tranName":null,"sdLineName":null,"cityCode":"3340120","cityName":"国网浙江杭州市钱塘新区供电公司","provinceCode":null,"stopTime":"2020-05-29 14:30:00","powerType":"全部","powerOffArea":"110kV白浪变:义和A55线-新湾村3#变低压闸刀后段","powerOffReason":"(低压停电信息)新湾村3#变B路出线电缆拆除等工作; 原停电结束时间为2020-05-29 17:30:00,为减少客户停电时间,加快工作进度,提前送电,现变更停电结束时间为2020-05-29 14:30:00","powerOffId":"2020051731020149"},{"poweroffId":2020051731020144,"sgpoweroffId":null,"subsName":"","lineName":"10kV长浪0037线","pubTranName":"蓬园村8#变,","scope":"浙江省-杭州市-萧山区-义蓬街道-蓬园行政村-蓬园自然村","startTime":"2020-05-28 09:00:00","stopDate":"2020-05-28 17:30:00","orgNo":"3340120","typeCode":"计划停电","poweroffArea":"110kV白浪变:长浪0037线-蓬园村8#变后段","poweroffReason":"(低压停电信息)蓬园村8#变B01#杆至B07#杆用户割接至新架空线路，放线搭接，旧线拆除等工作","powerTime":"2020-05-28 16:55:56","powerComm":"已送电","subsNo":"","lineNo":"","tgNo":"","tgName":null,"infoStatus":"1","orgName":"国网浙江杭州市钱塘新区供电公司","typeName":null,"infoStatusName":null,"dateDay":null,"orgNos":null,"nowTime":null,"countyName":null,"streetName":null,"villageName":null,"roadName":null,"communityName":null,"tranName":null,"sdLineName":null,"cityCode":"3340120","cityName":"国网浙江杭州市钱塘新区供电公司","provinceCode":null,"stopTime":"2020-05-28 17:30:00","powerType":"全部","powerOffArea":"110kV白浪变:长浪0037线-蓬园村8#变后段","powerOffReason":"(低压停电信息)蓬园村8#变B01#杆至B07#杆用户割接至新架空线路，放线搭接，旧线拆除等工作","powerOffId":"2020051731020144"},{"poweroffId":2020051731020143,"sgpoweroffId":null,"subsName":"","lineName":"10kV河庄0505线","pubTranName":"河庄资产1#,巍巍房产,河庄邮电所,河庄街道三配变,","scope":"浙江省-杭州市-萧山区-河庄街道-同二行政村-同二自然村,河庄街道-永丰路,-河庄邮电所,，河庄农贸市场","startTime":"2020-05-28 09:30:00","stopDate":"2020-05-28 09:45:00","orgNo":"3340120","typeCode":"计划停电","poweroffArea":"35kV永丰变:河庄0505线-河庄街道三配变后段","poweroffReason":"10kV永邮站I段配合倒负荷 原停电结束时间为2020-05-28 09:30:00,因现场门锁故障原因,延迟送电,现变更停电结束时间为2020-05-28 09:45:00","powerTime":"2020-05-28 09:37:03","powerComm":"已送电","subsNo":"","lineNo":"","tgNo":"","tgName":null,"infoStatus":"1","orgName":"国网浙江杭州市钱塘新区供电公司","typeName":null,"infoStatusName":null,"dateDay":null,"orgNos":null,"nowTime":null,"countyName":null,"streetName":null,"villageName":null,"roadName":null,"communityName":null,"tranName":null,"sdLineName":null,"cityCode":"3340120","cityName":"国网浙江杭州市钱塘新区供电公司","provinceCode":null,"stopTime":"2020-05-28 09:45:00","powerType":"全部","powerOffArea":"35kV永丰变:河庄0505线-河庄街道三配变后段","powerOffReason":"10kV永邮站I段配合倒负荷 原停电结束时间为2020-05-28 09:30:00,因现场门锁故障原因,延迟送电,现变更停电结束时间为2020-05-28 09:45:00","powerOffId":"2020051731020143"},{"poweroffId":2020051731020140,"sgpoweroffId":null,"subsName":"","lineName":"10kV长浪0037线","pubTranName":"蓬园村10#变,","scope":"浙江省-杭州市-萧山区-义蓬街道-蓬园行政村-蓬园自然村","startTime":"2020-05-27 09:00:00","stopDate":"2020-05-27 16:00:00","orgNo":"3340120","typeCode":"计划停电","poweroffArea":"110kV白浪变:长浪0037线-蓬园村10#变低压分路闸刀后段","poweroffReason":"(低压停电信息)蓬园村10#变用户割接至新设架空线路，电缆拆头、旧线拆除等工作 原停电结束时间为2020-05-27 17:30:00,为减少客户停电时间,加快工作进度,提前送电,现变更停电结束时间为2020-05-27 16:00:00","powerTime":"2020-05-27 15:33:37","powerComm":"已送电","subsNo":"","lineNo":"","tgNo":"","tgName":null,"infoStatus":"1","orgName":"国网浙江杭州市钱塘新区供电公司","typeName":null,"infoStatusName":null,"dateDay":null,"orgNos":null,"nowTime":null,"countyName":null,"streetName":null,"villageName":null,"roadName":null,"communityName":null,"tranName":null,"sdLineName":null,"cityCode":"3340120","cityName":"国网浙江杭州市钱塘新区供电公司","provinceCode":null,"stopTime":"2020-05-27 16:00:00","powerType":"全部","powerOffArea":"110kV白浪变:长浪0037线-蓬园村10#变低压分路闸刀后段","powerOffReason":"(低压停电信息)蓬园村10#变用户割接至新设架空线路，电缆拆头、旧线拆除等工作 原停电结束时间为2020-05-27 17:30:00,为减少客户停电时间,加快工作进度,提前送电,现变更停电结束时间为2020-05-27 16:00:00","powerOffId":"2020051731020140"},{"poweroffId":2020051731020139,"sgpoweroffId":null,"subsName":"","lineName":"10kV临化071线","pubTranName":"杭万农业车间,东江宁围垦种,宁围垦种管理站（七）,东江宁围（九）,宁安社区居民委员会,宁围垦种管理站（八）,宁围宁安垦种,金一社区经济联合社,格润水产,格润水产,农元农业01#,","scope":"浙江省-杭州市-萧山区-大江东围垦街道-十三工段片区-宁围垦种管理站,临江街道-十二工段片区(杭州萧山宁围镇金一社区经济联合社,萧山区宁围镇宁安社区居民委员会,杭州农元农业开发有限公司),临江街道-十三工段片区(东江宁围垦种,杭万农业车间),围垦垦区-十二工段片区(宁围垦种管理站,浙江格润水产养殖有限公司,杭州市萧山区宁围街道宁安社区居民委员会)","startTime":"2020-05-25 16:00:00","stopDate":"2020-05-25 16:45:00","orgNo":"3340120","typeCode":"计划停电","poweroffArea":"110kV长征变:临化071线-云化站长浦线20/08开关(S)后段","poweroffReason":"10kV临化071线20-08#杆后段倒负荷 原停电结束时间为2020-05-25 16:30:00,因现场变更原因,延迟送电,现变更停电结束时间为2020-05-25 16:45:00","powerTime":"2020-05-25 16:27:39","powerComm":"已送电","subsNo":"","lineNo":"","tgNo":"","tgName":null,"infoStatus":"1","orgName":"国网浙江杭州市钱塘新区供电公司","typeName":null,"infoStatusName":null,"dateDay":null,"orgNos":null,"nowTime":null,"countyName":null,"streetName":null,"villageName":null,"roadName":null,"communityName":null,"tranName":null,"sdLineName":null,"cityCode":"3340120","cityName":"国网浙江杭州市钱塘新区供电公司","provinceCode":null,"stopTime":"2020-05-25 16:45:00","powerType":"全部","powerOffArea":"110kV长征变:临化071线-云化站长浦线20/08开关(S)后段","powerOffReason":"10kV临化071线20-08#杆后段倒负荷 原停电结束时间为2020-05-25 16:30:00,因现场变更原因,延迟送电,现变更停电结束时间为2020-05-25 16:45:00","powerOffId":"2020051731020139"},{"poweroffId":2020051731020138,"sgpoweroffId":null,"subsName":"","lineName":"10kV临化071线","pubTranName":"宁安社区居民委员会,东江宁围垦种,宁围垦种管理站（七）,东江宁围（九）,金一社区经济联合社,格润水产,格润水产,农元农业01#,宁围垦种管理站（八）,宁围宁安垦种,杭万农业车间,","scope":"浙江省-杭州市-萧山区-大江东围垦街道-十三工段片区-宁围垦种管理站,临江街道-十二工段片区(杭州萧山宁围镇金一社区经济联合社,萧山区宁围镇宁安社区居民委员会,杭州农元农业开发有限公司),临江街道-十三工段片区(东江宁围垦种,杭万农业车间),围垦垦区-十二工段片区(宁围垦种管理站,浙江格润水产养殖有限公司,杭州市萧山区宁围街道宁安社区居民委员会)","startTime":"2020-05-25 09:30:00","stopDate":"2020-05-25 10:00:00","orgNo":"3340120","typeCode":"计划停电","poweroffArea":"110kV长征变:临化071线-云化站长浦线20/08开关(S)后段","poweroffReason":"110kV长征变:临化071线-云化站长浦线20/08开关(S)后段配合线路改造倒负荷 原停电结束时间为2020-05-25 09:45:00,因现场原因,延迟送电,现变更停电结束时间为2020-05-25 10:00:00","powerTime":"2020-05-25 09:45:32","powerComm":"已送电","subsNo":"","lineNo":"","tgNo":"","tgName":null,"infoStatus":"1","orgName":"国网浙江杭州市钱塘新区供电公司","typeName":null,"infoStatusName":null,"dateDay":null,"orgNos":null,"nowTime":null,"countyName":null,"streetName":null,"villageName":null,"roadName":null,"communityName":null,"tranName":null,"sdLineName":null,"cityCode":"3340120","cityName":"国网浙江杭州市钱塘新区供电公司","provinceCode":null,"stopTime":"2020-05-25 10:00:00","powerType":"全部","powerOffArea":"110kV长征变:临化071线-云化站长浦线20/08开关(S)后段","powerOffReason":"110kV长征变:临化071线-云化站长浦线20/08开关(S)后段配合线路改造倒负荷 原停电结束时间为2020-05-25 09:45:00,因现场原因,延迟送电,现变更停电结束时间为2020-05-25 10:00:00","powerOffId":"2020051731020138"},{"poweroffId":2020051731020118,"sgpoweroffId":null,"subsName":"","lineName":"10kV东沙A493线","pubTranName":"群英村16#变,","scope":"浙江省-杭州市-萧山区-益农镇-群英行政村-群英自然村、群英村等","startTime":"2020-05-17 12:15:47","stopDate":"2020-05-17 14:05:47","orgNo":"3340130","typeCode":"电网故障停限电","poweroffArea":"110kV群围变:东沙A493线-群英村16#变后段","poweroffReason":"(低压停电信息)低压开关跳闸 原停电结束时间为2020-05-17 14:45:47,为减少客户停电时间,加快工作进度,提前送电,现变更停电结束时间为2020-05-17 14:05:47","powerTime":"2020-05-17 13:15:21","powerComm":"已送电","subsNo":"","lineNo":"","tgNo":"","tgName":null,"infoStatus":"1","orgName":"国网浙江杭州市萧山区供电有限公司","typeName":null,"infoStatusName":null,"dateDay":null,"orgNos":null,"nowTime":null,"countyName":null,"streetName":null,"villageName":null,"roadName":null,"communityName":null,"tranName":null,"sdLineName":null,"cityCode":"3340130","cityName":"国网浙江杭州市萧山区供电有限公司","provinceCode":null,"stopTime":"2020-05-17 14:05:47","powerType":"全部","powerOffArea":"110kV群围变:东沙A493线-群英村16#变后段","powerOffReason":"(低压停电信息)低压开关跳闸 原停电结束时间为2020-05-17 14:45:47,为减少客户停电时间,加快工作进度,提前送电,现变更停电结束时间为2020-05-17 14:05:47","powerOffId":"2020051731020118"},{"poweroffId":2020051731020111,"sgpoweroffId":null,"subsName":"","lineName":"10kV艮编8951线","pubTranName":"编组16#,编组12#,编组21#,编组14#,编组22#,编组19#,编组17#,编组33#,编组4#,编组20#,编组13#,编组9#,编组32#,编组11#,编组3#,编组26#,编组28#,编组15#,编组7#,编组1#,编组8#,编组30#,编组6#,编组5#,编组24#,编组29#,编组31#,编组27#,编组23#,编组18#,编组10#,编组2#,编组25#,","scope":"浙江省-杭州市-下城区-文晖街道-打铁关社区-中国铁路上海局集团有限公司","startTime":"2020-05-17 11:49:17","stopDate":"2020-05-17 23:49:17","orgNo":"3340101","typeCode":"电网故障停限电","poweroffArea":"110kV东新变:艮编8951线","poweroffReason":"高压开关跳闸 原停电结束时间为2020-05-17 13:49:17,因施工现场环境比较复杂原因,延迟送电,现变更停电结束时间为2020-05-17 23:49:17","powerTime":"2020-05-17 23:02:59","powerComm":"已送电","subsNo":"","lineNo":"","tgNo":"","tgName":null,"infoStatus":"1","orgName":"浙江杭州电力客户服务中心","typeName":null,"infoStatusName":null,"dateDay":null,"orgNos":null,"nowTime":null,"countyName":null,"streetName":null,"villageName":null,"roadName":null,"communityName":null,"tranName":null,"sdLineName":null,"cityCode":"3340101","cityName":"浙江杭州电力客户服务中心","provinceCode":null,"stopTime":"2020-05-17 23:49:17","powerType":"全部","powerOffArea":"110kV东新变:艮编8951线","powerOffReason":"高压开关跳闸 原停电结束时间为2020-05-17 13:49:17,因施工现场环境比较复杂原因,延迟送电,现变更停电结束时间为2020-05-17 23:49:17","powerOffId":"2020051731020111"}],"pageModel":{"pageNow":148,"totalCount":17787,"totalPage":1779,"tableRows":0,"pageCount":10,"beginCount":1470},"isExperi":"1"}