{"message":"","today":"2020-06-16","seleList":[{"poweroffId":2019071231020149,"sgpoweroffId":null,"subsName":"","lineName":"10kV里畈V580线","pubTranName":"白沙村[龙须安],","scope":"浙江省杭州市临安区太湖源镇白沙行政村龙须山自然村一带","startTime":"2019-07-22 08:00:00","stopDate":"2019-07-22 12:00:00","orgNo":"3340160","typeCode":"计划停电","poweroffArea":"110kV杨岭变:里畈V580线-白沙村[龙须安]后段","poweroffReason":"安装三相不平衡装置","powerTime":"2019-07-22 11:50:17","powerComm":"已送电","subsNo":"","lineNo":"","tgNo":"","tgName":null,"infoStatus":"1","orgName":"国网浙江临安市供电公司","typeName":null,"infoStatusName":null,"dateDay":null,"orgNos":null,"nowTime":null,"countyName":null,"streetName":null,"villageName":null,"roadName":null,"communityName":null,"tranName":null,"sdLineName":null,"cityCode":"3340160","cityName":"国网浙江临安市供电公司","provinceCode":null,"stopTime":"2019-07-22 12:00:00","powerType":"全部","powerOffArea":"110kV杨岭变:里畈V580线-白沙村[龙须安]后段","powerOffReason":"安装三相不平衡装置","powerOffId":"2019071231020149"},{"poweroffId":2019071231020140,"sgpoweroffId":null,"subsName":"","lineName":"10kV都美V390线","pubTranName":"","scope":"浙江省杭州市临安区玲珑街道东山行政村(金畈自然村,石山自然村)，浙江都美电缆有限公司一带","startTime":"2019-07-22 07:00:00","stopDate":"2019-07-22 17:00:00","orgNo":"3340160","typeCode":"计划停电","poweroffArea":"110kV秀水变:都美V390线-东山村[金源路]公变后段;都美V390线-杭州临安都美电 缆有限公司开关后段","poweroffReason":"布点增容","powerTime":"2019-07-22 16:31:16","powerComm":"全部送电","subsNo":"","lineNo":"","tgNo":"","tgName":null,"infoStatus":"1","orgName":"国网浙江临安市供电公司","typeName":null,"infoStatusName":null,"dateDay":null,"orgNos":null,"nowTime":null,"countyName":null,"streetName":null,"villageName":null,"roadName":null,"communityName":null,"tranName":null,"sdLineName":null,"cityCode":"3340160","cityName":"国网浙江临安市供电公司","provinceCode":null,"stopTime":"2019-07-22 17:00:00","powerType":"全部","powerOffArea":"110kV秀水变:都美V390线-东山村[金源路]公变后段;都美V390线-杭州临安都美电 缆有限公司开关后段","powerOffReason":"布点增容","powerOffId":"2019071231020140"},{"poweroffId":2019071231020137,"sgpoweroffId":null,"subsName":"","lineName":"10kV祥里V155线","pubTranName":"上泉村[塘坞里]公变,","scope":"浙江省杭州市临安区玲珑街道上泉行政村塘坞里自然村一带","startTime":"2019-07-25 07:30:00","stopDate":"2019-07-25 12:30:00","orgNo":"3340160","typeCode":"计划停电","poweroffArea":"110kV夏禹变:祥里V155线-上泉村[塘坞里]公变后段","poweroffReason":"低压线路割接","powerTime":"2019-07-25 12:05:06","powerComm":"已送电","subsNo":"","lineNo":"","tgNo":"","tgName":null,"infoStatus":"1","orgName":"国网浙江临安市供电公司","typeName":null,"infoStatusName":null,"dateDay":null,"orgNos":null,"nowTime":null,"countyName":null,"streetName":null,"villageName":null,"roadName":null,"communityName":null,"tranName":null,"sdLineName":null,"cityCode":"3340160","cityName":"国网浙江临安市供电公司","provinceCode":null,"stopTime":"2019-07-25 12:30:00","powerType":"全部","powerOffArea":"110kV夏禹变:祥里V155线-上泉村[塘坞里]公变后段","powerOffReason":"低压线路割接","powerOffId":"2019071231020137"},{"poweroffId":2019071231020134,"sgpoweroffId":null,"subsName":"","lineName":"10kV横溪V492线","pubTranName":"新溪村[花桥头]公变,","scope":"浙江省杭州市临安区锦城街道新溪桥行政村花桥头一带","startTime":"2019-07-24 07:30:00","stopDate":"2019-07-24 15:00:00","orgNo":"3340160","typeCode":"计划停电","poweroffArea":"110kV平山变:横溪V492线-新溪村[花桥头]公变后段","poweroffReason":"低压线路检修","powerTime":"2019-07-24 14:50:16","powerComm":"全部送电","subsNo":"","lineNo":"","tgNo":"","tgName":null,"infoStatus":"1","orgName":"国网浙江临安市供电公司","typeName":null,"infoStatusName":null,"dateDay":null,"orgNos":null,"nowTime":null,"countyName":null,"streetName":null,"villageName":null,"roadName":null,"communityName":null,"tranName":null,"sdLineName":null,"cityCode":"3340160","cityName":"国网浙江临安市供电公司","provinceCode":null,"stopTime":"2019-07-24 15:00:00","powerType":"全部","powerOffArea":"110kV平山变:横溪V492线-新溪村[花桥头]公变后段","powerOffReason":"低压线路检修","powerOffId":"2019071231020134"},{"poweroffId":2019071231020125,"sgpoweroffId":null,"subsName":"","lineName":"10kV珠村163线","pubTranName":"桐岭濮家2号公变,","scope":"浙江省-杭州市-桐庐县-瑶琳镇-琴溪行政村-桐岭自然村","startTime":"2019-07-23 08:30:00","stopDate":"2019-07-23 12:00:00","orgNo":"3340150","typeCode":"计划停电","poweroffArea":"35kV瑶琳变:珠村163线-濮家F6399后段","poweroffReason":"桐岭濮家2号公变增容至100kVA","powerTime":"2019-07-23 11:50:26","powerComm":"已送电。","subsNo":"","lineNo":"","tgNo":"","tgName":null,"infoStatus":"1","orgName":"国网浙江桐庐县供电公司","typeName":null,"infoStatusName":null,"dateDay":null,"orgNos":null,"nowTime":null,"countyName":null,"streetName":null,"villageName":null,"roadName":null,"communityName":null,"tranName":null,"sdLineName":null,"cityCode":"3340150","cityName":"国网浙江桐庐县供电公司","provinceCode":null,"stopTime":"2019-07-23 12:00:00","powerType":"全部","powerOffArea":"35kV瑶琳变:珠村163线-濮家F6399后段","powerOffReason":"桐岭濮家2号公变增容至100kVA","powerOffId":"2019071231020125"},{"poweroffId":2019071231020119,"sgpoweroffId":null,"subsName":"","lineName":"10kV金桥D367线","pubTranName":"田园路1#公变,","scope":"浙江省-杭州市-富阳区-富春街道-春秋社区(田园路,春秋南路)一带","startTime":"2019-07-23 07:20:00","stopDate":"2019-07-23 17:00:00","orgNo":"3340170","typeCode":"计划停电","poweroffArea":"110kV富鹿变:金桥D367线-田园路1#公变后段","poweroffReason":"（低压停电信息）0.4kV低压田园路1#公变1#开关1#出线、1#开关2#出线、2#开关1#出线电缆改接","powerTime":"2019-07-23 16:24:07","powerComm":"已送电","subsNo":"","lineNo":"","tgNo":"","tgName":null,"infoStatus":"1","orgName":"国网浙江杭州市富阳区供电公司","typeName":null,"infoStatusName":null,"dateDay":null,"orgNos":null,"nowTime":null,"countyName":null,"streetName":null,"villageName":null,"roadName":null,"communityName":null,"tranName":null,"sdLineName":null,"cityCode":"3340170","cityName":"国网浙江杭州市富阳区供电公司","provinceCode":null,"stopTime":"2019-07-23 17:00:00","powerType":"全部","powerOffArea":"110kV富鹿变:金桥D367线-田园路1#公变后段","powerOffReason":"（低压停电信息）0.4kV低压田园路1#公变1#开关1#出线、1#开关2#出线、2#开关1#出线电缆改接","powerOffId":"2019071231020119"},{"poweroffId":2019071231020118,"sgpoweroffId":null,"subsName":"","lineName":"10kV金桥D367线","pubTranName":"田园路3#公变,","scope":"浙江省杭州市富阳区富春街道春晖社区菜市街8号一带","startTime":"2019-07-24 07:20:00","stopDate":"2019-07-24 17:00:00","orgNo":"3340170","typeCode":"计划停电","poweroffArea":"110kV富鹿变:金桥D367线-田园路3#公变后段","poweroffReason":"（低压停电信息）0.4kV低压田园路3#公变1#开关1#出线、2#开关2#出线电缆改接","powerTime":"2019-07-24 16:49:53","powerComm":"已送电","subsNo":"","lineNo":"","tgNo":"","tgName":null,"infoStatus":"1","orgName":"国网浙江杭州市富阳区供电公司","typeName":null,"infoStatusName":null,"dateDay":null,"orgNos":null,"nowTime":null,"countyName":null,"streetName":null,"villageName":null,"roadName":null,"communityName":null,"tranName":null,"sdLineName":null,"cityCode":"3340170","cityName":"国网浙江杭州市富阳区供电公司","provinceCode":null,"stopTime":"2019-07-24 17:00:00","powerType":"全部","powerOffArea":"110kV富鹿变:金桥D367线-田园路3#公变后段","powerOffReason":"（低压停电信息）0.4kV低压田园路3#公变1#开关1#出线、2#开关2#出线电缆改接","powerOffId":"2019071231020118"},{"poweroffId":2019071231020117,"sgpoweroffId":null,"subsName":"","lineName":"10kV秋丰D985线","pubTranName":"秋丰村23#石塔上新区3公变,","scope":"浙江省-杭州市-富阳区-富春街道-秋丰行政村-秋丰自然村","startTime":"2019-07-25 06:40:00","stopDate":"2019-07-25 16:50:00","orgNo":"3340170","typeCode":"计划停电","poweroffArea":"110kV育才变:秋丰D985线-秋丰村23#石塔上新区后段","poweroffReason":"（低压停电信息）青云2019年东山村4#桥头公变等低压台区改造工程更换落户线25处，搭接等工作","powerTime":"2019-07-25 16:40:33","powerComm":"已送电","subsNo":"","lineNo":"","tgNo":"","tgName":null,"infoStatus":"1","orgName":"国网浙江杭州市富阳区供电公司","typeName":null,"infoStatusName":null,"dateDay":null,"orgNos":null,"nowTime":null,"countyName":null,"streetName":null,"villageName":null,"roadName":null,"communityName":null,"tranName":null,"sdLineName":null,"cityCode":"3340170","cityName":"国网浙江杭州市富阳区供电公司","provinceCode":null,"stopTime":"2019-07-25 16:50:00","powerType":"全部","powerOffArea":"110kV育才变:秋丰D985线-秋丰村23#石塔上新区后段","powerOffReason":"（低压停电信息）青云2019年东山村4#桥头公变等低压台区改造工程更换落户线25处，搭接等工作","powerOffId":"2019071231020117"},{"poweroffId":2019071231020116,"sgpoweroffId":null,"subsName":"","lineName":"10kV秋丰D985线","pubTranName":"秋丰村54号石塔上公变,","scope":"浙江省-杭州市-富阳区-富春街道-秋丰行政村-秋丰自然村","startTime":"2019-07-26 06:40:00","stopDate":"2019-07-26 12:50:00","orgNo":"3340170","typeCode":"计划停电","poweroffArea":"110kV育才变:秋丰D985线-秋丰村54号石塔上后段","poweroffReason":"（低压停电信息）青云2019年东山村4#桥头公变等低压台区改造工程更换落户线25处，搭接等工作","powerTime":"2019-07-26 12:40:18","powerComm":"已送电","subsNo":"","lineNo":"","tgNo":"","tgName":null,"infoStatus":"1","orgName":"国网浙江杭州市富阳区供电公司","typeName":null,"infoStatusName":null,"dateDay":null,"orgNos":null,"nowTime":null,"countyName":null,"streetName":null,"villageName":null,"roadName":null,"communityName":null,"tranName":null,"sdLineName":null,"cityCode":"3340170","cityName":"国网浙江杭州市富阳区供电公司","provinceCode":null,"stopTime":"2019-07-26 12:50:00","powerType":"全部","powerOffArea":"110kV育才变:秋丰D985线-秋丰村54号石塔上后段","powerOffReason":"（低压停电信息）青云2019年东山村4#桥头公变等低压台区改造工程更换落户线25处，搭接等工作","powerOffId":"2019071231020116"},{"poweroffId":2019071231020115,"sgpoweroffId":null,"subsName":"","lineName":"10kV建华D852线","pubTranName":"建华村4#村东公变,","scope":"浙江省杭州市富阳区春江街道建华村一带","startTime":"2019-07-24 07:00:00","stopDate":"2019-07-24 13:40:00","orgNo":"3340170","typeCode":"计划停电","poweroffArea":"110kV华共变:建华D852线-建华村4#村东公变低压开关后段","poweroffReason":"（低压停电信息）安装横担、架线6档、搭接等工作 原停电结束时间为2019-07-24 12:40:00，因工作复杂延至2019-07-24 13:40:00","powerTime":"2019-07-24 13:25:26","powerComm":"已送电","subsNo":"","lineNo":"","tgNo":"","tgName":null,"infoStatus":"1","orgName":"国网浙江杭州市富阳区供电公司","typeName":null,"infoStatusName":null,"dateDay":null,"orgNos":null,"nowTime":null,"countyName":null,"streetName":null,"villageName":null,"roadName":null,"communityName":null,"tranName":null,"sdLineName":null,"cityCode":"3340170","cityName":"国网浙江杭州市富阳区供电公司","provinceCode":null,"stopTime":"2019-07-24 13:40:00","powerType":"全部","powerOffArea":"110kV华共变:建华D852线-建华村4#村东公变低压开关后段","powerOffReason":"（低压停电信息）安装横担、架线6档、搭接等工作 原停电结束时间为2019-07-24 12:40:00，因工作复杂延至2019-07-24 13:40:00","powerOffId":"2019071231020115"}],"pageModel":{"pageNow":1468,"totalCount":17789,"totalPage":1779,"tableRows":0,"pageCount":10,"beginCount":14670},"isExperi":"1"}