{"message":"","today":"2020-06-16","seleList":[{"poweroffId":2019071231010138,"sgpoweroffId":null,"subsName":"","lineName":"10kV留南8869线","pubTranName":"留街,","scope":"浙江省-杭州市-西湖区-留下街道(留下社区-古灵慈路、留下大街、西溪路);杨梅山路自来水厂钱塘江入水口","startTime":"2019-07-12 12:23:43","stopDate":"2019-07-12 18:30:52","orgNo":"3340101","typeCode":"电网故障停限电","poweroffArea":"110kV留下变:留南8869线-留街分线","poweroffReason":"高压开关跳闸","powerTime":"2019-07-12 17:47:12","powerComm":"已送电","subsNo":"","lineNo":"","tgNo":"","tgName":null,"infoStatus":"1","orgName":"浙江杭州电力客户服务中心","typeName":null,"infoStatusName":null,"dateDay":null,"orgNos":null,"nowTime":null,"countyName":null,"streetName":null,"villageName":null,"roadName":null,"communityName":null,"tranName":null,"sdLineName":null,"cityCode":"3340101","cityName":"浙江杭州电力客户服务中心","provinceCode":null,"stopTime":"2019-07-12 18:30:52","powerType":"全部","powerOffArea":"110kV留下变:留南8869线-留街分线","powerOffReason":"高压开关跳闸","powerOffId":"2019071231010138"},{"poweroffId":2019071231010134,"sgpoweroffId":null,"subsName":"","lineName":"10kV连城G051线","pubTranName":"浙江复地置业乔司16号公变,浙江复地置业乔司4号公变,杭州余杭建明汽车快修,乔司复地连城国际28号公变,浙江复地置业乔司13号公变,乔司复地连城国际27号公变,连城G051线连城国际商业专变1#变压器,浙江复地置业乔司2号公变,I段配变,连城国际4.1期专变II段2#专变,东冠逸家3号公变,浙江复地置业乔司3号公变,浙江复地置业乔司12号公变,东冠逸家1号公变,杭州万源化工有限公司,浙江复地置业乔司15号公变,乔司复地连城国际26号公变,I段配变,叶帮领,2#,连城国际11#专变,乔司复地连城国际29号公变,浙江复地置业乔司1号公变,浙江复地置业乔司17号公变,I段1#配变,浙江复地置业乔司5号公变,1#,东冠逸家花苑小区2-2号公变,I段2#配变,东冠逸家花苑小区1-2号公变,浙江复地置业乔司14号公变,","scope":"浙江省-杭州市-余杭区-乔司街道方桥行政村-方桥自然村,连城社区-石塘东路,三角行政村-杭海路;杭州万源化工有限公司,杭州余杭建明汽车维修有限公司,叶帮领,浙江卓越物业服务有限公司余杭分公司一带","startTime":"2019-07-12 11:33:00","stopDate":"2019-07-12 14:00:00","orgNo":"3340140","typeCode":"电网故障停限电","poweroffArea":"110kV外乔变:连城G051线 原停电结束时间为16点00分，由于施工力量强大，提前完成工作，现变更至14点00分","poweroffReason":"连城G051线 电缆断线故障 原停电结束时间为16点00分，由于施工力量强大，提前完成工作，现变更至14点00分","powerTime":"2019-07-12 13:21:00","powerComm":"已送电","subsNo":"","lineNo":"","tgNo":"","tgName":null,"infoStatus":"1","orgName":"国网浙江杭州市余杭区供电有限公司","typeName":null,"infoStatusName":null,"dateDay":null,"orgNos":null,"nowTime":null,"countyName":null,"streetName":null,"villageName":null,"roadName":null,"communityName":null,"tranName":null,"sdLineName":null,"cityCode":"3340140","cityName":"国网浙江杭州市余杭区供电有限公司","provinceCode":null,"stopTime":"2019-07-12 14:00:00","powerType":"全部","powerOffArea":"110kV外乔变:连城G051线 原停电结束时间为16点00分，由于施工力量强大，提前完成工作，现变更至14点00分","powerOffReason":"连城G051线 电缆断线故障 原停电结束时间为16点00分，由于施工力量强大，提前完成工作，现变更至14点00分","powerOffId":"2019071231010134"},{"poweroffId":2019071231010129,"sgpoweroffId":null,"subsName":"","lineName":"10kV牌头H562线","pubTranName":"王位山村打石湾公变,昆仑润滑剂6120555909,王位山村桃园公变,浙环机械6111055056,王位山村浪河口加工厂公变,众鼎集装箱6120147823,恒顺工程塑料6120464316,王位山村高村五组公变,王位山村陆家庄公变,王位山村上打石湾公变,王位山村黄泥头公变,爵典木业6111090241,王位山村干山坞公变,1#,王位山村白石坞公变,金辉塑化6111040704,王位山村段大公变,中港陶业,王位山村独山三组公变,王位山村高村五队2号公变,王位山村浪河口2号公变,国隆加热6120018544,振盛机械6111030595,有你竹木6110111124,王位山村独山村公变,政府8号路灯变6120842663,王位山村钱家门口公变,杭州新湖鸬鸟置业有限公司（6120853294）02#专变,杭州新湖鸬鸟置业有限公司（6120853294）01#专变,澳盟实业6110111050,王位山村宝幢寺公变,王位山村太平山2号公变,王位山村浪河口粉丝厂公变,越扬玻璃6110111038,王位山村太平山公变,王位山村高村公变,梁旭竹木6120222324,梁旭竹木6111037941,王位山村砖瓦厂公变,","scope":"浙江省-杭州市-余杭区-黄湖镇王位山行政村-车路边自然村、独山桥自然村、高自然村、浪河口自然村、陆家庄自然村、太平山自然村、王位山自然村、下黄泥潭自然村、走马堂自然村;杭州澳盟实业有限公司,杭州国隆加热设备有限公司,杭州恒顺工程塑料有限公司,杭州金辉塑化有限公司,杭州爵典木业有限公司,杭州昆仑特种润滑剂有限公司,杭州市余杭区黄湖镇人民政府,杭州新湖鸬鸟置业有限公司,杭州新湖鸬鸟置业有限公司新湖希尔顿花园酒店分公司,杭州有你竹木板材有限公司,杭州余杭区黄湖镇梁旭竹木工艺品厂,杭州越扬玻璃有限公司,杭州浙环机械件有限公司,杭州振盛机械制造厂,杭州中港陶业有限公司,杭州众鼎集装箱移动板房有限公司一带","startTime":"2019-07-12 11:10:00","stopDate":"2019-07-12 14:00:00","orgNo":"3340140","typeCode":"电网故障停限电","poweroffArea":"35kV黄湖变:牌头H562线","poweroffReason":"牌头H562线 架空线断线故障","powerTime":"2019-07-12 13:17:00","powerComm":"已送电","subsNo":"","lineNo":"","tgNo":"","tgName":null,"infoStatus":"1","orgName":"国网浙江杭州市余杭区供电有限公司","typeName":null,"infoStatusName":null,"dateDay":null,"orgNos":null,"nowTime":null,"countyName":null,"streetName":null,"villageName":null,"roadName":null,"communityName":null,"tranName":null,"sdLineName":null,"cityCode":"3340140","cityName":"国网浙江杭州市余杭区供电有限公司","provinceCode":null,"stopTime":"2019-07-12 14:00:00","powerType":"全部","powerOffArea":"35kV黄湖变:牌头H562线","powerOffReason":"牌头H562线 架空线断线故障","powerOffId":"2019071231010129"},{"poweroffId":2019071231010126,"sgpoweroffId":null,"subsName":"","lineName":"10kV双竹H567线","pubTranName":"黄湖街道政府公变,黄胡小学,港华燃气6120601795,黄湖街道集镇1号公变,昂大建设6120849023基建变,清波村兴旺路公变,高配1#,中学1,清波村三桥公变,黄湖街道营业所老街公变,黄湖水厂,虎山村元台庙公变,黄湖幼儿园6120583703,清波村望目岭公变,国联实业2号专变,清波村白塔畈公变,黄湖街道小学公变,国联实业1号专变,虎山村赵家弄公变,虎山村吴四房公变,清波村里姜塘庵公变,虎山村吴蛇地公变,清波村姜塘庵公变,清波村万寿寺公变,荣韵冲压6120835337基建变,清波村白塔2号公变,嘉隆帕格6120571276,清波村白塔池塘公变,镇政府,声贝音响配电变压器间隔配电变压器,虎山村大湾公变,虎山村上街2号公变,阀门厂,清波村白塔凉亭公变,","scope":"浙江省-杭州市-余杭区-黄湖镇(虎山行政村-虎山自然村、毛家自然村、陶家自然村,清波行政村-白塔畈自然村、江塘庵自然村、毛竹园自然村、清波自然村、万寿寺自然村);(杭州昂大建设环境工程有限公司,杭州港华燃气有限公司,杭州国联实业有限公司,杭州嘉隆帕格净化设备有限公司,杭州荣韵冲压件有限公司,杭州声贝音响有限公司,杭州市余杭区黄湖镇人民政府(办公楼),杭州市余杭区黄湖镇中心小学,杭州市余杭区黄湖镇中心幼儿园,杭州市余杭区黄湖镇中学,杭州余杭第二阀门厂,杭州余杭区黄湖砖瓦厂,杭州余杭水务有限公司一带","startTime":"2019-07-12 11:02:00","stopDate":"2019-07-12 14:00:00","orgNo":"3340140","typeCode":"电网故障停限电","poweroffArea":"35kV黄湖变:双竹H567线 原停电结束时间为16点00分，由于施工力量强大，提前完成工作，现变更至14点00分","poweroffReason":"双竹H567线 架空线断线故障 原停电结束时间为16点00分，由于施工力量强大，提前完成工作，现变更至14点00分","powerTime":"2019-07-12 13:20:00","powerComm":"已送电","subsNo":"","lineNo":"","tgNo":"","tgName":null,"infoStatus":"1","orgName":"国网浙江杭州市余杭区供电有限公司","typeName":null,"infoStatusName":null,"dateDay":null,"orgNos":null,"nowTime":null,"countyName":null,"streetName":null,"villageName":null,"roadName":null,"communityName":null,"tranName":null,"sdLineName":null,"cityCode":"3340140","cityName":"国网浙江杭州市余杭区供电有限公司","provinceCode":null,"stopTime":"2019-07-12 14:00:00","powerType":"全部","powerOffArea":"35kV黄湖变:双竹H567线 原停电结束时间为16点00分，由于施工力量强大，提前完成工作，现变更至14点00分","powerOffReason":"双竹H567线 架空线断线故障 原停电结束时间为16点00分，由于施工力量强大，提前完成工作，现变更至14点00分","powerOffId":"2019071231010126"},{"poweroffId":2019071231010116,"sgpoweroffId":null,"subsName":"","lineName":"10kV阳山T212线","pubTranName":"徐家埠蚕房2号公变,","scope":"浙江省-杭州市-桐庐县-横村镇(城东行政村-徐家埠自然村);","startTime":"2019-07-12 10:19:14","stopDate":"2019-07-12 11:50:24","orgNo":"3340150","typeCode":"电网故障停限电","poweroffArea":"110kV方埠变:阳山T212线-徐家埠蚕房2号公变后段","poweroffReason":"低压开关故障","powerTime":"2019-07-12 11:30:26","powerComm":"已送电","subsNo":"","lineNo":"","tgNo":"","tgName":null,"infoStatus":"1","orgName":"国网浙江桐庐县供电公司","typeName":null,"infoStatusName":null,"dateDay":null,"orgNos":null,"nowTime":null,"countyName":null,"streetName":null,"villageName":null,"roadName":null,"communityName":null,"tranName":null,"sdLineName":null,"cityCode":"3340150","cityName":"国网浙江桐庐县供电公司","provinceCode":null,"stopTime":"2019-07-12 11:50:24","powerType":"全部","powerOffArea":"110kV方埠变:阳山T212线-徐家埠蚕房2号公变后段","powerOffReason":"低压开关故障","powerOffId":"2019071231010116"},{"poweroffId":2019071231010111,"sgpoweroffId":null,"subsName":"","lineName":"20kV指挥B238线","pubTranName":"碧桂园珑悦3#公变,","scope":"浙江省-杭州市-萧山区-宁围镇-宁围街道、合丰行政村利丰路柏峰珑悦府1幢3单元1101室,浙江省杭州市萧山区宁围街道合丰行政村利丰路柏峰珑悦府1幢3单元1202室,浙江省杭州市萧山区宁围镇合丰行政村利丰路柏峰珑悦府1幢2单元1602室,浙江省杭州市萧山区宁围街道合丰行政村利丰路柏峰珑悦府1幢3单元301室,浙江省杭州市萧山区宁围镇合丰行政村利丰路柏峰珑悦府1幢1单元1501室,浙江省杭州市萧山区宁围街道合丰行政村利丰路柏峰珑悦府1幢3单元1201室,浙江省杭州市萧山区宁围街道合丰行政村利丰路柏峰珑悦府1幢3单元1301室,浙江省杭州市萧山区宁围镇合丰行政村利丰路柏峰珑悦府1幢2单元102室,浙江省杭州市萧山区宁围街道合丰行政村利丰路柏峰珑悦府1幢3单元501室,浙江省杭州市萧山区宁围镇合丰行政村利丰路柏峰珑悦府1幢1单元1202室,浙江省杭州市萧山区宁围镇合丰行政村利丰路柏峰珑悦府1幢2单元702室,浙江省杭州市萧山区宁围镇合丰行政村利丰路柏峰珑悦府1幢1单元602室,浙江省杭州市萧山区宁围镇合丰行政村利丰路柏峰珑悦府1幢2单元1001室,浙江省杭州市萧山区宁围镇合丰行政村利丰路柏峰珑悦府1幢1单元1402室,浙江省杭州市萧山区宁围镇合丰行政村利丰路柏峰珑悦府1幢1单元1702室,浙江省杭州市萧山区宁围街道合丰行政村利丰路柏峰珑悦府1幢3单元601室,浙江省杭州市萧山区宁围镇合丰行政村利丰路柏峰珑悦府1幢2单元201室,浙江省杭州市萧山区宁围街道合丰行政村利丰路柏峰珑悦府1幢3单元802室,浙江省杭州市萧山区宁围镇合丰行政村利丰路柏峰珑悦府1幢1单元601室,浙江省杭州市萧山区宁围镇合丰行政村利丰路柏峰珑悦府1幢2单元1202室,浙江省杭州市萧山区宁围街道合丰行政村利丰路柏峰珑悦府1幢3单元901室,浙江省杭州市萧山区宁围镇合丰行政村利丰路柏峰珑悦府1幢1单元501室,浙江省杭州市萧山区宁围街道合丰行政村利丰路柏峰珑悦府1幢3单元1502室,浙江省杭州市萧山区宁围镇合丰行政村利丰路柏峰珑悦府1幢1单元101室,浙江省杭州市萧山区宁围镇合丰行政村利丰路柏峰珑悦府1幢1单元1101室,浙江省杭州市萧山区宁围镇合丰行政村利丰路柏峰珑悦府1幢1单元1102室,浙江省杭州市萧山区宁围镇合丰行政村利丰路柏峰珑悦府1幢1单元1601室,浙江省杭州市萧山区宁围镇合丰行政村利丰路柏峰珑悦府1幢1单元等一带","startTime":"2019-07-12 10:03:00","stopDate":"2019-07-12 16:35:50","orgNo":"3340130","typeCode":"电网故障停限电","poweroffArea":"110kV奥体变:指挥B238线-碧桂园珑悦3#公变台区低压开关","poweroffReason":"低压漏电保护器短路故障","powerTime":"2019-07-12 15:47:36","powerComm":"已送电","subsNo":"","lineNo":"","tgNo":"","tgName":null,"infoStatus":"1","orgName":"国网浙江杭州市萧山区供电有限公司","typeName":null,"infoStatusName":null,"dateDay":null,"orgNos":null,"nowTime":null,"countyName":null,"streetName":null,"villageName":null,"roadName":null,"communityName":null,"tranName":null,"sdLineName":null,"cityCode":"3340130","cityName":"国网浙江杭州市萧山区供电有限公司","provinceCode":null,"stopTime":"2019-07-12 16:35:50","powerType":"全部","powerOffArea":"110kV奥体变:指挥B238线-碧桂园珑悦3#公变台区低压开关","powerOffReason":"低压漏电保护器短路故障","powerOffId":"2019071231010111"},{"poweroffId":2019071231010104,"sgpoweroffId":null,"subsName":"","lineName":"10kV传福A329线","pubTranName":"靖南村5#变,","scope":"浙江省-杭州市-萧山区-靖江街道靖南行政村-靖南自然村一带","startTime":"2019-07-12 09:40:59","stopDate":"2019-07-12 11:40:07","orgNo":"3340130","typeCode":"电网故障停限电","poweroffArea":"110kV靖江变:传福A329线-靖南村5#变台区低压开关","poweroffReason":"低压漏电保护器短路故障","powerTime":"2019-07-12 11:02:06","powerComm":"已送电","subsNo":"","lineNo":"","tgNo":"","tgName":null,"infoStatus":"1","orgName":"国网浙江杭州市萧山区供电有限公司","typeName":null,"infoStatusName":null,"dateDay":null,"orgNos":null,"nowTime":null,"countyName":null,"streetName":null,"villageName":null,"roadName":null,"communityName":null,"tranName":null,"sdLineName":null,"cityCode":"3340130","cityName":"国网浙江杭州市萧山区供电有限公司","provinceCode":null,"stopTime":"2019-07-12 11:40:07","powerType":"全部","powerOffArea":"110kV靖江变:传福A329线-靖南村5#变台区低压开关","powerOffReason":"低压漏电保护器短路故障","powerOffId":"2019071231010104"},{"poweroffId":2019071231010102,"sgpoweroffId":null,"subsName":"","lineName":"10kV潼江C632线","pubTranName":"浦二村3#变,","scope":"浙江省-杭州市-萧山区-临浦镇(浦二行政村-戚家里自然村、桥里自然村);浙江省杭州市萧山区临浦镇桥里村等一带","startTime":"2019-07-12 09:32:48","stopDate":"2019-07-12 11:10:03","orgNo":"3340130","typeCode":"电网故障停限电","poweroffArea":"110kV临浦变:潼江C632线-浦二村3#变台区低压开关","poweroffReason":"外力破坏导致低压架空线断线故障 原停电结束时间：2019-07-12 12:00，变更停电结束时间：2019-07-12 11:10，由于增派人员，抢修提前完成，故需要提前送电。","powerTime":"2019-07-12 10:30:02","powerComm":"已送电","subsNo":"","lineNo":"","tgNo":"","tgName":null,"infoStatus":"1","orgName":"国网浙江杭州市萧山区供电有限公司","typeName":null,"infoStatusName":null,"dateDay":null,"orgNos":null,"nowTime":null,"countyName":null,"streetName":null,"villageName":null,"roadName":null,"communityName":null,"tranName":null,"sdLineName":null,"cityCode":"3340130","cityName":"国网浙江杭州市萧山区供电有限公司","provinceCode":null,"stopTime":"2019-07-12 11:10:03","powerType":"全部","powerOffArea":"110kV临浦变:潼江C632线-浦二村3#变台区低压开关","powerOffReason":"外力破坏导致低压架空线断线故障 原停电结束时间：2019-07-12 12:00，变更停电结束时间：2019-07-12 11:10，由于增派人员，抢修提前完成，故需要提前送电。","powerOffId":"2019071231010102"},{"poweroffId":2019071231010088,"sgpoweroffId":null,"subsName":"","lineName":"10kV金域A207线","pubTranName":"御景蓝湾20#公变,","scope":"浙江省-杭州市-萧山区-义桥镇-御景蓝湾小区11幢-18幢等一带","startTime":"2019-07-12 09:14:52","stopDate":"2019-07-12 17:30:45","orgNo":"3340130","typeCode":"电网故障停限电","poweroffArea":"110kV群建变:金域A207线-御景蓝湾20#公变台区低压开关","poweroffReason":"低压电缆断线故障","powerTime":"2019-07-12 16:38:17","powerComm":"已送电","subsNo":"","lineNo":"","tgNo":"","tgName":null,"infoStatus":"1","orgName":"国网浙江杭州市萧山区供电有限公司","typeName":null,"infoStatusName":null,"dateDay":null,"orgNos":null,"nowTime":null,"countyName":null,"streetName":null,"villageName":null,"roadName":null,"communityName":null,"tranName":null,"sdLineName":null,"cityCode":"3340130","cityName":"国网浙江杭州市萧山区供电有限公司","provinceCode":null,"stopTime":"2019-07-12 17:30:45","powerType":"全部","powerOffArea":"110kV群建变:金域A207线-御景蓝湾20#公变台区低压开关","powerOffReason":"低压电缆断线故障","powerOffId":"2019071231010088"},{"poweroffId":2019071231010077,"sgpoweroffId":null,"subsName":"","lineName":"10kV子陵T124线","pubTranName":"鸿丰苑1号公变,","scope":"浙江省-杭州市-桐庐县-富春江镇(七里泷行政村-邵家自然村、鸿丰苑小区);","startTime":"2019-07-12 08:54:28","stopDate":"2019-07-12 10:59:01","orgNo":"3340150","typeCode":"电网故障停限电","poweroffArea":"110kV外董变:子陵T124线-鸿丰苑1号公变后段","poweroffReason":"低压开关故障","powerTime":"2019-07-12 10:45:26","powerComm":"已送电。","subsNo":"","lineNo":"","tgNo":"","tgName":null,"infoStatus":"1","orgName":"国网浙江桐庐县供电公司","typeName":null,"infoStatusName":null,"dateDay":null,"orgNos":null,"nowTime":null,"countyName":null,"streetName":null,"villageName":null,"roadName":null,"communityName":null,"tranName":null,"sdLineName":null,"cityCode":"3340150","cityName":"国网浙江桐庐县供电公司","provinceCode":null,"stopTime":"2019-07-12 10:59:01","powerType":"全部","powerOffArea":"110kV外董变:子陵T124线-鸿丰苑1号公变后段","powerOffReason":"低压开关故障","powerOffId":"2019071231010077"}],"pageModel":{"pageNow":1473,"totalCount":17789,"totalPage":1779,"tableRows":0,"pageCount":10,"beginCount":14720},"isExperi":"1"}