{"message":"","today":"2020-06-16","seleList":[{"poweroffId":2019071131020006,"sgpoweroffId":null,"subsName":"","lineName":"10kV肆联C472线","pubTranName":"永联村镇海1#变,","scope":"浙江省-杭州市-萧山区-瓜沥镇(永联行政村-镇海自然村,进化行政村-进化自然村)","startTime":"2019-07-19 08:30:00","stopDate":"2019-07-19 13:30:00","orgNo":"3340130","typeCode":"计划停电","poweroffArea":"35kV塘头变:肆联C472线-永联村镇海1#变后段","poweroffReason":"肆联C472线友北开镇海分线35#杆永联村镇海1#变下160kVA上400kVA","powerTime":"2019-07-19 12:33:24","powerComm":"已处理","subsNo":"","lineNo":"","tgNo":"","tgName":null,"infoStatus":"1","orgName":"国网浙江杭州市萧山区供电有限公司","typeName":null,"infoStatusName":null,"dateDay":null,"orgNos":null,"nowTime":null,"countyName":null,"streetName":null,"villageName":null,"roadName":null,"communityName":null,"tranName":null,"sdLineName":null,"cityCode":"3340130","cityName":"国网浙江杭州市萧山区供电有限公司","provinceCode":null,"stopTime":"2019-07-19 13:30:00","powerType":"全部","powerOffArea":"35kV塘头变:肆联C472线-永联村镇海1#变后段","powerOffReason":"肆联C472线友北开镇海分线35#杆永联村镇海1#变下160kVA上400kVA","powerOffId":"2019071131020006"},{"poweroffId":2019071131020005,"sgpoweroffId":null,"subsName":"","lineName":"10kV明朗A066线","pubTranName":"永联村黄公娄2#变,","scope":"浙江省-杭州市-萧山区-瓜沥镇-永联行政村-黄公娄自然村","startTime":"2019-07-19 08:30:00","stopDate":"2019-07-19 13:30:00","orgNo":"3340130","typeCode":"计划停电","poweroffArea":"110kV航坞变:明朗A066线-永联村黄公娄2#变后段","poweroffReason":"明朗A066线明渔分支开明环A066线39#杆永联村黄公娄2#变下200上400kVA","powerTime":"2019-07-19 12:33:34","powerComm":"已送电","subsNo":"","lineNo":"","tgNo":"","tgName":null,"infoStatus":"1","orgName":"国网浙江杭州市萧山区供电有限公司","typeName":null,"infoStatusName":null,"dateDay":null,"orgNos":null,"nowTime":null,"countyName":null,"streetName":null,"villageName":null,"roadName":null,"communityName":null,"tranName":null,"sdLineName":null,"cityCode":"3340130","cityName":"国网浙江杭州市萧山区供电有限公司","provinceCode":null,"stopTime":"2019-07-19 13:30:00","powerType":"全部","powerOffArea":"110kV航坞变:明朗A066线-永联村黄公娄2#变后段","powerOffReason":"明朗A066线明渔分支开明环A066线39#杆永联村黄公娄2#变下200上400kVA","powerOffId":"2019071131020005"},{"poweroffId":2019071131020001,"sgpoweroffId":null,"subsName":"","lineName":"10kV建北D326线","pubTranName":"建设村12号下埠新区公变,建安6号公变,富阳市春江街道服务有限公司1#,富阳市春江街道服务有限公司2#,建安8号公变,建安4号公变,建安2号公变,建设村10#新区公变,建安11号公变,","scope":"浙江省-杭州市-富阳区-春江街道-建设行政村-建设自然村;春江街道-杭州富阳江南新城物业管理有限公司","startTime":"2019-07-11 05:55:00","stopDate":"2019-07-11 07:55:00","orgNo":"3340170","typeCode":"电网故障停限电","poweroffArea":"110kV建设变:建北D326线建锦D3265开关后段","poweroffReason":"高压开关跳闸","powerTime":"2019-07-11 07:28:04","powerComm":"已送电","subsNo":"","lineNo":"","tgNo":"","tgName":null,"infoStatus":"1","orgName":"国网浙江杭州市富阳区供电公司","typeName":null,"infoStatusName":null,"dateDay":null,"orgNos":null,"nowTime":null,"countyName":null,"streetName":null,"villageName":null,"roadName":null,"communityName":null,"tranName":null,"sdLineName":null,"cityCode":"3340170","cityName":"国网浙江杭州市富阳区供电公司","provinceCode":null,"stopTime":"2019-07-11 07:55:00","powerType":"全部","powerOffArea":"110kV建设变:建北D326线建锦D3265开关后段","powerOffReason":"高压开关跳闸","powerOffId":"2019071131020001"},{"poweroffId":2019071131010136,"sgpoweroffId":null,"subsName":"","lineName":"10kV圣堂H509线","pubTranName":"南山村枉山庙公变,","scope":"浙江省-杭州市-余杭区-瓶窑镇(南山行政村-横山自然村、南山自然村、上塘湾自然村、枉山庙自然村、相公庙自然村)一带;","startTime":"2019-07-11 17:40:00","stopDate":"2019-07-11 19:30:00","orgNo":"3340140","typeCode":"电网故障停限电","poweroffArea":"35kV瓶镇变:圣堂H509线-南山村枉山庙公变后段","poweroffReason":"圣堂H509线-南山村枉山庙公变后段 变压器下引线故障","powerTime":"2019-07-11 18:47:00","powerComm":"已送电","subsNo":"","lineNo":"","tgNo":"","tgName":null,"infoStatus":"1","orgName":"国网浙江杭州市余杭区供电有限公司","typeName":null,"infoStatusName":null,"dateDay":null,"orgNos":null,"nowTime":null,"countyName":null,"streetName":null,"villageName":null,"roadName":null,"communityName":null,"tranName":null,"sdLineName":null,"cityCode":"3340140","cityName":"国网浙江杭州市余杭区供电有限公司","provinceCode":null,"stopTime":"2019-07-11 19:30:00","powerType":"全部","powerOffArea":"35kV瓶镇变:圣堂H509线-南山村枉山庙公变后段","powerOffReason":"圣堂H509线-南山村枉山庙公变后段 变压器下引线故障","powerOffId":"2019071131010136"},{"poweroffId":2019071131010121,"sgpoweroffId":null,"subsName":"","lineName":"10kV宝盛C777线","pubTranName":"北干二苑红枫小区1#公变,山北新苑2#公变,山河花园2#公变,北干二苑红枫小区4#公变,山河花园1#公变,北干二苑新安寓3#公变,华润万家生活超市(浙江)有限公司,变压器,山河花园3#公变,宝盛宾馆1#,杭州萧山环境卫生管理处,山河花园4#公变,北干二苑红枫小区6#公变,永久公寓公变,永久村5#公变,北干二苑新安寓2#公变,北干二苑新安寓4#公变,北干二苑红枫小区2#公变,萧山小区燃气有限公司,北干二苑新安寓1#公变,永久安置小区1#变,北干二苑红枫小区5#公变,永久村1#公变,宝盛宾馆2#,城厢北干小学,山河花园5#公变,北干二苑红枫小区3#公变,","scope":"浙江省-杭州市-萧山区-北干街道(北干二苑社区-北干山北路、山河花园小区、山阴路、永久路、育才北路,北干一苑社区-永久路,永久社区-永久路);(杭州汇中物业服务有限公司,杭州市萧山区市场建设开发服务中心,杭州萧山宝盛宾馆有限公司,杭州萧山城市固废清洁直运有限公司,杭州萧山小区燃气有限公司,萧山区北干小学)一带","startTime":"2019-07-11 15:55:23","stopDate":"2019-07-11 19:20:23","orgNo":"3340130","typeCode":"电网故障停限电","poweroffArea":"110kV通惠变:宝盛C777线","poweroffReason":"因外力破坏导致开关故障，原停电结束时间：2019-07-11 22:04:23，变更停电结束时间：2019-07-11 19:20:23，变更停电结束时间原因：由于加派抢修人员故抢修工作提前结束，需要提前送电。","powerTime":"2019-07-11 18:37:43","powerComm":"已送电","subsNo":"","lineNo":"","tgNo":"","tgName":null,"infoStatus":"1","orgName":"国网浙江杭州市萧山区供电有限公司","typeName":null,"infoStatusName":null,"dateDay":null,"orgNos":null,"nowTime":null,"countyName":null,"streetName":null,"villageName":null,"roadName":null,"communityName":null,"tranName":null,"sdLineName":null,"cityCode":"3340130","cityName":"国网浙江杭州市萧山区供电有限公司","provinceCode":null,"stopTime":"2019-07-11 19:20:23","powerType":"全部","powerOffArea":"110kV通惠变:宝盛C777线","powerOffReason":"因外力破坏导致开关故障，原停电结束时间：2019-07-11 22:04:23，变更停电结束时间：2019-07-11 19:20:23，变更停电结束时间原因：由于加派抢修人员故抢修工作提前结束，需要提前送电。","powerOffId":"2019071131010121"},{"poweroffId":2019071131010118,"sgpoweroffId":null,"subsName":"","lineName":"10kV梅堰G670线","pubTranName":"梅堰小区十一号公变,","scope":"浙江省-杭州市-余杭区-东湖街道梅堰社区-梅堰路一带","startTime":"2019-07-11 15:41:00","stopDate":"2019-07-11 20:20:00","orgNo":"3340140","typeCode":"电网故障停限电","poweroffArea":"110kV南苑变:梅堰G670线-梅堰小区十一号公变后段","poweroffReason":"梅堰小区十一号公变后段 电缆断线故障","powerTime":"2019-07-11 20:00:00","powerComm":"已送电","subsNo":"","lineNo":"","tgNo":"","tgName":null,"infoStatus":"1","orgName":"国网浙江杭州市余杭区供电有限公司","typeName":null,"infoStatusName":null,"dateDay":null,"orgNos":null,"nowTime":null,"countyName":null,"streetName":null,"villageName":null,"roadName":null,"communityName":null,"tranName":null,"sdLineName":null,"cityCode":"3340140","cityName":"国网浙江杭州市余杭区供电有限公司","provinceCode":null,"stopTime":"2019-07-11 20:20:00","powerType":"全部","powerOffArea":"110kV南苑变:梅堰G670线-梅堰小区十一号公变后段","powerOffReason":"梅堰小区十一号公变后段 电缆断线故障","powerOffId":"2019071131010118"},{"poweroffId":2019071131010115,"sgpoweroffId":null,"subsName":"","lineName":"10kV目野G920线","pubTranName":"临创置业61208158871#变压器,余杭城市建设集团有限公司3#变压器,乔司农民多层公寓4#基建变,杭州临创置业有限公司61208754281#变压器,南控2#基建变,中交美庐（杭州）置业有限公司61208256741#变压器,乔司农民多层公寓2#基建变,余杭城市建设集团有限公司1#变压器,永西18组公变,临创置业有61208158881#变压器,艺尚小镇基建3#,南控4#基建变,方桥4组4号公变,汀城路1#路灯变,中交美庐（杭州）置业有限公司61208256761#变压器,方桥11组2号公变,2#,城建集团站西路基建变,1#,目野4组公变,良福1组公变,康欣置业61207188133#基建变,1#,方桥4组6号公变,康欣置业61207188122#基建变,杭州招绿物业管理有限公司,信梦达（6120853337）01号专变,南苑控股315,乔司铸件厂,余杭城市建设集团有限公司2#变压器,方桥11组公变,目野村委2号公变,中国建筑第八工程局世纪大道5#基建变,良熟菜场基建2#变315kVA,鹰潭市恒泰实业有限公司基建变,乔司多层公寓2#基建变,方桥4组公变,乔司农民多层公寓1#基建变,中交美庐（杭州）置业有限公司61208256731#变压器,中铁四局61206763091#变压器,文正街路灯变,杭州临创置业有限公司61208158861#变压器,目野村委公变,余杭城市建设集团有限公司4#变压器,南控3#基建变,杭州临创置业有限公司61208158881#变压器,中国建筑第八工程局世纪大道6#基建变,2#,庙港变所用变,余杭城建61207045261#变,中交美庐（杭州）置业有限公司61208256751#变压器,汀城路2#路灯变,康欣置业61207188101#基建变,乔司街道办事处垃圾处理站,方桥4组2号公变,","scope":"浙江省-杭州市-余杭区-乔司街道方桥行政村-方桥自然村、目野自然村、竹园自然村,永西行政村-云家桥自然村);(杭州创建土石方工程有限公司,杭州康欣置业有限公司,杭州临创置业有限公司,杭州南苑控股(集团)有限公司,杭州市环境集团有限公司,杭州市余杭区乔司街道农民多层公寓建设管理中心,杭州市余杭区乔司镇农民多层公寓建设管理中心,杭州市余杭区天长世纪小学,杭州信梦达投资管理有限公司,杭州余杭城市建设集团有限公司,杭州余杭良熟股份经济合作社,杭州余杭钱塘资产管理有限公司,杭州招绿物业管理有限公司,鹰潭市恒泰实业有限公司,余杭供电局,中国建筑第八工程局有限公司,中交美庐（杭州）置业有限公司,中铁四局集团第二工程有限公司一带","startTime":"2019-07-11 15:36:00","stopDate":"2019-07-11 18:00:00","orgNo":"3340140","typeCode":"电网故障停限电","poweroffArea":"110kV庙港变:目野G920线","poweroffReason":"目野G920线 架空线断线故障","powerTime":"2019-07-11 17:43:00","powerComm":"已送电","subsNo":"","lineNo":"","tgNo":"","tgName":null,"infoStatus":"1","orgName":"国网浙江杭州市余杭区供电有限公司","typeName":null,"infoStatusName":null,"dateDay":null,"orgNos":null,"nowTime":null,"countyName":null,"streetName":null,"villageName":null,"roadName":null,"communityName":null,"tranName":null,"sdLineName":null,"cityCode":"3340140","cityName":"国网浙江杭州市余杭区供电有限公司","provinceCode":null,"stopTime":"2019-07-11 18:00:00","powerType":"全部","powerOffArea":"110kV庙港变:目野G920线","powerOffReason":"目野G920线 架空线断线故障","powerOffId":"2019071131010115"},{"poweroffId":2019071131010099,"sgpoweroffId":null,"subsName":"","lineName":"10kV雪水T281线","pubTranName":"湖田村1号公变,","scope":"浙江省-杭州市-桐庐县-凤川街道新合乡(新四行政村-湖田自然村);","startTime":"2019-07-11 14:33:32","stopDate":"2019-07-11 17:35:14","orgNo":"3340150","typeCode":"电网故障停限电","poweroffArea":"35kV新合变:雪水T281线-湖田村1号公变后段","poweroffReason":"低压开关烧。","powerTime":"2019-07-11 17:20:26","powerComm":"已送电","subsNo":"","lineNo":"","tgNo":"","tgName":null,"infoStatus":"1","orgName":"国网浙江桐庐县供电公司","typeName":null,"infoStatusName":null,"dateDay":null,"orgNos":null,"nowTime":null,"countyName":null,"streetName":null,"villageName":null,"roadName":null,"communityName":null,"tranName":null,"sdLineName":null,"cityCode":"3340150","cityName":"国网浙江桐庐县供电公司","provinceCode":null,"stopTime":"2019-07-11 17:35:14","powerType":"全部","powerOffArea":"35kV新合变:雪水T281线-湖田村1号公变后段","powerOffReason":"低压开关烧。","powerOffId":"2019071131010099"},{"poweroffId":2019071131010092,"sgpoweroffId":null,"subsName":"","lineName":"10kV闲湖H729线","pubTranName":"月亮湾3B,闲湖城（印象加州）4#公变,红树湾3B,玉屏湾2号公变,闲湖城（印象加州）11#公变,闲湖城（印象加州）5#公变,加州1#商业专变,红树湾5B,闲湖城（印象加州）3#公变,红树湾4B,闲湖城（印象加州）6#公变,红树湾6B,钻石1#专变,加州1#生活专变,玉屏湾3号公变,玉屏湾4号公变,月亮湾2B,闲湖城（印象加州）2#公变,闲湖城（印象加州）12#公变,闲湖城（印象加州）1#公变,玉屏湾1#专变,1#,酒店1#,月亮湾1B,玉屏湾1号公变,红树湾1#专变,月亮湾4B,","scope":"浙江省-杭州市-余杭区-闲林街道北山社区-天目山西路,华丰行政村-华丰自然村、天目山西路;杭州东海春房地产开发有限公司,杭州东海春房地产开发有限公司闲湖城酒店分公司,杭州东海物业有限公司,杭州市余杭区育海外国语学校一带","startTime":"2019-07-11 14:13:00","stopDate":"2019-07-11 20:00:00","orgNo":"3340140","typeCode":"电网故障停限电","poweroffArea":"110kV闲林变:闲湖H729线","poweroffReason":"闲湖H729线 电缆断线故障","powerTime":"2019-07-11 19:37:00","powerComm":"已送电","subsNo":"","lineNo":"","tgNo":"","tgName":null,"infoStatus":"1","orgName":"国网浙江杭州市余杭区供电有限公司","typeName":null,"infoStatusName":null,"dateDay":null,"orgNos":null,"nowTime":null,"countyName":null,"streetName":null,"villageName":null,"roadName":null,"communityName":null,"tranName":null,"sdLineName":null,"cityCode":"3340140","cityName":"国网浙江杭州市余杭区供电有限公司","provinceCode":null,"stopTime":"2019-07-11 20:00:00","powerType":"全部","powerOffArea":"110kV闲林变:闲湖H729线","powerOffReason":"闲湖H729线 电缆断线故障","powerOffId":"2019071131010092"},{"poweroffId":2019071131010088,"sgpoweroffId":null,"subsName":"","lineName":"10kV石门H566线","pubTranName":"赐壁村牌楼山2号公变,赐壁村庙山队公变,青山村龙堰郎公变,青山村长丘畈2号公变,青山村长丘畈公变,青山村观音塘公变,青山村塔边村村公变,信业化工,抄不到**,青山村方家桥公变,赐壁村大堰郎公变,大无畏实业6120867801基建2,赐壁村花坟头公变,青山村石扶梯公变,加新橡胶厂2#,青山村石扶梯水库脚公变,塑料编织厂,加新橡胶厂1#,青山村东坞口公变,青山村东坞村公变,青山村七房头公变,赐壁村垃圾场公变,大无畏实业6120867800基建1,青山村塔边市场公变,赐壁村铜山头公变,赐壁村牌楼山村公变,赐壁村铜山头2号公变,赐壁村山岭郎公变,青山村里山村村公变,中国电信,青山村沟上公变,宏图密封件（伊神）,沈范竹地板,青山村王母山公变,青山村观音堂2号公变,赐壁村大堰郎2号公变,青山村东坞二组公变,青山村横塘路公变,赐壁村庙山队2号公变,赐壁村铜山头3号公变,王母山农庄,青山村高界村公变,青山村里山下村公变,","scope":"浙江省-杭州市-余杭区-黄湖镇赐壁行政村-赐壁自然村、赐璧自然村、大堰廊自然村、牌楼山自然村、山岭廊自然村,青山行政村-长丘畈自然村、东坞自然村、沟上自然村、里三自然村、青山自然村、下自然村;杭州大无畏实业有限公司,杭州宏图密封件科技有限公司,杭州黄湖信业化工厂,杭州黄母龙湖假日农庄有限公司,杭州加新橡胶制品厂,杭州三益塑编包装材料有限公司,杭州沈范竹地板有限公司,杭州知辉膜结构有限公司,中国电信股份有限公司杭州余杭区分公司一带","startTime":"2019-07-11 13:50:00","stopDate":"2019-07-11 17:00:00","orgNo":"3340140","typeCode":"电网故障停限电","poweroffArea":"35kV黄湖变:石门H566线-王母山分线开关 后段 原停电结束时间为16点00分，由于现场情况复杂，现变更至17点00分","poweroffReason":"王母山分线开关 后段 架空线断线故障 原停电结束时间为16点00分，由于现场情况复杂，现变更至17点00分","powerTime":"2019-07-11 16:50:00","powerComm":"已送电","subsNo":"","lineNo":"","tgNo":"","tgName":null,"infoStatus":"1","orgName":"国网浙江杭州市余杭区供电有限公司","typeName":null,"infoStatusName":null,"dateDay":null,"orgNos":null,"nowTime":null,"countyName":null,"streetName":null,"villageName":null,"roadName":null,"communityName":null,"tranName":null,"sdLineName":null,"cityCode":"3340140","cityName":"国网浙江杭州市余杭区供电有限公司","provinceCode":null,"stopTime":"2019-07-11 17:00:00","powerType":"全部","powerOffArea":"35kV黄湖变:石门H566线-王母山分线开关 后段 原停电结束时间为16点00分，由于现场情况复杂，现变更至17点00分","powerOffReason":"王母山分线开关 后段 架空线断线故障 原停电结束时间为16点00分，由于现场情况复杂，现变更至17点00分","powerOffId":"2019071131010088"}],"pageModel":{"pageNow":1477,"totalCount":17789,"totalPage":1779,"tableRows":0,"pageCount":10,"beginCount":14760},"isExperi":"1"}