{"message":"","today":"2020-06-15","seleList":[{"poweroffId":2020051731020070,"sgpoweroffId":null,"subsName":"","lineName":"10kV城中T273线","pubTranName":"罗兰公寓2号公变,","scope":"浙江省-杭州市-桐庐县-城南街道-上杭社区(大奇山路,春江路)","startTime":"2020-05-17 08:53:02","stopDate":"2020-05-17 10:53:02","orgNo":"3340150","typeCode":"电网故障停限电","poweroffArea":"35kV三合变:城中T273线-罗兰公寓2号公变后段","poweroffReason":"(低压停电信息)低压开关跳闸","powerTime":"2020-05-17 10:40:27","powerComm":"已送电","subsNo":"","lineNo":"","tgNo":"","tgName":null,"infoStatus":"1","orgName":"国网浙江桐庐县供电公司","typeName":null,"infoStatusName":null,"dateDay":null,"orgNos":null,"nowTime":null,"countyName":null,"streetName":null,"villageName":null,"roadName":null,"communityName":null,"tranName":null,"sdLineName":null,"cityCode":"3340150","cityName":"国网浙江桐庐县供电公司","provinceCode":null,"stopTime":"2020-05-17 10:53:02","powerType":"全部","powerOffArea":"35kV三合变:城中T273线-罗兰公寓2号公变后段","powerOffReason":"(低压停电信息)低压开关跳闸","powerOffId":"2020051731020070"},{"poweroffId":2020051731020066,"sgpoweroffId":null,"subsName":"","lineName":"10kV三都Y125线","pubTranName":"松口村和塘台区,","scope":"浙江省-杭州市-建德市-三都镇-松口行政村(和塘自然村,郑家垅自然村)","startTime":"2020-05-17 08:31:00","stopDate":"2020-05-17 10:40:00","orgNo":"3340180","typeCode":"电网故障停限电","poweroffArea":"110kV南峰变:三都Y125线-松口村和塘台区后段","poweroffReason":"(低压停电信息)低压开关跳闸","powerTime":"2020-05-17 09:59:00","powerComm":"已送电","subsNo":"","lineNo":"","tgNo":"","tgName":null,"infoStatus":"1","orgName":"国网浙江建德市供电有限公司","typeName":null,"infoStatusName":null,"dateDay":null,"orgNos":null,"nowTime":null,"countyName":null,"streetName":null,"villageName":null,"roadName":null,"communityName":null,"tranName":null,"sdLineName":null,"cityCode":"3340180","cityName":"国网浙江建德市供电有限公司","provinceCode":null,"stopTime":"2020-05-17 10:40:00","powerType":"全部","powerOffArea":"110kV南峰变:三都Y125线-松口村和塘台区后段","powerOffReason":"(低压停电信息)低压开关跳闸","powerOffId":"2020051731020066"},{"poweroffId":2020051731020054,"sgpoweroffId":null,"subsName":"","lineName":"10kV沿江C619线","pubTranName":"双圩村2#变,","scope":"浙江省-杭州市-萧山区-新街镇-新街街道-双圩行政村-双圩自然村等","startTime":"2020-05-17 08:08:41","stopDate":"2020-05-17 11:10:41","orgNo":"3340130","typeCode":"电网故障停限电","poweroffArea":"110kV新街变:沿江C619线-双圩村2#变台区低压开关","poweroffReason":"（低压停电信息）低压漏电保护器跳闸","powerTime":"2020-05-17 10:13:39","powerComm":"已送电","subsNo":"","lineNo":"","tgNo":"","tgName":null,"infoStatus":"1","orgName":"国网浙江杭州市萧山区供电有限公司","typeName":null,"infoStatusName":null,"dateDay":null,"orgNos":null,"nowTime":null,"countyName":null,"streetName":null,"villageName":null,"roadName":null,"communityName":null,"tranName":null,"sdLineName":null,"cityCode":"3340130","cityName":"国网浙江杭州市萧山区供电有限公司","provinceCode":null,"stopTime":"2020-05-17 11:10:41","powerType":"全部","powerOffArea":"110kV新街变:沿江C619线-双圩村2#变台区低压开关","powerOffReason":"（低压停电信息）低压漏电保护器跳闸","powerOffId":"2020051731020054"},{"poweroffId":2020051731020049,"sgpoweroffId":null,"subsName":"","lineName":"10kV深澳T251线","pubTranName":"深澳村5号公变,","scope":"浙江省-杭州市-桐庐县-江南镇-深澳行政村-深澳自然村","startTime":"2020-05-17 07:52:39","stopDate":"2020-05-17 11:00:39","orgNo":"3340150","typeCode":"电网故障停限电","poweroffArea":"110kV石阜变:深澳T251线-深澳村5号公变后段","poweroffReason":"(低压停电信息)低压开关跳闸","powerTime":"2020-05-17 10:50:19","powerComm":"已送电","subsNo":"","lineNo":"","tgNo":"","tgName":null,"infoStatus":"1","orgName":"国网浙江桐庐县供电公司","typeName":null,"infoStatusName":null,"dateDay":null,"orgNos":null,"nowTime":null,"countyName":null,"streetName":null,"villageName":null,"roadName":null,"communityName":null,"tranName":null,"sdLineName":null,"cityCode":"3340150","cityName":"国网浙江桐庐县供电公司","provinceCode":null,"stopTime":"2020-05-17 11:00:39","powerType":"全部","powerOffArea":"110kV石阜变:深澳T251线-深澳村5号公变后段","powerOffReason":"(低压停电信息)低压开关跳闸","powerOffId":"2020051731020049"},{"poweroffId":2020051731020026,"sgpoweroffId":null,"subsName":"","lineName":"10kV鸿镇D616线","pubTranName":"杭州凯威工艺品有限公司1#变,富阳市场口镇人民政府1#变,杭州美动体育用品有限公司,杭州市富阳区在水一方场口颐养院,百丈畈村1号园区公变,","scope":"浙江省-杭州市-富阳区-场口镇-百丈畈行政村(百丈畈自然村,百丈坞自然村);场口镇(杭州美动体育用品有限公司,杭州市富阳区在水一方场口颐养院,富阳市场口镇人民政府,杭州凯威工艺品有限公司)","startTime":"2020-05-17 05:45:00","stopDate":"2020-05-17 07:45:00","orgNo":"3340170","typeCode":"电网故障停限电","poweroffArea":"110kV鸿丰变:鸿镇D616线鸿镇D6162开关后段","poweroffReason":"高压开关跳闸","powerTime":"2020-05-17 06:46:04","powerComm":"已送电","subsNo":"","lineNo":"","tgNo":"","tgName":null,"infoStatus":"1","orgName":"国网浙江杭州市富阳区供电公司","typeName":null,"infoStatusName":null,"dateDay":null,"orgNos":null,"nowTime":null,"countyName":null,"streetName":null,"villageName":null,"roadName":null,"communityName":null,"tranName":null,"sdLineName":null,"cityCode":"3340170","cityName":"国网浙江杭州市富阳区供电公司","provinceCode":null,"stopTime":"2020-05-17 07:45:00","powerType":"全部","powerOffArea":"110kV鸿丰变:鸿镇D616线鸿镇D6162开关后段","powerOffReason":"高压开关跳闸","powerOffId":"2020051731020026"},{"poweroffId":2020051731020025,"sgpoweroffId":null,"subsName":"","lineName":"10kV后山H757线","pubTranName":"西溪小筑(2)公变,西溪小筑(1)公变,五常街道箱变,杭州市余杭区交通运输局,","scope":"浙江省-杭州市-余杭区-五常街道-友谊社区-天目山西路;五常街道(杭州市余杭区公路管理处,杭州市余杭区人民政府五常街道办事处)","startTime":"2020-05-17 05:13:00","stopDate":"2020-05-17 07:50:00","orgNo":"3340140","typeCode":"电网故障停限电","poweroffArea":"110kV五常变:后山H757线塘湾斗分线开关后段","poweroffReason":"高压开关跳闸","powerTime":"2020-05-17 06:51:05","powerComm":"已送电","subsNo":"","lineNo":"","tgNo":"","tgName":null,"infoStatus":"1","orgName":"国网浙江杭州市余杭区供电有限公司","typeName":null,"infoStatusName":null,"dateDay":null,"orgNos":null,"nowTime":null,"countyName":null,"streetName":null,"villageName":null,"roadName":null,"communityName":null,"tranName":null,"sdLineName":null,"cityCode":"3340140","cityName":"国网浙江杭州市余杭区供电有限公司","provinceCode":null,"stopTime":"2020-05-17 07:50:00","powerType":"全部","powerOffArea":"110kV五常变:后山H757线塘湾斗分线开关后段","powerOffReason":"高压开关跳闸","powerOffId":"2020051731020025"},{"poweroffId":2020051731020023,"sgpoweroffId":null,"subsName":"","lineName":"10kV管苟6866线","pubTranName":"文一(四),","scope":"浙江省-杭州市-西湖区-西溪街道-白荡海社区(保俶北路,文一路,西溪河下),西溪街道(西溪社区-保俶北路,铁佛寺社区-保俶北路)","startTime":"2020-05-17 04:44:00","stopDate":"2020-05-17 06:44:00","orgNo":"3340101","typeCode":"电网故障停限电","poweroffArea":"110kV文化变:管苟6866线文一(四)配变","poweroffReason":"高压开关跳闸","powerTime":"2020-05-17 06:15:35","powerComm":"已送电","subsNo":"","lineNo":"","tgNo":"","tgName":null,"infoStatus":"1","orgName":"浙江杭州电力客户服务中心","typeName":null,"infoStatusName":null,"dateDay":null,"orgNos":null,"nowTime":null,"countyName":null,"streetName":null,"villageName":null,"roadName":null,"communityName":null,"tranName":null,"sdLineName":null,"cityCode":"3340101","cityName":"浙江杭州电力客户服务中心","provinceCode":null,"stopTime":"2020-05-17 06:44:00","powerType":"全部","powerOffArea":"110kV文化变:管苟6866线文一(四)配变","powerOffReason":"高压开关跳闸","powerOffId":"2020051731020023"},{"poweroffId":2020051731020005,"sgpoweroffId":null,"subsName":"","lineName":"10kV南安D336线","pubTranName":"富阳市振华锻造有限公司2#,杨家村2号上官公变,杨家村6#东坞公变,何务村2#上何公变,白马村1#山顶公变,白马水电1号,白马村3#果立山公变,方里村6#杉树弯公变,白马村2#岭脚公变,富申颜料1#变,白马村4#纸房里公变,杨家村3#盛家公变,何务村3#煤矿公变,方里村4#高小龙公变,方里村5#半坎里公变,杨家村4#西坞公变,杨家村5#横山公变,富阳岑依机械有限公司1#变,杭州富阳振华锻造有限公司1#变,富阳树生化工厂,何务村6#章家坞公变,白马村5#水家公变,何务村1号下何婺公变,杨家村1#田畈公变1,方里村7#青岭山公变,方里村2#龙门桥公变,何务村5#叶家公变,方里村3#方里公变,富阳市润超水电有限公司,何务村4#石井坞公变,方里村1#方口桥公变,古羊岭电站,","scope":"浙江省-杭州市-富阳区-万市镇-何务行政村(石井坞自然村,上何务自然村,叶家自然村,何务自然村,下何务自然村,章家坞自然村,章家自然村),万市镇-杨家行政村(杨坎头自然村,徐家自然村,垄坞自然村,田畈自然村,杨家自然村,横山自然村,西坞自然村,西坞口自然村,盛家自然村,东坞自然村,上官自然村,同王殿自然村),万市镇-白马行政村(白马殿自然村,大岭头自然村,纸房里自然村,杉树湾自然村,许家自然村,岭脚自然村,东华山自然村,南新坞自然村,果立山自然村,圣坞坑自然村,古里山自然村,新舍里自然村),万市镇-方里行政村(高小垄自然村,桃花坞自然村,杉树湾自然村,方口自然村,高桥头自然村,大河里自然村,方里自然村,半坎自然村,吕家自然村,龙门桥自然村,船仓坞自然村,高小垅自然村,圣坞坑自然村,青岭自然村,大青自然村),洞桥镇-贤德行政村-麻栗湾自然村,万市镇-万市行政村-陈安自然村;万市镇(杭州富阳岑依机械有限公司,富阳市万市镇古羊岭发电站,杭州富阳润超水电有限公司,杭州富阳振华锻造有限公司,杭州富阳区万市镇白马水电站,杭州富阳树生化工厂,杭州富阳富申颜料有限公司)","startTime":"2020-05-17 00:46:00","stopDate":"2020-05-17 02:46:00","orgNo":"3340170","typeCode":"电网故障停限电","poweroffArea":"110kV万市变:南安D336线南安D3365开关后段","poweroffReason":"高压开关跳闸","powerTime":"2020-05-17 02:19:11","powerComm":"已送电","subsNo":"","lineNo":"","tgNo":"","tgName":null,"infoStatus":"1","orgName":"国网浙江杭州市富阳区供电公司","typeName":null,"infoStatusName":null,"dateDay":null,"orgNos":null,"nowTime":null,"countyName":null,"streetName":null,"villageName":null,"roadName":null,"communityName":null,"tranName":null,"sdLineName":null,"cityCode":"3340170","cityName":"国网浙江杭州市富阳区供电公司","provinceCode":null,"stopTime":"2020-05-17 02:46:00","powerType":"全部","powerOffArea":"110kV万市变:南安D336线南安D3365开关后段","powerOffReason":"高压开关跳闸","powerOffId":"2020051731020005"},{"poweroffId":2020051631020315,"sgpoweroffId":null,"subsName":"","lineName":"10kV山惠A748线","pubTranName":"君悦丽景4#公变,广东中奥物业管理有限公司杭州分公司,君悦丽景3#公变,君悦丽景2#公变,变压器,君悦丽景1#公变,","scope":"浙江省-杭州市-萧山区-北干街道(金山西苑社区-金城路,金风社区-风情大道);北干街道-杭州华群物业服务有限公司","startTime":"2020-05-16 23:36:00","stopDate":"2020-05-17 02:00:00","orgNo":"3340130","typeCode":"电网故障停限电","poweroffArea":"110kV北干变:山惠A748线君悦I开君悦分线后段","poweroffReason":"高压开关跳闸 原停电结束时间为2020-05-17 02:36:00,为减少客户停电时间,加快工作进度,提前送电,现变更停电结束时间为2020-05-17 02:00:00","powerTime":"2020-05-17 01:06:27","powerComm":"已送电","subsNo":"","lineNo":"","tgNo":"","tgName":null,"infoStatus":"1","orgName":"国网浙江杭州市萧山区供电有限公司","typeName":null,"infoStatusName":null,"dateDay":null,"orgNos":null,"nowTime":null,"countyName":null,"streetName":null,"villageName":null,"roadName":null,"communityName":null,"tranName":null,"sdLineName":null,"cityCode":"3340130","cityName":"国网浙江杭州市萧山区供电有限公司","provinceCode":null,"stopTime":"2020-05-17 02:00:00","powerType":"全部","powerOffArea":"110kV北干变:山惠A748线君悦I开君悦分线后段","powerOffReason":"高压开关跳闸 原停电结束时间为2020-05-17 02:36:00,为减少客户停电时间,加快工作进度,提前送电,现变更停电结束时间为2020-05-17 02:00:00","powerOffId":"2020051631020315"},{"poweroffId":2020051631020308,"sgpoweroffId":null,"subsName":"","lineName":"10kV游乐A001线","pubTranName":"杭州乐园旅游专变,休博路公变,湘湖林语2#公变,变压器,上海铁路局上海通信段,湘湖村1#公变,浙江萧山金龟机械有限公司1#,杭州易芭投资管理有限公司,杭州萧山区钱塘江排灌总站,湘湖林语3#公变,杭州双佳塑胶五金制品有限公司1#,湘湖林语4#公变,湘湖渔场,中旭美固笼有限公司2#,市政园林路灯变（湘湖路）,中旭美固笼有限公司1#,西湘弄公变,湘湖林语1#公变,浙江萧山金龟机械有限公司2#,省府机关煤气站,制水有限公司2#,大唐玩塑制业有限公司,杭州萧山供水有限公司（1321157787）,杭齿山北公变,萧山区机关事务管理局,湘湖村5#公变,变压器,湘湖林语5#公变,湘湖路公变,湘渔公变,萧山电视台,制水有限公司1#,湘湖村6#公变,制水有限公司3#,杭州双佳塑胶五金制品有限公司2#,1#,杭州乐园有限公司（1315021713）,","scope":"浙江省-杭州市-萧山区-城厢街道-湘湖社区-湘湖路,城厢街道-休博园社区(湘湖路,休博路),城厢街道-万寿桥社区(下湘湖路,湘湖路,萧西路),西湘弄，城厢街道-潇湘社区(湘湖路,萧金路);城厢街道-万寿桥社区(杭州乐园有限公司,中国铁路上海局集团有限公司上海通信段,杭州中油高盛能源有限公司,杭州双佳塑胶五金制品有限公司,杭州易芭信息文创园管理有限公司,杭州大唐玩具塑料制业有限公司,杭州萧山精密模具标准件厂,杭州萧山中旭美固笼有限公司,湘湖渔场,杭州市萧山区城市河道管理处,杭州市萧山区融媒体中心,杭州市萧山区市政绿化养护保障中心,杭州市萧山区021工程管理所,杭州萧山供水有限公司,杭州市萧山区吴越历史文书博物馆,杭州萧山城厢街道南门社区经济联合社),城厢街道(湘湖社区-浙江萧山金龟机械有限公司,东湘社区-杭州萧山城市基础设施建设有限公司)等","startTime":"2020-05-16 21:52:13","stopDate":"2020-05-17 04:30:00","orgNo":"3340130","typeCode":"电网故障停限电","poweroffArea":"110kV越王变:游乐A001线后段","poweroffReason":"高压开关跳闸 原停电结束时间为2020-05-17 07:00:00,为减少客户停电时间,加快工作进度,提前送电,现变更停电结束时间为2020-05-17 04:30:00","powerTime":"2020-05-17 03:53:49","powerComm":"已送电","subsNo":"","lineNo":"","tgNo":"","tgName":null,"infoStatus":"1","orgName":"国网浙江杭州市萧山区供电有限公司","typeName":null,"infoStatusName":null,"dateDay":null,"orgNos":null,"nowTime":null,"countyName":null,"streetName":null,"villageName":null,"roadName":null,"communityName":null,"tranName":null,"sdLineName":null,"cityCode":"3340130","cityName":"国网浙江杭州市萧山区供电有限公司","provinceCode":null,"stopTime":"2020-05-17 04:30:00","powerType":"全部","powerOffArea":"110kV越王变:游乐A001线后段","powerOffReason":"高压开关跳闸 原停电结束时间为2020-05-17 07:00:00,为减少客户停电时间,加快工作进度,提前送电,现变更停电结束时间为2020-05-17 04:30:00","powerOffId":"2020051631020308"}],"pageModel":{"pageNow":149,"totalCount":17787,"totalPage":1779,"tableRows":0,"pageCount":10,"beginCount":1480},"isExperi":"1"}