{"message":"","today":"2020-06-16","seleList":[{"poweroffId":2019071131010075,"sgpoweroffId":null,"subsName":"","lineName":"10kV红坞T117线","pubTranName":"杨梅山1号公变,","scope":"浙江省-杭州市-桐庐县-桐君街道(圆通社区-富春路、杨梅山二弄、杨梅山一弄);杨梅山15幢，21幢一带","startTime":"2019-07-11 12:42:54","stopDate":"2019-07-11 14:30:24","orgNo":"3340150","typeCode":"电网故障停限电","poweroffArea":"110kV桐庐变:红坞T117线-杨梅山1号公变后段","poweroffReason":"低压开关故障","powerTime":"2019-07-11 14:20:47","powerComm":"已送电。","subsNo":"","lineNo":"","tgNo":"","tgName":null,"infoStatus":"1","orgName":"国网浙江桐庐县供电公司","typeName":null,"infoStatusName":null,"dateDay":null,"orgNos":null,"nowTime":null,"countyName":null,"streetName":null,"villageName":null,"roadName":null,"communityName":null,"tranName":null,"sdLineName":null,"cityCode":"3340150","cityName":"国网浙江桐庐县供电公司","provinceCode":null,"stopTime":"2019-07-11 14:30:24","powerType":"全部","powerOffArea":"110kV桐庐变:红坞T117线-杨梅山1号公变后段","powerOffReason":"低压开关故障","powerOffId":"2019071131010075"},{"poweroffId":2019071131010044,"sgpoweroffId":null,"subsName":"","lineName":"10kV高桥H794线","pubTranName":"仓前镇西1#公变,仓前镇政府,仓前镇西2#公变,","scope":"浙江省杭州市余杭区仓前街道仓兴街南侧，太炎花苑小区南区，仓前老卫生院，仓前老镇政府，茶亭港一带","startTime":"2019-07-11 09:48:00","stopDate":"2019-07-11 14:30:00","orgNo":"3340140","typeCode":"电网故障停限电","poweroffArea":"110kV仓前变:高桥H794线-仓前镇西分支箱分线后段","poweroffReason":"仓前镇西分支箱分线后段 电缆断线故障","powerTime":"2019-07-11 14:09:00","powerComm":"已送电","subsNo":"","lineNo":"","tgNo":"","tgName":null,"infoStatus":"1","orgName":"国网浙江杭州市余杭区供电有限公司","typeName":null,"infoStatusName":null,"dateDay":null,"orgNos":null,"nowTime":null,"countyName":null,"streetName":null,"villageName":null,"roadName":null,"communityName":null,"tranName":null,"sdLineName":null,"cityCode":"3340140","cityName":"国网浙江杭州市余杭区供电有限公司","provinceCode":null,"stopTime":"2019-07-11 14:30:00","powerType":"全部","powerOffArea":"110kV仓前变:高桥H794线-仓前镇西分支箱分线后段","powerOffReason":"仓前镇西分支箱分线后段 电缆断线故障","powerOffId":"2019071131010044"},{"poweroffId":2019071131010039,"sgpoweroffId":null,"subsName":"","lineName":"10kV质院9116线","pubTranName":"万科(三),立方(七),立方(三),立方(十一),生命制药1,立方(一),生命制药5#,九堡中学1#,万科(十七),万科(一),万科(十三),立方(五),万科(十一),万科(七),万科(十五),万科(九),生命制药6#,万科(五),立方(九),立方(十三),","scope":"浙江省-杭州市-江干区-九堡镇(和华社区-和华路,魅力城社区-九环路),九堡街道(和华社区-九华路);(杭州师范大学东城实验学校,浙江生命制药有限公司);","startTime":"2019-07-11 09:34:30","stopDate":"2019-07-11 11:44:27","orgNo":"3340101","typeCode":"电网故障停限电","poweroffArea":"110kV蚕桑变:质院9116线","poweroffReason":"高压开关跳闸 原预计停电结束时间2019-07-11 15:34:30，由于施工现场环境比较复杂，存在不确定因素，因此预估施工时间适当放长了， 而实际施工进行得比较顺利，因此提前送电了","powerTime":"2019-07-11 10:49:45","powerComm":"已送电","subsNo":"","lineNo":"","tgNo":"","tgName":null,"infoStatus":"1","orgName":"浙江杭州电力客户服务中心","typeName":null,"infoStatusName":null,"dateDay":null,"orgNos":null,"nowTime":null,"countyName":null,"streetName":null,"villageName":null,"roadName":null,"communityName":null,"tranName":null,"sdLineName":null,"cityCode":"3340101","cityName":"浙江杭州电力客户服务中心","provinceCode":null,"stopTime":"2019-07-11 11:44:27","powerType":"全部","powerOffArea":"110kV蚕桑变:质院9116线","powerOffReason":"高压开关跳闸 原预计停电结束时间2019-07-11 15:34:30，由于施工现场环境比较复杂，存在不确定因素，因此预估施工时间适当放长了， 而实际施工进行得比较顺利，因此提前送电了","powerOffId":"2019071131010039"},{"poweroffId":2019071131010036,"sgpoweroffId":null,"subsName":"","lineName":"10kV付墩A352线","pubTranName":"傅墩村1#变,","scope":"浙江省-杭州市-萧山区-进化镇(傅墩行政村-傅家墩自然村)一带","startTime":"2019-07-11 09:27:21","stopDate":"2019-07-11 14:20:12","orgNo":"3340130","typeCode":"电网故障停限电","poweroffArea":"110kV进化变:付墩A352线-傅墩村1#变台区低压开关","poweroffReason":"低压熔断器短路故障 原停电结束时间：2019-07-11 16:30，变更停电结束时间：2019-07-11 14:20，由于增派人员，抢修提前完成，故需要提前送电。","powerTime":"2019-07-11 13:27:39","powerComm":"已送电","subsNo":"","lineNo":"","tgNo":"","tgName":null,"infoStatus":"1","orgName":"国网浙江杭州市萧山区供电有限公司","typeName":null,"infoStatusName":null,"dateDay":null,"orgNos":null,"nowTime":null,"countyName":null,"streetName":null,"villageName":null,"roadName":null,"communityName":null,"tranName":null,"sdLineName":null,"cityCode":"3340130","cityName":"国网浙江杭州市萧山区供电有限公司","provinceCode":null,"stopTime":"2019-07-11 14:20:12","powerType":"全部","powerOffArea":"110kV进化变:付墩A352线-傅墩村1#变台区低压开关","powerOffReason":"低压熔断器短路故障 原停电结束时间：2019-07-11 16:30，变更停电结束时间：2019-07-11 14:20，由于增派人员，抢修提前完成，故需要提前送电。","powerOffId":"2019071131010036"},{"poweroffId":2019071131010031,"sgpoweroffId":null,"subsName":"","lineName":"10kV广福H767线","pubTranName":"山家湾,","scope":"浙江省-杭州市-余杭区-五常街道荆丰行政村-荆丰自然村、山家湾自然村一带","startTime":"2019-07-11 09:25:00","stopDate":"2019-07-11 15:00:00","orgNo":"3340140","typeCode":"电网故障停限电","poweroffArea":"110kV五常变:广福H767线-山家湾后段","poweroffReason":"山家湾后段 电容器烧毁故障","powerTime":"2019-07-11 14:10:00","powerComm":"已送电","subsNo":"","lineNo":"","tgNo":"","tgName":null,"infoStatus":"1","orgName":"国网浙江杭州市余杭区供电有限公司","typeName":null,"infoStatusName":null,"dateDay":null,"orgNos":null,"nowTime":null,"countyName":null,"streetName":null,"villageName":null,"roadName":null,"communityName":null,"tranName":null,"sdLineName":null,"cityCode":"3340140","cityName":"国网浙江杭州市余杭区供电有限公司","provinceCode":null,"stopTime":"2019-07-11 15:00:00","powerType":"全部","powerOffArea":"110kV五常变:广福H767线-山家湾后段","powerOffReason":"山家湾后段 电容器烧毁故障","powerOffId":"2019071131010031"},{"poweroffId":2019071131010015,"sgpoweroffId":null,"subsName":"","lineName":"10kV常绿D268线","pubTranName":"大章村7号章村街道公变,","scope":"浙江省-杭州市-富阳区-常绿镇(大章村行政村-常三中心自然村)一带;","startTime":"2019-07-11 13:00:19","stopDate":"2019-07-11 15:40:00","orgNo":"3340170","typeCode":"电网故障停限电","poweroffArea":"35kV盛村变:常绿D268线-大章村7号章村街道公变后段","poweroffReason":"低压配电设备故障","powerTime":"2019-07-11 15:00:50","powerComm":"工作完成，已恢复送电","subsNo":"","lineNo":"","tgNo":"","tgName":null,"infoStatus":"1","orgName":"国网浙江杭州市富阳区供电公司","typeName":null,"infoStatusName":null,"dateDay":null,"orgNos":null,"nowTime":null,"countyName":null,"streetName":null,"villageName":null,"roadName":null,"communityName":null,"tranName":null,"sdLineName":null,"cityCode":"3340170","cityName":"国网浙江杭州市富阳区供电公司","provinceCode":null,"stopTime":"2019-07-11 15:40:00","powerType":"全部","powerOffArea":"35kV盛村变:常绿D268线-大章村7号章村街道公变后段","powerOffReason":"低压配电设备故障","powerOffId":"2019071131010015"},{"poweroffId":2019071131010010,"sgpoweroffId":null,"subsName":"","lineName":"10kV洋东T317线","pubTranName":"城南街道上洋洲村村民委员会(旅馆),","scope":"浙江省-杭州市-桐庐县-城南街道-(城南街道上洋洲村村民委员会);上杭社区大奇山路788号美伦美郡小区美郡12幢103室，青山工业区下城路9号一带","startTime":"2019-07-11 08:10:55","stopDate":"2019-07-11 14:30:06","orgNo":"3340150","typeCode":"电网故障停限电","poweroffArea":"110kV洋洲变:洋东T317线-城南街道上洋洲村村民委员会(旅馆)后段","poweroffReason":"低压开关故障","powerTime":"2019-07-11 14:21:25","powerComm":"已送电。","subsNo":"","lineNo":"","tgNo":"","tgName":null,"infoStatus":"1","orgName":"国网浙江桐庐县供电公司","typeName":null,"infoStatusName":null,"dateDay":null,"orgNos":null,"nowTime":null,"countyName":null,"streetName":null,"villageName":null,"roadName":null,"communityName":null,"tranName":null,"sdLineName":null,"cityCode":"3340150","cityName":"国网浙江桐庐县供电公司","provinceCode":null,"stopTime":"2019-07-11 14:30:06","powerType":"全部","powerOffArea":"110kV洋洲变:洋东T317线-城南街道上洋洲村村民委员会(旅馆)后段","powerOffReason":"低压开关故障","powerOffId":"2019071131010010"},{"poweroffId":2019071131010001,"sgpoweroffId":null,"subsName":"","lineName":"10kV养生堂Y106线","pubTranName":"叶家社区汪家台区,","scope":"浙江省-杭州市-建德市-新安江街道 叶家社区-汪家自然村一带用户","startTime":"2019-07-11 00:01:00","stopDate":"2019-07-11 09:00:00","orgNo":"3340180","typeCode":"电网故障停限电","poweroffArea":"110kV新安江变:养生堂Y106线-叶家社区汪家台区后段","poweroffReason":"养生堂Y106线-叶家社区汪家台区 低压电缆烧毁故障 原预计停电结束时间12:00，由于施工现场环境比较复杂，存在不确定因素，因此预估施工时间适当放长了，目前故障已修复，现将停电时间变更至9:00。","powerTime":"2019-07-11 08:21:00","powerComm":"已送电","subsNo":"","lineNo":"","tgNo":"","tgName":null,"infoStatus":"1","orgName":"国网浙江建德市供电有限公司","typeName":null,"infoStatusName":null,"dateDay":null,"orgNos":null,"nowTime":null,"countyName":null,"streetName":null,"villageName":null,"roadName":null,"communityName":null,"tranName":null,"sdLineName":null,"cityCode":"3340180","cityName":"国网浙江建德市供电有限公司","provinceCode":null,"stopTime":"2019-07-11 09:00:00","powerType":"全部","powerOffArea":"110kV新安江变:养生堂Y106线-叶家社区汪家台区后段","powerOffReason":"养生堂Y106线-叶家社区汪家台区 低压电缆烧毁故障 原预计停电结束时间12:00，由于施工现场环境比较复杂，存在不确定因素，因此预估施工时间适当放长了，目前故障已修复，现将停电时间变更至9:00。","powerOffId":"2019071131010001"},{"poweroffId":2019071031020076,"sgpoweroffId":null,"subsName":"","lineName":"10kV永街D732线","pubTranName":"永昌村永桥9#新区公变,杭州春辉玻璃科技有限公司,1#,永昌村永昌7号老街公变,富阳市富春轮胎有限公司,永昌村何云8号下许家公变,富阳富美装饰材料有限公司,永昌村永桥6#菜市场公变,富阳世飞贸易有限公司,永昌村何云7号马路公变,富阳市永明造纸厂,杭州富阳晓东泡塑材料经营部1#变,永昌村永昌5#下街公变,富阳市富春轮胎有限公司,中国电信股份有限公司富阳分公司,杭州富阳蓝骑贸易有限公司,永昌村何云6#何云公变,忠华造纸厂,包秦村包秦3#陈家公变,富藤食品1#变,永昌村永桥1#中华厂公变,永昌村永桥10号二尊殿公变,永昌村永桥5号茶坞里公变,","scope":"浙江省-杭州市-富阳区-永昌镇-永昌行政村(永昌自然村,永桥自然村,何云自然村),永昌镇-唐昌行政村-青山自然村,新登镇-包秦行政村-包秦自然村;永昌镇(中国电信股份有限公司富阳分公司,富阳市忠华造纸厂,富阳市永明造纸厂,杭州富阳晓东泡塑材料有限公司,杭州富阳富美装饰材料有限公司,杭州富阳富春轮胎有限公司,杭州春辉玻璃科技有限公司,杭州市富阳区永昌镇社区卫生服务中心,杭州富阳蓝骑鞋业有限公司,杭州富藤食品有限公司)","startTime":"2019-07-10 20:14:14","stopDate":"2019-07-10 22:00:00","orgNo":"3340170","typeCode":"电网故障停限电","poweroffArea":"110kV松溪变:永街D732线永街D7321开关后段","poweroffReason":"高压开关跳闸，原停电结束时间 2019-07-10 23:07:00，因抢修力度加强变更至2019-07-10 22:00:00","powerTime":"2019-07-10 21:00:42","powerComm":"已送电","subsNo":"","lineNo":"","tgNo":"","tgName":null,"infoStatus":"1","orgName":"国网浙江杭州市富阳区供电公司","typeName":null,"infoStatusName":null,"dateDay":null,"orgNos":null,"nowTime":null,"countyName":null,"streetName":null,"villageName":null,"roadName":null,"communityName":null,"tranName":null,"sdLineName":null,"cityCode":"3340170","cityName":"国网浙江杭州市富阳区供电公司","provinceCode":null,"stopTime":"2019-07-10 22:00:00","powerType":"全部","powerOffArea":"110kV松溪变:永街D732线永街D7321开关后段","powerOffReason":"高压开关跳闸，原停电结束时间 2019-07-10 23:07:00，因抢修力度加强变更至2019-07-10 22:00:00","powerOffId":"2019071031020076"},{"poweroffId":2019071031020071,"sgpoweroffId":null,"subsName":"","lineName":"10kV沈奇9421线","pubTranName":"省送,市房,善贤(3),","scope":"浙江省杭州市拱墅区浙江五菱汽车销售服务有限公司、杭州新奇特汽车服务有限公司、杭州市市政工程集团有限公司、杭州市路桥集团股份有限公司","startTime":"2019-07-25 09:30:00","stopDate":"2019-07-25 13:30:00","orgNo":"3340101","typeCode":"计划停电","poweroffArea":"110kV石桥变:沈奇9421线-省送分线后段","poweroffReason":"省送分线电缆迁改。原停电结束时间17:30、变更停电结束时间13:30原因由于施工现场环境比较复杂，存在不确定因素，因此预估施工时间适当放长了，而实际施工进行得比较顺利，因此该工作提前结束。","powerTime":"2019-07-25 12:36:48","powerComm":"已送电","subsNo":"","lineNo":"","tgNo":"","tgName":null,"infoStatus":"1","orgName":"浙江杭州电力客户服务中心","typeName":null,"infoStatusName":null,"dateDay":null,"orgNos":null,"nowTime":null,"countyName":null,"streetName":null,"villageName":null,"roadName":null,"communityName":null,"tranName":null,"sdLineName":null,"cityCode":"3340101","cityName":"浙江杭州电力客户服务中心","provinceCode":null,"stopTime":"2019-07-25 13:30:00","powerType":"全部","powerOffArea":"110kV石桥变:沈奇9421线-省送分线后段","powerOffReason":"省送分线电缆迁改。原停电结束时间17:30、变更停电结束时间13:30原因由于施工现场环境比较复杂，存在不确定因素，因此预估施工时间适当放长了，而实际施工进行得比较顺利，因此该工作提前结束。","powerOffId":"2019071031020071"}],"pageModel":{"pageNow":1478,"totalCount":17789,"totalPage":1779,"tableRows":0,"pageCount":10,"beginCount":14770},"isExperi":"1"}