{"message":"","today":"2020-06-16","seleList":[{"poweroffId":2019071031010094,"sgpoweroffId":null,"subsName":"","lineName":"10kV桥南Y202线","pubTranName":"溪头新村2#公变,","scope":"浙江省-杭州市-建德市-新安江街道 溪头社区-溪头新村一带用户","startTime":"2019-07-10 10:30:00","stopDate":"2019-07-10 12:45:00","orgNo":"3340180","typeCode":"电网故障停限电","poweroffArea":"110kV白沙变:桥南Y202线-溪头新村2#公变后段","poweroffReason":"桥南Y202线-溪头新村2#公变 低压配电设备故障 原预计停电结束时间13:00，由于施工现场环境比较复杂，存在不确定因素，因此预估施工时间适当放长了，目前故障已修复，现将停电时间变更至12:45。","powerTime":"2019-07-10 11:56:00","powerComm":"已送电","subsNo":"","lineNo":"","tgNo":"","tgName":null,"infoStatus":"1","orgName":"国网浙江建德市供电有限公司","typeName":null,"infoStatusName":null,"dateDay":null,"orgNos":null,"nowTime":null,"countyName":null,"streetName":null,"villageName":null,"roadName":null,"communityName":null,"tranName":null,"sdLineName":null,"cityCode":"3340180","cityName":"国网浙江建德市供电有限公司","provinceCode":null,"stopTime":"2019-07-10 12:45:00","powerType":"全部","powerOffArea":"110kV白沙变:桥南Y202线-溪头新村2#公变后段","powerOffReason":"桥南Y202线-溪头新村2#公变 低压配电设备故障 原预计停电结束时间13:00，由于施工现场环境比较复杂，存在不确定因素，因此预估施工时间适当放长了，目前故障已修复，现将停电时间变更至12:45。","powerOffId":"2019071031010094"},{"poweroffId":2019071031010081,"sgpoweroffId":null,"subsName":"","lineName":"10kV天阳8614线","pubTranName":"水月一变,","scope":"浙江省-杭州市-拱墅区-祥符街道(映月社区-长阳路);都市水乡小区水月苑10、11、12、13幢。","startTime":"2019-07-10 09:52:50","stopDate":"2019-07-10 15:52:50","orgNo":"3340101","typeCode":"电网故障停限电","poweroffArea":"110kV谢村变:天阳8614线-水月一变后段","poweroffReason":"水月一变 低压设备故障","powerTime":"2019-07-10 15:20:37","powerComm":"送电","subsNo":"","lineNo":"","tgNo":"","tgName":null,"infoStatus":"1","orgName":"浙江杭州电力客户服务中心","typeName":null,"infoStatusName":null,"dateDay":null,"orgNos":null,"nowTime":null,"countyName":null,"streetName":null,"villageName":null,"roadName":null,"communityName":null,"tranName":null,"sdLineName":null,"cityCode":"3340101","cityName":"浙江杭州电力客户服务中心","provinceCode":null,"stopTime":"2019-07-10 15:52:50","powerType":"全部","powerOffArea":"110kV谢村变:天阳8614线-水月一变后段","powerOffReason":"水月一变 低压设备故障","powerOffId":"2019071031010081"},{"poweroffId":2019071031010074,"sgpoweroffId":null,"subsName":"","lineName":"10kV城中T273线","pubTranName":"国贸大厦1号公变,","scope":"浙江省-杭州市-桐庐县-城南街道(中杭社区-春江路、国贸路、三合路、中杭路)，三合公寓一带","startTime":"2019-07-10 09:40:10","stopDate":"2019-07-10 16:00:00","orgNo":"3340150","typeCode":"电网故障停限电","poweroffArea":"35kV三合变:城中T273线-国贸大厦1号公变后段","poweroffReason":"低压开关故障，原停电结束时间2019年07月10日11:24:57，变更停电结束时间：2019年07月10日 16:00:00，原因：天气原因需要延期","powerTime":"2019-07-10 15:40:20","powerComm":"已送电","subsNo":"","lineNo":"","tgNo":"","tgName":null,"infoStatus":"1","orgName":"国网浙江桐庐县供电公司","typeName":null,"infoStatusName":null,"dateDay":null,"orgNos":null,"nowTime":null,"countyName":null,"streetName":null,"villageName":null,"roadName":null,"communityName":null,"tranName":null,"sdLineName":null,"cityCode":"3340150","cityName":"国网浙江桐庐县供电公司","provinceCode":null,"stopTime":"2019-07-10 16:00:00","powerType":"全部","powerOffArea":"35kV三合变:城中T273线-国贸大厦1号公变后段","powerOffReason":"低压开关故障，原停电结束时间2019年07月10日11:24:57，变更停电结束时间：2019年07月10日 16:00:00，原因：天气原因需要延期","powerOffId":"2019071031010074"},{"poweroffId":2019071031010064,"sgpoweroffId":null,"subsName":"","lineName":"10kV常绿D268线","pubTranName":"大章村1号常三中心村公变,","scope":"浙江省-杭州市-富阳区-常绿镇(大章村行政村-常三中心自然村、前山头自然村、前田畈自然村)一带;","startTime":"2019-07-10 13:00:00","stopDate":"2019-07-10 15:30:00","orgNo":"3340170","typeCode":"电网故障停限电","poweroffArea":"35kV盛村变:常绿D268线-大章村1号常三中心村公变后段","poweroffReason":"低压配电设备故障","powerTime":"2019-07-10 15:03:07","powerComm":"工作完成，已恢复送电","subsNo":"","lineNo":"","tgNo":"","tgName":null,"infoStatus":"1","orgName":"国网浙江杭州市富阳区供电公司","typeName":null,"infoStatusName":null,"dateDay":null,"orgNos":null,"nowTime":null,"countyName":null,"streetName":null,"villageName":null,"roadName":null,"communityName":null,"tranName":null,"sdLineName":null,"cityCode":"3340170","cityName":"国网浙江杭州市富阳区供电公司","provinceCode":null,"stopTime":"2019-07-10 15:30:00","powerType":"全部","powerOffArea":"35kV盛村变:常绿D268线-大章村1号常三中心村公变后段","powerOffReason":"低压配电设备故障","powerOffId":"2019071031010064"},{"poweroffId":2019071031010051,"sgpoweroffId":null,"subsName":"","lineName":"10kV经贸C634线","pubTranName":"临浦集镇15#变,","scope":"浙江省-杭州市-萧山区-临浦镇(东麓池社区-峙山西路)等一带","startTime":"2019-07-10 08:25:25","stopDate":"2019-07-10 10:15:12","orgNo":"3340130","typeCode":"电网故障停限电","poweroffArea":"110kV临浦变:经贸C634线-临浦集镇15#变台区低压开关","poweroffReason":"低压漏电保护器短路故障 原停电结束时间：2019-07-10 11:22，变更停电结束时间：2019-07-10 10:15，由于增派人员，抢修提前完成，故需要提前送电。","powerTime":"2019-07-10 09:43:11","powerComm":"已送电","subsNo":"","lineNo":"","tgNo":"","tgName":null,"infoStatus":"1","orgName":"国网浙江杭州市萧山区供电有限公司","typeName":null,"infoStatusName":null,"dateDay":null,"orgNos":null,"nowTime":null,"countyName":null,"streetName":null,"villageName":null,"roadName":null,"communityName":null,"tranName":null,"sdLineName":null,"cityCode":"3340130","cityName":"国网浙江杭州市萧山区供电有限公司","provinceCode":null,"stopTime":"2019-07-10 10:15:12","powerType":"全部","powerOffArea":"110kV临浦变:经贸C634线-临浦集镇15#变台区低压开关","powerOffReason":"低压漏电保护器短路故障 原停电结束时间：2019-07-10 11:22，变更停电结束时间：2019-07-10 10:15，由于增派人员，抢修提前完成，故需要提前送电。","powerOffId":"2019071031010051"},{"poweroffId":2019071031010046,"sgpoweroffId":null,"subsName":"","lineName":"10kV砾山A271线","pubTranName":"浙江万达实耐宝工具有限公司2#,浙江万达实耐宝工具有限公司1#,","scope":"浙江省杭州市萧山区闻堰镇(实耐宝工具制造(浙江)有限公司)，亚太路1798实类宝工具制造制造有限公司，亚太路1801号，三江口行政村大湾路，大湾路58号一带","startTime":"2019-07-10 07:44:11","stopDate":"2019-07-10 10:40:05","orgNo":"3340130","typeCode":"电网故障停限电","poweroffArea":"110kV定山变:砾山A271线砾山A2711开关后段","poweroffReason":"外力破坏引起砾山A271线高压柱上断路器短路故障 原停电结束时间：2019-07-10 14:08:08，变更停电结束时间：2019-07-10 10:40:05，由于增派人员，抢修提前完成，故需要提前送电。变更停电地理区域","powerTime":"2019-07-10 10:02:04","powerComm":"已送电","subsNo":"","lineNo":"","tgNo":"","tgName":null,"infoStatus":"1","orgName":"国网浙江杭州市萧山区供电有限公司","typeName":null,"infoStatusName":null,"dateDay":null,"orgNos":null,"nowTime":null,"countyName":null,"streetName":null,"villageName":null,"roadName":null,"communityName":null,"tranName":null,"sdLineName":null,"cityCode":"3340130","cityName":"国网浙江杭州市萧山区供电有限公司","provinceCode":null,"stopTime":"2019-07-10 10:40:05","powerType":"全部","powerOffArea":"110kV定山变:砾山A271线砾山A2711开关后段","powerOffReason":"外力破坏引起砾山A271线高压柱上断路器短路故障 原停电结束时间：2019-07-10 14:08:08，变更停电结束时间：2019-07-10 10:40:05，由于增派人员，抢修提前完成，故需要提前送电。变更停电地理区域","powerOffId":"2019071031010046"},{"poweroffId":2019071031010036,"sgpoweroffId":null,"subsName":"","lineName":"10kV寿昌Y172线","pubTranName":"寿昌集镇东昌北路公变,","scope":"浙江省-杭州市-建德市-寿昌镇 西昌路，东昌路，桂花村一带用户。","startTime":"2019-07-10 07:22:00","stopDate":"2019-07-10 10:00:00","orgNo":"3340180","typeCode":"电网故障停限电","poweroffArea":"110kV航头变:寿昌Y172线-寿昌集镇东昌北路公变后段","poweroffReason":"寿昌Y172线 寿昌集镇东昌北路公变 低压配电设备故障 原预计停电结束时间12:00，由于施工现场环境比较复杂，存在不确定因素，因此预估施工时间适当放长了，目前故障已修复，现将停电时间变更至10:00。","powerTime":"2019-07-10 09:41:00","powerComm":"已送电","subsNo":"","lineNo":"","tgNo":"","tgName":null,"infoStatus":"1","orgName":"国网浙江建德市供电有限公司","typeName":null,"infoStatusName":null,"dateDay":null,"orgNos":null,"nowTime":null,"countyName":null,"streetName":null,"villageName":null,"roadName":null,"communityName":null,"tranName":null,"sdLineName":null,"cityCode":"3340180","cityName":"国网浙江建德市供电有限公司","provinceCode":null,"stopTime":"2019-07-10 10:00:00","powerType":"全部","powerOffArea":"110kV航头变:寿昌Y172线-寿昌集镇东昌北路公变后段","powerOffReason":"寿昌Y172线 寿昌集镇东昌北路公变 低压配电设备故障 原预计停电结束时间12:00，由于施工现场环境比较复杂，存在不确定因素，因此预估施工时间适当放长了，目前故障已修复，现将停电时间变更至10:00。","powerOffId":"2019071031010036"},{"poweroffId":2019070931020059,"sgpoweroffId":null,"subsName":"","lineName":"10kV后周D554线","pubTranName":"振兴路4#公变,","scope":"浙江省-杭州市-富阳区-富春街道-后周社区(振兴路,前周路)","startTime":"2019-07-09 18:19:48","stopDate":"2019-07-09 19:25:48","orgNo":"3340170","typeCode":"电网故障停限电","poweroffArea":"110kV春江变:后周D554线-振兴路4#公变后段","poweroffReason":"高压开关跳闸","powerTime":"2019-07-09 19:02:38","powerComm":"已送电","subsNo":"","lineNo":"","tgNo":"","tgName":null,"infoStatus":"1","orgName":"国网浙江杭州市富阳区供电公司","typeName":null,"infoStatusName":null,"dateDay":null,"orgNos":null,"nowTime":null,"countyName":null,"streetName":null,"villageName":null,"roadName":null,"communityName":null,"tranName":null,"sdLineName":null,"cityCode":"3340170","cityName":"国网浙江杭州市富阳区供电公司","provinceCode":null,"stopTime":"2019-07-09 19:25:48","powerType":"全部","powerOffArea":"110kV春江变:后周D554线-振兴路4#公变后段","powerOffReason":"高压开关跳闸","powerOffId":"2019070931020059"},{"poweroffId":2019070931020030,"sgpoweroffId":null,"subsName":"","lineName":"10kV庆利C148线","pubTranName":"靖港村20#变,靖港村18#变,","scope":"浙江省-杭州市-萧山区-靖江街道-靖港行政村(山前自然村,永盛路,靖港自然村)","startTime":"2019-07-17 08:30:00","stopDate":"2019-07-17 13:30:00","orgNo":"3340130","typeCode":"计划停电","poweroffArea":"110kV梅西变:庆利C148线-靖港村20#变后段;庆利C148线-靖港村18#变后段","poweroffReason":"靖港村18#变下250上400kVA","powerTime":"2019-07-17 13:27:20","powerComm":"已送电","subsNo":"","lineNo":"","tgNo":"","tgName":null,"infoStatus":"1","orgName":"国网浙江杭州市萧山区供电有限公司","typeName":null,"infoStatusName":null,"dateDay":null,"orgNos":null,"nowTime":null,"countyName":null,"streetName":null,"villageName":null,"roadName":null,"communityName":null,"tranName":null,"sdLineName":null,"cityCode":"3340130","cityName":"国网浙江杭州市萧山区供电有限公司","provinceCode":null,"stopTime":"2019-07-17 13:30:00","powerType":"全部","powerOffArea":"110kV梅西变:庆利C148线-靖港村20#变后段;庆利C148线-靖港村18#变后段","powerOffReason":"靖港村18#变下250上400kVA","powerOffId":"2019070931020030"},{"poweroffId":2019070931020015,"sgpoweroffId":null,"subsName":"","lineName":"10kV启东0313线","pubTranName":"江东村11#变,江建村4#变,江建村1#变,江东村10#变,","scope":"浙江省-杭州市-萧山区-河庄街道-江东行政村-江东自然村;河庄街道-江东行政村(萧山区新围初级中学,杭州大江东产业集聚区英伦森林幼儿园)","startTime":"2019-07-10 09:00:00","stopDate":"2019-07-10 15:10:00","orgNo":"3340120","typeCode":"计划停电","poweroffArea":"110kV启江变:启东0313线-江建分线03#开关后段","poweroffReason":"围中0313A线江建分线换线工作","powerTime":"2019-07-10 14:52:45","powerComm":"已送电","subsNo":"","lineNo":"","tgNo":"","tgName":null,"infoStatus":"1","orgName":"国网浙江杭州市钱塘新区供电公司","typeName":null,"infoStatusName":null,"dateDay":null,"orgNos":null,"nowTime":null,"countyName":null,"streetName":null,"villageName":null,"roadName":null,"communityName":null,"tranName":null,"sdLineName":null,"cityCode":"3340120","cityName":"国网浙江杭州市钱塘新区供电公司","provinceCode":null,"stopTime":"2019-07-10 15:10:00","powerType":"全部","powerOffArea":"110kV启江变:启东0313线-江建分线03#开关后段","powerOffReason":"围中0313A线江建分线换线工作","powerOffId":"2019070931020015"}],"pageModel":{"pageNow":1481,"totalCount":17789,"totalPage":1779,"tableRows":0,"pageCount":10,"beginCount":14800},"isExperi":"1"}