{"message":"","today":"2020-06-16","seleList":[{"poweroffId":2019070931010219,"sgpoweroffId":null,"subsName":"","lineName":"10kV车家G309线","pubTranName":"栖里东苑4#公变,栖里东苑1#公变,栖里东苑3#公变,栖里西苑II段2#专变,原舍3-2#公变,1#,原舍3-1#公变,原舍1#公变,原舍2#公变,栖里东苑2#公变,栖里西苑公变,","scope":"浙江省-杭州市-余杭区-塘栖镇(广济路社区-绿荫街、圆满路,乐苑社区-广济路、人民路、栖里东苑小区);(杭州余杭运河综合保护开发建设有限公司)一带","startTime":"2019-07-09 22:46:00","stopDate":"2019-07-10 01:00:00","orgNo":"3340140","typeCode":"电网故障停限电","poweroffArea":"110kV西苑变:车家G309线","poweroffReason":"车家G309线导线断线故障 因停电地址不够完善故增加栖里东苑小区 原计划结束时间01:46因故障点已隔离，无停电用户影响，提前至01:00","powerTime":"2019-07-10 00:23:00","powerComm":"已送电","subsNo":"","lineNo":"","tgNo":"","tgName":null,"infoStatus":"1","orgName":"国网浙江杭州市余杭区供电有限公司","typeName":null,"infoStatusName":null,"dateDay":null,"orgNos":null,"nowTime":null,"countyName":null,"streetName":null,"villageName":null,"roadName":null,"communityName":null,"tranName":null,"sdLineName":null,"cityCode":"3340140","cityName":"国网浙江杭州市余杭区供电有限公司","provinceCode":null,"stopTime":"2019-07-10 01:00:00","powerType":"全部","powerOffArea":"110kV西苑变:车家G309线","powerOffReason":"车家G309线导线断线故障 因停电地址不够完善故增加栖里东苑小区 原计划结束时间01:46因故障点已隔离，无停电用户影响，提前至01:00","powerOffId":"2019070931010219"},{"poweroffId":2019070931010187,"sgpoweroffId":null,"subsName":"","lineName":"10kV旧县T225线","pubTranName":"上峰村3号公变,","scope":"浙江省-杭州市-桐庐县-旧县街道(上峰行政村-高台上自然村);","startTime":"2019-07-09 18:44:41","stopDate":"2019-07-09 20:45:41","orgNo":"3340150","typeCode":"电网故障停限电","poweroffArea":"35kV西武变:旧县T225线-上峰村3号公变后段","poweroffReason":"低压开关故障","powerTime":"2019-07-09 20:30:20","powerComm":"已送电","subsNo":"","lineNo":"","tgNo":"","tgName":null,"infoStatus":"1","orgName":"国网浙江桐庐县供电公司","typeName":null,"infoStatusName":null,"dateDay":null,"orgNos":null,"nowTime":null,"countyName":null,"streetName":null,"villageName":null,"roadName":null,"communityName":null,"tranName":null,"sdLineName":null,"cityCode":"3340150","cityName":"国网浙江桐庐县供电公司","provinceCode":null,"stopTime":"2019-07-09 20:45:41","powerType":"全部","powerOffArea":"35kV西武变:旧县T225线-上峰村3号公变后段","powerOffReason":"低压开关故障","powerOffId":"2019070931010187"},{"poweroffId":2019070931010184,"sgpoweroffId":null,"subsName":"","lineName":"10kV八都C985线","pubTranName":"杭州市萧山区林场,杭州互信机械有限公司,八都村12#变,八都村6#变,","scope":"浙江省-杭州市-萧山区-戴村镇(八都行政村-麦园自然村、盛家自然村、中潭自然村);(杭州互信机械有限公司,杭州市萧山区林场)浙江省杭州市萧山区戴村镇八都村前方自然村一带","startTime":"2019-07-09 18:24:24","stopDate":"2019-07-09 19:30:29","orgNo":"3340130","typeCode":"电网故障停限电","poweroffArea":"110kV永兴变:八都C985线-八都C985线林场分线开关后段","poweroffReason":"高压柱上断路器短路故障 原停电结束时间：2019-07-09 21:00，变更停电结束时间：2019-07-09 19:30，由于增派人员，抢修提前完成，故需要提前送电。","powerTime":"2019-07-09 18:39:03","powerComm":"已送电","subsNo":"","lineNo":"","tgNo":"","tgName":null,"infoStatus":"1","orgName":"国网浙江杭州市萧山区供电有限公司","typeName":null,"infoStatusName":null,"dateDay":null,"orgNos":null,"nowTime":null,"countyName":null,"streetName":null,"villageName":null,"roadName":null,"communityName":null,"tranName":null,"sdLineName":null,"cityCode":"3340130","cityName":"国网浙江杭州市萧山区供电有限公司","provinceCode":null,"stopTime":"2019-07-09 19:30:29","powerType":"全部","powerOffArea":"110kV永兴变:八都C985线-八都C985线林场分线开关后段","powerOffReason":"高压柱上断路器短路故障 原停电结束时间：2019-07-09 21:00，变更停电结束时间：2019-07-09 19:30，由于增派人员，抢修提前完成，故需要提前送电。","powerOffId":"2019070931010184"},{"poweroffId":2019070931010173,"sgpoweroffId":null,"subsName":"","lineName":"10kV八都C985线","pubTranName":"八都村3#变,三头村4#变,三头村9#变,杭州市萧山区林场,三头村2#变,八都村8#变,八都村9#变,八都村2#变,三头村6#变,三头村1#变,八都村10#变,萧山第六高级中学,杭州恺友塑胶有限公司,杭州海菱电器设备有限公司,三头村3#变,八都村4#变,杭州锋濠铝业有限公司,八都村6#变,三头村14#变,马谷村5#变,三头村7#变,八都村1#变,三头村8#变,半山村5#变,马谷村3#变,八都村5#变,马谷村2#变,八都村12#变,八都村11#变,马谷村1#变,杭州互信机械有限公司,八都村7#变,杭州拂晓新材料科技有限公司,杭州合力包装材料有限公司,杭州萧山电子开关实业有限公司,","scope":"浙江省-杭州市-萧山区-戴村镇(八都行政村-麦园自然村、前方自然村、盛家自然村、中潭自然村,半山行政村-丁村自然村、凌山自然村,戴村行政村-戴村自然村,马谷行政村-马谷自然村,三头行政村-大湖头自然村、凌桥自然村、墙头自然村);(杭州锋濠铝业有限公司,杭州拂晓新材料科技有限公司,杭州海菱电器设备有限公司,杭州合力包装材料有限公司,杭州互信机械有限公司,杭州市萧山区林场,杭州萧山电子开关实业有限公司,杭州恺友塑胶有限公司,萧山第六高级中学);浙江省杭州市萧山区戴村镇山头村大湖头,浙江省杭州市萧山区戴村镇三头行政村,浙江省杭州市萧山区戴村镇八都村一带","startTime":"2019-07-09 16:50:52","stopDate":"2019-07-09 19:00:05","orgNo":"3340130","typeCode":"电网故障停限电","poweroffArea":"110kV永兴变:八都C985线-八都C9852开关后段","poweroffReason":"高压柱上断路器短路故障 原停电结束时间：2019-07-09 20:00，变更停电结束时间：2019-07-09 19:00，由于增派人员，抢修提前完成，故需要提前送电。","powerTime":"2019-07-09 18:08:14","powerComm":"已送电","subsNo":"","lineNo":"","tgNo":"","tgName":null,"infoStatus":"1","orgName":"国网浙江杭州市萧山区供电有限公司","typeName":null,"infoStatusName":null,"dateDay":null,"orgNos":null,"nowTime":null,"countyName":null,"streetName":null,"villageName":null,"roadName":null,"communityName":null,"tranName":null,"sdLineName":null,"cityCode":"3340130","cityName":"国网浙江杭州市萧山区供电有限公司","provinceCode":null,"stopTime":"2019-07-09 19:00:05","powerType":"全部","powerOffArea":"110kV永兴变:八都C985线-八都C9852开关后段","powerOffReason":"高压柱上断路器短路故障 原停电结束时间：2019-07-09 20:00，变更停电结束时间：2019-07-09 19:00，由于增派人员，抢修提前完成，故需要提前送电。","powerOffId":"2019070931010173"},{"poweroffId":2019070931010157,"sgpoweroffId":null,"subsName":"","lineName":"10kV童家Y178线","pubTranName":"卜家蓬村葛塘庙台区,","scope":"浙江省-杭州市-建德市-寿昌镇 西门行政村沙田畈自然村；红路行政村下毛家自然村、毛家畈自然村、后大路自然村；卜家蓬行政村小山自然村、葛塘庙自然村一带用户。","startTime":"2019-07-09 15:05:00","stopDate":"2019-07-09 18:00:00","orgNo":"3340180","typeCode":"电网故障停限电","poweroffArea":"110kV航头变:童家Y178线-葛塘庙支线0#杆令克后段","poweroffReason":"童家Y178线-葛塘庙支线0#杆令克后段;童家Y178线首端，童家Y1783开关，童家Y1782开关之间 引流线拆除（原预计停电结束时间19:00，由于施工现场环境比较复杂，存在不确定因素，因此预估施工时间适当放长了，目前故障已修复，现将停电时间变更至18:00。）","powerTime":"2019-07-09 17:12:00","powerComm":"已送电","subsNo":"","lineNo":"","tgNo":"","tgName":null,"infoStatus":"1","orgName":"国网浙江建德市供电有限公司","typeName":null,"infoStatusName":null,"dateDay":null,"orgNos":null,"nowTime":null,"countyName":null,"streetName":null,"villageName":null,"roadName":null,"communityName":null,"tranName":null,"sdLineName":null,"cityCode":"3340180","cityName":"国网浙江建德市供电有限公司","provinceCode":null,"stopTime":"2019-07-09 18:00:00","powerType":"全部","powerOffArea":"110kV航头变:童家Y178线-葛塘庙支线0#杆令克后段","powerOffReason":"童家Y178线-葛塘庙支线0#杆令克后段;童家Y178线首端，童家Y1783开关，童家Y1782开关之间 引流线拆除（原预计停电结束时间19:00，由于施工现场环境比较复杂，存在不确定因素，因此预估施工时间适当放长了，目前故障已修复，现将停电时间变更至18:00。）","powerOffId":"2019070931010157"},{"poweroffId":2019070931010151,"sgpoweroffId":null,"subsName":"","lineName":"10kV曙光G162线","pubTranName":"嘉禾苑公变,","scope":"浙江省-杭州市-余杭区-临平街道星火社区-星光街一带","startTime":"2019-07-09 14:54:00","stopDate":"2019-07-09 20:20:00","orgNo":"3340140","typeCode":"电网故障停限电","poweroffArea":"110kV丘山变:曙光G162线-嘉禾苑公变后段","poweroffReason":"嘉禾苑公变后段 低压电缆断线故障","powerTime":"2019-07-09 19:39:10","powerComm":"已送电","subsNo":"","lineNo":"","tgNo":"","tgName":null,"infoStatus":"1","orgName":"国网浙江杭州市余杭区供电有限公司","typeName":null,"infoStatusName":null,"dateDay":null,"orgNos":null,"nowTime":null,"countyName":null,"streetName":null,"villageName":null,"roadName":null,"communityName":null,"tranName":null,"sdLineName":null,"cityCode":"3340140","cityName":"国网浙江杭州市余杭区供电有限公司","provinceCode":null,"stopTime":"2019-07-09 20:20:00","powerType":"全部","powerOffArea":"110kV丘山变:曙光G162线-嘉禾苑公变后段","powerOffReason":"嘉禾苑公变后段 低压电缆断线故障","powerOffId":"2019070931010151"},{"poweroffId":2019070931010145,"sgpoweroffId":null,"subsName":"","lineName":"10kV新化Y108线","pubTranName":"白沙社区白沙大道公变,","scope":"浙江省-杭州市-建德市-新安江街道 白沙社区-白沙路，建煌公寓一带用户。","startTime":"2019-07-09 14:40:00","stopDate":"2019-07-09 17:00:00","orgNo":"3340180","typeCode":"电网故障停限电","poweroffArea":"110kV新安江变:新化Y108线-白沙社区白沙大道公变后段","poweroffReason":"新化Y108线-白沙社区白沙大道公变 低压线路故障（原预计停电结束时间19:00，由于施工现场环境比较复杂，存在不确定因素，因此预估施工时间适当放长了，目前故障已修复，现将停电时间变更至17:00。）","powerTime":"2019-07-09 16:35:00","powerComm":"已送电","subsNo":"","lineNo":"","tgNo":"","tgName":null,"infoStatus":"1","orgName":"国网浙江建德市供电有限公司","typeName":null,"infoStatusName":null,"dateDay":null,"orgNos":null,"nowTime":null,"countyName":null,"streetName":null,"villageName":null,"roadName":null,"communityName":null,"tranName":null,"sdLineName":null,"cityCode":"3340180","cityName":"国网浙江建德市供电有限公司","provinceCode":null,"stopTime":"2019-07-09 17:00:00","powerType":"全部","powerOffArea":"110kV新安江变:新化Y108线-白沙社区白沙大道公变后段","powerOffReason":"新化Y108线-白沙社区白沙大道公变 低压线路故障（原预计停电结束时间19:00，由于施工现场环境比较复杂，存在不确定因素，因此预估施工时间适当放长了，目前故障已修复，现将停电时间变更至17:00。）","powerOffId":"2019070931010145"},{"poweroffId":2019070931010139,"sgpoweroffId":null,"subsName":"","lineName":"10kV宋江6785线","pubTranName":"翠苑(1),","scope":"浙江省杭州市西湖区翠苑街道翠苑三区社区翠苑三区小区一带","startTime":"2019-07-09 14:25:47","stopDate":"2019-07-09 15:30:47","orgNo":"3340101","typeCode":"电网故障停限电","poweroffArea":"110kV高技变:宋江6785线-翠苑(1)变","poweroffReason":"翠苑(1)变 低压设备故障 原预计停电结束时间16:00:47,由于施工现场环境比较复杂，存在不确定因素，因此预估施工时间适当放长了，而实际施工进行得比较顺利，因此提前送电了。","powerTime":"2019-07-09 14:59:56","powerComm":"已送电","subsNo":"","lineNo":"","tgNo":"","tgName":null,"infoStatus":"1","orgName":"浙江杭州电力客户服务中心","typeName":null,"infoStatusName":null,"dateDay":null,"orgNos":null,"nowTime":null,"countyName":null,"streetName":null,"villageName":null,"roadName":null,"communityName":null,"tranName":null,"sdLineName":null,"cityCode":"3340101","cityName":"浙江杭州电力客户服务中心","provinceCode":null,"stopTime":"2019-07-09 15:30:47","powerType":"全部","powerOffArea":"110kV高技变:宋江6785线-翠苑(1)变","powerOffReason":"翠苑(1)变 低压设备故障 原预计停电结束时间16:00:47,由于施工现场环境比较复杂，存在不确定因素，因此预估施工时间适当放长了，而实际施工进行得比较顺利，因此提前送电了。","powerOffId":"2019070931010139"},{"poweroffId":2019070931010107,"sgpoweroffId":null,"subsName":"","lineName":"10kV杨家G293线","pubTranName":"塘北村仲家舍北公变,","scope":"浙江省-杭州市-余杭区-塘栖镇塘北行政村-塘北村一带","startTime":"2019-07-09 12:02:00","stopDate":"2019-07-09 17:00:00","orgNo":"3340140","typeCode":"电网故障停限电","poweroffArea":"110kV渔桥变:杨家G293线-塘北村仲家舍北公变后段","poweroffReason":"塘北村仲家舍北公变后段 低压电缆断线故障","powerTime":"2019-07-09 16:08:00","powerComm":"已送电","subsNo":"","lineNo":"","tgNo":"","tgName":null,"infoStatus":"1","orgName":"国网浙江杭州市余杭区供电有限公司","typeName":null,"infoStatusName":null,"dateDay":null,"orgNos":null,"nowTime":null,"countyName":null,"streetName":null,"villageName":null,"roadName":null,"communityName":null,"tranName":null,"sdLineName":null,"cityCode":"3340140","cityName":"国网浙江杭州市余杭区供电有限公司","provinceCode":null,"stopTime":"2019-07-09 17:00:00","powerType":"全部","powerOffArea":"110kV渔桥变:杨家G293线-塘北村仲家舍北公变后段","powerOffReason":"塘北村仲家舍北公变后段 低压电缆断线故障","powerOffId":"2019070931010107"},{"poweroffId":2019070931010087,"sgpoweroffId":null,"subsName":"","lineName":"10kV上凉H544线","pubTranName":"求是村许家村2号公变,潘板集镇春花秋月公变,潘板集镇别墅公变,公安局径山6120849061,径山镇政府,荷塘花苑1号公变,1#,水泥砖厂,荷塘花苑2号公变,求是村许家村1号公变,","scope":"浙江省-杭州市-余杭区-径山镇潘坂桥行政村-荷塘花苑小区、潘坂桥自然村,求是行政村-求是自然村、许家自然村;杭州市公安局余杭区分局,杭州余杭区径山镇人民政府,杭州余杭区径山镇盛浆水泥砖厂,径山镇人民政府一带","startTime":"2019-07-09 10:27:00","stopDate":"2019-07-09 15:00:00","orgNo":"3340140","typeCode":"电网故障停限电","poweroffArea":"110kV潘板变:上凉H544线","poweroffReason":"上凉H544线 架空线断线故障","powerTime":"2019-07-09 14:48:00","powerComm":"已送电","subsNo":"","lineNo":"","tgNo":"","tgName":null,"infoStatus":"1","orgName":"国网浙江杭州市余杭区供电有限公司","typeName":null,"infoStatusName":null,"dateDay":null,"orgNos":null,"nowTime":null,"countyName":null,"streetName":null,"villageName":null,"roadName":null,"communityName":null,"tranName":null,"sdLineName":null,"cityCode":"3340140","cityName":"国网浙江杭州市余杭区供电有限公司","provinceCode":null,"stopTime":"2019-07-09 15:00:00","powerType":"全部","powerOffArea":"110kV潘板变:上凉H544线","powerOffReason":"上凉H544线 架空线断线故障","powerOffId":"2019070931010087"}],"pageModel":{"pageNow":1482,"totalCount":17789,"totalPage":1779,"tableRows":0,"pageCount":10,"beginCount":14810},"isExperi":"1"}