{"message":"","today":"2020-06-15","seleList":[{"poweroffId":2020051631020299,"sgpoweroffId":null,"subsName":"","lineName":"10kV锦祺A203线","pubTranName":"湘南村8#变,","scope":"浙江省-杭州市-萧山区-义桥镇-湘南行政村(牌轩下自然村,峡山头自然村)等","startTime":"2020-05-16 19:37:27","stopDate":"2020-05-16 21:00:27","orgNo":"3340130","typeCode":"电网故障停限电","poweroffArea":"110kV群建变:锦祺A203线-湘南村8#变台区低压开关","poweroffReason":"（低压停电信息）低压架空线断线 原停电结束时间为2020-05-16 22:37:27,为减少客户停电时间,加快工作进度,提前送电,现变更停电结束时间为2020-05-16 21:00:27","powerTime":"2020-05-16 20:24:00","powerComm":"已送电","subsNo":"","lineNo":"","tgNo":"","tgName":null,"infoStatus":"1","orgName":"国网浙江杭州市萧山区供电有限公司","typeName":null,"infoStatusName":null,"dateDay":null,"orgNos":null,"nowTime":null,"countyName":null,"streetName":null,"villageName":null,"roadName":null,"communityName":null,"tranName":null,"sdLineName":null,"cityCode":"3340130","cityName":"国网浙江杭州市萧山区供电有限公司","provinceCode":null,"stopTime":"2020-05-16 21:00:27","powerType":"全部","powerOffArea":"110kV群建变:锦祺A203线-湘南村8#变台区低压开关","powerOffReason":"（低压停电信息）低压架空线断线 原停电结束时间为2020-05-16 22:37:27,为减少客户停电时间,加快工作进度,提前送电,现变更停电结束时间为2020-05-16 21:00:27","powerOffId":"2020051631020299"},{"poweroffId":2020051631020295,"sgpoweroffId":null,"subsName":"","lineName":"10kV和睦Y506线","pubTranName":"江湾村上西岸台区,","scope":"浙江省-杭州市-建德市-下涯镇-江湾行政村-上西岸自然村","startTime":"2020-05-16 19:10:00","stopDate":"2020-05-16 20:30:00","orgNo":"3340180","typeCode":"电网故障停限电","poweroffArea":"110kV沿口变:和睦Y506线-江湾村上西岸台区后段","poweroffReason":"(低压停电信息)低压开关跳闸 原停电结束时间为2020-05-16 21:30:00,为减少客户停电时间,加快工作进度,提前送电,现变更停电结束时间为2020-05-16 20:30:00","powerTime":"2020-05-16 19:53:00","powerComm":"已送电（实际现场未停电，属误报）","subsNo":"","lineNo":"","tgNo":"","tgName":null,"infoStatus":"1","orgName":"国网浙江建德市供电有限公司","typeName":null,"infoStatusName":null,"dateDay":null,"orgNos":null,"nowTime":null,"countyName":null,"streetName":null,"villageName":null,"roadName":null,"communityName":null,"tranName":null,"sdLineName":null,"cityCode":"3340180","cityName":"国网浙江建德市供电有限公司","provinceCode":null,"stopTime":"2020-05-16 20:30:00","powerType":"全部","powerOffArea":"110kV沿口变:和睦Y506线-江湾村上西岸台区后段","powerOffReason":"(低压停电信息)低压开关跳闸 原停电结束时间为2020-05-16 21:30:00,为减少客户停电时间,加快工作进度,提前送电,现变更停电结束时间为2020-05-16 20:30:00","powerOffId":"2020051631020295"},{"poweroffId":2020051631020277,"sgpoweroffId":null,"subsName":"","lineName":"10kV大岩A346线","pubTranName":"太平桥1#变,","scope":"浙江省-杭州市-萧山区-进化镇-太平桥行政村-大岩自然村等","startTime":"2020-05-16 17:28:22","stopDate":"2020-05-16 20:28:22","orgNo":"3340130","typeCode":"电网故障停限电","poweroffArea":"110kV进化变:大岩A346线-太平桥1#变台区低压开关","poweroffReason":"（低压停电信息）低压架空线断线 原停电结束时间为2020-05-16 19:28:22,由于现场抢修难度大原因,延迟送电,现变更停电结束时间为2020-05-16 20:28:22","powerTime":"2020-05-16 19:33:21","powerComm":"已送电","subsNo":"","lineNo":"","tgNo":"","tgName":null,"infoStatus":"1","orgName":"国网浙江杭州市萧山区供电有限公司","typeName":null,"infoStatusName":null,"dateDay":null,"orgNos":null,"nowTime":null,"countyName":null,"streetName":null,"villageName":null,"roadName":null,"communityName":null,"tranName":null,"sdLineName":null,"cityCode":"3340130","cityName":"国网浙江杭州市萧山区供电有限公司","provinceCode":null,"stopTime":"2020-05-16 20:28:22","powerType":"全部","powerOffArea":"110kV进化变:大岩A346线-太平桥1#变台区低压开关","powerOffReason":"（低压停电信息）低压架空线断线 原停电结束时间为2020-05-16 19:28:22,由于现场抢修难度大原因,延迟送电,现变更停电结束时间为2020-05-16 20:28:22","powerOffId":"2020051631020277"},{"poweroffId":2020051631020262,"sgpoweroffId":null,"subsName":"","lineName":"10kV黎蓬A814线","pubTranName":"横蓬村18#变,航华实业有限公司(1315078272),横蓬村5#变,航华实业(1315077803),横蓬村25#变,横蓬村2#变,翰维斯(1321037652),","scope":"浙江省-杭州市-萧山区-南阳街道-南阳社区-港城大道,南阳街道-横蓬行政村(港城大道,横蓬自然村,南虹路);南阳街道(杭州翰维斯塑业有限公司,杭州航华实业有限公司)等","startTime":"2020-05-16 15:38:00","stopDate":"2020-05-16 17:05:00","orgNo":"3340130","typeCode":"电网故障停限电","poweroffArea":"110kV黎明变:黎蓬A814线黎蓬A814线航华分线开关后段","poweroffReason":"高压柱上断路器跳闸 原停电结束时间为2020-05-18 18:38:00,为减少客户停电时间,加快工作进度,提前送电,现变更停电结束时间为2020-05-16 17:05:00","powerTime":"2020-05-16 16:12:30","powerComm":"已送电","subsNo":"","lineNo":"","tgNo":"","tgName":null,"infoStatus":"1","orgName":"国网浙江杭州市萧山区供电有限公司","typeName":null,"infoStatusName":null,"dateDay":null,"orgNos":null,"nowTime":null,"countyName":null,"streetName":null,"villageName":null,"roadName":null,"communityName":null,"tranName":null,"sdLineName":null,"cityCode":"3340130","cityName":"国网浙江杭州市萧山区供电有限公司","provinceCode":null,"stopTime":"2020-05-16 17:05:00","powerType":"全部","powerOffArea":"110kV黎明变:黎蓬A814线黎蓬A814线航华分线开关后段","powerOffReason":"高压柱上断路器跳闸 原停电结束时间为2020-05-18 18:38:00,为减少客户停电时间,加快工作进度,提前送电,现变更停电结束时间为2020-05-16 17:05:00","powerOffId":"2020051631020262"},{"poweroffId":2020051631020199,"sgpoweroffId":null,"subsName":"","lineName":"10kV方桥G907线","pubTranName":"永东3组6号公变,永东3组3号公变,方桥7组6号公变,永东4组8号公变,方桥7组3号公变,","scope":"浙江省-杭州市-余杭区-乔司街道-方桥行政村-方桥自然村,乔司街道-永和行政村(永东自然村,永和自然村)","startTime":"2020-05-16 12:12:39","stopDate":"2020-05-16 17:12:39","orgNo":"3340140","typeCode":"电网故障停限电","poweroffArea":"110kV庙港变:方桥G907线首端，方桥G9071开关，方桥G9073开关之间","poweroffReason":"高压开关跳闸","powerTime":"2020-05-16 16:52:05","powerComm":"已送电","subsNo":"","lineNo":"","tgNo":"","tgName":null,"infoStatus":"1","orgName":"国网浙江杭州市余杭区供电有限公司","typeName":null,"infoStatusName":null,"dateDay":null,"orgNos":null,"nowTime":null,"countyName":null,"streetName":null,"villageName":null,"roadName":null,"communityName":null,"tranName":null,"sdLineName":null,"cityCode":"3340140","cityName":"国网浙江杭州市余杭区供电有限公司","provinceCode":null,"stopTime":"2020-05-16 17:12:39","powerType":"全部","powerOffArea":"110kV庙港变:方桥G907线首端，方桥G9071开关，方桥G9073开关之间","powerOffReason":"高压开关跳闸","powerOffId":"2020051631020199"},{"poweroffId":2020051631020155,"sgpoweroffId":null,"subsName":"","lineName":"10kV沙大Y203线","pubTranName":"安居公变2#,","scope":"浙江省-杭州市-建德市-新安江街道-明珠社区-田源路,新安花园小区","startTime":"2020-05-16 10:00:00","stopDate":"2020-05-16 16:00:00","orgNo":"3340180","typeCode":"电网故障停限电","poweroffArea":"110kV白沙变:沙大Y203线-安居公变2#后段","poweroffReason":"(低压停电信息)低压电缆烧毁 原停电结束时间为2020-05-16 17:00:00,为减少客户停电时间,加快工作进度,提前送电,现变更停电结束时间为2020-05-16 16:00:00","powerTime":"2020-05-16 15:06:07","powerComm":"已送电","subsNo":"","lineNo":"","tgNo":"","tgName":null,"infoStatus":"1","orgName":"国网浙江建德市供电有限公司","typeName":null,"infoStatusName":null,"dateDay":null,"orgNos":null,"nowTime":null,"countyName":null,"streetName":null,"villageName":null,"roadName":null,"communityName":null,"tranName":null,"sdLineName":null,"cityCode":"3340180","cityName":"国网浙江建德市供电有限公司","provinceCode":null,"stopTime":"2020-05-16 16:00:00","powerType":"全部","powerOffArea":"110kV白沙变:沙大Y203线-安居公变2#后段","powerOffReason":"(低压停电信息)低压电缆烧毁 原停电结束时间为2020-05-16 17:00:00,为减少客户停电时间,加快工作进度,提前送电,现变更停电结束时间为2020-05-16 16:00:00","powerOffId":"2020051631020155"},{"poweroffId":2020051631020153,"sgpoweroffId":null,"subsName":"","lineName":"10kV上义H991线","pubTranName":"上湖村加工场公变,","scope":"浙江省-杭州市-余杭区-余杭街道-上湖行政村(安山自然村,上湖自然村)","startTime":"2020-05-16 09:57:00","stopDate":"2020-05-16 10:57:00","orgNo":"3340140","typeCode":"电网故障停限电","poweroffArea":"110kV余杭临时变:上义H991线上湖村加工场公变配变","poweroffReason":"高压开关跳闸","powerTime":"2020-05-16 10:31:00","powerComm":"已送电","subsNo":"","lineNo":"","tgNo":"","tgName":null,"infoStatus":"1","orgName":"国网浙江杭州市余杭区供电有限公司","typeName":null,"infoStatusName":null,"dateDay":null,"orgNos":null,"nowTime":null,"countyName":null,"streetName":null,"villageName":null,"roadName":null,"communityName":null,"tranName":null,"sdLineName":null,"cityCode":"3340140","cityName":"国网浙江杭州市余杭区供电有限公司","provinceCode":null,"stopTime":"2020-05-16 10:57:00","powerType":"全部","powerOffArea":"110kV余杭临时变:上义H991线上湖村加工场公变配变","powerOffReason":"高压开关跳闸","powerOffId":"2020051631020153"},{"poweroffId":2020051631020123,"sgpoweroffId":null,"subsName":"","lineName":"10kV润达D431线","pubTranName":"杭州乐仕玻璃有限公司1#变,杭州佑昌齿轮制造有限公司,学校沙12号杭千西公变,思图环亚纺织（杭州）有限公司,富阳协丽工贸有限公司,杭州杰创阀业有限公司,1#变,2#变,杭州延伸电梯配件有限公司,浙江东箭工贸有限公司 2#,浙江东箭工贸有限公司,富阳科兴生物化工有限公司,杭州佳能阀门有限公司,民建村5号东2公变,杭州汽轮染整机械有限公司,杭州大华仪器制造有限公司,杭州德泰人防设备有限公司富阳分公司,杭州乐仕玻璃有限公司2#变,杭州飞捷机械有限公司,","scope":"浙江省-杭州市-富阳区-东洲街道-建华行政村-民建自然村;东洲街道(杭州大华仪器制造有限公司,杭州飞捷机械有限公司,杭州延伸电梯配件有限公司,杭州乐仕玻璃有限公司,浙江东箭工贸有限公司,杭州汽轮染整机械有限公司,杭州协丽工贸有限公司,杭州吴宇机械设备有限公司,杭州杰创阀业有限公司,杭州科兴生物化工有限公司,杭州德泰人防设备有限公司富阳分公司,杭州富阳佑昌齿轮有限公司,杭州金色能源科技有限公司,杭州佳能阀门有限公司)","startTime":"2020-05-16 09:11:00","stopDate":"2020-05-16 11:11:00","orgNo":"3340170","typeCode":"电网故障停限电","poweroffArea":"110kV东洲变:润达D431线润达D4311开关后段","poweroffReason":"高压开关跳闸","powerTime":"2020-05-16 10:11:38","powerComm":"已送电","subsNo":"","lineNo":"","tgNo":"","tgName":null,"infoStatus":"1","orgName":"国网浙江杭州市富阳区供电公司","typeName":null,"infoStatusName":null,"dateDay":null,"orgNos":null,"nowTime":null,"countyName":null,"streetName":null,"villageName":null,"roadName":null,"communityName":null,"tranName":null,"sdLineName":null,"cityCode":"3340170","cityName":"国网浙江杭州市富阳区供电公司","provinceCode":null,"stopTime":"2020-05-16 11:11:00","powerType":"全部","powerOffArea":"110kV东洲变:润达D431线润达D4311开关后段","powerOffReason":"高压开关跳闸","powerOffId":"2020051631020123"},{"poweroffId":2020051631020114,"sgpoweroffId":null,"subsName":"","lineName":"10kV黎蓬A814线","pubTranName":"翰维斯(1321037652),航华实业(1315077803),航华实业有限公司(1315078272),横蓬村2#变,横蓬村25#变,横蓬村5#变,横蓬村18#变,","scope":"浙江省-杭州市-萧山区-南阳街道-南阳社区-港城大道,南阳街道-横蓬行政村(港城大道,横蓬自然村,南虹路);南阳街道-横蓬行政村(杭州翰维斯塑业有限公司,杭州航华实业有限公司)等","startTime":"2020-05-16 08:46:10","stopDate":"2020-05-16 09:50:10","orgNo":"3340130","typeCode":"电网故障停限电","poweroffArea":"110kV黎明变:黎蓬A814线-黎蓬A814线航华分线开关后段","poweroffReason":"高压开关跳闸","powerTime":"2020-05-16 09:04:40","powerComm":"已送电","subsNo":"","lineNo":"","tgNo":"","tgName":null,"infoStatus":"1","orgName":"国网浙江杭州市萧山区供电有限公司","typeName":null,"infoStatusName":null,"dateDay":null,"orgNos":null,"nowTime":null,"countyName":null,"streetName":null,"villageName":null,"roadName":null,"communityName":null,"tranName":null,"sdLineName":null,"cityCode":"3340130","cityName":"国网浙江杭州市萧山区供电有限公司","provinceCode":null,"stopTime":"2020-05-16 09:50:10","powerType":"全部","powerOffArea":"110kV黎明变:黎蓬A814线-黎蓬A814线航华分线开关后段","powerOffReason":"高压开关跳闸","powerOffId":"2020051631020114"},{"poweroffId":2020051631020102,"sgpoweroffId":null,"subsName":"","lineName":"10kV东曹A189线","pubTranName":"义桥村17#变,","scope":"浙江省-杭州市-萧山区-义桥镇-义桥行政村-茅山头自然村等","startTime":"2020-05-16 08:35:44","stopDate":"2020-05-16 11:00:44","orgNo":"3340130","typeCode":"电网故障停限电","poweroffArea":"110kV群建变:东曹A189线-义桥村17#变台区低压开关","poweroffReason":"（低压停电信息）低压架空线断线 原停电结束时间为2020-05-16 16:00:44,为减少客户停电时间,加快工作进度,提前送电,现变更停电结束时间为2020-05-16 11:00:44","powerTime":"2020-05-16 10:23:03","powerComm":"已送电","subsNo":"","lineNo":"","tgNo":"","tgName":null,"infoStatus":"1","orgName":"国网浙江杭州市萧山区供电有限公司","typeName":null,"infoStatusName":null,"dateDay":null,"orgNos":null,"nowTime":null,"countyName":null,"streetName":null,"villageName":null,"roadName":null,"communityName":null,"tranName":null,"sdLineName":null,"cityCode":"3340130","cityName":"国网浙江杭州市萧山区供电有限公司","provinceCode":null,"stopTime":"2020-05-16 11:00:44","powerType":"全部","powerOffArea":"110kV群建变:东曹A189线-义桥村17#变台区低压开关","powerOffReason":"（低压停电信息）低压架空线断线 原停电结束时间为2020-05-16 16:00:44,为减少客户停电时间,加快工作进度,提前送电,现变更停电结束时间为2020-05-16 11:00:44","powerOffId":"2020051631020102"}],"pageModel":{"pageNow":150,"totalCount":17787,"totalPage":1779,"tableRows":0,"pageCount":10,"beginCount":1490},"isExperi":"1"}