{"message":"","today":"2020-06-16","seleList":[{"poweroffId":2019070531020371,"sgpoweroffId":null,"subsName":"","lineName":"10kV九里V176线","pubTranName":"10kV肇村村[下召吕家]公变,","scope":"浙江省杭州市临安区天目山镇下召吕家一带","startTime":"2019-07-16 07:00:47","stopDate":"2019-07-16 13:30:06","orgNo":"3340160","typeCode":"计划停电","poweroffArea":"停35kV藻溪变九里V176线下召吕家公变低压闸刀","poweroffReason":"分支线改造","powerTime":"2019-07-16 13:20:08","powerComm":"全部送电","subsNo":"","lineNo":"","tgNo":"","tgName":null,"infoStatus":"1","orgName":"国网浙江临安市供电公司","typeName":null,"infoStatusName":null,"dateDay":null,"orgNos":null,"nowTime":null,"countyName":null,"streetName":null,"villageName":null,"roadName":null,"communityName":null,"tranName":null,"sdLineName":null,"cityCode":"3340160","cityName":"国网浙江临安市供电公司","provinceCode":null,"stopTime":"2019-07-16 13:30:06","powerType":"全部","powerOffArea":"停35kV藻溪变九里V176线下召吕家公变低压闸刀","powerOffReason":"分支线改造","powerOffId":"2019070531020371"},{"poweroffId":2019070531020370,"sgpoweroffId":null,"subsName":"","lineName":"10kV九里V176线","pubTranName":"10kV肇村村[下召田畈]公变,","scope":"浙江省杭州市临安区天目山镇下召田畈一带","startTime":"2019-07-16 07:00:00","stopDate":"2019-07-16 13:30:00","orgNo":"3340160","typeCode":"计划停电","poweroffArea":"停35kV藻溪变九里V176线下召田畈分线02#杆令克","poweroffReason":"增容","powerTime":"2019-07-16 13:20:56","powerComm":"全部送电","subsNo":"","lineNo":"","tgNo":"","tgName":null,"infoStatus":"1","orgName":"国网浙江临安市供电公司","typeName":null,"infoStatusName":null,"dateDay":null,"orgNos":null,"nowTime":null,"countyName":null,"streetName":null,"villageName":null,"roadName":null,"communityName":null,"tranName":null,"sdLineName":null,"cityCode":"3340160","cityName":"国网浙江临安市供电公司","provinceCode":null,"stopTime":"2019-07-16 13:30:00","powerType":"全部","powerOffArea":"停35kV藻溪变九里V176线下召田畈分线02#杆令克","powerOffReason":"增容","powerOffId":"2019070531020370"},{"poweroffId":2019070531020369,"sgpoweroffId":null,"subsName":"","lineName":"10kV门口V295线","pubTranName":"10kV告岭村[东关村平溪]公变,","scope":"浙江省杭州市临安区天目山镇东关村平溪一带","startTime":"2019-07-15 07:30:00","stopDate":"2019-07-15 18:00:00","orgNo":"3340160","typeCode":"计划停电","poweroffArea":"停35kV西天目变门口V295线东关分线25#杆平溪支线令克","poweroffReason":"分支线改造","powerTime":"2019-07-15 17:27:09","powerComm":"已送电","subsNo":"","lineNo":"","tgNo":"","tgName":null,"infoStatus":"1","orgName":"国网浙江临安市供电公司","typeName":null,"infoStatusName":null,"dateDay":null,"orgNos":null,"nowTime":null,"countyName":null,"streetName":null,"villageName":null,"roadName":null,"communityName":null,"tranName":null,"sdLineName":null,"cityCode":"3340160","cityName":"国网浙江临安市供电公司","provinceCode":null,"stopTime":"2019-07-15 18:00:00","powerType":"全部","powerOffArea":"停35kV西天目变门口V295线东关分线25#杆平溪支线令克","powerOffReason":"分支线改造","powerOffId":"2019070531020369"},{"poweroffId":2019070531020289,"sgpoweroffId":null,"subsName":"","lineName":"10kV启邦292线","pubTranName":"河庄营业所4#变,","scope":"浙江省-杭州市-萧山区-河庄街道江东五路中国电联以北四工段横河区域","startTime":"2019-07-19 09:00:00","stopDate":"2019-07-19 15:40:00","orgNo":"3340120","typeCode":"计划停电","poweroffArea":"110kV启江变:启邦292线-河庄营业所4#变后段","poweroffReason":"（低压停电信息）营业所4#变低压台区改造工作","powerTime":"2019-07-19 15:19:00","powerComm":"已送电","subsNo":"","lineNo":"","tgNo":"","tgName":null,"infoStatus":"1","orgName":"国网浙江杭州市钱塘新区供电公司","typeName":null,"infoStatusName":null,"dateDay":null,"orgNos":null,"nowTime":null,"countyName":null,"streetName":null,"villageName":null,"roadName":null,"communityName":null,"tranName":null,"sdLineName":null,"cityCode":"3340120","cityName":"国网浙江杭州市钱塘新区供电公司","provinceCode":null,"stopTime":"2019-07-19 15:40:00","powerType":"全部","powerOffArea":"110kV启江变:启邦292线-河庄营业所4#变后段","powerOffReason":"（低压停电信息）营业所4#变低压台区改造工作","powerOffId":"2019070531020289"},{"poweroffId":2019070531020288,"sgpoweroffId":null,"subsName":"","lineName":"10kV河镇507线","pubTranName":"建设村17#变,","scope":"浙江省-杭州市-萧山区-河庄街道-建设行政村-建设自然村","startTime":"2019-07-17 09:45:00","stopDate":"2019-07-17 14:30:00","orgNo":"3340120","typeCode":"计划停电","poweroffArea":"35kV永丰变:河镇507线-建设村17#变后段","poweroffReason":"（低压停电信息）建设村17#变低压台区改造工作","powerTime":"2019-07-17 13:54:35","powerComm":"已送电","subsNo":"","lineNo":"","tgNo":"","tgName":null,"infoStatus":"1","orgName":"国网浙江杭州市钱塘新区供电公司","typeName":null,"infoStatusName":null,"dateDay":null,"orgNos":null,"nowTime":null,"countyName":null,"streetName":null,"villageName":null,"roadName":null,"communityName":null,"tranName":null,"sdLineName":null,"cityCode":"3340120","cityName":"国网浙江杭州市钱塘新区供电公司","provinceCode":null,"stopTime":"2019-07-17 14:30:00","powerType":"全部","powerOffArea":"35kV永丰变:河镇507线-建设村17#变后段","powerOffReason":"（低压停电信息）建设村17#变低压台区改造工作","powerOffId":"2019070531020288"},{"poweroffId":2019070531020286,"sgpoweroffId":null,"subsName":"","lineName":"10kV新创502线","pubTranName":"文伟村11#变,","scope":"浙江省-杭州市-萧山区-河庄街道-文伟行政村-文伟自然村","startTime":"2019-07-19 10:30:00","stopDate":"2019-07-19 14:30:00","orgNo":"3340120","typeCode":"计划停电","poweroffArea":"35kV永丰变:新创502线-文伟村11#变后段","poweroffReason":"文伟村11#变台区增量工作","powerTime":"2019-07-19 14:28:03","powerComm":"已送电","subsNo":"","lineNo":"","tgNo":"","tgName":null,"infoStatus":"1","orgName":"国网浙江杭州市钱塘新区供电公司","typeName":null,"infoStatusName":null,"dateDay":null,"orgNos":null,"nowTime":null,"countyName":null,"streetName":null,"villageName":null,"roadName":null,"communityName":null,"tranName":null,"sdLineName":null,"cityCode":"3340120","cityName":"国网浙江杭州市钱塘新区供电公司","provinceCode":null,"stopTime":"2019-07-19 14:30:00","powerType":"全部","powerOffArea":"35kV永丰变:新创502线-文伟村11#变后段","powerOffReason":"文伟村11#变台区增量工作","powerOffId":"2019070531020286"},{"poweroffId":2019070531020285,"sgpoweroffId":null,"subsName":"","lineName":"10kV长厅056线","pubTranName":"吉天农业,吉天农业,吉天农业,","scope":"浙江省-杭州市-萧山区-围垦垦区(十七工段片区-浙江吉天农业开发有限公司,十二工段片区-浙江吉天农业开发有限公司)","startTime":"2019-07-16 09:00:00","stopDate":"2019-07-16 16:30:00","orgNo":"3340120","typeCode":"计划停电","poweroffArea":"110kV长征变:长厅056线-吉天一分线01柱上开关后段","poweroffReason":"长厅056线吉天一分线02#-09#绝缘化改造工作","powerTime":"2019-07-16 15:55:04","powerComm":"已送电","subsNo":"","lineNo":"","tgNo":"","tgName":null,"infoStatus":"1","orgName":"国网浙江杭州市钱塘新区供电公司","typeName":null,"infoStatusName":null,"dateDay":null,"orgNos":null,"nowTime":null,"countyName":null,"streetName":null,"villageName":null,"roadName":null,"communityName":null,"tranName":null,"sdLineName":null,"cityCode":"3340120","cityName":"国网浙江杭州市钱塘新区供电公司","provinceCode":null,"stopTime":"2019-07-16 16:30:00","powerType":"全部","powerOffArea":"110kV长征变:长厅056线-吉天一分线01柱上开关后段","powerOffReason":"长厅056线吉天一分线02#-09#绝缘化改造工作","powerOffId":"2019070531020285"},{"poweroffId":2019070531020283,"sgpoweroffId":null,"subsName":"","lineName":"10kV湾学A308线","pubTranName":"新湾小学1,滨宏房地产01,新湾第二幼儿园1#,滨宏房地产02#,滨宏房地产03#,","scope":"浙江省-杭州市-萧山区-新湾街道-杭州滨宏房地产开发有限公司,新湾街道-建华行政村(萧山区新湾小学,萧山区新湾第二幼儿园)","startTime":"2019-07-16 09:00:00","stopDate":"2019-07-16 17:30:00","orgNo":"3340120","typeCode":"计划停电","poweroffArea":"10kv湾学站2#母分、新幼二线、新小二线、滨宏分线","poweroffReason":"10kV湾学开关站迁移工程","powerTime":"2019-07-16 16:57:22","powerComm":"已送电","subsNo":"","lineNo":"","tgNo":"","tgName":null,"infoStatus":"1","orgName":"国网浙江杭州市钱塘新区供电公司","typeName":null,"infoStatusName":null,"dateDay":null,"orgNos":null,"nowTime":null,"countyName":null,"streetName":null,"villageName":null,"roadName":null,"communityName":null,"tranName":null,"sdLineName":null,"cityCode":"3340120","cityName":"国网浙江杭州市钱塘新区供电公司","provinceCode":null,"stopTime":"2019-07-16 17:30:00","powerType":"全部","powerOffArea":"10kv湾学站2#母分、新幼二线、新小二线、滨宏分线","powerOffReason":"10kV湾学开关站迁移工程","powerOffId":"2019070531020283"},{"poweroffId":2019070531020282,"sgpoweroffId":null,"subsName":"","lineName":"10kV钱印0509线","pubTranName":"新东村3#变,","scope":"浙江省-杭州市-萧山区-河庄街道(江东行政村-江东自然村,群建行政村-群建自然村)","startTime":"2019-07-15 09:00:00","stopDate":"2019-07-15 15:30:00","orgNo":"3340120","typeCode":"计划停电","poweroffArea":"35kV永丰变:钱印0509线-新东村3#变后段","poweroffReason":"（低压停电信息）新东村3#变部分负荷割接至江东村13# 变","powerTime":"2019-07-15 14:59:48","powerComm":"已送电","subsNo":"","lineNo":"","tgNo":"","tgName":null,"infoStatus":"1","orgName":"国网浙江杭州市钱塘新区供电公司","typeName":null,"infoStatusName":null,"dateDay":null,"orgNos":null,"nowTime":null,"countyName":null,"streetName":null,"villageName":null,"roadName":null,"communityName":null,"tranName":null,"sdLineName":null,"cityCode":"3340120","cityName":"国网浙江杭州市钱塘新区供电公司","provinceCode":null,"stopTime":"2019-07-15 15:30:00","powerType":"全部","powerOffArea":"35kV永丰变:钱印0509线-新东村3#变后段","powerOffReason":"（低压停电信息）新东村3#变部分负荷割接至江东村13# 变","powerOffId":"2019070531020282"},{"poweroffId":2019070531020281,"sgpoweroffId":null,"subsName":"","lineName":"10kV建小A288线","pubTranName":"新湾小学2#,新湾第二幼儿园2#,","scope":"浙江省-杭州市-萧山区-新湾街道-建华行政村(萧山区新湾小学,萧山区新湾第二幼儿园)","startTime":"2019-07-15 09:00:00","stopDate":"2019-07-15 17:30:00","orgNo":"3340120","typeCode":"计划停电","poweroffArea":"110kV建湾变:建小A288线-新湾小学1#断路器后段","poweroffReason":"湾学站I段1#间隔电缆试验，搭头等工作","powerTime":"2019-07-15 17:28:01","powerComm":"已送电","subsNo":"","lineNo":"","tgNo":"","tgName":null,"infoStatus":"1","orgName":"国网浙江杭州市钱塘新区供电公司","typeName":null,"infoStatusName":null,"dateDay":null,"orgNos":null,"nowTime":null,"countyName":null,"streetName":null,"villageName":null,"roadName":null,"communityName":null,"tranName":null,"sdLineName":null,"cityCode":"3340120","cityName":"国网浙江杭州市钱塘新区供电公司","provinceCode":null,"stopTime":"2019-07-15 17:30:00","powerType":"全部","powerOffArea":"110kV建湾变:建小A288线-新湾小学1#断路器后段","powerOffReason":"湾学站I段1#间隔电缆试验，搭头等工作","powerOffId":"2019070531020281"}],"pageModel":{"pageNow":1491,"totalCount":17789,"totalPage":1779,"tableRows":0,"pageCount":10,"beginCount":14900},"isExperi":"1"}