{"message":"","today":"2020-06-16","seleList":[{"poweroffId":2019070531020184,"sgpoweroffId":null,"subsName":"","lineName":"10kV钱龚V876线","pubTranName":"上甘村[钱家庄]公变,","scope":"浙江省杭州市临安区锦南街道上甘行政村钱家庄自然村一带","startTime":"2019-07-15 07:00:00","stopDate":"2019-07-15 14:00:00","orgNo":"3340160","typeCode":"计划停电","poweroffArea":"110kV杨岱变:钱龚V876线-上甘村[钱家庄]公变后段","poweroffReason":"配合公变布点，低压割接。","powerTime":"2019-07-15 13:10:22","powerComm":"已送电","subsNo":"","lineNo":"","tgNo":"","tgName":null,"infoStatus":"1","orgName":"国网浙江临安市供电公司","typeName":null,"infoStatusName":null,"dateDay":null,"orgNos":null,"nowTime":null,"countyName":null,"streetName":null,"villageName":null,"roadName":null,"communityName":null,"tranName":null,"sdLineName":null,"cityCode":"3340160","cityName":"国网浙江临安市供电公司","provinceCode":null,"stopTime":"2019-07-15 14:00:00","powerType":"全部","powerOffArea":"110kV杨岱变:钱龚V876线-上甘村[钱家庄]公变后段","powerOffReason":"配合公变布点，低压割接。","powerOffId":"2019070531020184"},{"poweroffId":2019070531020182,"sgpoweroffId":null,"subsName":"","lineName":"10kV沈家D212线","pubTranName":"高桥村12#高桥南路东公变,","scope":"浙江省-杭州市-富阳区-银湖街道-高桥行政村-高桥自然村","startTime":"2019-07-05 13:57:28","stopDate":"2019-07-05 15:00:00","orgNo":"3340170","typeCode":"电网故障停限电","poweroffArea":"110kV银湖变:沈家D212线-高桥村12#高桥南路东公变熔断器后段","poweroffReason":"低压开关跳闸","powerTime":"2019-07-05 14:48:02","powerComm":"已送电","subsNo":"","lineNo":"","tgNo":"","tgName":null,"infoStatus":"1","orgName":"国网浙江杭州市富阳区供电公司","typeName":null,"infoStatusName":null,"dateDay":null,"orgNos":null,"nowTime":null,"countyName":null,"streetName":null,"villageName":null,"roadName":null,"communityName":null,"tranName":null,"sdLineName":null,"cityCode":"3340170","cityName":"国网浙江杭州市富阳区供电公司","provinceCode":null,"stopTime":"2019-07-05 15:00:00","powerType":"全部","powerOffArea":"110kV银湖变:沈家D212线-高桥村12#高桥南路东公变熔断器后段","powerOffReason":"低压开关跳闸","powerOffId":"2019070531020182"},{"poweroffId":2019070531020180,"sgpoweroffId":null,"subsName":"","lineName":"10kV迎丰V783线","pubTranName":"湍口村老街,","scope":"浙江省-杭州市-临安市-湍口镇-湍口村老街一带.","startTime":"2019-07-19 08:00:00","stopDate":"2019-07-19 12:00:00","orgNo":"3340160","typeCode":"计划停电","poweroffArea":"35kV湍口变:迎丰V783线-湍口村老街后段","poweroffReason":"检修计划","powerTime":"2019-07-19 11:50:42","powerComm":"已送电","subsNo":"","lineNo":"","tgNo":"","tgName":null,"infoStatus":"1","orgName":"国网浙江临安市供电公司","typeName":null,"infoStatusName":null,"dateDay":null,"orgNos":null,"nowTime":null,"countyName":null,"streetName":null,"villageName":null,"roadName":null,"communityName":null,"tranName":null,"sdLineName":null,"cityCode":"3340160","cityName":"国网浙江临安市供电公司","provinceCode":null,"stopTime":"2019-07-19 12:00:00","powerType":"全部","powerOffArea":"35kV湍口变:迎丰V783线-湍口村老街后段","powerOffReason":"检修计划","powerOffId":"2019070531020180"},{"poweroffId":2019070531020179,"sgpoweroffId":null,"subsName":"","lineName":"10kV马啸V262线","pubTranName":"马啸村方家,湖门村洪家,马啸村陈家塘,马啸村日升,临安市清凉峰镇马啸股份经济合作社,湖门村坑口,马啸村吕家,湖门村冷田边,","scope":"浙江省-杭州市-临安市-清凉峰镇-石长城村大石门,湖门村洪家,山边,马啸村吕家,西村,日升,方家一带.","startTime":"2019-07-19 07:40:00","stopDate":"2019-07-19 11:20:00","orgNo":"3340160","typeCode":"计划停电","poweroffArea":"35kV颊口变:马啸V262线-马啸吕家分线开关后段","poweroffReason":"计划检修","powerTime":"2019-07-19 11:10:09","powerComm":"已送电","subsNo":"","lineNo":"","tgNo":"","tgName":null,"infoStatus":"1","orgName":"国网浙江临安市供电公司","typeName":null,"infoStatusName":null,"dateDay":null,"orgNos":null,"nowTime":null,"countyName":null,"streetName":null,"villageName":null,"roadName":null,"communityName":null,"tranName":null,"sdLineName":null,"cityCode":"3340160","cityName":"国网浙江临安市供电公司","provinceCode":null,"stopTime":"2019-07-19 11:20:00","powerType":"全部","powerOffArea":"35kV颊口变:马啸V262线-马啸吕家分线开关后段","powerOffReason":"计划检修","powerOffId":"2019070531020179"},{"poweroffId":2019070531020178,"sgpoweroffId":null,"subsName":"","lineName":"10kV龙潭V470线","pubTranName":"","scope":"浙江省-杭州市-临安市-龙岗镇-临安大龙湾水力发电有限公司,临安市新业水电开发有限公司,浙西大龙湾风景旅游有限公司一带.","startTime":"2019-07-18 07:40:00","stopDate":"2019-07-18 17:30:22","orgNo":"3340160","typeCode":"计划停电","poweroffArea":"110kV龙岗变:龙潭V470线","poweroffReason":"计划检修","powerTime":"2019-07-18 17:22:11","powerComm":"已送电","subsNo":"","lineNo":"","tgNo":"","tgName":null,"infoStatus":"1","orgName":"国网浙江临安市供电公司","typeName":null,"infoStatusName":null,"dateDay":null,"orgNos":null,"nowTime":null,"countyName":null,"streetName":null,"villageName":null,"roadName":null,"communityName":null,"tranName":null,"sdLineName":null,"cityCode":"3340160","cityName":"国网浙江临安市供电公司","provinceCode":null,"stopTime":"2019-07-18 17:30:22","powerType":"全部","powerOffArea":"110kV龙岗变:龙潭V470线","powerOffReason":"计划检修","powerOffId":"2019070531020178"},{"poweroffId":2019070531020177,"sgpoweroffId":null,"subsName":"","lineName":"10kV龙井V474线","pubTranName":"","scope":"浙江省-杭州市-临安市-龙岗镇-龙井村,地塔村,新建村,浙江浙能华光潭水力发电有限公司,临安市荣升冷库租赁服务部,自来水公司,杭州临安浙西大龙湾风景旅游有限公司一带.","startTime":"2019-07-18 07:40:00","stopDate":"2019-07-18 17:30:29","orgNo":"3340160","typeCode":"计划停电","poweroffArea":"110kV龙岗变:龙井V474线-4741后段","poweroffReason":"计划检修","powerTime":"2019-07-18 17:21:36","powerComm":"已送电","subsNo":"","lineNo":"","tgNo":"","tgName":null,"infoStatus":"1","orgName":"国网浙江临安市供电公司","typeName":null,"infoStatusName":null,"dateDay":null,"orgNos":null,"nowTime":null,"countyName":null,"streetName":null,"villageName":null,"roadName":null,"communityName":null,"tranName":null,"sdLineName":null,"cityCode":"3340160","cityName":"国网浙江临安市供电公司","provinceCode":null,"stopTime":"2019-07-18 17:30:29","powerType":"全部","powerOffArea":"110kV龙岗变:龙井V474线-4741后段","powerOffReason":"计划检修","powerOffId":"2019070531020177"},{"poweroffId":2019070531020176,"sgpoweroffId":null,"subsName":"","lineName":"10kV马啸V262线","pubTranName":"颊口村信用社,","scope":"浙江省-杭州市-临安市-清凉峰镇-颊口村社用社一带.","startTime":"2019-07-17 12:00:00","stopDate":"2019-07-17 17:00:00","orgNo":"3340160","typeCode":"计划停电","poweroffArea":"35kV颊口变:马啸V262线-颊口村信用社后段","poweroffReason":"计划检修","powerTime":"2019-07-17 16:50:12","powerComm":"全部送电","subsNo":"","lineNo":"","tgNo":"","tgName":null,"infoStatus":"1","orgName":"国网浙江临安市供电公司","typeName":null,"infoStatusName":null,"dateDay":null,"orgNos":null,"nowTime":null,"countyName":null,"streetName":null,"villageName":null,"roadName":null,"communityName":null,"tranName":null,"sdLineName":null,"cityCode":"3340160","cityName":"国网浙江临安市供电公司","provinceCode":null,"stopTime":"2019-07-17 17:00:00","powerType":"全部","powerOffArea":"35kV颊口变:马啸V262线-颊口村信用社后段","powerOffReason":"计划检修","powerOffId":"2019070531020176"},{"poweroffId":2019070531020175,"sgpoweroffId":null,"subsName":"","lineName":"10kV湍河V301线","pubTranName":"赤石村比坞,赤石桥头,","scope":"浙江省-杭州市-临安市-河桥镇-七都村赤石一带.","startTime":"2019-07-17 07:30:00","stopDate":"2019-07-17 15:30:00","orgNo":"3340160","typeCode":"计划停电","poweroffArea":"35kV湍口变:湍河V301线首端，3013，3015之间","poweroffReason":"优质工程计划检修","powerTime":"2019-07-17 15:20:58","powerComm":"已送电","subsNo":"","lineNo":"","tgNo":"","tgName":null,"infoStatus":"1","orgName":"国网浙江临安市供电公司","typeName":null,"infoStatusName":null,"dateDay":null,"orgNos":null,"nowTime":null,"countyName":null,"streetName":null,"villageName":null,"roadName":null,"communityName":null,"tranName":null,"sdLineName":null,"cityCode":"3340160","cityName":"国网浙江临安市供电公司","provinceCode":null,"stopTime":"2019-07-17 15:30:00","powerType":"全部","powerOffArea":"35kV湍口变:湍河V301线首端，3013，3015之间","powerOffReason":"优质工程计划检修","powerOffId":"2019070531020175"},{"poweroffId":2019070531020174,"sgpoweroffId":null,"subsName":"","lineName":"10kV河桥V781线","pubTranName":"临安亚华食品有限公司,上卜村里东家,临安市华蓝再生资源有限公司,首益村(一),杭州临安上卜砩石矿,首益村二,","scope":"浙江省-杭州市-临安市-河桥镇-中鑫村,首益村,上卜,杭州临安上卜砩石矿,临安亚华食品有限公司,临安市华蓝再生资源有限公司一带.","startTime":"2019-07-17 07:30:00","stopDate":"2019-07-17 15:30:00","orgNo":"3340160","typeCode":"计划停电","poweroffArea":"35kV湍口变:河桥V781线首端，7813开关，7815开关之间","poweroffReason":"计划检修","powerTime":"2019-07-17 15:20:13","powerComm":"已送电","subsNo":"","lineNo":"","tgNo":"","tgName":null,"infoStatus":"1","orgName":"国网浙江临安市供电公司","typeName":null,"infoStatusName":null,"dateDay":null,"orgNos":null,"nowTime":null,"countyName":null,"streetName":null,"villageName":null,"roadName":null,"communityName":null,"tranName":null,"sdLineName":null,"cityCode":"3340160","cityName":"国网浙江临安市供电公司","provinceCode":null,"stopTime":"2019-07-17 15:30:00","powerType":"全部","powerOffArea":"35kV湍口变:河桥V781线首端，7813开关，7815开关之间","powerOffReason":"计划检修","powerOffId":"2019070531020174"},{"poweroffId":2019070531020172,"sgpoweroffId":null,"subsName":"","lineName":"10kV峡谷V472线","pubTranName":"地塔村.山田,","scope":"浙江省-杭州市-临安市-龙岗镇-龙井村山田一带.","startTime":"2019-07-16 08:00:00","stopDate":"2019-07-16 17:00:00","orgNo":"3340160","typeCode":"计划停电","poweroffArea":"110kV龙岗变:峡谷V472线-地塔村.山田后段","poweroffReason":"计划检修","powerTime":"2019-07-16 16:50:24","powerComm":"已送电","subsNo":"","lineNo":"","tgNo":"","tgName":null,"infoStatus":"1","orgName":"国网浙江临安市供电公司","typeName":null,"infoStatusName":null,"dateDay":null,"orgNos":null,"nowTime":null,"countyName":null,"streetName":null,"villageName":null,"roadName":null,"communityName":null,"tranName":null,"sdLineName":null,"cityCode":"3340160","cityName":"国网浙江临安市供电公司","provinceCode":null,"stopTime":"2019-07-16 17:00:00","powerType":"全部","powerOffArea":"110kV龙岗变:峡谷V472线-地塔村.山田后段","powerOffReason":"计划检修","powerOffId":"2019070531020172"}],"pageModel":{"pageNow":1494,"totalCount":17789,"totalPage":1779,"tableRows":0,"pageCount":10,"beginCount":14930},"isExperi":"1"}