{"message":"","today":"2020-06-16","seleList":[{"poweroffId":2019070531020124,"sgpoweroffId":null,"subsName":"","lineName":"10kV天万G011线","pubTranName":"钱塘12组（浜岸上）1号公变,钱塘12组（浜岸上）3号公变,","scope":"浙江省杭州市余杭区南苑街道：钱塘村12组一带","startTime":"2019-07-16 08:30:00","stopDate":"2019-07-16 17:00:00","orgNo":"3340140","typeCode":"计划停电","poweroffArea":"110kV外乔变:天万G011线钱塘12组分线。","poweroffReason":"2019年杭州余杭南苑地区万常社区等配变台区改造工程：新布钱塘12组7#变400kVA，钱塘12组（浜岸上）1#公变增至400kVA。","powerTime":"2019-07-16 16:58:30","powerComm":"工作结束","subsNo":"","lineNo":"","tgNo":"","tgName":null,"infoStatus":"1","orgName":"国网浙江杭州市余杭区供电有限公司","typeName":null,"infoStatusName":null,"dateDay":null,"orgNos":null,"nowTime":null,"countyName":null,"streetName":null,"villageName":null,"roadName":null,"communityName":null,"tranName":null,"sdLineName":null,"cityCode":"3340140","cityName":"国网浙江杭州市余杭区供电有限公司","provinceCode":null,"stopTime":"2019-07-16 17:00:00","powerType":"全部","powerOffArea":"110kV外乔变:天万G011线钱塘12组分线。","powerOffReason":"2019年杭州余杭南苑地区万常社区等配变台区改造工程：新布钱塘12组7#变400kVA，钱塘12组（浜岸上）1#公变增至400kVA。","powerOffId":"2019070531020124"},{"poweroffId":2019070531020123,"sgpoweroffId":null,"subsName":"","lineName":"10kV龙船G884线","pubTranName":"浙江金三原精密机械有限公司,杭州虎牌电气股份有限公司,浙江金三原精密机械有限公司,","scope":"浙江省-杭州市-余杭区-东湖街道：浙江金三原精密机械有限公司、杭州虎牌电气股份有限公司一带","startTime":"2019-07-16 08:15:00","stopDate":"2019-07-16 13:00:00","orgNo":"3340140","typeCode":"计划停电","poweroffArea":"110kV漳河变:龙船G884线-1#10kV母分开关后段 原计划送电时间为2019-07-16 16:00:00 变更送电时间为 2019-07-16 13：00","poweroffReason":"三原环网站母分联络电缆拆除，三原环网站I段新出电缆割接至超峰G885线","powerTime":"2019-07-16 12:16:23","powerComm":"完成工作。","subsNo":"","lineNo":"","tgNo":"","tgName":null,"infoStatus":"1","orgName":"国网浙江杭州市余杭区供电有限公司","typeName":null,"infoStatusName":null,"dateDay":null,"orgNos":null,"nowTime":null,"countyName":null,"streetName":null,"villageName":null,"roadName":null,"communityName":null,"tranName":null,"sdLineName":null,"cityCode":"3340140","cityName":"国网浙江杭州市余杭区供电有限公司","provinceCode":null,"stopTime":"2019-07-16 13:00:00","powerType":"全部","powerOffArea":"110kV漳河变:龙船G884线-1#10kV母分开关后段 原计划送电时间为2019-07-16 16:00:00 变更送电时间为 2019-07-16 13：00","powerOffReason":"三原环网站母分联络电缆拆除，三原环网站I段新出电缆割接至超峰G885线","powerOffId":"2019070531020123"},{"poweroffId":2019070531020122,"sgpoweroffId":null,"subsName":"","lineName":"10kV三角G062线","pubTranName":"开发区基建变,杭州余杭乔司国际商贸城建设发展有限公司,杭州市余杭区城市管理综合行政执法局,中国石油天然气股份有限公司浙江杭州销售分公司,学稼3组5号公变,","scope":"浙江省杭州市余杭区乔司街道：学稼村3组、三角村开发区块基建工地、三角经济合作社、蔬菜研究所、杭海加油站一带","startTime":"2019-07-15 08:30:00","stopDate":"2019-07-15 20:10:00","orgNo":"3340140","typeCode":"计划停电","poweroffArea":"110kV外乔变:塘东开关站I段塘胜G0623线至胜桑开关站塘胜G0623线。","poweroffReason":"杭州余杭乔司国际商贸城建设发展有限公司临平新城三角孵化园地块线路迁改工程：塘胜G0623线11#杆至31#杆线路移位。","powerTime":"2019-07-15 19:24:06","powerComm":"施工结束","subsNo":"","lineNo":"","tgNo":"","tgName":null,"infoStatus":"1","orgName":"国网浙江杭州市余杭区供电有限公司","typeName":null,"infoStatusName":null,"dateDay":null,"orgNos":null,"nowTime":null,"countyName":null,"streetName":null,"villageName":null,"roadName":null,"communityName":null,"tranName":null,"sdLineName":null,"cityCode":"3340140","cityName":"国网浙江杭州市余杭区供电有限公司","provinceCode":null,"stopTime":"2019-07-15 20:10:00","powerType":"全部","powerOffArea":"110kV外乔变:塘东开关站I段塘胜G0623线至胜桑开关站塘胜G0623线。","powerOffReason":"杭州余杭乔司国际商贸城建设发展有限公司临平新城三角孵化园地块线路迁改工程：塘胜G0623线11#杆至31#杆线路移位。","powerOffId":"2019070531020122"},{"poweroffId":2019070531020121,"sgpoweroffId":null,"subsName":"","lineName":"10kV唐公G968线","pubTranName":"运河镇唐公村后南水渭公变,运河镇唐公村前南水渭公变,","scope":"浙江省杭州市余杭区运河街道：运河镇唐公村前南水渭、南水渭一带","startTime":"2019-07-30 08:10:00","stopDate":"2019-07-30 16:00:00","orgNo":"3340140","typeCode":"计划停电","poweroffArea":"110kV博陆变:唐公G968线-前南水渭后段;唐公G968线-后南水渭后段","poweroffReason":"唐公村王唐寺变160kVA增量至400kVA","powerTime":"2019-07-30 15:53:34","powerComm":"完成工作。","subsNo":"","lineNo":"","tgNo":"","tgName":null,"infoStatus":"1","orgName":"国网浙江杭州市余杭区供电有限公司","typeName":null,"infoStatusName":null,"dateDay":null,"orgNos":null,"nowTime":null,"countyName":null,"streetName":null,"villageName":null,"roadName":null,"communityName":null,"tranName":null,"sdLineName":null,"cityCode":"3340140","cityName":"国网浙江杭州市余杭区供电有限公司","provinceCode":null,"stopTime":"2019-07-30 16:00:00","powerType":"全部","powerOffArea":"110kV博陆变:唐公G968线-前南水渭后段;唐公G968线-后南水渭后段","powerOffReason":"唐公村王唐寺变160kVA增量至400kVA","powerOffId":"2019070531020121"},{"poweroffId":2019070531020100,"sgpoweroffId":null,"subsName":"","lineName":"10kV溪口R181线","pubTranName":"临岐右源村坎头公变,临岐右源村凤村公变,临岐右源村大坑坞公变,临岐右源村杨塘公变,临岐右源村小川公变,","scope":"浙江省-杭州市-淳安县-临岐镇-右源行政村(大坑坞自然村,杨塘自然村,风村自然村,小川自然村,柳塘自然村,杨塘村,坎头自然村)","startTime":"2019-07-18 07:30:00","stopDate":"2019-07-18 11:40:00","orgNo":"3340190","typeCode":"计划停电","poweroffArea":"35kV临岐变:溪口R181线-杨塘支线27号杆跌落式熔断器后段","poweroffReason":"溪口R181线杨塘支线27号杆熔丝具更换为三摇智能开关（带电作业班配合）","powerTime":"2019-07-18 10:40:41","powerComm":"现场工作已完成","subsNo":"","lineNo":"","tgNo":"","tgName":null,"infoStatus":"1","orgName":"国网浙江淳安县供电有限公司","typeName":null,"infoStatusName":null,"dateDay":null,"orgNos":null,"nowTime":null,"countyName":null,"streetName":null,"villageName":null,"roadName":null,"communityName":null,"tranName":null,"sdLineName":null,"cityCode":"3340190","cityName":"国网浙江淳安县供电有限公司","provinceCode":null,"stopTime":"2019-07-18 11:40:00","powerType":"全部","powerOffArea":"35kV临岐变:溪口R181线-杨塘支线27号杆跌落式熔断器后段","powerOffReason":"溪口R181线杨塘支线27号杆熔丝具更换为三摇智能开关（带电作业班配合）","powerOffId":"2019070531020100"},{"poweroffId":2019070531020098,"sgpoweroffId":null,"subsName":"","lineName":"10kV文西R433线","pubTranName":"浪洞村小木湾配变,浪洞村内龙潭配变,浪洞村野湾配变,","scope":"浙江省-杭州市-淳安县-文昌镇-浪洞行政村(内龙潭自然村,浪洞自然村,野湾自然村)","startTime":"2019-07-17 07:30:00","stopDate":"2019-07-17 11:40:00","orgNo":"3340190","typeCode":"计划停电","poweroffArea":"110kV文昌变:文西R433线-后塔坞支线跌落式熔断器后段","poweroffReason":"文西R433线后塔坞支线0号杆熔丝具更换为三摇智能开关（带电作业班配合）","powerTime":"2019-07-17 10:51:04","powerComm":"现场工作已完成","subsNo":"","lineNo":"","tgNo":"","tgName":null,"infoStatus":"1","orgName":"国网浙江淳安县供电有限公司","typeName":null,"infoStatusName":null,"dateDay":null,"orgNos":null,"nowTime":null,"countyName":null,"streetName":null,"villageName":null,"roadName":null,"communityName":null,"tranName":null,"sdLineName":null,"cityCode":"3340190","cityName":"国网浙江淳安县供电有限公司","provinceCode":null,"stopTime":"2019-07-17 11:40:00","powerType":"全部","powerOffArea":"110kV文昌变:文西R433线-后塔坞支线跌落式熔断器后段","powerOffReason":"文西R433线后塔坞支线0号杆熔丝具更换为三摇智能开关（带电作业班配合）","powerOffId":"2019070531020098"},{"poweroffId":2019070531020096,"sgpoweroffId":null,"subsName":"","lineName":"10kV阔滩V231线","pubTranName":"10kV上沃村[万家坞]公变,10kV上沃村[新桥头]公变,10kV上沃村[沈家]公变,10kV上沃村[后坑]公变,","scope":"浙江省-杭州市-临安区-潜川镇万家坞、新桥头、沈家、后坑一带","startTime":"2019-07-19 07:00:00","stopDate":"2019-07-19 17:50:00","orgNo":"3340160","typeCode":"计划停电","poweroffArea":"阔滩V231线136#杆上沃村（后坑）分线令克","poweroffReason":"杭州临安於潜10千伏城后V512线等分支线改造02项：1、阔滩V231线136#杆上沃村（后坑）分线割接至阔滩V231线135#杆，阔滩V231线135#杆至上沃村（后坑）分线13#杆调杆，调导线。","powerTime":"2019-07-19 17:40:09","powerComm":"已送电","subsNo":"","lineNo":"","tgNo":"","tgName":null,"infoStatus":"1","orgName":"国网浙江临安市供电公司","typeName":null,"infoStatusName":null,"dateDay":null,"orgNos":null,"nowTime":null,"countyName":null,"streetName":null,"villageName":null,"roadName":null,"communityName":null,"tranName":null,"sdLineName":null,"cityCode":"3340160","cityName":"国网浙江临安市供电公司","provinceCode":null,"stopTime":"2019-07-19 17:50:00","powerType":"全部","powerOffArea":"阔滩V231线136#杆上沃村（后坑）分线令克","powerOffReason":"杭州临安於潜10千伏城后V512线等分支线改造02项：1、阔滩V231线136#杆上沃村（后坑）分线割接至阔滩V231线135#杆，阔滩V231线135#杆至上沃村（后坑）分线13#杆调杆，调导线。","powerOffId":"2019070531020096"},{"poweroffId":2019070531020095,"sgpoweroffId":null,"subsName":"","lineName":"10kV鹤里V256线","pubTranName":"10kV上太阳村[上王家]公变,","scope":"浙江省-杭州市-临安区-太阳镇上王家一带","startTime":"2019-07-16 08:00:00","stopDate":"2019-07-16 10:50:00","orgNo":"3340160","typeCode":"计划停电","poweroffArea":"鹤里V256线上王家分线7#杆10KV上太阳村（上王家）公变令克","poweroffReason":"鹤里V256线上王家分线7#杆三相不平衡设备安装","powerTime":"2019-07-16 10:40:16","powerComm":"全部送电","subsNo":"","lineNo":"","tgNo":"","tgName":null,"infoStatus":"1","orgName":"国网浙江临安市供电公司","typeName":null,"infoStatusName":null,"dateDay":null,"orgNos":null,"nowTime":null,"countyName":null,"streetName":null,"villageName":null,"roadName":null,"communityName":null,"tranName":null,"sdLineName":null,"cityCode":"3340160","cityName":"国网浙江临安市供电公司","provinceCode":null,"stopTime":"2019-07-16 10:50:00","powerType":"全部","powerOffArea":"鹤里V256线上王家分线7#杆10KV上太阳村（上王家）公变令克","powerOffReason":"鹤里V256线上王家分线7#杆三相不平衡设备安装","powerOffId":"2019070531020095"},{"poweroffId":2019070531020094,"sgpoweroffId":null,"subsName":"","lineName":"10kV紫水V505线","pubTranName":"10kV堰口村[堰口村中]公变,","scope":"浙江省-杭州市-临安区-於潜镇堰口村中一带","startTime":"2019-07-15 07:20:00","stopDate":"2019-07-15 17:00:00","orgNo":"3340160","typeCode":"计划停电","poweroffArea":"新梅V130线邮电支线2#杆堰口村中分支线令克","poweroffReason":"堰口村（堰口村中）公变移位02项：新梅V130线邮电支线2#杆堰口村中分支线0#-3#杆移位，搭接至新梅V130线双坑分线89#杆，10kV堰口村（堰口村中）公变移位，改为杆上式。","powerTime":"2019-07-15 16:50:10","powerComm":"已送电","subsNo":"","lineNo":"","tgNo":"","tgName":null,"infoStatus":"1","orgName":"国网浙江临安市供电公司","typeName":null,"infoStatusName":null,"dateDay":null,"orgNos":null,"nowTime":null,"countyName":null,"streetName":null,"villageName":null,"roadName":null,"communityName":null,"tranName":null,"sdLineName":null,"cityCode":"3340160","cityName":"国网浙江临安市供电公司","provinceCode":null,"stopTime":"2019-07-15 17:00:00","powerType":"全部","powerOffArea":"新梅V130线邮电支线2#杆堰口村中分支线令克","powerOffReason":"堰口村（堰口村中）公变移位02项：新梅V130线邮电支线2#杆堰口村中分支线0#-3#杆移位，搭接至新梅V130线双坑分线89#杆，10kV堰口村（堰口村中）公变移位，改为杆上式。","powerOffId":"2019070531020094"},{"poweroffId":2019070531020092,"sgpoweroffId":null,"subsName":"","lineName":"10kV阮家V127线","pubTranName":"临安市双子通讯材料有限公司1#,","scope":"浙江省-杭州市-临安区-於潜镇临安市双子通讯材料有限公司一带","startTime":"2019-07-15 08:00:00","stopDate":"2019-07-15 12:00:00","orgNo":"3340160","typeCode":"计划停电","poweroffArea":"阮家V127线双子分线12#杆临安市双子通讯材料有限公司配变令克","poweroffReason":"阮家V127线双子分线12#杆临安市双子通讯材料有限公司配变减容至250KVA","powerTime":"2019-07-15 11:48:35","powerComm":"已送电","subsNo":"","lineNo":"","tgNo":"","tgName":null,"infoStatus":"1","orgName":"国网浙江临安市供电公司","typeName":null,"infoStatusName":null,"dateDay":null,"orgNos":null,"nowTime":null,"countyName":null,"streetName":null,"villageName":null,"roadName":null,"communityName":null,"tranName":null,"sdLineName":null,"cityCode":"3340160","cityName":"国网浙江临安市供电公司","provinceCode":null,"stopTime":"2019-07-15 12:00:00","powerType":"全部","powerOffArea":"阮家V127线双子分线12#杆临安市双子通讯材料有限公司配变令克","powerOffReason":"阮家V127线双子分线12#杆临安市双子通讯材料有限公司配变减容至250KVA","powerOffId":"2019070531020092"}],"pageModel":{"pageNow":1496,"totalCount":17789,"totalPage":1779,"tableRows":0,"pageCount":10,"beginCount":14950},"isExperi":"1"}