{"message":"","today":"2020-06-15","seleList":[{"poweroffId":2020051631020089,"sgpoweroffId":null,"subsName":"","lineName":"10kV沙大Y203线","pubTranName":"安居公变2#,","scope":"浙江省-杭州市-建德市-新安江街道-明珠社区-田源路","startTime":"2020-05-16 08:10:00","stopDate":"2020-05-16 10:30:00","orgNo":"3340180","typeCode":"电网故障停限电","poweroffArea":"110kV白沙变:沙大Y203线-安居公变2#后段","poweroffReason":"(低压停电信息)低压开关跳闸","powerTime":"2020-05-16 09:49:01","powerComm":"已送电","subsNo":"","lineNo":"","tgNo":"","tgName":null,"infoStatus":"1","orgName":"国网浙江建德市供电有限公司","typeName":null,"infoStatusName":null,"dateDay":null,"orgNos":null,"nowTime":null,"countyName":null,"streetName":null,"villageName":null,"roadName":null,"communityName":null,"tranName":null,"sdLineName":null,"cityCode":"3340180","cityName":"国网浙江建德市供电有限公司","provinceCode":null,"stopTime":"2020-05-16 10:30:00","powerType":"全部","powerOffArea":"110kV白沙变:沙大Y203线-安居公变2#后段","powerOffReason":"(低压停电信息)低压开关跳闸","powerOffId":"2020051631020089"},{"poweroffId":2020051631020086,"sgpoweroffId":null,"subsName":"","lineName":"10kV杨家Y218线","pubTranName":"沙墩头村排上台区,沙墩头村西坑源台区,沙墩头村白银珠台区,","scope":"浙江省-杭州市-建德市-李家镇-沙墩头行政村 白银珠自然村,西坑源自然村,排上自然村","startTime":"2020-05-16 08:00:00","stopDate":"2020-05-16 16:30:00","orgNo":"3340180","typeCode":"电网故障停限电","poweroffArea":"35kV李家变:杨家Y218线西坑源支线7#杆开关(智能)后段","poweroffReason":"高压开关跳闸 原停电结束时间为2020-05-16 17:30:00,为减少客户停电时间,加快工作进度,提前送电,现变更停电结束时间为2020-05-16 16:30:00","powerTime":"2020-05-16 15:44:39","powerComm":"已送电","subsNo":"","lineNo":"","tgNo":"","tgName":null,"infoStatus":"1","orgName":"国网浙江建德市供电有限公司","typeName":null,"infoStatusName":null,"dateDay":null,"orgNos":null,"nowTime":null,"countyName":null,"streetName":null,"villageName":null,"roadName":null,"communityName":null,"tranName":null,"sdLineName":null,"cityCode":"3340180","cityName":"国网浙江建德市供电有限公司","provinceCode":null,"stopTime":"2020-05-16 16:30:00","powerType":"全部","powerOffArea":"35kV李家变:杨家Y218线西坑源支线7#杆开关(智能)后段","powerOffReason":"高压开关跳闸 原停电结束时间为2020-05-16 17:30:00,为减少客户停电时间,加快工作进度,提前送电,现变更停电结束时间为2020-05-16 16:30:00","powerOffId":"2020051631020086"},{"poweroffId":2020051631020064,"sgpoweroffId":null,"subsName":"","lineName":"10kV凤凰Y323线","pubTranName":"凤凰村周家坪台区,","scope":"浙江省-杭州市-建德市-三都镇(凤凰行政村-周家坪自然村,东方行政村-汤家坞自然村)","startTime":"2020-05-16 07:00:00","stopDate":"2020-05-16 08:10:00","orgNo":"3340180","typeCode":"电网故障停限电","poweroffArea":"35kV三都变:凤凰Y323线凤凰村周家坪台区配变","poweroffReason":"(低压停电信息)低压开关跳闸 原停电结束时间为2020-05-16 09:30:00,为减少客户停电时间,加快工作进度,提前送电,现变更停电结束时间为2020-05-16 08:10:00","powerTime":"2020-05-16 07:34:33","powerComm":"已送电","subsNo":"","lineNo":"","tgNo":"","tgName":null,"infoStatus":"1","orgName":"国网浙江建德市供电有限公司","typeName":null,"infoStatusName":null,"dateDay":null,"orgNos":null,"nowTime":null,"countyName":null,"streetName":null,"villageName":null,"roadName":null,"communityName":null,"tranName":null,"sdLineName":null,"cityCode":"3340180","cityName":"国网浙江建德市供电有限公司","provinceCode":null,"stopTime":"2020-05-16 08:10:00","powerType":"全部","powerOffArea":"35kV三都变:凤凰Y323线凤凰村周家坪台区配变","powerOffReason":"(低压停电信息)低压开关跳闸 原停电结束时间为2020-05-16 09:30:00,为减少客户停电时间,加快工作进度,提前送电,现变更停电结束时间为2020-05-16 08:10:00","powerOffId":"2020051631020064"},{"poweroffId":2020051631020019,"sgpoweroffId":null,"subsName":"","lineName":"10kV金西T263线","pubTranName":"江头3号公变,","scope":"浙江省-杭州市-桐庐县-城南街道-春江村江头村","startTime":"2020-05-16 01:26:19","stopDate":"2020-05-16 07:50:19","orgNo":"3340150","typeCode":"电网故障停限电","poweroffArea":"35kV三合变:金西T263线-江头3号公变后段","poweroffReason":"(低压停电信息)低压开关跳闸","powerTime":"2020-05-16 07:30:46","powerComm":"已送电","subsNo":"","lineNo":"","tgNo":"","tgName":null,"infoStatus":"1","orgName":"国网浙江桐庐县供电公司","typeName":null,"infoStatusName":null,"dateDay":null,"orgNos":null,"nowTime":null,"countyName":null,"streetName":null,"villageName":null,"roadName":null,"communityName":null,"tranName":null,"sdLineName":null,"cityCode":"3340150","cityName":"国网浙江桐庐县供电公司","provinceCode":null,"stopTime":"2020-05-16 07:50:19","powerType":"全部","powerOffArea":"35kV三合变:金西T263线-江头3号公变后段","powerOffReason":"(低压停电信息)低压开关跳闸","powerOffId":"2020051631020019"},{"poweroffId":2020051631020015,"sgpoweroffId":null,"subsName":"","lineName":"10kV江村Y229线","pubTranName":"白沙社区水竹坞台区,","scope":"浙江省-杭州市-建德市-新安江街道-白沙社区(水竹坞自然村,林村自然村)","startTime":"2020-05-16 01:00:00","stopDate":"2020-05-16 03:10:00","orgNo":"3340180","typeCode":"电网故障停限电","poweroffArea":"110kV白沙变:江村Y229线白沙社区水竹坞台区配变","poweroffReason":"(低压停电信息)低压开关跳闸 原停电结束时间为2020-05-16 08:00:00,为减少客户停电时间,加快工作进度,提前送电,现变更停电结束时间为2020-05-16 03:10:00","powerTime":"2020-05-16 02:37:09","powerComm":"已送电","subsNo":"","lineNo":"","tgNo":"","tgName":null,"infoStatus":"1","orgName":"国网浙江建德市供电有限公司","typeName":null,"infoStatusName":null,"dateDay":null,"orgNos":null,"nowTime":null,"countyName":null,"streetName":null,"villageName":null,"roadName":null,"communityName":null,"tranName":null,"sdLineName":null,"cityCode":"3340180","cityName":"国网浙江建德市供电有限公司","provinceCode":null,"stopTime":"2020-05-16 03:10:00","powerType":"全部","powerOffArea":"110kV白沙变:江村Y229线白沙社区水竹坞台区配变","powerOffReason":"(低压停电信息)低压开关跳闸 原停电结束时间为2020-05-16 08:00:00,为减少客户停电时间,加快工作进度,提前送电,现变更停电结束时间为2020-05-16 03:10:00","powerOffId":"2020051631020015"},{"poweroffId":2020051631020002,"sgpoweroffId":null,"subsName":"","lineName":"10kV金西T263线","pubTranName":"江头3号公变,","scope":"浙江省-杭州市-桐庐县-城南街道-春江村江头村","startTime":"2020-05-16 00:03:27","stopDate":"2020-05-16 01:30:27","orgNo":"3340150","typeCode":"电网故障停限电","poweroffArea":"35kV三合变:金西T263线-江头3号公变后段","poweroffReason":"(低压停电信息)低压开关跳闸","powerTime":"2020-05-16 01:24:53","powerComm":"已送电","subsNo":"","lineNo":"","tgNo":"","tgName":null,"infoStatus":"1","orgName":"国网浙江桐庐县供电公司","typeName":null,"infoStatusName":null,"dateDay":null,"orgNos":null,"nowTime":null,"countyName":null,"streetName":null,"villageName":null,"roadName":null,"communityName":null,"tranName":null,"sdLineName":null,"cityCode":"3340150","cityName":"国网浙江桐庐县供电公司","provinceCode":null,"stopTime":"2020-05-16 01:30:27","powerType":"全部","powerOffArea":"35kV三合变:金西T263线-江头3号公变后段","powerOffReason":"(低压停电信息)低压开关跳闸","powerOffId":"2020051631020002"},{"poweroffId":2020051531021473,"sgpoweroffId":null,"subsName":"","lineName":"10kV金西T263线","pubTranName":"江头3号公变,","scope":"浙江省-杭州市-桐庐县-城南街道-春江村江头村","startTime":"2020-05-15 23:14:00","stopDate":"2020-05-15 23:59:00","orgNo":"3340150","typeCode":"电网故障停限电","poweroffArea":"35kV三合变:金西T263线-江头3号公变后段","poweroffReason":"(低压停电信息)低压开关跳闸","powerTime":"2020-05-15 23:49:17","powerComm":"已送电","subsNo":"","lineNo":"","tgNo":"","tgName":null,"infoStatus":"1","orgName":"国网浙江桐庐县供电公司","typeName":null,"infoStatusName":null,"dateDay":null,"orgNos":null,"nowTime":null,"countyName":null,"streetName":null,"villageName":null,"roadName":null,"communityName":null,"tranName":null,"sdLineName":null,"cityCode":"3340150","cityName":"国网浙江桐庐县供电公司","provinceCode":null,"stopTime":"2020-05-15 23:59:00","powerType":"全部","powerOffArea":"35kV三合变:金西T263线-江头3号公变后段","powerOffReason":"(低压停电信息)低压开关跳闸","powerOffId":"2020051531021473"},{"poweroffId":2020051531021433,"sgpoweroffId":null,"subsName":"","lineName":"10kV方桥G907线","pubTranName":"永东4组8号公变,方桥7组6号公变,永东3组6号公变,永东3组3号公变,方桥7组3号公变,","scope":"浙江省-杭州市-余杭区-乔司街道-方桥行政村-方桥自然村,乔司街道-永和行政村(永东自然村,永和自然村)","startTime":"2020-05-15 21:38:00","stopDate":"2020-05-15 22:38:00","orgNo":"3340140","typeCode":"电网故障停限电","poweroffArea":"110kV庙港变:方桥G907线首端，方桥G9071开关，方桥G9073开关之间","poweroffReason":"高压开关跳闸 原停电结束时间为2020-05-15 23:38:00,为减少客户停电时间,加快工作进度,提前送电,现变更停电结束时间为2020-05-15 22:38:00","powerTime":"2020-05-15 22:21:00","powerComm":"已送电","subsNo":"","lineNo":"","tgNo":"","tgName":null,"infoStatus":"1","orgName":"国网浙江杭州市余杭区供电有限公司","typeName":null,"infoStatusName":null,"dateDay":null,"orgNos":null,"nowTime":null,"countyName":null,"streetName":null,"villageName":null,"roadName":null,"communityName":null,"tranName":null,"sdLineName":null,"cityCode":"3340140","cityName":"国网浙江杭州市余杭区供电有限公司","provinceCode":null,"stopTime":"2020-05-15 22:38:00","powerType":"全部","powerOffArea":"110kV庙港变:方桥G907线首端，方桥G9071开关，方桥G9073开关之间","powerOffReason":"高压开关跳闸 原停电结束时间为2020-05-15 23:38:00,为减少客户停电时间,加快工作进度,提前送电,现变更停电结束时间为2020-05-15 22:38:00","powerOffId":"2020051531021433"},{"poweroffId":2020051531021420,"sgpoweroffId":null,"subsName":"","lineName":"10kV金西T263线","pubTranName":"江头3号公变,","scope":"浙江省-杭州市-桐庐县-城南街道-城南街道春江村江头村","startTime":"2020-05-15 21:25:21","stopDate":"2020-05-15 23:25:21","orgNo":"3340150","typeCode":"电网故障停限电","poweroffArea":"35kV三合变:金西T263线-江头3号公变后段","poweroffReason":"(低压停电信息)低压开关跳闸","powerTime":"2020-05-15 23:11:03","powerComm":"已送电","subsNo":"","lineNo":"","tgNo":"","tgName":null,"infoStatus":"1","orgName":"国网浙江桐庐县供电公司","typeName":null,"infoStatusName":null,"dateDay":null,"orgNos":null,"nowTime":null,"countyName":null,"streetName":null,"villageName":null,"roadName":null,"communityName":null,"tranName":null,"sdLineName":null,"cityCode":"3340150","cityName":"国网浙江桐庐县供电公司","provinceCode":null,"stopTime":"2020-05-15 23:25:21","powerType":"全部","powerOffArea":"35kV三合变:金西T263线-江头3号公变后段","powerOffReason":"(低压停电信息)低压开关跳闸","powerOffId":"2020051531021420"},{"poweroffId":2020051531021406,"sgpoweroffId":null,"subsName":"","lineName":"10kV下城T272线","pubTranName":"桐庐电力开发有限公司,","scope":"浙江省-杭州市-桐庐县-城南街道-金中行政村-桐庐电力开发有限公司","startTime":"2020-05-28 07:30:00","stopDate":"2020-05-28 12:30:00","orgNo":"3340150","typeCode":"计划停电","poweroffArea":"35kV三合变:下城T272线-奋飞F0483后段","poweroffReason":"电力线路入地","powerTime":"2020-05-28 12:12:39","powerComm":"已送电","subsNo":"","lineNo":"","tgNo":"","tgName":null,"infoStatus":"1","orgName":"国网浙江桐庐县供电公司","typeName":null,"infoStatusName":null,"dateDay":null,"orgNos":null,"nowTime":null,"countyName":null,"streetName":null,"villageName":null,"roadName":null,"communityName":null,"tranName":null,"sdLineName":null,"cityCode":"3340150","cityName":"国网浙江桐庐县供电公司","provinceCode":null,"stopTime":"2020-05-28 12:30:00","powerType":"全部","powerOffArea":"35kV三合变:下城T272线-奋飞F0483后段","powerOffReason":"电力线路入地","powerOffId":"2020051531021406"}],"pageModel":{"pageNow":151,"totalCount":17787,"totalPage":1779,"tableRows":0,"pageCount":10,"beginCount":1500},"isExperi":"1"}