{"message":"","today":"2020-06-16","seleList":[{"poweroffId":2019070531010294,"sgpoweroffId":null,"subsName":"","lineName":"10kV童家Y178线","pubTranName":"童家村东山脚台区,","scope":"浙江省-杭州市-建德市-寿昌镇 童家行政村-东山脚自然村、新村自然村一带用户。","startTime":"2019-07-05 17:42:00","stopDate":"2019-07-05 19:30:00","orgNo":"3340180","typeCode":"电网故障停限电","poweroffArea":"110kV航头变:童家Y178线-童家村东山脚台区后段","poweroffReason":"童家Y178线-童家村东山脚台区 低压配电设备故障","powerTime":"2019-07-05 19:06:00","powerComm":"已送电","subsNo":"","lineNo":"","tgNo":"","tgName":null,"infoStatus":"1","orgName":"国网浙江建德市供电有限公司","typeName":null,"infoStatusName":null,"dateDay":null,"orgNos":null,"nowTime":null,"countyName":null,"streetName":null,"villageName":null,"roadName":null,"communityName":null,"tranName":null,"sdLineName":null,"cityCode":"3340180","cityName":"国网浙江建德市供电有限公司","provinceCode":null,"stopTime":"2019-07-05 19:30:00","powerType":"全部","powerOffArea":"110kV航头变:童家Y178线-童家村东山脚台区后段","powerOffReason":"童家Y178线-童家村东山脚台区 低压配电设备故障","powerOffId":"2019070531010294"},{"poweroffId":2019070531010288,"sgpoweroffId":null,"subsName":"","lineName":"10kV昌东D701线","pubTranName":"上旺村丁堰2号窑山上公变,","scope":"浙江省杭州市富阳区新登镇上旺行政村窑山上自然村一带","startTime":"2019-07-17 08:30:00","stopDate":"2019-07-17 16:30:00","orgNo":"3340170","typeCode":"计划停电","poweroffArea":"110kV松溪变:昌东D701线-上旺村丁堰2号窑山上公变后段","poweroffReason":"（低压停电信息）新登2019年10kV唐昌村唐昌4#小岭头公变等台区增容布点工程：上旺村丁堰新增公变低压表计、互感器安装、新出低压电缆低压割接等工作","powerTime":"2019-07-17 16:16:13","powerComm":"已送电","subsNo":"","lineNo":"","tgNo":"","tgName":null,"infoStatus":"1","orgName":"国网浙江杭州市富阳区供电公司","typeName":null,"infoStatusName":null,"dateDay":null,"orgNos":null,"nowTime":null,"countyName":null,"streetName":null,"villageName":null,"roadName":null,"communityName":null,"tranName":null,"sdLineName":null,"cityCode":"3340170","cityName":"国网浙江杭州市富阳区供电公司","provinceCode":null,"stopTime":"2019-07-17 16:30:00","powerType":"全部","powerOffArea":"110kV松溪变:昌东D701线-上旺村丁堰2号窑山上公变后段","powerOffReason":"（低压停电信息）新登2019年10kV唐昌村唐昌4#小岭头公变等台区增容布点工程：上旺村丁堰新增公变低压表计、互感器安装、新出低压电缆低压割接等工作","powerOffId":"2019070531010288"},{"poweroffId":2019070531010270,"sgpoweroffId":null,"subsName":"","lineName":"10kV宏福D214线","pubTranName":"大山脚村4#五六队公变,","scope":"浙江省-杭州市-富阳区-银湖街道新常村大山脚村一带","startTime":"2019-07-17 06:40:00","stopDate":"2019-07-17 12:50:00","orgNo":"3340170","typeCode":"计划停电","poweroffArea":"110kV银湖变:宏福D214线-大山脚村4#五六队公变低压开关后段","poweroffReason":"（低压停电信息）迎东2019年千家村1#村中公变等低压台区改造工程拆旧，架设BS-35*4*2档，更换落户线27处，搭接等工作","powerTime":"2019-07-17 12:36:06","powerComm":"已送电","subsNo":"","lineNo":"","tgNo":"","tgName":null,"infoStatus":"1","orgName":"国网浙江杭州市富阳区供电公司","typeName":null,"infoStatusName":null,"dateDay":null,"orgNos":null,"nowTime":null,"countyName":null,"streetName":null,"villageName":null,"roadName":null,"communityName":null,"tranName":null,"sdLineName":null,"cityCode":"3340170","cityName":"国网浙江杭州市富阳区供电公司","provinceCode":null,"stopTime":"2019-07-17 12:50:00","powerType":"全部","powerOffArea":"110kV银湖变:宏福D214线-大山脚村4#五六队公变低压开关后段","powerOffReason":"（低压停电信息）迎东2019年千家村1#村中公变等低压台区改造工程拆旧，架设BS-35*4*2档，更换落户线27处，搭接等工作","powerOffId":"2019070531010270"},{"poweroffId":2019070531010267,"sgpoweroffId":null,"subsName":"","lineName":"10kV宏福D214线","pubTranName":"大山脚村4#五六队公变,","scope":"浙江省-杭州市-富阳区-银湖街道-新常村大山脚村一带","startTime":"2019-07-19 06:40:00","stopDate":"2019-07-19 12:50:00","orgNo":"3340170","typeCode":"计划停电","poweroffArea":"110kV银湖变:宏福D214线-大山脚村4#五六队公变低压开关后段","poweroffReason":"（低压停电信息）迎东2019年千家村1#村中公变等低压台区改造工程拆旧，架设BS-35*4*2档，更换落户线27处，搭接等工作","powerTime":"2019-07-19 12:35:10","powerComm":"已送电","subsNo":"","lineNo":"","tgNo":"","tgName":null,"infoStatus":"1","orgName":"国网浙江杭州市富阳区供电公司","typeName":null,"infoStatusName":null,"dateDay":null,"orgNos":null,"nowTime":null,"countyName":null,"streetName":null,"villageName":null,"roadName":null,"communityName":null,"tranName":null,"sdLineName":null,"cityCode":"3340170","cityName":"国网浙江杭州市富阳区供电公司","provinceCode":null,"stopTime":"2019-07-19 12:50:00","powerType":"全部","powerOffArea":"110kV银湖变:宏福D214线-大山脚村4#五六队公变低压开关后段","powerOffReason":"（低压停电信息）迎东2019年千家村1#村中公变等低压台区改造工程拆旧，架设BS-35*4*2档，更换落户线27处，搭接等工作","powerOffId":"2019070531010267"},{"poweroffId":2019070531010260,"sgpoweroffId":null,"subsName":"","lineName":"10kV城南D135线","pubTranName":"新街2#保线站公变,","scope":"浙江省杭州市富阳区新登镇新街保险站小区一带","startTime":"2019-07-18 08:30:00","stopDate":"2019-07-18 16:30:00","orgNo":"3340170","typeCode":"计划停电","poweroffArea":"110kV新登变:0.4kV新街2#保险站公变","poweroffReason":"（低压停电信息）新街新增杆上变低压电缆敷设、改接、表计安装等工作","powerTime":"2019-07-18 16:15:57","powerComm":"已送电","subsNo":"","lineNo":"","tgNo":"","tgName":null,"infoStatus":"1","orgName":"国网浙江杭州市富阳区供电公司","typeName":null,"infoStatusName":null,"dateDay":null,"orgNos":null,"nowTime":null,"countyName":null,"streetName":null,"villageName":null,"roadName":null,"communityName":null,"tranName":null,"sdLineName":null,"cityCode":"3340170","cityName":"国网浙江杭州市富阳区供电公司","provinceCode":null,"stopTime":"2019-07-18 16:30:00","powerType":"全部","powerOffArea":"110kV新登变:0.4kV新街2#保险站公变","powerOffReason":"（低压停电信息）新街新增杆上变低压电缆敷设、改接、表计安装等工作","powerOffId":"2019070531010260"},{"poweroffId":2019070531010256,"sgpoweroffId":null,"subsName":"","lineName":"10kV贤德D333线","pubTranName":"洞桥村3#木家坞公变,","scope":"浙江省-杭州市-富阳区-洞桥镇洞桥行政村木家坞自然村一带","startTime":"2019-07-15 06:00:00","stopDate":"2019-07-15 12:30:00","orgNo":"3340170","typeCode":"计划停电","poweroffArea":"110kV万市变贤德D333线洞桥村3号木家坞公变后段","poweroffReason":"（低压停电信息）碧西坞02线、木家坞04线更换照明表箱72只、动力表箱9只等工作。 （旁站监理）","powerTime":"2019-07-15 12:16:42","powerComm":"已送电","subsNo":"","lineNo":"","tgNo":"","tgName":null,"infoStatus":"1","orgName":"国网浙江杭州市富阳区供电公司","typeName":null,"infoStatusName":null,"dateDay":null,"orgNos":null,"nowTime":null,"countyName":null,"streetName":null,"villageName":null,"roadName":null,"communityName":null,"tranName":null,"sdLineName":null,"cityCode":"3340170","cityName":"国网浙江杭州市富阳区供电公司","provinceCode":null,"stopTime":"2019-07-15 12:30:00","powerType":"全部","powerOffArea":"110kV万市变贤德D333线洞桥村3号木家坞公变后段","powerOffReason":"（低压停电信息）碧西坞02线、木家坞04线更换照明表箱72只、动力表箱9只等工作。 （旁站监理）","powerOffId":"2019070531010256"},{"poweroffId":2019070531010254,"sgpoweroffId":null,"subsName":"","lineName":"10kV贤德D333线","pubTranName":"贤德村12#罗家坞公变,","scope":"浙江省-杭州市-富阳区-洞桥镇贤德行政村罗家坞自然村一带","startTime":"2019-07-15 06:30:00","stopDate":"2019-07-15 13:30:00","orgNo":"3340170","typeCode":"计划停电","poweroffArea":"110kV万市变贤德D333线贤德村12号罗家坞公变后段","poweroffReason":"（低压停电信息）农用线拆除JKLYJ-35*4*10档、LJ-35*4*4档、BS-JKLYJ-2*25*16档、横担15付、拉线3付、架设JKLYJ-70*4*14档、BS-JKLYJ-4*35*14档、BS-JKLYJ-2*25*2档、安装横担15付、拉线3付、人工拔旧杆14支（8米杆）","powerTime":"2019-07-15 13:15:54","powerComm":"已送电","subsNo":"","lineNo":"","tgNo":"","tgName":null,"infoStatus":"1","orgName":"国网浙江杭州市富阳区供电公司","typeName":null,"infoStatusName":null,"dateDay":null,"orgNos":null,"nowTime":null,"countyName":null,"streetName":null,"villageName":null,"roadName":null,"communityName":null,"tranName":null,"sdLineName":null,"cityCode":"3340170","cityName":"国网浙江杭州市富阳区供电公司","provinceCode":null,"stopTime":"2019-07-15 13:30:00","powerType":"全部","powerOffArea":"110kV万市变贤德D333线贤德村12号罗家坞公变后段","powerOffReason":"（低压停电信息）农用线拆除JKLYJ-35*4*10档、LJ-35*4*4档、BS-JKLYJ-2*25*16档、横担15付、拉线3付、架设JKLYJ-70*4*14档、BS-JKLYJ-4*35*14档、BS-JKLYJ-2*25*2档、安装横担15付、拉线3付、人工拔旧杆14支（8米杆）","powerOffId":"2019070531010254"},{"poweroffId":2019070531010253,"sgpoweroffId":null,"subsName":"","lineName":"10kV上林D335线","pubTranName":"洞桥村4#落马变公变,","scope":"浙江省-杭州市-富阳区-洞桥镇洞桥行政村落马自然村一带","startTime":"2019-07-16 06:00:00","stopDate":"2019-07-16 12:30:00","orgNo":"3340170","typeCode":"计划停电","poweroffArea":"110kV万市变上林D335线洞桥村4号落马变公变后段","poweroffReason":"（低压停电信息）卸坞里02线11#杆至11-5#杆更换照明表箱18只、动力表箱6只等工作。 （旁站监理）","powerTime":"2019-07-16 12:15:56","powerComm":"已送电","subsNo":"","lineNo":"","tgNo":"","tgName":null,"infoStatus":"1","orgName":"国网浙江杭州市富阳区供电公司","typeName":null,"infoStatusName":null,"dateDay":null,"orgNos":null,"nowTime":null,"countyName":null,"streetName":null,"villageName":null,"roadName":null,"communityName":null,"tranName":null,"sdLineName":null,"cityCode":"3340170","cityName":"国网浙江杭州市富阳区供电公司","provinceCode":null,"stopTime":"2019-07-16 12:30:00","powerType":"全部","powerOffArea":"110kV万市变上林D335线洞桥村4号落马变公变后段","powerOffReason":"（低压停电信息）卸坞里02线11#杆至11-5#杆更换照明表箱18只、动力表箱6只等工作。 （旁站监理）","powerOffId":"2019070531010253"},{"poweroffId":2019070531010251,"sgpoweroffId":null,"subsName":"","lineName":"10kV贤德D333线","pubTranName":"贤德村12#罗家坞公变,","scope":"浙江省-杭州市-富阳区-洞桥镇贤德行政村罗家坞自然村一带","startTime":"2019-07-18 06:30:00","stopDate":"2019-07-18 13:30:00","orgNo":"3340170","typeCode":"计划停电","poweroffArea":"110kV万市变贤德D333线贤德村12号罗家坞公变后段","poweroffReason":"（低压停电信息）拆除LJ-35*4*17档、横担18付、拉线3付、架设JKLYJ-70*4*18档、安装横担18付、拉线3付、人工拔旧杆14支（8米杆）","powerTime":"2019-07-18 13:15:57","powerComm":"已送电","subsNo":"","lineNo":"","tgNo":"","tgName":null,"infoStatus":"1","orgName":"国网浙江杭州市富阳区供电公司","typeName":null,"infoStatusName":null,"dateDay":null,"orgNos":null,"nowTime":null,"countyName":null,"streetName":null,"villageName":null,"roadName":null,"communityName":null,"tranName":null,"sdLineName":null,"cityCode":"3340170","cityName":"国网浙江杭州市富阳区供电公司","provinceCode":null,"stopTime":"2019-07-18 13:30:00","powerType":"全部","powerOffArea":"110kV万市变贤德D333线贤德村12号罗家坞公变后段","powerOffReason":"（低压停电信息）拆除LJ-35*4*17档、横担18付、拉线3付、架设JKLYJ-70*4*18档、安装横担18付、拉线3付、人工拔旧杆14支（8米杆）","powerOffId":"2019070531010251"},{"poweroffId":2019070531010250,"sgpoweroffId":null,"subsName":"","lineName":"10kV城镇D166线","pubTranName":"大源镇10#保健路公变,","scope":"浙江省杭州市-富阳区-大源镇(大源行政村-永庆自然村)一带;","startTime":"2019-07-15 07:00:00","stopDate":"2019-07-15 12:20:00","orgNo":"3340170","typeCode":"计划停电","poweroffArea":"110kV大源变:城镇D166线-大源镇10#保健路公变跌落式熔断器后段","poweroffReason":"江南2019年山建村5#新区公变等台区低压线路改造工程大源镇10#保健路公变：更换JP柜1组、更换低压出线电缆2根、拆装低压进线电缆等工作","powerTime":"2019-07-15 12:05:47","powerComm":"已送电","subsNo":"","lineNo":"","tgNo":"","tgName":null,"infoStatus":"1","orgName":"国网浙江杭州市富阳区供电公司","typeName":null,"infoStatusName":null,"dateDay":null,"orgNos":null,"nowTime":null,"countyName":null,"streetName":null,"villageName":null,"roadName":null,"communityName":null,"tranName":null,"sdLineName":null,"cityCode":"3340170","cityName":"国网浙江杭州市富阳区供电公司","provinceCode":null,"stopTime":"2019-07-15 12:20:00","powerType":"全部","powerOffArea":"110kV大源变:城镇D166线-大源镇10#保健路公变跌落式熔断器后段","powerOffReason":"江南2019年山建村5#新区公变等台区低压线路改造工程大源镇10#保健路公变：更换JP柜1组、更换低压出线电缆2根、拆装低压进线电缆等工作","powerOffId":"2019070531010250"}],"pageModel":{"pageNow":1498,"totalCount":17789,"totalPage":1779,"tableRows":0,"pageCount":10,"beginCount":14970},"isExperi":"1"}