{"message":"","today":"2020-06-16","seleList":[{"poweroffId":2019070531010249,"sgpoweroffId":null,"subsName":"","lineName":"10kV竹桥D304线","pubTranName":"华共村6#王家公变,","scope":"浙江省-杭州市-富阳区春江街道(临江行政村-华共自然村)一带;","startTime":"2019-07-15 08:00:00","stopDate":"2019-07-15 17:00:00","orgNo":"3340170","typeCode":"计划停电","poweroffArea":"110kV建设变:竹桥D304线-华共村6#王家公变跌落式熔断器后段","poweroffReason":"江南2019年10kV新建D262线与大兆D605线联络工程：吊车新立15米杆6支，18米杆3支，杆上附件安装等工作。原计划结束时间2019-07-15 16:00:00因天气原因延至2019-07-15 17:00:00","powerTime":"2019-07-15 16:45:32","powerComm":"已送电","subsNo":"","lineNo":"","tgNo":"","tgName":null,"infoStatus":"1","orgName":"国网浙江杭州市富阳区供电公司","typeName":null,"infoStatusName":null,"dateDay":null,"orgNos":null,"nowTime":null,"countyName":null,"streetName":null,"villageName":null,"roadName":null,"communityName":null,"tranName":null,"sdLineName":null,"cityCode":"3340170","cityName":"国网浙江杭州市富阳区供电公司","provinceCode":null,"stopTime":"2019-07-15 17:00:00","powerType":"全部","powerOffArea":"110kV建设变:竹桥D304线-华共村6#王家公变跌落式熔断器后段","powerOffReason":"江南2019年10kV新建D262线与大兆D605线联络工程：吊车新立15米杆6支，18米杆3支，杆上附件安装等工作。原计划结束时间2019-07-15 16:00:00因天气原因延至2019-07-15 17:00:00","powerOffId":"2019070531010249"},{"poweroffId":2019070531010248,"sgpoweroffId":null,"subsName":"","lineName":"10kV民主D761线","pubTranName":"新建村5#新区南变,","scope":"浙江省杭州市-富阳区-春江街道(新建行政村-新建自然村)一带;","startTime":"2019-07-16 07:00:00","stopDate":"2019-07-16 12:20:00","orgNo":"3340170","typeCode":"计划停电","poweroffArea":"110kV春联变:民主D761线-新建村5#新区南变跌落式熔断器后段","poweroffReason":"江南2019年山建村5#新区公变等台区低压线路改造工程新建村5#新区南公变：更换配电屏、拆装低压进线电缆、拆装低压出线电缆等工作","powerTime":"2019-07-16 11:50:48","powerComm":"已送电","subsNo":"","lineNo":"","tgNo":"","tgName":null,"infoStatus":"1","orgName":"国网浙江杭州市富阳区供电公司","typeName":null,"infoStatusName":null,"dateDay":null,"orgNos":null,"nowTime":null,"countyName":null,"streetName":null,"villageName":null,"roadName":null,"communityName":null,"tranName":null,"sdLineName":null,"cityCode":"3340170","cityName":"国网浙江杭州市富阳区供电公司","provinceCode":null,"stopTime":"2019-07-16 12:20:00","powerType":"全部","powerOffArea":"110kV春联变:民主D761线-新建村5#新区南变跌落式熔断器后段","powerOffReason":"江南2019年山建村5#新区公变等台区低压线路改造工程新建村5#新区南公变：更换配电屏、拆装低压进线电缆、拆装低压出线电缆等工作","powerOffId":"2019070531010248"},{"poweroffId":2019070531010246,"sgpoweroffId":null,"subsName":"","lineName":"10kV城镇D166线","pubTranName":"大源镇33号老菜场公变,大源镇18#菜场公变,","scope":"浙江省-杭州市富阳区-大源镇(大源行政村-东塘路、永庆自然村)一带;","startTime":"2019-07-17 07:00:00","stopDate":"2019-07-17 12:20:00","orgNo":"3340170","typeCode":"计划停电","poweroffArea":"110kV大源变:城镇D166线-大源镇33#老菜场公变跌落式熔断器后段；城镇D166线-大源镇18#菜场公变跌落式熔断器后段","poweroffReason":"江南2019年山建村5#新区公变等台区低压线路改造工程大源镇18#菜场公变：更换JP柜1组、更换低压进出线电缆、拆装低压出线电缆等工作","powerTime":"2019-07-17 12:08:02","powerComm":"已送电","subsNo":"","lineNo":"","tgNo":"","tgName":null,"infoStatus":"1","orgName":"国网浙江杭州市富阳区供电公司","typeName":null,"infoStatusName":null,"dateDay":null,"orgNos":null,"nowTime":null,"countyName":null,"streetName":null,"villageName":null,"roadName":null,"communityName":null,"tranName":null,"sdLineName":null,"cityCode":"3340170","cityName":"国网浙江杭州市富阳区供电公司","provinceCode":null,"stopTime":"2019-07-17 12:20:00","powerType":"全部","powerOffArea":"110kV大源变:城镇D166线-大源镇33#老菜场公变跌落式熔断器后段；城镇D166线-大源镇18#菜场公变跌落式熔断器后段","powerOffReason":"江南2019年山建村5#新区公变等台区低压线路改造工程大源镇18#菜场公变：更换JP柜1组、更换低压进出线电缆、拆装低压出线电缆等工作","powerOffId":"2019070531010246"},{"poweroffId":2019070531010245,"sgpoweroffId":null,"subsName":"","lineName":"10kV石墓D217线","pubTranName":"勤乐村石墓3#猫头山公变,","scope":"浙江省杭州市-富阳区-银湖街道(勤乐行政村-猫头山自然村、石墓自然村)一带;","startTime":"2019-07-17 12:30:00","stopDate":"2019-07-17 18:30:00","orgNo":"3340170","typeCode":"计划停电","poweroffArea":"110kV银湖变:石墓D217线-勤乐村石墓3#猫头山公变跌落式熔断器后段","poweroffReason":"迎东2019年虎哨杏村3#麻墩公变等10kV配变增容布点工程：勤乐村石墓3#猫头山公变由200kVA增容至400kVA及低压电缆更换等工作，原停电结束时间2019-07-17 17:00:00，因工作复杂变更至2019-07-17 18:30:00","powerTime":"2019-07-17 18:03:55","powerComm":"已送电","subsNo":"","lineNo":"","tgNo":"","tgName":null,"infoStatus":"1","orgName":"国网浙江杭州市富阳区供电公司","typeName":null,"infoStatusName":null,"dateDay":null,"orgNos":null,"nowTime":null,"countyName":null,"streetName":null,"villageName":null,"roadName":null,"communityName":null,"tranName":null,"sdLineName":null,"cityCode":"3340170","cityName":"国网浙江杭州市富阳区供电公司","provinceCode":null,"stopTime":"2019-07-17 18:30:00","powerType":"全部","powerOffArea":"110kV银湖变:石墓D217线-勤乐村石墓3#猫头山公变跌落式熔断器后段","powerOffReason":"迎东2019年虎哨杏村3#麻墩公变等10kV配变增容布点工程：勤乐村石墓3#猫头山公变由200kVA增容至400kVA及低压电缆更换等工作，原停电结束时间2019-07-17 17:00:00，因工作复杂变更至2019-07-17 18:30:00","powerOffId":"2019070531010245"},{"poweroffId":2019070531010244,"sgpoweroffId":null,"subsName":"","lineName":"10kV城镇D166线","pubTranName":"大源镇11#下朗路公变,","scope":"浙江省杭州市-富阳区-大源镇(大源行政村-下郎自然村)一带;","startTime":"2019-07-18 07:00:00","stopDate":"2019-07-18 12:20:00","orgNo":"3340170","typeCode":"计划停电","poweroffArea":"110kV大源变:城镇D166线-大源镇11#下朗路公变跌落式熔断器后段","poweroffReason":"江南2019年山建村5#新区公变等台区低压线路改造工程大源镇11#下郎路公变：更换JP柜1组、更换低压出线电缆2根、拆装低压进线电缆等工作","powerTime":"2019-07-18 12:06:08","powerComm":"已送电","subsNo":"","lineNo":"","tgNo":"","tgName":null,"infoStatus":"1","orgName":"国网浙江杭州市富阳区供电公司","typeName":null,"infoStatusName":null,"dateDay":null,"orgNos":null,"nowTime":null,"countyName":null,"streetName":null,"villageName":null,"roadName":null,"communityName":null,"tranName":null,"sdLineName":null,"cityCode":"3340170","cityName":"国网浙江杭州市富阳区供电公司","provinceCode":null,"stopTime":"2019-07-18 12:20:00","powerType":"全部","powerOffArea":"110kV大源变:城镇D166线-大源镇11#下朗路公变跌落式熔断器后段","powerOffReason":"江南2019年山建村5#新区公变等台区低压线路改造工程大源镇11#下郎路公变：更换JP柜1组、更换低压出线电缆2根、拆装低压进线电缆等工作","powerOffId":"2019070531010244"},{"poweroffId":2019070531010243,"sgpoweroffId":null,"subsName":"","lineName":"10kV四联D961线","pubTranName":"四联村2号茅草山公变,","scope":"浙江省-杭州市富阳区-银湖街道(银湖行政村-金子垄自然村、茅草山自然村、四联自然村)一带;","startTime":"2019-07-18 09:00:00","stopDate":"2019-07-18 14:00:00","orgNo":"3340170","typeCode":"计划停电","poweroffArea":"110kV九龙变:四联村2#茅草山公变跌落式熔断器后段","poweroffReason":"迎东2019年虎哨杏村3#麻墩公变等10kV配变增容布点工程：立杆3基，架线一档，安装400kVA四联村10#茅草山公变一台及低压线路改接等工作。原计划停电结束时间为2019-07-18 17:00:00因抢修力度加强变更至2019-07-18 14:00:00","powerTime":"2019-07-18 13:53:06","powerComm":"已送电","subsNo":"","lineNo":"","tgNo":"","tgName":null,"infoStatus":"1","orgName":"国网浙江杭州市富阳区供电公司","typeName":null,"infoStatusName":null,"dateDay":null,"orgNos":null,"nowTime":null,"countyName":null,"streetName":null,"villageName":null,"roadName":null,"communityName":null,"tranName":null,"sdLineName":null,"cityCode":"3340170","cityName":"国网浙江杭州市富阳区供电公司","provinceCode":null,"stopTime":"2019-07-18 14:00:00","powerType":"全部","powerOffArea":"110kV九龙变:四联村2#茅草山公变跌落式熔断器后段","powerOffReason":"迎东2019年虎哨杏村3#麻墩公变等10kV配变增容布点工程：立杆3基，架线一档，安装400kVA四联村10#茅草山公变一台及低压线路改接等工作。原计划停电结束时间为2019-07-18 17:00:00因抢修力度加强变更至2019-07-18 14:00:00","powerOffId":"2019070531010243"},{"poweroffId":2019070531010242,"sgpoweroffId":null,"subsName":"","lineName":"10kV十月D225线","pubTranName":"杭州凌正建设工程有限公司1#变,","scope":"浙江省-杭州市富阳区-银湖街道(杭州凌正建设工程有限公司)一带;","startTime":"2019-07-18 09:00:00","stopDate":"2019-07-18 12:30:00","orgNo":"3340170","typeCode":"计划停电","poweroffArea":"110kV银湖变:十月D225线-星光支线柱上开关后段","poweroffReason":"迎东所2019年新建用户分界点工程：拆除保险丝开关1组，安装真空开关1台。原计划停电结束时间为2019-07-18 16:30:00因抢修力度加强变更至2019-07-18 12:30:00","powerTime":"2019-07-18 12:16:02","powerComm":"已送电","subsNo":"","lineNo":"","tgNo":"","tgName":null,"infoStatus":"1","orgName":"国网浙江杭州市富阳区供电公司","typeName":null,"infoStatusName":null,"dateDay":null,"orgNos":null,"nowTime":null,"countyName":null,"streetName":null,"villageName":null,"roadName":null,"communityName":null,"tranName":null,"sdLineName":null,"cityCode":"3340170","cityName":"国网浙江杭州市富阳区供电公司","provinceCode":null,"stopTime":"2019-07-18 12:30:00","powerType":"全部","powerOffArea":"110kV银湖变:十月D225线-星光支线柱上开关后段","powerOffReason":"迎东所2019年新建用户分界点工程：拆除保险丝开关1组，安装真空开关1台。原计划停电结束时间为2019-07-18 16:30:00因抢修力度加强变更至2019-07-18 12:30:00","powerOffId":"2019070531010242"},{"poweroffId":2019070531010234,"sgpoweroffId":null,"subsName":"","lineName":"10kV中秋D223线","pubTranName":"新常村1#野坞口公变,","scope":"浙江省-杭州市-富阳区-银湖街道新常村野坞口自然村一带","startTime":"2019-07-16 06:40:00","stopDate":"2019-07-16 12:50:00","orgNo":"3340170","typeCode":"计划停电","poweroffArea":"110kV银湖变:中秋D223线-新常村1#野坞口公变低压开关后段","poweroffReason":"（低压停电信息）迎东2019年千家村1#村中公变等低压台区改造工程拆旧，架设BS-35*4*2档，更换落户线30处，搭接等工作","powerTime":"2019-07-16 12:35:47","powerComm":"已送电","subsNo":"","lineNo":"","tgNo":"","tgName":null,"infoStatus":"1","orgName":"国网浙江杭州市富阳区供电公司","typeName":null,"infoStatusName":null,"dateDay":null,"orgNos":null,"nowTime":null,"countyName":null,"streetName":null,"villageName":null,"roadName":null,"communityName":null,"tranName":null,"sdLineName":null,"cityCode":"3340170","cityName":"国网浙江杭州市富阳区供电公司","provinceCode":null,"stopTime":"2019-07-16 12:50:00","powerType":"全部","powerOffArea":"110kV银湖变:中秋D223线-新常村1#野坞口公变低压开关后段","powerOffReason":"（低压停电信息）迎东2019年千家村1#村中公变等低压台区改造工程拆旧，架设BS-35*4*2档，更换落户线30处，搭接等工作","powerOffId":"2019070531010234"},{"poweroffId":2019070531010232,"sgpoweroffId":null,"subsName":"","lineName":"10kV贤德D333线","pubTranName":"洞桥村17号范家公变,","scope":"浙江省杭州市富阳区洞桥镇洞桥行政村范家自然村一带","startTime":"2019-07-18 06:00:00","stopDate":"2019-07-18 12:30:00","orgNo":"3340170","typeCode":"计划停电","poweroffArea":"110kV万市变贤德D333线洞桥村17号范家公变后段","poweroffReason":"（低压停电信息）照明01线、照明02线更换照明表箱20只、动力表箱5只、照明02线2#杆架设BS-JKLYJ-4*35*50米、BS-JKLYJ-2*25*60米、搭接2处等工作。 （旁站监理）","powerTime":"2019-07-18 12:16:37","powerComm":"已送电","subsNo":"","lineNo":"","tgNo":"","tgName":null,"infoStatus":"1","orgName":"国网浙江杭州市富阳区供电公司","typeName":null,"infoStatusName":null,"dateDay":null,"orgNos":null,"nowTime":null,"countyName":null,"streetName":null,"villageName":null,"roadName":null,"communityName":null,"tranName":null,"sdLineName":null,"cityCode":"3340170","cityName":"国网浙江杭州市富阳区供电公司","provinceCode":null,"stopTime":"2019-07-18 12:30:00","powerType":"全部","powerOffArea":"110kV万市变贤德D333线洞桥村17号范家公变后段","powerOffReason":"（低压停电信息）照明01线、照明02线更换照明表箱20只、动力表箱5只、照明02线2#杆架设BS-JKLYJ-4*35*50米、BS-JKLYJ-2*25*60米、搭接2处等工作。 （旁站监理）","powerOffId":"2019070531010232"},{"poweroffId":2019070531010227,"sgpoweroffId":null,"subsName":"","lineName":"10kV中秋D223线","pubTranName":"受降集镇9号红波路公变,","scope":"浙江省-杭州市-富阳区-银湖街道受降集镇红波路一带","startTime":"2019-07-18 06:40:00","stopDate":"2019-07-18 16:50:00","orgNo":"3340170","typeCode":"计划停电","poweroffArea":"110kV银湖变:中秋D223线-受降集镇9号红波路公变低压开关后段","poweroffReason":"（低压停电信息）迎东2019年千家村1#村中公变等低压台区改造工程拆旧，架设1kV-120*4*1档，拆架1kV120*4*1档，安装电缆2根，安装T接箱1只，搭接等工作","powerTime":"2019-07-18 16:35:55","powerComm":"已送电","subsNo":"","lineNo":"","tgNo":"","tgName":null,"infoStatus":"1","orgName":"国网浙江杭州市富阳区供电公司","typeName":null,"infoStatusName":null,"dateDay":null,"orgNos":null,"nowTime":null,"countyName":null,"streetName":null,"villageName":null,"roadName":null,"communityName":null,"tranName":null,"sdLineName":null,"cityCode":"3340170","cityName":"国网浙江杭州市富阳区供电公司","provinceCode":null,"stopTime":"2019-07-18 16:50:00","powerType":"全部","powerOffArea":"110kV银湖变:中秋D223线-受降集镇9号红波路公变低压开关后段","powerOffReason":"（低压停电信息）迎东2019年千家村1#村中公变等低压台区改造工程拆旧，架设1kV-120*4*1档，拆架1kV120*4*1档，安装电缆2根，安装T接箱1只，搭接等工作","powerOffId":"2019070531010227"}],"pageModel":{"pageNow":1499,"totalCount":17789,"totalPage":1779,"tableRows":0,"pageCount":10,"beginCount":14980},"isExperi":"1"}