{"message":"","today":"2020-06-16","seleList":[{"poweroffId":2019070531010225,"sgpoweroffId":null,"subsName":"","lineName":"10kV丝厂D570线","pubTranName":"景风花园1号公变,","scope":"浙江省杭州市富阳区富春街道城东社区景风华园大桥路68号一带","startTime":"2019-07-15 08:20:00","stopDate":"2019-07-15 16:20:00","orgNo":"3340170","typeCode":"计划停电","poweroffArea":"110kV春江变:丝厂D570线-景风花园1号公变后段","poweroffReason":"（低压停电信息）国网浙江富阳供电公司2019年客户计量装置建设与改造:10kV丝厂D570线，0.4kV景风华园1#公变，1#，2#开关对0.4kv(6611848060)大桥路68-1#楼进行表箱改造等工作","powerTime":"2019-07-15 16:05:21","powerComm":"已送电","subsNo":"","lineNo":"","tgNo":"","tgName":null,"infoStatus":"1","orgName":"国网浙江杭州市富阳区供电公司","typeName":null,"infoStatusName":null,"dateDay":null,"orgNos":null,"nowTime":null,"countyName":null,"streetName":null,"villageName":null,"roadName":null,"communityName":null,"tranName":null,"sdLineName":null,"cityCode":"3340170","cityName":"国网浙江杭州市富阳区供电公司","provinceCode":null,"stopTime":"2019-07-15 16:20:00","powerType":"全部","powerOffArea":"110kV春江变:丝厂D570线-景风花园1号公变后段","powerOffReason":"（低压停电信息）国网浙江富阳供电公司2019年客户计量装置建设与改造:10kV丝厂D570线，0.4kV景风华园1#公变，1#，2#开关对0.4kv(6611848060)大桥路68-1#楼进行表箱改造等工作","powerOffId":"2019070531010225"},{"poweroffId":2019070531010220,"sgpoweroffId":null,"subsName":"","lineName":"10kV鹳山D559线","pubTranName":"龙山花园2#公变,","scope":"浙江省-杭州市-富阳区-富春街道(盘龙山社区-龙浦街、龙山路、幸福北路)一带","startTime":"2019-07-16 09:00:00","stopDate":"2019-07-16 11:00:00","orgNo":"3340170","typeCode":"计划停电","poweroffArea":"110kV春江变:鹳山D559线-龙山花园2#公变后段","poweroffReason":"终端检修：龙山花园2#公变终端检修工作。","powerTime":"2019-07-16 10:52:22","powerComm":"已送电","subsNo":"","lineNo":"","tgNo":"","tgName":null,"infoStatus":"1","orgName":"国网浙江杭州市富阳区供电公司","typeName":null,"infoStatusName":null,"dateDay":null,"orgNos":null,"nowTime":null,"countyName":null,"streetName":null,"villageName":null,"roadName":null,"communityName":null,"tranName":null,"sdLineName":null,"cityCode":"3340170","cityName":"国网浙江杭州市富阳区供电公司","provinceCode":null,"stopTime":"2019-07-16 11:00:00","powerType":"全部","powerOffArea":"110kV春江变:鹳山D559线-龙山花园2#公变后段","powerOffReason":"终端检修：龙山花园2#公变终端检修工作。","powerOffId":"2019070531010220"},{"poweroffId":2019070531010216,"sgpoweroffId":null,"subsName":"","lineName":"10kV株林D243线","pubTranName":"横山村1#村中公变,","scope":"浙江省-杭州市-富阳区-东洲街道(黄公望行政村-横山自然村);","startTime":"2019-07-16 06:30:00","stopDate":"2019-07-16 16:00:00","orgNo":"3340170","typeCode":"计划停电","poweroffArea":"110kV白鹤变:株林D243线-横山村1#村中公变台区低压开关后段","poweroffReason":"（低压停电信息）迎东2019年五丰村13#大机埠公变等低压线路改造工程拆旧导线11档，新架集束导线10档，接户线搭接等工作。 原停电结束时间为2019-07-16 13:00:00，因现场施工难度大延至2019-07-16 16:00:00","powerTime":"2019-07-16 15:45:54","powerComm":"已送电","subsNo":"","lineNo":"","tgNo":"","tgName":null,"infoStatus":"1","orgName":"国网浙江杭州市富阳区供电公司","typeName":null,"infoStatusName":null,"dateDay":null,"orgNos":null,"nowTime":null,"countyName":null,"streetName":null,"villageName":null,"roadName":null,"communityName":null,"tranName":null,"sdLineName":null,"cityCode":"3340170","cityName":"国网浙江杭州市富阳区供电公司","provinceCode":null,"stopTime":"2019-07-16 16:00:00","powerType":"全部","powerOffArea":"110kV白鹤变:株林D243线-横山村1#村中公变台区低压开关后段","powerOffReason":"（低压停电信息）迎东2019年五丰村13#大机埠公变等低压线路改造工程拆旧导线11档，新架集束导线10档，接户线搭接等工作。 原停电结束时间为2019-07-16 13:00:00，因现场施工难度大延至2019-07-16 16:00:00","powerOffId":"2019070531010216"},{"poweroffId":2019070531010214,"sgpoweroffId":null,"subsName":"","lineName":"10kV株林D243线","pubTranName":"横山村1#村中公变,","scope":"浙江省-杭州市-富阳区-东洲街道(黄公望行政村-横山自然村);","startTime":"2019-07-17 06:30:00","stopDate":"2019-07-17 13:00:00","orgNo":"3340170","typeCode":"计划停电","poweroffArea":"110kV白鹤变:株林D243线-横山村1#村中公变台区低压开关后段","poweroffReason":"（低压停电信息）迎东2019年五丰村13#大机埠公变等低压线路改造工程拆旧导线370米，新架BS4*70导线330米，新架JKLYJ4*70导线40米，搭接等工作。","powerTime":"2019-07-17 12:46:01","powerComm":"已送电","subsNo":"","lineNo":"","tgNo":"","tgName":null,"infoStatus":"1","orgName":"国网浙江杭州市富阳区供电公司","typeName":null,"infoStatusName":null,"dateDay":null,"orgNos":null,"nowTime":null,"countyName":null,"streetName":null,"villageName":null,"roadName":null,"communityName":null,"tranName":null,"sdLineName":null,"cityCode":"3340170","cityName":"国网浙江杭州市富阳区供电公司","provinceCode":null,"stopTime":"2019-07-17 13:00:00","powerType":"全部","powerOffArea":"110kV白鹤变:株林D243线-横山村1#村中公变台区低压开关后段","powerOffReason":"（低压停电信息）迎东2019年五丰村13#大机埠公变等低压线路改造工程拆旧导线370米，新架BS4*70导线330米，新架JKLYJ4*70导线40米，搭接等工作。","powerOffId":"2019070531010214"},{"poweroffId":2019070531010212,"sgpoweroffId":null,"subsName":"","lineName":"10kV笼山D252线","pubTranName":"赤松村5号牛角山公变,","scope":"浙江省-杭州市-富阳区-东洲街道(鸡笼山行政村-鸡笼山村);","startTime":"2019-07-18 06:30:00","stopDate":"2019-07-18 16:00:00","orgNo":"3340170","typeCode":"计划停电","poweroffArea":"110kV白鹤变:笼山D252线-赤松村5号牛角山公变台区低压开关后段","poweroffReason":"（低压停电信息）迎东2019年五丰村13#大机埠公变等低压线路改造工程新架JKLYJ4*120*4档，新装YJV22-4*150出线电缆1路，搭接等工作。原计划结束时间为2019-07-18 13:00:00因工作难度大变更至2019-07-18 16:00:00","powerTime":"2019-07-18 15:46:18","powerComm":"已送电","subsNo":"","lineNo":"","tgNo":"","tgName":null,"infoStatus":"1","orgName":"国网浙江杭州市富阳区供电公司","typeName":null,"infoStatusName":null,"dateDay":null,"orgNos":null,"nowTime":null,"countyName":null,"streetName":null,"villageName":null,"roadName":null,"communityName":null,"tranName":null,"sdLineName":null,"cityCode":"3340170","cityName":"国网浙江杭州市富阳区供电公司","provinceCode":null,"stopTime":"2019-07-18 16:00:00","powerType":"全部","powerOffArea":"110kV白鹤变:笼山D252线-赤松村5号牛角山公变台区低压开关后段","powerOffReason":"（低压停电信息）迎东2019年五丰村13#大机埠公变等低压线路改造工程新架JKLYJ4*120*4档，新装YJV22-4*150出线电缆1路，搭接等工作。原计划结束时间为2019-07-18 13:00:00因工作难度大变更至2019-07-18 16:00:00","powerOffId":"2019070531010212"},{"poweroffId":2019070531010211,"sgpoweroffId":null,"subsName":"","lineName":"10kV新华D320线","pubTranName":"东洲新沙村3号村南公变,","scope":"浙江省-杭州市-富阳区-东洲街道(-新沙行政村-新沙自然村);","startTime":"2019-07-20 06:30:00","stopDate":"2019-07-20 13:00:00","orgNo":"3340170","typeCode":"计划停电","poweroffArea":"110kV建设变:新华D320线-东洲新沙村3号村南公变台区低压开关后段","poweroffReason":"（低压停电信息）迎东2019年新沙村5#村中公变等0.4kV低压线路改造工程拆旧线13档，新架JKLYJ4*120*2档，新架JKLYJ4*70*10档，搭接等工作。","powerTime":"2019-07-20 12:45:10","powerComm":"已送电","subsNo":"","lineNo":"","tgNo":"","tgName":null,"infoStatus":"1","orgName":"国网浙江杭州市富阳区供电公司","typeName":null,"infoStatusName":null,"dateDay":null,"orgNos":null,"nowTime":null,"countyName":null,"streetName":null,"villageName":null,"roadName":null,"communityName":null,"tranName":null,"sdLineName":null,"cityCode":"3340170","cityName":"国网浙江杭州市富阳区供电公司","provinceCode":null,"stopTime":"2019-07-20 13:00:00","powerType":"全部","powerOffArea":"110kV建设变:新华D320线-东洲新沙村3号村南公变台区低压开关后段","powerOffReason":"（低压停电信息）迎东2019年新沙村5#村中公变等0.4kV低压线路改造工程拆旧线13档，新架JKLYJ4*120*2档，新架JKLYJ4*70*10档，搭接等工作。","powerOffId":"2019070531010211"},{"poweroffId":2019070531010210,"sgpoweroffId":null,"subsName":"","lineName":"10kV新华D320线","pubTranName":"东洲新沙村2#村西公变,","scope":"浙江省-杭州市-富阳区-东洲街道(新沙行政村-新沙自然村);","startTime":"2019-07-20 06:30:00","stopDate":"2019-07-20 08:20:00","orgNo":"3340170","typeCode":"计划停电","poweroffArea":"110kV建设变:新华D320线-东洲新沙村2#村西公变台区低压开关后段","poweroffReason":"（低压停电信息）迎东2019年新沙村5#村中公变等0.4kV低压线路改造工程拆旧线2档等工作。","powerTime":"2019-07-20 08:05:21","powerComm":"已送电","subsNo":"","lineNo":"","tgNo":"","tgName":null,"infoStatus":"1","orgName":"国网浙江杭州市富阳区供电公司","typeName":null,"infoStatusName":null,"dateDay":null,"orgNos":null,"nowTime":null,"countyName":null,"streetName":null,"villageName":null,"roadName":null,"communityName":null,"tranName":null,"sdLineName":null,"cityCode":"3340170","cityName":"国网浙江杭州市富阳区供电公司","provinceCode":null,"stopTime":"2019-07-20 08:20:00","powerType":"全部","powerOffArea":"110kV建设变:新华D320线-东洲新沙村2#村西公变台区低压开关后段","powerOffReason":"（低压停电信息）迎东2019年新沙村5#村中公变等0.4kV低压线路改造工程拆旧线2档等工作。","powerOffId":"2019070531010210"},{"poweroffId":2019070531010207,"sgpoweroffId":null,"subsName":"","lineName":"10kV明星D424线","pubTranName":"湖上沙5号中埭公变,","scope":"浙江省-杭州市-富阳区-东洲街道(东洲村行政村-湖上沙自然村);","startTime":"2019-07-20 06:40:00","stopDate":"2019-07-20 12:50:00","orgNo":"3340170","typeCode":"计划停电","poweroffArea":"110kV东洲变:明星D424线-湖上沙5号中埭公变台区低压开关后段","poweroffReason":"（低压停电信息）迎东2019年千家村1#村中公变等低压台区改造工程架设1kV-70*4*7档，搭接等工作","powerTime":"2019-07-20 12:35:12","powerComm":"已送电","subsNo":"","lineNo":"","tgNo":"","tgName":null,"infoStatus":"1","orgName":"国网浙江杭州市富阳区供电公司","typeName":null,"infoStatusName":null,"dateDay":null,"orgNos":null,"nowTime":null,"countyName":null,"streetName":null,"villageName":null,"roadName":null,"communityName":null,"tranName":null,"sdLineName":null,"cityCode":"3340170","cityName":"国网浙江杭州市富阳区供电公司","provinceCode":null,"stopTime":"2019-07-20 12:50:00","powerType":"全部","powerOffArea":"110kV东洲变:明星D424线-湖上沙5号中埭公变台区低压开关后段","powerOffReason":"（低压停电信息）迎东2019年千家村1#村中公变等低压台区改造工程架设1kV-70*4*7档，搭接等工作","powerOffId":"2019070531010207"},{"poweroffId":2019070531010198,"sgpoweroffId":null,"subsName":"","lineName":"10kV结网G079线","pubTranName":"屯里村慈航桥公变,","scope":"浙江省-杭州市-余杭区-临平街道屯里行政村-屯里村、兹行桥自然村，慈航桥一带","startTime":"2019-07-05 13:12:00","stopDate":"2019-07-05 16:30:00","orgNo":"3340140","typeCode":"电网故障停限电","poweroffArea":"110kV星桥变:结网G079线-屯里村慈航桥公变后段","poweroffReason":"屯里村慈航桥公变后段 低压导线断线故障","powerTime":"2019-07-05 16:15:00","powerComm":"已送电","subsNo":"","lineNo":"","tgNo":"","tgName":null,"infoStatus":"1","orgName":"国网浙江杭州市余杭区供电有限公司","typeName":null,"infoStatusName":null,"dateDay":null,"orgNos":null,"nowTime":null,"countyName":null,"streetName":null,"villageName":null,"roadName":null,"communityName":null,"tranName":null,"sdLineName":null,"cityCode":"3340140","cityName":"国网浙江杭州市余杭区供电有限公司","provinceCode":null,"stopTime":"2019-07-05 16:30:00","powerType":"全部","powerOffArea":"110kV星桥变:结网G079线-屯里村慈航桥公变后段","powerOffReason":"屯里村慈航桥公变后段 低压导线断线故障","powerOffId":"2019070531010198"},{"poweroffId":2019070531010192,"sgpoweroffId":null,"subsName":"","lineName":"10kV长北C656线","pubTranName":"群英村5#变,","scope":"浙江省-杭州市-萧山区-益农镇群英行政村-群英自然村、群英村一带","startTime":"2019-07-05 12:55:15","stopDate":"2019-07-05 16:30:19","orgNo":"3340130","typeCode":"电网故障停限电","poweroffArea":"35kV益农变:长北C656线-群英村5#变台区低压开关","poweroffReason":"低压漏电保护器短路故障","powerTime":"2019-07-05 16:28:43","powerComm":"已送电","subsNo":"","lineNo":"","tgNo":"","tgName":null,"infoStatus":"1","orgName":"国网浙江杭州市萧山区供电有限公司","typeName":null,"infoStatusName":null,"dateDay":null,"orgNos":null,"nowTime":null,"countyName":null,"streetName":null,"villageName":null,"roadName":null,"communityName":null,"tranName":null,"sdLineName":null,"cityCode":"3340130","cityName":"国网浙江杭州市萧山区供电有限公司","provinceCode":null,"stopTime":"2019-07-05 16:30:19","powerType":"全部","powerOffArea":"35kV益农变:长北C656线-群英村5#变台区低压开关","powerOffReason":"低压漏电保护器短路故障","powerOffId":"2019070531010192"}],"pageModel":{"pageNow":1500,"totalCount":17789,"totalPage":1779,"tableRows":0,"pageCount":10,"beginCount":14990},"isExperi":"1"}