{"message":"","today":"2020-06-16","seleList":[{"poweroffId":2019070531010188,"sgpoweroffId":null,"subsName":"","lineName":"10kV新桐D411线","pubTranName":"浙江交工宏途交通建设有限公司 7标2#变,富阳市民政局,浙江交工宏途交通建设有限公司 7标1#基建变,浙江交工宏途交通建设有限公司 7标3#变,","scope":"浙江省-杭州市-富阳区-鹿山街道(富阳市民政局,浙江交工宏途交通建设有限公司)一带","startTime":"2019-07-15 07:30:00","stopDate":"2019-07-15 12:30:00","orgNo":"3340170","typeCode":"计划停电","poweroffArea":"110kV长春变:新桐D411线","poweroffReason":"西复线线路移位工程：原宏大分线3#杆至6#杆线路拆除；新立电杆3基，放线两档，电缆敷设、制作、试验、搭接等工作。","powerTime":"2019-07-15 12:15:46","powerComm":"已送电","subsNo":"","lineNo":"","tgNo":"","tgName":null,"infoStatus":"1","orgName":"国网浙江杭州市富阳区供电公司","typeName":null,"infoStatusName":null,"dateDay":null,"orgNos":null,"nowTime":null,"countyName":null,"streetName":null,"villageName":null,"roadName":null,"communityName":null,"tranName":null,"sdLineName":null,"cityCode":"3340170","cityName":"国网浙江杭州市富阳区供电公司","provinceCode":null,"stopTime":"2019-07-15 12:30:00","powerType":"全部","powerOffArea":"110kV长春变:新桐D411线","powerOffReason":"西复线线路移位工程：原宏大分线3#杆至6#杆线路拆除；新立电杆3基，放线两档，电缆敷设、制作、试验、搭接等工作。","powerOffId":"2019070531010188"},{"poweroffId":2019070531010187,"sgpoweroffId":null,"subsName":"","lineName":"10kV东兴D560线","pubTranName":"虎山新村公变,虎山新村2#公变,东兴路公变,浙江富阳市新华书店有限公司,富阳市城东商贸市场有限公司,富阳市城东综合市场,","scope":"浙江省-杭州市-富阳区-富春街道(虎山社区-北堤北路、东兴路、文居街、迎宾北路、育才路);(杭州富阳城东商贸市场有限公司,杭州富阳城东综合市场,浙江富阳市新华书店有限公司)一带","startTime":"2019-07-16 08:45:00","stopDate":"2019-07-16 14:00:00","orgNo":"3340170","typeCode":"计划停电","poweroffArea":"110kV春江变:东兴D560线-东兴D5601开关后段","poweroffReason":"文居街道拓宽线路迁改工程：拆除导线三档；新立电杆两基；新放导线两档等工作。 原计划停电结束时间为2019-07-16 12:30:00，因现场施工难度大延至2019-07-16 14:00:00","powerTime":"2019-07-16 13:15:31","powerComm":"已送电","subsNo":"","lineNo":"","tgNo":"","tgName":null,"infoStatus":"1","orgName":"国网浙江杭州市富阳区供电公司","typeName":null,"infoStatusName":null,"dateDay":null,"orgNos":null,"nowTime":null,"countyName":null,"streetName":null,"villageName":null,"roadName":null,"communityName":null,"tranName":null,"sdLineName":null,"cityCode":"3340170","cityName":"国网浙江杭州市富阳区供电公司","provinceCode":null,"stopTime":"2019-07-16 14:00:00","powerType":"全部","powerOffArea":"110kV春江变:东兴D560线-东兴D5601开关后段","powerOffReason":"文居街道拓宽线路迁改工程：拆除导线三档；新立电杆两基；新放导线两档等工作。 原计划停电结束时间为2019-07-16 12:30:00，因现场施工难度大延至2019-07-16 14:00:00","powerOffId":"2019070531010187"},{"poweroffId":2019070531010185,"sgpoweroffId":null,"subsName":"","lineName":"10kV中光D555线","pubTranName":"虎山公变1,","scope":"浙江省杭州市富阳区富春街道虎山社区虎山路120号一带","startTime":"2019-07-16 08:20:00","stopDate":"2019-07-16 11:40:00","orgNo":"3340170","typeCode":"计划停电","poweroffArea":"110kV春江变:中光D555线-虎山公变1后段","poweroffReason":"（低压停电信息）国网浙江富阳供电公司2019年客户计量装置建设与改造:10kV中光D555线，0.4kV虎山公变，2#开关1#出线对0.4kv(0010139438)虎山路120号进行表箱改造等工作","powerTime":"2019-07-16 11:25:55","powerComm":"已送电","subsNo":"","lineNo":"","tgNo":"","tgName":null,"infoStatus":"1","orgName":"国网浙江杭州市富阳区供电公司","typeName":null,"infoStatusName":null,"dateDay":null,"orgNos":null,"nowTime":null,"countyName":null,"streetName":null,"villageName":null,"roadName":null,"communityName":null,"tranName":null,"sdLineName":null,"cityCode":"3340170","cityName":"国网浙江杭州市富阳区供电公司","provinceCode":null,"stopTime":"2019-07-16 11:40:00","powerType":"全部","powerOffArea":"110kV春江变:中光D555线-虎山公变1后段","powerOffReason":"（低压停电信息）国网浙江富阳供电公司2019年客户计量装置建设与改造:10kV中光D555线，0.4kV虎山公变，2#开关1#出线对0.4kv(0010139438)虎山路120号进行表箱改造等工作","powerOffId":"2019070531010185"},{"poweroffId":2019070531010181,"sgpoweroffId":null,"subsName":"","lineName":"10kV五环D811线","pubTranName":"金城路2#公变,","scope":"浙江省杭州市富阳区富春街道金桥社区永兴路89号一带","startTime":"2019-07-17 08:20:00","stopDate":"2019-07-17 12:40:00","orgNo":"3340170","typeCode":"计划停电","poweroffArea":"110kV容大变:五环D811线-金城路2#公变后段","poweroffReason":"（低压停电信息）国网浙江富阳供电公司2019年客户计量装置建设与改造:10kV五环D811线，0.4kV金城路2#公变，2#开关1#出线对0.4kv永兴路89号进行表箱改造等工作","powerTime":"2019-07-17 12:26:04","powerComm":"已送电","subsNo":"","lineNo":"","tgNo":"","tgName":null,"infoStatus":"1","orgName":"国网浙江杭州市富阳区供电公司","typeName":null,"infoStatusName":null,"dateDay":null,"orgNos":null,"nowTime":null,"countyName":null,"streetName":null,"villageName":null,"roadName":null,"communityName":null,"tranName":null,"sdLineName":null,"cityCode":"3340170","cityName":"国网浙江杭州市富阳区供电公司","provinceCode":null,"stopTime":"2019-07-17 12:40:00","powerType":"全部","powerOffArea":"110kV容大变:五环D811线-金城路2#公变后段","powerOffReason":"（低压停电信息）国网浙江富阳供电公司2019年客户计量装置建设与改造:10kV五环D811线，0.4kV金城路2#公变，2#开关1#出线对0.4kv永兴路89号进行表箱改造等工作","powerOffId":"2019070531010181"},{"poweroffId":2019070531010178,"sgpoweroffId":null,"subsName":"","lineName":"10kV盛村D266线","pubTranName":"深里村9号新塘头公变,","scope":"浙江省-杭州市-富阳区-上官乡（深里行政村-深里自然村）一带；","startTime":"2019-07-18 06:30:00","stopDate":"2019-07-18 12:10:00","orgNo":"3340170","typeCode":"计划停电","poweroffArea":"35kV盛村变:盛村D266线-深里村9号新塘头公变后段","poweroffReason":"（低压停电信息）深里村9#新塘头公变做拉线、架线、线路改接、放接户线等工作","powerTime":"2019-07-18 11:55:57","powerComm":"已送电","subsNo":"","lineNo":"","tgNo":"","tgName":null,"infoStatus":"1","orgName":"国网浙江杭州市富阳区供电公司","typeName":null,"infoStatusName":null,"dateDay":null,"orgNos":null,"nowTime":null,"countyName":null,"streetName":null,"villageName":null,"roadName":null,"communityName":null,"tranName":null,"sdLineName":null,"cityCode":"3340170","cityName":"国网浙江杭州市富阳区供电公司","provinceCode":null,"stopTime":"2019-07-18 12:10:00","powerType":"全部","powerOffArea":"35kV盛村变:盛村D266线-深里村9号新塘头公变后段","powerOffReason":"（低压停电信息）深里村9#新塘头公变做拉线、架线、线路改接、放接户线等工作","powerOffId":"2019070531010178"},{"poweroffId":2019070531010176,"sgpoweroffId":null,"subsName":"","lineName":"10kV春建D202线","pubTranName":"西邮村2号公路旁公变,","scope":"浙江省-杭州市-富阳区-富春街道(西邮行政村-湖回垅自然村、西邮自然村);","startTime":"2019-07-18 07:00:00","stopDate":"2019-07-18 13:45:00","orgNo":"3340170","typeCode":"计划停电","poweroffArea":"35kV大青变:春建D202线-西邮村2号公路旁后段","poweroffReason":"（低压停电信息）青云2019年铁坎村5#横坞公变等低压台区改造工程进户线、搭接等工作","powerTime":"2019-07-18 13:30:58","powerComm":"已送电","subsNo":"","lineNo":"","tgNo":"","tgName":null,"infoStatus":"1","orgName":"国网浙江杭州市富阳区供电公司","typeName":null,"infoStatusName":null,"dateDay":null,"orgNos":null,"nowTime":null,"countyName":null,"streetName":null,"villageName":null,"roadName":null,"communityName":null,"tranName":null,"sdLineName":null,"cityCode":"3340170","cityName":"国网浙江杭州市富阳区供电公司","provinceCode":null,"stopTime":"2019-07-18 13:45:00","powerType":"全部","powerOffArea":"35kV大青变:春建D202线-西邮村2号公路旁后段","powerOffReason":"（低压停电信息）青云2019年铁坎村5#横坞公变等低压台区改造工程进户线、搭接等工作","powerOffId":"2019070531010176"},{"poweroffId":2019070531010175,"sgpoweroffId":null,"subsName":"","lineName":"10kV新阳D841线","pubTranName":"新浦村二联2号凌家公变,","scope":"浙江省-杭州市-富阳区-渌渚镇(新浦行政村-二联凌家自然村);","startTime":"2019-07-19 06:30:00","stopDate":"2019-07-19 13:30:00","orgNo":"3340170","typeCode":"计划停电","poweroffArea":"110kV新桐变:新阳D841线新浦村二联2#凌家公变台区低压开关","poweroffReason":"（低压停电信息）农用线拆装JKLYJ-70*4*9档、拆除JKLYJ-70*4*3档、新架JKLYJ-70*4*3档、新装更换横担14付、拉线5付、人工拔旧杆11支（8米杆）","powerTime":"2019-07-19 13:13:11","powerComm":"已送电","subsNo":"","lineNo":"","tgNo":"","tgName":null,"infoStatus":"1","orgName":"国网浙江杭州市富阳区供电公司","typeName":null,"infoStatusName":null,"dateDay":null,"orgNos":null,"nowTime":null,"countyName":null,"streetName":null,"villageName":null,"roadName":null,"communityName":null,"tranName":null,"sdLineName":null,"cityCode":"3340170","cityName":"国网浙江杭州市富阳区供电公司","provinceCode":null,"stopTime":"2019-07-19 13:30:00","powerType":"全部","powerOffArea":"110kV新桐变:新阳D841线新浦村二联2#凌家公变台区低压开关","powerOffReason":"（低压停电信息）农用线拆装JKLYJ-70*4*9档、拆除JKLYJ-70*4*3档、新架JKLYJ-70*4*3档、新装更换横担14付、拉线5付、人工拔旧杆11支（8米杆）","powerOffId":"2019070531010175"},{"poweroffId":2019070531010174,"sgpoweroffId":null,"subsName":"","lineName":"10kV春建D202线","pubTranName":"西邮村3号公变,","scope":"浙江省-杭州市-富阳区-富春街道(西邮行政村-西邮自然村);","startTime":"2019-07-19 07:00:00","stopDate":"2019-07-19 13:45:00","orgNo":"3340170","typeCode":"计划停电","poweroffArea":"35kV大青变:春建D202线-西邮村3号后段","poweroffReason":"（低压停电信息）青云2019年铁坎村5#横坞公变等低压台区改造工程进户线、搭接、架线、等工作","powerTime":"2019-07-19 13:26:57","powerComm":"已送电","subsNo":"","lineNo":"","tgNo":"","tgName":null,"infoStatus":"1","orgName":"国网浙江杭州市富阳区供电公司","typeName":null,"infoStatusName":null,"dateDay":null,"orgNos":null,"nowTime":null,"countyName":null,"streetName":null,"villageName":null,"roadName":null,"communityName":null,"tranName":null,"sdLineName":null,"cityCode":"3340170","cityName":"国网浙江杭州市富阳区供电公司","provinceCode":null,"stopTime":"2019-07-19 13:45:00","powerType":"全部","powerOffArea":"35kV大青变:春建D202线-西邮村3号后段","powerOffReason":"（低压停电信息）青云2019年铁坎村5#横坞公变等低压台区改造工程进户线、搭接、架线、等工作","powerOffId":"2019070531010174"},{"poweroffId":2019070531010172,"sgpoweroffId":null,"subsName":"","lineName":"10kV西山D785线","pubTranName":"中兴村8号浦西浦西坞公变,","scope":"浙江省-杭州市-富阳区-环山乡(中兴行政村-浦西自然村)一带;","startTime":"2019-07-20 06:30:00","stopDate":"2019-07-20 12:10:00","orgNo":"3340170","typeCode":"计划停电","poweroffArea":"110kV王洲变:西山D785线-中兴村8号浦西浦西坞公变后段","poweroffReason":"（低压停电信息）中兴村8#浦西浦西坞公变吊车立杆、拔杆、放接户线及搭接等工作","powerTime":"2019-07-20 11:55:26","powerComm":"已送电","subsNo":"","lineNo":"","tgNo":"","tgName":null,"infoStatus":"1","orgName":"国网浙江杭州市富阳区供电公司","typeName":null,"infoStatusName":null,"dateDay":null,"orgNos":null,"nowTime":null,"countyName":null,"streetName":null,"villageName":null,"roadName":null,"communityName":null,"tranName":null,"sdLineName":null,"cityCode":"3340170","cityName":"国网浙江杭州市富阳区供电公司","provinceCode":null,"stopTime":"2019-07-20 12:10:00","powerType":"全部","powerOffArea":"110kV王洲变:西山D785线-中兴村8号浦西浦西坞公变后段","powerOffReason":"（低压停电信息）中兴村8#浦西浦西坞公变吊车立杆、拔杆、放接户线及搭接等工作","powerOffId":"2019070531010172"},{"poweroffId":2019070531010144,"sgpoweroffId":null,"subsName":"","lineName":"10kV交通D364线","pubTranName":"秋丰村孙家弄4#公变,","scope":"浙江省-杭州市-富阳区-富春街道(秋丰行政村-秋丰自然村);","startTime":"2019-07-17 08:45:00","stopDate":"2019-07-17 15:00:00","orgNo":"3340170","typeCode":"计划停电","poweroffArea":"110kV富鹿变:交通D364线-秋丰村孙家弄4后段","poweroffReason":"（低压停电信息）青云2019年秋丰村14#庙山东区公变等配变增容布点工程：新上秋丰村62号孙家弄箱变一台，电缆敷设、制作、试验、搭接及低压线路改接等工作。","powerTime":"2019-07-17 14:46:27","powerComm":"已送电","subsNo":"","lineNo":"","tgNo":"","tgName":null,"infoStatus":"1","orgName":"国网浙江杭州市富阳区供电公司","typeName":null,"infoStatusName":null,"dateDay":null,"orgNos":null,"nowTime":null,"countyName":null,"streetName":null,"villageName":null,"roadName":null,"communityName":null,"tranName":null,"sdLineName":null,"cityCode":"3340170","cityName":"国网浙江杭州市富阳区供电公司","provinceCode":null,"stopTime":"2019-07-17 15:00:00","powerType":"全部","powerOffArea":"110kV富鹿变:交通D364线-秋丰村孙家弄4后段","powerOffReason":"（低压停电信息）青云2019年秋丰村14#庙山东区公变等配变增容布点工程：新上秋丰村62号孙家弄箱变一台，电缆敷设、制作、试验、搭接及低压线路改接等工作。","powerOffId":"2019070531010144"}],"pageModel":{"pageNow":1501,"totalCount":17789,"totalPage":1779,"tableRows":0,"pageCount":10,"beginCount":15000},"isExperi":"1"}