{"message":"","today":"2020-06-16","seleList":[{"poweroffId":2019070431020029,"sgpoweroffId":null,"subsName":"","lineName":"10kV恒达C135线","pubTranName":"义南村13#变,","scope":"浙江省-杭州市-萧山区-靖江街道-义南行政村-义南自然村","startTime":"2019-07-15 08:30:00","stopDate":"2019-07-15 13:30:00","orgNo":"3340130","typeCode":"计划停电","poweroffArea":"110kV梅西变:恒达C135线-义南村13#变后段","poweroffReason":"义南村13#变下250上400kVA","powerTime":"2019-07-15 13:23:31","powerComm":"已送电","subsNo":"","lineNo":"","tgNo":"","tgName":null,"infoStatus":"1","orgName":"国网浙江杭州市萧山区供电有限公司","typeName":null,"infoStatusName":null,"dateDay":null,"orgNos":null,"nowTime":null,"countyName":null,"streetName":null,"villageName":null,"roadName":null,"communityName":null,"tranName":null,"sdLineName":null,"cityCode":"3340130","cityName":"国网浙江杭州市萧山区供电有限公司","provinceCode":null,"stopTime":"2019-07-15 13:30:00","powerType":"全部","powerOffArea":"110kV梅西变:恒达C135线-义南村13#变后段","powerOffReason":"义南村13#变下250上400kVA","powerOffId":"2019070431020029"},{"poweroffId":2019070431020028,"sgpoweroffId":null,"subsName":"","lineName":"10kV名苑C683线","pubTranName":"盛东村20#变,新街初中,杭州市萧山区人民政府新街街道办事处计量点,","scope":"浙江省-杭州市-萧山区-新街街道-花城社区-杭州市萧山区人民政府新街街道办事处","startTime":"2019-07-18 08:35:00","stopDate":"2019-07-18 16:30:00","orgNo":"3340130","typeCode":"计划停电","poweroffArea":"110kV新街变:名苑C683线-盛东村20#变后段;名苑C683线-新街街道办事处后段;名苑C683线-新街初中后段;名苑C683线-新街街道办事处后段;名苑C683线-杭州市萧山区人民政府新街街道办事处计量点后段;名苑C683线-新街街道办事处后段","poweroffReason":"名苑C683线22#-25#杆上改下，用户迁改","powerTime":"2019-07-18 16:15:37","powerComm":"已送电","subsNo":"","lineNo":"","tgNo":"","tgName":null,"infoStatus":"1","orgName":"国网浙江杭州市萧山区供电有限公司","typeName":null,"infoStatusName":null,"dateDay":null,"orgNos":null,"nowTime":null,"countyName":null,"streetName":null,"villageName":null,"roadName":null,"communityName":null,"tranName":null,"sdLineName":null,"cityCode":"3340130","cityName":"国网浙江杭州市萧山区供电有限公司","provinceCode":null,"stopTime":"2019-07-18 16:30:00","powerType":"全部","powerOffArea":"110kV新街变:名苑C683线-盛东村20#变后段;名苑C683线-新街街道办事处后段;名苑C683线-新街初中后段;名苑C683线-新街街道办事处后段;名苑C683线-杭州市萧山区人民政府新街街道办事处计量点后段;名苑C683线-新街街道办事处后段","powerOffReason":"名苑C683线22#-25#杆上改下，用户迁改","powerOffId":"2019070431020028"},{"poweroffId":2019070431020025,"sgpoweroffId":null,"subsName":"","lineName":"10kV北星9022线","pubTranName":"郭家,","scope":"浙江省杭州市拱墅区郭家厍74号附近一带","startTime":"2019-07-17 13:30:00","stopDate":"2019-07-17 15:30:00","orgNo":"3340101","typeCode":"计划停电","poweroffArea":"北星9022线郭家","poweroffReason":"郭家更换终端整改二次回路。原停电结束时间17:30、变更停电结束时间15:30原因由于施工现场环境比较复杂，存在不确定因素，因此预估施工时间适当放长了，而实际施工进行得比较顺利，因此该工作提前结束。","powerTime":"2019-07-17 14:44:59","powerComm":"已送电","subsNo":"","lineNo":"","tgNo":"","tgName":null,"infoStatus":"1","orgName":"浙江杭州电力客户服务中心","typeName":null,"infoStatusName":null,"dateDay":null,"orgNos":null,"nowTime":null,"countyName":null,"streetName":null,"villageName":null,"roadName":null,"communityName":null,"tranName":null,"sdLineName":null,"cityCode":"3340101","cityName":"浙江杭州电力客户服务中心","provinceCode":null,"stopTime":"2019-07-17 15:30:00","powerType":"全部","powerOffArea":"北星9022线郭家","powerOffReason":"郭家更换终端整改二次回路。原停电结束时间17:30、变更停电结束时间15:30原因由于施工现场环境比较复杂，存在不确定因素，因此预估施工时间适当放长了，而实际施工进行得比较顺利，因此该工作提前结束。","powerOffId":"2019070431020025"},{"poweroffId":2019070431020024,"sgpoweroffId":null,"subsName":"","lineName":"10kV蚕宣9118线","pubTranName":"宣家(6-5)农,宣家（7-4）农,宣家(7-5)农,","scope":"浙江省杭州市江干区宣家埠村二区、三区及宣家埠村居民委员会附近一带","startTime":"2019-07-18 09:40:00","stopDate":"2019-07-18 16:30:00","orgNo":"3340101","typeCode":"计划停电","poweroffArea":"蚕宣9118线（7688开关—7681开关）","poweroffReason":"城北供电营业部10千伏蚕宣9118线。宣家6农分线、原停电结束时间17:30、变更停电结束时间16:30原因由于施工现场环境比较复杂，存在不确定因素，因此预估施工时间适当放长了，而实际施工进行得比较顺利，因此该工作提前结束。","powerTime":"2019-07-18 16:11:59","powerComm":"已送电","subsNo":"","lineNo":"","tgNo":"","tgName":null,"infoStatus":"1","orgName":"浙江杭州电力客户服务中心","typeName":null,"infoStatusName":null,"dateDay":null,"orgNos":null,"nowTime":null,"countyName":null,"streetName":null,"villageName":null,"roadName":null,"communityName":null,"tranName":null,"sdLineName":null,"cityCode":"3340101","cityName":"浙江杭州电力客户服务中心","provinceCode":null,"stopTime":"2019-07-18 16:30:00","powerType":"全部","powerOffArea":"蚕宣9118线（7688开关—7681开关）","powerOffReason":"城北供电营业部10千伏蚕宣9118线。宣家6农分线、原停电结束时间17:30、变更停电结束时间16:30原因由于施工现场环境比较复杂，存在不确定因素，因此预估施工时间适当放长了，而实际施工进行得比较顺利，因此该工作提前结束。","powerOffId":"2019070431020024"},{"poweroffId":2019070431020020,"sgpoweroffId":null,"subsName":"","lineName":"10kV蚕宣9118线","pubTranName":"宣家（4-2）农,","scope":"浙江省杭州市江干区宣家埠村一区194号、195号及宣家埠村二区51-59、64号附近一带，东城幼儿园","startTime":"2019-07-17 09:30:00","stopDate":"2019-07-17 17:30:00","orgNo":"3340101","typeCode":"计划停电","poweroffArea":"蚕宣9118线（7#杆—7681开关）","poweroffReason":"城北供电营业部10千伏蚕宣9118线等配电线路大修工程","powerTime":"2019-07-17 16:33:26","powerComm":"已送电","subsNo":"","lineNo":"","tgNo":"","tgName":null,"infoStatus":"1","orgName":"浙江杭州电力客户服务中心","typeName":null,"infoStatusName":null,"dateDay":null,"orgNos":null,"nowTime":null,"countyName":null,"streetName":null,"villageName":null,"roadName":null,"communityName":null,"tranName":null,"sdLineName":null,"cityCode":"3340101","cityName":"浙江杭州电力客户服务中心","provinceCode":null,"stopTime":"2019-07-17 17:30:00","powerType":"全部","powerOffArea":"蚕宣9118线（7#杆—7681开关）","powerOffReason":"城北供电营业部10千伏蚕宣9118线等配电线路大修工程","powerOffId":"2019070431020020"},{"poweroffId":2019070431020012,"sgpoweroffId":null,"subsName":"","lineName":"10kV目融6734线","pubTranName":"建一(二),","scope":"浙江省杭州市西湖区天目山路338号2,3,4号楼附近一带，一建建设集团有限公司、杭州建工集团有限责任公司","startTime":"2019-07-17 09:30:00","stopDate":"2019-07-17 17:30:00","orgNo":"3340101","typeCode":"计划停电","poweroffArea":"建设一站建一二配变，新建设一站3#间隔","poweroffReason":"环城北路-天目山路（中河立交-古翠路）提升改造工程10KV电力临时迁改五期工程","powerTime":"2019-07-17 17:20:59","powerComm":"已送电","subsNo":"","lineNo":"","tgNo":"","tgName":null,"infoStatus":"1","orgName":"浙江杭州电力客户服务中心","typeName":null,"infoStatusName":null,"dateDay":null,"orgNos":null,"nowTime":null,"countyName":null,"streetName":null,"villageName":null,"roadName":null,"communityName":null,"tranName":null,"sdLineName":null,"cityCode":"3340101","cityName":"浙江杭州电力客户服务中心","provinceCode":null,"stopTime":"2019-07-17 17:30:00","powerType":"全部","powerOffArea":"建设一站建一二配变，新建设一站3#间隔","powerOffReason":"环城北路-天目山路（中河立交-古翠路）提升改造工程10KV电力临时迁改五期工程","powerOffId":"2019070431020012"},{"poweroffId":2019070431020011,"sgpoweroffId":null,"subsName":"","lineName":"10kV沈家8413线","pubTranName":"沈家(2-1)农,","scope":"浙江省杭州市下城区门婆园38号、50号及废品站附近一带","startTime":"2019-07-16 13:30:00","stopDate":"2019-07-16 16:30:00","orgNo":"3340101","typeCode":"计划停电","poweroffArea":"沈家8413线沈家（2-1）农支线沈家（2-1）农","poweroffReason":"沈家（2-1）农加装接线盒更换终端.原停电结束时间17:30、变更停电结束时间16:30原因由于施工现场环境比较复杂，存在不确定因素，因此预估施工时间适当放长了，而实际施工进行得比较顺利，因此该工作提前结束。","powerTime":"2019-07-16 15:45:59","powerComm":"已送电","subsNo":"","lineNo":"","tgNo":"","tgName":null,"infoStatus":"1","orgName":"浙江杭州电力客户服务中心","typeName":null,"infoStatusName":null,"dateDay":null,"orgNos":null,"nowTime":null,"countyName":null,"streetName":null,"villageName":null,"roadName":null,"communityName":null,"tranName":null,"sdLineName":null,"cityCode":"3340101","cityName":"浙江杭州电力客户服务中心","provinceCode":null,"stopTime":"2019-07-16 16:30:00","powerType":"全部","powerOffArea":"沈家8413线沈家（2-1）农支线沈家（2-1）农","powerOffReason":"沈家（2-1）农加装接线盒更换终端.原停电结束时间17:30、变更停电结束时间16:30原因由于施工现场环境比较复杂，存在不确定因素，因此预估施工时间适当放长了，而实际施工进行得比较顺利，因此该工作提前结束。","powerOffId":"2019070431020011"},{"poweroffId":2019070431020008,"sgpoweroffId":null,"subsName":"","lineName":"10kV目融6734线","pubTranName":"罗马（二）,","scope":"浙江省杭州市西湖区中融城市花园2、3幢附近一带，杭州中融城市花园业主委员会、杭州乐土科技实业有限公司","startTime":"2019-07-16 09:30:00","stopDate":"2019-07-16 16:30:00","orgNo":"3340101","typeCode":"计划停电","poweroffArea":"荡苗7342线（古荡站-万苗站），古荡站邮科二线，邮政科技单侧开关，罗公二线（古荡站-罗公站）","poweroffReason":"环城北路-天目山路（中河立交-古翠路）提升改造工程10KV电力临时迁改五期工程。原停电结束时间17:30、变更停电结束时间16:30原因由于施工现场环境比较复杂，存在不确定因素，因此预估施工时间适当放长了，而实际施工进行得比较顺利，因此该工作提前结束。","powerTime":"2019-07-16 15:59:59","powerComm":"已送电","subsNo":"","lineNo":"","tgNo":"","tgName":null,"infoStatus":"1","orgName":"浙江杭州电力客户服务中心","typeName":null,"infoStatusName":null,"dateDay":null,"orgNos":null,"nowTime":null,"countyName":null,"streetName":null,"villageName":null,"roadName":null,"communityName":null,"tranName":null,"sdLineName":null,"cityCode":"3340101","cityName":"浙江杭州电力客户服务中心","provinceCode":null,"stopTime":"2019-07-16 16:30:00","powerType":"全部","powerOffArea":"荡苗7342线（古荡站-万苗站），古荡站邮科二线，邮政科技单侧开关，罗公二线（古荡站-罗公站）","powerOffReason":"环城北路-天目山路（中河立交-古翠路）提升改造工程10KV电力临时迁改五期工程。原停电结束时间17:30、变更停电结束时间16:30原因由于施工现场环境比较复杂，存在不确定因素，因此预估施工时间适当放长了，而实际施工进行得比较顺利，因此该工作提前结束。","powerOffId":"2019070431020008"},{"poweroffId":2019070431020006,"sgpoweroffId":null,"subsName":"","lineName":"10kV沈奇9421线","pubTranName":"半施,塘供,半灯,","scope":"浙江省杭州市拱墅区湖州街12号附近一带、杭州市路灯管理所、杭州欧宝机电有限公司","startTime":"2019-07-24 09:30:00","stopDate":"2019-07-24 17:30:00","orgNo":"3340101","typeCode":"计划停电","poweroffArea":"110kV石桥变:沈奇9421线-半灯分线后段","poweroffReason":"杭州地铁3号线热水河桥拆复建10KV电力迁改一期工程CZ2019-03-005-YBQQ半灯分线电缆迁改","powerTime":"2019-07-24 16:42:05","powerComm":"已送电","subsNo":"","lineNo":"","tgNo":"","tgName":null,"infoStatus":"1","orgName":"浙江杭州电力客户服务中心","typeName":null,"infoStatusName":null,"dateDay":null,"orgNos":null,"nowTime":null,"countyName":null,"streetName":null,"villageName":null,"roadName":null,"communityName":null,"tranName":null,"sdLineName":null,"cityCode":"3340101","cityName":"浙江杭州电力客户服务中心","provinceCode":null,"stopTime":"2019-07-24 17:30:00","powerType":"全部","powerOffArea":"110kV石桥变:沈奇9421线-半灯分线后段","powerOffReason":"杭州地铁3号线热水河桥拆复建10KV电力迁改一期工程CZ2019-03-005-YBQQ半灯分线电缆迁改","powerOffId":"2019070431020006"},{"poweroffId":2019070431020002,"sgpoweroffId":null,"subsName":"","lineName":"10kV南庄C828线","pubTranName":"南庄王村8#变,石油分公司,蓝翔工艺,南庄王村1#变,南庄王村3#变,铭南化纤,","scope":"浙江省-杭州市-萧山区-衙前镇-南庄王行政村(叶大路,南庄王自然村,庵桥路,新螺路,前房路,大南路,龙记路);衙前镇-南庄王行政村(中国石化销售股份有限公司浙江杭州石油分公司,杭州萧山蓝翔工艺针织厂,杭州铭楠化纤有限公司)","startTime":"2019-07-12 11:00:00","stopDate":"2019-07-12 16:30:00","orgNo":"3340130","typeCode":"计划停电","poweroffArea":"110kV罗山变:南庄C828线-南庄C828线柯亿德实业分线15/03#杆分支后段","poweroffReason":"南庄开柯亿德实业分线15分03分02#杆—15分03分09#杆新立12米电杆7根，新放导线6档，新做普通拉线4组，新装跌落式熔断器1组，落火线重新制作搭接，拆除12米电杆6根，拆除架空线6档，拆除跌落式熔断器1组，拆除普通拉线1组","powerTime":"2019-07-12 15:45:38","powerComm":"已送电","subsNo":"","lineNo":"","tgNo":"","tgName":null,"infoStatus":"1","orgName":"国网浙江杭州市萧山区供电有限公司","typeName":null,"infoStatusName":null,"dateDay":null,"orgNos":null,"nowTime":null,"countyName":null,"streetName":null,"villageName":null,"roadName":null,"communityName":null,"tranName":null,"sdLineName":null,"cityCode":"3340130","cityName":"国网浙江杭州市萧山区供电有限公司","provinceCode":null,"stopTime":"2019-07-12 16:30:00","powerType":"全部","powerOffArea":"110kV罗山变:南庄C828线-南庄C828线柯亿德实业分线15/03#杆分支后段","powerOffReason":"南庄开柯亿德实业分线15分03分02#杆—15分03分09#杆新立12米电杆7根，新放导线6档，新做普通拉线4组，新装跌落式熔断器1组，落火线重新制作搭接，拆除12米电杆6根，拆除架空线6档，拆除跌落式熔断器1组，拆除普通拉线1组","powerOffId":"2019070431020002"}],"pageModel":{"pageNow":1506,"totalCount":17789,"totalPage":1779,"tableRows":0,"pageCount":10,"beginCount":15050},"isExperi":"1"}