{"message":"","today":"2020-06-16","seleList":[{"poweroffId":2019070431020001,"sgpoweroffId":null,"subsName":"","lineName":"10kV霞江C227线","pubTranName":"霞江村16#变,","scope":"浙江省-杭州市-萧山区-新塘街道-霞江行政村(下浦许自然村,霞江自然村)","startTime":"2019-07-12 08:30:00","stopDate":"2019-07-12 16:30:00","orgNo":"3340130","typeCode":"计划停电","poweroffArea":"110kV霞江变:霞江C227线-霞江村16#变后段","poweroffReason":"结合带电作业综合变增量换柜","powerTime":"2019-07-12 15:46:20","powerComm":"已送电","subsNo":"","lineNo":"","tgNo":"","tgName":null,"infoStatus":"1","orgName":"国网浙江杭州市萧山区供电有限公司","typeName":null,"infoStatusName":null,"dateDay":null,"orgNos":null,"nowTime":null,"countyName":null,"streetName":null,"villageName":null,"roadName":null,"communityName":null,"tranName":null,"sdLineName":null,"cityCode":"3340130","cityName":"国网浙江杭州市萧山区供电有限公司","provinceCode":null,"stopTime":"2019-07-12 16:30:00","powerType":"全部","powerOffArea":"110kV霞江变:霞江C227线-霞江村16#变后段","powerOffReason":"结合带电作业综合变增量换柜","powerOffId":"2019070431020001"},{"poweroffId":2019070431010239,"sgpoweroffId":null,"subsName":"","lineName":"10kV砚岭Y177线","pubTranName":"航川村吴潭台区,","scope":"浙江省-杭州市-建德市-航头镇 航川行政村-北八自然村、吴潭自然村、吴潭畈自然村一带用户。","startTime":"2019-07-04 19:00:00","stopDate":"2019-07-04 20:00:00","orgNo":"3340180","typeCode":"电网故障停限电","poweroffArea":"110kV航头变:砚岭Y177线-航川村吴潭台区后段","poweroffReason":"岭Y177线-航川村吴潭台区 低压配电设备故障 原预计停电结束时间21:00，目前故障已修复，现将停电时间变更至20:00。","powerTime":"2019-07-04 19:28:00","powerComm":"已送电","subsNo":"","lineNo":"","tgNo":"","tgName":null,"infoStatus":"1","orgName":"国网浙江建德市供电有限公司","typeName":null,"infoStatusName":null,"dateDay":null,"orgNos":null,"nowTime":null,"countyName":null,"streetName":null,"villageName":null,"roadName":null,"communityName":null,"tranName":null,"sdLineName":null,"cityCode":"3340180","cityName":"国网浙江建德市供电有限公司","provinceCode":null,"stopTime":"2019-07-04 20:00:00","powerType":"全部","powerOffArea":"110kV航头变:砚岭Y177线-航川村吴潭台区后段","powerOffReason":"岭Y177线-航川村吴潭台区 低压配电设备故障 原预计停电结束时间21:00，目前故障已修复，现将停电时间变更至20:00。","powerOffId":"2019070431010239"},{"poweroffId":2019070431010187,"sgpoweroffId":null,"subsName":"","lineName":"10kV宁镇A108线","pubTranName":"宁税村7#变,","scope":"浙江省-杭州市-萧山区-宁围街道，宁围镇(宁税社区-宁税自然村)等一带","startTime":"2019-07-04 15:49:43","stopDate":"2019-07-04 17:30:47","orgNo":"3340130","typeCode":"电网故障停限电","poweroffArea":"110kV惠兴变:宁镇A108线-宁税村7#变台区低压开关","poweroffReason":"低压漏电保护器短路故障","powerTime":"2019-07-04 16:36:36","powerComm":"已送电","subsNo":"","lineNo":"","tgNo":"","tgName":null,"infoStatus":"1","orgName":"国网浙江杭州市萧山区供电有限公司","typeName":null,"infoStatusName":null,"dateDay":null,"orgNos":null,"nowTime":null,"countyName":null,"streetName":null,"villageName":null,"roadName":null,"communityName":null,"tranName":null,"sdLineName":null,"cityCode":"3340130","cityName":"国网浙江杭州市萧山区供电有限公司","provinceCode":null,"stopTime":"2019-07-04 17:30:47","powerType":"全部","powerOffArea":"110kV惠兴变:宁镇A108线-宁税村7#变台区低压开关","powerOffReason":"低压漏电保护器短路故障","powerOffId":"2019070431010187"},{"poweroffId":2019070431010170,"sgpoweroffId":null,"subsName":"","lineName":"10kV临天V644线","pubTranName":"会锦楼公变,中国水利水电第五工程局有限公司1#,中国水利水电第五工程局有限公司1#,国际大酒店公变,","scope":"浙江省杭州市临安市锦城街道中国水利水电第五工程局有限公司,国际大酒店,会锦楼一带。","startTime":"2019-07-11 08:00:00","stopDate":"2019-07-11 13:30:00","orgNo":"3340160","typeCode":"计划停电","poweroffArea":"110kV锦城变:(1)停临天V644线35#杆6445开关,(2)停临天V644线39#杆6444开关。","poweroffReason":"临天V644线37#杆开耐张，做拉线，38#杆拉线拆除。","powerTime":"2019-07-11 13:20:07","powerComm":"已送电","subsNo":"","lineNo":"","tgNo":"","tgName":null,"infoStatus":"1","orgName":"国网浙江临安市供电公司","typeName":null,"infoStatusName":null,"dateDay":null,"orgNos":null,"nowTime":null,"countyName":null,"streetName":null,"villageName":null,"roadName":null,"communityName":null,"tranName":null,"sdLineName":null,"cityCode":"3340160","cityName":"国网浙江临安市供电公司","provinceCode":null,"stopTime":"2019-07-11 13:30:00","powerType":"全部","powerOffArea":"110kV锦城变:(1)停临天V644线35#杆6445开关,(2)停临天V644线39#杆6444开关。","powerOffReason":"临天V644线37#杆开耐张，做拉线，38#杆拉线拆除。","powerOffId":"2019070431010170"},{"poweroffId":2019070431010169,"sgpoweroffId":null,"subsName":"","lineName":"10kV众泰V625线","pubTranName":"杭州易辰汽车工业有限公司9#,杭州易辰汽车工业有限公司7#,杭州易辰汽车工业有限公司4#,杭州易辰汽车工业有限公司6#,杭州易辰汽车工业有限公司10#,杭州易辰汽车工业有限公司2#,杭州易辰汽车工业有限公司1#,杭州易辰汽车工业有限公司5#,杭州易辰汽车工业有限公司3#,杭州易辰汽车工业有限公司11#,杭州易辰汽车工业有限公司8#,","scope":"浙江省杭州市临安市青山湖街道杭州易辰汽车工业有限公司一带","startTime":"2019-07-12 08:00:00","stopDate":"2019-07-12 16:30:00","orgNo":"3340160","typeCode":"计划停电","poweroffArea":"110kV雅观变:众泰V625线全线","poweroffReason":"众泰V625线线路流变更换，保护改定值","powerTime":"2019-07-12 16:20:21","powerComm":"已送电","subsNo":"","lineNo":"","tgNo":"","tgName":null,"infoStatus":"1","orgName":"国网浙江临安市供电公司","typeName":null,"infoStatusName":null,"dateDay":null,"orgNos":null,"nowTime":null,"countyName":null,"streetName":null,"villageName":null,"roadName":null,"communityName":null,"tranName":null,"sdLineName":null,"cityCode":"3340160","cityName":"国网浙江临安市供电公司","provinceCode":null,"stopTime":"2019-07-12 16:30:00","powerType":"全部","powerOffArea":"110kV雅观变:众泰V625线全线","powerOffReason":"众泰V625线线路流变更换，保护改定值","powerOffId":"2019070431010169"},{"poweroffId":2019070431010165,"sgpoweroffId":null,"subsName":"","lineName":"10kV城郊A602线","pubTranName":"城东公变,","scope":"浙江省-杭州市-萧山区-新塘街道(井头王社区-井头王自然村)一带，浙江省杭州市萧山区新塘街道萧绍路507号九龙湾小区","startTime":"2019-07-04 14:10:44","stopDate":"2019-07-04 16:05:19","orgNo":"3340130","typeCode":"电网故障停限电","poweroffArea":"110kV城东变:城郊A602线-城东公变台区低压开关","poweroffReason":"低压电缆短路故障 原停电结束时间：2019-07-04 17:00:51，变更停电结束时间：2019-07-04 16:05:19，由于增派人员，抢修提前完成，故需要提前送电。","powerTime":"2019-07-04 15:28:08","powerComm":"已送电","subsNo":"","lineNo":"","tgNo":"","tgName":null,"infoStatus":"1","orgName":"国网浙江杭州市萧山区供电有限公司","typeName":null,"infoStatusName":null,"dateDay":null,"orgNos":null,"nowTime":null,"countyName":null,"streetName":null,"villageName":null,"roadName":null,"communityName":null,"tranName":null,"sdLineName":null,"cityCode":"3340130","cityName":"国网浙江杭州市萧山区供电有限公司","provinceCode":null,"stopTime":"2019-07-04 16:05:19","powerType":"全部","powerOffArea":"110kV城东变:城郊A602线-城东公变台区低压开关","powerOffReason":"低压电缆短路故障 原停电结束时间：2019-07-04 17:00:51，变更停电结束时间：2019-07-04 16:05:19，由于增派人员，抢修提前完成，故需要提前送电。","powerOffId":"2019070431010165"},{"poweroffId":2019070431010139,"sgpoweroffId":null,"subsName":"","lineName":"10kV陈园C841线","pubTranName":"陈家园村5#变,","scope":"浙江省-杭州市-萧山区-新街街道、新街镇(陈家园行政村-陈家园自然村)等一带","startTime":"2019-07-04 12:51:54","stopDate":"2019-07-04 17:59:59","orgNo":"3340130","typeCode":"电网故障停限电","poweroffArea":"110kV罗山变:陈园C841线-陈家园村5#变台区低压开关","poweroffReason":"低压漏电保护器短路故障","powerTime":"2019-07-04 17:03:48","powerComm":"已送电","subsNo":"","lineNo":"","tgNo":"","tgName":null,"infoStatus":"1","orgName":"国网浙江杭州市萧山区供电有限公司","typeName":null,"infoStatusName":null,"dateDay":null,"orgNos":null,"nowTime":null,"countyName":null,"streetName":null,"villageName":null,"roadName":null,"communityName":null,"tranName":null,"sdLineName":null,"cityCode":"3340130","cityName":"国网浙江杭州市萧山区供电有限公司","provinceCode":null,"stopTime":"2019-07-04 17:59:59","powerType":"全部","powerOffArea":"110kV罗山变:陈园C841线-陈家园村5#变台区低压开关","powerOffReason":"低压漏电保护器短路故障","powerOffId":"2019070431010139"},{"poweroffId":2019070431010138,"sgpoweroffId":null,"subsName":"","lineName":"10kV丁山G866线","pubTranName":"超山村蓬坞公变,超山村早山河公变,杭州博贝过滤机有限公司,超丁村陈店村公变,超丁金属拉丝厂,杭州余杭超丁股份经济合作社,超丁村小丁山公变,杭州中岛实业有限公司,超丁村洋口公变,超丁村田下村公变,蓬坞农居点公变,超山金属配件,超丁村张家埭大队公变,国龙文体,洪肖圩机埠,超丁村丁山桥公变,","scope":"浙江省-杭州市-余杭区-塘栖镇超丁行政村-超丁村,超山行政村-超山村、望梅路;杭州鸿胜金属件有限公司,杭州锐华模具弹簧有限公司,杭州十鼎塑料制品有限公司,杭州市余杭区塘栖镇超丁村村民委员会,杭州万良绝缘材料有限公司,杭州余杭超丁股份经济合作社,杭州中岛实业有限公司一带","startTime":"2019-07-04 12:48:00","stopDate":"2019-07-04 15:00:00","orgNo":"3340140","typeCode":"电网故障停限电","poweroffArea":"110kV漳河变:丁山G866线-早山分支箱分线后段 原停电结束时间为17点00分，由于施工力量强大，提前完成工作，现变更至15点00分","poweroffReason":"早山分支箱分线后段 电缆断线故障 原停电结束时间为17点00分，由于施工力量强大，提前完成工作，现变更至15点00分","powerTime":"2019-07-04 14:35:00","powerComm":"已送电","subsNo":"","lineNo":"","tgNo":"","tgName":null,"infoStatus":"1","orgName":"国网浙江杭州市余杭区供电有限公司","typeName":null,"infoStatusName":null,"dateDay":null,"orgNos":null,"nowTime":null,"countyName":null,"streetName":null,"villageName":null,"roadName":null,"communityName":null,"tranName":null,"sdLineName":null,"cityCode":"3340140","cityName":"国网浙江杭州市余杭区供电有限公司","provinceCode":null,"stopTime":"2019-07-04 15:00:00","powerType":"全部","powerOffArea":"110kV漳河变:丁山G866线-早山分支箱分线后段 原停电结束时间为17点00分，由于施工力量强大，提前完成工作，现变更至15点00分","powerOffReason":"早山分支箱分线后段 电缆断线故障 原停电结束时间为17点00分，由于施工力量强大，提前完成工作，现变更至15点00分","powerOffId":"2019070431010138"},{"poweroffId":2019070431010137,"sgpoweroffId":null,"subsName":"","lineName":"10kV天井T450线","pubTranName":"石马小区1号公变,","scope":"浙江省-杭州市-桐庐县-城南街道(梅林社区-春江东路、石马小区12幢、金竹小区一带);","startTime":"2019-07-04 12:45:11","stopDate":"2019-07-04 16:56:39","orgNo":"3340150","typeCode":"电网故障停限电","poweroffArea":"110kV下杭变:天井T450线-石马小区1号公变后段","poweroffReason":"低压开关故障，原停电结束时间2019-07-04 15:59:04，变更停电结束时间：2019-07-04 16:56:39，原因：因现场人员不足原因，停电延时。","powerTime":"2019-07-04 16:49:11","powerComm":"因现场人员不足原因，停电延时。","subsNo":"","lineNo":"","tgNo":"","tgName":null,"infoStatus":"1","orgName":"国网浙江桐庐县供电公司","typeName":null,"infoStatusName":null,"dateDay":null,"orgNos":null,"nowTime":null,"countyName":null,"streetName":null,"villageName":null,"roadName":null,"communityName":null,"tranName":null,"sdLineName":null,"cityCode":"3340150","cityName":"国网浙江桐庐县供电公司","provinceCode":null,"stopTime":"2019-07-04 16:56:39","powerType":"全部","powerOffArea":"110kV下杭变:天井T450线-石马小区1号公变后段","powerOffReason":"低压开关故障，原停电结束时间2019-07-04 15:59:04，变更停电结束时间：2019-07-04 16:56:39，原因：因现场人员不足原因，停电延时。","powerOffId":"2019070431010137"},{"poweroffId":2019070431010130,"sgpoweroffId":null,"subsName":"","lineName":"10kV秀峰T186线","pubTranName":"沙湾1号公变,","scope":"浙江省-杭州市-桐庐县-富春江镇(七里泷行政村-沙湾自然村);","startTime":"2019-07-04 12:08:50","stopDate":"2019-07-04 17:00:55","orgNo":"3340150","typeCode":"电网故障停限电","poweroffArea":"110kV外董变:秀峰T186线-沙湾1号公变后段","poweroffReason":"低压开关故障。","powerTime":"2019-07-04 16:43:50","powerComm":"已送电。","subsNo":"","lineNo":"","tgNo":"","tgName":null,"infoStatus":"1","orgName":"国网浙江桐庐县供电公司","typeName":null,"infoStatusName":null,"dateDay":null,"orgNos":null,"nowTime":null,"countyName":null,"streetName":null,"villageName":null,"roadName":null,"communityName":null,"tranName":null,"sdLineName":null,"cityCode":"3340150","cityName":"国网浙江桐庐县供电公司","provinceCode":null,"stopTime":"2019-07-04 17:00:55","powerType":"全部","powerOffArea":"110kV外董变:秀峰T186线-沙湾1号公变后段","powerOffReason":"低压开关故障。","powerOffId":"2019070431010130"}],"pageModel":{"pageNow":1507,"totalCount":17789,"totalPage":1779,"tableRows":0,"pageCount":10,"beginCount":15060},"isExperi":"1"}