{"message":"","today":"2020-06-16","seleList":[{"poweroffId":2019070431010111,"sgpoweroffId":null,"subsName":"","lineName":"10kV学东8654线","pubTranName":"西子科技3#,浙江移动双路内部二2#,华门2#,西子科技4#,电限1#变,浙工报,古荡工专2#,电限1#变,浙江移动双路内部二1#,浙江移动双路内部二3#,","scope":"浙江省-杭州市-西湖区-翠苑街道(黄姑山社区-文三路、学院路);(杭州古荡湾股份经济合作社,浙江大管家物业管理服务有限公司杭州分公司,浙江工人日报社,中国电子进出口浙江有限公司,中国移动通信集团浙江有限公司);","startTime":"2019-07-04 10:35:08","stopDate":"2019-07-04 12:20:08","orgNo":"3340101","typeCode":"电网故障停限电","poweroffArea":"220kV庆丰变:学东8654线","poweroffReason":"高压开关跳闸 原预计停电结束时间2019-07-04 16:35:08,由于施工现场环境比较复杂，存在不确定因素，因此预估施工时间适当放长了， 而实际施工进行得比较顺利，因此提前送电了","powerTime":"2019-07-04 11:28:28","powerComm":"送电","subsNo":"","lineNo":"","tgNo":"","tgName":null,"infoStatus":"1","orgName":"浙江杭州电力客户服务中心","typeName":null,"infoStatusName":null,"dateDay":null,"orgNos":null,"nowTime":null,"countyName":null,"streetName":null,"villageName":null,"roadName":null,"communityName":null,"tranName":null,"sdLineName":null,"cityCode":"3340101","cityName":"浙江杭州电力客户服务中心","provinceCode":null,"stopTime":"2019-07-04 12:20:08","powerType":"全部","powerOffArea":"220kV庆丰变:学东8654线","powerOffReason":"高压开关跳闸 原预计停电结束时间2019-07-04 16:35:08,由于施工现场环境比较复杂，存在不确定因素，因此预估施工时间适当放长了， 而实际施工进行得比较顺利，因此提前送电了","powerOffId":"2019070431010111"},{"poweroffId":2019070431010097,"sgpoweroffId":null,"subsName":"","lineName":"10kV横筑A187线","pubTranName":"工业专用变,杭州建定方向机有限公司,湘南村3#变,湘东村3#变,杭州六强养殖有限公司,湘南村14#变,湘南村1#变,杭州天路机械有限公司,湘南村13#变,杭州峡山农业科技有限公司,湘南村2#变,杭州萧山钱江冲压件有限公司,湘东村1#变,湘南村4#变,湘东村2#变,","scope":"浙江省-杭州市-萧山区-义桥镇(湘东行政村-横筑塘自然村、潘家里自然村、吴家里自然村、徐家里自然村,湘南行政村-峡山头自然村);(杭州吉鸿机电有限公司,杭州建定方向机有限公司,杭州六强养殖有限公司,杭州天路机械有限公司,杭州峡山农业科技有限公司,杭州萧山钱江冲压件有限公司)一带","startTime":"2019-07-04 09:49:19","stopDate":"2019-07-04 16:30:58","orgNo":"3340130","typeCode":"电网故障停限电","poweroffArea":"110kV群建变:横筑A187线-横筑A1871开关后段","poweroffReason":"高压柱上断路器短路故障 原停电结束时间：2019-07-04 17:00，变更停电结束时间：2019-07-04 16:30，由于增派人员，抢修提前完成，故需要提前送电。","powerTime":"2019-07-04 15:36:50","powerComm":"已送电","subsNo":"","lineNo":"","tgNo":"","tgName":null,"infoStatus":"1","orgName":"国网浙江杭州市萧山区供电有限公司","typeName":null,"infoStatusName":null,"dateDay":null,"orgNos":null,"nowTime":null,"countyName":null,"streetName":null,"villageName":null,"roadName":null,"communityName":null,"tranName":null,"sdLineName":null,"cityCode":"3340130","cityName":"国网浙江杭州市萧山区供电有限公司","provinceCode":null,"stopTime":"2019-07-04 16:30:58","powerType":"全部","powerOffArea":"110kV群建变:横筑A187线-横筑A1871开关后段","powerOffReason":"高压柱上断路器短路故障 原停电结束时间：2019-07-04 17:00，变更停电结束时间：2019-07-04 16:30，由于增派人员，抢修提前完成，故需要提前送电。","powerOffId":"2019070431010097"},{"poweroffId":2019070431010085,"sgpoweroffId":null,"subsName":"","lineName":"10kV潘塘H435线","pubTranName":"西塘河村村叶家里公变,","scope":"浙江省-杭州市-余杭区-良渚街道西塘河行政村-潘塘自然村一带","startTime":"2019-07-04 09:20:00","stopDate":"2019-07-04 12:00:00","orgNo":"3340140","typeCode":"电网故障停限电","poweroffArea":"110kV勾庄变:潘塘H435线-西塘河村村叶家里公变后段","poweroffReason":"西塘河村村叶家里公变后段 低压导线断线故障","powerTime":"2019-07-04 11:32:00","powerComm":"已送电","subsNo":"","lineNo":"","tgNo":"","tgName":null,"infoStatus":"1","orgName":"国网浙江杭州市余杭区供电有限公司","typeName":null,"infoStatusName":null,"dateDay":null,"orgNos":null,"nowTime":null,"countyName":null,"streetName":null,"villageName":null,"roadName":null,"communityName":null,"tranName":null,"sdLineName":null,"cityCode":"3340140","cityName":"国网浙江杭州市余杭区供电有限公司","provinceCode":null,"stopTime":"2019-07-04 12:00:00","powerType":"全部","powerOffArea":"110kV勾庄变:潘塘H435线-西塘河村村叶家里公变后段","powerOffReason":"西塘河村村叶家里公变后段 低压导线断线故障","powerOffId":"2019070431010085"},{"poweroffId":2019070431010039,"sgpoweroffId":null,"subsName":"","lineName":"10kV陈园C841线","pubTranName":"陈家园村5#变,","scope":"浙江省-杭州市-萧山区-新街镇--新街街道、陈家园行政村、陈家园自然村等一带","startTime":"2019-07-04 07:33:25","stopDate":"2019-07-04 13:11:08","orgNo":"3340130","typeCode":"电网故障停限电","poweroffArea":"110kV罗山变:陈园C841线-陈家园村5#变台区低压开关","poweroffReason":"低压漏电保护器短路故障","powerTime":"2019-07-04 12:14:38","powerComm":"已送电","subsNo":"","lineNo":"","tgNo":"","tgName":null,"infoStatus":"1","orgName":"国网浙江杭州市萧山区供电有限公司","typeName":null,"infoStatusName":null,"dateDay":null,"orgNos":null,"nowTime":null,"countyName":null,"streetName":null,"villageName":null,"roadName":null,"communityName":null,"tranName":null,"sdLineName":null,"cityCode":"3340130","cityName":"国网浙江杭州市萧山区供电有限公司","provinceCode":null,"stopTime":"2019-07-04 13:11:08","powerType":"全部","powerOffArea":"110kV罗山变:陈园C841线-陈家园村5#变台区低压开关","powerOffReason":"低压漏电保护器短路故障","powerOffId":"2019070431010039"},{"poweroffId":2019070431010022,"sgpoweroffId":null,"subsName":"","lineName":"10kV来前A440线","pubTranName":"章潘桥村立新3#变,杭州奇佳皮革有限公司,起重机厂,杭州芫昌智能设备科技有限公司,章潘桥村立新1#变,丰和皮革1#,正强万向节2#,杭州丰和皮革有限公司,立达管业1#,丰和皮革2#,3#,章潘桥村犁头金3#变,姚家畈村5#变,变压器,杭州千里马纺织有限公司,章潘桥村立新4#变,章潘桥村犁头金2#变,姚家畈村4#变,章潘桥村犁头金1#变,","scope":"浙江省-杭州市-萧山区-蜀山街道(章潘桥行政村-犁头金自然村、立新自然村、姚家畈自然村);(杭州丰和皮革有限公司,杭州立达管业有限公司,杭州奇佳皮革有限公司,杭州千里马纺织有限公司,杭州萧山江南起重机械厂,杭州正强万向节有限公司,杭州芫昌智能设备科技有限公司)一带。浙江省杭州市萧山区张潘桥要姚家畈新区兴隆村","startTime":"2019-07-04 06:10:00","stopDate":"2019-07-04 11:00:08","orgNo":"3340130","typeCode":"电网故障停限电","poweroffArea":"110kV来苏变:来前A440线-来前A440线祥邦开孔湖分线开关后段","poweroffReason":"外力破坏引起来前A440线高压柱上断路器短路故障 原停电结束时间：2019-07-04 09:00:00，变更停电结束时间2019-07-04 11:00:08，由于抢修工作难度大，故需要延迟送电。","powerTime":"2019-07-04 10:32:11","powerComm":"已送电","subsNo":"","lineNo":"","tgNo":"","tgName":null,"infoStatus":"1","orgName":"国网浙江杭州市萧山区供电有限公司","typeName":null,"infoStatusName":null,"dateDay":null,"orgNos":null,"nowTime":null,"countyName":null,"streetName":null,"villageName":null,"roadName":null,"communityName":null,"tranName":null,"sdLineName":null,"cityCode":"3340130","cityName":"国网浙江杭州市萧山区供电有限公司","provinceCode":null,"stopTime":"2019-07-04 11:00:08","powerType":"全部","powerOffArea":"110kV来苏变:来前A440线-来前A440线祥邦开孔湖分线开关后段","powerOffReason":"外力破坏引起来前A440线高压柱上断路器短路故障 原停电结束时间：2019-07-04 09:00:00，变更停电结束时间2019-07-04 11:00:08，由于抢修工作难度大，故需要延迟送电。","powerOffId":"2019070431010022"},{"poweroffId":2019070331020080,"sgpoweroffId":null,"subsName":"","lineName":"10kV吴家052线","pubTranName":"五丰村14号渡口公变,五丰村12号中南路公变,五丰村15号埠头公变,五丰村8号育才路公变,五丰村1#上沙变,五丰村5#下沙变,五丰村2#加工场变,五丰村13号大机埠公变,五丰村6号中沙变,五丰村3#村委变,五丰村10号迎宾路公变,五丰村4#前沙变,五丰村9#前沙2#公变,五丰村11号西公变,","scope":"浙江省-杭州市-富阳区-东洲街道-五丰行政村-五丰自然村","startTime":"2019-07-03 21:32:47","stopDate":"2019-07-03 22:52:49","orgNo":"3340170","typeCode":"电网故障停限电","poweroffArea":"35kV袁浦临:吴家052线首端，农用支分线，五丰西支分线之间","poweroffReason":"高压开关跳闸，该故障停电结束时间为2019-07-03 22:32:49因抢修难度大变更至2019-07-03 22:52:49","powerTime":"2019-07-03 22:23:32","powerComm":"已送电","subsNo":"","lineNo":"","tgNo":"","tgName":null,"infoStatus":"1","orgName":"国网浙江杭州市富阳区供电公司","typeName":null,"infoStatusName":null,"dateDay":null,"orgNos":null,"nowTime":null,"countyName":null,"streetName":null,"villageName":null,"roadName":null,"communityName":null,"tranName":null,"sdLineName":null,"cityCode":"3340170","cityName":"国网浙江杭州市富阳区供电公司","provinceCode":null,"stopTime":"2019-07-03 22:52:49","powerType":"全部","powerOffArea":"35kV袁浦临:吴家052线首端，农用支分线，五丰西支分线之间","powerOffReason":"高压开关跳闸，该故障停电结束时间为2019-07-03 22:32:49因抢修难度大变更至2019-07-03 22:52:49","powerOffId":"2019070331020080"},{"poweroffId":2019070331020065,"sgpoweroffId":null,"subsName":"","lineName":"10kV童家Y178线","pubTranName":"卜家蓬村小塘岗台区,卜家蓬村长西垅台区,卜家蓬村上马山台区,卜家蓬村卜家蓬台区,建德市寿昌镇根富水晶厂,建德市日日贸易有限公司2#,建德千岛湖通用机场有限公司,卜家蓬村月塘下台区,建德千岛湖通用机场有限公司1#变,建德市资产经营开发有限公司,建德市日日贸易有限公司1#,","scope":"浙江省-杭州市-建德市-寿昌镇 卜家蓬行政村 卜家蓬自然村、上马山自然村、长西垅自然村、小塘岗自然村、月塘下自然村一带用户。","startTime":"2019-07-11 06:30:00","stopDate":"2019-07-11 18:00:00","orgNo":"3340180","typeCode":"计划停电","poweroffArea":"110kV航头变:童家Y178线首端，童家Y1781开关，童家Y1782开关之间;童家Y178线-小塘岗支线0#杆令克后段;童家Y178线-长明分支线0#杆令克后段;童家Y178线-扬垄山支线0#杆令克后段","poweroffReason":"110千伏卜家蓬变10千伏童家、航卜线配套送出工程 原预计停电结束时间16:00，由于施工现场环境比较复杂，存在不确定因素，因此预估施工时间不足，延迟送电至18:00.","powerTime":"2019-07-11 17:21:19","powerComm":"已送电","subsNo":"","lineNo":"","tgNo":"","tgName":null,"infoStatus":"1","orgName":"国网浙江建德市供电有限公司","typeName":null,"infoStatusName":null,"dateDay":null,"orgNos":null,"nowTime":null,"countyName":null,"streetName":null,"villageName":null,"roadName":null,"communityName":null,"tranName":null,"sdLineName":null,"cityCode":"3340180","cityName":"国网浙江建德市供电有限公司","provinceCode":null,"stopTime":"2019-07-11 18:00:00","powerType":"全部","powerOffArea":"110kV航头变:童家Y178线首端，童家Y1781开关，童家Y1782开关之间;童家Y178线-小塘岗支线0#杆令克后段;童家Y178线-长明分支线0#杆令克后段;童家Y178线-扬垄山支线0#杆令克后段","powerOffReason":"110千伏卜家蓬变10千伏童家、航卜线配套送出工程 原预计停电结束时间16:00，由于施工现场环境比较复杂，存在不确定因素，因此预估施工时间不足，延迟送电至18:00.","powerOffId":"2019070331020065"},{"poweroffId":2019070331020033,"sgpoweroffId":null,"subsName":"","lineName":"10kV东联A490线","pubTranName":"五六二村13#变,赵家湾村10#变,东联村10#变,","scope":"浙江省-杭州市-萧山区-益农镇-五六二行政村-五六二自然村","startTime":"2019-07-11 08:30:00","stopDate":"2019-07-11 14:30:00","orgNo":"3340130","typeCode":"计划停电","poweroffArea":"110kV群围变:东联A490线-五六二村13#变后段;东联A490线-赵家湾村10#变后段;东联A490线-东联村10#变后段","poweroffReason":"东联村10#变下200kVA上400kVA","powerTime":"2019-07-11 13:47:13","powerComm":"已送电","subsNo":"","lineNo":"","tgNo":"","tgName":null,"infoStatus":"1","orgName":"国网浙江杭州市萧山区供电有限公司","typeName":null,"infoStatusName":null,"dateDay":null,"orgNos":null,"nowTime":null,"countyName":null,"streetName":null,"villageName":null,"roadName":null,"communityName":null,"tranName":null,"sdLineName":null,"cityCode":"3340130","cityName":"国网浙江杭州市萧山区供电有限公司","provinceCode":null,"stopTime":"2019-07-11 14:30:00","powerType":"全部","powerOffArea":"110kV群围变:东联A490线-五六二村13#变后段;东联A490线-赵家湾村10#变后段;东联A490线-东联村10#变后段","powerOffReason":"东联村10#变下200kVA上400kVA","powerOffId":"2019070331020033"},{"poweroffId":2019070331020011,"sgpoweroffId":null,"subsName":"","lineName":"10kV美树H579线","pubTranName":"行宫塘村厍头斗东公变,","scope":"浙江省杭州市余杭区良渚街道：厍头斗东一带。","startTime":"2019-07-12 08:40:00","stopDate":"2019-07-12 11:40:00","orgNo":"3340140","typeCode":"计划停电","poweroffArea":"110kV南庄变:美树H579线-厍头斗分线5号杆","poweroffReason":"拆除原美树H579线厍头斗分线7号杆至12号杆，拆除厍头斗东公变","powerTime":"2019-07-12 11:15:34","powerComm":"已送电","subsNo":"","lineNo":"","tgNo":"","tgName":null,"infoStatus":"1","orgName":"国网浙江杭州市余杭区供电有限公司","typeName":null,"infoStatusName":null,"dateDay":null,"orgNos":null,"nowTime":null,"countyName":null,"streetName":null,"villageName":null,"roadName":null,"communityName":null,"tranName":null,"sdLineName":null,"cityCode":"3340140","cityName":"国网浙江杭州市余杭区供电有限公司","provinceCode":null,"stopTime":"2019-07-12 11:40:00","powerType":"全部","powerOffArea":"110kV南庄变:美树H579线-厍头斗分线5号杆","powerOffReason":"拆除原美树H579线厍头斗分线7号杆至12号杆，拆除厍头斗东公变","powerOffId":"2019070331020011"},{"poweroffId":2019070331020010,"sgpoweroffId":null,"subsName":"","lineName":"10kV杜甫H438线","pubTranName":"杭州良渚新城城建投资有限公司,杭州良渚新城城建投资有限公司,杭州良渚新城城建投资有限公司,","scope":"浙江省杭州市余杭区良渚街道：杜甫四期1号建设、杜甫四期2号建设、良渚新城一带","startTime":"2019-07-12 08:40:00","stopDate":"2019-07-12 12:10:00","orgNo":"3340140","typeCode":"计划停电","poweroffArea":"110kV勾庄变:杜甫H438线-杜甫四期基建变分线开关后段 因施工力量加强，提前送电，原停电结束时间：2019-07-12 13:40:00，现停电结束时间：2019-07-12 12:10:00","poweroffReason":"杜甫H438线杜甫4期基建分线新立电杆4基，新装真空开关2台，新放导线5档，新增2台400kVA基建箱变。","powerTime":"2019-07-12 11:33:47","powerComm":"已送电","subsNo":"","lineNo":"","tgNo":"","tgName":null,"infoStatus":"1","orgName":"国网浙江杭州市余杭区供电有限公司","typeName":null,"infoStatusName":null,"dateDay":null,"orgNos":null,"nowTime":null,"countyName":null,"streetName":null,"villageName":null,"roadName":null,"communityName":null,"tranName":null,"sdLineName":null,"cityCode":"3340140","cityName":"国网浙江杭州市余杭区供电有限公司","provinceCode":null,"stopTime":"2019-07-12 12:10:00","powerType":"全部","powerOffArea":"110kV勾庄变:杜甫H438线-杜甫四期基建变分线开关后段 因施工力量加强，提前送电，原停电结束时间：2019-07-12 13:40:00，现停电结束时间：2019-07-12 12:10:00","powerOffReason":"杜甫H438线杜甫4期基建分线新立电杆4基，新装真空开关2台，新放导线5档，新增2台400kVA基建箱变。","powerOffId":"2019070331020010"}],"pageModel":{"pageNow":1508,"totalCount":17789,"totalPage":1779,"tableRows":0,"pageCount":10,"beginCount":15070},"isExperi":"1"}