{"message":"","today":"2020-06-16","seleList":[{"poweroffId":2019070331020009,"sgpoweroffId":null,"subsName":"","lineName":"10kV金缘H437线","pubTranName":"勾庄村东斗河北2号公变,","scope":"浙江省杭州市余杭区良渚街道：勾庄村东斗河北2一带","startTime":"2019-07-11 08:40:00","stopDate":"2019-07-11 13:40:00","orgNo":"3340140","typeCode":"计划停电","poweroffArea":"110kV勾庄变:金缘H437线-金缘H4372开关至金缘H4373开关","poweroffReason":"金缘H437线23加3号杆上新上4台东西塘河农居点基建变4台","powerTime":"2019-07-11 13:04:30","powerComm":"已送电","subsNo":"","lineNo":"","tgNo":"","tgName":null,"infoStatus":"1","orgName":"国网浙江杭州市余杭区供电有限公司","typeName":null,"infoStatusName":null,"dateDay":null,"orgNos":null,"nowTime":null,"countyName":null,"streetName":null,"villageName":null,"roadName":null,"communityName":null,"tranName":null,"sdLineName":null,"cityCode":"3340140","cityName":"国网浙江杭州市余杭区供电有限公司","provinceCode":null,"stopTime":"2019-07-11 13:40:00","powerType":"全部","powerOffArea":"110kV勾庄变:金缘H437线-金缘H4372开关至金缘H4373开关","powerOffReason":"金缘H437线23加3号杆上新上4台东西塘河农居点基建变4台","powerOffId":"2019070331020009"},{"poweroffId":2019070331020003,"sgpoweroffId":null,"subsName":"","lineName":"10kV大市R161线","pubTranName":"洞坞公变,","scope":"浙江省-杭州市-淳安县-大墅镇-洞坞行政村-洞坞自然村","startTime":"2019-07-05 08:00:00","stopDate":"2019-07-05 13:00:00","orgNo":"3340190","typeCode":"临时停电","poweroffArea":"35kV大市变:大市R161线-洞坞公变跌落式熔断器后段","poweroffReason":"洞坞公变增容","powerTime":"2019-07-05 12:53:27","powerComm":"现场工作已完成","subsNo":"","lineNo":"","tgNo":"","tgName":null,"infoStatus":"1","orgName":"国网浙江淳安县供电有限公司","typeName":null,"infoStatusName":null,"dateDay":null,"orgNos":null,"nowTime":null,"countyName":null,"streetName":null,"villageName":null,"roadName":null,"communityName":null,"tranName":null,"sdLineName":null,"cityCode":"3340190","cityName":"国网浙江淳安县供电有限公司","provinceCode":null,"stopTime":"2019-07-05 13:00:00","powerType":"全部","powerOffArea":"35kV大市变:大市R161线-洞坞公变跌落式熔断器后段","powerOffReason":"洞坞公变增容","powerOffId":"2019070331020003"},{"poweroffId":2019070331010275,"sgpoweroffId":null,"subsName":"","lineName":"10kV万美C117线","pubTranName":"萧西公变,","scope":"浙江省-杭州市-萧山区-城厢街道(万寿桥社区-萧西路);西山公寓、湘湖路18号、湘湖路一带","startTime":"2019-07-03 23:40:00","stopDate":"2019-07-04 02:30:00","orgNo":"3340130","typeCode":"电网故障停限电","poweroffArea":"110kV丽都变:万美C117线-萧西公变台区低压开关","poweroffReason":"变压器缺相，柱上断路器坏，原停电结束时间：2019-07-04 10:00:00，变更停电结束时间：2019-07-04 02:30:00，变更停电结束时间原因：由于抢修工作提前结束，故需要提前送电。","powerTime":"2019-07-04 01:49:14","powerComm":"已送电","subsNo":"","lineNo":"","tgNo":"","tgName":null,"infoStatus":"1","orgName":"国网浙江杭州市萧山区供电有限公司","typeName":null,"infoStatusName":null,"dateDay":null,"orgNos":null,"nowTime":null,"countyName":null,"streetName":null,"villageName":null,"roadName":null,"communityName":null,"tranName":null,"sdLineName":null,"cityCode":"3340130","cityName":"国网浙江杭州市萧山区供电有限公司","provinceCode":null,"stopTime":"2019-07-04 02:30:00","powerType":"全部","powerOffArea":"110kV丽都变:万美C117线-萧西公变台区低压开关","powerOffReason":"变压器缺相，柱上断路器坏，原停电结束时间：2019-07-04 10:00:00，变更停电结束时间：2019-07-04 02:30:00，变更停电结束时间原因：由于抢修工作提前结束，故需要提前送电。","powerOffId":"2019070331010275"},{"poweroffId":2019070331010214,"sgpoweroffId":null,"subsName":"","lineName":"10kV金鹭A122线","pubTranName":"春江天玺7#公变,","scope":"浙江省杭州市萧山区北干街道-天悦社区-建设四路;经济技术开发区-龙湖物业服务集团有限公司杭州分公司,北干街道(杭州市萧山区市政绿化养护保障中心,龙湖物业服务集团有限公司杭州分公司)、龙湖春江天玺、龙湖天玺一带","startTime":"2019-07-03 16:55:00","stopDate":"2019-07-03 19:30:00","orgNo":"3340130","typeCode":"电网故障停限电","poweroffArea":"110kV惠兴变:金鹭A122线-春江天玺7#公变台区低压开关","poweroffReason":"开关跳闸，原停电结束时间：2019-07-03 23:00:00，变更停电结束时间：2019-07-03 19:30:00，变更停电结束时间原因：由于抢修工作提前结束，故需要提前送电。","powerTime":"2019-07-03 18:46:48","powerComm":"已送电","subsNo":"","lineNo":"","tgNo":"","tgName":null,"infoStatus":"1","orgName":"国网浙江杭州市萧山区供电有限公司","typeName":null,"infoStatusName":null,"dateDay":null,"orgNos":null,"nowTime":null,"countyName":null,"streetName":null,"villageName":null,"roadName":null,"communityName":null,"tranName":null,"sdLineName":null,"cityCode":"3340130","cityName":"国网浙江杭州市萧山区供电有限公司","provinceCode":null,"stopTime":"2019-07-03 19:30:00","powerType":"全部","powerOffArea":"110kV惠兴变:金鹭A122线-春江天玺7#公变台区低压开关","powerOffReason":"开关跳闸，原停电结束时间：2019-07-03 23:00:00，变更停电结束时间：2019-07-03 19:30:00，变更停电结束时间原因：由于抢修工作提前结束，故需要提前送电。","powerOffId":"2019070331010214"},{"poweroffId":2019070331010207,"sgpoweroffId":null,"subsName":"","lineName":"10kV大坝Y129线","pubTranName":"东门街2#公变,","scope":"浙江省-杭州市-建德市-梅城镇 严陵社区-东门街、市民路 严陵社区正大街一带用户。","startTime":"2019-07-03 16:25:00","stopDate":"2019-07-03 18:30:00","orgNo":"3340180","typeCode":"电网故障停限电","poweroffArea":"110kV梅城变:大坝Y129线-东门街2#公变后段","poweroffReason":"大坝Y129线-东门街2号公变低压配电设备故障 原预计停电结束时间20:30，由于施工现场环境比较复杂，存在不确定因素，因此预估施工时间适当放长了,目前故障已修复，现将停电结束时间变更至18:30","powerTime":"2019-07-03 18:03:00","powerComm":"已送电","subsNo":"","lineNo":"","tgNo":"","tgName":null,"infoStatus":"1","orgName":"国网浙江建德市供电有限公司","typeName":null,"infoStatusName":null,"dateDay":null,"orgNos":null,"nowTime":null,"countyName":null,"streetName":null,"villageName":null,"roadName":null,"communityName":null,"tranName":null,"sdLineName":null,"cityCode":"3340180","cityName":"国网浙江建德市供电有限公司","provinceCode":null,"stopTime":"2019-07-03 18:30:00","powerType":"全部","powerOffArea":"110kV梅城变:大坝Y129线-东门街2#公变后段","powerOffReason":"大坝Y129线-东门街2号公变低压配电设备故障 原预计停电结束时间20:30，由于施工现场环境比较复杂，存在不确定因素，因此预估施工时间适当放长了,目前故障已修复，现将停电结束时间变更至18:30","powerOffId":"2019070331010207"},{"poweroffId":2019070331010200,"sgpoweroffId":null,"subsName":"","lineName":"10kV绿号6311线","pubTranName":"九龙(十一),","scope":"浙江省-杭州市-西湖区-转塘街道(方家畈社区-绿城之江1号小区);","startTime":"2019-07-03 15:58:42","stopDate":"2019-07-03 19:08:42","orgNo":"3340101","typeCode":"电网故障停限电","poweroffArea":"110kV转塘变:绿号6311线-九龙(十一)变","poweroffReason":"九龙(十一)变 低压设备故障 原预计停电结束时间2019-07-03 21:58:42,由于施工现场环境比较复杂，存在不确定因素，因此预估施工时间适当放长了，而实际施工进行得比较顺利，因此提前送电了","powerTime":"2019-07-03 18:32:27","powerComm":"已送电","subsNo":"","lineNo":"","tgNo":"","tgName":null,"infoStatus":"1","orgName":"浙江杭州电力客户服务中心","typeName":null,"infoStatusName":null,"dateDay":null,"orgNos":null,"nowTime":null,"countyName":null,"streetName":null,"villageName":null,"roadName":null,"communityName":null,"tranName":null,"sdLineName":null,"cityCode":"3340101","cityName":"浙江杭州电力客户服务中心","provinceCode":null,"stopTime":"2019-07-03 19:08:42","powerType":"全部","powerOffArea":"110kV转塘变:绿号6311线-九龙(十一)变","powerOffReason":"九龙(十一)变 低压设备故障 原预计停电结束时间2019-07-03 21:58:42,由于施工现场环境比较复杂，存在不确定因素，因此预估施工时间适当放长了，而实际施工进行得比较顺利，因此提前送电了","powerOffId":"2019070331010200"},{"poweroffId":2019070331010185,"sgpoweroffId":null,"subsName":"","lineName":"10kV袁沙6603线","pubTranName":"杭南千2#,杭南灯,杭南千1#,麦桥二,","scope":"浙江省杭州市西湖区双浦镇麦岭沙社区麦岭沙(杭州杭千高速公路发展有限公司);","startTime":"2019-07-03 15:21:40","stopDate":"2019-07-03 16:30:46","orgNo":"3340101","typeCode":"电网故障停限电","poweroffArea":"110kV周浦变:袁沙6603线-杭南支线开关后段","poweroffReason":"高压开关跳闸 原预计停电结束时间21:21:40,由于施工现场环境比较复杂，存在不确定因素，因此预估施工时间适当放长了，而实际施工进行得比较顺利，因此提前送电了","powerTime":"2019-07-03 15:53:02","powerComm":"送电","subsNo":"","lineNo":"","tgNo":"","tgName":null,"infoStatus":"1","orgName":"浙江杭州电力客户服务中心","typeName":null,"infoStatusName":null,"dateDay":null,"orgNos":null,"nowTime":null,"countyName":null,"streetName":null,"villageName":null,"roadName":null,"communityName":null,"tranName":null,"sdLineName":null,"cityCode":"3340101","cityName":"浙江杭州电力客户服务中心","provinceCode":null,"stopTime":"2019-07-03 16:30:46","powerType":"全部","powerOffArea":"110kV周浦变:袁沙6603线-杭南支线开关后段","powerOffReason":"高压开关跳闸 原预计停电结束时间21:21:40,由于施工现场环境比较复杂，存在不确定因素，因此预估施工时间适当放长了，而实际施工进行得比较顺利，因此提前送电了","powerOffId":"2019070331010185"},{"poweroffId":2019070331010154,"sgpoweroffId":null,"subsName":"","lineName":"10kV中村6301线","pubTranName":"茶市,转塘停车,转塘十四,转塘十三,","scope":"浙江省-杭州市-西湖区-转塘街道(转塘社区-里街、转塘直街);","startTime":"2019-07-03 13:33:59","stopDate":"2019-07-03 15:33:59","orgNo":"3340101","typeCode":"电网故障停限电","poweroffArea":"110kV转塘变:中村6301线-沈家滩分线开关","poweroffReason":"高压开关跳闸 原预计停电结束时间2019-07-03 19:33:59,由于施工现场环境比较复杂，存在不确定因素，因此预估施工时间适当放长了，而实际施工进行得比较顺利，因此提前送电了","powerTime":"2019-07-03 15:10:22","powerComm":"已送电","subsNo":"","lineNo":"","tgNo":"","tgName":null,"infoStatus":"1","orgName":"浙江杭州电力客户服务中心","typeName":null,"infoStatusName":null,"dateDay":null,"orgNos":null,"nowTime":null,"countyName":null,"streetName":null,"villageName":null,"roadName":null,"communityName":null,"tranName":null,"sdLineName":null,"cityCode":"3340101","cityName":"浙江杭州电力客户服务中心","provinceCode":null,"stopTime":"2019-07-03 15:33:59","powerType":"全部","powerOffArea":"110kV转塘变:中村6301线-沈家滩分线开关","powerOffReason":"高压开关跳闸 原预计停电结束时间2019-07-03 19:33:59,由于施工现场环境比较复杂，存在不确定因素，因此预估施工时间适当放长了，而实际施工进行得比较顺利，因此提前送电了","powerOffId":"2019070331010154"},{"poweroffId":2019070331010151,"sgpoweroffId":null,"subsName":"","lineName":"10kV牛弄8011线","pubTranName":"清泰一变,","scope":"浙江省-杭州市-江干区-采荷街道(清泰小区);","startTime":"2019-07-03 13:21:21","stopDate":"2019-07-03 15:31:21","orgNo":"3340101","typeCode":"电网故障停限电","poweroffArea":"110kV庆春变:牛弄8011线-清泰一变","poweroffReason":"清泰一变 低压设备故障 原预计停电结束时间2019-07-03 19:21:21,由于施工现场环境比较复杂，存在不确定因素，因此预估施工时间适当放长了，而实际施工进行得比较顺利，因此提前送电了","powerTime":"2019-07-03 15:01:56","powerComm":"已送电","subsNo":"","lineNo":"","tgNo":"","tgName":null,"infoStatus":"1","orgName":"浙江杭州电力客户服务中心","typeName":null,"infoStatusName":null,"dateDay":null,"orgNos":null,"nowTime":null,"countyName":null,"streetName":null,"villageName":null,"roadName":null,"communityName":null,"tranName":null,"sdLineName":null,"cityCode":"3340101","cityName":"浙江杭州电力客户服务中心","provinceCode":null,"stopTime":"2019-07-03 15:31:21","powerType":"全部","powerOffArea":"110kV庆春变:牛弄8011线-清泰一变","powerOffReason":"清泰一变 低压设备故障 原预计停电结束时间2019-07-03 19:21:21,由于施工现场环境比较复杂，存在不确定因素，因此预估施工时间适当放长了，而实际施工进行得比较顺利，因此提前送电了","powerOffId":"2019070331010151"},{"poweroffId":2019070331010141,"sgpoweroffId":null,"subsName":"","lineName":"10kV五环D811线","pubTranName":"容大7号公变,","scope":"浙江省-杭州市-富阳区-富春街道(金桥社区-金桥北路);一带","startTime":"2019-07-03 12:25:53","stopDate":"2019-07-03 13:00:53","orgNo":"3340170","typeCode":"电网故障停限电","poweroffArea":"110kV容大变:五环D811线-容大7号公变后段","poweroffReason":"高压分支线开关跳闸","powerTime":"2019-07-03 12:46:10","powerComm":"已送电","subsNo":"","lineNo":"","tgNo":"","tgName":null,"infoStatus":"1","orgName":"国网浙江杭州市富阳区供电公司","typeName":null,"infoStatusName":null,"dateDay":null,"orgNos":null,"nowTime":null,"countyName":null,"streetName":null,"villageName":null,"roadName":null,"communityName":null,"tranName":null,"sdLineName":null,"cityCode":"3340170","cityName":"国网浙江杭州市富阳区供电公司","provinceCode":null,"stopTime":"2019-07-03 13:00:53","powerType":"全部","powerOffArea":"110kV容大变:五环D811线-容大7号公变后段","powerOffReason":"高压分支线开关跳闸","powerOffId":"2019070331010141"}],"pageModel":{"pageNow":1509,"totalCount":17789,"totalPage":1779,"tableRows":0,"pageCount":10,"beginCount":15080},"isExperi":"1"}