{"message":"","today":"2020-06-16","seleList":[{"poweroffId":2019070231020063,"sgpoweroffId":null,"subsName":"","lineName":"10kV横钢Y176线","pubTranName":"杭州寿昌航空乐园发展有限公司温泉火车站酒店,寿昌集镇横山四区公变,杭州新安江温泉度假村开发有限公司1#,杭州新安江温泉度假村开发有限公司1#,","scope":"浙江省-杭州市-建德市-寿昌镇 横山社区 横山路 横山四区一带用户。","startTime":"2019-07-10 07:00:00","stopDate":"2019-07-10 17:00:00","orgNo":"3340180","typeCode":"计划停电","poweroffArea":"110kV航头变:横钢Y176线首端，乐温Y1762线断路器，温甜横钢20512线之间","poweroffReason":"杭州建德10千伏秀水环网室改造工程","powerTime":"2019-07-10 16:23:00","powerComm":"已送电","subsNo":"","lineNo":"","tgNo":"","tgName":null,"infoStatus":"1","orgName":"国网浙江建德市供电有限公司","typeName":null,"infoStatusName":null,"dateDay":null,"orgNos":null,"nowTime":null,"countyName":null,"streetName":null,"villageName":null,"roadName":null,"communityName":null,"tranName":null,"sdLineName":null,"cityCode":"3340180","cityName":"国网浙江建德市供电有限公司","provinceCode":null,"stopTime":"2019-07-10 17:00:00","powerType":"全部","powerOffArea":"110kV航头变:横钢Y176线首端，乐温Y1762线断路器，温甜横钢20512线之间","powerOffReason":"杭州建德10千伏秀水环网室改造工程","powerOffId":"2019070231020063"},{"poweroffId":2019070231020062,"sgpoweroffId":null,"subsName":"","lineName":"10kV红星R144线","pubTranName":"荷塘村卢家配变,","scope":"浙江省-杭州市-淳安县-汾口镇-荷塘行政村(前门自然村,卢家塘自然村)","startTime":"2019-07-08 07:00:00","stopDate":"2019-07-08 12:00:00","orgNo":"3340190","typeCode":"临时停电","poweroffArea":"110kV汾口变:红星R144线-卢家塘支线跌落式熔断器后段","poweroffReason":"卢家台区电缆更换","powerTime":"2019-07-08 11:27:30","powerComm":"现场工作已完成","subsNo":"","lineNo":"","tgNo":"","tgName":null,"infoStatus":"1","orgName":"国网浙江淳安县供电有限公司","typeName":null,"infoStatusName":null,"dateDay":null,"orgNos":null,"nowTime":null,"countyName":null,"streetName":null,"villageName":null,"roadName":null,"communityName":null,"tranName":null,"sdLineName":null,"cityCode":"3340190","cityName":"国网浙江淳安县供电有限公司","provinceCode":null,"stopTime":"2019-07-08 12:00:00","powerType":"全部","powerOffArea":"110kV汾口变:红星R144线-卢家塘支线跌落式熔断器后段","powerOffReason":"卢家台区电缆更换","powerOffId":"2019070231020062"},{"poweroffId":2019070231020052,"sgpoweroffId":null,"subsName":"","lineName":"10kV杨家T106线","pubTranName":"浮桥埠村2号公变,杭州如泰新型建材有限公司,杭州华元基础材料有限公司,华源公司1#4#,杭州华元基础材料有限公司,浮桥埠村杨家1号公变,","scope":"浙江省-杭州市-桐庐县-桐君街道-麻蓬行政村-麻蓬自然村,桐君街道-浮桥埠行政村(杨家自然村,浮桥埠自然村);桐君街道(麻蓬行政村-浙江鼎昊新能源设备股份有限公司,浮桥埠行政村-杭州华元基础材料有限公司)","startTime":"2019-07-11 07:00:00","stopDate":"2019-07-11 16:30:00","orgNo":"3340150","typeCode":"计划停电","poweroffArea":"110kV桐庐变:杨家T106线-华元2524线后段","poweroffReason":"桐庐桐变新出金村T105线线路工程，原停电结束时间：2019年7月11日14：30，变更停电结束时间：2019年7月11日16：30，变更原因：人员配备不足。","powerTime":"2019-07-11 16:18:59","powerComm":"已送电。","subsNo":"","lineNo":"","tgNo":"","tgName":null,"infoStatus":"1","orgName":"国网浙江桐庐县供电公司","typeName":null,"infoStatusName":null,"dateDay":null,"orgNos":null,"nowTime":null,"countyName":null,"streetName":null,"villageName":null,"roadName":null,"communityName":null,"tranName":null,"sdLineName":null,"cityCode":"3340150","cityName":"国网浙江桐庐县供电公司","provinceCode":null,"stopTime":"2019-07-11 16:30:00","powerType":"全部","powerOffArea":"110kV桐庐变:杨家T106线-华元2524线后段","powerOffReason":"桐庐桐变新出金村T105线线路工程，原停电结束时间：2019年7月11日14：30，变更停电结束时间：2019年7月11日16：30，变更原因：人员配备不足。","powerOffId":"2019070231020052"},{"poweroffId":2019070231020045,"sgpoweroffId":null,"subsName":"","lineName":"10kV向阳G126线","pubTranName":"杭州市余杭区崇贤街道向阳村村民委员会,杭州向阳纸张有限公司611020704601#专变,","scope":"浙江省杭州市余杭区崇贤街道：杭州向阳纸张有限公司、杭州市余杭区崇贤街道向阳村村民委员会一带","startTime":"2019-07-12 08:20:00","stopDate":"2019-07-12 13:30:00","orgNo":"3340140","typeCode":"计划停电","poweroffArea":"35kV沾桥变:向阳G126线石前开关站I段石前分支箱分线","poweroffReason":"国网浙江省电力公司杭州供电公司基建拆除工作：石前分支箱分线石前分支箱国网浙江省电力公司杭州供电公司电缆拆除，基建变拆除工作","powerTime":"2019-07-12 13:06:05","powerComm":"已送电","subsNo":"","lineNo":"","tgNo":"","tgName":null,"infoStatus":"1","orgName":"国网浙江杭州市余杭区供电有限公司","typeName":null,"infoStatusName":null,"dateDay":null,"orgNos":null,"nowTime":null,"countyName":null,"streetName":null,"villageName":null,"roadName":null,"communityName":null,"tranName":null,"sdLineName":null,"cityCode":"3340140","cityName":"国网浙江杭州市余杭区供电有限公司","provinceCode":null,"stopTime":"2019-07-12 13:30:00","powerType":"全部","powerOffArea":"35kV沾桥变:向阳G126线石前开关站I段石前分支箱分线","powerOffReason":"国网浙江省电力公司杭州供电公司基建拆除工作：石前分支箱分线石前分支箱国网浙江省电力公司杭州供电公司电缆拆除，基建变拆除工作","powerOffId":"2019070231020045"},{"poweroffId":2019070231020037,"sgpoweroffId":null,"subsName":"","lineName":"10kV姚家G212线","pubTranName":"塘栖B泵站,杭州余杭城市开发建设有限公司612083250201#专变,杭州思裕丝业有限公司（加油站）,杭州余杭城市开发建设有限公司612083250003#专变,杭州余杭城市开发建设有限公司612083249604#专变,杭州中力钢网制品有限公司,杭州中力钢网制品有限公司,西界河村西界河大队公变,杭州余杭城市开发建设有限公司612083249202#专变,","scope":"浙江省杭州市余杭区塘栖镇：西界河村西界河大队、杭州中力钢网制品有限公司、杭州余杭城市开发建设有限公司一带","startTime":"2019-07-11 08:20:00","stopDate":"2019-07-11 13:30:00","orgNo":"3340140","typeCode":"计划停电","poweroffArea":"110kV广济变:姚家G212线-姚家G2121开关后段","poweroffReason":"塘南、姚家线线路负荷割接工程：塘南G210线西界河农居点分线、石家埭分线割接至姚家G212线工作。","powerTime":"2019-07-11 12:53:00","powerComm":"已送电","subsNo":"","lineNo":"","tgNo":"","tgName":null,"infoStatus":"1","orgName":"国网浙江杭州市余杭区供电有限公司","typeName":null,"infoStatusName":null,"dateDay":null,"orgNos":null,"nowTime":null,"countyName":null,"streetName":null,"villageName":null,"roadName":null,"communityName":null,"tranName":null,"sdLineName":null,"cityCode":"3340140","cityName":"国网浙江杭州市余杭区供电有限公司","provinceCode":null,"stopTime":"2019-07-11 13:30:00","powerType":"全部","powerOffArea":"110kV广济变:姚家G212线-姚家G2121开关后段","powerOffReason":"塘南、姚家线线路负荷割接工程：塘南G210线西界河农居点分线、石家埭分线割接至姚家G212线工作。","powerOffId":"2019070231020037"},{"poweroffId":2019070231020029,"sgpoweroffId":null,"subsName":"","lineName":"10kV夹灶C657线","pubTranName":"久联村14#变,","scope":"浙江省-杭州市-萧山区-益农镇-久联行政村(久联自然村,清联自然村)","startTime":"2019-07-22 08:30:00","stopDate":"2019-07-22 13:30:00","orgNo":"3340130","typeCode":"计划停电","poweroffArea":"35kV益农变:夹灶C657线-久联村14#变后段","poweroffReason":"久联村14#变下160kVA上400kVA","powerTime":"2019-07-22 12:36:09","powerComm":"已送电","subsNo":"","lineNo":"","tgNo":"","tgName":null,"infoStatus":"1","orgName":"国网浙江杭州市萧山区供电有限公司","typeName":null,"infoStatusName":null,"dateDay":null,"orgNos":null,"nowTime":null,"countyName":null,"streetName":null,"villageName":null,"roadName":null,"communityName":null,"tranName":null,"sdLineName":null,"cityCode":"3340130","cityName":"国网浙江杭州市萧山区供电有限公司","provinceCode":null,"stopTime":"2019-07-22 13:30:00","powerType":"全部","powerOffArea":"35kV益农变:夹灶C657线-久联村14#变后段","powerOffReason":"久联村14#变下160kVA上400kVA","powerOffId":"2019070231020029"},{"poweroffId":2019070231020028,"sgpoweroffId":null,"subsName":"","lineName":"10kV群英C653线","pubTranName":"东联村16#变,","scope":"浙江省-杭州市-萧山区-益农镇-东联行政村(东联自然村,东湾自然村)","startTime":"2019-07-22 08:30:00","stopDate":"2019-07-22 13:30:00","orgNo":"3340130","typeCode":"计划停电","poweroffArea":"35kV益农变:群英C653线-东联村16#变后段","poweroffReason":"东联村16#变下160kVA上400kVA","powerTime":"2019-07-22 12:37:10","powerComm":"已送电","subsNo":"","lineNo":"","tgNo":"","tgName":null,"infoStatus":"1","orgName":"国网浙江杭州市萧山区供电有限公司","typeName":null,"infoStatusName":null,"dateDay":null,"orgNos":null,"nowTime":null,"countyName":null,"streetName":null,"villageName":null,"roadName":null,"communityName":null,"tranName":null,"sdLineName":null,"cityCode":"3340130","cityName":"国网浙江杭州市萧山区供电有限公司","provinceCode":null,"stopTime":"2019-07-22 13:30:00","powerType":"全部","powerOffArea":"35kV益农变:群英C653线-东联村16#变后段","powerOffReason":"东联村16#变下160kVA上400kVA","powerOffId":"2019070231020028"},{"poweroffId":2019070231020011,"sgpoweroffId":null,"subsName":"","lineName":"10kV凌家6309线","pubTranName":"珊瑚沙三,","scope":"浙江省杭州市西湖区珊瑚沙村附近一带部分用户","startTime":"2019-07-11 09:30:00","stopDate":"2019-07-11 16:00:00","orgNo":"3340101","typeCode":"计划停电","poweroffArea":"110kV转塘变:凌家6309线-10千伏凌家319线枫桦站珊瑚沙三分线开关后段","poweroffReason":"杭州之江城市建设投资集团有限公司枫桦路 珊瑚沙三公变移位，珊瑚三分线电缆移位。原停电结束时间17:00、变更停电结束时间16:00原因由于施工现场环境比较复杂，存在不确定因素，因此预估施工时间适当放长了，而实际施工进行得比较顺利，因此该工作提前结束。","powerTime":"2019-07-11 15:10:59","powerComm":"已送电","subsNo":"","lineNo":"","tgNo":"","tgName":null,"infoStatus":"1","orgName":"浙江杭州电力客户服务中心","typeName":null,"infoStatusName":null,"dateDay":null,"orgNos":null,"nowTime":null,"countyName":null,"streetName":null,"villageName":null,"roadName":null,"communityName":null,"tranName":null,"sdLineName":null,"cityCode":"3340101","cityName":"浙江杭州电力客户服务中心","provinceCode":null,"stopTime":"2019-07-11 16:00:00","powerType":"全部","powerOffArea":"110kV转塘变:凌家6309线-10千伏凌家319线枫桦站珊瑚沙三分线开关后段","powerOffReason":"杭州之江城市建设投资集团有限公司枫桦路 珊瑚沙三公变移位，珊瑚三分线电缆移位。原停电结束时间17:00、变更停电结束时间16:00原因由于施工现场环境比较复杂，存在不确定因素，因此预估施工时间适当放长了，而实际施工进行得比较顺利，因此该工作提前结束。","powerOffId":"2019070231020011"},{"poweroffId":2019070231010271,"sgpoweroffId":null,"subsName":"","lineName":"10kV北干C774线","pubTranName":"塘湾村22#公变,002#,2#,2#,塘湾村8#公变,003#,006#,1#,1#,002#,1#,杭州市地铁集团有限责任公司2#,杭州市地铁集团有限责任公司1#,","scope":"浙江省-杭州市-萧山区-北干街道(塘湾行政村-通惠路);(杭州龙昊房地产开发有限公司,宏润建设集团股份有限公司,中国铁建大桥工程局集团有限公司);","startTime":"2019-07-02 21:26:51","stopDate":"2019-07-03 08:26:51","orgNo":"3340130","typeCode":"电网故障停限电","poweroffArea":"110kV通惠变:北干C774线","poweroffReason":"高压电缆故障，原停电结束时间：2019-07-03 10:26:51，变更停电结束时间：2019-07-03 08:26:51，变更停电结束时间原因：由于抢修工作提前结束，故需要提前送电。","powerTime":"2019-07-03 07:40:40","powerComm":"已送电","subsNo":"","lineNo":"","tgNo":"","tgName":null,"infoStatus":"1","orgName":"国网浙江杭州市萧山区供电有限公司","typeName":null,"infoStatusName":null,"dateDay":null,"orgNos":null,"nowTime":null,"countyName":null,"streetName":null,"villageName":null,"roadName":null,"communityName":null,"tranName":null,"sdLineName":null,"cityCode":"3340130","cityName":"国网浙江杭州市萧山区供电有限公司","provinceCode":null,"stopTime":"2019-07-03 08:26:51","powerType":"全部","powerOffArea":"110kV通惠变:北干C774线","powerOffReason":"高压电缆故障，原停电结束时间：2019-07-03 10:26:51，变更停电结束时间：2019-07-03 08:26:51，变更停电结束时间原因：由于抢修工作提前结束，故需要提前送电。","powerOffId":"2019070231010271"},{"poweroffId":2019070231010266,"sgpoweroffId":null,"subsName":"","lineName":"10kV星火G166线","pubTranName":"开发区路灯变,卓伟实业6#基建变,杭州新城创宏房地产开发有限公司,禾丰港泵站,经济开发基建变,育才实验小学2#配变,卓伟实业4#基建变,新月花园5#公变,卓伟实业8#基建变,荷花小区6#公变,卓伟实业7#基建变,新月花园4#公变,杭州市余杭高级中学,星火村新区2#变,余杭区卫生进修学校2#,杭州市余杭高级中学,新月花园1#公变,凯文房产基建2#,久久国际4号配变,凯文房产基建1#,新月花园3#公变,1#,杭州祥迪科技有限公司,荷花小区13号公变,天元生物变压器,卓伟实业5#基建变,汇高400基建变,4#,杭州经建房地产开发有限公司,久久国际2号配变,永顺实业,物资局煤气站,1#,新月花园2#公变,久久国际3号配变,杭州莱茵达枫置业有限公司,二轻液化气站,高级中学,胤超置业3#基建变,浙江昆源房地产开发有限公司,卓伟实业2#基建变,永顺实业2#,久久国际1号配变,卓伟实业1#基建变,卓伟实业3#基建变,临平镇星火村 6110226007,1#,杭州市余杭区河道建设管理中心,禾丰港闸站,昌盛制衣厂,荷花小区8#公变,","scope":"浙江省-杭州市-余杭区-东湖街道(桂芳桥社区-史家埭路,蓝庭社区-东湖振兴西路),临平街道(工农新村社区-朝阳西路、龙王塘路、木桥浜路、邱山大街,荷花塘社区-荷花塘、新月花园小区、星光街、映荷街),经济开发区(星火苑社区-星光街);(杭州汇高置地有限公司,杭州嘉登商务酒店有限公司,杭州经建房地产开发有限公司,杭州凯文房地产开发有限公司,杭州市余杭高级中学,杭州市余杭区河道建设管理中心,杭州市余杭区卫生进修学校,杭州市余杭区育才实验小学,杭州欣悦莱实业有限公司,杭州余杭妇产医院有限公司,杭州余杭华盛液化石油气有限公司,杭州余杭经济开发建设有限公司,杭州余杭液化气有限公司,临平镇星火村,浙江昆源房地产开发有限公司,浙江天元生物药业有限公司,浙江卓伟置业有限公司,浙江胤超置业有限责任公司);","startTime":"2019-07-02 20:30:17","stopDate":"2019-07-02 23:30:17","orgNo":"3340140","typeCode":"电网故障停限电","poweroffArea":"110kV丘山变:星火G166线星光变","poweroffReason":"星火G166线星光变低压线路断线","powerTime":"2019-07-02 22:35:57","powerComm":"已送电","subsNo":"","lineNo":"","tgNo":"","tgName":null,"infoStatus":"1","orgName":"国网浙江杭州市余杭区供电有限公司","typeName":null,"infoStatusName":null,"dateDay":null,"orgNos":null,"nowTime":null,"countyName":null,"streetName":null,"villageName":null,"roadName":null,"communityName":null,"tranName":null,"sdLineName":null,"cityCode":"3340140","cityName":"国网浙江杭州市余杭区供电有限公司","provinceCode":null,"stopTime":"2019-07-02 23:30:17","powerType":"全部","powerOffArea":"110kV丘山变:星火G166线星光变","powerOffReason":"星火G166线星光变低压线路断线","powerOffId":"2019070231010266"}],"pageModel":{"pageNow":1511,"totalCount":17789,"totalPage":1779,"tableRows":0,"pageCount":10,"beginCount":15100},"isExperi":"1"}