{"message":"","today":"2020-06-16","seleList":[{"poweroffId":2019070231010248,"sgpoweroffId":null,"subsName":"","lineName":"10kV新桥G214线","pubTranName":"华深金属1#,华深金属2#,莱力机械,1#,振华6#公变,杭州余杭塘栖宾馆有限公司,振华9-1#公变,杭州荣力铸锻有限公司3#,振华4#公变,振华1#公变,振华8#公变,荣圣化工,振华2#公变,振华7#公变,振华3#公变,熠恒铸锻,杭州荣力铸锻有限公司1#,杭州钧钎物资有限公司,杭州荣力铸锻有限公司2#,塘北村周家桥公变,杭州宏达铸造有限公司,东小河2#公变,杭州广茂工贸有限公司,杭州市余杭区塘栖第二中学611104786101#专变,振华5#公变,杭州润龙节能建材有限公司,振华9-2#公变,","scope":"浙江省-杭州市-余杭区-塘栖镇(东小河社区-东仁路、东小河街、东小河路、皮匠弄、市新街、塘栖路、西小河路,塘北行政村-塘北村);(杭州高铭金属制品有限公司,杭州广茂工贸有限公司,杭州华深金属制品有限公司,杭州钧钎物资有限公司,杭州全成金属制品有限公司,杭州荣圣化工有限公司,杭州市余杭区塘栖第二中学,杭州余杭塘栖宾馆有限公司,杭州煜恒铸锻有限公司,浙江海盟建筑科技有限公司,浙江荣力重工有限公司);","startTime":"2019-07-02 19:06:09","stopDate":"2019-07-02 23:06:09","orgNo":"3340140","typeCode":"电网故障停限电","poweroffArea":"110kV广济变:新桥G214线东小河变","poweroffReason":"新桥G214线东小河变低压线路断线","powerTime":"2019-07-02 22:36:33","powerComm":"已送电","subsNo":"","lineNo":"","tgNo":"","tgName":null,"infoStatus":"1","orgName":"国网浙江杭州市余杭区供电有限公司","typeName":null,"infoStatusName":null,"dateDay":null,"orgNos":null,"nowTime":null,"countyName":null,"streetName":null,"villageName":null,"roadName":null,"communityName":null,"tranName":null,"sdLineName":null,"cityCode":"3340140","cityName":"国网浙江杭州市余杭区供电有限公司","provinceCode":null,"stopTime":"2019-07-02 23:06:09","powerType":"全部","powerOffArea":"110kV广济变:新桥G214线东小河变","powerOffReason":"新桥G214线东小河变低压线路断线","powerOffId":"2019070231010248"},{"poweroffId":2019070231010231,"sgpoweroffId":null,"subsName":"","lineName":"10kV大店Y171线","pubTranName":"溪沿村洪村畈台区,","scope":"浙江省-杭州市-建德市-航头镇 溪沿行政村-洪村畈自然村一带用户。","startTime":"2019-07-02 17:02:00","stopDate":"2019-07-02 18:15:00","orgNo":"3340180","typeCode":"电网故障停限电","poweroffArea":"110kV航头变:大店Y171线-溪沿村洪村畈台区后段","poweroffReason":"大店Y171线-溪沿村洪村畈台区 低压配电设备故障 原预计停电结束时间19:30，由于施工现场环境比较复杂，存在不确定因素，因此预估施工时间适当放长了，目前故障已修复，现将停电时间变更至18:15。","powerTime":"2019-07-02 17:44:00","powerComm":"已送电","subsNo":"","lineNo":"","tgNo":"","tgName":null,"infoStatus":"1","orgName":"国网浙江建德市供电有限公司","typeName":null,"infoStatusName":null,"dateDay":null,"orgNos":null,"nowTime":null,"countyName":null,"streetName":null,"villageName":null,"roadName":null,"communityName":null,"tranName":null,"sdLineName":null,"cityCode":"3340180","cityName":"国网浙江建德市供电有限公司","provinceCode":null,"stopTime":"2019-07-02 18:15:00","powerType":"全部","powerOffArea":"110kV航头变:大店Y171线-溪沿村洪村畈台区后段","powerOffReason":"大店Y171线-溪沿村洪村畈台区 低压配电设备故障 原预计停电结束时间19:30，由于施工现场环境比较复杂，存在不确定因素，因此预估施工时间适当放长了，目前故障已修复，现将停电时间变更至18:15。","powerOffId":"2019070231010231"},{"poweroffId":2019070231010223,"sgpoweroffId":null,"subsName":"","lineName":"10kV锻造C334线","pubTranName":"杭州银林线业有限公司,杭州爱伦斯机械有限公司,杭州旭驰纺织有限公司,杭州超宇五金机械有限公司,","scope":"浙江省杭州市萧山区瓜沥镇民丰河行政村、杭州爱伦斯机械有限公司,杭州超宇五金机械有限公司,杭州旭驰纺织有限公司,杭州银林有限公司,坎山镇嘉裕天城、坎山镇民丰河村一带","startTime":"2019-07-02 15:30:10","stopDate":"2019-07-02 18:50:04","orgNo":"3340130","typeCode":"电网故障停限电","poweroffArea":"110kV沿塘变:锻造C334线-锻造C334线沿二开银林分线开关后段","poweroffReason":"高压柱上断路器短路故障 原停电结束时间22：26，变更停电结束时间18：50，因抢修工作提前完成，故需要提前送电。","powerTime":"2019-07-02 17:55:21","powerComm":"已送电","subsNo":"","lineNo":"","tgNo":"","tgName":null,"infoStatus":"1","orgName":"国网浙江杭州市萧山区供电有限公司","typeName":null,"infoStatusName":null,"dateDay":null,"orgNos":null,"nowTime":null,"countyName":null,"streetName":null,"villageName":null,"roadName":null,"communityName":null,"tranName":null,"sdLineName":null,"cityCode":"3340130","cityName":"国网浙江杭州市萧山区供电有限公司","provinceCode":null,"stopTime":"2019-07-02 18:50:04","powerType":"全部","powerOffArea":"110kV沿塘变:锻造C334线-锻造C334线沿二开银林分线开关后段","powerOffReason":"高压柱上断路器短路故障 原停电结束时间22：26，变更停电结束时间18：50，因抢修工作提前完成，故需要提前送电。","powerOffId":"2019070231010223"},{"poweroffId":2019070231010215,"sgpoweroffId":null,"subsName":"","lineName":"10kV锻造C334线","pubTranName":"勇建村4#变,沿塘村10#变,沿塘村1#变,杭州远邦房地产开发有限公司1#变,勇建村8#变,杭州远邦房地产开发有限公司2#变,萧百灵五金电器公司,杭州恒绿机械有限公司变压器,沿塘村3#变,勇建村9#变,沿塘村5#变,民丰河村12#变,沿塘村6#变,勇建村6#变,杭州鑫盛花色丝有限公司2#,沿塘村4#变,沿塘村8#变,勇建村7#变,勇建村5#变,沿塘村2#变,沿塘村9#变,","scope":"浙江省-杭州市-萧山区-瓜沥镇民丰河行政村-民丰河北路、民丰河自然村、商贸路,沿塘行政村-11组横路、大桥直路、方家直路、高塘路、国新路、后坞桥路、南大路、宁围路、沈家直路、四组横路、沿塘自然村,勇建行政村-衙党公路、勇建自然村、杭州恒绿机械有限公司,杭州远邦房地产开发有限公司,杭州鑫盛花色丝有限公司,萧百灵五金电器公司一带","startTime":"2019-07-02 15:30:20","stopDate":"2019-07-02 18:30:14","orgNo":"3340130","typeCode":"电网故障停限电","poweroffArea":"110kV沿塘变:锻造C334线-锻造C334线沿二开沿塘分线开关后段","poweroffReason":"高压柱上断路器短路故障 原停电结束时间21：37，变更停电结束时间18：30，由于抢修工作提前完成，故需要提前送电。","powerTime":"2019-07-02 17:52:51","powerComm":"已送电","subsNo":"","lineNo":"","tgNo":"","tgName":null,"infoStatus":"1","orgName":"国网浙江杭州市萧山区供电有限公司","typeName":null,"infoStatusName":null,"dateDay":null,"orgNos":null,"nowTime":null,"countyName":null,"streetName":null,"villageName":null,"roadName":null,"communityName":null,"tranName":null,"sdLineName":null,"cityCode":"3340130","cityName":"国网浙江杭州市萧山区供电有限公司","provinceCode":null,"stopTime":"2019-07-02 18:30:14","powerType":"全部","powerOffArea":"110kV沿塘变:锻造C334线-锻造C334线沿二开沿塘分线开关后段","powerOffReason":"高压柱上断路器短路故障 原停电结束时间21：37，变更停电结束时间18：30，由于抢修工作提前完成，故需要提前送电。","powerOffId":"2019070231010215"},{"poweroffId":2019070231010213,"sgpoweroffId":null,"subsName":"","lineName":"10kV迪凯H332线","pubTranName":"浙江博多控股集团有限公司,浙江博多控股集团有限公司,浙江博多控股集团有限公司,浙江博多控股集团有限公司,","scope":"浙江省杭州市余杭区浙江博多控股集团有限公司一带","startTime":"2019-07-02 15:33:00","stopDate":"2019-07-02 18:00:00","orgNo":"3340140","typeCode":"电网故障停限电","poweroffArea":"110kV长桥变:迪凯H332线-待用07间隔后段","poweroffReason":"迪凯H332线-待用07间隔后段 电缆断线故障","powerTime":"2019-07-02 17:46:00","powerComm":"已送电","subsNo":"","lineNo":"","tgNo":"","tgName":null,"infoStatus":"1","orgName":"国网浙江杭州市余杭区供电有限公司","typeName":null,"infoStatusName":null,"dateDay":null,"orgNos":null,"nowTime":null,"countyName":null,"streetName":null,"villageName":null,"roadName":null,"communityName":null,"tranName":null,"sdLineName":null,"cityCode":"3340140","cityName":"国网浙江杭州市余杭区供电有限公司","provinceCode":null,"stopTime":"2019-07-02 18:00:00","powerType":"全部","powerOffArea":"110kV长桥变:迪凯H332线-待用07间隔后段","powerOffReason":"迪凯H332线-待用07间隔后段 电缆断线故障","powerOffId":"2019070231010213"},{"poweroffId":2019070231010187,"sgpoweroffId":null,"subsName":"","lineName":"10kV越二A014线","pubTranName":"金地天逸17#公变,","scope":"浙江省-杭州市-萧山区-北干街道(北干一苑社区-山阴路);金地天逸4幢一带","startTime":"2019-07-02 13:43:10","stopDate":"2019-07-02 15:20:10","orgNo":"3340130","typeCode":"电网故障停限电","poweroffArea":"110kV越王变:越二A014线-金地天逸17#公变后段低压开关","poweroffReason":"低压开关故障，原停电结束时间：2019-07-02 15:43:10，变更停电结束时间：2019-07-02 15:20:10，变更停电结束时间原因：由于抢修工作提前结束，故需要提前送电。","powerTime":"2019-07-02 14:28:52","powerComm":"已送电","subsNo":"","lineNo":"","tgNo":"","tgName":null,"infoStatus":"1","orgName":"国网浙江杭州市萧山区供电有限公司","typeName":null,"infoStatusName":null,"dateDay":null,"orgNos":null,"nowTime":null,"countyName":null,"streetName":null,"villageName":null,"roadName":null,"communityName":null,"tranName":null,"sdLineName":null,"cityCode":"3340130","cityName":"国网浙江杭州市萧山区供电有限公司","provinceCode":null,"stopTime":"2019-07-02 15:20:10","powerType":"全部","powerOffArea":"110kV越王变:越二A014线-金地天逸17#公变后段低压开关","powerOffReason":"低压开关故障，原停电结束时间：2019-07-02 15:43:10，变更停电结束时间：2019-07-02 15:20:10，变更停电结束时间原因：由于抢修工作提前结束，故需要提前送电。","powerOffId":"2019070231010187"},{"poweroffId":2019070231010138,"sgpoweroffId":null,"subsName":"","lineName":"10kV惠围A128线","pubTranName":"万峰汽车,顺丰家园8#公变,新安村22#变,顺丰家园6#公变,宁牧村27#变,新安村3#变,新中村4#变,杭州萧山交通投资集团基础设施建设指挥部,三阳房地产3#,顺丰家园10#公变,硕业轴承,顺丰家园1#公变,幸福时代公寓（万丰置业）变压器间隔配电变压器,顺丰家园4#公变,三阳房地产4#,新建机械,三阳房地产6#,浙江大学医学院附属妇产科医院1#,顺丰家园11#公变,沈氏轴承,中亚汽配,金凯纺织2#,浙江大学医学院附属妇产科医院2#,宁牧村24#变,杭州萧山国际机场高速公路建设开发有限公司,顺丰家园7#公变,和泰机电工业有限公司,顺丰家园5#公变,浙江大学医学院附属妇产科医院1#,新中村11#变,爱迪尔,杭州萧山交通投资集团基础设施建设指挥部变压器,丰盛大厦1#公变,中亚万向节,宁牧村10#变,顺丰家园2#公变,银丰投资,伟钢实业,宁牧村13#变,三阳房地产5#,宽炬精密,三阳房地产1#,顺丰家园3#公变,浙江大学医学院附属妇产科医院2#,三阳房地产2#,顺丰家园9#公变,新安村28#变,沈氏,顺丰家园12#公变,宁牧村6#变,宁牧村20#变,新中村15#变,三阳房地产7#,上海铁路局杭州站,","scope":"浙江省、杭州市、萧山区、宁围镇、宁围街道、宁围集镇、生兴路、宁围镇宁牧村、宁新村、宁牧村、新安村、生兴路振宁社区、幸福时代小区、丰盛大厦公司、顺丰家园小区、三阳房产公司、丰东村、新中村、污水管理公司、新安制先厂、交通投资集团公司、萧山车务段公司、宁围社区服务中心、万峰汽车公司、爱迪尔公司、机场公路收费站公司、伟钢实业公司、和泰机电公司、硕业轴承公司、宽炬精密公司、中亚万向节公司、中亚汽沛公司、金凯纺织公司、新建机械厂、沈氏轴承厂、通惠养老院、原野汽陪厂、明辉花园小区、宁围街道宁牧行政村653号、宁围街道宁牧行政村等一带","startTime":"2019-07-02 10:53:37","stopDate":"2019-07-02 13:35:56","orgNo":"3340130","typeCode":"电网故障停限电","poweroffArea":"110kV惠兴变:惠围A128线开关后段","poweroffReason":"高压柱上断路器短路故障 原停电结束时间：2019-07-02 17:02:22，变更停电结束时间：2019-07-02 13:35:56，由于增派人员，抢修提前完成，故需要提前送电。","powerTime":"2019-07-02 12:41:26","powerComm":"已送电","subsNo":"","lineNo":"","tgNo":"","tgName":null,"infoStatus":"1","orgName":"国网浙江杭州市萧山区供电有限公司","typeName":null,"infoStatusName":null,"dateDay":null,"orgNos":null,"nowTime":null,"countyName":null,"streetName":null,"villageName":null,"roadName":null,"communityName":null,"tranName":null,"sdLineName":null,"cityCode":"3340130","cityName":"国网浙江杭州市萧山区供电有限公司","provinceCode":null,"stopTime":"2019-07-02 13:35:56","powerType":"全部","powerOffArea":"110kV惠兴变:惠围A128线开关后段","powerOffReason":"高压柱上断路器短路故障 原停电结束时间：2019-07-02 17:02:22，变更停电结束时间：2019-07-02 13:35:56，由于增派人员，抢修提前完成，故需要提前送电。","powerOffId":"2019070231010138"},{"poweroffId":2019070231010119,"sgpoweroffId":null,"subsName":"","lineName":"10kV陡门H775线","pubTranName":"下陡门村村委公变,","scope":"浙江省-杭州市-余杭区-余杭街道下陡门行政村-下陡门自然村一带","startTime":"2019-07-02 10:16:00","stopDate":"2019-07-02 14:00:00","orgNo":"3340140","typeCode":"电网故障停限电","poweroffArea":"35kV长岗临时变:陡门H775线-下陡门村村委公变后段","poweroffReason":"下陡门村村委公变后段 低压断线故障","powerTime":"2019-07-02 13:45:00","powerComm":"已送电","subsNo":"","lineNo":"","tgNo":"","tgName":null,"infoStatus":"1","orgName":"国网浙江杭州市余杭区供电有限公司","typeName":null,"infoStatusName":null,"dateDay":null,"orgNos":null,"nowTime":null,"countyName":null,"streetName":null,"villageName":null,"roadName":null,"communityName":null,"tranName":null,"sdLineName":null,"cityCode":"3340140","cityName":"国网浙江杭州市余杭区供电有限公司","provinceCode":null,"stopTime":"2019-07-02 14:00:00","powerType":"全部","powerOffArea":"35kV长岗临时变:陡门H775线-下陡门村村委公变后段","powerOffReason":"下陡门村村委公变后段 低压断线故障","powerOffId":"2019070231010119"},{"poweroffId":2019070231010111,"sgpoweroffId":null,"subsName":"","lineName":"10kV友耐A399线","pubTranName":"新北村7#变,","scope":"浙江省-杭州市-萧山区-宁围镇-宁围街道(二桥行政村-新北自然村)等一带","startTime":"2019-07-02 09:49:44","stopDate":"2019-07-02 10:53:26","orgNo":"3340130","typeCode":"电网故障停限电","poweroffArea":"110kV顺坝变:友耐A399线-新北村7#变台区低压开关","poweroffReason":"低压漏电保护器短路故障","powerTime":"2019-07-02 10:38:32","powerComm":"已送电","subsNo":"","lineNo":"","tgNo":"","tgName":null,"infoStatus":"1","orgName":"国网浙江杭州市萧山区供电有限公司","typeName":null,"infoStatusName":null,"dateDay":null,"orgNos":null,"nowTime":null,"countyName":null,"streetName":null,"villageName":null,"roadName":null,"communityName":null,"tranName":null,"sdLineName":null,"cityCode":"3340130","cityName":"国网浙江杭州市萧山区供电有限公司","provinceCode":null,"stopTime":"2019-07-02 10:53:26","powerType":"全部","powerOffArea":"110kV顺坝变:友耐A399线-新北村7#变台区低压开关","powerOffReason":"低压漏电保护器短路故障","powerOffId":"2019070231010111"},{"poweroffId":2019070231010100,"sgpoweroffId":null,"subsName":"","lineName":"10kV红胜C381线","pubTranName":"红山农场四分场2#公变,杭州格锐工具有限公司,红垦二队,红垦十六队,红胜纺织,大路金属热处理,红山农场四分场1#公变,红垦十五队,杭州市萧山区红山农场,杭州津珠机械科技有限公司,红山农场四分场3#变,大路金属热处理,杭州萧山吉华科技有限公司,","scope":"浙江省-杭州市-萧山区-新街镇、新街街道-红山农场(同德社区-四分场);(杭州大路金属热处理有限公司,杭州格锐工具有限公司,杭州津珠机械科技有限公司,杭州市萧山区红山农场,杭州萧山红胜纺织有限公司,杭州萧山吉华科技有限公司,红垦农场二队,红垦农场十六队,红垦农场十五队)等一带","startTime":"2019-07-02 09:30:40","stopDate":"2019-07-02 13:26:09","orgNo":"3340130","typeCode":"电网故障停限电","poweroffArea":"110kV红山变:红胜C381线-红胜C3812开关后段","poweroffReason":"高压柱上断路器短路故障 原停电结束时间：2019-07-02 14:32:00，变更停电结束时间：2019-07-02 13:26:09，由于增派人员，抢修提前完成，故需要提前送电。","powerTime":"2019-07-02 12:31:10","powerComm":"已送电","subsNo":"","lineNo":"","tgNo":"","tgName":null,"infoStatus":"1","orgName":"国网浙江杭州市萧山区供电有限公司","typeName":null,"infoStatusName":null,"dateDay":null,"orgNos":null,"nowTime":null,"countyName":null,"streetName":null,"villageName":null,"roadName":null,"communityName":null,"tranName":null,"sdLineName":null,"cityCode":"3340130","cityName":"国网浙江杭州市萧山区供电有限公司","provinceCode":null,"stopTime":"2019-07-02 13:26:09","powerType":"全部","powerOffArea":"110kV红山变:红胜C381线-红胜C3812开关后段","powerOffReason":"高压柱上断路器短路故障 原停电结束时间：2019-07-02 14:32:00，变更停电结束时间：2019-07-02 13:26:09，由于增派人员，抢修提前完成，故需要提前送电。","powerOffId":"2019070231010100"}],"pageModel":{"pageNow":1512,"totalCount":17789,"totalPage":1779,"tableRows":0,"pageCount":10,"beginCount":15110},"isExperi":"1"}