{"message":"","today":"2020-06-16","seleList":[{"poweroffId":2019070231010098,"sgpoweroffId":null,"subsName":"","lineName":"10kV北坞C179线","pubTranName":"云峰村4#变,","scope":"浙江省-杭州市-萧山区-义桥镇(云峰行政村-南坞自然村、邵家自然村、俞家自然村)等一带","startTime":"2019-07-02 09:28:46","stopDate":"2019-07-02 14:00:00","orgNo":"3340130","typeCode":"电网故障停限电","poweroffArea":"110kV许贤变:北坞C179线-云峰村4#变台区低压开关","poweroffReason":"低压漏电保护器短路故障","powerTime":"2019-07-02 13:32:02","powerComm":"已送电","subsNo":"","lineNo":"","tgNo":"","tgName":null,"infoStatus":"1","orgName":"国网浙江杭州市萧山区供电有限公司","typeName":null,"infoStatusName":null,"dateDay":null,"orgNos":null,"nowTime":null,"countyName":null,"streetName":null,"villageName":null,"roadName":null,"communityName":null,"tranName":null,"sdLineName":null,"cityCode":"3340130","cityName":"国网浙江杭州市萧山区供电有限公司","provinceCode":null,"stopTime":"2019-07-02 14:00:00","powerType":"全部","powerOffArea":"110kV许贤变:北坞C179线-云峰村4#变台区低压开关","powerOffReason":"低压漏电保护器短路故障","powerOffId":"2019070231010098"},{"poweroffId":2019070231010093,"sgpoweroffId":null,"subsName":"","lineName":"10kV锻造C334线","pubTranName":"沿塘村1#变,","scope":"浙江省-杭州市-萧山区-瓜沥镇沿塘行政村-高塘路、国新路、宁围路、沈家直路、沿塘自然村一带","startTime":"2019-07-02 09:00:03","stopDate":"2019-07-02 12:00:00","orgNo":"3340130","typeCode":"电网故障停限电","poweroffArea":"110kV沿塘变:锻造C334线-沿塘村1#变台区低压开关","poweroffReason":"低压架空导线断线故障 原停电结束时间15：30，变更停电结束时间12：00，由于抢修工作提前完成，故需要提前送电。","powerTime":"2019-07-02 11:22:46","powerComm":"已送电","subsNo":"","lineNo":"","tgNo":"","tgName":null,"infoStatus":"1","orgName":"国网浙江杭州市萧山区供电有限公司","typeName":null,"infoStatusName":null,"dateDay":null,"orgNos":null,"nowTime":null,"countyName":null,"streetName":null,"villageName":null,"roadName":null,"communityName":null,"tranName":null,"sdLineName":null,"cityCode":"3340130","cityName":"国网浙江杭州市萧山区供电有限公司","provinceCode":null,"stopTime":"2019-07-02 12:00:00","powerType":"全部","powerOffArea":"110kV沿塘变:锻造C334线-沿塘村1#变台区低压开关","powerOffReason":"低压架空导线断线故障 原停电结束时间15：30，变更停电结束时间12：00，由于抢修工作提前完成，故需要提前送电。","powerOffId":"2019070231010093"},{"poweroffId":2019070231010072,"sgpoweroffId":null,"subsName":"","lineName":"10kV姚家T243线","pubTranName":"胡家坞村1号公变,","scope":"浙江省-杭州市-桐庐县-江南镇(锦江行政村-五联胡家坞自然村);","startTime":"2019-07-02 08:43:55","stopDate":"2019-07-02 09:43:55","orgNo":"3340150","typeCode":"电网故障停限电","poweroffArea":"110kV石阜变:姚家T243线-胡家坞村1号公变后段","poweroffReason":"低压开关故障","powerTime":"2019-07-02 09:25:23","powerComm":"全部送电","subsNo":"","lineNo":"","tgNo":"","tgName":null,"infoStatus":"1","orgName":"国网浙江桐庐县供电公司","typeName":null,"infoStatusName":null,"dateDay":null,"orgNos":null,"nowTime":null,"countyName":null,"streetName":null,"villageName":null,"roadName":null,"communityName":null,"tranName":null,"sdLineName":null,"cityCode":"3340150","cityName":"国网浙江桐庐县供电公司","provinceCode":null,"stopTime":"2019-07-02 09:43:55","powerType":"全部","powerOffArea":"110kV石阜变:姚家T243线-胡家坞村1号公变后段","powerOffReason":"低压开关故障","powerOffId":"2019070231010072"},{"poweroffId":2019070231010065,"sgpoweroffId":null,"subsName":"","lineName":"10kV九堡A398线","pubTranName":"顺坝村2#变,","scope":"浙江省-杭州市-萧山区-宁围镇、宁围街道(顺坝行政村-顺坝自然村)等一带","startTime":"2019-07-02 08:34:02","stopDate":"2019-07-02 16:35:41","orgNo":"3340130","typeCode":"电网故障停限电","poweroffArea":"110kV顺坝变:九堡A398线-顺坝村2#变台区低压开关","poweroffReason":"低压漏电保护器短路故障","powerTime":"2019-07-02 15:41:15","powerComm":"已送电","subsNo":"","lineNo":"","tgNo":"","tgName":null,"infoStatus":"1","orgName":"国网浙江杭州市萧山区供电有限公司","typeName":null,"infoStatusName":null,"dateDay":null,"orgNos":null,"nowTime":null,"countyName":null,"streetName":null,"villageName":null,"roadName":null,"communityName":null,"tranName":null,"sdLineName":null,"cityCode":"3340130","cityName":"国网浙江杭州市萧山区供电有限公司","provinceCode":null,"stopTime":"2019-07-02 16:35:41","powerType":"全部","powerOffArea":"110kV顺坝变:九堡A398线-顺坝村2#变台区低压开关","powerOffReason":"低压漏电保护器短路故障","powerOffId":"2019070231010065"},{"poweroffId":2019070231010032,"sgpoweroffId":null,"subsName":"","lineName":"10kV俞赵T121线","pubTranName":"秀峰1号公变,","scope":"浙江省-杭州市-桐庐县-富春江镇(俞赵行政村-秀峰自然村);","startTime":"2019-07-02 07:17:32","stopDate":"2019-07-02 10:30:37","orgNo":"3340150","typeCode":"电网故障停限电","poweroffArea":"110kV外董变:俞赵T121线-秀峰1号公变后段","poweroffReason":"低压开关故障","powerTime":"2019-07-02 10:10:40","powerComm":"已送电","subsNo":"","lineNo":"","tgNo":"","tgName":null,"infoStatus":"1","orgName":"国网浙江桐庐县供电公司","typeName":null,"infoStatusName":null,"dateDay":null,"orgNos":null,"nowTime":null,"countyName":null,"streetName":null,"villageName":null,"roadName":null,"communityName":null,"tranName":null,"sdLineName":null,"cityCode":"3340150","cityName":"国网浙江桐庐县供电公司","provinceCode":null,"stopTime":"2019-07-02 10:30:37","powerType":"全部","powerOffArea":"110kV外董变:俞赵T121线-秀峰1号公变后段","powerOffReason":"低压开关故障","powerOffId":"2019070231010032"},{"poweroffId":2019070231010021,"sgpoweroffId":null,"subsName":"","lineName":"10kV后扬H414线","pubTranName":"新资源,静电喷塑,杭州神威服饰有限公司,长命村闻家塘公变,杜城村杜城庙公变,配变,长命村庄地2号公变,绿洲,杭州永宁塑料制品有限公司,民生机械,杜城村方家斗公变,长命村庄地1号公变,有光能源科技(凤源塑钢门窗),华达喷塑,飞彩油墨,至卓通讯,南方企业,全灵标准件,杭州红玫纺织,智远针织,杜城村西塘村公变,安溪开发区路灯变,长命村费家头1号公变,恒达,贝因美生产基地2#,智能染整,长命村费家头2号公变,杜城村木桥头公变,杭州永固包装材料有限公司,排涝站,配变,兴科,杭州余杭安企润滑脂有限公司,海博彩瓦,佳丽皮具,杭州恒基混凝土有限公司（6110109254）02#专变,金龙压滤机,杜城村李家塘公变,杜城村庞家桥公变,昌宇机械2#,昌宇机械1#,杭州大庄钢化玻璃有限公司,杜城村葛家村公变,万齐工贸,港南村后杨村公变,贝因美生产基地,科林设备,平达工贸,3#,杜城村邵家塘公变,绿叶科技,协昌环保,精鼎玻璃,长命村胡家塘公变,时迈高分子,贝因美生产基地1#,华东橡胶,","scope":"浙江省-杭州市-余杭区-瓶窑镇(长命行政村-长命桥、费家头自然村、胡林斗门自然村、胡林老自然村、闻家塘自然村、吴家塘自然村、庄地自然村),良渚街道(杜城行政村-杜城自然村、前山自然村,港南行政村-上湖头自然村);(杭州安溪静电喷涂厂,杭州昌宇机械有限公司,杭州飞采涂料油墨有限公司,杭州海博建材有限公司,杭州恒基混凝土有限公司,杭州恒美塑胶有限公司,杭州华冠实业有限公司,杭州佳丽皮具有限公司,杭州科林爱尔气源设备有限公司,杭州良田电子科技有限公司,杭州林忠轻型墙体材料有限公司,杭州绿叶科技有限公司,杭州敏晨锅炉压力容器设备有限公司,杭州南方环境净化设备有限公司,杭州平达电子机械有限公司,杭州全灵标准件有限公司,杭州神威服饰有限公司,杭州圣泉过滤机有限公司,杭州时迈高分子材料有限公司,杭州市余杭区长命抽水机站,杭州万齐工贸有限公司,杭州晓云电气成套设备有限公司,杭州新资源电子有限公司,杭州永固包装材料有限公司,杭州永宁塑料制品有限公司,杭州愚工智能设备有限公司,杭州余杭安企润滑脂有限公司,杭州余杭安溪工业园区开发办公室,杭州远之源科技有限公司,杭州至卓科技有限公司,杭州至卓通讯科技有限公司,杭州智能染整设备有限公司,红玫软装饰(杭州)有限公司,华东天荒坪抽水蓄能有限责任公司);","startTime":"2019-07-02 06:45:00","stopDate":"2019-07-02 08:30:00","orgNo":"3340140","typeCode":"电网故障停限电","poweroffArea":"35kV良渚变:后扬H414线-后扬H4142开关后段 因施工力量加大，故提前送电，原停电结束时间2019-07-02 11:30:00，变更后停电结束时间2019-07-02 08:30:00","poweroffReason":"后扬H414线-后扬H4142开关后段 断线故障","powerTime":"2019-07-02 08:06:00","powerComm":"已送电","subsNo":"","lineNo":"","tgNo":"","tgName":null,"infoStatus":"1","orgName":"国网浙江杭州市余杭区供电有限公司","typeName":null,"infoStatusName":null,"dateDay":null,"orgNos":null,"nowTime":null,"countyName":null,"streetName":null,"villageName":null,"roadName":null,"communityName":null,"tranName":null,"sdLineName":null,"cityCode":"3340140","cityName":"国网浙江杭州市余杭区供电有限公司","provinceCode":null,"stopTime":"2019-07-02 08:30:00","powerType":"全部","powerOffArea":"35kV良渚变:后扬H414线-后扬H4142开关后段 因施工力量加大，故提前送电，原停电结束时间2019-07-02 11:30:00，变更后停电结束时间2019-07-02 08:30:00","powerOffReason":"后扬H414线-后扬H4142开关后段 断线故障","powerOffId":"2019070231010021"},{"poweroffId":2019070131020061,"sgpoweroffId":null,"subsName":"","lineName":"10kV柴家G150线","pubTranName":"泰山村念佛港公变,泰山村念佛港北变,","scope":"浙江省杭州市余杭区塘栖镇：泰山村念佛港、泰山村念佛港北一带","startTime":"2019-07-08 08:20:00","stopDate":"2019-07-08 12:00:00","orgNo":"3340140","typeCode":"临时停电","poweroffArea":"35kV南山变:柴家G150线-念佛港分线开关后段","poweroffReason":"2019年杭州余杭塘栖0.4千伏柴家线泰山村公变改造工程：念佛港变低压落地箱调换杆上计量箱一台，更换进线300电缆及出线150电缆各一根工作。","powerTime":"2019-07-08 11:08:00","powerComm":"已送电","subsNo":"","lineNo":"","tgNo":"","tgName":null,"infoStatus":"1","orgName":"国网浙江杭州市余杭区供电有限公司","typeName":null,"infoStatusName":null,"dateDay":null,"orgNos":null,"nowTime":null,"countyName":null,"streetName":null,"villageName":null,"roadName":null,"communityName":null,"tranName":null,"sdLineName":null,"cityCode":"3340140","cityName":"国网浙江杭州市余杭区供电有限公司","provinceCode":null,"stopTime":"2019-07-08 12:00:00","powerType":"全部","powerOffArea":"35kV南山变:柴家G150线-念佛港分线开关后段","powerOffReason":"2019年杭州余杭塘栖0.4千伏柴家线泰山村公变改造工程：念佛港变低压落地箱调换杆上计量箱一台，更换进线300电缆及出线150电缆各一根工作。","powerOffId":"2019070131020061"},{"poweroffId":2019070131020060,"sgpoweroffId":null,"subsName":"","lineName":"10kV燕方G255线","pubTranName":"杭州余杭区交通项目管理有限公司,花园村计家斗西1#公变,花园村计家斗西公变,","scope":"浙江省杭州市余杭区仁和街道：花园村计家斗西、杭州市余杭区公路管理处一带","startTime":"2019-07-08 08:20:00","stopDate":"2019-07-08 11:30:00","orgNo":"3340140","typeCode":"临时停电","poweroffArea":"110kV仁镇变:燕方G255线-计介斗西真空开关后段","poweroffReason":"中交第二航务工程局有限公司余杭分公司崇贤至老余杭高架连接线基建变工程：燕方G255线计介斗西分线新放70平方导线1档及搭接工作","powerTime":"2019-07-08 11:08:00","powerComm":"已送电","subsNo":"","lineNo":"","tgNo":"","tgName":null,"infoStatus":"1","orgName":"国网浙江杭州市余杭区供电有限公司","typeName":null,"infoStatusName":null,"dateDay":null,"orgNos":null,"nowTime":null,"countyName":null,"streetName":null,"villageName":null,"roadName":null,"communityName":null,"tranName":null,"sdLineName":null,"cityCode":"3340140","cityName":"国网浙江杭州市余杭区供电有限公司","provinceCode":null,"stopTime":"2019-07-08 11:30:00","powerType":"全部","powerOffArea":"110kV仁镇变:燕方G255线-计介斗西真空开关后段","powerOffReason":"中交第二航务工程局有限公司余杭分公司崇贤至老余杭高架连接线基建变工程：燕方G255线计介斗西分线新放70平方导线1档及搭接工作","powerOffId":"2019070131020060"},{"poweroffId":2019070131020059,"sgpoweroffId":null,"subsName":"","lineName":"10kV塘南G210线","pubTranName":"西界河村北石公变,西界河村农居点公变,李家桥村马家埭公变,","scope":"浙江省杭州市余杭区塘栖镇：西界河村农居点、西界河村北石、李家桥村马家埭一带","startTime":"2019-07-11 08:20:00","stopDate":"2019-07-11 13:30:00","orgNo":"3340140","typeCode":"计划停电","poweroffArea":"110kV广济变:塘南G210线-塘南G2101开关后段","poweroffReason":"塘南、姚家线线路负荷割接工程：塘南G210线西界河农居点分线、石家埭分线割接至姚家G212线工作；","powerTime":"2019-07-11 12:52:00","powerComm":"已送电","subsNo":"","lineNo":"","tgNo":"","tgName":null,"infoStatus":"1","orgName":"国网浙江杭州市余杭区供电有限公司","typeName":null,"infoStatusName":null,"dateDay":null,"orgNos":null,"nowTime":null,"countyName":null,"streetName":null,"villageName":null,"roadName":null,"communityName":null,"tranName":null,"sdLineName":null,"cityCode":"3340140","cityName":"国网浙江杭州市余杭区供电有限公司","provinceCode":null,"stopTime":"2019-07-11 13:30:00","powerType":"全部","powerOffArea":"110kV广济变:塘南G210线-塘南G2101开关后段","powerOffReason":"塘南、姚家线线路负荷割接工程：塘南G210线西界河农居点分线、石家埭分线割接至姚家G212线工作；","powerOffId":"2019070131020059"},{"poweroffId":2019070131020053,"sgpoweroffId":null,"subsName":"","lineName":"10kV童家Y178线","pubTranName":"建德市万兴机械有限公司,卜家蓬村小山台区,红路村下毛家台区,建德市盛航建材有限公司,建德市新鑫工艺品厂,红路村毛家畈台区,建德市寿昌镇农村五保供养服务中心,西门村沙田畈台区,红路村后大路台区,卜家蓬村葛塘庙台区,","scope":"浙江省-杭州市-建德市-寿昌镇 西门行政村沙田畈自然村；红路行政村下毛家自然村、毛家畈自然村、后大路自然村；卜家蓬行政村小山自然村、葛塘庙自然村一带用户。","startTime":"2019-07-09 06:30:00","stopDate":"2019-07-09 15:00:00","orgNo":"3340180","typeCode":"计划停电","poweroffArea":"110kV航头变:童家Y178线-葛塘庙支线0#杆令克后段;童家Y178线首端，童家Y1783开关，童家Y1782开关之间","poweroffReason":"原10千伏童家Y178线34#杆引流线拆除","powerTime":"2019-07-09 15:00:00","powerComm":"已送电","subsNo":"","lineNo":"","tgNo":"","tgName":null,"infoStatus":"1","orgName":"国网浙江建德市供电有限公司","typeName":null,"infoStatusName":null,"dateDay":null,"orgNos":null,"nowTime":null,"countyName":null,"streetName":null,"villageName":null,"roadName":null,"communityName":null,"tranName":null,"sdLineName":null,"cityCode":"3340180","cityName":"国网浙江建德市供电有限公司","provinceCode":null,"stopTime":"2019-07-09 15:00:00","powerType":"全部","powerOffArea":"110kV航头变:童家Y178线-葛塘庙支线0#杆令克后段;童家Y178线首端，童家Y1783开关，童家Y1782开关之间","powerOffReason":"原10千伏童家Y178线34#杆引流线拆除","powerOffId":"2019070131020053"}],"pageModel":{"pageNow":1513,"totalCount":17789,"totalPage":1779,"tableRows":0,"pageCount":10,"beginCount":15120},"isExperi":"1"}