{"message":"","today":"2020-06-16","seleList":[{"poweroffId":2019070131020037,"sgpoweroffId":null,"subsName":"","lineName":"10kV酒华H716线","pubTranName":"城关1号公变,禹航商城1号公变,禹航商城3号公变,杭州禹通房地产开发有限公司,禹通房产箱变,禹航商城2号公变,","scope":"浙江省杭州市余杭区余杭街道:安乐路、禹航商城商住楼禹航路东区块、城关、禹通房产、泰隆银行一带","startTime":"2019-07-12 08:40:00","stopDate":"2019-07-12 14:30:14","orgNo":"3340140","typeCode":"计划停电","poweroffArea":"110kV余杭变:酒华H716线-禹通房产分支箱分线开关后段;酒华H716线-禹航路商城分线开关后段","poweroffReason":"计划工作 原停电结束时间16:30，因抢修力量充足，提前完成工作任务，现变更停电结束时间至14：30","powerTime":"2019-07-12 13:56:51","powerComm":"已送电","subsNo":"","lineNo":"","tgNo":"","tgName":null,"infoStatus":"1","orgName":"国网浙江杭州市余杭区供电有限公司","typeName":null,"infoStatusName":null,"dateDay":null,"orgNos":null,"nowTime":null,"countyName":null,"streetName":null,"villageName":null,"roadName":null,"communityName":null,"tranName":null,"sdLineName":null,"cityCode":"3340140","cityName":"国网浙江杭州市余杭区供电有限公司","provinceCode":null,"stopTime":"2019-07-12 14:30:14","powerType":"全部","powerOffArea":"110kV余杭变:酒华H716线-禹通房产分支箱分线开关后段;酒华H716线-禹航路商城分线开关后段","powerOffReason":"计划工作 原停电结束时间16:30，因抢修力量充足，提前完成工作任务，现变更停电结束时间至14：30","powerOffId":"2019070131020037"},{"poweroffId":2019070131020036,"sgpoweroffId":null,"subsName":"","lineName":"10kV中心H857线","pubTranName":"2#变压器,鹏太铝塑板(2),1#,鹏太铝塑板(1),","scope":"浙江省杭州市余杭区余杭街道:金星工业城智能小镇、金生塑化、鹏太铝塑板一带","startTime":"2019-07-12 08:40:00","stopDate":"2019-07-12 14:30:00","orgNo":"3340140","typeCode":"计划停电","poweroffArea":"110kV永乐变:中心H857线-之江实验室分线后段;中心H857线首端，10KV侧进线开关，滨河H85711开关之间","poweroffReason":"计划工作 原停电结束时间16:30，因抢修力量充足，提前完成工作任务，现变更停电结束时间至14:30","powerTime":"2019-07-12 14:02:14","powerComm":"已送电","subsNo":"","lineNo":"","tgNo":"","tgName":null,"infoStatus":"1","orgName":"国网浙江杭州市余杭区供电有限公司","typeName":null,"infoStatusName":null,"dateDay":null,"orgNos":null,"nowTime":null,"countyName":null,"streetName":null,"villageName":null,"roadName":null,"communityName":null,"tranName":null,"sdLineName":null,"cityCode":"3340140","cityName":"国网浙江杭州市余杭区供电有限公司","provinceCode":null,"stopTime":"2019-07-12 14:30:00","powerType":"全部","powerOffArea":"110kV永乐变:中心H857线-之江实验室分线后段;中心H857线首端，10KV侧进线开关，滨河H85711开关之间","powerOffReason":"计划工作 原停电结束时间16:30，因抢修力量充足，提前完成工作任务，现变更停电结束时间至14:30","powerOffId":"2019070131020036"},{"poweroffId":2019070131020035,"sgpoweroffId":null,"subsName":"","lineName":"10kV酒华H716线","pubTranName":"肯德基,宝塔公寓2号公变,宝塔公寓1号公变,余杭粮管所宿舍公变,金辉,1#,差转台,","scope":"浙江省杭州市余杭区余杭街道:老余杭肯德基店、金辉酒店、差转台信号站、宝塔公寓、老余杭中国电信、粮管所宿舍一带","startTime":"2019-07-11 08:30:00","stopDate":"2019-07-11 17:30:58","orgNo":"3340140","typeCode":"计划停电","poweroffArea":"110kV余杭变:酒华H716线-粮管所分线开关后段","poweroffReason":"计划工作,原停电结束时间16：30，由于现场情况复杂，无法按时完成相关工作，现变更停电结束时间至17：30","powerTime":"2019-07-11 17:28:09","powerComm":"工作结束","subsNo":"","lineNo":"","tgNo":"","tgName":null,"infoStatus":"1","orgName":"国网浙江杭州市余杭区供电有限公司","typeName":null,"infoStatusName":null,"dateDay":null,"orgNos":null,"nowTime":null,"countyName":null,"streetName":null,"villageName":null,"roadName":null,"communityName":null,"tranName":null,"sdLineName":null,"cityCode":"3340140","cityName":"国网浙江杭州市余杭区供电有限公司","provinceCode":null,"stopTime":"2019-07-11 17:30:58","powerType":"全部","powerOffArea":"110kV余杭变:酒华H716线-粮管所分线开关后段","powerOffReason":"计划工作,原停电结束时间16：30，由于现场情况复杂，无法按时完成相关工作，现变更停电结束时间至17：30","powerOffId":"2019070131020035"},{"poweroffId":2019070131020034,"sgpoweroffId":null,"subsName":"","lineName":"10kV白云H884线","pubTranName":"中桥村马里公变,中桥村外马里公变,中桥村马里2号公变,","scope":"浙江省杭州市余杭区中泰街道:中桥村马里、中桥村外马里一带","startTime":"2019-07-10 08:40:00","stopDate":"2019-07-10 16:30:00","orgNo":"3340140","typeCode":"计划停电","poweroffArea":"110kV中泰变:白云H884线-马里分线开关后段","poweroffReason":"计划工作","powerTime":"2019-07-10 16:26:50","powerComm":"已送电","subsNo":"","lineNo":"","tgNo":"","tgName":null,"infoStatus":"1","orgName":"国网浙江杭州市余杭区供电有限公司","typeName":null,"infoStatusName":null,"dateDay":null,"orgNos":null,"nowTime":null,"countyName":null,"streetName":null,"villageName":null,"roadName":null,"communityName":null,"tranName":null,"sdLineName":null,"cityCode":"3340140","cityName":"国网浙江杭州市余杭区供电有限公司","provinceCode":null,"stopTime":"2019-07-10 16:30:00","powerType":"全部","powerOffArea":"110kV中泰变:白云H884线-马里分线开关后段","powerOffReason":"计划工作","powerOffId":"2019070131020034"},{"poweroffId":2019070131020031,"sgpoweroffId":null,"subsName":"","lineName":"10kV胡桥G945线","pubTranName":"杭州斌科标准件有限公司1#变,浙江天勤建设有限公司,浙江双子智能装备有限公司,杭州斌科标准件有限公司2#变,浙江天勤建设有限公司,","scope":"浙江省杭州市余杭区东湖街道：斌科机械基建、双子机械厂、天勤建设一带","startTime":"2019-07-08 08:00:00","stopDate":"2019-07-08 14:30:00","orgNo":"3340140","typeCode":"计划停电","poweroffArea":"110kV亭趾变:胡桥G945线-斌科机械基建变分线开关后段;胡桥G945线-天勤建设基建分线7号杆后段;胡桥G945线-天勤建设基建分线6号杆后段;胡桥G945线-双子机械分线开关后段 因施工力量充足，原计划结束时间2019-07-08 16:00:00更改为2019-07-08 14:30:00","poweroffReason":"天勤建设基建分线立杆、放线、拆线 因施工力量充足，原计划结束时间2019-07-08 16:00:00更改为2019-07-08 14:30:00","powerTime":"2019-07-08 13:35:00","powerComm":"工作完成","subsNo":"","lineNo":"","tgNo":"","tgName":null,"infoStatus":"1","orgName":"国网浙江杭州市余杭区供电有限公司","typeName":null,"infoStatusName":null,"dateDay":null,"orgNos":null,"nowTime":null,"countyName":null,"streetName":null,"villageName":null,"roadName":null,"communityName":null,"tranName":null,"sdLineName":null,"cityCode":"3340140","cityName":"国网浙江杭州市余杭区供电有限公司","provinceCode":null,"stopTime":"2019-07-08 14:30:00","powerType":"全部","powerOffArea":"110kV亭趾变:胡桥G945线-斌科机械基建变分线开关后段;胡桥G945线-天勤建设基建分线7号杆后段;胡桥G945线-天勤建设基建分线6号杆后段;胡桥G945线-双子机械分线开关后段 因施工力量充足，原计划结束时间2019-07-08 16:00:00更改为2019-07-08 14:30:00","powerOffReason":"天勤建设基建分线立杆、放线、拆线 因施工力量充足，原计划结束时间2019-07-08 16:00:00更改为2019-07-08 14:30:00","powerOffId":"2019070131020031"},{"poweroffId":2019070131010389,"sgpoweroffId":null,"subsName":"","lineName":"10kV胥口D712线","pubTranName":"元村村6#村委边公变,","scope":"浙江省-杭州市-富阳区-新登镇潭山头自然村、元村自然村、葛溪村、官塘村、金慈村、胥口一带","startTime":"2019-07-01 21:25:05","stopDate":"2019-07-01 22:40:00","orgNo":"3340170","typeCode":"电网故障停限电","poweroffArea":"110kV松溪变:胥口D712线-元村村6#村委边公变后段","poweroffReason":"高压设备故障 原计划停电结束时间为2019-07-01 23:28:18，因现场抢修力量加强变更至2019-07-01 22:40:00","powerTime":"2019-07-01 22:30:24","powerComm":"已送电","subsNo":"","lineNo":"","tgNo":"","tgName":null,"infoStatus":"1","orgName":"国网浙江杭州市富阳区供电公司","typeName":null,"infoStatusName":null,"dateDay":null,"orgNos":null,"nowTime":null,"countyName":null,"streetName":null,"villageName":null,"roadName":null,"communityName":null,"tranName":null,"sdLineName":null,"cityCode":"3340170","cityName":"国网浙江杭州市富阳区供电公司","provinceCode":null,"stopTime":"2019-07-01 22:40:00","powerType":"全部","powerOffArea":"110kV松溪变:胥口D712线-元村村6#村委边公变后段","powerOffReason":"高压设备故障 原计划停电结束时间为2019-07-01 23:28:18，因现场抢修力量加强变更至2019-07-01 22:40:00","powerOffId":"2019070131010389"},{"poweroffId":2019070131010380,"sgpoweroffId":null,"subsName":"","lineName":"10kV三联383线","pubTranName":"金中农居1号公变,","scope":"浙江省-杭州市-桐庐县-城南街道(金中行政村-金中自然村、城南路);","startTime":"2019-07-01 20:12:49","stopDate":"2019-07-01 22:30:27","orgNo":"3340150","typeCode":"电网故障停限电","poweroffArea":"110kV迎春变:三联383线-金中农居1号公变后段","poweroffReason":"低压开关故障","powerTime":"2019-07-01 22:04:38","powerComm":"已送电。","subsNo":"","lineNo":"","tgNo":"","tgName":null,"infoStatus":"1","orgName":"国网浙江桐庐县供电公司","typeName":null,"infoStatusName":null,"dateDay":null,"orgNos":null,"nowTime":null,"countyName":null,"streetName":null,"villageName":null,"roadName":null,"communityName":null,"tranName":null,"sdLineName":null,"cityCode":"3340150","cityName":"国网浙江桐庐县供电公司","provinceCode":null,"stopTime":"2019-07-01 22:30:27","powerType":"全部","powerOffArea":"110kV迎春变:三联383线-金中农居1号公变后段","powerOffReason":"低压开关故障","powerOffId":"2019070131010380"},{"poweroffId":2019070131010374,"sgpoweroffId":null,"subsName":"","lineName":"10kV杨华V731线","pubTranName":"上阳村[下阳],上阳村[茶山岗],上阳村[来龙岗],上阳村[上阳],","scope":"浙江省杭州市临安区太湖源镇上阳行政村上阳自然村一带","startTime":"2019-07-10 07:30:00","stopDate":"2019-07-10 16:00:00","orgNo":"3340160","typeCode":"计划停电","poweroffArea":"110kV杨岭变:杨华V731线-上阳分支线令克后段","poweroffReason":"1、杨华V731线上阳支支线2#-7#杆、14#杆、31#杆移位，立杆、架线和上阳村[茶山岗]公变低压普金寺2000线与10kV同杆调架线工作；2、杨华V731线上阳支支线38#杆上阳村[下阳]公变低压出线电缆调换工作；3、杨华V731线来龙岗支支线4#杆上阳村[来龙岗]公变低压出线电缆调换工作。","powerTime":"2019-07-10 15:32:46","powerComm":"已送电","subsNo":"","lineNo":"","tgNo":"","tgName":null,"infoStatus":"1","orgName":"国网浙江临安市供电公司","typeName":null,"infoStatusName":null,"dateDay":null,"orgNos":null,"nowTime":null,"countyName":null,"streetName":null,"villageName":null,"roadName":null,"communityName":null,"tranName":null,"sdLineName":null,"cityCode":"3340160","cityName":"国网浙江临安市供电公司","provinceCode":null,"stopTime":"2019-07-10 16:00:00","powerType":"全部","powerOffArea":"110kV杨岭变:杨华V731线-上阳分支线令克后段","powerOffReason":"1、杨华V731线上阳支支线2#-7#杆、14#杆、31#杆移位，立杆、架线和上阳村[茶山岗]公变低压普金寺2000线与10kV同杆调架线工作；2、杨华V731线上阳支支线38#杆上阳村[下阳]公变低压出线电缆调换工作；3、杨华V731线来龙岗支支线4#杆上阳村[来龙岗]公变低压出线电缆调换工作。","powerOffId":"2019070131010374"},{"poweroffId":2019070131010373,"sgpoweroffId":null,"subsName":"","lineName":"10kV桥里V862线","pubTranName":"临安市化东节能灯厂1#,化龙村[横路头]公变,化龙村[渣力坞]公变,化龙村[石柏]公变,","scope":"浙江省杭州市临安区玲珑街道化龙行政村（横路头自然村、石宝坞自然村、渣力坞自然村），临安市化东节能灯厂一带","startTime":"2019-07-10 07:30:00","stopDate":"2019-07-10 16:00:00","orgNo":"3340160","typeCode":"计划停电","poweroffArea":"110kV夏禹变:桥里V862线-十八坞分线开关后段","poweroffReason":"1、桥里V862线十八坞分线21#杆原东方电光源支线拆除工作；2、桥里V862线十八坞分线28#-35#杆调杆调线工作；3、桥里V862线十八坞分线30#杆化龙村[横路头]公变移位由平台式改为杆上式，新增JP柜安装，出线电缆调换，低压线接户线调架工作。","powerTime":"2019-07-10 15:51:54","powerComm":"已送电","subsNo":"","lineNo":"","tgNo":"","tgName":null,"infoStatus":"1","orgName":"国网浙江临安市供电公司","typeName":null,"infoStatusName":null,"dateDay":null,"orgNos":null,"nowTime":null,"countyName":null,"streetName":null,"villageName":null,"roadName":null,"communityName":null,"tranName":null,"sdLineName":null,"cityCode":"3340160","cityName":"国网浙江临安市供电公司","provinceCode":null,"stopTime":"2019-07-10 16:00:00","powerType":"全部","powerOffArea":"110kV夏禹变:桥里V862线-十八坞分线开关后段","powerOffReason":"1、桥里V862线十八坞分线21#杆原东方电光源支线拆除工作；2、桥里V862线十八坞分线28#-35#杆调杆调线工作；3、桥里V862线十八坞分线30#杆化龙村[横路头]公变移位由平台式改为杆上式，新增JP柜安装，出线电缆调换，低压线接户线调架工作。","powerOffId":"2019070131010373"},{"poweroffId":2019070131010372,"sgpoweroffId":null,"subsName":"","lineName":"10kV成翔A557线","pubTranName":"衙前集镇4#变,","scope":"浙江省-杭州市-萧山区-衙前镇(毕公桥社区-成虎路);浙江省杭州市萧山区衙前镇凤凰南苑105号，浙江省杭州市萧山区衙前镇成虎路一带","startTime":"2019-07-01 19:35:08","stopDate":"2019-07-01 21:30:00","orgNo":"3340130","typeCode":"电网故障停限电","poweroffArea":"110kV成虎变:成翔A557线-衙前集镇4#变台区低压开关","poweroffReason":"低压熔断器短路故障","powerTime":"2019-07-01 20:55:07","powerComm":"已送电","subsNo":"","lineNo":"","tgNo":"","tgName":null,"infoStatus":"1","orgName":"国网浙江杭州市萧山区供电有限公司","typeName":null,"infoStatusName":null,"dateDay":null,"orgNos":null,"nowTime":null,"countyName":null,"streetName":null,"villageName":null,"roadName":null,"communityName":null,"tranName":null,"sdLineName":null,"cityCode":"3340130","cityName":"国网浙江杭州市萧山区供电有限公司","provinceCode":null,"stopTime":"2019-07-01 21:30:00","powerType":"全部","powerOffArea":"110kV成虎变:成翔A557线-衙前集镇4#变台区低压开关","powerOffReason":"低压熔断器短路故障","powerOffId":"2019070131010372"}],"pageModel":{"pageNow":1514,"totalCount":17789,"totalPage":1779,"tableRows":0,"pageCount":10,"beginCount":15130},"isExperi":"1"}