{"message":"","today":"2020-06-15","seleList":[{"poweroffId":2020051531021137,"sgpoweroffId":null,"subsName":"","lineName":"10kV圣山965线","pubTranName":"杭州杰恩达纺织有限公司01#,农二场（9~10队）,弗瑞格厨具,新中纺实业,顾家家居1#变,污水处理1,顾家家居3#变,诚洁环保,华汇机械2#,长风配变,杭州萧山新世纪农业发展有限公司01,永瑞木业,顾家家居2#变,冷拉型钢,前进乐元三垦种,华汇机械1#,杭星铜业2#,富斯德汽车零部件,冷拉型钢,萧东变施工变,烨凌实业,河庄镇文伟村,伟豪离合器,污水处理2#,新活力农业,杭星铜业1#,协创机械1#,煤炭科学,临江污水处理厂,协创机械2#,旺禽羽毛粉公司,","scope":"浙江省-杭州市-萧山区-前进街道-前进街道社区-前进自然村;前进街道-前进乐元三垦种,围垦垦区(萧山区河庄镇文伟村(围垦用电),杭州旺禽羽毛粉有限公司,杭州萧山新世纪农业发展有限公司),临江街道(杭州新活力农业开发有限公司,杭州冷拉型钢有限公司,杭州龙派实业有限公司,协创机械(杭州)有限公司,杭州弗瑞格厨具有限公司,杭州伟豪离合器有限公司,浙江新中纺实业有限公司,农二场,杭州永瑞木业有限公司,杭州诚洁环保有限公司,煤科集团杭州环保研究院有限公司,浙江华东机电工程有限公司,浙江烨凌实业有限公司,杭州萧山污水处理有限公司,杭州富斯德汽车零部件有限公司,浙江省送电工程有限公司,顾家家居股份有限公司)","startTime":"2020-05-15 18:40:00","stopDate":"2020-05-15 23:40:00","orgNo":"3340120","typeCode":"电网故障停限电","poweroffArea":"110kV前进变:圣山965线2840（Z）后段","poweroffReason":"高压开关跳闸 原停电结束时间为2020-05-15 22:40:00,因更换开关原因,延迟送电,现变更停电结束时间为2020-05-15 23:40:00","powerTime":"2020-05-15 23:16:03","powerComm":"已送电","subsNo":"","lineNo":"","tgNo":"","tgName":null,"infoStatus":"1","orgName":"国网浙江杭州市钱塘新区供电公司","typeName":null,"infoStatusName":null,"dateDay":null,"orgNos":null,"nowTime":null,"countyName":null,"streetName":null,"villageName":null,"roadName":null,"communityName":null,"tranName":null,"sdLineName":null,"cityCode":"3340120","cityName":"国网浙江杭州市钱塘新区供电公司","provinceCode":null,"stopTime":"2020-05-15 23:40:00","powerType":"全部","powerOffArea":"110kV前进变:圣山965线2840（Z）后段","powerOffReason":"高压开关跳闸 原停电结束时间为2020-05-15 22:40:00,因更换开关原因,延迟送电,现变更停电结束时间为2020-05-15 23:40:00","powerOffId":"2020051531021137"},{"poweroffId":2020051531021133,"sgpoweroffId":null,"subsName":"","lineName":"10kV上喻T570线","pubTranName":"外喻村2号公变,","scope":"浙江省-杭州市-桐庐县-凤川街道-园林行政村-外喻自然村","startTime":"2020-05-22 07:30:00","stopDate":"2020-05-22 13:00:00","orgNo":"3340150","typeCode":"临时停电","poweroffArea":"110kV旺家变:上喻T570线-外喻村2号公变10kV跌落式熔断器后段","poweroffReason":"1、外喻村2号公变外喻村2号公变跌落式熔断器下引线调换工作（带电作业配合） 2、外喻村2号公变配变增容（200KVA增容至400kvA）工作； 3、外喻村2号公变调换JP柜及一次电缆工作；","powerTime":"2020-05-22 12:40:57","powerComm":"已送电","subsNo":"","lineNo":"","tgNo":"","tgName":null,"infoStatus":"1","orgName":"国网浙江桐庐县供电公司","typeName":null,"infoStatusName":null,"dateDay":null,"orgNos":null,"nowTime":null,"countyName":null,"streetName":null,"villageName":null,"roadName":null,"communityName":null,"tranName":null,"sdLineName":null,"cityCode":"3340150","cityName":"国网浙江桐庐县供电公司","provinceCode":null,"stopTime":"2020-05-22 13:00:00","powerType":"全部","powerOffArea":"110kV旺家变:上喻T570线-外喻村2号公变10kV跌落式熔断器后段","powerOffReason":"1、外喻村2号公变外喻村2号公变跌落式熔断器下引线调换工作（带电作业配合） 2、外喻村2号公变配变增容（200KVA增容至400kvA）工作； 3、外喻村2号公变调换JP柜及一次电缆工作；","powerOffId":"2020051531021133"},{"poweroffId":2020051531021115,"sgpoweroffId":null,"subsName":"","lineName":"10kV前裘0973线","pubTranName":"惠民特种水产,靖江镇靖南村,靖江镇农业发展局,昭东垦种,党湾垦种,靖江花神庙垦种,党湾镇梅东村,联誉实业,晓阳水产,甘露四垦,丰乐村1#变,丰乐村3#变,靖江光明四垦,瓜沥镇渔庄村,新湾镇三丰村,前进街道办事处,华恩冷拉型钢,甘露四垦,瓜沥镇如松村,坎山镇勇建村,村经济联合社,甘露垦种,萧围养殖三场,瓜沥镇渔庄村,党湾镇庆丰村,水祥水产,丰乐村2#变,","scope":"浙江省-杭州市-萧山区-前进街道(三丰行政村-三丰自然村,临江行政村-丰乐自然村);临江街道-杭州水祥水产养殖有限公司,围垦垦区(坎山镇勇建村(坎山三垦),杭州萧山城市建设投资集团有限公司,萧山区瓜沥镇渔庄村(围垦用电),杭州市萧山区靖江街道东桥村经济联合社,甘露四垦种,萧围养殖三场,昭东垦种),前进街道(杭州惠民特种水产养殖场,萧山区靖江镇光明村四垦,萧山区靖江镇花神庙社区（围垦用电）,党湾五垦种,萧山区党湾镇庆丰村（围垦用电）,萧山区党湾镇梅东村（围垦用电）,萧山区瓜沥镇渔庄村(围垦用电),萧山区新湾镇三丰村（围垦用电）,甘露垦种,杭州市萧山区靖江镇农业发展局,萧山区瓜沥镇如松村村民委员会(围垦用电),萧山区靖江镇靖南村垦种,浙江联誉实业有限公司,杭州华恩冷拉型钢有限公司,杭州市萧山区人民政府前进街道办事处)","startTime":"2020-05-15 18:32:00","stopDate":"2020-05-15 19:50:00","orgNo":"3340120","typeCode":"电网故障停限电","poweroffArea":"110kV前进变:前裘0973线2843后段","poweroffReason":"高压开关跳闸 原停电结束时间为2020-05-15 22:32:00,为减少客户停电时间,加快工作进度,提前送电,现变更停电结束时间为2020-05-15 19:50:00","powerTime":"2020-05-15 19:20:09","powerComm":"已送电","subsNo":"","lineNo":"","tgNo":"","tgName":null,"infoStatus":"1","orgName":"国网浙江杭州市钱塘新区供电公司","typeName":null,"infoStatusName":null,"dateDay":null,"orgNos":null,"nowTime":null,"countyName":null,"streetName":null,"villageName":null,"roadName":null,"communityName":null,"tranName":null,"sdLineName":null,"cityCode":"3340120","cityName":"国网浙江杭州市钱塘新区供电公司","provinceCode":null,"stopTime":"2020-05-15 19:50:00","powerType":"全部","powerOffArea":"110kV前进变:前裘0973线2843后段","powerOffReason":"高压开关跳闸 原停电结束时间为2020-05-15 22:32:00,为减少客户停电时间,加快工作进度,提前送电,现变更停电结束时间为2020-05-15 19:50:00","powerOffId":"2020051531021115"},{"poweroffId":2020051531021083,"sgpoweroffId":null,"subsName":"","lineName":"10kV江村Y229线","pubTranName":"丰产村山河台区,","scope":"浙江省-杭州市-建德市-新安江街道-丰产行政村-山河自然村","startTime":"2020-05-15 18:10:00","stopDate":"2020-05-15 20:30:00","orgNo":"3340180","typeCode":"电网故障停限电","poweroffArea":"110kV白沙变:江村Y229线-丰产村山河台区后段","poweroffReason":"(低压停电信息)低压开关跳闸 原停电结束时间为2020-05-15 21:00:00,为减少客户停电时间,加快工作进度,提前送电,现变更停电结束时间为2020-05-15 20:30:00","powerTime":"2020-05-15 19:42:00","powerComm":"已送电","subsNo":"","lineNo":"","tgNo":"","tgName":null,"infoStatus":"1","orgName":"国网浙江建德市供电有限公司","typeName":null,"infoStatusName":null,"dateDay":null,"orgNos":null,"nowTime":null,"countyName":null,"streetName":null,"villageName":null,"roadName":null,"communityName":null,"tranName":null,"sdLineName":null,"cityCode":"3340180","cityName":"国网浙江建德市供电有限公司","provinceCode":null,"stopTime":"2020-05-15 20:30:00","powerType":"全部","powerOffArea":"110kV白沙变:江村Y229线-丰产村山河台区后段","powerOffReason":"(低压停电信息)低压开关跳闸 原停电结束时间为2020-05-15 21:00:00,为减少客户停电时间,加快工作进度,提前送电,现变更停电结束时间为2020-05-15 20:30:00","powerOffId":"2020051531021083"},{"poweroffId":2020051531021002,"sgpoweroffId":null,"subsName":"","lineName":"10kV五星Y744线","pubTranName":"联合村连木桥,","scope":"浙江省-杭州市-建德市-下涯镇-施家行政村-小坞湾自然村,下涯镇-联和行政村(联横自然村,连木桥自然村)","startTime":"2020-05-15 17:45:00","stopDate":"2020-05-15 21:00:00","orgNo":"3340180","typeCode":"电网故障停限电","poweroffArea":"110kV马目变:五星Y744线-联合村连木桥后段","poweroffReason":"(低压停电信息)低压开关跳闸","powerTime":"2020-05-15 20:09:39","powerComm":"已送电","subsNo":"","lineNo":"","tgNo":"","tgName":null,"infoStatus":"1","orgName":"国网浙江建德市供电有限公司","typeName":null,"infoStatusName":null,"dateDay":null,"orgNos":null,"nowTime":null,"countyName":null,"streetName":null,"villageName":null,"roadName":null,"communityName":null,"tranName":null,"sdLineName":null,"cityCode":"3340180","cityName":"国网浙江建德市供电有限公司","provinceCode":null,"stopTime":"2020-05-15 21:00:00","powerType":"全部","powerOffArea":"110kV马目变:五星Y744线-联合村连木桥后段","powerOffReason":"(低压停电信息)低压开关跳闸","powerOffId":"2020051531021002"},{"poweroffId":2020051531020997,"sgpoweroffId":null,"subsName":"","lineName":"10kV洋绛D782线","pubTranName":"洋沙村4号大塔村口公变,上沙村4#村口公变,瓜桥埠村5号华家村北公变,洋沙村2号教会公变,联群村4号大路渔塘公变,联群村2号加工厂公变,上沙村5号村东公变,洋沙村3#鱼塘公变,杭州风铃养老服务有限公司,联群农用,杭州市富阳区场口镇人民政府#王洲幼儿园基建变,洋沙村1#中间公变,联群村3号大路供销社公变,洋沙村5#大塔村东公变,瓜桥埠村3号长塘公变,联群村1号祠堂公变,","scope":"浙江省-杭州市-富阳区-场口镇-上沙行政村-上沙自然村,场口镇-瓜桥埠行政村(华家自然村,瓜桥埠自然村),场口镇-联群行政村(大路自然村,联群自然村,金家自然村),场口镇-洋沙行政村(洋沙自然村,大塔里自然村);场口镇(联群农用,杭州市富阳区场口镇人民政府,杭州风铃养老服务有限公司)","startTime":"2020-05-15 17:45:00","stopDate":"2020-05-15 18:45:00","orgNo":"3340170","typeCode":"电网故障停限电","poweroffArea":"110kV王洲变:洋绛D782线洋绛D7826开关后段","poweroffReason":"高压开关跳闸 原停电结束时间为2020-05-15 19:45:00,为减少客户停电时间,加快工作进度,提前送电,现变更停电结束时间为2020-05-15 18:45:00","powerTime":"2020-05-15 18:10:21","powerComm":"已送电","subsNo":"","lineNo":"","tgNo":"","tgName":null,"infoStatus":"1","orgName":"国网浙江杭州市富阳区供电公司","typeName":null,"infoStatusName":null,"dateDay":null,"orgNos":null,"nowTime":null,"countyName":null,"streetName":null,"villageName":null,"roadName":null,"communityName":null,"tranName":null,"sdLineName":null,"cityCode":"3340170","cityName":"国网浙江杭州市富阳区供电公司","provinceCode":null,"stopTime":"2020-05-15 18:45:00","powerType":"全部","powerOffArea":"110kV王洲变:洋绛D782线洋绛D7826开关后段","powerOffReason":"高压开关跳闸 原停电结束时间为2020-05-15 19:45:00,为减少客户停电时间,加快工作进度,提前送电,现变更停电结束时间为2020-05-15 18:45:00","powerOffId":"2020051531020997"},{"poweroffId":2020051531020952,"sgpoweroffId":null,"subsName":"","lineName":"10kV洋尾Y317线","pubTranName":"伊村村里山岗台区,伊村村王山坞台区,","scope":"浙江省-杭州市-建德市-梅城镇-伊村行政村(里山岗自然村,黄山坞自然村,伊村自然村)","startTime":"2020-05-15 17:19:00","stopDate":"2020-05-15 21:00:00","orgNo":"3340180","typeCode":"电网故障停限电","poweroffArea":"35kV大洋变:洋尾Y317线黄山坞支线0#令克后段","poweroffReason":"高压开关跳闸","powerTime":"2020-05-15 20:11:26","powerComm":"已送电","subsNo":"","lineNo":"","tgNo":"","tgName":null,"infoStatus":"1","orgName":"国网浙江建德市供电有限公司","typeName":null,"infoStatusName":null,"dateDay":null,"orgNos":null,"nowTime":null,"countyName":null,"streetName":null,"villageName":null,"roadName":null,"communityName":null,"tranName":null,"sdLineName":null,"cityCode":"3340180","cityName":"国网浙江建德市供电有限公司","provinceCode":null,"stopTime":"2020-05-15 21:00:00","powerType":"全部","powerOffArea":"35kV大洋变:洋尾Y317线黄山坞支线0#令克后段","powerOffReason":"高压开关跳闸","powerOffId":"2020051531020952"},{"poweroffId":2020051531020948,"sgpoweroffId":null,"subsName":"","lineName":"10kV凤凰Y323线","pubTranName":"新和村短湾台区,新和村吴家台区,新和村明山台区,新和村新和台区,新和村五马山台区,和村村和村台区,","scope":"浙江省-杭州市-建德市-三都镇-和村行政村-和村自然村,三都镇-新和行政村(新和自然村,明山自然村,短湾自然村,吴家自然村,五马山自然村)","startTime":"2020-05-15 17:18:00","stopDate":"2020-05-15 21:00:00","orgNo":"3340180","typeCode":"电网故障停限电","poweroffArea":"35kV三都变:凤凰Y323线后山支线0#真空开关后段","poweroffReason":"高压开关跳闸","powerTime":"2020-05-15 20:10:15","powerComm":"已送电","subsNo":"","lineNo":"","tgNo":"","tgName":null,"infoStatus":"1","orgName":"国网浙江建德市供电有限公司","typeName":null,"infoStatusName":null,"dateDay":null,"orgNos":null,"nowTime":null,"countyName":null,"streetName":null,"villageName":null,"roadName":null,"communityName":null,"tranName":null,"sdLineName":null,"cityCode":"3340180","cityName":"国网浙江建德市供电有限公司","provinceCode":null,"stopTime":"2020-05-15 21:00:00","powerType":"全部","powerOffArea":"35kV三都变:凤凰Y323线后山支线0#真空开关后段","powerOffReason":"高压开关跳闸","powerOffId":"2020051531020948"},{"poweroffId":2020051531020944,"sgpoweroffId":null,"subsName":"","lineName":"10kV新化Y108线","pubTranName":"白沙社区明都公变,","scope":"浙江省-杭州市-建德市-新安江街道-白沙社区(锦江南路,白沙路)","startTime":"2020-05-15 17:10:00","stopDate":"2020-05-15 20:30:00","orgNo":"3340180","typeCode":"电网故障停限电","poweroffArea":"110kV新安江变:新化Y108线-白沙社区明都公变后段","poweroffReason":"(低压停电信息)低压开关跳闸 原停电结束时间为2020-05-15 21:00:00,为减少客户停电时间,加快工作进度,提前送电,现变更停电结束时间为2020-05-15 20:30:00","powerTime":"2020-05-15 19:48:00","powerComm":"已送电","subsNo":"","lineNo":"","tgNo":"","tgName":null,"infoStatus":"1","orgName":"国网浙江建德市供电有限公司","typeName":null,"infoStatusName":null,"dateDay":null,"orgNos":null,"nowTime":null,"countyName":null,"streetName":null,"villageName":null,"roadName":null,"communityName":null,"tranName":null,"sdLineName":null,"cityCode":"3340180","cityName":"国网浙江建德市供电有限公司","provinceCode":null,"stopTime":"2020-05-15 20:30:00","powerType":"全部","powerOffArea":"110kV新安江变:新化Y108线-白沙社区明都公变后段","powerOffReason":"(低压停电信息)低压开关跳闸 原停电结束时间为2020-05-15 21:00:00,为减少客户停电时间,加快工作进度,提前送电,现变更停电结束时间为2020-05-15 20:30:00","powerOffId":"2020051531020944"},{"poweroffId":2020051531020925,"sgpoweroffId":null,"subsName":"","lineName":"10kV更楼Y104线","pubTranName":"黄岙村岗上台区,","scope":"浙江省-杭州市-建德市-更楼街道-黄岙行政村(黄岙新村自然村,岗上自然村,黄岙自然村)","startTime":"2020-05-15 17:07:00","stopDate":"2020-05-15 20:00:00","orgNo":"3340180","typeCode":"电网故障停限电","poweroffArea":"110kV新安江变:更楼Y104线-黄岙村岗上台区后段","poweroffReason":"(低压停电信息)低压开关跳闸 原停电结束时间为2020-05-15 21:00:00,为减少客户停电时间,加快工作进度,提前送电,现变更停电结束时间为2020-05-15 20:00:00","powerTime":"2020-05-15 19:22:00","powerComm":"已送电","subsNo":"","lineNo":"","tgNo":"","tgName":null,"infoStatus":"1","orgName":"国网浙江建德市供电有限公司","typeName":null,"infoStatusName":null,"dateDay":null,"orgNos":null,"nowTime":null,"countyName":null,"streetName":null,"villageName":null,"roadName":null,"communityName":null,"tranName":null,"sdLineName":null,"cityCode":"3340180","cityName":"国网浙江建德市供电有限公司","provinceCode":null,"stopTime":"2020-05-15 20:00:00","powerType":"全部","powerOffArea":"110kV新安江变:更楼Y104线-黄岙村岗上台区后段","powerOffReason":"(低压停电信息)低压开关跳闸 原停电结束时间为2020-05-15 21:00:00,为减少客户停电时间,加快工作进度,提前送电,现变更停电结束时间为2020-05-15 20:00:00","powerOffId":"2020051531020925"}],"pageModel":{"pageNow":153,"totalCount":17787,"totalPage":1779,"tableRows":0,"pageCount":10,"beginCount":1520},"isExperi":"1"}