{"message":"","today":"2020-06-16","seleList":[{"poweroffId":2019070131010025,"sgpoweroffId":null,"subsName":"","lineName":"10kV五星Y744线","pubTranName":"联和村联横台区,","scope":"浙江省-杭州市-建德市-下涯镇 联和行政村-联横自然村、桑园自然村一带用户。","startTime":"2019-07-01 07:14:00","stopDate":"2019-07-01 08:00:00","orgNo":"3340180","typeCode":"电网故障停限电","poweroffArea":"110kV马目变:五星Y744线-联和村联横台区后段","poweroffReason":"五星Y744线-联和村联横台区 低压配电设备故障 原预计停电结束时间09:30，目前故障已修复，现将停电时间变更至08:00。","powerTime":"2019-07-01 07:43:00","powerComm":"已送电","subsNo":"","lineNo":"","tgNo":"","tgName":null,"infoStatus":"1","orgName":"国网浙江建德市供电有限公司","typeName":null,"infoStatusName":null,"dateDay":null,"orgNos":null,"nowTime":null,"countyName":null,"streetName":null,"villageName":null,"roadName":null,"communityName":null,"tranName":null,"sdLineName":null,"cityCode":"3340180","cityName":"国网浙江建德市供电有限公司","provinceCode":null,"stopTime":"2019-07-01 08:00:00","powerType":"全部","powerOffArea":"110kV马目变:五星Y744线-联和村联横台区后段","powerOffReason":"五星Y744线-联和村联横台区 低压配电设备故障 原预计停电结束时间09:30，目前故障已修复，现将停电时间变更至08:00。","powerOffId":"2019070131010025"},{"poweroffId":2019070131010011,"sgpoweroffId":null,"subsName":"","lineName":"10kV云会H408线","pubTranName":"良渚村卜家里东公变,三力橡胶,良渚村卜家里中公变,铭泰塑胶,杭州鑫德钢化玻璃有限公司,良渚村卜家里西公变,杭州市余杭区人民政府良渚街道办事处,仰家塘村山西坝公变,良渚村费家塘公变,良渚村卜家里后公变,良渚村双坝头公变,杭州余杭良渚康力塑料厂,","scope":"浙江省-杭州市-余杭区-良渚街道(良渚行政村-仰家塘自然村);(杭州三力橡胶制品有限公司,杭州市余杭区人民政府良渚街道办事处,杭州艺旺包装材料有限公司,杭州余杭良渚康力塑料厂,浙江伟创电力科技有限公司)一带","startTime":"2019-07-01 05:24:00","stopDate":"2019-07-01 08:20:00","orgNo":"3340140","typeCode":"电网故障停限电","poweroffArea":"35kV良渚变:云会H408线-双坝头闸站分线开关后段","poweroffReason":"云会H408线-双坝头闸站分线开关后段低压线路故障（原停电结束时间：2019-07-01 09:24:00，变更停电结束时间原因：现场抢修较为顺利，已恢复用电）","powerTime":"2019-07-01 07:54:00","powerComm":"已送电","subsNo":"","lineNo":"","tgNo":"","tgName":null,"infoStatus":"1","orgName":"国网浙江杭州市余杭区供电有限公司","typeName":null,"infoStatusName":null,"dateDay":null,"orgNos":null,"nowTime":null,"countyName":null,"streetName":null,"villageName":null,"roadName":null,"communityName":null,"tranName":null,"sdLineName":null,"cityCode":"3340140","cityName":"国网浙江杭州市余杭区供电有限公司","provinceCode":null,"stopTime":"2019-07-01 08:20:00","powerType":"全部","powerOffArea":"35kV良渚变:云会H408线-双坝头闸站分线开关后段","powerOffReason":"云会H408线-双坝头闸站分线开关后段低压线路故障（原停电结束时间：2019-07-01 09:24:00，变更停电结束时间原因：现场抢修较为顺利，已恢复用电）","powerOffId":"2019070131010011"},{"poweroffId":2019063031010345,"sgpoweroffId":null,"subsName":"","lineName":"10kV孙蔡Y130线","pubTranName":"胥江村龙青寺台区,","scope":"浙江省-杭州市-建德市-乾潭镇 胥江行政村-龙青寺自然村一带用户。","startTime":"2019-06-30 19:40:00","stopDate":"2019-06-30 21:00:00","orgNo":"3340180","typeCode":"电网故障停限电","poweroffArea":"110kV乾潭变:孙蔡Y130线-胥江村龙青寺台区后段","poweroffReason":"孙蔡Y130线-胥江村龙青寺台区 低压配电设备故障 原预计停电结束时间21:30，目前故障已修复，现将停电时间变更至21:00。","powerTime":"2019-06-30 20:13:00","powerComm":"已送电","subsNo":"","lineNo":"","tgNo":"","tgName":null,"infoStatus":"1","orgName":"国网浙江建德市供电有限公司","typeName":null,"infoStatusName":null,"dateDay":null,"orgNos":null,"nowTime":null,"countyName":null,"streetName":null,"villageName":null,"roadName":null,"communityName":null,"tranName":null,"sdLineName":null,"cityCode":"3340180","cityName":"国网浙江建德市供电有限公司","provinceCode":null,"stopTime":"2019-06-30 21:00:00","powerType":"全部","powerOffArea":"110kV乾潭变:孙蔡Y130线-胥江村龙青寺台区后段","powerOffReason":"孙蔡Y130线-胥江村龙青寺台区 低压配电设备故障 原预计停电结束时间21:30，目前故障已修复，现将停电时间变更至21:00。","powerOffId":"2019063031010345"},{"poweroffId":2019063031010299,"sgpoweroffId":null,"subsName":"","lineName":"10kV绪塘Y157线","pubTranName":"杨村桥村马步街台区,","scope":"浙江省-杭州市-建德市-杨村桥镇 杨村桥行政村-马步街自然村、王谢自然村一带用户","startTime":"2019-06-30 17:25:00","stopDate":"2019-06-30 20:00:00","orgNo":"3340180","typeCode":"电网故障停限电","poweroffArea":"110kV沿口变:绪塘Y157线-杨村桥村马步街台区后段","poweroffReason":"绪塘Y157线-杨村桥村马步街台区 低压配电设备故障","powerTime":"2019-06-30 19:19:00","powerComm":"已送电","subsNo":"","lineNo":"","tgNo":"","tgName":null,"infoStatus":"1","orgName":"国网浙江建德市供电有限公司","typeName":null,"infoStatusName":null,"dateDay":null,"orgNos":null,"nowTime":null,"countyName":null,"streetName":null,"villageName":null,"roadName":null,"communityName":null,"tranName":null,"sdLineName":null,"cityCode":"3340180","cityName":"国网浙江建德市供电有限公司","provinceCode":null,"stopTime":"2019-06-30 20:00:00","powerType":"全部","powerOffArea":"110kV沿口变:绪塘Y157线-杨村桥村马步街台区后段","powerOffReason":"绪塘Y157线-杨村桥村马步街台区 低压配电设备故障","powerOffId":"2019063031010299"},{"poweroffId":2019063031010295,"sgpoweroffId":null,"subsName":"","lineName":"10kV新城Y304线","pubTranName":"城西村下路山台区,","scope":"浙江省-杭州市-建德市-梅城镇 城西行政村-黄粟坪自然村、下路山自然村一带用户。","startTime":"2019-06-30 17:21:00","stopDate":"2019-06-30 20:00:00","orgNo":"3340180","typeCode":"电网故障停限电","poweroffArea":"110kV梅城变:新城Y304线-城西村下路山台区后段","poweroffReason":"新城Y304线-城西村下路山台区 低压配电设备故障","powerTime":"2019-06-30 19:24:00","powerComm":"已送电","subsNo":"","lineNo":"","tgNo":"","tgName":null,"infoStatus":"1","orgName":"国网浙江建德市供电有限公司","typeName":null,"infoStatusName":null,"dateDay":null,"orgNos":null,"nowTime":null,"countyName":null,"streetName":null,"villageName":null,"roadName":null,"communityName":null,"tranName":null,"sdLineName":null,"cityCode":"3340180","cityName":"国网浙江建德市供电有限公司","provinceCode":null,"stopTime":"2019-06-30 20:00:00","powerType":"全部","powerOffArea":"110kV梅城变:新城Y304线-城西村下路山台区后段","powerOffReason":"新城Y304线-城西村下路山台区 低压配电设备故障","powerOffId":"2019063031010295"},{"poweroffId":2019063031010294,"sgpoweroffId":null,"subsName":"","lineName":"10kV江村Y229线","pubTranName":"白沙社区章家台区,","scope":"浙江省-杭州市-建德市-新安江街道 白沙社区-章家自然村、丰产村、白沙社区高塘坞自然村一带用户。","startTime":"2019-06-30 17:19:00","stopDate":"2019-06-30 19:30:00","orgNo":"3340180","typeCode":"电网故障停限电","poweroffArea":"110kV白沙变:江村Y229线-白沙社区章家台区后段","poweroffReason":"江村Y229线-白沙社区章家台区 低压配电设备故障 原预计停电结束时间20:00，目前故障已修复，现将停电时间变更至19:30。","powerTime":"2019-06-30 19:03:00","powerComm":"已送电","subsNo":"","lineNo":"","tgNo":"","tgName":null,"infoStatus":"1","orgName":"国网浙江建德市供电有限公司","typeName":null,"infoStatusName":null,"dateDay":null,"orgNos":null,"nowTime":null,"countyName":null,"streetName":null,"villageName":null,"roadName":null,"communityName":null,"tranName":null,"sdLineName":null,"cityCode":"3340180","cityName":"国网浙江建德市供电有限公司","provinceCode":null,"stopTime":"2019-06-30 19:30:00","powerType":"全部","powerOffArea":"110kV白沙变:江村Y229线-白沙社区章家台区后段","powerOffReason":"江村Y229线-白沙社区章家台区 低压配电设备故障 原预计停电结束时间20:00，目前故障已修复，现将停电时间变更至19:30。","powerOffId":"2019063031010294"},{"poweroffId":2019063031010270,"sgpoweroffId":null,"subsName":"","lineName":"10kV寿昌Y172线","pubTranName":"寿昌集镇城北公变,","scope":"浙江省-杭州市-建德市-寿昌镇 望江社区-湖心巷、解放路、梅家巷、万松路一带用户。","startTime":"2019-06-30 16:38:00","stopDate":"2019-06-30 18:00:00","orgNo":"3340180","typeCode":"电网故障停限电","poweroffArea":"110kV航头变:寿昌Y172线-寿昌集镇城北公变后段","poweroffReason":"寿昌Y172线-寿昌集镇城北公变 低压配电设备故障 原预计停电结束时间19:00，目前故障已修复，现将停电时间变更至18:00。","powerTime":"2019-06-30 17:40:00","powerComm":"已送电","subsNo":"","lineNo":"","tgNo":"","tgName":null,"infoStatus":"1","orgName":"国网浙江建德市供电有限公司","typeName":null,"infoStatusName":null,"dateDay":null,"orgNos":null,"nowTime":null,"countyName":null,"streetName":null,"villageName":null,"roadName":null,"communityName":null,"tranName":null,"sdLineName":null,"cityCode":"3340180","cityName":"国网浙江建德市供电有限公司","provinceCode":null,"stopTime":"2019-06-30 18:00:00","powerType":"全部","powerOffArea":"110kV航头变:寿昌Y172线-寿昌集镇城北公变后段","powerOffReason":"寿昌Y172线-寿昌集镇城北公变 低压配电设备故障 原预计停电结束时间19:00，目前故障已修复，现将停电时间变更至18:00。","powerOffId":"2019063031010270"},{"poweroffId":2019063031010264,"sgpoweroffId":null,"subsName":"","lineName":"10kV林峰A393线","pubTranName":"盈二村5#变,","scope":"浙江省-杭州市-萧山区-宁围镇、宁围街道(盈二行政村-盈二自然村)创业路88号军民闸等一带","startTime":"2019-06-30 16:34:33","stopDate":"2019-06-30 19:36:13","orgNo":"3340130","typeCode":"电网故障停限电","poweroffArea":"110kV顺坝变:林峰A393线-盈二村5#变台区低压开关","poweroffReason":"低压漏电保护器短路故障","powerTime":"2019-06-30 18:50:01","powerComm":"已送电","subsNo":"","lineNo":"","tgNo":"","tgName":null,"infoStatus":"1","orgName":"国网浙江杭州市萧山区供电有限公司","typeName":null,"infoStatusName":null,"dateDay":null,"orgNos":null,"nowTime":null,"countyName":null,"streetName":null,"villageName":null,"roadName":null,"communityName":null,"tranName":null,"sdLineName":null,"cityCode":"3340130","cityName":"国网浙江杭州市萧山区供电有限公司","provinceCode":null,"stopTime":"2019-06-30 19:36:13","powerType":"全部","powerOffArea":"110kV顺坝变:林峰A393线-盈二村5#变台区低压开关","powerOffReason":"低压漏电保护器短路故障","powerOffId":"2019063031010264"},{"poweroffId":2019063031010228,"sgpoweroffId":null,"subsName":"","lineName":"10kV东吴C234线","pubTranName":"楼英村4#变,","scope":"浙江省-杭州市-萧山区-楼塔镇(楼英行政村-楼一自然村、楼英自然村、溪口路、下溪滩)等一带","startTime":"2019-06-30 15:36:32","stopDate":"2019-06-30 18:00:41","orgNo":"3340130","typeCode":"电网故障停限电","poweroffArea":"35kV楼塔变:东吴C234线-楼英村4#变台区低压开关","poweroffReason":"低压熔断器短路故障","powerTime":"2019-06-30 17:04:58","powerComm":"已送电","subsNo":"","lineNo":"","tgNo":"","tgName":null,"infoStatus":"1","orgName":"国网浙江杭州市萧山区供电有限公司","typeName":null,"infoStatusName":null,"dateDay":null,"orgNos":null,"nowTime":null,"countyName":null,"streetName":null,"villageName":null,"roadName":null,"communityName":null,"tranName":null,"sdLineName":null,"cityCode":"3340130","cityName":"国网浙江杭州市萧山区供电有限公司","provinceCode":null,"stopTime":"2019-06-30 18:00:41","powerType":"全部","powerOffArea":"35kV楼塔变:东吴C234线-楼英村4#变台区低压开关","powerOffReason":"低压熔断器短路故障","powerOffId":"2019063031010228"},{"poweroffId":2019063031010197,"sgpoweroffId":null,"subsName":"","lineName":"10kV国酒C524线","pubTranName":"考试中心1#公变,","scope":"浙江省杭州市萧山区城厢街道江寺社区文化路绣衣坊11幢,浙江省杭州市萧山区城厢街道西河路社区市心南路41号书店,浙江省杭州市萧山区城厢街道江寺社区文化路绣衣坊B幢2楼19-21轴,浙江省杭州市萧山区城厢街道江寺社区文化路城河街9-112表装店对面墙上,浙江省杭州市萧山区城厢街道西河路社区市心南路城河街22号3楼舞厅,浙江省杭州市萧山区城厢街道西河路社区市心南路城河街绣衣坊,浙江省杭州市萧山区城厢街道西河路社区西河路城河街8号,浙江省杭州市萧山区城厢街道江寺社区文化路城河街绣衣坊B座307室,浙江省杭州市萧山区城厢街道江寺社区文化路绣衣坊D座,浙江省杭州市萧山区城厢街道江寺社区文化路城河街11号绣衣坊B幢二楼,浙江省杭州市萧山区城厢街道西河路社区城河街绣衣坊,浙江省杭州市萧山区城厢街道江寺社区城河街绣衣坊内绣衣坊公厕,浙江省杭州市萧山区城厢街道西河路社区市心南路城河街22号边院内西边,浙江省杭州市萧山区城厢街道江寺社区文化路城河边绣衣坊B幢15-17号,浙江省杭州市萧山区城厢街道江寺社区城河街绣衣坊E座,浙江省杭州市萧山区城厢街道西河路社区市心南路城河街21号,浙江省杭州市萧山区城厢街道江寺社区文化路城河街绣衣纺B座205室一带","startTime":"2019-06-30 14:40:00","stopDate":"2019-06-30 16:00:00","orgNo":"3340130","typeCode":"电网故障停限电","poweroffArea":"110kV湘湖变:国酒C524线-考试中心1#公变台区低压开关","poweroffReason":"变压器开关跳闸，原停电结束时间：2019-06-30 17:00:00，变更停电结束时间：2019-06-30 16:00:00，变更停电结束时间原因：由于抢修工作提前结束，故需要提前送电。","powerTime":"2019-06-30 15:14:44","powerComm":"已送电","subsNo":"","lineNo":"","tgNo":"","tgName":null,"infoStatus":"1","orgName":"国网浙江杭州市萧山区供电有限公司","typeName":null,"infoStatusName":null,"dateDay":null,"orgNos":null,"nowTime":null,"countyName":null,"streetName":null,"villageName":null,"roadName":null,"communityName":null,"tranName":null,"sdLineName":null,"cityCode":"3340130","cityName":"国网浙江杭州市萧山区供电有限公司","provinceCode":null,"stopTime":"2019-06-30 16:00:00","powerType":"全部","powerOffArea":"110kV湘湖变:国酒C524线-考试中心1#公变台区低压开关","powerOffReason":"变压器开关跳闸，原停电结束时间：2019-06-30 17:00:00，变更停电结束时间：2019-06-30 16:00:00，变更停电结束时间原因：由于抢修工作提前结束，故需要提前送电。","powerOffId":"2019063031010197"}],"pageModel":{"pageNow":1519,"totalCount":17789,"totalPage":1779,"tableRows":0,"pageCount":10,"beginCount":15180},"isExperi":"1"}