{"message":"","today":"2020-06-16","seleList":[{"poweroffId":2019062931020015,"sgpoweroffId":null,"subsName":"","lineName":"10kV河工355线","pubTranName":"虹欧塑胶,同一村11#变,晨力纺织1#,百威针织,杭州中达卫浴有限公司01,晨力纺织2#,","scope":"浙江省-杭州市-萧山区-河庄街道-同一行政村-同一自然村;浙江省-杭州市-萧山区-河庄街道-杭州中达卫浴有限公司,河庄街道-同一行政村(杭州晨力纺织有限公司,杭州拓尔微电子有限公司,杭州虹欧塑胶有限公司)","startTime":"2019-07-11 09:00:00","stopDate":"2019-07-11 16:20:00","orgNo":"3340120","typeCode":"计划停电","poweroffArea":"110kV河庄变:河工355线-同一（11）分线01开关刀闸后段","poweroffReason":"2019年大江东供电公司中压大修一期工程","powerTime":"2019-07-11 15:50:47","powerComm":"已送电","subsNo":"","lineNo":"","tgNo":"","tgName":null,"infoStatus":"1","orgName":"国网浙江杭州市钱塘新区供电公司","typeName":null,"infoStatusName":null,"dateDay":null,"orgNos":null,"nowTime":null,"countyName":null,"streetName":null,"villageName":null,"roadName":null,"communityName":null,"tranName":null,"sdLineName":null,"cityCode":"3340120","cityName":"国网浙江杭州市钱塘新区供电公司","provinceCode":null,"stopTime":"2019-07-11 16:20:00","powerType":"全部","powerOffArea":"110kV河庄变:河工355线-同一（11）分线01开关刀闸后段","powerOffReason":"2019年大江东供电公司中压大修一期工程","powerOffId":"2019062931020015"},{"poweroffId":2019062931020014,"sgpoweroffId":null,"subsName":"","lineName":"10kV钱安357线","pubTranName":"钱江安置小区11#箱变,钱江安置小区21#箱变,钱江安置小区12#箱变,","scope":"浙江省-杭州市-萧山区-河庄街道-向前行政村-向前自然村、群欢村、群建村","startTime":"2019-07-11 09:00:00","stopDate":"2019-07-11 19:30:00","orgNo":"3340120","typeCode":"计划停电","poweroffArea":"110kV河庄变:钱安357线-安置六线后段","poweroffReason":"钱江安置小区21#变美变更换欧变工作","powerTime":"2019-07-11 19:28:39","powerComm":"已送电","subsNo":"","lineNo":"","tgNo":"","tgName":null,"infoStatus":"1","orgName":"国网浙江杭州市钱塘新区供电公司","typeName":null,"infoStatusName":null,"dateDay":null,"orgNos":null,"nowTime":null,"countyName":null,"streetName":null,"villageName":null,"roadName":null,"communityName":null,"tranName":null,"sdLineName":null,"cityCode":"3340120","cityName":"国网浙江杭州市钱塘新区供电公司","provinceCode":null,"stopTime":"2019-07-11 19:30:00","powerType":"全部","powerOffArea":"110kV河庄变:钱安357线-安置六线后段","powerOffReason":"钱江安置小区21#变美变更换欧变工作","powerOffId":"2019062931020014"},{"poweroffId":2019062931020011,"sgpoweroffId":null,"subsName":"","lineName":"10kV益农462线","pubTranName":"共建村3#变,","scope":"浙江省-杭州市-萧山区-新湾街道-共建行政村-共建自然村","startTime":"2019-07-10 09:00:00","stopDate":"2019-07-10 13:10:00","orgNo":"3340120","typeCode":"计划停电","poweroffArea":"35kV新湾变:益农462线-共建村3#变后段","poweroffReason":"10kv益农462线新上共建村19#变一台等工作","powerTime":"2019-07-10 12:01:04","powerComm":"已送电","subsNo":"","lineNo":"","tgNo":"","tgName":null,"infoStatus":"1","orgName":"国网浙江杭州市钱塘新区供电公司","typeName":null,"infoStatusName":null,"dateDay":null,"orgNos":null,"nowTime":null,"countyName":null,"streetName":null,"villageName":null,"roadName":null,"communityName":null,"tranName":null,"sdLineName":null,"cityCode":"3340120","cityName":"国网浙江杭州市钱塘新区供电公司","provinceCode":null,"stopTime":"2019-07-10 13:10:00","powerType":"全部","powerOffArea":"35kV新湾变:益农462线-共建村3#变后段","powerOffReason":"10kv益农462线新上共建村19#变一台等工作","powerOffId":"2019062931020011"},{"poweroffId":2019062931020010,"sgpoweroffId":null,"subsName":"","lineName":"10kV向公347线","pubTranName":"新和村11#变,","scope":"浙江省-杭州市-萧山区-河庄街道-新和行政村-新和自然村","startTime":"2019-07-10 09:00:00","stopDate":"2019-07-10 16:00:00","orgNo":"3340120","typeCode":"计划停电","poweroffArea":"110kV河庄变:向公347线-新和村11#变后段","poweroffReason":"新和村11#变低压台区改造工作","powerTime":"2019-07-10 15:25:41","powerComm":"已送电","subsNo":"","lineNo":"","tgNo":"","tgName":null,"infoStatus":"1","orgName":"国网浙江杭州市钱塘新区供电公司","typeName":null,"infoStatusName":null,"dateDay":null,"orgNos":null,"nowTime":null,"countyName":null,"streetName":null,"villageName":null,"roadName":null,"communityName":null,"tranName":null,"sdLineName":null,"cityCode":"3340120","cityName":"国网浙江杭州市钱塘新区供电公司","provinceCode":null,"stopTime":"2019-07-10 16:00:00","powerType":"全部","powerOffArea":"110kV河庄变:向公347线-新和村11#变后段","powerOffReason":"新和村11#变低压台区改造工作","powerOffId":"2019062931020010"},{"poweroffId":2019062931020008,"sgpoweroffId":null,"subsName":"","lineName":"10kV新白A41线","pubTranName":"新湾街道19#变,新湾街道3#变,友晟卫浴,","scope":"浙江省-杭州市-萧山区-新湾街道-新北桥社区-公用变一自然村;浙江省-杭州市-萧山区-新湾街道-三新行政村-杭州新和虹实业有限公司","startTime":"2019-07-08 09:00:00","stopDate":"2019-07-08 14:30:00","orgNo":"3340120","typeCode":"计划停电","poweroffArea":"110kV白浪变:新白A41线-新白A41线116柱上开关后段","poweroffReason":"新湾街道3#变增容工作","powerTime":"2019-07-08 13:59:19","powerComm":"已送电","subsNo":"","lineNo":"","tgNo":"","tgName":null,"infoStatus":"1","orgName":"国网浙江杭州市钱塘新区供电公司","typeName":null,"infoStatusName":null,"dateDay":null,"orgNos":null,"nowTime":null,"countyName":null,"streetName":null,"villageName":null,"roadName":null,"communityName":null,"tranName":null,"sdLineName":null,"cityCode":"3340120","cityName":"国网浙江杭州市钱塘新区供电公司","provinceCode":null,"stopTime":"2019-07-08 14:30:00","powerType":"全部","powerOffArea":"110kV白浪变:新白A41线-新白A41线116柱上开关后段","powerOffReason":"新湾街道3#变增容工作","powerOffId":"2019062931020008"},{"poweroffId":2019062931020007,"sgpoweroffId":null,"subsName":"","lineName":"10kV廿围0061线","pubTranName":"萧山种鸡01#,新湾,广绿生物肥料2#,靖江镇农业发展局,新东湾农业01#,广绿生物肥料,新东湾农业,党湾勤联垦种,新围,","scope":"浙江省-杭州市-萧山区-围垦垦区-萧山5.2万亩垦区(新围,杭州市萧山区靖江镇农业发展局(围垦用电),新湾,萧山区党湾镇勤联村（围垦用电）),围垦垦区-十八工段片区(杭州广绿养殖有限公司,浙江新东湾农业开发有限公司),新湾街道-浙江新东湾农业开发有限公司,围垦垦区-杭州萧山种鸡（萧山鸡）有限公司","startTime":"2019-07-08 09:00:00","stopDate":"2019-07-08 17:30:00","orgNo":"3340120","typeCode":"计划停电","poweroffArea":"110kV长征变:廿围0061线首端，2865，2864之间","poweroffReason":"10kV廿围0061线导线更换等工作","powerTime":"2019-07-08 14:22:39","powerComm":"由于施工现场环境比较复杂，存在不确定因素，因此预估施工时间适当放长了，而实际施工进行得比较顺利，因此提前送电了","subsNo":"","lineNo":"","tgNo":"","tgName":null,"infoStatus":"1","orgName":"国网浙江杭州市钱塘新区供电公司","typeName":null,"infoStatusName":null,"dateDay":null,"orgNos":null,"nowTime":null,"countyName":null,"streetName":null,"villageName":null,"roadName":null,"communityName":null,"tranName":null,"sdLineName":null,"cityCode":"3340120","cityName":"国网浙江杭州市钱塘新区供电公司","provinceCode":null,"stopTime":"2019-07-08 17:30:00","powerType":"全部","powerOffArea":"110kV长征变:廿围0061线首端，2865，2864之间","powerOffReason":"10kV廿围0061线导线更换等工作","powerOffId":"2019062931020007"},{"poweroffId":2019062931020005,"sgpoweroffId":null,"subsName":"","lineName":"10kV石墓D217线","pubTranName":"云水山居1#公变,杭州富阳华仪仪表有限公司1#变,云水山居14号公变,杭州农趣食品有限公司,杭州绿城银湖置业有限公司 1#,云水山居2#公变,勤丰村6号北渠南公变,浙江交工集团股份有限公司2#变,郜村2号村委公变,云水山居22号公变配变,云水山居26号公变,云水山居24号公变,云水山居19号公变,云水山居28号公变,2#变,云水山居15#公变,杭州百斯特门窗有限公司,杭州富阳章诚机械制造有限公司1#变,杭州富阳长江发电机有限公司,云水山居16#公变,云水山居4#公变,杭州兴发弹簧有限公司3#变,云水山居12#公变,杭州百斯特门窗有限公司1#变,云水山居16#公变,郜村1号村北公变,杭州富春食品添加剂有限公司1#变,杭州金宇房地产开发有限公司,勤丰村3#黄泥山公变,杭州金宇房地产开发有限公司1#变,勤丰村白龙寺1#村口公变,食品添加剂有限公司变压器,富阳市高桥镇勤丰村村民委员会,云水山居22号公变,杭州华晨工贸有限公司,云水山居11#公变,云水山居4#公变,杭州金丰管件有限公司,杭州兴发弹簧有限公司,杭州绿城银湖置业有限公司 1#,杭州绿城银湖置业有限公司 3#,云水山居18#公变,杭州市富阳区银湖街道勤丰村,1#变,浙江交工集团股份有限公司1#变,勤丰村1#陆家山外公变,云水山居13号公变,杭州华晨工贸有限公司,富阳市路灯安装维修管理所,云水26号公变,杭州农趣食品有限公司,云水山居23号公变,云水29号公变,银湖街道勤丰村村民委员会公变,浙江交工集团股份有限公司2#变,云水山居17#公变,云水山居18#公变,云水山居11#公变,云水山居14号公变,勤丰村2#陆家山里公变,杭州富阳城北加油站有限公司 1#,云水山居2#公变,杭州百斯特门窗有限公司,杭州金宇房地产开发有限公司,云水山居29号公变,杭州金宇房地产开发有限公司,杭州金宇房地产开发有限公司,云水山居25号公变,云水山居19号公变配变,云水27号公变,云水山居3#公变,浙江交工集团股份有限公司,勤丰村4号和尚庄公变,云水25号公变,2#变,勤丰村白龙寺2#戴家坞公变,杭州富春食品添加剂有限公司,富阳万彩物资有限公司,云水山居21号公变配变,云水山居17#公变,云水山居27号公变,勤丰村5号三角区公变,云水山居23号公变,富阳市金马金属包装有限公司,云水山居3#公变,杭州富阳华仪仪表有限公司,云水山居12#公变,云水山居21号公变,杭州绿城银湖置业有限公司2#,云水28号公变,杭州富阳章诚机械制造有限公司,杭州富阳城北加油站有限公司,云水山居13号公变,富阳市路灯安装维修管理所,云水山居20号公变配变,富阳富强实业有限公司,浙江交工集团股份有限公司合上庄1#变,浙江交工集团股份有限公司,杭州富春食品添加剂有限公司,杭州百斯特门窗有限公司2#变,云水山居15#公变,云水山居24号公变,勤丰村8号和尚庄公变,云水山居1#公变,云水山居20号公变,","scope":"浙江省-杭州市-富阳区-富春街道-勤丰行政村-勤丰村,银湖街道-勤丰行政村(和尚庄自然村,勤丰自然村,黄泥山自然村,白龙寺自然村,陆家山自然村),银湖街道(郜村行政村-郜村自然村,高桥行政村-高桥自然村);富春街道-富阳市高桥镇勤丰村村民委员会,银湖街道(杭州富阳长江发电机有限公司,杭州百斯特门窗有限公司,杭州富阳金马金属包装有限公司,杭州富阳万彩物资有限公司,杭州金宇房地产开发有限公司,杭州绿城银湖置业有限公司,杭州富春食品添加剂有限公司,杭州兴发弹簧有限公司,杭州富阳城市照明工程有限公司,杭州梦亮包装制品有限公司,杭州富阳华仪仪表有限公司,杭州富阳章诚机械制造有限公司,浙江壳牌燃油有限公司,浙江交工集团股份有限公司,杭州东昱艺术培训有限公司)","startTime":"2019-06-29 12:30:00","stopDate":"2019-06-29 14:30:00","orgNo":"3340170","typeCode":"电网故障停限电","poweroffArea":"110kV银湖变:石墓D217线石墓D2176开关后段","poweroffReason":"高压开关跳闸","powerTime":"2019-06-29 13:31:50","powerComm":"已送电","subsNo":"","lineNo":"","tgNo":"","tgName":null,"infoStatus":"1","orgName":"国网浙江杭州市富阳区供电公司","typeName":null,"infoStatusName":null,"dateDay":null,"orgNos":null,"nowTime":null,"countyName":null,"streetName":null,"villageName":null,"roadName":null,"communityName":null,"tranName":null,"sdLineName":null,"cityCode":"3340170","cityName":"国网浙江杭州市富阳区供电公司","provinceCode":null,"stopTime":"2019-06-29 14:30:00","powerType":"全部","powerOffArea":"110kV银湖变:石墓D217线石墓D2176开关后段","powerOffReason":"高压开关跳闸","powerOffId":"2019062931020005"},{"poweroffId":2019062931020002,"sgpoweroffId":null,"subsName":"","lineName":"10kV秋山D925线","pubTranName":"杭州昌顺家私有限公司1#变,杭州泽通建筑节能新材料有限公司,万众石料二四组,渔山村三元8号安置公变,杭州弘博新材料有限公司2#,杭州墅溪机械制造有限公司,杭州昌顺家私有限公司,3#电机,富阳杭加新型建材有限公司,林峰新村1#大庙根公变,杭州弘博新材料有限公司,浙江大有预制构件有限公司,里山排涝站,富阳杭加新型建材有限公司,2#电机,三元村5#朱母畈村上公变,富阳市渔山乡欢林石粉经营部,杭州泽通建筑节能新材料有限公司2#,中铁一局集团第五工程有限公司渔山桥头1#基建变,渔山乡排涝站,富阳万森汽车零部件有限公司,渔山村三元8号安置公变,杭州昌顺家私有限公司,浙江大有预制构件有限公司,杭州昌顺家私有限公司1#变,杭州东复科技有限公司,杭州世纪云母绝缘材料有限公司,渔山2#三元江边公变,杭州东复科技有限公司,富阳万森汽车零部件有限公司,渔山1#乡政府公变,杭州世纪云母绝缘材料有限公司,渔山1#乡政府公变,杭州墅溪机械制造有限公司1#变,三元村1#朱母畈公变,渔山乡排涝站,杭州弘博新材料有限公司1#,富阳市渔山雁峨山石料厂,富阳市渔山雁峨山石料厂,万众村8号秋山公变,","scope":"浙江省-杭州市-富阳区-渔山乡-大葛行政村-旭光自然村,渔山乡-渔山行政村(黎明自然村,三元自然村,曙光自然村,五一自然村),渔山乡-墅溪行政村(林峰新村自然村,万众自然村);里山镇-里山排涝站,渔山乡(万众石料二四组,富阳市渔山乡欢林石粉经营部,渔山乡排涝站,杭州世纪云母绝缘材料有限公司,中铁一局集团第五工程有限公司,杭州泽通建筑节能新材料有限公司,杭州弘博新材料有限公司,杭州富阳杭加新型建材有限公司,杭州墅溪机械制造有限公司,浙江大有预制构件有限公司,富阳市渔山雁峨山石料厂,杭州东复科技有限公司,杭州富阳万森汽车零部件有限公司,杭州昌顺家私有限公司,)","startTime":"2019-06-29 05:13:00","stopDate":"2019-06-29 11:00:00","orgNo":"3340170","typeCode":"电网故障停限电","poweroffArea":"110kV里渔变:秋山D925线秋山D925线开关后段","poweroffReason":"高压开关跳闸，原停电结束时间 2019-06-29 07:13:00，因抢修难度较大变更至2019-06-29 11:00:00","powerTime":"2019-06-29 10:26:26","powerComm":"已送电","subsNo":"","lineNo":"","tgNo":"","tgName":null,"infoStatus":"1","orgName":"国网浙江杭州市富阳区供电公司","typeName":null,"infoStatusName":null,"dateDay":null,"orgNos":null,"nowTime":null,"countyName":null,"streetName":null,"villageName":null,"roadName":null,"communityName":null,"tranName":null,"sdLineName":null,"cityCode":"3340170","cityName":"国网浙江杭州市富阳区供电公司","provinceCode":null,"stopTime":"2019-06-29 11:00:00","powerType":"全部","powerOffArea":"110kV里渔变:秋山D925线秋山D925线开关后段","powerOffReason":"高压开关跳闸，原停电结束时间 2019-06-29 07:13:00，因抢修难度较大变更至2019-06-29 11:00:00","powerOffId":"2019062931020002"},{"poweroffId":2019062931020001,"sgpoweroffId":null,"subsName":"","lineName":"10kV巨星D926线","pubTranName":"富阳市富春江电镀厂,富阳市丰磊石料厂2#变,富阳市渔山乡志尧砂石经营部,杭州富阳丰磊石料有限公司,富阳市渔山乡荣刚砂石经营部,万众村2号湖塘公变,富阳市丰磊石料厂1#变,万众村7号长岭头公变,三元村6#上沙公变,曙星村排涝变,杭州富阳其妙机械制造有限公司3#变,杭州富阳丰磊石料有限公司,万众9号雁鹅山公变,中铁一局集团第五工程有限公司,富阳市渔山乡交工石粉经营部,杭州富鹏机械制造有限公司1#变,曙星村2#大坞公变,杭州富阳其妙机械制造有限公司2#变,万众村3号江边公变,富阳市丰磊石料厂,富阳市渔山乡汪春砂石经营部,富阳市泽晖塑业有限公司,曙星村轧石厂,富阳市渔山乡交工石粉经营部,曙星村4号大坞上公变,曙星村1#小坞公变,杭州邦洲机械制造有限公司,杭州富鹏机械制造有限公司,曙星3号新农村公变,富阳市渔山乡志尧砂石经营部1#变,杭州富阳其妙机械制造有限公司,万众村6号湖塘庙边公变,杭州富阳其妙机械制造有限公司1#变,曙星村轧石厂1#变,万众村4号浦西公变,1#变,杭州邦洲机械制造有限公司,万众村5#村东公变,万众村3号江边公变,万众村3#江边公变,富阳市渔山乡荣刚砂石经营部,杭州富登混凝土有限公司,富阳市渔山乡汪春砂石经营部,富阳市丰磊石料厂,万众村5#村东公变,万众村1#村中公变,中铁一局集团第五工程有限公司1#基建变,杭州富登混凝土有限公司1#变,","scope":"浙江省-杭州市-富阳区-渔山乡-渔山行政村(三元自然村,五一自然村,黎明自然村),渔山乡-墅溪行政村(曙星自然村,万众自然村);里山镇-杭州富鹏机械制造有限公司,渔山乡(杭州富阳泽晖塑业有限公司,曙星村排涝变,杭州富阳其妙机械制造有限公司,杭州富阳丰磊石料有限公司,杭州邦洲机械制造有限公司,杭州富阳区渔山乡交工建材经营部,杭州富阳区渔山乡荣刚砂石经营部,富阳市渔山乡汪春砂石经营部,杭州至坦桥梁工程有限公司,杭州富登混凝土有限公司,富阳市渔山乡志尧砂石经营部,中铁一局集团第五工程有限公司,曙星村轧石厂)","startTime":"2019-06-29 05:14:00","stopDate":"2019-06-29 11:00:00","orgNo":"3340170","typeCode":"电网故障停限电","poweroffArea":"110kV里渔变:巨星D926线巨星D9261开关后段","poweroffReason":"高压开关跳闸，原停电结束时间 2019-06-29 07:13:00，因抢修难度较大变更至2019-06-29 11:00:00","powerTime":"2019-06-29 10:27:10","powerComm":"已送电","subsNo":"","lineNo":"","tgNo":"","tgName":null,"infoStatus":"1","orgName":"国网浙江杭州市富阳区供电公司","typeName":null,"infoStatusName":null,"dateDay":null,"orgNos":null,"nowTime":null,"countyName":null,"streetName":null,"villageName":null,"roadName":null,"communityName":null,"tranName":null,"sdLineName":null,"cityCode":"3340170","cityName":"国网浙江杭州市富阳区供电公司","provinceCode":null,"stopTime":"2019-06-29 11:00:00","powerType":"全部","powerOffArea":"110kV里渔变:巨星D926线巨星D9261开关后段","powerOffReason":"高压开关跳闸，原停电结束时间 2019-06-29 07:13:00，因抢修难度较大变更至2019-06-29 11:00:00","powerOffId":"2019062931020001"},{"poweroffId":2019062931010236,"sgpoweroffId":null,"subsName":"","lineName":"10kV洋峰Y310线","pubTranName":"大洋村眉毛坞台区,","scope":"浙江省-杭州市-建德市-大洋镇 大洋行政村 鱼鸣坞自然村 榭榭山庄一带用户","startTime":"2019-06-29 23:10:00","stopDate":"2019-06-29 23:59:00","orgNo":"3340180","typeCode":"电网故障停限电","poweroffArea":"35kV大洋变:洋峰Y310线-大洋村眉毛坞台区后段","poweroffReason":"洋峰Y310线-大洋村眉毛坞台区低压配电设备故障 原预计停电结束时间03:00，由于施工现场环境比较复杂，存在不确定因素，因此预估施工时间适当放长了,目前故障已修复，现将停电结束时间变更至 23:59","powerTime":"2019-06-29 23:43:00","powerComm":"已送电","subsNo":"","lineNo":"","tgNo":"","tgName":null,"infoStatus":"1","orgName":"国网浙江建德市供电有限公司","typeName":null,"infoStatusName":null,"dateDay":null,"orgNos":null,"nowTime":null,"countyName":null,"streetName":null,"villageName":null,"roadName":null,"communityName":null,"tranName":null,"sdLineName":null,"cityCode":"3340180","cityName":"国网浙江建德市供电有限公司","provinceCode":null,"stopTime":"2019-06-29 23:59:00","powerType":"全部","powerOffArea":"35kV大洋变:洋峰Y310线-大洋村眉毛坞台区后段","powerOffReason":"洋峰Y310线-大洋村眉毛坞台区低压配电设备故障 原预计停电结束时间03:00，由于施工现场环境比较复杂，存在不确定因素，因此预估施工时间适当放长了,目前故障已修复，现将停电结束时间变更至 23:59","powerOffId":"2019062931010236"}],"pageModel":{"pageNow":1522,"totalCount":17789,"totalPage":1779,"tableRows":0,"pageCount":10,"beginCount":15210},"isExperi":"1"}