{"message":"","today":"2020-06-16","seleList":[{"poweroffId":2019062931010048,"sgpoweroffId":null,"subsName":"","lineName":"10kV萧百C111线","pubTranName":"潘水北苑3#公变,","scope":"浙江省-杭州市-萧山区-城厢街道(潘水社区-潘水路);潘水苑32幢1单元一带","startTime":"2019-06-29 12:18:57","stopDate":"2019-06-29 14:00:57","orgNo":"3340130","typeCode":"电网故障停限电","poweroffArea":"110kV丽都变:萧百C111线-潘水北苑3#公变后段低压开关","poweroffReason":"低压开关故障","powerTime":"2019-06-29 13:52:44","powerComm":"已送电","subsNo":"","lineNo":"","tgNo":"","tgName":null,"infoStatus":"1","orgName":"国网浙江杭州市萧山区供电有限公司","typeName":null,"infoStatusName":null,"dateDay":null,"orgNos":null,"nowTime":null,"countyName":null,"streetName":null,"villageName":null,"roadName":null,"communityName":null,"tranName":null,"sdLineName":null,"cityCode":"3340130","cityName":"国网浙江杭州市萧山区供电有限公司","provinceCode":null,"stopTime":"2019-06-29 14:00:57","powerType":"全部","powerOffArea":"110kV丽都变:萧百C111线-潘水北苑3#公变后段低压开关","powerOffReason":"低压开关故障","powerOffId":"2019062931010048"},{"poweroffId":2019062931010036,"sgpoweroffId":null,"subsName":"","lineName":"10kV锻造C334线","pubTranName":"沿塘村6#变,","scope":"浙江省-杭州市-萧山区-瓜沥镇沿塘行政村-11组横路、大桥直路、后坞桥路、沿塘自然村、瓜沥镇沿塘行政村11组一带","startTime":"2019-06-29 10:55:03","stopDate":"2019-06-29 15:10:28","orgNo":"3340130","typeCode":"电网故障停限电","poweroffArea":"110kV沿塘变:锻造C334线-沿塘村6#变台区低压开关","poweroffReason":"低压架空导线断线故障 原停电结束时间17：55，变更停电结束时间15：10，由于抢修工作提前完成，故需要提前送电。","powerTime":"2019-06-29 14:24:19","powerComm":"已送电","subsNo":"","lineNo":"","tgNo":"","tgName":null,"infoStatus":"1","orgName":"国网浙江杭州市萧山区供电有限公司","typeName":null,"infoStatusName":null,"dateDay":null,"orgNos":null,"nowTime":null,"countyName":null,"streetName":null,"villageName":null,"roadName":null,"communityName":null,"tranName":null,"sdLineName":null,"cityCode":"3340130","cityName":"国网浙江杭州市萧山区供电有限公司","provinceCode":null,"stopTime":"2019-06-29 15:10:28","powerType":"全部","powerOffArea":"110kV沿塘变:锻造C334线-沿塘村6#变台区低压开关","powerOffReason":"低压架空导线断线故障 原停电结束时间17：55，变更停电结束时间15：10，由于抢修工作提前完成，故需要提前送电。","powerOffId":"2019062931010036"},{"poweroffId":2019062931010034,"sgpoweroffId":null,"subsName":"","lineName":"10kV凤鸣252线","pubTranName":"满林村1号公变,石泉村1号公变,黄土岭抗旱机埠,桐庐江南镇新农村镇村建设有限公司（华丰自来水）,满林2号公变,石阜村3号公变,里蒋坞村1号公变,严坞村2号公变,大牌地村1号公变,外蒋坞村2号公变,石泉村2号公变,大山坞村1号公变,笑山坞村1号公变,桐庐中远塑业有限公司,邓家村2号公变,杜村1号公变,严坞村1号公变,板桥村1号公变,桐庐明泽电子有限公司,外蒋坞村1号公变,荷村1号公变,杭州海庐箱包有限公司,邓家村1号公变,徐石村1号公变,枝茂村1号公变,","scope":"浙江省-杭州市-桐庐县-江南镇(凤鸣行政村-板桥自然村、邓家自然村、蒋坞自然村、严坞自然村,华丰行政村-大牌地自然村、荷村自然村、笑山坞自然村,金茂行政村-满林自然村、徐石自然村、枝茂自然村,石阜行政村-石丰自然村、石阜自然村、石合自然村、石伍自然村,石泉行政村-石泉自然村);(杭州海庐箱包有限公司,桐庐江南镇新农村镇村建设有限公司（华丰自来水）,桐庐明泽电子有限公司,桐庐中远塑业有限公司);","startTime":"2019-06-29 10:48:29","stopDate":"2019-06-29 16:00:44","orgNo":"3340150","typeCode":"电网故障停限电","poweroffArea":"110kV石阜变:凤鸣252线","poweroffReason":"低压开关烧。","powerTime":"2019-06-29 15:40:58","powerComm":"已送电。","subsNo":"","lineNo":"","tgNo":"","tgName":null,"infoStatus":"1","orgName":"国网浙江桐庐县供电公司","typeName":null,"infoStatusName":null,"dateDay":null,"orgNos":null,"nowTime":null,"countyName":null,"streetName":null,"villageName":null,"roadName":null,"communityName":null,"tranName":null,"sdLineName":null,"cityCode":"3340150","cityName":"国网浙江桐庐县供电公司","provinceCode":null,"stopTime":"2019-06-29 16:00:44","powerType":"全部","powerOffArea":"110kV石阜变:凤鸣252线","powerOffReason":"低压开关烧。","powerOffId":"2019062931010034"},{"poweroffId":2019062931010025,"sgpoweroffId":null,"subsName":"","lineName":"10kV涵桦6300线","pubTranName":"荆山灯,晶立置业二4#,钱雅施二6,钱雅施二5,御景施二,晶立置业一3#,之旅施,玉晶四变,钱雅施二2,之桥1#,钱雅施二7,之旅施,御景施二,晶立置业一6#,荆山灯,钱雅施二5,玉晶十二变,钱雅施二4,玉晶二变,晶立置业二3#,钱雅施二1,玉晶十变,四五排涝1#,5,钱雅施二8,御景施一,之旅集,之桥二,钱雅施三2,钱雅施二6,钱雅施三3,玉晶八变,4,四五排涝2#,晶立置业一3#,玉晶六变,晶立置业二1#,钱雅施三4,钱雅施三1,之桥二,晶立公,之桥2#,钱雅施二2,钱雅施三5,晶立置业一5#,钱雅施三3,之检,玉晶十八变,亚厦施五,玉晶十六变,玉晶十变,钱雅施二3,晶立置业一6#,之检,晶立置业一2#,钱雅施三4,御景施一,3,晶立置业二4#,晶立置业二2#,晶立置业一1#,钱雅施三2,玉晶八变,5,四五排涝1#,晶立置业一4#,钱雅施三1,钱雅施二7,亚厦施三,钱雅施二1,玉晶十八变,晶立置业一1#,玉晶十四变,亚厦施三,钱雅施二3,晶立置业一2#,晶立置业二2#,玉晶十二变,晶立公,钱雅施二4,晶立置业二3#,亚厦施五,晶立置业二1#,玉晶二变,3,之旅集,晶立置业一5#,晶立置业一4#,之桥2#,玉晶十四变,钱雅施三5,玉晶四变,之桥1#,4,玉晶六变,钱雅施二8,四五排涝2#,玉晶十六变,","scope":"浙江省-杭州市-西湖区-转塘街道-珊瑚沙社区-澜玉水晶熙园,钱塘风雅,之浦路,之江大桥,钱塘路口,紫之隧道,珊瑚沙路,经三路,之江度假区,枫桦东路,梧桐支路","startTime":"2019-06-29 09:26:26","stopDate":"2019-06-29 11:56:26","orgNo":"3340101","typeCode":"电网故障停限电","poweroffArea":"110kV转塘变:涵桦6300线","poweroffReason":"高压开关跳闸 原预计停电结束时间2019-06-29 15:26:26,由于施工现场环境比较复杂，存在不确定因素，因此预估施工时间适当放长了， 而实际施工进行得比较顺利，因此提前送电了","powerTime":"2019-06-29 11:27:34","powerComm":"已送电","subsNo":"","lineNo":"","tgNo":"","tgName":null,"infoStatus":"1","orgName":"浙江杭州电力客户服务中心","typeName":null,"infoStatusName":null,"dateDay":null,"orgNos":null,"nowTime":null,"countyName":null,"streetName":null,"villageName":null,"roadName":null,"communityName":null,"tranName":null,"sdLineName":null,"cityCode":"3340101","cityName":"浙江杭州电力客户服务中心","provinceCode":null,"stopTime":"2019-06-29 11:56:26","powerType":"全部","powerOffArea":"110kV转塘变:涵桦6300线","powerOffReason":"高压开关跳闸 原预计停电结束时间2019-06-29 15:26:26,由于施工现场环境比较复杂，存在不确定因素，因此预估施工时间适当放长了， 而实际施工进行得比较顺利，因此提前送电了","powerOffId":"2019062931010025"},{"poweroffId":2019062931010022,"sgpoweroffId":null,"subsName":"","lineName":"10kV瓜港A078线","pubTranName":"杭州萧山精艺花边绣品有限公司,萧山区瓜沥镇坎山小学,杭州冠力物业管理有限公司,群谊村8#变,杭州斯波尔机械有限公司变压器,群谊村1#变,杭州志华电机有限公司,群谊村9#变,群谊村3#变,群谊村2#变,","scope":"浙江省-杭州市-萧山区-瓜沥镇群谊行政村、工新路、群谊自然村、人民路、武肃路、杭州冠力物业管理有限公司,杭州斯波尔机械有限公司,杭州萧山精艺花边绣品有限公司,杭州志华电机有限公司,萧山区瓜沥镇坎山小学、坎山群谊行政村、群谊村一带","startTime":"2019-06-29 08:35:53","stopDate":"2019-06-29 12:35:13","orgNo":"3340130","typeCode":"电网故障停限电","poweroffArea":"110kV航坞变:瓜港A078线-瓜港A078线东社分线开关后段","poweroffReason":"高压柱上断路器短路故障 原停电结束时间13：35，变更停电结束时间12：35，由于抢修工作提前完成，故需要提前送电。","powerTime":"2019-06-29 11:45:21","powerComm":"已送电","subsNo":"","lineNo":"","tgNo":"","tgName":null,"infoStatus":"1","orgName":"国网浙江杭州市萧山区供电有限公司","typeName":null,"infoStatusName":null,"dateDay":null,"orgNos":null,"nowTime":null,"countyName":null,"streetName":null,"villageName":null,"roadName":null,"communityName":null,"tranName":null,"sdLineName":null,"cityCode":"3340130","cityName":"国网浙江杭州市萧山区供电有限公司","provinceCode":null,"stopTime":"2019-06-29 12:35:13","powerType":"全部","powerOffArea":"110kV航坞变:瓜港A078线-瓜港A078线东社分线开关后段","powerOffReason":"高压柱上断路器短路故障 原停电结束时间13：35，变更停电结束时间12：35，由于抢修工作提前完成，故需要提前送电。","powerOffId":"2019062931010022"},{"poweroffId":2019062931010001,"sgpoweroffId":null,"subsName":"","lineName":"10kV紫荆H873线","pubTranName":"紫荆村路家头公变,玉皇泉水,新泰村西坞岭公变,紫荆村竹园棚公变,玉坤加工,交工路桥二绕三标16#基建变,杭变基建变,紫荆村上皇庙水库公变,紫荆村上皇庙公变,水泥预制厂,沥青拌和,新泰村岑家弄公变,新泰村杨澄弄公变,紫荆村巴家桥公变,紫荆村丁家公变,紫荆村钱家公变,交工路桥二绕三标7#基建变,交工路桥二绕三标8#基建变,交工路桥二绕三标2#基建变,紫荆村外塘坞2号公变,交工路桥二绕三标1#基建,华易鞋业,环筑建材,新泰村长段头公变,中泰武校,紫荆村黄家坎公变,新泰村洪家公变,新泰村桐山坞公变,新泰村东溪桥东公变,新泰村沙塘公变,新泰村幸福机埠公变,紫荆村后东坞庙公变,双源塑业,紫荆村铜岭桥公变,一展塑业,新泰村乌龙山公变,交工路桥二绕三标3#基建变,中港绿泰1,交工路桥二绕三标6#基建,新泰村马岭脚公变,交工路桥二绕三标5#基建变,新泰村东溪村公变,新泰村杨澄弄西公变,紫荆村外塘坞公变,东溪桥石灰厂,紫荆村横大公变,汇雅腾鞋业（6120040909）01#专变,紫荆村寺前公变,吉树木业,紫荆村里塘坞公变,紫荆村车口畈公变,杭州市余杭区中泰中心幼儿园,新泰村马坞口公变,中泰变基建,丰硕物业,泰山塑化,中港绿泰2,交工路桥二绕三标4#基建变,新泰村轧石场公变,紫荆村小学公变,四联装饰,紫荆村石盂寺公变,广联复合(1),非凡橡胶,新泰村扇子山公变,杭变所用变,二绕三标新上基变,2#,八角亭石灰,紫荆村沈家坞公变,宝力物资,紫荆村车口小学公变,汇雅腾鞋业（6120040909）02#专变,新泰村岑家弄2号公变,紫荆村方家弄公变,凯翔塑业,金红彩瓦,紫荆村沙坑公变,紫荆村后东坞公变,广联复合(2),新泰村东溪桥砖厂变,新泰村新泰牧场公变,紫荆村铜岭坑公变,","scope":"浙江省-杭州市-余杭区中泰街道石鸽社区，中港绿泰房产、马坞口，新泰村，八角亭、中泰武校、杨澄弄、扇子山、新泰牧场、东溪桥、东溪桥砖厂、汇雅腾鞋业、西坞岭、泰山水泥厂；紫荆村，车口畈、方家弄、后东坞、竹园棚、巴家桥、里塘坞、朝家、路家头、铜岭桥、上皇庙、石盂寺一带","startTime":"2019-06-29 05:55:40","stopDate":"2019-06-29 09:55:40","orgNo":"3340140","typeCode":"电网故障停限电","poweroffArea":"110kV中泰变:紫荆H873线马坞口变","poweroffReason":"紫荆H873线马坞口变低压线路断线","powerTime":"2019-06-29 09:09:00","powerComm":"已送电","subsNo":"","lineNo":"","tgNo":"","tgName":null,"infoStatus":"1","orgName":"国网浙江杭州市余杭区供电有限公司","typeName":null,"infoStatusName":null,"dateDay":null,"orgNos":null,"nowTime":null,"countyName":null,"streetName":null,"villageName":null,"roadName":null,"communityName":null,"tranName":null,"sdLineName":null,"cityCode":"3340140","cityName":"国网浙江杭州市余杭区供电有限公司","provinceCode":null,"stopTime":"2019-06-29 09:55:40","powerType":"全部","powerOffArea":"110kV中泰变:紫荆H873线马坞口变","powerOffReason":"紫荆H873线马坞口变低压线路断线","powerOffId":"2019062931010001"},{"poweroffId":2019062831020334,"sgpoweroffId":null,"subsName":"","lineName":"10kV洋绛D782线","pubTranName":"联群农用,联群村4号大路渔塘公变,新元村1号新安公路边公变,红星农灌,杭州市富阳区场口镇人民政府1#变,杭州市富阳区场口镇人民政府（鸿丰排涝）1#变,杭州三国王洲商贸有限公司,鸿丰村,洋沙村5#大塔村东公变,杭州市富阳区场口镇人民政府（农产品中心）1#,洋沙村1#中间公变,洋沙村4号大塔村口公变,杭州市富阳区场口镇人民政府1#变,富阳市路灯安装维修管理所,洋沙村3#鱼塘公变,杭州市富阳区场口镇人民政府,联群村3号大路供销社公变,新元村2#三堡公变,红星村6#回龙庙公变,富阳场口五金电镀厂,红星村2号畈里公变,富阳市红星通讯器材有限公司,杭州富阳区场口镇东磊宾馆1#变,洋沙村2号教会公变,联群村2#加工厂公变,鸿丰村3号村口公变,鸿丰村1号孙家路公变,联群村1号祠堂公变,富阳市路灯安装维修管理所1#变,鸿丰村4#村南公变,红星村3#三排公变,红星村4#渔场公变,新元村4#村委公变,杭州市场口镇人民政府,富阳市红星通讯器材有限公司,鸿丰村2号桑园公变,杭州中亚新材料科技有限公司,红星村1#二排公变3,富阳市场口新区建设有限公司,杭州富阳区场口镇东磊宾馆,杭州三国王洲商贸有限公司变压器,联群村5号金家公变,红星村5号北塘公变,杭州市富阳区场口镇人民政府#王洲幼儿园基建变,新元村3号元旦村口公变,联群村2号加工厂公变,","scope":"浙江省-杭州市-富阳区-场口镇-联群行政村(金家自然村,联群自然村,大路自然村),场口镇-新元行政村(元旦自然村,新安自然村),场口镇-洋沙行政村(洋沙自然村,大塔里自然村),场口镇(鸿丰行政村-鸿丰自然村,红星行政村-红星自然村,场口行政村-场口自然村,百丈畈行政村-甘浦自然村);场口镇(富阳场口五金电镀厂,杭州中亚新材料科技有限公司,鸿丰村,杭州市富阳区场口镇红星村股份经济合作社,富阳市场口新区建设有限公司,联群农用,杭州市富阳区场口镇人民政府,富阳市红星通讯器材有限公司,杭州三国王洲商贸有限公司,杭州富阳区场口镇东磊宾馆,杭州富阳城市照明工程有限公司)","startTime":"2019-06-28 18:18:39","stopDate":"2019-06-28 20:18:41","orgNo":"3340170","typeCode":"电网故障停限电","poweroffArea":"110kV王洲变:洋绛D782线洋绛一号开关站洋绛D782线开关后段","poweroffReason":"高压开关跳闸，原停电结束时间2019-06-28 21:18:41，因抢修力度加强变更至2019-06-28 20:18:41","powerTime":"2019-06-28 19:20:31","powerComm":"已送电","subsNo":"","lineNo":"","tgNo":"","tgName":null,"infoStatus":"1","orgName":"国网浙江杭州市富阳区供电公司","typeName":null,"infoStatusName":null,"dateDay":null,"orgNos":null,"nowTime":null,"countyName":null,"streetName":null,"villageName":null,"roadName":null,"communityName":null,"tranName":null,"sdLineName":null,"cityCode":"3340170","cityName":"国网浙江杭州市富阳区供电公司","provinceCode":null,"stopTime":"2019-06-28 20:18:41","powerType":"全部","powerOffArea":"110kV王洲变:洋绛D782线洋绛一号开关站洋绛D782线开关后段","powerOffReason":"高压开关跳闸，原停电结束时间2019-06-28 21:18:41，因抢修力度加强变更至2019-06-28 20:18:41","powerOffId":"2019062831020334"},{"poweroffId":2019062831020324,"sgpoweroffId":null,"subsName":"","lineName":"10kV青江D784线","pubTranName":"富阳市水务有限公司,杭州富阳国裕管桩有限公司3#变,青江村1#外桑园公变,马山村6#周家村东公变,青江元沙畈,马山村7#闻家水沟公变,青江村4号环村路公变,青江村2#里桑园公变,富阳市路灯安装维修管理所,青江村5号江边公变,马山村4#周家村中公变1,马山村9号闻家木桥头公变,马山村1#闻家公路边公变1,杭州富阳国裕管桩有限公司1#变,青江村6#国道公变,青江村7#机埠公变,马山村5#周家村南公变,杭州富阳国裕管桩有限公司混凝土分公司,富阳市场口镇青江村经济合作社1#,马山村8号周家上滩公变,马山村2#闻家马山公变,富阳市环境保护监测站,青江里桑园农灌,青江村3#学校公变,马山村3#周家村边公变,杭州富阳国裕管桩有限公司2#变,","scope":"浙江省-杭州市-富阳区-场口镇-青江行政村-青江自然村,场口镇-马山行政村(闻家自然村,周家自然村);浙江省-杭州市-富阳区-场口镇-叶盛行政村-杭州富阳国裕管业有限公司,场口镇-青江行政村(青江口里桑园,杭州富阳国裕管桩有限公司混凝土分公司,青江元沙畈,杭州市富阳区环境保护监测站,富阳市场口镇青江村经济合作社,杭州富阳城市照明工程有限公司,杭州富阳水务有限公司)","startTime":"2019-06-28 18:11:59","stopDate":"2019-06-28 20:12:02","orgNo":"3340170","typeCode":"电网故障停限电","poweroffArea":"110kV王洲变:青江D784线-青江D7841开关后段","poweroffReason":"高压开关跳闸，原停电结束时间2019-06-28 21:12:02，因抢修力度加强变更至2019-06-28 20:12:02","powerTime":"2019-06-28 19:16:41","powerComm":"已送电","subsNo":"","lineNo":"","tgNo":"","tgName":null,"infoStatus":"1","orgName":"国网浙江杭州市富阳区供电公司","typeName":null,"infoStatusName":null,"dateDay":null,"orgNos":null,"nowTime":null,"countyName":null,"streetName":null,"villageName":null,"roadName":null,"communityName":null,"tranName":null,"sdLineName":null,"cityCode":"3340170","cityName":"国网浙江杭州市富阳区供电公司","provinceCode":null,"stopTime":"2019-06-28 20:12:02","powerType":"全部","powerOffArea":"110kV王洲变:青江D784线-青江D7841开关后段","powerOffReason":"高压开关跳闸，原停电结束时间2019-06-28 21:12:02，因抢修力度加强变更至2019-06-28 20:12:02","powerOffId":"2019062831020324"},{"poweroffId":2019062831020311,"sgpoweroffId":null,"subsName":"","lineName":"10kV长岭R177线","pubTranName":"金家岙村金家岙2#公变,","scope":"浙江省-杭州市-淳安县-王阜乡-金家岙行政村-金家岙自然村","startTime":"2019-07-11 07:00:00","stopDate":"2019-07-11 09:00:00","orgNo":"3340190","typeCode":"计划停电","poweroffArea":"110kV虹桥变:长岭R177线-金家岙2#公变跌落式熔断器后段","poweroffReason":"金家岙2号台区进线电缆消缺","powerTime":"2019-07-11 08:17:57","powerComm":"现场工作已完成","subsNo":"","lineNo":"","tgNo":"","tgName":null,"infoStatus":"1","orgName":"国网浙江淳安县供电有限公司","typeName":null,"infoStatusName":null,"dateDay":null,"orgNos":null,"nowTime":null,"countyName":null,"streetName":null,"villageName":null,"roadName":null,"communityName":null,"tranName":null,"sdLineName":null,"cityCode":"3340190","cityName":"国网浙江淳安县供电有限公司","provinceCode":null,"stopTime":"2019-07-11 09:00:00","powerType":"全部","powerOffArea":"110kV虹桥变:长岭R177线-金家岙2#公变跌落式熔断器后段","powerOffReason":"金家岙2号台区进线电缆消缺","powerOffId":"2019062831020311"},{"poweroffId":2019062831020310,"sgpoweroffId":null,"subsName":"","lineName":"10kV宋村R983线","pubTranName":"威坪所云港口村宋村机关公变,","scope":"浙江省-杭州市-淳安县-宋村乡-云港口行政村-史里自然村","startTime":"2019-07-08 07:50:00","stopDate":"2019-07-08 15:50:00","orgNo":"3340190","typeCode":"计划停电","poweroffArea":"35kV云头变:宋村R983线-云港口村宋村机关公变跌落式熔断器后段","poweroffReason":"宋村R983线25号杆下宋村乡政府支线1号杆及导线移位","powerTime":"2019-07-08 15:05:20","powerComm":"现场工作已完成","subsNo":"","lineNo":"","tgNo":"","tgName":null,"infoStatus":"1","orgName":"国网浙江淳安县供电有限公司","typeName":null,"infoStatusName":null,"dateDay":null,"orgNos":null,"nowTime":null,"countyName":null,"streetName":null,"villageName":null,"roadName":null,"communityName":null,"tranName":null,"sdLineName":null,"cityCode":"3340190","cityName":"国网浙江淳安县供电有限公司","provinceCode":null,"stopTime":"2019-07-08 15:50:00","powerType":"全部","powerOffArea":"35kV云头变:宋村R983线-云港口村宋村机关公变跌落式熔断器后段","powerOffReason":"宋村R983线25号杆下宋村乡政府支线1号杆及导线移位","powerOffId":"2019062831020310"}],"pageModel":{"pageNow":1524,"totalCount":17789,"totalPage":1779,"tableRows":0,"pageCount":10,"beginCount":15230},"isExperi":"1"}