{"message":"","today":"2020-06-16","seleList":[{"poweroffId":2019062831020306,"sgpoweroffId":null,"subsName":"","lineName":"10kV西山D785线","pubTranName":"中兴村8号浦西浦西坞公变,浙江交工宏途交通建设有限公司1#,浙江交工宏途交通建设有限公司1#,富阳市交达公路养护有限公司,杭州杭千高速公路发展有限公司,浙江交工宏途交通建设有限公司1#,富阳市路灯安装维修管理所,浙江交工宏途交通建设有限公司1#,富阳数马装饰工艺品有限公司1#变,中埠村1#上中埠公变,富阳数马装饰工艺品有限公司,中兴村7号浦西桥头公变,中埠村9号陈家畈新农村公变,中埠村7#陈家畈村北公变,浙江交工宏途交通建设有限公司1#,中埠村4号新农村公变,杭州市富阳区环山乡中埠村村民委员会（下）,浙江交工宏途交通建设有限公司1#,中兴村6#柏树下新农村公变,富阳市路灯安装维修管理所1#,浙江交工宏途交通建设有限公司1#,浙江交工宏途交通建设有限公司1#,中埠村2号黄金桥公变,富阳数马装饰工艺品有限公司2#变,浙江交工宏途交通建设有限公司1#,杭州市富阳区环山乡中埠村村民委员会,杭州杭千高速公路发展有限公司,杭州市富阳区环山乡中埠村村民委员会（下）,中埠村6号陈家畈村口公变,杭州环山乡中埠村村民委员会配电变压器,杭州富阳富中化工有限公司,浙江交工宏途交通建设有限公司1#,浙江交工宏途交通建设有限公司1#,杭州市富阳区环山乡中兴村村民委员会1#变,杭州市富阳区环山乡中埠村村民委员会（上）,富阳市景绣洗涤有限公司,浦西排涝站,中兴村5#柏树下杨桥头公变,浙江交工宏途交通建设有限公司1#,杭州市富阳区环山乡中埠村村民委员会（上）,中埠村8#下坞桥头公变,中埠村3号杜坞公变,杭州杭千高速公路发展有限公司,中埠村9#陈家畈新农村公变,中埠村5号大桥公变,富阳市景绣洗涤有限公司,杭州杭千高速公路发展有限公司,浙江交工宏途交通建设有限公司1#,杭州市富阳区环山乡中兴村村民委员会,浙江交工宏途交通建设有限公司1#,","scope":"浙江省-杭州市-富阳区-环山乡-中埠行政村(陈家畈自然村,中埠自然村,下坞村自然村),环山乡-中兴行政村(柏树下自然村,浦西自然村);场口镇-杭州富阳城市照明工程有限公司,环山乡(杭州富阳交达公路养护有限公司,蒲西排涝站,杭州富阳富中化工有限公司,浙江交工宏途交通建设有限公司,杭州市富阳区环山乡中埠村村民委员会,杭州杭千高速公路发展有限公司,杭州富阳数马装饰工艺品有限公司,杭州富阳景绣洗涤有限公司,杭州市富阳区环山乡中兴村村民委员会)","startTime":"2019-06-28 16:47:00","stopDate":"2019-06-28 18:47:00","orgNo":"3340170","typeCode":"电网故障停限电","poweroffArea":"110kV王洲变:西山D785线西山D7856开关后段","poweroffReason":"高压开关跳闸","powerTime":"2019-06-28 18:20:53","powerComm":"已送电","subsNo":"","lineNo":"","tgNo":"","tgName":null,"infoStatus":"1","orgName":"国网浙江杭州市富阳区供电公司","typeName":null,"infoStatusName":null,"dateDay":null,"orgNos":null,"nowTime":null,"countyName":null,"streetName":null,"villageName":null,"roadName":null,"communityName":null,"tranName":null,"sdLineName":null,"cityCode":"3340170","cityName":"国网浙江杭州市富阳区供电公司","provinceCode":null,"stopTime":"2019-06-28 18:47:00","powerType":"全部","powerOffArea":"110kV王洲变:西山D785线西山D7856开关后段","powerOffReason":"高压开关跳闸","powerOffId":"2019062831020306"},{"poweroffId":2019062831020289,"sgpoweroffId":null,"subsName":"","lineName":"10kV滨北D369线","pubTranName":"宜家弄公变,","scope":"浙江省-杭州市-富阳区-富春街道-鹳山社区(富春街,市心路,达夫路,富春路,宜家弄)","startTime":"2019-06-28 16:26:12","stopDate":"2019-06-28 21:00:00","orgNo":"3340170","typeCode":"电网故障停限电","poweroffArea":"110kV富鹿变:滨北D369线-宜家弄公变后段","poweroffReason":"低压配电设备故障，原停电结束时间2019-06-28 18:30:00，因故障复杂变更至2019-06-28 21:00:00","powerTime":"2019-06-28 20:01:56","powerComm":"已送电","subsNo":"","lineNo":"","tgNo":"","tgName":null,"infoStatus":"1","orgName":"国网浙江杭州市富阳区供电公司","typeName":null,"infoStatusName":null,"dateDay":null,"orgNos":null,"nowTime":null,"countyName":null,"streetName":null,"villageName":null,"roadName":null,"communityName":null,"tranName":null,"sdLineName":null,"cityCode":"3340170","cityName":"国网浙江杭州市富阳区供电公司","provinceCode":null,"stopTime":"2019-06-28 21:00:00","powerType":"全部","powerOffArea":"110kV富鹿变:滨北D369线-宜家弄公变后段","powerOffReason":"低压配电设备故障，原停电结束时间2019-06-28 18:30:00，因故障复杂变更至2019-06-28 21:00:00","powerOffId":"2019062831020289"},{"poweroffId":2019062831020286,"sgpoweroffId":null,"subsName":"","lineName":"10kV顺和C929线","pubTranName":"车路湾村9#变,","scope":"浙江省-杭州市-萧山区-瓜沥镇-车路湾行政村(车安路,车路湾自然村)","startTime":"2019-07-08 08:30:00","stopDate":"2019-07-08 12:30:00","orgNo":"3340130","typeCode":"计划停电","poweroffArea":"110kV党山变:顺和C929线-车路湾村9#变后段","poweroffReason":"顺和C929线24#杆车路湾村9#变下200上400kVA 原停电结束时间 13:30变更停电结束时间12:30。由于抢修工作提前完成，故需要提前送电。","powerTime":"2019-07-08 11:47:46","powerComm":"已送电","subsNo":"","lineNo":"","tgNo":"","tgName":null,"infoStatus":"1","orgName":"国网浙江杭州市萧山区供电有限公司","typeName":null,"infoStatusName":null,"dateDay":null,"orgNos":null,"nowTime":null,"countyName":null,"streetName":null,"villageName":null,"roadName":null,"communityName":null,"tranName":null,"sdLineName":null,"cityCode":"3340130","cityName":"国网浙江杭州市萧山区供电有限公司","provinceCode":null,"stopTime":"2019-07-08 12:30:00","powerType":"全部","powerOffArea":"110kV党山变:顺和C929线-车路湾村9#变后段","powerOffReason":"顺和C929线24#杆车路湾村9#变下200上400kVA 原停电结束时间 13:30变更停电结束时间12:30。由于抢修工作提前完成，故需要提前送电。","powerOffId":"2019062831020286"},{"poweroffId":2019062831020285,"sgpoweroffId":null,"subsName":"","lineName":"10kV宏欣A157线","pubTranName":"张潭村6#变,","scope":"浙江省-杭州市-萧山区-瓜沥镇-张潭行政村(梅林大道,大潭自然村,七张头自然村)","startTime":"2019-07-08 08:30:00","stopDate":"2019-07-08 12:05:00","orgNo":"3340130","typeCode":"计划停电","poweroffArea":"220kV甘露变:宏欣A157线-张潭村6#变后段","poweroffReason":"张潭村6#变下200上400kVA 原停电结束时间 13:30 变更停电结束时间12:05。由于抢修工作提前完成，故需要提前送电。","powerTime":"2019-07-08 11:16:35","powerComm":"已送电","subsNo":"","lineNo":"","tgNo":"","tgName":null,"infoStatus":"1","orgName":"国网浙江杭州市萧山区供电有限公司","typeName":null,"infoStatusName":null,"dateDay":null,"orgNos":null,"nowTime":null,"countyName":null,"streetName":null,"villageName":null,"roadName":null,"communityName":null,"tranName":null,"sdLineName":null,"cityCode":"3340130","cityName":"国网浙江杭州市萧山区供电有限公司","provinceCode":null,"stopTime":"2019-07-08 12:05:00","powerType":"全部","powerOffArea":"220kV甘露变:宏欣A157线-张潭村6#变后段","powerOffReason":"张潭村6#变下200上400kVA 原停电结束时间 13:30 变更停电结束时间12:05。由于抢修工作提前完成，故需要提前送电。","powerOffId":"2019062831020285"},{"poweroffId":2019062831020283,"sgpoweroffId":null,"subsName":"","lineName":"10kV超峰G885线","pubTranName":"杭州市开发投资有限公司,杭州市开发投资有限公司,","scope":"浙江省杭州市余杭区东湖街道：杭州市开发投资有限公司一带","startTime":"2019-07-12 08:00:00","stopDate":"2019-07-12 21:00:00","orgNo":"3340140","typeCode":"计划停电","poweroffArea":"110kV漳河变:超峰G885线-超峰G885线建管中心分线开关后段。因工作任务重大，原计划停电结束时间为2019年7月12日16时，现变更为2019年7月12日19时结束送电。因工作任务重大，原计划停电结束时间为2019年7月12日19时，现变更为2019年7月12日21时结束送电。","poweroffReason":"超峰G885线建管中心分线上改下","powerTime":"2019-07-12 20:29:23","powerComm":"完成工作，已送电","subsNo":"","lineNo":"","tgNo":"","tgName":null,"infoStatus":"1","orgName":"国网浙江杭州市余杭区供电有限公司","typeName":null,"infoStatusName":null,"dateDay":null,"orgNos":null,"nowTime":null,"countyName":null,"streetName":null,"villageName":null,"roadName":null,"communityName":null,"tranName":null,"sdLineName":null,"cityCode":"3340140","cityName":"国网浙江杭州市余杭区供电有限公司","provinceCode":null,"stopTime":"2019-07-12 21:00:00","powerType":"全部","powerOffArea":"110kV漳河变:超峰G885线-超峰G885线建管中心分线开关后段。因工作任务重大，原计划停电结束时间为2019年7月12日16时，现变更为2019年7月12日19时结束送电。因工作任务重大，原计划停电结束时间为2019年7月12日19时，现变更为2019年7月12日21时结束送电。","powerOffReason":"超峰G885线建管中心分线上改下","powerOffId":"2019062831020283"},{"poweroffId":2019062831020280,"sgpoweroffId":null,"subsName":"","lineName":"10kV洲宁G931线","pubTranName":"旺盛服装2#,旺盛服装3#,永和纺织,杭州众商文体用品有限公司,旺盛服装1#,","scope":"浙江省杭州市余杭区东湖街道：自强链条厂（一、二、三、四）、旺盛服装厂、万宏电子有限公司、永和纺织厂、大与箱包厂一带","startTime":"2019-07-08 08:00:00","stopDate":"2019-07-08 14:30:00","orgNo":"3340140","typeCode":"计划停电","poweroffArea":"110kV亭趾变:洲宁G931线首端，洲宁G9313开关，洲宁G9310开关之间 因施工力量充足，原计划结束时间2019-07-08 15:00:00更改为2019-07-08 14:30:00","poweroffReason":"洲宁G931线调换真空开关2台 因施工力量充足，原计划结束时间2019-07-08 15:00:00更改为2019-07-08 14:30:00","powerTime":"2019-07-08 13:35:00","powerComm":"工作完成","subsNo":"","lineNo":"","tgNo":"","tgName":null,"infoStatus":"1","orgName":"国网浙江杭州市余杭区供电有限公司","typeName":null,"infoStatusName":null,"dateDay":null,"orgNos":null,"nowTime":null,"countyName":null,"streetName":null,"villageName":null,"roadName":null,"communityName":null,"tranName":null,"sdLineName":null,"cityCode":"3340140","cityName":"国网浙江杭州市余杭区供电有限公司","provinceCode":null,"stopTime":"2019-07-08 14:30:00","powerType":"全部","powerOffArea":"110kV亭趾变:洲宁G931线首端，洲宁G9313开关，洲宁G9310开关之间 因施工力量充足，原计划结束时间2019-07-08 15:00:00更改为2019-07-08 14:30:00","powerOffReason":"洲宁G931线调换真空开关2台 因施工力量充足，原计划结束时间2019-07-08 15:00:00更改为2019-07-08 14:30:00","powerOffId":"2019062831020280"},{"poweroffId":2019062831020279,"sgpoweroffId":null,"subsName":"","lineName":"10kV里项H735线","pubTranName":"闲林水厂2号基建,里项村杨公坞,闲林水厂8号基建,里山桥北公变,","scope":"浙江省杭州市余杭区：西溪源村杨公坞、里山桥北、闲林水厂建设工地一带","startTime":"2019-07-07 08:30:00","stopDate":"2019-07-07 14:30:00","orgNo":"3340140","typeCode":"计划停电","poweroffArea":"学天H73511开关-学天H73512开关","poweroffReason":"业扩工程（重基公司闲祝路环境整治缸桥H732线等线路上改下工程）：学天H7351线18号杆电缆拆除与福严开关站新出电缆对接（带电作业配合学天H7351线19号杆拆头）","powerTime":"2019-07-07 14:23:02","powerComm":"已送电。","subsNo":"","lineNo":"","tgNo":"","tgName":null,"infoStatus":"1","orgName":"国网浙江杭州市余杭区供电有限公司","typeName":null,"infoStatusName":null,"dateDay":null,"orgNos":null,"nowTime":null,"countyName":null,"streetName":null,"villageName":null,"roadName":null,"communityName":null,"tranName":null,"sdLineName":null,"cityCode":"3340140","cityName":"国网浙江杭州市余杭区供电有限公司","provinceCode":null,"stopTime":"2019-07-07 14:30:00","powerType":"全部","powerOffArea":"学天H73511开关-学天H73512开关","powerOffReason":"业扩工程（重基公司闲祝路环境整治缸桥H732线等线路上改下工程）：学天H7351线18号杆电缆拆除与福严开关站新出电缆对接（带电作业配合学天H7351线19号杆拆头）","powerOffId":"2019062831020279"},{"poweroffId":2019062831020236,"sgpoweroffId":null,"subsName":"","lineName":"10kV头格G061线","pubTranName":"移动学稼基站,城建三角安置房一区1#基建变,城建三角安置房一区2#基建变,","scope":"浙江省杭州市余杭区乔司街道：城建三角安置房一区基建工地、移动学稼基站一带","startTime":"2019-07-12 08:30:00","stopDate":"2019-07-12 17:00:00","orgNo":"3340140","typeCode":"计划停电","poweroffArea":"110kV外乔变:头格G061线学稼2组分线。","poweroffReason":"杭州余杭乔司国际商贸城建设发展有限公司九桥路项目格立G0611线和胜德G0581线36-48#杆上改下工程：1、学稼2组分线2#杆至9#杆线路移位；2、线路修树，登杆检查，3M绝缘处理，加装防鸟挡板。","powerTime":"2019-07-12 16:23:20","powerComm":"施工结束","subsNo":"","lineNo":"","tgNo":"","tgName":null,"infoStatus":"1","orgName":"国网浙江杭州市余杭区供电有限公司","typeName":null,"infoStatusName":null,"dateDay":null,"orgNos":null,"nowTime":null,"countyName":null,"streetName":null,"villageName":null,"roadName":null,"communityName":null,"tranName":null,"sdLineName":null,"cityCode":"3340140","cityName":"国网浙江杭州市余杭区供电有限公司","provinceCode":null,"stopTime":"2019-07-12 17:00:00","powerType":"全部","powerOffArea":"110kV外乔变:头格G061线学稼2组分线。","powerOffReason":"杭州余杭乔司国际商贸城建设发展有限公司九桥路项目格立G0611线和胜德G0581线36-48#杆上改下工程：1、学稼2组分线2#杆至9#杆线路移位；2、线路修树，登杆检查，3M绝缘处理，加装防鸟挡板。","powerOffId":"2019062831020236"},{"poweroffId":2019062831020235,"sgpoweroffId":null,"subsName":"","lineName":"10kV星光G116线","pubTranName":"杭州市余杭区机关事务服务中心61208442921#变压器,第二监狱II段（6110231015）02号专变,城建处上塘河1#景观变,杭州市余杭区机关事务服务中心61208442911#变压器,丁山农居点1号公变,","scope":"浙江省杭州市余杭区南苑街道：机关事务管理局基建工地、浙江省第二监狱、城建处上塘河景观路灯、丁山村农居点一带","startTime":"2019-07-12 08:30:00","stopDate":"2019-07-12 17:00:00","orgNo":"3340140","typeCode":"计划停电","poweroffArea":"110kV临平变:华清环网站星光G116线地毯分线。","poweroffReason":"地铁9号线西洋桥迁改工程：华清环网站地毯分线5#杆-7#杆电缆及分支箱移位工作。","powerTime":"2019-07-12 16:11:01","powerComm":"施工结束","subsNo":"","lineNo":"","tgNo":"","tgName":null,"infoStatus":"1","orgName":"国网浙江杭州市余杭区供电有限公司","typeName":null,"infoStatusName":null,"dateDay":null,"orgNos":null,"nowTime":null,"countyName":null,"streetName":null,"villageName":null,"roadName":null,"communityName":null,"tranName":null,"sdLineName":null,"cityCode":"3340140","cityName":"国网浙江杭州市余杭区供电有限公司","provinceCode":null,"stopTime":"2019-07-12 17:00:00","powerType":"全部","powerOffArea":"110kV临平变:华清环网站星光G116线地毯分线。","powerOffReason":"地铁9号线西洋桥迁改工程：华清环网站地毯分线5#杆-7#杆电缆及分支箱移位工作。","powerOffId":"2019062831020235"},{"poweroffId":2019062831020234,"sgpoweroffId":null,"subsName":"","lineName":"10kV头格G061线","pubTranName":"杭州市余杭区城市管理局,","scope":"浙江省杭州市余杭区乔司街道：路灯管理所东湖快速路路灯一带","startTime":"2019-07-12 08:30:00","stopDate":"2019-07-12 18:00:00","orgNo":"3340140","typeCode":"计划停电","poweroffArea":"110kV外乔变:格立G0611线G06113开关至德立开关站格立G0611线。","poweroffReason":"杭州余杭乔司国际商贸城建设发展有限公司九桥路项目格立G0611线和胜德G0581线36-48#杆上改下工程：1、格立G0611线36#杆至48#杆上改下；2、线路修树，登杆检查，3M绝缘处理，加装防鸟挡板。","powerTime":"2019-07-12 17:29:10","powerComm":"施工结束","subsNo":"","lineNo":"","tgNo":"","tgName":null,"infoStatus":"1","orgName":"国网浙江杭州市余杭区供电有限公司","typeName":null,"infoStatusName":null,"dateDay":null,"orgNos":null,"nowTime":null,"countyName":null,"streetName":null,"villageName":null,"roadName":null,"communityName":null,"tranName":null,"sdLineName":null,"cityCode":"3340140","cityName":"国网浙江杭州市余杭区供电有限公司","provinceCode":null,"stopTime":"2019-07-12 18:00:00","powerType":"全部","powerOffArea":"110kV外乔变:格立G0611线G06113开关至德立开关站格立G0611线。","powerOffReason":"杭州余杭乔司国际商贸城建设发展有限公司九桥路项目格立G0611线和胜德G0581线36-48#杆上改下工程：1、格立G0611线36#杆至48#杆上改下；2、线路修树，登杆检查，3M绝缘处理，加装防鸟挡板。","powerOffId":"2019062831020234"}],"pageModel":{"pageNow":1525,"totalCount":17789,"totalPage":1779,"tableRows":0,"pageCount":10,"beginCount":15240},"isExperi":"1"}