{"message":"","today":"2020-06-16","seleList":[{"poweroffId":2019062831020233,"sgpoweroffId":null,"subsName":"","lineName":"10kV晨园G617线","pubTranName":"翁梅新苑7#公变,翁梅新苑一区6#公变,2#,翁梅新苑8#公变,翁梅新苑一区5#公变,","scope":"浙江省杭州市余杭区南苑街道：翁梅新苑小区一带","startTime":"2019-07-11 08:30:00","stopDate":"2019-07-11 15:00:00","orgNo":"3340140","typeCode":"计划停电","poweroffArea":"110kV艺尚变:艺尚变晨园G617线-怡丰开关站坝丰G6171线。","poweroffReason":"羊坝开关站拼柜新上用户工程：羊坝开关站新上16#间隔、电缆搭接及试验工作。 原停电结束时间17：00，因检修力量充足，提前完成工作任务，现变更停电结束时间15：00","powerTime":"2019-07-11 14:08:06","powerComm":"施工结束","subsNo":"","lineNo":"","tgNo":"","tgName":null,"infoStatus":"1","orgName":"国网浙江杭州市余杭区供电有限公司","typeName":null,"infoStatusName":null,"dateDay":null,"orgNos":null,"nowTime":null,"countyName":null,"streetName":null,"villageName":null,"roadName":null,"communityName":null,"tranName":null,"sdLineName":null,"cityCode":"3340140","cityName":"国网浙江杭州市余杭区供电有限公司","provinceCode":null,"stopTime":"2019-07-11 15:00:00","powerType":"全部","powerOffArea":"110kV艺尚变:艺尚变晨园G617线-怡丰开关站坝丰G6171线。","powerOffReason":"羊坝开关站拼柜新上用户工程：羊坝开关站新上16#间隔、电缆搭接及试验工作。 原停电结束时间17：00，因检修力量充足，提前完成工作任务，现变更停电结束时间15：00","powerOffId":"2019062831020233"},{"poweroffId":2019062831020231,"sgpoweroffId":null,"subsName":"","lineName":"10kV星公G076线","pubTranName":"资产营运61207079852#基建变,余教资产营运（汀洲小学）6120702273基建变,资产营运61207079861#基建变,星桥街道办事处路灯变,","scope":"浙江省杭州市余杭区星桥街道：教育资产管理中心基建工地、星桥街道办事处路灯一带","startTime":"2019-07-11 08:30:00","stopDate":"2019-07-11 18:30:00","orgNo":"3340140","typeCode":"计划停电","poweroffArea":"110kV星桥变:星公G0761开关-公园开关站星公G076线。","poweroffReason":"计划工作。 原停电结束时间18：00，由于现场情况复杂，无法按时完成相关工作，现变更停电结束时间18：30","powerTime":"2019-07-11 18:11:01","powerComm":"施工结束","subsNo":"","lineNo":"","tgNo":"","tgName":null,"infoStatus":"1","orgName":"国网浙江杭州市余杭区供电有限公司","typeName":null,"infoStatusName":null,"dateDay":null,"orgNos":null,"nowTime":null,"countyName":null,"streetName":null,"villageName":null,"roadName":null,"communityName":null,"tranName":null,"sdLineName":null,"cityCode":"3340140","cityName":"国网浙江杭州市余杭区供电有限公司","provinceCode":null,"stopTime":"2019-07-11 18:30:00","powerType":"全部","powerOffArea":"110kV星桥变:星公G0761开关-公园开关站星公G076线。","powerOffReason":"计划工作。 原停电结束时间18：00，由于现场情况复杂，无法按时完成相关工作，现变更停电结束时间18：30","powerOffId":"2019062831020231"},{"poweroffId":2019062831020230,"sgpoweroffId":null,"subsName":"","lineName":"10kV佛日G081线","pubTranName":"汤家8组2号（佛日坞）公变,星桥幼儿园1＃变,汤加公寓专变II段1#专变,和兴茶叶,汤家3组（江家塘）公变,","scope":"浙江省杭州市余杭区星桥街道：和兴茶叶厂、汤家村8组、汤家村3组一带","startTime":"2019-07-11 08:30:00","stopDate":"2019-07-11 19:30:00","orgNo":"3340140","typeCode":"计划停电","poweroffArea":"110kV星桥变:佛日G081线汤家8组2#分线。","poweroffReason":"杭州余杭城市建设集团有限公司汀洲学校周边配套道路工程上改下：1、汤家3组（江家塘）配变移位，立15米杆3基；2、线路修树，登杆检查，3M绝缘处理，加装防鸟挡板。 原停电结束时间17：00，由于现场情况复杂，无法按时完成相关工作，现变更停电结束时间19：30","powerTime":"2019-07-11 18:31:56","powerComm":"施工结束","subsNo":"","lineNo":"","tgNo":"","tgName":null,"infoStatus":"1","orgName":"国网浙江杭州市余杭区供电有限公司","typeName":null,"infoStatusName":null,"dateDay":null,"orgNos":null,"nowTime":null,"countyName":null,"streetName":null,"villageName":null,"roadName":null,"communityName":null,"tranName":null,"sdLineName":null,"cityCode":"3340140","cityName":"国网浙江杭州市余杭区供电有限公司","provinceCode":null,"stopTime":"2019-07-11 19:30:00","powerType":"全部","powerOffArea":"110kV星桥变:佛日G081线汤家8组2#分线。","powerOffReason":"杭州余杭城市建设集团有限公司汀洲学校周边配套道路工程上改下：1、汤家3组（江家塘）配变移位，立15米杆3基；2、线路修树，登杆检查，3M绝缘处理，加装防鸟挡板。 原停电结束时间17：00，由于现场情况复杂，无法按时完成相关工作，现变更停电结束时间19：30","powerOffId":"2019062831020230"},{"poweroffId":2019062831020228,"sgpoweroffId":null,"subsName":"","lineName":"10kV风景G609线","pubTranName":"翁梅新苑一区1#公变,翁梅新苑一区3#公变,翁梅新苑一区4#公变,1#,翁梅新苑一区2#公变,","scope":"浙江省杭州市余杭区南苑街道：翁梅新苑小区一带","startTime":"2019-07-10 08:30:00","stopDate":"2019-07-10 17:00:00","orgNo":"3340140","typeCode":"计划停电","poweroffArea":"110kV艺尚变:艺尚变风景G609线-怡丰开关站羊怡G6091线。","poweroffReason":"羊坝开关站拼柜新上用户工程：羊坝开关站新上3#间隔、电缆搭接及试验工作。","powerTime":"2019-07-10 16:05:47","powerComm":"工作完成","subsNo":"","lineNo":"","tgNo":"","tgName":null,"infoStatus":"1","orgName":"国网浙江杭州市余杭区供电有限公司","typeName":null,"infoStatusName":null,"dateDay":null,"orgNos":null,"nowTime":null,"countyName":null,"streetName":null,"villageName":null,"roadName":null,"communityName":null,"tranName":null,"sdLineName":null,"cityCode":"3340140","cityName":"国网浙江杭州市余杭区供电有限公司","provinceCode":null,"stopTime":"2019-07-10 17:00:00","powerType":"全部","powerOffArea":"110kV艺尚变:艺尚变风景G609线-怡丰开关站羊怡G6091线。","powerOffReason":"羊坝开关站拼柜新上用户工程：羊坝开关站新上3#间隔、电缆搭接及试验工作。","powerOffId":"2019062831020228"},{"poweroffId":2019062831020226,"sgpoweroffId":null,"subsName":"","lineName":"10kV天万G011线","pubTranName":"钱塘13组3号公变,钱塘14组2号公变,钱塘12组5号公变,钱塘13组5号公变,","scope":"浙江省杭州市余杭区南苑街道：钱塘村12组、钱塘村13组、钱塘村14组一带","startTime":"2019-07-08 08:30:00","stopDate":"2019-07-08 16:00:00","orgNo":"3340140","typeCode":"计划停电","poweroffArea":"110kV外乔变:天万G011线钱塘14组2#分线。","poweroffReason":"2019年杭州余杭星桥地区万乐社区等配变台区改造工程：新布钱塘14组5#变。 原停电结束时间17：00，因检修力量充足，提前完成工作任务，现变更停电结束时间16：00。","powerTime":"2019-07-08 15:22:31","powerComm":"施工结束","subsNo":"","lineNo":"","tgNo":"","tgName":null,"infoStatus":"1","orgName":"国网浙江杭州市余杭区供电有限公司","typeName":null,"infoStatusName":null,"dateDay":null,"orgNos":null,"nowTime":null,"countyName":null,"streetName":null,"villageName":null,"roadName":null,"communityName":null,"tranName":null,"sdLineName":null,"cityCode":"3340140","cityName":"国网浙江杭州市余杭区供电有限公司","provinceCode":null,"stopTime":"2019-07-08 16:00:00","powerType":"全部","powerOffArea":"110kV外乔变:天万G011线钱塘14组2#分线。","powerOffReason":"2019年杭州余杭星桥地区万乐社区等配变台区改造工程：新布钱塘14组5#变。 原停电结束时间17：00，因检修力量充足，提前完成工作任务，现变更停电结束时间16：00。","powerOffId":"2019062831020226"},{"poweroffId":2019062831020225,"sgpoweroffId":null,"subsName":"","lineName":"10kV胜府G615线","pubTranName":"春天市政,","scope":"浙江省杭州市余杭区南苑街道：天地园林联胜景观路灯一带","startTime":"2019-07-08 08:30:00","stopDate":"2019-07-08 15:00:00","orgNo":"3340140","typeCode":"计划停电","poweroffArea":"110kV艺尚变:胜府G615线临平净水厂分线。","poweroffReason":"临平净水厂分线上改下工程：临平净水厂分线后段上改下。 原停电结束时间17：00，因检修力量充足，提前完成工作任务，现变更停电结束时间15：00","powerTime":"2019-07-08 14:16:44","powerComm":"施工结束","subsNo":"","lineNo":"","tgNo":"","tgName":null,"infoStatus":"1","orgName":"国网浙江杭州市余杭区供电有限公司","typeName":null,"infoStatusName":null,"dateDay":null,"orgNos":null,"nowTime":null,"countyName":null,"streetName":null,"villageName":null,"roadName":null,"communityName":null,"tranName":null,"sdLineName":null,"cityCode":"3340140","cityName":"国网浙江杭州市余杭区供电有限公司","provinceCode":null,"stopTime":"2019-07-08 15:00:00","powerType":"全部","powerOffArea":"110kV艺尚变:胜府G615线临平净水厂分线。","powerOffReason":"临平净水厂分线上改下工程：临平净水厂分线后段上改下。 原停电结束时间17：00，因检修力量充足，提前完成工作任务，现变更停电结束时间15：00","powerOffId":"2019062831020225"},{"poweroffId":2019062831020224,"sgpoweroffId":null,"subsName":"","lineName":"10kV双林G942线","pubTranName":"丁塘村丁塘角公变,丁塘村一组（东）公变,丁塘村一组(西)公变,丁塘村丁塘角2号公变,","scope":"浙江省杭州市余杭区南苑街道：丁塘村丁塘角、丁塘村一组、丁塘养殖厂一带。","startTime":"2019-07-08 08:30:00","stopDate":"2019-07-08 15:00:00","orgNo":"3340140","typeCode":"计划停电","poweroffArea":"110kV亭趾变:双林G942线丁塘村分线。","poweroffReason":"配网消缺工程：双林G942线丁塘村分线消缺，综合检修。 原停电结束时间17：00，因检修力量充足，提前完成工作任务，现变更停电结束时间15：00。","powerTime":"2019-07-08 14:20:23","powerComm":"施工结束","subsNo":"","lineNo":"","tgNo":"","tgName":null,"infoStatus":"1","orgName":"国网浙江杭州市余杭区供电有限公司","typeName":null,"infoStatusName":null,"dateDay":null,"orgNos":null,"nowTime":null,"countyName":null,"streetName":null,"villageName":null,"roadName":null,"communityName":null,"tranName":null,"sdLineName":null,"cityCode":"3340140","cityName":"国网浙江杭州市余杭区供电有限公司","provinceCode":null,"stopTime":"2019-07-08 15:00:00","powerType":"全部","powerOffArea":"110kV亭趾变:双林G942线丁塘村分线。","powerOffReason":"配网消缺工程：双林G942线丁塘村分线消缺，综合检修。 原停电结束时间17：00，因检修力量充足，提前完成工作任务，现变更停电结束时间15：00。","powerOffId":"2019062831020224"},{"poweroffId":2019062831020222,"sgpoweroffId":null,"subsName":"","lineName":"10kV歌舞T142线","pubTranName":"陈德军,潘畈1号公变,","scope":"浙江省-杭州市-桐庐县-钟山乡-子胥行政村-潘畈自然村;浙江省-杭州市-桐庐县-钟山乡-子胥行政村-陈德军","startTime":"2019-07-12 07:30:00","stopDate":"2019-07-12 16:30:00","orgNo":"3340150","typeCode":"计划停电","poweroffArea":"35kV钟山变:歌舞T142线-潘畈F2129令克后段","poweroffReason":"杭州桐庐钟山潘畈村等台区配变及低压线路改造工程","powerTime":"2019-07-12 16:04:11","powerComm":"已送电","subsNo":"","lineNo":"","tgNo":"","tgName":null,"infoStatus":"1","orgName":"国网浙江桐庐县供电公司","typeName":null,"infoStatusName":null,"dateDay":null,"orgNos":null,"nowTime":null,"countyName":null,"streetName":null,"villageName":null,"roadName":null,"communityName":null,"tranName":null,"sdLineName":null,"cityCode":"3340150","cityName":"国网浙江桐庐县供电公司","provinceCode":null,"stopTime":"2019-07-12 16:30:00","powerType":"全部","powerOffArea":"35kV钟山变:歌舞T142线-潘畈F2129令克后段","powerOffReason":"杭州桐庐钟山潘畈村等台区配变及低压线路改造工程","powerOffId":"2019062831020222"},{"poweroffId":2019062831020221,"sgpoweroffId":null,"subsName":"","lineName":"10kV石材T143线","pubTranName":"五步山1号公变,桐庐宏宇建材有限公司,","scope":"浙江省-杭州市-桐庐县-钟山乡-钟山行政村-五步山自然村;浙江省-杭州市-桐庐县-钟山乡-钟山行政村-桐庐宏宇建材有限公司","startTime":"2019-07-11 07:30:00","stopDate":"2019-07-11 17:30:00","orgNo":"3340150","typeCode":"计划停电","poweroffArea":"35kV钟山变:石材T143线-五步F2201令克后段","poweroffReason":"杭州桐庐钟山五步山等台区配变及低压线路改造工程","powerTime":"2019-07-11 17:21:07","powerComm":"已送电","subsNo":"","lineNo":"","tgNo":"","tgName":null,"infoStatus":"1","orgName":"国网浙江桐庐县供电公司","typeName":null,"infoStatusName":null,"dateDay":null,"orgNos":null,"nowTime":null,"countyName":null,"streetName":null,"villageName":null,"roadName":null,"communityName":null,"tranName":null,"sdLineName":null,"cityCode":"3340150","cityName":"国网浙江桐庐县供电公司","provinceCode":null,"stopTime":"2019-07-11 17:30:00","powerType":"全部","powerOffArea":"35kV钟山变:石材T143线-五步F2201令克后段","powerOffReason":"杭州桐庐钟山五步山等台区配变及低压线路改造工程","powerOffId":"2019062831020221"},{"poweroffId":2019062831020220,"sgpoweroffId":null,"subsName":"","lineName":"10kV石材T143线","pubTranName":"桐庐下邵加油站有限公司变压器,桐庐大富石材有限公司,","scope":"浙江省-杭州市-桐庐县-钟山乡-钟山行政村(桐庐大富石材有限公司,桐庐下邵加油站有限公司)","startTime":"2019-07-08 07:30:00","stopDate":"2019-07-08 15:30:00","orgNo":"3340150","typeCode":"计划停电","poweroffArea":"35kV钟山变:石材T143线-下邵F2219令克后段","poweroffReason":"杭州大富石材有限公司710KVA增容工程","powerTime":"2019-07-08 15:10:49","powerComm":"全部送电","subsNo":"","lineNo":"","tgNo":"","tgName":null,"infoStatus":"1","orgName":"国网浙江桐庐县供电公司","typeName":null,"infoStatusName":null,"dateDay":null,"orgNos":null,"nowTime":null,"countyName":null,"streetName":null,"villageName":null,"roadName":null,"communityName":null,"tranName":null,"sdLineName":null,"cityCode":"3340150","cityName":"国网浙江桐庐县供电公司","provinceCode":null,"stopTime":"2019-07-08 15:30:00","powerType":"全部","powerOffArea":"35kV钟山变:石材T143线-下邵F2219令克后段","powerOffReason":"杭州大富石材有限公司710KVA增容工程","powerOffId":"2019062831020220"}],"pageModel":{"pageNow":1526,"totalCount":17789,"totalPage":1779,"tableRows":0,"pageCount":10,"beginCount":15250},"isExperi":"1"}