{"message":"","today":"2020-06-16","seleList":[{"poweroffId":2019062831020213,"sgpoweroffId":null,"subsName":"","lineName":"10kV凌家6309线","pubTranName":"角棚二,","scope":"浙江省杭州市西湖区老北塘路附近一带用户","startTime":"2019-07-12 09:30:00","stopDate":"2019-07-12 15:30:00","orgNo":"3340101","typeCode":"计划停电","poweroffArea":"110kV转塘变:凌家6309线-角棚二线后段","poweroffReason":"角棚二配变电缆更换。原停电结束时间17:00、变更停电结束时间15:30原因由于施工现场环境比较复杂，存在不确定因素，因此预估施工时间适当放长了，而实际施工进行得比较顺利，因此该工作提前结束。","powerTime":"2019-07-12 14:44:59","powerComm":"已送电","subsNo":"","lineNo":"","tgNo":"","tgName":null,"infoStatus":"1","orgName":"浙江杭州电力客户服务中心","typeName":null,"infoStatusName":null,"dateDay":null,"orgNos":null,"nowTime":null,"countyName":null,"streetName":null,"villageName":null,"roadName":null,"communityName":null,"tranName":null,"sdLineName":null,"cityCode":"3340101","cityName":"浙江杭州电力客户服务中心","provinceCode":null,"stopTime":"2019-07-12 15:30:00","powerType":"全部","powerOffArea":"110kV转塘变:凌家6309线-角棚二线后段","powerOffReason":"角棚二配变电缆更换。原停电结束时间17:00、变更停电结束时间15:30原因由于施工现场环境比较复杂，存在不确定因素，因此预估施工时间适当放长了，而实际施工进行得比较顺利，因此该工作提前结束。","powerOffId":"2019062831020213"},{"poweroffId":2019062831020212,"sgpoweroffId":null,"subsName":"","lineName":"10kV地研9677线","pubTranName":"桂溪施一,望溪幼施,花坞村二,桂溪施二,氟化,桂溪施三,桂溪施四,化宿变,化研二,","scope":"浙江省杭州市西湖区化工研究院有限公司、化工研究院宿舍、花坞村附近一带用户及附近施工工地","startTime":"2019-07-12 09:30:00","stopDate":"2019-07-12 15:30:00","orgNo":"3340101","typeCode":"计划停电","poweroffArea":"220kV古荡变:地研9677线-市泵分线后段","poweroffReason":"小和山新村美变更换工程（大达）花坞村二变压器更换。原停电结束时间17:00、变更停电结束时间15:30原因由于施工现场环境比较复杂，存在不确定因素，因此预估施工时间适当放长了，而实际施工进行得比较顺利，因此该工作提前结束。","powerTime":"2019-07-12 14:43:59","powerComm":"已送电","subsNo":"","lineNo":"","tgNo":"","tgName":null,"infoStatus":"1","orgName":"浙江杭州电力客户服务中心","typeName":null,"infoStatusName":null,"dateDay":null,"orgNos":null,"nowTime":null,"countyName":null,"streetName":null,"villageName":null,"roadName":null,"communityName":null,"tranName":null,"sdLineName":null,"cityCode":"3340101","cityName":"浙江杭州电力客户服务中心","provinceCode":null,"stopTime":"2019-07-12 15:30:00","powerType":"全部","powerOffArea":"220kV古荡变:地研9677线-市泵分线后段","powerOffReason":"小和山新村美变更换工程（大达）花坞村二变压器更换。原停电结束时间17:00、变更停电结束时间15:30原因由于施工现场环境比较复杂，存在不确定因素，因此预估施工时间适当放长了，而实际施工进行得比较顺利，因此该工作提前结束。","powerOffId":"2019062831020212"},{"poweroffId":2019062831020210,"sgpoweroffId":null,"subsName":"","lineName":"10kV张圩8611线","pubTranName":"范家塘（3）,范家塘(4),范家塘（1）,范家塘（2）,","scope":"浙江省杭州市西湖区厚诚路小区附近一带用户","startTime":"2019-07-11 09:20:00","stopDate":"2019-07-11 15:30:00","orgNo":"3340101","typeCode":"计划停电","poweroffArea":"110kV谢村变:张圩8611线-范家塘分线开关后段","poweroffReason":"厚诚路小区公变增容布点工程（古墩）新设变压器 。原停电结束时间17:00、变更停电结束时间15:30原因由于施工现场环境比较复杂，存在不确定因素，因此预估施工时间适当放长了，而实际施工进行得比较顺利，因此该工作提前结束。","powerTime":"2019-07-11 14:52:59","powerComm":"已送电","subsNo":"","lineNo":"","tgNo":"","tgName":null,"infoStatus":"1","orgName":"浙江杭州电力客户服务中心","typeName":null,"infoStatusName":null,"dateDay":null,"orgNos":null,"nowTime":null,"countyName":null,"streetName":null,"villageName":null,"roadName":null,"communityName":null,"tranName":null,"sdLineName":null,"cityCode":"3340101","cityName":"浙江杭州电力客户服务中心","provinceCode":null,"stopTime":"2019-07-11 15:30:00","powerType":"全部","powerOffArea":"110kV谢村变:张圩8611线-范家塘分线开关后段","powerOffReason":"厚诚路小区公变增容布点工程（古墩）新设变压器 。原停电结束时间17:00、变更停电结束时间15:30原因由于施工现场环境比较复杂，存在不确定因素，因此预估施工时间适当放长了，而实际施工进行得比较顺利，因此该工作提前结束。","powerOffId":"2019062831020210"},{"poweroffId":2019062831020206,"sgpoweroffId":null,"subsName":"","lineName":"10kV友谊051线","pubTranName":"五间,","scope":"浙江省杭州市西湖区五间头附近一带部分用户","startTime":"2019-07-05 09:30:00","stopDate":"2019-07-05 12:30:00","orgNo":"3340101","typeCode":"临时停电","poweroffArea":"35kV袁浦临:友谊051线-五间后段","poweroffReason":"双浦镇老沙行政村五间头26号表计增容。计划停电结束时间12:00，因工作量大原因导致延时送电，预计送电时间：2019-07-05 12:30","powerTime":"2019-07-05 12:01:00","powerComm":"已送电","subsNo":"","lineNo":"","tgNo":"","tgName":null,"infoStatus":"1","orgName":"浙江杭州电力客户服务中心","typeName":null,"infoStatusName":null,"dateDay":null,"orgNos":null,"nowTime":null,"countyName":null,"streetName":null,"villageName":null,"roadName":null,"communityName":null,"tranName":null,"sdLineName":null,"cityCode":"3340101","cityName":"浙江杭州电力客户服务中心","provinceCode":null,"stopTime":"2019-07-05 12:30:00","powerType":"全部","powerOffArea":"35kV袁浦临:友谊051线-五间后段","powerOffReason":"双浦镇老沙行政村五间头26号表计增容。计划停电结束时间12:00，因工作量大原因导致延时送电，预计送电时间：2019-07-05 12:30","powerOffId":"2019062831020206"},{"poweroffId":2019062831020205,"sgpoweroffId":null,"subsName":"","lineName":"10kV良坞6314线","pubTranName":"白鸟畈,","scope":"浙江省杭州市西湖区袁家浦村部分用户、三杭蒙特费罗电梯部件有限公司、袁家浦村居委会、杭新印务有限公司附近一带","startTime":"2019-07-03 09:30:00","stopDate":"2019-07-03 16:30:00","orgNo":"3340101","typeCode":"临时停电","poweroffArea":"110kV转塘变:良坞6314线-10千伏良闲63178线白鸟畈分线跌落式熔断器后段","poweroffReason":"白鸟畈公变移位，白鸟畈分线电缆移位。原停电结束时间17:30、变更停电结束时间16:30原因由于施工现场环境比较复杂，存在不确定因素，因此预估施工时间适当放长了，而实际施工进行得比较顺利，因此该工作提前结束。","powerTime":"2019-07-03 15:54:59","powerComm":"已送电","subsNo":"","lineNo":"","tgNo":"","tgName":null,"infoStatus":"1","orgName":"浙江杭州电力客户服务中心","typeName":null,"infoStatusName":null,"dateDay":null,"orgNos":null,"nowTime":null,"countyName":null,"streetName":null,"villageName":null,"roadName":null,"communityName":null,"tranName":null,"sdLineName":null,"cityCode":"3340101","cityName":"浙江杭州电力客户服务中心","provinceCode":null,"stopTime":"2019-07-03 16:30:00","powerType":"全部","powerOffArea":"110kV转塘变:良坞6314线-10千伏良闲63178线白鸟畈分线跌落式熔断器后段","powerOffReason":"白鸟畈公变移位，白鸟畈分线电缆移位。原停电结束时间17:30、变更停电结束时间16:30原因由于施工现场环境比较复杂，存在不确定因素，因此预估施工时间适当放长了，而实际施工进行得比较顺利，因此该工作提前结束。","powerOffId":"2019062831020205"},{"poweroffId":2019062831020196,"sgpoweroffId":null,"subsName":"","lineName":"10kV苕溪H522线","pubTranName":"6120822485苕溪城市建设2号变,6120822483苕溪城市建设1号变,","scope":"浙江省杭州市余杭区瓶窑镇：苕溪城市建设一带","startTime":"2019-07-16 08:40:00","stopDate":"2019-07-16 16:40:00","orgNo":"3340140","typeCode":"计划停电","poweroffArea":"苕溪H522线路灯基建分线","poweroffReason":"计划工作","powerTime":"2019-07-16 16:38:19","powerComm":"全部送电","subsNo":"","lineNo":"","tgNo":"","tgName":null,"infoStatus":"1","orgName":"国网浙江杭州市余杭区供电有限公司","typeName":null,"infoStatusName":null,"dateDay":null,"orgNos":null,"nowTime":null,"countyName":null,"streetName":null,"villageName":null,"roadName":null,"communityName":null,"tranName":null,"sdLineName":null,"cityCode":"3340140","cityName":"国网浙江杭州市余杭区供电有限公司","provinceCode":null,"stopTime":"2019-07-16 16:40:00","powerType":"全部","powerOffArea":"苕溪H522线路灯基建分线","powerOffReason":"计划工作","powerOffId":"2019062831020196"},{"poweroffId":2019062831020195,"sgpoweroffId":null,"subsName":"","lineName":"10kV香格H521线","pubTranName":"新湖2＃专变,香格里拉12-1号公变,新湖基建3,新湖1＃专变,新湖专变,香格里拉11-1号公变,香格里拉7号公变,新湖基建变3,香格里拉15号公变,香格里拉8-1号公变,香格里拉12-2号公变,北砖,新湖基建2,香格里拉11-2号公变,香格里拉14号公变,香格里拉8-2号公变,","scope":"浙江省杭州市余杭区瓶窑镇：海策公司、北砖公司、新湖专变、新湖香格里拉一带","startTime":"2019-07-15 12:40:00","stopDate":"2019-07-15 18:30:00","orgNo":"3340140","typeCode":"计划停电","poweroffArea":"香格H5213开关后段","poweroffReason":"计划工作","powerTime":"2019-07-15 18:27:31","powerComm":"已送电","subsNo":"","lineNo":"","tgNo":"","tgName":null,"infoStatus":"1","orgName":"国网浙江杭州市余杭区供电有限公司","typeName":null,"infoStatusName":null,"dateDay":null,"orgNos":null,"nowTime":null,"countyName":null,"streetName":null,"villageName":null,"roadName":null,"communityName":null,"tranName":null,"sdLineName":null,"cityCode":"3340140","cityName":"国网浙江杭州市余杭区供电有限公司","provinceCode":null,"stopTime":"2019-07-15 18:30:00","powerType":"全部","powerOffArea":"香格H5213开关后段","powerOffReason":"计划工作","powerOffId":"2019062831020195"},{"poweroffId":2019062831020194,"sgpoweroffId":null,"subsName":"","lineName":"10kV东莲H536线","pubTranName":"香格里拉2-1号公变,凤都村北村2组公变,杭州申亿建设有限公司1#专变,凤都村李家斗公变,凤都村南村2号公变,新湖1＃专变2,香格里拉6-2号公变,香格里拉3-1号公变,香格里拉太璞苑3号公变,凤都村南村1号公变,香格里拉1-1号公变,杭州凤都生态农业开发有限公司,香格里拉10-2号公变,香格里拉6-1号公变,香格里拉太璞苑2号公变,香格里拉13号公变,香格里拉9-2号公变,凤都村中村1号公变,香格里拉5-2号公变,香格里拉太璞苑1号公变,香格里拉太璞苑4号公变,香格里拉5-1号公变,香格里拉10-1号公变,香格里拉4-2号公变,香格里拉2-2号公变,杭州申亿建设有限公司2#专变,香格里拉4-1号公变,香格里拉1-2号公变,香格里拉3-2号公变,凤都村中村2号公变,香格里拉9-1号公变,","scope":"浙江省杭州市余杭区瓶窑镇：凤都村南村、杭州凤都生态农业开发有限公司、凤都村北村、凤都村李家斗、凤都村中村、杭州申亿建设有限公司、太璞苑、香格里拉一带","startTime":"2019-07-15 12:40:00","stopDate":"2019-07-15 18:30:00","orgNo":"3340140","typeCode":"计划停电","poweroffArea":"东莲H5363开关后段","poweroffReason":"计划工作","powerTime":"2019-07-15 18:27:02","powerComm":"已送电","subsNo":"","lineNo":"","tgNo":"","tgName":null,"infoStatus":"1","orgName":"国网浙江杭州市余杭区供电有限公司","typeName":null,"infoStatusName":null,"dateDay":null,"orgNos":null,"nowTime":null,"countyName":null,"streetName":null,"villageName":null,"roadName":null,"communityName":null,"tranName":null,"sdLineName":null,"cityCode":"3340140","cityName":"国网浙江杭州市余杭区供电有限公司","provinceCode":null,"stopTime":"2019-07-15 18:30:00","powerType":"全部","powerOffArea":"东莲H5363开关后段","powerOffReason":"计划工作","powerOffId":"2019062831020194"},{"poweroffId":2019062831020193,"sgpoweroffId":null,"subsName":"","lineName":"10kV苕溪H522线","pubTranName":"崇化村北棋盘公变,崇化村中棋盘公变,崇化村邱家坝公变,","scope":"浙江省杭州市余杭区瓶窑镇：崇化村北棋盘、崇化村中棋盘、崇化村邱家坝一带","startTime":"2019-07-15 08:40:00","stopDate":"2019-07-15 18:30:00","orgNo":"3340140","typeCode":"计划停电","poweroffArea":"瓶仓大道总分线17号杆开关后段","poweroffReason":"计划工作","powerTime":"2019-07-15 18:28:17","powerComm":"已送电","subsNo":"","lineNo":"","tgNo":"","tgName":null,"infoStatus":"1","orgName":"国网浙江杭州市余杭区供电有限公司","typeName":null,"infoStatusName":null,"dateDay":null,"orgNos":null,"nowTime":null,"countyName":null,"streetName":null,"villageName":null,"roadName":null,"communityName":null,"tranName":null,"sdLineName":null,"cityCode":"3340140","cityName":"国网浙江杭州市余杭区供电有限公司","provinceCode":null,"stopTime":"2019-07-15 18:30:00","powerType":"全部","powerOffArea":"瓶仓大道总分线17号杆开关后段","powerOffReason":"计划工作","powerOffId":"2019062831020193"},{"poweroffId":2019062831020192,"sgpoweroffId":null,"subsName":"","lineName":"10kV东莲H536线","pubTranName":"凤都村南村1号公变,杭州凤都生态农业开发有限公司,凤都村北村2组公变,杭州申亿建设有限公司2#专变,凤都村李家斗公变,凤都村南村2号公变,杭州申亿建设有限公司1#专变,凤都村中村1号公变,","scope":"浙江省杭州市余杭区瓶窑镇：凤都村南村、杭州凤都生态农业开发有限公司、凤都村北村、凤都村李家斗、凤都村中村、杭州申亿建设有限公司一带","startTime":"2019-07-15 08:40:00","stopDate":"2019-07-15 18:30:00","orgNo":"3340140","typeCode":"计划停电","poweroffArea":"东莲H536线南村2分线","poweroffReason":"计划工作","powerTime":"2019-07-15 18:27:57","powerComm":"已送电","subsNo":"","lineNo":"","tgNo":"","tgName":null,"infoStatus":"1","orgName":"国网浙江杭州市余杭区供电有限公司","typeName":null,"infoStatusName":null,"dateDay":null,"orgNos":null,"nowTime":null,"countyName":null,"streetName":null,"villageName":null,"roadName":null,"communityName":null,"tranName":null,"sdLineName":null,"cityCode":"3340140","cityName":"国网浙江杭州市余杭区供电有限公司","provinceCode":null,"stopTime":"2019-07-15 18:30:00","powerType":"全部","powerOffArea":"东莲H536线南村2分线","powerOffReason":"计划工作","powerOffId":"2019062831020192"}],"pageModel":{"pageNow":1527,"totalCount":17789,"totalPage":1779,"tableRows":0,"pageCount":10,"beginCount":15260},"isExperi":"1"}