{"message":"","today":"2020-06-16","seleList":[{"poweroffId":2019062831010430,"sgpoweroffId":null,"subsName":"","lineName":"10kV三桥G652线","pubTranName":"长树11组（王家门）公变,","scope":"浙江省-杭州市-余杭区-南苑街道(长树社区-长树、王家门自然村);","startTime":"2019-06-28 19:47:58","stopDate":"2019-06-28 21:47:58","orgNo":"3340140","typeCode":"电网故障停限电","poweroffArea":"110kV南苑变:三桥G652线-长树11组（王家门）公变后段","poweroffReason":"三桥G652线-长树11组（王家门）公变后段低压线路断线","powerTime":"2019-06-28 21:16:11","powerComm":"已送电","subsNo":"","lineNo":"","tgNo":"","tgName":null,"infoStatus":"1","orgName":"国网浙江杭州市余杭区供电有限公司","typeName":null,"infoStatusName":null,"dateDay":null,"orgNos":null,"nowTime":null,"countyName":null,"streetName":null,"villageName":null,"roadName":null,"communityName":null,"tranName":null,"sdLineName":null,"cityCode":"3340140","cityName":"国网浙江杭州市余杭区供电有限公司","provinceCode":null,"stopTime":"2019-06-28 21:47:58","powerType":"全部","powerOffArea":"110kV南苑变:三桥G652线-长树11组（王家门）公变后段","powerOffReason":"三桥G652线-长树11组（王家门）公变后段低压线路断线","powerOffId":"2019062831010430"},{"poweroffId":2019062831010429,"sgpoweroffId":null,"subsName":"","lineName":"10kV潘塘H435线","pubTranName":"西塘河村上潘塘1号公变,","scope":"浙江省-杭州市-余杭区-良渚街道(西塘河行政村-潘塘自然村);","startTime":"2019-06-28 19:46:02","stopDate":"2019-06-28 21:46:02","orgNo":"3340140","typeCode":"电网故障停限电","poweroffArea":"110kV勾庄变:潘塘H435线-西塘河村上潘塘1号公变后段","poweroffReason":"潘塘H435线-西塘河村上潘塘1号公变后段低压线路断线","powerTime":"2019-06-28 21:17:15","powerComm":"已送电","subsNo":"","lineNo":"","tgNo":"","tgName":null,"infoStatus":"1","orgName":"国网浙江杭州市余杭区供电有限公司","typeName":null,"infoStatusName":null,"dateDay":null,"orgNos":null,"nowTime":null,"countyName":null,"streetName":null,"villageName":null,"roadName":null,"communityName":null,"tranName":null,"sdLineName":null,"cityCode":"3340140","cityName":"国网浙江杭州市余杭区供电有限公司","provinceCode":null,"stopTime":"2019-06-28 21:46:02","powerType":"全部","powerOffArea":"110kV勾庄变:潘塘H435线-西塘河村上潘塘1号公变后段","powerOffReason":"潘塘H435线-西塘河村上潘塘1号公变后段低压线路断线","powerOffId":"2019062831010429"},{"poweroffId":2019062831010425,"sgpoweroffId":null,"subsName":"","lineName":"10kV新江T122线","pubTranName":"8#专变,春江燕语6号公变,春江燕语1号公变,春江燕语2号公变,","scope":"浙江省-杭州市-桐庐县-富春江镇(俞赵行政村-环城西路);(杭州桐庐迪佛房地产开发有限公司，春江燕语小区别墅区一带);","startTime":"2019-06-28 19:38:30","stopDate":"2019-06-28 22:00:29","orgNo":"3340150","typeCode":"电网故障停限电","poweroffArea":"110kV外董变:新江T122线","poweroffReason":"低压开关故障","powerTime":"2019-06-28 21:40:24","powerComm":"已送电。","subsNo":"","lineNo":"","tgNo":"","tgName":null,"infoStatus":"1","orgName":"国网浙江桐庐县供电公司","typeName":null,"infoStatusName":null,"dateDay":null,"orgNos":null,"nowTime":null,"countyName":null,"streetName":null,"villageName":null,"roadName":null,"communityName":null,"tranName":null,"sdLineName":null,"cityCode":"3340150","cityName":"国网浙江桐庐县供电公司","provinceCode":null,"stopTime":"2019-06-28 22:00:29","powerType":"全部","powerOffArea":"110kV外董变:新江T122线","powerOffReason":"低压开关故障","powerOffId":"2019062831010425"},{"poweroffId":2019062831010381,"sgpoweroffId":null,"subsName":"","lineName":"10kV乾镇Y136线","pubTranName":"乾潭镇6#台区,","scope":"浙江省-杭州市-建德市-乾潭镇 乾潭集镇-万乐路一带用户。","startTime":"2019-06-28 17:02:00","stopDate":"2019-06-28 18:30:00","orgNo":"3340180","typeCode":"电网故障停限电","poweroffArea":"110kV乾潭变:乾镇Y136线-乾潭镇6#台区后段","poweroffReason":"乾镇Y136线-乾潭镇6#台区 低压配电设备故障 原预计停电结束时间20:00，由于施工现场环境比较复杂，存在不确定因素，因此预估施工时间适当放长了，目前故障已修复，现将停电时间变更至18:30。","powerTime":"2019-06-28 17:53:00","powerComm":"已送电","subsNo":"","lineNo":"","tgNo":"","tgName":null,"infoStatus":"1","orgName":"国网浙江建德市供电有限公司","typeName":null,"infoStatusName":null,"dateDay":null,"orgNos":null,"nowTime":null,"countyName":null,"streetName":null,"villageName":null,"roadName":null,"communityName":null,"tranName":null,"sdLineName":null,"cityCode":"3340180","cityName":"国网浙江建德市供电有限公司","provinceCode":null,"stopTime":"2019-06-28 18:30:00","powerType":"全部","powerOffArea":"110kV乾潭变:乾镇Y136线-乾潭镇6#台区后段","powerOffReason":"乾镇Y136线-乾潭镇6#台区 低压配电设备故障 原预计停电结束时间20:00，由于施工现场环境比较复杂，存在不确定因素，因此预估施工时间适当放长了，目前故障已修复，现将停电时间变更至18:30。","powerOffId":"2019062831010381"},{"poweroffId":2019062831010360,"sgpoweroffId":null,"subsName":"","lineName":"10kV歌舞T142线","pubTranName":"高塘岭1号公变,","scope":"浙江省-杭州市-桐庐县-钟山乡(高峰行政村-高塘岭脚自然村);","startTime":"2019-06-28 16:57:53","stopDate":"2019-06-28 19:30:33","orgNo":"3340150","typeCode":"电网故障停限电","poweroffArea":"35kV钟山变:歌舞T142线-高塘岭1号公变后段","poweroffReason":"低压开关故障","powerTime":"2019-06-28 19:16:25","powerComm":"已送电","subsNo":"","lineNo":"","tgNo":"","tgName":null,"infoStatus":"1","orgName":"国网浙江桐庐县供电公司","typeName":null,"infoStatusName":null,"dateDay":null,"orgNos":null,"nowTime":null,"countyName":null,"streetName":null,"villageName":null,"roadName":null,"communityName":null,"tranName":null,"sdLineName":null,"cityCode":"3340150","cityName":"国网浙江桐庐县供电公司","provinceCode":null,"stopTime":"2019-06-28 19:30:33","powerType":"全部","powerOffArea":"35kV钟山变:歌舞T142线-高塘岭1号公变后段","powerOffReason":"低压开关故障","powerOffId":"2019062831010360"},{"poweroffId":2019062831010328,"sgpoweroffId":null,"subsName":"","lineName":"10kV联中T204线","pubTranName":"横政路1号公变,","scope":"浙江省-杭州市-桐庐县-横村镇(城东行政村-横政路、双湖自然村、桐千路、徐家埠自然村);","startTime":"2019-06-28 16:22:22","stopDate":"2019-06-28 19:23:03","orgNo":"3340150","typeCode":"电网故障停限电","poweroffArea":"110kV方埠变:联中T204线-横政路1号公变后段","poweroffReason":"低压开关故障","powerTime":"2019-06-28 19:15:26","powerComm":"已送电","subsNo":"","lineNo":"","tgNo":"","tgName":null,"infoStatus":"1","orgName":"国网浙江桐庐县供电公司","typeName":null,"infoStatusName":null,"dateDay":null,"orgNos":null,"nowTime":null,"countyName":null,"streetName":null,"villageName":null,"roadName":null,"communityName":null,"tranName":null,"sdLineName":null,"cityCode":"3340150","cityName":"国网浙江桐庐县供电公司","provinceCode":null,"stopTime":"2019-06-28 19:23:03","powerType":"全部","powerOffArea":"110kV方埠变:联中T204线-横政路1号公变后段","powerOffReason":"低压开关故障","powerOffId":"2019062831010328"},{"poweroffId":2019062831010325,"sgpoweroffId":null,"subsName":"","lineName":"10kV大坞T226线","pubTranName":"四联村1号公变,","scope":"浙江省-杭州市-桐庐县-旧县街道(旧县行政村-旧县自然村、九堡里);","startTime":"2019-06-28 16:19:07","stopDate":"2019-06-28 22:19:07","orgNo":"3340150","typeCode":"电网故障停限电","poweroffArea":"35kV西武变:大坞T226线-四联村1号公变后段","poweroffReason":"低压开关故障","powerTime":"2019-06-28 22:03:17","powerComm":"已送电","subsNo":"","lineNo":"","tgNo":"","tgName":null,"infoStatus":"1","orgName":"国网浙江桐庐县供电公司","typeName":null,"infoStatusName":null,"dateDay":null,"orgNos":null,"nowTime":null,"countyName":null,"streetName":null,"villageName":null,"roadName":null,"communityName":null,"tranName":null,"sdLineName":null,"cityCode":"3340150","cityName":"国网浙江桐庐县供电公司","provinceCode":null,"stopTime":"2019-06-28 22:19:07","powerType":"全部","powerOffArea":"35kV西武变:大坞T226线-四联村1号公变后段","powerOffReason":"低压开关故障","powerOffId":"2019062831010325"},{"poweroffId":2019062831010323,"sgpoweroffId":null,"subsName":"","lineName":"10kV航南Y173线","pubTranName":"昌和公寓6号公变,","scope":"浙江省 杭州市 建德市 寿昌镇 昌和公寓一带用户","startTime":"2019-06-28 16:05:00","stopDate":"2019-06-28 17:45:00","orgNo":"3340180","typeCode":"电网故障停限电","poweroffArea":"110kV航头变:航南Y173线-昌和公寓6号公变后段","poweroffReason":"航南Y173线-昌和公寓6号公变 低压配电设备故障 原预计停电结束时间20:00，由于施工现场环境比较复杂，存在不确定因素，因此预估施工时间适当放长了，目前故障已修复，现将停电时间变更至17:45。","powerTime":"2019-06-28 17:13:00","powerComm":"已送电","subsNo":"","lineNo":"","tgNo":"","tgName":null,"infoStatus":"1","orgName":"国网浙江建德市供电有限公司","typeName":null,"infoStatusName":null,"dateDay":null,"orgNos":null,"nowTime":null,"countyName":null,"streetName":null,"villageName":null,"roadName":null,"communityName":null,"tranName":null,"sdLineName":null,"cityCode":"3340180","cityName":"国网浙江建德市供电有限公司","provinceCode":null,"stopTime":"2019-06-28 17:45:00","powerType":"全部","powerOffArea":"110kV航头变:航南Y173线-昌和公寓6号公变后段","powerOffReason":"航南Y173线-昌和公寓6号公变 低压配电设备故障 原预计停电结束时间20:00，由于施工现场环境比较复杂，存在不确定因素，因此预估施工时间适当放长了，目前故障已修复，现将停电时间变更至17:45。","powerOffId":"2019062831010323"},{"poweroffId":2019062831010313,"sgpoweroffId":null,"subsName":"","lineName":"10kV龙居6892线","pubTranName":"亭山(一),绿办（2）,敬老,第三福利院2#,天农,鲍家二,皋管（1）,金色池塘,果园,绿办（3）,皋亭停车1#,亭山(四),山羊三,残疾人联合会2#,皋联,河指,皋电,康复,沿村（2）,1,山庄,天鹤（一）,亭山(二),沿山（4）农,山羊一,沿村一,鲍家三,皋城四变,第三福利院3#,绿办（1）,残疾人联合会1#,山坞,第三福利院5#,皋城二变,家具,沿山（1）农,上丁（一）,丰私,东风港泵1#,山村,皋城三变,山羊二,天鹤泵1#,合创配变,亭山(三),第三福利院4#,皋城五变,第三福利院6#,鲍家四,沿村,达川,丁运,鲍家一,第三福利院1#,管桩,皋城一变,沿村二,","scope":"浙江省-杭州市-江干区-丁桥镇(大塘社区-环丁路,皋城村社区-天鹤路,沿山村社区-沿山村);(杭州达川贸易有限公司,杭州大丰家私有限公司,杭州丁桥运输公司,杭州丁桥镇皋城村经济联社,杭州东港塑粉有限公司,杭州金色池塘生态农业观光有限公司,杭州山羊坞休闲农庄有限公司,杭州市残疾人托管中心,杭州市第三社会福利院,杭州市公共交通集团有限公司,杭州市基督教敬老院,杭州市江干区丁桥皋亭山景区建设管理委员会,杭州市江干区丁桥皋亭山养老院,杭州市市政设施监管中心,杭州天鹤农业科技股份有限公司,杭州天悦舫餐饮有限公司,浙江皋千旅游有限公司);","startTime":"2019-06-28 16:02:46","stopDate":"2019-06-28 18:30:46","orgNo":"3340101","typeCode":"电网故障停限电","poweroffArea":"110kV丁桥变:龙居6892线","poweroffReason":"高压开关跳闸 原预计停电结束时间2019-06-28 22:02:46,由于施工现场环境比较复杂，存在不确定因素，因此预估施工时间适当放长了， 而实际施工进行得比较顺利，因此提前送电了","powerTime":"2019-06-28 18:10:19","powerComm":"已送电","subsNo":"","lineNo":"","tgNo":"","tgName":null,"infoStatus":"1","orgName":"浙江杭州电力客户服务中心","typeName":null,"infoStatusName":null,"dateDay":null,"orgNos":null,"nowTime":null,"countyName":null,"streetName":null,"villageName":null,"roadName":null,"communityName":null,"tranName":null,"sdLineName":null,"cityCode":"3340101","cityName":"浙江杭州电力客户服务中心","provinceCode":null,"stopTime":"2019-06-28 18:30:46","powerType":"全部","powerOffArea":"110kV丁桥变:龙居6892线","powerOffReason":"高压开关跳闸 原预计停电结束时间2019-06-28 22:02:46,由于施工现场环境比较复杂，存在不确定因素，因此预估施工时间适当放长了， 而实际施工进行得比较顺利，因此提前送电了","powerOffId":"2019062831010313"},{"poweroffId":2019062831010307,"sgpoweroffId":null,"subsName":"","lineName":"10kV罗源Y402线","pubTranName":"罗源村罗坞台区,","scope":"浙江省-杭州市-建德市-航头镇 罗源行政村-石岭脚自然村一带用户。","startTime":"2019-06-28 15:45:00","stopDate":"2019-06-28 18:15:00","orgNo":"3340180","typeCode":"电网故障停限电","poweroffArea":"110kV航头变:罗源Y402线-罗源村石岭脚台区后段","poweroffReason":"罗源Y402线 罗源村石岭脚台区 低压配电设备故障 原预计停电结束时间21:48，由于施工现场环境比较复杂，存在不确定因素，因此预估施工时间适当放长了，目前故障已修复，现将停电时间变更至18:15。","powerTime":"2019-06-28 17:44:00","powerComm":"已送电","subsNo":"","lineNo":"","tgNo":"","tgName":null,"infoStatus":"1","orgName":"国网浙江建德市供电有限公司","typeName":null,"infoStatusName":null,"dateDay":null,"orgNos":null,"nowTime":null,"countyName":null,"streetName":null,"villageName":null,"roadName":null,"communityName":null,"tranName":null,"sdLineName":null,"cityCode":"3340180","cityName":"国网浙江建德市供电有限公司","provinceCode":null,"stopTime":"2019-06-28 18:15:00","powerType":"全部","powerOffArea":"110kV航头变:罗源Y402线-罗源村石岭脚台区后段","powerOffReason":"罗源Y402线 罗源村石岭脚台区 低压配电设备故障 原预计停电结束时间21:48，由于施工现场环境比较复杂，存在不确定因素，因此预估施工时间适当放长了，目前故障已修复，现将停电时间变更至18:15。","powerOffId":"2019062831010307"}],"pageModel":{"pageNow":1531,"totalCount":17789,"totalPage":1779,"tableRows":0,"pageCount":10,"beginCount":15300},"isExperi":"1"}