{"message":"","today":"2020-06-16","seleList":[{"poweroffId":2019062831010196,"sgpoweroffId":null,"subsName":"","lineName":"10kV青何D731线","pubTranName":"唐昌村青山3#杨家公变,","scope":"浙江省杭州市富阳区永昌镇唐昌行政村杨家自然村一带","startTime":"2019-07-11 06:00:00","stopDate":"2019-07-11 13:30:00","orgNo":"3340170","typeCode":"计划停电","poweroffArea":"110kV松溪变:青何D731线-唐昌村青山3#杨家公变后段","poweroffReason":"杨家02线、杜家01线更换横担10付、拉线5付、导线拆装利用JKLYJ-70*4*4档、拆除JKLYJ-70*4*1档、架设BS-JKLYJ-4*35*1档、接户线搭接11处（旁站监理）","powerTime":"2019-07-11 13:15:20","powerComm":"已送电","subsNo":"","lineNo":"","tgNo":"","tgName":null,"infoStatus":"1","orgName":"国网浙江杭州市富阳区供电公司","typeName":null,"infoStatusName":null,"dateDay":null,"orgNos":null,"nowTime":null,"countyName":null,"streetName":null,"villageName":null,"roadName":null,"communityName":null,"tranName":null,"sdLineName":null,"cityCode":"3340170","cityName":"国网浙江杭州市富阳区供电公司","provinceCode":null,"stopTime":"2019-07-11 13:30:00","powerType":"全部","powerOffArea":"110kV松溪变:青何D731线-唐昌村青山3#杨家公变后段","powerOffReason":"杨家02线、杜家01线更换横担10付、拉线5付、导线拆装利用JKLYJ-70*4*4档、拆除JKLYJ-70*4*1档、架设BS-JKLYJ-4*35*1档、接户线搭接11处（旁站监理）","powerOffId":"2019062831010196"},{"poweroffId":2019062831010195,"sgpoweroffId":null,"subsName":"","lineName":"10kV昌东D701线","pubTranName":"上山村上山6#大坞口公变,","scope":"浙江省杭州市富阳区新登镇上山行政村大坞口自然村一带","startTime":"2019-07-09 08:30:00","stopDate":"2019-07-09 16:30:00","orgNo":"3340170","typeCode":"计划停电","poweroffArea":"110kV松溪变:昌东D701线91#杆大坞里分线","poweroffReason":"大坞里分线线路、杆上变拆除，高压、低压电缆制作及上杆搭头等工作","powerTime":"2019-07-09 16:18:47","powerComm":"已送电","subsNo":"","lineNo":"","tgNo":"","tgName":null,"infoStatus":"1","orgName":"国网浙江杭州市富阳区供电公司","typeName":null,"infoStatusName":null,"dateDay":null,"orgNos":null,"nowTime":null,"countyName":null,"streetName":null,"villageName":null,"roadName":null,"communityName":null,"tranName":null,"sdLineName":null,"cityCode":"3340170","cityName":"国网浙江杭州市富阳区供电公司","provinceCode":null,"stopTime":"2019-07-09 16:30:00","powerType":"全部","powerOffArea":"110kV松溪变:昌东D701线91#杆大坞里分线","powerOffReason":"大坞里分线线路、杆上变拆除，高压、低压电缆制作及上杆搭头等工作","powerOffId":"2019062831010195"},{"poweroffId":2019062831010194,"sgpoweroffId":null,"subsName":"","lineName":"10kV上林D335线","pubTranName":"洞桥村7#沈家公变,","scope":"浙江省-杭州市-富阳区-洞桥镇(洞桥行政村-洞桥自然村、二茶棵自然村、凌家自然村、马家自然村、沈家西自然村、于家自然村)洞桥行政村沈家自然村一带","startTime":"2019-07-11 06:10:00","stopDate":"2019-07-11 12:20:00","orgNo":"3340170","typeCode":"计划停电","poweroffArea":"110kV万市变上林D335线洞桥村7号沈家公变后段","poweroffReason":"更换照明表箱97只、动力表箱4只等工作。 （旁站监理）","powerTime":"2019-07-11 12:05:17","powerComm":"已送电","subsNo":"","lineNo":"","tgNo":"","tgName":null,"infoStatus":"1","orgName":"国网浙江杭州市富阳区供电公司","typeName":null,"infoStatusName":null,"dateDay":null,"orgNos":null,"nowTime":null,"countyName":null,"streetName":null,"villageName":null,"roadName":null,"communityName":null,"tranName":null,"sdLineName":null,"cityCode":"3340170","cityName":"国网浙江杭州市富阳区供电公司","provinceCode":null,"stopTime":"2019-07-11 12:20:00","powerType":"全部","powerOffArea":"110kV万市变上林D335线洞桥村7号沈家公变后段","powerOffReason":"更换照明表箱97只、动力表箱4只等工作。 （旁站监理）","powerOffId":"2019062831010194"},{"poweroffId":2019062831010192,"sgpoweroffId":null,"subsName":"","lineName":"10kV窈口D381线","pubTranName":"浙江英凯莫实业有限公司,杭州富阳神象木业有限公司,石龙村4#回龙公变,石龙村6#南塘公变,窈口村高高坞农用变,富阳市环境保护监测站,石龙村3#汤家公变,","scope":"浙江省-杭州市-富阳区-湖源乡(石龙行政村-回龙自然村、汤家自然村);(杭州富阳神象木业有限公司,杭州市富阳区环境保护监测站,浙江英凯莫实业有限公司,窈口村);一带","startTime":"2019-07-09 08:30:00","stopDate":"2019-07-09 16:30:00","orgNo":"3340170","typeCode":"计划停电","poweroffArea":"35kV湖源变:窈口D381线-汤家分线1后段","poweroffReason":"窈口D381线139#杆汤家分线38#杆石龙村3#汤家公变增容至400kVA，更换配变辅助杆1支，跌落式开关1组，低压电缆1根等工作。原停电结束时间2019-07-09 15:30:00，因工作复杂变更至2019-07-09 16:30:00","powerTime":"2019-07-09 16:15:41","powerComm":"已送电","subsNo":"","lineNo":"","tgNo":"","tgName":null,"infoStatus":"1","orgName":"国网浙江杭州市富阳区供电公司","typeName":null,"infoStatusName":null,"dateDay":null,"orgNos":null,"nowTime":null,"countyName":null,"streetName":null,"villageName":null,"roadName":null,"communityName":null,"tranName":null,"sdLineName":null,"cityCode":"3340170","cityName":"国网浙江杭州市富阳区供电公司","provinceCode":null,"stopTime":"2019-07-09 16:30:00","powerType":"全部","powerOffArea":"35kV湖源变:窈口D381线-汤家分线1后段","powerOffReason":"窈口D381线139#杆汤家分线38#杆石龙村3#汤家公变增容至400kVA，更换配变辅助杆1支，跌落式开关1组，低压电缆1根等工作。原停电结束时间2019-07-09 15:30:00，因工作复杂变更至2019-07-09 16:30:00","powerOffId":"2019062831010192"},{"poweroffId":2019062831010190,"sgpoweroffId":null,"subsName":"","lineName":"10kV城南D135线","pubTranName":"双溪村1#派出所公变,","scope":"浙江省杭州市富阳区新登镇双溪村派出所一带","startTime":"2019-07-10 08:30:00","stopDate":"2019-07-10 16:30:00","orgNo":"3340170","typeCode":"计划停电","poweroffArea":"110kV新登变:城南D135线-双溪村1#派出所公变","poweroffReason":"双溪村1#派出所公变低压电缆拆除及双溪村新建箱变低压电缆制作、搭头等工作","powerTime":"2019-07-10 16:15:25","powerComm":"已送电","subsNo":"","lineNo":"","tgNo":"","tgName":null,"infoStatus":"1","orgName":"国网浙江杭州市富阳区供电公司","typeName":null,"infoStatusName":null,"dateDay":null,"orgNos":null,"nowTime":null,"countyName":null,"streetName":null,"villageName":null,"roadName":null,"communityName":null,"tranName":null,"sdLineName":null,"cityCode":"3340170","cityName":"国网浙江杭州市富阳区供电公司","provinceCode":null,"stopTime":"2019-07-10 16:30:00","powerType":"全部","powerOffArea":"110kV新登变:城南D135线-双溪村1#派出所公变","powerOffReason":"双溪村1#派出所公变低压电缆拆除及双溪村新建箱变低压电缆制作、搭头等工作","powerOffId":"2019062831010190"},{"poweroffId":2019062831010189,"sgpoweroffId":null,"subsName":"","lineName":"10kV湘岭D714线","pubTranName":"官塘村外官4#下邱家公变,","scope":"浙江省杭州市富阳区新登镇官塘行政村外官下邱家自然村一带","startTime":"2019-07-09 06:00:00","stopDate":"2019-07-09 15:00:00","orgNo":"3340170","typeCode":"计划停电","poweroffArea":"110kV松溪变:湘岭D714线53#杆下邱家分线","poweroffReason":"10KV湘岭D714线53#杆下邱家分线1#杆官塘村外官4#下邱家公变、吊车拔杆12米1支立杆15米1支、拆装杆变一套、更换配电屏拆除进线电缆YJV-4*150一路、敷设进线电缆YJV-4*240一路、拆装出线电缆头三路","powerTime":"2019-07-09 14:45:40","powerComm":"已送电","subsNo":"","lineNo":"","tgNo":"","tgName":null,"infoStatus":"1","orgName":"国网浙江杭州市富阳区供电公司","typeName":null,"infoStatusName":null,"dateDay":null,"orgNos":null,"nowTime":null,"countyName":null,"streetName":null,"villageName":null,"roadName":null,"communityName":null,"tranName":null,"sdLineName":null,"cityCode":"3340170","cityName":"国网浙江杭州市富阳区供电公司","provinceCode":null,"stopTime":"2019-07-09 15:00:00","powerType":"全部","powerOffArea":"110kV松溪变:湘岭D714线53#杆下邱家分线","powerOffReason":"10KV湘岭D714线53#杆下邱家分线1#杆官塘村外官4#下邱家公变、吊车拔杆12米1支立杆15米1支、拆装杆变一套、更换配电屏拆除进线电缆YJV-4*150一路、敷设进线电缆YJV-4*240一路、拆装出线电缆头三路","powerOffId":"2019062831010189"},{"poweroffId":2019062831010185,"sgpoweroffId":null,"subsName":"","lineName":"10kV金秋D947线","pubTranName":"富阳亚龙包装彩印厂1#变,秋丰村8号石塔上2公变,1#变,富阳市富春街道鼎旺家门窗加工部1#变,春华村2#宝山路公变,","scope":"浙江省-杭州市-富阳区-富春街道(春华行政村-宝山路、春华路、春华自然村、潘村路、学士路,秋丰行政村-秋丰自然村);(杭州鼎旺家门窗有限公司,杭州富阳亚龙包装彩印厂,杭州富阳振华电化厂(普通合伙))一带","startTime":"2019-07-09 07:00:00","stopDate":"2019-07-09 13:00:00","orgNo":"3340170","typeCode":"计划停电","poweroffArea":"110kV育才变:金秋D947线","poweroffReason":"青云2019年秋丰村26号孙家弄4公变等10kV配变增容布点工程：秋丰加工厂分线4#杆后段架线两档；春华村2#宝山路公变02线低压电缆改接至新上春华村26#宝山路公变等工作。","powerTime":"2019-07-09 12:46:36","powerComm":"已送电","subsNo":"","lineNo":"","tgNo":"","tgName":null,"infoStatus":"1","orgName":"国网浙江杭州市富阳区供电公司","typeName":null,"infoStatusName":null,"dateDay":null,"orgNos":null,"nowTime":null,"countyName":null,"streetName":null,"villageName":null,"roadName":null,"communityName":null,"tranName":null,"sdLineName":null,"cityCode":"3340170","cityName":"国网浙江杭州市富阳区供电公司","provinceCode":null,"stopTime":"2019-07-09 13:00:00","powerType":"全部","powerOffArea":"110kV育才变:金秋D947线","powerOffReason":"青云2019年秋丰村26号孙家弄4公变等10kV配变增容布点工程：秋丰加工厂分线4#杆后段架线两档；春华村2#宝山路公变02线低压电缆改接至新上春华村26#宝山路公变等工作。","powerOffId":"2019062831010185"},{"poweroffId":2019062831010182,"sgpoweroffId":null,"subsName":"","lineName":"10kV十月D225线","pubTranName":"浙江永耀旅游文化发展有限公司1#变,坑西村筱岭横路头5#公变,筱岭村3#下村公变,","scope":"浙江省-杭州市-富阳区-银湖街道-筱岭自然村一带","startTime":"2019-07-17 09:00:00","stopDate":"2019-07-17 14:30:00","orgNo":"3340170","typeCode":"计划停电","poweroffArea":"110kV银湖变:十月D225线-筱岭一支线后段","poweroffReason":"迎东2019年虎哨杏村3#麻墩公变等10kV配变增容布点工程：筱岭村3#下村公变由100kVA增容至400kVA及低压线路改接等工作，原停电结束时间2019-07-17 12:30:00，因施工复杂变更至2019-07-17 14:30:00","powerTime":"2019-07-17 14:16:38","powerComm":"已送电","subsNo":"","lineNo":"","tgNo":"","tgName":null,"infoStatus":"1","orgName":"国网浙江杭州市富阳区供电公司","typeName":null,"infoStatusName":null,"dateDay":null,"orgNos":null,"nowTime":null,"countyName":null,"streetName":null,"villageName":null,"roadName":null,"communityName":null,"tranName":null,"sdLineName":null,"cityCode":"3340170","cityName":"国网浙江杭州市富阳区供电公司","provinceCode":null,"stopTime":"2019-07-17 14:30:00","powerType":"全部","powerOffArea":"110kV银湖变:十月D225线-筱岭一支线后段","powerOffReason":"迎东2019年虎哨杏村3#麻墩公变等10kV配变增容布点工程：筱岭村3#下村公变由100kVA增容至400kVA及低压线路改接等工作，原停电结束时间2019-07-17 12:30:00，因施工复杂变更至2019-07-17 14:30:00","powerOffId":"2019062831010182"},{"poweroffId":2019062831010181,"sgpoweroffId":null,"subsName":"","lineName":"10kV贤德D333线","pubTranName":"洞桥村11#朱家弄公变,","scope":"浙江省-杭州市-富阳区-洞桥镇(洞桥行政村-徐家自然村、于家自然村、朱家弄自然村)洞桥行政村朱家自然村一带","startTime":"2019-07-10 06:10:00","stopDate":"2019-07-10 12:20:00","orgNo":"3340170","typeCode":"计划停电","poweroffArea":"110kV万市变贤德D333线洞桥村11号朱家弄公变后段","poweroffReason":"朱家弄01线、朱家弄02线更换照明表箱72只、动力表箱9只等工作。 （旁站监理）","powerTime":"2019-07-10 12:05:56","powerComm":"已送电","subsNo":"","lineNo":"","tgNo":"","tgName":null,"infoStatus":"1","orgName":"国网浙江杭州市富阳区供电公司","typeName":null,"infoStatusName":null,"dateDay":null,"orgNos":null,"nowTime":null,"countyName":null,"streetName":null,"villageName":null,"roadName":null,"communityName":null,"tranName":null,"sdLineName":null,"cityCode":"3340170","cityName":"国网浙江杭州市富阳区供电公司","provinceCode":null,"stopTime":"2019-07-10 12:20:00","powerType":"全部","powerOffArea":"110kV万市变贤德D333线洞桥村11号朱家弄公变后段","powerOffReason":"朱家弄01线、朱家弄02线更换照明表箱72只、动力表箱9只等工作。 （旁站监理）","powerOffId":"2019062831010181"},{"poweroffId":2019062831010178,"sgpoweroffId":null,"subsName":"","lineName":"10kV城南D135线","pubTranName":"东门路2#老车站公变,","scope":"浙江省杭州市富阳区新登镇东门路一带","startTime":"2019-07-08 08:45:00","stopDate":"2019-07-08 16:45:00","orgNo":"3340170","typeCode":"计划停电","poweroffArea":"110kV新登变:城南D135线2号开关站羊毛衫厂分线5#杆老车站公变支线","poweroffReason":"东门路2#老车站公变换欧变低压割接等工作","powerTime":"2019-07-08 16:30:42","powerComm":"已送电","subsNo":"","lineNo":"","tgNo":"","tgName":null,"infoStatus":"1","orgName":"国网浙江杭州市富阳区供电公司","typeName":null,"infoStatusName":null,"dateDay":null,"orgNos":null,"nowTime":null,"countyName":null,"streetName":null,"villageName":null,"roadName":null,"communityName":null,"tranName":null,"sdLineName":null,"cityCode":"3340170","cityName":"国网浙江杭州市富阳区供电公司","provinceCode":null,"stopTime":"2019-07-08 16:45:00","powerType":"全部","powerOffArea":"110kV新登变:城南D135线2号开关站羊毛衫厂分线5#杆老车站公变支线","powerOffReason":"东门路2#老车站公变换欧变低压割接等工作","powerOffId":"2019062831010178"}],"pageModel":{"pageNow":1536,"totalCount":17789,"totalPage":1779,"tableRows":0,"pageCount":10,"beginCount":15350},"isExperi":"1"}