{"message":"","today":"2020-06-16","seleList":[{"poweroffId":2019062831010177,"sgpoweroffId":null,"subsName":"","lineName":"10kV常绿D268线","pubTranName":"大章村2#常三槐花潭公变,","scope":"浙江省-杭州市-富阳区-常绿镇(大章村行政村-常三自然村)一带;","startTime":"2019-07-10 06:40:00","stopDate":"2019-07-10 12:10:00","orgNo":"3340170","typeCode":"计划停电","poweroffArea":"35kV盛村变:常绿D268线-大章村2号常三槐花潭公变后段","poweroffReason":"大章村2#常三槐花潭公变吊车立杆、装横担、做拉线、拆旧、线路改接等工作","powerTime":"2019-07-10 11:56:13","powerComm":"已送电","subsNo":"","lineNo":"","tgNo":"","tgName":null,"infoStatus":"1","orgName":"国网浙江杭州市富阳区供电公司","typeName":null,"infoStatusName":null,"dateDay":null,"orgNos":null,"nowTime":null,"countyName":null,"streetName":null,"villageName":null,"roadName":null,"communityName":null,"tranName":null,"sdLineName":null,"cityCode":"3340170","cityName":"国网浙江杭州市富阳区供电公司","provinceCode":null,"stopTime":"2019-07-10 12:10:00","powerType":"全部","powerOffArea":"35kV盛村变:常绿D268线-大章村2号常三槐花潭公变后段","powerOffReason":"大章村2#常三槐花潭公变吊车立杆、装横担、做拉线、拆旧、线路改接等工作","powerOffId":"2019062831010177"},{"poweroffId":2019062831010173,"sgpoweroffId":null,"subsName":"","lineName":"10kV宏福D214线","pubTranName":"虎哨杏村3号麻墩公变,","scope":"浙江省-杭州市-富阳区-银湖街道-新常行政村-虎啸杏自然村一带","startTime":"2019-07-08 09:00:00","stopDate":"2019-07-08 13:45:00","orgNo":"3340170","typeCode":"计划停电","poweroffArea":"110kV银湖变:宏福D214线-虎啸杏支线后段","poweroffReason":"迎东2019年虎哨杏村3#麻墩公变等10kV配变增容布点工程：立杆3基，架线两档，安装400kVA虎哨杏7#麻墩公变一台及低压线路改接等工作 原停电结束时间为2019-07-08 16:30:00，因施工力量加强变更至2019-07-08 13:45:00","powerTime":"2019-07-08 13:22:56","powerComm":"已送电","subsNo":"","lineNo":"","tgNo":"","tgName":null,"infoStatus":"1","orgName":"国网浙江杭州市富阳区供电公司","typeName":null,"infoStatusName":null,"dateDay":null,"orgNos":null,"nowTime":null,"countyName":null,"streetName":null,"villageName":null,"roadName":null,"communityName":null,"tranName":null,"sdLineName":null,"cityCode":"3340170","cityName":"国网浙江杭州市富阳区供电公司","provinceCode":null,"stopTime":"2019-07-08 13:45:00","powerType":"全部","powerOffArea":"110kV银湖变:宏福D214线-虎啸杏支线后段","powerOffReason":"迎东2019年虎哨杏村3#麻墩公变等10kV配变增容布点工程：立杆3基，架线两档，安装400kVA虎哨杏7#麻墩公变一台及低压线路改接等工作 原停电结束时间为2019-07-08 16:30:00，因施工力量加强变更至2019-07-08 13:45:00","powerOffId":"2019062831010173"},{"poweroffId":2019062831010172,"sgpoweroffId":null,"subsName":"","lineName":"10kV西坞D257线","pubTranName":"千家村3#村北公变,","scope":"浙江省-杭州市-富阳区-银湖街道千家村村北一带","startTime":"2019-07-09 12:30:00","stopDate":"2019-07-09 18:30:00","orgNo":"3340170","typeCode":"计划停电","poweroffArea":"35kV新义变:西坞D257线-千家村3#村北公变低压开关后段","poweroffReason":"迎东2019年千家村1#村中公变等低压台区改造工程拆旧，架设1kV-120*4*1档，拆架1kV120*4*1档，安装电缆2根，安装T接箱1只，搭接等工作，原停电结束时间2019-07-09 16:50:00，因工作复杂变更至2019-07-09 18:30:00","powerTime":"2019-07-09 18:15:21","powerComm":"已送电","subsNo":"","lineNo":"","tgNo":"","tgName":null,"infoStatus":"1","orgName":"国网浙江杭州市富阳区供电公司","typeName":null,"infoStatusName":null,"dateDay":null,"orgNos":null,"nowTime":null,"countyName":null,"streetName":null,"villageName":null,"roadName":null,"communityName":null,"tranName":null,"sdLineName":null,"cityCode":"3340170","cityName":"国网浙江杭州市富阳区供电公司","provinceCode":null,"stopTime":"2019-07-09 18:30:00","powerType":"全部","powerOffArea":"35kV新义变:西坞D257线-千家村3#村北公变低压开关后段","powerOffReason":"迎东2019年千家村1#村中公变等低压台区改造工程拆旧，架设1kV-120*4*1档，拆架1kV120*4*1档，安装电缆2根，安装T接箱1只，搭接等工作，原停电结束时间2019-07-09 16:50:00，因工作复杂变更至2019-07-09 18:30:00","powerOffId":"2019062831010172"},{"poweroffId":2019062831010171,"sgpoweroffId":null,"subsName":"","lineName":"10kV陆桥H788线","pubTranName":"万景村和睦村,","scope":"浙江省-杭州市-余杭区-闲林街道万景行政村-金家浜自然村、李军里自然村、万景自然村、吴家角自然村一带","startTime":"2019-06-28 13:56:00","stopDate":"2019-06-28 15:00:00","orgNo":"3340140","typeCode":"电网故障停限电","poweroffArea":"110kV仓前变:陆桥H788线-万景村和睦村后段 原停电结束时间为18点00分，由于施工力量强大，提前完成工作，现变更至15点00分","poweroffReason":"万景村和睦村后段 低压导线断线故障 原停电结束时间为18点00分，由于施工力量强大，提前完成工作，现变更至15点00分","powerTime":"2019-06-28 14:38:00","powerComm":"已送电","subsNo":"","lineNo":"","tgNo":"","tgName":null,"infoStatus":"1","orgName":"国网浙江杭州市余杭区供电有限公司","typeName":null,"infoStatusName":null,"dateDay":null,"orgNos":null,"nowTime":null,"countyName":null,"streetName":null,"villageName":null,"roadName":null,"communityName":null,"tranName":null,"sdLineName":null,"cityCode":"3340140","cityName":"国网浙江杭州市余杭区供电有限公司","provinceCode":null,"stopTime":"2019-06-28 15:00:00","powerType":"全部","powerOffArea":"110kV仓前变:陆桥H788线-万景村和睦村后段 原停电结束时间为18点00分，由于施工力量强大，提前完成工作，现变更至15点00分","powerOffReason":"万景村和睦村后段 低压导线断线故障 原停电结束时间为18点00分，由于施工力量强大，提前完成工作，现变更至15点00分","powerOffId":"2019062831010171"},{"poweroffId":2019062831010170,"sgpoweroffId":null,"subsName":"","lineName":"10kV春建D202线","pubTranName":"横山下1#横山下公变,","scope":"浙江省-杭州市-富阳区-富春街道(青云桥行政村-横山下自然村、冷水塘自然村、铁坞口自然村、油树坞自然村)一带","startTime":"2019-07-08 07:00:00","stopDate":"2019-07-08 16:00:00","orgNo":"3340170","typeCode":"计划停电","poweroffArea":"35kV大青变:春建D202线-横山下1#横山下公变进线熔断器后段","poweroffReason":"青云2019年秋丰村26号孙家弄4公变等10kV配变增容布点工程：横山下一分线电缆及横山下1#横山下公变拆除等工作。","powerTime":"2019-07-08 15:11:58","powerComm":"已送电","subsNo":"","lineNo":"","tgNo":"","tgName":null,"infoStatus":"1","orgName":"国网浙江杭州市富阳区供电公司","typeName":null,"infoStatusName":null,"dateDay":null,"orgNos":null,"nowTime":null,"countyName":null,"streetName":null,"villageName":null,"roadName":null,"communityName":null,"tranName":null,"sdLineName":null,"cityCode":"3340170","cityName":"国网浙江杭州市富阳区供电公司","provinceCode":null,"stopTime":"2019-07-08 16:00:00","powerType":"全部","powerOffArea":"35kV大青变:春建D202线-横山下1#横山下公变进线熔断器后段","powerOffReason":"青云2019年秋丰村26号孙家弄4公变等10kV配变增容布点工程：横山下一分线电缆及横山下1#横山下公变拆除等工作。","powerOffId":"2019062831010170"},{"poweroffId":2019062831010168,"sgpoweroffId":null,"subsName":"","lineName":"10kV咸康D208线","pubTranName":"横山下7号横山下公变,","scope":"浙江省-杭州市-富阳区-富春街道-（青云桥行政村横山下自然村）一带","startTime":"2019-07-08 07:00:00","stopDate":"2019-07-08 16:00:00","orgNo":"3340170","typeCode":"计划停电","poweroffArea":"35kV大青变:咸康D208线-横山下7号横山下公变进线熔断器后段","poweroffReason":"青云2019年秋丰村26号孙家弄4公变等10kV配变增容布点工程：电缆敷设、制作、试验、改接等工作。","powerTime":"2019-07-08 15:11:09","powerComm":"已送电","subsNo":"","lineNo":"","tgNo":"","tgName":null,"infoStatus":"1","orgName":"国网浙江杭州市富阳区供电公司","typeName":null,"infoStatusName":null,"dateDay":null,"orgNos":null,"nowTime":null,"countyName":null,"streetName":null,"villageName":null,"roadName":null,"communityName":null,"tranName":null,"sdLineName":null,"cityCode":"3340170","cityName":"国网浙江杭州市富阳区供电公司","provinceCode":null,"stopTime":"2019-07-08 16:00:00","powerType":"全部","powerOffArea":"35kV大青变:咸康D208线-横山下7号横山下公变进线熔断器后段","powerOffReason":"青云2019年秋丰村26号孙家弄4公变等10kV配变增容布点工程：电缆敷设、制作、试验、改接等工作。","powerOffId":"2019062831010168"},{"poweroffId":2019062831010167,"sgpoweroffId":null,"subsName":"","lineName":"10kV兰庄D604线","pubTranName":"东前村宫前3号庙前畈公变,","scope":"浙江省杭州市富阳区大源镇东前村庙前畈自然村一带","startTime":"2019-07-14 07:00:00","stopDate":"2019-07-14 12:40:00","orgNo":"3340170","typeCode":"计划停电","poweroffArea":"35kV溪东变:兰庄D604线-东前村宫前3号庙前畈公变低压开关后段","poweroffReason":"（低压停电信息）安装横担、拉线、拆装导线、接户线搭接等工作","powerTime":"2019-07-14 12:25:44","powerComm":"已送电","subsNo":"","lineNo":"","tgNo":"","tgName":null,"infoStatus":"1","orgName":"国网浙江杭州市富阳区供电公司","typeName":null,"infoStatusName":null,"dateDay":null,"orgNos":null,"nowTime":null,"countyName":null,"streetName":null,"villageName":null,"roadName":null,"communityName":null,"tranName":null,"sdLineName":null,"cityCode":"3340170","cityName":"国网浙江杭州市富阳区供电公司","provinceCode":null,"stopTime":"2019-07-14 12:40:00","powerType":"全部","powerOffArea":"35kV溪东变:兰庄D604线-东前村宫前3号庙前畈公变低压开关后段","powerOffReason":"（低压停电信息）安装横担、拉线、拆装导线、接户线搭接等工作","powerOffId":"2019062831010167"},{"poweroffId":2019062831010165,"sgpoweroffId":null,"subsName":"","lineName":"10kV大兴D513线","pubTranName":"沧洲村6号前支山公变,杭州英力汽车零部件有限公司,","scope":"浙江省-杭州市-富阳区-常安镇(沧洲行政村-沧洲自然村);(杭州英力汽车零部件有限公司);一带","startTime":"2019-07-08 08:30:00","stopDate":"2019-07-08 15:30:00","orgNo":"3340170","typeCode":"计划停电","poweroffArea":"110kV常安变:大兴D513线-大兴D5138开关后段","poweroffReason":"大兴D513线36#杆六一分线24#杆金山坞支线6#杆烈坞支线9#杆英力支线7#杆前支山支线1#杆沧州村6#前支山公变增容增容至400kVA，更换配变辅助杆1支，跌落式开关1组，低压电缆1根等工作","powerTime":"2019-07-08 15:15:42","powerComm":"已送电","subsNo":"","lineNo":"","tgNo":"","tgName":null,"infoStatus":"1","orgName":"国网浙江杭州市富阳区供电公司","typeName":null,"infoStatusName":null,"dateDay":null,"orgNos":null,"nowTime":null,"countyName":null,"streetName":null,"villageName":null,"roadName":null,"communityName":null,"tranName":null,"sdLineName":null,"cityCode":"3340170","cityName":"国网浙江杭州市富阳区供电公司","provinceCode":null,"stopTime":"2019-07-08 15:30:00","powerType":"全部","powerOffArea":"110kV常安变:大兴D513线-大兴D5138开关后段","powerOffReason":"大兴D513线36#杆六一分线24#杆金山坞支线6#杆烈坞支线9#杆英力支线7#杆前支山支线1#杆沧州村6#前支山公变增容增容至400kVA，更换配变辅助杆1支，跌落式开关1组，低压电缆1根等工作","powerOffId":"2019062831010165"},{"poweroffId":2019062831010164,"sgpoweroffId":null,"subsName":"","lineName":"10kV天开C609线","pubTranName":"都市阳光4#公变,","scope":"浙江省-杭州市-萧山区-经济技术开发区(市北社区-建设二路、市心北路)等一带","startTime":"2019-06-28 13:49:56","stopDate":"2019-06-28 15:22:43","orgNo":"3340130","typeCode":"电网故障停限电","poweroffArea":"35kV市北变:天开C609线-都市阳光4#公变台区低压开关","poweroffReason":"低压漏电保护器短路故障，原停电结束时间：17:00，变更停电结束时间：15:22，由于增派人员，抢修工作提前完成，故需要提前送电。","powerTime":"2019-06-28 14:25:19","powerComm":"已送电","subsNo":"","lineNo":"","tgNo":"","tgName":null,"infoStatus":"1","orgName":"国网浙江杭州市萧山区供电有限公司","typeName":null,"infoStatusName":null,"dateDay":null,"orgNos":null,"nowTime":null,"countyName":null,"streetName":null,"villageName":null,"roadName":null,"communityName":null,"tranName":null,"sdLineName":null,"cityCode":"3340130","cityName":"国网浙江杭州市萧山区供电有限公司","provinceCode":null,"stopTime":"2019-06-28 15:22:43","powerType":"全部","powerOffArea":"35kV市北变:天开C609线-都市阳光4#公变台区低压开关","powerOffReason":"低压漏电保护器短路故障，原停电结束时间：17:00，变更停电结束时间：15:22，由于增派人员，抢修工作提前完成，故需要提前送电。","powerOffId":"2019062831010164"},{"poweroffId":2019062831010153,"sgpoweroffId":null,"subsName":"","lineName":"10kV大坝Y129线","pubTranName":"梅城集镇东湖公寓公变,","scope":"浙江省-杭州市-建德市 梅城镇 东湖公寓一带用户。","startTime":"2019-06-28 13:25:00","stopDate":"2019-06-28 14:15:00","orgNo":"3340180","typeCode":"电网故障停限电","poweroffArea":"110kV梅城变:大坝Y129线-梅城集镇东湖公寓公变后段","poweroffReason":"大坝Y129线-梅城集镇东湖公寓公变 低压配电设备故障 原预计停电结束时间15:00，由于施工现场环境比较复杂，存在不确定因素，因此预估施工时间适当放长了，目前故障已修复，现将停电时间变更至14:15。","powerTime":"2019-06-28 13:59:00","powerComm":"已送电（现场未涉及多户无电，实际为用户柴间表后线路故障）","subsNo":"","lineNo":"","tgNo":"","tgName":null,"infoStatus":"1","orgName":"国网浙江建德市供电有限公司","typeName":null,"infoStatusName":null,"dateDay":null,"orgNos":null,"nowTime":null,"countyName":null,"streetName":null,"villageName":null,"roadName":null,"communityName":null,"tranName":null,"sdLineName":null,"cityCode":"3340180","cityName":"国网浙江建德市供电有限公司","provinceCode":null,"stopTime":"2019-06-28 14:15:00","powerType":"全部","powerOffArea":"110kV梅城变:大坝Y129线-梅城集镇东湖公寓公变后段","powerOffReason":"大坝Y129线-梅城集镇东湖公寓公变 低压配电设备故障 原预计停电结束时间15:00，由于施工现场环境比较复杂，存在不确定因素，因此预估施工时间适当放长了，目前故障已修复，现将停电时间变更至14:15。","powerOffId":"2019062831010153"}],"pageModel":{"pageNow":1537,"totalCount":17789,"totalPage":1779,"tableRows":0,"pageCount":10,"beginCount":15360},"isExperi":"1"}