{"message":"","today":"2020-06-16","seleList":[{"poweroffId":2019062831010145,"sgpoweroffId":null,"subsName":"","lineName":"10kV沧滩Y102线","pubTranName":"上沧102001公变,","scope":"浙江省-杭州市-建德市-新安江街道 罗桐社区-新电路一带用户","startTime":"2019-06-28 12:35:00","stopDate":"2019-06-28 14:30:00","orgNo":"3340180","typeCode":"电网故障停限电","poweroffArea":"110kV新安江变:沧滩Y102线-上沧102001公变后段","poweroffReason":"沧滩Y102线-上沧102001公变 低压配电设备故障","powerTime":"2019-06-28 13:42:00","powerComm":"已送电","subsNo":"","lineNo":"","tgNo":"","tgName":null,"infoStatus":"1","orgName":"国网浙江建德市供电有限公司","typeName":null,"infoStatusName":null,"dateDay":null,"orgNos":null,"nowTime":null,"countyName":null,"streetName":null,"villageName":null,"roadName":null,"communityName":null,"tranName":null,"sdLineName":null,"cityCode":"3340180","cityName":"国网浙江建德市供电有限公司","provinceCode":null,"stopTime":"2019-06-28 14:30:00","powerType":"全部","powerOffArea":"110kV新安江变:沧滩Y102线-上沧102001公变后段","powerOffReason":"沧滩Y102线-上沧102001公变 低压配电设备故障","powerOffId":"2019062831010145"},{"poweroffId":2019062831010133,"sgpoweroffId":null,"subsName":"","lineName":"10kV北郊G107线","pubTranName":"丘山大街1号公变,","scope":"浙江省-杭州市-余杭区-临平街道工农新村社区-龙王塘路、邱山大街一带","startTime":"2019-06-28 12:05:00","stopDate":"2019-06-28 14:30:00","orgNo":"3340140","typeCode":"电网故障停限电","poweroffArea":"110kV临平变:北郊G107线-丘山大街1号公变后段","poweroffReason":"丘山大街1号公变后段 电缆断线故障","powerTime":"2019-06-28 13:48:00","powerComm":"已送电","subsNo":"","lineNo":"","tgNo":"","tgName":null,"infoStatus":"1","orgName":"国网浙江杭州市余杭区供电有限公司","typeName":null,"infoStatusName":null,"dateDay":null,"orgNos":null,"nowTime":null,"countyName":null,"streetName":null,"villageName":null,"roadName":null,"communityName":null,"tranName":null,"sdLineName":null,"cityCode":"3340140","cityName":"国网浙江杭州市余杭区供电有限公司","provinceCode":null,"stopTime":"2019-06-28 14:30:00","powerType":"全部","powerOffArea":"110kV临平变:北郊G107线-丘山大街1号公变后段","powerOffReason":"丘山大街1号公变后段 电缆断线故障","powerOffId":"2019062831010133"},{"poweroffId":2019062831010124,"sgpoweroffId":null,"subsName":"","lineName":"10kV大寨8144线","pubTranName":"大寨(17),","scope":"浙江省杭州市江干区闸弄口街道闸弄口社区闸弄口新苑、永济桥、永清路、德胜东村、闸弄口新苑、闸弄口新村一带","startTime":"2019-06-28 11:14:28","stopDate":"2019-06-28 12:30:43","orgNo":"3340101","typeCode":"电网故障停限电","poweroffArea":"220kV运河变:大寨8144线-大寨(17)后段","poweroffReason":"高压开关跳闸 原预计停电结束时间2019-06-28 17:14:28,由于施工现场环境比较复杂，存在不确定因素，因此预估施工时间适当放长了，而实际施工进行得比较顺利，因此提前送电了","powerTime":"2019-06-28 11:44:33","powerComm":"已送电","subsNo":"","lineNo":"","tgNo":"","tgName":null,"infoStatus":"1","orgName":"浙江杭州电力客户服务中心","typeName":null,"infoStatusName":null,"dateDay":null,"orgNos":null,"nowTime":null,"countyName":null,"streetName":null,"villageName":null,"roadName":null,"communityName":null,"tranName":null,"sdLineName":null,"cityCode":"3340101","cityName":"浙江杭州电力客户服务中心","provinceCode":null,"stopTime":"2019-06-28 12:30:43","powerType":"全部","powerOffArea":"220kV运河变:大寨8144线-大寨(17)后段","powerOffReason":"高压开关跳闸 原预计停电结束时间2019-06-28 17:14:28,由于施工现场环境比较复杂，存在不确定因素，因此预估施工时间适当放长了，而实际施工进行得比较顺利，因此提前送电了","powerOffId":"2019062831010124"},{"poweroffId":2019062831010113,"sgpoweroffId":null,"subsName":"","lineName":"10kV梧村T244线","pubTranName":"石合村1号公变,","scope":"浙江省-杭州市-桐庐县-江南镇(石阜行政村-石合自然村、石联自然村);","startTime":"2019-06-28 10:24:58","stopDate":"2019-06-28 12:00:44","orgNo":"3340150","typeCode":"电网故障停限电","poweroffArea":"110kV石阜变:梧村T244线-石合村1号公变后段","poweroffReason":"低压开关故障处理","powerTime":"2019-06-28 11:50:14","powerComm":"已送电","subsNo":"","lineNo":"","tgNo":"","tgName":null,"infoStatus":"1","orgName":"国网浙江桐庐县供电公司","typeName":null,"infoStatusName":null,"dateDay":null,"orgNos":null,"nowTime":null,"countyName":null,"streetName":null,"villageName":null,"roadName":null,"communityName":null,"tranName":null,"sdLineName":null,"cityCode":"3340150","cityName":"国网浙江桐庐县供电公司","provinceCode":null,"stopTime":"2019-06-28 12:00:44","powerType":"全部","powerOffArea":"110kV石阜变:梧村T244线-石合村1号公变后段","powerOffReason":"低压开关故障处理","powerOffId":"2019062831010113"},{"poweroffId":2019062831010086,"sgpoweroffId":null,"subsName":"","lineName":"10kV陆桥H788线","pubTranName":"万景村和睦村,","scope":"浙江省-杭州市-余杭区-闲林街道万景行政村-金家浜自然村、李军里自然村、万景自然村、吴家角自然村一带","startTime":"2019-06-28 08:33:25","stopDate":"2019-06-28 14:00:00","orgNo":"3340140","typeCode":"电网故障停限电","poweroffArea":"110kV仓前变:陆桥H788线-万景村和睦村后段","poweroffReason":"万景村和睦村后段 架空线断线","powerTime":"2019-06-28 13:58:00","powerComm":"已送电","subsNo":"","lineNo":"","tgNo":"","tgName":null,"infoStatus":"1","orgName":"国网浙江杭州市余杭区供电有限公司","typeName":null,"infoStatusName":null,"dateDay":null,"orgNos":null,"nowTime":null,"countyName":null,"streetName":null,"villageName":null,"roadName":null,"communityName":null,"tranName":null,"sdLineName":null,"cityCode":"3340140","cityName":"国网浙江杭州市余杭区供电有限公司","provinceCode":null,"stopTime":"2019-06-28 14:00:00","powerType":"全部","powerOffArea":"110kV仓前变:陆桥H788线-万景村和睦村后段","powerOffReason":"万景村和睦村后段 架空线断线","powerOffId":"2019062831010086"},{"poweroffId":2019062831010074,"sgpoweroffId":null,"subsName":"","lineName":"10kV谢家D746线","pubTranName":"蒋家村5号泉井桥公变,","scope":"浙江省-杭州市-富阳区-鹿山街道(蒋家行政村-蒋家自然村、金家路、中心路);","startTime":"2019-07-07 07:30:00","stopDate":"2019-07-07 11:00:00","orgNo":"3340170","typeCode":"计划停电","poweroffArea":"110kV陆家变:谢家D746线-蒋家村5号泉井桥公变后段","poweroffReason":"青云2019年新新村3#毛家台公变等低压台区改造工程架设BS-35*4*1档，拆架1kV120*4*2档，更换落户线5处，搭接等工作","powerTime":"2019-07-07 10:45:20","powerComm":"已送电","subsNo":"","lineNo":"","tgNo":"","tgName":null,"infoStatus":"1","orgName":"国网浙江杭州市富阳区供电公司","typeName":null,"infoStatusName":null,"dateDay":null,"orgNos":null,"nowTime":null,"countyName":null,"streetName":null,"villageName":null,"roadName":null,"communityName":null,"tranName":null,"sdLineName":null,"cityCode":"3340170","cityName":"国网浙江杭州市富阳区供电公司","provinceCode":null,"stopTime":"2019-07-07 11:00:00","powerType":"全部","powerOffArea":"110kV陆家变:谢家D746线-蒋家村5号泉井桥公变后段","powerOffReason":"青云2019年新新村3#毛家台公变等低压台区改造工程架设BS-35*4*1档，拆架1kV120*4*2档，更换落户线5处，搭接等工作","powerOffId":"2019062831010074"},{"poweroffId":2019062831010073,"sgpoweroffId":null,"subsName":"","lineName":"10kV谢家D746线","pubTranName":"蒋家村15号泉井桥新区公变,","scope":"浙江省-杭州市-富阳区-鹿山街道(蒋家行政村-工农路、蒋家自然村、料塘路、热湖塘自然村、杨家井自然村);","startTime":"2019-07-07 12:20:00","stopDate":"2019-07-07 16:50:00","orgNo":"3340170","typeCode":"计划停电","poweroffArea":"110kV陆家变:谢家D746线-蒋家村15号泉井桥新区公变后段","poweroffReason":"青云2019年新新村3#毛家台公变等低压台区改造工程架设BS-35*4*1档，拆架1kV120*4*2档，更换落户线5处，搭接等工作","powerTime":"2019-07-07 16:35:52","powerComm":"已送电","subsNo":"","lineNo":"","tgNo":"","tgName":null,"infoStatus":"1","orgName":"国网浙江杭州市富阳区供电公司","typeName":null,"infoStatusName":null,"dateDay":null,"orgNos":null,"nowTime":null,"countyName":null,"streetName":null,"villageName":null,"roadName":null,"communityName":null,"tranName":null,"sdLineName":null,"cityCode":"3340170","cityName":"国网浙江杭州市富阳区供电公司","provinceCode":null,"stopTime":"2019-07-07 16:50:00","powerType":"全部","powerOffArea":"110kV陆家变:谢家D746线-蒋家村15号泉井桥新区公变后段","powerOffReason":"青云2019年新新村3#毛家台公变等低压台区改造工程架设BS-35*4*1档，拆架1kV120*4*2档，更换落户线5处，搭接等工作","powerOffId":"2019062831010073"},{"poweroffId":2019062831010072,"sgpoweroffId":null,"subsName":"","lineName":"10kV北坞C179线","pubTranName":"云峰村1#变,寺坞岭1#公变,云峰村6#变,云峰村8#变,云峰村3#变,","scope":"浙江省-杭州市-萧山区-义桥镇(云峰行政村-南坞自然村、邵家自然村、俞家自然村)、寺坞岭村等一带","startTime":"2019-06-28 08:52:30","stopDate":"2019-06-28 18:00:00","orgNo":"3340130","typeCode":"电网故障停限电","poweroffArea":"110kV许贤变:北坞C179线-北坞C179线云峰分线开关后段","poweroffReason":"高压架空线路断线故障 原停电结束时间：2019-06-28 16:30:，变更停电结束时间：2019-06-28 18:00，由于抢修现场抢修难度大，故需要延迟送电。","powerTime":"2019-06-28 17:36:52","powerComm":"已送电","subsNo":"","lineNo":"","tgNo":"","tgName":null,"infoStatus":"1","orgName":"国网浙江杭州市萧山区供电有限公司","typeName":null,"infoStatusName":null,"dateDay":null,"orgNos":null,"nowTime":null,"countyName":null,"streetName":null,"villageName":null,"roadName":null,"communityName":null,"tranName":null,"sdLineName":null,"cityCode":"3340130","cityName":"国网浙江杭州市萧山区供电有限公司","provinceCode":null,"stopTime":"2019-06-28 18:00:00","powerType":"全部","powerOffArea":"110kV许贤变:北坞C179线-北坞C179线云峰分线开关后段","powerOffReason":"高压架空线路断线故障 原停电结束时间：2019-06-28 16:30:，变更停电结束时间：2019-06-28 18:00，由于抢修现场抢修难度大，故需要延迟送电。","powerOffId":"2019062831010072"},{"poweroffId":2019062831010055,"sgpoweroffId":null,"subsName":"","lineName":"10kV迪青A396线","pubTranName":"顺坝村1#变,","scope":"浙江省-杭州市-萧山区-宁围镇-宁围街道(顺坝行政村-顺坝自然村)等一带","startTime":"2019-06-28 08:31:40","stopDate":"2019-06-28 12:51:42","orgNo":"3340130","typeCode":"电网故障停限电","poweroffArea":"110kV顺坝变:迪青A396线-顺坝村1#变台区低压开关","poweroffReason":"低压漏电保护器短路故障，原停电结束时间：17:46，变更停电结束时间：12:51，由于增派人员，抢修工作提前完成，故需要提前送电。","powerTime":"2019-06-28 11:53:17","powerComm":"已送电","subsNo":"","lineNo":"","tgNo":"","tgName":null,"infoStatus":"1","orgName":"国网浙江杭州市萧山区供电有限公司","typeName":null,"infoStatusName":null,"dateDay":null,"orgNos":null,"nowTime":null,"countyName":null,"streetName":null,"villageName":null,"roadName":null,"communityName":null,"tranName":null,"sdLineName":null,"cityCode":"3340130","cityName":"国网浙江杭州市萧山区供电有限公司","provinceCode":null,"stopTime":"2019-06-28 12:51:42","powerType":"全部","powerOffArea":"110kV顺坝变:迪青A396线-顺坝村1#变台区低压开关","powerOffReason":"低压漏电保护器短路故障，原停电结束时间：17:46，变更停电结束时间：12:51，由于增派人员，抢修工作提前完成，故需要提前送电。","powerOffId":"2019062831010055"},{"poweroffId":2019062831010047,"sgpoweroffId":null,"subsName":"","lineName":"10kV国水A397线","pubTranName":"杭州萧山城投资产经营开发有限公司1#,杭州萧山城市建设投资集团有限公司,富易达市政园林,京奥农业,仁盈堂药业,弹簧垫圈,宁围资产经营,","scope":"浙江省-杭州市-萧山区-宁围镇、宁围街道、钱江农场、钱农东路、钱江社区、西兴顺坝围垦公司、星民垦殖厂、亚马逊置业公司、京奥农业公司、宁围资产经营公司、污水处理厂、仁盈堂药业公司、弹簧垫圈公司、富易达市政公司、展业海绵制品公司、高辉实业公司、新农都物流公司、西兴街道星明村经济合作社公司、天恩环境公司、金奥农业公司、红垦农场、水利博物馆公司、中水博度假酒店公司、杭州宝盛水博园酒店公司、明宇五金厂、潮洪建材公司、萧滨机械厂、考民养殖厂、四方渔村公司、浙江省杭州市萧山区宁围镇盛大村中国水利博物馆等一带","startTime":"2019-06-28 08:17:23","stopDate":"2019-06-28 11:04:06","orgNo":"3340130","typeCode":"电网故障停限电","poweroffArea":"110kV顺坝变:国水A397线-国水A397线京奥分线开关后段","poweroffReason":"高压柱上断路器短路故障，原停电结束时间：12:19，变更停电结束时间：11:04，由于增派人员，抢修工作提前完成，故需要提前送电。","powerTime":"2019-06-28 10:08:04","powerComm":"已送电","subsNo":"","lineNo":"","tgNo":"","tgName":null,"infoStatus":"1","orgName":"国网浙江杭州市萧山区供电有限公司","typeName":null,"infoStatusName":null,"dateDay":null,"orgNos":null,"nowTime":null,"countyName":null,"streetName":null,"villageName":null,"roadName":null,"communityName":null,"tranName":null,"sdLineName":null,"cityCode":"3340130","cityName":"国网浙江杭州市萧山区供电有限公司","provinceCode":null,"stopTime":"2019-06-28 11:04:06","powerType":"全部","powerOffArea":"110kV顺坝变:国水A397线-国水A397线京奥分线开关后段","powerOffReason":"高压柱上断路器短路故障，原停电结束时间：12:19，变更停电结束时间：11:04，由于增派人员，抢修工作提前完成，故需要提前送电。","powerOffId":"2019062831010047"}],"pageModel":{"pageNow":1538,"totalCount":17789,"totalPage":1779,"tableRows":0,"pageCount":10,"beginCount":15370},"isExperi":"1"}