{"message":"","today":"2020-06-16","seleList":[{"poweroffId":2019062731020064,"sgpoweroffId":null,"subsName":"","lineName":"10kV渌渚D133线","pubTranName":"","scope":"浙江省-杭州市-富阳区-渌渚镇-六渚行政村(埠头自然村,溪东坞自然村),渌渚镇-百前行政村(下塘家自然村,前坞自然村,马路边自然村,百丈自然村,上塘坞自然村,沃口自然村);新登镇-富阳市新登镇军勇塑料粒子厂,渌渚镇(中国电建集团华东勘测设计研究院有限公司,杭州富阳蓝祥建材有限公司)","startTime":"2019-06-27 18:19:00","stopDate":"2019-06-27 19:00:00","orgNo":"3340170","typeCode":"电网故障停限电","poweroffArea":"110kV新登变:渌渚D133线渌渚D133D开关后段","poweroffReason":"高压开关跳闸，该计划原停电结束时间为2019-06-27 20:19:00因抢修力量加强变更至2019-06-27 19:00:00","powerTime":"2019-06-27 18:52:15","powerComm":"已送电","subsNo":"","lineNo":"","tgNo":"","tgName":null,"infoStatus":"1","orgName":"国网浙江杭州市富阳区供电公司","typeName":null,"infoStatusName":null,"dateDay":null,"orgNos":null,"nowTime":null,"countyName":null,"streetName":null,"villageName":null,"roadName":null,"communityName":null,"tranName":null,"sdLineName":null,"cityCode":"3340170","cityName":"国网浙江杭州市富阳区供电公司","provinceCode":null,"stopTime":"2019-06-27 19:00:00","powerType":"全部","powerOffArea":"110kV新登变:渌渚D133线渌渚D133D开关后段","powerOffReason":"高压开关跳闸，该计划原停电结束时间为2019-06-27 20:19:00因抢修力量加强变更至2019-06-27 19:00:00","powerOffId":"2019062731020064"},{"poweroffId":2019062731020054,"sgpoweroffId":null,"subsName":"","lineName":"10kV九镇641线","pubTranName":"宣家(二)区,","scope":"浙江省杭州市江干区宣家埠村2区部分用户、东污水泵站、九龙寺","startTime":"2019-07-06 09:30:00","stopDate":"2019-07-06 14:00:00","orgNo":"3340101","typeCode":"计划停电","poweroffArea":"110kV九堡变:九镇641线-宣家(二)区低压","poweroffReason":"杭州市区下沙区块11千伏公变增容布点及低压改造项目四期 原停电结束时间17:30、变更停电结束时间14:00原因由于施工现场环境比较复杂，存在不确定因素，因此 预估施工时间适当放长了，而实际施工进行得比较顺利，因此该工作提前结束。","powerTime":"2019-07-06 13:15:01","powerComm":"已送电","subsNo":"","lineNo":"","tgNo":"","tgName":null,"infoStatus":"1","orgName":"浙江杭州电力客户服务中心","typeName":null,"infoStatusName":null,"dateDay":null,"orgNos":null,"nowTime":null,"countyName":null,"streetName":null,"villageName":null,"roadName":null,"communityName":null,"tranName":null,"sdLineName":null,"cityCode":"3340101","cityName":"浙江杭州电力客户服务中心","provinceCode":null,"stopTime":"2019-07-06 14:00:00","powerType":"全部","powerOffArea":"110kV九堡变:九镇641线-宣家(二)区低压","powerOffReason":"杭州市区下沙区块11千伏公变增容布点及低压改造项目四期 原停电结束时间17:30、变更停电结束时间14:00原因由于施工现场环境比较复杂，存在不确定因素，因此 预估施工时间适当放长了，而实际施工进行得比较顺利，因此该工作提前结束。","powerOffId":"2019062731020054"},{"poweroffId":2019062731020053,"sgpoweroffId":null,"subsName":"","lineName":"10kV八堡646线","pubTranName":"牛田(5)农,东都(2),东都(1),","scope":"浙江省-杭州市-江干区-九堡镇-东都公寓小区用户、牛田社区部分用户","startTime":"2019-07-05 09:30:00","stopDate":"2019-07-05 13:00:00","orgNo":"3340101","typeCode":"计划停电","poweroffArea":"110kV九堡变:八堡646线-牛田(5)农后段;八堡646线首端，东都(2)，东都(1)之间","poweroffReason":"原停电结束时间13:30，变更停电结束时间13:00，原因由于施工现场比较复杂，存在不确定因素，因此预估施工时间适当放长了，而实际施工进行比较顺利，因此该工作提前结束。","powerTime":"2019-07-05 12:14:59","powerComm":"已送电","subsNo":"","lineNo":"","tgNo":"","tgName":null,"infoStatus":"1","orgName":"浙江杭州电力客户服务中心","typeName":null,"infoStatusName":null,"dateDay":null,"orgNos":null,"nowTime":null,"countyName":null,"streetName":null,"villageName":null,"roadName":null,"communityName":null,"tranName":null,"sdLineName":null,"cityCode":"3340101","cityName":"浙江杭州电力客户服务中心","provinceCode":null,"stopTime":"2019-07-05 13:00:00","powerType":"全部","powerOffArea":"110kV九堡变:八堡646线-牛田(5)农后段;八堡646线首端，东都(2)，东都(1)之间","powerOffReason":"原停电结束时间13:30，变更停电结束时间13:00，原因由于施工现场比较复杂，存在不确定因素，因此预估施工时间适当放长了，而实际施工进行比较顺利，因此该工作提前结束。","powerOffId":"2019062731020053"},{"poweroffId":2019062731020052,"sgpoweroffId":null,"subsName":"","lineName":"10kV建村967线","pubTranName":"杨郡五变,","scope":"浙江省-杭州市-江干区(彭埠街道-建和社区-德胜东路,彭埠镇-新风社区-创新路)杨柳郡园二区11幢部分用户、11幢楼东6-东4单元公共负荷主备供、东3-东1单元公共负荷主备供、汽车慢充","startTime":"2019-07-05 09:40:00","stopDate":"2019-07-05 12:30:00","orgNo":"3340101","typeCode":"计划停电","poweroffArea":"110kV彭埠变:建村967线-杨郡五变后段","poweroffReason":"杨郡（五）变线损治理，停电消缺工作","powerTime":"2019-07-05 12:04:59","powerComm":"已送电","subsNo":"","lineNo":"","tgNo":"","tgName":null,"infoStatus":"1","orgName":"浙江杭州电力客户服务中心","typeName":null,"infoStatusName":null,"dateDay":null,"orgNos":null,"nowTime":null,"countyName":null,"streetName":null,"villageName":null,"roadName":null,"communityName":null,"tranName":null,"sdLineName":null,"cityCode":"3340101","cityName":"浙江杭州电力客户服务中心","provinceCode":null,"stopTime":"2019-07-05 12:30:00","powerType":"全部","powerOffArea":"110kV彭埠变:建村967线-杨郡五变后段","powerOffReason":"杨郡（五）变线损治理，停电消缺工作","powerOffId":"2019062731020052"},{"poweroffId":2019062731020047,"sgpoweroffId":null,"subsName":"","lineName":"10kV横村9222线","pubTranName":"横塘(6-1)农,","scope":"浙江省杭州市江干区横塘一区43号附近一带，二区30号附近一带","startTime":"2019-07-23 09:30:00","stopDate":"2019-07-23 11:00:00","orgNo":"3340101","typeCode":"计划停电","poweroffArea":"110kV东风变:横村9222线-横塘(6-1)农后段","poweroffReason":"横塘(6-1)农加装接线盒更换终端.原停电结束时间12:30、变更停电结束时间11:00原因由于施工现场环境比较复杂，存在不确定因素，因此预估施工时间适当放长了，而实际施工进行得比较顺利，因此该工作提前结束。","powerTime":"2019-07-23 10:22:59","powerComm":"已送电","subsNo":"","lineNo":"","tgNo":"","tgName":null,"infoStatus":"1","orgName":"浙江杭州电力客户服务中心","typeName":null,"infoStatusName":null,"dateDay":null,"orgNos":null,"nowTime":null,"countyName":null,"streetName":null,"villageName":null,"roadName":null,"communityName":null,"tranName":null,"sdLineName":null,"cityCode":"3340101","cityName":"浙江杭州电力客户服务中心","provinceCode":null,"stopTime":"2019-07-23 11:00:00","powerType":"全部","powerOffArea":"110kV东风变:横村9222线-横塘(6-1)农后段","powerOffReason":"横塘(6-1)农加装接线盒更换终端.原停电结束时间12:30、变更停电结束时间11:00原因由于施工现场环境比较复杂，存在不确定因素，因此预估施工时间适当放长了，而实际施工进行得比较顺利，因此该工作提前结束。","powerOffId":"2019062731020047"},{"poweroffId":2019062731020045,"sgpoweroffId":null,"subsName":"","lineName":"10kV杨家8947线","pubTranName":"景会三,","scope":"浙江省杭州市下城区胜景路万科新都会4幢、胜南支路220-228号附近一带","startTime":"2019-07-10 09:30:00","stopDate":"2019-07-10 12:30:00","orgNo":"3340101","typeCode":"计划停电","poweroffArea":"景会三站Ⅰ段2#间隔景会三配变景会三变","poweroffReason":"景会三变整改二次回路","powerTime":"2019-07-10 11:32:59","powerComm":"已送电","subsNo":"","lineNo":"","tgNo":"","tgName":null,"infoStatus":"1","orgName":"浙江杭州电力客户服务中心","typeName":null,"infoStatusName":null,"dateDay":null,"orgNos":null,"nowTime":null,"countyName":null,"streetName":null,"villageName":null,"roadName":null,"communityName":null,"tranName":null,"sdLineName":null,"cityCode":"3340101","cityName":"浙江杭州电力客户服务中心","provinceCode":null,"stopTime":"2019-07-10 12:30:00","powerType":"全部","powerOffArea":"景会三站Ⅰ段2#间隔景会三配变景会三变","powerOffReason":"景会三变整改二次回路","powerOffId":"2019062731020045"},{"poweroffId":2019062731020044,"sgpoweroffId":null,"subsName":"","lineName":"10kV轻汽8456线","pubTranName":"皋南(4)农,","scope":"浙江省杭州市拱墅区皋亭村宋家村40号附近一带，浙江信联钢铁有限公司","startTime":"2019-07-22 09:30:00","stopDate":"2019-07-22 18:30:00","orgNo":"3340101","typeCode":"计划停电","poweroffArea":"蔡东站夹板84561线、4#间隔，夹板84561线18#杆，武警单侧开关","poweroffReason":"上塘单元FG04-R22-01地块居住区配套公共服务设施项目10kV夹板84561线电力迁改工程.计划停电结束时间17:30，因工作量大原因导致延时送电，预计送电时间:2019-07-22 18:30","powerTime":"2019-07-22 17:56:32","powerComm":"已送电","subsNo":"","lineNo":"","tgNo":"","tgName":null,"infoStatus":"1","orgName":"浙江杭州电力客户服务中心","typeName":null,"infoStatusName":null,"dateDay":null,"orgNos":null,"nowTime":null,"countyName":null,"streetName":null,"villageName":null,"roadName":null,"communityName":null,"tranName":null,"sdLineName":null,"cityCode":"3340101","cityName":"浙江杭州电力客户服务中心","provinceCode":null,"stopTime":"2019-07-22 18:30:00","powerType":"全部","powerOffArea":"蔡东站夹板84561线、4#间隔，夹板84561线18#杆，武警单侧开关","powerOffReason":"上塘单元FG04-R22-01地块居住区配套公共服务设施项目10kV夹板84561线电力迁改工程.计划停电结束时间17:30，因工作量大原因导致延时送电，预计送电时间:2019-07-22 18:30","powerOffId":"2019062731020044"},{"poweroffId":2019062731020043,"sgpoweroffId":null,"subsName":"","lineName":"10kV五塘8950线","pubTranName":"打铁关,","scope":"浙江省杭州市下城区焦家一弄1-3幢、市政、油储附近一带,杭州市城市土地发展有限公司、出版大厦、杭州市地铁集团有限责任公司","startTime":"2019-07-12 09:30:00","stopDate":"2019-07-12 14:30:00","orgNo":"3340101","typeCode":"计划停电","poweroffArea":"金属分线开关","poweroffReason":"杭州市区2018年城北区块10千伏公变增容布点及低压台区改造（打铁关配变）.原停电结束时间17:30、变更停电结束时间14:30原因由于施工现场环境比较复杂，存在不确定因素，因此预估施工时间适当放长了，而实际施工进行得比较顺利，因此该工作提前结束。","powerTime":"2019-07-12 14:00:59","powerComm":"已送电","subsNo":"","lineNo":"","tgNo":"","tgName":null,"infoStatus":"1","orgName":"浙江杭州电力客户服务中心","typeName":null,"infoStatusName":null,"dateDay":null,"orgNos":null,"nowTime":null,"countyName":null,"streetName":null,"villageName":null,"roadName":null,"communityName":null,"tranName":null,"sdLineName":null,"cityCode":"3340101","cityName":"浙江杭州电力客户服务中心","provinceCode":null,"stopTime":"2019-07-12 14:30:00","powerType":"全部","powerOffArea":"金属分线开关","powerOffReason":"杭州市区2018年城北区块10千伏公变增容布点及低压台区改造（打铁关配变）.原停电结束时间17:30、变更停电结束时间14:30原因由于施工现场环境比较复杂，存在不确定因素，因此预估施工时间适当放长了，而实际施工进行得比较顺利，因此该工作提前结束。","powerOffId":"2019062731020043"},{"poweroffId":2019062731020024,"sgpoweroffId":null,"subsName":"","lineName":"10kV石门H566线","pubTranName":"青山村长丘畈公变,青山村长丘畈2号公变,青山村高界村公变,塑料编织厂,","scope":"浙江省杭州市余杭区黄湖镇：青山村长丘畈2号、青山村长丘畈、塑料编织厂、青山村高界村一带","startTime":"2019-07-04 09:40:00","stopDate":"2019-07-04 16:40:00","orgNo":"3340140","typeCode":"计划停电","poweroffArea":"石门H566线高界村分线","poweroffReason":"计划工作","powerTime":"2019-07-04 15:47:57","powerComm":"全部送电","subsNo":"","lineNo":"","tgNo":"","tgName":null,"infoStatus":"1","orgName":"国网浙江杭州市余杭区供电有限公司","typeName":null,"infoStatusName":null,"dateDay":null,"orgNos":null,"nowTime":null,"countyName":null,"streetName":null,"villageName":null,"roadName":null,"communityName":null,"tranName":null,"sdLineName":null,"cityCode":"3340140","cityName":"国网浙江杭州市余杭区供电有限公司","provinceCode":null,"stopTime":"2019-07-04 16:40:00","powerType":"全部","powerOffArea":"石门H566线高界村分线","powerOffReason":"计划工作","powerOffId":"2019062731020024"},{"poweroffId":2019062731020023,"sgpoweroffId":null,"subsName":"","lineName":"10kV凌村H570线","pubTranName":"山沟沟村宋村下村公变,山沟沟村下余村公变,山沟沟村观口公变,山沟沟村斗坞公变,山沟沟村后山公变,山沟沟宾馆,山沟沟村宋村公变,鸬鸟水厂6120051834,山沟沟村毛塘公变,山沟沟村宋村2号村变,山沟沟村汤坑公变,山沟沟村下溪头公变,山沟沟村叶家堂公变,山沟沟村盛家塘公变,山沟沟村汤坑2号公变,光大利合6120867007,","scope":"浙江省杭州市余杭区鸬鸟镇：山沟沟村下溪头、山沟沟村观口、山沟沟村宋村下村、山沟沟村宋村、山沟沟村宋村2号村、山沟沟村叶家堂、山沟沟村盛家塘、山沟沟村汤坑、山沟沟村汤坑2号、山沟沟村后山、鸬鸟水厂、山沟沟村斗坞、山沟沟村毛塘、山沟沟村下余村、山沟沟宾馆一带","startTime":"2019-07-04 08:40:00","stopDate":"2019-07-04 11:40:00","orgNo":"3340140","typeCode":"计划停电","poweroffArea":"凌村H570线馒头山电站分线105#杆开关后段","poweroffReason":"计划工作","powerTime":"2019-07-04 11:36:21","powerComm":"全部送电","subsNo":"","lineNo":"","tgNo":"","tgName":null,"infoStatus":"1","orgName":"国网浙江杭州市余杭区供电有限公司","typeName":null,"infoStatusName":null,"dateDay":null,"orgNos":null,"nowTime":null,"countyName":null,"streetName":null,"villageName":null,"roadName":null,"communityName":null,"tranName":null,"sdLineName":null,"cityCode":"3340140","cityName":"国网浙江杭州市余杭区供电有限公司","provinceCode":null,"stopTime":"2019-07-04 11:40:00","powerType":"全部","powerOffArea":"凌村H570线馒头山电站分线105#杆开关后段","powerOffReason":"计划工作","powerOffId":"2019062731020023"}],"pageModel":{"pageNow":1540,"totalCount":17789,"totalPage":1779,"tableRows":0,"pageCount":10,"beginCount":15390},"isExperi":"1"}