{"message":"","today":"2020-06-16","seleList":[{"poweroffId":2019062731020022,"sgpoweroffId":null,"subsName":"","lineName":"10kV金明G343线","pubTranName":"纤石村祝家斗公变,","scope":"浙江省杭州市余杭区良渚街道：祝家斗村一带","startTime":"2019-07-04 08:40:00","stopDate":"2019-07-04 19:00:00","orgNo":"3340140","typeCode":"临时停电","poweroffArea":"110kV洛山变:金明G343线-祝家斗后段 因施工力量不足原结束时间2019-07-04 16:40:00更为2019-07-04 19:00:00","poweroffReason":"金明G343线祝家斗分线纤石村祝家斗公变160增量至400kVA增容移位工作","powerTime":"2019-07-04 18:17:02","powerComm":"已送电","subsNo":"","lineNo":"","tgNo":"","tgName":null,"infoStatus":"1","orgName":"国网浙江杭州市余杭区供电有限公司","typeName":null,"infoStatusName":null,"dateDay":null,"orgNos":null,"nowTime":null,"countyName":null,"streetName":null,"villageName":null,"roadName":null,"communityName":null,"tranName":null,"sdLineName":null,"cityCode":"3340140","cityName":"国网浙江杭州市余杭区供电有限公司","provinceCode":null,"stopTime":"2019-07-04 19:00:00","powerType":"全部","powerOffArea":"110kV洛山变:金明G343线-祝家斗后段 因施工力量不足原结束时间2019-07-04 16:40:00更为2019-07-04 19:00:00","powerOffReason":"金明G343线祝家斗分线纤石村祝家斗公变160增量至400kVA增容移位工作","powerOffId":"2019062731020022"},{"poweroffId":2019062731020017,"sgpoweroffId":null,"subsName":"","lineName":"10kV渔山D913线","pubTranName":"三元村3#大街公变,","scope":"浙江省-杭州市-富阳区-渔山乡-渔山行政村(黎明自然村,三元自然村)","startTime":"2019-06-27 13:47:40","stopDate":"2019-06-27 15:17:40","orgNo":"3340170","typeCode":"电网故障停限电","poweroffArea":"110kV里渔变:渔山D913线-三元村3#大街公变后段","poweroffReason":"低压开关跳闸","powerTime":"2019-06-27 15:09:52","powerComm":"已送电","subsNo":"","lineNo":"","tgNo":"","tgName":null,"infoStatus":"1","orgName":"国网浙江杭州市富阳区供电公司","typeName":null,"infoStatusName":null,"dateDay":null,"orgNos":null,"nowTime":null,"countyName":null,"streetName":null,"villageName":null,"roadName":null,"communityName":null,"tranName":null,"sdLineName":null,"cityCode":"3340170","cityName":"国网浙江杭州市富阳区供电公司","provinceCode":null,"stopTime":"2019-06-27 15:17:40","powerType":"全部","powerOffArea":"110kV里渔变:渔山D913线-三元村3#大街公变后段","powerOffReason":"低压开关跳闸","powerOffId":"2019062731020017"},{"poweroffId":2019062731020006,"sgpoweroffId":null,"subsName":"","lineName":"10kV马丁7287线","pubTranName":"长寿,城建施八,万兴金属,","scope":"浙江省-杭州市-滨江区-长河街道-长一社区-杭州万兴金属制品有限公司.","startTime":"2019-07-11 09:30:00","stopDate":"2019-07-11 14:30:00","orgNo":"3340101","typeCode":"计划停电","poweroffArea":"110kV白马变:马丁7287线-万兴金属后段;马丁7287线-城建施八后段;马丁7287线-长寿后段","poweroffReason":"10KV白马变马丁7287线路迁改工程PD2019-05-021-QJ 马丁7287线18#～20-3#杆拆除、改接","powerTime":"2019-07-11 13:35:59","powerComm":"已送电","subsNo":"","lineNo":"","tgNo":"","tgName":null,"infoStatus":"1","orgName":"浙江杭州电力客户服务中心","typeName":null,"infoStatusName":null,"dateDay":null,"orgNos":null,"nowTime":null,"countyName":null,"streetName":null,"villageName":null,"roadName":null,"communityName":null,"tranName":null,"sdLineName":null,"cityCode":"3340101","cityName":"浙江杭州电力客户服务中心","provinceCode":null,"stopTime":"2019-07-11 14:30:00","powerType":"全部","powerOffArea":"110kV白马变:马丁7287线-万兴金属后段;马丁7287线-城建施八后段;马丁7287线-长寿后段","powerOffReason":"10KV白马变马丁7287线路迁改工程PD2019-05-021-QJ 马丁7287线18#～20-3#杆拆除、改接","powerOffId":"2019062731020006"},{"poweroffId":2019062731020004,"sgpoweroffId":null,"subsName":"","lineName":"10kV马丁7287线","pubTranName":"新欣,金福康,新欣,山二照明,","scope":"浙江省-杭州市-滨江区-浦沿街道-山二村社区-杭州宝丰新型建材有限公司.110KV白马变10KV马丁7287线（家丁站～20#）","startTime":"2019-07-08 09:35:00","stopDate":"2019-07-08 16:30:00","orgNo":"3340101","typeCode":"计划停电","poweroffArea":"110kV白马变:马丁7287线-金福康后段;马丁7287线-新欣后段;马丁7287线-山二照明后段","poweroffReason":"10KV白马变马丁7287线路迁改工程PD2019-05-021-QJ 马丁7287线20#～27#杆拆除、改接.计划停电结束时间15:30，因工作量大原因导致延时送电，预计送电时间：2019-7-8 16:30","powerTime":"2019-07-08 16:09:59","powerComm":"已送电","subsNo":"","lineNo":"","tgNo":"","tgName":null,"infoStatus":"1","orgName":"浙江杭州电力客户服务中心","typeName":null,"infoStatusName":null,"dateDay":null,"orgNos":null,"nowTime":null,"countyName":null,"streetName":null,"villageName":null,"roadName":null,"communityName":null,"tranName":null,"sdLineName":null,"cityCode":"3340101","cityName":"浙江杭州电力客户服务中心","provinceCode":null,"stopTime":"2019-07-08 16:30:00","powerType":"全部","powerOffArea":"110kV白马变:马丁7287线-金福康后段;马丁7287线-新欣后段;马丁7287线-山二照明后段","powerOffReason":"10KV白马变马丁7287线路迁改工程PD2019-05-021-QJ 马丁7287线20#～27#杆拆除、改接.计划停电结束时间15:30，因工作量大原因导致延时送电，预计送电时间：2019-7-8 16:30","powerOffId":"2019062731020004"},{"poweroffId":2019062731020002,"sgpoweroffId":null,"subsName":"","lineName":"10kV笼山D252线","pubTranName":"赤松村6号陈家门公变,杭州富阳正大电信器材有限公司,杭州科宇涂装有限公司,浙江安泰汽车部件有限公司1#变,鸡笼山2号石口公变,富阳火森电器有限公司,杭州晨华涂装有限公司,浙江安泰汽车部件有限公司,鸡笼山农居点2号公变,赤松村1#孝感公变,赤松村4#公变,鸡笼山8号下早阳公变,赤松村2号陈家门公变,杭州富阳复兴涂布涂料厂,杭州富阳三恒通信材料有限公司,赤松村3号里戴公变,杭州富阳军得基础工程有限公司,杭州富阳兴旺钢背配件有限公司,富阳盛鑫电缆材料厂,国网浙江省电力有限公司杭州供电公司1#变,杭州新南藤竹制品有限公司,鸡笼山6#西村公变,富阳鸿利食品有限公司,富阳市东洲街道金龙新型墙体砖厂,富阳市三羊废旧金属材料加工厂,富阳市强力交通机械预应力配套厂,鸡笼山农居点3号公变,富阳市林业开发有限公司,富阳市路灯安装维修管理所富阳路灯146号箱,富阳市林业开发有限公司,富阳市永兴保温耐火材料厂,浙江宝鑫机械制造有限公司,富阳凯利净化设备有限公司1#,富阳市路灯安装维修管理所,富阳凯利净化设备有限公司2#,中控技术（富阳）有限公司,鸡笼山1号皇家公变,赤松村5号牛角山公变,鸡笼山4#山坎公变,鸡笼山1号公变变压器间隔配电变压器,鸡笼山3#丰壳垅公变,鸡笼山5#早阳公变,富阳新南家私有限公司,","scope":"浙江省-杭州市-富阳区-东洲街道-鸡笼山行政村(赤松自然村,鸡笼山自然村,民丰自然村);东洲街道-鸡笼山行政村(杭州富春江电器厂,富阳市永兴保温耐火材料厂,浙江畅茂电器有限公司,杭州朱氏铜艺有限公司,杭州富阳鸿利食品有限公司,富阳市东洲街道金龙新型墙体砖厂,杭州富阳军得基础工程有限公司,浙江宝鑫机械制造有限公司,富阳市三羊废旧金属材料加工厂,杭州富阳新南家私有限公司,杭州新南藤竹制品有限公司,杭州富阳兴旺钢背配件有限公司,杭州富阳复兴涂布涂料厂,杭州富阳林业开发有限公司,杭州创盈机动车检测有限公司,杭州富阳凯利净化设备有限公司,杭州富阳盛鑫电缆材料厂,杭州晨华涂装有限公司,杭州飞鹿资产管理有限公司,国网浙江省电力有限公司杭州供电公司),银湖街道-高桥行政村-杭州富阳城市照明工程有限公司,东洲街道-黄公望行政村-杭州富阳三恒通信材料有限公司","startTime":"2019-06-27 09:37:07","stopDate":"2019-06-27 11:30:00","orgNo":"3340170","typeCode":"电网故障停限电","poweroffArea":"110kV白鹤变:笼山D252线-笼山D2522开关后段","poweroffReason":"高压开关跳闸，原停电结束时间2019-06-27 12:37:07，因抢修力量加强变更至2019-06-27 11:30:00","powerTime":"2019-06-27 10:34:39","powerComm":"已送电","subsNo":"","lineNo":"","tgNo":"","tgName":null,"infoStatus":"1","orgName":"国网浙江杭州市富阳区供电公司","typeName":null,"infoStatusName":null,"dateDay":null,"orgNos":null,"nowTime":null,"countyName":null,"streetName":null,"villageName":null,"roadName":null,"communityName":null,"tranName":null,"sdLineName":null,"cityCode":"3340170","cityName":"国网浙江杭州市富阳区供电公司","provinceCode":null,"stopTime":"2019-06-27 11:30:00","powerType":"全部","powerOffArea":"110kV白鹤变:笼山D252线-笼山D2522开关后段","powerOffReason":"高压开关跳闸，原停电结束时间2019-06-27 12:37:07，因抢修力量加强变更至2019-06-27 11:30:00","powerOffId":"2019062731020002"},{"poweroffId":2019062731020001,"sgpoweroffId":null,"subsName":"","lineName":"10kV厦山R308线","pubTranName":"左川村小件坑配变,","scope":"浙江省-杭州市-淳安县-中洲镇-左川行政村-田坑自然村","startTime":"2019-06-28 07:00:00","stopDate":"2019-06-28 12:00:00","orgNo":"3340190","typeCode":"临时停电","poweroffArea":"110kV汾口变:厦山R308线-小件坑支线1#杆跌落式熔断器后段","poweroffReason":"小件坑支线04号杆至05号杆导线更换","powerTime":"2019-06-28 11:40:53","powerComm":"现场工作已完成。","subsNo":"","lineNo":"","tgNo":"","tgName":null,"infoStatus":"1","orgName":"国网浙江淳安县供电有限公司","typeName":null,"infoStatusName":null,"dateDay":null,"orgNos":null,"nowTime":null,"countyName":null,"streetName":null,"villageName":null,"roadName":null,"communityName":null,"tranName":null,"sdLineName":null,"cityCode":"3340190","cityName":"国网浙江淳安县供电有限公司","provinceCode":null,"stopTime":"2019-06-28 12:00:00","powerType":"全部","powerOffArea":"110kV汾口变:厦山R308线-小件坑支线1#杆跌落式熔断器后段","powerOffReason":"小件坑支线04号杆至05号杆导线更换","powerOffId":"2019062731020001"},{"poweroffId":2019062731010227,"sgpoweroffId":null,"subsName":"","lineName":"10kV树西G262线","pubTranName":"栅庄桥村南坝公变,","scope":"浙江省-杭州市-余杭区-仁和街道栅庄桥行政村-河口埭自然村、木克桥自然村、南坝头自然村、栅庄桥自然村、滩坝头自然村、塘家湾自然村一带","startTime":"2019-06-27 19:10:00","stopDate":"2019-06-27 21:30:00","orgNo":"3340140","typeCode":"电网故障停限电","poweroffArea":"110kV仁镇变:树西G262线-栅庄桥村南坝公变后段","poweroffReason":"树西G262线-栅庄桥村南坝公变后段 断线故障","powerTime":"2019-06-27 20:45:00","powerComm":"已送电","subsNo":"","lineNo":"","tgNo":"","tgName":null,"infoStatus":"1","orgName":"国网浙江杭州市余杭区供电有限公司","typeName":null,"infoStatusName":null,"dateDay":null,"orgNos":null,"nowTime":null,"countyName":null,"streetName":null,"villageName":null,"roadName":null,"communityName":null,"tranName":null,"sdLineName":null,"cityCode":"3340140","cityName":"国网浙江杭州市余杭区供电有限公司","provinceCode":null,"stopTime":"2019-06-27 21:30:00","powerType":"全部","powerOffArea":"110kV仁镇变:树西G262线-栅庄桥村南坝公变后段","powerOffReason":"树西G262线-栅庄桥村南坝公变后段 断线故障","powerOffId":"2019062731010227"},{"poweroffId":2019062731010218,"sgpoweroffId":null,"subsName":"","lineName":"10kV科研A090线","pubTranName":"航民村3#变,","scope":"浙江省-杭州市-萧山区-瓜沥镇航民行政村、航坞路、航民行政村老年公寓一带","startTime":"2019-06-27 17:49:23","stopDate":"2019-06-27 19:30:26","orgNo":"3340130","typeCode":"电网故障停限电","poweroffArea":"110kV航坞变:科研A090线-航民村3#变台区低压开关","poweroffReason":"低压漏电保护器短路故障","powerTime":"2019-06-27 18:40:17","powerComm":"已送电","subsNo":"","lineNo":"","tgNo":"","tgName":null,"infoStatus":"1","orgName":"国网浙江杭州市萧山区供电有限公司","typeName":null,"infoStatusName":null,"dateDay":null,"orgNos":null,"nowTime":null,"countyName":null,"streetName":null,"villageName":null,"roadName":null,"communityName":null,"tranName":null,"sdLineName":null,"cityCode":"3340130","cityName":"国网浙江杭州市萧山区供电有限公司","provinceCode":null,"stopTime":"2019-06-27 19:30:26","powerType":"全部","powerOffArea":"110kV航坞变:科研A090线-航民村3#变台区低压开关","powerOffReason":"低压漏电保护器短路故障","powerOffId":"2019062731010218"},{"poweroffId":2019062731010215,"sgpoweroffId":null,"subsName":"","lineName":"10kV里城8070线","pubTranName":"克拉充(二),克拉充(一),","scope":"浙江省杭州市江干区闸弄口街道三里亭社区石桥路北车场MC1,浙江省杭州市江干区闸弄口街道三里亭社区石桥路北车场MC3,浙江省杭州市江干区闸弄口街道三里亭社区石桥路北车场MC2,浙江省杭州市江干区闸弄口街道三里亭社区石桥路北车场C2,浙江省杭州市江干区闸弄口街道三里亭社区石桥路北车场C4,浙江省杭州市江干区闸弄口街道三里亭社区石桥路北车场TX","startTime":"2019-06-27 17:27:24","stopDate":"2019-06-27 18:40:24","orgNo":"3340101","typeCode":"电网故障停限电","poweroffArea":"110kV东站变:里城8070线-克拉充(一)后段","poweroffReason":"高压开关跳闸 原预计停电结束时间2019-06-27 23:27:24,由于施工现场环境比较复杂，存在不确定因素，因此预估施工时间适当放长了， 而实际施工进行得比较顺利，因此提前送电了","powerTime":"2019-06-27 17:53:00","powerComm":"已送电","subsNo":"","lineNo":"","tgNo":"","tgName":null,"infoStatus":"1","orgName":"浙江杭州电力客户服务中心","typeName":null,"infoStatusName":null,"dateDay":null,"orgNos":null,"nowTime":null,"countyName":null,"streetName":null,"villageName":null,"roadName":null,"communityName":null,"tranName":null,"sdLineName":null,"cityCode":"3340101","cityName":"浙江杭州电力客户服务中心","provinceCode":null,"stopTime":"2019-06-27 18:40:24","powerType":"全部","powerOffArea":"110kV东站变:里城8070线-克拉充(一)后段","powerOffReason":"高压开关跳闸 原预计停电结束时间2019-06-27 23:27:24,由于施工现场环境比较复杂，存在不确定因素，因此预估施工时间适当放长了， 而实际施工进行得比较顺利，因此提前送电了","powerOffId":"2019062731010215"},{"poweroffId":2019062731010166,"sgpoweroffId":null,"subsName":"","lineName":"10kV东门A614线","pubTranName":"东门公寓1#公变,","scope":"浙江省-杭州市-萧山区-城厢街道(东阳桥社区-育才路);育才路、东门公寓、东门公寓4幢1单元一带","startTime":"2019-06-27 16:15:00","stopDate":"2019-06-27 19:20:00","orgNo":"3340130","typeCode":"电网故障停限电","poweroffArea":"110kV城东变:东门A614线-东门公寓1#公变台区低压开关","poweroffReason":"低压电缆烧，原停电结束时间：2019-06-27 22:00:00，变更停电结束时间：2019-06-27 19:20:00，变更停电结束时间原因：由于抢修工作提前结束，故需要提前送电。","powerTime":"2019-06-27 18:27:08","powerComm":"已送电","subsNo":"","lineNo":"","tgNo":"","tgName":null,"infoStatus":"1","orgName":"国网浙江杭州市萧山区供电有限公司","typeName":null,"infoStatusName":null,"dateDay":null,"orgNos":null,"nowTime":null,"countyName":null,"streetName":null,"villageName":null,"roadName":null,"communityName":null,"tranName":null,"sdLineName":null,"cityCode":"3340130","cityName":"国网浙江杭州市萧山区供电有限公司","provinceCode":null,"stopTime":"2019-06-27 19:20:00","powerType":"全部","powerOffArea":"110kV城东变:东门A614线-东门公寓1#公变台区低压开关","powerOffReason":"低压电缆烧，原停电结束时间：2019-06-27 22:00:00，变更停电结束时间：2019-06-27 19:20:00，变更停电结束时间原因：由于抢修工作提前结束，故需要提前送电。","powerOffId":"2019062731010166"}],"pageModel":{"pageNow":1541,"totalCount":17789,"totalPage":1779,"tableRows":0,"pageCount":10,"beginCount":15400},"isExperi":"1"}