{"message":"","today":"2020-06-16","seleList":[{"poweroffId":2019062731010045,"sgpoweroffId":null,"subsName":"","lineName":"10kV阳山T212线","pubTranName":"九岭葛家1号公变,","scope":"浙江省-杭州市-桐庐县-横村镇(九岭行政村-葛家自然村、里濮自然村);","startTime":"2019-06-27 08:44:58","stopDate":"2019-06-27 12:00:05","orgNo":"3340150","typeCode":"电网故障停限电","poweroffArea":"110kV方埠变:阳山T212线-九岭葛家1号公变后段","poweroffReason":"低压开关故障","powerTime":"2019-06-27 11:42:10","powerComm":"已送电","subsNo":"","lineNo":"","tgNo":"","tgName":null,"infoStatus":"1","orgName":"国网浙江桐庐县供电公司","typeName":null,"infoStatusName":null,"dateDay":null,"orgNos":null,"nowTime":null,"countyName":null,"streetName":null,"villageName":null,"roadName":null,"communityName":null,"tranName":null,"sdLineName":null,"cityCode":"3340150","cityName":"国网浙江桐庐县供电公司","provinceCode":null,"stopTime":"2019-06-27 12:00:05","powerType":"全部","powerOffArea":"110kV方埠变:阳山T212线-九岭葛家1号公变后段","powerOffReason":"低压开关故障","powerOffId":"2019062731010045"},{"poweroffId":2019062731010041,"sgpoweroffId":null,"subsName":"","lineName":"10kV顾家Y306线","pubTranName":"城西村村口台区,","scope":"浙江省-杭州市-建德市-梅城 城西行政村-黄粟坪自然村一带用户","startTime":"2019-06-27 08:25:00","stopDate":"2019-06-27 11:00:00","orgNo":"3340180","typeCode":"电网故障停限电","poweroffArea":"110kV梅城变:顾家Y306线-城西村村口台区后段","poweroffReason":"顾家Y306线-城西村村口台区 低压配电设备故障","powerTime":"2019-06-27 10:16:00","powerComm":"已送电","subsNo":"","lineNo":"","tgNo":"","tgName":null,"infoStatus":"1","orgName":"国网浙江建德市供电有限公司","typeName":null,"infoStatusName":null,"dateDay":null,"orgNos":null,"nowTime":null,"countyName":null,"streetName":null,"villageName":null,"roadName":null,"communityName":null,"tranName":null,"sdLineName":null,"cityCode":"3340180","cityName":"国网浙江建德市供电有限公司","provinceCode":null,"stopTime":"2019-06-27 11:00:00","powerType":"全部","powerOffArea":"110kV梅城变:顾家Y306线-城西村村口台区后段","powerOffReason":"顾家Y306线-城西村村口台区 低压配电设备故障","powerOffId":"2019062731010041"},{"poweroffId":2019062731010036,"sgpoweroffId":null,"subsName":"","lineName":"10kV万二C866线","pubTranName":"佳境天成物业变3#,绿都百瑞广场1#变,佳境天城成合苑1#公变,恒泰永泰丰1#公变,杭州美萧物业管理有限公司,久安物业,绿都百瑞广场4#变,绿都百瑞广场3#变,佳境天成物业变1#,佳境天成物业变1#,佳境天成物业变3#,杭州美萧物业管理有限公司,杭州美萧物业管理有限公司,佳境天成物业变2#,佳境天城人合苑4#公变,绿都百瑞(久安物业)2#,佳境天成物业变2#,绿都百瑞广场5#变,佳境天城成合苑4#公变,恒泰永泰丰2#公变,佳境天城人合苑1#公变,绿都百瑞广场2#变,佳境天城人合苑2#公变,佳境天城天合苑1#公变,佳境天成物业变5#,佳境天成物业变4#,天林广场2#公变,佳境天城成合苑2#公变,天林广场4#公变,天林广场3#公变,佳境天城天合苑2#公变,佳境天城人合苑3#公变,天林广场1#公变,","scope":"浙江省-杭州市-萧山区、宁围镇、宁围街道、佳境社区-市心北路,宁东社区-振宁路、天林广场、佳境天城人合苑,经济技术开发区、市北社区-市心北路、宁丰物业服务有限公司、纳德物业有限公司、杭州久安物业服务有限公司,杭州美萧物业管理有限公司,浙江万兴恒服务有限公司等一带","startTime":"2019-06-27 08:19:04","stopDate":"2019-06-27 15:22:06","orgNo":"3340130","typeCode":"电网故障停限电","poweroffArea":"110kV万安变:万二C866线后段","poweroffReason":"高压柱上断路器短路故障","powerTime":"2019-06-27 14:27:16","powerComm":"已送电","subsNo":"","lineNo":"","tgNo":"","tgName":null,"infoStatus":"1","orgName":"国网浙江杭州市萧山区供电有限公司","typeName":null,"infoStatusName":null,"dateDay":null,"orgNos":null,"nowTime":null,"countyName":null,"streetName":null,"villageName":null,"roadName":null,"communityName":null,"tranName":null,"sdLineName":null,"cityCode":"3340130","cityName":"国网浙江杭州市萧山区供电有限公司","provinceCode":null,"stopTime":"2019-06-27 15:22:06","powerType":"全部","powerOffArea":"110kV万安变:万二C866线后段","powerOffReason":"高压柱上断路器短路故障","powerOffId":"2019062731010036"},{"poweroffId":2019062631020033,"sgpoweroffId":null,"subsName":"","lineName":"10kV四围A492线","pubTranName":"三围村7#变,三围村13#变,","scope":"浙江省-杭州市-萧山区-益农镇-三围行政村-三围自然村","startTime":"2019-07-05 08:30:00","stopDate":"2019-07-05 13:30:00","orgNo":"3340130","typeCode":"计划停电","poweroffArea":"110kV群围变:四围A492线-三围村13#变后段;四围A492线-三围村7#变后段","poweroffReason":"三围村7#变下160kVA上400kVA","powerTime":"2019-07-05 13:12:08","powerComm":"已送电","subsNo":"","lineNo":"","tgNo":"","tgName":null,"infoStatus":"1","orgName":"国网浙江杭州市萧山区供电有限公司","typeName":null,"infoStatusName":null,"dateDay":null,"orgNos":null,"nowTime":null,"countyName":null,"streetName":null,"villageName":null,"roadName":null,"communityName":null,"tranName":null,"sdLineName":null,"cityCode":"3340130","cityName":"国网浙江杭州市萧山区供电有限公司","provinceCode":null,"stopTime":"2019-07-05 13:30:00","powerType":"全部","powerOffArea":"110kV群围变:四围A492线-三围村13#变后段;四围A492线-三围村7#变后段","powerOffReason":"三围村7#变下160kVA上400kVA","powerOffId":"2019062631020033"},{"poweroffId":2019062631020027,"sgpoweroffId":null,"subsName":"","lineName":"10kV洋塘T101线","pubTranName":"过滤机厂,","scope":"浙江省-杭州市-桐庐县-桐君街道-洋塘社区-杭州桐庐过滤机厂","startTime":"2019-07-05 07:30:00","stopDate":"2019-07-05 17:30:00","orgNo":"3340150","typeCode":"计划停电","poweroffArea":"110kV桐庐变:洋塘T101线-过滤机厂后段","poweroffReason":"桐庐县美丽桐君开发有限公司羊塘路过滤机厂区块专变移位工程","powerTime":"2019-07-05 17:10:50","powerComm":"已送电。","subsNo":"","lineNo":"","tgNo":"","tgName":null,"infoStatus":"1","orgName":"国网浙江桐庐县供电公司","typeName":null,"infoStatusName":null,"dateDay":null,"orgNos":null,"nowTime":null,"countyName":null,"streetName":null,"villageName":null,"roadName":null,"communityName":null,"tranName":null,"sdLineName":null,"cityCode":"3340150","cityName":"国网浙江桐庐县供电公司","provinceCode":null,"stopTime":"2019-07-05 17:30:00","powerType":"全部","powerOffArea":"110kV桐庐变:洋塘T101线-过滤机厂后段","powerOffReason":"桐庐县美丽桐君开发有限公司羊塘路过滤机厂区块专变移位工程","powerOffId":"2019062631020027"},{"poweroffId":2019062631020023,"sgpoweroffId":null,"subsName":"","lineName":"10kV翁家H255线","pubTranName":"屹峰钣金,金塔涂装厂,政府2号路灯变6120842660,荣翔机械,绿源土特产6111083082,彭公村04省道2号公变,","scope":"浙江省杭州市余杭区瓶窑镇：政府2号路灯变、科联汽车公司、彭公村04省道、荣翔机械、金塔涂装厂、屹峰钣金公司一带","startTime":"2019-07-05 08:40:00","stopDate":"2019-07-05 18:40:00","orgNo":"3340140","typeCode":"计划停电","poweroffArea":"翁家H255线屹峰钣金分线","poweroffReason":"计划工作","powerTime":"2019-07-05 18:00:52","powerComm":"已送电","subsNo":"","lineNo":"","tgNo":"","tgName":null,"infoStatus":"1","orgName":"国网浙江杭州市余杭区供电有限公司","typeName":null,"infoStatusName":null,"dateDay":null,"orgNos":null,"nowTime":null,"countyName":null,"streetName":null,"villageName":null,"roadName":null,"communityName":null,"tranName":null,"sdLineName":null,"cityCode":"3340140","cityName":"国网浙江杭州市余杭区供电有限公司","provinceCode":null,"stopTime":"2019-07-05 18:40:00","powerType":"全部","powerOffArea":"翁家H255线屹峰钣金分线","powerOffReason":"计划工作","powerOffId":"2019062631020023"},{"poweroffId":2019062631020022,"sgpoweroffId":null,"subsName":"","lineName":"10kV蛋鸡H506线","pubTranName":"杭州市种猪试验场（6110119007）02#专变,茶场（1）(高配),顺昌建设,岳塘工贸,茶场（2）(高配),茶场（4）(高配),茶场（6）(高配),佑国农业612080676401#专变,一川控制电器,茶场（5）(高配),典图实业,茶场,鼎盛交通蛋鸡场612069499601#专变,三明茶业6120591385,杭州市种猪试验场（6110119007）01#专变,杭州余杭区径山镇奇民沙场,","scope":"浙江省杭州市余杭区瓶窑镇：典图实业公司、顺昌建设公司、岳塘工贸公司、佑国农业公司、鼎盛交通蛋鸡场、杭州市种猪试验场、杭州余杭区径山镇奇民沙场、杭州一川控制电器有限公司、杭州一川控制电器有限公司、茶场、浙江三明茶业有限公司一带","startTime":"2019-07-05 08:30:00","stopDate":"2019-07-05 18:40:00","orgNo":"3340140","typeCode":"计划停电","poweroffArea":"蛋鸡H506线茶厂高配分线","poweroffReason":"计划工作","powerTime":"2019-07-05 18:01:16","powerComm":"已送电","subsNo":"","lineNo":"","tgNo":"","tgName":null,"infoStatus":"1","orgName":"国网浙江杭州市余杭区供电有限公司","typeName":null,"infoStatusName":null,"dateDay":null,"orgNos":null,"nowTime":null,"countyName":null,"streetName":null,"villageName":null,"roadName":null,"communityName":null,"tranName":null,"sdLineName":null,"cityCode":"3340140","cityName":"国网浙江杭州市余杭区供电有限公司","provinceCode":null,"stopTime":"2019-07-05 18:40:00","powerType":"全部","powerOffArea":"蛋鸡H506线茶厂高配分线","powerOffReason":"计划工作","powerOffId":"2019062631020022"},{"poweroffId":2019062631020016,"sgpoweroffId":null,"subsName":"","lineName":"10kV长河6625线","pubTranName":"东冠村二变,","scope":"浙江省-杭州市-滨江区-浦沿街道-东冠社区-东冠路.浙江省杭州市滨江区东冠公寓6号楼1.2.3单元住户。","startTime":"2019-07-05 09:00:00","stopDate":"2019-07-05 10:30:00","orgNo":"3340101","typeCode":"计划停电","poweroffArea":"35kV浦沿变:长河6625线-东冠村二变后段","poweroffReason":"低压工作.原停电结束时间11:30、变更停电结束时间10:30原因由于施工现场环境比较复杂，存在不确定因素，因此预估施工时间适当放长了，而实际施工进行得比较顺利，因此该工作提前结束。","powerTime":"2019-07-05 09:58:59","powerComm":"已送电","subsNo":"","lineNo":"","tgNo":"","tgName":null,"infoStatus":"1","orgName":"浙江杭州电力客户服务中心","typeName":null,"infoStatusName":null,"dateDay":null,"orgNos":null,"nowTime":null,"countyName":null,"streetName":null,"villageName":null,"roadName":null,"communityName":null,"tranName":null,"sdLineName":null,"cityCode":"3340101","cityName":"浙江杭州电力客户服务中心","provinceCode":null,"stopTime":"2019-07-05 10:30:00","powerType":"全部","powerOffArea":"35kV浦沿变:长河6625线-东冠村二变后段","powerOffReason":"低压工作.原停电结束时间11:30、变更停电结束时间10:30原因由于施工现场环境比较复杂，存在不确定因素，因此预估施工时间适当放长了，而实际施工进行得比较顺利，因此该工作提前结束。","powerOffId":"2019062631020016"},{"poweroffId":2019062631020014,"sgpoweroffId":null,"subsName":"","lineName":"10kV沪瑞D620线","pubTranName":"东梓村4#水厂公变,杭州市富阳区场口镇人民政府(东梓排涝站),东梓村2号排涝公变,东梓村6#新区外公变,杭州富阳水务有限公司,东梓村1#菜场公变,东梓村7#新区内公变,东梓排涝,富阳市场口镇中心幼儿园,东梓村5号屠家公变,东梓村6#新区外公变,东梓村1#菜场公变,杭州市富阳区场口镇人民政府（东梓排涝站）1#变,杭州富阳中荷电子有限公司,杭州富阳中荷电子有限公司2#变,东梓村农灌,东梓村4号水厂公变,东梓村3号黄家公变,东梓村7#新区内公变,杭州富阳水务有限公司1#,富阳市场口镇中心幼儿园,杭州富阳中荷电子有限公司1#变,","scope":"浙江省-杭州市-富阳区-场口镇-东梓关行政村-东梓关自然村,场口镇-东梓行政村(屠家自然村,东梓村自然村,东梓关自然村);场口镇(东梓村农灌,东梓排涝,富阳市场口镇中心幼儿园,杭州富阳水务有限公司,杭州市富阳区场口镇人民政府,杭州富阳中荷电子有限公司)","startTime":"2019-06-26 14:13:00","stopDate":"2019-06-26 17:00:00","orgNo":"3340170","typeCode":"电网故障停限电","poweroffArea":"110kV鸿丰变:沪瑞D620线沪瑞D6205开关后段","poweroffReason":"高压开关跳闸 原停电结束时间为2019-06-26 16:13:00，因现场施工难度大延至2019-06-26 17:00:00","powerTime":"2019-06-26 16:50:48","powerComm":"已送电","subsNo":"","lineNo":"","tgNo":"","tgName":null,"infoStatus":"1","orgName":"国网浙江杭州市富阳区供电公司","typeName":null,"infoStatusName":null,"dateDay":null,"orgNos":null,"nowTime":null,"countyName":null,"streetName":null,"villageName":null,"roadName":null,"communityName":null,"tranName":null,"sdLineName":null,"cityCode":"3340170","cityName":"国网浙江杭州市富阳区供电公司","provinceCode":null,"stopTime":"2019-06-26 17:00:00","powerType":"全部","powerOffArea":"110kV鸿丰变:沪瑞D620线沪瑞D6205开关后段","powerOffReason":"高压开关跳闸 原停电结束时间为2019-06-26 16:13:00，因现场施工难度大延至2019-06-26 17:00:00","powerOffId":"2019062631020014"},{"poweroffId":2019062631020004,"sgpoweroffId":null,"subsName":"","lineName":"10kV江南Y137线","pubTranName":"乾潭村东星苑台区,建德市新安旅游投资有限公司,乾潭村桃树坞台区,浙江建德富春江国家森林公园旅游有限公司,浙江博安投资管理有限公司,浙江胜奇休闲农林发展有限公司,杭州建强工具有限公司,乾潭村江南台区,1#变,乾潭村江南苑公变台区配电变压器,江南林场,新安旅游投资有限公司专变,乾潭村杳岭脚台区,","scope":"浙江省-杭州市-建德市-乾潭镇 集镇江南苑小区、东星苑小区；乾潭行政村桃树坞自然村、杳岭脚自然村、江南自然村一带用户。","startTime":"2019-07-06 07:00:00","stopDate":"2019-07-06 10:30:00","orgNo":"3340180","typeCode":"计划停电","poweroffArea":"110kV乾潭变:江南Y137线首端，江南Y137线27#杆开关，2#柜闸刀之间","poweroffReason":"乾潭镇小城镇环境综合整治改造二期工程","powerTime":"2019-07-06 10:18:00","powerComm":"已送电","subsNo":"","lineNo":"","tgNo":"","tgName":null,"infoStatus":"1","orgName":"国网浙江建德市供电有限公司","typeName":null,"infoStatusName":null,"dateDay":null,"orgNos":null,"nowTime":null,"countyName":null,"streetName":null,"villageName":null,"roadName":null,"communityName":null,"tranName":null,"sdLineName":null,"cityCode":"3340180","cityName":"国网浙江建德市供电有限公司","provinceCode":null,"stopTime":"2019-07-06 10:30:00","powerType":"全部","powerOffArea":"110kV乾潭变:江南Y137线首端，江南Y137线27#杆开关，2#柜闸刀之间","powerOffReason":"乾潭镇小城镇环境综合整治改造二期工程","powerOffId":"2019062631020004"}],"pageModel":{"pageNow":1543,"totalCount":17789,"totalPage":1779,"tableRows":0,"pageCount":10,"beginCount":15420},"isExperi":"1"}