{"message":"","today":"2020-06-16","seleList":[{"poweroffId":2019062531010212,"sgpoweroffId":null,"subsName":"","lineName":"10kV黎明A338线","pubTranName":"黎明村13#变,","scope":"浙江省-杭州市-萧山区-靖江街道黎明社区、黎明自然村、靖江街道黎明社区七组40号一带","startTime":"2019-06-25 23:08:36","stopDate":"2019-06-26 00:50:46","orgNo":"3340130","typeCode":"电网故障停限电","poweroffArea":"110kV靖江变:黎明A338线-黎明村13#变台区低压开关","poweroffReason":"低压漏电保护器短路故障","powerTime":"2019-06-26 00:02:45","powerComm":"已送电","subsNo":"","lineNo":"","tgNo":"","tgName":null,"infoStatus":"1","orgName":"国网浙江杭州市萧山区供电有限公司","typeName":null,"infoStatusName":null,"dateDay":null,"orgNos":null,"nowTime":null,"countyName":null,"streetName":null,"villageName":null,"roadName":null,"communityName":null,"tranName":null,"sdLineName":null,"cityCode":"3340130","cityName":"国网浙江杭州市萧山区供电有限公司","provinceCode":null,"stopTime":"2019-06-26 00:50:46","powerType":"全部","powerOffArea":"110kV靖江变:黎明A338线-黎明村13#变台区低压开关","powerOffReason":"低压漏电保护器短路故障","powerOffId":"2019062531010212"},{"poweroffId":2019062531010191,"sgpoweroffId":null,"subsName":"","lineName":"10kV胡店Y709线","pubTranName":"望山村王店台区,","scope":"浙江省-杭州市-建德市-梅城镇 望山行政村 王店自然村一带用户","startTime":"2019-06-25 20:33:00","stopDate":"2019-06-25 21:30:00","orgNo":"3340180","typeCode":"电网故障停限电","poweroffArea":"110kV南峰变:胡店Y709线-望山村王店台区后段","poweroffReason":"胡店Y709线 望山村王店台区 低压配电设备故障 原预计停电结束时间22:40，预估时间过长，故障已修复，现将停电时间变更至21:30。","powerTime":"2019-06-25 20:59:00","powerComm":"已送电","subsNo":"","lineNo":"","tgNo":"","tgName":null,"infoStatus":"1","orgName":"国网浙江建德市供电有限公司","typeName":null,"infoStatusName":null,"dateDay":null,"orgNos":null,"nowTime":null,"countyName":null,"streetName":null,"villageName":null,"roadName":null,"communityName":null,"tranName":null,"sdLineName":null,"cityCode":"3340180","cityName":"国网浙江建德市供电有限公司","provinceCode":null,"stopTime":"2019-06-25 21:30:00","powerType":"全部","powerOffArea":"110kV南峰变:胡店Y709线-望山村王店台区后段","powerOffReason":"胡店Y709线 望山村王店台区 低压配电设备故障 原预计停电结束时间22:40，预估时间过长，故障已修复，现将停电时间变更至21:30。","powerOffId":"2019062531010191"},{"poweroffId":2019062531010189,"sgpoweroffId":null,"subsName":"","lineName":"10kV排塘Y185线","pubTranName":"南浦村童源里台区,","scope":"浙江省 杭州市 建德市 寿昌镇 童源里自然村一带用户","startTime":"2019-06-25 20:15:00","stopDate":"2019-06-25 22:00:00","orgNo":"3340180","typeCode":"电网故障停限电","poweroffArea":"35kV河南里变:排塘Y185线-南浦村童源里台区后段","poweroffReason":"排塘Y185线 南浦村童源里台区 低压配电设备故障","powerTime":"2019-06-25 21:10:00","powerComm":"已送电","subsNo":"","lineNo":"","tgNo":"","tgName":null,"infoStatus":"1","orgName":"国网浙江建德市供电有限公司","typeName":null,"infoStatusName":null,"dateDay":null,"orgNos":null,"nowTime":null,"countyName":null,"streetName":null,"villageName":null,"roadName":null,"communityName":null,"tranName":null,"sdLineName":null,"cityCode":"3340180","cityName":"国网浙江建德市供电有限公司","provinceCode":null,"stopTime":"2019-06-25 22:00:00","powerType":"全部","powerOffArea":"35kV河南里变:排塘Y185线-南浦村童源里台区后段","powerOffReason":"排塘Y185线 南浦村童源里台区 低压配电设备故障","powerOffId":"2019062531010189"},{"poweroffId":2019062531010184,"sgpoweroffId":null,"subsName":"","lineName":"10kV春光0810线","pubTranName":"春元村10#变,","scope":"浙江省-杭州市-萧山区-义蓬街道(春园行政村-春园自然村),春园村,村园村一带","startTime":"2019-06-25 18:30:58","stopDate":"2019-06-25 21:43:32","orgNo":"3340120","typeCode":"电网故障停限电","poweroffArea":"35kV头蓬变:春光0810线-春园10#变后段","poweroffReason":"春园10#变后段 低压设备故障","powerTime":"2019-06-25 21:08:03","powerComm":"已送电","subsNo":"","lineNo":"","tgNo":"","tgName":null,"infoStatus":"1","orgName":"国网浙江杭州市钱塘新区供电公司","typeName":null,"infoStatusName":null,"dateDay":null,"orgNos":null,"nowTime":null,"countyName":null,"streetName":null,"villageName":null,"roadName":null,"communityName":null,"tranName":null,"sdLineName":null,"cityCode":"3340120","cityName":"国网浙江杭州市钱塘新区供电公司","provinceCode":null,"stopTime":"2019-06-25 21:43:32","powerType":"全部","powerOffArea":"35kV头蓬变:春光0810线-春园10#变后段","powerOffReason":"春园10#变后段 低压设备故障","powerOffId":"2019062531010184"},{"poweroffId":2019062531010182,"sgpoweroffId":null,"subsName":"","lineName":"10kV大洲Y152线","pubTranName":"下涯村唐村台区,","scope":"浙江省-杭州市-建德市-下涯镇 下涯行政村 唐村坞自然村、下涯自然村一带用户。","startTime":"2019-06-25 18:42:00","stopDate":"2019-06-25 20:00:00","orgNo":"3340180","typeCode":"电网故障停限电","poweroffArea":"110kV沿口变:大洲Y152线-下涯村唐村台区后段","poweroffReason":"绪塘Y157线-下涯村唐村台区低压配电设备故障 原预计停电结束时间21:00，由于施工现场环境比较复杂，存在不确定因素，因此预估施工时间适当放长了,目前故障已修复，现将停电结束时间变更至20:00","powerTime":"2019-06-25 19:30:00","powerComm":"已送电","subsNo":"","lineNo":"","tgNo":"","tgName":null,"infoStatus":"1","orgName":"国网浙江建德市供电有限公司","typeName":null,"infoStatusName":null,"dateDay":null,"orgNos":null,"nowTime":null,"countyName":null,"streetName":null,"villageName":null,"roadName":null,"communityName":null,"tranName":null,"sdLineName":null,"cityCode":"3340180","cityName":"国网浙江建德市供电有限公司","provinceCode":null,"stopTime":"2019-06-25 20:00:00","powerType":"全部","powerOffArea":"110kV沿口变:大洲Y152线-下涯村唐村台区后段","powerOffReason":"绪塘Y157线-下涯村唐村台区低压配电设备故障 原预计停电结束时间21:00，由于施工现场环境比较复杂，存在不确定因素，因此预估施工时间适当放长了,目前故障已修复，现将停电结束时间变更至20:00","powerOffId":"2019062531010182"},{"poweroffId":2019062531010168,"sgpoweroffId":null,"subsName":"","lineName":"10kV瓜镇C477线","pubTranName":"金澳公变,","scope":"浙江省-杭州市-萧山区-瓜沥镇友谊行政村、友谊路一带","startTime":"2019-06-25 17:05:24","stopDate":"2019-06-25 18:50:35","orgNo":"3340130","typeCode":"电网故障停限电","poweroffArea":"35kV塘头变:瓜镇C477线-金澳公变台区低压开关","poweroffReason":"低压漏电保护器短路故障","powerTime":"2019-06-25 18:17:02","powerComm":"已送电","subsNo":"","lineNo":"","tgNo":"","tgName":null,"infoStatus":"1","orgName":"国网浙江杭州市萧山区供电有限公司","typeName":null,"infoStatusName":null,"dateDay":null,"orgNos":null,"nowTime":null,"countyName":null,"streetName":null,"villageName":null,"roadName":null,"communityName":null,"tranName":null,"sdLineName":null,"cityCode":"3340130","cityName":"国网浙江杭州市萧山区供电有限公司","provinceCode":null,"stopTime":"2019-06-25 18:50:35","powerType":"全部","powerOffArea":"35kV塘头变:瓜镇C477线-金澳公变台区低压开关","powerOffReason":"低压漏电保护器短路故障","powerOffId":"2019062531010168"},{"poweroffId":2019062531010164,"sgpoweroffId":null,"subsName":"","lineName":"10kV新创502线","pubTranName":"围中村11#变,","scope":"浙江省-杭州市-萧山区-河庄街道(围中行政村-围中自然村),新围村一带","startTime":"2019-06-25 16:56:01","stopDate":"2019-06-25 19:20:55","orgNo":"3340120","typeCode":"电网故障停限电","poweroffArea":"35kV永丰变:新创502线-围中村11#变后段","poweroffReason":"围中村11#变后段 低压设备故障","powerTime":"2019-06-25 18:39:01","powerComm":"已送电","subsNo":"","lineNo":"","tgNo":"","tgName":null,"infoStatus":"1","orgName":"国网浙江杭州市钱塘新区供电公司","typeName":null,"infoStatusName":null,"dateDay":null,"orgNos":null,"nowTime":null,"countyName":null,"streetName":null,"villageName":null,"roadName":null,"communityName":null,"tranName":null,"sdLineName":null,"cityCode":"3340120","cityName":"国网浙江杭州市钱塘新区供电公司","provinceCode":null,"stopTime":"2019-06-25 19:20:55","powerType":"全部","powerOffArea":"35kV永丰变:新创502线-围中村11#变后段","powerOffReason":"围中村11#变后段 低压设备故障","powerOffId":"2019062531010164"},{"poweroffId":2019062531010123,"sgpoweroffId":null,"subsName":"","lineName":"10kV联胜G909线","pubTranName":"怡丰城4#基建变,余杭水利建设投资有限公司变压器,","scope":"浙江省杭州市余杭区南苑街道浙江省杭州市余杭区南苑街道：农林水利方桥港闸站、怡丰城工地一带","startTime":"2019-06-25 14:23:00","stopDate":"2019-06-25 20:00:00","orgNo":"3340140","typeCode":"电网故障停限电","poweroffArea":"110kV庙港变:联胜G909线-农林水利方桥港基建分线开关后段；联胜G909线-怡丰城4#基建变开关后段","poweroffReason":"联胜G909线-农林水利方桥港基建分线开关后段；联胜G909线-怡丰城4#基建变开关后段 电缆断线故障","powerTime":"2019-06-25 19:44:00","powerComm":"已送电","subsNo":"","lineNo":"","tgNo":"","tgName":null,"infoStatus":"1","orgName":"国网浙江杭州市余杭区供电有限公司","typeName":null,"infoStatusName":null,"dateDay":null,"orgNos":null,"nowTime":null,"countyName":null,"streetName":null,"villageName":null,"roadName":null,"communityName":null,"tranName":null,"sdLineName":null,"cityCode":"3340140","cityName":"国网浙江杭州市余杭区供电有限公司","provinceCode":null,"stopTime":"2019-06-25 20:00:00","powerType":"全部","powerOffArea":"110kV庙港变:联胜G909线-农林水利方桥港基建分线开关后段；联胜G909线-怡丰城4#基建变开关后段","powerOffReason":"联胜G909线-农林水利方桥港基建分线开关后段；联胜G909线-怡丰城4#基建变开关后段 电缆断线故障","powerOffId":"2019062531010123"},{"poweroffId":2019062531010093,"sgpoweroffId":null,"subsName":"","lineName":"10kV紫荆H873线","pubTranName":"紫荆村小学公变,环筑建材,紫荆村上皇庙公变,紫荆村路家头公变,紫荆村石盂寺公变,新泰村东溪桥砖厂变,交工路桥二绕三标2#基建变,泰山塑化,交工路桥二绕三标3#基建变,交工路桥二绕三标5#基建变,中泰武校,东溪桥石灰厂,广联复合(1),玉皇泉水,紫荆村钱家公变,广联复合(2),紫荆村上皇庙水库公变,汇雅腾鞋业（6120040909）02#专变,新泰村新泰牧场公变,紫荆村外塘坞2号公变,金红彩瓦,紫荆村方家弄公变,非凡橡胶,紫荆村车口小学公变,交工路桥二绕三标1#基建,宝力物资,交工路桥二绕三标6#基建,紫荆村铜岭坑公变,紫荆村沈家坞公变,交工路桥二绕三标8#基建变,紫荆村沙坑公变,丰硕物业,杭州市余杭区中泰中心幼儿园,二绕三标新上基变,紫荆村黄家坎公变,新泰村扇子山公变,沥青拌和,紫荆村铜岭桥公变,紫荆村横大公变,紫荆村竹园棚公变,新泰村沙塘公变,新泰村东溪村公变,新泰村桐山坞公变,紫荆村后东坞庙公变,新泰村乌龙山公变,紫荆村外塘坞公变,新泰村岑家弄2号公变,新泰村西坞岭公变,双源塑业,华易鞋业,紫荆村寺前公变,紫荆村里塘坞公变,新泰村洪家公变,紫荆村车口畈公变,汇雅腾鞋业（6120040909）01#专变,交工路桥二绕三标7#基建变,新泰村杨澄弄公变,紫荆村丁家公变,新泰村马岭脚公变,紫荆村巴家桥公变,新泰村岑家弄公变,交工路桥二绕三标16#基建变,紫荆村后东坞公变,一展塑业,吉树木业,凯翔塑业,新泰村杨澄弄西公变,交工路桥二绕三标4#基建变,新泰村东溪桥东公变,","scope":"浙江省-杭州市-余杭区-余杭街道凤联社区-宝林路、联兴路、通济路、禹航路,中泰街道新泰行政村-新泰自然村,紫荆行政村-紫荆自然村;杭州宝力物资再生利用有限公司,杭州广联复合材料有限公司,杭州国泽实业有限公司,杭州环筑建材有限公司,杭州汇雅腾鞋业有限公司,杭州吉龙盛饮品有限公司,杭州杰泰助剂有限公司,杭州晶冉五金制造有限公司,杭州凯翔塑业有限公司,杭州盛翔化工有限公司,杭州市余杭区中泰武术学校,杭州市余杭区中泰中心幼儿园,杭州双源塑业有限公司,杭州同舟沥青有限公司余杭分公司,杭州一展塑业有限公司,杭州余杭区中泰街道黄太峰建材经营部,余杭市泰山东溪桥石灰厂,浙江交工路桥建设有限公司,浙江欧耐斯屋面瓦业有限公司一带","startTime":"2019-06-25 11:44:44","stopDate":"2019-06-25 14:00:00","orgNo":"3340140","typeCode":"电网故障停限电","poweroffArea":"110kV中泰变:紫荆H873线-新泰分线开关后段 原停电结束时间为15点00分，由于施工力量强大，提前完成工作，现变更至14点00分","poweroffReason":"新泰分线开关后段 架空线断线故障 原停电结束时间为15点00分，由于施工力量强大，提前完成工作，现变更至14点00分","powerTime":"2019-06-25 13:50:00","powerComm":"已送电","subsNo":"","lineNo":"","tgNo":"","tgName":null,"infoStatus":"1","orgName":"国网浙江杭州市余杭区供电有限公司","typeName":null,"infoStatusName":null,"dateDay":null,"orgNos":null,"nowTime":null,"countyName":null,"streetName":null,"villageName":null,"roadName":null,"communityName":null,"tranName":null,"sdLineName":null,"cityCode":"3340140","cityName":"国网浙江杭州市余杭区供电有限公司","provinceCode":null,"stopTime":"2019-06-25 14:00:00","powerType":"全部","powerOffArea":"110kV中泰变:紫荆H873线-新泰分线开关后段 原停电结束时间为15点00分，由于施工力量强大，提前完成工作，现变更至14点00分","powerOffReason":"新泰分线开关后段 架空线断线故障 原停电结束时间为15点00分，由于施工力量强大，提前完成工作，现变更至14点00分","powerOffId":"2019062531010093"},{"poweroffId":2019062531010092,"sgpoweroffId":null,"subsName":"","lineName":"10kV石材T143线","pubTranName":"下邵2号公变,","scope":"浙江省-杭州市-桐庐县-钟山乡(钟山行政村-前中畈自然村、下邵自然村);","startTime":"2019-06-25 11:31:11","stopDate":"2019-06-25 15:32:45","orgNo":"3340150","typeCode":"电网故障停限电","poweroffArea":"35kV钟山变:石材T143线-下邵2号公变后段","poweroffReason":"低压开关烧。","powerTime":"2019-06-25 15:20:36","powerComm":"已送电。","subsNo":"","lineNo":"","tgNo":"","tgName":null,"infoStatus":"1","orgName":"国网浙江桐庐县供电公司","typeName":null,"infoStatusName":null,"dateDay":null,"orgNos":null,"nowTime":null,"countyName":null,"streetName":null,"villageName":null,"roadName":null,"communityName":null,"tranName":null,"sdLineName":null,"cityCode":"3340150","cityName":"国网浙江桐庐县供电公司","provinceCode":null,"stopTime":"2019-06-25 15:32:45","powerType":"全部","powerOffArea":"35kV钟山变:石材T143线-下邵2号公变后段","powerOffReason":"低压开关烧。","powerOffId":"2019062531010092"}],"pageModel":{"pageNow":1546,"totalCount":17789,"totalPage":1779,"tableRows":0,"pageCount":10,"beginCount":15450},"isExperi":"1"}