{"message":"","today":"2020-06-16","seleList":[{"poweroffId":2019062531010089,"sgpoweroffId":null,"subsName":"","lineName":"10kV城后V512线","pubTranName":"10kV牧亭村[里麻黄]公变,10kV牧亭村[外麻黄]公变,","scope":"浙江省杭州市临安区潜川镇里麻黄、外麻黄一带","startTime":"2019-07-04 07:40:00","stopDate":"2019-07-04 17:20:00","orgNo":"3340160","typeCode":"计划停电","poweroffArea":"城后V512线海龙分线4#杆麻黄支线","poweroffReason":"城后V512线海龙分线麻黄支线19#杆-33#杆立杆、19#-33#杆导线调换，麻黄支线33#杆牧亭村（里麻黄）公变增容至400KVA，配变安装，9#杆牧亭村（外麻黄）公变增容至400KVA，立杆、配变安装","powerTime":"2019-07-04 17:10:19","powerComm":"已送电","subsNo":"","lineNo":"","tgNo":"","tgName":null,"infoStatus":"1","orgName":"国网浙江临安市供电公司","typeName":null,"infoStatusName":null,"dateDay":null,"orgNos":null,"nowTime":null,"countyName":null,"streetName":null,"villageName":null,"roadName":null,"communityName":null,"tranName":null,"sdLineName":null,"cityCode":"3340160","cityName":"国网浙江临安市供电公司","provinceCode":null,"stopTime":"2019-07-04 17:20:00","powerType":"全部","powerOffArea":"城后V512线海龙分线4#杆麻黄支线","powerOffReason":"城后V512线海龙分线麻黄支线19#杆-33#杆立杆、19#-33#杆导线调换，麻黄支线33#杆牧亭村（里麻黄）公变增容至400KVA，配变安装，9#杆牧亭村（外麻黄）公变增容至400KVA，立杆、配变安装","powerOffId":"2019062531010089"},{"poweroffId":2019062531010078,"sgpoweroffId":null,"subsName":"","lineName":"10kV高地G917线","pubTranName":"京辉置业5#基建变,美成市政园林羊头坝港基建,高地5组（沈家木桥）公变,高地5组2号公变,高地5组3号公变,京辉置业2#基建变,京辉置业4#基建变,杭州春城建设有限公司61208253671#变压器,杭州余杭城市建设集团有限公司变压器,京辉置业6#基建变,翁梅社区过渡房,余杭水利建设投资有限公司变压器,光大建设翁梅基建变,京辉置业3#基建变,京辉置业1#基建变,翁乔路2#路灯变,","scope":"浙江省-杭州市-余杭区-南苑街道高地社区-高地、沈家木桥自然村、祝尖坝自然村;杭州春城建设有限公司,杭州京辉置业有限公司,杭州美成市政园林工程有限公司,杭州市余杭区河道建设管理中心,杭州市余杭区南苑街道翁梅社区居民委员会,杭州余杭城市建设集团有限公司,浙江光大建设集团有限公司一带","startTime":"2019-06-25 09:55:00","stopDate":"2019-06-25 14:00:00","orgNo":"3340140","typeCode":"电网故障停限电","poweroffArea":"110kV庙港变:高地G917线","poweroffReason":"高地G917线 架空线断线故障","powerTime":"2019-06-25 13:54:00","powerComm":"已送电","subsNo":"","lineNo":"","tgNo":"","tgName":null,"infoStatus":"1","orgName":"国网浙江杭州市余杭区供电有限公司","typeName":null,"infoStatusName":null,"dateDay":null,"orgNos":null,"nowTime":null,"countyName":null,"streetName":null,"villageName":null,"roadName":null,"communityName":null,"tranName":null,"sdLineName":null,"cityCode":"3340140","cityName":"国网浙江杭州市余杭区供电有限公司","provinceCode":null,"stopTime":"2019-06-25 14:00:00","powerType":"全部","powerOffArea":"110kV庙港变:高地G917线","powerOffReason":"高地G917线 架空线断线故障","powerOffId":"2019062531010078"},{"poweroffId":2019062531010059,"sgpoweroffId":null,"subsName":"","lineName":"10kV天荷G169线","pubTranName":"大众汽修,1#,天奇印染（6110223353）1#变,巨岛实业,天奇印染（一）,超峰针织（二）,杭州万联汽车有限公司,横塘村新安河公变,横塘村2组南公变,世纪公园,横塘村红星2#公变,超峰针织（一）,横塘村二组,红丰村杨市河北公变,红丰村杨市河北2号公变,超峰针织（三）,天奇印染（二）,经纬公司,横塘村红星,","scope":"浙江省-杭州市-余杭区-东湖街道横塘社区-横塘自然村、新安河自然村,红丰社区-杨树河自然村,临平街道红丰社区-天荷路;超丰实业（杭州）有限公司,杭州柏发建材有限公司,杭州天奇印染有限公司,杭州万联汽车有限公司,杭州余杭经济开发建设有限公司,杭州余杭协爱中医医院有限公司,余杭市经纬房地产有限公司,元泽汽车集团有限公司一带","startTime":"2019-06-25 09:14:00","stopDate":"2019-06-25 14:00:00","orgNo":"3340140","typeCode":"电网故障停限电","poweroffArea":"110kV丘山变:天荷G169线","poweroffReason":"天荷G169线 架空线断线故障","powerTime":"2019-06-25 13:48:00","powerComm":"已送电","subsNo":"","lineNo":"","tgNo":"","tgName":null,"infoStatus":"1","orgName":"国网浙江杭州市余杭区供电有限公司","typeName":null,"infoStatusName":null,"dateDay":null,"orgNos":null,"nowTime":null,"countyName":null,"streetName":null,"villageName":null,"roadName":null,"communityName":null,"tranName":null,"sdLineName":null,"cityCode":"3340140","cityName":"国网浙江杭州市余杭区供电有限公司","provinceCode":null,"stopTime":"2019-06-25 14:00:00","powerType":"全部","powerOffArea":"110kV丘山变:天荷G169线","powerOffReason":"天荷G169线 架空线断线故障","powerOffId":"2019062531010059"},{"poweroffId":2019062531010049,"sgpoweroffId":null,"subsName":"","lineName":"10kV农校H413线","pubTranName":"施家湾社区老街公变,","scope":"浙江省-杭州市-余杭区-良渚街道勾庄行政村-朝辉路、勾庄街道、勾庄老街、勾庄路、粮站弄、良博路、马铺路一带","startTime":"2019-06-25 08:55:00","stopDate":"2019-06-25 16:30:00","orgNo":"3340140","typeCode":"电网故障停限电","poweroffArea":"35kV良渚变:农校H413线-施家湾社区老街公变后段 原停电结束时间为11点00分，由于现场情况复杂，现变更至16点30分","poweroffReason":"施家湾社区老街公变后段 低压断线故障 原停电结束时间为11点00分，由于现场情况复杂，现变更至16点30分","powerTime":"2019-06-25 16:16:00","powerComm":"已送电","subsNo":"","lineNo":"","tgNo":"","tgName":null,"infoStatus":"1","orgName":"国网浙江杭州市余杭区供电有限公司","typeName":null,"infoStatusName":null,"dateDay":null,"orgNos":null,"nowTime":null,"countyName":null,"streetName":null,"villageName":null,"roadName":null,"communityName":null,"tranName":null,"sdLineName":null,"cityCode":"3340140","cityName":"国网浙江杭州市余杭区供电有限公司","provinceCode":null,"stopTime":"2019-06-25 16:30:00","powerType":"全部","powerOffArea":"35kV良渚变:农校H413线-施家湾社区老街公变后段 原停电结束时间为11点00分，由于现场情况复杂，现变更至16点30分","powerOffReason":"施家湾社区老街公变后段 低压断线故障 原停电结束时间为11点00分，由于现场情况复杂，现变更至16点30分","powerOffId":"2019062531010049"},{"poweroffId":2019062531010030,"sgpoweroffId":null,"subsName":"","lineName":"10kV城东Y209线","pubTranName":"财富2#公变,","scope":"浙江省-杭州市-建德市-新安江街道明珠社区-新安东路银丰商厦一带用户.","startTime":"2019-06-25 07:20:00","stopDate":"2019-06-25 11:00:00","orgNo":"3340180","typeCode":"电网故障停限电","poweroffArea":"110kV白沙变:城东Y209线-财富2#公变后段","poweroffReason":"城东Y209线-财富2#公变 低压配电设备故障 原预计停电结束时间14:00，由于施工现场环境比较复杂，存在不确定因素，因此预估施工时间适当放长了,目前故障已修复，现将停电结束时间变更至11:00","powerTime":"2019-06-25 10:38:00","powerComm":"已送电","subsNo":"","lineNo":"","tgNo":"","tgName":null,"infoStatus":"1","orgName":"国网浙江建德市供电有限公司","typeName":null,"infoStatusName":null,"dateDay":null,"orgNos":null,"nowTime":null,"countyName":null,"streetName":null,"villageName":null,"roadName":null,"communityName":null,"tranName":null,"sdLineName":null,"cityCode":"3340180","cityName":"国网浙江建德市供电有限公司","provinceCode":null,"stopTime":"2019-06-25 11:00:00","powerType":"全部","powerOffArea":"110kV白沙变:城东Y209线-财富2#公变后段","powerOffReason":"城东Y209线-财富2#公变 低压配电设备故障 原预计停电结束时间14:00，由于施工现场环境比较复杂，存在不确定因素，因此预估施工时间适当放长了,目前故障已修复，现将停电结束时间变更至11:00","powerOffId":"2019062531010030"},{"poweroffId":2019062531010028,"sgpoweroffId":null,"subsName":"","lineName":"10kV怡合199线","pubTranName":"大山1号公变,","scope":"浙江省-杭州市-桐庐县-分水镇(外范行政村-大山自然村);","startTime":"2019-06-25 07:27:09","stopDate":"2019-06-25 10:28:04","orgNo":"3340150","typeCode":"电网故障停限电","poweroffArea":"35kV合村变:怡合199线-大山1号公变后段","poweroffReason":"低压开关故障处理","powerTime":"2019-06-25 10:11:21","powerComm":"已送电。","subsNo":"","lineNo":"","tgNo":"","tgName":null,"infoStatus":"1","orgName":"国网浙江桐庐县供电公司","typeName":null,"infoStatusName":null,"dateDay":null,"orgNos":null,"nowTime":null,"countyName":null,"streetName":null,"villageName":null,"roadName":null,"communityName":null,"tranName":null,"sdLineName":null,"cityCode":"3340150","cityName":"国网浙江桐庐县供电公司","provinceCode":null,"stopTime":"2019-06-25 10:28:04","powerType":"全部","powerOffArea":"35kV合村变:怡合199线-大山1号公变后段","powerOffReason":"低压开关故障处理","powerOffId":"2019062531010028"},{"poweroffId":2019062531010025,"sgpoweroffId":null,"subsName":"","lineName":"10kV站用T176线","pubTranName":"保安潘家3号公变,","scope":"浙江省-杭州市-桐庐县-分水镇(保安行政村-潘家自然村);","startTime":"2019-06-25 07:23:04","stopDate":"2019-06-25 10:26:09","orgNo":"3340150","typeCode":"电网故障停限电","poweroffArea":"110kV分水变:站用T176线-保安潘家3号公变后段","poweroffReason":"低压开关故障处理","powerTime":"2019-06-25 10:10:33","powerComm":"已送电。","subsNo":"","lineNo":"","tgNo":"","tgName":null,"infoStatus":"1","orgName":"国网浙江桐庐县供电公司","typeName":null,"infoStatusName":null,"dateDay":null,"orgNos":null,"nowTime":null,"countyName":null,"streetName":null,"villageName":null,"roadName":null,"communityName":null,"tranName":null,"sdLineName":null,"cityCode":"3340150","cityName":"国网浙江桐庐县供电公司","provinceCode":null,"stopTime":"2019-06-25 10:26:09","powerType":"全部","powerOffArea":"110kV分水变:站用T176线-保安潘家3号公变后段","powerOffReason":"低压开关故障处理","powerOffId":"2019062531010025"},{"poweroffId":2019062531010010,"sgpoweroffId":null,"subsName":"","lineName":"龙门D787线","pubTranName":"","scope":"浙江省杭州市富阳区龙门镇一带","startTime":"2019-06-25 06:00:00","stopDate":"2019-06-25 07:00:00","orgNo":"3340170","typeCode":"电网故障停限电","poweroffArea":"龙门D787线","poweroffReason":"低压配电设备故障","powerTime":"2019-06-25 06:55:26","powerComm":"已收到","subsNo":"","lineNo":"","tgNo":"","tgName":null,"infoStatus":"1","orgName":"国网浙江杭州市富阳区供电公司","typeName":null,"infoStatusName":null,"dateDay":null,"orgNos":null,"nowTime":null,"countyName":null,"streetName":null,"villageName":null,"roadName":null,"communityName":null,"tranName":null,"sdLineName":null,"cityCode":"3340170","cityName":"国网浙江杭州市富阳区供电公司","provinceCode":null,"stopTime":"2019-06-25 07:00:00","powerType":"全部","powerOffArea":"龙门D787线","powerOffReason":"低压配电设备故障","powerOffId":"2019062531010010"},{"poweroffId":2019062531010007,"sgpoweroffId":null,"subsName":"","lineName":"10kV白鹤D240线","pubTranName":"富春江花苑6#公变,富阳市水务有限公司,富阳市东洲街道黄公望村村民委员会,富春玫瑰园3#公变,杭州华滋绿城房地产有限公司2#变,富春江花苑5#公变,富春江花苑2#公变,中辰房地产1#公变,杭州华滋绿城房地产有限公司3#变,富春江花苑1#公变,中国电信股份有限公司富阳分公司,富春玫瑰园1#公变,杭州香溢春江山居置业有限公司,杭州华滋绿城房地产有限公司,富春江花苑3#公变,富春玫瑰园2#公变,黄公望1#公变,黄公望3#公变,杭州香溢春江山居置业有限公司,杭州华滋绿城房地产有限公司,黄公望2#公变,杭州华滋绿城房地产有限公司,黄公望4号公变,富阳市东洲街道黄公望村村民委员会,杭州华滋绿城房地产有限公司1#变,富春江花苑4#公变,","scope":"浙江省-杭州市-富阳区-东洲街道(黄公望行政村-白鹤自然村、江滨东大道、庙山坞东路、株林坞自然村);(富阳市东洲街道黄公望村村民委员会,杭州富阳水务有限公司,杭州华滋绿城房地产有限公司,杭州香溢春江山居置业有限公司,中国电信股份有限公司富阳分公司);","startTime":"2019-06-25 04:47:45","stopDate":"2019-06-25 06:00:22","orgNo":"3340170","typeCode":"电网故障停限电","poweroffArea":"110kV白鹤变:白鹤D240线-华士村2#里公变，华士村1#村中公变之间","poweroffReason":"高压柱上隔离开关跳闸，原停电结束时间2019-06-25 07:47:47，因抢修力度加强变更至2019-06-25 06:00:22","powerTime":"2019-06-25 05:12:44","powerComm":"已收到","subsNo":"","lineNo":"","tgNo":"","tgName":null,"infoStatus":"1","orgName":"国网浙江杭州市富阳区供电公司","typeName":null,"infoStatusName":null,"dateDay":null,"orgNos":null,"nowTime":null,"countyName":null,"streetName":null,"villageName":null,"roadName":null,"communityName":null,"tranName":null,"sdLineName":null,"cityCode":"3340170","cityName":"国网浙江杭州市富阳区供电公司","provinceCode":null,"stopTime":"2019-06-25 06:00:22","powerType":"全部","powerOffArea":"110kV白鹤变:白鹤D240线-华士村2#里公变，华士村1#村中公变之间","powerOffReason":"高压柱上隔离开关跳闸，原停电结束时间2019-06-25 07:47:47，因抢修力度加强变更至2019-06-25 06:00:22","powerOffId":"2019062531010007"},{"poweroffId":2019062531010006,"sgpoweroffId":null,"subsName":"","lineName":"上官D265线、盛村D266线、常绿D268线","pubTranName":"","scope":"浙江省杭州市富阳区上官乡一带，浙江省杭州市富阳区常绿镇一带，","startTime":"2019-06-25 05:00:00","stopDate":"2019-06-25 06:00:00","orgNo":"3340170","typeCode":"电网故障停限电","poweroffArea":"上官D265线、盛村D266线、常绿D268线","poweroffReason":"低压配电设备故障","powerTime":"2019-06-25 05:48:12","powerComm":"已送电","subsNo":"","lineNo":"","tgNo":"","tgName":null,"infoStatus":"1","orgName":"国网浙江杭州市富阳区供电公司","typeName":null,"infoStatusName":null,"dateDay":null,"orgNos":null,"nowTime":null,"countyName":null,"streetName":null,"villageName":null,"roadName":null,"communityName":null,"tranName":null,"sdLineName":null,"cityCode":"3340170","cityName":"国网浙江杭州市富阳区供电公司","provinceCode":null,"stopTime":"2019-06-25 06:00:00","powerType":"全部","powerOffArea":"上官D265线、盛村D266线、常绿D268线","powerOffReason":"低压配电设备故障","powerOffId":"2019062531010006"}],"pageModel":{"pageNow":1547,"totalCount":17789,"totalPage":1779,"tableRows":0,"pageCount":10,"beginCount":15460},"isExperi":"1"}