{"message":"","today":"2020-06-16","seleList":[{"poweroffId":2019062431020039,"sgpoweroffId":null,"subsName":"","lineName":"10kV新博G031线","pubTranName":"运河镇博陆村南园新区北公变,","scope":"浙江省-杭州市-余杭区-运河街道：南园村新区北一带","startTime":"2019-07-12 08:00:00","stopDate":"2019-07-12 16:00:00","orgNo":"3340140","typeCode":"计划停电","poweroffArea":"110kV五杭变:新博G031线-南园新村北区开关后段","poweroffReason":"博陆南园新区北变增至630kVA，调换电缆2根","powerTime":"2019-07-12 15:36:30","powerComm":"完成工作，已送电","subsNo":"","lineNo":"","tgNo":"","tgName":null,"infoStatus":"1","orgName":"国网浙江杭州市余杭区供电有限公司","typeName":null,"infoStatusName":null,"dateDay":null,"orgNos":null,"nowTime":null,"countyName":null,"streetName":null,"villageName":null,"roadName":null,"communityName":null,"tranName":null,"sdLineName":null,"cityCode":"3340140","cityName":"国网浙江杭州市余杭区供电有限公司","provinceCode":null,"stopTime":"2019-07-12 16:00:00","powerType":"全部","powerOffArea":"110kV五杭变:新博G031线-南园新村北区开关后段","powerOffReason":"博陆南园新区北变增至630kVA，调换电缆2根","powerOffId":"2019062431020039"},{"poweroffId":2019062431020037,"sgpoweroffId":null,"subsName":"","lineName":"10kV竹乡H568线","pubTranName":"三园茶业配电变压器,2＃,武林机械,茶厂,杭州通策电缆,三叶青农业612069565301#专变,3#,根顺五金,杭州菲尔卡斯化工涂料有限公司,明柯汽车,中哲建材2#,冠道机械（6120114641）2#变,华田环保,茶厂基建变,朗益塑胶2#,冠道机械（6120114641）1#变,中哲建材1#,王位山村夹石弄公变,王位山村走马堂公变,玉王紧固件,5#,王位山村德王位山公变,王位山村余王位山公变,中哲建材4,2＃,","scope":"浙江省杭州市余杭区黄湖镇：王位山村德王位山、王位山村余王位山、茶厂、三园茶业、三叶青农业、王位山村走马堂、玉王紧固件公司、根顺五金公司、朗益塑胶公司、王位山村夹石弄、华田环保公司、冠道机械公司、杭州通策电缆公司、武林机械公司、杭州菲尔卡斯化工涂料有限公司、明柯汽车公司、中哲建材公司一带","startTime":"2019-07-07 08:40:00","stopDate":"2019-07-07 13:40:00","orgNo":"3340140","typeCode":"计划停电","poweroffArea":"竹乡H568线王位山分线","poweroffReason":"计划工作","powerTime":"2019-07-07 12:51:46","powerComm":"全部送电","subsNo":"","lineNo":"","tgNo":"","tgName":null,"infoStatus":"1","orgName":"国网浙江杭州市余杭区供电有限公司","typeName":null,"infoStatusName":null,"dateDay":null,"orgNos":null,"nowTime":null,"countyName":null,"streetName":null,"villageName":null,"roadName":null,"communityName":null,"tranName":null,"sdLineName":null,"cityCode":"3340140","cityName":"国网浙江杭州市余杭区供电有限公司","provinceCode":null,"stopTime":"2019-07-07 13:40:00","powerType":"全部","powerOffArea":"竹乡H568线王位山分线","powerOffReason":"计划工作","powerOffId":"2019062431020037"},{"poweroffId":2019062431020034,"sgpoweroffId":null,"subsName":"","lineName":"10kV坪里H572线","pubTranName":"中纺织造3#,康成皮革2,杭州四达机械,嘉杭实业,飞虎数控,康成皮革3,油脂化工,1#,路灯变,中纺织造2#,嘉诚健身（旺昌食品）,中纺织造1#,普莱美石材,嘉航,杭州瑞腾建筑材料有限公,康成皮革,","scope":"浙江省杭州市余杭区黄湖镇：杭州四达机械公司、油脂化工公司、中纺织造公司、普莱美石材公司、飞虎数控公司、嘉诚健身公司、康成皮革公司、杭州瑞腾建筑材料有限公司、嘉航公司、嘉航实业公司、路灯变、杭州通策电缆公司一带","startTime":"2019-07-07 08:40:00","stopDate":"2019-07-07 13:40:00","orgNo":"3340140","typeCode":"计划停电","poweroffArea":"坪里H572线杭州通策电缆2分线","poweroffReason":"计划工作","powerTime":"2019-07-07 12:51:18","powerComm":"全部送电","subsNo":"","lineNo":"","tgNo":"","tgName":null,"infoStatus":"1","orgName":"国网浙江杭州市余杭区供电有限公司","typeName":null,"infoStatusName":null,"dateDay":null,"orgNos":null,"nowTime":null,"countyName":null,"streetName":null,"villageName":null,"roadName":null,"communityName":null,"tranName":null,"sdLineName":null,"cityCode":"3340140","cityName":"国网浙江杭州市余杭区供电有限公司","provinceCode":null,"stopTime":"2019-07-07 13:40:00","powerType":"全部","powerOffArea":"坪里H572线杭州通策电缆2分线","powerOffReason":"计划工作","powerOffId":"2019062431020034"},{"poweroffId":2019062431020029,"sgpoweroffId":null,"subsName":"","lineName":"10kV小山H715线","pubTranName":"洪桐村柏家公变,洪桐村青龙公变,永安村泰山木桥公变,","scope":"浙江省杭州市余杭区余杭街道:洪桐村青龙、洪桐村柏家、洪桐村泰山木桥一带","startTime":"2019-07-05 08:40:00","stopDate":"2019-07-05 16:40:00","orgNo":"3340140","typeCode":"计划停电","poweroffArea":"110kV余杭变:小山H715线-木桥分线开关后段","poweroffReason":"计划工作,原停电结束时间16：30，因抢修力量充足，提前完成工作任务，现变更停电结束时间至16：00","powerTime":"2019-07-05 15:51:42","powerComm":"工作结束","subsNo":"","lineNo":"","tgNo":"","tgName":null,"infoStatus":"1","orgName":"国网浙江杭州市余杭区供电有限公司","typeName":null,"infoStatusName":null,"dateDay":null,"orgNos":null,"nowTime":null,"countyName":null,"streetName":null,"villageName":null,"roadName":null,"communityName":null,"tranName":null,"sdLineName":null,"cityCode":"3340140","cityName":"国网浙江杭州市余杭区供电有限公司","provinceCode":null,"stopTime":"2019-07-05 16:40:00","powerType":"全部","powerOffArea":"110kV余杭变:小山H715线-木桥分线开关后段","powerOffReason":"计划工作,原停电结束时间16：30，因抢修力量充足，提前完成工作任务，现变更停电结束时间至16：00","powerOffId":"2019062431020029"},{"poweroffId":2019062431020026,"sgpoweroffId":null,"subsName":"","lineName":"10kV胡桥G945线","pubTranName":"第四小学61205837002#专变,","scope":"浙江省杭州市余杭区东湖街道：开发区第四（第五）小学一带","startTime":"2019-07-20 08:00:00","stopDate":"2019-07-20 15:00:00","orgNo":"3340140","typeCode":"计划停电","poweroffArea":"110kV亭趾变:胡桥G945线-余杭生物医药园区1号基建变断路器后段 因雨天导致计划变更 因施工力量充足，原计划送电时间2019-07-20 16:00:00更改为2019-07-20 15:00:00","poweroffReason":"基建线路搭接至胡桥G945线23号杆，割接胡桥G945线后段负荷 因雨天导致计划变更 因施工力量充足，原计划送电时间2019-07-20 16:00:00更改为2019-07-20 15:00:00","powerTime":"2019-07-20 14:10:00","powerComm":"工作完成","subsNo":"","lineNo":"","tgNo":"","tgName":null,"infoStatus":"1","orgName":"国网浙江杭州市余杭区供电有限公司","typeName":null,"infoStatusName":null,"dateDay":null,"orgNos":null,"nowTime":null,"countyName":null,"streetName":null,"villageName":null,"roadName":null,"communityName":null,"tranName":null,"sdLineName":null,"cityCode":"3340140","cityName":"国网浙江杭州市余杭区供电有限公司","provinceCode":null,"stopTime":"2019-07-20 15:00:00","powerType":"全部","powerOffArea":"110kV亭趾变:胡桥G945线-余杭生物医药园区1号基建变断路器后段 因雨天导致计划变更 因施工力量充足，原计划送电时间2019-07-20 16:00:00更改为2019-07-20 15:00:00","powerOffReason":"基建线路搭接至胡桥G945线23号杆，割接胡桥G945线后段负荷 因雨天导致计划变更 因施工力量充足，原计划送电时间2019-07-20 16:00:00更改为2019-07-20 15:00:00","powerOffId":"2019062431020026"},{"poweroffId":2019062431020025,"sgpoweroffId":null,"subsName":"","lineName":"10kV石坝G039线","pubTranName":"石坝村一组公变,交通项目管理公司160,","scope":"浙江省杭州市余杭区东湖街道：石坝村1组一带","startTime":"2019-07-02 08:00:00","stopDate":"2019-07-02 15:00:00","orgNo":"3340140","typeCode":"计划停电","poweroffArea":"110kV五杭变:石坝G039线首端，石坝G0394开关，石坝G0390开关之间 因施工力量充足，原送电时间2019-07-02 16:00:00更改为2019-07-02 15:00:00","poweroffReason":"石坝G039线新立电杆两基，电缆上杆搭接 因施工力量充足，原送电时间2019-07-02 16:00:00更改为2019-07-02 15:00:00","powerTime":"2019-07-02 14:25:00","powerComm":"工作完成","subsNo":"","lineNo":"","tgNo":"","tgName":null,"infoStatus":"1","orgName":"国网浙江杭州市余杭区供电有限公司","typeName":null,"infoStatusName":null,"dateDay":null,"orgNos":null,"nowTime":null,"countyName":null,"streetName":null,"villageName":null,"roadName":null,"communityName":null,"tranName":null,"sdLineName":null,"cityCode":"3340140","cityName":"国网浙江杭州市余杭区供电有限公司","provinceCode":null,"stopTime":"2019-07-02 15:00:00","powerType":"全部","powerOffArea":"110kV五杭变:石坝G039线首端，石坝G0394开关，石坝G0390开关之间 因施工力量充足，原送电时间2019-07-02 16:00:00更改为2019-07-02 15:00:00","powerOffReason":"石坝G039线新立电杆两基，电缆上杆搭接 因施工力量充足，原送电时间2019-07-02 16:00:00更改为2019-07-02 15:00:00","powerOffId":"2019062431020025"},{"poweroffId":2019062431020023,"sgpoweroffId":null,"subsName":"","lineName":"10kV吴山H795线","pubTranName":"永乐扒灰桥公变,","scope":"浙江省杭州市余杭区仓前街道：永乐扒灰桥一带","startTime":"2019-07-15 08:40:00","stopDate":"2019-07-15 12:40:00","orgNo":"3340140","typeCode":"计划停电","poweroffArea":"吴山H795线卖盐塘分线","poweroffReason":"业扩工程（北控环境余杭塘河河道整治乐泉H840线等线路上改下工程）：吴山H795线拆除扒灰桥公变同杆架设低压导线6档、拔除电杆6基。","powerTime":"2019-07-15 12:12:43","powerComm":"已送电","subsNo":"","lineNo":"","tgNo":"","tgName":null,"infoStatus":"1","orgName":"国网浙江杭州市余杭区供电有限公司","typeName":null,"infoStatusName":null,"dateDay":null,"orgNos":null,"nowTime":null,"countyName":null,"streetName":null,"villageName":null,"roadName":null,"communityName":null,"tranName":null,"sdLineName":null,"cityCode":"3340140","cityName":"国网浙江杭州市余杭区供电有限公司","provinceCode":null,"stopTime":"2019-07-15 12:40:00","powerType":"全部","powerOffArea":"吴山H795线卖盐塘分线","powerOffReason":"业扩工程（北控环境余杭塘河河道整治乐泉H840线等线路上改下工程）：吴山H795线拆除扒灰桥公变同杆架设低压导线6档、拔除电杆6基。","powerOffId":"2019062431020023"},{"poweroffId":2019062431020017,"sgpoweroffId":null,"subsName":"","lineName":"10kV独山G137线","pubTranName":"龙旋村山前农居点1-2#公变,龙旋村山前农居点1-1#公变,","scope":"浙江省杭州市余杭区崇贤街道：龙旋村山前农居点一带","startTime":"2019-08-14 08:20:00","stopDate":"2019-08-14 16:30:00","orgNo":"3340140","typeCode":"计划停电","poweroffArea":"35kV沾桥变:独山G137线龙旋村公变站分线","poweroffReason":"2019年杭州余杭塘栖10千伏中尚线橄榄树公变改造工程：龙旋村公变站龙旋村农居点2台公变更换工作","powerTime":"2019-08-14 15:54:14","powerComm":"已送电","subsNo":"","lineNo":"","tgNo":"","tgName":null,"infoStatus":"1","orgName":"国网浙江杭州市余杭区供电有限公司","typeName":null,"infoStatusName":null,"dateDay":null,"orgNos":null,"nowTime":null,"countyName":null,"streetName":null,"villageName":null,"roadName":null,"communityName":null,"tranName":null,"sdLineName":null,"cityCode":"3340140","cityName":"国网浙江杭州市余杭区供电有限公司","provinceCode":null,"stopTime":"2019-08-14 16:30:00","powerType":"全部","powerOffArea":"35kV沾桥变:独山G137线龙旋村公变站分线","powerOffReason":"2019年杭州余杭塘栖10千伏中尚线橄榄树公变改造工程：龙旋村公变站龙旋村农居点2台公变更换工作","powerOffId":"2019062431020017"},{"poweroffId":2019062431020016,"sgpoweroffId":null,"subsName":"","lineName":"10kV树兰G992线","pubTranName":"杭州余杭新新活动房有限公司,安达汽修,杭州市余杭区人民政府星桥街道办事处 6120445672,","scope":"浙江省-杭州市-余杭区-东湖街道：星桥街道办事处、曙光路路灯、电力气体厂（安达汽修）一带","startTime":"2019-07-01 09:00:00","stopDate":"2019-07-01 14:45:00","orgNo":"3340140","typeCode":"计划停电","poweroffArea":"110kV茅山变:树兰G992线首端，桥书G99232开关，书香开关站北书G9923线之间。因工作任务提前完成，原计划停电结束时间为2019年7月1日16时，现变更为2019年7月1日14时45分结束送电。","poweroffReason":"北书G9923线18#杆安达汽修分线拆除电杆1基、钢管塔1基、立杆1基、开耐张、做啦1组","powerTime":"2019-07-01 14:30:27","powerComm":"完成工作，已送电。","subsNo":"","lineNo":"","tgNo":"","tgName":null,"infoStatus":"1","orgName":"国网浙江杭州市余杭区供电有限公司","typeName":null,"infoStatusName":null,"dateDay":null,"orgNos":null,"nowTime":null,"countyName":null,"streetName":null,"villageName":null,"roadName":null,"communityName":null,"tranName":null,"sdLineName":null,"cityCode":"3340140","cityName":"国网浙江杭州市余杭区供电有限公司","provinceCode":null,"stopTime":"2019-07-01 14:45:00","powerType":"全部","powerOffArea":"110kV茅山变:树兰G992线首端，桥书G99232开关，书香开关站北书G9923线之间。因工作任务提前完成，原计划停电结束时间为2019年7月1日16时，现变更为2019年7月1日14时45分结束送电。","powerOffReason":"北书G9923线18#杆安达汽修分线拆除电杆1基、钢管塔1基、立杆1基、开耐张、做啦1组","powerOffId":"2019062431020016"},{"poweroffId":2019062431020002,"sgpoweroffId":null,"subsName":"","lineName":"10kV桥东T180线","pubTranName":"桥东祠堂山1号公变,","scope":"浙江省-杭州市-桐庐县-分水镇-桥东行政村(新淳东路,三角塘农居点,桥东自然村)","startTime":"2019-07-04 07:00:00","stopDate":"2019-07-04 07:30:00","orgNo":"3340150","typeCode":"计划停电","poweroffArea":"110kV分水变:桥东T180线-祠堂F4716开关后段","poweroffReason":"杭州桐庐分水盛村等台区配变及低压线路改造工程 原停电结束时间2019年7月4日 16:30:00，变更停电结束时间：2019年7月4日 7:30:00，原因为：天气原因","powerTime":"2019-07-04 07:28:15","powerComm":"全部送电","subsNo":"","lineNo":"","tgNo":"","tgName":null,"infoStatus":"1","orgName":"国网浙江桐庐县供电公司","typeName":null,"infoStatusName":null,"dateDay":null,"orgNos":null,"nowTime":null,"countyName":null,"streetName":null,"villageName":null,"roadName":null,"communityName":null,"tranName":null,"sdLineName":null,"cityCode":"3340150","cityName":"国网浙江桐庐县供电公司","provinceCode":null,"stopTime":"2019-07-04 07:30:00","powerType":"全部","powerOffArea":"110kV分水变:桥东T180线-祠堂F4716开关后段","powerOffReason":"杭州桐庐分水盛村等台区配变及低压线路改造工程 原停电结束时间2019年7月4日 16:30:00，变更停电结束时间：2019年7月4日 7:30:00，原因为：天气原因","powerOffId":"2019062431020002"}],"pageModel":{"pageNow":1549,"totalCount":17789,"totalPage":1779,"tableRows":0,"pageCount":10,"beginCount":15480},"isExperi":"1"}