{"message":"","today":"2020-06-16","seleList":[{"poweroffId":2019062231020005,"sgpoweroffId":null,"subsName":"","lineName":"10kV青何D731线","pubTranName":"唐昌村唐昌1号孙家公变,","scope":"浙江省-杭州市-富阳区-永昌镇-唐昌行政村(唐昌自然村,青山自然村)","startTime":"2019-06-22 13:00:11","stopDate":"2019-06-22 17:00:11","orgNo":"3340170","typeCode":"电网故障停限电","poweroffArea":"110kV松溪变:青何D731线-唐昌村1号孙家后段","poweroffReason":"高压开关跳闸","powerTime":"2019-06-22 16:53:45","powerComm":"已送电","subsNo":"","lineNo":"","tgNo":"","tgName":null,"infoStatus":"1","orgName":"国网浙江杭州市富阳区供电公司","typeName":null,"infoStatusName":null,"dateDay":null,"orgNos":null,"nowTime":null,"countyName":null,"streetName":null,"villageName":null,"roadName":null,"communityName":null,"tranName":null,"sdLineName":null,"cityCode":"3340170","cityName":"国网浙江杭州市富阳区供电公司","provinceCode":null,"stopTime":"2019-06-22 17:00:11","powerType":"全部","powerOffArea":"110kV松溪变:青何D731线-唐昌村1号孙家后段","powerOffReason":"高压开关跳闸","powerOffId":"2019062231020005"},{"poweroffId":2019062231020004,"sgpoweroffId":null,"subsName":"","lineName":"10kV明星D424线","pubTranName":"民建村2号中公变,","scope":"浙江省-杭州市-富阳区-东洲街道-建华行政村-民建自然村","startTime":"2019-06-22 09:22:00","stopDate":"2019-06-22 11:22:00","orgNo":"3340170","typeCode":"电网故障停限电","poweroffArea":"110kV东洲变:明星D424线民建村2号中公变配变","poweroffReason":"高压开关跳闸","powerTime":"2019-06-22 10:37:16","powerComm":"已送电","subsNo":"","lineNo":"","tgNo":"","tgName":null,"infoStatus":"1","orgName":"国网浙江杭州市富阳区供电公司","typeName":null,"infoStatusName":null,"dateDay":null,"orgNos":null,"nowTime":null,"countyName":null,"streetName":null,"villageName":null,"roadName":null,"communityName":null,"tranName":null,"sdLineName":null,"cityCode":"3340170","cityName":"国网浙江杭州市富阳区供电公司","provinceCode":null,"stopTime":"2019-06-22 11:22:00","powerType":"全部","powerOffArea":"110kV东洲变:明星D424线民建村2号中公变配变","powerOffReason":"高压开关跳闸","powerOffId":"2019062231020004"},{"poweroffId":2019062231020003,"sgpoweroffId":null,"subsName":"","lineName":"10kV秋丰D985线","pubTranName":"浙江金鑫建材家居有限公司,秋丰村石塔上9号公变,杭州富鑫实业有限公司,秋丰村石塔上5号公变,秋丰村56号孙家弄公变,浙江金鑫建材家居有限公司,秋丰村孙家弄6#公变,天富塑业,杭州威化顿环境设备有限公司,秋丰村23#石塔上新区3公变,秋丰村23#石塔上新区3公变,秋丰村59号石塔上公变,秋丰村孙家弄5#公变,秋丰村54号石塔上公变,富阳市南方锅炉辅机有限公司,秋丰村孙家弄5#公变,秋丰村52号孙家垄公变,富阳市公安局,秋丰村石塔上2号公变,秋丰村石塔上9号公变变压器,秋丰村石塔上3号公变,杭州富鑫实业有限公司,富阳市中大钢化玻璃有限公司2#,浙江中环通信电缆有限公司,秋丰村22#石塔上新区2公变,秋丰村60号孙家弄新区公变,浙江中环通信电缆有限公司,秋丰村孙家弄8#公变,秋丰村10#石塔上新区公变,富阳市中大钢化玻璃有限公司,秋丰村孙家弄7#公变,秋丰村石塔上5号公变,秋丰村石塔上4#公变,杭州银通机械有限公司1#变,秋丰村孙家弄8#公变,秋丰村石塔上11号公变变压器,秋丰村孙家弄9号公变,秋丰村60号孙家弄新区公变,秋丰村52号孙家垄公变,秋丰村22#石塔上新区2公变,富阳市公安局,秋丰村孙家弄7#公变,杭州天富塑业有限公司,富阳华龙塑钢安装有限公司变压器,秋丰村6号孙家弄2公变,秋丰村石塔上12号公变,秋丰村54号石塔上公变,秋丰村25#孙家弄3#公变,秋丰村25#孙家弄3#公变,富阳市中大钢化玻璃有限公司1#,秋丰村石塔上11号公变,秋丰村石塔上4#公变,秋丰村孙家弄6#公变,秋丰村石塔上3号公变,秋丰村孙家弄9号公变,富阳市华耀通信设备有限公司,秋丰村7号石塔上公变,秋丰村石塔上2号公变,秋丰村10#石塔上新区公变,","scope":"浙江省-杭州市-富阳区-富春街道(秋丰行政村-秋丰自然村,金桥社区-横凉亭路);富春街道(杭州威仕顿环境设备有限公司,杭州衡立五金压铸厂,杭州天富塑业有限公司,杭州富阳南方锅炉辅机有限公司,杭州富阳天立机械有限公司,杭州华耀通信设备有限公司,富阳市公安局,浙江中环通信电缆有限公司,杭州富鑫实业有限公司,浙江金鑫建材家居有限公司,杭州富阳中大钢化玻璃有限公司)","startTime":"2019-06-22 09:10:00","stopDate":"2019-06-22 11:10:00","orgNo":"3340170","typeCode":"电网故障停限电","poweroffArea":"110kV育才变:秋丰D985线秋丰D9851开关后段","poweroffReason":"高压开关跳闸","powerTime":"2019-06-22 10:36:53","powerComm":"已送电","subsNo":"","lineNo":"","tgNo":"","tgName":null,"infoStatus":"1","orgName":"国网浙江杭州市富阳区供电公司","typeName":null,"infoStatusName":null,"dateDay":null,"orgNos":null,"nowTime":null,"countyName":null,"streetName":null,"villageName":null,"roadName":null,"communityName":null,"tranName":null,"sdLineName":null,"cityCode":"3340170","cityName":"国网浙江杭州市富阳区供电公司","provinceCode":null,"stopTime":"2019-06-22 11:10:00","powerType":"全部","powerOffArea":"110kV育才变:秋丰D985线秋丰D9851开关后段","powerOffReason":"高压开关跳闸","powerOffId":"2019062231020003"},{"poweroffId":2019062231020001,"sgpoweroffId":null,"subsName":"","lineName":"10kV富华D230线","pubTranName":"杭州鸿世电器有限公司,紫薇苑2#公变,紫薇苑2#公变,浙江交工集团股份有限公司,夏荷苑1#公变,春晖苑6#公变,彩虹秋月苑4#公变,春晖苑5#公变,富阳市平安汽车销售有限公司,中铁诺德(杭州)投资有限公司7#变,春晖苑5#公变,彩虹嘉都丹桂苑1#公变,富阳旅游学校,杭州裕达食品有限公司,彩虹秋月苑1#公变,彩虹秋月苑1#公变,杭州伽利列光学仪器有限公司,富阳市路灯安装维修管理所,杭州富阳永达金属制品有限公司,富阳市宏立机械制造有限公司,中铁诺德(杭州)投资有限公司5#变,杭州伽利列光学仪器有限公司,紫薇苑1#公变,春晖苑1#公变,春晖苑4#公变,杭州新恒力电机制造有限公司,杭州中宙建工集团有限公司,杭州富阳永达金属制品有限公司,杭州新恒力电机制造有限公司,新桥村7号二桥头公变,富阳市新地包装有限公司,杭州富阳千禧环保建材有限公司,彩虹嘉都丹桂苑1#公变,中铁诺德(杭州)投资有限公司4#变,中铁诺德(杭州)投资有限公司,春晖苑1#公变,杭州光明塑料助剂有限公司富阳分公司,富阳市新地包装有限公司,夏荷苑2#公变,浙江大陆化工有限公司,春晖苑2#公变,杭州金宇房地产开发有限公司,彩虹秋月苑3#公变,富阳市平安汽车销售有限公司,杭州鸿世电器有限公司2#,新桥村5#柴场头东变,浙江交工集团股份有限公司 1#,彩虹秋月苑2#公变,浙江大陆化工有限公司1#变,浙江交工集团股份有限公司计量点1#变,富阳市路灯安装维修管理所,春晖苑3#公变,富阳市宏立机械制造有限公司,新桥村5#柴场头东变,中铁诺德(杭州)投资有限公司1#变,杭州富阳千禧环保建材有限公司,杭州富阳大地塑料厂,夏荷苑4#公变,杭州欧卡彩印有限公司,彩虹秋月苑3#公变,杭州中宙建工集团有限公司1#变,杭州富阳振达瓦斯器材有限公司,春晖苑6#公变,中铁诺德(杭州)投资有限公司8#变,杭州富阳大地塑料厂,杭州光明塑料助剂有限公司富阳分公司,夏荷苑3#公变,中铁诺德(杭州)投资有限公司6#变,杭州鸿世电器有限公司1#,杭州富阳水务有限公司,春晖苑3#公变,中铁诺德(杭州)投资有限公司2#变,夏荷苑4#公变,紫薇苑1#公变,杭州中宙建工集团有限公司2#变,夏荷苑3#公变,富阳旅游学校,彩虹秋月苑4#公变,杭州富阳水务有限公司1#变,杭州富阳振达瓦斯器材有限公司,中铁诺德(杭州)投资有限公司3#变,彩虹秋月苑2#公变,杭州裕达食品有限公司,春晖苑2#公变,富阳市高桥工业园投资有限公司,夏荷苑2#公变,春晖苑4#公变,杭州欧卡彩印有限公司,杭州金宇房地产开发有限公司,夏荷苑1#公变,富阳市高桥工业园投资有限公司,","scope":"浙江省-杭州市-富阳区-银湖街道-高桥行政村(新桥自然村,新桥新路,高桥自然村,高桥西路,金桥北路,彩虹路);银湖街道(中铁诺德(杭州)投资有限公司,杭州富阳宏立机械制造有限公司,浙江大陆化工有限公司,富阳市高桥工业园投资有限公司,杭州富阳大地塑料厂,杭州富阳振达瓦斯器材有限公司,杭州裕达食品有限公司,杭州富阳盛彤快件服务有限公司,杭州富阳银龙彩印包装厂,杭州新恒力电机制造有限公司,杭州富阳新地包装有限公司,杭州光明塑料助剂有限公司富阳分公司,杭州富阳永达金属制品有限公司,杭州富阳千禧环保建材有限公司,杭州金宇房地产开发有限公司,杭州富阳水务有限公司,杭州中宙建工集团有限公司),富春街道(浙江交工集团股份有限公司,杭州富阳旅游学校,杭州富阳城市照明工程有限公司)","startTime":"2019-06-22 07:10:00","stopDate":"2019-06-22 09:10:00","orgNo":"3340170","typeCode":"电网故障停限电","poweroffArea":"110kV银湖变:富华D230线富华D2301开关后段","poweroffReason":"高压开关跳闸","powerTime":"2019-06-22 08:15:56","powerComm":"已送电","subsNo":"","lineNo":"","tgNo":"","tgName":null,"infoStatus":"1","orgName":"国网浙江杭州市富阳区供电公司","typeName":null,"infoStatusName":null,"dateDay":null,"orgNos":null,"nowTime":null,"countyName":null,"streetName":null,"villageName":null,"roadName":null,"communityName":null,"tranName":null,"sdLineName":null,"cityCode":"3340170","cityName":"国网浙江杭州市富阳区供电公司","provinceCode":null,"stopTime":"2019-06-22 09:10:00","powerType":"全部","powerOffArea":"110kV银湖变:富华D230线富华D2301开关后段","powerOffReason":"高压开关跳闸","powerOffId":"2019062231020001"},{"poweroffId":2019062231010179,"sgpoweroffId":null,"subsName":"","lineName":"10kV良运H329线","pubTranName":"吴家厍章家门3号公变,","scope":"浙江省杭州市余杭区良渚街道吴家厍行政村：吴家厍自然村张家门一带","startTime":"2019-06-22 21:36:00","stopDate":"2019-06-23 01:36:00","orgNo":"3340140","typeCode":"电网故障停限电","poweroffArea":"110kV长桥变:良运H329线-张家门3后段","poweroffReason":"良运H329线-张家门3后段低压线路断线故障","powerTime":"2019-06-23 01:14:15","powerComm":"已送电","subsNo":"","lineNo":"","tgNo":"","tgName":null,"infoStatus":"1","orgName":"国网浙江杭州市余杭区供电有限公司","typeName":null,"infoStatusName":null,"dateDay":null,"orgNos":null,"nowTime":null,"countyName":null,"streetName":null,"villageName":null,"roadName":null,"communityName":null,"tranName":null,"sdLineName":null,"cityCode":"3340140","cityName":"国网浙江杭州市余杭区供电有限公司","provinceCode":null,"stopTime":"2019-06-23 01:36:00","powerType":"全部","powerOffArea":"110kV长桥变:良运H329线-张家门3后段","powerOffReason":"良运H329线-张家门3后段低压线路断线故障","powerOffId":"2019062231010179"},{"poweroffId":2019062231010160,"sgpoweroffId":null,"subsName":"","lineName":"10kV徐坑Y774线","pubTranName":"岭源村斗里台区,","scope":"浙江省-杭州市-建德市-杨村桥镇 岭源行政村-斗里自然村、岭脚自然村一带用户。","startTime":"2019-06-22 18:04:00","stopDate":"2019-06-22 20:20:00","orgNo":"3340180","typeCode":"电网故障停限电","poweroffArea":"110kV乾潭变:徐坑Y774线-岭源村斗里台区后段","poweroffReason":"徐坑Y774线-岭源村斗里台区 低压设备故障","powerTime":"2019-06-22 19:46:00","powerComm":"已送电","subsNo":"","lineNo":"","tgNo":"","tgName":null,"infoStatus":"1","orgName":"国网浙江建德市供电有限公司","typeName":null,"infoStatusName":null,"dateDay":null,"orgNos":null,"nowTime":null,"countyName":null,"streetName":null,"villageName":null,"roadName":null,"communityName":null,"tranName":null,"sdLineName":null,"cityCode":"3340180","cityName":"国网浙江建德市供电有限公司","provinceCode":null,"stopTime":"2019-06-22 20:20:00","powerType":"全部","powerOffArea":"110kV乾潭变:徐坑Y774线-岭源村斗里台区后段","powerOffReason":"徐坑Y774线-岭源村斗里台区 低压设备故障","powerOffId":"2019062231010160"},{"poweroffId":2019062231010157,"sgpoweroffId":null,"subsName":"","lineName":"10kV花林H555线","pubTranName":"长乐村东坞公变,","scope":"浙江省-杭州市-余杭区-径山镇(长乐行政村-长乐片、大坞组自然村、东山组自然村、东坞组自然村)一带;","startTime":"2019-06-22 17:30:00","stopDate":"2019-06-22 18:30:00","orgNo":"3340140","typeCode":"电网故障停限电","poweroffArea":"110kV潘板变:花林H555线-长乐村东坞公变后段 因施工力量加大，故提前送电，原停电结束时间2019-06-22 20:30:00，变更后停电结束时间2019-06-22 18:30:00","poweroffReason":"花林H555线-长乐村东坞公变后段断线故障","powerTime":"2019-06-22 18:18:00","powerComm":"已送电","subsNo":"","lineNo":"","tgNo":"","tgName":null,"infoStatus":"1","orgName":"国网浙江杭州市余杭区供电有限公司","typeName":null,"infoStatusName":null,"dateDay":null,"orgNos":null,"nowTime":null,"countyName":null,"streetName":null,"villageName":null,"roadName":null,"communityName":null,"tranName":null,"sdLineName":null,"cityCode":"3340140","cityName":"国网浙江杭州市余杭区供电有限公司","provinceCode":null,"stopTime":"2019-06-22 18:30:00","powerType":"全部","powerOffArea":"110kV潘板变:花林H555线-长乐村东坞公变后段 因施工力量加大，故提前送电，原停电结束时间2019-06-22 20:30:00，变更后停电结束时间2019-06-22 18:30:00","powerOffReason":"花林H555线-长乐村东坞公变后段断线故障","powerOffId":"2019062231010157"},{"poweroffId":2019062231010142,"sgpoweroffId":null,"subsName":"","lineName":"10kV海联C482线","pubTranName":"普洛斯利机械,辅导学校,下门村3#变,下门村9#变,沈飞包装,萧绍纸厂,隆达包装,","scope":"浙江省-杭州市-萧山区-河上镇(下门行政村-下门村自然村、张毛坞自然村、张毛自然村);(杭州隆达包装有限公司,杭州普洛斯利机械有限公司,杭州沈兴包装材料有限公司,杭州萧绍纸品有限公司,萧山区河上镇初级中学)一带","startTime":"2019-06-22 15:47:00","stopDate":"2019-06-22 17:49:16","orgNo":"3340130","typeCode":"电网故障停限电","poweroffArea":"35kV河上变:海联C482线-海联C482线下门开张毛分线开关后段","poweroffReason":"外力破坏引起高压电杆故障","powerTime":"2019-06-22 16:59:03","powerComm":"已送电","subsNo":"","lineNo":"","tgNo":"","tgName":null,"infoStatus":"1","orgName":"国网浙江杭州市萧山区供电有限公司","typeName":null,"infoStatusName":null,"dateDay":null,"orgNos":null,"nowTime":null,"countyName":null,"streetName":null,"villageName":null,"roadName":null,"communityName":null,"tranName":null,"sdLineName":null,"cityCode":"3340130","cityName":"国网浙江杭州市萧山区供电有限公司","provinceCode":null,"stopTime":"2019-06-22 17:49:16","powerType":"全部","powerOffArea":"35kV河上变:海联C482线-海联C482线下门开张毛分线开关后段","powerOffReason":"外力破坏引起高压电杆故障","powerOffId":"2019062231010142"},{"poweroffId":2019062231010126,"sgpoweroffId":null,"subsName":"","lineName":"10kV四围A492线","pubTranName":"三围村13#变,","scope":"浙江省-杭州市-萧山区-益农镇三围行政村、三围自然村、三围村一带","startTime":"2019-06-22 13:42:26","stopDate":"2019-06-22 15:45:06","orgNo":"3340130","typeCode":"电网故障停限电","poweroffArea":"110kV群围变:四围A492线-三围村13#变台区低压开关","poweroffReason":"低压熔断器短路故障","powerTime":"2019-06-22 14:48:02","powerComm":"已送电","subsNo":"","lineNo":"","tgNo":"","tgName":null,"infoStatus":"1","orgName":"国网浙江杭州市萧山区供电有限公司","typeName":null,"infoStatusName":null,"dateDay":null,"orgNos":null,"nowTime":null,"countyName":null,"streetName":null,"villageName":null,"roadName":null,"communityName":null,"tranName":null,"sdLineName":null,"cityCode":"3340130","cityName":"国网浙江杭州市萧山区供电有限公司","provinceCode":null,"stopTime":"2019-06-22 15:45:06","powerType":"全部","powerOffArea":"110kV群围变:四围A492线-三围村13#变台区低压开关","powerOffReason":"低压熔断器短路故障","powerOffId":"2019062231010126"},{"poweroffId":2019062231010125,"sgpoweroffId":null,"subsName":"","lineName":"10kV窄溪T257线","pubTranName":"前村4号公变,","scope":"浙江省-杭州市-桐庐县-江南镇(窄溪行政村-前村自然村);","startTime":"2019-06-22 13:38:49","stopDate":"2019-06-22 16:30:00","orgNo":"3340150","typeCode":"电网故障停限电","poweroffArea":"110kV石阜变:窄溪T257线-前村4号公变后段","poweroffReason":"低压开关故障。","powerTime":"2019-06-22 16:20:33","powerComm":"已送电。","subsNo":"","lineNo":"","tgNo":"","tgName":null,"infoStatus":"1","orgName":"国网浙江桐庐县供电公司","typeName":null,"infoStatusName":null,"dateDay":null,"orgNos":null,"nowTime":null,"countyName":null,"streetName":null,"villageName":null,"roadName":null,"communityName":null,"tranName":null,"sdLineName":null,"cityCode":"3340150","cityName":"国网浙江桐庐县供电公司","provinceCode":null,"stopTime":"2019-06-22 16:30:00","powerType":"全部","powerOffArea":"110kV石阜变:窄溪T257线-前村4号公变后段","powerOffReason":"低压开关故障。","powerOffId":"2019062231010125"}],"pageModel":{"pageNow":1556,"totalCount":17789,"totalPage":1779,"tableRows":0,"pageCount":10,"beginCount":15550},"isExperi":"1"}