{"message":"","today":"2020-06-16","seleList":[{"poweroffId":2019062131010137,"sgpoweroffId":null,"subsName":"","lineName":"10kV长盘D722线","pubTranName":"永昌村永桥2号地桥头公变,","scope":"浙江省杭州市富阳区永昌镇永昌行政村地桥头自然村一带","startTime":"2019-07-01 06:30:00","stopDate":"2019-07-01 11:10:00","orgNo":"3340170","typeCode":"计划停电","poweroffArea":"110kV松溪变:10KV长盘D722线58#杆永昌村永桥2#地桥头公变","poweroffReason":"10KV长盘D722线58#杆永昌村永桥2#地桥头公变地桥头01线、地桥头03线、空置线路拆装进出线电缆头三路、更换配电屏","powerTime":"2019-07-01 10:55:31","powerComm":"已送电","subsNo":"","lineNo":"","tgNo":"","tgName":null,"infoStatus":"1","orgName":"国网浙江杭州市富阳区供电公司","typeName":null,"infoStatusName":null,"dateDay":null,"orgNos":null,"nowTime":null,"countyName":null,"streetName":null,"villageName":null,"roadName":null,"communityName":null,"tranName":null,"sdLineName":null,"cityCode":"3340170","cityName":"国网浙江杭州市富阳区供电公司","provinceCode":null,"stopTime":"2019-07-01 11:10:00","powerType":"全部","powerOffArea":"110kV松溪变:10KV长盘D722线58#杆永昌村永桥2#地桥头公变","powerOffReason":"10KV长盘D722线58#杆永昌村永桥2#地桥头公变地桥头01线、地桥头03线、空置线路拆装进出线电缆头三路、更换配电屏","powerOffId":"2019062131010137"},{"poweroffId":2019062131010136,"sgpoweroffId":null,"subsName":"","lineName":"10kV栋山D410线","pubTranName":"晖山村5号下台门公变,","scope":"浙江省杭州市富阳区鹿山街道南山村晖山自然村村下台门路","startTime":"2019-07-01 07:30:00","stopDate":"2019-07-01 11:00:00","orgNo":"3340170","typeCode":"计划停电","poweroffArea":"110kV长春变:栋山D410线-晖山村5号下台门公变后段","poweroffReason":"青云2019年新新村3#毛家台公变等低压台区改造工程拆旧，安装水平拉线，拆架1kV70*4*1档，搭接等工作","powerTime":"2019-07-01 10:47:47","powerComm":"已送电","subsNo":"","lineNo":"","tgNo":"","tgName":null,"infoStatus":"1","orgName":"国网浙江杭州市富阳区供电公司","typeName":null,"infoStatusName":null,"dateDay":null,"orgNos":null,"nowTime":null,"countyName":null,"streetName":null,"villageName":null,"roadName":null,"communityName":null,"tranName":null,"sdLineName":null,"cityCode":"3340170","cityName":"国网浙江杭州市富阳区供电公司","provinceCode":null,"stopTime":"2019-07-01 11:00:00","powerType":"全部","powerOffArea":"110kV长春变:栋山D410线-晖山村5号下台门公变后段","powerOffReason":"青云2019年新新村3#毛家台公变等低压台区改造工程拆旧，安装水平拉线，拆架1kV70*4*1档，搭接等工作","powerOffId":"2019062131010136"},{"poweroffId":2019062131010135,"sgpoweroffId":null,"subsName":"","lineName":"10kV蒋家D408线","pubTranName":"蒋家村16号富棉公变,","scope":"浙江省-杭州市-富阳区-鹿山街道(蒋家行政村-环厂路、蒋家自然村、青春路、徐家路、阳光路);","startTime":"2019-07-01 07:30:00","stopDate":"2019-07-01 11:00:00","orgNo":"3340170","typeCode":"计划停电","poweroffArea":"110kV长春变:蒋家D408线-蒋家村16号富棉公变后段","poweroffReason":"青云2019年新新村3#毛家台公变等低压台区改造工程配合停电等工作","powerTime":"2019-07-01 10:47:08","powerComm":"已送电","subsNo":"","lineNo":"","tgNo":"","tgName":null,"infoStatus":"1","orgName":"国网浙江杭州市富阳区供电公司","typeName":null,"infoStatusName":null,"dateDay":null,"orgNos":null,"nowTime":null,"countyName":null,"streetName":null,"villageName":null,"roadName":null,"communityName":null,"tranName":null,"sdLineName":null,"cityCode":"3340170","cityName":"国网浙江杭州市富阳区供电公司","provinceCode":null,"stopTime":"2019-07-01 11:00:00","powerType":"全部","powerOffArea":"110kV长春变:蒋家D408线-蒋家村16号富棉公变后段","powerOffReason":"青云2019年新新村3#毛家台公变等低压台区改造工程配合停电等工作","powerOffId":"2019062131010135"},{"poweroffId":2019062131010110,"sgpoweroffId":null,"subsName":"","lineName":"10kV越三A006线","pubTranName":"湖头陈花苑7#公变,","scope":"浙江省杭州市萧山区城厢街道湖头陈、湖头陈花苑一带","startTime":"2019-06-21 09:30:00","stopDate":"2019-06-21 11:30:00","orgNo":"3340130","typeCode":"电网故障停限电","poweroffArea":"110kV越王变:越三A006线-湖头陈花苑7#公变台区低压开关","poweroffReason":"更换温控开关","powerTime":"2019-06-21 10:44:12","powerComm":"已送电","subsNo":"","lineNo":"","tgNo":"","tgName":null,"infoStatus":"1","orgName":"国网浙江杭州市萧山区供电有限公司","typeName":null,"infoStatusName":null,"dateDay":null,"orgNos":null,"nowTime":null,"countyName":null,"streetName":null,"villageName":null,"roadName":null,"communityName":null,"tranName":null,"sdLineName":null,"cityCode":"3340130","cityName":"国网浙江杭州市萧山区供电有限公司","provinceCode":null,"stopTime":"2019-06-21 11:30:00","powerType":"全部","powerOffArea":"110kV越王变:越三A006线-湖头陈花苑7#公变台区低压开关","powerOffReason":"更换温控开关","powerOffId":"2019062131010110"},{"poweroffId":2019062131010101,"sgpoweroffId":null,"subsName":"","lineName":"10kV彭凤H508线","pubTranName":"正威建材,瓶窑纸箱厂,照相纸板厂,罗张排2,彭公玻璃灯具厂,窑北村下毛园公变,3#,博然机械611106380602#专变,国发建材经营部,北湖砖瓦厂,毛加,新霓虹制冷2,动物药厂,通博胶业,凤都药渣,新霓虹制冷,瓶窑开发区路灯变,西中村委,加油站,中进包装,石濑村毛山桥2号公变,双安包装,凤瑞竹业,杨池头,窑北木材加工场,博彩渔具厂,1,杭州余杭瓶窑新星塑料厂,公路观测站,2#,荷花畈,南山村罗庄公变,信义塑胶,绿明玻璃,彭公农场612081354901#专变,德华车料,煤炭地质局综合物探测量队,正威建材2,石濑机埠,杭州名宇家具*,博然机械611106380601#专变,彭公农场612081354701#专变,石濑村农场斗角公变,天信防水611108568201#专变,申达化妆品厂2,得益金属,窑北村车路边2号公变,罗张排2,利人医药,中进包装2,1＃,窑北村地质队公变,","scope":"浙江省-杭州市-余杭区-瓶窑镇南山行政村-罗庄自然村、南山自然村,石濑行政村-胡家村、毛山桥自然村、农场斗角自然村、石濑村、翁家自然村,窑北行政村-车路边自然村、大滩自然村、金丝鸟自然村、毛元岭自然村、上毛元自然村、通凉亭自然村、西中加工场自然村、西中水库自然村、下毛元自然村;杭州博然机械制造有限公司,杭州德华车料有限公司,杭州德雅包装有限公司,杭州得益金属制品有限公司,杭州动物药品厂,杭州古雅商业展示道具有限公司,杭州海煌市政工程有限公司,杭州宁太建材有限公司,杭州彭公玻璃灯具有限公司,杭州申达化妆品包装有限公司,杭州市余杭区公路养护与应急保障中心,杭州市余杭区瓶窑镇经济开发区管委会,杭州市余杭区瓶窑镇人民政府,杭州双安包装材料厂,杭州天信防水保温工程有限公司,杭州通博胶业有限公司,杭州五菱涂料有限公司,杭州新霓虹制冷设备有限公司,杭州毅佳仁机械制造有限公司,杭州余杭彭公六合气体厂,杭州余杭瓶窑新星塑料厂,杭州余杭区博彩渔材料厂,杭州余杭区瓶窑凤都药渣处理场,杭州余杭区瓶窑镇窑北村国平木材加工场,杭州中进包装制品有限公司,彭公翁家村,瓶窑镇石濑村,瓶窑镇窑北村村民委员会,浙江煤炭地质局综合物探测量队,浙江正裕科技股份有限公司,中国石化销售有限公司浙江杭州石油分公司,中海油销售浙江有限公司余杭区瓶窑加油站一带","startTime":"2019-06-21 09:07:00","stopDate":"2019-06-21 12:30:00","orgNo":"3340140","typeCode":"电网故障停限电","poweroffArea":"35kV瓶镇变:彭凤H508线","poweroffReason":"彭凤H508线 架空线断线故障","powerTime":"2019-06-21 11:46:00","powerComm":"已送电","subsNo":"","lineNo":"","tgNo":"","tgName":null,"infoStatus":"1","orgName":"国网浙江杭州市余杭区供电有限公司","typeName":null,"infoStatusName":null,"dateDay":null,"orgNos":null,"nowTime":null,"countyName":null,"streetName":null,"villageName":null,"roadName":null,"communityName":null,"tranName":null,"sdLineName":null,"cityCode":"3340140","cityName":"国网浙江杭州市余杭区供电有限公司","provinceCode":null,"stopTime":"2019-06-21 12:30:00","powerType":"全部","powerOffArea":"35kV瓶镇变:彭凤H508线","powerOffReason":"彭凤H508线 架空线断线故障","powerOffId":"2019062131010101"},{"poweroffId":2019062131010065,"sgpoweroffId":null,"subsName":"","lineName":"10kV蛋鸡H506线","pubTranName":"三星化妆品包装,杭州市种猪试验场（6110119007）02#专变,6110117054,浩元泵业2#,沥青库2#,良种引进公司,骆驼九宇6120869010,彭公联合加油站,一川控制电器,杭州余杭区径山镇奇民沙场,沥青库1,石濑村费家头公变,杭州市种猪试验场（6110119007）01#专变,岳塘工贸,石濑村树根桥公变,三晶工艺品2#,中铁四局,顺昌建设,茶场,石濑村土地庙公变,瓶窑镇阮月菊建材经营部,佑国农业612080676401#专变,交工路桥石濑612081413401#专变,三星化妆品厂,彭公铝制品6110117058,西安寺村马家坝公变,三晶工艺品1#,石濑村南头公变,西安寺村长山公变,火车站,径林茶业,交工路桥6120849890基建变,三星化妆品包装（玻璃）2,搪瓷6120541409,杭长高速基建,三星化妆品厂,石濑村朱家堰公变,茶场（2）(高配),石濑村西头公变,浙江交工61206754941#变压器,茶场（1）(高配),三明茶业6120591385,三星化妆品包装（玻璃）3,石濑村油车公变,石濑村南头2号公变,西安寺村西横头公变,鼎盛交通蛋鸡场612069499601#专变,石濑村北头公变,浩元泵业1#,力程建筑,政府1号路灯变6120842672,国科钣金611011720001#专变,彭公铝制品611011720301#专变,杭州惠友葡萄专业合作社,沥青库3,浙江交工,茶场（6）(高配),瓶镇变所用变,典图实业,鼎盛交通612067423801#专变,湖滨管理处,茶场（5）(高配),石濑村中心公变,茶场（4）(高配),石濑村老村委公变,","scope":"浙江省-杭州市-余杭区-瓶窑镇(石濑行政村-北头自然村、费家头自然村、埂头自然村、胡家村、南头自然村、桥西组、石濑村、石濑自然村、树根桥自然村、土地庙自然村、西头自然村、油车自然村、朱家堰自然村,西安寺行政村-长山自然村、石濑渠、西横头自然村);(杭州茶叶试验场,杭州大容农机有限公司,杭州典图实业有限公司,杭州国科钣金有限公司,杭州鹤见南方泵业有限公司,杭州惠友葡萄专业合作社,杭州径林茶业有限公司,杭州木源生物能源有限公司,杭州彭公铝制品有限公司,杭州三晶工艺塑料有限公司,杭州三星化妆品包装有限公司,杭州市余杭区瓶窑镇人民政府,杭州市种猪试验场,杭州西湖风景名胜区(杭州市园林文物局)湖滨管理处,杭州一川控制电器有限公司,杭州佑国等着你生态农业开发有限公司,杭州余杭彭公加油站有限公司,杭州余杭区瓶窑镇阮月菊建材经营部,杭州种业集团有限公司,浙江鼎盛交通建设有限公司,浙江杭长高速公路有限公司,浙江华路改性沥青有限公司,浙江交工国际工程有限公司,浙江交工集团股份有限公司大桥分公司,浙江交工路桥建设有限公司,浙江骆驼九宇有机食品有限公司,中国铁路上海局集团有限公司嘉兴车务段);","startTime":"2019-06-21 08:07:22","stopDate":"2019-06-21 12:30:00","orgNo":"3340140","typeCode":"电网故障停限电","poweroffArea":"35kV瓶镇变:蛋鸡H506线石濑村变","poweroffReason":"蛋鸡H506线石濑村变低压线路断线（原停电结束时间：2019-06-21 10:07:22，变更停电结束时间原因：现场抢修环境较为复杂，故延时）","powerTime":"2019-06-21 11:48:00","powerComm":"已送电","subsNo":"","lineNo":"","tgNo":"","tgName":null,"infoStatus":"1","orgName":"国网浙江杭州市余杭区供电有限公司","typeName":null,"infoStatusName":null,"dateDay":null,"orgNos":null,"nowTime":null,"countyName":null,"streetName":null,"villageName":null,"roadName":null,"communityName":null,"tranName":null,"sdLineName":null,"cityCode":"3340140","cityName":"国网浙江杭州市余杭区供电有限公司","provinceCode":null,"stopTime":"2019-06-21 12:30:00","powerType":"全部","powerOffArea":"35kV瓶镇变:蛋鸡H506线石濑村变","powerOffReason":"蛋鸡H506线石濑村变低压线路断线（原停电结束时间：2019-06-21 10:07:22，变更停电结束时间原因：现场抢修环境较为复杂，故延时）","powerOffId":"2019062131010065"},{"poweroffId":2019062131010001,"sgpoweroffId":null,"subsName":"","lineName":"10kV梅堰G670线","pubTranName":"水岸嘉园2B-2公变,","scope":"浙江省杭州市余杭区余杭区临平东湖街道桂芳桥社区水岸嘉苑小区9幢2单元一带","startTime":"2019-06-21 00:05:40","stopDate":"2019-06-21 07:05:40","orgNo":"3340140","typeCode":"电网故障停限电","poweroffArea":"110kV南苑变:梅堰G670线-水岸嘉园2B-2公变后段","poweroffReason":"梅堰G670线-水岸嘉园2B-2公变后段低压线路断线","powerTime":"2019-06-21 06:52:20","powerComm":"已送电","subsNo":"","lineNo":"","tgNo":"","tgName":null,"infoStatus":"1","orgName":"国网浙江杭州市余杭区供电有限公司","typeName":null,"infoStatusName":null,"dateDay":null,"orgNos":null,"nowTime":null,"countyName":null,"streetName":null,"villageName":null,"roadName":null,"communityName":null,"tranName":null,"sdLineName":null,"cityCode":"3340140","cityName":"国网浙江杭州市余杭区供电有限公司","provinceCode":null,"stopTime":"2019-06-21 07:05:40","powerType":"全部","powerOffArea":"110kV南苑变:梅堰G670线-水岸嘉园2B-2公变后段","powerOffReason":"梅堰G670线-水岸嘉园2B-2公变后段低压线路断线","powerOffId":"2019062131010001"},{"poweroffId":2019062031020048,"sgpoweroffId":null,"subsName":"","lineName":"10kV桑乔9124线","pubTranName":"八堡(二十二),","scope":"浙江省-杭州市-江干区-九堡镇-八堡社区27排、28排部分用户、菜场、老年活动中心","startTime":"2019-06-28 09:30:00","stopDate":"2019-06-28 10:30:00","orgNo":"3340101","typeCode":"计划停电","poweroffArea":"110kV蚕桑变:桑乔9124线-八堡(二十二)低压总开关","poweroffReason":"原停电结束时间13:00，变更停电结束时间10:30，原因由于施工现场比较复杂，存在不确定因素，因此预估施工时间适当放长了，而实际施工进行比较顺利，因此该工作提前结束。","powerTime":"2019-06-28 10:01:59","powerComm":"已送电","subsNo":"","lineNo":"","tgNo":"","tgName":null,"infoStatus":"1","orgName":"浙江杭州电力客户服务中心","typeName":null,"infoStatusName":null,"dateDay":null,"orgNos":null,"nowTime":null,"countyName":null,"streetName":null,"villageName":null,"roadName":null,"communityName":null,"tranName":null,"sdLineName":null,"cityCode":"3340101","cityName":"浙江杭州电力客户服务中心","provinceCode":null,"stopTime":"2019-06-28 10:30:00","powerType":"全部","powerOffArea":"110kV蚕桑变:桑乔9124线-八堡(二十二)低压总开关","powerOffReason":"原停电结束时间13:00，变更停电结束时间10:30，原因由于施工现场比较复杂，存在不确定因素，因此预估施工时间适当放长了，而实际施工进行比较顺利，因此该工作提前结束。","powerOffId":"2019062031020048"},{"poweroffId":2019062031020029,"sgpoweroffId":null,"subsName":"","lineName":"10kV岭源191线","pubTranName":"麻境3号公变,","scope":"浙江省-杭州市-桐庐县-合村乡-合村行政村-大琅坞自然村","startTime":"2019-07-02 07:30:00","stopDate":"2019-07-02 17:30:00","orgNo":"3340150","typeCode":"计划停电","poweroffArea":"35kV合村变:岭源191线-麻境3号公变后段","poweroffReason":"大琅坞分线1号杆大琅坞F9500令克后段停电","powerTime":"2019-07-02 17:10:30","powerComm":"全部送电","subsNo":"","lineNo":"","tgNo":"","tgName":null,"infoStatus":"1","orgName":"国网浙江桐庐县供电公司","typeName":null,"infoStatusName":null,"dateDay":null,"orgNos":null,"nowTime":null,"countyName":null,"streetName":null,"villageName":null,"roadName":null,"communityName":null,"tranName":null,"sdLineName":null,"cityCode":"3340150","cityName":"国网浙江桐庐县供电公司","provinceCode":null,"stopTime":"2019-07-02 17:30:00","powerType":"全部","powerOffArea":"35kV合村变:岭源191线-麻境3号公变后段","powerOffReason":"大琅坞分线1号杆大琅坞F9500令克后段停电","powerOffId":"2019062031020029"},{"poweroffId":2019062031020020,"sgpoweroffId":null,"subsName":"","lineName":"10kV春联394线","pubTranName":"桐庐县城南街道农村五保供养服务中心变压器,中国联合网络通信有限公司杭州市分公司,","scope":"浙江省-杭州市-桐庐县-城南街道-金东行政村-桐庐县城南街道农村五保供养服务中心","startTime":"2019-06-30 07:30:00","stopDate":"2019-06-30 15:30:00","orgNo":"3340150","typeCode":"计划停电","poweroffArea":"110kV迎春变:春联394线-溪旁敬老院后段;春联394线-联通公司后段","poweroffReason":"低压老旧线路改造","powerTime":"2019-06-30 15:11:22","powerComm":"已送电。","subsNo":"","lineNo":"","tgNo":"","tgName":null,"infoStatus":"1","orgName":"国网浙江桐庐县供电公司","typeName":null,"infoStatusName":null,"dateDay":null,"orgNos":null,"nowTime":null,"countyName":null,"streetName":null,"villageName":null,"roadName":null,"communityName":null,"tranName":null,"sdLineName":null,"cityCode":"3340150","cityName":"国网浙江桐庐县供电公司","provinceCode":null,"stopTime":"2019-06-30 15:30:00","powerType":"全部","powerOffArea":"110kV迎春变:春联394线-溪旁敬老院后段;春联394线-联通公司后段","powerOffReason":"低压老旧线路改造","powerOffId":"2019062031020020"}],"pageModel":{"pageNow":1567,"totalCount":17789,"totalPage":1779,"tableRows":0,"pageCount":10,"beginCount":15660},"isExperi":"1"}