{"message":"","today":"2020-06-16","seleList":[{"poweroffId":2019062031010188,"sgpoweroffId":null,"subsName":"","lineName":"10kV六一D651线","pubTranName":"永丰村俞家爿1#村中公变,","scope":"浙江省-杭州市-富阳区-灵桥镇-(永丰行政村-俞家爿自然村)一带","startTime":"2019-07-01 07:30:00","stopDate":"2019-07-01 16:00:00","orgNo":"3340170","typeCode":"计划停电","poweroffArea":"110kV灵桥变:六一D651线-永丰村俞家爿1号村中2号开关后段","poweroffReason":"拆架JKLYJ4*70*4档，拆旧架BS4*35*1档，接户线搭接等工作。","powerTime":"2019-07-01 15:45:31","powerComm":"已送电","subsNo":"","lineNo":"","tgNo":"","tgName":null,"infoStatus":"1","orgName":"国网浙江杭州市富阳区供电公司","typeName":null,"infoStatusName":null,"dateDay":null,"orgNos":null,"nowTime":null,"countyName":null,"streetName":null,"villageName":null,"roadName":null,"communityName":null,"tranName":null,"sdLineName":null,"cityCode":"3340170","cityName":"国网浙江杭州市富阳区供电公司","provinceCode":null,"stopTime":"2019-07-01 16:00:00","powerType":"全部","powerOffArea":"110kV灵桥变:六一D651线-永丰村俞家爿1号村中2号开关后段","powerOffReason":"拆架JKLYJ4*70*4档，拆旧架BS4*35*1档，接户线搭接等工作。","powerOffId":"2019062031010188"},{"poweroffId":2019062031010187,"sgpoweroffId":null,"subsName":"","lineName":"10kV龙门D787线","pubTranName":"龙门五村4#胡岭下公变,","scope":"浙江省-杭州市-富阳区-龙门镇(龙门五村行政村-胡岭下自然村)一带;","startTime":"2019-07-01 06:30:00","stopDate":"2019-07-01 12:10:00","orgNo":"3340170","typeCode":"计划停电","poweroffArea":"110kV王洲变:龙门D787线-龙门五村4号胡岭下公变后段","poweroffReason":"龙门五村4#胡岭下公变更换低压出线电缆2组等工作","powerTime":"2019-07-01 12:02:29","powerComm":"已送电","subsNo":"","lineNo":"","tgNo":"","tgName":null,"infoStatus":"1","orgName":"国网浙江杭州市富阳区供电公司","typeName":null,"infoStatusName":null,"dateDay":null,"orgNos":null,"nowTime":null,"countyName":null,"streetName":null,"villageName":null,"roadName":null,"communityName":null,"tranName":null,"sdLineName":null,"cityCode":"3340170","cityName":"国网浙江杭州市富阳区供电公司","provinceCode":null,"stopTime":"2019-07-01 12:10:00","powerType":"全部","powerOffArea":"110kV王洲变:龙门D787线-龙门五村4号胡岭下公变后段","powerOffReason":"龙门五村4#胡岭下公变更换低压出线电缆2组等工作","powerOffId":"2019062031010187"},{"poweroffId":2019062031010174,"sgpoweroffId":null,"subsName":"","lineName":"10kV江东0302线","pubTranName":"诚意公寓,","scope":"浙江省-杭州市-萧山区-义蓬街道头蓬社区通围路,义蓬街道诚意公寓一带","startTime":"2019-06-20 15:01:42","stopDate":"2019-06-20 17:30:22","orgNo":"3340120","typeCode":"电网故障停限电","poweroffArea":"110kV启江变:江东0302线-诚意公寓后段","poweroffReason":"低压熔断器短路故障 原停电结束时间：18:30，变更停电结束时间：17:30，由于工作提前完成，故需要提前送电。","powerTime":"2019-06-20 17:12:49","powerComm":"已送电","subsNo":"","lineNo":"","tgNo":"","tgName":null,"infoStatus":"1","orgName":"国网浙江杭州市钱塘新区供电公司","typeName":null,"infoStatusName":null,"dateDay":null,"orgNos":null,"nowTime":null,"countyName":null,"streetName":null,"villageName":null,"roadName":null,"communityName":null,"tranName":null,"sdLineName":null,"cityCode":"3340120","cityName":"国网浙江杭州市钱塘新区供电公司","provinceCode":null,"stopTime":"2019-06-20 17:30:22","powerType":"全部","powerOffArea":"110kV启江变:江东0302线-诚意公寓后段","powerOffReason":"低压熔断器短路故障 原停电结束时间：18:30，变更停电结束时间：17:30，由于工作提前完成，故需要提前送电。","powerOffId":"2019062031010174"},{"poweroffId":2019062031010166,"sgpoweroffId":null,"subsName":"","lineName":"10kV陈园C841线","pubTranName":"新塘头村13#变,","scope":"浙江省-杭州市-萧山区-新街镇、新街街道(新塘头行政村-新塘头自然村)等一带","startTime":"2019-06-20 15:01:08","stopDate":"2019-06-20 16:30:23","orgNo":"3340130","typeCode":"电网故障停限电","poweroffArea":"110kV罗山变:陈园C841线-新塘头村13#变台区低压开关","poweroffReason":"低压漏电保护器短路故障","powerTime":"2019-06-20 15:47:09","powerComm":"已送电","subsNo":"","lineNo":"","tgNo":"","tgName":null,"infoStatus":"1","orgName":"国网浙江杭州市萧山区供电有限公司","typeName":null,"infoStatusName":null,"dateDay":null,"orgNos":null,"nowTime":null,"countyName":null,"streetName":null,"villageName":null,"roadName":null,"communityName":null,"tranName":null,"sdLineName":null,"cityCode":"3340130","cityName":"国网浙江杭州市萧山区供电有限公司","provinceCode":null,"stopTime":"2019-06-20 16:30:23","powerType":"全部","powerOffArea":"110kV罗山变:陈园C841线-新塘头村13#变台区低压开关","powerOffReason":"低压漏电保护器短路故障","powerOffId":"2019062031010166"},{"poweroffId":2019062031010151,"sgpoweroffId":null,"subsName":"","lineName":"10kV绍兴6063线","pubTranName":"二小区(6),","scope":"浙江省-杭州市-下城区-朝晖街道-朝晖二区一带","startTime":"2019-06-20 14:38:00","stopDate":"2019-06-20 18:39:26","orgNo":"3340101","typeCode":"电网故障停限电","poweroffArea":"110kV朝晖变:绍兴6063线-二小区(6)后段","poweroffReason":"高压开关跳闸 原预计停电结束时间2019-06-20 19:39:26,由于施工现场环境比较复杂，存在不确定因素，因此预估施工时间适当放长了，而实际施工进行得比较顺利，因此提前送电了","powerTime":"2019-06-20 18:09:37","powerComm":"送电","subsNo":"","lineNo":"","tgNo":"","tgName":null,"infoStatus":"1","orgName":"浙江杭州电力客户服务中心","typeName":null,"infoStatusName":null,"dateDay":null,"orgNos":null,"nowTime":null,"countyName":null,"streetName":null,"villageName":null,"roadName":null,"communityName":null,"tranName":null,"sdLineName":null,"cityCode":"3340101","cityName":"浙江杭州电力客户服务中心","provinceCode":null,"stopTime":"2019-06-20 18:39:26","powerType":"全部","powerOffArea":"110kV朝晖变:绍兴6063线-二小区(6)后段","powerOffReason":"高压开关跳闸 原预计停电结束时间2019-06-20 19:39:26,由于施工现场环境比较复杂，存在不确定因素，因此预估施工时间适当放长了，而实际施工进行得比较顺利，因此提前送电了","powerOffId":"2019062031010151"},{"poweroffId":2019062031010146,"sgpoweroffId":null,"subsName":"","lineName":"10kV科迪A500线","pubTranName":"民围村18#变,杭州戈迪装饰材料有限公司,丹诗丽装饰变压器,杭州东润商品混凝土有限公司,民围村14#变,杭州兴海铸造有限公司1#,1#变,浙江以勒化学纤维有限公司,民围村7#变,杭州兴海铸造有限公司2#,杭州久辉装饰材料有限公司,杭州松翔混凝土工程有限公司,1#变,民围村17#变,1#变,杭州万隆轴承附件有限公司,1#变,杭州新华泰表面工程有限公司,","scope":"浙江省杭州市萧山区益农镇民围行政村、民围自然村、民围村、杭州丹诗丽装饰有限公司,杭州东润商品混凝土有限公司,杭州戈迪装饰材料有限公司,杭州久辉装饰材料有限公司,杭州仁迪家居有限公司,杭州松翔混凝土工程有限公司,杭州万隆轴承附件有限公司,杭州新华泰表面工程有限公司,杭州兴海铸造有限公司,杭州亚森门业有限公司,杭州以勒纺织有限公司,浙江以勒化学纤维有限公司一带","startTime":"2019-06-20 14:25:16","stopDate":"2019-06-20 16:40:08","orgNo":"3340130","typeCode":"电网故障停限电","poweroffArea":"110kV群围变:科迪A500线-科迪A5001开关，科迪A5002开关之间","poweroffReason":"高压柱上断路器短路故障","powerTime":"2019-06-20 15:56:37","powerComm":"已送电","subsNo":"","lineNo":"","tgNo":"","tgName":null,"infoStatus":"1","orgName":"国网浙江杭州市萧山区供电有限公司","typeName":null,"infoStatusName":null,"dateDay":null,"orgNos":null,"nowTime":null,"countyName":null,"streetName":null,"villageName":null,"roadName":null,"communityName":null,"tranName":null,"sdLineName":null,"cityCode":"3340130","cityName":"国网浙江杭州市萧山区供电有限公司","provinceCode":null,"stopTime":"2019-06-20 16:40:08","powerType":"全部","powerOffArea":"110kV群围变:科迪A500线-科迪A5001开关，科迪A5002开关之间","powerOffReason":"高压柱上断路器短路故障","powerOffId":"2019062031010146"},{"poweroffId":2019062031010144,"sgpoweroffId":null,"subsName":"","lineName":"10kV雪水T281线","pubTranName":"外潘村1号公变,桐庐雪水山泉饮品有限公司,","scope":"浙江省-杭州市-桐庐县-新合乡(松山行政村-里松山自然村、外潘自然村);(桐庐雪水山泉饮品有限公司);","startTime":"2019-06-20 14:13:59","stopDate":"2019-06-20 17:00:13","orgNo":"3340150","typeCode":"电网故障停限电","poweroffArea":"35kV新合变:雪水T281线-里松F7115开关后段","poweroffReason":"低压开关故障处理","powerTime":"2019-06-20 16:40:22","powerComm":"已送电","subsNo":"","lineNo":"","tgNo":"","tgName":null,"infoStatus":"1","orgName":"国网浙江桐庐县供电公司","typeName":null,"infoStatusName":null,"dateDay":null,"orgNos":null,"nowTime":null,"countyName":null,"streetName":null,"villageName":null,"roadName":null,"communityName":null,"tranName":null,"sdLineName":null,"cityCode":"3340150","cityName":"国网浙江桐庐县供电公司","provinceCode":null,"stopTime":"2019-06-20 17:00:13","powerType":"全部","powerOffArea":"35kV新合变:雪水T281线-里松F7115开关后段","powerOffReason":"低压开关故障处理","powerOffId":"2019062031010144"},{"poweroffId":2019062031010127,"sgpoweroffId":null,"subsName":"","lineName":"10kV雪水T281线","pubTranName":"外潘村1号公变,","scope":"浙江省-杭州市-桐庐县-新合乡(松山行政村-里松山自然村、外潘自然村);","startTime":"2019-06-20 14:00:00","stopDate":"2019-06-20 16:00:05","orgNo":"3340150","typeCode":"电网故障停限电","poweroffArea":"35kV新合变:雪水T281线-外潘村1号公变后段","poweroffReason":"低压开关故障","powerTime":"2019-06-20 15:40:26","powerComm":"已送电","subsNo":"","lineNo":"","tgNo":"","tgName":null,"infoStatus":"1","orgName":"国网浙江桐庐县供电公司","typeName":null,"infoStatusName":null,"dateDay":null,"orgNos":null,"nowTime":null,"countyName":null,"streetName":null,"villageName":null,"roadName":null,"communityName":null,"tranName":null,"sdLineName":null,"cityCode":"3340150","cityName":"国网浙江桐庐县供电公司","provinceCode":null,"stopTime":"2019-06-20 16:00:05","powerType":"全部","powerOffArea":"35kV新合变:雪水T281线-外潘村1号公变后段","powerOffReason":"低压开关故障","powerOffId":"2019062031010127"},{"poweroffId":2019062031010119,"sgpoweroffId":null,"subsName":"","lineName":"10kV胜峰T335线","pubTranName":"毛山坪1号公变,","scope":"浙江省-杭州市-桐庐县-横村镇(白云行政村-郑城自然村);","startTime":"2019-06-20 12:53:37","stopDate":"2019-06-20 16:00:50","orgNo":"3340150","typeCode":"电网故障停限电","poweroffArea":"110kV横村变:胜峰T335线-毛山坪1号公变后段","poweroffReason":"低压开关故障处理","powerTime":"2019-06-20 15:41:32","powerComm":"已送电","subsNo":"","lineNo":"","tgNo":"","tgName":null,"infoStatus":"1","orgName":"国网浙江桐庐县供电公司","typeName":null,"infoStatusName":null,"dateDay":null,"orgNos":null,"nowTime":null,"countyName":null,"streetName":null,"villageName":null,"roadName":null,"communityName":null,"tranName":null,"sdLineName":null,"cityCode":"3340150","cityName":"国网浙江桐庐县供电公司","provinceCode":null,"stopTime":"2019-06-20 16:00:50","powerType":"全部","powerOffArea":"110kV横村变:胜峰T335线-毛山坪1号公变后段","powerOffReason":"低压开关故障处理","powerOffId":"2019062031010119"},{"poweroffId":2019062031010118,"sgpoweroffId":null,"subsName":"","lineName":"10kV胜峰T335线","pubTranName":"郑城1号公变,","scope":"浙江省-杭州市-桐庐县-横村镇(白云行政村-郑城自然村);","startTime":"2019-06-20 12:52:09","stopDate":"2019-06-20 16:00:48","orgNo":"3340150","typeCode":"电网故障停限电","poweroffArea":"110kV横村变:胜峰T335线-郑城1号公变后段","poweroffReason":"低压开关故障处理","powerTime":"2019-06-20 15:40:35","powerComm":"已送电","subsNo":"","lineNo":"","tgNo":"","tgName":null,"infoStatus":"1","orgName":"国网浙江桐庐县供电公司","typeName":null,"infoStatusName":null,"dateDay":null,"orgNos":null,"nowTime":null,"countyName":null,"streetName":null,"villageName":null,"roadName":null,"communityName":null,"tranName":null,"sdLineName":null,"cityCode":"3340150","cityName":"国网浙江桐庐县供电公司","provinceCode":null,"stopTime":"2019-06-20 16:00:48","powerType":"全部","powerOffArea":"110kV横村变:胜峰T335线-郑城1号公变后段","powerOffReason":"低压开关故障处理","powerOffId":"2019062031010118"}],"pageModel":{"pageNow":1569,"totalCount":17789,"totalPage":1779,"tableRows":0,"pageCount":10,"beginCount":15680},"isExperi":"1"}