{"message":"","today":"2020-06-16","seleList":[{"poweroffId":2019062031010091,"sgpoweroffId":null,"subsName":"","lineName":"10kV交通D364线","pubTranName":"秋丰村庙山东区3号公变,","scope":"浙江省杭州市富阳区富春街道秋丰村湖南山一带","startTime":"2019-06-20 10:49:17","stopDate":"2019-06-20 13:10:00","orgNo":"3340170","typeCode":"电网故障停限电","poweroffArea":"110kV富鹿变:交通D364线-秋丰村庙山东区3号公变后段","poweroffReason":"低压配电设备故障","powerTime":"2019-06-20 12:42:34","powerComm":"已送电","subsNo":"","lineNo":"","tgNo":"","tgName":null,"infoStatus":"1","orgName":"国网浙江杭州市富阳区供电公司","typeName":null,"infoStatusName":null,"dateDay":null,"orgNos":null,"nowTime":null,"countyName":null,"streetName":null,"villageName":null,"roadName":null,"communityName":null,"tranName":null,"sdLineName":null,"cityCode":"3340170","cityName":"国网浙江杭州市富阳区供电公司","provinceCode":null,"stopTime":"2019-06-20 13:10:00","powerType":"全部","powerOffArea":"110kV富鹿变:交通D364线-秋丰村庙山东区3号公变后段","powerOffReason":"低压配电设备故障","powerOffId":"2019062031010091"},{"poweroffId":2019062031010075,"sgpoweroffId":null,"subsName":"","lineName":"10kV月桂8438线","pubTranName":"景洲（二）,杨晓（六）,货运市场(2),天堂经济二3#,景洲（四）,杨经（3）2#,石杨宏润,杨景（四）,天堂经济2#,杨景（二）,下看2#,杨家(9)农,杨春,杨晓（四）,杨晓（十）,杨晓（八）,杨晓（二）,","scope":"浙江省-杭州市-下城区-石桥街道(杨家社区-石桥路);(杭州三江阳光康复医院有限公司,杭州石大路货运市场,杭州天鼎物业管理有限公司,杭州怡康护理院有限公司,宏润建设集团股份有限公司);","startTime":"2019-06-20 09:55:11","stopDate":"2019-06-20 14:20:20","orgNo":"3340101","typeCode":"电网故障停限电","poweroffArea":"110kV永宁变:月桂8438线","poweroffReason":"高压开关跳闸 原预计停电结束时间2019-06-20 15:55:11,由于施工现场环境比较复杂，存在不确定因素，因此预估施工时间适当放长了， 而实际施工进行得比较顺利，因此提前送电了","powerTime":"2019-06-20 13:44:07","powerComm":"送电","subsNo":"","lineNo":"","tgNo":"","tgName":null,"infoStatus":"1","orgName":"浙江杭州电力客户服务中心","typeName":null,"infoStatusName":null,"dateDay":null,"orgNos":null,"nowTime":null,"countyName":null,"streetName":null,"villageName":null,"roadName":null,"communityName":null,"tranName":null,"sdLineName":null,"cityCode":"3340101","cityName":"浙江杭州电力客户服务中心","provinceCode":null,"stopTime":"2019-06-20 14:20:20","powerType":"全部","powerOffArea":"110kV永宁变:月桂8438线","powerOffReason":"高压开关跳闸 原预计停电结束时间2019-06-20 15:55:11,由于施工现场环境比较复杂，存在不确定因素，因此预估施工时间适当放长了， 而实际施工进行得比较顺利，因此提前送电了","powerOffId":"2019062031010075"},{"poweroffId":2019062031010064,"sgpoweroffId":null,"subsName":"","lineName":"10kV中舟8408线","pubTranName":"杭州市排水设施养护所,家村二变,西孚捷充,农都1#,杨六组,家村六变,久融俞泵,市政胜区,草经2#,草经1#,绿港花卉,汽运,农都2#,家村四变,","scope":"浙江省-杭州市-下城区-石桥街道(杨家社区-长城街、杨家村);(杭州博养医院有限公司,杭州捷充新能源科技有限公司,杭州绿港花卉世界有限公司,杭州市排水有限公司,杭州市市政公用建设开发公司,杭州新中南汽车维修有限公司,杭州杨家村经济合作社,久融新能源科技有限公司,浙江省农都农产品有限公司);","startTime":"2019-06-20 09:40:26","stopDate":"2019-06-20 11:10:34","orgNo":"3340101","typeCode":"电网故障停限电","poweroffArea":"110kV长木变:中舟8408线","poweroffReason":"高压开关跳闸 原预计停电结束时间2019-06-20 15:40:26,由于施工现场环境比较复杂，存在不确定因素，因此预估施工时间适当放长了，而实际施工进行得比较顺利，因此提前送电了","powerTime":"2019-06-20 10:25:50","powerComm":"已送电","subsNo":"","lineNo":"","tgNo":"","tgName":null,"infoStatus":"1","orgName":"浙江杭州电力客户服务中心","typeName":null,"infoStatusName":null,"dateDay":null,"orgNos":null,"nowTime":null,"countyName":null,"streetName":null,"villageName":null,"roadName":null,"communityName":null,"tranName":null,"sdLineName":null,"cityCode":"3340101","cityName":"浙江杭州电力客户服务中心","provinceCode":null,"stopTime":"2019-06-20 11:10:34","powerType":"全部","powerOffArea":"110kV长木变:中舟8408线","powerOffReason":"高压开关跳闸 原预计停电结束时间2019-06-20 15:40:26,由于施工现场环境比较复杂，存在不确定因素，因此预估施工时间适当放长了，而实际施工进行得比较顺利，因此提前送电了","powerOffId":"2019062031010064"},{"poweroffId":2019062031010057,"sgpoweroffId":null,"subsName":"","lineName":"10kV明中C843线","pubTranName":"长巷村10#变,","scope":"浙江省-杭州市-萧山区-瓜沥镇长巷行政村、长巷自然村一带","startTime":"2019-06-20 09:15:51","stopDate":"2019-06-20 10:30:41","orgNo":"3340130","typeCode":"电网故障停限电","poweroffArea":"110kV昭东变:明中C843线-长巷村10#变台区低压开关","poweroffReason":"低压漏电保护器短路故障 原停电结束时间：2019-06-20 15:19:17，变更停电结束时间：2019-06-20 10:30:41。由于抢修工作提前完成，故需要提前送电。","powerTime":"2019-06-20 09:45:06","powerComm":"已送电","subsNo":"","lineNo":"","tgNo":"","tgName":null,"infoStatus":"1","orgName":"国网浙江杭州市萧山区供电有限公司","typeName":null,"infoStatusName":null,"dateDay":null,"orgNos":null,"nowTime":null,"countyName":null,"streetName":null,"villageName":null,"roadName":null,"communityName":null,"tranName":null,"sdLineName":null,"cityCode":"3340130","cityName":"国网浙江杭州市萧山区供电有限公司","provinceCode":null,"stopTime":"2019-06-20 10:30:41","powerType":"全部","powerOffArea":"110kV昭东变:明中C843线-长巷村10#变台区低压开关","powerOffReason":"低压漏电保护器短路故障 原停电结束时间：2019-06-20 15:19:17，变更停电结束时间：2019-06-20 10:30:41。由于抢修工作提前完成，故需要提前送电。","powerOffId":"2019062031010057"},{"poweroffId":2019062031010039,"sgpoweroffId":null,"subsName":"","lineName":"10kV宝盛C777线","pubTranName":"北干二苑红枫小区6#公变,","scope":"浙江省-杭州市-萧山区-北干街道(北干二苑社区-永久路);北干二苑、红枫小区一带","startTime":"2019-06-20 08:25:06","stopDate":"2019-06-20 17:30:06","orgNo":"3340130","typeCode":"电网故障停限电","poweroffArea":"110kV通惠变:宝盛C777线-北干二苑红枫小区6#公变","poweroffReason":"更换变压器，原停电结束时间：2019-06-20 16:30:00，变更停电结束时间：2019-06-20 17:30:00，变更停电结束时间原因：由于今天天气一直下大雨，故需要延时。","powerTime":"2019-06-20 17:17:49","powerComm":"已送电","subsNo":"","lineNo":"","tgNo":"","tgName":null,"infoStatus":"1","orgName":"国网浙江杭州市萧山区供电有限公司","typeName":null,"infoStatusName":null,"dateDay":null,"orgNos":null,"nowTime":null,"countyName":null,"streetName":null,"villageName":null,"roadName":null,"communityName":null,"tranName":null,"sdLineName":null,"cityCode":"3340130","cityName":"国网浙江杭州市萧山区供电有限公司","provinceCode":null,"stopTime":"2019-06-20 17:30:06","powerType":"全部","powerOffArea":"110kV通惠变:宝盛C777线-北干二苑红枫小区6#公变","powerOffReason":"更换变压器，原停电结束时间：2019-06-20 16:30:00，变更停电结束时间：2019-06-20 17:30:00，变更停电结束时间原因：由于今天天气一直下大雨，故需要延时。","powerOffId":"2019062031010039"},{"poweroffId":2019061931020061,"sgpoweroffId":null,"subsName":"","lineName":"10kV千家D297线","pubTranName":"芳地村3号公变,","scope":"浙江省-杭州市-富阳区-银湖街道-大地行政村-芳地自然村","startTime":"2019-06-19 19:35:00","stopDate":"2019-06-19 21:50:00","orgNo":"3340170","typeCode":"电网故障停限电","poweroffArea":"35kV新义变:千家D297线芳地村3号公变跌落式熔断器配变","poweroffReason":"高压开关跳闸 原停电结束时间为2019-06-19 21:35:00，因现场抢修难度大延至2019-06-19 21:50:00","powerTime":"2019-06-19 21:35:18","powerComm":"已送电","subsNo":"","lineNo":"","tgNo":"","tgName":null,"infoStatus":"1","orgName":"国网浙江杭州市富阳区供电公司","typeName":null,"infoStatusName":null,"dateDay":null,"orgNos":null,"nowTime":null,"countyName":null,"streetName":null,"villageName":null,"roadName":null,"communityName":null,"tranName":null,"sdLineName":null,"cityCode":"3340170","cityName":"国网浙江杭州市富阳区供电公司","provinceCode":null,"stopTime":"2019-06-19 21:50:00","powerType":"全部","powerOffArea":"35kV新义变:千家D297线芳地村3号公变跌落式熔断器配变","powerOffReason":"高压开关跳闸 原停电结束时间为2019-06-19 21:35:00，因现场抢修难度大延至2019-06-19 21:50:00","powerOffId":"2019061931020061"},{"poweroffId":2019061931020057,"sgpoweroffId":null,"subsName":"","lineName":"10kV山丁9526线","pubTranName":"老塘2,","scope":"浙江省-杭州市-滨江区-浦沿街道(新浦社区-新浦路,冠二社区-火炬大道)","startTime":"2019-07-03 09:30:00","stopDate":"2019-07-03 11:30:00","orgNo":"3340101","typeCode":"计划停电","poweroffArea":"110kV冠山变:山丁9526线-老塘2公变，浙江省杭州市滨江区冠二社区老塘一带","poweroffReason":"消缺工作","powerTime":"2019-07-03 10:53:59","powerComm":"已送电","subsNo":"","lineNo":"","tgNo":"","tgName":null,"infoStatus":"1","orgName":"浙江杭州电力客户服务中心","typeName":null,"infoStatusName":null,"dateDay":null,"orgNos":null,"nowTime":null,"countyName":null,"streetName":null,"villageName":null,"roadName":null,"communityName":null,"tranName":null,"sdLineName":null,"cityCode":"3340101","cityName":"浙江杭州电力客户服务中心","provinceCode":null,"stopTime":"2019-07-03 11:30:00","powerType":"全部","powerOffArea":"110kV冠山变:山丁9526线-老塘2公变，浙江省杭州市滨江区冠二社区老塘一带","powerOffReason":"消缺工作","powerOffId":"2019061931020057"},{"poweroffId":2019061931020052,"sgpoweroffId":null,"subsName":"","lineName":"10kV虹棠7253线","pubTranName":"金桂二变,","scope":"浙江省-杭州市-滨江区-长河街道-中兴社区(滨盛路,江汉路)","startTime":"2019-07-02 09:30:00","stopDate":"2019-07-02 11:30:00","orgNo":"3340101","typeCode":"计划停电","poweroffArea":"110kV江虹变:虹棠7253线-金桂二变B2-2，浙江省杭州市滨江区中兴花园27幢1.2单元住户","poweroffReason":"消缺工作","powerTime":"2019-07-02 10:31:59","powerComm":"已送电","subsNo":"","lineNo":"","tgNo":"","tgName":null,"infoStatus":"1","orgName":"浙江杭州电力客户服务中心","typeName":null,"infoStatusName":null,"dateDay":null,"orgNos":null,"nowTime":null,"countyName":null,"streetName":null,"villageName":null,"roadName":null,"communityName":null,"tranName":null,"sdLineName":null,"cityCode":"3340101","cityName":"浙江杭州电力客户服务中心","provinceCode":null,"stopTime":"2019-07-02 11:30:00","powerType":"全部","powerOffArea":"110kV江虹变:虹棠7253线-金桂二变B2-2，浙江省杭州市滨江区中兴花园27幢1.2单元住户","powerOffReason":"消缺工作","powerOffId":"2019061931020052"},{"poweroffId":2019061931020050,"sgpoweroffId":null,"subsName":"","lineName":"10kV株林D243线","pubTranName":"杭州澜都房地产开发有限公司 1#,浙江城投建设有限公司受电点,杭州涌都房地产开发有限公司1#,浙江城投建设有限公司 1#,杭州涌都房地产开发有限公司 1#,横山村1#村中公变,杭州澜都房地产开发有限公司 1#,杭州涌都房地产开发有限公司1#基建变,","scope":"浙江省-杭州市-富阳区-东洲街道-黄公望行政村-横山自然村;东洲街道(杭州澜都房地产开发有限公司,杭州涌都房地产开发有限公司,浙江城投建设有限公司)","startTime":"2019-06-19 17:34:00","stopDate":"2019-06-19 19:34:00","orgNo":"3340170","typeCode":"电网故障停限电","poweroffArea":"110kV白鹤变:株林D243线横山分线1号杆开关后段","poweroffReason":"高压开关跳闸","powerTime":"2019-06-19 19:12:33","powerComm":"已送电","subsNo":"","lineNo":"","tgNo":"","tgName":null,"infoStatus":"1","orgName":"国网浙江杭州市富阳区供电公司","typeName":null,"infoStatusName":null,"dateDay":null,"orgNos":null,"nowTime":null,"countyName":null,"streetName":null,"villageName":null,"roadName":null,"communityName":null,"tranName":null,"sdLineName":null,"cityCode":"3340170","cityName":"国网浙江杭州市富阳区供电公司","provinceCode":null,"stopTime":"2019-06-19 19:34:00","powerType":"全部","powerOffArea":"110kV白鹤变:株林D243线横山分线1号杆开关后段","powerOffReason":"高压开关跳闸","powerOffId":"2019061931020050"},{"poweroffId":2019061931020046,"sgpoweroffId":null,"subsName":"","lineName":"10kV黄镇H565线","pubTranName":"港华燃气6120601795,声贝音响配电变压器间隔配电变压器,国联实业2号专变,国联实业1号专变,荣韵冲压6120835337基建变,嘉隆帕格6120571276,","scope":"浙江省杭州市余杭区黄湖镇：杭州荣韵冲压件有限公司、国联实业公司、声贝音响公司、嘉隆帕格公司、港华燃气一带","startTime":"2019-06-26 08:40:00","stopDate":"2019-06-26 16:40:00","orgNo":"3340140","typeCode":"临时停电","poweroffArea":"黄镇H565线声贝音响分线","poweroffReason":"计划工作","powerTime":"2019-06-26 15:42:57","powerComm":"已送电","subsNo":"","lineNo":"","tgNo":"","tgName":null,"infoStatus":"1","orgName":"国网浙江杭州市余杭区供电有限公司","typeName":null,"infoStatusName":null,"dateDay":null,"orgNos":null,"nowTime":null,"countyName":null,"streetName":null,"villageName":null,"roadName":null,"communityName":null,"tranName":null,"sdLineName":null,"cityCode":"3340140","cityName":"国网浙江杭州市余杭区供电有限公司","provinceCode":null,"stopTime":"2019-06-26 16:40:00","powerType":"全部","powerOffArea":"黄镇H565线声贝音响分线","powerOffReason":"计划工作","powerOffId":"2019061931020046"}],"pageModel":{"pageNow":1570,"totalCount":17789,"totalPage":1779,"tableRows":0,"pageCount":10,"beginCount":15690},"isExperi":"1"}