{"message":"","today":"2020-06-16","seleList":[{"poweroffId":2019061931010283,"sgpoweroffId":null,"subsName":"","lineName":"10kV盛东C922线","pubTranName":"盛东村18#变,","scope":"浙江省-杭州市-萧山区、新街镇、新街街道、盛东行政村-盛东自然村等一带","startTime":"2019-06-19 16:24:02","stopDate":"2019-06-19 18:25:38","orgNo":"3340130","typeCode":"电网故障停限电","poweroffArea":"110kV鸿达变:盛东C922线-盛东村18#变台区低压开关","poweroffReason":"低压漏电保护器短路故障","powerTime":"2019-06-19 17:30:18","powerComm":"已送电","subsNo":"","lineNo":"","tgNo":"","tgName":null,"infoStatus":"1","orgName":"国网浙江杭州市萧山区供电有限公司","typeName":null,"infoStatusName":null,"dateDay":null,"orgNos":null,"nowTime":null,"countyName":null,"streetName":null,"villageName":null,"roadName":null,"communityName":null,"tranName":null,"sdLineName":null,"cityCode":"3340130","cityName":"国网浙江杭州市萧山区供电有限公司","provinceCode":null,"stopTime":"2019-06-19 18:25:38","powerType":"全部","powerOffArea":"110kV鸿达变:盛东C922线-盛东村18#变台区低压开关","powerOffReason":"低压漏电保护器短路故障","powerOffId":"2019061931010283"},{"poweroffId":2019061931010277,"sgpoweroffId":null,"subsName":"","lineName":"10kV旧县T225线","pubTranName":"合岭村6号公变,合岭村3号公变,合岭村4号公变,合岭村5号公变,合岭村2号公变,","scope":"浙江省-杭州市-桐庐县-旧县街道(合岭行政村-大岭头自然村、合岭自然村、上尹峰自然村、尹峰自然村、母岭自然村);","startTime":"2019-06-19 16:10:49","stopDate":"2019-06-19 20:00:28","orgNo":"3340150","typeCode":"电网故障停限电","poweroffArea":"35kV西武变:旧县T225线-合岭T2254线后段","poweroffReason":"低压开关故障处理","powerTime":"2019-06-19 19:37:19","powerComm":"已送电","subsNo":"","lineNo":"","tgNo":"","tgName":null,"infoStatus":"1","orgName":"国网浙江桐庐县供电公司","typeName":null,"infoStatusName":null,"dateDay":null,"orgNos":null,"nowTime":null,"countyName":null,"streetName":null,"villageName":null,"roadName":null,"communityName":null,"tranName":null,"sdLineName":null,"cityCode":"3340150","cityName":"国网浙江桐庐县供电公司","provinceCode":null,"stopTime":"2019-06-19 20:00:28","powerType":"全部","powerOffArea":"35kV西武变:旧县T225线-合岭T2254线后段","powerOffReason":"低压开关故障处理","powerOffId":"2019061931010277"},{"poweroffId":2019061931010256,"sgpoweroffId":null,"subsName":"","lineName":"10kV百岁T168线","pubTranName":"舒家村外陈家3号公变,舒家村仲霞1号公变,桐庐垂云山泉有限公司2号专变,桐庐百岁旅游有限公司,桐庐水电工程开发有限责任公司1号专变,坞口2号公变,瑶琳镇政府2号路灯变,糁源村对山1号公变,大山村横塘口2号公变,文源村井坞6号公变,桐庐垂云山泉有限公司1号专变,范家村里范家2号公变,方家村洛口埠1号公变,桐庐县毕浦何宋水电站,浙江富春江旅游股份有限公司1号专变,舒家村里陈家4号公变,瑶琳镇政府1号路灯变,毕浦乡三级电站,严村1号公变,全坞村宋坞塘1号公变,全坞村巧坞3号公变,文源村黄家1号公变,全坞村新蓬4号公变,吴雪荣,全坞村全坞口2号公变,桐庐县毕浦乡一级电站,毕浦油车边3号公变,何松贤,小洪坑1号公变,大山村半坑3号公变,严村查村2号公变,桐庐华信建材有限公司,严村庙前3号公变,方吴村5号公变,方吴小官塘6号公变,泮村红沙坪1号公变,桐庐森原矿业有限公司,文源村上沈5号公变,龚国民照明专变,瑶琳镇政府3号路灯变,吴天荣,夏塘1号公变,瑶琳大山1号公变,糁源村冷子里2号公变,文源村杨梅山4号公变,舒家里舒家6号公变,夏塘2号公变,文源村冶边3号公变,舒家村洪武山2号公变,舒家村钓坞口5号公变,毕浦乡林场,吴传荣(生活),夏塘肥皂坞3号公变,何宋村泮坑坞2号公变,金竹岭1号公变,聂樟清,东洲1号公变,毕浦村1号公变,百岁王家1号公变,范家1号公变,浙江富春江旅游股份有限公司1号专变,桐庐县百岁潘村电站,文源村七何村7号公变,泮村二队2号公变,大洲畈农业开发有限公司,毕浦乡二级电站,毕浦村担石坞2号公变,上王家井元里1号公变,方家村高坑2号公变,方家村里家边4号公变,桐庐县百岁乡范家电站,上王家周家边3号公变,桐庐舒家竹笋专业合作社,何宋村楼畈3号公变,桐庐飞龙新墙体有限公司（1）,坞口村1号公变,方吴新村8号公变,桐庐水电工程开发有限责任公司2号专变,方吴村横坞口1号公变,方家3号公变,文源村吴家2号公变,何宋村洋坞口1号公变,糁源村里糁源3号公变,泮村南湾里3号公变,方吴村4号公变,方吴大溪口7号公变,方吴村移民边3号公变,毕浦村大溪山4号公变,中国旅行社,方吴独山2号公变,中国电信股份有限公司桐庐分公司,何宋关坞口4号公变,糁源村外糁坞4号公变,上王家料山2号公变,","scope":"浙江省-杭州市-桐庐县-瑶琳镇(百岁行政村-范家自然村、金竹岭自然村、潘村自然村、全坞自然村、王家自然村、坞口自然村、严村自然村,毕浦行政村-俞毕、糁源自然村,大山行政村-俞毕,东琳行政村-东洲自然村,何宋行政村-方家自然村、钟洛,舒家行政村-回里,文源行政村-大上、上沈自然村,永安行政村-方吴自然村、上王家自然村),钟山乡(夏塘行政村-钟洛),桐君街道(梅蓉行政村-龚家自然村、罗家自然村、徐家自然村);(毕浦乡二级电站,毕浦乡林场,毕浦乡三级电站,龚国民,杭州浩琪雕塑工程有限公司,何松贤,聂樟清,桐庐百岁旅游有限公司,桐庐垂云山泉有限公司,桐庐大洲畈农业开发有限公司,桐庐飞龙新墙体有限公司(1),桐庐华信建材有限公司,桐庐舒家竹笋专业合作社,桐庐水电工程开发有限责任公司,桐庐县百岁潘村水电站,桐庐县百岁乡范家电站,桐庐县毕浦何宋水电站,桐庐县毕浦乡一级电站,吴传荣,吴天荣,吴雪荣,浙江富春江旅游股份有限公司红灯笼乡村家园分公司,浙江富春江旅游股份有限公司天目溪漂流分公司,中国电信股份有限公司桐庐分公司);","startTime":"2019-06-19 15:32:07","stopDate":"2019-06-19 19:00:06","orgNo":"3340150","typeCode":"电网故障停限电","poweroffArea":"35kV瑶琳变:百岁T168线","poweroffReason":"低压开关故障处理","powerTime":"2019-06-19 18:45:15","powerComm":"已送电","subsNo":"","lineNo":"","tgNo":"","tgName":null,"infoStatus":"1","orgName":"国网浙江桐庐县供电公司","typeName":null,"infoStatusName":null,"dateDay":null,"orgNos":null,"nowTime":null,"countyName":null,"streetName":null,"villageName":null,"roadName":null,"communityName":null,"tranName":null,"sdLineName":null,"cityCode":"3340150","cityName":"国网浙江桐庐县供电公司","provinceCode":null,"stopTime":"2019-06-19 19:00:06","powerType":"全部","powerOffArea":"35kV瑶琳变:百岁T168线","powerOffReason":"低压开关故障处理","powerOffId":"2019061931010256"},{"poweroffId":2019061931010220,"sgpoweroffId":null,"subsName":"","lineName":"10kV窄溪T257线","pubTranName":"前村2号公变,","scope":"浙江省-杭州市-桐庐县-江南镇(窄溪行政村-前村自然村、富前路、陈庄自然村、陈庄安置小区、富前路一带);","startTime":"2019-06-19 14:39:31","stopDate":"2019-06-19 16:00:18","orgNo":"3340150","typeCode":"电网故障停限电","poweroffArea":"110kV石阜变:窄溪T257线-前村2号公变后段","poweroffReason":"低压开关故障","powerTime":"2019-06-19 15:58:13","powerComm":"已送电。","subsNo":"","lineNo":"","tgNo":"","tgName":null,"infoStatus":"1","orgName":"国网浙江桐庐县供电公司","typeName":null,"infoStatusName":null,"dateDay":null,"orgNos":null,"nowTime":null,"countyName":null,"streetName":null,"villageName":null,"roadName":null,"communityName":null,"tranName":null,"sdLineName":null,"cityCode":"3340150","cityName":"国网浙江桐庐县供电公司","provinceCode":null,"stopTime":"2019-06-19 16:00:18","powerType":"全部","powerOffArea":"110kV石阜变:窄溪T257线-前村2号公变后段","powerOffReason":"低压开关故障","powerOffId":"2019061931010220"},{"poweroffId":2019061931010219,"sgpoweroffId":null,"subsName":"","lineName":"10kV窄溪T257线","pubTranName":"张家边村1号公变,","scope":"浙江省-杭州市-桐庐县-江南镇(窄溪行政村-古城自然村、前村自然村);","startTime":"2019-06-19 14:42:18","stopDate":"2019-06-19 16:30:16","orgNo":"3340150","typeCode":"电网故障停限电","poweroffArea":"110kV石阜变:窄溪T257线-张家边村1号公变后段","poweroffReason":"低压开关故障","powerTime":"2019-06-19 16:13:09","powerComm":"已送电","subsNo":"","lineNo":"","tgNo":"","tgName":null,"infoStatus":"1","orgName":"国网浙江桐庐县供电公司","typeName":null,"infoStatusName":null,"dateDay":null,"orgNos":null,"nowTime":null,"countyName":null,"streetName":null,"villageName":null,"roadName":null,"communityName":null,"tranName":null,"sdLineName":null,"cityCode":"3340150","cityName":"国网浙江桐庐县供电公司","provinceCode":null,"stopTime":"2019-06-19 16:30:16","powerType":"全部","powerOffArea":"110kV石阜变:窄溪T257线-张家边村1号公变后段","powerOffReason":"低压开关故障","powerOffId":"2019061931010219"},{"poweroffId":2019061931010213,"sgpoweroffId":null,"subsName":"","lineName":"10kV振华C786线","pubTranName":"三岔路村6#变,","scope":"浙江省-杭州市-萧山区-瓜沥镇三岔路行政村-北塘东路、三岔路村一带","startTime":"2019-06-19 14:32:09","stopDate":"2019-06-19 15:50:10","orgNo":"3340130","typeCode":"电网故障停限电","poweroffArea":"35kV坎山变:振华C786线-三岔路村6#变台区低压开关","poweroffReason":"低压漏电保护器短路故障 原停电结束时间20：32，变更停电结束时间15：50，由于抢修工作提前完成，故需要提前送电。","powerTime":"2019-06-19 15:04:10","powerComm":"已送电","subsNo":"","lineNo":"","tgNo":"","tgName":null,"infoStatus":"1","orgName":"国网浙江杭州市萧山区供电有限公司","typeName":null,"infoStatusName":null,"dateDay":null,"orgNos":null,"nowTime":null,"countyName":null,"streetName":null,"villageName":null,"roadName":null,"communityName":null,"tranName":null,"sdLineName":null,"cityCode":"3340130","cityName":"国网浙江杭州市萧山区供电有限公司","provinceCode":null,"stopTime":"2019-06-19 15:50:10","powerType":"全部","powerOffArea":"35kV坎山变:振华C786线-三岔路村6#变台区低压开关","powerOffReason":"低压漏电保护器短路故障 原停电结束时间20：32，变更停电结束时间15：50，由于抢修工作提前完成，故需要提前送电。","powerOffId":"2019061931010213"},{"poweroffId":2019061931010191,"sgpoweroffId":null,"subsName":"","lineName":"10kV东八D469线","pubTranName":"紫铜村16号村委路公变,","scope":"浙江省-杭州市-富阳区-东洲街道-紫铜村一带","startTime":"2019-06-19 14:00:00","stopDate":"2019-06-19 15:30:00","orgNo":"3340170","typeCode":"电网故障停限电","poweroffArea":"110kV东洲变:东八D469线-紫铜村16号村委路公变台区低压开关后段","poweroffReason":"低压配电设备故障","powerTime":"2019-06-19 15:00:37","powerComm":"故障已处理，恢复送电","subsNo":"","lineNo":"","tgNo":"","tgName":null,"infoStatus":"1","orgName":"国网浙江杭州市富阳区供电公司","typeName":null,"infoStatusName":null,"dateDay":null,"orgNos":null,"nowTime":null,"countyName":null,"streetName":null,"villageName":null,"roadName":null,"communityName":null,"tranName":null,"sdLineName":null,"cityCode":"3340170","cityName":"国网浙江杭州市富阳区供电公司","provinceCode":null,"stopTime":"2019-06-19 15:30:00","powerType":"全部","powerOffArea":"110kV东洲变:东八D469线-紫铜村16号村委路公变台区低压开关后段","powerOffReason":"低压配电设备故障","powerOffId":"2019061931010191"},{"poweroffId":2019061931010181,"sgpoweroffId":null,"subsName":"","lineName":"10kV歌舞T142线","pubTranName":"高塘岭1号公变,","scope":"浙江省-杭州市-桐庐县-钟山乡(高峰行政村-高塘岭脚自然村);","startTime":"2019-06-19 13:37:11","stopDate":"2019-06-19 20:00:06","orgNo":"3340150","typeCode":"电网故障停限电","poweroffArea":"35kV钟山变:歌舞T142线-高塘岭1号公变后段","poweroffReason":"低压开关故障","powerTime":"2019-06-19 19:36:33","powerComm":"已送电","subsNo":"","lineNo":"","tgNo":"","tgName":null,"infoStatus":"1","orgName":"国网浙江桐庐县供电公司","typeName":null,"infoStatusName":null,"dateDay":null,"orgNos":null,"nowTime":null,"countyName":null,"streetName":null,"villageName":null,"roadName":null,"communityName":null,"tranName":null,"sdLineName":null,"cityCode":"3340150","cityName":"国网浙江桐庐县供电公司","provinceCode":null,"stopTime":"2019-06-19 20:00:06","powerType":"全部","powerOffArea":"35kV钟山变:歌舞T142线-高塘岭1号公变后段","powerOffReason":"低压开关故障","powerOffId":"2019061931010181"},{"poweroffId":2019061931010175,"sgpoweroffId":null,"subsName":"","lineName":"10kV谢田Y786线","pubTranName":"庙前村外郭台区,","scope":"浙江省-杭州市-建德市-钦堂乡-庄丰行政村(林山口自然村,庄丰自然村,丁坞自然村,林山自然村,干坞自然村),钦堂乡-庙前行政村(庙前自然村,外郭自然村);钦堂乡-建德市钦堂乡宏火行李带厂一带用户。","startTime":"2019-06-19 13:15:00","stopDate":"2019-06-19 17:00:00","orgNo":"3340180","typeCode":"电网故障停限电","poweroffArea":"110kV钦堂变:谢田Y786线-庙前村外郭台区后段","poweroffReason":"谢田Y786线-庙前村外郭台区 低压配电设备故障","powerTime":"2019-06-19 16:09:00","powerComm":"已送电","subsNo":"","lineNo":"","tgNo":"","tgName":null,"infoStatus":"1","orgName":"国网浙江建德市供电有限公司","typeName":null,"infoStatusName":null,"dateDay":null,"orgNos":null,"nowTime":null,"countyName":null,"streetName":null,"villageName":null,"roadName":null,"communityName":null,"tranName":null,"sdLineName":null,"cityCode":"3340180","cityName":"国网浙江建德市供电有限公司","provinceCode":null,"stopTime":"2019-06-19 17:00:00","powerType":"全部","powerOffArea":"110kV钦堂变:谢田Y786线-庙前村外郭台区后段","powerOffReason":"谢田Y786线-庙前村外郭台区 低压配电设备故障","powerOffId":"2019061931010175"},{"poweroffId":2019061931010174,"sgpoweroffId":null,"subsName":"","lineName":"10kV窄溪T257线","pubTranName":"桐庐县江南镇江滨饭店,胡家边村2号公变,古里庄村1号公变,孙家村2号公变,黄家村2号公变,江南府小区3号公变,前村4号公变,定安路1号公变,桐庐县公安局江南派出所,黄家村1号公变,绿园小区2号公变,陈庄安置小区5号公变,江南府小区4号公变,富前路1号公变,孙黄家村1号公变,前村2号公变,前村安置小区1号公变,窄溪自来水厂,前村1号公变,农贸市场1号公变,浙江集晟科技有限责任公司（基建）,桐庐伟邦房地产开发有限公司,前村3号公变,杭州嘉威房地产开发有限公司（基建）,寺基上1号公变,高山头1号公变,江南府小区1号公变,胡家边村1号公变,桐庐县江南初级中学,窄溪安置小区1号公变,杭州华敏通讯有限公司,陈庄安置小区4号公变,陈庄安置小区1号公变,江城1号公变,桐庐县江南镇通航砂石经营部,江南府小区2号公变,桐庐城市建设投资有限公司(320路灯变2#),富前路2号公变,浙江兴腾物业管理有限公司,张家溪口抽水〈窄溪〉,赵家村1号公变,绿园小区1号公变,桐庐县供电局,陈庄安置小区3号公变,杭州天地工艺礼品有限公司,锦绣江南小区1号公变,桐庐银利来针织有限公司,移民村2号公变,窄溪新近江饭店,陈庄安置小区6号公变,桐庐浙石第二加油站有限公司,江滨路1号公变,张家边村1号公变,陈庄安置小区2号公变,东都名苑2#专变,金浦路1号公变,金浦路2号公变,赵家村排涝站,孙家村1号公变,孙家排涝变,杭州市港航管理局,前村5号公变,桐庐明发针织有限公司,市场路1号公变,杭州桐庐南远机械有限公司,大元里村1号公变,","scope":"浙江省-杭州市-桐庐县-江南镇(窄溪行政村-古城自然村、前村自然村);","startTime":"2019-06-19 13:16:11","stopDate":"2019-06-19 15:00:27","orgNo":"3340150","typeCode":"电网故障停限电","poweroffArea":"110kV石阜变:窄溪T257线-张家边村1号公变，胡家边村2号公变，胡家边村1号公变，古里庄村1号公变，寺基上1号公变之间","poweroffReason":"低压开关故障","powerTime":"2019-06-19 14:44:15","powerComm":"已送电","subsNo":"","lineNo":"","tgNo":"","tgName":null,"infoStatus":"1","orgName":"国网浙江桐庐县供电公司","typeName":null,"infoStatusName":null,"dateDay":null,"orgNos":null,"nowTime":null,"countyName":null,"streetName":null,"villageName":null,"roadName":null,"communityName":null,"tranName":null,"sdLineName":null,"cityCode":"3340150","cityName":"国网浙江桐庐县供电公司","provinceCode":null,"stopTime":"2019-06-19 15:00:27","powerType":"全部","powerOffArea":"110kV石阜变:窄溪T257线-张家边村1号公变，胡家边村2号公变，胡家边村1号公变，古里庄村1号公变，寺基上1号公变之间","powerOffReason":"低压开关故障","powerOffId":"2019061931010174"}],"pageModel":{"pageNow":1573,"totalCount":17789,"totalPage":1779,"tableRows":0,"pageCount":10,"beginCount":15720},"isExperi":"1"}