{"message":"","today":"2020-06-15","seleList":[{"poweroffId":2020051531020763,"sgpoweroffId":null,"subsName":"","lineName":"10kV草苑9814线","pubTranName":"笕(6)农,","scope":"浙江省-杭州市-江干区-笕桥镇-浙江省杭州市江干区笕桥一组6-19号、58号，笕桥二组、笕桥六组1号附近","startTime":"2020-05-25 09:30:00","stopDate":"2020-05-25 10:30:00","orgNo":"3340101","typeCode":"计划停电","poweroffArea":"110kV笕桥变:草苑9814线-笕(6)农后段","poweroffReason":"笕（6）农更换终端 原停电结束时间为2020-05-25 17:30:00,为减少客户停电时间,加快工作进度,提前送电,现变更停电结束时间为2020-05-25 10:30:00","powerTime":"2020-05-25 09:53:42","powerComm":"已送电","subsNo":"","lineNo":"","tgNo":"","tgName":null,"infoStatus":"1","orgName":"浙江杭州电力客户服务中心","typeName":null,"infoStatusName":null,"dateDay":null,"orgNos":null,"nowTime":null,"countyName":null,"streetName":null,"villageName":null,"roadName":null,"communityName":null,"tranName":null,"sdLineName":null,"cityCode":"3340101","cityName":"浙江杭州电力客户服务中心","provinceCode":null,"stopTime":"2020-05-25 10:30:00","powerType":"全部","powerOffArea":"110kV笕桥变:草苑9814线-笕(6)农后段","powerOffReason":"笕（6）农更换终端 原停电结束时间为2020-05-25 17:30:00,为减少客户停电时间,加快工作进度,提前送电,现变更停电结束时间为2020-05-25 10:30:00","powerOffId":"2020051531020763"},{"poweroffId":2020051531020761,"sgpoweroffId":null,"subsName":"","lineName":"10kV横槎D386线","pubTranName":"横槎村10号树石毛墩公变,","scope":"浙江省-杭州市-富阳区-常安镇-横槎行政村-树石自然村一带","startTime":"2020-05-28 16:15:00","stopDate":"2020-05-28 16:55:00","orgNo":"3340170","typeCode":"计划停电","poweroffArea":"35kV湖源变:横槎D386线-横槎村10#树石毛墩公变开关后段","poweroffReason":"横槎D386线87#杆毛墩分线1#杆横槎村10#树石毛墩公变拆除0.4kv发电机T接箱电缆并搭接于变压器等工作。","powerTime":"2020-05-28 16:35:04","powerComm":"已送电","subsNo":"","lineNo":"","tgNo":"","tgName":null,"infoStatus":"1","orgName":"国网浙江杭州市富阳区供电公司","typeName":null,"infoStatusName":null,"dateDay":null,"orgNos":null,"nowTime":null,"countyName":null,"streetName":null,"villageName":null,"roadName":null,"communityName":null,"tranName":null,"sdLineName":null,"cityCode":"3340170","cityName":"国网浙江杭州市富阳区供电公司","provinceCode":null,"stopTime":"2020-05-28 16:55:00","powerType":"全部","powerOffArea":"35kV湖源变:横槎D386线-横槎村10#树石毛墩公变开关后段","powerOffReason":"横槎D386线87#杆毛墩分线1#杆横槎村10#树石毛墩公变拆除0.4kv发电机T接箱电缆并搭接于变压器等工作。","powerOffId":"2020051531020761"},{"poweroffId":2020051531020760,"sgpoweroffId":null,"subsName":"","lineName":"10kV屏门R182线","pubTranName":"临岐屏前村屏前公变,临岐屏前村前坞口公变,临岐屏前村大陵公变,","scope":"浙江省-杭州市-淳安县-屏门乡-屏前行政村(屏前自然村,屏前村)","startTime":"2020-05-29 07:50:00","stopDate":"2020-05-29 15:10:00","orgNo":"3340190","typeCode":"计划停电","poweroffArea":"35kV临岐变:屏门R182线-前坞口配变跌落式熔断器后段;屏门R182线-屏前配变跌落式熔断器后段;屏门R182线-大陵配变跌落式熔断器后段","poweroffReason":"大陵支线2号杆后段线路检修","powerTime":"2020-05-29 14:14:18","powerComm":"已送电","subsNo":"","lineNo":"","tgNo":"","tgName":null,"infoStatus":"1","orgName":"国网浙江淳安县供电有限公司","typeName":null,"infoStatusName":null,"dateDay":null,"orgNos":null,"nowTime":null,"countyName":null,"streetName":null,"villageName":null,"roadName":null,"communityName":null,"tranName":null,"sdLineName":null,"cityCode":"3340190","cityName":"国网浙江淳安县供电有限公司","provinceCode":null,"stopTime":"2020-05-29 15:10:00","powerType":"全部","powerOffArea":"35kV临岐变:屏门R182线-前坞口配变跌落式熔断器后段;屏门R182线-屏前配变跌落式熔断器后段;屏门R182线-大陵配变跌落式熔断器后段","powerOffReason":"大陵支线2号杆后段线路检修","powerOffId":"2020051531020760"},{"poweroffId":2020051531020757,"sgpoweroffId":null,"subsName":"","lineName":"10kV大井G009线","pubTranName":"宏泰钢结构厂,","scope":"浙江省-杭州市-余杭区-乔司街道：宏泰钢结构公司、城建吴家安置3#、4#、5#基建bian、加油站一带","startTime":"2020-05-26 08:30:00","stopDate":"2020-05-26 17:00:00","orgNo":"3340140","typeCode":"计划停电","poweroffArea":"110kV外乔变:大井G009线-宏泰钢结构厂分线开关后段","poweroffReason":"计划工作","powerTime":"","powerComm":"","subsNo":"","lineNo":"","tgNo":"","tgName":null,"infoStatus":"1","orgName":"国网浙江杭州市余杭区供电有限公司","typeName":null,"infoStatusName":null,"dateDay":null,"orgNos":null,"nowTime":null,"countyName":null,"streetName":null,"villageName":null,"roadName":null,"communityName":null,"tranName":null,"sdLineName":null,"cityCode":"3340140","cityName":"国网浙江杭州市余杭区供电有限公司","provinceCode":null,"stopTime":"2020-05-26 17:00:00","powerType":"未送电","powerOffArea":"110kV外乔变:大井G009线-宏泰钢结构厂分线开关后段","powerOffReason":"计划工作","powerOffId":"2020051531020757"},{"poweroffId":2020051531020752,"sgpoweroffId":null,"subsName":"","lineName":"10kV南市H740线","pubTranName":"闲富(1)公变,嘉凯城基建变,闲林街道,","scope":"浙江省-杭州市-余杭区-闲林街道：闲富路1号公bian、嘉凯城建设工地、闲林街道办事处一带","startTime":"2020-05-26 09:30:00","stopDate":"2020-05-26 18:30:00","orgNo":"3340140","typeCode":"计划停电","poweroffArea":"天赋开关站南市H740线林镇分支箱分线","poweroffReason":"业扩工程（重基公司南市分线迁改工程）：林镇分支箱分线改接至金泽开关站Ⅰ段4号间隔 原停电结束时间为2020-05-26 16:30:00,因现场施工受阻原因,延迟送电,现变更停电结束时间为2020-05-26 18:30:00","powerTime":"","powerComm":"","subsNo":"","lineNo":"","tgNo":"","tgName":null,"infoStatus":"1","orgName":"国网浙江杭州市余杭区供电有限公司","typeName":null,"infoStatusName":null,"dateDay":null,"orgNos":null,"nowTime":null,"countyName":null,"streetName":null,"villageName":null,"roadName":null,"communityName":null,"tranName":null,"sdLineName":null,"cityCode":"3340140","cityName":"国网浙江杭州市余杭区供电有限公司","provinceCode":null,"stopTime":"2020-05-26 18:30:00","powerType":"未送电","powerOffArea":"天赋开关站南市H740线林镇分支箱分线","powerOffReason":"业扩工程（重基公司南市分线迁改工程）：林镇分支箱分线改接至金泽开关站Ⅰ段4号间隔 原停电结束时间为2020-05-26 16:30:00,因现场施工受阻原因,延迟送电,现变更停电结束时间为2020-05-26 18:30:00","powerOffId":"2020051531020752"},{"poweroffId":2020051531020751,"sgpoweroffId":null,"subsName":"","lineName":"10kV许家H410线","pubTranName":"良渚村许家塘2号公变,凯迪纺织,良渚村钱粮村2号公变,良渚村吴家塘公变,良渚村钱粮村公变,","scope":"浙江省-杭州市-余杭区-良渚街道：许家塘、凯迪纺织、吴家塘、钱粮村一带","startTime":"2020-05-26 08:40:00","stopDate":"2020-05-26 18:30:00","orgNo":"3340140","typeCode":"计划停电","poweroffArea":"35kV良渚变:许家H410线-钱粮村分线开关后段","poweroffReason":"计划工作 原停电结束时间为2020-05-26 15:40:00,因天气原因,延迟送电,现变更停电结束时间为2020-05-26 18:30:00","powerTime":"2020-05-26 18:16:52","powerComm":"已送电","subsNo":"","lineNo":"","tgNo":"","tgName":null,"infoStatus":"1","orgName":"国网浙江杭州市余杭区供电有限公司","typeName":null,"infoStatusName":null,"dateDay":null,"orgNos":null,"nowTime":null,"countyName":null,"streetName":null,"villageName":null,"roadName":null,"communityName":null,"tranName":null,"sdLineName":null,"cityCode":"3340140","cityName":"国网浙江杭州市余杭区供电有限公司","provinceCode":null,"stopTime":"2020-05-26 18:30:00","powerType":"全部","powerOffArea":"35kV良渚变:许家H410线-钱粮村分线开关后段","powerOffReason":"计划工作 原停电结束时间为2020-05-26 15:40:00,因天气原因,延迟送电,现变更停电结束时间为2020-05-26 18:30:00","powerOffId":"2020051531020751"},{"poweroffId":2020051531020750,"sgpoweroffId":null,"subsName":"","lineName":"10kV南市H740线","pubTranName":"弗兰西斯1,","scope":"浙江省-杭州市-余杭区-闲林街道：弗兰西斯厂一带","startTime":"2020-05-25 09:30:00","stopDate":"2020-05-25 17:30:00","orgNo":"3340140","typeCode":"计划停电","poweroffArea":"天赋开关站南市H740线天赋分支箱分线","poweroffReason":"业扩工程（重基公司南市分线迁改工程）：弗兰西斯改接至金泽开关站Ⅱ段12号间隔","powerTime":"2020-05-25 17:22:00","powerComm":"已送电","subsNo":"","lineNo":"","tgNo":"","tgName":null,"infoStatus":"1","orgName":"国网浙江杭州市余杭区供电有限公司","typeName":null,"infoStatusName":null,"dateDay":null,"orgNos":null,"nowTime":null,"countyName":null,"streetName":null,"villageName":null,"roadName":null,"communityName":null,"tranName":null,"sdLineName":null,"cityCode":"3340140","cityName":"国网浙江杭州市余杭区供电有限公司","provinceCode":null,"stopTime":"2020-05-25 17:30:00","powerType":"全部","powerOffArea":"天赋开关站南市H740线天赋分支箱分线","powerOffReason":"业扩工程（重基公司南市分线迁改工程）：弗兰西斯改接至金泽开关站Ⅱ段12号间隔","powerOffId":"2020051531020750"},{"poweroffId":2020051531020748,"sgpoweroffId":null,"subsName":"","lineName":"10kV场口D504线","pubTranName":"真佳溪村20#化竹上台埠公变,","scope":"浙江省-杭州市-富阳区-场口镇-真佳溪行政村-化竹自然村一带","startTime":"2020-05-28 09:00:00","stopDate":"2020-05-28 12:10:00","orgNo":"3340170","typeCode":"计划停电","poweroffArea":"110kV常安变:场口D504线-真佳溪村20#化竹上台埠公变开关后段","poweroffReason":"配电屏抬高、0.4kv进线电缆拆装等工作；","powerTime":"2020-05-28 12:01:39","powerComm":"已送电","subsNo":"","lineNo":"","tgNo":"","tgName":null,"infoStatus":"1","orgName":"国网浙江杭州市富阳区供电公司","typeName":null,"infoStatusName":null,"dateDay":null,"orgNos":null,"nowTime":null,"countyName":null,"streetName":null,"villageName":null,"roadName":null,"communityName":null,"tranName":null,"sdLineName":null,"cityCode":"3340170","cityName":"国网浙江杭州市富阳区供电公司","provinceCode":null,"stopTime":"2020-05-28 12:10:00","powerType":"全部","powerOffArea":"110kV常安变:场口D504线-真佳溪村20#化竹上台埠公变开关后段","powerOffReason":"配电屏抬高、0.4kv进线电缆拆装等工作；","powerOffId":"2020051531020748"},{"poweroffId":2020051531020747,"sgpoweroffId":null,"subsName":"","lineName":"10kV泥桥G908线","pubTranName":"和睦1组公变,和睦1组2号公变,","scope":"浙江省-杭州市-余杭区-乔司街道：和睦1组一带","startTime":"2020-05-25 08:30:00","stopDate":"2020-05-25 16:30:00","orgNo":"3340140","typeCode":"计划停电","poweroffArea":"110kV庙港变:泥桥G908线首端，和睦1组公变，和睦1组2号公变之间","poweroffReason":"配网工程（2020年杭州余杭乔司地区0.4千伏方桥社区等配变台区改造工程）：和睦1组5#变新出电缆1根、新放导线1档、和睦1组变新开耐张2处、和睦1组2#变新开耐张2处","powerTime":"2020-05-25 15:46:10","powerComm":"已送电","subsNo":"","lineNo":"","tgNo":"","tgName":null,"infoStatus":"1","orgName":"国网浙江杭州市余杭区供电有限公司","typeName":null,"infoStatusName":null,"dateDay":null,"orgNos":null,"nowTime":null,"countyName":null,"streetName":null,"villageName":null,"roadName":null,"communityName":null,"tranName":null,"sdLineName":null,"cityCode":"3340140","cityName":"国网浙江杭州市余杭区供电有限公司","provinceCode":null,"stopTime":"2020-05-25 16:30:00","powerType":"全部","powerOffArea":"110kV庙港变:泥桥G908线首端，和睦1组公变，和睦1组2号公变之间","powerOffReason":"配网工程（2020年杭州余杭乔司地区0.4千伏方桥社区等配变台区改造工程）：和睦1组5#变新出电缆1根、新放导线1档、和睦1组变新开耐张2处、和睦1组2#变新开耐张2处","powerOffId":"2020051531020747"},{"poweroffId":2020051531020744,"sgpoweroffId":null,"subsName":"","lineName":"10kV方港G921线","pubTranName":"永西1组公变,","scope":"浙江省-杭州市-余杭区-乔司街道：永西村1组一带","startTime":"2020-05-25 08:30:00","stopDate":"2020-05-25 13:00:00","orgNo":"3340140","typeCode":"计划停电","poweroffArea":"110kV庙港变:方港G921线-永西1组公变后段","poweroffReason":"(低压停电信息)配网工程（2020年杭州余杭乔司地区0.4千伏方桥社区等配变台区改造工程）：永西1组5#变新出电缆1根至永西1组变甲线电缆对接","powerTime":"2020-05-25 12:21:04","powerComm":"因施工力量加强，现场进度较快，提前送电","subsNo":"","lineNo":"","tgNo":"","tgName":null,"infoStatus":"1","orgName":"国网浙江杭州市余杭区供电有限公司","typeName":null,"infoStatusName":null,"dateDay":null,"orgNos":null,"nowTime":null,"countyName":null,"streetName":null,"villageName":null,"roadName":null,"communityName":null,"tranName":null,"sdLineName":null,"cityCode":"3340140","cityName":"国网浙江杭州市余杭区供电有限公司","provinceCode":null,"stopTime":"2020-05-25 13:00:00","powerType":"全部","powerOffArea":"110kV庙港变:方港G921线-永西1组公变后段","powerOffReason":"(低压停电信息)配网工程（2020年杭州余杭乔司地区0.4千伏方桥社区等配变台区改造工程）：永西1组5#变新出电缆1根至永西1组变甲线电缆对接","powerOffId":"2020051531020744"}],"pageModel":{"pageNow":159,"totalCount":17788,"totalPage":1779,"tableRows":0,"pageCount":10,"beginCount":1580},"isExperi":"1"}