{"message":"","today":"2020-06-16","seleList":[{"poweroffId":2019061831020007,"sgpoweroffId":null,"subsName":"","lineName":"10kV青何D731线","pubTranName":"唐昌村唐昌1号孙家公变,","scope":"浙江省-杭州市-富阳区-永昌镇-唐昌行政村(唐昌自然村,青山自然村)","startTime":"2019-06-18 10:07:12","stopDate":"2019-06-18 10:30:12","orgNo":"3340170","typeCode":"电网故障停限电","poweroffArea":"110kV松溪变:青何D731线-唐昌村唐昌1号孙家公变后段","poweroffReason":"高压开关跳闸","powerTime":"2019-06-18 10:24:07","powerComm":"已送电","subsNo":"","lineNo":"","tgNo":"","tgName":null,"infoStatus":"1","orgName":"国网浙江杭州市富阳区供电公司","typeName":null,"infoStatusName":null,"dateDay":null,"orgNos":null,"nowTime":null,"countyName":null,"streetName":null,"villageName":null,"roadName":null,"communityName":null,"tranName":null,"sdLineName":null,"cityCode":"3340170","cityName":"国网浙江杭州市富阳区供电公司","provinceCode":null,"stopTime":"2019-06-18 10:30:12","powerType":"全部","powerOffArea":"110kV松溪变:青何D731线-唐昌村唐昌1号孙家公变后段","powerOffReason":"高压开关跳闸","powerOffId":"2019061831020007"},{"poweroffId":2019061831020003,"sgpoweroffId":null,"subsName":"","lineName":"10kV青何D731线","pubTranName":"青何村青何3#大坞里公变,","scope":"浙江省-杭州市-富阳区-永昌镇-青何行政村-青何自然村一带","startTime":"2019-06-18 08:18:00","stopDate":"2019-06-18 09:38:00","orgNo":"3340170","typeCode":"电网故障停限电","poweroffArea":"110kV松溪变:青何D731线-青何村青何3#大坞里公变后段","poweroffReason":"高压开关跳闸","powerTime":"2019-06-18 09:05:11","powerComm":"已送电","subsNo":"","lineNo":"","tgNo":"","tgName":null,"infoStatus":"1","orgName":"国网浙江杭州市富阳区供电公司","typeName":null,"infoStatusName":null,"dateDay":null,"orgNos":null,"nowTime":null,"countyName":null,"streetName":null,"villageName":null,"roadName":null,"communityName":null,"tranName":null,"sdLineName":null,"cityCode":"3340170","cityName":"国网浙江杭州市富阳区供电公司","provinceCode":null,"stopTime":"2019-06-18 09:38:00","powerType":"全部","powerOffArea":"110kV松溪变:青何D731线-青何村青何3#大坞里公变后段","powerOffReason":"高压开关跳闸","powerOffId":"2019061831020003"},{"poweroffId":2019061831010335,"sgpoweroffId":null,"subsName":"","lineName":"10kV龙洞G154线","pubTranName":"沿山村虎啸桥东公变,龙洞村南山公变,杭州余杭崇贤镇蜜饯炒货厂,沿山村安贤陵园外公变,沿山村水洪庙北变,紫元康润2#,沿山村王家门2号公变,杭州中亚布艺公司（二）,杭州中亚布艺公司（三）,沿山村王家门变,沿山村外胜桥北公变,沿山村虎啸桥北变,沿山村庙桥变,杭润丝绸,沿山村水洪庙东公变,沿山村机纺桥2号公变,杭州国创贸易有限公司,顺亮玻璃,沿山村水洪庙北二公变,沿山村诸家浜变,杭州余杭区交通项目管理有限公司612081527801#专变,沿山村水洪庙西变,杭州中亚布艺公司（一）,叠进服饰,沿山村虎啸桥南变,紫元康润1#,沿山村机仿桥变,沿山村水洪庙南变,沿山村老鸦桥变,沿山村王家门北公变,隆炽布艺,沿山村老南山变,沿山村水洪庙中3公变,沿山村外胜桥变,沿山村章家桥变,沿山村水洪庙中2变,沿山村水洪庙铁路桥公变,紫元康润3#,沿山村水洪庙中变,杭州市余杭区城市管理局,","scope":"浙江省-杭州市-余杭区-塘栖镇(泰山行政村-泰山村),崇贤街道(沿山行政村-虎啸桥自然村、机纺桥自然村、老鸦桥自然村、庙桥自然村、水洪庙自然村、王家门自然村、沿山村、章家桥自然村、诸家浜自然村);杭州国创贸易有限公司,杭州金虹实业有限公司,杭州今日电气科技有限公司,杭州隆炽布艺有限公司,杭州市余杭区城市管理局,杭州顺亮玻璃有限公司,杭州余杭崇贤镇蜜饯炒货厂,杭州余杭区交通项目管理有限公司,杭州中亚布艺有限公司,杭州紫元康润房地产开发有限公司一带","startTime":"2019-06-18 20:57:00","stopDate":"2019-06-18 22:57:00","orgNo":"3340140","typeCode":"电网故障停限电","poweroffArea":"35kV南山变:龙洞G154线","poweroffReason":"龙洞G154线低压线路故障","powerTime":"2019-06-18 22:19:00","powerComm":"已送电","subsNo":"","lineNo":"","tgNo":"","tgName":null,"infoStatus":"1","orgName":"国网浙江杭州市余杭区供电有限公司","typeName":null,"infoStatusName":null,"dateDay":null,"orgNos":null,"nowTime":null,"countyName":null,"streetName":null,"villageName":null,"roadName":null,"communityName":null,"tranName":null,"sdLineName":null,"cityCode":"3340140","cityName":"国网浙江杭州市余杭区供电有限公司","provinceCode":null,"stopTime":"2019-06-18 22:57:00","powerType":"全部","powerOffArea":"35kV南山变:龙洞G154线","powerOffReason":"龙洞G154线低压线路故障","powerOffId":"2019061831010335"},{"poweroffId":2019061831010333,"sgpoweroffId":null,"subsName":"","lineName":"10kV戴宏A400线","pubTranName":"国丰机械厂,钱江农场6#公变,杭州永磁集团有限公司2#变,建明冷轧,名扬阁1#公变,钱江农场1#公变,杭州永磁集团有限公司1#变,依洁实业,铭球机械2#,部队5#,长永热处理,铭球机械1#,苏美达车业,长永热处理,杭州祥宏市政园林工程有限公司,名扬阁2#公变,钱江新村2区1#变,宏基租凭,建明冷轧,杭州萧山中发机械厂变压器,杭州深远工贸有限公司（1321411548）,钱江链条传动,涵基汽车,伟丰汽配,顺旺机械,中德华能,恺晨纸业,杭州萧山宁围旅游用品厂1#变,顺旺机械（生活）,钱江农场7#公变,","scope":"浙江省-杭州市-萧山区-宁围镇-宁围街道--经济技术开发区(钱江社区-钱农西路);(杭州涵基汽车配件有限公司,杭州鸿利型钢有限公司,杭州建明冷轧带钢有限公司,杭州铭球机械有限公司,杭州钱鸿苏美达车业有限公司,杭州钱江链传动有限公司,杭州深远工贸有限公司,杭州顺旺机械有限公司,杭州祥宏市政园林工程有限公司,杭州萧山长永热处理有限公司,杭州萧山国丰机械厂,杭州萧山宁围旅游用品厂,杭州萧山伟丰汽配有限公司,杭州依洁实业有限公司,杭州永磁集团有限公司,杭州中德华能新型涂料有限公司,杭州恺晨纸业有限公司,浙江宏基租赁有限公司,中国人民解放军73021部队农副业基地、钱江农场、盈一村、钱江新村、名扬阁小区、祥峰五金厂、大捷机械厂、戴宏机械厂、新星水泵厂、钱江链条传动公司、杭州雨豪机械配件厂、苏美达车业公司、萧山交通局、万向初中、安泰置业公司、远东自行车厂、鸿达立交泵房公司、杭州市萧山区排水管理处公司等一带","startTime":"2019-06-18 20:42:31","stopDate":"2019-06-18 23:55:32","orgNo":"3340130","typeCode":"电网故障停限电","poweroffArea":"110kV顺坝变:戴宏A400线-戴宏A4001线开关后段","poweroffReason":"高压柱上断路器短路故障","powerTime":"2019-06-18 22:57:05","powerComm":"已送电","subsNo":"","lineNo":"","tgNo":"","tgName":null,"infoStatus":"1","orgName":"国网浙江杭州市萧山区供电有限公司","typeName":null,"infoStatusName":null,"dateDay":null,"orgNos":null,"nowTime":null,"countyName":null,"streetName":null,"villageName":null,"roadName":null,"communityName":null,"tranName":null,"sdLineName":null,"cityCode":"3340130","cityName":"国网浙江杭州市萧山区供电有限公司","provinceCode":null,"stopTime":"2019-06-18 23:55:32","powerType":"全部","powerOffArea":"110kV顺坝变:戴宏A400线-戴宏A4001线开关后段","powerOffReason":"高压柱上断路器短路故障","powerOffId":"2019061831010333"},{"poweroffId":2019061831010331,"sgpoweroffId":null,"subsName":"","lineName":"10kV福团A463线","pubTranName":"团结村6#变,","scope":"浙江省-杭州市-萧山区-党湾镇团结行政村、团结自然村、党湾镇团结村中国海油加油站一带","startTime":"2019-06-18 20:25:34","stopDate":"2019-06-18 21:25:49","orgNo":"3340130","typeCode":"电网故障停限电","poweroffArea":"110kV幸福变:福团A463线-团结村6#变台区低压开关","poweroffReason":"低压漏电保护器短路故障 原停电结束时间2019-06-19 02:42:19，变更停电结束时间2019-06-18 21:25:49，由于抢修工作提前完成，故需要提前送电。","powerTime":"2019-06-18 21:32:11","powerComm":"已送电","subsNo":"","lineNo":"","tgNo":"","tgName":null,"infoStatus":"1","orgName":"国网浙江杭州市萧山区供电有限公司","typeName":null,"infoStatusName":null,"dateDay":null,"orgNos":null,"nowTime":null,"countyName":null,"streetName":null,"villageName":null,"roadName":null,"communityName":null,"tranName":null,"sdLineName":null,"cityCode":"3340130","cityName":"国网浙江杭州市萧山区供电有限公司","provinceCode":null,"stopTime":"2019-06-18 21:25:49","powerType":"全部","powerOffArea":"110kV幸福变:福团A463线-团结村6#变台区低压开关","powerOffReason":"低压漏电保护器短路故障 原停电结束时间2019-06-19 02:42:19，变更停电结束时间2019-06-18 21:25:49，由于抢修工作提前完成，故需要提前送电。","powerOffId":"2019061831010331"},{"poweroffId":2019061831010329,"sgpoweroffId":null,"subsName":"","lineName":"10kV万岁G353线","pubTranName":"纤石村花园桥公变,","scope":"浙江省-杭州市-余杭区-良渚街道纤石村一带","startTime":"2019-06-18 20:23:00","stopDate":"2019-06-18 22:20:00","orgNo":"3340140","typeCode":"电网故障停限电","poweroffArea":"110kV洛山变:万岁G353线-纤石村花园桥公变后段","poweroffReason":"万岁G353线-纤石村花园桥公变后段低压线故障（原停电结束时间：2019-06-18 23:23:00，变更停电结束时间：现场抢修较为顺利，故提前送电）","powerTime":"2019-06-18 21:48:00","powerComm":"已送电","subsNo":"","lineNo":"","tgNo":"","tgName":null,"infoStatus":"1","orgName":"国网浙江杭州市余杭区供电有限公司","typeName":null,"infoStatusName":null,"dateDay":null,"orgNos":null,"nowTime":null,"countyName":null,"streetName":null,"villageName":null,"roadName":null,"communityName":null,"tranName":null,"sdLineName":null,"cityCode":"3340140","cityName":"国网浙江杭州市余杭区供电有限公司","provinceCode":null,"stopTime":"2019-06-18 22:20:00","powerType":"全部","powerOffArea":"110kV洛山变:万岁G353线-纤石村花园桥公变后段","powerOffReason":"万岁G353线-纤石村花园桥公变后段低压线故障（原停电结束时间：2019-06-18 23:23:00，变更停电结束时间：现场抢修较为顺利，故提前送电）","powerOffId":"2019061831010329"},{"poweroffId":2019061831010225,"sgpoweroffId":null,"subsName":"","lineName":"10kV灵栖Y174线","pubTranName":"南屏村上官山台区,","scope":"浙江省-杭州市-建德市-航头镇 南屏行政村-赖家自然村、上官山自然村一带用户。","startTime":"2019-06-18 14:52:00","stopDate":"2019-06-18 17:00:00","orgNo":"3340180","typeCode":"电网故障停限电","poweroffArea":"110kV航头变:灵栖Y174线-南屏村上官山台区后段","poweroffReason":"灵栖Y174线-南屏村上官山台区 低压配电设备故障 原预计停电结束时间17:30，预估时间过长，现将停电结束时间变更至17:00","powerTime":"2019-06-18 16:22:00","powerComm":"已送电","subsNo":"","lineNo":"","tgNo":"","tgName":null,"infoStatus":"1","orgName":"国网浙江建德市供电有限公司","typeName":null,"infoStatusName":null,"dateDay":null,"orgNos":null,"nowTime":null,"countyName":null,"streetName":null,"villageName":null,"roadName":null,"communityName":null,"tranName":null,"sdLineName":null,"cityCode":"3340180","cityName":"国网浙江建德市供电有限公司","provinceCode":null,"stopTime":"2019-06-18 17:00:00","powerType":"全部","powerOffArea":"110kV航头变:灵栖Y174线-南屏村上官山台区后段","powerOffReason":"灵栖Y174线-南屏村上官山台区 低压配电设备故障 原预计停电结束时间17:30，预估时间过长，现将停电结束时间变更至17:00","powerOffId":"2019061831010225"},{"poweroffId":2019061831010217,"sgpoweroffId":null,"subsName":"","lineName":"10kV松溪V122线","pubTranName":"临安市富盛竹木制品厂,10kV九里村[顶山汪坞]公变,10kV九里村[九里民丰村]公变,10kV九里村[九里贤居坞]公变,临安三鑫食品有限公司,临安市笑娃玩具有限公司,10kV自由村[赤兰畈]公变,10kV九里村[塘阴畈]公变,10kV九里村[顶山]公变,10kV九里村[九里燕窝]公变,九里村委公变,10kV对石村松塘里公变,10kV九里村苟坞里公变,临安赵记装饰材料商行,临安市富能树脂有限公司,","scope":"浙江省杭州市临安市於潜镇自由行政村,石佛自然村,天目山镇九里行政村顶山自然,九里自然村,临安对石太阳能设备有限公司,临安三鑫食品有限公司,临安市富能树脂有限公司,临安市富盛竹木制品厂,临安赵记装饰材料商行一带","startTime":"2019-06-18 14:36:00","stopDate":"2019-06-18 18:30:51","orgNo":"3340160","typeCode":"电网故障停限电","poweroffArea":"停110kV於潜变松溪V122线调度1221开关后段","poweroffReason":"110kV於潜变松溪V122线调度1221开关故障","powerTime":"2019-06-18 18:03:02","powerComm":"全部送电","subsNo":"","lineNo":"","tgNo":"","tgName":null,"infoStatus":"1","orgName":"国网浙江临安市供电公司","typeName":null,"infoStatusName":null,"dateDay":null,"orgNos":null,"nowTime":null,"countyName":null,"streetName":null,"villageName":null,"roadName":null,"communityName":null,"tranName":null,"sdLineName":null,"cityCode":"3340160","cityName":"国网浙江临安市供电公司","provinceCode":null,"stopTime":"2019-06-18 18:30:51","powerType":"全部","powerOffArea":"停110kV於潜变松溪V122线调度1221开关后段","powerOffReason":"110kV於潜变松溪V122线调度1221开关故障","powerOffId":"2019061831010217"},{"poweroffId":2019061831010215,"sgpoweroffId":null,"subsName":"","lineName":"10kV新塘A610线","pubTranName":"浙江汇宇实业股份有限公司2,变压器,杭州萧山雅绣花边有限公司,浙江汇宇实业股份有限公司1,杭州萧山汽车配件有限公司,杭州汇成建设工程有限公司,金家浜社区1#变,杭州广联机械有限公司,杭州恒汇建设有限公司,","scope":"浙江省-杭州市-萧山区-新塘街道(金家浜社区-金家浜自然村);(杭州广联机械制造有限公司,杭州恒汇建设有限公司,杭州萧山汽车件有限公司,杭州萧山雅绣花边有限公司,浙江汇成建设工程有限公司,浙江汇宇实业股份有限公司)一带","startTime":"2019-06-18 14:30:38","stopDate":"2019-06-18 17:30:57","orgNo":"3340130","typeCode":"电网故障停限电","poweroffArea":"110kV城东变:新塘A610线-新塘开G14断路器后段","poweroffReason":"外力破坏引起新塘A610线高压电杆故障","powerTime":"2019-06-18 16:50:15","powerComm":"已送电。","subsNo":"","lineNo":"","tgNo":"","tgName":null,"infoStatus":"1","orgName":"国网浙江杭州市萧山区供电有限公司","typeName":null,"infoStatusName":null,"dateDay":null,"orgNos":null,"nowTime":null,"countyName":null,"streetName":null,"villageName":null,"roadName":null,"communityName":null,"tranName":null,"sdLineName":null,"cityCode":"3340130","cityName":"国网浙江杭州市萧山区供电有限公司","provinceCode":null,"stopTime":"2019-06-18 17:30:57","powerType":"全部","powerOffArea":"110kV城东变:新塘A610线-新塘开G14断路器后段","powerOffReason":"外力破坏引起新塘A610线高压电杆故障","powerOffId":"2019061831010215"},{"poweroffId":2019061831010194,"sgpoweroffId":null,"subsName":"","lineName":"10kV泉庄G035线","pubTranName":"运河镇道墩坝村北胡家坝南公变,","scope":"浙江省-杭州市-余杭区-经济开发区道墩坝社区-道墩坝自然村一带","startTime":"2019-06-18 14:14:00","stopDate":"2019-06-18 16:00:00","orgNo":"3340140","typeCode":"电网故障停限电","poweroffArea":"110kV五杭变:泉庄G035线-运河镇道墩坝村北胡家坝南公变后段","poweroffReason":"运河镇道墩坝村北胡家坝南公变后段 导线断线故障","powerTime":"2019-06-18 15:13:00","powerComm":"已送电","subsNo":"","lineNo":"","tgNo":"","tgName":null,"infoStatus":"1","orgName":"国网浙江杭州市余杭区供电有限公司","typeName":null,"infoStatusName":null,"dateDay":null,"orgNos":null,"nowTime":null,"countyName":null,"streetName":null,"villageName":null,"roadName":null,"communityName":null,"tranName":null,"sdLineName":null,"cityCode":"3340140","cityName":"国网浙江杭州市余杭区供电有限公司","provinceCode":null,"stopTime":"2019-06-18 16:00:00","powerType":"全部","powerOffArea":"110kV五杭变:泉庄G035线-运河镇道墩坝村北胡家坝南公变后段","powerOffReason":"运河镇道墩坝村北胡家坝南公变后段 导线断线故障","powerOffId":"2019061831010194"}],"pageModel":{"pageNow":1577,"totalCount":17789,"totalPage":1779,"tableRows":0,"pageCount":10,"beginCount":15760},"isExperi":"1"}