{"message":"","today":"2020-06-16","seleList":[{"poweroffId":2019061831010187,"sgpoweroffId":null,"subsName":"","lineName":"10kV北秀G827线","pubTranName":"杭州跃凯印刷有限公司,杭州云捷纺织品有限公司612084921001#专变,杭州向阳汽车修配厂612083548301#专变,杭州崇桦纺织有限公司612081392701#专变,杭州巨航机械设备有限公司612067563501#专变,杭州尚溢纺织有限公司612069566101#专变,杭州富州纺织品有限公司612083548601#专变,","scope":"浙江省杭州市余杭区崇贤街道星海南路188号、杭州尚溢纺织有限公司，杭州博多广告设计有限公司，杭州跃凯印刷有限公司，杭州崇桦有限公司，杭州荣沃实业有限公司，杭州云捷纺织品有限公司，杭州富州纺织品有限公司，杭州向阳汽车修产一带","startTime":"2019-06-18 13:41:00","stopDate":"2019-06-18 16:10:00","orgNo":"3340140","typeCode":"电网故障停限电","poweroffArea":"110kV北庄变:北秀G827线-巧山开关站 3 号开关间隔负荷开关后段","poweroffReason":"北秀G827线-巧山开关站 3 号开关间隔负荷开关后段 导线滑落故障","powerTime":"2019-06-18 15:15:00","powerComm":"已送电","subsNo":"","lineNo":"","tgNo":"","tgName":null,"infoStatus":"1","orgName":"国网浙江杭州市余杭区供电有限公司","typeName":null,"infoStatusName":null,"dateDay":null,"orgNos":null,"nowTime":null,"countyName":null,"streetName":null,"villageName":null,"roadName":null,"communityName":null,"tranName":null,"sdLineName":null,"cityCode":"3340140","cityName":"国网浙江杭州市余杭区供电有限公司","provinceCode":null,"stopTime":"2019-06-18 16:10:00","powerType":"全部","powerOffArea":"110kV北庄变:北秀G827线-巧山开关站 3 号开关间隔负荷开关后段","powerOffReason":"北秀G827线-巧山开关站 3 号开关间隔负荷开关后段 导线滑落故障","powerOffId":"2019061831010187"},{"poweroffId":2019061831010185,"sgpoweroffId":null,"subsName":"","lineName":"10kV沙程Y200线","pubTranName":"康乐花园公变,","scope":"浙江省-杭州市-建德市-新安江街道 沧滩社区-保健北路、康乐路一带用户。","startTime":"2019-06-18 13:30:00","stopDate":"2019-06-18 14:30:00","orgNo":"3340180","typeCode":"电网故障停限电","poweroffArea":"110kV白沙变:沙程Y200线-康乐花园公变后段","poweroffReason":"沙程Y200线-康乐花园公变 低压配电设备故障 原预计停电结束时间17:30，目前故障已修复，现将停电时间变更至14:30。","powerTime":"2019-06-18 14:17:00","powerComm":"已送电","subsNo":"","lineNo":"","tgNo":"","tgName":null,"infoStatus":"1","orgName":"国网浙江建德市供电有限公司","typeName":null,"infoStatusName":null,"dateDay":null,"orgNos":null,"nowTime":null,"countyName":null,"streetName":null,"villageName":null,"roadName":null,"communityName":null,"tranName":null,"sdLineName":null,"cityCode":"3340180","cityName":"国网浙江建德市供电有限公司","provinceCode":null,"stopTime":"2019-06-18 14:30:00","powerType":"全部","powerOffArea":"110kV白沙变:沙程Y200线-康乐花园公变后段","powerOffReason":"沙程Y200线-康乐花园公变 低压配电设备故障 原预计停电结束时间17:30，目前故障已修复，现将停电时间变更至14:30。","powerOffId":"2019061831010185"},{"poweroffId":2019061831010176,"sgpoweroffId":null,"subsName":"","lineName":"10kV三台8788线","pubTranName":"筲箕变,赤山二变,园文化局花港管理处,杭州市园林文物局花港管理处专变,","scope":"浙江省-杭州市-西湖区-西湖街道(三台山社区-法相巷、三台山路、三台云舍);(杭州西湖风景名胜区(杭州市园林文物局)花港管理处);","startTime":"2019-06-18 12:58:19","stopDate":"2019-06-18 14:30:19","orgNo":"3340101","typeCode":"电网故障停限电","poweroffArea":"110kV花港变:三台8788线-花赤二线","poweroffReason":"高压开关跳闸 原预计停电结束时间2019-06-18 18:58:19,由于施工现场环境比较复杂，存在不确定因素，因此预估施工时间适当放长了， 而实际施工进行得比较顺利，因此提前送电了","powerTime":"2019-06-18 13:52:28","powerComm":"已送电","subsNo":"","lineNo":"","tgNo":"","tgName":null,"infoStatus":"1","orgName":"浙江杭州电力客户服务中心","typeName":null,"infoStatusName":null,"dateDay":null,"orgNos":null,"nowTime":null,"countyName":null,"streetName":null,"villageName":null,"roadName":null,"communityName":null,"tranName":null,"sdLineName":null,"cityCode":"3340101","cityName":"浙江杭州电力客户服务中心","provinceCode":null,"stopTime":"2019-06-18 14:30:19","powerType":"全部","powerOffArea":"110kV花港变:三台8788线-花赤二线","powerOffReason":"高压开关跳闸 原预计停电结束时间2019-06-18 18:58:19,由于施工现场环境比较复杂，存在不确定因素，因此预估施工时间适当放长了， 而实际施工进行得比较顺利，因此提前送电了","powerOffId":"2019061831010176"},{"poweroffId":2019061831010149,"sgpoweroffId":null,"subsName":"","lineName":"10kV杭海G198线","pubTranName":"天万5组（振兴村）2号公变,","scope":"浙江省-杭州市-余杭区-南苑街道天万社区-天万、振兴自然村一带","startTime":"2019-06-18 11:02:00","stopDate":"2019-06-18 14:30:00","orgNo":"3340140","typeCode":"电网故障停限电","poweroffArea":"35kV乔镇变:杭海G198线-天万5组（振兴村）2号公变后段","poweroffReason":"天万5组（振兴村）2号公变后段 低压空开故障","powerTime":"2019-06-18 13:46:00","powerComm":"已送电","subsNo":"","lineNo":"","tgNo":"","tgName":null,"infoStatus":"1","orgName":"国网浙江杭州市余杭区供电有限公司","typeName":null,"infoStatusName":null,"dateDay":null,"orgNos":null,"nowTime":null,"countyName":null,"streetName":null,"villageName":null,"roadName":null,"communityName":null,"tranName":null,"sdLineName":null,"cityCode":"3340140","cityName":"国网浙江杭州市余杭区供电有限公司","provinceCode":null,"stopTime":"2019-06-18 14:30:00","powerType":"全部","powerOffArea":"35kV乔镇变:杭海G198线-天万5组（振兴村）2号公变后段","powerOffReason":"天万5组（振兴村）2号公变后段 低压空开故障","powerOffId":"2019061831010149"},{"poweroffId":2019061831010146,"sgpoweroffId":null,"subsName":"","lineName":"10kV北秀G827线","pubTranName":"中和尚品1#专变2#,北秀向阳苑南区2号公变,崇贤向阳中和尚品公寓3号公变,北秀向阳苑北区4号公变,杭州向阳汽车修配厂612083548301#专变,1#,北秀向阳苑西区3号公变,崇贤向阳中和尚品公寓5号公变,2#,3#,北秀向阳苑西区2号公变,1#,飞马制针,杭州云捷纺织品有限公司612084921001#专变,御贤府2号公变,杭州崇桦纺织有限公司612081392701#专变,北秀向阳苑南区3号公变,1#,北秀向阳苑南区1号公变,北秀向阳苑北区7号公变,北秀向阳苑北区2号公变,北秀向阳苑北区3号公变,杭州尚溢纺织有限公司612069566101#专变,崇贤向阳中和尚品公寓1号公变,北秀向阳苑南区4号公变,北秀向阳苑西区12号公变,杭州跃凯印刷有限公司,杭州富州纺织品有限公司612083548601#专变,御贤府1号公变,宣杭铁路勾家浜车站变,北秀向阳苑西区13号公变,北秀向阳苑西区11号公变,北秀向阳苑北区5号公变,崇贤向阳中和尚品公寓4号公变,1#,北秀向阳苑南区6号公变,北秀向阳苑西区4号公变,杭州腾飞齿轮,杭州余杭向阳股份经济合作社612082592401#专变,北秀向阳苑北区6号公变,杭州巨航机械设备有限公司612067563501#专变,北秀向阳苑北区8号公变,1#专变,北秀向阳苑西区1号公变,北秀向阳苑西区14号公变,北秀向阳苑南区5号公变,崇贤向阳中和尚品公寓6号公变,崇贤向阳中和尚品公寓2号公变,杭州荣沃实业有限公司基建变,杭州广亚物业管理有限公司612066022901#专变,北秀向阳苑北区1号公变,","scope":"浙江省-杭州市-余杭区-崇贤街道崇贤社区-崇文街,前村社区-崇文街、尚德路、中和尚品公寓,向阳行政村-塘康路;杭州奥声物业有限公司,杭州博多广告设计有限公司,杭州崇桦纺织有限公司,杭州飞马制针厂普通合伙,杭州富州纺织品有限公司,杭州广亚物业管理有限公司,杭州合创物业服务有限公司,杭州荣沃实业有限公司,杭州尚溢纺织有限公司,杭州市余杭区人民政府崇贤街道办事处,杭州腾飞齿轮制造有限公司,杭州向阳汽车修有限公司,杭州余杭向阳股份经济合作社,杭州余杭新农村建设有限公司,杭州跃凯印刷有限公司,杭州云捷纺织品有限公司,中国铁路上海局集团有限公司乔司站一带","startTime":"2019-06-18 10:56:00","stopDate":"2019-06-18 14:00:00","orgNo":"3340140","typeCode":"电网故障停限电","poweroffArea":"110kV北庄变:北秀G827线","poweroffReason":"北秀G827线 电缆断线故障","powerTime":"2019-06-18 13:42:00","powerComm":"已送电","subsNo":"","lineNo":"","tgNo":"","tgName":null,"infoStatus":"1","orgName":"国网浙江杭州市余杭区供电有限公司","typeName":null,"infoStatusName":null,"dateDay":null,"orgNos":null,"nowTime":null,"countyName":null,"streetName":null,"villageName":null,"roadName":null,"communityName":null,"tranName":null,"sdLineName":null,"cityCode":"3340140","cityName":"国网浙江杭州市余杭区供电有限公司","provinceCode":null,"stopTime":"2019-06-18 14:00:00","powerType":"全部","powerOffArea":"110kV北庄变:北秀G827线","powerOffReason":"北秀G827线 电缆断线故障","powerOffId":"2019061831010146"},{"poweroffId":2019061831010134,"sgpoweroffId":null,"subsName":"","lineName":"10kV石瑞V134线","pubTranName":"召黄二,","scope":"浙江省-杭州市-临安市-河桥镇金燕村召黄一带。","startTime":"2019-06-27 07:50:00","stopDate":"2019-06-27 17:20:00","orgNo":"3340160","typeCode":"计划停电","poweroffArea":"110kV昌化变:石瑞V134线-召黄村（二）分线令克后段","poweroffReason":"（01项）石瑞V134线366#-377#杆架设,石瑞V143线371#杆召黄二分线拆搭；","powerTime":"2019-06-27 17:10:13","powerComm":"全部送电","subsNo":"","lineNo":"","tgNo":"","tgName":null,"infoStatus":"1","orgName":"国网浙江临安市供电公司","typeName":null,"infoStatusName":null,"dateDay":null,"orgNos":null,"nowTime":null,"countyName":null,"streetName":null,"villageName":null,"roadName":null,"communityName":null,"tranName":null,"sdLineName":null,"cityCode":"3340160","cityName":"国网浙江临安市供电公司","provinceCode":null,"stopTime":"2019-06-27 17:20:00","powerType":"全部","powerOffArea":"110kV昌化变:石瑞V134线-召黄村（二）分线令克后段","powerOffReason":"（01项）石瑞V134线366#-377#杆架设,石瑞V143线371#杆召黄二分线拆搭；","powerOffId":"2019061831010134"},{"poweroffId":2019061831010130,"sgpoweroffId":null,"subsName":"","lineName":"10kV石瑞V134线","pubTranName":"召黄二,","scope":"浙江省-杭州市-临安市-河桥镇金燕村召黄一带。","startTime":"2019-06-26 07:50:00","stopDate":"2019-06-26 17:20:00","orgNo":"3340160","typeCode":"计划停电","poweroffArea":"110kV昌化变:石瑞V134线-召黄村（二）分线令克后段","poweroffReason":"石瑞V143线371#杆召黄二配变移位、石瑞V134线366#-377#杆移位配合工作","powerTime":"2019-06-26 17:10:08","powerComm":"已送电","subsNo":"","lineNo":"","tgNo":"","tgName":null,"infoStatus":"1","orgName":"国网浙江临安市供电公司","typeName":null,"infoStatusName":null,"dateDay":null,"orgNos":null,"nowTime":null,"countyName":null,"streetName":null,"villageName":null,"roadName":null,"communityName":null,"tranName":null,"sdLineName":null,"cityCode":"3340160","cityName":"国网浙江临安市供电公司","provinceCode":null,"stopTime":"2019-06-26 17:20:00","powerType":"全部","powerOffArea":"110kV昌化变:石瑞V134线-召黄村（二）分线令克后段","powerOffReason":"石瑞V143线371#杆召黄二配变移位、石瑞V134线366#-377#杆移位配合工作","powerOffId":"2019061831010130"},{"poweroffId":2019061831010128,"sgpoweroffId":null,"subsName":"","lineName":"10kV马啸V262线","pubTranName":"颊口村桥东,","scope":"浙江省-杭州市-临安市-清凉峰镇颊口村桥东一带。","startTime":"2019-06-25 08:00:00","stopDate":"2019-06-25 13:00:00","orgNo":"3340160","typeCode":"计划停电","poweroffArea":"35kV颊口变:颊口村桥东配变","poweroffReason":"缺陷处理工程：马啸V262线11#杆颊口村桥东配变1000线、2000线、3000线低压出线电缆加装电缆冷缩套管","powerTime":"2019-06-25 12:50:10","powerComm":"已送电","subsNo":"","lineNo":"","tgNo":"","tgName":null,"infoStatus":"1","orgName":"国网浙江临安市供电公司","typeName":null,"infoStatusName":null,"dateDay":null,"orgNos":null,"nowTime":null,"countyName":null,"streetName":null,"villageName":null,"roadName":null,"communityName":null,"tranName":null,"sdLineName":null,"cityCode":"3340160","cityName":"国网浙江临安市供电公司","provinceCode":null,"stopTime":"2019-06-25 13:00:00","powerType":"全部","powerOffArea":"35kV颊口变:颊口村桥东配变","powerOffReason":"缺陷处理工程：马啸V262线11#杆颊口村桥东配变1000线、2000线、3000线低压出线电缆加装电缆冷缩套管","powerOffId":"2019061831010128"},{"poweroffId":2019061831010102,"sgpoweroffId":null,"subsName":"","lineName":"10kV神龙362线","pubTranName":"钱江度假村(1315078827),杭州萧山神龙铝业有限公司,阳城颜料(1315077823),神龙铝业,永得利无纺布1#,阳城颜料(1315077823),杭州宏冰服饰有限公司,龙虎村9#变,永得利无纺布2#,双峰机电(1316013744),","scope":"浙江省-杭州市-萧山区-南阳街道龙虎行政村、龙虎自然村、杭州宏冰服饰有限公司,杭州萧山钱江观潮度假村有限公司,杭州萧山神龙铝业有限公司,杭州萧山双峰化建机电设备厂,杭州阳城颜料化工有限公司,杭州永得利无纺布有限公司一带","startTime":"2019-06-18 09:35:19","stopDate":"2019-06-18 12:00:26","orgNo":"3340130","typeCode":"电网故障停限电","poweroffArea":"110kV河庄变:神龙362线-神龙3624开关后段","poweroffReason":"高压柱上断路器短路故障","powerTime":"2019-06-18 11:05:05","powerComm":"已送电","subsNo":"","lineNo":"","tgNo":"","tgName":null,"infoStatus":"1","orgName":"国网浙江杭州市萧山区供电有限公司","typeName":null,"infoStatusName":null,"dateDay":null,"orgNos":null,"nowTime":null,"countyName":null,"streetName":null,"villageName":null,"roadName":null,"communityName":null,"tranName":null,"sdLineName":null,"cityCode":"3340130","cityName":"国网浙江杭州市萧山区供电有限公司","provinceCode":null,"stopTime":"2019-06-18 12:00:26","powerType":"全部","powerOffArea":"110kV河庄变:神龙362线-神龙3624开关后段","powerOffReason":"高压柱上断路器短路故障","powerOffId":"2019061831010102"},{"poweroffId":2019061831010101,"sgpoweroffId":null,"subsName":"","lineName":"10kV贺塘G850线","pubTranName":"沾桥村南马浜东变,","scope":"浙江省-杭州市-余杭区-崇贤街道沾桥行政村-213县道一带","startTime":"2019-06-18 09:39:00","stopDate":"2019-06-18 14:00:00","orgNo":"3340140","typeCode":"电网故障停限电","poweroffArea":"35kV独山变:贺塘G850线-沾桥村南马浜东变后段","poweroffReason":"沾桥村南马浜东变后段 电缆断线故障","powerTime":"2019-06-18 13:44:00","powerComm":"已送电","subsNo":"","lineNo":"","tgNo":"","tgName":null,"infoStatus":"1","orgName":"国网浙江杭州市余杭区供电有限公司","typeName":null,"infoStatusName":null,"dateDay":null,"orgNos":null,"nowTime":null,"countyName":null,"streetName":null,"villageName":null,"roadName":null,"communityName":null,"tranName":null,"sdLineName":null,"cityCode":"3340140","cityName":"国网浙江杭州市余杭区供电有限公司","provinceCode":null,"stopTime":"2019-06-18 14:00:00","powerType":"全部","powerOffArea":"35kV独山变:贺塘G850线-沾桥村南马浜东变后段","powerOffReason":"沾桥村南马浜东变后段 电缆断线故障","powerOffId":"2019061831010101"}],"pageModel":{"pageNow":1578,"totalCount":17789,"totalPage":1779,"tableRows":0,"pageCount":10,"beginCount":15770},"isExperi":"1"}