{"message":"","today":"2020-06-16","seleList":[{"poweroffId":2019061831010098,"sgpoweroffId":null,"subsName":"","lineName":"10kV得力C448线","pubTranName":"南江公寓1#公变,","scope":"浙江省-杭州市-萧山区-城厢街道(南门江社区-南江公寓、萧然南路);南江公寓14幢、南江公寓14-1单元一带","startTime":"2019-06-18 09:30:00","stopDate":"2019-06-18 11:50:00","orgNo":"3340130","typeCode":"电网故障停限电","poweroffArea":"110kV萧山变:得力C448线-南江公寓1#公变台区低压开关","poweroffReason":"低压电缆短路，原停电结束时间：2019-06-18 14:00:00，变更停电结束时间：2019-06-18 11:50:00，变更停电结束时间原因：由于抢修工作提前结束，故需要提前送电。","powerTime":"2019-06-18 10:52:12","powerComm":"已送电","subsNo":"","lineNo":"","tgNo":"","tgName":null,"infoStatus":"1","orgName":"国网浙江杭州市萧山区供电有限公司","typeName":null,"infoStatusName":null,"dateDay":null,"orgNos":null,"nowTime":null,"countyName":null,"streetName":null,"villageName":null,"roadName":null,"communityName":null,"tranName":null,"sdLineName":null,"cityCode":"3340130","cityName":"国网浙江杭州市萧山区供电有限公司","provinceCode":null,"stopTime":"2019-06-18 11:50:00","powerType":"全部","powerOffArea":"110kV萧山变:得力C448线-南江公寓1#公变台区低压开关","powerOffReason":"低压电缆短路，原停电结束时间：2019-06-18 14:00:00，变更停电结束时间：2019-06-18 11:50:00，变更停电结束时间原因：由于抢修工作提前结束，故需要提前送电。","powerOffId":"2019061831010098"},{"poweroffId":2019061831010071,"sgpoweroffId":null,"subsName":"","lineName":"10kV沙程Y200线","pubTranName":"蓝天雅苑103013公变,","scope":"浙江省-杭州市-建德市-新安江街道 沧滩社区-环城北路、康乐路、蓝天雅苑小区一带用户。","startTime":"2019-06-18 08:40:00","stopDate":"2019-06-18 10:00:00","orgNo":"3340180","typeCode":"电网故障停限电","poweroffArea":"110kV白沙变:沙程Y200线-蓝天雅苑103013公变后段","poweroffReason":"沙程Y200线-蓝天雅苑103013公变 低压配电设备故障 原预计停电结束时间14:50，目前故障已修复，现将停电时间变更至10:00。","powerTime":"2019-06-18 09:36:00","powerComm":"已送电","subsNo":"","lineNo":"","tgNo":"","tgName":null,"infoStatus":"1","orgName":"国网浙江建德市供电有限公司","typeName":null,"infoStatusName":null,"dateDay":null,"orgNos":null,"nowTime":null,"countyName":null,"streetName":null,"villageName":null,"roadName":null,"communityName":null,"tranName":null,"sdLineName":null,"cityCode":"3340180","cityName":"国网浙江建德市供电有限公司","provinceCode":null,"stopTime":"2019-06-18 10:00:00","powerType":"全部","powerOffArea":"110kV白沙变:沙程Y200线-蓝天雅苑103013公变后段","powerOffReason":"沙程Y200线-蓝天雅苑103013公变 低压配电设备故障 原预计停电结束时间14:50，目前故障已修复，现将停电时间变更至10:00。","powerOffId":"2019061831010071"},{"poweroffId":2019061831010066,"sgpoweroffId":null,"subsName":"","lineName":"10kV盛东C922线","pubTranName":"盛中村2#变,盛中村2#变,","scope":"浙江省-杭州市-萧山区-新街镇-新街街道、盛中村、盛中行政村、盛中自然村等一带","startTime":"2019-06-18 08:46:56","stopDate":"2019-06-18 16:51:10","orgNo":"3340130","typeCode":"电网故障停限电","poweroffArea":"110kV鸿达变:盛东C922线-盛中村2#变台区低压开关","poweroffReason":"低压熔断器短路故障","powerTime":"2019-06-18 16:13:47","powerComm":"已送电","subsNo":"","lineNo":"","tgNo":"","tgName":null,"infoStatus":"1","orgName":"国网浙江杭州市萧山区供电有限公司","typeName":null,"infoStatusName":null,"dateDay":null,"orgNos":null,"nowTime":null,"countyName":null,"streetName":null,"villageName":null,"roadName":null,"communityName":null,"tranName":null,"sdLineName":null,"cityCode":"3340130","cityName":"国网浙江杭州市萧山区供电有限公司","provinceCode":null,"stopTime":"2019-06-18 16:51:10","powerType":"全部","powerOffArea":"110kV鸿达变:盛东C922线-盛中村2#变台区低压开关","powerOffReason":"低压熔断器短路故障","powerOffId":"2019061831010066"},{"poweroffId":2019061831010060,"sgpoweroffId":null,"subsName":"","lineName":"10kV杨桥V720线","pubTranName":"金岫村[路西],","scope":"浙江省杭州市临安市太湖源镇金岫行政村金岫自然村一带","startTime":"2019-06-28 07:30:00","stopDate":"2019-06-28 15:00:00","orgNo":"3340160","typeCode":"计划停电","poweroffArea":"110kV杨岭变:杨桥V720线-金岫村[路西]后段","poweroffReason":"杨桥V720线金岫分线11#杆金岫村[路西]公变低压路西1000线1#-9#杆调架线，省道2000线1#-4#杆拆架原线调整弧垂工作。","powerTime":"2019-06-28 14:50:09","powerComm":"已送电","subsNo":"","lineNo":"","tgNo":"","tgName":null,"infoStatus":"1","orgName":"国网浙江临安市供电公司","typeName":null,"infoStatusName":null,"dateDay":null,"orgNos":null,"nowTime":null,"countyName":null,"streetName":null,"villageName":null,"roadName":null,"communityName":null,"tranName":null,"sdLineName":null,"cityCode":"3340160","cityName":"国网浙江临安市供电公司","provinceCode":null,"stopTime":"2019-06-28 15:00:00","powerType":"全部","powerOffArea":"110kV杨岭变:杨桥V720线-金岫村[路西]后段","powerOffReason":"杨桥V720线金岫分线11#杆金岫村[路西]公变低压路西1000线1#-9#杆调架线，省道2000线1#-4#杆拆架原线调整弧垂工作。","powerOffId":"2019061831010060"},{"poweroffId":2019061831010034,"sgpoweroffId":null,"subsName":"","lineName":"10kV宁牧A679线","pubTranName":"宁北村7#变,","scope":"浙江省-杭州市-萧山区-宁围镇、宁围街道(二桥行政村-宁北片小区、宁北自然村)等一带","startTime":"2019-06-18 08:19:51","stopDate":"2019-06-18 17:20:56","orgNo":"3340130","typeCode":"电网故障停限电","poweroffArea":"110kV东霖变:宁牧A679线-宁北村7#变台区低压开关","poweroffReason":"低压漏电保护器短路故障 原停电结束时间：12:30，变更停电结束时间：17:20，抢修工作尚未完成，仍需抢修","powerTime":"2019-06-18 16:40:20","powerComm":"已送电","subsNo":"","lineNo":"","tgNo":"","tgName":null,"infoStatus":"1","orgName":"国网浙江杭州市萧山区供电有限公司","typeName":null,"infoStatusName":null,"dateDay":null,"orgNos":null,"nowTime":null,"countyName":null,"streetName":null,"villageName":null,"roadName":null,"communityName":null,"tranName":null,"sdLineName":null,"cityCode":"3340130","cityName":"国网浙江杭州市萧山区供电有限公司","provinceCode":null,"stopTime":"2019-06-18 17:20:56","powerType":"全部","powerOffArea":"110kV东霖变:宁牧A679线-宁北村7#变台区低压开关","powerOffReason":"低压漏电保护器短路故障 原停电结束时间：12:30，变更停电结束时间：17:20，抢修工作尚未完成，仍需抢修","powerOffId":"2019061831010034"},{"poweroffId":2019061831010001,"sgpoweroffId":null,"subsName":"","lineName":"10kV神龙362线","pubTranName":"钱江度假村(1315078827),龙虎村4#变,杭州中立达科技有限公司,阳城颜料(1315077823),龙虎村8#变,龙虎村16#变,龙虎村6#变,龙虎村12#变,龙虎村21#变,龙虎村19#变,龙虎小区1#变,银格旅游(1316020023),龙虎村7#变,龙虎村14#变,龙虎村15#变,萧象内燃机(1316071577),1#变,阳城颜料(1315077823),杭州萧山神龙铝业有限公司,龙虎村22#变,龙虎村3#变,神龙铝业,阳城造漆厂(1315077828),龙虎村11#变,双峰机电(1316013744),万鹰机械有限公司(1321044556),龙虎村1#变,龙虎村18#变,永得利无纺布2#,永得利无纺布1#,杭州宏冰服饰有限公司,杭州汇邦建设有限公司1#,龙虎村9#变,龙虎村2#变,龙虎村10#变,","scope":"浙江省-杭州市-萧山区-南阳街道龙虎行政村-龙虎自然村、南庄路、杭州柏慧建材有限公司,杭州成邦沥青混凝土有限公司,杭州港铖汽车有限公司,杭州宏冰服饰有限公司,杭州汇邦建设有限公司,杭州萧山钱江观潮度假村有限公司,杭州萧山神龙铝业有限公司,杭州萧山双峰化建机电设备厂,杭州萧山阳城造漆厂,杭州阳城颜料化工有限公司,杭州银格旅游用品有限公司,杭州永得利无纺布有限公司,杭州中立达科技有限公司一带","startTime":"2019-06-17 23:30:03","stopDate":"2019-06-18 02:55:18","orgNo":"3340130","typeCode":"电网故障停限电","poweroffArea":"110kV河庄变:神龙362线-神龙3621开关后段","poweroffReason":"高压柱上断路器短路故障 原停电结束时间：2019-06-18 06:30:20，变更停电结束时间：2019-06-18 02:55:18。由于抢修工作提前完成，故需要提前送电。","powerTime":"2019-06-18 02:20:06","powerComm":"已送电","subsNo":"","lineNo":"","tgNo":"","tgName":null,"infoStatus":"1","orgName":"国网浙江杭州市萧山区供电有限公司","typeName":null,"infoStatusName":null,"dateDay":null,"orgNos":null,"nowTime":null,"countyName":null,"streetName":null,"villageName":null,"roadName":null,"communityName":null,"tranName":null,"sdLineName":null,"cityCode":"3340130","cityName":"国网浙江杭州市萧山区供电有限公司","provinceCode":null,"stopTime":"2019-06-18 02:55:18","powerType":"全部","powerOffArea":"110kV河庄变:神龙362线-神龙3621开关后段","powerOffReason":"高压柱上断路器短路故障 原停电结束时间：2019-06-18 06:30:20，变更停电结束时间：2019-06-18 02:55:18。由于抢修工作提前完成，故需要提前送电。","powerOffId":"2019061831010001"},{"poweroffId":2019061731020091,"sgpoweroffId":null,"subsName":"","lineName":"10kV文胜C905线","pubTranName":"美高化工,汉邦化工,","scope":"浙江省-杭州市-萧山区-经济技术开发区-钱江社区(杭州煊赫电子有限公司,杭州美高华颐化工有限公司)","startTime":"2019-06-25 08:35:00","stopDate":"2019-06-25 16:30:00","orgNo":"3340130","typeCode":"计划停电","poweroffArea":"110kV鸿达变:文胜C905线-大卫开G17汉邦化工后段","poweroffReason":"杭州美高华颐化工有限公司（565kVA）用户增容","powerTime":"2019-06-25 15:52:29","powerComm":"已送电","subsNo":"","lineNo":"","tgNo":"","tgName":null,"infoStatus":"1","orgName":"国网浙江杭州市萧山区供电有限公司","typeName":null,"infoStatusName":null,"dateDay":null,"orgNos":null,"nowTime":null,"countyName":null,"streetName":null,"villageName":null,"roadName":null,"communityName":null,"tranName":null,"sdLineName":null,"cityCode":"3340130","cityName":"国网浙江杭州市萧山区供电有限公司","provinceCode":null,"stopTime":"2019-06-25 16:30:00","powerType":"全部","powerOffArea":"110kV鸿达变:文胜C905线-大卫开G17汉邦化工后段","powerOffReason":"杭州美高华颐化工有限公司（565kVA）用户增容","powerOffId":"2019061731020091"},{"poweroffId":2019061731020084,"sgpoweroffId":null,"subsName":"","lineName":"10kV立新D124线","pubTranName":"浙江永通钢构材料有限公司,杭州爱嗑食品有限公司,3#变,塔山新苑2#公变,塔山新苑1#公变,杭州爱嗑食品有限公司,富阳市路灯安装维修管理所,新登小城市建设1#变,杭州欣佳卫浴洁具有限公司,2#变,富阳市路灯安装维修管理所,杭州市富阳区新登中学,杭州汉达实业有限公司,富阳市嘉俊塑料有限公司,杭州市富阳区新登中学,塔山村1#东皇殿公变,杭州市富阳区新登中学,茶店弄1#公变,杭州富阳郎丰实业有限公司,塔山新苑2#公变,浙江永通钢构材料有限公司,彭家弄1#公变,富阳市嘉俊塑料有限公司,富阳市新登镇幼儿园(干变),杭州市富阳区新登镇人民政府,杭州欣佳卫浴洁具有限公司变压器,富阳市新登镇幼儿园,塔山村2#田缺口公变,彭家弄1#公变,人民政府1#变,共和街1#彭家公变,1#变,塔山新苑1#公变,杭州富阳郎丰实业有限公司,","scope":"浙江省-杭州市-富阳区-新登镇-共和行政村-共和北路,新登镇-塔山行政村(立新路,工厂路,新苑路),新登镇-古城社区(共和街,共和北路,登城北路,彭家弄,城墙北路,秀山一弄,秀山三弄,新城街,秀山弄),新登镇-惠来社区(塔山村,立新路,塔山路四弄,塔山路三弄,塔山路二弄,塔山路,工厂路,惠来路,登城北路,塔山,塔山路五弄,塔山湾,叶家弄);新登镇(杭州汉达实业有限公司,杭州富阳新登小城市建设有限公司,杭州欣佳卫浴洁具有限公司,杭州市富阳区新登中学,杭州富阳嘉俊塑料有限公司,杭州市富阳区新登镇第一幼儿园,杭州爱嗑食品有限公司,杭州富阳郎丰实业有限公司,浙江永通钢构材料有限公司,杭州富阳城市照明工程有限公司,杭州市富阳区新登镇中心小学)","startTime":"2019-06-17 17:02:00","stopDate":"2019-06-17 19:02:00","orgNo":"3340170","typeCode":"电网故障停限电","poweroffArea":"110kV新登变:立新D124线立新D1242开关后段","poweroffReason":"高压开关跳闸","powerTime":"2019-06-17 18:06:27","powerComm":"已送电","subsNo":"","lineNo":"","tgNo":"","tgName":null,"infoStatus":"1","orgName":"国网浙江杭州市富阳区供电公司","typeName":null,"infoStatusName":null,"dateDay":null,"orgNos":null,"nowTime":null,"countyName":null,"streetName":null,"villageName":null,"roadName":null,"communityName":null,"tranName":null,"sdLineName":null,"cityCode":"3340170","cityName":"国网浙江杭州市富阳区供电公司","provinceCode":null,"stopTime":"2019-06-17 19:02:00","powerType":"全部","powerOffArea":"110kV新登变:立新D124线立新D1242开关后段","powerOffReason":"高压开关跳闸","powerOffId":"2019061731020084"},{"poweroffId":2019061731020083,"sgpoweroffId":null,"subsName":"","lineName":"10kV丰盛H595线","pubTranName":"南庄兜村黄家斗2号公变,南庄兜村黄家斗公变,","scope":"浙江省-杭州市-余杭区良渚街道：黄家斗2村、黄家斗村一带","startTime":"2019-06-24 10:00:00","stopDate":"2019-06-24 16:00:00","orgNo":"3340140","typeCode":"计划停电","poweroffArea":"110kV南庄变:丰盛H595线黄家斗分线 因施工力量增强，提前送电，原停电结束时间 : 2019-06-24 16:40:00，现停电结束时间 : 2019-06-24 16:00:00","poweroffReason":"丰盛H595线塘徐家外分线新投变压器并低压割接工作。","powerTime":"2019-06-24 15:33:35","powerComm":"已送电","subsNo":"","lineNo":"","tgNo":"","tgName":null,"infoStatus":"1","orgName":"国网浙江杭州市余杭区供电有限公司","typeName":null,"infoStatusName":null,"dateDay":null,"orgNos":null,"nowTime":null,"countyName":null,"streetName":null,"villageName":null,"roadName":null,"communityName":null,"tranName":null,"sdLineName":null,"cityCode":"3340140","cityName":"国网浙江杭州市余杭区供电有限公司","provinceCode":null,"stopTime":"2019-06-24 16:00:00","powerType":"全部","powerOffArea":"110kV南庄变:丰盛H595线黄家斗分线 因施工力量增强，提前送电，原停电结束时间 : 2019-06-24 16:40:00，现停电结束时间 : 2019-06-24 16:00:00","powerOffReason":"丰盛H595线塘徐家外分线新投变压器并低压割接工作。","powerOffId":"2019061731020083"},{"poweroffId":2019061731020082,"sgpoweroffId":null,"subsName":"","lineName":"10kV丰盛H595线","pubTranName":"南庄兜村黄家斗公变,南庄兜村黄家斗2号公变,南庄兜村黄家斗北2号公变,南庄兜村黄家斗北1号公变,南庄兜村塘徐坝中公变,南庄兜村塘徐坝外公变,","scope":"浙江省杭州市余杭区良渚街道：塘徐坝中村、塘徐坝外村、黄家斗北2村、黄家斗北村、黄家斗2村、黄家斗村一带","startTime":"2019-06-24 08:40:00","stopDate":"2019-06-24 10:00:00","orgNo":"3340140","typeCode":"临时停电","poweroffArea":"110kV南庄变:丰盛H595线塘徐家外分线","poweroffReason":"丰盛H595线塘徐家外分线9#杆新装分线开关，新投变压器搭接。","powerTime":"2019-06-24 09:58:42","powerComm":"已送电","subsNo":"","lineNo":"","tgNo":"","tgName":null,"infoStatus":"1","orgName":"国网浙江杭州市余杭区供电有限公司","typeName":null,"infoStatusName":null,"dateDay":null,"orgNos":null,"nowTime":null,"countyName":null,"streetName":null,"villageName":null,"roadName":null,"communityName":null,"tranName":null,"sdLineName":null,"cityCode":"3340140","cityName":"国网浙江杭州市余杭区供电有限公司","provinceCode":null,"stopTime":"2019-06-24 10:00:00","powerType":"全部","powerOffArea":"110kV南庄变:丰盛H595线塘徐家外分线","powerOffReason":"丰盛H595线塘徐家外分线9#杆新装分线开关，新投变压器搭接。","powerOffId":"2019061731020082"}],"pageModel":{"pageNow":1579,"totalCount":17789,"totalPage":1779,"tableRows":0,"pageCount":10,"beginCount":15780},"isExperi":"1"}