{"message":"","today":"2020-06-16","seleList":[{"poweroffId":2019061431020193,"sgpoweroffId":null,"subsName":"","lineName":"10kV毛园H265线","pubTranName":"交工路桥612071044001#专变,瑞达石矿2,瑞达石矿,交工路桥612070712401#专变,交工路桥612070712201#专变,","scope":"浙江省杭州市余杭区瓶窑镇：瑞达石矿公司、交工路桥公司公变一带","startTime":"2019-06-25 09:40:00","stopDate":"2019-06-25 15:40:00","orgNo":"3340140","typeCode":"计划停电","poweroffArea":"毛园H265线瑞达石矿分线","poweroffReason":"配网工程：分线绝缘化改造、消缺","powerTime":"2019-06-25 15:16:32","powerComm":"全部送电","subsNo":"","lineNo":"","tgNo":"","tgName":null,"infoStatus":"1","orgName":"国网浙江杭州市余杭区供电有限公司","typeName":null,"infoStatusName":null,"dateDay":null,"orgNos":null,"nowTime":null,"countyName":null,"streetName":null,"villageName":null,"roadName":null,"communityName":null,"tranName":null,"sdLineName":null,"cityCode":"3340140","cityName":"国网浙江杭州市余杭区供电有限公司","provinceCode":null,"stopTime":"2019-06-25 15:40:00","powerType":"全部","powerOffArea":"毛园H265线瑞达石矿分线","powerOffReason":"配网工程：分线绝缘化改造、消缺","powerOffId":"2019061431020193"},{"poweroffId":2019061431020192,"sgpoweroffId":null,"subsName":"","lineName":"10kV塘埠H257线","pubTranName":"塘埠村里西坞公变,","scope":"浙江省杭州市余杭区瓶窑镇：塘埠村里西坞一带","startTime":"2019-06-25 08:40:00","stopDate":"2019-06-25 16:40:00","orgNo":"3340140","typeCode":"计划停电","poweroffArea":"塘埠H257线里西坞分线","poweroffReason":"配网工程：配合里西坞公变消缺","powerTime":"2019-06-25 15:50:40","powerComm":"全部送电","subsNo":"","lineNo":"","tgNo":"","tgName":null,"infoStatus":"1","orgName":"国网浙江杭州市余杭区供电有限公司","typeName":null,"infoStatusName":null,"dateDay":null,"orgNos":null,"nowTime":null,"countyName":null,"streetName":null,"villageName":null,"roadName":null,"communityName":null,"tranName":null,"sdLineName":null,"cityCode":"3340140","cityName":"国网浙江杭州市余杭区供电有限公司","provinceCode":null,"stopTime":"2019-06-25 16:40:00","powerType":"全部","powerOffArea":"塘埠H257线里西坞分线","powerOffReason":"配网工程：配合里西坞公变消缺","powerOffId":"2019061431020192"},{"poweroffId":2019061431020190,"sgpoweroffId":null,"subsName":"","lineName":"10kV上湖H710线","pubTranName":"上湖村八组公变,上湖村剪刀厂公变,","scope":"浙江省杭州市余杭区余杭街道:上湖村上湖八组、上湖村村委一带","startTime":"2019-06-25 08:40:00","stopDate":"2019-06-25 15:30:00","orgNo":"3340140","typeCode":"计划停电","poweroffArea":"110kV余杭变:上湖H710线-上湖八组分线令克后段","poweroffReason":"上湖八组分线3+1#杆立杆1基，新上上湖农居点400kVA基建 原停电结束时间16:30，因抢修力量充足，提前完成工作任务，现变更停电结束时间至15:30","powerTime":"2019-06-25 15:02:06","powerComm":"已送电","subsNo":"","lineNo":"","tgNo":"","tgName":null,"infoStatus":"1","orgName":"国网浙江杭州市余杭区供电有限公司","typeName":null,"infoStatusName":null,"dateDay":null,"orgNos":null,"nowTime":null,"countyName":null,"streetName":null,"villageName":null,"roadName":null,"communityName":null,"tranName":null,"sdLineName":null,"cityCode":"3340140","cityName":"国网浙江杭州市余杭区供电有限公司","provinceCode":null,"stopTime":"2019-06-25 15:30:00","powerType":"全部","powerOffArea":"110kV余杭变:上湖H710线-上湖八组分线令克后段","powerOffReason":"上湖八组分线3+1#杆立杆1基，新上上湖农居点400kVA基建 原停电结束时间16:30，因抢修力量充足，提前完成工作任务，现变更停电结束时间至15:30","powerOffId":"2019061431020190"},{"poweroffId":2019061431020189,"sgpoweroffId":null,"subsName":"","lineName":"10kV凤凰Y323线","pubTranName":"乌祥村南华口台区,","scope":"浙江省-杭州市-建德市-三都镇 乌祥行政村 南华口自然村一带用户。","startTime":"2019-06-24 07:30:00","stopDate":"2019-06-24 11:30:00","orgNo":"3340180","typeCode":"计划停电","poweroffArea":"35kV三都变:凤凰Y323线-南华口支线0#杆令克后段","poweroffReason":"乌祥村南华口台区、血岭坞台区配变增容","powerTime":"2019-06-24 11:26:00","powerComm":"已送电","subsNo":"","lineNo":"","tgNo":"","tgName":null,"infoStatus":"1","orgName":"国网浙江建德市供电有限公司","typeName":null,"infoStatusName":null,"dateDay":null,"orgNos":null,"nowTime":null,"countyName":null,"streetName":null,"villageName":null,"roadName":null,"communityName":null,"tranName":null,"sdLineName":null,"cityCode":"3340180","cityName":"国网浙江建德市供电有限公司","provinceCode":null,"stopTime":"2019-06-24 11:30:00","powerType":"全部","powerOffArea":"35kV三都变:凤凰Y323线-南华口支线0#杆令克后段","powerOffReason":"乌祥村南华口台区、血岭坞台区配变增容","powerOffId":"2019061431020189"},{"poweroffId":2019061431020188,"sgpoweroffId":null,"subsName":"","lineName":"10kV城南H621线","pubTranName":"拆迁房公变,联兴商住楼公变,联兴路经济房公变,通济公寓公变,凤兴花园二区2号公变,联兴东区2号变,凤兴花园二区1号公变,联兴路西公变,联兴东区公变,凤凰村联兴公变,杭州经济房临时,","scope":"浙江省杭州市余杭区余杭街道:联兴路商住楼、中泰政府宿舍、通济公寓、凤兴二区、凤凰村联兴、联兴路一带","startTime":"2019-06-26 08:40:00","stopDate":"2019-06-26 16:30:00","orgNo":"3340140","typeCode":"计划停电","poweroffArea":"110kV桃源变:城南H621线-停车场分支箱后段","poweroffReason":"计划工作","powerTime":"2019-06-26 16:28:23","powerComm":"工作结束","subsNo":"","lineNo":"","tgNo":"","tgName":null,"infoStatus":"1","orgName":"国网浙江杭州市余杭区供电有限公司","typeName":null,"infoStatusName":null,"dateDay":null,"orgNos":null,"nowTime":null,"countyName":null,"streetName":null,"villageName":null,"roadName":null,"communityName":null,"tranName":null,"sdLineName":null,"cityCode":"3340140","cityName":"国网浙江杭州市余杭区供电有限公司","provinceCode":null,"stopTime":"2019-06-26 16:30:00","powerType":"全部","powerOffArea":"110kV桃源变:城南H621线-停车场分支箱后段","powerOffReason":"计划工作","powerOffId":"2019061431020188"},{"poweroffId":2019061431020186,"sgpoweroffId":null,"subsName":"","lineName":"10kV小山H715线","pubTranName":"溪塔村塘家公变,","scope":"浙江省杭州市余杭区余杭街道：溪塔村塘家一带","startTime":"2019-06-24 08:40:00","stopDate":"2019-06-24 16:30:00","orgNo":"3340140","typeCode":"计划停电","poweroffArea":"浙江省杭州市余杭区余杭街道:溪塔村塘家一带","poweroffReason":"计划工作","powerTime":"2019-06-24 16:09:20","powerComm":"已全部送电。","subsNo":"","lineNo":"","tgNo":"","tgName":null,"infoStatus":"1","orgName":"国网浙江杭州市余杭区供电有限公司","typeName":null,"infoStatusName":null,"dateDay":null,"orgNos":null,"nowTime":null,"countyName":null,"streetName":null,"villageName":null,"roadName":null,"communityName":null,"tranName":null,"sdLineName":null,"cityCode":"3340140","cityName":"国网浙江杭州市余杭区供电有限公司","provinceCode":null,"stopTime":"2019-06-24 16:30:00","powerType":"全部","powerOffArea":"浙江省杭州市余杭区余杭街道:溪塔村塘家一带","powerOffReason":"计划工作","powerOffId":"2019061431020186"},{"poweroffId":2019061431020185,"sgpoweroffId":null,"subsName":"","lineName":"10kV厦山R308线","pubTranName":"左川村小件坑配变,","scope":"浙江省-杭州市-淳安县-中洲镇-左川行政村-田坑自然村","startTime":"2019-06-25 07:00:00","stopDate":"2019-06-25 12:00:00","orgNo":"3340190","typeCode":"计划停电","poweroffArea":"110kV汾口变:厦山R308线-小件坑支线1#杆跌落式熔断器后段","poweroffReason":"小件坑支线04号杆至05号杆导线更换（C相被树压过进行更换）","powerTime":"2019-06-25 11:48:36","powerComm":"现场工作已完成","subsNo":"","lineNo":"","tgNo":"","tgName":null,"infoStatus":"1","orgName":"国网浙江淳安县供电有限公司","typeName":null,"infoStatusName":null,"dateDay":null,"orgNos":null,"nowTime":null,"countyName":null,"streetName":null,"villageName":null,"roadName":null,"communityName":null,"tranName":null,"sdLineName":null,"cityCode":"3340190","cityName":"国网浙江淳安县供电有限公司","provinceCode":null,"stopTime":"2019-06-25 12:00:00","powerType":"全部","powerOffArea":"110kV汾口变:厦山R308线-小件坑支线1#杆跌落式熔断器后段","powerOffReason":"小件坑支线04号杆至05号杆导线更换（C相被树压过进行更换）","powerOffId":"2019061431020185"},{"poweroffId":2019061431020160,"sgpoweroffId":null,"subsName":"","lineName":"10kV大市T141线","pubTranName":"丰坞1号公变,桐庐县横村镇龙峰养殖场,","scope":"浙江省-杭州市-桐庐县-横村镇-白云行政村-丰坞;浙江省-杭州市-桐庐县-横村镇-白云行政村-桐庐县横村镇龙峰养殖场","startTime":"2019-06-24 07:30:00","stopDate":"2019-06-24 15:30:00","orgNo":"3340150","typeCode":"计划停电","poweroffArea":"35kV钟山变:大市T141线-静林F2047开关后段","poweroffReason":"配网消缺","powerTime":"2019-06-24 15:20:49","powerComm":"已送电","subsNo":"","lineNo":"","tgNo":"","tgName":null,"infoStatus":"1","orgName":"国网浙江桐庐县供电公司","typeName":null,"infoStatusName":null,"dateDay":null,"orgNos":null,"nowTime":null,"countyName":null,"streetName":null,"villageName":null,"roadName":null,"communityName":null,"tranName":null,"sdLineName":null,"cityCode":"3340150","cityName":"国网浙江桐庐县供电公司","provinceCode":null,"stopTime":"2019-06-24 15:30:00","powerType":"全部","powerOffArea":"35kV钟山变:大市T141线-静林F2047开关后段","powerOffReason":"配网消缺","powerOffId":"2019061431020160"},{"poweroffId":2019061431020156,"sgpoweroffId":null,"subsName":"","lineName":"10kV金明G343线","pubTranName":"纤石村上欠埠公变,","scope":"浙江省杭州市余杭区良渚街道：纤石村上欠埠一带","startTime":"2019-06-26 08:40:00","stopDate":"2019-06-26 15:30:00","orgNo":"3340140","typeCode":"计划停电","poweroffArea":"110kV洛山变:金明G343线-上牵埠后段","poweroffReason":"计划工作","powerTime":"2019-06-26 14:40:53","powerComm":"已送电","subsNo":"","lineNo":"","tgNo":"","tgName":null,"infoStatus":"1","orgName":"国网浙江杭州市余杭区供电有限公司","typeName":null,"infoStatusName":null,"dateDay":null,"orgNos":null,"nowTime":null,"countyName":null,"streetName":null,"villageName":null,"roadName":null,"communityName":null,"tranName":null,"sdLineName":null,"cityCode":"3340140","cityName":"国网浙江杭州市余杭区供电有限公司","provinceCode":null,"stopTime":"2019-06-26 15:30:00","powerType":"全部","powerOffArea":"110kV洛山变:金明G343线-上牵埠后段","powerOffReason":"计划工作","powerOffId":"2019061431020156"},{"poweroffId":2019061431020155,"sgpoweroffId":null,"subsName":"","lineName":"10kV纤石H402线","pubTranName":"石桥村罗家坝公变,石桥村薛家里公变,石桥村罗家坝2号公变,朱家塘,石桥村罗家桥公变,","scope":"浙江省-杭州市-余杭区良渚街道：朱家塘村、石桥村罗家坝2、石桥村罗家坝、石桥村罗家桥、石桥村薛家里一带。","startTime":"2019-06-25 08:40:00","stopDate":"2019-06-25 16:40:00","orgNo":"3340140","typeCode":"计划停电","poweroffArea":"35kV良渚变:纤石H402线-纤石H402线罗家坝分线开关后段","poweroffReason":"计划工作","powerTime":"2019-06-25 15:57:33","powerComm":"已送电","subsNo":"","lineNo":"","tgNo":"","tgName":null,"infoStatus":"1","orgName":"国网浙江杭州市余杭区供电有限公司","typeName":null,"infoStatusName":null,"dateDay":null,"orgNos":null,"nowTime":null,"countyName":null,"streetName":null,"villageName":null,"roadName":null,"communityName":null,"tranName":null,"sdLineName":null,"cityCode":"3340140","cityName":"国网浙江杭州市余杭区供电有限公司","provinceCode":null,"stopTime":"2019-06-25 16:40:00","powerType":"全部","powerOffArea":"35kV良渚变:纤石H402线-纤石H402线罗家坝分线开关后段","powerOffReason":"计划工作","powerOffId":"2019061431020155"}],"pageModel":{"pageNow":1584,"totalCount":17789,"totalPage":1779,"tableRows":0,"pageCount":10,"beginCount":15830},"isExperi":"1"}