{"message":"","today":"2020-06-16","seleList":[{"poweroffId":2019061431020154,"sgpoweroffId":null,"subsName":"","lineName":"10kV文西R433线","pubTranName":"中国移动通信集团浙江有限公司配变淳安分公司配变,市畈村江坑配变,市畈村江坑口配变,","scope":"浙江省-杭州市-淳安县-文昌镇-市畈行政村(江坑口自然村,江坑自然村);浙江省-杭州市-淳安县-文昌镇-市畈行政村-中国铁塔股份有限公司杭州市分公司","startTime":"2019-06-25 07:30:00","stopDate":"2019-06-25 11:30:00","orgNo":"3340190","typeCode":"计划停电","poweroffArea":"110kV文昌变:文西R433线-江坑支线令克后段","poweroffReason":"文西R433线浪洞源支线40号杆带电搭接江坑支线智能三遥开关引线（带电作业班配合）","powerTime":"2019-06-25 11:21:45","powerComm":"现场工作已完成。","subsNo":"","lineNo":"","tgNo":"","tgName":null,"infoStatus":"1","orgName":"国网浙江淳安县供电有限公司","typeName":null,"infoStatusName":null,"dateDay":null,"orgNos":null,"nowTime":null,"countyName":null,"streetName":null,"villageName":null,"roadName":null,"communityName":null,"tranName":null,"sdLineName":null,"cityCode":"3340190","cityName":"国网浙江淳安县供电有限公司","provinceCode":null,"stopTime":"2019-06-25 11:30:00","powerType":"全部","powerOffArea":"110kV文昌变:文西R433线-江坑支线令克后段","powerOffReason":"文西R433线浪洞源支线40号杆带电搭接江坑支线智能三遥开关引线（带电作业班配合）","powerOffId":"2019061431020154"},{"poweroffId":2019061431020153,"sgpoweroffId":null,"subsName":"","lineName":"10kV小山H715线","pubTranName":"杭州市余杭区人民政府余杭街道办事处,新余农机,义桥村三里铺公变,恩普森,临余公路2#路灯,溪塔村希望公变,溪塔村鲁家公变,义桥村共和公变,溪塔村葛家公变,义桥村朝阳公变,溪塔村毛家公变,","scope":"浙江省杭州市余杭区余杭街道:上湖泵站、恩普森、新舍农机、老15省道路灯、义桥村共和、义桥村朝阳、义桥村三里铺、溪塔村葛家、义桥村鲁家、溪塔村希望、溪塔村毛家一带","startTime":"2019-06-24 08:40:00","stopDate":"2019-06-24 13:00:00","orgNo":"3340140","typeCode":"计划停电","poweroffArea":"110kV余杭变:小山H715线首端，小山H7151开关，小山H7152开关之间","poweroffReason":"计划工作","powerTime":"2019-06-24 12:43:34","powerComm":"已全部送电。","subsNo":"","lineNo":"","tgNo":"","tgName":null,"infoStatus":"1","orgName":"国网浙江杭州市余杭区供电有限公司","typeName":null,"infoStatusName":null,"dateDay":null,"orgNos":null,"nowTime":null,"countyName":null,"streetName":null,"villageName":null,"roadName":null,"communityName":null,"tranName":null,"sdLineName":null,"cityCode":"3340140","cityName":"国网浙江杭州市余杭区供电有限公司","provinceCode":null,"stopTime":"2019-06-24 13:00:00","powerType":"全部","powerOffArea":"110kV余杭变:小山H715线首端，小山H7151开关，小山H7152开关之间","powerOffReason":"计划工作","powerOffId":"2019061431020153"},{"poweroffId":2019061431020152,"sgpoweroffId":null,"subsName":"","lineName":"10kV九房H379线","pubTranName":"雄业工贸基建变,","scope":"浙江省-杭州市-余杭区良渚街道：雄业工贸公司一带","startTime":"2019-06-24 08:40:00","stopDate":"2019-06-24 12:40:00","orgNo":"3340140","typeCode":"计划停电","poweroffArea":"110kV学里变:九房H379线-雄业工贸基建变用户开关后段 因施工力量增强，提前送电，原停电结束时间 : 2019-06-24 13:40:00，现停电结束时间 : 2019-06-24 12:40:00","poweroffReason":"计划工作","powerTime":"2019-06-24 12:13:23","powerComm":"已送电","subsNo":"","lineNo":"","tgNo":"","tgName":null,"infoStatus":"1","orgName":"国网浙江杭州市余杭区供电有限公司","typeName":null,"infoStatusName":null,"dateDay":null,"orgNos":null,"nowTime":null,"countyName":null,"streetName":null,"villageName":null,"roadName":null,"communityName":null,"tranName":null,"sdLineName":null,"cityCode":"3340140","cityName":"国网浙江杭州市余杭区供电有限公司","provinceCode":null,"stopTime":"2019-06-24 12:40:00","powerType":"全部","powerOffArea":"110kV学里变:九房H379线-雄业工贸基建变用户开关后段 因施工力量增强，提前送电，原停电结束时间 : 2019-06-24 13:40:00，现停电结束时间 : 2019-06-24 12:40:00","powerOffReason":"计划工作","powerOffId":"2019061431020152"},{"poweroffId":2019061431020151,"sgpoweroffId":null,"subsName":"","lineName":"10kV杜城H411线","pubTranName":"杜城村杨家塘2号公变,","scope":"浙江省-杭州市-余杭区良渚街道：杜城村杨家塘2一带","startTime":"2019-06-24 08:40:00","stopDate":"2019-06-24 17:40:00","orgNo":"3340140","typeCode":"计划停电","poweroffArea":"35kV良渚变:杜城H411线杨家塘2分线 因施工力量不足，计划结束时间延迟 原停电结束时间：2019-06-24 16:40:00 现停电结束时间：2019-06-24 17:40:00","poweroffReason":"计划工作","powerTime":"2019-06-24 17:09:24","powerComm":"已送电","subsNo":"","lineNo":"","tgNo":"","tgName":null,"infoStatus":"1","orgName":"国网浙江杭州市余杭区供电有限公司","typeName":null,"infoStatusName":null,"dateDay":null,"orgNos":null,"nowTime":null,"countyName":null,"streetName":null,"villageName":null,"roadName":null,"communityName":null,"tranName":null,"sdLineName":null,"cityCode":"3340140","cityName":"国网浙江杭州市余杭区供电有限公司","provinceCode":null,"stopTime":"2019-06-24 17:40:00","powerType":"全部","powerOffArea":"35kV良渚变:杜城H411线杨家塘2分线 因施工力量不足，计划结束时间延迟 原停电结束时间：2019-06-24 16:40:00 现停电结束时间：2019-06-24 17:40:00","powerOffReason":"计划工作","powerOffId":"2019061431020151"},{"poweroffId":2019061431020145,"sgpoweroffId":null,"subsName":"","lineName":"10kV吴山H795线","pubTranName":"苕溪龙腰公变,秀才桥泵站,永鑫纸业,仓前老人公寓,吴山前画狮桥北公变,苕溪秀才桥公变,中交3号,亿盛园林,","scope":"浙江省杭州市余杭区仓前街道：吴山前村画狮桥北、秀才桥、龙腰、亿盛园林厂、秀才桥泵站、仓前老年公寓、永鑫纸业厂、中交3号建设工地一带","startTime":"2019-07-12 08:30:00","stopDate":"2019-07-12 17:30:00","orgNo":"3340140","typeCode":"计划停电","poweroffArea":"吴山H795线秀才桥分线","poweroffReason":"配网工程（019年杭州余杭科技城10千伏吴山二线、网琪二线新建工程）：新放JKLYJ-10-1*240绝缘导线13档、新立15米电杆17基、新放YJV22-10-3*400电缆150米、新上开关1台，秀才桥分线用户改接至吴山二线。","powerTime":"2019-07-12 16:58:49","powerComm":"已送电","subsNo":"","lineNo":"","tgNo":"","tgName":null,"infoStatus":"1","orgName":"国网浙江杭州市余杭区供电有限公司","typeName":null,"infoStatusName":null,"dateDay":null,"orgNos":null,"nowTime":null,"countyName":null,"streetName":null,"villageName":null,"roadName":null,"communityName":null,"tranName":null,"sdLineName":null,"cityCode":"3340140","cityName":"国网浙江杭州市余杭区供电有限公司","provinceCode":null,"stopTime":"2019-07-12 17:30:00","powerType":"全部","powerOffArea":"吴山H795线秀才桥分线","powerOffReason":"配网工程（019年杭州余杭科技城10千伏吴山二线、网琪二线新建工程）：新放JKLYJ-10-1*240绝缘导线13档、新立15米电杆17基、新放YJV22-10-3*400电缆150米、新上开关1台，秀才桥分线用户改接至吴山二线。","powerOffId":"2019061431020145"},{"poweroffId":2019061431020144,"sgpoweroffId":null,"subsName":"","lineName":"10kV网琪H785线","pubTranName":"吴山前村王家斗,苕溪村南埠田,网琪排,苕溪村石墙2号公变,杭州余杭区高桥加油站有限公司,中交6号基建,苕溪村唐家头公变,苕溪村大船埠头公变,苕溪村石墙,余杭交通局,中交6号基建,杭州市苕源生态农庄有限公司,苕溪村金家竹桥,","scope":"浙江省杭州市余杭仓前街道：吴山前村王家斗、苕溪村石墙、石墙2号、南埠田、大船埠头、金家竹桥、唐家头、网琪排涝机埠、杭州市苕源生态农庄有限公司、中交集团建设工地、15省道路灯一带","startTime":"2019-07-11 08:40:00","stopDate":"2019-07-11 17:30:00","orgNo":"3340140","typeCode":"计划停电","poweroffArea":"网琪H7852开关-网琪H7853开关 原停电结束时间2019-07-11 14:40:00 变更停电结束时间2019-07-11 17:30:00 变更原因：涉及施工工程量大，需延迟工作时间","poweroffReason":"配网工程（019年杭州余杭科技城10千伏吴山二线、网琪二线新建工程）原停电结束时间2019-07-11 14:40:00 变更停电结束时间2019-07-11 17:30:00 变更原因：涉及施工工程量大，需延迟工作时间","powerTime":"2019-07-11 17:29:20","powerComm":"已送电","subsNo":"","lineNo":"","tgNo":"","tgName":null,"infoStatus":"1","orgName":"国网浙江杭州市余杭区供电有限公司","typeName":null,"infoStatusName":null,"dateDay":null,"orgNos":null,"nowTime":null,"countyName":null,"streetName":null,"villageName":null,"roadName":null,"communityName":null,"tranName":null,"sdLineName":null,"cityCode":"3340140","cityName":"国网浙江杭州市余杭区供电有限公司","provinceCode":null,"stopTime":"2019-07-11 17:30:00","powerType":"全部","powerOffArea":"网琪H7852开关-网琪H7853开关 原停电结束时间2019-07-11 14:40:00 变更停电结束时间2019-07-11 17:30:00 变更原因：涉及施工工程量大，需延迟工作时间","powerOffReason":"配网工程（019年杭州余杭科技城10千伏吴山二线、网琪二线新建工程）原停电结束时间2019-07-11 14:40:00 变更停电结束时间2019-07-11 17:30:00 变更原因：涉及施工工程量大，需延迟工作时间","powerOffId":"2019061431020144"},{"poweroffId":2019061431020142,"sgpoweroffId":null,"subsName":"","lineName":"10kV超峰G885线","pubTranName":"李家桥村水车河公变,","scope":"浙江省-杭州市-余杭区-东湖街道：李家桥村水车河一带","startTime":"2019-07-10 08:00:00","stopDate":"2019-07-10 19:30:00","orgNo":"3340140","typeCode":"计划停电","poweroffArea":"110kV漳河变:超峰G885线-李家桥村分线跌落式熔断器后段。因工作任务重大，原计划停电结束时间为2019年7月10日16时，现变更为2019年7月10日19时30分结束送电。","poweroffReason":"李家桥村水车河公变200kVA增至400kVA及计量箱、调换15米杆2基、12米2基、调换4*240电缆2根","powerTime":"2019-07-10 19:12:03","powerComm":"完成工作，已送电。","subsNo":"","lineNo":"","tgNo":"","tgName":null,"infoStatus":"1","orgName":"国网浙江杭州市余杭区供电有限公司","typeName":null,"infoStatusName":null,"dateDay":null,"orgNos":null,"nowTime":null,"countyName":null,"streetName":null,"villageName":null,"roadName":null,"communityName":null,"tranName":null,"sdLineName":null,"cityCode":"3340140","cityName":"国网浙江杭州市余杭区供电有限公司","provinceCode":null,"stopTime":"2019-07-10 19:30:00","powerType":"全部","powerOffArea":"110kV漳河变:超峰G885线-李家桥村分线跌落式熔断器后段。因工作任务重大，原计划停电结束时间为2019年7月10日16时，现变更为2019年7月10日19时30分结束送电。","powerOffReason":"李家桥村水车河公变200kVA增至400kVA及计量箱、调换15米杆2基、12米2基、调换4*240电缆2根","powerOffId":"2019061431020142"},{"poweroffId":2019061431020141,"sgpoweroffId":null,"subsName":"","lineName":"10kV兴国G795线","pubTranName":"杭州力夫机电制造有限公司,2#,中宙科技4#,杭州耀隆科技有限公司,中宙科技2#,1＃,2#变,浙江中宙光电股份有限公司,中宙科技1#,杭州科凡电子有限公司,","scope":"浙江省杭州市余杭区东湖街道：力夫机电制造有限公司、科凡电子有限公司、中宙光电科技有限公司、耀隆科技有限公司、立昌工具厂、水务公司小林4号泵站一带","startTime":"2019-06-27 15:00:00","stopDate":"2019-06-27 18:00:00","orgNo":"3340140","typeCode":"计划停电","poweroffArea":"110kV建富变:兴国G795线首端，建富村开发区分线开关，建富村开发区分线之间","poweroffReason":"经济开发区分线9号杆新装真空开关，新放电缆接入停保开关站I段","powerTime":"2019-06-27 17:05:52","powerComm":"工作结束，正常送电","subsNo":"","lineNo":"","tgNo":"","tgName":null,"infoStatus":"1","orgName":"国网浙江杭州市余杭区供电有限公司","typeName":null,"infoStatusName":null,"dateDay":null,"orgNos":null,"nowTime":null,"countyName":null,"streetName":null,"villageName":null,"roadName":null,"communityName":null,"tranName":null,"sdLineName":null,"cityCode":"3340140","cityName":"国网浙江杭州市余杭区供电有限公司","provinceCode":null,"stopTime":"2019-06-27 18:00:00","powerType":"全部","powerOffArea":"110kV建富变:兴国G795线首端，建富村开发区分线开关，建富村开发区分线之间","powerOffReason":"经济开发区分线9号杆新装真空开关，新放电缆接入停保开关站I段","powerOffId":"2019061431020141"},{"poweroffId":2019061431020140,"sgpoweroffId":null,"subsName":"","lineName":"10kV兴国G795线","pubTranName":"绿健体育休闲,金鑫交通,菱日61201824902#变压器,2#,微光电子,联道建设基建变,巴布科克日立（杭州）环保设备有限公司,微光电子315kVA配变,2#,余杭经济开发公司,","scope":"浙江省杭州市余杭区东湖街道：微光电子有限公司、巴布科克日立有限公司、金鑫交通有限公司、联道建设机械厂、绿健体育休闲有限公司、余杭经济开发建设公司(路灯）一带","startTime":"2019-06-27 11:00:00","stopDate":"2019-06-27 15:00:00","orgNo":"3340140","typeCode":"计划停电","poweroffArea":"110kV建富变:兴国G795线-建富村开发区分线后段","poweroffReason":"绿健体育用品分线1号杆新装真空开关，新放电缆接入停保开关站II段","powerTime":"2019-06-27 14:17:40","powerComm":"完成工作","subsNo":"","lineNo":"","tgNo":"","tgName":null,"infoStatus":"1","orgName":"国网浙江杭州市余杭区供电有限公司","typeName":null,"infoStatusName":null,"dateDay":null,"orgNos":null,"nowTime":null,"countyName":null,"streetName":null,"villageName":null,"roadName":null,"communityName":null,"tranName":null,"sdLineName":null,"cityCode":"3340140","cityName":"国网浙江杭州市余杭区供电有限公司","provinceCode":null,"stopTime":"2019-06-27 15:00:00","powerType":"全部","powerOffArea":"110kV建富变:兴国G795线-建富村开发区分线后段","powerOffReason":"绿健体育用品分线1号杆新装真空开关，新放电缆接入停保开关站II段","powerOffId":"2019061431020140"},{"poweroffId":2019061431020138,"sgpoweroffId":null,"subsName":"","lineName":"10kV联强H852线","pubTranName":"乘鸿科技,劲达齐泰,润业通信1,润业通信2,安通科技,","scope":"浙江省杭州市余杭区仓前街道：浙江缘份物业服务有限公司、浙江竞达齐泰科技有限公司、杭州安通科技有限公司、杭州乘鸿信息科技有限公司一带","startTime":"2019-06-27 08:40:00","stopDate":"2019-06-27 16:40:00","orgNo":"3340140","typeCode":"计划停电","poweroffArea":"乘鸿开关站联强H852线乘鸿分支箱分线","poweroffReason":"业扩工程（地铁3号线文一西路站线路迁改工程）：乘鸿开关站联强H852线乘鸿分支箱分线缘分物业和乘鸿科技电缆移位工作。","powerTime":"2019-06-27 16:02:40","powerComm":"已送电","subsNo":"","lineNo":"","tgNo":"","tgName":null,"infoStatus":"1","orgName":"国网浙江杭州市余杭区供电有限公司","typeName":null,"infoStatusName":null,"dateDay":null,"orgNos":null,"nowTime":null,"countyName":null,"streetName":null,"villageName":null,"roadName":null,"communityName":null,"tranName":null,"sdLineName":null,"cityCode":"3340140","cityName":"国网浙江杭州市余杭区供电有限公司","provinceCode":null,"stopTime":"2019-06-27 16:40:00","powerType":"全部","powerOffArea":"乘鸿开关站联强H852线乘鸿分支箱分线","powerOffReason":"业扩工程（地铁3号线文一西路站线路迁改工程）：乘鸿开关站联强H852线乘鸿分支箱分线缘分物业和乘鸿科技电缆移位工作。","powerOffId":"2019061431020138"}],"pageModel":{"pageNow":1585,"totalCount":17789,"totalPage":1779,"tableRows":0,"pageCount":10,"beginCount":15840},"isExperi":"1"}