{"message":"","today":"2020-06-16","seleList":[{"poweroffId":2019061431020120,"sgpoweroffId":null,"subsName":"","lineName":"10kV编组G115线","pubTranName":"资产营运中心61208291751#变压器,","scope":"浙江省杭州市余杭区南苑街道：教育资产营运管理中心基建工地一带","startTime":"2019-06-24 10:00:00","stopDate":"2019-06-24 12:30:00","orgNo":"3340140","typeCode":"计划停电","poweroffArea":"110kV临平变:桐鹤开关站编组G115线教育资产营运管理中心基建分线。","poweroffReason":"杭州启辉置业有限公司新上基建工程：杭州启辉置业有限公司新上基建变。原停电结束时间17：00，因检修力量充足，提前完成工作任务，现变更停电结束时间12：30","powerTime":"2019-06-24 11:42:45","powerComm":"施工结束","subsNo":"","lineNo":"","tgNo":"","tgName":null,"infoStatus":"1","orgName":"国网浙江杭州市余杭区供电有限公司","typeName":null,"infoStatusName":null,"dateDay":null,"orgNos":null,"nowTime":null,"countyName":null,"streetName":null,"villageName":null,"roadName":null,"communityName":null,"tranName":null,"sdLineName":null,"cityCode":"3340140","cityName":"国网浙江杭州市余杭区供电有限公司","provinceCode":null,"stopTime":"2019-06-24 12:30:00","powerType":"全部","powerOffArea":"110kV临平变:桐鹤开关站编组G115线教育资产营运管理中心基建分线。","powerOffReason":"杭州启辉置业有限公司新上基建工程：杭州启辉置业有限公司新上基建变。原停电结束时间17：00，因检修力量充足，提前完成工作任务，现变更停电结束时间12：30","powerOffId":"2019061431020120"},{"poweroffId":2019061431020119,"sgpoweroffId":null,"subsName":"","lineName":"10kV章家G038线","pubTranName":"2#,所用变,4#,杭州市余杭区运河镇人民政府,6#,","scope":"浙江省-杭州市-余杭区-运河街道：余杭区社会福利中心、运河镇政府、所用电一带","startTime":"2019-06-24 06:50:00","stopDate":"2019-06-24 12:10:00","orgNo":"3340140","typeCode":"计划停电","poweroffArea":"110kV五杭变:章家G038线首端，丽花0381线，花临0382线之间 原送电时间为2019-06-24 14:00:00 更改时间为2019-06-24 12:10:00","poweroffReason":"花里开关站I段拼柜一台","powerTime":"2019-06-24 11:50:22","powerComm":"完成工作。","subsNo":"","lineNo":"","tgNo":"","tgName":null,"infoStatus":"1","orgName":"国网浙江杭州市余杭区供电有限公司","typeName":null,"infoStatusName":null,"dateDay":null,"orgNos":null,"nowTime":null,"countyName":null,"streetName":null,"villageName":null,"roadName":null,"communityName":null,"tranName":null,"sdLineName":null,"cityCode":"3340140","cityName":"国网浙江杭州市余杭区供电有限公司","provinceCode":null,"stopTime":"2019-06-24 12:10:00","powerType":"全部","powerOffArea":"110kV五杭变:章家G038线首端，丽花0381线，花临0382线之间 原送电时间为2019-06-24 14:00:00 更改时间为2019-06-24 12:10:00","powerOffReason":"花里开关站I段拼柜一台","powerOffId":"2019061431020119"},{"poweroffId":2019061431020118,"sgpoweroffId":null,"subsName":"","lineName":"10kV吴灵H654线","pubTranName":"连具塘村百步桥2号公变,连具塘村百步桥,交通运输局,洪运五金,连具塘经联社3#,连具塘村闻家公变,连具塘村沈家村南公变,中交2号基建,连具塘经联社1#,连具塘村百步桥北公变,禹昌商贸,连具塘经联社2#,","scope":"浙江省杭州市余杭区仓前街道：连具塘村百步桥、百步桥2号公变、百步桥北、沈家村南、闻家、洪运五金厂、禹昌商贸公司、连具塘经联社、交通运输局、中交2号建设工地一带","startTime":"2019-06-24 08:00:00","stopDate":"2019-06-24 19:00:00","orgNo":"3340140","typeCode":"计划停电","poweroffArea":"吴灵H6545开关-H6548开关","poweroffReason":"配网工程（2019年杭州余杭科技城10千伏吴灵二线、灵源二线新建工程）：新放YJV22-10-3*400电缆2根、168号杆至183号杆单改双、调换电杆及导线、山背后西分线、闻家分线改接至灵源二线。","powerTime":"2019-06-24 18:09:33","powerComm":"已送电","subsNo":"","lineNo":"","tgNo":"","tgName":null,"infoStatus":"1","orgName":"国网浙江杭州市余杭区供电有限公司","typeName":null,"infoStatusName":null,"dateDay":null,"orgNos":null,"nowTime":null,"countyName":null,"streetName":null,"villageName":null,"roadName":null,"communityName":null,"tranName":null,"sdLineName":null,"cityCode":"3340140","cityName":"国网浙江杭州市余杭区供电有限公司","provinceCode":null,"stopTime":"2019-06-24 19:00:00","powerType":"全部","powerOffArea":"吴灵H6545开关-H6548开关","powerOffReason":"配网工程（2019年杭州余杭科技城10千伏吴灵二线、灵源二线新建工程）：新放YJV22-10-3*400电缆2根、168号杆至183号杆单改双、调换电杆及导线、山背后西分线、闻家分线改接至灵源二线。","powerOffId":"2019061431020118"},{"poweroffId":2019061431020117,"sgpoweroffId":null,"subsName":"","lineName":"10kV高地G917线","pubTranName":"翁乔路2#路灯变,光大建设翁梅基建变,","scope":"浙江省杭州市余杭区南苑街道：翁乔路路灯、光大建设翁梅基建工地一带","startTime":"2019-06-24 07:40:00","stopDate":"2019-06-24 21:00:00","orgNo":"3340140","typeCode":"计划停电","poweroffArea":"110kV庙港变:高地G9171开关-高地G9172开关。","poweroffReason":"2019年杭州余杭南苑10千伏高地、联胜线改造工程：1、27#杆至31#杆调换导线4档、调换18米杆6基、15米杆5基、装智能开关5台高地、联胜加装分段开关；2、线路修树，登杆检查，3M绝缘处理，加装防鸟挡板。","powerTime":"2019-06-24 20:59:14","powerComm":"施工结束","subsNo":"","lineNo":"","tgNo":"","tgName":null,"infoStatus":"1","orgName":"国网浙江杭州市余杭区供电有限公司","typeName":null,"infoStatusName":null,"dateDay":null,"orgNos":null,"nowTime":null,"countyName":null,"streetName":null,"villageName":null,"roadName":null,"communityName":null,"tranName":null,"sdLineName":null,"cityCode":"3340140","cityName":"国网浙江杭州市余杭区供电有限公司","provinceCode":null,"stopTime":"2019-06-24 21:00:00","powerType":"全部","powerOffArea":"110kV庙港变:高地G9171开关-高地G9172开关。","powerOffReason":"2019年杭州余杭南苑10千伏高地、联胜线改造工程：1、27#杆至31#杆调换导线4档、调换18米杆6基、15米杆5基、装智能开关5台高地、联胜加装分段开关；2、线路修树，登杆检查，3M绝缘处理，加装防鸟挡板。","powerOffId":"2019061431020117"},{"poweroffId":2019061431020116,"sgpoweroffId":null,"subsName":"","lineName":"10kV联胜G909线","pubTranName":"余杭水利建设投资有限公司变压器,怡丰城4#基建变,","scope":"浙江省杭州市余杭区南苑街道：农林水利方桥港闸站、怡丰城基建工地","startTime":"2019-06-24 07:40:00","stopDate":"2019-06-24 21:00:00","orgNo":"3340140","typeCode":"计划停电","poweroffArea":"110kV庙港变:联胜G9091开关-鑫溢开关站联胜G909线。","poweroffReason":"2019年杭州余杭南苑10千伏高地、联胜线改造工程：27#杆至31#杆调换导线4档、调换18米杆6基、15米杆5基、装智能开关5台高地、联胜加装分段开关。","powerTime":"2019-06-24 20:55:29","powerComm":"施工结束","subsNo":"","lineNo":"","tgNo":"","tgName":null,"infoStatus":"1","orgName":"国网浙江杭州市余杭区供电有限公司","typeName":null,"infoStatusName":null,"dateDay":null,"orgNos":null,"nowTime":null,"countyName":null,"streetName":null,"villageName":null,"roadName":null,"communityName":null,"tranName":null,"sdLineName":null,"cityCode":"3340140","cityName":"国网浙江杭州市余杭区供电有限公司","provinceCode":null,"stopTime":"2019-06-24 21:00:00","powerType":"全部","powerOffArea":"110kV庙港变:联胜G9091开关-鑫溢开关站联胜G909线。","powerOffReason":"2019年杭州余杭南苑10千伏高地、联胜线改造工程：27#杆至31#杆调换导线4档、调换18米杆6基、15米杆5基、装智能开关5台高地、联胜加装分段开关。","powerOffId":"2019061431020116"},{"poweroffId":2019061431020097,"sgpoweroffId":null,"subsName":"","lineName":"10kV江围0316线","pubTranName":"新江村5#变,新江村8#变,可峰包装,","scope":"浙江省-杭州市-萧山区-河庄街道-新江行政村-新江自然村;浙江省-杭州市-萧山区-河庄街道-向红行政村-杭州可锋包装制品厂","startTime":"2019-06-28 09:00:00","stopDate":"2019-06-28 15:30:00","orgNo":"3340120","typeCode":"计划停电","poweroffArea":"110kV启江变:江围0316线-江政0316A线包装支线02开关后段","poweroffReason":"江政0316A线包装支线4#杆至8#杆导线更换工作","powerTime":"2019-06-28 15:10:25","powerComm":"已送电","subsNo":"","lineNo":"","tgNo":"","tgName":null,"infoStatus":"1","orgName":"国网浙江杭州市钱塘新区供电公司","typeName":null,"infoStatusName":null,"dateDay":null,"orgNos":null,"nowTime":null,"countyName":null,"streetName":null,"villageName":null,"roadName":null,"communityName":null,"tranName":null,"sdLineName":null,"cityCode":"3340120","cityName":"国网浙江杭州市钱塘新区供电公司","provinceCode":null,"stopTime":"2019-06-28 15:30:00","powerType":"全部","powerOffArea":"110kV启江变:江围0316线-江政0316A线包装支线02开关后段","powerOffReason":"江政0316A线包装支线4#杆至8#杆导线更换工作","powerOffId":"2019061431020097"},{"poweroffId":2019061431020091,"sgpoweroffId":null,"subsName":"","lineName":"10kV蜀南345线","pubTranName":"蜀南村10#变,","scope":"浙江省-杭州市-萧山区-河庄街道-蜀南行政村-蜀南自然村","startTime":"2019-06-24 09:00:00","stopDate":"2019-06-24 12:00:00","orgNo":"3340120","typeCode":"计划停电","poweroffArea":"110kV河庄变:蜀南345线-蜀南村10#变后段","poweroffReason":"蜀南村10#变台区改造工作","powerTime":"2019-06-24 11:28:47","powerComm":"已送电","subsNo":"","lineNo":"","tgNo":"","tgName":null,"infoStatus":"1","orgName":"国网浙江杭州市钱塘新区供电公司","typeName":null,"infoStatusName":null,"dateDay":null,"orgNos":null,"nowTime":null,"countyName":null,"streetName":null,"villageName":null,"roadName":null,"communityName":null,"tranName":null,"sdLineName":null,"cityCode":"3340120","cityName":"国网浙江杭州市钱塘新区供电公司","provinceCode":null,"stopTime":"2019-06-24 12:00:00","powerType":"全部","powerOffArea":"110kV河庄变:蜀南345线-蜀南村10#变后段","powerOffReason":"蜀南村10#变台区改造工作","powerOffId":"2019061431020091"},{"poweroffId":2019061431020088,"sgpoweroffId":null,"subsName":"","lineName":"10kV怡合199线","pubTranName":"怡华1号公变,","scope":"浙江省-杭州市-桐庐县-分水镇-怡华行政村-怡华自然村","startTime":"2019-07-05 08:00:00","stopDate":"2019-07-05 16:30:00","orgNo":"3340150","typeCode":"计划停电","poweroffArea":"35kV合村变:怡合199线-怡华F9589令克后段","poweroffReason":"1、怡合199线173号杆至怡华分线3号杆立杆4根、架线4档及拆装怡华1号公变拆装","powerTime":"2019-07-05 16:10:13","powerComm":"已送电","subsNo":"","lineNo":"","tgNo":"","tgName":null,"infoStatus":"1","orgName":"国网浙江桐庐县供电公司","typeName":null,"infoStatusName":null,"dateDay":null,"orgNos":null,"nowTime":null,"countyName":null,"streetName":null,"villageName":null,"roadName":null,"communityName":null,"tranName":null,"sdLineName":null,"cityCode":"3340150","cityName":"国网浙江桐庐县供电公司","provinceCode":null,"stopTime":"2019-07-05 16:30:00","powerType":"全部","powerOffArea":"35kV合村变:怡合199线-怡华F9589令克后段","powerOffReason":"1、怡合199线173号杆至怡华分线3号杆立杆4根、架线4档及拆装怡华1号公变拆装","powerOffId":"2019061431020088"},{"poweroffId":2019061431020086,"sgpoweroffId":null,"subsName":"","lineName":"10kV东溪R102线","pubTranName":"排岭南路9#公变315kVA,","scope":"浙江省-杭州市-淳安县-千岛湖镇-施家塘社区-知丰路,千岛湖镇-火炉尖社区(排岭南路,金鸡弄)","startTime":"2019-06-25 08:00:00","stopDate":"2019-06-25 16:30:00","orgNo":"3340190","typeCode":"计划停电","poweroffArea":"110kV千岛湖变:东溪R102线-排岭南路9号4383线断路器后段","poweroffReason":"东溪102线盐库环网单元4383线间隔拆除农机209分接箱至排岭南路9号公变出线电缆","powerTime":"2019-06-25 15:58:00","powerComm":"现场工作已完成","subsNo":"","lineNo":"","tgNo":"","tgName":null,"infoStatus":"1","orgName":"国网浙江淳安县供电有限公司","typeName":null,"infoStatusName":null,"dateDay":null,"orgNos":null,"nowTime":null,"countyName":null,"streetName":null,"villageName":null,"roadName":null,"communityName":null,"tranName":null,"sdLineName":null,"cityCode":"3340190","cityName":"国网浙江淳安县供电有限公司","provinceCode":null,"stopTime":"2019-06-25 16:30:00","powerType":"全部","powerOffArea":"110kV千岛湖变:东溪R102线-排岭南路9号4383线断路器后段","powerOffReason":"东溪102线盐库环网单元4383线间隔拆除农机209分接箱至排岭南路9号公变出线电缆","powerOffId":"2019061431020086"},{"poweroffId":2019061431020085,"sgpoweroffId":null,"subsName":"","lineName":"10kV胜峰T335线","pubTranName":"香山报恩寺1号公变,","scope":"浙江省-杭州市-桐庐县-横村镇-香山行政村(报恩寺自然村,香山自然村)","startTime":"2019-06-27 07:30:00","stopDate":"2019-06-27 17:30:00","orgNo":"3340150","typeCode":"计划停电","poweroffArea":"110kV横村变:胜峰T335线-香山F1700令克后段","poweroffReason":"杭州桐庐横村香山报恩寺等台区配变及低压线路改造工程","powerTime":"2019-06-27 17:14:29","powerComm":"已送电。","subsNo":"","lineNo":"","tgNo":"","tgName":null,"infoStatus":"1","orgName":"国网浙江桐庐县供电公司","typeName":null,"infoStatusName":null,"dateDay":null,"orgNos":null,"nowTime":null,"countyName":null,"streetName":null,"villageName":null,"roadName":null,"communityName":null,"tranName":null,"sdLineName":null,"cityCode":"3340150","cityName":"国网浙江桐庐县供电公司","provinceCode":null,"stopTime":"2019-06-27 17:30:00","powerType":"全部","powerOffArea":"110kV横村变:胜峰T335线-香山F1700令克后段","powerOffReason":"杭州桐庐横村香山报恩寺等台区配变及低压线路改造工程","powerOffId":"2019061431020085"}],"pageModel":{"pageNow":1587,"totalCount":17789,"totalPage":1779,"tableRows":0,"pageCount":10,"beginCount":15860},"isExperi":"1"}