{"message":"","today":"2020-06-16","seleList":[{"poweroffId":2019061431020081,"sgpoweroffId":null,"subsName":"","lineName":"10kV保安T182线","pubTranName":"盛村燕巢2号公变,","scope":"浙江省-杭州市-桐庐县-分水镇-盛村行政村(盛村自然村,燕巢自然村)","startTime":"2019-07-01 07:30:00","stopDate":"2019-07-01 17:30:00","orgNo":"3340150","typeCode":"计划停电","poweroffArea":"110kV分水变:保安T182线-盛村F4726跌落式熔断器后段","poweroffReason":"杭州桐庐分水朝阳1号公变等台区JP柜更换工程","powerTime":"2019-07-01 17:10:40","powerComm":"已送电","subsNo":"","lineNo":"","tgNo":"","tgName":null,"infoStatus":"1","orgName":"国网浙江桐庐县供电公司","typeName":null,"infoStatusName":null,"dateDay":null,"orgNos":null,"nowTime":null,"countyName":null,"streetName":null,"villageName":null,"roadName":null,"communityName":null,"tranName":null,"sdLineName":null,"cityCode":"3340150","cityName":"国网浙江桐庐县供电公司","provinceCode":null,"stopTime":"2019-07-01 17:30:00","powerType":"全部","powerOffArea":"110kV分水变:保安T182线-盛村F4726跌落式熔断器后段","powerOffReason":"杭州桐庐分水朝阳1号公变等台区JP柜更换工程","powerOffId":"2019061431020081"},{"poweroffId":2019061431020079,"sgpoweroffId":null,"subsName":"","lineName":"10kV郭东8157线","pubTranName":"下羊二,下羊二,","scope":"浙江省杭州市上城区江城路（河坊街至郭东园巷）一带、江城路称心里附近一带","startTime":"2019-06-24 14:00:00","stopDate":"2019-06-24 17:00:00","orgNo":"3340101","typeCode":"计划停电","poweroffArea":"110kV横河变:郭东8157线-下羊二后段;郭东8157线-下羊二变线后段","poweroffReason":"凯铁1幢等小区公变增容布点及低压台区改造工程（华西1811HZ17012910A0000000）下羊二变新出低压线路","powerTime":"2019-06-24 16:19:59","powerComm":"已送电","subsNo":"","lineNo":"","tgNo":"","tgName":null,"infoStatus":"1","orgName":"浙江杭州电力客户服务中心","typeName":null,"infoStatusName":null,"dateDay":null,"orgNos":null,"nowTime":null,"countyName":null,"streetName":null,"villageName":null,"roadName":null,"communityName":null,"tranName":null,"sdLineName":null,"cityCode":"3340101","cityName":"浙江杭州电力客户服务中心","provinceCode":null,"stopTime":"2019-06-24 17:00:00","powerType":"全部","powerOffArea":"110kV横河变:郭东8157线-下羊二后段;郭东8157线-下羊二变线后段","powerOffReason":"凯铁1幢等小区公变增容布点及低压台区改造工程（华西1811HZ17012910A0000000）下羊二变新出低压线路","powerOffId":"2019061431020079"},{"poweroffId":2019061431020078,"sgpoweroffId":null,"subsName":"","lineName":"10kV西凤8321线","pubTranName":"环宿一,环宿二,浙招,西村二,西村一,省血专变二,西路,省血专变一,环宿三,","scope":"浙江省杭州市下城区环城西路57号、64号、66号、68号、70号、环西新村3幢、8幢、10幢、社区附近一带，环西新村4幢、6幢、7幢、14幢、16幢—18幢、23幢、广告公司附近一带，安吉路37幢、38幢、劳工路53号、安吉路31号—34号、环西新村1幢、2幢、19幢、20幢、环城西路58号、62号附近一带，劳工弄4幢、劳工弄47号—50号、环西新村19幢、24—26幢、34幢、武林路123号、355号、355号、357号、373号附近一带，环西新村21幢、22幢、35幢、36幢附近一带，浙招用户双路单侧、省血用户双路单侧、环城西路路灯","startTime":"2019-06-20 09:30:00","stopDate":"2019-06-20 16:30:00","orgNo":"3340101","typeCode":"临时停电","poweroffArea":"110kV昭庆变:西凤8321线-10千伏孝丰526线科委站环宿分线开关断路器后段","poweroffReason":"原停电结束时间17:00，变更停电结束时间16:30，原因由于施工现场环境比较复杂，存在不确定因素，因此预估施工时间适当放长了，而实际施工进行得比较顺利，因此该工作提前结束。","powerTime":"2019-06-20 16:05:59","powerComm":"已送电","subsNo":"","lineNo":"","tgNo":"","tgName":null,"infoStatus":"1","orgName":"浙江杭州电力客户服务中心","typeName":null,"infoStatusName":null,"dateDay":null,"orgNos":null,"nowTime":null,"countyName":null,"streetName":null,"villageName":null,"roadName":null,"communityName":null,"tranName":null,"sdLineName":null,"cityCode":"3340101","cityName":"浙江杭州电力客户服务中心","provinceCode":null,"stopTime":"2019-06-20 16:30:00","powerType":"全部","powerOffArea":"110kV昭庆变:西凤8321线-10千伏孝丰526线科委站环宿分线开关断路器后段","powerOffReason":"原停电结束时间17:00，变更停电结束时间16:30，原因由于施工现场环境比较复杂，存在不确定因素，因此预估施工时间适当放长了，而实际施工进行得比较顺利，因此该工作提前结束。","powerOffId":"2019061431020078"},{"poweroffId":2019061431020076,"sgpoweroffId":null,"subsName":"","lineName":"10kV九镇641线","pubTranName":"宣家农(1),","scope":"浙江省-杭州市-江干区-九堡镇-宣家埠村一区部分用户","startTime":"2019-06-28 09:30:00","stopDate":"2019-06-28 15:30:00","orgNo":"3340101","typeCode":"计划停电","poweroffArea":"110kV九堡变:九镇641线-宣家农(1)后段","poweroffReason":"原停电结束时间17:30，变更停电结束时间15:30，原因由于施工现场比较复杂，存在不确定因素，因此预估施工时间适当放长了，而实际施工进行比较顺利，因此该工作提前结束","powerTime":"2019-06-28 14:40:59","powerComm":"已送电","subsNo":"","lineNo":"","tgNo":"","tgName":null,"infoStatus":"1","orgName":"浙江杭州电力客户服务中心","typeName":null,"infoStatusName":null,"dateDay":null,"orgNos":null,"nowTime":null,"countyName":null,"streetName":null,"villageName":null,"roadName":null,"communityName":null,"tranName":null,"sdLineName":null,"cityCode":"3340101","cityName":"浙江杭州电力客户服务中心","provinceCode":null,"stopTime":"2019-06-28 15:30:00","powerType":"全部","powerOffArea":"110kV九堡变:九镇641线-宣家农(1)后段","powerOffReason":"原停电结束时间17:30，变更停电结束时间15:30，原因由于施工现场比较复杂，存在不确定因素，因此预估施工时间适当放长了，而实际施工进行比较顺利，因此该工作提前结束","powerOffId":"2019061431020076"},{"poweroffId":2019061431020071,"sgpoweroffId":null,"subsName":"","lineName":"10kV横双R17A线","pubTranName":"五丰村五丰配变,青山村坪山配变,横塘村新胜3#公变,横塘村林兴配变,株林村郑家坞公变,琴坑村琴溪配变,横塘村亲目2#公变,威坪硫铁矿污水专变,横塘村新胜2#配变,驮岭脚村驮岭配变,旗山村徐家公变,横塘村亲目3#公变,五丰村占畈配变,琴坑村琴川配变,横塘村亲目公变,朱陈公变,旗山村豪岭脚配变,横塘村新胜1#配变,琴坑村驮坑公变,中交第二公路工程局有限公司（塔岭隧道出口2号）专变,塔岭隧道出口1号临变,旗山村陆家公变,","scope":"浙江省-杭州市-淳安县-威坪镇-五丰行政村(五丰自然村,朱陈自然村),威坪镇-青山行政村(坪山自然村,团结自然村),威坪镇-旗山行政村(陆家自然村,徐家坞自然村),威坪镇-横塘行政村(亲睦自然村,林兴自然村,新胜自然村),威坪镇-琴坑行政村(驮坑自然村,琴川自然村,琴溪自然村),威坪镇(驮岭脚行政村-驮岭脚自然村,株林行政村-株林自然村);威坪镇(琴坑行政村-淳安县威坪镇人民政府,虹桥社区-中交第二公路工程局有限公司)","startTime":"2019-06-20 06:50:00","stopDate":"2019-06-20 13:00:00","orgNo":"3340190","typeCode":"临时停电","poweroffArea":"110kV虹桥变:横双R17A线-横双R17A线24号杆开关后段","poweroffReason":"横双R17A线杆线更换","powerTime":"2019-06-20 12:37:29","powerComm":"现场工作已完成","subsNo":"","lineNo":"","tgNo":"","tgName":null,"infoStatus":"1","orgName":"国网浙江淳安县供电有限公司","typeName":null,"infoStatusName":null,"dateDay":null,"orgNos":null,"nowTime":null,"countyName":null,"streetName":null,"villageName":null,"roadName":null,"communityName":null,"tranName":null,"sdLineName":null,"cityCode":"3340190","cityName":"国网浙江淳安县供电有限公司","provinceCode":null,"stopTime":"2019-06-20 13:00:00","powerType":"全部","powerOffArea":"110kV虹桥变:横双R17A线-横双R17A线24号杆开关后段","powerOffReason":"横双R17A线杆线更换","powerOffId":"2019061431020071"},{"poweroffId":2019061431020070,"sgpoweroffId":null,"subsName":"","lineName":"10kV白云T463线","pubTranName":"桐庐福龙度假村,梅林溪排涝,杭州景恒实业有限公司,力高控股有限公司基建2#变,上洋洲村2号公变,景恒实业,力高控股有限公司(基建1#变),桐庐县市政园林管理处(路灯),","scope":"浙江省-杭州市-桐庐县-城南街道-上洋洲行政村(杭州景恒实业有限公司,桐庐耀捷针织厂,桐庐福龙度假村)","startTime":"2019-06-25 06:00:00","stopDate":"2019-06-25 22:00:00","orgNo":"3340150","typeCode":"计划停电","poweroffArea":"110kV下杭变:白云T463线-福龙F9900线后段;白云T463线-立山F9901线后段;白云T463线-洋中0392线后段","poweroffReason":"老旧开关站消缺，原停电结束时间2019年6月25日20：30，变更停电结束时间2019年6月25日22：00，原因：天气原因","powerTime":"2019-06-25 21:40:20","powerComm":"已送电。","subsNo":"","lineNo":"","tgNo":"","tgName":null,"infoStatus":"1","orgName":"国网浙江桐庐县供电公司","typeName":null,"infoStatusName":null,"dateDay":null,"orgNos":null,"nowTime":null,"countyName":null,"streetName":null,"villageName":null,"roadName":null,"communityName":null,"tranName":null,"sdLineName":null,"cityCode":"3340150","cityName":"国网浙江桐庐县供电公司","provinceCode":null,"stopTime":"2019-06-25 22:00:00","powerType":"全部","powerOffArea":"110kV下杭变:白云T463线-福龙F9900线后段;白云T463线-立山F9901线后段;白云T463线-洋中0392线后段","powerOffReason":"老旧开关站消缺，原停电结束时间2019年6月25日20：30，变更停电结束时间2019年6月25日22：00，原因：天气原因","powerOffId":"2019061431020070"},{"poweroffId":2019061431020069,"sgpoweroffId":null,"subsName":"","lineName":"10kV枫奇T400线","pubTranName":"桐庐外贸局养殖场,峙山1号公变,峙山2号公变,峙山3号公变,","scope":"浙江省-杭州市-桐庐县-城南街道-金溪行政村(徐家自然村,峙山自然村,乌枫塘自然村,张家自然村,朱家自然村);浙江省-杭州市-桐庐县-城南街道-金溪行政村-桐庐外贸局养殖场","startTime":"2019-06-29 08:30:00","stopDate":"2019-06-29 16:00:00","orgNo":"3340150","typeCode":"计划停电","poweroffArea":"110kV枫塘变:枫奇T400线-剪溪0063线后段","poweroffReason":"用户业扩工程","powerTime":"2019-06-29 15:40:25","powerComm":"已送电。","subsNo":"","lineNo":"","tgNo":"","tgName":null,"infoStatus":"1","orgName":"国网浙江桐庐县供电公司","typeName":null,"infoStatusName":null,"dateDay":null,"orgNos":null,"nowTime":null,"countyName":null,"streetName":null,"villageName":null,"roadName":null,"communityName":null,"tranName":null,"sdLineName":null,"cityCode":"3340150","cityName":"国网浙江桐庐县供电公司","provinceCode":null,"stopTime":"2019-06-29 16:00:00","powerType":"全部","powerOffArea":"110kV枫塘变:枫奇T400线-剪溪0063线后段","powerOffReason":"用户业扩工程","powerOffId":"2019061431020069"},{"poweroffId":2019061431020059,"sgpoweroffId":null,"subsName":"","lineName":"10kV大市R161线","pubTranName":"鑫园农业配变,淳安千岛湖大央泱牧业有限公司配变,桃林公变,彭家庄公变,桃林源公变,中庄公变,","scope":"浙江省-杭州市-淳安县-大墅镇-桃林行政村(中庄自然村,桃林自然村,彭家庄自然村);大墅镇-桃林行政村(淳安千岛湖大央泱牧业有限公司,淳安县鑫园农业开发有限公司)","startTime":"2019-06-28 07:30:00","stopDate":"2019-06-28 14:30:00","orgNo":"3340190","typeCode":"计划停电","poweroffArea":"35kV大市变:大市R161线-桃林源支线30号杆开关后段","poweroffReason":"10千伏桃林源支线改造36号杆至45号杆导线架设。2.桃林配变支线割接","powerTime":"2019-06-28 13:52:19","powerComm":"现场工作已完成","subsNo":"","lineNo":"","tgNo":"","tgName":null,"infoStatus":"1","orgName":"国网浙江淳安县供电有限公司","typeName":null,"infoStatusName":null,"dateDay":null,"orgNos":null,"nowTime":null,"countyName":null,"streetName":null,"villageName":null,"roadName":null,"communityName":null,"tranName":null,"sdLineName":null,"cityCode":"3340190","cityName":"国网浙江淳安县供电有限公司","provinceCode":null,"stopTime":"2019-06-28 14:30:00","powerType":"全部","powerOffArea":"35kV大市变:大市R161线-桃林源支线30号杆开关后段","powerOffReason":"10千伏桃林源支线改造36号杆至45号杆导线架设。2.桃林配变支线割接","powerOffId":"2019061431020059"},{"poweroffId":2019061431020058,"sgpoweroffId":null,"subsName":"","lineName":"10kV滨江R117线","pubTranName":"环湖北路2#,杭州居易房地产开发有限公司箱变,","scope":"浙江省-杭州市-淳安县-千岛湖镇(望湖社区-环湖北路,新北社区-阳光路);浙江省-杭州市-淳安县-千岛湖镇-望湖社区-杭州居易房地产开发有限公司","startTime":"2019-06-25 06:30:00","stopDate":"2019-06-25 18:00:00","orgNo":"3340190","typeCode":"计划停电","poweroffArea":"110kV淳安变:滨江R117线首端，辉东R1172线隔离开关，东滨R1173线负荷开关之间","poweroffReason":"东庄环网单元整体移位","powerTime":"2019-06-25 17:39:30","powerComm":"现场工作已完成","subsNo":"","lineNo":"","tgNo":"","tgName":null,"infoStatus":"1","orgName":"国网浙江淳安县供电有限公司","typeName":null,"infoStatusName":null,"dateDay":null,"orgNos":null,"nowTime":null,"countyName":null,"streetName":null,"villageName":null,"roadName":null,"communityName":null,"tranName":null,"sdLineName":null,"cityCode":"3340190","cityName":"国网浙江淳安县供电有限公司","provinceCode":null,"stopTime":"2019-06-25 18:00:00","powerType":"全部","powerOffArea":"110kV淳安变:滨江R117线首端，辉东R1172线隔离开关，东滨R1173线负荷开关之间","powerOffReason":"东庄环网单元整体移位","powerOffId":"2019061431020058"},{"poweroffId":2019061431020057,"sgpoweroffId":null,"subsName":"","lineName":"10kV浪坪R209线","pubTranName":"淳安县房地产管理处配变,淳安县农村信用合作联社配变,淳安县国家税务局配变,君玺房产2号专变支线,君玺房产1号专变,","scope":"浙江省-杭州市-淳安县-千岛湖镇-望湖社区(国家税务总局淳安县税务局,浙江淳安农村商业银行股份有限公司,浙江黄氏房地产开发有限公司,淳安县房地产管理处)","startTime":"2019-06-27 06:30:00","stopDate":"2019-06-27 13:30:00","orgNo":"3340190","typeCode":"计划停电","poweroffArea":"110kV淳安变:浪坪R209线首端，辉纤R2093线隔离开关，纤环R2094线间隔负荷开关之间","poweroffReason":"纤口环网单元整体移位","powerTime":"2019-06-27 13:22:18","powerComm":"现场工作已完成","subsNo":"","lineNo":"","tgNo":"","tgName":null,"infoStatus":"1","orgName":"国网浙江淳安县供电有限公司","typeName":null,"infoStatusName":null,"dateDay":null,"orgNos":null,"nowTime":null,"countyName":null,"streetName":null,"villageName":null,"roadName":null,"communityName":null,"tranName":null,"sdLineName":null,"cityCode":"3340190","cityName":"国网浙江淳安县供电有限公司","provinceCode":null,"stopTime":"2019-06-27 13:30:00","powerType":"全部","powerOffArea":"110kV淳安变:浪坪R209线首端，辉纤R2093线隔离开关，纤环R2094线间隔负荷开关之间","powerOffReason":"纤口环网单元整体移位","powerOffId":"2019061431020057"}],"pageModel":{"pageNow":1588,"totalCount":17789,"totalPage":1779,"tableRows":0,"pageCount":10,"beginCount":15870},"isExperi":"1"}