{"message":"","today":"2020-06-16","seleList":[{"poweroffId":2019061431010513,"sgpoweroffId":null,"subsName":"","lineName":"10kV利民D241线","pubTranName":"江岭村8号前江路公变,小沙村3#西公变,杭州中能管业有限公司,富阳四季红染织有限公司,杭州中能管业有限公司,江岭村6号新区公变,江岭村3#前江路公变,小沙村6号新区公变,江岭村4#三村路西公变,江岭村2#三村路东公变,","scope":"浙江省杭州市富阳区东洲街道江岭村、小沙村一带","startTime":"2019-06-25 09:00:00","stopDate":"2019-06-25 17:30:00","orgNo":"3340170","typeCode":"计划停电","poweroffArea":"110kV白鹤变:利民D241线-江岭造纸厂分线开关后段","poweroffReason":"亚运场馆及北之江综合整治工程PPP项目利民D241线线路迁改工程：立杆2基，架线两档，拆除导线一档、安装真空开关一台等工作原结束时间2019-06-25 17:00:00因天气原因延至2019-06-25 17:30:00","powerTime":"2019-06-25 17:15:48","powerComm":"已送电","subsNo":"","lineNo":"","tgNo":"","tgName":null,"infoStatus":"1","orgName":"国网浙江杭州市富阳区供电公司","typeName":null,"infoStatusName":null,"dateDay":null,"orgNos":null,"nowTime":null,"countyName":null,"streetName":null,"villageName":null,"roadName":null,"communityName":null,"tranName":null,"sdLineName":null,"cityCode":"3340170","cityName":"国网浙江杭州市富阳区供电公司","provinceCode":null,"stopTime":"2019-06-25 17:30:00","powerType":"全部","powerOffArea":"110kV白鹤变:利民D241线-江岭造纸厂分线开关后段","powerOffReason":"亚运场馆及北之江综合整治工程PPP项目利民D241线线路迁改工程：立杆2基，架线两档，拆除导线一档、安装真空开关一台等工作原结束时间2019-06-25 17:00:00因天气原因延至2019-06-25 17:30:00","powerOffId":"2019061431010513"},{"poweroffId":2019061431010506,"sgpoweroffId":null,"subsName":"","lineName":"10kV砚口D611线","pubTranName":"觃口村1#上桥头公变,","scope":"浙江省-杭州市富阳区-大源镇(觃口行政村-觃口自然村)一带;","startTime":"2019-06-25 13:00:00","stopDate":"2019-06-25 17:50:00","orgNo":"3340170","typeCode":"计划停电","poweroffArea":"35kV溪东变:砚口D611线-觃口村1#上桥头公变跌落式熔断器后段","poweroffReason":"江南2019年山建村5#新区公变等台区低压线路改造工程；觃口村1#上桥头公变更换配电屏、更换低压进线电缆等工作","powerTime":"2019-06-25 17:35:30","powerComm":"已送电","subsNo":"","lineNo":"","tgNo":"","tgName":null,"infoStatus":"1","orgName":"国网浙江杭州市富阳区供电公司","typeName":null,"infoStatusName":null,"dateDay":null,"orgNos":null,"nowTime":null,"countyName":null,"streetName":null,"villageName":null,"roadName":null,"communityName":null,"tranName":null,"sdLineName":null,"cityCode":"3340170","cityName":"国网浙江杭州市富阳区供电公司","provinceCode":null,"stopTime":"2019-06-25 17:50:00","powerType":"全部","powerOffArea":"35kV溪东变:砚口D611线-觃口村1#上桥头公变跌落式熔断器后段","powerOffReason":"江南2019年山建村5#新区公变等台区低压线路改造工程；觃口村1#上桥头公变更换配电屏、更换低压进线电缆等工作","powerOffId":"2019061431010506"},{"poweroffId":2019061431010503,"sgpoweroffId":null,"subsName":"","lineName":"10kV常绿D268线","pubTranName":"黄弹村9#枫桐坞公变,","scope":"浙江省杭州市富阳区常绿镇（黄弹行政村寺前自然村3号,外黄弹自然村,枫铜坞自然村）一带","startTime":"2019-06-26 09:15:00","stopDate":"2019-06-26 15:15:00","orgNo":"3340170","typeCode":"计划停电","poweroffArea":"35kV盛村变:常绿D268线-黄弹村9#枫桐坞公变.后段","poweroffReason":"黄弹村9#枫桐坞公变200kVA配变增容至400kVA配变1台；更换配变附件，跌落式开关1组等工作。（带电拆、搭头）","powerTime":"2019-06-26 15:00:38","powerComm":"已送电","subsNo":"","lineNo":"","tgNo":"","tgName":null,"infoStatus":"1","orgName":"国网浙江杭州市富阳区供电公司","typeName":null,"infoStatusName":null,"dateDay":null,"orgNos":null,"nowTime":null,"countyName":null,"streetName":null,"villageName":null,"roadName":null,"communityName":null,"tranName":null,"sdLineName":null,"cityCode":"3340170","cityName":"国网浙江杭州市富阳区供电公司","provinceCode":null,"stopTime":"2019-06-26 15:15:00","powerType":"全部","powerOffArea":"35kV盛村变:常绿D268线-黄弹村9#枫桐坞公变.后段","powerOffReason":"黄弹村9#枫桐坞公变200kVA配变增容至400kVA配变1台；更换配变附件，跌落式开关1组等工作。（带电拆、搭头）","powerOffId":"2019061431010503"},{"poweroffId":2019061431010501,"sgpoweroffId":null,"subsName":"","lineName":"10kV昌东D701线","pubTranName":"昌东村昌东1#桃园新村公变,","scope":"浙江省杭州市富阳区永昌镇昌东行政村园新村自然村一带","startTime":"2019-06-26 07:30:00","stopDate":"2019-06-26 16:00:00","orgNo":"3340170","typeCode":"计划停电","poweroffArea":"110kV松溪变:10KV昌东D701线130#杆昌东分线3#杆昌东桃园支线","poweroffReason":"10KV昌东D701线130#杆昌东分线3#杆昌东桃园支线1#杆昌东村1#桃园新村公变照明01线、空置线路1、空置线路2、拆装进线电缆头YJV-4*240一组、更换配配电屏、拆除出线电缆VLV-4*120一路、敷设出线电缆YJV-4*150一路、落户线搭接18处","powerTime":"2019-06-26 15:06:16","powerComm":"已送电","subsNo":"","lineNo":"","tgNo":"","tgName":null,"infoStatus":"1","orgName":"国网浙江杭州市富阳区供电公司","typeName":null,"infoStatusName":null,"dateDay":null,"orgNos":null,"nowTime":null,"countyName":null,"streetName":null,"villageName":null,"roadName":null,"communityName":null,"tranName":null,"sdLineName":null,"cityCode":"3340170","cityName":"国网浙江杭州市富阳区供电公司","provinceCode":null,"stopTime":"2019-06-26 16:00:00","powerType":"全部","powerOffArea":"110kV松溪变:10KV昌东D701线130#杆昌东分线3#杆昌东桃园支线","powerOffReason":"10KV昌东D701线130#杆昌东分线3#杆昌东桃园支线1#杆昌东村1#桃园新村公变照明01线、空置线路1、空置线路2、拆装进线电缆头YJV-4*240一组、更换配配电屏、拆除出线电缆VLV-4*120一路、敷设出线电缆YJV-4*150一路、落户线搭接18处","powerOffId":"2019061431010501"},{"poweroffId":2019061431010495,"sgpoweroffId":null,"subsName":"","lineName":"10kV万兴D675线","pubTranName":"新联村4#园区公变,","scope":"浙江省杭州市-富阳区-春江街道(民主行政村-直塘自然村)一带;","startTime":"2019-06-26 08:00:00","stopDate":"2019-06-26 12:20:00","orgNo":"3340170","typeCode":"计划停电","poweroffArea":"110kV临江变:万兴D675线-新联村4#园区公变跌落式熔断器后段","poweroffReason":"江南2019年山建村5#新区公变等台区低压线路改造工程；新联村4#园区公变更换JP柜1组、更换低压进线电缆、拆装低压出线电缆等工作","powerTime":"2019-06-26 11:38:11","powerComm":"已送电","subsNo":"","lineNo":"","tgNo":"","tgName":null,"infoStatus":"1","orgName":"国网浙江杭州市富阳区供电公司","typeName":null,"infoStatusName":null,"dateDay":null,"orgNos":null,"nowTime":null,"countyName":null,"streetName":null,"villageName":null,"roadName":null,"communityName":null,"tranName":null,"sdLineName":null,"cityCode":"3340170","cityName":"国网浙江杭州市富阳区供电公司","provinceCode":null,"stopTime":"2019-06-26 12:20:00","powerType":"全部","powerOffArea":"110kV临江变:万兴D675线-新联村4#园区公变跌落式熔断器后段","powerOffReason":"江南2019年山建村5#新区公变等台区低压线路改造工程；新联村4#园区公变更换JP柜1组、更换低压进线电缆、拆装低压出线电缆等工作","powerOffId":"2019061431010495"},{"poweroffId":2019061431010486,"sgpoweroffId":null,"subsName":"","lineName":"10kV东村D501线","pubTranName":"五胜村4#干塘坞公变,五胜村1#倪家坞公变,东村坞1号村中公变,东村坞2号路边公变,","scope":"浙江省-杭州市-富阳区-常安镇(东村坞行政村-东村坞自然村,五胜村行政村-甘塘坞自然村、倪家坞自然村、汪家峧自然村);一带","startTime":"2019-06-26 08:30:00","stopDate":"2019-06-26 14:30:00","orgNo":"3340170","typeCode":"计划停电","poweroffArea":"110kV常安变:东村D501线-倪家坞分线后段","poweroffReason":"五胜村4#干塘坞公变增容至200kVA，更换跌落式开关1组，低压电缆1根等工作。","powerTime":"2019-06-26 14:15:30","powerComm":"已送电","subsNo":"","lineNo":"","tgNo":"","tgName":null,"infoStatus":"1","orgName":"国网浙江杭州市富阳区供电公司","typeName":null,"infoStatusName":null,"dateDay":null,"orgNos":null,"nowTime":null,"countyName":null,"streetName":null,"villageName":null,"roadName":null,"communityName":null,"tranName":null,"sdLineName":null,"cityCode":"3340170","cityName":"国网浙江杭州市富阳区供电公司","provinceCode":null,"stopTime":"2019-06-26 14:30:00","powerType":"全部","powerOffArea":"110kV常安变:东村D501线-倪家坞分线后段","powerOffReason":"五胜村4#干塘坞公变增容至200kVA，更换跌落式开关1组，低压电缆1根等工作。","powerOffId":"2019061431010486"},{"poweroffId":2019061431010483,"sgpoweroffId":null,"subsName":"","lineName":"10kV项家D512线","pubTranName":"小剡村1号上边公变,杭州富阳李荣富家庭农场有,礼门村2号下公变,小剡村2#小剡公变,项家村1#村中公变,杭州富阳永安旅游开发有限公司1#变,富阳永安旅游开发有限公司,礼门村1#上公变,","scope":"浙江省-杭州市-富阳区-常安镇(礼门行政村-礼门自然村,项家行政村-项家自然村,小剡行政村-前山园自然村、上边自然村、小剡村自然村);(杭州富阳李荣富家庭农场有限公司,杭州富阳永安旅游开发有限公司);一带","startTime":"2019-06-29 09:00:00","stopDate":"2019-06-29 17:00:00","orgNo":"3340170","typeCode":"计划停电","poweroffArea":"110kV常安变:项家D512线-礼门支线后段","poweroffReason":"礼门村1#上公变配变增容至400kVA，新立电杆3支，安装真空开关2台。2、架设导线4档，拆除导线25档。3、低压拆除导线2档，电缆上杆2处。4、拆除旧杆9支。","powerTime":"2019-06-29 16:29:20","powerComm":"已送电","subsNo":"","lineNo":"","tgNo":"","tgName":null,"infoStatus":"1","orgName":"国网浙江杭州市富阳区供电公司","typeName":null,"infoStatusName":null,"dateDay":null,"orgNos":null,"nowTime":null,"countyName":null,"streetName":null,"villageName":null,"roadName":null,"communityName":null,"tranName":null,"sdLineName":null,"cityCode":"3340170","cityName":"国网浙江杭州市富阳区供电公司","provinceCode":null,"stopTime":"2019-06-29 17:00:00","powerType":"全部","powerOffArea":"110kV常安变:项家D512线-礼门支线后段","powerOffReason":"礼门村1#上公变配变增容至400kVA，新立电杆3支，安装真空开关2台。2、架设导线4档，拆除导线25档。3、低压拆除导线2档，电缆上杆2处。4、拆除旧杆9支。","powerOffId":"2019061431010483"},{"poweroffId":2019061431010476,"sgpoweroffId":null,"subsName":"","lineName":"10kV双喜D383线","pubTranName":"景山村4号龙门头公变,景山村2号泥舍公变,","scope":"浙江省-杭州市-富阳区-常安镇(景山行政村-龙门头自然村、泥舍自然村)一带","startTime":"2019-06-29 09:00:00","stopDate":"2019-06-29 17:00:00","orgNo":"3340170","typeCode":"计划停电","poweroffArea":"35kV湖源变:双喜D383线-泥舍支线1后段","poweroffReason":"泥舍支线3#~4#之间立杆2支，安装杆上变1套，低压电缆安装1根。","powerTime":"2019-06-29 16:28:23","powerComm":"已送电","subsNo":"","lineNo":"","tgNo":"","tgName":null,"infoStatus":"1","orgName":"国网浙江杭州市富阳区供电公司","typeName":null,"infoStatusName":null,"dateDay":null,"orgNos":null,"nowTime":null,"countyName":null,"streetName":null,"villageName":null,"roadName":null,"communityName":null,"tranName":null,"sdLineName":null,"cityCode":"3340170","cityName":"国网浙江杭州市富阳区供电公司","provinceCode":null,"stopTime":"2019-06-29 17:00:00","powerType":"全部","powerOffArea":"35kV湖源变:双喜D383线-泥舍支线1后段","powerOffReason":"泥舍支线3#~4#之间立杆2支，安装杆上变1套，低压电缆安装1根。","powerOffId":"2019061431010476"},{"poweroffId":2019061431010457,"sgpoweroffId":null,"subsName":"","lineName":"10kV青何D731线","pubTranName":"民政村3#下许家公变,青何村民政2号产坞公变,青何村民政5#弯里公变,","scope":"浙江省杭州市富阳区永昌镇青何行政村民政产坞自然村、民政弯里自然村、民政下许家自然村一带","startTime":"2019-06-26 08:30:00","stopDate":"2019-06-26 16:30:00","orgNo":"3340170","typeCode":"计划停电","poweroffArea":"110kV松溪变:青何D731线194#杆蔡坞分线","poweroffReason":"蔡坞分线24#杆新出线路架设、立杆；青何新布点公变配变安装、青何村民政2#产坞公变与青何新布点公变低压割接、电缆搭头等工作","powerTime":"2019-06-26 15:47:01","powerComm":"已送电","subsNo":"","lineNo":"","tgNo":"","tgName":null,"infoStatus":"1","orgName":"国网浙江杭州市富阳区供电公司","typeName":null,"infoStatusName":null,"dateDay":null,"orgNos":null,"nowTime":null,"countyName":null,"streetName":null,"villageName":null,"roadName":null,"communityName":null,"tranName":null,"sdLineName":null,"cityCode":"3340170","cityName":"国网浙江杭州市富阳区供电公司","provinceCode":null,"stopTime":"2019-06-26 16:30:00","powerType":"全部","powerOffArea":"110kV松溪变:青何D731线194#杆蔡坞分线","powerOffReason":"蔡坞分线24#杆新出线路架设、立杆；青何新布点公变配变安装、青何村民政2#产坞公变与青何新布点公变低压割接、电缆搭头等工作","powerOffId":"2019061431010457"},{"poweroffId":2019061431010449,"sgpoweroffId":null,"subsName":"","lineName":"10kV新联D211线","pubTranName":"富阳海信光通器材有限公司,新桥村2#桥头公变,富阳市浩宇五金厂,富阳广成汽车有限公司,富阳富春江电缆材料厂,富阳市高桥金属制品有限公司,杭州东昌丰田汽车销售服务有限公司,杭州祥和实业有限公司汽车销售分公司,富阳市路灯安装维修管理所,浙江金火机床有限公司,杭州怡田工具制造有限公司,浙江逸畅通信技术有限公司,新桥6号桥东公变,杭州三普机械有限公司,","scope":"浙江省杭州市富阳区银湖街道新桥村一带","startTime":"2019-06-26 09:00:00","stopDate":"2019-06-26 16:00:00","orgNo":"3340170","typeCode":"计划停电","poweroffArea":"110kV银湖变:新联D211线-新联T接三线开关后段","poweroffReason":"2018年配网自动化改造工程：新联二号开关站整体轮换，电缆改接、CT安装，及DTU调试配合投运等工作","powerTime":"2019-06-26 15:45:24","powerComm":"已送电","subsNo":"","lineNo":"","tgNo":"","tgName":null,"infoStatus":"1","orgName":"国网浙江杭州市富阳区供电公司","typeName":null,"infoStatusName":null,"dateDay":null,"orgNos":null,"nowTime":null,"countyName":null,"streetName":null,"villageName":null,"roadName":null,"communityName":null,"tranName":null,"sdLineName":null,"cityCode":"3340170","cityName":"国网浙江杭州市富阳区供电公司","provinceCode":null,"stopTime":"2019-06-26 16:00:00","powerType":"全部","powerOffArea":"110kV银湖变:新联D211线-新联T接三线开关后段","powerOffReason":"2018年配网自动化改造工程：新联二号开关站整体轮换，电缆改接、CT安装，及DTU调试配合投运等工作","powerOffId":"2019061431010449"}],"pageModel":{"pageNow":1590,"totalCount":17789,"totalPage":1779,"tableRows":0,"pageCount":10,"beginCount":15890},"isExperi":"1"}