{"message":"","today":"2020-06-16","seleList":[{"poweroffId":2019061431010191,"sgpoweroffId":null,"subsName":"","lineName":"10kV西山D785线","pubTranName":"中兴村8号浦西浦西坞公变,","scope":"浙江省-杭州市-富阳区-环山乡(中兴行政村-浦西自然村)一带;","startTime":"2019-06-26 08:40:00","stopDate":"2019-06-26 16:40:00","orgNo":"3340170","typeCode":"计划停电","poweroffArea":"110kV王洲变:西山D785线-中兴村8号浦西浦西坞公变后段","poweroffReason":"中兴村8#浦西浦西坞公变接户线改接、做拉线等工作","powerTime":"2019-06-26 16:25:32","powerComm":"已送电","subsNo":"","lineNo":"","tgNo":"","tgName":null,"infoStatus":"1","orgName":"国网浙江杭州市富阳区供电公司","typeName":null,"infoStatusName":null,"dateDay":null,"orgNos":null,"nowTime":null,"countyName":null,"streetName":null,"villageName":null,"roadName":null,"communityName":null,"tranName":null,"sdLineName":null,"cityCode":"3340170","cityName":"国网浙江杭州市富阳区供电公司","provinceCode":null,"stopTime":"2019-06-26 16:40:00","powerType":"全部","powerOffArea":"110kV王洲变:西山D785线-中兴村8号浦西浦西坞公变后段","powerOffReason":"中兴村8#浦西浦西坞公变接户线改接、做拉线等工作","powerOffId":"2019061431010191"},{"poweroffId":2019061431010189,"sgpoweroffId":null,"subsName":"","lineName":"10kV常绿D268线","pubTranName":"北坞村3#庙外公变,","scope":"浙江省-杭州市-富阳区-常绿镇(北坞行政村-庙外自然村)一带;","startTime":"2019-06-25 08:30:00","stopDate":"2019-06-25 11:00:00","orgNo":"3340170","typeCode":"计划停电","poweroffArea":"35kV盛村变:常绿D268线-北坞村3号庙外公变后段","poweroffReason":"北坞村3#庙外公变用户接户线消缺","powerTime":"2019-06-25 10:45:28","powerComm":"已送电","subsNo":"","lineNo":"","tgNo":"","tgName":null,"infoStatus":"1","orgName":"国网浙江杭州市富阳区供电公司","typeName":null,"infoStatusName":null,"dateDay":null,"orgNos":null,"nowTime":null,"countyName":null,"streetName":null,"villageName":null,"roadName":null,"communityName":null,"tranName":null,"sdLineName":null,"cityCode":"3340170","cityName":"国网浙江杭州市富阳区供电公司","provinceCode":null,"stopTime":"2019-06-25 11:00:00","powerType":"全部","powerOffArea":"35kV盛村变:常绿D268线-北坞村3号庙外公变后段","powerOffReason":"北坞村3#庙外公变用户接户线消缺","powerOffId":"2019061431010189"},{"poweroffId":2019061431010188,"sgpoweroffId":null,"subsName":"","lineName":"10kV常绿D268线","pubTranName":"青龙村1号石棚公变,","scope":"浙江省-杭州市-富阳区-常绿镇(青龙行政村-石棚自然村)一带;","startTime":"2019-06-24 08:40:00","stopDate":"2019-06-24 16:40:00","orgNo":"3340170","typeCode":"计划停电","poweroffArea":"35kV盛村变:常绿D268线-青龙村1号石棚公变后段","poweroffReason":"青龙村1#石棚公变更换低压出线电缆、搭接等工作","powerTime":"2019-06-24 16:27:08","powerComm":"已送电","subsNo":"","lineNo":"","tgNo":"","tgName":null,"infoStatus":"1","orgName":"国网浙江杭州市富阳区供电公司","typeName":null,"infoStatusName":null,"dateDay":null,"orgNos":null,"nowTime":null,"countyName":null,"streetName":null,"villageName":null,"roadName":null,"communityName":null,"tranName":null,"sdLineName":null,"cityCode":"3340170","cityName":"国网浙江杭州市富阳区供电公司","provinceCode":null,"stopTime":"2019-06-24 16:40:00","powerType":"全部","powerOffArea":"35kV盛村变:常绿D268线-青龙村1号石棚公变后段","powerOffReason":"青龙村1#石棚公变更换低压出线电缆、搭接等工作","powerOffId":"2019061431010188"},{"poweroffId":2019061431010187,"sgpoweroffId":null,"subsName":"","lineName":"10kV上里D409线","pubTranName":"上叶村2#公变,","scope":"浙江省-杭州市-富阳区-鹿山街道(五四行政村-上叶自然村、五四自然村);","startTime":"2019-06-30 07:30:00","stopDate":"2019-06-30 16:50:00","orgNo":"3340170","typeCode":"计划停电","poweroffArea":"110kV长春变:上里D409线-上叶村2号公变后段","poweroffReason":"青云2019年新新村3#毛家台公变等低压台区改造工程拆架1kV120*4*7档，拆架1kV70*4*1档，更换落户线4处，搭接等工作","powerTime":"2019-06-30 16:35:43","powerComm":"已送电","subsNo":"","lineNo":"","tgNo":"","tgName":null,"infoStatus":"1","orgName":"国网浙江杭州市富阳区供电公司","typeName":null,"infoStatusName":null,"dateDay":null,"orgNos":null,"nowTime":null,"countyName":null,"streetName":null,"villageName":null,"roadName":null,"communityName":null,"tranName":null,"sdLineName":null,"cityCode":"3340170","cityName":"国网浙江杭州市富阳区供电公司","provinceCode":null,"stopTime":"2019-06-30 16:50:00","powerType":"全部","powerOffArea":"110kV长春变:上里D409线-上叶村2号公变后段","powerOffReason":"青云2019年新新村3#毛家台公变等低压台区改造工程拆架1kV120*4*7档，拆架1kV70*4*1档，更换落户线4处，搭接等工作","powerOffId":"2019061431010187"},{"poweroffId":2019061431010185,"sgpoweroffId":null,"subsName":"","lineName":"10kV昌东D701线","pubTranName":"昌东村昌东2#打牌岭公变,","scope":"浙江省杭州市富阳区新登镇昌东行政村打牌岭自然村一带","startTime":"2019-06-29 07:30:00","stopDate":"2019-06-29 17:00:00","orgNo":"3340170","typeCode":"计划停电","poweroffArea":"110kV松溪变:昌东D701线-昌东村昌东2#打牌岭公变后段","poweroffReason":"01线、02线、03线更换接户线21户，搭接15处、安装墙架21户、更换拉线5组、拆除JKLYJ-35*4*2档、架设JKLYJ-70*4*2档、新放3路VJV-0.611-4*150*90米、拆除3路铝电缆VLV-4*120*80米（旁站监理）","powerTime":"2019-06-29 16:33:01","powerComm":"已送电","subsNo":"","lineNo":"","tgNo":"","tgName":null,"infoStatus":"1","orgName":"国网浙江杭州市富阳区供电公司","typeName":null,"infoStatusName":null,"dateDay":null,"orgNos":null,"nowTime":null,"countyName":null,"streetName":null,"villageName":null,"roadName":null,"communityName":null,"tranName":null,"sdLineName":null,"cityCode":"3340170","cityName":"国网浙江杭州市富阳区供电公司","provinceCode":null,"stopTime":"2019-06-29 17:00:00","powerType":"全部","powerOffArea":"110kV松溪变:昌东D701线-昌东村昌东2#打牌岭公变后段","powerOffReason":"01线、02线、03线更换接户线21户，搭接15处、安装墙架21户、更换拉线5组、拆除JKLYJ-35*4*2档、架设JKLYJ-70*4*2档、新放3路VJV-0.611-4*150*90米、拆除3路铝电缆VLV-4*120*80米（旁站监理）","powerOffId":"2019061431010185"},{"poweroffId":2019061431010183,"sgpoweroffId":null,"subsName":"","lineName":"10kV中秋D223线","pubTranName":"新常村1#野坞口公变,","scope":"浙江省-杭州市-富阳区-银湖街道新常村野坞口自然村一带","startTime":"2019-06-29 07:30:00","stopDate":"2019-06-29 16:50:00","orgNo":"3340170","typeCode":"计划停电","poweroffArea":"110kV银湖变:中秋D223线-新常村1#野坞口公变低压开关后段","poweroffReason":"迎东2019年千家村1#村中公变等低压台区改造工程拆旧，架设1kV120*4*2档，架设BS-4*35*5档，更换落户线20处，拆架1kV120*4*1档，搭接等工作","powerTime":"2019-06-29 16:27:46","powerComm":"已送电","subsNo":"","lineNo":"","tgNo":"","tgName":null,"infoStatus":"1","orgName":"国网浙江杭州市富阳区供电公司","typeName":null,"infoStatusName":null,"dateDay":null,"orgNos":null,"nowTime":null,"countyName":null,"streetName":null,"villageName":null,"roadName":null,"communityName":null,"tranName":null,"sdLineName":null,"cityCode":"3340170","cityName":"国网浙江杭州市富阳区供电公司","provinceCode":null,"stopTime":"2019-06-29 16:50:00","powerType":"全部","powerOffArea":"110kV银湖变:中秋D223线-新常村1#野坞口公变低压开关后段","powerOffReason":"迎东2019年千家村1#村中公变等低压台区改造工程拆旧，架设1kV120*4*2档，架设BS-4*35*5档，更换落户线20处，拆架1kV120*4*1档，搭接等工作","powerOffId":"2019061431010183"},{"poweroffId":2019061431010180,"sgpoweroffId":null,"subsName":"","lineName":"10kV程坟D832线","pubTranName":"蛇浦村1号桥头公变,","scope":"浙江省杭州市富阳区新桐乡程浦村（蛇浦自然村桥头路）","startTime":"2019-06-28 07:30:00","stopDate":"2019-06-28 16:50:00","orgNo":"3340170","typeCode":"计划停电","poweroffArea":"110kV新桐变:程坟D832线-蛇浦村1号桥头公变后段","poweroffReason":"青云2019年新新村3#毛家台公变等低压台区改造工程架设BS-35*4*3档，架设1kV120*4*4档，搭接等工作","powerTime":"2019-06-28 16:36:49","powerComm":"已送电","subsNo":"","lineNo":"","tgNo":"","tgName":null,"infoStatus":"1","orgName":"国网浙江杭州市富阳区供电公司","typeName":null,"infoStatusName":null,"dateDay":null,"orgNos":null,"nowTime":null,"countyName":null,"streetName":null,"villageName":null,"roadName":null,"communityName":null,"tranName":null,"sdLineName":null,"cityCode":"3340170","cityName":"国网浙江杭州市富阳区供电公司","provinceCode":null,"stopTime":"2019-06-28 16:50:00","powerType":"全部","powerOffArea":"110kV新桐变:程坟D832线-蛇浦村1号桥头公变后段","powerOffReason":"青云2019年新新村3#毛家台公变等低压台区改造工程架设BS-35*4*3档，架设1kV120*4*4档，搭接等工作","powerOffId":"2019061431010180"},{"poweroffId":2019061431010177,"sgpoweroffId":null,"subsName":"","lineName":"10kV张家D421线","pubTranName":"陆家浦4#前埭路公变,","scope":"浙江省-杭州市-富阳区-东洲街道(陆家浦行政村-陆家浦自然村);","startTime":"2019-06-28 07:30:00","stopDate":"2019-06-28 13:30:00","orgNo":"3340170","typeCode":"计划停电","poweroffArea":"110kV东洲变:张家D421线-陆家浦4#前埭路公变台区低压开关后段","poweroffReason":"迎东2019年五丰村13#大机埠公变等低压线路改造工程新架JKLYJ4*120*1档，新架YJV22-4*150出线电缆1路，搭接等工作。","powerTime":"2019-06-28 13:16:05","powerComm":"已送电","subsNo":"","lineNo":"","tgNo":"","tgName":null,"infoStatus":"1","orgName":"国网浙江杭州市富阳区供电公司","typeName":null,"infoStatusName":null,"dateDay":null,"orgNos":null,"nowTime":null,"countyName":null,"streetName":null,"villageName":null,"roadName":null,"communityName":null,"tranName":null,"sdLineName":null,"cityCode":"3340170","cityName":"国网浙江杭州市富阳区供电公司","provinceCode":null,"stopTime":"2019-06-28 13:30:00","powerType":"全部","powerOffArea":"110kV东洲变:张家D421线-陆家浦4#前埭路公变台区低压开关后段","powerOffReason":"迎东2019年五丰村13#大机埠公变等低压线路改造工程新架JKLYJ4*120*1档，新架YJV22-4*150出线电缆1路，搭接等工作。","powerOffId":"2019061431010177"},{"poweroffId":2019061431010175,"sgpoweroffId":null,"subsName":"","lineName":"10kV笼山D252线","pubTranName":"民丰村1#六十亩公变,","scope":"浙江省-杭州市-富阳区-东洲街道(鸡笼山行政村-民丰自然村);","startTime":"2019-06-27 07:30:00","stopDate":"2019-06-27 17:00:00","orgNo":"3340170","typeCode":"计划停电","poweroffArea":"110kV白鹤变:笼山D252线-民丰村1#六十亩公变台区低压开关后段","poweroffReason":"迎东2019年五丰村13#大机埠公变等低压线路改造工程安装横担10组，拉线3组，拆旧8档，新架JKLYJ4*120*8档，搭接等工作。","powerTime":"2019-06-27 16:45:08","powerComm":"已送电","subsNo":"","lineNo":"","tgNo":"","tgName":null,"infoStatus":"1","orgName":"国网浙江杭州市富阳区供电公司","typeName":null,"infoStatusName":null,"dateDay":null,"orgNos":null,"nowTime":null,"countyName":null,"streetName":null,"villageName":null,"roadName":null,"communityName":null,"tranName":null,"sdLineName":null,"cityCode":"3340170","cityName":"国网浙江杭州市富阳区供电公司","provinceCode":null,"stopTime":"2019-06-27 17:00:00","powerType":"全部","powerOffArea":"110kV白鹤变:笼山D252线-民丰村1#六十亩公变台区低压开关后段","powerOffReason":"迎东2019年五丰村13#大机埠公变等低压线路改造工程安装横担10组，拉线3组，拆旧8档，新架JKLYJ4*120*8档，搭接等工作。","powerOffId":"2019061431010175"},{"poweroffId":2019061431010174,"sgpoweroffId":null,"subsName":"","lineName":"10kV逸城D251线","pubTranName":"泉水湾25号公变,","scope":"浙江省-杭州市-富阳区-东洲街道万科公望小区一带","startTime":"2019-06-26 13:30:00","stopDate":"2019-06-26 17:10:00","orgNo":"3340170","typeCode":"计划停电","poweroffArea":"110kV白鹤变:逸城D251线-泉水湾25号公变台区低压开关后段","poweroffReason":"敷设电缆，安装T接箱1只，动力表箱1只，搭接等工作","powerTime":"2019-06-26 16:59:06","powerComm":"已送电","subsNo":"","lineNo":"","tgNo":"","tgName":null,"infoStatus":"1","orgName":"国网浙江杭州市富阳区供电公司","typeName":null,"infoStatusName":null,"dateDay":null,"orgNos":null,"nowTime":null,"countyName":null,"streetName":null,"villageName":null,"roadName":null,"communityName":null,"tranName":null,"sdLineName":null,"cityCode":"3340170","cityName":"国网浙江杭州市富阳区供电公司","provinceCode":null,"stopTime":"2019-06-26 17:10:00","powerType":"全部","powerOffArea":"110kV白鹤变:逸城D251线-泉水湾25号公变台区低压开关后段","powerOffReason":"敷设电缆，安装T接箱1只，动力表箱1只，搭接等工作","powerOffId":"2019061431010174"}],"pageModel":{"pageNow":1595,"totalCount":17789,"totalPage":1779,"tableRows":0,"pageCount":10,"beginCount":15940},"isExperi":"1"}