{"message":"","today":"2020-06-15","seleList":[{"poweroffId":2020051531020715,"sgpoweroffId":null,"subsName":"","lineName":"10kV深澳251线","pubTranName":"青源村3号公变,桐庐深达箱包有限公司,","scope":"浙江省-杭州市-桐庐县-江南镇-青源行政村-青源自然村;","startTime":"2020-05-26 08:30:00","stopDate":"2020-05-26 11:00:00","orgNo":"3340150","typeCode":"计划停电","poweroffArea":"110kV石阜变:深澳251线-青源F4055后段","poweroffReason":"杭州桐庐江南西坞村等台区配变及线路改造工程 原停电结束时间为2020-05-26 13:30:00,为减少客户停电时间,加快工作进度,提前送电,现变更停电结束时间为2020-05-26 11:00:00","powerTime":"2020-05-26 10:39:44","powerComm":"已送电","subsNo":"","lineNo":"","tgNo":"","tgName":null,"infoStatus":"1","orgName":"国网浙江桐庐县供电公司","typeName":null,"infoStatusName":null,"dateDay":null,"orgNos":null,"nowTime":null,"countyName":null,"streetName":null,"villageName":null,"roadName":null,"communityName":null,"tranName":null,"sdLineName":null,"cityCode":"3340150","cityName":"国网浙江桐庐县供电公司","provinceCode":null,"stopTime":"2020-05-26 11:00:00","powerType":"全部","powerOffArea":"110kV石阜变:深澳251线-青源F4055后段","powerOffReason":"杭州桐庐江南西坞村等台区配变及线路改造工程 原停电结束时间为2020-05-26 13:30:00,为减少客户停电时间,加快工作进度,提前送电,现变更停电结束时间为2020-05-26 11:00:00","powerOffId":"2020051531020715"},{"poweroffId":2020051531020714,"sgpoweroffId":null,"subsName":"","lineName":"10kV双喜D383线","pubTranName":"双喜村7#下中溪公变,","scope":"浙江省-杭州市-富阳区-湖源乡-双喜行政村(下中溪自然村,上中溪自然村,梅洲自然村)一带","startTime":"2020-05-25 08:30:00","stopDate":"2020-05-25 09:15:00","orgNo":"3340170","typeCode":"计划停电","poweroffArea":"35kV湖源变:双喜D383线-双喜村7#下中溪公变后段","poweroffReason":"双喜383线32#杆下中溪分线1#杆双喜村7#下中溪公变拆除0.4kv电缆并搭接于T接箱出线侧等工作。","powerTime":"2020-05-25 09:07:16","powerComm":"已送电","subsNo":"","lineNo":"","tgNo":"","tgName":null,"infoStatus":"1","orgName":"国网浙江杭州市富阳区供电公司","typeName":null,"infoStatusName":null,"dateDay":null,"orgNos":null,"nowTime":null,"countyName":null,"streetName":null,"villageName":null,"roadName":null,"communityName":null,"tranName":null,"sdLineName":null,"cityCode":"3340170","cityName":"国网浙江杭州市富阳区供电公司","provinceCode":null,"stopTime":"2020-05-25 09:15:00","powerType":"全部","powerOffArea":"35kV湖源变:双喜D383线-双喜村7#下中溪公变后段","powerOffReason":"双喜383线32#杆下中溪分线1#杆双喜村7#下中溪公变拆除0.4kv电缆并搭接于T接箱出线侧等工作。","powerOffId":"2020051531020714"},{"poweroffId":2020051531020711,"sgpoweroffId":null,"subsName":"","lineName":"10kV双喜D383线","pubTranName":"双喜村8号下溪公变,","scope":"浙江省-杭州市-富阳区-湖源乡-双喜行政村(下溪自然村,下中溪自然村)一带","startTime":"2020-05-25 08:30:00","stopDate":"2020-05-25 09:15:00","orgNo":"3340170","typeCode":"计划停电","poweroffArea":"35kV湖源变:双喜D383线-双喜村8#下溪公变后段","poweroffReason":"双喜383线28#杆下溪分线2#杆双喜村8#下溪公变拆除0.4kv电缆并搭接于T接箱出线侧等工作。","powerTime":"2020-05-25 09:07:06","powerComm":"已送电","subsNo":"","lineNo":"","tgNo":"","tgName":null,"infoStatus":"1","orgName":"国网浙江杭州市富阳区供电公司","typeName":null,"infoStatusName":null,"dateDay":null,"orgNos":null,"nowTime":null,"countyName":null,"streetName":null,"villageName":null,"roadName":null,"communityName":null,"tranName":null,"sdLineName":null,"cityCode":"3340170","cityName":"国网浙江杭州市富阳区供电公司","provinceCode":null,"stopTime":"2020-05-25 09:15:00","powerType":"全部","powerOffArea":"35kV湖源变:双喜D383线-双喜村8#下溪公变后段","powerOffReason":"双喜383线28#杆下溪分线2#杆双喜村8#下溪公变拆除0.4kv电缆并搭接于T接箱出线侧等工作。","powerOffId":"2020051531020711"},{"poweroffId":2020051531020710,"sgpoweroffId":null,"subsName":"","lineName":"10kV深澳251线","pubTranName":"青源村1号公变,","scope":"浙江省-杭州市-桐庐县-江南镇-青源行政村-青源自然村","startTime":"2020-05-25 08:30:00","stopDate":"2020-05-25 13:30:00","orgNo":"3340150","typeCode":"计划停电","poweroffArea":"110kV石阜变:深澳251线-青源村1号公变10kV跌落式熔断器后段","poweroffReason":"杭州桐庐江南西坞村等台区配变及线路改造工程","powerTime":"2020-05-25 13:10:54","powerComm":"已送电","subsNo":"","lineNo":"","tgNo":"","tgName":null,"infoStatus":"1","orgName":"国网浙江桐庐县供电公司","typeName":null,"infoStatusName":null,"dateDay":null,"orgNos":null,"nowTime":null,"countyName":null,"streetName":null,"villageName":null,"roadName":null,"communityName":null,"tranName":null,"sdLineName":null,"cityCode":"3340150","cityName":"国网浙江桐庐县供电公司","provinceCode":null,"stopTime":"2020-05-25 13:30:00","powerType":"全部","powerOffArea":"110kV石阜变:深澳251线-青源村1号公变10kV跌落式熔断器后段","powerOffReason":"杭州桐庐江南西坞村等台区配变及线路改造工程","powerOffId":"2020051531020710"},{"poweroffId":2020051531020677,"sgpoweroffId":null,"subsName":"","lineName":"10kV砚口D611线","pubTranName":"居仁村3#杨坞公变,","scope":"浙江省-杭州市-富阳区-大源镇-青山行政村-居仁自然村一带","startTime":"2020-05-26 08:00:00","stopDate":"2020-05-26 17:00:00","orgNo":"3340170","typeCode":"计划停电","poweroffArea":"35kV溪东变:砚口D611线-居仁分线53#杆开关后段","poweroffReason":"青山村四好农村公路线路迁改（居仁）工程：新立15米杆3支，导线移位3档，拆除旧杆2支，线路拆、搭头等工作。 原停电结束时间为2020-05-26 16:30:00,因政策原因,延迟送电,现变更停电结束时间为2020-05-26 17:00:00","powerTime":"2020-05-26 16:50:38","powerComm":"已送电","subsNo":"","lineNo":"","tgNo":"","tgName":null,"infoStatus":"1","orgName":"国网浙江杭州市富阳区供电公司","typeName":null,"infoStatusName":null,"dateDay":null,"orgNos":null,"nowTime":null,"countyName":null,"streetName":null,"villageName":null,"roadName":null,"communityName":null,"tranName":null,"sdLineName":null,"cityCode":"3340170","cityName":"国网浙江杭州市富阳区供电公司","provinceCode":null,"stopTime":"2020-05-26 17:00:00","powerType":"全部","powerOffArea":"35kV溪东变:砚口D611线-居仁分线53#杆开关后段","powerOffReason":"青山村四好农村公路线路迁改（居仁）工程：新立15米杆3支，导线移位3档，拆除旧杆2支，线路拆、搭头等工作。 原停电结束时间为2020-05-26 16:30:00,因政策原因,延迟送电,现变更停电结束时间为2020-05-26 17:00:00","powerOffId":"2020051531020677"},{"poweroffId":2020051531020670,"sgpoweroffId":null,"subsName":"","lineName":"10kV灵桥D167线","pubTranName":"董家桥村联合3#汤家公变,","scope":"浙江省-杭州市-富阳区-灵桥镇-董家桥行政村(联合自然村,董家桥自然村)一带","startTime":"2020-05-26 08:45:00","stopDate":"2020-05-26 11:45:00","orgNo":"3340170","typeCode":"计划停电","poweroffArea":"110kV大源变:灵桥D167线-10kV灵桥D167线董家桥汤家3#支线开关后段","poweroffReason":"江南2019年勤俭村1#村中公变等台区0.4kv线路改造工程；10KV灵桥D167线31#杆董家分线11#杆董家桥汤家3#支线1#杆、董家桥村联合3#汤家公变、更换JB柜一组、装进线电缆24米、拆装出线电缆等工作","powerTime":"2020-05-26 11:32:11","powerComm":"已送电","subsNo":"","lineNo":"","tgNo":"","tgName":null,"infoStatus":"1","orgName":"国网浙江杭州市富阳区供电公司","typeName":null,"infoStatusName":null,"dateDay":null,"orgNos":null,"nowTime":null,"countyName":null,"streetName":null,"villageName":null,"roadName":null,"communityName":null,"tranName":null,"sdLineName":null,"cityCode":"3340170","cityName":"国网浙江杭州市富阳区供电公司","provinceCode":null,"stopTime":"2020-05-26 11:45:00","powerType":"全部","powerOffArea":"110kV大源变:灵桥D167线-10kV灵桥D167线董家桥汤家3#支线开关后段","powerOffReason":"江南2019年勤俭村1#村中公变等台区0.4kv线路改造工程；10KV灵桥D167线31#杆董家分线11#杆董家桥汤家3#支线1#杆、董家桥村联合3#汤家公变、更换JB柜一组、装进线电缆24米、拆装出线电缆等工作","powerOffId":"2020051531020670"},{"poweroffId":2020051531020643,"sgpoweroffId":null,"subsName":"","lineName":"10kV宝地H609线","pubTranName":"亲和力餐饮,中石油,盐业公司,余杭中心卫生院,余杭自来水厂,","scope":"浙江省-杭州市-余杭区-余杭街道-凤联社区(杭州丰鑫酒店管理有限公司,杭州市余杭区余杭镇社区卫生服务中心,杭州市盐业有限公司余杭分公司,杭州中油石油天然气销售有限公司,杭州余杭未来科技城供排水有限公司)","startTime":"2020-05-15 15:41:00","stopDate":"2020-05-15 17:30:00","orgNo":"3340140","typeCode":"电网故障停限电","poweroffArea":"110kV桃源变:宝地H609线-中石油分线后段","poweroffReason":"高压开关跳闸","powerTime":"2020-05-15 16:41:00","powerComm":"已送电","subsNo":"","lineNo":"","tgNo":"","tgName":null,"infoStatus":"1","orgName":"国网浙江杭州市余杭区供电有限公司","typeName":null,"infoStatusName":null,"dateDay":null,"orgNos":null,"nowTime":null,"countyName":null,"streetName":null,"villageName":null,"roadName":null,"communityName":null,"tranName":null,"sdLineName":null,"cityCode":"3340140","cityName":"国网浙江杭州市余杭区供电有限公司","provinceCode":null,"stopTime":"2020-05-15 17:30:00","powerType":"全部","powerOffArea":"110kV桃源变:宝地H609线-中石油分线后段","powerOffReason":"高压开关跳闸","powerOffId":"2020051531020643"},{"poweroffId":2020051531020622,"sgpoweroffId":null,"subsName":"","lineName":"10kV唐村R173线","pubTranName":"威坪所长岭村阴面公变,长岭村横川公变,","scope":"浙江省-杭州市-淳安县-威坪镇(西山行政村-西山自然村,长岭行政村-横川自然村)","startTime":"2020-05-27 08:00:00","stopDate":"2020-05-27 13:00:00","orgNo":"3340190","typeCode":"计划停电","poweroffArea":"110kV虹桥变:唐村R173线-横川村支线跌落式熔断器后段","poweroffReason":"唐村R173线横川支线0号杆带电装三遥开关","powerTime":"2020-05-27 12:45:42","powerComm":"已送电","subsNo":"","lineNo":"","tgNo":"","tgName":null,"infoStatus":"1","orgName":"国网浙江淳安县供电有限公司","typeName":null,"infoStatusName":null,"dateDay":null,"orgNos":null,"nowTime":null,"countyName":null,"streetName":null,"villageName":null,"roadName":null,"communityName":null,"tranName":null,"sdLineName":null,"cityCode":"3340190","cityName":"国网浙江淳安县供电有限公司","provinceCode":null,"stopTime":"2020-05-27 13:00:00","powerType":"全部","powerOffArea":"110kV虹桥变:唐村R173线-横川村支线跌落式熔断器后段","powerOffReason":"唐村R173线横川支线0号杆带电装三遥开关","powerOffId":"2020051531020622"},{"poweroffId":2020051531020621,"sgpoweroffId":null,"subsName":"","lineName":"10kV严家R421线","pubTranName":"横路村水竹坞1#配变,","scope":"浙江省-杭州市-淳安县-王阜乡-横路行政村(毕家源自然村,水竹坞自然村)","startTime":"2020-05-26 07:00:00","stopDate":"2020-05-26 13:00:00","orgNo":"3340190","typeCode":"计划停电","poweroffArea":"35kV王阜变:严家R421线-水竹坞1#公变跌落式熔断器后段","poweroffReason":"水竹坞1号公变增容配电柜及进出线电缆更换","powerTime":"2020-05-26 14:48:24","powerComm":"已送电","subsNo":"","lineNo":"","tgNo":"","tgName":null,"infoStatus":"1","orgName":"国网浙江淳安县供电有限公司","typeName":null,"infoStatusName":null,"dateDay":null,"orgNos":null,"nowTime":null,"countyName":null,"streetName":null,"villageName":null,"roadName":null,"communityName":null,"tranName":null,"sdLineName":null,"cityCode":"3340190","cityName":"国网浙江淳安县供电有限公司","provinceCode":null,"stopTime":"2020-05-26 13:00:00","powerType":"全部","powerOffArea":"35kV王阜变:严家R421线-水竹坞1#公变跌落式熔断器后段","powerOffReason":"水竹坞1号公变增容配电柜及进出线电缆更换","powerOffId":"2020051531020621"},{"poweroffId":2020051531020619,"sgpoweroffId":null,"subsName":"","lineName":"10kV宫前D603线","pubTranName":"蒋家村10#苦竹园公变,大源镇蒋家村东方3#祠堂公变,蒋家村17号水库山脚公变,蒋家村2#桥头公变,蒋家村蒋家5#五圣堂公变,蒋家村11#桥东村委公变,蒋家村蒋家3#池塘坞公变,蒋家村东方1号东方公变,富阳市东山寺,富阳市金旺纸业有限公司,蒋家村9#东方凤山公变,蒋家村14#东坑水库公变,天津城建集团有限公司拌和站5号基建变,蒋家村15号老虎头公变,蒋家村16号黄泥潭公变,蒋家村12#后田畈公变,蒋家村蒋家1#玻纤公变,天津城建集团有限公司宫前自然村拌和站2号变,天津城建集团有限公司拌和站6号基建变,蒋家村蒋家6#新区公变,杭州市公安局富阳区分局1#基建变,蒋家村蒋家8#红砖厂公变,蒋家村蒋家7#对门公变,蒋家村东方4号新区公变,蒋家村13#红砖厂新区公变,东方村2号杨子坊公变,","scope":"浙江省-杭州市-富阳区-大源镇-蒋家行政村(东方自然村,蒋家自然村,蒋家村对门自然村)一带；","startTime":"2020-05-18 18:30:00","stopDate":"2020-05-18 19:00:00","orgNo":"3340170","typeCode":"临时停电","poweroffArea":"35kV溪东变:宫前D603线-宫前D6035开关后段","poweroffReason":"短时停电倒负荷 原停电结束时间为2020-05-18 18:30:00,因政策原因,延迟送电,现变更停电结束时间为2020-05-18 19:00:00","powerTime":"2020-05-18 18:51:41","powerComm":"已送电","subsNo":"","lineNo":"","tgNo":"","tgName":null,"infoStatus":"1","orgName":"国网浙江杭州市富阳区供电公司","typeName":null,"infoStatusName":null,"dateDay":null,"orgNos":null,"nowTime":null,"countyName":null,"streetName":null,"villageName":null,"roadName":null,"communityName":null,"tranName":null,"sdLineName":null,"cityCode":"3340170","cityName":"国网浙江杭州市富阳区供电公司","provinceCode":null,"stopTime":"2020-05-18 19:00:00","powerType":"全部","powerOffArea":"35kV溪东变:宫前D603线-宫前D6035开关后段","powerOffReason":"短时停电倒负荷 原停电结束时间为2020-05-18 18:30:00,因政策原因,延迟送电,现变更停电结束时间为2020-05-18 19:00:00","powerOffId":"2020051531020619"}],"pageModel":{"pageNow":161,"totalCount":17788,"totalPage":1779,"tableRows":0,"pageCount":10,"beginCount":1600},"isExperi":"1"}