{"message":"","today":"2020-06-16","seleList":[{"poweroffId":2019061031020057,"sgpoweroffId":null,"subsName":"","lineName":"10kV三元A460线","pubTranName":"浙江三元电子科技有限公司,杭州新生印染有限公司1#,杭州新生印染有限公司2#,","scope":"浙江省-杭州市-萧山区-党湾镇-镇中行政村(杭州新生印染有限公司,浙江三元电子科技有限公司)","startTime":"2019-06-23 08:45:00","stopDate":"2019-06-23 16:45:00","orgNo":"3340130","typeCode":"计划停电","poweroffArea":"110kV幸福变:三元A460线-三元A460线开关后段","poweroffReason":"配合杭州萧山污水处理有限公司开展党印、三元、庆丰线下方污水管更换消缺处理工作","powerTime":"2019-06-23 16:28:32","powerComm":"已送电","subsNo":"","lineNo":"","tgNo":"","tgName":null,"infoStatus":"1","orgName":"国网浙江杭州市萧山区供电有限公司","typeName":null,"infoStatusName":null,"dateDay":null,"orgNos":null,"nowTime":null,"countyName":null,"streetName":null,"villageName":null,"roadName":null,"communityName":null,"tranName":null,"sdLineName":null,"cityCode":"3340130","cityName":"国网浙江杭州市萧山区供电有限公司","provinceCode":null,"stopTime":"2019-06-23 16:45:00","powerType":"全部","powerOffArea":"110kV幸福变:三元A460线-三元A460线开关后段","powerOffReason":"配合杭州萧山污水处理有限公司开展党印、三元、庆丰线下方污水管更换消缺处理工作","powerOffId":"2019061031020057"},{"poweroffId":2019061031020056,"sgpoweroffId":null,"subsName":"","lineName":"10kV庆丰A459线","pubTranName":"庆丰村4#变,永安村13#变,萧山区党湾镇第一小学,杭州东丘针织有限公司配变,永安村10#变,永安村11#变,永安村9#变,梅东村14#变,杭州萧山污水处理有限公司7#,梅东村6#变,永安村12#变,","scope":"浙江省-杭州市-萧山区-党湾镇-永安行政村(永安自然村,新农村),党湾镇(梅东行政村-梅东自然村,庆丰行政村-庆丰自然村);浙江省-杭州市-萧山区-党湾镇-庆丰行政村-萧山区党湾镇第一小学,党湾镇-永安行政村(杭州萧山污水处理有限公司,杭州中宸纺织有限公司)","startTime":"2019-06-23 08:45:00","stopDate":"2019-06-23 16:45:00","orgNo":"3340130","typeCode":"计划停电","poweroffArea":"110kV幸福变:庆丰A459线-庆丰A459线永安分线开关（自）后段","poweroffReason":"配合杭州萧山污水处理有限公司开展党印、三元、庆丰线下方污水管更换消缺处理工作","powerTime":"2019-06-23 16:28:57","powerComm":"已送电","subsNo":"","lineNo":"","tgNo":"","tgName":null,"infoStatus":"1","orgName":"国网浙江杭州市萧山区供电有限公司","typeName":null,"infoStatusName":null,"dateDay":null,"orgNos":null,"nowTime":null,"countyName":null,"streetName":null,"villageName":null,"roadName":null,"communityName":null,"tranName":null,"sdLineName":null,"cityCode":"3340130","cityName":"国网浙江杭州市萧山区供电有限公司","provinceCode":null,"stopTime":"2019-06-23 16:45:00","powerType":"全部","powerOffArea":"110kV幸福变:庆丰A459线-庆丰A459线永安分线开关（自）后段","powerOffReason":"配合杭州萧山污水处理有限公司开展党印、三元、庆丰线下方污水管更换消缺处理工作","powerOffId":"2019061031020056"},{"poweroffId":2019061031020055,"sgpoweroffId":null,"subsName":"","lineName":"10kV鱼青A091线","pubTranName":"杭州合丰机械有限公司,杭州柳莎空气净化设备技术有限公司,杭州宽科实业有限公司,杭州宝泓钢材加工有限公司,沙田头村12#变,杭州环华包装制品有限公司,张神殿村5#变,杭州品鑫食品贸易有限公司,","scope":"浙江省-杭州市-萧山区-瓜沥镇(张神殿行政村-北塘东路,沙田头行政村-沙田头自然村);瓜沥镇-沙田头行政村(杭州宽科实业有限公司,杭州宝泓钢材加工有限公司,杭州柳莎空气净化设备技术有限公司,杭州合丰机械有限公司,杭州环华包装制品有限公司,杭州品鑫食品贸易有限公司)","startTime":"2019-06-22 08:45:00","stopDate":"2019-06-22 12:45:00","orgNo":"3340130","typeCode":"计划停电","poweroffArea":"110kV航坞变:鱼青A091线-张神分线后段","poweroffReason":"鱼青A091线临港开张神分线13#杆张神殿村5#变下160kVA上400kVA","powerTime":"2019-06-22 12:15:56","powerComm":"已送电","subsNo":"","lineNo":"","tgNo":"","tgName":null,"infoStatus":"1","orgName":"国网浙江杭州市萧山区供电有限公司","typeName":null,"infoStatusName":null,"dateDay":null,"orgNos":null,"nowTime":null,"countyName":null,"streetName":null,"villageName":null,"roadName":null,"communityName":null,"tranName":null,"sdLineName":null,"cityCode":"3340130","cityName":"国网浙江杭州市萧山区供电有限公司","provinceCode":null,"stopTime":"2019-06-22 12:45:00","powerType":"全部","powerOffArea":"110kV航坞变:鱼青A091线-张神分线后段","powerOffReason":"鱼青A091线临港开张神分线13#杆张神殿村5#变下160kVA上400kVA","powerOffId":"2019061031020055"},{"poweroffId":2019061031020036,"sgpoweroffId":null,"subsName":"","lineName":"10kV羊山H530线","pubTranName":"瓶窑社区羊山四组公变,大观山村西杨家村公变,兴龙,加油站,华达,高迪机械611101510601#专变,","scope":"浙江省杭州市余杭区瓶窑镇：大观山村西杨家村公变、高迪机械公司、华达公司、兴龙公司、瓶窑社区羊山四组公变、加油站一带","startTime":"2019-06-17 08:40:00","stopDate":"2019-06-17 16:40:00","orgNo":"3340140","typeCode":"临时停电","poweroffArea":"羊山H530线百达房产分线","poweroffReason":"业扩工程：百达房产分线上改下工作","powerTime":"2019-06-17 16:36:46","powerComm":"已送电","subsNo":"","lineNo":"","tgNo":"","tgName":null,"infoStatus":"1","orgName":"国网浙江杭州市余杭区供电有限公司","typeName":null,"infoStatusName":null,"dateDay":null,"orgNos":null,"nowTime":null,"countyName":null,"streetName":null,"villageName":null,"roadName":null,"communityName":null,"tranName":null,"sdLineName":null,"cityCode":"3340140","cityName":"国网浙江杭州市余杭区供电有限公司","provinceCode":null,"stopTime":"2019-06-17 16:40:00","powerType":"全部","powerOffArea":"羊山H530线百达房产分线","powerOffReason":"业扩工程：百达房产分线上改下工作","powerOffId":"2019061031020036"},{"poweroffId":2019061031020023,"sgpoweroffId":null,"subsName":"","lineName":"10kV港园G182线","pubTranName":"杭州余杭万家物业管理有限公司,农机管理总站,临平拉链厂,","scope":"浙江省杭州市余杭区东湖街道：临平拉链厂、农业机械监督管理总站、红枫苑专变、临平供电所、创业中心一带","startTime":"2019-06-22 08:00:00","stopDate":"2019-06-22 10:40:00","orgNo":"3340140","typeCode":"计划停电","poweroffArea":"110kV丘山变:港园G182线-拉链厂分线开关后段。因工作任务提前完成，原计划送电时间为2019年6月22日14时，现变更为2019年6月22日10时40分结束送电。","poweroffReason":"拉链厂分线修树、绝缘化处理","powerTime":"2019-06-22 10:06:35","powerComm":"完成工作，已送电。","subsNo":"","lineNo":"","tgNo":"","tgName":null,"infoStatus":"1","orgName":"国网浙江杭州市余杭区供电有限公司","typeName":null,"infoStatusName":null,"dateDay":null,"orgNos":null,"nowTime":null,"countyName":null,"streetName":null,"villageName":null,"roadName":null,"communityName":null,"tranName":null,"sdLineName":null,"cityCode":"3340140","cityName":"国网浙江杭州市余杭区供电有限公司","provinceCode":null,"stopTime":"2019-06-22 10:40:00","powerType":"全部","powerOffArea":"110kV丘山变:港园G182线-拉链厂分线开关后段。因工作任务提前完成，原计划送电时间为2019年6月22日14时，现变更为2019年6月22日10时40分结束送电。","powerOffReason":"拉链厂分线修树、绝缘化处理","powerOffId":"2019061031020023"},{"poweroffId":2019061031020020,"sgpoweroffId":null,"subsName":"","lineName":"10kV枫岭H887线","pubTranName":"西舍喷漆厂,岑岭村西舍村口公变,致锐金属,岑岭村西舍唐家公变,岑岭村西舍公变,","scope":"浙江省杭州市余杭区中泰街道:西舍喷漆厂、致锐金属、西舍村、唐家一带","startTime":"2019-06-20 08:40:00","stopDate":"2019-06-20 16:30:00","orgNo":"3340140","typeCode":"计划停电","poweroffArea":"110kV中泰变:枫岭H887线-西舍分线开关后段","poweroffReason":"西舍分线19-23#杆改道","powerTime":"2019-06-20 16:06:37","powerComm":"工作结束","subsNo":"","lineNo":"","tgNo":"","tgName":null,"infoStatus":"1","orgName":"国网浙江杭州市余杭区供电有限公司","typeName":null,"infoStatusName":null,"dateDay":null,"orgNos":null,"nowTime":null,"countyName":null,"streetName":null,"villageName":null,"roadName":null,"communityName":null,"tranName":null,"sdLineName":null,"cityCode":"3340140","cityName":"国网浙江杭州市余杭区供电有限公司","provinceCode":null,"stopTime":"2019-06-20 16:30:00","powerType":"全部","powerOffArea":"110kV中泰变:枫岭H887线-西舍分线开关后段","powerOffReason":"西舍分线19-23#杆改道","powerOffId":"2019061031020020"},{"poweroffId":2019061031020019,"sgpoweroffId":null,"subsName":"","lineName":"10kV在城H701线","pubTranName":"千秋公变,城关2号公变,永伟电器,禹航商城4号公变,","scope":"浙江省杭州市余杭区余杭街道:永伟电器、禹航商城东区、直街千秋、东门口城关一带","startTime":"2019-06-19 08:40:00","stopDate":"2019-06-19 16:30:00","orgNo":"3340140","typeCode":"计划停电","poweroffArea":"110kV余杭变:在城H701线-紫辰环网站9号负荷开关后段","poweroffReason":"千秋分线1#-2#杆移位","powerTime":"2019-06-19 16:12:59","powerComm":"已送电","subsNo":"","lineNo":"","tgNo":"","tgName":null,"infoStatus":"1","orgName":"国网浙江杭州市余杭区供电有限公司","typeName":null,"infoStatusName":null,"dateDay":null,"orgNos":null,"nowTime":null,"countyName":null,"streetName":null,"villageName":null,"roadName":null,"communityName":null,"tranName":null,"sdLineName":null,"cityCode":"3340140","cityName":"国网浙江杭州市余杭区供电有限公司","provinceCode":null,"stopTime":"2019-06-19 16:30:00","powerType":"全部","powerOffArea":"110kV余杭变:在城H701线-紫辰环网站9号负荷开关后段","powerOffReason":"千秋分线1#-2#杆移位","powerOffId":"2019061031020019"},{"poweroffId":2019061031020015,"sgpoweroffId":null,"subsName":"","lineName":"10kV宅里T330线","pubTranName":"宅里后门凸1号公变,翠坪1号公变,","scope":"浙江省-杭州市-桐庐县-横村镇-宅里行政村(后门凸自然村,宅里自然村,蒋村自然村)","startTime":"2019-06-20 07:30:00","stopDate":"2019-06-20 17:30:00","orgNo":"3340150","typeCode":"计划停电","poweroffArea":"110kV横村变:宅里T330线-宅里后门凸1号公变后段;宅里T330线-翠坪F1543令克后段","poweroffReason":"桐庐横村浪石T205线线路改造工程","powerTime":"2019-06-20 17:11:20","powerComm":"已送电。","subsNo":"","lineNo":"","tgNo":"","tgName":null,"infoStatus":"1","orgName":"国网浙江桐庐县供电公司","typeName":null,"infoStatusName":null,"dateDay":null,"orgNos":null,"nowTime":null,"countyName":null,"streetName":null,"villageName":null,"roadName":null,"communityName":null,"tranName":null,"sdLineName":null,"cityCode":"3340150","cityName":"国网浙江桐庐县供电公司","provinceCode":null,"stopTime":"2019-06-20 17:30:00","powerType":"全部","powerOffArea":"110kV横村变:宅里T330线-宅里后门凸1号公变后段;宅里T330线-翠坪F1543令克后段","powerOffReason":"桐庐横村浪石T205线线路改造工程","powerOffId":"2019061031020015"},{"poweroffId":2019061031020012,"sgpoweroffId":null,"subsName":"","lineName":"10kV潭头R193线","pubTranName":"临岐王家源村阳开湾公变,临岐王家源村樟树下公变,王家源村丰源配变,","scope":"浙江省-杭州市-淳安县-文昌镇-潭头行政村-潭头村,文昌镇-王家源行政村(丰源自然村,中坞里自然村,王家源自然村)","startTime":"2019-06-24 07:20:00","stopDate":"2019-06-24 14:30:00","orgNo":"3340190","typeCode":"计划停电","poweroffArea":"35kV潭头变:潭头R193线-王家支线33号杆开关后段","poweroffReason":"潭头193线王家支线52号杆杆线迁移，33-36号杆更换","powerTime":"2019-06-24 13:53:52","powerComm":"现场工作已完成","subsNo":"","lineNo":"","tgNo":"","tgName":null,"infoStatus":"1","orgName":"国网浙江淳安县供电有限公司","typeName":null,"infoStatusName":null,"dateDay":null,"orgNos":null,"nowTime":null,"countyName":null,"streetName":null,"villageName":null,"roadName":null,"communityName":null,"tranName":null,"sdLineName":null,"cityCode":"3340190","cityName":"国网浙江淳安县供电有限公司","provinceCode":null,"stopTime":"2019-06-24 14:30:00","powerType":"全部","powerOffArea":"35kV潭头变:潭头R193线-王家支线33号杆开关后段","powerOffReason":"潭头193线王家支线52号杆杆线迁移，33-36号杆更换","powerOffId":"2019061031020012"},{"poweroffId":2019061031020010,"sgpoweroffId":null,"subsName":"","lineName":"10kV夏中R18A线","pubTranName":"临岐半夏村童家公变,临岐半夏村同心公变,","scope":"浙江省-杭州市-淳安县-临岐镇-半夏行政村(同心自然村,童家自然村)","startTime":"2019-06-20 07:30:00","stopDate":"2019-06-20 12:30:00","orgNo":"3340190","typeCode":"计划停电","poweroffArea":"35kV临岐变:夏中R18A线-同心支线0号杆跌落式熔断器后段","poweroffReason":"夏中R18A线同心支线0号杆三摇智能开关安装（带电作业班配合）","powerTime":"2019-06-20 11:59:38","powerComm":"现场工作已完成","subsNo":"","lineNo":"","tgNo":"","tgName":null,"infoStatus":"1","orgName":"国网浙江淳安县供电有限公司","typeName":null,"infoStatusName":null,"dateDay":null,"orgNos":null,"nowTime":null,"countyName":null,"streetName":null,"villageName":null,"roadName":null,"communityName":null,"tranName":null,"sdLineName":null,"cityCode":"3340190","cityName":"国网浙江淳安县供电有限公司","provinceCode":null,"stopTime":"2019-06-20 12:30:00","powerType":"全部","powerOffArea":"35kV临岐变:夏中R18A线-同心支线0号杆跌落式熔断器后段","powerOffReason":"夏中R18A线同心支线0号杆三摇智能开关安装（带电作业班配合）","powerOffId":"2019061031020010"}],"pageModel":{"pageNow":1601,"totalCount":17789,"totalPage":1779,"tableRows":0,"pageCount":10,"beginCount":16000},"isExperi":"1"}