{"message":"","today":"2020-06-16","seleList":[{"poweroffId":2019061031010109,"sgpoweroffId":null,"subsName":"","lineName":"10kV临西V496线","pubTranName":"杭州临安杭诚阀门有限公司,浙江高中压阀门有限公司,浙江高中压阀门有限公司,","scope":"浙江省杭州市临安区锦北街道杭州临安杭诚阀门有限公司,临安神龙磁性材料有限公司,浙江高中压阀门有限公司一带。","startTime":"2019-06-17 08:10:00","stopDate":"2019-06-17 15:00:00","orgNo":"3340160","typeCode":"计划停电","poweroffArea":"110kV平山变:临西V496线君锦站阀门厂分线柜开关后段","poweroffReason":"平山变临西V496线君锦站阀门厂分线柜开关，电缆敷设至杭州临安杭诚阀门有限公司630kVA增容至1260kVA配电工程。","powerTime":"2019-06-17 14:50:09","powerComm":"全部送电","subsNo":"","lineNo":"","tgNo":"","tgName":null,"infoStatus":"1","orgName":"国网浙江临安市供电公司","typeName":null,"infoStatusName":null,"dateDay":null,"orgNos":null,"nowTime":null,"countyName":null,"streetName":null,"villageName":null,"roadName":null,"communityName":null,"tranName":null,"sdLineName":null,"cityCode":"3340160","cityName":"国网浙江临安市供电公司","provinceCode":null,"stopTime":"2019-06-17 15:00:00","powerType":"全部","powerOffArea":"110kV平山变:临西V496线君锦站阀门厂分线柜开关后段","powerOffReason":"平山变临西V496线君锦站阀门厂分线柜开关，电缆敷设至杭州临安杭诚阀门有限公司630kVA增容至1260kVA配电工程。","powerOffId":"2019061031010109"},{"poweroffId":2019061031010108,"sgpoweroffId":null,"subsName":"","lineName":"10kV杨华V731线","pubTranName":"上阳村[里村栗子山],","scope":"浙江省杭州市临安区太湖源镇上阳行政村里村栗子山一带","startTime":"2019-06-17 13:00:00","stopDate":"2019-06-17 23:00:00","orgNo":"3340160","typeCode":"计划停电","poweroffArea":"110kV杨岭变:杨华V731线-里村（栗子山）支支线6#后段","poweroffReason":"杨华V731线里村栗子山支支线6#杆上阳村[里村栗子山]公变低压出线电缆调换工作。","powerTime":"2019-06-17 22:45:44","powerComm":"已送电","subsNo":"","lineNo":"","tgNo":"","tgName":null,"infoStatus":"1","orgName":"国网浙江临安市供电公司","typeName":null,"infoStatusName":null,"dateDay":null,"orgNos":null,"nowTime":null,"countyName":null,"streetName":null,"villageName":null,"roadName":null,"communityName":null,"tranName":null,"sdLineName":null,"cityCode":"3340160","cityName":"国网浙江临安市供电公司","provinceCode":null,"stopTime":"2019-06-17 23:00:00","powerType":"全部","powerOffArea":"110kV杨岭变:杨华V731线-里村（栗子山）支支线6#后段","powerOffReason":"杨华V731线里村栗子山支支线6#杆上阳村[里村栗子山]公变低压出线电缆调换工作。","powerOffId":"2019061031010108"},{"poweroffId":2019061031010106,"sgpoweroffId":null,"subsName":"","lineName":"10kV迎丰V783线","pubTranName":"湍口村叶家,","scope":"浙江省-杭州市-临安市-湍口镇湍口村新街、叶家一带。","startTime":"2019-06-17 13:00:00","stopDate":"2019-06-17 23:00:26","orgNo":"3340160","typeCode":"计划停电","poweroffArea":"35kV湍口变:迎丰V783线-湍口村叶家配变","poweroffReason":"凤凰山割接","powerTime":"2019-06-17 22:46:40","powerComm":"已送电","subsNo":"","lineNo":"","tgNo":"","tgName":null,"infoStatus":"1","orgName":"国网浙江临安市供电公司","typeName":null,"infoStatusName":null,"dateDay":null,"orgNos":null,"nowTime":null,"countyName":null,"streetName":null,"villageName":null,"roadName":null,"communityName":null,"tranName":null,"sdLineName":null,"cityCode":"3340160","cityName":"国网浙江临安市供电公司","provinceCode":null,"stopTime":"2019-06-17 23:00:26","powerType":"全部","powerOffArea":"35kV湍口变:迎丰V783线-湍口村叶家配变","powerOffReason":"凤凰山割接","powerOffId":"2019061031010106"},{"poweroffId":2019061031010099,"sgpoweroffId":null,"subsName":"","lineName":"10kV鹤里V256线","pubTranName":"10kV桃源溪村[桃树岭龙台山]公变,10kV桃源溪村[桃树岭王家]公变,","scope":"浙江省杭州市临安区太阳镇桃树岭王家、桃树岭龙台山一带","startTime":"2019-06-18 07:10:00","stopDate":"2019-06-18 15:20:00","orgNo":"3340160","typeCode":"计划停电","poweroffArea":"鹤里v256线185#杆龙台山分线","poweroffReason":"鹤里V256线龙台山支线7#杆10KV桃源溪村（桃树岭王家）公变增容，出线电缆调换","powerTime":"2019-06-18 15:10:15","powerComm":"已送电","subsNo":"","lineNo":"","tgNo":"","tgName":null,"infoStatus":"1","orgName":"国网浙江临安市供电公司","typeName":null,"infoStatusName":null,"dateDay":null,"orgNos":null,"nowTime":null,"countyName":null,"streetName":null,"villageName":null,"roadName":null,"communityName":null,"tranName":null,"sdLineName":null,"cityCode":"3340160","cityName":"国网浙江临安市供电公司","provinceCode":null,"stopTime":"2019-06-18 15:20:00","powerType":"全部","powerOffArea":"鹤里v256线185#杆龙台山分线","powerOffReason":"鹤里V256线龙台山支线7#杆10KV桃源溪村（桃树岭王家）公变增容，出线电缆调换","powerOffId":"2019061031010099"},{"poweroffId":2019061031010098,"sgpoweroffId":null,"subsName":"","lineName":"10kV仁里V312线","pubTranName":"大坦村(东川),","scope":"浙江省-杭州市-临安市-岛石镇大坦东川一带。;","startTime":"2019-06-18 07:40:00","stopDate":"2019-06-18 18:20:00","orgNo":"3340160","typeCode":"计划停电","poweroffArea":"35kV岛石变:仁里V312线-东川分线20#后段","poweroffReason":"仁里V312线129#杆东川分线20#杆大坦村东川配变令克后段","powerTime":"2019-06-18 18:10:20","powerComm":"已送电","subsNo":"","lineNo":"","tgNo":"","tgName":null,"infoStatus":"1","orgName":"国网浙江临安市供电公司","typeName":null,"infoStatusName":null,"dateDay":null,"orgNos":null,"nowTime":null,"countyName":null,"streetName":null,"villageName":null,"roadName":null,"communityName":null,"tranName":null,"sdLineName":null,"cityCode":"3340160","cityName":"国网浙江临安市供电公司","provinceCode":null,"stopTime":"2019-06-18 18:20:00","powerType":"全部","powerOffArea":"35kV岛石变:仁里V312线-东川分线20#后段","powerOffReason":"仁里V312线129#杆东川分线20#杆大坦村东川配变令克后段","powerOffId":"2019061031010098"},{"poweroffId":2019061031010094,"sgpoweroffId":null,"subsName":"","lineName":"10kV城中V271线","pubTranName":"临安市民政局1,","scope":"浙江省杭州市临安区锦城街道杭州市临安区军队离休退休干部休养所一带。","startTime":"2019-06-18 08:10:00","stopDate":"2019-06-18 16:00:00","orgNo":"3340160","typeCode":"计划停电","poweroffArea":"110kV玲珑变:城中V271线电视台分线11#杆烈士公园中宇支线令克后段","poweroffReason":"城中V271线(02项)：城中V271线电视台分线11#杆烈士公园中宇支线令克调换开关，11#杆烈士公园中宇支线1#杆后立杆架线、电缆落火，新上200KVA配变","powerTime":"2019-06-18 15:50:16","powerComm":"已送电","subsNo":"","lineNo":"","tgNo":"","tgName":null,"infoStatus":"1","orgName":"国网浙江临安市供电公司","typeName":null,"infoStatusName":null,"dateDay":null,"orgNos":null,"nowTime":null,"countyName":null,"streetName":null,"villageName":null,"roadName":null,"communityName":null,"tranName":null,"sdLineName":null,"cityCode":"3340160","cityName":"国网浙江临安市供电公司","provinceCode":null,"stopTime":"2019-06-18 16:00:00","powerType":"全部","powerOffArea":"110kV玲珑变:城中V271线电视台分线11#杆烈士公园中宇支线令克后段","powerOffReason":"城中V271线(02项)：城中V271线电视台分线11#杆烈士公园中宇支线令克调换开关，11#杆烈士公园中宇支线1#杆后立杆架线、电缆落火，新上200KVA配变","powerOffId":"2019061031010094"},{"poweroffId":2019061031010090,"sgpoweroffId":null,"subsName":"","lineName":"10kV重阳V348线","pubTranName":"崇阳村[崇阳1#]公变,","scope":"浙江省杭州市临安区高虹镇崇阳行政村崇阳自然村一带","startTime":"2019-06-19 08:00:00","stopDate":"2019-06-19 13:00:00","orgNo":"3340160","typeCode":"计划停电","poweroffArea":"110kV高虹变:重阳V348线-崇阳村[崇阳1#]公变后段","poweroffReason":"重阳V384线重阳坞分线8#杆崇阳村[崇阳1#]公变低压出线电缆调换工作。","powerTime":"2019-06-19 12:50:11","powerComm":"已送电","subsNo":"","lineNo":"","tgNo":"","tgName":null,"infoStatus":"1","orgName":"国网浙江临安市供电公司","typeName":null,"infoStatusName":null,"dateDay":null,"orgNos":null,"nowTime":null,"countyName":null,"streetName":null,"villageName":null,"roadName":null,"communityName":null,"tranName":null,"sdLineName":null,"cityCode":"3340160","cityName":"国网浙江临安市供电公司","provinceCode":null,"stopTime":"2019-06-19 13:00:00","powerType":"全部","powerOffArea":"110kV高虹变:重阳V348线-崇阳村[崇阳1#]公变后段","powerOffReason":"重阳V384线重阳坞分线8#杆崇阳村[崇阳1#]公变低压出线电缆调换工作。","powerOffId":"2019061031010090"},{"poweroffId":2019061031010081,"sgpoweroffId":null,"subsName":"","lineName":"10kV石瑞V134线","pubTranName":"澄村前干,","scope":"浙江省-杭州市-临安市-河桥镇石瑞澄村一带。","startTime":"2019-06-20 07:40:00","stopDate":"2019-06-20 17:20:00","orgNo":"3340160","typeCode":"计划停电","poweroffArea":"110kV昌化变:石瑞V134线-石瑞134线272#后段","poweroffReason":"石瑞V134线澄村前干分线澄村前干公变改杆上式。","powerTime":"2019-06-20 17:10:19","powerComm":"已送电","subsNo":"","lineNo":"","tgNo":"","tgName":null,"infoStatus":"1","orgName":"国网浙江临安市供电公司","typeName":null,"infoStatusName":null,"dateDay":null,"orgNos":null,"nowTime":null,"countyName":null,"streetName":null,"villageName":null,"roadName":null,"communityName":null,"tranName":null,"sdLineName":null,"cityCode":"3340160","cityName":"国网浙江临安市供电公司","provinceCode":null,"stopTime":"2019-06-20 17:20:00","powerType":"全部","powerOffArea":"110kV昌化变:石瑞V134线-石瑞134线272#后段","powerOffReason":"石瑞V134线澄村前干分线澄村前干公变改杆上式。","powerOffId":"2019061031010081"},{"poweroffId":2019061031010077,"sgpoweroffId":null,"subsName":"","lineName":"10kV仁里V312线","pubTranName":"大坦村(大园),临安市裕康食品厂,","scope":"浙江省-杭州市-临安市-岛石镇仁里村大坦大园、临安市裕康食品厂一带。","startTime":"2019-06-21 07:40:00","stopDate":"2019-06-21 18:20:00","orgNo":"3340160","typeCode":"计划停电","poweroffArea":"35kV岛石变:仁里V312线-大园支线开关后段","poweroffReason":"仁里V312线129#杆东川分线2#杆大园支线2#杆大坦村大园配变榨油厂1000线1#-13#杆立杆架线，低压出线电缆更换","powerTime":"2019-06-21 18:10:09","powerComm":"已送电","subsNo":"","lineNo":"","tgNo":"","tgName":null,"infoStatus":"1","orgName":"国网浙江临安市供电公司","typeName":null,"infoStatusName":null,"dateDay":null,"orgNos":null,"nowTime":null,"countyName":null,"streetName":null,"villageName":null,"roadName":null,"communityName":null,"tranName":null,"sdLineName":null,"cityCode":"3340160","cityName":"国网浙江临安市供电公司","provinceCode":null,"stopTime":"2019-06-21 18:20:00","powerType":"全部","powerOffArea":"35kV岛石变:仁里V312线-大园支线开关后段","powerOffReason":"仁里V312线129#杆东川分线2#杆大园支线2#杆大坦村大园配变榨油厂1000线1#-13#杆立杆架线，低压出线电缆更换","powerOffId":"2019061031010077"},{"poweroffId":2019061031010075,"sgpoweroffId":null,"subsName":"","lineName":"10kV石瑞V134线","pubTranName":"澄村(朱树坞),杭州临安昌化公路工程处,杭州临安昌化公路工程处,临安三景萤石有限公司1#,临安三景萤石有限公司2#,","scope":"浙江省-杭州市-临安市-河桥镇澄村朱树坞、杭州临安昌化公路工程处,临安三景萤石有限公司一带。","startTime":"2019-06-21 07:40:00","stopDate":"2019-06-21 11:20:00","orgNo":"3340160","typeCode":"计划停电","poweroffArea":"110kV昌化变:石瑞V134线-石瑞134线274#开关后段","poweroffReason":"石瑞V134线274#杆朱树坞分线6#杆移位升高。","powerTime":"2019-06-21 11:10:37","powerComm":"已送电","subsNo":"","lineNo":"","tgNo":"","tgName":null,"infoStatus":"1","orgName":"国网浙江临安市供电公司","typeName":null,"infoStatusName":null,"dateDay":null,"orgNos":null,"nowTime":null,"countyName":null,"streetName":null,"villageName":null,"roadName":null,"communityName":null,"tranName":null,"sdLineName":null,"cityCode":"3340160","cityName":"国网浙江临安市供电公司","provinceCode":null,"stopTime":"2019-06-21 11:20:00","powerType":"全部","powerOffArea":"110kV昌化变:石瑞V134线-石瑞134线274#开关后段","powerOffReason":"石瑞V134线274#杆朱树坞分线6#杆移位升高。","powerOffId":"2019061031010075"}],"pageModel":{"pageNow":1603,"totalCount":17789,"totalPage":1779,"tableRows":0,"pageCount":10,"beginCount":16020},"isExperi":"1"}