{"message":"","today":"2020-06-16","seleList":[{"poweroffId":2019060631020165,"sgpoweroffId":null,"subsName":"","lineName":"10kV白云H884线","pubTranName":"建设集团（惠余置业宿舍）基建变,清水湾2号公变,清水湾1号公变,","scope":"浙江省杭州市余杭区中泰街道:惠余置业工地宿舍、清水湾别墅一带","startTime":"2019-06-19 10:00:00","stopDate":"2019-06-19 19:00:00","orgNo":"3340140","typeCode":"计划停电","poweroffArea":"110kV中泰变:白云H884线-小镇开关站清湾水分线后段","poweroffReason":"清水湾分线改接至小镇开关站Ⅰ段待用G01间隔 原停电结束时间20:00，因抢修力量充足，提前完成工作任务，现变更停电结束时间至19:00","powerTime":"2019-06-19 18:30:06","powerComm":"已送电","subsNo":"","lineNo":"","tgNo":"","tgName":null,"infoStatus":"1","orgName":"国网浙江杭州市余杭区供电有限公司","typeName":null,"infoStatusName":null,"dateDay":null,"orgNos":null,"nowTime":null,"countyName":null,"streetName":null,"villageName":null,"roadName":null,"communityName":null,"tranName":null,"sdLineName":null,"cityCode":"3340140","cityName":"国网浙江杭州市余杭区供电有限公司","provinceCode":null,"stopTime":"2019-06-19 19:00:00","powerType":"全部","powerOffArea":"110kV中泰变:白云H884线-小镇开关站清湾水分线后段","powerOffReason":"清水湾分线改接至小镇开关站Ⅰ段待用G01间隔 原停电结束时间20:00，因抢修力量充足，提前完成工作任务，现变更停电结束时间至19:00","powerOffId":"2019060631020165"},{"poweroffId":2019060631020164,"sgpoweroffId":null,"subsName":"","lineName":"10kV庭院H610线","pubTranName":"未来之芯11号公变,3#,1#,未来之芯10号公变,未来之芯9号公变,都成置业6120825709I段1#,未来之芯12号公变,","scope":"浙江省杭州市余杭区中泰街道:英特学府一带","startTime":"2019-06-19 09:30:00","stopDate":"2019-06-19 13:30:55","orgNo":"3340140","typeCode":"计划停电","poweroffArea":"110kV桃源变:庭院H610线-未芯环网站禹未分线后段","poweroffReason":"未芯环网站Ⅰ段3#间隔拼柜，地铁630kVA*2台基建接入 原停电结束时间16:30，因抢修力量充足，提前完成工作任务，现变更停电结束时间至13:30","powerTime":"2019-06-19 12:51:21","powerComm":"已送电","subsNo":"","lineNo":"","tgNo":"","tgName":null,"infoStatus":"1","orgName":"国网浙江杭州市余杭区供电有限公司","typeName":null,"infoStatusName":null,"dateDay":null,"orgNos":null,"nowTime":null,"countyName":null,"streetName":null,"villageName":null,"roadName":null,"communityName":null,"tranName":null,"sdLineName":null,"cityCode":"3340140","cityName":"国网浙江杭州市余杭区供电有限公司","provinceCode":null,"stopTime":"2019-06-19 13:30:55","powerType":"全部","powerOffArea":"110kV桃源变:庭院H610线-未芯环网站禹未分线后段","powerOffReason":"未芯环网站Ⅰ段3#间隔拼柜，地铁630kVA*2台基建接入 原停电结束时间16:30，因抢修力量充足，提前完成工作任务，现变更停电结束时间至13:30","powerOffId":"2019060631020164"},{"poweroffId":2019060631020163,"sgpoweroffId":null,"subsName":"","lineName":"10kV白云H884线","pubTranName":"2#,","scope":"浙江省杭州市余杭区中泰街道:新西湖小镇小区一带","startTime":"2019-06-19 10:00:00","stopDate":"2019-06-19 19:00:00","orgNo":"3340140","typeCode":"计划停电","poweroffArea":"110kV中泰变:白云H884线-小镇开关站颐景园8#专变分线后段","poweroffReason":"小镇开关站Ⅱ段换柜，西湖10分线改接回待用G15间隔 原停电结束时间20:00，因抢修力量充足，提前完成工作任务，现变更停电结束时间至19:00","powerTime":"2019-06-19 18:30:23","powerComm":"已送电","subsNo":"","lineNo":"","tgNo":"","tgName":null,"infoStatus":"1","orgName":"国网浙江杭州市余杭区供电有限公司","typeName":null,"infoStatusName":null,"dateDay":null,"orgNos":null,"nowTime":null,"countyName":null,"streetName":null,"villageName":null,"roadName":null,"communityName":null,"tranName":null,"sdLineName":null,"cityCode":"3340140","cityName":"国网浙江杭州市余杭区供电有限公司","provinceCode":null,"stopTime":"2019-06-19 19:00:00","powerType":"全部","powerOffArea":"110kV中泰变:白云H884线-小镇开关站颐景园8#专变分线后段","powerOffReason":"小镇开关站Ⅱ段换柜，西湖10分线改接回待用G15间隔 原停电结束时间20:00，因抢修力量充足，提前完成工作任务，现变更停电结束时间至19:00","powerOffId":"2019060631020163"},{"poweroffId":2019060631020153,"sgpoweroffId":null,"subsName":"","lineName":"10kV上喻T570线","pubTranName":"西庄村4号公变,","scope":"浙江省-杭州市-桐庐县-凤川街道-西庄行政村-西庄自然村","startTime":"2019-06-21 07:30:00","stopDate":"2019-06-21 08:20:00","orgNo":"3340150","typeCode":"计划停电","poweroffArea":"110kV旺家变:上喻T570线-西四F7271令克后段","poweroffReason":"1、西庄村4号公变配变增容 原停电结束时间2019年06月21日 17:30:00，变更停电结束时间：2019年06月21日 08:20:00，原因：因天气原因，取消本次停电。","powerTime":"2019-06-21 08:17:22","powerComm":"已送电","subsNo":"","lineNo":"","tgNo":"","tgName":null,"infoStatus":"1","orgName":"国网浙江桐庐县供电公司","typeName":null,"infoStatusName":null,"dateDay":null,"orgNos":null,"nowTime":null,"countyName":null,"streetName":null,"villageName":null,"roadName":null,"communityName":null,"tranName":null,"sdLineName":null,"cityCode":"3340150","cityName":"国网浙江桐庐县供电公司","provinceCode":null,"stopTime":"2019-06-21 08:20:00","powerType":"全部","powerOffArea":"110kV旺家变:上喻T570线-西四F7271令克后段","powerOffReason":"1、西庄村4号公变配变增容 原停电结束时间2019年06月21日 17:30:00，变更停电结束时间：2019年06月21日 08:20:00，原因：因天气原因，取消本次停电。","powerOffId":"2019060631020153"},{"poweroffId":2019060631020152,"sgpoweroffId":null,"subsName":"","lineName":"10kV上喻T570线","pubTranName":"上喻村2号公变,","scope":"浙江省-杭州市-桐庐县-凤川街道-园林行政村-上喻自然村","startTime":"2019-06-20 07:30:00","stopDate":"2019-06-20 17:30:00","orgNo":"3340150","typeCode":"计划停电","poweroffArea":"110kV旺家变:上喻T570线-上喻7252令克后段","poweroffReason":"1、拆、装上喻村2号公变变压器并升高工作，2、拆、装一次电缆及搭接工作，3、架设上喻2号公变导线、集束电缆及搭接、拆除上喻2号公变旧导线工作","powerTime":"2019-06-20 17:11:43","powerComm":"已送电。","subsNo":"","lineNo":"","tgNo":"","tgName":null,"infoStatus":"1","orgName":"国网浙江桐庐县供电公司","typeName":null,"infoStatusName":null,"dateDay":null,"orgNos":null,"nowTime":null,"countyName":null,"streetName":null,"villageName":null,"roadName":null,"communityName":null,"tranName":null,"sdLineName":null,"cityCode":"3340150","cityName":"国网浙江桐庐县供电公司","provinceCode":null,"stopTime":"2019-06-20 17:30:00","powerType":"全部","powerOffArea":"110kV旺家变:上喻T570线-上喻7252令克后段","powerOffReason":"1、拆、装上喻村2号公变变压器并升高工作，2、拆、装一次电缆及搭接工作，3、架设上喻2号公变导线、集束电缆及搭接、拆除上喻2号公变旧导线工作","powerOffId":"2019060631020152"},{"poweroffId":2019060631020149,"sgpoweroffId":null,"subsName":"","lineName":"10kV新工T283线","pubTranName":"何家村1号公变,","scope":"浙江省-杭州市-桐庐县-新合乡-新合行政村-何家自然村","startTime":"2019-06-18 07:30:00","stopDate":"2019-06-18 08:30:00","orgNo":"3340150","typeCode":"计划停电","poweroffArea":"35kV新合变:新工T283线-何家F7418后段","poweroffReason":"1、何家村1号公变副杆更换、变压器增容、安装JP柜及低压出线电缆更换搭接工作，2、何家村1号公变何家线0号杆更换电杆及架设导线一档并搭接工作；（原停电结束时间为2019-06-18 17:30:00，现变更停电结束时间2019-06-18 08:30:00，原因为下雨天取消线路工作）","powerTime":"2019-06-18 08:02:40","powerComm":"全部送电","subsNo":"","lineNo":"","tgNo":"","tgName":null,"infoStatus":"1","orgName":"国网浙江桐庐县供电公司","typeName":null,"infoStatusName":null,"dateDay":null,"orgNos":null,"nowTime":null,"countyName":null,"streetName":null,"villageName":null,"roadName":null,"communityName":null,"tranName":null,"sdLineName":null,"cityCode":"3340150","cityName":"国网浙江桐庐县供电公司","provinceCode":null,"stopTime":"2019-06-18 08:30:00","powerType":"全部","powerOffArea":"35kV新合变:新工T283线-何家F7418后段","powerOffReason":"1、何家村1号公变副杆更换、变压器增容、安装JP柜及低压出线电缆更换搭接工作，2、何家村1号公变何家线0号杆更换电杆及架设导线一档并搭接工作；（原停电结束时间为2019-06-18 17:30:00，现变更停电结束时间2019-06-18 08:30:00，原因为下雨天取消线路工作）","powerOffId":"2019060631020149"},{"poweroffId":2019060631020148,"sgpoweroffId":null,"subsName":"","lineName":"10kV网琪H785线","pubTranName":"永乐村西蔡庙公变,永乐村竹园蓬公变,永乐村锡家坝,苕溪村小桥,永乐众兴桥公变,苕溪村凌村营2号公变,永乐村竹园蓬2号公变,苕溪村小桥头公变,永乐村张家田畈公变,永乐村唐家桥公变,苕溪村盘桥公变,苕溪后进桥,","scope":"浙江省杭州市余杭区仓前街道：苕溪村盘桥、凌村营2号公变、后进桥、小桥、张家田畈、小桥头、锡家坝、众兴桥、竹园蓬、竹园蓬2号公变、西蔡庙、唐家桥一带","startTime":"2019-06-20 08:00:00","stopDate":"2019-06-20 17:30:00","orgNo":"3340140","typeCode":"计划停电","poweroffArea":"网琪H785线胜利分线 原停电结束时间2019-06-20 19:00:00变更停电结束时间2019-06-20 17:30:00 变更原因：施工力量充足，工作提前结束","poweroffReason":"配网工程（019年杭州余杭科技城10千伏吴山二线、网琪二线新建工程）原停电结束时间2019-06-20 19:00:00变更停电结束时间2019-06-20 17:30:00 变更原因：施工力量充足，工作提前结束","powerTime":"2019-06-20 17:10:06","powerComm":"已送电","subsNo":"","lineNo":"","tgNo":"","tgName":null,"infoStatus":"1","orgName":"国网浙江杭州市余杭区供电有限公司","typeName":null,"infoStatusName":null,"dateDay":null,"orgNos":null,"nowTime":null,"countyName":null,"streetName":null,"villageName":null,"roadName":null,"communityName":null,"tranName":null,"sdLineName":null,"cityCode":"3340140","cityName":"国网浙江杭州市余杭区供电有限公司","provinceCode":null,"stopTime":"2019-06-20 17:30:00","powerType":"全部","powerOffArea":"网琪H785线胜利分线 原停电结束时间2019-06-20 19:00:00变更停电结束时间2019-06-20 17:30:00 变更原因：施工力量充足，工作提前结束","powerOffReason":"配网工程（019年杭州余杭科技城10千伏吴山二线、网琪二线新建工程）原停电结束时间2019-06-20 19:00:00变更停电结束时间2019-06-20 17:30:00 变更原因：施工力量充足，工作提前结束","powerOffId":"2019060631020148"},{"poweroffId":2019060631020146,"sgpoweroffId":null,"subsName":"","lineName":"10kV中桥H874线","pubTranName":"新西湖9号公变,新西湖10号公变,新西湖22号公变,颐景园(7)专变,新西湖21号公变,新西湖12号公变,新西湖14号公变,新西湖13号公变,新西湖11号公变,","scope":"浙江省杭州市余杭区中泰街道:新西湖小镇小区一带","startTime":"2019-06-18 10:00:00","stopDate":"2019-06-18 18:00:00","orgNo":"3340140","typeCode":"计划停电","poweroffArea":"110kV中泰变:中桥H874线-西湖开关站西小H8741线开关后段","poweroffReason":"小镇分支箱撤出，分线改接回小镇开关站Ⅰ段，西湖10分线接至待用G02间隔","powerTime":"2019-06-18 17:48:33","powerComm":"已全部送电。","subsNo":"","lineNo":"","tgNo":"","tgName":null,"infoStatus":"1","orgName":"国网浙江杭州市余杭区供电有限公司","typeName":null,"infoStatusName":null,"dateDay":null,"orgNos":null,"nowTime":null,"countyName":null,"streetName":null,"villageName":null,"roadName":null,"communityName":null,"tranName":null,"sdLineName":null,"cityCode":"3340140","cityName":"国网浙江杭州市余杭区供电有限公司","provinceCode":null,"stopTime":"2019-06-18 18:00:00","powerType":"全部","powerOffArea":"110kV中泰变:中桥H874线-西湖开关站西小H8741线开关后段","powerOffReason":"小镇分支箱撤出，分线改接回小镇开关站Ⅰ段，西湖10分线接至待用G02间隔","powerOffId":"2019060631020146"},{"poweroffId":2019060631020144,"sgpoweroffId":null,"subsName":"","lineName":"10kV网琪H785线","pubTranName":"苕溪村马家村,苕溪村西岸公变,苕溪村马家村2号公变,","scope":"浙江省杭州市余杭区仓前街道：苕溪村西岸、马家村、马家村2号公变一带 因施工力量充足，原计划时间08:30-17:30，更改为08:30-16:30","startTime":"2019-07-10 08:30:00","stopDate":"2019-07-10 16:30:00","orgNo":"3340140","typeCode":"临时停电","poweroffArea":"网琪H7853开关-网琪H7854开关","poweroffReason":"配网工程（2019年杭州余杭科技城10千伏吴山二线、网琪二线新建工程）：网琪H785线89号杆开断档、94号杆线路延伸3档、新立15米电杆3基、新上开关1台。","powerTime":"2019-07-10 15:48:35","powerComm":"已送电。","subsNo":"","lineNo":"","tgNo":"","tgName":null,"infoStatus":"1","orgName":"国网浙江杭州市余杭区供电有限公司","typeName":null,"infoStatusName":null,"dateDay":null,"orgNos":null,"nowTime":null,"countyName":null,"streetName":null,"villageName":null,"roadName":null,"communityName":null,"tranName":null,"sdLineName":null,"cityCode":"3340140","cityName":"国网浙江杭州市余杭区供电有限公司","provinceCode":null,"stopTime":"2019-07-10 16:30:00","powerType":"全部","powerOffArea":"网琪H7853开关-网琪H7854开关","powerOffReason":"配网工程（2019年杭州余杭科技城10千伏吴山二线、网琪二线新建工程）：网琪H785线89号杆开断档、94号杆线路延伸3档、新立15米电杆3基、新上开关1台。","powerOffId":"2019060631020144"},{"poweroffId":2019060631020143,"sgpoweroffId":null,"subsName":"","lineName":"10kV网琪H785线","pubTranName":"苕溪村九莲池2号公变,苕溪村凌村营,苕溪村前家埠公变,苕溪村沈家桥2号公变,苕溪村小涧公变,苕溪村沈家公变,苕溪村小涧北公变,苕溪村沈家桥,苕溪村张家斗公变,苕溪村九莲池公变,","scope":"浙江省杭州市余杭区仓前街道：苕溪村九莲池、九莲池2号公变、张家斗、沈家、前家埠、小涧、小涧北、沈家桥、沈家桥2号公变、凌村营一带 因天气原因，计划送电时间8:30-17:30，更改为8:30-19:30.","startTime":"2019-06-19 08:30:00","stopDate":"2019-06-19 19:30:00","orgNo":"3340140","typeCode":"计划停电","poweroffArea":"网琪H785线胜利分线23号杆开关","poweroffReason":"配网工程（019年杭州余杭科技城10千伏吴山二线、网琪二线新建工程）：新放JKLYJ-10-1*240绝缘导线3档、插杆2基、新立15米电杆2基，小涧分线、九莲池分线、沈家桥分线改接至网琪二线。 因天气原因，计划送电时间8:30-17:30，更改为8:30-19:30.","powerTime":"2019-06-19 18:45:33","powerComm":"已送电。","subsNo":"","lineNo":"","tgNo":"","tgName":null,"infoStatus":"1","orgName":"国网浙江杭州市余杭区供电有限公司","typeName":null,"infoStatusName":null,"dateDay":null,"orgNos":null,"nowTime":null,"countyName":null,"streetName":null,"villageName":null,"roadName":null,"communityName":null,"tranName":null,"sdLineName":null,"cityCode":"3340140","cityName":"国网浙江杭州市余杭区供电有限公司","provinceCode":null,"stopTime":"2019-06-19 19:30:00","powerType":"全部","powerOffArea":"网琪H785线胜利分线23号杆开关","powerOffReason":"配网工程（019年杭州余杭科技城10千伏吴山二线、网琪二线新建工程）：新放JKLYJ-10-1*240绝缘导线3档、插杆2基、新立15米电杆2基，小涧分线、九莲池分线、沈家桥分线改接至网琪二线。 因天气原因，计划送电时间8:30-17:30，更改为8:30-19:30.","powerOffId":"2019060631020143"}],"pageModel":{"pageNow":1605,"totalCount":17789,"totalPage":1779,"tableRows":0,"pageCount":10,"beginCount":16040},"isExperi":"1"}