{"message":"","today":"2020-06-16","seleList":[{"poweroffId":2019060631020086,"sgpoweroffId":null,"subsName":"","lineName":"10kV斗门9362线","pubTranName":"物华(八),","scope":"浙江省杭州市西湖区物华小康居住区25幢、31幢附近一带用户及商铺","startTime":"2019-06-17 10:00:00","stopDate":"2019-06-17 11:20:00","orgNo":"3340101","typeCode":"计划停电","poweroffArea":"110kV余塘变:斗门9362线-物华(八)后段","poweroffReason":"物华八北二低压开关。原停电结束时间12:00、变更停电结束时间11:20原因由于施工现场环境比较复杂，存在不确定因素，因此预估施工时间适当放长了，而实际施工进行得比较顺利，因此该工作提前结束。","powerTime":"2019-06-17 10:22:59","powerComm":"已送电","subsNo":"","lineNo":"","tgNo":"","tgName":null,"infoStatus":"1","orgName":"浙江杭州电力客户服务中心","typeName":null,"infoStatusName":null,"dateDay":null,"orgNos":null,"nowTime":null,"countyName":null,"streetName":null,"villageName":null,"roadName":null,"communityName":null,"tranName":null,"sdLineName":null,"cityCode":"3340101","cityName":"浙江杭州电力客户服务中心","provinceCode":null,"stopTime":"2019-06-17 11:20:00","powerType":"全部","powerOffArea":"110kV余塘变:斗门9362线-物华(八)后段","powerOffReason":"物华八北二低压开关。原停电结束时间12:00、变更停电结束时间11:20原因由于施工现场环境比较复杂，存在不确定因素，因此预估施工时间适当放长了，而实际施工进行得比较顺利，因此该工作提前结束。","powerOffId":"2019060631020086"},{"poweroffId":2019060631020085,"sgpoweroffId":null,"subsName":"","lineName":"10kV安泰9684线","pubTranName":"小龙二,武勤,武修,东学,警犬,","scope":"浙江省杭州市西湖区武装警察部队保障部、杭州东方中学、省公安厅05基地、大龙驹坞村附近一带部分用户","startTime":"2019-06-17 09:30:00","stopDate":"2019-06-17 16:20:00","orgNo":"3340101","typeCode":"计划停电","poweroffArea":"220kV古荡变:安泰9684线-边后分线开关后段","poweroffReason":"安泰9684线龙驹东站边后分线（用检配合）。原停电结束时间17:00、变更停电结束时间16:20原因由于施工现场环境比较复杂，存在不确定因素，因此预估施工时间适当放长了，而实际施工进行得比较顺利，因此该工作提前结束。","powerTime":"2019-06-17 15:45:59","powerComm":"已送电","subsNo":"","lineNo":"","tgNo":"","tgName":null,"infoStatus":"1","orgName":"浙江杭州电力客户服务中心","typeName":null,"infoStatusName":null,"dateDay":null,"orgNos":null,"nowTime":null,"countyName":null,"streetName":null,"villageName":null,"roadName":null,"communityName":null,"tranName":null,"sdLineName":null,"cityCode":"3340101","cityName":"浙江杭州电力客户服务中心","provinceCode":null,"stopTime":"2019-06-17 16:20:00","powerType":"全部","powerOffArea":"220kV古荡变:安泰9684线-边后分线开关后段","powerOffReason":"安泰9684线龙驹东站边后分线（用检配合）。原停电结束时间17:00、变更停电结束时间16:20原因由于施工现场环境比较复杂，存在不确定因素，因此预估施工时间适当放长了，而实际施工进行得比较顺利，因此该工作提前结束。","powerOffId":"2019060631020085"},{"poweroffId":2019060631020082,"sgpoweroffId":null,"subsName":"","lineName":"10kV潭北8906线","pubTranName":"古北(八),","scope":"浙江省杭州市西湖区嘉绿西苑45幢、46幢附近一带用户","startTime":"2019-06-17 09:00:00","stopDate":"2019-06-17 10:30:00","orgNo":"3340101","typeCode":"计划停电","poweroffArea":"110kV丰潭变:潭北8906线-古北(五)后段","poweroffReason":"古北五北二T接箱低压开关。原停电结束时间11:00、变更停电结束时间10:30原因由于施工现场环境比较复杂，存在不确定因素，因此预估施工时间适当放长了，而实际施工进行得比较顺利，因此该工作提前结束。","powerTime":"2019-06-17 09:48:59","powerComm":"已送电","subsNo":"","lineNo":"","tgNo":"","tgName":null,"infoStatus":"1","orgName":"浙江杭州电力客户服务中心","typeName":null,"infoStatusName":null,"dateDay":null,"orgNos":null,"nowTime":null,"countyName":null,"streetName":null,"villageName":null,"roadName":null,"communityName":null,"tranName":null,"sdLineName":null,"cityCode":"3340101","cityName":"浙江杭州电力客户服务中心","provinceCode":null,"stopTime":"2019-06-17 10:30:00","powerType":"全部","powerOffArea":"110kV丰潭变:潭北8906线-古北(五)后段","powerOffReason":"古北五北二T接箱低压开关。原停电结束时间11:00、变更停电结束时间10:30原因由于施工现场环境比较复杂，存在不确定因素，因此预估施工时间适当放长了，而实际施工进行得比较顺利，因此该工作提前结束。","powerOffId":"2019060631020082"},{"poweroffId":2019060631020076,"sgpoweroffId":null,"subsName":"","lineName":"10kV星镇G082线","pubTranName":"星乐农居点10号公变,星乐农居点（北区）5号公变,星乐农居点（北区）6号公变,","scope":"浙江省杭州市余杭区星桥街道：星乐农居点小区一带。","startTime":"2019-06-21 08:30:00","stopDate":"2019-06-21 17:00:00","orgNo":"3340140","typeCode":"计划停电","poweroffArea":"110kV星桥变:星乐农居点9#站9#变-5#变联线。","poweroffReason":"2019年杭州余杭星桥地区万乐社区等配变台区改造工程：星乐农居点5#变美变换630kVA欧变。","powerTime":"2019-06-21 16:01:28","powerComm":"施工结束","subsNo":"","lineNo":"","tgNo":"","tgName":null,"infoStatus":"1","orgName":"国网浙江杭州市余杭区供电有限公司","typeName":null,"infoStatusName":null,"dateDay":null,"orgNos":null,"nowTime":null,"countyName":null,"streetName":null,"villageName":null,"roadName":null,"communityName":null,"tranName":null,"sdLineName":null,"cityCode":"3340140","cityName":"国网浙江杭州市余杭区供电有限公司","provinceCode":null,"stopTime":"2019-06-21 17:00:00","powerType":"全部","powerOffArea":"110kV星桥变:星乐农居点9#站9#变-5#变联线。","powerOffReason":"2019年杭州余杭星桥地区万乐社区等配变台区改造工程：星乐农居点5#变美变换630kVA欧变。","powerOffId":"2019060631020076"},{"poweroffId":2019060631020075,"sgpoweroffId":null,"subsName":"","lineName":"10kV名都G614线","pubTranName":"城建站西路路灯变,星河南路路灯变,余杭城市建设集团有限公司5#变压器,","scope":"浙江省杭州市余杭区南苑街道：城建站西路路灯、星河南路路灯、城建东湖北闸站一带","startTime":"2019-06-21 08:30:00","stopDate":"2019-06-21 17:00:00","orgNo":"3340140","typeCode":"计划停电","poweroffArea":"110kV艺尚变:文艺开关站艺西G614D线。","poweroffReason":"东湖周边地块10KV进线及开闭所工程：艺西G614D线电缆开口环入新上文艺2#开关站II段。","powerTime":"2019-06-21 16:38:27","powerComm":"施工结束","subsNo":"","lineNo":"","tgNo":"","tgName":null,"infoStatus":"1","orgName":"国网浙江杭州市余杭区供电有限公司","typeName":null,"infoStatusName":null,"dateDay":null,"orgNos":null,"nowTime":null,"countyName":null,"streetName":null,"villageName":null,"roadName":null,"communityName":null,"tranName":null,"sdLineName":null,"cityCode":"3340140","cityName":"国网浙江杭州市余杭区供电有限公司","provinceCode":null,"stopTime":"2019-06-21 17:00:00","powerType":"全部","powerOffArea":"110kV艺尚变:文艺开关站艺西G614D线。","powerOffReason":"东湖周边地块10KV进线及开闭所工程：艺西G614D线电缆开口环入新上文艺2#开关站II段。","powerOffId":"2019060631020075"},{"poweroffId":2019060631020074,"sgpoweroffId":null,"subsName":"","lineName":"10kV洛山G259线","pubTranName":"花园雅居1#公变,花园雅居7#公变,花园村长坝儿公变,双陈村钮家塘1#公变,花园村计家斗公变,花园雅居6#公变,花园村计介斗北公变,花园村马庄桥公变,花园雅居3#公变,花园村计家斗东公变,花园村新科圩公变,宏熹布业,花园村长坝儿中公变,花园雅居4#公变,花园村杨介斗公变,花园村长坝儿2#公变,花园村河金坝公变,花园村夏介桥公变,花园村计家斗北2号公变,花园村下星桥北公变,花园村马介圩公变,杭州市余杭区人民政府仁和街道办事处612084954901#专变,多层公寓建设管理中心变压器2,花园雅居5#公变,花园村长坝儿北公变,杭州市余杭区人民政府仁和街道办事处612084005601#专变,杭州市余杭区人民政府仁和街道办事处612084005601#专变,花园村计林公变,花园村河儿塘公变,花园村杨家斗东公变,花园雅居2#公变,花园雅居8#公变,仁和镇花园村马口闸站,","scope":"浙江省杭州市余杭区仁和街道：双陈村钮家塘、花园雅居、花园村计家斗、花园村计介斗北、花园村计家斗东、花园村计林、花园村长坝儿中、花园村长坝儿、花园村长坝儿北、花园村计家斗北、花园村马介圩、花园村新科圩、花园村杨家斗东、花园村夏介桥，花园村马庄桥、花园村杨介斗、花园村河金坝、花园村河儿塘、花园村下星桥北、杭州市余杭区人民政府仁和街道办事处（双陈村小学）、杭州市余杭区人民政府仁和街道办事处（双陈村幼儿园）、仁和镇花园村马口闸站、杭州宏熹布艺有限公司一带","startTime":"2019-06-24 07:20:00","stopDate":"2019-06-24 13:20:00","orgNo":"3340140","typeCode":"计划停电","poweroffArea":"110kV仁镇变:洛山G259线云和环网站I段云花分线","poweroffReason":"业扩工程：余杭水务控股集团有限公司管路建设迁改工程：拆除洛山G259线云花分线2号杆，新立15米电杆1基,新放JKLYJ-10-240导线两档","powerTime":"2019-06-24 12:55:17","powerComm":"已送电","subsNo":"","lineNo":"","tgNo":"","tgName":null,"infoStatus":"1","orgName":"国网浙江杭州市余杭区供电有限公司","typeName":null,"infoStatusName":null,"dateDay":null,"orgNos":null,"nowTime":null,"countyName":null,"streetName":null,"villageName":null,"roadName":null,"communityName":null,"tranName":null,"sdLineName":null,"cityCode":"3340140","cityName":"国网浙江杭州市余杭区供电有限公司","provinceCode":null,"stopTime":"2019-06-24 13:20:00","powerType":"全部","powerOffArea":"110kV仁镇变:洛山G259线云和环网站I段云花分线","powerOffReason":"业扩工程：余杭水务控股集团有限公司管路建设迁改工程：拆除洛山G259线云花分线2号杆，新立15米电杆1基,新放JKLYJ-10-240导线两档","powerOffId":"2019060631020074"},{"poweroffId":2019060631020073,"sgpoweroffId":null,"subsName":"","lineName":"10kV石大G919线","pubTranName":"杭州宝轩贸易,","scope":"浙江省杭州市余杭区乔司街道：杭州宝轩贸易公司一带","startTime":"2019-06-20 09:10:00","stopDate":"2019-06-20 17:00:00","orgNo":"3340140","typeCode":"计划停电","poweroffArea":"110kV庙港变:水西1组站石大G919线杭州宝轩贸易分线。","poweroffReason":"2019年杭州余杭南苑地区万常社区等配变台区改造工程：新布水西1组2#变400kVA。 原停电开始时间09：00，由于天气下雨原因，无法准时开始施工，现变更停电开始时间09：10。","powerTime":"2019-06-20 16:19:16","powerComm":"施工结束。","subsNo":"","lineNo":"","tgNo":"","tgName":null,"infoStatus":"1","orgName":"国网浙江杭州市余杭区供电有限公司","typeName":null,"infoStatusName":null,"dateDay":null,"orgNos":null,"nowTime":null,"countyName":null,"streetName":null,"villageName":null,"roadName":null,"communityName":null,"tranName":null,"sdLineName":null,"cityCode":"3340140","cityName":"国网浙江杭州市余杭区供电有限公司","provinceCode":null,"stopTime":"2019-06-20 17:00:00","powerType":"全部","powerOffArea":"110kV庙港变:水西1组站石大G919线杭州宝轩贸易分线。","powerOffReason":"2019年杭州余杭南苑地区万常社区等配变台区改造工程：新布水西1组2#变400kVA。 原停电开始时间09：00，由于天气下雨原因，无法准时开始施工，现变更停电开始时间09：10。","powerOffId":"2019060631020073"},{"poweroffId":2019060631020072,"sgpoweroffId":null,"subsName":"","lineName":"10kV三桥G652线","pubTranName":"玉良塑料,新东湖5组公变,东湖5组（昌蒲墩）公变,长树3组（杨家塘）1号公变,东湖7组3号公变,东湖10组（昌蒲墩）公变,长树水产养殖2号公变,长树3组（杨家塘）2号公变,东湖7组(篮隆里)2号公变,人民路东延变,东湖5组（里家角）公变,长树水产养殖1号公变,东湖6组（和平机埠）公变,东湖7组(篮隆里)1号公变,长树4组（南堰街）2号公变,临平环卫所,东湖5组（里家角）2号公变,长树4组（南堰街）公变,","scope":"浙江省杭州市余杭区南苑街道：长树村3组、长树村4组、东湖村5组、东湖村6组、东湖村7组、东湖村10组、玉良塑料厂、东湖环卫所、长树水产养殖、人民路东延路灯一带","startTime":"2019-06-20 08:30:00","stopDate":"2019-06-20 12:00:00","orgNo":"3340140","typeCode":"计划停电","poweroffArea":"110kV南苑变:民东开关站三桥G652线和平分线。","poweroffReason":"2019年杭州余杭南苑10千伏三桥二线至水漾人家等小区新建工程：民东开关站负荷割接。 原停电结束时间14：00，因检修力量充足，提前完成工作任务，现变更停电结束时间12：00。","powerTime":"2019-06-20 11:22:21","powerComm":"施工结束。","subsNo":"","lineNo":"","tgNo":"","tgName":null,"infoStatus":"1","orgName":"国网浙江杭州市余杭区供电有限公司","typeName":null,"infoStatusName":null,"dateDay":null,"orgNos":null,"nowTime":null,"countyName":null,"streetName":null,"villageName":null,"roadName":null,"communityName":null,"tranName":null,"sdLineName":null,"cityCode":"3340140","cityName":"国网浙江杭州市余杭区供电有限公司","provinceCode":null,"stopTime":"2019-06-20 12:00:00","powerType":"全部","powerOffArea":"110kV南苑变:民东开关站三桥G652线和平分线。","powerOffReason":"2019年杭州余杭南苑10千伏三桥二线至水漾人家等小区新建工程：民东开关站负荷割接。 原停电结束时间14：00，因检修力量充足，提前完成工作任务，现变更停电结束时间12：00。","powerOffId":"2019060631020072"},{"poweroffId":2019060631020070,"sgpoweroffId":null,"subsName":"","lineName":"10kV禾丰G167线","pubTranName":"杭州销颖房地产开发有限公司,杭州销颖房地产开发有限公司,杭州销颖房地产开发有限公司,销颖房产基建变2#,销颖房产基建变1#,销颖房产基建变3#,","scope":"浙江省杭州市余杭区东湖街道：销颖房产公司一带","startTime":"2019-06-19 12:00:00","stopDate":"2019-06-19 17:00:00","orgNo":"3340140","typeCode":"计划停电","poweroffArea":"110kV丘山变:禾丰G167线-销颖房产基建变分线开关后段","poweroffReason":"销颖房产用户内部电缆移位","powerTime":"2019-06-19 16:11:23","powerComm":"完成工作，已送电。","subsNo":"","lineNo":"","tgNo":"","tgName":null,"infoStatus":"1","orgName":"国网浙江杭州市余杭区供电有限公司","typeName":null,"infoStatusName":null,"dateDay":null,"orgNos":null,"nowTime":null,"countyName":null,"streetName":null,"villageName":null,"roadName":null,"communityName":null,"tranName":null,"sdLineName":null,"cityCode":"3340140","cityName":"国网浙江杭州市余杭区供电有限公司","provinceCode":null,"stopTime":"2019-06-19 17:00:00","powerType":"全部","powerOffArea":"110kV丘山变:禾丰G167线-销颖房产基建变分线开关后段","powerOffReason":"销颖房产用户内部电缆移位","powerOffId":"2019060631020070"},{"poweroffId":2019060631020069,"sgpoweroffId":null,"subsName":"","lineName":"10kV世工H366线","pubTranName":"杜甫村章村塘公变,","scope":"浙江省杭州市余杭区良渚街道：章村塘村一带","startTime":"2019-07-05 08:40:00","stopDate":"2019-07-05 15:40:00","orgNo":"3340140","typeCode":"计划停电","poweroffArea":"110kV学里变:世工H366线-章村塘分线14号杆跌落式熔断器后段","poweroffReason":"世工H366线章村塘分线线路改造（章村塘分线杜甫村章村塘公变315增容630kVA杆上变）","powerTime":"2019-07-05 15:20:33","powerComm":"已送电","subsNo":"","lineNo":"","tgNo":"","tgName":null,"infoStatus":"1","orgName":"国网浙江杭州市余杭区供电有限公司","typeName":null,"infoStatusName":null,"dateDay":null,"orgNos":null,"nowTime":null,"countyName":null,"streetName":null,"villageName":null,"roadName":null,"communityName":null,"tranName":null,"sdLineName":null,"cityCode":"3340140","cityName":"国网浙江杭州市余杭区供电有限公司","provinceCode":null,"stopTime":"2019-07-05 15:40:00","powerType":"全部","powerOffArea":"110kV学里变:世工H366线-章村塘分线14号杆跌落式熔断器后段","powerOffReason":"世工H366线章村塘分线线路改造（章村塘分线杜甫村章村塘公变315增容630kVA杆上变）","powerOffId":"2019060631020069"}],"pageModel":{"pageNow":1607,"totalCount":17789,"totalPage":1779,"tableRows":0,"pageCount":10,"beginCount":16060},"isExperi":"1"}