{"message":"","today":"2020-06-16","seleList":[{"poweroffId":2019060631020055,"sgpoweroffId":null,"subsName":"","lineName":"10kV网琪H785线","pubTranName":"苕溪村宇家塘公变,刀毛弄,苕溪村闻家斗,苕溪村闻家斗2号公变,苕溪村沙河桥公变,苕溪村九莲池北公变,苕溪村沙河桥东公变,","scope":"浙江省杭州市余杭区仓前街道：苕溪村宇家塘、九莲池北、闻家斗、闻家斗2号、刀毛弄、沙河桥、沙河桥东一带","startTime":"2019-06-17 08:30:00","stopDate":"2019-06-17 17:30:00","orgNo":"3340140","typeCode":"计划停电","poweroffArea":"网琪H785线闻家斗分线","poweroffReason":"配网工程（2019年杭州余杭科技城10千伏吴山二线、网琪二线新建工程）：新放JKLYJ-10-1*240绝缘导线1档、新立15米电杆1基、更换导线10档、闻家斗分线改接至网琪二线。","powerTime":"2019-06-17 16:49:03","powerComm":"已送电","subsNo":"","lineNo":"","tgNo":"","tgName":null,"infoStatus":"1","orgName":"国网浙江杭州市余杭区供电有限公司","typeName":null,"infoStatusName":null,"dateDay":null,"orgNos":null,"nowTime":null,"countyName":null,"streetName":null,"villageName":null,"roadName":null,"communityName":null,"tranName":null,"sdLineName":null,"cityCode":"3340140","cityName":"国网浙江杭州市余杭区供电有限公司","provinceCode":null,"stopTime":"2019-06-17 17:30:00","powerType":"全部","powerOffArea":"网琪H785线闻家斗分线","powerOffReason":"配网工程（2019年杭州余杭科技城10千伏吴山二线、网琪二线新建工程）：新放JKLYJ-10-1*240绝缘导线1档、新立15米电杆1基、更换导线10档、闻家斗分线改接至网琪二线。","powerOffId":"2019060631020055"},{"poweroffId":2019060631020054,"sgpoweroffId":null,"subsName":"","lineName":"10kV南蒋G905线","pubTranName":"南蒋5组2号公变,南蒋4组5号公变,南蒋6组公变,南蒋5组3号公变,南蒋5组公变,南蒋5组4号公变,南蒋6组2号公变,","scope":"浙江省杭州市余杭区乔司街道：南蒋村5组、南蒋村6组一带","startTime":"2019-06-17 08:30:00","stopDate":"2019-06-17 15:30:00","orgNo":"3340140","typeCode":"计划停电","poweroffArea":"110kV庙港变:水高G9053线G90531开关至高埂92430开关。","poweroffReason":"南蒋5组变增至400kVA。 原停电结束时间17：00，因检修力量充足，提前完成工作任务，现变更停电结束时间15：30。","powerTime":"2019-06-17 14:47:26","powerComm":"施工结束。","subsNo":"","lineNo":"","tgNo":"","tgName":null,"infoStatus":"1","orgName":"国网浙江杭州市余杭区供电有限公司","typeName":null,"infoStatusName":null,"dateDay":null,"orgNos":null,"nowTime":null,"countyName":null,"streetName":null,"villageName":null,"roadName":null,"communityName":null,"tranName":null,"sdLineName":null,"cityCode":"3340140","cityName":"国网浙江杭州市余杭区供电有限公司","provinceCode":null,"stopTime":"2019-06-17 15:30:00","powerType":"全部","powerOffArea":"110kV庙港变:水高G9053线G90531开关至高埂92430开关。","powerOffReason":"南蒋5组变增至400kVA。 原停电结束时间17：00，因检修力量充足，提前完成工作任务，现变更停电结束时间15：30。","powerOffId":"2019060631020054"},{"poweroffId":2019060631020052,"sgpoweroffId":null,"subsName":"","lineName":"10kV西山G257线","pubTranName":"花园村河金坝西公变,花园村胡金坝北公变,东山村豆腐桥东公变,","scope":"浙江省杭州市余杭区仁和街道：东山村豆腐桥东、花园村河金坝西、花园村胡金坝北一带","startTime":"2019-06-17 08:20:00","stopDate":"2019-06-17 13:30:00","orgNo":"3340140","typeCode":"计划停电","poweroffArea":"110kV仁镇变:西山G257线河经坝分线","poweroffReason":"业扩工程：花园村经济股份合作社新上1台250KVA配变工程：新装开关1台，过渡装置1套，新上电缆1根并搭接。","powerTime":"2019-06-17 12:39:05","powerComm":"已送电","subsNo":"","lineNo":"","tgNo":"","tgName":null,"infoStatus":"1","orgName":"国网浙江杭州市余杭区供电有限公司","typeName":null,"infoStatusName":null,"dateDay":null,"orgNos":null,"nowTime":null,"countyName":null,"streetName":null,"villageName":null,"roadName":null,"communityName":null,"tranName":null,"sdLineName":null,"cityCode":"3340140","cityName":"国网浙江杭州市余杭区供电有限公司","provinceCode":null,"stopTime":"2019-06-17 13:30:00","powerType":"全部","powerOffArea":"110kV仁镇变:西山G257线河经坝分线","powerOffReason":"业扩工程：花园村经济股份合作社新上1台250KVA配变工程：新装开关1台，过渡装置1套，新上电缆1根并搭接。","powerOffId":"2019060631020052"},{"poweroffId":2019060631020048,"sgpoweroffId":null,"subsName":"","lineName":"10kV兴中G822线","pubTranName":"凯达电力建设公交充电桩II段（6120702480）7#变,凯达电力建设公交充电桩II段（6120702480）8#变,客运公交公司,凯达电力建设公交充电桩II段（6120702480）5#变,凯达电力建设公交充电桩II段（6120702480）6#变,","scope":"浙江省杭州市余杭区东湖街道:客运公交公司、杭州凯达电力建设有限公司(充电桩项目）一带","startTime":"2019-06-18 08:00:00","stopDate":"2019-06-18 16:00:00","orgNo":"3340140","typeCode":"计划停电","poweroffArea":"110kV建富变:兴中G822线-兴中822线后段","poweroffReason":"停保开关站II段拼柜一台","powerTime":"2019-06-18 15:25:17","powerComm":"完成工作","subsNo":"","lineNo":"","tgNo":"","tgName":null,"infoStatus":"1","orgName":"国网浙江杭州市余杭区供电有限公司","typeName":null,"infoStatusName":null,"dateDay":null,"orgNos":null,"nowTime":null,"countyName":null,"streetName":null,"villageName":null,"roadName":null,"communityName":null,"tranName":null,"sdLineName":null,"cityCode":"3340140","cityName":"国网浙江杭州市余杭区供电有限公司","provinceCode":null,"stopTime":"2019-06-18 16:00:00","powerType":"全部","powerOffArea":"110kV建富变:兴中G822线-兴中822线后段","powerOffReason":"停保开关站II段拼柜一台","powerOffId":"2019060631020048"},{"poweroffId":2019060631020047,"sgpoweroffId":null,"subsName":"","lineName":"10kV西周C950线","pubTranName":"新联村6#变,新联村7#变,浙江斯凯福汽车零部件有限公司1#,杭州旭烈电机有限公司,萧山区临浦镇第二小学,浦二村8#变,新联村9#变,浙江斯凯福汽车零部件有限公司2#,","scope":"浙江省-杭州市-萧山区-临浦镇(新联行政村-塘头钟自然村,浦二行政村-钟家坦自然村);浙江省-杭州市-萧山区-临浦镇-浦二行政村-杭州旭烈电机有限公司,临浦镇-新联行政村(杭州市萧山区临浦镇人民政府,浙江斯凯福汽车零部件有限公司)","startTime":"2019-06-17 08:30:00","stopDate":"2019-06-17 15:30:00","orgNo":"3340130","typeCode":"计划停电","poweroffArea":"110kV永兴变:西周C950线-西周C950线临浦二小分线开关后段","poweroffReason":"线路迁改","powerTime":"2019-06-17 15:12:50","powerComm":"已送电","subsNo":"","lineNo":"","tgNo":"","tgName":null,"infoStatus":"1","orgName":"国网浙江杭州市萧山区供电有限公司","typeName":null,"infoStatusName":null,"dateDay":null,"orgNos":null,"nowTime":null,"countyName":null,"streetName":null,"villageName":null,"roadName":null,"communityName":null,"tranName":null,"sdLineName":null,"cityCode":"3340130","cityName":"国网浙江杭州市萧山区供电有限公司","provinceCode":null,"stopTime":"2019-06-17 15:30:00","powerType":"全部","powerOffArea":"110kV永兴变:西周C950线-西周C950线临浦二小分线开关后段","powerOffReason":"线路迁改","powerOffId":"2019060631020047"},{"poweroffId":2019060631020046,"sgpoweroffId":null,"subsName":"","lineName":"10kV公交G810线","pubTranName":"客运公交公司,","scope":"浙江省杭州市余杭区东湖街道：客运公交公司一带","startTime":"2019-06-17 08:00:00","stopDate":"2019-06-17 19:00:00","orgNo":"3340140","typeCode":"计划停电","poweroffArea":"110kV建富变:公交G810线-公交810线后段 因施工力量充足，原计划送电时间2019-06-17 20:00:00更改为2019-06-17 19:00:00","poweroffReason":"停保开关站I段拼柜一台 因施工力量充足，原计划送电时间2019-06-17 20:00:00更改为2019-06-17 19:00:00","powerTime":"2019-06-17 18:03:00","powerComm":"工作完成","subsNo":"","lineNo":"","tgNo":"","tgName":null,"infoStatus":"1","orgName":"国网浙江杭州市余杭区供电有限公司","typeName":null,"infoStatusName":null,"dateDay":null,"orgNos":null,"nowTime":null,"countyName":null,"streetName":null,"villageName":null,"roadName":null,"communityName":null,"tranName":null,"sdLineName":null,"cityCode":"3340140","cityName":"国网浙江杭州市余杭区供电有限公司","provinceCode":null,"stopTime":"2019-06-17 19:00:00","powerType":"全部","powerOffArea":"110kV建富变:公交G810线-公交810线后段 因施工力量充足，原计划送电时间2019-06-17 20:00:00更改为2019-06-17 19:00:00","powerOffReason":"停保开关站I段拼柜一台 因施工力量充足，原计划送电时间2019-06-17 20:00:00更改为2019-06-17 19:00:00","powerOffId":"2019060631020046"},{"poweroffId":2019060631020030,"sgpoweroffId":null,"subsName":"","lineName":"10kV水漾351线","pubTranName":"直箭道一变,","scope":"浙江省杭州市上城区直箭道巷1—4幢、甘肃省人民政府驻浙江办事处、沈阳机床厂附近一带","startTime":"2019-06-20 10:30:00","stopDate":"2019-06-20 14:10:00","orgNo":"3340101","typeCode":"计划停电","poweroffArea":"110kV滨江变:水漾351线-直箭道一变后段","poweroffReason":"原停电结束时间17:00，变更停电结束时间14:10，原因由于施工现场环境比较复杂，存在不确定因素，因此预估施工时间适当放长了，而实际施工进行得比较顺利，因此该工作提前结束。","powerTime":"2019-06-20 13:52:59","powerComm":"已送电","subsNo":"","lineNo":"","tgNo":"","tgName":null,"infoStatus":"1","orgName":"浙江杭州电力客户服务中心","typeName":null,"infoStatusName":null,"dateDay":null,"orgNos":null,"nowTime":null,"countyName":null,"streetName":null,"villageName":null,"roadName":null,"communityName":null,"tranName":null,"sdLineName":null,"cityCode":"3340101","cityName":"浙江杭州电力客户服务中心","provinceCode":null,"stopTime":"2019-06-20 14:10:00","powerType":"全部","powerOffArea":"110kV滨江变:水漾351线-直箭道一变后段","powerOffReason":"原停电结束时间17:00，变更停电结束时间14:10，原因由于施工现场环境比较复杂，存在不确定因素，因此预估施工时间适当放长了，而实际施工进行得比较顺利，因此该工作提前结束。","powerOffId":"2019060631020030"},{"poweroffId":2019060631020029,"sgpoweroffId":null,"subsName":"","lineName":"10kV云锦6445线","pubTranName":"锦园一变,","scope":"浙江省杭州市下城区锦园9幢28号至31号附近一带。锦园10幢32号、锦园18幢57号、锦园7幢23号至26号、洗衣店。锦园5幢18号、锦园8幢27号附近一带","startTime":"2019-06-19 09:30:00","stopDate":"2019-06-19 12:50:00","orgNo":"3340101","typeCode":"计划停电","poweroffArea":"110kV新华变:云锦6445线-锦园一变后段","poweroffReason":"原停电结束时间17:00，变更停电结束时间12:50，原因由于施工现场环境比较复杂，存在不确定因素，因此预估施工时间适当放长了，而实际施工进行得比较顺利，因此该工作提前结束。","powerTime":"2019-06-19 11:59:59","powerComm":"已送电","subsNo":"","lineNo":"","tgNo":"","tgName":null,"infoStatus":"1","orgName":"浙江杭州电力客户服务中心","typeName":null,"infoStatusName":null,"dateDay":null,"orgNos":null,"nowTime":null,"countyName":null,"streetName":null,"villageName":null,"roadName":null,"communityName":null,"tranName":null,"sdLineName":null,"cityCode":"3340101","cityName":"浙江杭州电力客户服务中心","provinceCode":null,"stopTime":"2019-06-19 12:50:00","powerType":"全部","powerOffArea":"110kV新华变:云锦6445线-锦园一变后段","powerOffReason":"原停电结束时间17:00，变更停电结束时间12:50，原因由于施工现场环境比较复杂，存在不确定因素，因此预估施工时间适当放长了，而实际施工进行得比较顺利，因此该工作提前结束。","powerOffId":"2019060631020029"},{"poweroffId":2019060631020028,"sgpoweroffId":null,"subsName":"","lineName":"10kV御街843线","pubTranName":"汤团变,","scope":"浙江省杭州市上城区中山中路380号，光复路164—172号、182—186号附近一带","startTime":"2019-06-19 09:30:00","stopDate":"2019-06-19 12:00:00","orgNo":"3340101","typeCode":"计划停电","poweroffArea":"110kV涌金变:御街843线-汤团变后段","poweroffReason":"原停电结束时间17:00，变更停电结束时间12:00，原因由于施工现场环境比较复杂，存在不确定因素，因此预估施工时间适当放长了，而实际施工进行得比较顺利，因此该工作提前结束。","powerTime":"2019-06-19 11:15:59","powerComm":"已送电","subsNo":"","lineNo":"","tgNo":"","tgName":null,"infoStatus":"1","orgName":"浙江杭州电力客户服务中心","typeName":null,"infoStatusName":null,"dateDay":null,"orgNos":null,"nowTime":null,"countyName":null,"streetName":null,"villageName":null,"roadName":null,"communityName":null,"tranName":null,"sdLineName":null,"cityCode":"3340101","cityName":"浙江杭州电力客户服务中心","provinceCode":null,"stopTime":"2019-06-19 12:00:00","powerType":"全部","powerOffArea":"110kV涌金变:御街843线-汤团变后段","powerOffReason":"原停电结束时间17:00，变更停电结束时间12:00，原因由于施工现场环境比较复杂，存在不确定因素，因此预估施工时间适当放长了，而实际施工进行得比较顺利，因此该工作提前结束。","powerOffId":"2019060631020028"},{"poweroffId":2019060631020027,"sgpoweroffId":null,"subsName":"","lineName":"10kV凯旋8030线","pubTranName":"浙江省送变电工程公司1,中国能源建设集团浙江火电建设有限公司,火电二,采宾,","scope":"浙江省杭州市江干区采宾用户、火电用户、浙安二用户、杭州市江干区庆春东路省火电建设公司商场及宿舍附近一带","startTime":"2019-06-18 12:00:00","stopDate":"2019-06-18 13:30:00","orgNo":"3340101","typeCode":"计划停电","poweroffArea":"110kV庆春变:凯旋8030线-火电分线后段","poweroffReason":"原停电结束时间17:00，变更停电结束时间13:30，原因由于施工现场环境比较复杂，存在不确定因素，因此预估施工时间适当放长了，而实际施工进行得比较顺利，因此该工作提前结束。","powerTime":"2019-06-18 12:37:59","powerComm":"已送电","subsNo":"","lineNo":"","tgNo":"","tgName":null,"infoStatus":"1","orgName":"浙江杭州电力客户服务中心","typeName":null,"infoStatusName":null,"dateDay":null,"orgNos":null,"nowTime":null,"countyName":null,"streetName":null,"villageName":null,"roadName":null,"communityName":null,"tranName":null,"sdLineName":null,"cityCode":"3340101","cityName":"浙江杭州电力客户服务中心","provinceCode":null,"stopTime":"2019-06-18 13:30:00","powerType":"全部","powerOffArea":"110kV庆春变:凯旋8030线-火电分线后段","powerOffReason":"原停电结束时间17:00，变更停电结束时间13:30，原因由于施工现场环境比较复杂，存在不确定因素，因此预估施工时间适当放长了，而实际施工进行得比较顺利，因此该工作提前结束。","powerOffId":"2019060631020027"}],"pageModel":{"pageNow":1609,"totalCount":17789,"totalPage":1779,"tableRows":0,"pageCount":10,"beginCount":16080},"isExperi":"1"}