{"message":"","today":"2020-06-16","seleList":[{"poweroffId":2019060631010457,"sgpoweroffId":null,"subsName":"","lineName":"10kV万市D338线","pubTranName":"万市集镇4#龙丘公变,","scope":"浙江省-杭州市-富阳区-万市镇(万市行政村-大坞里自然村、古城路自然村、古田路自然村、田圆路自然村、万市路自然村、西门北路自然村、西门路自然村)万市行政村龙丘自然村一带","startTime":"2019-06-20 12:50:00","stopDate":"2019-06-20 17:00:00","orgNo":"3340170","typeCode":"计划停电","poweroffArea":"110kV万市变万市D338线万市集镇4号龙丘公变后段","poweroffReason":"照明02线2#杆后段人工及吊车拔杆12米1支拆除旧横担1付、更换接户线BS-JKLYJ-4*35*50米、BS-JKLYJ-2*25*100米、搭接1处等工作（旁站监理）","powerTime":"2019-06-20 16:46:07","powerComm":"已送电","subsNo":"","lineNo":"","tgNo":"","tgName":null,"infoStatus":"1","orgName":"国网浙江杭州市富阳区供电公司","typeName":null,"infoStatusName":null,"dateDay":null,"orgNos":null,"nowTime":null,"countyName":null,"streetName":null,"villageName":null,"roadName":null,"communityName":null,"tranName":null,"sdLineName":null,"cityCode":"3340170","cityName":"国网浙江杭州市富阳区供电公司","provinceCode":null,"stopTime":"2019-06-20 17:00:00","powerType":"全部","powerOffArea":"110kV万市变万市D338线万市集镇4号龙丘公变后段","powerOffReason":"照明02线2#杆后段人工及吊车拔杆12米1支拆除旧横担1付、更换接户线BS-JKLYJ-4*35*50米、BS-JKLYJ-2*25*100米、搭接1处等工作（旁站监理）","powerOffId":"2019060631010457"},{"poweroffId":2019060631010456,"sgpoweroffId":null,"subsName":"","lineName":"10kV联安D565线","pubTranName":"联安11号公变间隔变压器,","scope":"浙江省杭州市富阳区富春街道三联村三联嘉苑小区一带","startTime":"2019-06-20 09:00:00","stopDate":"2019-06-20 10:20:00","orgNo":"3340170","typeCode":"计划停电","poweroffArea":"110kV高桥变:联安D565线-联安11号后段","poweroffReason":"联安11号公变低压储能开关缺陷处理","powerTime":"2019-06-20 10:10:52","powerComm":"已送电","subsNo":"","lineNo":"","tgNo":"","tgName":null,"infoStatus":"1","orgName":"国网浙江杭州市富阳区供电公司","typeName":null,"infoStatusName":null,"dateDay":null,"orgNos":null,"nowTime":null,"countyName":null,"streetName":null,"villageName":null,"roadName":null,"communityName":null,"tranName":null,"sdLineName":null,"cityCode":"3340170","cityName":"国网浙江杭州市富阳区供电公司","provinceCode":null,"stopTime":"2019-06-20 10:20:00","powerType":"全部","powerOffArea":"110kV高桥变:联安D565线-联安11号后段","powerOffReason":"联安11号公变低压储能开关缺陷处理","powerOffId":"2019060631010456"},{"poweroffId":2019060631010451,"sgpoweroffId":null,"subsName":"","lineName":"10kV万市D338线","pubTranName":"万市集镇8#镇头桥公变,","scope":"浙江省-杭州市-富阳区-万市镇(万市行政村-枫树岭自然村、花家自然村、骆家自然村、上陈家自然村、下陈家自然村、镇头自然村)万市行政村镇头桥自然村一带","startTime":"2019-06-20 07:50:00","stopDate":"2019-06-20 11:00:00","orgNo":"3340170","typeCode":"计划停电","poweroffArea":"110kV万市变万市D338线万市集镇8号镇头桥公变后段","poweroffReason":"照明01线6#杆后段人工运杆12米1支、安装横担1付、抱箍1付、拉线1组、拆装JKLYJ-120*4*2档、搭接1处等工作（旁站监理）","powerTime":"2019-06-20 10:50:18","powerComm":"已送电","subsNo":"","lineNo":"","tgNo":"","tgName":null,"infoStatus":"1","orgName":"国网浙江杭州市富阳区供电公司","typeName":null,"infoStatusName":null,"dateDay":null,"orgNos":null,"nowTime":null,"countyName":null,"streetName":null,"villageName":null,"roadName":null,"communityName":null,"tranName":null,"sdLineName":null,"cityCode":"3340170","cityName":"国网浙江杭州市富阳区供电公司","provinceCode":null,"stopTime":"2019-06-20 11:00:00","powerType":"全部","powerOffArea":"110kV万市变万市D338线万市集镇8号镇头桥公变后段","powerOffReason":"照明01线6#杆后段人工运杆12米1支、安装横担1付、抱箍1付、拉线1组、拆装JKLYJ-120*4*2档、搭接1处等工作（旁站监理）","powerOffId":"2019060631010451"},{"poweroffId":2019060631010447,"sgpoweroffId":null,"subsName":"","lineName":"10kV青何D731线","pubTranName":"唐昌村青山2#楼家公变,","scope":"浙江省杭州市富阳区永昌镇唐昌行政村楼家自然村一带","startTime":"2019-06-20 07:30:00","stopDate":"2019-06-20 17:30:00","orgNo":"3340170","typeCode":"计划停电","poweroffArea":"110kV松溪变:青何D731线-唐昌村青山2#楼家公变后段","poweroffReason":"楼家03线、楼家04线更换横担18付、拉线4付、拆装导线JKLYJ-120*4*15档、JKLYJ-70*4*2档、拆JKLYJ-35*4*1档、架JKLYJ-70*4*1档、更换电缆VLV-120*4*4路、安装YJV22-4*150*4路、搭接导线（旁站监理）","powerTime":"2019-06-20 17:20:01","powerComm":"已送电","subsNo":"","lineNo":"","tgNo":"","tgName":null,"infoStatus":"1","orgName":"国网浙江杭州市富阳区供电公司","typeName":null,"infoStatusName":null,"dateDay":null,"orgNos":null,"nowTime":null,"countyName":null,"streetName":null,"villageName":null,"roadName":null,"communityName":null,"tranName":null,"sdLineName":null,"cityCode":"3340170","cityName":"国网浙江杭州市富阳区供电公司","provinceCode":null,"stopTime":"2019-06-20 17:30:00","powerType":"全部","powerOffArea":"110kV松溪变:青何D731线-唐昌村青山2#楼家公变后段","powerOffReason":"楼家03线、楼家04线更换横担18付、拉线4付、拆装导线JKLYJ-120*4*15档、JKLYJ-70*4*2档、拆JKLYJ-35*4*1档、架JKLYJ-70*4*1档、更换电缆VLV-120*4*4路、安装YJV22-4*150*4路、搭接导线（旁站监理）","powerOffId":"2019060631010447"},{"poweroffId":2019060631010441,"sgpoweroffId":null,"subsName":"","lineName":"10kV白石D640线","pubTranName":"浙江奔乐生物科技股份有限公司,洪家塘3#机米山公变,宋家溪2#学校公变,洪家塘4号冯家公变,洪家塘2#池塘公变,洪家塘1#球场公变,浙江奔乐生物科技股份有限公司,浙江奔乐生物科技股份有限公司,宋家溪1#公路公变,","scope":"浙江省-杭州市-富阳区-场口镇(洪家塘行政村-冯家自然村、洪家塘自然村,宋家溪行政村-宋家溪自然村);一带","startTime":"2019-06-21 08:30:00","stopDate":"2019-06-21 16:30:00","orgNo":"3340170","typeCode":"计划停电","poweroffArea":"110kV鸿丰变:白石D640线-白图联线后段","poweroffReason":"图山D502线175#杆-195#杆、白石D640线78#杆白图联线2#杆-25#杆单改双架设导线43档，敷设高压电缆1根，安装真空开关5台，电缆上杆搭接及线路搭接等工作","powerTime":"2019-06-21 16:15:25","powerComm":"已送电","subsNo":"","lineNo":"","tgNo":"","tgName":null,"infoStatus":"1","orgName":"国网浙江杭州市富阳区供电公司","typeName":null,"infoStatusName":null,"dateDay":null,"orgNos":null,"nowTime":null,"countyName":null,"streetName":null,"villageName":null,"roadName":null,"communityName":null,"tranName":null,"sdLineName":null,"cityCode":"3340170","cityName":"国网浙江杭州市富阳区供电公司","provinceCode":null,"stopTime":"2019-06-21 16:30:00","powerType":"全部","powerOffArea":"110kV鸿丰变:白石D640线-白图联线后段","powerOffReason":"图山D502线175#杆-195#杆、白石D640线78#杆白图联线2#杆-25#杆单改双架设导线43档，敷设高压电缆1根，安装真空开关5台，电缆上杆搭接及线路搭接等工作","powerOffId":"2019060631010441"},{"poweroffId":2019060631010439,"sgpoweroffId":null,"subsName":"","lineName":"10kV龙门D787线","pubTranName":"龙门七村3号龙一村东公变,富阳官地纸制品有限公司,杭州富阳三星文体厂1#变,龙门七村8号龙一官地公变,","scope":"浙江省-杭州市-富阳区-龙门镇(龙门七村行政村-村东自然村);(杭州富阳官地纸制品有限公司,杭州富阳三星文体厂);一带","startTime":"2019-06-17 08:30:00","stopDate":"2019-06-17 23:00:00","orgNo":"3340170","typeCode":"计划停电","poweroffArea":"110kV王洲变:龙门D787线-龙门D787F开关后段","poweroffReason":"1、龙门D787线175#~180#杆拆除导线6档。2、10kV电缆头搭接2处，0.4kV电缆头搭接2处，3、立杆3支，新架导线3档。3、拆除旧杆1支，拆移真空开关1台等工作。原计划停电实结束时间为2019-06-17 16:30:00因系统原因变更至2019-06-17 23:00:00","powerTime":"2019-06-17 22:51:54","powerComm":"已送电","subsNo":"","lineNo":"","tgNo":"","tgName":null,"infoStatus":"1","orgName":"国网浙江杭州市富阳区供电公司","typeName":null,"infoStatusName":null,"dateDay":null,"orgNos":null,"nowTime":null,"countyName":null,"streetName":null,"villageName":null,"roadName":null,"communityName":null,"tranName":null,"sdLineName":null,"cityCode":"3340170","cityName":"国网浙江杭州市富阳区供电公司","provinceCode":null,"stopTime":"2019-06-17 23:00:00","powerType":"全部","powerOffArea":"110kV王洲变:龙门D787线-龙门D787F开关后段","powerOffReason":"1、龙门D787线175#~180#杆拆除导线6档。2、10kV电缆头搭接2处，0.4kV电缆头搭接2处，3、立杆3支，新架导线3档。3、拆除旧杆1支，拆移真空开关1台等工作。原计划停电实结束时间为2019-06-17 16:30:00因系统原因变更至2019-06-17 23:00:00","powerOffId":"2019060631010439"},{"poweroffId":2019060631010429,"sgpoweroffId":null,"subsName":"","lineName":"10kV罗宅D396线","pubTranName":"罗宅村4#客山坞公变,","scope":"浙江省-杭州市-富阳区-万市镇(罗宅行政村-白粉墙自然村、金沙滩自然村、客山坞自然村、夏叶坞自然村)罗宅行政村客山坞自然村一带","startTime":"2019-06-19 07:50:00","stopDate":"2019-06-19 17:00:00","orgNo":"3340170","typeCode":"计划停电","poweroffArea":"110kV万市变罗宅D396线罗宅村4号客山坞公变后段","poweroffReason":"杉树坞02线2#后段人工运杆12米3支、吊车立杆12米3支、安装横担3付、抱箍5付、拉线3组、新架JKLYJ-70*4*4档、拆除JKLYJ-70*4*4档、更换BS-JKLYJ-4*35*20M、BS-JKLYJ-2*25*35米、搭接5处等工作（旁站监理）","powerTime":"2019-06-19 16:49:00","powerComm":"已送电","subsNo":"","lineNo":"","tgNo":"","tgName":null,"infoStatus":"1","orgName":"国网浙江杭州市富阳区供电公司","typeName":null,"infoStatusName":null,"dateDay":null,"orgNos":null,"nowTime":null,"countyName":null,"streetName":null,"villageName":null,"roadName":null,"communityName":null,"tranName":null,"sdLineName":null,"cityCode":"3340170","cityName":"国网浙江杭州市富阳区供电公司","provinceCode":null,"stopTime":"2019-06-19 17:00:00","powerType":"全部","powerOffArea":"110kV万市变罗宅D396线罗宅村4号客山坞公变后段","powerOffReason":"杉树坞02线2#后段人工运杆12米3支、吊车立杆12米3支、安装横担3付、抱箍5付、拉线3组、新架JKLYJ-70*4*4档、拆除JKLYJ-70*4*4档、更换BS-JKLYJ-4*35*20M、BS-JKLYJ-2*25*35米、搭接5处等工作（旁站监理）","powerOffId":"2019060631010429"},{"poweroffId":2019060631010427,"sgpoweroffId":null,"subsName":"","lineName":"10kV青何D731线","pubTranName":"唐昌村青山2#楼家公变,","scope":"浙江省杭州市富阳区永昌镇唐昌行政村楼家自然村一带","startTime":"2019-06-19 07:30:00","stopDate":"2019-06-19 17:30:00","orgNo":"3340170","typeCode":"计划停电","poweroffArea":"110kV松溪变:青何D731线-唐昌村青山2#楼家公变后段","poweroffReason":"楼家01线、楼家02线更换横担17付、拉线5付、导线拆装JKLYJ-120*4*17档、落户线搭接、架设BS-JKLYJ-4*35*2档、拆BLV-2*10*2档（旁站监理）","powerTime":"2019-06-19 17:17:37","powerComm":"已送电","subsNo":"","lineNo":"","tgNo":"","tgName":null,"infoStatus":"1","orgName":"国网浙江杭州市富阳区供电公司","typeName":null,"infoStatusName":null,"dateDay":null,"orgNos":null,"nowTime":null,"countyName":null,"streetName":null,"villageName":null,"roadName":null,"communityName":null,"tranName":null,"sdLineName":null,"cityCode":"3340170","cityName":"国网浙江杭州市富阳区供电公司","provinceCode":null,"stopTime":"2019-06-19 17:30:00","powerType":"全部","powerOffArea":"110kV松溪变:青何D731线-唐昌村青山2#楼家公变后段","powerOffReason":"楼家01线、楼家02线更换横担17付、拉线5付、导线拆装JKLYJ-120*4*17档、落户线搭接、架设BS-JKLYJ-4*35*2档、拆BLV-2*10*2档（旁站监理）","powerOffId":"2019060631010427"},{"poweroffId":2019060631010403,"sgpoweroffId":null,"subsName":"","lineName":"10kV南安D336线","pubTranName":"何务村5#叶家公变,","scope":"浙江省-杭州市-富阳区-万市镇(何务行政村-石井坞自然村、下何务自然村、叶家自然村)何务行政村叶家自然村一带","startTime":"2019-06-18 07:50:00","stopDate":"2019-06-18 17:00:00","orgNo":"3340170","typeCode":"计划停电","poweroffArea":"110kV万市变南安D336线何务村5号叶家公变后段","poweroffReason":"村东01线5-1#杆后段吊车立杆15米1支、12米1支、拆装JKLYJ-70*4*2档、安装横担、安装水平拉线1套、搭接等工作（旁站监理）","powerTime":"2019-06-18 16:45:34","powerComm":"已送电","subsNo":"","lineNo":"","tgNo":"","tgName":null,"infoStatus":"1","orgName":"国网浙江杭州市富阳区供电公司","typeName":null,"infoStatusName":null,"dateDay":null,"orgNos":null,"nowTime":null,"countyName":null,"streetName":null,"villageName":null,"roadName":null,"communityName":null,"tranName":null,"sdLineName":null,"cityCode":"3340170","cityName":"国网浙江杭州市富阳区供电公司","provinceCode":null,"stopTime":"2019-06-18 17:00:00","powerType":"全部","powerOffArea":"110kV万市变南安D336线何务村5号叶家公变后段","powerOffReason":"村东01线5-1#杆后段吊车立杆15米1支、12米1支、拆装JKLYJ-70*4*2档、安装横担、安装水平拉线1套、搭接等工作（旁站监理）","powerOffId":"2019060631010403"},{"poweroffId":2019060631010401,"sgpoweroffId":null,"subsName":"","lineName":"10kV青何D731线","pubTranName":"唐昌村青山4号唐村坞口公变,","scope":"浙江省杭州市富阳区永昌镇唐昌行政村唐村坞口自然村一带","startTime":"2019-06-18 08:20:00","stopDate":"2019-06-18 17:30:00","orgNo":"3340170","typeCode":"计划停电","poweroffArea":"110kV松溪变:青何D731线-唐昌村青山4号唐村坞口公变后段","poweroffReason":"山脚01线、唐村坞口02线、村委01线架设JKLYJ-120*4*8档、拆旧横担6付、JKLYJ-120*4*6档、更换横担14付、拉线7付、拆除出线电缆VLV-4*120*3路、敷设出线电缆YJV-4*150*3路（旁站监理） 原停电开始时间为2019-06-18 07:30:00，因客户要求变更至2019-06-18 08:20:00","powerTime":"2019-06-18 17:23:39","powerComm":"已送电","subsNo":"","lineNo":"","tgNo":"","tgName":null,"infoStatus":"1","orgName":"国网浙江杭州市富阳区供电公司","typeName":null,"infoStatusName":null,"dateDay":null,"orgNos":null,"nowTime":null,"countyName":null,"streetName":null,"villageName":null,"roadName":null,"communityName":null,"tranName":null,"sdLineName":null,"cityCode":"3340170","cityName":"国网浙江杭州市富阳区供电公司","provinceCode":null,"stopTime":"2019-06-18 17:30:00","powerType":"全部","powerOffArea":"110kV松溪变:青何D731线-唐昌村青山4号唐村坞口公变后段","powerOffReason":"山脚01线、唐村坞口02线、村委01线架设JKLYJ-120*4*8档、拆旧横担6付、JKLYJ-120*4*6档、更换横担14付、拉线7付、拆除出线电缆VLV-4*120*3路、敷设出线电缆YJV-4*150*3路（旁站监理） 原停电开始时间为2019-06-18 07:30:00，因客户要求变更至2019-06-18 08:20:00","powerOffId":"2019060631010401"}],"pageModel":{"pageNow":1612,"totalCount":17789,"totalPage":1779,"tableRows":0,"pageCount":10,"beginCount":16110},"isExperi":"1"}