{"message":"","today":"2020-06-16","seleList":[{"poweroffId":2019060631010395,"sgpoweroffId":null,"subsName":"","lineName":"10kV大兴D513线","pubTranName":"安禾村1号安一公变,","scope":"浙江省-杭州市-富阳区-常安镇安禾行政村-安禾自然村一带;","startTime":"2019-06-17 08:40:00","stopDate":"2019-06-17 15:10:00","orgNo":"3340170","typeCode":"计划停电","poweroffArea":"110kV常安变:大兴D513线-安禾村1号安一公变后段","poweroffReason":"更换低压出线电缆及搭接等工作","powerTime":"2019-06-17 14:51:13","powerComm":"已送电","subsNo":"","lineNo":"","tgNo":"","tgName":null,"infoStatus":"1","orgName":"国网浙江杭州市富阳区供电公司","typeName":null,"infoStatusName":null,"dateDay":null,"orgNos":null,"nowTime":null,"countyName":null,"streetName":null,"villageName":null,"roadName":null,"communityName":null,"tranName":null,"sdLineName":null,"cityCode":"3340170","cityName":"国网浙江杭州市富阳区供电公司","provinceCode":null,"stopTime":"2019-06-17 15:10:00","powerType":"全部","powerOffArea":"110kV常安变:大兴D513线-安禾村1号安一公变后段","powerOffReason":"更换低压出线电缆及搭接等工作","powerOffId":"2019060631010395"},{"poweroffId":2019060631010390,"sgpoweroffId":null,"subsName":"","lineName":"10kV阳山D615线","pubTranName":"百丈畈村2号甘浦公变,","scope":"浙江省-杭州市-富阳区-场口镇(百丈畈行政村-甘浦自然村)一带","startTime":"2019-06-23 08:45:00","stopDate":"2019-06-23 16:45:00","orgNo":"3340170","typeCode":"计划停电","poweroffArea":"110kV鸿丰变:阳山D615线-甘浦分线1#杆开关后段","poweroffReason":"阳山D615线62#杆甘浦分线7#杆新出分线更换电杆1支，架设导线1档，支线搭接，低压线路改接等工作。","powerTime":"2019-06-23 16:30:28","powerComm":"已送电","subsNo":"","lineNo":"","tgNo":"","tgName":null,"infoStatus":"1","orgName":"国网浙江杭州市富阳区供电公司","typeName":null,"infoStatusName":null,"dateDay":null,"orgNos":null,"nowTime":null,"countyName":null,"streetName":null,"villageName":null,"roadName":null,"communityName":null,"tranName":null,"sdLineName":null,"cityCode":"3340170","cityName":"国网浙江杭州市富阳区供电公司","provinceCode":null,"stopTime":"2019-06-23 16:45:00","powerType":"全部","powerOffArea":"110kV鸿丰变:阳山D615线-甘浦分线1#杆开关后段","powerOffReason":"阳山D615线62#杆甘浦分线7#杆新出分线更换电杆1支，架设导线1档，支线搭接，低压线路改接等工作。","powerOffId":"2019060631010390"},{"poweroffId":2019060631010354,"sgpoweroffId":null,"subsName":"","lineName":"10kV鼎升D404线","pubTranName":"杭州富阳恒通机电工程有限公司,杭州博大净化设备有限公司,汤家埠春安10#新区公变,春安村4#官房公变,","scope":"浙江省-杭州市-富阳区-鹿山街道(汤家埠行政村-春安自然村);(杭州博大净化设备有限公司,杭州富阳恒通机电工程有限公司)一带","startTime":"2019-06-23 08:45:00","stopDate":"2019-06-23 15:45:00","orgNo":"3340170","typeCode":"计划停电","poweroffArea":"110kV长春变:鼎升D404线-春安新区支线后段；鼎升D404线-杭州富阳恒通机电工程有限公司后段；鼎升D404线-博大净化支线后段；鼎升D404线-春安村4#官房公变后段","poweroffReason":"青云2019年谢家溪9#中心路公变等增容布点工程：春安村4#官房公变由200kVA增容至630kVA及低压线路改接工作，安装真空开关一台，电缆敷设，制作，试验，搭接等工作","powerTime":"2019-06-23 15:33:25","powerComm":"已送电","subsNo":"","lineNo":"","tgNo":"","tgName":null,"infoStatus":"1","orgName":"国网浙江杭州市富阳区供电公司","typeName":null,"infoStatusName":null,"dateDay":null,"orgNos":null,"nowTime":null,"countyName":null,"streetName":null,"villageName":null,"roadName":null,"communityName":null,"tranName":null,"sdLineName":null,"cityCode":"3340170","cityName":"国网浙江杭州市富阳区供电公司","provinceCode":null,"stopTime":"2019-06-23 15:45:00","powerType":"全部","powerOffArea":"110kV长春变:鼎升D404线-春安新区支线后段；鼎升D404线-杭州富阳恒通机电工程有限公司后段；鼎升D404线-博大净化支线后段；鼎升D404线-春安村4#官房公变后段","powerOffReason":"青云2019年谢家溪9#中心路公变等增容布点工程：春安村4#官房公变由200kVA增容至630kVA及低压线路改接工作，安装真空开关一台，电缆敷设，制作，试验，搭接等工作","powerOffId":"2019060631010354"},{"poweroffId":2019060631010352,"sgpoweroffId":null,"subsName":"","lineName":"10kV窈口D381线","pubTranName":"窈口村4#百庄公变,","scope":"浙江省-杭州市-富阳区-湖源乡(窈口行政村-百庄自然村);一带","startTime":"2019-06-23 08:30:00","stopDate":"2019-06-23 12:00:00","orgNo":"3340170","typeCode":"计划停电","poweroffArea":"35kV湖源变:窈口D381线-窈口村4#百庄公变后段","poweroffReason":"窈口D381线124#杆百庄分线6#杆窈口村4#百庄公变原100kVA配变增容至200kVA配变、更换低压电缆1根等工作。原停电结束时间2019-06-23 13:30:00，因抢修力度加强变更至2019-06-23 12:00:00","powerTime":"2019-06-23 11:00:49","powerComm":"已送电","subsNo":"","lineNo":"","tgNo":"","tgName":null,"infoStatus":"1","orgName":"国网浙江杭州市富阳区供电公司","typeName":null,"infoStatusName":null,"dateDay":null,"orgNos":null,"nowTime":null,"countyName":null,"streetName":null,"villageName":null,"roadName":null,"communityName":null,"tranName":null,"sdLineName":null,"cityCode":"3340170","cityName":"国网浙江杭州市富阳区供电公司","provinceCode":null,"stopTime":"2019-06-23 12:00:00","powerType":"全部","powerOffArea":"35kV湖源变:窈口D381线-窈口村4#百庄公变后段","powerOffReason":"窈口D381线124#杆百庄分线6#杆窈口村4#百庄公变原100kVA配变增容至200kVA配变、更换低压电缆1根等工作。原停电结束时间2019-06-23 13:30:00，因抢修力度加强变更至2019-06-23 12:00:00","powerOffId":"2019060631010352"},{"poweroffId":2019060631010349,"sgpoweroffId":null,"subsName":"","lineName":"10kV兴旺D558线","pubTranName":"富阳住宅经营有限公司1#,巨利村9#方家公变,巨利村16#方家公变,富阳特种纤维应用研究所,巨利村蒋家15#公变,","scope":"浙江省-杭州市-富阳区-富春街道(巨利社区-北环路、公望街、巨利路、文教北路);(富阳特种纤维应用研究所,杭州越凡文化艺术有限公司)一带","startTime":"2019-06-22 08:45:00","stopDate":"2019-06-22 15:45:00","orgNo":"3340170","typeCode":"计划停电","poweroffArea":"110kV春江变:兴旺D558线","poweroffReason":"2019年秋丰村26#孙家弄公变等10kV配变增容布点工程：方家九线出线电缆拆除、特种支线出线电缆拆除，敷设电缆两处，安装真空开关两台，立杆一基，架线一档及低压线路改接等工作","powerTime":"2019-06-22 15:29:06","powerComm":"已送电","subsNo":"","lineNo":"","tgNo":"","tgName":null,"infoStatus":"1","orgName":"国网浙江杭州市富阳区供电公司","typeName":null,"infoStatusName":null,"dateDay":null,"orgNos":null,"nowTime":null,"countyName":null,"streetName":null,"villageName":null,"roadName":null,"communityName":null,"tranName":null,"sdLineName":null,"cityCode":"3340170","cityName":"国网浙江杭州市富阳区供电公司","provinceCode":null,"stopTime":"2019-06-22 15:45:00","powerType":"全部","powerOffArea":"110kV春江变:兴旺D558线","powerOffReason":"2019年秋丰村26#孙家弄公变等10kV配变增容布点工程：方家九线出线电缆拆除、特种支线出线电缆拆除，敷设电缆两处，安装真空开关两台，立杆一基，架线一档及低压线路改接等工作","powerOffId":"2019060631010349"},{"poweroffId":2019060631010345,"sgpoweroffId":null,"subsName":"","lineName":"10kV三溪D337线","pubTranName":"三溪村15#农居点公变,三溪村2#西年坞公变,大溪村7#泮畈公变,大溪村10#郎家村公变,富阳洞桥镇旦锋生态养殖场,洞桥政府1#变,永顺工贸1#变,三溪村1#鲍家畈公变,三溪村12#磨盘山公变,中国石化销售有限公司浙江杭州石油分公司,三溪村13#上门前公变,","scope":"浙江省杭州市富阳区洞桥镇大溪行政村郎家自然村，大溪行政村泮畈自然村，大溪行政村俞家山目坞口自然村，三溪行政村一带","startTime":"2019-06-22 08:30:00","stopDate":"2019-06-22 19:00:00","orgNo":"3340170","typeCode":"计划停电","poweroffArea":"110kV万市变:三溪D337线115#杆后段","poweroffReason":"原三溪D337线116#至118#杆导线拆除、116#杆开耐张尽头新架线；三溪D337线116#杆至三上联线1#杆单改双、保险丝开关更换为真空开关、磨盘山分线导线更换；洞桥D334线延伸、132#杆至三上联线1#杆导线架设等工作","powerTime":"2019-06-22 18:40:54","powerComm":"已送电","subsNo":"","lineNo":"","tgNo":"","tgName":null,"infoStatus":"1","orgName":"国网浙江杭州市富阳区供电公司","typeName":null,"infoStatusName":null,"dateDay":null,"orgNos":null,"nowTime":null,"countyName":null,"streetName":null,"villageName":null,"roadName":null,"communityName":null,"tranName":null,"sdLineName":null,"cityCode":"3340170","cityName":"国网浙江杭州市富阳区供电公司","provinceCode":null,"stopTime":"2019-06-22 19:00:00","powerType":"全部","powerOffArea":"110kV万市变:三溪D337线115#杆后段","powerOffReason":"原三溪D337线116#至118#杆导线拆除、116#杆开耐张尽头新架线；三溪D337线116#杆至三上联线1#杆单改双、保险丝开关更换为真空开关、磨盘山分线导线更换；洞桥D334线延伸、132#杆至三上联线1#杆导线架设等工作","powerOffId":"2019060631010345"},{"poweroffId":2019060631010342,"sgpoweroffId":null,"subsName":"","lineName":"10kV青何D731线","pubTranName":"昌岭村依洛5#公变,","scope":"浙江省杭州市富阳区永昌镇依洛行政村依洛自然村一带","startTime":"2019-06-20 07:00:00","stopDate":"2019-06-20 17:00:00","orgNo":"3340170","typeCode":"计划停电","poweroffArea":"110kV松溪变:10KV青何D731线102#杆青咸联线173#杆依洛分线","poweroffReason":"10KV青何D731线102#杆青咸联线173#杆依洛分线1#杆吊车拔杆12米1支、立杆15米1支、拆装杆上变一套、拆除进线电缆YJV-4*150一路、敷设进线电缆YJV-4*240一路、昌岭村依洛5#公变照明01线、照明02线、照明03线更换配电屏、拆装出线电缆头三路","powerTime":"2019-06-20 16:46:43","powerComm":"已送电","subsNo":"","lineNo":"","tgNo":"","tgName":null,"infoStatus":"1","orgName":"国网浙江杭州市富阳区供电公司","typeName":null,"infoStatusName":null,"dateDay":null,"orgNos":null,"nowTime":null,"countyName":null,"streetName":null,"villageName":null,"roadName":null,"communityName":null,"tranName":null,"sdLineName":null,"cityCode":"3340170","cityName":"国网浙江杭州市富阳区供电公司","provinceCode":null,"stopTime":"2019-06-20 17:00:00","powerType":"全部","powerOffArea":"110kV松溪变:10KV青何D731线102#杆青咸联线173#杆依洛分线","powerOffReason":"10KV青何D731线102#杆青咸联线173#杆依洛分线1#杆吊车拔杆12米1支、立杆15米1支、拆装杆上变一套、拆除进线电缆YJV-4*150一路、敷设进线电缆YJV-4*240一路、昌岭村依洛5#公变照明01线、照明02线、照明03线更换配电屏、拆装出线电缆头三路","powerOffId":"2019060631010342"},{"poweroffId":2019060631010334,"sgpoweroffId":null,"subsName":"","lineName":"10kV谢家D746线","pubTranName":"蒋家村6#金家墩公变,杭州五圣圆化学有限公司,","scope":"浙江省-杭州市-富阳区-鹿山街道(蒋家行政村-蒋家自然村、金家路);(杭州五圣圆化学有限公司)一带","startTime":"2019-06-20 08:45:00","stopDate":"2019-06-20 16:30:00","orgNo":"3340170","typeCode":"计划停电","poweroffArea":"110kV陆家变:谢家D746线-蒋家村6#金家墩公变后段；谢家D746线-杭州五圣圆化学有限公司后段","poweroffReason":"2019年秋丰村14#庙山东区公变等10kV配变增容布点工程：跌落式熔断器更换智能开关，蒋家村6#金家墩公变由400kVA增容至630kVA及低压线路改接等工作","powerTime":"2019-06-20 16:16:09","powerComm":"已送电","subsNo":"","lineNo":"","tgNo":"","tgName":null,"infoStatus":"1","orgName":"国网浙江杭州市富阳区供电公司","typeName":null,"infoStatusName":null,"dateDay":null,"orgNos":null,"nowTime":null,"countyName":null,"streetName":null,"villageName":null,"roadName":null,"communityName":null,"tranName":null,"sdLineName":null,"cityCode":"3340170","cityName":"国网浙江杭州市富阳区供电公司","provinceCode":null,"stopTime":"2019-06-20 16:30:00","powerType":"全部","powerOffArea":"110kV陆家变:谢家D746线-蒋家村6#金家墩公变后段；谢家D746线-杭州五圣圆化学有限公司后段","powerOffReason":"2019年秋丰村14#庙山东区公变等10kV配变增容布点工程：跌落式熔断器更换智能开关，蒋家村6#金家墩公变由400kVA增容至630kVA及低压线路改接等工作","powerOffId":"2019060631010334"},{"poweroffId":2019060631010325,"sgpoweroffId":null,"subsName":"","lineName":"10kV中秋D223线","pubTranName":"集镇5#七里路公变,","scope":"浙江省杭州市富阳区银湖街道受降镇一带","startTime":"2019-06-20 09:00:00","stopDate":"2019-06-20 17:30:00","orgNo":"3340170","typeCode":"计划停电","poweroffArea":"110kV银湖变:中秋D223线-集镇5#七里路公变后段","poweroffReason":"迎东2019年虎哨杏村3#麻墩公变等10kV配变增容布点工程：集镇5号七里路公变跌落式熔断器更换；计量箱，低压出线电缆更换，原计划停电结束时间为2019-06-20 16:30:00因天气原因停电结束时间变更至2019-06-20 17:30:00","powerTime":"2019-06-20 17:20:48","powerComm":"已送电","subsNo":"","lineNo":"","tgNo":"","tgName":null,"infoStatus":"1","orgName":"国网浙江杭州市富阳区供电公司","typeName":null,"infoStatusName":null,"dateDay":null,"orgNos":null,"nowTime":null,"countyName":null,"streetName":null,"villageName":null,"roadName":null,"communityName":null,"tranName":null,"sdLineName":null,"cityCode":"3340170","cityName":"国网浙江杭州市富阳区供电公司","provinceCode":null,"stopTime":"2019-06-20 17:30:00","powerType":"全部","powerOffArea":"110kV银湖变:中秋D223线-集镇5#七里路公变后段","powerOffReason":"迎东2019年虎哨杏村3#麻墩公变等10kV配变增容布点工程：集镇5号七里路公变跌落式熔断器更换；计量箱，低压出线电缆更换，原计划停电结束时间为2019-06-20 16:30:00因天气原因停电结束时间变更至2019-06-20 17:30:00","powerOffId":"2019060631010325"},{"poweroffId":2019060631010316,"sgpoweroffId":null,"subsName":"","lineName":"10kV上官D265线","pubTranName":"剡溪村6#睦村村口公变,","scope":"浙江省-杭州市-富阳区-上官乡(剡溪行政村-睦村自然村);一带","startTime":"2019-06-20 09:00:00","stopDate":"2019-06-20 15:00:00","orgNo":"3340170","typeCode":"计划停电","poweroffArea":"35kV盛村变:上官D265线-睦村公路分线后段","poweroffReason":"上官D265线48#杆睦村公路分线2#杆剡溪村6#睦村村口公变搭头、低压改接等工作。","powerTime":"2019-06-20 14:46:06","powerComm":"已送电","subsNo":"","lineNo":"","tgNo":"","tgName":null,"infoStatus":"1","orgName":"国网浙江杭州市富阳区供电公司","typeName":null,"infoStatusName":null,"dateDay":null,"orgNos":null,"nowTime":null,"countyName":null,"streetName":null,"villageName":null,"roadName":null,"communityName":null,"tranName":null,"sdLineName":null,"cityCode":"3340170","cityName":"国网浙江杭州市富阳区供电公司","provinceCode":null,"stopTime":"2019-06-20 15:00:00","powerType":"全部","powerOffArea":"35kV盛村变:上官D265线-睦村公路分线后段","powerOffReason":"上官D265线48#杆睦村公路分线2#杆剡溪村6#睦村村口公变搭头、低压改接等工作。","powerOffId":"2019060631010316"}],"pageModel":{"pageNow":1613,"totalCount":17789,"totalPage":1779,"tableRows":0,"pageCount":10,"beginCount":16120},"isExperi":"1"}