{"message":"","today":"2020-06-16","seleList":[{"poweroffId":2019060631010184,"sgpoweroffId":null,"subsName":"","lineName":"10kV青何D731线","pubTranName":"唐昌村唐昌2#洛家门口公变,","scope":"浙江省杭州市富阳区永昌镇唐昌行政村洛家门口自然村一带","startTime":"2019-06-18 08:20:00","stopDate":"2019-06-18 16:30:00","orgNo":"3340170","typeCode":"计划停电","poweroffArea":"110kV松溪变:10KV青何D731线102#杆青咸联线30#杆桂喜分线","poweroffReason":"10KV青何D731线102#杆青咸联线30#杆桂喜分线1#杆唐昌村唐昌2#洛家门口公变吊车拔杆12米1支、拆装杆上变一套、拆除进线电缆YJV-4*150一路、敷设进线电缆YJV-4*240一路 原停电开始时间为2019-06-18 07:30:00，因客户要求变更至2019-06-18 08:20:00","powerTime":"2019-06-18 16:16:19","powerComm":"已送电","subsNo":"","lineNo":"","tgNo":"","tgName":null,"infoStatus":"1","orgName":"国网浙江杭州市富阳区供电公司","typeName":null,"infoStatusName":null,"dateDay":null,"orgNos":null,"nowTime":null,"countyName":null,"streetName":null,"villageName":null,"roadName":null,"communityName":null,"tranName":null,"sdLineName":null,"cityCode":"3340170","cityName":"国网浙江杭州市富阳区供电公司","provinceCode":null,"stopTime":"2019-06-18 16:30:00","powerType":"全部","powerOffArea":"110kV松溪变:10KV青何D731线102#杆青咸联线30#杆桂喜分线","powerOffReason":"10KV青何D731线102#杆青咸联线30#杆桂喜分线1#杆唐昌村唐昌2#洛家门口公变吊车拔杆12米1支、拆装杆上变一套、拆除进线电缆YJV-4*150一路、敷设进线电缆YJV-4*240一路 原停电开始时间为2019-06-18 07:30:00，因客户要求变更至2019-06-18 08:20:00","powerOffId":"2019060631010184"},{"poweroffId":2019060631010181,"sgpoweroffId":null,"subsName":"","lineName":"10kV青何D731线","pubTranName":"唐昌村青山5#侯家公变,","scope":"浙江省杭州市富阳区永昌镇唐昌行政村侯家自然村一带","startTime":"2019-06-17 07:10:00","stopDate":"2019-06-17 23:00:00","orgNo":"3340170","typeCode":"计划停电","poweroffArea":"110kV松溪变:10KV青何D731线138#杆侯家分线","poweroffReason":"10KV青何D731线138#杆侯家分线4#杆唐昌村青山5#侯家公变吊车立杆15米1支、拔杆12米1支、拆装杆上变一套、更换配电屏一组、拆除进线电缆YJV-4*150一路、敷设进线电缆YJV-4*240一路等工作，原计划停电实结束时间为06-17 17:00:00因系统原因变更至06-17 23:00:00","powerTime":"2019-06-17 22:57:13","powerComm":"已送电","subsNo":"","lineNo":"","tgNo":"","tgName":null,"infoStatus":"1","orgName":"国网浙江杭州市富阳区供电公司","typeName":null,"infoStatusName":null,"dateDay":null,"orgNos":null,"nowTime":null,"countyName":null,"streetName":null,"villageName":null,"roadName":null,"communityName":null,"tranName":null,"sdLineName":null,"cityCode":"3340170","cityName":"国网浙江杭州市富阳区供电公司","provinceCode":null,"stopTime":"2019-06-17 23:00:00","powerType":"全部","powerOffArea":"110kV松溪变:10KV青何D731线138#杆侯家分线","powerOffReason":"10KV青何D731线138#杆侯家分线4#杆唐昌村青山5#侯家公变吊车立杆15米1支、拔杆12米1支、拆装杆上变一套、更换配电屏一组、拆除进线电缆YJV-4*150一路、敷设进线电缆YJV-4*240一路等工作，原计划停电实结束时间为06-17 17:00:00因系统原因变更至06-17 23:00:00","powerOffId":"2019060631010181"},{"poweroffId":2019060631010180,"sgpoweroffId":null,"subsName":"","lineName":"10kV青何D731线","pubTranName":"唐昌村青山3#杨家公变,","scope":"浙江省杭州市富阳区永昌镇唐昌行政村杨家自然村一带","startTime":"2019-06-17 07:30:00","stopDate":"2019-06-17 23:00:00","orgNo":"3340170","typeCode":"计划停电","poweroffArea":"110kV松溪变:10KV青何D731线119#杆杨家分线","poweroffReason":"10KV青何D731线119#杆杨家分线5#杆唐昌村青山3#杨家公变吊车拔杆12米1支、拆装杆上变一套、拆除进线电缆YJV-4*150一路、敷设进线电缆YJV-4*240一路。原计划停电实结束时间为2019-06-17 16:30:00因系统原因变更至2019-06-17 23:00:00","powerTime":"2019-06-17 22:56:28","powerComm":"已送电","subsNo":"","lineNo":"","tgNo":"","tgName":null,"infoStatus":"1","orgName":"国网浙江杭州市富阳区供电公司","typeName":null,"infoStatusName":null,"dateDay":null,"orgNos":null,"nowTime":null,"countyName":null,"streetName":null,"villageName":null,"roadName":null,"communityName":null,"tranName":null,"sdLineName":null,"cityCode":"3340170","cityName":"国网浙江杭州市富阳区供电公司","provinceCode":null,"stopTime":"2019-06-17 23:00:00","powerType":"全部","powerOffArea":"110kV松溪变:10KV青何D731线119#杆杨家分线","powerOffReason":"10KV青何D731线119#杆杨家分线5#杆唐昌村青山3#杨家公变吊车拔杆12米1支、拆装杆上变一套、拆除进线电缆YJV-4*150一路、敷设进线电缆YJV-4*240一路。原计划停电实结束时间为2019-06-17 16:30:00因系统原因变更至2019-06-17 23:00:00","powerOffId":"2019060631010180"},{"poweroffId":2019060631010176,"sgpoweroffId":null,"subsName":"","lineName":"10kV砚口D611线","pubTranName":"觃口村11#菜场公变,1#变,觃口村2号觃口中公变,中国电信股份有限公司富阳分公司,富阳市新关包装厂,杭州富阳正晓再生物资回收有限公司1#变-6611010954,觃口村4#百亩畈公变,","scope":"浙江省-杭州市-富阳区大源镇(觃口行政村-觃口自然村)一带;","startTime":"2019-06-17 07:55:00","stopDate":"2019-06-17 16:00:00","orgNo":"3340170","typeCode":"计划停电","poweroffArea":"35kV溪东变:砚口D611线-砚口D6111开关后段","poweroffReason":"江南2019年觃口村15#纸乡竹苑公变等10kV配变改造工程：砚口D611线15#杆—19#杆线路移位，拆除旧导线12档，新放导线9档，新上真空开关2台，线路拆、搭头等工作。因政策原因开始时间提前至2019-06-17 07:55:00","powerTime":"2019-06-17 22:53:46","powerComm":"已送电","subsNo":"","lineNo":"","tgNo":"","tgName":null,"infoStatus":"1","orgName":"国网浙江杭州市富阳区供电公司","typeName":null,"infoStatusName":null,"dateDay":null,"orgNos":null,"nowTime":null,"countyName":null,"streetName":null,"villageName":null,"roadName":null,"communityName":null,"tranName":null,"sdLineName":null,"cityCode":"3340170","cityName":"国网浙江杭州市富阳区供电公司","provinceCode":null,"stopTime":"2019-06-17 16:00:00","powerType":"全部","powerOffArea":"35kV溪东变:砚口D611线-砚口D6111开关后段","powerOffReason":"江南2019年觃口村15#纸乡竹苑公变等10kV配变改造工程：砚口D611线15#杆—19#杆线路移位，拆除旧导线12档，新放导线9档，新上真空开关2台，线路拆、搭头等工作。因政策原因开始时间提前至2019-06-17 07:55:00","powerOffId":"2019060631010176"},{"poweroffId":2019060631010172,"sgpoweroffId":null,"subsName":"","lineName":"10kV洪庄D292线","pubTranName":"新生村大根里2#村口公变,虎尾坞1#公变,新生村大根里6#里公变,富阳市新源塑料厂,虎尾坞村2#里公变,","scope":"浙江省杭州市富阳区银湖街道新生村一带","startTime":"2019-06-17 09:00:00","stopDate":"2019-06-17 14:45:00","orgNo":"3340170","typeCode":"计划停电","poweroffArea":"35kV新义变:洪庄D292线-虎尾坞支线2后段","poweroffReason":"迎东2019年虎哨杏村3#麻墩公变等10kV配变增容布点工程：虎尾坞1#公变由200kVA增容至400kVA及低压线路改接；50#杆布点搭接等工作","powerTime":"2019-06-17 14:28:31","powerComm":"已送电","subsNo":"","lineNo":"","tgNo":"","tgName":null,"infoStatus":"1","orgName":"国网浙江杭州市富阳区供电公司","typeName":null,"infoStatusName":null,"dateDay":null,"orgNos":null,"nowTime":null,"countyName":null,"streetName":null,"villageName":null,"roadName":null,"communityName":null,"tranName":null,"sdLineName":null,"cityCode":"3340170","cityName":"国网浙江杭州市富阳区供电公司","provinceCode":null,"stopTime":"2019-06-17 14:45:00","powerType":"全部","powerOffArea":"35kV新义变:洪庄D292线-虎尾坞支线2后段","powerOffReason":"迎东2019年虎哨杏村3#麻墩公变等10kV配变增容布点工程：虎尾坞1#公变由200kVA增容至400kVA及低压线路改接；50#杆布点搭接等工作","powerOffId":"2019060631010172"},{"poweroffId":2019060531020109,"sgpoweroffId":null,"subsName":"","lineName":"10kV俞村8072线","pubTranName":"俞村,中宸城镇3#,中宸城镇4#,中宸城镇2#,中宸城镇1#,","scope":"浙江省杭州市江干区水墩三区21号附近一带，杭州中宸城镇建设有限公司、杭州市笕正小学","startTime":"2019-06-17 09:30:00","stopDate":"2019-06-17 18:00:00","orgNo":"3340101","typeCode":"计划停电","poweroffArea":"俞村8072线（东站变～俞村站）、俞墩80722线（俞村站-墩农站）、俞村配变、中城分线、笕正分线（内部用检许可）","poweroffReason":"俞村站换柜.计划停电结束时间17:30，因工作量大原因导致延时送电，预计送电时间：2019-6-17 18:00","powerTime":"2019-06-17 17:01:39","powerComm":"已送电","subsNo":"","lineNo":"","tgNo":"","tgName":null,"infoStatus":"1","orgName":"浙江杭州电力客户服务中心","typeName":null,"infoStatusName":null,"dateDay":null,"orgNos":null,"nowTime":null,"countyName":null,"streetName":null,"villageName":null,"roadName":null,"communityName":null,"tranName":null,"sdLineName":null,"cityCode":"3340101","cityName":"浙江杭州电力客户服务中心","provinceCode":null,"stopTime":"2019-06-17 18:00:00","powerType":"全部","powerOffArea":"俞村8072线（东站变～俞村站）、俞墩80722线（俞村站-墩农站）、俞村配变、中城分线、笕正分线（内部用检许可）","powerOffReason":"俞村站换柜.计划停电结束时间17:30，因工作量大原因导致延时送电，预计送电时间：2019-6-17 18:00","powerOffId":"2019060531020109"},{"poweroffId":2019060531020082,"sgpoweroffId":null,"subsName":"","lineName":"10kV城四A617线","pubTranName":"丽华公寓公变,商城幼儿园,","scope":"浙江省-杭州市-萧山区(城厢街道-商城社区-通惠路,新塘街道-商城社区-通惠路);浙江省-杭州市-萧山区-新塘街道-半爿街社区-杭州市萧山区商业城商城幼儿园","startTime":"2019-06-21 08:30:00","stopDate":"2019-06-21 16:30:00","orgNo":"3340130","typeCode":"计划停电","poweroffArea":"110kV城东变:城四A617线-丽华分支开G12间隔负荷开关后段","poweroffReason":"丽华公寓公变下315kVA上630kVA。安装SVG一台","powerTime":"2019-06-21 15:38:31","powerComm":"已送电","subsNo":"","lineNo":"","tgNo":"","tgName":null,"infoStatus":"1","orgName":"国网浙江杭州市萧山区供电有限公司","typeName":null,"infoStatusName":null,"dateDay":null,"orgNos":null,"nowTime":null,"countyName":null,"streetName":null,"villageName":null,"roadName":null,"communityName":null,"tranName":null,"sdLineName":null,"cityCode":"3340130","cityName":"国网浙江杭州市萧山区供电有限公司","provinceCode":null,"stopTime":"2019-06-21 16:30:00","powerType":"全部","powerOffArea":"110kV城东变:城四A617线-丽华分支开G12间隔负荷开关后段","powerOffReason":"丽华公寓公变下315kVA上630kVA。安装SVG一台","powerOffId":"2019060531020082"},{"poweroffId":2019060531020074,"sgpoweroffId":null,"subsName":"","lineName":"10kV宝盛C777线","pubTranName":"北干二苑红枫小区5#公变,","scope":"浙江省-杭州市-萧山区-北干街道-北干二苑社区-永久路","startTime":"2019-06-20 08:30:00","stopDate":"2019-06-20 17:30:00","orgNo":"3340130","typeCode":"计划停电","poweroffArea":"110kV通惠变:宝盛C777线-北干二苑5#公变后段","poweroffReason":"北干二苑红枫小区5#公变下400kVA上630kVA，更换低压柜。原停电结束时间：2019-06-20 16:30:00，变更停电结束时间：2019-06-20 17:30:00，变更停电结束时间原因：由于今天天气一直下大雨，故计划工作需要延时。","powerTime":"2019-06-20 17:17:23","powerComm":"已送电","subsNo":"","lineNo":"","tgNo":"","tgName":null,"infoStatus":"1","orgName":"国网浙江杭州市萧山区供电有限公司","typeName":null,"infoStatusName":null,"dateDay":null,"orgNos":null,"nowTime":null,"countyName":null,"streetName":null,"villageName":null,"roadName":null,"communityName":null,"tranName":null,"sdLineName":null,"cityCode":"3340130","cityName":"国网浙江杭州市萧山区供电有限公司","provinceCode":null,"stopTime":"2019-06-20 17:30:00","powerType":"全部","powerOffArea":"110kV通惠变:宝盛C777线-北干二苑5#公变后段","powerOffReason":"北干二苑红枫小区5#公变下400kVA上630kVA，更换低压柜。原停电结束时间：2019-06-20 16:30:00，变更停电结束时间：2019-06-20 17:30:00，变更停电结束时间原因：由于今天天气一直下大雨，故计划工作需要延时。","powerOffId":"2019060531020074"},{"poweroffId":2019060431020032,"sgpoweroffId":null,"subsName":"","lineName":"10kV桥超9402线","pubTranName":"方府（八）,","scope":"浙江省杭州市下城区中粮方园府8幢及公用负荷附近一带","startTime":"2019-06-17 09:30:00","stopDate":"2019-06-17 13:20:00","orgNo":"3340101","typeCode":"计划停电","poweroffArea":"中粮站方府六线","poweroffReason":"方府六线电缆迁改。原停电结束时间17:30、变更停电结束时间13:20原因由于施工现场环境比较复杂，存在不确定因素，因此预估施工时间适当放长了，而实际施工进行得比较顺利，因此该工作提前结束。","powerTime":"2019-06-17 12:30:59","powerComm":"已送电","subsNo":"","lineNo":"","tgNo":"","tgName":null,"infoStatus":"1","orgName":"浙江杭州电力客户服务中心","typeName":null,"infoStatusName":null,"dateDay":null,"orgNos":null,"nowTime":null,"countyName":null,"streetName":null,"villageName":null,"roadName":null,"communityName":null,"tranName":null,"sdLineName":null,"cityCode":"3340101","cityName":"浙江杭州电力客户服务中心","provinceCode":null,"stopTime":"2019-06-17 13:20:00","powerType":"全部","powerOffArea":"中粮站方府六线","powerOffReason":"方府六线电缆迁改。原停电结束时间17:30、变更停电结束时间13:20原因由于施工现场环境比较复杂，存在不确定因素，因此预估施工时间适当放长了，而实际施工进行得比较顺利，因此该工作提前结束。","powerOffId":"2019060431020032"},{"poweroffId":2019060331010286,"sgpoweroffId":null,"subsName":"","lineName":"10kV冯金G906线","pubTranName":"葛家7组4号公变,","scope":"浙江省杭州市余杭区乔司街道：葛家车村7组一带","startTime":"2019-06-19 08:30:00","stopDate":"2019-06-19 17:00:00","orgNo":"3340140","typeCode":"计划停电","poweroffArea":"110kV庙港变:葛家7组4#变。","poweroffReason":"配网工程:1、葛家7组4#变杆上变改为630kVA欧变；2、线路修树，登杆检查，3M绝缘处理，加装防鸟挡板。","powerTime":"2019-06-19 16:58:56","powerComm":"工作结束","subsNo":"","lineNo":"","tgNo":"","tgName":null,"infoStatus":"1","orgName":"国网浙江杭州市余杭区供电有限公司","typeName":null,"infoStatusName":null,"dateDay":null,"orgNos":null,"nowTime":null,"countyName":null,"streetName":null,"villageName":null,"roadName":null,"communityName":null,"tranName":null,"sdLineName":null,"cityCode":"3340140","cityName":"国网浙江杭州市余杭区供电有限公司","provinceCode":null,"stopTime":"2019-06-19 17:00:00","powerType":"全部","powerOffArea":"110kV庙港变:葛家7组4#变。","powerOffReason":"配网工程:1、葛家7组4#变杆上变改为630kVA欧变；2、线路修树，登杆检查，3M绝缘处理，加装防鸟挡板。","powerOffId":"2019060331010286"}],"pageModel":{"pageNow":1615,"totalCount":17789,"totalPage":1779,"tableRows":0,"pageCount":10,"beginCount":16140},"isExperi":"1"}