{"message":"","today":"2020-06-15","seleList":[{"poweroffId":2020051531020587,"sgpoweroffId":null,"subsName":"","lineName":"10kV站用T176线","pubTranName":"桥东周王坞2号公变,桥东周王坞3号公变,","scope":"浙江省-杭州市-桐庐县-分水镇-桥东行政村(桥东自然村,周王坞自然村)","startTime":"2020-05-26 09:00:00","stopDate":"2020-05-26 10:50:00","orgNo":"3340150","typeCode":"计划停电","poweroffArea":"110kV分水变:站用T176线-周坞F4335令克后段;站用T176线-周坞F4336令克后段","poweroffReason":"杭州桐庐分水周王坞等台区配变及线路改造工程 原停电结束时间为2020-05-26 17:00:00,为减少客户停电时间,加快工作进度,提前送电,现变更停电结束时间为2020-05-26 10:50:00","powerTime":"2020-05-26 10:38:41","powerComm":"已送电","subsNo":"","lineNo":"","tgNo":"","tgName":null,"infoStatus":"1","orgName":"国网浙江桐庐县供电公司","typeName":null,"infoStatusName":null,"dateDay":null,"orgNos":null,"nowTime":null,"countyName":null,"streetName":null,"villageName":null,"roadName":null,"communityName":null,"tranName":null,"sdLineName":null,"cityCode":"3340150","cityName":"国网浙江桐庐县供电公司","provinceCode":null,"stopTime":"2020-05-26 10:50:00","powerType":"全部","powerOffArea":"110kV分水变:站用T176线-周坞F4335令克后段;站用T176线-周坞F4336令克后段","powerOffReason":"杭州桐庐分水周王坞等台区配变及线路改造工程 原停电结束时间为2020-05-26 17:00:00,为减少客户停电时间,加快工作进度,提前送电,现变更停电结束时间为2020-05-26 10:50:00","powerOffId":"2020051531020587"},{"poweroffId":2020051531020586,"sgpoweroffId":null,"subsName":"","lineName":"10kV天英T437线","pubTranName":"大路伍队1号公变,","scope":"浙江省-杭州市-桐庐县-分水镇-大路行政村(张村自然村,大路自然村)","startTime":"2020-05-27 08:00:00","stopDate":"2020-05-27 14:00:00","orgNo":"3340150","typeCode":"计划停电","poweroffArea":"110kV天英变:天英T437线-伍队F4342令克后段","poweroffReason":"杭州桐庐分水虹桥村等台区配变及线路改造工程","powerTime":"2020-05-27 13:31:10","powerComm":"已送电","subsNo":"","lineNo":"","tgNo":"","tgName":null,"infoStatus":"1","orgName":"国网浙江桐庐县供电公司","typeName":null,"infoStatusName":null,"dateDay":null,"orgNos":null,"nowTime":null,"countyName":null,"streetName":null,"villageName":null,"roadName":null,"communityName":null,"tranName":null,"sdLineName":null,"cityCode":"3340150","cityName":"国网浙江桐庐县供电公司","provinceCode":null,"stopTime":"2020-05-27 14:00:00","powerType":"全部","powerOffArea":"110kV天英变:天英T437线-伍队F4342令克后段","powerOffReason":"杭州桐庐分水虹桥村等台区配变及线路改造工程","powerOffId":"2020051531020586"},{"poweroffId":2020051531020577,"sgpoweroffId":null,"subsName":"","lineName":"10kV万方D356线","pubTranName":"南门街2#公变,邮舍弄2#公变,邮舍弄4#公变,南门街1#公变,银泰公寓公变,邮舍弄1#公变,","scope":"浙江省-杭州市-富阳区-富春街道-镬子山社区-邮舍弄,富春街道-鹳山社区(富春路,富春街,达夫路,南门街,春江路,花坞南路,邮舍弄,桂花路,后河东路,花坞路)","startTime":"2020-05-27 08:45:00","stopDate":"2020-05-27 14:30:00","orgNo":"3340170","typeCode":"计划停电","poweroffArea":"110kV富鹿变:万方D356线首端，南门街1#公变，南门街2#公变，银泰公寓公变，邮舍弄1#公变，邮舍弄2#公变，邮舍弄4#公变之间","poweroffReason":"杭州市富阳区精品街区二期（桂花路）电力改造工程：电缆改接 原停电结束时间为2020-05-27 13:15:00,因工作难度大原因,延迟送电,现变更停电结束时间为2020-05-27 14:30:00","powerTime":"2020-05-27 14:15:57","powerComm":"已送电","subsNo":"","lineNo":"","tgNo":"","tgName":null,"infoStatus":"1","orgName":"国网浙江杭州市富阳区供电公司","typeName":null,"infoStatusName":null,"dateDay":null,"orgNos":null,"nowTime":null,"countyName":null,"streetName":null,"villageName":null,"roadName":null,"communityName":null,"tranName":null,"sdLineName":null,"cityCode":"3340170","cityName":"国网浙江杭州市富阳区供电公司","provinceCode":null,"stopTime":"2020-05-27 14:30:00","powerType":"全部","powerOffArea":"110kV富鹿变:万方D356线首端，南门街1#公变，南门街2#公变，银泰公寓公变，邮舍弄1#公变，邮舍弄2#公变，邮舍弄4#公变之间","powerOffReason":"杭州市富阳区精品街区二期（桂花路）电力改造工程：电缆改接 原停电结束时间为2020-05-27 13:15:00,因工作难度大原因,延迟送电,现变更停电结束时间为2020-05-27 14:30:00","powerOffId":"2020051531020577"},{"poweroffId":2020051531020573,"sgpoweroffId":null,"subsName":"","lineName":"10kV里深D345线","pubTranName":"里仁村8#水碓门公变,","scope":"浙江省-杭州市-富阳区-洞桥镇-洞桥行政村-水碓门自然村一带","startTime":"2020-05-27 08:30:00","stopDate":"2020-05-27 09:00:00","orgNo":"3340170","typeCode":"计划停电","poweroffArea":"110kV万市变:里深D345线-里仁村8#水碓门公变后段","poweroffReason":"配合0.4KV发电车接入","powerTime":"2020-05-27 08:48:51","powerComm":"已送电","subsNo":"","lineNo":"","tgNo":"","tgName":null,"infoStatus":"1","orgName":"国网浙江杭州市富阳区供电公司","typeName":null,"infoStatusName":null,"dateDay":null,"orgNos":null,"nowTime":null,"countyName":null,"streetName":null,"villageName":null,"roadName":null,"communityName":null,"tranName":null,"sdLineName":null,"cityCode":"3340170","cityName":"国网浙江杭州市富阳区供电公司","provinceCode":null,"stopTime":"2020-05-27 09:00:00","powerType":"全部","powerOffArea":"110kV万市变:里深D345线-里仁村8#水碓门公变后段","powerOffReason":"配合0.4KV发电车接入","powerOffId":"2020051531020573"},{"poweroffId":2020051531020568,"sgpoweroffId":null,"subsName":"","lineName":"10kV里深D345线","pubTranName":"里仁村7#杓树下公变,","scope":"浙江省-杭州市-富阳区-洞桥镇-里仁行政村-杓树下自然村一带","startTime":"2020-05-27 08:30:00","stopDate":"2020-05-27 09:00:00","orgNo":"3340170","typeCode":"计划停电","poweroffArea":"110kV万市变:里深D345线-里仁村7#杓树下公变后段","poweroffReason":"配合0.4KV发电车接入","powerTime":"2020-05-27 08:48:37","powerComm":"已送电","subsNo":"","lineNo":"","tgNo":"","tgName":null,"infoStatus":"1","orgName":"国网浙江杭州市富阳区供电公司","typeName":null,"infoStatusName":null,"dateDay":null,"orgNos":null,"nowTime":null,"countyName":null,"streetName":null,"villageName":null,"roadName":null,"communityName":null,"tranName":null,"sdLineName":null,"cityCode":"3340170","cityName":"国网浙江杭州市富阳区供电公司","provinceCode":null,"stopTime":"2020-05-27 09:00:00","powerType":"全部","powerOffArea":"110kV万市变:里深D345线-里仁村7#杓树下公变后段","powerOffReason":"配合0.4KV发电车接入","powerOffId":"2020051531020568"},{"poweroffId":2020051531020547,"sgpoweroffId":null,"subsName":"","lineName":"10kV江沙D764线","pubTranName":"江丰村3#滩上公变,","scope":"浙江省-杭州市-富阳区-灵桥镇-江丰行政村(滩上自然村,江丰自然村)一带","startTime":"2020-05-29 08:45:00","stopDate":"2020-05-29 11:45:00","orgNo":"3340170","typeCode":"计划停电","poweroffArea":"110kV春联变:江沙D764线-滩上支线跌落式熔断器后段","poweroffReason":"江沙D764线26号杆西闸分线6号杆滩上支线2号杆江丰村3#滩上公变、更换配电屏一组、拆装0.4kv进、出线电缆等工作","powerTime":"2020-05-29 11:30:35","powerComm":"已送电","subsNo":"","lineNo":"","tgNo":"","tgName":null,"infoStatus":"1","orgName":"国网浙江杭州市富阳区供电公司","typeName":null,"infoStatusName":null,"dateDay":null,"orgNos":null,"nowTime":null,"countyName":null,"streetName":null,"villageName":null,"roadName":null,"communityName":null,"tranName":null,"sdLineName":null,"cityCode":"3340170","cityName":"国网浙江杭州市富阳区供电公司","provinceCode":null,"stopTime":"2020-05-29 11:45:00","powerType":"全部","powerOffArea":"110kV春联变:江沙D764线-滩上支线跌落式熔断器后段","powerOffReason":"江沙D764线26号杆西闸分线6号杆滩上支线2号杆江丰村3#滩上公变、更换配电屏一组、拆装0.4kv进、出线电缆等工作","powerOffId":"2020051531020547"},{"poweroffId":2020051531020540,"sgpoweroffId":null,"subsName":"","lineName":"10kV栋山D410线","pubTranName":"坞口村3#长南坞公变,","scope":"浙江省-杭州市-富阳区-鹿山街道-汤家埠行政村-汤家埠自然村,鹿山街道-三合行政村(坞口自然村,长南坞自然村)","startTime":"2020-05-25 17:35:00","stopDate":"2020-05-25 18:15:00","orgNo":"3340170","typeCode":"计划停电","poweroffArea":"110kV长春变:栋山D410线-坞口村3#长南坞公变后段","poweroffReason":"中铁十二局集团有限公司湖杭铁路项目经理部三分部线路迁改工程：坞口村3#长南坞公变变压器0.4kv出线电缆恢复","powerTime":"2020-05-25 17:58:47","powerComm":"已送电","subsNo":"","lineNo":"","tgNo":"","tgName":null,"infoStatus":"1","orgName":"国网浙江杭州市富阳区供电公司","typeName":null,"infoStatusName":null,"dateDay":null,"orgNos":null,"nowTime":null,"countyName":null,"streetName":null,"villageName":null,"roadName":null,"communityName":null,"tranName":null,"sdLineName":null,"cityCode":"3340170","cityName":"国网浙江杭州市富阳区供电公司","provinceCode":null,"stopTime":"2020-05-25 18:15:00","powerType":"全部","powerOffArea":"110kV长春变:栋山D410线-坞口村3#长南坞公变后段","powerOffReason":"中铁十二局集团有限公司湖杭铁路项目经理部三分部线路迁改工程：坞口村3#长南坞公变变压器0.4kv出线电缆恢复","powerOffId":"2020051531020540"},{"poweroffId":2020051531020537,"sgpoweroffId":null,"subsName":"","lineName":"10kV蒋家D408线","pubTranName":"蒋家村16号富棉公变,","scope":"浙江省-杭州市-富阳区-鹿山街道-南山行政村-晖山自然村,鹿山街道-蒋家行政村(青春路,蒋家自然村,中心路,环厂路,阳光路,最光路,徐家路)","startTime":"2020-05-25 17:35:00","stopDate":"2020-05-25 20:15:00","orgNo":"3340170","typeCode":"计划停电","poweroffArea":"110kV长春变:蒋家D408线-蒋家村16号富棉公变后段","poweroffReason":"中铁十二局集团有限公司湖杭铁路项目经理部三分部线路迁改工程：蒋家村16号富棉公变变压器0.4kv出线电缆恢复 原停电结束时间为2020-05-25 18:15:00,因政策原因,延迟送电,现变更停电结束时间为2020-05-25 20:15:00","powerTime":"2020-05-25 19:17:49","powerComm":"已送电","subsNo":"","lineNo":"","tgNo":"","tgName":null,"infoStatus":"1","orgName":"国网浙江杭州市富阳区供电公司","typeName":null,"infoStatusName":null,"dateDay":null,"orgNos":null,"nowTime":null,"countyName":null,"streetName":null,"villageName":null,"roadName":null,"communityName":null,"tranName":null,"sdLineName":null,"cityCode":"3340170","cityName":"国网浙江杭州市富阳区供电公司","provinceCode":null,"stopTime":"2020-05-25 20:15:00","powerType":"全部","powerOffArea":"110kV长春变:蒋家D408线-蒋家村16号富棉公变后段","powerOffReason":"中铁十二局集团有限公司湖杭铁路项目经理部三分部线路迁改工程：蒋家村16号富棉公变变压器0.4kv出线电缆恢复 原停电结束时间为2020-05-25 18:15:00,因政策原因,延迟送电,现变更停电结束时间为2020-05-25 20:15:00","powerOffId":"2020051531020537"},{"poweroffId":2020051531020535,"sgpoweroffId":null,"subsName":"","lineName":"10kV潘村D207线","pubTranName":"春华村7#麻墩公变,杭州市富阳区皇天畈水利管理处1#,富阳市佳通电信器材有限公司,3#,富阳富盛通信器材有限公司,杭州特来电新能源有限公司1#变,青云桥6#公变,铁坞口1#铁坞口公变,杭州天鹰食品有限公司,富阳市现代技术培训学校,富阳市中心屠宰有限公司,富阳龙华水泥制品有限公司,铁坞口7号新区公变,青云桥9号高畈公变,横山下5#横山下公变,大新村2号长山垅公变,富阳市富春江罐头食品有限公司,1#,富阳市职业高级中学变压器3,富阳明军铸造厂1#变,变压器,富阳市路灯安装维修管理所,铁坞口2#青云桥公变,铁坞口8号新区公变,1#,富阳鼎立管桩有限公司1#,铁坞口4#电管站公变,富阳镇春华村,杭州富阳康润环境工程有限公司1#变,富阳鼎立管桩有限公司2#,杭州富阳向新化工有限公司1#变,富阳市大青农垦场,铁坞口3号高畈公变,富阳市明伟五金厂,杭州富阳康润环境工程有限公司2#变,大新村1#沈家山公变,春华村8#中科厂公变,杭州华通橡塑实业有限公司,大新村3#猫头山公变,","scope":"浙江省-杭州市-富阳区-富春街道-秋丰行政村-秋丰自然村,富春街道-青云桥行政村(横山下自然村,青云桥自然村,油树坞自然村,高畈自然村,铁坞口自然村,长山垄自然村,铜金坞自然村,马岭上自然村,沈家山自然村,大新自然村,猫头山自然村),富春街道-春华行政村(朱山路,潘村路,学士路,春华自然村,横凉亭路);富春街道-青云桥行政村(富阳区明伟五金厂,杭州富阳明军铸造厂,杭州天鹰食品有限公司,富阳市职业高级中学,杭州富阳城市照明工程有限公司,杭州市富阳区皇天畈水利管理处,杭州市公安局富阳区分局,杭州富阳康润环境工程有限公司),富春街道-西邮行政村(富阳区大青农垦场,杭州富阳富春江罐头食品有限公司),富春街道-春华行政村(杭州富阳佳通电信器材有限公司,富阳镇春华村,杭州奥克光电设备有限公司,富阳龙华水泥制品有限公司,杭州富阳食品有限责任公司,杭州富阳兴旺橡胶制品有限公司,富阳富盛通信器材有限公司,杭州市富阳区实验中学,杭州特来电新能源有限公司),富春街道(后周社区-富阳鼎立管桩有限公司,秋丰行政村-杭州富阳意得办公设备有限公司,杭州富阳向新化工有限公司)","startTime":"2020-05-30 09:00:00","stopDate":"2020-05-30 09:20:00","orgNo":"3340170","typeCode":"计划停电","poweroffArea":"35kV大青变:潘村D207线-潘村一站潘村D207线后段","poweroffReason":"大青变事故检修通道短时倒负荷停电","powerTime":"2020-05-30 09:08:29","powerComm":"已送电","subsNo":"","lineNo":"","tgNo":"","tgName":null,"infoStatus":"1","orgName":"国网浙江杭州市富阳区供电公司","typeName":null,"infoStatusName":null,"dateDay":null,"orgNos":null,"nowTime":null,"countyName":null,"streetName":null,"villageName":null,"roadName":null,"communityName":null,"tranName":null,"sdLineName":null,"cityCode":"3340170","cityName":"国网浙江杭州市富阳区供电公司","provinceCode":null,"stopTime":"2020-05-30 09:20:00","powerType":"全部","powerOffArea":"35kV大青变:潘村D207线-潘村一站潘村D207线后段","powerOffReason":"大青变事故检修通道短时倒负荷停电","powerOffId":"2020051531020535"},{"poweroffId":2020051531020534,"sgpoweroffId":null,"subsName":"","lineName":"10kV蒋家D408线","pubTranName":"蒋家村16号富棉公变,","scope":"浙江省-杭州市-富阳区-鹿山街道-南山行政村-晖山自然村,鹿山街道-蒋家行政村(青春路,蒋家自然村,中心路,环厂路,阳光路,最光路,徐家路)","startTime":"2020-05-25 08:30:00","stopDate":"2020-05-25 17:30:00","orgNo":"3340170","typeCode":"计划停电","poweroffArea":"110kV长春变:蒋家D408线-蒋家村16号富棉公变后段","poweroffReason":"中铁十二局集团有限公司湖杭铁路项目经理部三分部线路迁改工程：长春变原水印D461线间隔新出线路、电缆敷设、线路架设等工作","powerTime":"2020-05-25 17:15:26","powerComm":"已送电","subsNo":"","lineNo":"","tgNo":"","tgName":null,"infoStatus":"1","orgName":"国网浙江杭州市富阳区供电公司","typeName":null,"infoStatusName":null,"dateDay":null,"orgNos":null,"nowTime":null,"countyName":null,"streetName":null,"villageName":null,"roadName":null,"communityName":null,"tranName":null,"sdLineName":null,"cityCode":"3340170","cityName":"国网浙江杭州市富阳区供电公司","provinceCode":null,"stopTime":"2020-05-25 17:30:00","powerType":"全部","powerOffArea":"110kV长春变:蒋家D408线-蒋家村16号富棉公变后段","powerOffReason":"中铁十二局集团有限公司湖杭铁路项目经理部三分部线路迁改工程：长春变原水印D461线间隔新出线路、电缆敷设、线路架设等工作","powerOffId":"2020051531020534"}],"pageModel":{"pageNow":163,"totalCount":17788,"totalPage":1779,"tableRows":0,"pageCount":10,"beginCount":1620},"isExperi":"1"}