{"message":"","today":"2020-06-16","seleList":[{"poweroffId":2018062931010170,"sgpoweroffId":null,"subsName":"","lineName":"10kV麻园Y205线","pubTranName":"牛头山公变,","scope":"浙江省-杭州市-建德市-新安江街道 府东社区康安路 新安路一带用户","startTime":"2018-06-29 09:13:00","stopDate":"2018-06-29 20:00:00","orgNo":"3340180","typeCode":"电网故障停限电","poweroffArea":"110kV白沙变:麻园Y205线-牛头山公变后段","poweroffReason":"麻园Y205线-牛头山公变 挖机碰低压导线","powerTime":"2018-06-29 15:23:00","powerComm":"已送电","subsNo":"","lineNo":"","tgNo":"","tgName":null,"infoStatus":"1","orgName":"国网浙江建德市供电有限公司","typeName":null,"infoStatusName":null,"dateDay":null,"orgNos":null,"nowTime":null,"countyName":null,"streetName":null,"villageName":null,"roadName":null,"communityName":null,"tranName":null,"sdLineName":null,"cityCode":"3340180","cityName":"国网浙江建德市供电有限公司","provinceCode":null,"stopTime":"2018-06-29 20:00:00","powerType":"全部","powerOffArea":"110kV白沙变:麻园Y205线-牛头山公变后段","powerOffReason":"麻园Y205线-牛头山公变 挖机碰低压导线","powerOffId":"2018062931010170"},{"poweroffId":2018062931010162,"sgpoweroffId":null,"subsName":"","lineName":"10kV安顶D909线","pubTranName":"春建村5号春建桥公变,","scope":"浙江省杭州市富阳区里山镇春建村春建桥一带","startTime":"2018-06-29 09:30:00","stopDate":"2018-06-29 11:10:00","orgNo":"3340170","typeCode":"电网故障停限电","poweroffArea":"110kV里渔变:安顶D909线-春建村5号春建桥公变后段","poweroffReason":"低压配电设备故障","powerTime":"2018-06-29 10:46:30","powerComm":"低压配电设备故障已修复","subsNo":"","lineNo":"","tgNo":"","tgName":null,"infoStatus":"1","orgName":"国网浙江杭州市富阳区供电公司","typeName":null,"infoStatusName":null,"dateDay":null,"orgNos":null,"nowTime":null,"countyName":null,"streetName":null,"villageName":null,"roadName":null,"communityName":null,"tranName":null,"sdLineName":null,"cityCode":"3340170","cityName":"国网浙江杭州市富阳区供电公司","provinceCode":null,"stopTime":"2018-06-29 11:10:00","powerType":"全部","powerOffArea":"110kV里渔变:安顶D909线-春建村5号春建桥公变后段","powerOffReason":"低压配电设备故障","powerOffId":"2018062931010162"},{"poweroffId":2018062931010161,"sgpoweroffId":null,"subsName":"","lineName":"10kV陈园C841线","pubTranName":"陈家园村16#变,","scope":"浙江省-杭州市-萧山区-新街镇-陈家园行政村-陈家园等一带","startTime":"2018-06-29 08:58:53","stopDate":"2018-06-29 11:05:20","orgNo":"3340130","typeCode":"电网故障停限电","poweroffArea":"110kV罗山变:陈园C841线-陈家园村16#变低压配电设施","poweroffReason":"低压配电设施故障","powerTime":"2018-06-29 09:51:14","powerComm":"已送电","subsNo":"","lineNo":"","tgNo":"","tgName":null,"infoStatus":"1","orgName":"国网浙江杭州市萧山区供电有限公司","typeName":null,"infoStatusName":null,"dateDay":null,"orgNos":null,"nowTime":null,"countyName":null,"streetName":null,"villageName":null,"roadName":null,"communityName":null,"tranName":null,"sdLineName":null,"cityCode":"3340130","cityName":"国网浙江杭州市萧山区供电有限公司","provinceCode":null,"stopTime":"2018-06-29 11:05:20","powerType":"全部","powerOffArea":"110kV罗山变:陈园C841线-陈家园村16#变低压配电设施","powerOffReason":"低压配电设施故障","powerOffId":"2018062931010161"},{"poweroffId":2018062931010159,"sgpoweroffId":null,"subsName":"","lineName":"10kV西门C105线","pubTranName":"战备桥公变,","scope":"浙江省-杭州市-萧山区-城厢街道太平弄社区杭州市萧山区市政园林公用事业管理处、人民路、西河路、体育路、市心路、万隆珠宝、藕湖浜社区人民路65号电梯房一带","startTime":"2018-06-29 08:55:09","stopDate":"2018-06-29 17:00:09","orgNo":"3340130","typeCode":"电网故障停限电","poweroffArea":"110kV丽都变:西门C105线-战备桥公变低压配电设备","poweroffReason":"低压配电设备故障","powerTime":"2018-06-29 10:20:46","powerComm":"已送电","subsNo":"","lineNo":"","tgNo":"","tgName":null,"infoStatus":"1","orgName":"国网浙江杭州市萧山区供电有限公司","typeName":null,"infoStatusName":null,"dateDay":null,"orgNos":null,"nowTime":null,"countyName":null,"streetName":null,"villageName":null,"roadName":null,"communityName":null,"tranName":null,"sdLineName":null,"cityCode":"3340130","cityName":"国网浙江杭州市萧山区供电有限公司","provinceCode":null,"stopTime":"2018-06-29 17:00:09","powerType":"全部","powerOffArea":"110kV丽都变:西门C105线-战备桥公变低压配电设备","powerOffReason":"低压配电设备故障","powerOffId":"2018062931010159"},{"poweroffId":2018062931010154,"sgpoweroffId":null,"subsName":"","lineName":"10kV至南162线","pubTranName":"瑶琳蒋家1号公变,","scope":"浙江省-杭州市-桐庐县-瑶琳镇(桃源行政村-洞前自然村、蒋家自然村);","startTime":"2018-06-29 08:55:45","stopDate":"2018-06-29 14:55:45","orgNo":"3340150","typeCode":"电网故障停限电","poweroffArea":"35kV瑶琳变:至南162线-瑶琳蒋家1号公变后段","poweroffReason":"低压开关故障处理","powerTime":"2018-06-29 09:35:41","powerComm":"全部送电","subsNo":"","lineNo":"","tgNo":"","tgName":null,"infoStatus":"1","orgName":"国网浙江桐庐县供电公司","typeName":null,"infoStatusName":null,"dateDay":null,"orgNos":null,"nowTime":null,"countyName":null,"streetName":null,"villageName":null,"roadName":null,"communityName":null,"tranName":null,"sdLineName":null,"cityCode":"3340150","cityName":"国网浙江桐庐县供电公司","provinceCode":null,"stopTime":"2018-06-29 14:55:45","powerType":"全部","powerOffArea":"35kV瑶琳变:至南162线-瑶琳蒋家1号公变后段","powerOffReason":"低压开关故障处理","powerOffId":"2018062931010154"},{"poweroffId":2018062931010132,"sgpoweroffId":null,"subsName":"","lineName":"10kV东关Y122线","pubTranName":"梅城集镇西湖金苑公变,","scope":"浙江省-杭州市-建德市-梅城镇 宝华洲社区-车站路、梅花南路、西门街一带用户","startTime":"2018-06-29 08:33:00","stopDate":"2018-06-29 14:39:06","orgNo":"3340180","typeCode":"电网故障停限电","poweroffArea":"110kV梅城变:东关Y122线-梅城集镇西湖金苑公变后段","poweroffReason":"东关Y122线-梅城集镇西湖金苑公变 低压配电设备故障","powerTime":"2018-06-29 10:04:47","powerComm":"已送电","subsNo":"","lineNo":"","tgNo":"","tgName":null,"infoStatus":"1","orgName":"国网浙江建德市供电有限公司","typeName":null,"infoStatusName":null,"dateDay":null,"orgNos":null,"nowTime":null,"countyName":null,"streetName":null,"villageName":null,"roadName":null,"communityName":null,"tranName":null,"sdLineName":null,"cityCode":"3340180","cityName":"国网浙江建德市供电有限公司","provinceCode":null,"stopTime":"2018-06-29 14:39:06","powerType":"全部","powerOffArea":"110kV梅城变:东关Y122线-梅城集镇西湖金苑公变后段","powerOffReason":"东关Y122线-梅城集镇西湖金苑公变 低压配电设备故障","powerOffId":"2018062931010132"},{"poweroffId":2018062931010119,"sgpoweroffId":null,"subsName":"","lineName":"10kV洪庄D292线","pubTranName":"中天路桥有限公司7#变,新生村邵村8号麻花坞公变,新生村邵村3号下畈头公变,富阳市新源塑料厂,新生村邵村5#上畈头公变,新生村大根里6#里公变,新生村邵村4#纸坊坞公变,新生村大根里2#村口公变,虎尾坞村2#里公变,虎尾坞1#公变,中天路桥有限公司6#变,","scope":"浙江省-杭州市-富阳区-银湖街道(新生行政村-大根里自然村、虎尾坞自然村、上畈头自然村、邵村自然村、紫芳坞自然村)一带","startTime":"2018-06-29 08:34:40","stopDate":"2018-06-29 17:35:32","orgNo":"3340170","typeCode":"电网故障停限电","poweroffArea":"35kV新义变:洪庄D292线-虎尾坞支线开关后段","poweroffReason":"高压线断线","powerTime":"2018-06-29 10:49:15","powerComm":"已送电","subsNo":"","lineNo":"","tgNo":"","tgName":null,"infoStatus":"1","orgName":"国网浙江杭州市富阳区供电公司","typeName":null,"infoStatusName":null,"dateDay":null,"orgNos":null,"nowTime":null,"countyName":null,"streetName":null,"villageName":null,"roadName":null,"communityName":null,"tranName":null,"sdLineName":null,"cityCode":"3340170","cityName":"国网浙江杭州市富阳区供电公司","provinceCode":null,"stopTime":"2018-06-29 17:35:32","powerType":"全部","powerOffArea":"35kV新义变:洪庄D292线-虎尾坞支线开关后段","powerOffReason":"高压线断线","powerOffId":"2018062931010119"},{"poweroffId":2018062931010111,"sgpoweroffId":null,"subsName":"","lineName":"10kV檀村Y341线","pubTranName":"三元村麻车岗台区,","scope":"浙江省-杭州市-建德市-大慈岩镇-麻车岗村一带用户","startTime":"2018-06-29 08:17:00","stopDate":"2018-06-29 14:21:50","orgNo":"3340180","typeCode":"电网故障停限电","poweroffArea":"110kV慈岩变:檀村Y341线-三元村麻车岗台区后段","poweroffReason":"檀村Y341线-三元村麻车岗台区 低压配电设备故障","powerTime":"2018-06-29 09:30:14","powerComm":"已送电","subsNo":"","lineNo":"","tgNo":"","tgName":null,"infoStatus":"1","orgName":"国网浙江建德市供电有限公司","typeName":null,"infoStatusName":null,"dateDay":null,"orgNos":null,"nowTime":null,"countyName":null,"streetName":null,"villageName":null,"roadName":null,"communityName":null,"tranName":null,"sdLineName":null,"cityCode":"3340180","cityName":"国网浙江建德市供电有限公司","provinceCode":null,"stopTime":"2018-06-29 14:21:50","powerType":"全部","powerOffArea":"110kV慈岩变:檀村Y341线-三元村麻车岗台区后段","powerOffReason":"檀村Y341线-三元村麻车岗台区 低压配电设备故障","powerOffId":"2018062931010111"},{"poweroffId":2018062931010109,"sgpoweroffId":null,"subsName":"","lineName":"10kV上陈D295线","pubTranName":"泗洲村6#下白洋溪公变,","scope":"浙江省-杭州市-富阳区-银湖街道-泗洲村白洋溪自然村一带","startTime":"2018-06-29 09:40:00","stopDate":"2018-06-29 11:30:00","orgNo":"3340170","typeCode":"电网故障停限电","poweroffArea":"35kV新义变:上陈D295线-泗洲村6#下白洋溪公变低压开关后段","poweroffReason":"泗洲村6#下白洋溪公变，01线1-7#杆，安装富阳广达阀门厂表计1只。","powerTime":"2018-06-29 11:15:00","powerComm":"故障已排除已送电","subsNo":"","lineNo":"","tgNo":"","tgName":null,"infoStatus":"1","orgName":"国网浙江杭州市富阳区供电公司","typeName":null,"infoStatusName":null,"dateDay":null,"orgNos":null,"nowTime":null,"countyName":null,"streetName":null,"villageName":null,"roadName":null,"communityName":null,"tranName":null,"sdLineName":null,"cityCode":"3340170","cityName":"国网浙江杭州市富阳区供电公司","provinceCode":null,"stopTime":"2018-06-29 11:30:00","powerType":"全部","powerOffArea":"35kV新义变:上陈D295线-泗洲村6#下白洋溪公变低压开关后段","powerOffReason":"泗洲村6#下白洋溪公变，01线1-7#杆，安装富阳广达阀门厂表计1只。","powerOffId":"2018062931010109"},{"poweroffId":2018062931010107,"sgpoweroffId":null,"subsName":"","lineName":"10kV大树D219线","pubTranName":"舒菇洋村8号上村公变,","scope":"浙江省-杭州市-富阳区-银湖街道高桥村舒姑洋一带。","startTime":"2018-06-29 07:30:00","stopDate":"2018-06-29 09:30:00","orgNo":"3340170","typeCode":"电网故障停限电","poweroffArea":"110kV银湖变:大树D219线-舒菇洋村8号上村公变低压开关后段","poweroffReason":"高桥村舒姑洋8#上村公变，01线3-3#杆安装富阳立丰印刷厂表计1只。","powerTime":"2018-06-29 09:07:38","powerComm":"故障已排除已送电","subsNo":"","lineNo":"","tgNo":"","tgName":null,"infoStatus":"1","orgName":"国网浙江杭州市富阳区供电公司","typeName":null,"infoStatusName":null,"dateDay":null,"orgNos":null,"nowTime":null,"countyName":null,"streetName":null,"villageName":null,"roadName":null,"communityName":null,"tranName":null,"sdLineName":null,"cityCode":"3340170","cityName":"国网浙江杭州市富阳区供电公司","provinceCode":null,"stopTime":"2018-06-29 09:30:00","powerType":"全部","powerOffArea":"110kV银湖变:大树D219线-舒菇洋村8号上村公变低压开关后段","powerOffReason":"高桥村舒姑洋8#上村公变，01线3-3#杆安装富阳立丰印刷厂表计1只。","powerOffId":"2018062931010107"}],"pageModel":{"pageNow":1624,"totalCount":17789,"totalPage":1779,"tableRows":0,"pageCount":10,"beginCount":16230},"isExperi":"1"}