{"message":"","today":"2020-06-16","seleList":[{"poweroffId":2018062831010357,"sgpoweroffId":null,"subsName":"","lineName":"10kV麻园Y205线","pubTranName":"牛头山公变,","scope":"浙江省-杭州市-建德市-新安江街道府东社区-康安路一带用户。","startTime":"2018-06-28 22:51:00","stopDate":"2018-06-29 09:00:00","orgNo":"3340180","typeCode":"电网故障停限电","poweroffArea":"110kV白沙变:麻园Y205线-牛头山公变后段","poweroffReason":"麻园Y205线-牛头山公变低压配电设备故障","powerTime":"2018-06-29 08:52:00","powerComm":"已送电","subsNo":"","lineNo":"","tgNo":"","tgName":null,"infoStatus":"1","orgName":"国网浙江建德市供电有限公司","typeName":null,"infoStatusName":null,"dateDay":null,"orgNos":null,"nowTime":null,"countyName":null,"streetName":null,"villageName":null,"roadName":null,"communityName":null,"tranName":null,"sdLineName":null,"cityCode":"3340180","cityName":"国网浙江建德市供电有限公司","provinceCode":null,"stopTime":"2018-06-29 09:00:00","powerType":"全部","powerOffArea":"110kV白沙变:麻园Y205线-牛头山公变后段","powerOffReason":"麻园Y205线-牛头山公变低压配电设备故障","powerOffId":"2018062831010357"},{"poweroffId":2018062831010343,"sgpoweroffId":null,"subsName":"","lineName":"10kV新二C027线","pubTranName":"新华村6#变,","scope":"浙江省杭州市萧山区宁围镇、宁围街道、新华村等一带","startTime":"2018-06-28 21:52:11","stopDate":"2018-06-29 03:52:11","orgNo":"3340130","typeCode":"电网故障停限电","poweroffArea":"35kV汽配临时变:新二C027线-新华村6#变低压配电设施","poweroffReason":"低压配电设施故障","powerTime":"2018-06-28 22:32:18","powerComm":"已送电","subsNo":"","lineNo":"","tgNo":"","tgName":null,"infoStatus":"1","orgName":"国网浙江杭州市萧山区供电有限公司","typeName":null,"infoStatusName":null,"dateDay":null,"orgNos":null,"nowTime":null,"countyName":null,"streetName":null,"villageName":null,"roadName":null,"communityName":null,"tranName":null,"sdLineName":null,"cityCode":"3340130","cityName":"国网浙江杭州市萧山区供电有限公司","provinceCode":null,"stopTime":"2018-06-29 03:52:11","powerType":"全部","powerOffArea":"35kV汽配临时变:新二C027线-新华村6#变低压配电设施","powerOffReason":"低压配电设施故障","powerOffId":"2018062831010343"},{"poweroffId":2018062831010341,"sgpoweroffId":null,"subsName":"","lineName":"10kV富龙T339线","pubTranName":"柳岩村委1号公变,","scope":"浙江省-杭州市-桐庐县-横村镇(柳岩行政村-柳岩自然村);","startTime":"2018-06-28 21:52:17","stopDate":"2018-06-29 03:52:17","orgNo":"3340150","typeCode":"电网故障停限电","poweroffArea":"110kV横村变:富龙T339线-柳岩村委1号公变后段","poweroffReason":"低压开关故障","powerTime":"2018-06-28 22:18:15","powerComm":"已送电。","subsNo":"","lineNo":"","tgNo":"","tgName":null,"infoStatus":"1","orgName":"国网浙江桐庐县供电公司","typeName":null,"infoStatusName":null,"dateDay":null,"orgNos":null,"nowTime":null,"countyName":null,"streetName":null,"villageName":null,"roadName":null,"communityName":null,"tranName":null,"sdLineName":null,"cityCode":"3340150","cityName":"国网浙江桐庐县供电公司","provinceCode":null,"stopTime":"2018-06-29 03:52:17","powerType":"全部","powerOffArea":"110kV横村变:富龙T339线-柳岩村委1号公变后段","powerOffReason":"低压开关故障","powerOffId":"2018062831010341"},{"poweroffId":2018062831010337,"sgpoweroffId":null,"subsName":"","lineName":"10kV千鹤Y121线","pubTranName":"城西村千鹤台区,","scope":"浙江省-杭州市-建德市-梅城镇 千鹤行政村 千鹤自然村一带用户","startTime":"2018-06-28 21:29:00","stopDate":"2018-06-28 23:40:00","orgNo":"3340180","typeCode":"电网故障停限电","poweroffArea":"110kV梅城变:千鹤Y121线-城西村千鹤台区后段","poweroffReason":"千鹤Y121线-城西村千鹤台区低压配电设备故障","powerTime":"2018-06-28 22:04:00","powerComm":"已送电","subsNo":"","lineNo":"","tgNo":"","tgName":null,"infoStatus":"1","orgName":"国网浙江建德市供电有限公司","typeName":null,"infoStatusName":null,"dateDay":null,"orgNos":null,"nowTime":null,"countyName":null,"streetName":null,"villageName":null,"roadName":null,"communityName":null,"tranName":null,"sdLineName":null,"cityCode":"3340180","cityName":"国网浙江建德市供电有限公司","provinceCode":null,"stopTime":"2018-06-28 23:40:00","powerType":"全部","powerOffArea":"110kV梅城变:千鹤Y121线-城西村千鹤台区后段","powerOffReason":"千鹤Y121线-城西村千鹤台区低压配电设备故障","powerOffId":"2018062831010337"},{"poweroffId":2018062831010309,"sgpoweroffId":null,"subsName":"","lineName":"御圆566线","pubTranName":"","scope":"杭州市 临安区 锦城镇 九豪庄园、美丽湾一带","startTime":"2018-06-28 19:57:36","stopDate":"2018-06-29 01:57:36","orgNo":"3340160","typeCode":"电网故障停限电","poweroffArea":"停锦南变御圆566线九豪庄园公变低压配变开关跳","poweroffReason":"停锦南变御圆566线九豪庄园公变低压配变开关故障处理","powerTime":"2018-06-28 23:51:54","powerComm":"已送电","subsNo":"","lineNo":"","tgNo":"","tgName":null,"infoStatus":"1","orgName":"国网浙江临安市供电公司","typeName":null,"infoStatusName":null,"dateDay":null,"orgNos":null,"nowTime":null,"countyName":null,"streetName":null,"villageName":null,"roadName":null,"communityName":null,"tranName":null,"sdLineName":null,"cityCode":"3340160","cityName":"国网浙江临安市供电公司","provinceCode":null,"stopTime":"2018-06-29 01:57:36","powerType":"全部","powerOffArea":"停锦南变御圆566线九豪庄园公变低压配变开关跳","powerOffReason":"停锦南变御圆566线九豪庄园公变低压配变开关故障处理","powerOffId":"2018062831010309"},{"poweroffId":2018062831010290,"sgpoweroffId":null,"subsName":"","lineName":"10kV里畈V580线","pubTranName":"白沙村[龙须山],白沙村[龙须安],白沙村[平岗]公变,白沙村[白沙],白沙村[赵家坞],","scope":"浙江省-杭州市-临安市-太湖源镇(白沙行政村-白沙自然村、龙须山自然村、太子庙自然村);","startTime":"2018-06-28 17:33:00","stopDate":"2018-06-28 23:33:00","orgNo":"3340160","typeCode":"电网故障停限电","poweroffArea":"110kV杨岭变:里畈V580线龙须山支线1#开关后段","poweroffReason":"110kV杨岭变:里畈V580线龙须山支线1#开关后段故障处理","powerTime":"2018-06-28 21:35:52","powerComm":"已送电","subsNo":"","lineNo":"","tgNo":"","tgName":null,"infoStatus":"1","orgName":"国网浙江临安市供电公司","typeName":null,"infoStatusName":null,"dateDay":null,"orgNos":null,"nowTime":null,"countyName":null,"streetName":null,"villageName":null,"roadName":null,"communityName":null,"tranName":null,"sdLineName":null,"cityCode":"3340160","cityName":"国网浙江临安市供电公司","provinceCode":null,"stopTime":"2018-06-28 23:33:00","powerType":"全部","powerOffArea":"110kV杨岭变:里畈V580线龙须山支线1#开关后段","powerOffReason":"110kV杨岭变:里畈V580线龙须山支线1#开关后段故障处理","powerOffId":"2018062831010290"},{"poweroffId":2018062831010248,"sgpoweroffId":null,"subsName":"","lineName":"10kV丝化C377线","pubTranName":"红山农场三分场6#变,","scope":"浙江省-杭州市-萧山区新街街道红山农场五分场等一带;","startTime":"2018-06-28 16:53:54","stopDate":"2018-06-28 22:53:54","orgNo":"3340130","typeCode":"电网故障停限电","poweroffArea":"110kV红山变:丝化C377线-红山农场三分场6#变低压配电设施","poweroffReason":"低压配电设施故障","powerTime":"2018-06-28 21:10:16","powerComm":"已送电","subsNo":"","lineNo":"","tgNo":"","tgName":null,"infoStatus":"1","orgName":"国网浙江杭州市萧山区供电有限公司","typeName":null,"infoStatusName":null,"dateDay":null,"orgNos":null,"nowTime":null,"countyName":null,"streetName":null,"villageName":null,"roadName":null,"communityName":null,"tranName":null,"sdLineName":null,"cityCode":"3340130","cityName":"国网浙江杭州市萧山区供电有限公司","provinceCode":null,"stopTime":"2018-06-28 22:53:54","powerType":"全部","powerOffArea":"110kV红山变:丝化C377线-红山农场三分场6#变低压配电设施","powerOffReason":"低压配电设施故障","powerOffId":"2018062831010248"},{"poweroffId":2018062831010243,"sgpoweroffId":null,"subsName":"","lineName":"10kV三西T265线","pubTranName":"滨江上杭小区1号公变,","scope":"浙江省-杭州市-桐庐县-城南街道(上杭社区-乔林路);乔林村上杭路1555号一带。","startTime":"2018-06-28 17:21:34","stopDate":"2018-06-28 23:21:34","orgNo":"3340150","typeCode":"电网故障停限电","poweroffArea":"35kV三合变:三西T265线-滨江上杭小区1号公变后段","poweroffReason":"低压开关烧故障。","powerTime":"2018-06-28 20:16:25","powerComm":"已送电。","subsNo":"","lineNo":"","tgNo":"","tgName":null,"infoStatus":"1","orgName":"国网浙江桐庐县供电公司","typeName":null,"infoStatusName":null,"dateDay":null,"orgNos":null,"nowTime":null,"countyName":null,"streetName":null,"villageName":null,"roadName":null,"communityName":null,"tranName":null,"sdLineName":null,"cityCode":"3340150","cityName":"国网浙江桐庐县供电公司","provinceCode":null,"stopTime":"2018-06-28 23:21:34","powerType":"全部","powerOffArea":"35kV三合变:三西T265线-滨江上杭小区1号公变后段","powerOffReason":"低压开关烧故障。","powerOffId":"2018062831010243"},{"poweroffId":2018062831010203,"sgpoweroffId":null,"subsName":"","lineName":"10kV沈家D212线","pubTranName":"大树下村1#村委公变,","scope":"浙江省-杭州市-富阳区-银湖街道-大树下村一带","startTime":"2018-06-28 13:00:00","stopDate":"2018-06-28 16:50:00","orgNo":"3340170","typeCode":"电网故障停限电","poweroffArea":"110kV银湖变:沈家D212线-大树下村1#村委公变低压开关后段","poweroffReason":"大树下村1#村委公变，01线2#杆安装杭州立琪燃气公司表计1只。","powerTime":"2018-06-28 16:33:35","powerComm":"工作结束已送电","subsNo":"","lineNo":"","tgNo":"","tgName":null,"infoStatus":"1","orgName":"国网浙江杭州市富阳区供电公司","typeName":null,"infoStatusName":null,"dateDay":null,"orgNos":null,"nowTime":null,"countyName":null,"streetName":null,"villageName":null,"roadName":null,"communityName":null,"tranName":null,"sdLineName":null,"cityCode":"3340170","cityName":"国网浙江杭州市富阳区供电公司","provinceCode":null,"stopTime":"2018-06-28 16:50:00","powerType":"全部","powerOffArea":"110kV银湖变:沈家D212线-大树下村1#村委公变低压开关后段","powerOffReason":"大树下村1#村委公变，01线2#杆安装杭州立琪燃气公司表计1只。","powerOffId":"2018062831010203"},{"poweroffId":2018062831010199,"sgpoweroffId":null,"subsName":"","lineName":"10kV黎明A338线","pubTranName":"黎明村7#变,","scope":"浙江省-杭州市-萧山区-靖江街道黎明社区10组36户、靖江街道商贸街一带","startTime":"2018-06-28 12:18:06","stopDate":"2018-06-28 18:26:47","orgNo":"3340130","typeCode":"电网故障停限电","poweroffArea":"110kV靖江变:黎明A338线-黎明村7#变台区低压开关","poweroffReason":"低压漏电保护器短路故障","powerTime":"2018-06-28 17:10:07","powerComm":"已送电","subsNo":"","lineNo":"","tgNo":"","tgName":null,"infoStatus":"1","orgName":"国网浙江杭州市萧山区供电有限公司","typeName":null,"infoStatusName":null,"dateDay":null,"orgNos":null,"nowTime":null,"countyName":null,"streetName":null,"villageName":null,"roadName":null,"communityName":null,"tranName":null,"sdLineName":null,"cityCode":"3340130","cityName":"国网浙江杭州市萧山区供电有限公司","provinceCode":null,"stopTime":"2018-06-28 18:26:47","powerType":"全部","powerOffArea":"110kV靖江变:黎明A338线-黎明村7#变台区低压开关","powerOffReason":"低压漏电保护器短路故障","powerOffId":"2018062831010199"}],"pageModel":{"pageNow":1626,"totalCount":17789,"totalPage":1779,"tableRows":0,"pageCount":10,"beginCount":16250},"isExperi":"1"}