{"message":"","today":"2020-06-16","seleList":[{"poweroffId":2018062831010022,"sgpoweroffId":null,"subsName":"","lineName":"10kV学田107线","pubTranName":"桐君广场1号公变,学田路4号公变,桐江花园1号公变,桐庐弘鼎物业有限公司,桐江花园6号公变,桐庐万源商务宾馆,桐庐县文化广电新闻出版局2#专变,桐江花园4号公变,中医院4号专变,康乐路3号公变,桐江花园2号公变,康乐路1号公变,桐江花园5号公变,康乐路4号公变,体育场路1号公变,康乐路2号公变,体育场路2号公变,浙江成诚物业服务有限公司,学田路5号公变,天目大厦1号公变,康乐路6号公变,东门大厦1号公变,桐江花园3号公变,桐江花园7号公变,桐君广场2号公变,康乐路8号公变,康乐路5号公变,","scope":"浙江省-杭州市-桐庐县-桐君街道(康乐小区22栋一带);","startTime":"2018-06-28 05:16:47","stopDate":"2018-06-28 11:16:47","orgNo":"3340150","typeCode":"电网故障停限电","poweroffArea":"110kV桐庐变:学田107线-康乐路6号公变，康乐路5号公变之间","poweroffReason":"低压开关故障","powerTime":"2018-06-28 05:45:12","powerComm":"全部送电","subsNo":"","lineNo":"","tgNo":"","tgName":null,"infoStatus":"1","orgName":"国网浙江桐庐县供电公司","typeName":null,"infoStatusName":null,"dateDay":null,"orgNos":null,"nowTime":null,"countyName":null,"streetName":null,"villageName":null,"roadName":null,"communityName":null,"tranName":null,"sdLineName":null,"cityCode":"3340150","cityName":"国网浙江桐庐县供电公司","provinceCode":null,"stopTime":"2018-06-28 11:16:47","powerType":"全部","powerOffArea":"110kV桐庐变:学田107线-康乐路6号公变，康乐路5号公变之间","powerOffReason":"低压开关故障","powerOffId":"2018062831010022"},{"poweroffId":2018062831010015,"sgpoweroffId":null,"subsName":"","lineName":"10kV双湖T203线","pubTranName":"李家1号公变,","scope":"浙江省杭州市桐庐县横村镇锦华路353号一带","startTime":"2018-06-28 03:18:07","stopDate":"2018-06-28 09:18:07","orgNo":"3340150","typeCode":"电网故障停限电","poweroffArea":"110kV方埠变:双湖T203线-李家1号公变后段","poweroffReason":"低压开关故障","powerTime":"2018-06-28 08:50:42","powerComm":"已送电。","subsNo":"","lineNo":"","tgNo":"","tgName":null,"infoStatus":"1","orgName":"国网浙江桐庐县供电公司","typeName":null,"infoStatusName":null,"dateDay":null,"orgNos":null,"nowTime":null,"countyName":null,"streetName":null,"villageName":null,"roadName":null,"communityName":null,"tranName":null,"sdLineName":null,"cityCode":"3340150","cityName":"国网浙江桐庐县供电公司","provinceCode":null,"stopTime":"2018-06-28 09:18:07","powerType":"全部","powerOffArea":"110kV方埠变:双湖T203线-李家1号公变后段","powerOffReason":"低压开关故障","powerOffId":"2018062831010015"},{"poweroffId":2018062831010004,"sgpoweroffId":null,"subsName":"","lineName":"10kV中江8133线","pubTranName":"东园二变,","scope":"浙江省-杭州市-下城区-潮鸣街道(艮园社区-艮园、艮园新村);","startTime":"2018-06-28 00:28:21","stopDate":"2018-06-28 08:00:21","orgNo":"3340101","typeCode":"电网故障停限电","poweroffArea":"220kV运河变:中江8133线-东园变二线","poweroffReason":"东园变二线 低压设备故障","powerTime":"2018-06-28 01:37:42","powerComm":"送电","subsNo":"","lineNo":"","tgNo":"","tgName":null,"infoStatus":"1","orgName":"浙江杭州电力客户服务中心","typeName":null,"infoStatusName":null,"dateDay":null,"orgNos":null,"nowTime":null,"countyName":null,"streetName":null,"villageName":null,"roadName":null,"communityName":null,"tranName":null,"sdLineName":null,"cityCode":"3340101","cityName":"浙江杭州电力客户服务中心","provinceCode":null,"stopTime":"2018-06-28 08:00:21","powerType":"全部","powerOffArea":"220kV运河变:中江8133线-东园变二线","powerOffReason":"东园变二线 低压设备故障","powerOffId":"2018062831010004"},{"poweroffId":2018062731010383,"sgpoweroffId":null,"subsName":"","lineName":"10kV永乐A468线","pubTranName":"永乐村9#变,","scope":"浙江省杭州市萧山区党湾镇永乐村一带","startTime":"2018-06-27 22:10:23","stopDate":"2018-06-27 23:59:29","orgNo":"3340130","typeCode":"电网故障停限电","poweroffArea":"110kV幸福变:永乐A468线-永乐村9#变台区低压开关","poweroffReason":"低压漏电保护器短路故障","powerTime":"2018-06-27 22:55:23","powerComm":"已送电","subsNo":"","lineNo":"","tgNo":"","tgName":null,"infoStatus":"1","orgName":"国网浙江杭州市萧山区供电有限公司","typeName":null,"infoStatusName":null,"dateDay":null,"orgNos":null,"nowTime":null,"countyName":null,"streetName":null,"villageName":null,"roadName":null,"communityName":null,"tranName":null,"sdLineName":null,"cityCode":"3340130","cityName":"国网浙江杭州市萧山区供电有限公司","provinceCode":null,"stopTime":"2018-06-27 23:59:29","powerType":"全部","powerOffArea":"110kV幸福变:永乐A468线-永乐村9#变台区低压开关","powerOffReason":"低压漏电保护器短路故障","powerOffId":"2018062731010383"},{"poweroffId":2018062731010382,"sgpoweroffId":null,"subsName":"","lineName":"10kV宏福D214线","pubTranName":"新常村虎啸杏5#横溪公变,","scope":"浙江省-杭州市-富阳区-银湖街道(新常行政村-虎啸杏自然村)野坞口新常村一带;","startTime":"2018-06-27 22:37:09","stopDate":"2018-06-27 23:37:10","orgNo":"3340170","typeCode":"电网故障停限电","poweroffArea":"110kV银湖变:宏福D214线-新常村虎啸杏5#横溪公变后段","poweroffReason":"由于外力破坏引起的低压分支开关跳闸","powerTime":"2018-06-27 23:15:40","powerComm":"已送电","subsNo":"","lineNo":"","tgNo":"","tgName":null,"infoStatus":"1","orgName":"国网浙江杭州市富阳区供电公司","typeName":null,"infoStatusName":null,"dateDay":null,"orgNos":null,"nowTime":null,"countyName":null,"streetName":null,"villageName":null,"roadName":null,"communityName":null,"tranName":null,"sdLineName":null,"cityCode":"3340170","cityName":"国网浙江杭州市富阳区供电公司","provinceCode":null,"stopTime":"2018-06-27 23:37:10","powerType":"全部","powerOffArea":"110kV银湖变:宏福D214线-新常村虎啸杏5#横溪公变后段","powerOffReason":"由于外力破坏引起的低压分支开关跳闸","powerOffId":"2018062731010382"},{"poweroffId":2018062731010374,"sgpoweroffId":null,"subsName":"","lineName":"10kV汉塘312线","pubTranName":"桥外1号公变,","scope":"浙江省-杭州市-桐庐县-城南街道(岩桥行政村-桥外自然村、岩桥自然村);","startTime":"2018-06-27 22:11:59","stopDate":"2018-06-28 04:11:59","orgNo":"3340150","typeCode":"电网故障停限电","poweroffArea":"110kV洋洲变:汉塘312线-桥外1号公变后段","poweroffReason":"低压开关故障","powerTime":"2018-06-28 01:28:14","powerComm":"已送电","subsNo":"","lineNo":"","tgNo":"","tgName":null,"infoStatus":"1","orgName":"国网浙江桐庐县供电公司","typeName":null,"infoStatusName":null,"dateDay":null,"orgNos":null,"nowTime":null,"countyName":null,"streetName":null,"villageName":null,"roadName":null,"communityName":null,"tranName":null,"sdLineName":null,"cityCode":"3340150","cityName":"国网浙江桐庐县供电公司","provinceCode":null,"stopTime":"2018-06-28 04:11:59","powerType":"全部","powerOffArea":"110kV洋洲变:汉塘312线-桥外1号公变后段","powerOffReason":"低压开关故障","powerOffId":"2018062731010374"},{"poweroffId":2018062731010373,"sgpoweroffId":null,"subsName":"","lineName":"10kV富湾T401线","pubTranName":"金溪移民村1号公变,","scope":"浙江省-杭州市-桐庐县-城南街道(金溪行政村-乌枫塘自然村);","startTime":"2018-06-27 22:10:21","stopDate":"2018-06-28 04:10:21","orgNo":"3340150","typeCode":"电网故障停限电","poweroffArea":"110kV枫塘变:富湾T401线-金溪移民村1号公变后段","poweroffReason":"低压开关故障","powerTime":"2018-06-28 01:27:47","powerComm":"已送电","subsNo":"","lineNo":"","tgNo":"","tgName":null,"infoStatus":"1","orgName":"国网浙江桐庐县供电公司","typeName":null,"infoStatusName":null,"dateDay":null,"orgNos":null,"nowTime":null,"countyName":null,"streetName":null,"villageName":null,"roadName":null,"communityName":null,"tranName":null,"sdLineName":null,"cityCode":"3340150","cityName":"国网浙江桐庐县供电公司","provinceCode":null,"stopTime":"2018-06-28 04:10:21","powerType":"全部","powerOffArea":"110kV枫塘变:富湾T401线-金溪移民村1号公变后段","powerOffReason":"低压开关故障","powerOffId":"2018062731010373"},{"poweroffId":2018062731010372,"sgpoweroffId":null,"subsName":"","lineName":"10kV黄家965线","pubTranName":"黄家(2)农,","scope":"浙江省-杭州市-江干区-笕桥镇(黄家社区);","startTime":"2018-06-27 22:04:55","stopDate":"2018-06-28 04:04:55","orgNo":"3340101","typeCode":"电网故障停限电","poweroffArea":"110kV彭埠变:黄家965线-黄家(2)农","poweroffReason":"高压开关跳闸","powerTime":"2018-06-27 22:25:06","powerComm":"已送电","subsNo":"","lineNo":"","tgNo":"","tgName":null,"infoStatus":"1","orgName":"浙江杭州电力客户服务中心","typeName":null,"infoStatusName":null,"dateDay":null,"orgNos":null,"nowTime":null,"countyName":null,"streetName":null,"villageName":null,"roadName":null,"communityName":null,"tranName":null,"sdLineName":null,"cityCode":"3340101","cityName":"浙江杭州电力客户服务中心","provinceCode":null,"stopTime":"2018-06-28 04:04:55","powerType":"全部","powerOffArea":"110kV彭埠变:黄家965线-黄家(2)农","powerOffReason":"高压开关跳闸","powerOffId":"2018062731010372"},{"poweroffId":2018062731010367,"sgpoweroffId":null,"subsName":"","lineName":"10kV兴旺D558线","pubTranName":"巨利村3#桥头公变,","scope":"浙江省-杭州市-富阳区-富春街道(巨利社区-迎宾北路)，新巨利新村一带;","startTime":"2018-06-27 21:57:06","stopDate":"2018-06-27 23:57:07","orgNo":"3340170","typeCode":"电网故障停限电","poweroffArea":"110kV春江变:兴旺D558线-巨利村3#桥头公变后段","poweroffReason":"由于外力破坏导致低压分支开关跳闸","powerTime":"2018-06-27 22:39:28","powerComm":"已送电","subsNo":"","lineNo":"","tgNo":"","tgName":null,"infoStatus":"1","orgName":"国网浙江杭州市富阳区供电公司","typeName":null,"infoStatusName":null,"dateDay":null,"orgNos":null,"nowTime":null,"countyName":null,"streetName":null,"villageName":null,"roadName":null,"communityName":null,"tranName":null,"sdLineName":null,"cityCode":"3340170","cityName":"国网浙江杭州市富阳区供电公司","provinceCode":null,"stopTime":"2018-06-27 23:57:07","powerType":"全部","powerOffArea":"110kV春江变:兴旺D558线-巨利村3#桥头公变后段","powerOffReason":"由于外力破坏导致低压分支开关跳闸","powerOffId":"2018062731010367"},{"poweroffId":2018062731010365,"sgpoweroffId":null,"subsName":"","lineName":"10kV育才D812线","pubTranName":"前周路4#公变,","scope":"浙江省-杭州市-富阳区-富春街道(后周社区-后周路、前周路、孙权路)一带;","startTime":"2018-06-27 21:51:55","stopDate":"2018-06-27 23:59:59","orgNo":"3340170","typeCode":"电网故障停限电","poweroffArea":"110kV容大变:育才D812线-前周路4#公变后段","poweroffReason":"低压分支开关跳闸","powerTime":"2018-06-27 22:38:51","powerComm":"已送电","subsNo":"","lineNo":"","tgNo":"","tgName":null,"infoStatus":"1","orgName":"国网浙江杭州市富阳区供电公司","typeName":null,"infoStatusName":null,"dateDay":null,"orgNos":null,"nowTime":null,"countyName":null,"streetName":null,"villageName":null,"roadName":null,"communityName":null,"tranName":null,"sdLineName":null,"cityCode":"3340170","cityName":"国网浙江杭州市富阳区供电公司","provinceCode":null,"stopTime":"2018-06-27 23:59:59","powerType":"全部","powerOffArea":"110kV容大变:育才D812线-前周路4#公变后段","powerOffReason":"低压分支开关跳闸","powerOffId":"2018062731010365"}],"pageModel":{"pageNow":1629,"totalCount":17789,"totalPage":1779,"tableRows":0,"pageCount":10,"beginCount":16280},"isExperi":"1"}