{"message":"","today":"2020-06-16","seleList":[{"poweroffId":2018062731010230,"sgpoweroffId":null,"subsName":"","lineName":"10kV洋小324线","pubTranName":"下洋洲4号公变,","scope":"浙江省-杭州市-桐庐县-城南街道(下洋洲行政村-下洋洲自然村);兰苑路6号杭州二高控股（音译）一带","startTime":"2018-06-27 16:03:12","stopDate":"2018-06-27 22:03:12","orgNo":"3340150","typeCode":"电网故障停限电","poweroffArea":"110kV洋洲变:洋小324线-下洋洲4号公变后段","poweroffReason":"低压开关故障","powerTime":"2018-06-27 16:49:18","powerComm":"已送电。","subsNo":"","lineNo":"","tgNo":"","tgName":null,"infoStatus":"1","orgName":"国网浙江桐庐县供电公司","typeName":null,"infoStatusName":null,"dateDay":null,"orgNos":null,"nowTime":null,"countyName":null,"streetName":null,"villageName":null,"roadName":null,"communityName":null,"tranName":null,"sdLineName":null,"cityCode":"3340150","cityName":"国网浙江桐庐县供电公司","provinceCode":null,"stopTime":"2018-06-27 22:03:12","powerType":"全部","powerOffArea":"110kV洋洲变:洋小324线-下洋洲4号公变后段","powerOffReason":"低压开关故障","powerOffId":"2018062731010230"},{"poweroffId":2018062731010229,"sgpoweroffId":null,"subsName":"","lineName":"10kV院士T440线","pubTranName":"九龙贸易1号公变,","scope":"浙江省-杭州市-桐庐县-分水镇(武盛行政村-武盛自然村);九龙路60号一带","startTime":"2018-06-27 15:59:20","stopDate":"2018-06-27 21:59:20","orgNo":"3340150","typeCode":"电网故障停限电","poweroffArea":"110kV天英变:院士T440线-九龙贸易1号公变后段","poweroffReason":"低压开关故障","powerTime":"2018-06-27 16:32:54","powerComm":"已送电。","subsNo":"","lineNo":"","tgNo":"","tgName":null,"infoStatus":"1","orgName":"国网浙江桐庐县供电公司","typeName":null,"infoStatusName":null,"dateDay":null,"orgNos":null,"nowTime":null,"countyName":null,"streetName":null,"villageName":null,"roadName":null,"communityName":null,"tranName":null,"sdLineName":null,"cityCode":"3340150","cityName":"国网浙江桐庐县供电公司","provinceCode":null,"stopTime":"2018-06-27 21:59:20","powerType":"全部","powerOffArea":"110kV天英变:院士T440线-九龙贸易1号公变后段","powerOffReason":"低压开关故障","powerOffId":"2018062731010229"},{"poweroffId":2018062731010219,"sgpoweroffId":null,"subsName":"","lineName":"10kV后黄C175线","pubTranName":"蛟山村2#变,","scope":"浙江省杭州市萧山区义桥蛟山村等一带","startTime":"2018-06-27 15:37:50","stopDate":"2018-06-27 21:42:51","orgNo":"3340130","typeCode":"电网故障停限电","poweroffArea":"110kV许贤变:后黄C175线-蛟山村2#低压开关","poweroffReason":"110kV许贤变:后黄C175线-蛟山村2#低压开关","powerTime":"2018-06-27 16:42:12","powerComm":"已送电","subsNo":"","lineNo":"","tgNo":"","tgName":null,"infoStatus":"1","orgName":"国网浙江杭州市萧山区供电有限公司","typeName":null,"infoStatusName":null,"dateDay":null,"orgNos":null,"nowTime":null,"countyName":null,"streetName":null,"villageName":null,"roadName":null,"communityName":null,"tranName":null,"sdLineName":null,"cityCode":"3340130","cityName":"国网浙江杭州市萧山区供电有限公司","provinceCode":null,"stopTime":"2018-06-27 21:42:51","powerType":"全部","powerOffArea":"110kV许贤变:后黄C175线-蛟山村2#低压开关","powerOffReason":"110kV许贤变:后黄C175线-蛟山村2#低压开关","powerOffId":"2018062731010219"},{"poweroffId":2018062731010212,"sgpoweroffId":null,"subsName":"","lineName":"10kV金龙T237线","pubTranName":"家景美食街1号公变,","scope":"浙江省-杭州市-桐庐县-城南街道(下杭社区-春江路、瑶琳路);","startTime":"2018-06-27 15:24:42","stopDate":"2018-06-27 21:24:42","orgNo":"3340150","typeCode":"电网故障停限电","poweroffArea":"35kV新区变:金龙T237线-家景美食街1号公变后段","poweroffReason":"低压开关故障","powerTime":"2018-06-27 15:49:06","powerComm":"已送电。","subsNo":"","lineNo":"","tgNo":"","tgName":null,"infoStatus":"1","orgName":"国网浙江桐庐县供电公司","typeName":null,"infoStatusName":null,"dateDay":null,"orgNos":null,"nowTime":null,"countyName":null,"streetName":null,"villageName":null,"roadName":null,"communityName":null,"tranName":null,"sdLineName":null,"cityCode":"3340150","cityName":"国网浙江桐庐县供电公司","provinceCode":null,"stopTime":"2018-06-27 21:24:42","powerType":"全部","powerOffArea":"35kV新区变:金龙T237线-家景美食街1号公变后段","powerOffReason":"低压开关故障","powerOffId":"2018062731010212"},{"poweroffId":2018062231010782,"sgpoweroffId":null,"subsName":"","lineName":"10kV梵天8864线","pubTranName":"军区(一),留置施二2#,御溪(四)变,2,405部队,留办,御溪(二)变,和家售,留和四,御溪(八)变,留置施二1#,西湖高级中学,西湖高级中学,万臻置业3#,万臻置业1#,博置2#,博置2#,屏居四变,上坎,公安仓,御溪(六)变,振兴置业,万臻置业4#,屏居二变,留下中学2#,西湖供电所,留下中学1#,万臻置业2#,留和六,和景二,和景(四),","scope":"浙江省-杭州市-西湖区-留下街道(和家园、黄龙和山小区,万科坤和玉泉小区施工工地，西溪明珠小区，留下军区宿舍，杨家牌楼附近);","startTime":"2018-06-22 21:51:27","stopDate":"2018-06-22 23:55:44","orgNo":"3340101","typeCode":"电网故障停限电","poweroffArea":"110kV留下变:梵天8864线","poweroffReason":"高压开关跳闸","powerTime":"2018-06-22 23:09:15","powerComm":"已送电","subsNo":"","lineNo":"","tgNo":"","tgName":null,"infoStatus":"1","orgName":"浙江杭州电力客户服务中心","typeName":null,"infoStatusName":null,"dateDay":null,"orgNos":null,"nowTime":null,"countyName":null,"streetName":null,"villageName":null,"roadName":null,"communityName":null,"tranName":null,"sdLineName":null,"cityCode":"3340101","cityName":"浙江杭州电力客户服务中心","provinceCode":null,"stopTime":"2018-06-22 23:55:44","powerType":"全部","powerOffArea":"110kV留下变:梵天8864线","powerOffReason":"高压开关跳闸","powerOffId":"2018062231010782"},{"poweroffId":2018062231010762,"sgpoweroffId":null,"subsName":"","lineName":"10kV浦阳C538线","pubTranName":"尖山村11#变,","scope":"浙江省-杭州市-萧山区-浦阳镇(尖山行政村-尖山自然村、下山俞自然村);浙江省杭州市萧山区浦阳镇浦江院牛肉馆附近，浙江省杭州市萧山区浦阳镇下山鱼旅馆边上，浙江省杭州市萧山区浦阳镇尖山行政村一带","startTime":"2018-06-22 20:16:51","stopDate":"2018-06-22 22:38:59","orgNo":"3340130","typeCode":"电网故障停限电","poweroffArea":"35kV径游变:浦阳C538线-尖山村11#变低压开关","poweroffReason":"35kV径游变:浦阳C538线-尖山村11#变低压开关故障","powerTime":"2018-06-22 21:02:38","powerComm":"已送电","subsNo":"","lineNo":"","tgNo":"","tgName":null,"infoStatus":"1","orgName":"国网浙江杭州市萧山区供电有限公司","typeName":null,"infoStatusName":null,"dateDay":null,"orgNos":null,"nowTime":null,"countyName":null,"streetName":null,"villageName":null,"roadName":null,"communityName":null,"tranName":null,"sdLineName":null,"cityCode":"3340130","cityName":"国网浙江杭州市萧山区供电有限公司","provinceCode":null,"stopTime":"2018-06-22 22:38:59","powerType":"全部","powerOffArea":"35kV径游变:浦阳C538线-尖山村11#变低压开关","powerOffReason":"35kV径游变:浦阳C538线-尖山村11#变低压开关故障","powerOffId":"2018062231010762"},{"poweroffId":2018062231010753,"sgpoweroffId":null,"subsName":"","lineName":"10kV环汽6530线","pubTranName":"荆村一,","scope":"浙江省-杭州市-西湖区-北山街道(金祝新村);","startTime":"2018-06-22 19:58:45","stopDate":"2018-06-22 23:50:00","orgNo":"3340101","typeCode":"电网故障停限电","poweroffArea":"110kV武林变:环汽6530线-荆村一后段","poweroffReason":"高压开关跳闸","powerTime":"2018-06-22 20:34:31","powerComm":"已送电","subsNo":"","lineNo":"","tgNo":"","tgName":null,"infoStatus":"1","orgName":"浙江杭州电力客户服务中心","typeName":null,"infoStatusName":null,"dateDay":null,"orgNos":null,"nowTime":null,"countyName":null,"streetName":null,"villageName":null,"roadName":null,"communityName":null,"tranName":null,"sdLineName":null,"cityCode":"3340101","cityName":"浙江杭州电力客户服务中心","provinceCode":null,"stopTime":"2018-06-22 23:50:00","powerType":"全部","powerOffArea":"110kV武林变:环汽6530线-荆村一后段","powerOffReason":"高压开关跳闸","powerOffId":"2018062231010753"},{"poweroffId":2018062231010713,"sgpoweroffId":null,"subsName":"","lineName":"10kV惠围A128线","pubTranName":"新安村22#变,","scope":"浙江省-杭州市-萧山区-宁围镇(新安行政村)、宁围街道、新宁路机场高架旁一带","startTime":"2018-06-22 18:08:38","stopDate":"2018-06-22 23:55:19","orgNo":"3340130","typeCode":"电网故障停限电","poweroffArea":"110kV惠兴变:惠围A128线-新安村22#变低压配电设施","poweroffReason":"低压配电设施故障","powerTime":"2018-06-22 18:35:44","powerComm":"已送电","subsNo":"","lineNo":"","tgNo":"","tgName":null,"infoStatus":"1","orgName":"国网浙江杭州市萧山区供电有限公司","typeName":null,"infoStatusName":null,"dateDay":null,"orgNos":null,"nowTime":null,"countyName":null,"streetName":null,"villageName":null,"roadName":null,"communityName":null,"tranName":null,"sdLineName":null,"cityCode":"3340130","cityName":"国网浙江杭州市萧山区供电有限公司","provinceCode":null,"stopTime":"2018-06-22 23:55:19","powerType":"全部","powerOffArea":"110kV惠兴变:惠围A128线-新安村22#变低压配电设施","powerOffReason":"低压配电设施故障","powerOffId":"2018062231010713"},{"poweroffId":2018062231010691,"sgpoweroffId":null,"subsName":"","lineName":"10kV神龙362线","pubTranName":"龙虎村19#变,","scope":"浙江省-杭州市-萧山区-南阳街道龙虎行政村-龙虎自然村、南阳街道龙虎村一带","startTime":"2018-06-22 17:00:06","stopDate":"2018-06-22 19:45:48","orgNo":"3340130","typeCode":"电网故障停限电","poweroffArea":"110kV河庄变:神龙362线-龙虎村19#变台区低压开关","poweroffReason":"低压漏电保护器短路故障","powerTime":"2018-06-22 18:08:08","powerComm":"已送电","subsNo":"","lineNo":"","tgNo":"","tgName":null,"infoStatus":"1","orgName":"国网浙江杭州市萧山区供电有限公司","typeName":null,"infoStatusName":null,"dateDay":null,"orgNos":null,"nowTime":null,"countyName":null,"streetName":null,"villageName":null,"roadName":null,"communityName":null,"tranName":null,"sdLineName":null,"cityCode":"3340130","cityName":"国网浙江杭州市萧山区供电有限公司","provinceCode":null,"stopTime":"2018-06-22 19:45:48","powerType":"全部","powerOffArea":"110kV河庄变:神龙362线-龙虎村19#变台区低压开关","powerOffReason":"低压漏电保护器短路故障","powerOffId":"2018062231010691"},{"poweroffId":2018062231010641,"sgpoweroffId":null,"subsName":"","lineName":"10kV大店Y171线","pubTranName":"建德市航头镇卫生院,建德市航头中心小学,建德市华富水晶磨珠厂,溪沿村下街台区,","scope":"浙江省-杭州市-建德市-航头镇 溪沿行政村 下街自然村一带用户。","startTime":"2018-06-30 06:00:00","stopDate":"2018-06-30 11:30:00","orgNo":"3340180","typeCode":"计划停电","poweroffArea":"110kV航头变:大店Y171线-航头小学支线0#杆真空开关后段","poweroffReason":"航头小学支线杆线路移位迁改工程","powerTime":"2018-06-30 11:30:00","powerComm":"已送电","subsNo":"","lineNo":"","tgNo":"","tgName":null,"infoStatus":"1","orgName":"国网浙江建德市供电有限公司","typeName":null,"infoStatusName":null,"dateDay":null,"orgNos":null,"nowTime":null,"countyName":null,"streetName":null,"villageName":null,"roadName":null,"communityName":null,"tranName":null,"sdLineName":null,"cityCode":"3340180","cityName":"国网浙江建德市供电有限公司","provinceCode":null,"stopTime":"2018-06-30 11:30:00","powerType":"全部","powerOffArea":"110kV航头变:大店Y171线-航头小学支线0#杆真空开关后段","powerOffReason":"航头小学支线杆线路移位迁改工程","powerOffId":"2018062231010641"}],"pageModel":{"pageNow":1631,"totalCount":17789,"totalPage":1779,"tableRows":0,"pageCount":10,"beginCount":16300},"isExperi":"1"}