{"message":"","today":"2020-06-16","seleList":[{"poweroffId":2018062231010638,"sgpoweroffId":null,"subsName":"","lineName":"10kV金昌Y188线","pubTranName":"杭州跃安环保科技有限公司,建德市垃圾填埋场,寿昌集镇岩塘山台区,建德市东胜建材有限公司1#,建德市友联公铁联运有限公司1号变压器,东胜建材有限公司2#专变,1#变,建德市金盛塑业有限公司,","scope":"浙江省-杭州市-建德市-寿昌镇 集镇 岩塘山自然村一带用户。","startTime":"2018-06-30 06:30:00","stopDate":"2018-06-30 16:30:00","orgNo":"3340180","typeCode":"计划停电","poweroffArea":"35kV河南里变:金昌Y188线-石矿支线0#杆真空开关后段","poweroffReason":"石矿支线5#-6#杆移位工程","powerTime":"2018-06-30 16:30:00","powerComm":"已送电","subsNo":"","lineNo":"","tgNo":"","tgName":null,"infoStatus":"1","orgName":"国网浙江建德市供电有限公司","typeName":null,"infoStatusName":null,"dateDay":null,"orgNos":null,"nowTime":null,"countyName":null,"streetName":null,"villageName":null,"roadName":null,"communityName":null,"tranName":null,"sdLineName":null,"cityCode":"3340180","cityName":"国网浙江建德市供电有限公司","provinceCode":null,"stopTime":"2018-06-30 16:30:00","powerType":"全部","powerOffArea":"35kV河南里变:金昌Y188线-石矿支线0#杆真空开关后段","powerOffReason":"石矿支线5#-6#杆移位工程","powerOffId":"2018062231010638"},{"poweroffId":2018062231010373,"sgpoweroffId":null,"subsName":"","lineName":"10kV桃安G053线","pubTranName":"乔司充电站1#公变,乔司安置房21#公变,乔司安置房20#公变,乔司充电站2#公变,乔司安置房20#西公变,","scope":"浙江省杭州市余杭区乔司街道：乔司安置房、乔司充电站一带","startTime":"2018-06-30 08:40:00","stopDate":"2018-06-30 16:30:00","orgNo":"3340140","typeCode":"计划停电","poweroffArea":"110kV外乔变:桃安G053线-冠庆G0533线5#杆开关","poweroffReason":"配网工程 1.新布安置房20#东变400kVA及乔司安置房20#变低压割接","powerTime":"2018-06-30 15:42:32","powerComm":"施工全部结束","subsNo":"","lineNo":"","tgNo":"","tgName":null,"infoStatus":"1","orgName":"国网浙江杭州市余杭区供电有限公司","typeName":null,"infoStatusName":null,"dateDay":null,"orgNos":null,"nowTime":null,"countyName":null,"streetName":null,"villageName":null,"roadName":null,"communityName":null,"tranName":null,"sdLineName":null,"cityCode":"3340140","cityName":"国网浙江杭州市余杭区供电有限公司","provinceCode":null,"stopTime":"2018-06-30 16:30:00","powerType":"全部","powerOffArea":"110kV外乔变:桃安G053线-冠庆G0533线5#杆开关","powerOffReason":"配网工程 1.新布安置房20#东变400kVA及乔司安置房20#变低压割接","powerOffId":"2018062231010373"},{"poweroffId":2018062231010335,"sgpoweroffId":null,"subsName":"","lineName":"10kV塘路8584线","pubTranName":"霞巷,","scope":"浙江省杭州市拱墅区霞湾巷341号附近一带","startTime":"2018-06-29 09:30:32","stopDate":"2018-06-29 17:30:41","orgNo":"3340101","typeCode":"计划停电","poweroffArea":"霞巷配变西二路","poweroffReason":"霞巷站霞巷配变西二路低压T接箱移位","powerTime":"2018-06-29 12:44:43","powerComm":"已送电","subsNo":"","lineNo":"","tgNo":"","tgName":null,"infoStatus":"1","orgName":"浙江杭州电力客户服务中心","typeName":null,"infoStatusName":null,"dateDay":null,"orgNos":null,"nowTime":null,"countyName":null,"streetName":null,"villageName":null,"roadName":null,"communityName":null,"tranName":null,"sdLineName":null,"cityCode":"3340101","cityName":"浙江杭州电力客户服务中心","provinceCode":null,"stopTime":"2018-06-29 17:30:41","powerType":"全部","powerOffArea":"霞巷配变西二路","powerOffReason":"霞巷站霞巷配变西二路低压T接箱移位","powerOffId":"2018062231010335"},{"poweroffId":2018062231010298,"sgpoweroffId":null,"subsName":"","lineName":"10kV胜达C623线","pubTranName":"新华村27#变,","scope":"浙江省-杭州市-萧山区-宁围镇(新华行政村)、浙江省杭州市萧山区宁围镇、宁围街道、市心北路、钱江世纪城公司、农产大厦公司、绿都实业公司、百富置业公司、宁东北苑小区、明州医院公司、国丰物业公司、庆春隧道、钱塘江罐区等一带","startTime":"2018-06-22 13:38:33","stopDate":"2018-06-22 23:46:04","orgNo":"3340130","typeCode":"电网故障停限电","poweroffArea":"110kV新街变:胜达C623线-新华村27#变低压配电设施","poweroffReason":"低压配电设施故障","powerTime":"2018-06-22 19:35:24","powerComm":"已送电","subsNo":"","lineNo":"","tgNo":"","tgName":null,"infoStatus":"1","orgName":"国网浙江杭州市萧山区供电有限公司","typeName":null,"infoStatusName":null,"dateDay":null,"orgNos":null,"nowTime":null,"countyName":null,"streetName":null,"villageName":null,"roadName":null,"communityName":null,"tranName":null,"sdLineName":null,"cityCode":"3340130","cityName":"国网浙江杭州市萧山区供电有限公司","provinceCode":null,"stopTime":"2018-06-22 23:46:04","powerType":"全部","powerOffArea":"110kV新街变:胜达C623线-新华村27#变低压配电设施","powerOffReason":"低压配电设施故障","powerOffId":"2018062231010298"},{"poweroffId":2018062231010271,"sgpoweroffId":null,"subsName":"","lineName":"10kV天风840线","pubTranName":"铁冶变,","scope":"浙江省杭州市上城区南山路杭州钜丰源北侧小弄住宅（孝子坊）附近一带。","startTime":"2018-06-28 09:30:00","stopDate":"2018-06-28 19:00:00","orgNo":"3340101","typeCode":"计划停电","poweroffArea":"110kV涌金变:天风840线-铁冶变后段","poweroffReason":"柳浪阁等小区公变增容布点及低压台区改造工程（1811HZ17012902A0000000/CZ2018-04-018-WNPD）古荡 四条巷梯改","powerTime":"2018-06-28 18:20:12","powerComm":"已送电","subsNo":"","lineNo":"","tgNo":"","tgName":null,"infoStatus":"1","orgName":"浙江杭州电力客户服务中心","typeName":null,"infoStatusName":null,"dateDay":null,"orgNos":null,"nowTime":null,"countyName":null,"streetName":null,"villageName":null,"roadName":null,"communityName":null,"tranName":null,"sdLineName":null,"cityCode":"3340101","cityName":"浙江杭州电力客户服务中心","provinceCode":null,"stopTime":"2018-06-28 19:00:00","powerType":"全部","powerOffArea":"110kV涌金变:天风840线-铁冶变后段","powerOffReason":"柳浪阁等小区公变增容布点及低压台区改造工程（1811HZ17012902A0000000/CZ2018-04-018-WNPD）古荡 四条巷梯改","powerOffId":"2018062231010271"},{"poweroffId":2018062231010270,"sgpoweroffId":null,"subsName":"","lineName":"10kV御街843线","pubTranName":"迪佛变,","scope":"浙江省杭州市上城区光复路104号1单元附近一带","startTime":"2018-06-28 09:30:00","stopDate":"2018-06-28 19:00:00","orgNo":"3340101","typeCode":"计划停电","poweroffArea":"110kV涌金变:御街843线-迪佛变后段","poweroffReason":"配合计量消缺，更换单元表箱总空开（庄严690820）","powerTime":"2018-06-28 18:22:14","powerComm":"已送电","subsNo":"","lineNo":"","tgNo":"","tgName":null,"infoStatus":"1","orgName":"浙江杭州电力客户服务中心","typeName":null,"infoStatusName":null,"dateDay":null,"orgNos":null,"nowTime":null,"countyName":null,"streetName":null,"villageName":null,"roadName":null,"communityName":null,"tranName":null,"sdLineName":null,"cityCode":"3340101","cityName":"浙江杭州电力客户服务中心","provinceCode":null,"stopTime":"2018-06-28 19:00:00","powerType":"全部","powerOffArea":"110kV涌金变:御街843线-迪佛变后段","powerOffReason":"配合计量消缺，更换单元表箱总空开（庄严690820）","powerOffId":"2018062231010270"},{"poweroffId":2018062231010269,"sgpoweroffId":null,"subsName":"","lineName":"10kV通桥8568线","pubTranName":"永昌二,永昌,杭州市城市土地发展有限公司,","scope":"浙江省杭州市上城区江城路永昌坝43号、永昌坝7—9幢附近一带。杭州市上城区永昌坝3幢—6幢、抽水厂路137号、138号附近一带。天长小学、给水公司、城市土地发展有限公司","startTime":"2018-06-29 09:00:00","stopDate":"2018-06-29 21:30:00","orgNo":"3340101","typeCode":"计划停电","poweroffArea":"220kV候潮变:通桥8568线-永昌后段；通桥8568线-永昌二后段；通桥8568线-杭州市城市土地发展有限公司后段；通桥8568线-杭州市城市土地发展有限公司后段","poweroffReason":"南落333线消缺，滨江变南落333线拆除，南落333线1-10#杆拆除，天长用户割接至华府站，永昌、永昌二低压消缺","powerTime":"2018-06-29 18:00:00","powerComm":"已送电","subsNo":"","lineNo":"","tgNo":"","tgName":null,"infoStatus":"1","orgName":"浙江杭州电力客户服务中心","typeName":null,"infoStatusName":null,"dateDay":null,"orgNos":null,"nowTime":null,"countyName":null,"streetName":null,"villageName":null,"roadName":null,"communityName":null,"tranName":null,"sdLineName":null,"cityCode":"3340101","cityName":"浙江杭州电力客户服务中心","provinceCode":null,"stopTime":"2018-06-29 21:30:00","powerType":"全部","powerOffArea":"220kV候潮变:通桥8568线-永昌后段；通桥8568线-永昌二后段；通桥8568线-杭州市城市土地发展有限公司后段；通桥8568线-杭州市城市土地发展有限公司后段","powerOffReason":"南落333线消缺，滨江变南落333线拆除，南落333线1-10#杆拆除，天长用户割接至华府站，永昌、永昌二低压消缺","powerOffId":"2018062231010269"},{"poweroffId":2018062231010267,"sgpoweroffId":null,"subsName":"","lineName":"10kV钱农C681线","pubTranName":"同兴村19#变,","scope":"浙江省-杭州市-萧山区-新街镇(盛中行政村)、浙江省杭州市萧山区新街街道同兴行政村、新街镇同兴村一带","startTime":"2018-06-22 11:35:53","stopDate":"2018-06-22 18:08:18","orgNo":"3340130","typeCode":"电网故障停限电","poweroffArea":"110kV新街变:钱农C681线-同兴村19#变低压配电设施","poweroffReason":"低压配电设施故障","powerTime":"2018-06-22 13:00:59","powerComm":"已送电","subsNo":"","lineNo":"","tgNo":"","tgName":null,"infoStatus":"1","orgName":"国网浙江杭州市萧山区供电有限公司","typeName":null,"infoStatusName":null,"dateDay":null,"orgNos":null,"nowTime":null,"countyName":null,"streetName":null,"villageName":null,"roadName":null,"communityName":null,"tranName":null,"sdLineName":null,"cityCode":"3340130","cityName":"国网浙江杭州市萧山区供电有限公司","provinceCode":null,"stopTime":"2018-06-22 18:08:18","powerType":"全部","powerOffArea":"110kV新街变:钱农C681线-同兴村19#变低压配电设施","powerOffReason":"低压配电设施故障","powerOffId":"2018062231010267"},{"poweroffId":2018062231010212,"sgpoweroffId":null,"subsName":"","lineName":"10kV里龙6613线","pubTranName":"喜家,龙山,","scope":"浙江省杭州市西湖区转塘镇石龙山村、喜家村附近一带","startTime":"2018-06-28 09:30:00","stopDate":"2018-06-28 19:30:00","orgNo":"3340101","typeCode":"计划停电","poweroffArea":"110kV周浦变:里龙6613线-创凌91581线后段","poweroffReason":"杭州之江国家旅游度假区基础设施建设开发中心杭富路电力线路迁改工程PD2018-04-005-QX 龙石线改接，新设RM6开关柜一座","powerTime":"2018-06-28 18:25:03","powerComm":"已送电","subsNo":"","lineNo":"","tgNo":"","tgName":null,"infoStatus":"1","orgName":"浙江杭州电力客户服务中心","typeName":null,"infoStatusName":null,"dateDay":null,"orgNos":null,"nowTime":null,"countyName":null,"streetName":null,"villageName":null,"roadName":null,"communityName":null,"tranName":null,"sdLineName":null,"cityCode":"3340101","cityName":"浙江杭州电力客户服务中心","provinceCode":null,"stopTime":"2018-06-28 19:30:00","powerType":"全部","powerOffArea":"110kV周浦变:里龙6613线-创凌91581线后段","powerOffReason":"杭州之江国家旅游度假区基础设施建设开发中心杭富路电力线路迁改工程PD2018-04-005-QX 龙石线改接，新设RM6开关柜一座","powerOffId":"2018062231010212"},{"poweroffId":2018062231010182,"sgpoweroffId":null,"subsName":"","lineName":"里桃V541线","pubTranName":"","scope":"浙江省杭州市临安市恒丰造纸厂,临安市桃源纸业有限公司,临安运泽纸制品厂,临安迪大清洁能源有限公司,临安里桃电子有限公司,北坞里村,南坞里,叶家坞敬老院,外桃村,杭州临安华迅水刺布有限公司,杭州临安和兴生物科技有限公司,杭州临安鸿盛纸业有限公司,沙塘弄,祝家村丁家湾,祝家桥,祝家过溪畈,董校军,里桃[北坞],里桃村,里桃村南坞里,里桃村双溪桥头,里桃村高家头,里桃黄洞坞，北坞里村,临安里桃电子有限公司,里桃[北坞],临安市奥星有限公司,临安运泽纸制品厂,里桃,里桃村双溪桥头,临安市桃源纸业有限公司1,南坞里,临安市恒丰造纸厂,里桃村南坞里,董校军,临安市恒丰造纸厂一带","startTime":"2018-06-22 11:04:42","stopDate":"2018-06-22 18:04:26","orgNo":"3340160","typeCode":"电网故障停限电","poweroffArea":"停板桥变里桃V541线里桃公变台区低压开关","poweroffReason":"里桃V541线里桃公变台区低压开关跳","powerTime":"2018-06-22 15:54:08","powerComm":"已送电","subsNo":"","lineNo":"","tgNo":"","tgName":null,"infoStatus":"1","orgName":"国网浙江临安市供电公司","typeName":null,"infoStatusName":null,"dateDay":null,"orgNos":null,"nowTime":null,"countyName":null,"streetName":null,"villageName":null,"roadName":null,"communityName":null,"tranName":null,"sdLineName":null,"cityCode":"3340160","cityName":"国网浙江临安市供电公司","provinceCode":null,"stopTime":"2018-06-22 18:04:26","powerType":"全部","powerOffArea":"停板桥变里桃V541线里桃公变台区低压开关","powerOffReason":"里桃V541线里桃公变台区低压开关跳","powerOffId":"2018062231010182"}],"pageModel":{"pageNow":1632,"totalCount":17789,"totalPage":1779,"tableRows":0,"pageCount":10,"beginCount":16310},"isExperi":"1"}