{"message":"","today":"2020-06-16","seleList":[{"poweroffId":2018062231010129,"sgpoweroffId":null,"subsName":"","lineName":"10kV利时7152线","pubTranName":"沿灯(2),沿灯(1),","scope":"浙江省-杭州市-江干区(杭州经济技术开发区城市管理办公室,杭州经济技术开发区城市建设发展中心);","startTime":"2018-06-28 09:30:57","stopDate":"2018-06-28 18:30:57","orgNo":"3340101","typeCode":"计划停电","poweroffArea":"110kV沿江变:利时7152线-保税（1）分线后段","poweroffReason":"消缺任务：消除[QX20180622045 世业(11)支线、世业(13)支线、世业(17)支线线路遗留 2018-06-13 10:01:12]的一般缺陷","powerTime":"2018-06-28 18:17:22","powerComm":"已送电","subsNo":"","lineNo":"","tgNo":"","tgName":null,"infoStatus":"1","orgName":"浙江杭州电力客户服务中心","typeName":null,"infoStatusName":null,"dateDay":null,"orgNos":null,"nowTime":null,"countyName":null,"streetName":null,"villageName":null,"roadName":null,"communityName":null,"tranName":null,"sdLineName":null,"cityCode":"3340101","cityName":"浙江杭州电力客户服务中心","provinceCode":null,"stopTime":"2018-06-28 18:30:57","powerType":"全部","powerOffArea":"110kV沿江变:利时7152线-保税（1）分线后段","powerOffReason":"消缺任务：消除[QX20180622045 世业(11)支线、世业(13)支线、世业(17)支线线路遗留 2018-06-13 10:01:12]的一般缺陷","powerOffId":"2018062231010129"},{"poweroffId":2018062231010122,"sgpoweroffId":null,"subsName":"","lineName":"10kV环汽6530线","pubTranName":"胜利新村变,","scope":"浙江省-杭州市-下城区-天水街道(延安新村社区-体育场路)胜利新村一带","startTime":"2018-06-22 10:10:21","stopDate":"2018-06-22 16:10:21","orgNo":"3340101","typeCode":"电网故障停限电","poweroffArea":"110kV武林变:环汽6530线-胜利新村变","poweroffReason":"高压开关跳闸","powerTime":"2018-06-22 10:58:05","powerComm":"送电","subsNo":"","lineNo":"","tgNo":"","tgName":null,"infoStatus":"1","orgName":"浙江杭州电力客户服务中心","typeName":null,"infoStatusName":null,"dateDay":null,"orgNos":null,"nowTime":null,"countyName":null,"streetName":null,"villageName":null,"roadName":null,"communityName":null,"tranName":null,"sdLineName":null,"cityCode":"3340101","cityName":"浙江杭州电力客户服务中心","provinceCode":null,"stopTime":"2018-06-22 16:10:21","powerType":"全部","powerOffArea":"110kV武林变:环汽6530线-胜利新村变","powerOffReason":"高压开关跳闸","powerOffId":"2018062231010122"},{"poweroffId":2018062231010102,"sgpoweroffId":null,"subsName":"","lineName":"10kV洋溪Y100线","pubTranName":"李家坞3#公变变压器,","scope":"浙江省-杭州市-建德市 新安江街道江南雅苑一带用户。","startTime":"2018-06-22 09:35:00","stopDate":"2018-06-22 15:44:25","orgNo":"3340180","typeCode":"电网故障停限电","poweroffArea":"110kV新安江变:洋溪Y100线-李家坞3号公变变压器后段","poweroffReason":"洋溪Y100线-李家坞3号公变 低压配电设备故障","powerTime":"2018-06-22 14:06:03","powerComm":"已送电","subsNo":"","lineNo":"","tgNo":"","tgName":null,"infoStatus":"1","orgName":"国网浙江建德市供电有限公司","typeName":null,"infoStatusName":null,"dateDay":null,"orgNos":null,"nowTime":null,"countyName":null,"streetName":null,"villageName":null,"roadName":null,"communityName":null,"tranName":null,"sdLineName":null,"cityCode":"3340180","cityName":"国网浙江建德市供电有限公司","provinceCode":null,"stopTime":"2018-06-22 15:44:25","powerType":"全部","powerOffArea":"110kV新安江变:洋溪Y100线-李家坞3号公变变压器后段","powerOffReason":"洋溪Y100线-李家坞3号公变 低压配电设备故障","powerOffId":"2018062231010102"},{"poweroffId":2018062231010077,"sgpoweroffId":null,"subsName":"","lineName":"10kV新华D320线","pubTranName":"八一村5#菜场公变,","scope":"浙江省-杭州市-富阳区-春江街道(八一行政村-八一自然村)一带","startTime":"2018-06-22 09:40:00","stopDate":"2018-06-22 11:00:00","orgNo":"3340170","typeCode":"电网故障停限电","poweroffArea":"110kV建设变:新华D320线-八一村5#菜场公变1号线路后段","poweroffReason":"低压配电设备故障","powerTime":"2018-06-22 10:31:42","powerComm":"故障已修复","subsNo":"","lineNo":"","tgNo":"","tgName":null,"infoStatus":"1","orgName":"国网浙江杭州市富阳区供电公司","typeName":null,"infoStatusName":null,"dateDay":null,"orgNos":null,"nowTime":null,"countyName":null,"streetName":null,"villageName":null,"roadName":null,"communityName":null,"tranName":null,"sdLineName":null,"cityCode":"3340170","cityName":"国网浙江杭州市富阳区供电公司","provinceCode":null,"stopTime":"2018-06-22 11:00:00","powerType":"全部","powerOffArea":"110kV建设变:新华D320线-八一村5#菜场公变1号线路后段","powerOffReason":"低压配电设备故障","powerOffId":"2018062231010077"},{"poweroffId":2018062231010071,"sgpoweroffId":null,"subsName":"","lineName":"10kV博览A017线","pubTranName":"湖畔宽邸2#公变,","scope":"浙江省-杭州市-萧山区-城厢街道休博园社区、湖畔宽邸中央郡18幢、湖畔宽邸中央郡19幢、湖畔宽邸中央郡20幢一带","startTime":"2018-06-22 09:00:28","stopDate":"2018-06-22 23:30:10","orgNo":"3340130","typeCode":"电网故障停限电","poweroffArea":"110kV越王变:博览A017线-湖畔宽邸2#公变低压配电设备","poweroffReason":"低压配电设备故障","powerTime":"2018-06-22 23:24:00","powerComm":"已送电","subsNo":"","lineNo":"","tgNo":"","tgName":null,"infoStatus":"1","orgName":"国网浙江杭州市萧山区供电有限公司","typeName":null,"infoStatusName":null,"dateDay":null,"orgNos":null,"nowTime":null,"countyName":null,"streetName":null,"villageName":null,"roadName":null,"communityName":null,"tranName":null,"sdLineName":null,"cityCode":"3340130","cityName":"国网浙江杭州市萧山区供电有限公司","provinceCode":null,"stopTime":"2018-06-22 23:30:10","powerType":"全部","powerOffArea":"110kV越王变:博览A017线-湖畔宽邸2#公变低压配电设备","powerOffReason":"低压配电设备故障","powerOffId":"2018062231010071"},{"poweroffId":2018062231010058,"sgpoweroffId":null,"subsName":"","lineName":"10kV双林D786线","pubTranName":"","scope":"浙江省杭州市富阳区场口镇真佳溪村一带","startTime":"2018-06-22 08:40:00","stopDate":"2018-06-22 11:00:00","orgNo":"3340170","typeCode":"电网故障停限电","poweroffArea":"110kV王洲变:双林D786线 真佳溪村18#红溪江边公变","poweroffReason":"低压配电设备故障","powerTime":"2018-06-22 10:40:19","powerComm":"低压配电设备故障已排除","subsNo":"","lineNo":"","tgNo":"","tgName":null,"infoStatus":"1","orgName":"国网浙江杭州市富阳区供电公司","typeName":null,"infoStatusName":null,"dateDay":null,"orgNos":null,"nowTime":null,"countyName":null,"streetName":null,"villageName":null,"roadName":null,"communityName":null,"tranName":null,"sdLineName":null,"cityCode":"3340170","cityName":"国网浙江杭州市富阳区供电公司","provinceCode":null,"stopTime":"2018-06-22 11:00:00","powerType":"全部","powerOffArea":"110kV王洲变:双林D786线 真佳溪村18#红溪江边公变","powerOffReason":"低压配电设备故障","powerOffId":"2018062231010058"},{"poweroffId":2018062231010045,"sgpoweroffId":null,"subsName":"","lineName":"10kV航运C120线","pubTranName":"潘水南苑2#公变,","scope":"浙江省-杭州市-萧山区-城厢街道潘水社区、潘水南苑一带","startTime":"2018-06-22 08:30:41","stopDate":"2018-06-22 17:00:41","orgNo":"3340130","typeCode":"电网故障停限电","poweroffArea":"110kV丽都变:航运C120线-潘水南苑2#公变低压配电设备","poweroffReason":"低压配电设备故障","powerTime":"2018-06-22 16:40:11","powerComm":"已送电","subsNo":"","lineNo":"","tgNo":"","tgName":null,"infoStatus":"1","orgName":"国网浙江杭州市萧山区供电有限公司","typeName":null,"infoStatusName":null,"dateDay":null,"orgNos":null,"nowTime":null,"countyName":null,"streetName":null,"villageName":null,"roadName":null,"communityName":null,"tranName":null,"sdLineName":null,"cityCode":"3340130","cityName":"国网浙江杭州市萧山区供电有限公司","provinceCode":null,"stopTime":"2018-06-22 17:00:41","powerType":"全部","powerOffArea":"110kV丽都变:航运C120线-潘水南苑2#公变低压配电设备","powerOffReason":"低压配电设备故障","powerOffId":"2018062231010045"},{"poweroffId":2018062231010038,"sgpoweroffId":null,"subsName":"","lineName":"10kV樱多A085线","pubTranName":"工农村6#变,","scope":"浙江省-杭州市-萧山区-瓜沥镇工农行政村、工农村、坎山工农村一带","startTime":"2018-06-22 08:01:00","stopDate":"2018-06-22 10:30:04","orgNo":"3340130","typeCode":"电网故障停限电","poweroffArea":"110kV航坞变:樱多A085线-工农村6#变台区低压开关","poweroffReason":"低压漏电保护器短路故障","powerTime":"2018-06-22 09:50:52","powerComm":"已送电","subsNo":"","lineNo":"","tgNo":"","tgName":null,"infoStatus":"1","orgName":"国网浙江杭州市萧山区供电有限公司","typeName":null,"infoStatusName":null,"dateDay":null,"orgNos":null,"nowTime":null,"countyName":null,"streetName":null,"villageName":null,"roadName":null,"communityName":null,"tranName":null,"sdLineName":null,"cityCode":"3340130","cityName":"国网浙江杭州市萧山区供电有限公司","provinceCode":null,"stopTime":"2018-06-22 10:30:04","powerType":"全部","powerOffArea":"110kV航坞变:樱多A085线-工农村6#变台区低压开关","powerOffReason":"低压漏电保护器短路故障","powerOffId":"2018062231010038"},{"poweroffId":2018062231010032,"sgpoweroffId":null,"subsName":"","lineName":"10kV新盛C621线","pubTranName":"同兴村17#变,","scope":"浙江省杭州市萧山区新街(镇)街道同兴村等一带","startTime":"2018-06-22 08:00:30","stopDate":"2018-06-22 17:30:34","orgNo":"3340130","typeCode":"电网故障停限电","poweroffArea":"110kV新街变:新盛C621线-同兴村17#变低压配电设施","poweroffReason":"低压配电设施故障","powerTime":"2018-06-22 08:27:23","powerComm":"已送电","subsNo":"","lineNo":"","tgNo":"","tgName":null,"infoStatus":"1","orgName":"国网浙江杭州市萧山区供电有限公司","typeName":null,"infoStatusName":null,"dateDay":null,"orgNos":null,"nowTime":null,"countyName":null,"streetName":null,"villageName":null,"roadName":null,"communityName":null,"tranName":null,"sdLineName":null,"cityCode":"3340130","cityName":"国网浙江杭州市萧山区供电有限公司","provinceCode":null,"stopTime":"2018-06-22 17:30:34","powerType":"全部","powerOffArea":"110kV新街变:新盛C621线-同兴村17#变低压配电设施","powerOffReason":"低压配电设施故障","powerOffId":"2018062231010032"},{"poweroffId":2018062231010019,"sgpoweroffId":null,"subsName":"","lineName":"10kV博览A017线","pubTranName":"湖畔宽邸2#公变,","scope":"浙江省-杭州市-萧山区-城厢街道休博园社区湖畔宽邸中央郡18幢、19幢、20幢一带","startTime":"2018-06-22 06:50:08","stopDate":"2018-06-22 13:00:08","orgNo":"3340130","typeCode":"电网故障停限电","poweroffArea":"110kV越王变:博览A017线-湖畔宽邸2#公变低压配电设备","poweroffReason":"低压配电设备故障","powerTime":"2018-06-22 07:42:31","powerComm":"已送电","subsNo":"","lineNo":"","tgNo":"","tgName":null,"infoStatus":"1","orgName":"国网浙江杭州市萧山区供电有限公司","typeName":null,"infoStatusName":null,"dateDay":null,"orgNos":null,"nowTime":null,"countyName":null,"streetName":null,"villageName":null,"roadName":null,"communityName":null,"tranName":null,"sdLineName":null,"cityCode":"3340130","cityName":"国网浙江杭州市萧山区供电有限公司","provinceCode":null,"stopTime":"2018-06-22 13:00:08","powerType":"全部","powerOffArea":"110kV越王变:博览A017线-湖畔宽邸2#公变低压配电设备","powerOffReason":"低压配电设备故障","powerOffId":"2018062231010019"}],"pageModel":{"pageNow":1633,"totalCount":17789,"totalPage":1779,"tableRows":0,"pageCount":10,"beginCount":16320},"isExperi":"1"}