{"message":"","today":"2020-06-16","seleList":[{"poweroffId":2018062131010059,"sgpoweroffId":null,"subsName":"","lineName":"10kV虎跑8786线","pubTranName":"虎泉,杭州少年儿童公园,1#,雅苑泉变,紫京庄变,杭州少年儿童公园,眼井村变,四眼三变,南玉,满桂泵站专变,轻防,满桂泵站专变,桂花变,杭州紫京山庄变,紫京山庄,梦泉水变,伊家鲜,虎菜,满加,","scope":"浙江省-杭州市-西湖区-西湖街道(满觉陇村社区-虎跑路、马儿山、上满觉陇、四眼井);","startTime":"2018-06-21 09:20:07","stopDate":"2018-06-21 15:20:07","orgNo":"3340101","typeCode":"电网故障停限电","poweroffArea":"110kV花港变:虎跑8786线","poweroffReason":"高压开关跳闸","powerTime":"2018-06-21 11:29:51","powerComm":"已送电","subsNo":"","lineNo":"","tgNo":"","tgName":null,"infoStatus":"1","orgName":"浙江杭州电力客户服务中心","typeName":null,"infoStatusName":null,"dateDay":null,"orgNos":null,"nowTime":null,"countyName":null,"streetName":null,"villageName":null,"roadName":null,"communityName":null,"tranName":null,"sdLineName":null,"cityCode":"3340101","cityName":"浙江杭州电力客户服务中心","provinceCode":null,"stopTime":"2018-06-21 15:20:07","powerType":"全部","powerOffArea":"110kV花港变:虎跑8786线","powerOffReason":"高压开关跳闸","powerOffId":"2018062131010059"},{"poweroffId":2018062131010058,"sgpoweroffId":null,"subsName":"","lineName":"10kV大塘D797线","pubTranName":"","scope":"浙江省杭州市富阳区场口镇鸿丰村一带","startTime":"2018-06-21 08:40:00","stopDate":"2018-06-21 11:00:00","orgNo":"3340170","typeCode":"电网故障停限电","poweroffArea":"110kV王洲变:鸿丰村3#村口公变","poweroffReason":"低压配电设备故障","powerTime":"2018-06-21 10:33:16","powerComm":"低压配电设备故障排除","subsNo":"","lineNo":"","tgNo":"","tgName":null,"infoStatus":"1","orgName":"国网浙江杭州市富阳区供电公司","typeName":null,"infoStatusName":null,"dateDay":null,"orgNos":null,"nowTime":null,"countyName":null,"streetName":null,"villageName":null,"roadName":null,"communityName":null,"tranName":null,"sdLineName":null,"cityCode":"3340170","cityName":"国网浙江杭州市富阳区供电公司","provinceCode":null,"stopTime":"2018-06-21 11:00:00","powerType":"全部","powerOffArea":"110kV王洲变:鸿丰村3#村口公变","powerOffReason":"低压配电设备故障","powerOffId":"2018062131010058"},{"poweroffId":2018062131010056,"sgpoweroffId":null,"subsName":"","lineName":"10kV宝盛C777线","pubTranName":"山河花园1#公变,","scope":"浙江省-杭州市-萧山区-北干街道北干二苑社区-育才北路、山河花园一带","startTime":"2018-06-21 08:30:00","stopDate":"2018-06-21 14:30:00","orgNo":"3340130","typeCode":"电网故障停限电","poweroffArea":"110kV通惠变:宝盛C777线山河花园1#公变低压配电设备","poweroffReason":"低压配电设备故障","powerTime":"2018-06-21 11:08:51","powerComm":"已送电","subsNo":"","lineNo":"","tgNo":"","tgName":null,"infoStatus":"1","orgName":"国网浙江杭州市萧山区供电有限公司","typeName":null,"infoStatusName":null,"dateDay":null,"orgNos":null,"nowTime":null,"countyName":null,"streetName":null,"villageName":null,"roadName":null,"communityName":null,"tranName":null,"sdLineName":null,"cityCode":"3340130","cityName":"国网浙江杭州市萧山区供电有限公司","provinceCode":null,"stopTime":"2018-06-21 14:30:00","powerType":"全部","powerOffArea":"110kV通惠变:宝盛C777线山河花园1#公变低压配电设备","powerOffReason":"低压配电设备故障","powerOffId":"2018062131010056"},{"poweroffId":2018062131010040,"sgpoweroffId":null,"subsName":"","lineName":"10kV城镇D166线","pubTranName":"大源镇9#花果山公变,","scope":"浙江省杭州市富阳区大源镇大源行政村永庆自然村一带","startTime":"2018-06-21 09:00:00","stopDate":"2018-06-21 10:30:00","orgNo":"3340170","typeCode":"电网故障停限电","poweroffArea":"110kV大源变:城镇D166线-大源镇9#花果山公变1号线后段","poweroffReason":"低压配电设备故障","powerTime":"2018-06-21 10:02:39","powerComm":"低压配电设备故障已修复","subsNo":"","lineNo":"","tgNo":"","tgName":null,"infoStatus":"1","orgName":"国网浙江杭州市富阳区供电公司","typeName":null,"infoStatusName":null,"dateDay":null,"orgNos":null,"nowTime":null,"countyName":null,"streetName":null,"villageName":null,"roadName":null,"communityName":null,"tranName":null,"sdLineName":null,"cityCode":"3340170","cityName":"国网浙江杭州市富阳区供电公司","provinceCode":null,"stopTime":"2018-06-21 10:30:00","powerType":"全部","powerOffArea":"110kV大源变:城镇D166线-大源镇9#花果山公变1号线后段","powerOffReason":"低压配电设备故障","powerOffId":"2018062131010040"},{"poweroffId":2018062131010036,"sgpoweroffId":null,"subsName":"","lineName":"10kV十月D225线","pubTranName":"沈家坞1号坑东公变,","scope":"浙江省-杭州市-富阳区-沈家坞村坑东一带","startTime":"2018-06-21 08:30:00","stopDate":"2018-06-21 12:30:00","orgNo":"3340170","typeCode":"电网故障停限电","poweroffArea":"110kV银湖变:十月D225线沈家坞1#坑东公变低压开关后段","poweroffReason":"开挖杆坑1个，吊车立杆1只，拆装集束导线80米，人工运杆1只，","powerTime":"2018-06-21 11:37:12","powerComm":"低压配电设备故障排除","subsNo":"","lineNo":"","tgNo":"","tgName":null,"infoStatus":"1","orgName":"国网浙江杭州市富阳区供电公司","typeName":null,"infoStatusName":null,"dateDay":null,"orgNos":null,"nowTime":null,"countyName":null,"streetName":null,"villageName":null,"roadName":null,"communityName":null,"tranName":null,"sdLineName":null,"cityCode":"3340170","cityName":"国网浙江杭州市富阳区供电公司","provinceCode":null,"stopTime":"2018-06-21 12:30:00","powerType":"全部","powerOffArea":"110kV银湖变:十月D225线沈家坞1#坑东公变低压开关后段","powerOffReason":"开挖杆坑1个，吊车立杆1只，拆装集束导线80米，人工运杆1只，","powerOffId":"2018062131010036"},{"poweroffId":2018062131010030,"sgpoweroffId":null,"subsName":"","lineName":"10kV四眼8785线","pubTranName":"虎井村变,","scope":"浙江省-杭州市-西湖区-西湖街道(满觉陇村社区-虎跑路四眼井、满觉陇路、四眼井、下满觉陇);","startTime":"2018-06-21 08:04:18","stopDate":"2018-06-21 14:04:18","orgNo":"3340101","typeCode":"电网故障停限电","poweroffArea":"110kV花港变:四眼8785线-虎井村变后段","poweroffReason":"高压开关跳闸","powerTime":"2018-06-21 11:28:34","powerComm":"已送电","subsNo":"","lineNo":"","tgNo":"","tgName":null,"infoStatus":"1","orgName":"浙江杭州电力客户服务中心","typeName":null,"infoStatusName":null,"dateDay":null,"orgNos":null,"nowTime":null,"countyName":null,"streetName":null,"villageName":null,"roadName":null,"communityName":null,"tranName":null,"sdLineName":null,"cityCode":"3340101","cityName":"浙江杭州电力客户服务中心","provinceCode":null,"stopTime":"2018-06-21 14:04:18","powerType":"全部","powerOffArea":"110kV花港变:四眼8785线-虎井村变后段","powerOffReason":"高压开关跳闸","powerOffId":"2018062131010030"},{"poweroffId":2018062131010026,"sgpoweroffId":null,"subsName":"","lineName":"10kV县府235线","pubTranName":"陈家坞3号公变,","scope":"浙江省-杭州市-桐庐县-城南街道(下杭社区-白云源路、大联路、迎春三弄、阆苑路、石马小区一带);","startTime":"2018-06-21 07:52:29","stopDate":"2018-06-21 11:54:52","orgNo":"3340150","typeCode":"电网故障停限电","poweroffArea":"35kV新区变:县府235线-陈家坞3号公变后段","poweroffReason":"低压开关故障处理","powerTime":"2018-06-21 11:30:34","powerComm":"已送电","subsNo":"","lineNo":"","tgNo":"","tgName":null,"infoStatus":"1","orgName":"国网浙江桐庐县供电公司","typeName":null,"infoStatusName":null,"dateDay":null,"orgNos":null,"nowTime":null,"countyName":null,"streetName":null,"villageName":null,"roadName":null,"communityName":null,"tranName":null,"sdLineName":null,"cityCode":"3340150","cityName":"国网浙江桐庐县供电公司","provinceCode":null,"stopTime":"2018-06-21 11:54:52","powerType":"全部","powerOffArea":"35kV新区变:县府235线-陈家坞3号公变后段","powerOffReason":"低压开关故障处理","powerOffId":"2018062131010026"},{"poweroffId":2018062131010025,"sgpoweroffId":null,"subsName":"","lineName":"10kV山末C624线","pubTranName":"新和人家1#变,","scope":"浙江省杭州市萧山区-新街镇-新街街道、新和社区、新和人家小区、文轩路新和人家小区等一带","startTime":"2018-06-21 07:43:50","stopDate":"2018-06-21 10:50:54","orgNo":"3340130","typeCode":"电网故障停限电","poweroffArea":"110kV新街变:山末C624线-新和人家1#变低压配电设施","poweroffReason":"低压配电设施故障","powerTime":"2018-06-21 08:56:56","powerComm":"已送电","subsNo":"","lineNo":"","tgNo":"","tgName":null,"infoStatus":"1","orgName":"国网浙江杭州市萧山区供电有限公司","typeName":null,"infoStatusName":null,"dateDay":null,"orgNos":null,"nowTime":null,"countyName":null,"streetName":null,"villageName":null,"roadName":null,"communityName":null,"tranName":null,"sdLineName":null,"cityCode":"3340130","cityName":"国网浙江杭州市萧山区供电有限公司","provinceCode":null,"stopTime":"2018-06-21 10:50:54","powerType":"全部","powerOffArea":"110kV新街变:山末C624线-新和人家1#变低压配电设施","powerOffReason":"低压配电设施故障","powerOffId":"2018062131010025"},{"poweroffId":2018062131010020,"sgpoweroffId":null,"subsName":"","lineName":"10kV友谊D302线","pubTranName":"新建村3#新区西公变,","scope":"浙江省-杭州市-富阳区-春江街道(新建行政村-新建自然村)一带","startTime":"2018-06-21 08:00:00","stopDate":"2018-06-21 08:40:00","orgNo":"3340170","typeCode":"电网故障停限电","poweroffArea":"110kV建设变:友谊D302线-新建村3#新区西公变2号线后段","poweroffReason":"低压配电设备故障","powerTime":"2018-06-21 08:20:36","powerComm":"故障已排除","subsNo":"","lineNo":"","tgNo":"","tgName":null,"infoStatus":"1","orgName":"国网浙江杭州市富阳区供电公司","typeName":null,"infoStatusName":null,"dateDay":null,"orgNos":null,"nowTime":null,"countyName":null,"streetName":null,"villageName":null,"roadName":null,"communityName":null,"tranName":null,"sdLineName":null,"cityCode":"3340170","cityName":"国网浙江杭州市富阳区供电公司","provinceCode":null,"stopTime":"2018-06-21 08:40:00","powerType":"全部","powerOffArea":"110kV建设变:友谊D302线-新建村3#新区西公变2号线后段","powerOffReason":"低压配电设备故障","powerOffId":"2018062131010020"},{"poweroffId":2018062131010019,"sgpoweroffId":null,"subsName":"","lineName":"10kV银乔C832线","pubTranName":"芝兰村6#变,","scope":"浙江省-杭州市-萧山区-新街镇、芝兰行政村-芝兰自然村等一带","startTime":"2018-06-21 07:31:26","stopDate":"2018-06-21 09:32:09","orgNo":"3340130","typeCode":"电网故障停限电","poweroffArea":"110kV罗山变:银乔C832线-芝兰村6#变低压配电设施","poweroffReason":"低压配电设施故障","powerTime":"2018-06-21 08:59:46","powerComm":"已送电","subsNo":"","lineNo":"","tgNo":"","tgName":null,"infoStatus":"1","orgName":"国网浙江杭州市萧山区供电有限公司","typeName":null,"infoStatusName":null,"dateDay":null,"orgNos":null,"nowTime":null,"countyName":null,"streetName":null,"villageName":null,"roadName":null,"communityName":null,"tranName":null,"sdLineName":null,"cityCode":"3340130","cityName":"国网浙江杭州市萧山区供电有限公司","provinceCode":null,"stopTime":"2018-06-21 09:32:09","powerType":"全部","powerOffArea":"110kV罗山变:银乔C832线-芝兰村6#变低压配电设施","powerOffReason":"低压配电设施故障","powerOffId":"2018062131010019"}],"pageModel":{"pageNow":1636,"totalCount":17789,"totalPage":1779,"tableRows":0,"pageCount":10,"beginCount":16350},"isExperi":"1"}