{"message":"","today":"2020-06-15","seleList":[{"poweroffId":2020051531020499,"sgpoweroffId":null,"subsName":"","lineName":"10kV胜利D622线","pubTranName":"浙江金东纸业有限公司,","scope":"浙江省-杭州市-富阳区-灵桥镇-灵桥行政村-浙江金东纸业有限公司一带","startTime":"2020-05-25 08:30:00","stopDate":"2020-05-25 16:00:00","orgNo":"3340170","typeCode":"计划停电","poweroffArea":"110kV灵桥变:胜利D622线-污水站支线开关后段","poweroffReason":"灵桥安置小区（BC区块）电力线路迁改工程：新放JKLYJ-10-150导线2档，JKLYJ-10-70导线4档，拆除旧导线5档，杆上附件拆除、线路拆、搭头等工作。","powerTime":"2020-05-25 15:50:12","powerComm":"已送电","subsNo":"","lineNo":"","tgNo":"","tgName":null,"infoStatus":"1","orgName":"国网浙江杭州市富阳区供电公司","typeName":null,"infoStatusName":null,"dateDay":null,"orgNos":null,"nowTime":null,"countyName":null,"streetName":null,"villageName":null,"roadName":null,"communityName":null,"tranName":null,"sdLineName":null,"cityCode":"3340170","cityName":"国网浙江杭州市富阳区供电公司","provinceCode":null,"stopTime":"2020-05-25 16:00:00","powerType":"全部","powerOffArea":"110kV灵桥变:胜利D622线-污水站支线开关后段","powerOffReason":"灵桥安置小区（BC区块）电力线路迁改工程：新放JKLYJ-10-150导线2档，JKLYJ-10-70导线4档，拆除旧导线5档，杆上附件拆除、线路拆、搭头等工作。","powerOffId":"2020051531020499"},{"poweroffId":2020051531020494,"sgpoweroffId":null,"subsName":"","lineName":"10kV蒋家D408线","pubTranName":"蒋家村16号富棉公变,","scope":"浙江省-杭州市-富阳区-鹿山街道-南山行政村-晖山自然村,鹿山街道-蒋家行政村(青春路,蒋家自然村,中心路,环厂路,阳光路,最光路,徐家路)","startTime":"2020-05-25 07:45:00","stopDate":"2020-05-25 08:25:00","orgNo":"3340170","typeCode":"计划停电","poweroffArea":"110kV长春变:蒋家D408线-蒋家村16号富棉公变后段","poweroffReason":"中铁十二局集团有限公司湖杭铁路项目经理部三分部线路迁改工程：蒋家村16号富棉公变变压器0.4kv出线电缆改接至发电机T接箱","powerTime":"2020-05-25 08:09:59","powerComm":"已送电","subsNo":"","lineNo":"","tgNo":"","tgName":null,"infoStatus":"1","orgName":"国网浙江杭州市富阳区供电公司","typeName":null,"infoStatusName":null,"dateDay":null,"orgNos":null,"nowTime":null,"countyName":null,"streetName":null,"villageName":null,"roadName":null,"communityName":null,"tranName":null,"sdLineName":null,"cityCode":"3340170","cityName":"国网浙江杭州市富阳区供电公司","provinceCode":null,"stopTime":"2020-05-25 08:25:00","powerType":"全部","powerOffArea":"110kV长春变:蒋家D408线-蒋家村16号富棉公变后段","powerOffReason":"中铁十二局集团有限公司湖杭铁路项目经理部三分部线路迁改工程：蒋家村16号富棉公变变压器0.4kv出线电缆改接至发电机T接箱","powerOffId":"2020051531020494"},{"poweroffId":2020051531020487,"sgpoweroffId":null,"subsName":"","lineName":"10kV栋山D410线","pubTranName":"坞口村3#长南坞公变,","scope":"浙江省-杭州市-富阳区-鹿山街道-汤家埠行政村-汤家埠自然村,鹿山街道-三合行政村(坞口自然村,长南坞自然村)","startTime":"2020-05-25 07:45:00","stopDate":"2020-05-25 08:25:00","orgNo":"3340170","typeCode":"计划停电","poweroffArea":"110kV长春变:栋山D410线-坞口村3#长南坞公变后段","poweroffReason":"中铁十二局集团有限公司湖杭铁路项目经理部三分部线路迁改工程：坞口村3#长南坞公变变压器0.4kv出线电缆改接至发电机T接箱","powerTime":"2020-05-25 08:11:01","powerComm":"已送电","subsNo":"","lineNo":"","tgNo":"","tgName":null,"infoStatus":"1","orgName":"国网浙江杭州市富阳区供电公司","typeName":null,"infoStatusName":null,"dateDay":null,"orgNos":null,"nowTime":null,"countyName":null,"streetName":null,"villageName":null,"roadName":null,"communityName":null,"tranName":null,"sdLineName":null,"cityCode":"3340170","cityName":"国网浙江杭州市富阳区供电公司","provinceCode":null,"stopTime":"2020-05-25 08:25:00","powerType":"全部","powerOffArea":"110kV长春变:栋山D410线-坞口村3#长南坞公变后段","powerOffReason":"中铁十二局集团有限公司湖杭铁路项目经理部三分部线路迁改工程：坞口村3#长南坞公变变压器0.4kv出线电缆改接至发电机T接箱","powerOffId":"2020051531020487"},{"poweroffId":2020051531020477,"sgpoweroffId":null,"subsName":"","lineName":"10kV马啸V262线","pubTranName":"湖门村吴家,","scope":"浙江省-杭州市-临安市-清凉峰镇-湖门村吴家","startTime":"2020-05-26 12:40:00","stopDate":"2020-05-26 17:20:00","orgNo":"3340160","typeCode":"计划停电","poweroffArea":"35kV颊口变:马啸V262线-湖门村吴家吴家2000线","poweroffReason":"(低压停电信息)增容布点","powerTime":"2020-05-26 17:10:27","powerComm":"已送电","subsNo":"","lineNo":"","tgNo":"","tgName":null,"infoStatus":"1","orgName":"国网浙江临安市供电公司","typeName":null,"infoStatusName":null,"dateDay":null,"orgNos":null,"nowTime":null,"countyName":null,"streetName":null,"villageName":null,"roadName":null,"communityName":null,"tranName":null,"sdLineName":null,"cityCode":"3340160","cityName":"国网浙江临安市供电公司","provinceCode":null,"stopTime":"2020-05-26 17:20:00","powerType":"全部","powerOffArea":"35kV颊口变:马啸V262线-湖门村吴家吴家2000线","powerOffReason":"(低压停电信息)增容布点","powerOffId":"2020051531020477"},{"poweroffId":2020051531020476,"sgpoweroffId":null,"subsName":"","lineName":"10kV马啸V262线","pubTranName":"马啸村陈家塘,","scope":"浙江省-杭州市-临安市-清凉峰镇-马啸村陈家塘","startTime":"2020-05-26 07:40:00","stopDate":"2020-05-26 12:20:00","orgNo":"3340160","typeCode":"计划停电","poweroffArea":"35kV颊口变:马啸V262线-马啸村陈家塘2000线","poweroffReason":"(低压停电信息)增容布点","powerTime":"2020-05-26 12:10:17","powerComm":"已送电","subsNo":"","lineNo":"","tgNo":"","tgName":null,"infoStatus":"1","orgName":"国网浙江临安市供电公司","typeName":null,"infoStatusName":null,"dateDay":null,"orgNos":null,"nowTime":null,"countyName":null,"streetName":null,"villageName":null,"roadName":null,"communityName":null,"tranName":null,"sdLineName":null,"cityCode":"3340160","cityName":"国网浙江临安市供电公司","provinceCode":null,"stopTime":"2020-05-26 12:20:00","powerType":"全部","powerOffArea":"35kV颊口变:马啸V262线-马啸村陈家塘2000线","powerOffReason":"(低压停电信息)增容布点","powerOffId":"2020051531020476"},{"poweroffId":2020051531020475,"sgpoweroffId":null,"subsName":"","lineName":"10kV民联D248线","pubTranName":"民联村22号金阳光公变,民联村1#新建村公变变压器,","scope":"浙江省-杭州市-富阳区-东洲街道-民联行政村-民联自然村","startTime":"2020-05-15 14:38:00","stopDate":"2020-05-15 15:38:00","orgNo":"3340170","typeCode":"电网故障停限电","poweroffArea":"110kV白鹤变:民联D248线民联一支线跌落式熔断器后段","poweroffReason":"高压开关跳闸 原停电结束时间为2020-05-15 16:38:00,为减少客户停电时间,加快工作进度,提前送电,现变更停电结束时间为2020-05-15 15:38:00","powerTime":"2020-05-15 14:55:38","powerComm":"已送电","subsNo":"","lineNo":"","tgNo":"","tgName":null,"infoStatus":"1","orgName":"国网浙江杭州市富阳区供电公司","typeName":null,"infoStatusName":null,"dateDay":null,"orgNos":null,"nowTime":null,"countyName":null,"streetName":null,"villageName":null,"roadName":null,"communityName":null,"tranName":null,"sdLineName":null,"cityCode":"3340170","cityName":"国网浙江杭州市富阳区供电公司","provinceCode":null,"stopTime":"2020-05-15 15:38:00","powerType":"全部","powerOffArea":"110kV白鹤变:民联D248线民联一支线跌落式熔断器后段","powerOffReason":"高压开关跳闸 原停电结束时间为2020-05-15 16:38:00,为减少客户停电时间,加快工作进度,提前送电,现变更停电结束时间为2020-05-15 15:38:00","powerOffId":"2020051531020475"},{"poweroffId":2020051531020474,"sgpoweroffId":null,"subsName":"","lineName":"10kV上营V145线","pubTranName":"上营村岭头,","scope":"浙江省-杭州市-临安市-昌化镇-上营村岭头","startTime":"2020-05-28 13:10:00","stopDate":"2020-05-28 17:00:00","orgNo":"3340160","typeCode":"计划停电","poweroffArea":"110kV龙岗变:上营V145线-上营村岭头配变","poweroffReason":"上营村岭头增容布点 原停电结束时间为2020-05-28 17:30:00,为减少客户停电时间,加快工作进度,提前送电,现变更停电结束时间为2020-05-28 17:00:00","powerTime":"2020-05-28 16:19:00","powerComm":"已送电","subsNo":"","lineNo":"","tgNo":"","tgName":null,"infoStatus":"1","orgName":"国网浙江临安市供电公司","typeName":null,"infoStatusName":null,"dateDay":null,"orgNos":null,"nowTime":null,"countyName":null,"streetName":null,"villageName":null,"roadName":null,"communityName":null,"tranName":null,"sdLineName":null,"cityCode":"3340160","cityName":"国网浙江临安市供电公司","provinceCode":null,"stopTime":"2020-05-28 17:00:00","powerType":"全部","powerOffArea":"110kV龙岗变:上营V145线-上营村岭头配变","powerOffReason":"上营村岭头增容布点 原停电结束时间为2020-05-28 17:30:00,为减少客户停电时间,加快工作进度,提前送电,现变更停电结束时间为2020-05-28 17:00:00","powerOffId":"2020051531020474"},{"poweroffId":2020051531020470,"sgpoweroffId":null,"subsName":"","lineName":"10kV鱼跳V471线","pubTranName":"柘林徐家,","scope":"浙江省-杭州市-临安市-龙岗镇-大峡谷村柘林徐家","startTime":"2020-05-27 08:10:00","stopDate":"2020-05-27 10:50:00","orgNo":"3340160","typeCode":"计划停电","poweroffArea":"110kV龙岗变:鱼跳V471线-柘林徐家配变","poweroffReason":"柘林分线改造","powerTime":"2020-05-27 10:13:22","powerComm":"已送电","subsNo":"","lineNo":"","tgNo":"","tgName":null,"infoStatus":"1","orgName":"国网浙江临安市供电公司","typeName":null,"infoStatusName":null,"dateDay":null,"orgNos":null,"nowTime":null,"countyName":null,"streetName":null,"villageName":null,"roadName":null,"communityName":null,"tranName":null,"sdLineName":null,"cityCode":"3340160","cityName":"国网浙江临安市供电公司","provinceCode":null,"stopTime":"2020-05-27 10:50:00","powerType":"全部","powerOffArea":"110kV龙岗变:鱼跳V471线-柘林徐家配变","powerOffReason":"柘林分线改造","powerOffId":"2020051531020470"},{"poweroffId":2020051531020468,"sgpoweroffId":null,"subsName":"","lineName":"10kV石材T143线","pubTranName":"下邵2号公变,","scope":"浙江省-杭州市-桐庐县-钟山乡-钟山行政村(吴宅自然村,前中畈自然村,下邵自然村)","startTime":"2020-05-27 08:00:00","stopDate":"2020-05-27 12:00:00","orgNo":"3340150","typeCode":"计划停电","poweroffArea":"35kV钟山变:石材T143线-下邵F2209令克后段","poweroffReason":"杭州桐庐钟山马塘1号等台区线路大修工程","powerTime":"2020-05-27 11:31:48","powerComm":"已送电","subsNo":"","lineNo":"","tgNo":"","tgName":null,"infoStatus":"1","orgName":"国网浙江桐庐县供电公司","typeName":null,"infoStatusName":null,"dateDay":null,"orgNos":null,"nowTime":null,"countyName":null,"streetName":null,"villageName":null,"roadName":null,"communityName":null,"tranName":null,"sdLineName":null,"cityCode":"3340150","cityName":"国网浙江桐庐县供电公司","provinceCode":null,"stopTime":"2020-05-27 12:00:00","powerType":"全部","powerOffArea":"35kV钟山变:石材T143线-下邵F2209令克后段","powerOffReason":"杭州桐庐钟山马塘1号等台区线路大修工程","powerOffId":"2020051531020468"},{"poweroffId":2020051531020467,"sgpoweroffId":null,"subsName":"","lineName":"10kV仁里V312线","pubTranName":"岛石人家2号变,岛石人家1号变,临安市绿岛有机食品有限公司,下塔村,","scope":"浙江省-杭州市-临安市-岛石镇-岛石村下塔,岛石人家，绿岛有机食品有限公司。","startTime":"2020-05-27 07:30:00","stopDate":"2020-05-27 16:30:00","orgNo":"3340160","typeCode":"计划停电","poweroffArea":"35kV岛石变:仁里V312线28#杆至57#杆之间","poweroffReason":"仁里V312线线路改造 原停电结束时间为2020-05-27 15:50:00,因工作调整原因,延迟送电,现变更停电结束时间为2020-05-27 16:30:00","powerTime":"2020-05-27 15:56:46","powerComm":"已送电","subsNo":"","lineNo":"","tgNo":"","tgName":null,"infoStatus":"1","orgName":"国网浙江临安市供电公司","typeName":null,"infoStatusName":null,"dateDay":null,"orgNos":null,"nowTime":null,"countyName":null,"streetName":null,"villageName":null,"roadName":null,"communityName":null,"tranName":null,"sdLineName":null,"cityCode":"3340160","cityName":"国网浙江临安市供电公司","provinceCode":null,"stopTime":"2020-05-27 16:30:00","powerType":"全部","powerOffArea":"35kV岛石变:仁里V312线28#杆至57#杆之间","powerOffReason":"仁里V312线线路改造 原停电结束时间为2020-05-27 15:50:00,因工作调整原因,延迟送电,现变更停电结束时间为2020-05-27 16:30:00","powerOffId":"2020051531020467"}],"pageModel":{"pageNow":165,"totalCount":17788,"totalPage":1779,"tableRows":0,"pageCount":10,"beginCount":1640},"isExperi":"1"}