{"message":"","today":"2020-06-16","seleList":[{"poweroffId":2018062031010061,"sgpoweroffId":null,"subsName":"","lineName":"10kV宅里T330线","pubTranName":"孙家山阴塘1号公变,","scope":"浙江省杭州市桐庐县横村镇孙家村一带。","startTime":"2018-06-20 08:34:23","stopDate":"2018-06-20 14:34:23","orgNo":"3340150","typeCode":"电网故障停限电","poweroffArea":"110kV横村变:宅里T330线-孙家山阴塘1号公变后段","poweroffReason":"低压开关故障","powerTime":"2018-06-20 10:50:50","powerComm":"已送电","subsNo":"","lineNo":"","tgNo":"","tgName":null,"infoStatus":"1","orgName":"国网浙江桐庐县供电公司","typeName":null,"infoStatusName":null,"dateDay":null,"orgNos":null,"nowTime":null,"countyName":null,"streetName":null,"villageName":null,"roadName":null,"communityName":null,"tranName":null,"sdLineName":null,"cityCode":"3340150","cityName":"国网浙江桐庐县供电公司","provinceCode":null,"stopTime":"2018-06-20 14:34:23","powerType":"全部","powerOffArea":"110kV横村变:宅里T330线-孙家山阴塘1号公变后段","powerOffReason":"低压开关故障","powerOffId":"2018062031010061"},{"poweroffId":2018062031010058,"sgpoweroffId":null,"subsName":"","lineName":"10kV邓家Y161线","pubTranName":"洪宅村洪宅台区,","scope":"浙江省-杭州市-建德市-更楼街道 洪宅行政村-洪宅自然村一带用户。","startTime":"2018-06-20 08:19:00","stopDate":"2018-06-20 14:28:50","orgNo":"3340180","typeCode":"电网故障停限电","poweroffArea":"110kV更楼变:邓家Y161线-洪宅村洪宅台区后段","poweroffReason":"邓家Y161线-洪宅村洪宅台区 低压配电设备故障","powerTime":"2018-06-20 12:41:00","powerComm":"已送电","subsNo":"","lineNo":"","tgNo":"","tgName":null,"infoStatus":"1","orgName":"国网浙江建德市供电有限公司","typeName":null,"infoStatusName":null,"dateDay":null,"orgNos":null,"nowTime":null,"countyName":null,"streetName":null,"villageName":null,"roadName":null,"communityName":null,"tranName":null,"sdLineName":null,"cityCode":"3340180","cityName":"国网浙江建德市供电有限公司","provinceCode":null,"stopTime":"2018-06-20 14:28:50","powerType":"全部","powerOffArea":"110kV更楼变:邓家Y161线-洪宅村洪宅台区后段","powerOffReason":"邓家Y161线-洪宅村洪宅台区 低压配电设备故障","powerOffId":"2018062031010058"},{"poweroffId":2018062031010049,"sgpoweroffId":null,"subsName":"","lineName":"10kV院士T440线","pubTranName":"九龙贸易1号公变,","scope":"浙江省-杭州市-桐庐县-分水镇(九龙路一带);","startTime":"2018-06-20 08:08:47","stopDate":"2018-06-20 14:08:47","orgNo":"3340150","typeCode":"电网故障停限电","poweroffArea":"110kV天英变:院士T440线-九龙贸易1号公变后段","poweroffReason":"低压开关故障","powerTime":"2018-06-20 09:18:34","powerComm":"已送电。","subsNo":"","lineNo":"","tgNo":"","tgName":null,"infoStatus":"1","orgName":"国网浙江桐庐县供电公司","typeName":null,"infoStatusName":null,"dateDay":null,"orgNos":null,"nowTime":null,"countyName":null,"streetName":null,"villageName":null,"roadName":null,"communityName":null,"tranName":null,"sdLineName":null,"cityCode":"3340150","cityName":"国网浙江桐庐县供电公司","provinceCode":null,"stopTime":"2018-06-20 14:08:47","powerType":"全部","powerOffArea":"110kV天英变:院士T440线-九龙贸易1号公变后段","powerOffReason":"低压开关故障","powerOffId":"2018062031010049"},{"poweroffId":2018062031010039,"sgpoweroffId":null,"subsName":"","lineName":"10kV院士T440线","pubTranName":"九龙贸易1号公变,","scope":"浙江省-杭州市-桐庐县-分水镇(九龙路221号一带);","startTime":"2018-06-20 07:54:01","stopDate":"2018-06-20 13:54:01","orgNo":"3340150","typeCode":"电网故障停限电","poweroffArea":"110kV天英变:院士T440线-九龙贸易1号公变后段","poweroffReason":"低压开关故障","powerTime":"2018-06-20 12:24:49","powerComm":"已送电。","subsNo":"","lineNo":"","tgNo":"","tgName":null,"infoStatus":"1","orgName":"国网浙江桐庐县供电公司","typeName":null,"infoStatusName":null,"dateDay":null,"orgNos":null,"nowTime":null,"countyName":null,"streetName":null,"villageName":null,"roadName":null,"communityName":null,"tranName":null,"sdLineName":null,"cityCode":"3340150","cityName":"国网浙江桐庐县供电公司","provinceCode":null,"stopTime":"2018-06-20 13:54:01","powerType":"全部","powerOffArea":"110kV天英变:院士T440线-九龙贸易1号公变后段","powerOffReason":"低压开关故障","powerOffId":"2018062031010039"},{"poweroffId":2018062031010036,"sgpoweroffId":null,"subsName":"","lineName":"10kV安顶D909线","pubTranName":"灵峰村春建2号公变,","scope":"浙江省-杭州市富阳区-渔山乡（灵峰行政村-春建自然村）一带；","startTime":"2018-06-20 08:00:00","stopDate":"2018-06-20 19:30:00","orgNo":"3340170","typeCode":"电网故障停限电","poweroffArea":"110kV里渔变:10kV安顶D909线58号杆灵峰村春建2#分线跌落式熔断器后段","poweroffReason":"江南2018年蔡家坞6#水库公变等台区低压线路改造工程10kV安顶D909灵峰村春建2#分线1号杆拔立杆各1支，安装横担拉线拆装导线1kV120*4*2档拆装低压出线电缆1根拆旧架设1kV70*4*1档、搭接等工作","powerTime":"2018-06-20 19:21:52","powerComm":"工作已完成","subsNo":"","lineNo":"","tgNo":"","tgName":null,"infoStatus":"1","orgName":"国网浙江杭州市富阳区供电公司","typeName":null,"infoStatusName":null,"dateDay":null,"orgNos":null,"nowTime":null,"countyName":null,"streetName":null,"villageName":null,"roadName":null,"communityName":null,"tranName":null,"sdLineName":null,"cityCode":"3340170","cityName":"国网浙江杭州市富阳区供电公司","provinceCode":null,"stopTime":"2018-06-20 19:30:00","powerType":"全部","powerOffArea":"110kV里渔变:10kV安顶D909线58号杆灵峰村春建2#分线跌落式熔断器后段","powerOffReason":"江南2018年蔡家坞6#水库公变等台区低压线路改造工程10kV安顶D909灵峰村春建2#分线1号杆拔立杆各1支，安装横担拉线拆装导线1kV120*4*2档拆装低压出线电缆1根拆旧架设1kV70*4*1档、搭接等工作","powerOffId":"2018062031010036"},{"poweroffId":2018062031010030,"sgpoweroffId":null,"subsName":"","lineName":"10kV建材V545线","pubTranName":"临安市铁路配电厂,西村,临安市铁路配件厂1#,","scope":"浙江省杭州市临安市板桥镇岙里村里村,临安市板桥灵溪砂石有限公司,临安市天目建材有限公司,临安市宏星建材有限公司,临安惠通玻璃钢有限公司,金土湾,临安市天祥新型墙体材料厂,岙里村,中国人民解放军61191部队,浙江吉辰橡胶制品厂,杭州同森化工有限公司,高湾村沈塘里,西村一带","startTime":"2018-06-20 06:19:00","stopDate":"2018-06-20 12:19:00","orgNo":"3340160","typeCode":"电网故障停限电","poweroffArea":"110kV板桥变:建材V545线建材V545线5451开关后段","poweroffReason":"建材V545线建材V545线5451开关故障","powerTime":"2018-06-20 10:10:21","powerComm":"已送电","subsNo":"","lineNo":"","tgNo":"","tgName":null,"infoStatus":"1","orgName":"国网浙江临安市供电公司","typeName":null,"infoStatusName":null,"dateDay":null,"orgNos":null,"nowTime":null,"countyName":null,"streetName":null,"villageName":null,"roadName":null,"communityName":null,"tranName":null,"sdLineName":null,"cityCode":"3340160","cityName":"国网浙江临安市供电公司","provinceCode":null,"stopTime":"2018-06-20 12:19:00","powerType":"全部","powerOffArea":"110kV板桥变:建材V545线建材V545线5451开关后段","powerOffReason":"建材V545线建材V545线5451开关故障","powerOffId":"2018062031010030"},{"poweroffId":2018062031010028,"sgpoweroffId":null,"subsName":"","lineName":"10kV武举T236线","pubTranName":"新区市场1#变,","scope":"浙江省-杭州市-桐庐县-城南街道(金马新苑小区一带);","startTime":"2018-06-20 07:14:20","stopDate":"2018-06-20 13:14:20","orgNo":"3340150","typeCode":"电网故障停限电","poweroffArea":"35kV新区变:武举T236线-新区市场1#变后段","poweroffReason":"低压开关故障","powerTime":"2018-06-20 12:34:28","powerComm":"已送电","subsNo":"","lineNo":"","tgNo":"","tgName":null,"infoStatus":"1","orgName":"国网浙江桐庐县供电公司","typeName":null,"infoStatusName":null,"dateDay":null,"orgNos":null,"nowTime":null,"countyName":null,"streetName":null,"villageName":null,"roadName":null,"communityName":null,"tranName":null,"sdLineName":null,"cityCode":"3340150","cityName":"国网浙江桐庐县供电公司","provinceCode":null,"stopTime":"2018-06-20 13:14:20","powerType":"全部","powerOffArea":"35kV新区变:武举T236线-新区市场1#变后段","powerOffReason":"低压开关故障","powerOffId":"2018062031010028"},{"poweroffId":2018062031010009,"sgpoweroffId":null,"subsName":"","lineName":"铁矿H726线","pubTranName":"永乐新村1号公变,闲湖城（印象加州）10#公变,","scope":"浙江省杭州市余杭区闲林街道方家山社区,华丰行政村一带","startTime":"2018-06-20 04:37:00","stopDate":"2018-06-20 10:37:00","orgNo":"3340140","typeCode":"电网故障停限电","poweroffArea":"闲林变:铁矿H726线闲湖城（印象加州）10#公变,永乐新村1号公变","poweroffReason":"铁矿H726线闲湖城（印象加州）10#公变低压导线断线故障","powerTime":"2018-06-20 07:20:00","powerComm":"已送电","subsNo":"","lineNo":"","tgNo":"","tgName":null,"infoStatus":"1","orgName":"国网浙江杭州市余杭区供电有限公司","typeName":null,"infoStatusName":null,"dateDay":null,"orgNos":null,"nowTime":null,"countyName":null,"streetName":null,"villageName":null,"roadName":null,"communityName":null,"tranName":null,"sdLineName":null,"cityCode":"3340140","cityName":"国网浙江杭州市余杭区供电有限公司","provinceCode":null,"stopTime":"2018-06-20 10:37:00","powerType":"全部","powerOffArea":"闲林变:铁矿H726线闲湖城（印象加州）10#公变,永乐新村1号公变","powerOffReason":"铁矿H726线闲湖城（印象加州）10#公变低压导线断线故障","powerOffId":"2018062031010009"},{"poweroffId":2018062031010001,"sgpoweroffId":null,"subsName":"","lineName":"10kV上董C981线","pubTranName":"上董村4#变,","scope":"浙江省-杭州市-萧山区-戴村镇(上董行政村-上董自然村);浙江省杭州市萧山区戴村镇上董村一带","startTime":"2018-06-20 00:01:46","stopDate":"2018-06-20 06:04:52","orgNo":"3340130","typeCode":"电网故障停限电","poweroffArea":"110kV永兴变:上董C981线-上董村4#变低压开关","poweroffReason":"110kV永兴变:上董C981线-上董村4#变低压开关故障","powerTime":"2018-06-20 00:38:24","powerComm":"已送电","subsNo":"","lineNo":"","tgNo":"","tgName":null,"infoStatus":"1","orgName":"国网浙江杭州市萧山区供电有限公司","typeName":null,"infoStatusName":null,"dateDay":null,"orgNos":null,"nowTime":null,"countyName":null,"streetName":null,"villageName":null,"roadName":null,"communityName":null,"tranName":null,"sdLineName":null,"cityCode":"3340130","cityName":"国网浙江杭州市萧山区供电有限公司","provinceCode":null,"stopTime":"2018-06-20 06:04:52","powerType":"全部","powerOffArea":"110kV永兴变:上董C981线-上董村4#变低压开关","powerOffReason":"110kV永兴变:上董C981线-上董村4#变低压开关故障","powerOffId":"2018062031010001"},{"poweroffId":2018061931010501,"sgpoweroffId":null,"subsName":"","lineName":"上城H603线","pubTranName":"典晶轩6#公变,典晶轩7#公变,","scope":"浙江省杭州市余杭区仓前街道宋家山行政村瑞城花园小区，复地上城小区一带","startTime":"2018-06-19 23:12:00","stopDate":"2018-06-20 09:30:00","orgNo":"3340140","typeCode":"电网故障停限电","poweroffArea":"桃源变:上城H603线典晶轩6#公变,典晶轩7#公变","poweroffReason":"桃源变:上城H603线典晶轩6#公变低压导线断线故障","powerTime":"2018-06-20 07:22:00","powerComm":"已送电","subsNo":"","lineNo":"","tgNo":"","tgName":null,"infoStatus":"1","orgName":"国网浙江杭州市余杭区供电有限公司","typeName":null,"infoStatusName":null,"dateDay":null,"orgNos":null,"nowTime":null,"countyName":null,"streetName":null,"villageName":null,"roadName":null,"communityName":null,"tranName":null,"sdLineName":null,"cityCode":"3340140","cityName":"国网浙江杭州市余杭区供电有限公司","provinceCode":null,"stopTime":"2018-06-20 09:30:00","powerType":"全部","powerOffArea":"桃源变:上城H603线典晶轩6#公变,典晶轩7#公变","powerOffReason":"桃源变:上城H603线典晶轩6#公变低压导线断线故障","powerOffId":"2018061931010501"}],"pageModel":{"pageNow":1641,"totalCount":17789,"totalPage":1779,"tableRows":0,"pageCount":10,"beginCount":16400},"isExperi":"1"}