{"message":"","today":"2020-06-16","seleList":[{"poweroffId":2018061931010497,"sgpoweroffId":null,"subsName":"","lineName":"10kV单家C167线","pubTranName":"罗幕村16#变,","scope":"浙江省-杭州市-萧山区-义桥镇(丁家庄行政村-里丁家庄自然村,罗幕行政村-寺坞岭自然村、王家桥自然村、张家畈自然村);浙江省-杭州市-萧山区-义桥镇(杭州恒剑喷涂厂,杭州经纬织造有限公司,杭州聚宝实业有限公司,杭州蒙德里安纺织有限公司,杭州盛睿德纺织有限公司,杭州市萧山区义桥镇人民政府,杭州威廉兰鞋业有限公司,杭州萧山大卫钢钉厂,杭州萧山华田五金有限公司,杭州萧山荣丽布艺有限公司,杭州新华化纤织造有限公司,中国电信股份有限公司杭州萧山区分公司)、浙江省杭州市萧山区义桥镇罗幕村黄家桥村一带","startTime":"2018-06-19 22:41:51","stopDate":"2018-06-20 04:41:51","orgNo":"3340130","typeCode":"电网故障停限电","poweroffArea":"110kV许贤变:单家C167线-罗幕村16#变低压开关","poweroffReason":"110kV许贤变:单家C167线-罗幕村16#变低压开关故障","powerTime":"2018-06-19 23:53:15","powerComm":"已送电","subsNo":"","lineNo":"","tgNo":"","tgName":null,"infoStatus":"1","orgName":"国网浙江杭州市萧山区供电有限公司","typeName":null,"infoStatusName":null,"dateDay":null,"orgNos":null,"nowTime":null,"countyName":null,"streetName":null,"villageName":null,"roadName":null,"communityName":null,"tranName":null,"sdLineName":null,"cityCode":"3340130","cityName":"国网浙江杭州市萧山区供电有限公司","provinceCode":null,"stopTime":"2018-06-20 04:41:51","powerType":"全部","powerOffArea":"110kV许贤变:单家C167线-罗幕村16#变低压开关","powerOffReason":"110kV许贤变:单家C167线-罗幕村16#变低压开关故障","powerOffId":"2018061931010497"},{"poweroffId":2018061931010494,"sgpoweroffId":null,"subsName":"","lineName":"10kV华泰C146线","pubTranName":"花神庙村6#变,","scope":"浙江省杭州市萧山区靖江街道花神庙社区5组26号、花神庙村10组、花神庙村一带","startTime":"2018-06-19 21:35:45","stopDate":"2018-06-20 03:44:32","orgNo":"3340130","typeCode":"电网故障停限电","poweroffArea":"110kV梅西变:华泰C146线-花神庙村6#变台区低压开关","poweroffReason":"低压熔断器短路故障","powerTime":"2018-06-19 22:25:01","powerComm":"已送电","subsNo":"","lineNo":"","tgNo":"","tgName":null,"infoStatus":"1","orgName":"国网浙江杭州市萧山区供电有限公司","typeName":null,"infoStatusName":null,"dateDay":null,"orgNos":null,"nowTime":null,"countyName":null,"streetName":null,"villageName":null,"roadName":null,"communityName":null,"tranName":null,"sdLineName":null,"cityCode":"3340130","cityName":"国网浙江杭州市萧山区供电有限公司","provinceCode":null,"stopTime":"2018-06-20 03:44:32","powerType":"全部","powerOffArea":"110kV梅西变:华泰C146线-花神庙村6#变台区低压开关","powerOffReason":"低压熔断器短路故障","powerOffId":"2018061931010494"},{"poweroffId":2018061931010493,"sgpoweroffId":null,"subsName":"","lineName":"10kV石门C162线","pubTranName":"富春村13#变,","scope":"浙江省-杭州市-萧山区-义桥镇(富春行政村);浙江省杭州市萧山区义桥镇付春村一带","startTime":"2018-06-19 21:38:43","stopDate":"2018-06-20 03:45:43","orgNo":"3340130","typeCode":"电网故障停限电","poweroffArea":"110kV许贤变:石门C162线-富春村13#变低压开关","poweroffReason":"110kV许贤变:石门C162线-富春村13#变低压开关故障","powerTime":"2018-06-19 23:21:15","powerComm":"已送电","subsNo":"","lineNo":"","tgNo":"","tgName":null,"infoStatus":"1","orgName":"国网浙江杭州市萧山区供电有限公司","typeName":null,"infoStatusName":null,"dateDay":null,"orgNos":null,"nowTime":null,"countyName":null,"streetName":null,"villageName":null,"roadName":null,"communityName":null,"tranName":null,"sdLineName":null,"cityCode":"3340130","cityName":"国网浙江杭州市萧山区供电有限公司","provinceCode":null,"stopTime":"2018-06-20 03:45:43","powerType":"全部","powerOffArea":"110kV许贤变:石门C162线-富春村13#变低压开关","powerOffReason":"110kV许贤变:石门C162线-富春村13#变低压开关故障","powerOffId":"2018061931010493"},{"poweroffId":2018061931010485,"sgpoweroffId":null,"subsName":"","lineName":"10kV新联C039线","pubTranName":"浦南村6#变,","scope":"浙江省-杭州市-萧山区-临浦镇(浦南行政村-里吕家沿自然村、麻车倪自然村);浙江省-杭州市-萧山区-临浦镇(浦二行政村-蒲山韩自然村)、浙江省-杭州市-萧山区-临浦镇(新联行政村-岙山何自然村)浙江省-杭州市-萧山区-临浦镇(南江行政村-桥头王自然村、张家坂自然村),浙江省-杭州市-萧山区-临浦镇(南江行政村-桥头王自然村、西塘黄自然村、张家坂自然村,浦二行政村-后韩自然村、蒲山韩自然村、戚家里自然村、桥里自然村,浦南行政村-里吕家沿自然村、麻车倪自然村、门家塘自然村、文家塘自然村、坂里朱自然村,新港行政村-串心塘自然村、渡船埠自然村、洪家里自然村、李家池自然村、桥南自然村、上茅潭自然村、塘外自然村、中茅潭自然村,新联行政村-顾家埭自然村、水埠自然村、塘头钟自然村、杨家自然村、岙山何自然村,张家畈行政村-南秀苑小区);浙江省-杭州市-萧山区-临浦镇(杭州宝塔电力器材有限公司,杭州波琳五金有限公司,杭州成发鞋业有限公司,杭州诚德发电设备有限公司,杭州悍马涂料玻璃有限公司,杭州虎祥铸造材料有限公司,杭州临浦管业有限公司,杭州侨亿德衬布有限公司,杭州市公安局萧山区分局交通警察大队,杭州市萧山区临浦镇人民政府,杭州市萧山区临浦镇社区卫生服务中心,杭州市萧山区农业科学技术研究所,杭州伟量制衣有限公司,杭州萧山飞龙印铁制罐有限公司,杭州萧山华联塑胶有限公司,杭州萧山机动车辆安全技术检测有限公司,杭州萧山临浦新联加油站有限公司,杭州萧山浦南制钉厂,杭州萧山雄风实业有限公司,杭州萧山杨家磨料磨具有限公司,青海省水利水电工程局有限责任公司,萧山区下桥电力排灌站,浙疏一队,中铁二十四局集团贵溪桥梁厂有限公司萧山制梁场,中铁二十四局集团浙江工程有限公司杭黄铁路站前Ⅲ标项目二分部),浙江省杭州市萧山区临浦镇浦南村一带","startTime":"2018-06-19 20:50:20","stopDate":"2018-06-20 03:07:21","orgNo":"3340130","typeCode":"电网故障停限电","poweroffArea":"35kV浦南临时变:新联C039线-浦南村6#变低压开关","poweroffReason":"35kV浦南临时变:新联C039线-浦南村6#变低压开关故障","powerTime":"2018-06-19 22:55:07","powerComm":"已送电","subsNo":"","lineNo":"","tgNo":"","tgName":null,"infoStatus":"1","orgName":"国网浙江杭州市萧山区供电有限公司","typeName":null,"infoStatusName":null,"dateDay":null,"orgNos":null,"nowTime":null,"countyName":null,"streetName":null,"villageName":null,"roadName":null,"communityName":null,"tranName":null,"sdLineName":null,"cityCode":"3340130","cityName":"国网浙江杭州市萧山区供电有限公司","provinceCode":null,"stopTime":"2018-06-20 03:07:21","powerType":"全部","powerOffArea":"35kV浦南临时变:新联C039线-浦南村6#变低压开关","powerOffReason":"35kV浦南临时变:新联C039线-浦南村6#变低压开关故障","powerOffId":"2018061931010485"},{"poweroffId":2018061931010484,"sgpoweroffId":null,"subsName":"","lineName":"10kV吉山A365线","pubTranName":"太平桥7#变,","scope":"浙江省-杭州市-萧山区-进化镇(太平桥行政村-大岩自然村、岭下沈自然村)、浙江省杭州市萧山区进化镇太平桥村一带","startTime":"2018-06-19 20:58:46","stopDate":"2018-06-20 03:04:48","orgNo":"3340130","typeCode":"电网故障停限电","poweroffArea":"110kV进化变:吉山A365线-太平桥7#变低压开关","poweroffReason":"110kV进化变:吉山A365线-太平桥7#变低压开关故障","powerTime":"2018-06-19 21:58:56","powerComm":"已送电","subsNo":"","lineNo":"","tgNo":"","tgName":null,"infoStatus":"1","orgName":"国网浙江杭州市萧山区供电有限公司","typeName":null,"infoStatusName":null,"dateDay":null,"orgNos":null,"nowTime":null,"countyName":null,"streetName":null,"villageName":null,"roadName":null,"communityName":null,"tranName":null,"sdLineName":null,"cityCode":"3340130","cityName":"国网浙江杭州市萧山区供电有限公司","provinceCode":null,"stopTime":"2018-06-20 03:04:48","powerType":"全部","powerOffArea":"110kV进化变:吉山A365线-太平桥7#变低压开关","powerOffReason":"110kV进化变:吉山A365线-太平桥7#变低压开关故障","powerOffId":"2018061931010484"},{"poweroffId":2018061931010482,"sgpoweroffId":null,"subsName":"","lineName":"10kV下颜A353线","pubTranName":"城山村8#变,","scope":"浙江省-杭州市-萧山区-进化镇(城山行政村-杜家弄自然村);浙江省-杭州市-萧山区-进化镇(城山行政村-下颜自然村);浙江省-杭州市-萧山区-进化镇(墅上王行政村-墅上王自然村);浙江省-杭州市-萧山区-临浦镇(高田陈社区-高田陈自然村、塘里陈自然村、外塘自然村)、浙江省-杭州市-萧山区-进化镇(城山行政村-杜家弄自然村、下颜自然村、郑唐孔自然村,大汤坞新行政村-新垫黄自然村,墅上王行政村-墅上王自然村,下坂底行政村-下坂底自然村,裘家坞行政村-城山王自然村),浙江省杭州市萧山区进化镇大汤坞新行政村新垫黄自然村、浙江省杭州市萧山区进化镇下畈底村、浙江省杭州市萧山区进化镇城山行政村郑唐孔自然村、浙江省杭州市萧山区进化镇城山行政村下颜自然村一带","startTime":"2018-06-19 20:55:45","stopDate":"2018-06-20 03:00:13","orgNo":"3340130","typeCode":"电网故障停限电","poweroffArea":"110kV进化变:下颜A353线-城山村8#变低压开关","poweroffReason":"110kV进化变:下颜A353线-城山村8#变低压开关故障","powerTime":"2018-06-19 21:57:25","powerComm":"已送电","subsNo":"","lineNo":"","tgNo":"","tgName":null,"infoStatus":"1","orgName":"国网浙江杭州市萧山区供电有限公司","typeName":null,"infoStatusName":null,"dateDay":null,"orgNos":null,"nowTime":null,"countyName":null,"streetName":null,"villageName":null,"roadName":null,"communityName":null,"tranName":null,"sdLineName":null,"cityCode":"3340130","cityName":"国网浙江杭州市萧山区供电有限公司","provinceCode":null,"stopTime":"2018-06-20 03:00:13","powerType":"全部","powerOffArea":"110kV进化变:下颜A353线-城山村8#变低压开关","powerOffReason":"110kV进化变:下颜A353线-城山村8#变低压开关故障","powerOffId":"2018061931010482"},{"poweroffId":2018061931010479,"sgpoweroffId":null,"subsName":"","lineName":"10kV新联C039线","pubTranName":"浦南村6#变,","scope":"浙江省-杭州市-萧山区-临浦镇(浦南行政村-里吕家沿自然村、麻车倪自然村);浙江省杭州市萧山区临浦镇浦南村一带","startTime":"2018-06-19 20:53:45","stopDate":"2018-06-20 03:00:11","orgNo":"3340130","typeCode":"电网故障停限电","poweroffArea":"35kV浦南临时变:新联C039线-浦南村8#变低压开关","poweroffReason":"35kV浦南临时变:新联C039线-浦南村8#变低压开关故障","powerTime":"2018-06-19 22:15:45","powerComm":"已送电","subsNo":"","lineNo":"","tgNo":"","tgName":null,"infoStatus":"1","orgName":"国网浙江杭州市萧山区供电有限公司","typeName":null,"infoStatusName":null,"dateDay":null,"orgNos":null,"nowTime":null,"countyName":null,"streetName":null,"villageName":null,"roadName":null,"communityName":null,"tranName":null,"sdLineName":null,"cityCode":"3340130","cityName":"国网浙江杭州市萧山区供电有限公司","provinceCode":null,"stopTime":"2018-06-20 03:00:11","powerType":"全部","powerOffArea":"35kV浦南临时变:新联C039线-浦南村8#变低压开关","powerOffReason":"35kV浦南临时变:新联C039线-浦南村8#变低压开关故障","powerOffId":"2018061931010479"},{"poweroffId":2018061931010478,"sgpoweroffId":null,"subsName":"","lineName":"10kV仇村Y135线","pubTranName":"罗村村枫坞口脚台区,","scope":"浙江省-杭州市-建德市-乾潭镇 罗村行政村 一带用户。","startTime":"2018-06-19 20:53:00","stopDate":"2018-06-20 02:59:50","orgNo":"3340180","typeCode":"电网故障停限电","poweroffArea":"110kV乾潭变:仇村Y135线-罗村村枫坞口脚台区后段","poweroffReason":"仇村Y135线-罗村村枫坞口脚台区 低压配电设备故障","powerTime":"2018-06-19 21:56:38","powerComm":"已送电","subsNo":"","lineNo":"","tgNo":"","tgName":null,"infoStatus":"1","orgName":"国网浙江建德市供电有限公司","typeName":null,"infoStatusName":null,"dateDay":null,"orgNos":null,"nowTime":null,"countyName":null,"streetName":null,"villageName":null,"roadName":null,"communityName":null,"tranName":null,"sdLineName":null,"cityCode":"3340180","cityName":"国网浙江建德市供电有限公司","provinceCode":null,"stopTime":"2018-06-20 02:59:50","powerType":"全部","powerOffArea":"110kV乾潭变:仇村Y135线-罗村村枫坞口脚台区后段","powerOffReason":"仇村Y135线-罗村村枫坞口脚台区 低压配电设备故障","powerOffId":"2018061931010478"},{"poweroffId":2018061931010473,"sgpoweroffId":null,"subsName":"","lineName":"10kV三联383线","pubTranName":"金中农居1号公变,","scope":"浙江省-杭州市-桐庐县-城南街道(金中行政村-金中自然村、青山自然村、三联自然村、下城自然村，金州小区);","startTime":"2018-06-19 20:45:06","stopDate":"2018-06-20 02:45:06","orgNo":"3340150","typeCode":"电网故障停限电","poweroffArea":"110kV迎春变:三联383线-金中农居1号公变后段","poweroffReason":"低压开关故障","powerTime":"2018-06-19 21:22:49","powerComm":"全部送电","subsNo":"","lineNo":"","tgNo":"","tgName":null,"infoStatus":"1","orgName":"国网浙江桐庐县供电公司","typeName":null,"infoStatusName":null,"dateDay":null,"orgNos":null,"nowTime":null,"countyName":null,"streetName":null,"villageName":null,"roadName":null,"communityName":null,"tranName":null,"sdLineName":null,"cityCode":"3340150","cityName":"国网浙江桐庐县供电公司","provinceCode":null,"stopTime":"2018-06-20 02:45:06","powerType":"全部","powerOffArea":"110kV迎春变:三联383线-金中农居1号公变后段","powerOffReason":"低压开关故障","powerOffId":"2018061931010473"},{"poweroffId":2018061931010472,"sgpoweroffId":null,"subsName":"","lineName":"10kV上董C981线","pubTranName":"上董村3#变,","scope":"浙江省-杭州市-萧山区-戴村镇(上董行政村-上董自然村)、浙江省-杭州市-萧山区-戴村镇(上董行政村-上董自然村)、大石盖自然村、陆家自然村、石马头自然村、孙家自然村、石盖坞自然村、浙江省杭州市萧山区戴村镇上董行政村上董自然村107号,浙江省杭州市萧山区戴村镇大石盖行政村杭州卫达数业、浙江省-杭州市-萧山区-戴村镇(大石盖行政村-陆家自然村、石盖自然村、孙家自然村,石马头行政村-石盖坞自然村、石马头自然村);浙江省-杭州市-萧山区-戴村镇(杭州艾龙健身器材有限公司,杭州市萧山区浦阳江流域管理处,杭州卫达塑业有限公司,杭州萧山灵龙机械有限公司,杭州乙上纺织有限公司,杭州永升电器厂,杭州祖云五金机械有限公司,浙江九龙厨具集团有限公司);一带","startTime":"2018-06-19 20:34:59","stopDate":"2018-06-20 02:34:59","orgNo":"3340130","typeCode":"电网故障停限电","poweroffArea":"110kV永兴变:上董C981线-上董村3#变低压开关","poweroffReason":"110kV永兴变:上董C981线-上董村3#变低压开关故障","powerTime":"2018-06-19 23:46:53","powerComm":"已送电","subsNo":"","lineNo":"","tgNo":"","tgName":null,"infoStatus":"1","orgName":"国网浙江杭州市萧山区供电有限公司","typeName":null,"infoStatusName":null,"dateDay":null,"orgNos":null,"nowTime":null,"countyName":null,"streetName":null,"villageName":null,"roadName":null,"communityName":null,"tranName":null,"sdLineName":null,"cityCode":"3340130","cityName":"国网浙江杭州市萧山区供电有限公司","provinceCode":null,"stopTime":"2018-06-20 02:34:59","powerType":"全部","powerOffArea":"110kV永兴变:上董C981线-上董村3#变低压开关","powerOffReason":"110kV永兴变:上董C981线-上董村3#变低压开关故障","powerOffId":"2018061931010472"}],"pageModel":{"pageNow":1642,"totalCount":17789,"totalPage":1779,"tableRows":0,"pageCount":10,"beginCount":16410},"isExperi":"1"}