{"message":"","today":"2020-06-16","seleList":[{"poweroffId":2018061931010074,"sgpoweroffId":null,"subsName":"","lineName":"10kV三联D943线","pubTranName":"富阳市富春三桥小学,","scope":"浙江省杭州市富阳区富春街道富阳区富春三桥小学","startTime":"2018-06-30 08:30:00","stopDate":"2018-06-30 18:00:09","orgNo":"3340170","typeCode":"计划停电","poweroffArea":"110kV育才变:三联D943线32#杆三桥小学分线","poweroffReason":"青云2018年柳溪村6#柳溪公变等10kV配变增容布点工程：立杆1基，安装400kVA龙星村6#甘溪里公变一台及低压线路改接等工作","powerTime":"2018-06-30 17:50:47","powerComm":"已送电","subsNo":"","lineNo":"","tgNo":"","tgName":null,"infoStatus":"1","orgName":"国网浙江杭州市富阳区供电公司","typeName":null,"infoStatusName":null,"dateDay":null,"orgNos":null,"nowTime":null,"countyName":null,"streetName":null,"villageName":null,"roadName":null,"communityName":null,"tranName":null,"sdLineName":null,"cityCode":"3340170","cityName":"国网浙江杭州市富阳区供电公司","provinceCode":null,"stopTime":"2018-06-30 18:00:09","powerType":"全部","powerOffArea":"110kV育才变:三联D943线32#杆三桥小学分线","powerOffReason":"青云2018年柳溪村6#柳溪公变等10kV配变增容布点工程：立杆1基，安装400kVA龙星村6#甘溪里公变一台及低压线路改接等工作","powerOffId":"2018061931010074"},{"poweroffId":2018061931010073,"sgpoweroffId":null,"subsName":"","lineName":"10kV三联D943线","pubTranName":"龙星村2#甘溪里公变,","scope":"浙江省杭州市富阳区富春街道龙星村一带","startTime":"2018-06-30 08:30:00","stopDate":"2018-06-30 18:00:44","orgNo":"3340170","typeCode":"计划停电","poweroffArea":"110kV育才变:三联D943线33#杆龙星村2#甘溪里公变","poweroffReason":"青云2018年柳溪村6#柳溪公变等10kV配变增容布点工程：配合停电","powerTime":"2018-06-30 17:50:16","powerComm":"已送电","subsNo":"","lineNo":"","tgNo":"","tgName":null,"infoStatus":"1","orgName":"国网浙江杭州市富阳区供电公司","typeName":null,"infoStatusName":null,"dateDay":null,"orgNos":null,"nowTime":null,"countyName":null,"streetName":null,"villageName":null,"roadName":null,"communityName":null,"tranName":null,"sdLineName":null,"cityCode":"3340170","cityName":"国网浙江杭州市富阳区供电公司","provinceCode":null,"stopTime":"2018-06-30 18:00:44","powerType":"全部","powerOffArea":"110kV育才变:三联D943线33#杆龙星村2#甘溪里公变","powerOffReason":"青云2018年柳溪村6#柳溪公变等10kV配变增容布点工程：配合停电","powerOffId":"2018061931010073"},{"poweroffId":2018061931010072,"sgpoweroffId":null,"subsName":"","lineName":"10kV木桥D422线","pubTranName":"何埭村4#东公变,","scope":"浙江省杭州市富阳区东洲街道何埭村一带","startTime":"2018-06-30 09:00:00","stopDate":"2018-06-30 16:30:00","orgNo":"3340170","typeCode":"计划停电","poweroffArea":"110kV东洲变:木桥D422线108#杆何埭四分线","poweroffReason":"青云2018年东洲地区10千伏木桥D422线红旗7#等公变增容布点工程；何埭村4#东公变屋顶变改杆上变，立杆、配变移位等工作。","powerTime":"2018-06-30 16:20:16","powerComm":"已送电","subsNo":"","lineNo":"","tgNo":"","tgName":null,"infoStatus":"1","orgName":"国网浙江杭州市富阳区供电公司","typeName":null,"infoStatusName":null,"dateDay":null,"orgNos":null,"nowTime":null,"countyName":null,"streetName":null,"villageName":null,"roadName":null,"communityName":null,"tranName":null,"sdLineName":null,"cityCode":"3340170","cityName":"国网浙江杭州市富阳区供电公司","provinceCode":null,"stopTime":"2018-06-30 16:30:00","powerType":"全部","powerOffArea":"110kV东洲变:木桥D422线108#杆何埭四分线","powerOffReason":"青云2018年东洲地区10千伏木桥D422线红旗7#等公变增容布点工程；何埭村4#东公变屋顶变改杆上变，立杆、配变移位等工作。","powerOffId":"2018061931010072"},{"poweroffId":2018061931010071,"sgpoweroffId":null,"subsName":"","lineName":"10kV水厂D436线","pubTranName":"富阳市交通建设投资有限公司,富阳市春江街道服务有限公司（排涝站）,","scope":"浙江省-杭州市-富阳区春江街道(杭州富阳交通建设投资有限公司,杭州富阳区春江街道服务有限公司)一带;","startTime":"2018-06-29 07:00:00","stopDate":"2018-06-29 17:00:00","orgNo":"3340170","typeCode":"计划停电","poweroffArea":"110kV天钟变:水厂D436线12#杆煤场分线跌落式熔断器后段","poweroffReason":"江南2018年10kV水厂D436线与富源D674线联络工程：1、富源5#北分线2#杆11#杆JKLYJ-10-70导线更换为JKLYJ-10-240导线9档，分支线路拆、搭头，电缆上搭头1处，附件更换等工作。","powerTime":"2018-06-29 16:51:25","powerComm":"已送电","subsNo":"","lineNo":"","tgNo":"","tgName":null,"infoStatus":"1","orgName":"国网浙江杭州市富阳区供电公司","typeName":null,"infoStatusName":null,"dateDay":null,"orgNos":null,"nowTime":null,"countyName":null,"streetName":null,"villageName":null,"roadName":null,"communityName":null,"tranName":null,"sdLineName":null,"cityCode":"3340170","cityName":"国网浙江杭州市富阳区供电公司","provinceCode":null,"stopTime":"2018-06-29 17:00:00","powerType":"全部","powerOffArea":"110kV天钟变:水厂D436线12#杆煤场分线跌落式熔断器后段","powerOffReason":"江南2018年10kV水厂D436线与富源D674线联络工程：1、富源5#北分线2#杆11#杆JKLYJ-10-70导线更换为JKLYJ-10-240导线9档，分支线路拆、搭头，电缆上搭头1处，附件更换等工作。","powerOffId":"2018061931010071"},{"poweroffId":2018061931010070,"sgpoweroffId":null,"subsName":"","lineName":"10kV项家D512线","pubTranName":"小剡村3#前山园公变,","scope":"浙江省-杭州市-富阳区-常安镇(小剡行政村-前山园自然村);","startTime":"2018-06-29 09:00:00","stopDate":"2018-06-29 17:20:00","orgNo":"3340170","typeCode":"计划停电","poweroffArea":"110kV常安变:前山园分线","poweroffReason":"场口2018年马山村9#木桥头公变等台区低压线路改造工程：更换配电屏、拆装进线电缆头等工作","powerTime":"2018-06-29 16:14:17","powerComm":"工作结束已送电","subsNo":"","lineNo":"","tgNo":"","tgName":null,"infoStatus":"1","orgName":"国网浙江杭州市富阳区供电公司","typeName":null,"infoStatusName":null,"dateDay":null,"orgNos":null,"nowTime":null,"countyName":null,"streetName":null,"villageName":null,"roadName":null,"communityName":null,"tranName":null,"sdLineName":null,"cityCode":"3340170","cityName":"国网浙江杭州市富阳区供电公司","provinceCode":null,"stopTime":"2018-06-29 17:20:00","powerType":"全部","powerOffArea":"110kV常安变:前山园分线","powerOffReason":"场口2018年马山村9#木桥头公变等台区低压线路改造工程：更换配电屏、拆装进线电缆头等工作","powerOffId":"2018061931010070"},{"poweroffId":2018061931010066,"sgpoweroffId":null,"subsName":"","lineName":"10kV富源D674线","pubTranName":"临江村富源2#西公变,富阳市春江街道服务有限公司（排涝站）,富源村5#北公变,富阳市路灯安装维修管理所5#变,富源村1#村东公变,富源村6#蒋家公变,","scope":"浙江省杭州市-富阳区-春江街道(临江行政村-富源自然村)一带;","startTime":"2018-06-29 07:00:00","stopDate":"2018-06-29 17:00:00","orgNo":"3340170","typeCode":"计划停电","poweroffArea":"110kV临江变:富源D674线22#杆跌落式熔断器后段","poweroffReason":"江南2018年10kV水厂D436线与富源D674线联络工程：1、富源D674线32#杆富源5#北分线1#杆—2#杆导线拆除，新放JKLYJ-10-240导线2档，分支线改接1档，拆除旧导线8档，拔旧杆8支，真空开关拆除1台，新上电缆搭头2处等工作。","powerTime":"2018-06-29 16:50:54","powerComm":"已送电","subsNo":"","lineNo":"","tgNo":"","tgName":null,"infoStatus":"1","orgName":"国网浙江杭州市富阳区供电公司","typeName":null,"infoStatusName":null,"dateDay":null,"orgNos":null,"nowTime":null,"countyName":null,"streetName":null,"villageName":null,"roadName":null,"communityName":null,"tranName":null,"sdLineName":null,"cityCode":"3340170","cityName":"国网浙江杭州市富阳区供电公司","provinceCode":null,"stopTime":"2018-06-29 17:00:00","powerType":"全部","powerOffArea":"110kV临江变:富源D674线22#杆跌落式熔断器后段","powerOffReason":"江南2018年10kV水厂D436线与富源D674线联络工程：1、富源D674线32#杆富源5#北分线1#杆—2#杆导线拆除，新放JKLYJ-10-240导线2档，分支线改接1档，拆除旧导线8档，拔旧杆8支，真空开关拆除1台，新上电缆搭头2处等工作。","powerOffId":"2018061931010066"},{"poweroffId":2018061931010062,"sgpoweroffId":null,"subsName":"","lineName":"10kV李家D384线","pubTranName":"新二村2#前山公变,新二村1#鸡宝岭公变,新二村3#大礼堂公变,新二村4#同年坞公变,新二村5#中塔公变,新二村7#后坞公变,新二村8#野毛坞公变,","scope":"浙江省-杭州市-富阳区-湖源乡(新二村村行政村-李家自然村、钟塔自然村,新三行政村-山毛坞口自然村);","startTime":"2018-06-29 09:00:00","stopDate":"2018-06-29 16:00:00","orgNo":"3340170","typeCode":"计划停电","poweroffArea":"35kV湖源变:钟塔分线","poweroffReason":"场口2018年新一村2#章村公变等10kV配变增容布点工程：李家D384线103#杆钟塔分线：新二村1#鸡宝岭公变原100kVA配变增容至400kVA配变1台、更低压电缆及配变附件更换等工作；","powerTime":"2018-06-29 15:47:34","powerComm":"工作结束已送电","subsNo":"","lineNo":"","tgNo":"","tgName":null,"infoStatus":"1","orgName":"国网浙江杭州市富阳区供电公司","typeName":null,"infoStatusName":null,"dateDay":null,"orgNos":null,"nowTime":null,"countyName":null,"streetName":null,"villageName":null,"roadName":null,"communityName":null,"tranName":null,"sdLineName":null,"cityCode":"3340170","cityName":"国网浙江杭州市富阳区供电公司","provinceCode":null,"stopTime":"2018-06-29 16:00:00","powerType":"全部","powerOffArea":"35kV湖源变:钟塔分线","powerOffReason":"场口2018年新一村2#章村公变等10kV配变增容布点工程：李家D384线103#杆钟塔分线：新二村1#鸡宝岭公变原100kVA配变增容至400kVA配变1台、更低压电缆及配变附件更换等工作；","powerOffId":"2018061931010062"},{"poweroffId":2018061931010061,"sgpoweroffId":null,"subsName":"","lineName":"10kV荷庄D763线","pubTranName":"外沙村3#村下公变,","scope":"浙江省-杭州市富阳区-灵桥镇外沙村村下一带","startTime":"2018-06-28 08:00:00","stopDate":"2018-06-28 17:00:00","orgNo":"3340170","typeCode":"计划停电","poweroffArea":"110kV春联变:荷庄D763线-外沙村3号村下3号开关后段","poweroffReason":"江南2018年大源镇26#城标公变等台区低压线路改造工程人工运立杆1支，安装横担，更换落户线表箱10处，搭接等工作等工作","powerTime":"2018-06-28 16:27:34","powerComm":"工作结束已送电","subsNo":"","lineNo":"","tgNo":"","tgName":null,"infoStatus":"1","orgName":"国网浙江杭州市富阳区供电公司","typeName":null,"infoStatusName":null,"dateDay":null,"orgNos":null,"nowTime":null,"countyName":null,"streetName":null,"villageName":null,"roadName":null,"communityName":null,"tranName":null,"sdLineName":null,"cityCode":"3340170","cityName":"国网浙江杭州市富阳区供电公司","provinceCode":null,"stopTime":"2018-06-28 17:00:00","powerType":"全部","powerOffArea":"110kV春联变:荷庄D763线-外沙村3号村下3号开关后段","powerOffReason":"江南2018年大源镇26#城标公变等台区低压线路改造工程人工运立杆1支，安装横担，更换落户线表箱10处，搭接等工作等工作","powerOffId":"2018061931010061"},{"poweroffId":2018061931010060,"sgpoweroffId":null,"subsName":"","lineName":"10kV图山D502线","pubTranName":"杭州上芝电梯部件有限公司,杭州金泰塑业有限公司2#变,杭州金泰塑业有限公司1#,富阳市创新造纸机械有限公司,杭州富阳新兴实业有限公司2#变,1#变,杭州富阳新兴实业有限公司2#,乌畴溪新村4号老山坞公变,白石胶村1#煤井公变,赵欧村1#赵家溪口公变,赵欧村2#赵家桥头公变,白石胶村3#溪边公变,上图山村5#大门山公变,下图山村3#田畈公变,杭州富阳新兴实业有限公司1#变,下图山村4#新区公变,赵欧村5#水井公变,富阳星宇铜业有限公司1#,富阳星宇铜业有限公司2#,杭州富阳森杰新型建材有限公司,杭州旦邦生态农业开发有限公司,杭州富阳兴达工具有限公司2#变,杭州润鑫有色金属有限公司2#,杭州润鑫有色金属有限公司1#,富阳兴达工具有限公司1#变,上图山村3号医院公变,杭州好事域针织有限公司,上图山村2#朝头山公变,洪家塘2#池塘公变,白石胶村2#村边公变,富阳市场口镇赵家村,下图山2#潘家塘公变,白石胶村6#路边公变,下图山1#村中公变,杭州鹏源旅行用品有限公司,白石胶村5#赵村坞公变,洪家塘4#冯家公变1,富阳市公路管理段（场口公路养护管理站）,洪家塘3#机米山公变,赵欧村3#欧家溪公变,杭州佑东工艺品有限公司,白石胶村4号陈后公变,乌畴溪新村2#新佳庄公变,上图山村1#双家边公变,赵欧村4号荷花塘公变,宋家溪1#公路公变,洪家塘1#球场公变,宋家溪2#学校公变,上图山村4#石亩岭公变,","scope":"浙江省-杭州市-富阳区-场口镇(白石胶行政村-白石胶自然村、赵村坞自然村,洪家塘行政村-冯家自然村、洪家塘自然村,上图山行政村-上图山自然村,宋家溪行政村-宋家溪自然村,乌畴溪新村行政村-新佳庄自然村,下图山行政村-下图山自然村,赵欧行政村-欧家溪自然村、赵家村自然村);","startTime":"2018-06-28 08:30:00","stopDate":"2018-06-28 16:40:00","orgNo":"3340170","typeCode":"计划停电","poweroffArea":"110kV常安变:图山D502线","poweroffReason":"场口2018年新一村2#章村公变等10kV配变增容布点工程：图山D502线181#杆新佳庄分线3#杆乌畴溪新村2#新佳庄公变新立电杆1支，拆除电杆1支，原200kVA配变增容至400kVA配变1台，低压电缆及配变附件更换等工作；","powerTime":"2018-06-28 16:30:43","powerComm":"工作结束已送电","subsNo":"","lineNo":"","tgNo":"","tgName":null,"infoStatus":"1","orgName":"国网浙江杭州市富阳区供电公司","typeName":null,"infoStatusName":null,"dateDay":null,"orgNos":null,"nowTime":null,"countyName":null,"streetName":null,"villageName":null,"roadName":null,"communityName":null,"tranName":null,"sdLineName":null,"cityCode":"3340170","cityName":"国网浙江杭州市富阳区供电公司","provinceCode":null,"stopTime":"2018-06-28 16:40:00","powerType":"全部","powerOffArea":"110kV常安变:图山D502线","powerOffReason":"场口2018年新一村2#章村公变等10kV配变增容布点工程：图山D502线181#杆新佳庄分线3#杆乌畴溪新村2#新佳庄公变新立电杆1支，拆除电杆1支，原200kVA配变增容至400kVA配变1台，低压电缆及配变附件更换等工作；","powerOffId":"2018061931010060"},{"poweroffId":2018061931010052,"sgpoweroffId":null,"subsName":"","lineName":"10kV瓜港A078线","pubTranName":"沙田头村7#变,","scope":"浙江省-杭州市-萧山区-瓜沥镇沙田头行政村、沙田头村一带","startTime":"2018-06-19 08:30:48","stopDate":"2018-06-19 17:40:01","orgNo":"3340130","typeCode":"电网故障停限电","poweroffArea":"110kV航坞变:瓜港A078线-沙田头村7#变台区低压开关","poweroffReason":"低压架空导线断线故障","powerTime":"2018-06-19 17:18:06","powerComm":"已送电","subsNo":"","lineNo":"","tgNo":"","tgName":null,"infoStatus":"1","orgName":"国网浙江杭州市萧山区供电有限公司","typeName":null,"infoStatusName":null,"dateDay":null,"orgNos":null,"nowTime":null,"countyName":null,"streetName":null,"villageName":null,"roadName":null,"communityName":null,"tranName":null,"sdLineName":null,"cityCode":"3340130","cityName":"国网浙江杭州市萧山区供电有限公司","provinceCode":null,"stopTime":"2018-06-19 17:40:01","powerType":"全部","powerOffArea":"110kV航坞变:瓜港A078线-沙田头村7#变台区低压开关","powerOffReason":"低压架空导线断线故障","powerOffId":"2018061931010052"}],"pageModel":{"pageNow":1645,"totalCount":17789,"totalPage":1779,"tableRows":0,"pageCount":10,"beginCount":16440},"isExperi":"1"}