{"message":"","today":"2020-06-16","seleList":[{"poweroffId":2018061931010046,"sgpoweroffId":null,"subsName":"","lineName":"10kV万众A588线","pubTranName":"金马饭店,金马同盛大厦1#公变,金马酒店2#,浙江金马酒店管理有限公司,金马同盛大厦2#公变,金马饭店,金马酒店1#,2#,金马酒店1#,","scope":"浙江省-杭州市-萧山区-新塘街道(萧绍路-同盛大厦);浙江省-杭州市-萧山区-新塘街道(浙江金马饭店有限公司,浙江金马酒店管理有限公司);浙江省杭州市萧山区北干街道金马同盛、金马饭店及其周边一带","startTime":"2018-06-29 08:50:00","stopDate":"2018-06-29 18:00:00","orgNo":"3340130","typeCode":"计划停电","poweroffArea":"110kV城东变:万众A588线-万众A588线后段","poweroffReason":"同盛开自动化改造，安装DTU及调试，开关电操机构改造","powerTime":"2018-06-29 17:39:05","powerComm":"已送电","subsNo":"","lineNo":"","tgNo":"","tgName":null,"infoStatus":"1","orgName":"国网浙江杭州市萧山区供电有限公司","typeName":null,"infoStatusName":null,"dateDay":null,"orgNos":null,"nowTime":null,"countyName":null,"streetName":null,"villageName":null,"roadName":null,"communityName":null,"tranName":null,"sdLineName":null,"cityCode":"3340130","cityName":"国网浙江杭州市萧山区供电有限公司","provinceCode":null,"stopTime":"2018-06-29 18:00:00","powerType":"全部","powerOffArea":"110kV城东变:万众A588线-万众A588线后段","powerOffReason":"同盛开自动化改造，安装DTU及调试，开关电操机构改造","powerOffId":"2018061931010046"},{"poweroffId":2018061931010044,"sgpoweroffId":null,"subsName":"","lineName":"10kV萧二C453线","pubTranName":"嘉丰新筑2#公变,嘉华新筑2#公变,1#,嘉华新筑1#公变,联都置业商业变,嘉丰新筑1#公变,嘉丰新筑3#公变,变压器,变压器,2#,安桥社区1#变,","scope":"浙江省-杭州市-萧山区-蜀山街道(安桥社区-萧然西路,联丰社区-嘉丰新筑小区、嘉华新筑小区、木桥头自然村);(杭州久安物业服务有限公司);浙江省杭州市萧山区城厢街道安桥社区、嘉丰新筑及其周边一带","startTime":"2018-06-29 08:30:00","stopDate":"2018-06-29 16:30:00","orgNo":"3340130","typeCode":"计划停电","poweroffArea":"110kV萧山变:萧二C453线-安桥社区后段","poweroffReason":"嘉丰新筑改接至得力开G13","powerTime":"2018-06-29 14:34:39","powerComm":"已送电","subsNo":"","lineNo":"","tgNo":"","tgName":null,"infoStatus":"1","orgName":"国网浙江杭州市萧山区供电有限公司","typeName":null,"infoStatusName":null,"dateDay":null,"orgNos":null,"nowTime":null,"countyName":null,"streetName":null,"villageName":null,"roadName":null,"communityName":null,"tranName":null,"sdLineName":null,"cityCode":"3340130","cityName":"国网浙江杭州市萧山区供电有限公司","provinceCode":null,"stopTime":"2018-06-29 16:30:00","powerType":"全部","powerOffArea":"110kV萧山变:萧二C453线-安桥社区后段","powerOffReason":"嘉丰新筑改接至得力开G13","powerOffId":"2018061931010044"},{"poweroffId":2018061931010035,"sgpoweroffId":null,"subsName":"","lineName":"10kV塔山D136线","pubTranName":"新兴街三弄1#公变,","scope":"浙江省-杭州市-富阳区-新登镇(惠来社区,新兴街);","startTime":"2018-06-19 08:16:07","stopDate":"2018-06-19 16:28:45","orgNo":"3340170","typeCode":"电网故障停限电","poweroffArea":"110kV新登变:塔山D136线新兴街三弄1号公变","poweroffReason":"低压配电设备故障","powerTime":"2018-06-19 16:22:48","powerComm":"已送电","subsNo":"","lineNo":"","tgNo":"","tgName":null,"infoStatus":"1","orgName":"国网浙江杭州市富阳区供电公司","typeName":null,"infoStatusName":null,"dateDay":null,"orgNos":null,"nowTime":null,"countyName":null,"streetName":null,"villageName":null,"roadName":null,"communityName":null,"tranName":null,"sdLineName":null,"cityCode":"3340170","cityName":"国网浙江杭州市富阳区供电公司","provinceCode":null,"stopTime":"2018-06-19 16:28:45","powerType":"全部","powerOffArea":"110kV新登变:塔山D136线新兴街三弄1号公变","powerOffReason":"低压配电设备故障","powerOffId":"2018061931010035"},{"poweroffId":2018061931010032,"sgpoweroffId":null,"subsName":"","lineName":"10kV山基D892线","pubTranName":"光明村梓树5号农居点公变,","scope":"浙江省-杭州市-富阳区灵桥镇光明村梓树农居点一带","startTime":"2018-06-19 08:30:00","stopDate":"2018-06-19 12:30:00","orgNo":"3340170","typeCode":"电网故障停限电","poweroffArea":"110kV永春变:山基D892线-光明村梓树5号农居点2号出线2号配电箱后段","poweroffReason":"低压配电设备故障","powerTime":"2018-06-19 12:13:21","powerComm":"低压配电设备故障已修复","subsNo":"","lineNo":"","tgNo":"","tgName":null,"infoStatus":"1","orgName":"国网浙江杭州市富阳区供电公司","typeName":null,"infoStatusName":null,"dateDay":null,"orgNos":null,"nowTime":null,"countyName":null,"streetName":null,"villageName":null,"roadName":null,"communityName":null,"tranName":null,"sdLineName":null,"cityCode":"3340170","cityName":"国网浙江杭州市富阳区供电公司","provinceCode":null,"stopTime":"2018-06-19 12:30:00","powerType":"全部","powerOffArea":"110kV永春变:山基D892线-光明村梓树5号农居点2号出线2号配电箱后段","powerOffReason":"低压配电设备故障","powerOffId":"2018061931010032"},{"poweroffId":2018061931010031,"sgpoweroffId":null,"subsName":"","lineName":"10kV三桥D206线","pubTranName":"铁坞口3#高畈公变,","scope":"浙江省-杭州市-富阳区-富春街道(青云桥行政村-高畈自然村、横山下自然村);","startTime":"2018-06-19 08:40:00","stopDate":"2018-06-19 12:00:00","orgNo":"3340170","typeCode":"电网故障停限电","poweroffArea":"35kV大青变:三桥D206线-铁坞口3号高畈后段","poweroffReason":"低压配电设备故障","powerTime":"2018-06-19 11:02:50","powerComm":"已恢复送电","subsNo":"","lineNo":"","tgNo":"","tgName":null,"infoStatus":"1","orgName":"国网浙江杭州市富阳区供电公司","typeName":null,"infoStatusName":null,"dateDay":null,"orgNos":null,"nowTime":null,"countyName":null,"streetName":null,"villageName":null,"roadName":null,"communityName":null,"tranName":null,"sdLineName":null,"cityCode":"3340170","cityName":"国网浙江杭州市富阳区供电公司","provinceCode":null,"stopTime":"2018-06-19 12:00:00","powerType":"全部","powerOffArea":"35kV大青变:三桥D206线-铁坞口3号高畈后段","powerOffReason":"低压配电设备故障","powerOffId":"2018061931010031"},{"poweroffId":2018061931010014,"sgpoweroffId":null,"subsName":"","lineName":"10kV更园Y414线","pubTranName":"新蓬村小古洞台区,","scope":"-浙江省-杭州市-建德市 新安江街道新蓬村一带用户。","startTime":"2018-06-19 06:32:00","stopDate":"2018-06-19 12:39:04","orgNo":"3340180","typeCode":"电网故障停限电","poweroffArea":"110kV更楼变:更园Y414线-新蓬村小古洞台区后段","poweroffReason":"更园Y414线-新蓬村小古洞台区 低压配电设备故障","powerTime":"2018-06-19 09:39:40","powerComm":"已送电","subsNo":"","lineNo":"","tgNo":"","tgName":null,"infoStatus":"1","orgName":"国网浙江建德市供电有限公司","typeName":null,"infoStatusName":null,"dateDay":null,"orgNos":null,"nowTime":null,"countyName":null,"streetName":null,"villageName":null,"roadName":null,"communityName":null,"tranName":null,"sdLineName":null,"cityCode":"3340180","cityName":"国网浙江建德市供电有限公司","provinceCode":null,"stopTime":"2018-06-19 12:39:04","powerType":"全部","powerOffArea":"110kV更楼变:更园Y414线-新蓬村小古洞台区后段","powerOffReason":"更园Y414线-新蓬村小古洞台区 低压配电设备故障","powerOffId":"2018061931010014"},{"poweroffId":2018061831010090,"sgpoweroffId":null,"subsName":"","lineName":"10kV联盟T370线","pubTranName":"联盟俞家村1号公变,","scope":"浙江省-杭州市-桐庐县-百江镇(联盟行政村-俞家村自然村);","startTime":"2018-06-18 21:03:45","stopDate":"2018-06-19 03:03:45","orgNo":"3340150","typeCode":"电网故障停限电","poweroffArea":"110kV百江变:联盟T370线-联盟俞家村1号公变后段","poweroffReason":"低压开关故障处理","powerTime":"2018-06-18 22:19:02","powerComm":"已送电","subsNo":"","lineNo":"","tgNo":"","tgName":null,"infoStatus":"1","orgName":"国网浙江桐庐县供电公司","typeName":null,"infoStatusName":null,"dateDay":null,"orgNos":null,"nowTime":null,"countyName":null,"streetName":null,"villageName":null,"roadName":null,"communityName":null,"tranName":null,"sdLineName":null,"cityCode":"3340150","cityName":"国网浙江桐庐县供电公司","provinceCode":null,"stopTime":"2018-06-19 03:03:45","powerType":"全部","powerOffArea":"110kV百江变:联盟T370线-联盟俞家村1号公变后段","powerOffReason":"低压开关故障处理","powerOffId":"2018061831010090"},{"poweroffId":2018061831010089,"sgpoweroffId":null,"subsName":"","lineName":"10kV白路316线","pubTranName":"开发区管委会办公楼,","scope":"浙江省-杭州市-桐庐县-城南街道(桐庐经济开发区管委会办公楼，石马小区一带);","startTime":"2018-06-18 20:59:38","stopDate":"2018-06-19 02:59:38","orgNo":"3340150","typeCode":"电网故障停限电","poweroffArea":"110kV洋洲变:白路316线-开发区管委会办公楼后段","poweroffReason":"低压开关故障处理","powerTime":"2018-06-18 23:29:59","powerComm":"已送电","subsNo":"","lineNo":"","tgNo":"","tgName":null,"infoStatus":"1","orgName":"国网浙江桐庐县供电公司","typeName":null,"infoStatusName":null,"dateDay":null,"orgNos":null,"nowTime":null,"countyName":null,"streetName":null,"villageName":null,"roadName":null,"communityName":null,"tranName":null,"sdLineName":null,"cityCode":"3340150","cityName":"国网浙江桐庐县供电公司","provinceCode":null,"stopTime":"2018-06-19 02:59:38","powerType":"全部","powerOffArea":"110kV洋洲变:白路316线-开发区管委会办公楼后段","powerOffReason":"低压开关故障处理","powerOffId":"2018061831010089"},{"poweroffId":2018061831010088,"sgpoweroffId":null,"subsName":"","lineName":"10kV洋小324线","pubTranName":"桐庐经济开发管委会(春江路路灯),","scope":"浙江省-杭州市-桐庐县-城南街道(桐庐经济开发管委会(春江路路灯));石马小区一带","startTime":"2018-06-18 20:55:47","stopDate":"2018-06-18 23:57:53","orgNo":"3340150","typeCode":"电网故障停限电","poweroffArea":"110kV洋洲变:洋小324线-桐庐经济开发管委会(春江路路灯)后段","poweroffReason":"低压开关故障处理","powerTime":"2018-06-18 23:29:27","powerComm":"已送电","subsNo":"","lineNo":"","tgNo":"","tgName":null,"infoStatus":"1","orgName":"国网浙江桐庐县供电公司","typeName":null,"infoStatusName":null,"dateDay":null,"orgNos":null,"nowTime":null,"countyName":null,"streetName":null,"villageName":null,"roadName":null,"communityName":null,"tranName":null,"sdLineName":null,"cityCode":"3340150","cityName":"国网浙江桐庐县供电公司","provinceCode":null,"stopTime":"2018-06-18 23:57:53","powerType":"全部","powerOffArea":"110kV洋洲变:洋小324线-桐庐经济开发管委会(春江路路灯)后段","powerOffReason":"低压开关故障处理","powerOffId":"2018061831010088"},{"poweroffId":2018061831010041,"sgpoweroffId":null,"subsName":"","lineName":"羊山H530线","pubTranName":"瓶窑社区陈家村2号公变,沁园春,塑料厂,余杭公安,海联塑胶,","scope":"浙江省杭州市余杭区瓶窑镇瓶窑行政村,杭州海联塑胶有限公司,杭州华能高分子材料有限公司,杭州市公安局余杭区分局瓶窑派出所,杭州余杭区瓶窑镇花岗石冷却液厂一带","startTime":"2018-06-18 14:51:00","stopDate":"2018-06-18 19:51:00","orgNo":"3340140","typeCode":"电网故障停限电","poweroffArea":"凤山变:羊山H530线余杭公安专变,海联塑胶专变,瓶窑社区陈家村2号公变,沁园春变,塑料厂专变","poweroffReason":"凤山变:羊山H530线瓶窑社区陈家村2号公变低压导线断线故障","powerTime":"2018-06-18 19:44:00","powerComm":"已送电","subsNo":"","lineNo":"","tgNo":"","tgName":null,"infoStatus":"1","orgName":"国网浙江杭州市余杭区供电有限公司","typeName":null,"infoStatusName":null,"dateDay":null,"orgNos":null,"nowTime":null,"countyName":null,"streetName":null,"villageName":null,"roadName":null,"communityName":null,"tranName":null,"sdLineName":null,"cityCode":"3340140","cityName":"国网浙江杭州市余杭区供电有限公司","provinceCode":null,"stopTime":"2018-06-18 19:51:00","powerType":"全部","powerOffArea":"凤山变:羊山H530线余杭公安专变,海联塑胶专变,瓶窑社区陈家村2号公变,沁园春变,塑料厂专变","powerOffReason":"凤山变:羊山H530线瓶窑社区陈家村2号公变低压导线断线故障","powerOffId":"2018061831010041"}],"pageModel":{"pageNow":1646,"totalCount":17789,"totalPage":1779,"tableRows":0,"pageCount":10,"beginCount":16450},"isExperi":"1"}