{"message":"","today":"2020-06-16","seleList":[{"poweroffId":2018061831010038,"sgpoweroffId":null,"subsName":"","lineName":"牌头H562线","pubTranName":"王位山村白石坞公变,王位山村陆家庄公变,","scope":"浙江省杭州市余杭区-黄湖镇王位山行政村一带","startTime":"2018-06-18 14:17:00","stopDate":"2018-06-18 17:00:00","orgNo":"3340140","typeCode":"电网故障停限电","poweroffArea":"黄湖变牌头H562线王位山村白石坞公变,王位山村陆家庄公变","poweroffReason":"牌头H562线王位山村白石坞公变低压导线故障","powerTime":"2018-06-18 14:20:00","powerComm":"已送电","subsNo":"","lineNo":"","tgNo":"","tgName":null,"infoStatus":"1","orgName":"国网浙江杭州市余杭区供电有限公司","typeName":null,"infoStatusName":null,"dateDay":null,"orgNos":null,"nowTime":null,"countyName":null,"streetName":null,"villageName":null,"roadName":null,"communityName":null,"tranName":null,"sdLineName":null,"cityCode":"3340140","cityName":"国网浙江杭州市余杭区供电有限公司","provinceCode":null,"stopTime":"2018-06-18 17:00:00","powerType":"全部","powerOffArea":"黄湖变牌头H562线王位山村白石坞公变,王位山村陆家庄公变","powerOffReason":"牌头H562线王位山村白石坞公变低压导线故障","powerOffId":"2018061831010038"},{"poweroffId":2018061831010020,"sgpoweroffId":null,"subsName":"","lineName":"10kV古城Y146线","pubTranName":"大同集镇供电所台区,","scope":"浙江省-杭州市-建德市-大同镇大同行政村-学士路一带用户。","startTime":"2018-06-18 09:17:00","stopDate":"2018-06-18 15:27:28","orgNo":"3340180","typeCode":"电网故障停限电","poweroffArea":"35kV古城变:古城Y146线-大同集镇供电所台区后段","poweroffReason":"古城Y146线-大同集镇供电所台区 低压配电设备故障","powerTime":"2018-06-18 10:06:29","powerComm":"已送电","subsNo":"","lineNo":"","tgNo":"","tgName":null,"infoStatus":"1","orgName":"国网浙江建德市供电有限公司","typeName":null,"infoStatusName":null,"dateDay":null,"orgNos":null,"nowTime":null,"countyName":null,"streetName":null,"villageName":null,"roadName":null,"communityName":null,"tranName":null,"sdLineName":null,"cityCode":"3340180","cityName":"国网浙江建德市供电有限公司","provinceCode":null,"stopTime":"2018-06-18 15:27:28","powerType":"全部","powerOffArea":"35kV古城变:古城Y146线-大同集镇供电所台区后段","powerOffReason":"古城Y146线-大同集镇供电所台区 低压配电设备故障","powerOffId":"2018061831010020"},{"poweroffId":2018061831010018,"sgpoweroffId":null,"subsName":"","lineName":"10kV新镇C620线","pubTranName":"双圩村4#变,","scope":"浙江省-杭州市-萧山区-新街镇(双圩行政村)等一带","startTime":"2018-06-18 09:11:12","stopDate":"2018-06-18 15:11:12","orgNo":"3340130","typeCode":"电网故障停限电","poweroffArea":"110kV新街变:新镇C620线-双圩村4#变低压配电设施","poweroffReason":"低压配电设施故障","powerTime":"2018-06-18 09:33:36","powerComm":"已送电","subsNo":"","lineNo":"","tgNo":"","tgName":null,"infoStatus":"1","orgName":"国网浙江杭州市萧山区供电有限公司","typeName":null,"infoStatusName":null,"dateDay":null,"orgNos":null,"nowTime":null,"countyName":null,"streetName":null,"villageName":null,"roadName":null,"communityName":null,"tranName":null,"sdLineName":null,"cityCode":"3340130","cityName":"国网浙江杭州市萧山区供电有限公司","provinceCode":null,"stopTime":"2018-06-18 15:11:12","powerType":"全部","powerOffArea":"110kV新街变:新镇C620线-双圩村4#变低压配电设施","powerOffReason":"低压配电设施故障","powerOffId":"2018061831010018"},{"poweroffId":2018061831010014,"sgpoweroffId":null,"subsName":"","lineName":"10kV马源179线","pubTranName":"东溪郎家1号公变,","scope":"浙江省-杭州市-桐庐县-分水镇(东溪行政村-东溪自然村、郎家自然村、前坑坞自然村、前湾自然村);","startTime":"2018-06-18 08:21:43","stopDate":"2018-06-18 14:21:43","orgNo":"3340150","typeCode":"电网故障停限电","poweroffArea":"110kV分水变:马源179线-东溪郎家1号公变后段","poweroffReason":"低压开关故障","powerTime":"2018-06-18 10:27:27","powerComm":"全部送电","subsNo":"","lineNo":"","tgNo":"","tgName":null,"infoStatus":"1","orgName":"国网浙江桐庐县供电公司","typeName":null,"infoStatusName":null,"dateDay":null,"orgNos":null,"nowTime":null,"countyName":null,"streetName":null,"villageName":null,"roadName":null,"communityName":null,"tranName":null,"sdLineName":null,"cityCode":"3340150","cityName":"国网浙江桐庐县供电公司","provinceCode":null,"stopTime":"2018-06-18 14:21:43","powerType":"全部","powerOffArea":"110kV分水变:马源179线-东溪郎家1号公变后段","powerOffReason":"低压开关故障","powerOffId":"2018061831010014"},{"poweroffId":2018061831010011,"sgpoweroffId":null,"subsName":"","lineName":"10kV分政T425线","pubTranName":"物能春江1号公变,","scope":"浙江省杭州市桐庐县分水镇天和广场一带","startTime":"2018-06-18 07:56:34","stopDate":"2018-06-18 15:58:52","orgNo":"3340150","typeCode":"电网故障停限电","poweroffArea":"110kV天英变:分政T425线-物能春江1号公变后段","poweroffReason":"低压开关故障","powerTime":"2018-06-18 10:28:40","powerComm":"全部送电","subsNo":"","lineNo":"","tgNo":"","tgName":null,"infoStatus":"1","orgName":"国网浙江桐庐县供电公司","typeName":null,"infoStatusName":null,"dateDay":null,"orgNos":null,"nowTime":null,"countyName":null,"streetName":null,"villageName":null,"roadName":null,"communityName":null,"tranName":null,"sdLineName":null,"cityCode":"3340150","cityName":"国网浙江桐庐县供电公司","provinceCode":null,"stopTime":"2018-06-18 15:58:52","powerType":"全部","powerOffArea":"110kV天英变:分政T425线-物能春江1号公变后段","powerOffReason":"低压开关故障","powerOffId":"2018061831010011"},{"poweroffId":2018061831010002,"sgpoweroffId":null,"subsName":"","lineName":"10kV永联A694线","pubTranName":"永联村二联12#变,","scope":"浙江省-杭州市-萧山区-瓜沥镇永联行政村、永联村、二联村、二联行政村、永联村黄公楼3组38户、永联村、黄公楼村一带","startTime":"2018-06-18 03:35:43","stopDate":"2018-06-18 10:40:03","orgNo":"3340130","typeCode":"电网故障停限电","poweroffArea":"110kV白川变:永联A694线-永联村二联12#变台区低压开关","poweroffReason":"低压漏电保护器短路故障","powerTime":"2018-06-18 09:23:26","powerComm":"已送电","subsNo":"","lineNo":"","tgNo":"","tgName":null,"infoStatus":"1","orgName":"国网浙江杭州市萧山区供电有限公司","typeName":null,"infoStatusName":null,"dateDay":null,"orgNos":null,"nowTime":null,"countyName":null,"streetName":null,"villageName":null,"roadName":null,"communityName":null,"tranName":null,"sdLineName":null,"cityCode":"3340130","cityName":"国网浙江杭州市萧山区供电有限公司","provinceCode":null,"stopTime":"2018-06-18 10:40:03","powerType":"全部","powerOffArea":"110kV白川变:永联A694线-永联村二联12#变台区低压开关","powerOffReason":"低压漏电保护器短路故障","powerOffId":"2018061831010002"},{"poweroffId":2018061731010150,"sgpoweroffId":null,"subsName":"","lineName":"10kV分政T425线","pubTranName":"国际金都1号公变,国际金都3号公变,桐庐宁宇置业有限公司2#,物能金座1号公变,城西公寓1号公变,物能金座1#专变,桐庐县分水镇建设投资开发有限公司（6）,桐庐九龙贸易有限公司2#,桐庐汇丰文具有限公司,武盛村委1号公变,东门雅苑2号公变,分水镇政府,桐庐美泰鞋业有限公司,桐庐鑫宸婚庆服务有限公司,桐庐九龙贸易有限公司1号,嘉凯城2号专变变压器间隔配电变压器,物能金座2号公变,物能春江1号公变,桐庐富霞制笔厂,桐庐物能春江小区1号专变,城西公寓3号公变,县东长畈机埠,西关机埠,国际金都2号公变,东门雅苑3号公变,府前郡1号公变,桐庐县分水镇建设投资开发有限公司基建1#变,东门雅苑4号公变,恒佛基建变,东门雅苑1号公变,杭州鸿昌置业有限公司,桐庐晟凯制笔厂,","scope":"浙江省-杭州市-桐庐县-分水镇(能春江小区、东门雅苑东区、府前郡小区、农贸市场、城西公寓、天合广场、城西行政村,分江社区-东门路,桥东行政村-怀恩路,武盛行政村-东关自然村、武盛自然村、院士路,玉华社区-院士路);浙江省-杭州市-桐庐县-分水镇(分水镇人民政府,杭州鸿昌置业有限公司,嘉凯城城镇化建设发展(桐庐分水)有限公司,桐庐富霞制笔厂,,桐庐汇丰文具有限公司,桐庐九龙贸易有限公司,桐庐美泰鞋业有限公司,桐庐物能房地产开发有限公司,,桐庐县分水镇人民政府,桐庐卓悦物业管理有限公司,桐庐晟凯制笔厂,桐庐鑫宸婚庆服务有限公司);","startTime":"2018-06-17 23:19:17","stopDate":"2018-06-18 10:00:44","orgNo":"3340150","typeCode":"电网故障停限电","poweroffArea":"110kV天英变:分政T425线","poweroffReason":"低压开关故障","powerTime":"2018-06-18 07:59:34","powerComm":"已送电。","subsNo":"","lineNo":"","tgNo":"","tgName":null,"infoStatus":"1","orgName":"国网浙江桐庐县供电公司","typeName":null,"infoStatusName":null,"dateDay":null,"orgNos":null,"nowTime":null,"countyName":null,"streetName":null,"villageName":null,"roadName":null,"communityName":null,"tranName":null,"sdLineName":null,"cityCode":"3340150","cityName":"国网浙江桐庐县供电公司","provinceCode":null,"stopTime":"2018-06-18 10:00:44","powerType":"全部","powerOffArea":"110kV天英变:分政T425线","powerOffReason":"低压开关故障","powerOffId":"2018061731010150"},{"poweroffId":2018061731010140,"sgpoweroffId":null,"subsName":"","lineName":"10kV分政T425线","pubTranName":"桐庐富霞制笔厂,桐庐物能春江小区1号专变,城西公寓3号公变,县东长畈机埠,西关机埠,国际金都2号公变,东门雅苑3号公变,府前郡1号公变,桐庐县分水镇建设投资开发有限公司基建1#变,东门雅苑4号公变,恒佛基建变,东门雅苑1号公变,杭州鸿昌置业有限公司,桐庐晟凯制笔厂,国际金都1号公变,国际金都3号公变,桐庐宁宇置业有限公司2#,物能金座1号公变,城西公寓1号公变,物能金座1#专变,桐庐县分水镇建设投资开发有限公司（6）,桐庐九龙贸易有限公司2#,桐庐汇丰文具有限公司,武盛村委1号公变,东门雅苑2号公变,分水镇政府,桐庐美泰鞋业有限公司,桐庐鑫宸婚庆服务有限公司,桐庐九龙贸易有限公司1号,嘉凯城2号专变变压器间隔配电变压器,物能金座2号公变,物能春江1号公变,","scope":"浙江省-杭州市-桐庐县-分水镇(东门雅苑东区、府前郡小区、农贸市场、城西公寓、城西行政村,分江社区-东门路,桥东行政村-怀恩路,武盛行政村-东关自然村、武盛自然村、院士路,玉华社区-院士路、);浙江省-杭州市-桐庐县-分水镇(分水镇人民政府,杭州鸿昌置业有限公司,嘉凯城城镇化建设发展(桐庐分水)有限公司,桐庐富霞制笔厂,桐庐恒佛房地产开发有限公司,桐庐汇丰文具有限公司,桐庐九龙贸易有限公司,桐庐美泰鞋业有限公司,桐庐物能房地产开发有限公司,桐庐县分水镇建设投资开发有限公司,桐庐县分水镇人民政府,桐庐卓悦物业管理有限公司,桐庐晟凯制笔厂,桐庐鑫宸婚庆服务有限公司,西关长畈抽水,县东长畈抽水);","startTime":"2018-06-17 20:04:13","stopDate":"2018-06-18 02:04:13","orgNo":"3340150","typeCode":"电网故障停限电","poweroffArea":"110kV天英变:分政T425线","poweroffReason":"低压开故障故障","powerTime":"2018-06-17 23:23:20","powerComm":"已送电。","subsNo":"","lineNo":"","tgNo":"","tgName":null,"infoStatus":"1","orgName":"国网浙江桐庐县供电公司","typeName":null,"infoStatusName":null,"dateDay":null,"orgNos":null,"nowTime":null,"countyName":null,"streetName":null,"villageName":null,"roadName":null,"communityName":null,"tranName":null,"sdLineName":null,"cityCode":"3340150","cityName":"国网浙江桐庐县供电公司","provinceCode":null,"stopTime":"2018-06-18 02:04:13","powerType":"全部","powerOffArea":"110kV天英变:分政T425线","powerOffReason":"低压开故障故障","powerOffId":"2018061731010140"},{"poweroffId":2018061731010131,"sgpoweroffId":null,"subsName":"","lineName":"10kV分政T425线","pubTranName":"物能春江1号公变,","scope":"浙江省-杭州市-桐庐县-分水镇(物能春江小区、东门雅苑东区、府前郡小区、农贸市场、城西公寓、天合广场）","startTime":"2018-06-17 18:46:50","stopDate":"2018-06-17 23:59:24","orgNo":"3340150","typeCode":"电网故障停限电","poweroffArea":"110kV天英变:分政T425线-物能春江1号公变后段","poweroffReason":"低压开关故障","powerTime":"2018-06-17 23:22:05","powerComm":"已送电。","subsNo":"","lineNo":"","tgNo":"","tgName":null,"infoStatus":"1","orgName":"国网浙江桐庐县供电公司","typeName":null,"infoStatusName":null,"dateDay":null,"orgNos":null,"nowTime":null,"countyName":null,"streetName":null,"villageName":null,"roadName":null,"communityName":null,"tranName":null,"sdLineName":null,"cityCode":"3340150","cityName":"国网浙江桐庐县供电公司","provinceCode":null,"stopTime":"2018-06-17 23:59:24","powerType":"全部","powerOffArea":"110kV天英变:分政T425线-物能春江1号公变后段","powerOffReason":"低压开关故障","powerOffId":"2018061731010131"},{"poweroffId":2018061731010128,"sgpoweroffId":null,"subsName":"","lineName":"10kV金龙T237线","pubTranName":"家景美食街1号公变,","scope":"浙江省-杭州市-桐庐县-城南街道(下杭社区-春江路、瑶琳路);富春峰景小区对面，家景美食街一带","startTime":"2018-06-17 18:08:34","stopDate":"2018-06-18 00:08:34","orgNo":"3340150","typeCode":"电网故障停限电","poweroffArea":"35kV新区变:金龙T237线-家景美食街1号公变后段","poweroffReason":"低压开关故障","powerTime":"2018-06-17 19:42:25","powerComm":"已送电。","subsNo":"","lineNo":"","tgNo":"","tgName":null,"infoStatus":"1","orgName":"国网浙江桐庐县供电公司","typeName":null,"infoStatusName":null,"dateDay":null,"orgNos":null,"nowTime":null,"countyName":null,"streetName":null,"villageName":null,"roadName":null,"communityName":null,"tranName":null,"sdLineName":null,"cityCode":"3340150","cityName":"国网浙江桐庐县供电公司","provinceCode":null,"stopTime":"2018-06-18 00:08:34","powerType":"全部","powerOffArea":"35kV新区变:金龙T237线-家景美食街1号公变后段","powerOffReason":"低压开关故障","powerOffId":"2018061731010128"}],"pageModel":{"pageNow":1647,"totalCount":17789,"totalPage":1779,"tableRows":0,"pageCount":10,"beginCount":16460},"isExperi":"1"}