{"message":"","today":"2020-06-16","seleList":[{"poweroffId":2018061731010110,"sgpoweroffId":null,"subsName":"","lineName":"10kV勤丰D222线","pubTranName":"勤丰村白龙寺3#鸟墩坂公变,","scope":"浙江省杭州市富阳区银湖街道银湖村戴家坞一带","startTime":"2018-06-17 15:24:51","stopDate":"2018-06-17 19:00:00","orgNo":"3340170","typeCode":"电网故障停限电","poweroffArea":"110kV银湖变:勤丰D222线","poweroffReason":"低压配电设备故障","powerTime":"2018-06-17 15:40:43","powerComm":"已送电","subsNo":"","lineNo":"","tgNo":"","tgName":null,"infoStatus":"1","orgName":"国网浙江杭州市富阳区供电公司","typeName":null,"infoStatusName":null,"dateDay":null,"orgNos":null,"nowTime":null,"countyName":null,"streetName":null,"villageName":null,"roadName":null,"communityName":null,"tranName":null,"sdLineName":null,"cityCode":"3340170","cityName":"国网浙江杭州市富阳区供电公司","provinceCode":null,"stopTime":"2018-06-17 19:00:00","powerType":"全部","powerOffArea":"110kV银湖变:勤丰D222线","powerOffReason":"低压配电设备故障","powerOffId":"2018061731010110"},{"poweroffId":2018061731010107,"sgpoweroffId":null,"subsName":"","lineName":"10kV上湖D968线","pubTranName":"上林湖花园3#公变,","scope":"浙江省杭州市富阳区银湖街道上林湖花园、清源物业管理有限公司一带","startTime":"2018-06-17 15:19:33","stopDate":"2018-06-17 23:59:00","orgNo":"3340170","typeCode":"电网故障停限电","poweroffArea":"110kV九龙变:上湖D968线","poweroffReason":"低压分支开关跳闸","powerTime":"2018-06-17 20:48:47","powerComm":"工作已结束","subsNo":"","lineNo":"","tgNo":"","tgName":null,"infoStatus":"1","orgName":"国网浙江杭州市富阳区供电公司","typeName":null,"infoStatusName":null,"dateDay":null,"orgNos":null,"nowTime":null,"countyName":null,"streetName":null,"villageName":null,"roadName":null,"communityName":null,"tranName":null,"sdLineName":null,"cityCode":"3340170","cityName":"国网浙江杭州市富阳区供电公司","provinceCode":null,"stopTime":"2018-06-17 23:59:00","powerType":"全部","powerOffArea":"110kV九龙变:上湖D968线","powerOffReason":"低压分支开关跳闸","powerOffId":"2018061731010107"},{"poweroffId":2018061731010076,"sgpoweroffId":null,"subsName":"","lineName":"10kV上马Y143线","pubTranName":"万兴村万年台区,","scope":"浙江省-杭州市-建德市-大同镇 万兴行政村-万兴自然村一带用户","startTime":"2018-06-17 11:51:00","stopDate":"2018-06-17 17:58:25","orgNo":"3340180","typeCode":"电网故障停限电","poweroffArea":"35kV古城变:上马Y143线-万兴村万年台区后段","poweroffReason":"上马Y143线-万兴村万年台区 低压配电设备故障","powerTime":"2018-06-17 12:22:07","powerComm":"已送电","subsNo":"","lineNo":"","tgNo":"","tgName":null,"infoStatus":"1","orgName":"国网浙江建德市供电有限公司","typeName":null,"infoStatusName":null,"dateDay":null,"orgNos":null,"nowTime":null,"countyName":null,"streetName":null,"villageName":null,"roadName":null,"communityName":null,"tranName":null,"sdLineName":null,"cityCode":"3340180","cityName":"国网浙江建德市供电有限公司","provinceCode":null,"stopTime":"2018-06-17 17:58:25","powerType":"全部","powerOffArea":"35kV古城变:上马Y143线-万兴村万年台区后段","powerOffReason":"上马Y143线-万兴村万年台区 低压配电设备故障","powerOffId":"2018061731010076"},{"poweroffId":2018061731010067,"sgpoweroffId":null,"subsName":"","lineName":"10kV上马Y143线","pubTranName":"儒博村活眉地台区,","scope":"浙江省-杭州市-建德市-大同镇 儒博行政村一带用户","startTime":"2018-06-17 10:58:00","stopDate":"2018-06-17 17:05:04","orgNo":"3340180","typeCode":"电网故障停限电","poweroffArea":"35kV古城变:上马Y143线-儒博村活眉地台区后段","poweroffReason":"上马Y143线-儒博村活眉地台区 低压配电设备故障","powerTime":"2018-06-17 11:32:00","powerComm":"已送电","subsNo":"","lineNo":"","tgNo":"","tgName":null,"infoStatus":"1","orgName":"国网浙江建德市供电有限公司","typeName":null,"infoStatusName":null,"dateDay":null,"orgNos":null,"nowTime":null,"countyName":null,"streetName":null,"villageName":null,"roadName":null,"communityName":null,"tranName":null,"sdLineName":null,"cityCode":"3340180","cityName":"国网浙江建德市供电有限公司","provinceCode":null,"stopTime":"2018-06-17 17:05:04","powerType":"全部","powerOffArea":"35kV古城变:上马Y143线-儒博村活眉地台区后段","powerOffReason":"上马Y143线-儒博村活眉地台区 低压配电设备故障","powerOffId":"2018061731010067"},{"poweroffId":2018061731010065,"sgpoweroffId":null,"subsName":"","lineName":"10kV古城Y146线","pubTranName":"永盛村油沙塘台区,","scope":"浙江省-杭州市-建德市-大同镇 永盛行政村四村油沙塘一带用户","startTime":"2018-06-17 10:35:00","stopDate":"2018-06-17 16:47:36","orgNo":"3340180","typeCode":"电网故障停限电","poweroffArea":"35kV古城变:古城Y146线-永盛村油沙塘台区后段","poweroffReason":"古城Y146线-永盛村油沙塘台区 低压配电设备故障","powerTime":"2018-06-17 11:33:00","powerComm":"已送电","subsNo":"","lineNo":"","tgNo":"","tgName":null,"infoStatus":"1","orgName":"国网浙江建德市供电有限公司","typeName":null,"infoStatusName":null,"dateDay":null,"orgNos":null,"nowTime":null,"countyName":null,"streetName":null,"villageName":null,"roadName":null,"communityName":null,"tranName":null,"sdLineName":null,"cityCode":"3340180","cityName":"国网浙江建德市供电有限公司","provinceCode":null,"stopTime":"2018-06-17 16:47:36","powerType":"全部","powerOffArea":"35kV古城变:古城Y146线-永盛村油沙塘台区后段","powerOffReason":"古城Y146线-永盛村油沙塘台区 低压配电设备故障","powerOffId":"2018061731010065"},{"poweroffId":2018061731010042,"sgpoweroffId":null,"subsName":"","lineName":"10kV大店Y171线","pubTranName":"航头村石井山台区,","scope":"浙江省-杭州市-建德市-航头镇 航头行政村-石井山自然村一带用户","startTime":"2018-06-17 09:13:00","stopDate":"2018-06-17 15:19:34","orgNo":"3340180","typeCode":"电网故障停限电","poweroffArea":"110kV航头变:大店Y171线-航头村石井山台区后段","poweroffReason":"大店Y171线-航头村石井山台区 低压配电设备故障","powerTime":"2018-06-17 10:12:33","powerComm":"已送电","subsNo":"","lineNo":"","tgNo":"","tgName":null,"infoStatus":"1","orgName":"国网浙江建德市供电有限公司","typeName":null,"infoStatusName":null,"dateDay":null,"orgNos":null,"nowTime":null,"countyName":null,"streetName":null,"villageName":null,"roadName":null,"communityName":null,"tranName":null,"sdLineName":null,"cityCode":"3340180","cityName":"国网浙江建德市供电有限公司","provinceCode":null,"stopTime":"2018-06-17 15:19:34","powerType":"全部","powerOffArea":"110kV航头变:大店Y171线-航头村石井山台区后段","powerOffReason":"大店Y171线-航头村石井山台区 低压配电设备故障","powerOffId":"2018061731010042"},{"poweroffId":2018061731010041,"sgpoweroffId":null,"subsName":"","lineName":"10kV丰车H820线","pubTranName":"和睦全丰影院,","scope":"浙江省杭州市余杭区闲林街道何母桥村全丰影院,凯拓滤网公司,何母桥村光明桥自然村,三立五金厂,和睦邮电所,和睦移动公司,华盛机械厂一带","startTime":"2018-06-17 09:10:00","stopDate":"2018-06-17 17:00:00","orgNo":"3340140","typeCode":"电网故障停限电","poweroffArea":"110kV油车变:丰车H820线-全丰影院后段","poweroffReason":"丰车H820线-全丰影院后段低压线路设备故障","powerTime":"2018-06-17 16:00:00","powerComm":"已送电","subsNo":"","lineNo":"","tgNo":"","tgName":null,"infoStatus":"1","orgName":"国网浙江杭州市余杭区供电有限公司","typeName":null,"infoStatusName":null,"dateDay":null,"orgNos":null,"nowTime":null,"countyName":null,"streetName":null,"villageName":null,"roadName":null,"communityName":null,"tranName":null,"sdLineName":null,"cityCode":"3340140","cityName":"国网浙江杭州市余杭区供电有限公司","provinceCode":null,"stopTime":"2018-06-17 17:00:00","powerType":"全部","powerOffArea":"110kV油车变:丰车H820线-全丰影院后段","powerOffReason":"丰车H820线-全丰影院后段低压线路设备故障","powerOffId":"2018061731010041"},{"poweroffId":2018061631010299,"sgpoweroffId":null,"subsName":"","lineName":"10kV更园Y414线","pubTranName":"新蓬村小古洞台区,","scope":"浙江省-杭州市-建德市 新安江街道新蓬村一带用户。","startTime":"2018-06-16 21:25:00","stopDate":"2018-06-16 23:40:00","orgNo":"3340180","typeCode":"电网故障停限电","poweroffArea":"110kV更楼变:更园Y414线-新蓬村小古洞台区后段","poweroffReason":"更园Y414线-新蓬村小古洞台区低压配电设备故障","powerTime":"2018-06-16 22:04:00","powerComm":"已送电","subsNo":"","lineNo":"","tgNo":"","tgName":null,"infoStatus":"1","orgName":"国网浙江建德市供电有限公司","typeName":null,"infoStatusName":null,"dateDay":null,"orgNos":null,"nowTime":null,"countyName":null,"streetName":null,"villageName":null,"roadName":null,"communityName":null,"tranName":null,"sdLineName":null,"cityCode":"3340180","cityName":"国网浙江建德市供电有限公司","provinceCode":null,"stopTime":"2018-06-16 23:40:00","powerType":"全部","powerOffArea":"110kV更楼变:更园Y414线-新蓬村小古洞台区后段","powerOffReason":"更园Y414线-新蓬村小古洞台区低压配电设备故障","powerOffId":"2018061631010299"},{"poweroffId":2018061631010296,"sgpoweroffId":null,"subsName":"","lineName":"10kV紫荆H873线","pubTranName":"紫荆村上皇庙水库公变,紫荆村洪家公变,紫荆村车口小学公变,中泰武校,紫荆村沙坑公变,交工路桥二绕三标5#基建变,交工路桥二绕三标4#基建变,金红彩瓦,交工路桥二绕三标1#基建,紫荆村里塘坞公变,紫荆村外塘坞2号公变,紫荆村外塘坞公变,新泰村沙塘公变,紫荆村石盂寺公变,紫荆村花圃公变,紫荆村后东坞公变,交工路桥二绕三标3#基建变,新泰村杨澄弄西公变,新泰村杨澄弄公变,晶冉五金,紫荆村铜岭坑公变,新泰村岑家弄2号公变,交工路桥二绕三标8#基建变,交工路桥二绕三标6#基建,交工路桥二绕三标7#基建变,交工路桥二绕三标16#基建变,紫荆村沈家坞公变,紫荆村朝家公变,紫荆村横大公变,紫荆村丁家公变,汇雅腾鞋业,紫荆村寺前公变,双源塑业,紫荆村黄家坎公变,紫荆村竹园棚公变,紫荆村巴家桥公变,新泰村马岭脚公变,新泰村西坞岭公变,华易鞋业,紫荆村路家头公变,新泰村桐山坞公变,玉皇泉水,沥青拌和,广联复合(2),紫荆村小学公变,紫荆村钱家公变,新泰村扇子山公变,新泰村东溪桥公变,新泰村坞龙山公变,紫荆村方家弄公变,新泰村东溪村公变,新泰村新泰牧场公变,","scope":"浙江省-杭州市-余杭区-中泰街道新泰行政村-马岭脚自然村、新泰自然村、杨澄弄自然村,紫荆行政村-丁家头自然村、黄家坎自然村、里塘坞自然村、沙坑里自然村、铜岭桥自然村、外塘坞自然村、紫荆自然村;杭州广联复合材料有限公司,杭州华易鞋业有限公司,杭州汇雅腾鞋业有限公司,杭州吉龙盛饮品有限公司,杭州晶冉五金制造有限公司,杭州市余杭区中泰武术学校,杭州双源塑业有限公司,杭州同舟沥青有限公司余杭分公司,浙江欧耐斯屋面瓦业有限公司一带","startTime":"2018-06-16 21:28:00","stopDate":"2018-06-16 23:50:00","orgNo":"3340140","typeCode":"电网故障停限电","poweroffArea":"110kV中泰变紫荆H873线新泰变","poweroffReason":"紫荆H873线新泰变低压线路断线故障","powerTime":"2018-06-16 22:30:00","powerComm":"已送电","subsNo":"","lineNo":"","tgNo":"","tgName":null,"infoStatus":"1","orgName":"国网浙江杭州市余杭区供电有限公司","typeName":null,"infoStatusName":null,"dateDay":null,"orgNos":null,"nowTime":null,"countyName":null,"streetName":null,"villageName":null,"roadName":null,"communityName":null,"tranName":null,"sdLineName":null,"cityCode":"3340140","cityName":"国网浙江杭州市余杭区供电有限公司","provinceCode":null,"stopTime":"2018-06-16 23:50:00","powerType":"全部","powerOffArea":"110kV中泰变紫荆H873线新泰变","powerOffReason":"紫荆H873线新泰变低压线路断线故障","powerOffId":"2018061631010296"},{"poweroffId":2018061631010294,"sgpoweroffId":null,"subsName":"","lineName":"10kV五塘8950线","pubTranName":"银湖,自水,调配(1),地铁(11),","scope":"浙江省-杭州市-下城区-文晖街道(打铁关社区-打铁关路);浙江省-杭州市-下城区(杭州市地铁集团有限责任公司,杭州市水务控股集团有限公司,浙江省城乡建设开发有限公司物资分公司);","startTime":"2018-06-16 20:22:17","stopDate":"2018-06-16 23:50:38","orgNo":"3340101","typeCode":"电网故障停限电","poweroffArea":"110kV东新变:五塘8950线-自水分线后段","poweroffReason":"高压开关跳闸","powerTime":"2018-06-16 22:14:38","powerComm":"已送电","subsNo":"","lineNo":"","tgNo":"","tgName":null,"infoStatus":"1","orgName":"浙江杭州电力客户服务中心","typeName":null,"infoStatusName":null,"dateDay":null,"orgNos":null,"nowTime":null,"countyName":null,"streetName":null,"villageName":null,"roadName":null,"communityName":null,"tranName":null,"sdLineName":null,"cityCode":"3340101","cityName":"浙江杭州电力客户服务中心","provinceCode":null,"stopTime":"2018-06-16 23:50:38","powerType":"全部","powerOffArea":"110kV东新变:五塘8950线-自水分线后段","powerOffReason":"高压开关跳闸","powerOffId":"2018061631010294"}],"pageModel":{"pageNow":1648,"totalCount":17789,"totalPage":1779,"tableRows":0,"pageCount":10,"beginCount":16470},"isExperi":"1"}