{"message":"","today":"2020-06-16","seleList":[{"poweroffId":2018061531010700,"sgpoweroffId":null,"subsName":"","lineName":"10kV青莲G144线","pubTranName":"杭州恒基油墨涂料有限公司,杭州益民化工有限公司,杭州永升耐火材料有限公司,泰山村南扒山一组公变,杭州华良食品有限责任公司,泰山村地田村东公变,泰山村地田村公变,塘栖镇人民政府,超山柴家坞村庞皮儿墩,","scope":"浙江省杭州市余杭区塘栖镇：泰山村南扒山一组、泰山村地田村、杭州余杭塘栖城建发展有限公司、杭州恒基油墨涂料有限公司、杭州益民化工有限公司、杭州美超塑胶制品有限公司、杭州谊川涂装设备有限公司、超山柴家坞村庞皮儿墩一带","startTime":"2018-06-29 08:20:00","stopDate":"2018-06-29 17:00:00","orgNo":"3340140","typeCode":"计划停电","poweroffArea":"35kV南山变:青莲G144线地田村分线","poweroffReason":"青莲G144线地田村分线工作：新布南扒山1组2号400KVA配变、计量箱各一台；新立15米电杆2基，新出低压出线电缆2根及低压线路割接工作；8#杆、13#杆令克开关更换为真空开关","powerTime":"2018-06-29 16:53:45","powerComm":"已送电","subsNo":"","lineNo":"","tgNo":"","tgName":null,"infoStatus":"1","orgName":"国网浙江杭州市余杭区供电有限公司","typeName":null,"infoStatusName":null,"dateDay":null,"orgNos":null,"nowTime":null,"countyName":null,"streetName":null,"villageName":null,"roadName":null,"communityName":null,"tranName":null,"sdLineName":null,"cityCode":"3340140","cityName":"国网浙江杭州市余杭区供电有限公司","provinceCode":null,"stopTime":"2018-06-29 17:00:00","powerType":"全部","powerOffArea":"35kV南山变:青莲G144线地田村分线","powerOffReason":"青莲G144线地田村分线工作：新布南扒山1组2号400KVA配变、计量箱各一台；新立15米电杆2基，新出低压出线电缆2根及低压线路割接工作；8#杆、13#杆令克开关更换为真空开关","powerOffId":"2018061531010700"},{"poweroffId":2018061531010699,"sgpoweroffId":null,"subsName":"","lineName":"10kV宏畔G216线","pubTranName":"栖里东苑II段2#专变,","scope":"浙江省杭州市余杭区塘栖镇：杭州余杭运河综合保护开发建设有限公司（栖里东苑）一带","startTime":"2018-06-30 08:20:00","stopDate":"2018-06-30 17:00:00","orgNo":"3340140","typeCode":"计划停电","poweroffArea":"110kV广济变:宏畔G216线-水榭环网站进线开关","poweroffReason":"宏畔G216线水榭环网站分线工作：水榭环网站II段开关柜调换消缺工作","powerTime":"2018-06-30 16:05:41","powerComm":"已送电","subsNo":"","lineNo":"","tgNo":"","tgName":null,"infoStatus":"1","orgName":"国网浙江杭州市余杭区供电有限公司","typeName":null,"infoStatusName":null,"dateDay":null,"orgNos":null,"nowTime":null,"countyName":null,"streetName":null,"villageName":null,"roadName":null,"communityName":null,"tranName":null,"sdLineName":null,"cityCode":"3340140","cityName":"国网浙江杭州市余杭区供电有限公司","provinceCode":null,"stopTime":"2018-06-30 17:00:00","powerType":"全部","powerOffArea":"110kV广济变:宏畔G216线-水榭环网站进线开关","powerOffReason":"宏畔G216线水榭环网站分线工作：水榭环网站II段开关柜调换消缺工作","powerOffId":"2018061531010699"},{"poweroffId":2018061531010697,"sgpoweroffId":null,"subsName":"","lineName":"10kV西庄G238线","pubTranName":"鸭兰村外八年变,鸭兰村郭家塘2号公变,鸭兰村赵家塘变,鸭兰村新教堂北变,鸭兰村基督教堂,鸭兰村郭家塘变,鸭兰赵家门变,鸭兰村老教堂变,千亩墩机埠,硕惠塑业变压器,鸭兰村支部变,鸭兰村洪字圩西公变,鸭兰村平径西变,三家村杨家塘配变,金波塑胶,","scope":"浙江省杭州市余杭区崇贤街道：鸭兰赵家门、鸭兰村郭家塘、鸭兰村外八年、鸭兰村支部、鸭兰村赵家塘、鸭兰村洪字圩西、鸭兰村老教堂、鸭兰村新教堂北、鸭兰村平径西、三家村杨家塘、杭州市余杭区崇贤鸭兰村基督教堂、杭州金波塑胶有限公司、杭州硕惠塑业有限公司、崇贤镇平泾村一带","startTime":"2018-06-30 08:20:00","stopDate":"2018-06-30 17:00:00","orgNo":"3340140","typeCode":"计划停电","poweroffArea":"110kV宏畔变:西庄G238线赵家塘分线","poweroffReason":"西庄G238线赵家塘分线工作：新布新教堂2号、老教堂2号、平径西2号400KVA配变、计量箱各一台等工作；","powerTime":"2018-06-30 15:49:22","powerComm":"已送电","subsNo":"","lineNo":"","tgNo":"","tgName":null,"infoStatus":"1","orgName":"国网浙江杭州市余杭区供电有限公司","typeName":null,"infoStatusName":null,"dateDay":null,"orgNos":null,"nowTime":null,"countyName":null,"streetName":null,"villageName":null,"roadName":null,"communityName":null,"tranName":null,"sdLineName":null,"cityCode":"3340140","cityName":"国网浙江杭州市余杭区供电有限公司","provinceCode":null,"stopTime":"2018-06-30 17:00:00","powerType":"全部","powerOffArea":"110kV宏畔变:西庄G238线赵家塘分线","powerOffReason":"西庄G238线赵家塘分线工作：新布新教堂2号、老教堂2号、平径西2号400KVA配变、计量箱各一台等工作；","powerOffId":"2018061531010697"},{"poweroffId":2018061531010695,"sgpoweroffId":null,"subsName":"","lineName":"10kV浙皖V480线","pubTranName":"竹林新村公变,竹林新村3#公变,","scope":"浙江省杭州市临安市锦北街道竹林新村一带","startTime":"2018-06-29 07:30:00","stopDate":"2018-06-29 17:40:00","orgNo":"3340160","typeCode":"计划停电","poweroffArea":"110kV平山变:浙皖480线5#杆竹林新村3#公变分线令克后段；浙皖480线保锦路分线4#杆竹林新村公变令克后段","poweroffReason":"临安锦城竹林新村公变等台区0.4千伏线路改造工程：1、浙皖480线竹林新村3#公变分线竹林新村3#公变低压出线电缆调换，接户线制作等工作2、浙皖480线竹林新村公变低压出线电缆调换、接户线制作等工作。（低压同杆）","powerTime":"2018-06-29 16:39:19","powerComm":"已送电","subsNo":"","lineNo":"","tgNo":"","tgName":null,"infoStatus":"1","orgName":"国网浙江临安市供电公司","typeName":null,"infoStatusName":null,"dateDay":null,"orgNos":null,"nowTime":null,"countyName":null,"streetName":null,"villageName":null,"roadName":null,"communityName":null,"tranName":null,"sdLineName":null,"cityCode":"3340160","cityName":"国网浙江临安市供电公司","provinceCode":null,"stopTime":"2018-06-29 17:40:00","powerType":"全部","powerOffArea":"110kV平山变:浙皖480线5#杆竹林新村3#公变分线令克后段；浙皖480线保锦路分线4#杆竹林新村公变令克后段","powerOffReason":"临安锦城竹林新村公变等台区0.4千伏线路改造工程：1、浙皖480线竹林新村3#公变分线竹林新村3#公变低压出线电缆调换，接户线制作等工作2、浙皖480线竹林新村公变低压出线电缆调换、接户线制作等工作。（低压同杆）","powerOffId":"2018061531010695"},{"poweroffId":2018061531010609,"sgpoweroffId":null,"subsName":"","lineName":"10kV环山V106线","pubTranName":"食品厂公变,","scope":"浙江省杭州市临安市锦城街道小商品市场对面一带","startTime":"2018-06-28 13:00:00","stopDate":"2018-06-28 17:30:00","orgNo":"3340160","typeCode":"计划停电","poweroffArea":"110kV临安变:环山V106线食品厂公变低压总闸刀后段","poweroffReason":"环山V106线小商品市场分线：（02项）环山V106线17#杆小商品市场分线开关调换。","powerTime":"2018-06-28 17:20:10","powerComm":"已送电","subsNo":"","lineNo":"","tgNo":"","tgName":null,"infoStatus":"1","orgName":"国网浙江临安市供电公司","typeName":null,"infoStatusName":null,"dateDay":null,"orgNos":null,"nowTime":null,"countyName":null,"streetName":null,"villageName":null,"roadName":null,"communityName":null,"tranName":null,"sdLineName":null,"cityCode":"3340160","cityName":"国网浙江临安市供电公司","provinceCode":null,"stopTime":"2018-06-28 17:30:00","powerType":"全部","powerOffArea":"110kV临安变:环山V106线食品厂公变低压总闸刀后段","powerOffReason":"环山V106线小商品市场分线：（02项）环山V106线17#杆小商品市场分线开关调换。","powerOffId":"2018061531010609"},{"poweroffId":2018061531010608,"sgpoweroffId":null,"subsName":"","lineName":"10kV环山V106线","pubTranName":"浙江星普五星电器有限公司,小商品市场公变,10kV小商品市场1#公变,","scope":"浙江省杭州市临安市锦城街道浙江星普五星电器有限公司,小商品市场一带","startTime":"2018-06-28 13:00:00","stopDate":"2018-06-28 17:30:00","orgNo":"3340160","typeCode":"计划停电","poweroffArea":"110kV临安变:环山V106线17#杆小商品市场分线开关后段","poweroffReason":"环山V106线小商品市场分线：（02项）环山V106线17#杆小商品市场分线开关调换。","powerTime":"2018-06-28 17:20:42","powerComm":"已送电","subsNo":"","lineNo":"","tgNo":"","tgName":null,"infoStatus":"1","orgName":"国网浙江临安市供电公司","typeName":null,"infoStatusName":null,"dateDay":null,"orgNos":null,"nowTime":null,"countyName":null,"streetName":null,"villageName":null,"roadName":null,"communityName":null,"tranName":null,"sdLineName":null,"cityCode":"3340160","cityName":"国网浙江临安市供电公司","provinceCode":null,"stopTime":"2018-06-28 17:30:00","powerType":"全部","powerOffArea":"110kV临安变:环山V106线17#杆小商品市场分线开关后段","powerOffReason":"环山V106线小商品市场分线：（02项）环山V106线17#杆小商品市场分线开关调换。","powerOffId":"2018061531010608"},{"poweroffId":2018061531010606,"sgpoweroffId":null,"subsName":"","lineName":"10kV环山V106线","pubTranName":"木梳弄1＃公变,","scope":"浙江省杭州市临安市锦城街道木梳弄1＃附近一带","startTime":"2018-06-28 07:30:00","stopDate":"2018-06-28 12:30:00","orgNo":"3340160","typeCode":"计划停电","poweroffArea":"110kV临安变:环山V106线木梳弄1＃台区低压总闸刀后段","poweroffReason":"环山V106线机关管理局分支线：（02项）环山V106线12#杆机关管理局分线开关调换。","powerTime":"2018-06-28 12:19:00","powerComm":"已送电","subsNo":"","lineNo":"","tgNo":"","tgName":null,"infoStatus":"1","orgName":"国网浙江临安市供电公司","typeName":null,"infoStatusName":null,"dateDay":null,"orgNos":null,"nowTime":null,"countyName":null,"streetName":null,"villageName":null,"roadName":null,"communityName":null,"tranName":null,"sdLineName":null,"cityCode":"3340160","cityName":"国网浙江临安市供电公司","provinceCode":null,"stopTime":"2018-06-28 12:30:00","powerType":"全部","powerOffArea":"110kV临安变:环山V106线木梳弄1＃台区低压总闸刀后段","powerOffReason":"环山V106线机关管理局分支线：（02项）环山V106线12#杆机关管理局分线开关调换。","powerOffId":"2018061531010606"},{"poweroffId":2018061531010603,"sgpoweroffId":null,"subsName":"","lineName":"10kV环山V106线","pubTranName":"临安市市级机关事务管理局1,","scope":"浙江省杭州市临安市锦城街道临安市市级机关事务管理局一带","startTime":"2018-06-28 07:30:00","stopDate":"2018-06-28 12:30:00","orgNo":"3340160","typeCode":"计划停电","poweroffArea":"110kV临安变:环山V106线12#杆机关管理局分支线开关后段","poweroffReason":"环山V106线机关管理局分支线：（02项）环山V106线12#杆机关管理局分线开关调换。","powerTime":"2018-06-28 12:20:51","powerComm":"已送电。","subsNo":"","lineNo":"","tgNo":"","tgName":null,"infoStatus":"1","orgName":"国网浙江临安市供电公司","typeName":null,"infoStatusName":null,"dateDay":null,"orgNos":null,"nowTime":null,"countyName":null,"streetName":null,"villageName":null,"roadName":null,"communityName":null,"tranName":null,"sdLineName":null,"cityCode":"3340160","cityName":"国网浙江临安市供电公司","provinceCode":null,"stopTime":"2018-06-28 12:30:00","powerType":"全部","powerOffArea":"110kV临安变:环山V106线12#杆机关管理局分支线开关后段","powerOffReason":"环山V106线机关管理局分支线：（02项）环山V106线12#杆机关管理局分线开关调换。","powerOffId":"2018061531010603"},{"poweroffId":2018061531010516,"sgpoweroffId":null,"subsName":"","lineName":"10kV阳山T212线","pubTranName":"濮宅1号公变,濮宅2号公变,栅边1号公变,","scope":"浙江省-杭州市-桐庐县-横村镇(方埠行政村-方埠自然村);","startTime":"2018-06-29 06:00:00","stopDate":"2018-06-29 18:00:00","orgNo":"3340150","typeCode":"计划停电","poweroffArea":"110kV方埠变:阳山T212线-上店F1398开关后段","poweroffReason":"栅边1号公变配变增容（200kVA增至400kVA)、新增400kVA配变1台、导线架设及割接工作","powerTime":"2018-06-29 17:46:52","powerComm":"已送电","subsNo":"","lineNo":"","tgNo":"","tgName":null,"infoStatus":"1","orgName":"国网浙江桐庐县供电公司","typeName":null,"infoStatusName":null,"dateDay":null,"orgNos":null,"nowTime":null,"countyName":null,"streetName":null,"villageName":null,"roadName":null,"communityName":null,"tranName":null,"sdLineName":null,"cityCode":"3340150","cityName":"国网浙江桐庐县供电公司","provinceCode":null,"stopTime":"2018-06-29 18:00:00","powerType":"全部","powerOffArea":"110kV方埠变:阳山T212线-上店F1398开关后段","powerOffReason":"栅边1号公变配变增容（200kVA增至400kVA)、新增400kVA配变1台、导线架设及割接工作","powerOffId":"2018061531010516"},{"poweroffId":2018061531010514,"sgpoweroffId":null,"subsName":"","lineName":"10kV浪石T205线","pubTranName":"陈家山1号公变,钱傅家1号公变,大青山1号公变,乌善岭1号公变,凤联喻家1号公变,华樟坞1号公变,变压器,华凤村大排山脚1号公变,凤联仓里1号公变,凤联下张1号公变,船形岭1号公变,桐庐华丰五金机械厂,里村1号公变,华凤村落马桥1号公变,喻镜晶,淡竹山1号公变,宋家1号公变,","scope":"浙江省-杭州市-桐庐县-横村镇(城东行政村-双湖自然村,方埠行政村-方埠自然村,凤联行政村-陈家山自然村、船形岭自然村、里村自然村、宋家自然村、下张自然村,华凤行政村-淡竹山自然村、凤山自然村、华樟坞自然村);浙江省-杭州市-桐庐县-横村镇(杭州黄金峡谷生态科技有限公司,桐庐华丰五金机械厂,喻镜晶);","startTime":"2018-06-28 07:00:00","stopDate":"2018-06-28 18:00:00","orgNo":"3340150","typeCode":"计划停电","poweroffArea":"110kV方埠变:浪石T205线-凤联F1180开关后段","poweroffReason":"凤联分线80#杆至133#杆线路移位及导线调换工作","powerTime":"2018-06-28 17:55:09","powerComm":"已送电。","subsNo":"","lineNo":"","tgNo":"","tgName":null,"infoStatus":"1","orgName":"国网浙江桐庐县供电公司","typeName":null,"infoStatusName":null,"dateDay":null,"orgNos":null,"nowTime":null,"countyName":null,"streetName":null,"villageName":null,"roadName":null,"communityName":null,"tranName":null,"sdLineName":null,"cityCode":"3340150","cityName":"国网浙江桐庐县供电公司","provinceCode":null,"stopTime":"2018-06-28 18:00:00","powerType":"全部","powerOffArea":"110kV方埠变:浪石T205线-凤联F1180开关后段","powerOffReason":"凤联分线80#杆至133#杆线路移位及导线调换工作","powerOffId":"2018061531010514"}],"pageModel":{"pageNow":1651,"totalCount":17789,"totalPage":1779,"tableRows":0,"pageCount":10,"beginCount":16500},"isExperi":"1"}