{"message":"","today":"2020-06-15","seleList":[{"poweroffId":2020061131020124,"sgpoweroffId":null,"subsName":"","lineName":"10kV更园Y414线","pubTranName":"新蓬村大蓬新村台区,","scope":"浙江省-杭州市-建德市-新安江街道-新蓬行政村-大蓬自然村","startTime":"2020-06-11 09:15:00","stopDate":"2020-06-11 11:20:00","orgNo":"3340180","typeCode":"电网故障停限电","poweroffArea":"110kV更楼变:更园Y414线-新蓬村大蓬新村台区后段","poweroffReason":"(低压停电信息)低压开关跳闸","powerTime":"2020-06-11 10:31:09","powerComm":"已送电","subsNo":"","lineNo":"","tgNo":"","tgName":null,"infoStatus":"1","orgName":"国网浙江建德市供电有限公司","typeName":null,"infoStatusName":null,"dateDay":null,"orgNos":null,"nowTime":null,"countyName":null,"streetName":null,"villageName":null,"roadName":null,"communityName":null,"tranName":null,"sdLineName":null,"cityCode":"3340180","cityName":"国网浙江建德市供电有限公司","provinceCode":null,"stopTime":"2020-06-11 11:20:00","powerType":"全部","powerOffArea":"110kV更楼变:更园Y414线-新蓬村大蓬新村台区后段","powerOffReason":"(低压停电信息)低压开关跳闸","powerOffId":"2020061131020124"},{"poweroffId":2020061131020119,"sgpoweroffId":null,"subsName":"","lineName":"10kV塘下C266线","pubTranName":"来苏周村10#变,万利电镀金制订厂,来苏周村7#变,杭州润叠纺织有限公司1#,浙江环强再生资源开发集团有限公司,来苏周村5#变,浙江赛富特机电设备有限公司2#,润洲纺织,浙江赛富特机电设备有限公司1#,来苏周村4#变,来苏周村9#变,来苏周村6#变,润洲纺织2#,来苏周村3#变,杭州润叠纺织有限公司2#,","scope":"浙江省-杭州市-萧山区-所前镇-来苏周行政村(来苏周自然村,大沿自然村,埠头周自然村,下畈金自然村,下畈王自然村);所前镇(杭州润叠纺织有限公司,杭州润洲纺织有限公司,浙江环强再生资源开发集团有限公司,杭州赛富特设备有限公司,杭州萧山万利电镀五金制钉厂)","startTime":"2020-06-11 09:16:00","stopDate":"2020-06-11 12:16:00","orgNo":"3340130","typeCode":"电网故障停限电","poweroffArea":"110kV所前变:塘下C266线塘下C2661开关后段","poweroffReason":"高压开关跳闸","powerTime":"2020-06-11 12:02:41","powerComm":"已送电","subsNo":"","lineNo":"","tgNo":"","tgName":null,"infoStatus":"1","orgName":"国网浙江杭州市萧山区供电有限公司","typeName":null,"infoStatusName":null,"dateDay":null,"orgNos":null,"nowTime":null,"countyName":null,"streetName":null,"villageName":null,"roadName":null,"communityName":null,"tranName":null,"sdLineName":null,"cityCode":"3340130","cityName":"国网浙江杭州市萧山区供电有限公司","provinceCode":null,"stopTime":"2020-06-11 12:16:00","powerType":"全部","powerOffArea":"110kV所前变:塘下C266线塘下C2661开关后段","powerOffReason":"高压开关跳闸","powerOffId":"2020061131020119"},{"poweroffId":2020061131020118,"sgpoweroffId":null,"subsName":"","lineName":"10kV马啸V262线","pubTranName":"浙基田大地里,浙川村浙基田,浙川村庙堂里,","scope":"浙江省-杭州市-临安市-清凉峰镇-浙川行政村(浙基地自然村,银龙坞自然村)","startTime":"2020-06-11 09:16:00","stopDate":"2020-06-11 11:16:00","orgNo":"3340160","typeCode":"电网故障停限电","poweroffArea":"35kV颊口变:马啸V262线浙川分线令克后段","poweroffReason":"高压开关跳闸","powerTime":"2020-06-11 10:53:34","powerComm":"已送电","subsNo":"","lineNo":"","tgNo":"","tgName":null,"infoStatus":"1","orgName":"国网浙江临安市供电公司","typeName":null,"infoStatusName":null,"dateDay":null,"orgNos":null,"nowTime":null,"countyName":null,"streetName":null,"villageName":null,"roadName":null,"communityName":null,"tranName":null,"sdLineName":null,"cityCode":"3340160","cityName":"国网浙江临安市供电公司","provinceCode":null,"stopTime":"2020-06-11 11:16:00","powerType":"全部","powerOffArea":"35kV颊口变:马啸V262线浙川分线令克后段","powerOffReason":"高压开关跳闸","powerOffId":"2020061131020118"},{"poweroffId":2020061131020096,"sgpoweroffId":null,"subsName":"","lineName":"10kV塘下C266线","pubTranName":"来苏周村10#变,润洲纺织,来苏周村5#变,来苏周村9#变,来苏周村6#变,浙江环强再生资源开发集团有限公司,来苏周村4#变,浙江赛富特机电设备有限公司1#,杭州润叠纺织有限公司1#,来苏周村3#变,润洲纺织2#,万利电镀金制订厂,来苏周村7#变,杭州润叠纺织有限公司2#,浙江赛富特机电设备有限公司2#,","scope":"浙江省-杭州市-萧山区-所前镇-来苏周行政村(来苏周自然村,大沿自然村,埠头周自然村,下畈金自然村,下畈王自然村);所前镇-来苏周行政村(杭州润叠纺织有限公司,杭州润洲纺织有限公司,浙江环强再生资源开发集团有限公司,杭州赛富特设备有限公司,杭州萧山万利电镀五金制钉厂)一带","startTime":"2020-06-11 08:57:00","stopDate":"2020-06-11 13:30:00","orgNo":"3340130","typeCode":"电网故障停限电","poweroffArea":"110kV所前变:塘下C266线","poweroffReason":"外力破坏引起塘下C266线高压柱上断路器跳闸 原停电结束时间为2020-06-11 14:57:00,为减少客户停电时间,加快工作进度,提前送电,现变更停电结束时间为2020-06-11 13:30:00","powerTime":"2020-06-11 12:59:13","powerComm":"已送电","subsNo":"","lineNo":"","tgNo":"","tgName":null,"infoStatus":"1","orgName":"国网浙江杭州市萧山区供电有限公司","typeName":null,"infoStatusName":null,"dateDay":null,"orgNos":null,"nowTime":null,"countyName":null,"streetName":null,"villageName":null,"roadName":null,"communityName":null,"tranName":null,"sdLineName":null,"cityCode":"3340130","cityName":"国网浙江杭州市萧山区供电有限公司","provinceCode":null,"stopTime":"2020-06-11 13:30:00","powerType":"全部","powerOffArea":"110kV所前变:塘下C266线","powerOffReason":"外力破坏引起塘下C266线高压柱上断路器跳闸 原停电结束时间为2020-06-11 14:57:00,为减少客户停电时间,加快工作进度,提前送电,现变更停电结束时间为2020-06-11 13:30:00","powerOffId":"2020061131020096"},{"poweroffId":2020061131020051,"sgpoweroffId":null,"subsName":"","lineName":"10kV上山Y763线","pubTranName":"新程村松明山台区,","scope":"浙江省-杭州市-建德市-乾潭镇-新程行政村-程头自然村","startTime":"2020-06-11 08:00:00","stopDate":"2020-06-11 13:00:00","orgNo":"3340180","typeCode":"电网故障停限电","poweroffArea":"110kV乾潭变:上山Y763线新程村松明山台区配变","poweroffReason":"高压开关跳闸","powerTime":"2020-06-11 12:26:20","powerComm":"已送电","subsNo":"","lineNo":"","tgNo":"","tgName":null,"infoStatus":"1","orgName":"国网浙江建德市供电有限公司","typeName":null,"infoStatusName":null,"dateDay":null,"orgNos":null,"nowTime":null,"countyName":null,"streetName":null,"villageName":null,"roadName":null,"communityName":null,"tranName":null,"sdLineName":null,"cityCode":"3340180","cityName":"国网浙江建德市供电有限公司","provinceCode":null,"stopTime":"2020-06-11 13:00:00","powerType":"全部","powerOffArea":"110kV乾潭变:上山Y763线新程村松明山台区配变","powerOffReason":"高压开关跳闸","powerOffId":"2020061131020051"},{"poweroffId":2020061131020050,"sgpoweroffId":null,"subsName":"","lineName":"10kV西安G634线","pubTranName":"理想康城西安区块6#基建变,理想康城西安区块1#基建变,理想康城西安区块4#基建变,理想四维地产集团有限公司,理想康城西安区块3#基建变,理想四维地产集团有限公司61208258941#变压器,理想康城西安区块5#基建变,理想康城西安区块2#基建变,","scope":"浙江省-杭州市-余杭区-南苑街道(理想四维地产集团有限公司,)","startTime":"2020-06-11 07:58:00","stopDate":"2020-06-11 09:58:00","orgNo":"3340140","typeCode":"电网故障停限电","poweroffArea":"110kV艺尚变:西安G634线理想四维地产基建开关后段","poweroffReason":"高压开关跳闸","powerTime":"2020-06-11 09:08:03","powerComm":"已送电","subsNo":"","lineNo":"","tgNo":"","tgName":null,"infoStatus":"1","orgName":"国网浙江杭州市余杭区供电有限公司","typeName":null,"infoStatusName":null,"dateDay":null,"orgNos":null,"nowTime":null,"countyName":null,"streetName":null,"villageName":null,"roadName":null,"communityName":null,"tranName":null,"sdLineName":null,"cityCode":"3340140","cityName":"国网浙江杭州市余杭区供电有限公司","provinceCode":null,"stopTime":"2020-06-11 09:58:00","powerType":"全部","powerOffArea":"110kV艺尚变:西安G634线理想四维地产基建开关后段","powerOffReason":"高压开关跳闸","powerOffId":"2020061131020050"},{"poweroffId":2020061131020046,"sgpoweroffId":null,"subsName":"","lineName":"10kV前源Y322线","pubTranName":"羊峨村外权坞台区,","scope":"浙江省-杭州市-建德市-三都镇-羊峨行政村-外权坞自然村","startTime":"2020-06-11 07:47:00","stopDate":"2020-06-11 12:30:00","orgNo":"3340180","typeCode":"电网故障停限电","poweroffArea":"35kV三都变:前源Y322线羊峨村外权坞台区配变","poweroffReason":"高压开关跳闸","powerTime":"2020-06-11 11:40:05","powerComm":"已送电","subsNo":"","lineNo":"","tgNo":"","tgName":null,"infoStatus":"1","orgName":"国网浙江建德市供电有限公司","typeName":null,"infoStatusName":null,"dateDay":null,"orgNos":null,"nowTime":null,"countyName":null,"streetName":null,"villageName":null,"roadName":null,"communityName":null,"tranName":null,"sdLineName":null,"cityCode":"3340180","cityName":"国网浙江建德市供电有限公司","provinceCode":null,"stopTime":"2020-06-11 12:30:00","powerType":"全部","powerOffArea":"35kV三都变:前源Y322线羊峨村外权坞台区配变","powerOffReason":"高压开关跳闸","powerOffId":"2020061131020046"},{"poweroffId":2020061131020043,"sgpoweroffId":null,"subsName":"","lineName":"10kV东辉T373线","pubTranName":"六坑外1号公变,","scope":"浙江省-杭州市-桐庐县-百江镇-小京行政村-六坑外自然村","startTime":"2020-06-11 07:36:29","stopDate":"2020-06-11 11:36:29","orgNo":"3340150","typeCode":"电网故障停限电","poweroffArea":"110kV百江变:东辉T373线-六坑外1号公变后段","poweroffReason":"(低压停电信息)低压开关跳闸 原停电结束时间为2020-06-11 09:36:29,因现场故障情况复杂,现变更停电结束时间为2020-06-11 11:36:29","powerTime":"2020-06-11 11:23:08","powerComm":"已送电","subsNo":"","lineNo":"","tgNo":"","tgName":null,"infoStatus":"1","orgName":"国网浙江桐庐县供电公司","typeName":null,"infoStatusName":null,"dateDay":null,"orgNos":null,"nowTime":null,"countyName":null,"streetName":null,"villageName":null,"roadName":null,"communityName":null,"tranName":null,"sdLineName":null,"cityCode":"3340150","cityName":"国网浙江桐庐县供电公司","provinceCode":null,"stopTime":"2020-06-11 11:36:29","powerType":"全部","powerOffArea":"110kV百江变:东辉T373线-六坑外1号公变后段","powerOffReason":"(低压停电信息)低压开关跳闸 原停电结束时间为2020-06-11 09:36:29,因现场故障情况复杂,现变更停电结束时间为2020-06-11 11:36:29","powerOffId":"2020061131020043"},{"poweroffId":2020061131020042,"sgpoweroffId":null,"subsName":"","lineName":"10kV里叶Y348线","pubTranName":"陈店村陈店台区,","scope":"浙江省-杭州市-建德市-大慈岩镇-陈店行政村(后角厅自然村,陈店自然村)","startTime":"2020-06-11 07:23:00","stopDate":"2020-06-11 09:33:06","orgNo":"3340180","typeCode":"电网故障停限电","poweroffArea":"110kV慈岩变:里叶Y348线-陈店村陈店台区后段","poweroffReason":"(低压停电信息)低压电缆烧毁","powerTime":"2020-06-11 08:43:26","powerComm":"已送电","subsNo":"","lineNo":"","tgNo":"","tgName":null,"infoStatus":"1","orgName":"国网浙江建德市供电有限公司","typeName":null,"infoStatusName":null,"dateDay":null,"orgNos":null,"nowTime":null,"countyName":null,"streetName":null,"villageName":null,"roadName":null,"communityName":null,"tranName":null,"sdLineName":null,"cityCode":"3340180","cityName":"国网浙江建德市供电有限公司","provinceCode":null,"stopTime":"2020-06-11 09:33:06","powerType":"全部","powerOffArea":"110kV慈岩变:里叶Y348线-陈店村陈店台区后段","powerOffReason":"(低压停电信息)低压电缆烧毁","powerOffId":"2020061131020042"},{"poweroffId":2020061131020035,"sgpoweroffId":null,"subsName":"","lineName":"10kV天井T450线","pubTranName":"石马小区3号公变,","scope":"浙江省-杭州市-桐庐县-城南街道-梅林社区-春江东路","startTime":"2020-06-11 07:06:00","stopDate":"2020-06-11 09:03:00","orgNo":"3340150","typeCode":"电网故障停限电","poweroffArea":"110kV下杭变:天井T450线石马小区3号公变配变","poweroffReason":"高压开关跳闸","powerTime":"2020-06-11 08:40:33","powerComm":"已送电","subsNo":"","lineNo":"","tgNo":"","tgName":null,"infoStatus":"1","orgName":"国网浙江桐庐县供电公司","typeName":null,"infoStatusName":null,"dateDay":null,"orgNos":null,"nowTime":null,"countyName":null,"streetName":null,"villageName":null,"roadName":null,"communityName":null,"tranName":null,"sdLineName":null,"cityCode":"3340150","cityName":"国网浙江桐庐县供电公司","provinceCode":null,"stopTime":"2020-06-11 09:03:00","powerType":"全部","powerOffArea":"110kV下杭变:天井T450线石马小区3号公变配变","powerOffReason":"高压开关跳闸","powerOffId":"2020061131020035"}],"pageModel":{"pageNow":16,"totalCount":17786,"totalPage":1779,"tableRows":0,"pageCount":10,"beginCount":150},"isExperi":"1"}