{"message":"","today":"2020-06-16","seleList":[{"poweroffId":2018061531010444,"sgpoweroffId":null,"subsName":"","lineName":"10kV睦港G192线","pubTranName":"冯金5组6#变,冯金6组1#变,冯金6组3#变,冯金6组5#变,冯金5组变,","scope":"浙江省杭州市余杭区乔司街道：冯金村5组、冯金村6组一带","startTime":"2018-06-28 08:40:00","stopDate":"2018-06-28 20:30:00","orgNo":"3340140","typeCode":"计划停电","poweroffArea":"110kV外乔变:睦港G192线-冯金6组5#变开关后段","poweroffReason":"睦港G192线冯金6组分线开关 配网工程 1.冯金6组分线3#杆至8#杆导线拆除 2.3#杆搭接至基建线路4#杆 3.7#杆移用至基建线路7#杆","powerTime":"2018-06-28 19:00:28","powerComm":"施工结束","subsNo":"","lineNo":"","tgNo":"","tgName":null,"infoStatus":"1","orgName":"国网浙江杭州市余杭区供电有限公司","typeName":null,"infoStatusName":null,"dateDay":null,"orgNos":null,"nowTime":null,"countyName":null,"streetName":null,"villageName":null,"roadName":null,"communityName":null,"tranName":null,"sdLineName":null,"cityCode":"3340140","cityName":"国网浙江杭州市余杭区供电有限公司","provinceCode":null,"stopTime":"2018-06-28 20:30:00","powerType":"全部","powerOffArea":"110kV外乔变:睦港G192线-冯金6组5#变开关后段","powerOffReason":"睦港G192线冯金6组分线开关 配网工程 1.冯金6组分线3#杆至8#杆导线拆除 2.3#杆搭接至基建线路4#杆 3.7#杆移用至基建线路7#杆","powerOffId":"2018061531010444"},{"poweroffId":2018061531010441,"sgpoweroffId":null,"subsName":"","lineName":"10kV睦港G192线","pubTranName":"冯金5组2#变,冯金5组7#变,冯金5组9#变,冯金6组4#变,冯金5组3#变,冯金5组4#变,","scope":"浙江省杭州市余杭区乔司街道：冯金村5组、冯金村6组一带","startTime":"2018-06-28 08:40:00","stopDate":"2018-06-28 20:30:00","orgNo":"3340140","typeCode":"计划停电","poweroffArea":"110kV外乔变:睦港G192线-冯金5组3#变后段","poweroffReason":"睦港G192线冯金5组分线 配网工程 1.冯金5组9#分线1#杆、7#杆拆搭头 2.冯金5组9#变搭接至基建线路","powerTime":"2018-06-28 18:59:53","powerComm":"施工结束","subsNo":"","lineNo":"","tgNo":"","tgName":null,"infoStatus":"1","orgName":"国网浙江杭州市余杭区供电有限公司","typeName":null,"infoStatusName":null,"dateDay":null,"orgNos":null,"nowTime":null,"countyName":null,"streetName":null,"villageName":null,"roadName":null,"communityName":null,"tranName":null,"sdLineName":null,"cityCode":"3340140","cityName":"国网浙江杭州市余杭区供电有限公司","provinceCode":null,"stopTime":"2018-06-28 20:30:00","powerType":"全部","powerOffArea":"110kV外乔变:睦港G192线-冯金5组3#变后段","powerOffReason":"睦港G192线冯金5组分线 配网工程 1.冯金5组9#分线1#杆、7#杆拆搭头 2.冯金5组9#变搭接至基建线路","powerOffId":"2018061531010441"},{"poweroffId":2018061531010431,"sgpoweroffId":null,"subsName":"","lineName":"10kV泰山H729线","pubTranName":"双联村孟坞东公变,双联经联社,双联村后山3号公变,双联村董家公变,双联村孟坞庙公变,双联村邱家坞公变,双联村岭脚底公变,双联村董家2号公变,双联村后山2号公变,双联村孟坞庙2号公变,双联村邱家坞五组2号公变,双联村盛家头公变,双联村孟坞公变,双联村邱家坞五组公变,双联村董家田公变,双联村后山公变,双联村孙家坞公变,双联村岭脚底2号公变,","scope":"浙江省杭州市余杭区中泰街道:双联村岭脚底、双联村孟坞、双联村孟坞后山、双联村盛家头、双联村孟坞庙、双联村董家田、双联村邱家坞、双联村孙家一带","startTime":"2018-06-29 07:40:00","stopDate":"2018-06-29 18:30:00","orgNo":"3340140","typeCode":"计划停电","poweroffArea":"110kV闲林变:泰山H729线-邱家坞分线开关开关后段","poweroffReason":"泰山H729线邱家坞分线49#杆至50#杆插杆2基、新装分段开关2台，新立15米杆5基、新放JKLYJ-10/240双回路导线5档，泰山H729线邱家坞分线49#杆开关绝缘化处理，50#杆与枫岭H887线邱家坞六组分线沟通。","powerTime":"2018-06-29 17:13:01","powerComm":"已全部送电。","subsNo":"","lineNo":"","tgNo":"","tgName":null,"infoStatus":"1","orgName":"国网浙江杭州市余杭区供电有限公司","typeName":null,"infoStatusName":null,"dateDay":null,"orgNos":null,"nowTime":null,"countyName":null,"streetName":null,"villageName":null,"roadName":null,"communityName":null,"tranName":null,"sdLineName":null,"cityCode":"3340140","cityName":"国网浙江杭州市余杭区供电有限公司","provinceCode":null,"stopTime":"2018-06-29 18:30:00","powerType":"全部","powerOffArea":"110kV闲林变:泰山H729线-邱家坞分线开关开关后段","powerOffReason":"泰山H729线邱家坞分线49#杆至50#杆插杆2基、新装分段开关2台，新立15米杆5基、新放JKLYJ-10/240双回路导线5档，泰山H729线邱家坞分线49#杆开关绝缘化处理，50#杆与枫岭H887线邱家坞六组分线沟通。","powerOffId":"2018061531010431"},{"poweroffId":2018061531010429,"sgpoweroffId":null,"subsName":"","lineName":"10kV翁梅G060线","pubTranName":"钱塘10组（咸水庙）1#公变,天万8组（方家坡）1#公变,天万8组3#公变,天万8组4#变,天万9组（天开河中）2#公变,天万9组（天开河中）公变,钱塘8组1#公变,天万12组2#公变,天万12组（天开河中）公变,钱塘8组3#公变,钱塘9组公变,钱塘9组2#公变,天万11组3#公变,天万11组（天开河北）公变,高地7组2#公变,南苑街道钱塘泵站,海通紧固件,天万6组2#变,天万6组（王家堂）公变,天万8组（方家坡）2#公变,天万3组公变,杭浦高速2#路灯变,高地7组公变,高地7组3#变,高地7组4#变,钱塘10组（咸水庙）2#公变,钱塘10组3#公变,钱塘10组4#公变,","scope":"浙江省杭州市余杭区南苑街道：天万村6组、高地村7组、天万村3组、天万村8组、天万村9组、天万村12组、钱塘村8组、钱塘村9组、钱塘村10组、海通紧固件厂、杭浦辅道路灯一带","startTime":"2018-06-29 07:00:00","stopDate":"2018-06-29 19:00:00","orgNo":"3340140","typeCode":"计划停电","poweroffArea":"110kV外乔变:翁梅G060线-天万7组分线开关后段","poweroffReason":"翁梅G060线G06014开关-高地G917线G91710开关 配网工程 1.东赤G0601线天万12组分线调换导线24档及线路割接","powerTime":"2018-06-29 18:18:03","powerComm":"施工结束","subsNo":"","lineNo":"","tgNo":"","tgName":null,"infoStatus":"1","orgName":"国网浙江杭州市余杭区供电有限公司","typeName":null,"infoStatusName":null,"dateDay":null,"orgNos":null,"nowTime":null,"countyName":null,"streetName":null,"villageName":null,"roadName":null,"communityName":null,"tranName":null,"sdLineName":null,"cityCode":"3340140","cityName":"国网浙江杭州市余杭区供电有限公司","provinceCode":null,"stopTime":"2018-06-29 19:00:00","powerType":"全部","powerOffArea":"110kV外乔变:翁梅G060线-天万7组分线开关后段","powerOffReason":"翁梅G060线G06014开关-高地G917线G91710开关 配网工程 1.东赤G0601线天万12组分线调换导线24档及线路割接","powerOffId":"2018061531010429"},{"poweroffId":2018061531010427,"sgpoweroffId":null,"subsName":"","lineName":"10kV吴灵H654线","pubTranName":"弘通电缆,康硕建材,吴山前村寡山前公变,吴山前村盛家头东公变,吴山前村三营排变,吴山前村孙家径公变,吴山前村林家头公变,云裳丝织,吴山前村潘家头,杭州神潮实业有限公司,吴山前村瓦窑里,盛家头泵站,吴山前村长桥头公变,吴山前村毛家桥公变,仓前小学,青州建筑,吴山前村寡山斗2号公变,3#变压器,仓盛建材,吴山村上山头公变,吴山老街公变,吴山前村寡山斗,杭州余杭吴山前股份经济合作社,大陆变所用变,吴山集镇邮电所变,吴山前村盛家头,吴山前村沈家浜,鼎豪餐饮,吴山前村姚家营,吴山前村下路桥公变,","scope":"浙江省杭州市余杭区仓前街道：吴山前村毛家桥、姚家营、林家头、孙家径、瓦窑里、寡山前、潘家头、寡山斗、吴山老街、上山头、下路桥、长桥头、沈家浜、盛家头、康硕建材有限公司、仓盛建材有限公司、弘通有限公司、青州建筑有限公司、神潮实业有限公司、鼎豪餐饮有限公司、云裳丝织有限公司、仓前小学、吴山邮电所、盛家头泵站一带","startTime":"2018-06-30 07:30:00","stopDate":"2018-06-30 19:00:00","orgNo":"3340140","typeCode":"计划停电","poweroffArea":"吴灵H6543开关-H6544开关","poweroffReason":"配网工程（杭州余杭仓前地区2018年配变台区改造工程）：三营排分线1#杆至6#杆调换电杆7基、调换导线5档，盛家头东变增量至400KVA、新上开关1台、新布下路桥2号变（400KVA）、新出低压电缆1根，沈家浜变增量至400KVA、新布潘家头2号变（400KVA）。","powerTime":"2018-06-30 18:31:55","powerComm":"已送电","subsNo":"","lineNo":"","tgNo":"","tgName":null,"infoStatus":"1","orgName":"国网浙江杭州市余杭区供电有限公司","typeName":null,"infoStatusName":null,"dateDay":null,"orgNos":null,"nowTime":null,"countyName":null,"streetName":null,"villageName":null,"roadName":null,"communityName":null,"tranName":null,"sdLineName":null,"cityCode":"3340140","cityName":"国网浙江杭州市余杭区供电有限公司","provinceCode":null,"stopTime":"2018-06-30 19:00:00","powerType":"全部","powerOffArea":"吴灵H6543开关-H6544开关","powerOffReason":"配网工程（杭州余杭仓前地区2018年配变台区改造工程）：三营排分线1#杆至6#杆调换电杆7基、调换导线5档，盛家头东变增量至400KVA、新上开关1台、新布下路桥2号变（400KVA）、新出低压电缆1根，沈家浜变增量至400KVA、新布潘家头2号变（400KVA）。","powerOffId":"2018061531010427"},{"poweroffId":2018061531010424,"sgpoweroffId":null,"subsName":"","lineName":"10kV平山V111线","pubTranName":"平山村[黄泥口]公变,平山安置小区2#公变,平山新村1#公变,林水山居小区2#公变,临安市锦城街道平山村村民委员会,平山村[黄泥口2#]公变,吴越人家小区10#公变,林水山居小区3#公变,林水山居小区7#公变,杭州龙福物业管理有限公司林水山居管理处,吴越人家小区2#公变,林水山居小区8#公变,吴越人家小区6#公变,平山新村2#公变,吴越人家小区11#变,林水山居小区1#公变,临安玖零柒投资有限公司,平山安置小区1#公变,吴越人家小区9#公变,平山安置小区3#公变,吴越人家小区7#公变,临安市供电局路灯管理所,吴越人家小区1#公变,林水山居小区6#公变,临安平山机械配件厂,林水山居小区5#公变,平山村[村委会]公变,吴越人家小区8#公变,林水山居小区4#公变,平山拆迁小区公变,吴越人家小区13#变,","scope":"浙江省杭州市临安区马溪社区林水山居小区、平山安置小区、平山拆迁小区、平山村村委会、平山村黄泥口、平山村黄泥口、平山新村、吴越人家小区、临安玖零柒投资有限公司、临安平山机械配件公司、临安市供电局路灯管理所、临安市锦城街道平山村村民委员会、杭州龙福物业管理有限公司林水山居管理处一带","startTime":"2018-06-28 06:20:00","stopDate":"2018-06-28 15:50:00","orgNo":"3340160","typeCode":"计划停电","poweroffArea":"110kV临安变:1、停平山V111线工程站海杰德分线开关以后；2、停平山V111线工程站海杰平山分线开关","poweroffReason":"1、平山V111线海杰德站环网柜更换，电缆拆搭头工作；2、平山V111线平山1#变支线9#杆平山村[黄泥口2#]公变更换低压出线柜工作；3、平山V111线平山新村公变支线平山新村1#公变、平山新村2#公变美变拆除，更换为欧式箱变工作。","powerTime":"2018-06-28 16:45:19","powerComm":"已送电","subsNo":"","lineNo":"","tgNo":"","tgName":null,"infoStatus":"1","orgName":"国网浙江临安市供电公司","typeName":null,"infoStatusName":null,"dateDay":null,"orgNos":null,"nowTime":null,"countyName":null,"streetName":null,"villageName":null,"roadName":null,"communityName":null,"tranName":null,"sdLineName":null,"cityCode":"3340160","cityName":"国网浙江临安市供电公司","provinceCode":null,"stopTime":"2018-06-28 15:50:00","powerType":"全部","powerOffArea":"110kV临安变:1、停平山V111线工程站海杰德分线开关以后；2、停平山V111线工程站海杰平山分线开关","powerOffReason":"1、平山V111线海杰德站环网柜更换，电缆拆搭头工作；2、平山V111线平山1#变支线9#杆平山村[黄泥口2#]公变更换低压出线柜工作；3、平山V111线平山新村公变支线平山新村1#公变、平山新村2#公变美变拆除，更换为欧式箱变工作。","powerOffId":"2018061531010424"},{"poweroffId":2018061531010421,"sgpoweroffId":null,"subsName":"","lineName":"10kV杨华V731线","pubTranName":"碧淙村[东坞口],","scope":"浙江省杭州市临安区太湖源镇碧淙村东坞口一带","startTime":"2018-06-28 07:00:00","stopDate":"2018-06-28 16:40:00","orgNo":"3340160","typeCode":"计划停电","poweroffArea":"110kV杨岭变:杨华V731线-杨华V731线光辉分线57#杆东坞口支线令克后段","poweroffReason":"1、杨华V731线光辉分线东坞口支线10#--11#杆插立15m杆，新插杆--13#杆调架70绝缘线架设工作；2、配合杨华V731线光辉分线[G23#--G25#(新插杆)--G29#(东坞口支线7#)--G34#杆]240绝缘线架设工作。","powerTime":"2018-06-28 16:35:49","powerComm":"已送电","subsNo":"","lineNo":"","tgNo":"","tgName":null,"infoStatus":"1","orgName":"国网浙江临安市供电公司","typeName":null,"infoStatusName":null,"dateDay":null,"orgNos":null,"nowTime":null,"countyName":null,"streetName":null,"villageName":null,"roadName":null,"communityName":null,"tranName":null,"sdLineName":null,"cityCode":"3340160","cityName":"国网浙江临安市供电公司","provinceCode":null,"stopTime":"2018-06-28 16:40:00","powerType":"全部","powerOffArea":"110kV杨岭变:杨华V731线-杨华V731线光辉分线57#杆东坞口支线令克后段","powerOffReason":"1、杨华V731线光辉分线东坞口支线10#--11#杆插立15m杆，新插杆--13#杆调架70绝缘线架设工作；2、配合杨华V731线光辉分线[G23#--G25#(新插杆)--G29#(东坞口支线7#)--G34#杆]240绝缘线架设工作。","powerOffId":"2018061531010421"},{"poweroffId":2018061531010419,"sgpoweroffId":null,"subsName":"","lineName":"10kV杨畈V582线","pubTranName":"夏村村[外长村],","scope":"浙江省杭州市临安区太湖源镇夏村村外长村一带","startTime":"2018-06-28 08:00:00","stopDate":"2018-06-28 16:50:00","orgNo":"3340160","typeCode":"计划停电","poweroffArea":"110kV杨岭变:杨畈V582线-杨畈V582线溪村5824线盛村坞支线4#杆外长村分支线令克后段","poweroffReason":"杨畈V582线溪村5824线外长村分支线8#杆新装令克一组，至新架支支线2#杆架线，新架支支线17#杆新增布点夏村村[凤门桥]公变一台，及低压割接工作。","powerTime":"2018-06-28 16:48:05","powerComm":"已送电","subsNo":"","lineNo":"","tgNo":"","tgName":null,"infoStatus":"1","orgName":"国网浙江临安市供电公司","typeName":null,"infoStatusName":null,"dateDay":null,"orgNos":null,"nowTime":null,"countyName":null,"streetName":null,"villageName":null,"roadName":null,"communityName":null,"tranName":null,"sdLineName":null,"cityCode":"3340160","cityName":"国网浙江临安市供电公司","provinceCode":null,"stopTime":"2018-06-28 16:50:00","powerType":"全部","powerOffArea":"110kV杨岭变:杨畈V582线-杨畈V582线溪村5824线盛村坞支线4#杆外长村分支线令克后段","powerOffReason":"杨畈V582线溪村5824线外长村分支线8#杆新装令克一组，至新架支支线2#杆架线，新架支支线17#杆新增布点夏村村[凤门桥]公变一台，及低压割接工作。","powerOffId":"2018061531010419"},{"poweroffId":2018061531010417,"sgpoweroffId":null,"subsName":"","lineName":"10kV浪口V730线","pubTranName":"青云村[礼堂边],","scope":"浙江省杭州市临安区太湖源镇青云行政村（青云自然村、上坎自然村）一带","startTime":"2018-06-29 07:20:00","stopDate":"2018-06-29 17:20:00","orgNo":"3340160","typeCode":"计划停电","poweroffArea":"110kV杨岭变:浪口V730线-青云村[礼堂边]后段","poweroffReason":"浪口V730线青云村[礼堂边]公变低压幼儿园1000线7#-11#杆拆架线工作。","powerTime":"2018-06-29 17:10:52","powerComm":"全部送电","subsNo":"","lineNo":"","tgNo":"","tgName":null,"infoStatus":"1","orgName":"国网浙江临安市供电公司","typeName":null,"infoStatusName":null,"dateDay":null,"orgNos":null,"nowTime":null,"countyName":null,"streetName":null,"villageName":null,"roadName":null,"communityName":null,"tranName":null,"sdLineName":null,"cityCode":"3340160","cityName":"国网浙江临安市供电公司","provinceCode":null,"stopTime":"2018-06-29 17:20:00","powerType":"全部","powerOffArea":"110kV杨岭变:浪口V730线-青云村[礼堂边]后段","powerOffReason":"浪口V730线青云村[礼堂边]公变低压幼儿园1000线7#-11#杆拆架线工作。","powerOffId":"2018061531010417"},{"poweroffId":2018061531010415,"sgpoweroffId":null,"subsName":"","lineName":"10kV杨畈V582线","pubTranName":"临安市天茗电缆材料厂,畈龙村[晒谷畈],畈龙村[毛家],畈龙村[魏家],浙江省畜牧技术推广总站,畈龙村[里佃村],畈龙村[畈龙],临安市青云初级中学,畈龙村[里佃村大沙滩],畈龙村[胡家山],临安青云芯柱厂,浙江富丽科技创业有限公司临安分公司,青云村[中学边],临安翔宇电器织带厂,畈龙村[里佃村狮子山],畈龙村[新塘],青云村[后塘畈],畈龙村[下晒谷畈],畈龙村[近头],畈龙村[外佃村],畈龙村[石板桥]公变,青云村[罗家头],畈龙村[近头西畈],","scope":"浙江省杭州市临安区太湖源镇畈龙村毛家、青云村后塘畈、畈龙村畈龙、畈龙村近头、畈龙村外佃村、畈龙村里佃村、青云村罗家头、浙江省畜牧技术推广总站、临安翔宇电器织带公司、临安青云芯柱公司、畈龙村石板桥、临安市天茗电缆材料公司、浙江富丽科技创业有限公司临安分公司、临安市青云初级中学、畈龙村近头西畈、畈龙村下晒谷畈、畈龙村魏家、畈龙村里佃村狮子山、畈龙村新塘、畈龙村里佃村大沙滩、青云村中学边、畈龙村晒谷畈、畈龙村胡家山一带","startTime":"2018-06-29 07:20:00","stopDate":"2018-06-29 17:20:00","orgNo":"3340160","typeCode":"计划停电","poweroffArea":"110kV杨岭变:杨畈V582线-5822开关，夏村分线66#杆开关之间","poweroffReason":"1、配合杨畈V582线夏村分线35#、36#杆调杆，[G1#钢--G10#杆，G27#--G35#杆，G36#--G45#杆，G62#--G67#杆]架设240绝缘线，[G1#钢]新装开关一台和原电缆拆敷、电缆头制作、试验和搭头工作，G45#杆新装开关一台工作；","powerTime":"2018-06-29 16:59:17","powerComm":"已送电","subsNo":"","lineNo":"","tgNo":"","tgName":null,"infoStatus":"1","orgName":"国网浙江临安市供电公司","typeName":null,"infoStatusName":null,"dateDay":null,"orgNos":null,"nowTime":null,"countyName":null,"streetName":null,"villageName":null,"roadName":null,"communityName":null,"tranName":null,"sdLineName":null,"cityCode":"3340160","cityName":"国网浙江临安市供电公司","provinceCode":null,"stopTime":"2018-06-29 17:20:00","powerType":"全部","powerOffArea":"110kV杨岭变:杨畈V582线-5822开关，夏村分线66#杆开关之间","powerOffReason":"1、配合杨畈V582线夏村分线35#、36#杆调杆，[G1#钢--G10#杆，G27#--G35#杆，G36#--G45#杆，G62#--G67#杆]架设240绝缘线，[G1#钢]新装开关一台和原电缆拆敷、电缆头制作、试验和搭头工作，G45#杆新装开关一台工作；","powerOffId":"2018061531010415"}],"pageModel":{"pageNow":1653,"totalCount":17789,"totalPage":1779,"tableRows":0,"pageCount":10,"beginCount":16520},"isExperi":"1"}