{"message":"","today":"2020-06-16","seleList":[{"poweroffId":2018061531010311,"sgpoweroffId":null,"subsName":"","lineName":"10kV仁里V312线","pubTranName":"龙川村,楼下水口桥,黄川村张家,楼下村唐家,丰裕村,楼下村(朱家),楼下村,黄阳村,","scope":"浙江省-杭州市-临安市-岛石镇丰裕村,黄川村黄阳、楼下村、张家村一带。","startTime":"2018-06-22 08:10:00","stopDate":"2018-06-22 16:20:00","orgNo":"3340160","typeCode":"计划停电","poweroffArea":"35kV岛石变:仁里V312线-黄阳分线开关后段","poweroffReason":"仁里V312线黄阳分线12#-13#杆移位；","powerTime":"2018-06-22 15:56:23","powerComm":"已送电","subsNo":"","lineNo":"","tgNo":"","tgName":null,"infoStatus":"1","orgName":"国网浙江临安市供电公司","typeName":null,"infoStatusName":null,"dateDay":null,"orgNos":null,"nowTime":null,"countyName":null,"streetName":null,"villageName":null,"roadName":null,"communityName":null,"tranName":null,"sdLineName":null,"cityCode":"3340160","cityName":"国网浙江临安市供电公司","provinceCode":null,"stopTime":"2018-06-22 16:20:00","powerType":"全部","powerOffArea":"35kV岛石变:仁里V312线-黄阳分线开关后段","powerOffReason":"仁里V312线黄阳分线12#-13#杆移位；","powerOffId":"2018061531010311"},{"poweroffId":2018061531010310,"sgpoweroffId":null,"subsName":"","lineName":"10kV芦岭V130线","pubTranName":"孙家村大丘田,","scope":"浙江省-杭州市-临安市-昌化镇孙家村大丘田一带。","startTime":"2018-06-28 12:40:00","stopDate":"2018-06-28 17:20:00","orgNo":"3340160","typeCode":"计划停电","poweroffArea":"110kV昌化变:孙家村大丘田配变令克后段","poweroffReason":"孙家村大丘田配变低压电缆头做冷缩套管","powerTime":"2018-06-28 17:11:02","powerComm":"已送电","subsNo":"","lineNo":"","tgNo":"","tgName":null,"infoStatus":"1","orgName":"国网浙江临安市供电公司","typeName":null,"infoStatusName":null,"dateDay":null,"orgNos":null,"nowTime":null,"countyName":null,"streetName":null,"villageName":null,"roadName":null,"communityName":null,"tranName":null,"sdLineName":null,"cityCode":"3340160","cityName":"国网浙江临安市供电公司","provinceCode":null,"stopTime":"2018-06-28 17:20:00","powerType":"全部","powerOffArea":"110kV昌化变:孙家村大丘田配变令克后段","powerOffReason":"孙家村大丘田配变低压电缆头做冷缩套管","powerOffId":"2018061531010310"},{"poweroffId":2018061531010303,"sgpoweroffId":null,"subsName":"","lineName":"10kV图山D502线","pubTranName":"宋家溪1#公路公变,","scope":"浙江省-杭州市-富阳区-场口镇(宋家溪行政村-宋家溪自然村)一带;","startTime":"2018-06-15 13:00:25","stopDate":"2018-06-15 15:00:25","orgNo":"3340170","typeCode":"电网故障停限电","poweroffArea":"110kV常安变:图山D502线-宋家溪1号公路公变后段","poweroffReason":"低压配电设备故障","powerTime":"2018-06-15 14:40:29","powerComm":"工作完成，已恢复送电","subsNo":"","lineNo":"","tgNo":"","tgName":null,"infoStatus":"1","orgName":"国网浙江杭州市富阳区供电公司","typeName":null,"infoStatusName":null,"dateDay":null,"orgNos":null,"nowTime":null,"countyName":null,"streetName":null,"villageName":null,"roadName":null,"communityName":null,"tranName":null,"sdLineName":null,"cityCode":"3340170","cityName":"国网浙江杭州市富阳区供电公司","provinceCode":null,"stopTime":"2018-06-15 15:00:25","powerType":"全部","powerOffArea":"110kV常安变:图山D502线-宋家溪1号公路公变后段","powerOffReason":"低压配电设备故障","powerOffId":"2018061531010303"},{"poweroffId":2018061531010295,"sgpoweroffId":null,"subsName":"","lineName":"10kV新渌D834线","pubTranName":"岘口村4#荷家埠公变,","scope":"浙江省杭州市富阳区渌渚镇阆坞村、山亚村、岘口村、新港村、董湾村一带","startTime":"2018-06-15 12:20:06","stopDate":"2018-06-15 14:30:46","orgNo":"3340170","typeCode":"电网故障停限电","poweroffArea":"110kV新桐变:新渌D834线","poweroffReason":"高压开关跳闸","powerTime":"2018-06-15 13:06:59","powerComm":"已送电","subsNo":"","lineNo":"","tgNo":"","tgName":null,"infoStatus":"1","orgName":"国网浙江杭州市富阳区供电公司","typeName":null,"infoStatusName":null,"dateDay":null,"orgNos":null,"nowTime":null,"countyName":null,"streetName":null,"villageName":null,"roadName":null,"communityName":null,"tranName":null,"sdLineName":null,"cityCode":"3340170","cityName":"国网浙江杭州市富阳区供电公司","provinceCode":null,"stopTime":"2018-06-15 14:30:46","powerType":"全部","powerOffArea":"110kV新桐变:新渌D834线","powerOffReason":"高压开关跳闸","powerOffId":"2018061531010295"},{"poweroffId":2018061531010269,"sgpoweroffId":null,"subsName":"","lineName":"10kV安镇Y331线","pubTranName":"下梓村里梓台区,","scope":"浙江省-杭州市-建德市-乾潭镇 安仁行政村-安仁自然村，下梓自然村一带用户。","startTime":"2018-06-15 11:23:00","stopDate":"2018-06-15 17:33:03","orgNo":"3340180","typeCode":"电网故障停限电","poweroffArea":"110kV钦堂变:安镇Y331线-下梓村里梓台区后段","poweroffReason":"安镇Y331线-下梓村里梓台区 低压配电设备故障","powerTime":"2018-06-15 12:14:41","powerComm":"已送电","subsNo":"","lineNo":"","tgNo":"","tgName":null,"infoStatus":"1","orgName":"国网浙江建德市供电有限公司","typeName":null,"infoStatusName":null,"dateDay":null,"orgNos":null,"nowTime":null,"countyName":null,"streetName":null,"villageName":null,"roadName":null,"communityName":null,"tranName":null,"sdLineName":null,"cityCode":"3340180","cityName":"国网浙江建德市供电有限公司","provinceCode":null,"stopTime":"2018-06-15 17:33:03","powerType":"全部","powerOffArea":"110kV钦堂变:安镇Y331线-下梓村里梓台区后段","powerOffReason":"安镇Y331线-下梓村里梓台区 低压配电设备故障","powerOffId":"2018061531010269"},{"poweroffId":2018061531010266,"sgpoweroffId":null,"subsName":"","lineName":"10kV新联D211线","pubTranName":"新桥村2#桥头公变,","scope":"浙江省杭州市富阳区银湖街道高桥村、新桥村、恩波大道一带","startTime":"2018-06-15 11:25:35","stopDate":"2018-06-15 14:30:18","orgNo":"3340170","typeCode":"电网故障停限电","poweroffArea":"110kV银湖变:新联D211线","poweroffReason":"高压开关跳闸","powerTime":"2018-06-15 14:13:03","powerComm":"已送电","subsNo":"","lineNo":"","tgNo":"","tgName":null,"infoStatus":"1","orgName":"国网浙江杭州市富阳区供电公司","typeName":null,"infoStatusName":null,"dateDay":null,"orgNos":null,"nowTime":null,"countyName":null,"streetName":null,"villageName":null,"roadName":null,"communityName":null,"tranName":null,"sdLineName":null,"cityCode":"3340170","cityName":"国网浙江杭州市富阳区供电公司","provinceCode":null,"stopTime":"2018-06-15 14:30:18","powerType":"全部","powerOffArea":"110kV银湖变:新联D211线","powerOffReason":"高压开关跳闸","powerOffId":"2018061531010266"},{"poweroffId":2018061531010228,"sgpoweroffId":null,"subsName":"","lineName":"10kV林场T276线","pubTranName":"乔林1号公变,路灯变,乔林2号公变,桐庐大鹏玻璃有限公司,桐庐富源上艺针织服饰厂,","scope":"浙江省-杭州市-桐庐县-城南街道(乔林行政村-乔林自然村);浙江省-杭州市-桐庐县-城南街道(桐庐大鹏玻璃有限公司,桐庐富源工艺针织服饰厂);","startTime":"2018-06-28 07:40:00","stopDate":"2018-06-28 17:00:00","orgNo":"3340150","typeCode":"计划停电","poweroffArea":"35kV三合变:林场T276线-乔林632线后段","poweroffReason":"乔林1号公变间隔至新布点乔林4号公变（原新建2号公变）电缆敷设及搭接工作","powerTime":"2018-06-28 16:42:41","powerComm":"已送电。","subsNo":"","lineNo":"","tgNo":"","tgName":null,"infoStatus":"1","orgName":"国网浙江桐庐县供电公司","typeName":null,"infoStatusName":null,"dateDay":null,"orgNos":null,"nowTime":null,"countyName":null,"streetName":null,"villageName":null,"roadName":null,"communityName":null,"tranName":null,"sdLineName":null,"cityCode":"3340150","cityName":"国网浙江桐庐县供电公司","provinceCode":null,"stopTime":"2018-06-28 17:00:00","powerType":"全部","powerOffArea":"35kV三合变:林场T276线-乔林632线后段","powerOffReason":"乔林1号公变间隔至新布点乔林4号公变（原新建2号公变）电缆敷设及搭接工作","powerOffId":"2018061531010228"},{"poweroffId":2018061531010221,"sgpoweroffId":null,"subsName":"","lineName":"10kV胥口D712线","pubTranName":"高联村5#黄泥岭公变,","scope":"浙江省-杭州市-富阳区-胥口镇(高联行政村-黄泥岭自然村);","startTime":"2018-06-28 07:30:00","stopDate":"2018-06-28 16:30:00","orgNo":"3340170","typeCode":"计划停电","poweroffArea":"110kV松溪变:胥口D712线-高联村5#黄泥岭公变台区低压开关","poweroffReason":"黄泥岭02线13#-24#杆架设BS-JKLYJ-4*70*11档、拆除JKLYJ-70*4*11档、导线落户线搭接","powerTime":"2018-06-28 16:27:07","powerComm":"工作结束已送电","subsNo":"","lineNo":"","tgNo":"","tgName":null,"infoStatus":"1","orgName":"国网浙江杭州市富阳区供电公司","typeName":null,"infoStatusName":null,"dateDay":null,"orgNos":null,"nowTime":null,"countyName":null,"streetName":null,"villageName":null,"roadName":null,"communityName":null,"tranName":null,"sdLineName":null,"cityCode":"3340170","cityName":"国网浙江杭州市富阳区供电公司","provinceCode":null,"stopTime":"2018-06-28 16:30:00","powerType":"全部","powerOffArea":"110kV松溪变:胥口D712线-高联村5#黄泥岭公变台区低压开关","powerOffReason":"黄泥岭02线13#-24#杆架设BS-JKLYJ-4*70*11档、拆除JKLYJ-70*4*11档、导线落户线搭接","powerOffId":"2018061531010221"},{"poweroffId":2018061531010209,"sgpoweroffId":null,"subsName":"","lineName":"10kV富源V509线","pubTranName":"10kV昔口村[泥洞畈]公变,10kV昔口村[昔口张家]公变,10kV昔口村[泥洞畈]公变,","scope":"浙江省杭州市临安区於潜镇昔口张家、泥洞畈、张家下一带","startTime":"2018-06-29 07:30:00","stopDate":"2018-06-29 17:30:00","orgNo":"3340160","typeCode":"计划停电","poweroffArea":"10KV昔口村（昔口张家）配变低压 10KV昔口村（泥洞畈）公变低压 10KV昔口村（张家下）公变低压","poweroffReason":"临安於潜10千伏横路村廊桥等6台区布点:1、富源V509线11#10KV昔口村（昔口张家）配变低压2、董村分线泥洞畈支线1#杆10KV昔口村（泥洞畈）公变低压3、张家下支线8#杆10KV昔口村（张家下）公变低压线路割接。","powerTime":"2018-06-29 17:20:18","powerComm":"已送电","subsNo":"","lineNo":"","tgNo":"","tgName":null,"infoStatus":"1","orgName":"国网浙江临安市供电公司","typeName":null,"infoStatusName":null,"dateDay":null,"orgNos":null,"nowTime":null,"countyName":null,"streetName":null,"villageName":null,"roadName":null,"communityName":null,"tranName":null,"sdLineName":null,"cityCode":"3340160","cityName":"国网浙江临安市供电公司","provinceCode":null,"stopTime":"2018-06-29 17:30:00","powerType":"全部","powerOffArea":"10KV昔口村（昔口张家）配变低压 10KV昔口村（泥洞畈）公变低压 10KV昔口村（张家下）公变低压","powerOffReason":"临安於潜10千伏横路村廊桥等6台区布点:1、富源V509线11#10KV昔口村（昔口张家）配变低压2、董村分线泥洞畈支线1#杆10KV昔口村（泥洞畈）公变低压3、张家下支线8#杆10KV昔口村（张家下）公变低压线路割接。","powerOffId":"2018061531010209"},{"poweroffId":2018061531010207,"sgpoweroffId":null,"subsName":"","lineName":"10kV绍鲁V502线","pubTranName":"10kV光明村[畔山村]公变,杭州临安金叶灭蚊制品有限公司,","scope":"浙江省-杭州市-临安市-於潜镇畔山村、杭州临安金叶灭蚊制品有限公司一带","startTime":"2018-06-29 07:20:00","stopDate":"2018-06-29 14:20:00","orgNo":"3340160","typeCode":"计划停电","poweroffArea":"绍鲁V502线80#杆畔山分线令克","poweroffReason":"临安於潜10千伏绍鲁V502线分支线改造：绍鲁V502线畔山分线4#-5#杆插杆，3#-5#杆调导线，畔山分支线0#-1#杆调导线","powerTime":"2018-06-29 14:09:04","powerComm":"已送电","subsNo":"","lineNo":"","tgNo":"","tgName":null,"infoStatus":"1","orgName":"国网浙江临安市供电公司","typeName":null,"infoStatusName":null,"dateDay":null,"orgNos":null,"nowTime":null,"countyName":null,"streetName":null,"villageName":null,"roadName":null,"communityName":null,"tranName":null,"sdLineName":null,"cityCode":"3340160","cityName":"国网浙江临安市供电公司","provinceCode":null,"stopTime":"2018-06-29 14:20:00","powerType":"全部","powerOffArea":"绍鲁V502线80#杆畔山分线令克","powerOffReason":"临安於潜10千伏绍鲁V502线分支线改造：绍鲁V502线畔山分线4#-5#杆插杆，3#-5#杆调导线，畔山分支线0#-1#杆调导线","powerOffId":"2018061531010207"}],"pageModel":{"pageNow":1655,"totalCount":17789,"totalPage":1779,"tableRows":0,"pageCount":10,"beginCount":16540},"isExperi":"1"}