{"message":"","today":"2020-06-16","seleList":[{"poweroffId":2018061331010155,"sgpoweroffId":null,"subsName":"","lineName":"10kV天荣C937线","pubTranName":"杭州天众纺织有限公司,杭州欣海卫浴有限公司,众力村7#变,杭州萧山荣达化纤有限公司,1#变,杭州杭邦塑胶有限公司1#变压器间隔,杭州天朗洁具有限公司,群益村2#变,杭州杭邦塑胶有限公司3#,杭州萧山天乐纺织有限公司,杭州萧山荣达化纤有限公司,杭州萧山荣达化纤有限公司,杭州萧山亚发轻纺有限公司,杭州汉龙金刚石工具有限公司,杭州萧山成翔纺织有限公司,杭州杭邦塑胶有限公司2#,杭州斯亚卫浴有限公司2变压器,杭州欣海卫浴有限公司,","scope":"浙江省杭州市萧山区瓜沥镇群益村、众力村及杭州杭邦塑胶有限公司、杭州斯亚卫浴有限公司、杭州天朗洁具有限公司、杭州欣海卫浴有限公司、杭州萧山荣达化纤有限公司、杭州萧山天乐纺织有限公司、杭州萧山亚发轻纺有限公司、杭州萧山成翔纺织有限公司、杭州天众纺织有限公司、杭州汉龙金刚石工具有限公司一带","startTime":"2018-06-22 08:15:00","stopDate":"2018-06-22 16:30:00","orgNo":"3340130","typeCode":"计划停电","poweroffArea":"110kV党山变:天荣C937线-天荣C937线荣达分线开关后段","poweroffReason":"群围变新出荣达线割接党山变天荣线58#杆后段负荷","powerTime":"2018-06-22 15:58:19","powerComm":"已送电","subsNo":"","lineNo":"","tgNo":"","tgName":null,"infoStatus":"1","orgName":"国网浙江杭州市萧山区供电有限公司","typeName":null,"infoStatusName":null,"dateDay":null,"orgNos":null,"nowTime":null,"countyName":null,"streetName":null,"villageName":null,"roadName":null,"communityName":null,"tranName":null,"sdLineName":null,"cityCode":"3340130","cityName":"国网浙江杭州市萧山区供电有限公司","provinceCode":null,"stopTime":"2018-06-22 16:30:00","powerType":"全部","powerOffArea":"110kV党山变:天荣C937线-天荣C937线荣达分线开关后段","powerOffReason":"群围变新出荣达线割接党山变天荣线58#杆后段负荷","powerOffId":"2018061331010155"},{"poweroffId":2018061331010154,"sgpoweroffId":null,"subsName":"","lineName":"10kV官一C944线","pubTranName":"众力村15#变,杭州宝迪门业有限公司,浙江飞翔纺织机械有限公司2#,杭州金亚纺织品有限公司,杭州金亚纺织品有限公司,杭州唐邦塑胶有限公司,浙江飞翔纺织机械有限公司,众力村9#变,杭州唐邦塑胶有限公司2#,杭州金亚纺织有限公司,众力村22#变,众力村14#变,","scope":"浙江省杭州市萧山区瓜沥镇众力村及杭州唐邦塑胶有限公司、杭州宝迪门业有限公司、浙江飞翔纺织机械有限公司、杭州金亚纺织品有限公司一带","startTime":"2018-06-22 08:00:00","stopDate":"2018-06-22 16:30:00","orgNo":"3340130","typeCode":"计划停电","poweroffArea":"110kV党山变:官一C944线-官一C944线金亚分线开关后段","poweroffReason":"配合群围变新出荣达线割接党山变天荣线58#杆后段负荷","powerTime":"2018-06-22 15:58:00","powerComm":"已送电","subsNo":"","lineNo":"","tgNo":"","tgName":null,"infoStatus":"1","orgName":"国网浙江杭州市萧山区供电有限公司","typeName":null,"infoStatusName":null,"dateDay":null,"orgNos":null,"nowTime":null,"countyName":null,"streetName":null,"villageName":null,"roadName":null,"communityName":null,"tranName":null,"sdLineName":null,"cityCode":"3340130","cityName":"国网浙江杭州市萧山区供电有限公司","provinceCode":null,"stopTime":"2018-06-22 16:30:00","powerType":"全部","powerOffArea":"110kV党山变:官一C944线-官一C944线金亚分线开关后段","powerOffReason":"配合群围变新出荣达线割接党山变天荣线58#杆后段负荷","powerOffId":"2018061331010154"},{"poweroffId":2018061331010153,"sgpoweroffId":null,"subsName":"","lineName":"10kV工贸A695线","pubTranName":"进化村16#变,杭州荧光灯具厂,杭州颖美塑料制品有限公司,杭州健成线业有限公司,进化村3#变,杭州萧山立发化纤有限公司变压器,进化村2#变,进化村4#变,进化村25#变,杭州萧山晟磊化纤有限公司,杭州宝牛铸造机械厂,浙江浙能天然气运行有限公司,进化村15#变,","scope":"浙江省杭州市萧山区瓜沥镇进化村及杭州荧光灯具厂、杭州萧山晟磊化纤有限公司、杭州健成先业有限公司、浙江浙能天然气运行有限公司、杭州颖美塑料制品有限公司、杭州宝牛铸造机械厂、杭州萧山立发化纤有限公司一带","startTime":"2018-06-21 08:15:00","stopDate":"2018-06-21 17:15:00","orgNo":"3340130","typeCode":"计划停电","poweroffArea":"110kV白川变:工贸A695线-工贸A695线进化村分线开关后段","poweroffReason":"工贸A695线16/09/B04#-16/09/B12#杆单改双工作","powerTime":"2018-06-21 16:56:24","powerComm":"已送电","subsNo":"","lineNo":"","tgNo":"","tgName":null,"infoStatus":"1","orgName":"国网浙江杭州市萧山区供电有限公司","typeName":null,"infoStatusName":null,"dateDay":null,"orgNos":null,"nowTime":null,"countyName":null,"streetName":null,"villageName":null,"roadName":null,"communityName":null,"tranName":null,"sdLineName":null,"cityCode":"3340130","cityName":"国网浙江杭州市萧山区供电有限公司","provinceCode":null,"stopTime":"2018-06-21 17:15:00","powerType":"全部","powerOffArea":"110kV白川变:工贸A695线-工贸A695线进化村分线开关后段","powerOffReason":"工贸A695线16/09/B04#-16/09/B12#杆单改双工作","powerOffId":"2018061331010153"},{"poweroffId":2018061331010152,"sgpoweroffId":null,"subsName":"","lineName":"10kV东升D165线","pubTranName":"大源镇3#文教公变,","scope":"浙江省-杭州市-富阳区-大源镇(亭山行政村-东升自然村);","startTime":"2018-06-13 13:07:56","stopDate":"2018-06-13 16:00:00","orgNo":"3340170","typeCode":"电网故障停限电","poweroffArea":"110kV大源变:东升D165线-大源镇3#文教公变后段","poweroffReason":"低压分支开关跳闸","powerTime":"2018-06-13 15:50:50","powerComm":"已送电","subsNo":"","lineNo":"","tgNo":"","tgName":null,"infoStatus":"1","orgName":"国网浙江杭州市富阳区供电公司","typeName":null,"infoStatusName":null,"dateDay":null,"orgNos":null,"nowTime":null,"countyName":null,"streetName":null,"villageName":null,"roadName":null,"communityName":null,"tranName":null,"sdLineName":null,"cityCode":"3340170","cityName":"国网浙江杭州市富阳区供电公司","provinceCode":null,"stopTime":"2018-06-13 16:00:00","powerType":"全部","powerOffArea":"110kV大源变:东升D165线-大源镇3#文教公变后段","powerOffReason":"低压分支开关跳闸","powerOffId":"2018061331010152"},{"poweroffId":2018061331010135,"sgpoweroffId":null,"subsName":"","lineName":"10kV栋山D410线","pubTranName":"后石路1#村中公变,","scope":"浙江省杭州市富阳区鹿山街道栋山村，后石路一带","startTime":"2018-06-13 12:30:00","stopDate":"2018-06-13 15:00:00","orgNo":"3340170","typeCode":"电网故障停限电","poweroffArea":"110kV长春变:栋山D410线-后石路1号村中后段","poweroffReason":"低压配电设备故障","powerTime":"2018-06-13 14:32:18","powerComm":"已送电","subsNo":"","lineNo":"","tgNo":"","tgName":null,"infoStatus":"1","orgName":"国网浙江杭州市富阳区供电公司","typeName":null,"infoStatusName":null,"dateDay":null,"orgNos":null,"nowTime":null,"countyName":null,"streetName":null,"villageName":null,"roadName":null,"communityName":null,"tranName":null,"sdLineName":null,"cityCode":"3340170","cityName":"国网浙江杭州市富阳区供电公司","provinceCode":null,"stopTime":"2018-06-13 15:00:00","powerType":"全部","powerOffArea":"110kV长春变:栋山D410线-后石路1号村中后段","powerOffReason":"低压配电设备故障","powerOffId":"2018061331010135"},{"poweroffId":2018061331010123,"sgpoweroffId":null,"subsName":"","lineName":"10kV檀村Y341线","pubTranName":"新叶村新叶台区,","scope":"浙江省-杭州市-建德市-大慈岩镇 新叶村一带用户","startTime":"2018-06-13 10:57:00","stopDate":"2018-06-13 17:03:54","orgNo":"3340180","typeCode":"电网故障停限电","poweroffArea":"110kV慈岩变:檀村Y341线-新叶村新叶台区后段","poweroffReason":"檀村Y341线-新叶村新叶台区 低压配电设备故障","powerTime":"2018-06-13 11:46:00","powerComm":"已送电","subsNo":"","lineNo":"","tgNo":"","tgName":null,"infoStatus":"1","orgName":"国网浙江建德市供电有限公司","typeName":null,"infoStatusName":null,"dateDay":null,"orgNos":null,"nowTime":null,"countyName":null,"streetName":null,"villageName":null,"roadName":null,"communityName":null,"tranName":null,"sdLineName":null,"cityCode":"3340180","cityName":"国网浙江建德市供电有限公司","provinceCode":null,"stopTime":"2018-06-13 17:03:54","powerType":"全部","powerOffArea":"110kV慈岩变:檀村Y341线-新叶村新叶台区后段","powerOffReason":"檀村Y341线-新叶村新叶台区 低压配电设备故障","powerOffId":"2018061331010123"},{"poweroffId":2018061331010075,"sgpoweroffId":null,"subsName":"","lineName":"10kV丽都C104线","pubTranName":"竹林寺1#公变,竹林寺1#公变,","scope":"浙江省-杭州市-萧山区-城厢街道江寺社区、浙江省杭州市萧山区城厢街道竹林寺、 韩家弄、文化路、万向城市花园业主委员会、 萧山交通银行、萧山日报社、城乡一体化建设办公室一带","startTime":"2018-06-13 09:01:30","stopDate":"2018-06-13 16:01:30","orgNo":"3340130","typeCode":"电网故障停限电","poweroffArea":"110kV丽都变:丽都C104线-竹林寺1#公变高压配电设备","poweroffReason":"高压配电设备故障","powerTime":"2018-06-13 12:56:36","powerComm":"已送电","subsNo":"","lineNo":"","tgNo":"","tgName":null,"infoStatus":"1","orgName":"国网浙江杭州市萧山区供电有限公司","typeName":null,"infoStatusName":null,"dateDay":null,"orgNos":null,"nowTime":null,"countyName":null,"streetName":null,"villageName":null,"roadName":null,"communityName":null,"tranName":null,"sdLineName":null,"cityCode":"3340130","cityName":"国网浙江杭州市萧山区供电有限公司","provinceCode":null,"stopTime":"2018-06-13 16:01:30","powerType":"全部","powerOffArea":"110kV丽都变:丽都C104线-竹林寺1#公变高压配电设备","powerOffReason":"高压配电设备故障","powerOffId":"2018061331010075"},{"poweroffId":2018061331010066,"sgpoweroffId":null,"subsName":"","lineName":"10kV钱农C681线","pubTranName":"同兴村5#变,","scope":"浙江省-杭州市-萧山区-新街镇(同兴行政村)、新街街道、新街镇同兴村一带","startTime":"2018-06-13 08:46:55","stopDate":"2018-06-13 17:47:32","orgNo":"3340130","typeCode":"电网故障停限电","poweroffArea":"110kV新街变:钱农C681线-同兴村5#变低压配电设施","poweroffReason":"低压配电设施故障","powerTime":"2018-06-13 15:52:02","powerComm":"已送电","subsNo":"","lineNo":"","tgNo":"","tgName":null,"infoStatus":"1","orgName":"国网浙江杭州市萧山区供电有限公司","typeName":null,"infoStatusName":null,"dateDay":null,"orgNos":null,"nowTime":null,"countyName":null,"streetName":null,"villageName":null,"roadName":null,"communityName":null,"tranName":null,"sdLineName":null,"cityCode":"3340130","cityName":"国网浙江杭州市萧山区供电有限公司","provinceCode":null,"stopTime":"2018-06-13 17:47:32","powerType":"全部","powerOffArea":"110kV新街变:钱农C681线-同兴村5#变低压配电设施","powerOffReason":"低压配电设施故障","powerOffId":"2018061331010066"},{"poweroffId":2018061331010061,"sgpoweroffId":null,"subsName":"","lineName":"笑岭750线","pubTranName":"","scope":"浙江省杭州市临安区青山湖街道青城山语间小区、景河家园小区、坞株脚村一带","startTime":"2018-06-13 08:39:34","stopDate":"2018-06-13 14:39:34","orgNo":"3340160","typeCode":"电网故障停限电","poweroffArea":"停科创变笑岭750线青城山语间公变台区低压开关","poweroffReason":"笑岭750线青城山语间公变台区低压开关跳","powerTime":"2018-06-13 14:06:39","powerComm":"已送电","subsNo":"","lineNo":"","tgNo":"","tgName":null,"infoStatus":"1","orgName":"国网浙江临安市供电公司","typeName":null,"infoStatusName":null,"dateDay":null,"orgNos":null,"nowTime":null,"countyName":null,"streetName":null,"villageName":null,"roadName":null,"communityName":null,"tranName":null,"sdLineName":null,"cityCode":"3340160","cityName":"国网浙江临安市供电公司","provinceCode":null,"stopTime":"2018-06-13 14:39:34","powerType":"全部","powerOffArea":"停科创变笑岭750线青城山语间公变台区低压开关","powerOffReason":"笑岭750线青城山语间公变台区低压开关跳","powerOffId":"2018061331010061"},{"poweroffId":2018061331010056,"sgpoweroffId":null,"subsName":"","lineName":"10kV航运C120线","pubTranName":"南市花园1#公变,","scope":"浙江省-杭州市-萧山区-城厢街道南市社区、南市花园小区一带","startTime":"2018-06-13 09:00:00","stopDate":"2018-06-13 13:00:00","orgNo":"3340130","typeCode":"电网故障停限电","poweroffArea":"110kV丽都变:航运C120线-南市花园1#公变高压配电设备","poweroffReason":"南市花园1#公变增量工程","powerTime":"2018-06-13 10:56:39","powerComm":"已送电","subsNo":"","lineNo":"","tgNo":"","tgName":null,"infoStatus":"1","orgName":"国网浙江杭州市萧山区供电有限公司","typeName":null,"infoStatusName":null,"dateDay":null,"orgNos":null,"nowTime":null,"countyName":null,"streetName":null,"villageName":null,"roadName":null,"communityName":null,"tranName":null,"sdLineName":null,"cityCode":"3340130","cityName":"国网浙江杭州市萧山区供电有限公司","provinceCode":null,"stopTime":"2018-06-13 13:00:00","powerType":"全部","powerOffArea":"110kV丽都变:航运C120线-南市花园1#公变高压配电设备","powerOffReason":"南市花园1#公变增量工程","powerOffId":"2018061331010056"}],"pageModel":{"pageNow":1660,"totalCount":17789,"totalPage":1779,"tableRows":0,"pageCount":10,"beginCount":16590},"isExperi":"1"}