{"message":"","today":"2020-06-16","seleList":[{"poweroffId":2018061331010050,"sgpoweroffId":null,"subsName":"","lineName":"10kV神龙362线","pubTranName":"龙虎村2#变,","scope":"浙江省-杭州市-萧山区-南阳街道龙虎行政村、龙虎自然村、龙虎村一带","startTime":"2018-06-13 08:18:35","stopDate":"2018-06-13 17:45:54","orgNo":"3340130","typeCode":"电网故障停限电","poweroffArea":"110kV河庄变:神龙362线-龙虎村2#变台区低压开关","poweroffReason":"低压架空导线断线故障","powerTime":"2018-06-13 16:40:42","powerComm":"已送电","subsNo":"","lineNo":"","tgNo":"","tgName":null,"infoStatus":"1","orgName":"国网浙江杭州市萧山区供电有限公司","typeName":null,"infoStatusName":null,"dateDay":null,"orgNos":null,"nowTime":null,"countyName":null,"streetName":null,"villageName":null,"roadName":null,"communityName":null,"tranName":null,"sdLineName":null,"cityCode":"3340130","cityName":"国网浙江杭州市萧山区供电有限公司","provinceCode":null,"stopTime":"2018-06-13 17:45:54","powerType":"全部","powerOffArea":"110kV河庄变:神龙362线-龙虎村2#变台区低压开关","powerOffReason":"低压架空导线断线故障","powerOffId":"2018061331010050"},{"poweroffId":2018061331010049,"sgpoweroffId":null,"subsName":"","lineName":"10kV至南162线","pubTranName":"大方新棚4号公变,","scope":"浙江省-杭州市-桐庐县-瑶琳镇(桃源行政村-大方自然村);","startTime":"2018-06-13 08:31:56","stopDate":"2018-06-13 12:31:56","orgNo":"3340150","typeCode":"电网故障停限电","poweroffArea":"35kV瑶琳变:至南162线-大方新棚4号公变后段","poweroffReason":"低压开关故障处理","powerTime":"2018-06-13 11:40:11","powerComm":"已送电","subsNo":"","lineNo":"","tgNo":"","tgName":null,"infoStatus":"1","orgName":"国网浙江桐庐县供电公司","typeName":null,"infoStatusName":null,"dateDay":null,"orgNos":null,"nowTime":null,"countyName":null,"streetName":null,"villageName":null,"roadName":null,"communityName":null,"tranName":null,"sdLineName":null,"cityCode":"3340150","cityName":"国网浙江桐庐县供电公司","provinceCode":null,"stopTime":"2018-06-13 12:31:56","powerType":"全部","powerOffArea":"35kV瑶琳变:至南162线-大方新棚4号公变后段","powerOffReason":"低压开关故障处理","powerOffId":"2018061331010049"},{"poweroffId":2018061331010048,"sgpoweroffId":null,"subsName":"","lineName":"10kV大市T141线","pubTranName":"烂田坞1号公变,","scope":"浙江省-杭州市-桐庐县-钟山乡(大市行政村-烂田坞自然村);","startTime":"2018-06-13 08:31:54","stopDate":"2018-06-13 14:31:54","orgNo":"3340150","typeCode":"电网故障停限电","poweroffArea":"35kV钟山变:大市T141线-烂田坞1号公变后段","poweroffReason":"低压开关故障处理","powerTime":"2018-06-13 14:08:02","powerComm":"已送电","subsNo":"","lineNo":"","tgNo":"","tgName":null,"infoStatus":"1","orgName":"国网浙江桐庐县供电公司","typeName":null,"infoStatusName":null,"dateDay":null,"orgNos":null,"nowTime":null,"countyName":null,"streetName":null,"villageName":null,"roadName":null,"communityName":null,"tranName":null,"sdLineName":null,"cityCode":"3340150","cityName":"国网浙江桐庐县供电公司","provinceCode":null,"stopTime":"2018-06-13 14:31:54","powerType":"全部","powerOffArea":"35kV钟山变:大市T141线-烂田坞1号公变后段","powerOffReason":"低压开关故障处理","powerOffId":"2018061331010048"},{"poweroffId":2018061331010047,"sgpoweroffId":null,"subsName":"","lineName":"10kV至南162线","pubTranName":"大方栗园1号公变,","scope":"浙江省-杭州市-桐庐县-瑶琳镇(桃源行政村-大方自然村);","startTime":"2018-06-13 08:30:26","stopDate":"2018-06-13 12:30:26","orgNo":"3340150","typeCode":"电网故障停限电","poweroffArea":"35kV瑶琳变:至南162线-大方栗园1号公变后段","poweroffReason":"低压开关故障处理","powerTime":"2018-06-13 11:40:51","powerComm":"已送电","subsNo":"","lineNo":"","tgNo":"","tgName":null,"infoStatus":"1","orgName":"国网浙江桐庐县供电公司","typeName":null,"infoStatusName":null,"dateDay":null,"orgNos":null,"nowTime":null,"countyName":null,"streetName":null,"villageName":null,"roadName":null,"communityName":null,"tranName":null,"sdLineName":null,"cityCode":"3340150","cityName":"国网浙江桐庐县供电公司","provinceCode":null,"stopTime":"2018-06-13 12:30:26","powerType":"全部","powerOffArea":"35kV瑶琳变:至南162线-大方栗园1号公变后段","powerOffReason":"低压开关故障处理","powerOffId":"2018061331010047"},{"poweroffId":2018061331010038,"sgpoweroffId":null,"subsName":"","lineName":"10kV蒋家D408线","pubTranName":"蒋家村16号富棉公变,","scope":"浙江省杭州市富阳区鹿山街道蒋家村一带","startTime":"2018-06-13 08:30:00","stopDate":"2018-06-13 12:00:00","orgNo":"3340170","typeCode":"电网故障停限电","poweroffArea":"110kV长春变:蒋家D408线-蒋家村16号富棉后段","poweroffReason":"低压配电设备故障","powerTime":"2018-06-13 11:45:00","powerComm":"已送电","subsNo":"","lineNo":"","tgNo":"","tgName":null,"infoStatus":"1","orgName":"国网浙江杭州市富阳区供电公司","typeName":null,"infoStatusName":null,"dateDay":null,"orgNos":null,"nowTime":null,"countyName":null,"streetName":null,"villageName":null,"roadName":null,"communityName":null,"tranName":null,"sdLineName":null,"cityCode":"3340170","cityName":"国网浙江杭州市富阳区供电公司","provinceCode":null,"stopTime":"2018-06-13 12:00:00","powerType":"全部","powerOffArea":"110kV长春变:蒋家D408线-蒋家村16号富棉后段","powerOffReason":"低压配电设备故障","powerOffId":"2018061331010038"},{"poweroffId":2018061331010037,"sgpoweroffId":null,"subsName":"","lineName":"10kV龙门D787线","pubTranName":"龙门一村6#龙四环桥头公变,","scope":"浙江省-杭州市-富阳区-龙门镇（龙门一村行政村-龙门一村自然村）一带；","startTime":"2018-06-13 08:50:47","stopDate":"2018-06-13 10:30:47","orgNo":"3340170","typeCode":"电网故障停限电","poweroffArea":"110kV王洲变:龙门D787线-龙门一村6号龙四环桥头公变后段","poweroffReason":"低压配电设备故障","powerTime":"2018-06-13 10:13:05","powerComm":"低压配电设备故障已排除","subsNo":"","lineNo":"","tgNo":"","tgName":null,"infoStatus":"1","orgName":"国网浙江杭州市富阳区供电公司","typeName":null,"infoStatusName":null,"dateDay":null,"orgNos":null,"nowTime":null,"countyName":null,"streetName":null,"villageName":null,"roadName":null,"communityName":null,"tranName":null,"sdLineName":null,"cityCode":"3340170","cityName":"国网浙江杭州市富阳区供电公司","provinceCode":null,"stopTime":"2018-06-13 10:30:47","powerType":"全部","powerOffArea":"110kV王洲变:龙门D787线-龙门一村6号龙四环桥头公变后段","powerOffReason":"低压配电设备故障","powerOffId":"2018061331010037"},{"poweroffId":2018061331010030,"sgpoweroffId":null,"subsName":"","lineName":"10kV惠围A128线","pubTranName":"宁牧村13#变,","scope":"浙江省-杭州市-萧山区-宁围镇、宁围街道、宁牧行政村-宁牧自然村、宁牧村、浙江省杭州市萧山区宁围镇宁牧村一带","startTime":"2018-06-13 08:00:54","stopDate":"2018-06-13 17:30:44","orgNo":"3340130","typeCode":"电网故障停限电","poweroffArea":"110kV惠兴变:惠围A128线-宁牧村13#变低压配电设施","poweroffReason":"低压配电设施故障","powerTime":"2018-06-13 16:28:04","powerComm":"已送电","subsNo":"","lineNo":"","tgNo":"","tgName":null,"infoStatus":"1","orgName":"国网浙江杭州市萧山区供电有限公司","typeName":null,"infoStatusName":null,"dateDay":null,"orgNos":null,"nowTime":null,"countyName":null,"streetName":null,"villageName":null,"roadName":null,"communityName":null,"tranName":null,"sdLineName":null,"cityCode":"3340130","cityName":"国网浙江杭州市萧山区供电有限公司","provinceCode":null,"stopTime":"2018-06-13 17:30:44","powerType":"全部","powerOffArea":"110kV惠兴变:惠围A128线-宁牧村13#变低压配电设施","powerOffReason":"低压配电设施故障","powerOffId":"2018061331010030"},{"poweroffId":2018061331010021,"sgpoweroffId":null,"subsName":"","lineName":"10kV丽都C104线","pubTranName":"韩家弄1#公变,","scope":"浙江省杭州市萧山区城厢街道江寺社区韩家弄、文化路、江寺路一带","startTime":"2018-06-13 07:40:12","stopDate":"2018-06-13 13:46:12","orgNo":"3340130","typeCode":"电网故障停限电","poweroffArea":"110kV丽都变:丽都C104线-韩家弄1#公变低压配电设备","poweroffReason":"低压配电设备故障","powerTime":"2018-06-13 09:14:35","powerComm":"已送电","subsNo":"","lineNo":"","tgNo":"","tgName":null,"infoStatus":"1","orgName":"国网浙江杭州市萧山区供电有限公司","typeName":null,"infoStatusName":null,"dateDay":null,"orgNos":null,"nowTime":null,"countyName":null,"streetName":null,"villageName":null,"roadName":null,"communityName":null,"tranName":null,"sdLineName":null,"cityCode":"3340130","cityName":"国网浙江杭州市萧山区供电有限公司","provinceCode":null,"stopTime":"2018-06-13 13:46:12","powerType":"全部","powerOffArea":"110kV丽都变:丽都C104线-韩家弄1#公变低压配电设备","powerOffReason":"低压配电设备故障","powerOffId":"2018061331010021"},{"poweroffId":2018061331010015,"sgpoweroffId":null,"subsName":"","lineName":"10kV和平C209线","pubTranName":"朱家坛村8#变,上海铁路局宁波车务段,朱家坛村11#变,朱家坛村3#变,朱家坛村2#变,三星小学,朱家坛村9#变,","scope":"浙江省-杭州市-萧山区-新塘街道(和平桥行政村,朱家坛行政村);浙江省-杭州市-萧山区-新塘街道(上海铁路局宁波车务段,萧山区三星小学);","startTime":"2018-06-21 08:30:00","stopDate":"2018-06-21 19:00:38","orgNo":"3340130","typeCode":"计划停电","poweroffArea":"110kV霞江变:和平C209线-城郊分线后段","poweroffReason":"朱家坛村8#变下250kVA上400kVA；朱家坛村9#变下250kVA上400kVA（EQC安装）","powerTime":"2018-06-21 18:55:08","powerComm":"已送电","subsNo":"","lineNo":"","tgNo":"","tgName":null,"infoStatus":"1","orgName":"国网浙江杭州市萧山区供电有限公司","typeName":null,"infoStatusName":null,"dateDay":null,"orgNos":null,"nowTime":null,"countyName":null,"streetName":null,"villageName":null,"roadName":null,"communityName":null,"tranName":null,"sdLineName":null,"cityCode":"3340130","cityName":"国网浙江杭州市萧山区供电有限公司","provinceCode":null,"stopTime":"2018-06-21 19:00:38","powerType":"全部","powerOffArea":"110kV霞江变:和平C209线-城郊分线后段","powerOffReason":"朱家坛村8#变下250kVA上400kVA；朱家坛村9#变下250kVA上400kVA（EQC安装）","powerOffId":"2018061331010015"},{"poweroffId":2018061231010351,"sgpoweroffId":null,"subsName":"","lineName":"10kV四围A492线","pubTranName":"三围村6#变,","scope":"浙江省-杭州市-萧山区-益农镇三围行政村、三围村、兴裕村、群围村、东沙村、东村村、新发村、益农镇朝阳夹口一带","startTime":"2018-06-12 22:10:57","stopDate":"2018-06-13 04:10:57","orgNo":"3340130","typeCode":"电网故障停限电","poweroffArea":"110kV群围变:四围A492线-三围村6#变台区低压开关","poweroffReason":"低压漏电保护器短路故障","powerTime":"2018-06-13 00:56:03","powerComm":"已送电","subsNo":"","lineNo":"","tgNo":"","tgName":null,"infoStatus":"1","orgName":"国网浙江杭州市萧山区供电有限公司","typeName":null,"infoStatusName":null,"dateDay":null,"orgNos":null,"nowTime":null,"countyName":null,"streetName":null,"villageName":null,"roadName":null,"communityName":null,"tranName":null,"sdLineName":null,"cityCode":"3340130","cityName":"国网浙江杭州市萧山区供电有限公司","provinceCode":null,"stopTime":"2018-06-13 04:10:57","powerType":"全部","powerOffArea":"110kV群围变:四围A492线-三围村6#变台区低压开关","powerOffReason":"低压漏电保护器短路故障","powerOffId":"2018061231010351"}],"pageModel":{"pageNow":1661,"totalCount":17789,"totalPage":1779,"tableRows":0,"pageCount":10,"beginCount":16600},"isExperi":"1"}