{"message":"","today":"2020-06-15","seleList":[{"poweroffId":2020051531020397,"sgpoweroffId":null,"subsName":"","lineName":"10kV栋山D410线","pubTranName":"坞口村3#长南坞公变,","scope":"浙江省-杭州市-富阳区-鹿山街道-汤家埠行政村-汤家埠自然村,鹿山街道-三合行政村(坞口自然村,长南坞自然村)","startTime":"2020-05-25 08:30:00","stopDate":"2020-05-25 17:00:00","orgNo":"3340170","typeCode":"计划停电","poweroffArea":"110kV长春变:栋山D410线-坞口村3#长南坞公变后段","poweroffReason":"(低压停电信息)中铁十二局集团有限公司湖杭铁路项目经理部三分部线路迁改工程：低压配合停电等工作","powerTime":"2020-05-25 16:50:41","powerComm":"已送电","subsNo":"","lineNo":"","tgNo":"","tgName":null,"infoStatus":"1","orgName":"国网浙江杭州市富阳区供电公司","typeName":null,"infoStatusName":null,"dateDay":null,"orgNos":null,"nowTime":null,"countyName":null,"streetName":null,"villageName":null,"roadName":null,"communityName":null,"tranName":null,"sdLineName":null,"cityCode":"3340170","cityName":"国网浙江杭州市富阳区供电公司","provinceCode":null,"stopTime":"2020-05-25 17:00:00","powerType":"全部","powerOffArea":"110kV长春变:栋山D410线-坞口村3#长南坞公变后段","powerOffReason":"(低压停电信息)中铁十二局集团有限公司湖杭铁路项目经理部三分部线路迁改工程：低压配合停电等工作","powerOffId":"2020051531020397"},{"poweroffId":2020051531020395,"sgpoweroffId":null,"subsName":"","lineName":"10kV蒋家D408线","pubTranName":"蒋家村16号富棉公变,","scope":"浙江省-杭州市-富阳区-鹿山街道-南山行政村-晖山自然村,鹿山街道-蒋家行政村(青春路,蒋家自然村,中心路,环厂路,阳光路,最光路,徐家路)","startTime":"2020-05-25 08:30:00","stopDate":"2020-05-25 17:00:00","orgNo":"3340170","typeCode":"计划停电","poweroffArea":"110kV长春变:蒋家D408线-蒋家村16号富棉公变后段","poweroffReason":"(低压停电信息)中铁十二局集团有限公司湖杭铁路项目经理部三分部线路迁改工程：低压配合停电等工作","powerTime":"2020-05-25 16:50:19","powerComm":"已送电","subsNo":"","lineNo":"","tgNo":"","tgName":null,"infoStatus":"1","orgName":"国网浙江杭州市富阳区供电公司","typeName":null,"infoStatusName":null,"dateDay":null,"orgNos":null,"nowTime":null,"countyName":null,"streetName":null,"villageName":null,"roadName":null,"communityName":null,"tranName":null,"sdLineName":null,"cityCode":"3340170","cityName":"国网浙江杭州市富阳区供电公司","provinceCode":null,"stopTime":"2020-05-25 17:00:00","powerType":"全部","powerOffArea":"110kV长春变:蒋家D408线-蒋家村16号富棉公变后段","powerOffReason":"(低压停电信息)中铁十二局集团有限公司湖杭铁路项目经理部三分部线路迁改工程：低压配合停电等工作","powerOffId":"2020051531020395"},{"poweroffId":2020051531020390,"sgpoweroffId":null,"subsName":"","lineName":"10kV安置A698线","pubTranName":"房管所2#公变,源昌公变,明朗花园1#公变,杭州萧山粮食购销有限责任公司瓜沥分公司,恒安公寓公变,航安公变,2#变,农行公变,农贸公变,俱乐部公变,明朗公变,於家娄公变,萧山市邮电局瓜沥中心支局,一小公变,航民小城家园2#变,杭州肯德基有限公司,航坞A区2#公变,新区公变,东灵桥公变,杭州明华置业有限公司,杭州萧山瓜沥镇明朗村经济联合社,瓜沥港丽图文设计室变压器,瓜沥供电所,杭州萧山歌得曼餐饮娱乐有限公司,中国农业银行股份有限公司杭州瓜沥支行,瓜沥镇机场安置区8#变,房管所1#公变,镇建公变,镇中公变,杭州市萧山区瓜沥镇人民政府2#,塘北公变,航民小城家园1#变,杭州市萧山区瓜沥镇人民政府9#,人民医院公变,杭州珏佳工艺品有限公司,农贸2#公变,1#,建行公变,塘头公变,杭州市萧山区瓜沥镇人民政府12#,航坞A区1#公变,明朗花园2#公变,杭州市萧山区第二人民医院,桥北公变,杭州市萧山区瓜沥镇人民政府,2#变,杭州市烟草公司萧山分公司,任家娄公变,","scope":"浙江省-杭州市-萧山区-瓜沥镇-友谊行政村-名店广场,瓜沥镇-芭蕉砚社区(人民路,东灵路,东灵路213号,於家楼路,殿下路,航坞路,航坞路137-1号,冶金弄,任家溇路26-3号,任家楼路,人民路846号,人民路781号,塘头街,剧院弄,中街,环保弄,人民路34号,明朗路,任家路,任家娄路,西街,人民路9号,马家弄,恒安公寓,金家弄),瓜沥镇-航民行政村(七区,建行南新建小区,航民自然村),瓜沥镇-明朗行政村(小桥头横弄,小桥头直弄,航坞小区,人民路,瓜南路,商贸街,小桥头路,17组明朗路,明朗自然村,东灵路,明朗路),瓜沥镇-城中社区(东灵路,塘北中路,红友桥路,塘北中路南巷,东灵北路),瓜沥镇-塘头社区(商贸公寓,人民路),瓜沥镇-航坞社区(商贸街,商贸公寓,东灵路,商贸路,航坞路,人民路,航坞小区),瓜沥镇-东灵社区(东灵路,航坞路,航坞路359-3号,航南公寓,航坞小区,航坞路331号,航南公寓小区,东灵苑小区,商贸路,明朗花园,明朗花园小区);瓜沥镇-东灵社区(杭州萧山瓜沥港丽图文设计室,杭州市萧山区瓜沥镇人民政府,杭州萧山歌得曼餐饮娱乐有限公司,杭州市萧山区第二人民医院,浙江开元物业管理股份有限公司萧山瓜沥分公司,杭州市萧山区第八高级中学),瓜沥镇-城中社区(杭州珏佳工艺品有限公司,国网浙江杭州市萧山区供电公司(瓜沥供电所)),瓜沥镇-航坞社区(中国农业银行股份有限公司萧山分行,杭州市萧山区瓜沥镇人民政府,杭州萧山粮食购销有限责任公司瓜沥分公司,杭州市烟草公司萧山分公司,杭州肯德基有限公司,中国邮政集团公司杭州市萧山区分公司),瓜沥镇(明朗行政村-杭州萧山瓜沥镇明朗村经济联合社,东恩行政村-萧山区任伯年小学)等","startTime":"2020-05-15 13:40:13","stopDate":"2020-05-15 15:50:13","orgNo":"3340130","typeCode":"电网故障停限电","poweroffArea":"110kV白川变:安置A698线","poweroffReason":"高压柱上断路器跳闸 原停电结束时间为2020-05-15 18:00:13,为减少客户停电时间,加快工作进度,提前送电,现变更停电结束时间为2020-05-15 15:50:13","powerTime":"2020-05-15 15:08:35","powerComm":"已送电","subsNo":"","lineNo":"","tgNo":"","tgName":null,"infoStatus":"1","orgName":"国网浙江杭州市萧山区供电有限公司","typeName":null,"infoStatusName":null,"dateDay":null,"orgNos":null,"nowTime":null,"countyName":null,"streetName":null,"villageName":null,"roadName":null,"communityName":null,"tranName":null,"sdLineName":null,"cityCode":"3340130","cityName":"国网浙江杭州市萧山区供电有限公司","provinceCode":null,"stopTime":"2020-05-15 15:50:13","powerType":"全部","powerOffArea":"110kV白川变:安置A698线","powerOffReason":"高压柱上断路器跳闸 原停电结束时间为2020-05-15 18:00:13,为减少客户停电时间,加快工作进度,提前送电,现变更停电结束时间为2020-05-15 15:50:13","powerOffId":"2020051531020390"},{"poweroffId":2020051531020388,"sgpoweroffId":null,"subsName":"","lineName":"10kV阳山D615线","pubTranName":"徐家村2#塘华上塘公变,","scope":"浙江省-杭州市-富阳区-场口镇-徐家行政村-塘华自然村一带","startTime":"2020-05-21 08:30:00","stopDate":"2020-05-21 16:30:00","orgNo":"3340170","typeCode":"临时停电","poweroffArea":"110kV鸿丰变:阳山D615线-徐家村2#塘华上塘公变低压出线后段","poweroffReason":"(低压停电信息)场口镇精品村精品线路移位工程：徐家村2#塘华上塘公变低压2#开关2#出线、3#开关3#出线1#杆-4#杆之间拆移双回路导线3档、单回路导线3档，更换入户线5处，拆除电杆7支等工作。","powerTime":"2020-05-21 16:21:23","powerComm":"已送电","subsNo":"","lineNo":"","tgNo":"","tgName":null,"infoStatus":"1","orgName":"国网浙江杭州市富阳区供电公司","typeName":null,"infoStatusName":null,"dateDay":null,"orgNos":null,"nowTime":null,"countyName":null,"streetName":null,"villageName":null,"roadName":null,"communityName":null,"tranName":null,"sdLineName":null,"cityCode":"3340170","cityName":"国网浙江杭州市富阳区供电公司","provinceCode":null,"stopTime":"2020-05-21 16:30:00","powerType":"全部","powerOffArea":"110kV鸿丰变:阳山D615线-徐家村2#塘华上塘公变低压出线后段","powerOffReason":"(低压停电信息)场口镇精品村精品线路移位工程：徐家村2#塘华上塘公变低压2#开关2#出线、3#开关3#出线1#杆-4#杆之间拆移双回路导线3档、单回路导线3档，更换入户线5处，拆除电杆7支等工作。","powerOffId":"2020051531020388"},{"poweroffId":2020051531020387,"sgpoweroffId":null,"subsName":"","lineName":"10kV红卫G801线","pubTranName":"陈家木桥村下祥河,陈家木桥村1组2号公变,中启橱柜400,杭州杰西嘉机械有限公司,秀美窗帘秀美窗帘,公安局服务保障中心,杭州溢佳制衣有限公司,杭州浙泰电气有限公司,方汇建筑基建变,浙江品冠家具制造有限公司,浙江欧伦电气有限公司,杭州鹏飞食品有限公司,杭州万吉织造有限公司,杭州古歌实业有限公司,临平针织厂250配变,庄里村经联社,陈家木桥村一组,杭州伟富,杭州星宇石材装饰有限公司,杭州舜邦户外用品有限公司,杭州杭正电子科技有限公司,浙江欧伦电气有限公司,倍仕得,杭州伟富毛绒纺织有限公司,浙江瑞盛石业有限公司,","scope":"浙江省-杭州市-余杭区-临平街道-陈家木桥行政村-陈家木桥自然村;经济开发区-陈家木桥社区(杭州杭正电子科技有限公司,浙江欧伦电气有限公司,杭州恒远建筑有限公司),临平街道-陈家木桥社区(浙江瑞盛石业有限公司,浙江欧伦电气有限公司,杭州溢佳制衣有限公司),东湖街道-经济开发区(杭州方汇建设工程检测有限公司,浙江品冠家具制造有限公司,杭州市公安局余杭区分局服务保障中心,杭州浙泰电气有限公司,杭州环桥丝织品有限公司,杭州恒雄展示器材有限公司,杭州鹏飞食品有限公司,杭州凯超养老投资管理有限公司,杭州杰西嘉机械有限公司,杭州星宇链业有限公司,杭州中启橱柜有限公司,杭州超路实业有限公司,浙江中仑企业管理有限公司),临平街道-南公河行政村-杭州海豪实业有限公司,经济开发区-红丰社区-倍仕得电气科技(杭州)股份有限公司,运河街道-亭趾行政村-杭州凯超养老投资管理有限公司","startTime":"2020-05-15 13:45:39","stopDate":"2020-05-15 15:45:39","orgNo":"3340140","typeCode":"电网故障停限电","poweroffArea":"110kV建富变:红卫G801线-下祥河分线开关后段","poweroffReason":"高压开关跳闸","powerTime":"2020-05-15 14:56:00","powerComm":"已送电","subsNo":"","lineNo":"","tgNo":"","tgName":null,"infoStatus":"1","orgName":"国网浙江杭州市余杭区供电有限公司","typeName":null,"infoStatusName":null,"dateDay":null,"orgNos":null,"nowTime":null,"countyName":null,"streetName":null,"villageName":null,"roadName":null,"communityName":null,"tranName":null,"sdLineName":null,"cityCode":"3340140","cityName":"国网浙江杭州市余杭区供电有限公司","provinceCode":null,"stopTime":"2020-05-15 15:45:39","powerType":"全部","powerOffArea":"110kV建富变:红卫G801线-下祥河分线开关后段","powerOffReason":"高压开关跳闸","powerOffId":"2020051531020387"},{"poweroffId":2020051531020384,"sgpoweroffId":null,"subsName":"","lineName":"10kV宝地H609线","pubTranName":"亲和力餐饮,中石油,盐业公司,余杭自来水厂,余杭中心卫生院,","scope":"浙江省-杭州市-余杭区-余杭街道(杭州丰鑫酒店管理有限公司,杭州市余杭区余杭镇社区卫生服务中心,杭州市盐业有限公司余杭分公司,杭州中油石油天然气销售有限公司,杭州余杭未来科技城供排水有限公司)","startTime":"2020-05-15 13:39:00","stopDate":"2020-05-15 15:39:00","orgNo":"3340140","typeCode":"电网故障停限电","poweroffArea":"110kV桃源变:宝地H609线华府开关站中石油分线后段","poweroffReason":"高压开关跳闸","powerTime":"2020-05-15 15:31:00","powerComm":"已送电","subsNo":"","lineNo":"","tgNo":"","tgName":null,"infoStatus":"1","orgName":"国网浙江杭州市余杭区供电有限公司","typeName":null,"infoStatusName":null,"dateDay":null,"orgNos":null,"nowTime":null,"countyName":null,"streetName":null,"villageName":null,"roadName":null,"communityName":null,"tranName":null,"sdLineName":null,"cityCode":"3340140","cityName":"国网浙江杭州市余杭区供电有限公司","provinceCode":null,"stopTime":"2020-05-15 15:39:00","powerType":"全部","powerOffArea":"110kV桃源变:宝地H609线华府开关站中石油分线后段","powerOffReason":"高压开关跳闸","powerOffId":"2020051531020384"},{"poweroffId":2020051531020382,"sgpoweroffId":null,"subsName":"","lineName":"10kV双林D786线","pubTranName":"真佳溪村17#叉路口公变,","scope":"浙江省-杭州市-富阳区-场口镇-真佳溪行政村一带","startTime":"2020-05-24 08:30:00","stopDate":"2020-05-24 14:30:00","orgNo":"3340170","typeCode":"计划停电","poweroffArea":"110kV王洲变:双林D786线-真佳溪村17#叉路口公变低压出线后段","poweroffReason":"(低压停电信息)场口2020年青江新区1#公变等台区10千伏增容布点工程：真佳溪村17#叉路口公变2#出线1#杆-5#杆、3#出线1#杆-2#杆之间拆除低压导线1档，拆移集束导线1档，新出低压电缆2根及电缆上杆搭接等工作。","powerTime":"2020-05-24 14:20:19","powerComm":"已送电","subsNo":"","lineNo":"","tgNo":"","tgName":null,"infoStatus":"1","orgName":"国网浙江杭州市富阳区供电公司","typeName":null,"infoStatusName":null,"dateDay":null,"orgNos":null,"nowTime":null,"countyName":null,"streetName":null,"villageName":null,"roadName":null,"communityName":null,"tranName":null,"sdLineName":null,"cityCode":"3340170","cityName":"国网浙江杭州市富阳区供电公司","provinceCode":null,"stopTime":"2020-05-24 14:30:00","powerType":"全部","powerOffArea":"110kV王洲变:双林D786线-真佳溪村17#叉路口公变低压出线后段","powerOffReason":"(低压停电信息)场口2020年青江新区1#公变等台区10千伏增容布点工程：真佳溪村17#叉路口公变2#出线1#杆-5#杆、3#出线1#杆-2#杆之间拆除低压导线1档，拆移集束导线1档，新出低压电缆2根及电缆上杆搭接等工作。","powerOffId":"2020051531020382"},{"poweroffId":2020051531020362,"sgpoweroffId":null,"subsName":"","lineName":"10kV贤德D333线","pubTranName":"文村村7#巨龙剪家坞公变,","scope":"浙江省-杭州市-富阳区-洞桥镇-文村行政村(赤水坞自然村,巨龙自然村,对山自然村,文村自然村)","startTime":"2020-05-15 13:09:55","stopDate":"2020-05-15 15:09:55","orgNo":"3340170","typeCode":"电网故障停限电","poweroffArea":"110kV万市变:贤德D333线-文村村7#巨龙剪家坞公变后段","poweroffReason":"(低压停电信息)低压开关跳闸 原停电结束时间为2020-05-15 14:09:55,因工作难度大原因,延迟送电,现变更停电结束时间为2020-05-15 15:09:55","powerTime":"2020-05-15 14:55:15","powerComm":"已送电","subsNo":"","lineNo":"","tgNo":"","tgName":null,"infoStatus":"1","orgName":"国网浙江杭州市富阳区供电公司","typeName":null,"infoStatusName":null,"dateDay":null,"orgNos":null,"nowTime":null,"countyName":null,"streetName":null,"villageName":null,"roadName":null,"communityName":null,"tranName":null,"sdLineName":null,"cityCode":"3340170","cityName":"国网浙江杭州市富阳区供电公司","provinceCode":null,"stopTime":"2020-05-15 15:09:55","powerType":"全部","powerOffArea":"110kV万市变:贤德D333线-文村村7#巨龙剪家坞公变后段","powerOffReason":"(低压停电信息)低压开关跳闸 原停电结束时间为2020-05-15 14:09:55,因工作难度大原因,延迟送电,现变更停电结束时间为2020-05-15 15:09:55","powerOffId":"2020051531020362"},{"poweroffId":2020051531020349,"sgpoweroffId":null,"subsName":"","lineName":"10kV百岁T168线","pubTranName":"方吴村4号公变,","scope":"浙江省-杭州市-桐庐县-瑶琳镇-永安行政村-方吴自然村","startTime":"2020-05-28 08:30:00","stopDate":"2020-05-28 14:30:00","orgNo":"3340150","typeCode":"计划停电","poweroffArea":"35kV瑶琳变:百岁T168线-方吴村4号公变后段","poweroffReason":"临金高速方吴村线路迁改工程","powerTime":"2020-05-28 14:18:17","powerComm":"已送电","subsNo":"","lineNo":"","tgNo":"","tgName":null,"infoStatus":"1","orgName":"国网浙江桐庐县供电公司","typeName":null,"infoStatusName":null,"dateDay":null,"orgNos":null,"nowTime":null,"countyName":null,"streetName":null,"villageName":null,"roadName":null,"communityName":null,"tranName":null,"sdLineName":null,"cityCode":"3340150","cityName":"国网浙江桐庐县供电公司","provinceCode":null,"stopTime":"2020-05-28 14:30:00","powerType":"全部","powerOffArea":"35kV瑶琳变:百岁T168线-方吴村4号公变后段","powerOffReason":"临金高速方吴村线路迁改工程","powerOffId":"2020051531020349"},{"poweroffId":2020051531020348,"sgpoweroffId":null,"subsName":"","lineName":"10kV百岁T168线","pubTranName":"方吴新村8号公变,","scope":"浙江省-杭州市-桐庐县-瑶琳镇-永安行政村-方吴自然村","startTime":"2020-05-28 08:30:00","stopDate":"2020-05-28 14:30:00","orgNo":"3340150","typeCode":"计划停电","poweroffArea":"35kV瑶琳变:百岁T168线-方吴新村F6265开关后段","poweroffReason":"临金高速方吴村线路迁改工程","powerTime":"2020-05-28 14:17:58","powerComm":"已送电","subsNo":"","lineNo":"","tgNo":"","tgName":null,"infoStatus":"1","orgName":"国网浙江桐庐县供电公司","typeName":null,"infoStatusName":null,"dateDay":null,"orgNos":null,"nowTime":null,"countyName":null,"streetName":null,"villageName":null,"roadName":null,"communityName":null,"tranName":null,"sdLineName":null,"cityCode":"3340150","cityName":"国网浙江桐庐县供电公司","provinceCode":null,"stopTime":"2020-05-28 14:30:00","powerType":"全部","powerOffArea":"35kV瑶琳变:百岁T168线-方吴新村F6265开关后段","powerOffReason":"临金高速方吴村线路迁改工程","powerOffId":"2020051531020348"}],"pageModel":{"pageNow":168,"totalCount":17788,"totalPage":1779,"tableRows":0,"pageCount":10,"beginCount":1670},"isExperi":"1"}