{"message":"","today":"2020-06-16","seleList":[{"poweroffId":2018061231010331,"sgpoweroffId":null,"subsName":"","lineName":"10kV新北A387线","pubTranName":"新安村8#变,","scope":"浙江省-杭州市-萧山区-宁围镇、宁围街道、新安行政村、新安村等一带","startTime":"2018-06-12 18:35:21","stopDate":"2018-06-13 00:35:21","orgNo":"3340130","typeCode":"电网故障停限电","poweroffArea":"110kV顺坝变:新北A387线-新安村8#变低压配电设施","poweroffReason":"低压配电设施故障","powerTime":"2018-06-12 19:45:27","powerComm":"已送电","subsNo":"","lineNo":"","tgNo":"","tgName":null,"infoStatus":"1","orgName":"国网浙江杭州市萧山区供电有限公司","typeName":null,"infoStatusName":null,"dateDay":null,"orgNos":null,"nowTime":null,"countyName":null,"streetName":null,"villageName":null,"roadName":null,"communityName":null,"tranName":null,"sdLineName":null,"cityCode":"3340130","cityName":"国网浙江杭州市萧山区供电有限公司","provinceCode":null,"stopTime":"2018-06-13 00:35:21","powerType":"全部","powerOffArea":"110kV顺坝变:新北A387线-新安村8#变低压配电设施","powerOffReason":"低压配电设施故障","powerOffId":"2018061231010331"},{"poweroffId":2018061231010329,"sgpoweroffId":null,"subsName":"","lineName":"10kV龙虎C704线","pubTranName":"永利村1#变,","scope":"浙江省-杭州市-萧山区-南阳街道永利行政村、南阳街道远大行政村、永利村、远大村一带","startTime":"2018-06-12 18:30:41","stopDate":"2018-06-13 00:20:48","orgNo":"3340130","typeCode":"电网故障停限电","poweroffArea":"35kV赭山变:龙虎C704线-永利村1#变台区低压开关","poweroffReason":"低压漏电保护器短路故障","powerTime":"2018-06-12 19:48:23","powerComm":"已送电","subsNo":"","lineNo":"","tgNo":"","tgName":null,"infoStatus":"1","orgName":"国网浙江杭州市萧山区供电有限公司","typeName":null,"infoStatusName":null,"dateDay":null,"orgNos":null,"nowTime":null,"countyName":null,"streetName":null,"villageName":null,"roadName":null,"communityName":null,"tranName":null,"sdLineName":null,"cityCode":"3340130","cityName":"国网浙江杭州市萧山区供电有限公司","provinceCode":null,"stopTime":"2018-06-13 00:20:48","powerType":"全部","powerOffArea":"35kV赭山变:龙虎C704线-永利村1#变台区低压开关","powerOffReason":"低压漏电保护器短路故障","powerOffId":"2018061231010329"},{"poweroffId":2018061231010282,"sgpoweroffId":null,"subsName":"","lineName":"10kV下汤V143线","pubTranName":"临安市龙岗宾馆有限公司,","scope":"浙江省-杭州市-临安市-龙岗宾馆有限公司一带。","startTime":"2018-06-20 07:10:00","stopDate":"2018-06-20 16:50:00","orgNo":"3340160","typeCode":"计划停电","poweroffArea":"110kV龙岗变:下汤V143线-下汤143线31#配变令克后段","poweroffReason":"下汤V143线31#杆临安市龙岗宾馆有限公司配变令克配合小城镇土建施工停电。","powerTime":"2018-06-20 16:40:12","powerComm":"全部送电","subsNo":"","lineNo":"","tgNo":"","tgName":null,"infoStatus":"1","orgName":"国网浙江临安市供电公司","typeName":null,"infoStatusName":null,"dateDay":null,"orgNos":null,"nowTime":null,"countyName":null,"streetName":null,"villageName":null,"roadName":null,"communityName":null,"tranName":null,"sdLineName":null,"cityCode":"3340160","cityName":"国网浙江临安市供电公司","provinceCode":null,"stopTime":"2018-06-20 16:50:00","powerType":"全部","powerOffArea":"110kV龙岗变:下汤V143线-下汤143线31#配变令克后段","powerOffReason":"下汤V143线31#杆临安市龙岗宾馆有限公司配变令克配合小城镇土建施工停电。","powerOffId":"2018061231010282"},{"poweroffId":2018061231010279,"sgpoweroffId":null,"subsName":"","lineName":"10kV东村A488线","pubTranName":"民围村5#变,","scope":"浙江省-杭州市-萧山区-益农镇民围行政村、东村村、益农村、东江村、新发村、三围村、兴裕村、群围村一带","startTime":"2018-06-12 18:20:35","stopDate":"2018-06-12 23:50:06","orgNo":"3340130","typeCode":"电网故障停限电","poweroffArea":"110kV群围变:东村A488线-民围村5#变台区低压开关","poweroffReason":"低压架空导线断线故障","powerTime":"2018-06-12 22:42:58","powerComm":"已送电","subsNo":"","lineNo":"","tgNo":"","tgName":null,"infoStatus":"1","orgName":"国网浙江杭州市萧山区供电有限公司","typeName":null,"infoStatusName":null,"dateDay":null,"orgNos":null,"nowTime":null,"countyName":null,"streetName":null,"villageName":null,"roadName":null,"communityName":null,"tranName":null,"sdLineName":null,"cityCode":"3340130","cityName":"国网浙江杭州市萧山区供电有限公司","provinceCode":null,"stopTime":"2018-06-12 23:50:06","powerType":"全部","powerOffArea":"110kV群围变:东村A488线-民围村5#变台区低压开关","powerOffReason":"低压架空导线断线故障","powerOffId":"2018061231010279"},{"poweroffId":2018061231010274,"sgpoweroffId":null,"subsName":"","lineName":"10kV月明9011线","pubTranName":"豪西十变,豪农专,豪西八变,豪西四变,豪西二变,豪西六变,","scope":"浙江省-杭州市-滨江区-长河街道(月明社区-江南豪园小区);浙江省-杭州市-滨江区(杭州江南豪园农贸市场);浙江省杭州市滨江区江南豪园小区10幢、12幢、14幢、15幢1单元、15幢2单元、16幢居民用电及公用主供，9幢、11幢、13幢、15幢3单元、15幢4单元、17幢公用备供","startTime":"2018-06-28 09:00:00","stopDate":"2018-06-28 19:00:00","orgNo":"3340101","typeCode":"计划停电","poweroffArea":"110kV江一变:月明9011线-豪西十变后段；月明9011线-豪农专后段；月明9011线-豪西四变后段；月明9011线-豪西八变后段；月明9011线-豪西六变后段；月明9011线-豪西二变后段","poweroffReason":"南园站II段缺陷紧急换柜（城源）（自动化需科技公司配合）","powerTime":"2018-06-28 18:26:18","powerComm":"已送电","subsNo":"","lineNo":"","tgNo":"","tgName":null,"infoStatus":"1","orgName":"浙江杭州电力客户服务中心","typeName":null,"infoStatusName":null,"dateDay":null,"orgNos":null,"nowTime":null,"countyName":null,"streetName":null,"villageName":null,"roadName":null,"communityName":null,"tranName":null,"sdLineName":null,"cityCode":"3340101","cityName":"浙江杭州电力客户服务中心","provinceCode":null,"stopTime":"2018-06-28 19:00:00","powerType":"全部","powerOffArea":"110kV江一变:月明9011线-豪西十变后段；月明9011线-豪农专后段；月明9011线-豪西四变后段；月明9011线-豪西八变后段；月明9011线-豪西六变后段；月明9011线-豪西二变后段","powerOffReason":"南园站II段缺陷紧急换柜（城源）（自动化需科技公司配合）","powerOffId":"2018061231010274"},{"poweroffId":2018061231010271,"sgpoweroffId":null,"subsName":"","lineName":"10kV春联394线","pubTranName":"下城2号公变,","scope":"浙江省-杭州市-桐庐县-城南街道(金中行政村-下城自然村);","startTime":"2018-06-12 16:45:12","stopDate":"2018-06-12 23:07:57","orgNo":"3340150","typeCode":"电网故障停限电","poweroffArea":"110kV迎春变:春联394线-下城2号公变后段","poweroffReason":"低压开关故障","powerTime":"2018-06-12 18:27:41","powerComm":"已送电。","subsNo":"","lineNo":"","tgNo":"","tgName":null,"infoStatus":"1","orgName":"国网浙江桐庐县供电公司","typeName":null,"infoStatusName":null,"dateDay":null,"orgNos":null,"nowTime":null,"countyName":null,"streetName":null,"villageName":null,"roadName":null,"communityName":null,"tranName":null,"sdLineName":null,"cityCode":"3340150","cityName":"国网浙江桐庐县供电公司","provinceCode":null,"stopTime":"2018-06-12 23:07:57","powerType":"全部","powerOffArea":"110kV迎春变:春联394线-下城2号公变后段","powerOffReason":"低压开关故障","powerOffId":"2018061231010271"},{"poweroffId":2018061231010267,"sgpoweroffId":null,"subsName":"","lineName":"10kV梧村T244线","pubTranName":"梧村3号公变,梧村1号公变,","scope":"浙江省-杭州市-桐庐县-江南镇(梧村行政村-梧村自然村);","startTime":"2018-06-22 07:00:00","stopDate":"2018-06-22 17:30:00","orgNo":"3340150","typeCode":"计划停电","poweroffArea":"110kV石阜变:梧村T244线-梧村F5308令克后段；梧村T244线-梧村F5310令克后段","poweroffReason":"1、梧村1号公变、梧村3号公变配变增容及进出线电缆搭接工作 2、低压出线电缆更换及搭接工作 3、立杆、金具安装、导线调换及搭接工作","powerTime":"2018-06-22 17:20:22","powerComm":"已送电","subsNo":"","lineNo":"","tgNo":"","tgName":null,"infoStatus":"1","orgName":"国网浙江桐庐县供电公司","typeName":null,"infoStatusName":null,"dateDay":null,"orgNos":null,"nowTime":null,"countyName":null,"streetName":null,"villageName":null,"roadName":null,"communityName":null,"tranName":null,"sdLineName":null,"cityCode":"3340150","cityName":"国网浙江桐庐县供电公司","provinceCode":null,"stopTime":"2018-06-22 17:30:00","powerType":"全部","powerOffArea":"110kV石阜变:梧村T244线-梧村F5308令克后段；梧村T244线-梧村F5310令克后段","powerOffReason":"1、梧村1号公变、梧村3号公变配变增容及进出线电缆搭接工作 2、低压出线电缆更换及搭接工作 3、立杆、金具安装、导线调换及搭接工作","powerOffId":"2018061231010267"},{"poweroffId":2018061231010250,"sgpoweroffId":null,"subsName":"","lineName":"10kV义园A40线","pubTranName":"鸿都置业3#,成兴包装,鸿都置业4#,金泉村7#变,金泉村3#变,金星村1#变,金泉村12#变,01,电动汽车,金星村7#变,鸿都置业2#,九中,仁丰实业,日芝电汽(一),金泉村5#变,鸿都置业1#,恒祥橡塑厂,红金配变,大威减速机,云宝五金,金泉村6#变,金泉村10#变,金泉村4#变,义蓬村青春12#变,正涛锈品,特种玻璃1#,杰恩达纺织厂1#,陈氏饮料厂,信道塑料,九中,九中2#,发达橡塑厂,九中2#,伟盛实业2,普威实业,皆男机械,义蓬村青春13#变,信道塑料,特种玻璃2#,杰恩达纺织厂2#,01,佳联工具,","scope":"浙江省-杭州市-萧山区,义蓬街道(白浪行政村,金泉行政村,金星行政村),浙江省杭州市萧山区义蓬街道金泉村、义蓬青春村、日芝电汽有限公司、普威实业有限公司、杰恩达纺织厂、成兴印刷包装厂、正涛绣品厂、发达橡塑厂、恒祥橡塑厂（一）、万兴减速机有限公司、大威减速机有限公司、特种玻璃有限公司、云宝五金厂、陈氏食品饮料厂、佳联工具（二）、皆男机械有限公司、鸿都置业、仁丰实业有限公司、信道塑料有限公司、萧山第九高级中学一带","startTime":"2018-06-22 09:00:00","stopDate":"2018-06-22 13:00:00","orgNo":"3340120","typeCode":"计划停电","poweroffArea":"110kV白浪变:义园A40线","poweroffReason":"配合110kV白浪变新益A38线、义园A40线、义购A45线、长浪0037线、白府0043线保护改定值、义园A40线","powerTime":"2018-06-22 12:36:53","powerComm":"已送电","subsNo":"","lineNo":"","tgNo":"","tgName":null,"infoStatus":"1","orgName":"国网浙江杭州市钱塘新区供电公司","typeName":null,"infoStatusName":null,"dateDay":null,"orgNos":null,"nowTime":null,"countyName":null,"streetName":null,"villageName":null,"roadName":null,"communityName":null,"tranName":null,"sdLineName":null,"cityCode":"3340120","cityName":"国网浙江杭州市钱塘新区供电公司","provinceCode":null,"stopTime":"2018-06-22 13:00:00","powerType":"全部","powerOffArea":"110kV白浪变:义园A40线","powerOffReason":"配合110kV白浪变新益A38线、义园A40线、义购A45线、长浪0037线、白府0043线保护改定值、义园A40线","powerOffId":"2018061231010250"},{"poweroffId":2018061231010249,"sgpoweroffId":null,"subsName":"","lineName":"10kV义府A50线","pubTranName":"义蓬安置小区9#变,义蓬村益民2#变,永宏房地产4#,义蓬安置小区1#变,污水处理,永宏房地产3#,义蓬安置小区10#变,义蓬安置小区6#变,义蓬安置小区3#变,义蓬安置小区5#变,公交公司,义蓬村益民9#变,义蓬初中,永宏房地产2#,义蓬安置小区8#变,义蓬村青春2#变,义蓬安置小区7#变,文和公寓2#变,广盛三配变,春盛置业1#,义蓬安置小区4#变,义蓬安置小区2#变,广盛一配变,文和公寓1#变,萧山区邮政局,广盛二配变,永宏房地产1#,","scope":"浙江省-杭州市-萧山区-义蓬街道(义和社区,义蓬行政村-安置小区,义盛社区-广盛公寓);浙江省-杭州市-萧山区(杭州春盛置业有限公司,杭州磐石物业服务有限公司,杭州市萧山公共交通有限公司,杭州萧山污水处理有限公司,萧山区义蓬第一初级中学,中国邮政集团公司杭州市萧山区分公司);","startTime":"2018-06-22 13:00:16","stopDate":"2018-06-22 17:00:00","orgNo":"3340120","typeCode":"计划停电","poweroffArea":"110kV白浪变:义府A50线","poweroffReason":"配合110kV白浪变蓬物A49线、义府A50线保护改定值、义府A50线配合倒负荷","powerTime":"2018-06-22 14:06:09","powerComm":"已送电","subsNo":"","lineNo":"","tgNo":"","tgName":null,"infoStatus":"1","orgName":"国网浙江杭州市钱塘新区供电公司","typeName":null,"infoStatusName":null,"dateDay":null,"orgNos":null,"nowTime":null,"countyName":null,"streetName":null,"villageName":null,"roadName":null,"communityName":null,"tranName":null,"sdLineName":null,"cityCode":"3340120","cityName":"国网浙江杭州市钱塘新区供电公司","provinceCode":null,"stopTime":"2018-06-22 17:00:00","powerType":"全部","powerOffArea":"110kV白浪变:义府A50线","powerOffReason":"配合110kV白浪变蓬物A49线、义府A50线保护改定值、义府A50线配合倒负荷","powerOffId":"2018061231010249"},{"poweroffId":2018061231010243,"sgpoweroffId":null,"subsName":"","lineName":"10kV生南8362线","pubTranName":"山水六变,山水八变,","scope":"浙江省-杭州市-滨江区-浦沿镇(东信大道-中海钱塘山水小区),浦沿街道(东新社区-钱塘山水湾小区);浙江省杭州市滨江区钱塘山水小区2号楼1单元2-34居民及公用主供，2号楼2单元公用备供，2号楼社区物业经营，环境照明，1号楼1单元2-31F居民及公用主供，1号楼2单元公用备供","startTime":"2018-06-22 13:30:00","stopDate":"2018-06-22 17:00:00","orgNo":"3340101","typeCode":"计划停电","poweroffArea":"110kV新生变:生南8362线-山水六变后段；生南8362线-山水八变后段低压","poweroffReason":"钱塘山水低压开关更换消缺工作","powerTime":"2018-06-22 15:32:03","powerComm":"已送电","subsNo":"","lineNo":"","tgNo":"","tgName":null,"infoStatus":"1","orgName":"浙江杭州电力客户服务中心","typeName":null,"infoStatusName":null,"dateDay":null,"orgNos":null,"nowTime":null,"countyName":null,"streetName":null,"villageName":null,"roadName":null,"communityName":null,"tranName":null,"sdLineName":null,"cityCode":"3340101","cityName":"浙江杭州电力客户服务中心","provinceCode":null,"stopTime":"2018-06-22 17:00:00","powerType":"全部","powerOffArea":"110kV新生变:生南8362线-山水六变后段；生南8362线-山水八变后段低压","powerOffReason":"钱塘山水低压开关更换消缺工作","powerOffId":"2018061231010243"}],"pageModel":{"pageNow":1662,"totalCount":17789,"totalPage":1779,"tableRows":0,"pageCount":10,"beginCount":16610},"isExperi":"1"}