{"message":"","today":"2020-06-16","seleList":[{"poweroffId":2018061131010439,"sgpoweroffId":null,"subsName":"","lineName":"10kV同一0366线","pubTranName":"求是中学（二）,01,兆奕科技,欣良卫浴,求是中学（二）2#,03,杭海实业02#,佳尚物业,同一村15#变,杭海实业,","scope":"浙江省-杭州市-萧山区-河庄街道(同一行政村-同一小区);浙江省-杭州市-萧山区(杭州杭海实业有限公司,杭州佳尚物业管理有限公司,杭州欣良卫浴洁具有限公司,浙江兆奕科技有限公司、求是高级中学);","startTime":"2018-06-19 18:30:04","stopDate":"2018-06-19 20:00:14","orgNo":"3340120","typeCode":"计划停电","poweroffArea":"110kV河庄变:同一0366线","poweroffReason":"配合110kV河庄变1#主变10kV开关故障缺陷处理工作","powerTime":"2018-06-19 18:37:58","powerComm":"已送电","subsNo":"","lineNo":"","tgNo":"","tgName":null,"infoStatus":"1","orgName":"国网浙江杭州市钱塘新区供电公司","typeName":null,"infoStatusName":null,"dateDay":null,"orgNos":null,"nowTime":null,"countyName":null,"streetName":null,"villageName":null,"roadName":null,"communityName":null,"tranName":null,"sdLineName":null,"cityCode":"3340120","cityName":"国网浙江杭州市钱塘新区供电公司","provinceCode":null,"stopTime":"2018-06-19 20:00:14","powerType":"全部","powerOffArea":"110kV河庄变:同一0366线","powerOffReason":"配合110kV河庄变1#主变10kV开关故障缺陷处理工作","powerOffId":"2018061131010439"},{"poweroffId":2018061131010437,"sgpoweroffId":null,"subsName":"","lineName":"10kV涝湖C627线","pubTranName":"萧山医院,变压器,涝湖村8#变,涝湖村15#变,涝湖村2#变,品尚塑料制品,建利车辆配件,","scope":"浙江省-杭州市-萧山区-新塘街道(涝湖行政村);","startTime":"2018-06-11 18:45:06","stopDate":"2018-06-11 19:30:31","orgNo":"3340130","typeCode":"电网故障停限电","poweroffArea":"110kV新街变:涝湖C627线涝湖村15#变低压配电设备","poweroffReason":"低压配电设备故障","powerTime":"2018-06-11 19:28:26","powerComm":"已送电","subsNo":"","lineNo":"","tgNo":"","tgName":null,"infoStatus":"1","orgName":"国网浙江杭州市萧山区供电有限公司","typeName":null,"infoStatusName":null,"dateDay":null,"orgNos":null,"nowTime":null,"countyName":null,"streetName":null,"villageName":null,"roadName":null,"communityName":null,"tranName":null,"sdLineName":null,"cityCode":"3340130","cityName":"国网浙江杭州市萧山区供电有限公司","provinceCode":null,"stopTime":"2018-06-11 19:30:31","powerType":"全部","powerOffArea":"110kV新街变:涝湖C627线涝湖村15#变低压配电设备","powerOffReason":"低压配电设备故障","powerOffId":"2018061131010437"},{"poweroffId":2018061131010429,"sgpoweroffId":null,"subsName":"","lineName":"20kV市民B208线","pubTranName":"宁围镇新中行政村机场公路高架3号变,丰东花苑3#公变,丰东花苑1#公变,丰东花苑11#公变,丰东花苑13#公变,丰东花苑5#公变,浙江省公安厅2#,宁围镇新中行政村机场公路地面道路13号变变压器,宁东北苑G2#公变,1#,丰东花苑幼儿园,4#,杭州萧山交通投资集团基础设施建设指挥部,3#,丰东花苑9#公变,浙江省公安厅1#,丰东花苑7#公变,宁东北苑G1#公变,2#变,世纪城8#路灯变配电变压器,","scope":"浙江省-杭州市-萧山区-宁围镇、市心北路、市新北路899号、绿都港汇小区等一带","startTime":"2018-06-11 17:54:37","stopDate":"2018-06-11 21:08:47","orgNo":"3340130","typeCode":"电网故障停限电","poweroffArea":"110kV顺丰变:市民B208线绿都港汇3#变低压配电设施","poweroffReason":"低压配电设施故障","powerTime":"2018-06-11 20:13:14","powerComm":"已送电","subsNo":"","lineNo":"","tgNo":"","tgName":null,"infoStatus":"1","orgName":"国网浙江杭州市萧山区供电有限公司","typeName":null,"infoStatusName":null,"dateDay":null,"orgNos":null,"nowTime":null,"countyName":null,"streetName":null,"villageName":null,"roadName":null,"communityName":null,"tranName":null,"sdLineName":null,"cityCode":"3340130","cityName":"国网浙江杭州市萧山区供电有限公司","provinceCode":null,"stopTime":"2018-06-11 21:08:47","powerType":"全部","powerOffArea":"110kV顺丰变:市民B208线绿都港汇3#变低压配电设施","powerOffReason":"低压配电设施故障","powerOffId":"2018061131010429"},{"poweroffId":2018061131010428,"sgpoweroffId":null,"subsName":"","lineName":"10kV溪苑9938线","pubTranName":"绿森施1,景溪十二,溪北十二,溪北二,景溪二,溪南十二变,溪南六变变压器,溪南四变,德泽八,景溪八,溪南二变,绿森施2,德泽六,绿森施3,溪南十变,溪北八,景溪十,溪北六,景溪四,溪北十四,德泽二,金庄施,溪北十,里洋施,溪北四,德泽四,溪南八变,德泽十,景溪六,联良小学2#变,","scope":"浙江省-杭州市-西湖区(杭州绿森置业有限公司,杭州市居住区发展中心有限公司);","startTime":"2018-06-11 17:52:11","stopDate":"2018-06-11 23:52:11","orgNo":"3340101","typeCode":"电网故障停限电","poweroffArea":"110kV墩北变:溪苑9938线","poweroffReason":"高压开关跳闸","powerTime":"2018-06-11 19:48:59","powerComm":"送电","subsNo":"","lineNo":"","tgNo":"","tgName":null,"infoStatus":"1","orgName":"浙江杭州电力客户服务中心","typeName":null,"infoStatusName":null,"dateDay":null,"orgNos":null,"nowTime":null,"countyName":null,"streetName":null,"villageName":null,"roadName":null,"communityName":null,"tranName":null,"sdLineName":null,"cityCode":"3340101","cityName":"浙江杭州电力客户服务中心","provinceCode":null,"stopTime":"2018-06-11 23:52:11","powerType":"全部","powerOffArea":"110kV墩北变:溪苑9938线","powerOffReason":"高压开关跳闸","powerOffId":"2018061131010428"},{"poweroffId":2018061131010425,"sgpoweroffId":null,"subsName":"","lineName":"10kV双竹H567线","pubTranName":"黄湖水厂,虎山村大湾公变,清波村姜塘庵公变,清波村万寿寺公变,阀门厂,黄湖街道政府公变,虎山村吴四房公变,清波村兴旺路公变,虎山村赵家弄公变,清波村白塔凉亭公变,虎山村上街2号公变,清波村白塔池塘公变,虎山村元台庙公变,清波村里姜塘庵公变,清波村望目岭公变,虎山村吴蛇地公变,高配1#,中学1,清波村白塔畈公变,清波村三桥公变,镇政府,黄胡小学,清波村白塔2号公变,黄湖街道集镇1号公变,黄湖街道小学公变,黄湖幼儿园6120583703,黄湖街道营业所老街公变,","scope":"浙江省-杭州市-余杭区-黄湖镇虎山行政村-毛家自然村、陶家自然村,清波行政村-白塔畈自然村、吴家自然村;杭州市余杭区黄湖镇人民政府(办公楼),杭州市余杭区黄湖镇中心幼儿园,杭州市余杭区黄湖镇中学,杭州余杭第二阀门厂,杭州余杭区黄湖砖瓦厂,杭州余杭水务有限公司,余杭区黄湖镇中心小学一带;","startTime":"2018-06-11 17:44:00","stopDate":"2018-06-11 20:44:00","orgNo":"3340140","typeCode":"电网故障停限电","poweroffArea":"35kV黄湖变:双竹H567线毛家变","poweroffReason":"毛家变低压线路断线故障","powerTime":"2018-06-11 18:18:00","powerComm":"已送电","subsNo":"","lineNo":"","tgNo":"","tgName":null,"infoStatus":"1","orgName":"国网浙江杭州市余杭区供电有限公司","typeName":null,"infoStatusName":null,"dateDay":null,"orgNos":null,"nowTime":null,"countyName":null,"streetName":null,"villageName":null,"roadName":null,"communityName":null,"tranName":null,"sdLineName":null,"cityCode":"3340140","cityName":"国网浙江杭州市余杭区供电有限公司","provinceCode":null,"stopTime":"2018-06-11 20:44:00","powerType":"全部","powerOffArea":"35kV黄湖变:双竹H567线毛家变","powerOffReason":"毛家变低压线路断线故障","powerOffId":"2018061131010425"},{"poweroffId":2018061131010390,"sgpoweroffId":null,"subsName":"","lineName":"10kV笕同9823线","pubTranName":"花府十三,花府十七,","scope":"浙江省杭州市江干区明月桥路花园府公寓9、15、22幢及商铺充电桩附近一带","startTime":"2018-06-14 13:00:32","stopDate":"2018-06-14 17:30:41","orgNo":"3340101","typeCode":"计划停电","poweroffArea":"110kV笕桥变:笕同9823线-花府十三后段；笕同9823线-花府十七后段","poweroffReason":"杭州市城东新城建设投资有限公司PD2015-03-005-GD配变消缺","powerTime":"2018-06-14 15:48:19","powerComm":"已送电","subsNo":"","lineNo":"","tgNo":"","tgName":null,"infoStatus":"1","orgName":"浙江杭州电力客户服务中心","typeName":null,"infoStatusName":null,"dateDay":null,"orgNos":null,"nowTime":null,"countyName":null,"streetName":null,"villageName":null,"roadName":null,"communityName":null,"tranName":null,"sdLineName":null,"cityCode":"3340101","cityName":"浙江杭州电力客户服务中心","provinceCode":null,"stopTime":"2018-06-14 17:30:41","powerType":"全部","powerOffArea":"110kV笕桥变:笕同9823线-花府十三后段；笕同9823线-花府十七后段","powerOffReason":"杭州市城东新城建设投资有限公司PD2015-03-005-GD配变消缺","powerOffId":"2018061131010390"},{"poweroffId":2018061131010389,"sgpoweroffId":null,"subsName":"","lineName":"10kV东宸9837线","pubTranName":"花府八,花府十八,","scope":"浙江省杭州市江干区明月桥路花园府公寓12、13、21幢及商铺充电桩附近一带","startTime":"2018-06-13 13:00:00","stopDate":"2018-06-13 20:30:00","orgNo":"3340101","typeCode":"计划停电","poweroffArea":"110kV笕桥变:东宸9837线-花府八后段；东宸9837线-花府十八后段","poweroffReason":"杭州市城东新城建设投资有限公司PD2015-03-005-GD配变消缺","powerTime":"2018-06-13 15:57:15","powerComm":"已送电","subsNo":"","lineNo":"","tgNo":"","tgName":null,"infoStatus":"1","orgName":"浙江杭州电力客户服务中心","typeName":null,"infoStatusName":null,"dateDay":null,"orgNos":null,"nowTime":null,"countyName":null,"streetName":null,"villageName":null,"roadName":null,"communityName":null,"tranName":null,"sdLineName":null,"cityCode":"3340101","cityName":"浙江杭州电力客户服务中心","provinceCode":null,"stopTime":"2018-06-13 20:30:00","powerType":"全部","powerOffArea":"110kV笕桥变:东宸9837线-花府八后段；东宸9837线-花府十八后段","powerOffReason":"杭州市城东新城建设投资有限公司PD2015-03-005-GD配变消缺","powerOffId":"2018061131010389"},{"poweroffId":2018061131010378,"sgpoweroffId":null,"subsName":"","lineName":"10kV笕同9823线","pubTranName":"花府十五,","scope":"浙江省杭州市江干区明月桥路花园府公寓17、19幢及商铺充电桩附近一带","startTime":"2018-06-12 13:00:37","stopDate":"2018-06-12 17:30:46","orgNo":"3340101","typeCode":"计划停电","poweroffArea":"110kV笕桥变:笕同9823线-花府十五后段","poweroffReason":"杭州市城东新城建设投资有限公司PD2015-03-005-GD配变消缺","powerTime":"2018-06-12 15:01:49","powerComm":"已送电","subsNo":"","lineNo":"","tgNo":"","tgName":null,"infoStatus":"1","orgName":"浙江杭州电力客户服务中心","typeName":null,"infoStatusName":null,"dateDay":null,"orgNos":null,"nowTime":null,"countyName":null,"streetName":null,"villageName":null,"roadName":null,"communityName":null,"tranName":null,"sdLineName":null,"cityCode":"3340101","cityName":"浙江杭州电力客户服务中心","provinceCode":null,"stopTime":"2018-06-12 17:30:46","powerType":"全部","powerOffArea":"110kV笕桥变:笕同9823线-花府十五后段","powerOffReason":"杭州市城东新城建设投资有限公司PD2015-03-005-GD配变消缺","powerOffId":"2018061131010378"},{"poweroffId":2018061131010371,"sgpoweroffId":null,"subsName":"","lineName":"10kV林场T276线","pubTranName":"桐庐富鑫装饰城,桐庐县市政园林建设管理处,桐庐龙翔链业有限公司,青山1号公变,申科医疗,桐庐交通资产经营有限公司,华丰彩印包装厂,中石化加油站,熙园2号公变,桐庐县三合中学,桐庐港桐皮革有限公司,桐庐城南综合市场有限公司,桐庐城南综合市场有限公司,新建2号公变,桐庐县中心粮库,金中小区2号公变,乔林1号公变,青山2号公变,桐庐城南综合市场有限公司,桐庐一修汽车修理有限公司,桐庐富盛健康产业有限公司,杭州市桐庐医达器械设备厂,富鑫装饰城,桐庐县公安局,海升商贸城1#,乔林2号公变,桐庐华欣制衣有限公司,2#,桐庐大鹏玻璃有限公司,桐庐富盛健康产业有限公司变压器配电变压器,桐庐永钰贸易有限公司,熙园1号公变,桐庐海威商贸有限公司,桐庐王家汽修服务有限公司,桐庐富源上艺针织服饰厂,金中小区1号公变,桐庐县桐君街道办事处,马家庄1号公变,桐庐县公安局,下城3号公变,海升商贸城2#,桐庐兴华粮油贸易有限公司,桐庐天翔金属材料有限公司变压器,路灯变,金中小区3号公变,桐庐交通资产经营有限公司,新建1号公变,兰田1号公变,桐庐县市政园林建设管理处,兰田2号公变,桐庐县城南街道海捞世佳火锅店,桐庐人民武装部,新建3号公变,乔林3号公变,","scope":"浙江省-杭州市-桐庐县-城南街道(金中行政村-城南路、青山自然村、三联自然村,兰田行政村-兰田自然村,乔林行政村-马家庄自然村、乔林自然村,新建行政村-新建自然村,中杭社区-城南路);长途汽车站、城南路青山口附近一带","startTime":"2018-06-11 16:16:15","stopDate":"2018-06-12 01:33:19","orgNo":"3340150","typeCode":"电网故障停限电","poweroffArea":"35kV三合变:林场T276线","poweroffReason":"低压开关故障","powerTime":"2018-06-12 00:41:19","powerComm":"全部送电","subsNo":"","lineNo":"","tgNo":"","tgName":null,"infoStatus":"1","orgName":"国网浙江桐庐县供电公司","typeName":null,"infoStatusName":null,"dateDay":null,"orgNos":null,"nowTime":null,"countyName":null,"streetName":null,"villageName":null,"roadName":null,"communityName":null,"tranName":null,"sdLineName":null,"cityCode":"3340150","cityName":"国网浙江桐庐县供电公司","provinceCode":null,"stopTime":"2018-06-12 01:33:19","powerType":"全部","powerOffArea":"35kV三合变:林场T276线","powerOffReason":"低压开关故障","powerOffId":"2018061131010371"},{"poweroffId":2018061131010356,"sgpoweroffId":null,"subsName":"","lineName":"10kV东桦6325线","pubTranName":"新渡埠,鱼科所,左中右七,新沙二,白茅三,新沙施,老村,汽渡,物流,洪强,新沙,北江,构件,1#变,西湖排涝2,路桥施,新沙村农四,通利2,老沙二,双江,汇辉施2,西湖排涝1,白茅,新江,杭州市港航管理局钱江管理处,杭州市双铺镇小江社区居民委员会,新沙五,华安,杭港,新郎,新江二,小江五,新江三,汇辉施1,小江六,通利1,白茅湖,轮渡,枫桦施二,杭交施,2#变,老沙,水文,新沙四,排涝,后江三,1,八一,东江灯,混凝土,杭州市双浦镇小江村村民委员会,新沙村农一,杭州市袁浦镇小江村,麦岭沙三,绕高,白茅二,新沙村农三,新沙三,汇辉施,麦岭沙二,新沙村农二,小江四,江边,变压器,桦东灯,军码,白茅湖,富鞋,船厂(二),伟力二,","scope":"浙江省-杭州市-西湖区-双浦镇(东江嘴行政村,老沙行政村,麦岭沙社区-外张行政村,小江行政村,新沙村社区-新沙行政村);","startTime":"2018-06-11 15:54:39","stopDate":"2018-06-11 23:50:00","orgNo":"3340101","typeCode":"电网故障停限电","poweroffArea":"110kV转塘变:东桦6325线","poweroffReason":"高压开关跳闸","powerTime":"2018-06-11 23:41:09","powerComm":"送电","subsNo":"","lineNo":"","tgNo":"","tgName":null,"infoStatus":"1","orgName":"浙江杭州电力客户服务中心","typeName":null,"infoStatusName":null,"dateDay":null,"orgNos":null,"nowTime":null,"countyName":null,"streetName":null,"villageName":null,"roadName":null,"communityName":null,"tranName":null,"sdLineName":null,"cityCode":"3340101","cityName":"浙江杭州电力客户服务中心","provinceCode":null,"stopTime":"2018-06-11 23:50:00","powerType":"全部","powerOffArea":"110kV转塘变:东桦6325线","powerOffReason":"高压开关跳闸","powerOffId":"2018061131010356"}],"pageModel":{"pageNow":1665,"totalCount":17789,"totalPage":1779,"tableRows":0,"pageCount":10,"beginCount":16640},"isExperi":"1"}