{"message":"","today":"2020-06-15","seleList":[{"poweroffId":2020051531020346,"sgpoweroffId":null,"subsName":"","lineName":"10kV至南T162线","pubTranName":"和平冷坑3号公变,","scope":"浙江省-杭州市-桐庐县-瑶琳镇-皇甫行政村-和平自然村","startTime":"2020-05-28 08:00:00","stopDate":"2020-05-28 12:00:00","orgNo":"3340150","typeCode":"计划停电","poweroffArea":"35kV瑶琳变:至南T162线-冷坑F6130令克后段","poweroffReason":"和平村等台区配变及线路改造工程","powerTime":"2020-05-28 11:30:53","powerComm":"已送电","subsNo":"","lineNo":"","tgNo":"","tgName":null,"infoStatus":"1","orgName":"国网浙江桐庐县供电公司","typeName":null,"infoStatusName":null,"dateDay":null,"orgNos":null,"nowTime":null,"countyName":null,"streetName":null,"villageName":null,"roadName":null,"communityName":null,"tranName":null,"sdLineName":null,"cityCode":"3340150","cityName":"国网浙江桐庐县供电公司","provinceCode":null,"stopTime":"2020-05-28 12:00:00","powerType":"全部","powerOffArea":"35kV瑶琳变:至南T162线-冷坑F6130令克后段","powerOffReason":"和平村等台区配变及线路改造工程","powerOffId":"2020051531020346"},{"poweroffId":2020051531020345,"sgpoweroffId":null,"subsName":"","lineName":"10kV至南T162线","pubTranName":"梦缘山庄,","scope":"浙江省-杭州市-桐庐县-瑶琳镇-皇甫行政村-浙江交工金筑交通建设有限公司","startTime":"2020-05-26 08:00:00","stopDate":"2020-05-26 14:00:00","orgNo":"3340150","typeCode":"计划停电","poweroffArea":"35kV瑶琳变:至南T162线-瑶琳皮件厂后段","poweroffReason":"浙江交工金筑交通建设有限公司新装250KVA配电工程","powerTime":"2020-05-26 13:40:11","powerComm":"已送电","subsNo":"","lineNo":"","tgNo":"","tgName":null,"infoStatus":"1","orgName":"国网浙江桐庐县供电公司","typeName":null,"infoStatusName":null,"dateDay":null,"orgNos":null,"nowTime":null,"countyName":null,"streetName":null,"villageName":null,"roadName":null,"communityName":null,"tranName":null,"sdLineName":null,"cityCode":"3340150","cityName":"国网浙江桐庐县供电公司","provinceCode":null,"stopTime":"2020-05-26 14:00:00","powerType":"全部","powerOffArea":"35kV瑶琳变:至南T162线-瑶琳皮件厂后段","powerOffReason":"浙江交工金筑交通建设有限公司新装250KVA配电工程","powerOffId":"2020051531020345"},{"poweroffId":2020051531020342,"sgpoweroffId":null,"subsName":"","lineName":"10kV东辉T373线","pubTranName":"白前庵1号公变,","scope":"浙江省-杭州市-桐庐县-百江镇-百江行政村-白前奄自然村","startTime":"2020-05-15 12:38:46","stopDate":"2020-05-15 14:26:00","orgNo":"3340150","typeCode":"电网故障停限电","poweroffArea":"110kV百江变:东辉T373线白前庵1号公变配变","poweroffReason":"(低压停电信息)低压开关跳闸","powerTime":"2020-05-15 14:19:30","powerComm":"已送电","subsNo":"","lineNo":"","tgNo":"","tgName":null,"infoStatus":"1","orgName":"国网浙江桐庐县供电公司","typeName":null,"infoStatusName":null,"dateDay":null,"orgNos":null,"nowTime":null,"countyName":null,"streetName":null,"villageName":null,"roadName":null,"communityName":null,"tranName":null,"sdLineName":null,"cityCode":"3340150","cityName":"国网浙江桐庐县供电公司","provinceCode":null,"stopTime":"2020-05-15 14:26:00","powerType":"全部","powerOffArea":"110kV百江变:东辉T373线白前庵1号公变配变","powerOffReason":"(低压停电信息)低压开关跳闸","powerOffId":"2020051531020342"},{"poweroffId":2020051531020335,"sgpoweroffId":null,"subsName":"","lineName":"10kV蔡家D893线","pubTranName":"利民村汪村2#村北公变,","scope":"浙江省-杭州市-富阳区-灵桥镇-利民行政村(汪村自然村,里汪村自然村)","startTime":"2020-05-28 08:00:00","stopDate":"2020-05-28 16:30:00","orgNo":"3340170","typeCode":"计划停电","poweroffArea":"110kV永春变:蔡家D893线-利民村汪村2#村北公变后段","poweroffReason":"(低压停电信息)人工挖拉线洞1处，拆旧新架集束线8档，更换接户线3处，搭接等工作。（江南2020年菖蒲村3#桐湾口公变等台区低压线路改造工程）","powerTime":"2020-05-28 16:16:14","powerComm":"已送电","subsNo":"","lineNo":"","tgNo":"","tgName":null,"infoStatus":"1","orgName":"国网浙江杭州市富阳区供电公司","typeName":null,"infoStatusName":null,"dateDay":null,"orgNos":null,"nowTime":null,"countyName":null,"streetName":null,"villageName":null,"roadName":null,"communityName":null,"tranName":null,"sdLineName":null,"cityCode":"3340170","cityName":"国网浙江杭州市富阳区供电公司","provinceCode":null,"stopTime":"2020-05-28 16:30:00","powerType":"全部","powerOffArea":"110kV永春变:蔡家D893线-利民村汪村2#村北公变后段","powerOffReason":"(低压停电信息)人工挖拉线洞1处，拆旧新架集束线8档，更换接户线3处，搭接等工作。（江南2020年菖蒲村3#桐湾口公变等台区低压线路改造工程）","powerOffId":"2020051531020335"},{"poweroffId":2020051531020331,"sgpoweroffId":null,"subsName":"","lineName":"10kV龙门D787线","pubTranName":"龙门七村2号龙一后溪公变,","scope":"浙江省-杭州市-富阳区-龙门镇-龙门七村行政村-后溪自然村一带","startTime":"2020-05-28 08:30:00","stopDate":"2020-05-28 16:10:00","orgNo":"3340170","typeCode":"计划停电","poweroffArea":"110kV王洲变:龙门D787线-龙门七村2号龙一后溪公变后段","poweroffReason":"(低压停电信息)龙门七村2号龙一后溪公变装横担、做拉线、架线、拆旧、接户线搭接、线路改接等工作；","powerTime":"2020-05-28 15:55:30","powerComm":"已送电","subsNo":"","lineNo":"","tgNo":"","tgName":null,"infoStatus":"1","orgName":"国网浙江杭州市富阳区供电公司","typeName":null,"infoStatusName":null,"dateDay":null,"orgNos":null,"nowTime":null,"countyName":null,"streetName":null,"villageName":null,"roadName":null,"communityName":null,"tranName":null,"sdLineName":null,"cityCode":"3340170","cityName":"国网浙江杭州市富阳区供电公司","provinceCode":null,"stopTime":"2020-05-28 16:10:00","powerType":"全部","powerOffArea":"110kV王洲变:龙门D787线-龙门七村2号龙一后溪公变后段","powerOffReason":"(低压停电信息)龙门七村2号龙一后溪公变装横担、做拉线、架线、拆旧、接户线搭接、线路改接等工作；","powerOffId":"2020051531020331"},{"poweroffId":2020051531020330,"sgpoweroffId":null,"subsName":"","lineName":"10kV场口D504线","pubTranName":"真佳溪村20#化竹上台埠公变,","scope":"浙江省-杭州市-富阳区-场口镇-真佳溪行政村-化竹自然村一带","startTime":"2020-05-28 08:30:00","stopDate":"2020-05-28 13:10:00","orgNo":"3340170","typeCode":"计划停电","poweroffArea":"110kV常安变:场口D504线-真佳溪村20#化竹上台埠公变低压出线后段","poweroffReason":"(低压停电信息)配合配电屏抬高、低压出线电缆拆装、脚手架拆除等工作；","powerTime":"2020-05-28 12:55:35","powerComm":"已送电","subsNo":"","lineNo":"","tgNo":"","tgName":null,"infoStatus":"1","orgName":"国网浙江杭州市富阳区供电公司","typeName":null,"infoStatusName":null,"dateDay":null,"orgNos":null,"nowTime":null,"countyName":null,"streetName":null,"villageName":null,"roadName":null,"communityName":null,"tranName":null,"sdLineName":null,"cityCode":"3340170","cityName":"国网浙江杭州市富阳区供电公司","provinceCode":null,"stopTime":"2020-05-28 13:10:00","powerType":"全部","powerOffArea":"110kV常安变:场口D504线-真佳溪村20#化竹上台埠公变低压出线后段","powerOffReason":"(低压停电信息)配合配电屏抬高、低压出线电缆拆装、脚手架拆除等工作；","powerOffId":"2020051531020330"},{"poweroffId":2020051531020326,"sgpoweroffId":null,"subsName":"","lineName":"10kV万泉D738线","pubTranName":"上山村上山2号万泉路公变,","scope":"浙江省-杭州市-富阳区-新登镇-上山行政村-万泉自然村","startTime":"2020-05-27 07:40:00","stopDate":"2020-05-27 17:00:00","orgNo":"3340170","typeCode":"计划停电","poweroffArea":"110kV松溪变:万泉D738线-上山村上山2号万泉路公变低压开关后段","poweroffReason":"(低压停电信息)吴家01线架设导线JKLYJ-4*70*15档、BS-JKLYJ-2*35*2档、拆除导线JKLYJ-35*4*14档、更换落户线BS-JKLYJ-2*25*4户、安装横担、拉线、导线搭接","powerTime":"2020-05-27 16:40:35","powerComm":"已送电","subsNo":"","lineNo":"","tgNo":"","tgName":null,"infoStatus":"1","orgName":"国网浙江杭州市富阳区供电公司","typeName":null,"infoStatusName":null,"dateDay":null,"orgNos":null,"nowTime":null,"countyName":null,"streetName":null,"villageName":null,"roadName":null,"communityName":null,"tranName":null,"sdLineName":null,"cityCode":"3340170","cityName":"国网浙江杭州市富阳区供电公司","provinceCode":null,"stopTime":"2020-05-27 17:00:00","powerType":"全部","powerOffArea":"110kV松溪变:万泉D738线-上山村上山2号万泉路公变低压开关后段","powerOffReason":"(低压停电信息)吴家01线架设导线JKLYJ-4*70*15档、BS-JKLYJ-2*35*2档、拆除导线JKLYJ-35*4*14档、更换落户线BS-JKLYJ-2*25*4户、安装横担、拉线、导线搭接","powerOffId":"2020051531020326"},{"poweroffId":2020051531020325,"sgpoweroffId":null,"subsName":"","lineName":"10kV窈口D381线","pubTranName":"杨家坞村3#杨家公变,","scope":"浙江省-杭州市-富阳区-湖源乡-杨家坞村一带","startTime":"2020-05-27 08:50:00","stopDate":"2020-05-27 16:10:00","orgNo":"3340170","typeCode":"计划停电","poweroffArea":"35kV湖源变:窈口D381线-杨家坞村3#杨家公变低压开关后段","poweroffReason":"(低压停电信息)拆旧、线路改接、放接户线及接户线改接、表箱拆移等工作；","powerTime":"2020-05-27 15:48:43","powerComm":"已送电","subsNo":"","lineNo":"","tgNo":"","tgName":null,"infoStatus":"1","orgName":"国网浙江杭州市富阳区供电公司","typeName":null,"infoStatusName":null,"dateDay":null,"orgNos":null,"nowTime":null,"countyName":null,"streetName":null,"villageName":null,"roadName":null,"communityName":null,"tranName":null,"sdLineName":null,"cityCode":"3340170","cityName":"国网浙江杭州市富阳区供电公司","provinceCode":null,"stopTime":"2020-05-27 16:10:00","powerType":"全部","powerOffArea":"35kV湖源变:窈口D381线-杨家坞村3#杨家公变低压开关后段","powerOffReason":"(低压停电信息)拆旧、线路改接、放接户线及接户线改接、表箱拆移等工作；","powerOffId":"2020051531020325"},{"poweroffId":2020051531020324,"sgpoweroffId":null,"subsName":"","lineName":"10kV场口D504线","pubTranName":"真佳溪村11#化竹村口公变,","scope":"浙江省-杭州市-富阳区-场口镇-真佳溪行政村-化竹自然村一带","startTime":"2020-05-26 08:30:00","stopDate":"2020-05-26 13:10:00","orgNo":"3340170","typeCode":"计划停电","poweroffArea":"110kV常安变:场口D504线-真佳溪村11#化竹村口公变低压出线后段","poweroffReason":"(低压停电信息)配合配电屏抬高、低压出线电缆拆装、脚手架拆除等工作；","powerTime":"2020-05-26 12:59:58","powerComm":"已送电","subsNo":"","lineNo":"","tgNo":"","tgName":null,"infoStatus":"1","orgName":"国网浙江杭州市富阳区供电公司","typeName":null,"infoStatusName":null,"dateDay":null,"orgNos":null,"nowTime":null,"countyName":null,"streetName":null,"villageName":null,"roadName":null,"communityName":null,"tranName":null,"sdLineName":null,"cityCode":"3340170","cityName":"国网浙江杭州市富阳区供电公司","provinceCode":null,"stopTime":"2020-05-26 13:10:00","powerType":"全部","powerOffArea":"110kV常安变:场口D504线-真佳溪村11#化竹村口公变低压出线后段","powerOffReason":"(低压停电信息)配合配电屏抬高、低压出线电缆拆装、脚手架拆除等工作；","powerOffId":"2020051531020324"},{"poweroffId":2020051531020322,"sgpoweroffId":null,"subsName":"","lineName":"10kV中光D555线","pubTranName":"东山村2#东山西公变,","scope":"浙江省-杭州市-富阳区-富春街道-东山社区(东兴路,东山路,东山四路,东山三路,东山二路)一带","startTime":"2020-05-26 08:30:00","stopDate":"2020-05-26 12:40:00","orgNo":"3340170","typeCode":"计划停电","poweroffArea":"110kV春江变:中光D555线-东山村2#东山西公变后段","poweroffReason":"(低压停电信息)国网浙江富阳供电公司2020年客户计量装置建设与改造:0.4kV东山村2#东山西公变1#开关1#出线0.4KV（6620014728)东山2路顶上寺庙内表箱改造等工作","powerTime":"2020-05-26 12:24:15","powerComm":"已送电","subsNo":"","lineNo":"","tgNo":"","tgName":null,"infoStatus":"1","orgName":"国网浙江杭州市富阳区供电公司","typeName":null,"infoStatusName":null,"dateDay":null,"orgNos":null,"nowTime":null,"countyName":null,"streetName":null,"villageName":null,"roadName":null,"communityName":null,"tranName":null,"sdLineName":null,"cityCode":"3340170","cityName":"国网浙江杭州市富阳区供电公司","provinceCode":null,"stopTime":"2020-05-26 12:40:00","powerType":"全部","powerOffArea":"110kV春江变:中光D555线-东山村2#东山西公变后段","powerOffReason":"(低压停电信息)国网浙江富阳供电公司2020年客户计量装置建设与改造:0.4kV东山村2#东山西公变1#开关1#出线0.4KV（6620014728)东山2路顶上寺庙内表箱改造等工作","powerOffId":"2020051531020322"}],"pageModel":{"pageNow":169,"totalCount":17788,"totalPage":1779,"tableRows":0,"pageCount":10,"beginCount":1680},"isExperi":"1"}