{"message":"","today":"2020-06-16","seleList":[{"poweroffId":2018060931010158,"sgpoweroffId":null,"subsName":"","lineName":"10kV严州Y303线","pubTranName":"龙溪村草蓬弯台区,","scope":"浙江省-杭州市-建德市-梅城镇 龙溪行政村-草蒲湾自然村一带用户。","startTime":"2018-06-09 18:32:00","stopDate":"2018-06-09 23:30:00","orgNo":"3340180","typeCode":"电网故障停限电","poweroffArea":"110kV梅城变:严州Y303线-龙溪村草蓬弯台区后段","poweroffReason":"严州Y303线-龙溪村草蓬弯台区低压配电设备故障","powerTime":"2018-06-09 21:20:00","powerComm":"已送电","subsNo":"","lineNo":"","tgNo":"","tgName":null,"infoStatus":"1","orgName":"国网浙江建德市供电有限公司","typeName":null,"infoStatusName":null,"dateDay":null,"orgNos":null,"nowTime":null,"countyName":null,"streetName":null,"villageName":null,"roadName":null,"communityName":null,"tranName":null,"sdLineName":null,"cityCode":"3340180","cityName":"国网浙江建德市供电有限公司","provinceCode":null,"stopTime":"2018-06-09 23:30:00","powerType":"全部","powerOffArea":"110kV梅城变:严州Y303线-龙溪村草蓬弯台区后段","powerOffReason":"严州Y303线-龙溪村草蓬弯台区低压配电设备故障","powerOffId":"2018060931010158"},{"poweroffId":2018060931010127,"sgpoweroffId":null,"subsName":"","lineName":"10kV大塘D797线","pubTranName":"红星村2号畈里公变,","scope":"浙江省杭州市富阳区场口镇红星村，华丰村，联群村，新元村，瓜桥埠村，洋沙村一带","startTime":"2018-06-09 16:23:22","stopDate":"2018-06-09 18:30:29","orgNo":"3340170","typeCode":"电网故障停限电","poweroffArea":"110kV王洲变:大塘D797线-红星村2号畈里公变后段","poweroffReason":"高压开关跳闸","powerTime":"2018-06-09 16:51:48","powerComm":"已送电","subsNo":"","lineNo":"","tgNo":"","tgName":null,"infoStatus":"1","orgName":"国网浙江杭州市富阳区供电公司","typeName":null,"infoStatusName":null,"dateDay":null,"orgNos":null,"nowTime":null,"countyName":null,"streetName":null,"villageName":null,"roadName":null,"communityName":null,"tranName":null,"sdLineName":null,"cityCode":"3340170","cityName":"国网浙江杭州市富阳区供电公司","provinceCode":null,"stopTime":"2018-06-09 18:30:29","powerType":"全部","powerOffArea":"110kV王洲变:大塘D797线-红星村2号畈里公变后段","powerOffReason":"高压开关跳闸","powerOffId":"2018060931010127"},{"poweroffId":2018060931010111,"sgpoweroffId":null,"subsName":"","lineName":"10kV东汪C271线","pubTranName":"杭州萧山闻堰镇三江口村经济联合社 配电变压器,浙江恒力工具有限公司,杭州萧山湘湖科创园管理有限公司,三江口村东汪5#变,浙江省建工集团有限责任公司1#,","scope":"浙江省-杭州市-萧山区-闻堰镇(三江口行政村-汇郎自然村);浙江省-杭州市-萧山区-闻堰镇(杭州萧山闻堰镇三江口村经济联合社,杭州萧山湘湖科创园管理有限公司,浙江恒力工具有限公司,浙江省建工集团有限责任公司)","startTime":"2018-06-09 13:49:00","stopDate":"2018-06-09 19:49:00","orgNo":"3340130","typeCode":"电网故障停限电","poweroffArea":"110kV三江变:东汪C271线三江口村东汪5#变低压配电设备","poweroffReason":"低压配电设备故障","powerTime":"2018-06-09 14:28:58","powerComm":"已送电","subsNo":"","lineNo":"","tgNo":"","tgName":null,"infoStatus":"1","orgName":"国网浙江杭州市萧山区供电有限公司","typeName":null,"infoStatusName":null,"dateDay":null,"orgNos":null,"nowTime":null,"countyName":null,"streetName":null,"villageName":null,"roadName":null,"communityName":null,"tranName":null,"sdLineName":null,"cityCode":"3340130","cityName":"国网浙江杭州市萧山区供电有限公司","provinceCode":null,"stopTime":"2018-06-09 19:49:00","powerType":"全部","powerOffArea":"110kV三江变:东汪C271线三江口村东汪5#变低压配电设备","powerOffReason":"低压配电设备故障","powerOffId":"2018060931010111"},{"poweroffId":2018060931010101,"sgpoweroffId":null,"subsName":"","lineName":"10kV闻堰C273线","pubTranName":"闻兴村朝红4#变,闻堰镇人民政府（文化中心）2#,黄山村9#变,","scope":"浙江省-杭州市-萧山区-闻堰镇(黄山行政村-湘莼自然村,闻兴行政村-朝红新自然村、邱徐埭自然村);(闻堰镇人民政府)","startTime":"2018-06-09 12:31:00","stopDate":"2018-06-09 18:31:00","orgNo":"3340130","typeCode":"电网故障停限电","poweroffArea":"110kV三江变:闻堰C273线闻兴村朝红4#变低压配电设备","poweroffReason":"低压配电设备故障","powerTime":"2018-06-09 14:28:29","powerComm":"已送电","subsNo":"","lineNo":"","tgNo":"","tgName":null,"infoStatus":"1","orgName":"国网浙江杭州市萧山区供电有限公司","typeName":null,"infoStatusName":null,"dateDay":null,"orgNos":null,"nowTime":null,"countyName":null,"streetName":null,"villageName":null,"roadName":null,"communityName":null,"tranName":null,"sdLineName":null,"cityCode":"3340130","cityName":"国网浙江杭州市萧山区供电有限公司","provinceCode":null,"stopTime":"2018-06-09 18:31:00","powerType":"全部","powerOffArea":"110kV三江变:闻堰C273线闻兴村朝红4#变低压配电设备","powerOffReason":"低压配电设备故障","powerOffId":"2018060931010101"},{"poweroffId":2018060931010081,"sgpoweroffId":null,"subsName":"","lineName":"10kV群英C653线","pubTranName":"益农供电营业所9#变,","scope":"浙江省-杭州市-萧山区-益农镇东联行政村-东湾自然村、东联村、五六二村、赵家湾村、群英村、勤联村一带","startTime":"2018-06-09 10:50:20","stopDate":"2018-06-09 16:58:38","orgNo":"3340130","typeCode":"电网故障停限电","poweroffArea":"35kV益农变:群英C653线-益农供电营业所9#变台区低压开关","poweroffReason":"低压漏电保护器短路故障","powerTime":"2018-06-09 12:10:48","powerComm":"已送电","subsNo":"","lineNo":"","tgNo":"","tgName":null,"infoStatus":"1","orgName":"国网浙江杭州市萧山区供电有限公司","typeName":null,"infoStatusName":null,"dateDay":null,"orgNos":null,"nowTime":null,"countyName":null,"streetName":null,"villageName":null,"roadName":null,"communityName":null,"tranName":null,"sdLineName":null,"cityCode":"3340130","cityName":"国网浙江杭州市萧山区供电有限公司","provinceCode":null,"stopTime":"2018-06-09 16:58:38","powerType":"全部","powerOffArea":"35kV益农变:群英C653线-益农供电营业所9#变台区低压开关","powerOffReason":"低压漏电保护器短路故障","powerOffId":"2018060931010081"},{"poweroffId":2018060931010064,"sgpoweroffId":null,"subsName":"","lineName":"10kV张圩8611线","pubTranName":"徐家塘,","scope":"浙江省-杭州市-西湖区-三墩镇(双桥行政村);","startTime":"2018-06-09 09:46:19","stopDate":"2018-06-09 15:46:19","orgNo":"3340101","typeCode":"电网故障停限电","poweroffArea":"110kV谢村变:张圩8611线-徐家塘后段","poweroffReason":"高压开关跳闸","powerTime":"2018-06-09 11:32:15","powerComm":"已送电","subsNo":"","lineNo":"","tgNo":"","tgName":null,"infoStatus":"1","orgName":"浙江杭州电力客户服务中心","typeName":null,"infoStatusName":null,"dateDay":null,"orgNos":null,"nowTime":null,"countyName":null,"streetName":null,"villageName":null,"roadName":null,"communityName":null,"tranName":null,"sdLineName":null,"cityCode":"3340101","cityName":"浙江杭州电力客户服务中心","provinceCode":null,"stopTime":"2018-06-09 15:46:19","powerType":"全部","powerOffArea":"110kV谢村变:张圩8611线-徐家塘后段","powerOffReason":"高压开关跳闸","powerOffId":"2018060931010064"},{"poweroffId":2018060931010062,"sgpoweroffId":null,"subsName":"","lineName":"10kV鱼青A091线","pubTranName":"沙田头村20#变,","scope":"浙江省杭州市萧山区瓜沥镇沙田头行政村电联、沙田头村一带","startTime":"2018-06-09 09:25:36","stopDate":"2018-06-09 18:10:52","orgNo":"3340130","typeCode":"电网故障停限电","poweroffArea":"110kV航坞变:鱼青A091线-沙田头村20#变台区低压开关","poweroffReason":"低压架空导线断线故障","powerTime":"2018-06-09 17:15:58","powerComm":"已送电","subsNo":"","lineNo":"","tgNo":"","tgName":null,"infoStatus":"1","orgName":"国网浙江杭州市萧山区供电有限公司","typeName":null,"infoStatusName":null,"dateDay":null,"orgNos":null,"nowTime":null,"countyName":null,"streetName":null,"villageName":null,"roadName":null,"communityName":null,"tranName":null,"sdLineName":null,"cityCode":"3340130","cityName":"国网浙江杭州市萧山区供电有限公司","provinceCode":null,"stopTime":"2018-06-09 18:10:52","powerType":"全部","powerOffArea":"110kV航坞变:鱼青A091线-沙田头村20#变台区低压开关","powerOffReason":"低压架空导线断线故障","powerOffId":"2018060931010062"},{"poweroffId":2018060931010044,"sgpoweroffId":null,"subsName":"","lineName":"10kV千家D297线","pubTranName":"富阳市春建乡咸康村村民委员会,富阳市春建乡咸康村村民委员会,","scope":"浙江省杭州市富阳区富春街道横山下村、上俞村、下俞村、尖山村、青云桥村、铁坞口村、富阳鼎立管桩有限公司、青云纸品厂、富阳市环境卫生管理处，富阳市中心屠宰有限公司、佳通电信器材厂、富阳市明伟五金厂、现代技术培训学校、中心屠宰厂、春华村、富阳镇铁坞口倪钢法轧石厂、杭州鼎宏塑板有限公司、华通橡塑实业厂、杭州天鹰食品有限公司、富阳市实验中学、杭州富阳水利建设投资有限公司一带","startTime":"2018-06-09 08:45:43","stopDate":"2018-06-09 12:00:19","orgNo":"3340170","typeCode":"电网故障停限电","poweroffArea":"35kV新义变:千家D297线-富阳市春建乡咸康村村民委员会后段；千家D297线-富阳市春建乡咸康村村民委员会后段","poweroffReason":"低压分支开关跳闸","powerTime":"2018-06-09 11:51:25","powerComm":"已送电","subsNo":"","lineNo":"","tgNo":"","tgName":null,"infoStatus":"1","orgName":"国网浙江杭州市富阳区供电公司","typeName":null,"infoStatusName":null,"dateDay":null,"orgNos":null,"nowTime":null,"countyName":null,"streetName":null,"villageName":null,"roadName":null,"communityName":null,"tranName":null,"sdLineName":null,"cityCode":"3340170","cityName":"国网浙江杭州市富阳区供电公司","provinceCode":null,"stopTime":"2018-06-09 12:00:19","powerType":"全部","powerOffArea":"35kV新义变:千家D297线-富阳市春建乡咸康村村民委员会后段；千家D297线-富阳市春建乡咸康村村民委员会后段","powerOffReason":"低压分支开关跳闸","powerOffId":"2018060931010044"},{"poweroffId":2018060931010033,"sgpoweroffId":null,"subsName":"","lineName":"10kV万景C880线","pubTranName":"新华村42#变,","scope":"浙江省杭州市萧山区宁围(镇)街道、宁围镇。新华行政村、新华村等一带","startTime":"2018-06-09 08:06:36","stopDate":"2018-06-09 17:20:49","orgNo":"3340130","typeCode":"电网故障停限电","poweroffArea":"110kV万安变:万景C880线-新华村42#变低压配电设施","poweroffReason":"低压配电设施故障","powerTime":"2018-06-09 13:26:26","powerComm":"已送电","subsNo":"","lineNo":"","tgNo":"","tgName":null,"infoStatus":"1","orgName":"国网浙江杭州市萧山区供电有限公司","typeName":null,"infoStatusName":null,"dateDay":null,"orgNos":null,"nowTime":null,"countyName":null,"streetName":null,"villageName":null,"roadName":null,"communityName":null,"tranName":null,"sdLineName":null,"cityCode":"3340130","cityName":"国网浙江杭州市萧山区供电有限公司","provinceCode":null,"stopTime":"2018-06-09 17:20:49","powerType":"全部","powerOffArea":"110kV万安变:万景C880线-新华村42#变低压配电设施","powerOffReason":"低压配电设施故障","powerOffId":"2018060931010033"},{"poweroffId":2018060831010904,"sgpoweroffId":null,"subsName":"","lineName":"10kV陵上Y133线","pubTranName":"乾一村岗脚台区,","scope":"浙江省-杭州市-建德市-乾潭镇 乾一行政村一带用户","startTime":"2018-06-08 23:19:00","stopDate":"2018-06-09 05:27:05","orgNo":"3340180","typeCode":"电网故障停限电","poweroffArea":"110kV乾潭变:陵上Y133线-乾一村岗脚台区后段","poweroffReason":"陵上Y133线-乾一村岗脚台区 低压配电设备故障","powerTime":"2018-06-09 00:06:00","powerComm":"已送电","subsNo":"","lineNo":"","tgNo":"","tgName":null,"infoStatus":"1","orgName":"国网浙江建德市供电有限公司","typeName":null,"infoStatusName":null,"dateDay":null,"orgNos":null,"nowTime":null,"countyName":null,"streetName":null,"villageName":null,"roadName":null,"communityName":null,"tranName":null,"sdLineName":null,"cityCode":"3340180","cityName":"国网浙江建德市供电有限公司","provinceCode":null,"stopTime":"2018-06-09 05:27:05","powerType":"全部","powerOffArea":"110kV乾潭变:陵上Y133线-乾一村岗脚台区后段","powerOffReason":"陵上Y133线-乾一村岗脚台区 低压配电设备故障","powerOffId":"2018060831010904"}],"pageModel":{"pageNow":1676,"totalCount":17789,"totalPage":1779,"tableRows":0,"pageCount":10,"beginCount":16750},"isExperi":"1"}