{"message":"","today":"2020-06-16","seleList":[{"poweroffId":2018060831010710,"sgpoweroffId":null,"subsName":"","lineName":"10kV燕方G255线","pubTranName":"云会村北施港东公变,东山村郑家斗南公变,东山村和尚墩公变,东山村施田畈变,杭州德洛电力设备有限公司,东山村郑家斗西公变,东山村豆腐桥公变,东山村郑家墩公变,杭州市余杭区人民政府仁和街道办事处,东山村和尚墩南公变,云会豆腐桥村豆腐桥排涝,","scope":"浙江省杭州市余杭区仁和街道：云会村北施港东、东山村和尚墩、东山村豆腐桥、东山村郑家斗西、东山村郑家墩、东山村郑家斗南、东山村施田畈、云会豆腐桥村豆腐桥排涝、杭州市余杭区人民政府仁和街道办事处、浙江德洛电力设备有限公司一带","startTime":"2018-06-22 08:20:00","stopDate":"2018-06-22 17:00:00","orgNo":"3340140","typeCode":"计划停电","poweroffArea":"110kV仁镇变:燕方G255线燕方G2553开关-燕方G2554开关","poweroffReason":"燕方G255线豆腐桥分线割接至洛山G259线金鼎环网站6号间隔工作","powerTime":"2018-06-22 14:00:07","powerComm":"已送电","subsNo":"","lineNo":"","tgNo":"","tgName":null,"infoStatus":"1","orgName":"国网浙江杭州市余杭区供电有限公司","typeName":null,"infoStatusName":null,"dateDay":null,"orgNos":null,"nowTime":null,"countyName":null,"streetName":null,"villageName":null,"roadName":null,"communityName":null,"tranName":null,"sdLineName":null,"cityCode":"3340140","cityName":"国网浙江杭州市余杭区供电有限公司","provinceCode":null,"stopTime":"2018-06-22 17:00:00","powerType":"全部","powerOffArea":"110kV仁镇变:燕方G255线燕方G2553开关-燕方G2554开关","powerOffReason":"燕方G255线豆腐桥分线割接至洛山G259线金鼎环网站6号间隔工作","powerOffId":"2018060831010710"},{"poweroffId":2018060831010709,"sgpoweroffId":null,"subsName":"","lineName":"10kV田湾G265线","pubTranName":"双陈村钮家塘东公变,双陈村钮家塘西公变,","scope":"浙江省杭州市余杭区仁和街道：双陈村钮家塘西、双陈村钮家塘东一带","startTime":"2018-06-22 08:20:00","stopDate":"2018-06-22 17:00:00","orgNo":"3340140","typeCode":"计划停电","poweroffArea":"110kV仁镇变:田湾G265线田湾G2653开关-田湾G2654开关","poweroffReason":"田湾G265线停电配合燕方G255线豆腐桥分线割接至洛山G259线金鼎环网站6号间隔工作","powerTime":"2018-06-22 14:00:23","powerComm":"已送电","subsNo":"","lineNo":"","tgNo":"","tgName":null,"infoStatus":"1","orgName":"国网浙江杭州市余杭区供电有限公司","typeName":null,"infoStatusName":null,"dateDay":null,"orgNos":null,"nowTime":null,"countyName":null,"streetName":null,"villageName":null,"roadName":null,"communityName":null,"tranName":null,"sdLineName":null,"cityCode":"3340140","cityName":"国网浙江杭州市余杭区供电有限公司","provinceCode":null,"stopTime":"2018-06-22 17:00:00","powerType":"全部","powerOffArea":"110kV仁镇变:田湾G265线田湾G2653开关-田湾G2654开关","powerOffReason":"田湾G265线停电配合燕方G255线豆腐桥分线割接至洛山G259线金鼎环网站6号间隔工作","powerOffId":"2018060831010709"},{"poweroffId":2018060831010701,"sgpoweroffId":null,"subsName":"","lineName":"10kV江消9003线","pubTranName":"红门一变,警卫1#,","scope":"浙江省-杭州市-滨江区-长河街道(闻涛社区-红门家园小区);(中国人民武装警察警卫部队浙江省警卫局);浙江省杭州市滨江区红门小区1号楼住宅，1号楼电梯风机等主供，办公室通讯及电梯备供，应急照明等备供，2号楼风机电梯等备供，消防等主供；中国人民武装警察警卫部队浙江省警卫局、浙江歌山品悦大酒店有限公司。","startTime":"2018-06-12 09:00:00","stopDate":"2018-06-12 17:30:00","orgNo":"3340101","typeCode":"计划停电","poweroffArea":"110kV江一变:江消9003线-警卫后段；江消9003线-红门一变后段；江消9003线-歌山大厦后段；","poweroffReason":"江消站I段翻相位工作","powerTime":"2018-06-12 15:35:04","powerComm":"已送电","subsNo":"","lineNo":"","tgNo":"","tgName":null,"infoStatus":"1","orgName":"浙江杭州电力客户服务中心","typeName":null,"infoStatusName":null,"dateDay":null,"orgNos":null,"nowTime":null,"countyName":null,"streetName":null,"villageName":null,"roadName":null,"communityName":null,"tranName":null,"sdLineName":null,"cityCode":"3340101","cityName":"浙江杭州电力客户服务中心","provinceCode":null,"stopTime":"2018-06-12 17:30:00","powerType":"全部","powerOffArea":"110kV江一变:江消9003线-警卫后段；江消9003线-红门一变后段；江消9003线-歌山大厦后段；","powerOffReason":"江消站I段翻相位工作","powerOffId":"2018060831010701"},{"poweroffId":2018060831010679,"sgpoweroffId":null,"subsName":"","lineName":"10kV洋安Y192线","pubTranName":"清溪翠谷公变台区,塘湾小苑1#公变,","scope":"浙江省-杭州市-建德市-洋溪街道 洋溪社区 清溪翠谷小区、塘湾小苑小区一带用户。","startTime":"2018-06-19 07:00:00","stopDate":"2018-06-19 17:00:00","orgNo":"3340180","typeCode":"计划停电","poweroffArea":"35kV洋溪变:洋安Y192线-清溪翠谷支线0#杆令克后段","poweroffReason":"城东资产经营有限公司洋安Y192线清溪翠谷支线迁改工程","powerTime":"2018-06-19 16:59:00","powerComm":"已送电","subsNo":"","lineNo":"","tgNo":"","tgName":null,"infoStatus":"1","orgName":"国网浙江建德市供电有限公司","typeName":null,"infoStatusName":null,"dateDay":null,"orgNos":null,"nowTime":null,"countyName":null,"streetName":null,"villageName":null,"roadName":null,"communityName":null,"tranName":null,"sdLineName":null,"cityCode":"3340180","cityName":"国网浙江建德市供电有限公司","provinceCode":null,"stopTime":"2018-06-19 17:00:00","powerType":"全部","powerOffArea":"35kV洋溪变:洋安Y192线-清溪翠谷支线0#杆令克后段","powerOffReason":"城东资产经营有限公司洋安Y192线清溪翠谷支线迁改工程","powerOffId":"2018060831010679"},{"poweroffId":2018060831010671,"sgpoweroffId":null,"subsName":"","lineName":"10kV排塘Y185线","pubTranName":"南浦村官桥头台区,","scope":"浙江省-杭州市-建德市-寿昌镇 南浦行政村 官桥头自然村一带用户;","startTime":"2018-06-19 08:00:00","stopDate":"2018-06-19 10:30:00","orgNo":"3340180","typeCode":"计划停电","poweroffArea":"35kV河南里变:排塘Y185线-南浦村官桥头台区后段","poweroffReason":"10千伏排塘Y185线南浦村官桥头台区配变增容","powerTime":"2018-06-19 10:28:00","powerComm":"已送电","subsNo":"","lineNo":"","tgNo":"","tgName":null,"infoStatus":"1","orgName":"国网浙江建德市供电有限公司","typeName":null,"infoStatusName":null,"dateDay":null,"orgNos":null,"nowTime":null,"countyName":null,"streetName":null,"villageName":null,"roadName":null,"communityName":null,"tranName":null,"sdLineName":null,"cityCode":"3340180","cityName":"国网浙江建德市供电有限公司","provinceCode":null,"stopTime":"2018-06-19 10:30:00","powerType":"全部","powerOffArea":"35kV河南里变:排塘Y185线-南浦村官桥头台区后段","powerOffReason":"10千伏排塘Y185线南浦村官桥头台区配变增容","powerOffId":"2018060831010671"},{"poweroffId":2018060831010670,"sgpoweroffId":null,"subsName":"","lineName":"10kV塔山D136线","pubTranName":"新兴街一弄1#公变,","scope":"浙江省杭州市富阳区新登镇东安社区新兴一弄、新兴三弄一带","startTime":"2018-06-19 07:00:00","stopDate":"2018-06-19 17:30:00","orgNo":"3340170","typeCode":"计划停电","poweroffArea":"110kV新登变:塔山D136线-新兴街一弄1#公变后段","poweroffReason":"安装出线电缆YJV-4*150*30米三路，表箱电缆搭接20对。","powerTime":"2018-06-19 15:31:26","powerComm":"工作结束已送电","subsNo":"","lineNo":"","tgNo":"","tgName":null,"infoStatus":"1","orgName":"国网浙江杭州市富阳区供电公司","typeName":null,"infoStatusName":null,"dateDay":null,"orgNos":null,"nowTime":null,"countyName":null,"streetName":null,"villageName":null,"roadName":null,"communityName":null,"tranName":null,"sdLineName":null,"cityCode":"3340170","cityName":"国网浙江杭州市富阳区供电公司","provinceCode":null,"stopTime":"2018-06-19 17:30:00","powerType":"全部","powerOffArea":"110kV新登变:塔山D136线-新兴街一弄1#公变后段","powerOffReason":"安装出线电缆YJV-4*150*30米三路，表箱电缆搭接20对。","powerOffId":"2018060831010670"},{"poweroffId":2018060831010669,"sgpoweroffId":null,"subsName":"","lineName":"10kV渌渚D133线","pubTranName":"莲桥村谢连2#公变,","scope":"浙江省杭州市富阳区渌渚镇莲桥村谢连孙家坞、钱家、阳山一带","startTime":"2018-06-19 12:30:00","stopDate":"2018-06-19 19:00:00","orgNo":"3340170","typeCode":"计划停电","poweroffArea":"110kV新登变:渌渚D133线-莲桥村谢连2#公变后段","poweroffReason":"渌渚D133线163#杆渌南联线18#杆莲桥村谢莲2#公变，拆除VLV-4*120电缆3路、敷设YJV-4*150电缆3路","powerTime":"2018-06-19 18:50:26","powerComm":"现场已送电","subsNo":"","lineNo":"","tgNo":"","tgName":null,"infoStatus":"1","orgName":"国网浙江杭州市富阳区供电公司","typeName":null,"infoStatusName":null,"dateDay":null,"orgNos":null,"nowTime":null,"countyName":null,"streetName":null,"villageName":null,"roadName":null,"communityName":null,"tranName":null,"sdLineName":null,"cityCode":"3340170","cityName":"国网浙江杭州市富阳区供电公司","provinceCode":null,"stopTime":"2018-06-19 19:00:00","powerType":"全部","powerOffArea":"110kV新登变:渌渚D133线-莲桥村谢连2#公变后段","powerOffReason":"渌渚D133线163#杆渌南联线18#杆莲桥村谢莲2#公变，拆除VLV-4*120电缆3路、敷设YJV-4*150电缆3路","powerOffId":"2018060831010669"},{"poweroffId":2018060831010667,"sgpoweroffId":null,"subsName":"","lineName":"10kV南安D336线","pubTranName":"方里村7#青岭山公变,方里村6#杉树弯公变,富阳市润超水电有限公司,方里村5#半坎里公变,古羊岭电站,方里村4#高小龙公变,方里村3#方里公变,","scope":"浙江省杭州市富阳区万市镇方里村一带","startTime":"2018-06-30 08:30:00","stopDate":"2018-06-30 15:00:00","orgNo":"3340170","typeCode":"计划停电","poweroffArea":"110kV万市变:南安D336线-南安D3368开关后段","poweroffReason":"杭州富阳龙羊地区10千伏绝缘化改造工程:南大联线47#杆真空开关安装，青岭头支线扒杆立杆等工作","powerTime":"2018-06-30 14:52:01","powerComm":"已送电","subsNo":"","lineNo":"","tgNo":"","tgName":null,"infoStatus":"1","orgName":"国网浙江杭州市富阳区供电公司","typeName":null,"infoStatusName":null,"dateDay":null,"orgNos":null,"nowTime":null,"countyName":null,"streetName":null,"villageName":null,"roadName":null,"communityName":null,"tranName":null,"sdLineName":null,"cityCode":"3340170","cityName":"国网浙江杭州市富阳区供电公司","provinceCode":null,"stopTime":"2018-06-30 15:00:00","powerType":"全部","powerOffArea":"110kV万市变:南安D336线-南安D3368开关后段","powerOffReason":"杭州富阳龙羊地区10千伏绝缘化改造工程:南大联线47#杆真空开关安装，青岭头支线扒杆立杆等工作","powerOffId":"2018060831010667"},{"poweroffId":2018060831010660,"sgpoweroffId":null,"subsName":"","lineName":"10kV永生D377线","pubTranName":"王裕生纸业3#变,","scope":"浙江省-杭州市富阳区-灵桥镇(浙江王裕生纸业有限公司)一带;","startTime":"2018-06-20 07:30:00","stopDate":"2018-06-20 10:30:00","orgNo":"3340170","typeCode":"计划停电","poweroffArea":"110kV永春变:永生D377线-永生D3771开关后段","poweroffReason":"江南2018年缺陷处理工程一：罗山D390线2#杆电缆搭头，3#杆电缆头拆除，富海分线6#杆电缆搭头等工作。","powerTime":"2018-06-20 10:03:16","powerComm":"工作结束已送电","subsNo":"","lineNo":"","tgNo":"","tgName":null,"infoStatus":"1","orgName":"国网浙江杭州市富阳区供电公司","typeName":null,"infoStatusName":null,"dateDay":null,"orgNos":null,"nowTime":null,"countyName":null,"streetName":null,"villageName":null,"roadName":null,"communityName":null,"tranName":null,"sdLineName":null,"cityCode":"3340170","cityName":"国网浙江杭州市富阳区供电公司","provinceCode":null,"stopTime":"2018-06-20 10:30:00","powerType":"全部","powerOffArea":"110kV永春变:永生D377线-永生D3771开关后段","powerOffReason":"江南2018年缺陷处理工程一：罗山D390线2#杆电缆搭头，3#杆电缆头拆除，富海分线6#杆电缆搭头等工作。","powerOffId":"2018060831010660"},{"poweroffId":2018060831010654,"sgpoweroffId":null,"subsName":"","lineName":"10kV环山D788线","pubTranName":"中埠村2号黄金桥公变,","scope":"浙江省-杭州市-富阳区-环山乡中埠村一带","startTime":"2018-06-19 08:30:00","stopDate":"2018-06-19 16:20:00","orgNo":"3340170","typeCode":"计划停电","poweroffArea":"110kV王洲变:环山D788线-中埠村2号黄金桥公变后段","poweroffReason":"场口2018年马山村9#木桥头公变等台区低压线路改造工程：更换配电屏、更换低压出线电缆、搭接等工作","powerTime":"2018-06-19 16:10:18","powerComm":"工作结束已送电","subsNo":"","lineNo":"","tgNo":"","tgName":null,"infoStatus":"1","orgName":"国网浙江杭州市富阳区供电公司","typeName":null,"infoStatusName":null,"dateDay":null,"orgNos":null,"nowTime":null,"countyName":null,"streetName":null,"villageName":null,"roadName":null,"communityName":null,"tranName":null,"sdLineName":null,"cityCode":"3340170","cityName":"国网浙江杭州市富阳区供电公司","provinceCode":null,"stopTime":"2018-06-19 16:20:00","powerType":"全部","powerOffArea":"110kV王洲变:环山D788线-中埠村2号黄金桥公变后段","powerOffReason":"场口2018年马山村9#木桥头公变等台区低压线路改造工程：更换配电屏、更换低压出线电缆、搭接等工作","powerOffId":"2018060831010654"}],"pageModel":{"pageNow":1679,"totalCount":17789,"totalPage":1779,"tableRows":0,"pageCount":10,"beginCount":16780},"isExperi":"1"}