{"message":"","today":"2020-06-16","seleList":[{"poweroffId":2018060831010498,"sgpoweroffId":null,"subsName":"","lineName":"10kV石镇H871线","pubTranName":"中泰小学,","scope":"浙江省杭州市余杭区中泰街道:中泰小学","startTime":"2018-06-21 09:40:00","stopDate":"2018-06-21 17:30:00","orgNo":"3340140","typeCode":"计划停电","poweroffArea":"110kV中泰变:石镇H871线-中泰小学分线开关后段","poweroffReason":"石镇H871线中泰小学分线改接至广场开关站待用G18线","powerTime":"2018-06-21 17:19:28","powerComm":"已送电","subsNo":"","lineNo":"","tgNo":"","tgName":null,"infoStatus":"1","orgName":"国网浙江杭州市余杭区供电有限公司","typeName":null,"infoStatusName":null,"dateDay":null,"orgNos":null,"nowTime":null,"countyName":null,"streetName":null,"villageName":null,"roadName":null,"communityName":null,"tranName":null,"sdLineName":null,"cityCode":"3340140","cityName":"国网浙江杭州市余杭区供电有限公司","provinceCode":null,"stopTime":"2018-06-21 17:30:00","powerType":"全部","powerOffArea":"110kV中泰变:石镇H871线-中泰小学分线开关后段","powerOffReason":"石镇H871线中泰小学分线改接至广场开关站待用G18线","powerOffId":"2018060831010498"},{"poweroffId":2018060831010497,"sgpoweroffId":null,"subsName":"","lineName":"10kV朝阳G111线","pubTranName":"千禧苑公变,","scope":"浙江省杭州市余杭区南苑街道：千禧苑小区一带","startTime":"2018-06-21 08:40:00","stopDate":"2018-06-21 17:00:00","orgNo":"3340140","typeCode":"计划停电","poweroffArea":"110kV临平变:朝阳G111线-千禧苑分线后段","poweroffReason":"百福环网站I段朝阳G111线千禧分线 配网工程 1.调换千禧苑箱变","powerTime":"2018-06-21 16:26:02","powerComm":"施工全部结束","subsNo":"","lineNo":"","tgNo":"","tgName":null,"infoStatus":"1","orgName":"国网浙江杭州市余杭区供电有限公司","typeName":null,"infoStatusName":null,"dateDay":null,"orgNos":null,"nowTime":null,"countyName":null,"streetName":null,"villageName":null,"roadName":null,"communityName":null,"tranName":null,"sdLineName":null,"cityCode":"3340140","cityName":"国网浙江杭州市余杭区供电有限公司","provinceCode":null,"stopTime":"2018-06-21 17:00:00","powerType":"全部","powerOffArea":"110kV临平变:朝阳G111线-千禧苑分线后段","powerOffReason":"百福环网站I段朝阳G111线千禧分线 配网工程 1.调换千禧苑箱变","powerOffId":"2018060831010497"},{"poweroffId":2018060831010493,"sgpoweroffId":null,"subsName":"","lineName":"10kV石镇H871线","pubTranName":"中惠家园2号公变,中惠家园1号公变,","scope":"浙江省杭州市余杭区中泰街道:中惠花园小区一带","startTime":"2018-06-21 08:40:00","stopDate":"2018-06-21 17:30:00","orgNo":"3340140","typeCode":"计划停电","poweroffArea":"110kV中泰变:石镇H871线-中惠家园进线开关后段","poweroffReason":"石镇H871线中惠花园分线改接至集镇环网站待用G16线","powerTime":"2018-06-21 17:18:51","powerComm":"已送电","subsNo":"","lineNo":"","tgNo":"","tgName":null,"infoStatus":"1","orgName":"国网浙江杭州市余杭区供电有限公司","typeName":null,"infoStatusName":null,"dateDay":null,"orgNos":null,"nowTime":null,"countyName":null,"streetName":null,"villageName":null,"roadName":null,"communityName":null,"tranName":null,"sdLineName":null,"cityCode":"3340140","cityName":"国网浙江杭州市余杭区供电有限公司","provinceCode":null,"stopTime":"2018-06-21 17:30:00","powerType":"全部","powerOffArea":"110kV中泰变:石镇H871线-中惠家园进线开关后段","powerOffReason":"石镇H871线中惠花园分线改接至集镇环网站待用G16线","powerOffId":"2018060831010493"},{"poweroffId":2018060831010490,"sgpoweroffId":null,"subsName":"","lineName":"10kV凯雅H335线","pubTranName":"昌运里一区1#公变,昌运里一区3#公变,昌运里一区6#公变,昌运里一区5#公变,昌运里一区2#公变,昌运里一区4#公变,1#,","scope":"浙江省杭州市余杭区良渚街道：昌运里一区小区一带","startTime":"2018-06-21 09:30:00","stopDate":"2018-06-21 15:40:00","orgNo":"3340140","typeCode":"计划停电","poweroffArea":"110kV长桥变:凯雅H335线昌里开关站昌运H3353线-运农开关站昌运H3353线","poweroffReason":"良渚街道谢村小学10KV进线及变配电工程-运农开关站I段拼柜并电缆搭接工作","powerTime":"2018-06-21 14:43:23","powerComm":"已送电","subsNo":"","lineNo":"","tgNo":"","tgName":null,"infoStatus":"1","orgName":"国网浙江杭州市余杭区供电有限公司","typeName":null,"infoStatusName":null,"dateDay":null,"orgNos":null,"nowTime":null,"countyName":null,"streetName":null,"villageName":null,"roadName":null,"communityName":null,"tranName":null,"sdLineName":null,"cityCode":"3340140","cityName":"国网浙江杭州市余杭区供电有限公司","provinceCode":null,"stopTime":"2018-06-21 15:40:00","powerType":"全部","powerOffArea":"110kV长桥变:凯雅H335线昌里开关站昌运H3353线-运农开关站昌运H3353线","powerOffReason":"良渚街道谢村小学10KV进线及变配电工程-运农开关站I段拼柜并电缆搭接工作","powerOffId":"2018060831010490"},{"poweroffId":2018060831010473,"sgpoweroffId":null,"subsName":"","lineName":"10kV石镇H871线","pubTranName":"杭州市余杭区中泰中学,","scope":"浙江省杭州市余杭区中泰街道:中泰中学","startTime":"2018-06-22 08:40:00","stopDate":"2018-06-22 17:30:00","orgNo":"3340140","typeCode":"计划停电","poweroffArea":"110kV中泰变:石镇H871线-中泰中学分线开关后段","poweroffReason":"石镇H871线中泰中学分线改接至广场开关站待用G17线","powerTime":"2018-06-22 12:33:40","powerComm":"已送电","subsNo":"","lineNo":"","tgNo":"","tgName":null,"infoStatus":"1","orgName":"国网浙江杭州市余杭区供电有限公司","typeName":null,"infoStatusName":null,"dateDay":null,"orgNos":null,"nowTime":null,"countyName":null,"streetName":null,"villageName":null,"roadName":null,"communityName":null,"tranName":null,"sdLineName":null,"cityCode":"3340140","cityName":"国网浙江杭州市余杭区供电有限公司","provinceCode":null,"stopTime":"2018-06-22 17:30:00","powerType":"全部","powerOffArea":"110kV中泰变:石镇H871线-中泰中学分线开关后段","powerOffReason":"石镇H871线中泰中学分线改接至广场开关站待用G17线","powerOffId":"2018060831010473"},{"poweroffId":2018060831010462,"sgpoweroffId":null,"subsName":"","lineName":"10kV杭义H347线","pubTranName":"2#,","scope":"浙江省杭州市余杭区良渚街道：昌运里一区小区一带","startTime":"2018-06-22 09:30:00","stopDate":"2018-06-22 15:40:00","orgNo":"3340140","typeCode":"计划停电","poweroffArea":"110kV长桥变:杭义H347线昌里开关站里农H3473线-运农开关站里农H3473线","poweroffReason":"良渚街道谢村小学10KV进线及变配电工程-运农开关站II段拼柜并电缆搭接工作","powerTime":"2018-06-22 14:29:41","powerComm":"已送电","subsNo":"","lineNo":"","tgNo":"","tgName":null,"infoStatus":"1","orgName":"国网浙江杭州市余杭区供电有限公司","typeName":null,"infoStatusName":null,"dateDay":null,"orgNos":null,"nowTime":null,"countyName":null,"streetName":null,"villageName":null,"roadName":null,"communityName":null,"tranName":null,"sdLineName":null,"cityCode":"3340140","cityName":"国网浙江杭州市余杭区供电有限公司","provinceCode":null,"stopTime":"2018-06-22 15:40:00","powerType":"全部","powerOffArea":"110kV长桥变:杭义H347线昌里开关站里农H3473线-运农开关站里农H3473线","powerOffReason":"良渚街道谢村小学10KV进线及变配电工程-运农开关站II段拼柜并电缆搭接工作","powerOffId":"2018060831010462"},{"poweroffId":2018060831010452,"sgpoweroffId":null,"subsName":"","lineName":"10kV拱冯8813线","pubTranName":"桥西八,","scope":"浙江省杭州市拱墅区康桥街道吴家墩社区24幢一带;","startTime":"2018-06-08 14:25:49","stopDate":"2018-06-08 20:25:49","orgNo":"3340101","typeCode":"电网故障停限电","poweroffArea":"110kV拱宸变:拱冯8813线-桥西八变","poweroffReason":"桥西八变 低压设备故障","powerTime":"2018-06-08 14:52:28","powerComm":"已送电","subsNo":"","lineNo":"","tgNo":"","tgName":null,"infoStatus":"1","orgName":"浙江杭州电力客户服务中心","typeName":null,"infoStatusName":null,"dateDay":null,"orgNos":null,"nowTime":null,"countyName":null,"streetName":null,"villageName":null,"roadName":null,"communityName":null,"tranName":null,"sdLineName":null,"cityCode":"3340101","cityName":"浙江杭州电力客户服务中心","provinceCode":null,"stopTime":"2018-06-08 20:25:49","powerType":"全部","powerOffArea":"110kV拱宸变:拱冯8813线-桥西八变","powerOffReason":"桥西八变 低压设备故障","powerOffId":"2018060831010452"},{"poweroffId":2018060831010434,"sgpoweroffId":null,"subsName":"","lineName":"10kV坪鼓R269线","pubTranName":"天鹅,","scope":"浙江省-杭州市-淳安县-千岛湖镇(云村行政村);","startTime":"2018-06-21 09:20:00","stopDate":"2018-06-21 11:30:00","orgNo":"3340190","typeCode":"计划停电","poweroffArea":"110kV坪山变:坪鼓R269线-天鹅配变跌落式熔断器后段","poweroffReason":"0.4KV天鹅线00号杆拉线加装，00号-01号杆驰度调整","powerTime":"2018-06-21 11:12:50","powerComm":"现场工作完成，已送电","subsNo":"","lineNo":"","tgNo":"","tgName":null,"infoStatus":"1","orgName":"国网浙江淳安县供电有限公司","typeName":null,"infoStatusName":null,"dateDay":null,"orgNos":null,"nowTime":null,"countyName":null,"streetName":null,"villageName":null,"roadName":null,"communityName":null,"tranName":null,"sdLineName":null,"cityCode":"3340190","cityName":"国网浙江淳安县供电有限公司","provinceCode":null,"stopTime":"2018-06-21 11:30:00","powerType":"全部","powerOffArea":"110kV坪山变:坪鼓R269线-天鹅配变跌落式熔断器后段","powerOffReason":"0.4KV天鹅线00号杆拉线加装，00号-01号杆驰度调整","powerOffId":"2018060831010434"},{"poweroffId":2018060831010418,"sgpoweroffId":null,"subsName":"","lineName":"10kV夏峰R169线","pubTranName":"孙家畈公变,","scope":"浙江省-杭州市-淳安县-大墅镇(孙家畈行政村-孙家畈自然村);","startTime":"2018-06-22 07:00:00","stopDate":"2018-06-22 13:00:00","orgNo":"3340190","typeCode":"计划停电","poweroffArea":"35kV大市变:夏峰R169线-孙家畈公变跌落式熔断器后段","poweroffReason":"新孙家畈线00号杆低压电缆搭接，新孙家畈线00号至08号杆组装低压架线","powerTime":"2018-06-22 12:54:26","powerComm":"现场工作已完成","subsNo":"","lineNo":"","tgNo":"","tgName":null,"infoStatus":"1","orgName":"国网浙江淳安县供电有限公司","typeName":null,"infoStatusName":null,"dateDay":null,"orgNos":null,"nowTime":null,"countyName":null,"streetName":null,"villageName":null,"roadName":null,"communityName":null,"tranName":null,"sdLineName":null,"cityCode":"3340190","cityName":"国网浙江淳安县供电有限公司","provinceCode":null,"stopTime":"2018-06-22 13:00:00","powerType":"全部","powerOffArea":"35kV大市变:夏峰R169线-孙家畈公变跌落式熔断器后段","powerOffReason":"新孙家畈线00号杆低压电缆搭接，新孙家畈线00号至08号杆组装低压架线","powerOffId":"2018060831010418"},{"poweroffId":2018060831010416,"sgpoweroffId":null,"subsName":"","lineName":"10kV浪川R133线","pubTranName":"鲍家村凤形山公变,","scope":"浙江省杭州市淳安县浪川乡鲍家行政村鲍家村敬老院","startTime":"2018-06-20 07:00:00","stopDate":"2018-06-20 10:00:00","orgNo":"3340190","typeCode":"计划停电","poweroffArea":"110kV姜家变:浪川R133线-凤形山支线0号杆跌落式熔断器后段","poweroffReason":"浪川R133线凤形山支线3号杆搭接政府支线。","powerTime":"2018-06-20 09:43:08","powerComm":"现场工作已完成","subsNo":"","lineNo":"","tgNo":"","tgName":null,"infoStatus":"1","orgName":"国网浙江淳安县供电有限公司","typeName":null,"infoStatusName":null,"dateDay":null,"orgNos":null,"nowTime":null,"countyName":null,"streetName":null,"villageName":null,"roadName":null,"communityName":null,"tranName":null,"sdLineName":null,"cityCode":"3340190","cityName":"国网浙江淳安县供电有限公司","provinceCode":null,"stopTime":"2018-06-20 10:00:00","powerType":"全部","powerOffArea":"110kV姜家变:浪川R133线-凤形山支线0号杆跌落式熔断器后段","powerOffReason":"浪川R133线凤形山支线3号杆搭接政府支线。","powerOffId":"2018060831010416"}],"pageModel":{"pageNow":1683,"totalCount":17789,"totalPage":1779,"tableRows":0,"pageCount":10,"beginCount":16820},"isExperi":"1"}