{"message":"","today":"2020-06-16","seleList":[{"poweroffId":2018060831010315,"sgpoweroffId":null,"subsName":"","lineName":"10kV道训9141线","pubTranName":"下杨村(七),","scope":"浙江省杭州市西湖区双浦镇下杨村步行街以东，下杨村37号以北区域一带部分用户","startTime":"2018-06-13 09:30:00","stopDate":"2018-06-13 17:30:00","orgNo":"3340101","typeCode":"计划停电","poweroffArea":"110kV象山变:道训9141线-下杨村(七)后段","poweroffReason":"双浦镇美丽乡村整治下杨村配电改造高压工程（中迅 CZ2017-12-011-YXQQ） 下杨站干变封闭母线更换","powerTime":"2018-06-13 14:45:51","powerComm":"已送电","subsNo":"","lineNo":"","tgNo":"","tgName":null,"infoStatus":"1","orgName":"浙江杭州电力客户服务中心","typeName":null,"infoStatusName":null,"dateDay":null,"orgNos":null,"nowTime":null,"countyName":null,"streetName":null,"villageName":null,"roadName":null,"communityName":null,"tranName":null,"sdLineName":null,"cityCode":"3340101","cityName":"浙江杭州电力客户服务中心","provinceCode":null,"stopTime":"2018-06-13 17:30:00","powerType":"全部","powerOffArea":"110kV象山变:道训9141线-下杨村(七)后段","powerOffReason":"双浦镇美丽乡村整治下杨村配电改造高压工程（中迅 CZ2017-12-011-YXQQ） 下杨站干变封闭母线更换","powerOffId":"2018060831010315"},{"poweroffId":2018060831010313,"sgpoweroffId":null,"subsName":"","lineName":"10kV金星6605线","pubTranName":"张家埭,","scope":"浙江省杭州市西湖区双浦镇张家埭村附近一带","startTime":"2018-06-12 09:30:00","stopDate":"2018-06-12 17:30:00","orgNo":"3340101","typeCode":"计划停电","poweroffArea":"110kV周浦变:金星6605线-张家埭后段","poweroffReason":"金星6605线张家埭分线修树消缺","powerTime":"2018-06-12 11:36:36","powerComm":"已送电","subsNo":"","lineNo":"","tgNo":"","tgName":null,"infoStatus":"1","orgName":"浙江杭州电力客户服务中心","typeName":null,"infoStatusName":null,"dateDay":null,"orgNos":null,"nowTime":null,"countyName":null,"streetName":null,"villageName":null,"roadName":null,"communityName":null,"tranName":null,"sdLineName":null,"cityCode":"3340101","cityName":"浙江杭州电力客户服务中心","provinceCode":null,"stopTime":"2018-06-12 17:30:00","powerType":"全部","powerOffArea":"110kV周浦变:金星6605线-张家埭后段","powerOffReason":"金星6605线张家埭分线修树消缺","powerOffId":"2018060831010313"},{"poweroffId":2018060831010309,"sgpoweroffId":null,"subsName":"","lineName":"10kV社井6597线","pubTranName":"宝绣,骆埭,金马,金马三,浦镇施,红石,木家桥,","scope":"浙江省杭州市西湖区双浦镇社井村木家桥，杭富村、金马村、附近一带","startTime":"2018-06-11 09:30:00","stopDate":"2018-06-11 17:30:00","orgNo":"3340101","typeCode":"计划停电","poweroffArea":"杭村站3#间隔、1067编号开关","poweroffReason":"双浦镇美丽乡村整治杭富村配电改造高压工程（城源 CZ2017-12-009-YXQQ）杭富站出电缆至41#杆上杆（用检配合）","powerTime":"2018-06-11 14:45:30","powerComm":"已送电","subsNo":"","lineNo":"","tgNo":"","tgName":null,"infoStatus":"1","orgName":"浙江杭州电力客户服务中心","typeName":null,"infoStatusName":null,"dateDay":null,"orgNos":null,"nowTime":null,"countyName":null,"streetName":null,"villageName":null,"roadName":null,"communityName":null,"tranName":null,"sdLineName":null,"cityCode":"3340101","cityName":"浙江杭州电力客户服务中心","provinceCode":null,"stopTime":"2018-06-11 17:30:00","powerType":"全部","powerOffArea":"杭村站3#间隔、1067编号开关","powerOffReason":"双浦镇美丽乡村整治杭富村配电改造高压工程（城源 CZ2017-12-009-YXQQ）杭富站出电缆至41#杆上杆（用检配合）","powerOffId":"2018060831010309"},{"poweroffId":2018060831010308,"sgpoweroffId":null,"subsName":"","lineName":"10kV店口D941线","pubTranName":"店口村2#亭桥头公变,","scope":"浙江省杭州市富阳区富春街道店口村一带","startTime":"2018-06-22 08:10:00","stopDate":"2018-06-22 17:10:00","orgNo":"3340170","typeCode":"计划停电","poweroffArea":"110kV育才变:店口D941线-店口村2号亭桥头后段","poweroffReason":"青云2018年龙星村1#罗家岭公变等低压台区改造工程：新架沿墙线8档新增出线电缆1路、拆旧3支、吊车拔杆1支、按装横担拉线、搭接等工作","powerTime":"2018-06-22 16:28:52","powerComm":"工作结束已送电","subsNo":"","lineNo":"","tgNo":"","tgName":null,"infoStatus":"1","orgName":"国网浙江杭州市富阳区供电公司","typeName":null,"infoStatusName":null,"dateDay":null,"orgNos":null,"nowTime":null,"countyName":null,"streetName":null,"villageName":null,"roadName":null,"communityName":null,"tranName":null,"sdLineName":null,"cityCode":"3340170","cityName":"国网浙江杭州市富阳区供电公司","provinceCode":null,"stopTime":"2018-06-22 17:10:00","powerType":"全部","powerOffArea":"110kV育才变:店口D941线-店口村2号亭桥头后段","powerOffReason":"青云2018年龙星村1#罗家岭公变等低压台区改造工程：新架沿墙线8档新增出线电缆1路、拆旧3支、吊车拔杆1支、按装横担拉线、搭接等工作","powerOffId":"2018060831010308"},{"poweroffId":2018060831010305,"sgpoweroffId":null,"subsName":"","lineName":"10kV龙门D787线","pubTranName":"龙门三村4#麻墩区公变1,","scope":"浙江省-杭州市-富阳区-龙门镇(龙门一村行政村-六村畈自然村)一带;","startTime":"2018-06-22 08:40:00","stopDate":"2018-06-22 17:10:00","orgNo":"3340170","typeCode":"计划停电","poweroffArea":"110kV王洲变:龙门D787线-龙门三村4号麻墩区公变后段","poweroffReason":"龙门三村4#麻墩区公变更换接户线、拆旧、搭接等工作","powerTime":"2018-06-22 16:28:16","powerComm":"工作结束已送电","subsNo":"","lineNo":"","tgNo":"","tgName":null,"infoStatus":"1","orgName":"国网浙江杭州市富阳区供电公司","typeName":null,"infoStatusName":null,"dateDay":null,"orgNos":null,"nowTime":null,"countyName":null,"streetName":null,"villageName":null,"roadName":null,"communityName":null,"tranName":null,"sdLineName":null,"cityCode":"3340170","cityName":"国网浙江杭州市富阳区供电公司","provinceCode":null,"stopTime":"2018-06-22 17:10:00","powerType":"全部","powerOffArea":"110kV王洲变:龙门D787线-龙门三村4号麻墩区公变后段","powerOffReason":"龙门三村4#麻墩区公变更换接户线、拆旧、搭接等工作","powerOffId":"2018060831010305"},{"poweroffId":2018060831010299,"sgpoweroffId":null,"subsName":"","lineName":"10kV新关D601线","pubTranName":"新关村3#木斗山公变,","scope":"浙江省杭州市富阳区大源镇新关村木斗山一带","startTime":"2018-06-22 08:00:00","stopDate":"2018-06-22 17:00:00","orgNo":"3340170","typeCode":"计划停电","poweroffArea":"35kV溪东变:新关D601线-新关村3#木斗山公变1号开关后段","poweroffReason":"江南2018年大源镇26#城标公变等台区低压线路改造工程吊车立杆3支拔杆4支，拆旧，安装横担拉线，拆装原导线1档架设1kV70*4*2档，敷设YJV224*70-114米，搭接等工作","powerTime":"2018-06-22 16:22:50","powerComm":"工作结束已送电","subsNo":"","lineNo":"","tgNo":"","tgName":null,"infoStatus":"1","orgName":"国网浙江杭州市富阳区供电公司","typeName":null,"infoStatusName":null,"dateDay":null,"orgNos":null,"nowTime":null,"countyName":null,"streetName":null,"villageName":null,"roadName":null,"communityName":null,"tranName":null,"sdLineName":null,"cityCode":"3340170","cityName":"国网浙江杭州市富阳区供电公司","provinceCode":null,"stopTime":"2018-06-22 17:00:00","powerType":"全部","powerOffArea":"35kV溪东变:新关D601线-新关村3#木斗山公变1号开关后段","powerOffReason":"江南2018年大源镇26#城标公变等台区低压线路改造工程吊车立杆3支拔杆4支，拆旧，安装横担拉线，拆装原导线1档架设1kV70*4*2档，敷设YJV224*70-114米，搭接等工作","powerOffId":"2018060831010299"},{"poweroffId":2018060831010268,"sgpoweroffId":null,"subsName":"","lineName":"10kV许家9156线","pubTranName":"张余,周提施三,","scope":"浙江省杭州市西湖区双浦镇张余村附近一带","startTime":"2018-06-11 09:30:00","stopDate":"2018-06-11 17:30:00","orgNo":"3340101","typeCode":"计划停电","poweroffArea":"110kV象山变:许家9156线-1053后段","poweroffReason":"湖埠村配电改造工程（石桥）周提施三、四、湖张路二专变割接（用检配合）","powerTime":"2018-06-11 15:30:25","powerComm":"已送电","subsNo":"","lineNo":"","tgNo":"","tgName":null,"infoStatus":"1","orgName":"浙江杭州电力客户服务中心","typeName":null,"infoStatusName":null,"dateDay":null,"orgNos":null,"nowTime":null,"countyName":null,"streetName":null,"villageName":null,"roadName":null,"communityName":null,"tranName":null,"sdLineName":null,"cityCode":"3340101","cityName":"浙江杭州电力客户服务中心","provinceCode":null,"stopTime":"2018-06-11 17:30:00","powerType":"全部","powerOffArea":"110kV象山变:许家9156线-1053后段","powerOffReason":"湖埠村配电改造工程（石桥）周提施三、四、湖张路二专变割接（用检配合）","powerOffId":"2018060831010268"},{"poweroffId":2018060831010266,"sgpoweroffId":null,"subsName":"","lineName":"10kV盛村D266线","pubTranName":"大盛村1#盛村晒谷场公变,","scope":"浙江省-杭州市-富阳区-上官乡(大盛行政村-盛村自然村)一带;","startTime":"2018-06-21 08:40:00","stopDate":"2018-06-21 17:10:00","orgNo":"3340170","typeCode":"计划停电","poweroffArea":"35kV盛村变:盛村D266线-大盛村1号盛村晒谷场公变后段","poweroffReason":"大盛村1#晒谷场公变更换接户线、拆旧、搭接等工作","powerTime":"2018-06-21 16:56:13","powerComm":"已送电","subsNo":"","lineNo":"","tgNo":"","tgName":null,"infoStatus":"1","orgName":"国网浙江杭州市富阳区供电公司","typeName":null,"infoStatusName":null,"dateDay":null,"orgNos":null,"nowTime":null,"countyName":null,"streetName":null,"villageName":null,"roadName":null,"communityName":null,"tranName":null,"sdLineName":null,"cityCode":"3340170","cityName":"国网浙江杭州市富阳区供电公司","provinceCode":null,"stopTime":"2018-06-21 17:10:00","powerType":"全部","powerOffArea":"35kV盛村变:盛村D266线-大盛村1号盛村晒谷场公变后段","powerOffReason":"大盛村1#晒谷场公变更换接户线、拆旧、搭接等工作","powerOffId":"2018060831010266"},{"poweroffId":2018060831010263,"sgpoweroffId":null,"subsName":"","lineName":"10kV渔山D913线","pubTranName":"曙光村2#老虎山脚公变,","scope":"浙江省-杭州市-富阳区-渔山乡(五岭行政村-曙光自然村);老虎山脚一带","startTime":"2018-06-21 08:00:00","stopDate":"2018-06-21 17:00:00","orgNo":"3340170","typeCode":"计划停电","poweroffArea":"110kV里渔变:渔山D913线-曙光村2号老虎山脚后段","poweroffReason":"江南2018年大源镇26#城标公变等台区低压线路改造工程拆旧，安装横担拉线，架设1kV70*4*4档，架设GJ35-225米搭接等工作","powerTime":"2018-06-21 16:54:49","powerComm":"已送电","subsNo":"","lineNo":"","tgNo":"","tgName":null,"infoStatus":"1","orgName":"国网浙江杭州市富阳区供电公司","typeName":null,"infoStatusName":null,"dateDay":null,"orgNos":null,"nowTime":null,"countyName":null,"streetName":null,"villageName":null,"roadName":null,"communityName":null,"tranName":null,"sdLineName":null,"cityCode":"3340170","cityName":"国网浙江杭州市富阳区供电公司","provinceCode":null,"stopTime":"2018-06-21 17:00:00","powerType":"全部","powerOffArea":"110kV里渔变:渔山D913线-曙光村2号老虎山脚后段","powerOffReason":"江南2018年大源镇26#城标公变等台区低压线路改造工程拆旧，安装横担拉线，架设1kV70*4*4档，架设GJ35-225米搭接等工作","powerOffId":"2018060831010263"},{"poweroffId":2018060831010251,"sgpoweroffId":null,"subsName":"","lineName":"10kV蔡家D893线","pubTranName":"利民村汪村4#祠堂公变,","scope":"浙江省杭州市-富阳区-灵桥镇（利民行政村里汪村自然村）祠堂一带","startTime":"2018-06-21 08:00:00","stopDate":"2018-06-21 17:00:00","orgNo":"3340170","typeCode":"计划停电","poweroffArea":"110kV永春变:蔡家D893线-利民村汪村4号祠堂后段","poweroffReason":"江南2018年蔡家坞6#水库公变等台区低压线路改造工程更换落户线表箱30处，搭接等工作","powerTime":"2018-06-21 16:23:42","powerComm":"工作结束已送电","subsNo":"","lineNo":"","tgNo":"","tgName":null,"infoStatus":"1","orgName":"国网浙江杭州市富阳区供电公司","typeName":null,"infoStatusName":null,"dateDay":null,"orgNos":null,"nowTime":null,"countyName":null,"streetName":null,"villageName":null,"roadName":null,"communityName":null,"tranName":null,"sdLineName":null,"cityCode":"3340170","cityName":"国网浙江杭州市富阳区供电公司","provinceCode":null,"stopTime":"2018-06-21 17:00:00","powerType":"全部","powerOffArea":"110kV永春变:蔡家D893线-利民村汪村4号祠堂后段","powerOffReason":"江南2018年蔡家坞6#水库公变等台区低压线路改造工程更换落户线表箱30处，搭接等工作","powerOffId":"2018060831010251"}],"pageModel":{"pageNow":1685,"totalCount":17789,"totalPage":1779,"tableRows":0,"pageCount":10,"beginCount":16840},"isExperi":"1"}