{"message":"","today":"2020-06-16","seleList":[{"poweroffId":2018060631010318,"sgpoweroffId":null,"subsName":"","lineName":"10kV传芳C254线","pubTranName":"信谊村8#变,杭州邦磊汽车零部件有限公司,所前小学,信谊村3#变,","scope":"浙江省-杭州市-萧山区-所前镇(信谊行政村-顾家湾自然村、西江王自然村);浙江省-杭州市-萧山区-所前镇(杭州汉泰实业有限公司,萧山区所前镇第一小学);","startTime":"2018-06-14 08:40:00","stopDate":"2018-06-14 17:40:00","orgNo":"3340130","typeCode":"计划停电","poweroffArea":"110kV所前变:传芳C254线-传芳C254线信谊村分线开关(自）后段","poweroffReason":"信谊村11#变上400kVA，新立电杆2根，信谊村3#变更换GGD柜；信谊村12#变上400kVA，新立电杆2根，","powerTime":"2018-06-14 16:38:10","powerComm":"已送电","subsNo":"","lineNo":"","tgNo":"","tgName":null,"infoStatus":"1","orgName":"国网浙江杭州市萧山区供电有限公司","typeName":null,"infoStatusName":null,"dateDay":null,"orgNos":null,"nowTime":null,"countyName":null,"streetName":null,"villageName":null,"roadName":null,"communityName":null,"tranName":null,"sdLineName":null,"cityCode":"3340130","cityName":"国网浙江杭州市萧山区供电有限公司","provinceCode":null,"stopTime":"2018-06-14 17:40:00","powerType":"全部","powerOffArea":"110kV所前变:传芳C254线-传芳C254线信谊村分线开关(自）后段","powerOffReason":"信谊村11#变上400kVA，新立电杆2根，信谊村3#变更换GGD柜；信谊村12#变上400kVA，新立电杆2根，","powerOffId":"2018060631010318"},{"poweroffId":2018060631010316,"sgpoweroffId":null,"subsName":"","lineName":"10kV麻车Y312线","pubTranName":"江东村路牌台区,","scope":"浙江省-杭州市-建德市-大洋镇 江东行政村一带用户。","startTime":"2018-06-06 19:42:00","stopDate":"2018-06-06 23:40:00","orgNo":"3340180","typeCode":"电网故障停限电","poweroffArea":"35kV大洋变:麻车Y312线-江东村路牌台区后段","poweroffReason":"麻车Y312线-江东村路牌台区低压配电设备故障","powerTime":"2018-06-06 23:40:00","powerComm":"已送电","subsNo":"","lineNo":"","tgNo":"","tgName":null,"infoStatus":"1","orgName":"国网浙江建德市供电有限公司","typeName":null,"infoStatusName":null,"dateDay":null,"orgNos":null,"nowTime":null,"countyName":null,"streetName":null,"villageName":null,"roadName":null,"communityName":null,"tranName":null,"sdLineName":null,"cityCode":"3340180","cityName":"国网浙江建德市供电有限公司","provinceCode":null,"stopTime":"2018-06-06 23:40:00","powerType":"全部","powerOffArea":"35kV大洋变:麻车Y312线-江东村路牌台区后段","powerOffReason":"麻车Y312线-江东村路牌台区低压配电设备故障","powerOffId":"2018060631010316"},{"poweroffId":2018060631010308,"sgpoweroffId":null,"subsName":"","lineName":"10kV和展8945线","pubTranName":"市政广职,广职（一）,","scope":"浙江省杭州市下城区长浜路346号省广电集团宿舍2、4幢及商铺附近一带、杭州市市政公用建设开发公司","startTime":"2018-06-19 09:30:00","stopDate":"2018-06-19 20:30:00","orgNo":"3340101","typeCode":"计划停电","poweroffArea":"广职一线（广职一站-望景站）","poweroffReason":"东新东路（德胜路-重工路）10kV电力线路迁改一期二期工程（城源）广职一线与新放电缆做对接、迁改","powerTime":"2018-06-19 16:03:24","powerComm":"已送电","subsNo":"","lineNo":"","tgNo":"","tgName":null,"infoStatus":"1","orgName":"浙江杭州电力客户服务中心","typeName":null,"infoStatusName":null,"dateDay":null,"orgNos":null,"nowTime":null,"countyName":null,"streetName":null,"villageName":null,"roadName":null,"communityName":null,"tranName":null,"sdLineName":null,"cityCode":"3340101","cityName":"浙江杭州电力客户服务中心","provinceCode":null,"stopTime":"2018-06-19 20:30:00","powerType":"全部","powerOffArea":"广职一线（广职一站-望景站）","powerOffReason":"东新东路（德胜路-重工路）10kV电力线路迁改一期二期工程（城源）广职一线与新放电缆做对接、迁改","powerOffId":"2018060631010308"},{"poweroffId":2018060631010304,"sgpoweroffId":null,"subsName":"","lineName":"10kV笕同9823线","pubTranName":"花府七,花府五,","scope":"浙江省杭州市江干区明月桥路花园府公寓5、13幢及商铺充电桩附近一带","startTime":"2018-06-14 09:30:00","stopDate":"2018-06-14 17:30:00","orgNo":"3340101","typeCode":"计划停电","poweroffArea":"110kV笕桥变:笕同9823线-花府七后段；笕同9823线-花府五后段；","poweroffReason":"杭州市城东新城建设投资有限公司PD2015-03-005-GD配变消缺","powerTime":"2018-06-14 13:01:17","powerComm":"已送电","subsNo":"","lineNo":"","tgNo":"","tgName":null,"infoStatus":"1","orgName":"浙江杭州电力客户服务中心","typeName":null,"infoStatusName":null,"dateDay":null,"orgNos":null,"nowTime":null,"countyName":null,"streetName":null,"villageName":null,"roadName":null,"communityName":null,"tranName":null,"sdLineName":null,"cityCode":"3340101","cityName":"浙江杭州电力客户服务中心","provinceCode":null,"stopTime":"2018-06-14 17:30:00","powerType":"全部","powerOffArea":"110kV笕桥变:笕同9823线-花府七后段；笕同9823线-花府五后段；","powerOffReason":"杭州市城东新城建设投资有限公司PD2015-03-005-GD配变消缺","powerOffId":"2018060631010304"},{"poweroffId":2018060631010303,"sgpoweroffId":null,"subsName":"","lineName":"青航194线","pubTranName":"","scope":"临安市青山水泥二厂,青山鹤岭1,青山鹤岭9,翠紫苑小区4号,翠紫苑小区7号,青山鹤岭,临安市公安局青山派出所,临安市青山初级中学,青山鹤岭11,翠紫苑小区5号,临安飞利达有限公司,青山鹤岭7，青山鹤岭5,翠紫苑小区6号,青山鹤岭3,临安红马机械件有限公司一带","startTime":"2018-06-06 18:18:21","stopDate":"2018-06-07 00:18:21","orgNo":"3340160","typeCode":"电网故障停限电","poweroffArea":"停青山变青航194线青山公变低压开关","poweroffReason":"青山变青航194线青山公变低压开关跳","powerTime":"2018-06-06 19:28:26","powerComm":"已送电","subsNo":"","lineNo":"","tgNo":"","tgName":null,"infoStatus":"1","orgName":"国网浙江临安市供电公司","typeName":null,"infoStatusName":null,"dateDay":null,"orgNos":null,"nowTime":null,"countyName":null,"streetName":null,"villageName":null,"roadName":null,"communityName":null,"tranName":null,"sdLineName":null,"cityCode":"3340160","cityName":"国网浙江临安市供电公司","provinceCode":null,"stopTime":"2018-06-07 00:18:21","powerType":"全部","powerOffArea":"停青山变青航194线青山公变低压开关","powerOffReason":"青山变青航194线青山公变低压开关跳","powerOffId":"2018060631010303"},{"poweroffId":2018060631010302,"sgpoweroffId":null,"subsName":"","lineName":"10kV崇庆8832线","pubTranName":"运居一,","scope":"浙江省杭州市拱墅区运河人家小区1、2、3幢及地下室水泵附近一带","startTime":"2018-06-12 09:30:22","stopDate":"2018-06-12 17:30:31","orgNo":"3340101","typeCode":"计划停电","poweroffArea":"运居一、运居二配变低压","poweroffReason":"运河人家小区运家站内加装环境监测装置","powerTime":"2018-06-12 12:57:25","powerComm":"已送电","subsNo":"","lineNo":"","tgNo":"","tgName":null,"infoStatus":"1","orgName":"浙江杭州电力客户服务中心","typeName":null,"infoStatusName":null,"dateDay":null,"orgNos":null,"nowTime":null,"countyName":null,"streetName":null,"villageName":null,"roadName":null,"communityName":null,"tranName":null,"sdLineName":null,"cityCode":"3340101","cityName":"浙江杭州电力客户服务中心","provinceCode":null,"stopTime":"2018-06-12 17:30:31","powerType":"全部","powerOffArea":"运居一、运居二配变低压","powerOffReason":"运河人家小区运家站内加装环境监测装置","powerOffId":"2018060631010302"},{"poweroffId":2018060631010299,"sgpoweroffId":null,"subsName":"","lineName":"10kV笕同9823线","pubTranName":"花府十一,花府九,","scope":"浙江省杭州市江干区明月桥路花园府公寓7、10、11、14、17、19、20、23幢及商铺充电桩附近一带","startTime":"2018-06-12 09:30:59","stopDate":"2018-06-12 17:30:07","orgNo":"3340101","typeCode":"计划停电","poweroffArea":"110kV笕桥变:笕同9823线-花府九后段；笕同9823线-花府十一后段","poweroffReason":"杭州市城东新城建设投资有限公司PD2015-03-005-GD配变消缺","powerTime":"2018-06-12 13:05:14","powerComm":"已送电","subsNo":"","lineNo":"","tgNo":"","tgName":null,"infoStatus":"1","orgName":"浙江杭州电力客户服务中心","typeName":null,"infoStatusName":null,"dateDay":null,"orgNos":null,"nowTime":null,"countyName":null,"streetName":null,"villageName":null,"roadName":null,"communityName":null,"tranName":null,"sdLineName":null,"cityCode":"3340101","cityName":"浙江杭州电力客户服务中心","provinceCode":null,"stopTime":"2018-06-12 17:30:07","powerType":"全部","powerOffArea":"110kV笕桥变:笕同9823线-花府九后段；笕同9823线-花府十一后段","powerOffReason":"杭州市城东新城建设投资有限公司PD2015-03-005-GD配变消缺","powerOffId":"2018060631010299"},{"poweroffId":2018060631010298,"sgpoweroffId":null,"subsName":"","lineName":"10kV东宸9837线","pubTranName":"花府十,花府十二,","scope":"浙江省杭州市江干区明月桥路花园府公寓7、10、11、16、18、20、23幢及商铺充电桩附近一带","startTime":"2018-06-11 09:10:00","stopDate":"2018-06-11 17:30:00","orgNo":"3340101","typeCode":"计划停电","poweroffArea":"110kV笕桥变:东宸9837线-花府十后段；东宸9837线-花府十二后段","poweroffReason":"杭州市城东新城建设投资有限公司PD2015-03-005-GD配变消缺","powerTime":"2018-06-11 11:51:51","powerComm":"已送电","subsNo":"","lineNo":"","tgNo":"","tgName":null,"infoStatus":"1","orgName":"浙江杭州电力客户服务中心","typeName":null,"infoStatusName":null,"dateDay":null,"orgNos":null,"nowTime":null,"countyName":null,"streetName":null,"villageName":null,"roadName":null,"communityName":null,"tranName":null,"sdLineName":null,"cityCode":"3340101","cityName":"浙江杭州电力客户服务中心","provinceCode":null,"stopTime":"2018-06-11 17:30:00","powerType":"全部","powerOffArea":"110kV笕桥变:东宸9837线-花府十后段；东宸9837线-花府十二后段","powerOffReason":"杭州市城东新城建设投资有限公司PD2015-03-005-GD配变消缺","powerOffId":"2018060631010298"},{"poweroffId":2018060631010296,"sgpoweroffId":null,"subsName":"","lineName":"10kV轻汽8456线","pubTranName":"富泽施,皋南(5-1)农,富泽施,皋南(5)农,嘉光,变压器,武警2,汽技,皋南(4-1)农,皋南(4)农,武警1,富泽施,富泽施,信联(2),富泽施,","scope":"浙江省杭州市拱墅区上塘镇皋亭村宋家村24号附近一带、浙江信联钢铁有限公司、武警浙江总队直属支队、杭州富泽隆房地产开发有限公司、杭州汽车高级技工学校、杭州嘉光汽车维修有限公司、杭州蔡马股份经济合作社","startTime":"2018-06-13 09:00:39","stopDate":"2018-06-13 17:30:46","orgNo":"3340101","typeCode":"计划停电","poweroffArea":"夹板84561线（8757~油马站）","poweroffReason":"杭州市拱墅区城中村改造指挥部上塘分指挥部皋亭坝路电力迁改工程（城北送变电）","powerTime":"2018-06-13 14:17:13","powerComm":"已送电","subsNo":"","lineNo":"","tgNo":"","tgName":null,"infoStatus":"1","orgName":"浙江杭州电力客户服务中心","typeName":null,"infoStatusName":null,"dateDay":null,"orgNos":null,"nowTime":null,"countyName":null,"streetName":null,"villageName":null,"roadName":null,"communityName":null,"tranName":null,"sdLineName":null,"cityCode":"3340101","cityName":"浙江杭州电力客户服务中心","provinceCode":null,"stopTime":"2018-06-13 17:30:46","powerType":"全部","powerOffArea":"夹板84561线（8757~油马站）","powerOffReason":"杭州市拱墅区城中村改造指挥部上塘分指挥部皋亭坝路电力迁改工程（城北送变电）","powerOffId":"2018060631010296"},{"poweroffId":2018060631010295,"sgpoweroffId":null,"subsName":"","lineName":"10kV俞村8072线","pubTranName":"花卉,","scope":"浙江省杭州市江干区水墩村二组、三组附近一带，杭州市园林文物局湖滨管理处","startTime":"2018-06-14 09:38:48","stopDate":"2018-06-14 20:30:00","orgNo":"3340101","typeCode":"计划停电","poweroffArea":"俞章80721线（俞村站~12#杆）","poweroffReason":"杭州市江干区农居建设管理中心桐德路（德胜路-南都路）道路工程德协线、俞章线迁改工程（需用检配合）","powerTime":"2018-06-14 17:53:23","powerComm":"已送电","subsNo":"","lineNo":"","tgNo":"","tgName":null,"infoStatus":"1","orgName":"浙江杭州电力客户服务中心","typeName":null,"infoStatusName":null,"dateDay":null,"orgNos":null,"nowTime":null,"countyName":null,"streetName":null,"villageName":null,"roadName":null,"communityName":null,"tranName":null,"sdLineName":null,"cityCode":"3340101","cityName":"浙江杭州电力客户服务中心","provinceCode":null,"stopTime":"2018-06-14 20:30:00","powerType":"全部","powerOffArea":"俞章80721线（俞村站~12#杆）","powerOffReason":"杭州市江干区农居建设管理中心桐德路（德胜路-南都路）道路工程德协线、俞章线迁改工程（需用检配合）","powerOffId":"2018060631010295"}],"pageModel":{"pageNow":1690,"totalCount":17789,"totalPage":1779,"tableRows":0,"pageCount":10,"beginCount":16890},"isExperi":"1"}