{"message":"","today":"2020-06-16","seleList":[{"poweroffId":2018060631010293,"sgpoweroffId":null,"subsName":"","lineName":"10kV天钟D434线","pubTranName":"太平村1#沙场公变,","scope":"浙江省-杭州市-富阳区-春江街道(太平行政村-太平自然村-南丰村);","startTime":"2018-06-06 17:47:26","stopDate":"2018-06-06 20:00:12","orgNo":"3340170","typeCode":"电网故障停限电","poweroffArea":"110kV天钟变:天钟D434线-太平村1#沙场公变后段","poweroffReason":"低压配电设备故障","powerTime":"2018-06-06 20:00:13","powerComm":"故障已修复","subsNo":"","lineNo":"","tgNo":"","tgName":null,"infoStatus":"1","orgName":"国网浙江杭州市富阳区供电公司","typeName":null,"infoStatusName":null,"dateDay":null,"orgNos":null,"nowTime":null,"countyName":null,"streetName":null,"villageName":null,"roadName":null,"communityName":null,"tranName":null,"sdLineName":null,"cityCode":"3340170","cityName":"国网浙江杭州市富阳区供电公司","provinceCode":null,"stopTime":"2018-06-06 20:00:12","powerType":"全部","powerOffArea":"110kV天钟变:天钟D434线-太平村1#沙场公变后段","powerOffReason":"低压配电设备故障","powerOffId":"2018060631010293"},{"poweroffId":2018060631010289,"sgpoweroffId":null,"subsName":"","lineName":"10kV东宸9837线","pubTranName":"花府六,花府二,","scope":"浙江省杭州市江干区明月桥路花园府公寓1、2、6幢及商铺充电桩附近一带","startTime":"2018-06-13 09:30:00","stopDate":"2018-06-13 17:30:54","orgNo":"3340101","typeCode":"计划停电","poweroffArea":"东宸9837线-花府六后段；东宸9837线-花府二后段；","poweroffReason":"杭州市城东新城建设投资有限公司PD2015-03-005-GD配变消缺","powerTime":"2018-06-13 13:27:14","powerComm":"已送电","subsNo":"","lineNo":"","tgNo":"","tgName":null,"infoStatus":"1","orgName":"浙江杭州电力客户服务中心","typeName":null,"infoStatusName":null,"dateDay":null,"orgNos":null,"nowTime":null,"countyName":null,"streetName":null,"villageName":null,"roadName":null,"communityName":null,"tranName":null,"sdLineName":null,"cityCode":"3340101","cityName":"浙江杭州电力客户服务中心","provinceCode":null,"stopTime":"2018-06-13 17:30:54","powerType":"全部","powerOffArea":"东宸9837线-花府六后段；东宸9837线-花府二后段；","powerOffReason":"杭州市城东新城建设投资有限公司PD2015-03-005-GD配变消缺","powerOffId":"2018060631010289"},{"poweroffId":2018060631010288,"sgpoweroffId":null,"subsName":"","lineName":"10kV家垅Y738线","pubTranName":"施家村杨家蓬台区,","scope":"浙江省-杭州市-建德市-下涯镇 施家行政村-杨家蓬自然村一带用户。","startTime":"2018-06-06 17:36:00","stopDate":"2018-06-06 22:00:00","orgNo":"3340180","typeCode":"电网故障停限电","poweroffArea":"110kV马目变:家垅Y738线-施家村杨家蓬台区后段","poweroffReason":"家垅Y738线-施家村杨家蓬台区低压配电设备故障","powerTime":"2018-06-06 18:18:00","powerComm":"已送电","subsNo":"","lineNo":"","tgNo":"","tgName":null,"infoStatus":"1","orgName":"国网浙江建德市供电有限公司","typeName":null,"infoStatusName":null,"dateDay":null,"orgNos":null,"nowTime":null,"countyName":null,"streetName":null,"villageName":null,"roadName":null,"communityName":null,"tranName":null,"sdLineName":null,"cityCode":"3340180","cityName":"国网浙江建德市供电有限公司","provinceCode":null,"stopTime":"2018-06-06 22:00:00","powerType":"全部","powerOffArea":"110kV马目变:家垅Y738线-施家村杨家蓬台区后段","powerOffReason":"家垅Y738线-施家村杨家蓬台区低压配电设备故障","powerOffId":"2018060631010288"},{"poweroffId":2018060631010287,"sgpoweroffId":null,"subsName":"","lineName":"10kV黄家965线","pubTranName":"黄村农,黄家（2-4）农,黄家（1-4）农,黄家(2-2)农,黄家(2)农,","scope":"浙江省-杭州市-江干区-笕桥镇(黄家社区一组1号附近一带、黄家村二组附近一带);","startTime":"2018-06-13 09:30:00","stopDate":"2018-06-13 20:30:54","orgNo":"3340101","typeCode":"计划停电","poweroffArea":"黄家6965线12#杆高压开关，黄家6965线黄家（2)农支线","poweroffReason":"2017年城北地区10千伏公变增容布点及低压台区改造一期工程（笕桥）","powerTime":"2018-06-13 16:22:13","powerComm":"已送电","subsNo":"","lineNo":"","tgNo":"","tgName":null,"infoStatus":"1","orgName":"浙江杭州电力客户服务中心","typeName":null,"infoStatusName":null,"dateDay":null,"orgNos":null,"nowTime":null,"countyName":null,"streetName":null,"villageName":null,"roadName":null,"communityName":null,"tranName":null,"sdLineName":null,"cityCode":"3340101","cityName":"浙江杭州电力客户服务中心","provinceCode":null,"stopTime":"2018-06-13 20:30:54","powerType":"全部","powerOffArea":"黄家6965线12#杆高压开关，黄家6965线黄家（2)农支线","powerOffReason":"2017年城北地区10千伏公变增容布点及低压台区改造一期工程（笕桥）","powerOffId":"2018060631010287"},{"poweroffId":2018060631010275,"sgpoweroffId":null,"subsName":"","lineName":"10kV孙家T119线","pubTranName":"濮家庄2号公变,","scope":"浙江省-杭州市-桐庐县-桐君街道(濮家庄行政村-杨家坞自然村);","startTime":"2018-06-15 07:15:00","stopDate":"2018-06-15 17:30:00","orgNo":"3340150","typeCode":"计划停电","poweroffArea":"110kV桐庐变:孙家T119线-濮家F3166令克后段","poweroffReason":"濮家庄2号公变调换低压进出线电缆、拆除低压导线15档及低压线路割接工作","powerTime":"2018-06-15 17:25:16","powerComm":"已送电","subsNo":"","lineNo":"","tgNo":"","tgName":null,"infoStatus":"1","orgName":"国网浙江桐庐县供电公司","typeName":null,"infoStatusName":null,"dateDay":null,"orgNos":null,"nowTime":null,"countyName":null,"streetName":null,"villageName":null,"roadName":null,"communityName":null,"tranName":null,"sdLineName":null,"cityCode":"3340150","cityName":"国网浙江桐庐县供电公司","provinceCode":null,"stopTime":"2018-06-15 17:30:00","powerType":"全部","powerOffArea":"110kV桐庐变:孙家T119线-濮家F3166令克后段","powerOffReason":"濮家庄2号公变调换低压进出线电缆、拆除低压导线15档及低压线路割接工作","powerOffId":"2018060631010275"},{"poweroffId":2018060631010274,"sgpoweroffId":null,"subsName":"","lineName":"白牛455线","pubTranName":"","scope":"浙江省杭州市临安市昌化镇联盟村，甲子村(一),临安昌化远丰食品有限公司,临安市强瑞竹制品厂,二村郑家庄,良源村,沃溪电站,临安市白牛木制品厂,白牛村.寺边,龙寺（二）,临安昌龙砂石有限公司,临安市昌化镇联盟股份经济合作社,五丰村,腰蒲村,浙江富丽科技创业有限公司,临安市昌化镇塑胶厂,沃溪村,后葛新区,三星村驼坞,三星村,白牛,临安市联盟金诚冷库租赁服务部,临安市沃溪兴隆水电站,临安市良沅木材加工厂,临安市昌化橡胶炭业制品厂,联盟村黄溪,后革村（一）,高犁村（后村）,沃溪村郑家,大源塘,后葛村屋山,白牛村,沃溪,甲子村.天打石,许兴智,二村西坞,临安清凉峰捌叁林林度假酒店有限公司,后葛方家,临安昌化白牛页岩砖厂,临安嘉天山核桃资源利用有限公司,杭州白牛水电开发有限公司,临安市景尚旅游开发有限公司,临安市昌化林场,良源山脚,二村高山,大源塘,临安市昌化三星家具厂,白牛村后村,临安昌化白牛页岩砖厂,二村,白牛一级，五丰村（毛凸山）,杭州临安锦来富生物科技有限公司,高犁村,良源浪树坪,沥溪村,联盟村转革,联盟村.黄干,临安市昌化镇后葛股份经济合作社,杭州临安荞麦塘水电投资开发有限公司,三星村（七井岩）,龙寺村,临安市恒昌水电有限公司,二村屋基里,二村（沿水坑）临安市五丰南平机械电器有限公司,临安市昌化三星家具厂,联盟村（横蒲里）,杭州白牛水电开发有限公司,临安市腾达琉璃瓦厂,后葛二,临安市昌化伟祥木制品厂,白牛村红墙里一带","startTime":"2018-06-06 16:49:07","stopDate":"2018-06-06 22:49:07","orgNo":"3340160","typeCode":"电网故障停限电","poweroffArea":"停昌化变白牛455线联盟公变低压开关故障","poweroffReason":"白牛455线联盟公变低压开关故障处理","powerTime":"2018-06-06 21:56:35","powerComm":"已送电","subsNo":"","lineNo":"","tgNo":"","tgName":null,"infoStatus":"1","orgName":"国网浙江临安市供电公司","typeName":null,"infoStatusName":null,"dateDay":null,"orgNos":null,"nowTime":null,"countyName":null,"streetName":null,"villageName":null,"roadName":null,"communityName":null,"tranName":null,"sdLineName":null,"cityCode":"3340160","cityName":"国网浙江临安市供电公司","provinceCode":null,"stopTime":"2018-06-06 22:49:07","powerType":"全部","powerOffArea":"停昌化变白牛455线联盟公变低压开关故障","powerOffReason":"白牛455线联盟公变低压开关故障处理","powerOffId":"2018060631010274"},{"poweroffId":2018060631010263,"sgpoweroffId":null,"subsName":"","lineName":"10kV双义253线","pubTranName":"王家村1号公变,","scope":"浙江省-杭州市-桐庐县-江南镇(珠山行政村王家村一带)","startTime":"2018-06-14 07:30:00","stopDate":"2018-06-14 17:30:00","orgNo":"3340150","typeCode":"计划停电","poweroffArea":"110kV石阜变:双义253线-奚家F5150令克后段","poweroffReason":"金具安装、JP柜安装、更换穿户线、更换低压出线电缆及搭接工作","powerTime":"2018-06-14 17:22:19","powerComm":"已送电","subsNo":"","lineNo":"","tgNo":"","tgName":null,"infoStatus":"1","orgName":"国网浙江桐庐县供电公司","typeName":null,"infoStatusName":null,"dateDay":null,"orgNos":null,"nowTime":null,"countyName":null,"streetName":null,"villageName":null,"roadName":null,"communityName":null,"tranName":null,"sdLineName":null,"cityCode":"3340150","cityName":"国网浙江桐庐县供电公司","provinceCode":null,"stopTime":"2018-06-14 17:30:00","powerType":"全部","powerOffArea":"110kV石阜变:双义253线-奚家F5150令克后段","powerOffReason":"金具安装、JP柜安装、更换穿户线、更换低压出线电缆及搭接工作","powerOffId":"2018060631010263"},{"poweroffId":2018060631010261,"sgpoweroffId":null,"subsName":"","lineName":"10kV名苑C683线","pubTranName":"钱啤居委会9#公变,","scope":"浙江省-杭州市-萧山区-新街镇、新街街道、新润社区、钱啤小区等一带","startTime":"2018-06-06 16:28:52","stopDate":"2018-06-06 22:33:24","orgNo":"3340130","typeCode":"电网故障停限电","poweroffArea":"110kV新街变:名苑C683线-钱啤居委会9#公变低压配电设施","poweroffReason":"低压配电设施故障","powerTime":"2018-06-06 17:26:37","powerComm":"已送电","subsNo":"","lineNo":"","tgNo":"","tgName":null,"infoStatus":"1","orgName":"国网浙江杭州市萧山区供电有限公司","typeName":null,"infoStatusName":null,"dateDay":null,"orgNos":null,"nowTime":null,"countyName":null,"streetName":null,"villageName":null,"roadName":null,"communityName":null,"tranName":null,"sdLineName":null,"cityCode":"3340130","cityName":"国网浙江杭州市萧山区供电有限公司","provinceCode":null,"stopTime":"2018-06-06 22:33:24","powerType":"全部","powerOffArea":"110kV新街变:名苑C683线-钱啤居委会9#公变低压配电设施","powerOffReason":"低压配电设施故障","powerOffId":"2018060631010261"},{"poweroffId":2018060631010256,"sgpoweroffId":null,"subsName":"","lineName":"10kV高岭T202线","pubTranName":"阆苑村6号公变,桐庐阆苑养生谷旅游开发有限公司（基建）,麻蓬村2号公变,阆苑村2号公变,阆苑村1号公变,中国电建基建七,中国电建基建七,中国电建基建七,阆苑村4号公变,仇岭坞1号公变,阆苑村7号公变,麻蓬村1号公变,阆苑村5号公变,阆苑村8号公变,桐庐绿野阆源风景旅游有限公司,阆苑村9号公变,中国电建基建七,水利水电,阆苑村3号公变,水利水电,","scope":"浙江省-杭州市-桐庐县-桐君街道(浪苑行政村-白桥头自然村、对门自然村、高山自然村、花厅下自然村、井湾自然村、罗家自然村、荣店自然村、塘园里自然村、外畈自然村,麻蓬行政村-仇岭坞自然村);浙江省-杭州市-桐庐县-桐君街道(桐庐县旅游投资开发有限公司,桐庐阆苑养生谷旅游开发有限公司(基建),中国电建集团华东勘测设计研究院有限公司基建七,中国水利水电第十二工程局有限公司,中国水利水电第十二局工程局有限公司);","startTime":"2018-06-14 07:00:00","stopDate":"2018-06-14 10:00:00","orgNo":"3340150","typeCode":"计划停电","poweroffArea":"110kV方埠变:高岭T202线-里包F3191开关后段","poweroffReason":"1、里包分线10kV调压器故障处理 2、麻蓬村2号公变增容","powerTime":"2018-06-14 09:50:26","powerComm":"全部送电","subsNo":"","lineNo":"","tgNo":"","tgName":null,"infoStatus":"1","orgName":"国网浙江桐庐县供电公司","typeName":null,"infoStatusName":null,"dateDay":null,"orgNos":null,"nowTime":null,"countyName":null,"streetName":null,"villageName":null,"roadName":null,"communityName":null,"tranName":null,"sdLineName":null,"cityCode":"3340150","cityName":"国网浙江桐庐县供电公司","provinceCode":null,"stopTime":"2018-06-14 10:00:00","powerType":"全部","powerOffArea":"110kV方埠变:高岭T202线-里包F3191开关后段","powerOffReason":"1、里包分线10kV调压器故障处理 2、麻蓬村2号公变增容","powerOffId":"2018060631010256"},{"poweroffId":2018060631010243,"sgpoweroffId":null,"subsName":"","lineName":"10kV麻车Y312线","pubTranName":"麻车村里村台区,","scope":"浙江省-杭州市-建德市-大洋镇 麻车行政村一带用户。","startTime":"2018-06-06 15:50:00","stopDate":"2018-06-06 20:00:00","orgNo":"3340180","typeCode":"电网故障停限电","poweroffArea":"35kV大洋变:麻车Y312线-麻车村里村台区后段","poweroffReason":"麻车Y312线-麻车村里村台区低压配电设备故障","powerTime":"2018-06-06 18:11:00","powerComm":"已送电","subsNo":"","lineNo":"","tgNo":"","tgName":null,"infoStatus":"1","orgName":"国网浙江建德市供电有限公司","typeName":null,"infoStatusName":null,"dateDay":null,"orgNos":null,"nowTime":null,"countyName":null,"streetName":null,"villageName":null,"roadName":null,"communityName":null,"tranName":null,"sdLineName":null,"cityCode":"3340180","cityName":"国网浙江建德市供电有限公司","provinceCode":null,"stopTime":"2018-06-06 20:00:00","powerType":"全部","powerOffArea":"35kV大洋变:麻车Y312线-麻车村里村台区后段","powerOffReason":"麻车Y312线-麻车村里村台区低压配电设备故障","powerOffId":"2018060631010243"}],"pageModel":{"pageNow":1691,"totalCount":17789,"totalPage":1779,"tableRows":0,"pageCount":10,"beginCount":16900},"isExperi":"1"}