{"message":"","today":"2020-06-15","seleList":[{"poweroffId":2020051531020261,"sgpoweroffId":null,"subsName":"","lineName":"10kV立新D124线","pubTranName":"塔山村7号立新小区公变变压器,","scope":"浙江省-杭州市-富阳区-新登镇(惠来社区-立新路,塔山行政村-立新路)","startTime":"2020-05-26 07:50:00","stopDate":"2020-05-26 17:00:00","orgNo":"3340170","typeCode":"计划停电","poweroffArea":"110kV新登变:立新D124线-塔山村7号立新小区公变变压器后段","poweroffReason":"(低压停电信息)照明01线、照明02线、敷设出线电缆YJV-4*150*3路、电缆搭接、更换落户线BS-JKLYJ-2*25*4户、落户线搭接","powerTime":"2020-05-26 16:46:56","powerComm":"已送电","subsNo":"","lineNo":"","tgNo":"","tgName":null,"infoStatus":"1","orgName":"国网浙江杭州市富阳区供电公司","typeName":null,"infoStatusName":null,"dateDay":null,"orgNos":null,"nowTime":null,"countyName":null,"streetName":null,"villageName":null,"roadName":null,"communityName":null,"tranName":null,"sdLineName":null,"cityCode":"3340170","cityName":"国网浙江杭州市富阳区供电公司","provinceCode":null,"stopTime":"2020-05-26 17:00:00","powerType":"全部","powerOffArea":"110kV新登变:立新D124线-塔山村7号立新小区公变变压器后段","powerOffReason":"(低压停电信息)照明01线、照明02线、敷设出线电缆YJV-4*150*3路、电缆搭接、更换落户线BS-JKLYJ-2*25*4户、落户线搭接","powerOffId":"2020051531020261"},{"poweroffId":2020051531020260,"sgpoweroffId":null,"subsName":"","lineName":"10kV立新D124线","pubTranName":"塔山村2#田缺口公变,","scope":"浙江省-杭州市-富阳区-新登镇-塔山行政村-田缺口自然村一带","startTime":"2020-05-26 07:40:00","stopDate":"2020-05-26 17:00:00","orgNo":"3340170","typeCode":"计划停电","poweroffArea":"110kV新登变:立新D124线-塔山村2#田缺口公变后段","poweroffReason":"(低压停电信息)照明02线架设BS-JKLYJ-4*70*17档、拆除电缆YJV-4*150*1路、拆除导线JKLYJ-120*4*15档、JKLYJ-35*4*2档、拆除旧支架（使用登高车拆除照明02线电缆头及导线搭头和4#杆装设工作接地线）","powerTime":"2020-05-26 16:46:46","powerComm":"已送电","subsNo":"","lineNo":"","tgNo":"","tgName":null,"infoStatus":"1","orgName":"国网浙江杭州市富阳区供电公司","typeName":null,"infoStatusName":null,"dateDay":null,"orgNos":null,"nowTime":null,"countyName":null,"streetName":null,"villageName":null,"roadName":null,"communityName":null,"tranName":null,"sdLineName":null,"cityCode":"3340170","cityName":"国网浙江杭州市富阳区供电公司","provinceCode":null,"stopTime":"2020-05-26 17:00:00","powerType":"全部","powerOffArea":"110kV新登变:立新D124线-塔山村2#田缺口公变后段","powerOffReason":"(低压停电信息)照明02线架设BS-JKLYJ-4*70*17档、拆除电缆YJV-4*150*1路、拆除导线JKLYJ-120*4*15档、JKLYJ-35*4*2档、拆除旧支架（使用登高车拆除照明02线电缆头及导线搭头和4#杆装设工作接地线）","powerOffId":"2020051531020260"},{"poweroffId":2020051531020259,"sgpoweroffId":null,"subsName":"","lineName":"10kV城南D135线","pubTranName":"横街1#公变,","scope":"浙江省-杭州市-富阳区-新登镇-登云社区-秉贤村横街一带","startTime":"2020-05-26 08:00:00","stopDate":"2020-05-26 17:00:00","orgNo":"3340170","typeCode":"计划停电","poweroffArea":"110kV新登变:城南D135线-横街1#公变后段","poweroffReason":"(低压停电信息)01线1#支架后段表箱整理4只。","powerTime":"2020-05-26 16:46:38","powerComm":"已送电","subsNo":"","lineNo":"","tgNo":"","tgName":null,"infoStatus":"1","orgName":"国网浙江杭州市富阳区供电公司","typeName":null,"infoStatusName":null,"dateDay":null,"orgNos":null,"nowTime":null,"countyName":null,"streetName":null,"villageName":null,"roadName":null,"communityName":null,"tranName":null,"sdLineName":null,"cityCode":"3340170","cityName":"国网浙江杭州市富阳区供电公司","provinceCode":null,"stopTime":"2020-05-26 17:00:00","powerType":"全部","powerOffArea":"110kV新登变:城南D135线-横街1#公变后段","powerOffReason":"(低压停电信息)01线1#支架后段表箱整理4只。","powerOffId":"2020051531020259"},{"poweroffId":2020051531020255,"sgpoweroffId":null,"subsName":"","lineName":"10kV金秋D947线","pubTranName":"春华村21号公变,","scope":"浙江省-杭州市-富阳区-富春街道-春华行政村(春华自然村,潘村路)","startTime":"2020-05-26 08:00:00","stopDate":"2020-05-26 16:50:00","orgNo":"3340170","typeCode":"计划停电","poweroffArea":"110kV育才变:金秋D947线-春华村21号后段","poweroffReason":"(低压停电信息)青云2020年龙星村5#罗家岭公变等低压线路改造工程拆旧，照明1#线更换落户线4处，拆架1kV120*4*2档，照明2#线更换落户线8处，搭接等工作","powerTime":"2020-05-26 16:27:10","powerComm":"已送电","subsNo":"","lineNo":"","tgNo":"","tgName":null,"infoStatus":"1","orgName":"国网浙江杭州市富阳区供电公司","typeName":null,"infoStatusName":null,"dateDay":null,"orgNos":null,"nowTime":null,"countyName":null,"streetName":null,"villageName":null,"roadName":null,"communityName":null,"tranName":null,"sdLineName":null,"cityCode":"3340170","cityName":"国网浙江杭州市富阳区供电公司","provinceCode":null,"stopTime":"2020-05-26 16:50:00","powerType":"全部","powerOffArea":"110kV育才变:金秋D947线-春华村21号后段","powerOffReason":"(低压停电信息)青云2020年龙星村5#罗家岭公变等低压线路改造工程拆旧，照明1#线更换落户线4处，拆架1kV120*4*2档，照明2#线更换落户线8处，搭接等工作","powerOffId":"2020051531020255"},{"poweroffId":2020051531020251,"sgpoweroffId":null,"subsName":"","lineName":"10kV重阳V348线","pubTranName":"马岭礼堂配变,","scope":"浙江省-杭州市-临安市-高虹镇-高桥行政村马岭礼堂","startTime":"2020-05-26 10:50:00","stopDate":"2020-05-26 18:00:00","orgNo":"3340160","typeCode":"计划停电","poweroffArea":"110kV高虹变:重阳V348线马岭691分线1#杆马岭[大礼堂]配变低压总闸刀","poweroffReason":"增容布点工程 原停电结束时间为2020-05-26 16:10:00,因天气原因,延迟送电,现变更停电结束时间为2020-05-26 18:00:00","powerTime":"2020-05-26 17:50:14","powerComm":"已送电","subsNo":"","lineNo":"","tgNo":"","tgName":null,"infoStatus":"1","orgName":"国网浙江临安市供电公司","typeName":null,"infoStatusName":null,"dateDay":null,"orgNos":null,"nowTime":null,"countyName":null,"streetName":null,"villageName":null,"roadName":null,"communityName":null,"tranName":null,"sdLineName":null,"cityCode":"3340160","cityName":"国网浙江临安市供电公司","provinceCode":null,"stopTime":"2020-05-26 18:00:00","powerType":"全部","powerOffArea":"110kV高虹变:重阳V348线马岭691分线1#杆马岭[大礼堂]配变低压总闸刀","powerOffReason":"增容布点工程 原停电结束时间为2020-05-26 16:10:00,因天气原因,延迟送电,现变更停电结束时间为2020-05-26 18:00:00","powerOffId":"2020051531020251"},{"poweroffId":2020051531020250,"sgpoweroffId":null,"subsName":"","lineName":"10kV秋山D925线","pubTranName":"三元村8号农居公变,","scope":"浙江省-杭州市-富阳区-渔山乡-渔山行政村-三元自然村-农居点自然村一带","startTime":"2020-05-25 08:00:00","stopDate":"2020-05-25 17:00:00","orgNo":"3340170","typeCode":"计划停电","poweroffArea":"110kV里渔变:秋山D925线-三元村8号农居低压开关后段","poweroffReason":"(低压停电信息)新装低压出线电缆1路，导线移位2档，拆架导线3档，拆装接户线搭接等工作。（江南2020年菖蒲村3#桐湾口公变等台区低压线路改造工程）","powerTime":"2020-05-25 16:50:30","powerComm":"已送电","subsNo":"","lineNo":"","tgNo":"","tgName":null,"infoStatus":"1","orgName":"国网浙江杭州市富阳区供电公司","typeName":null,"infoStatusName":null,"dateDay":null,"orgNos":null,"nowTime":null,"countyName":null,"streetName":null,"villageName":null,"roadName":null,"communityName":null,"tranName":null,"sdLineName":null,"cityCode":"3340170","cityName":"国网浙江杭州市富阳区供电公司","provinceCode":null,"stopTime":"2020-05-25 17:00:00","powerType":"全部","powerOffArea":"110kV里渔变:秋山D925线-三元村8号农居低压开关后段","powerOffReason":"(低压停电信息)新装低压出线电缆1路，导线移位2档，拆架导线3档，拆装接户线搭接等工作。（江南2020年菖蒲村3#桐湾口公变等台区低压线路改造工程）","powerOffId":"2020051531020250"},{"poweroffId":2020051531020249,"sgpoweroffId":null,"subsName":"","lineName":"10kV东山Y132线","pubTranName":"建德市神宇塑料座椅厂专变配电变压器,沛市村横塘坞台区,乾一村芝峰台区,沛市村后塘垅台区,沛市村西山畈台区,变压器,沛市村站边台区,乾一村宋家台区,沛市村下舍台区,建德市神宇塑料座椅厂,沛市村官塘台区,乾一村后蓬台区,1#变压器,乾一村新庄台区,建德市镒元塑化有限公司,沛市村沛市台区,","scope":"浙江省-杭州市-建德市-乾潭镇-沛市行政村(站边自然村,沛市自然村,横塘坞自然村,下舍自然村),乾潭镇-乾一行政村(芝峰自然村,宋家自然村,新庄自然村);乾潭镇(建德市神宇塑料座椅厂,建德市鑫欣生猪养殖有限公司,建德市镒元塑化有限公司)","startTime":"2020-05-15 10:40:00","stopDate":"2020-05-15 12:40:00","orgNo":"3340180","typeCode":"电网故障停限电","poweroffArea":"110kV乾潭变:东山Y132线下舍支线0#杆真空开关后段","poweroffReason":"高压开关跳闸","powerTime":"2020-05-15 12:07:00","powerComm":"已送电","subsNo":"","lineNo":"","tgNo":"","tgName":null,"infoStatus":"1","orgName":"国网浙江建德市供电有限公司","typeName":null,"infoStatusName":null,"dateDay":null,"orgNos":null,"nowTime":null,"countyName":null,"streetName":null,"villageName":null,"roadName":null,"communityName":null,"tranName":null,"sdLineName":null,"cityCode":"3340180","cityName":"国网浙江建德市供电有限公司","provinceCode":null,"stopTime":"2020-05-15 12:40:00","powerType":"全部","powerOffArea":"110kV乾潭变:东山Y132线下舍支线0#杆真空开关后段","powerOffReason":"高压开关跳闸","powerOffId":"2020051531020249"},{"poweroffId":2020051531020248,"sgpoweroffId":null,"subsName":"","lineName":"10kV游馆9889线","pubTranName":"电信变2,科协变,电信,省电综合楼,科协变,电信变1,科协变,","scope":"浙江省-杭州市-下城区-天水街道-延安新村社区-浙江省中国电信股份有限公司浙江分公司双路单侧，浙江省杭州市下城区中国电信股份有限公司杭州分公司双路单侧、浙江省杭州市下城区浙江省科协综合服务中心双路单侧","startTime":"2020-05-27 10:05:00","stopDate":"2020-05-27 17:00:00","orgNo":"3340101","typeCode":"计划停电","poweroffArea":"110kV广场变:游馆9889线-科会二线后段;游馆9889线-微波二线后段;游馆9889线-长话二线后段","poweroffReason":"杭州市城南片区武林广场环网室等换柜工程（古荡1811HZ19004T12A0000000） 电讯站电研5241线环网柜更换","powerTime":"2020-05-27 16:01:59","powerComm":"已送电","subsNo":"","lineNo":"","tgNo":"","tgName":null,"infoStatus":"1","orgName":"浙江杭州电力客户服务中心","typeName":null,"infoStatusName":null,"dateDay":null,"orgNos":null,"nowTime":null,"countyName":null,"streetName":null,"villageName":null,"roadName":null,"communityName":null,"tranName":null,"sdLineName":null,"cityCode":"3340101","cityName":"浙江杭州电力客户服务中心","provinceCode":null,"stopTime":"2020-05-27 17:00:00","powerType":"全部","powerOffArea":"110kV广场变:游馆9889线-科会二线后段;游馆9889线-微波二线后段;游馆9889线-长话二线后段","powerOffReason":"杭州市城南片区武林广场环网室等换柜工程（古荡1811HZ19004T12A0000000） 电讯站电研5241线环网柜更换","powerOffId":"2020051531020248"},{"poweroffId":2020051531020247,"sgpoweroffId":null,"subsName":"","lineName":"10kV建材V545线","pubTranName":"西村2,","scope":"浙江省-杭州市-临安市-板桥镇-环湖行政村-西村","startTime":"2020-05-26 08:30:00","stopDate":"2020-05-26 09:30:00","orgNo":"3340160","typeCode":"计划停电","poweroffArea":"110kV板桥变:建材V545线橡胶密封件厂分线5#杆西村2配变令克","poweroffReason":"配变增容工作 原停电结束时间为2020-05-26 14:00:00,为减少客户停电时间,加快工作进度,提前送电,现变更停电结束时间为2020-05-26 09:30:00","powerTime":"2020-05-26 08:50:15","powerComm":"已送电","subsNo":"","lineNo":"","tgNo":"","tgName":null,"infoStatus":"1","orgName":"国网浙江临安市供电公司","typeName":null,"infoStatusName":null,"dateDay":null,"orgNos":null,"nowTime":null,"countyName":null,"streetName":null,"villageName":null,"roadName":null,"communityName":null,"tranName":null,"sdLineName":null,"cityCode":"3340160","cityName":"国网浙江临安市供电公司","provinceCode":null,"stopTime":"2020-05-26 09:30:00","powerType":"全部","powerOffArea":"110kV板桥变:建材V545线橡胶密封件厂分线5#杆西村2配变令克","powerOffReason":"配变增容工作 原停电结束时间为2020-05-26 14:00:00,为减少客户停电时间,加快工作进度,提前送电,现变更停电结束时间为2020-05-26 09:30:00","powerOffId":"2020051531020247"},{"poweroffId":2020051531020246,"sgpoweroffId":null,"subsName":"","lineName":"10kV方谷8180线","pubTranName":"小营巷三变,小营巷五变,小营巷四变,小营巷六变,解百生鲜超市专变,小营巷二变,小营巷一变,杭十中,","scope":"浙江省-杭州市-上城区-小营街道-小营巷社区-上城区马市街99号、皮市巷101号—119号附近。杭州市上城区杨凌子巷小学，皮市巷73、75、85、87、89号、清吟街108号、112号附近。杭州市上城区银铜巷7、8号、直大方伯61、76、78号、悦家酒店附近。杭州市上城区黄醋园6幢、黄醋园2、3、5、7、9、12号、农贸市场、电信附近。杭州市上城区小营巷民居1、2、4、5、6、7、8、9幢、马市街92、93 号、清吟街3号、11-1号、13号附近。杭州市上城区皮市巷59号、71号附近。浙江省杭州市上城区解百生鲜超市。","startTime":"2020-05-26 09:30:00","stopDate":"2020-05-26 22:00:00","orgNo":"3340101","typeCode":"计划停电","poweroffArea":"110kV横河变:方谷8180线-小营五线后段;方谷8180线-生鲜二线后段;方谷8180线-小营一线后段;方谷8180线-十中二线后段","poweroffReason":"清吟站小营一线、小营五线更换间隔。原停电结束时间为2020-05-26 10:00:00,因工作量大原因,延迟送电,现变更停电结束时间为2020-05-26 22:00:00","powerTime":"2020-05-26 21:05:10","powerComm":"已送电","subsNo":"","lineNo":"","tgNo":"","tgName":null,"infoStatus":"1","orgName":"浙江杭州电力客户服务中心","typeName":null,"infoStatusName":null,"dateDay":null,"orgNos":null,"nowTime":null,"countyName":null,"streetName":null,"villageName":null,"roadName":null,"communityName":null,"tranName":null,"sdLineName":null,"cityCode":"3340101","cityName":"浙江杭州电力客户服务中心","provinceCode":null,"stopTime":"2020-05-26 22:00:00","powerType":"全部","powerOffArea":"110kV横河变:方谷8180线-小营五线后段;方谷8180线-生鲜二线后段;方谷8180线-小营一线后段;方谷8180线-十中二线后段","powerOffReason":"清吟站小营一线、小营五线更换间隔。原停电结束时间为2020-05-26 10:00:00,因工作量大原因,延迟送电,现变更停电结束时间为2020-05-26 22:00:00","powerOffId":"2020051531020246"}],"pageModel":{"pageNow":171,"totalCount":17788,"totalPage":1779,"tableRows":0,"pageCount":10,"beginCount":1700},"isExperi":"1"}