{"message":"","today":"2020-06-16","seleList":[{"poweroffId":2018060531010271,"sgpoweroffId":null,"subsName":"","lineName":"10kV劳村Y214线","pubTranName":"丰畈村野虎山台区,","scope":"浙江省-杭州市-建德市-大同镇 丰畈行政村 野虎山自然村一带用户。","startTime":"2018-06-13 06:00:00","stopDate":"2018-06-13 15:00:00","orgNo":"3340180","typeCode":"计划停电","poweroffArea":"35kV李家变:劳村Y214线-丰畈村野虎山台区后段","poweroffReason":"10千伏劳村Y214线原野虎山支线改接至新上马线20#杆","powerTime":"2018-06-13 14:56:58","powerComm":"已送电","subsNo":"","lineNo":"","tgNo":"","tgName":null,"infoStatus":"1","orgName":"国网浙江建德市供电有限公司","typeName":null,"infoStatusName":null,"dateDay":null,"orgNos":null,"nowTime":null,"countyName":null,"streetName":null,"villageName":null,"roadName":null,"communityName":null,"tranName":null,"sdLineName":null,"cityCode":"3340180","cityName":"国网浙江建德市供电有限公司","provinceCode":null,"stopTime":"2018-06-13 15:00:00","powerType":"全部","powerOffArea":"35kV李家变:劳村Y214线-丰畈村野虎山台区后段","powerOffReason":"10千伏劳村Y214线原野虎山支线改接至新上马线20#杆","powerOffId":"2018060531010271"},{"poweroffId":2018060531010270,"sgpoweroffId":null,"subsName":"","lineName":"10kV上马Y143线","pubTranName":"城山村大坞里台区,城山村江村垅台区,","scope":"浙江省-杭州市-建德市-大同镇 城山行政村 江村垅自然村、大坞里自然村一带用户。","startTime":"2018-06-13 06:00:00","stopDate":"2018-06-13 15:00:00","orgNo":"3340180","typeCode":"计划停电","poweroffArea":"35kV古城变:上马Y143线-江村珑支线0#杆令克后段","poweroffReason":"原10千伏大坞里支线0#-1#杆旧线路拆除","powerTime":"2018-06-13 14:58:14","powerComm":"已送电","subsNo":"","lineNo":"","tgNo":"","tgName":null,"infoStatus":"1","orgName":"国网浙江建德市供电有限公司","typeName":null,"infoStatusName":null,"dateDay":null,"orgNos":null,"nowTime":null,"countyName":null,"streetName":null,"villageName":null,"roadName":null,"communityName":null,"tranName":null,"sdLineName":null,"cityCode":"3340180","cityName":"国网浙江建德市供电有限公司","provinceCode":null,"stopTime":"2018-06-13 15:00:00","powerType":"全部","powerOffArea":"35kV古城变:上马Y143线-江村珑支线0#杆令克后段","powerOffReason":"原10千伏大坞里支线0#-1#杆旧线路拆除","powerOffId":"2018060531010270"},{"poweroffId":2018060531010268,"sgpoweroffId":null,"subsName":"","lineName":"10kV谢田Y786线","pubTranName":"钦堂村茶叶山台区,","scope":"浙江省-杭州市-建德市-钦堂乡 钦堂行政村 茶叶山自然村一带用户。","startTime":"2018-06-13 07:00:00","stopDate":"2018-06-13 11:00:00","orgNo":"3340180","typeCode":"计划停电","poweroffArea":"110kV钦堂变:谢田Y786线-搅拌厂支线0#杆令克后段","poweroffReason":"搅拌厂支线6#杆被车撞消缺","powerTime":"2018-06-13 10:59:20","powerComm":"已送电","subsNo":"","lineNo":"","tgNo":"","tgName":null,"infoStatus":"1","orgName":"国网浙江建德市供电有限公司","typeName":null,"infoStatusName":null,"dateDay":null,"orgNos":null,"nowTime":null,"countyName":null,"streetName":null,"villageName":null,"roadName":null,"communityName":null,"tranName":null,"sdLineName":null,"cityCode":"3340180","cityName":"国网浙江建德市供电有限公司","provinceCode":null,"stopTime":"2018-06-13 11:00:00","powerType":"全部","powerOffArea":"110kV钦堂变:谢田Y786线-搅拌厂支线0#杆令克后段","powerOffReason":"搅拌厂支线6#杆被车撞消缺","powerOffId":"2018060531010268"},{"poweroffId":2018060531010265,"sgpoweroffId":null,"subsName":"","lineName":"10kV更园Y414线","pubTranName":"新蓬村芭蕉岭台区,","scope":"浙江省-杭州市-建德市-新安江街道 新蓬行政村 芭蕉岭自然村一带用户。","startTime":"2018-06-13 07:30:00","stopDate":"2018-06-13 12:30:00","orgNo":"3340180","typeCode":"计划停电","poweroffArea":"110kV更楼变:更园Y414线-新蓬村芭蕉岭台区后段","poweroffReason":"新蓬村芭蕉岭台区配变增容","powerTime":"2018-06-13 12:25:00","powerComm":"已送电","subsNo":"","lineNo":"","tgNo":"","tgName":null,"infoStatus":"1","orgName":"国网浙江建德市供电有限公司","typeName":null,"infoStatusName":null,"dateDay":null,"orgNos":null,"nowTime":null,"countyName":null,"streetName":null,"villageName":null,"roadName":null,"communityName":null,"tranName":null,"sdLineName":null,"cityCode":"3340180","cityName":"国网浙江建德市供电有限公司","provinceCode":null,"stopTime":"2018-06-13 12:30:00","powerType":"全部","powerOffArea":"110kV更楼变:更园Y414线-新蓬村芭蕉岭台区后段","powerOffReason":"新蓬村芭蕉岭台区配变增容","powerOffId":"2018060531010265"},{"poweroffId":2018060531010253,"sgpoweroffId":null,"subsName":"","lineName":"10kV陈家Y181线","pubTranName":"大塘边村大塘边台区,","scope":"浙江省-杭州市-建德市-寿昌镇 大塘边行政村-大塘边自然村一带用户","startTime":"2018-06-05 16:14:00","stopDate":"2018-06-05 22:20:06","orgNo":"3340180","typeCode":"电网故障停限电","poweroffArea":"35kV河南里变:陈家Y181线；陈家Y181线-大塘边村大塘边台区后段","poweroffReason":"陈家Y181线-大塘边村大塘边台区 低压配电设备故障","powerTime":"2018-06-05 17:13:00","powerComm":"已送电","subsNo":"","lineNo":"","tgNo":"","tgName":null,"infoStatus":"1","orgName":"国网浙江建德市供电有限公司","typeName":null,"infoStatusName":null,"dateDay":null,"orgNos":null,"nowTime":null,"countyName":null,"streetName":null,"villageName":null,"roadName":null,"communityName":null,"tranName":null,"sdLineName":null,"cityCode":"3340180","cityName":"国网浙江建德市供电有限公司","provinceCode":null,"stopTime":"2018-06-05 22:20:06","powerType":"全部","powerOffArea":"35kV河南里变:陈家Y181线；陈家Y181线-大塘边村大塘边台区后段","powerOffReason":"陈家Y181线-大塘边村大塘边台区 低压配电设备故障","powerOffId":"2018060531010253"},{"poweroffId":2018060531010223,"sgpoweroffId":null,"subsName":"","lineName":"10kV春荣T337线","pubTranName":"中国电建基建四,中国电建基建四,桐庐县春江硅酸铝制品厂,中国电建基建四,中国电建基建四,中国电建基建四,桐庐春江硅酸铝制品厂,中国电建基建四,","scope":"浙江省-杭州市-桐庐县-横村镇(桐庐县春江硅酸铝制品厂,中国电建集团华东勘测设计研究院有限公司);","startTime":"2018-06-14 06:20:00","stopDate":"2018-06-14 10:30:00","orgNo":"3340150","typeCode":"计划停电","poweroffArea":"110kV横村变:春荣T337线-春荣7113后段","poweroffReason":"配合洪儒T2254开关后段停电工作","powerTime":"2018-06-14 10:20:27","powerComm":"已送电","subsNo":"","lineNo":"","tgNo":"","tgName":null,"infoStatus":"1","orgName":"国网浙江桐庐县供电公司","typeName":null,"infoStatusName":null,"dateDay":null,"orgNos":null,"nowTime":null,"countyName":null,"streetName":null,"villageName":null,"roadName":null,"communityName":null,"tranName":null,"sdLineName":null,"cityCode":"3340150","cityName":"国网浙江桐庐县供电公司","provinceCode":null,"stopTime":"2018-06-14 10:30:00","powerType":"全部","powerOffArea":"110kV横村变:春荣T337线-春荣7113后段","powerOffReason":"配合洪儒T2254开关后段停电工作","powerOffId":"2018060531010223"},{"poweroffId":2018060531010218,"sgpoweroffId":null,"subsName":"","lineName":"10kV二桥C551线","pubTranName":"盈一村13#变,","scope":"浙江省-杭州市-萧山区-宁围镇、盈一行政村、盈一村、宁牧小学等一带","startTime":"2018-06-05 15:19:00","stopDate":"2018-06-05 18:23:21","orgNo":"3340130","typeCode":"电网故障停限电","poweroffArea":"35kV钱江变:二桥C551线盈一村13#变低压配电设施","poweroffReason":"低压配电设施故障","powerTime":"2018-06-05 16:53:13","powerComm":"已送电","subsNo":"","lineNo":"","tgNo":"","tgName":null,"infoStatus":"1","orgName":"国网浙江杭州市萧山区供电有限公司","typeName":null,"infoStatusName":null,"dateDay":null,"orgNos":null,"nowTime":null,"countyName":null,"streetName":null,"villageName":null,"roadName":null,"communityName":null,"tranName":null,"sdLineName":null,"cityCode":"3340130","cityName":"国网浙江杭州市萧山区供电有限公司","provinceCode":null,"stopTime":"2018-06-05 18:23:21","powerType":"全部","powerOffArea":"35kV钱江变:二桥C551线盈一村13#变低压配电设施","powerOffReason":"低压配电设施故障","powerOffId":"2018060531010218"},{"poweroffId":2018060531010214,"sgpoweroffId":null,"subsName":"","lineName":"10kV电机T222线","pubTranName":"桐庐星路服饰有限公司,江丰基建,","scope":"浙江省-杭州市-桐庐县-旧县街道(桐庐星路服饰有限公司,浙江省桐庐汇丰生物科技有限公司);","startTime":"2018-06-13 07:00:00","stopDate":"2018-06-13 12:30:29","orgNo":"3340150","typeCode":"计划停电","poweroffArea":"35kV西武变:电机T222线-汇西F9352线负荷开关后段","poweroffReason":"西山开关站内I段母线待用F9354线与II段待用F9359线内联，I段母线汇西F9352线调整至II段待用F9356线运行使用间隔进行母线联络（核相）","powerTime":"2018-06-13 12:23:40","powerComm":"已送电","subsNo":"","lineNo":"","tgNo":"","tgName":null,"infoStatus":"1","orgName":"国网浙江桐庐县供电公司","typeName":null,"infoStatusName":null,"dateDay":null,"orgNos":null,"nowTime":null,"countyName":null,"streetName":null,"villageName":null,"roadName":null,"communityName":null,"tranName":null,"sdLineName":null,"cityCode":"3340150","cityName":"国网浙江桐庐县供电公司","provinceCode":null,"stopTime":"2018-06-13 12:30:29","powerType":"全部","powerOffArea":"35kV西武变:电机T222线-汇西F9352线负荷开关后段","powerOffReason":"西山开关站内I段母线待用F9354线与II段待用F9359线内联，I段母线汇西F9352线调整至II段待用F9356线运行使用间隔进行母线联络（核相）","powerOffId":"2018060531010214"},{"poweroffId":2018060531010213,"sgpoweroffId":null,"subsName":"","lineName":"10kV独山T336线","pubTranName":"桐庐县横村村镇建设开发有限公司,深畈张家岭3号公变,桐庐恒达纺织印染有限公司,横村红宝石1号公变,临嘉公寓1号公变,独山社区1号公变,深畈张家岭2号公变,桐庐县横村中心卫生院,横富小区1号公变,畈油车1号公变,桐庐恒达纺织印染有限公司,家兴景苑1号公变,杭州富强织染有限公司,杭州宏云制衣有限公司,深畈张家岭1号公变,浙江沁歌服饰有限公司,杭州富强织染有限公司,桐庐一利服饰有限公司,","scope":"浙江省-杭州市-桐庐县-横村镇(横村行政村-陈家畈自然村、独山路、横村自然村、横富路、横江路、锦华路、深畈自然村、西环路);浙江省-杭州市-桐庐县-横村镇(杭州富强织染有限公司,杭州宏云制衣有限公司,桐庐恒达纺织印染有限公司,桐庐县横村村镇建设开发有限公司,桐庐县横村中心卫生院,桐庐一利服饰有限公司,浙江沁歌服饰有限公司、迎春路72号一带);","startTime":"2018-06-05 15:03:26","stopDate":"2018-06-05 21:03:26","orgNo":"3340150","typeCode":"电网故障停限电","poweroffArea":"110kV横村变:独山T336线","poweroffReason":"低压开关故障处理","powerTime":"2018-06-05 16:00:49","powerComm":"已送电","subsNo":"","lineNo":"","tgNo":"","tgName":null,"infoStatus":"1","orgName":"国网浙江桐庐县供电公司","typeName":null,"infoStatusName":null,"dateDay":null,"orgNos":null,"nowTime":null,"countyName":null,"streetName":null,"villageName":null,"roadName":null,"communityName":null,"tranName":null,"sdLineName":null,"cityCode":"3340150","cityName":"国网浙江桐庐县供电公司","provinceCode":null,"stopTime":"2018-06-05 21:03:26","powerType":"全部","powerOffArea":"110kV横村变:独山T336线","powerOffReason":"低压开关故障处理","powerOffId":"2018060531010213"},{"poweroffId":2018060531010197,"sgpoweroffId":null,"subsName":"","lineName":"10kV开伍C616线","pubTranName":"长山头村(富星)3#变,","scope":"浙江省-杭州市-萧山区-新街镇、长山头行政村、海塘路等一带","startTime":"2018-06-05 13:46:55","stopDate":"2018-06-05 15:10:40","orgNo":"3340130","typeCode":"电网故障停限电","poweroffArea":"35kV市北变:开伍C616线-长山头村(富星)3#变低压配电设施","poweroffReason":"低压配电设施故障","powerTime":"2018-06-05 14:33:59","powerComm":"已送电","subsNo":"","lineNo":"","tgNo":"","tgName":null,"infoStatus":"1","orgName":"国网浙江杭州市萧山区供电有限公司","typeName":null,"infoStatusName":null,"dateDay":null,"orgNos":null,"nowTime":null,"countyName":null,"streetName":null,"villageName":null,"roadName":null,"communityName":null,"tranName":null,"sdLineName":null,"cityCode":"3340130","cityName":"国网浙江杭州市萧山区供电有限公司","provinceCode":null,"stopTime":"2018-06-05 15:10:40","powerType":"全部","powerOffArea":"35kV市北变:开伍C616线-长山头村(富星)3#变低压配电设施","powerOffReason":"低压配电设施故障","powerOffId":"2018060531010197"}],"pageModel":{"pageNow":1694,"totalCount":17789,"totalPage":1779,"tableRows":0,"pageCount":10,"beginCount":16930},"isExperi":"1"}