{"message":"","today":"2020-06-16","seleList":[{"poweroffId":2018060431010342,"sgpoweroffId":null,"subsName":"","lineName":"10kV沙大Y203线","pubTranName":"庙后坞2#公变,","scope":"浙江省-杭州市-建德市-新安江街道 焦山新村、庙后坞小区一带用户。","startTime":"2018-06-12 08:00:00","stopDate":"2018-06-12 12:00:00","orgNo":"3340180","typeCode":"计划停电","poweroffArea":"110kV白沙变:沙大Y203线-庙后坞2#公变后段","poweroffReason":"焦山新村2#分线箱5#分户箱支线转接","powerTime":"2018-06-12 12:00:00","powerComm":"已处理","subsNo":"","lineNo":"","tgNo":"","tgName":null,"infoStatus":"1","orgName":"国网浙江建德市供电有限公司","typeName":null,"infoStatusName":null,"dateDay":null,"orgNos":null,"nowTime":null,"countyName":null,"streetName":null,"villageName":null,"roadName":null,"communityName":null,"tranName":null,"sdLineName":null,"cityCode":"3340180","cityName":"国网浙江建德市供电有限公司","provinceCode":null,"stopTime":"2018-06-12 12:00:00","powerType":"全部","powerOffArea":"110kV白沙变:沙大Y203线-庙后坞2#公变后段","powerOffReason":"焦山新村2#分线箱5#分户箱支线转接","powerOffId":"2018060431010342"},{"poweroffId":2018060431010339,"sgpoweroffId":null,"subsName":"","lineName":"10kV东塘Y187线","pubTranName":"大塘边村河村台区,","scope":"浙江省-杭州市-建德市-寿昌镇 大塘边行政村 河村自然村一带用户。","startTime":"2018-06-12 08:00:00","stopDate":"2018-06-12 11:00:00","orgNo":"3340180","typeCode":"计划停电","poweroffArea":"35kV河南里变:东塘Y187线-河村公变后段","poweroffReason":"大塘边村河村台区配变增容","powerTime":"2018-06-12 11:00:00","powerComm":"已送电","subsNo":"","lineNo":"","tgNo":"","tgName":null,"infoStatus":"1","orgName":"国网浙江建德市供电有限公司","typeName":null,"infoStatusName":null,"dateDay":null,"orgNos":null,"nowTime":null,"countyName":null,"streetName":null,"villageName":null,"roadName":null,"communityName":null,"tranName":null,"sdLineName":null,"cityCode":"3340180","cityName":"国网浙江建德市供电有限公司","provinceCode":null,"stopTime":"2018-06-12 11:00:00","powerType":"全部","powerOffArea":"35kV河南里变:东塘Y187线-河村公变后段","powerOffReason":"大塘边村河村台区配变增容","powerOffId":"2018060431010339"},{"poweroffId":2018060431010319,"sgpoweroffId":null,"subsName":"","lineName":"10kV蛋鸡H506线","pubTranName":"铝合金电化厂,石濑村费家头公变,铝材厂,华森座椅厂,石濑村朱家堰公变,西安寺村马家坝公变,良种引进公司,石濑村土地庙公变,石濑村老村委公变,天荒坪,火车站,6110117054,沥青库2#,石濑村南头公变,石濑村西头公变,石濑村北头公变,石濑村油车公变,力程建筑,瓶窑镇阮月菊建材经营部,沥青库1,石濑村中心公变,沥青库3,西安寺村西横头公变,西安寺村长山公变,三星化妆品包装（玻璃）3,石濑村树根桥公变,彭公联合加油站,三星化妆品包装,三星化妆品包装（玻璃）2,","scope":"浙江省杭州市余杭区瓶窑镇：石濑村费家头、三星化妆品包装厂、彭公加油站、石濑村树根桥、电泰实业厂、彭公铝制品厂、石濑村朱家堰、石濑村油车、石濑村土地庙、石濑村北头、石濑村老村委、石濑村西头、石濑村南头、良种引进公司、西安寺村长山、浙江省交通工程建设集团第三交通工程有限公司、西安寺村马家坝、上海铁路局嘉兴车务段、九鑫工艺玻璃、华路改性沥青厂、阮月菊建材经营部、西安寺村西横头一带","startTime":"2018-06-12 07:20:00","stopDate":"2018-06-12 16:20:00","orgNo":"3340140","typeCode":"计划停电","poweroffArea":"蛋鸡H506线蛋鸡H5062开关-蛋鸡H5063开关","poweroffReason":"配网工程：1、蛋鸡H506线120#-123#杆单改双；2、北湖长山分线绝缘化改造；3、新布点南头2##变400kVA；4、123#杆新装分段开关一台，命名为蛋鸡H5064开关。","powerTime":"2018-06-12 15:42:21","powerComm":"全部送电","subsNo":"","lineNo":"","tgNo":"","tgName":null,"infoStatus":"1","orgName":"国网浙江杭州市余杭区供电有限公司","typeName":null,"infoStatusName":null,"dateDay":null,"orgNos":null,"nowTime":null,"countyName":null,"streetName":null,"villageName":null,"roadName":null,"communityName":null,"tranName":null,"sdLineName":null,"cityCode":"3340140","cityName":"国网浙江杭州市余杭区供电有限公司","provinceCode":null,"stopTime":"2018-06-12 16:20:00","powerType":"全部","powerOffArea":"蛋鸡H506线蛋鸡H5062开关-蛋鸡H5063开关","powerOffReason":"配网工程：1、蛋鸡H506线120#-123#杆单改双；2、北湖长山分线绝缘化改造；3、新布点南头2##变400kVA；4、123#杆新装分段开关一台，命名为蛋鸡H5064开关。","powerOffId":"2018060431010319"},{"poweroffId":2018060431010318,"sgpoweroffId":null,"subsName":"","lineName":"10kV百丈H563线","pubTranName":"仙岩村大庙公变,仙岩村朱家堂公变,仙岩村陆家坞公变,仙岩村九东山一组公变,仙岩村九东山二组公变,仙岩村阳山头公变,仙岩村大树棚公变,仙岩村小学公变,仙岩村王家堂公变,","scope":"浙江省杭州市余杭区百丈镇：仙岩村阳山头、仙岩村大庙、仙岩村陆家坞、仙岩村大树棚、仙岩村朱家堂、仙岩村小学、仙岩村王家堂、仙岩村九东山一带","startTime":"2018-06-15 07:20:00","stopDate":"2018-06-15 18:00:00","orgNo":"3340140","typeCode":"计划停电","poweroffArea":"百丈H563线九洞山分线23#杆开关后段","poweroffReason":"百丈H563线九洞山分线配网工程：九洞山分线改造立杆、放线","powerTime":"2018-06-15 17:29:19","powerComm":"全部送电","subsNo":"","lineNo":"","tgNo":"","tgName":null,"infoStatus":"1","orgName":"国网浙江杭州市余杭区供电有限公司","typeName":null,"infoStatusName":null,"dateDay":null,"orgNos":null,"nowTime":null,"countyName":null,"streetName":null,"villageName":null,"roadName":null,"communityName":null,"tranName":null,"sdLineName":null,"cityCode":"3340140","cityName":"国网浙江杭州市余杭区供电有限公司","provinceCode":null,"stopTime":"2018-06-15 18:00:00","powerType":"全部","powerOffArea":"百丈H563线九洞山分线23#杆开关后段","powerOffReason":"百丈H563线九洞山分线配网工程：九洞山分线改造立杆、放线","powerOffId":"2018060431010318"},{"poweroffId":2018060431010282,"sgpoweroffId":null,"subsName":"","lineName":"10kV镇海A715线","pubTranName":"杭州东腾线业有限公司,永联村镇海4#变,杭州永瑞包装有限公司变压器,杭州凯盛花边有限公司,浙江正大纺织科技有限公司1#,永联村镇海3#变,浙江正大纺织科技有限公司2#,1#电机,永联村镇海2#变,杭州汉森卫浴洁具有限公司,2#电机,永联村镇海5#变,杭州永联布业有限公司,","scope":"浙江省杭州市萧山区瓜沥镇永联村镇海及杭州凯盛花边有限公司、杭州东腾先业有限公司、杭州永联布业有限公司、杭州汉森卫浴洁具有限公司、浙江正大纺织科技有限公司、杭州永瑞包装有限公司一带","startTime":"2018-06-12 08:45:00","stopDate":"2018-06-12 13:45:00","orgNo":"3340130","typeCode":"计划停电","poweroffArea":"110kV白川变:镇海A715线-镇解A7151开关后段","poweroffReason":"镇海A715线11#杆（同杆凯信线）拔移电杆1根","powerTime":"2018-06-12 11:15:12","powerComm":"已送电","subsNo":"","lineNo":"","tgNo":"","tgName":null,"infoStatus":"1","orgName":"国网浙江杭州市萧山区供电有限公司","typeName":null,"infoStatusName":null,"dateDay":null,"orgNos":null,"nowTime":null,"countyName":null,"streetName":null,"villageName":null,"roadName":null,"communityName":null,"tranName":null,"sdLineName":null,"cityCode":"3340130","cityName":"国网浙江杭州市萧山区供电有限公司","provinceCode":null,"stopTime":"2018-06-12 13:45:00","powerType":"全部","powerOffArea":"110kV白川变:镇海A715线-镇解A7151开关后段","powerOffReason":"镇海A715线11#杆（同杆凯信线）拔移电杆1根","powerOffId":"2018060431010282"},{"poweroffId":2018060431010281,"sgpoweroffId":null,"subsName":"","lineName":"10kV凯信A716线","pubTranName":"杭州通绿机械有限公司,众安村2#变,杭州萧山党山富鑫卫浴洁具厂,杭州青宇纺织有限公司,杭州荣泉绣品有限公司,杭州萧山瓜沥八方特种涤纶复合丝厂,杭州凯信玻璃有限公司,杭州通绿机械有限公司,杭州闻东塑胶制品有限公司,","scope":"浙江省杭州市萧山区瓜沥镇众安村及杭州凯信玻璃有限公司、杭州闻东塑胶制品有限公司、杭州萧山瓜沥八方特种涤纶复合丝厂、杭州通绿机械有限公司、杭州萧山党山富鑫卫浴洁具厂、杭州青宇纺织有限公司、杭州荣泉绣品有限公司一带","startTime":"2018-06-12 08:45:00","stopDate":"2018-06-12 13:45:00","orgNo":"3340130","typeCode":"计划停电","poweroffArea":"110kV白川变:凯信A716线-凯信A7161开关后段","poweroffReason":"镇海A715线11#杆（同杆凯信线）拔移电杆1根","powerTime":"2018-06-12 11:14:03","powerComm":"已送电","subsNo":"","lineNo":"","tgNo":"","tgName":null,"infoStatus":"1","orgName":"国网浙江杭州市萧山区供电有限公司","typeName":null,"infoStatusName":null,"dateDay":null,"orgNos":null,"nowTime":null,"countyName":null,"streetName":null,"villageName":null,"roadName":null,"communityName":null,"tranName":null,"sdLineName":null,"cityCode":"3340130","cityName":"国网浙江杭州市萧山区供电有限公司","provinceCode":null,"stopTime":"2018-06-12 13:45:00","powerType":"全部","powerOffArea":"110kV白川变:凯信A716线-凯信A7161开关后段","powerOffReason":"镇海A715线11#杆（同杆凯信线）拔移电杆1根","powerOffId":"2018060431010281"},{"poweroffId":2018060431010280,"sgpoweroffId":null,"subsName":"","lineName":"10kV瓜港A078线","pubTranName":"浙江春元科纺有限公司2#,浙江春元科纺有限公司1#,杭州萧山海通水泵制造有限公司,2#高压电机,杭州永兴酒业有限公司,杭州大园永鑫化纤有限公司,1#电机,","scope":"浙江省杭州市萧山区瓜沥镇浙江春元科纺有限公司、杭州大园永鑫化纤有限公司、杭州永兴酒业有限公司、杭州萧山海通水泵制造有限公司一带","startTime":"2018-06-12 08:00:00","stopDate":"2018-06-12 16:30:00","orgNo":"3340130","typeCode":"计划停电","poweroffArea":"110kV航坞变:瓜港A078线-瓜港开G12备用一线负荷开关后段","poweroffReason":"航坞变新出临西A065线割接瓜港A078线瓜港开G12临工分线后段负荷","powerTime":"2018-06-12 15:18:20","powerComm":"已送电","subsNo":"","lineNo":"","tgNo":"","tgName":null,"infoStatus":"1","orgName":"国网浙江杭州市萧山区供电有限公司","typeName":null,"infoStatusName":null,"dateDay":null,"orgNos":null,"nowTime":null,"countyName":null,"streetName":null,"villageName":null,"roadName":null,"communityName":null,"tranName":null,"sdLineName":null,"cityCode":"3340130","cityName":"国网浙江杭州市萧山区供电有限公司","provinceCode":null,"stopTime":"2018-06-12 16:30:00","powerType":"全部","powerOffArea":"110kV航坞变:瓜港A078线-瓜港开G12备用一线负荷开关后段","powerOffReason":"航坞变新出临西A065线割接瓜港A078线瓜港开G12临工分线后段负荷","powerOffId":"2018060431010280"},{"poweroffId":2018060431010224,"sgpoweroffId":null,"subsName":"","lineName":"10kV横街V593线","pubTranName":"横街村[后郎小山头]公变,临安市天顺电缆厂,钱皇铺村[硖石寺坞]公变,钱皇铺村[七里弄口]公变,临安市安康医院,钱皇铺村[金头村中]公变,青柯村[许家头]公变,青柯村[寺泉山]公变,碧雪湖生态农庄,钱皇铺村[硖石村中]公变,钱皇铺村[大礼堂]公变,临安市亮剑纸箱厂,钱皇铺村[金头马坞岭]公变,青柯村[联合1#]公变,临安市锦城制线厂,临安锦荣机械设备有限公司,钱皇铺村[硖石村口]公变,钱皇铺村[硖石老坞桥]公变,钱皇铺村[李家头]公变,钱皇铺村[硖石潭树岭]公变,钱皇铺村[碧雪坞]公变,钱皇铺村[对山]公变,钱皇铺村[3#]公变,青柯村[联合2#]公变,","scope":"浙江省杭州市临安区锦城街道钱皇铺村金头村中、钱皇铺村硖石村口、钱皇铺村李家头、横街村后郎小山头、青柯村联合、钱皇铺村、青柯村寺泉山、青柯村联合、钱皇铺村对山、钱皇铺村大礼堂、青柯村许家头、钱皇铺村硖石寺坞、钱皇铺村七里弄口、钱皇铺村硖石潭树岭、钱皇铺村金头马坞岭、钱皇铺村硖石老坞桥、钱皇铺村碧雪坞、钱皇铺村硖石村中、临安市亮剑纸箱公司、临安市安康医院、临安锦荣机械设备有限公司、临安市锦城制线公司、杭州临安天顺线缆有限公司、碧雪湖生态农庄一带","startTime":"2018-06-11 07:00:00","stopDate":"2018-06-11 13:00:00","orgNo":"3340160","typeCode":"计划停电","poweroffArea":"110kV杨岭变:横街V593线-硖石分线开关后段","poweroffReason":"1、横街V593线钱皇甫1#变支线3#杆新装分支线令克一组，新架分支线4#杆新增钱皇铺村[曹家头]400kVA公变一台，及低压割接工作；2、横街V593线硖石分线33#-34#杆插杆一基，新装支线令克一组，新架支线5#杆新增钱皇铺村[安置小区]公变一台，及低压割接工作；","powerTime":"2018-06-11 12:25:08","powerComm":"已送电","subsNo":"","lineNo":"","tgNo":"","tgName":null,"infoStatus":"1","orgName":"国网浙江临安市供电公司","typeName":null,"infoStatusName":null,"dateDay":null,"orgNos":null,"nowTime":null,"countyName":null,"streetName":null,"villageName":null,"roadName":null,"communityName":null,"tranName":null,"sdLineName":null,"cityCode":"3340160","cityName":"国网浙江临安市供电公司","provinceCode":null,"stopTime":"2018-06-11 13:00:00","powerType":"全部","powerOffArea":"110kV杨岭变:横街V593线-硖石分线开关后段","powerOffReason":"1、横街V593线钱皇甫1#变支线3#杆新装分支线令克一组，新架分支线4#杆新增钱皇铺村[曹家头]400kVA公变一台，及低压割接工作；2、横街V593线硖石分线33#-34#杆插杆一基，新装支线令克一组，新架支线5#杆新增钱皇铺村[安置小区]公变一台，及低压割接工作；","powerOffId":"2018060431010224"},{"poweroffId":2018060431010222,"sgpoweroffId":null,"subsName":"","lineName":"10kV双林D786线","pubTranName":"杭州凡顿新材料科技有限公司,","scope":"浙江省-杭州市-富阳区-环山乡(杭州凡顿新材料科技有限公司);","startTime":"2018-06-13 08:30:00","stopDate":"2018-06-13 17:00:00","orgNo":"3340170","typeCode":"计划停电","poweroffArea":"110kV王洲变:双林D786线-双林D786线77#杆杭州凡顿新材料科技有限公司开关","poweroffReason":"双林D786线77#杆杭州凡顿新材料科技有限公司开关增容带电拆头配合停电工作","powerTime":"2018-06-13 15:41:18","powerComm":"工作结束已送电","subsNo":"","lineNo":"","tgNo":"","tgName":null,"infoStatus":"1","orgName":"国网浙江杭州市富阳区供电公司","typeName":null,"infoStatusName":null,"dateDay":null,"orgNos":null,"nowTime":null,"countyName":null,"streetName":null,"villageName":null,"roadName":null,"communityName":null,"tranName":null,"sdLineName":null,"cityCode":"3340170","cityName":"国网浙江杭州市富阳区供电公司","provinceCode":null,"stopTime":"2018-06-13 17:00:00","powerType":"全部","powerOffArea":"110kV王洲变:双林D786线-双林D786线77#杆杭州凡顿新材料科技有限公司开关","powerOffReason":"双林D786线77#杆杭州凡顿新材料科技有限公司开关增容带电拆头配合停电工作","powerOffId":"2018060431010222"},{"poweroffId":2018060431010201,"sgpoweroffId":null,"subsName":"","lineName":"10kV秋源R188线","pubTranName":"临岐将坑村将坑公变,临岐将坑村下湾口公变,临岐将坑村茅山脚公变,临岐将坑村后塘公变,临岐范村村松坑公变,临岐将坑村茅坪里公变,临岐将坑村杨家公变,配电变压器,","scope":"浙江省-杭州市-淳安县-屏门乡(将坑行政村-后塘自然村、将坑村、将坑自然村、茅坪里自然村、茅山脚自然村、源头自然村);浙江省-杭州市-淳安县-屏门乡(淳安乡音食用菌实业有限公司);","startTime":"2018-06-15 08:00:00","stopDate":"2018-06-15 12:00:00","orgNo":"3340190","typeCode":"计划停电","poweroffArea":"35kV临岐变:秋源R188线-将坑支线0#杆跌落式熔断器后段","poweroffReason":"秋源R188线将坑支线0#杆三摇智能开关安装(带电班配合）","powerTime":"2018-06-15 11:56:03","powerComm":"现场工作已完成","subsNo":"","lineNo":"","tgNo":"","tgName":null,"infoStatus":"1","orgName":"国网浙江淳安县供电有限公司","typeName":null,"infoStatusName":null,"dateDay":null,"orgNos":null,"nowTime":null,"countyName":null,"streetName":null,"villageName":null,"roadName":null,"communityName":null,"tranName":null,"sdLineName":null,"cityCode":"3340190","cityName":"国网浙江淳安县供电有限公司","provinceCode":null,"stopTime":"2018-06-15 12:00:00","powerType":"全部","powerOffArea":"35kV临岐变:秋源R188线-将坑支线0#杆跌落式熔断器后段","powerOffReason":"秋源R188线将坑支线0#杆三摇智能开关安装(带电班配合）","powerOffId":"2018060431010201"}],"pageModel":{"pageNow":1698,"totalCount":17789,"totalPage":1779,"tableRows":0,"pageCount":10,"beginCount":16970},"isExperi":"1"}