{"message":"","today":"2020-06-16","seleList":[{"poweroffId":2018060431010200,"sgpoweroffId":null,"subsName":"","lineName":"10kV秋源R188线","pubTranName":"临岐临岐村鸟坑公变,","scope":"浙江省-杭州市-淳安县-临岐镇(临岐行政村-鸟坑自然村);","startTime":"2018-06-14 08:00:00","stopDate":"2018-06-14 12:00:00","orgNo":"3340190","typeCode":"计划停电","poweroffArea":"35kV临岐变:秋源R188线-鸟坑支线跌落式熔断器后段","poweroffReason":"秋源R188线鸟坑支线0#杆三遥智能开关安装(带电班配合）","powerTime":"2018-06-14 11:50:16","powerComm":"现场工作已完成","subsNo":"","lineNo":"","tgNo":"","tgName":null,"infoStatus":"1","orgName":"国网浙江淳安县供电有限公司","typeName":null,"infoStatusName":null,"dateDay":null,"orgNos":null,"nowTime":null,"countyName":null,"streetName":null,"villageName":null,"roadName":null,"communityName":null,"tranName":null,"sdLineName":null,"cityCode":"3340190","cityName":"国网浙江淳安县供电有限公司","provinceCode":null,"stopTime":"2018-06-14 12:00:00","powerType":"全部","powerOffArea":"35kV临岐变:秋源R188线-鸟坑支线跌落式熔断器后段","powerOffReason":"秋源R188线鸟坑支线0#杆三遥智能开关安装(带电班配合）","powerOffId":"2018060431010200"},{"poweroffId":2018060431010199,"sgpoweroffId":null,"subsName":"","lineName":"10kV溪口R181线","pubTranName":"","scope":"浙江省-杭州市-淳安县-临岐镇（左源行政村-左源自然村、丰村自然村、开岭脚自然村、宋家自然村；右源行政村-柳塘自然村）；","startTime":"2018-06-13 08:00:00","stopDate":"2018-06-13 17:30:00","orgNo":"3340190","typeCode":"计划停电","poweroffArea":"35kV临岐变:溪口R181线左源支线8#杆跌落式熔断器后段","poweroffReason":"溪口R181线左源支线8#杆三遥智能开关安装(带电班配合）","powerTime":"2018-06-13 16:24:28","powerComm":"现场工作完成，已送电","subsNo":"","lineNo":"","tgNo":"","tgName":null,"infoStatus":"1","orgName":"国网浙江淳安县供电有限公司","typeName":null,"infoStatusName":null,"dateDay":null,"orgNos":null,"nowTime":null,"countyName":null,"streetName":null,"villageName":null,"roadName":null,"communityName":null,"tranName":null,"sdLineName":null,"cityCode":"3340190","cityName":"国网浙江淳安县供电有限公司","provinceCode":null,"stopTime":"2018-06-13 17:30:00","powerType":"全部","powerOffArea":"35kV临岐变:溪口R181线左源支线8#杆跌落式熔断器后段","powerOffReason":"溪口R181线左源支线8#杆三遥智能开关安装(带电班配合）","powerOffId":"2018060431010199"},{"poweroffId":2018060431010194,"sgpoweroffId":null,"subsName":"","lineName":"10kV文昌R194线","pubTranName":"号1配变,杭州百果园科技实业公司临时配变,淳安县千岛湖逸和源桥西颐养中心配变,","scope":"浙江省-杭州市-淳安县-文昌镇(淳安县千岛湖逸和源桥西颐养中心,杭州百果园科技实业有限公司);","startTime":"2018-06-11 08:00:00","stopDate":"2018-06-11 14:00:00","orgNo":"3340190","typeCode":"计划停电","poweroffArea":"35kV潭头变:文昌R194线-桥西支线跌落式熔断器后段","poweroffReason":"文昌R194线桥西支线0#杆三遥智能开关安装(带电班配合）","powerTime":"2018-06-11 12:59:33","powerComm":"现场工作已完成","subsNo":"","lineNo":"","tgNo":"","tgName":null,"infoStatus":"1","orgName":"国网浙江淳安县供电有限公司","typeName":null,"infoStatusName":null,"dateDay":null,"orgNos":null,"nowTime":null,"countyName":null,"streetName":null,"villageName":null,"roadName":null,"communityName":null,"tranName":null,"sdLineName":null,"cityCode":"3340190","cityName":"国网浙江淳安县供电有限公司","provinceCode":null,"stopTime":"2018-06-11 14:00:00","powerType":"全部","powerOffArea":"35kV潭头变:文昌R194线-桥西支线跌落式熔断器后段","powerOffReason":"文昌R194线桥西支线0#杆三遥智能开关安装(带电班配合）","powerOffId":"2018060431010194"},{"poweroffId":2018060431010189,"sgpoweroffId":null,"subsName":"","lineName":"10kV九堡A398线","pubTranName":"顺坝村2#变,","scope":"浙江省-杭州市-萧山区-宁围镇(顺坝行政村)、宁围街道、宁围街道顺坝村一带","startTime":"2018-06-04 10:48:37","stopDate":"2018-06-04 16:48:37","orgNo":"3340130","typeCode":"电网故障停限电","poweroffArea":"110kV顺坝变:九堡A398线-顺坝村2#变低压配电设施","poweroffReason":"低压配电设施故障","powerTime":"2018-06-04 15:51:11","powerComm":"已送电","subsNo":"","lineNo":"","tgNo":"","tgName":null,"infoStatus":"1","orgName":"国网浙江杭州市萧山区供电有限公司","typeName":null,"infoStatusName":null,"dateDay":null,"orgNos":null,"nowTime":null,"countyName":null,"streetName":null,"villageName":null,"roadName":null,"communityName":null,"tranName":null,"sdLineName":null,"cityCode":"3340130","cityName":"国网浙江杭州市萧山区供电有限公司","provinceCode":null,"stopTime":"2018-06-04 16:48:37","powerType":"全部","powerOffArea":"110kV顺坝变:九堡A398线-顺坝村2#变低压配电设施","powerOffReason":"低压配电设施故障","powerOffId":"2018060431010189"},{"poweroffId":2018060431010171,"sgpoweroffId":null,"subsName":"","lineName":"10kV石门C162线","pubTranName":"西山村7#变,","scope":"浙江省-杭州市-萧山区-义桥镇(西山行政村-华家里自然村);浙江省-杭州市-萧山区-义桥镇(富春行政村-传雅沙自然村,河西行政村-河西址自然村、杨家浜自然村、周坊下自然村,西山行政村-华家里自然村、西河埭自然村、西山下自然村)、浙江省杭州市萧山区义桥镇西山自然村、河西自然村、富春自然村、杭州恒益布业有限公司、杭州伟强索具有限公司、杭州西陵废旧金属回收连锁有限公司萧山分公司、杭州市萧山区义桥镇农业办公室（横浦闸）、杭州文兴养殖场、杭州新田农业有限公司、杭州三磊农业开发有限公司、杭州市双浦镇东江嘴村村民委员会（杭县围垦）、杭州市萧山区义桥镇人民政府（蛟山）、杭州皇鼎五金有限公司、杭州渔浦农业有限公司、杭州市萧山区义桥镇人民政府（新张沙）、杭州市萧山区义桥镇农业办公室（桑园）、杭州市萧山区义桥镇人民政府（传雅）、杭州萧山义桥镇同鑫新型建材厂、杭州市双浦镇外张村村民委员会、杭州市袁浦镇东江嘴村（元宝沙001、元宝沙002）、杭州萧山义桥镇蛟山村经济联合社、杭州东方船舶修造有限公司等一带","startTime":"2018-06-04 10:32:37","stopDate":"2018-06-04 16:32:37","orgNo":"3340130","typeCode":"电网故障停限电","poweroffArea":"110kV许贤变:石门C162线-西山村7#变低压开关","poweroffReason":"110kV许贤变:石门C162线-西山村7#变低压开关故障","powerTime":"2018-06-04 11:38:53","powerComm":"已送电","subsNo":"","lineNo":"","tgNo":"","tgName":null,"infoStatus":"1","orgName":"国网浙江杭州市萧山区供电有限公司","typeName":null,"infoStatusName":null,"dateDay":null,"orgNos":null,"nowTime":null,"countyName":null,"streetName":null,"villageName":null,"roadName":null,"communityName":null,"tranName":null,"sdLineName":null,"cityCode":"3340130","cityName":"国网浙江杭州市萧山区供电有限公司","provinceCode":null,"stopTime":"2018-06-04 16:32:37","powerType":"全部","powerOffArea":"110kV许贤变:石门C162线-西山村7#变低压开关","powerOffReason":"110kV许贤变:石门C162线-西山村7#变低压开关故障","powerOffId":"2018060431010171"},{"poweroffId":2018060431010166,"sgpoweroffId":null,"subsName":"","lineName":"10kV唐公G968线","pubTranName":"运河街道办事处250运溪路变,余杭客运交通（五杭）,运河镇唐公村六里庵公变,","scope":"浙江省杭州市余杭区运河街道：唐公村新区、余杭客运交通（五杭）一带","startTime":"2018-06-11 08:00:00","stopDate":"2018-06-11 17:30:00","orgNo":"3340140","typeCode":"计划停电","poweroffArea":"110kV博陆变:唐公G968线-唐公G9683开关，唐公G9684开关之间","poweroffReason":"唐公G9683开关-唐公G9684开关 配网工程 唐公G968线,线路标修","powerTime":"2018-06-11 16:15:05","powerComm":"完成工作。","subsNo":"","lineNo":"","tgNo":"","tgName":null,"infoStatus":"1","orgName":"国网浙江杭州市余杭区供电有限公司","typeName":null,"infoStatusName":null,"dateDay":null,"orgNos":null,"nowTime":null,"countyName":null,"streetName":null,"villageName":null,"roadName":null,"communityName":null,"tranName":null,"sdLineName":null,"cityCode":"3340140","cityName":"国网浙江杭州市余杭区供电有限公司","provinceCode":null,"stopTime":"2018-06-11 17:30:00","powerType":"全部","powerOffArea":"110kV博陆变:唐公G968线-唐公G9683开关，唐公G9684开关之间","powerOffReason":"唐公G9683开关-唐公G9684开关 配网工程 唐公G968线,线路标修","powerOffId":"2018060431010166"},{"poweroffId":2018060431010162,"sgpoweroffId":null,"subsName":"","lineName":"10kV杭南G034线","pubTranName":"运河镇道墩坝村北胡家坝北公变,","scope":"浙江省杭州市余杭区运河街道：运河镇道墩坝村北胡家坝北一带","startTime":"2018-06-11 08:00:00","stopDate":"2018-06-11 17:00:00","orgNo":"3340140","typeCode":"计划停电","poweroffArea":"110kV五杭变:杭南G034线-道敦坝1组后段","poweroffReason":"杭南G034线道墩坝1组分线跌落式熔断器 配网工程 运河镇道墩坝村北胡家坝北公变315增至400kVA","powerTime":"2018-06-11 16:08:43","powerComm":"完成工作","subsNo":"","lineNo":"","tgNo":"","tgName":null,"infoStatus":"1","orgName":"国网浙江杭州市余杭区供电有限公司","typeName":null,"infoStatusName":null,"dateDay":null,"orgNos":null,"nowTime":null,"countyName":null,"streetName":null,"villageName":null,"roadName":null,"communityName":null,"tranName":null,"sdLineName":null,"cityCode":"3340140","cityName":"国网浙江杭州市余杭区供电有限公司","provinceCode":null,"stopTime":"2018-06-11 17:00:00","powerType":"全部","powerOffArea":"110kV五杭变:杭南G034线-道敦坝1组后段","powerOffReason":"杭南G034线道墩坝1组分线跌落式熔断器 配网工程 运河镇道墩坝村北胡家坝北公变315增至400kVA","powerOffId":"2018060431010162"},{"poweroffId":2018060431010160,"sgpoweroffId":null,"subsName":"","lineName":"10kV五杭G969线","pubTranName":"禹杭建设临平分公司,奥利特,运河镇长虹村顾家角公变,杭州昊泽纺织有限公司,运河镇长虹村凌家埭公变公变,运河镇长虹村大鱼池公变,利顺化纤公司,恒业时代,锦昌机械,运河镇长虹村王家里公变,运河镇长虹村长春桥东公变,运河镇五杭街道农贸市场公变,杭州远方丝绸织造有限公司,运溪路路灯变,杭州华奥丝绸有限公司400配变,运河镇长虹村羊毛潭公变,运河镇长虹村池塘河公变,长春庙公变,五杭洪法黄沙石料经营部,运河镇长虹村南桥头公变,长春桥公变,运河镇长虹村黄家桥公变,余杭区五杭兴昌码头,杭州斌海运输有限公司,运河镇长虹村大鱼池西公变,锦昌机械,五杭工艺灯具厂,同诚纱业,长春四组（二）号公变,长虹村凌家里西公变,祥胜铸造有限公司,顾得工艺,长春空变丝厂,华裕丝织厂,运河镇长虹村王家里西公变,运河镇长虹村黄家桥东公变,杭州能鑫丝绸有限公司,兴昌码头2#,","scope":"浙江省杭州市余杭区运河街道：运河镇长虹村王家里、运河镇长虹村顾家角、运河镇长虹村黄家桥、运河镇长虹村南桥头、运溪路路灯、长春庙、杭州昊泽纺织品有限公司、顾得工艺、杭州斌海运输有限公司、禹杭建设临平分公司一带","startTime":"2018-06-11 08:00:00","stopDate":"2018-06-11 17:30:00","orgNo":"3340140","typeCode":"计划停电","poweroffArea":"110kV博陆变:五杭G969线-许道G96941开关，道墩G0290开关之间","poweroffReason":"许家开关站I段许道G9694线-道墩G0290开关 配网工程 五杭G969线调换15档绝缘线，线路标修","powerTime":"2018-06-11 16:15:46","powerComm":"完成工作","subsNo":"","lineNo":"","tgNo":"","tgName":null,"infoStatus":"1","orgName":"国网浙江杭州市余杭区供电有限公司","typeName":null,"infoStatusName":null,"dateDay":null,"orgNos":null,"nowTime":null,"countyName":null,"streetName":null,"villageName":null,"roadName":null,"communityName":null,"tranName":null,"sdLineName":null,"cityCode":"3340140","cityName":"国网浙江杭州市余杭区供电有限公司","provinceCode":null,"stopTime":"2018-06-11 17:30:00","powerType":"全部","powerOffArea":"110kV博陆变:五杭G969线-许道G96941开关，道墩G0290开关之间","powerOffReason":"许家开关站I段许道G9694线-道墩G0290开关 配网工程 五杭G969线调换15档绝缘线，线路标修","powerOffId":"2018060431010160"},{"poweroffId":2018060431010159,"sgpoweroffId":null,"subsName":"","lineName":"10kV石门H566线","pubTranName":"青山村塔边市场公变,青山村沟上公变,青山村塔边村村公变,沈范竹地板,青山村方家桥公变,","scope":"浙江省杭州市余杭区黄湖镇：青山村沟上、青山村塔边村、青山村塔边市场、沈范竹地板厂、青山村方家桥一带","startTime":"2018-06-12 07:20:00","stopDate":"2018-06-12 15:30:00","orgNo":"3340140","typeCode":"计划停电","poweroffArea":"石门H566线方家桥分线","poweroffReason":"配网工程：青山村方家桥公变125kVA增容至200kVA","powerTime":"2018-06-12 13:27:04","powerComm":"全部送电","subsNo":"","lineNo":"","tgNo":"","tgName":null,"infoStatus":"1","orgName":"国网浙江杭州市余杭区供电有限公司","typeName":null,"infoStatusName":null,"dateDay":null,"orgNos":null,"nowTime":null,"countyName":null,"streetName":null,"villageName":null,"roadName":null,"communityName":null,"tranName":null,"sdLineName":null,"cityCode":"3340140","cityName":"国网浙江杭州市余杭区供电有限公司","provinceCode":null,"stopTime":"2018-06-12 15:30:00","powerType":"全部","powerOffArea":"石门H566线方家桥分线","powerOffReason":"配网工程：青山村方家桥公变125kVA增容至200kVA","powerOffId":"2018060431010159"},{"poweroffId":2018060431010158,"sgpoweroffId":null,"subsName":"","lineName":"10kV塘宁G050线","pubTranName":"运河镇兴旺村农居点公变,","scope":"浙江省杭州市余杭区运河街道：运河镇兴旺村农居点一带","startTime":"2018-06-12 08:00:00","stopDate":"2018-06-12 17:00:00","orgNo":"3340140","typeCode":"计划停电","poweroffArea":"110kV五杭变:塘宁G050线-兴旺农居点分线开关后段","poweroffReason":"塘宁G050线兴旺农居点分线1号杆开关 配网工程 新布兴旺村农居点2#公变400kVA","powerTime":"2018-06-12 16:05:53","powerComm":"已送电","subsNo":"","lineNo":"","tgNo":"","tgName":null,"infoStatus":"1","orgName":"国网浙江杭州市余杭区供电有限公司","typeName":null,"infoStatusName":null,"dateDay":null,"orgNos":null,"nowTime":null,"countyName":null,"streetName":null,"villageName":null,"roadName":null,"communityName":null,"tranName":null,"sdLineName":null,"cityCode":"3340140","cityName":"国网浙江杭州市余杭区供电有限公司","provinceCode":null,"stopTime":"2018-06-12 17:00:00","powerType":"全部","powerOffArea":"110kV五杭变:塘宁G050线-兴旺农居点分线开关后段","powerOffReason":"塘宁G050线兴旺农居点分线1号杆开关 配网工程 新布兴旺村农居点2#公变400kVA","powerOffId":"2018060431010158"}],"pageModel":{"pageNow":1699,"totalCount":17789,"totalPage":1779,"tableRows":0,"pageCount":10,"beginCount":16980},"isExperi":"1"}