{"message":"","today":"2020-06-16","seleList":[{"poweroffId":2018060431010154,"sgpoweroffId":null,"subsName":"","lineName":"10kV龙船G884线","pubTranName":"杭州市开发投资有限公司,建管中心基建变,创新中心基建2#变,杭州钱江建设投资发展有限公司,","scope":"浙江省杭州市余杭经济开发区：杭州钱江建设投资发展有限公司、建管中心、杭州市开发投资有限公司一带","startTime":"2018-06-12 08:30:00","stopDate":"2018-06-12 16:30:00","orgNo":"3340140","typeCode":"计划停电","poweroffArea":"110kV漳河变:龙船G884线-创新中心分线开关后段","poweroffReason":"10KV龙船G884线创新中心分线分线开关 业扩工程 拆除315kVA基建变1台，315kVA基建箱1台，真空开关1台，13米电杆26基，JKLYJ-10-70导线2000米，拉线4组。","powerTime":"2018-06-12 16:10:01","powerComm":"已送电","subsNo":"","lineNo":"","tgNo":"","tgName":null,"infoStatus":"1","orgName":"国网浙江杭州市余杭区供电有限公司","typeName":null,"infoStatusName":null,"dateDay":null,"orgNos":null,"nowTime":null,"countyName":null,"streetName":null,"villageName":null,"roadName":null,"communityName":null,"tranName":null,"sdLineName":null,"cityCode":"3340140","cityName":"国网浙江杭州市余杭区供电有限公司","provinceCode":null,"stopTime":"2018-06-12 16:30:00","powerType":"全部","powerOffArea":"110kV漳河变:龙船G884线-创新中心分线开关后段","powerOffReason":"10KV龙船G884线创新中心分线分线开关 业扩工程 拆除315kVA基建变1台，315kVA基建箱1台，真空开关1台，13米电杆26基，JKLYJ-10-70导线2000米，拉线4组。","powerOffId":"2018060431010154"},{"poweroffId":2018060431010152,"sgpoweroffId":null,"subsName":"","lineName":"10kV宅里T330线","pubTranName":"孙家腾家1号公变,新达皮革,","scope":"浙江省-杭州市-桐庐县-横村镇(孙家行政村-孙家自然村、滕家自然村);浙江省-杭州市-桐庐县-横村镇(桐庐新达皮革有限公司);","startTime":"2018-06-15 07:00:00","stopDate":"2018-06-15 18:00:00","orgNo":"3340150","typeCode":"计划停电","poweroffArea":"110kV横村变:宅里T330线-滕家F1531令克后段","poweroffReason":"腾家1号公变配变增容（200kVA增至315kVA）、新增400kVA一台及低压线路割接工作","powerTime":"2018-06-15 17:51:06","powerComm":"已送电","subsNo":"","lineNo":"","tgNo":"","tgName":null,"infoStatus":"1","orgName":"国网浙江桐庐县供电公司","typeName":null,"infoStatusName":null,"dateDay":null,"orgNos":null,"nowTime":null,"countyName":null,"streetName":null,"villageName":null,"roadName":null,"communityName":null,"tranName":null,"sdLineName":null,"cityCode":"3340150","cityName":"国网浙江桐庐县供电公司","provinceCode":null,"stopTime":"2018-06-15 18:00:00","powerType":"全部","powerOffArea":"110kV横村变:宅里T330线-滕家F1531令克后段","powerOffReason":"腾家1号公变配变增容（200kVA增至315kVA）、新增400kVA一台及低压线路割接工作","powerOffId":"2018060431010152"},{"poweroffId":2018060431010151,"sgpoweroffId":null,"subsName":"","lineName":"10kV彭凤H508线","pubTranName":"绿明玻璃,中进包装2,得益金属,中进包装,石濑机埠,铭大铝幕墙,德华车料,瓶窑纸箱厂,新霓虹制冷,新霓虹制冷2,双安包装,天信防水611108568201#专变,","scope":"浙江省杭州市余杭区瓶窑镇：铭大铝幕墙厂、得益金属制品厂、新霓虹制冷设备厂、荣达电器元件厂、绿明玻璃灯具厂、瓶窑镇石濑村、中进包装制品厂、德华车料厂、双安包装材料厂一带","startTime":"2018-06-13 07:20:00","stopDate":"2018-06-13 13:30:00","orgNo":"3340140","typeCode":"计划停电","poweroffArea":"彭凤H508线双安包装分线","poweroffReason":"配网工程：线路消缺；双安包装分线更换真空开关一台","powerTime":"2018-06-13 10:14:44","powerComm":"已送电","subsNo":"","lineNo":"","tgNo":"","tgName":null,"infoStatus":"1","orgName":"国网浙江杭州市余杭区供电有限公司","typeName":null,"infoStatusName":null,"dateDay":null,"orgNos":null,"nowTime":null,"countyName":null,"streetName":null,"villageName":null,"roadName":null,"communityName":null,"tranName":null,"sdLineName":null,"cityCode":"3340140","cityName":"国网浙江杭州市余杭区供电有限公司","provinceCode":null,"stopTime":"2018-06-13 13:30:00","powerType":"全部","powerOffArea":"彭凤H508线双安包装分线","powerOffReason":"配网工程：线路消缺；双安包装分线更换真空开关一台","powerOffId":"2018060431010151"},{"poweroffId":2018060431010149,"sgpoweroffId":null,"subsName":"","lineName":"10kV胜峰T335线","pubTranName":"香山塘坊坞1号公变,","scope":"浙江省-杭州市-桐庐县-横村镇(香山行政村-香山自然村);","startTime":"2018-06-13 07:30:00","stopDate":"2018-06-13 11:00:00","orgNo":"3340150","typeCode":"计划停电","poweroffArea":"110kV横村变:胜峰T335线-香山F1699令克后段","poweroffReason":"香山塘坊坞1号公变CT调换工作","powerTime":"2018-06-13 10:51:30","powerComm":"已送电","subsNo":"","lineNo":"","tgNo":"","tgName":null,"infoStatus":"1","orgName":"国网浙江桐庐县供电公司","typeName":null,"infoStatusName":null,"dateDay":null,"orgNos":null,"nowTime":null,"countyName":null,"streetName":null,"villageName":null,"roadName":null,"communityName":null,"tranName":null,"sdLineName":null,"cityCode":"3340150","cityName":"国网浙江桐庐县供电公司","provinceCode":null,"stopTime":"2018-06-13 11:00:00","powerType":"全部","powerOffArea":"110kV横村变:胜峰T335线-香山F1699令克后段","powerOffReason":"香山塘坊坞1号公变CT调换工作","powerOffId":"2018060431010149"},{"poweroffId":2018060431010148,"sgpoweroffId":null,"subsName":"","lineName":"10kV尖山T201线","pubTranName":"桐庐桐辉置业有限公司,徐家埠蚕房1号公变,徐家埠移民1号公变,","scope":"浙江省-杭州市-桐庐县-横村镇(城东行政村-徐家埠自然村);浙江省-杭州市-桐庐县-横村镇(桐庐桐辉置业有限公司);","startTime":"2018-06-13 07:00:00","stopDate":"2018-06-13 17:30:00","orgNo":"3340150","typeCode":"计划停电","poweroffArea":"110kV方埠变:尖山T201线-徐家F1016开关后段","poweroffReason":"徐家埠蚕房新增2号公变，1号公变2号公变低压割接，进户线搭接及拆旧、安装开关工作","powerTime":"2018-06-13 17:19:38","powerComm":"已送电。","subsNo":"","lineNo":"","tgNo":"","tgName":null,"infoStatus":"1","orgName":"国网浙江桐庐县供电公司","typeName":null,"infoStatusName":null,"dateDay":null,"orgNos":null,"nowTime":null,"countyName":null,"streetName":null,"villageName":null,"roadName":null,"communityName":null,"tranName":null,"sdLineName":null,"cityCode":"3340150","cityName":"国网浙江桐庐县供电公司","provinceCode":null,"stopTime":"2018-06-13 17:30:00","powerType":"全部","powerOffArea":"110kV方埠变:尖山T201线-徐家F1016开关后段","powerOffReason":"徐家埠蚕房新增2号公变，1号公变2号公变低压割接，进户线搭接及拆旧、安装开关工作","powerOffId":"2018060431010148"},{"poweroffId":2018060431010147,"sgpoweroffId":null,"subsName":"","lineName":"10kV双竹H567线","pubTranName":"虎山村大湾公变,","scope":"浙江省杭州市余杭区黄湖镇：虎山村大湾一带","startTime":"2018-06-14 07:20:00","stopDate":"2018-06-14 16:30:00","orgNo":"3340140","typeCode":"计划停电","poweroffArea":"双竹H567线大湾分线","poweroffReason":"配网工程：虎山村大湾公变125kVA增容至400kVA","powerTime":"2018-06-14 15:30:17","powerComm":"已送电","subsNo":"","lineNo":"","tgNo":"","tgName":null,"infoStatus":"1","orgName":"国网浙江杭州市余杭区供电有限公司","typeName":null,"infoStatusName":null,"dateDay":null,"orgNos":null,"nowTime":null,"countyName":null,"streetName":null,"villageName":null,"roadName":null,"communityName":null,"tranName":null,"sdLineName":null,"cityCode":"3340140","cityName":"国网浙江杭州市余杭区供电有限公司","provinceCode":null,"stopTime":"2018-06-14 16:30:00","powerType":"全部","powerOffArea":"双竹H567线大湾分线","powerOffReason":"配网工程：虎山村大湾公变125kVA增容至400kVA","powerOffId":"2018060431010147"},{"poweroffId":2018060431010140,"sgpoweroffId":null,"subsName":"","lineName":"10kV东风G078线","pubTranName":"协和陶瓷,协和陶瓷,","scope":"浙江省杭州市余杭区运河街道：诺贝尔陶瓷、协和陶瓷一带","startTime":"2018-06-13 07:30:00","stopDate":"2018-06-13 18:30:00","orgNo":"3340140","typeCode":"计划停电","poweroffArea":"110kV星桥变:东风G078线-东风农药厂分线后段；","poweroffReason":"东风G078线蔡桥开关站东风农药厂分线 配网工程 屯里3组变增量至400kVA，东风农药厂分线1#杆至15#杆单改双","powerTime":"2018-06-13 17:10:00","powerComm":"工作完成","subsNo":"","lineNo":"","tgNo":"","tgName":null,"infoStatus":"1","orgName":"国网浙江杭州市余杭区供电有限公司","typeName":null,"infoStatusName":null,"dateDay":null,"orgNos":null,"nowTime":null,"countyName":null,"streetName":null,"villageName":null,"roadName":null,"communityName":null,"tranName":null,"sdLineName":null,"cityCode":"3340140","cityName":"国网浙江杭州市余杭区供电有限公司","provinceCode":null,"stopTime":"2018-06-13 18:30:00","powerType":"全部","powerOffArea":"110kV星桥变:东风G078线-东风农药厂分线后段；","powerOffReason":"东风G078线蔡桥开关站东风农药厂分线 配网工程 屯里3组变增量至400kVA，东风农药厂分线1#杆至15#杆单改双","powerOffId":"2018060431010140"},{"poweroffId":2018060431010139,"sgpoweroffId":null,"subsName":"","lineName":"10kV新博G031线","pubTranName":"运河镇新圩村北庄河西公变,运河镇新圩村北庄河公变,运河镇新圩村王家里公变,杭州翰琳纺织服装有限公司,","scope":"浙江省杭州市余杭区运河街道：博陆粘胶带厂、运河镇新圩村王家里、运河镇新圩村北庄河西一带","startTime":"2018-06-15 07:30:00","stopDate":"2018-06-15 18:00:00","orgNo":"3340140","typeCode":"计划停电","poweroffArea":"110kV五杭变:新博G031线-王家里分线10号杆开关后段","poweroffReason":"新博G031线王家里分线10号杆开关 配网工程 王家里分线换绝缘导线","powerTime":"2018-06-15 17:25:00","powerComm":"已送电","subsNo":"","lineNo":"","tgNo":"","tgName":null,"infoStatus":"1","orgName":"国网浙江杭州市余杭区供电有限公司","typeName":null,"infoStatusName":null,"dateDay":null,"orgNos":null,"nowTime":null,"countyName":null,"streetName":null,"villageName":null,"roadName":null,"communityName":null,"tranName":null,"sdLineName":null,"cityCode":"3340140","cityName":"国网浙江杭州市余杭区供电有限公司","provinceCode":null,"stopTime":"2018-06-15 18:00:00","powerType":"全部","powerOffArea":"110kV五杭变:新博G031线-王家里分线10号杆开关后段","powerOffReason":"新博G031线王家里分线10号杆开关 配网工程 王家里分线换绝缘导线","powerOffId":"2018060431010139"},{"poweroffId":2018060431010135,"sgpoweroffId":null,"subsName":"","lineName":"10kV栅口G930线","pubTranName":"运河镇南栅口村陆家村东公变,运河镇南栅口村陆家村北公变,南栅口村新卫（二）公变,","scope":"浙江省杭州市余杭区运河街道：南栅口二组、运河镇南栅口村陆家村东一带","startTime":"2018-06-15 08:00:00","stopDate":"2018-06-15 18:00:00","orgNo":"3340140","typeCode":"计划停电","poweroffArea":"110kV亭趾变:栅口G930线-南栅口二组后段；栅口G930线-南栅口村新卫（二）公变熔断器后段；栅口G930线-南栅口一组后段","poweroffReason":"栅口G930线南栅口2组分线开关 配网工程 南栅口2组公变标准化改造","powerTime":"2018-06-15 17:50:13","powerComm":"已送电","subsNo":"","lineNo":"","tgNo":"","tgName":null,"infoStatus":"1","orgName":"国网浙江杭州市余杭区供电有限公司","typeName":null,"infoStatusName":null,"dateDay":null,"orgNos":null,"nowTime":null,"countyName":null,"streetName":null,"villageName":null,"roadName":null,"communityName":null,"tranName":null,"sdLineName":null,"cityCode":"3340140","cityName":"国网浙江杭州市余杭区供电有限公司","provinceCode":null,"stopTime":"2018-06-15 18:00:00","powerType":"全部","powerOffArea":"110kV亭趾变:栅口G930线-南栅口二组后段；栅口G930线-南栅口村新卫（二）公变熔断器后段；栅口G930线-南栅口一组后段","powerOffReason":"栅口G930线南栅口2组分线开关 配网工程 南栅口2组公变标准化改造","powerOffId":"2018060431010135"},{"poweroffId":2018060431010123,"sgpoweroffId":null,"subsName":"","lineName":"10kV府英9719线","pubTranName":"江虹,","scope":"浙江省-杭州市-滨江区-长河街道(江二社区-长河江虹路);浙江省杭州市滨江区义图园一带","startTime":"2018-06-05 09:15:00","stopDate":"2018-06-05 21:00:00","orgNo":"3340101","typeCode":"计划停电","poweroffArea":"110kV府前变:府英9719线-江虹后段","poweroffReason":"滨消站I段移位，新设开关站","powerTime":"2018-06-05 16:41:19","powerComm":"已送电","subsNo":"","lineNo":"","tgNo":"","tgName":null,"infoStatus":"1","orgName":"浙江杭州电力客户服务中心","typeName":null,"infoStatusName":null,"dateDay":null,"orgNos":null,"nowTime":null,"countyName":null,"streetName":null,"villageName":null,"roadName":null,"communityName":null,"tranName":null,"sdLineName":null,"cityCode":"3340101","cityName":"浙江杭州电力客户服务中心","provinceCode":null,"stopTime":"2018-06-05 21:00:00","powerType":"全部","powerOffArea":"110kV府前变:府英9719线-江虹后段","powerOffReason":"滨消站I段移位，新设开关站","powerOffId":"2018060431010123"}],"pageModel":{"pageNow":1700,"totalCount":17789,"totalPage":1779,"tableRows":0,"pageCount":10,"beginCount":16990},"isExperi":"1"}