{"message":"","today":"2020-06-16","seleList":[{"poweroffId":2018060431010066,"sgpoweroffId":null,"subsName":"","lineName":"10kV胥口D712线","pubTranName":"高联村9#徐家公变,富阳市胥口镇新宇石材厂,佛鲁村5#菜田湾公变,杭新水泥制品,佛鲁村4#灵山公变,高联村6#高山公变,高坪石材1#变,高联村5#黄泥岭公变,高联村8#田家公变,高联村9#徐家公变,高联村7#小垄坎公变,高联村3#雷公里公变,佛鲁村7#童家园公变,佛鲁村6#陆家公变,浙江宏途管业有限公司,佛鲁村2#石灰厂公变,佛鲁村3#方家桥公变,佛鲁村1#勇家公变,高联村1#刘家公变,高联村10#新桥头公变,高联村2#白亭子公变,高联村4#石畈公变,","scope":"浙江省杭州市富阳区胥口镇佛鲁村、高联村一带","startTime":"2018-06-14 08:20:00","stopDate":"2018-06-14 15:20:00","orgNo":"3340170","typeCode":"计划停电","poweroffArea":"110kV松溪变:胥口D712线-胥上联线52#开关后段","poweroffReason":"国网浙江杭州市富阳区供电公司10kV青何D731线唐昌分线等配电线路及设备大修:佛鲁大理石矿支线调杆，导线调换，开关调换等工作","powerTime":"2018-06-14 15:12:14","powerComm":"工作结束已送电","subsNo":"","lineNo":"","tgNo":"","tgName":null,"infoStatus":"1","orgName":"国网浙江杭州市富阳区供电公司","typeName":null,"infoStatusName":null,"dateDay":null,"orgNos":null,"nowTime":null,"countyName":null,"streetName":null,"villageName":null,"roadName":null,"communityName":null,"tranName":null,"sdLineName":null,"cityCode":"3340170","cityName":"国网浙江杭州市富阳区供电公司","provinceCode":null,"stopTime":"2018-06-14 15:20:00","powerType":"全部","powerOffArea":"110kV松溪变:胥口D712线-胥上联线52#开关后段","powerOffReason":"国网浙江杭州市富阳区供电公司10kV青何D731线唐昌分线等配电线路及设备大修:佛鲁大理石矿支线调杆，导线调换，开关调换等工作","powerOffId":"2018060431010066"},{"poweroffId":2018060431010065,"sgpoweroffId":null,"subsName":"","lineName":"10kV渌渚D133线","pubTranName":"百前村4#下唐家公变,","scope":"浙江省-杭州市-富阳区-渌渚镇(百前行政村);","startTime":"2018-06-14 07:30:00","stopDate":"2018-06-14 15:00:00","orgNo":"3340170","typeCode":"计划停电","poweroffArea":"110kV新登变:渌渚D133线-百前村4#下唐家公变台区低压开关","poweroffReason":"照明01线架设导线JKLYJ-70*4*6档、安装横担8付、导线搭接、拆除JKLYJ-70*4*6档、横担8付、更换落户线BS-JKLYJ-2*25*4户","powerTime":"2018-06-14 14:00:30","powerComm":"工作结束已送电","subsNo":"","lineNo":"","tgNo":"","tgName":null,"infoStatus":"1","orgName":"国网浙江杭州市富阳区供电公司","typeName":null,"infoStatusName":null,"dateDay":null,"orgNos":null,"nowTime":null,"countyName":null,"streetName":null,"villageName":null,"roadName":null,"communityName":null,"tranName":null,"sdLineName":null,"cityCode":"3340170","cityName":"国网浙江杭州市富阳区供电公司","provinceCode":null,"stopTime":"2018-06-14 15:00:00","powerType":"全部","powerOffArea":"110kV新登变:渌渚D133线-百前村4#下唐家公变台区低压开关","powerOffReason":"照明01线架设导线JKLYJ-70*4*6档、安装横担8付、导线搭接、拆除JKLYJ-70*4*6档、横担8付、更换落户线BS-JKLYJ-2*25*4户","powerOffId":"2018060431010065"},{"poweroffId":2018060431010064,"sgpoweroffId":null,"subsName":"","lineName":"10kV登城D142线","pubTranName":"登城水泥4#,登城水泥2#,富阳长远干粉砂浆有限公司,","scope":"浙江省杭州市富阳区新登镇富阳登城水泥有限公司一带","startTime":"2018-06-13 05:00:00","stopDate":"2018-06-13 23:00:00","orgNo":"3340170","typeCode":"计划停电","poweroffArea":"110kV新登变:登城D142线","poweroffReason":"10kVI段母线集中检修配合停电","powerTime":"2018-06-13 22:52:47","powerComm":"工作已结束","subsNo":"","lineNo":"","tgNo":"","tgName":null,"infoStatus":"1","orgName":"国网浙江杭州市富阳区供电公司","typeName":null,"infoStatusName":null,"dateDay":null,"orgNos":null,"nowTime":null,"countyName":null,"streetName":null,"villageName":null,"roadName":null,"communityName":null,"tranName":null,"sdLineName":null,"cityCode":"3340170","cityName":"国网浙江杭州市富阳区供电公司","provinceCode":null,"stopTime":"2018-06-13 23:00:00","powerType":"全部","powerOffArea":"110kV新登变:登城D142线","powerOffReason":"10kVI段母线集中检修配合停电","powerOffId":"2018060431010064"},{"poweroffId":2018060431010063,"sgpoweroffId":null,"subsName":"","lineName":"10kV城南173线","pubTranName":"武盛联华1号公变,","scope":"浙江省-杭州市-桐庐县-分水镇大陆行政村一带。","startTime":"2018-06-04 09:02:53","stopDate":"2018-06-04 11:32:47","orgNo":"3340150","typeCode":"电网故障停限电","poweroffArea":"110kV分水变:城南173线-武盛联华1号公变后段","poweroffReason":"低压开关故障","powerTime":"2018-06-04 11:10:12","powerComm":"已送电。","subsNo":"","lineNo":"","tgNo":"","tgName":null,"infoStatus":"1","orgName":"国网浙江桐庐县供电公司","typeName":null,"infoStatusName":null,"dateDay":null,"orgNos":null,"nowTime":null,"countyName":null,"streetName":null,"villageName":null,"roadName":null,"communityName":null,"tranName":null,"sdLineName":null,"cityCode":"3340150","cityName":"国网浙江桐庐县供电公司","provinceCode":null,"stopTime":"2018-06-04 11:32:47","powerType":"全部","powerOffArea":"110kV分水变:城南173线-武盛联华1号公变后段","powerOffReason":"低压开关故障","powerOffId":"2018060431010063"},{"poweroffId":2018060431010062,"sgpoweroffId":null,"subsName":"","lineName":"10kV新医D123线","pubTranName":"杭州市富阳区第二人民医院1#变,杭州市富阳区第二人民医院3#变,杭州市富阳区第二人民医院2#变,杭州市富阳区第二人民医院4#变,杭州市富阳区第二人民医院5#变,","scope":"浙江省杭州市富阳区新登镇富阳登城水泥有限公司一带","startTime":"2018-06-13 05:00:00","stopDate":"2018-06-13 23:00:00","orgNo":"3340170","typeCode":"计划停电","poweroffArea":"110kV新登变:新医D123线","poweroffReason":"10kVI段母线集中检修配合停电","powerTime":"2018-06-13 22:52:02","powerComm":"工作已结束","subsNo":"","lineNo":"","tgNo":"","tgName":null,"infoStatus":"1","orgName":"国网浙江杭州市富阳区供电公司","typeName":null,"infoStatusName":null,"dateDay":null,"orgNos":null,"nowTime":null,"countyName":null,"streetName":null,"villageName":null,"roadName":null,"communityName":null,"tranName":null,"sdLineName":null,"cityCode":"3340170","cityName":"国网浙江杭州市富阳区供电公司","provinceCode":null,"stopTime":"2018-06-13 23:00:00","powerType":"全部","powerOffArea":"110kV新登变:新医D123线","powerOffReason":"10kVI段母线集中检修配合停电","powerOffId":"2018060431010062"},{"poweroffId":2018060431010060,"sgpoweroffId":null,"subsName":"","lineName":"10kV灵山D143线","pubTranName":"双塔村3#挂碳公变,","scope":"浙江省杭州市富阳区新登镇双塔村上郎家、挂碳一带","startTime":"2018-06-13 08:20:00","stopDate":"2018-06-13 17:30:00","orgNo":"3340170","typeCode":"计划停电","poweroffArea":"110kV新登变:灵山D143线-双塔村3#挂碳公变后段","poweroffReason":"渌渚登城线入地（客户）:5 1#杆立杆，真空开关安装，电缆敷设；18 1#杆立杆真空开关安装，电缆敷设；6#-18 1#杆线路拆除等工作","powerTime":"2018-06-13 17:28:00","powerComm":"工作已结束","subsNo":"","lineNo":"","tgNo":"","tgName":null,"infoStatus":"1","orgName":"国网浙江杭州市富阳区供电公司","typeName":null,"infoStatusName":null,"dateDay":null,"orgNos":null,"nowTime":null,"countyName":null,"streetName":null,"villageName":null,"roadName":null,"communityName":null,"tranName":null,"sdLineName":null,"cityCode":"3340170","cityName":"国网浙江杭州市富阳区供电公司","provinceCode":null,"stopTime":"2018-06-13 17:30:00","powerType":"全部","powerOffArea":"110kV新登变:灵山D143线-双塔村3#挂碳公变后段","powerOffReason":"渌渚登城线入地（客户）:5 1#杆立杆，真空开关安装，电缆敷设；18 1#杆立杆真空开关安装，电缆敷设；6#-18 1#杆线路拆除等工作","powerOffId":"2018060431010060"},{"poweroffId":2018060431010059,"sgpoweroffId":null,"subsName":"","lineName":"10kV登城D142线","pubTranName":"登城水泥4#,登城水泥2#,富阳长远干粉砂浆有限公司,","scope":"浙江省杭州市富阳区新登镇双塔村上郎家、挂碳一带","startTime":"2018-06-13 08:20:00","stopDate":"2018-06-13 17:30:00","orgNo":"3340170","typeCode":"计划停电","poweroffArea":"110kV新登变:登城D142线","poweroffReason":"渌渚登城线入地（客户）:5 1#杆立杆，真空开关安装，电缆敷设；18 1#杆立杆真空开关安装，电缆敷设；6#-18 1#杆线路拆除等工作","powerTime":"2018-06-13 17:28:29","powerComm":"工作已结束","subsNo":"","lineNo":"","tgNo":"","tgName":null,"infoStatus":"1","orgName":"国网浙江杭州市富阳区供电公司","typeName":null,"infoStatusName":null,"dateDay":null,"orgNos":null,"nowTime":null,"countyName":null,"streetName":null,"villageName":null,"roadName":null,"communityName":null,"tranName":null,"sdLineName":null,"cityCode":"3340170","cityName":"国网浙江杭州市富阳区供电公司","provinceCode":null,"stopTime":"2018-06-13 17:30:00","powerType":"全部","powerOffArea":"110kV新登变:登城D142线","powerOffReason":"渌渚登城线入地（客户）:5 1#杆立杆，真空开关安装，电缆敷设；18 1#杆立杆真空开关安装，电缆敷设；6#-18 1#杆线路拆除等工作","powerOffId":"2018060431010059"},{"poweroffId":2018060431010057,"sgpoweroffId":null,"subsName":"","lineName":"10kV登城D142线","pubTranName":"登城水泥4#,登城水泥2#,富阳长远干粉砂浆有限公司,","scope":"浙江省杭州市富阳区新登镇富阳登城水泥有限公司一带","startTime":"2018-06-13 08:20:00","stopDate":"2018-06-13 17:30:00","orgNo":"3340170","typeCode":"计划停电","poweroffArea":"110kV新登变:登城D142线","poweroffReason":"10KV登城D142线电缆试验：10KV登城D142线电缆试验","powerTime":"2018-06-13 17:28:51","powerComm":"工作已结束","subsNo":"","lineNo":"","tgNo":"","tgName":null,"infoStatus":"1","orgName":"国网浙江杭州市富阳区供电公司","typeName":null,"infoStatusName":null,"dateDay":null,"orgNos":null,"nowTime":null,"countyName":null,"streetName":null,"villageName":null,"roadName":null,"communityName":null,"tranName":null,"sdLineName":null,"cityCode":"3340170","cityName":"国网浙江杭州市富阳区供电公司","provinceCode":null,"stopTime":"2018-06-13 17:30:00","powerType":"全部","powerOffArea":"110kV新登变:登城D142线","powerOffReason":"10KV登城D142线电缆试验：10KV登城D142线电缆试验","powerOffId":"2018060431010057"},{"poweroffId":2018060431010056,"sgpoweroffId":null,"subsName":"","lineName":"10kV渌渚D133线","pubTranName":"双塔村2#上郎家公变,","scope":"浙江省杭州市富阳区新登镇双塔村上郎家、挂碳一带","startTime":"2018-06-13 08:20:00","stopDate":"2018-06-13 17:30:00","orgNo":"3340170","typeCode":"计划停电","poweroffArea":"110kV新登变:渌渚D133线-双塔村2#上郎家公变后段","poweroffReason":"渌渚登城线入地（客户）:5 1#杆立杆，真空开关安装，电缆敷设；18 1#杆立杆真空开关安装，电缆敷设；6#-18 1#杆线路拆除等工作","powerTime":"2018-06-13 17:27:08","powerComm":"工作已结束","subsNo":"","lineNo":"","tgNo":"","tgName":null,"infoStatus":"1","orgName":"国网浙江杭州市富阳区供电公司","typeName":null,"infoStatusName":null,"dateDay":null,"orgNos":null,"nowTime":null,"countyName":null,"streetName":null,"villageName":null,"roadName":null,"communityName":null,"tranName":null,"sdLineName":null,"cityCode":"3340170","cityName":"国网浙江杭州市富阳区供电公司","provinceCode":null,"stopTime":"2018-06-13 17:30:00","powerType":"全部","powerOffArea":"110kV新登变:渌渚D133线-双塔村2#上郎家公变后段","powerOffReason":"渌渚登城线入地（客户）:5 1#杆立杆，真空开关安装，电缆敷设；18 1#杆立杆真空开关安装，电缆敷设；6#-18 1#杆线路拆除等工作","powerOffId":"2018060431010056"},{"poweroffId":2018060431010051,"sgpoweroffId":null,"subsName":"","lineName":"10kV迪青A396线","pubTranName":"顺坝村1#变,","scope":"浙江省-杭州市-萧山区-宁围镇(顺坝行政村)、宁围街道、浙江省杭州市萧山区宁围街道顺坝村一带","startTime":"2018-06-04 08:50:23","stopDate":"2018-06-04 14:54:39","orgNo":"3340130","typeCode":"电网故障停限电","poweroffArea":"110kV顺坝变:迪青A396线-顺坝村1#变低压配电设施","poweroffReason":"低压配电设施故障","powerTime":"2018-06-04 10:45:12","powerComm":"已送电","subsNo":"","lineNo":"","tgNo":"","tgName":null,"infoStatus":"1","orgName":"国网浙江杭州市萧山区供电有限公司","typeName":null,"infoStatusName":null,"dateDay":null,"orgNos":null,"nowTime":null,"countyName":null,"streetName":null,"villageName":null,"roadName":null,"communityName":null,"tranName":null,"sdLineName":null,"cityCode":"3340130","cityName":"国网浙江杭州市萧山区供电有限公司","provinceCode":null,"stopTime":"2018-06-04 14:54:39","powerType":"全部","powerOffArea":"110kV顺坝变:迪青A396线-顺坝村1#变低压配电设施","powerOffReason":"低压配电设施故障","powerOffId":"2018060431010051"}],"pageModel":{"pageNow":1704,"totalCount":17789,"totalPage":1779,"tableRows":0,"pageCount":10,"beginCount":17030},"isExperi":"1"}