{"message":"","today":"2020-06-16","seleList":[{"poweroffId":2018060431010037,"sgpoweroffId":null,"subsName":"","lineName":"10kV白云230线","pubTranName":"上洋洲村3号公变,","scope":"浙江省-杭州市-桐庐县-城南街道(上洋洲行政村-上洋洲自然村);","startTime":"2018-06-04 08:34:07","stopDate":"2018-06-04 10:00:33","orgNo":"3340150","typeCode":"电网故障停限电","poweroffArea":"35kV新区变:白云230线-上洋洲村3号公变后段","poweroffReason":"低压开关故障","powerTime":"2018-06-04 09:34:53","powerComm":"已送电","subsNo":"","lineNo":"","tgNo":"","tgName":null,"infoStatus":"1","orgName":"国网浙江桐庐县供电公司","typeName":null,"infoStatusName":null,"dateDay":null,"orgNos":null,"nowTime":null,"countyName":null,"streetName":null,"villageName":null,"roadName":null,"communityName":null,"tranName":null,"sdLineName":null,"cityCode":"3340150","cityName":"国网浙江桐庐县供电公司","provinceCode":null,"stopTime":"2018-06-04 10:00:33","powerType":"全部","powerOffArea":"35kV新区变:白云230线-上洋洲村3号公变后段","powerOffReason":"低压开关故障","powerOffId":"2018060431010037"},{"poweroffId":2018060431010031,"sgpoweroffId":null,"subsName":"","lineName":"10kV神龙362线","pubTranName":"龙虎村22#变,","scope":"浙江省-杭州市-萧山区-南阳街道龙虎行政村、龙虎自然村、龙虎村一带","startTime":"2018-06-04 08:20:05","stopDate":"2018-06-04 18:25:36","orgNo":"3340130","typeCode":"电网故障停限电","poweroffArea":"110kV河庄变:神龙362线-龙虎村22#变台区低压开关","poweroffReason":"低压架空导线断线故障","powerTime":"2018-06-04 17:32:15","powerComm":"已送电","subsNo":"","lineNo":"","tgNo":"","tgName":null,"infoStatus":"1","orgName":"国网浙江杭州市萧山区供电有限公司","typeName":null,"infoStatusName":null,"dateDay":null,"orgNos":null,"nowTime":null,"countyName":null,"streetName":null,"villageName":null,"roadName":null,"communityName":null,"tranName":null,"sdLineName":null,"cityCode":"3340130","cityName":"国网浙江杭州市萧山区供电有限公司","provinceCode":null,"stopTime":"2018-06-04 18:25:36","powerType":"全部","powerOffArea":"110kV河庄变:神龙362线-龙虎村22#变台区低压开关","powerOffReason":"低压架空导线断线故障","powerOffId":"2018060431010031"},{"poweroffId":2018060431010028,"sgpoweroffId":null,"subsName":"","lineName":"10kV春建D202线","pubTranName":"下唐村2#牌楼公变,","scope":"浙江省杭州市富阳区春建乡大唐村下唐自然村一带","startTime":"2018-06-04 09:00:00","stopDate":"2018-06-04 13:00:00","orgNo":"3340170","typeCode":"电网故障停限电","poweroffArea":"35kV大青变:春建D202线-下唐村2号牌楼后段","poweroffReason":"低压配电设备故障","powerTime":"2018-06-04 12:05:37","powerComm":"已恢复送电","subsNo":"","lineNo":"","tgNo":"","tgName":null,"infoStatus":"1","orgName":"国网浙江杭州市富阳区供电公司","typeName":null,"infoStatusName":null,"dateDay":null,"orgNos":null,"nowTime":null,"countyName":null,"streetName":null,"villageName":null,"roadName":null,"communityName":null,"tranName":null,"sdLineName":null,"cityCode":"3340170","cityName":"国网浙江杭州市富阳区供电公司","provinceCode":null,"stopTime":"2018-06-04 13:00:00","powerType":"全部","powerOffArea":"35kV大青变:春建D202线-下唐村2号牌楼后段","powerOffReason":"低压配电设备故障","powerOffId":"2018060431010028"},{"poweroffId":2018060431010024,"sgpoweroffId":null,"subsName":"","lineName":"10kV深里D261线","pubTranName":"深里村7#大山寺公变,","scope":"浙江省-杭州市-富阳区-上官乡(深里行政村-深里自然村)一带;","startTime":"2018-06-04 08:40:42","stopDate":"2018-06-04 10:10:43","orgNo":"3340170","typeCode":"电网故障停限电","poweroffArea":"35kV盛村变:深里D261线-深里村7号大山寺公变后段","poweroffReason":"低压配电设备故障","powerTime":"2018-06-04 09:50:22","powerComm":"工作完成，已恢复送电","subsNo":"","lineNo":"","tgNo":"","tgName":null,"infoStatus":"1","orgName":"国网浙江杭州市富阳区供电公司","typeName":null,"infoStatusName":null,"dateDay":null,"orgNos":null,"nowTime":null,"countyName":null,"streetName":null,"villageName":null,"roadName":null,"communityName":null,"tranName":null,"sdLineName":null,"cityCode":"3340170","cityName":"国网浙江杭州市富阳区供电公司","provinceCode":null,"stopTime":"2018-06-04 10:10:43","powerType":"全部","powerOffArea":"35kV盛村变:深里D261线-深里村7号大山寺公变后段","powerOffReason":"低压配电设备故障","powerOffId":"2018060431010024"},{"poweroffId":2018060431010020,"sgpoweroffId":null,"subsName":"","lineName":"10kV金家D805线","pubTranName":"金桥村6#乌鸭塘公变,","scope":"浙江省-杭州市-富阳区-富春街道(金桥社区-金桥北路、育才西路);","startTime":"2018-06-04 08:30:00","stopDate":"2018-06-04 10:40:00","orgNo":"3340170","typeCode":"电网故障停限电","poweroffArea":"110kV容大变:金家D805线金桥村6#乌鸭塘公变后段","poweroffReason":"低压故障停电","powerTime":"2018-06-04 10:15:33","powerComm":"已送电","subsNo":"","lineNo":"","tgNo":"","tgName":null,"infoStatus":"1","orgName":"国网浙江杭州市富阳区供电公司","typeName":null,"infoStatusName":null,"dateDay":null,"orgNos":null,"nowTime":null,"countyName":null,"streetName":null,"villageName":null,"roadName":null,"communityName":null,"tranName":null,"sdLineName":null,"cityCode":"3340170","cityName":"国网浙江杭州市富阳区供电公司","provinceCode":null,"stopTime":"2018-06-04 10:40:00","powerType":"全部","powerOffArea":"110kV容大变:金家D805线金桥村6#乌鸭塘公变后段","powerOffReason":"低压故障停电","powerOffId":"2018060431010020"},{"poweroffId":2018060331010210,"sgpoweroffId":null,"subsName":"","lineName":"桥里862线","pubTranName":"","scope":"浙江省杭州市临安市曙光塑料粒子有限公司,夏禹桥村[合庆桥],杭州临安鹊梅纺织有限公司,杭州丽文玻璃制品有限公司,临安市玲珑中心小学,前山村[山炮头],前山村[大山脚],吴钟培,杭州临安韵达包装材料有限公司,临安市前山件厂,临安市乌渡带厂,临安宝瑞材料有限公司,临安杭轩金属材料有限公司,浙江天伦钢丝有限公司,杭州临安鹊梅纺织有限公司,杭州临安东特有限公司,临安航天材料厂,方天文,杭州临安联亨塑料科技有限公司,夏禹桥村[油菜园],临安杭轩金属材料有限公司,前山村[前张上村],前山村[前张],杭州利帆有限公司,前山村[大山脚],杭州临安富盛装饰材料有限公司,临安市锦金有限公司,临安市玲珑新型墙体材料厂附近一带","startTime":"2018-06-03 21:29:39","stopDate":"2018-06-04 03:29:39","orgNo":"3340160","typeCode":"电网故障停限电","poweroffArea":"停夏禹变桥里862线夏禹桥公变台区低压开关","poweroffReason":"夏禹变桥里862线夏禹桥公变台区低压开关跳","powerTime":"2018-06-03 22:48:47","powerComm":"已送电","subsNo":"","lineNo":"","tgNo":"","tgName":null,"infoStatus":"1","orgName":"国网浙江临安市供电公司","typeName":null,"infoStatusName":null,"dateDay":null,"orgNos":null,"nowTime":null,"countyName":null,"streetName":null,"villageName":null,"roadName":null,"communityName":null,"tranName":null,"sdLineName":null,"cityCode":"3340160","cityName":"国网浙江临安市供电公司","provinceCode":null,"stopTime":"2018-06-04 03:29:39","powerType":"全部","powerOffArea":"停夏禹变桥里862线夏禹桥公变台区低压开关","powerOffReason":"夏禹变桥里862线夏禹桥公变台区低压开关跳","powerOffId":"2018060331010210"},{"poweroffId":2018060331010174,"sgpoweroffId":null,"subsName":"","lineName":"10kV芝厦T190线","pubTranName":"小庄1号公变,","scope":"浙江省-杭州市-桐庐县-富春江镇(里董行政村-小庄自然村);","startTime":"2018-06-15 07:00:00","stopDate":"2018-06-15 17:00:00","orgNo":"3340150","typeCode":"计划停电","poweroffArea":"110kV外董变:芝厦T190线-大庄F8167令克","poweroffReason":"小庄1号公变立杆、导线架设、配变安装、JP柜安装及电缆敷设搭接等工作","powerTime":"2018-06-15 16:49:32","powerComm":"已送电。","subsNo":"","lineNo":"","tgNo":"","tgName":null,"infoStatus":"1","orgName":"国网浙江桐庐县供电公司","typeName":null,"infoStatusName":null,"dateDay":null,"orgNos":null,"nowTime":null,"countyName":null,"streetName":null,"villageName":null,"roadName":null,"communityName":null,"tranName":null,"sdLineName":null,"cityCode":"3340150","cityName":"国网浙江桐庐县供电公司","provinceCode":null,"stopTime":"2018-06-15 17:00:00","powerType":"全部","powerOffArea":"110kV外董变:芝厦T190线-大庄F8167令克","powerOffReason":"小庄1号公变立杆、导线架设、配变安装、JP柜安装及电缆敷设搭接等工作","powerOffId":"2018060331010174"},{"poweroffId":2018060331010168,"sgpoweroffId":null,"subsName":"","lineName":"10kV胜峰T335线","pubTranName":"胜峰村委1号公变,","scope":"浙江省-杭州市-桐庐县-横村镇(胜峰行政村-柴家边自然村、施家边自然村);胜峰行政村协尔针织厂一带。","startTime":"2018-06-03 14:55:13","stopDate":"2018-06-03 20:55:13","orgNo":"3340150","typeCode":"电网故障停限电","poweroffArea":"110kV横村变:胜峰T335线-胜峰1号变令克后段","poweroffReason":"低压开关烧故障。","powerTime":"2018-06-03 17:28:26","powerComm":"已送电","subsNo":"","lineNo":"","tgNo":"","tgName":null,"infoStatus":"1","orgName":"国网浙江桐庐县供电公司","typeName":null,"infoStatusName":null,"dateDay":null,"orgNos":null,"nowTime":null,"countyName":null,"streetName":null,"villageName":null,"roadName":null,"communityName":null,"tranName":null,"sdLineName":null,"cityCode":"3340150","cityName":"国网浙江桐庐县供电公司","provinceCode":null,"stopTime":"2018-06-03 20:55:13","powerType":"全部","powerOffArea":"110kV横村变:胜峰T335线-胜峰1号变令克后段","powerOffReason":"低压开关烧故障。","powerOffId":"2018060331010168"},{"poweroffId":2018060331010165,"sgpoweroffId":null,"subsName":"","lineName":"10kV青龙508线","pubTranName":"三联村7#变,","scope":"浙江省-杭州市-萧山区-河庄街道(三联行政村);","startTime":"2018-06-11 09:00:00","stopDate":"2018-06-11 17:30:00","orgNo":"3340120","typeCode":"计划停电","poweroffArea":"35kV永丰变:青龙508线-三联村7#变后段","poweroffReason":"同一村1#变、2#变、7#变等台区改造工程（城源）三联村7#变低压屏更换","powerTime":"2018-06-11 13:38:32","powerComm":"已送电","subsNo":"","lineNo":"","tgNo":"","tgName":null,"infoStatus":"1","orgName":"国网浙江杭州市钱塘新区供电公司","typeName":null,"infoStatusName":null,"dateDay":null,"orgNos":null,"nowTime":null,"countyName":null,"streetName":null,"villageName":null,"roadName":null,"communityName":null,"tranName":null,"sdLineName":null,"cityCode":"3340120","cityName":"国网浙江杭州市钱塘新区供电公司","provinceCode":null,"stopTime":"2018-06-11 17:30:00","powerType":"全部","powerOffArea":"35kV永丰变:青龙508线-三联村7#变后段","powerOffReason":"同一村1#变、2#变、7#变等台区改造工程（城源）三联村7#变低压屏更换","powerOffId":"2018060331010165"},{"poweroffId":2018060331010164,"sgpoweroffId":null,"subsName":"","lineName":"10kV新创502线","pubTranName":"文伟村5#变,","scope":"浙江省-杭州市-萧山区-河庄街道(文伟行政村);","startTime":"2018-06-11 09:00:00","stopDate":"2018-06-11 17:30:00","orgNo":"3340120","typeCode":"计划停电","poweroffArea":"35kV永丰变:新创502线-文伟村5#变后段","poweroffReason":"同一村1#变、2#变、7#变等台区改造工程（城源）文伟村5#变低压屏更换","powerTime":"2018-06-11 14:12:09","powerComm":"已送电","subsNo":"","lineNo":"","tgNo":"","tgName":null,"infoStatus":"1","orgName":"国网浙江杭州市钱塘新区供电公司","typeName":null,"infoStatusName":null,"dateDay":null,"orgNos":null,"nowTime":null,"countyName":null,"streetName":null,"villageName":null,"roadName":null,"communityName":null,"tranName":null,"sdLineName":null,"cityCode":"3340120","cityName":"国网浙江杭州市钱塘新区供电公司","provinceCode":null,"stopTime":"2018-06-11 17:30:00","powerType":"全部","powerOffArea":"35kV永丰变:新创502线-文伟村5#变后段","powerOffReason":"同一村1#变、2#变、7#变等台区改造工程（城源）文伟村5#变低压屏更换","powerOffId":"2018060331010164"}],"pageModel":{"pageNow":1705,"totalCount":17789,"totalPage":1779,"tableRows":0,"pageCount":10,"beginCount":17040},"isExperi":"1"}