{"message":"","today":"2020-06-16","seleList":[{"poweroffId":2018060331010153,"sgpoweroffId":null,"subsName":"","lineName":"10kV长浪0037线","pubTranName":"长红村10#变,","scope":"浙江省-杭州市-萧山区-义蓬街道(长红行政村);","startTime":"2018-06-13 09:30:00","stopDate":"2018-06-13 17:30:00","orgNo":"3340120","typeCode":"计划停电","poweroffArea":"110kV白浪变:长浪0037线-长红村10#变后段","poweroffReason":"2017年义蓬街道公变增量布点二期工程（国通）长红村10#变变压器更换","powerTime":"2018-06-13 13:46:40","powerComm":"已送电","subsNo":"","lineNo":"","tgNo":"","tgName":null,"infoStatus":"1","orgName":"国网浙江杭州市钱塘新区供电公司","typeName":null,"infoStatusName":null,"dateDay":null,"orgNos":null,"nowTime":null,"countyName":null,"streetName":null,"villageName":null,"roadName":null,"communityName":null,"tranName":null,"sdLineName":null,"cityCode":"3340120","cityName":"国网浙江杭州市钱塘新区供电公司","provinceCode":null,"stopTime":"2018-06-13 17:30:00","powerType":"全部","powerOffArea":"110kV白浪变:长浪0037线-长红村10#变后段","powerOffReason":"2017年义蓬街道公变增量布点二期工程（国通）长红村10#变变压器更换","powerOffId":"2018060331010153"},{"poweroffId":2018060331010151,"sgpoweroffId":null,"subsName":"","lineName":"10kV启东0313线","pubTranName":"围中村10#变,","scope":"浙江省-杭州市-萧山区-河庄街道(围中行政村);","startTime":"2018-06-14 09:00:00","stopDate":"2018-06-14 17:30:00","orgNo":"3340120","typeCode":"计划停电","poweroffArea":"110kV启江变:启东0313线-围中村10#变后段","poweroffReason":"同一村1#变、2#变、7#变等台区改造工程（城源）围中村10#变低压屏更换","powerTime":"2018-06-14 12:44:10","powerComm":"已送电","subsNo":"","lineNo":"","tgNo":"","tgName":null,"infoStatus":"1","orgName":"国网浙江杭州市钱塘新区供电公司","typeName":null,"infoStatusName":null,"dateDay":null,"orgNos":null,"nowTime":null,"countyName":null,"streetName":null,"villageName":null,"roadName":null,"communityName":null,"tranName":null,"sdLineName":null,"cityCode":"3340120","cityName":"国网浙江杭州市钱塘新区供电公司","provinceCode":null,"stopTime":"2018-06-14 17:30:00","powerType":"全部","powerOffArea":"110kV启江变:启东0313线-围中村10#变后段","powerOffReason":"同一村1#变、2#变、7#变等台区改造工程（城源）围中村10#变低压屏更换","powerOffId":"2018060331010151"},{"poweroffId":2018060331010150,"sgpoweroffId":null,"subsName":"","lineName":"10kV义盛678线","pubTranName":"钱潮绵纶,义盛村5#变,蜜蜂安置区块5#变,义盛街道1#变,义盛村12#变,义盛村11#变,宝明布业,建盛化纤制造,荣盛蔬菜,时亮布业1#,建材厂,义盛村2#变,义盛街道5#变,时亮布业2#,义盛街道13#变,义盛街道12#变,蜜蜂安置区块6#变,第四人民医院,恒通毛纺,义盛街道4#变,","scope":"浙江省-杭州市-萧山区-义蓬街道(蜜蜂行政村,义盛社区,义盛行政村);浙江省-杭州市-萧山区(杭州恒通毛纺染整有限公司,杭州靖翔纺织有限公司,杭州荣盛蔬菜制品有限公司,杭州市萧山区第四人民医院,杭州祥丰纱有限公司,杭州萧山宝明布业有限公司,杭州萧山建盛化纤织造有限公司,肖山建材厂);","startTime":"2018-06-14 09:00:00","stopDate":"2018-06-14 17:30:00","orgNo":"3340120","typeCode":"计划停电","poweroffArea":"35kV义盛变:义盛678线-义街分线01#开关后段","poweroffReason":"杭州大江东产业集聚区义蓬街道10kV头镇0306线等小城镇环境综合整治项目工程10kV义盛678线义街分线蜜蜂支线","powerTime":"2018-06-14 17:23:19","powerComm":"已送电","subsNo":"","lineNo":"","tgNo":"","tgName":null,"infoStatus":"1","orgName":"国网浙江杭州市钱塘新区供电公司","typeName":null,"infoStatusName":null,"dateDay":null,"orgNos":null,"nowTime":null,"countyName":null,"streetName":null,"villageName":null,"roadName":null,"communityName":null,"tranName":null,"sdLineName":null,"cityCode":"3340120","cityName":"国网浙江杭州市钱塘新区供电公司","provinceCode":null,"stopTime":"2018-06-14 17:30:00","powerType":"全部","powerOffArea":"35kV义盛变:义盛678线-义街分线01#开关后段","powerOffReason":"杭州大江东产业集聚区义蓬街道10kV头镇0306线等小城镇环境综合整治项目工程10kV义盛678线义街分线蜜蜂支线","powerOffId":"2018060331010150"},{"poweroffId":2018060331010149,"sgpoweroffId":null,"subsName":"","lineName":"10kV河埠350线","pubTranName":"建一村3#变,","scope":"浙江省杭州市萧山区河庄街道建 一村 行政区","startTime":"2018-06-14 09:30:00","stopDate":"2018-06-14 17:30:00","orgNo":"3340120","typeCode":"计划停电","poweroffArea":"110kV河庄变:河埠350线-建一村3#变后段","poweroffReason":"同一村1#变、2#变、7#变等台区改造工程（城源）建一村3#变低压屏更换","powerTime":"2018-06-14 14:02:07","powerComm":"已送电","subsNo":"","lineNo":"","tgNo":"","tgName":null,"infoStatus":"1","orgName":"国网浙江杭州市钱塘新区供电公司","typeName":null,"infoStatusName":null,"dateDay":null,"orgNos":null,"nowTime":null,"countyName":null,"streetName":null,"villageName":null,"roadName":null,"communityName":null,"tranName":null,"sdLineName":null,"cityCode":"3340120","cityName":"国网浙江杭州市钱塘新区供电公司","provinceCode":null,"stopTime":"2018-06-14 17:30:00","powerType":"全部","powerOffArea":"110kV河庄变:河埠350线-建一村3#变后段","powerOffReason":"同一村1#变、2#变、7#变等台区改造工程（城源）建一村3#变低压屏更换","powerOffId":"2018060331010149"},{"poweroffId":2018060331010148,"sgpoweroffId":null,"subsName":"","lineName":"10kV义园A40线","pubTranName":"金泉村10#变,","scope":"浙江省-杭州市-萧山区-义蓬街道(金泉行政村);","startTime":"2018-06-14 09:30:00","stopDate":"2018-06-14 17:30:00","orgNo":"3340120","typeCode":"计划停电","poweroffArea":"110kV白浪变:义园A40线-金泉村10#变后段","poweroffReason":"2017年义蓬街道公变增量布点二期工程（国通）金泉村10#变变压器更换","powerTime":"2018-06-14 14:02:46","powerComm":"已送电","subsNo":"","lineNo":"","tgNo":"","tgName":null,"infoStatus":"1","orgName":"国网浙江杭州市钱塘新区供电公司","typeName":null,"infoStatusName":null,"dateDay":null,"orgNos":null,"nowTime":null,"countyName":null,"streetName":null,"villageName":null,"roadName":null,"communityName":null,"tranName":null,"sdLineName":null,"cityCode":"3340120","cityName":"国网浙江杭州市钱塘新区供电公司","provinceCode":null,"stopTime":"2018-06-14 17:30:00","powerType":"全部","powerOffArea":"110kV白浪变:义园A40线-金泉村10#变后段","powerOffReason":"2017年义蓬街道公变增量布点二期工程（国通）金泉村10#变变压器更换","powerOffId":"2018060331010148"},{"poweroffId":2018060331010147,"sgpoweroffId":null,"subsName":"","lineName":"10kV长农0067线","pubTranName":"万爵农业,党湾镇永乐村,天绿水产,先锋联合,沿江水产,乐顺水产,","scope":"浙江省-杭州市-萧山区(杭州天绿蔬菜合作社,杭州万爵农业开发有限公司,杭州萧山党湾镇先锋村经济联合社,杭州萧山围垦乐顺水产养殖场,杭州萧山新街镇沿江水产养殖场,萧山区党湾镇永乐村（四垦种）);","startTime":"2018-06-15 09:00:00","stopDate":"2018-06-15 17:30:00","orgNo":"3340120","typeCode":"计划停电","poweroffArea":"110kV长征变:长农0067线-万爵支线01#柱上开关后段","poweroffReason":"(永兴）临化071线长农067线环网改造工程","powerTime":"2018-06-15 15:40:53","powerComm":"已送电","subsNo":"","lineNo":"","tgNo":"","tgName":null,"infoStatus":"1","orgName":"国网浙江杭州市钱塘新区供电公司","typeName":null,"infoStatusName":null,"dateDay":null,"orgNos":null,"nowTime":null,"countyName":null,"streetName":null,"villageName":null,"roadName":null,"communityName":null,"tranName":null,"sdLineName":null,"cityCode":"3340120","cityName":"国网浙江杭州市钱塘新区供电公司","provinceCode":null,"stopTime":"2018-06-15 17:30:00","powerType":"全部","powerOffArea":"110kV长征变:长农0067线-万爵支线01#柱上开关后段","powerOffReason":"(永兴）临化071线长农067线环网改造工程","powerOffId":"2018060331010147"},{"poweroffId":2018060331010142,"sgpoweroffId":null,"subsName":"","lineName":"10kV临化071线","pubTranName":"益农共裕垦种,东江浦沿（四）,益农围垦临变,利围村围垦,益农村,临化变公变,西兴街道农业技术,北干围垦农业合作社,益农东沙垦种,","scope":"浙江省-杭州市-萧山区(东江浦沿垦,杭州市滨江区西兴街道农业技术推广服务中心,萧山区北干围垦农业合作社,萧山区益农镇东沙村（围垦用电）,萧山区益农镇兴裕村,萧山区益农镇益农村（围垦用电）,萧山益农镇利围村围垦,益农围垦);","startTime":"2018-06-15 09:25:03","stopDate":"2018-06-15 17:30:00","orgNo":"3340120","typeCode":"计划停电","poweroffArea":"110kV长征变:临化071线-益农分线03开关刀闸后段","poweroffReason":"临化071线长农067线环网改造工程","powerTime":"2018-06-15 15:39:20","powerComm":"已送电","subsNo":"","lineNo":"","tgNo":"","tgName":null,"infoStatus":"1","orgName":"国网浙江杭州市钱塘新区供电公司","typeName":null,"infoStatusName":null,"dateDay":null,"orgNos":null,"nowTime":null,"countyName":null,"streetName":null,"villageName":null,"roadName":null,"communityName":null,"tranName":null,"sdLineName":null,"cityCode":"3340120","cityName":"国网浙江杭州市钱塘新区供电公司","provinceCode":null,"stopTime":"2018-06-15 17:30:00","powerType":"全部","powerOffArea":"110kV长征变:临化071线-益农分线03开关刀闸后段","powerOffReason":"临化071线长农067线环网改造工程","powerOffId":"2018060331010142"},{"poweroffId":2018060331010134,"sgpoweroffId":null,"subsName":"","lineName":"10kV芝厦T190线","pubTranName":"芝厦3号公变,百帮机械,三鼎炉渣,溪南1号公变,杭州冠和机械科技有限公司,金兴矿业,星冠线缆设备厂,大竹垅1号公变,大竹垅2号公变,杭州中水水力发电设备有限公司,芝厦6号公变,芝厦加油站,桐庐顺峰塑业有限公司变压器,芝厦门里政府路灯变,冠和线缆设备厂,溪南2号公变,杭州迈尔盛科技有限公司,芝厦4号公变,百顺五金,芝厦5号公变,杭州凌洲塑胶科技有限公司变压器,三叶钙粉厂,杭州仞利道路机械制造有限公司,芝厦2号公变,杭黄五标二分部配变,汇鑫矿业,桐庐羊毛坞1号公变,米山1号公变,淼达纸艺,建德羊毛坞1号公变,芝厦1号公变,金家排涝站,","scope":"浙江省-杭州市-桐庐县-富春江镇-(米山自然村,芝厦行政村-大竹垅自然村、溪南自然村、羊毛坞自然村、芝厦自然村);浙江省-杭州市-桐庐县-富春江镇(杭州冠和机械科技有限公司,杭州冠和机械制造有限公司,杭州申恺机械科技有限公司,杭州桐庐中油顺达加油站(普通合伙),杭州中水科技股份有限公司,杭州忉利道路机械制造有限公司,桐庐百帮机械制造有限公司,桐庐百顺五金铸造有限公司,桐庐富鑫机电制造有限公司,桐庐汇鑫矿业有限公司,桐庐三叶钙粉厂,桐庐顺峰塑业有限公司,桐庐县富春江镇金家村民委员会排涝站,桐庐县富春江镇人民政府,桐庐县三鼎炉渣加工厂,桐庐新淼达实业有限公司,中交第二航务工程局有限公司杭黄铁路站前五标项目部二分部);","startTime":"2018-06-13 08:30:00","stopDate":"2018-06-13 16:30:00","orgNo":"3340150","typeCode":"计划停电","poweroffArea":"110kV外董变:芝厦T190线-芝厦9112，芝孝1250隔离开关1之间","poweroffReason":"1、芝厦190线增加接地环、线路砍青、调换设备线夹、令克、线路拉线调整等综检工作。150个C型线夹，220个并沟线夹 2、芝厦线86-87号杆之间新立杆，安装智能开关，芝厦线99号杆芝厦F8187令克更换开关，大竹垅分线F8237开关更换智能开关。","powerTime":"2018-06-13 16:18:28","powerComm":"已送电","subsNo":"","lineNo":"","tgNo":"","tgName":null,"infoStatus":"1","orgName":"国网浙江桐庐县供电公司","typeName":null,"infoStatusName":null,"dateDay":null,"orgNos":null,"nowTime":null,"countyName":null,"streetName":null,"villageName":null,"roadName":null,"communityName":null,"tranName":null,"sdLineName":null,"cityCode":"3340150","cityName":"国网浙江桐庐县供电公司","provinceCode":null,"stopTime":"2018-06-13 16:30:00","powerType":"全部","powerOffArea":"110kV外董变:芝厦T190线-芝厦9112，芝孝1250隔离开关1之间","powerOffReason":"1、芝厦190线增加接地环、线路砍青、调换设备线夹、令克、线路拉线调整等综检工作。150个C型线夹，220个并沟线夹 2、芝厦线86-87号杆之间新立杆，安装智能开关，芝厦线99号杆芝厦F8187令克更换开关，大竹垅分线F8237开关更换智能开关。","powerOffId":"2018060331010134"},{"poweroffId":2018060331010130,"sgpoweroffId":null,"subsName":"","lineName":"20kV丽晶B206线","pubTranName":"丽晶国际G5#公变,","scope":"浙江省-杭州市-萧山区-宁围镇(利二行政村-鸿宁路)、丽晶国际等一带","startTime":"2018-06-03 12:27:46","stopDate":"2018-06-03 18:27:46","orgNo":"3340130","typeCode":"电网故障停限电","poweroffArea":"110kV顺丰变:丽晶B206线-丽晶国际G5#公变低压配电设施","poweroffReason":"低压配电设施故障","powerTime":"2018-06-03 13:08:38","powerComm":"已送电","subsNo":"","lineNo":"","tgNo":"","tgName":null,"infoStatus":"1","orgName":"国网浙江杭州市萧山区供电有限公司","typeName":null,"infoStatusName":null,"dateDay":null,"orgNos":null,"nowTime":null,"countyName":null,"streetName":null,"villageName":null,"roadName":null,"communityName":null,"tranName":null,"sdLineName":null,"cityCode":"3340130","cityName":"国网浙江杭州市萧山区供电有限公司","provinceCode":null,"stopTime":"2018-06-03 18:27:46","powerType":"全部","powerOffArea":"110kV顺丰变:丽晶B206线-丽晶国际G5#公变低压配电设施","powerOffReason":"低压配电设施故障","powerOffId":"2018060331010130"},{"poweroffId":2018060331010128,"sgpoweroffId":null,"subsName":"","lineName":"10kV商城V376线","pubTranName":"浙江国兴投资有限公司1#,浙江国兴投资有限公司1#,","scope":"浙江省杭州市临安市浙江国兴投资有限公司一带","startTime":"2018-06-14 13:00:00","stopDate":"2018-06-14 17:00:00","orgNo":"3340160","typeCode":"计划停电","poweroffArea":"110kV玲珑变:商城V376线江南站3762开关，消防站3764开关之间","poweroffReason":"临安锦城地区老旧开关隐患治理工程：(1)商城V376线江消3762线5#杆3763开关及避雷器调换工作。(2)绿岛V371线小台3712线5#杆3713开关及避雷器调换工作。","powerTime":"2018-06-14 16:49:56","powerComm":"已送电","subsNo":"","lineNo":"","tgNo":"","tgName":null,"infoStatus":"1","orgName":"国网浙江临安市供电公司","typeName":null,"infoStatusName":null,"dateDay":null,"orgNos":null,"nowTime":null,"countyName":null,"streetName":null,"villageName":null,"roadName":null,"communityName":null,"tranName":null,"sdLineName":null,"cityCode":"3340160","cityName":"国网浙江临安市供电公司","provinceCode":null,"stopTime":"2018-06-14 17:00:00","powerType":"全部","powerOffArea":"110kV玲珑变:商城V376线江南站3762开关，消防站3764开关之间","powerOffReason":"临安锦城地区老旧开关隐患治理工程：(1)商城V376线江消3762线5#杆3763开关及避雷器调换工作。(2)绿岛V371线小台3712线5#杆3713开关及避雷器调换工作。","powerOffId":"2018060331010128"}],"pageModel":{"pageNow":1707,"totalCount":17789,"totalPage":1779,"tableRows":0,"pageCount":10,"beginCount":17060},"isExperi":"1"}