{"message":"","today":"2020-06-16","seleList":[{"poweroffId":2018060331010127,"sgpoweroffId":null,"subsName":"","lineName":"10kV长春V564线","pubTranName":"10kV林业局车队公变,杭州临安电器塑料厂,","scope":"浙江省杭州市临安市锦城街道杭州临安电器塑料厂,吴越街林业局车队一带","startTime":"2018-06-15 14:40:00","stopDate":"2018-06-15 17:30:00","orgNo":"3340160","typeCode":"计划停电","poweroffArea":"110kV锦南变:长春V564线首端，快流站5643开关之间。","poweroffReason":"长春V564线保护改定值","powerTime":"2018-06-15 17:20:12","powerComm":"已送电","subsNo":"","lineNo":"","tgNo":"","tgName":null,"infoStatus":"1","orgName":"国网浙江临安市供电公司","typeName":null,"infoStatusName":null,"dateDay":null,"orgNos":null,"nowTime":null,"countyName":null,"streetName":null,"villageName":null,"roadName":null,"communityName":null,"tranName":null,"sdLineName":null,"cityCode":"3340160","cityName":"国网浙江临安市供电公司","provinceCode":null,"stopTime":"2018-06-15 17:30:00","powerType":"全部","powerOffArea":"110kV锦南变:长春V564线首端，快流站5643开关之间。","powerOffReason":"长春V564线保护改定值","powerOffId":"2018060331010127"},{"poweroffId":2018060331010126,"sgpoweroffId":null,"subsName":"","lineName":"10kV上营V145线","pubTranName":"茆里村（二）,","scope":"浙江省-杭州市-临安市-龙岗镇茆里村一带。","startTime":"2018-06-15 12:40:00","stopDate":"2018-06-15 17:20:00","orgNo":"3340160","typeCode":"计划停电","poweroffArea":"110kV龙岗变:上营V145线-茆里2#变分线令克后段","poweroffReason":"石瑞V143线409#杆横硬头布点分线令克带电搭头","powerTime":"2018-06-15 17:10:11","powerComm":"已送电","subsNo":"","lineNo":"","tgNo":"","tgName":null,"infoStatus":"1","orgName":"国网浙江临安市供电公司","typeName":null,"infoStatusName":null,"dateDay":null,"orgNos":null,"nowTime":null,"countyName":null,"streetName":null,"villageName":null,"roadName":null,"communityName":null,"tranName":null,"sdLineName":null,"cityCode":"3340160","cityName":"国网浙江临安市供电公司","provinceCode":null,"stopTime":"2018-06-15 17:20:00","powerType":"全部","powerOffArea":"110kV龙岗变:上营V145线-茆里2#变分线令克后段","powerOffReason":"石瑞V143线409#杆横硬头布点分线令克带电搭头","powerOffId":"2018060331010126"},{"poweroffId":2018060331010125,"sgpoweroffId":null,"subsName":"","lineName":"10kV园三V357线","pubTranName":"杭州景跃塑料科技有限公司1#,","scope":"浙江省杭州市临安市青山湖街道杭州景跃塑料科技有限公司一带","startTime":"2018-06-15 08:10:00","stopDate":"2018-06-15 15:00:00","orgNo":"3340160","typeCode":"计划停电","poweroffArea":"110kV高虹变:园三V357线42#杆景跃塑料科技分线令克改工作侧线路检修","poweroffReason":"园三V357线42#杆景跃塑料科技分线2#杆移位，新装令克一副，电缆敷设至用户箱变，临安市红毅电器有限公司新上250kVA配电工程。","powerTime":"2018-06-15 14:50:17","powerComm":"已送电","subsNo":"","lineNo":"","tgNo":"","tgName":null,"infoStatus":"1","orgName":"国网浙江临安市供电公司","typeName":null,"infoStatusName":null,"dateDay":null,"orgNos":null,"nowTime":null,"countyName":null,"streetName":null,"villageName":null,"roadName":null,"communityName":null,"tranName":null,"sdLineName":null,"cityCode":"3340160","cityName":"国网浙江临安市供电公司","provinceCode":null,"stopTime":"2018-06-15 15:00:00","powerType":"全部","powerOffArea":"110kV高虹变:园三V357线42#杆景跃塑料科技分线令克改工作侧线路检修","powerOffReason":"园三V357线42#杆景跃塑料科技分线2#杆移位，新装令克一副，电缆敷设至用户箱变，临安市红毅电器有限公司新上250kVA配电工程。","powerOffId":"2018060331010125"},{"poweroffId":2018060331010124,"sgpoweroffId":null,"subsName":"","lineName":"10kV顺溪V261线","pubTranName":"昱岭关村都林山,","scope":"浙江省-杭州市-临安市-清凉峰镇昱岭关村都林山一带。","startTime":"2018-06-15 07:40:00","stopDate":"2018-06-15 12:20:00","orgNo":"3340160","typeCode":"计划停电","poweroffArea":"35kV颊口变:顺溪V261线-都林山分线昱岭关村都林山配变令克后段","poweroffReason":"顺溪V261线301#杆都林山分线21#杆都林山配变低压电缆头做冷缩套管","powerTime":"2018-06-15 12:10:17","powerComm":"全部送电","subsNo":"","lineNo":"","tgNo":"","tgName":null,"infoStatus":"1","orgName":"国网浙江临安市供电公司","typeName":null,"infoStatusName":null,"dateDay":null,"orgNos":null,"nowTime":null,"countyName":null,"streetName":null,"villageName":null,"roadName":null,"communityName":null,"tranName":null,"sdLineName":null,"cityCode":"3340160","cityName":"国网浙江临安市供电公司","provinceCode":null,"stopTime":"2018-06-15 12:20:00","powerType":"全部","powerOffArea":"35kV颊口变:顺溪V261线-都林山分线昱岭关村都林山配变令克后段","powerOffReason":"顺溪V261线301#杆都林山分线21#杆都林山配变低压电缆头做冷缩套管","powerOffId":"2018060331010124"},{"poweroffId":2018060331010123,"sgpoweroffId":null,"subsName":"","lineName":"10kV双庙V253线","pubTranName":"10kV上庄村[朱夏坞]公变,10kV上庄村[文庄]公变,10kV上庄村[上庄村马家坞]公变,","scope":"浙江省杭州市临安区太阳镇朱夏坞、文庄、上庄村马家坞一带","startTime":"2018-06-15 07:30:00","stopDate":"2018-06-15 17:50:00","orgNo":"3340160","typeCode":"计划停电","poweroffArea":"双庙V503线36#杆朱夏坞分线令克","poweroffReason":"双庙V253线朱夏坞分线改造；1、双庙V253线上庄朱夏坞分线改造延伸至26#杆；拆除原上庄朱夏坞分线1#-10#杆，马家坞支线拆搭头；10kV上庄村[朱夏坞]公变拆搭头；10kV上庄村[文庄]公变拆搭头；26#杆新布点10kV上庄村[横坞口]公变搭头；2、马家圩支线5#-18#杆导线、横担调换","powerTime":"2018-06-15 17:20:43","powerComm":"已送电","subsNo":"","lineNo":"","tgNo":"","tgName":null,"infoStatus":"1","orgName":"国网浙江临安市供电公司","typeName":null,"infoStatusName":null,"dateDay":null,"orgNos":null,"nowTime":null,"countyName":null,"streetName":null,"villageName":null,"roadName":null,"communityName":null,"tranName":null,"sdLineName":null,"cityCode":"3340160","cityName":"国网浙江临安市供电公司","provinceCode":null,"stopTime":"2018-06-15 17:50:00","powerType":"全部","powerOffArea":"双庙V503线36#杆朱夏坞分线令克","powerOffReason":"双庙V253线朱夏坞分线改造；1、双庙V253线上庄朱夏坞分线改造延伸至26#杆；拆除原上庄朱夏坞分线1#-10#杆，马家坞支线拆搭头；10kV上庄村[朱夏坞]公变拆搭头；10kV上庄村[文庄]公变拆搭头；26#杆新布点10kV上庄村[横坞口]公变搭头；2、马家圩支线5#-18#杆导线、横担调换","powerOffId":"2018060331010123"},{"poweroffId":2018060331010122,"sgpoweroffId":null,"subsName":"","lineName":"10kV红枫V220线","pubTranName":"蒋杨太平2#变,","scope":"浙江省杭州市临安市青山湖街道蒋杨太平村一带","startTime":"2018-06-15 07:30:00","stopDate":"2018-06-15 16:50:00","orgNo":"3340160","typeCode":"计划停电","poweroffArea":"110kV青山变:红枫V220线9#杆蒋杨太平2#变分线令克改工作侧线路检修","poweroffReason":"临安青山10千伏汪家埠4#变等3台区增容布点工程: 红枫V220线蒋杨太平2#变支线4#杆新布点太平3#配变1台，高低压电缆安装，新架低压线路2档，低压负荷割接等工作。","powerTime":"2018-06-15 16:40:08","powerComm":"已送电","subsNo":"","lineNo":"","tgNo":"","tgName":null,"infoStatus":"1","orgName":"国网浙江临安市供电公司","typeName":null,"infoStatusName":null,"dateDay":null,"orgNos":null,"nowTime":null,"countyName":null,"streetName":null,"villageName":null,"roadName":null,"communityName":null,"tranName":null,"sdLineName":null,"cityCode":"3340160","cityName":"国网浙江临安市供电公司","provinceCode":null,"stopTime":"2018-06-15 16:50:00","powerType":"全部","powerOffArea":"110kV青山变:红枫V220线9#杆蒋杨太平2#变分线令克改工作侧线路检修","powerOffReason":"临安青山10千伏汪家埠4#变等3台区增容布点工程: 红枫V220线蒋杨太平2#变支线4#杆新布点太平3#配变1台，高低压电缆安装，新架低压线路2档，低压负荷割接等工作。","powerOffId":"2018060331010122"},{"poweroffId":2018060331010120,"sgpoweroffId":null,"subsName":"","lineName":"10kV柯家V330线","pubTranName":"临安市化工建材民爆有限公司,临安市平和置业有限公司(基建),临安市人武部畔湖仓库,","scope":"浙江省杭州市临安市锦城街道杭州临安化工建材民爆有限公司,临安市平和置业有限公司,临安市人武部畔湖仓库一带。","startTime":"2018-06-15 07:00:00","stopDate":"2018-06-15 17:30:00","orgNo":"3340160","typeCode":"计划停电","poweroffArea":"110kV锦南变:柯家V330线-金通站3303开关，3305开关之间","poweroffReason":"柯家V330线金通站3304开关间隔电缆拆头、电缆制作试验搭头；备用G3间隔电缆制作试验搭头，10#杆电缆拆头；10#-20#杆线路入地，用户割接至新上环网柜；低压线路割接至新上箱变；20#-23#杆线路移位","powerTime":"2018-06-15 17:21:28","powerComm":"已送电","subsNo":"","lineNo":"","tgNo":"","tgName":null,"infoStatus":"1","orgName":"国网浙江临安市供电公司","typeName":null,"infoStatusName":null,"dateDay":null,"orgNos":null,"nowTime":null,"countyName":null,"streetName":null,"villageName":null,"roadName":null,"communityName":null,"tranName":null,"sdLineName":null,"cityCode":"3340160","cityName":"国网浙江临安市供电公司","provinceCode":null,"stopTime":"2018-06-15 17:30:00","powerType":"全部","powerOffArea":"110kV锦南变:柯家V330线-金通站3303开关，3305开关之间","powerOffReason":"柯家V330线金通站3304开关间隔电缆拆头、电缆制作试验搭头；备用G3间隔电缆制作试验搭头，10#杆电缆拆头；10#-20#杆线路入地，用户割接至新上环网柜；低压线路割接至新上箱变；20#-23#杆线路移位","powerOffId":"2018060331010120"},{"poweroffId":2018060331010119,"sgpoweroffId":null,"subsName":"","lineName":"10kV长春V564线","pubTranName":"锦绣山水苑5＃变,锦绣山水3#,物资公司公变,临安市新锦投资有限公司,临安驰达汽车修理厂,上甘路3#公变,茶厂小区公变,御城公变2#变,临安开关厂公变,","scope":"浙江省杭州市临安区锦城街道临安驰达汽车修理有限公司,临安市新锦投资开发有限公司,锦绣山水苑,畔湖路(吴越街至锦溪南路口),锦溪街,畔湖桥西一带。","startTime":"2018-06-15 07:00:00","stopDate":"2018-06-15 17:30:00","orgNo":"3340160","typeCode":"计划停电","poweroffArea":"110kV锦南变:长春V564线-快流站5643开关，5645开关之间","poweroffReason":"长春V564线快流站5643开关 间隔电缆拆头、电缆制作试验搭头；备用G5间隔电缆制作试验搭头，10#杆电缆拆头10#-20#杆线路入地，用户割接至新上环网柜；低压线路割接至新上箱变；20#-23#杆线路移位","powerTime":"2018-06-15 17:20:45","powerComm":"已送电","subsNo":"","lineNo":"","tgNo":"","tgName":null,"infoStatus":"1","orgName":"国网浙江临安市供电公司","typeName":null,"infoStatusName":null,"dateDay":null,"orgNos":null,"nowTime":null,"countyName":null,"streetName":null,"villageName":null,"roadName":null,"communityName":null,"tranName":null,"sdLineName":null,"cityCode":"3340160","cityName":"国网浙江临安市供电公司","provinceCode":null,"stopTime":"2018-06-15 17:30:00","powerType":"全部","powerOffArea":"110kV锦南变:长春V564线-快流站5643开关，5645开关之间","powerOffReason":"长春V564线快流站5643开关 间隔电缆拆头、电缆制作试验搭头；备用G5间隔电缆制作试验搭头，10#杆电缆拆头10#-20#杆线路入地，用户割接至新上环网柜；低压线路割接至新上箱变；20#-23#杆线路移位","powerOffId":"2018060331010119"},{"poweroffId":2018060331010118,"sgpoweroffId":null,"subsName":"","lineName":"10kV九里V176线","pubTranName":"10kV对石村[里朱直]公变,","scope":"浙江省杭州市临安区天目山镇对石村里朱直一带","startTime":"2018-06-15 07:00:00","stopDate":"2018-06-15 16:20:00","orgNo":"3340160","typeCode":"计划停电","poweroffArea":"35kV藻溪变九里V176线朱直分线10kV对石村[里朱直]公变低压闸刀","poweroffReason":"九里V170线朱直分线45#杆对石村（里朱直）公变低压里朱直2000线7#-16#杆用户线割接至对石村（朱直水库）公变低压，里朱直2000线7#-16#杆导线拆除，燕窝1100线1#杆-4#杆低压横担升高、导线拆装","powerTime":"2018-06-15 16:10:14","powerComm":"已送电","subsNo":"","lineNo":"","tgNo":"","tgName":null,"infoStatus":"1","orgName":"国网浙江临安市供电公司","typeName":null,"infoStatusName":null,"dateDay":null,"orgNos":null,"nowTime":null,"countyName":null,"streetName":null,"villageName":null,"roadName":null,"communityName":null,"tranName":null,"sdLineName":null,"cityCode":"3340160","cityName":"国网浙江临安市供电公司","provinceCode":null,"stopTime":"2018-06-15 16:20:00","powerType":"全部","powerOffArea":"35kV藻溪变九里V176线朱直分线10kV对石村[里朱直]公变低压闸刀","powerOffReason":"九里V170线朱直分线45#杆对石村（里朱直）公变低压里朱直2000线7#-16#杆用户线割接至对石村（朱直水库）公变低压，里朱直2000线7#-16#杆导线拆除，燕窝1100线1#杆-4#杆低压横担升高、导线拆装","powerOffId":"2018060331010118"},{"poweroffId":2018060331010117,"sgpoweroffId":null,"subsName":"","lineName":"10kV绿岛V371线","pubTranName":"公园家2#,沙地村中变,石镜街4#公变,公园家1#,公园家7#,公园家5#,公园家4#,玲珑嘉园公变,","scope":"浙江省杭州市临安市锦城街道公园家小区,玲珑嘉园,石镜街与江南市场路交叉一带","startTime":"2018-06-14 13:00:00","stopDate":"2018-06-14 17:00:00","orgNo":"3340160","typeCode":"计划停电","poweroffArea":"110kV玲珑变:绿岛V371线-3712开关负荷开关，台州站3714开关之间","poweroffReason":"临安锦城地区老旧开关隐患治理工程：(1)商城V376线江消3762线5#杆3763开关及避雷器调换工作。(2)绿岛V371线小台3712线5#杆3713开关及避雷器调换工作。","powerTime":"2018-06-14 16:49:21","powerComm":"已送电","subsNo":"","lineNo":"","tgNo":"","tgName":null,"infoStatus":"1","orgName":"国网浙江临安市供电公司","typeName":null,"infoStatusName":null,"dateDay":null,"orgNos":null,"nowTime":null,"countyName":null,"streetName":null,"villageName":null,"roadName":null,"communityName":null,"tranName":null,"sdLineName":null,"cityCode":"3340160","cityName":"国网浙江临安市供电公司","provinceCode":null,"stopTime":"2018-06-14 17:00:00","powerType":"全部","powerOffArea":"110kV玲珑变:绿岛V371线-3712开关负荷开关，台州站3714开关之间","powerOffReason":"临安锦城地区老旧开关隐患治理工程：(1)商城V376线江消3762线5#杆3763开关及避雷器调换工作。(2)绿岛V371线小台3712线5#杆3713开关及避雷器调换工作。","powerOffId":"2018060331010117"}],"pageModel":{"pageNow":1708,"totalCount":17789,"totalPage":1779,"tableRows":0,"pageCount":10,"beginCount":17070},"isExperi":"1"}