{"message":"","today":"2020-06-16","seleList":[{"poweroffId":2018060331010080,"sgpoweroffId":null,"subsName":"","lineName":"10kV五南0967线","pubTranName":"河庄垦种,佳惠农业开发,河庄镇建一村,宏伟垦种,","scope":"浙江省-杭州市-萧山区(杭州佳惠农业开发有限公司,河庄,宏伟,萧山区河庄镇建一村（围垦用电）);","startTime":"2018-06-08 09:00:00","stopDate":"2018-06-08 17:30:00","orgNo":"3340120","typeCode":"计划停电","poweroffArea":"110kV前进变:五南0967线-五南967线70#开关后段","poweroffReason":"五南967线线路改造二期工程（城北）五南0967A线线路改造","powerTime":"2018-06-08 16:03:38","powerComm":"已送电","subsNo":"","lineNo":"","tgNo":"","tgName":null,"infoStatus":"1","orgName":"国网浙江杭州市钱塘新区供电公司","typeName":null,"infoStatusName":null,"dateDay":null,"orgNos":null,"nowTime":null,"countyName":null,"streetName":null,"villageName":null,"roadName":null,"communityName":null,"tranName":null,"sdLineName":null,"cityCode":"3340120","cityName":"国网浙江杭州市钱塘新区供电公司","provinceCode":null,"stopTime":"2018-06-08 17:30:00","powerType":"全部","powerOffArea":"110kV前进变:五南0967线-五南967线70#开关后段","powerOffReason":"五南967线线路改造二期工程（城北）五南0967A线线路改造","powerOffId":"2018060331010080"},{"poweroffId":2018060331010079,"sgpoweroffId":null,"subsName":"","lineName":"10kV国土V361线","pubTranName":"环城东路2＃公变,","scope":"浙江省杭州市临安市锦城街道农林大路与钱王街交叉口一带","startTime":"2018-06-13 13:20:00","stopDate":"2018-06-13 17:00:00","orgNo":"3340160","typeCode":"计划停电","poweroffArea":"110kV临安变国土V361线环城东路2＃台区低压T6接箱后段","poweroffReason":"缺陷处理：环城东路2＃公变T6-1低压分支箱调换","powerTime":"2018-06-13 16:50:15","powerComm":"已送电","subsNo":"","lineNo":"","tgNo":"","tgName":null,"infoStatus":"1","orgName":"国网浙江临安市供电公司","typeName":null,"infoStatusName":null,"dateDay":null,"orgNos":null,"nowTime":null,"countyName":null,"streetName":null,"villageName":null,"roadName":null,"communityName":null,"tranName":null,"sdLineName":null,"cityCode":"3340160","cityName":"国网浙江临安市供电公司","provinceCode":null,"stopTime":"2018-06-13 17:00:00","powerType":"全部","powerOffArea":"110kV临安变国土V361线环城东路2＃台区低压T6接箱后段","powerOffReason":"缺陷处理：环城东路2＃公变T6-1低压分支箱调换","powerOffId":"2018060331010079"},{"poweroffId":2018060331010078,"sgpoweroffId":null,"subsName":"","lineName":"10kV龙井V474线","pubTranName":"浙江浙能华光潭水力发电有限公司清源翠谷宾馆,龙井村集聚区,临安市荣升冷库租赁服务部,龙井上码头,地塔村,龙井村,龙井上村,浙江省临安市宏山化工厂,龙井村(刘家),临安市浙西大龙湾风景旅游有限公司,","scope":"浙江省-杭州市-临安市-龙岗镇龙井村地塔村、龙井村、临安市荣升冷库租赁服务部,临安市浙西大龙湾风景旅游有限公司,浙江省临安市宏山化工厂一带。","startTime":"2018-06-14 05:40:00","stopDate":"2018-06-14 20:00:00","orgNo":"3340160","typeCode":"计划停电","poweroffArea":"110kV龙岗变:龙井V474线全线","poweroffReason":"龙井V474线配合龙岗变工作。","powerTime":"2018-06-14 19:40:36","powerComm":"已送电","subsNo":"","lineNo":"","tgNo":"","tgName":null,"infoStatus":"1","orgName":"国网浙江临安市供电公司","typeName":null,"infoStatusName":null,"dateDay":null,"orgNos":null,"nowTime":null,"countyName":null,"streetName":null,"villageName":null,"roadName":null,"communityName":null,"tranName":null,"sdLineName":null,"cityCode":"3340160","cityName":"国网浙江临安市供电公司","provinceCode":null,"stopTime":"2018-06-14 20:00:00","powerType":"全部","powerOffArea":"110kV龙岗变:龙井V474线全线","powerOffReason":"龙井V474线配合龙岗变工作。","powerOffId":"2018060331010078"},{"poweroffId":2018060331010077,"sgpoweroffId":null,"subsName":"","lineName":"10kV龙潭V470线","pubTranName":"临安大龙湾水力发电有限公司,临安市新业水电开发有限公司(厂用电),临安大龙湾水力发电有限公司,新建电站,临安大龙潭水力发电有限公司,临安市浙西大龙湾风景旅游有限公司,","scope":"浙江省-杭州市-临安市-龙岗镇杭临大龙湾水力发电有限公司,临安市新业水电开发有限公司,,临安市浙西大龙湾风景旅游有限公司一带。","startTime":"2018-06-14 05:40:00","stopDate":"2018-06-14 20:00:00","orgNo":"3340160","typeCode":"计划停电","poweroffArea":"110kV龙岗变:龙潭V470线全线","poweroffReason":"龙潭V470线配合龙岗变工作。","powerTime":"2018-06-14 19:41:19","powerComm":"已送电","subsNo":"","lineNo":"","tgNo":"","tgName":null,"infoStatus":"1","orgName":"国网浙江临安市供电公司","typeName":null,"infoStatusName":null,"dateDay":null,"orgNos":null,"nowTime":null,"countyName":null,"streetName":null,"villageName":null,"roadName":null,"communityName":null,"tranName":null,"sdLineName":null,"cityCode":"3340160","cityName":"国网浙江临安市供电公司","provinceCode":null,"stopTime":"2018-06-14 20:00:00","powerType":"全部","powerOffArea":"110kV龙岗变:龙潭V470线全线","powerOffReason":"龙潭V470线配合龙岗变工作。","powerOffId":"2018060331010077"},{"poweroffId":2018060331010076,"sgpoweroffId":null,"subsName":"","lineName":"10kV青城V748线","pubTranName":"颐和山庄2#台区4#变,颐和山庄1#台区2#变,颐和山庄3#台区6#变,颐和山庄1#箱变,","scope":"浙江省杭州市临安市青山湖街道颐和山庄一带","startTime":"2018-06-14 07:00:00","stopDate":"2018-06-14 15:20:00","orgNo":"3340160","typeCode":"计划停电","poweroffArea":"110kV科创变:青城V748线改线路检修","poweroffReason":"科技大道交改涉及及线路改造工程[科创变以东]： (1)青城V748线科创变电缆拆头[需进入变电所]，青城V748线颐和山庄K开闭所后段负荷割接至笑岭V750线祥青7503线青城站备用G5柜。 (2)颐和V772线科创变电缆拆头[需进入变电所]","powerTime":"2018-06-14 14:43:11","powerComm":"已送电","subsNo":"","lineNo":"","tgNo":"","tgName":null,"infoStatus":"1","orgName":"国网浙江临安市供电公司","typeName":null,"infoStatusName":null,"dateDay":null,"orgNos":null,"nowTime":null,"countyName":null,"streetName":null,"villageName":null,"roadName":null,"communityName":null,"tranName":null,"sdLineName":null,"cityCode":"3340160","cityName":"国网浙江临安市供电公司","provinceCode":null,"stopTime":"2018-06-14 15:20:00","powerType":"全部","powerOffArea":"110kV科创变:青城V748线改线路检修","powerOffReason":"科技大道交改涉及及线路改造工程[科创变以东]： (1)青城V748线科创变电缆拆头[需进入变电所]，青城V748线颐和山庄K开闭所后段负荷割接至笑岭V750线祥青7503线青城站备用G5柜。 (2)颐和V772线科创变电缆拆头[需进入变电所]","powerOffId":"2018060331010076"},{"poweroffId":2018060331010075,"sgpoweroffId":null,"subsName":"","lineName":"10kV颐和V772线","pubTranName":"颐和山庄1#台区3#变,颐和山庄3#台区7#变,颐和山庄2#台区5#变,","scope":"浙江省杭州市临安市青山湖街道颐和山庄一带","startTime":"2018-06-14 07:00:00","stopDate":"2018-06-14 15:20:00","orgNo":"3340160","typeCode":"计划停电","poweroffArea":"110kV科创变:颐和V772线改线路检修","poweroffReason":"科技大道交改涉及及线路改造工程[科创变以东]： (1)青城V748线科创变电缆拆头[需进入变电所]，青城V748线颐和山庄K开闭所后段负荷割接至笑岭V750线祥青7503线青城站备用G5柜。 (2)颐和V772线科创变电缆拆头[需进入变电所]","powerTime":"2018-06-14 15:10:06","powerComm":"已送电","subsNo":"","lineNo":"","tgNo":"","tgName":null,"infoStatus":"1","orgName":"国网浙江临安市供电公司","typeName":null,"infoStatusName":null,"dateDay":null,"orgNos":null,"nowTime":null,"countyName":null,"streetName":null,"villageName":null,"roadName":null,"communityName":null,"tranName":null,"sdLineName":null,"cityCode":"3340160","cityName":"国网浙江临安市供电公司","provinceCode":null,"stopTime":"2018-06-14 15:20:00","powerType":"全部","powerOffArea":"110kV科创变:颐和V772线改线路检修","powerOffReason":"科技大道交改涉及及线路改造工程[科创变以东]： (1)青城V748线科创变电缆拆头[需进入变电所]，青城V748线颐和山庄K开闭所后段负荷割接至笑岭V750线祥青7503线青城站备用G5柜。 (2)颐和V772线科创变电缆拆头[需进入变电所]","powerOffId":"2018060331010075"},{"poweroffId":2018060331010074,"sgpoweroffId":null,"subsName":"","lineName":"10kV临天V644线","pubTranName":"银都公寓公变,气象局1#公变,","scope":"浙江省杭州市临安市锦城街道银都公寓,新民街(江南路至临天路),江南路与临天七弄交叉一带","startTime":"2018-06-14 07:20:00","stopDate":"2018-06-14 13:30:00","orgNo":"3340160","typeCode":"计划停电","poweroffArea":"110kV锦城变:临天V644线-气象局1号公变后段；临天V644线-银都公寓公变开关后段","poweroffReason":"临安锦城竹林新村公变等台区0.4千伏线路改造工程（02项）1、临天V644线16#杆气象局1#公变低压出线架设，负荷割接。2、临天V644线25#杆银都公寓美变新出电缆，负荷割接等工作。","powerTime":"2018-06-14 13:20:17","powerComm":"已送电","subsNo":"","lineNo":"","tgNo":"","tgName":null,"infoStatus":"1","orgName":"国网浙江临安市供电公司","typeName":null,"infoStatusName":null,"dateDay":null,"orgNos":null,"nowTime":null,"countyName":null,"streetName":null,"villageName":null,"roadName":null,"communityName":null,"tranName":null,"sdLineName":null,"cityCode":"3340160","cityName":"国网浙江临安市供电公司","provinceCode":null,"stopTime":"2018-06-14 13:30:00","powerType":"全部","powerOffArea":"110kV锦城变:临天V644线-气象局1号公变后段；临天V644线-银都公寓公变开关后段","powerOffReason":"临安锦城竹林新村公变等台区0.4千伏线路改造工程（02项）1、临天V644线16#杆气象局1#公变低压出线架设，负荷割接。2、临天V644线25#杆银都公寓美变新出电缆，负荷割接等工作。","powerOffId":"2018060331010074"},{"poweroffId":2018060331010055,"sgpoweroffId":null,"subsName":"","lineName":"10kV白云230线","pubTranName":"香樟花园1号公变,","scope":"浙江省-杭州市-桐庐县-城南街道(梅林社区-桑园路);下洋洲村，下洋洲村（里庄坞、里庒坞移民村）一带","startTime":"2018-06-03 08:42:02","stopDate":"2018-06-03 18:56:23","orgNo":"3340150","typeCode":"电网故障停限电","poweroffArea":"35kV新区变:白云230线-香樟花园1号公变后段","poweroffReason":"你压开关故障","powerTime":"2018-06-03 15:58:33","powerComm":"已送电。","subsNo":"","lineNo":"","tgNo":"","tgName":null,"infoStatus":"1","orgName":"国网浙江桐庐县供电公司","typeName":null,"infoStatusName":null,"dateDay":null,"orgNos":null,"nowTime":null,"countyName":null,"streetName":null,"villageName":null,"roadName":null,"communityName":null,"tranName":null,"sdLineName":null,"cityCode":"3340150","cityName":"国网浙江桐庐县供电公司","provinceCode":null,"stopTime":"2018-06-03 18:56:23","powerType":"全部","powerOffArea":"35kV新区变:白云230线-香樟花园1号公变后段","powerOffReason":"你压开关故障","powerOffId":"2018060331010055"},{"poweroffId":2018060331010043,"sgpoweroffId":null,"subsName":"","lineName":"10kV孙蔡Y130线","pubTranName":"胥江村白佛寺台区,","scope":"浙江省-杭州市-建德市-乾潭镇胥江行政村-白佛寺自然村一带用户。","startTime":"2018-06-03 08:05:00","stopDate":"2018-06-03 14:12:39","orgNo":"3340180","typeCode":"电网故障停限电","poweroffArea":"110kV乾潭变:孙蔡Y130线-胥江村白佛寺台区后段","poweroffReason":"孙蔡Y130线-胥江村白佛寺台区 低压配电设备故障","powerTime":"2018-06-03 09:30:38","powerComm":"已送电","subsNo":"","lineNo":"","tgNo":"","tgName":null,"infoStatus":"1","orgName":"国网浙江建德市供电有限公司","typeName":null,"infoStatusName":null,"dateDay":null,"orgNos":null,"nowTime":null,"countyName":null,"streetName":null,"villageName":null,"roadName":null,"communityName":null,"tranName":null,"sdLineName":null,"cityCode":"3340180","cityName":"国网浙江建德市供电有限公司","provinceCode":null,"stopTime":"2018-06-03 14:12:39","powerType":"全部","powerOffArea":"110kV乾潭变:孙蔡Y130线-胥江村白佛寺台区后段","powerOffReason":"孙蔡Y130线-胥江村白佛寺台区 低压配电设备故障","powerOffId":"2018060331010043"},{"poweroffId":2018060331010017,"sgpoweroffId":null,"subsName":"","lineName":"10kV同苑7230线","pubTranName":"滨层,雅苑十二变,迎南十二变,钱滨十二变,迎南四变,雅苑十变,雅苑二变,人公1#,人公7#,滨才二变,滨才四变,人公2#,雅苑四变,湘雅八变,雅苑八变,湘雅十变,雅苑六变,迎南十变,湘雅二变,西兴卫院2#,湘雅六变,人公5#,滨综,人公8#,人公6#,滨才十变,滨才六变,迎南六变,人公9#,西兴卫院1#,滨才八变,钱滨四变,钱滨十变,串村,西派,钱滨六变,钱滨二变,人公10#,滨河施三,滨综,人公4#,雅苑十四变,人公3#,迎南八变,迎南二变,雅苑十六变,湘雅四变,钱滨八变,","scope":"浙江省-杭州市-滨江区-西兴街道(江汉东路-湘云雅苑,协同村社区,新州社区-钱塘滨和花园小区,阡陌路-迎春南苑);(杭州滨兴房地产开发有限公司,杭州高新技术产业开发区(滨江)城建指挥部,杭州市滨江区西兴街道社区卫生服务中心,西兴街道征迁安置管理中心);","startTime":"2018-06-03 06:00:06","stopDate":"2018-06-03 12:00:06","orgNo":"3340101","typeCode":"电网故障停限电","poweroffArea":"110kV江虹变:同苑7230线","poweroffReason":"高压开关跳闸","powerTime":"2018-06-03 07:55:52","powerComm":"已送电","subsNo":"","lineNo":"","tgNo":"","tgName":null,"infoStatus":"1","orgName":"浙江杭州电力客户服务中心","typeName":null,"infoStatusName":null,"dateDay":null,"orgNos":null,"nowTime":null,"countyName":null,"streetName":null,"villageName":null,"roadName":null,"communityName":null,"tranName":null,"sdLineName":null,"cityCode":"3340101","cityName":"浙江杭州电力客户服务中心","provinceCode":null,"stopTime":"2018-06-03 12:00:06","powerType":"全部","powerOffArea":"110kV江虹变:同苑7230线","powerOffReason":"高压开关跳闸","powerOffId":"2018060331010017"}],"pageModel":{"pageNow":1712,"totalCount":17789,"totalPage":1779,"tableRows":0,"pageCount":10,"beginCount":17110},"isExperi":"1"}