{"message":"","today":"2020-06-16","seleList":[{"poweroffId":2018060231010040,"sgpoweroffId":null,"subsName":"","lineName":"10kV八都C985线","pubTranName":"三头村4#变,","scope":"浙江省-杭州市-萧山区-戴村镇(三头行政村-凌桥自然村、墙头自然村)一带","startTime":"2018-06-02 09:44:31","stopDate":"2018-06-02 18:30:00","orgNo":"3340130","typeCode":"电网故障停限电","poweroffArea":"110kV永兴变:八都C985线-三头村4#变低压开关","poweroffReason":"110kV永兴变:八都C985线-三头村4#变低压开关故障","powerTime":"2018-06-02 16:58:06","powerComm":"已送电","subsNo":"","lineNo":"","tgNo":"","tgName":null,"infoStatus":"1","orgName":"国网浙江杭州市萧山区供电有限公司","typeName":null,"infoStatusName":null,"dateDay":null,"orgNos":null,"nowTime":null,"countyName":null,"streetName":null,"villageName":null,"roadName":null,"communityName":null,"tranName":null,"sdLineName":null,"cityCode":"3340130","cityName":"国网浙江杭州市萧山区供电有限公司","provinceCode":null,"stopTime":"2018-06-02 18:30:00","powerType":"全部","powerOffArea":"110kV永兴变:八都C985线-三头村4#变低压开关","powerOffReason":"110kV永兴变:八都C985线-三头村4#变低压开关故障","powerOffId":"2018060231010040"},{"poweroffId":2018060231010029,"sgpoweroffId":null,"subsName":"","lineName":"10kV振华C786线","pubTranName":"三岔路村13#变,","scope":"浙江省杭州市萧山区瓜沥镇三岔路行政村、三岔路村一带","startTime":"2018-06-02 08:20:12","stopDate":"2018-06-02 18:20:16","orgNo":"3340130","typeCode":"电网故障停限电","poweroffArea":"35kV坎山变:振华C786线-三岔路村13#变台区低压开关","poweroffReason":"低压架空导线断线故障","powerTime":"2018-06-02 16:50:13","powerComm":"已送电","subsNo":"","lineNo":"","tgNo":"","tgName":null,"infoStatus":"1","orgName":"国网浙江杭州市萧山区供电有限公司","typeName":null,"infoStatusName":null,"dateDay":null,"orgNos":null,"nowTime":null,"countyName":null,"streetName":null,"villageName":null,"roadName":null,"communityName":null,"tranName":null,"sdLineName":null,"cityCode":"3340130","cityName":"国网浙江杭州市萧山区供电有限公司","provinceCode":null,"stopTime":"2018-06-02 18:20:16","powerType":"全部","powerOffArea":"35kV坎山变:振华C786线-三岔路村13#变台区低压开关","powerOffReason":"低压架空导线断线故障","powerOffId":"2018060231010029"},{"poweroffId":2018060231010027,"sgpoweroffId":null,"subsName":"","lineName":"10kV银乔C832线","pubTranName":"元沙村2#变,","scope":"浙江省-杭州市-萧山区-新街镇(元沙行政村)、新街镇元沙村一带","startTime":"2018-06-02 08:08:23","stopDate":"2018-06-02 16:10:49","orgNo":"3340130","typeCode":"电网故障停限电","poweroffArea":"110kV罗山变:银乔C832线-元沙村2#变低压配电设施","poweroffReason":"低压配电设施故障","powerTime":"2018-06-02 15:42:19","powerComm":"已送电","subsNo":"","lineNo":"","tgNo":"","tgName":null,"infoStatus":"1","orgName":"国网浙江杭州市萧山区供电有限公司","typeName":null,"infoStatusName":null,"dateDay":null,"orgNos":null,"nowTime":null,"countyName":null,"streetName":null,"villageName":null,"roadName":null,"communityName":null,"tranName":null,"sdLineName":null,"cityCode":"3340130","cityName":"国网浙江杭州市萧山区供电有限公司","provinceCode":null,"stopTime":"2018-06-02 16:10:49","powerType":"全部","powerOffArea":"110kV罗山变:银乔C832线-元沙村2#变低压配电设施","powerOffReason":"低压配电设施故障","powerOffId":"2018060231010027"},{"poweroffId":2018060231010017,"sgpoweroffId":null,"subsName":"","lineName":"10kV芝厦T190线","pubTranName":"杭黄五标二分部配变,淼达纸艺,百帮机械,杭州迈尔盛科技有限公司,芝厦3号公变,金家排涝站,芝厦5号公变,金兴矿业,杭州冠和机械科技有限公司,芝厦4号公变,建德羊毛坞1号公变,大竹垅2号公变,桐庐顺峰塑业有限公司变压器,三鼎炉渣,大竹垅1号公变,杭州中水水力发电设备有限公司,溪南1号公变,溪南2号公变,百顺五金,芝厦1号公变,米山1号公变,杭州仞利道路机械制造有限公司,芝厦6号公变,芝厦加油站,芝厦门里政府路灯变,星冠线缆设备厂,三叶钙粉厂,芝厦2号公变,汇鑫矿业,桐庐羊毛坞1号公变,冠和线缆设备厂,杭州凌洲塑胶科技有限公司变压器,","scope":"浙江省-杭州市-桐庐县-富春江镇(象山桥行政村-米山自然村,芝厦行政村-大竹垅自然村、溪南自然村、羊毛坞自然村、芝厦自然村)","startTime":"2018-06-02 07:05:53","stopDate":"2018-06-02 13:05:53","orgNo":"3340150","typeCode":"电网故障停限电","poweroffArea":"110kV外董变:芝厦T190线芝厦T190线[1号-17号]杆塔,芝厦T190线[85号-91号]杆塔ABC相短路","poweroffReason":"低压开关故障","powerTime":"2018-06-02 12:58:36","powerComm":"已送电","subsNo":"","lineNo":"","tgNo":"","tgName":null,"infoStatus":"1","orgName":"国网浙江桐庐县供电公司","typeName":null,"infoStatusName":null,"dateDay":null,"orgNos":null,"nowTime":null,"countyName":null,"streetName":null,"villageName":null,"roadName":null,"communityName":null,"tranName":null,"sdLineName":null,"cityCode":"3340150","cityName":"国网浙江桐庐县供电公司","provinceCode":null,"stopTime":"2018-06-02 13:05:53","powerType":"全部","powerOffArea":"110kV外董变:芝厦T190线芝厦T190线[1号-17号]杆塔,芝厦T190线[85号-91号]杆塔ABC相短路","powerOffReason":"低压开关故障","powerOffId":"2018060231010017"},{"poweroffId":2018060131010675,"sgpoweroffId":null,"subsName":"","lineName":"10kV东区Y204线","pubTranName":"渣粑坞2#公变,","scope":"浙江省-杭州市-建德市-新安江街道 新安东路21幢、23幢、A、B、C、D、E、新中后巷一带用户。","startTime":"2018-06-11 08:00:00","stopDate":"2018-06-11 12:00:00","orgNo":"3340180","typeCode":"计划停电","poweroffArea":"110kV白沙变:东区Y204线-渣粑坞2#公变后段","poweroffReason":"新中后巷主线 新中后巷28幢集表箱安装","powerTime":"2018-06-11 12:00:00","powerComm":"已送电","subsNo":"","lineNo":"","tgNo":"","tgName":null,"infoStatus":"1","orgName":"国网浙江建德市供电有限公司","typeName":null,"infoStatusName":null,"dateDay":null,"orgNos":null,"nowTime":null,"countyName":null,"streetName":null,"villageName":null,"roadName":null,"communityName":null,"tranName":null,"sdLineName":null,"cityCode":"3340180","cityName":"国网浙江建德市供电有限公司","provinceCode":null,"stopTime":"2018-06-11 12:00:00","powerType":"全部","powerOffArea":"110kV白沙变:东区Y204线-渣粑坞2#公变后段","powerOffReason":"新中后巷主线 新中后巷28幢集表箱安装","powerOffId":"2018060131010675"},{"poweroffId":2018060131010644,"sgpoweroffId":null,"subsName":"","lineName":"10kV高家Y732线","pubTranName":"姜山村戴家台区,姜山村岩下台区,姜山村肖塘台区,姜山村双九坞台区,姜山村楼志坞台区,姜山村中蓬坞台区,","scope":"浙江省-杭州市-建德市-梅城镇 姜山行政村 戴家自然村、肖塘自然村、双九坞自然村、岩下自然村、楼志坞自然村、中蓬坞自然村一带用户。","startTime":"2018-06-11 06:30:00","stopDate":"2018-06-11 17:30:00","orgNo":"3340180","typeCode":"计划停电","poweroffArea":"110kV马目变:高家Y732线-肖塘支线0#令克后段","poweroffReason":"建德市临金高速公路建设指挥部10千伏高家Y732线与姜山Y733线迁改工程","powerTime":"2018-06-11 17:29:00","powerComm":"已送电","subsNo":"","lineNo":"","tgNo":"","tgName":null,"infoStatus":"1","orgName":"国网浙江建德市供电有限公司","typeName":null,"infoStatusName":null,"dateDay":null,"orgNos":null,"nowTime":null,"countyName":null,"streetName":null,"villageName":null,"roadName":null,"communityName":null,"tranName":null,"sdLineName":null,"cityCode":"3340180","cityName":"国网浙江建德市供电有限公司","provinceCode":null,"stopTime":"2018-06-11 17:30:00","powerType":"全部","powerOffArea":"110kV马目变:高家Y732线-肖塘支线0#令克后段","powerOffReason":"建德市临金高速公路建设指挥部10千伏高家Y732线与姜山Y733线迁改工程","powerOffId":"2018060131010644"},{"poweroffId":2018060131010642,"sgpoweroffId":null,"subsName":"","lineName":"10kV童坞Y681线","pubTranName":"丰畈村何家台区,","scope":"浙江省-杭州市-建德市-大同镇 丰畈行政村 何家自然村一带用户。","startTime":"2018-06-11 06:30:00","stopDate":"2018-06-11 16:00:00","orgNo":"3340180","typeCode":"计划停电","poweroffArea":"110kV大同变:童坞Y681线-何家支线0#杆令克后段","poweroffReason":"杭州建德110千伏大同变新建10千伏线路配套工程","powerTime":"2018-06-11 16:00:00","powerComm":"已送电","subsNo":"","lineNo":"","tgNo":"","tgName":null,"infoStatus":"1","orgName":"国网浙江建德市供电有限公司","typeName":null,"infoStatusName":null,"dateDay":null,"orgNos":null,"nowTime":null,"countyName":null,"streetName":null,"villageName":null,"roadName":null,"communityName":null,"tranName":null,"sdLineName":null,"cityCode":"3340180","cityName":"国网浙江建德市供电有限公司","provinceCode":null,"stopTime":"2018-06-11 16:00:00","powerType":"全部","powerOffArea":"110kV大同变:童坞Y681线-何家支线0#杆令克后段","powerOffReason":"杭州建德110千伏大同变新建10千伏线路配套工程","powerOffId":"2018060131010642"},{"poweroffId":2018060131010625,"sgpoweroffId":null,"subsName":"","lineName":"10kV陈家C327线","pubTranName":"新塘头村10#变,永明塑料,旎蕾绣品,陈家园村13#变,永明塑料,新塘头3#变,龙发机械,陈家园村9#变,金丰纸管,陈家园村2#变,陈家园村1#变,观春塑料,新塘头村15#变,新塘头村5#变,浙江萧邦玻璃科技有限公司1,新塘头村18#变,新塘头村6#变,新塘头村2#变,恒春塑料,飞驰压力机厂,新塘头村20#变,华君纱业,新塘头村4#变,观春塑料,新塘头村11#变,新塘头村14#变,华东实业,浙江萧邦玻璃科技有限公司2,","scope":"浙江省-杭州市-萧山区-新街镇(陈家园行政村-陈家园自然村,新塘头行政村-新塘头自然村);浙江省-杭州市-萧山区-新街镇(杭州飞驰压力机械有限公司,杭州观春塑料有限公司,杭州恒春塑料包装有限公司,杭州金丰纸管有限公司,杭州梦成塑料包装有限公司,杭州萧山华东实业有限公司,浙江杭拖农业装备有限公司,浙江萧邦玻璃科技有限公司);","startTime":"2018-06-12 08:35:00","stopDate":"2018-06-12 14:35:24","orgNo":"3340130","typeCode":"计划停电","poweroffArea":"110kV沿塘变:陈家C327线-陈家C3271开关，陈家C3272开关之间","poweroffReason":"62#杆分支割接至36#杆，拆除9m杆1基、10m杆1基、12m杆7基、LJ-10-35裸导线6档共750m、JKLYJ-10-120架空线8档共831m","powerTime":"2018-06-12 14:03:00","powerComm":"已送电","subsNo":"","lineNo":"","tgNo":"","tgName":null,"infoStatus":"1","orgName":"国网浙江杭州市萧山区供电有限公司","typeName":null,"infoStatusName":null,"dateDay":null,"orgNos":null,"nowTime":null,"countyName":null,"streetName":null,"villageName":null,"roadName":null,"communityName":null,"tranName":null,"sdLineName":null,"cityCode":"3340130","cityName":"国网浙江杭州市萧山区供电有限公司","provinceCode":null,"stopTime":"2018-06-12 14:35:24","powerType":"全部","powerOffArea":"110kV沿塘变:陈家C327线-陈家C3271开关，陈家C3272开关之间","powerOffReason":"62#杆分支割接至36#杆，拆除9m杆1基、10m杆1基、12m杆7基、LJ-10-35裸导线6档共750m、JKLYJ-10-120架空线8档共831m","powerOffId":"2018060131010625"},{"poweroffId":2018060131010569,"sgpoweroffId":null,"subsName":"","lineName":"10kV双湖T203线","pubTranName":"变压器,柴场里4号公变,","scope":"浙江省-杭州市-桐庐县-横村镇(城东行政村-双湖自然村);浙江省-杭州市-桐庐县-横村镇(桐庐县横村村镇建设开发有限公司);","startTime":"2018-06-11 07:00:00","stopDate":"2018-06-11 18:00:00","orgNo":"3340150","typeCode":"计划停电","poweroffArea":"110kV方埠变:双湖T203线-排涝F1089开关后段","poweroffReason":"新增白颈庙1号公变、立杆、架设导线、搭火、低压割接工作","powerTime":"2018-06-11 17:52:39","powerComm":"已送电","subsNo":"","lineNo":"","tgNo":"","tgName":null,"infoStatus":"1","orgName":"国网浙江桐庐县供电公司","typeName":null,"infoStatusName":null,"dateDay":null,"orgNos":null,"nowTime":null,"countyName":null,"streetName":null,"villageName":null,"roadName":null,"communityName":null,"tranName":null,"sdLineName":null,"cityCode":"3340150","cityName":"国网浙江桐庐县供电公司","provinceCode":null,"stopTime":"2018-06-11 18:00:00","powerType":"全部","powerOffArea":"110kV方埠变:双湖T203线-排涝F1089开关后段","powerOffReason":"新增白颈庙1号公变、立杆、架设导线、搭火、低压割接工作","powerOffId":"2018060131010569"},{"poweroffId":2018060131010567,"sgpoweroffId":null,"subsName":"","lineName":"10kV胜峰T335线","pubTranName":"桐庐协尔针织厂,杭州桐庐腾飞工艺制品厂,桐庐县第三轻工机械厂,","scope":"浙江省-杭州市-桐庐县-横村镇(杭州桐庐腾飞工艺制品厂,桐庐县第三轻工机械厂,桐庐协尔针织厂);","startTime":"2018-06-11 08:00:00","stopDate":"2018-06-11 17:30:00","orgNo":"3340150","typeCode":"计划停电","poweroffArea":"110kV横村变:胜峰T335线-腾飞6022线后段","poweroffReason":"80kVA变压器增容至250kVA","powerTime":"2018-06-11 17:20:16","powerComm":"已送电","subsNo":"","lineNo":"","tgNo":"","tgName":null,"infoStatus":"1","orgName":"国网浙江桐庐县供电公司","typeName":null,"infoStatusName":null,"dateDay":null,"orgNos":null,"nowTime":null,"countyName":null,"streetName":null,"villageName":null,"roadName":null,"communityName":null,"tranName":null,"sdLineName":null,"cityCode":"3340150","cityName":"国网浙江桐庐县供电公司","provinceCode":null,"stopTime":"2018-06-11 17:30:00","powerType":"全部","powerOffArea":"110kV横村变:胜峰T335线-腾飞6022线后段","powerOffReason":"80kVA变压器增容至250kVA","powerOffId":"2018060131010567"}],"pageModel":{"pageNow":1714,"totalCount":17789,"totalPage":1779,"tableRows":0,"pageCount":10,"beginCount":17130},"isExperi":"1"}