{"message":"","today":"2020-06-16","seleList":[{"poweroffId":2018060131010473,"sgpoweroffId":null,"subsName":"","lineName":"10kV九装7141线","pubTranName":"九堡家苑(六),九堡家苑(三),","scope":"浙江省-杭州市-江干区-九堡镇(九堡社区-久福路、九堡村、九堡小区);","startTime":"2018-06-14 09:30:00","stopDate":"2018-06-14 17:30:00","orgNo":"3340101","typeCode":"计划停电","poweroffArea":"110kV牛田变:九装7141线-九堡家苑(三)后段；九装7141线-九堡家苑(六)后段","poweroffReason":"杭州市区下沙区块10千伏公变增容布点及低压改造项目一期","powerTime":"2018-06-14 15:02:01","powerComm":"已送电","subsNo":"","lineNo":"","tgNo":"","tgName":null,"infoStatus":"1","orgName":"浙江杭州电力客户服务中心","typeName":null,"infoStatusName":null,"dateDay":null,"orgNos":null,"nowTime":null,"countyName":null,"streetName":null,"villageName":null,"roadName":null,"communityName":null,"tranName":null,"sdLineName":null,"cityCode":"3340101","cityName":"浙江杭州电力客户服务中心","provinceCode":null,"stopTime":"2018-06-14 17:30:00","powerType":"全部","powerOffArea":"110kV牛田变:九装7141线-九堡家苑(三)后段；九装7141线-九堡家苑(六)后段","powerOffReason":"杭州市区下沙区块10千伏公变增容布点及低压改造项目一期","powerOffId":"2018060131010473"},{"poweroffId":2018060131010471,"sgpoweroffId":null,"subsName":"","lineName":"10kV桥鼎9845线","pubTranName":"格村十二,","scope":"浙江省-杭州市-江干区-九堡镇(格畈社区-格畈北苑、格畈家园小区);","startTime":"2018-06-13 09:30:00","stopDate":"2018-06-13 17:30:00","orgNo":"3340101","typeCode":"计划停电","poweroffArea":"110kV笕桥变:桥鼎9845线-格村十二后段","poweroffReason":"杭州市区下沙区块10千伏公变增容布点及低压改造项目一期","powerTime":"2018-06-13 14:16:11","powerComm":"已送电","subsNo":"","lineNo":"","tgNo":"","tgName":null,"infoStatus":"1","orgName":"浙江杭州电力客户服务中心","typeName":null,"infoStatusName":null,"dateDay":null,"orgNos":null,"nowTime":null,"countyName":null,"streetName":null,"villageName":null,"roadName":null,"communityName":null,"tranName":null,"sdLineName":null,"cityCode":"3340101","cityName":"浙江杭州电力客户服务中心","provinceCode":null,"stopTime":"2018-06-13 17:30:00","powerType":"全部","powerOffArea":"110kV笕桥变:桥鼎9845线-格村十二后段","powerOffReason":"杭州市区下沙区块10千伏公变增容布点及低压改造项目一期","powerOffId":"2018060131010471"},{"poweroffId":2018060131010466,"sgpoweroffId":null,"subsName":"","lineName":"10kV桑苑7139线","pubTranName":"九站(1),","scope":"浙江省杭州市江干区九堡社区部分用户2","startTime":"2018-06-12 09:30:00","stopDate":"2018-06-12 20:30:00","orgNo":"3340101","typeCode":"计划停电","poweroffArea":"110kV牛田变:桑苑7139线-九站(1)后段","poweroffReason":"杭州市区新元农居等10千伏公变增容布点及低压改造项目，西箱站西箱分线13#杆九站（1）更换变压器等工作","powerTime":"2018-06-12 16:31:27","powerComm":"已送电","subsNo":"","lineNo":"","tgNo":"","tgName":null,"infoStatus":"1","orgName":"浙江杭州电力客户服务中心","typeName":null,"infoStatusName":null,"dateDay":null,"orgNos":null,"nowTime":null,"countyName":null,"streetName":null,"villageName":null,"roadName":null,"communityName":null,"tranName":null,"sdLineName":null,"cityCode":"3340101","cityName":"浙江杭州电力客户服务中心","provinceCode":null,"stopTime":"2018-06-12 20:30:00","powerType":"全部","powerOffArea":"110kV牛田变:桑苑7139线-九站(1)后段","powerOffReason":"杭州市区新元农居等10千伏公变增容布点及低压改造项目，西箱站西箱分线13#杆九站（1）更换变压器等工作","powerOffId":"2018060131010466"},{"poweroffId":2018060131010464,"sgpoweroffId":null,"subsName":"","lineName":"10kV香槟7125线","pubTranName":"蚕桑(3-1)农,","scope":"浙江省杭州市江干区蚕桑社区部分用户","startTime":"2018-06-12 09:30:00","stopDate":"2018-06-12 17:30:00","orgNo":"3340101","typeCode":"计划停电","poweroffArea":"110kV牛田变:香槟7125线-蚕桑(3-1)农后段","poweroffReason":"杭州市区下沙区块10千伏公变增容布点及低压改造项目一期","powerTime":"2018-06-12 13:28:10","powerComm":"已送电","subsNo":"","lineNo":"","tgNo":"","tgName":null,"infoStatus":"1","orgName":"浙江杭州电力客户服务中心","typeName":null,"infoStatusName":null,"dateDay":null,"orgNos":null,"nowTime":null,"countyName":null,"streetName":null,"villageName":null,"roadName":null,"communityName":null,"tranName":null,"sdLineName":null,"cityCode":"3340101","cityName":"浙江杭州电力客户服务中心","provinceCode":null,"stopTime":"2018-06-12 17:30:00","powerType":"全部","powerOffArea":"110kV牛田变:香槟7125线-蚕桑(3-1)农后段","powerOffReason":"杭州市区下沙区块10千伏公变增容布点及低压改造项目一期","powerOffId":"2018060131010464"},{"poweroffId":2018060131010461,"sgpoweroffId":null,"subsName":"","lineName":"10kV高沙8221线","pubTranName":"高住二变,高住一变,","scope":"浙江省杭州市江干区高沙社区部分用户","startTime":"2018-06-12 09:30:00","stopDate":"2018-06-12 17:30:00","orgNo":"3340101","typeCode":"计划停电","poweroffArea":"110kV高教变:高沙8221线-高住一变后段；高沙8221线-高住二变后段","poweroffReason":"杭州市区新元农居等10千伏公变增容布点及低压改造项目（低压）高住一变、高住二变部分低压用户割接","powerTime":"2018-06-12 15:14:25","powerComm":"已送电","subsNo":"","lineNo":"","tgNo":"","tgName":null,"infoStatus":"1","orgName":"浙江杭州电力客户服务中心","typeName":null,"infoStatusName":null,"dateDay":null,"orgNos":null,"nowTime":null,"countyName":null,"streetName":null,"villageName":null,"roadName":null,"communityName":null,"tranName":null,"sdLineName":null,"cityCode":"3340101","cityName":"浙江杭州电力客户服务中心","provinceCode":null,"stopTime":"2018-06-12 17:30:00","powerType":"全部","powerOffArea":"110kV高教变:高沙8221线-高住一变后段；高沙8221线-高住二变后段","powerOffReason":"杭州市区新元农居等10千伏公变增容布点及低压改造项目（低压）高住一变、高住二变部分低压用户割接","powerOffId":"2018060131010461"},{"poweroffId":2018060131010457,"sgpoweroffId":null,"subsName":"","lineName":"10kV龙下9633线","pubTranName":"新元(1),新元（2）,","scope":"浙江省-杭州市-杭州市经济技术开发区-下沙街道(新元社区-海达南路);","startTime":"2018-06-11 09:30:00","stopDate":"2018-06-11 17:30:00","orgNo":"3340101","typeCode":"计划停电","poweroffArea":"110kV教北变:龙下9633线-新元（2），新元(1)之间","poweroffReason":"杭州市区新元农居等10千伏公变增容布点及低压改造项目，新元（1）、新元（2）部分低压用户割接","powerTime":"2018-06-11 11:40:31","powerComm":"已送电","subsNo":"","lineNo":"","tgNo":"","tgName":null,"infoStatus":"1","orgName":"浙江杭州电力客户服务中心","typeName":null,"infoStatusName":null,"dateDay":null,"orgNos":null,"nowTime":null,"countyName":null,"streetName":null,"villageName":null,"roadName":null,"communityName":null,"tranName":null,"sdLineName":null,"cityCode":"3340101","cityName":"浙江杭州电力客户服务中心","provinceCode":null,"stopTime":"2018-06-11 17:30:00","powerType":"全部","powerOffArea":"110kV教北变:龙下9633线-新元（2），新元(1)之间","powerOffReason":"杭州市区新元农居等10千伏公变增容布点及低压改造项目，新元（1）、新元（2）部分低压用户割接","powerOffId":"2018060131010457"},{"poweroffId":2018060131010455,"sgpoweroffId":null,"subsName":"","lineName":"10kV香槟7125线","pubTranName":"电管站,九区,","scope":"浙江省-杭州市-江干区-九堡镇(九堡社区-杭海路、青年文明路,九塘社区-明珠公寓);","startTime":"2018-06-11 09:30:00","stopDate":"2018-06-11 17:30:00","orgNo":"3340101","typeCode":"计划停电","poweroffArea":"110kV牛田变:香槟7125线-电管分线后段","poweroffReason":"杭州市区新元农居等10千伏公变增容布点及低压改造项目，电管站分线间隔1#杆电管站更换变压器等工作","powerTime":"2018-06-11 12:11:25","powerComm":"已送电","subsNo":"","lineNo":"","tgNo":"","tgName":null,"infoStatus":"1","orgName":"浙江杭州电力客户服务中心","typeName":null,"infoStatusName":null,"dateDay":null,"orgNos":null,"nowTime":null,"countyName":null,"streetName":null,"villageName":null,"roadName":null,"communityName":null,"tranName":null,"sdLineName":null,"cityCode":"3340101","cityName":"浙江杭州电力客户服务中心","provinceCode":null,"stopTime":"2018-06-11 17:30:00","powerType":"全部","powerOffArea":"110kV牛田变:香槟7125线-电管分线后段","powerOffReason":"杭州市区新元农居等10千伏公变增容布点及低压改造项目，电管站分线间隔1#杆电管站更换变压器等工作","powerOffId":"2018060131010455"},{"poweroffId":2018060131010453,"sgpoweroffId":null,"subsName":"","lineName":"10kV万市D338线","pubTranName":"田源村10#汪家公变,","scope":"浙江省-杭州市富阳区万市镇(田源行政村)田源村汪家一带","startTime":"2018-06-13 07:30:00","stopDate":"2018-06-13 17:20:00","orgNo":"3340170","typeCode":"计划停电","poweroffArea":"110kV万市变万市D338线田源村10号汪家公变后段","poweroffReason":"田源村10#汪家公变、大井坞01线6#杆安装抱箍1付、支架7只、更换照明表箱5只、架设BS-JKLYJ-2*25*150米、搭接1处、风里山02线安装抱箍1付、支架1只、架设BS-JKLYJ-4*35*50米、搭接1处、动力表箱1只、","powerTime":"2018-06-13 16:27:06","powerComm":"工作结束已送电","subsNo":"","lineNo":"","tgNo":"","tgName":null,"infoStatus":"1","orgName":"国网浙江杭州市富阳区供电公司","typeName":null,"infoStatusName":null,"dateDay":null,"orgNos":null,"nowTime":null,"countyName":null,"streetName":null,"villageName":null,"roadName":null,"communityName":null,"tranName":null,"sdLineName":null,"cityCode":"3340170","cityName":"国网浙江杭州市富阳区供电公司","provinceCode":null,"stopTime":"2018-06-13 17:20:00","powerType":"全部","powerOffArea":"110kV万市变万市D338线田源村10号汪家公变后段","powerOffReason":"田源村10#汪家公变、大井坞01线6#杆安装抱箍1付、支架7只、更换照明表箱5只、架设BS-JKLYJ-2*25*150米、搭接1处、风里山02线安装抱箍1付、支架1只、架设BS-JKLYJ-4*35*50米、搭接1处、动力表箱1只、","powerOffId":"2018060131010453"},{"poweroffId":2018060131010451,"sgpoweroffId":null,"subsName":"","lineName":"10kV三联D943线","pubTranName":"龙星村5号罗家岭公变,","scope":"浙江省杭州市富阳区富春街道龙星村一带","startTime":"2018-06-13 08:10:00","stopDate":"2018-06-13 17:10:00","orgNo":"3340170","typeCode":"计划停电","poweroffArea":"110kV育才变:三联D943线-龙星村5号罗家岭后段","poweroffReason":"青云2018年龙星村5号罗家岭公变等低压台区改造工程：吊车立杆2支、新架导线6档、安装出线电缆2路、按装横担拉线、搭接等工作","powerTime":"2018-06-13 16:24:00","powerComm":"工作结束已送电","subsNo":"","lineNo":"","tgNo":"","tgName":null,"infoStatus":"1","orgName":"国网浙江杭州市富阳区供电公司","typeName":null,"infoStatusName":null,"dateDay":null,"orgNos":null,"nowTime":null,"countyName":null,"streetName":null,"villageName":null,"roadName":null,"communityName":null,"tranName":null,"sdLineName":null,"cityCode":"3340170","cityName":"国网浙江杭州市富阳区供电公司","provinceCode":null,"stopTime":"2018-06-13 17:10:00","powerType":"全部","powerOffArea":"110kV育才变:三联D943线-龙星村5号罗家岭后段","powerOffReason":"青云2018年龙星村5号罗家岭公变等低压台区改造工程：吊车立杆2支、新架导线6档、安装出线电缆2路、按装横担拉线、搭接等工作","powerOffId":"2018060131010451"},{"poweroffId":2018060131010446,"sgpoweroffId":null,"subsName":"","lineName":"10kV渌渚D133线","pubTranName":"百前村5#马路边公变,","scope":"浙江省-杭州市-富阳区-渌渚镇(百前行政村-马路边自然村);","startTime":"2018-06-13 07:30:00","stopDate":"2018-06-13 17:00:00","orgNo":"3340170","typeCode":"计划停电","poweroffArea":"110kV新登变:渌渚D133线-百前村5#马路边公变台区低压开关","poweroffReason":"照明01线架设导线JKLYJ-70*4*6档、安装横担7付、拉线4支、拆除导线JKLYJ-35*4*6档、横担7付、拉线4支、导线搭接","powerTime":"2018-06-13 15:37:39","powerComm":"工作结束已送电","subsNo":"","lineNo":"","tgNo":"","tgName":null,"infoStatus":"1","orgName":"国网浙江杭州市富阳区供电公司","typeName":null,"infoStatusName":null,"dateDay":null,"orgNos":null,"nowTime":null,"countyName":null,"streetName":null,"villageName":null,"roadName":null,"communityName":null,"tranName":null,"sdLineName":null,"cityCode":"3340170","cityName":"国网浙江杭州市富阳区供电公司","provinceCode":null,"stopTime":"2018-06-13 17:00:00","powerType":"全部","powerOffArea":"110kV新登变:渌渚D133线-百前村5#马路边公变台区低压开关","powerOffReason":"照明01线架设导线JKLYJ-70*4*6档、安装横担7付、拉线4支、拆除导线JKLYJ-35*4*6档、横担7付、拉线4支、导线搭接","powerOffId":"2018060131010446"}],"pageModel":{"pageNow":1716,"totalCount":17789,"totalPage":1779,"tableRows":0,"pageCount":10,"beginCount":17150},"isExperi":"1"}