{"message":"","today":"2020-06-16","seleList":[{"poweroffId":2018060131010357,"sgpoweroffId":null,"subsName":"","lineName":"10kV云峰H872线","pubTranName":"南峰村南头上洪公变,南湖村塘南公变,杭州杭临轨道交通有限公司,南头村杨家畈公变,收费站,南峰村上洪小学公变,南湖村水路畈公变,杭州杭临轨道交通有限公司,物资利用,南峰村施家头公变,申加混泥土,老朋友食品,浙江交工路桥绕城西复线三标13#基建变,南湖村跳头公变,浙江杭徽高速公路有限公司杭徽管理处,钒钛机械,南湖村市坞公变,南湖村上坑坞公变,南峰村南头公变,浙江交工路桥绕城西复线三标15#基建变,南头排变,众辉土石方,南峰村上洪老村委公变,宏诺工贸,申加混凝土,南湖村响板桥公变,南湖村朱家舍公变,磊翔建材,南峰村新农公变,南峰村大竹园公变,南湖村小坞公变,","scope":"浙江省杭州市余杭区中泰街道:轻轨七标工地、南湖村跳头、钒钛机械厂、南湖村朱家舍、南湖村响板桥、宏诺工贸厂、南湖村市坞、南湖村塘南畈、南湖村上坑坞、南湖村小坞、南湖村水路畈、南峰村施家头、南头村杨家畈、南峰村上洪老村委、南峰村南头上洪、南峰村上洪小学、南峰村新农、中泰九峰高速收费站、众辉土石方厂、申加混凝土厂、老朋友食品厂、磊翔建材厂、中泰九峰垃圾焚烧场、南峰村大竹园、南峰村南头一带","startTime":"2018-06-12 07:40:00","stopDate":"2018-06-12 17:30:00","orgNo":"3340140","typeCode":"计划停电","poweroffArea":"110kV中泰变:云峰H872线-九峰分线20#杆后段开关后段","poweroffReason":"九峰分线改道，后殿开关站新出400电缆，与丁南H708线联络；10KV云峰H872线九峰分线24#-51#杆线路改道，分线改接、新立电杆7基，新放导线34档，拆除旧导线29档，拆除旧电杆25基。52#、62#杆加装分段开关","powerTime":"2018-06-12 17:30:21","powerComm":"已送电","subsNo":"","lineNo":"","tgNo":"","tgName":null,"infoStatus":"1","orgName":"国网浙江杭州市余杭区供电有限公司","typeName":null,"infoStatusName":null,"dateDay":null,"orgNos":null,"nowTime":null,"countyName":null,"streetName":null,"villageName":null,"roadName":null,"communityName":null,"tranName":null,"sdLineName":null,"cityCode":"3340140","cityName":"国网浙江杭州市余杭区供电有限公司","provinceCode":null,"stopTime":"2018-06-12 17:30:00","powerType":"全部","powerOffArea":"110kV中泰变:云峰H872线-九峰分线20#杆后段开关后段","powerOffReason":"九峰分线改道，后殿开关站新出400电缆，与丁南H708线联络；10KV云峰H872线九峰分线24#-51#杆线路改道，分线改接、新立电杆7基，新放导线34档，拆除旧导线29档，拆除旧电杆25基。52#、62#杆加装分段开关","powerOffId":"2018060131010357"},{"poweroffId":2018060131010356,"sgpoweroffId":null,"subsName":"","lineName":"10kV塔山H619线","pubTranName":"城关2号公变,永伟电器,千秋公变,禹航商城4号公变,东门公变,","scope":"浙江省杭州市余杭区余杭街道:紫辰花苑小区、禹航商城小区、永伟电器厂、直街禹航路以东一带","startTime":"2018-06-13 08:40:00","stopDate":"2018-06-13 17:30:00","orgNo":"3340140","typeCode":"计划停电","poweroffArea":"110kV桃源变:塔山H619线-塔山H619线千秋分线开关后段","poweroffReason":"拆除东门公变，低压改接至千秋公变","powerTime":"2018-06-13 11:37:56","powerComm":"已来电","subsNo":"","lineNo":"","tgNo":"","tgName":null,"infoStatus":"1","orgName":"国网浙江杭州市余杭区供电有限公司","typeName":null,"infoStatusName":null,"dateDay":null,"orgNos":null,"nowTime":null,"countyName":null,"streetName":null,"villageName":null,"roadName":null,"communityName":null,"tranName":null,"sdLineName":null,"cityCode":"3340140","cityName":"国网浙江杭州市余杭区供电有限公司","provinceCode":null,"stopTime":"2018-06-13 17:30:00","powerType":"全部","powerOffArea":"110kV桃源变:塔山H619线-塔山H619线千秋分线开关后段","powerOffReason":"拆除东门公变，低压改接至千秋公变","powerOffId":"2018060131010356"},{"poweroffId":2018060131010355,"sgpoweroffId":null,"subsName":"","lineName":"10kV长纸H707线","pubTranName":"义桥村冯家公变,义桥村团结公变,天宝蚕种(2),坤鹏燃气,天宝蚕种(1),义桥村新和村公变,义桥工业城路灯变,为业通信,凯腾服装,丹尼建材,杭州精汇仪表有限公司,汀之兰,义桥村石屋庙公变,山立混凝土,海胜制冷1,广联复合,海胜制冷2,S15路灯3#,义桥村新和马头公变,","scope":"浙江省杭州市余杭区余杭街道:义桥村冯家、义桥村石屋庙、义桥村新和马头、为业通信厂、义桥村新和、山立混凝土厂、天宝蚕种厂、丹尼建材厂、坤鹏燃气厂、凯腾服装厂、广联复合厂、精汇电气厂、海胜制冷厂、索莲娜厂、义桥村团结一带","startTime":"2018-06-13 08:40:00","stopDate":"2018-06-13 17:30:00","orgNo":"3340140","typeCode":"计划停电","poweroffArea":"110kV余杭变:长纸H707线-长纸H7072开关后段","poweroffReason":"半塘等线绝缘化改造：坤鹏燃气分线大修。长纸H7073开关故障带电作业更换","powerTime":"2018-06-13 16:03:03","powerComm":"已来电","subsNo":"","lineNo":"","tgNo":"","tgName":null,"infoStatus":"1","orgName":"国网浙江杭州市余杭区供电有限公司","typeName":null,"infoStatusName":null,"dateDay":null,"orgNos":null,"nowTime":null,"countyName":null,"streetName":null,"villageName":null,"roadName":null,"communityName":null,"tranName":null,"sdLineName":null,"cityCode":"3340140","cityName":"国网浙江杭州市余杭区供电有限公司","provinceCode":null,"stopTime":"2018-06-13 17:30:00","powerType":"全部","powerOffArea":"110kV余杭变:长纸H707线-长纸H7072开关后段","powerOffReason":"半塘等线绝缘化改造：坤鹏燃气分线大修。长纸H7073开关故障带电作业更换","powerOffId":"2018060131010355"},{"poweroffId":2018060131010354,"sgpoweroffId":null,"subsName":"","lineName":"10kV农校H413线","pubTranName":"良渚村许家坝公变,良渚村金家门公变,","scope":"浙江省杭州市余杭区良渚街道：金家门、许家坝一带","startTime":"2018-06-14 07:40:00","stopDate":"2018-06-14 15:40:00","orgNo":"3340140","typeCode":"计划停电","poweroffArea":"35kV良渚变:农校H413线-良渚村许家坝公变后段","poweroffReason":"农校H413线许家坝分线线路消缺","powerTime":"2018-06-14 14:39:33","powerComm":"已送电","subsNo":"","lineNo":"","tgNo":"","tgName":null,"infoStatus":"1","orgName":"国网浙江杭州市余杭区供电有限公司","typeName":null,"infoStatusName":null,"dateDay":null,"orgNos":null,"nowTime":null,"countyName":null,"streetName":null,"villageName":null,"roadName":null,"communityName":null,"tranName":null,"sdLineName":null,"cityCode":"3340140","cityName":"国网浙江杭州市余杭区供电有限公司","provinceCode":null,"stopTime":"2018-06-14 15:40:00","powerType":"全部","powerOffArea":"35kV良渚变:农校H413线-良渚村许家坝公变后段","powerOffReason":"农校H413线许家坝分线线路消缺","powerOffId":"2018060131010354"},{"poweroffId":2018060131010353,"sgpoweroffId":null,"subsName":"","lineName":"10kV珠山D523线","pubTranName":"大源镇亭山村19#教堂公变,","scope":"浙江省杭州市富阳区大源镇亭山村亭山西路教堂一带","startTime":"2018-06-13 08:00:00","stopDate":"2018-06-13 16:10:00","orgNo":"3340170","typeCode":"计划停电","poweroffArea":"110kV大源变:珠山D523线-大源镇亭山村19#教堂公变1号线后段","poweroffReason":"客户工程：架线4档、放设电缆、搭接、安装横担等工作","powerTime":"2018-06-13 15:44:04","powerComm":"工作结束已送电","subsNo":"","lineNo":"","tgNo":"","tgName":null,"infoStatus":"1","orgName":"国网浙江杭州市富阳区供电公司","typeName":null,"infoStatusName":null,"dateDay":null,"orgNos":null,"nowTime":null,"countyName":null,"streetName":null,"villageName":null,"roadName":null,"communityName":null,"tranName":null,"sdLineName":null,"cityCode":"3340170","cityName":"国网浙江杭州市富阳区供电公司","provinceCode":null,"stopTime":"2018-06-13 16:10:00","powerType":"全部","powerOffArea":"110kV大源变:珠山D523线-大源镇亭山村19#教堂公变1号线后段","powerOffReason":"客户工程：架线4档、放设电缆、搭接、安装横担等工作","powerOffId":"2018060131010353"},{"poweroffId":2018060131010352,"sgpoweroffId":null,"subsName":"","lineName":"10kV小山H715线","pubTranName":"恩普森,洪桐村委2#,义桥村磨子山西公变,洪桐村宇家塘公变,洪桐村李家公变,义桥村共和公变,洪桐村赵家公变,洪桐村红旗公变,义桥村朝阳公变,新余农机,溪塔村希望公变,溪塔村毛家公变,溪塔村葛家公变,临余公路2#路灯,15省道3#路灯,洪桐村方家村东公变,义桥村胜利公变,洪桐村业家桥公变,洪桐村牧场公变,义桥村三里铺公变,洪桐村来家公变,洪桐村郎家公变,溪塔村鲁家公变,义桥村汪家公变,义桥村磨子山公变,溪塔村塘家公变,洪桐村白衣滩公变,","scope":"浙江省杭州市余杭区余杭街道:上湖村泵站、恩普森厂、新余农机厂、义桥村共和、义桥村朝阳、义桥村三里埔、溪塔村塘家、溪塔村葛家、溪塔村鲁家、溪塔村希望、溪塔村毛家、义桥村磨子山、义桥村胜利、义桥村汪家、洪桐村宇家塘、洪桐村白衣滩、洪桐村来家、洪桐村赵家、洪桐村业家桥、洪桐村方家村东、洪桐村郎家、洪桐村红旗、洪桐村牧场、全兴塑业厂、永建小学、洪桐村李家一带","startTime":"2018-06-14 07:40:00","stopDate":"2018-06-14 17:30:00","orgNo":"3340140","typeCode":"计划停电","poweroffArea":"110kV余杭变:小山H715线-小山H7151开关，小山H7152开关之间","poweroffReason":"小山H715线恩普森分线调换导线1档，新余农机分线调换导线2档；小山H715线三里埔分线、磨子山西分线、义桥胜利分线新装过电压保护器31组。洪桐村等配变台区改造：小山H715线洪桐村李家变160kVA移位增量至400kVA；小山H715线汪家分线5#杆义桥村汪家变调换计量箱。","powerTime":"2018-06-14 17:05:32","powerComm":"已全部送电","subsNo":"","lineNo":"","tgNo":"","tgName":null,"infoStatus":"1","orgName":"国网浙江杭州市余杭区供电有限公司","typeName":null,"infoStatusName":null,"dateDay":null,"orgNos":null,"nowTime":null,"countyName":null,"streetName":null,"villageName":null,"roadName":null,"communityName":null,"tranName":null,"sdLineName":null,"cityCode":"3340140","cityName":"国网浙江杭州市余杭区供电有限公司","provinceCode":null,"stopTime":"2018-06-14 17:30:00","powerType":"全部","powerOffArea":"110kV余杭变:小山H715线-小山H7151开关，小山H7152开关之间","powerOffReason":"小山H715线恩普森分线调换导线1档，新余农机分线调换导线2档；小山H715线三里埔分线、磨子山西分线、义桥胜利分线新装过电压保护器31组。洪桐村等配变台区改造：小山H715线洪桐村李家变160kVA移位增量至400kVA；小山H715线汪家分线5#杆义桥村汪家变调换计量箱。","powerOffId":"2018060131010352"},{"poweroffId":2018060131010351,"sgpoweroffId":null,"subsName":"","lineName":"10kV胥口D712线","pubTranName":"高联村8#田家公变,","scope":"浙江省-杭州市-富阳区-胥口镇(高联行政村-田家自然村);","startTime":"2018-06-12 07:30:00","stopDate":"2018-06-12 16:20:00","orgNo":"3340170","typeCode":"计划停电","poweroffArea":"110kV松溪变:胥口D712线-高联村8#田家公变台区低压开关","poweroffReason":"田家01线15#-15-１－４#杆架设BS－JKLYJ－４*７０*４档，架设BS－JKLYJ－２*２５*３户，拆除老１５－１至１５－１－３JKLYJ－７０*４*３档，导线搭接１处，落户线搭接３户。","powerTime":"2018-06-12 16:14:55","powerComm":"工作结束已送电","subsNo":"","lineNo":"","tgNo":"","tgName":null,"infoStatus":"1","orgName":"国网浙江杭州市富阳区供电公司","typeName":null,"infoStatusName":null,"dateDay":null,"orgNos":null,"nowTime":null,"countyName":null,"streetName":null,"villageName":null,"roadName":null,"communityName":null,"tranName":null,"sdLineName":null,"cityCode":"3340170","cityName":"国网浙江杭州市富阳区供电公司","provinceCode":null,"stopTime":"2018-06-12 16:20:00","powerType":"全部","powerOffArea":"110kV松溪变:胥口D712线-高联村8#田家公变台区低压开关","powerOffReason":"田家01线15#-15-１－４#杆架设BS－JKLYJ－４*７０*４档，架设BS－JKLYJ－２*２５*３户，拆除老１５－１至１５－１－３JKLYJ－７０*４*３档，导线搭接１处，落户线搭接３户。","powerOffId":"2018060131010351"},{"poweroffId":2018060131010350,"sgpoweroffId":null,"subsName":"","lineName":"10kV万市D338线","pubTranName":"田源村9#钱家公变,","scope":"浙江省-杭州市-富阳区万市镇(田源行政村)田源村钱家一带","startTime":"2018-06-12 07:30:00","stopDate":"2018-06-12 17:20:00","orgNo":"3340170","typeCode":"计划停电","poweroffArea":"110kV万市变万市D338线田源村9号钱家公变后段","poweroffReason":"田源村9#钱家公变、白石坞01线、更换接户线、拆旧、安装抱箍7付、支架13只、更换照明表箱12只、动力表箱1只、架设BS-JKLYJ-2*25*200米、BS-JKLYJ-4*35*30米、搭接7处","powerTime":"2018-06-12 16:29:07","powerComm":"工作结束已送电","subsNo":"","lineNo":"","tgNo":"","tgName":null,"infoStatus":"1","orgName":"国网浙江杭州市富阳区供电公司","typeName":null,"infoStatusName":null,"dateDay":null,"orgNos":null,"nowTime":null,"countyName":null,"streetName":null,"villageName":null,"roadName":null,"communityName":null,"tranName":null,"sdLineName":null,"cityCode":"3340170","cityName":"国网浙江杭州市富阳区供电公司","provinceCode":null,"stopTime":"2018-06-12 17:20:00","powerType":"全部","powerOffArea":"110kV万市变万市D338线田源村9号钱家公变后段","powerOffReason":"田源村9#钱家公变、白石坞01线、更换接户线、拆旧、安装抱箍7付、支架13只、更换照明表箱12只、动力表箱1只、架设BS-JKLYJ-2*25*200米、BS-JKLYJ-4*35*30米、搭接7处","powerOffId":"2018060131010350"},{"poweroffId":2018060131010349,"sgpoweroffId":null,"subsName":"","lineName":"10kV在城H701线","pubTranName":"太炎路灯,通济公变,永丰变,仙阁公变,移动2#机站,南渠街1号公变,永丰塑料厂,万事通1#,小东门公用变,大桥公变,木排变,通济2号公变,南渠街2号公变,南渠街3号公变,混堂弄公变,人和公变,太炎小学,木香公变,余杭供电所2号公变,余杭供电所1号公变,木排2#变,新生公变,溪塘公变,苕溪2号公变,","scope":"浙江省杭州市余杭区余杭街道:通济路、直街禹航路以西、太炎小学、溪塔村木排、小东门路、南渠街 一带","startTime":"2018-06-15 08:00:00","stopDate":"2018-06-15 17:30:00","orgNo":"3340140","typeCode":"计划停电","poweroffArea":"110kV余杭变:在城H701线-北街H70121开关，北街7012线之间","poweroffReason":"拆除供电所变，低压改接至供电所2公变；拆除人和公变，低压改接至木香公变；拆除酒厂宿舍变、通济2公变，低压改接至通济公变；拆除新生公变、仙阁公变，低压改接至混堂弄公变；拆除溪塘公变、苕溪公变，低压改接至苕溪2公变","powerTime":"2018-06-15 16:05:30","powerComm":"已送电","subsNo":"","lineNo":"","tgNo":"","tgName":null,"infoStatus":"1","orgName":"国网浙江杭州市余杭区供电有限公司","typeName":null,"infoStatusName":null,"dateDay":null,"orgNos":null,"nowTime":null,"countyName":null,"streetName":null,"villageName":null,"roadName":null,"communityName":null,"tranName":null,"sdLineName":null,"cityCode":"3340140","cityName":"国网浙江杭州市余杭区供电有限公司","provinceCode":null,"stopTime":"2018-06-15 17:30:00","powerType":"全部","powerOffArea":"110kV余杭变:在城H701线-北街H70121开关，北街7012线之间","powerOffReason":"拆除供电所变，低压改接至供电所2公变；拆除人和公变，低压改接至木香公变；拆除酒厂宿舍变、通济2公变，低压改接至通济公变；拆除新生公变、仙阁公变，低压改接至混堂弄公变；拆除溪塘公变、苕溪公变，低压改接至苕溪2公变","powerOffId":"2018060131010349"},{"poweroffId":2018060131010346,"sgpoweroffId":null,"subsName":"","lineName":"10kV大塘D797线","pubTranName":"鸿丰排涝基建 1#变,鸿丰村,鸿丰村2号桑园公变,鸿丰村3号村口公变,杭州富阳区场口镇东磊宾馆1#变,杭州市富阳区场口镇人民政府1#变,红星农灌,鸿丰村4#村南公变,红星村6#回龙庙公变,红星村1#二排公变3,红星村5号北塘公变,富阳市场口新区建设有限公司,红星村1#二排公变3,鸿丰村1号孙家路公变,1#变 （风情小镇基建变）,富阳场口五金电镀厂,杭州三国王洲商贸有限公司变压器,红星村3#三排公变,杭州中亚新材料科技有限公司,红星村4#渔场公变,富阳市红星通讯器材有限公司,","scope":"浙江省-杭州市-富阳区-场口镇(百丈畈行政村-甘浦自然村,红星行政村-红星自然村);浙江省-杭州市-富阳区-场口镇(富阳场口五金电镀厂,富阳市场口新区建设有限公司,富阳市红星通讯器材有限公司,杭州富阳区场口镇东磊宾馆,杭州三国王洲商贸有限公司,杭州市富阳区场口镇人民政府,杭州中亚新材料科技有限公司,鸿丰村,红星农灌);一带","startTime":"2018-06-12 08:30:00","stopDate":"2018-06-12 12:00:00","orgNo":"3340170","typeCode":"计划停电","poweroffArea":"110kV王洲变:大塘D797线八号开关站4#间隔塘八D7977线","poweroffReason":"场口2018年富阳区场口镇人民政府配变工程：大塘D797线八号开关站4#间隔塘八D7977线：1、新立电杆1支；2、安装跌落式开关1组等工作。","powerTime":"2018-06-12 11:51:18","powerComm":"工作结束已送电","subsNo":"","lineNo":"","tgNo":"","tgName":null,"infoStatus":"1","orgName":"国网浙江杭州市富阳区供电公司","typeName":null,"infoStatusName":null,"dateDay":null,"orgNos":null,"nowTime":null,"countyName":null,"streetName":null,"villageName":null,"roadName":null,"communityName":null,"tranName":null,"sdLineName":null,"cityCode":"3340170","cityName":"国网浙江杭州市富阳区供电公司","provinceCode":null,"stopTime":"2018-06-12 12:00:00","powerType":"全部","powerOffArea":"110kV王洲变:大塘D797线八号开关站4#间隔塘八D7977线","powerOffReason":"场口2018年富阳区场口镇人民政府配变工程：大塘D797线八号开关站4#间隔塘八D7977线：1、新立电杆1支；2、安装跌落式开关1组等工作。","powerOffId":"2018060131010346"}],"pageModel":{"pageNow":1718,"totalCount":17789,"totalPage":1779,"tableRows":0,"pageCount":10,"beginCount":17170},"isExperi":"1"}