{"message":"","today":"2020-06-16","seleList":[{"poweroffId":2018060131010327,"sgpoweroffId":null,"subsName":"","lineName":"10kV山基D892线","pubTranName":"光明村光明5#叉坞口公变,","scope":"浙江省-杭州市-富阳区-灵桥镇(光明行政村-光明自然村)叉坞口一带","startTime":"2018-06-11 08:00:00","stopDate":"2018-06-11 16:10:00","orgNo":"3340170","typeCode":"计划停电","poweroffArea":"110kV永春变:山基D892线-光明村光明5号叉坞口后段","poweroffReason":"江南2017年灵桥村黄泥沙5#上台门公变等台区低压线路改造工程：人工拨杆1支、人工运杆1支等工作","powerTime":"2018-06-11 15:42:49","powerComm":"工作结束已送电","subsNo":"","lineNo":"","tgNo":"","tgName":null,"infoStatus":"1","orgName":"国网浙江杭州市富阳区供电公司","typeName":null,"infoStatusName":null,"dateDay":null,"orgNos":null,"nowTime":null,"countyName":null,"streetName":null,"villageName":null,"roadName":null,"communityName":null,"tranName":null,"sdLineName":null,"cityCode":"3340170","cityName":"国网浙江杭州市富阳区供电公司","provinceCode":null,"stopTime":"2018-06-11 16:10:00","powerType":"全部","powerOffArea":"110kV永春变:山基D892线-光明村光明5号叉坞口后段","powerOffReason":"江南2017年灵桥村黄泥沙5#上台门公变等台区低压线路改造工程：人工拨杆1支、人工运杆1支等工作","powerOffId":"2018060131010327"},{"poweroffId":2018060131010326,"sgpoweroffId":null,"subsName":"","lineName":"10kV江滨D578线","pubTranName":"浙江北洲建设有限公司1#变,北门北路4号公变,","scope":"浙江省杭州市富阳区富春街道北门北路、北堤路一带","startTime":"2018-06-11 08:30:00","stopDate":"2018-06-11 16:30:00","orgNo":"3340170","typeCode":"计划停电","poweroffArea":"110kV春江变:江滨D578线-北门北路分线后段","poweroffReason":"达夫路精品街区改造工程：新上箱变电缆搭接工作","powerTime":"2018-06-11 15:44:26","powerComm":"工作结束已送电","subsNo":"","lineNo":"","tgNo":"","tgName":null,"infoStatus":"1","orgName":"国网浙江杭州市富阳区供电公司","typeName":null,"infoStatusName":null,"dateDay":null,"orgNos":null,"nowTime":null,"countyName":null,"streetName":null,"villageName":null,"roadName":null,"communityName":null,"tranName":null,"sdLineName":null,"cityCode":"3340170","cityName":"国网浙江杭州市富阳区供电公司","provinceCode":null,"stopTime":"2018-06-11 16:30:00","powerType":"全部","powerOffArea":"110kV春江变:江滨D578线-北门北路分线后段","powerOffReason":"达夫路精品街区改造工程：新上箱变电缆搭接工作","powerOffId":"2018060131010326"},{"poweroffId":2018060131010324,"sgpoweroffId":null,"subsName":"","lineName":"10kV方家D201线","pubTranName":"中铁三局集团第二工程有限公司5#变,方家井3#念四边公变,柳溪村6#柳溪公变,中铁三局集团第二工程有限公司2#变,富阳市富春街道煤湾矿粉经营部,富阳市富春街道横山下石灰石矿,方家井5#煤湾2公变,富阳市富春街道方家井建材经营部,富阳市大青法根轧石厂,中铁三局集团第二工程有限公司3#变,浙江乾达管业有限公司1#变,中铁三局集团第二工程有限公司 4#变,方家井村4#煤湾公变,柳溪村7#公变,中铁三局集团第二工程有限公司1#变,柳溪村1#坟山口公变,","scope":"浙江省杭州市富阳区富春街道柳溪村、中铁三局集团第二工程有限公司工地一带","startTime":"2018-06-11 12:30:00","stopDate":"2018-06-11 15:50:00","orgNo":"3340170","typeCode":"计划停电","poweroffArea":"35kV大青变:方家D201线-钢厂四站柳溪分线后段","poweroffReason":"西复线五标段迁改工程工程：柳溪分线1#杆至4#杆线路移位，电缆移位改接等工作","powerTime":"2018-06-11 15:41:12","powerComm":"工作结束已送电","subsNo":"","lineNo":"","tgNo":"","tgName":null,"infoStatus":"1","orgName":"国网浙江杭州市富阳区供电公司","typeName":null,"infoStatusName":null,"dateDay":null,"orgNos":null,"nowTime":null,"countyName":null,"streetName":null,"villageName":null,"roadName":null,"communityName":null,"tranName":null,"sdLineName":null,"cityCode":"3340170","cityName":"国网浙江杭州市富阳区供电公司","provinceCode":null,"stopTime":"2018-06-11 15:50:00","powerType":"全部","powerOffArea":"35kV大青变:方家D201线-钢厂四站柳溪分线后段","powerOffReason":"西复线五标段迁改工程工程：柳溪分线1#杆至4#杆线路移位，电缆移位改接等工作","powerOffId":"2018060131010324"},{"poweroffId":2018060131010316,"sgpoweroffId":null,"subsName":"","lineName":"10kV涂川A347线","pubTranName":"欢潭村15#变,","scope":"浙江省-杭州市-萧山区-进化镇(欢潭行政村-欢潭自然村)，浙江省杭州市萧山区进化镇欢潭村等一带","startTime":"2018-06-01 13:02:59","stopDate":"2018-06-01 19:10:02","orgNo":"3340130","typeCode":"电网故障停限电","poweroffArea":"110kV进化变:涂川A347线-欢潭村15#低压开关","poweroffReason":"110kV进化变:涂川A347线-欢潭村15#低压开关故障","powerTime":"2018-06-01 13:31:35","powerComm":"已送电","subsNo":"","lineNo":"","tgNo":"","tgName":null,"infoStatus":"1","orgName":"国网浙江杭州市萧山区供电有限公司","typeName":null,"infoStatusName":null,"dateDay":null,"orgNos":null,"nowTime":null,"countyName":null,"streetName":null,"villageName":null,"roadName":null,"communityName":null,"tranName":null,"sdLineName":null,"cityCode":"3340130","cityName":"国网浙江杭州市萧山区供电有限公司","provinceCode":null,"stopTime":"2018-06-01 19:10:02","powerType":"全部","powerOffArea":"110kV进化变:涂川A347线-欢潭村15#低压开关","powerOffReason":"110kV进化变:涂川A347线-欢潭村15#低压开关故障","powerOffId":"2018060131010316"},{"poweroffId":2018060131010294,"sgpoweroffId":null,"subsName":"","lineName":"10kV制笔170线","pubTranName":"东溪前湾1号公变,","scope":"浙江省-杭州市-桐庐县-分水镇(东溪行政村-前湾自然村、三槐运头一带);","startTime":"2018-06-01 12:52:16","stopDate":"2018-06-01 18:52:16","orgNo":"3340150","typeCode":"电网故障停限电","poweroffArea":"110kV分水变:制笔170线-东溪前湾1号公变后段","poweroffReason":"低压开关故障处理","powerTime":"2018-06-01 17:59:42","powerComm":"已送电。","subsNo":"","lineNo":"","tgNo":"","tgName":null,"infoStatus":"1","orgName":"国网浙江桐庐县供电公司","typeName":null,"infoStatusName":null,"dateDay":null,"orgNos":null,"nowTime":null,"countyName":null,"streetName":null,"villageName":null,"roadName":null,"communityName":null,"tranName":null,"sdLineName":null,"cityCode":"3340150","cityName":"国网浙江桐庐县供电公司","provinceCode":null,"stopTime":"2018-06-01 18:52:16","powerType":"全部","powerOffArea":"110kV分水变:制笔170线-东溪前湾1号公变后段","powerOffReason":"低压开关故障处理","powerOffId":"2018060131010294"},{"poweroffId":2018060131010258,"sgpoweroffId":null,"subsName":"","lineName":"10kV新万G195线","pubTranName":"万常3组（新万村）2#公变,阿一食品,万常4组5#变,万常4组4#变,万常3组3#变,万常2组（新万机埠）公变,天万1组公变,港大机械,天万1组2#公变,万常4组（十四堡）2#公变,万常3组（新万村）1#公变,","scope":"浙江省杭州市余杭区南苑街道：天万村1组、万常村2组、万常村3组、万常村4组、港大机械厂一带","startTime":"2018-06-09 08:40:00","stopDate":"2018-06-09 17:00:00","orgNo":"3340140","typeCode":"计划停电","poweroffArea":"110kV外乔变:新万G195线-航五G19511开关，航五G19512开关之间","poweroffReason":"新万G195线19511开关-19512开关 立杆、放线、装三摇开关、线路搭接 三遥开关调换：万常3组分线、新万分线、万常4组2#分线","powerTime":"2018-06-09 16:58:29","powerComm":"施工结束","subsNo":"","lineNo":"","tgNo":"","tgName":null,"infoStatus":"1","orgName":"国网浙江杭州市余杭区供电有限公司","typeName":null,"infoStatusName":null,"dateDay":null,"orgNos":null,"nowTime":null,"countyName":null,"streetName":null,"villageName":null,"roadName":null,"communityName":null,"tranName":null,"sdLineName":null,"cityCode":"3340140","cityName":"国网浙江杭州市余杭区供电有限公司","provinceCode":null,"stopTime":"2018-06-09 17:00:00","powerType":"全部","powerOffArea":"110kV外乔变:新万G195线-航五G19511开关，航五G19512开关之间","powerOffReason":"新万G195线19511开关-19512开关 立杆、放线、装三摇开关、线路搭接 三遥开关调换：万常3组分线、新万分线、万常4组2#分线","powerOffId":"2018060131010258"},{"poweroffId":2018060131010255,"sgpoweroffId":null,"subsName":"","lineName":"10kV万胜G263线","pubTranName":"东山村运龙桥公变,","scope":"浙江省杭州市余杭区仁和街道：东山村运龙桥一带","startTime":"2018-06-11 08:20:00","stopDate":"2018-06-11 17:00:00","orgNo":"3340140","typeCode":"计划停电","poweroffArea":"110kV仁镇变:万胜G263线运龙桥分线","poweroffReason":"万胜G263线运龙桥分线2#杆东山村运龙桥公变200KVA增量至400kVA及调换计量箱1台、低压出线电缆2根与线路搭接工作；","powerTime":"2018-06-11 15:37:26","powerComm":"已送电","subsNo":"","lineNo":"","tgNo":"","tgName":null,"infoStatus":"1","orgName":"国网浙江杭州市余杭区供电有限公司","typeName":null,"infoStatusName":null,"dateDay":null,"orgNos":null,"nowTime":null,"countyName":null,"streetName":null,"villageName":null,"roadName":null,"communityName":null,"tranName":null,"sdLineName":null,"cityCode":"3340140","cityName":"国网浙江杭州市余杭区供电有限公司","provinceCode":null,"stopTime":"2018-06-11 17:00:00","powerType":"全部","powerOffArea":"110kV仁镇变:万胜G263线运龙桥分线","powerOffReason":"万胜G263线运龙桥分线2#杆东山村运龙桥公变200KVA增量至400kVA及调换计量箱1台、低压出线电缆2根与线路搭接工作；","powerOffId":"2018060131010255"},{"poweroffId":2018060131010251,"sgpoweroffId":null,"subsName":"","lineName":"10kV闲镇H727线","pubTranName":"北山畈(2),","scope":"浙江省杭州市余杭区闲林街道：联荣村北山畈一带","startTime":"2018-06-11 08:20:00","stopDate":"2018-06-11 18:20:00","orgNo":"3340140","typeCode":"计划停电","poweroffArea":"闲镇H727线杭建开关站北山畈2分线","poweroffReason":"杭建开关站闲镇H727线北山畈2分线 配网工程（杭州余杭闲林地区2018年配变台区改造工程）：闲镇H727线北山畈2#箱变（400KVA）调换为630kVA箱变1台、低压出线电缆移用。","powerTime":"2018-06-11 15:28:31","powerComm":"已送电","subsNo":"","lineNo":"","tgNo":"","tgName":null,"infoStatus":"1","orgName":"国网浙江杭州市余杭区供电有限公司","typeName":null,"infoStatusName":null,"dateDay":null,"orgNos":null,"nowTime":null,"countyName":null,"streetName":null,"villageName":null,"roadName":null,"communityName":null,"tranName":null,"sdLineName":null,"cityCode":"3340140","cityName":"国网浙江杭州市余杭区供电有限公司","provinceCode":null,"stopTime":"2018-06-11 18:20:00","powerType":"全部","powerOffArea":"闲镇H727线杭建开关站北山畈2分线","powerOffReason":"杭建开关站闲镇H727线北山畈2分线 配网工程（杭州余杭闲林地区2018年配变台区改造工程）：闲镇H727线北山畈2#箱变（400KVA）调换为630kVA箱变1台、低压出线电缆移用。","powerOffId":"2018060131010251"},{"poweroffId":2018060131010250,"sgpoweroffId":null,"subsName":"","lineName":"10kV闲镇H727线","pubTranName":"钱潮宿舍(2),北山畈(3),","scope":"浙江省杭州市余杭区闲林街道：联荣村北山畈、钱潮水泥厂一带","startTime":"2018-06-11 08:20:00","stopDate":"2018-06-11 18:20:00","orgNo":"3340140","typeCode":"计划停电","poweroffArea":"闲镇H727线钱潮开关站北山分支箱分线","poweroffReason":"钱潮开关站闲镇H727线北山分支箱分线 配网工程（杭州余杭闲林地区2018年配变台区改造工程）：闲镇H727线北山畈3#箱变（400KVA）调换为630kVA箱变1台、低压出线电缆移用。","powerTime":"2018-06-11 15:15:19","powerComm":"已送电","subsNo":"","lineNo":"","tgNo":"","tgName":null,"infoStatus":"1","orgName":"国网浙江杭州市余杭区供电有限公司","typeName":null,"infoStatusName":null,"dateDay":null,"orgNos":null,"nowTime":null,"countyName":null,"streetName":null,"villageName":null,"roadName":null,"communityName":null,"tranName":null,"sdLineName":null,"cityCode":"3340140","cityName":"国网浙江杭州市余杭区供电有限公司","provinceCode":null,"stopTime":"2018-06-11 18:20:00","powerType":"全部","powerOffArea":"闲镇H727线钱潮开关站北山分支箱分线","powerOffReason":"钱潮开关站闲镇H727线北山分支箱分线 配网工程（杭州余杭闲林地区2018年配变台区改造工程）：闲镇H727线北山畈3#箱变（400KVA）调换为630kVA箱变1台、低压出线电缆移用。","powerOffId":"2018060131010250"},{"poweroffId":2018060131010247,"sgpoweroffId":null,"subsName":"","lineName":"10kV三家G864线","pubTranName":"三家村街南配变,三家村文燃斗配变,三家村马家塘变,鸭兰村马家墩变,宝芝莲藕粉,三家马家塘南公变,三家村裘家斗南配变,三家村村委,三家村街北配变,鸭兰村王家庄变,三家村综合厂2号公变,兰良实业变压器,仲全机械配备,三家舍浪南变,三家村丁家门变,三家村文燃斗2号公变,三家村宋家2变,宇达织造厂,鸭兰村马家墩2号公变,三家村安燃斗排涝机埠变,三家村街南2号公变,三家村综合厂变,三家村舍浪配变,恒悦工贸,平泾村12组变,","scope":"浙江省杭州市余杭区崇贤街道：三家村安然斗排涝、三家村范家角、三家村裘家斗、三家村丁家门、三家村马家塘、三家村宋家2、三家村街南、三家村村委、三家村综合厂、三家村舍浪、三家村街北、三家村文燃斗、鸭兰村王家庄、鸭兰村马家墩、杭州余杭区崇贤宝芝莲藕粉厂、杭州恒悦工贸有限公司、杭州兰良实业有限公司、杭州仲全机械有限公司、杭州余杭区崇贤镇宇达纺织厂一带","startTime":"2018-06-11 08:20:00","stopDate":"2018-06-11 17:00:00","orgNo":"3340140","typeCode":"计划停电","poweroffArea":"35kV独山变:三家开关站三家G864线木桥头分线","poweroffReason":"\"1、杭州余杭崇贤2018年龙旋等村配变台区改造工程：新布杨家塘2号、红字圩2号400KVA配变、计量箱各一台等工作； 2、街北分线3#杆移位工作\"","powerTime":"2018-06-11 16:32:08","powerComm":"已送电","subsNo":"","lineNo":"","tgNo":"","tgName":null,"infoStatus":"1","orgName":"国网浙江杭州市余杭区供电有限公司","typeName":null,"infoStatusName":null,"dateDay":null,"orgNos":null,"nowTime":null,"countyName":null,"streetName":null,"villageName":null,"roadName":null,"communityName":null,"tranName":null,"sdLineName":null,"cityCode":"3340140","cityName":"国网浙江杭州市余杭区供电有限公司","provinceCode":null,"stopTime":"2018-06-11 17:00:00","powerType":"全部","powerOffArea":"35kV独山变:三家开关站三家G864线木桥头分线","powerOffReason":"\"1、杭州余杭崇贤2018年龙旋等村配变台区改造工程：新布杨家塘2号、红字圩2号400KVA配变、计量箱各一台等工作； 2、街北分线3#杆移位工作\"","powerOffId":"2018060131010247"}],"pageModel":{"pageNow":1720,"totalCount":17789,"totalPage":1779,"tableRows":0,"pageCount":10,"beginCount":17190},"isExperi":"1"}