{"message":"","today":"2020-06-16","seleList":[{"poweroffId":2018060131010223,"sgpoweroffId":null,"subsName":"","lineName":"10kV渌渚D133线","pubTranName":"百前村1#百丈公变,","scope":"浙江省-杭州市-富阳区-渌渚镇(百前行政村-百丈自然村、沃口自然村);","startTime":"2018-06-12 07:30:00","stopDate":"2018-06-12 17:00:00","orgNo":"3340170","typeCode":"计划停电","poweroffArea":"110kV新登变:渌渚D133线-百前村1#百丈公变台区低压开关","poweroffReason":"村南01线、村北02线人工及吊车立杆10米5支、架设导线JKLYJ-70*4*5档、BS-JKLYJ-4*70*71米、安装横担10付、拉线5付、拆除JKLYJ-35*4*4档、横10付、拉线5付、BLV-2*16*300米、更换落户线BS-JKLYJ-2*25*9户、导线搭接","powerTime":"2018-06-12 16:24:26","powerComm":"工作结束已送电","subsNo":"","lineNo":"","tgNo":"","tgName":null,"infoStatus":"1","orgName":"国网浙江杭州市富阳区供电公司","typeName":null,"infoStatusName":null,"dateDay":null,"orgNos":null,"nowTime":null,"countyName":null,"streetName":null,"villageName":null,"roadName":null,"communityName":null,"tranName":null,"sdLineName":null,"cityCode":"3340170","cityName":"国网浙江杭州市富阳区供电公司","provinceCode":null,"stopTime":"2018-06-12 17:00:00","powerType":"全部","powerOffArea":"110kV新登变:渌渚D133线-百前村1#百丈公变台区低压开关","powerOffReason":"村南01线、村北02线人工及吊车立杆10米5支、架设导线JKLYJ-70*4*5档、BS-JKLYJ-4*70*71米、安装横担10付、拉线5付、拆除JKLYJ-35*4*4档、横10付、拉线5付、BLV-2*16*300米、更换落户线BS-JKLYJ-2*25*9户、导线搭接","powerOffId":"2018060131010223"},{"poweroffId":2018060131010222,"sgpoweroffId":null,"subsName":"","lineName":"10kV大东6447线","pubTranName":"下城区教育局2#,东健变,","scope":"浙江省杭州市下城区体育场路85号至169号附近一带、体育场路（建国北路口至西健康路）附近一带。杭州市下城区教育局","startTime":"2018-06-04 09:00:00","stopDate":"2018-06-04 20:30:00","orgNo":"3340101","typeCode":"计划停电","poweroffArea":"110kV新华变:大东6447线-下城区教育局2#后段；大东6447线-东健变后段","poweroffReason":"杭州城南片区10千伏六克线网架优化及负荷分流工程（1811HZ1700KD03A0000000)","powerTime":"2018-06-04 18:00:28","powerComm":"已送电","subsNo":"","lineNo":"","tgNo":"","tgName":null,"infoStatus":"1","orgName":"浙江杭州电力客户服务中心","typeName":null,"infoStatusName":null,"dateDay":null,"orgNos":null,"nowTime":null,"countyName":null,"streetName":null,"villageName":null,"roadName":null,"communityName":null,"tranName":null,"sdLineName":null,"cityCode":"3340101","cityName":"浙江杭州电力客户服务中心","provinceCode":null,"stopTime":"2018-06-04 20:30:00","powerType":"全部","powerOffArea":"110kV新华变:大东6447线-下城区教育局2#后段；大东6447线-东健变后段","powerOffReason":"杭州城南片区10千伏六克线网架优化及负荷分流工程（1811HZ1700KD03A0000000)","powerOffId":"2018060131010222"},{"poweroffId":2018060131010215,"sgpoweroffId":null,"subsName":"","lineName":"10kV蔡家D893线","pubTranName":"蔡家坞村3#蔡家公变,","scope":"浙江省杭州市富阳区-灵桥镇(蔡家坞行政村-蔡家坞自然村)蔡家一带","startTime":"2018-06-12 08:00:00","stopDate":"2018-06-12 17:00:00","orgNo":"3340170","typeCode":"计划停电","poweroffArea":"110kV永春变:蔡家D893线-蔡家坞村3号蔡家2号开关后段","poweroffReason":"江南2018年蔡家坞6#水库公变等台区低压线路改造工程安装横担拉线，拆旧，架设1kV70*4*7档等工作","powerTime":"2018-06-12 16:21:20","powerComm":"工作结束已送电","subsNo":"","lineNo":"","tgNo":"","tgName":null,"infoStatus":"1","orgName":"国网浙江杭州市富阳区供电公司","typeName":null,"infoStatusName":null,"dateDay":null,"orgNos":null,"nowTime":null,"countyName":null,"streetName":null,"villageName":null,"roadName":null,"communityName":null,"tranName":null,"sdLineName":null,"cityCode":"3340170","cityName":"国网浙江杭州市富阳区供电公司","provinceCode":null,"stopTime":"2018-06-12 17:00:00","powerType":"全部","powerOffArea":"110kV永春变:蔡家D893线-蔡家坞村3号蔡家2号开关后段","powerOffReason":"江南2018年蔡家坞6#水库公变等台区低压线路改造工程安装横担拉线，拆旧，架设1kV70*4*7档等工作","powerOffId":"2018060131010215"},{"poweroffId":2018060131010214,"sgpoweroffId":null,"subsName":"","lineName":"10kV星镇G082线","pubTranName":"汤家活动中心公变,","scope":"浙江省杭州市余杭区星桥街道：汤家活动中心一带","startTime":"2018-06-12 08:40:00","stopDate":"2018-06-12 17:00:00","orgNo":"3340140","typeCode":"计划停电","poweroffArea":"110kV星桥变:星镇G082线-星镇G0821开关，星星G0822开关之间","poweroffReason":"星镇G0821开关-G0823开关 配网工程 1.星镇G082线1#杆-30#杆，莫塘G072线1#杆-30#杆线路修树，绝缘化改造，全线标修","powerTime":"2018-06-12 15:44:15","powerComm":"施工结束","subsNo":"","lineNo":"","tgNo":"","tgName":null,"infoStatus":"1","orgName":"国网浙江杭州市余杭区供电有限公司","typeName":null,"infoStatusName":null,"dateDay":null,"orgNos":null,"nowTime":null,"countyName":null,"streetName":null,"villageName":null,"roadName":null,"communityName":null,"tranName":null,"sdLineName":null,"cityCode":"3340140","cityName":"国网浙江杭州市余杭区供电有限公司","provinceCode":null,"stopTime":"2018-06-12 17:00:00","powerType":"全部","powerOffArea":"110kV星桥变:星镇G082线-星镇G0821开关，星星G0822开关之间","powerOffReason":"星镇G0821开关-G0823开关 配网工程 1.星镇G082线1#杆-30#杆，莫塘G072线1#杆-30#杆线路修树，绝缘化改造，全线标修","powerOffId":"2018060131010214"},{"poweroffId":2018060131010213,"sgpoweroffId":null,"subsName":"","lineName":"10kV莫家G860线","pubTranName":"建丰纺织,金鳌涂料,","scope":"浙江省杭州余杭区崇贤街道：杭州金鳌涂料有限公司一带","startTime":"2018-06-13 08:20:00","stopDate":"2018-06-13 17:00:00","orgNo":"3340140","typeCode":"计划停电","poweroffArea":"35kV独山变:莫家G860线金熬涂料分线","poweroffReason":"杭州余杭崇贤2018年沿山等村配变台区改造工程：新布山前2组2号400KVA配变、计量箱各一台等；","powerTime":"2018-06-13 16:20:32","powerComm":"已送电","subsNo":"","lineNo":"","tgNo":"","tgName":null,"infoStatus":"1","orgName":"国网浙江杭州市余杭区供电有限公司","typeName":null,"infoStatusName":null,"dateDay":null,"orgNos":null,"nowTime":null,"countyName":null,"streetName":null,"villageName":null,"roadName":null,"communityName":null,"tranName":null,"sdLineName":null,"cityCode":"3340140","cityName":"国网浙江杭州市余杭区供电有限公司","provinceCode":null,"stopTime":"2018-06-13 17:00:00","powerType":"全部","powerOffArea":"35kV独山变:莫家G860线金熬涂料分线","powerOffReason":"杭州余杭崇贤2018年沿山等村配变台区改造工程：新布山前2组2号400KVA配变、计量箱各一台等；","powerOffId":"2018060131010213"},{"poweroffId":2018060131010210,"sgpoweroffId":null,"subsName":"","lineName":"10kV灵源H655线","pubTranName":"高桥村李家塘公变,高桥村蒋四房,高桥村严家坝2号公变,树顺食品,高桥村杜家坝2号公变,高桥村里蒋,三锋建材,高桥村杜家坝,高桥村严家坝公变,高桥村李家塘3号公变,高桥村高桥街道公变,高桥村高桥街道2号公变,高桥村高桥街道3号公变,高桥村里蒋2#公变,","scope":"浙江省杭州市余杭区仓前街道：高桥村李家塘、高桥街道、里蒋、蒋四房、杜家坝、严家坝、三锋建材厂、树顺食品厂一带","startTime":"2018-06-14 08:20:00","stopDate":"2018-06-14 18:20:00","orgNo":"3340140","typeCode":"计划停电","poweroffArea":"灵源H6554开关-H6555开关","poweroffReason":"灵源H6554开关-H6555开关 配网工程（杭州余杭仓前地区2018年配变台区改造工程）：灵源H655线113#杆新立15米电杆1基、新布高桥街道4#变（400KVA），敷设低压出线YJV-0.6/1-4*240电缆0.02km。","powerTime":"2018-06-14 17:10:47","powerComm":"已送电","subsNo":"","lineNo":"","tgNo":"","tgName":null,"infoStatus":"1","orgName":"国网浙江杭州市余杭区供电有限公司","typeName":null,"infoStatusName":null,"dateDay":null,"orgNos":null,"nowTime":null,"countyName":null,"streetName":null,"villageName":null,"roadName":null,"communityName":null,"tranName":null,"sdLineName":null,"cityCode":"3340140","cityName":"国网浙江杭州市余杭区供电有限公司","provinceCode":null,"stopTime":"2018-06-14 18:20:00","powerType":"全部","powerOffArea":"灵源H6554开关-H6555开关","powerOffReason":"灵源H6554开关-H6555开关 配网工程（杭州余杭仓前地区2018年配变台区改造工程）：灵源H655线113#杆新立15米电杆1基、新布高桥街道4#变（400KVA），敷设低压出线YJV-0.6/1-4*240电缆0.02km。","powerOffId":"2018060131010210"},{"poweroffId":2018060131010209,"sgpoweroffId":null,"subsName":"","lineName":"10kV横西H642线","pubTranName":"高桥村陈家角,","scope":"浙江省杭州市余杭区仓前街道：高桥村陈家角一带","startTime":"2018-06-14 08:35:00","stopDate":"2018-06-14 18:20:00","orgNo":"3340140","typeCode":"计划停电","poweroffArea":"横西H642线陈家角分线","poweroffReason":"横西H642线陈家角分线 配网工程（杭州余杭仓前地区2018年配变台区改造工程）：陈家角2号变移位至杜家坝分线新立2号杆。","powerTime":"2018-06-14 16:46:27","powerComm":"已送电","subsNo":"","lineNo":"","tgNo":"","tgName":null,"infoStatus":"1","orgName":"国网浙江杭州市余杭区供电有限公司","typeName":null,"infoStatusName":null,"dateDay":null,"orgNos":null,"nowTime":null,"countyName":null,"streetName":null,"villageName":null,"roadName":null,"communityName":null,"tranName":null,"sdLineName":null,"cityCode":"3340140","cityName":"国网浙江杭州市余杭区供电有限公司","provinceCode":null,"stopTime":"2018-06-14 18:20:00","powerType":"全部","powerOffArea":"横西H642线陈家角分线","powerOffReason":"横西H642线陈家角分线 配网工程（杭州余杭仓前地区2018年配变台区改造工程）：陈家角2号变移位至杜家坝分线新立2号杆。","powerOffId":"2018060131010209"},{"poweroffId":2018060131010207,"sgpoweroffId":null,"subsName":"","lineName":"10kV栖溪G220线","pubTranName":"浙江鸿翔水利建设有限公司612067092501#专变,5#基建变,3#基建变,4#基建变,2#基建变,1#基建变,","scope":"浙江省杭州市余杭区塘栖镇：浙江鸿翔水利建设有限公司、杭州市余杭区塘栖镇农民多层公寓建设管理中心（建设区）一带","startTime":"2018-06-15 08:20:00","stopDate":"2018-06-15 18:30:00","orgNo":"3340140","typeCode":"计划停电","poweroffArea":"110kV广济变:锦城开关站栖溪G220线塘栖多层公寓基建分线","poweroffReason":"塘栖多层公寓基建分线拆除，锦城开关站电缆拆除，新放电缆环入新上开关站。","powerTime":"2018-06-15 18:25:58","powerComm":"已送电","subsNo":"","lineNo":"","tgNo":"","tgName":null,"infoStatus":"1","orgName":"国网浙江杭州市余杭区供电有限公司","typeName":null,"infoStatusName":null,"dateDay":null,"orgNos":null,"nowTime":null,"countyName":null,"streetName":null,"villageName":null,"roadName":null,"communityName":null,"tranName":null,"sdLineName":null,"cityCode":"3340140","cityName":"国网浙江杭州市余杭区供电有限公司","provinceCode":null,"stopTime":"2018-06-15 18:30:00","powerType":"全部","powerOffArea":"110kV广济变:锦城开关站栖溪G220线塘栖多层公寓基建分线","powerOffReason":"塘栖多层公寓基建分线拆除，锦城开关站电缆拆除，新放电缆环入新上开关站。","powerOffId":"2018060131010207"},{"poweroffId":2018060131010192,"sgpoweroffId":null,"subsName":"","lineName":"10kV万市D338线","pubTranName":"田源村9#钱家公变,","scope":"浙江省-杭州市富阳区万市镇(田源行政村)田源村钱家一带","startTime":"2018-06-11 07:30:00","stopDate":"2018-06-11 17:20:00","orgNo":"3340170","typeCode":"计划停电","poweroffArea":"110kV万市变万市D338线田源村9号钱家公变后段","poweroffReason":"田源村9#钱家公变、白石坞01线、更换接户线、拆旧、安装抱箍6付、支架20只、更换照明表箱15只、架设BS-JKLYJ-2*25*300米、、搭接6处","powerTime":"2018-06-11 16:29:14","powerComm":"工作结束已送电","subsNo":"","lineNo":"","tgNo":"","tgName":null,"infoStatus":"1","orgName":"国网浙江杭州市富阳区供电公司","typeName":null,"infoStatusName":null,"dateDay":null,"orgNos":null,"nowTime":null,"countyName":null,"streetName":null,"villageName":null,"roadName":null,"communityName":null,"tranName":null,"sdLineName":null,"cityCode":"3340170","cityName":"国网浙江杭州市富阳区供电公司","provinceCode":null,"stopTime":"2018-06-11 17:20:00","powerType":"全部","powerOffArea":"110kV万市变万市D338线田源村9号钱家公变后段","powerOffReason":"田源村9#钱家公变、白石坞01线、更换接户线、拆旧、安装抱箍6付、支架20只、更换照明表箱15只、架设BS-JKLYJ-2*25*300米、、搭接6处","powerOffId":"2018060131010192"},{"poweroffId":2018060131010190,"sgpoweroffId":null,"subsName":"","lineName":"10kV渌渚D133线","pubTranName":"杨元村2#李家公变,","scope":"浙江省-杭州市-富阳区-渌渚镇(杨袁行政村-李家自然村);","startTime":"2018-06-11 07:30:00","stopDate":"2018-06-11 17:00:00","orgNo":"3340170","typeCode":"计划停电","poweroffArea":"110kV新登变:渌渚D133线-杨元村2#李家公变台区低压开关","poweroffReason":"照明01线、照明02线人工及吊车立杆12米2支，10米2支、架设导线JKLYJ-70*4*4档、安装横担10付、拉线5支、导线移位JKLYJ-70*4*3档、架设BS-JKLYJ-4*70*33米、更换落户线BS-JKLYJ-2*25*200米、拆除导线JKLYJ-35*4*4档、横担10付、拉线5支、导线搭接","powerTime":"2018-06-11 16:26:41","powerComm":"工作结束已送电","subsNo":"","lineNo":"","tgNo":"","tgName":null,"infoStatus":"1","orgName":"国网浙江杭州市富阳区供电公司","typeName":null,"infoStatusName":null,"dateDay":null,"orgNos":null,"nowTime":null,"countyName":null,"streetName":null,"villageName":null,"roadName":null,"communityName":null,"tranName":null,"sdLineName":null,"cityCode":"3340170","cityName":"国网浙江杭州市富阳区供电公司","provinceCode":null,"stopTime":"2018-06-11 17:00:00","powerType":"全部","powerOffArea":"110kV新登变:渌渚D133线-杨元村2#李家公变台区低压开关","powerOffReason":"照明01线、照明02线人工及吊车立杆12米2支，10米2支、架设导线JKLYJ-70*4*4档、安装横担10付、拉线5支、导线移位JKLYJ-70*4*3档、架设BS-JKLYJ-4*70*33米、更换落户线BS-JKLYJ-2*25*200米、拆除导线JKLYJ-35*4*4档、横担10付、拉线5支、导线搭接","powerOffId":"2018060131010190"}],"pageModel":{"pageNow":1722,"totalCount":17789,"totalPage":1779,"tableRows":0,"pageCount":10,"beginCount":17210},"isExperi":"1"}