{"message":"","today":"2020-06-16","seleList":[{"poweroffId":2018060131010186,"sgpoweroffId":null,"subsName":"","lineName":"10kV胥口D712线","pubTranName":"高联村8#田家公变,","scope":"浙江省-杭州市-富阳区-胥口镇(高联行政村-田家自然村);","startTime":"2018-06-11 07:30:00","stopDate":"2018-06-11 16:20:00","orgNo":"3340170","typeCode":"计划停电","poweroffArea":"110kV松溪变:胥口D712线-高联村8#田家公变台区低压开关","poweroffReason":"田家01线15#-15-6#杆架设BS－JKLYJ－４*７０*７档，拆除JKLYJ－７０*４*６档，导线搭接２处。","powerTime":"2018-06-11 15:54:43","powerComm":"工作结束已送电","subsNo":"","lineNo":"","tgNo":"","tgName":null,"infoStatus":"1","orgName":"国网浙江杭州市富阳区供电公司","typeName":null,"infoStatusName":null,"dateDay":null,"orgNos":null,"nowTime":null,"countyName":null,"streetName":null,"villageName":null,"roadName":null,"communityName":null,"tranName":null,"sdLineName":null,"cityCode":"3340170","cityName":"国网浙江杭州市富阳区供电公司","provinceCode":null,"stopTime":"2018-06-11 16:20:00","powerType":"全部","powerOffArea":"110kV松溪变:胥口D712线-高联村8#田家公变台区低压开关","powerOffReason":"田家01线15#-15-6#杆架设BS－JKLYJ－４*７０*７档，拆除JKLYJ－７０*４*６档，导线搭接２处。","powerOffId":"2018060131010186"},{"poweroffId":2018060131010166,"sgpoweroffId":null,"subsName":"","lineName":"10kV青江D784线","pubTranName":"马山村1#闻家公路边公变1,","scope":"浙江省-杭州市-富阳区-场口镇(马山行政村-闻家自然村)一带;","startTime":"2018-06-11 08:00:00","stopDate":"2018-06-11 12:10:00","orgNo":"3340170","typeCode":"计划停电","poweroffArea":"110kV王洲变:青江D784线-马山村1#闻家公路边公变1后段","poweroffReason":"拆除电缆等工作","powerTime":"2018-06-11 11:42:32","powerComm":"工作结束已送电","subsNo":"","lineNo":"","tgNo":"","tgName":null,"infoStatus":"1","orgName":"国网浙江杭州市富阳区供电公司","typeName":null,"infoStatusName":null,"dateDay":null,"orgNos":null,"nowTime":null,"countyName":null,"streetName":null,"villageName":null,"roadName":null,"communityName":null,"tranName":null,"sdLineName":null,"cityCode":"3340170","cityName":"国网浙江杭州市富阳区供电公司","provinceCode":null,"stopTime":"2018-06-11 12:10:00","powerType":"全部","powerOffArea":"110kV王洲变:青江D784线-马山村1#闻家公路边公变1后段","powerOffReason":"拆除电缆等工作","powerOffId":"2018060131010166"},{"poweroffId":2018060131010162,"sgpoweroffId":null,"subsName":"","lineName":"10kV梓树D973线","pubTranName":"富阳市路灯安装维修管理所,十月村4#新农村公变,","scope":"浙江省杭州市富阳区银湖街道十月村一带","startTime":"2018-06-11 08:30:00","stopDate":"2018-06-11 12:30:00","orgNo":"3340170","typeCode":"计划停电","poweroffArea":"110kV九龙变:梓树D973线-梓树T接四线后段","poweroffReason":"青云2018年高桥村20号高桥南路西公变等10kV配变增容布点工程：十月村4#新农村公变由200kVA增容至400kVA，并更换跌落式熔断器一组等工作。","powerTime":"2018-06-11 12:25:14","powerComm":"已送电","subsNo":"","lineNo":"","tgNo":"","tgName":null,"infoStatus":"1","orgName":"国网浙江杭州市富阳区供电公司","typeName":null,"infoStatusName":null,"dateDay":null,"orgNos":null,"nowTime":null,"countyName":null,"streetName":null,"villageName":null,"roadName":null,"communityName":null,"tranName":null,"sdLineName":null,"cityCode":"3340170","cityName":"国网浙江杭州市富阳区供电公司","provinceCode":null,"stopTime":"2018-06-11 12:30:00","powerType":"全部","powerOffArea":"110kV九龙变:梓树D973线-梓树T接四线后段","powerOffReason":"青云2018年高桥村20号高桥南路西公变等10kV配变增容布点工程：十月村4#新农村公变由200kVA增容至400kVA，并更换跌落式熔断器一组等工作。","powerOffId":"2018060131010162"},{"poweroffId":2018060131010161,"sgpoweroffId":null,"subsName":"","lineName":"10kV旧县T225线","pubTranName":"母岭村6号公变,母岭村3号公变,洪儒村5号公变,桐庐鑫联皮革助剂厂,母岭村7号公变,黄昌岭碎石厂,富泰金属有限公司,母岭村1号公变,桐庐林生石材有限公司,杭州高科建筑装饰有限公司,母岭村2号公变,","scope":"浙江省-杭州市-桐庐县-旧县街道(洪儒行政村-里畈坞自然村,母岭行政村-郭工塘自然村、洪洞山自然村、落山自然村、双塘头自然村、袁家非自然村);浙江省-杭州市-桐庐县-旧县街道(杭州高科建筑装饰有限公司,桐庐富泰金属管业有限公司,桐庐林生石材有限公司,桐庐鑫联皮革助剂厂,中国电建集团华东勘测设计研究院有限公司);","startTime":"2018-06-14 06:30:00","stopDate":"2018-06-14 10:30:00","orgNo":"3340150","typeCode":"计划停电","poweroffArea":"35kV西武变:旧县T225线-洪儒T2254开关后段","poweroffReason":"1、57-1号杆母岭F3264令克上引线拆除工作； 2、58号杆新母岭村2号公变分线令克上引线搭接工作； 3、原母岭村2号公变拆除配变、进出线电缆工作； 4、新母岭村2号公变进出线电缆搭接及线路割接工作； 5、母岭村分线调换线夹4处工作 6、开关保护调整等工作；","powerTime":"2018-06-14 10:21:07","powerComm":"已送电","subsNo":"","lineNo":"","tgNo":"","tgName":null,"infoStatus":"1","orgName":"国网浙江桐庐县供电公司","typeName":null,"infoStatusName":null,"dateDay":null,"orgNos":null,"nowTime":null,"countyName":null,"streetName":null,"villageName":null,"roadName":null,"communityName":null,"tranName":null,"sdLineName":null,"cityCode":"3340150","cityName":"国网浙江桐庐县供电公司","provinceCode":null,"stopTime":"2018-06-14 10:30:00","powerType":"全部","powerOffArea":"35kV西武变:旧县T225线-洪儒T2254开关后段","powerOffReason":"1、57-1号杆母岭F3264令克上引线拆除工作； 2、58号杆新母岭村2号公变分线令克上引线搭接工作； 3、原母岭村2号公变拆除配变、进出线电缆工作； 4、新母岭村2号公变进出线电缆搭接及线路割接工作； 5、母岭村分线调换线夹4处工作 6、开关保护调整等工作；","powerOffId":"2018060131010161"},{"poweroffId":2018060131010159,"sgpoweroffId":null,"subsName":"","lineName":"10kV旧县T225线","pubTranName":"洪儒村2号公变,桐庐娘岭坞旅游开发有限公司,桐庐华晟石材有限公司,上联村1号公变,合岭村4号公变,北京京水建设集团有限公司基建四,上峰村1号公变,四联村3号公变,桐庐威泰服饰有限公司,合岭村6号公变,桐庐恒昌服饰有限公司,浙江金华市顺泰水电建设有限公司基建二,合岭村5号公变,浙江金华市顺泰水电建设有限公司基建三,合岭村2号公变,上峰村3号公变,母岭村4号公变,浙江金华市顺泰水电建设有限公司基建一,洪儒村4号公变,桐庐华晟石材有限公司,合岭村1号公变,桐庐小鲍粉干厂,洪儒村1号公变,上峰村2号公变,洪儒村3号公变,浙江金华市顺泰水电建设有限公司基建四,上联村2号公变,杭州桐庐中亚制衣有限公司,上联村3号公变,娘岭坞1号公变,桐庐唐力墙体材料厂,上联村4号公变,旧县村6号公变,浙江金华市顺泰水电建设有限公司基建五,北京京水建设集团有限公司基建三,浙江金华市顺泰水电建设有限公司（基建）,合岭村3号公变,","scope":"浙江省-杭州市-桐庐县-旧县街道(合岭行政村-大岭头自然村、合岭自然村、上尹峰自然村、尹峰自然村,洪儒行政村-大山自然村、冷坑自然村、娘岭坞自然村,旧县行政村-旧县自然村,母岭行政村-黄昌岭自然村,上峰行政村-三里亭自然村、上毕桥自然村,上联行政村-上联自然村、移民村自然村、邬家边自然村,四联行政村-盛家边自然村);浙江省-杭州市-桐庐县-旧县街道(北京京水建设集团有限公司,杭州惠宝汽有限公司,杭州桐庐中亚制衣有限公司,桐庐恒昌服饰有限公司,桐庐华晟石材有限公司,桐庐娘岭坞旅游开发有限公司,桐庐唐力墙体材料厂,桐庐小鲍粉干厂,浙江金华市顺泰水电建设有限公司,浙江金华市顺泰水电建设有限公司二,浙江金华市顺泰水电建设有限公司三,浙江金华市顺泰水电建设有限公司四,浙江金华市顺泰水电建设有限公司五,浙江金华市顺泰水电建设有限公司一);","startTime":"2018-06-11 06:30:00","stopDate":"2018-06-11 10:30:00","orgNo":"3340150","typeCode":"计划停电","poweroffArea":"35kV西武变:旧县T225线-旧溪开关站洪儒H9153线间隔至洪儒5105开关","poweroffReason":"1、洪儒H9153线：1号杆安装智能开关、39号杆安装智能开关工作 2、大山分线：2号杆安装智能开关、8号杆拆除洪儒5103开关、65号杆洪儒5112开关调换成智能开关等工作","powerTime":"2018-06-11 10:20:33","powerComm":"已送电。","subsNo":"","lineNo":"","tgNo":"","tgName":null,"infoStatus":"1","orgName":"国网浙江桐庐县供电公司","typeName":null,"infoStatusName":null,"dateDay":null,"orgNos":null,"nowTime":null,"countyName":null,"streetName":null,"villageName":null,"roadName":null,"communityName":null,"tranName":null,"sdLineName":null,"cityCode":"3340150","cityName":"国网浙江桐庐县供电公司","provinceCode":null,"stopTime":"2018-06-11 10:30:00","powerType":"全部","powerOffArea":"35kV西武变:旧县T225线-旧溪开关站洪儒H9153线间隔至洪儒5105开关","powerOffReason":"1、洪儒H9153线：1号杆安装智能开关、39号杆安装智能开关工作 2、大山分线：2号杆安装智能开关、8号杆拆除洪儒5103开关、65号杆洪儒5112开关调换成智能开关等工作","powerOffId":"2018060131010159"},{"poweroffId":2018060131010153,"sgpoweroffId":null,"subsName":"","lineName":"10kV俞赵T121线","pubTranName":"拖拉机厂生活区,","scope":"浙江省-杭州市-桐庐县-富春江镇(杭州拖拉机厂生活区);","startTime":"2018-06-13 08:30:00","stopDate":"2018-06-13 12:30:00","orgNo":"3340150","typeCode":"计划停电","poweroffArea":"110kV外董变:俞赵T121线-杭拖F8027后段","poweroffReason":"1、俞赵T121线杭拖生活变分线3号杆至杭州爱丽娜房地产开发有限公司新装400KVA配变架设1档导线工作。2、俞赵T121线杭拖生活变分线3号杆新架线路搭火工作","powerTime":"2018-06-13 12:20:25","powerComm":"已送电","subsNo":"","lineNo":"","tgNo":"","tgName":null,"infoStatus":"1","orgName":"国网浙江桐庐县供电公司","typeName":null,"infoStatusName":null,"dateDay":null,"orgNos":null,"nowTime":null,"countyName":null,"streetName":null,"villageName":null,"roadName":null,"communityName":null,"tranName":null,"sdLineName":null,"cityCode":"3340150","cityName":"国网浙江桐庐县供电公司","provinceCode":null,"stopTime":"2018-06-13 12:30:00","powerType":"全部","powerOffArea":"110kV外董变:俞赵T121线-杭拖F8027后段","powerOffReason":"1、俞赵T121线杭拖生活变分线3号杆至杭州爱丽娜房地产开发有限公司新装400KVA配变架设1档导线工作。2、俞赵T121线杭拖生活变分线3号杆新架线路搭火工作","powerOffId":"2018060131010153"},{"poweroffId":2018060131010149,"sgpoweroffId":null,"subsName":"","lineName":"10kV北环272线","pubTranName":"南江六变,","scope":"浙江省 杭州市 滨江区 浦沿街道 南都江滨花园小区14幢、17幢、26幢一带","startTime":"2018-06-01 10:04:38","stopDate":"2018-06-01 16:04:39","orgNo":"3340101","typeCode":"电网故障停限电","poweroffArea":"110kV之江变:北环272线-南江六变后段","poweroffReason":"南江六变 低压设备故障","powerTime":"2018-06-01 10:25:57","powerComm":"已送电","subsNo":"","lineNo":"","tgNo":"","tgName":null,"infoStatus":"1","orgName":"浙江杭州电力客户服务中心","typeName":null,"infoStatusName":null,"dateDay":null,"orgNos":null,"nowTime":null,"countyName":null,"streetName":null,"villageName":null,"roadName":null,"communityName":null,"tranName":null,"sdLineName":null,"cityCode":"3340101","cityName":"浙江杭州电力客户服务中心","provinceCode":null,"stopTime":"2018-06-01 16:04:39","powerType":"全部","powerOffArea":"110kV之江变:北环272线-南江六变后段","powerOffReason":"南江六变 低压设备故障","powerOffId":"2018060131010149"},{"poweroffId":2018060131010123,"sgpoweroffId":null,"subsName":"","lineName":"10kV石材T143线","pubTranName":"桐庐宏大石材有限公司,桐庐林根石材有限公司,桐庐金惠石粉厂,桐庐中佳石雕花岗石工艺厂,桐庐国兴花岗石有限公司,桐庐宏宇建材有限公司,桐庐宏宇建材有限公司,桐庐永达石材工艺厂,桐庐戴记工艺花岗石有限公司,水埠1号公变,杭州安仁幕墙工程有限公司,下邵1号公变,桐庐旺达石材有限公司,桐庐华能花岗石工艺厂,桐庐钟山壮志工艺石料厂,桐庐县樟春石材厂,桐庐友棠花岗石有限公司,桐庐景程建材有限公司,杭州高峰蓝莓种植有限公司,林塘1号公变,桐庐巍达石材有限公司,吴宅4号公变,下畈2号公变,桐庐佳园石材工艺有限公司,桐庐县钟山下邵石粉厂,桐庐一方石材工艺有限公司,桐庐一方石材工艺有限公司,桐庐友棠花岗石有限公司,桐庐县民蕾石材工艺厂,桐庐诚兴工艺花岗石厂,桐庐民营石材有限公司,营业所1号公变,钟山下畈1号公变,桐庐大富石材有限公司,桐庐县钟山下邵石粉厂,桐庐县钟山乡人民政府,桐庐宋记工艺花岗石有限公司,桐庐中达石雕工艺有限公司,桐庐下邵加油站,吴宅3号公变,桐庐加信花岗石工艺厂,桐庐晨莉工艺石雕有限公司,水洞岭1号公变,陈爱英,吴桂生,青峰1号公变,下邵2号公变,双溪电站,桐庐中大立荣石材有限公司,桐庐县钟山盛隆休闲农庄,桐庐富康石材工艺厂,骆家电站1#专变,五步山1号公变,","scope":"浙江省-杭州市-桐庐县-钟山乡(中一行政村-青南山自然村、水洞岭自然村,钟山行政村-对面山自然村、上门自然村、邵家边自然村、水埠自然村、吴宅自然村、五步山自然村、下邵自然村、下畈自然村,莪山畲族乡、沈冠行政村-衣冠自然村、钟山东方石材工艺厂、桐庐城和石材工艺厂、桐庐誉全石材工艺有限公司、杭州固博幕墙装饰有限公司、桐庐德信石材有限公司、城下行政村、桐庐国政石材制品有限公司、浙江佳业达装饰工程有限公司、城下电站、杭州凯强石材雕刻有限公司、桐庐周氏石材有限公司、桐庐钟山仕下万能石料工艺品厂、杭州德力波石材有限公司、桐庐县凤根石料工艺品厂、桐庐顺达花岗石厂、钟山来荣石料工艺品厂、杭州荣俊装饰工程有限公司、强能石料工艺品厂、桐庐滕氏石材责任有限公司、桐庐县钟山乡志富工艺品厂、大市电站、桐庐中大立荣石材有限责任公司、桐庐钟山蜜梨专业合作社、桐庐源华仕夏青石矿、桐庐科特化工有限公司、钟山寺坞水库、长丘田电站、寺坞水库电站、桐庐县横村镇龙峰养殖场）","startTime":"2018-06-01 09:48:59","stopDate":"2018-06-01 18:12:49","orgNo":"3340150","typeCode":"电网故障停限电","poweroffArea":"35kV钟山变:石材T143线","poweroffReason":"低压开关故障处理","powerTime":"2018-06-01 17:41:06","powerComm":"已送电","subsNo":"","lineNo":"","tgNo":"","tgName":null,"infoStatus":"1","orgName":"国网浙江桐庐县供电公司","typeName":null,"infoStatusName":null,"dateDay":null,"orgNos":null,"nowTime":null,"countyName":null,"streetName":null,"villageName":null,"roadName":null,"communityName":null,"tranName":null,"sdLineName":null,"cityCode":"3340150","cityName":"国网浙江桐庐县供电公司","provinceCode":null,"stopTime":"2018-06-01 18:12:49","powerType":"全部","powerOffArea":"35kV钟山变:石材T143线","powerOffReason":"低压开关故障处理","powerOffId":"2018060131010123"},{"poweroffId":2018060131010119,"sgpoweroffId":null,"subsName":"","lineName":"10kV小教8854线","pubTranName":"屏风十一变,701军,屏峰七,屏峰八,屏风十三配变,屏风九变,屏风十四变,522厂,屏风（四）,屏风六,屏风五变,屏风十二变,","scope":"浙江省杭州市西湖区留下街道小和山社区屏风村附近一带","startTime":"2018-06-04 09:30:00","stopDate":"2018-06-04 21:30:00","orgNo":"3340101","typeCode":"计划停电","poweroffArea":"110kV留下变:小教8854线-屏东分线后段","poweroffReason":"杭州屏峰股份经济合作社10KV屏风五变和屏风十一变移位工程 PD2018-05-002-QX 屏东一站、屏风五站、屏风十站、屏风十一站移位","powerTime":"2018-06-04 17:33:08","powerComm":"已送电","subsNo":"","lineNo":"","tgNo":"","tgName":null,"infoStatus":"1","orgName":"浙江杭州电力客户服务中心","typeName":null,"infoStatusName":null,"dateDay":null,"orgNos":null,"nowTime":null,"countyName":null,"streetName":null,"villageName":null,"roadName":null,"communityName":null,"tranName":null,"sdLineName":null,"cityCode":"3340101","cityName":"浙江杭州电力客户服务中心","provinceCode":null,"stopTime":"2018-06-04 21:30:00","powerType":"全部","powerOffArea":"110kV留下变:小教8854线-屏东分线后段","powerOffReason":"杭州屏峰股份经济合作社10KV屏风五变和屏风十一变移位工程 PD2018-05-002-QX 屏东一站、屏风五站、屏风十站、屏风十一站移位","powerOffId":"2018060131010119"},{"poweroffId":2018060131010117,"sgpoweroffId":null,"subsName":"","lineName":"10kV俞赵T121线","pubTranName":"城投路灯变,严陵渡济沙厂供销站,农机学校,桐庐火葬场,","scope":"浙江省-杭州市-桐庐县-富春江镇(桐庐农机学校,桐庐县市政园林建设管理处,桐庐县严陵渡济沙石供销站,桐庐县殡仪馆);","startTime":"2018-06-11 07:00:00","stopDate":"2018-06-11 12:00:00","orgNo":"3340150","typeCode":"计划停电","poweroffArea":"110kV外董变:俞赵T121线-俞赵9119后段","poweroffReason":"俞赵T121线俞春联络线4号杆瓷瓶缺陷处理，4号-9号铁塔安装避雷器工作","powerTime":"2018-06-11 11:50:50","powerComm":"已送电。","subsNo":"","lineNo":"","tgNo":"","tgName":null,"infoStatus":"1","orgName":"国网浙江桐庐县供电公司","typeName":null,"infoStatusName":null,"dateDay":null,"orgNos":null,"nowTime":null,"countyName":null,"streetName":null,"villageName":null,"roadName":null,"communityName":null,"tranName":null,"sdLineName":null,"cityCode":"3340150","cityName":"国网浙江桐庐县供电公司","provinceCode":null,"stopTime":"2018-06-11 12:00:00","powerType":"全部","powerOffArea":"110kV外董变:俞赵T121线-俞赵9119后段","powerOffReason":"俞赵T121线俞春联络线4号杆瓷瓶缺陷处理，4号-9号铁塔安装避雷器工作","powerOffId":"2018060131010117"}],"pageModel":{"pageNow":1723,"totalCount":17789,"totalPage":1779,"tableRows":0,"pageCount":10,"beginCount":17220},"isExperi":"1"}