{"message":"","today":"2020-06-16","seleList":[{"poweroffId":2018060131010020,"sgpoweroffId":null,"subsName":"","lineName":"10kV三园Y325线","pubTranName":"三都工业园区台区,","scope":"浙江省-杭州市-建德市-三都镇三都工业功能园区一带用户。","startTime":"2018-06-01 06:55:00","stopDate":"2018-06-01 13:00:00","orgNo":"3340180","typeCode":"电网故障停限电","poweroffArea":"35kV三都变:三园Y325线-三都工业园区台区后段","poweroffReason":"三园Y325线-三都工业园区台区低压配电设备故障","powerTime":"2018-06-01 08:54:00","powerComm":"已送电","subsNo":"","lineNo":"","tgNo":"","tgName":null,"infoStatus":"1","orgName":"国网浙江建德市供电有限公司","typeName":null,"infoStatusName":null,"dateDay":null,"orgNos":null,"nowTime":null,"countyName":null,"streetName":null,"villageName":null,"roadName":null,"communityName":null,"tranName":null,"sdLineName":null,"cityCode":"3340180","cityName":"国网浙江建德市供电有限公司","provinceCode":null,"stopTime":"2018-06-01 13:00:00","powerType":"全部","powerOffArea":"35kV三都变:三园Y325线-三都工业园区台区后段","powerOffReason":"三园Y325线-三都工业园区台区低压配电设备故障","powerOffId":"2018060131010020"},{"poweroffId":2018053131010394,"sgpoweroffId":null,"subsName":"","lineName":"10kV胜峰T335线","pubTranName":"白云葛家山1号公变,","scope":"浙江省-杭州市-桐庐县-横村镇(白云行政村-大会山自然村);","startTime":"2018-05-31 18:28:03","stopDate":"2018-06-01 00:28:03","orgNo":"3340150","typeCode":"电网故障停限电","poweroffArea":"110kV横村变:胜峰T335线-大会F1726令克后段","poweroffReason":"低压开关故障","powerTime":"2018-05-31 22:17:58","powerComm":"已送电。","subsNo":"","lineNo":"","tgNo":"","tgName":null,"infoStatus":"1","orgName":"国网浙江桐庐县供电公司","typeName":null,"infoStatusName":null,"dateDay":null,"orgNos":null,"nowTime":null,"countyName":null,"streetName":null,"villageName":null,"roadName":null,"communityName":null,"tranName":null,"sdLineName":null,"cityCode":"3340150","cityName":"国网浙江桐庐县供电公司","provinceCode":null,"stopTime":"2018-06-01 00:28:03","powerType":"全部","powerOffArea":"110kV横村变:胜峰T335线-大会F1726令克后段","powerOffReason":"低压开关故障","powerOffId":"2018053131010394"},{"poweroffId":2018053131010393,"sgpoweroffId":null,"subsName":"","lineName":"10kV二桥C551线","pubTranName":"盈一村5#变,","scope":"浙江省-杭州市-萧山区-宁围镇、宁围街道、盈一行政村、盈一村等一带","startTime":"2018-05-31 18:16:48","stopDate":"2018-05-31 22:21:53","orgNo":"3340130","typeCode":"电网故障停限电","poweroffArea":"35kV钱江变:二桥C551线-盈一村5#变低压配电设施","poweroffReason":"低压配电设施故障","powerTime":"2018-05-31 21:42:31","powerComm":"已送电","subsNo":"","lineNo":"","tgNo":"","tgName":null,"infoStatus":"1","orgName":"国网浙江杭州市萧山区供电有限公司","typeName":null,"infoStatusName":null,"dateDay":null,"orgNos":null,"nowTime":null,"countyName":null,"streetName":null,"villageName":null,"roadName":null,"communityName":null,"tranName":null,"sdLineName":null,"cityCode":"3340130","cityName":"国网浙江杭州市萧山区供电有限公司","provinceCode":null,"stopTime":"2018-05-31 22:21:53","powerType":"全部","powerOffArea":"35kV钱江变:二桥C551线-盈一村5#变低压配电设施","powerOffReason":"低压配电设施故障","powerOffId":"2018053131010393"},{"poweroffId":2018053131010283,"sgpoweroffId":null,"subsName":"","lineName":"10kV东村A488线","pubTranName":"益农村9#变,","scope":"浙江省杭州市萧山区益农镇益农村、益农行政村一带","startTime":"2018-05-31 16:25:27","stopDate":"2018-05-31 23:30:14","orgNo":"3340130","typeCode":"电网故障停限电","poweroffArea":"110kV群围变:东村A488线-益农村9#变台区低压开关","poweroffReason":"低压架空导线断线故障","powerTime":"2018-05-31 21:55:56","powerComm":"已送电","subsNo":"","lineNo":"","tgNo":"","tgName":null,"infoStatus":"1","orgName":"国网浙江杭州市萧山区供电有限公司","typeName":null,"infoStatusName":null,"dateDay":null,"orgNos":null,"nowTime":null,"countyName":null,"streetName":null,"villageName":null,"roadName":null,"communityName":null,"tranName":null,"sdLineName":null,"cityCode":"3340130","cityName":"国网浙江杭州市萧山区供电有限公司","provinceCode":null,"stopTime":"2018-05-31 23:30:14","powerType":"全部","powerOffArea":"110kV群围变:东村A488线-益农村9#变台区低压开关","powerOffReason":"低压架空导线断线故障","powerOffId":"2018053131010283"},{"poweroffId":2018053131010280,"sgpoweroffId":null,"subsName":"","lineName":"10kV洋尾Y317线","pubTranName":"伊村村下畈台区变压器,伊村村伊村台区,伊村村伊子坞台区,","scope":"浙江省-杭州市-建德市-梅城镇 伊村行政村 伊村自然村、伊梓坞自然村、下畈自然村一带用户。","startTime":"2018-06-08 07:30:00","stopDate":"2018-06-08 17:30:00","orgNo":"3340180","typeCode":"计划停电","poweroffArea":"35kV大洋变:洋尾Y317线-伊村支线89杆令克后段","poweroffReason":"伊村支线101#-102#杆吊机立杆","powerTime":"2018-06-08 17:30:00","powerComm":"已送电","subsNo":"","lineNo":"","tgNo":"","tgName":null,"infoStatus":"1","orgName":"国网浙江建德市供电有限公司","typeName":null,"infoStatusName":null,"dateDay":null,"orgNos":null,"nowTime":null,"countyName":null,"streetName":null,"villageName":null,"roadName":null,"communityName":null,"tranName":null,"sdLineName":null,"cityCode":"3340180","cityName":"国网浙江建德市供电有限公司","provinceCode":null,"stopTime":"2018-06-08 17:30:00","powerType":"全部","powerOffArea":"35kV大洋变:洋尾Y317线-伊村支线89杆令克后段","powerOffReason":"伊村支线101#-102#杆吊机立杆","powerOffId":"2018053131010280"},{"poweroffId":2018053131010276,"sgpoweroffId":null,"subsName":"","lineName":"10kV寿昌Y172线","pubTranName":"寿昌集镇宋公桥公变,","scope":"浙江省-杭州市-建德市-寿昌镇 西湖社区 宋公桥一带用户。","startTime":"2018-06-08 08:00:00","stopDate":"2018-06-08 10:30:00","orgNo":"3340180","typeCode":"计划停电","poweroffArea":"110kV航头变:寿昌Y172线-寿昌集镇宋公桥公变后段","poweroffReason":"寿昌集镇宋公桥公变配变增容","powerTime":"2018-06-08 10:30:00","powerComm":"已送电","subsNo":"","lineNo":"","tgNo":"","tgName":null,"infoStatus":"1","orgName":"国网浙江建德市供电有限公司","typeName":null,"infoStatusName":null,"dateDay":null,"orgNos":null,"nowTime":null,"countyName":null,"streetName":null,"villageName":null,"roadName":null,"communityName":null,"tranName":null,"sdLineName":null,"cityCode":"3340180","cityName":"国网浙江建德市供电有限公司","provinceCode":null,"stopTime":"2018-06-08 10:30:00","powerType":"全部","powerOffArea":"110kV航头变:寿昌Y172线-寿昌集镇宋公桥公变后段","powerOffReason":"寿昌集镇宋公桥公变配变增容","powerOffId":"2018053131010276"},{"poweroffId":2018053131010275,"sgpoweroffId":null,"subsName":"","lineName":"10kV下涯Y301线","pubTranName":"长宁村隐将台区,长宁村大坞台区,长宁村汪家,","scope":"浙江省-杭州市-建德市-杨村桥镇 长宁行政村 大坞自然村、隐将自然村一带用户","startTime":"2018-06-08 08:00:00","stopDate":"2018-06-08 13:00:00","orgNo":"3340180","typeCode":"计划停电","poweroffArea":"110kV梅城变:下涯Y301线-隐蒋支线0#杆令克后段","poweroffReason":"长宁村隐蒋台区配变增容","powerTime":"2018-06-08 12:53:00","powerComm":"已送电","subsNo":"","lineNo":"","tgNo":"","tgName":null,"infoStatus":"1","orgName":"国网浙江建德市供电有限公司","typeName":null,"infoStatusName":null,"dateDay":null,"orgNos":null,"nowTime":null,"countyName":null,"streetName":null,"villageName":null,"roadName":null,"communityName":null,"tranName":null,"sdLineName":null,"cityCode":"3340180","cityName":"国网浙江建德市供电有限公司","provinceCode":null,"stopTime":"2018-06-08 13:00:00","powerType":"全部","powerOffArea":"110kV梅城变:下涯Y301线-隐蒋支线0#杆令克后段","powerOffReason":"长宁村隐蒋台区配变增容","powerOffId":"2018053131010275"},{"poweroffId":2018053131010267,"sgpoweroffId":null,"subsName":"","lineName":"10kV南丰C699线","pubTranName":"南丰村6#变,","scope":"浙江省-杭州市-萧山区-南阳街道南丰行政村-南丰自然村、南阳街道南丰村7组、南阳街道南丰村一带","startTime":"2018-05-31 15:56:21","stopDate":"2018-05-31 21:59:28","orgNo":"3340130","typeCode":"电网故障停限电","poweroffArea":"35kV赭山变:南丰C699线-南丰村6#变台区低压开关","poweroffReason":"低压架空导线断线故障","powerTime":"2018-05-31 19:18:19","powerComm":"已送电","subsNo":"","lineNo":"","tgNo":"","tgName":null,"infoStatus":"1","orgName":"国网浙江杭州市萧山区供电有限公司","typeName":null,"infoStatusName":null,"dateDay":null,"orgNos":null,"nowTime":null,"countyName":null,"streetName":null,"villageName":null,"roadName":null,"communityName":null,"tranName":null,"sdLineName":null,"cityCode":"3340130","cityName":"国网浙江杭州市萧山区供电有限公司","provinceCode":null,"stopTime":"2018-05-31 21:59:28","powerType":"全部","powerOffArea":"35kV赭山变:南丰C699线-南丰村6#变台区低压开关","powerOffReason":"低压架空导线断线故障","powerOffId":"2018053131010267"},{"poweroffId":2018053131010248,"sgpoweroffId":null,"subsName":"","lineName":"10kV白云230线","pubTranName":"香樟花园1号公变,","scope":"浙江省-杭州市-桐庐县-桐君街道桐君广场小区一带。","startTime":"2018-05-31 15:16:45","stopDate":"2018-05-31 21:16:45","orgNo":"3340150","typeCode":"电网故障停限电","poweroffArea":"35kV新区变:白云230线-香樟花园1号公变后段","poweroffReason":"低压开关故障","powerTime":"2018-05-31 15:36:38","powerComm":"已送电。","subsNo":"","lineNo":"","tgNo":"","tgName":null,"infoStatus":"1","orgName":"国网浙江桐庐县供电公司","typeName":null,"infoStatusName":null,"dateDay":null,"orgNos":null,"nowTime":null,"countyName":null,"streetName":null,"villageName":null,"roadName":null,"communityName":null,"tranName":null,"sdLineName":null,"cityCode":"3340150","cityName":"国网浙江桐庐县供电公司","provinceCode":null,"stopTime":"2018-05-31 21:16:45","powerType":"全部","powerOffArea":"35kV新区变:白云230线-香樟花园1号公变后段","powerOffReason":"低压开关故障","powerOffId":"2018053131010248"},{"poweroffId":2018053131010208,"sgpoweroffId":null,"subsName":"","lineName":"10kV儒桥181线","pubTranName":"1#,杭州昌元置业有限公司,桐庐县分水实验幼儿园教育集团,","scope":"浙江省-杭州市-桐庐县-分水镇(桐庐县分水实验幼儿园教育集团),浙江省-杭州市-桐庐县-分水镇(杭州昌元置业有限公司);","startTime":"2018-06-15 06:30:00","stopDate":"2018-06-15 14:30:00","orgNo":"3340150","typeCode":"计划停电","poweroffArea":"110kV分水变:儒桥181线-印桥1812开关1，印桥T1811线负荷开关之间","poweroffReason":"配合马源179线17号杆新布点400kVA配变搭火及低压割接工作","powerTime":"2018-06-15 14:14:40","powerComm":"已送电。","subsNo":"","lineNo":"","tgNo":"","tgName":null,"infoStatus":"1","orgName":"国网浙江桐庐县供电公司","typeName":null,"infoStatusName":null,"dateDay":null,"orgNos":null,"nowTime":null,"countyName":null,"streetName":null,"villageName":null,"roadName":null,"communityName":null,"tranName":null,"sdLineName":null,"cityCode":"3340150","cityName":"国网浙江桐庐县供电公司","provinceCode":null,"stopTime":"2018-06-15 14:30:00","powerType":"全部","powerOffArea":"110kV分水变:儒桥181线-印桥1812开关1，印桥T1811线负荷开关之间","powerOffReason":"配合马源179线17号杆新布点400kVA配变搭火及低压割接工作","powerOffId":"2018053131010208"}],"pageModel":{"pageNow":1725,"totalCount":17789,"totalPage":1779,"tableRows":0,"pageCount":10,"beginCount":17240},"isExperi":"1"}