{"message":"","today":"2020-06-16","seleList":[{"poweroffId":2018053131010207,"sgpoweroffId":null,"subsName":"","lineName":"10kV马源179线","pubTranName":"桐庐天山制笔厂,东溪铁路坑3号公变,东溪张家山2号公变,东溪铁路坑2号公变,杰烨文具,桐庐好雅利笔业有限公司,东溪移民点1号公变,杭州爱加文具有限公司,杭州爱加文具有限公司,中国石油化工,东溪沈家畈2号公变,东溪沈家畈1号公变,华创彩印厂,杭州世地普书写工具有限公司,国际金都2号专变变压器间隔配电变压器,杨荣生制笔,","scope":"浙江省-杭州市-桐庐县-分水镇(东溪行政村-东溪自然村、沈家畈自然村、铁路坑自然村、新安自然村、印丰自然村、张家山自然村);浙江省-杭州市-桐庐县-分水镇(杭州爱加文具有限公司,杭州鸿昌置业有限公司,桐庐好雅利笔业有限公司,桐庐华创彩印厂,桐庐杰烨文具礼品有限公司,桐庐凯达日用品有限公司,桐庐荣生制笔有限公司,桐庐天山制笔厂,中国石化销售有限公司浙江杭州石油分公司);","startTime":"2018-06-15 06:30:00","stopDate":"2018-06-15 14:54:33","orgNo":"3340150","typeCode":"计划停电","poweroffArea":"110kV分水变:马源179线-马源4121，马源4122之间","poweroffReason":"马源179线17号杆新布点400kVA配变搭火及低压割接工作","powerTime":"2018-06-15 14:15:24","powerComm":"已送电。","subsNo":"","lineNo":"","tgNo":"","tgName":null,"infoStatus":"1","orgName":"国网浙江桐庐县供电公司","typeName":null,"infoStatusName":null,"dateDay":null,"orgNos":null,"nowTime":null,"countyName":null,"streetName":null,"villageName":null,"roadName":null,"communityName":null,"tranName":null,"sdLineName":null,"cityCode":"3340150","cityName":"国网浙江桐庐县供电公司","provinceCode":null,"stopTime":"2018-06-15 14:54:33","powerType":"全部","powerOffArea":"110kV分水变:马源179线-马源4121，马源4122之间","powerOffReason":"马源179线17号杆新布点400kVA配变搭火及低压割接工作","powerOffId":"2018053131010207"},{"poweroffId":2018053131010192,"sgpoweroffId":null,"subsName":"","lineName":"10kV东山Y132线","pubTranName":"乾一村宋家台区,","scope":"浙江省-杭州市-建德市-乾潭镇 乾一行政村-宋家自然村一带用户。","startTime":"2018-05-31 13:30:00","stopDate":"2018-05-31 19:00:00","orgNo":"3340180","typeCode":"电网故障停限电","poweroffArea":"110kV乾潭变:东山Y132线-乾一村宋家台区后段","poweroffReason":"东山Y132线-乾一村宋家台区低压配电设备故障","powerTime":"2018-05-31 14:45:00","powerComm":"已送电","subsNo":"","lineNo":"","tgNo":"","tgName":null,"infoStatus":"1","orgName":"国网浙江建德市供电有限公司","typeName":null,"infoStatusName":null,"dateDay":null,"orgNos":null,"nowTime":null,"countyName":null,"streetName":null,"villageName":null,"roadName":null,"communityName":null,"tranName":null,"sdLineName":null,"cityCode":"3340180","cityName":"国网浙江建德市供电有限公司","provinceCode":null,"stopTime":"2018-05-31 19:00:00","powerType":"全部","powerOffArea":"110kV乾潭变:东山Y132线-乾一村宋家台区后段","powerOffReason":"东山Y132线-乾一村宋家台区低压配电设备故障","powerOffId":"2018053131010192"},{"poweroffId":2018053131010187,"sgpoweroffId":null,"subsName":"","lineName":"10kV长盘D722线","pubTranName":"和山村4#埠头公变,","scope":"浙江省杭州市富阳区新登镇长盘村、官塘村、和山村、湘河村、湘溪村、永昌村一带","startTime":"2018-05-31 13:18:52","stopDate":"2018-05-31 16:20:05","orgNo":"3340170","typeCode":"电网故障停限电","poweroffArea":"110kV松溪变:长盘D722线-和山村4#埠头公变后段","poweroffReason":"高压开关跳闸","powerTime":"2018-05-31 14:10:12","powerComm":"已送电","subsNo":"","lineNo":"","tgNo":"","tgName":null,"infoStatus":"1","orgName":"国网浙江杭州市富阳区供电公司","typeName":null,"infoStatusName":null,"dateDay":null,"orgNos":null,"nowTime":null,"countyName":null,"streetName":null,"villageName":null,"roadName":null,"communityName":null,"tranName":null,"sdLineName":null,"cityCode":"3340170","cityName":"国网浙江杭州市富阳区供电公司","provinceCode":null,"stopTime":"2018-05-31 16:20:05","powerType":"全部","powerOffArea":"110kV松溪变:长盘D722线-和山村4#埠头公变后段","powerOffReason":"高压开关跳闸","powerOffId":"2018053131010187"},{"poweroffId":2018053131010170,"sgpoweroffId":null,"subsName":"","lineName":"10kV水阁C233线","pubTranName":"大黄岭2#变,","scope":"浙江省-杭州市-萧山区-楼塔镇(大黄岭行政村-水阁里自然村、水阁自然村)一带","startTime":"2018-05-31 12:27:38","stopDate":"2018-05-31 15:00:58","orgNo":"3340130","typeCode":"电网故障停限电","poweroffArea":"35kV楼塔变:水阁C233线-大黄岭2#变低压开关","poweroffReason":"35kV楼塔变:水阁C233线-大黄岭2#变低压开关故障","powerTime":"2018-05-31 13:05:02","powerComm":"已送电","subsNo":"","lineNo":"","tgNo":"","tgName":null,"infoStatus":"1","orgName":"国网浙江杭州市萧山区供电有限公司","typeName":null,"infoStatusName":null,"dateDay":null,"orgNos":null,"nowTime":null,"countyName":null,"streetName":null,"villageName":null,"roadName":null,"communityName":null,"tranName":null,"sdLineName":null,"cityCode":"3340130","cityName":"国网浙江杭州市萧山区供电有限公司","provinceCode":null,"stopTime":"2018-05-31 15:00:58","powerType":"全部","powerOffArea":"35kV楼塔变:水阁C233线-大黄岭2#变低压开关","powerOffReason":"35kV楼塔变:水阁C233线-大黄岭2#变低压开关故障","powerOffId":"2018053131010170"},{"poweroffId":2018053131010121,"sgpoweroffId":null,"subsName":"","lineName":"10kV永众A705线","pubTranName":"2#电机,1#电机,杭州佳丽花边有限公司2#,杭州华意纺织有限公司,杭州佳丽花边有限公司1#,杭州升腾卫浴洁具有限公司2#,杭州逸彬化纤有限公司,杭州众艺布业有限公司,杭州聚卿针纺有限公司2#,杭州聚卿针纺有限公司3#,杭州聚卿针纺有限公司1#,永联村（镇海）7#变,杭州升腾卫浴洁具有限公司,杭州正大纺织有限公司,","scope":"浙江省杭州市萧山区瓜沥镇永联村（镇海）及杭州升腾卫浴洁具有限公司、杭州聚卿针纺有限公司、杭州佳丽花边有限公司、杭州新正大纺织有限公司、杭州正大纺织有限公司、杭州众艺布业有限公司、杭州逸彬化纤有限公司等一带","startTime":"2018-06-09 08:45:00","stopDate":"2018-06-09 17:45:00","orgNo":"3340130","typeCode":"计划停电","poweroffArea":"110kV白川变:永众A705线-永众A7051开关后段","poweroffReason":"永众A705线02#-02/01#杆拆导线1档；02/02#杆做拉线1组","powerTime":"2018-06-09 15:04:18","powerComm":"已送电","subsNo":"","lineNo":"","tgNo":"","tgName":null,"infoStatus":"1","orgName":"国网浙江杭州市萧山区供电有限公司","typeName":null,"infoStatusName":null,"dateDay":null,"orgNos":null,"nowTime":null,"countyName":null,"streetName":null,"villageName":null,"roadName":null,"communityName":null,"tranName":null,"sdLineName":null,"cityCode":"3340130","cityName":"国网浙江杭州市萧山区供电有限公司","provinceCode":null,"stopTime":"2018-06-09 17:45:00","powerType":"全部","powerOffArea":"110kV白川变:永众A705线-永众A7051开关后段","powerOffReason":"永众A705线02#-02/01#杆拆导线1档；02/02#杆做拉线1组","powerOffId":"2018053131010121"},{"poweroffId":2018053131010107,"sgpoweroffId":null,"subsName":"","lineName":"10kV正大A706线","pubTranName":"3#高压电机,杭州正大纺织有限公司1#,杭州正大纺织有限公司2#,杭州正大纺织有限公司2#,杭州正大纺织有限公司1#,4#电动机,","scope":"浙江省杭州市萧山区瓜沥镇杭州正大纺织有限公司等一带","startTime":"2018-06-09 08:45:00","stopDate":"2018-06-09 17:45:00","orgNo":"3340130","typeCode":"计划停电","poweroffArea":"110kV白川变:正大A706线-正大A7061开关后段","poweroffReason":"配合永众A705线02#杆分支割接至信源线","powerTime":"2018-06-09 15:03:20","powerComm":"已送电","subsNo":"","lineNo":"","tgNo":"","tgName":null,"infoStatus":"1","orgName":"国网浙江杭州市萧山区供电有限公司","typeName":null,"infoStatusName":null,"dateDay":null,"orgNos":null,"nowTime":null,"countyName":null,"streetName":null,"villageName":null,"roadName":null,"communityName":null,"tranName":null,"sdLineName":null,"cityCode":"3340130","cityName":"国网浙江杭州市萧山区供电有限公司","provinceCode":null,"stopTime":"2018-06-09 17:45:00","powerType":"全部","powerOffArea":"110kV白川变:正大A706线-正大A7061开关后段","powerOffReason":"配合永众A705线02#杆分支割接至信源线","powerOffId":"2018053131010107"},{"poweroffId":2018053131010094,"sgpoweroffId":null,"subsName":"","lineName":"10kV信源C665线","pubTranName":"永联村（镇海）8#变,高压电动机,杭州萧山王氏纺织有限公司,杭州均益纺织有限公司,1#变,杭州盛虹轻纺有限公司,杭州盛虹轻纺有限公司,杭州均益纺织有限公司2#,","scope":"浙江省杭州市萧山区瓜沥镇永联村（镇海）及杭州均益纺织有限公司、杭州盛虹轻纺有限公司、杭州依超板业有限公司、杭州萧山王氏纺织有限公司等一带","startTime":"2018-06-09 08:45:00","stopDate":"2018-06-09 17:45:00","orgNo":"3340130","typeCode":"计划停电","poweroffArea":"35kV长沙变:信源C665线-信源C6651开关后段","poweroffReason":"信源C665线30#-30/01#杆更换导线1档；30/01#杆做拉线1组，支出立12m/3支，架线4档，与永众A705线02/01#杆搭接","powerTime":"2018-06-09 14:57:45","powerComm":"已送电","subsNo":"","lineNo":"","tgNo":"","tgName":null,"infoStatus":"1","orgName":"国网浙江杭州市萧山区供电有限公司","typeName":null,"infoStatusName":null,"dateDay":null,"orgNos":null,"nowTime":null,"countyName":null,"streetName":null,"villageName":null,"roadName":null,"communityName":null,"tranName":null,"sdLineName":null,"cityCode":"3340130","cityName":"国网浙江杭州市萧山区供电有限公司","provinceCode":null,"stopTime":"2018-06-09 17:45:00","powerType":"全部","powerOffArea":"35kV长沙变:信源C665线-信源C6651开关后段","powerOffReason":"信源C665线30#-30/01#杆更换导线1档；30/01#杆做拉线1组，支出立12m/3支，架线4档，与永众A705线02/01#杆搭接","powerOffId":"2018053131010094"},{"poweroffId":2018053131010078,"sgpoweroffId":null,"subsName":"","lineName":"10kV凤亭8755线","pubTranName":"新昌(2),","scope":"浙江省-杭州市-拱墅区-拱宸桥街道(台州路社区-吉庆院小区10幢 11幢);","startTime":"2018-05-31 09:49:11","stopDate":"2018-05-31 15:49:11","orgNo":"3340101","typeCode":"电网故障停限电","poweroffArea":"110kV大关变:凤亭8755线-新昌(2)变","poweroffReason":"新昌(2)变 低压设备故障","powerTime":"2018-05-31 10:58:24","powerComm":"已送电","subsNo":"","lineNo":"","tgNo":"","tgName":null,"infoStatus":"1","orgName":"浙江杭州电力客户服务中心","typeName":null,"infoStatusName":null,"dateDay":null,"orgNos":null,"nowTime":null,"countyName":null,"streetName":null,"villageName":null,"roadName":null,"communityName":null,"tranName":null,"sdLineName":null,"cityCode":"3340101","cityName":"浙江杭州电力客户服务中心","provinceCode":null,"stopTime":"2018-05-31 15:49:11","powerType":"全部","powerOffArea":"110kV大关变:凤亭8755线-新昌(2)变","powerOffReason":"新昌(2)变 低压设备故障","powerOffId":"2018053131010078"},{"poweroffId":2018053131010058,"sgpoweroffId":null,"subsName":"","lineName":"10kV云石C954线","pubTranName":"沈村2#变,","scope":"浙江省-杭州市-萧山区-戴村镇(沈村行政村-沈村自然村);","startTime":"2018-06-15 09:00:00","stopDate":"2018-06-15 17:00:00","orgNo":"3340130","typeCode":"计划停电","poweroffArea":"110kV永兴变:云石C954线-沈村2#变后段","poweroffReason":"云石C954线114#杆沈村2#变EQC安装","powerTime":"2018-06-15 12:45:00","powerComm":"已送电","subsNo":"","lineNo":"","tgNo":"","tgName":null,"infoStatus":"1","orgName":"国网浙江杭州市萧山区供电有限公司","typeName":null,"infoStatusName":null,"dateDay":null,"orgNos":null,"nowTime":null,"countyName":null,"streetName":null,"villageName":null,"roadName":null,"communityName":null,"tranName":null,"sdLineName":null,"cityCode":"3340130","cityName":"国网浙江杭州市萧山区供电有限公司","provinceCode":null,"stopTime":"2018-06-15 17:00:00","powerType":"全部","powerOffArea":"110kV永兴变:云石C954线-沈村2#变后段","powerOffReason":"云石C954线114#杆沈村2#变EQC安装","powerOffId":"2018053131010058"},{"poweroffId":2018053131010057,"sgpoweroffId":null,"subsName":"","lineName":"10kV云石C954线","pubTranName":"枫桥村3#变,","scope":"浙江省-杭州市-萧山区-戴村镇(枫桥行政村-响石桥自然村);","startTime":"2018-06-15 08:30:00","stopDate":"2018-06-15 16:30:00","orgNo":"3340130","typeCode":"计划停电","poweroffArea":"110kV永兴变:云石C954线-枫桥村3#变后段","poweroffReason":"云石C954线156#杆枫桥村3#变EQC安装","powerTime":"2018-06-15 12:50:00","powerComm":"已送电","subsNo":"","lineNo":"","tgNo":"","tgName":null,"infoStatus":"1","orgName":"国网浙江杭州市萧山区供电有限公司","typeName":null,"infoStatusName":null,"dateDay":null,"orgNos":null,"nowTime":null,"countyName":null,"streetName":null,"villageName":null,"roadName":null,"communityName":null,"tranName":null,"sdLineName":null,"cityCode":"3340130","cityName":"国网浙江杭州市萧山区供电有限公司","provinceCode":null,"stopTime":"2018-06-15 16:30:00","powerType":"全部","powerOffArea":"110kV永兴变:云石C954线-枫桥村3#变后段","powerOffReason":"云石C954线156#杆枫桥村3#变EQC安装","powerOffId":"2018053131010057"}],"pageModel":{"pageNow":1726,"totalCount":17789,"totalPage":1779,"tableRows":0,"pageCount":10,"beginCount":17250},"isExperi":"1"}