{"message":"","today":"2020-06-16","seleList":[{"poweroffId":2018053131010056,"sgpoweroffId":null,"subsName":"","lineName":"10kV单家C167线","pubTranName":"聚宝实业,威廉兰鞋业,恒剑喷涂,杭州萧山荣丽布艺有限公司,罗幕村14#变,经伟织造,杭州蒙德里安纺织有限公司2#,大卫钢钉,裕隆工艺品,义桥镇人民政府,罗幕村16#变,新华化纤1315071313,罗幕村18#变,丁家庄8#变,萧山电信,杭州蒙德里安纺织有限公司1#,罗幕村17#变,罗幕村13#变,杭州盛睿德纺织有限公司,罗幕村19#变,华田五金,罗幕村22#变,","scope":"浙江省-杭州市-萧山区-义桥镇(丁家庄行政村-里丁家庄自然村,罗幕行政村-寺坞岭自然村、王家桥自然村、张家畈自然村);浙江省-杭州市-萧山区-义桥镇(杭州恒剑喷涂厂,杭州经纬织造有限公司,杭州聚宝实业有限公司,杭州蒙德里安纺织有限公司,杭州盛睿德纺织有限公司,杭州市萧山区义桥镇人民政府,杭州威廉兰鞋业有限公司,杭州萧山大卫钢钉厂,杭州萧山华田五金有限公司,杭州萧山荣丽布艺有限公司,杭州新华化纤织造有限公司,中国电信股份有限公司杭州萧山区分公司);","startTime":"2018-06-14 08:30:00","stopDate":"2018-06-14 15:15:00","orgNo":"3340130","typeCode":"计划停电","poweroffArea":"110kV许贤变:单家C167线-单家C167线王家桥分线开关后段","poweroffReason":"单家C167线23/19后段新立15米杆3基、12米杆5支、新放70导线3*62m、罗幕村村13#变新上400kVA一台、新装JP柜1台等","powerTime":"2018-06-14 15:05:00","powerComm":"已送电","subsNo":"","lineNo":"","tgNo":"","tgName":null,"infoStatus":"1","orgName":"国网浙江杭州市萧山区供电有限公司","typeName":null,"infoStatusName":null,"dateDay":null,"orgNos":null,"nowTime":null,"countyName":null,"streetName":null,"villageName":null,"roadName":null,"communityName":null,"tranName":null,"sdLineName":null,"cityCode":"3340130","cityName":"国网浙江杭州市萧山区供电有限公司","provinceCode":null,"stopTime":"2018-06-14 15:15:00","powerType":"全部","powerOffArea":"110kV许贤变:单家C167线-单家C167线王家桥分线开关后段","powerOffReason":"单家C167线23/19后段新立15米杆3基、12米杆5支、新放70导线3*62m、罗幕村村13#变新上400kVA一台、新装JP柜1台等","powerOffId":"2018053131010056"},{"poweroffId":2018053131010054,"sgpoweroffId":null,"subsName":"","lineName":"10kV马谷C956线","pubTranName":"青山村8#变,","scope":"浙江省-杭州市-萧山区-戴村镇(青山行政村-南坞自然村);","startTime":"2018-06-13 08:30:00","stopDate":"2018-06-13 16:30:00","orgNo":"3340130","typeCode":"计划停电","poweroffArea":"110kV永兴变:马谷C956线-青山村8#变后段","poweroffReason":"马谷C956线107/12/B07#杆青山村8#变EQC安装","powerTime":"2018-06-13 11:18:00","powerComm":"已送电","subsNo":"","lineNo":"","tgNo":"","tgName":null,"infoStatus":"1","orgName":"国网浙江杭州市萧山区供电有限公司","typeName":null,"infoStatusName":null,"dateDay":null,"orgNos":null,"nowTime":null,"countyName":null,"streetName":null,"villageName":null,"roadName":null,"communityName":null,"tranName":null,"sdLineName":null,"cityCode":"3340130","cityName":"国网浙江杭州市萧山区供电有限公司","provinceCode":null,"stopTime":"2018-06-13 16:30:00","powerType":"全部","powerOffArea":"110kV永兴变:马谷C956线-青山村8#变后段","powerOffReason":"马谷C956线107/12/B07#杆青山村8#变EQC安装","powerOffId":"2018053131010054"},{"poweroffId":2018053131010052,"sgpoweroffId":null,"subsName":"","lineName":"10kV江曹A525线","pubTranName":"曹坞村3#变,安山村6#变,江西俞9#变,曹坞村4#变,安山村7#变,曹坞村2#变,曹坞村6#变,恒胜鞋业,安山村4#变,安山村8#变,姚鲍坞机埠,安山村9#变,曹坞村7#变,金利浦制衣,曹坞村5#变,康富工艺鞋厂,曹坞村8#变,曹坞村1#变,","scope":"浙江省-杭州市-萧山区-浦阳镇(安山行政村-安山头自然村、曹家湾自然村、前朱自然村、渔池头自然村,曹坞行政村-上曹坞自然村、下曹坞自然村);浙江省-杭州市-萧山区-浦阳镇(杭州恒胜鞋业有限公司,杭州萧山金利浦制衣厂,姚鲍坞机埠);","startTime":"2018-06-12 08:30:00","stopDate":"2018-06-12 12:30:00","orgNo":"3340130","typeCode":"计划停电","poweroffArea":"110kV浦阳变:江曹A525线-江曹A5252开关，江曹A5253开关之间","poweroffReason":"江曹A525线64/06#、新立15米杆2支、新放线一档、、曹坞村2#变移位增量至400kVA新装40L智能箱1台等","powerTime":"2018-06-12 11:54:00","powerComm":"已送电","subsNo":"","lineNo":"","tgNo":"","tgName":null,"infoStatus":"1","orgName":"国网浙江杭州市萧山区供电有限公司","typeName":null,"infoStatusName":null,"dateDay":null,"orgNos":null,"nowTime":null,"countyName":null,"streetName":null,"villageName":null,"roadName":null,"communityName":null,"tranName":null,"sdLineName":null,"cityCode":"3340130","cityName":"国网浙江杭州市萧山区供电有限公司","provinceCode":null,"stopTime":"2018-06-12 12:30:00","powerType":"全部","powerOffArea":"110kV浦阳变:江曹A525线-江曹A5252开关，江曹A5253开关之间","powerOffReason":"江曹A525线64/06#、新立15米杆2支、新放线一档、、曹坞村2#变移位增量至400kVA新装40L智能箱1台等","powerOffId":"2018053131010052"},{"poweroffId":2018053131010051,"sgpoweroffId":null,"subsName":"","lineName":"10kV进镇A362线","pubTranName":"华锋村4#变,","scope":"浙江省-杭州市-萧山区-进化镇(华锋行政村-石柱头自然村);","startTime":"2018-06-29 09:00:00","stopDate":"2018-06-29 17:00:00","orgNo":"3340130","typeCode":"计划停电","poweroffArea":"110kV进化变:进镇A362线-华锋村4#变后段","poweroffReason":"王闸开G11龙岗分线36/13/02#杆华锋村04#变EQC安装","powerTime":"2018-06-29 11:10:00","powerComm":"已送电","subsNo":"","lineNo":"","tgNo":"","tgName":null,"infoStatus":"1","orgName":"国网浙江杭州市萧山区供电有限公司","typeName":null,"infoStatusName":null,"dateDay":null,"orgNos":null,"nowTime":null,"countyName":null,"streetName":null,"villageName":null,"roadName":null,"communityName":null,"tranName":null,"sdLineName":null,"cityCode":"3340130","cityName":"国网浙江杭州市萧山区供电有限公司","provinceCode":null,"stopTime":"2018-06-29 17:00:00","powerType":"全部","powerOffArea":"110kV进化变:进镇A362线-华锋村4#变后段","powerOffReason":"王闸开G11龙岗分线36/13/02#杆华锋村04#变EQC安装","powerOffId":"2018053131010051"},{"poweroffId":2018053131010050,"sgpoweroffId":null,"subsName":"","lineName":"10kV进镇A362线","pubTranName":"华锋村1#变,","scope":"浙江省-杭州市-萧山区-进化镇(华锋行政村-华新自然村);","startTime":"2018-06-29 08:30:00","stopDate":"2018-06-29 16:30:00","orgNo":"3340130","typeCode":"计划停电","poweroffArea":"110kV进化变:进镇A362线-华锋村1#变后段","poweroffReason":"王闸开G11龙岗分线45/07/02#杆华锋村01#变EQC安装","powerTime":"2018-06-29 11:09:00","powerComm":"已送电","subsNo":"","lineNo":"","tgNo":"","tgName":null,"infoStatus":"1","orgName":"国网浙江杭州市萧山区供电有限公司","typeName":null,"infoStatusName":null,"dateDay":null,"orgNos":null,"nowTime":null,"countyName":null,"streetName":null,"villageName":null,"roadName":null,"communityName":null,"tranName":null,"sdLineName":null,"cityCode":"3340130","cityName":"国网浙江杭州市萧山区供电有限公司","provinceCode":null,"stopTime":"2018-06-29 16:30:00","powerType":"全部","powerOffArea":"110kV进化变:进镇A362线-华锋村1#变后段","powerOffReason":"王闸开G11龙岗分线45/07/02#杆华锋村01#变EQC安装","powerOffId":"2018053131010050"},{"poweroffId":2018053131010045,"sgpoweroffId":null,"subsName":"","lineName":"10kV联中T204线","pubTranName":"徐家埠公寓1号公变,","scope":"浙江省-杭州市-桐庐县-横村镇(城东行政村-桐千路、徐家埠公寓);","startTime":"2018-05-31 09:07:41","stopDate":"2018-05-31 15:07:41","orgNo":"3340150","typeCode":"电网故障停限电","poweroffArea":"110kV方埠变:联中T204线-徐家埠公寓1号公变后段","poweroffReason":"低压开关故障","powerTime":"2018-05-31 14:59:44","powerComm":"已送电","subsNo":"","lineNo":"","tgNo":"","tgName":null,"infoStatus":"1","orgName":"国网浙江桐庐县供电公司","typeName":null,"infoStatusName":null,"dateDay":null,"orgNos":null,"nowTime":null,"countyName":null,"streetName":null,"villageName":null,"roadName":null,"communityName":null,"tranName":null,"sdLineName":null,"cityCode":"3340150","cityName":"国网浙江桐庐县供电公司","provinceCode":null,"stopTime":"2018-05-31 15:07:41","powerType":"全部","powerOffArea":"110kV方埠变:联中T204线-徐家埠公寓1号公变后段","powerOffReason":"低压开关故障","powerOffId":"2018053131010045"},{"poweroffId":2018053131010044,"sgpoweroffId":null,"subsName":"","lineName":"10kV胥口D712线","pubTranName":"平畈村7#井坞里公变,","scope":"浙江省-杭州市-富阳区-胥口镇(平畈行政村-井坞里自然村、潘家自然村);","startTime":"2018-05-31 09:20:00","stopDate":"2018-05-31 10:40:00","orgNo":"3340170","typeCode":"电网故障停限电","poweroffArea":"110kV松溪变:胥口D712线-平畈村7#井坞里公变后段","poweroffReason":"低压配电设备故障","powerTime":"2018-05-31 10:19:13","powerComm":"已送电","subsNo":"","lineNo":"","tgNo":"","tgName":null,"infoStatus":"1","orgName":"国网浙江杭州市富阳区供电公司","typeName":null,"infoStatusName":null,"dateDay":null,"orgNos":null,"nowTime":null,"countyName":null,"streetName":null,"villageName":null,"roadName":null,"communityName":null,"tranName":null,"sdLineName":null,"cityCode":"3340170","cityName":"国网浙江杭州市富阳区供电公司","provinceCode":null,"stopTime":"2018-05-31 10:40:00","powerType":"全部","powerOffArea":"110kV松溪变:胥口D712线-平畈村7#井坞里公变后段","powerOffReason":"低压配电设备故障","powerOffId":"2018053131010044"},{"poweroffId":2018053131010037,"sgpoweroffId":null,"subsName":"","lineName":"10kV黎明6958线","pubTranName":"城东投资2#,高泵,龙孜投资4#,白区（2）,白区（1）,原房（十三）,白区（3）,原房（十二）,龙孜投资5#,龙孜投资6#,城东投资3#,原房（二）,东润3#,原房（八）,原房（一）,黎明（11-1）农,白石(2)农,原房（十一）,原房（九）,东投（6）,东润1#,原房（十五）,三阳建设,原房（十）,龙孜投资3#,原房（三）,白石寺庙,白石(2-1)农,城东投资1#,原房（四）,东润4#,原房（五）,原房（七）,原房（十四）,东润2#,原房（六）,东投（7）,龙孜投资2#,龙孜投资1#,","scope":"浙江省-杭州市-江干区-笕桥镇(白石社区,黎明社区-德胜东路,浜河社区),笕桥街道(黎明社区-原筑壹号小区);浙江省-杭州市-江干区(杭州三阳建设工程有限公司,杭州市城东新城建设投资有限公司,杭州市江干区笕桥镇白石社区居民委员会,杭州市市政设施监管中心,杭州正盛商务信息咨询有限公司,笕桥镇白石社区居民委员会);","startTime":"2018-05-31 08:43:27","stopDate":"2018-05-31 14:43:27","orgNo":"3340101","typeCode":"电网故障停限电","poweroffArea":"110kV彭埠变:黎明6958线","poweroffReason":"高压开关跳闸","powerTime":"2018-05-31 10:40:48","powerComm":"已送电","subsNo":"","lineNo":"","tgNo":"","tgName":null,"infoStatus":"1","orgName":"浙江杭州电力客户服务中心","typeName":null,"infoStatusName":null,"dateDay":null,"orgNos":null,"nowTime":null,"countyName":null,"streetName":null,"villageName":null,"roadName":null,"communityName":null,"tranName":null,"sdLineName":null,"cityCode":"3340101","cityName":"浙江杭州电力客户服务中心","provinceCode":null,"stopTime":"2018-05-31 14:43:27","powerType":"全部","powerOffArea":"110kV彭埠变:黎明6958线","powerOffReason":"高压开关跳闸","powerOffId":"2018053131010037"},{"poweroffId":2018053031010338,"sgpoweroffId":null,"subsName":"","lineName":"10kV付墩A352线","pubTranName":"凤凰山5#变,","scope":"浙江省-杭州市-萧山区-进化镇(凤凰山行政村-安山陈自然村)，浙江省杭州市萧山区进化镇安山陈等一带","startTime":"2018-05-30 19:05:00","stopDate":"2018-05-31 01:05:00","orgNo":"3340130","typeCode":"电网故障停限电","poweroffArea":"110kV进化变:付墩A352线凤凰山5#低压开关","poweroffReason":"110kV进化变:付墩A352线凤凰山5#低压开关故障","powerTime":"2018-05-30 20:06:25","powerComm":"已送电","subsNo":"","lineNo":"","tgNo":"","tgName":null,"infoStatus":"1","orgName":"国网浙江杭州市萧山区供电有限公司","typeName":null,"infoStatusName":null,"dateDay":null,"orgNos":null,"nowTime":null,"countyName":null,"streetName":null,"villageName":null,"roadName":null,"communityName":null,"tranName":null,"sdLineName":null,"cityCode":"3340130","cityName":"国网浙江杭州市萧山区供电有限公司","provinceCode":null,"stopTime":"2018-05-31 01:05:00","powerType":"全部","powerOffArea":"110kV进化变:付墩A352线凤凰山5#低压开关","powerOffReason":"110kV进化变:付墩A352线凤凰山5#低压开关故障","powerOffId":"2018053031010338"},{"poweroffId":2018053031010337,"sgpoweroffId":null,"subsName":"","lineName":"10kV大洲Y152线","pubTranName":"春秋村苏家台区,","scope":"浙江省-杭州市-建德市 下涯镇春秋行政村苏家29号一带用户。","startTime":"2018-05-30 18:48:00","stopDate":"2018-05-31 00:53:38","orgNo":"3340180","typeCode":"电网故障停限电","poweroffArea":"110kV沿口变:大洲Y152线-春秋村苏家台区后段","poweroffReason":"大洲Y152线-春秋村苏家台区 低压配电设备故障","powerTime":"2018-05-30 19:28:11","powerComm":"已送电","subsNo":"","lineNo":"","tgNo":"","tgName":null,"infoStatus":"1","orgName":"国网浙江建德市供电有限公司","typeName":null,"infoStatusName":null,"dateDay":null,"orgNos":null,"nowTime":null,"countyName":null,"streetName":null,"villageName":null,"roadName":null,"communityName":null,"tranName":null,"sdLineName":null,"cityCode":"3340180","cityName":"国网浙江建德市供电有限公司","provinceCode":null,"stopTime":"2018-05-31 00:53:38","powerType":"全部","powerOffArea":"110kV沿口变:大洲Y152线-春秋村苏家台区后段","powerOffReason":"大洲Y152线-春秋村苏家台区 低压配电设备故障","powerOffId":"2018053031010337"}],"pageModel":{"pageNow":1727,"totalCount":17789,"totalPage":1779,"tableRows":0,"pageCount":10,"beginCount":17260},"isExperi":"1"}