{"message":"","today":"2020-06-16","seleList":[{"poweroffId":2018053031010020,"sgpoweroffId":null,"subsName":"","lineName":"休闲108线","pubTranName":"","scope":"浙江省杭州市临安市锦城街道吴越山庄小区,浙江锦尚房地产开发有限公司,宋城凌云,杜渭平,杭州和禾物业管理有限公司余村安置小区,余村[北山脚]等附近一带","startTime":"2018-05-30 06:15:05","stopDate":"2018-05-30 12:15:05","orgNo":"3340160","typeCode":"电网故障停限电","poweroffArea":"停临安变休闲108线吴越山庄公变低压开关","poweroffReason":"休闲108线吴越山庄公变低压开关故障处理","powerTime":"2018-05-30 07:50:29","powerComm":"已送电","subsNo":"","lineNo":"","tgNo":"","tgName":null,"infoStatus":"1","orgName":"国网浙江临安市供电公司","typeName":null,"infoStatusName":null,"dateDay":null,"orgNos":null,"nowTime":null,"countyName":null,"streetName":null,"villageName":null,"roadName":null,"communityName":null,"tranName":null,"sdLineName":null,"cityCode":"3340160","cityName":"国网浙江临安市供电公司","provinceCode":null,"stopTime":"2018-05-30 12:15:05","powerType":"全部","powerOffArea":"停临安变休闲108线吴越山庄公变低压开关","powerOffReason":"休闲108线吴越山庄公变低压开关故障处理","powerOffId":"2018053031010020"},{"poweroffId":2018053031010016,"sgpoweroffId":null,"subsName":"","lineName":"10kV东曹A189线","pubTranName":"三峰村2#变,","scope":"浙江省-杭州市-萧山区-临浦镇(三峰行政村-东曹自然村、周家湖自然村)、浙江省杭州市萧山区临浦镇三峰行政村后山坞自然村133号一带","startTime":"2018-05-30 05:44:30","stopDate":"2018-05-30 11:49:59","orgNo":"3340130","typeCode":"电网故障停限电","poweroffArea":"110kV群建变:东曹A189线-三峰村2#变低压开关","poweroffReason":"110kV群建变:东曹A189线-三峰村2#变低压开关故障","powerTime":"2018-05-30 06:29:37","powerComm":"已送电","subsNo":"","lineNo":"","tgNo":"","tgName":null,"infoStatus":"1","orgName":"国网浙江杭州市萧山区供电有限公司","typeName":null,"infoStatusName":null,"dateDay":null,"orgNos":null,"nowTime":null,"countyName":null,"streetName":null,"villageName":null,"roadName":null,"communityName":null,"tranName":null,"sdLineName":null,"cityCode":"3340130","cityName":"国网浙江杭州市萧山区供电有限公司","provinceCode":null,"stopTime":"2018-05-30 11:49:59","powerType":"全部","powerOffArea":"110kV群建变:东曹A189线-三峰村2#变低压开关","powerOffReason":"110kV群建变:东曹A189线-三峰村2#变低压开关故障","powerOffId":"2018053031010016"},{"poweroffId":2018052931010266,"sgpoweroffId":null,"subsName":"","lineName":"10kV宁承8448线","pubTranName":"变压器,杨家(7)西农,环卫,开发,天堂,杨家（7）东农,杨开,","scope":"浙江省-杭州市-下城区-石桥街道(杨家社区);(杭州北辰电子设备有限公司,杭州金通汽车修理有限公司,杭州师范大学,杭州杨家村经济合作社);","startTime":"2018-05-29 18:32:32","stopDate":"2018-05-29 23:32:32","orgNo":"3340101","typeCode":"电网故障停限电","poweroffArea":"110kV永宁变:宁承8448线-杨七组分线后段","poweroffReason":"高压开关跳闸","powerTime":"2018-05-29 21:28:29","powerComm":"已送电","subsNo":"","lineNo":"","tgNo":"","tgName":null,"infoStatus":"1","orgName":"浙江杭州电力客户服务中心","typeName":null,"infoStatusName":null,"dateDay":null,"orgNos":null,"nowTime":null,"countyName":null,"streetName":null,"villageName":null,"roadName":null,"communityName":null,"tranName":null,"sdLineName":null,"cityCode":"3340101","cityName":"浙江杭州电力客户服务中心","provinceCode":null,"stopTime":"2018-05-29 23:32:32","powerType":"全部","powerOffArea":"110kV永宁变:宁承8448线-杨七组分线后段","powerOffReason":"高压开关跳闸","powerOffId":"2018052931010266"},{"poweroffId":2018052931010242,"sgpoweroffId":null,"subsName":"","lineName":"10kV洋尾Y317线","pubTranName":"高垣村江山台区,高垣村龙门岩台区,","scope":"浙江省-杭州市-建德市-大洋镇 高垣行政村 江山自然村、龙门岩自然村一带用户。","startTime":"2018-06-06 06:00:00","stopDate":"2018-06-06 17:00:00","orgNo":"3340180","typeCode":"计划停电","poweroffArea":"35kV大洋变:洋尾Y317线-塔后支线18#令克后段","poweroffReason":"后支线配电线路及设备大修工程","powerTime":"2018-06-06 17:00:00","powerComm":"已送电","subsNo":"","lineNo":"","tgNo":"","tgName":null,"infoStatus":"1","orgName":"国网浙江建德市供电有限公司","typeName":null,"infoStatusName":null,"dateDay":null,"orgNos":null,"nowTime":null,"countyName":null,"streetName":null,"villageName":null,"roadName":null,"communityName":null,"tranName":null,"sdLineName":null,"cityCode":"3340180","cityName":"国网浙江建德市供电有限公司","provinceCode":null,"stopTime":"2018-06-06 17:00:00","powerType":"全部","powerOffArea":"35kV大洋变:洋尾Y317线-塔后支线18#令克后段","powerOffReason":"后支线配电线路及设备大修工程","powerOffId":"2018052931010242"},{"poweroffId":2018052931010241,"sgpoweroffId":null,"subsName":"","lineName":"10kV新更Y119线","pubTranName":"梅坪村后邵畈台区,","scope":"浙江省-杭州市-建德市-新安江街道 梅坪行政村 后邵畈自然村一带用户。","startTime":"2018-06-06 07:30:00","stopDate":"2018-06-06 12:30:00","orgNo":"3340180","typeCode":"计划停电","poweroffArea":"110kV新安江变:新更Y119线-后邵畈公变令克后段","poweroffReason":"梅坪村后邵畈台区配变增容","powerTime":"2018-06-06 12:30:00","powerComm":"已送电","subsNo":"","lineNo":"","tgNo":"","tgName":null,"infoStatus":"1","orgName":"国网浙江建德市供电有限公司","typeName":null,"infoStatusName":null,"dateDay":null,"orgNos":null,"nowTime":null,"countyName":null,"streetName":null,"villageName":null,"roadName":null,"communityName":null,"tranName":null,"sdLineName":null,"cityCode":"3340180","cityName":"国网浙江建德市供电有限公司","provinceCode":null,"stopTime":"2018-06-06 12:30:00","powerType":"全部","powerOffArea":"110kV新安江变:新更Y119线-后邵畈公变令克后段","powerOffReason":"梅坪村后邵畈台区配变增容","powerOffId":"2018052931010241"},{"poweroffId":2018052931010237,"sgpoweroffId":null,"subsName":"","lineName":"10kV千鹤Y121线","pubTranName":"城西村下高台区,","scope":"浙江省-杭州市-建德市-梅城镇 城西行政村 下高自然村一带用户。","startTime":"2018-06-06 08:00:00","stopDate":"2018-06-06 11:00:00","orgNo":"3340180","typeCode":"计划停电","poweroffArea":"110kV梅城变:千鹤Y121线-城西村下高台区后段","poweroffReason":"城西村下高台区配变增容","powerTime":"2018-06-06 11:00:00","powerComm":"已送电","subsNo":"","lineNo":"","tgNo":"","tgName":null,"infoStatus":"1","orgName":"国网浙江建德市供电有限公司","typeName":null,"infoStatusName":null,"dateDay":null,"orgNos":null,"nowTime":null,"countyName":null,"streetName":null,"villageName":null,"roadName":null,"communityName":null,"tranName":null,"sdLineName":null,"cityCode":"3340180","cityName":"国网浙江建德市供电有限公司","provinceCode":null,"stopTime":"2018-06-06 11:00:00","powerType":"全部","powerOffArea":"110kV梅城变:千鹤Y121线-城西村下高台区后段","powerOffReason":"城西村下高台区配变增容","powerOffId":"2018052931010237"},{"poweroffId":2018052931010234,"sgpoweroffId":null,"subsName":"","lineName":"10kV陡门H775线","pubTranName":"耀恒塑业,下陡门村仇山二组公变,下陡门村仇岐公变,屠美芳拌合厂,部队机埠,水产养殖场,下陡门村小山机埠公变,下陡门村仇山农居公变,鼎盛交通二绕西复线下斗门2#变,下陡门村沈家塘公变,仇岐2#变,下陡门村港罕新桥公变,小区消防部队,","scope":"浙江省杭州市余杭区余杭街道:耀恒塑业厂、屠美芳拌合厂、下陡门村小山泵站、下陡门村小山消防部队、下陡门村仇岐、下陡门村港罕新桥、下陡门村仇山四组、下陡门村沈家塘、下陡门村仇山农居点、下陡门村仇山、下陡门村仇山二组、水产养殖场一带","startTime":"2018-06-05 07:40:00","stopDate":"2018-06-05 18:30:00","orgNo":"3340140","typeCode":"计划停电","poweroffArea":"35kV长岗临时变:陡门H775线-港罕小山分线开关后段","poweroffReason":"港罕小山分线，百优工程整改","powerTime":"2018-06-05 18:20:36","powerComm":"已全部送电","subsNo":"","lineNo":"","tgNo":"","tgName":null,"infoStatus":"1","orgName":"国网浙江杭州市余杭区供电有限公司","typeName":null,"infoStatusName":null,"dateDay":null,"orgNos":null,"nowTime":null,"countyName":null,"streetName":null,"villageName":null,"roadName":null,"communityName":null,"tranName":null,"sdLineName":null,"cityCode":"3340140","cityName":"国网浙江杭州市余杭区供电有限公司","provinceCode":null,"stopTime":"2018-06-05 18:30:00","powerType":"全部","powerOffArea":"35kV长岗临时变:陡门H775线-港罕小山分线开关后段","powerOffReason":"港罕小山分线，百优工程整改","powerOffId":"2018052931010234"},{"poweroffId":2018052931010156,"sgpoweroffId":null,"subsName":"","lineName":"10kV双义253线","pubTranName":"王家村1号公变,","scope":"浙江省-杭州市-桐庐县-江南镇(王家村一带)","startTime":"2018-06-06 07:30:00","stopDate":"2018-06-06 17:30:00","orgNo":"3340150","typeCode":"计划停电","poweroffArea":"110kV石阜变:双义253线-奚家F5150令克后段","poweroffReason":"金具安装、JP柜安装、更换穿户线、更换低压出线电缆及搭接工作","powerTime":"2018-06-06 17:20:14","powerComm":"已送电","subsNo":"","lineNo":"","tgNo":"","tgName":null,"infoStatus":"1","orgName":"国网浙江桐庐县供电公司","typeName":null,"infoStatusName":null,"dateDay":null,"orgNos":null,"nowTime":null,"countyName":null,"streetName":null,"villageName":null,"roadName":null,"communityName":null,"tranName":null,"sdLineName":null,"cityCode":"3340150","cityName":"国网浙江桐庐县供电公司","provinceCode":null,"stopTime":"2018-06-06 17:30:00","powerType":"全部","powerOffArea":"110kV石阜变:双义253线-奚家F5150令克后段","powerOffReason":"金具安装、JP柜安装、更换穿户线、更换低压出线电缆及搭接工作","powerOffId":"2018052931010156"},{"poweroffId":2018052931010152,"sgpoweroffId":null,"subsName":"","lineName":"10kV双义253线","pubTranName":"桐庐永东建材有限公司1号专变,奚家村2号公变,王家村2号公变,浙江星耀花炮有限公司,桐庐永东建材有限公司2号专变,桐庐云都珍禽养殖场,王家村1号公变,珠山村自来水,桐庐宏兴新型墙体材料厂,杭州运东建材有限公司,浙江星耀花炮有限公司,","scope":"浙江省-杭州市-桐庐县-江南镇(珠山行政村-王家自然村、奚家自然村);浙江省-杭州市-桐庐县-江南镇(杭州运东建材有限公司,桐庐宏兴新型墙体材料厂,桐庐永东建材有限公司,桐庐云都珍禽养殖场,浙江星耀花炮有限公司,珠山村自来水);","startTime":"2018-06-06 08:00:00","stopDate":"2018-06-06 11:00:00","orgNo":"3340150","typeCode":"计划停电","poweroffArea":"110kV石阜变:双义253线-奚家F5148开关后段","poweroffReason":"莲塘村2号公变新立12米杆5基，金具安装，导线架设，出线电缆调换，旧杆拆除及搭接工作","powerTime":"2018-06-06 10:53:24","powerComm":"全部送电","subsNo":"","lineNo":"","tgNo":"","tgName":null,"infoStatus":"1","orgName":"国网浙江桐庐县供电公司","typeName":null,"infoStatusName":null,"dateDay":null,"orgNos":null,"nowTime":null,"countyName":null,"streetName":null,"villageName":null,"roadName":null,"communityName":null,"tranName":null,"sdLineName":null,"cityCode":"3340150","cityName":"国网浙江桐庐县供电公司","provinceCode":null,"stopTime":"2018-06-06 11:00:00","powerType":"全部","powerOffArea":"110kV石阜变:双义253线-奚家F5148开关后段","powerOffReason":"莲塘村2号公变新立12米杆5基，金具安装，导线架设，出线电缆调换，旧杆拆除及搭接工作","powerOffId":"2018052931010152"},{"poweroffId":2018052931010149,"sgpoweroffId":null,"subsName":"","lineName":"10kV湾里T414线","pubTranName":"上滩头1号公变,","scope":"浙江省-杭州市-桐庐县-城南街道(下洋洲村);","startTime":"2018-05-29 13:21:50","stopDate":"2018-05-29 19:21:51","orgNo":"3340150","typeCode":"电网故障停限电","poweroffArea":"110kV枫塘变:湾里T414线-上滩头1号公变后段","poweroffReason":"低压开关故障","powerTime":"2018-05-29 16:00:13","powerComm":"全部送电","subsNo":"","lineNo":"","tgNo":"","tgName":null,"infoStatus":"1","orgName":"国网浙江桐庐县供电公司","typeName":null,"infoStatusName":null,"dateDay":null,"orgNos":null,"nowTime":null,"countyName":null,"streetName":null,"villageName":null,"roadName":null,"communityName":null,"tranName":null,"sdLineName":null,"cityCode":"3340150","cityName":"国网浙江桐庐县供电公司","provinceCode":null,"stopTime":"2018-05-29 19:21:51","powerType":"全部","powerOffArea":"110kV枫塘变:湾里T414线-上滩头1号公变后段","powerOffReason":"低压开关故障","powerOffId":"2018052931010149"}],"pageModel":{"pageNow":1731,"totalCount":17789,"totalPage":1779,"tableRows":0,"pageCount":10,"beginCount":17300},"isExperi":"1"}