{"message":"","today":"2020-06-16","seleList":[{"poweroffId":2018052831010430,"sgpoweroffId":null,"subsName":"","lineName":"10kV冠沿9525线","pubTranName":"横塘一,横塘四,潘家三,浦横,横塘五,横塘六,横塘三,横塘二,","scope":"浙江省-杭州市-滨江区-浦沿街道(浦联村社区,新生社区);浙江省杭州市滨江区浦沿街道新生社区横塘、浦联社区潘家一带。杭州市公安消防支队滨江区大队，国网浙江省电力公司杭州供电公司，杭州高新技术产业开发区(滨江)智慧新天地建设指挥部，杭州高新技术产业开发区(滨江)城建指挥部，杭州森翔市政工程有限公司","startTime":"2018-06-01 09:15:00","stopDate":"2018-06-01 21:00:00","orgNo":"3340101","typeCode":"计划停电","poweroffArea":"110kV冠山变:冠沿9525线-横塘五后段；冠沿9525线-浦横后段；冠沿9525线-横塘二后段；冠沿9525线-横塘三后段；冠沿9525线-横塘四后段；冠沿9525线-横塘六后段；冠沿9525线-潘家三后段；冠沿9525线-横塘一后段","poweroffReason":"杭州市滨江区排灌总站陆家潭河抢险一期工程 PD2018-03-004-QJ 浦水总分线改接，新设RM6开关站一座","powerTime":"2018-06-01 16:12:50","powerComm":"已送电","subsNo":"","lineNo":"","tgNo":"","tgName":null,"infoStatus":"1","orgName":"浙江杭州电力客户服务中心","typeName":null,"infoStatusName":null,"dateDay":null,"orgNos":null,"nowTime":null,"countyName":null,"streetName":null,"villageName":null,"roadName":null,"communityName":null,"tranName":null,"sdLineName":null,"cityCode":"3340101","cityName":"浙江杭州电力客户服务中心","provinceCode":null,"stopTime":"2018-06-01 21:00:00","powerType":"全部","powerOffArea":"110kV冠山变:冠沿9525线-横塘五后段；冠沿9525线-浦横后段；冠沿9525线-横塘二后段；冠沿9525线-横塘三后段；冠沿9525线-横塘四后段；冠沿9525线-横塘六后段；冠沿9525线-潘家三后段；冠沿9525线-横塘一后段","powerOffReason":"杭州市滨江区排灌总站陆家潭河抢险一期工程 PD2018-03-004-QJ 浦水总分线改接，新设RM6开关站一座","powerOffId":"2018052831010430"},{"poweroffId":2018052831010428,"sgpoweroffId":null,"subsName":"","lineName":"10kV花房8115线","pubTranName":"新州十六变,新州十四变,","scope":"浙江省-杭州市-滨江区-西兴街道(西兴社区-新州花苑小区,新州社区-新州花苑小区);浙江省杭州市滨江区新州花苑3号楼1、2、3单元住宅及公用主供，地下车库消防主供，10号楼2-28F住宅及公用主供，5号、9号、11号楼公用备供，物业管理用房，11号楼商铺。","startTime":"2018-06-01 09:15:00","stopDate":"2018-06-01 12:00:00","orgNo":"3340101","typeCode":"计划停电","poweroffArea":"110kV西兴变:花房8115线-新州十四变后段；花房8115线-新州十六变后段","poweroffReason":"新州花园低压开关更换工作（1日上）","powerTime":"2018-06-01 11:22:46","powerComm":"已送电","subsNo":"","lineNo":"","tgNo":"","tgName":null,"infoStatus":"1","orgName":"浙江杭州电力客户服务中心","typeName":null,"infoStatusName":null,"dateDay":null,"orgNos":null,"nowTime":null,"countyName":null,"streetName":null,"villageName":null,"roadName":null,"communityName":null,"tranName":null,"sdLineName":null,"cityCode":"3340101","cityName":"浙江杭州电力客户服务中心","provinceCode":null,"stopTime":"2018-06-01 12:00:00","powerType":"全部","powerOffArea":"110kV西兴变:花房8115线-新州十四变后段；花房8115线-新州十六变后段","powerOffReason":"新州花园低压开关更换工作（1日上）","powerOffId":"2018052831010428"},{"poweroffId":2018052831010427,"sgpoweroffId":null,"subsName":"","lineName":"10kV滨宁8095线","pubTranName":"新州十三变,新州十五变,","scope":"浙江省-杭州市-滨江区-西兴街道(西兴社区-新州花苑小区,新州社区-新州花苑小区);浙江省杭州市滨江区新州花苑7号楼2-28F住宅及公用主供，6号楼公用备供，3号楼1、2、3单元公用备供，地下车库生活泵备用及消防负荷备供，11号楼2-28F住宅及公用主供，10号楼公用备供，物业管理用电","startTime":"2018-05-31 13:30:00","stopDate":"2018-05-31 18:00:00","orgNo":"3340101","typeCode":"计划停电","poweroffArea":"110kV西兴变:滨宁8095线-新州十三变后段；滨宁8095线-新州十五变后段","poweroffReason":"新州花园低压开关更换工作（31日下）","powerTime":"2018-05-31 15:31:56","powerComm":"已送电","subsNo":"","lineNo":"","tgNo":"","tgName":null,"infoStatus":"1","orgName":"浙江杭州电力客户服务中心","typeName":null,"infoStatusName":null,"dateDay":null,"orgNos":null,"nowTime":null,"countyName":null,"streetName":null,"villageName":null,"roadName":null,"communityName":null,"tranName":null,"sdLineName":null,"cityCode":"3340101","cityName":"浙江杭州电力客户服务中心","provinceCode":null,"stopTime":"2018-05-31 18:00:00","powerType":"全部","powerOffArea":"110kV西兴变:滨宁8095线-新州十三变后段；滨宁8095线-新州十五变后段","powerOffReason":"新州花园低压开关更换工作（31日下）","powerOffId":"2018052831010427"},{"poweroffId":2018052831010425,"sgpoweroffId":null,"subsName":"","lineName":"10kV花房8115线","pubTranName":"新州十变,新州十二变,","scope":"浙江省-杭州市-滨江区-西兴街道(新州社区-新州花苑小区);浙江省杭州市滨江区新州花苑1号楼1单元、2单元、3单元公用电主供，2号楼1单元、2单元、3单元公用电主供，地下车库普通负荷备供，6号楼2-26F居民及公用电主供，7号楼公用备供及商铺，3号楼商铺及123单元（物业），地下车库生活泵主供","startTime":"2018-05-31 09:15:00","stopDate":"2018-05-31 14:00:00","orgNo":"3340101","typeCode":"计划停电","poweroffArea":"110kV西兴变:花房8115线-新州十变后段；花房8115线-新州十二变后段","poweroffReason":"新州花园低压开关更换工作（31日上）","powerTime":"2018-05-31 11:30:36","powerComm":"已送电","subsNo":"","lineNo":"","tgNo":"","tgName":null,"infoStatus":"1","orgName":"浙江杭州电力客户服务中心","typeName":null,"infoStatusName":null,"dateDay":null,"orgNos":null,"nowTime":null,"countyName":null,"streetName":null,"villageName":null,"roadName":null,"communityName":null,"tranName":null,"sdLineName":null,"cityCode":"3340101","cityName":"浙江杭州电力客户服务中心","provinceCode":null,"stopTime":"2018-05-31 14:00:00","powerType":"全部","powerOffArea":"110kV西兴变:花房8115线-新州十变后段；花房8115线-新州十二变后段","powerOffReason":"新州花园低压开关更换工作（31日上）","powerOffId":"2018052831010425"},{"poweroffId":2018052831010408,"sgpoweroffId":null,"subsName":"","lineName":"10kV西看9940线","pubTranName":"盈佳(八),","scope":"浙江省-杭州市-西湖区-三墩镇(乾成园小区);","startTime":"2018-05-28 16:56:00","stopDate":"2018-05-28 22:30:00","orgNo":"3340101","typeCode":"电网故障停限电","poweroffArea":"110kV墩北变:西看9940线-盈佳(八)变","poweroffReason":"盈佳(八)变 低压设备故障","powerTime":"2018-05-28 21:03:23","powerComm":"已送电","subsNo":"","lineNo":"","tgNo":"","tgName":null,"infoStatus":"1","orgName":"浙江杭州电力客户服务中心","typeName":null,"infoStatusName":null,"dateDay":null,"orgNos":null,"nowTime":null,"countyName":null,"streetName":null,"villageName":null,"roadName":null,"communityName":null,"tranName":null,"sdLineName":null,"cityCode":"3340101","cityName":"浙江杭州电力客户服务中心","provinceCode":null,"stopTime":"2018-05-28 22:30:00","powerType":"全部","powerOffArea":"110kV墩北变:西看9940线-盈佳(八)变","powerOffReason":"盈佳(八)变 低压设备故障","powerOffId":"2018052831010408"},{"poweroffId":2018052831010395,"sgpoweroffId":null,"subsName":"","lineName":"10kV里叶Y348线","pubTranName":"里叶村石达山台区,","scope":"浙江省-杭州市-建德市-大慈岩镇 里叶行政村 石达山自然村一带用户。","startTime":"2018-06-05 08:00:00","stopDate":"2018-06-05 11:00:00","orgNo":"3340180","typeCode":"计划停电","poweroffArea":"110kV慈岩变:里叶Y348线-里叶村石达山台区后段","poweroffReason":"里叶村石达山台区配变增容","powerTime":"2018-06-05 11:00:00","powerComm":"已送电","subsNo":"","lineNo":"","tgNo":"","tgName":null,"infoStatus":"1","orgName":"国网浙江建德市供电有限公司","typeName":null,"infoStatusName":null,"dateDay":null,"orgNos":null,"nowTime":null,"countyName":null,"streetName":null,"villageName":null,"roadName":null,"communityName":null,"tranName":null,"sdLineName":null,"cityCode":"3340180","cityName":"国网浙江建德市供电有限公司","provinceCode":null,"stopTime":"2018-06-05 11:00:00","powerType":"全部","powerOffArea":"110kV慈岩变:里叶Y348线-里叶村石达山台区后段","powerOffReason":"里叶村石达山台区配变增容","powerOffId":"2018052831010395"},{"poweroffId":2018052831010394,"sgpoweroffId":null,"subsName":"","lineName":"10kV下塘Y198线","pubTranName":"城东村后村台区,","scope":"浙江省-杭州市-建德市-下涯镇 大洲行政村 后村自然村一带用户。","startTime":"2018-06-05 08:00:00","stopDate":"2018-06-05 13:00:00","orgNo":"3340180","typeCode":"计划停电","poweroffArea":"110kV沿口变:下塘Y198线-后村支线0#杆令克后段","poweroffReason":"后村支线3#杆在路中间移位消缺","powerTime":"2018-06-05 13:00:00","powerComm":"已送电","subsNo":"","lineNo":"","tgNo":"","tgName":null,"infoStatus":"1","orgName":"国网浙江建德市供电有限公司","typeName":null,"infoStatusName":null,"dateDay":null,"orgNos":null,"nowTime":null,"countyName":null,"streetName":null,"villageName":null,"roadName":null,"communityName":null,"tranName":null,"sdLineName":null,"cityCode":"3340180","cityName":"国网浙江建德市供电有限公司","provinceCode":null,"stopTime":"2018-06-05 13:00:00","powerType":"全部","powerOffArea":"110kV沿口变:下塘Y198线-后村支线0#杆令克后段","powerOffReason":"后村支线3#杆在路中间移位消缺","powerOffId":"2018052831010394"},{"poweroffId":2018052831010337,"sgpoweroffId":null,"subsName":"","lineName":"10kV圣堂H509线","pubTranName":"内燃机,南山村横山公变,南山村枉山庙公变,南山村刘家公变,伟盛印刷*,南山村总管堂公变,西安寺村胡家桥2号公变,西安寺村胡家桥1号公变,南山村委变,龙跃冷拉厂,广泰包装,南山村弄里公变,南山村东山公变,西安寺村圣塘村公变,西安寺村圣堂刘家公变,1#,西安寺村阮家畈公变,","scope":"浙江省杭州市余杭区瓶窑镇：杭州市余杭区瓶窑镇西安寺村村民委员会、西安寺村圣堂村、西安寺村胡家桥、西安寺村阮家畈、西安寺村圣堂刘家、南山村委排涝、南山村弄里、南山村横山、瓶窑内燃机件厂、鸿杰包装厂、龙跃冷拉钢丝厂、南山村东山、伟胜印刷厂、南山村刘家、南山村总管堂、南山村枉山庙一带","startTime":"2018-06-05 07:50:00","stopDate":"2018-06-05 16:30:00","orgNo":"3340140","typeCode":"计划停电","poweroffArea":"圣堂H509线东山分线","poweroffReason":"圣堂H509线东山分线配网工程：西安寺村圣堂村变200kVA量至400kVA","powerTime":"2018-06-05 10:24:44","powerComm":"已送电","subsNo":"","lineNo":"","tgNo":"","tgName":null,"infoStatus":"1","orgName":"国网浙江杭州市余杭区供电有限公司","typeName":null,"infoStatusName":null,"dateDay":null,"orgNos":null,"nowTime":null,"countyName":null,"streetName":null,"villageName":null,"roadName":null,"communityName":null,"tranName":null,"sdLineName":null,"cityCode":"3340140","cityName":"国网浙江杭州市余杭区供电有限公司","provinceCode":null,"stopTime":"2018-06-05 16:30:00","powerType":"全部","powerOffArea":"圣堂H509线东山分线","powerOffReason":"圣堂H509线东山分线配网工程：西安寺村圣堂村变200kVA量至400kVA","powerOffId":"2018052831010337"},{"poweroffId":2018052831010336,"sgpoweroffId":null,"subsName":"","lineName":"10kV塘埠H257线","pubTranName":"塘埠村村委公变,塘埠村朱家弄1号公变,雷欧压滤机,德胜沙石厂,塘埠村朱家弄2号公变,竹制品厂,强灵润滑油厂,竹制品厂（2）,塘埠村桥上公变,","scope":"浙江省杭州市余杭区瓶窑镇：塘埠村桥上、塘埠村村委、彭公石门大队、石门竹制品工艺厂、华胜市政工程公司、灵强润滑油脂公司、德胜沙石厂、塘埠村朱家弄一带","startTime":"2018-06-04 07:20:00","stopDate":"2018-06-04 16:30:00","orgNo":"3340140","typeCode":"计划停电","poweroffArea":"塘埠H2574开关-塘埠H2575开关之间","poweroffReason":"塘埠H2574开关-塘埠H2575开关之间配网工程：塘埠村桥上变125kVA量至400kVA。","powerTime":"2018-06-04 13:53:22","powerComm":"已送电","subsNo":"","lineNo":"","tgNo":"","tgName":null,"infoStatus":"1","orgName":"国网浙江杭州市余杭区供电有限公司","typeName":null,"infoStatusName":null,"dateDay":null,"orgNos":null,"nowTime":null,"countyName":null,"streetName":null,"villageName":null,"roadName":null,"communityName":null,"tranName":null,"sdLineName":null,"cityCode":"3340140","cityName":"国网浙江杭州市余杭区供电有限公司","provinceCode":null,"stopTime":"2018-06-04 16:30:00","powerType":"全部","powerOffArea":"塘埠H2574开关-塘埠H2575开关之间","powerOffReason":"塘埠H2574开关-塘埠H2575开关之间配网工程：塘埠村桥上变125kVA量至400kVA。","powerOffId":"2018052831010336"},{"poweroffId":2018052831010333,"sgpoweroffId":null,"subsName":"","lineName":"10kV城凰H534线","pubTranName":"瓶窑社区下金村3号公变,瓶窑村委会,瓶窑股份经济合作社间隔,瓶窑社区下金村1号公变,瓶窑社区下金村2号公变,瓶窑社区下金村4号公变,","scope":"浙江省杭州市余杭区瓶窑镇：海虹热处理厂、瓶窑社区下金村、瓶窑股份经济合作社一带","startTime":"2018-06-05 07:20:00","stopDate":"2018-06-05 16:30:00","orgNo":"3340140","typeCode":"计划停电","poweroffArea":"城凰H534线下金村分线","poweroffReason":"城凰H534线下金村分线配网工程：新布点下金村5#变400kVA","powerTime":"2018-06-05 14:53:43","powerComm":"已送电","subsNo":"","lineNo":"","tgNo":"","tgName":null,"infoStatus":"1","orgName":"国网浙江杭州市余杭区供电有限公司","typeName":null,"infoStatusName":null,"dateDay":null,"orgNos":null,"nowTime":null,"countyName":null,"streetName":null,"villageName":null,"roadName":null,"communityName":null,"tranName":null,"sdLineName":null,"cityCode":"3340140","cityName":"国网浙江杭州市余杭区供电有限公司","provinceCode":null,"stopTime":"2018-06-05 16:30:00","powerType":"全部","powerOffArea":"城凰H534线下金村分线","powerOffReason":"城凰H534线下金村分线配网工程：新布点下金村5#变400kVA","powerOffId":"2018052831010333"}],"pageModel":{"pageNow":1734,"totalCount":17789,"totalPage":1779,"tableRows":0,"pageCount":10,"beginCount":17330},"isExperi":"1"}