{"message":"","today":"2020-06-16","seleList":[{"poweroffId":2018052831010332,"sgpoweroffId":null,"subsName":"","lineName":"10kV黄镇H565线","pubTranName":"清波村中街公变,","scope":"浙江省杭州市余杭区黄湖镇：清波村中街一带","startTime":"2018-06-11 07:20:00","stopDate":"2018-06-11 16:30:00","orgNo":"3340140","typeCode":"计划停电","poweroffArea":"黄镇H565线清波村中街分线","poweroffReason":"黄镇H565线中街分线配网工程：清波村中街公变160kVA增容至400kVA","powerTime":"2018-06-11 12:13:16","powerComm":"已送电","subsNo":"","lineNo":"","tgNo":"","tgName":null,"infoStatus":"1","orgName":"国网浙江杭州市余杭区供电有限公司","typeName":null,"infoStatusName":null,"dateDay":null,"orgNos":null,"nowTime":null,"countyName":null,"streetName":null,"villageName":null,"roadName":null,"communityName":null,"tranName":null,"sdLineName":null,"cityCode":"3340140","cityName":"国网浙江杭州市余杭区供电有限公司","provinceCode":null,"stopTime":"2018-06-11 16:30:00","powerType":"全部","powerOffArea":"黄镇H565线清波村中街分线","powerOffReason":"黄镇H565线中街分线配网工程：清波村中街公变160kVA增容至400kVA","powerOffId":"2018052831010332"},{"poweroffId":2018052831010331,"sgpoweroffId":null,"subsName":"","lineName":"10kV苕溪H522线","pubTranName":"崇化村小木桥公变,","scope":"浙江省杭州市余杭区瓶窑镇：崇化村小木桥一带","startTime":"2018-06-14 07:20:00","stopDate":"2018-06-14 16:30:00","orgNo":"3340140","typeCode":"计划停电","poweroffArea":"苕溪H522线小木桥分线","poweroffReason":"苕溪H522线小木桥分线配网工程：崇化村小木桥变200kVA量至400kVA","powerTime":"2018-06-14 11:50:23","powerComm":"已送电","subsNo":"","lineNo":"","tgNo":"","tgName":null,"infoStatus":"1","orgName":"国网浙江杭州市余杭区供电有限公司","typeName":null,"infoStatusName":null,"dateDay":null,"orgNos":null,"nowTime":null,"countyName":null,"streetName":null,"villageName":null,"roadName":null,"communityName":null,"tranName":null,"sdLineName":null,"cityCode":"3340140","cityName":"国网浙江杭州市余杭区供电有限公司","provinceCode":null,"stopTime":"2018-06-14 16:30:00","powerType":"全部","powerOffArea":"苕溪H522线小木桥分线","powerOffReason":"苕溪H522线小木桥分线配网工程：崇化村小木桥变200kVA量至400kVA","powerOffId":"2018052831010331"},{"poweroffId":2018052831010330,"sgpoweroffId":null,"subsName":"","lineName":"10kV双竹H567线","pubTranName":"虎山村吴蛇地公变,虎山村上街2号公变,虎山村赵家弄公变,","scope":"浙江省杭州市余杭区黄湖镇：虎山村赵家弄、虎山村上街、虎山村吴蛇地一带","startTime":"2018-06-13 07:20:00","stopDate":"2018-06-13 16:30:00","orgNo":"3340140","typeCode":"计划停电","poweroffArea":"双竹H567线吴蛇地分线","poweroffReason":"双竹H567线吴蛇地分线配网工程：虎山村吴蛇地公变200kVA增容至400kVA","powerTime":"2018-06-13 11:53:37","powerComm":"已送电","subsNo":"","lineNo":"","tgNo":"","tgName":null,"infoStatus":"1","orgName":"国网浙江杭州市余杭区供电有限公司","typeName":null,"infoStatusName":null,"dateDay":null,"orgNos":null,"nowTime":null,"countyName":null,"streetName":null,"villageName":null,"roadName":null,"communityName":null,"tranName":null,"sdLineName":null,"cityCode":"3340140","cityName":"国网浙江杭州市余杭区供电有限公司","provinceCode":null,"stopTime":"2018-06-13 16:30:00","powerType":"全部","powerOffArea":"双竹H567线吴蛇地分线","powerOffReason":"双竹H567线吴蛇地分线配网工程：虎山村吴蛇地公变200kVA增容至400kVA","powerOffId":"2018052831010330"},{"poweroffId":2018052831010308,"sgpoweroffId":null,"subsName":"","lineName":"10kV赵家C455线","pubTranName":"杭州余氏布艺织造有限公司,赵家墩村10#变,赵家墩村6#变,赵家墩村1#变,赵家墩村9#变,波莱特电器2#,萧山残联特殊康复中心,波莱特电器1#,萧山区贺知章幼儿园,赵家墩村4#变,赵家墩村3#变,杭州前方齿轮有限公司,赵家墩村2#变,杭州金丰铸造有限公司,萧山残联特殊康复中心,杭州金寿机械厂,杭州华凌钢结构高强螺栓有限公司,萧山残联特殊康复中心,杭州萧山蜀山吾明养殖农庄,杭州华凌钢结构高强螺栓有限公司,电斧电器,杭州萧山鑫丰机械厂,赵家墩村7#变,杭州凯馨机械制造有限公司,","scope":"浙江省-杭州市-萧山区-蜀山街道(赵家墩行政村-大王里自然村、凌家里自然村、桥头余自然村);浙江省-杭州市-萧山区-蜀山街道(杭州波莱特电器有限公司,杭州电斧电器有限公司,杭州华凌钢结构高强螺栓有限公司,杭州金丰铸造有限公司,杭州金寿机械厂,杭州凯馨机械制造有限公司,杭州前方齿轮有限公司,杭州市萧山区特殊康复中心,杭州萧山蜀山吾明养殖农庄,杭州余氏布艺织造有限公司,萧山区贺知章幼儿园);","startTime":"2018-06-10 08:30:00","stopDate":"2018-06-10 14:30:00","orgNo":"3340130","typeCode":"计划停电","poweroffArea":"110kV萧山变:赵家C455线-赵家C455线赵家开华凌钢结构分线开关后段","poweroffReason":"赵家墩村2#变下250kVA上400kVA（EQC装置安装），赵家墩村1#变下315kVA上400kVA（48#杆新装开关，44#杆更换开关）","powerTime":"2018-06-10 13:51:34","powerComm":"已送电","subsNo":"","lineNo":"","tgNo":"","tgName":null,"infoStatus":"1","orgName":"国网浙江杭州市萧山区供电有限公司","typeName":null,"infoStatusName":null,"dateDay":null,"orgNos":null,"nowTime":null,"countyName":null,"streetName":null,"villageName":null,"roadName":null,"communityName":null,"tranName":null,"sdLineName":null,"cityCode":"3340130","cityName":"国网浙江杭州市萧山区供电有限公司","provinceCode":null,"stopTime":"2018-06-10 14:30:00","powerType":"全部","powerOffArea":"110kV萧山变:赵家C455线-赵家C455线赵家开华凌钢结构分线开关后段","powerOffReason":"赵家墩村2#变下250kVA上400kVA（EQC装置安装），赵家墩村1#变下315kVA上400kVA（48#杆新装开关，44#杆更换开关）","powerOffId":"2018052831010308"},{"poweroffId":2018052831010300,"sgpoweroffId":null,"subsName":"","lineName":"10kV裘江A605线","pubTranName":"裘江新村5#变,杭州萧山新塘联华砂石场,裘江新村11#变,一方农机模具,杭州积广攒贸易有限公司,叠宏实业,变压器,浙江胜利羽绒制品有限公司,杭州美利建印刷有限公司,裘江新村4#变,杭州萧山新塘国欢砂石场,裘江新村12#变,杭州叠宏实业有限公司,裘江新村1#变,杭州观潮化工涂料有限公司,杭州诚利装帧有限公司,裘江新村6#变,杭州阿铠包装材料有限公司,金贝家用纺织品,杭州观潮化工涂料有限公司,胜利羽绒,裘江新村10#变,","scope":"浙江省-杭州市-萧山区-新塘街道(裘江新村行政村-打纸埭自然村、杜家塘自然村、庙里王自然村、西岸陈自然村);浙江省-杭州市-萧山区-新塘街道(杭州阿铠包装材料有限公司,杭州诚利装帧有限公司,杭州叠宏实业有限公司,杭州观潮化工涂料有限公司,杭州积广攒贸易有限公司,杭州萧山城北物资有限公司,杭州萧山城厢镇一方农机模具材料加工厂,杭州萧山金贝家用纺织品有限公司,杭州萧山新塘国欢砂石场,杭州萧山新塘联华砂石场,浙江胜利羽绒制品有限公司);","startTime":"2018-06-05 08:30:00","stopDate":"2018-06-05 14:30:00","orgNo":"3340130","typeCode":"计划停电","poweroffArea":"110kV城东变:裘江A605线-裘江A605线胜利羽绒分线开关(自）后段","poweroffReason":"裘江新村1#变下250kVA上400kVA，","powerTime":"2018-06-05 14:25:54","powerComm":"已送电","subsNo":"","lineNo":"","tgNo":"","tgName":null,"infoStatus":"1","orgName":"国网浙江杭州市萧山区供电有限公司","typeName":null,"infoStatusName":null,"dateDay":null,"orgNos":null,"nowTime":null,"countyName":null,"streetName":null,"villageName":null,"roadName":null,"communityName":null,"tranName":null,"sdLineName":null,"cityCode":"3340130","cityName":"国网浙江杭州市萧山区供电有限公司","provinceCode":null,"stopTime":"2018-06-05 14:30:00","powerType":"全部","powerOffArea":"110kV城东变:裘江A605线-裘江A605线胜利羽绒分线开关(自）后段","powerOffReason":"裘江新村1#变下250kVA上400kVA，","powerOffId":"2018052831010300"},{"poweroffId":2018052831010290,"sgpoweroffId":null,"subsName":"","lineName":"10kV群围A489线","pubTranName":"三围村12#变,","scope":"浙江省-杭州市-萧山区-益农镇三围行政村-三围小区、益农镇三围村一带","startTime":"2018-05-28 13:30:26","stopDate":"2018-05-28 19:54:23","orgNo":"3340130","typeCode":"电网故障停限电","poweroffArea":"110kV群围变:群围A489线-三围村12#变台区低压开关","poweroffReason":"低压漏电保护器短路故障","powerTime":"2018-05-28 16:45:59","powerComm":"已送电","subsNo":"","lineNo":"","tgNo":"","tgName":null,"infoStatus":"1","orgName":"国网浙江杭州市萧山区供电有限公司","typeName":null,"infoStatusName":null,"dateDay":null,"orgNos":null,"nowTime":null,"countyName":null,"streetName":null,"villageName":null,"roadName":null,"communityName":null,"tranName":null,"sdLineName":null,"cityCode":"3340130","cityName":"国网浙江杭州市萧山区供电有限公司","provinceCode":null,"stopTime":"2018-05-28 19:54:23","powerType":"全部","powerOffArea":"110kV群围变:群围A489线-三围村12#变台区低压开关","powerOffReason":"低压漏电保护器短路故障","powerOffId":"2018052831010290"},{"poweroffId":2018052831010286,"sgpoweroffId":null,"subsName":"","lineName":"10kV丰达D854线","pubTranName":"杭州丰达纸业有限公司3#,","scope":"浙江省杭州市-富阳区-春江街道(杭州丰达纸业有限公司)一带;","startTime":"2018-06-05 06:30:00","stopDate":"2018-06-05 23:00:00","orgNo":"3340170","typeCode":"计划停电","poweroffArea":"110kV华共变:丰达D854线-杭州丰达纸业有限公司3#站内开关后段","poweroffReason":"华共变10kVI段母线集中检修配合停电","powerTime":"2018-06-05 22:51:43","powerComm":"已送电","subsNo":"","lineNo":"","tgNo":"","tgName":null,"infoStatus":"1","orgName":"国网浙江杭州市富阳区供电公司","typeName":null,"infoStatusName":null,"dateDay":null,"orgNos":null,"nowTime":null,"countyName":null,"streetName":null,"villageName":null,"roadName":null,"communityName":null,"tranName":null,"sdLineName":null,"cityCode":"3340170","cityName":"国网浙江杭州市富阳区供电公司","provinceCode":null,"stopTime":"2018-06-05 23:00:00","powerType":"全部","powerOffArea":"110kV华共变:丰达D854线-杭州丰达纸业有限公司3#站内开关后段","powerOffReason":"华共变10kVI段母线集中检修配合停电","powerOffId":"2018052831010286"},{"poweroffId":2018052831010285,"sgpoweroffId":null,"subsName":"","lineName":"10kV中辰D857线","pubTranName":"富阳安清环境科技有限公司,富阳市昌阳废旧物资有限公司2#,","scope":"浙江省-杭州市-富阳区春江街道(杭州富阳安清环境科技有限公司,杭州富阳昌阳废旧物资有限公司)一带;","startTime":"2018-06-05 06:30:00","stopDate":"2018-06-05 23:00:00","orgNo":"3340170","typeCode":"计划停电","poweroffArea":"110kV华共变:中辰D857线-中辰D8571开关后段","poweroffReason":"华共变10kVI段母线集中检修配合停电","powerTime":"2018-06-05 22:51:15","powerComm":"已送电","subsNo":"","lineNo":"","tgNo":"","tgName":null,"infoStatus":"1","orgName":"国网浙江杭州市富阳区供电公司","typeName":null,"infoStatusName":null,"dateDay":null,"orgNos":null,"nowTime":null,"countyName":null,"streetName":null,"villageName":null,"roadName":null,"communityName":null,"tranName":null,"sdLineName":null,"cityCode":"3340170","cityName":"国网浙江杭州市富阳区供电公司","provinceCode":null,"stopTime":"2018-06-05 23:00:00","powerType":"全部","powerOffArea":"110kV华共变:中辰D857线-中辰D8571开关后段","powerOffReason":"华共变10kVI段母线集中检修配合停电","powerOffId":"2018052831010285"},{"poweroffId":2018052831010284,"sgpoweroffId":null,"subsName":"","lineName":"10kV文博D866线","pubTranName":"富阳市文博纸业有限公司3#,","scope":"浙江省-杭州市-富阳区春江街道(杭州富阳文博纸业有限公司)一带;","startTime":"2018-06-05 06:30:00","stopDate":"2018-06-05 23:00:00","orgNo":"3340170","typeCode":"计划停电","poweroffArea":"110kV华共变:文博D866线-浙江文博纸业3#站内开关后段","poweroffReason":"华共变10kVI段母线集中检修配合停电","powerTime":"2018-06-05 22:50:39","powerComm":"已送电","subsNo":"","lineNo":"","tgNo":"","tgName":null,"infoStatus":"1","orgName":"国网浙江杭州市富阳区供电公司","typeName":null,"infoStatusName":null,"dateDay":null,"orgNos":null,"nowTime":null,"countyName":null,"streetName":null,"villageName":null,"roadName":null,"communityName":null,"tranName":null,"sdLineName":null,"cityCode":"3340170","cityName":"国网浙江杭州市富阳区供电公司","provinceCode":null,"stopTime":"2018-06-05 23:00:00","powerType":"全部","powerOffArea":"110kV华共变:文博D866线-浙江文博纸业3#站内开关后段","powerOffReason":"华共变10kVI段母线集中检修配合停电","powerOffId":"2018052831010284"},{"poweroffId":2018052831010282,"sgpoweroffId":null,"subsName":"","lineName":"10kV扑克D859线","pubTranName":"富阳钓鱼实业有限公司1#变,","scope":"浙江省-杭州市-富阳区春江街道(富阳钓鱼实业有限公司)一带;","startTime":"2018-06-05 06:30:00","stopDate":"2018-06-05 23:00:00","orgNo":"3340170","typeCode":"计划停电","poweroffArea":"110kV华共变:扑克D859线-扑克D859线柱上断路器后段","poweroffReason":"华共变10kVI段母线集中检修配合停电","powerTime":"2018-06-05 22:52:05","powerComm":"已送电","subsNo":"","lineNo":"","tgNo":"","tgName":null,"infoStatus":"1","orgName":"国网浙江杭州市富阳区供电公司","typeName":null,"infoStatusName":null,"dateDay":null,"orgNos":null,"nowTime":null,"countyName":null,"streetName":null,"villageName":null,"roadName":null,"communityName":null,"tranName":null,"sdLineName":null,"cityCode":"3340170","cityName":"国网浙江杭州市富阳区供电公司","provinceCode":null,"stopTime":"2018-06-05 23:00:00","powerType":"全部","powerOffArea":"110kV华共变:扑克D859线-扑克D859线柱上断路器后段","powerOffReason":"华共变10kVI段母线集中检修配合停电","powerOffId":"2018052831010282"}],"pageModel":{"pageNow":1735,"totalCount":17789,"totalPage":1779,"tableRows":0,"pageCount":10,"beginCount":17340},"isExperi":"1"}