{"message":"","today":"2020-06-16","seleList":[{"poweroffId":2018052831010274,"sgpoweroffId":null,"subsName":"","lineName":"10kV祥和T209线","pubTranName":"桐庐唯姿服饰有限公司,杭州华地针织品印花有限公司,祥和路新区1号公变,桐庐中艺轻纺有限公司,杭州华地针织品印花有限公司,桐庐建强针织有限公司,祥和路新区2号公变,桐庐卓冠针纺有限公司,桐庐旭晨针织厂,","scope":"浙江省-杭州市-桐庐县-横村镇(城东行政村-双湖自然村、祥和路);(杭州华地针织品印花有限公司,桐庐建强针织有限公司,桐庐唯姿服饰有限公司,桐庐旭晨针织厂,桐庐卓冠针纺有限公司,桐庐左岸麦田针织有限公司);","startTime":"2018-06-05 07:00:00","stopDate":"2018-06-05 17:30:00","orgNo":"3340150","typeCode":"计划停电","poweroffArea":"110kV方埠变:祥和T209线-华地F1310开关后段","poweroffReason":"新增祥和新区5号公变、低压割接、拆旧工作","powerTime":"2018-06-05 17:22:28","powerComm":"已送电。","subsNo":"","lineNo":"","tgNo":"","tgName":null,"infoStatus":"1","orgName":"国网浙江桐庐县供电公司","typeName":null,"infoStatusName":null,"dateDay":null,"orgNos":null,"nowTime":null,"countyName":null,"streetName":null,"villageName":null,"roadName":null,"communityName":null,"tranName":null,"sdLineName":null,"cityCode":"3340150","cityName":"国网浙江桐庐县供电公司","provinceCode":null,"stopTime":"2018-06-05 17:30:00","powerType":"全部","powerOffArea":"110kV方埠变:祥和T209线-华地F1310开关后段","powerOffReason":"新增祥和新区5号公变、低压割接、拆旧工作","powerOffId":"2018052831010274"},{"poweroffId":2018052831010262,"sgpoweroffId":null,"subsName":"","lineName":"10kV宝盛C777线","pubTranName":"山河花园1#公变,","scope":"浙江省-杭州市-萧山区-北干街道北干二苑社区山河花园小区一带","startTime":"2018-05-28 12:20:02","stopDate":"2018-05-28 18:30:02","orgNo":"3340130","typeCode":"电网故障停限电","poweroffArea":"110kV通惠变:宝盛C777线-山河花园1#公变低压配电设备","poweroffReason":"低压配电设备故障","powerTime":"2018-05-28 16:31:41","powerComm":"已送电","subsNo":"","lineNo":"","tgNo":"","tgName":null,"infoStatus":"1","orgName":"国网浙江杭州市萧山区供电有限公司","typeName":null,"infoStatusName":null,"dateDay":null,"orgNos":null,"nowTime":null,"countyName":null,"streetName":null,"villageName":null,"roadName":null,"communityName":null,"tranName":null,"sdLineName":null,"cityCode":"3340130","cityName":"国网浙江杭州市萧山区供电有限公司","provinceCode":null,"stopTime":"2018-05-28 18:30:02","powerType":"全部","powerOffArea":"110kV通惠变:宝盛C777线-山河花园1#公变低压配电设备","powerOffReason":"低压配电设备故障","powerOffId":"2018052831010262"},{"poweroffId":2018052831010248,"sgpoweroffId":null,"subsName":"","lineName":"山水C817线","pubTranName":"山水苑2#公变,","scope":"浙江省-杭州市-萧山区-蜀山街道山水苑社区山水苑小区一带","startTime":"2018-05-28 11:34:00","stopDate":"2018-05-28 17:34:00","orgNo":"3340130","typeCode":"电网故障停限电","poweroffArea":"萧山变:山水C817线山水苑2#公变低压配电设备","poweroffReason":"低压配电设备故障","powerTime":"2018-05-28 16:19:52","powerComm":"已送电","subsNo":"","lineNo":"","tgNo":"","tgName":null,"infoStatus":"1","orgName":"国网浙江杭州市萧山区供电有限公司","typeName":null,"infoStatusName":null,"dateDay":null,"orgNos":null,"nowTime":null,"countyName":null,"streetName":null,"villageName":null,"roadName":null,"communityName":null,"tranName":null,"sdLineName":null,"cityCode":"3340130","cityName":"国网浙江杭州市萧山区供电有限公司","provinceCode":null,"stopTime":"2018-05-28 17:34:00","powerType":"全部","powerOffArea":"萧山变:山水C817线山水苑2#公变低压配电设备","powerOffReason":"低压配电设备故障","powerOffId":"2018052831010248"},{"poweroffId":2018052831010169,"sgpoweroffId":null,"subsName":"","lineName":"10kV纤石H402线","pubTranName":"石桥村罗家塘公变,","scope":"浙江省杭州市余杭区良渚街道：石桥村罗家塘、良渚朱家塘村一带","startTime":"2018-06-04 07:40:00","stopDate":"2018-06-04 15:40:00","orgNo":"3340140","typeCode":"计划停电","poweroffArea":"35kV良渚变:纤石H402线罗家塘分线","poweroffReason":"纤石H402线石桥村罗家塘公变增量至400kVA。","powerTime":"2018-06-04 13:29:58","powerComm":"已送电","subsNo":"","lineNo":"","tgNo":"","tgName":null,"infoStatus":"1","orgName":"国网浙江杭州市余杭区供电有限公司","typeName":null,"infoStatusName":null,"dateDay":null,"orgNos":null,"nowTime":null,"countyName":null,"streetName":null,"villageName":null,"roadName":null,"communityName":null,"tranName":null,"sdLineName":null,"cityCode":"3340140","cityName":"国网浙江杭州市余杭区供电有限公司","provinceCode":null,"stopTime":"2018-06-04 15:40:00","powerType":"全部","powerOffArea":"35kV良渚变:纤石H402线罗家塘分线","powerOffReason":"纤石H402线石桥村罗家塘公变增量至400kVA。","powerOffId":"2018052831010169"},{"poweroffId":2018052831010166,"sgpoweroffId":null,"subsName":"","lineName":"10kV酒华H716线","pubTranName":"鑫湖置业4#基建变,西园宾馆(2),禹航商城1号公变,差转台,余杭区第二人民医院II段4#专变,福田花园4号公变,城关1号公变,金辉,鑫湖置业3#基建变,车站公变,福田花园1号公变,宝塔公寓1号公变,禹倡商厦,友生塑业,福田花园2号公变,禹航商城3号公变,安乐公变,禹通房产箱变,余杭粮管所宿舍公变,余杭二院2#,福田花园3号公变,鑫湖置业1#基建变,骏马实业,禹航商城2号公变,肯德基,宝塔公寓2号公变,福田花园,","scope":"浙江省杭州市余杭区余杭街道:禹倡超市、鑫湖置业工地、禹航商城小区、金辉大酒店、电视转播台、宝塔公寓小区、余杭邮电支局、余杭粮管所宿舍、福田花园小区、友生塑业厂、西园宾馆、安乐路一带","startTime":"2018-06-04 07:40:00","stopDate":"2018-06-04 18:30:00","orgNo":"3340140","typeCode":"计划停电","poweroffArea":"110kV余杭变:酒华H716线-御景开关站3#开关后段","poweroffReason":"酒华H716线：修树、西园宾馆分线令克换开关、御海H7162线4#杆加装分段开关","powerTime":"2018-06-04 17:11:35","powerComm":"已送电","subsNo":"","lineNo":"","tgNo":"","tgName":null,"infoStatus":"1","orgName":"国网浙江杭州市余杭区供电有限公司","typeName":null,"infoStatusName":null,"dateDay":null,"orgNos":null,"nowTime":null,"countyName":null,"streetName":null,"villageName":null,"roadName":null,"communityName":null,"tranName":null,"sdLineName":null,"cityCode":"3340140","cityName":"国网浙江杭州市余杭区供电有限公司","provinceCode":null,"stopTime":"2018-06-04 18:30:00","powerType":"全部","powerOffArea":"110kV余杭变:酒华H716线-御景开关站3#开关后段","powerOffReason":"酒华H716线：修树、西园宾馆分线令克换开关、御海H7162线4#杆加装分段开关","powerOffId":"2018052831010166"},{"poweroffId":2018052831010163,"sgpoweroffId":null,"subsName":"","lineName":"10kV西城H612线","pubTranName":"杭州蓝源置业有限公司,狮山路灯,仇山矿宿舍公变,塔山公园,","scope":"浙江省杭州市余杭区余杭街道:仇山矿宿舍、宝塔山公园一带","startTime":"2018-06-04 07:40:00","stopDate":"2018-06-04 18:30:00","orgNo":"3340140","typeCode":"计划停电","poweroffArea":"110kV桃源变:西城H612线-海御H61231开关后段","poweroffReason":"西城H612线：修树、西园宾馆分线令克换开关、御海H7162线4#杆加装分段开关","powerTime":"2018-06-04 17:11:11","powerComm":"已送电","subsNo":"","lineNo":"","tgNo":"","tgName":null,"infoStatus":"1","orgName":"国网浙江杭州市余杭区供电有限公司","typeName":null,"infoStatusName":null,"dateDay":null,"orgNos":null,"nowTime":null,"countyName":null,"streetName":null,"villageName":null,"roadName":null,"communityName":null,"tranName":null,"sdLineName":null,"cityCode":"3340140","cityName":"国网浙江杭州市余杭区供电有限公司","provinceCode":null,"stopTime":"2018-06-04 18:30:00","powerType":"全部","powerOffArea":"110kV桃源变:西城H612线-海御H61231开关后段","powerOffReason":"西城H612线：修树、西园宾馆分线令克换开关、御海H7162线4#杆加装分段开关","powerOffId":"2018052831010163"},{"poweroffId":2018052831010159,"sgpoweroffId":null,"subsName":"","lineName":"10kV五杭G969线","pubTranName":"杭州华奥丝绸有限公司400配变,五杭洪法黄沙石料经营部,华裕丝织厂,杭州能鑫丝绸有限公司,运河镇五杭街道农贸市场公变,","scope":"浙江省杭州市余杭区运河街道：华奥丝绸厂、华裕丝织厂、杭州一路红丝绸有限公司、杭州能鑫丝绸有限公司、五杭街道农贸市场、五杭洪法黄沙石料经营部一带","startTime":"2018-06-11 08:00:00","stopDate":"2018-06-11 16:00:00","orgNo":"3340140","typeCode":"计划停电","poweroffArea":"110kV博陆变:五杭G969线-五杭村新区分线后段","poweroffReason":"五杭G969线五杭村新区分线2号杆开关 配网工程 五杭街道农贸市场公变315增量至400KVA","powerTime":"2018-06-11 16:14:41","powerComm":"完成工作。","subsNo":"","lineNo":"","tgNo":"","tgName":null,"infoStatus":"1","orgName":"国网浙江杭州市余杭区供电有限公司","typeName":null,"infoStatusName":null,"dateDay":null,"orgNos":null,"nowTime":null,"countyName":null,"streetName":null,"villageName":null,"roadName":null,"communityName":null,"tranName":null,"sdLineName":null,"cityCode":"3340140","cityName":"国网浙江杭州市余杭区供电有限公司","provinceCode":null,"stopTime":"2018-06-11 16:00:00","powerType":"全部","powerOffArea":"110kV博陆变:五杭G969线-五杭村新区分线后段","powerOffReason":"五杭G969线五杭村新区分线2号杆开关 配网工程 五杭街道农贸市场公变315增量至400KVA","powerOffId":"2018052831010159"},{"poweroffId":2018052831010154,"sgpoweroffId":null,"subsName":"","lineName":"10kV木洋G980线","pubTranName":"浙江交工集团股份有限公司,临城花苑1#专变,","scope":"浙江省杭州市余杭经济开发区：320国道路灯、临城花苑一带","startTime":"2018-06-04 08:00:00","stopDate":"2018-06-04 16:00:00","orgNo":"3340140","typeCode":"计划停电","poweroffArea":"110kV茅山变:木洋G980线-小林分支箱后段","poweroffReason":"茅北开关站I段木洋G980线小林分支箱分线 业扩工程 崇贤至东湖路连接线10kV迁改工程-小林分支箱及320国道路灯变移位工作","powerTime":"2018-06-04 15:05:00","powerComm":"工作完成","subsNo":"","lineNo":"","tgNo":"","tgName":null,"infoStatus":"1","orgName":"国网浙江杭州市余杭区供电有限公司","typeName":null,"infoStatusName":null,"dateDay":null,"orgNos":null,"nowTime":null,"countyName":null,"streetName":null,"villageName":null,"roadName":null,"communityName":null,"tranName":null,"sdLineName":null,"cityCode":"3340140","cityName":"国网浙江杭州市余杭区供电有限公司","provinceCode":null,"stopTime":"2018-06-04 16:00:00","powerType":"全部","powerOffArea":"110kV茅山变:木洋G980线-小林分支箱后段","powerOffReason":"茅北开关站I段木洋G980线小林分支箱分线 业扩工程 崇贤至东湖路连接线10kV迁改工程-小林分支箱及320国道路灯变移位工作","powerOffId":"2018052831010154"},{"poweroffId":2018052831010152,"sgpoweroffId":null,"subsName":"","lineName":"10kV网琪H785线","pubTranName":"","scope":"浙江省杭州市余杭区仓前街道：苕溪村闻家斗一带","startTime":"2018-06-04 08:20:00","stopDate":"2018-06-04 18:20:00","orgNo":"3340140","typeCode":"计划停电","poweroffArea":"网琪H785线闻家斗分线","poweroffReason":"配网工程（杭州余杭仓前地区2018年配变台区改造工程）：网琪H785线闻家斗分线闻家斗变160KVA增量至400KVA调换令克及计量箱，更换低压出线电缆一根。","powerTime":"2018-06-04 16:21:40","powerComm":"已送电","subsNo":"","lineNo":"","tgNo":"","tgName":null,"infoStatus":"1","orgName":"国网浙江杭州市余杭区供电有限公司","typeName":null,"infoStatusName":null,"dateDay":null,"orgNos":null,"nowTime":null,"countyName":null,"streetName":null,"villageName":null,"roadName":null,"communityName":null,"tranName":null,"sdLineName":null,"cityCode":"3340140","cityName":"国网浙江杭州市余杭区供电有限公司","provinceCode":null,"stopTime":"2018-06-04 18:20:00","powerType":"全部","powerOffArea":"网琪H785线闻家斗分线","powerOffReason":"配网工程（杭州余杭仓前地区2018年配变台区改造工程）：网琪H785线闻家斗分线闻家斗变160KVA增量至400KVA调换令克及计量箱，更换低压出线电缆一根。","powerOffId":"2018052831010152"},{"poweroffId":2018052831010151,"sgpoweroffId":null,"subsName":"","lineName":"10kV西看9940线","pubTranName":"盈佳(六),","scope":"浙江省-杭州市-西湖区-三墩镇 乾成园小区 一带","startTime":"2018-05-28 10:10:50","stopDate":"2018-05-28 17:40:50","orgNo":"3340101","typeCode":"电网故障停限电","poweroffArea":"110kV墩北变:西看9940线-盈佳(六)变","poweroffReason":"盈佳(六)变 低压设备故障","powerTime":"2018-05-28 16:55:04","powerComm":"已送电","subsNo":"","lineNo":"","tgNo":"","tgName":null,"infoStatus":"1","orgName":"浙江杭州电力客户服务中心","typeName":null,"infoStatusName":null,"dateDay":null,"orgNos":null,"nowTime":null,"countyName":null,"streetName":null,"villageName":null,"roadName":null,"communityName":null,"tranName":null,"sdLineName":null,"cityCode":"3340101","cityName":"浙江杭州电力客户服务中心","provinceCode":null,"stopTime":"2018-05-28 17:40:50","powerType":"全部","powerOffArea":"110kV墩北变:西看9940线-盈佳(六)变","powerOffReason":"盈佳(六)变 低压设备故障","powerOffId":"2018052831010151"}],"pageModel":{"pageNow":1736,"totalCount":17789,"totalPage":1779,"tableRows":0,"pageCount":10,"beginCount":17350},"isExperi":"1"}