{"message":"","today":"2020-06-16","seleList":[{"poweroffId":2018052831010135,"sgpoweroffId":null,"subsName":"","lineName":"10kV秋丰D985线","pubTranName":"秋丰村孙家弄8#公变,","scope":"浙江省-杭州市-富阳区-富春街道(秋丰行政村);","startTime":"2018-06-09 07:30:00","stopDate":"2018-06-09 17:00:00","orgNo":"3340170","typeCode":"计划停电","poweroffArea":"110kV育才变:秋丰D985线-秋丰村孙家弄8号后段","poweroffReason":"青云2018年秋丰村孙家弄8#公变等配电线路及设备大修：安装横担，拉线，架线3档，拆旧5档，旧杆拔除4只，出电缆1组，搭接等工作","powerTime":"2018-06-09 16:41:38","powerComm":"已送电","subsNo":"","lineNo":"","tgNo":"","tgName":null,"infoStatus":"1","orgName":"国网浙江杭州市富阳区供电公司","typeName":null,"infoStatusName":null,"dateDay":null,"orgNos":null,"nowTime":null,"countyName":null,"streetName":null,"villageName":null,"roadName":null,"communityName":null,"tranName":null,"sdLineName":null,"cityCode":"3340170","cityName":"国网浙江杭州市富阳区供电公司","provinceCode":null,"stopTime":"2018-06-09 17:00:00","powerType":"全部","powerOffArea":"110kV育才变:秋丰D985线-秋丰村孙家弄8号后段","powerOffReason":"青云2018年秋丰村孙家弄8#公变等配电线路及设备大修：安装横担，拉线，架线3档，拆旧5档，旧杆拔除4只，出电缆1组，搭接等工作","powerOffId":"2018052831010135"},{"poweroffId":2018052831010133,"sgpoweroffId":null,"subsName":"","lineName":"10kV大塘D797线","pubTranName":"红星村2号畈里公变,洋沙村2#教会公变,新元村4#村委公变,洋沙村3#鱼塘公变,联群村1#祠堂公变,联群村2号加工厂公变,联群农用,联群村5#金家公变,联群村4#大路渔塘公变,洋沙村4#大塔村口公变,新元村3号元旦村口公变,洋沙村5#大塔村东公变,新元村2#三堡公变,联群村3号大路供销社公变,新元村1#新安公路边公变,洋沙村1#中间公变,杭州市富阳区场口镇人民政府#王洲幼儿园基建变,","scope":"浙江省-杭州市-富阳区-场口镇(联群行政村-大路自然村、金家自然村、联群自然村,新元行政村-三堡里自然村、新安自然村、元旦自然村,洋沙行政村-大塔里自然村、洋沙自然村);(联群农用);一带","startTime":"2018-06-09 07:30:00","stopDate":"2018-06-09 16:00:00","orgNo":"3340170","typeCode":"计划停电","poweroffArea":"110kV王洲变:大塘D797线-大塘D7979开关后段","poweroffReason":"场口2018年10kV大塘D7977线等分支线绝缘化改造工程：大塘D797线大塘八号开关站4#间隔塘八D7977线45#杆后段：1、新立电杆42支；2、架设导线8档；3、更换真空开关1台、配变增容1台拆旧、搭头等工作；","powerTime":"2018-06-09 15:58:13","powerComm":"已送电","subsNo":"","lineNo":"","tgNo":"","tgName":null,"infoStatus":"1","orgName":"国网浙江杭州市富阳区供电公司","typeName":null,"infoStatusName":null,"dateDay":null,"orgNos":null,"nowTime":null,"countyName":null,"streetName":null,"villageName":null,"roadName":null,"communityName":null,"tranName":null,"sdLineName":null,"cityCode":"3340170","cityName":"国网浙江杭州市富阳区供电公司","provinceCode":null,"stopTime":"2018-06-09 16:00:00","powerType":"全部","powerOffArea":"110kV王洲变:大塘D797线-大塘D7979开关后段","powerOffReason":"场口2018年10kV大塘D7977线等分支线绝缘化改造工程：大塘D797线大塘八号开关站4#间隔塘八D7977线45#杆后段：1、新立电杆42支；2、架设导线8档；3、更换真空开关1台、配变增容1台拆旧、搭头等工作；","powerOffId":"2018052831010133"},{"poweroffId":2018052831010132,"sgpoweroffId":null,"subsName":"","lineName":"10kV城阳D144线","pubTranName":"共和街2号中学公变,","scope":"浙江省杭州市富阳区新登镇彭家弄、共和街一带","startTime":"2018-06-09 07:00:00","stopDate":"2018-06-09 13:00:00","orgNo":"3340170","typeCode":"计划停电","poweroffArea":"110kV新登变:城阳D144线25#杆彭家弄分线3#后段","poweroffReason":"配合新登变联络工程：真空开关安装搭头等工作","powerTime":"2018-06-09 11:27:54","powerComm":"已送电","subsNo":"","lineNo":"","tgNo":"","tgName":null,"infoStatus":"1","orgName":"国网浙江杭州市富阳区供电公司","typeName":null,"infoStatusName":null,"dateDay":null,"orgNos":null,"nowTime":null,"countyName":null,"streetName":null,"villageName":null,"roadName":null,"communityName":null,"tranName":null,"sdLineName":null,"cityCode":"3340170","cityName":"国网浙江杭州市富阳区供电公司","provinceCode":null,"stopTime":"2018-06-09 13:00:00","powerType":"全部","powerOffArea":"110kV新登变:城阳D144线25#杆彭家弄分线3#后段","powerOffReason":"配合新登变联络工程：真空开关安装搭头等工作","powerOffId":"2018052831010132"},{"poweroffId":2018052831010130,"sgpoweroffId":null,"subsName":"","lineName":"10kV立新D124线","pubTranName":"3#变,2#变,1#变,共和街1#彭家公变,彭家弄1#公变,","scope":"浙江省杭州市富阳区新登镇彭家弄、共和街一带","startTime":"2018-06-09 07:00:00","stopDate":"2018-06-09 13:00:00","orgNo":"3340170","typeCode":"计划停电","poweroffArea":"110kV新登变:立新D124线15#杆新登中学分线","poweroffReason":"配合新登变联络工程：真空开关安装搭头等工作","powerTime":"2018-06-09 11:27:13","powerComm":"已送电","subsNo":"","lineNo":"","tgNo":"","tgName":null,"infoStatus":"1","orgName":"国网浙江杭州市富阳区供电公司","typeName":null,"infoStatusName":null,"dateDay":null,"orgNos":null,"nowTime":null,"countyName":null,"streetName":null,"villageName":null,"roadName":null,"communityName":null,"tranName":null,"sdLineName":null,"cityCode":"3340170","cityName":"国网浙江杭州市富阳区供电公司","provinceCode":null,"stopTime":"2018-06-09 13:00:00","powerType":"全部","powerOffArea":"110kV新登变:立新D124线15#杆新登中学分线","powerOffReason":"配合新登变联络工程：真空开关安装搭头等工作","powerOffId":"2018052831010130"},{"poweroffId":2018052831010129,"sgpoweroffId":null,"subsName":"","lineName":"10kV余杭H703线","pubTranName":"中南路口2号公变,","scope":"浙江省杭州市余杭区余杭街道:中南村路口一带","startTime":"2018-06-04 08:40:00","stopDate":"2018-06-04 18:30:00","orgNo":"3340140","typeCode":"计划停电","poweroffArea":"110kV余杭变:余杭H703线-中南路口2#分线开关后段","poweroffReason":"拆除中南路口2#变，低压改接至中南路口变","powerTime":"2018-06-04 16:39:42","powerComm":"已送电","subsNo":"","lineNo":"","tgNo":"","tgName":null,"infoStatus":"1","orgName":"国网浙江杭州市余杭区供电有限公司","typeName":null,"infoStatusName":null,"dateDay":null,"orgNos":null,"nowTime":null,"countyName":null,"streetName":null,"villageName":null,"roadName":null,"communityName":null,"tranName":null,"sdLineName":null,"cityCode":"3340140","cityName":"国网浙江杭州市余杭区供电有限公司","provinceCode":null,"stopTime":"2018-06-04 18:30:00","powerType":"全部","powerOffArea":"110kV余杭变:余杭H703线-中南路口2#分线开关后段","powerOffReason":"拆除中南路口2#变，低压改接至中南路口变","powerOffId":"2018052831010129"},{"poweroffId":2018052831010128,"sgpoweroffId":null,"subsName":"","lineName":"10kV万市D338线","pubTranName":"田源村11#黄地里公变变压器间隔配电变压器,","scope":"浙江省-杭州市富阳区万市镇(田源行政村)田源村黄地里一带","startTime":"2018-06-08 07:30:00","stopDate":"2018-06-08 17:20:00","orgNo":"3340170","typeCode":"计划停电","poweroffArea":"110kV万市变万市D338线田源村11号黄地里公变变压器间隔配电变压器后段","poweroffReason":"田源村11#黄地里公变、黄地里02线、安装抱箍5付、支架12只、架设BS-JKLYJ-4*35*20米、BS-JKLYJ-2*25*200米、更换照明表箱12只、搭接5处","powerTime":"2018-06-08 16:29:43","powerComm":"工作结束已送电","subsNo":"","lineNo":"","tgNo":"","tgName":null,"infoStatus":"1","orgName":"国网浙江杭州市富阳区供电公司","typeName":null,"infoStatusName":null,"dateDay":null,"orgNos":null,"nowTime":null,"countyName":null,"streetName":null,"villageName":null,"roadName":null,"communityName":null,"tranName":null,"sdLineName":null,"cityCode":"3340170","cityName":"国网浙江杭州市富阳区供电公司","provinceCode":null,"stopTime":"2018-06-08 17:20:00","powerType":"全部","powerOffArea":"110kV万市变万市D338线田源村11号黄地里公变变压器间隔配电变压器后段","powerOffReason":"田源村11#黄地里公变、黄地里02线、安装抱箍5付、支架12只、架设BS-JKLYJ-4*35*20米、BS-JKLYJ-2*25*200米、更换照明表箱12只、搭接5处","powerOffId":"2018052831010128"},{"poweroffId":2018052831010127,"sgpoweroffId":null,"subsName":"","lineName":"10kV渔山D913线","pubTranName":"旭光村2#公路边公变,","scope":"浙江省-杭州市-富阳区渔山乡(大葛行政村-旭光自然村);公路边一带","startTime":"2018-06-08 08:30:00","stopDate":"2018-06-08 17:10:00","orgNo":"3340170","typeCode":"计划停电","poweroffArea":"110kV里渔变:渔山D913线-旭光村2号公路边1号线后段","poweroffReason":"江南2017年灵桥镇江丰村等低压台区造改：更换接户线30处、搭接等工作","powerTime":"2018-06-08 16:24:40","powerComm":"工作结束已送电","subsNo":"","lineNo":"","tgNo":"","tgName":null,"infoStatus":"1","orgName":"国网浙江杭州市富阳区供电公司","typeName":null,"infoStatusName":null,"dateDay":null,"orgNos":null,"nowTime":null,"countyName":null,"streetName":null,"villageName":null,"roadName":null,"communityName":null,"tranName":null,"sdLineName":null,"cityCode":"3340170","cityName":"国网浙江杭州市富阳区供电公司","provinceCode":null,"stopTime":"2018-06-08 17:10:00","powerType":"全部","powerOffArea":"110kV里渔变:渔山D913线-旭光村2号公路边1号线后段","powerOffReason":"江南2017年灵桥镇江丰村等低压台区造改：更换接户线30处、搭接等工作","powerOffId":"2018052831010127"},{"poweroffId":2018052831010125,"sgpoweroffId":null,"subsName":"","lineName":"10kV五联D264线","pubTranName":"五联村6#塘头公变,","scope":"浙江省-杭州市-富阳区-常绿镇(五联行政村-塘头自然村)一带;","startTime":"2018-06-08 08:50:00","stopDate":"2018-06-08 17:10:00","orgNo":"3340170","typeCode":"计划停电","poweroffArea":"35kV盛村变:五联D264线-五联村6号塘头公变后段","poweroffReason":"五联村6#塘头公变人工运杆、吊车立杆、更换接户线、安装表计","powerTime":"2018-06-08 16:23:28","powerComm":"工作结束已送电","subsNo":"","lineNo":"","tgNo":"","tgName":null,"infoStatus":"1","orgName":"国网浙江杭州市富阳区供电公司","typeName":null,"infoStatusName":null,"dateDay":null,"orgNos":null,"nowTime":null,"countyName":null,"streetName":null,"villageName":null,"roadName":null,"communityName":null,"tranName":null,"sdLineName":null,"cityCode":"3340170","cityName":"国网浙江杭州市富阳区供电公司","provinceCode":null,"stopTime":"2018-06-08 17:10:00","powerType":"全部","powerOffArea":"35kV盛村变:五联D264线-五联村6号塘头公变后段","powerOffReason":"五联村6#塘头公变人工运杆、吊车立杆、更换接户线、安装表计","powerOffId":"2018052831010125"},{"poweroffId":2018052831010123,"sgpoweroffId":null,"subsName":"","lineName":"10kV交通D364线","pubTranName":"秋丰村孙家弄4#公变,","scope":"浙江省-杭州市-富阳区-富春街道(秋丰行政村);","startTime":"2018-06-08 12:00:00","stopDate":"2018-06-08 17:10:00","orgNo":"3340170","typeCode":"计划停电","poweroffArea":"110kV富鹿变:交通D364线-秋丰村孙家弄4号后段","poweroffReason":"青云2018年秋丰村孙家弄4#公变等配电线路及设备大修：打墙架，沿墙敷设JKLYJ*4*120*200米，动力表移位2只，搭接等工作","powerTime":"2018-06-08 16:21:00","powerComm":"工作结束已送电","subsNo":"","lineNo":"","tgNo":"","tgName":null,"infoStatus":"1","orgName":"国网浙江杭州市富阳区供电公司","typeName":null,"infoStatusName":null,"dateDay":null,"orgNos":null,"nowTime":null,"countyName":null,"streetName":null,"villageName":null,"roadName":null,"communityName":null,"tranName":null,"sdLineName":null,"cityCode":"3340170","cityName":"国网浙江杭州市富阳区供电公司","provinceCode":null,"stopTime":"2018-06-08 17:10:00","powerType":"全部","powerOffArea":"110kV富鹿变:交通D364线-秋丰村孙家弄4号后段","powerOffReason":"青云2018年秋丰村孙家弄4#公变等配电线路及设备大修：打墙架，沿墙敷设JKLYJ*4*120*200米，动力表移位2只，搭接等工作","powerOffId":"2018052831010123"},{"poweroffId":2018052831010121,"sgpoweroffId":null,"subsName":"","lineName":"10kV笼山D252线","pubTranName":"鸡笼山4#山坎公变,","scope":"浙江省杭州市-富阳区-东洲街道(鸡笼山行政村-赤松自然村、鸡笼山自然村);","startTime":"2018-06-08 07:30:00","stopDate":"2018-06-08 17:00:00","orgNo":"3340170","typeCode":"计划停电","poweroffArea":"110kV白鹤变:笼山D252线-鸡笼山4#山坎公变台区低压开关","poweroffReason":"青云2018年江岭村1#村北公变等低压台区改造工程:更换进户线30、搭接等工作","powerTime":"2018-06-08 16:12:21","powerComm":"工作结束已送电","subsNo":"","lineNo":"","tgNo":"","tgName":null,"infoStatus":"1","orgName":"国网浙江杭州市富阳区供电公司","typeName":null,"infoStatusName":null,"dateDay":null,"orgNos":null,"nowTime":null,"countyName":null,"streetName":null,"villageName":null,"roadName":null,"communityName":null,"tranName":null,"sdLineName":null,"cityCode":"3340170","cityName":"国网浙江杭州市富阳区供电公司","provinceCode":null,"stopTime":"2018-06-08 17:00:00","powerType":"全部","powerOffArea":"110kV白鹤变:笼山D252线-鸡笼山4#山坎公变台区低压开关","powerOffReason":"青云2018年江岭村1#村北公变等低压台区改造工程:更换进户线30、搭接等工作","powerOffId":"2018052831010121"}],"pageModel":{"pageNow":1738,"totalCount":17789,"totalPage":1779,"tableRows":0,"pageCount":10,"beginCount":17370},"isExperi":"1"}