{"message":"","today":"2020-06-16","seleList":[{"poweroffId":2018052831010104,"sgpoweroffId":null,"subsName":"","lineName":"10kV乔镇G059线","pubTranName":"乔司经济适用房变,","scope":"浙江省杭州市余杭区乔司街道：乔司经济适用房小区一带","startTime":"2018-06-05 08:40:00","stopDate":"2018-06-05 17:00:00","orgNo":"3340140","typeCode":"计划停电","poweroffArea":"110kV外乔变:乔镇G059线-经济适用房分线后段","poweroffReason":"景城开关站I段乔镇G059线经济适用房分线 配网工程 乔司经济适用房变降噪","powerTime":"2018-06-05 15:19:24","powerComm":"施工结束","subsNo":"","lineNo":"","tgNo":"","tgName":null,"infoStatus":"1","orgName":"国网浙江杭州市余杭区供电有限公司","typeName":null,"infoStatusName":null,"dateDay":null,"orgNos":null,"nowTime":null,"countyName":null,"streetName":null,"villageName":null,"roadName":null,"communityName":null,"tranName":null,"sdLineName":null,"cityCode":"3340140","cityName":"国网浙江杭州市余杭区供电有限公司","provinceCode":null,"stopTime":"2018-06-05 17:00:00","powerType":"全部","powerOffArea":"110kV外乔变:乔镇G059线-经济适用房分线后段","powerOffReason":"景城开关站I段乔镇G059线经济适用房分线 配网工程 乔司经济适用房变降噪","powerOffId":"2018052831010104"},{"poweroffId":2018052831010103,"sgpoweroffId":null,"subsName":"","lineName":"10kV藕花G114线","pubTranName":"中山花苑1#,中山花苑2#,","scope":"浙江省杭州市余杭区南苑街道：中山花苑小区一带","startTime":"2018-06-05 08:40:00","stopDate":"2018-06-05 17:00:00","orgNo":"3340140","typeCode":"计划停电","poweroffArea":"110kV临平变:藕花G114线-中山花苑1#后段","poweroffReason":"藕花开关站II段藕花G114线中康分线 配网工程 调换中山花苑1#箱变","powerTime":"2018-06-05 16:23:31","powerComm":"施工结束","subsNo":"","lineNo":"","tgNo":"","tgName":null,"infoStatus":"1","orgName":"国网浙江杭州市余杭区供电有限公司","typeName":null,"infoStatusName":null,"dateDay":null,"orgNos":null,"nowTime":null,"countyName":null,"streetName":null,"villageName":null,"roadName":null,"communityName":null,"tranName":null,"sdLineName":null,"cityCode":"3340140","cityName":"国网浙江杭州市余杭区供电有限公司","provinceCode":null,"stopTime":"2018-06-05 17:00:00","powerType":"全部","powerOffArea":"110kV临平变:藕花G114线-中山花苑1#后段","powerOffReason":"藕花开关站II段藕花G114线中康分线 配网工程 调换中山花苑1#箱变","powerOffId":"2018052831010103"},{"poweroffId":2018052831010101,"sgpoweroffId":null,"subsName":"","lineName":"10kV百合G100线","pubTranName":"康家公寓1#,东湖公寓（三）,东湖公寓（二）,东湖公寓（一）,东湖公寓（四）,东湖泵站,康家公寓2#,","scope":"浙江省杭州市余杭区南苑街道：康家公寓小区、东湖公寓小区、东湖泵站一带","startTime":"2018-06-05 08:40:00","stopDate":"2018-06-05 17:00:00","orgNo":"3340140","typeCode":"计划停电","poweroffArea":"110kV临平变:百合G100线-东湖公寓分支箱后段","poweroffReason":"藕花开关站I段百合G100线东湖公园分线 配网工程 调换康家公寓1#箱变","powerTime":"2018-06-05 16:08:02","powerComm":"施工结束","subsNo":"","lineNo":"","tgNo":"","tgName":null,"infoStatus":"1","orgName":"国网浙江杭州市余杭区供电有限公司","typeName":null,"infoStatusName":null,"dateDay":null,"orgNos":null,"nowTime":null,"countyName":null,"streetName":null,"villageName":null,"roadName":null,"communityName":null,"tranName":null,"sdLineName":null,"cityCode":"3340140","cityName":"国网浙江杭州市余杭区供电有限公司","provinceCode":null,"stopTime":"2018-06-05 17:00:00","powerType":"全部","powerOffArea":"110kV临平变:百合G100线-东湖公寓分支箱后段","powerOffReason":"藕花开关站I段百合G100线东湖公园分线 配网工程 调换康家公寓1#箱变","powerOffId":"2018052831010101"},{"poweroffId":2018052831010100,"sgpoweroffId":null,"subsName":"","lineName":"10kV安顶D909线","pubTranName":"灵峰村国庆4#鸡笼岭公变,","scope":"浙江省-杭州市富阳区-里山镇(灵峰行政村-国庆自然村);鸡笼岭一带","startTime":"2018-06-07 08:00:00","stopDate":"2018-06-07 16:10:00","orgNo":"3340170","typeCode":"计划停电","poweroffArea":"110kV里渔变:安顶D909线-灵峰村国庆4号鸡笼岭2号开关后段","poweroffReason":"江南2017年灵桥村黄泥沙5#上台门公变等台区低压线路改造工程：做防风拉、架集束线、搭接、拆旧等工作","powerTime":"2018-06-07 15:36:53","powerComm":"工作结束已送电","subsNo":"","lineNo":"","tgNo":"","tgName":null,"infoStatus":"1","orgName":"国网浙江杭州市富阳区供电公司","typeName":null,"infoStatusName":null,"dateDay":null,"orgNos":null,"nowTime":null,"countyName":null,"streetName":null,"villageName":null,"roadName":null,"communityName":null,"tranName":null,"sdLineName":null,"cityCode":"3340170","cityName":"国网浙江杭州市富阳区供电公司","provinceCode":null,"stopTime":"2018-06-07 16:10:00","powerType":"全部","powerOffArea":"110kV里渔变:安顶D909线-灵峰村国庆4号鸡笼岭2号开关后段","powerOffReason":"江南2017年灵桥村黄泥沙5#上台门公变等台区低压线路改造工程：做防风拉、架集束线、搭接、拆旧等工作","powerOffId":"2018052831010100"},{"poweroffId":2018052831010099,"sgpoweroffId":null,"subsName":"","lineName":"10kV胥口D712线","pubTranName":"高联村3#雷公里公变,","scope":"浙江省-杭州市-富阳区-胥口镇(高联行政村-雷公里自然村);","startTime":"2018-06-07 07:30:00","stopDate":"2018-06-07 15:30:00","orgNo":"3340170","typeCode":"计划停电","poweroffArea":"110kV松溪变:胥口D712线-高联村3#雷公里公变台区低压开关","poweroffReason":"稻坎坞02线11-2#杆-11-10#杆架设BS-JKLYJ-4*70*8档、拆除BS-JKLYJ-4*35*8档、制作拉线5组拆装抱箍等工作","powerTime":"2018-06-07 15:01:24","powerComm":"工作结束已送电","subsNo":"","lineNo":"","tgNo":"","tgName":null,"infoStatus":"1","orgName":"国网浙江杭州市富阳区供电公司","typeName":null,"infoStatusName":null,"dateDay":null,"orgNos":null,"nowTime":null,"countyName":null,"streetName":null,"villageName":null,"roadName":null,"communityName":null,"tranName":null,"sdLineName":null,"cityCode":"3340170","cityName":"国网浙江杭州市富阳区供电公司","provinceCode":null,"stopTime":"2018-06-07 15:30:00","powerType":"全部","powerOffArea":"110kV松溪变:胥口D712线-高联村3#雷公里公变台区低压开关","powerOffReason":"稻坎坞02线11-2#杆-11-10#杆架设BS-JKLYJ-4*70*8档、拆除BS-JKLYJ-4*35*8档、制作拉线5组拆装抱箍等工作","powerOffId":"2018052831010099"},{"poweroffId":2018052831010098,"sgpoweroffId":null,"subsName":"","lineName":"10kV秋丰D985线","pubTranName":"秋丰村孙家弄5#公变,","scope":"浙江省-杭州市-富阳区-富春街道(秋丰行政村);","startTime":"2018-06-07 07:20:00","stopDate":"2018-06-07 12:10:00","orgNo":"3340170","typeCode":"计划停电","poweroffArea":"110kV育才变:秋丰D985线-秋丰村孙家弄5号后段","poweroffReason":"青云2018年包家淇6#山里公变等配电线路及设备大修：安装横担，拉线，架线6档，拆旧2档，吊车立杆，出电缆2组，搭接等工作","powerTime":"2018-06-07 11:52:25","powerComm":"工作已结束","subsNo":"","lineNo":"","tgNo":"","tgName":null,"infoStatus":"1","orgName":"国网浙江杭州市富阳区供电公司","typeName":null,"infoStatusName":null,"dateDay":null,"orgNos":null,"nowTime":null,"countyName":null,"streetName":null,"villageName":null,"roadName":null,"communityName":null,"tranName":null,"sdLineName":null,"cityCode":"3340170","cityName":"国网浙江杭州市富阳区供电公司","provinceCode":null,"stopTime":"2018-06-07 12:10:00","powerType":"全部","powerOffArea":"110kV育才变:秋丰D985线-秋丰村孙家弄5号后段","powerOffReason":"青云2018年包家淇6#山里公变等配电线路及设备大修：安装横担，拉线，架线6档，拆旧2档，吊车立杆，出电缆2组，搭接等工作","powerOffId":"2018052831010098"},{"poweroffId":2018052831010094,"sgpoweroffId":null,"subsName":"","lineName":"10kV小山H715线","pubTranName":"洪桐村戴家公变,洪桐村五圣公变,洪桐村青龙公变,万翔通信,洪桐村木桥砖瓦公变,洪桐村革命大队公变,疗草其,石良木桥分场,洪桐村泰山木桥公变,余杭鹏城模具制造有限公司,洪桐村柏家公变,","scope":"浙江省杭州市余杭区余杭街道:洪桐村戴家、洪桐村五圣、洪桐村木桥砖瓦、鹏城模具厂、洪桐村石良木桥分场、洪桐村疗草其、洪桐村革命大队、洪桐村青龙、洪桐村柏家、洪桐村泰山木桥、全兴塑业厂一带","startTime":"2018-06-06 07:40:00","stopDate":"2018-06-06 18:30:00","orgNo":"3340140","typeCode":"计划停电","poweroffArea":"110kV余杭变:小山H715线-五圣分线开关后段","poweroffReason":"小山H715线洪桐村革命大队变160kVA增量至400kVA，调换令克、计量箱及YJV-4*240出线电缆2*16米；小山H715线洪桐村青龙变160kVA增量至400kVA，调换12米副杆、令克、计量箱及YJV-4*240出线电缆2*20米。","powerTime":"2018-06-06 16:15:36","powerComm":"已送电","subsNo":"","lineNo":"","tgNo":"","tgName":null,"infoStatus":"1","orgName":"国网浙江杭州市余杭区供电有限公司","typeName":null,"infoStatusName":null,"dateDay":null,"orgNos":null,"nowTime":null,"countyName":null,"streetName":null,"villageName":null,"roadName":null,"communityName":null,"tranName":null,"sdLineName":null,"cityCode":"3340140","cityName":"国网浙江杭州市余杭区供电有限公司","provinceCode":null,"stopTime":"2018-06-06 18:30:00","powerType":"全部","powerOffArea":"110kV余杭变:小山H715线-五圣分线开关后段","powerOffReason":"小山H715线洪桐村革命大队变160kVA增量至400kVA，调换令克、计量箱及YJV-4*240出线电缆2*16米；小山H715线洪桐村青龙变160kVA增量至400kVA，调换12米副杆、令克、计量箱及YJV-4*240出线电缆2*20米。","powerOffId":"2018052831010094"},{"poweroffId":2018052831010091,"sgpoweroffId":null,"subsName":"","lineName":"10kV万市D338线","pubTranName":"田源村8#石元里公变,","scope":"浙江省-杭州市富阳区万市镇(田源行政村)田源村石元里一带","startTime":"2018-06-06 07:30:00","stopDate":"2018-06-06 17:20:00","orgNo":"3340170","typeCode":"计划停电","poweroffArea":"110kV万市变万市D338线田源村8号石元里公变后段","poweroffReason":"田源村8#石源里公变、里村02线、黄山03线、更换接户线、拆旧、安装抱箍8付、支架15只、更换照明表箱10只、动力表箱2只、架设BS-JKLYJ-2*25*200米、架设BS-JKLYJ-4*35*70米、搭接8处","powerTime":"2018-06-06 16:29:45","powerComm":"工作结束已送电","subsNo":"","lineNo":"","tgNo":"","tgName":null,"infoStatus":"1","orgName":"国网浙江杭州市富阳区供电公司","typeName":null,"infoStatusName":null,"dateDay":null,"orgNos":null,"nowTime":null,"countyName":null,"streetName":null,"villageName":null,"roadName":null,"communityName":null,"tranName":null,"sdLineName":null,"cityCode":"3340170","cityName":"国网浙江杭州市富阳区供电公司","provinceCode":null,"stopTime":"2018-06-06 17:20:00","powerType":"全部","powerOffArea":"110kV万市变万市D338线田源村8号石元里公变后段","powerOffReason":"田源村8#石源里公变、里村02线、黄山03线、更换接户线、拆旧、安装抱箍8付、支架15只、更换照明表箱10只、动力表箱2只、架设BS-JKLYJ-2*25*200米、架设BS-JKLYJ-4*35*70米、搭接8处","powerOffId":"2018052831010091"},{"poweroffId":2018052831010087,"sgpoweroffId":null,"subsName":"","lineName":"10kV独山G137线","pubTranName":"龙旋村莫家浜变,龙旋山前东南2变,龙旋村莫家浜2号公变,中亚布艺,大舜公路3#路灯变,沈家浜收费站,四维村宋家路,龙旋村山前2组变,龙旋村山前东南,","scope":"浙江省杭州市余杭区崇贤街道：龙旋村莫家浜、龙旋村山前东南、龙旋村山前jibu、龙旋村山前、杭州中亚布艺有限公司、浙江省交通投资集团有限公司申嘉湖杭分公司、杭州市余杭区公路管理处一带","startTime":"2018-06-06 08:20:00","stopDate":"2018-06-06 17:00:00","orgNo":"3340140","typeCode":"计划停电","poweroffArea":"35kV沾桥变:独山G137线独山G1372开关-独山G1373开关","poweroffReason":"杭州余杭崇贤2018年龙旋等村配变台区改造工程：新布山前3号400KVA配变、计量箱各一台，新立15米电杆2基工作；","powerTime":"2018-06-06 16:24:27","powerComm":"已送电","subsNo":"","lineNo":"","tgNo":"","tgName":null,"infoStatus":"1","orgName":"国网浙江杭州市余杭区供电有限公司","typeName":null,"infoStatusName":null,"dateDay":null,"orgNos":null,"nowTime":null,"countyName":null,"streetName":null,"villageName":null,"roadName":null,"communityName":null,"tranName":null,"sdLineName":null,"cityCode":"3340140","cityName":"国网浙江杭州市余杭区供电有限公司","provinceCode":null,"stopTime":"2018-06-06 17:00:00","powerType":"全部","powerOffArea":"35kV沾桥变:独山G137线独山G1372开关-独山G1373开关","powerOffReason":"杭州余杭崇贤2018年龙旋等村配变台区改造工程：新布山前3号400KVA配变、计量箱各一台，新立15米电杆2基工作；","powerOffId":"2018052831010087"},{"poweroffId":2018052831010086,"sgpoweroffId":null,"subsName":"","lineName":"10kV文苑D366线","pubTranName":"文苑路3#公变,","scope":"浙江省-杭州市-富阳区-富春街道(太平桥社区-桂花西路、文苑路);","startTime":"2018-06-06 08:00:00","stopDate":"2018-06-06 17:10:00","orgNo":"3340170","typeCode":"计划停电","poweroffArea":"110kV富鹿变:文苑D366线-文苑路3#公变后段","poweroffReason":"国网浙江富阳供电公司2018年客户计量装置建设与改造:文苑路3#公变2#开关2#出线（6611846339）桂花西路257-42号文苑路（新华书店旁）进行表箱改造等工作","powerTime":"2018-06-06 16:25:40","powerComm":"工作结束已送电","subsNo":"","lineNo":"","tgNo":"","tgName":null,"infoStatus":"1","orgName":"国网浙江杭州市富阳区供电公司","typeName":null,"infoStatusName":null,"dateDay":null,"orgNos":null,"nowTime":null,"countyName":null,"streetName":null,"villageName":null,"roadName":null,"communityName":null,"tranName":null,"sdLineName":null,"cityCode":"3340170","cityName":"国网浙江杭州市富阳区供电公司","provinceCode":null,"stopTime":"2018-06-06 17:10:00","powerType":"全部","powerOffArea":"110kV富鹿变:文苑D366线-文苑路3#公变后段","powerOffReason":"国网浙江富阳供电公司2018年客户计量装置建设与改造:文苑路3#公变2#开关2#出线（6611846339）桂花西路257-42号文苑路（新华书店旁）进行表箱改造等工作","powerOffId":"2018052831010086"}],"pageModel":{"pageNow":1740,"totalCount":17789,"totalPage":1779,"tableRows":0,"pageCount":10,"beginCount":17390},"isExperi":"1"}