{"message":"","today":"2020-06-15","seleList":[{"poweroffId":2020051431020255,"sgpoweroffId":null,"subsName":"","lineName":"10kV紫文8929线","pubTranName":"金海,丹枫,金都,","scope":"浙江省-杭州市-西湖区-文新街道-金都花园东区13幢至16幢用户及沿街商铺、金海公寓1幢至4幢用户及沿街商铺、丹枫新村1幢至6幢用户及沿街商铺一带","startTime":"2020-05-27 13:00:00","stopDate":"2020-05-27 15:20:00","orgNo":"3340101","typeCode":"计划停电","poweroffArea":"110kV丰潭变:紫文8929线-金海后段;紫文8929线-金都后段;紫文8929线-丹枫后段","poweroffReason":"杭州地铁机场快线西溪湿地站至文三路站区间风井10kV电力一期迁改工程三兴分线改接至新金昌站10#间隔 原停电结束时间为2020-05-27 17:30:00,为减少客户停电时间,加快工作进度,提前送电,现变更停电结束时间为2020-05-27 15:20:00","powerTime":"2020-05-27 14:46:59","powerComm":"已送电","subsNo":"","lineNo":"","tgNo":"","tgName":null,"infoStatus":"1","orgName":"浙江杭州电力客户服务中心","typeName":null,"infoStatusName":null,"dateDay":null,"orgNos":null,"nowTime":null,"countyName":null,"streetName":null,"villageName":null,"roadName":null,"communityName":null,"tranName":null,"sdLineName":null,"cityCode":"3340101","cityName":"浙江杭州电力客户服务中心","provinceCode":null,"stopTime":"2020-05-27 15:20:00","powerType":"全部","powerOffArea":"110kV丰潭变:紫文8929线-金海后段;紫文8929线-金都后段;紫文8929线-丹枫后段","powerOffReason":"杭州地铁机场快线西溪湿地站至文三路站区间风井10kV电力一期迁改工程三兴分线改接至新金昌站10#间隔 原停电结束时间为2020-05-27 17:30:00,为减少客户停电时间,加快工作进度,提前送电,现变更停电结束时间为2020-05-27 15:20:00","powerOffId":"2020051431020255"},{"poweroffId":2020051431020254,"sgpoweroffId":null,"subsName":"","lineName":"10kV留高8858线","pubTranName":"小村五,","scope":"浙江省-杭州市-西湖区-留下街道-小和山新苑小区八区1幢、2幢一带","startTime":"2020-05-26 09:30:00","stopDate":"2020-05-26 14:30:00","orgNo":"3340101","typeCode":"计划停电","poweroffArea":"110kV留下变:留高8858线-小村五后段","poweroffReason":"屏峰新村等小区美变更换工程PD2020-04-011-LX小村五配变美变换欧变 原停电结束时间为2020-05-26 17:30:00,为减少客户停电时间,加快工作进度,提前送电,现变更停电结束时间为2020-05-26 14:30:00","powerTime":"2020-05-26 13:48:31","powerComm":"已送电","subsNo":"","lineNo":"","tgNo":"","tgName":null,"infoStatus":"1","orgName":"浙江杭州电力客户服务中心","typeName":null,"infoStatusName":null,"dateDay":null,"orgNos":null,"nowTime":null,"countyName":null,"streetName":null,"villageName":null,"roadName":null,"communityName":null,"tranName":null,"sdLineName":null,"cityCode":"3340101","cityName":"浙江杭州电力客户服务中心","provinceCode":null,"stopTime":"2020-05-26 14:30:00","powerType":"全部","powerOffArea":"110kV留下变:留高8858线-小村五后段","powerOffReason":"屏峰新村等小区美变更换工程PD2020-04-011-LX小村五配变美变换欧变 原停电结束时间为2020-05-26 17:30:00,为减少客户停电时间,加快工作进度,提前送电,现变更停电结束时间为2020-05-26 14:30:00","powerOffId":"2020051431020254"},{"poweroffId":2020051431020249,"sgpoweroffId":null,"subsName":"","lineName":"10kV南站D321线","pubTranName":"富阳市春江中心小学,","scope":"浙江省-杭州市-富阳区-春江街道-春江行政村-杭州市富阳区春江中心小学一带","startTime":"2020-05-16 08:30:00","stopDate":"2020-05-17 17:00:00","orgNo":"3340170","typeCode":"临时停电","poweroffArea":"110kV建设变:南站D321线-春江小学支线开关后段","poweroffReason":"江南区域学校空调业扩配套工程（低 压）：配电屏改造等工作。 原停电结束时间为2020-05-16 17:00:00,因工作复杂原因,延迟送电,现变更停电结束时间为2020-05-17 17:00:00","powerTime":"2020-05-17 16:35:27","powerComm":"已送电","subsNo":"","lineNo":"","tgNo":"","tgName":null,"infoStatus":"1","orgName":"国网浙江杭州市富阳区供电公司","typeName":null,"infoStatusName":null,"dateDay":null,"orgNos":null,"nowTime":null,"countyName":null,"streetName":null,"villageName":null,"roadName":null,"communityName":null,"tranName":null,"sdLineName":null,"cityCode":"3340170","cityName":"国网浙江杭州市富阳区供电公司","provinceCode":null,"stopTime":"2020-05-17 17:00:00","powerType":"全部","powerOffArea":"110kV建设变:南站D321线-春江小学支线开关后段","powerOffReason":"江南区域学校空调业扩配套工程（低 压）：配电屏改造等工作。 原停电结束时间为2020-05-16 17:00:00,因工作复杂原因,延迟送电,现变更停电结束时间为2020-05-17 17:00:00","powerOffId":"2020051431020249"},{"poweroffId":2020051431020248,"sgpoweroffId":null,"subsName":"","lineName":"10kV南站D321线","pubTranName":"富阳市春江中心小学,","scope":"浙江省-杭州市-富阳区-春江街道-春江行政村-杭州市富阳区春江中心小学一带","startTime":"2020-05-16 08:45:00","stopDate":"2020-05-16 16:00:00","orgNo":"3340170","typeCode":"临时停电","poweroffArea":"110kV建设变:南站D321线-春江小学支线开关后段","poweroffReason":"江南区域学校空调业扩配套工程（高低 压）：二联分线20#杆保险丝开关更换为真空开关，杆上附件更换等工作。","powerTime":"2020-05-16 15:50:26","powerComm":"已送电","subsNo":"","lineNo":"","tgNo":"","tgName":null,"infoStatus":"1","orgName":"国网浙江杭州市富阳区供电公司","typeName":null,"infoStatusName":null,"dateDay":null,"orgNos":null,"nowTime":null,"countyName":null,"streetName":null,"villageName":null,"roadName":null,"communityName":null,"tranName":null,"sdLineName":null,"cityCode":"3340170","cityName":"国网浙江杭州市富阳区供电公司","provinceCode":null,"stopTime":"2020-05-16 16:00:00","powerType":"全部","powerOffArea":"110kV建设变:南站D321线-春江小学支线开关后段","powerOffReason":"江南区域学校空调业扩配套工程（高低 压）：二联分线20#杆保险丝开关更换为真空开关，杆上附件更换等工作。","powerOffId":"2020051431020248"},{"poweroffId":2020051431020225,"sgpoweroffId":null,"subsName":"","lineName":"10kV和展8945线","pubTranName":"孚信(三),茗盛(七),沃玛一局3#,宏嘉宾馆2#,沃玛建筑2#,沃尔玛华东百货有限公司杭州东新分店,宏嘉宾馆1#,长木村,孚信(一),孚苑（一）,茗盛(三),东安（一）,沃玛建筑1#,杭州市下城区人民法院,景苑(三),沃玛一局1#,景苑(一),广职（一）,沃玛一局2#,电信东新分局双路内部一,景苑(七),茗盛(一),茗盛(五),景苑(五),","scope":"浙江省-杭州市-下城区-东新街道-东新园社区(香积寺路,香积寺东路,东新园),东新街道-沈家社区(香积寺路,长浜路),东新街道(三塘社区-香积寺路,东新社区-长浜路),文晖街道-胜利社区-香积寺路,石桥街道-石桥社区-长浜路;文晖街道-胜利社区(杭州万华国际酒店有限公司,杭州市下城区人民法院),东新街道-中舟社区(杭州市下城区东新街道长木经济合作社,中国电信股份有限公司杭州分公司),东新街道(沈家社区-杭州胜利经济合作社,中国建筑一局(集团)有限公司浙江分公司,东新社区-中国建筑一局(集团)有限公司浙江分公司)","startTime":"2020-05-14 15:07:28","stopDate":"2020-05-14 16:07:28","orgNo":"3340101","typeCode":"电网故障停限电","poweroffArea":"110kV东新变:和展8945线","poweroffReason":"高压开关跳闸 原停电结束时间为2020-05-14 19:07:28,为减少客户停电时间,加快工作进度,提前送电,现变更停电结束时间为2020-05-14 16:07:28","powerTime":"2020-05-14 15:38:29","powerComm":"已送电","subsNo":"","lineNo":"","tgNo":"","tgName":null,"infoStatus":"1","orgName":"浙江杭州电力客户服务中心","typeName":null,"infoStatusName":null,"dateDay":null,"orgNos":null,"nowTime":null,"countyName":null,"streetName":null,"villageName":null,"roadName":null,"communityName":null,"tranName":null,"sdLineName":null,"cityCode":"3340101","cityName":"浙江杭州电力客户服务中心","provinceCode":null,"stopTime":"2020-05-14 16:07:28","powerType":"全部","powerOffArea":"110kV东新变:和展8945线","powerOffReason":"高压开关跳闸 原停电结束时间为2020-05-14 19:07:28,为减少客户停电时间,加快工作进度,提前送电,现变更停电结束时间为2020-05-14 16:07:28","powerOffId":"2020051431020225"},{"poweroffId":2020051431020215,"sgpoweroffId":null,"subsName":"","lineName":"10kV南园7234线","pubTranName":"豪西三变,","scope":"浙江省-杭州市-滨江区-长河街道-月明社区-月明路浙江省杭州市滨江区长河街道月明社区江南豪园小区11幢503江南豪园小区11幢1-10层住宅","startTime":"2020-05-22 13:30:00","stopDate":"2020-05-22 16:30:00","orgNo":"3340101","typeCode":"计划停电","poweroffArea":"110kV江虹变:南园7234线-豪西三变后段（B3-1)低压开关","poweroffReason":"(低压停电信息)浙江省杭州市滨江区长河街道月明社区江南豪园小区11幢503","powerTime":"2020-05-22 15:34:29","powerComm":"已送电","subsNo":"","lineNo":"","tgNo":"","tgName":null,"infoStatus":"1","orgName":"浙江杭州电力客户服务中心","typeName":null,"infoStatusName":null,"dateDay":null,"orgNos":null,"nowTime":null,"countyName":null,"streetName":null,"villageName":null,"roadName":null,"communityName":null,"tranName":null,"sdLineName":null,"cityCode":"3340101","cityName":"浙江杭州电力客户服务中心","provinceCode":null,"stopTime":"2020-05-22 16:30:00","powerType":"全部","powerOffArea":"110kV江虹变:南园7234线-豪西三变后段（B3-1)低压开关","powerOffReason":"(低压停电信息)浙江省杭州市滨江区长河街道月明社区江南豪园小区11幢503","powerOffId":"2020051431020215"},{"poweroffId":2020051431020193,"sgpoweroffId":null,"subsName":"","lineName":"10kV北尚A735线","pubTranName":"尚博苑11#公变,","scope":"浙江省-杭州市-萧山区-北干街道-城北社区-博学路","startTime":"2020-05-22 08:30:00","stopDate":"2020-05-22 09:30:00","orgNo":"3340130","typeCode":"计划停电","poweroffArea":"110kV北干变:北尚A735线-尚博苑11#公变后段","poweroffReason":"安装充电桩","powerTime":"2020-05-22 09:17:59","powerComm":"已送电","subsNo":"","lineNo":"","tgNo":"","tgName":null,"infoStatus":"1","orgName":"国网浙江杭州市萧山区供电有限公司","typeName":null,"infoStatusName":null,"dateDay":null,"orgNos":null,"nowTime":null,"countyName":null,"streetName":null,"villageName":null,"roadName":null,"communityName":null,"tranName":null,"sdLineName":null,"cityCode":"3340130","cityName":"国网浙江杭州市萧山区供电有限公司","provinceCode":null,"stopTime":"2020-05-22 09:30:00","powerType":"全部","powerOffArea":"110kV北干变:北尚A735线-尚博苑11#公变后段","powerOffReason":"安装充电桩","powerOffId":"2020051431020193"},{"poweroffId":2020051431020192,"sgpoweroffId":null,"subsName":"","lineName":"10kV北尚A735线","pubTranName":"尚博苑12#公变,","scope":"浙江省-杭州市-萧山区-北干街道-城北社区-博学路","startTime":"2020-05-22 09:30:00","stopDate":"2020-05-22 10:30:00","orgNo":"3340130","typeCode":"计划停电","poweroffArea":"110kV北干变:北尚A735线-尚博苑12#公变后段","poweroffReason":"安装充电桩","powerTime":"2020-05-22 10:11:25","powerComm":"已送电","subsNo":"","lineNo":"","tgNo":"","tgName":null,"infoStatus":"1","orgName":"国网浙江杭州市萧山区供电有限公司","typeName":null,"infoStatusName":null,"dateDay":null,"orgNos":null,"nowTime":null,"countyName":null,"streetName":null,"villageName":null,"roadName":null,"communityName":null,"tranName":null,"sdLineName":null,"cityCode":"3340130","cityName":"国网浙江杭州市萧山区供电有限公司","provinceCode":null,"stopTime":"2020-05-22 10:30:00","powerType":"全部","powerOffArea":"110kV北干变:北尚A735线-尚博苑12#公变后段","powerOffReason":"安装充电桩","powerOffId":"2020051431020192"},{"poweroffId":2020051431020190,"sgpoweroffId":null,"subsName":"","lineName":"10kV通二C784线","pubTranName":"金浦名苑6#公变,","scope":"浙江省-杭州市-萧山区-北干街道-金泰苑社区-工人路","startTime":"2020-05-22 10:30:00","stopDate":"2020-05-22 11:30:00","orgNo":"3340130","typeCode":"计划停电","poweroffArea":"110kV通惠变:通二C784线-金浦名苑6#公变后段","poweroffReason":"安装充电桩","powerTime":"2020-05-22 11:27:47","powerComm":"已送电","subsNo":"","lineNo":"","tgNo":"","tgName":null,"infoStatus":"1","orgName":"国网浙江杭州市萧山区供电有限公司","typeName":null,"infoStatusName":null,"dateDay":null,"orgNos":null,"nowTime":null,"countyName":null,"streetName":null,"villageName":null,"roadName":null,"communityName":null,"tranName":null,"sdLineName":null,"cityCode":"3340130","cityName":"国网浙江杭州市萧山区供电有限公司","provinceCode":null,"stopTime":"2020-05-22 11:30:00","powerType":"全部","powerOffArea":"110kV通惠变:通二C784线-金浦名苑6#公变后段","powerOffReason":"安装充电桩","powerOffId":"2020051431020190"},{"poweroffId":2020051431020186,"sgpoweroffId":null,"subsName":"","lineName":"10kV万方D356线","pubTranName":"邮舍弄4#公变,","scope":"浙江省-杭州市-富阳区-富春街道-鹳山社区花坞南路19号一带","startTime":"2020-05-17 08:00:00","stopDate":"2020-05-17 13:20:00","orgNo":"3340170","typeCode":"临时停电","poweroffArea":"110kV富鹿变:万方D356线-邮舍弄4#公变后段","poweroffReason":"(低压停电信息)邮舍弄4#公变2#开关拆除沿墙导线2档、按装墙架横担2组、调换进户线2对、搭接等工作","powerTime":"2020-05-17 12:50:51","powerComm":"已送电","subsNo":"","lineNo":"","tgNo":"","tgName":null,"infoStatus":"1","orgName":"国网浙江杭州市富阳区供电公司","typeName":null,"infoStatusName":null,"dateDay":null,"orgNos":null,"nowTime":null,"countyName":null,"streetName":null,"villageName":null,"roadName":null,"communityName":null,"tranName":null,"sdLineName":null,"cityCode":"3340170","cityName":"国网浙江杭州市富阳区供电公司","provinceCode":null,"stopTime":"2020-05-17 13:20:00","powerType":"全部","powerOffArea":"110kV富鹿变:万方D356线-邮舍弄4#公变后段","powerOffReason":"(低压停电信息)邮舍弄4#公变2#开关拆除沿墙导线2档、按装墙架横担2组、调换进户线2对、搭接等工作","powerOffId":"2020051431020186"}],"pageModel":{"pageNow":176,"totalCount":17788,"totalPage":1779,"tableRows":0,"pageCount":10,"beginCount":1750},"isExperi":"1"}