{"message":"","today":"2020-06-16","seleList":[{"poweroffId":2018052731010053,"sgpoweroffId":null,"subsName":"","lineName":"10kV德圣A464线","pubTranName":"党湾供电营业所10#变,","scope":"浙江省-杭州市-萧山区-党湾镇幸福村、幸福行政村、镇中村、镇中行政村、庆丰村、庆丰行政村一带","startTime":"2018-05-27 08:45:49","stopDate":"2018-05-27 15:45:54","orgNo":"3340130","typeCode":"电网故障停限电","poweroffArea":"110kV幸福变:德圣A464线-党湾供电营业所10#变台区低压开关","poweroffReason":"低压架空导线断线故障","powerTime":"2018-05-27 12:38:16","powerComm":"已送电","subsNo":"","lineNo":"","tgNo":"","tgName":null,"infoStatus":"1","orgName":"国网浙江杭州市萧山区供电有限公司","typeName":null,"infoStatusName":null,"dateDay":null,"orgNos":null,"nowTime":null,"countyName":null,"streetName":null,"villageName":null,"roadName":null,"communityName":null,"tranName":null,"sdLineName":null,"cityCode":"3340130","cityName":"国网浙江杭州市萧山区供电有限公司","provinceCode":null,"stopTime":"2018-05-27 15:45:54","powerType":"全部","powerOffArea":"110kV幸福变:德圣A464线-党湾供电营业所10#变台区低压开关","powerOffReason":"低压架空导线断线故障","powerOffId":"2018052731010053"},{"poweroffId":2018052731010039,"sgpoweroffId":null,"subsName":"","lineName":"10kV千家Y408线","pubTranName":"航头村上青坞台区,","scope":"浙江省-杭州市-建德市-航头镇航头行政村-上青坞自然村一带用户。","startTime":"2018-05-27 07:56:00","stopDate":"2018-05-27 14:03:48","orgNo":"3340180","typeCode":"电网故障停限电","poweroffArea":"110kV航头变:千家Y408线-航头村上青坞台区后段","poweroffReason":"千家Y408线-航头村上青坞台区 低压配电设备故障","powerTime":"2018-05-27 08:32:00","powerComm":"已送电","subsNo":"","lineNo":"","tgNo":"","tgName":null,"infoStatus":"1","orgName":"国网浙江建德市供电有限公司","typeName":null,"infoStatusName":null,"dateDay":null,"orgNos":null,"nowTime":null,"countyName":null,"streetName":null,"villageName":null,"roadName":null,"communityName":null,"tranName":null,"sdLineName":null,"cityCode":"3340180","cityName":"国网浙江建德市供电有限公司","provinceCode":null,"stopTime":"2018-05-27 14:03:48","powerType":"全部","powerOffArea":"110kV航头变:千家Y408线-航头村上青坞台区后段","powerOffReason":"千家Y408线-航头村上青坞台区 低压配电设备故障","powerOffId":"2018052731010039"},{"poweroffId":2018052731010038,"sgpoweroffId":null,"subsName":"","lineName":"10kV南津D138线","pubTranName":"贤明山1#公变,","scope":"浙江省杭州市富阳区新登镇南津村、贤明小区一带","startTime":"2018-05-27 08:02:17","stopDate":"2018-05-27 13:03:51","orgNo":"3340170","typeCode":"电网故障停限电","poweroffArea":"110kV新登变:南津D138线-贤明山1#公变后段","poweroffReason":"低压分支线开关跳闸","powerTime":"2018-05-27 12:41:26","powerComm":"已送电","subsNo":"","lineNo":"","tgNo":"","tgName":null,"infoStatus":"1","orgName":"国网浙江杭州市富阳区供电公司","typeName":null,"infoStatusName":null,"dateDay":null,"orgNos":null,"nowTime":null,"countyName":null,"streetName":null,"villageName":null,"roadName":null,"communityName":null,"tranName":null,"sdLineName":null,"cityCode":"3340170","cityName":"国网浙江杭州市富阳区供电公司","provinceCode":null,"stopTime":"2018-05-27 13:03:51","powerType":"全部","powerOffArea":"110kV新登变:南津D138线-贤明山1#公变后段","powerOffReason":"低压分支线开关跳闸","powerOffId":"2018052731010038"},{"poweroffId":2018052731010026,"sgpoweroffId":null,"subsName":"","lineName":"10kV上马Y143线","pubTranName":"朝阳村庙边台区,","scope":"浙江省-杭州市-建德市 大同镇朝阳行政村下蒋自然村一带用户。","startTime":"2018-05-27 07:05:00","stopDate":"2018-05-27 13:13:19","orgNo":"3340180","typeCode":"电网故障停限电","poweroffArea":"35kV古城变:上马Y143线-朝阳村庙边台区后段","poweroffReason":"上马Y143线-朝阳村庙边台区 低压配电设备故障","powerTime":"2018-05-27 08:12:48","powerComm":"已送电","subsNo":"","lineNo":"","tgNo":"","tgName":null,"infoStatus":"1","orgName":"国网浙江建德市供电有限公司","typeName":null,"infoStatusName":null,"dateDay":null,"orgNos":null,"nowTime":null,"countyName":null,"streetName":null,"villageName":null,"roadName":null,"communityName":null,"tranName":null,"sdLineName":null,"cityCode":"3340180","cityName":"国网浙江建德市供电有限公司","provinceCode":null,"stopTime":"2018-05-27 13:13:19","powerType":"全部","powerOffArea":"35kV古城变:上马Y143线-朝阳村庙边台区后段","powerOffReason":"上马Y143线-朝阳村庙边台区 低压配电设备故障","powerOffId":"2018052731010026"},{"poweroffId":2018052731010002,"sgpoweroffId":null,"subsName":"","lineName":"10kV金星6605线","pubTranName":"俞家,海轴变,如意沙,五圣堂(3),外板桥,吴家三,五圣堂(2),农垦,威龙,龙池股,海皇星,白鸟村农(一),桑园(2),渔山埠,桑园(3),线厂,板桥二,白鸟(三),俞家二,浙江海皇星生态乐园有限公司2#,渔山闸二,杭江,五圣堂,财主埭二,财主埭,财主埭三,白樟,新丰（二）,上桥,加工,渔山闸,五一大队机埠,吴家二,排涝,长安沙,浙江海皇星生态乐园有限公司3#,小叔房三,陈家埠,桑园,","scope":"浙江省-杭州市-西湖区-双浦镇(白鸟行政村,杭江行政村-财主埭、张家埭,桑园地,桑园地行政村-桑园地村),浙江省-杭州市-西湖区周浦白鸟村,周浦东白泊大队);","startTime":"2018-05-27 01:04:32","stopDate":"2018-05-27 07:04:32","orgNo":"3340101","typeCode":"电网故障停限电","poweroffArea":"110kV周浦变:金星6605线-外板桥总分线开关","poweroffReason":"高压开关跳闸","powerTime":"2018-05-27 02:49:34","powerComm":"送电","subsNo":"","lineNo":"","tgNo":"","tgName":null,"infoStatus":"1","orgName":"浙江杭州电力客户服务中心","typeName":null,"infoStatusName":null,"dateDay":null,"orgNos":null,"nowTime":null,"countyName":null,"streetName":null,"villageName":null,"roadName":null,"communityName":null,"tranName":null,"sdLineName":null,"cityCode":"3340101","cityName":"浙江杭州电力客户服务中心","provinceCode":null,"stopTime":"2018-05-27 07:04:32","powerType":"全部","powerOffArea":"110kV周浦变:金星6605线-外板桥总分线开关","powerOffReason":"高压开关跳闸","powerOffId":"2018052731010002"},{"poweroffId":2018052631010290,"sgpoweroffId":null,"subsName":"","lineName":"10kV义水C512线","pubTranName":"杭州义桥金属材料市场有限公司2#,杭州义桥金属材料市场有限公司1#,杭州义桥金属材料市场有限公司2#,杭州义桥金属材料市场有限公司1#,","scope":"浙江省-杭州市-萧山区-义桥镇(杭州义桥金属材料市场有限公司);义一村一带","startTime":"2018-05-26 19:57:24","stopDate":"2018-05-26 21:02:12","orgNo":"3340130","typeCode":"电网故障停限电","poweroffArea":"35kV义桥变:义水C512线-义一4#低压开关","poweroffReason":"35kV义桥变:义水C512线-义一4#低压开关故障","powerTime":"2018-05-26 20:46:27","powerComm":"已送电","subsNo":"","lineNo":"","tgNo":"","tgName":null,"infoStatus":"1","orgName":"国网浙江杭州市萧山区供电有限公司","typeName":null,"infoStatusName":null,"dateDay":null,"orgNos":null,"nowTime":null,"countyName":null,"streetName":null,"villageName":null,"roadName":null,"communityName":null,"tranName":null,"sdLineName":null,"cityCode":"3340130","cityName":"国网浙江杭州市萧山区供电有限公司","provinceCode":null,"stopTime":"2018-05-26 21:02:12","powerType":"全部","powerOffArea":"35kV义桥变:义水C512线-义一4#低压开关","powerOffReason":"35kV义桥变:义水C512线-义一4#低压开关故障","powerOffId":"2018052631010290"},{"poweroffId":2018052631010286,"sgpoweroffId":null,"subsName":"","lineName":"10kV义镇C516线","pubTranName":"义桥集镇16#变,","scope":"浙江省-杭州市-萧山区-义桥镇(罗峰社区)等一带","startTime":"2018-05-26 19:56:03","stopDate":"2018-05-26 20:56:50","orgNo":"3340130","typeCode":"电网故障停限电","poweroffArea":"35kV义桥变:义镇C516线-义桥集镇16#低压开关","poweroffReason":"35kV义桥变:义镇C516线-义桥集镇16#低压开关故障","powerTime":"2018-05-26 20:45:44","powerComm":"已送电","subsNo":"","lineNo":"","tgNo":"","tgName":null,"infoStatus":"1","orgName":"国网浙江杭州市萧山区供电有限公司","typeName":null,"infoStatusName":null,"dateDay":null,"orgNos":null,"nowTime":null,"countyName":null,"streetName":null,"villageName":null,"roadName":null,"communityName":null,"tranName":null,"sdLineName":null,"cityCode":"3340130","cityName":"国网浙江杭州市萧山区供电有限公司","provinceCode":null,"stopTime":"2018-05-26 20:56:50","powerType":"全部","powerOffArea":"35kV义桥变:义镇C516线-义桥集镇16#低压开关","powerOffReason":"35kV义桥变:义镇C516线-义桥集镇16#低压开关故障","powerOffId":"2018052631010286"},{"poweroffId":2018052631010285,"sgpoweroffId":null,"subsName":"","lineName":"10kV群建C513线","pubTranName":"湘南村5#变,","scope":"浙江省-杭州市-萧山区-义桥镇(湘南行政村)等一带","startTime":"2018-05-26 19:54:42","stopDate":"2018-05-26 20:55:29","orgNo":"3340130","typeCode":"电网故障停限电","poweroffArea":"35kV义桥变:群建C513线-湘南村5#变低压开关","poweroffReason":"35kV义桥变:群建C513线-湘南村5#变低压开关故障","powerTime":"2018-05-26 20:25:14","powerComm":"已送电","subsNo":"","lineNo":"","tgNo":"","tgName":null,"infoStatus":"1","orgName":"国网浙江杭州市萧山区供电有限公司","typeName":null,"infoStatusName":null,"dateDay":null,"orgNos":null,"nowTime":null,"countyName":null,"streetName":null,"villageName":null,"roadName":null,"communityName":null,"tranName":null,"sdLineName":null,"cityCode":"3340130","cityName":"国网浙江杭州市萧山区供电有限公司","provinceCode":null,"stopTime":"2018-05-26 20:55:29","powerType":"全部","powerOffArea":"35kV义桥变:群建C513线-湘南村5#变低压开关","powerOffReason":"35kV义桥变:群建C513线-湘南村5#变低压开关故障","powerOffId":"2018052631010285"},{"poweroffId":2018052631010283,"sgpoweroffId":null,"subsName":"","lineName":"10kV中强C518线","pubTranName":"义桥村3#变,","scope":"浙江省-杭州市-萧山区-义桥镇(义桥行政村)等一带","startTime":"2018-05-26 19:53:15","stopDate":"2018-05-26 20:54:17","orgNo":"3340130","typeCode":"电网故障停限电","poweroffArea":"35kV义桥变:中强C518线-义桥村3#低压开关","poweroffReason":"35kV义桥变:中强C518线-义桥村3#低压开关故障","powerTime":"2018-05-26 20:25:44","powerComm":"已送电","subsNo":"","lineNo":"","tgNo":"","tgName":null,"infoStatus":"1","orgName":"国网浙江杭州市萧山区供电有限公司","typeName":null,"infoStatusName":null,"dateDay":null,"orgNos":null,"nowTime":null,"countyName":null,"streetName":null,"villageName":null,"roadName":null,"communityName":null,"tranName":null,"sdLineName":null,"cityCode":"3340130","cityName":"国网浙江杭州市萧山区供电有限公司","provinceCode":null,"stopTime":"2018-05-26 20:54:17","powerType":"全部","powerOffArea":"35kV义桥变:中强C518线-义桥村3#低压开关","powerOffReason":"35kV义桥变:中强C518线-义桥村3#低压开关故障","powerOffId":"2018052631010283"},{"poweroffId":2018052631010275,"sgpoweroffId":null,"subsName":"","lineName":"10kV家垅Y738线","pubTranName":"施家村杨家蓬台区,","scope":"浙江省-杭州市-建德市-下涯镇施家行政村-杨家蓬自然村一带用户。","startTime":"2018-05-26 18:56:00","stopDate":"2018-05-27 01:02:57","orgNo":"3340180","typeCode":"电网故障停限电","poweroffArea":"110kV马目变:家垅Y738线-施家村杨家蓬台区后段","poweroffReason":"家垅Y738线-施家村杨家蓬台区 低压配电设备故障","powerTime":"2018-05-26 19:28:43","powerComm":"已送电","subsNo":"","lineNo":"","tgNo":"","tgName":null,"infoStatus":"1","orgName":"国网浙江建德市供电有限公司","typeName":null,"infoStatusName":null,"dateDay":null,"orgNos":null,"nowTime":null,"countyName":null,"streetName":null,"villageName":null,"roadName":null,"communityName":null,"tranName":null,"sdLineName":null,"cityCode":"3340180","cityName":"国网浙江建德市供电有限公司","provinceCode":null,"stopTime":"2018-05-27 01:02:57","powerType":"全部","powerOffArea":"110kV马目变:家垅Y738线-施家村杨家蓬台区后段","powerOffReason":"家垅Y738线-施家村杨家蓬台区 低压配电设备故障","powerOffId":"2018052631010275"}],"pageModel":{"pageNow":1745,"totalCount":17789,"totalPage":1779,"tableRows":0,"pageCount":10,"beginCount":17440},"isExperi":"1"}