{"message":"","today":"2020-06-16","seleList":[{"poweroffId":2018052631010078,"sgpoweroffId":null,"subsName":"","lineName":"10kV义水C512线","pubTranName":"义桥村4#变,","scope":"浙江省-杭州市-萧山区-义桥镇(义桥行政村)，鑫桥市场 ，义一村等一带","startTime":"2018-05-26 08:28:26","stopDate":"2018-05-26 15:54:59","orgNo":"3340130","typeCode":"电网故障停限电","poweroffArea":"35kV义桥变:义水C512线-义桥村4#变低压开关","poweroffReason":"35kV义桥变:义水C512线-义桥村4#变低压开关故障","powerTime":"2018-05-26 14:48:38","powerComm":"已送电","subsNo":"","lineNo":"","tgNo":"","tgName":null,"infoStatus":"1","orgName":"国网浙江杭州市萧山区供电有限公司","typeName":null,"infoStatusName":null,"dateDay":null,"orgNos":null,"nowTime":null,"countyName":null,"streetName":null,"villageName":null,"roadName":null,"communityName":null,"tranName":null,"sdLineName":null,"cityCode":"3340130","cityName":"国网浙江杭州市萧山区供电有限公司","provinceCode":null,"stopTime":"2018-05-26 15:54:59","powerType":"全部","powerOffArea":"35kV义桥变:义水C512线-义桥村4#变低压开关","powerOffReason":"35kV义桥变:义水C512线-义桥村4#变低压开关故障","powerOffId":"2018052631010078"},{"poweroffId":2018052631010070,"sgpoweroffId":null,"subsName":"","lineName":"10kV钱部C542线","pubTranName":"钱江农场6#公变,","scope":"浙江省杭州市萧山区宁围镇、宁围街道、钱江社区、钱江农场等一带","startTime":"2018-05-26 08:10:20","stopDate":"2018-05-26 17:15:52","orgNo":"3340130","typeCode":"电网故障停限电","poweroffArea":"35kV钱江变:钱部C542线钱江农场6#公变低压配电设施","poweroffReason":"低压配电设施故障","powerTime":"2018-05-26 16:18:38","powerComm":"已送电","subsNo":"","lineNo":"","tgNo":"","tgName":null,"infoStatus":"1","orgName":"国网浙江杭州市萧山区供电有限公司","typeName":null,"infoStatusName":null,"dateDay":null,"orgNos":null,"nowTime":null,"countyName":null,"streetName":null,"villageName":null,"roadName":null,"communityName":null,"tranName":null,"sdLineName":null,"cityCode":"3340130","cityName":"国网浙江杭州市萧山区供电有限公司","provinceCode":null,"stopTime":"2018-05-26 17:15:52","powerType":"全部","powerOffArea":"35kV钱江变:钱部C542线钱江农场6#公变低压配电设施","powerOffReason":"低压配电设施故障","powerOffId":"2018052631010070"},{"poweroffId":2018052631010059,"sgpoweroffId":null,"subsName":"","lineName":"10kV联三A179线","pubTranName":"联三村6#变,","scope":"浙江省-杭州市-萧山区-义桥镇(联三行政村-曹家里自然村、后韩自然村);浙江省-杭州市-萧山区-义桥镇(联三行政村-曹家地自然村、曹家里自然村、后韩自然村、金家堰兜自然村,义桥行政村-郎家自然村、桥亭自然村);浙江省-杭州市-萧山区-义桥镇(杭州泰兴机电有限公司,杭州天路机械有限公司,杭州萧山宏兴五金有限公司,杭州萧山虎爪包装品有限公司,杭州永利百合实业有限公司,杭州宇达五金机械有限公司,杭州浙锦五金机械有限公司,杭州烨烁五金有限公司)、浙江省-杭州市-萧山区-义桥镇(义桥行政村-后茅山自然村、茅山头自然村)、浙江省杭州市萧山区义桥镇联三村一带","startTime":"2018-05-26 07:20:50","stopDate":"2018-05-26 13:43:55","orgNo":"3340130","typeCode":"电网故障停限电","poweroffArea":"110kV群建变:联三A179线-联三村6#变低压开关","poweroffReason":"110kV群建变:联三A179线-联三村6#变低压开关故障","powerTime":"2018-05-26 09:13:04","powerComm":"已送电","subsNo":"","lineNo":"","tgNo":"","tgName":null,"infoStatus":"1","orgName":"国网浙江杭州市萧山区供电有限公司","typeName":null,"infoStatusName":null,"dateDay":null,"orgNos":null,"nowTime":null,"countyName":null,"streetName":null,"villageName":null,"roadName":null,"communityName":null,"tranName":null,"sdLineName":null,"cityCode":"3340130","cityName":"国网浙江杭州市萧山区供电有限公司","provinceCode":null,"stopTime":"2018-05-26 13:43:55","powerType":"全部","powerOffArea":"110kV群建变:联三A179线-联三村6#变低压开关","powerOffReason":"110kV群建变:联三A179线-联三村6#变低压开关故障","powerOffId":"2018052631010059"},{"poweroffId":2018052631010048,"sgpoweroffId":null,"subsName":"","lineName":"10kV姚家243线","pubTranName":"会山排涝变,","scope":"浙江省-杭州市-桐庐县-江南镇(会山马浦抽水、会山村、会山森乐实业一带);","startTime":"2018-05-26 07:16:51","stopDate":"2018-05-26 13:16:51","orgNo":"3340150","typeCode":"电网故障停限电","poweroffArea":"110kV石阜变:姚家243线-会山排涝变后段","poweroffReason":"低压开关故障处理","powerTime":"2018-05-26 08:13:15","powerComm":"已送电。","subsNo":"","lineNo":"","tgNo":"","tgName":null,"infoStatus":"1","orgName":"国网浙江桐庐县供电公司","typeName":null,"infoStatusName":null,"dateDay":null,"orgNos":null,"nowTime":null,"countyName":null,"streetName":null,"villageName":null,"roadName":null,"communityName":null,"tranName":null,"sdLineName":null,"cityCode":"3340150","cityName":"国网浙江桐庐县供电公司","provinceCode":null,"stopTime":"2018-05-26 13:16:51","powerType":"全部","powerOffArea":"110kV石阜变:姚家243线-会山排涝变后段","powerOffReason":"低压开关故障处理","powerOffId":"2018052631010048"},{"poweroffId":2018052631010047,"sgpoweroffId":null,"subsName":"","lineName":"10kV东曹A189线","pubTranName":"王村村5#变,","scope":"浙江省-杭州市-萧山区-临浦镇(王村行政村-王自然村);浙江省-杭州市-萧山区-临浦镇(三峰行政村-东曹自然村、周家湖自然村)、浙江省杭州市萧山区临浦镇山峰村周家湖村东曹、浙江省杭州市萧山区临浦镇三峰行政村周家湖自然村，浙江省杭州市萧山区临浦镇王村村一带","startTime":"2018-05-26 06:51:05","stopDate":"2018-05-26 13:14:56","orgNo":"3340130","typeCode":"电网故障停限电","poweroffArea":"110kV群建变:东曹A189线-王村村5#变低压开关","poweroffReason":"110kV群建变:东曹A189线-王村村5#变低压开关故障","powerTime":"2018-05-26 09:33:57","powerComm":"已送电","subsNo":"","lineNo":"","tgNo":"","tgName":null,"infoStatus":"1","orgName":"国网浙江杭州市萧山区供电有限公司","typeName":null,"infoStatusName":null,"dateDay":null,"orgNos":null,"nowTime":null,"countyName":null,"streetName":null,"villageName":null,"roadName":null,"communityName":null,"tranName":null,"sdLineName":null,"cityCode":"3340130","cityName":"国网浙江杭州市萧山区供电有限公司","provinceCode":null,"stopTime":"2018-05-26 13:14:56","powerType":"全部","powerOffArea":"110kV群建变:东曹A189线-王村村5#变低压开关","powerOffReason":"110kV群建变:东曹A189线-王村村5#变低压开关故障","powerOffId":"2018052631010047"},{"poweroffId":2018052631010045,"sgpoweroffId":null,"subsName":"","lineName":"10kV浪石T205线","pubTranName":"方埠头1号公变,","scope":"浙江省-杭州市-桐庐县-横村镇(方埠行政村-方埠自然村、方埠工业区精诚路468号一带);","startTime":"2018-05-26 07:14:49","stopDate":"2018-05-26 13:14:49","orgNo":"3340150","typeCode":"电网故障停限电","poweroffArea":"110kV方埠变:浪石T205线-方埠头1号公变后段","poweroffReason":"低压开关故障处理","powerTime":"2018-05-26 07:56:01","powerComm":"已送电","subsNo":"","lineNo":"","tgNo":"","tgName":null,"infoStatus":"1","orgName":"国网浙江桐庐县供电公司","typeName":null,"infoStatusName":null,"dateDay":null,"orgNos":null,"nowTime":null,"countyName":null,"streetName":null,"villageName":null,"roadName":null,"communityName":null,"tranName":null,"sdLineName":null,"cityCode":"3340150","cityName":"国网浙江桐庐县供电公司","provinceCode":null,"stopTime":"2018-05-26 13:14:49","powerType":"全部","powerOffArea":"110kV方埠变:浪石T205线-方埠头1号公变后段","powerOffReason":"低压开关故障处理","powerOffId":"2018052631010045"},{"poweroffId":2018052631010043,"sgpoweroffId":null,"subsName":"","lineName":"10kV田畈Y142线","pubTranName":"大同村后洞山台区,建德市彬宏钙业有限公司,建德远健塑业有限公司,大同村前洞山台区,","scope":"浙江省-杭州市-建德市-大同镇 大同行政村永平路大同派出所一带用户。","startTime":"2018-05-26 06:49:00","stopDate":"2018-05-26 13:03:11","orgNo":"3340180","typeCode":"电网故障停限电","poweroffArea":"35kV古城变:田畈Y142线-金鑫2号台区后段","poweroffReason":"田畈Y142线-金鑫2号台区 低压配电设备故障","powerTime":"2018-05-26 10:00:47","powerComm":"已送电","subsNo":"","lineNo":"","tgNo":"","tgName":null,"infoStatus":"1","orgName":"国网浙江建德市供电有限公司","typeName":null,"infoStatusName":null,"dateDay":null,"orgNos":null,"nowTime":null,"countyName":null,"streetName":null,"villageName":null,"roadName":null,"communityName":null,"tranName":null,"sdLineName":null,"cityCode":"3340180","cityName":"国网浙江建德市供电有限公司","provinceCode":null,"stopTime":"2018-05-26 13:03:11","powerType":"全部","powerOffArea":"35kV古城变:田畈Y142线-金鑫2号台区后段","powerOffReason":"田畈Y142线-金鑫2号台区 低压配电设备故障","powerOffId":"2018052631010043"},{"poweroffId":2018052631010025,"sgpoweroffId":null,"subsName":"","lineName":"10kV新春D938线","pubTranName":"春建村蟠山垅8号公变,","scope":"浙江省杭州富阳市富春街道春建村蟠山垅一带","startTime":"2018-05-26 06:05:06","stopDate":"2018-05-26 12:05:06","orgNo":"3340170","typeCode":"电网故障停限电","poweroffArea":"110kV育才变:新春D938线-春建村蟠山垅8号公变后段","poweroffReason":"低压配电设备故障","powerTime":"2018-05-26 07:19:24","powerComm":"故障处理完毕，恢复送电。","subsNo":"","lineNo":"","tgNo":"","tgName":null,"infoStatus":"1","orgName":"国网浙江杭州市富阳区供电公司","typeName":null,"infoStatusName":null,"dateDay":null,"orgNos":null,"nowTime":null,"countyName":null,"streetName":null,"villageName":null,"roadName":null,"communityName":null,"tranName":null,"sdLineName":null,"cityCode":"3340170","cityName":"国网浙江杭州市富阳区供电公司","provinceCode":null,"stopTime":"2018-05-26 12:05:06","powerType":"全部","powerOffArea":"110kV育才变:新春D938线-春建村蟠山垅8号公变后段","powerOffReason":"低压配电设备故障","powerOffId":"2018052631010025"},{"poweroffId":2018052631010010,"sgpoweroffId":null,"subsName":"","lineName":"10kV北坞C179线","pubTranName":"云峰村2#变,","scope":"浙江省-杭州市-萧山区-义桥镇(云峰行政村-南坞自然村、邵家自然村、俞家自然村);省-浙江省-杭州市-萧山区-义桥镇(北坞行政村-金豪里自然村、邵家自然村、金家甸自然村)、南坞村、云峰村、勤里村、俞家村、里陈村、勤丰村、北坞村、田丰村、下洋桥村、浙江省杭州市萧山区义桥镇北乌村、浙江省杭州市萧山区义桥镇云峰村、浙江省-杭州市-萧山区-义桥镇(义桥行政村)、浙江省-杭州市-萧山区-义桥镇(义桥行政村-江塘公路)、义桥村、义一村、浙江省杭州市萧山区义桥镇义新街28号、浙江省杭州市萧山区义桥镇东方路153号、浙江省杭州市萧山区义桥镇罗峰社新村、义桥钢材市场、义桥镇长春路一带","startTime":"2018-05-26 02:23:15","stopDate":"2018-05-26 08:23:15","orgNo":"3340130","typeCode":"电网故障停限电","poweroffArea":"110kV许贤变:北坞C179线-云峰村2#变低压开关","poweroffReason":"110kV许贤变:北坞C179线-云峰村2#变低压开关故障","powerTime":"2018-05-26 03:03:01","powerComm":"已送电","subsNo":"","lineNo":"","tgNo":"","tgName":null,"infoStatus":"1","orgName":"国网浙江杭州市萧山区供电有限公司","typeName":null,"infoStatusName":null,"dateDay":null,"orgNos":null,"nowTime":null,"countyName":null,"streetName":null,"villageName":null,"roadName":null,"communityName":null,"tranName":null,"sdLineName":null,"cityCode":"3340130","cityName":"国网浙江杭州市萧山区供电有限公司","provinceCode":null,"stopTime":"2018-05-26 08:23:15","powerType":"全部","powerOffArea":"110kV许贤变:北坞C179线-云峰村2#变低压开关","powerOffReason":"110kV许贤变:北坞C179线-云峰村2#变低压开关故障","powerOffId":"2018052631010010"},{"poweroffId":2018052631010009,"sgpoweroffId":null,"subsName":"","lineName":"10kV柴埠T557线","pubTranName":"桐庐飘鹰置业有限公司基建2#变,柴埠村6号公变,桐庐滨江建设有限公司,浙江工商大学杭州商学院,中交二公局凤川互通1标段项目部(2号基建),桐庐飘鹰置业有限公司,中交二公局凤川互通1标段项目部(1号基建),桐庐飘鹰置业有限公司基建1#变,工商大学,浙江工商大学杭州商学院,","scope":"浙江省-杭州市-桐庐县-凤川街道(柴埠行政村-柴埠自然村);浙江省-杭州市-桐庐县-凤川街道(桐庐飘鹰置业有限公司,桐庐飘鹰置业有限公司,桐庐飘鹰置业有限公司,浙江工商大学杭州商学院,中交第二公路工程局有限公司);","startTime":"2018-05-26 02:16:26","stopDate":"2018-05-26 08:16:26","orgNo":"3340150","typeCode":"电网故障停限电","poweroffArea":"110kV旺家变:柴埠T557线","poweroffReason":"低压开关故障处理","powerTime":"2018-05-26 07:08:12","powerComm":"已送电","subsNo":"","lineNo":"","tgNo":"","tgName":null,"infoStatus":"1","orgName":"国网浙江桐庐县供电公司","typeName":null,"infoStatusName":null,"dateDay":null,"orgNos":null,"nowTime":null,"countyName":null,"streetName":null,"villageName":null,"roadName":null,"communityName":null,"tranName":null,"sdLineName":null,"cityCode":"3340150","cityName":"国网浙江桐庐县供电公司","provinceCode":null,"stopTime":"2018-05-26 08:16:26","powerType":"全部","powerOffArea":"110kV旺家变:柴埠T557线","powerOffReason":"低压开关故障处理","powerOffId":"2018052631010009"}],"pageModel":{"pageNow":1748,"totalCount":17789,"totalPage":1779,"tableRows":0,"pageCount":10,"beginCount":17470},"isExperi":"1"}