{"message":"","today":"2020-06-16","seleList":[{"poweroffId":2018052531010495,"sgpoweroffId":null,"subsName":"","lineName":"10kV秧田G379线","pubTranName":"葛墩村计家墩公变,葛墩村赵介角公变,葛墩村赵家角东公变,余杭区农业综合开发办,葛墩村建设桥南公变,杭州璐欣电器制造有限公司,葛墩村范家塘公变,收费站2,葛墩村沈介湾公变,葛墩村秧田湾公变,葛墩村解放桥公变,葛墩村倪家角公变,葛墩村秧田湾南公变,葛墩村朱家斗公变,葛墩村建设桥公变,葛墩村沾桥头公变,葛墩村加工厂公变,","scope":"浙江省杭州市余杭区仁和街道：葛墩村沾桥头、葛墩村沈介湾、葛墩村范家塘、葛墩村计家墩、葛墩村建设桥、葛墩村解放桥、葛墩村倪家角、葛墩村赵家角、葛墩村加工厂、葛墩村朱家斗、葛墩村秧田湾、余杭区农业综合开发办、浙江杭宁高速公路有限责任公司、杭州璐欣电器制造有限公司一带","startTime":"2018-06-08 08:20:00","stopDate":"2018-06-08 17:00:00","orgNo":"3340140","typeCode":"计划停电","poweroffArea":"110kV东塘变:秧田G379线秧田分线","poweroffReason":"秧田分线23#杆移位，秧田湾分线14#杆调杆","powerTime":"2018-06-08 16:24:38","powerComm":"已送电","subsNo":"","lineNo":"","tgNo":"","tgName":null,"infoStatus":"1","orgName":"国网浙江杭州市余杭区供电有限公司","typeName":null,"infoStatusName":null,"dateDay":null,"orgNos":null,"nowTime":null,"countyName":null,"streetName":null,"villageName":null,"roadName":null,"communityName":null,"tranName":null,"sdLineName":null,"cityCode":"3340140","cityName":"国网浙江杭州市余杭区供电有限公司","provinceCode":null,"stopTime":"2018-06-08 17:00:00","powerType":"全部","powerOffArea":"110kV东塘变:秧田G379线秧田分线","powerOffReason":"秧田分线23#杆移位，秧田湾分线14#杆调杆","powerOffId":"2018052531010495"},{"poweroffId":2018052531010491,"sgpoweroffId":null,"subsName":"","lineName":"10kV梅山D450线","pubTranName":"杭州远大纸业有限公司,中铁四局集团杭黄铁路项目部二分部,杭州蓝鸟纸业有限公司(职工宿舍),富阳先丰碳酸钙有限公司,富阳先丰碳酸钙有限公司,富阳市凯尔化工有限公司,杭州富阳天鹏纸业有限公司1#变,徐庆忠,田丰村2号村西公变,","scope":"浙江省-杭州市-富阳区-春江街道(杭州富阳嘉德环保科技有限公司,杭州富阳凯尔化工有限公司,杭州富阳天鹏纸业有限公司,杭州富阳先丰碳酸钙有限公司,杭州蓝鸟纸业有限公司(职工宿舍),杭州远大纸业有限公司,中铁四局集团杭黄铁路项目部二分部)一带;","startTime":"2018-06-04 07:30:00","stopDate":"2018-06-04 13:00:00","orgNo":"3340170","typeCode":"计划停电","poweroffArea":"110kV天钟变:梅山D450线-梅山D4501开关后段","poweroffReason":"梅山D450线梅山开关站2#间隔梅山D4501线25#杆分路开关搭头拆除工作。","powerTime":"2018-06-04 12:50:58","powerComm":"已送电","subsNo":"","lineNo":"","tgNo":"","tgName":null,"infoStatus":"1","orgName":"国网浙江杭州市富阳区供电公司","typeName":null,"infoStatusName":null,"dateDay":null,"orgNos":null,"nowTime":null,"countyName":null,"streetName":null,"villageName":null,"roadName":null,"communityName":null,"tranName":null,"sdLineName":null,"cityCode":"3340170","cityName":"国网浙江杭州市富阳区供电公司","provinceCode":null,"stopTime":"2018-06-04 13:00:00","powerType":"全部","powerOffArea":"110kV天钟变:梅山D450线-梅山D4501开关后段","powerOffReason":"梅山D450线梅山开关站2#间隔梅山D4501线25#杆分路开关搭头拆除工作。","powerOffId":"2018052531010491"},{"poweroffId":2018052531010489,"sgpoweroffId":null,"subsName":"","lineName":"10kV联涌D447线","pubTranName":"富阳市永乐纸业有限公司1#变,富阳顶点纸业有限公司1#,1#,富阳市春江街道服务有限公司,富阳市玉华建材有限公司1#,","scope":"浙江省杭州市-富阳区-春江街道(杭州顶点纸业有限公司,杭州富阳区春江街道服务有限公司,杭州富阳永乐纸业有限公司,杭州富阳玉华建材有限公司,杭州厚礼科技有限公司)一带;","startTime":"2018-06-04 09:00:00","stopDate":"2018-06-04 13:00:00","orgNo":"3340170","typeCode":"计划停电","poweroffArea":"110kV天钟变:联涌D447线-联涌D4471开关后段","poweroffReason":"江南2018年10kV杭众D689线与建华D852线联络工程：1、梅山D450线5#杆真空开关更换及线路拆、搭头等工作。2、梅山D450线24#杆新上真空开关1台，线路拆、搭头等工作。","powerTime":"2018-06-04 12:50:17","powerComm":"已送电","subsNo":"","lineNo":"","tgNo":"","tgName":null,"infoStatus":"1","orgName":"国网浙江杭州市富阳区供电公司","typeName":null,"infoStatusName":null,"dateDay":null,"orgNos":null,"nowTime":null,"countyName":null,"streetName":null,"villageName":null,"roadName":null,"communityName":null,"tranName":null,"sdLineName":null,"cityCode":"3340170","cityName":"国网浙江杭州市富阳区供电公司","provinceCode":null,"stopTime":"2018-06-04 13:00:00","powerType":"全部","powerOffArea":"110kV天钟变:联涌D447线-联涌D4471开关后段","powerOffReason":"江南2018年10kV杭众D689线与建华D852线联络工程：1、梅山D450线5#杆真空开关更换及线路拆、搭头等工作。2、梅山D450线24#杆新上真空开关1台，线路拆、搭头等工作。","powerOffId":"2018052531010489"},{"poweroffId":2018052531010484,"sgpoweroffId":null,"subsName":"","lineName":"10kV胥口D712线","pubTranName":"高联村5#黄泥岭公变,","scope":"浙江省-杭州市-富阳区-胥口镇(高联行政村-黄泥岭自然村);","startTime":"2018-06-06 07:30:00","stopDate":"2018-06-06 15:30:00","orgNo":"3340170","typeCode":"计划停电","poweroffArea":"110kV松溪变:胥口D712线-高联村5#黄泥岭公变台区低压开关","poweroffReason":"黄泥岭02线13#杆-24#杆、19#杆-19-10#杆利用吊车、人工调整电杆15支、制作拉线11组.","powerTime":"2018-06-06 15:00:22","powerComm":"工作结束已送电","subsNo":"","lineNo":"","tgNo":"","tgName":null,"infoStatus":"1","orgName":"国网浙江杭州市富阳区供电公司","typeName":null,"infoStatusName":null,"dateDay":null,"orgNos":null,"nowTime":null,"countyName":null,"streetName":null,"villageName":null,"roadName":null,"communityName":null,"tranName":null,"sdLineName":null,"cityCode":"3340170","cityName":"国网浙江杭州市富阳区供电公司","provinceCode":null,"stopTime":"2018-06-06 15:30:00","powerType":"全部","powerOffArea":"110kV松溪变:胥口D712线-高联村5#黄泥岭公变台区低压开关","powerOffReason":"黄泥岭02线13#杆-24#杆、19#杆-19-10#杆利用吊车、人工调整电杆15支、制作拉线11组.","powerOffId":"2018052531010484"},{"poweroffId":2018052531010483,"sgpoweroffId":null,"subsName":"","lineName":"10kV经济D807线","pubTranName":"后周3#公变,","scope":"浙江省杭州市富阳区富春街道兴达路、振兴路一带。","startTime":"2018-06-06 08:30:00","stopDate":"2018-06-06 14:50:00","orgNo":"3340170","typeCode":"计划停电","poweroffArea":"110kV容大变:经济D807线-经后线后段","poweroffReason":"后径联线缺陷处理工程：后周3#公变配合停电","powerTime":"2018-06-06 14:48:00","powerComm":"工作结束已送电","subsNo":"","lineNo":"","tgNo":"","tgName":null,"infoStatus":"1","orgName":"国网浙江杭州市富阳区供电公司","typeName":null,"infoStatusName":null,"dateDay":null,"orgNos":null,"nowTime":null,"countyName":null,"streetName":null,"villageName":null,"roadName":null,"communityName":null,"tranName":null,"sdLineName":null,"cityCode":"3340170","cityName":"国网浙江杭州市富阳区供电公司","provinceCode":null,"stopTime":"2018-06-06 14:50:00","powerType":"全部","powerOffArea":"110kV容大变:经济D807线-经后线后段","powerOffReason":"后径联线缺陷处理工程：后周3#公变配合停电","powerOffId":"2018052531010483"},{"poweroffId":2018052531010479,"sgpoweroffId":null,"subsName":"","lineName":"10kV渔山D913线","pubTranName":"旭光村6号风车坞公变,","scope":"浙江省-杭州市-富阳区-渔山乡（旭光行政村）风车坞一带","startTime":"2018-06-06 08:30:00","stopDate":"2018-06-06 12:10:00","orgNo":"3340170","typeCode":"计划停电","poweroffArea":"110kV里渔变:渔山D913线-旭光村6号风车坞1号线后段","poweroffReason":"江南2017年灵桥镇江丰村等低压台区造改：更换进户线30处、搭接等工作","powerTime":"2018-06-06 11:44:02","powerComm":"工作结束已送电","subsNo":"","lineNo":"","tgNo":"","tgName":null,"infoStatus":"1","orgName":"国网浙江杭州市富阳区供电公司","typeName":null,"infoStatusName":null,"dateDay":null,"orgNos":null,"nowTime":null,"countyName":null,"streetName":null,"villageName":null,"roadName":null,"communityName":null,"tranName":null,"sdLineName":null,"cityCode":"3340170","cityName":"国网浙江杭州市富阳区供电公司","provinceCode":null,"stopTime":"2018-06-06 12:10:00","powerType":"全部","powerOffArea":"110kV里渔变:渔山D913线-旭光村6号风车坞1号线后段","powerOffReason":"江南2017年灵桥镇江丰村等低压台区造改：更换进户线30处、搭接等工作","powerOffId":"2018052531010479"},{"poweroffId":2018052531010478,"sgpoweroffId":null,"subsName":"","lineName":"10kV胥口D712线","pubTranName":"高联村8#田家公变,","scope":"浙江省-杭州市-富阳区-胥口镇(高联行政村-田家自然村);","startTime":"2018-06-08 07:30:00","stopDate":"2018-06-08 15:30:00","orgNo":"3340170","typeCode":"计划停电","poweroffArea":"110kV松溪变:胥口D712线-高联村8#田家公变台区低压开关","poweroffReason":"田家01线新立杆15#杆-15-6#杆15-1#杆-15-1-4#杆架设GJ-25钢绞线10档、制作拉线6组、安装抱箍等工作","powerTime":"2018-06-08 15:18:59","powerComm":"工作结束已送电","subsNo":"","lineNo":"","tgNo":"","tgName":null,"infoStatus":"1","orgName":"国网浙江杭州市富阳区供电公司","typeName":null,"infoStatusName":null,"dateDay":null,"orgNos":null,"nowTime":null,"countyName":null,"streetName":null,"villageName":null,"roadName":null,"communityName":null,"tranName":null,"sdLineName":null,"cityCode":"3340170","cityName":"国网浙江杭州市富阳区供电公司","provinceCode":null,"stopTime":"2018-06-08 15:30:00","powerType":"全部","powerOffArea":"110kV松溪变:胥口D712线-高联村8#田家公变台区低压开关","powerOffReason":"田家01线新立杆15#杆-15-6#杆15-1#杆-15-1-4#杆架设GJ-25钢绞线10档、制作拉线6组、安装抱箍等工作","powerOffId":"2018052531010478"},{"poweroffId":2018052531010474,"sgpoweroffId":null,"subsName":"","lineName":"10kV渌渚D133线","pubTranName":"百前村7#母子岺公变,","scope":"浙江省-杭州市-富阳区-渌渚镇(百前行政村-马路边自然村、母子苓自然村);","startTime":"2018-06-08 07:30:00","stopDate":"2018-06-08 14:30:00","orgNo":"3340170","typeCode":"计划停电","poweroffArea":"110kV新登变:渌渚D133线百前村7#母子岺公变台区低压开关","poweroffReason":"照明01线架设导线JKLYJ-70*4*4档、拆装横担各5付、拉线各3付、导线搭接、拆除JKLYJ-35*4*4档","powerTime":"2018-06-08 13:33:49","powerComm":"工作结束已送电","subsNo":"","lineNo":"","tgNo":"","tgName":null,"infoStatus":"1","orgName":"国网浙江杭州市富阳区供电公司","typeName":null,"infoStatusName":null,"dateDay":null,"orgNos":null,"nowTime":null,"countyName":null,"streetName":null,"villageName":null,"roadName":null,"communityName":null,"tranName":null,"sdLineName":null,"cityCode":"3340170","cityName":"国网浙江杭州市富阳区供电公司","provinceCode":null,"stopTime":"2018-06-08 14:30:00","powerType":"全部","powerOffArea":"110kV新登变:渌渚D133线百前村7#母子岺公变台区低压开关","powerOffReason":"照明01线架设导线JKLYJ-70*4*4档、拆装横担各5付、拉线各3付、导线搭接、拆除JKLYJ-35*4*4档","powerOffId":"2018052531010474"},{"poweroffId":2018052531010472,"sgpoweroffId":null,"subsName":"","lineName":"10kV秋丰D985线","pubTranName":"秋丰村孙家弄7#公变,","scope":"浙江省-杭州市-富阳区-富春街道(秋丰行政村孙家弄一带);","startTime":"2018-06-08 07:20:00","stopDate":"2018-06-08 12:10:00","orgNo":"3340170","typeCode":"计划停电","poweroffArea":"110kV育才变:秋丰D985线-秋丰村孙家弄7号后段","poweroffReason":"青云2018年秋丰村孙家弄7#公变等配电线路及设备大修：安装横担，拉线，架线5档，拆旧2档，吊车立杆，出电缆2组，搭接等工作","powerTime":"2018-06-08 11:54:35","powerComm":"工作结束已送电","subsNo":"","lineNo":"","tgNo":"","tgName":null,"infoStatus":"1","orgName":"国网浙江杭州市富阳区供电公司","typeName":null,"infoStatusName":null,"dateDay":null,"orgNos":null,"nowTime":null,"countyName":null,"streetName":null,"villageName":null,"roadName":null,"communityName":null,"tranName":null,"sdLineName":null,"cityCode":"3340170","cityName":"国网浙江杭州市富阳区供电公司","provinceCode":null,"stopTime":"2018-06-08 12:10:00","powerType":"全部","powerOffArea":"110kV育才变:秋丰D985线-秋丰村孙家弄7号后段","powerOffReason":"青云2018年秋丰村孙家弄7#公变等配电线路及设备大修：安装横担，拉线，架线5档，拆旧2档，吊车立杆，出电缆2组，搭接等工作","powerOffId":"2018052531010472"},{"poweroffId":2018052531010464,"sgpoweroffId":null,"subsName":"","lineName":"10kV渔山D913线","pubTranName":"旭光村4#桥头公变,","scope":"浙江省-杭州市-富阳区-渔山乡(大葛行政村-葛村自然村、旭光自然村)桥头一带","startTime":"2018-06-07 08:30:00","stopDate":"2018-06-07 17:10:00","orgNo":"3340170","typeCode":"计划停电","poweroffArea":"110kV里渔变:渔山D913线-旭光村4号桥头1号线后段","poweroffReason":"江南2017年灵桥镇江丰村等低压台区造改：更换进户线30处、搭接等工作","powerTime":"2018-06-07 16:28:01","powerComm":"工作结束已送电","subsNo":"","lineNo":"","tgNo":"","tgName":null,"infoStatus":"1","orgName":"国网浙江杭州市富阳区供电公司","typeName":null,"infoStatusName":null,"dateDay":null,"orgNos":null,"nowTime":null,"countyName":null,"streetName":null,"villageName":null,"roadName":null,"communityName":null,"tranName":null,"sdLineName":null,"cityCode":"3340170","cityName":"国网浙江杭州市富阳区供电公司","provinceCode":null,"stopTime":"2018-06-07 17:10:00","powerType":"全部","powerOffArea":"110kV里渔变:渔山D913线-旭光村4号桥头1号线后段","powerOffReason":"江南2017年灵桥镇江丰村等低压台区造改：更换进户线30处、搭接等工作","powerOffId":"2018052531010464"}],"pageModel":{"pageNow":1750,"totalCount":17789,"totalPage":1779,"tableRows":0,"pageCount":10,"beginCount":17490},"isExperi":"1"}