{"message":"","today":"2020-06-16","seleList":[{"poweroffId":2018052531010131,"sgpoweroffId":null,"subsName":"","lineName":"10kV渌渚D133线","pubTranName":"杨元村1#后山公变,","scope":"浙江省-杭州市-富阳区-渌渚镇(杨袁行政村-后山湾自然村、李家自然村);","startTime":"2018-06-04 07:30:00","stopDate":"2018-06-04 17:00:00","orgNo":"3340170","typeCode":"计划停电","poweroffArea":"110kV新登变:渌渚D133线-杨元村1#后山公变台区低压开关","poweroffReason":"照明02线更换落户线BS-JKLYJ-2*25*10户、墙上支架10只、拆除BLV-2*16*300米、装拆拉线7付","powerTime":"2018-06-04 16:15:08","powerComm":"工作结束已送电","subsNo":"","lineNo":"","tgNo":"","tgName":null,"infoStatus":"1","orgName":"国网浙江杭州市富阳区供电公司","typeName":null,"infoStatusName":null,"dateDay":null,"orgNos":null,"nowTime":null,"countyName":null,"streetName":null,"villageName":null,"roadName":null,"communityName":null,"tranName":null,"sdLineName":null,"cityCode":"3340170","cityName":"国网浙江杭州市富阳区供电公司","provinceCode":null,"stopTime":"2018-06-04 17:00:00","powerType":"全部","powerOffArea":"110kV新登变:渌渚D133线-杨元村1#后山公变台区低压开关","powerOffReason":"照明02线更换落户线BS-JKLYJ-2*25*10户、墙上支架10只、拆除BLV-2*16*300米、装拆拉线7付","powerOffId":"2018052531010131"},{"poweroffId":2018052531010129,"sgpoweroffId":null,"subsName":"","lineName":"10kV拔山D942线","pubTranName":"新联村9号平山上2公变,","scope":"浙江省杭州市富阳区富春街道新联村一带","startTime":"2018-06-04 08:30:00","stopDate":"2018-06-04 16:30:00","orgNo":"3340170","typeCode":"计划停电","poweroffArea":"110kV育才变:拔山D942线-新联村9#平山上2公变后段","poweroffReason":"青云地区2018年配变增容布点工程：新联村9号平山上2公变低压线路改接等工作","powerTime":"2018-06-04 14:34:56","powerComm":"工作结束，已送电","subsNo":"","lineNo":"","tgNo":"","tgName":null,"infoStatus":"1","orgName":"国网浙江杭州市富阳区供电公司","typeName":null,"infoStatusName":null,"dateDay":null,"orgNos":null,"nowTime":null,"countyName":null,"streetName":null,"villageName":null,"roadName":null,"communityName":null,"tranName":null,"sdLineName":null,"cityCode":"3340170","cityName":"国网浙江杭州市富阳区供电公司","provinceCode":null,"stopTime":"2018-06-04 16:30:00","powerType":"全部","powerOffArea":"110kV育才变:拔山D942线-新联村9#平山上2公变后段","powerOffReason":"青云地区2018年配变增容布点工程：新联村9号平山上2公变低压线路改接等工作","powerOffId":"2018052531010129"},{"poweroffId":2018052531010125,"sgpoweroffId":null,"subsName":"","lineName":"10kV园东D931线","pubTranName":"金桥村2#姚家墩公变,","scope":"浙江省杭州市富阳区富春街道金桥村姚家墩一带","startTime":"2018-06-04 08:30:00","stopDate":"2018-06-04 12:00:00","orgNo":"3340170","typeCode":"计划停电","poweroffArea":"110kV育才变:园东D931线-姚家畈分线后段","poweroffReason":"青云2018年新上用户分界点工程：上海建工集团股份有限公司新上分路搭接","powerTime":"2018-06-04 11:50:47","powerComm":"工作结束已送电","subsNo":"","lineNo":"","tgNo":"","tgName":null,"infoStatus":"1","orgName":"国网浙江杭州市富阳区供电公司","typeName":null,"infoStatusName":null,"dateDay":null,"orgNos":null,"nowTime":null,"countyName":null,"streetName":null,"villageName":null,"roadName":null,"communityName":null,"tranName":null,"sdLineName":null,"cityCode":"3340170","cityName":"国网浙江杭州市富阳区供电公司","provinceCode":null,"stopTime":"2018-06-04 12:00:00","powerType":"全部","powerOffArea":"110kV育才变:园东D931线-姚家畈分线后段","powerOffReason":"青云2018年新上用户分界点工程：上海建工集团股份有限公司新上分路搭接","powerOffId":"2018052531010125"},{"poweroffId":2018052531010115,"sgpoweroffId":null,"subsName":"","lineName":"10kV春江D370线","pubTranName":"山水华庭1#公变,","scope":"浙江省-杭州市-富阳区-富春街道(江滨社区-江滨西大道);","startTime":"2018-06-04 08:00:00","stopDate":"2018-06-04 15:40:00","orgNo":"3340170","typeCode":"计划停电","poweroffArea":"110kV富鹿变:春江D370线-山水华庭1#公变后段","poweroffReason":"国网浙江富阳供电公司2018年客户计量装置建设与改造:山水华庭1#公变1#线-1T2#线-1T4#线-1T江滨西大道100-21#、100-22#、100-23#进行表箱改造等工作","powerTime":"2018-06-04 15:23:36","powerComm":"工作结束已送电","subsNo":"","lineNo":"","tgNo":"","tgName":null,"infoStatus":"1","orgName":"国网浙江杭州市富阳区供电公司","typeName":null,"infoStatusName":null,"dateDay":null,"orgNos":null,"nowTime":null,"countyName":null,"streetName":null,"villageName":null,"roadName":null,"communityName":null,"tranName":null,"sdLineName":null,"cityCode":"3340170","cityName":"国网浙江杭州市富阳区供电公司","provinceCode":null,"stopTime":"2018-06-04 15:40:00","powerType":"全部","powerOffArea":"110kV富鹿变:春江D370线-山水华庭1#公变后段","powerOffReason":"国网浙江富阳供电公司2018年客户计量装置建设与改造:山水华庭1#公变1#线-1T2#线-1T4#线-1T江滨西大道100-21#、100-22#、100-23#进行表箱改造等工作","powerOffId":"2018052531010115"},{"poweroffId":2018052531010113,"sgpoweroffId":null,"subsName":"","lineName":"10kV龙门D787线","pubTranName":"龙门三村4#麻墩区公变1,","scope":"浙江省-杭州市-富阳区-龙门镇(龙门一村行政村-六村畈自然村)一带;","startTime":"2018-06-04 08:40:00","stopDate":"2018-06-04 17:10:00","orgNo":"3340170","typeCode":"计划停电","poweroffArea":"110kV王洲变:龙门D787线-龙门三村4号麻墩区公变后段","poweroffReason":"龙门三村4#麻墩区公变人工运杆、立杆、机动绞磨等工作","powerTime":"2018-06-04 16:28:15","powerComm":"工作结束已送电","subsNo":"","lineNo":"","tgNo":"","tgName":null,"infoStatus":"1","orgName":"国网浙江杭州市富阳区供电公司","typeName":null,"infoStatusName":null,"dateDay":null,"orgNos":null,"nowTime":null,"countyName":null,"streetName":null,"villageName":null,"roadName":null,"communityName":null,"tranName":null,"sdLineName":null,"cityCode":"3340170","cityName":"国网浙江杭州市富阳区供电公司","provinceCode":null,"stopTime":"2018-06-04 17:10:00","powerType":"全部","powerOffArea":"110kV王洲变:龙门D787线-龙门三村4号麻墩区公变后段","powerOffReason":"龙门三村4#麻墩区公变人工运杆、立杆、机动绞磨等工作","powerOffId":"2018052531010113"},{"poweroffId":2018052531010112,"sgpoweroffId":null,"subsName":"","lineName":"10kV木桥D422线","pubTranName":"后江沙7#村委公变,","scope":"浙江省杭州市富阳区东洲街道后江沙村一带","startTime":"2018-06-04 09:00:00","stopDate":"2018-06-04 16:30:00","orgNo":"3340170","typeCode":"计划停电","poweroffArea":"110kV东洲变:木桥D422线-后江沙7#村委公变后段","poweroffReason":"青云2018年东洲地区10千伏木桥D422线红旗7#等公变增容布点工程：后江沙7#村委公变由200kVA增容至400kVA，跌落式开关及配电柜更换等工作。","powerTime":"2018-06-04 15:49:03","powerComm":"工作结束已送电","subsNo":"","lineNo":"","tgNo":"","tgName":null,"infoStatus":"1","orgName":"国网浙江杭州市富阳区供电公司","typeName":null,"infoStatusName":null,"dateDay":null,"orgNos":null,"nowTime":null,"countyName":null,"streetName":null,"villageName":null,"roadName":null,"communityName":null,"tranName":null,"sdLineName":null,"cityCode":"3340170","cityName":"国网浙江杭州市富阳区供电公司","provinceCode":null,"stopTime":"2018-06-04 16:30:00","powerType":"全部","powerOffArea":"110kV东洲变:木桥D422线-后江沙7#村委公变后段","powerOffReason":"青云2018年东洲地区10千伏木桥D422线红旗7#等公变增容布点工程：后江沙7#村委公变由200kVA增容至400kVA，跌落式开关及配电柜更换等工作。","powerOffId":"2018052531010112"},{"poweroffId":2018052531010110,"sgpoweroffId":null,"subsName":"","lineName":"10kV梵天8864线","pubTranName":"振兴置业,万臻置业2#,万臻置业1#,上坎,万臻置业4#,万臻置业3#,405部队,","scope":"浙江省杭州市西湖区留下街道西穆坞上坎村附近一带","startTime":"2018-05-30 09:30:00","stopDate":"2018-05-30 17:30:00","orgNo":"3340101","typeCode":"计划停电","poweroffArea":"110kV留下变:梵天8864线-上坎分线后段","poweroffReason":"杭州西湖城市建设投资集团有限公司梅西路（杨梅山路至西穆坞水库）道路工程 PD2018-01-006-QX 上坎分线移位","powerTime":"2018-05-30 15:01:36","powerComm":"已送电","subsNo":"","lineNo":"","tgNo":"","tgName":null,"infoStatus":"1","orgName":"浙江杭州电力客户服务中心","typeName":null,"infoStatusName":null,"dateDay":null,"orgNos":null,"nowTime":null,"countyName":null,"streetName":null,"villageName":null,"roadName":null,"communityName":null,"tranName":null,"sdLineName":null,"cityCode":"3340101","cityName":"浙江杭州电力客户服务中心","provinceCode":null,"stopTime":"2018-05-30 17:30:00","powerType":"全部","powerOffArea":"110kV留下变:梵天8864线-上坎分线后段","powerOffReason":"杭州西湖城市建设投资集团有限公司梅西路（杨梅山路至西穆坞水库）道路工程 PD2018-01-006-QX 上坎分线移位","powerOffId":"2018052531010110"},{"poweroffId":2018052531010098,"sgpoweroffId":null,"subsName":"","lineName":"10kV黄沙6608线","pubTranName":"龙沙(八),龙沙(二),龙沙(六),龙沙(四),","scope":"浙江省杭州市西湖区转塘镇回龙社区回龙雅苑小区一半用户（短时）；","startTime":"2018-05-30 09:30:00","stopDate":"2018-05-30 10:30:00","orgNo":"3340101","typeCode":"计划停电","poweroffArea":"110kV周浦变:黄沙6608线-龙沙二十线后段","poweroffReason":"龙沙双投二站龙沙双投三线、龙沙双投四线运行方式更改","powerTime":"2018-05-30 10:00:00","powerComm":"已送电","subsNo":"","lineNo":"","tgNo":"","tgName":null,"infoStatus":"1","orgName":"浙江杭州电力客户服务中心","typeName":null,"infoStatusName":null,"dateDay":null,"orgNos":null,"nowTime":null,"countyName":null,"streetName":null,"villageName":null,"roadName":null,"communityName":null,"tranName":null,"sdLineName":null,"cityCode":"3340101","cityName":"浙江杭州电力客户服务中心","provinceCode":null,"stopTime":"2018-05-30 10:30:00","powerType":"全部","powerOffArea":"110kV周浦变:黄沙6608线-龙沙二十线后段","powerOffReason":"龙沙双投二站龙沙双投三线、龙沙双投四线运行方式更改","powerOffId":"2018052531010098"},{"poweroffId":2018052531010081,"sgpoweroffId":null,"subsName":"","lineName":"10kV外桐8879线","pubTranName":"外桐(五),","scope":"浙江省杭州市西湖区转塘街道龙坞外桐坞村100号、110号、116号、120号、126号、130号附近一带","startTime":"2018-05-29 09:30:00","stopDate":"2018-05-29 17:30:00","orgNo":"3340101","typeCode":"计划停电","poweroffArea":"110kV留下变:外桐8879线-外桐(五)后段","poweroffReason":"10KV外桐五站外桐（五）变低压空开出线电缆调换等消缺工作","powerTime":"2018-05-29 12:00:53","powerComm":"已送电","subsNo":"","lineNo":"","tgNo":"","tgName":null,"infoStatus":"1","orgName":"浙江杭州电力客户服务中心","typeName":null,"infoStatusName":null,"dateDay":null,"orgNos":null,"nowTime":null,"countyName":null,"streetName":null,"villageName":null,"roadName":null,"communityName":null,"tranName":null,"sdLineName":null,"cityCode":"3340101","cityName":"浙江杭州电力客户服务中心","provinceCode":null,"stopTime":"2018-05-29 17:30:00","powerType":"全部","powerOffArea":"110kV留下变:外桐8879线-外桐(五)后段","powerOffReason":"10KV外桐五站外桐（五）变低压空开出线电缆调换等消缺工作","powerOffId":"2018052531010081"},{"poweroffId":2018052531010071,"sgpoweroffId":null,"subsName":"","lineName":"10kV西阳8528线","pubTranName":"阳园(一),","scope":"浙江省杭州市西湖区文新街道桂花园社区阳光花园小区附近一带部分用户","startTime":"2018-05-28 09:30:00","stopDate":"2018-05-28 17:30:00","orgNo":"3340101","typeCode":"计划停电","poweroffArea":"110kV文三变:西阳8528线-阳园一分线后段","poweroffReason":"阳光花园小区阳园一配变隔音减震消缺处理","powerTime":"2018-05-28 12:30:21","powerComm":"已送电","subsNo":"","lineNo":"","tgNo":"","tgName":null,"infoStatus":"1","orgName":"浙江杭州电力客户服务中心","typeName":null,"infoStatusName":null,"dateDay":null,"orgNos":null,"nowTime":null,"countyName":null,"streetName":null,"villageName":null,"roadName":null,"communityName":null,"tranName":null,"sdLineName":null,"cityCode":"3340101","cityName":"浙江杭州电力客户服务中心","provinceCode":null,"stopTime":"2018-05-28 17:30:00","powerType":"全部","powerOffArea":"110kV文三变:西阳8528线-阳园一分线后段","powerOffReason":"阳光花园小区阳园一配变隔音减震消缺处理","powerOffId":"2018052531010071"}],"pageModel":{"pageNow":1755,"totalCount":17789,"totalPage":1779,"tableRows":0,"pageCount":10,"beginCount":17540},"isExperi":"1"}