{"message":"","today":"2020-06-16","seleList":[{"poweroffId":2018052431010238,"sgpoweroffId":null,"subsName":"","lineName":"10kV沙程Y200线","pubTranName":"城建公变,","scope":"浙江省-杭州市-建德市-新安江街道 沧滩社区 城建大厦东西两侧商住楼及楼下新安路155-198号沿街商铺一带用户。","startTime":"2018-06-02 06:30:00","stopDate":"2018-06-02 16:30:00","orgNo":"3340180","typeCode":"计划停电","poweroffArea":"110kV白沙变:沙程Y200线-城建公变后段","poweroffReason":"城建公变低压改造工程","powerTime":"2018-06-02 16:30:00","powerComm":"已送电","subsNo":"","lineNo":"","tgNo":"","tgName":null,"infoStatus":"1","orgName":"国网浙江建德市供电有限公司","typeName":null,"infoStatusName":null,"dateDay":null,"orgNos":null,"nowTime":null,"countyName":null,"streetName":null,"villageName":null,"roadName":null,"communityName":null,"tranName":null,"sdLineName":null,"cityCode":"3340180","cityName":"国网浙江建德市供电有限公司","provinceCode":null,"stopTime":"2018-06-02 16:30:00","powerType":"全部","powerOffArea":"110kV白沙变:沙程Y200线-城建公变后段","powerOffReason":"城建公变低压改造工程","powerOffId":"2018052431010238"},{"poweroffId":2018052431010237,"sgpoweroffId":null,"subsName":"","lineName":"10kV白洋Y221线","pubTranName":"和颂苑4#公变,洋安家园1#公变台区,中华人民共和国杭州出入境检验检疫局1#专变,洋安家园5#公变台区,杭州和谐置业有限公司,浙江省建工集团有限责任公司2,洋安家园3#公变台区,和颂苑6#公变,建德市妇幼保健院1#变压器,和颂苑2#公变,和风苑3#公变,江城嘉苑3#公变变压器,建德市妇幼保健院1#变,江城嘉苑5#公变变压器,建德市行政审批服务管理办公室1#变压器,和风苑1#公变,江城嘉苑1#公变变压器,杭州和谐置业有限公司1#专变,和风苑7#公变,南萍公寓3#公变,和风苑5#公变,南萍公寓1#公变,建德市紫金城市建设开发有限公司变压器,南萍公寓2#公变,","scope":"浙江省-杭州市-建德市-洋溪街道 洋安社区 和颂苑小区、和风苑小区、洋安家园小区、江城嘉苑小区、南萍公寓小区一带用户。","startTime":"2018-06-04 06:00:00","stopDate":"2018-06-04 06:30:00","orgNo":"3340180","typeCode":"计划停电","poweroffArea":"110kV白沙变:白洋Y221线","poweroffReason":"配合压变增容工作","powerTime":"2018-06-04 06:30:00","powerComm":"已送电","subsNo":"","lineNo":"","tgNo":"","tgName":null,"infoStatus":"1","orgName":"国网浙江建德市供电有限公司","typeName":null,"infoStatusName":null,"dateDay":null,"orgNos":null,"nowTime":null,"countyName":null,"streetName":null,"villageName":null,"roadName":null,"communityName":null,"tranName":null,"sdLineName":null,"cityCode":"3340180","cityName":"国网浙江建德市供电有限公司","provinceCode":null,"stopTime":"2018-06-04 06:30:00","powerType":"全部","powerOffArea":"110kV白沙变:白洋Y221线","powerOffReason":"配合压变增容工作","powerOffId":"2018052431010237"},{"poweroffId":2018052431010235,"sgpoweroffId":null,"subsName":"","lineName":"10kV白安Y236线","pubTranName":"和颂苑3#公变,和颂苑7#公变,江城嘉苑6#公变变压器,和颂苑5#公变,洋安家园4#公变台区,建德市金盛置业发展有限公司1#,建德市行政审批服务管理办公室2#变压器,洋安家园6#公变台区,江城嘉苑2#公变变压器,建德市妇幼保健院2#变,洋安家园2#公变台区,中华人民共和国杭州出入境检验检疫局2#专变,江城嘉苑4#公变变压器,和风苑4#公变,建德市妇幼保健院2#变压器,和风苑2#公变,和风苑6#公变,和颂苑1#公变,建德市城市建设开发有限公司,","scope":"浙江省-杭州市-建德市-洋溪街道 洋安社区 和颂苑小区、和风苑小区、洋安家园小区、江城嘉苑小区、南萍公寓小区一带用户。","startTime":"2018-06-04 06:00:00","stopDate":"2018-06-04 06:30:00","orgNo":"3340180","typeCode":"计划停电","poweroffArea":"110kV白沙变:白安Y236线","poweroffReason":"配合压变增容工作倒负荷","powerTime":"2018-06-04 06:30:00","powerComm":"已送电","subsNo":"","lineNo":"","tgNo":"","tgName":null,"infoStatus":"1","orgName":"国网浙江建德市供电有限公司","typeName":null,"infoStatusName":null,"dateDay":null,"orgNos":null,"nowTime":null,"countyName":null,"streetName":null,"villageName":null,"roadName":null,"communityName":null,"tranName":null,"sdLineName":null,"cityCode":"3340180","cityName":"国网浙江建德市供电有限公司","provinceCode":null,"stopTime":"2018-06-04 06:30:00","powerType":"全部","powerOffArea":"110kV白沙变:白安Y236线","powerOffReason":"配合压变增容工作倒负荷","powerOffId":"2018052431010235"},{"poweroffId":2018052431010170,"sgpoweroffId":null,"subsName":"","lineName":"10kV南街675线","pubTranName":"南翔村16#变,雷山村6#变,艾得乐卫浴,雷山村12#变,聚龙(1315077789),南晨工艺,南翔村13#变,奇亚特布厂(1315078406),橡塑工艺（1315077794）,包装带厂(1315078012),艾德乐卫浴(1315086199),福莱特塑料,南晨布艺,雷山村11#变,南翔村6#变,南翔村3#变,雷山村13#变,雷山村4#变,","scope":"浙江省杭州市萧山区靖江街道雷山村、南翔村及杭州南晨工艺品有限公司、萧山市南阳包装带厂、杭州艾得乐卫浴洁具有限公司、南阳橡塑工艺厂、杭州萧山聚龙软管有限公司、杭州南晨工艺品有限公司、杭州福莱特塑料开发有限公司、杭州奇亚特布业有限公司一带","startTime":"2018-06-01 08:35:00","stopDate":"2018-06-01 14:35:00","orgNo":"3340130","typeCode":"计划停电","poweroffArea":"35kV义盛变:南街675线-南街6753开关后段","poweroffReason":"南街675线95#、108#杆开关更换自动化2台 南翔村13#变更换杆上柜1台","powerTime":"2018-06-01 13:58:18","powerComm":"已送电","subsNo":"","lineNo":"","tgNo":"","tgName":null,"infoStatus":"1","orgName":"国网浙江杭州市萧山区供电有限公司","typeName":null,"infoStatusName":null,"dateDay":null,"orgNos":null,"nowTime":null,"countyName":null,"streetName":null,"villageName":null,"roadName":null,"communityName":null,"tranName":null,"sdLineName":null,"cityCode":"3340130","cityName":"国网浙江杭州市萧山区供电有限公司","provinceCode":null,"stopTime":"2018-06-01 14:35:00","powerType":"全部","powerOffArea":"35kV义盛变:南街675线-南街6753开关后段","powerOffReason":"南街675线95#、108#杆开关更换自动化2台 南翔村13#变更换杆上柜1台","powerOffId":"2018052431010170"},{"poweroffId":2018052431010160,"sgpoweroffId":null,"subsName":"","lineName":"10kV天罗733线","pubTranName":"计育楼,","scope":"浙江省-杭州市-西湖区(浙江省计划生育科学技术研究所);","startTime":"2018-05-31 13:30:00","stopDate":"2018-05-31 20:30:00","orgNo":"3340101","typeCode":"计划停电","poweroffArea":"华广站计育分线、14#间隔","poweroffReason":"杭州市区2018年城北区块10千伏公变增容布点及低压台区改造项目六期工程（笕桥） 横塘（8）农公变改造","powerTime":"2018-05-31 15:50:17","powerComm":"已送电","subsNo":"","lineNo":"","tgNo":"","tgName":null,"infoStatus":"1","orgName":"浙江杭州电力客户服务中心","typeName":null,"infoStatusName":null,"dateDay":null,"orgNos":null,"nowTime":null,"countyName":null,"streetName":null,"villageName":null,"roadName":null,"communityName":null,"tranName":null,"sdLineName":null,"cityCode":"3340101","cityName":"浙江杭州电力客户服务中心","provinceCode":null,"stopTime":"2018-05-31 20:30:00","powerType":"全部","powerOffArea":"华广站计育分线、14#间隔","powerOffReason":"杭州市区2018年城北区块10千伏公变增容布点及低压台区改造项目六期工程（笕桥） 横塘（8）农公变改造","powerOffId":"2018052431010160"},{"poweroffId":2018052431010146,"sgpoweroffId":null,"subsName":"","lineName":"10kV玉帛6899线","pubTranName":"石货1#,二小2#,货运（2）,货运(1)1#,货运(1)2#,石货2#,石油（2）,二小1#,","scope":"浙江省杭州市下城区(杭州石大路货运市场,杭州石大路加油站有限公司,杭州市求知小学);","startTime":"2018-05-30 09:30:00","stopDate":"2018-05-30 20:30:00","orgNo":"3340101","typeCode":"计划停电","poweroffArea":"高东站大路94468线、红华站大红9446C线，大路站I段母线","poweroffReason":"大路站增柜（RM6更换）","powerTime":"2018-05-30 16:15:28","powerComm":"已送电","subsNo":"","lineNo":"","tgNo":"","tgName":null,"infoStatus":"1","orgName":"浙江杭州电力客户服务中心","typeName":null,"infoStatusName":null,"dateDay":null,"orgNos":null,"nowTime":null,"countyName":null,"streetName":null,"villageName":null,"roadName":null,"communityName":null,"tranName":null,"sdLineName":null,"cityCode":"3340101","cityName":"浙江杭州电力客户服务中心","provinceCode":null,"stopTime":"2018-05-30 20:30:00","powerType":"全部","powerOffArea":"高东站大路94468线、红华站大红9446C线，大路站I段母线","powerOffReason":"大路站增柜（RM6更换）","powerOffId":"2018052431010146"},{"poweroffId":2018052431010129,"sgpoweroffId":null,"subsName":"","lineName":"10kV协场9817线","pubTranName":"横塘（8-4）农,笕桥（四）,横塘(8)南农,横塘（8-2）农,横塘（8-1）农,笕直(6),环乙,横塘（8-3）农,","scope":"浙江省-杭州市-江干区-笕桥镇(横塘社区-横塘村、横塘九区路8组、9组、十一组附近一带、严家里小区、笕桥路140号笕桥直街附近一带);浙江省-杭州市-江干区(浙江环乙医疗用品消毒有限公司);","startTime":"2018-06-01 09:30:00","stopDate":"2018-06-01 20:30:41","orgNo":"3340101","typeCode":"计划停电","poweroffArea":"桥塘80744线（7610开关-7617开关-笕桥四站）","poweroffReason":"杭州市区2018年城北区块10千伏公变增容布点及低压台区改造项目七期工程（笕桥） 横塘（8-3）农、横塘（8）南农、横塘（8-2）农公变改造","powerTime":"2018-06-01 16:22:55","powerComm":"已送电","subsNo":"","lineNo":"","tgNo":"","tgName":null,"infoStatus":"1","orgName":"浙江杭州电力客户服务中心","typeName":null,"infoStatusName":null,"dateDay":null,"orgNos":null,"nowTime":null,"countyName":null,"streetName":null,"villageName":null,"roadName":null,"communityName":null,"tranName":null,"sdLineName":null,"cityCode":"3340101","cityName":"浙江杭州电力客户服务中心","provinceCode":null,"stopTime":"2018-06-01 20:30:41","powerType":"全部","powerOffArea":"桥塘80744线（7610开关-7617开关-笕桥四站）","powerOffReason":"杭州市区2018年城北区块10千伏公变增容布点及低压台区改造项目七期工程（笕桥） 横塘（8-3）农、横塘（8）南农、横塘（8-2）农公变改造","powerOffId":"2018052431010129"},{"poweroffId":2018052431010128,"sgpoweroffId":null,"subsName":"","lineName":"10kV回龙8460线","pubTranName":"造纸,写字楼1#,办公楼1#,光轮科技6#,光轮科技7#,光轮科技5#,大润发2#,光轮科技8#,办公楼2#,光轮科技1#,光轮科技2#,光轮科技3#,写字楼2#,光轮科技4#,大润发1#,","scope":"浙江省-杭州市-下城区(杭州华皓汽车服务有限公司,杭州近湖物业管理有限公司,杭州市下城区石桥街道永丰经济合作社,杭州永丰大润发超市有限公司);","startTime":"2018-06-01 09:30:00","stopDate":"2018-06-01 17:30:41","orgNo":"3340101","typeCode":"计划停电","poweroffArea":"回龙8460线（嘉里站-永宁变）","poweroffReason":"石桥路杭玻街人行天桥10kV电力迁改工程（市政）1、回龙8460线新放电缆","powerTime":"2018-06-01 12:43:24","powerComm":"已送电","subsNo":"","lineNo":"","tgNo":"","tgName":null,"infoStatus":"1","orgName":"浙江杭州电力客户服务中心","typeName":null,"infoStatusName":null,"dateDay":null,"orgNos":null,"nowTime":null,"countyName":null,"streetName":null,"villageName":null,"roadName":null,"communityName":null,"tranName":null,"sdLineName":null,"cityCode":"3340101","cityName":"浙江杭州电力客户服务中心","provinceCode":null,"stopTime":"2018-06-01 17:30:41","powerType":"全部","powerOffArea":"回龙8460线（嘉里站-永宁变）","powerOffReason":"石桥路杭玻街人行天桥10kV电力迁改工程（市政）1、回龙8460线新放电缆","powerOffId":"2018052431010128"},{"poweroffId":2018052431010112,"sgpoweroffId":null,"subsName":"","lineName":"10kV同富C183线","pubTranName":"佑承化纤,萧山市富兴达纺织有限公司1#,杭州中帝化纤科技有限公司,萧山市富兴达纺织有限公司2#,杭州萧山富兴达纺织有限公司,杭州军诚纺织有限公司,萧山市华宁纺织装饰有限公司,3#,杭州富南塑料制品有限公司,杭州瑜柯化纤厂,山南富村11#变,山南富村8#变,创盛纺织,杭州欧亿莱纺织有限公司2790,杭州恒超锦纶有限公司,山南富村9#变,山南富村10#变,","scope":"浙江省-杭州市-萧山区-衙前镇(山南富行政村-河前路、汇头张路、新村路);浙江省-杭州市-萧山区-衙前镇(杭州富南塑料制品有限公司,杭州恒超锦纶有限公司,杭州欧亿莱纺织有限公司,杭州萧山创盛纺织厂,杭州萧山富兴达纺织有限公司,杭州萧山华宁纺织装饰有限公司,杭州佑承化纤有限公司,杭州中帝化纤科技有限公司,杭州卓舟轻纺有限公司,杭州瑜柯化纤厂,杭州国昂化纤有限公司,杭州科豪化纤有限公司,浙江兴南链条股份有限公司,杭州富南化纤有限公司,杭州华凯化纤有限公司,杭州萧山小区燃气有限公司,杭州浙远塑料制品有限公司,浙江同济钢结构工程有限公司,杭州恒超锦纶有限公司,杭州军诚纺织有限公司,杭州卓舟轻纺有限公司);","startTime":"2018-06-01 08:30:00","stopDate":"2018-06-01 16:30:00","orgNo":"3340130","typeCode":"计划停电","poweroffArea":"110kV翔凤变:同富C183线-同富C183线富兴达纺织分线开关（自）后段","poweroffReason":"20/08/06#杆新装真空开关1台，放线1档（20/08、20/13分支安装真空开关）","powerTime":"2018-06-01 16:29:46","powerComm":"已送电","subsNo":"","lineNo":"","tgNo":"","tgName":null,"infoStatus":"1","orgName":"国网浙江杭州市萧山区供电有限公司","typeName":null,"infoStatusName":null,"dateDay":null,"orgNos":null,"nowTime":null,"countyName":null,"streetName":null,"villageName":null,"roadName":null,"communityName":null,"tranName":null,"sdLineName":null,"cityCode":"3340130","cityName":"国网浙江杭州市萧山区供电有限公司","provinceCode":null,"stopTime":"2018-06-01 16:30:00","powerType":"全部","powerOffArea":"110kV翔凤变:同富C183线-同富C183线富兴达纺织分线开关（自）后段","powerOffReason":"20/08/06#杆新装真空开关1台，放线1档（20/08、20/13分支安装真空开关）","powerOffId":"2018052431010112"},{"poweroffId":2018052331010265,"sgpoweroffId":null,"subsName":"","lineName":"10kV三镇Y321线","pubTranName":"春江源村邱塘坞台区,三都集镇桔香嘉园4#公变,春江源村下钱台区,华宣灵,春江源村下二都台区,春江源村渡口台区,橘香嘉园1#临变,三都镇围坝台区,春江源村宋村山台区,三都镇窑山脚台区,三都镇市场公变台区,三都村刘家后台区,三都村高奄台区,三都集镇桔香嘉园6#公变变压器,三都镇东方新村台区,三都集镇桔香嘉园1#公变,三都集镇桔香嘉园3#公变,春江源村胡程坞台区,建德市三都机制炭厂,三都集镇桔香嘉园2#公变,三都镇桔香嘉园乐居苑台区2号,春江源村山背台区,三都镇老镇公变台区,杭州市船闸建设运行中心配电变压器,三都村潘溪台区,春江源村金家店台区,三都镇桔香嘉园乐居苑台区1号,三都集镇翁村街台区配电变压器,三都镇政府台区,建德市三都初级中学,春江源村桔山台区,春江源村坑塍里台区,建德市浩翔标准件厂,三都镇新镇台区,三都村茶店口台区,三都集镇桔香嘉园5#公变变压器,三都村里潘溪台区,春江源村塘下山台区,","scope":"浙江省-杭州市-建德市-三都镇 三都行政村里潘溪自然村、围坝、潘溪自然村、政府、市场、刘家后自然村、窑山脚自然村、老镇、三都小学、高庵自然村、乐居苑、桔香嘉园、东方新村自然村、茶店口自然村、翁村街；春江源行政村桔山自然村、下钱自然村、塘下山自然村、金家店自然村、下二都自然村、胡程坞自然村、山背自然村、宋村山自然村、邱塘坞自然村、渡口自然村、坑腾里自然村一带用户。","startTime":"2018-05-31 06:00:00","stopDate":"2018-05-31 11:30:00","orgNo":"3340180","typeCode":"计划停电","poweroffArea":"35kV三都变:三镇Y321线","poweroffReason":"三都变10千伏出线电缆更换工程","powerTime":"2018-05-31 11:30:00","powerComm":"已处理","subsNo":"","lineNo":"","tgNo":"","tgName":null,"infoStatus":"1","orgName":"国网浙江建德市供电有限公司","typeName":null,"infoStatusName":null,"dateDay":null,"orgNos":null,"nowTime":null,"countyName":null,"streetName":null,"villageName":null,"roadName":null,"communityName":null,"tranName":null,"sdLineName":null,"cityCode":"3340180","cityName":"国网浙江建德市供电有限公司","provinceCode":null,"stopTime":"2018-05-31 11:30:00","powerType":"全部","powerOffArea":"35kV三都变:三镇Y321线","powerOffReason":"三都变10千伏出线电缆更换工程","powerOffId":"2018052331010265"}],"pageModel":{"pageNow":1756,"totalCount":17789,"totalPage":1779,"tableRows":0,"pageCount":10,"beginCount":17550},"isExperi":"1"}