{"message":"","today":"2020-06-16","seleList":[{"poweroffId":2018052331010237,"sgpoweroffId":null,"subsName":"","lineName":"10kV大地D191线","pubTranName":"浙江远大纸业有限公司4#,浙江远大纸业有限公司2#,浙江远大纸业有限公司3#,浙江远大纸业有限公司1#,","scope":"浙江省-杭州市-富阳区-春江街道(浙江远大纸业有限公司)一带;","startTime":"2018-05-31 06:30:00","stopDate":"2018-05-31 22:00:00","orgNo":"3340170","typeCode":"计划停电","poweroffArea":"110kV大源变:大地D191线-浙江远大纸业有限公司站内开关后段","poweroffReason":"大源变10kVI段母线集中检修配合停电","powerTime":"2018-05-31 21:41:58","powerComm":"已送电","subsNo":"","lineNo":"","tgNo":"","tgName":null,"infoStatus":"1","orgName":"国网浙江杭州市富阳区供电公司","typeName":null,"infoStatusName":null,"dateDay":null,"orgNos":null,"nowTime":null,"countyName":null,"streetName":null,"villageName":null,"roadName":null,"communityName":null,"tranName":null,"sdLineName":null,"cityCode":"3340170","cityName":"国网浙江杭州市富阳区供电公司","provinceCode":null,"stopTime":"2018-05-31 22:00:00","powerType":"全部","powerOffArea":"110kV大源变:大地D191线-浙江远大纸业有限公司站内开关后段","powerOffReason":"大源变10kVI段母线集中检修配合停电","powerOffId":"2018052331010237"},{"poweroffId":2018052331010236,"sgpoweroffId":null,"subsName":"","lineName":"10kV安顶D909线","pubTranName":"灵峰村春建2号公变,","scope":"浙江省-杭州市-富阳区-里山镇（灵峰村行政村-灵峰村自然村）一带；","startTime":"2018-06-19 08:00:00","stopDate":"2018-06-19 17:10:00","orgNo":"3340170","typeCode":"计划停电","poweroffArea":"110kV里渔变:安顶D909线-灵峰村春建2#公变跌落式熔断器后段","poweroffReason":"江南2018年蔡家坞6#水库公变等台区低压线路改造工程10kV安顶D909灵峰村春建2#分线1号杆拔立杆各1支，安装横担拉线拆装导线1kV120*4*2档拆装低压出线电缆1根拆旧架设1kV70*4*1档、搭接等工作","powerTime":"2018-06-19 16:28:39","powerComm":"工作结束已送电","subsNo":"","lineNo":"","tgNo":"","tgName":null,"infoStatus":"1","orgName":"国网浙江杭州市富阳区供电公司","typeName":null,"infoStatusName":null,"dateDay":null,"orgNos":null,"nowTime":null,"countyName":null,"streetName":null,"villageName":null,"roadName":null,"communityName":null,"tranName":null,"sdLineName":null,"cityCode":"3340170","cityName":"国网浙江杭州市富阳区供电公司","provinceCode":null,"stopTime":"2018-06-19 17:10:00","powerType":"全部","powerOffArea":"110kV里渔变:安顶D909线-灵峰村春建2#公变跌落式熔断器后段","powerOffReason":"江南2018年蔡家坞6#水库公变等台区低压线路改造工程10kV安顶D909灵峰村春建2#分线1号杆拔立杆各1支，安装横担拉线拆装导线1kV120*4*2档拆装低压出线电缆1根拆旧架设1kV70*4*1档、搭接等工作","powerOffId":"2018052331010236"},{"poweroffId":2018052331010235,"sgpoweroffId":null,"subsName":"","lineName":"10kV渔山D913线","pubTranName":"旭光村2#公路边公变,","scope":"浙江省-杭州市-富阳区-渔山乡(大葛行政村-旭光自然村)一带;","startTime":"2018-05-31 08:00:00","stopDate":"2018-05-31 16:00:00","orgNo":"3340170","typeCode":"计划停电","poweroffArea":"110kV里渔变:渔山D913线-旭光村2#支线跌落式熔断器后段","poweroffReason":"10kV渔山D913线51#杆渔山分线线路改造工程：拆除旭光村2#路边公变400KVA配变1台，新放0.4kV导线4档，","powerTime":"2018-05-31 15:50:45","powerComm":"工作结束已送电","subsNo":"","lineNo":"","tgNo":"","tgName":null,"infoStatus":"1","orgName":"国网浙江杭州市富阳区供电公司","typeName":null,"infoStatusName":null,"dateDay":null,"orgNos":null,"nowTime":null,"countyName":null,"streetName":null,"villageName":null,"roadName":null,"communityName":null,"tranName":null,"sdLineName":null,"cityCode":"3340170","cityName":"国网浙江杭州市富阳区供电公司","provinceCode":null,"stopTime":"2018-05-31 16:00:00","powerType":"全部","powerOffArea":"110kV里渔变:渔山D913线-旭光村2#支线跌落式熔断器后段","powerOffReason":"10kV渔山D913线51#杆渔山分线线路改造工程：拆除旭光村2#路边公变400KVA配变1台，新放0.4kV导线4档，","powerOffId":"2018052331010235"},{"poweroffId":2018052331010234,"sgpoweroffId":null,"subsName":"","lineName":"10kV渔山D913线","pubTranName":"旭光村1#村中公变,","scope":"浙江省-杭州市-富阳区-渔山乡(大葛行政村-旭光自然村)一带;","startTime":"2018-05-31 08:00:00","stopDate":"2018-05-31 16:00:00","orgNo":"3340170","typeCode":"计划停电","poweroffArea":"110kV里渔变:渔山D913线-旭光村1#村中公变跌落式熔断器后段","poweroffReason":"10kV渔山D913线51#杆渔山分线线路改造工程：旭光村1#村中公变低压电缆搭头等工作。","powerTime":"2018-05-31 15:50:14","powerComm":"工作结束已送电","subsNo":"","lineNo":"","tgNo":"","tgName":null,"infoStatus":"1","orgName":"国网浙江杭州市富阳区供电公司","typeName":null,"infoStatusName":null,"dateDay":null,"orgNos":null,"nowTime":null,"countyName":null,"streetName":null,"villageName":null,"roadName":null,"communityName":null,"tranName":null,"sdLineName":null,"cityCode":"3340170","cityName":"国网浙江杭州市富阳区供电公司","provinceCode":null,"stopTime":"2018-05-31 16:00:00","powerType":"全部","powerOffArea":"110kV里渔变:渔山D913线-旭光村1#村中公变跌落式熔断器后段","powerOffReason":"10kV渔山D913线51#杆渔山分线线路改造工程：旭光村1#村中公变低压电缆搭头等工作。","powerOffId":"2018052331010234"},{"poweroffId":2018052331010233,"sgpoweroffId":null,"subsName":"","lineName":"10kV裕丰D194线","pubTranName":"浙江银图新型建材有限公司2#变,浙江银图新型建材有限公司1#变,杭州诚兴体育用品有限公司,杭州富阳康泰门业有限公司,富阳市大源镇金茂铝型材厂,富阳科丰金属制品有限公司,","scope":"浙江省-杭州市-富阳区-大源镇(富阳市大源镇金茂铝型材厂,杭州富阳康泰门业有限公司,杭州富阳科丰金属制品有限公司,杭州振嘉实业有限公司,浙江银图新型建材有限公司)一带;","startTime":"2018-05-31 06:30:00","stopDate":"2018-05-31 22:00:00","orgNo":"3340170","typeCode":"计划停电","poweroffArea":"110kV大源变:裕丰D194线-富阳市大源镇金茂铝型材厂跌落式熔断器后段；","poweroffReason":"大源变10kVI段母线集中检修配合停电","powerTime":"2018-05-31 21:41:07","powerComm":"已送电","subsNo":"","lineNo":"","tgNo":"","tgName":null,"infoStatus":"1","orgName":"国网浙江杭州市富阳区供电公司","typeName":null,"infoStatusName":null,"dateDay":null,"orgNos":null,"nowTime":null,"countyName":null,"streetName":null,"villageName":null,"roadName":null,"communityName":null,"tranName":null,"sdLineName":null,"cityCode":"3340170","cityName":"国网浙江杭州市富阳区供电公司","provinceCode":null,"stopTime":"2018-05-31 22:00:00","powerType":"全部","powerOffArea":"110kV大源变:裕丰D194线-富阳市大源镇金茂铝型材厂跌落式熔断器后段；","powerOffReason":"大源变10kVI段母线集中检修配合停电","powerOffId":"2018052331010233"},{"poweroffId":2018052331010107,"sgpoweroffId":null,"subsName":"","lineName":"10kV栋山D410线","pubTranName":"后石路1#村中公变,","scope":"浙江省杭州市富阳区鹿山街道南山村后石路村中一带","startTime":"2018-06-01 08:00:00","stopDate":"2018-06-01 17:00:00","orgNo":"3340170","typeCode":"计划停电","poweroffArea":"110kV长春变:栋山D410线-后石路1号村中后段","poweroffReason":"青云2018年长春村1#村委公变等低压台区改造工程：安装横担，拉线1组，架线4档，拆旧4档，更换落户线，更换表箱，搭接等工作","powerTime":"2018-06-01 16:19:36","powerComm":"工作结束已送电","subsNo":"","lineNo":"","tgNo":"","tgName":null,"infoStatus":"1","orgName":"国网浙江杭州市富阳区供电公司","typeName":null,"infoStatusName":null,"dateDay":null,"orgNos":null,"nowTime":null,"countyName":null,"streetName":null,"villageName":null,"roadName":null,"communityName":null,"tranName":null,"sdLineName":null,"cityCode":"3340170","cityName":"国网浙江杭州市富阳区供电公司","provinceCode":null,"stopTime":"2018-06-01 17:00:00","powerType":"全部","powerOffArea":"110kV长春变:栋山D410线-后石路1号村中后段","powerOffReason":"青云2018年长春村1#村委公变等低压台区改造工程：安装横担，拉线1组，架线4档，拆旧4档，更换落户线，更换表箱，搭接等工作","powerOffId":"2018052331010107"},{"poweroffId":2018052331010105,"sgpoweroffId":null,"subsName":"","lineName":"10kV栋山D410线","pubTranName":"后石路3#上村公变,","scope":"浙江省-杭州市-富阳区-鹿山街道(南山行政村-后石路自然村-前山自然村一带);","startTime":"2018-06-01 08:00:00","stopDate":"2018-06-01 17:00:00","orgNo":"3340170","typeCode":"计划停电","poweroffArea":"110kV长春变:栋山D410线-后石路3号上村后段","poweroffReason":"青云2018年长春村1#村委公变等低压台区改造工程：割接等工作","powerTime":"2018-06-01 16:14:45","powerComm":"工作结束已送电","subsNo":"","lineNo":"","tgNo":"","tgName":null,"infoStatus":"1","orgName":"国网浙江杭州市富阳区供电公司","typeName":null,"infoStatusName":null,"dateDay":null,"orgNos":null,"nowTime":null,"countyName":null,"streetName":null,"villageName":null,"roadName":null,"communityName":null,"tranName":null,"sdLineName":null,"cityCode":"3340170","cityName":"国网浙江杭州市富阳区供电公司","provinceCode":null,"stopTime":"2018-06-01 17:00:00","powerType":"全部","powerOffArea":"110kV长春变:栋山D410线-后石路3号上村后段","powerOffReason":"青云2018年长春村1#村委公变等低压台区改造工程：割接等工作","powerOffId":"2018052331010105"},{"poweroffId":2018052331010104,"sgpoweroffId":null,"subsName":"","lineName":"10kV庙坞D830线","pubTranName":"新桐村2#新居公变,","scope":"浙江省-杭州市-富阳区-新桐乡(新桐行政村-新店自然村一带);","startTime":"2018-06-02 08:00:00","stopDate":"2018-06-02 16:30:00","orgNo":"3340170","typeCode":"计划停电","poweroffArea":"110kV新桐变:庙坞D830线-新桐村2号新居后段","poweroffReason":"青云2018年长春村1#村委公变等低压台区改造工程：沿墙敷设BS*4*35*130米，更换落户线，搭接等工作","powerTime":"2018-06-02 16:20:47","powerComm":"已送电","subsNo":"","lineNo":"","tgNo":"","tgName":null,"infoStatus":"1","orgName":"国网浙江杭州市富阳区供电公司","typeName":null,"infoStatusName":null,"dateDay":null,"orgNos":null,"nowTime":null,"countyName":null,"streetName":null,"villageName":null,"roadName":null,"communityName":null,"tranName":null,"sdLineName":null,"cityCode":"3340170","cityName":"国网浙江杭州市富阳区供电公司","provinceCode":null,"stopTime":"2018-06-02 16:30:00","powerType":"全部","powerOffArea":"110kV新桐变:庙坞D830线-新桐村2号新居后段","powerOffReason":"青云2018年长春村1#村委公变等低压台区改造工程：沿墙敷设BS*4*35*130米，更换落户线，搭接等工作","powerOffId":"2018052331010104"},{"poweroffId":2018052331010095,"sgpoweroffId":null,"subsName":"","lineName":"10kV百岁168线","pubTranName":"百岁王家1号公变,","scope":"浙江省-杭州市-桐庐县-瑶琳镇(百岁行政村-王家自然村、坞口自然村);","startTime":"2018-06-01 07:30:00","stopDate":"2018-06-01 17:30:00","orgNo":"3340150","typeCode":"计划停电","poweroffArea":"35kV瑶琳变:百岁168线-王家F6312后段","poweroffReason":"百岁王家1号公变移位、安装令克、敷设电缆工作、调换低压导线10档工作（带电作业配合）","powerTime":"2018-06-01 17:20:28","powerComm":"已送电","subsNo":"","lineNo":"","tgNo":"","tgName":null,"infoStatus":"1","orgName":"国网浙江桐庐县供电公司","typeName":null,"infoStatusName":null,"dateDay":null,"orgNos":null,"nowTime":null,"countyName":null,"streetName":null,"villageName":null,"roadName":null,"communityName":null,"tranName":null,"sdLineName":null,"cityCode":"3340150","cityName":"国网浙江桐庐县供电公司","provinceCode":null,"stopTime":"2018-06-01 17:30:00","powerType":"全部","powerOffArea":"35kV瑶琳变:百岁168线-王家F6312后段","powerOffReason":"百岁王家1号公变移位、安装令克、敷设电缆工作、调换低压导线10档工作（带电作业配合）","powerOffId":"2018052331010095"},{"poweroffId":2018052231010274,"sgpoweroffId":null,"subsName":"","lineName":"10kV来棉A437线","pubTranName":"缪家村11#变,缪家村10#变,杭州汉正包装材料有限公司,缪家村5#变,杭州萧山育才医院,杭州云博复合材料有限公司,缪家村1#变,所前镇人民政府站内变压器配电变压器,","scope":"浙江省-杭州市-萧山区-所前镇(缪家行政村-缪家自然村);浙江省-杭州市-萧山区-所前镇(杭州二天机械有限公司,杭州市萧山区所前镇人民政府,杭州伍强五金厂,杭州萧山傅氏骨伤科医院);","startTime":"2018-05-31 08:30:00","stopDate":"2018-05-31 17:30:00","orgNo":"3340130","typeCode":"计划停电","poweroffArea":"110kV来苏变:来棉A437线-中董A437线缪家分线开关后段","poweroffReason":"缪家村13#变上400kVA，新立电杆2根，放线1档，安装变压器1台，电缆敷设制作、试验、搭接（18/B01#杆新装真空开关1台）","powerTime":"2018-05-31 15:42:26","powerComm":"全部送电","subsNo":"","lineNo":"","tgNo":"","tgName":null,"infoStatus":"1","orgName":"国网浙江杭州市萧山区供电有限公司","typeName":null,"infoStatusName":null,"dateDay":null,"orgNos":null,"nowTime":null,"countyName":null,"streetName":null,"villageName":null,"roadName":null,"communityName":null,"tranName":null,"sdLineName":null,"cityCode":"3340130","cityName":"国网浙江杭州市萧山区供电有限公司","provinceCode":null,"stopTime":"2018-05-31 17:30:00","powerType":"全部","powerOffArea":"110kV来苏变:来棉A437线-中董A437线缪家分线开关后段","powerOffReason":"缪家村13#变上400kVA，新立电杆2根，放线1档，安装变压器1台，电缆敷设制作、试验、搭接（18/B01#杆新装真空开关1台）","powerOffId":"2018052231010274"}],"pageModel":{"pageNow":1758,"totalCount":17789,"totalPage":1779,"tableRows":0,"pageCount":10,"beginCount":17570},"isExperi":"1"}