{"message":"","today":"2020-06-15","seleList":[{"poweroffId":2020051431020090,"sgpoweroffId":null,"subsName":"","lineName":"10kV周袁6594线","pubTranName":"杭挂,家私,西子机械,人防,","scope":"浙江省-杭州市-西湖区-双浦镇(杭州恒定塑木工具有限公司,杭州之浦金属制品有限公司,杭州人防设备有限公司,杭州求是实业有限公司)","startTime":"2020-05-14 09:32:00","stopDate":"2020-05-14 13:55:00","orgNo":"3340101","typeCode":"电网故障停限电","poweroffArea":"110kV周浦变:周袁6594线10千伏友谊051线家私分线开关后段","poweroffReason":"高压开关跳闸 原停电结束时间为2020-05-14 11:32:00,因施工现场环境比较复杂原因,延迟送电,现变更停电结束时间为2020-05-14 13:55:00","powerTime":"2020-05-14 13:20:09","powerComm":"已送电","subsNo":"","lineNo":"","tgNo":"","tgName":null,"infoStatus":"1","orgName":"浙江杭州电力客户服务中心","typeName":null,"infoStatusName":null,"dateDay":null,"orgNos":null,"nowTime":null,"countyName":null,"streetName":null,"villageName":null,"roadName":null,"communityName":null,"tranName":null,"sdLineName":null,"cityCode":"3340101","cityName":"浙江杭州电力客户服务中心","provinceCode":null,"stopTime":"2020-05-14 13:55:00","powerType":"全部","powerOffArea":"110kV周浦变:周袁6594线10千伏友谊051线家私分线开关后段","powerOffReason":"高压开关跳闸 原停电结束时间为2020-05-14 11:32:00,因施工现场环境比较复杂原因,延迟送电,现变更停电结束时间为2020-05-14 13:55:00","powerOffId":"2020051431020090"},{"poweroffId":2020051431020073,"sgpoweroffId":null,"subsName":"","lineName":"10kV笼山D252线","pubTranName":"民丰村6号青龙头公变,","scope":"浙江省-杭州市-富阳区-东洲街道-鸡笼山行政村-民丰自然村","startTime":"2020-05-14 09:00:17","stopDate":"2020-05-14 17:00:17","orgNo":"3340170","typeCode":"电网故障停限电","poweroffArea":"110kV白鹤变:笼山D252线-民丰村6号青龙头公变后段","poweroffReason":"(低压停电信息)低压开关跳闸","powerTime":"2020-05-14 16:16:08","powerComm":"已送电","subsNo":"","lineNo":"","tgNo":"","tgName":null,"infoStatus":"1","orgName":"国网浙江杭州市富阳区供电公司","typeName":null,"infoStatusName":null,"dateDay":null,"orgNos":null,"nowTime":null,"countyName":null,"streetName":null,"villageName":null,"roadName":null,"communityName":null,"tranName":null,"sdLineName":null,"cityCode":"3340170","cityName":"国网浙江杭州市富阳区供电公司","provinceCode":null,"stopTime":"2020-05-14 17:00:17","powerType":"全部","powerOffArea":"110kV白鹤变:笼山D252线-民丰村6号青龙头公变后段","powerOffReason":"(低压停电信息)低压开关跳闸","powerOffId":"2020051431020073"},{"poweroffId":2020051431020064,"sgpoweroffId":null,"subsName":"","lineName":"10kV三联D943线","pubTranName":"龙星村5号罗家岭公变,","scope":"浙江省-杭州市-富阳区-富春街道-三桥行政村(罗家岭自然村,甘溪自然村,龙星自然村)","startTime":"2020-05-15 13:00:00","stopDate":"2020-05-15 17:00:00","orgNo":"3340170","typeCode":"临时停电","poweroffArea":"110kV育才变:三联D943线-龙星村5号罗家岭后段","poweroffReason":"(低压停电信息)吊车拔立杆1支、拆装导线1档、按装拉线1组、搭接等工作","powerTime":"2020-05-15 16:40:38","powerComm":"已送电","subsNo":"","lineNo":"","tgNo":"","tgName":null,"infoStatus":"1","orgName":"国网浙江杭州市富阳区供电公司","typeName":null,"infoStatusName":null,"dateDay":null,"orgNos":null,"nowTime":null,"countyName":null,"streetName":null,"villageName":null,"roadName":null,"communityName":null,"tranName":null,"sdLineName":null,"cityCode":"3340170","cityName":"国网浙江杭州市富阳区供电公司","provinceCode":null,"stopTime":"2020-05-15 17:00:00","powerType":"全部","powerOffArea":"110kV育才变:三联D943线-龙星村5号罗家岭后段","powerOffReason":"(低压停电信息)吊车拔立杆1支、拆装导线1档、按装拉线1组、搭接等工作","powerOffId":"2020051431020064"},{"poweroffId":2020051431020061,"sgpoweroffId":null,"subsName":"","lineName":"10kV凤潭Y340线","pubTranName":"乾潭村练上台区,乾潭村西源台区,乾潭村七星坞台区,乾潭村坪滩台区,乾潭村东源台区,乾潭村北坝台区,","scope":"浙江省-杭州市-建德市-乾潭镇-乾潭行政村(东源自然村,北坝自然村,江南坞自然村,七星坞自然村)","startTime":"2020-05-14 08:36:00","stopDate":"2020-05-14 11:00:00","orgNo":"3340180","typeCode":"电网故障停限电","poweroffArea":"110kV钦堂变:凤潭Y340线-七星坞支线42#杆开关后段","poweroffReason":"高压开关跳闸 原停电结束时间为2020-05-14 10:30:00,因施工现场复杂原因,延迟送电,现变更停电结束时间为2020-05-14 11:00:00","powerTime":"2020-05-14 10:14:00","powerComm":"已送电","subsNo":"","lineNo":"","tgNo":"","tgName":null,"infoStatus":"1","orgName":"国网浙江建德市供电有限公司","typeName":null,"infoStatusName":null,"dateDay":null,"orgNos":null,"nowTime":null,"countyName":null,"streetName":null,"villageName":null,"roadName":null,"communityName":null,"tranName":null,"sdLineName":null,"cityCode":"3340180","cityName":"国网浙江建德市供电有限公司","provinceCode":null,"stopTime":"2020-05-14 11:00:00","powerType":"全部","powerOffArea":"110kV钦堂变:凤潭Y340线-七星坞支线42#杆开关后段","powerOffReason":"高压开关跳闸 原停电结束时间为2020-05-14 10:30:00,因施工现场复杂原因,延迟送电,现变更停电结束时间为2020-05-14 11:00:00","powerOffId":"2020051431020061"},{"poweroffId":2020051431020041,"sgpoweroffId":null,"subsName":"","lineName":"10kV振新C630线","pubTranName":"长山社区2#公变,","scope":"浙江省-杭州市-萧山区-新街镇-新街街道-长山头行政村(工人路,长山街),新街街道-长山社区(工人路,长山街,工人路51号,杭塑弄,长山街256号)等","startTime":"2020-05-14 08:14:33","stopDate":"2020-05-14 11:57:33","orgNo":"3340130","typeCode":"电网故障停限电","poweroffArea":"110kV新街变:振新C630线-长山社区2#公变台区低压开关","poweroffReason":"（低压停电信息）低压漏电保护器跳闸","powerTime":"2020-05-14 11:00:21","powerComm":"已送电","subsNo":"","lineNo":"","tgNo":"","tgName":null,"infoStatus":"1","orgName":"国网浙江杭州市萧山区供电有限公司","typeName":null,"infoStatusName":null,"dateDay":null,"orgNos":null,"nowTime":null,"countyName":null,"streetName":null,"villageName":null,"roadName":null,"communityName":null,"tranName":null,"sdLineName":null,"cityCode":"3340130","cityName":"国网浙江杭州市萧山区供电有限公司","provinceCode":null,"stopTime":"2020-05-14 11:57:33","powerType":"全部","powerOffArea":"110kV新街变:振新C630线-长山社区2#公变台区低压开关","powerOffReason":"（低压停电信息）低压漏电保护器跳闸","powerOffId":"2020051431020041"},{"poweroffId":2020051431020040,"sgpoweroffId":null,"subsName":"","lineName":"10kV三溪D337线","pubTranName":"大溪村17号陆家园公变,","scope":"浙江省-杭州市-富阳区-万市镇-大溪村陆家园","startTime":"2020-05-14 08:10:22","stopDate":"2020-05-14 09:10:22","orgNo":"3340170","typeCode":"电网故障停限电","poweroffArea":"110kV万市变:三溪D337线-大溪村17号陆家园公变后段","poweroffReason":"高压开关跳闸 原停电结束时间为2020-05-14 10:10:22,为减少客户停电时间,加快工作进度,提前送电,现变更停电结束时间为2020-05-14 09:10:22","powerTime":"2020-05-14 08:16:16","powerComm":"已送电","subsNo":"","lineNo":"","tgNo":"","tgName":null,"infoStatus":"1","orgName":"国网浙江杭州市富阳区供电公司","typeName":null,"infoStatusName":null,"dateDay":null,"orgNos":null,"nowTime":null,"countyName":null,"streetName":null,"villageName":null,"roadName":null,"communityName":null,"tranName":null,"sdLineName":null,"cityCode":"3340170","cityName":"国网浙江杭州市富阳区供电公司","provinceCode":null,"stopTime":"2020-05-14 09:10:22","powerType":"全部","powerOffArea":"110kV万市变:三溪D337线-大溪村17号陆家园公变后段","powerOffReason":"高压开关跳闸 原停电结束时间为2020-05-14 10:10:22,为减少客户停电时间,加快工作进度,提前送电,现变更停电结束时间为2020-05-14 09:10:22","powerOffId":"2020051431020040"},{"poweroffId":2020051431020039,"sgpoweroffId":null,"subsName":"","lineName":"10kV岭源T191线","pubTranName":"麻境3号公变,","scope":"浙江省-杭州市-桐庐县-合村乡-合村行政村-大琅坞自然村","startTime":"2020-05-14 08:10:00","stopDate":"2020-05-14 17:05:00","orgNo":"3340150","typeCode":"电网故障停限电","poweroffArea":"35kV合村变:岭源T191线麻境3号公变配变","poweroffReason":"高压开关跳闸 原停电结束时间为2020-05-14 14:05:00,因人员配备不足原因,延迟送电,现变更停电结束时间为2020-05-14 17:05:00","powerTime":"2020-05-14 16:56:51","powerComm":"已送电","subsNo":"","lineNo":"","tgNo":"","tgName":null,"infoStatus":"1","orgName":"国网浙江桐庐县供电公司","typeName":null,"infoStatusName":null,"dateDay":null,"orgNos":null,"nowTime":null,"countyName":null,"streetName":null,"villageName":null,"roadName":null,"communityName":null,"tranName":null,"sdLineName":null,"cityCode":"3340150","cityName":"国网浙江桐庐县供电公司","provinceCode":null,"stopTime":"2020-05-14 17:05:00","powerType":"全部","powerOffArea":"35kV合村变:岭源T191线麻境3号公变配变","powerOffReason":"高压开关跳闸 原停电结束时间为2020-05-14 14:05:00,因人员配备不足原因,延迟送电,现变更停电结束时间为2020-05-14 17:05:00","powerOffId":"2020051431020039"},{"poweroffId":2020051431020025,"sgpoweroffId":null,"subsName":"","lineName":"10kV汉塘T312线","pubTranName":"石墙里2号公变,","scope":"浙江省-杭州市-桐庐县-城南街道-仁智行政村(石墙里自然村,仁智戴家自然村)","startTime":"2020-05-14 07:33:00","stopDate":"2020-05-14 09:33:00","orgNo":"3340150","typeCode":"电网故障停限电","poweroffArea":"110kV洋洲变:汉塘T312线石墙里2号公变配变","poweroffReason":"高压开关跳闸","powerTime":"2020-05-14 09:10:27","powerComm":"已送电","subsNo":"","lineNo":"","tgNo":"","tgName":null,"infoStatus":"1","orgName":"国网浙江桐庐县供电公司","typeName":null,"infoStatusName":null,"dateDay":null,"orgNos":null,"nowTime":null,"countyName":null,"streetName":null,"villageName":null,"roadName":null,"communityName":null,"tranName":null,"sdLineName":null,"cityCode":"3340150","cityName":"国网浙江桐庐县供电公司","provinceCode":null,"stopTime":"2020-05-14 09:33:00","powerType":"全部","powerOffArea":"110kV洋洲变:汉塘T312线石墙里2号公变配变","powerOffReason":"高压开关跳闸","powerOffId":"2020051431020025"},{"poweroffId":2020051431020008,"sgpoweroffId":null,"subsName":"","lineName":"10kV永创8251线","pubTranName":"丰运服饰2#,同硕,吴家桥,丰运服饰1#,","scope":"浙江省-杭州市-西湖区-三墩镇-五幸社区-三仓路;三墩镇(浙江同硕科技有限公司,杭州丰运年华服饰有限公司)","startTime":"2020-05-14 06:32:00","stopDate":"2020-05-14 11:32:00","orgNo":"3340101","typeCode":"电网故障停限电","poweroffArea":"110kV申花变:永创8251线陆板桥2支线开关后段","poweroffReason":"高压开关跳闸 原停电结束时间为2020-05-14 10:32:00,因施工现场环境比较复杂原因,延迟送电,现变更停电结束时间为2020-05-14 11:32:00","powerTime":"2020-05-14 10:43:02","powerComm":"已送电","subsNo":"","lineNo":"","tgNo":"","tgName":null,"infoStatus":"1","orgName":"浙江杭州电力客户服务中心","typeName":null,"infoStatusName":null,"dateDay":null,"orgNos":null,"nowTime":null,"countyName":null,"streetName":null,"villageName":null,"roadName":null,"communityName":null,"tranName":null,"sdLineName":null,"cityCode":"3340101","cityName":"浙江杭州电力客户服务中心","provinceCode":null,"stopTime":"2020-05-14 11:32:00","powerType":"全部","powerOffArea":"110kV申花变:永创8251线陆板桥2支线开关后段","powerOffReason":"高压开关跳闸 原停电结束时间为2020-05-14 10:32:00,因施工现场环境比较复杂原因,延迟送电,现变更停电结束时间为2020-05-14 11:32:00","powerOffId":"2020051431020008"},{"poweroffId":2020051431020006,"sgpoweroffId":null,"subsName":"","lineName":"10kV山居D588线","pubTranName":"观前村3#桥头公变1,杭州富阳水务有限公司1#变,合丰村1#厂帮里公变,杭州杭富轨道交通有限公司 3#,富阳市东南纸业有限公司,1#,观前村12号杨家坎公变,富阳市高桥镇社区卫生服务中心,富阳环通电力器材有限公司2#变,观前村4号村委口公变,杭州市城市建设基础工程有限公司 1#,","scope":"浙江省-杭州市-富阳区-银湖街道-观前行政村(观前自然村,杨家坑自然村,黄泥山自然村),银湖街道-高桥行政村(合丰自然村,马塘桥自然村,厂帮里自然村);富春街道-中铁一局集团第五工程有限公司,银湖街道(富阳市东南纸业有限公司,杭州市城市建设基础工程有限公司,杭州市富阳区银湖街道高桥社区卫生服务中心,杭州环通电力器材有限公司,杭州富阳水务有限公司)","startTime":"2020-05-14 05:30:49","stopDate":"2020-05-14 07:10:00","orgNo":"3340170","typeCode":"电网故障停限电","poweroffArea":"110kV高桥变:山居D588线上陈D2957开关后段","poweroffReason":"高压开关跳闸","powerTime":"2020-05-14 06:17:54","powerComm":"已送电","subsNo":"","lineNo":"","tgNo":"","tgName":null,"infoStatus":"1","orgName":"国网浙江杭州市富阳区供电公司","typeName":null,"infoStatusName":null,"dateDay":null,"orgNos":null,"nowTime":null,"countyName":null,"streetName":null,"villageName":null,"roadName":null,"communityName":null,"tranName":null,"sdLineName":null,"cityCode":"3340170","cityName":"国网浙江杭州市富阳区供电公司","provinceCode":null,"stopTime":"2020-05-14 07:10:00","powerType":"全部","powerOffArea":"110kV高桥变:山居D588线上陈D2957开关后段","powerOffReason":"高压开关跳闸","powerOffId":"2020051431020006"}],"pageModel":{"pageNow":178,"totalCount":17788,"totalPage":1779,"tableRows":0,"pageCount":10,"beginCount":1770},"isExperi":"1"}