{"message":"","today":"2020-06-16","seleList":[{"poweroffId":2018052131010124,"sgpoweroffId":null,"subsName":"","lineName":"10kV春江D370线","pubTranName":"天河别墅3#公变,","scope":"浙江省-杭州市-富阳区-富春街道(江滨社区-江滨西大道);","startTime":"2018-05-31 08:20:00","stopDate":"2018-05-31 12:10:00","orgNo":"3340170","typeCode":"计划停电","poweroffArea":"110kV富鹿变:春江D370线-天河别墅3#公变后段","poweroffReason":"国网浙江富阳供电公司2018年客户计量装置建设与改造:天河别墅3#公变4#开关-4T（6611049913）江滨西大道98-6进行表计缺陷处理等工作","powerTime":"2018-05-31 11:48:08","powerComm":"工作结束已送电","subsNo":"","lineNo":"","tgNo":"","tgName":null,"infoStatus":"1","orgName":"国网浙江杭州市富阳区供电公司","typeName":null,"infoStatusName":null,"dateDay":null,"orgNos":null,"nowTime":null,"countyName":null,"streetName":null,"villageName":null,"roadName":null,"communityName":null,"tranName":null,"sdLineName":null,"cityCode":"3340170","cityName":"国网浙江杭州市富阳区供电公司","provinceCode":null,"stopTime":"2018-05-31 12:10:00","powerType":"全部","powerOffArea":"110kV富鹿变:春江D370线-天河别墅3#公变后段","powerOffReason":"国网浙江富阳供电公司2018年客户计量装置建设与改造:天河别墅3#公变4#开关-4T（6611049913）江滨西大道98-6进行表计缺陷处理等工作","powerOffId":"2018052131010124"},{"poweroffId":2018052131010122,"sgpoweroffId":null,"subsName":"","lineName":"10kV新民D232线","pubTranName":"民丰村5#东岸山公变,","scope":"浙江省杭州市富阳区东洲街道民丰村东岸山一带","startTime":"2018-05-30 08:30:00","stopDate":"2018-05-30 16:00:00","orgNo":"3340170","typeCode":"计划停电","poweroffArea":"110kV白鹤变:新民D232线-民丰东岸山进线后段","poweroffReason":"青云2018年东洲地区10千伏木桥D422线红旗7#等公变增容布点工程：民丰村5#东岸山公变由200kVA增容至400kVA，跌落式开关及低压柜更换等工作。","powerTime":"2018-05-30 15:19:21","powerComm":"工作结束已送电","subsNo":"","lineNo":"","tgNo":"","tgName":null,"infoStatus":"1","orgName":"国网浙江杭州市富阳区供电公司","typeName":null,"infoStatusName":null,"dateDay":null,"orgNos":null,"nowTime":null,"countyName":null,"streetName":null,"villageName":null,"roadName":null,"communityName":null,"tranName":null,"sdLineName":null,"cityCode":"3340170","cityName":"国网浙江杭州市富阳区供电公司","provinceCode":null,"stopTime":"2018-05-30 16:00:00","powerType":"全部","powerOffArea":"110kV白鹤变:新民D232线-民丰东岸山进线后段","powerOffReason":"青云2018年东洲地区10千伏木桥D422线红旗7#等公变增容布点工程：民丰村5#东岸山公变由200kVA增容至400kVA，跌落式开关及低压柜更换等工作。","powerOffId":"2018052131010122"},{"poweroffId":2018052031010243,"sgpoweroffId":null,"subsName":"","lineName":"10kV所一C252线","pubTranName":"袄庄陈村2#变,","scope":"浙江省-杭州市-萧山区-所前镇(袄庄陈行政村-袄庄陈自然村);","startTime":"2018-05-28 08:40:00","stopDate":"2018-05-28 16:40:00","orgNo":"3340130","typeCode":"计划停电","poweroffArea":"110kV所前变:所一C252线-袄庄陈村2#变开关后段","poweroffReason":"袄庄陈村2#变EQC安装","powerTime":"2018-05-28 11:06:39","powerComm":"全部送电","subsNo":"","lineNo":"","tgNo":"","tgName":null,"infoStatus":"1","orgName":"国网浙江杭州市萧山区供电有限公司","typeName":null,"infoStatusName":null,"dateDay":null,"orgNos":null,"nowTime":null,"countyName":null,"streetName":null,"villageName":null,"roadName":null,"communityName":null,"tranName":null,"sdLineName":null,"cityCode":"3340130","cityName":"国网浙江杭州市萧山区供电有限公司","provinceCode":null,"stopTime":"2018-05-28 16:40:00","powerType":"全部","powerOffArea":"110kV所前变:所一C252线-袄庄陈村2#变开关后段","powerOffReason":"袄庄陈村2#变EQC安装","powerOffId":"2018052031010243"},{"poweroffId":2018052031010242,"sgpoweroffId":null,"subsName":"","lineName":"10kV所一C252线","pubTranName":"杭州市萧山区临浦中心供销合作社,元田工具,所前街镇4#变,东复村7#变,所前街镇1#变,祥里王村2#变,杭州李氏达薄膜有限公司,杭州雪域生物技术有限公司,所前街镇5#变,祥里王村3#变,东复村8#变,浙江省电信有限公司萧山区分公司,","scope":"浙江省-杭州市-萧山区-所前镇(东复行政村-萧山沿自然村,天乐社区-街镇自然村,祥里王行政村-街村信用社、祥里王自然村);浙江省-杭州市-萧山区-所前镇(杭州市萧山区临浦中心供销合作社,杭州雪域生物技术有限公司,杭州元田工具有限公司,中国电信股份有限公司杭州萧山区分公司);","startTime":"2018-05-28 08:30:00","stopDate":"2018-05-28 17:30:00","orgNo":"3340130","typeCode":"计划停电","poweroffArea":"110kV所前变:所一C252线-所一C252线街镇分线开关（自）后段","poweroffReason":"所一分线电缆拆除改接至所二开，电缆回抽，搭接","powerTime":"2018-05-28 13:47:00","powerComm":"全部送电","subsNo":"","lineNo":"","tgNo":"","tgName":null,"infoStatus":"1","orgName":"国网浙江杭州市萧山区供电有限公司","typeName":null,"infoStatusName":null,"dateDay":null,"orgNos":null,"nowTime":null,"countyName":null,"streetName":null,"villageName":null,"roadName":null,"communityName":null,"tranName":null,"sdLineName":null,"cityCode":"3340130","cityName":"国网浙江杭州市萧山区供电有限公司","provinceCode":null,"stopTime":"2018-05-28 17:30:00","powerType":"全部","powerOffArea":"110kV所前变:所一C252线-所一C252线街镇分线开关（自）后段","powerOffReason":"所一分线电缆拆除改接至所二开，电缆回抽，搭接","powerOffId":"2018052031010242"},{"poweroffId":2018052031010152,"sgpoweroffId":null,"subsName":"","lineName":"10kV里畈V580线","pubTranName":"白沙村[大竹地],白沙村[里丁家],白沙村[丁家坞],临安市天目龙水业有限公司,白沙村[水竹坞],","scope":"浙江省杭州市临安区太湖源镇白沙村丁家坞、白沙村大竹地、白沙村水竹坞、白沙村里丁家、临安市天目龙水业有限公司一带","startTime":"2018-06-01 08:00:00","stopDate":"2018-06-01 16:00:00","orgNo":"3340160","typeCode":"计划停电","poweroffArea":"110kV杨岭变:里畈V580线-水竹坞支线开关后段","poweroffReason":"里畈V580线水竹坞支线18#杆白沙村[丁家坞]公变增容至400kVA配变，JP柜和低压进线电缆调换工作。","powerTime":"2018-06-01 15:08:06","powerComm":"已送电","subsNo":"","lineNo":"","tgNo":"","tgName":null,"infoStatus":"1","orgName":"国网浙江临安市供电公司","typeName":null,"infoStatusName":null,"dateDay":null,"orgNos":null,"nowTime":null,"countyName":null,"streetName":null,"villageName":null,"roadName":null,"communityName":null,"tranName":null,"sdLineName":null,"cityCode":"3340160","cityName":"国网浙江临安市供电公司","provinceCode":null,"stopTime":"2018-06-01 16:00:00","powerType":"全部","powerOffArea":"110kV杨岭变:里畈V580线-水竹坞支线开关后段","powerOffReason":"里畈V580线水竹坞支线18#杆白沙村[丁家坞]公变增容至400kVA配变，JP柜和低压进线电缆调换工作。","powerOffId":"2018052031010152"},{"poweroffId":2018052031010151,"sgpoweroffId":null,"subsName":"","lineName":"10kV锦福V215线","pubTranName":"临安市人民法院2#,法院小区公变,","scope":"浙江省杭州市临安区锦城街道临安市人民法院,法院小区一带。","startTime":"2018-06-01 07:50:00","stopDate":"2018-06-01 15:30:00","orgNo":"3340160","typeCode":"计划停电","poweroffArea":"110kV锦城变:广金2156线金福站法院支线开关后段。","poweroffReason":"临安市人民法院高配增容工程原锦福V215线计量柜内CT及计量PT更换","powerTime":"2018-06-01 15:04:22","powerComm":"已送电","subsNo":"","lineNo":"","tgNo":"","tgName":null,"infoStatus":"1","orgName":"国网浙江临安市供电公司","typeName":null,"infoStatusName":null,"dateDay":null,"orgNos":null,"nowTime":null,"countyName":null,"streetName":null,"villageName":null,"roadName":null,"communityName":null,"tranName":null,"sdLineName":null,"cityCode":"3340160","cityName":"国网浙江临安市供电公司","provinceCode":null,"stopTime":"2018-06-01 15:30:00","powerType":"全部","powerOffArea":"110kV锦城变:广金2156线金福站法院支线开关后段。","powerOffReason":"临安市人民法院高配增容工程原锦福V215线计量柜内CT及计量PT更换","powerOffId":"2018052031010151"},{"poweroffId":2018052031010150,"sgpoweroffId":null,"subsName":"","lineName":"10kV昌西V142线","pubTranName":"双石电站,杭州品其全塑料包装有限公司,临安双石水力发电有限公司(厂用电),龙岗上许（二）,杨树电站,杨树村黄泥岗,临安市腾胜摩擦材料有限公司,临安市杨树水力发电有限公司(厂用电),双石村,毛山村,毛山电站(厂用变),毛山电站,杭州上许塑料制品有限公司,","scope":"浙江省-杭州市-临安市-龙岗镇毛山村、双石村、杨树村黄泥岗,上许村，杭州品其全塑料包装有限公司,杭州上许塑料制品有限公司,临安市毛山水力电站,临安市腾胜摩擦材料有限公司,临安市杨树水力发电有限公司,临安双石水力发电有限公司一带。","startTime":"2018-06-01 07:30:00","stopDate":"2018-06-01 18:30:00","orgNo":"3340160","typeCode":"计划停电","poweroffArea":"110kV龙岗变:昌西V142线-双石分线开关后段","poweroffReason":"1、双石分线4#、60#、64#、84#立杆4支；4#-7#架线3挡，35#-黄泥岗配变架线1挡、搭接，44#-50#架线6挡，57#-63#架线6挡，77#-79#架线2挡，83#-85#架线2挡，拔旧杆、拆旧线等工作","powerTime":"2018-06-01 17:40:21","powerComm":"已送电","subsNo":"","lineNo":"","tgNo":"","tgName":null,"infoStatus":"1","orgName":"国网浙江临安市供电公司","typeName":null,"infoStatusName":null,"dateDay":null,"orgNos":null,"nowTime":null,"countyName":null,"streetName":null,"villageName":null,"roadName":null,"communityName":null,"tranName":null,"sdLineName":null,"cityCode":"3340160","cityName":"国网浙江临安市供电公司","provinceCode":null,"stopTime":"2018-06-01 18:30:00","powerType":"全部","powerOffArea":"110kV龙岗变:昌西V142线-双石分线开关后段","powerOffReason":"1、双石分线4#、60#、64#、84#立杆4支；4#-7#架线3挡，35#-黄泥岗配变架线1挡、搭接，44#-50#架线6挡，57#-63#架线6挡，77#-79#架线2挡，83#-85#架线2挡，拔旧杆、拆旧线等工作","powerOffId":"2018052031010150"},{"poweroffId":2018052031010149,"sgpoweroffId":null,"subsName":"","lineName":"10kV笑岭V750线","pubTranName":"陈公井,","scope":"浙江省杭州市临安市青山湖街道陈公井一带","startTime":"2018-06-01 07:20:00","stopDate":"2018-06-01 18:00:00","orgNo":"3340160","typeCode":"计划停电","poweroffArea":"110kV科创变:1、笑岭V750线改线路检修； 2、笑岭V750线广青7502线青城站7502开关改工作侧线路检修","poweroffReason":"科技大道交改涉及及线路改造工程[科创变以东]： (1)笑岭V750线广青7502线[广发站--青城站]原电缆两侧拆头,新建笑岭V750线[K1环网柜],[广发站--K1环网柜--青城站]新电缆敷设.制作.试验和两侧搭头工作。","powerTime":"2018-06-01 17:02:43","powerComm":"已送电","subsNo":"","lineNo":"","tgNo":"","tgName":null,"infoStatus":"1","orgName":"国网浙江临安市供电公司","typeName":null,"infoStatusName":null,"dateDay":null,"orgNos":null,"nowTime":null,"countyName":null,"streetName":null,"villageName":null,"roadName":null,"communityName":null,"tranName":null,"sdLineName":null,"cityCode":"3340160","cityName":"国网浙江临安市供电公司","provinceCode":null,"stopTime":"2018-06-01 18:00:00","powerType":"全部","powerOffArea":"110kV科创变:1、笑岭V750线改线路检修； 2、笑岭V750线广青7502线青城站7502开关改工作侧线路检修","powerOffReason":"科技大道交改涉及及线路改造工程[科创变以东]： (1)笑岭V750线广青7502线[广发站--青城站]原电缆两侧拆头,新建笑岭V750线[K1环网柜],[广发站--K1环网柜--青城站]新电缆敷设.制作.试验和两侧搭头工作。","powerOffId":"2018052031010149"},{"poweroffId":2018052031010148,"sgpoweroffId":null,"subsName":"","lineName":"10kV石临V760线","pubTranName":"临安市城市建设投资集团有限公司1#,锦源花园2#变,临安市供电局路灯管理所专变,临安西子房地产开发有限公司（基建）,浙江锦天房地产开发有限公司,临安市供电局路灯管理所,麒麟山庄,锦源花园1#变,麒麟山庄3#变,麒麟山庄基建变,浙江锦天房地产开发有限公司第一分公司,麒麟山庄4#变,杭州杭临轨道交通有限公司9#,麒麟山庄5#变,锦源花园3#变,","scope":"浙江省杭州市临安市青山湖街道麒麟山庄，锦源花园，锦天房产，临安市供电局路灯管理所，杭州锦湖度假村，浙江锦天房地产开发有限公司（会所），临安市城市建设投资集团有限公司，城际铁路高架段，临安西子房地产开发有限公司","startTime":"2018-06-01 07:20:00","stopDate":"2018-06-01 18:00:00","orgNo":"3340160","typeCode":"计划停电","poweroffArea":"110kV科创变:石临V760线-7601开关，G01柜西玫7603线负荷开关之间","poweroffReason":"(1)笑岭V750线广青7502线[广发站--青城站]原电缆两侧拆头,新建笑岭V750线[K1环网柜],[广发站--K1环网柜--青城站]新电缆敷设.制作.试验和两侧搭头工作。(2)笑岭V750线广青7502线[青城站]G4柜开关--新架线路1#杆新电缆敷设.制作.试验和两侧搭头工作。","powerTime":"2018-06-01 17:03:59","powerComm":"已送电","subsNo":"","lineNo":"","tgNo":"","tgName":null,"infoStatus":"1","orgName":"国网浙江临安市供电公司","typeName":null,"infoStatusName":null,"dateDay":null,"orgNos":null,"nowTime":null,"countyName":null,"streetName":null,"villageName":null,"roadName":null,"communityName":null,"tranName":null,"sdLineName":null,"cityCode":"3340160","cityName":"国网浙江临安市供电公司","provinceCode":null,"stopTime":"2018-06-01 18:00:00","powerType":"全部","powerOffArea":"110kV科创变:石临V760线-7601开关，G01柜西玫7603线负荷开关之间","powerOffReason":"(1)笑岭V750线广青7502线[广发站--青城站]原电缆两侧拆头,新建笑岭V750线[K1环网柜],[广发站--K1环网柜--青城站]新电缆敷设.制作.试验和两侧搭头工作。(2)笑岭V750线广青7502线[青城站]G4柜开关--新架线路1#杆新电缆敷设.制作.试验和两侧搭头工作。","powerOffId":"2018052031010148"},{"poweroffId":2018052031010147,"sgpoweroffId":null,"subsName":"","lineName":"10kV横溪V492线","pubTranName":"新溪村[花桥头]公变,杭州可靠护理用品股份有限公司5,横潭村[戚家桥]公变,青云变所用变,临安市兴达贸易有限公司,临安锦云投资管理有限公司,浙江省临安市物资贸易中心配变,杭州可靠护理用品股份有限公司,新溪小区2#公变,新溪村[牛塘湾7#]公变,杭州可靠护理用品股份有限公司基建变,新溪小区1#公变,新溪村[陈家山脚]公变,新溪临西桥,临安维拓照明有限公司1#,临安百兴禽类加工厂,杭州可靠护理用品股份有限公司,杭州可靠护理用品有限公司,浙江飞越数字科技有限公司,杭州可靠护理用品股份有限公司,杭州可靠护理用品股份有限公司5,","scope":"浙江省杭州市临安区锦城街道杭州可靠护理用品股份有限公司,临安锦云投资管理有限公司,临安市兴达贸易有限公司,临安维拓照明有限公司,浙江省临安市物资贸易中心,临安百兴禽类加工厂,浙江飞越数字科技有限公司,新溪小区,新溪村牛塘湾,新溪临西桥,新溪村花桥头,新溪村陈家山脚,横潭村戚家桥一带。","startTime":"2018-06-01 07:20:00","stopDate":"2018-06-01 14:30:00","orgNo":"3340160","typeCode":"计划停电","poweroffArea":"110kV平山变横溪V492线57#杆4923开关，停横溪V492线78#杆492A开关。","poweroffReason":"临安锦城10千伏竹林公变等台区增容布点工程：1、横溪V492线70 1#杆调杆立杆新布陈家山脚2#变400KVA配变安装.低压割接工作2、横溪V492线59#杆至新上公变架线1档、低压割接等工作","powerTime":"2018-06-01 14:10:27","powerComm":"已送电","subsNo":"","lineNo":"","tgNo":"","tgName":null,"infoStatus":"1","orgName":"国网浙江临安市供电公司","typeName":null,"infoStatusName":null,"dateDay":null,"orgNos":null,"nowTime":null,"countyName":null,"streetName":null,"villageName":null,"roadName":null,"communityName":null,"tranName":null,"sdLineName":null,"cityCode":"3340160","cityName":"国网浙江临安市供电公司","provinceCode":null,"stopTime":"2018-06-01 14:30:00","powerType":"全部","powerOffArea":"110kV平山变横溪V492线57#杆4923开关，停横溪V492线78#杆492A开关。","powerOffReason":"临安锦城10千伏竹林公变等台区增容布点工程：1、横溪V492线70 1#杆调杆立杆新布陈家山脚2#变400KVA配变安装.低压割接工作2、横溪V492线59#杆至新上公变架线1档、低压割接等工作","powerOffId":"2018052031010147"}],"pageModel":{"pageNow":1764,"totalCount":17789,"totalPage":1779,"tableRows":0,"pageCount":10,"beginCount":17630},"isExperi":"1"}