{"message":"","today":"2020-06-16","seleList":[{"poweroffId":2018052031010138,"sgpoweroffId":null,"subsName":"","lineName":"10kV郎碧V594线","pubTranName":"新溪村[后山]公变,","scope":"浙江省杭州市临安区锦城街道新溪村一带","startTime":"2018-05-30 08:00:00","stopDate":"2018-05-30 13:00:00","orgNo":"3340160","typeCode":"计划停电","poweroffArea":"110kV杨岭变:郎碧V594线-新溪村[后山]公变后段","poweroffReason":"郎碧V594线134#杆浙江绿能环保材料有限公司开关安装工作。","powerTime":"2018-05-30 12:26:10","powerComm":"已送电","subsNo":"","lineNo":"","tgNo":"","tgName":null,"infoStatus":"1","orgName":"国网浙江临安市供电公司","typeName":null,"infoStatusName":null,"dateDay":null,"orgNos":null,"nowTime":null,"countyName":null,"streetName":null,"villageName":null,"roadName":null,"communityName":null,"tranName":null,"sdLineName":null,"cityCode":"3340160","cityName":"国网浙江临安市供电公司","provinceCode":null,"stopTime":"2018-05-30 13:00:00","powerType":"全部","powerOffArea":"110kV杨岭变:郎碧V594线-新溪村[后山]公变后段","powerOffReason":"郎碧V594线134#杆浙江绿能环保材料有限公司开关安装工作。","powerOffId":"2018052031010138"},{"poweroffId":2018052031010137,"sgpoweroffId":null,"subsName":"","lineName":"10kV洪村V340线","pubTranName":"银丰岭,窑田畈村,孝村高山大队,","scope":"浙江省杭州市临安市高虹镇孝村高山大队，银丰岭，窑田畈村一带","startTime":"2018-05-30 08:00:00","stopDate":"2018-05-30 17:30:00","orgNo":"3340160","typeCode":"计划停电","poweroffArea":"110kV高虹变:洪村V340线立塔分线高山分支线31#杆令克改工作侧线路检修","poweroffReason":"临安青山10千伏洪村V340线高山支线改造工程：(1)配合洪村V340线高山分支线[G62#--G65#杆]立杆工作。 (2)配合洪村V340线高山分支线[G51#--G68#杆]架线工作。","powerTime":"2018-05-30 15:57:02","powerComm":"已送电","subsNo":"","lineNo":"","tgNo":"","tgName":null,"infoStatus":"1","orgName":"国网浙江临安市供电公司","typeName":null,"infoStatusName":null,"dateDay":null,"orgNos":null,"nowTime":null,"countyName":null,"streetName":null,"villageName":null,"roadName":null,"communityName":null,"tranName":null,"sdLineName":null,"cityCode":"3340160","cityName":"国网浙江临安市供电公司","provinceCode":null,"stopTime":"2018-05-30 17:30:00","powerType":"全部","powerOffArea":"110kV高虹变:洪村V340线立塔分线高山分支线31#杆令克改工作侧线路检修","powerOffReason":"临安青山10千伏洪村V340线高山支线改造工程：(1)配合洪村V340线高山分支线[G62#--G65#杆]立杆工作。 (2)配合洪村V340线高山分支线[G51#--G68#杆]架线工作。","powerOffId":"2018052031010137"},{"poweroffId":2018052031010136,"sgpoweroffId":null,"subsName":"","lineName":"10kV太阳V124线","pubTranName":"10kV方元村[更楼]公变,临安市跃达建筑工程有限公司,10kV铜山村[铜山村]公变,杭州临安金顺管业有限公司,10kV铜山村[下铜山]公变,","scope":"浙江省杭州市临安区於潜镇临安市跃达建筑工程有限公司、下铜山、铜山村、杭州临安金顺管业有限公司、更楼一带","startTime":"2018-05-30 08:00:00","stopDate":"2018-05-30 17:20:00","orgNo":"3340160","typeCode":"计划停电","poweroffArea":"太阳V124线117#杆下铜山分线开关","poweroffReason":"太阳V124线下铜山分线9#、10#杆移位，10KV铜山村(下铜山）公变移位","powerTime":"2018-05-30 17:00:12","powerComm":"已送电","subsNo":"","lineNo":"","tgNo":"","tgName":null,"infoStatus":"1","orgName":"国网浙江临安市供电公司","typeName":null,"infoStatusName":null,"dateDay":null,"orgNos":null,"nowTime":null,"countyName":null,"streetName":null,"villageName":null,"roadName":null,"communityName":null,"tranName":null,"sdLineName":null,"cityCode":"3340160","cityName":"国网浙江临安市供电公司","provinceCode":null,"stopTime":"2018-05-30 17:20:00","powerType":"全部","powerOffArea":"太阳V124线117#杆下铜山分线开关","powerOffReason":"太阳V124线下铜山分线9#、10#杆移位，10KV铜山村(下铜山）公变移位","powerOffId":"2018052031010136"},{"poweroffId":2018052031010128,"sgpoweroffId":null,"subsName":"","lineName":"10kV秋口V542线","pubTranName":"秋口村寺田畈,","scope":"浙江省杭州市临安市板桥镇秋口村寺田畈一带","startTime":"2018-05-30 07:30:00","stopDate":"2018-05-30 17:30:00","orgNo":"3340160","typeCode":"计划停电","poweroffArea":"110kV板桥变:秋口V542线208号杆秋口村寺田畈配变令克改工作侧线路检修","poweroffReason":"寺田畈配变增容工作（02项）：秋口V542线208号杆秋口村寺田畈配变增容，调换副杆1支，变压器、JP柜、进出线电缆等工作","powerTime":"2018-05-30 16:51:32","powerComm":"已送电","subsNo":"","lineNo":"","tgNo":"","tgName":null,"infoStatus":"1","orgName":"国网浙江临安市供电公司","typeName":null,"infoStatusName":null,"dateDay":null,"orgNos":null,"nowTime":null,"countyName":null,"streetName":null,"villageName":null,"roadName":null,"communityName":null,"tranName":null,"sdLineName":null,"cityCode":"3340160","cityName":"国网浙江临安市供电公司","provinceCode":null,"stopTime":"2018-05-30 17:30:00","powerType":"全部","powerOffArea":"110kV板桥变:秋口V542线208号杆秋口村寺田畈配变令克改工作侧线路检修","powerOffReason":"寺田畈配变增容工作（02项）：秋口V542线208号杆秋口村寺田畈配变增容，调换副杆1支，变压器、JP柜、进出线电缆等工作","powerOffId":"2018052031010128"},{"poweroffId":2018052031010126,"sgpoweroffId":null,"subsName":"","lineName":"10kV仁里V312线","pubTranName":"阁川村,山川村后墙门,","scope":"浙江省-杭州市-临安市-岛石镇阁川村、山川村后墙门一带","startTime":"2018-05-30 07:30:00","stopDate":"2018-05-30 17:30:00","orgNo":"3340160","typeCode":"计划停电","poweroffArea":"35kV岛石变:仁里V312线阁川分线，后墙门分线","poweroffReason":"1、阁川分线18#杆立杆1支，3#-18#杆架线15档，拆除旧线，拔除旧杆等工作","powerTime":"2018-05-30 17:20:25","powerComm":"已送电","subsNo":"","lineNo":"","tgNo":"","tgName":null,"infoStatus":"1","orgName":"国网浙江临安市供电公司","typeName":null,"infoStatusName":null,"dateDay":null,"orgNos":null,"nowTime":null,"countyName":null,"streetName":null,"villageName":null,"roadName":null,"communityName":null,"tranName":null,"sdLineName":null,"cityCode":"3340160","cityName":"国网浙江临安市供电公司","provinceCode":null,"stopTime":"2018-05-30 17:30:00","powerType":"全部","powerOffArea":"35kV岛石变:仁里V312线阁川分线，后墙门分线","powerOffReason":"1、阁川分线18#杆立杆1支，3#-18#杆架线15档，拆除旧线，拔除旧杆等工作","powerOffId":"2018052031010126"},{"poweroffId":2018052031010125,"sgpoweroffId":null,"subsName":"","lineName":"10kV郎碧V594线","pubTranName":"临安强华化工有限公司,中国人民解放军浙江省军区后勤部,横街村[显岭脚]公变,临安宏峰芯柱厂,杭州运德电子科技有限公司,临安市黄平沙场,临安市明天建材有限公司,","scope":"浙江省杭州市临安区锦城街道横街村显岭脚、临安宏峰芯柱公司、临安市明天建材有限公司、临安市黄平沙场、临安强华化工有限公司、杭州运德电子科技有限公司一带","startTime":"2018-05-28 06:50:00","stopDate":"2018-05-28 16:00:00","orgNo":"3340160","typeCode":"计划停电","poweroffArea":"110kV杨岭变:郎碧V594线-调度5943开关，调度5944开关之间","poweroffReason":"配合青畈3785线7#—15#塔导地线、光缆拆除工作。","powerTime":"2018-05-28 14:17:27","powerComm":"已送电","subsNo":"","lineNo":"","tgNo":"","tgName":null,"infoStatus":"1","orgName":"国网浙江临安市供电公司","typeName":null,"infoStatusName":null,"dateDay":null,"orgNos":null,"nowTime":null,"countyName":null,"streetName":null,"villageName":null,"roadName":null,"communityName":null,"tranName":null,"sdLineName":null,"cityCode":"3340160","cityName":"国网浙江临安市供电公司","provinceCode":null,"stopTime":"2018-05-28 16:00:00","powerType":"全部","powerOffArea":"110kV杨岭变:郎碧V594线-调度5943开关，调度5944开关之间","powerOffReason":"配合青畈3785线7#—15#塔导地线、光缆拆除工作。","powerOffId":"2018052031010125"},{"poweroffId":2018052031010123,"sgpoweroffId":null,"subsName":"","lineName":"10kV甘坞V151线","pubTranName":"高源村[安里]公变,","scope":"浙江省杭州市临安区玲珑街道高源行政村安里一带","startTime":"2018-05-28 07:30:00","stopDate":"2018-05-28 14:30:00","orgNo":"3340160","typeCode":"计划停电","poweroffArea":"110kV夏禹变:甘坞V151线-高源村[安里]公变后段","poweroffReason":"配合夏禹变新出10KV双回线路[G27#-G35#杆]架设240双回绝缘线工作。","powerTime":"2018-05-28 14:12:27","powerComm":"已送电","subsNo":"","lineNo":"","tgNo":"","tgName":null,"infoStatus":"1","orgName":"国网浙江临安市供电公司","typeName":null,"infoStatusName":null,"dateDay":null,"orgNos":null,"nowTime":null,"countyName":null,"streetName":null,"villageName":null,"roadName":null,"communityName":null,"tranName":null,"sdLineName":null,"cityCode":"3340160","cityName":"国网浙江临安市供电公司","provinceCode":null,"stopTime":"2018-05-28 14:30:00","powerType":"全部","powerOffArea":"110kV夏禹变:甘坞V151线-高源村[安里]公变后段","powerOffReason":"配合夏禹变新出10KV双回线路[G27#-G35#杆]架设240双回绝缘线工作。","powerOffId":"2018052031010123"},{"poweroffId":2018052031010122,"sgpoweroffId":null,"subsName":"","lineName":"10kV市地V620线","pubTranName":"横畈塘楼村,","scope":"浙江省杭州市临安市青山湖街道横畈塘楼村一带","startTime":"2018-05-28 07:50:00","stopDate":"2018-05-28 11:40:00","orgNo":"3340160","typeCode":"计划停电","poweroffArea":"110kV雅观变:停市地V620线平山农场分线8#杆橫畈塘楼村配变低压总闸刀","poweroffReason":"缺陷处理：市地V620线平山农场分线8#杆塘楼配变低压电缆加装绝缘套管工作","powerTime":"2018-05-28 09:55:00","powerComm":"已送电","subsNo":"","lineNo":"","tgNo":"","tgName":null,"infoStatus":"1","orgName":"国网浙江临安市供电公司","typeName":null,"infoStatusName":null,"dateDay":null,"orgNos":null,"nowTime":null,"countyName":null,"streetName":null,"villageName":null,"roadName":null,"communityName":null,"tranName":null,"sdLineName":null,"cityCode":"3340160","cityName":"国网浙江临安市供电公司","provinceCode":null,"stopTime":"2018-05-28 11:40:00","powerType":"全部","powerOffArea":"110kV雅观变:停市地V620线平山农场分线8#杆橫畈塘楼村配变低压总闸刀","powerOffReason":"缺陷处理：市地V620线平山农场分线8#杆塘楼配变低压电缆加装绝缘套管工作","powerOffId":"2018052031010122"},{"poweroffId":2018052031010121,"sgpoweroffId":null,"subsName":"","lineName":"10kV溪里V591线","pubTranName":"众社村[下路畈],","scope":"浙江省杭州市临安区太湖源镇众社村下路畈一带","startTime":"2018-05-28 08:30:00","stopDate":"2018-05-28 15:30:00","orgNo":"3340160","typeCode":"计划停电","poweroffArea":"110kV杨岭变:溪里V591线下路畈分线1#杆令克后段","poweroffReason":"溪里V591线下路畈分线8#杆众社村[下路畈]公变增容至400kVA，调立杆和低压割接工作。","powerTime":"2018-05-28 14:27:44","powerComm":"已送电","subsNo":"","lineNo":"","tgNo":"","tgName":null,"infoStatus":"1","orgName":"国网浙江临安市供电公司","typeName":null,"infoStatusName":null,"dateDay":null,"orgNos":null,"nowTime":null,"countyName":null,"streetName":null,"villageName":null,"roadName":null,"communityName":null,"tranName":null,"sdLineName":null,"cityCode":"3340160","cityName":"国网浙江临安市供电公司","provinceCode":null,"stopTime":"2018-05-28 15:30:00","powerType":"全部","powerOffArea":"110kV杨岭变:溪里V591线下路畈分线1#杆令克后段","powerOffReason":"溪里V591线下路畈分线8#杆众社村[下路畈]公变增容至400kVA，调立杆和低压割接工作。","powerOffId":"2018052031010121"},{"poweroffId":2018052031010120,"sgpoweroffId":null,"subsName":"","lineName":"10kV泉口V614线","pubTranName":"南山公变,","scope":"浙江省杭州市临安市青山湖街道南山村一带","startTime":"2018-05-28 13:00:00","stopDate":"2018-05-28 16:30:00","orgNo":"3340160","typeCode":"计划停电","poweroffArea":"110kV雅观变:泉口V614线上泉口分线南山支线20#杆南山配变令克改工作侧线路检修","poweroffReason":"缺陷处理：泉口V614线上泉口分线南山支线20#杆南山公变低压电缆加装绝缘套管工作","powerTime":"2018-05-28 14:56:54","powerComm":"已送电","subsNo":"","lineNo":"","tgNo":"","tgName":null,"infoStatus":"1","orgName":"国网浙江临安市供电公司","typeName":null,"infoStatusName":null,"dateDay":null,"orgNos":null,"nowTime":null,"countyName":null,"streetName":null,"villageName":null,"roadName":null,"communityName":null,"tranName":null,"sdLineName":null,"cityCode":"3340160","cityName":"国网浙江临安市供电公司","provinceCode":null,"stopTime":"2018-05-28 16:30:00","powerType":"全部","powerOffArea":"110kV雅观变:泉口V614线上泉口分线南山支线20#杆南山配变令克改工作侧线路检修","powerOffReason":"缺陷处理：泉口V614线上泉口分线南山支线20#杆南山公变低压电缆加装绝缘套管工作","powerOffId":"2018052031010120"}],"pageModel":{"pageNow":1765,"totalCount":17789,"totalPage":1779,"tableRows":0,"pageCount":10,"beginCount":17640},"isExperi":"1"}