{"message":"","today":"2020-06-16","seleList":[{"poweroffId":2018052031010118,"sgpoweroffId":null,"subsName":"","lineName":"10kV笑岭V750线","pubTranName":"湖光山社11#变,湖光山社4#,湖光山社10#变,湖光山社12#变,湖光山社1#,湖光山社2#,湖光山社6#,湖光山社8#变,湖光山社5#,湖光山社3#,湖光山社9#变,湖光山社7#变,","scope":"浙江省杭州市临安区锦北街道(潘山行政村-湖光山社小区);","startTime":"2018-05-29 07:20:00","stopDate":"2018-05-29 17:00:00","orgNo":"3340160","typeCode":"计划停电","poweroffArea":"110kV科创变:笑岭V750线-G02柜新广发分线负荷开关后段","poweroffReason":"待用V765线（高新V765线）新建环网柜--科创变内电缆户内头制作，试验和两侧搭头(需进入变电所)；新上6台400KVA基建变（原罗贤站杭临交通分线2台基建变移至此），新上盾构高配5030KVA","powerTime":"2018-05-29 16:49:46","powerComm":"已送电","subsNo":"","lineNo":"","tgNo":"","tgName":null,"infoStatus":"1","orgName":"国网浙江临安市供电公司","typeName":null,"infoStatusName":null,"dateDay":null,"orgNos":null,"nowTime":null,"countyName":null,"streetName":null,"villageName":null,"roadName":null,"communityName":null,"tranName":null,"sdLineName":null,"cityCode":"3340160","cityName":"国网浙江临安市供电公司","provinceCode":null,"stopTime":"2018-05-29 17:00:00","powerType":"全部","powerOffArea":"110kV科创变:笑岭V750线-G02柜新广发分线负荷开关后段","powerOffReason":"待用V765线（高新V765线）新建环网柜--科创变内电缆户内头制作，试验和两侧搭头(需进入变电所)；新上6台400KVA基建变（原罗贤站杭临交通分线2台基建变移至此），新上盾构高配5030KVA","powerOffId":"2018052031010118"},{"poweroffId":2018052031010117,"sgpoweroffId":null,"subsName":"","lineName":"10kV同人V740线","pubTranName":"临安市人民政府锦北街道办事处,潘山村[小罗家头]公变,杭州浙灵生物科技有限公司,潘山村[三组]公变,浙江永达交通工程有限公司,浙江永达交通工程有限公司,杭州易辰房地产开发有限公司,临安春城生态园林有限公司,临安市临天线缆有限公司,临安富裕照明电子电器厂,潘山村[陈家坞老虎口]公变,杭州欧悦实业有限公司,潘山村[四组]公变,潘山村[泮坞里]公变,潘山村[陈家坞百家岭]公变,潘山村[陈家坞百家岭2#]公变,","scope":"浙江省杭州市临安区锦北街道潘山村小罗家头、潘山村四组、潘山村陈家坞老虎口、潘山村泮坞里、潘山村三组、潘山村陈家坞百家岭、潘山村陈家坞百家岭、临安市人民政府锦北街道办事处、浙江永达交通工程有限公司、杭州浙灵生物科技有限公司、临安春城生态园林有限公司营业、临安富裕照明电子电器公司、杭州易辰房地产开发有限公司、临安市临天线缆有限公司、浙江永达交通工程有限公司、杭州欧悦实业有限公司一带","startTime":"2018-05-29 07:20:00","stopDate":"2018-05-29 17:00:00","orgNo":"3340160","typeCode":"计划停电","poweroffArea":"110kV科创变:同人V740线-陈家站G3柜陈家坞分线后段；同人V740线-陈家站G4柜潘山分线后段","poweroffReason":"1、科创变同人V740线、陈坞V763线拆头、试验、搭头（需进入变电所）；2、同人V740线科创变至陈家站间电缆砍断，电缆敷设、制作，新上K2[湖光站]，原陈家站、森科站移位","powerTime":"2018-05-29 16:50:20","powerComm":"已送电","subsNo":"","lineNo":"","tgNo":"","tgName":null,"infoStatus":"1","orgName":"国网浙江临安市供电公司","typeName":null,"infoStatusName":null,"dateDay":null,"orgNos":null,"nowTime":null,"countyName":null,"streetName":null,"villageName":null,"roadName":null,"communityName":null,"tranName":null,"sdLineName":null,"cityCode":"3340160","cityName":"国网浙江临安市供电公司","provinceCode":null,"stopTime":"2018-05-29 17:00:00","powerType":"全部","powerOffArea":"110kV科创变:同人V740线-陈家站G3柜陈家坞分线后段；同人V740线-陈家站G4柜潘山分线后段","powerOffReason":"1、科创变同人V740线、陈坞V763线拆头、试验、搭头（需进入变电所）；2、同人V740线科创变至陈家站间电缆砍断，电缆敷设、制作，新上K2[湖光站]，原陈家站、森科站移位","powerOffId":"2018052031010117"},{"poweroffId":2018052031010116,"sgpoweroffId":null,"subsName":"","lineName":"10kV杨华V731线","pubTranName":"青云村[水口],青云村[沙坞里],青云村[凹桥头],青云村[茹荷],临安市照盛照明电器有限公司计量点,青云村[上水口],","scope":"浙江省杭州市临安区太湖源镇青云村茹荷、青云村水口、青云村上水口、青云村凹桥头、青云村沙坞里、临安市照盛照明电器有限公司一带","startTime":"2018-05-29 07:30:00","stopDate":"2018-05-29 16:30:00","orgNo":"3340160","typeCode":"计划停电","poweroffArea":"110kV杨岭变:杨华V731线-茹荷分线开关后段","poweroffReason":"杨华V731线茹荷分线52#杆新架线路至新53#杆，新59#杆新装令克一组，新增青云村[凹桥头2]400kVA公变一台，及低压割接工作。","powerTime":"2018-05-29 15:12:18","powerComm":"已送电","subsNo":"","lineNo":"","tgNo":"","tgName":null,"infoStatus":"1","orgName":"国网浙江临安市供电公司","typeName":null,"infoStatusName":null,"dateDay":null,"orgNos":null,"nowTime":null,"countyName":null,"streetName":null,"villageName":null,"roadName":null,"communityName":null,"tranName":null,"sdLineName":null,"cityCode":"3340160","cityName":"国网浙江临安市供电公司","provinceCode":null,"stopTime":"2018-05-29 16:30:00","powerType":"全部","powerOffArea":"110kV杨岭变:杨华V731线-茹荷分线开关后段","powerOffReason":"杨华V731线茹荷分线52#杆新架线路至新53#杆，新59#杆新装令克一组，新增青云村[凹桥头2]400kVA公变一台，及低压割接工作。","powerOffId":"2018052031010116"},{"poweroffId":2018052031010115,"sgpoweroffId":null,"subsName":"","lineName":"10kV下城V351线","pubTranName":"上安村,","scope":"浙江省杭州市临安市青山湖街道上安村一带","startTime":"2018-05-29 07:50:00","stopDate":"2018-05-29 11:40:00","orgNo":"3340160","typeCode":"计划停电","poweroffArea":"110kV高虹变:下城V351线上安村分线1#杆上安村配变低压出线总闸刀","poweroffReason":"缺陷处理：下城V351线上安村分线1#杆上安村配变低压电缆加装绝缘套管工作","powerTime":"2018-05-29 11:29:00","powerComm":"已送电","subsNo":"","lineNo":"","tgNo":"","tgName":null,"infoStatus":"1","orgName":"国网浙江临安市供电公司","typeName":null,"infoStatusName":null,"dateDay":null,"orgNos":null,"nowTime":null,"countyName":null,"streetName":null,"villageName":null,"roadName":null,"communityName":null,"tranName":null,"sdLineName":null,"cityCode":"3340160","cityName":"国网浙江临安市供电公司","provinceCode":null,"stopTime":"2018-05-29 11:40:00","powerType":"全部","powerOffArea":"110kV高虹变:下城V351线上安村分线1#杆上安村配变低压出线总闸刀","powerOffReason":"缺陷处理：下城V351线上安村分线1#杆上安村配变低压电缆加装绝缘套管工作","powerOffId":"2018052031010115"},{"poweroffId":2018052031010113,"sgpoweroffId":null,"subsName":"","lineName":"10kV人武V364线","pubTranName":"星港九月1＃变,临安市环境保护局,中国电信股份有限公司临安分公司3#,[钱王文化广场]4#公变,粮机厂公变,钱王文化广场4#台区8#变,临安人民武装部,[钱王文化广场]2#公变,10kv江桥二弄3#公变1,钱王文化广场5#台区10#变,[钱王文化广场]6#公变,米厂公变,人武部公变,临安市食品有限责任公司,10KV文昌阁3#公变,杭州天目山药业股份有限 公司临安天工商贸大厦,钱王文化广场6#台区12#变,水产公司公变,江桥二弄2＃公变,临安市图书馆,","scope":"浙江省杭州市临安区锦城街道杭州临安天工市场管理有限公司,临安人民武装部,临安市环境保护局,临安市食品有限责任公司,临安市图书馆,中国电信股份有限公司临安分公司,钱王文化广场,江桥二弄,文昌阁,星港九月,城中街(广场路至天目路),江桥路(城中街至吕家弄口)一带。","startTime":"2018-05-29 08:00:00","stopDate":"2018-05-29 15:00:00","orgNo":"3340160","typeCode":"计划停电","poweroffArea":"110kV临安变:人武V364线改线路检修.","poweroffReason":"人东站环网柜更换（需进入变电所）","powerTime":"2018-05-29 14:50:16","powerComm":"已送电","subsNo":"","lineNo":"","tgNo":"","tgName":null,"infoStatus":"1","orgName":"国网浙江临安市供电公司","typeName":null,"infoStatusName":null,"dateDay":null,"orgNos":null,"nowTime":null,"countyName":null,"streetName":null,"villageName":null,"roadName":null,"communityName":null,"tranName":null,"sdLineName":null,"cityCode":"3340160","cityName":"国网浙江临安市供电公司","provinceCode":null,"stopTime":"2018-05-29 15:00:00","powerType":"全部","powerOffArea":"110kV临安变:人武V364线改线路检修.","powerOffReason":"人东站环网柜更换（需进入变电所）","powerOffId":"2018052031010113"},{"poweroffId":2018052031010112,"sgpoweroffId":null,"subsName":"","lineName":"10kV陈家V349线","pubTranName":"长山弄配变,","scope":"浙江省杭州市临安市高虹镇长山弄一带","startTime":"2018-05-29 13:20:00","stopDate":"2018-05-29 16:10:00","orgNo":"3340160","typeCode":"计划停电","poweroffArea":"110kV高虹变:陈家V349线长山弄分线2#杆长山弄配变低压出线总闸刀","poweroffReason":"缺陷处理：陈家V349线长山弄分线2#杆长山弄配变低压电缆加装绝缘套管工作","powerTime":"2018-05-29 16:00:13","powerComm":"已送电","subsNo":"","lineNo":"","tgNo":"","tgName":null,"infoStatus":"1","orgName":"国网浙江临安市供电公司","typeName":null,"infoStatusName":null,"dateDay":null,"orgNos":null,"nowTime":null,"countyName":null,"streetName":null,"villageName":null,"roadName":null,"communityName":null,"tranName":null,"sdLineName":null,"cityCode":"3340160","cityName":"国网浙江临安市供电公司","provinceCode":null,"stopTime":"2018-05-29 16:10:00","powerType":"全部","powerOffArea":"110kV高虹变:陈家V349线长山弄分线2#杆长山弄配变低压出线总闸刀","powerOffReason":"缺陷处理：陈家V349线长山弄分线2#杆长山弄配变低压电缆加装绝缘套管工作","powerOffId":"2018052031010112"},{"poweroffId":2018052031010110,"sgpoweroffId":null,"subsName":"","lineName":"10kV甘坞V151线","pubTranName":"高源村[雪子坞]公变,","scope":"浙江省杭州市临安区玲珑街道高源村雪子坞一带","startTime":"2018-05-30 07:00:00","stopDate":"2018-05-30 17:00:00","orgNo":"3340160","typeCode":"计划停电","poweroffArea":"110kV夏禹变:甘坞V151线-高源村[雪子坞]公变后段","poweroffReason":"1、甘坞V151线雪支坞支线8#杆调立18m杆，高源村[雪支坞]公台区低压2000线1#--3#杆调立15m杆工作；2、甘坞V151线雪支坞支线17#杆高源村[雪支坞]公变台区低压1000线1#--9#杆，2000线1#--4#杆拆架低压线工作；3、配合夏禹变新出10kV双回线路[G41#-G53#杆]架设240双回绝缘线工作。","powerTime":"2018-05-30 15:32:30","powerComm":"已送电","subsNo":"","lineNo":"","tgNo":"","tgName":null,"infoStatus":"1","orgName":"国网浙江临安市供电公司","typeName":null,"infoStatusName":null,"dateDay":null,"orgNos":null,"nowTime":null,"countyName":null,"streetName":null,"villageName":null,"roadName":null,"communityName":null,"tranName":null,"sdLineName":null,"cityCode":"3340160","cityName":"国网浙江临安市供电公司","provinceCode":null,"stopTime":"2018-05-30 17:00:00","powerType":"全部","powerOffArea":"110kV夏禹变:甘坞V151线-高源村[雪子坞]公变后段","powerOffReason":"1、甘坞V151线雪支坞支线8#杆调立18m杆，高源村[雪支坞]公台区低压2000线1#--3#杆调立15m杆工作；2、甘坞V151线雪支坞支线17#杆高源村[雪支坞]公变台区低压1000线1#--9#杆，2000线1#--4#杆拆架低压线工作；3、配合夏禹变新出10kV双回线路[G41#-G53#杆]架设240双回绝缘线工作。","powerOffId":"2018052031010110"},{"poweroffId":2018052031010109,"sgpoweroffId":null,"subsName":"","lineName":"10kV甘坞V151线","pubTranName":"高源村[高源]公变,","scope":"浙江省杭州市临安区玲珑街道高源行政村一带","startTime":"2018-05-30 07:00:00","stopDate":"2018-05-30 17:00:00","orgNo":"3340160","typeCode":"计划停电","poweroffArea":"110kV夏禹变:甘坞V151线-高源村[高源]公变后段","poweroffReason":"1、甘坞V151线雪支坞支线8#杆调立18m杆，高源村[雪支坞]公台区低压2000线1#--3#杆调立15m杆工作；2、甘坞V151线雪支坞支线17#杆高源村[雪支坞]公变台区低压1000线1#--9#杆，2000线1#--4#杆拆架低压线工作；3、配合夏禹变新出10kV双回线路[G41#-G53#杆]架设240双回绝缘线工作。","powerTime":"2018-05-30 16:50:32","powerComm":"已送电","subsNo":"","lineNo":"","tgNo":"","tgName":null,"infoStatus":"1","orgName":"国网浙江临安市供电公司","typeName":null,"infoStatusName":null,"dateDay":null,"orgNos":null,"nowTime":null,"countyName":null,"streetName":null,"villageName":null,"roadName":null,"communityName":null,"tranName":null,"sdLineName":null,"cityCode":"3340160","cityName":"国网浙江临安市供电公司","provinceCode":null,"stopTime":"2018-05-30 17:00:00","powerType":"全部","powerOffArea":"110kV夏禹变:甘坞V151线-高源村[高源]公变后段","powerOffReason":"1、甘坞V151线雪支坞支线8#杆调立18m杆，高源村[雪支坞]公台区低压2000线1#--3#杆调立15m杆工作；2、甘坞V151线雪支坞支线17#杆高源村[雪支坞]公变台区低压1000线1#--9#杆，2000线1#--4#杆拆架低压线工作；3、配合夏禹变新出10kV双回线路[G41#-G53#杆]架设240双回绝缘线工作。","powerOffId":"2018052031010109"},{"poweroffId":2018051931010313,"sgpoweroffId":null,"subsName":"","lineName":"10kV圣山965线","pubTranName":"萧东变施工变,前进乐元三垦种,新中纺实业,旺禽羽毛粉公司,新活力农业,农二场（9~10队）,河庄镇文伟村,","scope":"浙江省-杭州市-萧山区(国网浙江省电力公司杭州供电公司,杭州旺禽羽毛粉有限公司,杭州新活力农业开发有限公司,农二场,前进乐元三垦种,萧山区河庄镇文伟村(围垦用电),浙江新中纺实业有限公司);","startTime":"2018-05-28 09:00:00","stopDate":"2018-05-28 14:00:52","orgNo":"3340120","typeCode":"计划停电","poweroffArea":"110kV前进变:圣山965线-圣山965线12开关，圣山965线之间","poweroffReason":"协诚站开关柜更换工程（国通）圣山965线69#杆新装开关一台","powerTime":"2018-05-28 14:34:30","powerComm":"已送电","subsNo":"","lineNo":"","tgNo":"","tgName":null,"infoStatus":"1","orgName":"国网浙江杭州市钱塘新区供电公司","typeName":null,"infoStatusName":null,"dateDay":null,"orgNos":null,"nowTime":null,"countyName":null,"streetName":null,"villageName":null,"roadName":null,"communityName":null,"tranName":null,"sdLineName":null,"cityCode":"3340120","cityName":"国网浙江杭州市钱塘新区供电公司","provinceCode":null,"stopTime":"2018-05-28 14:00:52","powerType":"全部","powerOffArea":"110kV前进变:圣山965线-圣山965线12开关，圣山965线之间","powerOffReason":"协诚站开关柜更换工程（国通）圣山965线69#杆新装开关一台","powerOffId":"2018051931010313"},{"poweroffId":2018051931010312,"sgpoweroffId":null,"subsName":"","lineName":"10kV农场068线","pubTranName":"北江污水处理站1#,传化物流,杭州市萧山区人民政府临江街道办事处,传化物流2#,01,第一农垦场（十五）,秋琴农业,舟山警备,农一场,通汇气体,舟山警备,临江投资1#,农一场（十二）,瓜沥镇低田畈村（一）,农一场,英冠酒店1#,1,农一场,真益化工,第一农垦场（四）,农一场,益农北江村,第一农垦场（六）,舟山警备,农一场（十六）,英冠酒店3#,临江投资2#,传化物流3#,农一场,第一农垦场（七）,农一场（十五）,第一农垦场（五）,临江投资,农一场,农一场,第一农垦场（二）,英冠酒店2#,排涝站,农一场（十三）,农一场（二十一）,农一场,北江污水处理站2#,农一场,","scope":"浙江省-杭州市-萧山区(杭州临普供应链管理有限公司,杭州市萧山区第一农垦场【15队】,杭州市萧山区人民政府临江街道办事处,杭州唐杨科技有限公司,杭州萧山秋琴农业发展有限公司,杭州英冠酒店有限公司,杭州真益化工有限公司,农一场,萧山区第一农垦场,萧山区瓜沥镇低田畈村（围垦十三工段）,萧山区农一场水电管理站,益农北江村,浙江传化公路港物流发展有限公司,中国人民解放军浙江省舟山警备区农副业基地);","startTime":"2018-05-29 09:35:00","stopDate":"2018-05-29 19:00:00","orgNo":"3340120","typeCode":"计划停电","poweroffArea":"110kV长征变:农场068线-农一场线39#开关，农场068线雷达支线01#开关之间","poweroffReason":"农场068线线路改造二期工程（丰安）农场068线线路改造","powerTime":"2018-05-29 16:01:56","powerComm":"已送电","subsNo":"","lineNo":"","tgNo":"","tgName":null,"infoStatus":"1","orgName":"国网浙江杭州市钱塘新区供电公司","typeName":null,"infoStatusName":null,"dateDay":null,"orgNos":null,"nowTime":null,"countyName":null,"streetName":null,"villageName":null,"roadName":null,"communityName":null,"tranName":null,"sdLineName":null,"cityCode":"3340120","cityName":"国网浙江杭州市钱塘新区供电公司","provinceCode":null,"stopTime":"2018-05-29 19:00:00","powerType":"全部","powerOffArea":"110kV长征变:农场068线-农一场线39#开关，农场068线雷达支线01#开关之间","powerOffReason":"农场068线线路改造二期工程（丰安）农场068线线路改造","powerOffId":"2018051931010312"}],"pageModel":{"pageNow":1766,"totalCount":17789,"totalPage":1779,"tableRows":0,"pageCount":10,"beginCount":17650},"isExperi":"1"}