{"message":"","today":"2020-06-16","seleList":[{"poweroffId":2018051831010521,"sgpoweroffId":null,"subsName":"","lineName":"10kV西庄G238线","pubTranName":"西河村庄斗公变,西河村西南华公变,西河村西庄公变,","scope":"浙江省杭州市余杭区塘栖镇：西河村庄斗、西河村庄斗、西河村西南华一带","startTime":"2018-05-29 08:20:00","stopDate":"2018-05-29 17:30:00","orgNo":"3340140","typeCode":"计划停电","poweroffArea":"110kV宏畔变:西庄G238线西庄分线","poweroffReason":"杭州余杭塘栖地区2018年配变台区改造工程：新布西庄2号400KVA配变、计量箱各一台；新立15米电杆2基，新出低压出线电缆2根工作；","powerTime":"2018-05-29 17:19:44","powerComm":"已送电","subsNo":"","lineNo":"","tgNo":"","tgName":null,"infoStatus":"1","orgName":"国网浙江杭州市余杭区供电有限公司","typeName":null,"infoStatusName":null,"dateDay":null,"orgNos":null,"nowTime":null,"countyName":null,"streetName":null,"villageName":null,"roadName":null,"communityName":null,"tranName":null,"sdLineName":null,"cityCode":"3340140","cityName":"国网浙江杭州市余杭区供电有限公司","provinceCode":null,"stopTime":"2018-05-29 17:30:00","powerType":"全部","powerOffArea":"110kV宏畔变:西庄G238线西庄分线","powerOffReason":"杭州余杭塘栖地区2018年配变台区改造工程：新布西庄2号400KVA配变、计量箱各一台；新立15米电杆2基，新出低压出线电缆2根工作；","powerOffId":"2018051831010521"},{"poweroffId":2018051831010518,"sgpoweroffId":null,"subsName":"","lineName":"10kV独山G137线","pubTranName":"崇贤四维农居点1-1号公变,崇贤四维农居点3-1号公变,崇贤四维农居点3-2号公变,龙旋村山前西二公变,龙旋村山前农居点1-2#公变,崇贤四维农居点南区8-1号公变,崇贤四维农居点南区5-2号公变,崇贤四维农居点南区6-1号公变,崇贤四维农居点南区6-2号公变,龙旋村山前农居点1-1#公变,崇贤四维农居点1-2号公变,崇贤四维农居点2-1号公变,崇贤四维农居点2-2号公变,崇贤四维农居点南区7-1号公变,崇贤四维农居点4-1号公变,崇贤四维农居点南区5-1号公变,龙旋村山前西变,五星包装,天地塑胶,崇贤四维农居点4-2号公变,崇贤四维农居点南区7-2号公变,远顺贸易,森特纺织,崇维农居点8B-2#公变,","scope":"浙江省杭州市余杭区崇贤街道：龙旋村山前西、龙旋村山前农居点、 崇贤四维农居点、崇贤四维农居点南区、杭州天地铝塑制品有限公司、杭州众恒纺织品有限公司、杭州众誉纺织品有限公司、杭州远顺贸易有限公司一带","startTime":"2018-05-29 08:20:00","stopDate":"2018-05-29 17:00:00","orgNo":"3340140","typeCode":"计划停电","poweroffArea":"35kV沾桥变:独山G137线独山G1373开关-独山G1370开关","poweroffReason":"独山G137线36#杆-37#杆开耐张、做拉线及36#杆新装真空开关1台、电缆上杆搭接工作；","powerTime":"2018-05-29 15:37:38","powerComm":"已送电","subsNo":"","lineNo":"","tgNo":"","tgName":null,"infoStatus":"1","orgName":"国网浙江杭州市余杭区供电有限公司","typeName":null,"infoStatusName":null,"dateDay":null,"orgNos":null,"nowTime":null,"countyName":null,"streetName":null,"villageName":null,"roadName":null,"communityName":null,"tranName":null,"sdLineName":null,"cityCode":"3340140","cityName":"国网浙江杭州市余杭区供电有限公司","provinceCode":null,"stopTime":"2018-05-29 17:00:00","powerType":"全部","powerOffArea":"35kV沾桥变:独山G137线独山G1373开关-独山G1370开关","powerOffReason":"独山G137线36#杆-37#杆开耐张、做拉线及36#杆新装真空开关1台、电缆上杆搭接工作；","powerOffId":"2018051831010518"},{"poweroffId":2018051831010512,"sgpoweroffId":null,"subsName":"","lineName":"10kV新万G195线","pubTranName":"万常2组2#变,万常2组2#变,万常1组3#变,万常11组（十三堡）公变,吴家村过渡房,万常11组3#公变,万常1组（新万村）2#公变,万常1组（新万村）1#公变,","scope":"浙江省杭州市余杭区南苑街道：万常村11组、吴家村过渡房、万常村1组、万常村2组一带","startTime":"2018-05-29 08:40:00","stopDate":"2018-05-29 17:00:00","orgNo":"3340140","typeCode":"计划停电","poweroffArea":"110kV外乔变:新万G195线-航五1951线后段","poweroffReason":"1.东航开关站II段航五1951线-新万G195线19511开关 2.配网工程 3.立杆、放线、装三摇开关、线路搭接三遥开关调换：万常11组分线、万常1组2#分线、万常1组1#分线","powerTime":"2018-05-29 16:50:50","powerComm":"施工结束","subsNo":"","lineNo":"","tgNo":"","tgName":null,"infoStatus":"1","orgName":"国网浙江杭州市余杭区供电有限公司","typeName":null,"infoStatusName":null,"dateDay":null,"orgNos":null,"nowTime":null,"countyName":null,"streetName":null,"villageName":null,"roadName":null,"communityName":null,"tranName":null,"sdLineName":null,"cityCode":"3340140","cityName":"国网浙江杭州市余杭区供电有限公司","provinceCode":null,"stopTime":"2018-05-29 17:00:00","powerType":"全部","powerOffArea":"110kV外乔变:新万G195线-航五1951线后段","powerOffReason":"1.东航开关站II段航五1951线-新万G195线19511开关 2.配网工程 3.立杆、放线、装三摇开关、线路搭接三遥开关调换：万常11组分线、万常1组2#分线、万常1组1#分线","powerOffId":"2018051831010512"},{"poweroffId":2018051831010511,"sgpoweroffId":null,"subsName":"","lineName":"10kV万兆G271线","pubTranName":"希隆文体,杭州瑞温实业有限公司612067816301#专变,云会村施家斗公变,","scope":"浙江省杭州市余杭区仁和街道：云会村施家斗、杭州瑞温实业有限公司、杭州希隆纺织文体用品有限公司一带","startTime":"2018-05-30 08:20:00","stopDate":"2018-05-30 17:00:00","orgNo":"3340140","typeCode":"计划停电","poweroffArea":"110kV仁镇变:万兆G271线希隆文体分线","poweroffReason":"杭州余杭仁和地区2018年花园村等配变台区改造工程:新布施家斗2号400KVA配变、计量箱各一台；新立15米电杆3基、10米电杆1基，新放导线4档，新出低压出线电缆2根及低压线路割接工作；","powerTime":"2018-05-30 14:52:20","powerComm":"已送电","subsNo":"","lineNo":"","tgNo":"","tgName":null,"infoStatus":"1","orgName":"国网浙江杭州市余杭区供电有限公司","typeName":null,"infoStatusName":null,"dateDay":null,"orgNos":null,"nowTime":null,"countyName":null,"streetName":null,"villageName":null,"roadName":null,"communityName":null,"tranName":null,"sdLineName":null,"cityCode":"3340140","cityName":"国网浙江杭州市余杭区供电有限公司","provinceCode":null,"stopTime":"2018-05-30 17:00:00","powerType":"全部","powerOffArea":"110kV仁镇变:万兆G271线希隆文体分线","powerOffReason":"杭州余杭仁和地区2018年花园村等配变台区改造工程:新布施家斗2号400KVA配变、计量箱各一台；新立15米电杆3基、10米电杆1基，新放导线4档，新出低压出线电缆2根及低压线路割接工作；","powerOffId":"2018051831010511"},{"poweroffId":2018051831010507,"sgpoweroffId":null,"subsName":"","lineName":"10kV农业G385线","pubTranName":"新桥村抖外公变,","scope":"浙江省杭州市余杭区仁和街道：新桥村抖外一带","startTime":"2018-05-30 08:20:00","stopDate":"2018-05-30 19:00:00","orgNo":"3340140","typeCode":"计划停电","poweroffArea":"110kV东塘变:农业G385线抖外分线","poweroffReason":"抖外分线割接，带电作业配合拆除抖里分线，抖里公变分线1#杆令克开关调换真空开关1台、开耐张、调换15米电杆1基；","powerTime":"2018-05-30 16:04:46","powerComm":"已送电","subsNo":"","lineNo":"","tgNo":"","tgName":null,"infoStatus":"1","orgName":"国网浙江杭州市余杭区供电有限公司","typeName":null,"infoStatusName":null,"dateDay":null,"orgNos":null,"nowTime":null,"countyName":null,"streetName":null,"villageName":null,"roadName":null,"communityName":null,"tranName":null,"sdLineName":null,"cityCode":"3340140","cityName":"国网浙江杭州市余杭区供电有限公司","provinceCode":null,"stopTime":"2018-05-30 19:00:00","powerType":"全部","powerOffArea":"110kV东塘变:农业G385线抖外分线","powerOffReason":"抖外分线割接，带电作业配合拆除抖里分线，抖里公变分线1#杆令克开关调换真空开关1台、开耐张、调换15米电杆1基；","powerOffId":"2018051831010507"},{"poweroffId":2018051831010504,"sgpoweroffId":null,"subsName":"","lineName":"10kV农业G385线","pubTranName":"瑞达交通工程有限公司1变压器,杭州和睦储运有限公司2,杭州和睦储运有限公司1,新桥村抖里公变,","scope":"浙江省杭州市余杭区仁和街道：新桥村抖里、杭州市仁和粮食储备有限公司、杭州余杭瑞达交通工程有限公司一带","startTime":"2018-05-30 08:20:00","stopDate":"2018-05-30 19:00:00","orgNo":"3340140","typeCode":"计划停电","poweroffArea":"110kV东塘变:农业G385线抖里分线","poweroffReason":"抖里分线割接，带电作业配合拆除抖里分线，抖里公变分线1#杆令克开关调换真空开关1台、开耐张、调换15米电杆1基；","powerTime":"2018-05-30 18:26:01","powerComm":"已送电","subsNo":"","lineNo":"","tgNo":"","tgName":null,"infoStatus":"1","orgName":"国网浙江杭州市余杭区供电有限公司","typeName":null,"infoStatusName":null,"dateDay":null,"orgNos":null,"nowTime":null,"countyName":null,"streetName":null,"villageName":null,"roadName":null,"communityName":null,"tranName":null,"sdLineName":null,"cityCode":"3340140","cityName":"国网浙江杭州市余杭区供电有限公司","provinceCode":null,"stopTime":"2018-05-30 19:00:00","powerType":"全部","powerOffArea":"110kV东塘变:农业G385线抖里分线","powerOffReason":"抖里分线割接，带电作业配合拆除抖里分线，抖里公变分线1#杆令克开关调换真空开关1台、开耐张、调换15米电杆1基；","powerOffId":"2018051831010504"},{"poweroffId":2018051831010501,"sgpoweroffId":null,"subsName":"","lineName":"10kV斜桥G832线","pubTranName":"大安村工业,","scope":"浙江省杭州市余杭区崇贤街道：大安村工业一带","startTime":"2018-05-30 08:20:00","stopDate":"2018-05-30 17:00:00","orgNo":"3340140","typeCode":"计划停电","poweroffArea":"110kV北庄变:斜桥G832线大安村工业分线","poweroffReason":"杭州余杭崇贤2018年龙旋等村配变台区改造工程:新布吴家浜东2号400KVA配变、计量箱各一台；新立12米电杆2基，新出低压出线电缆及低压线路割接工作；","powerTime":"2018-05-30 16:03:37","powerComm":"已送电","subsNo":"","lineNo":"","tgNo":"","tgName":null,"infoStatus":"1","orgName":"国网浙江杭州市余杭区供电有限公司","typeName":null,"infoStatusName":null,"dateDay":null,"orgNos":null,"nowTime":null,"countyName":null,"streetName":null,"villageName":null,"roadName":null,"communityName":null,"tranName":null,"sdLineName":null,"cityCode":"3340140","cityName":"国网浙江杭州市余杭区供电有限公司","provinceCode":null,"stopTime":"2018-05-30 17:00:00","powerType":"全部","powerOffArea":"110kV北庄变:斜桥G832线大安村工业分线","powerOffReason":"杭州余杭崇贤2018年龙旋等村配变台区改造工程:新布吴家浜东2号400KVA配变、计量箱各一台；新立12米电杆2基，新出低压出线电缆及低压线路割接工作；","powerOffId":"2018051831010501"},{"poweroffId":2018051831010487,"sgpoweroffId":null,"subsName":"","lineName":"10kV万泉D738线","pubTranName":"松溪村松溪1#新街公变,","scope":"浙江省杭州市富阳区新登镇松溪村松溪新街一带","startTime":"2018-05-29 08:20:00","stopDate":"2018-05-29 18:30:00","orgNo":"3340170","typeCode":"计划停电","poweroffArea":"110kV松溪变:万泉D738线-松溪村松溪1#新街公变后段","poweroffReason":"杭州富阳新登地区10千伏绝缘化改造工程、杭州富阳彭家D342线等10千伏配变增容布点工程：1、原松溪村分线0#-3#调杆及调导线；2松溪村新街布点，原配变移位等工作","powerTime":"2018-05-29 18:20:21","powerComm":"工作已结束","subsNo":"","lineNo":"","tgNo":"","tgName":null,"infoStatus":"1","orgName":"国网浙江杭州市富阳区供电公司","typeName":null,"infoStatusName":null,"dateDay":null,"orgNos":null,"nowTime":null,"countyName":null,"streetName":null,"villageName":null,"roadName":null,"communityName":null,"tranName":null,"sdLineName":null,"cityCode":"3340170","cityName":"国网浙江杭州市富阳区供电公司","provinceCode":null,"stopTime":"2018-05-29 18:30:00","powerType":"全部","powerOffArea":"110kV松溪变:万泉D738线-松溪村松溪1#新街公变后段","powerOffReason":"杭州富阳新登地区10千伏绝缘化改造工程、杭州富阳彭家D342线等10千伏配变增容布点工程：1、原松溪村分线0#-3#调杆及调导线；2松溪村新街布点，原配变移位等工作","powerOffId":"2018051831010487"},{"poweroffId":2018051831010486,"sgpoweroffId":null,"subsName":"","lineName":"10kV乘庄D702线","pubTranName":"杭州富阳龙腾鞋业有限公司,富阳市新登城镇建设投资集团有限公司,欣佳利化工厂,富阳市新登城镇建设投资集团有限公司,","scope":"浙江省杭州市富阳区新登镇松溪村松溪新街一带","startTime":"2018-05-29 08:20:00","stopDate":"2018-05-29 16:30:00","orgNo":"3340170","typeCode":"计划停电","poweroffArea":"110kV松溪变:乘庄D702线-乘庄D7022开关后段","poweroffReason":"杭州富阳新登地区10千伏绝缘化改造工程、杭州富阳彭家D342线等10千伏配变增容布点工程：1、原松溪村分线0#-3#调杆及调导线；2松溪村新街布点，原配变移位等工作","powerTime":"2018-05-29 16:29:04","powerComm":"工作结束已送电","subsNo":"","lineNo":"","tgNo":"","tgName":null,"infoStatus":"1","orgName":"国网浙江杭州市富阳区供电公司","typeName":null,"infoStatusName":null,"dateDay":null,"orgNos":null,"nowTime":null,"countyName":null,"streetName":null,"villageName":null,"roadName":null,"communityName":null,"tranName":null,"sdLineName":null,"cityCode":"3340170","cityName":"国网浙江杭州市富阳区供电公司","provinceCode":null,"stopTime":"2018-05-29 16:30:00","powerType":"全部","powerOffArea":"110kV松溪变:乘庄D702线-乘庄D7022开关后段","powerOffReason":"杭州富阳新登地区10千伏绝缘化改造工程、杭州富阳彭家D342线等10千伏配变增容布点工程：1、原松溪村分线0#-3#调杆及调导线；2松溪村新街布点，原配变移位等工作","powerOffId":"2018051831010486"},{"poweroffId":2018051831010485,"sgpoweroffId":null,"subsName":"","lineName":"10kV万泉D738线","pubTranName":"富阳市昌隆塑料有限公司,蓝德环保科技集团有限责任公司,富阳市环境卫生管理处,","scope":"浙江省杭州市富阳区新登镇环境卫生管理处一带","startTime":"2018-05-28 12:00:00","stopDate":"2018-05-28 17:30:00","orgNo":"3340170","typeCode":"计划停电","poweroffArea":"110kV松溪变:万泉D738线-万泉二十号开关站4#负荷开关后段","poweroffReason":"国网浙江杭州市富阳区供电公司10kV青何D731线唐昌分线等配电线路及设备大修：垃圾处理厂分线1#-3#杆导线调换，昌隆塑料支线导线调换1档等工作","powerTime":"2018-05-28 15:57:41","powerComm":"工作结束已送电","subsNo":"","lineNo":"","tgNo":"","tgName":null,"infoStatus":"1","orgName":"国网浙江杭州市富阳区供电公司","typeName":null,"infoStatusName":null,"dateDay":null,"orgNos":null,"nowTime":null,"countyName":null,"streetName":null,"villageName":null,"roadName":null,"communityName":null,"tranName":null,"sdLineName":null,"cityCode":"3340170","cityName":"国网浙江杭州市富阳区供电公司","provinceCode":null,"stopTime":"2018-05-28 17:30:00","powerType":"全部","powerOffArea":"110kV松溪变:万泉D738线-万泉二十号开关站4#负荷开关后段","powerOffReason":"国网浙江杭州市富阳区供电公司10kV青何D731线唐昌分线等配电线路及设备大修：垃圾处理厂分线1#-3#杆导线调换，昌隆塑料支线导线调换1档等工作","powerOffId":"2018051831010485"}],"pageModel":{"pageNow":1770,"totalCount":17789,"totalPage":1779,"tableRows":0,"pageCount":10,"beginCount":17690},"isExperi":"1"}