{"message":"","today":"2020-06-16","seleList":[{"poweroffId":2018051531010139,"sgpoweroffId":null,"subsName":"","lineName":"10kV清泉D283线","pubTranName":"官山村官山2号上楼家公变,官山村清泉1#平家山公变,富阳华润燃气有限公司,官山村官山1#袁家岭公变,杭州百维艾特有限公司1#变,周美实业1#变,官山村清泉2号施家公变,官山村唐家1#李家桥公变,官山村唐家3#西坞坎公变,官山村唐家2#上畈公变,","scope":"浙江省杭州市富阳区新登镇官山村一带","startTime":"2018-05-27 08:00:00","stopDate":"2018-05-27 17:00:00","orgNo":"3340170","typeCode":"计划停电","poweroffArea":"110kV清泉变:清泉D283线","poweroffReason":"杭州富阳新登地区10千伏清泉变03线新建工程：唐家分线1#杆-9#杆导线调换；唐家支线1#杆-7#杆导线调换，15#杆-35#杆导线调换，34#杆真空开关安装等工作","powerTime":"2018-05-27 16:43:26","powerComm":"已送电","subsNo":"","lineNo":"","tgNo":"","tgName":null,"infoStatus":"1","orgName":"国网浙江杭州市富阳区供电公司","typeName":null,"infoStatusName":null,"dateDay":null,"orgNos":null,"nowTime":null,"countyName":null,"streetName":null,"villageName":null,"roadName":null,"communityName":null,"tranName":null,"sdLineName":null,"cityCode":"3340170","cityName":"国网浙江杭州市富阳区供电公司","provinceCode":null,"stopTime":"2018-05-27 17:00:00","powerType":"全部","powerOffArea":"110kV清泉变:清泉D283线","powerOffReason":"杭州富阳新登地区10千伏清泉变03线新建工程：唐家分线1#杆-9#杆导线调换；唐家支线1#杆-7#杆导线调换，15#杆-35#杆导线调换，34#杆真空开关安装等工作","powerOffId":"2018051531010139"},{"poweroffId":2018051531010138,"sgpoweroffId":null,"subsName":"","lineName":"10kV官山D536线","pubTranName":"浙江杭园特种橡胶有限公司2#,浙江杭园特种橡胶有限公司1#,浙江杭园特种橡胶有限公司3#,","scope":"浙江省杭州市富阳区新登镇官山村一带","startTime":"2018-05-27 08:00:00","stopDate":"2018-05-27 17:00:00","orgNo":"3340170","typeCode":"计划停电","poweroffArea":"110kV清泉变:官山D536线","poweroffReason":"杭州富阳新登地区10千伏清泉变03线新建工程：唐家分线1#杆-9#杆导线调换；唐家支线1#杆-7#杆导线调换，15#杆-35#杆导线调换，34#杆真空开关安装等工作","powerTime":"2018-05-27 16:45:22","powerComm":"已送电","subsNo":"","lineNo":"","tgNo":"","tgName":null,"infoStatus":"1","orgName":"国网浙江杭州市富阳区供电公司","typeName":null,"infoStatusName":null,"dateDay":null,"orgNos":null,"nowTime":null,"countyName":null,"streetName":null,"villageName":null,"roadName":null,"communityName":null,"tranName":null,"sdLineName":null,"cityCode":"3340170","cityName":"国网浙江杭州市富阳区供电公司","provinceCode":null,"stopTime":"2018-05-27 17:00:00","powerType":"全部","powerOffArea":"110kV清泉变:官山D536线","powerOffReason":"杭州富阳新登地区10千伏清泉变03线新建工程：唐家分线1#杆-9#杆导线调换；唐家支线1#杆-7#杆导线调换，15#杆-35#杆导线调换，34#杆真空开关安装等工作","powerOffId":"2018051531010138"},{"poweroffId":2018051531010137,"sgpoweroffId":null,"subsName":"","lineName":"10kV浦东D198线","pubTranName":"望仙村2#村口公变,","scope":"浙江省-杭州市富阳区大源镇大源村望仙村口一带","startTime":"2018-05-26 08:00:00","stopDate":"2018-05-26 17:00:00","orgNo":"3340170","typeCode":"计划停电","poweroffArea":"110kV大源变:浦东D198线-望仙村2#村口公变3号线开关后段","poweroffReason":"江南2018年大源村永庆1#新区西公变等台区低压线路改造工程更换落户线表箱25处、接户线搭接等工作","powerTime":"2018-05-26 16:23:09","powerComm":"已送电","subsNo":"","lineNo":"","tgNo":"","tgName":null,"infoStatus":"1","orgName":"国网浙江杭州市富阳区供电公司","typeName":null,"infoStatusName":null,"dateDay":null,"orgNos":null,"nowTime":null,"countyName":null,"streetName":null,"villageName":null,"roadName":null,"communityName":null,"tranName":null,"sdLineName":null,"cityCode":"3340170","cityName":"国网浙江杭州市富阳区供电公司","provinceCode":null,"stopTime":"2018-05-26 17:00:00","powerType":"全部","powerOffArea":"110kV大源变:浦东D198线-望仙村2#村口公变3号线开关后段","powerOffReason":"江南2018年大源村永庆1#新区西公变等台区低压线路改造工程更换落户线表箱25处、接户线搭接等工作","powerOffId":"2018051531010137"},{"poweroffId":2018051531010133,"sgpoweroffId":null,"subsName":"","lineName":"10kV张家D421线","pubTranName":"学校沙1#东公变,学校沙2#西公变,学校沙3#加工场公变,杭州杭千高速公路发展有限公司,学校沙5号新区1公变,","scope":"浙江省杭州市富阳区东洲街道学校沙村一带","startTime":"2018-05-26 08:00:00","stopDate":"2018-05-26 16:30:00","orgNo":"3340170","typeCode":"计划停电","poweroffArea":"110kV东洲变:张家D421线-学校沙一分线断路器后段","poweroffReason":"青云2018年东洲地区10千伏木桥D422线红旗7#等公变增容布点工程：学校沙一分线新上学校沙9#、10#、11#公变，立杆、架线、配变安装及0.4kV线路改接等工作。","powerTime":"2018-05-26 16:20:29","powerComm":"已送电","subsNo":"","lineNo":"","tgNo":"","tgName":null,"infoStatus":"1","orgName":"国网浙江杭州市富阳区供电公司","typeName":null,"infoStatusName":null,"dateDay":null,"orgNos":null,"nowTime":null,"countyName":null,"streetName":null,"villageName":null,"roadName":null,"communityName":null,"tranName":null,"sdLineName":null,"cityCode":"3340170","cityName":"国网浙江杭州市富阳区供电公司","provinceCode":null,"stopTime":"2018-05-26 16:30:00","powerType":"全部","powerOffArea":"110kV东洲变:张家D421线-学校沙一分线断路器后段","powerOffReason":"青云2018年东洲地区10千伏木桥D422线红旗7#等公变增容布点工程：学校沙一分线新上学校沙9#、10#、11#公变，立杆、架线、配变安装及0.4kV线路改接等工作。","powerOffId":"2018051531010133"},{"poweroffId":2018051431010363,"sgpoweroffId":null,"subsName":"","lineName":"10kV惠五A110线","pubTranName":"保利霞飞郡1#公变,保利霞飞郡2#公变,保利霞飞郡3#公变,保利霞飞郡7#公变,高胜置业2变配电变压器,顺发恒园11#公变,顺发恒园1#公变,保利霞飞郡5#公变,高胜置业1变配电变压器,顺发恒园3#公变,保利霞飞郡6#公变,保利霞飞郡4#公变,顺发恒园7#公变,顺发恒园5#公变,","scope":"浙江省-杭州市-萧山区-市北社区(保利霞飞郡小区),北干街道(市北社区-建设二路);浙江省-杭州市-萧山区-北干街道(绿城物业服务集团有限公司萧山分公司);浙江省杭州市萧山区北干街道顺发恒园、保利霞飞郡、杭州萧山经济技术开发区国有资产经营有限公司、浙江保利物业管理有限公司、杭州高胜置业有限公司、莱茵传奇园及其周边一带","startTime":"2018-05-28 08:30:00","stopDate":"2018-05-28 17:30:00","orgNo":"3340130","typeCode":"计划停电","poweroffArea":"110KV惠兴变：惠五A110线-惠恒A1101线后段","poweroffReason":"恒园Ⅰ开G18至山惠开G11电缆开断，山惠开G11至新建北扩开G25电缆敷设试验搭接，恒园Ⅰ开整体更换","powerTime":"2018-05-28 16:02:36","powerComm":"已送电","subsNo":"","lineNo":"","tgNo":"","tgName":null,"infoStatus":"1","orgName":"国网浙江杭州市萧山区供电有限公司","typeName":null,"infoStatusName":null,"dateDay":null,"orgNos":null,"nowTime":null,"countyName":null,"streetName":null,"villageName":null,"roadName":null,"communityName":null,"tranName":null,"sdLineName":null,"cityCode":"3340130","cityName":"国网浙江杭州市萧山区供电有限公司","provinceCode":null,"stopTime":"2018-05-28 17:30:00","powerType":"全部","powerOffArea":"110KV惠兴变：惠五A110线-惠恒A1101线后段","powerOffReason":"恒园Ⅰ开G18至山惠开G11电缆开断，山惠开G11至新建北扩开G25电缆敷设试验搭接，恒园Ⅰ开整体更换","powerOffId":"2018051431010363"},{"poweroffId":2018051431010338,"sgpoweroffId":null,"subsName":"","lineName":"10kV白洋Y221线","pubTranName":"金色蓝庭1#公变,金色蓝庭2#公变,华庭5#公变,华庭3#203003公变,华庭203002公变（1#）,杭州市港航管理局,","scope":"浙江省-杭州市-建德市-新安江街道 秀水华庭小区1、2、7、8、11、13、15、15-1、17幢及楼下商铺、饭店、足浴、金色蓝庭小区1、2幢及物业、楼下沿街商铺及周边一带用户。","startTime":"2018-06-03 12:30:00","stopDate":"2018-06-03 17:15:00","orgNo":"3340180","typeCode":"计划停电","poweroffArea":"110kV白沙变:白洋Y221线-兽王01413线后段；白洋Y221线-金色01412后段","poweroffReason":"华庭开关站I段CT更换压变增容","powerTime":"2018-06-03 17:11:00","powerComm":"已送电","subsNo":"","lineNo":"","tgNo":"","tgName":null,"infoStatus":"1","orgName":"国网浙江建德市供电有限公司","typeName":null,"infoStatusName":null,"dateDay":null,"orgNos":null,"nowTime":null,"countyName":null,"streetName":null,"villageName":null,"roadName":null,"communityName":null,"tranName":null,"sdLineName":null,"cityCode":"3340180","cityName":"国网浙江建德市供电有限公司","provinceCode":null,"stopTime":"2018-06-03 17:15:00","powerType":"全部","powerOffArea":"110kV白沙变:白洋Y221线-兽王01413线后段；白洋Y221线-金色01412后段","powerOffReason":"华庭开关站I段CT更换压变增容","powerOffId":"2018051431010338"},{"poweroffId":2018051431010334,"sgpoweroffId":null,"subsName":"","lineName":"10kV窑上Y521线","pubTranName":"金塘小区1#公变,洋安村马家公变台区,金塘5#公变,金塘小区3#公变,","scope":"浙江省-杭州市-建德市-洋溪街道 洋安社区 金塘小区北苑1幢、2幢、3幢、8幢、9幢、10幢、15幢、16幢、17幢一带用户。","startTime":"2018-05-29 12:30:00","stopDate":"2018-05-29 17:00:00","orgNo":"3340180","typeCode":"计划停电","poweroffArea":"35kV洋溪变:窑上Y521线-金塘小区1#公变后段；窑上Y521线-金塘小区5#公变后段；窑上Y521线-洋安村马家公变台区后段；窑上Y521线-金塘小区3#公变后段；窑上Y521线-新安江特大桥南面192019专变后段","poweroffReason":"金塘开关站I段CT更换压变增容","powerTime":"2018-05-29 16:59:21","powerComm":"已送电","subsNo":"","lineNo":"","tgNo":"","tgName":null,"infoStatus":"1","orgName":"国网浙江建德市供电有限公司","typeName":null,"infoStatusName":null,"dateDay":null,"orgNos":null,"nowTime":null,"countyName":null,"streetName":null,"villageName":null,"roadName":null,"communityName":null,"tranName":null,"sdLineName":null,"cityCode":"3340180","cityName":"国网浙江建德市供电有限公司","provinceCode":null,"stopTime":"2018-05-29 17:00:00","powerType":"全部","powerOffArea":"35kV洋溪变:窑上Y521线-金塘小区1#公变后段；窑上Y521线-金塘小区5#公变后段；窑上Y521线-洋安村马家公变台区后段；窑上Y521线-金塘小区3#公变后段；窑上Y521线-新安江特大桥南面192019专变后段","powerOffReason":"金塘开关站I段CT更换压变增容","powerOffId":"2018051431010334"},{"poweroffId":2018051431010331,"sgpoweroffId":null,"subsName":"","lineName":"10kV和风Y520线","pubTranName":"金塘小区2#公变,金塘小区6#公变,金塘小区4#公变,","scope":"浙江省-杭州市-建德市-洋溪街道 洋安社区 金塘小区北苑4幢、5幢、6幢、7幢、11幢、12幢、13幢、14幢、18幢、19幢、20幢一带用户。","startTime":"2018-05-29 07:30:00","stopDate":"2018-05-29 12:00:00","orgNo":"3340180","typeCode":"计划停电","poweroffArea":"35kV洋溪变:和风Y520线-金塘小区6#公变后段；和风Y520线-金塘小区2#公变后段；和风Y520线-金塘小区4#公变后段","poweroffReason":"金塘开关站II段CT更换压变增容","powerTime":"2018-05-29 11:58:28","powerComm":"已送电","subsNo":"","lineNo":"","tgNo":"","tgName":null,"infoStatus":"1","orgName":"国网浙江建德市供电有限公司","typeName":null,"infoStatusName":null,"dateDay":null,"orgNos":null,"nowTime":null,"countyName":null,"streetName":null,"villageName":null,"roadName":null,"communityName":null,"tranName":null,"sdLineName":null,"cityCode":"3340180","cityName":"国网浙江建德市供电有限公司","provinceCode":null,"stopTime":"2018-05-29 12:00:00","powerType":"全部","powerOffArea":"35kV洋溪变:和风Y520线-金塘小区6#公变后段；和风Y520线-金塘小区2#公变后段；和风Y520线-金塘小区4#公变后段","powerOffReason":"金塘开关站II段CT更换压变增容","powerOffId":"2018051431010331"},{"poweroffId":2018051431010329,"sgpoweroffId":null,"subsName":"","lineName":"10kV白安Y236线","pubTranName":"金色蓝庭4#公变,华庭203025公变（6#）,华庭2#公变,金色蓝庭3#公变,华庭4#公变,","scope":"浙江省-杭州市-建德市-新安江街道 溪头社区 秀水华庭小区3、5、5-1、6、9、10、11、12、16幢、楼下商铺及沿江商铺、金色蓝庭小区3、4幢及物业、楼下沿街商铺及周边一带用户。","startTime":"2018-06-03 07:30:00","stopDate":"2018-06-03 12:00:00","orgNo":"3340180","typeCode":"计划停电","poweroffArea":"110kV白沙变:白安Y236线-庭城Y2361线负荷开关，白安Y236线负荷开关之间","poweroffReason":"华庭开关站II段CT更换压变增容","powerTime":"2018-06-03 12:00:00","powerComm":"已送电","subsNo":"","lineNo":"","tgNo":"","tgName":null,"infoStatus":"1","orgName":"国网浙江建德市供电有限公司","typeName":null,"infoStatusName":null,"dateDay":null,"orgNos":null,"nowTime":null,"countyName":null,"streetName":null,"villageName":null,"roadName":null,"communityName":null,"tranName":null,"sdLineName":null,"cityCode":"3340180","cityName":"国网浙江建德市供电有限公司","provinceCode":null,"stopTime":"2018-06-03 12:00:00","powerType":"全部","powerOffArea":"110kV白沙变:白安Y236线-庭城Y2361线负荷开关，白安Y236线负荷开关之间","powerOffReason":"华庭开关站II段CT更换压变增容","powerOffId":"2018051431010329"},{"poweroffId":2018051431010328,"sgpoweroffId":null,"subsName":"","lineName":"10kV白洋Y221线","pubTranName":"洋安家园1#公变台区,洋安家园5#公变台区,中华人民共和国杭州出入境检验检疫局1#专变,洋安家园3#公变台区,","scope":"浙江省-杭州市-建德市-洋溪街道 洋安社区 洋安家园小区16幢、17幢、22幢、23幢、13幢、15幢、19幢、20幢、21幢、28幢、29幢、32幢、33幢、36幢一带用户。","startTime":"2018-06-01 08:30:00","stopDate":"2018-06-01 16:00:00","orgNo":"3340180","typeCode":"计划停电","poweroffArea":"110kV白沙变:白洋Y221线-洋安家园5#公变台区后段；白洋Y221线-洋安家园3#公变台区后段；白洋Y221线-家园1#02611线后段","poweroffReason":"安园开关站家园1#02611间隔保护装置更换","powerTime":"2018-06-01 16:00:00","powerComm":"已送电","subsNo":"","lineNo":"","tgNo":"","tgName":null,"infoStatus":"1","orgName":"国网浙江建德市供电有限公司","typeName":null,"infoStatusName":null,"dateDay":null,"orgNos":null,"nowTime":null,"countyName":null,"streetName":null,"villageName":null,"roadName":null,"communityName":null,"tranName":null,"sdLineName":null,"cityCode":"3340180","cityName":"国网浙江建德市供电有限公司","provinceCode":null,"stopTime":"2018-06-01 16:00:00","powerType":"全部","powerOffArea":"110kV白沙变:白洋Y221线-洋安家园5#公变台区后段；白洋Y221线-洋安家园3#公变台区后段；白洋Y221线-家园1#02611线后段","powerOffReason":"安园开关站家园1#02611间隔保护装置更换","powerOffId":"2018051431010328"}],"pageModel":{"pageNow":1777,"totalCount":17789,"totalPage":1779,"tableRows":0,"pageCount":10,"beginCount":17760},"isExperi":"1"}