{"message":"","today":"2020-06-16","seleList":[{"poweroffId":2018051131010701,"sgpoweroffId":null,"subsName":"","lineName":"10kV滨宁8095线","pubTranName":"新州五变,新州七变,","scope":"浙江省-杭州市-滨江区-西兴街道(西兴社区-新州花苑小区,新州社区-新州花苑小区);浙江省杭州市滨江区新州花苑8号楼1单元公用主供及住宅、2单元公用主供及住宅、3单元公用备供、4单元公用备供，社区部分公用电，车库消防主供及普通备供，4号楼1单元公用主供，2单元公用主供及住宅，3单元公用备供，4单元公用备供及2-18F居民，地下车库生活泵主供","startTime":"2018-05-15 09:15:00","stopDate":"2018-05-15 14:00:00","orgNo":"3340101","typeCode":"计划停电","poweroffArea":"110kV西兴变:滨宁8095线-新州五变后段；滨宁8095线-新州七变后段","poweroffReason":"新州花园低压开关更换工作","powerTime":"","powerComm":"","subsNo":"","lineNo":"","tgNo":"","tgName":null,"infoStatus":"1","orgName":"浙江杭州电力客户服务中心","typeName":null,"infoStatusName":null,"dateDay":null,"orgNos":null,"nowTime":null,"countyName":null,"streetName":null,"villageName":null,"roadName":null,"communityName":null,"tranName":null,"sdLineName":null,"cityCode":"3340101","cityName":"浙江杭州电力客户服务中心","provinceCode":null,"stopTime":"2018-05-15 14:00:00","powerType":"全部","powerOffArea":"110kV西兴变:滨宁8095线-新州五变后段；滨宁8095线-新州七变后段","powerOffReason":"新州花园低压开关更换工作","powerOffId":"2018051131010701"},{"poweroffId":2018051131010629,"sgpoweroffId":null,"subsName":"","lineName":"10kV光源9071线","pubTranName":"松下电化1,松下电化3,","scope":"浙江省-杭州市-江干区(松下家电(中国)有限公司);","startTime":"2018-06-01 09:00:00","stopDate":"2018-06-01 20:30:00","orgNo":"3340101","typeCode":"计划停电","poweroffArea":"110kV松合变:光源9071线-松下电化1，松下电化3之间","poweroffReason":"新设10kV上综、上合、松综、合综站工程 1、默东9079线在松合变侧拆头后改接至新设K3开关站2#间隔 2、光源9071线在松合变侧拆头后改接至新设K3开关站3#间隔 3、新设K3开关站1#间隔新出电缆至松合变光源9071线间隔","powerTime":"2018-06-01 17:20:14","powerComm":"已送电","subsNo":"","lineNo":"","tgNo":"","tgName":null,"infoStatus":"1","orgName":"浙江杭州电力客户服务中心","typeName":null,"infoStatusName":null,"dateDay":null,"orgNos":null,"nowTime":null,"countyName":null,"streetName":null,"villageName":null,"roadName":null,"communityName":null,"tranName":null,"sdLineName":null,"cityCode":"3340101","cityName":"浙江杭州电力客户服务中心","provinceCode":null,"stopTime":"2018-06-01 20:30:00","powerType":"全部","powerOffArea":"110kV松合变:光源9071线-松下电化1，松下电化3之间","powerOffReason":"新设10kV上综、上合、松综、合综站工程 1、默东9079线在松合变侧拆头后改接至新设K3开关站2#间隔 2、光源9071线在松合变侧拆头后改接至新设K3开关站3#间隔 3、新设K3开关站1#间隔新出电缆至松合变光源9071线间隔","powerOffId":"2018051131010629"},{"poweroffId":2018051131010593,"sgpoweroffId":null,"subsName":"","lineName":"10kV西关177线","pubTranName":"东门雅苑5号公变,桐庐县分水镇根华制笔厂1#变,新天地房产基建变,桐庐县分水教育集团(玉华2),武盛县西3号公变,九龙贸易1号公变,书香门第2号公变,桐庐峰霞制笔厂,致远笔业,东门雅苑6号公变,启逸制笔,桐庐县分水中心幼儿园,城西蛇皮山2号公变,锐力特制笔,书香门第1号公变,武盛县西1号公变,晨航制笔,文苑制笔,南门苑2号公变,桐庐志义模具有限公司,桐庐陆大制笔品厂,武盛县东3号公变,九龙贸易1#,龙图制笔厂,桐庐王鑫制笔厂,翰林苑1号公变,月明制笔,桐庐县分水教育集团(玉华1),南门苑1号公变,桐庐恒邦制笔有限公司,桐庐新天地房地产开发有限公司1#变,舒畅制笔,天恒制笔,嘉凯城城镇化建设（桐庐分水）有限公司,风华苑1号公变,","scope":"浙江省-杭州市-桐庐县-分水镇(分江社区-东门雅苑小区、院士路,武盛行政村-白沙自然村、东关自然村、武盛自然村、县东自然村、县西自然村、玉泉自然村、院士路,玉华社区-院士路);","startTime":"2018-05-26 07:00:00","stopDate":"2018-05-26 15:30:00","orgNo":"3340150","typeCode":"计划停电","poweroffArea":"110kV分水变:西关177线-院士T1772线负荷开关，二小F4456开关之间","poweroffReason":"1、洪坑742线、天英734线52#杆至59#杆之间新建线路架设导线及拆除旧导线工作，安装智能开关。","powerTime":"2018-05-26 15:21:02","powerComm":"已送电。","subsNo":"","lineNo":"","tgNo":"","tgName":null,"infoStatus":"1","orgName":"国网浙江桐庐县供电公司","typeName":null,"infoStatusName":null,"dateDay":null,"orgNos":null,"nowTime":null,"countyName":null,"streetName":null,"villageName":null,"roadName":null,"communityName":null,"tranName":null,"sdLineName":null,"cityCode":"3340150","cityName":"国网浙江桐庐县供电公司","provinceCode":null,"stopTime":"2018-05-26 15:30:00","powerType":"全部","powerOffArea":"110kV分水变:西关177线-院士T1772线负荷开关，二小F4456开关之间","powerOffReason":"1、洪坑742线、天英734线52#杆至59#杆之间新建线路架设导线及拆除旧导线工作，安装智能开关。","powerOffId":"2018051131010593"},{"poweroffId":2018051131010550,"sgpoweroffId":null,"subsName":"","lineName":"10kV网琪H785线","pubTranName":"连具塘村徐家村,","scope":"浙江省杭州市余杭区仓前街道：连具塘村丁家、徐家村一带","startTime":"2018-05-29 08:20:00","stopDate":"2018-05-29 17:20:00","orgNo":"3340140","typeCode":"计划停电","poweroffArea":"网琪H785线徐家村分线","poweroffReason":"配网工程（杭州余杭仓前地区2018年配变台区改造工程）：网琪H785线徐家村分线徐家村变250KVA增量至400KVA调换令克及计量箱、新出低压电缆2根并搭接","powerTime":"2018-05-29 17:09:30","powerComm":"已送电","subsNo":"","lineNo":"","tgNo":"","tgName":null,"infoStatus":"1","orgName":"国网浙江杭州市余杭区供电有限公司","typeName":null,"infoStatusName":null,"dateDay":null,"orgNos":null,"nowTime":null,"countyName":null,"streetName":null,"villageName":null,"roadName":null,"communityName":null,"tranName":null,"sdLineName":null,"cityCode":"3340140","cityName":"国网浙江杭州市余杭区供电有限公司","provinceCode":null,"stopTime":"2018-05-29 17:20:00","powerType":"全部","powerOffArea":"网琪H785线徐家村分线","powerOffReason":"配网工程（杭州余杭仓前地区2018年配变台区改造工程）：网琪H785线徐家村分线徐家村变250KVA增量至400KVA调换令克及计量箱、新出低压电缆2根并搭接","powerOffId":"2018051131010550"},{"poweroffId":2018051131010543,"sgpoweroffId":null,"subsName":"","lineName":"10kV丰车H820线","pubTranName":"东北区1,东北区(2)基建,高教路灯(2),浙经.翡翠城(6)临时,翡翠城基建,高教路灯(2),","scope":"浙江省杭州市余杭区闲林街道：育华学校、翡翠城幼儿园、华丰泵站、高教路2号路灯、高教路3号路灯、翡翠城西区建设工地、翡翠城三期建设工地、翡翠城东北区建设工地一带","startTime":"2018-06-09 09:30:00","stopDate":"2018-06-09 17:30:00","orgNo":"3340140","typeCode":"计划停电","poweroffArea":"110kV油车变:丰车H820线-马家桥分线开关后段","poweroffReason":"配网工程（一线一策线路分流工程）：丰车H820线马家桥分线电缆拆除，电缆对接，新电缆搭接至恒发开关站待用G05号间隔","powerTime":"2018-06-09 16:19:29","powerComm":"已送电","subsNo":"","lineNo":"","tgNo":"","tgName":null,"infoStatus":"1","orgName":"国网浙江杭州市余杭区供电有限公司","typeName":null,"infoStatusName":null,"dateDay":null,"orgNos":null,"nowTime":null,"countyName":null,"streetName":null,"villageName":null,"roadName":null,"communityName":null,"tranName":null,"sdLineName":null,"cityCode":"3340140","cityName":"国网浙江杭州市余杭区供电有限公司","provinceCode":null,"stopTime":"2018-06-09 17:30:00","powerType":"全部","powerOffArea":"110kV油车变:丰车H820线-马家桥分线开关后段","powerOffReason":"配网工程（一线一策线路分流工程）：丰车H820线马家桥分线电缆拆除，电缆对接，新电缆搭接至恒发开关站待用G05号间隔","powerOffId":"2018051131010543"},{"poweroffId":2018051131010538,"sgpoweroffId":null,"subsName":"","lineName":"10kV网琪H785线","pubTranName":"连具塘村高池塘,连具塘村谢家斗公变,连具塘村虞家塘,金成家禽,连具塘村小庙村公变,连具塘村庙湾里,连具塘村尤家头公变,连具塘村闻家台门,连具塘村陈家埭,连具塘村鲁家桥南公变,连具塘村鲁家桥北,","scope":"浙江省杭州市余杭区仓前街道：连具塘村庙湾里、高池塘、小庙村、闻家台门、陈家埭、鲁家桥南、鲁家桥北、虞家塘、谢家斗、尤家头、金成家禽厂一带","startTime":"2018-05-27 06:00:00","stopDate":"2018-05-27 18:30:00","orgNo":"3340140","typeCode":"计划停电","poweroffArea":"网琪H785线何家斗门分线","poweroffReason":"网琪H785线何家斗门分线-配网工程（杭州余杭仓前地区2018年配变台区改造工程）：网琪H785线蒋家斗分线20#杆线路延伸8档、立杆10基、新上彭家村2#变400KVA一台新出低压电缆一根并搭接，陈家埭变增量至400KVA调换令克及计量箱新出低压电缆一根","powerTime":"2018-05-27 18:09:52","powerComm":"已送电","subsNo":"","lineNo":"","tgNo":"","tgName":null,"infoStatus":"1","orgName":"国网浙江杭州市余杭区供电有限公司","typeName":null,"infoStatusName":null,"dateDay":null,"orgNos":null,"nowTime":null,"countyName":null,"streetName":null,"villageName":null,"roadName":null,"communityName":null,"tranName":null,"sdLineName":null,"cityCode":"3340140","cityName":"国网浙江杭州市余杭区供电有限公司","provinceCode":null,"stopTime":"2018-05-27 18:30:00","powerType":"全部","powerOffArea":"网琪H785线何家斗门分线","powerOffReason":"网琪H785线何家斗门分线-配网工程（杭州余杭仓前地区2018年配变台区改造工程）：网琪H785线蒋家斗分线20#杆线路延伸8档、立杆10基、新上彭家村2#变400KVA一台新出低压电缆一根并搭接，陈家埭变增量至400KVA调换令克及计量箱新出低压电缆一根","powerOffId":"2018051131010538"},{"poweroffId":2018051131010328,"sgpoweroffId":null,"subsName":"","lineName":"10kV丁家G372线","pubTranName":"东塘村得胜村公变,东塘村鲁家湾公变,东塘村王家塘公变,","scope":"浙江省杭州市余杭区仁和街道：东塘村鲁家湾、东塘村得胜、东塘村王家塘、东塘村大桥一带","startTime":"2018-05-26 08:20:00","stopDate":"2018-05-26 17:30:00","orgNo":"3340140","typeCode":"计划停电","poweroffArea":"110kV东塘变:丁家G372线-王家塘分线开关后段","poweroffReason":"1、杭州余杭仁和地区2018年九龙村等配变台区改造工程：丁家G372线王家塘变200KVA增量至400KVA，新立15米电杆1基，新出低压出线电缆1根工作；2、2018年余杭公司塘栖所10kV裕达G225线等分支线小线径整治工程：王家塘分线新立15米电杆2基，新放导线2档工作；","powerTime":"2018-05-26 14:20:04","powerComm":"已送电","subsNo":"","lineNo":"","tgNo":"","tgName":null,"infoStatus":"1","orgName":"国网浙江杭州市余杭区供电有限公司","typeName":null,"infoStatusName":null,"dateDay":null,"orgNos":null,"nowTime":null,"countyName":null,"streetName":null,"villageName":null,"roadName":null,"communityName":null,"tranName":null,"sdLineName":null,"cityCode":"3340140","cityName":"国网浙江杭州市余杭区供电有限公司","provinceCode":null,"stopTime":"2018-05-26 17:30:00","powerType":"全部","powerOffArea":"110kV东塘变:丁家G372线-王家塘分线开关后段","powerOffReason":"1、杭州余杭仁和地区2018年九龙村等配变台区改造工程：丁家G372线王家塘变200KVA增量至400KVA，新立15米电杆1基，新出低压出线电缆1根工作；2、2018年余杭公司塘栖所10kV裕达G225线等分支线小线径整治工程：王家塘分线新立15米电杆2基，新放导线2档工作；","powerOffId":"2018051131010328"},{"poweroffId":2018051131010327,"sgpoweroffId":null,"subsName":"","lineName":"10kV山后G830线","pubTranName":"崇贤二小,龙旋村龙泉子变,龙旋村村委北变,和平石矿,崇贤街道龙旋村山前村北变,龙旋村曹家墩变,龙旋村朝西埭变,","scope":"浙江杭州市余杭区崇贤街道：龙旋村曹家墩、龙旋村朝西埭、龙旋村龙泉子、龙旋村村委北、龙旋村山前村北、崇贤二小、杭州天隆电镀设备有限公司一带","startTime":"2018-05-27 08:20:00","stopDate":"2018-05-27 17:30:00","orgNo":"3340140","typeCode":"计划停电","poweroffArea":"110kV北庄变:山后G830线-山后G8303开关，山后G8304开关之间","poweroffReason":"杭州余杭崇贤2018年龙旋等村配变台区改造工程:新布曹家墩2号、朝西埭2号、龙旋村委北2号、龙泉子2号、龙旋村菜场2号公变400KVA配变、计量箱各一台；新立15米电杆5基，新出低压出线电缆及低压线路割接工作；曹家埭分线、崇贤二小分线真空开关换三遥开关；","powerTime":"2018-05-27 16:46:04","powerComm":"已送电","subsNo":"","lineNo":"","tgNo":"","tgName":null,"infoStatus":"1","orgName":"国网浙江杭州市余杭区供电有限公司","typeName":null,"infoStatusName":null,"dateDay":null,"orgNos":null,"nowTime":null,"countyName":null,"streetName":null,"villageName":null,"roadName":null,"communityName":null,"tranName":null,"sdLineName":null,"cityCode":"3340140","cityName":"国网浙江杭州市余杭区供电有限公司","provinceCode":null,"stopTime":"2018-05-27 17:30:00","powerType":"全部","powerOffArea":"110kV北庄变:山后G830线-山后G8303开关，山后G8304开关之间","powerOffReason":"杭州余杭崇贤2018年龙旋等村配变台区改造工程:新布曹家墩2号、朝西埭2号、龙旋村委北2号、龙泉子2号、龙旋村菜场2号公变400KVA配变、计量箱各一台；新立15米电杆5基，新出低压出线电缆及低压线路割接工作；曹家埭分线、崇贤二小分线真空开关换三遥开关；","powerOffId":"2018051131010327"},{"poweroffId":2018051131010304,"sgpoweroffId":null,"subsName":"","lineName":"10kV淡竹R122线","pubTranName":"淡竹村半山垅公变,杭州淳安交通电器厂配变,七亩丘公变,淡竹村,淡竹农林村大坞山公变,","scope":"浙江省-杭州市-淳安县-千岛湖镇(淡竹行政村,农林行政村-农林自然村);浙江省-杭州市-淳安县-千岛湖镇(杭州淳安交通电器厂);","startTime":"2018-06-11 08:00:00","stopDate":"2018-06-11 14:00:00","orgNo":"3340190","typeCode":"计划停电","poweroffArea":"35kV淡竹变:淡竹R122线-大坞山支线0#杆开关后段","poweroffReason":"千岛湖绿野星都实业有限公司：淡竹R122线大坞山支线13#杆T接新上100KVA箱变搭接送电","powerTime":"2018-06-11 11:14:52","powerComm":"现场工作已完成","subsNo":"","lineNo":"","tgNo":"","tgName":null,"infoStatus":"1","orgName":"国网浙江淳安县供电有限公司","typeName":null,"infoStatusName":null,"dateDay":null,"orgNos":null,"nowTime":null,"countyName":null,"streetName":null,"villageName":null,"roadName":null,"communityName":null,"tranName":null,"sdLineName":null,"cityCode":"3340190","cityName":"国网浙江淳安县供电有限公司","provinceCode":null,"stopTime":"2018-06-11 14:00:00","powerType":"全部","powerOffArea":"35kV淡竹变:淡竹R122线-大坞山支线0#杆开关后段","powerOffReason":"千岛湖绿野星都实业有限公司：淡竹R122线大坞山支线13#杆T接新上100KVA箱变搭接送电","powerOffId":"2018051131010304"},{"poweroffId":2018051131010291,"sgpoweroffId":null,"subsName":"","lineName":"10kV东溪R102线","pubTranName":"淳安县路灯管理所（秀水桥）专变,四马巷1#公变,四马巷2#公变,","scope":"浙江省-杭州市-淳安县-千岛湖镇(江滨社区-四马巷、新安大街);浙江省-杭州市-淳安县-千岛湖镇(淳安县路灯管理所);","startTime":"2018-05-26 08:00:00","stopDate":"2018-05-26 17:30:00","orgNo":"3340190","typeCode":"计划停电","poweroffArea":"110kV千岛湖变:东溪R102线-四马巷支线0号杆开关后段","poweroffReason":"四马巷2号公变配变增容，更换变压器和低压柜","powerTime":"2018-05-26 15:58:43","powerComm":"现场工作已完成。","subsNo":"","lineNo":"","tgNo":"","tgName":null,"infoStatus":"1","orgName":"国网浙江淳安县供电有限公司","typeName":null,"infoStatusName":null,"dateDay":null,"orgNos":null,"nowTime":null,"countyName":null,"streetName":null,"villageName":null,"roadName":null,"communityName":null,"tranName":null,"sdLineName":null,"cityCode":"3340190","cityName":"国网浙江淳安县供电有限公司","provinceCode":null,"stopTime":"2018-05-26 17:30:00","powerType":"全部","powerOffArea":"110kV千岛湖变:东溪R102线-四马巷支线0号杆开关后段","powerOffReason":"四马巷2号公变配变增容，更换变压器和低压柜","powerOffId":"2018051131010291"}],"pageModel":{"pageNow":1778,"totalCount":17789,"totalPage":1779,"tableRows":0,"pageCount":10,"beginCount":17770},"isExperi":"1"}