{"message":"","today":"2020-06-16","seleList":[{"poweroffId":2018051131010201,"sgpoweroffId":null,"subsName":"","lineName":"10kV贯桥8323线","pubTranName":"麒麟一变,","scope":"豆腐巷2号1单元附近一带","startTime":"2018-05-15 09:30:00","stopDate":"2018-05-15 17:30:00","orgNo":"3340101","typeCode":"计划停电","poweroffArea":"110kV昭庆变:贯桥8323线-麒麟一变后段","poweroffReason":"配合计量消缺，更换插拔底座和插拔线（庄严690820）","powerTime":"","powerComm":"","subsNo":"","lineNo":"","tgNo":"","tgName":null,"infoStatus":"1","orgName":"浙江杭州电力客户服务中心","typeName":null,"infoStatusName":null,"dateDay":null,"orgNos":null,"nowTime":null,"countyName":null,"streetName":null,"villageName":null,"roadName":null,"communityName":null,"tranName":null,"sdLineName":null,"cityCode":"3340101","cityName":"浙江杭州电力客户服务中心","provinceCode":null,"stopTime":"2018-05-15 17:30:00","powerType":"全部","powerOffArea":"110kV昭庆变:贯桥8323线-麒麟一变后段","powerOffReason":"配合计量消缺，更换插拔底座和插拔线（庄严690820）","powerOffId":"2018051131010201"},{"poweroffId":2018051131010148,"sgpoweroffId":null,"subsName":"","lineName":"10kV庆丰A459线","pubTranName":"2#,庆丰村11#变,4#,3#,庆丰村10#变,杭州亿利钢铁有限公司2#,杭州萧山庆丰化纤有限公司,杭州鼎炉机械有限公司,镇中村17#变,庆丰村8#变,","scope":"浙江省杭州市萧山区党湾镇庆丰村及杭州萧山庆丰化纤有限公司、杭州亿利钢铁有限公司、杭州鼎炉机械有限公司一带","startTime":"2018-05-27 09:45:00","stopDate":"2018-05-27 14:45:00","orgNo":"3340130","typeCode":"计划停电","poweroffArea":"110kV幸福变:庆丰A459线-庆丰A459线庆丰分线开关后段","poweroffReason":"镇中村17#变下160上400、换柜、换令克","powerTime":"2018-05-27 12:52:17","powerComm":"已送电","subsNo":"","lineNo":"","tgNo":"","tgName":null,"infoStatus":"1","orgName":"国网浙江杭州市萧山区供电有限公司","typeName":null,"infoStatusName":null,"dateDay":null,"orgNos":null,"nowTime":null,"countyName":null,"streetName":null,"villageName":null,"roadName":null,"communityName":null,"tranName":null,"sdLineName":null,"cityCode":"3340130","cityName":"国网浙江杭州市萧山区供电有限公司","provinceCode":null,"stopTime":"2018-05-27 14:45:00","powerType":"全部","powerOffArea":"110kV幸福变:庆丰A459线-庆丰A459线庆丰分线开关后段","powerOffReason":"镇中村17#变下160上400、换柜、换令克","powerOffId":"2018051131010148"},{"poweroffId":2018050731010325,"sgpoweroffId":null,"subsName":"","lineName":"10kV尖山T201线","pubTranName":"朱勇军别墅,桐庐绿恒针织厂,杭州金鹤来食品添加剂有限公司,毛草山2号公变,","scope":"浙江省-杭州市-桐庐县-横村镇(城东行政村-徐家埠自然村);浙江省-杭州市-桐庐县-横村镇(杭州金鹤来食品添加剂有限公司,桐庐优泰针纺织有限公司,朱勇军);","startTime":"2018-05-15 07:30:00","stopDate":"2018-05-15 11:30:00","orgNo":"3340150","typeCode":"计划停电","poweroffArea":"110kV方埠变:尖山T201线-煜凯F1026开关后段","poweroffReason":"毛草山2号公变200kVA增容400kVA","powerTime":"","powerComm":"","subsNo":"","lineNo":"","tgNo":"","tgName":null,"infoStatus":"1","orgName":"国网浙江桐庐县供电公司","typeName":null,"infoStatusName":null,"dateDay":null,"orgNos":null,"nowTime":null,"countyName":null,"streetName":null,"villageName":null,"roadName":null,"communityName":null,"tranName":null,"sdLineName":null,"cityCode":"3340150","cityName":"国网浙江桐庐县供电公司","provinceCode":null,"stopTime":"2018-05-15 11:30:00","powerType":"全部","powerOffArea":"110kV方埠变:尖山T201线-煜凯F1026开关后段","powerOffReason":"毛草山2号公变200kVA增容400kVA","powerOffId":"2018050731010325"},{"poweroffId":2018050631010113,"sgpoweroffId":null,"subsName":"","lineName":"10kV双庙V253线","pubTranName":"10kV上庄村[朱夏坞]公变,10kV上庄村[上庄村马家坞]公变,10kV上庄村[文庄]公变,","scope":"浙江省杭州市临安区太阳镇朱夏坞、文庄、上庄村马家坞一带","startTime":"2018-05-16 07:10:00","stopDate":"2018-05-16 17:50:00","orgNo":"3340160","typeCode":"计划停电","poweroffArea":"双庙V503线36#杆朱夏坞分线令克","poweroffReason":"双庙V503线朱夏坞分线改造；10KV上桩村文庄公变移位，10KV上桩村朱夏坞公变移位朱夏坞分线10#杆朱夏坞布点搭头，朱夏坞分线4#杆马家坞支线搭头，朱夏坞分线原1#杆临时搭接至新朱夏坞分线1#杆，原朱夏坞分线1#-10#杆拆除。","powerTime":"","powerComm":"","subsNo":"","lineNo":"","tgNo":"","tgName":null,"infoStatus":"1","orgName":"国网浙江临安市供电公司","typeName":null,"infoStatusName":null,"dateDay":null,"orgNos":null,"nowTime":null,"countyName":null,"streetName":null,"villageName":null,"roadName":null,"communityName":null,"tranName":null,"sdLineName":null,"cityCode":"3340160","cityName":"国网浙江临安市供电公司","provinceCode":null,"stopTime":"2018-05-16 17:50:00","powerType":"未送电","powerOffArea":"双庙V503线36#杆朱夏坞分线令克","powerOffReason":"双庙V503线朱夏坞分线改造；10KV上桩村文庄公变移位，10KV上桩村朱夏坞公变移位朱夏坞分线10#杆朱夏坞布点搭头，朱夏坞分线4#杆马家坞支线搭头，朱夏坞分线原1#杆临时搭接至新朱夏坞分线1#杆，原朱夏坞分线1#-10#杆拆除。","powerOffId":"2018050631010113"},{"poweroffId":2018050431010754,"sgpoweroffId":null,"subsName":"","lineName":"10kV方宅R174线","pubTranName":"杭州千岛湖桑玉食用菌专业合作社配变,屏村村铁匠家配变,屏村村飞源配变,淳安德明外贸茶业有限公司配变,","scope":"浙江省-杭州市-淳安县-威坪镇(屏村行政村-飞源自然村、铁匠家自然村);浙江省-杭州市-淳安县-威坪镇(淳安德明外贸茶业有限公司,杭州千岛湖桑玉食用菌专业合作社);","startTime":"2018-05-15 07:30:00","stopDate":"2018-05-15 12:00:00","orgNo":"3340190","typeCode":"计划停电","poweroffArea":"110kV虹桥变:方宅R174线-飞源支线跌落式熔断器后段","poweroffReason":"方宅R174线飞源支线2号杆带电安装三遥开关","powerTime":"","powerComm":"","subsNo":"","lineNo":"","tgNo":"","tgName":null,"infoStatus":"1","orgName":"国网浙江淳安县供电有限公司","typeName":null,"infoStatusName":null,"dateDay":null,"orgNos":null,"nowTime":null,"countyName":null,"streetName":null,"villageName":null,"roadName":null,"communityName":null,"tranName":null,"sdLineName":null,"cityCode":"3340190","cityName":"国网浙江淳安县供电有限公司","provinceCode":null,"stopTime":"2018-05-15 12:00:00","powerType":"全部","powerOffArea":"110kV虹桥变:方宅R174线-飞源支线跌落式熔断器后段","powerOffReason":"方宅R174线飞源支线2号杆带电安装三遥开关","powerOffId":"2018050431010754"},{"poweroffId":2018050431010592,"sgpoweroffId":null,"subsName":"","lineName":"10kV云湾H367线","pubTranName":"新圩郎家头变,","scope":"浙江省杭州市余杭区良渚街道：杭州市地铁集团有限责任公司一带","startTime":"2018-05-15 07:40:00","stopDate":"2018-05-15 10:40:00","orgNo":"3340140","typeCode":"计划停电","poweroffArea":"云湾H367线地铁基建分线1#杆开关","poweroffReason":"业扩工程：地铁双桥停车场变基建变拆除工作","powerTime":"","powerComm":"","subsNo":"","lineNo":"","tgNo":"","tgName":null,"infoStatus":"1","orgName":"国网浙江杭州市余杭区供电有限公司","typeName":null,"infoStatusName":null,"dateDay":null,"orgNos":null,"nowTime":null,"countyName":null,"streetName":null,"villageName":null,"roadName":null,"communityName":null,"tranName":null,"sdLineName":null,"cityCode":"3340140","cityName":"国网浙江杭州市余杭区供电有限公司","provinceCode":null,"stopTime":"2018-05-15 10:40:00","powerType":"全部","powerOffArea":"云湾H367线地铁基建分线1#杆开关","powerOffReason":"业扩工程：地铁双桥停车场变基建变拆除工作","powerOffId":"2018050431010592"},{"poweroffId":2018050431010253,"sgpoweroffId":null,"subsName":"","lineName":"10kV洋小324线","pubTranName":"上洋洲8号公变,","scope":"浙江省杭州市桐庐县城南街道上洋洲村一带","startTime":"2018-05-15 08:30:00","stopDate":"2018-05-15 11:30:00","orgNo":"3340150","typeCode":"计划停电","poweroffArea":"110kV洋洲变:洋小324线-公变GB08线后段","poweroffReason":"上洋洲8号公变调换配变互感器工作","powerTime":"","powerComm":"","subsNo":"","lineNo":"","tgNo":"","tgName":null,"infoStatus":"1","orgName":"国网浙江桐庐县供电公司","typeName":null,"infoStatusName":null,"dateDay":null,"orgNos":null,"nowTime":null,"countyName":null,"streetName":null,"villageName":null,"roadName":null,"communityName":null,"tranName":null,"sdLineName":null,"cityCode":"3340150","cityName":"国网浙江桐庐县供电公司","provinceCode":null,"stopTime":"2018-05-15 11:30:00","powerType":"全部","powerOffArea":"110kV洋洲变:洋小324线-公变GB08线后段","powerOffReason":"上洋洲8号公变调换配变互感器工作","powerOffId":"2018050431010253"},{"poweroffId":2018050431010242,"sgpoweroffId":null,"subsName":"","lineName":"10kV古楼6348线","pubTranName":"中国电信股份有限公司杭州分公司,","scope":"浙江省杭州市上城区江城路江话有限公司","startTime":"2018-05-09 09:00:00","stopDate":"2018-05-09 22:30:00","orgNo":"3340101","typeCode":"计划停电","poweroffArea":"110kV滨江变:古楼6348线-中国电信股份有限公司杭州分公司后段","poweroffReason":"粮油站开关柜更换工程（1811HZ1602U306A0000000）粮油站I段更换","powerTime":"2018-05-09 17:17:56","powerComm":"已送电","subsNo":"","lineNo":"","tgNo":"","tgName":null,"infoStatus":"1","orgName":"浙江杭州电力客户服务中心","typeName":null,"infoStatusName":null,"dateDay":null,"orgNos":null,"nowTime":null,"countyName":null,"streetName":null,"villageName":null,"roadName":null,"communityName":null,"tranName":null,"sdLineName":null,"cityCode":"3340101","cityName":"浙江杭州电力客户服务中心","provinceCode":null,"stopTime":"2018-05-09 22:30:00","powerType":"未送电","powerOffArea":"110kV滨江变:古楼6348线-中国电信股份有限公司杭州分公司后段","powerOffReason":"粮油站开关柜更换工程（1811HZ1602U306A0000000）粮油站I段更换","powerOffId":"2018050431010242"},{"poweroffId":2018050331010331,"sgpoweroffId":null,"subsName":"","lineName":"10kV山后A188线","pubTranName":"湘南村15#变,杭州市萧山区义桥镇人民政府杨家浜排灌站,湘南村17#变,杭州卓越房地产开发有限公司（1321169878）,民丰村7#变,杭州艺力装璜家具厂,杭州华达机械有限公司,杭州萧山义桥机械五金厂,民丰村12#变,民丰村4#变,杭州华炯实业有限公司,民丰村11#变,杭州华丰巨箭工具有限公司,杭州京科置业有限公司1#,杭州萧山天明五金工具有限公司2,杭州龙合五金工具有限公司,民丰村2#变,杭州荣发五金工具有限公司,民丰村6#变,杭州萧山华盛机械有限公司,湘南村16#变,杭州川页五金工具有限公司,杭州京科置业有限公司5#,杭州华丰曲木家具厂,杭州博溢机械有限公司,杭州工具量具有限公司,杭州萧山污水处理有限公司,民丰村10#变,湘南村11#变,民丰村8#变,杭州富可利五金工具有限公司,杭州京科置业有限公司2#,杭州萧山义桥建飞机械厂,民丰村1#变,湘南村7#变,杭州雁楠工具型钢有限公司,杭州千琪实业有限公司,杭州市萧山区义桥镇人民政府（路灯绿都大道）,杭州振德中药饮片有限公司,杭州可楠实业有限公司,民丰村5#变,湘南村12#变,杭州萧山天明五金工具有限公司,杭州萧山环南实业有限公司,变压器,民丰村9#变,德利服饰实业(杭州)有限公司,杭州京科置业有限公司3#,杭州京科置业有限公司4#,湘南村9#变,","scope":"浙江省-杭州市-萧山区-义桥镇(民丰行政村-百合苑自然村、府前桥自然村、傅家里自然村、河斗头自然村、虞家里自然村、渔浦苑自然村,湘南行政村-后坛自然村、姜家里自然村、牌轩下自然村);浙江省-杭州市-萧山区-义桥镇(德利服饰实业(杭州)有限公司,杭州博溢机械有限公司,杭州川页五金工具有限公司,杭州富可利五金工具有限公司,杭州工具量具有限公司,杭州华达机械有限公司,杭州华丰巨箭工具有限公司,杭州华丰曲木家具厂,杭州华炯实业有限公司,杭州京科置业有限公司,杭州卡哥科技有限公司,杭州可楠实业有限公司,杭州龙合五金工具有限公司,杭州千琪实业有限公司,杭州荣发五金工具有限公司,杭州市萧山区义桥镇人民政府,杭州市萧山区义桥镇人民政府杨家浜排灌站,杭州萧山华盛机械有限公司,杭州萧山环南实业有限公司,杭州萧山时代骏宝行汽车销售服务有限公司,杭州萧山天明五金工具有限公司,杭州萧山污水处理有限公司,杭州萧山义桥机械五金厂,杭州萧山义桥建飞机械厂,杭州雁楠工具型钢有限公司,杭州艺力装璜家具厂,杭州振德中药饮片有限公司,杭州卓越房地产开发有限公司);","startTime":"2018-05-15 08:30:00","stopDate":"2018-05-15 11:45:00","orgNo":"3340130","typeCode":"计划停电","poweroffArea":"110kV群建变:山后A188线-山后A1882开关后段","poweroffReason":"1\\18/17/04#杆线路搭头，新立12米杆5支，新放导线4档，湘南村18#变布点400kVA 2\\山后A188线18/21#、18/49/C01#、18/51#杆新装开关各1台（共3台）","powerTime":"","powerComm":"","subsNo":"","lineNo":"","tgNo":"","tgName":null,"infoStatus":"1","orgName":"国网浙江杭州市萧山区供电有限公司","typeName":null,"infoStatusName":null,"dateDay":null,"orgNos":null,"nowTime":null,"countyName":null,"streetName":null,"villageName":null,"roadName":null,"communityName":null,"tranName":null,"sdLineName":null,"cityCode":"3340130","cityName":"国网浙江杭州市萧山区供电有限公司","provinceCode":null,"stopTime":"2018-05-15 11:45:00","powerType":"全部","powerOffArea":"110kV群建变:山后A188线-山后A1882开关后段","powerOffReason":"1\\18/17/04#杆线路搭头，新立12米杆5支，新放导线4档，湘南村18#变布点400kVA 2\\山后A188线18/21#、18/49/C01#、18/51#杆新装开关各1台（共3台）","powerOffId":"2018050331010331"}],"pageModel":{"pageNow":1779,"totalCount":17789,"totalPage":1779,"tableRows":0,"pageCount":10,"beginCount":17780},"isExperi":"1"}