{"message":"","today":"2020-06-15","seleList":[{"poweroffId":2020051231020120,"sgpoweroffId":null,"subsName":"","lineName":"10kV青马9105线","pubTranName":"格村(十三),格村七,山合江1,天筑(三),财通控股3,天筑(一),冯学泵站,质量监督(1),格村五,天筑(七),格村十四变,天筑(九),七章实业2,格村十五变,冯普小学2,格企(2),格村四,财通控股3,中邮普泰2,格村六,九华路污水泵站,质量监督4,天筑(五),格企(1),格村(八),","scope":"浙江省-杭州市-江干区-误九堡镇-误格畈社区(九环路,红普路),误九堡镇-误魅力城社区-九环路,九堡街道-魅力城社区-天阳九筑小区;误九堡镇-误牛田社区(杭州米奇七章科技服务有限公司,杭州市质量技术监督检测院),九堡街道-三村社区(杭州钱塘智慧城投资开发有限公司,杭州山合江新能源技术有限公司),误九堡镇(误九堡社区-杭州物美笕新百货有限公司,误九华社区-杭州市排水有限公司,误格畈社区-杭州师范大学东城实验学校),误下沙街道-误下沙社区-杭州市江干区九堡镇格畈社区居民委员会,九堡街道-三卫村社区-浙江中邮普泰移动通信设备有限公司","startTime":"2020-05-12 09:48:12","stopDate":"2020-05-12 10:48:12","orgNo":"3340120","typeCode":"电网故障停限电","poweroffArea":"110kV蚕桑变:青马9105线","poweroffReason":"高压开关跳闸 原停电结束时间为2020-05-12 11:48:12,为减少客户停电时间,加快工作进度,提前送电,现变更停电结束时间为2020-05-12 10:48:12","powerTime":"2020-05-12 09:59:43","powerComm":"已送电","subsNo":"","lineNo":"","tgNo":"","tgName":null,"infoStatus":"1","orgName":"国网浙江杭州市钱塘新区供电公司","typeName":null,"infoStatusName":null,"dateDay":null,"orgNos":null,"nowTime":null,"countyName":null,"streetName":null,"villageName":null,"roadName":null,"communityName":null,"tranName":null,"sdLineName":null,"cityCode":"3340120","cityName":"国网浙江杭州市钱塘新区供电公司","provinceCode":null,"stopTime":"2020-05-12 10:48:12","powerType":"全部","powerOffArea":"110kV蚕桑变:青马9105线","powerOffReason":"高压开关跳闸 原停电结束时间为2020-05-12 11:48:12,为减少客户停电时间,加快工作进度,提前送电,现变更停电结束时间为2020-05-12 10:48:12","powerOffId":"2020051231020120"},{"poweroffId":2020051231020119,"sgpoweroffId":null,"subsName":"","lineName":"10kV十月D225线","pubTranName":"峡岭村3号周家坛公变,","scope":"浙江省-杭州市-富阳区-银湖街道-坑西行政村(坑西自然村,峡岭自然村,周家谭自然村,筱岭自然村)","startTime":"2020-05-12 09:43:45","stopDate":"2020-05-12 12:43:45","orgNo":"3340170","typeCode":"电网故障停限电","poweroffArea":"110kV银湖变:十月D225线-峡岭村3号周家坛公变后段","poweroffReason":"(低压停电信息)低压开关跳闸","powerTime":"2020-05-12 12:36:02","powerComm":"已送电","subsNo":"","lineNo":"","tgNo":"","tgName":null,"infoStatus":"1","orgName":"国网浙江杭州市富阳区供电公司","typeName":null,"infoStatusName":null,"dateDay":null,"orgNos":null,"nowTime":null,"countyName":null,"streetName":null,"villageName":null,"roadName":null,"communityName":null,"tranName":null,"sdLineName":null,"cityCode":"3340170","cityName":"国网浙江杭州市富阳区供电公司","provinceCode":null,"stopTime":"2020-05-12 12:43:45","powerType":"全部","powerOffArea":"110kV银湖变:十月D225线-峡岭村3号周家坛公变后段","powerOffReason":"(低压停电信息)低压开关跳闸","powerOffId":"2020051231020119"},{"poweroffId":2020051231020113,"sgpoweroffId":null,"subsName":"","lineName":"10kV宫前D603线","pubTranName":"蒋家村16号黄泥潭公变,","scope":"浙江省-杭州市-富阳区-大源镇-蒋家行政村-蒋家自然村","startTime":"2020-05-12 09:36:26","stopDate":"2020-05-12 10:36:35","orgNo":"3340170","typeCode":"电网故障停限电","poweroffArea":"35kV溪东变:宫前D603线-蒋家村16号黄泥潭公变后段","poweroffReason":"高压开关跳闸","powerTime":"2020-05-12 10:28:14","powerComm":"已送电","subsNo":"","lineNo":"","tgNo":"","tgName":null,"infoStatus":"1","orgName":"国网浙江杭州市富阳区供电公司","typeName":null,"infoStatusName":null,"dateDay":null,"orgNos":null,"nowTime":null,"countyName":null,"streetName":null,"villageName":null,"roadName":null,"communityName":null,"tranName":null,"sdLineName":null,"cityCode":"3340170","cityName":"国网浙江杭州市富阳区供电公司","provinceCode":null,"stopTime":"2020-05-12 10:36:35","powerType":"全部","powerOffArea":"35kV溪东变:宫前D603线-蒋家村16号黄泥潭公变后段","powerOffReason":"高压开关跳闸","powerOffId":"2020051231020113"},{"poweroffId":2020051231020111,"sgpoweroffId":null,"subsName":"","lineName":"10kV紫华D963线","pubTranName":"华庭2#公变,野风山15号公变变压器,野风山9号公变,九华枋2#变,3#变,楠溪阁2#公变,野风山14号公变变压器,硅谷1号公变变压器,4#变,秀水山庄5#变,杭州富阳新杭富旅游发展有限公司2#,普陀居2#变,天台居2#变,硅谷3号公变变压器,紫云山庄1#公变,野风山19号公变,秀水山庄4#变,紫云3号公变,野风山8号公变,野风山23号公变,硅谷11号公变,秀水山庄3#变,野风山18号公变,野风山4号公变,野风山21号公变,秀水山庄6#变,云栖2#公变,野风山27号公变,紫云5号公变,2#变,野风山7号公变,富阳市华庭云顶业主委员会,云顶枋2号变,杭州富阳野风乐多房地产开发有限公司1#变,杭州富阳新杭富旅游发展有限公司1#变,硅谷9号公变,野风山11号公变变压器,野风山24号公变,紫云4号公变,野风山2号公变,野风山26号公变,野风山1号公变,伊甸山庄1号公变,2-1#,1#,野风山16号公变,杭州富阳新杭富旅游发展有限公司1#,野风山25号公变,野风山3号公变,野风山6号公变,野风山17号公变,紫云6#公变,硅谷5号公变变压器,杭州富阳天鸿置业投资有限公司1#变,野风山20号公变,仙都枋2号变,秀水山庄1#变,秀水山庄2#变,秀水山庄7#变,2#,野风山13号公变,野风山10号公变变压器,杭州富阳野风乐多房地产开发有限公司2#变,汉水阁2#公变,1-1#,野风山5号公变,野风山12号公变变压器,1#,野风山22号公变,硅谷7号公变变压器,1#变,齐云枋2号变,","scope":"浙江省-杭州市-富阳区-银湖街道-受降行政村-四联自然村,银湖街道-大庄行政村(十月自然村,九龙大道180号,九龙大道),银湖街道-银湖行政村(银湖自然村,祝家村自然村,320国道,紫云山庄,银湖路,杭富公路);银湖街道-银湖行政村(杭州富阳天鸿置业投资有限公司,富阳市华庭云顶业主委员会,雍柏荟老年护养(杭州)有限公司),银湖街道-受降行政村(盛全物业服务股份有限公司杭州分公司,杭州富阳野风乐多房地产开发有限公司,杭州富阳新杭富旅游发展有限公司),银湖街道(高桥行政村-杭州富阳野风乐多房地产开发有限公司,大庄行政村-杭州富阳野风乐多房地产开发有限公司)","startTime":"2020-05-12 09:34:27","stopDate":"2020-05-12 10:34:27","orgNo":"3340170","typeCode":"电网故障停限电","poweroffArea":"110kV九龙变:紫华D963线-紫华D963线开关后段","poweroffReason":"高压开关跳闸","powerTime":"2020-05-12 10:00:07","powerComm":"已送电","subsNo":"","lineNo":"","tgNo":"","tgName":null,"infoStatus":"1","orgName":"国网浙江杭州市富阳区供电公司","typeName":null,"infoStatusName":null,"dateDay":null,"orgNos":null,"nowTime":null,"countyName":null,"streetName":null,"villageName":null,"roadName":null,"communityName":null,"tranName":null,"sdLineName":null,"cityCode":"3340170","cityName":"国网浙江杭州市富阳区供电公司","provinceCode":null,"stopTime":"2020-05-12 10:34:27","powerType":"全部","powerOffArea":"110kV九龙变:紫华D963线-紫华D963线开关后段","powerOffReason":"高压开关跳闸","powerOffId":"2020051231020111"},{"poweroffId":2020051231020090,"sgpoweroffId":null,"subsName":"","lineName":"10kV南安D336线","pubTranName":"方里村5#半坎里公变,","scope":"浙江省-杭州市-富阳区-万市镇-方里行政村(半坎自然村,方口自然村,桃花坞自然村)","startTime":"2020-05-12 09:08:46","stopDate":"2020-05-12 10:08:46","orgNo":"3340170","typeCode":"电网故障停限电","poweroffArea":"110kV万市变:南安D336线-方里村5#半坎里公变后段","poweroffReason":"(低压停电信息)低压开关跳闸","powerTime":"2020-05-12 09:57:37","powerComm":"已送电","subsNo":"","lineNo":"","tgNo":"","tgName":null,"infoStatus":"1","orgName":"国网浙江杭州市富阳区供电公司","typeName":null,"infoStatusName":null,"dateDay":null,"orgNos":null,"nowTime":null,"countyName":null,"streetName":null,"villageName":null,"roadName":null,"communityName":null,"tranName":null,"sdLineName":null,"cityCode":"3340170","cityName":"国网浙江杭州市富阳区供电公司","provinceCode":null,"stopTime":"2020-05-12 10:08:46","powerType":"全部","powerOffArea":"110kV万市变:南安D336线-方里村5#半坎里公变后段","powerOffReason":"(低压停电信息)低压开关跳闸","powerOffId":"2020051231020090"},{"poweroffId":2020051231020075,"sgpoweroffId":null,"subsName":"","lineName":"20kV青年B234线","pubTranName":"变压器1,4#,七甲闸1#变,2#,6#,1#变,","scope":"浙江省-杭州市-萧山区-宁围镇、宁围街道、西兴街道-水电社区-杭州奥体博览中心滨江建设指挥部,宁围街道(利一行政村-杭州奥体博览中心萧山建设投资有限公司,顺坝行政村-中国建筑第八工程局有限公司)等一带","startTime":"2020-05-12 08:35:00","stopDate":"2020-05-12 16:58:00","orgNo":"3340130","typeCode":"电网故障停限电","poweroffArea":"110kV奥体变:青年B234线","poweroffReason":"高压柱上断路器短路故障","powerTime":"2020-05-12 16:35:40","powerComm":"已送电","subsNo":"","lineNo":"","tgNo":"","tgName":null,"infoStatus":"1","orgName":"国网浙江杭州市萧山区供电有限公司","typeName":null,"infoStatusName":null,"dateDay":null,"orgNos":null,"nowTime":null,"countyName":null,"streetName":null,"villageName":null,"roadName":null,"communityName":null,"tranName":null,"sdLineName":null,"cityCode":"3340130","cityName":"国网浙江杭州市萧山区供电有限公司","provinceCode":null,"stopTime":"2020-05-12 16:58:00","powerType":"全部","powerOffArea":"110kV奥体变:青年B234线","powerOffReason":"高压柱上断路器短路故障","powerOffId":"2020051231020075"},{"poweroffId":2020051231020070,"sgpoweroffId":null,"subsName":"","lineName":"10kV上里D409线","pubTranName":"新新村2#下村公变,五四村1#江家公变,中铁十二局集团有限公司3#变,中铁十二局集团有限公司2#变,中铁十二局集团有限公司1#变,新新村1#上村公变,五四村4#下叶公变,祯祥村3号来坞坑公变,中铁十二局集团有限公司1#变,中铁十二局集团有限公司1#变,富阳市康达纸业有限公司,上叶村2#公变,五四村2#桃坑公变,中铁十二局集团有限公司2#变,祯祥村1#遥家坞公变,上叶村1#村中公变,富阳市三山祯祥造纸厂,新新村4号尖坞公变,五四村5#华家公变,杭州正博精密铸造有限公司,五四村3#山坑公变,五四村6#前江家公变,新新村3号毛家台公变,中铁十二局集团有限公司4#变,中铁十二局集团有限公司2#变,祯祥村2#夏家公变,","scope":"浙江省-杭州市-富阳区-鹿山街道-五四行政村(五四自然村,上叶自然村,江家自然村,山坑自然村,山坑坞自然村,华家自然村,下叶自然村,桃坑自然村),鹿山街道-新祥行政村(新新自然村,祯祥自然村,夏家自然村,雷坞坑自然村,遥高坞自然村);鹿山街道(富阳市三山祯祥造纸厂,富阳市康达纸业有限公司,中铁十二局集团有限公司,杭州钞隆精密铸造有限公司)","startTime":"2020-05-12 08:30:00","stopDate":"2020-05-12 10:00:00","orgNo":"3340170","typeCode":"电网故障停限电","poweroffArea":"110kV长春变:上里D409线上里D4095开关后段","poweroffReason":"高压开关跳闸","powerTime":"2020-05-12 09:00:50","powerComm":"已送电","subsNo":"","lineNo":"","tgNo":"","tgName":null,"infoStatus":"1","orgName":"国网浙江杭州市富阳区供电公司","typeName":null,"infoStatusName":null,"dateDay":null,"orgNos":null,"nowTime":null,"countyName":null,"streetName":null,"villageName":null,"roadName":null,"communityName":null,"tranName":null,"sdLineName":null,"cityCode":"3340170","cityName":"国网浙江杭州市富阳区供电公司","provinceCode":null,"stopTime":"2020-05-12 10:00:00","powerType":"全部","powerOffArea":"110kV长春变:上里D409线上里D4095开关后段","powerOffReason":"高压开关跳闸","powerOffId":"2020051231020070"},{"poweroffId":2020051231020068,"sgpoweroffId":null,"subsName":"","lineName":"10kV刘东9951线","pubTranName":"西大施10#变,变压器2,联委,1#变,双桥印刷,下确桥(5),官塘桥二,西大施9#变,镓谷施3#变,青联,2#变,变压器1,双幼,1#变,申防,西大施2#变,山桥小学,西大施4#变,变压器3,西大施5#变,镓谷施2#变,西大施3#变,西大施7#变,西大施6#变,镓谷施1#变,西大施8#变,西大施1#变,肖水闸,翁家头,","scope":"浙江省-杭州市-西湖区-蒋村街道-蒋村社区-文二西路;三墩镇(杭州双桥胜利印刷有限公司,杭州青联印刷有限公司,杭州市三墩镇山联社区居民委员会,浙江精华科技有限公司,杭州市三墩镇中心小学,杭州市西湖区双桥幼儿园,杭州市三墩镇人民政府,上海建工集团股份有限公司,杭州市城市基础设施建设发展中心,杭州镓谷科技有限公司)","startTime":"2020-05-12 08:28:00","stopDate":"2020-05-12 11:00:00","orgNo":"3340101","typeCode":"电网故障停限电","poweroffArea":"110kV墩北变:刘东9951线8781后段","poweroffReason":"高压开关跳闸 原停电结束时间为2020-05-12 12:28:00,为减少客户停电时间,加快工作进度,提前送电,现变更停电结束时间为2020-05-12 11:00:00","powerTime":"2020-05-12 10:13:30","powerComm":"已送电","subsNo":"","lineNo":"","tgNo":"","tgName":null,"infoStatus":"1","orgName":"浙江杭州电力客户服务中心","typeName":null,"infoStatusName":null,"dateDay":null,"orgNos":null,"nowTime":null,"countyName":null,"streetName":null,"villageName":null,"roadName":null,"communityName":null,"tranName":null,"sdLineName":null,"cityCode":"3340101","cityName":"浙江杭州电力客户服务中心","provinceCode":null,"stopTime":"2020-05-12 11:00:00","powerType":"全部","powerOffArea":"110kV墩北变:刘东9951线8781后段","powerOffReason":"高压开关跳闸 原停电结束时间为2020-05-12 12:28:00,为减少客户停电时间,加快工作进度,提前送电,现变更停电结束时间为2020-05-12 11:00:00","powerOffId":"2020051231020068"},{"poweroffId":2020051231020067,"sgpoweroffId":null,"subsName":"","lineName":"10kV古经8513线","pubTranName":"园区(6),荡股经3#,综能施1#变,综能施4#变,综能施3#变,荡股经1#,荡股经4#,荡股经2#,荡股经7#,荡股经5#,荡股经8#,杭州南都研发大楼有限公司1#,荡股经6#,1,综能施2#变,2,杭州南都研发大楼有限公司3#,","scope":"浙江省-杭州市-西湖区-古荡街道-古墩社区(杭州钱江制冷集团有限公司,杭州裕兴置业有限公司,杭州南都研发大楼有限公司),古荡街道-莲花社区(杭州中宙物业管理有限公司,浙江浙能综合能源技术研发有限公司)","startTime":"2020-05-12 08:31:53","stopDate":"2020-05-12 09:31:53","orgNo":"3340101","typeCode":"电网故障停限电","poweroffArea":"110kV文三变:古经8513线","poweroffReason":"高压开关跳闸 原停电结束时间为2020-05-12 10:31:53,为减少客户停电时间,加快工作进度,提前送电,现变更停电结束时间为2020-05-12 09:31:53","powerTime":"2020-05-12 09:01:17","powerComm":"已送电","subsNo":"","lineNo":"","tgNo":"","tgName":null,"infoStatus":"1","orgName":"浙江杭州电力客户服务中心","typeName":null,"infoStatusName":null,"dateDay":null,"orgNos":null,"nowTime":null,"countyName":null,"streetName":null,"villageName":null,"roadName":null,"communityName":null,"tranName":null,"sdLineName":null,"cityCode":"3340101","cityName":"浙江杭州电力客户服务中心","provinceCode":null,"stopTime":"2020-05-12 09:31:53","powerType":"全部","powerOffArea":"110kV文三变:古经8513线","powerOffReason":"高压开关跳闸 原停电结束时间为2020-05-12 10:31:53,为减少客户停电时间,加快工作进度,提前送电,现变更停电结束时间为2020-05-12 09:31:53","powerOffId":"2020051231020067"},{"poweroffId":2020051231020063,"sgpoweroffId":null,"subsName":"","lineName":"10kV国庆C794线","pubTranName":"三岔路村10#变,","scope":"浙江省-杭州市-萧山区-瓜沥镇-三岔路行政村(北塘东路,三岔路自然村)等","startTime":"2020-05-12 08:00:01","stopDate":"2020-05-12 16:30:01","orgNo":"3340130","typeCode":"电网故障停限电","poweroffArea":"35kV坎山变:国庆C794线-三岔路村10#变台区低压开关","poweroffReason":"(低压停电信息)低压架空导线断线 原停电结束时间为2020-05-12 12:21:01,因抢修工作难度大原因,延迟送电,现变更停电结束时间为2020-05-12 16:30:01","powerTime":"2020-05-12 16:07:11","powerComm":"已送电","subsNo":"","lineNo":"","tgNo":"","tgName":null,"infoStatus":"1","orgName":"国网浙江杭州市萧山区供电有限公司","typeName":null,"infoStatusName":null,"dateDay":null,"orgNos":null,"nowTime":null,"countyName":null,"streetName":null,"villageName":null,"roadName":null,"communityName":null,"tranName":null,"sdLineName":null,"cityCode":"3340130","cityName":"国网浙江杭州市萧山区供电有限公司","provinceCode":null,"stopTime":"2020-05-12 16:30:01","powerType":"全部","powerOffArea":"35kV坎山变:国庆C794线-三岔路村10#变台区低压开关","powerOffReason":"(低压停电信息)低压架空导线断线 原停电结束时间为2020-05-12 12:21:01,因抢修工作难度大原因,延迟送电,现变更停电结束时间为2020-05-12 16:30:01","powerOffId":"2020051231020063"}],"pageModel":{"pageNow":187,"totalCount":17788,"totalPage":1779,"tableRows":0,"pageCount":10,"beginCount":1860},"isExperi":"1"}