{"message":"","today":"2020-06-15","seleList":[{"poweroffId":2020050931020664,"sgpoweroffId":null,"subsName":"","lineName":"10kV新水0466线","pubTranName":"新湾街道14#变,新湾街道8#变,","scope":"浙江省-杭州市-萧山区-新湾街道-(三新行政村-新龙自然村,新北桥社区-)","startTime":"2020-05-22 09:00:00","stopDate":"2020-05-22 15:30:00","orgNo":"3340120","typeCode":"计划停电","poweroffArea":"35kV新湾变:新水0466线-湾民站湾民分线","poweroffReason":"新湾街道14#变增量等工作 原停电结束时间为2020-05-22 17:30:00,为减少客户停电时间,加快工作进度,提前送电,现变更停电结束时间为2020-05-22 15:30:00","powerTime":"2020-05-22 14:58:08","powerComm":"已送电","subsNo":"","lineNo":"","tgNo":"","tgName":null,"infoStatus":"1","orgName":"国网浙江杭州市钱塘新区供电公司","typeName":null,"infoStatusName":null,"dateDay":null,"orgNos":null,"nowTime":null,"countyName":null,"streetName":null,"villageName":null,"roadName":null,"communityName":null,"tranName":null,"sdLineName":null,"cityCode":"3340120","cityName":"国网浙江杭州市钱塘新区供电公司","provinceCode":null,"stopTime":"2020-05-22 15:30:00","powerType":"全部","powerOffArea":"35kV新湾变:新水0466线-湾民站湾民分线","powerOffReason":"新湾街道14#变增量等工作 原停电结束时间为2020-05-22 17:30:00,为减少客户停电时间,加快工作进度,提前送电,现变更停电结束时间为2020-05-22 15:30:00","powerOffId":"2020050931020664"},{"poweroffId":2020050931020656,"sgpoweroffId":null,"subsName":"","lineName":"10kV夏峰R169线","pubTranName":"薛家源村姜家坞配变,","scope":"浙江省-杭州市-淳安县-枫树岭镇-薛家源行政村(姜家坞自然村,胡桃岭自然村)","startTime":"2020-05-20 08:00:00","stopDate":"2020-05-20 14:00:00","orgNo":"3340190","typeCode":"计划停电","poweroffArea":"35kV大市变:夏峰R169线-姜家坞支线0号杆跌落式熔断器后段","poweroffReason":"(低压停电信息)薛家源村低压台区改造工程","powerTime":"2020-05-20 13:24:25","powerComm":"已送电","subsNo":"","lineNo":"","tgNo":"","tgName":null,"infoStatus":"1","orgName":"国网浙江淳安县供电有限公司","typeName":null,"infoStatusName":null,"dateDay":null,"orgNos":null,"nowTime":null,"countyName":null,"streetName":null,"villageName":null,"roadName":null,"communityName":null,"tranName":null,"sdLineName":null,"cityCode":"3340190","cityName":"国网浙江淳安县供电有限公司","provinceCode":null,"stopTime":"2020-05-20 14:00:00","powerType":"全部","powerOffArea":"35kV大市变:夏峰R169线-姜家坞支线0号杆跌落式熔断器后段","powerOffReason":"(低压停电信息)薛家源村低压台区改造工程","powerOffId":"2020050931020656"},{"poweroffId":2020050931020655,"sgpoweroffId":null,"subsName":"","lineName":"10kV园区R106线","pubTranName":"曙光路2号公变,","scope":"浙江省-杭州市-淳安县-千岛湖镇-南山社区(曙光路,南山二路)","startTime":"2020-05-20 13:30:00","stopDate":"2020-05-20 15:00:00","orgNo":"3340190","typeCode":"计划停电","poweroffArea":"110kV千岛湖变:园区R106线-曙光路1#公变315KVA配变跌落式熔断器后段","poweroffReason":"拆除园区R106线曙光路1号杆架式公变熔丝具下桩头弱电光缆","powerTime":"2020-05-20 14:22:32","powerComm":"已送电","subsNo":"","lineNo":"","tgNo":"","tgName":null,"infoStatus":"1","orgName":"国网浙江淳安县供电有限公司","typeName":null,"infoStatusName":null,"dateDay":null,"orgNos":null,"nowTime":null,"countyName":null,"streetName":null,"villageName":null,"roadName":null,"communityName":null,"tranName":null,"sdLineName":null,"cityCode":"3340190","cityName":"国网浙江淳安县供电有限公司","provinceCode":null,"stopTime":"2020-05-20 15:00:00","powerType":"全部","powerOffArea":"110kV千岛湖变:园区R106线-曙光路1#公变315KVA配变跌落式熔断器后段","powerOffReason":"拆除园区R106线曙光路1号杆架式公变熔丝具下桩头弱电光缆","powerOffId":"2020050931020655"},{"poweroffId":2020050931020654,"sgpoweroffId":null,"subsName":"","lineName":"10kV夏峰R169线","pubTranName":"薛家源村雪家源公变,","scope":"浙江省-杭州市-淳安县-枫树岭镇-薛家源行政村(姜家坞自然村,后山自然村,薛家源自然村)","startTime":"2020-05-18 08:00:00","stopDate":"2020-05-18 12:00:00","orgNo":"3340190","typeCode":"计划停电","poweroffArea":"35kV大市变:夏峰R169线-雪家源支线0号杆跌落式熔断器后段","poweroffReason":"(低压停电信息)薛家源村低压台区改造工程","powerTime":"2020-05-18 11:44:23","powerComm":"已送电","subsNo":"","lineNo":"","tgNo":"","tgName":null,"infoStatus":"1","orgName":"国网浙江淳安县供电有限公司","typeName":null,"infoStatusName":null,"dateDay":null,"orgNos":null,"nowTime":null,"countyName":null,"streetName":null,"villageName":null,"roadName":null,"communityName":null,"tranName":null,"sdLineName":null,"cityCode":"3340190","cityName":"国网浙江淳安县供电有限公司","provinceCode":null,"stopTime":"2020-05-18 12:00:00","powerType":"全部","powerOffArea":"35kV大市变:夏峰R169线-雪家源支线0号杆跌落式熔断器后段","powerOffReason":"(低压停电信息)薛家源村低压台区改造工程","powerOffId":"2020050931020654"},{"poweroffId":2020050931020651,"sgpoweroffId":null,"subsName":"","lineName":"10kV小岭T104线","pubTranName":"小岭路1号公变,","scope":"浙江省-杭州市-桐庐县-桐君街道-迎宾社区(圆通路,小岭路),桐君街道(圆通社区-圆通路,金鑫社区-小岭路)小岭路20幢403号","startTime":"2020-05-09 18:06:43","stopDate":"2020-05-09 21:06:43","orgNo":"3340150","typeCode":"电网故障停限电","poweroffArea":"110kV桐庐变:小岭T104线-小岭路1号公变后段","poweroffReason":"(低压停电信息)低压开关跳闸","powerTime":"2020-05-09 20:50:25","powerComm":"已送电","subsNo":"","lineNo":"","tgNo":"","tgName":null,"infoStatus":"1","orgName":"国网浙江桐庐县供电公司","typeName":null,"infoStatusName":null,"dateDay":null,"orgNos":null,"nowTime":null,"countyName":null,"streetName":null,"villageName":null,"roadName":null,"communityName":null,"tranName":null,"sdLineName":null,"cityCode":"3340150","cityName":"国网浙江桐庐县供电公司","provinceCode":null,"stopTime":"2020-05-09 21:06:43","powerType":"全部","powerOffArea":"110kV桐庐变:小岭T104线-小岭路1号公变后段","powerOffReason":"(低压停电信息)低压开关跳闸","powerOffId":"2020050931020651"},{"poweroffId":2020050931020639,"sgpoweroffId":null,"subsName":"","lineName":"10kV石屏Y175线","pubTranName":"石屏村赤源台区,","scope":"浙江省-杭州市-建德市-航头镇 石屏行政村 赤源自然村区域用户。","startTime":"2020-05-21 07:00:00","stopDate":"2020-05-21 13:00:00","orgNo":"3340180","typeCode":"计划停电","poweroffArea":"110kV航头变:石屏Y175线-赤源台区支线0#杆令克后段","poweroffReason":"赤源支线23#杆支接原赤源台区支线0#-4#杆旧线路拆除","powerTime":"2020-05-21 12:55:00","powerComm":"已送电","subsNo":"","lineNo":"","tgNo":"","tgName":null,"infoStatus":"1","orgName":"国网浙江建德市供电有限公司","typeName":null,"infoStatusName":null,"dateDay":null,"orgNos":null,"nowTime":null,"countyName":null,"streetName":null,"villageName":null,"roadName":null,"communityName":null,"tranName":null,"sdLineName":null,"cityCode":"3340180","cityName":"国网浙江建德市供电有限公司","provinceCode":null,"stopTime":"2020-05-21 13:00:00","powerType":"全部","powerOffArea":"110kV航头变:石屏Y175线-赤源台区支线0#杆令克后段","powerOffReason":"赤源支线23#杆支接原赤源台区支线0#-4#杆旧线路拆除","powerOffId":"2020050931020639"},{"poweroffId":2020050931020638,"sgpoweroffId":null,"subsName":"","lineName":"10kV中沙A147线","pubTranName":"单木桥村18#变,杭州曙光火花塞有限公司,杭州立川家私有限公司1#,单木桥村2#变,单木桥村1#变,单木桥村10#变,杭州兴杰纺织有限公司,","scope":"浙江省-杭州市-萧山区-瓜沥镇-单木桥行政村-杭州曙光火花塞有限公司","startTime":"2020-05-18 08:45:00","stopDate":"2020-05-18 15:45:00","orgNo":"3340130","typeCode":"计划停电","poweroffArea":"220kV甘露变:中沙A147线-曙光火花令克后段;中沙A147线-立川家私令克后段;中沙A147线-兴杰纺织跌落式熔断器后段;中沙A147线-单木桥村2#变后段;中沙A147线-单木桥村10#变后段;中沙A147线-单木桥村18#变后段;中沙A147线-单木桥村1#变后段","poweroffReason":"中沙A147线57#-64#杆线路改造 原停电结束时间为2020-05-18 14:45:00,因工作强度大的原因,延迟送电,现变更停电结束时间为2020-05-18 15:45:00","powerTime":"2020-05-18 15:36:33","powerComm":"已送电","subsNo":"","lineNo":"","tgNo":"","tgName":null,"infoStatus":"1","orgName":"国网浙江杭州市萧山区供电有限公司","typeName":null,"infoStatusName":null,"dateDay":null,"orgNos":null,"nowTime":null,"countyName":null,"streetName":null,"villageName":null,"roadName":null,"communityName":null,"tranName":null,"sdLineName":null,"cityCode":"3340130","cityName":"国网浙江杭州市萧山区供电有限公司","provinceCode":null,"stopTime":"2020-05-18 15:45:00","powerType":"全部","powerOffArea":"220kV甘露变:中沙A147线-曙光火花令克后段;中沙A147线-立川家私令克后段;中沙A147线-兴杰纺织跌落式熔断器后段;中沙A147线-单木桥村2#变后段;中沙A147线-单木桥村10#变后段;中沙A147线-单木桥村18#变后段;中沙A147线-单木桥村1#变后段","powerOffReason":"中沙A147线57#-64#杆线路改造 原停电结束时间为2020-05-18 14:45:00,因工作强度大的原因,延迟送电,现变更停电结束时间为2020-05-18 15:45:00","powerOffId":"2020050931020638"},{"poweroffId":2020050931020637,"sgpoweroffId":null,"subsName":"","lineName":"10kV洋溪Y100线","pubTranName":"白沙社区白沙茶山公变,","scope":"浙江省-杭州市-建德市-新安江街道 白沙社区 白沙茶山自然村区域用户。","startTime":"2020-05-21 07:30:00","stopDate":"2020-05-21 10:30:00","orgNo":"3340180","typeCode":"计划停电","poweroffArea":"110kV新安江变:洋溪Y100线-白沙社区白沙茶山公变后段","poweroffReason":"新10千伏茶山支线1#-2#杆横担金具安装，导线架设，线路头子制作并搭接，1#杆电缆上杆，电缆头搭接","powerTime":"2020-05-21 09:50:00","powerComm":"已送电","subsNo":"","lineNo":"","tgNo":"","tgName":null,"infoStatus":"1","orgName":"国网浙江建德市供电有限公司","typeName":null,"infoStatusName":null,"dateDay":null,"orgNos":null,"nowTime":null,"countyName":null,"streetName":null,"villageName":null,"roadName":null,"communityName":null,"tranName":null,"sdLineName":null,"cityCode":"3340180","cityName":"国网浙江建德市供电有限公司","provinceCode":null,"stopTime":"2020-05-21 10:30:00","powerType":"全部","powerOffArea":"110kV新安江变:洋溪Y100线-白沙社区白沙茶山公变后段","powerOffReason":"新10千伏茶山支线1#-2#杆横担金具安装，导线架设，线路头子制作并搭接，1#杆电缆上杆，电缆头搭接","powerOffId":"2020050931020637"},{"poweroffId":2020050931020634,"sgpoweroffId":null,"subsName":"","lineName":"10kV凤凰Y323线","pubTranName":"梓洲村方家坞台区,建德市广元蜡业有限公司,","scope":"浙江省-杭州市-建德市-乾潭镇 梓洲行政村 方家坞自然村区域用户。","startTime":"2020-05-20 07:00:00","stopDate":"2020-05-20 17:00:00","orgNo":"3340180","typeCode":"计划停电","poweroffArea":"35kV三都变:凤凰Y323线-三鹰网业支线0#令克后段","poweroffReason":"姚村支线新244#杆-新253#杆新架设导线","powerTime":"2020-05-20 16:21:05","powerComm":"已送电","subsNo":"","lineNo":"","tgNo":"","tgName":null,"infoStatus":"1","orgName":"国网浙江建德市供电有限公司","typeName":null,"infoStatusName":null,"dateDay":null,"orgNos":null,"nowTime":null,"countyName":null,"streetName":null,"villageName":null,"roadName":null,"communityName":null,"tranName":null,"sdLineName":null,"cityCode":"3340180","cityName":"国网浙江建德市供电有限公司","provinceCode":null,"stopTime":"2020-05-20 17:00:00","powerType":"全部","powerOffArea":"35kV三都变:凤凰Y323线-三鹰网业支线0#令克后段","powerOffReason":"姚村支线新244#杆-新253#杆新架设导线","powerOffId":"2020050931020634"},{"poweroffId":2020050931020633,"sgpoweroffId":null,"subsName":"","lineName":"10kV新叶Y341线","pubTranName":"檀村童宅坞台区,大慈岩村大湾里台区,大慈岩村乌龙庙台区,大慈岩村大坞台区,","scope":"浙江省-杭州市-建德市-大慈岩镇 檀村行政村童宅坞自然村；大慈岩行政村大坞自然村、大湾里自然村、排塘自然村区域用户。","startTime":"2020-05-20 06:00:00","stopDate":"2020-05-20 13:00:00","orgNo":"3340180","typeCode":"计划停电","poweroffArea":"110kV慈岩变:新叶Y341线-大坞支线0#杆开关后段","poweroffReason":"大坞支线11#-12#杆导线对弱点线路距离不足0.3米消缺","powerTime":"2020-05-20 12:29:19","powerComm":"已送电","subsNo":"","lineNo":"","tgNo":"","tgName":null,"infoStatus":"1","orgName":"国网浙江建德市供电有限公司","typeName":null,"infoStatusName":null,"dateDay":null,"orgNos":null,"nowTime":null,"countyName":null,"streetName":null,"villageName":null,"roadName":null,"communityName":null,"tranName":null,"sdLineName":null,"cityCode":"3340180","cityName":"国网浙江建德市供电有限公司","provinceCode":null,"stopTime":"2020-05-20 13:00:00","powerType":"全部","powerOffArea":"110kV慈岩变:新叶Y341线-大坞支线0#杆开关后段","powerOffReason":"大坞支线11#-12#杆导线对弱点线路距离不足0.3米消缺","powerOffId":"2020050931020633"}],"pageModel":{"pageNow":196,"totalCount":17788,"totalPage":1779,"tableRows":0,"pageCount":10,"beginCount":1950},"isExperi":"1"}