{"message":"","today":"2020-06-15","seleList":[{"poweroffId":2020061531020649,"sgpoweroffId":null,"subsName":"","lineName":"10kV怡合T199线","pubTranName":"六亩坑1号公变,","scope":"浙江省-杭州市-桐庐县-合村乡-高凉亭行政村(大溪自然村,六亩坑自然村)","startTime":"2020-06-15 20:03:00","stopDate":"2020-06-15 23:59:00","orgNo":"3340150","typeCode":"电网故障停限电","poweroffArea":"35kV合村变:怡合T199线六亩坑1号公变配变","poweroffReason":"(低压停电信息)低压开关跳闸","powerTime":"","powerComm":"","subsNo":"","lineNo":"","tgNo":"","tgName":null,"infoStatus":"1","orgName":"国网浙江桐庐县供电公司","typeName":null,"infoStatusName":null,"dateDay":null,"orgNos":null,"nowTime":null,"countyName":null,"streetName":null,"villageName":null,"roadName":null,"communityName":null,"tranName":null,"sdLineName":null,"cityCode":"3340150","cityName":"国网浙江桐庐县供电公司","provinceCode":null,"stopTime":"2020-06-15 23:59:00","powerType":"未送电","powerOffArea":"35kV合村变:怡合T199线六亩坑1号公变配变","powerOffReason":"(低压停电信息)低压开关跳闸","powerOffId":"2020061531020649"},{"poweroffId":2020061531020638,"sgpoweroffId":null,"subsName":"","lineName":"10kV家东T565线","pubTranName":"美庐1号公变,","scope":"浙江省-杭州市-桐庐县-凤川街道-翙岗行政村(环镇北路,凤川大道)、春江美庐2期14-16层","startTime":"2020-06-15 19:11:34","stopDate":"2020-06-15 23:59:34","orgNo":"3340150","typeCode":"电网故障停限电","poweroffArea":"110kV旺家变:家东T565线-美庐1号公变后段","poweroffReason":"(低压停电信息)低压开关跳闸","powerTime":"","powerComm":"","subsNo":"","lineNo":"","tgNo":"","tgName":null,"infoStatus":"1","orgName":"国网浙江桐庐县供电公司","typeName":null,"infoStatusName":null,"dateDay":null,"orgNos":null,"nowTime":null,"countyName":null,"streetName":null,"villageName":null,"roadName":null,"communityName":null,"tranName":null,"sdLineName":null,"cityCode":"3340150","cityName":"国网浙江桐庐县供电公司","provinceCode":null,"stopTime":"2020-06-15 23:59:34","powerType":"未送电","powerOffArea":"110kV旺家变:家东T565线-美庐1号公变后段","powerOffReason":"(低压停电信息)低压开关跳闸","powerOffId":"2020061531020638"},{"poweroffId":2020061531020621,"sgpoweroffId":null,"subsName":"","lineName":"10kV笕桥9739线","pubTranName":"曙城（一）,","scope":"浙江省-杭州市-江干区-笕桥镇-东港社区-机场路","startTime":"2020-06-15 18:22:00","stopDate":"2020-06-15 20:00:00","orgNo":"3340101","typeCode":"电网故障停限电","poweroffArea":"110kV下宁变:笕桥9739线曙城（一）配变","poweroffReason":"高压开关跳闸 原停电结束时间为2020-06-15 23:30:00,为减少客户停电时间,加快工作进度,提前送电,现变更停电结束时间为2020-06-15 20:00:00","powerTime":"2020-06-15 19:26:28","powerComm":"已送电","subsNo":"","lineNo":"","tgNo":"","tgName":null,"infoStatus":"1","orgName":"浙江杭州电力客户服务中心","typeName":null,"infoStatusName":null,"dateDay":null,"orgNos":null,"nowTime":null,"countyName":null,"streetName":null,"villageName":null,"roadName":null,"communityName":null,"tranName":null,"sdLineName":null,"cityCode":"3340101","cityName":"浙江杭州电力客户服务中心","provinceCode":null,"stopTime":"2020-06-15 20:00:00","powerType":"全部","powerOffArea":"110kV下宁变:笕桥9739线曙城（一）配变","powerOffReason":"高压开关跳闸 原停电结束时间为2020-06-15 23:30:00,为减少客户停电时间,加快工作进度,提前送电,现变更停电结束时间为2020-06-15 20:00:00","powerOffId":"2020061531020621"},{"poweroffId":2020061531020620,"sgpoweroffId":null,"subsName":"","lineName":"10kV笕桥9739线","pubTranName":"曙城（九）,","scope":"浙江省-杭州市-江干区-笕桥镇(黎明社区-机场路,东港社区-机场路)","startTime":"2020-06-15 18:22:00","stopDate":"2020-06-15 20:00:00","orgNo":"3340101","typeCode":"电网故障停限电","poweroffArea":"110kV下宁变:笕桥9739线曙城（九）配变","poweroffReason":"高压开关跳闸 原停电结束时间为2020-06-15 23:30:00,为减少客户停电时间,加快工作进度,提前送电,现变更停电结束时间为2020-06-15 20:00:00","powerTime":"2020-06-15 19:26:49","powerComm":"已送电","subsNo":"","lineNo":"","tgNo":"","tgName":null,"infoStatus":"1","orgName":"浙江杭州电力客户服务中心","typeName":null,"infoStatusName":null,"dateDay":null,"orgNos":null,"nowTime":null,"countyName":null,"streetName":null,"villageName":null,"roadName":null,"communityName":null,"tranName":null,"sdLineName":null,"cityCode":"3340101","cityName":"浙江杭州电力客户服务中心","provinceCode":null,"stopTime":"2020-06-15 20:00:00","powerType":"全部","powerOffArea":"110kV下宁变:笕桥9739线曙城（九）配变","powerOffReason":"高压开关跳闸 原停电结束时间为2020-06-15 23:30:00,为减少客户停电时间,加快工作进度,提前送电,现变更停电结束时间为2020-06-15 20:00:00","powerOffId":"2020061531020620"},{"poweroffId":2020061531020619,"sgpoweroffId":null,"subsName":"","lineName":"10kV万同9815线","pubTranName":"水墩(五),玖樟十三,草庄置业6#,草庄置业5#,玖樟三,万草（七）,万草（一）,宁油,杭州万佳针织科技有限公司,万草（九）,玖樟一,玖樟九,玖樟七,万草（三）,玖樟五,水墩(一),水墩(三),水墩(七),草庄置业4#,玖樟十一,万草（五）,构桔（一）,","scope":"浙江省-杭州市-江干区-笕桥镇-草庄社区(机场路,新风路),笕桥街道(花园社区-机场路,水墩社区-机场路309号,笕桥社区-开创路,黎明社区-开创街-开创街);误彭埠镇-杭州下宁路加油站有限公司,笕桥镇(杭州万利汽车修理有限公司,杭州睿客物业管理服务有限公司)","startTime":"2020-06-15 18:22:00","stopDate":"2020-06-15 19:50:00","orgNo":"3340101","typeCode":"电网故障停限电","poweroffArea":"110kV笕桥变:万同9815线万同9815线开关后段","poweroffReason":"高压开关跳闸 原停电结束时间为2020-06-15 23:30:00,为减少客户停电时间,加快工作进度,提前送电,现变更停电结束时间为2020-06-15 19:50:00","powerTime":"2020-06-15 19:23:18","powerComm":"已送电","subsNo":"","lineNo":"","tgNo":"","tgName":null,"infoStatus":"1","orgName":"浙江杭州电力客户服务中心","typeName":null,"infoStatusName":null,"dateDay":null,"orgNos":null,"nowTime":null,"countyName":null,"streetName":null,"villageName":null,"roadName":null,"communityName":null,"tranName":null,"sdLineName":null,"cityCode":"3340101","cityName":"浙江杭州电力客户服务中心","provinceCode":null,"stopTime":"2020-06-15 19:50:00","powerType":"全部","powerOffArea":"110kV笕桥变:万同9815线万同9815线开关后段","powerOffReason":"高压开关跳闸 原停电结束时间为2020-06-15 23:30:00,为减少客户停电时间,加快工作进度,提前送电,现变更停电结束时间为2020-06-15 19:50:00","powerOffId":"2020061531020619"},{"poweroffId":2020061531020618,"sgpoweroffId":null,"subsName":"","lineName":"10kV笕桥9739线","pubTranName":"曙城（十一）,曙城（一）,曙城（五）,曙城（七）,曙城（九）,曙城（三）,曙城（十三）,","scope":"浙江省-杭州市-江干区-笕桥镇-东港社区(机场路,东宁路),笕桥镇(弄口社区-机场路,黎明社区-机场路,花园社区-机场路)","startTime":"2020-06-15 18:28:48","stopDate":"2020-06-15 20:00:00","orgNo":"3340101","typeCode":"电网故障停限电","poweroffArea":"110kV下宁变:笕桥9739线曙城站村曙8084C线后段","poweroffReason":"高压开关跳闸 原停电结束时间为2020-06-15 23:22:00,为减少客户停电时间,加快工作进度,提前送电,现变更停电结束时间为2020-06-15 20:00:00","powerTime":"2020-06-15 19:27:04","powerComm":"已送电","subsNo":"","lineNo":"","tgNo":"","tgName":null,"infoStatus":"1","orgName":"浙江杭州电力客户服务中心","typeName":null,"infoStatusName":null,"dateDay":null,"orgNos":null,"nowTime":null,"countyName":null,"streetName":null,"villageName":null,"roadName":null,"communityName":null,"tranName":null,"sdLineName":null,"cityCode":"3340101","cityName":"浙江杭州电力客户服务中心","provinceCode":null,"stopTime":"2020-06-15 20:00:00","powerType":"全部","powerOffArea":"110kV下宁变:笕桥9739线曙城站村曙8084C线后段","powerOffReason":"高压开关跳闸 原停电结束时间为2020-06-15 23:22:00,为减少客户停电时间,加快工作进度,提前送电,现变更停电结束时间为2020-06-15 20:00:00","powerOffId":"2020061531020618"},{"poweroffId":2020061531020528,"sgpoweroffId":null,"subsName":"","lineName":"10kV桕蓬9134线","pubTranName":"九乔保障二期二区61208392042#变压器,九乔保障二期二区61208392051#变压器,","scope":"浙江省-杭州市-余杭区-乔司街道-杭州余杭九乔保障房建设有限公司","startTime":"2020-06-15 16:34:33","stopDate":"2020-06-15 18:34:33","orgNo":"3340140","typeCode":"电网故障停限电","poweroffArea":"110kV蚕桑变:桕蓬9134线三角安置房四区分线7#杆开关后段","poweroffReason":"高压开关跳闸","powerTime":"2020-06-15 17:45:00","powerComm":"已送电","subsNo":"","lineNo":"","tgNo":"","tgName":null,"infoStatus":"1","orgName":"国网浙江杭州市余杭区供电有限公司","typeName":null,"infoStatusName":null,"dateDay":null,"orgNos":null,"nowTime":null,"countyName":null,"streetName":null,"villageName":null,"roadName":null,"communityName":null,"tranName":null,"sdLineName":null,"cityCode":"3340140","cityName":"国网浙江杭州市余杭区供电有限公司","provinceCode":null,"stopTime":"2020-06-15 18:34:33","powerType":"全部","powerOffArea":"110kV蚕桑变:桕蓬9134线三角安置房四区分线7#杆开关后段","powerOffReason":"高压开关跳闸","powerOffId":"2020061531020528"},{"poweroffId":2020061531020502,"sgpoweroffId":null,"subsName":"","lineName":"10kV东门D121线","pubTranName":"杭州富阳新登静电喷塑厂1,静电喷塑厂3#,静电喷塑厂2#,","scope":"浙江省-杭州市-富阳区-新登镇-杭州富阳新登静电喷塑厂","startTime":"2020-06-15 16:15:28","stopDate":"2020-06-15 18:15:28","orgNo":"3340170","typeCode":"电网故障停限电","poweroffArea":"110kV新登变:东门D121线塑机厂分线后段","poweroffReason":"高压开关跳闸","powerTime":"2020-06-15 17:21:01","powerComm":"已送电","subsNo":"","lineNo":"","tgNo":"","tgName":null,"infoStatus":"1","orgName":"国网浙江杭州市富阳区供电公司","typeName":null,"infoStatusName":null,"dateDay":null,"orgNos":null,"nowTime":null,"countyName":null,"streetName":null,"villageName":null,"roadName":null,"communityName":null,"tranName":null,"sdLineName":null,"cityCode":"3340170","cityName":"国网浙江杭州市富阳区供电公司","provinceCode":null,"stopTime":"2020-06-15 18:15:28","powerType":"全部","powerOffArea":"110kV新登变:东门D121线塑机厂分线后段","powerOffReason":"高压开关跳闸","powerOffId":"2020061531020502"},{"poweroffId":2020061531020493,"sgpoweroffId":null,"subsName":"","lineName":"10kV美家G774线","pubTranName":"海珀雅苑14#公变,6#,海珀雅苑16#公变,海珀雅苑17#公变,海珀雅苑4#专变,II段专变,海珀雅苑13#公变,海珀雅苑11#公变,5#,海珀雅苑9#公变,海珀雅苑15#公变,海珀雅苑3#专变,1#,1#,海珀雅苑18#公变,8#,7#,2#,海珀雅苑10#公变,海珀雅苑12#公变,","scope":"浙江省-杭州市-余杭区-东湖街道-海珀社区-雨荷路,经济开发区-海珀社区(雨荷路,振兴西路);东湖街道(浙江赞誉物业管理有限公司余杭分公司,浙江金帝物业服务有限公司临平分公司)","startTime":"2020-06-15 16:11:00","stopDate":"2020-06-15 21:41:00","orgNo":"3340140","typeCode":"电网故障停限电","poweroffArea":"110kV金家变:美家G774线金帝开关站金帝开关站美家G774线后段","poweroffReason":"高压开关跳闸 原停电结束时间为2020-06-15 18:11:00,因现场故障情况复杂,现变更停电结束时间为2020-06-15 21:41:00","powerTime":"","powerComm":"","subsNo":"","lineNo":"","tgNo":"","tgName":null,"infoStatus":"1","orgName":"国网浙江杭州市余杭区供电有限公司","typeName":null,"infoStatusName":null,"dateDay":null,"orgNos":null,"nowTime":null,"countyName":null,"streetName":null,"villageName":null,"roadName":null,"communityName":null,"tranName":null,"sdLineName":null,"cityCode":"3340140","cityName":"国网浙江杭州市余杭区供电有限公司","provinceCode":null,"stopTime":"2020-06-15 21:41:00","powerType":"未送电","powerOffArea":"110kV金家变:美家G774线金帝开关站金帝开关站美家G774线后段","powerOffReason":"高压开关跳闸 原停电结束时间为2020-06-15 18:11:00,因现场故障情况复杂,现变更停电结束时间为2020-06-15 21:41:00","powerOffId":"2020061531020493"},{"poweroffId":2020061531020491,"sgpoweroffId":null,"subsName":"","lineName":"10kV地海G996线","pubTranName":"绿城物业服务集团有限公司余杭分公司2#,中心大道1＃路灯变,星光社区D1区块公变,蓝庭1#公变,蓝江晶品阁2#公变,振兴西路路灯变,I段配变,蓝庭13#公变,杭州余杭金腾房地产开发有限公司2#,杭州余杭金腾房地产开发有限公司1#,蓝庭11#公变,1,蓝庭12#公变,蓝庭5#专变,新星幼儿园（星光分院）基建变,蓝庭15#公变,2#,晶品1#专变,蓝庭2#公变,蓝庭0002601537II段02#专变,绿城物业服务集团有限公司余杭分公司1#,蓝庭6#专变,月荷嘉苑公变,蓝江晶品阁1#公变,蓝江晶品阁3#公变,蓝庭14#公变,蓝江晶品阁4#公变,蓝庭16#公变,","scope":"浙江省-杭州市-余杭区-塘栖镇-钱江经济开发区社区-顺达路,东湖街道-经济开发区(北沙西路,振兴西路),经济开发区(建富社区-月荷路,蓝庭社区-振兴西路),东湖街道(星光社区-D-1区块,陈家木桥村-D-1区块),临平街道(小林行政村-星光D-1区块,建富行政村-星光农居点D-1区块,茅山社区-顺达路,星光社区-星光D-1区块,庄里行政村-星光社区);经济开发区-绿城物业服务集团有限公司杭州第六分公司,临平街道(杭州余杭经济开发建设有限公司,杭州万联彩家物业管理有限公司),东湖街道(杭州市余杭区新星幼儿园,杭州余杭经济开发建设有限公司,杭州余杭金腾房地产开发有限公司,杭州市余杭区育才实验小学)","startTime":"2020-06-15 16:07:00","stopDate":"2020-06-15 18:07:00","orgNo":"3340140","typeCode":"电网故障停限电","poweroffArea":"110kV茅山变:地海G996线地海G996线开关后段","poweroffReason":"高压开关跳闸","powerTime":"2020-06-15 17:37:00","powerComm":"已送电","subsNo":"","lineNo":"","tgNo":"","tgName":null,"infoStatus":"1","orgName":"国网浙江杭州市余杭区供电有限公司","typeName":null,"infoStatusName":null,"dateDay":null,"orgNos":null,"nowTime":null,"countyName":null,"streetName":null,"villageName":null,"roadName":null,"communityName":null,"tranName":null,"sdLineName":null,"cityCode":"3340140","cityName":"国网浙江杭州市余杭区供电有限公司","provinceCode":null,"stopTime":"2020-06-15 18:07:00","powerType":"全部","powerOffArea":"110kV茅山变:地海G996线地海G996线开关后段","powerOffReason":"高压开关跳闸","powerOffId":"2020061531020491"}],"pageModel":{"pageNow":1,"totalCount":17786,"totalPage":1779,"tableRows":0,"pageCount":10,"beginCount":0},"isExperi":"1"}