{"message":"","today":"2020-06-15","seleList":[{"poweroffId":2020050931020585,"sgpoweroffId":null,"subsName":"","lineName":"10kV仁里V312线","pubTranName":"楼下村(朱家),","scope":"浙江省-杭州市-临安市-岛石镇-黄川村楼下","startTime":"2020-05-19 13:10:00","stopDate":"2020-05-19 17:50:00","orgNo":"3340160","typeCode":"计划停电","poweroffArea":"35kV岛石变:仁里V312线-楼下村(朱家)配变","poweroffReason":"楼下村朱家增容","powerTime":"2020-05-19 17:01:55","powerComm":"已送电","subsNo":"","lineNo":"","tgNo":"","tgName":null,"infoStatus":"1","orgName":"国网浙江临安市供电公司","typeName":null,"infoStatusName":null,"dateDay":null,"orgNos":null,"nowTime":null,"countyName":null,"streetName":null,"villageName":null,"roadName":null,"communityName":null,"tranName":null,"sdLineName":null,"cityCode":"3340160","cityName":"国网浙江临安市供电公司","provinceCode":null,"stopTime":"2020-05-19 17:50:00","powerType":"全部","powerOffArea":"35kV岛石变:仁里V312线-楼下村(朱家)配变","powerOffReason":"楼下村朱家增容","powerOffId":"2020050931020585"},{"poweroffId":2020050931020582,"sgpoweroffId":null,"subsName":"","lineName":"10kV岛石V168线","pubTranName":"流水村,","scope":"浙江省-杭州市-临安市-岛石镇-流水村","startTime":"2020-05-18 08:10:00","stopDate":"2020-05-18 12:20:00","orgNo":"3340160","typeCode":"计划停电","poweroffArea":"35kV岛石变:岛石V168线-流水村配变","poweroffReason":"流水村增容布点 原停电结束时间为2020-05-18 12:50:00,为减少客户停电时间,加快工作进度,提前送电,现变更停电结束时间为2020-05-18 12:20:00","powerTime":"2020-05-18 11:45:13","powerComm":"已送电","subsNo":"","lineNo":"","tgNo":"","tgName":null,"infoStatus":"1","orgName":"国网浙江临安市供电公司","typeName":null,"infoStatusName":null,"dateDay":null,"orgNos":null,"nowTime":null,"countyName":null,"streetName":null,"villageName":null,"roadName":null,"communityName":null,"tranName":null,"sdLineName":null,"cityCode":"3340160","cityName":"国网浙江临安市供电公司","provinceCode":null,"stopTime":"2020-05-18 12:20:00","powerType":"全部","powerOffArea":"35kV岛石变:岛石V168线-流水村配变","powerOffReason":"流水村增容布点 原停电结束时间为2020-05-18 12:50:00,为减少客户停电时间,加快工作进度,提前送电,现变更停电结束时间为2020-05-18 12:20:00","powerOffId":"2020050931020582"},{"poweroffId":2020050931020578,"sgpoweroffId":null,"subsName":"","lineName":"10kV顺溪V261线","pubTranName":"昱岭关村曼头社,","scope":"浙江省-杭州市-临安市-清凉峰镇-昱岭关村曼头社","startTime":"2020-05-18 07:40:00","stopDate":"2020-05-18 11:50:00","orgNo":"3340160","typeCode":"计划停电","poweroffArea":"35kV颊口变:顺溪V261线-昱岭关村曼头社配变","poweroffReason":"昱岭关村曼头社增容布点 原停电结束时间为2020-05-18 12:20:00,为减少客户停电时间,加快工作进度,提前送电,现变更停电结束时间为2020-05-18 11:50:00","powerTime":"2020-05-18 11:16:54","powerComm":"已送电","subsNo":"","lineNo":"","tgNo":"","tgName":null,"infoStatus":"1","orgName":"国网浙江临安市供电公司","typeName":null,"infoStatusName":null,"dateDay":null,"orgNos":null,"nowTime":null,"countyName":null,"streetName":null,"villageName":null,"roadName":null,"communityName":null,"tranName":null,"sdLineName":null,"cityCode":"3340160","cityName":"国网浙江临安市供电公司","provinceCode":null,"stopTime":"2020-05-18 11:50:00","powerType":"全部","powerOffArea":"35kV颊口变:顺溪V261线-昱岭关村曼头社配变","powerOffReason":"昱岭关村曼头社增容布点 原停电结束时间为2020-05-18 12:20:00,为减少客户停电时间,加快工作进度,提前送电,现变更停电结束时间为2020-05-18 11:50:00","powerOffId":"2020050931020578"},{"poweroffId":2020050931020574,"sgpoweroffId":null,"subsName":"","lineName":"10kV马啸V262线","pubTranName":"马啸村吕家,","scope":"浙江省-杭州市-临安市-清凉峰镇-马啸村吕家。","startTime":"2020-05-19 13:10:00","stopDate":"2020-05-19 17:50:00","orgNo":"3340160","typeCode":"计划停电","poweroffArea":"35kV颊口变:马啸V262线-马啸村吕家配变","poweroffReason":"马啸村吕家增容布点","powerTime":"2020-05-19 17:40:07","powerComm":"已送电","subsNo":"","lineNo":"","tgNo":"","tgName":null,"infoStatus":"1","orgName":"国网浙江临安市供电公司","typeName":null,"infoStatusName":null,"dateDay":null,"orgNos":null,"nowTime":null,"countyName":null,"streetName":null,"villageName":null,"roadName":null,"communityName":null,"tranName":null,"sdLineName":null,"cityCode":"3340160","cityName":"国网浙江临安市供电公司","provinceCode":null,"stopTime":"2020-05-19 17:50:00","powerType":"全部","powerOffArea":"35kV颊口变:马啸V262线-马啸村吕家配变","powerOffReason":"马啸村吕家增容布点","powerOffId":"2020050931020574"},{"poweroffId":2020050931020561,"sgpoweroffId":null,"subsName":"","lineName":"10kV上陈D295线","pubTranName":"周公坞村5号水坑口公变,","scope":"浙江省-杭州市-富阳区-银湖街道-观前行政村(里周公坞自然村,观前自然村,周公坞自然村,直坞口自然村)","startTime":"2020-05-09 16:10:19","stopDate":"2020-05-09 17:10:19","orgNo":"3340170","typeCode":"电网故障停限电","poweroffArea":"35kV新义变:上陈D295线-周公坞村5#水坑口公变后段","poweroffReason":"高压开关跳闸","powerTime":"2020-05-09 16:30:59","powerComm":"已送电","subsNo":"","lineNo":"","tgNo":"","tgName":null,"infoStatus":"1","orgName":"国网浙江杭州市富阳区供电公司","typeName":null,"infoStatusName":null,"dateDay":null,"orgNos":null,"nowTime":null,"countyName":null,"streetName":null,"villageName":null,"roadName":null,"communityName":null,"tranName":null,"sdLineName":null,"cityCode":"3340170","cityName":"国网浙江杭州市富阳区供电公司","provinceCode":null,"stopTime":"2020-05-09 17:10:19","powerType":"全部","powerOffArea":"35kV新义变:上陈D295线-周公坞村5#水坑口公变后段","powerOffReason":"高压开关跳闸","powerOffId":"2020050931020561"},{"poweroffId":2020050931020523,"sgpoweroffId":null,"subsName":"","lineName":"10kV下施Y737线","pubTranName":"1#,1#,2#,","scope":"浙江省-杭州市-建德市-下涯镇浙江格宜医疗器械有限公司,浙江中能变压器有限公司","startTime":"2020-05-09 15:43:42","stopDate":"2020-05-09 17:43:42","orgNo":"3340180","typeCode":"电网故障停限电","poweroffArea":"110kV马目变:下施Y737线小微园支线开关后段","poweroffReason":"高压开关跳闸","powerTime":"2020-05-09 16:58:30","powerComm":"已送电","subsNo":"","lineNo":"","tgNo":"","tgName":null,"infoStatus":"1","orgName":"国网浙江建德市供电有限公司","typeName":null,"infoStatusName":null,"dateDay":null,"orgNos":null,"nowTime":null,"countyName":null,"streetName":null,"villageName":null,"roadName":null,"communityName":null,"tranName":null,"sdLineName":null,"cityCode":"3340180","cityName":"国网浙江建德市供电有限公司","provinceCode":null,"stopTime":"2020-05-09 17:43:42","powerType":"全部","powerOffArea":"110kV马目变:下施Y737线小微园支线开关后段","powerOffReason":"高压开关跳闸","powerOffId":"2020050931020523"},{"poweroffId":2020050931020493,"sgpoweroffId":null,"subsName":"","lineName":"10kV下干D385线","pubTranName":"景山村3号牛峰岭公变,","scope":"浙江省-杭州市-富阳区-常安镇-景山行政村-牛峰岭自然村","startTime":"2020-05-09 15:28:00","stopDate":"2020-05-09 17:28:00","orgNo":"3340170","typeCode":"电网故障停限电","poweroffArea":"35kV湖源变:下干D385线景山村3号牛峰岭公变配变","poweroffReason":"高压开关跳闸","powerTime":"2020-05-09 16:40:40","powerComm":"已送电","subsNo":"","lineNo":"","tgNo":"","tgName":null,"infoStatus":"1","orgName":"国网浙江杭州市富阳区供电公司","typeName":null,"infoStatusName":null,"dateDay":null,"orgNos":null,"nowTime":null,"countyName":null,"streetName":null,"villageName":null,"roadName":null,"communityName":null,"tranName":null,"sdLineName":null,"cityCode":"3340170","cityName":"国网浙江杭州市富阳区供电公司","provinceCode":null,"stopTime":"2020-05-09 17:28:00","powerType":"全部","powerOffArea":"35kV湖源变:下干D385线景山村3号牛峰岭公变配变","powerOffReason":"高压开关跳闸","powerOffId":"2020050931020493"},{"poweroffId":2020050931020492,"sgpoweroffId":null,"subsName":"","lineName":"10kV郜岭V293线","pubTranName":"10kV九狮村[朱陀岭水库边]公变,","scope":"浙江省-杭州市-临安市-天目山镇-九狮行政村-朱陀岭水库边一带","startTime":"2020-05-20 13:30:00","stopDate":"2020-05-20 17:30:00","orgNo":"3340160","typeCode":"计划停电","poweroffArea":"35kV西天目变郜岭V293线10kV九狮村朱陀岭水库边公变低压闸刀","poweroffReason":"(低压停电信息)低压改造","powerTime":"2020-05-20 17:08:21","powerComm":"已送电","subsNo":"","lineNo":"","tgNo":"","tgName":null,"infoStatus":"1","orgName":"国网浙江临安市供电公司","typeName":null,"infoStatusName":null,"dateDay":null,"orgNos":null,"nowTime":null,"countyName":null,"streetName":null,"villageName":null,"roadName":null,"communityName":null,"tranName":null,"sdLineName":null,"cityCode":"3340160","cityName":"国网浙江临安市供电公司","provinceCode":null,"stopTime":"2020-05-20 17:30:00","powerType":"全部","powerOffArea":"35kV西天目变郜岭V293线10kV九狮村朱陀岭水库边公变低压闸刀","powerOffReason":"(低压停电信息)低压改造","powerOffId":"2020050931020492"},{"poweroffId":2020050931020491,"sgpoweroffId":null,"subsName":"","lineName":"10kV悦墅D987线","pubTranName":"金桥村23#第四联3公变,","scope":"浙江省-杭州市-富阳区-富春街道-金秋社区(公望街,金桥村)一带","startTime":"2020-05-13 08:30:00","stopDate":"2020-05-13 10:40:00","orgNo":"3340170","typeCode":"临时停电","poweroffArea":"110kV育才变:悦墅D987线-金桥村23#第四联3公变后段","poweroffReason":"(低压停电信息)金桥村23#第四联3公变1#开关2#开关，第四年126号安装（金桥股份经济合作社6620267513、6620267514、6620267515、6620267516、6620267517、6620267518、）单相表6只、搭接等工作。","powerTime":"2020-05-13 10:30:14","powerComm":"已送电","subsNo":"","lineNo":"","tgNo":"","tgName":null,"infoStatus":"1","orgName":"国网浙江杭州市富阳区供电公司","typeName":null,"infoStatusName":null,"dateDay":null,"orgNos":null,"nowTime":null,"countyName":null,"streetName":null,"villageName":null,"roadName":null,"communityName":null,"tranName":null,"sdLineName":null,"cityCode":"3340170","cityName":"国网浙江杭州市富阳区供电公司","provinceCode":null,"stopTime":"2020-05-13 10:40:00","powerType":"全部","powerOffArea":"110kV育才变:悦墅D987线-金桥村23#第四联3公变后段","powerOffReason":"(低压停电信息)金桥村23#第四联3公变1#开关2#开关，第四年126号安装（金桥股份经济合作社6620267513、6620267514、6620267515、6620267516、6620267517、6620267518、）单相表6只、搭接等工作。","powerOffId":"2020050931020491"},{"poweroffId":2020050931020490,"sgpoweroffId":null,"subsName":"","lineName":"10kV下干D385线","pubTranName":"常南村4号上南坞公变,","scope":"浙江省-杭州市-富阳区-湖源乡-常南行政村-上南坞自然村","startTime":"2020-05-09 15:28:00","stopDate":"2020-05-09 17:28:00","orgNo":"3340170","typeCode":"电网故障停限电","poweroffArea":"35kV湖源变:下干D385线常南村4号上南坞公变配变","poweroffReason":"高压开关跳闸","powerTime":"2020-05-09 16:40:52","powerComm":"已送电","subsNo":"","lineNo":"","tgNo":"","tgName":null,"infoStatus":"1","orgName":"国网浙江杭州市富阳区供电公司","typeName":null,"infoStatusName":null,"dateDay":null,"orgNos":null,"nowTime":null,"countyName":null,"streetName":null,"villageName":null,"roadName":null,"communityName":null,"tranName":null,"sdLineName":null,"cityCode":"3340170","cityName":"国网浙江杭州市富阳区供电公司","provinceCode":null,"stopTime":"2020-05-09 17:28:00","powerType":"全部","powerOffArea":"35kV湖源变:下干D385线常南村4号上南坞公变配变","powerOffReason":"高压开关跳闸","powerOffId":"2020050931020490"}],"pageModel":{"pageNow":198,"totalCount":17788,"totalPage":1779,"tableRows":0,"pageCount":10,"beginCount":1970},"isExperi":"1"}