{"message":"","today":"2020-06-15","seleList":[{"poweroffId":2020050931020435,"sgpoweroffId":null,"subsName":"","lineName":"10kV杨华V731线","pubTranName":"南庄村[横溪对面畈],","scope":"浙江省-杭州市-临安区-太湖源镇-南庄行政村-横溪自然村一带","startTime":"2020-05-19 08:10:00","stopDate":"2020-05-19 13:00:00","orgNo":"3340160","typeCode":"计划停电","poweroffArea":"110kV杨岭变:杨华V731线-南庄村[横溪对面畈]后段","poweroffReason":"公变增容工作。","powerTime":"2020-05-19 12:32:52","powerComm":"已送电","subsNo":"","lineNo":"","tgNo":"","tgName":null,"infoStatus":"1","orgName":"国网浙江临安市供电公司","typeName":null,"infoStatusName":null,"dateDay":null,"orgNos":null,"nowTime":null,"countyName":null,"streetName":null,"villageName":null,"roadName":null,"communityName":null,"tranName":null,"sdLineName":null,"cityCode":"3340160","cityName":"国网浙江临安市供电公司","provinceCode":null,"stopTime":"2020-05-19 13:00:00","powerType":"全部","powerOffArea":"110kV杨岭变:杨华V731线-南庄村[横溪对面畈]后段","powerOffReason":"公变增容工作。","powerOffId":"2020050931020435"},{"poweroffId":2020050931020434,"sgpoweroffId":null,"subsName":"","lineName":"10kV锦秀V402线","pubTranName":"锦绣村[石桥头]公变,","scope":"浙江省-杭州市-临安区-玲珑街道-锦绣行政村(锦绣自然村,坎上自然村,石桥头自然村)一带","startTime":"2020-05-19 07:30:00","stopDate":"2020-05-19 12:00:00","orgNo":"3340160","typeCode":"计划停电","poweroffArea":"110kV秀水变:锦秀V402线-锦绣村[石桥头]公变后段","poweroffReason":"公变增容工作。","powerTime":"2020-05-19 11:50:52","powerComm":"已送电","subsNo":"","lineNo":"","tgNo":"","tgName":null,"infoStatus":"1","orgName":"国网浙江临安市供电公司","typeName":null,"infoStatusName":null,"dateDay":null,"orgNos":null,"nowTime":null,"countyName":null,"streetName":null,"villageName":null,"roadName":null,"communityName":null,"tranName":null,"sdLineName":null,"cityCode":"3340160","cityName":"国网浙江临安市供电公司","provinceCode":null,"stopTime":"2020-05-19 12:00:00","powerType":"全部","powerOffArea":"110kV秀水变:锦秀V402线-锦绣村[石桥头]公变后段","powerOffReason":"公变增容工作。","powerOffId":"2020050931020434"},{"poweroffId":2020050931020432,"sgpoweroffId":null,"subsName":"","lineName":"10kV杨华V731线","pubTranName":"青云村[上水口],","scope":"浙江省-杭州市-临安区-太湖源镇-青云行政村-水口自然村一带","startTime":"2020-05-18 10:00:00","stopDate":"2020-05-18 15:30:00","orgNo":"3340160","typeCode":"计划停电","poweroffArea":"110kV杨岭变:杨华V731线-青云村[上水口]后段","poweroffReason":"公变增容工作","powerTime":"2020-05-18 15:20:10","powerComm":"已送电","subsNo":"","lineNo":"","tgNo":"","tgName":null,"infoStatus":"1","orgName":"国网浙江临安市供电公司","typeName":null,"infoStatusName":null,"dateDay":null,"orgNos":null,"nowTime":null,"countyName":null,"streetName":null,"villageName":null,"roadName":null,"communityName":null,"tranName":null,"sdLineName":null,"cityCode":"3340160","cityName":"国网浙江临安市供电公司","provinceCode":null,"stopTime":"2020-05-18 15:30:00","powerType":"全部","powerOffArea":"110kV杨岭变:杨华V731线-青云村[上水口]后段","powerOffReason":"公变增容工作","powerOffId":"2020050931020432"},{"poweroffId":2020050931020404,"sgpoweroffId":null,"subsName":"","lineName":"10kV洋尾Y317线","pubTranName":"高垣村九头湾台区,","scope":"浙江省-杭州市-建德市-大洋镇-高垣行政村 转头湾自然村,里前自然村,高垣自然村,蔡坞自然村","startTime":"2020-05-09 14:44:00","stopDate":"2020-05-09 16:00:00","orgNo":"3340180","typeCode":"电网故障停限电","poweroffArea":"35kV大洋变:洋尾Y317线高垣村九头湾台区配变","poweroffReason":"高压开关跳闸 原停电结束时间为2020-05-09 17:00:00,为减少客户停电时间,加快工作进度,提前送电,现变更停电结束时间为2020-05-09 16:00:00","powerTime":"2020-05-09 15:19:17","powerComm":"已送电","subsNo":"","lineNo":"","tgNo":"","tgName":null,"infoStatus":"1","orgName":"国网浙江建德市供电有限公司","typeName":null,"infoStatusName":null,"dateDay":null,"orgNos":null,"nowTime":null,"countyName":null,"streetName":null,"villageName":null,"roadName":null,"communityName":null,"tranName":null,"sdLineName":null,"cityCode":"3340180","cityName":"国网浙江建德市供电有限公司","provinceCode":null,"stopTime":"2020-05-09 16:00:00","powerType":"全部","powerOffArea":"35kV大洋变:洋尾Y317线高垣村九头湾台区配变","powerOffReason":"高压开关跳闸 原停电结束时间为2020-05-09 17:00:00,为减少客户停电时间,加快工作进度,提前送电,现变更停电结束时间为2020-05-09 16:00:00","powerOffId":"2020050931020404"},{"poweroffId":2020050931020399,"sgpoweroffId":null,"subsName":"","lineName":"10kV岭源191线","pubTranName":"麻境3号公变,","scope":"浙江省-杭州市-桐庐县-合村乡-合村行政村-大琅坞自然村","startTime":"2020-05-18 08:00:00","stopDate":"2020-05-18 12:00:00","orgNo":"3340150","typeCode":"计划停电","poweroffArea":"35kV合村变:岭源191线-大琅坞F9500令克后段","poweroffReason":"麻境3号公变配变增容工作","powerTime":"2020-05-18 11:55:22","powerComm":"已送电","subsNo":"","lineNo":"","tgNo":"","tgName":null,"infoStatus":"1","orgName":"国网浙江桐庐县供电公司","typeName":null,"infoStatusName":null,"dateDay":null,"orgNos":null,"nowTime":null,"countyName":null,"streetName":null,"villageName":null,"roadName":null,"communityName":null,"tranName":null,"sdLineName":null,"cityCode":"3340150","cityName":"国网浙江桐庐县供电公司","provinceCode":null,"stopTime":"2020-05-18 12:00:00","powerType":"全部","powerOffArea":"35kV合村变:岭源191线-大琅坞F9500令克后段","powerOffReason":"麻境3号公变配变增容工作","powerOffId":"2020050931020399"},{"poweroffId":2020050931020346,"sgpoweroffId":null,"subsName":"","lineName":"10kV沪瑞D620线","pubTranName":"瓜桥埠村1号雄瓜地公变,","scope":"浙江省-杭州市-富阳区-场口镇-瓜桥埠行政村-华家自然村一带","startTime":"2020-05-14 08:30:00","stopDate":"2020-05-14 14:30:00","orgNo":"3340170","typeCode":"临时停电","poweroffArea":"110kV鸿丰变:沪瑞D620线-瓜桥埠村1#雄瓜地公变低压出线后段","poweroffReason":"(低压停电信息)场口镇精品村精品线路移位工程：瓜桥埠村1#雄瓜地公变1出线1-A-1#杆向小号侧移位至路边，落火线搭接、路灯线拆移等工作。","powerTime":"2020-05-14 14:13:35","powerComm":"已送电","subsNo":"","lineNo":"","tgNo":"","tgName":null,"infoStatus":"1","orgName":"国网浙江杭州市富阳区供电公司","typeName":null,"infoStatusName":null,"dateDay":null,"orgNos":null,"nowTime":null,"countyName":null,"streetName":null,"villageName":null,"roadName":null,"communityName":null,"tranName":null,"sdLineName":null,"cityCode":"3340170","cityName":"国网浙江杭州市富阳区供电公司","provinceCode":null,"stopTime":"2020-05-14 14:30:00","powerType":"全部","powerOffArea":"110kV鸿丰变:沪瑞D620线-瓜桥埠村1#雄瓜地公变低压出线后段","powerOffReason":"(低压停电信息)场口镇精品村精品线路移位工程：瓜桥埠村1#雄瓜地公变1出线1-A-1#杆向小号侧移位至路边，落火线搭接、路灯线拆移等工作。","powerOffId":"2020050931020346"},{"poweroffId":2020050931020343,"sgpoweroffId":null,"subsName":"","lineName":"10kV沪瑞D620线","pubTranName":"瓜桥埠村2号大礼堂公变,","scope":"浙江省-杭州市-富阳区-场口镇-瓜桥埠行政村-瓜桥埠自然村一带","startTime":"2020-05-14 08:30:00","stopDate":"2020-05-14 14:30:00","orgNo":"3340170","typeCode":"临时停电","poweroffArea":"110kV鸿丰变:沪瑞D620线-瓜桥埠村2#大礼堂公变低压出线后段","poweroffReason":"(低压停电信息)场口镇精品村精品线路移位工程：瓜桥埠村2#大礼堂公变2#出线3#杆、4#杆向路边移位，导线拆装，落火线搭接、路灯线拆移等工作。","powerTime":"2020-05-14 14:13:20","powerComm":"已送电","subsNo":"","lineNo":"","tgNo":"","tgName":null,"infoStatus":"1","orgName":"国网浙江杭州市富阳区供电公司","typeName":null,"infoStatusName":null,"dateDay":null,"orgNos":null,"nowTime":null,"countyName":null,"streetName":null,"villageName":null,"roadName":null,"communityName":null,"tranName":null,"sdLineName":null,"cityCode":"3340170","cityName":"国网浙江杭州市富阳区供电公司","provinceCode":null,"stopTime":"2020-05-14 14:30:00","powerType":"全部","powerOffArea":"110kV鸿丰变:沪瑞D620线-瓜桥埠村2#大礼堂公变低压出线后段","powerOffReason":"(低压停电信息)场口镇精品村精品线路移位工程：瓜桥埠村2#大礼堂公变2#出线3#杆、4#杆向路边移位，导线拆装，落火线搭接、路灯线拆移等工作。","powerOffId":"2020050931020343"},{"poweroffId":2020050931020325,"sgpoweroffId":null,"subsName":"","lineName":"10kV鸿泰9751线","pubTranName":"黎明(8)南农,","scope":"浙江省-杭州市-江干区-笕桥街道-黎明社区-黎明九区13号附近","startTime":"2020-05-20 10:14:00","stopDate":"2020-05-20 17:30:00","orgNo":"3340101","typeCode":"计划停电","poweroffArea":"110kV下宁变:鸿泰9751线-黎明（8）农分线5#杆","poweroffReason":"杭州中宸城镇建设有限公司10kV黄家965线等线路迁改工程（CZ2018-11-044-YBQQ 宏迅 周建明638192）","powerTime":"2020-05-20 16:31:28","powerComm":"已送电","subsNo":"","lineNo":"","tgNo":"","tgName":null,"infoStatus":"1","orgName":"浙江杭州电力客户服务中心","typeName":null,"infoStatusName":null,"dateDay":null,"orgNos":null,"nowTime":null,"countyName":null,"streetName":null,"villageName":null,"roadName":null,"communityName":null,"tranName":null,"sdLineName":null,"cityCode":"3340101","cityName":"浙江杭州电力客户服务中心","provinceCode":null,"stopTime":"2020-05-20 17:30:00","powerType":"全部","powerOffArea":"110kV下宁变:鸿泰9751线-黎明（8）农分线5#杆","powerOffReason":"杭州中宸城镇建设有限公司10kV黄家965线等线路迁改工程（CZ2018-11-044-YBQQ 宏迅 周建明638192）","powerOffId":"2020050931020325"},{"poweroffId":2020050931020289,"sgpoweroffId":null,"subsName":"","lineName":"10kV里黄Y702线","pubTranName":"望山村王山顶台区,","scope":"浙江省-杭州市-建德市-梅城镇-望山行政村-王山顶自然村","startTime":"2020-05-09 12:45:00","stopDate":"2020-05-09 14:00:00","orgNo":"3340180","typeCode":"电网故障停限电","poweroffArea":"110kV南峰变:里黄Y702线-望山村王山顶台区后段","poweroffReason":"(低压停电信息)低压开关跳闸 原停电结束时间为2020-05-09 15:00:00,为减少客户停电时间,加快工作进度,提前送电,现变更停电结束时间为2020-05-09 14:00:00","powerTime":"2020-05-09 13:22:36","powerComm":"已送电（实际为一户无电，表后空开跌落。）","subsNo":"","lineNo":"","tgNo":"","tgName":null,"infoStatus":"1","orgName":"国网浙江建德市供电有限公司","typeName":null,"infoStatusName":null,"dateDay":null,"orgNos":null,"nowTime":null,"countyName":null,"streetName":null,"villageName":null,"roadName":null,"communityName":null,"tranName":null,"sdLineName":null,"cityCode":"3340180","cityName":"国网浙江建德市供电有限公司","provinceCode":null,"stopTime":"2020-05-09 14:00:00","powerType":"全部","powerOffArea":"110kV南峰变:里黄Y702线-望山村王山顶台区后段","powerOffReason":"(低压停电信息)低压开关跳闸 原停电结束时间为2020-05-09 15:00:00,为减少客户停电时间,加快工作进度,提前送电,现变更停电结束时间为2020-05-09 14:00:00","powerOffId":"2020050931020289"},{"poweroffId":2020050931020287,"sgpoweroffId":null,"subsName":"","lineName":"10kV万兆G271线","pubTranName":"云会村南山2号公变,","scope":"浙江省-杭州市-余杭区-仁和街道-云会行政村(西南山自然村,北施港自然村,王家门自然村,西南山西路,西南山北路自然村)","startTime":"2020-05-09 12:51:04","stopDate":"2020-05-09 13:51:04","orgNo":"3340140","typeCode":"电网故障停限电","poweroffArea":"110kV仁镇变:万兆G271线-云会村南山2号公变后段","poweroffReason":"高压开关跳闸 原停电结束时间为2020-05-09 14:51:04,为减少客户停电时间,加快工作进度,提前送电,现变更停电结束时间为2020-05-09 13:51:04","powerTime":"2020-05-09 13:00:29","powerComm":"已送电","subsNo":"","lineNo":"","tgNo":"","tgName":null,"infoStatus":"1","orgName":"国网浙江杭州市余杭区供电有限公司","typeName":null,"infoStatusName":null,"dateDay":null,"orgNos":null,"nowTime":null,"countyName":null,"streetName":null,"villageName":null,"roadName":null,"communityName":null,"tranName":null,"sdLineName":null,"cityCode":"3340140","cityName":"国网浙江杭州市余杭区供电有限公司","provinceCode":null,"stopTime":"2020-05-09 13:51:04","powerType":"全部","powerOffArea":"110kV仁镇变:万兆G271线-云会村南山2号公变后段","powerOffReason":"高压开关跳闸 原停电结束时间为2020-05-09 14:51:04,为减少客户停电时间,加快工作进度,提前送电,现变更停电结束时间为2020-05-09 13:51:04","powerOffId":"2020050931020287"}],"pageModel":{"pageNow":200,"totalCount":17788,"totalPage":1779,"tableRows":0,"pageCount":10,"beginCount":1990},"isExperi":"1"}