{"message":"","today":"2020-06-15","seleList":[{"poweroffId":2020050931020019,"sgpoweroffId":null,"subsName":"","lineName":"10kV洋小T324线","pubTranName":"上洋洲7号公变,","scope":"浙江省-杭州市-桐庐县-城南街道-上洋洲行政村-上洋洲自然村","startTime":"2020-05-09 06:59:13","stopDate":"2020-05-09 08:59:13","orgNo":"3340150","typeCode":"电网故障停限电","poweroffArea":"110kV洋洲变:洋小T324线-上洋洲7号公变后段","poweroffReason":"(低压停电信息)低压开关跳闸","powerTime":"2020-05-09 08:40:20","powerComm":"已送电","subsNo":"","lineNo":"","tgNo":"","tgName":null,"infoStatus":"1","orgName":"国网浙江桐庐县供电公司","typeName":null,"infoStatusName":null,"dateDay":null,"orgNos":null,"nowTime":null,"countyName":null,"streetName":null,"villageName":null,"roadName":null,"communityName":null,"tranName":null,"sdLineName":null,"cityCode":"3340150","cityName":"国网浙江桐庐县供电公司","provinceCode":null,"stopTime":"2020-05-09 08:59:13","powerType":"全部","powerOffArea":"110kV洋洲变:洋小T324线-上洋洲7号公变后段","powerOffReason":"(低压停电信息)低压开关跳闸","powerOffId":"2020050931020019"},{"poweroffId":2020050931020017,"sgpoweroffId":null,"subsName":"","lineName":"10kV邓家Y161线","pubTranName":"建德市岩垅农业开发有限公司,邓家村大坪台区,","scope":"浙江省-杭州市-建德市-更楼街道-邓家行政村 邓家自然村,大坪自然村 ;更楼街道-建德市岩垅农业开发有限公司","startTime":"2020-05-09 06:52:00","stopDate":"2020-05-09 09:30:00","orgNo":"3340180","typeCode":"电网故障停限电","poweroffArea":"110kV更楼变:邓家Y161线直坞支线16#杆开关后段","poweroffReason":"高压开关跳闸 原停电结束时间为2020-05-09 11:00:00,为减少客户停电时间,加快工作进度,提前送电,现变更停电结束时间为2020-05-09 09:30:00","powerTime":"2020-05-09 08:50:28","powerComm":"已送电","subsNo":"","lineNo":"","tgNo":"","tgName":null,"infoStatus":"1","orgName":"国网浙江建德市供电有限公司","typeName":null,"infoStatusName":null,"dateDay":null,"orgNos":null,"nowTime":null,"countyName":null,"streetName":null,"villageName":null,"roadName":null,"communityName":null,"tranName":null,"sdLineName":null,"cityCode":"3340180","cityName":"国网浙江建德市供电有限公司","provinceCode":null,"stopTime":"2020-05-09 09:30:00","powerType":"全部","powerOffArea":"110kV更楼变:邓家Y161线直坞支线16#杆开关后段","powerOffReason":"高压开关跳闸 原停电结束时间为2020-05-09 11:00:00,为减少客户停电时间,加快工作进度,提前送电,现变更停电结束时间为2020-05-09 09:30:00","powerOffId":"2020050931020017"},{"poweroffId":2020050931020010,"sgpoweroffId":null,"subsName":"","lineName":"10kV五荆H814线","pubTranName":"常恒五金制品,靖源充电桩,杭州五常机械厂配变,国立包装,宇优商业,中意设备,制高多媒体1#变,振华仪表,1#变压器,四色印刷,闽顺电子,盛达汽车,万业五金,绿恒电器,振林服饰,优宸皮件,制高多媒体2号专变,天龙五金,佳家电器（2）,天腾机电,杭州五常仪表配件五金厂,顾家桥家具,双羽塑胶,仪表冲压,鸿雁塑胶,荆山岭基站,制高媒体宿舍,国大食品,天一农化,西溪纺织,1#变压器,华丰通信（1）,","scope":"浙江省-杭州市-余杭区-五常街道-顾家桥行政村(杭州制高物业服务管理有限公司,杭州盛达汽车座椅有限公司),五常街道-荆山社区(杭州闽顺电子有限公司,杭州荆岭仪表冲压件厂,杭州杭正电子科技有限公司,杭州五常仪表配件五金厂),五常街道-五常社区(杭州双羽塑胶有限公司,杭州余杭区五常街道顾家桥家俱加工厂,杭州中意控制设备厂,中国铁塔股份有限公司杭州市分公司,杭州华丰通信器材有限公司,杭州佳家电器有限公司,杭州宇优商业管理有限公司,杭州振林服饰有限公司,杭州天腾环境艺术有限公司,浙江鸿雁塑胶制造有限公司,杭州天龙五金机械设备有限公司,杭州余杭区五常街道有根五金冲压件厂,杭州西溪纺织有限公司,杭州金库贸易有限公司,杭州常港科技服务有限公司,杭州国立工贸集团有限公司,杭州四色印刷有限公司,杭州制高物业服务管理有限公司,杭州五常仪表配件五金厂,杭州西溪印务有限公司,杭州振华仪表配件有限公司),五常街道(五常行政村-杭州靖铭源实业有限公司,荆丰社区-杭州五常仪表配件五金厂,友谊社区-杭州制高媒体科技股份有限公司,杭州悦源投资管理有限公司)","startTime":"2020-05-09 05:09:23","stopDate":"2020-05-09 07:00:00","orgNo":"3340140","typeCode":"电网故障停限电","poweroffArea":"110kV油车变:五荆H814线-后山分线开关后段","poweroffReason":"高压开关跳闸 原停电结束时间为2020-05-09 07:30:23,为减少客户停电时间,加快工作进度,提前送电,现变更停电结束时间为2020-05-09 07:00:00","powerTime":"2020-05-09 06:11:41","powerComm":"已送电","subsNo":"","lineNo":"","tgNo":"","tgName":null,"infoStatus":"1","orgName":"国网浙江杭州市余杭区供电有限公司","typeName":null,"infoStatusName":null,"dateDay":null,"orgNos":null,"nowTime":null,"countyName":null,"streetName":null,"villageName":null,"roadName":null,"communityName":null,"tranName":null,"sdLineName":null,"cityCode":"3340140","cityName":"国网浙江杭州市余杭区供电有限公司","provinceCode":null,"stopTime":"2020-05-09 07:00:00","powerType":"全部","powerOffArea":"110kV油车变:五荆H814线-后山分线开关后段","powerOffReason":"高压开关跳闸 原停电结束时间为2020-05-09 07:30:23,为减少客户停电时间,加快工作进度,提前送电,现变更停电结束时间为2020-05-09 07:00:00","powerOffId":"2020050931020010"},{"poweroffId":2020050931020008,"sgpoweroffId":null,"subsName":"","lineName":"10kV五荆H814线","pubTranName":"荆山岭基站,振华仪表,天一农化,西溪纺织,中意设备,制高媒体宿舍,杭州五常机械厂配变,顾家桥家具,杭州五常仪表配件五金厂,万业五金,双羽塑胶,","scope":"浙江省-杭州市-余杭区-五常街道-五常社区(杭州双羽塑胶有限公司,杭州余杭区五常街道顾家桥家俱加工厂,杭州中意控制设备厂,中国铁塔股份有限公司杭州市分公司,杭州西溪纺织有限公司,杭州金库贸易有限公司,杭州西溪印务有限公司,杭州振华仪表配件有限公司),五常街道(荆山社区-杭州五常仪表配件五金厂,荆丰社区-杭州五常仪表配件五金厂,友谊社区-杭州制高媒体科技股份有限公司)","startTime":"2020-05-09 02:00:00","stopDate":"2020-05-09 07:00:00","orgNo":"3340140","typeCode":"电网故障停限电","poweroffArea":"110kV油车变:五荆H814线-荆山岭机站分线开关后段","poweroffReason":"高压开关跳闸 原停电结束时间为2020-05-09 08:30:00,为减少客户停电时间,加快工作进度,提前送电,现变更停电结束时间为2020-05-09 07:00:00","powerTime":"2020-05-09 06:11:53","powerComm":"已送电","subsNo":"","lineNo":"","tgNo":"","tgName":null,"infoStatus":"1","orgName":"国网浙江杭州市余杭区供电有限公司","typeName":null,"infoStatusName":null,"dateDay":null,"orgNos":null,"nowTime":null,"countyName":null,"streetName":null,"villageName":null,"roadName":null,"communityName":null,"tranName":null,"sdLineName":null,"cityCode":"3340140","cityName":"国网浙江杭州市余杭区供电有限公司","provinceCode":null,"stopTime":"2020-05-09 07:00:00","powerType":"全部","powerOffArea":"110kV油车变:五荆H814线-荆山岭机站分线开关后段","powerOffReason":"高压开关跳闸 原停电结束时间为2020-05-09 08:30:00,为减少客户停电时间,加快工作进度,提前送电,现变更停电结束时间为2020-05-09 07:00:00","powerOffId":"2020050931020008"},{"poweroffId":2020050931020001,"sgpoweroffId":null,"subsName":"","lineName":"10kV五荆H814线","pubTranName":"荆山岭基站,闽顺电子,鸿雁塑胶,顾家桥家具,振林服饰,振华仪表,中意设备,宇优商业,双羽塑胶,国大食品,仪表冲压,靖源充电桩,天一农化,1#变压器,绿恒电器,四色印刷,杭州五常机械厂配变,1#变压器,制高媒体宿舍,天腾机电,制高多媒体2号专变,盛达汽车,制高多媒体1#变,佳家电器（2）,常恒五金制品,华丰通信（1）,优宸皮件,西溪纺织,国立包装,杭州五常仪表配件五金厂,万业五金,天龙五金,","scope":"浙江省-杭州市-余杭区-五常街道(杭州双羽塑胶有限公司,杭州余杭区五常街道顾家桥家俱加工厂,杭州中意控制设备厂,杭州闽顺电子有限公司,中国铁塔股份有限公司杭州市分公司,杭州制高物业服务管理有限公司,杭州华丰通信器材有限公司,杭州佳家电器有限公司,杭州荆岭仪表冲压件厂,杭州宇优商业管理有限公司,杭州振林服饰有限公司,杭州天腾环境艺术有限公司,浙江鸿雁塑胶制造有限公司,杭州天龙五金机械设备有限公司,杭州余杭区五常街道有根五金冲压件厂,杭州西溪纺织有限公司,杭州金库贸易有限公司,杭州常港科技服务有限公司,杭州国立工贸集团有限公司,杭州靖铭源实业有限公司,杭州四色印刷有限公司,杭州杭正电子科技有限公司,杭州五常仪表配件五金厂,杭州西溪印务有限公司,杭州振华仪表配件有限公司,杭州盛达汽车座椅有限公司,杭州制高媒体科技股份有限公司,)","startTime":"2020-05-09 00:05:00","stopDate":"2020-05-09 02:05:00","orgNo":"3340140","typeCode":"电网故障停限电","poweroffArea":"110kV油车变:五荆H814线后山分线开关后段","poweroffReason":"高压开关跳闸","powerTime":"2020-05-09 02:01:29","powerComm":"已送电","subsNo":"","lineNo":"","tgNo":"","tgName":null,"infoStatus":"1","orgName":"国网浙江杭州市余杭区供电有限公司","typeName":null,"infoStatusName":null,"dateDay":null,"orgNos":null,"nowTime":null,"countyName":null,"streetName":null,"villageName":null,"roadName":null,"communityName":null,"tranName":null,"sdLineName":null,"cityCode":"3340140","cityName":"国网浙江杭州市余杭区供电有限公司","provinceCode":null,"stopTime":"2020-05-09 02:05:00","powerType":"全部","powerOffArea":"110kV油车变:五荆H814线后山分线开关后段","powerOffReason":"高压开关跳闸","powerOffId":"2020050931020001"},{"poweroffId":2020050831020473,"sgpoweroffId":null,"subsName":"","lineName":"10kV马谷C956线","pubTranName":"星云丝织工贸有限公司,杭州三辉热处理有限公司2#,半山村9#变,杭州通和机械铸造有限公司,浙江凯普顿厨房设备有限公司,沈村11#变,杭州三辉热处理有限公司1#,杭州杭湖建筑石材有限公司1#,青山村10#变,杭州维博机械有限公司,沈村10#变,半山村4#变,杭州杭湖建筑石材有限公司2#,半山村6#变,青山村16#变,半山村10#变,杭州业新钢结构有限公司,虹路包装,半山村8#变,青山村11#变,杭州永先热处理有限公司,半山村3#变,杭州欧浪实业有限公司,杭州业新钢结构有限公司,沈村9#变,半山村7#变,半山村11#变,杭州杭湖建筑石材有限公司,杭州萧山锦琪热缩塑料厂,青山村9#变,半山村1#变,杭州桑田汽车配件有限公司,杭州萧山德亿达粉末冶金厂,青山村12#变,半山村12#变,沈村5#变,半山村2#变,杭州宏士机械有限公司,沈村8#变,","scope":"浙江省-杭州市-萧山区-戴村镇-半山行政村(东厢头自然村,凌山自然村,丁村自然村,李家坞自然村,夏家溪自然村,杨树下自然村,后宅自然村),戴村镇-青山行政村(石牛山自然村,明堂自然村),戴村镇-沈村行政村(沈村自然村,汪家山下自然村);浙江省-杭州市-萧山区-戴村镇-石马头行政村-杭州宏士机械有限公司,戴村镇-三头行政村(杭州杭湖建筑石材有限公司,杭州萧山德亿达粉末冶金厂),戴村镇-半山行政村(杭州通和机械铸造有限公司,杭州永先热处理有限公司,杭州欧浪实业有限公司,杭州桑田汽车配件有限公司,杭州维博机械有限公司,杭州三辉热处理有限公司),戴村镇-沈村行政村(杭州业新钢结构有限公司,浙江凯普顿厨房设备有限公司,杭州虹路包装彩印有限公司,杭州宏士机械有限公司,杭州萧山昌达机械配件厂),浙江省杭州市萧山区戴村镇新农村等","startTime":"2020-05-08 23:44:27","stopDate":"2020-05-09 04:00:27","orgNo":"3340130","typeCode":"电网故障停限电","poweroffArea":"110kV永兴变:马谷C956线开关后段","poweroffReason":"高压柱上断路器跳闸 原停电结束时间为2020-05-09 03:00:27,由于现场抢修难度大,延迟送电,现变更停电结束时间为2020-05-09 04:00:27","powerTime":"2020-05-09 03:16:52","powerComm":"已送电","subsNo":"","lineNo":"","tgNo":"","tgName":null,"infoStatus":"1","orgName":"国网浙江杭州市萧山区供电有限公司","typeName":null,"infoStatusName":null,"dateDay":null,"orgNos":null,"nowTime":null,"countyName":null,"streetName":null,"villageName":null,"roadName":null,"communityName":null,"tranName":null,"sdLineName":null,"cityCode":"3340130","cityName":"国网浙江杭州市萧山区供电有限公司","provinceCode":null,"stopTime":"2020-05-09 04:00:27","powerType":"全部","powerOffArea":"110kV永兴变:马谷C956线开关后段","powerOffReason":"高压柱上断路器跳闸 原停电结束时间为2020-05-09 03:00:27,由于现场抢修难度大,延迟送电,现变更停电结束时间为2020-05-09 04:00:27","powerOffId":"2020050831020473"},{"poweroffId":2020050831020467,"sgpoweroffId":null,"subsName":"","lineName":"10kV和睦Y506线","pubTranName":"马目村沈家台区,","scope":"浙江省-杭州市-建德市-下涯镇-马目行政村-沈家自然村","startTime":"2020-05-08 22:25:00","stopDate":"2020-05-08 23:30:00","orgNo":"3340180","typeCode":"电网故障停限电","poweroffArea":"110kV沿口变:和睦Y506线-马目村沈家台区后段","poweroffReason":"(低压停电信息)低压开关跳闸 原停电结束时间为2020-05-08 23:59:00,为减少客户停电时间,加快工作进度,提前送电,现变更停电结束时间为2020-05-08 23:30:00","powerTime":"2020-05-08 22:58:08","powerComm":"已送电","subsNo":"","lineNo":"","tgNo":"","tgName":null,"infoStatus":"1","orgName":"国网浙江建德市供电有限公司","typeName":null,"infoStatusName":null,"dateDay":null,"orgNos":null,"nowTime":null,"countyName":null,"streetName":null,"villageName":null,"roadName":null,"communityName":null,"tranName":null,"sdLineName":null,"cityCode":"3340180","cityName":"国网浙江建德市供电有限公司","provinceCode":null,"stopTime":"2020-05-08 23:30:00","powerType":"全部","powerOffArea":"110kV沿口变:和睦Y506线-马目村沈家台区后段","powerOffReason":"(低压停电信息)低压开关跳闸 原停电结束时间为2020-05-08 23:59:00,为减少客户停电时间,加快工作进度,提前送电,现变更停电结束时间为2020-05-08 23:30:00","powerOffId":"2020050831020467"},{"poweroffId":2020050831020431,"sgpoweroffId":null,"subsName":"","lineName":"10kV富湾T401线","pubTranName":"金溪移民村1号公变,","scope":"浙江省-杭州市-桐庐县-城南街道-金溪行政村-乌枫塘自然村","startTime":"2020-05-08 20:03:27","stopDate":"2020-05-08 22:03:27","orgNo":"3340150","typeCode":"电网故障停限电","poweroffArea":"110kV枫塘变:富湾T401线-金溪移民村1号公变后段","poweroffReason":"(低压停电信息)低压开关跳闸","powerTime":"2020-05-08 21:57:43","powerComm":"已送电","subsNo":"","lineNo":"","tgNo":"","tgName":null,"infoStatus":"1","orgName":"国网浙江桐庐县供电公司","typeName":null,"infoStatusName":null,"dateDay":null,"orgNos":null,"nowTime":null,"countyName":null,"streetName":null,"villageName":null,"roadName":null,"communityName":null,"tranName":null,"sdLineName":null,"cityCode":"3340150","cityName":"国网浙江桐庐县供电公司","provinceCode":null,"stopTime":"2020-05-08 22:03:27","powerType":"全部","powerOffArea":"110kV枫塘变:富湾T401线-金溪移民村1号公变后段","powerOffReason":"(低压停电信息)低压开关跳闸","powerOffId":"2020050831020431"},{"poweroffId":2020050831020428,"sgpoweroffId":null,"subsName":"","lineName":"10kV排塘Y185线","pubTranName":"南浦村南浦台区,","scope":"浙江省-杭州市-建德市-寿昌镇-南浦行政村(桐源口自然村,南浦自然村)","startTime":"2020-05-08 19:45:00","stopDate":"2020-05-08 21:45:00","orgNo":"3340180","typeCode":"电网故障停限电","poweroffArea":"35kV河南里变:排塘Y185线-南浦村南浦台区后段","poweroffReason":"(低压停电信息)低压开关跳闸","powerTime":"2020-05-08 21:00:31","powerComm":"已送电","subsNo":"","lineNo":"","tgNo":"","tgName":null,"infoStatus":"1","orgName":"国网浙江建德市供电有限公司","typeName":null,"infoStatusName":null,"dateDay":null,"orgNos":null,"nowTime":null,"countyName":null,"streetName":null,"villageName":null,"roadName":null,"communityName":null,"tranName":null,"sdLineName":null,"cityCode":"3340180","cityName":"国网浙江建德市供电有限公司","provinceCode":null,"stopTime":"2020-05-08 21:45:00","powerType":"全部","powerOffArea":"35kV河南里变:排塘Y185线-南浦村南浦台区后段","powerOffReason":"(低压停电信息)低压开关跳闸","powerOffId":"2020050831020428"},{"poweroffId":2020050831020421,"sgpoweroffId":null,"subsName":"","lineName":"10kV御道9734线","pubTranName":"御农（八）变,","scope":"浙江省-杭州市-江干区-御道街道-御道社区-杭海路，江干区彭埠镇御道家园5幢1801，江干区彭埠街道彭埠社区凤起东路与杭甬高速交叉口，江干区误彭埠镇，杭州市钱江新城建设开发有限公司,误九堡镇，杭州市路灯管理所，江干区误彭埠镇杭州市市政设施发展中心，江干区误彭埠镇，误六堡社区，四号港路，误彭埠镇，浙江省杭州高级中学，杭州市江干区彭埠街道六堡社区居民委员会，杭州钱江新城市政园林建设有限公司，彭埠街道杭州市城东新城建设投资有限公司，杭州市江干区六堡股份经济合作社，浙江省水利河口研究院","startTime":"2020-05-08 19:03:00","stopDate":"2020-05-09 02:03:00","orgNo":"3340120","typeCode":"电网故障停限电","poweroffArea":"110kV下宁变:御道9734线御农（八）变配变","poweroffReason":"高压开关跳闸 原停电结束时间为2020-05-09 01:03:00,因更换开关原因,延迟送电,现变更停电结束时间为2020-05-09 02:03:00","powerTime":"2020-05-09 01:23:01","powerComm":"已送电","subsNo":"","lineNo":"","tgNo":"","tgName":null,"infoStatus":"1","orgName":"国网浙江杭州市钱塘新区供电公司","typeName":null,"infoStatusName":null,"dateDay":null,"orgNos":null,"nowTime":null,"countyName":null,"streetName":null,"villageName":null,"roadName":null,"communityName":null,"tranName":null,"sdLineName":null,"cityCode":"3340120","cityName":"国网浙江杭州市钱塘新区供电公司","provinceCode":null,"stopTime":"2020-05-09 02:03:00","powerType":"全部","powerOffArea":"110kV下宁变:御道9734线御农（八）变配变","powerOffReason":"高压开关跳闸 原停电结束时间为2020-05-09 01:03:00,因更换开关原因,延迟送电,现变更停电结束时间为2020-05-09 02:03:00","powerOffId":"2020050831020421"}],"pageModel":{"pageNow":203,"totalCount":17788,"totalPage":1779,"tableRows":0,"pageCount":10,"beginCount":2020},"isExperi":"1"}