{"message":"","today":"2020-06-15","seleList":[{"poweroffId":2020061031020187,"sgpoweroffId":null,"subsName":"","lineName":"10kV碧天G183线","pubTranName":"九曲营路1号公变,","scope":"浙江省-杭州市-余杭区-东湖街道-庙东社区(复兴弄,进修弄,佳肴弄),南苑街道-南苑社区-藕花洲大街,临平街道-庙东社区-庙东","startTime":"2020-06-10 13:03:00","stopDate":"2020-06-10 19:30:00","orgNo":"3340140","typeCode":"电网故障停限电","poweroffArea":"110kV丘山变:碧天G183线-九曲营路1号公变后段","poweroffReason":"高压开关跳闸 原停电结束时间为2020-06-10 20:30:00,为减少客户停电时间,加快工作进度,提前送电,现变更停电结束时间为2020-06-10 19:30:00","powerTime":"2020-06-10 18:53:47","powerComm":"已送电","subsNo":"","lineNo":"","tgNo":"","tgName":null,"infoStatus":"1","orgName":"国网浙江杭州市余杭区供电有限公司","typeName":null,"infoStatusName":null,"dateDay":null,"orgNos":null,"nowTime":null,"countyName":null,"streetName":null,"villageName":null,"roadName":null,"communityName":null,"tranName":null,"sdLineName":null,"cityCode":"3340140","cityName":"国网浙江杭州市余杭区供电有限公司","provinceCode":null,"stopTime":"2020-06-10 19:30:00","powerType":"全部","powerOffArea":"110kV丘山变:碧天G183线-九曲营路1号公变后段","powerOffReason":"高压开关跳闸 原停电结束时间为2020-06-10 20:30:00,为减少客户停电时间,加快工作进度,提前送电,现变更停电结束时间为2020-06-10 19:30:00","powerOffId":"2020061031020187"},{"poweroffId":2020061031020186,"sgpoweroffId":null,"subsName":"","lineName":"10kV天井T450线","pubTranName":"石马小区1号公变,","scope":"浙江省-杭州市-桐庐县-城南街道-梅林社区-春江东路","startTime":"2020-06-10 12:59:00","stopDate":"2020-06-10 14:55:00","orgNo":"3340150","typeCode":"电网故障停限电","poweroffArea":"110kV下杭变:天井T450线石马小区1号公变配变","poweroffReason":"高压开关跳闸","powerTime":"2020-06-10 14:45:28","powerComm":"已送电","subsNo":"","lineNo":"","tgNo":"","tgName":null,"infoStatus":"1","orgName":"国网浙江桐庐县供电公司","typeName":null,"infoStatusName":null,"dateDay":null,"orgNos":null,"nowTime":null,"countyName":null,"streetName":null,"villageName":null,"roadName":null,"communityName":null,"tranName":null,"sdLineName":null,"cityCode":"3340150","cityName":"国网浙江桐庐县供电公司","provinceCode":null,"stopTime":"2020-06-10 14:55:00","powerType":"全部","powerOffArea":"110kV下杭变:天井T450线石马小区1号公变配变","powerOffReason":"高压开关跳闸","powerOffId":"2020061031020186"},{"poweroffId":2020061031020185,"sgpoweroffId":null,"subsName":"","lineName":"10kV天井T450线","pubTranName":"石马小区2号公变,","scope":"浙江省-杭州市-桐庐县-城南街道-梅林社区-春江东路","startTime":"2020-06-10 12:55:00","stopDate":"2020-06-10 14:55:00","orgNo":"3340150","typeCode":"电网故障停限电","poweroffArea":"110kV下杭变:天井T450线石马小区2号公变配变","poweroffReason":"高压开关跳闸","powerTime":"2020-06-10 14:45:51","powerComm":"已送电","subsNo":"","lineNo":"","tgNo":"","tgName":null,"infoStatus":"1","orgName":"国网浙江桐庐县供电公司","typeName":null,"infoStatusName":null,"dateDay":null,"orgNos":null,"nowTime":null,"countyName":null,"streetName":null,"villageName":null,"roadName":null,"communityName":null,"tranName":null,"sdLineName":null,"cityCode":"3340150","cityName":"国网浙江桐庐县供电公司","provinceCode":null,"stopTime":"2020-06-10 14:55:00","powerType":"全部","powerOffArea":"110kV下杭变:天井T450线石马小区2号公变配变","powerOffReason":"高压开关跳闸","powerOffId":"2020061031020185"},{"poweroffId":2020061031020184,"sgpoweroffId":null,"subsName":"","lineName":"10kV城阳D144线","pubTranName":"共和街3号小东门公变,","scope":"浙江省-杭州市-富阳区-新登镇-东安社区-东门路,新登镇-古城社区(共和南路,城墙南路,小东门,南门头,共和街)","startTime":"2020-06-10 12:58:10","stopDate":"2020-06-10 13:58:10","orgNo":"3340170","typeCode":"电网故障停限电","poweroffArea":"110kV新登变:城阳D144线-共和街3#小东门公变开关后段","poweroffReason":"高压开关跳闸","powerTime":"2020-06-10 13:11:58","powerComm":"已送电","subsNo":"","lineNo":"","tgNo":"","tgName":null,"infoStatus":"1","orgName":"国网浙江杭州市富阳区供电公司","typeName":null,"infoStatusName":null,"dateDay":null,"orgNos":null,"nowTime":null,"countyName":null,"streetName":null,"villageName":null,"roadName":null,"communityName":null,"tranName":null,"sdLineName":null,"cityCode":"3340170","cityName":"国网浙江杭州市富阳区供电公司","provinceCode":null,"stopTime":"2020-06-10 13:58:10","powerType":"全部","powerOffArea":"110kV新登变:城阳D144线-共和街3#小东门公变开关后段","powerOffReason":"高压开关跳闸","powerOffId":"2020061031020184"},{"poweroffId":2020061031020174,"sgpoweroffId":null,"subsName":"","lineName":"10kV交通D364线","pubTranName":"秋丰村湖南山9号公变配电变压器,","scope":"浙江省-杭州市-富阳区-富春街道-秋丰行政村-秋丰自然村","startTime":"2020-06-10 11:51:00","stopDate":"2020-06-10 12:51:00","orgNo":"3340170","typeCode":"电网故障停限电","poweroffArea":"110kV富鹿变:交通D364线秋丰村湖南山9号公变配变","poweroffReason":"高压开关跳闸","powerTime":"2020-06-10 12:23:09","powerComm":"已送电","subsNo":"","lineNo":"","tgNo":"","tgName":null,"infoStatus":"1","orgName":"国网浙江杭州市富阳区供电公司","typeName":null,"infoStatusName":null,"dateDay":null,"orgNos":null,"nowTime":null,"countyName":null,"streetName":null,"villageName":null,"roadName":null,"communityName":null,"tranName":null,"sdLineName":null,"cityCode":"3340170","cityName":"国网浙江杭州市富阳区供电公司","provinceCode":null,"stopTime":"2020-06-10 12:51:00","powerType":"全部","powerOffArea":"110kV富鹿变:交通D364线秋丰村湖南山9号公变配变","powerOffReason":"高压开关跳闸","powerOffId":"2020061031020174"},{"poweroffId":2020061031020173,"sgpoweroffId":null,"subsName":"","lineName":"10kV留思H880线","pubTranName":"新泰村长段头公变,","scope":"浙江省-杭州市-余杭区-中泰街道(新泰行政村-新泰自然村,泰峰行政村-泰峰自然村)","startTime":"2020-06-10 11:34:00","stopDate":"2020-06-10 15:34:00","orgNo":"3340140","typeCode":"电网故障停限电","poweroffArea":"110kV中泰变:留思H880线中泰长段头配变","poweroffReason":"高压开关跳闸 原停电结束时间为2020-06-10 13:34:00,因现场故障情况复杂,现变更停电结束时间为2020-06-10 15:34:00","powerTime":"2020-06-10 15:04:00","powerComm":"已送电","subsNo":"","lineNo":"","tgNo":"","tgName":null,"infoStatus":"1","orgName":"国网浙江杭州市余杭区供电有限公司","typeName":null,"infoStatusName":null,"dateDay":null,"orgNos":null,"nowTime":null,"countyName":null,"streetName":null,"villageName":null,"roadName":null,"communityName":null,"tranName":null,"sdLineName":null,"cityCode":"3340140","cityName":"国网浙江杭州市余杭区供电有限公司","provinceCode":null,"stopTime":"2020-06-10 15:34:00","powerType":"全部","powerOffArea":"110kV中泰变:留思H880线中泰长段头配变","powerOffReason":"高压开关跳闸 原停电结束时间为2020-06-10 13:34:00,因现场故障情况复杂,现变更停电结束时间为2020-06-10 15:34:00","powerOffId":"2020061031020173"},{"poweroffId":2020061031020172,"sgpoweroffId":null,"subsName":"","lineName":"10kV云峰H872线","pubTranName":"南湖村中洪上村公变,南湖村大圩公变,","scope":"浙江省-杭州市-余杭区-中泰街道-南湖行政村-南湖自然村","startTime":"2020-06-10 11:24:56","stopDate":"2020-06-10 13:09:56","orgNo":"3340140","typeCode":"电网故障停限电","poweroffArea":"110kV中泰变:云峰H872线苕南分线69#杆开关后段","poweroffReason":"高压开关跳闸","powerTime":"2020-06-10 12:39:00","powerComm":"已送电","subsNo":"","lineNo":"","tgNo":"","tgName":null,"infoStatus":"1","orgName":"国网浙江杭州市余杭区供电有限公司","typeName":null,"infoStatusName":null,"dateDay":null,"orgNos":null,"nowTime":null,"countyName":null,"streetName":null,"villageName":null,"roadName":null,"communityName":null,"tranName":null,"sdLineName":null,"cityCode":"3340140","cityName":"国网浙江杭州市余杭区供电有限公司","provinceCode":null,"stopTime":"2020-06-10 13:09:56","powerType":"全部","powerOffArea":"110kV中泰变:云峰H872线苕南分线69#杆开关后段","powerOffReason":"高压开关跳闸","powerOffId":"2020061031020172"},{"poweroffId":2020061031020168,"sgpoweroffId":null,"subsName":"","lineName":"10kV虎项A563线","pubTranName":"杭州萧山志华化纤厂,杭州鸿翔纺织有限公司,变压器,杭州萧山建顺化纤有限公司,","scope":"浙江省-杭州市-萧山区-衙前镇-衙前行政村-杭州萧山志华化纤厂,衙前镇-项漾行政村(杭州萧山项兴祥化纤厂,杭州鸿翔纺织有限公司,杭州建顺化纤有限公司)","startTime":"2020-06-10 11:19:47","stopDate":"2020-06-10 14:19:47","orgNo":"3340130","typeCode":"电网故障停限电","poweroffArea":"110kV成虎变:虎项A563线-虎项A563线开关后段","poweroffReason":"外力破坏引起虎项A563线高压柱上断路器跳闸","powerTime":"2020-06-10 13:31:48","powerComm":"已送电","subsNo":"","lineNo":"","tgNo":"","tgName":null,"infoStatus":"1","orgName":"国网浙江杭州市萧山区供电有限公司","typeName":null,"infoStatusName":null,"dateDay":null,"orgNos":null,"nowTime":null,"countyName":null,"streetName":null,"villageName":null,"roadName":null,"communityName":null,"tranName":null,"sdLineName":null,"cityCode":"3340130","cityName":"国网浙江杭州市萧山区供电有限公司","provinceCode":null,"stopTime":"2020-06-10 14:19:47","powerType":"全部","powerOffArea":"110kV成虎变:虎项A563线-虎项A563线开关后段","powerOffReason":"外力破坏引起虎项A563线高压柱上断路器跳闸","powerOffId":"2020061031020168"},{"poweroffId":2020061031020165,"sgpoweroffId":null,"subsName":"","lineName":"10kV恒达C135线","pubTranName":"杭州博立格纤维有限公司2#,杭州博立格纤维有限公司1#,义南村13#变,杭州恒达钢构股份有限公司,4,恒通置业1#,恒通置业2#,","scope":"浙江省-杭州市-萧山区-靖江街道-义南行政村-义南自然村;靖江街道(杭州恒生物业服务有限公司,杭州博立格纤维有限公司,杭州恒俊钢构有限公司)等","startTime":"2020-06-10 11:11:39","stopDate":"2020-06-10 15:10:39","orgNo":"3340130","typeCode":"电网故障停限电","poweroffArea":"110kV梅西变:恒达C135线恒达C135线开关后段","poweroffReason":"高压柱上断路器跳闸 原停电结束时间为2020-06-10 17:30:39,为减少客户停电时间,加快工作进度,提前送电,现变更停电结束时间为2020-06-10 15:10:39","powerTime":"2020-06-10 14:26:05","powerComm":"已送电","subsNo":"","lineNo":"","tgNo":"","tgName":null,"infoStatus":"1","orgName":"国网浙江杭州市萧山区供电有限公司","typeName":null,"infoStatusName":null,"dateDay":null,"orgNos":null,"nowTime":null,"countyName":null,"streetName":null,"villageName":null,"roadName":null,"communityName":null,"tranName":null,"sdLineName":null,"cityCode":"3340130","cityName":"国网浙江杭州市萧山区供电有限公司","provinceCode":null,"stopTime":"2020-06-10 15:10:39","powerType":"全部","powerOffArea":"110kV梅西变:恒达C135线恒达C135线开关后段","powerOffReason":"高压柱上断路器跳闸 原停电结束时间为2020-06-10 17:30:39,为减少客户停电时间,加快工作进度,提前送电,现变更停电结束时间为2020-06-10 15:10:39","powerOffId":"2020061031020165"},{"poweroffId":2020061031020164,"sgpoweroffId":null,"subsName":"","lineName":"10kV城北R113线","pubTranName":"湖滨悦居4号公变,","scope":"浙江省-杭州市-淳安县-千岛湖镇-阳光社区-阳光路","startTime":"2020-06-10 11:03:00","stopDate":"2020-06-10 13:03:00","orgNo":"3340190","typeCode":"电网故障停限电","poweroffArea":"110kV淳安变:城北R113线湖滨悦居4号公变配变","poweroffReason":"高压开关跳闸","powerTime":"2020-06-10 12:05:03","powerComm":"已送电","subsNo":"","lineNo":"","tgNo":"","tgName":null,"infoStatus":"1","orgName":"国网浙江淳安县供电有限公司","typeName":null,"infoStatusName":null,"dateDay":null,"orgNos":null,"nowTime":null,"countyName":null,"streetName":null,"villageName":null,"roadName":null,"communityName":null,"tranName":null,"sdLineName":null,"cityCode":"3340190","cityName":"国网浙江淳安县供电有限公司","provinceCode":null,"stopTime":"2020-06-10 13:03:00","powerType":"全部","powerOffArea":"110kV淳安变:城北R113线湖滨悦居4号公变配变","powerOffReason":"高压开关跳闸","powerOffId":"2020061031020164"}],"pageModel":{"pageNow":19,"totalCount":17786,"totalPage":1779,"tableRows":0,"pageCount":10,"beginCount":180},"isExperi":"1"}