{"message":"","today":"2020-06-15","seleList":[{"poweroffId":2020050631020212,"sgpoweroffId":null,"subsName":"","lineName":"10kV凤凰C573线","pubTranName":"凤凰村5#变,衙前集镇6#变,","scope":"浙江省-杭州市-萧山区-衙前镇-凤凰行政村-凤凰自然村,衙前镇-毕公桥社区(凤凰,教工路,凤凰路)","startTime":"2020-05-14 08:30:00","stopDate":"2020-05-14 15:05:00","orgNo":"3340130","typeCode":"计划停电","poweroffArea":"35kV衙前变:凤凰C573线-衙前集镇6#变后段;凤凰C573线-凤凰村5#变后段","poweroffReason":"衙前集镇6#变更换变压器，更换杆上配电柜，加装冷缩套管 原停电结束时间为2020-05-14 16:30:00,为减少客户停电时间,加快工作进度,提前送电,现变更停电结束时间为2020-05-14 15:05:00","powerTime":"2020-05-14 14:29:40","powerComm":"已送电","subsNo":"","lineNo":"","tgNo":"","tgName":null,"infoStatus":"1","orgName":"国网浙江杭州市萧山区供电有限公司","typeName":null,"infoStatusName":null,"dateDay":null,"orgNos":null,"nowTime":null,"countyName":null,"streetName":null,"villageName":null,"roadName":null,"communityName":null,"tranName":null,"sdLineName":null,"cityCode":"3340130","cityName":"国网浙江杭州市萧山区供电有限公司","provinceCode":null,"stopTime":"2020-05-14 15:05:00","powerType":"全部","powerOffArea":"35kV衙前变:凤凰C573线-衙前集镇6#变后段;凤凰C573线-凤凰村5#变后段","powerOffReason":"衙前集镇6#变更换变压器，更换杆上配电柜，加装冷缩套管 原停电结束时间为2020-05-14 16:30:00,为减少客户停电时间,加快工作进度,提前送电,现变更停电结束时间为2020-05-14 15:05:00","powerOffId":"2020050631020212"},{"poweroffId":2020050631020211,"sgpoweroffId":null,"subsName":"","lineName":"10kV南安D336线","pubTranName":"杭州富阳振华锻造有限公司1#变,富阳市振华锻造有限公司2#,","scope":"浙江省-杭州市-富阳区-万市镇-何务行政村-杭州富阳振华锻造有限公司","startTime":"2020-05-06 20:38:09","stopDate":"2020-05-06 21:38:09","orgNo":"3340170","typeCode":"电网故障停限电","poweroffArea":"110kV万市变:南安D336线-振华锻造后段","poweroffReason":"高压开关跳闸 原停电结束时间为2020-05-06 22:38:09,为减少客户停电时间,加快工作进度,提前送电,现变更停电结束时间为2020-05-06 21:38:09","powerTime":"2020-05-06 20:49:08","powerComm":"已送电","subsNo":"","lineNo":"","tgNo":"","tgName":null,"infoStatus":"1","orgName":"国网浙江杭州市富阳区供电公司","typeName":null,"infoStatusName":null,"dateDay":null,"orgNos":null,"nowTime":null,"countyName":null,"streetName":null,"villageName":null,"roadName":null,"communityName":null,"tranName":null,"sdLineName":null,"cityCode":"3340170","cityName":"国网浙江杭州市富阳区供电公司","provinceCode":null,"stopTime":"2020-05-06 21:38:09","powerType":"全部","powerOffArea":"110kV万市变:南安D336线-振华锻造后段","powerOffReason":"高压开关跳闸 原停电结束时间为2020-05-06 22:38:09,为减少客户停电时间,加快工作进度,提前送电,现变更停电结束时间为2020-05-06 21:38:09","powerOffId":"2020050631020211"},{"poweroffId":2020050631020187,"sgpoweroffId":null,"subsName":"","lineName":"10kV上杭T274线","pubTranName":"嘉南公寓2号公变,开发办1号公变,桐庐华鹰高新技术有限公司,嘉南公寓1号公变,大庄里1号公变,山水圣邸2号公变,桐庐龙腾物业管理有限公司,春江西路2号公变,杭州逸都房地产开发有限公司变压器,山水圣邸4号公变,华光1号公变,桐庐县市政园林建设管理处(乔林路路灯),杭州逸都房地产开发有限公司变压器,桐庐县地方税务局,开发办2号公变,桐庐县水政监察大队,桐庐县美丽城南开发有限公司基建二变压器,桐庐超凡物业管理有限公司,春江西路1号公变,桐庐县美丽城南开发有限公司基建一变压器,上杭股份,徐忠贤营业变压器,浙江君诚建设有限公司(综合楼),桐庐城市发展经营有限公司变压器,桐庐红太阳电脑印花有限公司,山水工艺,桐庐增洲科技有限公司2#变,励骏置地2号公变,桐庐县市政园林建设管理处(路灯),励骏置地1号公变,富阳市东海石油有限公司桐庐分公司,杨家1号公变,桐庐增洲科技有限公司（宿舍）,吴泽,云水公寓1号公变,卓越石材,桐庐超凡物业管理有限公司,2#,桐庐县资源开发利用有限公司,宸宫花园1号公变,山水圣邸5号公变,","scope":"浙江省-杭州市-桐庐县-城南街道-上杭社区(滨江西路,乔林路,瑶琳西路,春江路,金东路,滨江路,大奇山路)，城南街道上杭路1555号","startTime":"2020-05-06 17:29:57","stopDate":"2020-05-06 20:29:57","orgNo":"3340150","typeCode":"电网故障停限电","poweroffArea":"35kV三合变:上杭T274线-上杭T274线开关后段","poweroffReason":"(低压停电信息)低压开关跳闸","powerTime":"2020-05-06 20:10:14","powerComm":"已送电","subsNo":"","lineNo":"","tgNo":"","tgName":null,"infoStatus":"1","orgName":"国网浙江桐庐县供电公司","typeName":null,"infoStatusName":null,"dateDay":null,"orgNos":null,"nowTime":null,"countyName":null,"streetName":null,"villageName":null,"roadName":null,"communityName":null,"tranName":null,"sdLineName":null,"cityCode":"3340150","cityName":"国网浙江桐庐县供电公司","provinceCode":null,"stopTime":"2020-05-06 20:29:57","powerType":"全部","powerOffArea":"35kV三合变:上杭T274线-上杭T274线开关后段","powerOffReason":"(低压停电信息)低压开关跳闸","powerOffId":"2020050631020187"},{"poweroffId":2020050631020181,"sgpoweroffId":null,"subsName":"","lineName":"10kV郎家H433线","pubTranName":"杜甫四期（6120900605）05#专变,杜甫四期（6120900605）03#专变,四期3地块（6120912242）03#专变,四期3地块（6120912242）01#专变,四期3地块（6120912242）05#专变,杜甫四期（6120900605）02#专变,四期3地块（6120912242）04#专变,杜甫四期（6120900605）04#专变,四期3地块（6120912242）02#专变,杜甫四期（6120900605）01#专变,","scope":"浙江省-杭州市-余杭区-良渚街道-杭州良渚新城城建投资有限公司","startTime":"2020-05-06 16:58:46","stopDate":"2020-05-06 20:58:46","orgNo":"3340140","typeCode":"电网故障停限电","poweroffArea":"110kV勾庄变:郎家H433线郎家H433线26号杆开关后段","poweroffReason":"高压开关跳闸","powerTime":"2020-05-06 20:01:06","powerComm":"已送电","subsNo":"","lineNo":"","tgNo":"","tgName":null,"infoStatus":"1","orgName":"国网浙江杭州市余杭区供电有限公司","typeName":null,"infoStatusName":null,"dateDay":null,"orgNos":null,"nowTime":null,"countyName":null,"streetName":null,"villageName":null,"roadName":null,"communityName":null,"tranName":null,"sdLineName":null,"cityCode":"3340140","cityName":"国网浙江杭州市余杭区供电有限公司","provinceCode":null,"stopTime":"2020-05-06 20:58:46","powerType":"全部","powerOffArea":"110kV勾庄变:郎家H433线郎家H433线26号杆开关后段","powerOffReason":"高压开关跳闸","powerOffId":"2020050631020181"},{"poweroffId":2020050631020140,"sgpoweroffId":null,"subsName":"","lineName":"10kV黎潮A805线","pubTranName":"潮上云临南苑14#公变,","scope":"浙江省-杭州市-萧山区-南阳街道-南兴行政村-潮都西路、潮上云临南苑等","startTime":"2020-05-06 14:15:59","stopDate":"2020-05-06 16:10:59","orgNo":"3340130","typeCode":"电网故障停限电","poweroffArea":"110kV黎明变:黎潮A805线-潮上云临南苑14#公变台区低压开关","poweroffReason":"(低压停电信息)低压电缆断线 原停电结束时间为2020-05-06 18:30:59,为减少客户停电时间,加快工作进度,提前送电,现变更停电结束时间为2020-05-06 16:10:59","powerTime":"2020-05-06 15:25:18","powerComm":"已送电","subsNo":"","lineNo":"","tgNo":"","tgName":null,"infoStatus":"1","orgName":"国网浙江杭州市萧山区供电有限公司","typeName":null,"infoStatusName":null,"dateDay":null,"orgNos":null,"nowTime":null,"countyName":null,"streetName":null,"villageName":null,"roadName":null,"communityName":null,"tranName":null,"sdLineName":null,"cityCode":"3340130","cityName":"国网浙江杭州市萧山区供电有限公司","provinceCode":null,"stopTime":"2020-05-06 16:10:59","powerType":"全部","powerOffArea":"110kV黎明变:黎潮A805线-潮上云临南苑14#公变台区低压开关","powerOffReason":"(低压停电信息)低压电缆断线 原停电结束时间为2020-05-06 18:30:59,为减少客户停电时间,加快工作进度,提前送电,现变更停电结束时间为2020-05-06 16:10:59","powerOffId":"2020050631020140"},{"poweroffId":2020050631020139,"sgpoweroffId":null,"subsName":"","lineName":"10kV空港A823线","pubTranName":"潮上云临南苑13#公变,","scope":"浙江省-杭州市-萧山区-南阳街道-南兴行政村-潮都西路、潮上云临南苑等","startTime":"2020-05-06 14:15:53","stopDate":"2020-05-06 16:10:53","orgNo":"3340130","typeCode":"电网故障停限电","poweroffArea":"110kV黎明变:空港A823线-潮上云临南苑13#公变台区低压开关","poweroffReason":"(低压停电信息)低压电缆断线 原停电结束时间为2020-05-06 18:30:53,为减少客户停电时间,加快工作进度,提前送电,现变更停电结束时间为2020-05-06 16:10:53","powerTime":"2020-05-06 15:25:35","powerComm":"已送电","subsNo":"","lineNo":"","tgNo":"","tgName":null,"infoStatus":"1","orgName":"国网浙江杭州市萧山区供电有限公司","typeName":null,"infoStatusName":null,"dateDay":null,"orgNos":null,"nowTime":null,"countyName":null,"streetName":null,"villageName":null,"roadName":null,"communityName":null,"tranName":null,"sdLineName":null,"cityCode":"3340130","cityName":"国网浙江杭州市萧山区供电有限公司","provinceCode":null,"stopTime":"2020-05-06 16:10:53","powerType":"全部","powerOffArea":"110kV黎明变:空港A823线-潮上云临南苑13#公变台区低压开关","powerOffReason":"(低压停电信息)低压电缆断线 原停电结束时间为2020-05-06 18:30:53,为减少客户停电时间,加快工作进度,提前送电,现变更停电结束时间为2020-05-06 16:10:53","powerOffId":"2020050631020139"},{"poweroffId":2020050631020113,"sgpoweroffId":null,"subsName":"","lineName":"10kV灵山D143线","pubTranName":"九二村2#何家坞公变,","scope":"浙江省-杭州市-富阳区-新登镇-半山行政村-新殿自然村,新登镇-九儿行政村(油车里自然村,谷堰山脚自然村,余庙里自然村,干家自然村,王家自然村,何家坞自然村,胜塘坞自然村),新登镇-长垄行政村(鲍家岭自然村,马坞垄自然村,潘家自然村)","startTime":"2020-05-06 14:00:00","stopDate":"2020-05-06 16:00:00","orgNo":"3340170","typeCode":"电网故障停限电","poweroffArea":"110kV新登变:灵山D143线-九二村2#何家坞公变后段","poweroffReason":"高压开关跳闸","powerTime":"2020-05-06 15:11:52","powerComm":"已送电","subsNo":"","lineNo":"","tgNo":"","tgName":null,"infoStatus":"1","orgName":"国网浙江杭州市富阳区供电公司","typeName":null,"infoStatusName":null,"dateDay":null,"orgNos":null,"nowTime":null,"countyName":null,"streetName":null,"villageName":null,"roadName":null,"communityName":null,"tranName":null,"sdLineName":null,"cityCode":"3340170","cityName":"国网浙江杭州市富阳区供电公司","provinceCode":null,"stopTime":"2020-05-06 16:00:00","powerType":"全部","powerOffArea":"110kV新登变:灵山D143线-九二村2#何家坞公变后段","powerOffReason":"高压开关跳闸","powerOffId":"2020050631020113"},{"poweroffId":2020050631020095,"sgpoweroffId":null,"subsName":"","lineName":"10kV东辉T373线","pubTranName":"白前庵1号公变,","scope":"浙江省-杭州市-桐庐县-百江镇-百江行政村-白前奄自然村","startTime":"2020-05-15 08:30:00","stopDate":"2020-05-15 12:30:00","orgNo":"3340150","typeCode":"计划停电","poweroffArea":"110kV百江变:东辉T373线-白前庵1号公变后段","poweroffReason":"白前庵1号公变配变增容、调换JP柜、进出线电缆及搭接","powerTime":"2020-05-15 12:09:06","powerComm":"已送电","subsNo":"","lineNo":"","tgNo":"","tgName":null,"infoStatus":"1","orgName":"国网浙江桐庐县供电公司","typeName":null,"infoStatusName":null,"dateDay":null,"orgNos":null,"nowTime":null,"countyName":null,"streetName":null,"villageName":null,"roadName":null,"communityName":null,"tranName":null,"sdLineName":null,"cityCode":"3340150","cityName":"国网浙江桐庐县供电公司","provinceCode":null,"stopTime":"2020-05-15 12:30:00","powerType":"全部","powerOffArea":"110kV百江变:东辉T373线-白前庵1号公变后段","powerOffReason":"白前庵1号公变配变增容、调换JP柜、进出线电缆及搭接","powerOffId":"2020050631020095"},{"poweroffId":2020050631020093,"sgpoweroffId":null,"subsName":"","lineName":"10kV东辉T373线","pubTranName":"徐村畈1号公变,","scope":"浙江省-杭州市-桐庐县-百江镇-百江行政村(广王自然村,徐家畈自然村,白水自然村)","startTime":"2020-05-11 08:30:00","stopDate":"2020-05-11 09:30:00","orgNo":"3340150","typeCode":"临时停电","poweroffArea":"110kV百江变:东辉T373线-白水F9136后段","poweroffReason":"徐村畈1号公变配变增容，调换JP柜，进出线电缆及电杆1根 原停电结束时间为2020-05-11 12:30:00,因政策处理,现变更停电结束时间为2020-05-11 09:30:00","powerTime":"2020-05-11 09:14:02","powerComm":"已送电","subsNo":"","lineNo":"","tgNo":"","tgName":null,"infoStatus":"1","orgName":"国网浙江桐庐县供电公司","typeName":null,"infoStatusName":null,"dateDay":null,"orgNos":null,"nowTime":null,"countyName":null,"streetName":null,"villageName":null,"roadName":null,"communityName":null,"tranName":null,"sdLineName":null,"cityCode":"3340150","cityName":"国网浙江桐庐县供电公司","provinceCode":null,"stopTime":"2020-05-11 09:30:00","powerType":"全部","powerOffArea":"110kV百江变:东辉T373线-白水F9136后段","powerOffReason":"徐村畈1号公变配变增容，调换JP柜，进出线电缆及电杆1根 原停电结束时间为2020-05-11 12:30:00,因政策处理,现变更停电结束时间为2020-05-11 09:30:00","powerOffId":"2020050631020093"},{"poweroffId":2020050631020078,"sgpoweroffId":null,"subsName":"","lineName":"10kV金明G343线","pubTranName":"长相知寝具,杭州市余杭区人民政府良渚街道办事处,纤石村马家桥公变,杭州冠业科技有限公司,","scope":"浙江省-杭州市-余杭区-良渚街道-纤石行政村-花园桥自然村;良渚街道-纤石行政村(杭州长相知家纺科技有限公司,杭州市余杭区安溪幼儿园,杭州冠业科技有限公司)","startTime":"2020-05-06 09:38:14","stopDate":"2020-05-06 11:00:14","orgNo":"3340140","typeCode":"电网故障停限电","poweroffArea":"110kV洛山变:金明G343线-金明G343线86#分线开关后段","poweroffReason":"高压开关跳闸","powerTime":"2020-05-06 10:39:59","powerComm":"已送电","subsNo":"","lineNo":"","tgNo":"","tgName":null,"infoStatus":"1","orgName":"国网浙江杭州市余杭区供电有限公司","typeName":null,"infoStatusName":null,"dateDay":null,"orgNos":null,"nowTime":null,"countyName":null,"streetName":null,"villageName":null,"roadName":null,"communityName":null,"tranName":null,"sdLineName":null,"cityCode":"3340140","cityName":"国网浙江杭州市余杭区供电有限公司","provinceCode":null,"stopTime":"2020-05-06 11:00:14","powerType":"全部","powerOffArea":"110kV洛山变:金明G343线-金明G343线86#分线开关后段","powerOffReason":"高压开关跳闸","powerOffId":"2020050631020078"}],"pageModel":{"pageNow":213,"totalCount":17788,"totalPage":1779,"tableRows":0,"pageCount":10,"beginCount":2120},"isExperi":"1"}