{"message":"","today":"2020-06-15","seleList":[{"poweroffId":2020050631020061,"sgpoweroffId":null,"subsName":"","lineName":"10kV金印9279线","pubTranName":"东沙斗,","scope":"浙江省-杭州市-西湖区-三墩镇-塘河社区-双桥","startTime":"2020-05-06 09:15:00","stopDate":"2020-05-06 10:20:00","orgNo":"3340101","typeCode":"电网故障停限电","poweroffArea":"110kV三墩变:金印9279线东沙斗配变","poweroffReason":"高压开关跳闸 原停电结束时间为2020-05-06 13:15:00,为减少客户停电时间,加快工作进度,提前送电,现变更停电结束时间为2020-05-06 10:20:00","powerTime":"2020-05-06 09:39:47","powerComm":"已送电","subsNo":"","lineNo":"","tgNo":"","tgName":null,"infoStatus":"1","orgName":"浙江杭州电力客户服务中心","typeName":null,"infoStatusName":null,"dateDay":null,"orgNos":null,"nowTime":null,"countyName":null,"streetName":null,"villageName":null,"roadName":null,"communityName":null,"tranName":null,"sdLineName":null,"cityCode":"3340101","cityName":"浙江杭州电力客户服务中心","provinceCode":null,"stopTime":"2020-05-06 10:20:00","powerType":"全部","powerOffArea":"110kV三墩变:金印9279线东沙斗配变","powerOffReason":"高压开关跳闸 原停电结束时间为2020-05-06 13:15:00,为减少客户停电时间,加快工作进度,提前送电,现变更停电结束时间为2020-05-06 10:20:00","powerOffId":"2020050631020061"},{"poweroffId":2020050631020060,"sgpoweroffId":null,"subsName":"","lineName":"10kV翡翠H801线","pubTranName":"华丰农居村委公变,","scope":"浙江省-杭州市-余杭区-闲林街道-华丰行政村(五常大道,华丰自然村),闲林街道-华丰社区(五常大道,天目山西路,社区)","startTime":"2020-05-06 09:15:00","stopDate":"2020-05-06 11:15:00","orgNo":"3340140","typeCode":"电网故障停限电","poweroffArea":"110kV油车变:翡翠H801线华丰农居村委公变华丰农居村委公变配变","poweroffReason":"高压开关跳闸","powerTime":"2020-05-06 10:40:25","powerComm":"已送电","subsNo":"","lineNo":"","tgNo":"","tgName":null,"infoStatus":"1","orgName":"国网浙江杭州市余杭区供电有限公司","typeName":null,"infoStatusName":null,"dateDay":null,"orgNos":null,"nowTime":null,"countyName":null,"streetName":null,"villageName":null,"roadName":null,"communityName":null,"tranName":null,"sdLineName":null,"cityCode":"3340140","cityName":"国网浙江杭州市余杭区供电有限公司","provinceCode":null,"stopTime":"2020-05-06 11:15:00","powerType":"全部","powerOffArea":"110kV油车变:翡翠H801线华丰农居村委公变华丰农居村委公变配变","powerOffReason":"高压开关跳闸","powerOffId":"2020050631020060"},{"poweroffId":2020050631020052,"sgpoweroffId":null,"subsName":"","lineName":"10kV郎家H433线","pubTranName":"杭州汇科金属材料,杜甫村陈家头公变,中铁三局集团有限公司,","scope":"浙江省-杭州市-余杭区-良渚街道-杜甫行政村-杜甫自然村;良渚街道(中铁三局集团有限公司,杭州多边形精密机械制造有限公司)","startTime":"2020-05-06 08:46:48","stopDate":"2020-05-06 10:46:48","orgNo":"3340140","typeCode":"电网故障停限电","poweroffArea":"110kV勾庄变:郎家H433线郎家陈家头分线开关后段","poweroffReason":"高压开关跳闸","powerTime":"2020-05-06 10:06:05","powerComm":"已送电","subsNo":"","lineNo":"","tgNo":"","tgName":null,"infoStatus":"1","orgName":"国网浙江杭州市余杭区供电有限公司","typeName":null,"infoStatusName":null,"dateDay":null,"orgNos":null,"nowTime":null,"countyName":null,"streetName":null,"villageName":null,"roadName":null,"communityName":null,"tranName":null,"sdLineName":null,"cityCode":"3340140","cityName":"国网浙江杭州市余杭区供电有限公司","provinceCode":null,"stopTime":"2020-05-06 10:46:48","powerType":"全部","powerOffArea":"110kV勾庄变:郎家H433线郎家陈家头分线开关后段","powerOffReason":"高压开关跳闸","powerOffId":"2020050631020052"},{"poweroffId":2020050631020017,"sgpoweroffId":null,"subsName":"","lineName":"10kV赭东A807线","pubTranName":"红山村8#变,","scope":"浙江省-杭州市-萧山区-南阳街道-红山行政村-红山自然村等","startTime":"2020-05-06 07:27:21","stopDate":"2020-05-06 09:20:21","orgNo":"3340130","typeCode":"电网故障停限电","poweroffArea":"110kV黎明变:赭东A807线-红山村8#变后段","poweroffReason":"(低压停电信息)低压熔断器跳闸","powerTime":"2020-05-06 08:45:01","powerComm":"已送电","subsNo":"","lineNo":"","tgNo":"","tgName":null,"infoStatus":"1","orgName":"国网浙江杭州市萧山区供电有限公司","typeName":null,"infoStatusName":null,"dateDay":null,"orgNos":null,"nowTime":null,"countyName":null,"streetName":null,"villageName":null,"roadName":null,"communityName":null,"tranName":null,"sdLineName":null,"cityCode":"3340130","cityName":"国网浙江杭州市萧山区供电有限公司","provinceCode":null,"stopTime":"2020-05-06 09:20:21","powerType":"全部","powerOffArea":"110kV黎明变:赭东A807线-红山村8#变后段","powerOffReason":"(低压停电信息)低压熔断器跳闸","powerOffId":"2020050631020017"},{"poweroffId":2020050631020011,"sgpoweroffId":null,"subsName":"","lineName":"10kV金明G343线","pubTranName":"纤石村油车桥西公变,石桥村小桥头公变,康家涧机埠1,杭州凯迪纺织制品有限公司,石桥村钱家斗公变,石桥村梁西村公变,配变,浙江平安消防控制设备有限公司,石桥村丁家桥公变,石桥村梁东村公变,长相知寝具,云会胜利大队机埠,石桥村尖斗里公变,杭州冠业科技有限公司,康家涧机埠2,石桥村施家斗公变,箱变,纤石村祝家斗公变,树云石料,纤石村上欠埠公变,杭州市余杭区苕溪堤防河道管理所,浙江广播电视有限公司,有机肥厂,石桥村小桥村五组公变,石桥村梁东村后公变,纤石村上欠埠塘边公变,纤石村花园桥2号公变,箱变,杭州市余杭区人民政府良渚街道办事处,红星排1,瑞凯包装材料,纤石村油车桥东公变,配变,纤石村前后桥公变,浙江广播电视有限公司,纤石村沈家塘公变,杭州安溪民用船舶修理厂,石桥村吴家斗公变,纤石村马家桥公变,双坝芋排涝变,杭州市余杭区人民政府良渚街道办事处,纤石村韩家门公变,石桥村金家角公变,杭州市余杭区人民政府良渚街道办事处,纤石村万岁桥公变,纤石村油车桥北公变,纤石村韩曹村公变,","scope":"浙江省-杭州市-余杭区-良渚街道-纤石行政村(上纤埠自然村,花园桥自然村,纤石自然村),良渚街道-杜甫行政村(杜甫自然村,疏港公路),良渚街道-石桥行政村(小桥自然村,石桥自然村),良渚街道(三和社区-良安路,良渚行政村-良渚自然村),仁和街道(獐山社区-东西大道,东风行政村-上纤埠自然村);良渚街道-纤石行政村(杭州余杭区良渚街道树云园林绿化工程服务部,杭州余杭区良渚生绿园农庄,杭州长相知家纺科技有限公司,杭州寿明有机肥有限公司,杭州市余杭区安溪幼儿园,杭州安溪民用船泊修理厂,杭州市余杭区人民政府良渚街道办事处,浙江平安消防控制设备有限公司,浙江广播电视集团,杭州冠业科技有限公司,杭州市余杭区河道建设管理中心),良渚街道-良渚行政村(安溪康家涧机埠,云会胜利大队机埠,余杭区良渚镇双坝圩区管理委员会),良渚街道-石桥行政村(杭州凯迪纺织制品有限公司,胡妙松,杭州余杭石桥股份经济合作社,杭州余杭区良渚苗建花木种植场)","startTime":"2020-05-06 07:00:24","stopDate":"2020-05-06 10:20:24","orgNo":"3340140","typeCode":"电网故障停限电","poweroffArea":"110kV洛山变:金明G343线","poweroffReason":"高压开关跳闸 原停电结束时间为2020-05-06 09:00:24,因施工难度大原因,延迟送电,现变更停电结束时间为2020-05-06 10:20:24","powerTime":"2020-05-06 10:09:41","powerComm":"已送电","subsNo":"","lineNo":"","tgNo":"","tgName":null,"infoStatus":"1","orgName":"国网浙江杭州市余杭区供电有限公司","typeName":null,"infoStatusName":null,"dateDay":null,"orgNos":null,"nowTime":null,"countyName":null,"streetName":null,"villageName":null,"roadName":null,"communityName":null,"tranName":null,"sdLineName":null,"cityCode":"3340140","cityName":"国网浙江杭州市余杭区供电有限公司","provinceCode":null,"stopTime":"2020-05-06 10:20:24","powerType":"全部","powerOffArea":"110kV洛山变:金明G343线","powerOffReason":"高压开关跳闸 原停电结束时间为2020-05-06 09:00:24,因施工难度大原因,延迟送电,现变更停电结束时间为2020-05-06 10:20:24","powerOffId":"2020050631020011"},{"poweroffId":2020050531020286,"sgpoweroffId":null,"subsName":"","lineName":"10kV凤谊A564线","pubTranName":"项漾村6#变,","scope":"浙江省-杭州市-萧山区-衙前镇-项漾行政村(项甬自然村,农运路,江河路)","startTime":"2020-05-13 08:30:00","stopDate":"2020-05-13 11:30:00","orgNo":"3340130","typeCode":"计划停电","poweroffArea":"110kV成虎变:凤谊A564线-项漾村6#变后段","poweroffReason":"项漾村6#变换柜 原停电结束时间为2020-05-13 14:30:00,为减少客户停电时间,加快工作进度,提前送电,现变更停电结束时间为2020-05-13 11:30:00","powerTime":"2020-05-13 10:58:56","powerComm":"已送电","subsNo":"","lineNo":"","tgNo":"","tgName":null,"infoStatus":"1","orgName":"国网浙江杭州市萧山区供电有限公司","typeName":null,"infoStatusName":null,"dateDay":null,"orgNos":null,"nowTime":null,"countyName":null,"streetName":null,"villageName":null,"roadName":null,"communityName":null,"tranName":null,"sdLineName":null,"cityCode":"3340130","cityName":"国网浙江杭州市萧山区供电有限公司","provinceCode":null,"stopTime":"2020-05-13 11:30:00","powerType":"全部","powerOffArea":"110kV成虎变:凤谊A564线-项漾村6#变后段","powerOffReason":"项漾村6#变换柜 原停电结束时间为2020-05-13 14:30:00,为减少客户停电时间,加快工作进度,提前送电,现变更停电结束时间为2020-05-13 11:30:00","powerOffId":"2020050531020286"},{"poweroffId":2020050531020254,"sgpoweroffId":null,"subsName":"","lineName":"10kV新万G195线","pubTranName":"海虹密封件,","scope":"浙江省-杭州市-余杭区-南苑街道-钱塘社区-杭州海虹密封件有限公司","startTime":"2020-05-05 17:25:36","stopDate":"2020-05-05 19:25:36","orgNo":"3340140","typeCode":"电网故障停限电","poweroffArea":"110kV外乔变:新万G195线-海虹分线开关后段","poweroffReason":"高压开关跳闸","powerTime":"2020-05-05 18:51:00","powerComm":"已送电","subsNo":"","lineNo":"","tgNo":"","tgName":null,"infoStatus":"1","orgName":"国网浙江杭州市余杭区供电有限公司","typeName":null,"infoStatusName":null,"dateDay":null,"orgNos":null,"nowTime":null,"countyName":null,"streetName":null,"villageName":null,"roadName":null,"communityName":null,"tranName":null,"sdLineName":null,"cityCode":"3340140","cityName":"国网浙江杭州市余杭区供电有限公司","provinceCode":null,"stopTime":"2020-05-05 19:25:36","powerType":"全部","powerOffArea":"110kV外乔变:新万G195线-海虹分线开关后段","powerOffReason":"高压开关跳闸","powerOffId":"2020050531020254"},{"poweroffId":2020050531020250,"sgpoweroffId":null,"subsName":"","lineName":"10kV三都Y125线","pubTranName":"三江口村金沙岭台区,","scope":"浙江省-杭州市-建德市-三都镇-三江口行政村-金沙岭自然村","startTime":"2020-05-05 16:34:00","stopDate":"2020-05-05 17:30:00","orgNo":"3340180","typeCode":"电网故障停限电","poweroffArea":"110kV南峰变:三都Y125线三江口村金沙岭台区配变","poweroffReason":"高压熔丝跌落 原停电结束时间为2020-05-05 18:34:00,为减少客户停电时间,加快工作进度,提前送电,现变更停电结束时间为2020-05-05 17:30:00","powerTime":"2020-05-05 16:55:40","powerComm":"已送电","subsNo":"","lineNo":"","tgNo":"","tgName":null,"infoStatus":"1","orgName":"国网浙江建德市供电有限公司","typeName":null,"infoStatusName":null,"dateDay":null,"orgNos":null,"nowTime":null,"countyName":null,"streetName":null,"villageName":null,"roadName":null,"communityName":null,"tranName":null,"sdLineName":null,"cityCode":"3340180","cityName":"国网浙江建德市供电有限公司","provinceCode":null,"stopTime":"2020-05-05 17:30:00","powerType":"全部","powerOffArea":"110kV南峰变:三都Y125线三江口村金沙岭台区配变","powerOffReason":"高压熔丝跌落 原停电结束时间为2020-05-05 18:34:00,为减少客户停电时间,加快工作进度,提前送电,现变更停电结束时间为2020-05-05 17:30:00","powerOffId":"2020050531020250"},{"poweroffId":2020050531020248,"sgpoweroffId":null,"subsName":"","lineName":"10kV千鹤Y121线","pubTranName":"城西村下高台区,","scope":"浙江省-杭州市-建德市-梅城镇-城西行政村-下高自然村","startTime":"2020-05-05 15:45:00","stopDate":"2020-05-05 17:35:00","orgNo":"3340180","typeCode":"电网故障停限电","poweroffArea":"110kV梅城变:千鹤Y121线-城西村下高台区后段","poweroffReason":"(低压停电信息)低压开关跳闸","powerTime":"2020-05-05 16:50:18","powerComm":"已送电","subsNo":"","lineNo":"","tgNo":"","tgName":null,"infoStatus":"1","orgName":"国网浙江建德市供电有限公司","typeName":null,"infoStatusName":null,"dateDay":null,"orgNos":null,"nowTime":null,"countyName":null,"streetName":null,"villageName":null,"roadName":null,"communityName":null,"tranName":null,"sdLineName":null,"cityCode":"3340180","cityName":"国网浙江建德市供电有限公司","provinceCode":null,"stopTime":"2020-05-05 17:35:00","powerType":"全部","powerOffArea":"110kV梅城变:千鹤Y121线-城西村下高台区后段","powerOffReason":"(低压停电信息)低压开关跳闸","powerOffId":"2020050531020248"},{"poweroffId":2020050531020246,"sgpoweroffId":null,"subsName":"","lineName":"10kV高峰Y197线","pubTranName":"1#,上樟公寓3#公变,2#变,杭州福洋茶业有限公司,一江春水高峰4#公变台区,建德市鹏泰生物科技有限公司,建德市洋溪水电开发有限公司1#,1#,洋溪社区中先台区,建德市洁美农村改厕经营部变压器,洋溪社区高畈台区,白沙滩2号公变,友谊村黄金湾台区,友谊村友洪台区,洋溪社区下街台区,一江春水高峰6#公变台区,上樟公寓4#公变,洋溪社区合坑台区,建德市江珠钙塑材料厂,浙江东科新材料有限公司,1#,一江春水高峰2#公变台区,一江春水高峰5#公变台区,浙江致中和实业有限公司,建德市嘉轩工艺品有限公司,建德市万佳机械有限公司,友谊村洪坑台区,一江春水高峰1#公变台区,2#,西水公寓1#公变变压器,杭州市新安江味精厂2#,上樟公寓2#公变,1#,友谊村友径台区,友谊村幽洪新村台区,友谊村卫林畈台区,市公路段(洋溪),友谊村西木坞台区,友谊村洋坞口台区,一江春水高峰3#公变台区,上樟公寓1#公变,1#变,西水公寓2#公变变压器,西水公寓3#公变变压器,","scope":"浙江省-杭州市-建德市-洋溪街道-友谊行政村 友洪自然村,西木坞自然村,洋坞口自然村,友径自然村,卫林畈自然村 合坑自然村,320国道,高畈自然村,高畈路,中先自然村,朝阳路,上樟公寓3号,上樟公寓2号,上樟公寓4号,上樟公寓1号,上章自然村,复兴街,洋溪村,江景路；建德市洁美农村改厕经营部,建德市洋溪水电开发有限公司,浙江严州府食品有限公司,建德市兴鑫电动汽车有限公司,市公路段(洋溪),建德市嘉轩工艺品有限公司,建德市鹏泰生物科技有限公司,建德市莲新木材有限公司,浙江逸龙文化创意发展有限公司,杭州福洋茶业有限公司,建德市江珠钙塑材料厂,浙江致中和实业有限公司,建德市万佳机械有限公司,浙江东科新材料有限公司","startTime":"2020-05-05 15:48:00","stopDate":"2020-05-05 17:00:00","orgNo":"3340180","typeCode":"电网故障停限电","poweroffArea":"35kV洋溪变:高峰Y197线路口开关站高峰Y197线负荷开关后段","poweroffReason":"高压开关跳闸","powerTime":"2020-05-05 16:20:37","powerComm":"已送电","subsNo":"","lineNo":"","tgNo":"","tgName":null,"infoStatus":"1","orgName":"国网浙江建德市供电有限公司","typeName":null,"infoStatusName":null,"dateDay":null,"orgNos":null,"nowTime":null,"countyName":null,"streetName":null,"villageName":null,"roadName":null,"communityName":null,"tranName":null,"sdLineName":null,"cityCode":"3340180","cityName":"国网浙江建德市供电有限公司","provinceCode":null,"stopTime":"2020-05-05 17:00:00","powerType":"全部","powerOffArea":"35kV洋溪变:高峰Y197线路口开关站高峰Y197线负荷开关后段","powerOffReason":"高压开关跳闸","powerOffId":"2020050531020246"}],"pageModel":{"pageNow":214,"totalCount":17788,"totalPage":1779,"tableRows":0,"pageCount":10,"beginCount":2130},"isExperi":"1"}