{"message":"","today":"2020-06-15","seleList":[{"poweroffId":2020050531020180,"sgpoweroffId":null,"subsName":"","lineName":"10kV长山D944线","pubTranName":"水稻所5#杨家山公变,","scope":"浙江省-杭州市-富阳区-富春街道-水稻所试验农场-水稻所路","startTime":"2020-05-05 12:48:00","stopDate":"2020-05-05 14:48:00","orgNo":"3340170","typeCode":"电网故障停限电","poweroffArea":"110kV育才变:长山D944线水稻所5#杨家山公变配变","poweroffReason":"高压开关跳闸","powerTime":"2020-05-05 14:06:49","powerComm":"已送电","subsNo":"","lineNo":"","tgNo":"","tgName":null,"infoStatus":"1","orgName":"国网浙江杭州市富阳区供电公司","typeName":null,"infoStatusName":null,"dateDay":null,"orgNos":null,"nowTime":null,"countyName":null,"streetName":null,"villageName":null,"roadName":null,"communityName":null,"tranName":null,"sdLineName":null,"cityCode":"3340170","cityName":"国网浙江杭州市富阳区供电公司","provinceCode":null,"stopTime":"2020-05-05 14:48:00","powerType":"全部","powerOffArea":"110kV育才变:长山D944线水稻所5#杨家山公变配变","powerOffReason":"高压开关跳闸","powerOffId":"2020050531020180"},{"poweroffId":2020050531020178,"sgpoweroffId":null,"subsName":"","lineName":"10kV永磁A392线","pubTranName":"万富机械,盈二村5#变,顺坝村8#变,新北村3#变,杭州龙润机械有限公司1#,顺坝村11#变,龙润机械,红博苑实业1#,顺坝村13#变,红博苑实业,杭州金溢钢网架制造有限公司,冠豪车业,滨江果业,1#变,盈二村24#变,顺坝村4#变,部队9#,顺坝村16#变,","scope":"浙江省-杭州市-萧山区-宁围镇-宁围街道(盈一行政村-盈一自然村,二桥行政村-新北自然村,顺坝行政村-顺坝自然村,盈二行政村-盈二自然村);浙江省-杭州市-萧山区-宁围街道-二桥行政村-杭州龙润机械有限公司,经济技术开发区-钱江社区(融通农业发展(杭州)有限责任公司,杭州滨江果业有限公司,浙江红博苑投资有限公司,杭州龙润机械有限公司,杭州金溢钢网架制造有限公司,杭州荣达车配制造有限公司),宁围街道-顺坝行政村(杭州万富机械有限公司,杭州冠豪车业实业有限公司)等一带","startTime":"2020-05-05 12:47:46","stopDate":"2020-05-05 16:45:46","orgNo":"3340130","typeCode":"电网故障停限电","poweroffArea":"110kV顺坝变:永磁A392线","poweroffReason":"高压柱上断路器短路故障 原停电结束时间为2020-05-05 18:30:46,为减少客户停电时间,加快工作进度,提前送电,现变更停电结束时间为2020-05-05 16:45:46","powerTime":"2020-05-05 15:48:18","powerComm":"已送电","subsNo":"","lineNo":"","tgNo":"","tgName":null,"infoStatus":"1","orgName":"国网浙江杭州市萧山区供电有限公司","typeName":null,"infoStatusName":null,"dateDay":null,"orgNos":null,"nowTime":null,"countyName":null,"streetName":null,"villageName":null,"roadName":null,"communityName":null,"tranName":null,"sdLineName":null,"cityCode":"3340130","cityName":"国网浙江杭州市萧山区供电有限公司","provinceCode":null,"stopTime":"2020-05-05 16:45:46","powerType":"全部","powerOffArea":"110kV顺坝变:永磁A392线","powerOffReason":"高压柱上断路器短路故障 原停电结束时间为2020-05-05 18:30:46,为减少客户停电时间,加快工作进度,提前送电,现变更停电结束时间为2020-05-05 16:45:46","powerOffId":"2020050531020178"},{"poweroffId":2020050531020163,"sgpoweroffId":null,"subsName":"","lineName":"10kV陈家Y181线","pubTranName":"于合村大机埠台区,","scope":"浙江省-杭州市-建德市-更楼街道-于合行政村-于合自然村,寿昌镇-陈家行政村四龙口自然村,陈家自然村","startTime":"2020-05-05 12:17:00","stopDate":"2020-05-05 13:20:00","orgNo":"3340180","typeCode":"电网故障停限电","poweroffArea":"35kV河南里变:陈家Y181线于合村大机埠台区配变","poweroffReason":"高压开关跳闸 原停电结束时间为2020-05-05 14:30:00,为减少客户停电时间,加快工作进度,提前送电,现变更停电结束时间为2020-05-05 13:20:00","powerTime":"2020-05-05 12:37:21","powerComm":"已送电","subsNo":"","lineNo":"","tgNo":"","tgName":null,"infoStatus":"1","orgName":"国网浙江建德市供电有限公司","typeName":null,"infoStatusName":null,"dateDay":null,"orgNos":null,"nowTime":null,"countyName":null,"streetName":null,"villageName":null,"roadName":null,"communityName":null,"tranName":null,"sdLineName":null,"cityCode":"3340180","cityName":"国网浙江建德市供电有限公司","provinceCode":null,"stopTime":"2020-05-05 13:20:00","powerType":"全部","powerOffArea":"35kV河南里变:陈家Y181线于合村大机埠台区配变","powerOffReason":"高压开关跳闸 原停电结束时间为2020-05-05 14:30:00,为减少客户停电时间,加快工作进度,提前送电,现变更停电结束时间为2020-05-05 13:20:00","powerOffId":"2020050531020163"},{"poweroffId":2020050531020149,"sgpoweroffId":null,"subsName":"","lineName":"10kV之湘A331线","pubTranName":"瓜沥镇新港村17#变,","scope":"浙江省-杭州市-萧山区-瓜沥镇-三岔路行政村-机场路,瓜沥镇-新港行政村(机场路,新港自然村,坎红路,盈钱路)等","startTime":"2020-05-05 11:37:27","stopDate":"2020-05-05 13:20:27","orgNo":"3340130","typeCode":"电网故障停限电","poweroffArea":"110kV靖江变:之湘A331线-瓜沥镇新港村17#变后段","poweroffReason":"(低压停电信息) 低压熔断器跳闸 原停电结束时间为2020-05-05 14:30:27,为减少客户停电时间,加快工作进度,提前送电,现变更停电结束时间为2020-05-05 13:20:27","powerTime":"2020-05-05 12:29:25","powerComm":"已送电","subsNo":"","lineNo":"","tgNo":"","tgName":null,"infoStatus":"1","orgName":"国网浙江杭州市萧山区供电有限公司","typeName":null,"infoStatusName":null,"dateDay":null,"orgNos":null,"nowTime":null,"countyName":null,"streetName":null,"villageName":null,"roadName":null,"communityName":null,"tranName":null,"sdLineName":null,"cityCode":"3340130","cityName":"国网浙江杭州市萧山区供电有限公司","provinceCode":null,"stopTime":"2020-05-05 13:20:27","powerType":"全部","powerOffArea":"110kV靖江变:之湘A331线-瓜沥镇新港村17#变后段","powerOffReason":"(低压停电信息) 低压熔断器跳闸 原停电结束时间为2020-05-05 14:30:27,为减少客户停电时间,加快工作进度,提前送电,现变更停电结束时间为2020-05-05 13:20:27","powerOffId":"2020050531020149"},{"poweroffId":2020050531020147,"sgpoweroffId":null,"subsName":"","lineName":"10kV林峰A393线","pubTranName":"名扬阁2#公变,","scope":"浙江省-杭州市-萧山区-经济技术开发区(市北社区-钱农四路,钱江社区-钱农西路)、浙江省杭州市萧山区钱江农场名扬阁小区等一带","startTime":"2020-05-05 11:27:00","stopDate":"2020-05-05 17:27:00","orgNo":"3340130","typeCode":"电网故障停限电","poweroffArea":"110kV顺坝变:林峰A393线名扬阁2#公变台区低压开关","poweroffReason":"(低压停电信息)低压漏电保护器短路故障","powerTime":"2020-05-05 16:30:39","powerComm":"已送电","subsNo":"","lineNo":"","tgNo":"","tgName":null,"infoStatus":"1","orgName":"国网浙江杭州市萧山区供电有限公司","typeName":null,"infoStatusName":null,"dateDay":null,"orgNos":null,"nowTime":null,"countyName":null,"streetName":null,"villageName":null,"roadName":null,"communityName":null,"tranName":null,"sdLineName":null,"cityCode":"3340130","cityName":"国网浙江杭州市萧山区供电有限公司","provinceCode":null,"stopTime":"2020-05-05 17:27:00","powerType":"全部","powerOffArea":"110kV顺坝变:林峰A393线名扬阁2#公变台区低压开关","powerOffReason":"(低压停电信息)低压漏电保护器短路故障","powerOffId":"2020050531020147"},{"poweroffId":2020050531020091,"sgpoweroffId":null,"subsName":"","lineName":"10kV振兴T250线","pubTranName":"沈家村2号公变,","scope":"浙江省-杭州市-桐庐县-江南镇-窄溪行政村-沈家自然村","startTime":"2020-05-05 10:28:40","stopDate":"2020-05-05 15:28:40","orgNo":"3340150","typeCode":"电网故障停限电","poweroffArea":"110kV石阜变:振兴T250线-沈家村2号公变后段","poweroffReason":"(低压停电信息)低压开关跳闸","powerTime":"2020-05-05 15:10:52","powerComm":"已送电","subsNo":"","lineNo":"","tgNo":"","tgName":null,"infoStatus":"1","orgName":"国网浙江桐庐县供电公司","typeName":null,"infoStatusName":null,"dateDay":null,"orgNos":null,"nowTime":null,"countyName":null,"streetName":null,"villageName":null,"roadName":null,"communityName":null,"tranName":null,"sdLineName":null,"cityCode":"3340150","cityName":"国网浙江桐庐县供电公司","provinceCode":null,"stopTime":"2020-05-05 15:28:40","powerType":"全部","powerOffArea":"110kV石阜变:振兴T250线-沈家村2号公变后段","powerOffReason":"(低压停电信息)低压开关跳闸","powerOffId":"2020050531020091"},{"poweroffId":2020050531020039,"sgpoweroffId":null,"subsName":"","lineName":"10kV新益A38线","pubTranName":"新益村8#变,","scope":"浙江省-杭州市-萧山区-义蓬街道-新益行政村-新益自然村、新益村","startTime":"2020-05-05 09:00:13","stopDate":"2020-05-05 11:00:13","orgNo":"3340120","typeCode":"电网故障停限电","poweroffArea":"110kV白浪变:新益A38线-新益村8#变台区低压开关后段","poweroffReason":"(低压停电信息)低压开关跳闸","powerTime":"2020-05-05 10:12:26","powerComm":"已送电","subsNo":"","lineNo":"","tgNo":"","tgName":null,"infoStatus":"1","orgName":"国网浙江杭州市钱塘新区供电公司","typeName":null,"infoStatusName":null,"dateDay":null,"orgNos":null,"nowTime":null,"countyName":null,"streetName":null,"villageName":null,"roadName":null,"communityName":null,"tranName":null,"sdLineName":null,"cityCode":"3340120","cityName":"国网浙江杭州市钱塘新区供电公司","provinceCode":null,"stopTime":"2020-05-05 11:00:13","powerType":"全部","powerOffArea":"110kV白浪变:新益A38线-新益村8#变台区低压开关后段","powerOffReason":"(低压停电信息)低压开关跳闸","powerOffId":"2020050531020039"},{"poweroffId":2020050531020035,"sgpoweroffId":null,"subsName":"","lineName":"10kV洋尾Y317线","pubTranName":"滨江村塔上台区,滨江村金家畈台区,滨江村田字坞台区,滨江村雪岭台区,滨江村荷畈台区,","scope":"浙江省-杭州市-建德市-梅城镇-滨江行政村 金家畈自然村,大坪自然村,塔上自然村,血岭自然村,田字坞自然村,荷畈自然村","startTime":"2020-05-05 08:45:00","stopDate":"2020-05-05 11:00:00","orgNo":"3340180","typeCode":"电网故障停限电","poweroffArea":"35kV大洋变:洋尾Y317线雪岭支线0#杆开关后段","poweroffReason":"高压开关跳闸","powerTime":"2020-05-05 10:04:33","powerComm":"已送电","subsNo":"","lineNo":"","tgNo":"","tgName":null,"infoStatus":"1","orgName":"国网浙江建德市供电有限公司","typeName":null,"infoStatusName":null,"dateDay":null,"orgNos":null,"nowTime":null,"countyName":null,"streetName":null,"villageName":null,"roadName":null,"communityName":null,"tranName":null,"sdLineName":null,"cityCode":"3340180","cityName":"国网浙江建德市供电有限公司","provinceCode":null,"stopTime":"2020-05-05 11:00:00","powerType":"全部","powerOffArea":"35kV大洋变:洋尾Y317线雪岭支线0#杆开关后段","powerOffReason":"高压开关跳闸","powerOffId":"2020050531020035"},{"poweroffId":2020050531020015,"sgpoweroffId":null,"subsName":"","lineName":"10kV建华8581线","pubTranName":"气化,长小,","scope":"浙江省-杭州市-下城区-东新街道(杭州天然气有限公司,杭州市长寿桥小学长青分校)","startTime":"2020-05-05 06:47:31","stopDate":"2020-05-05 10:47:31","orgNo":"3340101","typeCode":"电网故障停限电","poweroffArea":"220kV霞湾变:建华8581线联房分线后段","poweroffReason":"高压开关跳闸 原停电结束时间为2020-05-05 08:47:31,因施工现场环境比较复杂原因，延迟送电,现变更停电结束时间为2020-05-05 10:47:31","powerTime":"2020-05-05 10:05:53","powerComm":"已送电","subsNo":"","lineNo":"","tgNo":"","tgName":null,"infoStatus":"1","orgName":"浙江杭州电力客户服务中心","typeName":null,"infoStatusName":null,"dateDay":null,"orgNos":null,"nowTime":null,"countyName":null,"streetName":null,"villageName":null,"roadName":null,"communityName":null,"tranName":null,"sdLineName":null,"cityCode":"3340101","cityName":"浙江杭州电力客户服务中心","provinceCode":null,"stopTime":"2020-05-05 10:47:31","powerType":"全部","powerOffArea":"220kV霞湾变:建华8581线联房分线后段","powerOffReason":"高压开关跳闸 原停电结束时间为2020-05-05 08:47:31,因施工现场环境比较复杂原因，延迟送电,现变更停电结束时间为2020-05-05 10:47:31","powerOffId":"2020050531020015"},{"poweroffId":2020050431020184,"sgpoweroffId":null,"subsName":"","lineName":"10kV众丽A328线","pubTranName":"靖一村17#变,靖一村1#变,横埂头村12#变,浙江争好服饰有限公司1变压器,靖一村8#变,运西村14#变,靖一村20#变,靖一村16#变,靖一村19#变,杭州萧山众丽花边有限公司,杭州市萧山区瓜沥镇人民政府5#,浙江争好服饰有限公司,中国石油化工股份有限公司浙江杭州石油分公司,浙江争好服饰有限公司,1#变,靖一村4#变,靖一村2#变,杭州萧山金汇纺织有限公司,1#电机,靖一村3#变,杭州萧山众丽花边有限公司,","scope":"浙江省-杭州市-萧山区-瓜沥镇(运西行政村-运西自然村,靖一行政村-靖一自然村,横埂头行政村-横埂头自然村);瓜沥镇(杭州萧山金汇纺织有限公司,杭州萧山众丽花边有限公司,中国石化销售股份有限公司浙江杭州石油分公司,杭州萧山瓜沥凤条化纤布厂,浙江争好服饰有限公司,杭州市萧山区瓜沥镇人民政府等","startTime":"2020-05-04 23:05:00","stopDate":"2020-05-05 01:05:00","orgNo":"3340130","typeCode":"电网故障停限电","poweroffArea":"110kV靖江变:众丽A328线众丽A328线开关后段","poweroffReason":"高压开关跳闸 原停电结束时间为2020-05-05 05:43:00,为减少客户停电时间,加快工作进度,提前送电,现变更停电结束时间为2020-05-05 01:05:00","powerTime":"2020-05-05 00:27:07","powerComm":"已送电","subsNo":"","lineNo":"","tgNo":"","tgName":null,"infoStatus":"1","orgName":"国网浙江杭州市萧山区供电有限公司","typeName":null,"infoStatusName":null,"dateDay":null,"orgNos":null,"nowTime":null,"countyName":null,"streetName":null,"villageName":null,"roadName":null,"communityName":null,"tranName":null,"sdLineName":null,"cityCode":"3340130","cityName":"国网浙江杭州市萧山区供电有限公司","provinceCode":null,"stopTime":"2020-05-05 01:05:00","powerType":"全部","powerOffArea":"110kV靖江变:众丽A328线众丽A328线开关后段","powerOffReason":"高压开关跳闸 原停电结束时间为2020-05-05 05:43:00,为减少客户停电时间,加快工作进度,提前送电,现变更停电结束时间为2020-05-05 01:05:00","powerOffId":"2020050431020184"}],"pageModel":{"pageNow":216,"totalCount":17788,"totalPage":1779,"tableRows":0,"pageCount":10,"beginCount":2150},"isExperi":"1"}