{"message":"","today":"2020-06-15","seleList":[{"poweroffId":2020050331020098,"sgpoweroffId":null,"subsName":"","lineName":"10kV大通C215线","pubTranName":"杭州金丝源时装有限公司,杭州恒镕印刷包装有限公司,杭州唯可曼家居布艺有限公司,1#变,2#变,变压器,伟成物业2#,杭州萧山污水处理有限公司变压器,城厢供热,","scope":"浙江省-杭州市-萧山区-新塘街道-畈里童社区(杭州萧山污水处理有限公司,杭州唯可曼家居布艺有限公司),新塘街道-琴山下社区(杭州华元拆房有限公司,杭州恒镕印刷包装有限公司),新塘街道(半爿街社区-杭州萧山城厢供热有限公司,西许行政村-杭州金丝源时装有限公司,塘里陈社区-杭州建宇制衣有限公司,商城社区-杭州伟成物业服务有限公司)，浙江省杭州市萧山区新塘街道畈里童社区畈里童自然村坂里童村新罗路128号","startTime":"2020-05-03 13:45:46","stopDate":"2020-05-03 15:05:46","orgNo":"3340130","typeCode":"电网故障停限电","poweroffArea":"110kV霞江变:大通C215线-通塘C215线佳利食品分线开关后段","poweroffReason":"外力破坏引起大通C215线高压柱上断路器短路跳闸 原停电结束时间为2020-05-03 15:57:46,为减少客户停电时间,加快工作进度,提前送电,现变更停电结束时间为2020-05-03 15:05:46","powerTime":"2020-05-03 14:39:12","powerComm":"已送电","subsNo":"","lineNo":"","tgNo":"","tgName":null,"infoStatus":"1","orgName":"国网浙江杭州市萧山区供电有限公司","typeName":null,"infoStatusName":null,"dateDay":null,"orgNos":null,"nowTime":null,"countyName":null,"streetName":null,"villageName":null,"roadName":null,"communityName":null,"tranName":null,"sdLineName":null,"cityCode":"3340130","cityName":"国网浙江杭州市萧山区供电有限公司","provinceCode":null,"stopTime":"2020-05-03 15:05:46","powerType":"全部","powerOffArea":"110kV霞江变:大通C215线-通塘C215线佳利食品分线开关后段","powerOffReason":"外力破坏引起大通C215线高压柱上断路器短路跳闸 原停电结束时间为2020-05-03 15:57:46,为减少客户停电时间,加快工作进度,提前送电,现变更停电结束时间为2020-05-03 15:05:46","powerOffId":"2020050331020098"},{"poweroffId":2020050331020091,"sgpoweroffId":null,"subsName":"","lineName":"10kV上义H991线","pubTranName":"上湖农居1号公变,","scope":"浙江省-杭州市-余杭区-余杭街道-上湖行政村-上湖自然村","startTime":"2020-05-03 13:07:52","stopDate":"2020-05-03 15:07:52","orgNo":"3340140","typeCode":"电网故障停限电","poweroffArea":"110kV余杭临时变:上义H991线-上湖农居点1#站分线开关后段","poweroffReason":"高压开关跳闸","powerTime":"2020-05-03 14:23:09","powerComm":"已送电","subsNo":"","lineNo":"","tgNo":"","tgName":null,"infoStatus":"1","orgName":"国网浙江杭州市余杭区供电有限公司","typeName":null,"infoStatusName":null,"dateDay":null,"orgNos":null,"nowTime":null,"countyName":null,"streetName":null,"villageName":null,"roadName":null,"communityName":null,"tranName":null,"sdLineName":null,"cityCode":"3340140","cityName":"国网浙江杭州市余杭区供电有限公司","provinceCode":null,"stopTime":"2020-05-03 15:07:52","powerType":"全部","powerOffArea":"110kV余杭临时变:上义H991线-上湖农居点1#站分线开关后段","powerOffReason":"高压开关跳闸","powerOffId":"2020050331020091"},{"poweroffId":2020050331020039,"sgpoweroffId":null,"subsName":"","lineName":"10kV成翔A557线","pubTranName":"衙前集镇4#变,","scope":"浙江省-杭州市-萧山区-衙前镇-凤凰行政村-成虎路,衙前镇-毕公桥社区(成虎路)","startTime":"2020-05-11 08:30:00","stopDate":"2020-05-11 11:20:00","orgNo":"3340130","typeCode":"计划停电","poweroffArea":"110kV成虎变:成翔A557线-衙前集镇4#变后段","poweroffReason":"成翔A557线20#杆带电拆分支线路引线、成栋A568线20#杆带电拆分支线路引线 原停电结束时间为2020-05-11 16:30:00,为减少客户停电时间,加快工作进度,提前送电,现变更停电结束时间为2020-05-11 11:20:00","powerTime":"2020-05-11 10:45:33","powerComm":"已送电","subsNo":"","lineNo":"","tgNo":"","tgName":null,"infoStatus":"1","orgName":"国网浙江杭州市萧山区供电有限公司","typeName":null,"infoStatusName":null,"dateDay":null,"orgNos":null,"nowTime":null,"countyName":null,"streetName":null,"villageName":null,"roadName":null,"communityName":null,"tranName":null,"sdLineName":null,"cityCode":"3340130","cityName":"国网浙江杭州市萧山区供电有限公司","provinceCode":null,"stopTime":"2020-05-11 11:20:00","powerType":"全部","powerOffArea":"110kV成虎变:成翔A557线-衙前集镇4#变后段","powerOffReason":"成翔A557线20#杆带电拆分支线路引线、成栋A568线20#杆带电拆分支线路引线 原停电结束时间为2020-05-11 16:30:00,为减少客户停电时间,加快工作进度,提前送电,现变更停电结束时间为2020-05-11 11:20:00","powerOffId":"2020050331020039"},{"poweroffId":2020050231020156,"sgpoweroffId":null,"subsName":"","lineName":"10kV新桥Y103线","pubTranName":"水碓巷公变,","scope":"浙江省-杭州市-建德市-新安江街道-府西社区(府西路,水碓巷)","startTime":"2020-05-02 22:47:23","stopDate":"2020-05-02 23:30:00","orgNo":"3340180","typeCode":"电网故障停限电","poweroffArea":"110kV新安江变:新桥Y103线-水碓巷公变后段","poweroffReason":"(低压停电信息)低压开关跳闸","powerTime":"2020-05-02 23:09:00","powerComm":"已送电","subsNo":"","lineNo":"","tgNo":"","tgName":null,"infoStatus":"1","orgName":"国网浙江建德市供电有限公司","typeName":null,"infoStatusName":null,"dateDay":null,"orgNos":null,"nowTime":null,"countyName":null,"streetName":null,"villageName":null,"roadName":null,"communityName":null,"tranName":null,"sdLineName":null,"cityCode":"3340180","cityName":"国网浙江建德市供电有限公司","provinceCode":null,"stopTime":"2020-05-02 23:30:00","powerType":"全部","powerOffArea":"110kV新安江变:新桥Y103线-水碓巷公变后段","powerOffReason":"(低压停电信息)低压开关跳闸","powerOffId":"2020050231020156"},{"poweroffId":2020050231020137,"sgpoweroffId":null,"subsName":"","lineName":"10kV凌家C272线","pubTranName":"杭州优之程汽车零部件有限公司,山河村凌家坞7#变,山河村凌家坞2#变,杭州力胜工贸有限公司,富隆电子机械,杭州点铁汽车零部件有限公司,","scope":"浙江省-杭州市-萧山区-闻堰街道-山河行政村(钟基郎自然村,孙家里自然村,湘滨路,钟前王自然村,凌家坞自然村);闻堰街道-山河行政村(杭州优之程汽车零部件有限公司,杭州富隆电子机械有限公司,杭州开泰机械有限公司,杭州点铁汽车零部件有限公司)一带","startTime":"2020-05-02 18:10:38","stopDate":"2020-05-02 19:40:38","orgNo":"3340130","typeCode":"电网故障停限电","poweroffArea":"110kV三江变:凌家C272线-凌家C272线富隆电子分线开关（自）后段","poweroffReason":"高压开关跳闸","powerTime":"2020-05-02 19:06:40","powerComm":"已送电","subsNo":"","lineNo":"","tgNo":"","tgName":null,"infoStatus":"1","orgName":"国网浙江杭州市萧山区供电有限公司","typeName":null,"infoStatusName":null,"dateDay":null,"orgNos":null,"nowTime":null,"countyName":null,"streetName":null,"villageName":null,"roadName":null,"communityName":null,"tranName":null,"sdLineName":null,"cityCode":"3340130","cityName":"国网浙江杭州市萧山区供电有限公司","provinceCode":null,"stopTime":"2020-05-02 19:40:38","powerType":"全部","powerOffArea":"110kV三江变:凌家C272线-凌家C272线富隆电子分线开关（自）后段","powerOffReason":"高压开关跳闸","powerOffId":"2020050231020137"},{"poweroffId":2020050231020135,"sgpoweroffId":null,"subsName":"","lineName":"10kV许业C178线","pubTranName":"杭州萧山嘉盛化纤有限公司,蛟山村2#变,搏远实业,罗幕村8#变,罗幕村12#变,杭州市萧山区义桥镇人民政府,蛟山村3#变,中卫消毒,宏达装饰布艺2#,蛟山村6#变,蛟山村1#变,变压器,蛟山村11#变,蛟山村14#变,三和电控,小森工具,杭州市萧山区义桥镇人民政府,河西村5#变,罗幕村11#变,杭州萧山交通工程中心试验室,罗幕村10#变,杭州欧立电器有限公司,杭州新田农业有限公司,罗幕村20#变,杭州萧山浦阳江建设开发有限公司,罗幕村6#变,","scope":"浙江省-杭州市-萧山区-义桥镇-罗幕行政村(后黄自然村,前黄自然村,单家自然村),义桥镇-河西行政村(周坊下自然村,河西自然村),义桥镇-蛟山行政村(吴闸自然村,孙家埭自然村,吴里周自然村,吴闸里自然村,俞家里自然村,新屋基地自然村,磨刀桥自然村,磨刀自然村,高田周自然村);义桥镇-罗幕行政村(杭州博远实业有限公司,杭州欧立电器有限公司,杭州中卫消毒器械厂,杭州萧山交通工程中心试验有限公司,杭州萧山浦阳江建设开发有限公司),义桥镇-蛟山行政村(杭州市萧山区义桥镇人民政府,杭州宏达装饰布织造有限公司,杭州萧山嘉盛化纤有限公司,杭州新田农业有限公司),义桥镇(田丰行政村-杭州三和电控设备有限公司,富春行政村-杭州小森五金工具有限公司,民丰行政村-杭州市萧山区义桥镇人民政府)，义桥镇后黄村等","startTime":"2020-05-02 17:32:00","stopDate":"2020-05-02 20:20:00","orgNo":"3340130","typeCode":"电网故障停限电","poweroffArea":"110kV许贤变:许业C178线-许业C1784开关后段","poweroffReason":"高压柱上断路器跳闸 原停电结束时间为2020-05-02 20:59:00,为减少客户停电时间,加快工作进度,提前送电,现变更停电结束时间为2020-05-02 20:20:00","powerTime":"2020-05-02 19:44:25","powerComm":"已送电","subsNo":"","lineNo":"","tgNo":"","tgName":null,"infoStatus":"1","orgName":"国网浙江杭州市萧山区供电有限公司","typeName":null,"infoStatusName":null,"dateDay":null,"orgNos":null,"nowTime":null,"countyName":null,"streetName":null,"villageName":null,"roadName":null,"communityName":null,"tranName":null,"sdLineName":null,"cityCode":"3340130","cityName":"国网浙江杭州市萧山区供电有限公司","provinceCode":null,"stopTime":"2020-05-02 20:20:00","powerType":"全部","powerOffArea":"110kV许贤变:许业C178线-许业C1784开关后段","powerOffReason":"高压柱上断路器跳闸 原停电结束时间为2020-05-02 20:59:00,为减少客户停电时间,加快工作进度,提前送电,现变更停电结束时间为2020-05-02 20:20:00","powerOffId":"2020050231020135"},{"poweroffId":2020050231020133,"sgpoweroffId":null,"subsName":"","lineName":"10kV洄龙C232线","pubTranName":"杭州润森化妆品包装有限公司,吉达汽配,变压器,吉达汽配,杭州欧凯家私制造有限公司,杭州博宇减速机有限公司2#,管村村25#变,联发村3#变,管村村14#变,管村村18#变,荣鑫家具,管村村2#变,管村村11#变,杭州元祺生物科技有限公司2#,杭州华艺实业有限公司,杭州萧山继英纺织有限公司,南京凌云科技发展有限公司,杭州萧山污水处理有限公司,管村村6#变,管村村13#变,管村村22#变,管村村21#变,联发村1#变,南京凌云科技发展有限公司,杭州互投网络科技有限公司,管村村24#变,管村村10#变,杭州元祺生物科技有限公司1#,管村村9#变,杭州萧山洄龙桥纺织有限公司,杭州奥风科技有限公司,管村村7#变,杭州市萧山区楼塔镇人民政府,联发村12#变,杭州长虹路桥工程有限公司,管村村20#变,联发村2#变,管村村3#变,杭州宏杰减速机有限公司,管村村1#变,杭州博宇减速机有限公司1#,","scope":"浙江省-杭州市-萧山区-河上镇-联发行政村-塘口自然村,楼塔镇-管村行政村(管村自然村,开发区,管家自然村,开发区府前路,桥北路);河上镇-南京凌云科技发展有限公司,楼塔镇(杭州萧山洄龙桥纺织有限公司,杭州荣鑫家私有限公司,杭州奥风科技有限公司,杭州元祺生物科技有限公司,杭州萧山继英纺织有限公司,杭州萧山污水处理有限公司,杭州新豪服装有限公司,杭州吉达汽车配件有限公司,杭州宏杰减速机有限公司,杭州博宇减速机有限公司,杭州润森化妆品包装有限公司,杭州长虹路桥工程有限公司,杭州互投网络科技有限公司,杭州市萧山区楼塔镇人民政府,杭州华艺实业有限公司,杭州欧凯家私制造有限公司,南京凌云科技发展有限公司)等","startTime":"2020-05-02 17:26:00","stopDate":"2020-05-02 18:26:00","orgNo":"3340130","typeCode":"电网故障停限电","poweroffArea":"35kV楼塔变:洄龙C232线洄龙C2322开关后段","poweroffReason":"高压柱上断路器跳闸","powerTime":"2020-05-02 17:49:49","powerComm":"已送电","subsNo":"","lineNo":"","tgNo":"","tgName":null,"infoStatus":"1","orgName":"国网浙江杭州市萧山区供电有限公司","typeName":null,"infoStatusName":null,"dateDay":null,"orgNos":null,"nowTime":null,"countyName":null,"streetName":null,"villageName":null,"roadName":null,"communityName":null,"tranName":null,"sdLineName":null,"cityCode":"3340130","cityName":"国网浙江杭州市萧山区供电有限公司","provinceCode":null,"stopTime":"2020-05-02 18:26:00","powerType":"全部","powerOffArea":"35kV楼塔变:洄龙C232线洄龙C2322开关后段","powerOffReason":"高压柱上断路器跳闸","powerOffId":"2020050231020133"},{"poweroffId":2020050231020095,"sgpoweroffId":null,"subsName":"","lineName":"10kV新桥Y103线","pubTranName":"1#变,府北巷公变,叶家社区依城苑1号公变,党校公变,叶家社区依城苑2号公变,府西路公变,电联商厦1#变变压器,叶家社区月亮湾2号公变,建德市机关事务管理局1#专变,机关公变,丹桂公变,1#变,建德市老年体育协会1#,月坪公变,机关事务管理局（老年大学）1#专变,杭州外海月亮湾大酒店1#专变,杭州外海月亮湾大酒店有限公司2#,中国石油化工股份有限公司浙江杭州石油分公司1#专变,建德市水务有限公司,水碓巷公变,","scope":"浙江省-杭州市-建德市-新安江街道-府西社区(新安路,少年宫巷,水碓巷,府西路,翠薇路,府前路,南宁巷,政法路),新安江街道-叶家社区(艾溪路,叶家路),新安江街道-沧滩社区(新安路,沧滩路);新安江街道(建德市新安江主恩堂,建德市新安旅游投资有限公司,杭州新港润滑科技有限公司,杭州外海月亮湾大酒店有限公司,中国共产党建德市委老干部局,杭州建德自来水有限公司,建德市机关事务服务中心,建德市老年人体育协会)","startTime":"2020-05-02 13:15:00","stopDate":"2020-05-02 15:00:00","orgNo":"3340180","typeCode":"电网故障停限电","poweroffArea":"110kV新安江变:新桥Y103线新桥Y103线开关后段","poweroffReason":"高压开关跳闸 原停电结束时间为2020-05-02 17:00:00,为减少客户停电时间,加快工作进度,提前送电,现变更停电结束时间为2020-05-02 15:00:00","powerTime":"2020-05-02 14:52:00","powerComm":"已送电","subsNo":"","lineNo":"","tgNo":"","tgName":null,"infoStatus":"1","orgName":"国网浙江建德市供电有限公司","typeName":null,"infoStatusName":null,"dateDay":null,"orgNos":null,"nowTime":null,"countyName":null,"streetName":null,"villageName":null,"roadName":null,"communityName":null,"tranName":null,"sdLineName":null,"cityCode":"3340180","cityName":"国网浙江建德市供电有限公司","provinceCode":null,"stopTime":"2020-05-02 15:00:00","powerType":"全部","powerOffArea":"110kV新安江变:新桥Y103线新桥Y103线开关后段","powerOffReason":"高压开关跳闸 原停电结束时间为2020-05-02 17:00:00,为减少客户停电时间,加快工作进度,提前送电,现变更停电结束时间为2020-05-02 15:00:00","powerOffId":"2020050231020095"},{"poweroffId":2020050231020085,"sgpoweroffId":null,"subsName":"","lineName":"10kV锦华T331线","pubTranName":"横富小区1号公变,","scope":"浙江省-杭州市-桐庐县-横村镇-横村行政村(横富路,锦华路)","startTime":"2020-05-14 08:00:00","stopDate":"2020-05-14 14:30:00","orgNo":"3340150","typeCode":"计划停电","poweroffArea":"110kV横村变:锦华T331线-横富F1764开关后段","poweroffReason":"杭州桐庐横村横富小区等台区配变及线路改造工程","powerTime":"2020-05-14 14:12:05","powerComm":"已送电","subsNo":"","lineNo":"","tgNo":"","tgName":null,"infoStatus":"1","orgName":"国网浙江桐庐县供电公司","typeName":null,"infoStatusName":null,"dateDay":null,"orgNos":null,"nowTime":null,"countyName":null,"streetName":null,"villageName":null,"roadName":null,"communityName":null,"tranName":null,"sdLineName":null,"cityCode":"3340150","cityName":"国网浙江桐庐县供电公司","provinceCode":null,"stopTime":"2020-05-14 14:30:00","powerType":"全部","powerOffArea":"110kV横村变:锦华T331线-横富F1764开关后段","powerOffReason":"杭州桐庐横村横富小区等台区配变及线路改造工程","powerOffId":"2020050231020085"},{"poweroffId":2020050231020084,"sgpoweroffId":null,"subsName":"","lineName":"10kV阳山T212线","pubTranName":"双湖牌坊弄1号公变,","scope":"浙江省-杭州市-桐庐县-横村镇(阳山畈行政村-阳山畈自然村,柳茂行政村-柳茂自然村,城东行政村-双湖自然村)","startTime":"2020-05-13 08:00:00","stopDate":"2020-05-13 16:00:00","orgNo":"3340150","typeCode":"计划停电","poweroffArea":"110kV方埠变:阳山T212线-牌坊F1375令克后段","poweroffReason":"杭州横村双湖等台区配变及线路改造工程","powerTime":"2020-05-13 15:20:51","powerComm":"已送电","subsNo":"","lineNo":"","tgNo":"","tgName":null,"infoStatus":"1","orgName":"国网浙江桐庐县供电公司","typeName":null,"infoStatusName":null,"dateDay":null,"orgNos":null,"nowTime":null,"countyName":null,"streetName":null,"villageName":null,"roadName":null,"communityName":null,"tranName":null,"sdLineName":null,"cityCode":"3340150","cityName":"国网浙江桐庐县供电公司","provinceCode":null,"stopTime":"2020-05-13 16:00:00","powerType":"全部","powerOffArea":"110kV方埠变:阳山T212线-牌坊F1375令克后段","powerOffReason":"杭州横村双湖等台区配变及线路改造工程","powerOffId":"2020050231020084"}],"pageModel":{"pageNow":220,"totalCount":17788,"totalPage":1779,"tableRows":0,"pageCount":10,"beginCount":2190},"isExperi":"1"}