{"message":"","today":"2020-06-15","seleList":[{"poweroffId":2020043031020964,"sgpoweroffId":null,"subsName":"","lineName":"10kV火星A294线","pubTranName":"建华村2#变,建华村7#变,","scope":"浙江省-杭州市-萧山区-新湾街道(建华行政村-建华自然村,冯溇行政村-冯娄自然村)","startTime":"2020-05-11 09:00:00","stopDate":"2020-05-11 17:30:00","orgNo":"3340120","typeCode":"计划停电","poweroffArea":"110kV建湾变:火星A294线-建华村2#变低压、建华村7#变低压、建华村13#变低压","poweroffReason":"(低压停电信息)（低压用户割接）建华村2#变负荷割接至建华村7#变和建华村13#变等工作（国通）新湾街道地块出让涉及建华村、新龙村低压线路迁改","powerTime":"2020-05-11 16:32:36","powerComm":"已送电","subsNo":"","lineNo":"","tgNo":"","tgName":null,"infoStatus":"1","orgName":"国网浙江杭州市钱塘新区供电公司","typeName":null,"infoStatusName":null,"dateDay":null,"orgNos":null,"nowTime":null,"countyName":null,"streetName":null,"villageName":null,"roadName":null,"communityName":null,"tranName":null,"sdLineName":null,"cityCode":"3340120","cityName":"国网浙江杭州市钱塘新区供电公司","provinceCode":null,"stopTime":"2020-05-11 17:30:00","powerType":"全部","powerOffArea":"110kV建湾变:火星A294线-建华村2#变低压、建华村7#变低压、建华村13#变低压","powerOffReason":"(低压停电信息)（低压用户割接）建华村2#变负荷割接至建华村7#变和建华村13#变等工作（国通）新湾街道地块出让涉及建华村、新龙村低压线路迁改","powerOffId":"2020043031020964"},{"poweroffId":2020043031020963,"sgpoweroffId":null,"subsName":"","lineName":"10kV蓬园A54线","pubTranName":"白浪村5#变,金泉村8#变,白浪村11#变,","scope":"浙江省-杭州市-萧山区-义蓬街道(金泉行政村-金泉自然村,白浪行政村-白浪自然村)","startTime":"2020-05-11 09:00:00","stopDate":"2020-05-11 16:00:00","orgNo":"3340120","typeCode":"计划停电","poweroffArea":"110kV白浪变:蓬园A54线-2347-2327之间","poweroffReason":"蓬园A54线10#-17#杆换线横档更换等工作 原停电结束时间为2020-05-11 17:30:00,为减少客户停电时间,加快工作进度,提前送电,现变更停电结束时间为2020-05-11 16:00:00","powerTime":"2020-05-11 15:40:31","powerComm":"已送电","subsNo":"","lineNo":"","tgNo":"","tgName":null,"infoStatus":"1","orgName":"国网浙江杭州市钱塘新区供电公司","typeName":null,"infoStatusName":null,"dateDay":null,"orgNos":null,"nowTime":null,"countyName":null,"streetName":null,"villageName":null,"roadName":null,"communityName":null,"tranName":null,"sdLineName":null,"cityCode":"3340120","cityName":"国网浙江杭州市钱塘新区供电公司","provinceCode":null,"stopTime":"2020-05-11 16:00:00","powerType":"全部","powerOffArea":"110kV白浪变:蓬园A54线-2347-2327之间","powerOffReason":"蓬园A54线10#-17#杆换线横档更换等工作 原停电结束时间为2020-05-11 17:30:00,为减少客户停电时间,加快工作进度,提前送电,现变更停电结束时间为2020-05-11 16:00:00","powerOffId":"2020043031020963"},{"poweroffId":2020043031020926,"sgpoweroffId":null,"subsName":"","lineName":"10kV官一C944线","pubTranName":"杭州唐邦塑胶有限公司2#,浙江飞翔纺织机械有限公司2#,杭州鸿景汽车零部件有限公司,众力村14#变,杭州金亚纺织有限公司,杭州唐邦塑胶有限公司,杭州宝迪门业有限公司,杭州金亚纺织品有限公司,浙江飞翔纺织机械有限公司,杭州金亚纺织品有限公司,","scope":"浙江省-杭州市-萧山区-益农镇-众力行政村-杭州鸿景汽车零部件有限公司","startTime":"2020-05-15 09:00:00","stopDate":"2020-05-15 13:30:00","orgNo":"3340130","typeCode":"计划停电","poweroffArea":"110kV党山变:官一C944线-鸿景汽车零部件断路器后段;官一C944线-宝迪门业跌落式熔断器后段;官一C944线-飞翔纺织跌落式熔断器后段;官一C944线-益农众力村14#(1396001807)后段;官一C944线-金亚纺织品跌落式熔断器后段;官一C944线-金亚纺织跌落式熔断器后段;官一C944线-金亚纺织跌落式熔断器后段;官一C944线-唐邦塑胶跌落式熔断器后段","poweroffReason":"官一C944线90-93#杆拆导线3档、拉线1组，架线6档，做拉线3组93#杆负荷割接至荣达A495线 原停电结束时间为2020-05-15 13:00:00,因施工难度大原因,延迟送电,现变更停电结束时间为2020-05-15 13:30:00","powerTime":"2020-05-15 13:20:46","powerComm":"已送电","subsNo":"","lineNo":"","tgNo":"","tgName":null,"infoStatus":"1","orgName":"国网浙江杭州市萧山区供电有限公司","typeName":null,"infoStatusName":null,"dateDay":null,"orgNos":null,"nowTime":null,"countyName":null,"streetName":null,"villageName":null,"roadName":null,"communityName":null,"tranName":null,"sdLineName":null,"cityCode":"3340130","cityName":"国网浙江杭州市萧山区供电有限公司","provinceCode":null,"stopTime":"2020-05-15 13:30:00","powerType":"全部","powerOffArea":"110kV党山变:官一C944线-鸿景汽车零部件断路器后段;官一C944线-宝迪门业跌落式熔断器后段;官一C944线-飞翔纺织跌落式熔断器后段;官一C944线-益农众力村14#(1396001807)后段;官一C944线-金亚纺织品跌落式熔断器后段;官一C944线-金亚纺织跌落式熔断器后段;官一C944线-金亚纺织跌落式熔断器后段;官一C944线-唐邦塑胶跌落式熔断器后段","powerOffReason":"官一C944线90-93#杆拆导线3档、拉线1组，架线6档，做拉线3组93#杆负荷割接至荣达A495线 原停电结束时间为2020-05-15 13:00:00,因施工难度大原因,延迟送电,现变更停电结束时间为2020-05-15 13:30:00","powerOffId":"2020043031020926"},{"poweroffId":2020043031020925,"sgpoweroffId":null,"subsName":"","lineName":"10kV荣新C791线","pubTranName":"中街公变,","scope":"浙江省-杭州市-萧山区-瓜沥镇-民丰河行政村(河西南路,中街,民丰河自然村,双板桥自然村),瓜沥镇-荣新行政村(武肃路,人民路),瓜沥镇-群谊行政村(武肃路,人民路),瓜沥镇-振兴社区(振兴路,武肃路,河西南路,中街,直河西路)","startTime":"2020-05-15 11:00:00","stopDate":"2020-05-15 12:00:00","orgNo":"3340130","typeCode":"计划停电","poweroffArea":"35kV坎山变:荣新C791线-中街公变(1396001735)后段","poweroffReason":"荣新C791线59#杆中街公变令克更换并割接至塘上C793线（需带电作业配合）","powerTime":"2020-05-15 11:48:04","powerComm":"已送电","subsNo":"","lineNo":"","tgNo":"","tgName":null,"infoStatus":"1","orgName":"国网浙江杭州市萧山区供电有限公司","typeName":null,"infoStatusName":null,"dateDay":null,"orgNos":null,"nowTime":null,"countyName":null,"streetName":null,"villageName":null,"roadName":null,"communityName":null,"tranName":null,"sdLineName":null,"cityCode":"3340130","cityName":"国网浙江杭州市萧山区供电有限公司","provinceCode":null,"stopTime":"2020-05-15 12:00:00","powerType":"全部","powerOffArea":"35kV坎山变:荣新C791线-中街公变(1396001735)后段","powerOffReason":"荣新C791线59#杆中街公变令克更换并割接至塘上C793线（需带电作业配合）","powerOffId":"2020043031020925"},{"poweroffId":2020043031020924,"sgpoweroffId":null,"subsName":"","lineName":"10kV荣新C791线","pubTranName":"坎山镇政府公变,","scope":"浙江省-杭州市-萧山区-瓜沥镇-民丰河行政村(中街,武肃路),瓜沥镇-孙家弄行政村(孙家弄自然村,武肃路,下街,中街),瓜沥镇-下街社区(郁瑞弄,下街,中街),瓜沥镇-振兴社区(武肃路,中街,郁瑞弄)","startTime":"2020-05-15 10:00:00","stopDate":"2020-05-15 11:00:00","orgNo":"3340130","typeCode":"计划停电","poweroffArea":"35kV坎山变:荣新C791线-坎山镇政府公变后段","poweroffReason":"荣新C791线47#杆坎山镇政府公变割接至塘上C793线（需带电作业配合）","powerTime":"2020-05-15 10:50:52","powerComm":"已送电","subsNo":"","lineNo":"","tgNo":"","tgName":null,"infoStatus":"1","orgName":"国网浙江杭州市萧山区供电有限公司","typeName":null,"infoStatusName":null,"dateDay":null,"orgNos":null,"nowTime":null,"countyName":null,"streetName":null,"villageName":null,"roadName":null,"communityName":null,"tranName":null,"sdLineName":null,"cityCode":"3340130","cityName":"国网浙江杭州市萧山区供电有限公司","provinceCode":null,"stopTime":"2020-05-15 11:00:00","powerType":"全部","powerOffArea":"35kV坎山变:荣新C791线-坎山镇政府公变后段","powerOffReason":"荣新C791线47#杆坎山镇政府公变割接至塘上C793线（需带电作业配合）","powerOffId":"2020043031020924"},{"poweroffId":2020043031020923,"sgpoweroffId":null,"subsName":"","lineName":"10kV荣新C791线","pubTranName":"坎山供电营业所15#变,","scope":"浙江省-杭州市-萧山区-瓜沥镇-振兴社区-中街,瓜沥镇-民丰河行政村(荣新路,中街,民丰河自然村,汪家池南路,商贸路),瓜沥镇-孙家弄行政村(孙家弄自然村,荣新路),瓜沥镇-新港行政村(新港自然村,商贸路)","startTime":"2020-05-15 08:30:00","stopDate":"2020-05-15 10:00:00","orgNo":"3340130","typeCode":"计划停电","poweroffArea":"35kV坎山变:荣新C791线-坎山供电营业所15#变后段","poweroffReason":"荣新C791线43/03#杆坎山供电营业所15#变割接至塘上C793线（需带电作业配合）","powerTime":"2020-05-15 09:57:37","powerComm":"已送电","subsNo":"","lineNo":"","tgNo":"","tgName":null,"infoStatus":"1","orgName":"国网浙江杭州市萧山区供电有限公司","typeName":null,"infoStatusName":null,"dateDay":null,"orgNos":null,"nowTime":null,"countyName":null,"streetName":null,"villageName":null,"roadName":null,"communityName":null,"tranName":null,"sdLineName":null,"cityCode":"3340130","cityName":"国网浙江杭州市萧山区供电有限公司","provinceCode":null,"stopTime":"2020-05-15 10:00:00","powerType":"全部","powerOffArea":"35kV坎山变:荣新C791线-坎山供电营业所15#变后段","powerOffReason":"荣新C791线43/03#杆坎山供电营业所15#变割接至塘上C793线（需带电作业配合）","powerOffId":"2020043031020923"},{"poweroffId":2020043031020922,"sgpoweroffId":null,"subsName":"","lineName":"10kV荣新C791线","pubTranName":"坎山供电营业所1#变,","scope":"浙江省-杭州市-萧山区-瓜沥镇-振兴社区-中街,瓜沥镇-民丰河行政村(武肃路,商贸路,民丰河自然村),瓜沥镇-孙家弄行政村(武肃路,中街,商贸路,孙家弄自然村)","startTime":"2020-05-15 08:30:00","stopDate":"2020-05-15 10:00:00","orgNo":"3340130","typeCode":"计划停电","poweroffArea":"35kV坎山变:荣新C791线-坎山供电营业所1#变后段","poweroffReason":"荣新C791线43#杆坎山供电营业所1#变割接至塘上C793线（需带电作业配合）","powerTime":"2020-05-15 09:56:11","powerComm":"已送电","subsNo":"","lineNo":"","tgNo":"","tgName":null,"infoStatus":"1","orgName":"国网浙江杭州市萧山区供电有限公司","typeName":null,"infoStatusName":null,"dateDay":null,"orgNos":null,"nowTime":null,"countyName":null,"streetName":null,"villageName":null,"roadName":null,"communityName":null,"tranName":null,"sdLineName":null,"cityCode":"3340130","cityName":"国网浙江杭州市萧山区供电有限公司","provinceCode":null,"stopTime":"2020-05-15 10:00:00","powerType":"全部","powerOffArea":"35kV坎山变:荣新C791线-坎山供电营业所1#变后段","powerOffReason":"荣新C791线43#杆坎山供电营业所1#变割接至塘上C793线（需带电作业配合）","powerOffId":"2020043031020922"},{"poweroffId":2020043031020913,"sgpoweroffId":null,"subsName":"","lineName":"10kV港城A815线","pubTranName":"岩峰村17#变,","scope":"浙江省-杭州市-萧山区-南阳街道-岩峰行政村-岩峰自然村","startTime":"2020-05-13 09:00:00","stopDate":"2020-05-13 16:30:00","orgNo":"3340130","typeCode":"计划停电","poweroffArea":"110kV黎明变:港城A815线-岩峰村17#变后段","poweroffReason":"港城A815线09/A02#杆岩峰村17#变拔9米电杆1支，立12米电杆1支，拆250kVA变压器1台，新装400kVA变压器1台，更换跌落式熔断器开关1套、综合配电箱1台，按标准化台区建造（需带电作业配合）","powerTime":"2020-05-13 15:57:13","powerComm":"已送电","subsNo":"","lineNo":"","tgNo":"","tgName":null,"infoStatus":"1","orgName":"国网浙江杭州市萧山区供电有限公司","typeName":null,"infoStatusName":null,"dateDay":null,"orgNos":null,"nowTime":null,"countyName":null,"streetName":null,"villageName":null,"roadName":null,"communityName":null,"tranName":null,"sdLineName":null,"cityCode":"3340130","cityName":"国网浙江杭州市萧山区供电有限公司","provinceCode":null,"stopTime":"2020-05-13 16:30:00","powerType":"全部","powerOffArea":"110kV黎明变:港城A815线-岩峰村17#变后段","powerOffReason":"港城A815线09/A02#杆岩峰村17#变拔9米电杆1支，立12米电杆1支，拆250kVA变压器1台，新装400kVA变压器1台，更换跌落式熔断器开关1套、综合配电箱1台，按标准化台区建造（需带电作业配合）","powerOffId":"2020043031020913"},{"poweroffId":2020043031020912,"sgpoweroffId":null,"subsName":"","lineName":"10kV港城A815线","pubTranName":"岩峰村7#变,","scope":"浙江省-杭州市-萧山区-南阳街道-岩峰行政村-岩峰自然村","startTime":"2020-05-13 09:00:00","stopDate":"2020-05-13 16:30:00","orgNo":"3340130","typeCode":"计划停电","poweroffArea":"110kV黎明变:港城A815线-岩峰村7#变跌落式熔断器后段","poweroffReason":"港城A815线11/06#杆岩峰村07#变拔9米电杆1支，立12米电杆1支，拆250kVA变压器1台，新装400kVA变压器1台，更换跌落式熔断器开关1套、综合配电箱1台，按标准化台区建造（需带电作业配合）","powerTime":"2020-05-13 15:55:38","powerComm":"已送电","subsNo":"","lineNo":"","tgNo":"","tgName":null,"infoStatus":"1","orgName":"国网浙江杭州市萧山区供电有限公司","typeName":null,"infoStatusName":null,"dateDay":null,"orgNos":null,"nowTime":null,"countyName":null,"streetName":null,"villageName":null,"roadName":null,"communityName":null,"tranName":null,"sdLineName":null,"cityCode":"3340130","cityName":"国网浙江杭州市萧山区供电有限公司","provinceCode":null,"stopTime":"2020-05-13 16:30:00","powerType":"全部","powerOffArea":"110kV黎明变:港城A815线-岩峰村7#变跌落式熔断器后段","powerOffReason":"港城A815线11/06#杆岩峰村07#变拔9米电杆1支，立12米电杆1支，拆250kVA变压器1台，新装400kVA变压器1台，更换跌落式熔断器开关1套、综合配电箱1台，按标准化台区建造（需带电作业配合）","powerOffId":"2020043031020912"},{"poweroffId":2020043031020905,"sgpoweroffId":null,"subsName":"","lineName":"10kV程坟D832线","pubTranName":"蛇浦村1号桥头公变,蛇浦村3#前山公变,","scope":"浙江省-杭州市-富阳区-新桐乡-程浦行政村(章家自然村,蛇浦自然村)","startTime":"2020-05-23 08:45:00","stopDate":"2020-05-23 18:30:00","orgNo":"3340170","typeCode":"计划停电","poweroffArea":"110kV新桐变:程坟D832线首端，蛇浦村1号桥头公变，蛇浦村3#前山公变之间","poweroffReason":"青云2019年10千伏状元D417线电站分线等线路改造工程：10kV程坟D832线157#杆蛇浦分线线路改造等工作 原停电结束时间为2020-05-23 16:45:00,因工作难度大原因,延迟送电,现变更停电结束时间为2020-05-23 18:30:00","powerTime":"2020-05-23 17:51:52","powerComm":"已送电","subsNo":"","lineNo":"","tgNo":"","tgName":null,"infoStatus":"1","orgName":"国网浙江杭州市富阳区供电公司","typeName":null,"infoStatusName":null,"dateDay":null,"orgNos":null,"nowTime":null,"countyName":null,"streetName":null,"villageName":null,"roadName":null,"communityName":null,"tranName":null,"sdLineName":null,"cityCode":"3340170","cityName":"国网浙江杭州市富阳区供电公司","provinceCode":null,"stopTime":"2020-05-23 18:30:00","powerType":"全部","powerOffArea":"110kV新桐变:程坟D832线首端，蛇浦村1号桥头公变，蛇浦村3#前山公变之间","powerOffReason":"青云2019年10千伏状元D417线电站分线等线路改造工程：10kV程坟D832线157#杆蛇浦分线线路改造等工作 原停电结束时间为2020-05-23 16:45:00,因工作难度大原因,延迟送电,现变更停电结束时间为2020-05-23 18:30:00","powerOffId":"2020043031020905"}],"pageModel":{"pageNow":225,"totalCount":17788,"totalPage":1779,"tableRows":0,"pageCount":10,"beginCount":2240},"isExperi":"1"}