{"message":"","today":"2020-06-15","seleList":[{"poweroffId":2020061031020048,"sgpoweroffId":null,"subsName":"","lineName":"10kV银乔C832线","pubTranName":"芝兰村7#变,","scope":"浙江省-杭州市-萧山区-新街镇-新街街道-芝兰行政村-芝兰自然村等","startTime":"2020-06-10 08:03:42","stopDate":"2020-06-10 10:30:42","orgNo":"3340130","typeCode":"电网故障停限电","poweroffArea":"110kV罗山变:银乔C832线-芝兰村7#变台区低压开关","poweroffReason":"(低压停电信息)低压漏电保护器跳闸","powerTime":"2020-06-10 09:38:00","powerComm":"已送电","subsNo":"","lineNo":"","tgNo":"","tgName":null,"infoStatus":"1","orgName":"国网浙江杭州市萧山区供电有限公司","typeName":null,"infoStatusName":null,"dateDay":null,"orgNos":null,"nowTime":null,"countyName":null,"streetName":null,"villageName":null,"roadName":null,"communityName":null,"tranName":null,"sdLineName":null,"cityCode":"3340130","cityName":"国网浙江杭州市萧山区供电有限公司","provinceCode":null,"stopTime":"2020-06-10 10:30:42","powerType":"全部","powerOffArea":"110kV罗山变:银乔C832线-芝兰村7#变台区低压开关","powerOffReason":"(低压停电信息)低压漏电保护器跳闸","powerOffId":"2020061031020048"},{"poweroffId":2020061031020039,"sgpoweroffId":null,"subsName":"","lineName":"10kV大湖C950线","pubTranName":"三头村4#变,八都村6#变,马谷村1#变,杭州海菱电器设备有限公司,八都村7#变,八都村9#变,三头村1#变,杭州萧山电子开关实业有限公司,马谷村3#变,萧山第六高级中学,三头村2#变,八都村1#变,三头村14#变,三头村3#变,三头村9#变,八都村8#变,八都村5#变,马谷村5#变,马谷村2#变,八都村3#变,三头村7#变,杭州拂晓新材料科技有限公司,三头村6#变,八都村2#变,杭州恺友塑胶有限公司,杭州市萧山区林场,八都村10#变,三头村8#变,杭州锋濠铝业有限公司,八都村4#变,半山村5#变,八都村11#变,杭州合力包装材料有限公司,八都村12#变,杭州互信机械有限公司,","scope":"浙江省-杭州市-萧山区-戴村镇-戴村行政村-戴村自然村,戴村镇-八都行政村(中潭自然村,盛家自然村,大山坪自然村,麦园自然村,前方自然村,马谷新村自然村),戴村镇-三头行政村(墙头自然村,大湖头自然村,凌桥自然村),戴村镇-半山行政村(凌山自然村,丁村自然村),戴村镇-马谷行政村(马谷自然村,马谷新村自然村);戴村镇(杭州市萧山区林场,杭州拂晓新材料科技有限公司,杭州萧山电子开关实业有限公司,萧山第六高级中学,杭州互信机械有限公司,杭州恺友塑胶有限公司,杭州锋濠铝业有限公司,杭州海菱电器设备有限公司,杭州合力包装材料有限公司)等","startTime":"2020-06-10 07:35:00","stopDate":"2020-06-10 09:35:00","orgNo":"3340130","typeCode":"电网故障停限电","poweroffArea":"110kV永兴变:大湖C950线大湖C950线八都分线I段开关后段","poweroffReason":"高压柱上断路器短路 原停电结束时间为2020-06-10 10:35:00,为减少客户停电时间,加快工作进度,提前送电,现变更停电结束时间为2020-06-10 09:35:00","powerTime":"2020-06-10 08:41:18","powerComm":"已送电","subsNo":"","lineNo":"","tgNo":"","tgName":null,"infoStatus":"1","orgName":"国网浙江杭州市萧山区供电有限公司","typeName":null,"infoStatusName":null,"dateDay":null,"orgNos":null,"nowTime":null,"countyName":null,"streetName":null,"villageName":null,"roadName":null,"communityName":null,"tranName":null,"sdLineName":null,"cityCode":"3340130","cityName":"国网浙江杭州市萧山区供电有限公司","provinceCode":null,"stopTime":"2020-06-10 09:35:00","powerType":"全部","powerOffArea":"110kV永兴变:大湖C950线大湖C950线八都分线I段开关后段","powerOffReason":"高压柱上断路器短路 原停电结束时间为2020-06-10 10:35:00,为减少客户停电时间,加快工作进度,提前送电,现变更停电结束时间为2020-06-10 09:35:00","powerOffId":"2020061031020039"},{"poweroffId":2020061031020037,"sgpoweroffId":null,"subsName":"","lineName":"10kV恒达C135线","pubTranName":"义南村13#变,","scope":"浙江省-杭州市-萧山区-靖江街道-义南行政村-义南自然村等","startTime":"2020-06-10 07:34:00","stopDate":"2020-06-10 15:10:00","orgNo":"3340130","typeCode":"电网故障停限电","poweroffArea":"110kV梅西变:恒达C135线义南村13#变台区低压开关","poweroffReason":"(低压停电信息）低压熔断器跳闸 原停电结束时间为2020-06-10 17:30:00,为减少客户停电时间,加快工作进度,提前送电,现变更停电结束时间为2020-06-10 15:10:00","powerTime":"2020-06-10 14:26:02","powerComm":"已送电","subsNo":"","lineNo":"","tgNo":"","tgName":null,"infoStatus":"1","orgName":"国网浙江杭州市萧山区供电有限公司","typeName":null,"infoStatusName":null,"dateDay":null,"orgNos":null,"nowTime":null,"countyName":null,"streetName":null,"villageName":null,"roadName":null,"communityName":null,"tranName":null,"sdLineName":null,"cityCode":"3340130","cityName":"国网浙江杭州市萧山区供电有限公司","provinceCode":null,"stopTime":"2020-06-10 15:10:00","powerType":"全部","powerOffArea":"110kV梅西变:恒达C135线义南村13#变台区低压开关","powerOffReason":"(低压停电信息）低压熔断器跳闸 原停电结束时间为2020-06-10 17:30:00,为减少客户停电时间,加快工作进度,提前送电,现变更停电结束时间为2020-06-10 15:10:00","powerOffId":"2020061031020037"},{"poweroffId":2020061031020035,"sgpoweroffId":null,"subsName":"","lineName":"10kV东兴D560线","pubTranName":"富阳市富春街道虎山村村民委员会,天时15#公变,富阳东山村,天时6#公变,天时11#公变,富阳市大昌汽车服务有限公司,新安2#变,富阳市恒生电子电器厂,中国共产党杭州市富阳区委党校1#变（虚变）,富阳魅力东方餐饮娱乐有限公司,东山花苑4号变,东山花苑1号变,新安5#变,天时12#公变,天时1#公变,中国共产党杭州市富阳区委党校2变（虚变）,天时14#公变,天时13#公变,天时9号公变,公园路1#公变,新安3#变,新安4#变,天时10#公变,新安1#变,天时5#公变,天时2#公变,天时4#公变,天时3#公变,东山花苑2号变,富阳市天主教堂,天时7#公变,东山花苑3号变,天时8#公变,","scope":"浙江省-杭州市-富阳区-富春街道-东兴社区-东兴路,富春街道-东山社区(东兴路,公园路),富春街道-虎山社区(东兴路,公园路,公望街,东兴路187号);富春街道(富阳东山村,富阳市天主教堂,杭州富阳恒生电子电器厂,杭州市富阳公共交通有限公司,中国共产党杭州市富阳区委党校,杭州富阳金樽娱乐有限公司,富阳市富春街道虎山村村民委员会)","startTime":"2020-06-10 07:13:00","stopDate":"2020-06-10 08:13:00","orgNo":"3340170","typeCode":"电网故障停限电","poweroffArea":"110kV春江变:东兴D560线东兴D560线23#杆开关后段","poweroffReason":"高压开关跳闸 原停电结束时间为2020-06-10 09:13:00,为减少客户停电时间,加快工作进度,提前送电,现变更停电结束时间为2020-06-10 08:13:00","powerTime":"2020-06-10 07:51:18","powerComm":"已送电","subsNo":"","lineNo":"","tgNo":"","tgName":null,"infoStatus":"1","orgName":"国网浙江杭州市富阳区供电公司","typeName":null,"infoStatusName":null,"dateDay":null,"orgNos":null,"nowTime":null,"countyName":null,"streetName":null,"villageName":null,"roadName":null,"communityName":null,"tranName":null,"sdLineName":null,"cityCode":"3340170","cityName":"国网浙江杭州市富阳区供电公司","provinceCode":null,"stopTime":"2020-06-10 08:13:00","powerType":"全部","powerOffArea":"110kV春江变:东兴D560线东兴D560线23#杆开关后段","powerOffReason":"高压开关跳闸 原停电结束时间为2020-06-10 09:13:00,为减少客户停电时间,加快工作进度,提前送电,现变更停电结束时间为2020-06-10 08:13:00","powerOffId":"2020061031020035"},{"poweroffId":2020061031020026,"sgpoweroffId":null,"subsName":"","lineName":"10kV大店Y171线","pubTranName":"千源村江山坪台区,","scope":"浙江省-杭州市-建德市-航头镇-千源行政村(千家自然村,江山坪自然村,","startTime":"2020-06-10 06:37:00","stopDate":"2020-06-10 12:30:00","orgNo":"3340180","typeCode":"电网故障停限电","poweroffArea":"110kV航头变:大店Y171线千源村江山坪台区配变","poweroffReason":"高压开关跳闸","powerTime":"2020-06-10 11:34:04","powerComm":"已送电","subsNo":"","lineNo":"","tgNo":"","tgName":null,"infoStatus":"1","orgName":"国网浙江建德市供电有限公司","typeName":null,"infoStatusName":null,"dateDay":null,"orgNos":null,"nowTime":null,"countyName":null,"streetName":null,"villageName":null,"roadName":null,"communityName":null,"tranName":null,"sdLineName":null,"cityCode":"3340180","cityName":"国网浙江建德市供电有限公司","provinceCode":null,"stopTime":"2020-06-10 12:30:00","powerType":"全部","powerOffArea":"110kV航头变:大店Y171线千源村江山坪台区配变","powerOffReason":"高压开关跳闸","powerOffId":"2020061031020026"},{"poweroffId":2020061031020015,"sgpoweroffId":null,"subsName":"","lineName":"10kV塔山H619线","pubTranName":"福临花苑1-1号公变,福临花苑2-1号公变,福临花苑2-2号公变,福临花苑1-2号公变,","scope":"浙江省-杭州市-余杭区-余杭街道-南渠社区-余昌路","startTime":"2020-06-10 05:29:00","stopDate":"2020-06-10 07:29:00","orgNo":"3340140","typeCode":"电网故障停限电","poweroffArea":"110kV桃源变:塔山H619线云水湾环网站云水湾自管站进线后段","poweroffReason":"高压开关跳闸","powerTime":"2020-06-10 06:33:15","powerComm":"已送电","subsNo":"","lineNo":"","tgNo":"","tgName":null,"infoStatus":"1","orgName":"国网浙江杭州市余杭区供电有限公司","typeName":null,"infoStatusName":null,"dateDay":null,"orgNos":null,"nowTime":null,"countyName":null,"streetName":null,"villageName":null,"roadName":null,"communityName":null,"tranName":null,"sdLineName":null,"cityCode":"3340140","cityName":"国网浙江杭州市余杭区供电有限公司","provinceCode":null,"stopTime":"2020-06-10 07:29:00","powerType":"全部","powerOffArea":"110kV桃源变:塔山H619线云水湾环网站云水湾自管站进线后段","powerOffReason":"高压开关跳闸","powerOffId":"2020061031020015"},{"poweroffId":2020061031020014,"sgpoweroffId":null,"subsName":"","lineName":"10kV杨家T106线","pubTranName":"阆苑村9号公变,","scope":"浙江省-杭州市-桐庐县-桐君街道-浪苑行政村(对门自然村,仇岭坞自然村,排坊里自然村)","startTime":"2020-06-10 05:21:00","stopDate":"2020-06-10 11:21:00","orgNo":"3340150","typeCode":"电网故障停限电","poweroffArea":"110kV桐庐变:杨家T106线阆苑村9号公变配变","poweroffReason":"高压开关跳闸","powerTime":"2020-06-10 11:00:51","powerComm":"已送电","subsNo":"","lineNo":"","tgNo":"","tgName":null,"infoStatus":"1","orgName":"国网浙江桐庐县供电公司","typeName":null,"infoStatusName":null,"dateDay":null,"orgNos":null,"nowTime":null,"countyName":null,"streetName":null,"villageName":null,"roadName":null,"communityName":null,"tranName":null,"sdLineName":null,"cityCode":"3340150","cityName":"国网浙江桐庐县供电公司","provinceCode":null,"stopTime":"2020-06-10 11:21:00","powerType":"全部","powerOffArea":"110kV桐庐变:杨家T106线阆苑村9号公变配变","powerOffReason":"高压开关跳闸","powerOffId":"2020061031020014"},{"poweroffId":2020061031020013,"sgpoweroffId":null,"subsName":"","lineName":"10kV杨家T106线","pubTranName":"麻蓬村1号公变,杭州晓松教具工艺品有限公司,金色港湾小区1号公变,上高岭1号公变,麻蓬村8号公变,桐庐县市政园林建设管理处,杭州铭城物业管理有限公司桐庐分公司,桐庐县公路管理段（桐庐飞腾公路工程有限公司）,浮桥埠村股份经济合作社1#,浮桥埠村4号公变,仇岭坞1号公变,金色港湾小区2号公变,浮安1号公变,桐君小学,浮桥埠村1号公变,桐庐华宏毛纺织厂,桐庐县市政园林建设管理处,麻蓬村2号公变,麻蓬村6号公变,浮桥埠村8号公变,浮桥埠村9号公变,杭州桐庐通信材料厂,桐庐飞腾公路工程有限公司,桐庐县桐君街道浮桥埠村股份经济合作社,浮安2号公变,","scope":"浙江省-杭州市-桐庐县-桐君街道-金鑫社区-富春路,桐君街道-浮桥埠行政村(公司自然村,浮桥埠自然村,上高岭自然村,桥北路,下高岭自然村,五桂山自然村,杨家自然村,桥北路277号),桐君街道-桥北居委会(泰鑫路,桥北路),桐君街道-麻蓬行政村(麻蓬自然村,湖田塘自然村,仇岭坞自然村,参坞园自然村);桐君街道(桐庐飞腾公路工程有限公司,杭州晓松教具工艺品有限公司,桐庐县市政园林建设管理处,杭州桐庐通信材料厂,桐庐华宏毛纺织厂,桐庐县桐君街道浮桥埠村股份经济合作社物业楼建设资金专户,桐庐县桐君小学,杭州铭城物业管理有限公司桐庐分公司)","startTime":"2020-06-10 05:21:00","stopDate":"2020-06-10 11:21:00","orgNo":"3340150","typeCode":"电网故障停限电","poweroffArea":"110kV桐庐变:杨家T106线杨家1129智能开关后段","poweroffReason":"高压开关跳闸","powerTime":"2020-06-10 11:00:25","powerComm":"已送电","subsNo":"","lineNo":"","tgNo":"","tgName":null,"infoStatus":"1","orgName":"国网浙江桐庐县供电公司","typeName":null,"infoStatusName":null,"dateDay":null,"orgNos":null,"nowTime":null,"countyName":null,"streetName":null,"villageName":null,"roadName":null,"communityName":null,"tranName":null,"sdLineName":null,"cityCode":"3340150","cityName":"国网浙江桐庐县供电公司","provinceCode":null,"stopTime":"2020-06-10 11:21:00","powerType":"全部","powerOffArea":"110kV桐庐变:杨家T106线杨家1129智能开关后段","powerOffReason":"高压开关跳闸","powerOffId":"2020061031020013"},{"poweroffId":2020061031020010,"sgpoweroffId":null,"subsName":"","lineName":"10kV瑞丰C326线","pubTranName":"甘露亭村10#变,","scope":"浙江省-杭州市-萧山区-瓜沥镇-甘露亭行政村(胜利中路,民丰河北路)等","startTime":"2020-06-10 04:33:46","stopDate":"2020-06-10 06:15:46","orgNo":"3340130","typeCode":"电网故障停限电","poweroffArea":"110kV沿塘变:瑞丰C326线-甘露亭村10#变台区低压开关","poweroffReason":"(低压停电信息)低压熔断器跳闸 原停电结束时间为2020-06-10 06:41:46,为减少客户停电时间,加快工作进度,提前送电,现变更停电结束时间为2020-06-10 06:15:46","powerTime":"2020-06-10 05:25:17","powerComm":"已送电","subsNo":"","lineNo":"","tgNo":"","tgName":null,"infoStatus":"1","orgName":"国网浙江杭州市萧山区供电有限公司","typeName":null,"infoStatusName":null,"dateDay":null,"orgNos":null,"nowTime":null,"countyName":null,"streetName":null,"villageName":null,"roadName":null,"communityName":null,"tranName":null,"sdLineName":null,"cityCode":"3340130","cityName":"国网浙江杭州市萧山区供电有限公司","provinceCode":null,"stopTime":"2020-06-10 06:15:46","powerType":"全部","powerOffArea":"110kV沿塘变:瑞丰C326线-甘露亭村10#变台区低压开关","powerOffReason":"(低压停电信息)低压熔断器跳闸 原停电结束时间为2020-06-10 06:41:46,为减少客户停电时间,加快工作进度,提前送电,现变更停电结束时间为2020-06-10 06:15:46","powerOffId":"2020061031020010"},{"poweroffId":2020060931020334,"sgpoweroffId":null,"subsName":"","lineName":"10kV留横8857线","pubTranName":"留和一,茶市二,茶市五,留街(二),留小施,留酒专变,尚品(二),留里三施3,留里三施4,万向学院,鱼井施1,万向学院2#,鱼井施4,留股,留居寓变,鱼井施2,留和二,留股经,金鱼井二,留里三施1,万向学院1#,1#,留里三施2,万向学院3#,鱼井施3,","scope":"浙江省-杭州市-西湖区-留下街道-留下社区(西溪路,茶市街,横四路,留横路,屏基山路,留下大街,杨梅山路,横一路),留下街道(茶市街社区-西溪路,金鱼井社区-西溪路);留下街道(杭州市留下小学,杭州西湖城市建设投资集团有限公司,杭州食品酿造有限公司,杭州冉德投资管理有限公司,杭州留下股份经济合作社,杭州万向职业技术学院)","startTime":"2020-06-09 23:26:00","stopDate":"2020-06-10 00:26:00","orgNo":"3340101","typeCode":"电网故障停限电","poweroffArea":"110kV留下变:留横8857线留横站留横8857线后段","poweroffReason":"高压开关跳闸 原停电结束时间为2020-06-10 08:26:00,为减少客户停电时间,加快工作进度,提前送电,现变更停电结束时间为2020-06-10 00:26:00","powerTime":"2020-06-09 23:45:31","powerComm":"已送电","subsNo":"","lineNo":"","tgNo":"","tgName":null,"infoStatus":"1","orgName":"浙江杭州电力客户服务中心","typeName":null,"infoStatusName":null,"dateDay":null,"orgNos":null,"nowTime":null,"countyName":null,"streetName":null,"villageName":null,"roadName":null,"communityName":null,"tranName":null,"sdLineName":null,"cityCode":"3340101","cityName":"浙江杭州电力客户服务中心","provinceCode":null,"stopTime":"2020-06-10 00:26:00","powerType":"全部","powerOffArea":"110kV留下变:留横8857线留横站留横8857线后段","powerOffReason":"高压开关跳闸 原停电结束时间为2020-06-10 08:26:00,为减少客户停电时间,加快工作进度,提前送电,现变更停电结束时间为2020-06-10 00:26:00","powerOffId":"2020060931020334"}],"pageModel":{"pageNow":21,"totalCount":17786,"totalPage":1779,"tableRows":0,"pageCount":10,"beginCount":200},"isExperi":"1"}