{"message":"","today":"2020-06-15","seleList":[{"poweroffId":2020043031020864,"sgpoweroffId":null,"subsName":"","lineName":"10kV新兴D551线","pubTranName":"金塘花园公变,","scope":"浙江省-杭州市-富阳区-富春街道-苋浦社区(西堤北路,苋浦路)","startTime":"2020-05-19 08:30:00","stopDate":"2020-05-19 16:30:00","orgNo":"3340170","typeCode":"计划停电","poweroffArea":"110kV春江变:新兴D551线-金塘花园公变后段","poweroffReason":"青云2019年富鹿变国贸D361线、水南D357线网架优化工程：苋浦开关站整体更换等工作","powerTime":"2020-05-19 16:25:04","powerComm":"已送电","subsNo":"","lineNo":"","tgNo":"","tgName":null,"infoStatus":"1","orgName":"国网浙江杭州市富阳区供电公司","typeName":null,"infoStatusName":null,"dateDay":null,"orgNos":null,"nowTime":null,"countyName":null,"streetName":null,"villageName":null,"roadName":null,"communityName":null,"tranName":null,"sdLineName":null,"cityCode":"3340170","cityName":"国网浙江杭州市富阳区供电公司","provinceCode":null,"stopTime":"2020-05-19 16:30:00","powerType":"全部","powerOffArea":"110kV春江变:新兴D551线-金塘花园公变后段","powerOffReason":"青云2019年富鹿变国贸D361线、水南D357线网架优化工程：苋浦开关站整体更换等工作","powerOffId":"2020043031020864"},{"poweroffId":2020043031020860,"sgpoweroffId":null,"subsName":"","lineName":"10kV新兴D551线","pubTranName":"苋浦路2#公变,金桥公变,富春街道办公变,苋浦路3#公变,","scope":"浙江省-杭州市-富阳区-富春街道-城西社区-桂花西路,富春街道-苋浦社区(桂花西路,苋浦路)","startTime":"2020-05-19 08:05:00","stopDate":"2020-05-19 08:25:00","orgNo":"3340170","typeCode":"计划停电","poweroffArea":"110kV春江变:新兴D551线-金桥公变后段;新兴D551线-苋浦路3#公变后段;新兴D551线-苋浦路2#公变后段;新兴D551线首端，苋浦路3#公变，苋浦路2#公变，金桥公变，苋浦一线之间","poweroffReason":"青云2019年富鹿变国贸D361线、水南D357线网架优化工程：短时停电配合新兴D551线苋浦开关站后段负荷转供至10千伏发电车","powerTime":"2020-05-19 08:16:00","powerComm":"已送电","subsNo":"","lineNo":"","tgNo":"","tgName":null,"infoStatus":"1","orgName":"国网浙江杭州市富阳区供电公司","typeName":null,"infoStatusName":null,"dateDay":null,"orgNos":null,"nowTime":null,"countyName":null,"streetName":null,"villageName":null,"roadName":null,"communityName":null,"tranName":null,"sdLineName":null,"cityCode":"3340170","cityName":"国网浙江杭州市富阳区供电公司","provinceCode":null,"stopTime":"2020-05-19 08:25:00","powerType":"全部","powerOffArea":"110kV春江变:新兴D551线-金桥公变后段;新兴D551线-苋浦路3#公变后段;新兴D551线-苋浦路2#公变后段;新兴D551线首端，苋浦路3#公变，苋浦路2#公变，金桥公变，苋浦一线之间","powerOffReason":"青云2019年富鹿变国贸D361线、水南D357线网架优化工程：短时停电配合新兴D551线苋浦开关站后段负荷转供至10千伏发电车","powerOffId":"2020043031020860"},{"poweroffId":2020043031020856,"sgpoweroffId":null,"subsName":"","lineName":"10kV前进D161线","pubTranName":"富阳市大源镇中心小学,","scope":"浙江省-杭州市-富阳区-大源镇-亭山行政村-杭州市富阳区大源镇中学小学一带","startTime":"2020-05-04 08:30:00","stopDate":"2020-05-05 17:00:00","orgNo":"3340170","typeCode":"临时停电","poweroffArea":"110kV大源变:前进D161线-大源镇中开关后段","poweroffReason":"杭州市富阳区大源小学育才校区10kV配电房改造工程:10kV配电房改造，进线电缆改接","powerTime":"2020-05-05 16:50:14","powerComm":"已送电","subsNo":"","lineNo":"","tgNo":"","tgName":null,"infoStatus":"1","orgName":"国网浙江杭州市富阳区供电公司","typeName":null,"infoStatusName":null,"dateDay":null,"orgNos":null,"nowTime":null,"countyName":null,"streetName":null,"villageName":null,"roadName":null,"communityName":null,"tranName":null,"sdLineName":null,"cityCode":"3340170","cityName":"国网浙江杭州市富阳区供电公司","provinceCode":null,"stopTime":"2020-05-05 17:00:00","powerType":"全部","powerOffArea":"110kV大源变:前进D161线-大源镇中开关后段","powerOffReason":"杭州市富阳区大源小学育才校区10kV配电房改造工程:10kV配电房改造，进线电缆改接","powerOffId":"2020043031020856"},{"poweroffId":2020043031020851,"sgpoweroffId":null,"subsName":"","lineName":"10kV陆鸣D705线","pubTranName":"陆家村7#陆坞公变,","scope":"浙江省-杭州市-富阳区-鹿山街道-陆家行政村(陆家自然村,财神弄)","startTime":"2020-05-18 09:00:00","stopDate":"2020-05-18 17:00:00","orgNo":"3340170","typeCode":"计划停电","poweroffArea":"110kV陆家变:陆鸣D705线-陆家村7#陆坞公变后段","poweroffReason":"富阳320国道至富阳大桥连接线鹿山（大盘山）隧道电力迁改工程：陆家村7#陆坞公变变压器移位等工作","powerTime":"2020-05-18 16:50:40","powerComm":"已送电","subsNo":"","lineNo":"","tgNo":"","tgName":null,"infoStatus":"1","orgName":"国网浙江杭州市富阳区供电公司","typeName":null,"infoStatusName":null,"dateDay":null,"orgNos":null,"nowTime":null,"countyName":null,"streetName":null,"villageName":null,"roadName":null,"communityName":null,"tranName":null,"sdLineName":null,"cityCode":"3340170","cityName":"国网浙江杭州市富阳区供电公司","provinceCode":null,"stopTime":"2020-05-18 17:00:00","powerType":"全部","powerOffArea":"110kV陆家变:陆鸣D705线-陆家村7#陆坞公变后段","powerOffReason":"富阳320国道至富阳大桥连接线鹿山（大盘山）隧道电力迁改工程：陆家村7#陆坞公变变压器移位等工作","powerOffId":"2020043031020851"},{"poweroffId":2020043031020850,"sgpoweroffId":null,"subsName":"","lineName":"10kV之湘A331线","pubTranName":"三岔路村1#变,","scope":"浙江省-杭州市-萧山区-瓜沥镇-三岔路行政村(光靖路,三岔路自然村)","startTime":"2020-05-09 08:00:00","stopDate":"2020-05-09 16:00:00","orgNo":"3340130","typeCode":"计划停电","poweroffArea":"110kV靖江变:之湘A331线-三岔路村1#变后段","poweroffReason":"三岔路村1#变架线、接户、装表、做出线电缆","powerTime":"2020-05-09 15:55:51","powerComm":"已送电","subsNo":"","lineNo":"","tgNo":"","tgName":null,"infoStatus":"1","orgName":"国网浙江杭州市萧山区供电有限公司","typeName":null,"infoStatusName":null,"dateDay":null,"orgNos":null,"nowTime":null,"countyName":null,"streetName":null,"villageName":null,"roadName":null,"communityName":null,"tranName":null,"sdLineName":null,"cityCode":"3340130","cityName":"国网浙江杭州市萧山区供电有限公司","provinceCode":null,"stopTime":"2020-05-09 16:00:00","powerType":"全部","powerOffArea":"110kV靖江变:之湘A331线-三岔路村1#变后段","powerOffReason":"三岔路村1#变架线、接户、装表、做出线电缆","powerOffId":"2020043031020850"},{"poweroffId":2020043031020849,"sgpoweroffId":null,"subsName":"","lineName":"10kV西站D823线","pubTranName":"幸福家园1#公变,幸福家园2#公变,幸福家园3#公变,幸福家园6#公变,幸福家园4#公变,幸福家园5#公变,","scope":"浙江省-杭州市-富阳区-富春街道-金秋社区-金苑路, 金桥社区(金苑路,金城路,金平路)","startTime":"2020-05-18 16:35:00","stopDate":"2020-05-18 16:55:00","orgNo":"3340170","typeCode":"计划停电","poweroffArea":"110kV容大变:西站D823线首端，幸福家园1#公变，幸福家园2#公变，幸福家园4#公变，幸福家园3#公变，幸福家园6#公变，幸福家园5#公变之间","poweroffReason":"青云2019年容大变金苑D808线等网架优化工程：短时停电配合西站D823线福园分线负荷恢复","powerTime":"2020-05-18 16:45:19","powerComm":"已送电","subsNo":"","lineNo":"","tgNo":"","tgName":null,"infoStatus":"1","orgName":"国网浙江杭州市富阳区供电公司","typeName":null,"infoStatusName":null,"dateDay":null,"orgNos":null,"nowTime":null,"countyName":null,"streetName":null,"villageName":null,"roadName":null,"communityName":null,"tranName":null,"sdLineName":null,"cityCode":"3340170","cityName":"国网浙江杭州市富阳区供电公司","provinceCode":null,"stopTime":"2020-05-18 16:55:00","powerType":"全部","powerOffArea":"110kV容大变:西站D823线首端，幸福家园1#公变，幸福家园2#公变，幸福家园4#公变，幸福家园3#公变，幸福家园6#公变，幸福家园5#公变之间","powerOffReason":"青云2019年容大变金苑D808线等网架优化工程：短时停电配合西站D823线福园分线负荷恢复","powerOffId":"2020043031020849"},{"poweroffId":2020043031020848,"sgpoweroffId":null,"subsName":"","lineName":"10kV西站D823线","pubTranName":"幸福家园2#公变,幸福家园5#公变,幸福家园3#公变,幸福家园6#公变,幸福家园4#公变,幸福家园1#公变,","scope":"浙江省-杭州市-富阳区-富春街道-金秋社区-金苑路,富春街道-金桥社区(金苑路,金城路,金平路)","startTime":"2020-05-18 08:05:00","stopDate":"2020-05-18 08:25:00","orgNo":"3340170","typeCode":"计划停电","poweroffArea":"110kV容大变:西站D823线首端，幸福家园1#公变，幸福家园2#公变，幸福家园4#公变，幸福家园3#公变，幸福家园6#公变，幸福家园5#公变之间","poweroffReason":"青云2019年容大变金苑D808线等网架优化工程：短时停电配合西站D823线福园分线负荷转供至10千伏发电车","powerTime":"2020-05-18 08:21:29","powerComm":"已送电","subsNo":"","lineNo":"","tgNo":"","tgName":null,"infoStatus":"1","orgName":"国网浙江杭州市富阳区供电公司","typeName":null,"infoStatusName":null,"dateDay":null,"orgNos":null,"nowTime":null,"countyName":null,"streetName":null,"villageName":null,"roadName":null,"communityName":null,"tranName":null,"sdLineName":null,"cityCode":"3340170","cityName":"国网浙江杭州市富阳区供电公司","provinceCode":null,"stopTime":"2020-05-18 08:25:00","powerType":"全部","powerOffArea":"110kV容大变:西站D823线首端，幸福家园1#公变，幸福家园2#公变，幸福家园4#公变，幸福家园3#公变，幸福家园6#公变，幸福家园5#公变之间","powerOffReason":"青云2019年容大变金苑D808线等网架优化工程：短时停电配合西站D823线福园分线负荷转供至10千伏发电车","powerOffId":"2020043031020848"},{"poweroffId":2020043031020846,"sgpoweroffId":null,"subsName":"","lineName":"10kV中沙A147线","pubTranName":"单木桥村10#变,","scope":"浙江省-杭州市-萧山区-瓜沥镇-单木桥行政村-单木桥自然村","startTime":"2020-05-08 09:00:00","stopDate":"2020-05-08 12:00:00","orgNo":"3340130","typeCode":"计划停电","poweroffArea":"220kV甘露变:中沙A147线-单木桥村10#变跌落式熔断器后段","poweroffReason":"中沙A147线59/A08/01#杆单木桥村10#变拆160kVA变压器1台新装400kVA变压器1台原停电结束时间为2020-05-08 15:00:00,为减少客户停电时间,加快工作进度,提前送电,现变更停电结束时间为2020-05-08 12:00:00","powerTime":"2020-05-08 11:08:40","powerComm":"已送电","subsNo":"","lineNo":"","tgNo":"","tgName":null,"infoStatus":"1","orgName":"国网浙江杭州市萧山区供电有限公司","typeName":null,"infoStatusName":null,"dateDay":null,"orgNos":null,"nowTime":null,"countyName":null,"streetName":null,"villageName":null,"roadName":null,"communityName":null,"tranName":null,"sdLineName":null,"cityCode":"3340130","cityName":"国网浙江杭州市萧山区供电有限公司","provinceCode":null,"stopTime":"2020-05-08 12:00:00","powerType":"全部","powerOffArea":"220kV甘露变:中沙A147线-单木桥村10#变跌落式熔断器后段","powerOffReason":"中沙A147线59/A08/01#杆单木桥村10#变拆160kVA变压器1台新装400kVA变压器1台原停电结束时间为2020-05-08 15:00:00,为减少客户停电时间,加快工作进度,提前送电,现变更停电结束时间为2020-05-08 12:00:00","powerOffId":"2020043031020846"},{"poweroffId":2020043031020838,"sgpoweroffId":null,"subsName":"","lineName":"10kV园东D931线","pubTranName":"富阳市富春三中,","scope":"浙江省-杭州市-富阳区-富春街道-秋丰行政村-杭州市富阳区富春第三中学","startTime":"2020-05-16 09:00:00","stopDate":"2020-05-17 16:45:00","orgNo":"3340170","typeCode":"计划停电","poweroffArea":"110kV育才变:园东D931线-富阳市富春三中后段","poweroffReason":"富阳市富春三中配电房改造工程:10kV配电房改造，进线电缆改接","powerTime":"2020-05-17 16:20:14","powerComm":"已送电","subsNo":"","lineNo":"","tgNo":"","tgName":null,"infoStatus":"1","orgName":"国网浙江杭州市富阳区供电公司","typeName":null,"infoStatusName":null,"dateDay":null,"orgNos":null,"nowTime":null,"countyName":null,"streetName":null,"villageName":null,"roadName":null,"communityName":null,"tranName":null,"sdLineName":null,"cityCode":"3340170","cityName":"国网浙江杭州市富阳区供电公司","provinceCode":null,"stopTime":"2020-05-17 16:45:00","powerType":"全部","powerOffArea":"110kV育才变:园东D931线-富阳市富春三中后段","powerOffReason":"富阳市富春三中配电房改造工程:10kV配电房改造，进线电缆改接","powerOffId":"2020043031020838"},{"poweroffId":2020043031020837,"sgpoweroffId":null,"subsName":"","lineName":"10kV上里D409线","pubTranName":"中铁十二局集团有限公司1#变,中铁十二局集团有限公司1#变,新新村2#下村公变,祯祥村3号来坞坑公变,五四村3#山坑公变,中铁十二局集团有限公司2#变,祯祥村2#夏家公变,新新村1#上村公变,祯祥村1#遥家坞公变,中铁十二局集团有限公司1#变,中铁十二局集团有限公司2#变,五四村1#江家公变,中铁十二局集团有限公司4#变,杭州正博精密铸造有限公司,新新村3号毛家台公变,新新村4号尖坞公变,五四村6#前江家公变,中铁十二局集团有限公司3#变,中铁十二局集团有限公司4#变,中铁十二局集团有限公司2#变,","scope":"浙江省-杭州市-富阳区-鹿山街道-五四行政村-杭州钞隆精密铸造有限公司","startTime":"2020-05-15 17:35:00","stopDate":"2020-05-15 17:55:00","orgNo":"3340170","typeCode":"计划停电","poweroffArea":"110kV长春变:上里D409线-中铁十二局集团有限公司后段;上里D409线-中铁十二局集团有限公司后段;上里D409线-杭州正博精密铸造有限公司后段;上里D409线首端，新新村1#上村公变，新新村2#下村公变，新新村3号毛家台公变，新新村4号尖坞公变之间;上里D409线首端，祯祥村1#遥家坞公变，祯祥村2#夏家公变，祯祥村3号来坞坑公变，五四村1#江家公变，五四村3#山坑公变，五四村6#前江家公变之间;上里D409线-中铁十二局集团有限公司2#变后段;上里D409线-中铁十二局分线开关后段;上里D409线-中铁十二局集团有限公司后段","poweroffReason":"中铁十二局集团有限公司湖杭铁路项目经理部三分部线路迁改工程：短时停电配合上里D409线127#杆后段负荷恢复","powerTime":"2020-05-15 17:46:34","powerComm":"已送电","subsNo":"","lineNo":"","tgNo":"","tgName":null,"infoStatus":"1","orgName":"国网浙江杭州市富阳区供电公司","typeName":null,"infoStatusName":null,"dateDay":null,"orgNos":null,"nowTime":null,"countyName":null,"streetName":null,"villageName":null,"roadName":null,"communityName":null,"tranName":null,"sdLineName":null,"cityCode":"3340170","cityName":"国网浙江杭州市富阳区供电公司","provinceCode":null,"stopTime":"2020-05-15 17:55:00","powerType":"全部","powerOffArea":"110kV长春变:上里D409线-中铁十二局集团有限公司后段;上里D409线-中铁十二局集团有限公司后段;上里D409线-杭州正博精密铸造有限公司后段;上里D409线首端，新新村1#上村公变，新新村2#下村公变，新新村3号毛家台公变，新新村4号尖坞公变之间;上里D409线首端，祯祥村1#遥家坞公变，祯祥村2#夏家公变，祯祥村3号来坞坑公变，五四村1#江家公变，五四村3#山坑公变，五四村6#前江家公变之间;上里D409线-中铁十二局集团有限公司2#变后段;上里D409线-中铁十二局分线开关后段;上里D409线-中铁十二局集团有限公司后段","powerOffReason":"中铁十二局集团有限公司湖杭铁路项目经理部三分部线路迁改工程：短时停电配合上里D409线127#杆后段负荷恢复","powerOffId":"2020043031020837"}],"pageModel":{"pageNow":228,"totalCount":17788,"totalPage":1779,"tableRows":0,"pageCount":10,"beginCount":2270},"isExperi":"1"}