{"message":"","today":"2020-06-15","seleList":[{"poweroffId":2020043031020797,"sgpoweroffId":null,"subsName":"","lineName":"10kV新桥V311线","pubTranName":"刘余村,","scope":"浙江省-杭州市-临安市-岛石镇-新桥刘余村","startTime":"2020-05-15 08:10:00","stopDate":"2020-05-15 12:10:00","orgNo":"3340160","typeCode":"计划停电","poweroffArea":"35kV岛石变:新桥V311线-刘余村","poweroffReason":"刘余村增容布点 原停电结束时间为2020-05-15 12:50:00,为减少客户停电时间,加快工作进度,提前送电,现变更停电结束时间为2020-05-15 12:10:00","powerTime":"2020-05-15 11:33:21","powerComm":"已送电","subsNo":"","lineNo":"","tgNo":"","tgName":null,"infoStatus":"1","orgName":"国网浙江临安市供电公司","typeName":null,"infoStatusName":null,"dateDay":null,"orgNos":null,"nowTime":null,"countyName":null,"streetName":null,"villageName":null,"roadName":null,"communityName":null,"tranName":null,"sdLineName":null,"cityCode":"3340160","cityName":"国网浙江临安市供电公司","provinceCode":null,"stopTime":"2020-05-15 12:10:00","powerType":"全部","powerOffArea":"35kV岛石变:新桥V311线-刘余村","powerOffReason":"刘余村增容布点 原停电结束时间为2020-05-15 12:50:00,为减少客户停电时间,加快工作进度,提前送电,现变更停电结束时间为2020-05-15 12:10:00","powerOffId":"2020043031020797"},{"poweroffId":2020043031020796,"sgpoweroffId":null,"subsName":"","lineName":"10kV马啸V262线","pubTranName":"颊口村周家湾,","scope":"浙江省-杭州市-临安市-清凉峰镇-颊口村周家湾","startTime":"2020-05-15 08:10:00","stopDate":"2020-05-15 12:50:00","orgNo":"3340160","typeCode":"计划停电","poweroffArea":"35kV颊口变:马啸V262线-颊口村周家湾","poweroffReason":"颊口村周家湾增容","powerTime":"2020-05-15 12:12:43","powerComm":"已送电","subsNo":"","lineNo":"","tgNo":"","tgName":null,"infoStatus":"1","orgName":"国网浙江临安市供电公司","typeName":null,"infoStatusName":null,"dateDay":null,"orgNos":null,"nowTime":null,"countyName":null,"streetName":null,"villageName":null,"roadName":null,"communityName":null,"tranName":null,"sdLineName":null,"cityCode":"3340160","cityName":"国网浙江临安市供电公司","provinceCode":null,"stopTime":"2020-05-15 12:50:00","powerType":"全部","powerOffArea":"35kV颊口变:马啸V262线-颊口村周家湾","powerOffReason":"颊口村周家湾增容","powerOffId":"2020043031020796"},{"poweroffId":2020043031020795,"sgpoweroffId":null,"subsName":"","lineName":"10kV相岛V832线","pubTranName":"玉山村永安,","scope":"浙江省-杭州市-临安市-龙岗镇-玉山村永安","startTime":"2020-05-15 08:10:00","stopDate":"2020-05-15 12:50:00","orgNo":"3340160","typeCode":"计划停电","poweroffArea":"35kV相见变:相岛V832线-玉山村永安配变","poweroffReason":"(低压停电信息)增容布点","powerTime":"2020-05-15 12:02:39","powerComm":"已送电","subsNo":"","lineNo":"","tgNo":"","tgName":null,"infoStatus":"1","orgName":"国网浙江临安市供电公司","typeName":null,"infoStatusName":null,"dateDay":null,"orgNos":null,"nowTime":null,"countyName":null,"streetName":null,"villageName":null,"roadName":null,"communityName":null,"tranName":null,"sdLineName":null,"cityCode":"3340160","cityName":"国网浙江临安市供电公司","provinceCode":null,"stopTime":"2020-05-15 12:50:00","powerType":"全部","powerOffArea":"35kV相见变:相岛V832线-玉山村永安配变","powerOffReason":"(低压停电信息)增容布点","powerOffId":"2020043031020795"},{"poweroffId":2020043031020794,"sgpoweroffId":null,"subsName":"","lineName":"10kV蒋家D408线","pubTranName":"浙江省富阳市鹿山中学,","scope":"浙江省-杭州市-富阳区-鹿山街道-蒋家行政村-杭州市富阳区鹿山中学","startTime":"2020-05-16 08:45:00","stopDate":"2020-05-17 16:45:00","orgNo":"3340170","typeCode":"计划停电","poweroffArea":"110kV长春变:蒋家D408线-浙江省富阳市鹿山中学后段","poweroffReason":"杭州市富阳区鹿山中学配电房改造工程:10kV配电房改造，进线电缆改接","powerTime":"2020-05-17 16:20:28","powerComm":"已送电","subsNo":"","lineNo":"","tgNo":"","tgName":null,"infoStatus":"1","orgName":"国网浙江杭州市富阳区供电公司","typeName":null,"infoStatusName":null,"dateDay":null,"orgNos":null,"nowTime":null,"countyName":null,"streetName":null,"villageName":null,"roadName":null,"communityName":null,"tranName":null,"sdLineName":null,"cityCode":"3340170","cityName":"国网浙江杭州市富阳区供电公司","provinceCode":null,"stopTime":"2020-05-17 16:45:00","powerType":"全部","powerOffArea":"110kV长春变:蒋家D408线-浙江省富阳市鹿山中学后段","powerOffReason":"杭州市富阳区鹿山中学配电房改造工程:10kV配电房改造，进线电缆改接","powerOffId":"2020043031020794"},{"poweroffId":2020043031020793,"sgpoweroffId":null,"subsName":"","lineName":"10kV上汤V140线","pubTranName":"手握村,","scope":"浙江省-杭州市-临安市-龙岗镇-手握村","startTime":"2020-05-14 07:40:00","stopDate":"2020-05-14 10:45:00","orgNo":"3340160","typeCode":"计划停电","poweroffArea":"110kV龙岗变:上汤V140线-手握村","poweroffReason":"手握村增容 原停电结束时间为2020-05-14 12:20:00,为减少客户停电时间,加快工作进度,提前送电,现变更停电结束时间为2020-05-14 10:45:00","powerTime":"2020-05-14 10:15:32","powerComm":"已送电","subsNo":"","lineNo":"","tgNo":"","tgName":null,"infoStatus":"1","orgName":"国网浙江临安市供电公司","typeName":null,"infoStatusName":null,"dateDay":null,"orgNos":null,"nowTime":null,"countyName":null,"streetName":null,"villageName":null,"roadName":null,"communityName":null,"tranName":null,"sdLineName":null,"cityCode":"3340160","cityName":"国网浙江临安市供电公司","provinceCode":null,"stopTime":"2020-05-14 10:45:00","powerType":"全部","powerOffArea":"110kV龙岗变:上汤V140线-手握村","powerOffReason":"手握村增容 原停电结束时间为2020-05-14 12:20:00,为减少客户停电时间,加快工作进度,提前送电,现变更停电结束时间为2020-05-14 10:45:00","powerOffId":"2020043031020793"},{"poweroffId":2020043031020792,"sgpoweroffId":null,"subsName":"","lineName":"10kV桐浦D844线","pubTranName":"山亚村3#上港公变,","scope":"浙江省-杭州市-富阳区-渌渚镇-山亚行政村-上港自然村一带","startTime":"2020-05-16 16:30:00","stopDate":"2020-05-16 17:00:00","orgNo":"3340170","typeCode":"计划停电","poweroffArea":"110kV新桐变:桐浦D844线-山亚村3#上港公变后段","poweroffReason":"配合0.4kV发电机拆除","powerTime":"2020-05-16 16:48:31","powerComm":"已送电","subsNo":"","lineNo":"","tgNo":"","tgName":null,"infoStatus":"1","orgName":"国网浙江杭州市富阳区供电公司","typeName":null,"infoStatusName":null,"dateDay":null,"orgNos":null,"nowTime":null,"countyName":null,"streetName":null,"villageName":null,"roadName":null,"communityName":null,"tranName":null,"sdLineName":null,"cityCode":"3340170","cityName":"国网浙江杭州市富阳区供电公司","provinceCode":null,"stopTime":"2020-05-16 17:00:00","powerType":"全部","powerOffArea":"110kV新桐变:桐浦D844线-山亚村3#上港公变后段","powerOffReason":"配合0.4kV发电机拆除","powerOffId":"2020043031020792"},{"poweroffId":2020043031020791,"sgpoweroffId":null,"subsName":"","lineName":"10kV桐浦D844线","pubTranName":"山亚村6#凌家公变,","scope":"浙江省-杭州市-富阳区-渌渚镇-山亚行政村-凌家自然村一带","startTime":"2020-05-16 16:30:00","stopDate":"2020-05-16 17:00:00","orgNo":"3340170","typeCode":"计划停电","poweroffArea":"110kV新桐变:桐浦D844线-山亚村6#凌家公变后段","poweroffReason":"配合0.4kV发电机拆除","powerTime":"2020-05-16 16:48:10","powerComm":"已送电","subsNo":"","lineNo":"","tgNo":"","tgName":null,"infoStatus":"1","orgName":"国网浙江杭州市富阳区供电公司","typeName":null,"infoStatusName":null,"dateDay":null,"orgNos":null,"nowTime":null,"countyName":null,"streetName":null,"villageName":null,"roadName":null,"communityName":null,"tranName":null,"sdLineName":null,"cityCode":"3340170","cityName":"国网浙江杭州市富阳区供电公司","provinceCode":null,"stopTime":"2020-05-16 17:00:00","powerType":"全部","powerOffArea":"110kV新桐变:桐浦D844线-山亚村6#凌家公变后段","powerOffReason":"配合0.4kV发电机拆除","powerOffId":"2020043031020791"},{"poweroffId":2020043031020790,"sgpoweroffId":null,"subsName":"","lineName":"10kV明川V264线","pubTranName":"林竹村兆吉坞,","scope":"浙江省-杭州市-临安市-清凉峰镇-林竹村兆吉坞","startTime":"2020-05-13 12:40:00","stopDate":"2020-05-13 15:30:05","orgNo":"3340160","typeCode":"计划停电","poweroffArea":"35kV颊口变:明川V264线-林竹村兆吉坞配变","poweroffReason":"林竹村兆吉坞增容原停电结束时间为2020-05-13 17:20:00,为减少客户停电时间,加快工作进度,提前送电,现变更停电结束时间为2020-05-13 15:30:05","powerTime":"2020-05-13 14:46:02","powerComm":"已送电","subsNo":"","lineNo":"","tgNo":"","tgName":null,"infoStatus":"1","orgName":"国网浙江临安市供电公司","typeName":null,"infoStatusName":null,"dateDay":null,"orgNos":null,"nowTime":null,"countyName":null,"streetName":null,"villageName":null,"roadName":null,"communityName":null,"tranName":null,"sdLineName":null,"cityCode":"3340160","cityName":"国网浙江临安市供电公司","provinceCode":null,"stopTime":"2020-05-13 15:30:05","powerType":"全部","powerOffArea":"35kV颊口变:明川V264线-林竹村兆吉坞配变","powerOffReason":"林竹村兆吉坞增容原停电结束时间为2020-05-13 17:20:00,为减少客户停电时间,加快工作进度,提前送电,现变更停电结束时间为2020-05-13 15:30:05","powerOffId":"2020043031020790"},{"poweroffId":2020043031020789,"sgpoweroffId":null,"subsName":"","lineName":"10kV新春D938线","pubTranName":"浙江交工集团股份有限公司1#变,","scope":"浙江省-杭州市-富阳区-富春街道-拔山行政村-浙江交工集团股份有限公司","startTime":"2020-05-16 08:20:00","stopDate":"2020-05-16 16:45:00","orgNo":"3340170","typeCode":"计划停电","poweroffArea":"110kV育才变:新春D938线-浙江交工集团股份有限公司后段","poweroffReason":"青云2019年10千伏状元D417线电站分线等线路改造工程：客户迁改配合停电","powerTime":"2020-05-16 16:28:44","powerComm":"已送电","subsNo":"","lineNo":"","tgNo":"","tgName":null,"infoStatus":"1","orgName":"国网浙江杭州市富阳区供电公司","typeName":null,"infoStatusName":null,"dateDay":null,"orgNos":null,"nowTime":null,"countyName":null,"streetName":null,"villageName":null,"roadName":null,"communityName":null,"tranName":null,"sdLineName":null,"cityCode":"3340170","cityName":"国网浙江杭州市富阳区供电公司","provinceCode":null,"stopTime":"2020-05-16 16:45:00","powerType":"全部","powerOffArea":"110kV育才变:新春D938线-浙江交工集团股份有限公司后段","powerOffReason":"青云2019年10千伏状元D417线电站分线等线路改造工程：客户迁改配合停电","powerOffId":"2020043031020789"},{"poweroffId":2020043031020787,"sgpoweroffId":null,"subsName":"","lineName":"10kV新春D938线","pubTranName":"富阳市永根石料厂,","scope":"浙江省-杭州市-富阳区-富春街道-拔山行政村-富阳区拔山建材有限公司","startTime":"2020-05-16 08:40:00","stopDate":"2020-05-16 16:45:00","orgNo":"3340170","typeCode":"计划停电","poweroffArea":"110kV育才变:新春D938线-新春D938线永根石料支线开关后段;新春D938线-农林十一支线后段;新春D938线-农林村11号水库公变熔断器后段","poweroffReason":"客户内部检修","powerTime":"2020-05-16 16:28:18","powerComm":"已送电","subsNo":"","lineNo":"","tgNo":"","tgName":null,"infoStatus":"1","orgName":"国网浙江杭州市富阳区供电公司","typeName":null,"infoStatusName":null,"dateDay":null,"orgNos":null,"nowTime":null,"countyName":null,"streetName":null,"villageName":null,"roadName":null,"communityName":null,"tranName":null,"sdLineName":null,"cityCode":"3340170","cityName":"国网浙江杭州市富阳区供电公司","provinceCode":null,"stopTime":"2020-05-16 16:45:00","powerType":"全部","powerOffArea":"110kV育才变:新春D938线-新春D938线永根石料支线开关后段;新春D938线-农林十一支线后段;新春D938线-农林村11号水库公变熔断器后段","powerOffReason":"客户内部检修","powerOffId":"2020043031020787"}],"pageModel":{"pageNow":230,"totalCount":17788,"totalPage":1779,"tableRows":0,"pageCount":10,"beginCount":2290},"isExperi":"1"}