{"message":"","today":"2020-06-15","seleList":[{"poweroffId":2020043031020786,"sgpoweroffId":null,"subsName":"","lineName":"10kV新桥V311线","pubTranName":"榧树坞,临安市岛石镇阳光股份经济合作社,尖山村,白川,","scope":"浙江省-杭州市-临安市-岛石镇-阳光村尖山，榧川，白川","startTime":"2020-05-13 08:10:00","stopDate":"2020-05-13 12:50:00","orgNo":"3340160","typeCode":"计划停电","poweroffArea":"35kV岛石变:新桥V311线-新桥311线尖山支线令克后段","poweroffReason":"榧川村、白川村增容布点","powerTime":"2020-05-13 12:40:09","powerComm":"已送电","subsNo":"","lineNo":"","tgNo":"","tgName":null,"infoStatus":"1","orgName":"国网浙江临安市供电公司","typeName":null,"infoStatusName":null,"dateDay":null,"orgNos":null,"nowTime":null,"countyName":null,"streetName":null,"villageName":null,"roadName":null,"communityName":null,"tranName":null,"sdLineName":null,"cityCode":"3340160","cityName":"国网浙江临安市供电公司","provinceCode":null,"stopTime":"2020-05-13 12:50:00","powerType":"全部","powerOffArea":"35kV岛石变:新桥V311线-新桥311线尖山支线令克后段","powerOffReason":"榧川村、白川村增容布点","powerOffId":"2020043031020786"},{"poweroffId":2020043031020782,"sgpoweroffId":null,"subsName":"","lineName":"10kV上里D409线","pubTranName":"五四村2#桃坑公变,","scope":"浙江省-杭州市-富阳区-鹿山街道-五四行政村(山坑自然村,下叶自然村,桃坑自然村,华家自然村,江家自然村,五四自然村,山坑坞自然村)","startTime":"2020-05-15 17:35:00","stopDate":"2020-05-15 18:15:00","orgNo":"3340170","typeCode":"计划停电","poweroffArea":"110kV长春变:上里D409线-五四村2#桃坑公变后段","poweroffReason":"中铁十二局集团有限公司湖杭铁路项目经理部三分部线路迁改工程：五四村2#桃坑公变变压器出线电缆恢复","powerTime":"2020-05-15 17:57:59","powerComm":"已送电","subsNo":"","lineNo":"","tgNo":"","tgName":null,"infoStatus":"1","orgName":"国网浙江杭州市富阳区供电公司","typeName":null,"infoStatusName":null,"dateDay":null,"orgNos":null,"nowTime":null,"countyName":null,"streetName":null,"villageName":null,"roadName":null,"communityName":null,"tranName":null,"sdLineName":null,"cityCode":"3340170","cityName":"国网浙江杭州市富阳区供电公司","provinceCode":null,"stopTime":"2020-05-15 18:15:00","powerType":"全部","powerOffArea":"110kV长春变:上里D409线-五四村2#桃坑公变后段","powerOffReason":"中铁十二局集团有限公司湖杭铁路项目经理部三分部线路迁改工程：五四村2#桃坑公变变压器出线电缆恢复","powerOffId":"2020043031020782"},{"poweroffId":2020043031020780,"sgpoweroffId":null,"subsName":"","lineName":"10kV上里D409线","pubTranName":"三合村1#吴家公变,","scope":"浙江省-杭州市-富阳区-鹿山街道-三合行政村(吴家自然村,三合村自然村,环村北路,大树下自然村,柴坞自然村,江家自然村,三合自然村)","startTime":"2020-05-15 17:35:00","stopDate":"2020-05-15 18:15:00","orgNo":"3340170","typeCode":"计划停电","poweroffArea":"110kV长春变:上里D409线-三合村1#吴家公变后段","poweroffReason":"中铁十二局集团有限公司湖杭铁路项目经理部三分部线路迁改工程：三合村1#吴家公变变压器出线电缆恢复","powerTime":"2020-05-15 18:00:52","powerComm":"已送电","subsNo":"","lineNo":"","tgNo":"","tgName":null,"infoStatus":"1","orgName":"国网浙江杭州市富阳区供电公司","typeName":null,"infoStatusName":null,"dateDay":null,"orgNos":null,"nowTime":null,"countyName":null,"streetName":null,"villageName":null,"roadName":null,"communityName":null,"tranName":null,"sdLineName":null,"cityCode":"3340170","cityName":"国网浙江杭州市富阳区供电公司","provinceCode":null,"stopTime":"2020-05-15 18:15:00","powerType":"全部","powerOffArea":"110kV长春变:上里D409线-三合村1#吴家公变后段","powerOffReason":"中铁十二局集团有限公司湖杭铁路项目经理部三分部线路迁改工程：三合村1#吴家公变变压器出线电缆恢复","powerOffId":"2020043031020780"},{"poweroffId":2020043031020779,"sgpoweroffId":null,"subsName":"","lineName":"10kV明川V264线","pubTranName":"新峰村翁家,","scope":"浙江省-杭州市-临安市-清凉峰镇-新峰村翁家","startTime":"2020-05-13 07:40:00","stopDate":"2020-05-13 10:50:00","orgNo":"3340160","typeCode":"计划停电","poweroffArea":"35kV颊口变:明川V264线-新峰村翁家","poweroffReason":"新峰村翁家增容 原停电结束时间为2020-05-13 12:20:00,为减少客户停电时间,加快工作进度,提前送电,现变更停电结束时间为2020-05-13 10:50:00","powerTime":"2020-05-13 10:08:47","powerComm":"已送电","subsNo":"","lineNo":"","tgNo":"","tgName":null,"infoStatus":"1","orgName":"国网浙江临安市供电公司","typeName":null,"infoStatusName":null,"dateDay":null,"orgNos":null,"nowTime":null,"countyName":null,"streetName":null,"villageName":null,"roadName":null,"communityName":null,"tranName":null,"sdLineName":null,"cityCode":"3340160","cityName":"国网浙江临安市供电公司","provinceCode":null,"stopTime":"2020-05-13 10:50:00","powerType":"全部","powerOffArea":"35kV颊口变:明川V264线-新峰村翁家","powerOffReason":"新峰村翁家增容 原停电结束时间为2020-05-13 12:20:00,为减少客户停电时间,加快工作进度,提前送电,现变更停电结束时间为2020-05-13 10:50:00","powerOffId":"2020043031020779"},{"poweroffId":2020043031020778,"sgpoweroffId":null,"subsName":"","lineName":"10kV上里D409线","pubTranName":"上叶村1#村中公变,中铁十二局集团有限公司1#变,中铁十二局集团有限公司3#变,上叶村2#公变,五四村5#华家公变,中铁十二局集团有限公司2#变,中铁十二局集团有限公司2#变,五四村4#下叶公变,中铁十二局集团有限公司1#变,","scope":"浙江省-杭州市-富阳区-鹿山街道-五四行政村-中铁十二局集团有限公司","startTime":"2020-05-15 17:35:00","stopDate":"2020-05-15 17:55:00","orgNo":"3340170","typeCode":"计划停电","poweroffArea":"110kV长春变:上里D409线-中铁十二局分线开关后段;上里D409线首端，五四村5#华家公变，五四村4#下叶公变，上叶村1#村中公变，上叶村2#公变之间","poweroffReason":"中铁十二局集团有限公司湖杭铁路项目经理部三分部线路迁改工程：短时停电配合上里D409线上叶分线负荷恢复","powerTime":"2020-05-15 17:46:23","powerComm":"已送电","subsNo":"","lineNo":"","tgNo":"","tgName":null,"infoStatus":"1","orgName":"国网浙江杭州市富阳区供电公司","typeName":null,"infoStatusName":null,"dateDay":null,"orgNos":null,"nowTime":null,"countyName":null,"streetName":null,"villageName":null,"roadName":null,"communityName":null,"tranName":null,"sdLineName":null,"cityCode":"3340170","cityName":"国网浙江杭州市富阳区供电公司","provinceCode":null,"stopTime":"2020-05-15 17:55:00","powerType":"全部","powerOffArea":"110kV长春变:上里D409线-中铁十二局分线开关后段;上里D409线首端，五四村5#华家公变，五四村4#下叶公变，上叶村1#村中公变，上叶村2#公变之间","powerOffReason":"中铁十二局集团有限公司湖杭铁路项目经理部三分部线路迁改工程：短时停电配合上里D409线上叶分线负荷恢复","powerOffId":"2020043031020778"},{"poweroffId":2020043031020774,"sgpoweroffId":null,"subsName":"","lineName":"10kV昌西V142线","pubTranName":"新溪坑村,","scope":"浙江省-杭州市-临安市-龙岗镇-新溪村","startTime":"2020-05-13 07:40:00","stopDate":"2020-05-13 13:20:00","orgNo":"3340160","typeCode":"计划停电","poweroffArea":"110kV龙岗变:昌西V142线-新溪坑村配变","poweroffReason":"(低压停电信息)增容布点","powerTime":"2020-05-13 13:10:07","powerComm":"已送电","subsNo":"","lineNo":"","tgNo":"","tgName":null,"infoStatus":"1","orgName":"国网浙江临安市供电公司","typeName":null,"infoStatusName":null,"dateDay":null,"orgNos":null,"nowTime":null,"countyName":null,"streetName":null,"villageName":null,"roadName":null,"communityName":null,"tranName":null,"sdLineName":null,"cityCode":"3340160","cityName":"国网浙江临安市供电公司","provinceCode":null,"stopTime":"2020-05-13 13:20:00","powerType":"全部","powerOffArea":"110kV龙岗变:昌西V142线-新溪坑村配变","powerOffReason":"(低压停电信息)增容布点","powerOffId":"2020043031020774"},{"poweroffId":2020043031020773,"sgpoweroffId":null,"subsName":"","lineName":"10kV昌南V452线","pubTranName":"西九村洪家,","scope":"浙江省-杭州市-临安市-河桥镇-西九村洪家","startTime":"2020-05-13 08:10:00","stopDate":"2020-05-13 11:50:00","orgNo":"3340160","typeCode":"计划停电","poweroffArea":"110kV昌化变:昌南V452线-西九村洪家","poweroffReason":"西九村洪家增容 原停电结束时间为2020-05-13 12:50:00,为减少客户停电时间,加快工作进度,提前送电,现变更停电结束时间为2020-05-13 11:50:00","powerTime":"2020-05-13 11:17:13","powerComm":"已送电","subsNo":"","lineNo":"","tgNo":"","tgName":null,"infoStatus":"1","orgName":"国网浙江临安市供电公司","typeName":null,"infoStatusName":null,"dateDay":null,"orgNos":null,"nowTime":null,"countyName":null,"streetName":null,"villageName":null,"roadName":null,"communityName":null,"tranName":null,"sdLineName":null,"cityCode":"3340160","cityName":"国网浙江临安市供电公司","provinceCode":null,"stopTime":"2020-05-13 11:50:00","powerType":"全部","powerOffArea":"110kV昌化变:昌南V452线-西九村洪家","powerOffReason":"西九村洪家增容 原停电结束时间为2020-05-13 12:50:00,为减少客户停电时间,加快工作进度,提前送电,现变更停电结束时间为2020-05-13 11:50:00","powerOffId":"2020043031020773"},{"poweroffId":2020043031020771,"sgpoweroffId":null,"subsName":"","lineName":"10kV凉亭D362线","pubTranName":"1#变,2#变,4#变,3#变,","scope":"浙江省-杭州市-富阳区-富春街道-金桥社区-杭州市富阳区妇幼保健院","startTime":"2020-05-15 09:15:00","stopDate":"2020-05-15 17:00:00","orgNo":"3340170","typeCode":"计划停电","poweroffArea":"110kV富鹿变:凉亭D362线-杭州市富阳区妇幼保健院1#后段","poweroffReason":"青云2019年容大变金苑D808线等网架优化工程：妇保一线10kV电缆改接至金鼎开关站I段5#间隔备用线","powerTime":"2020-05-15 16:41:12","powerComm":"已送电","subsNo":"","lineNo":"","tgNo":"","tgName":null,"infoStatus":"1","orgName":"国网浙江杭州市富阳区供电公司","typeName":null,"infoStatusName":null,"dateDay":null,"orgNos":null,"nowTime":null,"countyName":null,"streetName":null,"villageName":null,"roadName":null,"communityName":null,"tranName":null,"sdLineName":null,"cityCode":"3340170","cityName":"国网浙江杭州市富阳区供电公司","provinceCode":null,"stopTime":"2020-05-15 17:00:00","powerType":"全部","powerOffArea":"110kV富鹿变:凉亭D362线-杭州市富阳区妇幼保健院1#后段","powerOffReason":"青云2019年容大变金苑D808线等网架优化工程：妇保一线10kV电缆改接至金鼎开关站I段5#间隔备用线","powerOffId":"2020043031020771"},{"poweroffId":2020043031020768,"sgpoweroffId":null,"subsName":"","lineName":"10kV金苑D808线","pubTranName":"农民城2#公变,","scope":"浙江省-杭州市-富阳区-富春街道-金秋社区-金苑路,金桥社区(金苑路,横凉亭路)","startTime":"2020-05-15 08:45:00","stopDate":"2020-05-15 16:30:00","orgNo":"3340170","typeCode":"计划停电","poweroffArea":"110kV容大变:金苑D808线-农民城2#公变后段","poweroffReason":"青云2019年容大变金苑D808线等网架优化工程：农民城二分线10kV电缆改接至金鼎开关站I段6#间隔备用线","powerTime":"2020-05-15 16:15:21","powerComm":"已送电","subsNo":"","lineNo":"","tgNo":"","tgName":null,"infoStatus":"1","orgName":"国网浙江杭州市富阳区供电公司","typeName":null,"infoStatusName":null,"dateDay":null,"orgNos":null,"nowTime":null,"countyName":null,"streetName":null,"villageName":null,"roadName":null,"communityName":null,"tranName":null,"sdLineName":null,"cityCode":"3340170","cityName":"国网浙江杭州市富阳区供电公司","provinceCode":null,"stopTime":"2020-05-15 16:30:00","powerType":"全部","powerOffArea":"110kV容大变:金苑D808线-农民城2#公变后段","powerOffReason":"青云2019年容大变金苑D808线等网架优化工程：农民城二分线10kV电缆改接至金鼎开关站I段6#间隔备用线","powerOffId":"2020043031020768"},{"poweroffId":2020043031020765,"sgpoweroffId":null,"subsName":"","lineName":"10kV上里D409线","pubTranName":"五四村5#华家公变,中铁十二局集团有限公司2#变,中铁十二局集团有限公司3#变,上叶村1#村中公变,中铁十二局集团有限公司1#变,上叶村2#公变,五四村4#下叶公变,中铁十二局集团有限公司2#变,中铁十二局集团有限公司1#变,","scope":"浙江省-杭州市-富阳区-鹿山街道-五四行政村(五四自然村,上叶自然村,华家自然村,下叶自然村,桃坑自然村);中铁十二局集团有限公司","startTime":"2020-05-15 07:55:00","stopDate":"2020-05-15 09:25:00","orgNo":"3340170","typeCode":"计划停电","poweroffArea":"110kV长春变:上里D409线-上叶分线后段","poweroffReason":"中铁十二局集团有限公司湖杭铁路项目经理部三分部线路迁改工程：短时停电配合上里D409线上叶分线负荷转供至10千伏发电车 原停电结束时间为2020-05-15 08:25:00,因政策原因,延迟送电,现变更停电结束时间为2020-05-15 09:25:00","powerTime":"2020-05-15 08:42:20","powerComm":"已送电","subsNo":"","lineNo":"","tgNo":"","tgName":null,"infoStatus":"1","orgName":"国网浙江杭州市富阳区供电公司","typeName":null,"infoStatusName":null,"dateDay":null,"orgNos":null,"nowTime":null,"countyName":null,"streetName":null,"villageName":null,"roadName":null,"communityName":null,"tranName":null,"sdLineName":null,"cityCode":"3340170","cityName":"国网浙江杭州市富阳区供电公司","provinceCode":null,"stopTime":"2020-05-15 09:25:00","powerType":"全部","powerOffArea":"110kV长春变:上里D409线-上叶分线后段","powerOffReason":"中铁十二局集团有限公司湖杭铁路项目经理部三分部线路迁改工程：短时停电配合上里D409线上叶分线负荷转供至10千伏发电车 原停电结束时间为2020-05-15 08:25:00,因政策原因,延迟送电,现变更停电结束时间为2020-05-15 09:25:00","powerOffId":"2020043031020765"}],"pageModel":{"pageNow":231,"totalCount":17788,"totalPage":1779,"tableRows":0,"pageCount":10,"beginCount":2300},"isExperi":"1"}