{"message":"","today":"2020-06-15","seleList":[{"poweroffId":2020043031020761,"sgpoweroffId":null,"subsName":"","lineName":"10kV桐浦D844线","pubTranName":"中铁十二局山亚路南1#变,","scope":"浙江省-杭州市-富阳区-渌渚镇-山亚行政村-中铁十二局集团有限公司一带","startTime":"2020-05-16 16:30:00","stopDate":"2020-05-16 17:00:00","orgNo":"3340170","typeCode":"计划停电","poweroffArea":"110kV新桐变:桐浦D844线101#杆山亚分线19#杆上畈支线2#杆国强工艺五金厂支线5#杆中铁十二局山亚路南1#变","poweroffReason":"配合0.4kV发电机拆除","powerTime":"2020-05-16 16:47:36","powerComm":"已送电","subsNo":"","lineNo":"","tgNo":"","tgName":null,"infoStatus":"1","orgName":"国网浙江杭州市富阳区供电公司","typeName":null,"infoStatusName":null,"dateDay":null,"orgNos":null,"nowTime":null,"countyName":null,"streetName":null,"villageName":null,"roadName":null,"communityName":null,"tranName":null,"sdLineName":null,"cityCode":"3340170","cityName":"国网浙江杭州市富阳区供电公司","provinceCode":null,"stopTime":"2020-05-16 17:00:00","powerType":"全部","powerOffArea":"110kV新桐变:桐浦D844线101#杆山亚分线19#杆上畈支线2#杆国强工艺五金厂支线5#杆中铁十二局山亚路南1#变","powerOffReason":"配合0.4kV发电机拆除","powerOffId":"2020043031020761"},{"poweroffId":2020043031020760,"sgpoweroffId":null,"subsName":"","lineName":"10kV桐浦D844线","pubTranName":"山亚村5#麻山公变,","scope":"浙江省-杭州市-富阳区-渌渚镇-山亚行政村-麻山自然村一带","startTime":"2020-05-16 16:30:00","stopDate":"2020-05-16 17:00:00","orgNo":"3340170","typeCode":"计划停电","poweroffArea":"110kV新桐变:桐浦D844线-山亚村5#麻山公变后段","poweroffReason":"配合0.4kV发电机拆除","powerTime":"2020-05-16 16:47:14","powerComm":"已送电","subsNo":"","lineNo":"","tgNo":"","tgName":null,"infoStatus":"1","orgName":"国网浙江杭州市富阳区供电公司","typeName":null,"infoStatusName":null,"dateDay":null,"orgNos":null,"nowTime":null,"countyName":null,"streetName":null,"villageName":null,"roadName":null,"communityName":null,"tranName":null,"sdLineName":null,"cityCode":"3340170","cityName":"国网浙江杭州市富阳区供电公司","provinceCode":null,"stopTime":"2020-05-16 17:00:00","powerType":"全部","powerOffArea":"110kV新桐变:桐浦D844线-山亚村5#麻山公变后段","powerOffReason":"配合0.4kV发电机拆除","powerOffId":"2020043031020760"},{"poweroffId":2020043031020758,"sgpoweroffId":null,"subsName":"","lineName":"10kV桐浦D844线","pubTranName":"富阳市山亚制砂有限公司,山亚村上畈2#新村公变,","scope":"浙江省-杭州市-富阳区-渌渚镇-山亚行政村-上畈新村自然村，富阳区山亚制砂有限公司一带","startTime":"2020-05-16 16:30:00","stopDate":"2020-05-16 17:00:00","orgNo":"3340170","typeCode":"计划停电","poweroffArea":"110kV新桐变:桐浦D844线-山亚村上畈2#新村公变后段","poweroffReason":"配合10kV发电机拆除","powerTime":"2020-05-16 16:47:03","powerComm":"已送电","subsNo":"","lineNo":"","tgNo":"","tgName":null,"infoStatus":"1","orgName":"国网浙江杭州市富阳区供电公司","typeName":null,"infoStatusName":null,"dateDay":null,"orgNos":null,"nowTime":null,"countyName":null,"streetName":null,"villageName":null,"roadName":null,"communityName":null,"tranName":null,"sdLineName":null,"cityCode":"3340170","cityName":"国网浙江杭州市富阳区供电公司","provinceCode":null,"stopTime":"2020-05-16 17:00:00","powerType":"全部","powerOffArea":"110kV新桐变:桐浦D844线-山亚村上畈2#新村公变后段","powerOffReason":"配合10kV发电机拆除","powerOffId":"2020043031020758"},{"poweroffId":2020043031020757,"sgpoweroffId":null,"subsName":"","lineName":"10kV桐浦D844线","pubTranName":"中铁十二局山亚路南1#变,","scope":"浙江省-杭州市-富阳区-渌渚镇-山亚行政村-中铁十二局集团有限公司一带","startTime":"2020-05-16 08:00:00","stopDate":"2020-05-16 17:00:00","orgNo":"3340170","typeCode":"计划停电","poweroffArea":"110kV新桐变:桐浦D844线101#杆山亚分线19#杆上畈支线2#杆国强工艺五金厂支线5#杆中铁十二局山亚路南1#变","poweroffReason":"配合0.4kV发电机接入 原停电结束时间为2020-05-16 08:30:00,因工作难度大原因,延迟送电,现变更停电结束时间为2020-05-16 17:00:00","powerTime":"2020-05-16 16:47:50","powerComm":"已送电","subsNo":"","lineNo":"","tgNo":"","tgName":null,"infoStatus":"1","orgName":"国网浙江杭州市富阳区供电公司","typeName":null,"infoStatusName":null,"dateDay":null,"orgNos":null,"nowTime":null,"countyName":null,"streetName":null,"villageName":null,"roadName":null,"communityName":null,"tranName":null,"sdLineName":null,"cityCode":"3340170","cityName":"国网浙江杭州市富阳区供电公司","provinceCode":null,"stopTime":"2020-05-16 17:00:00","powerType":"全部","powerOffArea":"110kV新桐变:桐浦D844线101#杆山亚分线19#杆上畈支线2#杆国强工艺五金厂支线5#杆中铁十二局山亚路南1#变","powerOffReason":"配合0.4kV发电机接入 原停电结束时间为2020-05-16 08:30:00,因工作难度大原因,延迟送电,现变更停电结束时间为2020-05-16 17:00:00","powerOffId":"2020043031020757"},{"poweroffId":2020043031020756,"sgpoweroffId":null,"subsName":"","lineName":"10kV桐浦D844线","pubTranName":"山亚村5#麻山公变,","scope":"浙江省-杭州市-富阳区-渌渚镇-山亚行政村-麻山自然村一带","startTime":"2020-05-16 08:00:00","stopDate":"2020-05-16 08:30:00","orgNo":"3340170","typeCode":"计划停电","poweroffArea":"110kV新桐变:桐浦D844线-山亚村5#麻山公变后段","poweroffReason":"配合0.4kV发电机接入","powerTime":"2020-05-16 08:16:37","powerComm":"已送电","subsNo":"","lineNo":"","tgNo":"","tgName":null,"infoStatus":"1","orgName":"国网浙江杭州市富阳区供电公司","typeName":null,"infoStatusName":null,"dateDay":null,"orgNos":null,"nowTime":null,"countyName":null,"streetName":null,"villageName":null,"roadName":null,"communityName":null,"tranName":null,"sdLineName":null,"cityCode":"3340170","cityName":"国网浙江杭州市富阳区供电公司","provinceCode":null,"stopTime":"2020-05-16 08:30:00","powerType":"全部","powerOffArea":"110kV新桐变:桐浦D844线-山亚村5#麻山公变后段","powerOffReason":"配合0.4kV发电机接入","powerOffId":"2020043031020756"},{"poweroffId":2020043031020755,"sgpoweroffId":null,"subsName":"","lineName":"10kV桐浦D844线","pubTranName":"山亚村上畈2#新村公变,富阳市山亚制砂有限公司,","scope":"浙江省-杭州市-富阳区-渌渚镇-山亚行政村-上畈新村自然村，富阳区山亚制砂有限公司一带","startTime":"2020-05-16 08:00:00","stopDate":"2020-05-16 08:30:00","orgNo":"3340170","typeCode":"计划停电","poweroffArea":"110kV新桐变:桐浦D844线-山亚村上畈2#新村公变后段","poweroffReason":"配合10kV发电机接入","powerTime":"2020-05-16 08:26:36","powerComm":"已送电","subsNo":"","lineNo":"","tgNo":"","tgName":null,"infoStatus":"1","orgName":"国网浙江杭州市富阳区供电公司","typeName":null,"infoStatusName":null,"dateDay":null,"orgNos":null,"nowTime":null,"countyName":null,"streetName":null,"villageName":null,"roadName":null,"communityName":null,"tranName":null,"sdLineName":null,"cityCode":"3340170","cityName":"国网浙江杭州市富阳区供电公司","provinceCode":null,"stopTime":"2020-05-16 08:30:00","powerType":"全部","powerOffArea":"110kV新桐变:桐浦D844线-山亚村上畈2#新村公变后段","powerOffReason":"配合10kV发电机接入","powerOffId":"2020043031020755"},{"poweroffId":2020043031020754,"sgpoweroffId":null,"subsName":"","lineName":"10kV桐浦D844线","pubTranName":"山亚村3#上港公变,","scope":"浙江省-杭州市-富阳区-渌渚镇-山亚行政村-上港自然村一带","startTime":"2020-05-16 08:00:00","stopDate":"2020-05-16 08:30:00","orgNo":"3340170","typeCode":"计划停电","poweroffArea":"110kV新桐变:桐浦D844线-山亚村3#上港公变后段","poweroffReason":"配合0.4kV发电机接入","powerTime":"2020-05-16 08:26:25","powerComm":"已送电","subsNo":"","lineNo":"","tgNo":"","tgName":null,"infoStatus":"1","orgName":"国网浙江杭州市富阳区供电公司","typeName":null,"infoStatusName":null,"dateDay":null,"orgNos":null,"nowTime":null,"countyName":null,"streetName":null,"villageName":null,"roadName":null,"communityName":null,"tranName":null,"sdLineName":null,"cityCode":"3340170","cityName":"国网浙江杭州市富阳区供电公司","provinceCode":null,"stopTime":"2020-05-16 08:30:00","powerType":"全部","powerOffArea":"110kV新桐变:桐浦D844线-山亚村3#上港公变后段","powerOffReason":"配合0.4kV发电机接入","powerOffId":"2020043031020754"},{"poweroffId":2020043031020753,"sgpoweroffId":null,"subsName":"","lineName":"10kV桐浦D844线","pubTranName":"山亚村6#凌家公变,","scope":"浙江省-杭州市-富阳区-渌渚镇-山亚行政村-凌家自然村一带","startTime":"2020-05-16 08:00:00","stopDate":"2020-05-16 08:30:00","orgNo":"3340170","typeCode":"计划停电","poweroffArea":"110kV新桐变:桐浦D844线-山亚村6#凌家公变后段","poweroffReason":"配合0.4kV发电机接入","powerTime":"2020-05-16 08:18:09","powerComm":"已送电","subsNo":"","lineNo":"","tgNo":"","tgName":null,"infoStatus":"1","orgName":"国网浙江杭州市富阳区供电公司","typeName":null,"infoStatusName":null,"dateDay":null,"orgNos":null,"nowTime":null,"countyName":null,"streetName":null,"villageName":null,"roadName":null,"communityName":null,"tranName":null,"sdLineName":null,"cityCode":"3340170","cityName":"国网浙江杭州市富阳区供电公司","provinceCode":null,"stopTime":"2020-05-16 08:30:00","powerType":"全部","powerOffArea":"110kV新桐变:桐浦D844线-山亚村6#凌家公变后段","powerOffReason":"配合0.4kV发电机接入","powerOffId":"2020043031020753"},{"poweroffId":2020043031020750,"sgpoweroffId":null,"subsName":"","lineName":"10kV上里D409线","pubTranName":"五四村2#桃坑公变,","scope":"浙江省-杭州市-富阳区-鹿山街道-五四行政村(山坑自然村,下叶自然村,桃坑自然村,华家自然村,江家自然村,五四自然村,山坑坞自然村)","startTime":"2020-05-15 07:45:00","stopDate":"2020-05-15 08:25:00","orgNo":"3340170","typeCode":"计划停电","poweroffArea":"110kV长春变:上里D409线-五四村2#桃坑公变后段","poweroffReason":"中铁十二局集团有限公司湖杭铁路项目经理部三分部线路迁改工程：五四村2#桃坑公变变压器出线电缆改接至0.4kV发电机T接箱","powerTime":"2020-05-15 08:18:57","powerComm":"已送电","subsNo":"","lineNo":"","tgNo":"","tgName":null,"infoStatus":"1","orgName":"国网浙江杭州市富阳区供电公司","typeName":null,"infoStatusName":null,"dateDay":null,"orgNos":null,"nowTime":null,"countyName":null,"streetName":null,"villageName":null,"roadName":null,"communityName":null,"tranName":null,"sdLineName":null,"cityCode":"3340170","cityName":"国网浙江杭州市富阳区供电公司","provinceCode":null,"stopTime":"2020-05-15 08:25:00","powerType":"全部","powerOffArea":"110kV长春变:上里D409线-五四村2#桃坑公变后段","powerOffReason":"中铁十二局集团有限公司湖杭铁路项目经理部三分部线路迁改工程：五四村2#桃坑公变变压器出线电缆改接至0.4kV发电机T接箱","powerOffId":"2020043031020750"},{"poweroffId":2020043031020748,"sgpoweroffId":null,"subsName":"","lineName":"10kV上里D409线","pubTranName":"三合村1#吴家公变,","scope":"浙江省-杭州市-富阳区-鹿山街道-三合行政村(吴家自然村,三合村自然村,环村北路,大树下自然村,柴坞自然村,江家自然村,三合自然村)","startTime":"2020-05-15 07:45:00","stopDate":"2020-05-15 08:25:00","orgNo":"3340170","typeCode":"计划停电","poweroffArea":"110kV长春变:上里D409线-三合村1#吴家公变后段","poweroffReason":"中铁十二局集团有限公司湖杭铁路项目经理部三分部线路迁改工程：三合村1#吴家公变变压器出线电缆改接至0.4kV发电机T接箱","powerTime":"2020-05-15 08:18:46","powerComm":"已送电","subsNo":"","lineNo":"","tgNo":"","tgName":null,"infoStatus":"1","orgName":"国网浙江杭州市富阳区供电公司","typeName":null,"infoStatusName":null,"dateDay":null,"orgNos":null,"nowTime":null,"countyName":null,"streetName":null,"villageName":null,"roadName":null,"communityName":null,"tranName":null,"sdLineName":null,"cityCode":"3340170","cityName":"国网浙江杭州市富阳区供电公司","provinceCode":null,"stopTime":"2020-05-15 08:25:00","powerType":"全部","powerOffArea":"110kV长春变:上里D409线-三合村1#吴家公变后段","powerOffReason":"中铁十二局集团有限公司湖杭铁路项目经理部三分部线路迁改工程：三合村1#吴家公变变压器出线电缆改接至0.4kV发电机T接箱","powerOffId":"2020043031020748"}],"pageModel":{"pageNow":232,"totalCount":17788,"totalPage":1779,"tableRows":0,"pageCount":10,"beginCount":2310},"isExperi":"1"}