{"message":"","today":"2020-06-15","seleList":[{"poweroffId":2020043031020704,"sgpoweroffId":null,"subsName":"","lineName":"10kV高德G373线","pubTranName":"化工研究,","scope":"浙江省-杭州市-余杭区-仁和街道-杭州嘉德超细助剂有限公司","startTime":"2020-04-30 16:12:32","stopDate":"2020-04-30 17:12:32","orgNo":"3340140","typeCode":"电网故障停限电","poweroffArea":"110kV东塘变:高德G373线化工研究配变","poweroffReason":"高压开关跳闸 原停电结束时间为2020-04-30 18:12:32,为减少客户停电时间,加快工作进度,提前送电,现变更停电结束时间为2020-04-30 17:12:32","powerTime":"2020-04-30 16:40:31","powerComm":"已送电","subsNo":"","lineNo":"","tgNo":"","tgName":null,"infoStatus":"1","orgName":"国网浙江杭州市余杭区供电有限公司","typeName":null,"infoStatusName":null,"dateDay":null,"orgNos":null,"nowTime":null,"countyName":null,"streetName":null,"villageName":null,"roadName":null,"communityName":null,"tranName":null,"sdLineName":null,"cityCode":"3340140","cityName":"国网浙江杭州市余杭区供电有限公司","provinceCode":null,"stopTime":"2020-04-30 17:12:32","powerType":"全部","powerOffArea":"110kV东塘变:高德G373线化工研究配变","powerOffReason":"高压开关跳闸 原停电结束时间为2020-04-30 18:12:32,为减少客户停电时间,加快工作进度,提前送电,现变更停电结束时间为2020-04-30 17:12:32","powerOffId":"2020043031020704"},{"poweroffId":2020043031020700,"sgpoweroffId":null,"subsName":"","lineName":"10kV三溪D337线","pubTranName":"三溪村4#大院里公变,","scope":"浙江省-杭州市-富阳区-洞桥镇-三溪行政村-大院里自然村一带","startTime":"2020-05-15 15:30:00","stopDate":"2020-05-15 16:00:00","orgNo":"3340170","typeCode":"计划停电","poweroffArea":"110kV万市变:三溪D337线-三溪村4#大院里公变后段","poweroffReason":"配合0.4kV发电机拆除","powerTime":"2020-05-15 15:46:38","powerComm":"已送电","subsNo":"","lineNo":"","tgNo":"","tgName":null,"infoStatus":"1","orgName":"国网浙江杭州市富阳区供电公司","typeName":null,"infoStatusName":null,"dateDay":null,"orgNos":null,"nowTime":null,"countyName":null,"streetName":null,"villageName":null,"roadName":null,"communityName":null,"tranName":null,"sdLineName":null,"cityCode":"3340170","cityName":"国网浙江杭州市富阳区供电公司","provinceCode":null,"stopTime":"2020-05-15 16:00:00","powerType":"全部","powerOffArea":"110kV万市变:三溪D337线-三溪村4#大院里公变后段","powerOffReason":"配合0.4kV发电机拆除","powerOffId":"2020043031020700"},{"poweroffId":2020043031020699,"sgpoweroffId":null,"subsName":"","lineName":"10kV三溪D337线","pubTranName":"三溪村5#西坎坞公变,","scope":"浙江省-杭州市-富阳区-洞桥镇-三溪行政村-西坎坞自然村一带","startTime":"2020-05-15 15:30:00","stopDate":"2020-05-15 16:00:00","orgNo":"3340170","typeCode":"计划停电","poweroffArea":"110kV万市变:三溪D337线-三溪村5#西坎坞公变后段","poweroffReason":"配合0.4kV发电机拆除","powerTime":"2020-05-15 15:45:32","powerComm":"已送电","subsNo":"","lineNo":"","tgNo":"","tgName":null,"infoStatus":"1","orgName":"国网浙江杭州市富阳区供电公司","typeName":null,"infoStatusName":null,"dateDay":null,"orgNos":null,"nowTime":null,"countyName":null,"streetName":null,"villageName":null,"roadName":null,"communityName":null,"tranName":null,"sdLineName":null,"cityCode":"3340170","cityName":"国网浙江杭州市富阳区供电公司","provinceCode":null,"stopTime":"2020-05-15 16:00:00","powerType":"全部","powerOffArea":"110kV万市变:三溪D337线-三溪村5#西坎坞公变后段","powerOffReason":"配合0.4kV发电机拆除","powerOffId":"2020043031020699"},{"poweroffId":2020043031020698,"sgpoweroffId":null,"subsName":"","lineName":"10kV三溪D337线","pubTranName":"三溪村5#西坎坞公变,","scope":"浙江省-杭州市-富阳区-洞桥镇-三溪行政村-西坎坞自然村一带","startTime":"2020-05-15 08:00:00","stopDate":"2020-05-15 08:30:00","orgNo":"3340170","typeCode":"计划停电","poweroffArea":"110kV万市变:三溪D337线-三溪村5#西坎坞公变后段","poweroffReason":"配合0.4kV发电机接入","powerTime":"2020-05-15 08:26:44","powerComm":"已送电","subsNo":"","lineNo":"","tgNo":"","tgName":null,"infoStatus":"1","orgName":"国网浙江杭州市富阳区供电公司","typeName":null,"infoStatusName":null,"dateDay":null,"orgNos":null,"nowTime":null,"countyName":null,"streetName":null,"villageName":null,"roadName":null,"communityName":null,"tranName":null,"sdLineName":null,"cityCode":"3340170","cityName":"国网浙江杭州市富阳区供电公司","provinceCode":null,"stopTime":"2020-05-15 08:30:00","powerType":"全部","powerOffArea":"110kV万市变:三溪D337线-三溪村5#西坎坞公变后段","powerOffReason":"配合0.4kV发电机接入","powerOffId":"2020043031020698"},{"poweroffId":2020043031020696,"sgpoweroffId":null,"subsName":"","lineName":"10kV三溪D337线","pubTranName":"三溪村4#大院里公变,","scope":"浙江省-杭州市-富阳区-洞桥镇-三溪行政村-大院里自然村一带","startTime":"2020-05-15 08:00:00","stopDate":"2020-05-15 09:00:00","orgNo":"3340170","typeCode":"计划停电","poweroffArea":"110kV万市变:三溪D337线-三溪村4#大院里公变后段","poweroffReason":"配合0.4kV发电机接入 原停电结束时间为2020-05-15 08:30:00,因政策原因,延迟送电,现变更停电结束时间为2020-05-15 09:00:00","powerTime":"2020-05-15 08:36:38","powerComm":"已送电","subsNo":"","lineNo":"","tgNo":"","tgName":null,"infoStatus":"1","orgName":"国网浙江杭州市富阳区供电公司","typeName":null,"infoStatusName":null,"dateDay":null,"orgNos":null,"nowTime":null,"countyName":null,"streetName":null,"villageName":null,"roadName":null,"communityName":null,"tranName":null,"sdLineName":null,"cityCode":"3340170","cityName":"国网浙江杭州市富阳区供电公司","provinceCode":null,"stopTime":"2020-05-15 09:00:00","powerType":"全部","powerOffArea":"110kV万市变:三溪D337线-三溪村4#大院里公变后段","powerOffReason":"配合0.4kV发电机接入 原停电结束时间为2020-05-15 08:30:00,因政策原因,延迟送电,现变更停电结束时间为2020-05-15 09:00:00","powerOffId":"2020043031020696"},{"poweroffId":2020043031020695,"sgpoweroffId":null,"subsName":"","lineName":"10kV三溪D337线","pubTranName":"三溪村11号水库公变,","scope":"浙江省-杭州市-富阳区-洞桥镇-三溪行政村-水库自然村一带","startTime":"2020-05-15 08:00:00","stopDate":"2020-05-15 08:30:00","orgNo":"3340170","typeCode":"计划停电","poweroffArea":"110kV万市变:三溪D337线-三溪村11号水库公变后段","poweroffReason":"配合0.4kV发电机接入","powerTime":"2020-05-15 08:26:59","powerComm":"已送电","subsNo":"","lineNo":"","tgNo":"","tgName":null,"infoStatus":"1","orgName":"国网浙江杭州市富阳区供电公司","typeName":null,"infoStatusName":null,"dateDay":null,"orgNos":null,"nowTime":null,"countyName":null,"streetName":null,"villageName":null,"roadName":null,"communityName":null,"tranName":null,"sdLineName":null,"cityCode":"3340170","cityName":"国网浙江杭州市富阳区供电公司","provinceCode":null,"stopTime":"2020-05-15 08:30:00","powerType":"全部","powerOffArea":"110kV万市变:三溪D337线-三溪村11号水库公变后段","powerOffReason":"配合0.4kV发电机接入","powerOffId":"2020043031020695"},{"poweroffId":2020043031020693,"sgpoweroffId":null,"subsName":"","lineName":"10kV三溪D337线","pubTranName":"三溪村6#大塔地公变,","scope":"浙江省-杭州市-富阳区-洞桥镇-三溪行政村-大塔地自然村一带","startTime":"2020-05-15 08:00:00","stopDate":"2020-05-15 08:30:00","orgNo":"3340170","typeCode":"计划停电","poweroffArea":"110kV万市变:三溪D337线-三溪村6#大塔地公变后段","poweroffReason":"配合0.4kV发电机接入","powerTime":"2020-05-15 08:26:23","powerComm":"已送电","subsNo":"","lineNo":"","tgNo":"","tgName":null,"infoStatus":"1","orgName":"国网浙江杭州市富阳区供电公司","typeName":null,"infoStatusName":null,"dateDay":null,"orgNos":null,"nowTime":null,"countyName":null,"streetName":null,"villageName":null,"roadName":null,"communityName":null,"tranName":null,"sdLineName":null,"cityCode":"3340170","cityName":"国网浙江杭州市富阳区供电公司","provinceCode":null,"stopTime":"2020-05-15 08:30:00","powerType":"全部","powerOffArea":"110kV万市变:三溪D337线-三溪村6#大塔地公变后段","powerOffReason":"配合0.4kV发电机接入","powerOffId":"2020043031020693"},{"poweroffId":2020043031020691,"sgpoweroffId":null,"subsName":"","lineName":"10kV三溪D337线","pubTranName":"大溪村15#塘坞里公变,","scope":"浙江省-杭州市-富阳区-洞桥镇-大溪行政村-塘坞里自然村一点","startTime":"2020-05-13 08:30:00","stopDate":"2020-05-13 16:30:00","orgNo":"3340170","typeCode":"计划停电","poweroffArea":"110kV万市变:三溪D337线-大溪村15#塘坞里公变后段","poweroffReason":"俞毕线线路迁改工程:10kV三溪D337线123#杆三贤联线54#杆后段：立杆、架线、拆旧、0.4kv电缆敷设及大溪村15#塘坞里公变01线、02线立杆改耐张接户线拆搭等工作","powerTime":"2020-05-13 16:20:45","powerComm":"已送电","subsNo":"","lineNo":"","tgNo":"","tgName":null,"infoStatus":"1","orgName":"国网浙江杭州市富阳区供电公司","typeName":null,"infoStatusName":null,"dateDay":null,"orgNos":null,"nowTime":null,"countyName":null,"streetName":null,"villageName":null,"roadName":null,"communityName":null,"tranName":null,"sdLineName":null,"cityCode":"3340170","cityName":"国网浙江杭州市富阳区供电公司","provinceCode":null,"stopTime":"2020-05-13 16:30:00","powerType":"全部","powerOffArea":"110kV万市变:三溪D337线-大溪村15#塘坞里公变后段","powerOffReason":"俞毕线线路迁改工程:10kV三溪D337线123#杆三贤联线54#杆后段：立杆、架线、拆旧、0.4kv电缆敷设及大溪村15#塘坞里公变01线、02线立杆改耐张接户线拆搭等工作","powerOffId":"2020043031020691"},{"poweroffId":2020043031020689,"sgpoweroffId":null,"subsName":"","lineName":"10kV上里D409线","pubTranName":"中铁三局集团第二工程有限公司8#变,","scope":"浙江省-杭州市-富阳区-鹿山街道-三合行政村-中铁三局集团第二工程有限公司","startTime":"2020-05-12 07:00:00","stopDate":"2020-05-12 17:30:00","orgNo":"3340170","typeCode":"计划停电","poweroffArea":"110kV长春变:上里D409线-中铁三局集团第二工程有限公司后段","poweroffReason":"客户内部检修","powerTime":"2020-05-12 17:16:11","powerComm":"已送电","subsNo":"","lineNo":"","tgNo":"","tgName":null,"infoStatus":"1","orgName":"国网浙江杭州市富阳区供电公司","typeName":null,"infoStatusName":null,"dateDay":null,"orgNos":null,"nowTime":null,"countyName":null,"streetName":null,"villageName":null,"roadName":null,"communityName":null,"tranName":null,"sdLineName":null,"cityCode":"3340170","cityName":"国网浙江杭州市富阳区供电公司","provinceCode":null,"stopTime":"2020-05-12 17:30:00","powerType":"全部","powerOffArea":"110kV长春变:上里D409线-中铁三局集团第二工程有限公司后段","powerOffReason":"客户内部检修","powerOffId":"2020043031020689"},{"poweroffId":2020043031020688,"sgpoweroffId":null,"subsName":"","lineName":"10kV上里D409线","pubTranName":"杭州富阳森杉科技有限公司变压器,","scope":"浙江省-杭州市-富阳区-鹿山街道-三合行政村-杭州富阳森杉科技有限公司","startTime":"2020-05-12 07:20:00","stopDate":"2020-05-12 17:30:00","orgNo":"3340170","typeCode":"计划停电","poweroffArea":"110kV长春变:上里D409线-杭州富阳森杉科技有限公司熔断器后段","poweroffReason":"中铁十二局集团有限公司湖杭铁路项目经理部三分部线路迁改工程：客户迁改配合停电","powerTime":"2020-05-12 17:15:57","powerComm":"已送电","subsNo":"","lineNo":"","tgNo":"","tgName":null,"infoStatus":"1","orgName":"国网浙江杭州市富阳区供电公司","typeName":null,"infoStatusName":null,"dateDay":null,"orgNos":null,"nowTime":null,"countyName":null,"streetName":null,"villageName":null,"roadName":null,"communityName":null,"tranName":null,"sdLineName":null,"cityCode":"3340170","cityName":"国网浙江杭州市富阳区供电公司","provinceCode":null,"stopTime":"2020-05-12 17:30:00","powerType":"全部","powerOffArea":"110kV长春变:上里D409线-杭州富阳森杉科技有限公司熔断器后段","powerOffReason":"中铁十二局集团有限公司湖杭铁路项目经理部三分部线路迁改工程：客户迁改配合停电","powerOffId":"2020043031020688"}],"pageModel":{"pageNow":234,"totalCount":17788,"totalPage":1779,"tableRows":0,"pageCount":10,"beginCount":2330},"isExperi":"1"}