{"message":"","today":"2020-06-15","seleList":[{"poweroffId":2020043031020591,"sgpoweroffId":null,"subsName":"","lineName":"10kV时江9907线","pubTranName":"中厚置施二,中厚置施一,","scope":"浙江省-杭州市-江干区-望江街道杭州中厚置业有限公司","startTime":"2020-05-11 09:30:00","stopDate":"2020-05-11 16:00:00","orgNo":"3340101","typeCode":"计划停电","poweroffArea":"110kV时代变:时江9907线-中厚置施线后段","poweroffReason":"杭州中厚置业有限公司，电源接10kV通钱站5#间隔中厚置施线， 原停电结束时间为2020-05-11 17:30:00,为减少客户停电时间,加快工作进度,提前送电,现变更停电结束时间为2020-05-11 16:00:00","powerTime":"2020-05-11 15:32:59","powerComm":"已送电","subsNo":"","lineNo":"","tgNo":"","tgName":null,"infoStatus":"1","orgName":"浙江杭州电力客户服务中心","typeName":null,"infoStatusName":null,"dateDay":null,"orgNos":null,"nowTime":null,"countyName":null,"streetName":null,"villageName":null,"roadName":null,"communityName":null,"tranName":null,"sdLineName":null,"cityCode":"3340101","cityName":"浙江杭州电力客户服务中心","provinceCode":null,"stopTime":"2020-05-11 16:00:00","powerType":"全部","powerOffArea":"110kV时代变:时江9907线-中厚置施线后段","powerOffReason":"杭州中厚置业有限公司，电源接10kV通钱站5#间隔中厚置施线， 原停电结束时间为2020-05-11 17:30:00,为减少客户停电时间,加快工作进度,提前送电,现变更停电结束时间为2020-05-11 16:00:00","powerOffId":"2020043031020591"},{"poweroffId":2020043031020586,"sgpoweroffId":null,"subsName":"","lineName":"10kV双林D786线","pubTranName":"真佳溪村10#化竹村北公变,","scope":"浙江省-杭州市-富阳区-场口镇-真佳溪行政村-化竹自然村一带","startTime":"2020-05-19 09:00:00","stopDate":"2020-05-19 12:10:00","orgNo":"3340170","typeCode":"计划停电","poweroffArea":"110kV王洲变:双林D786线-化竹村北分线后段","poweroffReason":"配电屏抬高、更换0.4kv进线电缆等工作；","powerTime":"2020-05-19 11:40:37","powerComm":"已送电","subsNo":"","lineNo":"","tgNo":"","tgName":null,"infoStatus":"1","orgName":"国网浙江杭州市富阳区供电公司","typeName":null,"infoStatusName":null,"dateDay":null,"orgNos":null,"nowTime":null,"countyName":null,"streetName":null,"villageName":null,"roadName":null,"communityName":null,"tranName":null,"sdLineName":null,"cityCode":"3340170","cityName":"国网浙江杭州市富阳区供电公司","provinceCode":null,"stopTime":"2020-05-19 12:10:00","powerType":"全部","powerOffArea":"110kV王洲变:双林D786线-化竹村北分线后段","powerOffReason":"配电屏抬高、更换0.4kv进线电缆等工作；","powerOffId":"2020043031020586"},{"poweroffId":2020043031020578,"sgpoweroffId":null,"subsName":"","lineName":"10kV上官D265线","pubTranName":"大盛村5号上官新农村公变,大盛村3号盛村祠堂公变,杭州意达制管有限公司,芳村1号羊桥头公变,杭州市富阳区上官乡人民政府1#,富阳市杰灵体育用品有限公司,富阳市上官乡中心小学,富阳金泰管业有限公司,剡溪村8#徐村密坞公变,剡溪村5#周村对山公变,剡溪村12号徐村大树下公变,杭州富阳区上官乡益新金属制品厂1#变,剡溪村9#睦村和尚岭公变,剡溪村6#睦村村口公变,杭州上官球拍有限公司,富阳市金泰管业有限公司,剡溪村4#睦村七亩畈公变,剡溪村13号睦村公交公变,芳村4号花面前公变,大盛村9号上官陆家坞口公变,剡溪村11号睦村公园公变,富阳市上官乡汉昌体育用品厂,剡溪村7#周村公寓房公变,芳村2号程家门公变,富阳市芳村文体用品厂,剡溪村2#徐村老桥公变,杭州意达制管有限公司,杭州富阳华泰球拍有限公司,杭州伊沃克海绵制品有限公司,大盛村12号公寓房公变,杭州耀星乒乓球有限公司1#,芳村3号马栗弯公变,剡溪村10#周村枫木桥公变,剡溪村3#睦村乡政府公变,大盛村10号上官前山公变,剡溪村1#徐村工业园区公变,富阳大羽运动器材有限公司,","scope":"浙江省-杭州市-富阳区-上官乡-芳村行政村-芳村自然村,上官乡-剡溪行政村(睦村自然村,徐村自然村,周村自然村,密坞自然村),上官乡-大盛行政村(盛村自然村,上官自然村);上官乡-芳村行政村(杭州富阳芳村文体用品厂,杭州杰灵体育用品有限公司),上官乡-剡溪行政村(杭州上官球拍有限公司,杭州伊佳海绵有限公司,杭州富阳华泰球拍有限公司,杭州意达制管有限公司,杭州富阳大羽运动器材有限公司,富阳市上官乡汉昌体育用品厂,杭州富阳金泰管业有限公司,杭州市富阳区上官乡中心小学,杭州富阳区上官乡益新金属制品厂,杭州耀星乒乓球有限公司,杭州市富阳区环境卫生管理处)一带","startTime":"2020-05-17 22:00:00","stopDate":"2020-05-17 22:30:00","orgNo":"3340170","typeCode":"计划停电","poweroffArea":"35kV盛村变:上官D265线-上官D2651开关后段","poweroffReason":"盛村变改造短时停电倒负荷，停电通知用","powerTime":"2020-05-17 22:22:35","powerComm":"已送电","subsNo":"","lineNo":"","tgNo":"","tgName":null,"infoStatus":"1","orgName":"国网浙江杭州市富阳区供电公司","typeName":null,"infoStatusName":null,"dateDay":null,"orgNos":null,"nowTime":null,"countyName":null,"streetName":null,"villageName":null,"roadName":null,"communityName":null,"tranName":null,"sdLineName":null,"cityCode":"3340170","cityName":"国网浙江杭州市富阳区供电公司","provinceCode":null,"stopTime":"2020-05-17 22:30:00","powerType":"全部","powerOffArea":"35kV盛村变:上官D265线-上官D2651开关后段","powerOffReason":"盛村变改造短时停电倒负荷，停电通知用","powerOffId":"2020043031020578"},{"poweroffId":2020043031020573,"sgpoweroffId":null,"subsName":"","lineName":"10kV章家G038线","pubTranName":"运河镇滩里村周家角公变,","scope":"浙江省-杭州市-余杭区-东湖街道：滩里村周家角东一带","startTime":"2020-05-13 08:40:00","stopDate":"2020-05-13 16:40:00","orgNo":"3340140","typeCode":"计划停电","poweroffArea":"110kV五杭变:章家G038线-滩里村5组后段","poweroffReason":"滩里村周家角东公变增至400kVA、调换计量箱及电缆、新装分线令克1组（周家角公变令克上引线需带电作业拆除，工作结束后搭头）","powerTime":"2020-05-13 16:15:46","powerComm":"已送电","subsNo":"","lineNo":"","tgNo":"","tgName":null,"infoStatus":"1","orgName":"国网浙江杭州市余杭区供电有限公司","typeName":null,"infoStatusName":null,"dateDay":null,"orgNos":null,"nowTime":null,"countyName":null,"streetName":null,"villageName":null,"roadName":null,"communityName":null,"tranName":null,"sdLineName":null,"cityCode":"3340140","cityName":"国网浙江杭州市余杭区供电有限公司","provinceCode":null,"stopTime":"2020-05-13 16:40:00","powerType":"全部","powerOffArea":"110kV五杭变:章家G038线-滩里村5组后段","powerOffReason":"滩里村周家角东公变增至400kVA、调换计量箱及电缆、新装分线令克1组（周家角公变令克上引线需带电作业拆除，工作结束后搭头）","powerOffId":"2020043031020573"},{"poweroffId":2020043031020572,"sgpoweroffId":null,"subsName":"","lineName":"10kV常绿D268线","pubTranName":"黄弹村7号冷园坞口公变,北坞村4号前山头公变,青龙村4#庙后公变,大章村1号常三中心村公变,大章村12号黄泥山公变,富阳市常绿加油站有限公司,大章村10号村南三界桥公变,黄弹村9号枫桐坞公变,双溪村1#双溪坞公变,双溪村2#杨树坑公变,富阳市常绿镇黄弹水电站2,杭州竣阳建设工程有限公司1#,浙江大运建设集团有限公司1号基建变,黄弹村6号外庄公变,大章村6号村南前山头公变,大章村2号常三槐花潭公变,杭州富阳兴泰铸造机械厂1#,富阳市常绿镇中心小学,北坞村2号勤坞公变,常绿镇中心幼儿园1#变,杭州市富阳区公路管理段,北坞村7号化山石板岭公变,大章村9号章村后圣坞公变,黄弹村1号应家公变,北坞村5号化山马笼山公变,青龙村1号石棚公变,杭州富阳科新绢云母矿业有限公司,大章村7号章村街道公变,北坞村8号化山楼家坞公变,大章村3号常三后山公变,青龙村5#陈北坞公变,杭州富阳新丰橡塑有限公司1#变,北坞村3号庙外公变,北坞村1号后坞公变,黄弹村8号石梯口公变,青龙村2号青龙头公变,富阳市常绿镇垃圾中转站,黄弹村5号石梯公变,富阳市电力建设集团有限公司,黄弹村3号寺前公变,黄弹村4号里黄弹公变,大章村8号章村文昌阁公变,黄弹村2号中央村公变,富阳市上官乡倪龙文体材料厂,富阳宣倪园林绿化工程有限公司,浙江容大电力工程有限公司,大章村5号村南铜坞公变,北坞村6号化山大杨篙公变,杭州富阳益昌纺织品有限公司,杭州市富阳区常绿镇人民政府1#,北坞村9号勤坞马家塘公变,大章村11号电管站公变,富阳市常绿镇黄弹水电站,富阳洁诚纺织有限公司,杭州市富阳区公路管理段,青龙村3号盛家桥公变,大章村4号村南前田畈公变,","scope":"浙江省-杭州市-富阳区-常绿镇-五联行政村-大岩坞自然村,常绿镇-大章村行政村(文昌阁自然村,S307省道大章村绿化带诱导屏,常三中心自然村,前田畈自然村,桐坞自然村,槐花潭自然村,后溪桥自然村,钟家畈自然村,前山头自然村,后田畈自然村,庙下畈自然村),常绿镇-青龙行政村(青龙头自然村,盛家桥头自然村,陈北坞自然村,庙背后自然村,石棚自然村,普恩岭脚自然村),常绿镇-黄弹行政村(外黄弹自然村,石梯自然村,里黄弹自然村,黄弹寺前自然村,应家自然村,池头坞自然村),常绿镇-双溪行政村(双溪坞自然村,杨树坑自然村),常绿镇-北坞行政村(勤坞自然村,北坞自然村,化山村自然村,石桥头自然村,石板岭脚自然村,庙外自然村,费家门口自然村,马垄山脚自然村,后坞自然村,神坞自然村,楼家坞自然村);浙江省-杭州市-富阳区-上官乡-大盛行政村-富阳市上官乡倪龙文体材料厂,常绿镇-大章村行政村(杭州富阳益昌纺织品有限公司,中国石化销售股份有限公司浙江杭州石油分公司,杭州富阳洁诚纺织有限公司,浙江大运建设集团有限公司,杭州富阳新丰橡塑有限公司,富阳区常绿镇中心小学,杭州富阳兴泰铸造机械厂,杭州市富阳区常绿镇中心幼儿园,杭州市富阳区常绿镇人民政府),常绿镇-青龙行政村(杭州富阳科新绢云母矿业有限公司,富阳宣倪园林绿化工程有限公司),常绿镇-黄弹行政村(浙江容大电力工程有限公司,杭州富阳黄弹水电站,杭州竣阳建设工程有限公司),常绿镇-北坞行政村(富阳市常绿镇垃圾中转站,杭州市富阳区公路管理段)一带","startTime":"2020-05-17 22:00:00","stopDate":"2020-05-17 22:30:00","orgNo":"3340170","typeCode":"计划停电","poweroffArea":"35kV盛村变:常绿D268线-常绿D2681开关后段","poweroffReason":"盛村变改造短时停电倒负荷，停电通知用","powerTime":"2020-05-17 22:22:20","powerComm":"已送电","subsNo":"","lineNo":"","tgNo":"","tgName":null,"infoStatus":"1","orgName":"国网浙江杭州市富阳区供电公司","typeName":null,"infoStatusName":null,"dateDay":null,"orgNos":null,"nowTime":null,"countyName":null,"streetName":null,"villageName":null,"roadName":null,"communityName":null,"tranName":null,"sdLineName":null,"cityCode":"3340170","cityName":"国网浙江杭州市富阳区供电公司","provinceCode":null,"stopTime":"2020-05-17 22:30:00","powerType":"全部","powerOffArea":"35kV盛村变:常绿D268线-常绿D2681开关后段","powerOffReason":"盛村变改造短时停电倒负荷，停电通知用","powerOffId":"2020043031020572"},{"poweroffId":2020043031020570,"sgpoweroffId":null,"subsName":"","lineName":"10kV兴隆G758线","pubTranName":"力达纺织厂4#,杭州昕鸿布艺有限公司400配变,清淇进出口有限公司,2#变压器,中都物业二段,浙江力达现代纺织有限公司4#变,力达纺织厂3#,杭州贝克机械制造有限公司400配变,力达纺织厂1#,天浩工贸,杭州叠进机械有限公司,1＃,杭州宝利华机械制造有限公司80配变,","scope":"浙江省-杭州市-余杭区-东湖街道：杭州昕鸿布艺、纳雅服饰、杭州天浩工贸有限公司、贝克机械、杭州宝丽华机械公司、杭州叠进机械有限公司、力英机械、力达纺织一带","startTime":"2020-05-13 08:40:00","stopDate":"2020-05-13 17:10:00","orgNo":"3340140","typeCode":"计划停电","poweroffArea":"110kV金家变:兴隆G758线-力达分线开关后段","poweroffReason":"汀南开关站II段山北G751线自动化改造工程 原停电结束时间为2020-05-13 16:40:00,因现场需要带电作业配合搭头原因,延迟送电,现变更停电结束时间为2020-05-13 17:10:00","powerTime":"2020-05-13 16:55:03","powerComm":"已送电","subsNo":"","lineNo":"","tgNo":"","tgName":null,"infoStatus":"1","orgName":"国网浙江杭州市余杭区供电有限公司","typeName":null,"infoStatusName":null,"dateDay":null,"orgNos":null,"nowTime":null,"countyName":null,"streetName":null,"villageName":null,"roadName":null,"communityName":null,"tranName":null,"sdLineName":null,"cityCode":"3340140","cityName":"国网浙江杭州市余杭区供电有限公司","provinceCode":null,"stopTime":"2020-05-13 17:10:00","powerType":"全部","powerOffArea":"110kV金家变:兴隆G758线-力达分线开关后段","powerOffReason":"汀南开关站II段山北G751线自动化改造工程 原停电结束时间为2020-05-13 16:40:00,因现场需要带电作业配合搭头原因,延迟送电,现变更停电结束时间为2020-05-13 17:10:00","powerOffId":"2020043031020570"},{"poweroffId":2020043031020563,"sgpoweroffId":null,"subsName":"","lineName":"10kV秋山D925线","pubTranName":"渔山乡排涝站,渔山乡排涝站,","scope":"浙江省-杭州市-富阳区-渔山乡-墅溪行政村-渔山乡排涝站","startTime":"2020-04-30 14:55:50","stopDate":"2020-04-30 18:00:12","orgNo":"3340170","typeCode":"电网故障停限电","poweroffArea":"110kV里渔变:秋山D925线-墅溪机械分线真空开关后段","poweroffReason":"高压开关跳闸","powerTime":"2020-04-30 17:42:59","powerComm":"已送电","subsNo":"","lineNo":"","tgNo":"","tgName":null,"infoStatus":"1","orgName":"国网浙江杭州市富阳区供电公司","typeName":null,"infoStatusName":null,"dateDay":null,"orgNos":null,"nowTime":null,"countyName":null,"streetName":null,"villageName":null,"roadName":null,"communityName":null,"tranName":null,"sdLineName":null,"cityCode":"3340170","cityName":"国网浙江杭州市富阳区供电公司","provinceCode":null,"stopTime":"2020-04-30 18:00:12","powerType":"全部","powerOffArea":"110kV里渔变:秋山D925线-墅溪机械分线真空开关后段","powerOffReason":"高压开关跳闸","powerOffId":"2020043031020563"},{"poweroffId":2020043031020561,"sgpoweroffId":null,"subsName":"","lineName":"10kV深里D261线","pubTranName":"大盛村4号上官汽车站公变,杭州宏科体育器材有限公司1#变,四堡村6号凤坞公变,四堡村3#机埠公变,富阳市亿达文体用品厂,富阳市富盛文体厂,四堡村7#四公桥公变,富阳宏力球拍厂,富阳市上官乡人民政府,富阳市日盛文体用品厂,富阳市广谊体育用品厂1#变,四堡村4#程家公变,1#变,富阳市青松文体用品厂,杭州富阳荣鑫文体器材厂1#变,四堡村5号上边畈公变,四堡村2号红庙畈公变,富阳市中意文体用品厂,杭州富阳富华体育用品有限公司,杭州富阳博卡体育用品有限公司,四堡村1#中心公变,富阳市上官乡永军球拍厂,","scope":"浙江省-杭州市-富阳区-上官乡-四堡行政村(四堡自然村,上边畈自然村),上官乡-大盛行政村(上官自然村,盛村自然村);上官乡-芳村行政村(富阳市亿达文体用品厂,杭州富阳广谊体育用品厂),上官乡-剡溪行政村(杭州富阳中意文体用品厂,杭州宏科体育器材有限公司,杭州富阳宏力球拍厂,杭州富阳青松文体用品厂,杭州富阳富盛文体厂,富阳区上官乡永军球拍厂,杭州富阳日盛文体用品厂,杭州富阳合力球拍厂,杭州富阳博卡体育用品有限公司,富阳市芳村文体器材厂),上官乡(深里行政村-杭州富阳富华体育用品有限公司,大盛行政村-富阳区上官乡人民政府)","startTime":"2020-05-17 22:00:00","stopDate":"2020-05-17 22:30:00","orgNo":"3340170","typeCode":"计划停电","poweroffArea":"35kV盛村变:深里D261线-深里D2611开关后段","poweroffReason":"盛村变改造短时停电倒负荷，停电通知用","powerTime":"2020-05-17 22:22:05","powerComm":"已送电","subsNo":"","lineNo":"","tgNo":"","tgName":null,"infoStatus":"1","orgName":"国网浙江杭州市富阳区供电公司","typeName":null,"infoStatusName":null,"dateDay":null,"orgNos":null,"nowTime":null,"countyName":null,"streetName":null,"villageName":null,"roadName":null,"communityName":null,"tranName":null,"sdLineName":null,"cityCode":"3340170","cityName":"国网浙江杭州市富阳区供电公司","provinceCode":null,"stopTime":"2020-05-17 22:30:00","powerType":"全部","powerOffArea":"35kV盛村变:深里D261线-深里D2611开关后段","powerOffReason":"盛村变改造短时停电倒负荷，停电通知用","powerOffId":"2020043031020561"},{"poweroffId":2020043031020559,"sgpoweroffId":null,"subsName":"","lineName":"10kV庆丰6732线","pubTranName":"中国石化销售有限公司浙江杭州石油分公司,西湖市政1#,","scope":"浙江省-杭州市-西湖区-北山街道市政园林管理所双路单侧，中国石油化工股份有限公司浙江杭州石油分公司双路全停","startTime":"2020-05-16 08:40:00","stopDate":"2020-05-16 17:00:00","orgNo":"3340101","typeCode":"计划停电","poweroffArea":"110kV黄体变:庆丰6732线-燃楼二线后段、燃楼一线后段","poweroffReason":"河东站3#间隔燃楼一线T接箱/河东站6#间隔燃楼二线。原停电结束时间为2020-05-16 20:00:00,为减少客户停电时间,加快工作进度,提前送电,现变更停电结束时间为2020-05-16 17:00:00","powerTime":"2020-05-16 16:11:36","powerComm":"已送电","subsNo":"","lineNo":"","tgNo":"","tgName":null,"infoStatus":"1","orgName":"浙江杭州电力客户服务中心","typeName":null,"infoStatusName":null,"dateDay":null,"orgNos":null,"nowTime":null,"countyName":null,"streetName":null,"villageName":null,"roadName":null,"communityName":null,"tranName":null,"sdLineName":null,"cityCode":"3340101","cityName":"浙江杭州电力客户服务中心","provinceCode":null,"stopTime":"2020-05-16 17:00:00","powerType":"全部","powerOffArea":"110kV黄体变:庆丰6732线-燃楼二线后段、燃楼一线后段","powerOffReason":"河东站3#间隔燃楼一线T接箱/河东站6#间隔燃楼二线。原停电结束时间为2020-05-16 20:00:00,为减少客户停电时间,加快工作进度,提前送电,现变更停电结束时间为2020-05-16 17:00:00","powerOffId":"2020043031020559"},{"poweroffId":2020043031020558,"sgpoweroffId":null,"subsName":"","lineName":"10kV胶鞋8550线","pubTranName":"1#,2#,","scope":"浙江省-杭州市-上城区-紫阳街道-杭州市钱江新城投资集团有限公司","startTime":"2020-05-14 13:30:00","stopDate":"2020-05-14 14:30:00","orgNo":"3340101","typeCode":"计划停电","poweroffArea":"220kV候潮变:胶鞋8550线-钱新投资施二柱上跌落式熔断器后段","poweroffReason":"10kV钱望站7#间隔钱新二施线 原停电结束时间为2020-05-14 17:00:00,为减少客户停电时间,加快工作进度,提前送电,现变更停电结束时间为2020-05-14 14:30:00","powerTime":"2020-05-14 14:00:59","powerComm":"已送电","subsNo":"","lineNo":"","tgNo":"","tgName":null,"infoStatus":"1","orgName":"浙江杭州电力客户服务中心","typeName":null,"infoStatusName":null,"dateDay":null,"orgNos":null,"nowTime":null,"countyName":null,"streetName":null,"villageName":null,"roadName":null,"communityName":null,"tranName":null,"sdLineName":null,"cityCode":"3340101","cityName":"浙江杭州电力客户服务中心","provinceCode":null,"stopTime":"2020-05-14 14:30:00","powerType":"全部","powerOffArea":"220kV候潮变:胶鞋8550线-钱新投资施二柱上跌落式熔断器后段","powerOffReason":"10kV钱望站7#间隔钱新二施线 原停电结束时间为2020-05-14 17:00:00,为减少客户停电时间,加快工作进度,提前送电,现变更停电结束时间为2020-05-14 14:30:00","powerOffId":"2020043031020558"}],"pageModel":{"pageNow":240,"totalCount":17788,"totalPage":1779,"tableRows":0,"pageCount":10,"beginCount":2390},"isExperi":"1"}