{"message":"","today":"2020-06-15","seleList":[{"poweroffId":2020043031020418,"sgpoweroffId":null,"subsName":"","lineName":"10kV莫塘G072线","pubTranName":"汤家锦苑2号公变,汤家锦苑1号公变,","scope":"浙江省-杭州市-余杭区-星桥街道-汤家社区-汤家","startTime":"2020-05-13 09:00:00","stopDate":"2020-05-13 15:30:00","orgNo":"3340140","typeCode":"计划停电","poweroffArea":"莫塘G072线16#杆开关-汤家堰环网站莫塘G072线汤家堰环网站分线","poweroffReason":"汤宴环网站莫塘G072线拼柜工作 原停电结束时间为2020-05-13 17:00:00,为减少客户停电时间,加快工作进度,提前送电,现变更停电结束时间为2020-05-13 15:30:00","powerTime":"2020-05-13 14:46:47","powerComm":"因施工力量加强，现场进度较快，提前送电","subsNo":"","lineNo":"","tgNo":"","tgName":null,"infoStatus":"1","orgName":"国网浙江杭州市余杭区供电有限公司","typeName":null,"infoStatusName":null,"dateDay":null,"orgNos":null,"nowTime":null,"countyName":null,"streetName":null,"villageName":null,"roadName":null,"communityName":null,"tranName":null,"sdLineName":null,"cityCode":"3340140","cityName":"国网浙江杭州市余杭区供电有限公司","provinceCode":null,"stopTime":"2020-05-13 15:30:00","powerType":"全部","powerOffArea":"莫塘G072线16#杆开关-汤家堰环网站莫塘G072线汤家堰环网站分线","powerOffReason":"汤宴环网站莫塘G072线拼柜工作 原停电结束时间为2020-05-13 17:00:00,为减少客户停电时间,加快工作进度,提前送电,现变更停电结束时间为2020-05-13 15:30:00","powerOffId":"2020043031020418"},{"poweroffId":2020043031020417,"sgpoweroffId":null,"subsName":"","lineName":"10kV春建D202线","pubTranName":"西邮村华家埭5号湖山垅公变,","scope":"浙江省-杭州市-富阳区-永昌镇-昌岭行政村-后山自然村,富春街道-西邮行政村(西邮自然村,华家埭自然村)","startTime":"2020-05-20 08:30:00","stopDate":"2020-05-20 19:00:00","orgNo":"3340170","typeCode":"计划停电","poweroffArea":"35kV大青变:春建D202线-西邮村华家埭5#湖山垅后段","poweroffReason":"(低压停电信息)青云地区2018年春建D202线网架优化工程：低压配合停电等工作 原停电结束时间为2020-05-20 17:00:00,因工作复杂原因,延迟送电,现变更停电结束时间为2020-05-20 19:00:00","powerTime":"2020-05-20 18:53:54","powerComm":"已送电","subsNo":"","lineNo":"","tgNo":"","tgName":null,"infoStatus":"1","orgName":"国网浙江杭州市富阳区供电公司","typeName":null,"infoStatusName":null,"dateDay":null,"orgNos":null,"nowTime":null,"countyName":null,"streetName":null,"villageName":null,"roadName":null,"communityName":null,"tranName":null,"sdLineName":null,"cityCode":"3340170","cityName":"国网浙江杭州市富阳区供电公司","provinceCode":null,"stopTime":"2020-05-20 19:00:00","powerType":"全部","powerOffArea":"35kV大青变:春建D202线-西邮村华家埭5#湖山垅后段","powerOffReason":"(低压停电信息)青云地区2018年春建D202线网架优化工程：低压配合停电等工作 原停电结束时间为2020-05-20 17:00:00,因工作复杂原因,延迟送电,现变更停电结束时间为2020-05-20 19:00:00","powerOffId":"2020043031020417"},{"poweroffId":2020043031020416,"sgpoweroffId":null,"subsName":"","lineName":"10kV交通G106线","pubTranName":"星育佳园1号公变,星育佳园2号公变,","scope":"浙江省-杭州市-余杭区-临平街道-星火社区(育才路,星火南路)","startTime":"2020-05-13 08:30:00","stopDate":"2020-05-13 15:00:00","orgNo":"3340140","typeCode":"计划停电","poweroffArea":"交通开关站通才G1067线-育才开关站通才G1067","poweroffReason":"育才开关站II段换柜工作 原停电结束时间为2020-05-13 20:00:00,为减少客户停电时间,加快工作进度,提前送电,现变更停电结束时间为2020-05-13 15:00:00","powerTime":"2020-05-13 14:32:18","powerComm":"因施工力量加强，现场进度较快，提前送电","subsNo":"","lineNo":"","tgNo":"","tgName":null,"infoStatus":"1","orgName":"国网浙江杭州市余杭区供电有限公司","typeName":null,"infoStatusName":null,"dateDay":null,"orgNos":null,"nowTime":null,"countyName":null,"streetName":null,"villageName":null,"roadName":null,"communityName":null,"tranName":null,"sdLineName":null,"cityCode":"3340140","cityName":"国网浙江杭州市余杭区供电有限公司","provinceCode":null,"stopTime":"2020-05-13 15:00:00","powerType":"全部","powerOffArea":"交通开关站通才G1067线-育才开关站通才G1067","powerOffReason":"育才开关站II段换柜工作 原停电结束时间为2020-05-13 20:00:00,为减少客户停电时间,加快工作进度,提前送电,现变更停电结束时间为2020-05-13 15:00:00","powerOffId":"2020043031020416"},{"poweroffId":2020043031020415,"sgpoweroffId":null,"subsName":"","lineName":"10kV长盘D722线","pubTranName":"湘溪村7号新石门金家公变,","scope":"浙江省-杭州市-富阳区-新登镇-湘溪行政村、石门金家自然村一带","startTime":"2020-05-20 07:50:00","stopDate":"2020-05-20 17:00:00","orgNo":"3340170","typeCode":"计划停电","poweroffArea":"110kV松溪变:长盘D722线-湘溪村7号新石门金家公变低压开关后段","poweroffReason":"(低压停电信息)更换落户线BS-JKLYJ-2*25*5户、BS-JKLYJ-4*35*5户、安装墙上支架10只、落户线搭接","powerTime":"2020-05-20 16:44:07","powerComm":"已送电","subsNo":"","lineNo":"","tgNo":"","tgName":null,"infoStatus":"1","orgName":"国网浙江杭州市富阳区供电公司","typeName":null,"infoStatusName":null,"dateDay":null,"orgNos":null,"nowTime":null,"countyName":null,"streetName":null,"villageName":null,"roadName":null,"communityName":null,"tranName":null,"sdLineName":null,"cityCode":"3340170","cityName":"国网浙江杭州市富阳区供电公司","provinceCode":null,"stopTime":"2020-05-20 17:00:00","powerType":"全部","powerOffArea":"110kV松溪变:长盘D722线-湘溪村7号新石门金家公变低压开关后段","powerOffReason":"(低压停电信息)更换落户线BS-JKLYJ-2*25*5户、BS-JKLYJ-4*35*5户、安装墙上支架10只、落户线搭接","powerOffId":"2020043031020415"},{"poweroffId":2020043031020414,"sgpoweroffId":null,"subsName":"","lineName":"10kV交通G106线","pubTranName":"星都家园2号公变,星都家园1号公变,","scope":"浙江省-杭州市-余杭区-临平街道-星火社区(星火南路,星火,育才路,星光街)","startTime":"2020-05-13 08:30:00","stopDate":"2020-05-13 15:00:00","orgNo":"3340140","typeCode":"计划停电","poweroffArea":"交通开关站通才G1067线-育才开关站通才G1067线","poweroffReason":"育才开关站II段换柜工作 原停电结束时间为2020-05-13 20:00:00,为减少客户停电时间,加快工作进度,提前送电,现变更停电结束时间为2020-05-13 15:00:00","powerTime":"2020-05-13 14:31:12","powerComm":"因施工力量加强，现场进度较快，提前送电","subsNo":"","lineNo":"","tgNo":"","tgName":null,"infoStatus":"1","orgName":"国网浙江杭州市余杭区供电有限公司","typeName":null,"infoStatusName":null,"dateDay":null,"orgNos":null,"nowTime":null,"countyName":null,"streetName":null,"villageName":null,"roadName":null,"communityName":null,"tranName":null,"sdLineName":null,"cityCode":"3340140","cityName":"国网浙江杭州市余杭区供电有限公司","provinceCode":null,"stopTime":"2020-05-13 15:00:00","powerType":"全部","powerOffArea":"交通开关站通才G1067线-育才开关站通才G1067线","powerOffReason":"育才开关站II段换柜工作 原停电结束时间为2020-05-13 20:00:00,为减少客户停电时间,加快工作进度,提前送电,现变更停电结束时间为2020-05-13 15:00:00","powerOffId":"2020043031020414"},{"poweroffId":2020043031020413,"sgpoweroffId":null,"subsName":"","lineName":"10kV交通G106线","pubTranName":"星育佳园3号公变,","scope":"浙江省-杭州市-余杭区-临平街道-星火社区-星火南路","startTime":"2020-05-13 08:30:00","stopDate":"2020-05-13 15:00:00","orgNo":"3340140","typeCode":"计划停电","poweroffArea":"交通开关站通才G1067线-育才开关站通才G1067线","poweroffReason":"育才开关站II段换柜工作 原停电结束时间为2020-05-13 20:00:00,为减少客户停电时间,加快工作进度,提前送电,现变更停电结束时间为2020-05-13 15:00:00","powerTime":"2020-05-13 14:32:05","powerComm":"因施工力量加强，现场进度较快，提前送电","subsNo":"","lineNo":"","tgNo":"","tgName":null,"infoStatus":"1","orgName":"国网浙江杭州市余杭区供电有限公司","typeName":null,"infoStatusName":null,"dateDay":null,"orgNos":null,"nowTime":null,"countyName":null,"streetName":null,"villageName":null,"roadName":null,"communityName":null,"tranName":null,"sdLineName":null,"cityCode":"3340140","cityName":"国网浙江杭州市余杭区供电有限公司","provinceCode":null,"stopTime":"2020-05-13 15:00:00","powerType":"全部","powerOffArea":"交通开关站通才G1067线-育才开关站通才G1067线","powerOffReason":"育才开关站II段换柜工作 原停电结束时间为2020-05-13 20:00:00,为减少客户停电时间,加快工作进度,提前送电,现变更停电结束时间为2020-05-13 15:00:00","powerOffId":"2020043031020413"},{"poweroffId":2020043031020412,"sgpoweroffId":null,"subsName":"","lineName":"10kV春建D202线","pubTranName":"华家埭1号华家埭公变,","scope":"浙江省-杭州市-富阳区-富春街道-西邮行政村-华家埭自然村","startTime":"2020-05-20 08:30:00","stopDate":"2020-05-20 19:00:00","orgNo":"3340170","typeCode":"计划停电","poweroffArea":"35kV大青变:春建D202线-华家埭1号华家埭后段","poweroffReason":"(低压停电信息)青云地区2018年春建D202线网架优化工程：低压配合停电等工作 原停电结束时间为2020-05-20 17:00:00,因工作复杂原因,延迟送电,现变更停电结束时间为2020-05-20 19:00:00","powerTime":"2020-05-20 18:52:57","powerComm":"已送电","subsNo":"","lineNo":"","tgNo":"","tgName":null,"infoStatus":"1","orgName":"国网浙江杭州市富阳区供电公司","typeName":null,"infoStatusName":null,"dateDay":null,"orgNos":null,"nowTime":null,"countyName":null,"streetName":null,"villageName":null,"roadName":null,"communityName":null,"tranName":null,"sdLineName":null,"cityCode":"3340170","cityName":"国网浙江杭州市富阳区供电公司","provinceCode":null,"stopTime":"2020-05-20 19:00:00","powerType":"全部","powerOffArea":"35kV大青变:春建D202线-华家埭1号华家埭后段","powerOffReason":"(低压停电信息)青云地区2018年春建D202线网架优化工程：低压配合停电等工作 原停电结束时间为2020-05-20 17:00:00,因工作复杂原因,延迟送电,现变更停电结束时间为2020-05-20 19:00:00","powerOffId":"2020043031020412"},{"poweroffId":2020043031020411,"sgpoweroffId":null,"subsName":"","lineName":"10kV春建D202线","pubTranName":"西邮村1#村委旁公变,","scope":"浙江省-杭州市-富阳区-富春街道-西邮行政村-西邮自然村","startTime":"2020-05-20 08:30:00","stopDate":"2020-05-20 19:00:00","orgNo":"3340170","typeCode":"计划停电","poweroffArea":"35kV大青变:春建D202线-西邮村1#村委旁后段","poweroffReason":"(低压停电信息)青云地区2018年春建D202线网架优化工程：低压配合停电等工作 原停电结束时间为2020-05-20 17:00:00,因工作复杂原因,延迟送电,现变更停电结束时间为2020-05-20 19:00:00","powerTime":"2020-05-20 18:52:47","powerComm":"已送电","subsNo":"","lineNo":"","tgNo":"","tgName":null,"infoStatus":"1","orgName":"国网浙江杭州市富阳区供电公司","typeName":null,"infoStatusName":null,"dateDay":null,"orgNos":null,"nowTime":null,"countyName":null,"streetName":null,"villageName":null,"roadName":null,"communityName":null,"tranName":null,"sdLineName":null,"cityCode":"3340170","cityName":"国网浙江杭州市富阳区供电公司","provinceCode":null,"stopTime":"2020-05-20 19:00:00","powerType":"全部","powerOffArea":"35kV大青变:春建D202线-西邮村1#村委旁后段","powerOffReason":"(低压停电信息)青云地区2018年春建D202线网架优化工程：低压配合停电等工作 原停电结束时间为2020-05-20 17:00:00,因工作复杂原因,延迟送电,现变更停电结束时间为2020-05-20 19:00:00","powerOffId":"2020043031020411"},{"poweroffId":2020043031020409,"sgpoweroffId":null,"subsName":"","lineName":"10kV金秋D947线","pubTranName":"春华村18号公变,","scope":"浙江省-杭州市-富阳区-富春街道-春华行政村(春华自然村,春华路,学士路,潘村路)","startTime":"2020-05-20 08:00:00","stopDate":"2020-05-20 16:50:00","orgNo":"3340170","typeCode":"计划停电","poweroffArea":"110kV育才变:金秋D947线-春华村18号后段","poweroffReason":"(低压停电信息)青云2020年龙星村5#罗家岭公变等低压线路改造工程更换落户线28处，安装墙横担，架设沿墙1kV120*4-73米，搭接等工作","powerTime":"2020-05-20 16:37:15","powerComm":"已送电","subsNo":"","lineNo":"","tgNo":"","tgName":null,"infoStatus":"1","orgName":"国网浙江杭州市富阳区供电公司","typeName":null,"infoStatusName":null,"dateDay":null,"orgNos":null,"nowTime":null,"countyName":null,"streetName":null,"villageName":null,"roadName":null,"communityName":null,"tranName":null,"sdLineName":null,"cityCode":"3340170","cityName":"国网浙江杭州市富阳区供电公司","provinceCode":null,"stopTime":"2020-05-20 16:50:00","powerType":"全部","powerOffArea":"110kV育才变:金秋D947线-春华村18号后段","powerOffReason":"(低压停电信息)青云2020年龙星村5#罗家岭公变等低压线路改造工程更换落户线28处，安装墙横担，架设沿墙1kV120*4-73米，搭接等工作","powerOffId":"2020043031020409"},{"poweroffId":2020043031020408,"sgpoweroffId":null,"subsName":"","lineName":"10kV翁梅G060线","pubTranName":"天万4组4号公变,","scope":"浙江省-杭州市-余杭区-临平街道-天万社区-天万,南苑街道-天万社区(天万,双范西自然村)","startTime":"2020-05-11 08:30:00","stopDate":"2020-05-11 16:30:00","orgNo":"3340140","typeCode":"计划停电","poweroffArea":"外乔变：翁梅G060线天万4组4#变令克","poweroffReason":"拆除翁梅G060线天万4组4#变导线4档，天万4组4#变甲线3#杆至5#杆割接至天万4组变。","powerTime":"2020-05-11 15:58:41","powerComm":"已送电","subsNo":"","lineNo":"","tgNo":"","tgName":null,"infoStatus":"1","orgName":"国网浙江杭州市余杭区供电有限公司","typeName":null,"infoStatusName":null,"dateDay":null,"orgNos":null,"nowTime":null,"countyName":null,"streetName":null,"villageName":null,"roadName":null,"communityName":null,"tranName":null,"sdLineName":null,"cityCode":"3340140","cityName":"国网浙江杭州市余杭区供电有限公司","provinceCode":null,"stopTime":"2020-05-11 16:30:00","powerType":"全部","powerOffArea":"外乔变：翁梅G060线天万4组4#变令克","powerOffReason":"拆除翁梅G060线天万4组4#变导线4档，天万4组4#变甲线3#杆至5#杆割接至天万4组变。","powerOffId":"2020043031020408"}],"pageModel":{"pageNow":245,"totalCount":17788,"totalPage":1779,"tableRows":0,"pageCount":10,"beginCount":2440},"isExperi":"1"}