{"message":"","today":"2020-06-15","seleList":[{"poweroffId":2020060931020241,"sgpoweroffId":null,"subsName":"","lineName":"10kV九年H372线","pubTranName":"中国美术学院,杜甫村杜甫桥公变,杭州市余杭区人民政府良渚街道办事处,中国美术学院,杜甫村下史村公变,路灯变,杜甫村龙舌嘴公变,中交第二航务工程局有限公司余杭分公司,","scope":"浙江省-杭州市-余杭区-良渚街道(七贤桥行政村-东西大道,杜甫行政村-杜甫自然村,良渚文化村社区-风情大道);浙江省-杭州市-余杭区-良渚街道-七贤桥行政村-杭州市余杭区人民政府良渚街道办事处,良渚街道-杜甫行政村(中交第二航务工程局有限公司余杭分公司,杭州市余杭区人民政府良渚街道办事处,中国美术学院)","startTime":"2020-06-09 15:38:22","stopDate":"2020-06-09 17:38:22","orgNo":"3340140","typeCode":"电网故障停限电","poweroffArea":"110kV学里变:九年H372线","poweroffReason":"高压开关跳闸","powerTime":"2020-06-09 17:36:09","powerComm":"已送电","subsNo":"","lineNo":"","tgNo":"","tgName":null,"infoStatus":"1","orgName":"国网浙江杭州市余杭区供电有限公司","typeName":null,"infoStatusName":null,"dateDay":null,"orgNos":null,"nowTime":null,"countyName":null,"streetName":null,"villageName":null,"roadName":null,"communityName":null,"tranName":null,"sdLineName":null,"cityCode":"3340140","cityName":"国网浙江杭州市余杭区供电有限公司","provinceCode":null,"stopTime":"2020-06-09 17:38:22","powerType":"全部","powerOffArea":"110kV学里变:九年H372线","powerOffReason":"高压开关跳闸","powerOffId":"2020060931020241"},{"poweroffId":2020060931020235,"sgpoweroffId":null,"subsName":"","lineName":"10kV杨楼8863线","pubTranName":"博置二,留和五,屏居一变,和景(三),御溪(一)变,变压器1,师炮,振业施5,博置2#,1,振业施4,杨路,1,和景一,振业施2,御溪(五)变,振业施3,御溪(六)变,御溪(七)变,御溪(三)变,水业,农贸市场,屏居三变,振业施,留下中学1,留下中学2,牌楼三,留通,振兴置业,绸宿,老人施,求教,博置2#,","scope":"浙江省-杭州市-西湖区-留下街道-留下社区(杨梅山路,留横路),留下街道(和家园社区-杨梅山路,茶市街社区-西溪路,杨家牌楼社区-西溪路,西穆坞社区-杨梅山路);留下街道-西穆坞社区(上海高地物业管理有限公司杭州分公司,杭州市西湖区黄龙和山幼儿园,杭州市留下镇西穆坞村经济合作社),留下街道-和家园社区(杭州振兴置业投资有限公司,杭州西湖城市建设投资集团有限公司),留下街道-留下社区(杭州市公共交通集团有限公司,杭州山缘老人公寓开发管理中心,杭州市西湖区留下街道社区卫生服务中心,杭州市和家园小学,杭州振兴置业投资有限公司,浙江工业大学附属实验学校,杭州市路灯管理所,留下街道城中村改造分指挥部),留下街道(屏峰社区-杭州市水务集团有限公司九溪水厂)","startTime":"2020-06-09 15:12:00","stopDate":"2020-06-09 17:50:00","orgNo":"3340101","typeCode":"电网故障停限电","poweroffArea":"110kV留下变:杨楼8863线留杨站屏留88631线后段","poweroffReason":"高压开关跳闸 原停电结束时间为2020-06-09 17:12:00,因现场故障情况复杂,现变更停电结束时间为2020-06-09 17:50:00","powerTime":"2020-06-09 17:16:37","powerComm":"已送电","subsNo":"","lineNo":"","tgNo":"","tgName":null,"infoStatus":"1","orgName":"浙江杭州电力客户服务中心","typeName":null,"infoStatusName":null,"dateDay":null,"orgNos":null,"nowTime":null,"countyName":null,"streetName":null,"villageName":null,"roadName":null,"communityName":null,"tranName":null,"sdLineName":null,"cityCode":"3340101","cityName":"浙江杭州电力客户服务中心","provinceCode":null,"stopTime":"2020-06-09 17:50:00","powerType":"全部","powerOffArea":"110kV留下变:杨楼8863线留杨站屏留88631线后段","powerOffReason":"高压开关跳闸 原停电结束时间为2020-06-09 17:12:00,因现场故障情况复杂,现变更停电结束时间为2020-06-09 17:50:00","powerOffId":"2020060931020235"},{"poweroffId":2020060931020234,"sgpoweroffId":null,"subsName":"","lineName":"10kV留横8857线","pubTranName":"留股经,留股,1#,留居寓变,留和二,留酒专变,留里三施4,留里三施1,茶市二,万向学院,留里三施3,金鱼井二,留街(二),茶市五,尚品(二),留小施,万向学院1#,鱼井施4,留里三施2,万向学院2#,鱼井施2,鱼井施1,留和一,鱼井施3,万向学院3#,","scope":"浙江省-杭州市-西湖区-留下街道-留下社区(西溪路,茶市街,横四路,留横路,屏基山路,留下大街,杨梅山路,横一路),留下街道(茶市街社区-西溪路,金鱼井社区-西溪路);留下街道(杭州市留下小学,杭州西湖城市建设投资集团有限公司,杭州食品酿造有限公司,杭州冉德投资管理有限公司,杭州留下股份经济合作社,杭州万向职业技术学院)","startTime":"2020-06-09 15:20:00","stopDate":"2020-06-09 17:30:00","orgNo":"3340101","typeCode":"电网故障停限电","poweroffArea":"110kV留下变:留横8857线留横8857线开关后段","poweroffReason":"高压开关跳闸 原停电结束时间为2020-06-09 17:13:00,因现场故障情况复杂,现变更停电结束时间为2020-06-09 17:30:00","powerTime":"2020-06-09 16:58:23","powerComm":"已送电","subsNo":"","lineNo":"","tgNo":"","tgName":null,"infoStatus":"1","orgName":"浙江杭州电力客户服务中心","typeName":null,"infoStatusName":null,"dateDay":null,"orgNos":null,"nowTime":null,"countyName":null,"streetName":null,"villageName":null,"roadName":null,"communityName":null,"tranName":null,"sdLineName":null,"cityCode":"3340101","cityName":"浙江杭州电力客户服务中心","provinceCode":null,"stopTime":"2020-06-09 17:30:00","powerType":"全部","powerOffArea":"110kV留下变:留横8857线留横8857线开关后段","powerOffReason":"高压开关跳闸 原停电结束时间为2020-06-09 17:13:00,因现场故障情况复杂,现变更停电结束时间为2020-06-09 17:30:00","powerOffId":"2020060931020234"},{"poweroffId":2020060931020233,"sgpoweroffId":null,"subsName":"","lineName":"10kV杨楼8863线","pubTranName":"留和四,留和三,","scope":"浙江省-杭州市-西湖区-留下街道-留下社区（留和家苑小区）-留横路","startTime":"2020-06-09 15:15:00","stopDate":"2020-06-09 18:00:00","orgNo":"3340101","typeCode":"电网故障停限电","poweroffArea":"110kV留下变:杨楼8863线留和三留和四开关间隔断路器配变","poweroffReason":"高压开关跳闸 原停电结束时间为2020-06-09 17:15:00,因现场故障情况复杂,现变更停电结束时间为2020-06-09 18:00:00","powerTime":"2020-06-09 17:26:46","powerComm":"已送电","subsNo":"","lineNo":"","tgNo":"","tgName":null,"infoStatus":"1","orgName":"浙江杭州电力客户服务中心","typeName":null,"infoStatusName":null,"dateDay":null,"orgNos":null,"nowTime":null,"countyName":null,"streetName":null,"villageName":null,"roadName":null,"communityName":null,"tranName":null,"sdLineName":null,"cityCode":"3340101","cityName":"浙江杭州电力客户服务中心","provinceCode":null,"stopTime":"2020-06-09 18:00:00","powerType":"全部","powerOffArea":"110kV留下变:杨楼8863线留和三留和四开关间隔断路器配变","powerOffReason":"高压开关跳闸 原停电结束时间为2020-06-09 17:15:00,因现场故障情况复杂,现变更停电结束时间为2020-06-09 18:00:00","powerOffId":"2020060931020233"},{"poweroffId":2020060931020224,"sgpoweroffId":null,"subsName":"","lineName":"10kV庙湾H289线","pubTranName":"苕溪村大船埠头公变,","scope":"浙江省-杭州市-余杭区-仓前街道-吴山前行政村-吴山前自然村,仓前街道-苕溪行政村(竹桥头自然村,网具自然村,苕溪自然村,大船埠头自然村)","startTime":"2020-06-09 15:03:28","stopDate":"2020-06-09 16:00:28","orgNo":"3340140","typeCode":"电网故障停限电","poweroffArea":"110kV柏庙变:庙湾H289线-大船埠头后段","poweroffReason":"高压开关跳闸","powerTime":"2020-06-09 15:19:54","powerComm":"已送电","subsNo":"","lineNo":"","tgNo":"","tgName":null,"infoStatus":"1","orgName":"国网浙江杭州市余杭区供电有限公司","typeName":null,"infoStatusName":null,"dateDay":null,"orgNos":null,"nowTime":null,"countyName":null,"streetName":null,"villageName":null,"roadName":null,"communityName":null,"tranName":null,"sdLineName":null,"cityCode":"3340140","cityName":"国网浙江杭州市余杭区供电有限公司","provinceCode":null,"stopTime":"2020-06-09 16:00:28","powerType":"全部","powerOffArea":"110kV柏庙变:庙湾H289线-大船埠头后段","powerOffReason":"高压开关跳闸","powerOffId":"2020060931020224"},{"poweroffId":2020060931020210,"sgpoweroffId":null,"subsName":"","lineName":"10kV哨虎G839线","pubTranName":"崇贤村哨虎港东二变,","scope":"浙江省-杭州市-余杭区-崇贤街道-崇贤行政村-哨虎港自然村","startTime":"2020-06-09 14:54:44","stopDate":"2020-06-09 17:20:44","orgNo":"3340140","typeCode":"电网故障停限电","poweroffArea":"110kV北庄变:哨虎G839线-哨虎港东二分线开关后段","poweroffReason":"高压开关跳闸","powerTime":"2020-06-09 17:11:40","powerComm":"已送电","subsNo":"","lineNo":"","tgNo":"","tgName":null,"infoStatus":"1","orgName":"国网浙江杭州市余杭区供电有限公司","typeName":null,"infoStatusName":null,"dateDay":null,"orgNos":null,"nowTime":null,"countyName":null,"streetName":null,"villageName":null,"roadName":null,"communityName":null,"tranName":null,"sdLineName":null,"cityCode":"3340140","cityName":"国网浙江杭州市余杭区供电有限公司","provinceCode":null,"stopTime":"2020-06-09 17:20:44","powerType":"全部","powerOffArea":"110kV北庄变:哨虎G839线-哨虎港东二分线开关后段","powerOffReason":"高压开关跳闸","powerOffId":"2020060931020210"},{"poweroffId":2020060931020180,"sgpoweroffId":null,"subsName":"","lineName":"10kV鸿华C919线","pubTranName":"盛乐村13#变,","scope":"浙江省-杭州市-萧山区-新街镇-新街街道(盛乐行政村-盛乐自然村,新盛行政村-新盛自然村)等","startTime":"2020-06-09 13:40:38","stopDate":"2020-06-09 16:40:38","orgNo":"3340130","typeCode":"电网故障停限电","poweroffArea":"110kV鸿达变:鸿华C919线-盛乐村13#变台区低压开关","poweroffReason":"(低压停电信息)低压漏电保护器跳闸","powerTime":"2020-06-09 15:53:10","powerComm":"已送电","subsNo":"","lineNo":"","tgNo":"","tgName":null,"infoStatus":"1","orgName":"国网浙江杭州市萧山区供电有限公司","typeName":null,"infoStatusName":null,"dateDay":null,"orgNos":null,"nowTime":null,"countyName":null,"streetName":null,"villageName":null,"roadName":null,"communityName":null,"tranName":null,"sdLineName":null,"cityCode":"3340130","cityName":"国网浙江杭州市萧山区供电有限公司","provinceCode":null,"stopTime":"2020-06-09 16:40:38","powerType":"全部","powerOffArea":"110kV鸿达变:鸿华C919线-盛乐村13#变台区低压开关","powerOffReason":"(低压停电信息)低压漏电保护器跳闸","powerOffId":"2020060931020180"},{"poweroffId":2020060931020175,"sgpoweroffId":null,"subsName":"","lineName":"10kV通济C633线","pubTranName":"华家村5#变,","scope":"浙江省-杭州市-萧山区-临浦镇-华家行政村(小华家自然村,华家自然村)等","startTime":"2020-06-09 13:07:24","stopDate":"2020-06-09 14:30:24","orgNo":"3340130","typeCode":"电网故障停限电","poweroffArea":"110kV临浦变:通济C633线-华家村5#变台区低压开关","poweroffReason":"（低压停电信息）低压熔断器短路","powerTime":"2020-06-09 13:32:12","powerComm":"已送电","subsNo":"","lineNo":"","tgNo":"","tgName":null,"infoStatus":"1","orgName":"国网浙江杭州市萧山区供电有限公司","typeName":null,"infoStatusName":null,"dateDay":null,"orgNos":null,"nowTime":null,"countyName":null,"streetName":null,"villageName":null,"roadName":null,"communityName":null,"tranName":null,"sdLineName":null,"cityCode":"3340130","cityName":"国网浙江杭州市萧山区供电有限公司","provinceCode":null,"stopTime":"2020-06-09 14:30:24","powerType":"全部","powerOffArea":"110kV临浦变:通济C633线-华家村5#变台区低压开关","powerOffReason":"（低压停电信息）低压熔断器短路","powerOffId":"2020060931020175"},{"poweroffId":2020060931020170,"sgpoweroffId":null,"subsName":"","lineName":"10kV双庙V253线","pubTranName":"10kV太阳村[高拔梨坞口]公变,","scope":"浙江省-杭州市-临安市-太阳镇-太阳行政村(高拔自然村,犁坞口自然村,下太阳自然村)","startTime":"2020-06-09 12:44:00","stopDate":"2020-06-09 13:35:00","orgNo":"3340160","typeCode":"电网故障停限电","poweroffArea":"35kV太阳变:双庙V253线10kV太阳村[高拔梨坞口]公变配变","poweroffReason":"高压开关跳闸 原停电结束时间为2020-06-09 14:44:00,为减少客户停电时间,加快工作进度,提前送电,现变更停电结束时间为2020-06-09 13:35:00","powerTime":"2020-06-09 13:02:00","powerComm":"已送电","subsNo":"","lineNo":"","tgNo":"","tgName":null,"infoStatus":"1","orgName":"国网浙江临安市供电公司","typeName":null,"infoStatusName":null,"dateDay":null,"orgNos":null,"nowTime":null,"countyName":null,"streetName":null,"villageName":null,"roadName":null,"communityName":null,"tranName":null,"sdLineName":null,"cityCode":"3340160","cityName":"国网浙江临安市供电公司","provinceCode":null,"stopTime":"2020-06-09 13:35:00","powerType":"全部","powerOffArea":"35kV太阳变:双庙V253线10kV太阳村[高拔梨坞口]公变配变","powerOffReason":"高压开关跳闸 原停电结束时间为2020-06-09 14:44:00,为减少客户停电时间,加快工作进度,提前送电,现变更停电结束时间为2020-06-09 13:35:00","powerOffId":"2020060931020170"},{"poweroffId":2020060931020113,"sgpoweroffId":null,"subsName":"","lineName":"10kV仙宅H777线","pubTranName":"仙宅村林坞中村公变,","scope":"浙江省-杭州市-余杭区-余杭街道-仙宅行政村-新岭自然村","startTime":"2020-06-09 10:21:00","stopDate":"2020-06-09 11:21:00","orgNo":"3340140","typeCode":"电网故障停限电","poweroffArea":"35kV长岗临时变:仙宅H777线仙宅村林坞中村公变配变","poweroffReason":"高压开关跳闸 原停电结束时间为2020-06-09 12:21:00,为减少客户停电时间,加快工作进度,提前送电,现变更停电结束时间为2020-06-09 11:21:00","powerTime":"2020-06-09 10:37:16","powerComm":"已送电","subsNo":"","lineNo":"","tgNo":"","tgName":null,"infoStatus":"1","orgName":"国网浙江杭州市余杭区供电有限公司","typeName":null,"infoStatusName":null,"dateDay":null,"orgNos":null,"nowTime":null,"countyName":null,"streetName":null,"villageName":null,"roadName":null,"communityName":null,"tranName":null,"sdLineName":null,"cityCode":"3340140","cityName":"国网浙江杭州市余杭区供电有限公司","provinceCode":null,"stopTime":"2020-06-09 11:21:00","powerType":"全部","powerOffArea":"35kV长岗临时变:仙宅H777线仙宅村林坞中村公变配变","powerOffReason":"高压开关跳闸 原停电结束时间为2020-06-09 12:21:00,为减少客户停电时间,加快工作进度,提前送电,现变更停电结束时间为2020-06-09 11:21:00","powerOffId":"2020060931020113"}],"pageModel":{"pageNow":23,"totalCount":17786,"totalPage":1779,"tableRows":0,"pageCount":10,"beginCount":220},"isExperi":"1"}