{"message":"","today":"2020-06-15","seleList":[{"poweroffId":2020043031020375,"sgpoweroffId":null,"subsName":"","lineName":"10kV新建D262线","pubTranName":"秦骆村3#大月门公变,","scope":"浙江省-杭州市-富阳区-大源镇-骆村行政村-秦骆自然村一带","startTime":"2020-05-12 08:10:00","stopDate":"2020-05-12 09:30:00","orgNo":"3340170","typeCode":"计划停电","poweroffArea":"35kV盛村变:新建D262线-秦骆村3#大月门公变低压开关后段","poweroffReason":"(低压停电信息)（配合停电）2#照明线2#7杆拆除分支集束线1档等工作（江南2020年蒋家村14#东坑水库公变等台区低压线路改造工程）","powerTime":"2020-05-12 09:15:06","powerComm":"已送电","subsNo":"","lineNo":"","tgNo":"","tgName":null,"infoStatus":"1","orgName":"国网浙江杭州市富阳区供电公司","typeName":null,"infoStatusName":null,"dateDay":null,"orgNos":null,"nowTime":null,"countyName":null,"streetName":null,"villageName":null,"roadName":null,"communityName":null,"tranName":null,"sdLineName":null,"cityCode":"3340170","cityName":"国网浙江杭州市富阳区供电公司","provinceCode":null,"stopTime":"2020-05-12 09:30:00","powerType":"全部","powerOffArea":"35kV盛村变:新建D262线-秦骆村3#大月门公变低压开关后段","powerOffReason":"(低压停电信息)（配合停电）2#照明线2#7杆拆除分支集束线1档等工作（江南2020年蒋家村14#东坑水库公变等台区低压线路改造工程）","powerOffId":"2020043031020375"},{"poweroffId":2020043031020374,"sgpoweroffId":null,"subsName":"","lineName":"10kV潘塘D521线","pubTranName":"永庆新区3#公变,","scope":"浙江省-杭州市-富阳区-大源镇-亭山行政村-东升自然村一带","startTime":"2020-05-11 08:00:00","stopDate":"2020-05-11 17:00:00","orgNo":"3340170","typeCode":"计划停电","poweroffArea":"110kV大源变:潘塘D521线-永庆新区3#公变低压开关后段","poweroffReason":"(低压停电信息)江南2020年业扩配套工程：安装保险丝开关1组 ，真空开关1组等工作。","powerTime":"2020-05-11 16:31:14","powerComm":"已送电","subsNo":"","lineNo":"","tgNo":"","tgName":null,"infoStatus":"1","orgName":"国网浙江杭州市富阳区供电公司","typeName":null,"infoStatusName":null,"dateDay":null,"orgNos":null,"nowTime":null,"countyName":null,"streetName":null,"villageName":null,"roadName":null,"communityName":null,"tranName":null,"sdLineName":null,"cityCode":"3340170","cityName":"国网浙江杭州市富阳区供电公司","provinceCode":null,"stopTime":"2020-05-11 17:00:00","powerType":"全部","powerOffArea":"110kV大源变:潘塘D521线-永庆新区3#公变低压开关后段","powerOffReason":"(低压停电信息)江南2020年业扩配套工程：安装保险丝开关1组 ，真空开关1组等工作。","powerOffId":"2020043031020374"},{"poweroffId":2020043031020373,"sgpoweroffId":null,"subsName":"","lineName":"10kV砚口D611线","pubTranName":"青山村4号班丰公变,","scope":"浙江省-杭州市-富阳区-大源镇-青山行政村-青山自然村一带","startTime":"2020-05-11 08:00:00","stopDate":"2020-05-11 17:00:00","orgNo":"3340170","typeCode":"计划停电","poweroffArea":"35kV溪东变:砚口D611线-青山村4号班丰公变低压开关后段","poweroffReason":"(低压停电信息)大同村四好公路线路改造工程：新放JKLYJ-1-120导线6档，拆除旧导线12档，拆除旧杆10支，杆上附件安装，线路拆、搭头等工作。","powerTime":"2020-05-11 16:30:38","powerComm":"已送电","subsNo":"","lineNo":"","tgNo":"","tgName":null,"infoStatus":"1","orgName":"国网浙江杭州市富阳区供电公司","typeName":null,"infoStatusName":null,"dateDay":null,"orgNos":null,"nowTime":null,"countyName":null,"streetName":null,"villageName":null,"roadName":null,"communityName":null,"tranName":null,"sdLineName":null,"cityCode":"3340170","cityName":"国网浙江杭州市富阳区供电公司","provinceCode":null,"stopTime":"2020-05-11 17:00:00","powerType":"全部","powerOffArea":"35kV溪东变:砚口D611线-青山村4号班丰公变低压开关后段","powerOffReason":"(低压停电信息)大同村四好公路线路改造工程：新放JKLYJ-1-120导线6档，拆除旧导线12档，拆除旧杆10支，杆上附件安装，线路拆、搭头等工作。","powerOffId":"2020043031020373"},{"poweroffId":2020043031020369,"sgpoweroffId":null,"subsName":"","lineName":"10kV新创502线","pubTranName":"翎翔纺织02,文伟村2#变,文伟村1#变,钱潮公路工程,爱丽达服饰,翎翔纺织01,文伟村4#变,新围麻站,文伟村9#变,翎翔纺织3,朗鑫实业,汇杰有机硅2#,汇杰有机硅,闸北村3#变,","scope":"浙江省-杭州市-萧山区-河庄街道(文伟行政村-文伟自然村,闸北行政村-闸北自然村);河庄街道(浙江汇杰有机硅股份有限公司,杭州朗鑫实业有限公司,杭州太明金属制品有限公司,杭州泛美工贸有限公司,杭州博江科技有限公司,杭州翎翔纺织有限公司)、河庄街道文伟村、闸北村、浙江省杭州市萧山区河庄街道闸北行政村永丰路闸北村27组8","startTime":"2020-04-30 12:19:00","stopDate":"2020-04-30 14:30:00","orgNo":"3340120","typeCode":"电网故障停限电","poweroffArea":"35kV永丰变:新创502线文伟（9）分线01付开关后段","poweroffReason":"高压开关跳闸 原停电结束时间为2020-04-30 15:19:00,为减少客户停电时间,加快工作进度,提前送电,现变更停电结束时间为2020-04-30 14:30:00","powerTime":"2020-04-30 13:52:14","powerComm":"已送电","subsNo":"","lineNo":"","tgNo":"","tgName":null,"infoStatus":"1","orgName":"国网浙江杭州市钱塘新区供电公司","typeName":null,"infoStatusName":null,"dateDay":null,"orgNos":null,"nowTime":null,"countyName":null,"streetName":null,"villageName":null,"roadName":null,"communityName":null,"tranName":null,"sdLineName":null,"cityCode":"3340120","cityName":"国网浙江杭州市钱塘新区供电公司","provinceCode":null,"stopTime":"2020-04-30 14:30:00","powerType":"全部","powerOffArea":"35kV永丰变:新创502线文伟（9）分线01付开关后段","powerOffReason":"高压开关跳闸 原停电结束时间为2020-04-30 15:19:00,为减少客户停电时间,加快工作进度,提前送电,现变更停电结束时间为2020-04-30 14:30:00","powerOffId":"2020043031020369"},{"poweroffId":2020043031020367,"sgpoweroffId":null,"subsName":"","lineName":"10kV砚口D611线","pubTranName":"觃口村4#百亩畈公变,","scope":"浙江省-杭州市-富阳区-大源镇-觃口行政村-觃口自然村一带","startTime":"2020-05-11 08:00:00","stopDate":"2020-05-11 12:00:00","orgNo":"3340170","typeCode":"计划停电","poweroffArea":"35kV溪东变:砚口D611线-觃口村4#百亩畈公变低压开关后段","poweroffReason":"(低压停电信息)（配合停电）1#照明线1#3-A-2杆处开线做耐张，接户线搭接等工作。（江南2020年蒋家村14#东坑水库公变等台区低压线路改造工程）","powerTime":"2020-05-11 11:42:02","powerComm":"已送电","subsNo":"","lineNo":"","tgNo":"","tgName":null,"infoStatus":"1","orgName":"国网浙江杭州市富阳区供电公司","typeName":null,"infoStatusName":null,"dateDay":null,"orgNos":null,"nowTime":null,"countyName":null,"streetName":null,"villageName":null,"roadName":null,"communityName":null,"tranName":null,"sdLineName":null,"cityCode":"3340170","cityName":"国网浙江杭州市富阳区供电公司","provinceCode":null,"stopTime":"2020-05-11 12:00:00","powerType":"全部","powerOffArea":"35kV溪东变:砚口D611线-觃口村4#百亩畈公变低压开关后段","powerOffReason":"(低压停电信息)（配合停电）1#照明线1#3-A-2杆处开线做耐张，接户线搭接等工作。（江南2020年蒋家村14#东坑水库公变等台区低压线路改造工程）","powerOffId":"2020043031020367"},{"poweroffId":2020043031020341,"sgpoweroffId":null,"subsName":"","lineName":"10kV松溪D132线","pubTranName":"乘庄村3#喻家公变,","scope":"浙江省-杭州市-富阳区-新登镇-乘庄行政村、喻家自然村一带","startTime":"2020-05-18 07:50:00","stopDate":"2020-05-18 17:00:00","orgNo":"3340170","typeCode":"计划停电","poweroffArea":"110kV新登变:松溪D132线-乘庄村3#喻家公变低压开关后段","poweroffReason":"(低压停电信息)更换落户线BS-JKLYJ-2*25*40户、BS-JKLYJ-4*35*10户、导线搭接","powerTime":"2020-05-18 16:50:24","powerComm":"已送电","subsNo":"","lineNo":"","tgNo":"","tgName":null,"infoStatus":"1","orgName":"国网浙江杭州市富阳区供电公司","typeName":null,"infoStatusName":null,"dateDay":null,"orgNos":null,"nowTime":null,"countyName":null,"streetName":null,"villageName":null,"roadName":null,"communityName":null,"tranName":null,"sdLineName":null,"cityCode":"3340170","cityName":"国网浙江杭州市富阳区供电公司","provinceCode":null,"stopTime":"2020-05-18 17:00:00","powerType":"全部","powerOffArea":"110kV新登变:松溪D132线-乘庄村3#喻家公变低压开关后段","powerOffReason":"(低压停电信息)更换落户线BS-JKLYJ-2*25*40户、BS-JKLYJ-4*35*10户、导线搭接","powerOffId":"2020043031020341"},{"poweroffId":2020043031020340,"sgpoweroffId":null,"subsName":"","lineName":"10kV慈河Y364线","pubTranName":"大慈岩村排塘台区,大慈岩村排塘岗台区,建德市宏辰塑胶材料有限公司1#变,","scope":"浙江省-杭州市-建德市-大慈岩镇 大慈岩行政村 排塘岗自然村、排塘自然村区域用户。","startTime":"2020-05-17 06:30:00","stopDate":"2020-05-17 13:30:00","orgNo":"3340180","typeCode":"计划停电","poweroffArea":"110kV慈岩变:慈河Y364线-排塘岗支线0#杆令克后段;慈河Y364线-排塘支线0#杆令克后段;慈河Y364线-破碎厂支线0#杆令克后段","poweroffReason":"寿昌镇乌石加油站杆线迁改工程：新10千伏慈河Y364线38#-原10千伏慈河Y364线41#杆导线架设","powerTime":"2020-05-17 13:03:00","powerComm":"已送电","subsNo":"","lineNo":"","tgNo":"","tgName":null,"infoStatus":"1","orgName":"国网浙江建德市供电有限公司","typeName":null,"infoStatusName":null,"dateDay":null,"orgNos":null,"nowTime":null,"countyName":null,"streetName":null,"villageName":null,"roadName":null,"communityName":null,"tranName":null,"sdLineName":null,"cityCode":"3340180","cityName":"国网浙江建德市供电有限公司","provinceCode":null,"stopTime":"2020-05-17 13:30:00","powerType":"全部","powerOffArea":"110kV慈岩变:慈河Y364线-排塘岗支线0#杆令克后段;慈河Y364线-排塘支线0#杆令克后段;慈河Y364线-破碎厂支线0#杆令克后段","powerOffReason":"寿昌镇乌石加油站杆线迁改工程：新10千伏慈河Y364线38#-原10千伏慈河Y364线41#杆导线架设","powerOffId":"2020043031020340"},{"poweroffId":2020043031020339,"sgpoweroffId":null,"subsName":"","lineName":"10kV慈河Y364线","pubTranName":"乌石村下方台区,乌石村乌石源台区,杭州新安江内燃机配件有限公司,南浦村孝顺岭台区,建德市明达塑业有限公司,乌石村乌石台区,","scope":"浙江省-杭州市-建德市-寿昌镇 乌石行政村乌石自然村、乌石源自然村、下方自然村；南浦行政村孝顺岭自然村区域用户。","startTime":"2020-05-17 06:30:00","stopDate":"2020-05-17 09:00:00","orgNo":"3340180","typeCode":"计划停电","poweroffArea":"110kV慈岩变:慈河Y364线-孝顺岭支线0#杆令克后段;慈河Y364线-配件厂支线0#杆令克后段;慈河Y364线-乌石源支线0#杆令克后段;慈河Y364线-建德市敏达塑业有限公司令克后段","poweroffReason":"寿昌镇乌石加油站杆线迁改工程：10千伏慈河Y364线43#开关引线制作并搭接 原停电结束时间为2020-05-17 08:00:00,因下雨天气原因,延迟送电,现变更停电结束时间为2020-05-17 09:00:00","powerTime":"2020-05-17 08:07:00","powerComm":"已送电","subsNo":"","lineNo":"","tgNo":"","tgName":null,"infoStatus":"1","orgName":"国网浙江建德市供电有限公司","typeName":null,"infoStatusName":null,"dateDay":null,"orgNos":null,"nowTime":null,"countyName":null,"streetName":null,"villageName":null,"roadName":null,"communityName":null,"tranName":null,"sdLineName":null,"cityCode":"3340180","cityName":"国网浙江建德市供电有限公司","provinceCode":null,"stopTime":"2020-05-17 09:00:00","powerType":"全部","powerOffArea":"110kV慈岩变:慈河Y364线-孝顺岭支线0#杆令克后段;慈河Y364线-配件厂支线0#杆令克后段;慈河Y364线-乌石源支线0#杆令克后段;慈河Y364线-建德市敏达塑业有限公司令克后段","powerOffReason":"寿昌镇乌石加油站杆线迁改工程：10千伏慈河Y364线43#开关引线制作并搭接 原停电结束时间为2020-05-17 08:00:00,因下雨天气原因,延迟送电,现变更停电结束时间为2020-05-17 09:00:00","powerOffId":"2020043031020339"},{"poweroffId":2020043031020338,"sgpoweroffId":null,"subsName":"","lineName":"10kV金秋D947线","pubTranName":"春华村10#公变,","scope":"浙江省-杭州市-富阳区-富春街道-春华行政村(潘村路,学士路,春华自然村)","startTime":"2020-05-17 15:00:00","stopDate":"2020-05-17 16:50:00","orgNo":"3340170","typeCode":"计划停电","poweroffArea":"110kV育才变:金秋D947线-春华村后段","poweroffReason":"(低压停电信息)青云2020年龙星村5#罗家岭公变等低压线路改造工程照明1#线更换落户线1处，安装挑横担1处，搭接等工作","powerTime":"2020-05-17 16:30:45","powerComm":"已送电","subsNo":"","lineNo":"","tgNo":"","tgName":null,"infoStatus":"1","orgName":"国网浙江杭州市富阳区供电公司","typeName":null,"infoStatusName":null,"dateDay":null,"orgNos":null,"nowTime":null,"countyName":null,"streetName":null,"villageName":null,"roadName":null,"communityName":null,"tranName":null,"sdLineName":null,"cityCode":"3340170","cityName":"国网浙江杭州市富阳区供电公司","provinceCode":null,"stopTime":"2020-05-17 16:50:00","powerType":"全部","powerOffArea":"110kV育才变:金秋D947线-春华村后段","powerOffReason":"(低压停电信息)青云2020年龙星村5#罗家岭公变等低压线路改造工程照明1#线更换落户线1处，安装挑横担1处，搭接等工作","powerOffId":"2020043031020338"},{"poweroffId":2020043031020337,"sgpoweroffId":null,"subsName":"","lineName":"10kV三联D943线","pubTranName":"富春所5#电管站公变,","scope":"浙江省-杭州市-富阳区-富春街道-三桥行政村(龙星自然村,杨家埭自然村)","startTime":"2020-05-17 08:00:00","stopDate":"2020-05-17 14:00:00","orgNo":"3340170","typeCode":"计划停电","poweroffArea":"110kV育才变:三联D943线-富春所5#电管站后段","poweroffReason":"(低压停电信息)青云2020年龙星村5#罗家岭公变等低压线路改造工程照明1#线更换落户线3处，照明2#线更换出线电缆YJV4*95-12米、更换表箱2处，搭接等工作","powerTime":"2020-05-17 13:30:37","powerComm":"已送电","subsNo":"","lineNo":"","tgNo":"","tgName":null,"infoStatus":"1","orgName":"国网浙江杭州市富阳区供电公司","typeName":null,"infoStatusName":null,"dateDay":null,"orgNos":null,"nowTime":null,"countyName":null,"streetName":null,"villageName":null,"roadName":null,"communityName":null,"tranName":null,"sdLineName":null,"cityCode":"3340170","cityName":"国网浙江杭州市富阳区供电公司","provinceCode":null,"stopTime":"2020-05-17 14:00:00","powerType":"全部","powerOffArea":"110kV育才变:三联D943线-富春所5#电管站后段","powerOffReason":"(低压停电信息)青云2020年龙星村5#罗家岭公变等低压线路改造工程照明1#线更换落户线3处，照明2#线更换出线电缆YJV4*95-12米、更换表箱2处，搭接等工作","powerOffId":"2020043031020337"}],"pageModel":{"pageNow":248,"totalCount":17788,"totalPage":1779,"tableRows":0,"pageCount":10,"beginCount":2470},"isExperi":"1"}