{"message":"","today":"2020-06-15","seleList":[{"poweroffId":2020043031020320,"sgpoweroffId":null,"subsName":"","lineName":"10kV通济C633线","pubTranName":"华家村3#变,","scope":"浙江省-杭州市-萧山区-临浦镇-华家行政村-华家自然村","startTime":"2020-05-09 09:30:00","stopDate":"2020-05-09 15:20:00","orgNo":"3340130","typeCode":"计划停电","poweroffArea":"110kV临浦变:通济C633线-华家村3#变后段","poweroffReason":"华家村3#变下160kVA1台上400kA1台 原停电结束时间为2020-05-09 16:30:00,为减少客户停电时间,加快工作进度,提前送电,现变更停电结束时间为2020-05-09 15:20:00","powerTime":"2020-05-09 14:28:11","powerComm":"已送电","subsNo":"","lineNo":"","tgNo":"","tgName":null,"infoStatus":"1","orgName":"国网浙江杭州市萧山区供电有限公司","typeName":null,"infoStatusName":null,"dateDay":null,"orgNos":null,"nowTime":null,"countyName":null,"streetName":null,"villageName":null,"roadName":null,"communityName":null,"tranName":null,"sdLineName":null,"cityCode":"3340130","cityName":"国网浙江杭州市萧山区供电有限公司","provinceCode":null,"stopTime":"2020-05-09 15:20:00","powerType":"全部","powerOffArea":"110kV临浦变:通济C633线-华家村3#变后段","powerOffReason":"华家村3#变下160kVA1台上400kA1台 原停电结束时间为2020-05-09 16:30:00,为减少客户停电时间,加快工作进度,提前送电,现变更停电结束时间为2020-05-09 15:20:00","powerOffId":"2020043031020320"},{"poweroffId":2020043031020319,"sgpoweroffId":null,"subsName":"","lineName":"10kV所前C636线","pubTranName":"通二村3#变,","scope":"浙江省-杭州市-萧山区-临浦镇-通二行政村(通二自然村,瓦窑金自然村)","startTime":"2020-05-09 09:00:00","stopDate":"2020-05-09 16:30:00","orgNo":"3340130","typeCode":"计划停电","poweroffArea":"110kV临浦变:所前C636线-通二村3#变后段","poweroffReason":"通二村3#变下250kVA1台上400kA1台 原停电结束时间为2020-05-09 17:00:00,为减少客户停电时间,加快工作进度,提前送电,现变更停电结束时间为2020-05-09 16:30:00","powerTime":"2020-05-09 15:40:13","powerComm":"已送电","subsNo":"","lineNo":"","tgNo":"","tgName":null,"infoStatus":"1","orgName":"国网浙江杭州市萧山区供电有限公司","typeName":null,"infoStatusName":null,"dateDay":null,"orgNos":null,"nowTime":null,"countyName":null,"streetName":null,"villageName":null,"roadName":null,"communityName":null,"tranName":null,"sdLineName":null,"cityCode":"3340130","cityName":"国网浙江杭州市萧山区供电有限公司","provinceCode":null,"stopTime":"2020-05-09 16:30:00","powerType":"全部","powerOffArea":"110kV临浦变:所前C636线-通二村3#变后段","powerOffReason":"通二村3#变下250kVA1台上400kA1台 原停电结束时间为2020-05-09 17:00:00,为减少客户停电时间,加快工作进度,提前送电,现变更停电结束时间为2020-05-09 16:30:00","powerOffId":"2020043031020319"},{"poweroffId":2020043031020318,"sgpoweroffId":null,"subsName":"","lineName":"10kV临戴C650线","pubTranName":"通一村1#变,","scope":"浙江省-杭州市-萧山区-临浦镇-通一行政村-上戴自然村","startTime":"2020-05-09 08:30:00","stopDate":"2020-05-09 15:30:00","orgNo":"3340130","typeCode":"计划停电","poweroffArea":"110kV临浦变:临戴C650线-通一村1#变后段","poweroffReason":"通一村1#变250kVA增量至400kVA","powerTime":"2020-05-09 15:23:08","powerComm":"已送电","subsNo":"","lineNo":"","tgNo":"","tgName":null,"infoStatus":"1","orgName":"国网浙江杭州市萧山区供电有限公司","typeName":null,"infoStatusName":null,"dateDay":null,"orgNos":null,"nowTime":null,"countyName":null,"streetName":null,"villageName":null,"roadName":null,"communityName":null,"tranName":null,"sdLineName":null,"cityCode":"3340130","cityName":"国网浙江杭州市萧山区供电有限公司","provinceCode":null,"stopTime":"2020-05-09 15:30:00","powerType":"全部","powerOffArea":"110kV临浦变:临戴C650线-通一村1#变后段","powerOffReason":"通一村1#变250kVA增量至400kVA","powerOffId":"2020043031020318"},{"poweroffId":2020043031020317,"sgpoweroffId":null,"subsName":"","lineName":"10kV金秋D947线","pubTranName":"春华村17#公变,","scope":"浙江省-杭州市-富阳区-富春街道-春华行政村(春华自然村,潘村路,宝山路)","startTime":"2020-05-15 08:00:00","stopDate":"2020-05-15 16:50:00","orgNo":"3340170","typeCode":"计划停电","poweroffArea":"110kV育才变:金秋D947线-春华村17后段","poweroffReason":"(低压停电信息)青云2020年龙星村5#罗家岭公变等低压线路改造工程照明1#线更换落户线7处，照明2#线更换落户线13处，搭接等工作","powerTime":"2020-05-15 16:29:23","powerComm":"已送电","subsNo":"","lineNo":"","tgNo":"","tgName":null,"infoStatus":"1","orgName":"国网浙江杭州市富阳区供电公司","typeName":null,"infoStatusName":null,"dateDay":null,"orgNos":null,"nowTime":null,"countyName":null,"streetName":null,"villageName":null,"roadName":null,"communityName":null,"tranName":null,"sdLineName":null,"cityCode":"3340170","cityName":"国网浙江杭州市富阳区供电公司","provinceCode":null,"stopTime":"2020-05-15 16:50:00","powerType":"全部","powerOffArea":"110kV育才变:金秋D947线-春华村17后段","powerOffReason":"(低压停电信息)青云2020年龙星村5#罗家岭公变等低压线路改造工程照明1#线更换落户线7处，照明2#线更换落户线13处，搭接等工作","powerOffId":"2020043031020317"},{"poweroffId":2020043031020316,"sgpoweroffId":null,"subsName":"","lineName":"10kV新渌D834线","pubTranName":"董湾村2#上联队公变,","scope":"浙江省-杭州市-富阳区-渌渚镇-董湾行政村上联队自然村一带","startTime":"2020-05-15 08:30:00","stopDate":"2020-05-15 16:30:00","orgNo":"3340170","typeCode":"计划停电","poweroffArea":"110kV新桐变:新渌D834线-董湾村2#上联队公变低压开关后段","poweroffReason":"(低压停电信息)新登2020年10kV董湾D147线、10kV新阳D841线等线路联络工程：10kV新阳D841线、桐浦D844线双回路及10kV新渌D834线、新浦D845线双回路架线等工作","powerTime":"2020-05-15 16:15:41","powerComm":"已送电","subsNo":"","lineNo":"","tgNo":"","tgName":null,"infoStatus":"1","orgName":"国网浙江杭州市富阳区供电公司","typeName":null,"infoStatusName":null,"dateDay":null,"orgNos":null,"nowTime":null,"countyName":null,"streetName":null,"villageName":null,"roadName":null,"communityName":null,"tranName":null,"sdLineName":null,"cityCode":"3340170","cityName":"国网浙江杭州市富阳区供电公司","provinceCode":null,"stopTime":"2020-05-15 16:30:00","powerType":"全部","powerOffArea":"110kV新桐变:新渌D834线-董湾村2#上联队公变低压开关后段","powerOffReason":"(低压停电信息)新登2020年10kV董湾D147线、10kV新阳D841线等线路联络工程：10kV新阳D841线、桐浦D844线双回路及10kV新渌D834线、新浦D845线双回路架线等工作","powerOffId":"2020043031020316"},{"poweroffId":2020043031020314,"sgpoweroffId":null,"subsName":"","lineName":"10kV新华D320线","pubTranName":"东洲新沙村2#村西公变,","scope":"浙江省-杭州市-富阳区-东洲街道-新沙行政村-新沙自然村","startTime":"2020-05-15 09:00:00","stopDate":"2020-05-15 16:30:00","orgNo":"3340170","typeCode":"计划停电","poweroffArea":"110kV建设变:新华D320线-东洲新沙村2#村西公变台区低压开关后段","poweroffReason":"(低压停电信息)迎东2020年华士村1#村中公变等布点工程：低压线路改接等工作","powerTime":"2020-05-15 16:15:08","powerComm":"已送电","subsNo":"","lineNo":"","tgNo":"","tgName":null,"infoStatus":"1","orgName":"国网浙江杭州市富阳区供电公司","typeName":null,"infoStatusName":null,"dateDay":null,"orgNos":null,"nowTime":null,"countyName":null,"streetName":null,"villageName":null,"roadName":null,"communityName":null,"tranName":null,"sdLineName":null,"cityCode":"3340170","cityName":"国网浙江杭州市富阳区供电公司","provinceCode":null,"stopTime":"2020-05-15 16:30:00","powerType":"全部","powerOffArea":"110kV建设变:新华D320线-东洲新沙村2#村西公变台区低压开关后段","powerOffReason":"(低压停电信息)迎东2020年华士村1#村中公变等布点工程：低压线路改接等工作","powerOffId":"2020043031020314"},{"poweroffId":2020043031020311,"sgpoweroffId":null,"subsName":"","lineName":"10kV松溪D132线","pubTranName":"乘庄村3#喻家公变,","scope":"浙江省-杭州市-富阳区-新登镇-乘庄行政村、喻家自然村一带","startTime":"2020-05-14 07:50:00","stopDate":"2020-05-14 17:00:00","orgNo":"3340170","typeCode":"计划停电","poweroffArea":"110kV新登变:松溪D132线-乘庄村3#喻家公变低压开关后段","poweroffReason":"(低压停电信息)照明01线、照明02线、照明03线更换落户线BS-JKLYJ-2*25*30户、BS-JKLYJ-4*35*200米、拆装拉线8支、安装墙上支架、导线搭接","powerTime":"2020-05-14 16:47:25","powerComm":"已送电","subsNo":"","lineNo":"","tgNo":"","tgName":null,"infoStatus":"1","orgName":"国网浙江杭州市富阳区供电公司","typeName":null,"infoStatusName":null,"dateDay":null,"orgNos":null,"nowTime":null,"countyName":null,"streetName":null,"villageName":null,"roadName":null,"communityName":null,"tranName":null,"sdLineName":null,"cityCode":"3340170","cityName":"国网浙江杭州市富阳区供电公司","provinceCode":null,"stopTime":"2020-05-14 17:00:00","powerType":"全部","powerOffArea":"110kV新登变:松溪D132线-乘庄村3#喻家公变低压开关后段","powerOffReason":"(低压停电信息)照明01线、照明02线、照明03线更换落户线BS-JKLYJ-2*25*30户、BS-JKLYJ-4*35*200米、拆装拉线8支、安装墙上支架、导线搭接","powerOffId":"2020043031020311"},{"poweroffId":2020043031020308,"sgpoweroffId":null,"subsName":"","lineName":"10kV春华D205线","pubTranName":"春华村22号公变,","scope":"浙江省-杭州市-富阳区-富春街道-春华行政村(宝山路,潘村路,春华自然村,春华路)","startTime":"2020-05-14 08:00:00","stopDate":"2020-05-14 16:50:00","orgNo":"3340170","typeCode":"计划停电","poweroffArea":"35kV大青变:春华D205线-春华村22号后段","poweroffReason":"(低压停电信息)青云2020年龙星村5#罗家岭公变等低压线路改造工程照明1#线更换落户线3处，照明2#线更换落户线7处，照明3#线更换落户线6处，搭接等工作","powerTime":"2020-05-14 16:28:40","powerComm":"已送电","subsNo":"","lineNo":"","tgNo":"","tgName":null,"infoStatus":"1","orgName":"国网浙江杭州市富阳区供电公司","typeName":null,"infoStatusName":null,"dateDay":null,"orgNos":null,"nowTime":null,"countyName":null,"streetName":null,"villageName":null,"roadName":null,"communityName":null,"tranName":null,"sdLineName":null,"cityCode":"3340170","cityName":"国网浙江杭州市富阳区供电公司","provinceCode":null,"stopTime":"2020-05-14 16:50:00","powerType":"全部","powerOffArea":"35kV大青变:春华D205线-春华村22号后段","powerOffReason":"(低压停电信息)青云2020年龙星村5#罗家岭公变等低压线路改造工程照明1#线更换落户线3处，照明2#线更换落户线7处，照明3#线更换落户线6处，搭接等工作","powerOffId":"2020043031020308"},{"poweroffId":2020043031020305,"sgpoweroffId":null,"subsName":"","lineName":"10kV长盘D722线","pubTranName":"湘溪村8#石门裘家公变,","scope":"浙江省-杭州市-富阳区-新登镇-湘溪行政村、石门裘家自然村一带","startTime":"2020-05-13 07:50:00","stopDate":"2020-05-13 17:00:00","orgNo":"3340170","typeCode":"计划停电","poweroffArea":"110kV松溪变:长盘D722线-湘溪村8#石门裘家公变低压开关后段","poweroffReason":"(低压停电信息)照明01线、照明02线敷设出线电缆YJV-4*150*2路、拆除出线电缆VLV-4*120*2路、更换落户线BS-JKLYJ-2*25*15户、BS-JKLYJ-4*35*50米、拆装拉线20支、导线搭接","powerTime":"2020-05-13 16:47:50","powerComm":"已送电","subsNo":"","lineNo":"","tgNo":"","tgName":null,"infoStatus":"1","orgName":"国网浙江杭州市富阳区供电公司","typeName":null,"infoStatusName":null,"dateDay":null,"orgNos":null,"nowTime":null,"countyName":null,"streetName":null,"villageName":null,"roadName":null,"communityName":null,"tranName":null,"sdLineName":null,"cityCode":"3340170","cityName":"国网浙江杭州市富阳区供电公司","provinceCode":null,"stopTime":"2020-05-13 17:00:00","powerType":"全部","powerOffArea":"110kV松溪变:长盘D722线-湘溪村8#石门裘家公变低压开关后段","powerOffReason":"(低压停电信息)照明01线、照明02线敷设出线电缆YJV-4*150*2路、拆除出线电缆VLV-4*120*2路、更换落户线BS-JKLYJ-2*25*15户、BS-JKLYJ-4*35*50米、拆装拉线20支、导线搭接","powerOffId":"2020043031020305"},{"poweroffId":2020043031020302,"sgpoweroffId":null,"subsName":"","lineName":"10kV三联D943线","pubTranName":"龙星村2#甘溪里公变,","scope":"浙江省-杭州市-富阳区-富春街道-三桥行政村(龙星自然村,甘溪自然村,罗家岭自然村)","startTime":"2020-05-13 08:00:00","stopDate":"2020-05-13 16:50:00","orgNo":"3340170","typeCode":"计划停电","poweroffArea":"110kV育才变:三联D943线-龙星村2#甘溪里后段","poweroffReason":"(低压停电信息)青云2020年龙星村5#罗家岭公变等低压线路改造工程拆旧，吊车立杆3支，架设1kV70*4*4档，更换落户线13处，搭接等工作","powerTime":"2020-05-13 16:40:11","powerComm":"已送电","subsNo":"","lineNo":"","tgNo":"","tgName":null,"infoStatus":"1","orgName":"国网浙江杭州市富阳区供电公司","typeName":null,"infoStatusName":null,"dateDay":null,"orgNos":null,"nowTime":null,"countyName":null,"streetName":null,"villageName":null,"roadName":null,"communityName":null,"tranName":null,"sdLineName":null,"cityCode":"3340170","cityName":"国网浙江杭州市富阳区供电公司","provinceCode":null,"stopTime":"2020-05-13 16:50:00","powerType":"全部","powerOffArea":"110kV育才变:三联D943线-龙星村2#甘溪里后段","powerOffReason":"(低压停电信息)青云2020年龙星村5#罗家岭公变等低压线路改造工程拆旧，吊车立杆3支，架设1kV70*4*4档，更换落户线13处，搭接等工作","powerOffId":"2020043031020302"}],"pageModel":{"pageNow":250,"totalCount":17788,"totalPage":1779,"tableRows":0,"pageCount":10,"beginCount":2490},"isExperi":"1"}