{"message":"","today":"2020-06-15","seleList":[{"poweroffId":2020043031020276,"sgpoweroffId":null,"subsName":"","lineName":"10kV龙门D787线","pubTranName":"龙门七村8号龙一官地公变,","scope":"浙江省-杭州市-富阳区-上官乡-四堡行政村-四堡自然村,龙门镇-龙门七村行政村-龙门村自然村一带","startTime":"2020-05-13 08:30:00","stopDate":"2020-05-13 15:30:00","orgNo":"3340170","typeCode":"计划停电","poweroffArea":"110kV王洲变:龙门D787线-龙门七村8号龙一官地公变后段","poweroffReason":"(低压停电信息)龙门七村8#龙一官地公变场口2019年10kV洋沙村4#大塔村口公变等台区增容布点工程：龙门七村8#龙一官地公变01出线拆除低压出线电缆1根，拆除导线1档等工作；龙门D787线181#杆新布点安装真空开关1台，低压电缆上杆搭接等工作。","powerTime":"2020-05-13 15:20:10","powerComm":"已送电","subsNo":"","lineNo":"","tgNo":"","tgName":null,"infoStatus":"1","orgName":"国网浙江杭州市富阳区供电公司","typeName":null,"infoStatusName":null,"dateDay":null,"orgNos":null,"nowTime":null,"countyName":null,"streetName":null,"villageName":null,"roadName":null,"communityName":null,"tranName":null,"sdLineName":null,"cityCode":"3340170","cityName":"国网浙江杭州市富阳区供电公司","provinceCode":null,"stopTime":"2020-05-13 15:30:00","powerType":"全部","powerOffArea":"110kV王洲变:龙门D787线-龙门七村8号龙一官地公变后段","powerOffReason":"(低压停电信息)龙门七村8#龙一官地公变场口2019年10kV洋沙村4#大塔村口公变等台区增容布点工程：龙门七村8#龙一官地公变01出线拆除低压出线电缆1根，拆除导线1档等工作；龙门D787线181#杆新布点安装真空开关1台，低压电缆上杆搭接等工作。","powerOffId":"2020043031020276"},{"poweroffId":2020043031020275,"sgpoweroffId":null,"subsName":"","lineName":"10kV石桥Y446线","pubTranName":"溪沿村鹤山垅台区,浙江省建德市良种场,","scope":"浙江省-杭州市-建德市-寿昌镇 溪沿行政村 鹤山垅自然村区域用户。","startTime":"2020-05-15 06:30:00","stopDate":"2020-05-15 19:00:00","orgNo":"3340180","typeCode":"计划停电","poweroffArea":"110kV家蓬变:石桥Y446线-建德市良种场令克后段;石桥Y446线-溪沿村鹤山垅台区后段","poweroffReason":"杭州建德10千伏航南Y173线网架优化工程（局属）：10千伏石桥Y446线原石航联络线2#-14#杆旧线路拆除 原停电结束时间为2020-05-15 15:30:00,因政策处理施工暂停原因,延迟送电,现变更停电结束时间为2020-05-15 19:00:00","powerTime":"2020-05-15 18:14:00","powerComm":"已送电","subsNo":"","lineNo":"","tgNo":"","tgName":null,"infoStatus":"1","orgName":"国网浙江建德市供电有限公司","typeName":null,"infoStatusName":null,"dateDay":null,"orgNos":null,"nowTime":null,"countyName":null,"streetName":null,"villageName":null,"roadName":null,"communityName":null,"tranName":null,"sdLineName":null,"cityCode":"3340180","cityName":"国网浙江建德市供电有限公司","provinceCode":null,"stopTime":"2020-05-15 19:00:00","powerType":"全部","powerOffArea":"110kV家蓬变:石桥Y446线-建德市良种场令克后段;石桥Y446线-溪沿村鹤山垅台区后段","powerOffReason":"杭州建德10千伏航南Y173线网架优化工程（局属）：10千伏石桥Y446线原石航联络线2#-14#杆旧线路拆除 原停电结束时间为2020-05-15 15:30:00,因政策处理施工暂停原因,延迟送电,现变更停电结束时间为2020-05-15 19:00:00","powerOffId":"2020043031020275"},{"poweroffId":2020043031020274,"sgpoweroffId":null,"subsName":"","lineName":"10kV三联D943线","pubTranName":"龙星村1#罗家岭公变,","scope":"浙江省-杭州市-富阳区-富春街道-三桥行政村(甘溪自然村,罗家岭自然村,龙星自然村)","startTime":"2020-05-12 08:00:00","stopDate":"2020-05-12 16:50:00","orgNo":"3340170","typeCode":"计划停电","poweroffArea":"110kV育才变:三联D943线-龙星村1#罗家岭后段","poweroffReason":"(低压停电信息)青云2020年龙星村5#罗家岭公变等低压线路改造工程拆旧，吊车立杆4支拔杆1支，架设1kV70*4*4档，更换落户线6处，搭接等工作","powerTime":"2020-05-12 16:34:38","powerComm":"已送电","subsNo":"","lineNo":"","tgNo":"","tgName":null,"infoStatus":"1","orgName":"国网浙江杭州市富阳区供电公司","typeName":null,"infoStatusName":null,"dateDay":null,"orgNos":null,"nowTime":null,"countyName":null,"streetName":null,"villageName":null,"roadName":null,"communityName":null,"tranName":null,"sdLineName":null,"cityCode":"3340170","cityName":"国网浙江杭州市富阳区供电公司","provinceCode":null,"stopTime":"2020-05-12 16:50:00","powerType":"全部","powerOffArea":"110kV育才变:三联D943线-龙星村1#罗家岭后段","powerOffReason":"(低压停电信息)青云2020年龙星村5#罗家岭公变等低压线路改造工程拆旧，吊车立杆4支拔杆1支，架设1kV70*4*4档，更换落户线6处，搭接等工作","powerOffId":"2020043031020274"},{"poweroffId":2020043031020272,"sgpoweroffId":null,"subsName":"","lineName":"10kV凤凰Y323线","pubTranName":"梓洲村金昌台区,","scope":"浙江省-杭州市-建德市-乾潭镇 梓洲行政村 金昌自然村区域用户。","startTime":"2020-05-15 07:30:00","stopDate":"2020-05-15 15:30:00","orgNo":"3340180","typeCode":"计划停电","poweroffArea":"35kV三都变:凤凰Y323线-梓洲村金昌台区令克后段","poweroffReason":"杭州建德10千伏凤凰Y323线网架优化工程(局属）：10kV凤凰Y323线姚村支线新263#杆-新265#杆新导线架设","powerTime":"2020-05-15 14:44:00","powerComm":"已送电","subsNo":"","lineNo":"","tgNo":"","tgName":null,"infoStatus":"1","orgName":"国网浙江建德市供电有限公司","typeName":null,"infoStatusName":null,"dateDay":null,"orgNos":null,"nowTime":null,"countyName":null,"streetName":null,"villageName":null,"roadName":null,"communityName":null,"tranName":null,"sdLineName":null,"cityCode":"3340180","cityName":"国网浙江建德市供电有限公司","provinceCode":null,"stopTime":"2020-05-15 15:30:00","powerType":"全部","powerOffArea":"35kV三都变:凤凰Y323线-梓洲村金昌台区令克后段","powerOffReason":"杭州建德10千伏凤凰Y323线网架优化工程(局属）：10kV凤凰Y323线姚村支线新263#杆-新265#杆新导线架设","powerOffId":"2020043031020272"},{"poweroffId":2020043031020271,"sgpoweroffId":null,"subsName":"","lineName":"10kV石桥Y446线","pubTranName":"浙江省建德市良种场,溪沿村鹤山垅台区,建德市国有粮食收储有限公司,十八桥村上邵台区,建德市万方塑胶助剂厂(普通合伙),建德市寿昌塑料薄膜厂,建德市万方塑胶助剂厂,十八桥村十八桥台区,十八桥村下邵台区,建德市政通水泥电杆厂,","scope":"浙江省-杭州市-建德市-寿昌镇 十八桥行政村 下邵自然村、十八桥自然村、上邵自然村区域用户。","startTime":"2020-05-15 06:30:00","stopDate":"2020-05-15 10:30:00","orgNo":"3340180","typeCode":"计划停电","poweroffArea":"110kV家蓬变:石桥Y446线-石航联络线01#开关后段","poweroffReason":"杭州建德10千伏航南Y173线网架优化工程：10千伏石桥Y446线原石航联络线2#-14#杆旧线路拆除","powerTime":"2020-05-15 09:51:00","powerComm":"已送电","subsNo":"","lineNo":"","tgNo":"","tgName":null,"infoStatus":"1","orgName":"国网浙江建德市供电有限公司","typeName":null,"infoStatusName":null,"dateDay":null,"orgNos":null,"nowTime":null,"countyName":null,"streetName":null,"villageName":null,"roadName":null,"communityName":null,"tranName":null,"sdLineName":null,"cityCode":"3340180","cityName":"国网浙江建德市供电有限公司","provinceCode":null,"stopTime":"2020-05-15 10:30:00","powerType":"全部","powerOffArea":"110kV家蓬变:石桥Y446线-石航联络线01#开关后段","powerOffReason":"杭州建德10千伏航南Y173线网架优化工程：10千伏石桥Y446线原石航联络线2#-14#杆旧线路拆除","powerOffId":"2020043031020271"},{"poweroffId":2020043031020270,"sgpoweroffId":null,"subsName":"","lineName":"10kV利民D241线","pubTranName":"小沙村4#北江公变,","scope":"浙江省-杭州市-富阳区-东洲街道-富春江行政村-小沙自然村","startTime":"2020-05-12 09:00:00","stopDate":"2020-05-12 18:30:00","orgNo":"3340170","typeCode":"计划停电","poweroffArea":"110kV白鹤变:利民D241线-小沙村4#北江公变台区低压开关后段","poweroffReason":"(低压停电信息)迎东2020年华士村1#村中公变等布点工程：低压线路改接等工作 原停电结束时间为2020-05-12 16:30:00,因工作复杂原因,延迟送电,现变更停电结束时间为2020-05-12 18:30:00","powerTime":"2020-05-12 18:14:03","powerComm":"已送电","subsNo":"","lineNo":"","tgNo":"","tgName":null,"infoStatus":"1","orgName":"国网浙江杭州市富阳区供电公司","typeName":null,"infoStatusName":null,"dateDay":null,"orgNos":null,"nowTime":null,"countyName":null,"streetName":null,"villageName":null,"roadName":null,"communityName":null,"tranName":null,"sdLineName":null,"cityCode":"3340170","cityName":"国网浙江杭州市富阳区供电公司","provinceCode":null,"stopTime":"2020-05-12 18:30:00","powerType":"全部","powerOffArea":"110kV白鹤变:利民D241线-小沙村4#北江公变台区低压开关后段","powerOffReason":"(低压停电信息)迎东2020年华士村1#村中公变等布点工程：低压线路改接等工作 原停电结束时间为2020-05-12 16:30:00,因工作复杂原因,延迟送电,现变更停电结束时间为2020-05-12 18:30:00","powerOffId":"2020043031020270"},{"poweroffId":2020043031020269,"sgpoweroffId":null,"subsName":"","lineName":"10kV永街D732线","pubTranName":"永昌村永桥6#菜市场公变,","scope":"浙江省-杭州市-富阳区-永昌镇-永昌行政村(永昌自然村,永桥自然村)一带","startTime":"2020-05-12 08:30:00","stopDate":"2020-05-12 16:30:00","orgNo":"3340170","typeCode":"计划停电","poweroffArea":"110kV松溪变:永街D732线-永昌村永桥6#菜市场公变低压开关后段","poweroffReason":"(低压停电信息)新登2020年万市村2#野坞里公变等配变增容布点工程 :永昌村永桥6#菜市场公变低压割接2#杆-3#杆水平拉制作及低压电缆上杆搭头等工作","powerTime":"2020-05-12 16:14:59","powerComm":"已送电","subsNo":"","lineNo":"","tgNo":"","tgName":null,"infoStatus":"1","orgName":"国网浙江杭州市富阳区供电公司","typeName":null,"infoStatusName":null,"dateDay":null,"orgNos":null,"nowTime":null,"countyName":null,"streetName":null,"villageName":null,"roadName":null,"communityName":null,"tranName":null,"sdLineName":null,"cityCode":"3340170","cityName":"国网浙江杭州市富阳区供电公司","provinceCode":null,"stopTime":"2020-05-12 16:30:00","powerType":"全部","powerOffArea":"110kV松溪变:永街D732线-永昌村永桥6#菜市场公变低压开关后段","powerOffReason":"(低压停电信息)新登2020年万市村2#野坞里公变等配变增容布点工程 :永昌村永桥6#菜市场公变低压割接2#杆-3#杆水平拉制作及低压电缆上杆搭头等工作","powerOffId":"2020043031020269"},{"poweroffId":2020043031020267,"sgpoweroffId":null,"subsName":"","lineName":"10kV何家D717线","pubTranName":"包秦村包秦1#王家公变,","scope":"浙江省-杭州市-富阳区-新登镇-包秦行政村-王家自然村一带","startTime":"2020-05-12 08:30:00","stopDate":"2020-05-12 16:30:00","orgNo":"3340170","typeCode":"计划停电","poweroffArea":"110kV松溪变:何家D717线-包秦村包秦1#王家公变低压开关后段","poweroffReason":"(低压停电信息)登2020年万市村2#野坞里公变等配变增容布点工程:包秦村包秦1#王家公变低压割接1#杆-3#杆导线拆除及低压电缆上杆搭头、吊车立杆等工作","powerTime":"2020-05-12 16:14:47","powerComm":"已送电","subsNo":"","lineNo":"","tgNo":"","tgName":null,"infoStatus":"1","orgName":"国网浙江杭州市富阳区供电公司","typeName":null,"infoStatusName":null,"dateDay":null,"orgNos":null,"nowTime":null,"countyName":null,"streetName":null,"villageName":null,"roadName":null,"communityName":null,"tranName":null,"sdLineName":null,"cityCode":"3340170","cityName":"国网浙江杭州市富阳区供电公司","provinceCode":null,"stopTime":"2020-05-12 16:30:00","powerType":"全部","powerOffArea":"110kV松溪变:何家D717线-包秦村包秦1#王家公变低压开关后段","powerOffReason":"(低压停电信息)登2020年万市村2#野坞里公变等配变增容布点工程:包秦村包秦1#王家公变低压割接1#杆-3#杆导线拆除及低压电缆上杆搭头、吊车立杆等工作","powerOffId":"2020043031020267"},{"poweroffId":2020043031020266,"sgpoweroffId":null,"subsName":"","lineName":"10kV常绿D268线","pubTranName":"北坞村3号庙外公变,","scope":"浙江省-杭州市-富阳区-常绿镇-北坞行政村-庙外自然村一带","startTime":"2020-05-12 08:40:00","stopDate":"2020-05-12 16:10:00","orgNo":"3340170","typeCode":"计划停电","poweroffArea":"35kV盛村变:常绿D268线-北坞村3号庙外公变后段","poweroffReason":"(低压停电信息)北坞村3#庙外公变线路改接、拆旧、装横担、做拉线、放接户线、搭接等工作；","powerTime":"2020-05-12 15:59:27","powerComm":"已送电","subsNo":"","lineNo":"","tgNo":"","tgName":null,"infoStatus":"1","orgName":"国网浙江杭州市富阳区供电公司","typeName":null,"infoStatusName":null,"dateDay":null,"orgNos":null,"nowTime":null,"countyName":null,"streetName":null,"villageName":null,"roadName":null,"communityName":null,"tranName":null,"sdLineName":null,"cityCode":"3340170","cityName":"国网浙江杭州市富阳区供电公司","provinceCode":null,"stopTime":"2020-05-12 16:10:00","powerType":"全部","powerOffArea":"35kV盛村变:常绿D268线-北坞村3号庙外公变后段","powerOffReason":"(低压停电信息)北坞村3#庙外公变线路改接、拆旧、装横担、做拉线、放接户线、搭接等工作；","powerOffId":"2020043031020266"},{"poweroffId":2020043031020265,"sgpoweroffId":null,"subsName":"","lineName":"10kV石墓D217线","pubTranName":"郜村宋家塘2号北渠边公变,","scope":"浙江省-杭州市-富阳区-银湖街道-郜村行政村-宋家塘自然村","startTime":"2020-05-12 08:30:00","stopDate":"2020-05-12 14:10:00","orgNo":"3340170","typeCode":"计划停电","poweroffArea":"110kV银湖变:石墓D217线-郜村宋家塘2号北渠边公变低压开关后段","poweroffReason":"(低压停电信息)拆除导线2档、安装拉线1组、搭接等工作","powerTime":"2020-05-12 14:00:38","powerComm":"已送电","subsNo":"","lineNo":"","tgNo":"","tgName":null,"infoStatus":"1","orgName":"国网浙江杭州市富阳区供电公司","typeName":null,"infoStatusName":null,"dateDay":null,"orgNos":null,"nowTime":null,"countyName":null,"streetName":null,"villageName":null,"roadName":null,"communityName":null,"tranName":null,"sdLineName":null,"cityCode":"3340170","cityName":"国网浙江杭州市富阳区供电公司","provinceCode":null,"stopTime":"2020-05-12 14:10:00","powerType":"全部","powerOffArea":"110kV银湖变:石墓D217线-郜村宋家塘2号北渠边公变低压开关后段","powerOffReason":"(低压停电信息)拆除导线2档、安装拉线1组、搭接等工作","powerOffId":"2020043031020265"}],"pageModel":{"pageNow":252,"totalCount":17788,"totalPage":1779,"tableRows":0,"pageCount":10,"beginCount":2510},"isExperi":"1"}