{"message":"","today":"2020-06-15","seleList":[{"poweroffId":2020043031020236,"sgpoweroffId":null,"subsName":"","lineName":"10kV新梅V230线","pubTranName":"10kV麻车村[中塘村]公变,","scope":"浙江省-杭州市-临安市-潜川镇-中塘村一带","startTime":"2020-05-14 13:00:00","stopDate":"2020-05-14 16:30:00","orgNo":"3340160","typeCode":"计划停电","poweroffArea":"35kV潜川变:新梅V230线96#杆中塘分线","poweroffReason":"原停电结束时间为2020-05-14 17:00:00,为减少客户停电时间,加快工作进度,提前送电,现变更停电结束时间为2020-05-14 16:30:00","powerTime":"2020-05-14 15:54:17","powerComm":"已送电","subsNo":"","lineNo":"","tgNo":"","tgName":null,"infoStatus":"1","orgName":"国网浙江临安市供电公司","typeName":null,"infoStatusName":null,"dateDay":null,"orgNos":null,"nowTime":null,"countyName":null,"streetName":null,"villageName":null,"roadName":null,"communityName":null,"tranName":null,"sdLineName":null,"cityCode":"3340160","cityName":"国网浙江临安市供电公司","provinceCode":null,"stopTime":"2020-05-14 16:30:00","powerType":"全部","powerOffArea":"35kV潜川变:新梅V230线96#杆中塘分线","powerOffReason":"原停电结束时间为2020-05-14 17:00:00,为减少客户停电时间,加快工作进度,提前送电,现变更停电结束时间为2020-05-14 16:30:00","powerOffId":"2020043031020236"},{"poweroffId":2020043031020235,"sgpoweroffId":null,"subsName":"","lineName":"10kV新梅V230线","pubTranName":"10kV双坑村[双坑杨家]公变,","scope":"浙江省-杭州市-临安市-於潜镇-双坑杨家一带","startTime":"2020-05-14 08:20:00","stopDate":"2020-05-14 12:50:00","orgNo":"3340160","typeCode":"计划停电","poweroffArea":"35kV潜川变:新梅V230线125#杆外杨家坞分线","poweroffReason":"10kV潜东村上尤阮家等增容布点工程（02）项：新梅V230线125#杆外杨家坞分线双坑村（外杨家）公变由原屋顶改为杆上式","powerTime":"2020-05-14 12:40:17","powerComm":"已送电","subsNo":"","lineNo":"","tgNo":"","tgName":null,"infoStatus":"1","orgName":"国网浙江临安市供电公司","typeName":null,"infoStatusName":null,"dateDay":null,"orgNos":null,"nowTime":null,"countyName":null,"streetName":null,"villageName":null,"roadName":null,"communityName":null,"tranName":null,"sdLineName":null,"cityCode":"3340160","cityName":"国网浙江临安市供电公司","provinceCode":null,"stopTime":"2020-05-14 12:50:00","powerType":"全部","powerOffArea":"35kV潜川变:新梅V230线125#杆外杨家坞分线","powerOffReason":"10kV潜东村上尤阮家等增容布点工程（02）项：新梅V230线125#杆外杨家坞分线双坑村（外杨家）公变由原屋顶改为杆上式","powerOffId":"2020043031020235"},{"poweroffId":2020043031020232,"sgpoweroffId":null,"subsName":"","lineName":"10kV下埠V503线","pubTranName":"10kV金家村[窄峨山]公变,","scope":"浙江省-杭州市-临安市-於潜镇-窄峨山一带","startTime":"2020-05-13 08:00:00","stopDate":"2020-05-13 18:40:00","orgNo":"3340160","typeCode":"计划停电","poweroffArea":"110kV於潜变:下埠V503线14-51#杆、横路V128线1-51#杆","poweroffReason":"临金高速一期专线02项：1、横路V128线、下埠V503线1#至40#杆上改下；变电所至1#杆电缆开断前段接入1#T接箱（进入变电所）；2、横路V128线、下埠V503线40#杆安装开关，40-41#杆架线；38#-40#杆线路拆除；","powerTime":"2020-05-13 18:30:34","powerComm":"已送电","subsNo":"","lineNo":"","tgNo":"","tgName":null,"infoStatus":"1","orgName":"国网浙江临安市供电公司","typeName":null,"infoStatusName":null,"dateDay":null,"orgNos":null,"nowTime":null,"countyName":null,"streetName":null,"villageName":null,"roadName":null,"communityName":null,"tranName":null,"sdLineName":null,"cityCode":"3340160","cityName":"国网浙江临安市供电公司","provinceCode":null,"stopTime":"2020-05-13 18:40:00","powerType":"全部","powerOffArea":"110kV於潜变:下埠V503线14-51#杆、横路V128线1-51#杆","powerOffReason":"临金高速一期专线02项：1、横路V128线、下埠V503线1#至40#杆上改下；变电所至1#杆电缆开断前段接入1#T接箱（进入变电所）；2、横路V128线、下埠V503线40#杆安装开关，40-41#杆架线；38#-40#杆线路拆除；","powerOffId":"2020043031020232"},{"poweroffId":2020043031020231,"sgpoweroffId":null,"subsName":"","lineName":"10kV下埠V503线","pubTranName":"10kV下埠村[下埠林场]公变,10kV下埠村[下埠桥西]公变,10kV观山村[甲子山岸头]公变,临安於潜成工五金工具厂,10kV后渚村[后渚村]公变,浙江天目山酒业有限公司,10kV观山村[酒厂宿舍]公变,临安市潜龙机械有限公司,临安市屹立建筑材料有限公司,10kV后渚村[笋市场]公变,临安市於潜自来水有限公司,10kV后渚村[青石桥]公变,10kV后渚村[后渚老虎山]公变,临安於潜成工五金工具厂,10kV观山村[大坞口]公变,10kv观山村[甲子]公变,10kV后渚村[二牧里]公变,10kV观山村[甲子双溪口]公变,杭州市临安区国瑞健康产业投资有限公司1#,","scope":"浙江省-杭州市-临安市-於潜镇-后渚行政村(后渚自然村,鹤村自然村,浮玉路),於潜镇-观山行政村(甲子自然村,观山自然村),於潜镇(下埠行政村-下埠自然村,民幸行政村-浮玉路,横鑫行政村-小昔自然村);於潜镇-观山行政村(杭州市临安区国瑞健康产业投资有限公司,杭州临安自来水有限公司),於潜镇-下埠行政村(临安於潜成工五金工具厂,临安市潜龙机械有限公司),於潜镇(自由行政村-浙江天目山酒业有限公司,后渚行政村-临安市屹立建筑材料有限公司)","startTime":"2020-05-13 18:00:00","stopDate":"2020-05-13 18:40:00","orgNo":"3340160","typeCode":"计划停电","poweroffArea":"110kV於潜变:下埠V503线-5031开关后段","poweroffReason":"临金高速一期专线03项：下埠V503线52#发电车开关下桩引线拆头、下埠V503线12#发电车开关下桩引线拆头","powerTime":"2020-05-13 18:30:22","powerComm":"已送电","subsNo":"","lineNo":"","tgNo":"","tgName":null,"infoStatus":"1","orgName":"国网浙江临安市供电公司","typeName":null,"infoStatusName":null,"dateDay":null,"orgNos":null,"nowTime":null,"countyName":null,"streetName":null,"villageName":null,"roadName":null,"communityName":null,"tranName":null,"sdLineName":null,"cityCode":"3340160","cityName":"国网浙江临安市供电公司","provinceCode":null,"stopTime":"2020-05-13 18:40:00","powerType":"全部","powerOffArea":"110kV於潜变:下埠V503线-5031开关后段","powerOffReason":"临金高速一期专线03项：下埠V503线52#发电车开关下桩引线拆头、下埠V503线12#发电车开关下桩引线拆头","powerOffId":"2020043031020231"},{"poweroffId":2020043031020230,"sgpoweroffId":null,"subsName":"","lineName":"10kV下埠V503线","pubTranName":"临安於潜成工五金工具厂,10kV观山村[甲子山岸头]公变,10kV下埠村[下埠林场]公变,10kV后渚村[笋市场]公变,10kV后渚村[二牧里]公变,临安市屹立建筑材料有限公司,10kV观山村[酒厂宿舍]公变,10kv观山村[甲子]公变,临安市潜龙机械有限公司,10kV观山村[甲子双溪口]公变,10kV观山村[大坞口]公变,10kV后渚村[后渚村]公变,临安於潜成工五金工具厂,杭州市临安区国瑞健康产业投资有限公司1#,10kV下埠村[下埠桥西]公变,浙江天目山酒业有限公司,临安市於潜自来水有限公司,10kV后渚村[后渚老虎山]公变,10kV后渚村[青石桥]公变,","scope":"浙江省-杭州市-临安市-於潜镇-下埠林场、下埠桥西、临安於潜成工五金工具厂、临安市潜龙机械有限公司、临安於潜成工五金工具厂、酒厂宿舍、甲子双溪口、大坞口、杭州临安区国瑞健康产业投资有限公司、浙江天目山酒业有限公司、后渚村、笋市场、青石桥、甲子、甲子山岸头、临安市於潜自来水有限公司、二牧里、临安市屹立建筑材料有限公司、后渚老虎山一带","startTime":"2020-05-13 07:30:00","stopDate":"2020-05-13 08:00:00","orgNo":"3340160","typeCode":"计划停电","poweroffArea":"110kV於潜变:下埠V503线1-14#，52#杆后段","poweroffReason":"临金高速一期专线01项：下埠V503线52#发电车开关下桩引线搭头、下埠V503线12#发电车开关下桩引线搭头","powerTime":"2020-05-13 07:50:09","powerComm":"已送电","subsNo":"","lineNo":"","tgNo":"","tgName":null,"infoStatus":"1","orgName":"国网浙江临安市供电公司","typeName":null,"infoStatusName":null,"dateDay":null,"orgNos":null,"nowTime":null,"countyName":null,"streetName":null,"villageName":null,"roadName":null,"communityName":null,"tranName":null,"sdLineName":null,"cityCode":"3340160","cityName":"国网浙江临安市供电公司","provinceCode":null,"stopTime":"2020-05-13 08:00:00","powerType":"全部","powerOffArea":"110kV於潜变:下埠V503线1-14#，52#杆后段","powerOffReason":"临金高速一期专线01项：下埠V503线52#发电车开关下桩引线搭头、下埠V503线12#发电车开关下桩引线搭头","powerOffId":"2020043031020230"},{"poweroffId":2020043031020229,"sgpoweroffId":null,"subsName":"","lineName":"10kV石门V353线","pubTranName":"石门龙头舍村,","scope":"浙江省-杭州市-临安市-高虹镇-大山行政村(龙头舍自然村,大山自然村)","startTime":"2020-05-12 08:30:00","stopDate":"2020-05-12 14:30:00","orgNo":"3340160","typeCode":"计划停电","poweroffArea":"110kV高虹变:石门V353线-鱼岭脚支线38#后段","poweroffReason":"杭州临安青山高虹10千伏拜节村公变等台区增容布点工程 原停电结束时间为2020-05-12 15:30:00,为减少客户停电时间,加快工作进度,提前送电,现变更停电结束时间为2020-05-12 14:30:00","powerTime":"2020-05-12 13:54:45","powerComm":"已送电","subsNo":"","lineNo":"","tgNo":"","tgName":null,"infoStatus":"1","orgName":"国网浙江临安市供电公司","typeName":null,"infoStatusName":null,"dateDay":null,"orgNos":null,"nowTime":null,"countyName":null,"streetName":null,"villageName":null,"roadName":null,"communityName":null,"tranName":null,"sdLineName":null,"cityCode":"3340160","cityName":"国网浙江临安市供电公司","provinceCode":null,"stopTime":"2020-05-12 14:30:00","powerType":"全部","powerOffArea":"110kV高虹变:石门V353线-鱼岭脚支线38#后段","powerOffReason":"杭州临安青山高虹10千伏拜节村公变等台区增容布点工程 原停电结束时间为2020-05-12 15:30:00,为减少客户停电时间,加快工作进度,提前送电,现变更停电结束时间为2020-05-12 14:30:00","powerOffId":"2020043031020229"},{"poweroffId":2020043031020228,"sgpoweroffId":null,"subsName":"","lineName":"10kV北门V507线","pubTranName":"10kV自由村[供电所]公变,10kV自由村[交机厂]公变,","scope":"浙江省-杭州市-临安市-於潜镇-供电所、交机厂一带","startTime":"2020-05-11 08:00:00","stopDate":"2020-05-11 18:00:00","orgNo":"3340160","typeCode":"计划停电","poweroffArea":"110kV於潜变:北门V507线农於5072线1-27#杆","poweroffReason":"临安於潜10千伏北门V507线与纸厂V120线新增联络：02项北门V507线於中站农於5072线3#-6#、8#、16#-24#杆调杆，1#-28#杆调导线，8#杆自由村（供电所）公变、17#杆自由村(交机厂)公变拆装、JP柜调换。","powerTime":"2020-05-11 17:17:34","powerComm":"已送电","subsNo":"","lineNo":"","tgNo":"","tgName":null,"infoStatus":"1","orgName":"国网浙江临安市供电公司","typeName":null,"infoStatusName":null,"dateDay":null,"orgNos":null,"nowTime":null,"countyName":null,"streetName":null,"villageName":null,"roadName":null,"communityName":null,"tranName":null,"sdLineName":null,"cityCode":"3340160","cityName":"国网浙江临安市供电公司","provinceCode":null,"stopTime":"2020-05-11 18:00:00","powerType":"全部","powerOffArea":"110kV於潜变:北门V507线农於5072线1-27#杆","powerOffReason":"临安於潜10千伏北门V507线与纸厂V120线新增联络：02项北门V507线於中站农於5072线3#-6#、8#、16#-24#杆调杆，1#-28#杆调导线，8#杆自由村（供电所）公变、17#杆自由村(交机厂)公变拆装、JP柜调换。","powerOffId":"2020043031020228"},{"poweroffId":2020043031020227,"sgpoweroffId":null,"subsName":"","lineName":"10kV北门V507线","pubTranName":"10kV民幸村[供电所老宿舍]公变,","scope":"浙江省-杭州市-临安市-於潜镇-供电所老宿舍一带","startTime":"2020-05-11 08:20:00","stopDate":"2020-05-11 17:10:00","orgNo":"3340160","typeCode":"计划停电","poweroffArea":"110kV於潜变:北门V507线农於5072线30#杆10kV民幸村（供电所老宿舍）公变环东路东1000线","poweroffReason":"(低压停电信息)配合停电","powerTime":"2020-05-11 17:00:12","powerComm":"已送电","subsNo":"","lineNo":"","tgNo":"","tgName":null,"infoStatus":"1","orgName":"国网浙江临安市供电公司","typeName":null,"infoStatusName":null,"dateDay":null,"orgNos":null,"nowTime":null,"countyName":null,"streetName":null,"villageName":null,"roadName":null,"communityName":null,"tranName":null,"sdLineName":null,"cityCode":"3340160","cityName":"国网浙江临安市供电公司","provinceCode":null,"stopTime":"2020-05-11 17:10:00","powerType":"全部","powerOffArea":"110kV於潜变:北门V507线农於5072线30#杆10kV民幸村（供电所老宿舍）公变环东路东1000线","powerOffReason":"(低压停电信息)配合停电","powerOffId":"2020043031020227"},{"poweroffId":2020043031020226,"sgpoweroffId":null,"subsName":"","lineName":"10kV鹤里V256线","pubTranName":"10kV横路村[后干]公变,","scope":"浙江省-杭州市-临安市-太阳镇-后干一带","startTime":"2020-05-11 08:20:00","stopDate":"2020-05-11 15:40:00","orgNo":"3340160","typeCode":"计划停电","poweroffArea":"35kV太阳变:鹤里V256线-10KV横路村（后干）公变低压下后干1000线、上后干2000线","poweroffReason":"(低压停电信息)配合停电","powerTime":"2020-05-11 15:30:25","powerComm":"已送电","subsNo":"","lineNo":"","tgNo":"","tgName":null,"infoStatus":"1","orgName":"国网浙江临安市供电公司","typeName":null,"infoStatusName":null,"dateDay":null,"orgNos":null,"nowTime":null,"countyName":null,"streetName":null,"villageName":null,"roadName":null,"communityName":null,"tranName":null,"sdLineName":null,"cityCode":"3340160","cityName":"国网浙江临安市供电公司","provinceCode":null,"stopTime":"2020-05-11 15:40:00","powerType":"全部","powerOffArea":"35kV太阳变:鹤里V256线-10KV横路村（后干）公变低压下后干1000线、上后干2000线","powerOffReason":"(低压停电信息)配合停电","powerOffId":"2020043031020226"},{"poweroffId":2020043031020224,"sgpoweroffId":null,"subsName":"","lineName":"10kV前源Y322线","pubTranName":"前源村八亩排台区,前源村大坪台区,","scope":"浙江省-杭州市-建德市-三都镇-前源行政村(八亩排自然村,大坪自然村)","startTime":"2020-04-30 10:18:00","stopDate":"2020-04-30 13:00:00","orgNo":"3340180","typeCode":"电网故障停限电","poweroffArea":"35kV三都变:前源Y322线大坪支线0#杆真空开关后段","poweroffReason":"高压开关跳闸","powerTime":"2020-04-30 12:15:00","powerComm":"已送电","subsNo":"","lineNo":"","tgNo":"","tgName":null,"infoStatus":"1","orgName":"国网浙江建德市供电有限公司","typeName":null,"infoStatusName":null,"dateDay":null,"orgNos":null,"nowTime":null,"countyName":null,"streetName":null,"villageName":null,"roadName":null,"communityName":null,"tranName":null,"sdLineName":null,"cityCode":"3340180","cityName":"国网浙江建德市供电有限公司","provinceCode":null,"stopTime":"2020-04-30 13:00:00","powerType":"全部","powerOffArea":"35kV三都变:前源Y322线大坪支线0#杆真空开关后段","powerOffReason":"高压开关跳闸","powerOffId":"2020043031020224"}],"pageModel":{"pageNow":255,"totalCount":17788,"totalPage":1779,"tableRows":0,"pageCount":10,"beginCount":2540},"isExperi":"1"}