{"message":"","today":"2020-06-15","seleList":[{"poweroffId":2020043031020222,"sgpoweroffId":null,"subsName":"","lineName":"10kV吴宅T147线","pubTranName":"邵家边1号公变,吴宅2号公变,","scope":"浙江省-杭州市-桐庐县-钟山乡-钟山行政村(邵家边自然村,吴宅自然村,上门自然村,包家山自然村,前中畈自然村),钟山乡(城下行政村-邵家湾自然村,陇西行政村-下陆自然村)","startTime":"2020-05-12 07:30:00","stopDate":"2020-05-12 08:20:00","orgNo":"3340150","typeCode":"计划停电","poweroffArea":"35kV钟山变:吴宅T147线-钟山F2409开关后段","poweroffReason":"杭州桐庐钟山10kV吴宅147线、民族148线线路改造工程","powerTime":"2020-05-12 08:10:51","powerComm":"已送电","subsNo":"","lineNo":"","tgNo":"","tgName":null,"infoStatus":"1","orgName":"国网浙江桐庐县供电公司","typeName":null,"infoStatusName":null,"dateDay":null,"orgNos":null,"nowTime":null,"countyName":null,"streetName":null,"villageName":null,"roadName":null,"communityName":null,"tranName":null,"sdLineName":null,"cityCode":"3340150","cityName":"国网浙江桐庐县供电公司","provinceCode":null,"stopTime":"2020-05-12 08:20:00","powerType":"全部","powerOffArea":"35kV钟山变:吴宅T147线-钟山F2409开关后段","powerOffReason":"杭州桐庐钟山10kV吴宅147线、民族148线线路改造工程","powerOffId":"2020043031020222"},{"poweroffId":2020043031020208,"sgpoweroffId":null,"subsName":"","lineName":"10kV蔡家D893线","pubTranName":"月台村1#村中公变,","scope":"浙江省-杭州市-富阳区-灵桥镇-新华行政村-月台自然村一带","startTime":"2020-05-15 08:00:00","stopDate":"2020-05-15 17:30:00","orgNo":"3340170","typeCode":"计划停电","poweroffArea":"110kV永春变:蔡家D893线-月台村1号村中低压开关后段","poweroffReason":"(低压停电信息)吊车立杆4根，拆架导线5档，新架导线5档，更换接户线搭接等工作。（江南2020年菖蒲村3#桐湾口公变等台区低压线路改造工程）","powerTime":"2020-05-15 17:11:34","powerComm":"已送电","subsNo":"","lineNo":"","tgNo":"","tgName":null,"infoStatus":"1","orgName":"国网浙江杭州市富阳区供电公司","typeName":null,"infoStatusName":null,"dateDay":null,"orgNos":null,"nowTime":null,"countyName":null,"streetName":null,"villageName":null,"roadName":null,"communityName":null,"tranName":null,"sdLineName":null,"cityCode":"3340170","cityName":"国网浙江杭州市富阳区供电公司","provinceCode":null,"stopTime":"2020-05-15 17:30:00","powerType":"全部","powerOffArea":"110kV永春变:蔡家D893线-月台村1号村中低压开关后段","powerOffReason":"(低压停电信息)吊车立杆4根，拆架导线5档，新架导线5档，更换接户线搭接等工作。（江南2020年菖蒲村3#桐湾口公变等台区低压线路改造工程）","powerOffId":"2020043031020208"},{"poweroffId":2020043031020207,"sgpoweroffId":null,"subsName":"","lineName":"10kV渔山D913线","pubTranName":"五岭村五爱6#公路公变,","scope":"浙江省-杭州市-富阳区-渔山乡-五岭行政村-五爱自然村-五岭村中心公园一带","startTime":"2020-05-14 08:15:00","stopDate":"2020-05-14 10:30:00","orgNo":"3340170","typeCode":"计划停电","poweroffArea":"110kV里渔变:渔山D913线-五岭村五爱6号公路低压开关后段","poweroffReason":"(低压停电信息)（配合停电）开断导线1档等工作。（江南2020年菖蒲村3#桐湾口公变等台区低压线路改造工程）","powerTime":"2020-05-14 10:13:31","powerComm":"已送电","subsNo":"","lineNo":"","tgNo":"","tgName":null,"infoStatus":"1","orgName":"国网浙江杭州市富阳区供电公司","typeName":null,"infoStatusName":null,"dateDay":null,"orgNos":null,"nowTime":null,"countyName":null,"streetName":null,"villageName":null,"roadName":null,"communityName":null,"tranName":null,"sdLineName":null,"cityCode":"3340170","cityName":"国网浙江杭州市富阳区供电公司","provinceCode":null,"stopTime":"2020-05-14 10:30:00","powerType":"全部","powerOffArea":"110kV里渔变:渔山D913线-五岭村五爱6号公路低压开关后段","powerOffReason":"(低压停电信息)（配合停电）开断导线1档等工作。（江南2020年菖蒲村3#桐湾口公变等台区低压线路改造工程）","powerOffId":"2020043031020207"},{"poweroffId":2020043031020205,"sgpoweroffId":null,"subsName":"","lineName":"10kV渔山D913线","pubTranName":"三元村3#大街公变,","scope":"浙江省-杭州市-富阳区-渔山乡-渔山行政村-三元自然村一带","startTime":"2020-05-11 08:00:00","stopDate":"2020-05-11 16:30:00","orgNo":"3340170","typeCode":"计划停电","poweroffArea":"110kV里渔变:渔山D913线-三元村3号大街公低压开关后段","poweroffReason":"(低压停电信息)江南2020年五爱村7#新路公变等台区增容布点工程：新放JKLYJ-1-120导线2档，拆除旧导线7档，低压负荷割接，线路拆、搭头等工作。","powerTime":"2020-05-11 16:09:46","powerComm":"已送电","subsNo":"","lineNo":"","tgNo":"","tgName":null,"infoStatus":"1","orgName":"国网浙江杭州市富阳区供电公司","typeName":null,"infoStatusName":null,"dateDay":null,"orgNos":null,"nowTime":null,"countyName":null,"streetName":null,"villageName":null,"roadName":null,"communityName":null,"tranName":null,"sdLineName":null,"cityCode":"3340170","cityName":"国网浙江杭州市富阳区供电公司","provinceCode":null,"stopTime":"2020-05-11 16:30:00","powerType":"全部","powerOffArea":"110kV里渔变:渔山D913线-三元村3号大街公低压开关后段","powerOffReason":"(低压停电信息)江南2020年五爱村7#新路公变等台区增容布点工程：新放JKLYJ-1-120导线2档，拆除旧导线7档，低压负荷割接，线路拆、搭头等工作。","powerOffId":"2020043031020205"},{"poweroffId":2020043031020195,"sgpoweroffId":null,"subsName":"","lineName":"10kV柯家V330线","pubTranName":"柯家村[邱家头]公变,","scope":"浙江省-杭州市-临安区-锦南街道-柯家行政村-邱家头自然村一带","startTime":"2020-05-09 08:30:00","stopDate":"2020-05-09 13:30:00","orgNo":"3340160","typeCode":"计划停电","poweroffArea":"110kV锦南变:柯家V330线-柯家村[邱家头]公变后段","poweroffReason":"（低压停电信息）低压线路拆架","powerTime":"2020-05-09 13:11:14","powerComm":"已送电","subsNo":"","lineNo":"","tgNo":"","tgName":null,"infoStatus":"1","orgName":"国网浙江临安市供电公司","typeName":null,"infoStatusName":null,"dateDay":null,"orgNos":null,"nowTime":null,"countyName":null,"streetName":null,"villageName":null,"roadName":null,"communityName":null,"tranName":null,"sdLineName":null,"cityCode":"3340160","cityName":"国网浙江临安市供电公司","provinceCode":null,"stopTime":"2020-05-09 13:30:00","powerType":"全部","powerOffArea":"110kV锦南变:柯家V330线-柯家村[邱家头]公变后段","powerOffReason":"（低压停电信息）低压线路拆架","powerOffId":"2020043031020195"},{"poweroffId":2020043031020156,"sgpoweroffId":null,"subsName":"","lineName":"10kV姚家T243线","pubTranName":"胡家坞村1号公变,","scope":"浙江省-杭州市-桐庐县-江南镇-锦江行政村(五联胡家坞自然村,)","startTime":"2020-05-09 08:30:00","stopDate":"2020-05-09 13:30:00","orgNo":"3340150","typeCode":"计划停电","poweroffArea":"110kV石阜变:姚家T243线-伍联F5035智能开关后段","poweroffReason":"杭州桐庐江南双义村等台区配变及线路改造工程","powerTime":"2020-05-09 13:04:03","powerComm":"已送电","subsNo":"","lineNo":"","tgNo":"","tgName":null,"infoStatus":"1","orgName":"国网浙江桐庐县供电公司","typeName":null,"infoStatusName":null,"dateDay":null,"orgNos":null,"nowTime":null,"countyName":null,"streetName":null,"villageName":null,"roadName":null,"communityName":null,"tranName":null,"sdLineName":null,"cityCode":"3340150","cityName":"国网浙江桐庐县供电公司","provinceCode":null,"stopTime":"2020-05-09 13:30:00","powerType":"全部","powerOffArea":"110kV石阜变:姚家T243线-伍联F5035智能开关后段","powerOffReason":"杭州桐庐江南双义村等台区配变及线路改造工程","powerOffId":"2020043031020156"},{"poweroffId":2020043031020132,"sgpoweroffId":null,"subsName":"","lineName":"10kV牌头H562线","pubTranName":"爵典木业6111090241,王位山村黄泥头公变,杭州澳盟实业有限公司6110111050,杭州有你竹木板材有限公司6110111124,王位山村上打石湾公变,王位山村浪河口加工厂公变,王位山村独山村公变,王位山村陆家庄公变,王位山村高村五队2号公变,昆仑润滑剂6120555909,恒顺工程塑料6120464316,1#,杭州中港陶业有限公司6111040526,王位山村高村五组公变,众鼎集装箱6120147823,梁旭竹木6120222324,浙环机械6111055056,杭州振盛机械制造厂6111030595,杭州越扬玻璃有限公司6110111038,王位山村打石湾公变,王位山村浪河口2号公变,王位山村浪河口粉丝厂公变,杭州新湖鸬鸟置业有限公司（6120853294）02#专变,王位山村段大公变,王位山村宝幢寺公变,王位山村干山坞公变,杭州新湖鸬鸟置业有限公司（6120853294）01#专变,王位山村钱家门口公变,王位山村高村公变,政府8号路灯变6120842663,王位山村太平山公变,王位山村白石坞公变,王位山村砖瓦厂公变,国隆加热6120018544,杭州金辉塑化有限公司6111040704,王位山村独山三组公变,王位山村太平山2号公变,王位山村桃园公变,","scope":"浙江省-杭州市-余杭区-黄湖镇-王位山行政村(浪河口自然村,王位山自然村,走马堂自然村,太平山自然村,下黄泥潭自然村,车路边自然村,高自然村,段大自然村,独山桥自然村,上黄泥潭自然村,陆家庄自然村),鸬鸟镇(太平山行政村-太平山自然村,雅城行政村-雅城自然村,前庄行政村-前庄自然村),黄湖镇-清波行政村-清波自然村,百丈镇-溪口行政村-溪口自然村;浙江省-杭州市-余杭区-鸬鸟镇-前庄行政村-杭州中港陶业有限公司,黄湖镇-王位山行政村(杭州金辉塑化有限公司,杭州澳盟实业有限公司,杭州有你竹木板材有限公司,杭州越扬玻璃有限公司,杭州振盛机械制造厂,杭州爵典木业有限公司,杭州国隆加热设备有限公司,杭州浙环机械配件有限公司,杭州众鼎集装箱移动板房有限公司,杭州余杭区黄湖镇梁旭竹木工艺品厂,杭州恒顺工程塑料有限公司,杭州昆仑特种润滑剂有限公司,杭州市余杭区黄湖镇人民政府),鸬鸟镇-雅城行政村(杭州新湖鸬鸟置业有限公司新湖希尔顿花园酒店分公司,杭州新湖鸬鸟置业有限公司)","startTime":"2020-04-30 09:15:00","stopDate":"2020-04-30 11:15:00","orgNo":"3340140","typeCode":"电网故障停限电","poweroffArea":"35kV黄湖变:牌头H562线","poweroffReason":"高压开关跳闸 原停电结束时间为2020-04-30 12:15:00,为减少客户停电时间,加快工作进度,提前送电,现变更停电结束时间为2020-04-30 11:15:00","powerTime":"2020-04-30 10:40:00","powerComm":"已送电","subsNo":"","lineNo":"","tgNo":"","tgName":null,"infoStatus":"1","orgName":"国网浙江杭州市余杭区供电有限公司","typeName":null,"infoStatusName":null,"dateDay":null,"orgNos":null,"nowTime":null,"countyName":null,"streetName":null,"villageName":null,"roadName":null,"communityName":null,"tranName":null,"sdLineName":null,"cityCode":"3340140","cityName":"国网浙江杭州市余杭区供电有限公司","provinceCode":null,"stopTime":"2020-04-30 11:15:00","powerType":"全部","powerOffArea":"35kV黄湖变:牌头H562线","powerOffReason":"高压开关跳闸 原停电结束时间为2020-04-30 12:15:00,为减少客户停电时间,加快工作进度,提前送电,现变更停电结束时间为2020-04-30 11:15:00","powerOffId":"2020043031020132"},{"poweroffId":2020043031020098,"sgpoweroffId":null,"subsName":"","lineName":"10kV鸿风C912线","pubTranName":"1#,浙江日华化学,联创实业,普罗菲尔,杭州佳菱机械制造有限公司,恒基物业,萱萱科技2#,杭州长云电器有限公司变压器,萱萱科技3#,丰沃达医药,1#,杭州佳菱机械制造有限公司,华州文仪,白浪助剂,浙江日华化学,","scope":"浙江省-杭州市-萧山区-宁围镇、宁围街道、经济技术开发区-市北社区-杭州永通实业有限公司,经济技术开发区-钱江社区(杭州佳菱机械制造有限公司,普罗菲尔铝业(杭州)有限公司,杭州长云电器有限公司,杭州萱萱科技有限公司,丰沃达医药物流(杭州)有限公司,杭州协盈塑料制品有限公司,浙江蓝天制衣有限公司,杭州恒基生物制品有限公司,杭州白浪助剂有限公司,日华化学(中国)有限公司)等一带","startTime":"2020-04-30 08:50:56","stopDate":"2020-04-30 10:28:56","orgNo":"3340130","typeCode":"电网故障停限电","poweroffArea":"110kV鸿达变:鸿风C912线","poweroffReason":"高压柱上断路器短路故障 原停电结束时间为2020-04-30 12:54:56,为减少客户停电时间,加快工作进度,提前送电,现变更停电结束时间为2020-04-30 10:28:56","powerTime":"2020-04-30 09:31:40","powerComm":"已送电","subsNo":"","lineNo":"","tgNo":"","tgName":null,"infoStatus":"1","orgName":"国网浙江杭州市萧山区供电有限公司","typeName":null,"infoStatusName":null,"dateDay":null,"orgNos":null,"nowTime":null,"countyName":null,"streetName":null,"villageName":null,"roadName":null,"communityName":null,"tranName":null,"sdLineName":null,"cityCode":"3340130","cityName":"国网浙江杭州市萧山区供电有限公司","provinceCode":null,"stopTime":"2020-04-30 10:28:56","powerType":"全部","powerOffArea":"110kV鸿达变:鸿风C912线","powerOffReason":"高压柱上断路器短路故障 原停电结束时间为2020-04-30 12:54:56,为减少客户停电时间,加快工作进度,提前送电,现变更停电结束时间为2020-04-30 10:28:56","powerOffId":"2020043031020098"},{"poweroffId":2020042931020766,"sgpoweroffId":null,"subsName":"","lineName":"10kV东联A490线","pubTranName":"东联村4#变,","scope":"浙江省-杭州市-萧山区-益农镇-东联行政村(东一自然村,东联自然村)","startTime":"2020-05-07 10:00:00","stopDate":"2020-05-07 12:30:00","orgNo":"3340130","typeCode":"计划停电","poweroffArea":"110kV群围变:东联A490线-东联村4#变跌落式熔断器后段","poweroffReason":"东联A490线26/16/09#杆东联村4#变令克消缺更换 原停电结束时间为2020-05-07 17:30:00,为减少客户停电时间,加快工作进度,提前送电,现变更停电结束时间为2020-05-07 12:30:00","powerTime":"2020-05-07 11:55:06","powerComm":"已送电","subsNo":"","lineNo":"","tgNo":"","tgName":null,"infoStatus":"1","orgName":"国网浙江杭州市萧山区供电有限公司","typeName":null,"infoStatusName":null,"dateDay":null,"orgNos":null,"nowTime":null,"countyName":null,"streetName":null,"villageName":null,"roadName":null,"communityName":null,"tranName":null,"sdLineName":null,"cityCode":"3340130","cityName":"国网浙江杭州市萧山区供电有限公司","provinceCode":null,"stopTime":"2020-05-07 12:30:00","powerType":"全部","powerOffArea":"110kV群围变:东联A490线-东联村4#变跌落式熔断器后段","powerOffReason":"东联A490线26/16/09#杆东联村4#变令克消缺更换 原停电结束时间为2020-05-07 17:30:00,为减少客户停电时间,加快工作进度,提前送电,现变更停电结束时间为2020-05-07 12:30:00","powerOffId":"2020042931020766"},{"poweroffId":2020042931020765,"sgpoweroffId":null,"subsName":"","lineName":"10kV前兴A491线","pubTranName":"官一村6#变,","scope":"浙江省-杭州市-萧山区-瓜沥镇-官一行政村-官一自然村","startTime":"2020-05-07 10:00:00","stopDate":"2020-05-07 17:30:00","orgNo":"3340130","typeCode":"计划停电","poweroffArea":"110kV群围变:前兴A491线-官一村6#变后段","poweroffReason":"前兴A491线64/B19/16#杆官一村6#变令克消缺更换","powerTime":"2020-05-07 16:35:38","powerComm":"已送电","subsNo":"","lineNo":"","tgNo":"","tgName":null,"infoStatus":"1","orgName":"国网浙江杭州市萧山区供电有限公司","typeName":null,"infoStatusName":null,"dateDay":null,"orgNos":null,"nowTime":null,"countyName":null,"streetName":null,"villageName":null,"roadName":null,"communityName":null,"tranName":null,"sdLineName":null,"cityCode":"3340130","cityName":"国网浙江杭州市萧山区供电有限公司","provinceCode":null,"stopTime":"2020-05-07 17:30:00","powerType":"全部","powerOffArea":"110kV群围变:前兴A491线-官一村6#变后段","powerOffReason":"前兴A491线64/B19/16#杆官一村6#变令克消缺更换","powerOffId":"2020042931020765"}],"pageModel":{"pageNow":256,"totalCount":17788,"totalPage":1779,"tableRows":0,"pageCount":10,"beginCount":2550},"isExperi":"1"}