{"message":"","today":"2020-06-15","seleList":[{"poweroffId":2020042931020764,"sgpoweroffId":null,"subsName":"","lineName":"10kV解放C666线","pubTranName":"解放村9#变,","scope":"浙江省-杭州市-萧山区-瓜沥镇-解放行政村(长沙路,北塘东路,解放自然村)","startTime":"2020-05-07 09:30:00","stopDate":"2020-05-07 15:30:00","orgNo":"3340130","typeCode":"计划停电","poweroffArea":"35kV长沙变:解放C666线-解放村9#变跌落式熔断器后段","poweroffReason":"解放C666线21#杆解放村09#变拆160kVA变压器1台，新装400kVA变压器1台，更换跌落式熔断器开关1套、综合配电箱1台（需带电作业配合）","powerTime":"2020-05-07 15:15:49","powerComm":"已送电","subsNo":"","lineNo":"","tgNo":"","tgName":null,"infoStatus":"1","orgName":"国网浙江杭州市萧山区供电有限公司","typeName":null,"infoStatusName":null,"dateDay":null,"orgNos":null,"nowTime":null,"countyName":null,"streetName":null,"villageName":null,"roadName":null,"communityName":null,"tranName":null,"sdLineName":null,"cityCode":"3340130","cityName":"国网浙江杭州市萧山区供电有限公司","provinceCode":null,"stopTime":"2020-05-07 15:30:00","powerType":"全部","powerOffArea":"35kV长沙变:解放C666线-解放村9#变跌落式熔断器后段","powerOffReason":"解放C666线21#杆解放村09#变拆160kVA变压器1台，新装400kVA变压器1台，更换跌落式熔断器开关1套、综合配电箱1台（需带电作业配合）","powerOffId":"2020042931020764"},{"poweroffId":2020042931020763,"sgpoweroffId":null,"subsName":"","lineName":"10kV单木C664线","pubTranName":"单木桥村11#变,","scope":"浙江省-杭州市-萧山区-瓜沥镇-单木桥行政村-单木桥自然村","startTime":"2020-05-07 09:00:00","stopDate":"2020-05-07 15:00:00","orgNo":"3340130","typeCode":"计划停电","poweroffArea":"35kV长沙变:单木C664线-单木桥村11#变跌落式熔断器后段","poweroffReason":"单木C664线35/02#杆单木桥村11#变拆160kVA变压器1台，新装400kVA变压器1台，更换跌落式熔断器开关1套、综合配电箱1台（需带电作业配合）","powerTime":"2020-05-07 14:51:16","powerComm":"已送电","subsNo":"","lineNo":"","tgNo":"","tgName":null,"infoStatus":"1","orgName":"国网浙江杭州市萧山区供电有限公司","typeName":null,"infoStatusName":null,"dateDay":null,"orgNos":null,"nowTime":null,"countyName":null,"streetName":null,"villageName":null,"roadName":null,"communityName":null,"tranName":null,"sdLineName":null,"cityCode":"3340130","cityName":"国网浙江杭州市萧山区供电有限公司","provinceCode":null,"stopTime":"2020-05-07 15:00:00","powerType":"全部","powerOffArea":"35kV长沙变:单木C664线-单木桥村11#变跌落式熔断器后段","powerOffReason":"单木C664线35/02#杆单木桥村11#变拆160kVA变压器1台，新装400kVA变压器1台，更换跌落式熔断器开关1套、综合配电箱1台（需带电作业配合）","powerOffId":"2020042931020763"},{"poweroffId":2020042931020672,"sgpoweroffId":null,"subsName":"","lineName":"10kV春时8986线","pubTranName":"白海六变,","scope":"浙江省-杭州市-滨江区-长河街道-闻涛社区(白金海岸小区,闻涛路)白金海岸小区8幢1、2单元住宅。","startTime":"2020-05-07 13:30:00","stopDate":"2020-05-07 16:30:00","orgNo":"3340101","typeCode":"计划停电","poweroffArea":"110kV江一变:春时8986线-白海六变后段","poweroffReason":"(低压停电信息)","powerTime":"2020-05-07 15:35:58","powerComm":"已送电","subsNo":"","lineNo":"","tgNo":"","tgName":null,"infoStatus":"1","orgName":"浙江杭州电力客户服务中心","typeName":null,"infoStatusName":null,"dateDay":null,"orgNos":null,"nowTime":null,"countyName":null,"streetName":null,"villageName":null,"roadName":null,"communityName":null,"tranName":null,"sdLineName":null,"cityCode":"3340101","cityName":"浙江杭州电力客户服务中心","provinceCode":null,"stopTime":"2020-05-07 16:30:00","powerType":"全部","powerOffArea":"110kV江一变:春时8986线-白海六变后段","powerOffReason":"(低压停电信息)","powerOffId":"2020042931020672"},{"poweroffId":2020042931020643,"sgpoweroffId":null,"subsName":"","lineName":"10kV笼山D252线","pubTranName":"西郊六号变,富阳市路灯安装维修管理所,民丰村8号横路公变,西郊十号变,新民村3#小坞坑公变配变,富阳金源废金属购销有限公司,城市建设投资公司1#变,富阳永通房地产开发有限公司1#变,西郊二号变,富阳市路灯安装维修管理所,国网浙江省电力有限公司杭州供电公司1#变,西郊八号变,城市建设投资公司4#变,西郊四号变,","scope":"浙江省-杭州市-富阳区-富春街道-城东社区(江滨东大道,江滨西大道),东洲街道-鸡笼山行政村-民丰自然村,富春街道-新民行政村-新民自然村;银湖街道-杭州富阳城市照明工程有限公司,富春街道(杭州市富阳区市政园林管理局,杭州富阳城市照明工程有限公司),东洲街道(富阳永通房地产开发有限公司,国网浙江省电力有限公司杭州供电公司,富阳金源废金属购销有限公司)","startTime":"2020-04-29 17:58:00","stopDate":"2020-04-29 19:58:00","orgNo":"3340170","typeCode":"电网故障停限电","poweroffArea":"110kV白鹤变:笼山D252线罗伊尔分线开关后段","poweroffReason":"高压开关跳闸","powerTime":"2020-04-29 19:09:07","powerComm":"已送电","subsNo":"","lineNo":"","tgNo":"","tgName":null,"infoStatus":"1","orgName":"国网浙江杭州市富阳区供电公司","typeName":null,"infoStatusName":null,"dateDay":null,"orgNos":null,"nowTime":null,"countyName":null,"streetName":null,"villageName":null,"roadName":null,"communityName":null,"tranName":null,"sdLineName":null,"cityCode":"3340170","cityName":"国网浙江杭州市富阳区供电公司","provinceCode":null,"stopTime":"2020-04-29 19:58:00","powerType":"全部","powerOffArea":"110kV白鹤变:笼山D252线罗伊尔分线开关后段","powerOffReason":"高压开关跳闸","powerOffId":"2020042931020643"},{"poweroffId":2020042931020616,"sgpoweroffId":null,"subsName":"","lineName":"10kV吴桥9932线","pubTranName":"鑫辉施7#变,西江施1#变,鑫辉施1#变,杭长(2),政府,墩陈灯,鑫辉施4#变,交投施八,方家村南（2）,甲来公园,原水施一盾构,鑫辉施5#变,融著施2#变,贝家闸,交投施三,贝村,原水施一2#变,油港施,杭州交通投资集团有限公司,鑫辉施6#变,鑫辉施2#变,交投施七,鑫辉施3#变,原水施一1#变,交投施四,绕城施,进达,融著施1#变,","scope":"浙江省-杭州市-西湖区-三墩镇(五幸社区-三仓路,吉鸿社区-吉鸿路);三墩镇-双桥行政村(杭州鑫建辉实业有限公司,杭州水务原水有限公司),三墩镇-吉鸿社区(杭州市西湖区城市管理局,杭州市路灯管理所,杭州融辉铭著实业有限公司,杭州西江置业有限公司),三墩镇-五幸社区(杭州进达五金机械制造有限公司,杭州市三墩镇人民政府,杭州市交通投资集团有限公司,浙江杭长高速公路有限公司)","startTime":"2020-04-29 17:23:07","stopDate":"2020-04-29 21:23:07","orgNo":"3340101","typeCode":"电网故障停限电","poweroffArea":"110kV墩北变:吴桥9932线","poweroffReason":"高压开关跳闸 原停电结束时间为2020-04-29 19:23:07,因施工现场环境比较复杂原因,延迟送电,现变更停电结束时间为2020-04-29 21:23:07","powerTime":"2020-04-29 20:28:56","powerComm":"已送电","subsNo":"","lineNo":"","tgNo":"","tgName":null,"infoStatus":"1","orgName":"浙江杭州电力客户服务中心","typeName":null,"infoStatusName":null,"dateDay":null,"orgNos":null,"nowTime":null,"countyName":null,"streetName":null,"villageName":null,"roadName":null,"communityName":null,"tranName":null,"sdLineName":null,"cityCode":"3340101","cityName":"浙江杭州电力客户服务中心","provinceCode":null,"stopTime":"2020-04-29 21:23:07","powerType":"全部","powerOffArea":"110kV墩北变:吴桥9932线","powerOffReason":"高压开关跳闸 原停电结束时间为2020-04-29 19:23:07,因施工现场环境比较复杂原因,延迟送电,现变更停电结束时间为2020-04-29 21:23:07","powerOffId":"2020042931020616"},{"poweroffId":2020042931020611,"sgpoweroffId":null,"subsName":"","lineName":"10kV地研9677线","pubTranName":"氟化,望溪幼施,桂溪施二,化宿变,桂溪施三,桂溪施四,化研二,桂溪施一,花坞村二,","scope":"浙江省-杭州市-西湖区-留下街道(杨家牌楼社区-西溪路,东岳社区-西溪路化工小区926号花坞新村,金鱼井社区-西溪路);留下街道(杭州绿城桂溪房地产开发有限公司,杭州绿城望溪房地产开发有限公司,浙江省化工研究院有限公司)","startTime":"2020-04-29 17:16:00","stopDate":"2020-04-29 18:56:00","orgNo":"3340101","typeCode":"电网故障停限电","poweroffArea":"220kV古荡变:地研9677线市泵分线开关后段","poweroffReason":"高压开关跳闸 原停电结束时间为2020-04-29 19:16:00,为减少客户停电时间,加快工作进度,提前送电,现变更停电结束时间为2020-04-29 18:56:00","powerTime":"2020-04-29 18:06:38","powerComm":"已送电","subsNo":"","lineNo":"","tgNo":"","tgName":null,"infoStatus":"1","orgName":"浙江杭州电力客户服务中心","typeName":null,"infoStatusName":null,"dateDay":null,"orgNos":null,"nowTime":null,"countyName":null,"streetName":null,"villageName":null,"roadName":null,"communityName":null,"tranName":null,"sdLineName":null,"cityCode":"3340101","cityName":"浙江杭州电力客户服务中心","provinceCode":null,"stopTime":"2020-04-29 18:56:00","powerType":"全部","powerOffArea":"220kV古荡变:地研9677线市泵分线开关后段","powerOffReason":"高压开关跳闸 原停电结束时间为2020-04-29 19:16:00,为减少客户停电时间,加快工作进度,提前送电,现变更停电结束时间为2020-04-29 18:56:00","powerOffId":"2020042931020611"},{"poweroffId":2020042931020562,"sgpoweroffId":null,"subsName":"","lineName":"10kV孙家T119线","pubTranName":"桐庐飞腾公路工程有限公司,桐庐县柴埠大桥建设有限公司,桐庐飞腾公路工程有限公司,","scope":"浙江省-杭州市-桐庐县-桐君街道-桐庐飞腾公路工程有限公司","startTime":"2020-04-29 16:35:00","stopDate":"2020-04-29 18:35:00","orgNo":"3340150","typeCode":"电网故障停限电","poweroffArea":"110kV桐庐变:孙家T119线柴桥用户站柴桥进线负荷开关后段","poweroffReason":"高压开关跳闸","powerTime":"2020-04-29 18:17:31","powerComm":"已送电","subsNo":"","lineNo":"","tgNo":"","tgName":null,"infoStatus":"1","orgName":"国网浙江桐庐县供电公司","typeName":null,"infoStatusName":null,"dateDay":null,"orgNos":null,"nowTime":null,"countyName":null,"streetName":null,"villageName":null,"roadName":null,"communityName":null,"tranName":null,"sdLineName":null,"cityCode":"3340150","cityName":"国网浙江桐庐县供电公司","provinceCode":null,"stopTime":"2020-04-29 18:35:00","powerType":"全部","powerOffArea":"110kV桐庐变:孙家T119线柴桥用户站柴桥进线负荷开关后段","powerOffReason":"高压开关跳闸","powerOffId":"2020042931020562"},{"poweroffId":2020042931020558,"sgpoweroffId":null,"subsName":"","lineName":"10kV郭信G963线","pubTranName":"五杭邮电所,运河镇五杭街道繁荣街公变,五杭村蔡家里公变,运河镇五杭街道塘口公变,运河二幼612066061802#变压器,杭州诚燕纺织有限公司,运河二幼612066061801#变压器,","scope":"浙江省-杭州市-余杭区-运河街道-杭信行政村-五杭大桥,运河街道-唐公行政村(唐公自然村,打铁桥,泾洋路),运河街道-五杭行政村(五杭,万丰东路,五杭万丰西路,五杭万丰东路,五杭繁荣路,五杭自然村,五杭街道,东四河自然村,中水渭自然村,蔡家里自然村,西村头自然村),运河街道-五杭社区(五杭,五杭街道万丰西路,万丰西路,五杭街道,万丰东路);运河街道(杭州诚燕纺织有限公司,中国电信股份有限公司杭州余杭区分公司,杭州市余杭区运河第二幼儿园)","startTime":"2020-04-29 16:33:00","stopDate":"2020-04-29 19:00:00","orgNo":"3340140","typeCode":"电网故障停限电","poweroffArea":"110kV博陆变:郭信G963线五杭砖瓦厂分线开关后段","poweroffReason":"高压开关跳闸 原停电结束时间为2020-04-29 18:33:00,因施工难度原因,延迟送电,现变更停电结束时间为2020-04-29 19:00:00","powerTime":"2020-04-29 18:55:47","powerComm":"已送电","subsNo":"","lineNo":"","tgNo":"","tgName":null,"infoStatus":"1","orgName":"国网浙江杭州市余杭区供电有限公司","typeName":null,"infoStatusName":null,"dateDay":null,"orgNos":null,"nowTime":null,"countyName":null,"streetName":null,"villageName":null,"roadName":null,"communityName":null,"tranName":null,"sdLineName":null,"cityCode":"3340140","cityName":"国网浙江杭州市余杭区供电有限公司","provinceCode":null,"stopTime":"2020-04-29 19:00:00","powerType":"全部","powerOffArea":"110kV博陆变:郭信G963线五杭砖瓦厂分线开关后段","powerOffReason":"高压开关跳闸 原停电结束时间为2020-04-29 18:33:00,因施工难度原因,延迟送电,现变更停电结束时间为2020-04-29 19:00:00","powerOffId":"2020042931020558"},{"poweroffId":2020042931020554,"sgpoweroffId":null,"subsName":"","lineName":"10kV茶园R281线","pubTranName":"淳安千岛湖龙娃水产养殖场配变,淳安县石林镇茶园村村民委员会配变,石林镇茶园村九龙源1#公变,","scope":"浙江省-杭州市-淳安县-石林镇-茶园行政村(里湖家自然村,九龙源一自然村,九龙源二自然村);石林镇-茶园行政村(杭州恒兴活性炭有限公司,淳安县石林镇茶园村村民委员会)","startTime":"2020-05-15 08:00:00","stopDate":"2020-05-15 12:30:00","orgNo":"3340190","typeCode":"计划停电","poweroffArea":"110kV石林变:茶园R281线-九龙源支线0号杆开关","poweroffReason":"220千伏配套10千伏迁改工程;茶园R281线九龙源支线4号搭接 原停电结束时间为2020-05-15 11:30:00,因现场勘察施工难度较大原因,延迟送电,现变更停电结束时间为2020-05-15 12:30:00","powerTime":"2020-05-15 11:53:38","powerComm":"已送电","subsNo":"","lineNo":"","tgNo":"","tgName":null,"infoStatus":"1","orgName":"国网浙江淳安县供电有限公司","typeName":null,"infoStatusName":null,"dateDay":null,"orgNos":null,"nowTime":null,"countyName":null,"streetName":null,"villageName":null,"roadName":null,"communityName":null,"tranName":null,"sdLineName":null,"cityCode":"3340190","cityName":"国网浙江淳安县供电有限公司","provinceCode":null,"stopTime":"2020-05-15 12:30:00","powerType":"全部","powerOffArea":"110kV石林变:茶园R281线-九龙源支线0号杆开关","powerOffReason":"220千伏配套10千伏迁改工程;茶园R281线九龙源支线4号搭接 原停电结束时间为2020-05-15 11:30:00,因现场勘察施工难度较大原因,延迟送电,现变更停电结束时间为2020-05-15 12:30:00","powerOffId":"2020042931020554"},{"poweroffId":2020042931020553,"sgpoweroffId":null,"subsName":"","lineName":"10kV富溪R283线","pubTranName":"修坑坞配变,双岭村修坑口,","scope":"浙江省-杭州市-淳安县-石林镇-富德行政村(修坑口自然村,修坑坞自然村)","startTime":"2020-05-15 08:00:00","stopDate":"2020-05-15 11:30:00","orgNo":"3340190","typeCode":"计划停电","poweroffArea":"110kV石林变:富溪R283线-修坑坞支线0号杆开关后段","poweroffReason":"220千伏配套10 千伏迁改工程;修坑坞支线5-8#杆脚跨临时过度电缆拆除 原停电结束时间为2020-05-14 11:30:00,因周计划变更原因,延迟送电,现变更停电结束时间为2020-05-15 11:30:00","powerTime":"","powerComm":"","subsNo":"","lineNo":"","tgNo":"","tgName":null,"infoStatus":"1","orgName":"国网浙江淳安县供电有限公司","typeName":null,"infoStatusName":null,"dateDay":null,"orgNos":null,"nowTime":null,"countyName":null,"streetName":null,"villageName":null,"roadName":null,"communityName":null,"tranName":null,"sdLineName":null,"cityCode":"3340190","cityName":"国网浙江淳安县供电有限公司","provinceCode":null,"stopTime":"2020-05-15 11:30:00","powerType":"未送电","powerOffArea":"110kV石林变:富溪R283线-修坑坞支线0号杆开关后段","powerOffReason":"220千伏配套10 千伏迁改工程;修坑坞支线5-8#杆脚跨临时过度电缆拆除 原停电结束时间为2020-05-14 11:30:00,因周计划变更原因,延迟送电,现变更停电结束时间为2020-05-15 11:30:00","powerOffId":"2020042931020553"}],"pageModel":{"pageNow":257,"totalCount":17788,"totalPage":1779,"tableRows":0,"pageCount":10,"beginCount":2560},"isExperi":"1"}