{"message":"","today":"2020-06-15","seleList":[{"poweroffId":2020042931020548,"sgpoweroffId":null,"subsName":"","lineName":"10kV博镇G962线","pubTranName":"运河镇博陆村北西桥公变,东新村四联北公变,运河镇博陆街道长子港公变,运河镇螺蛳桥村西港公变,运河镇博陆街道二号公变,博陆街道4号公变,博陆邮电所,螺蛳桥村渔种场2号公变,运河镇东新村四联南公变,运河镇东新村朱家里公变,盛彩风管,盛彩风管2,运河镇螺蛳桥村二家村公变,佳网制丝,杭州余杭纺织机械厂,运河镇螺蛳桥村渔种场公变,运河镇博陆村庄前湾公变,运河镇螺蛳桥村浪网圩公变,博陆街道3号公变,","scope":"浙江省-杭州市-余杭区-运河街道-螺蛳桥行政村(晾网圩,博陆,螺丝桥自然村,螺蛳桥自然村,晾网圩自然村,螺丝桥,二家自然村,螺蛳桥),运河街道-博陆行政村(南元自然村,庄前村,庄前自然村,博陆自然村,博陆街道,鹿溪路,南园自然村,南园里,博陆,打鸟浜自然村,打鸟滨,祥子苑自然村,博陆长子自然村,金锁路),运河街道-东新行政村(扶栏桥自然村,南石桥自然村,东新自然村,南石桥村,育士路),运河街道-博陆社区(博陆,朱家桥,鹿溪路,博陆街道,博陆自然村,鹿溪中路,庄前自然村,南元自然村,高家弄,金锁路,天顺路,育士路,张家弄,南石桥自然村,戚家桥自然村);运河街道(中国邮政集团公司杭州市余杭区分公司,杭州盛全捷机械有限公司,杭州盛彩风管有限公司,杭州万博纺织机械有限公司)","startTime":"2020-04-29 16:21:00","stopDate":"2020-04-29 23:50:00","orgNo":"3340140","typeCode":"电网故障停限电","poweroffArea":"110kV博陆变:博镇G962线博镇G9621开关后段","poweroffReason":"高压开关跳闸 原停电结束时间为2020-04-29 18:21:00,因施工难度大原因,延迟送电,现变更停电结束时间为2020-04-29 23:50:00","powerTime":"2020-04-29 23:47:00","powerComm":"已送电","subsNo":"","lineNo":"","tgNo":"","tgName":null,"infoStatus":"1","orgName":"国网浙江杭州市余杭区供电有限公司","typeName":null,"infoStatusName":null,"dateDay":null,"orgNos":null,"nowTime":null,"countyName":null,"streetName":null,"villageName":null,"roadName":null,"communityName":null,"tranName":null,"sdLineName":null,"cityCode":"3340140","cityName":"国网浙江杭州市余杭区供电有限公司","provinceCode":null,"stopTime":"2020-04-29 23:50:00","powerType":"全部","powerOffArea":"110kV博陆变:博镇G962线博镇G9621开关后段","powerOffReason":"高压开关跳闸 原停电结束时间为2020-04-29 18:21:00,因施工难度大原因,延迟送电,现变更停电结束时间为2020-04-29 23:50:00","powerOffId":"2020042931020548"},{"poweroffId":2020042931020545,"sgpoweroffId":null,"subsName":"","lineName":"10kV松艮8135线","pubTranName":"嘉汇,","scope":"浙江省-杭州市-下城区-朝晖街道-施家花园社区-朝晖路，浙江省杭州市下城区嘉汇大厦附近","startTime":"2020-05-14 09:30:00","stopDate":"2020-05-14 11:30:00","orgNo":"3340101","typeCode":"计划停电","poweroffArea":"220kV运河变:松艮8135线-嘉汇站嘉汇配变","poweroffReason":"嘉汇更换终端 原停电结束时间为2020-05-14 17:30:00,为减少客户停电时间,加快工作进度,提前送电,现变更停电结束时间为2020-05-14 11:30:00","powerTime":"2020-05-14 10:46:41","powerComm":"已送电","subsNo":"","lineNo":"","tgNo":"","tgName":null,"infoStatus":"1","orgName":"浙江杭州电力客户服务中心","typeName":null,"infoStatusName":null,"dateDay":null,"orgNos":null,"nowTime":null,"countyName":null,"streetName":null,"villageName":null,"roadName":null,"communityName":null,"tranName":null,"sdLineName":null,"cityCode":"3340101","cityName":"浙江杭州电力客户服务中心","provinceCode":null,"stopTime":"2020-05-14 11:30:00","powerType":"全部","powerOffArea":"220kV运河变:松艮8135线-嘉汇站嘉汇配变","powerOffReason":"嘉汇更换终端 原停电结束时间为2020-05-14 17:30:00,为减少客户停电时间,加快工作进度,提前送电,现变更停电结束时间为2020-05-14 11:30:00","powerOffId":"2020042931020545"},{"poweroffId":2020042931020544,"sgpoweroffId":null,"subsName":"","lineName":"10kV蚕宣9118线","pubTranName":"宣家(3-2)农,","scope":"浙江省-杭州市-江干区-九堡街道-宣家埠村-九横路，浙江省杭州市江干区宣家埠一区138-146号附近","startTime":"2020-05-15 09:30:00","stopDate":"2020-05-15 11:00:00","orgNo":"3340101","typeCode":"计划停电","poweroffArea":"110kV蚕桑变:蚕宣9118线-宣家站宣家（4）农分宣家（3-2）农配变跌落式开关","poweroffReason":"宣家（3-2）农更换终端 原停电结束时间为2020-05-15 17:30:00,为减少客户停电时间,加快工作进度,提前送电,现变更停电结束时间为2020-05-15 11:00:00","powerTime":"2020-05-15 10:14:59","powerComm":"已送电","subsNo":"","lineNo":"","tgNo":"","tgName":null,"infoStatus":"1","orgName":"浙江杭州电力客户服务中心","typeName":null,"infoStatusName":null,"dateDay":null,"orgNos":null,"nowTime":null,"countyName":null,"streetName":null,"villageName":null,"roadName":null,"communityName":null,"tranName":null,"sdLineName":null,"cityCode":"3340101","cityName":"浙江杭州电力客户服务中心","provinceCode":null,"stopTime":"2020-05-15 11:00:00","powerType":"全部","powerOffArea":"110kV蚕桑变:蚕宣9118线-宣家站宣家（4）农分宣家（3-2）农配变跌落式开关","powerOffReason":"宣家（3-2）农更换终端 原停电结束时间为2020-05-15 17:30:00,为减少客户停电时间,加快工作进度,提前送电,现变更停电结束时间为2020-05-15 11:00:00","powerOffId":"2020042931020544"},{"poweroffId":2020042931020543,"sgpoweroffId":null,"subsName":"","lineName":"10kV河东6073线","pubTranName":"群艺（1）,三区(4),群艺（2）,","scope":"浙江省-杭州市-下城区-朝晖街道-华联社区(河东路,朝晖三区小区)，浙江省杭州市下城区朝晖三小区10-19幢，36-41幢附近","startTime":"2020-05-14 09:35:00","stopDate":"2020-05-14 18:50:00","orgNo":"3340101","typeCode":"计划停电","poweroffArea":"110kV朝晖变:河东6073线首端，朝三站三区（4）分线","poweroffReason":"朝三站三区（4）分线修树 原停电结束时间为2020-05-14 18:00:00,因工程量大原因,延迟送电,现变更停电结束时间为2020-05-14 18:50:00","powerTime":"2020-05-14 18:01:01","powerComm":"已送电","subsNo":"","lineNo":"","tgNo":"","tgName":null,"infoStatus":"1","orgName":"浙江杭州电力客户服务中心","typeName":null,"infoStatusName":null,"dateDay":null,"orgNos":null,"nowTime":null,"countyName":null,"streetName":null,"villageName":null,"roadName":null,"communityName":null,"tranName":null,"sdLineName":null,"cityCode":"3340101","cityName":"浙江杭州电力客户服务中心","provinceCode":null,"stopTime":"2020-05-14 18:50:00","powerType":"全部","powerOffArea":"110kV朝晖变:河东6073线首端，朝三站三区（4）分线","powerOffReason":"朝三站三区（4）分线修树 原停电结束时间为2020-05-14 18:00:00,因工程量大原因,延迟送电,现变更停电结束时间为2020-05-14 18:50:00","powerOffId":"2020042931020543"},{"poweroffId":2020042931020541,"sgpoweroffId":null,"subsName":"","lineName":"10kV张江6884线","pubTranName":"军宿(1),贾家三,","scope":"浙江省-杭州市-拱墅区-湖墅街道-浙江省杭州市拱墅区信义坊1-3幢，4幢1单元，信义坊新村13幢1-2单元，贾家弄新村2、3、11、12、17幢，贾家新村杭一毛宿舍附近、浙江元谷文创产业发展有限公司","startTime":"2020-05-13 09:18:00","stopDate":"2020-05-13 19:00:00","orgNo":"3340101","typeCode":"计划停电","poweroffArea":"110kV文化变:张江6884线首端，贾家二线（贾家新三站-贾家新二站）、贾家新三站军宿一分线、贾家新三站贾家三配变、贾家新三站元谷分线、贾家三线（贾家新三站-贾家新四站）","poweroffReason":"香积寺路西延工程10kV贾家新三站迁改工程（大达 曹细建 656306） 1、贾家新三站移位 2、电缆拆、搭头试验等工作。 原停电结束时间为2020-05-13 18:30:00,因施工原因,延迟送电,现变更停电结束时间为2020-05-13 19:00:00","powerTime":"2020-05-13 18:43:56","powerComm":"已送电","subsNo":"","lineNo":"","tgNo":"","tgName":null,"infoStatus":"1","orgName":"浙江杭州电力客户服务中心","typeName":null,"infoStatusName":null,"dateDay":null,"orgNos":null,"nowTime":null,"countyName":null,"streetName":null,"villageName":null,"roadName":null,"communityName":null,"tranName":null,"sdLineName":null,"cityCode":"3340101","cityName":"浙江杭州电力客户服务中心","provinceCode":null,"stopTime":"2020-05-13 19:00:00","powerType":"全部","powerOffArea":"110kV文化变:张江6884线首端，贾家二线（贾家新三站-贾家新二站）、贾家新三站军宿一分线、贾家新三站贾家三配变、贾家新三站元谷分线、贾家三线（贾家新三站-贾家新四站）","powerOffReason":"香积寺路西延工程10kV贾家新三站迁改工程（大达 曹细建 656306） 1、贾家新三站移位 2、电缆拆、搭头试验等工作。 原停电结束时间为2020-05-13 18:30:00,因施工原因,延迟送电,现变更停电结束时间为2020-05-13 19:00:00","powerOffId":"2020042931020541"},{"poweroffId":2020042931020540,"sgpoweroffId":null,"subsName":"","lineName":"10kV学东8654线","pubTranName":"华门2#,","scope":"浙江省-杭州市-西湖区-翠苑街道-黄姑山社区(学院路,文三路)，浙江省杭州市西湖区华门世家C幢1-4单元","startTime":"2020-05-13 09:30:00","stopDate":"2020-05-13 14:30:00","orgNo":"3340101","typeCode":"计划停电","poweroffArea":"220kV庆丰变:学东8654线-华门二线（中科站-华门站）；高专站11#间隔","poweroffReason":"杭州地铁10号线文三路站10kV电力迁改二期工程（丰安）华门二线迁改 原停电结束时间为2020-05-13 17:00:00,为减少客户停电时间,加快工作进度,提前送电,现变更停电结束时间为2020-05-13 14:30:00","powerTime":"2020-05-13 14:07:59","powerComm":"已送电","subsNo":"","lineNo":"","tgNo":"","tgName":null,"infoStatus":"1","orgName":"浙江杭州电力客户服务中心","typeName":null,"infoStatusName":null,"dateDay":null,"orgNos":null,"nowTime":null,"countyName":null,"streetName":null,"villageName":null,"roadName":null,"communityName":null,"tranName":null,"sdLineName":null,"cityCode":"3340101","cityName":"浙江杭州电力客户服务中心","provinceCode":null,"stopTime":"2020-05-13 14:30:00","powerType":"全部","powerOffArea":"220kV庆丰变:学东8654线-华门二线（中科站-华门站）；高专站11#间隔","powerOffReason":"杭州地铁10号线文三路站10kV电力迁改二期工程（丰安）华门二线迁改 原停电结束时间为2020-05-13 17:00:00,为减少客户停电时间,加快工作进度,提前送电,现变更停电结束时间为2020-05-13 14:30:00","powerOffId":"2020042931020540"},{"poweroffId":2020042931020539,"sgpoweroffId":null,"subsName":"","lineName":"10kV丁美9241线","pubTranName":"长睦(一),","scope":"浙江省-杭州市-江干区-丁桥镇-长睦苑社区(大农港路,长虹路)，浙江省杭州市江干区长睦家苑8，9，11，12幢附近","startTime":"2020-05-12 09:30:00","stopDate":"2020-05-12 11:00:00","orgNo":"3340101","typeCode":"计划停电","poweroffArea":"110kV东风变:丁美9241线-长睦一站长睦一配变","poweroffReason":"长睦（一）更换终端 原停电结束时间为2020-05-12 17:30:00,为减少客户停电时间,加快工作进度,提前送电,现变更停电结束时间为2020-05-12 11:00:00","powerTime":"2020-05-12 10:31:51","powerComm":"已送电","subsNo":"","lineNo":"","tgNo":"","tgName":null,"infoStatus":"1","orgName":"浙江杭州电力客户服务中心","typeName":null,"infoStatusName":null,"dateDay":null,"orgNos":null,"nowTime":null,"countyName":null,"streetName":null,"villageName":null,"roadName":null,"communityName":null,"tranName":null,"sdLineName":null,"cityCode":"3340101","cityName":"浙江杭州电力客户服务中心","provinceCode":null,"stopTime":"2020-05-12 11:00:00","powerType":"全部","powerOffArea":"110kV东风变:丁美9241线-长睦一站长睦一配变","powerOffReason":"长睦（一）更换终端 原停电结束时间为2020-05-12 17:30:00,为减少客户停电时间,加快工作进度,提前送电,现变更停电结束时间为2020-05-12 11:00:00","powerOffId":"2020042931020539"},{"poweroffId":2020042931020538,"sgpoweroffId":null,"subsName":"","lineName":"10kV中科8653线","pubTranName":"华门1#,","scope":"浙江省-杭州市-西湖区-翠苑街道-浙江省杭州市西湖区华门世家A幢1-3单元，B幢","startTime":"2020-05-12 09:30:00","stopDate":"2020-05-12 15:30:00","orgNo":"3340101","typeCode":"计划停电","poweroffArea":"220kV庆丰变:中科8653线-华门一线（中科站-华门站）；高专站6#间隔","poweroffReason":"杭州地铁10号线文三路站10kV电力迁改二期工程（丰安） 华门一线迁改 原停电结束时间为2020-05-12 17:00:00,为减少客户停电时间,加快工作进度,提前送电,现变更停电结束时间为2020-05-12 15:30:00","powerTime":"2020-05-12 14:58:59","powerComm":"已送电","subsNo":"","lineNo":"","tgNo":"","tgName":null,"infoStatus":"1","orgName":"浙江杭州电力客户服务中心","typeName":null,"infoStatusName":null,"dateDay":null,"orgNos":null,"nowTime":null,"countyName":null,"streetName":null,"villageName":null,"roadName":null,"communityName":null,"tranName":null,"sdLineName":null,"cityCode":"3340101","cityName":"浙江杭州电力客户服务中心","provinceCode":null,"stopTime":"2020-05-12 15:30:00","powerType":"全部","powerOffArea":"220kV庆丰变:中科8653线-华门一线（中科站-华门站）；高专站6#间隔","powerOffReason":"杭州地铁10号线文三路站10kV电力迁改二期工程（丰安） 华门一线迁改 原停电结束时间为2020-05-12 17:00:00,为减少客户停电时间,加快工作进度,提前送电,现变更停电结束时间为2020-05-12 15:30:00","powerOffId":"2020042931020538"},{"poweroffId":2020042931020519,"sgpoweroffId":null,"subsName":"","lineName":"10kV夏峰R169线","pubTranName":"沿店公变,","scope":"浙江省-杭州市-淳安县-枫树岭镇-薛家源行政村-沿店自然村","startTime":"2020-05-15 08:00:00","stopDate":"2020-05-15 11:00:00","orgNo":"3340190","typeCode":"计划停电","poweroffArea":"35kV大市变:夏峰R169线-沿店公变跌落式熔断器后段","poweroffReason":"(低压停电信息)薛家源村低压台区改造工程：1.带电作业新10KV沿店支线0#杆熔丝具上引线搭接。2.沿店台区配变增容，低压线路割接。 3.带电剪断沿店配变熔丝具上引线。4.沿店台区旧配变及低压柜低压线路拆旧。","powerTime":"2020-05-15 10:52:06","powerComm":"已送电","subsNo":"","lineNo":"","tgNo":"","tgName":null,"infoStatus":"1","orgName":"国网浙江淳安县供电有限公司","typeName":null,"infoStatusName":null,"dateDay":null,"orgNos":null,"nowTime":null,"countyName":null,"streetName":null,"villageName":null,"roadName":null,"communityName":null,"tranName":null,"sdLineName":null,"cityCode":"3340190","cityName":"国网浙江淳安县供电有限公司","provinceCode":null,"stopTime":"2020-05-15 11:00:00","powerType":"全部","powerOffArea":"35kV大市变:夏峰R169线-沿店公变跌落式熔断器后段","powerOffReason":"(低压停电信息)薛家源村低压台区改造工程：1.带电作业新10KV沿店支线0#杆熔丝具上引线搭接。2.沿店台区配变增容，低压线路割接。 3.带电剪断沿店配变熔丝具上引线。4.沿店台区旧配变及低压柜低压线路拆旧。","powerOffId":"2020042931020519"},{"poweroffId":2020042931020497,"sgpoweroffId":null,"subsName":"","lineName":"10kV云峰H872线","pubTranName":"中桥建筑队,","scope":"浙江省-杭州市-余杭区-中泰街道-中桥建筑队","startTime":"2020-04-29 15:52:00","stopDate":"2020-04-29 17:44:00","orgNo":"3340140","typeCode":"电网故障停限电","poweroffArea":"110kV中泰变:云峰H872线中桥建筑队配变","poweroffReason":"高压开关跳闸","powerTime":"2020-04-29 16:50:40","powerComm":"已送电","subsNo":"","lineNo":"","tgNo":"","tgName":null,"infoStatus":"1","orgName":"国网浙江杭州市余杭区供电有限公司","typeName":null,"infoStatusName":null,"dateDay":null,"orgNos":null,"nowTime":null,"countyName":null,"streetName":null,"villageName":null,"roadName":null,"communityName":null,"tranName":null,"sdLineName":null,"cityCode":"3340140","cityName":"国网浙江杭州市余杭区供电有限公司","provinceCode":null,"stopTime":"2020-04-29 17:44:00","powerType":"全部","powerOffArea":"110kV中泰变:云峰H872线中桥建筑队配变","powerOffReason":"高压开关跳闸","powerOffId":"2020042931020497"}],"pageModel":{"pageNow":258,"totalCount":17788,"totalPage":1779,"tableRows":0,"pageCount":10,"beginCount":2570},"isExperi":"1"}