{"message":"","today":"2020-06-15","seleList":[{"poweroffId":2020042931020004,"sgpoweroffId":null,"subsName":"","lineName":"10kV阳逸7033线","pubTranName":"逸城（十四）,","scope":"浙江省-杭州市-江干区-丁桥镇-长虹社区(环丁路,阳光逸城小区)","startTime":"2020-04-29 00:53:00","stopDate":"2020-04-29 02:00:00","orgNo":"3340101","typeCode":"电网故障停限电","poweroffArea":"110kV锦唐变:阳逸7033线逸城（十四）配变","poweroffReason":"高压开关跳闸 原停电结束时间为2020-04-29 07:53:00,为减少客户停电时间,加快工作进度,提前送电,现变更停电结束时间为2020-04-29 02:00:00","powerTime":"2020-04-29 01:18:23","powerComm":"已送电","subsNo":"","lineNo":"","tgNo":"","tgName":null,"infoStatus":"1","orgName":"浙江杭州电力客户服务中心","typeName":null,"infoStatusName":null,"dateDay":null,"orgNos":null,"nowTime":null,"countyName":null,"streetName":null,"villageName":null,"roadName":null,"communityName":null,"tranName":null,"sdLineName":null,"cityCode":"3340101","cityName":"浙江杭州电力客户服务中心","provinceCode":null,"stopTime":"2020-04-29 02:00:00","powerType":"全部","powerOffArea":"110kV锦唐变:阳逸7033线逸城（十四）配变","powerOffReason":"高压开关跳闸 原停电结束时间为2020-04-29 07:53:00,为减少客户停电时间,加快工作进度,提前送电,现变更停电结束时间为2020-04-29 02:00:00","powerOffId":"2020042931020004"},{"poweroffId":2020042931020003,"sgpoweroffId":null,"subsName":"","lineName":"10kV阳逸7033线","pubTranName":"北铭六,逸城（十六）,逸城（十二）,逸城（十一）,丁兰（四）,北铭四,丁兰（十）,逸城（十六）,丁兰（十六）,北铭八,逸城（十二）,逸城（十五）,丁兰（十四）,兰会,逸城（九）,丁兰（十二）,丁兰（六）,逸城（九）,丁兰（八）,逸城（十一）,逸城（十）,北铭二,丁兰（二）,逸城（十）,逸城（十五）,","scope":"浙江省-杭州市-江干区-丁桥镇-长虹社区-环丁路","startTime":"2020-04-29 00:49:04","stopDate":"2020-04-29 01:49:04","orgNo":"3340101","typeCode":"电网故障停限电","poweroffArea":"110kV锦唐变:阳逸7033线-逸城八线后段;逸城六线后段;逸城四线后段;逸城二线后段","poweroffReason":"高压开关跳闸 原停电结束时间为2020-04-29 07:49:04,为减少客户停电时间,加快工作进度,提前送电,现变更停电结束时间为2020-04-29 01:49:04","powerTime":"2020-04-29 01:11:11","powerComm":"已送电","subsNo":"","lineNo":"","tgNo":"","tgName":null,"infoStatus":"1","orgName":"浙江杭州电力客户服务中心","typeName":null,"infoStatusName":null,"dateDay":null,"orgNos":null,"nowTime":null,"countyName":null,"streetName":null,"villageName":null,"roadName":null,"communityName":null,"tranName":null,"sdLineName":null,"cityCode":"3340101","cityName":"浙江杭州电力客户服务中心","provinceCode":null,"stopTime":"2020-04-29 01:49:04","powerType":"全部","powerOffArea":"110kV锦唐变:阳逸7033线-逸城八线后段;逸城六线后段;逸城四线后段;逸城二线后段","powerOffReason":"高压开关跳闸 原停电结束时间为2020-04-29 07:49:04,为减少客户停电时间,加快工作进度,提前送电,现变更停电结束时间为2020-04-29 01:49:04","powerOffId":"2020042931020003"},{"poweroffId":2020042931020001,"sgpoweroffId":null,"subsName":"","lineName":"10kV阳逸7033线","pubTranName":"逸城（十六）,逸城（十五）,","scope":"浙江省-杭州市-江干区-丁桥镇-长虹社区-环丁路","startTime":"2020-04-29 00:00:40","stopDate":"2020-04-29 01:40:40","orgNo":"3340101","typeCode":"电网故障停限电","poweroffArea":"110kV锦唐变:阳逸7033线-逸城八线后段","poweroffReason":"高压开关跳闸 原停电结束时间为2020-04-29 07:00:40,为减少客户停电时间,加快工作进度,提前送电,现变更停电结束时间为2020-04-29 01:40:40","powerTime":"2020-04-29 01:11:48","powerComm":"已送电","subsNo":"","lineNo":"","tgNo":"","tgName":null,"infoStatus":"1","orgName":"浙江杭州电力客户服务中心","typeName":null,"infoStatusName":null,"dateDay":null,"orgNos":null,"nowTime":null,"countyName":null,"streetName":null,"villageName":null,"roadName":null,"communityName":null,"tranName":null,"sdLineName":null,"cityCode":"3340101","cityName":"浙江杭州电力客户服务中心","provinceCode":null,"stopTime":"2020-04-29 01:40:40","powerType":"全部","powerOffArea":"110kV锦唐变:阳逸7033线-逸城八线后段","powerOffReason":"高压开关跳闸 原停电结束时间为2020-04-29 07:00:40,为减少客户停电时间,加快工作进度,提前送电,现变更停电结束时间为2020-04-29 01:40:40","powerOffId":"2020042931020001"},{"poweroffId":2020042831020299,"sgpoweroffId":null,"subsName":"","lineName":"10kV宏丰H804线","pubTranName":"美力电子,荆岭通信,横板桥股份经济合作社,恒威通信,求实检测,浙江油田分公司,耀丰塑钢,浙江油田3#,荆山村回族村,鑫唛建筑,宏丰立新基建,杭州成洲锯业工具有限公司,","scope":"浙江省-杭州市-余杭区-五常街道-荆山社区(闲林东路,社区),五常街道(荆山行政村-荆山自然村,友谊社区-后山路);五常街道-横板桥社区(杭州余杭横板桥股份经济合作社,杭州余杭区仓前街道鑫唛建筑材料经营部),五常街道-荆山社区(杭州恒威通信设备有限公司,中国石油天然气股份有限公司浙江油田分公司,杭州美力电子有限公司,浙江宏丰立新控股有限公司),五常街道-五常社区(杭州求实工程质量检测有限公司,杭州荆岭通信设备有限公司),五常街道(五常行政村-浙江耀华建材有限公司,文一社区-中国石油天然气股份有限公司浙江油田分公司,友谊行政村-杭州布镭德工具有限公司)","startTime":"2020-04-28 22:50:54","stopDate":"2020-04-29 00:50:54","orgNo":"3340140","typeCode":"电网故障停限电","poweroffArea":"110kV油车变:宏丰H804线-回族村分线开关后段","poweroffReason":"高压开关跳闸","powerTime":"2020-04-28 23:58:03","powerComm":"已送电","subsNo":"","lineNo":"","tgNo":"","tgName":null,"infoStatus":"1","orgName":"国网浙江杭州市余杭区供电有限公司","typeName":null,"infoStatusName":null,"dateDay":null,"orgNos":null,"nowTime":null,"countyName":null,"streetName":null,"villageName":null,"roadName":null,"communityName":null,"tranName":null,"sdLineName":null,"cityCode":"3340140","cityName":"国网浙江杭州市余杭区供电有限公司","provinceCode":null,"stopTime":"2020-04-29 00:50:54","powerType":"全部","powerOffArea":"110kV油车变:宏丰H804线-回族村分线开关后段","powerOffReason":"高压开关跳闸","powerOffId":"2020042831020299"},{"poweroffId":2020042831020298,"sgpoweroffId":null,"subsName":"","lineName":"10kV宏丰H804线","pubTranName":"求实检测,耀丰塑钢,恒威通信,浙江油田3#,宏丰立新基建,美力电子,荆山村回族村,横板桥股份经济合作社,荆岭通信,鑫唛建筑,杭州成洲锯业工具有限公司,浙江油田分公司,","scope":"浙江省-杭州市-余杭区-五常街道-荆山社区(闲林东路,社区),五常街道(荆山行政村-荆山自然村,友谊社区-后山路);五常街道-横板桥社区(杭州余杭横板桥股份经济合作社,杭州余杭区仓前街道鑫唛建筑材料经营部),五常街道-荆山社区(杭州恒威通信设备有限公司,中国石油天然气股份有限公司浙江油田分公司,杭州美力电子有限公司,浙江宏丰立新控股有限公司),五常街道-五常社区(杭州求实工程质量检测有限公司,杭州荆岭通信设备有限公司),五常街道(五常行政村-浙江耀华建材有限公司,文一社区-中国石油天然气股份有限公司浙江油田分公司,友谊行政村-杭州布镭德工具有限公司)","startTime":"2020-04-28 22:47:49","stopDate":"2020-04-29 00:47:49","orgNo":"3340140","typeCode":"电网故障停限电","poweroffArea":"110kV油车变:宏丰H804线-回族村分线开关后段","poweroffReason":"高压开关跳闸","powerTime":"2020-04-28 23:58:32","powerComm":"已送电","subsNo":"","lineNo":"","tgNo":"","tgName":null,"infoStatus":"1","orgName":"国网浙江杭州市余杭区供电有限公司","typeName":null,"infoStatusName":null,"dateDay":null,"orgNos":null,"nowTime":null,"countyName":null,"streetName":null,"villageName":null,"roadName":null,"communityName":null,"tranName":null,"sdLineName":null,"cityCode":"3340140","cityName":"国网浙江杭州市余杭区供电有限公司","provinceCode":null,"stopTime":"2020-04-29 00:47:49","powerType":"全部","powerOffArea":"110kV油车变:宏丰H804线-回族村分线开关后段","powerOffReason":"高压开关跳闸","powerOffId":"2020042831020298"},{"poweroffId":2020042831020296,"sgpoweroffId":null,"subsName":"","lineName":"10kV宏丰H804线","pubTranName":"宏丰家居C4(1),I段配变,荆山翠谷(13)公变,荆山翠谷(7)公用,1#,浙江宏丰立新控股有限公司8#专变（6120028428）,鑫唛建筑,浙江油田1#,宏丰家居C1(1),宏丰家居C3(3),宏丰家居C2(1),西溪庭院1B,西溪庭院6B,西溪庭院8B,I段配变,璞玉雅园3号公变,宏驰箱包,荆山翠谷(6)公用,西溪庭院2B,荆岭通信,横板桥股份经济合作社,浙江省立同德医院II段3#专变,宏丰家居C4(3),1#,宏丰家居城2#,荆余路3#路灯变,西溪庭院3B,西溪庭院4B,耀丰塑钢,荆山翠谷(9)公变,荆山村唐家斗2#公变,杭州成洲锯业工具有限公司,荆山村唐家斗公变,荆山翠谷(11)公变,宏丰家居C5(1),荆山翠谷(5)公用,2#,璞玉雅园14号公变,宏丰家居C3(1),盛世嘉园专变,盛世嘉园5公用,璞玉雅园4号公变,盛世嘉园8公用,宏丰家居城9#,求实检测,宏丰家居城4#,宏丰立新基建,璞玉雅园2号公变,狮锋合金,美力电子,宏丰家居C5(3),璞玉雅园1号公变,宏丰家居C2(3),宏丰家居城1#,西溪庭院5B,茂昌挖机,浙江宏丰立新控股有限公司7#专变（6120028428）,西溪庭院7B,荆山村回族村,荆山翠谷(8)公用,宏丰家居城10#,浙江油田分公司,浙江油田3#,恒威通信,02省道路灯(1),盛世嘉园7公用,璞玉雅园13号公变,盛世嘉园6公用,景悦纸品,浙江省立同德医院II段4#专变,","scope":"浙江省-杭州市-余杭区-五常街道-荆山行政村(荆山自然村,唐家土斗自然村),五常街道-荆山社区(闲林东路,社区,丰岭路),闲林街道(华丰行政村-天目山西路,民丰行政村-天目山西路),五常街道(友谊社区-后山路,白庙行政村-白庙自然村,顾家桥社区-荆长路);闲林街道(绿城物业服务集团有限公司余杭分公司,浙江省立同德医院),五常街道(杭州景悦纸品有限公司,浙江耀华建材有限公司,杭州求实工程质量检测有限公司,杭州恒威通信设备有限公司,杭州余杭横板桥股份经济合作社,中国石油天然气股份有限公司浙江油田分公司,杭州宏驰箱包有限公司,杭州余杭区五常街道茂昌挖掘机修理行,浙江佳源物业服务集团有限公司杭州分公司,杭州市余杭区城市管理综合行政执法局,浙江宏丰立新控股有限公司,杭州荆岭通信设备有限公司,杭州狮锋硬质合金有限公司,杭州市余杭区人民政府五常街道办事处,杭州美力电子有限公司,杭州布镭德工具有限公司,杭州市余杭区五常街道农民多层公寓建设管理中心,佳兆业物业管理(深圳)有限公司杭州临平分公司,杭州余杭区仓前街道鑫唛建筑材料经营部)","startTime":"2020-04-28 21:44:00","stopDate":"2020-04-28 23:39:00","orgNo":"3340140","typeCode":"电网故障停限电","poweroffArea":"110kV油车变:宏丰H804线宏丰开关站宏丰开关站宏丰H804线后段","poweroffReason":"高压开关跳闸","powerTime":"2020-04-28 22:52:51","powerComm":"已送电","subsNo":"","lineNo":"","tgNo":"","tgName":null,"infoStatus":"1","orgName":"国网浙江杭州市余杭区供电有限公司","typeName":null,"infoStatusName":null,"dateDay":null,"orgNos":null,"nowTime":null,"countyName":null,"streetName":null,"villageName":null,"roadName":null,"communityName":null,"tranName":null,"sdLineName":null,"cityCode":"3340140","cityName":"国网浙江杭州市余杭区供电有限公司","provinceCode":null,"stopTime":"2020-04-28 23:39:00","powerType":"全部","powerOffArea":"110kV油车变:宏丰H804线宏丰开关站宏丰开关站宏丰H804线后段","powerOffReason":"高压开关跳闸","powerOffId":"2020042831020296"},{"poweroffId":2020042831020294,"sgpoweroffId":null,"subsName":"","lineName":"10kV东社C785线","pubTranName":"孙家弄村6#变,","scope":"浙江省-杭州市-萧山区-瓜沥镇-孙家弄行政村(商贸路,孙家弄自然村,八柯路,工新路)","startTime":"2020-05-06 13:00:00","stopDate":"2020-05-06 15:10:00","orgNo":"3340130","typeCode":"计划停电","poweroffArea":"35kV坎山变:东社C785线-孙家弄村6#变后段","poweroffReason":"东社C785线26#杆孙家弄村6#变令克更换 原停电结束时间为2020-05-06 16:30:00,为减少客户停电时间,加快工作进度,提前送电,现变更停电结束时间为2020-05-06 15:10:00","powerTime":"2020-05-06 14:25:48","powerComm":"已送电","subsNo":"","lineNo":"","tgNo":"","tgName":null,"infoStatus":"1","orgName":"国网浙江杭州市萧山区供电有限公司","typeName":null,"infoStatusName":null,"dateDay":null,"orgNos":null,"nowTime":null,"countyName":null,"streetName":null,"villageName":null,"roadName":null,"communityName":null,"tranName":null,"sdLineName":null,"cityCode":"3340130","cityName":"国网浙江杭州市萧山区供电有限公司","provinceCode":null,"stopTime":"2020-05-06 15:10:00","powerType":"全部","powerOffArea":"35kV坎山变:东社C785线-孙家弄村6#变后段","powerOffReason":"东社C785线26#杆孙家弄村6#变令克更换 原停电结束时间为2020-05-06 16:30:00,为减少客户停电时间,加快工作进度,提前送电,现变更停电结束时间为2020-05-06 15:10:00","powerOffId":"2020042831020294"},{"poweroffId":2020042831020293,"sgpoweroffId":null,"subsName":"","lineName":"10kV孙家C336线","pubTranName":"孙家弄村10#变,","scope":"浙江省-杭州市-萧山区-瓜沥镇-孙家弄行政村(武肃路,八柯路,孙家弄自然村)","startTime":"2020-05-06 08:30:00","stopDate":"2020-05-06 14:30:00","orgNo":"3340130","typeCode":"计划停电","poweroffArea":"110kV沿塘变:孙家C336线-孙家弄村10#变后段","poweroffReason":"孙家C336线卫生分线13/02/01#杆孙家弄村10#变拆160kVA变压器1台，新装400kVA变压器1台，更换跌落式熔断器开关1套、综合配电箱1台，出线电缆终端重新制作（需带电作业配合）","powerTime":"2020-05-06 13:31:09","powerComm":"已送电","subsNo":"","lineNo":"","tgNo":"","tgName":null,"infoStatus":"1","orgName":"国网浙江杭州市萧山区供电有限公司","typeName":null,"infoStatusName":null,"dateDay":null,"orgNos":null,"nowTime":null,"countyName":null,"streetName":null,"villageName":null,"roadName":null,"communityName":null,"tranName":null,"sdLineName":null,"cityCode":"3340130","cityName":"国网浙江杭州市萧山区供电有限公司","provinceCode":null,"stopTime":"2020-05-06 14:30:00","powerType":"全部","powerOffArea":"110kV沿塘变:孙家C336线-孙家弄村10#变后段","powerOffReason":"孙家C336线卫生分线13/02/01#杆孙家弄村10#变拆160kVA变压器1台，新装400kVA变压器1台，更换跌落式熔断器开关1套、综合配电箱1台，出线电缆终端重新制作（需带电作业配合）","powerOffId":"2020042831020293"},{"poweroffId":2020042831020288,"sgpoweroffId":null,"subsName":"","lineName":"10kV旧县T225线","pubTranName":"洪儒村大山湾1号公变,","scope":"浙江省-杭州市-桐庐县-旧县街道-洪儒行政村-大山自然村","startTime":"2020-04-28 20:25:00","stopDate":"2020-04-28 22:25:00","orgNo":"3340150","typeCode":"电网故障停限电","poweroffArea":"35kV西武变:旧县T225线洪儒村大山湾1号公变10kV跌落式熔断器配变","poweroffReason":"高压开关跳闸","powerTime":"2020-04-28 22:10:26","powerComm":"已送电","subsNo":"","lineNo":"","tgNo":"","tgName":null,"infoStatus":"1","orgName":"国网浙江桐庐县供电公司","typeName":null,"infoStatusName":null,"dateDay":null,"orgNos":null,"nowTime":null,"countyName":null,"streetName":null,"villageName":null,"roadName":null,"communityName":null,"tranName":null,"sdLineName":null,"cityCode":"3340150","cityName":"国网浙江桐庐县供电公司","provinceCode":null,"stopTime":"2020-04-28 22:25:00","powerType":"全部","powerOffArea":"35kV西武变:旧县T225线洪儒村大山湾1号公变10kV跌落式熔断器配变","powerOffReason":"高压开关跳闸","powerOffId":"2020042831020288"},{"poweroffId":2020042831020287,"sgpoweroffId":null,"subsName":"","lineName":"10kV旧县T225线","pubTranName":"洪儒村4号公变,","scope":"浙江省-杭州市-桐庐县-旧县街道-洪儒行政村(大山湾自然村,大山自然村,冷坑自然村)","startTime":"2020-04-28 20:25:00","stopDate":"2020-04-28 22:25:00","orgNo":"3340150","typeCode":"电网故障停限电","poweroffArea":"35kV西武变:旧县T225线洪儒村4号公变10kV跌落式熔断器配变","poweroffReason":"高压开关跳闸","powerTime":"2020-04-28 22:10:40","powerComm":"已送电","subsNo":"","lineNo":"","tgNo":"","tgName":null,"infoStatus":"1","orgName":"国网浙江桐庐县供电公司","typeName":null,"infoStatusName":null,"dateDay":null,"orgNos":null,"nowTime":null,"countyName":null,"streetName":null,"villageName":null,"roadName":null,"communityName":null,"tranName":null,"sdLineName":null,"cityCode":"3340150","cityName":"国网浙江桐庐县供电公司","provinceCode":null,"stopTime":"2020-04-28 22:25:00","powerType":"全部","powerOffArea":"35kV西武变:旧县T225线洪儒村4号公变10kV跌落式熔断器配变","powerOffReason":"高压开关跳闸","powerOffId":"2020042831020287"}],"pageModel":{"pageNow":262,"totalCount":17788,"totalPage":1779,"tableRows":0,"pageCount":10,"beginCount":2610},"isExperi":"1"}