{"message":"","today":"2020-06-15","seleList":[{"poweroffId":2020042831020277,"sgpoweroffId":null,"subsName":"","lineName":"10kV五联D264线","pubTranName":"长春村5#上坞公变,","scope":"浙江省-杭州市-富阳区-常绿镇-长春行政村-上坞畈自然村","startTime":"2020-04-28 18:06:00","stopDate":"2020-04-28 19:06:00","orgNo":"3340170","typeCode":"电网故障停限电","poweroffArea":"35kV盛村变:五联D264线长春村5#上坞公变配变","poweroffReason":"高压开关跳闸","powerTime":"2020-04-28 18:18:23","powerComm":"已送电","subsNo":"","lineNo":"","tgNo":"","tgName":null,"infoStatus":"1","orgName":"国网浙江杭州市富阳区供电公司","typeName":null,"infoStatusName":null,"dateDay":null,"orgNos":null,"nowTime":null,"countyName":null,"streetName":null,"villageName":null,"roadName":null,"communityName":null,"tranName":null,"sdLineName":null,"cityCode":"3340170","cityName":"国网浙江杭州市富阳区供电公司","provinceCode":null,"stopTime":"2020-04-28 19:06:00","powerType":"全部","powerOffArea":"35kV盛村变:五联D264线长春村5#上坞公变配变","powerOffReason":"高压开关跳闸","powerOffId":"2020042831020277"},{"poweroffId":2020042831020276,"sgpoweroffId":null,"subsName":"","lineName":"10kV五联D264线","pubTranName":"长春村3#木坞王井公变,","scope":"浙江省-杭州市-富阳区-常绿镇-长春行政村-黄金坞自然村","startTime":"2020-04-28 18:06:00","stopDate":"2020-04-28 19:06:00","orgNo":"3340170","typeCode":"电网故障停限电","poweroffArea":"35kV盛村变:五联D264线长春村3#木坞王井公变配变","poweroffReason":"高压开关跳闸","powerTime":"2020-04-28 18:18:38","powerComm":"已送电","subsNo":"","lineNo":"","tgNo":"","tgName":null,"infoStatus":"1","orgName":"国网浙江杭州市富阳区供电公司","typeName":null,"infoStatusName":null,"dateDay":null,"orgNos":null,"nowTime":null,"countyName":null,"streetName":null,"villageName":null,"roadName":null,"communityName":null,"tranName":null,"sdLineName":null,"cityCode":"3340170","cityName":"国网浙江杭州市富阳区供电公司","provinceCode":null,"stopTime":"2020-04-28 19:06:00","powerType":"全部","powerOffArea":"35kV盛村变:五联D264线长春村3#木坞王井公变配变","powerOffReason":"高压开关跳闸","powerOffId":"2020042831020276"},{"poweroffId":2020042831020275,"sgpoweroffId":null,"subsName":"","lineName":"10kV深里D261线","pubTranName":"富阳市青松文体用品厂,富阳市中意文体用品厂,富阳市广谊体育用品厂1#变,杭州宏科体育器材有限公司1#变,四堡村3#机埠公变,杭州富阳博卡体育用品有限公司,四堡村7#四公桥公变,杭州富阳荣鑫文体器材厂1#变,富阳市富盛文体厂,富阳市亿达文体用品厂,富阳市上官乡人民政府,四堡村4#程家公变,1#变,富阳宏力球拍厂,四堡村1#中心公变,四堡村6号凤坞公变,四堡村5号上边畈公变,富阳市上官乡永军球拍厂,富阳市日盛文体用品厂,大盛村4号上官汽车站公变,杭州富阳富华体育用品有限公司,四堡村2号红庙畈公变,","scope":"浙江省-杭州市-富阳区-上官乡-四堡行政村(四堡自然村,上边畈自然村),上官乡-大盛行政村(上官自然村,盛村自然村);上官乡(杭州富阳中意文体用品厂,杭州宏科体育器材有限公司,富阳市亿达文体用品厂,杭州富阳宏力球拍厂,杭州富阳富华体育用品有限公司,杭州富阳青松文体用品厂,杭州富阳富盛文体厂,富阳市上官乡永军球拍厂,杭州富阳广谊体育用品厂,杭州富阳日盛文体用品厂,杭州富阳合力球拍厂,杭州富阳博卡体育用品有限公司,富阳市上官乡人民政府,富阳市芳村文体器材厂)","startTime":"2020-04-28 18:03:00","stopDate":"2020-04-28 19:03:00","orgNo":"3340170","typeCode":"电网故障停限电","poweroffArea":"35kV盛村变:深里D261线深里D2611开关后段","poweroffReason":"高压开关跳闸","powerTime":"2020-04-28 18:18:05","powerComm":"已送电","subsNo":"","lineNo":"","tgNo":"","tgName":null,"infoStatus":"1","orgName":"国网浙江杭州市富阳区供电公司","typeName":null,"infoStatusName":null,"dateDay":null,"orgNos":null,"nowTime":null,"countyName":null,"streetName":null,"villageName":null,"roadName":null,"communityName":null,"tranName":null,"sdLineName":null,"cityCode":"3340170","cityName":"国网浙江杭州市富阳区供电公司","provinceCode":null,"stopTime":"2020-04-28 19:03:00","powerType":"全部","powerOffArea":"35kV盛村变:深里D261线深里D2611开关后段","powerOffReason":"高压开关跳闸","powerOffId":"2020042831020275"},{"poweroffId":2020042831020270,"sgpoweroffId":null,"subsName":"","lineName":"10kV宁合9740线","pubTranName":"东宁地铁3#,东宁地铁5#,东宁地铁4#,东宁地铁1#,东宁地铁2#,","scope":"浙江省-杭州市-江干区-闸弄口街道-闸弄口社区-中铁四局集团有限公司城市轨道交通工程分公司","startTime":"2020-04-28 17:45:32","stopDate":"2020-04-28 19:45:32","orgNo":"3340101","typeCode":"电网故障停限电","poweroffArea":"110kV下宁变:宁合9740线","poweroffReason":"高压开关跳闸 原停电结束时间为2020-04-28 21:45:32,为减少客户停电时间,加快工作进度,提前送电,现变更停电结束时间为2020-04-28 19:45:32","powerTime":"2020-04-28 19:05:15","powerComm":"已送电","subsNo":"","lineNo":"","tgNo":"","tgName":null,"infoStatus":"1","orgName":"浙江杭州电力客户服务中心","typeName":null,"infoStatusName":null,"dateDay":null,"orgNos":null,"nowTime":null,"countyName":null,"streetName":null,"villageName":null,"roadName":null,"communityName":null,"tranName":null,"sdLineName":null,"cityCode":"3340101","cityName":"浙江杭州电力客户服务中心","provinceCode":null,"stopTime":"2020-04-28 19:45:32","powerType":"全部","powerOffArea":"110kV下宁变:宁合9740线","powerOffReason":"高压开关跳闸 原停电结束时间为2020-04-28 21:45:32,为减少客户停电时间,加快工作进度,提前送电,现变更停电结束时间为2020-04-28 19:45:32","powerOffId":"2020042831020270"},{"poweroffId":2020042831020269,"sgpoweroffId":null,"subsName":"","lineName":"10kV桕蓬9134线","pubTranName":"九乔保障房三区61208354624#变,","scope":"浙江省-杭州市-余杭区-乔司街道-杭州余杭九乔保障房建设有限公司","startTime":"2020-04-28 17:43:00","stopDate":"2020-04-28 18:11:00","orgNo":"3340140","typeCode":"电网故障停限电","poweroffArea":"110kV蚕桑变:桕蓬9134线九乔保障房三区61208354624#变配变","poweroffReason":"高压开关跳闸","powerTime":"2020-04-28 17:55:00","powerComm":"已送电","subsNo":"","lineNo":"","tgNo":"","tgName":null,"infoStatus":"1","orgName":"国网浙江杭州市余杭区供电有限公司","typeName":null,"infoStatusName":null,"dateDay":null,"orgNos":null,"nowTime":null,"countyName":null,"streetName":null,"villageName":null,"roadName":null,"communityName":null,"tranName":null,"sdLineName":null,"cityCode":"3340140","cityName":"国网浙江杭州市余杭区供电有限公司","provinceCode":null,"stopTime":"2020-04-28 18:11:00","powerType":"全部","powerOffArea":"110kV蚕桑变:桕蓬9134线九乔保障房三区61208354624#变配变","powerOffReason":"高压开关跳闸","powerOffId":"2020042831020269"},{"poweroffId":2020042831020268,"sgpoweroffId":null,"subsName":"","lineName":"10kV凤溪H527线","pubTranName":"良越府I段（6120877201）01#专变,","scope":"浙江省-杭州市-余杭区-瓶窑镇-碧桂园智慧物业服务集团股份有限公司余杭分公司","startTime":"2020-04-28 17:41:21","stopDate":"2020-04-28 18:41:21","orgNo":"3340140","typeCode":"电网故障停限电","poweroffArea":"110kV凤山变:凤溪H527线良越府I段（6120877201）01#专变配变","poweroffReason":"高压开关跳闸","powerTime":"2020-04-28 17:55:00","powerComm":"已送电","subsNo":"","lineNo":"","tgNo":"","tgName":null,"infoStatus":"1","orgName":"国网浙江杭州市余杭区供电有限公司","typeName":null,"infoStatusName":null,"dateDay":null,"orgNos":null,"nowTime":null,"countyName":null,"streetName":null,"villageName":null,"roadName":null,"communityName":null,"tranName":null,"sdLineName":null,"cityCode":"3340140","cityName":"国网浙江杭州市余杭区供电有限公司","provinceCode":null,"stopTime":"2020-04-28 18:41:21","powerType":"全部","powerOffArea":"110kV凤山变:凤溪H527线良越府I段（6120877201）01#专变配变","powerOffReason":"高压开关跳闸","powerOffId":"2020042831020268"},{"poweroffId":2020042831020267,"sgpoweroffId":null,"subsName":"","lineName":"10kV计量H841线","pubTranName":"普昂医疗,","scope":"浙江省-杭州市-余杭区-仓前街道","startTime":"2020-04-28 17:41:35","stopDate":"2020-04-28 18:41:35","orgNo":"3340140","typeCode":"电网故障停限电","poweroffArea":"110kV永乐变:计量H841线普昂医疗配变","poweroffReason":"高压开关跳闸","powerTime":"2020-04-28 17:56:00","powerComm":"已送电","subsNo":"","lineNo":"","tgNo":"","tgName":null,"infoStatus":"1","orgName":"国网浙江杭州市余杭区供电有限公司","typeName":null,"infoStatusName":null,"dateDay":null,"orgNos":null,"nowTime":null,"countyName":null,"streetName":null,"villageName":null,"roadName":null,"communityName":null,"tranName":null,"sdLineName":null,"cityCode":"3340140","cityName":"国网浙江杭州市余杭区供电有限公司","provinceCode":null,"stopTime":"2020-04-28 18:41:35","powerType":"全部","powerOffArea":"110kV永乐变:计量H841线普昂医疗配变","powerOffReason":"高压开关跳闸","powerOffId":"2020042831020267"},{"poweroffId":2020042831020265,"sgpoweroffId":null,"subsName":"","lineName":"10kV西风H765线","pubTranName":"西溪风情(16)公用,","scope":"浙江省-杭州市-余杭区-五常街道-文一社区-荆长路","startTime":"2020-04-28 17:35:00","stopDate":"2020-04-28 19:12:00","orgNo":"3340140","typeCode":"电网故障停限电","poweroffArea":"110kV五常变:西风H765线大华西溪三期水榭香堤2#西溪风情(15)公变配变","poweroffReason":"高压开关跳闸","powerTime":"2020-04-28 18:21:00","powerComm":"已送电","subsNo":"","lineNo":"","tgNo":"","tgName":null,"infoStatus":"1","orgName":"国网浙江杭州市余杭区供电有限公司","typeName":null,"infoStatusName":null,"dateDay":null,"orgNos":null,"nowTime":null,"countyName":null,"streetName":null,"villageName":null,"roadName":null,"communityName":null,"tranName":null,"sdLineName":null,"cityCode":"3340140","cityName":"国网浙江杭州市余杭区供电有限公司","provinceCode":null,"stopTime":"2020-04-28 19:12:00","powerType":"全部","powerOffArea":"110kV五常变:西风H765线大华西溪三期水榭香堤2#西溪风情(15)公变配变","powerOffReason":"高压开关跳闸","powerOffId":"2020042831020265"},{"poweroffId":2020042831020264,"sgpoweroffId":null,"subsName":"","lineName":"10kV西风H765线","pubTranName":"西溪风情(澄品苑)4#公变,","scope":"浙江省-杭州市-余杭区-五常街道-文一社区-荆长路,五常街道-五常社区(五常大道,文一西路)","startTime":"2020-04-28 17:28:00","stopDate":"2020-04-28 19:14:00","orgNo":"3340140","typeCode":"电网故障停限电","poweroffArea":"110kV五常变:西风H765线西溪风情（澄品苑）4#公变西溪风情（澄品苑）4#公变开关配变","poweroffReason":"高压开关跳闸","powerTime":"2020-04-28 18:22:00","powerComm":"已送电","subsNo":"","lineNo":"","tgNo":"","tgName":null,"infoStatus":"1","orgName":"国网浙江杭州市余杭区供电有限公司","typeName":null,"infoStatusName":null,"dateDay":null,"orgNos":null,"nowTime":null,"countyName":null,"streetName":null,"villageName":null,"roadName":null,"communityName":null,"tranName":null,"sdLineName":null,"cityCode":"3340140","cityName":"国网浙江杭州市余杭区供电有限公司","provinceCode":null,"stopTime":"2020-04-28 19:14:00","powerType":"全部","powerOffArea":"110kV五常变:西风H765线西溪风情（澄品苑）4#公变西溪风情（澄品苑）4#公变开关配变","powerOffReason":"高压开关跳闸","powerOffId":"2020042831020264"},{"poweroffId":2020042831020263,"sgpoweroffId":null,"subsName":"","lineName":"10kV西风H765线","pubTranName":"西溪风情(澄品苑)7#公变,","scope":"浙江省-杭州市-余杭区-五常街道(五常社区-文一西路,文一社区-荆长路)","startTime":"2020-04-28 16:06:00","stopDate":"2020-04-28 18:06:00","orgNo":"3340140","typeCode":"电网故障停限电","poweroffArea":"110kV五常变:西风H765线西溪风情（澄品苑）7#公变西溪风情（澄品苑）7#公变熔断器配变","poweroffReason":"高压开关跳闸","powerTime":"2020-04-28 17:54:00","powerComm":"已送电","subsNo":"","lineNo":"","tgNo":"","tgName":null,"infoStatus":"1","orgName":"国网浙江杭州市余杭区供电有限公司","typeName":null,"infoStatusName":null,"dateDay":null,"orgNos":null,"nowTime":null,"countyName":null,"streetName":null,"villageName":null,"roadName":null,"communityName":null,"tranName":null,"sdLineName":null,"cityCode":"3340140","cityName":"国网浙江杭州市余杭区供电有限公司","provinceCode":null,"stopTime":"2020-04-28 18:06:00","powerType":"全部","powerOffArea":"110kV五常变:西风H765线西溪风情（澄品苑）7#公变西溪风情（澄品苑）7#公变熔断器配变","powerOffReason":"高压开关跳闸","powerOffId":"2020042831020263"}],"pageModel":{"pageNow":263,"totalCount":17788,"totalPage":1779,"tableRows":0,"pageCount":10,"beginCount":2620},"isExperi":"1"}