{"message":"","today":"2020-06-15","seleList":[{"poweroffId":2020042831020138,"sgpoweroffId":null,"subsName":"","lineName":"10kV河福353线","pubTranName":"华远绣艺1#,同一村19#变,惠灵工艺品,中达卫浴02#,中达卫浴,晨晟汽车,新和村9#变,同一村16#变,华远绣艺2#,同一村8#变,","scope":"浙江省-杭州市-萧山区-河庄街道(新和行政村-新和自然村,同一行政村-同一自然村);河庄街道-同一行政村(杭州华远特种纤维有限公司,杭州中达卫浴有限公司,杭州惠灵工艺礼品厂,浙江合屹科技有限公司)","startTime":"2020-05-08 13:30:00","stopDate":"2020-05-08 14:15:00","orgNo":"3340120","typeCode":"计划停电","poweroffArea":"110kV河庄变:河福353线","poweroffReason":"110kV河庄变10kV河福353线负荷冷倒配合河庄I段母线检修工作","powerTime":"2020-05-08 13:38:22","powerComm":"已送电","subsNo":"","lineNo":"","tgNo":"","tgName":null,"infoStatus":"1","orgName":"国网浙江杭州市钱塘新区供电公司","typeName":null,"infoStatusName":null,"dateDay":null,"orgNos":null,"nowTime":null,"countyName":null,"streetName":null,"villageName":null,"roadName":null,"communityName":null,"tranName":null,"sdLineName":null,"cityCode":"3340120","cityName":"国网浙江杭州市钱塘新区供电公司","provinceCode":null,"stopTime":"2020-05-08 14:15:00","powerType":"全部","powerOffArea":"110kV河庄变:河福353线","powerOffReason":"110kV河庄变10kV河福353线负荷冷倒配合河庄I段母线检修工作","powerOffId":"2020042831020138"},{"poweroffId":2020042831020129,"sgpoweroffId":null,"subsName":"","lineName":"10kV林家7322线","pubTranName":"春晓(四),","scope":"浙江省-杭州市-西湖区-翠苑街道(黄姑山社区-学院路,翠苑二区社区-翠苑社区-学院春晓)","startTime":"2020-04-28 11:32:00","stopDate":"2020-04-28 12:12:00","orgNo":"3340101","typeCode":"电网故障停限电","poweroffArea":"220kV登云变:林家7322线春晓(四)配变","poweroffReason":"高压开关跳闸 原停电结束时间为2020-04-28 18:32:00,为减少客户停电时间,加快工作进度,提前送电,现变更停电结束时间为2020-04-28 12:12:00","powerTime":"2020-04-28 11:50:58","powerComm":"已送电","subsNo":"","lineNo":"","tgNo":"","tgName":null,"infoStatus":"1","orgName":"浙江杭州电力客户服务中心","typeName":null,"infoStatusName":null,"dateDay":null,"orgNos":null,"nowTime":null,"countyName":null,"streetName":null,"villageName":null,"roadName":null,"communityName":null,"tranName":null,"sdLineName":null,"cityCode":"3340101","cityName":"浙江杭州电力客户服务中心","provinceCode":null,"stopTime":"2020-04-28 12:12:00","powerType":"全部","powerOffArea":"220kV登云变:林家7322线春晓(四)配变","powerOffReason":"高压开关跳闸 原停电结束时间为2020-04-28 18:32:00,为减少客户停电时间,加快工作进度,提前送电,现变更停电结束时间为2020-04-28 12:12:00","powerOffId":"2020042831020129"},{"poweroffId":2020042831020125,"sgpoweroffId":null,"subsName":"","lineName":"10kV林家7322线","pubTranName":"浙江省新华书店集团有限公司,浙江省新华书店集团有限公司,庆隆(三),西湖普惠2#,浙江省新华书店集团有限公司,七监4#,城市管理,文菁(二),地铁林家1#,逸湾四配变,逸湾二配变,兴合女宿1#,女宿（二）,西湖普惠1#,千万装订,兴合女宿2#,春晓(二),林家浜(九),地铁林家2#,文菁(一),浙江省新华书店集团有限公司,七监2#,","scope":"浙江省-杭州市-西湖区-翠苑街道-黄姑山社区-学院路,翠苑街道-翠苑三区社区(庆隆路,文一路,翠柏路),翠苑街道-翠苑二区社区(翠苑二区,学院路),翠苑街道-翠苑社区(庆隆路,学院路);翠苑街道(浙江省女子监狱,杭州市西湖区城市管理局,浙江省新华书店集团有限公司,杭州西湖城市建设投资集团有限公司)","startTime":"2020-04-28 11:32:00","stopDate":"2020-04-28 12:20:00","orgNo":"3340101","typeCode":"电网故障停限电","poweroffArea":"220kV登云变:林家7322线学院站院晓线后段","poweroffReason":"高压开关跳闸 原停电结束时间为2020-04-28 18:32:00,为减少客户停电时间,加快工作进度,提前送电,现变更停电结束时间为2020-04-28 12:20:00","powerTime":"2020-04-28 11:49:14","powerComm":"已送电","subsNo":"","lineNo":"","tgNo":"","tgName":null,"infoStatus":"1","orgName":"浙江杭州电力客户服务中心","typeName":null,"infoStatusName":null,"dateDay":null,"orgNos":null,"nowTime":null,"countyName":null,"streetName":null,"villageName":null,"roadName":null,"communityName":null,"tranName":null,"sdLineName":null,"cityCode":"3340101","cityName":"浙江杭州电力客户服务中心","provinceCode":null,"stopTime":"2020-04-28 12:20:00","powerType":"全部","powerOffArea":"220kV登云变:林家7322线学院站院晓线后段","powerOffReason":"高压开关跳闸 原停电结束时间为2020-04-28 18:32:00,为减少客户停电时间,加快工作进度,提前送电,现变更停电结束时间为2020-04-28 12:20:00","powerOffId":"2020042831020125"},{"poweroffId":2020042831020106,"sgpoweroffId":null,"subsName":"","lineName":"10kV三白G371线","pubTranName":"渔公桥村马家塘公变,","scope":"浙江省-杭州市-余杭区-仁和街道-永泰行政村-永泰村,仁和街道-渔公桥行政村(马家塘自然村,西杨家斗自然村,枉河桥自然村,阮家里自然村,冯家塘自然村)","startTime":"2020-04-28 11:30:46","stopDate":"2020-04-28 18:20:46","orgNo":"3340140","typeCode":"电网故障停限电","poweroffArea":"110kV东塘变:三白G371线-马家塘分线开关后段","poweroffReason":"高压开关跳闸 原停电结束时间为2020-04-28 16:30:46,因现场情况复杂原因,延迟送电,现变更停电结束时间为2020-04-28 18:20:46","powerTime":"2020-04-28 17:54:00","powerComm":"已送电","subsNo":"","lineNo":"","tgNo":"","tgName":null,"infoStatus":"1","orgName":"国网浙江杭州市余杭区供电有限公司","typeName":null,"infoStatusName":null,"dateDay":null,"orgNos":null,"nowTime":null,"countyName":null,"streetName":null,"villageName":null,"roadName":null,"communityName":null,"tranName":null,"sdLineName":null,"cityCode":"3340140","cityName":"国网浙江杭州市余杭区供电有限公司","provinceCode":null,"stopTime":"2020-04-28 18:20:46","powerType":"全部","powerOffArea":"110kV东塘变:三白G371线-马家塘分线开关后段","powerOffReason":"高压开关跳闸 原停电结束时间为2020-04-28 16:30:46,因现场情况复杂原因,延迟送电,现变更停电结束时间为2020-04-28 18:20:46","powerOffId":"2020042831020106"},{"poweroffId":2020042831020089,"sgpoweroffId":null,"subsName":"","lineName":"10kV陈园C841线","pubTranName":"陈家园村12#变,","scope":"浙江省-杭州市-萧山区-新街镇-新街街道-陈家园行政村-陈家园自然村等一带","startTime":"2020-04-28 10:12:00","stopDate":"2020-04-28 13:25:00","orgNo":"3340130","typeCode":"电网故障停限电","poweroffArea":"110kV罗山变:陈园C841线陈家园村12#变台区低压开关","poweroffReason":"(低压停电信息)低压漏电保护器短路故障 原停电结束时间为2020-04-28 17:30:00,为减少客户停电时间,加快工作进度,提前送电,现变更停电结束时间为2020-04-28 13:25:00","powerTime":"2020-04-28 12:30:45","powerComm":"已送电","subsNo":"","lineNo":"","tgNo":"","tgName":null,"infoStatus":"1","orgName":"国网浙江杭州市萧山区供电有限公司","typeName":null,"infoStatusName":null,"dateDay":null,"orgNos":null,"nowTime":null,"countyName":null,"streetName":null,"villageName":null,"roadName":null,"communityName":null,"tranName":null,"sdLineName":null,"cityCode":"3340130","cityName":"国网浙江杭州市萧山区供电有限公司","provinceCode":null,"stopTime":"2020-04-28 13:25:00","powerType":"全部","powerOffArea":"110kV罗山变:陈园C841线陈家园村12#变台区低压开关","powerOffReason":"(低压停电信息)低压漏电保护器短路故障 原停电结束时间为2020-04-28 17:30:00,为减少客户停电时间,加快工作进度,提前送电,现变更停电结束时间为2020-04-28 13:25:00","powerOffId":"2020042831020089"},{"poweroffId":2020042831020074,"sgpoweroffId":null,"subsName":"","lineName":"10kV罗山T377线","pubTranName":"罗湖口1号公变,","scope":"浙江省-杭州市-桐庐县-百江镇-乐明行政村-罗湖口自然村","startTime":"2020-05-08 08:30:00","stopDate":"2020-05-08 12:30:00","orgNo":"3340150","typeCode":"计划停电","poweroffArea":"110kV百江变:罗山T377线-罗湖口F9165后段","poweroffReason":"罗湖口1号公变配变增容（100kVA增至400kVA）、架设导线2挡及调换进出线电缆等工作。","powerTime":"2020-05-08 12:15:19","powerComm":"已送电","subsNo":"","lineNo":"","tgNo":"","tgName":null,"infoStatus":"1","orgName":"国网浙江桐庐县供电公司","typeName":null,"infoStatusName":null,"dateDay":null,"orgNos":null,"nowTime":null,"countyName":null,"streetName":null,"villageName":null,"roadName":null,"communityName":null,"tranName":null,"sdLineName":null,"cityCode":"3340150","cityName":"国网浙江桐庐县供电公司","provinceCode":null,"stopTime":"2020-05-08 12:30:00","powerType":"全部","powerOffArea":"110kV百江变:罗山T377线-罗湖口F9165后段","powerOffReason":"罗湖口1号公变配变增容（100kVA增至400kVA）、架设导线2挡及调换进出线电缆等工作。","powerOffId":"2020042831020074"},{"poweroffId":2020042831020073,"sgpoweroffId":null,"subsName":"","lineName":"10kV罗山T377线","pubTranName":"后坞坪1号公变,","scope":"浙江省-杭州市-桐庐县-百江镇-钱家行政村(后坞自然村,东坞自然村)","startTime":"2020-05-07 08:30:00","stopDate":"2020-05-07 12:30:00","orgNo":"3340150","typeCode":"计划停电","poweroffArea":"110kV百江变:罗山T377线-后坞坪F9185后段","poweroffReason":"新布点西叉口1号公变新装200KVA配变1台、JP柜、架设导线4档及后坞坪1号公变新出电缆1根","powerTime":"2020-05-07 12:13:44","powerComm":"已送电","subsNo":"","lineNo":"","tgNo":"","tgName":null,"infoStatus":"1","orgName":"国网浙江桐庐县供电公司","typeName":null,"infoStatusName":null,"dateDay":null,"orgNos":null,"nowTime":null,"countyName":null,"streetName":null,"villageName":null,"roadName":null,"communityName":null,"tranName":null,"sdLineName":null,"cityCode":"3340150","cityName":"国网浙江桐庐县供电公司","provinceCode":null,"stopTime":"2020-05-07 12:30:00","powerType":"全部","powerOffArea":"110kV百江变:罗山T377线-后坞坪F9185后段","powerOffReason":"新布点西叉口1号公变新装200KVA配变1台、JP柜、架设导线4档及后坞坪1号公变新出电缆1根","powerOffId":"2020042831020073"},{"poweroffId":2020042831020030,"sgpoweroffId":null,"subsName":"","lineName":"10kV航园Y442线","pubTranName":"卜家蓬村月塘下台区,","scope":"浙江省-杭州市-建德市-寿昌镇-大塘边行政村-河村自然村,寿昌镇-卜家蓬行政村(小山自然村,月塘下自然村,小塘岗自然村)","startTime":"2020-04-28 08:16:00","stopDate":"2020-04-28 10:30:00","orgNo":"3340180","typeCode":"电网故障停限电","poweroffArea":"110kV家蓬变:航园Y442线卜家蓬村月塘下台区配变","poweroffReason":"高压开关跳闸","powerTime":"2020-04-28 10:16:11","powerComm":"已送电","subsNo":"","lineNo":"","tgNo":"","tgName":null,"infoStatus":"1","orgName":"国网浙江建德市供电有限公司","typeName":null,"infoStatusName":null,"dateDay":null,"orgNos":null,"nowTime":null,"countyName":null,"streetName":null,"villageName":null,"roadName":null,"communityName":null,"tranName":null,"sdLineName":null,"cityCode":"3340180","cityName":"国网浙江建德市供电有限公司","provinceCode":null,"stopTime":"2020-04-28 10:30:00","powerType":"全部","powerOffArea":"110kV家蓬变:航园Y442线卜家蓬村月塘下台区配变","powerOffReason":"高压开关跳闸","powerOffId":"2020042831020030"},{"poweroffId":2020042831020025,"sgpoweroffId":null,"subsName":"","lineName":"10kV渔庄C857线","pubTranName":"长巷村9#变,","scope":"浙江省-杭州市-萧山区-瓜沥镇-长巷行政村(长巷自然村,后渔家池自然村)等","startTime":"2020-04-28 07:55:48","stopDate":"2020-04-28 12:50:48","orgNo":"3340130","typeCode":"电网故障停限电","poweroffArea":"110kV昭东变:渔庄C857线-长巷村9#变台区低压开关","poweroffReason":"(低压停电信息)低压熔断器跳闸 原停电结束时间为2020-04-28 11:30:48,因抢修工作难度大原因,延迟送电,现变更停电结束时间为2020-04-28 12:50:48","powerTime":"2020-04-28 12:29:16","powerComm":"已送电","subsNo":"","lineNo":"","tgNo":"","tgName":null,"infoStatus":"1","orgName":"国网浙江杭州市萧山区供电有限公司","typeName":null,"infoStatusName":null,"dateDay":null,"orgNos":null,"nowTime":null,"countyName":null,"streetName":null,"villageName":null,"roadName":null,"communityName":null,"tranName":null,"sdLineName":null,"cityCode":"3340130","cityName":"国网浙江杭州市萧山区供电有限公司","provinceCode":null,"stopTime":"2020-04-28 12:50:48","powerType":"全部","powerOffArea":"110kV昭东变:渔庄C857线-长巷村9#变台区低压开关","powerOffReason":"(低压停电信息)低压熔断器跳闸 原停电结束时间为2020-04-28 11:30:48,因抢修工作难度大原因,延迟送电,现变更停电结束时间为2020-04-28 12:50:48","powerOffId":"2020042831020025"},{"poweroffId":2020042831020004,"sgpoweroffId":null,"subsName":"","lineName":"10kV后扬H414线","pubTranName":"荀山村石塘头公变,良渚鼎良包装,长命村秧田门公变,长命村青狮头公变,雅豪新型墙体材料厂,杭州市余杭区瓶窑镇长命村村民委员会6120152091,荀山村河西坊2号公变,杭州良渚新城交通投资有限公司,","scope":"浙江省-杭州市-余杭区-良渚街道-荀山行政村-荀山自然村,瓶窑镇-长命行政村(秧田门自然村,长命桥,胡林老自然村,青狮斗自然村);浙江省-杭州市-余杭区-瓶窑镇-长命行政村-杭州市余杭区瓶窑镇长命村村民委员会,良渚街道-荀山行政村(杭州鼎良包装材料厂,杭州市余杭区人民政府良渚街道办事处)","startTime":"2020-04-28 05:16:03","stopDate":"2020-04-28 11:00:03","orgNo":"3340140","typeCode":"电网故障停限电","poweroffArea":"35kV良渚变:后扬H414线首端，后扬H4141开关，后扬H4142开关之间","poweroffReason":"高压开关跳闸 原停电结束时间为2020-04-28 10:16:03,因现场情况复杂原因,延迟送电,现变更停电结束时间为2020-04-28 11:00:03","powerTime":"2020-04-28 10:22:00","powerComm":"已送电","subsNo":"","lineNo":"","tgNo":"","tgName":null,"infoStatus":"1","orgName":"国网浙江杭州市余杭区供电有限公司","typeName":null,"infoStatusName":null,"dateDay":null,"orgNos":null,"nowTime":null,"countyName":null,"streetName":null,"villageName":null,"roadName":null,"communityName":null,"tranName":null,"sdLineName":null,"cityCode":"3340140","cityName":"国网浙江杭州市余杭区供电有限公司","provinceCode":null,"stopTime":"2020-04-28 11:00:03","powerType":"全部","powerOffArea":"35kV良渚变:后扬H414线首端，后扬H4141开关，后扬H4142开关之间","powerOffReason":"高压开关跳闸 原停电结束时间为2020-04-28 10:16:03,因现场情况复杂原因,延迟送电,现变更停电结束时间为2020-04-28 11:00:03","powerOffId":"2020042831020004"}],"pageModel":{"pageNow":266,"totalCount":17788,"totalPage":1779,"tableRows":0,"pageCount":10,"beginCount":2650},"isExperi":"1"}