{"message":"","today":"2020-06-15","seleList":[{"poweroffId":2020042631020259,"sgpoweroffId":null,"subsName":"","lineName":"10kV更园Y414线","pubTranName":"新蓬村大蓬台区,","scope":"浙江省-杭州市-建德市-新安江街道 新蓬行政村 大蓬自然村区域用户。","startTime":"2020-05-09 08:00:00","stopDate":"2020-05-09 17:00:00","orgNo":"3340180","typeCode":"计划停电","poweroffArea":"110kV更楼变:更园Y414线-新蓬村大蓬台区后段","poweroffReason":"芭蕉岭支线9#杆支接大蓬公变电缆支线拆除","powerTime":"2020-05-09 16:12:07","powerComm":"已送电","subsNo":"","lineNo":"","tgNo":"","tgName":null,"infoStatus":"1","orgName":"国网浙江建德市供电有限公司","typeName":null,"infoStatusName":null,"dateDay":null,"orgNos":null,"nowTime":null,"countyName":null,"streetName":null,"villageName":null,"roadName":null,"communityName":null,"tranName":null,"sdLineName":null,"cityCode":"3340180","cityName":"国网浙江建德市供电有限公司","provinceCode":null,"stopTime":"2020-05-09 17:00:00","powerType":"全部","powerOffArea":"110kV更楼变:更园Y414线-新蓬村大蓬台区后段","powerOffReason":"芭蕉岭支线9#杆支接大蓬公变电缆支线拆除","powerOffId":"2020042631020259"},{"poweroffId":2020042631020256,"sgpoweroffId":null,"subsName":"","lineName":"10kV石码Y163线","pubTranName":"五里源台区,岩源村周村源台区,建德更楼矿业有限公司,岩源村狼山脚台区,更化社区建泥公变,","scope":"浙江省-杭州市-建德市-更楼街道 更化社区石马路、建泥自然村、五里源自然村；岩源行政村周村源自然村、狼山脚自然村区域用户。","startTime":"2020-05-09 07:30:00","stopDate":"2020-05-09 11:30:00","orgNo":"3340180","typeCode":"计划停电","poweroffArea":"110kV更楼变:石码Y163线首端，石码163线01#开关（25#杆），石码Y1633开关之间","poweroffReason":"10千伏石码Y163线44#杆、46#杆耐张杆引线搭接","powerTime":"2020-05-09 10:40:21","powerComm":"已送电","subsNo":"","lineNo":"","tgNo":"","tgName":null,"infoStatus":"1","orgName":"国网浙江建德市供电有限公司","typeName":null,"infoStatusName":null,"dateDay":null,"orgNos":null,"nowTime":null,"countyName":null,"streetName":null,"villageName":null,"roadName":null,"communityName":null,"tranName":null,"sdLineName":null,"cityCode":"3340180","cityName":"国网浙江建德市供电有限公司","provinceCode":null,"stopTime":"2020-05-09 11:30:00","powerType":"全部","powerOffArea":"110kV更楼变:石码Y163线首端，石码163线01#开关（25#杆），石码Y1633开关之间","powerOffReason":"10千伏石码Y163线44#杆、46#杆耐张杆引线搭接","powerOffId":"2020042631020256"},{"poweroffId":2020042631020255,"sgpoweroffId":null,"subsName":"","lineName":"10kV新叶Y341线","pubTranName":"樟宅坞台区,","scope":"浙江省-杭州市-建德市-大慈岩镇 檀村行政村 樟宅坞自然村区域用户。","startTime":"2020-05-08 07:00:00","stopDate":"2020-05-08 15:00:00","orgNo":"3340180","typeCode":"计划停电","poweroffArea":"110kV慈岩变:新叶Y341线-樟宅坞支线0#杆令克后段","poweroffReason":"杭州建德10千伏慈园Y363线网架优化工程","powerTime":"2020-05-08 14:05:00","powerComm":"已送电","subsNo":"","lineNo":"","tgNo":"","tgName":null,"infoStatus":"1","orgName":"国网浙江建德市供电有限公司","typeName":null,"infoStatusName":null,"dateDay":null,"orgNos":null,"nowTime":null,"countyName":null,"streetName":null,"villageName":null,"roadName":null,"communityName":null,"tranName":null,"sdLineName":null,"cityCode":"3340180","cityName":"国网浙江建德市供电有限公司","provinceCode":null,"stopTime":"2020-05-08 15:00:00","powerType":"全部","powerOffArea":"110kV慈岩变:新叶Y341线-樟宅坞支线0#杆令克后段","powerOffReason":"杭州建德10千伏慈园Y363线网架优化工程","powerOffId":"2020042631020255"},{"poweroffId":2020042631020252,"sgpoweroffId":null,"subsName":"","lineName":"10kV大洲Y152线","pubTranName":"春秋村胡村,","scope":"浙江省-杭州市-建德市-下涯镇 春秋行政村 胡村自然村区域用户。","startTime":"2020-05-08 07:30:00","stopDate":"2020-05-08 15:00:00","orgNo":"3340180","typeCode":"计划停电","poweroffArea":"110kV沿口变:大洲Y152线-春秋村胡村后段","poweroffReason":"下涯镇人民政府大洲Y152线31-39.1#杆移位工程 原停电结束时间为2020-05-08 14:30:00,因阵雨影响原因,延迟送电,现变更停电结束时间为2020-05-08 15:00:00","powerTime":"2020-05-08 14:25:00","powerComm":"已送电","subsNo":"","lineNo":"","tgNo":"","tgName":null,"infoStatus":"1","orgName":"国网浙江建德市供电有限公司","typeName":null,"infoStatusName":null,"dateDay":null,"orgNos":null,"nowTime":null,"countyName":null,"streetName":null,"villageName":null,"roadName":null,"communityName":null,"tranName":null,"sdLineName":null,"cityCode":"3340180","cityName":"国网浙江建德市供电有限公司","provinceCode":null,"stopTime":"2020-05-08 15:00:00","powerType":"全部","powerOffArea":"110kV沿口变:大洲Y152线-春秋村胡村后段","powerOffReason":"下涯镇人民政府大洲Y152线31-39.1#杆移位工程 原停电结束时间为2020-05-08 14:30:00,因阵雨影响原因,延迟送电,现变更停电结束时间为2020-05-08 15:00:00","powerOffId":"2020042631020252"},{"poweroffId":2020042631020251,"sgpoweroffId":null,"subsName":"","lineName":"10kV东区Y204线","pubTranName":"金山湾1#公变,","scope":"浙江省-杭州市-建德市-新安江街道 府东社区 健康南路25幢，5幢，5A幢，9幢，7幢，19幢， 31幢，29幢，21号-蚕桑站，22号，23幢，38幢，40幢；康安路53幢，38幢，51幢；金山湾小区1A幢，3A幢，5A幢，7A幢， 9A幢 ，11A幢，15A幢，金山湾小区1幢，3幢，5幢，7幢，9幢，11幢，15幢，17幢；国信路71幢，83幢，77幢，79幢，75幢；健安社区及金山湾，健康南路沿街店铺等区域用户。","startTime":"2020-05-08 08:00:00","stopDate":"2020-05-08 19:00:00","orgNo":"3340180","typeCode":"计划停电","poweroffArea":"110kV白沙变:东区Y204线-金山湾1#公变后段","poweroffReason":"10千伏东区204线金山湾01113间隔 金山湾1#公变箱变拆除 原停电结束时间为2020-05-08 16:30:00,因受雷雨天气影响，现场施工困难，工作量增大原因,延迟送电,现变更停电结束时间为2020-05-08 19:00:00","powerTime":"2020-05-08 18:14:00","powerComm":"已送电","subsNo":"","lineNo":"","tgNo":"","tgName":null,"infoStatus":"1","orgName":"国网浙江建德市供电有限公司","typeName":null,"infoStatusName":null,"dateDay":null,"orgNos":null,"nowTime":null,"countyName":null,"streetName":null,"villageName":null,"roadName":null,"communityName":null,"tranName":null,"sdLineName":null,"cityCode":"3340180","cityName":"国网浙江建德市供电有限公司","provinceCode":null,"stopTime":"2020-05-08 19:00:00","powerType":"全部","powerOffArea":"110kV白沙变:东区Y204线-金山湾1#公变后段","powerOffReason":"10千伏东区204线金山湾01113间隔 金山湾1#公变箱变拆除 原停电结束时间为2020-05-08 16:30:00,因受雷雨天气影响，现场施工困难，工作量增大原因,延迟送电,现变更停电结束时间为2020-05-08 19:00:00","powerOffId":"2020042631020251"},{"poweroffId":2020042631020250,"sgpoweroffId":null,"subsName":"","lineName":"10kV大洲Y152线","pubTranName":"春秋村对面2#台区,中铁三局集团有限公司杭黄铁路站前VI标项目部(4#搅拌站)变压器,建德市向日葵橡塑有限公司,","scope":"浙江省-杭州市-建德市-下涯镇 春秋行政村 对面自然村区域用户。","startTime":"2020-05-07 07:30:00","stopDate":"2020-05-07 15:10:00","orgNo":"3340180","typeCode":"计划停电","poweroffArea":"110kV沿口变:大洲Y152线首端，4#柜闸刀x，下许Y1521开关之间","poweroffReason":"下涯镇人民政府大洲Y152线31-39.1#杆移位工程 原停电结束时间为2020-05-07 14:30:00,因受雷雨天气影响原因,延迟送电,现变更停电结束时间为2020-05-07 15:10:00","powerTime":"2020-05-07 14:56:00","powerComm":"已送电","subsNo":"","lineNo":"","tgNo":"","tgName":null,"infoStatus":"1","orgName":"国网浙江建德市供电有限公司","typeName":null,"infoStatusName":null,"dateDay":null,"orgNos":null,"nowTime":null,"countyName":null,"streetName":null,"villageName":null,"roadName":null,"communityName":null,"tranName":null,"sdLineName":null,"cityCode":"3340180","cityName":"国网浙江建德市供电有限公司","provinceCode":null,"stopTime":"2020-05-07 15:10:00","powerType":"全部","powerOffArea":"110kV沿口变:大洲Y152线首端，4#柜闸刀x，下许Y1521开关之间","powerOffReason":"下涯镇人民政府大洲Y152线31-39.1#杆移位工程 原停电结束时间为2020-05-07 14:30:00,因受雷雨天气影响原因,延迟送电,现变更停电结束时间为2020-05-07 15:10:00","powerOffId":"2020042631020250"},{"poweroffId":2020042631020248,"sgpoweroffId":null,"subsName":"","lineName":"10kV麻车Y312线","pubTranName":"鲁塘村樟树底台区,鲁塘村陈家台区,建德市云龙农业发展公司配电变压器,","scope":"浙江省-杭州市-建德市-大洋镇 鲁塘行政村 陈家自然村、樟树底自然村区域用户。","startTime":"2020-05-06 08:30:00","stopDate":"2020-05-06 12:10:00","orgNo":"3340180","typeCode":"计划停电","poweroffArea":"35kV大洋变:麻车Y312线-陈家屋后支线0#令克后段","poweroffReason":"陈家屋后支线0#杆开关更换智能开关 原停电结束时间为2020-05-06 11:30:00,因施工现场环境比较复杂，存在不确定因素，因此预估施工时间不足原因,延迟送电,现变更停电结束时间为2020-05-06 12:10:00","powerTime":"2020-05-06 11:35:00","powerComm":"已送电","subsNo":"","lineNo":"","tgNo":"","tgName":null,"infoStatus":"1","orgName":"国网浙江建德市供电有限公司","typeName":null,"infoStatusName":null,"dateDay":null,"orgNos":null,"nowTime":null,"countyName":null,"streetName":null,"villageName":null,"roadName":null,"communityName":null,"tranName":null,"sdLineName":null,"cityCode":"3340180","cityName":"国网浙江建德市供电有限公司","provinceCode":null,"stopTime":"2020-05-06 12:10:00","powerType":"全部","powerOffArea":"35kV大洋变:麻车Y312线-陈家屋后支线0#令克后段","powerOffReason":"陈家屋后支线0#杆开关更换智能开关 原停电结束时间为2020-05-06 11:30:00,因施工现场环境比较复杂，存在不确定因素，因此预估施工时间不足原因,延迟送电,现变更停电结束时间为2020-05-06 12:10:00","powerOffId":"2020042631020248"},{"poweroffId":2020042631020243,"sgpoweroffId":null,"subsName":"","lineName":"10kV杭园G282线","pubTranName":"泉漳村丁家桥公变,","scope":"浙江省-杭州市-余杭区-东湖街道：北泉庒村丁家桥一带","startTime":"2020-05-08 08:40:00","stopDate":"2020-05-08 15:40:00","orgNo":"3340140","typeCode":"计划停电","poweroffArea":"110kV渔桥变:杭园G282线-丁家桥后段","poweroffReason":"丁家桥分线1#杆至3#杆移位、调换导线2档 原停电结束时间为2020-05-08 16:40:00,为减少客户停电时间,加快工作进度,提前送电,现变更停电结束时间为2020-05-08 15:40:00","powerTime":"2020-05-08 14:58:34","powerComm":"已送电","subsNo":"","lineNo":"","tgNo":"","tgName":null,"infoStatus":"1","orgName":"国网浙江杭州市余杭区供电有限公司","typeName":null,"infoStatusName":null,"dateDay":null,"orgNos":null,"nowTime":null,"countyName":null,"streetName":null,"villageName":null,"roadName":null,"communityName":null,"tranName":null,"sdLineName":null,"cityCode":"3340140","cityName":"国网浙江杭州市余杭区供电有限公司","provinceCode":null,"stopTime":"2020-05-08 15:40:00","powerType":"全部","powerOffArea":"110kV渔桥变:杭园G282线-丁家桥后段","powerOffReason":"丁家桥分线1#杆至3#杆移位、调换导线2档 原停电结束时间为2020-05-08 16:40:00,为减少客户停电时间,加快工作进度,提前送电,现变更停电结束时间为2020-05-08 15:40:00","powerOffId":"2020042631020243"},{"poweroffId":2020042631020242,"sgpoweroffId":null,"subsName":"","lineName":"10kV五杭G969线","pubTranName":"运河镇长虹村凌家埭公变,长虹村凌家里西公变,","scope":"浙江省-杭州市-余杭区-运河街道：凌家埭、凌家里西一带","startTime":"2020-05-07 08:30:00","stopDate":"2020-05-07 16:00:00","orgNo":"3340140","typeCode":"计划停电","poweroffArea":"110kV博陆变:五杭G969线-长春3组分线后段","poweroffReason":"计划工作","powerTime":"2020-05-07 15:09:11","powerComm":"已送电","subsNo":"","lineNo":"","tgNo":"","tgName":null,"infoStatus":"1","orgName":"国网浙江杭州市余杭区供电有限公司","typeName":null,"infoStatusName":null,"dateDay":null,"orgNos":null,"nowTime":null,"countyName":null,"streetName":null,"villageName":null,"roadName":null,"communityName":null,"tranName":null,"sdLineName":null,"cityCode":"3340140","cityName":"国网浙江杭州市余杭区供电有限公司","provinceCode":null,"stopTime":"2020-05-07 16:00:00","powerType":"全部","powerOffArea":"110kV博陆变:五杭G969线-长春3组分线后段","powerOffReason":"计划工作","powerOffId":"2020042631020242"},{"poweroffId":2020042631020241,"sgpoweroffId":null,"subsName":"","lineName":"10kV恒新G791线","pubTranName":"运河镇章家河村汤安坝公变,南苑农业开发公司,","scope":"浙江省-杭州市-余杭区-东湖街道：章家河村汤安坝、南苑农业开发公司一带","startTime":"2020-05-22 08:30:00","stopDate":"2020-05-22 14:00:00","orgNo":"3340140","typeCode":"计划停电","poweroffArea":"110kV建富变:恒新G791线-南苑农业开发公司分线开关后段;恒新G791线-汤恩坝后段","poweroffReason":"浙江省杭州市余杭区东湖街道：章家河村汤安坝、南苑农业开发公司一带 原停电结束时间为2020-05-22 16:00:00,为减少客户停电时间,加快工作进度,提前送电,现变更停电结束时间为2020-05-22 14:00:00","powerTime":"2020-05-22 13:24:34","powerComm":"已送电","subsNo":"","lineNo":"","tgNo":"","tgName":null,"infoStatus":"1","orgName":"国网浙江杭州市余杭区供电有限公司","typeName":null,"infoStatusName":null,"dateDay":null,"orgNos":null,"nowTime":null,"countyName":null,"streetName":null,"villageName":null,"roadName":null,"communityName":null,"tranName":null,"sdLineName":null,"cityCode":"3340140","cityName":"国网浙江杭州市余杭区供电有限公司","provinceCode":null,"stopTime":"2020-05-22 14:00:00","powerType":"全部","powerOffArea":"110kV建富变:恒新G791线-南苑农业开发公司分线开关后段;恒新G791线-汤恩坝后段","powerOffReason":"浙江省杭州市余杭区东湖街道：章家河村汤安坝、南苑农业开发公司一带 原停电结束时间为2020-05-22 16:00:00,为减少客户停电时间,加快工作进度,提前送电,现变更停电结束时间为2020-05-22 14:00:00","powerOffId":"2020042631020241"}],"pageModel":{"pageNow":272,"totalCount":17788,"totalPage":1779,"tableRows":0,"pageCount":10,"beginCount":2710},"isExperi":"1"}