{"message":"","today":"2020-06-15","seleList":[{"poweroffId":2020042631020240,"sgpoweroffId":null,"subsName":"","lineName":"10kV杭南G034线","pubTranName":"运河镇五杭新区,天丽丝织厂,五杭新区2号公变,五杭排涝（一）,","scope":"浙江省-杭州市-余杭区-运河街道：五杭镇运河新区、长春排涝、天丽丝织一带","startTime":"2020-05-06 08:30:00","stopDate":"2020-05-06 16:00:00","orgNo":"3340140","typeCode":"计划停电","poweroffArea":"110kV五杭变:杭南G034线-天丽分线后段;杭南G034线-五杭村新区变后段;杭南G034线-五杭新区2号公变跌落式熔断器后段;杭南G034线-五杭排涝（一）后段","poweroffReason":"池塘河分线3#杆至7#杆调换导线3档、电杆1基","powerTime":"2020-05-06 15:00:08","powerComm":"已送电","subsNo":"","lineNo":"","tgNo":"","tgName":null,"infoStatus":"1","orgName":"国网浙江杭州市余杭区供电有限公司","typeName":null,"infoStatusName":null,"dateDay":null,"orgNos":null,"nowTime":null,"countyName":null,"streetName":null,"villageName":null,"roadName":null,"communityName":null,"tranName":null,"sdLineName":null,"cityCode":"3340140","cityName":"国网浙江杭州市余杭区供电有限公司","provinceCode":null,"stopTime":"2020-05-06 16:00:00","powerType":"全部","powerOffArea":"110kV五杭变:杭南G034线-天丽分线后段;杭南G034线-五杭村新区变后段;杭南G034线-五杭新区2号公变跌落式熔断器后段;杭南G034线-五杭排涝（一）后段","powerOffReason":"池塘河分线3#杆至7#杆调换导线3档、电杆1基","powerOffId":"2020042631020240"},{"poweroffId":2020042631020227,"sgpoweroffId":null,"subsName":"","lineName":"10kV安泰9684线","pubTranName":"大龙五,","scope":"浙江省-杭州市-西湖区-留下街道-东岳社区-西溪路","startTime":"2020-04-26 13:44:07","stopDate":"2020-04-26 15:00:00","orgNo":"3340101","typeCode":"电网故障停限电","poweroffArea":"220kV古荡变:安泰9684线-大龙五后段","poweroffReason":"高压开关跳闸 原停电结束时间为2020-04-26 16:44:07,为减少客户停电时间,加快工作进度,提前送电,现变更停电结束时间为2020-04-26 15:00:00","powerTime":"2020-04-26 14:13:59","powerComm":"已送电","subsNo":"","lineNo":"","tgNo":"","tgName":null,"infoStatus":"1","orgName":"浙江杭州电力客户服务中心","typeName":null,"infoStatusName":null,"dateDay":null,"orgNos":null,"nowTime":null,"countyName":null,"streetName":null,"villageName":null,"roadName":null,"communityName":null,"tranName":null,"sdLineName":null,"cityCode":"3340101","cityName":"浙江杭州电力客户服务中心","provinceCode":null,"stopTime":"2020-04-26 15:00:00","powerType":"全部","powerOffArea":"220kV古荡变:安泰9684线-大龙五后段","powerOffReason":"高压开关跳闸 原停电结束时间为2020-04-26 16:44:07,为减少客户停电时间,加快工作进度,提前送电,现变更停电结束时间为2020-04-26 15:00:00","powerOffId":"2020042631020227"},{"poweroffId":2020042631020219,"sgpoweroffId":null,"subsName":"","lineName":"10kV西关T177线","pubTranName":"玉华公寓1号公变,","scope":"浙江省-杭州市-桐庐县-分水镇(玉华社区-东门路,武盛行政村-东门大道、玉华路）","startTime":"2020-04-26 13:17:42","stopDate":"2020-04-26 16:17:42","orgNo":"3340150","typeCode":"电网故障停限电","poweroffArea":"110kV分水变:西关T177线-玉华公寓1号公变后段","poweroffReason":"(低压停电信息)低压开关跳闸","powerTime":"2020-04-26 16:14:13","powerComm":"已送电","subsNo":"","lineNo":"","tgNo":"","tgName":null,"infoStatus":"1","orgName":"国网浙江桐庐县供电公司","typeName":null,"infoStatusName":null,"dateDay":null,"orgNos":null,"nowTime":null,"countyName":null,"streetName":null,"villageName":null,"roadName":null,"communityName":null,"tranName":null,"sdLineName":null,"cityCode":"3340150","cityName":"国网浙江桐庐县供电公司","provinceCode":null,"stopTime":"2020-04-26 16:17:42","powerType":"全部","powerOffArea":"110kV分水变:西关T177线-玉华公寓1号公变后段","powerOffReason":"(低压停电信息)低压开关跳闸","powerOffId":"2020042631020219"},{"poweroffId":2020042631020215,"sgpoweroffId":null,"subsName":"","lineName":"10kV草庵8580线","pubTranName":"长村,瀚景长村,","scope":"浙江省-杭州市-下城区-文晖街道-杭州瀚景环保科技有限公司","startTime":"2020-04-26 12:47:07","stopDate":"2020-04-26 16:47:07","orgNo":"3340101","typeCode":"电网故障停限电","poweroffArea":"220kV霞湾变:草庵8580线-长村分线后段","poweroffReason":"高压开关跳闸","powerTime":"2020-04-26 15:49:26","powerComm":"已送电","subsNo":"","lineNo":"","tgNo":"","tgName":null,"infoStatus":"1","orgName":"浙江杭州电力客户服务中心","typeName":null,"infoStatusName":null,"dateDay":null,"orgNos":null,"nowTime":null,"countyName":null,"streetName":null,"villageName":null,"roadName":null,"communityName":null,"tranName":null,"sdLineName":null,"cityCode":"3340101","cityName":"浙江杭州电力客户服务中心","provinceCode":null,"stopTime":"2020-04-26 16:47:07","powerType":"全部","powerOffArea":"220kV霞湾变:草庵8580线-长村分线后段","powerOffReason":"高压开关跳闸","powerOffId":"2020042631020215"},{"poweroffId":2020042631020213,"sgpoweroffId":null,"subsName":"","lineName":"10kV东曹A189线","pubTranName":"义桥村17#变,","scope":"浙江省-杭州市-萧山区-义桥镇-义桥行政村-茅山头自然村等","startTime":"2020-04-26 12:41:04","stopDate":"2020-04-26 14:30:04","orgNo":"3340130","typeCode":"电网故障停限电","poweroffArea":"110kV群建变:东曹A189线-义桥村17#变台区低压开关","poweroffReason":"(低压停电信息)低压漏电保护器跳闸 原停电结束时间为2020-04-26 16:30:04,为减少客户停电时间,加快工作进度,提前送电,现变更停电结束时间为2020-04-26 14:30:04","powerTime":"2020-04-26 13:47:36","powerComm":"已送电","subsNo":"","lineNo":"","tgNo":"","tgName":null,"infoStatus":"1","orgName":"国网浙江杭州市萧山区供电有限公司","typeName":null,"infoStatusName":null,"dateDay":null,"orgNos":null,"nowTime":null,"countyName":null,"streetName":null,"villageName":null,"roadName":null,"communityName":null,"tranName":null,"sdLineName":null,"cityCode":"3340130","cityName":"国网浙江杭州市萧山区供电有限公司","provinceCode":null,"stopTime":"2020-04-26 14:30:04","powerType":"全部","powerOffArea":"110kV群建变:东曹A189线-义桥村17#变台区低压开关","powerOffReason":"(低压停电信息)低压漏电保护器跳闸 原停电结束时间为2020-04-26 16:30:04,为减少客户停电时间,加快工作进度,提前送电,现变更停电结束时间为2020-04-26 14:30:04","powerOffId":"2020042631020213"},{"poweroffId":2020042631020208,"sgpoweroffId":null,"subsName":"","lineName":"10kV石门V353线","pubTranName":"虹桥桥头公变,","scope":"浙江省-杭州市-临安市-高虹镇-虹桥行政村-虹桥桥头","startTime":"2020-05-08 08:20:00","stopDate":"2020-05-08 14:00:00","orgNo":"3340160","typeCode":"计划停电","poweroffArea":"110kV高虹变:石门V353线4#杆虹桥村[桥头]公变台区低压总闸刀以后总闸刀以后","poweroffReason":"增容布点工程","powerTime":"2020-05-08 13:50:18","powerComm":"已送电","subsNo":"","lineNo":"","tgNo":"","tgName":null,"infoStatus":"1","orgName":"国网浙江临安市供电公司","typeName":null,"infoStatusName":null,"dateDay":null,"orgNos":null,"nowTime":null,"countyName":null,"streetName":null,"villageName":null,"roadName":null,"communityName":null,"tranName":null,"sdLineName":null,"cityCode":"3340160","cityName":"国网浙江临安市供电公司","provinceCode":null,"stopTime":"2020-05-08 14:00:00","powerType":"全部","powerOffArea":"110kV高虹变:石门V353线4#杆虹桥村[桥头]公变台区低压总闸刀以后总闸刀以后","powerOffReason":"增容布点工程","powerOffId":"2020042631020208"},{"poweroffId":2020042631020207,"sgpoweroffId":null,"subsName":"","lineName":"10kV祝家V553线","pubTranName":"上板桥豆川口,板桥村伏虎山配变,","scope":"浙江省-杭州市-临安市-板桥镇-板桥行政村板桥村伏虎山，上板桥豆川口。","startTime":"2020-05-09 07:30:00","stopDate":"2020-05-09 18:30:00","orgNo":"3340160","typeCode":"计划停电","poweroffArea":"110kV板桥变:祝家V553线46+1#杆5534开关-76#杆5532开关之间","poweroffReason":"临安青山10千伏大横V543线、祝家V553线1#-75#杆2018年线路改造工程","powerTime":"2020-05-09 17:32:44","powerComm":"已送电","subsNo":"","lineNo":"","tgNo":"","tgName":null,"infoStatus":"1","orgName":"国网浙江临安市供电公司","typeName":null,"infoStatusName":null,"dateDay":null,"orgNos":null,"nowTime":null,"countyName":null,"streetName":null,"villageName":null,"roadName":null,"communityName":null,"tranName":null,"sdLineName":null,"cityCode":"3340160","cityName":"国网浙江临安市供电公司","provinceCode":null,"stopTime":"2020-05-09 18:30:00","powerType":"全部","powerOffArea":"110kV板桥变:祝家V553线46+1#杆5534开关-76#杆5532开关之间","powerOffReason":"临安青山10千伏大横V543线、祝家V553线1#-75#杆2018年线路改造工程","powerOffId":"2020042631020207"},{"poweroffId":2020042631020204,"sgpoweroffId":null,"subsName":"","lineName":"10kV三联V616线","pubTranName":"临安鼎昇建材有限公司,横畈市地村,临安鼎昇建材有限公司3#,临安鼎昇建材有限公司2#,","scope":"浙江省-杭州市-临安市-青山湖街道-泉口行政村临安鼎昇建材有限公司，横畈市地村。","startTime":"2020-05-09 08:30:00","stopDate":"2020-05-09 15:00:00","orgNo":"3340160","typeCode":"计划停电","poweroffArea":"110kV雅观变:三联V616线三雅6162线13#杆临安鼎昇建材分线开关以后","poweroffReason":"青山所增容布点工程","powerTime":"2020-05-09 14:40:03","powerComm":"已送电","subsNo":"","lineNo":"","tgNo":"","tgName":null,"infoStatus":"1","orgName":"国网浙江临安市供电公司","typeName":null,"infoStatusName":null,"dateDay":null,"orgNos":null,"nowTime":null,"countyName":null,"streetName":null,"villageName":null,"roadName":null,"communityName":null,"tranName":null,"sdLineName":null,"cityCode":"3340160","cityName":"国网浙江临安市供电公司","provinceCode":null,"stopTime":"2020-05-09 15:00:00","powerType":"全部","powerOffArea":"110kV雅观变:三联V616线三雅6162线13#杆临安鼎昇建材分线开关以后","powerOffReason":"青山所增容布点工程","powerOffId":"2020042631020204"},{"poweroffId":2020042631020203,"sgpoweroffId":null,"subsName":"","lineName":"10kV市地V620线","pubTranName":"横畈塘楼村,下塘楼村,","scope":"浙江省-杭州市-临安市-青山湖街道-雅观行政村横畈塘楼村，下塘楼村。","startTime":"2020-05-08 08:30:00","stopDate":"2020-05-08 15:00:00","orgNo":"3340160","typeCode":"计划停电","poweroffArea":"110kV雅观变:市地V620线平山农场分线17#杆横畈塘楼村支线令克； 市地V620线平山农场分线21#杆下塘楼支线令克","poweroffReason":"杭州临安青山横畈10千伏大罗大坞公变等台区增容布点工程 原停电结束时间为2020-05-08 13:30:00,因现场施工原因,延迟送电,现变更停电结束时间为2020-05-08 15:00:00","powerTime":"2020-05-08 14:50:17","powerComm":"已送电","subsNo":"","lineNo":"","tgNo":"","tgName":null,"infoStatus":"1","orgName":"国网浙江临安市供电公司","typeName":null,"infoStatusName":null,"dateDay":null,"orgNos":null,"nowTime":null,"countyName":null,"streetName":null,"villageName":null,"roadName":null,"communityName":null,"tranName":null,"sdLineName":null,"cityCode":"3340160","cityName":"国网浙江临安市供电公司","provinceCode":null,"stopTime":"2020-05-08 15:00:00","powerType":"全部","powerOffArea":"110kV雅观变:市地V620线平山农场分线17#杆横畈塘楼村支线令克； 市地V620线平山农场分线21#杆下塘楼支线令克","powerOffReason":"杭州临安青山横畈10千伏大罗大坞公变等台区增容布点工程 原停电结束时间为2020-05-08 13:30:00,因现场施工原因,延迟送电,现变更停电结束时间为2020-05-08 15:00:00","powerOffId":"2020042631020203"},{"poweroffId":2020042631020202,"sgpoweroffId":null,"subsName":"","lineName":"10kV白众A707线","pubTranName":"进化村15#变,东方村13#变,东方村11#变,杭州萧山明珠护杠厂1#,东方村1#变,进化村4#变,东方村12#变,杭州萧山立发化纤有限公司变压器,杭州宝牛铸造机械厂,进化村14#变,杭州金月线业有限公司,进化村6#变,","scope":"浙江省-杭州市-萧山区-瓜沥镇(进化行政村-进化自然村,东方行政村-东方自然村);瓜沥镇-进化行政村(杭州宝牛铸造机械厂,杭州萧山立发化纤有限公司),瓜沥镇-东方行政村(杭州金月业有限公司,杭州乐檬实业有限公司)浙江省杭州市萧山区瓜沥镇进化行政村8组33号等","startTime":"2020-04-26 12:30:49","stopDate":"2020-04-26 18:30:49","orgNo":"3340130","typeCode":"电网故障停限电","poweroffArea":"110kV白川变:白众A707线首端，白众A7071开关，白众A7072开关之间","poweroffReason":"高压柱上断路器跳闸 原停电结束时间为2020-04-26 18:10:49,因工作强度大原因,延迟送电,现变更停电结束时间为2020-04-26 18:30:49","powerTime":"2020-04-26 17:58:37","powerComm":"已送电","subsNo":"","lineNo":"","tgNo":"","tgName":null,"infoStatus":"1","orgName":"国网浙江杭州市萧山区供电有限公司","typeName":null,"infoStatusName":null,"dateDay":null,"orgNos":null,"nowTime":null,"countyName":null,"streetName":null,"villageName":null,"roadName":null,"communityName":null,"tranName":null,"sdLineName":null,"cityCode":"3340130","cityName":"国网浙江杭州市萧山区供电有限公司","provinceCode":null,"stopTime":"2020-04-26 18:30:49","powerType":"全部","powerOffArea":"110kV白川变:白众A707线首端，白众A7071开关，白众A7072开关之间","powerOffReason":"高压柱上断路器跳闸 原停电结束时间为2020-04-26 18:10:49,因工作强度大原因,延迟送电,现变更停电结束时间为2020-04-26 18:30:49","powerOffId":"2020042631020202"}],"pageModel":{"pageNow":273,"totalCount":17788,"totalPage":1779,"tableRows":0,"pageCount":10,"beginCount":2720},"isExperi":"1"}