{"message":"","today":"2020-06-15","seleList":[{"poweroffId":2020042631020002,"sgpoweroffId":null,"subsName":"","lineName":"10kV西山D785线","pubTranName":"浙江交工宏途交通建设有限公司1#,中埠村8#下坞桥头公变,杭州富阳富中化工有限公司,富阳数马装饰工艺品有限公司2#变,中埠村7#陈家畈村北公变,中埠村3号杜坞公变,中埠村6号陈家畈村口公变,中埠村5号大桥公变,浙江交工宏途交通建设有限公司1#,中兴村7号浦西桥头公变,浙江交工宏途交通建设有限公司1#,杭州市富阳区环山乡中埠村村民委员会（上）,中兴村5#柏树下杨桥头公变,中埠村1#上中埠公变,中埠村2号黄金桥公变,浙江交工宏途交通建设有限公司1#,中埠村4号新农村公变,杭州环山乡中埠村村民委员会配电变压器,浙江交工宏途交通建设有限公司1#,富阳市交达公路养护有限公司,浙江交工宏途交通建设有限公司1#,中埠村9号陈家畈新农村公变,杭州市富阳区环山乡中埠村村民委员会（下）,浙江交工宏途交通建设有限公司1#,中兴村6#柏树下新农村公变,富阳数马装饰工艺品有限公司1#变,浙江交工宏途交通建设有限公司1#,浙江交工宏途交通建设有限公司1#,中兴村8号浦西浦西坞公变,富阳市路灯安装维修管理所1#,富阳市景绣洗涤有限公司,杭州市富阳区环山乡中兴村村民委员会1#变,","scope":"浙江省-杭州市-富阳区-环山乡-环山工业园区行政村-环一园区自然村,环山乡-中埠行政村(陈家畈自然村,中埠自然村,下坞村自然村),环山乡-中兴行政村(柏树下自然村,浦西自然村);场口镇-杭州富阳城市照明工程有限公司,环山乡(杭州富阳交达公路养护有限公司,杭州富阳富中化工有限公司,浙江交工宏途交通建设有限公司,杭州市富阳区环山乡中埠村村民委员会,杭州富阳数马装饰工艺品有限公司,杭州富阳景绣洗涤有限公司,杭州市富阳区环山乡中兴村村民委员会)","startTime":"2020-04-26 05:08:00","stopDate":"2020-04-26 07:08:00","orgNo":"3340170","typeCode":"电网故障停限电","poweroffArea":"110kV王洲变:西山D785线西山D7859开关后段","poweroffReason":"高压开关跳闸","powerTime":"2020-04-26 06:08:13","powerComm":"已送电","subsNo":"","lineNo":"","tgNo":"","tgName":null,"infoStatus":"1","orgName":"国网浙江杭州市富阳区供电公司","typeName":null,"infoStatusName":null,"dateDay":null,"orgNos":null,"nowTime":null,"countyName":null,"streetName":null,"villageName":null,"roadName":null,"communityName":null,"tranName":null,"sdLineName":null,"cityCode":"3340170","cityName":"国网浙江杭州市富阳区供电公司","provinceCode":null,"stopTime":"2020-04-26 07:08:00","powerType":"全部","powerOffArea":"110kV王洲变:西山D785线西山D7859开关后段","powerOffReason":"高压开关跳闸","powerOffId":"2020042631020002"},{"poweroffId":2020042531020149,"sgpoweroffId":null,"subsName":"","lineName":"10kV鸿泰9751线","pubTranName":"黎明(8)东农,","scope":"浙江省-杭州市-江干区-笕桥镇(黎明社区-明石路,黎明村)","startTime":"2020-04-25 21:39:00","stopDate":"2020-04-25 23:39:00","orgNo":"3340101","typeCode":"电网故障停限电","poweroffArea":"110kV下宁变:鸿泰9751线黎明(8)东农配变","poweroffReason":"高压开关跳闸","powerTime":"2020-04-25 22:54:04","powerComm":"已送电","subsNo":"","lineNo":"","tgNo":"","tgName":null,"infoStatus":"1","orgName":"浙江杭州电力客户服务中心","typeName":null,"infoStatusName":null,"dateDay":null,"orgNos":null,"nowTime":null,"countyName":null,"streetName":null,"villageName":null,"roadName":null,"communityName":null,"tranName":null,"sdLineName":null,"cityCode":"3340101","cityName":"浙江杭州电力客户服务中心","provinceCode":null,"stopTime":"2020-04-25 23:39:00","powerType":"全部","powerOffArea":"110kV下宁变:鸿泰9751线黎明(8)东农配变","powerOffReason":"高压开关跳闸","powerOffId":"2020042531020149"},{"poweroffId":2020042531020143,"sgpoweroffId":null,"subsName":"","lineName":"10kV麻车Y312线","pubTranName":"建金高速3标向阳遂道进口右1#临变,麻车村向阳台区,麻车村大片台区,麻车村朱山坪台区,麻车村杨梅市场台区,","scope":"浙江省-杭州市-建德市-大洋镇-麻车行政村(向阳自然村,和卜山自然村,朱山坪自然村,水桶山自然村,外铺自然村,老鼠坟自然村,大片自然村,下坑自然村,下屋自然村);浙江省-杭州市-建德市-大洋镇-麻车行政村-浙江交工集团股份有限公司","startTime":"2020-04-25 19:40:00","stopDate":"2020-04-25 22:00:00","orgNo":"3340180","typeCode":"电网故障停限电","poweroffArea":"35kV大洋变:麻车Y312线-向阳支线0#杆开关后段","poweroffReason":"高压开关跳闸 原停电结束时间为2020-04-25 21:30:00,因现场环境复杂原因,延迟送电,现变更停电结束时间为2020-04-25 22:00:00","powerTime":"2020-04-25 21:14:00","powerComm":"已送电","subsNo":"","lineNo":"","tgNo":"","tgName":null,"infoStatus":"1","orgName":"国网浙江建德市供电有限公司","typeName":null,"infoStatusName":null,"dateDay":null,"orgNos":null,"nowTime":null,"countyName":null,"streetName":null,"villageName":null,"roadName":null,"communityName":null,"tranName":null,"sdLineName":null,"cityCode":"3340180","cityName":"国网浙江建德市供电有限公司","provinceCode":null,"stopTime":"2020-04-25 22:00:00","powerType":"全部","powerOffArea":"35kV大洋变:麻车Y312线-向阳支线0#杆开关后段","powerOffReason":"高压开关跳闸 原停电结束时间为2020-04-25 21:30:00,因现场环境复杂原因,延迟送电,现变更停电结束时间为2020-04-25 22:00:00","powerOffId":"2020042531020143"},{"poweroffId":2020042531020136,"sgpoweroffId":null,"subsName":"","lineName":"10kV大镇Y315线","pubTranName":"胡店村胡店台区,1#变,2#变,建金高速2标目科里遂道2#临变,中交第二公路工程局有限公司1#变,胡店村塘坞台区,胡店村路塘山台区,建金高速2标目科里遂道出口,建金高速2标目科里遂道出口1#专变,","scope":"浙江省-杭州市-建德市-大洋镇-胡店行政村(胡店自然村,塘坞自然村);大洋镇-中交第二公路工程局有限公司","startTime":"2020-04-25 18:14:00","stopDate":"2020-04-25 19:30:00","orgNo":"3340180","typeCode":"电网故障停限电","poweroffArea":"35kV大洋变:大镇Y315线胡店支线7#真空开关后段","poweroffReason":"高压开关跳闸","powerTime":"2020-04-25 18:33:00","powerComm":"已送电","subsNo":"","lineNo":"","tgNo":"","tgName":null,"infoStatus":"1","orgName":"国网浙江建德市供电有限公司","typeName":null,"infoStatusName":null,"dateDay":null,"orgNos":null,"nowTime":null,"countyName":null,"streetName":null,"villageName":null,"roadName":null,"communityName":null,"tranName":null,"sdLineName":null,"cityCode":"3340180","cityName":"国网浙江建德市供电有限公司","provinceCode":null,"stopTime":"2020-04-25 19:30:00","powerType":"全部","powerOffArea":"35kV大洋变:大镇Y315线胡店支线7#真空开关后段","powerOffReason":"高压开关跳闸","powerOffId":"2020042531020136"},{"poweroffId":2020042531020130,"sgpoweroffId":null,"subsName":"","lineName":"10kV五联8816线","pubTranName":"港杭大厦2#,散码（1）（2）2#,散码（1）（2）1#,市石(2),1#,瓜南(5)农,港杭大厦1,方正(1),瓜山临住,瓜北(6)农,","scope":"浙江省-杭州市-拱墅区-上塘街道-瓜山社区(瓜山村,石祥路);上塘街道(杭州市城市照明发展中心,杭州港航有限公司,杭州港务管理有限公司,杭州正方商品混凝土搅拌厂,杭州正方实业集团有限公司,)","startTime":"2020-04-25 16:55:00","stopDate":"2020-04-25 19:04:00","orgNo":"3340101","typeCode":"电网故障停限电","poweroffArea":"110kV拱宸变:五联8816线上石站五联8816线后段","poweroffReason":"高压开关跳闸 原停电结束时间为2020-04-25 20:55:00,为减少客户停电时间,加快工作进度,提前送电,现变更停电结束时间为2020-04-25 19:04:00","powerTime":"2020-04-25 18:33:19","powerComm":"已送电","subsNo":"","lineNo":"","tgNo":"","tgName":null,"infoStatus":"1","orgName":"浙江杭州电力客户服务中心","typeName":null,"infoStatusName":null,"dateDay":null,"orgNos":null,"nowTime":null,"countyName":null,"streetName":null,"villageName":null,"roadName":null,"communityName":null,"tranName":null,"sdLineName":null,"cityCode":"3340101","cityName":"浙江杭州电力客户服务中心","provinceCode":null,"stopTime":"2020-04-25 19:04:00","powerType":"全部","powerOffArea":"110kV拱宸变:五联8816线上石站五联8816线后段","powerOffReason":"高压开关跳闸 原停电结束时间为2020-04-25 20:55:00,为减少客户停电时间,加快工作进度,提前送电,现变更停电结束时间为2020-04-25 19:04:00","powerOffId":"2020042531020130"},{"poweroffId":2020042531020129,"sgpoweroffId":null,"subsName":"","lineName":"10kV四眼8785线","pubTranName":"动物变,","scope":"浙江省-杭州市-西湖区-西湖街道-净寺社区-莲花峰路,满觉陇村社区(四眼井,虎跑路四眼井,虎跑路)","startTime":"2020-04-25 16:42:00","stopDate":"2020-04-25 17:42:00","orgNo":"3340101","typeCode":"电网故障停限电","poweroffArea":"110kV花港变:四眼8785线动物变配变","poweroffReason":"高压开关跳闸 原停电结束时间为2020-04-25 18:42:00,为减少客户停电时间,加快工作进度,提前送电,现变更停电结束时间为2020-04-25 17:42:00","powerTime":"2020-04-25 17:22:18","powerComm":"已送电","subsNo":"","lineNo":"","tgNo":"","tgName":null,"infoStatus":"1","orgName":"浙江杭州电力客户服务中心","typeName":null,"infoStatusName":null,"dateDay":null,"orgNos":null,"nowTime":null,"countyName":null,"streetName":null,"villageName":null,"roadName":null,"communityName":null,"tranName":null,"sdLineName":null,"cityCode":"3340101","cityName":"浙江杭州电力客户服务中心","provinceCode":null,"stopTime":"2020-04-25 17:42:00","powerType":"全部","powerOffArea":"110kV花港变:四眼8785线动物变配变","powerOffReason":"高压开关跳闸 原停电结束时间为2020-04-25 18:42:00,为减少客户停电时间,加快工作进度,提前送电,现变更停电结束时间为2020-04-25 17:42:00","powerOffId":"2020042531020129"},{"poweroffId":2020042531020122,"sgpoweroffId":null,"subsName":"","lineName":"10kV贤德D333线","pubTranName":"文村村4#高路山公变,文村村7#巨龙剪家坞公变,文村村5#天井山公变,文村村10#大磨弯公变,文村村8#巨龙赤水坞公变,文村村6#巨龙郎家公变,文村村14#翁村头公变,","scope":"浙江省-杭州市-富阳区-洞桥镇-文村行政村(文村自然村,石亭子自然村,赤水坞自然村,高陈家自然村,巨龙自然村,缪家自然村,翁村自然村,对山自然村,高路山自然村),洞桥镇(枫瑞行政村-巨龙自然村,洞桥行政村-文村自然村,贤德行政村-太宰坞自然村)","startTime":"2020-04-25 16:10:00","stopDate":"2020-04-25 17:40:43","orgNo":"3340170","typeCode":"电网故障停限电","poweroffArea":"110kV万市变:贤德D333线-贤德D3337开关后段","poweroffReason":"高压开关跳闸","powerTime":"2020-04-25 17:29:41","powerComm":"已送电","subsNo":"","lineNo":"","tgNo":"","tgName":null,"infoStatus":"1","orgName":"国网浙江杭州市富阳区供电公司","typeName":null,"infoStatusName":null,"dateDay":null,"orgNos":null,"nowTime":null,"countyName":null,"streetName":null,"villageName":null,"roadName":null,"communityName":null,"tranName":null,"sdLineName":null,"cityCode":"3340170","cityName":"国网浙江杭州市富阳区供电公司","provinceCode":null,"stopTime":"2020-04-25 17:40:43","powerType":"全部","powerOffArea":"110kV万市变:贤德D333线-贤德D3337开关后段","powerOffReason":"高压开关跳闸","powerOffId":"2020042531020122"},{"poweroffId":2020042531020121,"sgpoweroffId":null,"subsName":"","lineName":"10kV石坝G039线","pubTranName":"杭州丰润羊绒织造有限公司,梦情卫生用品,","scope":"浙江省-杭州市-余杭区-东湖街道(杭州尚乾实业有限公司,杭州银杉家具有限公司)","startTime":"2020-04-25 15:31:00","stopDate":"2020-04-25 17:00:00","orgNo":"3340140","typeCode":"电网故障停限电","poweroffArea":"110kV五杭变:石坝G039线龙安3组分线开关后段","poweroffReason":"高压开关跳闸 原停电结束时间为2020-04-25 17:31:00,为减少客户停电时间,加快工作进度,提前送电,现变更停电结束时间为2020-04-25 17:00:00","powerTime":"2020-04-25 16:05:00","powerComm":"已送电","subsNo":"","lineNo":"","tgNo":"","tgName":null,"infoStatus":"1","orgName":"国网浙江杭州市余杭区供电有限公司","typeName":null,"infoStatusName":null,"dateDay":null,"orgNos":null,"nowTime":null,"countyName":null,"streetName":null,"villageName":null,"roadName":null,"communityName":null,"tranName":null,"sdLineName":null,"cityCode":"3340140","cityName":"国网浙江杭州市余杭区供电有限公司","provinceCode":null,"stopTime":"2020-04-25 17:00:00","powerType":"全部","powerOffArea":"110kV五杭变:石坝G039线龙安3组分线开关后段","powerOffReason":"高压开关跳闸 原停电结束时间为2020-04-25 17:31:00,为减少客户停电时间,加快工作进度,提前送电,现变更停电结束时间为2020-04-25 17:00:00","powerOffId":"2020042531020121"},{"poweroffId":2020042531020120,"sgpoweroffId":null,"subsName":"","lineName":"10kV石坝G039线","pubTranName":"梦情卫生用品,杭州丰润羊绒织造有限公司,","scope":"浙江省-杭州市-余杭区-东湖街道-经济开发区(杭州尚乾实业有限公司,杭州银杉家具有限公司)","startTime":"2020-04-25 15:32:16","stopDate":"2020-04-25 16:15:16","orgNo":"3340140","typeCode":"电网故障停限电","poweroffArea":"110kV五杭变:石坝G039线-龙安3组分线开关后段","poweroffReason":"高压开关跳闸","powerTime":"2020-04-25 16:05:08","powerComm":"已送电","subsNo":"","lineNo":"","tgNo":"","tgName":null,"infoStatus":"1","orgName":"国网浙江杭州市余杭区供电有限公司","typeName":null,"infoStatusName":null,"dateDay":null,"orgNos":null,"nowTime":null,"countyName":null,"streetName":null,"villageName":null,"roadName":null,"communityName":null,"tranName":null,"sdLineName":null,"cityCode":"3340140","cityName":"国网浙江杭州市余杭区供电有限公司","provinceCode":null,"stopTime":"2020-04-25 16:15:16","powerType":"全部","powerOffArea":"110kV五杭变:石坝G039线-龙安3组分线开关后段","powerOffReason":"高压开关跳闸","powerOffId":"2020042531020120"},{"poweroffId":2020042531020109,"sgpoweroffId":null,"subsName":"","lineName":"10kV云石C954线","pubTranName":"顾家溪5#变,","scope":"浙江省-杭州市-萧山区-戴村镇-顾家溪行政村-勤工自然村等","startTime":"2020-04-25 14:42:09","stopDate":"2020-04-25 20:00:09","orgNo":"3340130","typeCode":"电网故障停限电","poweroffArea":"110kV永兴变:云石C954线-顾家溪5#变台区低压开关","poweroffReason":"(低压停电信息)低压开关跳闸 原停电结束时间为2020-04-25 18:00:09,因抢修难度大原因,延迟送电,现变更停电结束时间为2020-04-25 20:00:09","powerTime":"2020-04-25 19:20:49","powerComm":"已送电","subsNo":"","lineNo":"","tgNo":"","tgName":null,"infoStatus":"1","orgName":"国网浙江杭州市萧山区供电有限公司","typeName":null,"infoStatusName":null,"dateDay":null,"orgNos":null,"nowTime":null,"countyName":null,"streetName":null,"villageName":null,"roadName":null,"communityName":null,"tranName":null,"sdLineName":null,"cityCode":"3340130","cityName":"国网浙江杭州市萧山区供电有限公司","provinceCode":null,"stopTime":"2020-04-25 20:00:09","powerType":"全部","powerOffArea":"110kV永兴变:云石C954线-顾家溪5#变台区低压开关","powerOffReason":"(低压停电信息)低压开关跳闸 原停电结束时间为2020-04-25 18:00:09,因抢修难度大原因,延迟送电,现变更停电结束时间为2020-04-25 20:00:09","powerOffId":"2020042531020109"}],"pageModel":{"pageNow":278,"totalCount":17788,"totalPage":1779,"tableRows":0,"pageCount":10,"beginCount":2770},"isExperi":"1"}