{"message":"","today":"2020-06-15","seleList":[{"poweroffId":2020060831020213,"sgpoweroffId":null,"subsName":"","lineName":"10kV同科A389线","pubTranName":"万向集团3#,杭州萧山钱鸿交通器材有限公司,杭州建伟实业有限公司,建伟建设有限公司1#变,万大亚海,万向集团5#,万向集团6#,恩达研磨,正平饲料,杨利石化,祥星塑料,兰萌艺术,凯鹰塑钢,明峰工具,杭州市萧山区钱江农场,达利（中国）,万向集团1#,杭州天诚药业有限公司,钱鸿苏美达2#,钱鸿苏美达1#,尔斯塑料,万向集团2#,赛励思胶粘,交通发展公司,万向集团4#,建伟建设有限公司2#变,","scope":"浙江省-杭州市-萧山区-宁围镇、宁围街道经济技术开发区(杭州正平生物技术有限公司,杭州杨利实业股份有限公司,杭州明峰工具有限公司,杭州乐傲机械有限公司,杭州凯鹰塑钢有限公司,杭州兰萌艺术时装有限公司,杭州思达研磨制品有限公司,杭州萧山钱鸿交通器材有限公司,达利(中国)有限公司,浙江赛励恩胶粘剂有限公司,杭州永迪电器器材厂,杭州市萧山公共交通有限公司,杭州天诚药业有限公司,杭州钱鸿苏美达车业有限公司,浙江卓越物业服务有限公司,万向集团公司,建伟建设有限公司,杭州建伟实业有限公司)等","startTime":"2020-06-08 13:38:00","stopDate":"2020-06-08 16:38:00","orgNo":"3340130","typeCode":"电网故障停限电","poweroffArea":"110kV顺坝变:同科A389线同科A3892开关后段","poweroffReason":"高压开关跳闸","powerTime":"2020-06-08 15:41:11","powerComm":"已送电","subsNo":"","lineNo":"","tgNo":"","tgName":null,"infoStatus":"1","orgName":"国网浙江杭州市萧山区供电有限公司","typeName":null,"infoStatusName":null,"dateDay":null,"orgNos":null,"nowTime":null,"countyName":null,"streetName":null,"villageName":null,"roadName":null,"communityName":null,"tranName":null,"sdLineName":null,"cityCode":"3340130","cityName":"国网浙江杭州市萧山区供电有限公司","provinceCode":null,"stopTime":"2020-06-08 16:38:00","powerType":"全部","powerOffArea":"110kV顺坝变:同科A389线同科A3892开关后段","powerOffReason":"高压开关跳闸","powerOffId":"2020060831020213"},{"poweroffId":2020060831020205,"sgpoweroffId":null,"subsName":"","lineName":"10kV沈家V185线","pubTranName":"10kV方元村[方元金家]公变,","scope":"浙江省-杭州市-临安市-於潜镇-方元行政村-方元自然村","startTime":"2020-06-08 13:21:00","stopDate":"2020-06-08 15:45:00","orgNo":"3340160","typeCode":"电网故障停限电","poweroffArea":"35kV太阳变:沈家V185线-10kV方元村[方元金家]公变后段","poweroffReason":"高压开关跳闸","powerTime":"2020-06-08 15:18:00","powerComm":"已送电","subsNo":"","lineNo":"","tgNo":"","tgName":null,"infoStatus":"1","orgName":"国网浙江临安市供电公司","typeName":null,"infoStatusName":null,"dateDay":null,"orgNos":null,"nowTime":null,"countyName":null,"streetName":null,"villageName":null,"roadName":null,"communityName":null,"tranName":null,"sdLineName":null,"cityCode":"3340160","cityName":"国网浙江临安市供电公司","provinceCode":null,"stopTime":"2020-06-08 15:45:00","powerType":"全部","powerOffArea":"35kV太阳变:沈家V185线-10kV方元村[方元金家]公变后段","powerOffReason":"高压开关跳闸","powerOffId":"2020060831020205"},{"poweroffId":2020060831020201,"sgpoweroffId":null,"subsName":"","lineName":"10kV铜矿R163线","pubTranName":"笋坞公变,","scope":"浙江省-杭州市-淳安县-枫树岭镇-木花坑行政村-木花坑自然村","startTime":"2020-06-08 13:10:00","stopDate":"2020-06-08 14:10:00","orgNo":"3340190","typeCode":"电网故障停限电","poweroffArea":"35kV大市变:铜矿R163线笋坞公变配变","poweroffReason":"高压开关跳闸","powerTime":"2020-06-08 13:28:06","powerComm":"已送电","subsNo":"","lineNo":"","tgNo":"","tgName":null,"infoStatus":"1","orgName":"国网浙江淳安县供电有限公司","typeName":null,"infoStatusName":null,"dateDay":null,"orgNos":null,"nowTime":null,"countyName":null,"streetName":null,"villageName":null,"roadName":null,"communityName":null,"tranName":null,"sdLineName":null,"cityCode":"3340190","cityName":"国网浙江淳安县供电有限公司","provinceCode":null,"stopTime":"2020-06-08 14:10:00","powerType":"全部","powerOffArea":"35kV大市变:铜矿R163线笋坞公变配变","powerOffReason":"高压开关跳闸","powerOffId":"2020060831020201"},{"poweroffId":2020060831020199,"sgpoweroffId":null,"subsName":"","lineName":"10kV铜矿R163线","pubTranName":"顾家公变,大市大桥头村西山公变,陈村公变,大市大桥头村新石源公变,萝卜田公变,淳安白马渔顺农业开发公司配变,白马公变,乳洞山公变,大市白马村石山底公变,大市白马村高坞公变,石山后公变,低坑公变,大市大桥头村学校公变,榧树底公变,凤凰庙公变,郭住公变,大市大桥头村石柱口公变,知心坑新村公变,大市白马村田畈公变,界牌公变,淳安县白马乡农副产品加工厂配变,淳安县渊源水力发电有限公司计量点1#主变,淳安县渊源水力发电有限公司2#主变,大桥头公变,大市凤凰庙村凹凸山公变,官川公变,大市大桥头村栗园公变,石柱源电站专变,里湖公变,大市大桥头村余村公变,曲源头公变,大市白马村里湖田公变,周家桥公变,","scope":"浙江省-杭州市-淳安县-枫树岭镇-周家桥行政村(周家桥自然村,郭住自然村),枫树岭镇-大桥头行政村(大桥头自然村,新石源自然村,石柱口自然村,余村自然村),枫树岭镇-凤凰庙行政村(凤凰庙自然村,界牌自然村,顾家自然村),枫树岭镇-知心坑行政村(知心坑新村,知心坑自然村),枫树岭镇-白马行政村(萝卜田自然村,白马自然村,里湖自然村,白马村,石山底自然村,高坞自然村,黄公山自然村),枫树岭镇-官川行政村(曲源头自然村,官川村,石山后自然村,官川自然村),枫树岭镇-陈村行政村(低坑自然村,陈村自然村),枫树岭镇(乳洞山行政村-乳洞山自然村,衍昌行政村-岭盘自然村,薛家源行政村-沿店自然村);枫树岭镇(淳安县白马乡农副产品加工厂,淳安石柱源水电站(普通合伙),淳安县白马渔顺农业开发有限公司,淳安县渊源水力发电有限公司)","startTime":"2020-06-08 13:09:00","stopDate":"2020-06-08 14:09:00","orgNo":"3340190","typeCode":"电网故障停限电","poweroffArea":"35kV大市变:铜矿R163线白马支线133号杆开关后段","poweroffReason":"高压开关跳闸 原停电结束时间为2020-06-08 15:09:00,为减少客户停电时间,加快工作进度,提前送电,现变更停电结束时间为2020-06-08 14:09:00","powerTime":"2020-06-08 13:27:54","powerComm":"已送电","subsNo":"","lineNo":"","tgNo":"","tgName":null,"infoStatus":"1","orgName":"国网浙江淳安县供电有限公司","typeName":null,"infoStatusName":null,"dateDay":null,"orgNos":null,"nowTime":null,"countyName":null,"streetName":null,"villageName":null,"roadName":null,"communityName":null,"tranName":null,"sdLineName":null,"cityCode":"3340190","cityName":"国网浙江淳安县供电有限公司","provinceCode":null,"stopTime":"2020-06-08 14:09:00","powerType":"全部","powerOffArea":"35kV大市变:铜矿R163线白马支线133号杆开关后段","powerOffReason":"高压开关跳闸 原停电结束时间为2020-06-08 15:09:00,为减少客户停电时间,加快工作进度,提前送电,现变更停电结束时间为2020-06-08 14:09:00","powerOffId":"2020060831020199"},{"poweroffId":2020060831020198,"sgpoweroffId":null,"subsName":"","lineName":"10kV工厂D125线","pubTranName":"鑫鹏旧货贸易1#变,杭州富阳博纳水净化设备有限公司,","scope":"浙江省-杭州市-富阳区-新登镇(杭州富阳鑫鹏旧货贸易有限公司,杭州富阳博纳水净化设备有限公司)","startTime":"2020-06-08 13:08:39","stopDate":"2020-06-08 15:08:39","orgNo":"3340170","typeCode":"电网故障停限电","poweroffArea":"110kV新登变:工厂D125线博纳分线开关后段","poweroffReason":"高压开关跳闸 原停电结束时间为2020-06-08 14:08:39,因现场故障情况复杂,现变更停电结束时间为2020-06-08 15:08:39","powerTime":"2020-06-08 14:10:47","powerComm":"已送电","subsNo":"","lineNo":"","tgNo":"","tgName":null,"infoStatus":"1","orgName":"国网浙江杭州市富阳区供电公司","typeName":null,"infoStatusName":null,"dateDay":null,"orgNos":null,"nowTime":null,"countyName":null,"streetName":null,"villageName":null,"roadName":null,"communityName":null,"tranName":null,"sdLineName":null,"cityCode":"3340170","cityName":"国网浙江杭州市富阳区供电公司","provinceCode":null,"stopTime":"2020-06-08 15:08:39","powerType":"全部","powerOffArea":"110kV新登变:工厂D125线博纳分线开关后段","powerOffReason":"高压开关跳闸 原停电结束时间为2020-06-08 14:08:39,因现场故障情况复杂,现变更停电结束时间为2020-06-08 15:08:39","powerOffId":"2020060831020198"},{"poweroffId":2020060831020185,"sgpoweroffId":null,"subsName":"","lineName":"10kV凤潭Y340线","pubTranName":"乾潭村练上台区,","scope":"浙江省-杭州市-建德市-乾潭镇-乾潭行政村-东源自然村","startTime":"2020-06-08 12:37:00","stopDate":"2020-06-08 13:30:00","orgNo":"3340180","typeCode":"电网故障停限电","poweroffArea":"110kV钦堂变:凤潭Y340线乾潭村练上台区配变","poweroffReason":"高压开关跳闸 原停电结束时间为2020-06-08 15:00:00,为减少客户停电时间,加快工作进度,提前送电,现变更停电结束时间为2020-06-08 13:30:00","powerTime":"2020-06-08 12:57:00","powerComm":"已送电（系统误报，现场实际未停电）","subsNo":"","lineNo":"","tgNo":"","tgName":null,"infoStatus":"1","orgName":"国网浙江建德市供电有限公司","typeName":null,"infoStatusName":null,"dateDay":null,"orgNos":null,"nowTime":null,"countyName":null,"streetName":null,"villageName":null,"roadName":null,"communityName":null,"tranName":null,"sdLineName":null,"cityCode":"3340180","cityName":"国网浙江建德市供电有限公司","provinceCode":null,"stopTime":"2020-06-08 13:30:00","powerType":"全部","powerOffArea":"110kV钦堂变:凤潭Y340线乾潭村练上台区配变","powerOffReason":"高压开关跳闸 原停电结束时间为2020-06-08 15:00:00,为减少客户停电时间,加快工作进度,提前送电,现变更停电结束时间为2020-06-08 13:30:00","powerOffId":"2020060831020185"},{"poweroffId":2020060831020183,"sgpoweroffId":null,"subsName":"","lineName":"10kV石门V353线","pubTranName":"大山村西山公变,大坪公变,平阳队,","scope":"浙江省-杭州市-临安市-高虹镇平阳队，大坪，大山村西山","startTime":"2020-06-15 08:40:00","stopDate":"2020-06-15 10:20:00","orgNo":"3340160","typeCode":"临时停电","poweroffArea":"110kV高虹变:石门V353线鱼岭脚支线76#杆平阳队分支线令克","poweroffReason":"用户红线工作","powerTime":"2020-06-15 10:10:09","powerComm":"已送电","subsNo":"","lineNo":"","tgNo":"","tgName":null,"infoStatus":"1","orgName":"国网浙江临安市供电公司","typeName":null,"infoStatusName":null,"dateDay":null,"orgNos":null,"nowTime":null,"countyName":null,"streetName":null,"villageName":null,"roadName":null,"communityName":null,"tranName":null,"sdLineName":null,"cityCode":"3340160","cityName":"国网浙江临安市供电公司","provinceCode":null,"stopTime":"2020-06-15 10:20:00","powerType":"全部","powerOffArea":"110kV高虹变:石门V353线鱼岭脚支线76#杆平阳队分支线令克","powerOffReason":"用户红线工作","powerOffId":"2020060831020183"},{"poweroffId":2020060831020172,"sgpoweroffId":null,"subsName":"","lineName":"10kV军农9810线","pubTranName":"黎明（9-1）农,","scope":"浙江省-杭州市-江干区-笕桥镇-笕新社区-同协路","startTime":"2020-06-08 10:52:00","stopDate":"2020-06-08 12:20:00","orgNo":"3340101","typeCode":"电网故障停限电","poweroffArea":"110kV笕桥变:军农9810线黎明（9-1）农配变","poweroffReason":"高压开关跳闸 原停电结束时间为2020-06-08 14:52:00,为减少客户停电时间,加快工作进度,提前送电,现变更停电结束时间为2020-06-08 12:20:00","powerTime":"2020-06-08 11:48:43","powerComm":"已送电","subsNo":"","lineNo":"","tgNo":"","tgName":null,"infoStatus":"1","orgName":"浙江杭州电力客户服务中心","typeName":null,"infoStatusName":null,"dateDay":null,"orgNos":null,"nowTime":null,"countyName":null,"streetName":null,"villageName":null,"roadName":null,"communityName":null,"tranName":null,"sdLineName":null,"cityCode":"3340101","cityName":"浙江杭州电力客户服务中心","provinceCode":null,"stopTime":"2020-06-08 12:20:00","powerType":"全部","powerOffArea":"110kV笕桥变:军农9810线黎明（9-1）农配变","powerOffReason":"高压开关跳闸 原停电结束时间为2020-06-08 14:52:00,为减少客户停电时间,加快工作进度,提前送电,现变更停电结束时间为2020-06-08 12:20:00","powerOffId":"2020060831020172"},{"poweroffId":2020060831020131,"sgpoweroffId":null,"subsName":"","lineName":"10kV至优A816线","pubTranName":"横蓬村19#变,","scope":"浙江省-杭州市-萧山区-南阳街道-横蓬行政村(横蓬路,横蓬自然村)等","startTime":"2020-06-08 10:15:13","stopDate":"2020-06-08 16:30:13","orgNo":"3340130","typeCode":"电网故障停限电","poweroffArea":"110kV黎明变:至优A816线-横蓬村19#变后段","poweroffReason":"(低压停电信息)低压开关跳闸 原停电结束时间为2020-06-08 17:30:13,为减少客户停电时间,加快工作进度,提前送电,现变更停电结束时间为2020-06-08 16:30:13","powerTime":"2020-06-08 15:42:15","powerComm":"已送电","subsNo":"","lineNo":"","tgNo":"","tgName":null,"infoStatus":"1","orgName":"国网浙江杭州市萧山区供电有限公司","typeName":null,"infoStatusName":null,"dateDay":null,"orgNos":null,"nowTime":null,"countyName":null,"streetName":null,"villageName":null,"roadName":null,"communityName":null,"tranName":null,"sdLineName":null,"cityCode":"3340130","cityName":"国网浙江杭州市萧山区供电有限公司","provinceCode":null,"stopTime":"2020-06-08 16:30:13","powerType":"全部","powerOffArea":"110kV黎明变:至优A816线-横蓬村19#变后段","powerOffReason":"(低压停电信息)低压开关跳闸 原停电结束时间为2020-06-08 17:30:13,为减少客户停电时间,加快工作进度,提前送电,现变更停电结束时间为2020-06-08 16:30:13","powerOffId":"2020060831020131"},{"poweroffId":2020060831020118,"sgpoweroffId":null,"subsName":"","lineName":"10kV食品8465线","pubTranName":"滨康十变,","scope":"浙江省-杭州市-滨江区-西兴街道-襄七房社区-聚园路","startTime":"2020-06-08 09:45:00","stopDate":"2020-06-08 13:45:00","orgNo":"3340101","typeCode":"电网故障停限电","poweroffArea":"220kV兴南变:食品8465线滨康十变配变","poweroffReason":"高压开关跳闸","powerTime":"2020-06-08 12:57:21","powerComm":"已送电","subsNo":"","lineNo":"","tgNo":"","tgName":null,"infoStatus":"1","orgName":"浙江杭州电力客户服务中心","typeName":null,"infoStatusName":null,"dateDay":null,"orgNos":null,"nowTime":null,"countyName":null,"streetName":null,"villageName":null,"roadName":null,"communityName":null,"tranName":null,"sdLineName":null,"cityCode":"3340101","cityName":"浙江杭州电力客户服务中心","provinceCode":null,"stopTime":"2020-06-08 13:45:00","powerType":"全部","powerOffArea":"220kV兴南变:食品8465线滨康十变配变","powerOffReason":"高压开关跳闸","powerOffId":"2020060831020118"}],"pageModel":{"pageNow":27,"totalCount":17786,"totalPage":1779,"tableRows":0,"pageCount":10,"beginCount":260},"isExperi":"1"}