{"message":"","today":"2020-06-15","seleList":[{"poweroffId":2020042431020455,"sgpoweroffId":null,"subsName":"","lineName":"10kV芦岭V130线","pubTranName":"杨村,","scope":"浙江省-杭州市-临安市-昌化镇-虞溪村杨村","startTime":"2020-05-07 07:40:00","stopDate":"2020-05-07 12:20:00","orgNo":"3340160","typeCode":"计划停电","poweroffArea":"110kV昌化变:芦岭V130线-杨村配变","poweroffReason":"(低压停电信息)","powerTime":"2020-05-07 12:10:27","powerComm":"已送电","subsNo":"","lineNo":"","tgNo":"","tgName":null,"infoStatus":"1","orgName":"国网浙江临安市供电公司","typeName":null,"infoStatusName":null,"dateDay":null,"orgNos":null,"nowTime":null,"countyName":null,"streetName":null,"villageName":null,"roadName":null,"communityName":null,"tranName":null,"sdLineName":null,"cityCode":"3340160","cityName":"国网浙江临安市供电公司","provinceCode":null,"stopTime":"2020-05-07 12:20:00","powerType":"全部","powerOffArea":"110kV昌化变:芦岭V130线-杨村配变","powerOffReason":"(低压停电信息)","powerOffId":"2020042431020455"},{"poweroffId":2020042431020454,"sgpoweroffId":null,"subsName":"","lineName":"10kV芦岭V130线","pubTranName":"杨村童家,","scope":"浙江省-杭州市-临安市-昌化镇-虞溪村童家。","startTime":"2020-05-07 12:40:00","stopDate":"2020-05-07 17:20:00","orgNo":"3340160","typeCode":"计划停电","poweroffArea":"110kV昌化变:芦岭V130线-杨村童家配变","poweroffReason":"(低压停电信息)","powerTime":"2020-05-07 17:10:09","powerComm":"已送电","subsNo":"","lineNo":"","tgNo":"","tgName":null,"infoStatus":"1","orgName":"国网浙江临安市供电公司","typeName":null,"infoStatusName":null,"dateDay":null,"orgNos":null,"nowTime":null,"countyName":null,"streetName":null,"villageName":null,"roadName":null,"communityName":null,"tranName":null,"sdLineName":null,"cityCode":"3340160","cityName":"国网浙江临安市供电公司","provinceCode":null,"stopTime":"2020-05-07 17:20:00","powerType":"全部","powerOffArea":"110kV昌化变:芦岭V130线-杨村童家配变","powerOffReason":"(低压停电信息)","powerOffId":"2020042431020454"},{"poweroffId":2020042431020453,"sgpoweroffId":null,"subsName":"","lineName":"10kV明川V264线","pubTranName":"昌西-夏林村鸠朋坞,","scope":"浙江省-杭州市-临安市-清凉峰镇-林竹村夏林","startTime":"2020-05-06 07:40:00","stopDate":"2020-05-06 17:20:00","orgNo":"3340160","typeCode":"计划停电","poweroffArea":"35kV颊口变:明川V264线-昌西-夏林村鸠朋坞配变","poweroffReason":"(低压停电信息)低压割接","powerTime":"2020-05-06 17:10:13","powerComm":"已送电","subsNo":"","lineNo":"","tgNo":"","tgName":null,"infoStatus":"1","orgName":"国网浙江临安市供电公司","typeName":null,"infoStatusName":null,"dateDay":null,"orgNos":null,"nowTime":null,"countyName":null,"streetName":null,"villageName":null,"roadName":null,"communityName":null,"tranName":null,"sdLineName":null,"cityCode":"3340160","cityName":"国网浙江临安市供电公司","provinceCode":null,"stopTime":"2020-05-06 17:20:00","powerType":"全部","powerOffArea":"35kV颊口变:明川V264线-昌西-夏林村鸠朋坞配变","powerOffReason":"(低压停电信息)低压割接","powerOffId":"2020042431020453"},{"poweroffId":2020042431020452,"sgpoweroffId":null,"subsName":"","lineName":"10kV相岛V832线","pubTranName":"国石村中梅,赤岭村,峡谷源村新庄,玉山村永安,狮溪村,国石村汪家,平溪村,临安市玉岩昌化石矿业有限公司,太平村,玉山村,峡谷源村源头,毛塔村,国石村平溪钱家,玉山村(里),竹岭村,中国电信有限公司临安分公司,上溪村,毛塔村后山,狮溪电站,中梅村,平溪村叶家坞,东塔村浮桥,朱岭村,落塘村,临安市龙岗镇东塔股份经济合作,","scope":"浙江省-杭州市-临安市-龙岗镇-峡谷源村源头,新庄，国石村平溪,中梅,玉山村玉山,永安，上溪村竹岭,上溪,落塘,鱼跳村赤岭,鱼跳,朱岭,太平村太平,狮溪,东塔村后山,浮桥,毛塔，狮溪电站,东塔股份经济合作社,临安市玉岩昌化石矿业有限公司。","startTime":"2020-05-07 09:00:00","stopDate":"2020-05-07 10:00:00","orgNo":"3340160","typeCode":"计划停电","poweroffArea":"35kV相见变:相岛V832线-上溪分线7#杆开关后段","poweroffReason":"上溪分线缺陷处理","powerTime":"2020-05-07 09:50:12","powerComm":"已送电","subsNo":"","lineNo":"","tgNo":"","tgName":null,"infoStatus":"1","orgName":"国网浙江临安市供电公司","typeName":null,"infoStatusName":null,"dateDay":null,"orgNos":null,"nowTime":null,"countyName":null,"streetName":null,"villageName":null,"roadName":null,"communityName":null,"tranName":null,"sdLineName":null,"cityCode":"3340160","cityName":"国网浙江临安市供电公司","provinceCode":null,"stopTime":"2020-05-07 10:00:00","powerType":"全部","powerOffArea":"35kV相见变:相岛V832线-上溪分线7#杆开关后段","powerOffReason":"上溪分线缺陷处理","powerOffId":"2020042431020452"},{"poweroffId":2020042431020449,"sgpoweroffId":null,"subsName":"","lineName":"10kV锦福V215线","pubTranName":"厉峰平,","scope":"浙江省-杭州市-临安市-锦城街道-锦潭社区-厉峰平公司。","startTime":"2020-05-08 08:40:00","stopDate":"2020-05-08 14:00:00","orgNo":"3340160","typeCode":"计划停电","poweroffArea":"110kV锦城变:锦福V215线福庆站厉峰平配变开关后段。","poweroffReason":"1、锦福V215线人民站至原福庆站电缆拆除、原福庆站拆除，人民站新敷设电缆至新福庆站G2间隔，缆头制作、中间接头制作、试验、搭头。 2、原福庆站历峰平配变电缆改接至新福庆站G6间隔，缆头制作、中间接头制作、试验、搭头。","powerTime":"2020-05-08 13:17:09","powerComm":"已送电","subsNo":"","lineNo":"","tgNo":"","tgName":null,"infoStatus":"1","orgName":"国网浙江临安市供电公司","typeName":null,"infoStatusName":null,"dateDay":null,"orgNos":null,"nowTime":null,"countyName":null,"streetName":null,"villageName":null,"roadName":null,"communityName":null,"tranName":null,"sdLineName":null,"cityCode":"3340160","cityName":"国网浙江临安市供电公司","provinceCode":null,"stopTime":"2020-05-08 14:00:00","powerType":"全部","powerOffArea":"110kV锦城变:锦福V215线福庆站厉峰平配变开关后段。","powerOffReason":"1、锦福V215线人民站至原福庆站电缆拆除、原福庆站拆除，人民站新敷设电缆至新福庆站G2间隔，缆头制作、中间接头制作、试验、搭头。 2、原福庆站历峰平配变电缆改接至新福庆站G6间隔，缆头制作、中间接头制作、试验、搭头。","powerOffId":"2020042431020449"},{"poweroffId":2020042431020448,"sgpoweroffId":null,"subsName":"","lineName":"10kV解百V216线","pubTranName":"吕家弄公变,","scope":"浙江省-杭州市-临安市-锦城街道-吕家弄部分用户。","startTime":"2020-05-08 08:10:00","stopDate":"2020-05-08 10:40:00","orgNo":"3340160","typeCode":"计划停电","poweroffArea":"110kV锦城变:解百V216线33#杆吕家弄公变令克后段。","poweroffReason":"解百V216线33#杆吕家弄公变增容，更换变压器等工作。 原停电结束时间为2020-05-08 12:30:00,为减少客户停电时间,加快工作进度,提前送电,现变更停电结束时间为2020-05-08 10:40:00","powerTime":"2020-05-08 10:06:19","powerComm":"已送电","subsNo":"","lineNo":"","tgNo":"","tgName":null,"infoStatus":"1","orgName":"国网浙江临安市供电公司","typeName":null,"infoStatusName":null,"dateDay":null,"orgNos":null,"nowTime":null,"countyName":null,"streetName":null,"villageName":null,"roadName":null,"communityName":null,"tranName":null,"sdLineName":null,"cityCode":"3340160","cityName":"国网浙江临安市供电公司","provinceCode":null,"stopTime":"2020-05-08 10:40:00","powerType":"全部","powerOffArea":"110kV锦城变:解百V216线33#杆吕家弄公变令克后段。","powerOffReason":"解百V216线33#杆吕家弄公变增容，更换变压器等工作。 原停电结束时间为2020-05-08 12:30:00,为减少客户停电时间,加快工作进度,提前送电,现变更停电结束时间为2020-05-08 10:40:00","powerOffId":"2020042431020448"},{"poweroffId":2020042431020446,"sgpoweroffId":null,"subsName":"","lineName":"10kV锦福V215线","pubTranName":"10KV星悦金座小区2#公变,","scope":"浙江省-杭州市-临安市-锦城街道-星悦金座小区。","startTime":"2020-05-07 08:40:00","stopDate":"2020-05-07 14:20:00","orgNo":"3340160","typeCode":"计划停电","poweroffArea":"110kV锦城变:锦福V215线福庆站锦福星悦支线开关后段","poweroffReason":"原停电结束时间为2020-05-07 15:00:00,为减少客户停电时间,加快工作进度,提前送电,现变更停电结束时间为2020-05-07 14:20:00","powerTime":"2020-05-07 13:45:25","powerComm":"已送电","subsNo":"","lineNo":"","tgNo":"","tgName":null,"infoStatus":"1","orgName":"国网浙江临安市供电公司","typeName":null,"infoStatusName":null,"dateDay":null,"orgNos":null,"nowTime":null,"countyName":null,"streetName":null,"villageName":null,"roadName":null,"communityName":null,"tranName":null,"sdLineName":null,"cityCode":"3340160","cityName":"国网浙江临安市供电公司","provinceCode":null,"stopTime":"2020-05-07 14:20:00","powerType":"全部","powerOffArea":"110kV锦城变:锦福V215线福庆站锦福星悦支线开关后段","powerOffReason":"原停电结束时间为2020-05-07 15:00:00,为减少客户停电时间,加快工作进度,提前送电,现变更停电结束时间为2020-05-07 14:20:00","powerOffId":"2020042431020446"},{"poweroffId":2020042431020444,"sgpoweroffId":null,"subsName":"","lineName":"10kV锦福V215线","pubTranName":"国网浙江临安市供电公司,","scope":"浙江省-杭州市-临安市-锦城街道-国网浙江临安市供电公司。","startTime":"2020-05-06 08:40:00","stopDate":"2020-05-06 15:00:00","orgNo":"3340160","typeCode":"计划停电","poweroffArea":"110kV锦城变:锦福V215线福庆站供电局支线开关后段","poweroffReason":"西瓜V203线新上青年站、福庆站，新上青年站G3间隔至新上福庆站G3间隔临时搭接。西瓜V203线公寓站至原青年站电缆拆除、原青年站拆除，公寓站新敷设电缆至新上青年站，缆头制作、中间接头制作、试验、搭头。","powerTime":"2020-05-06 14:50:13","powerComm":"已送电","subsNo":"","lineNo":"","tgNo":"","tgName":null,"infoStatus":"1","orgName":"国网浙江临安市供电公司","typeName":null,"infoStatusName":null,"dateDay":null,"orgNos":null,"nowTime":null,"countyName":null,"streetName":null,"villageName":null,"roadName":null,"communityName":null,"tranName":null,"sdLineName":null,"cityCode":"3340160","cityName":"国网浙江临安市供电公司","provinceCode":null,"stopTime":"2020-05-06 15:00:00","powerType":"全部","powerOffArea":"110kV锦城变:锦福V215线福庆站供电局支线开关后段","powerOffReason":"西瓜V203线新上青年站、福庆站，新上青年站G3间隔至新上福庆站G3间隔临时搭接。西瓜V203线公寓站至原青年站电缆拆除、原青年站拆除，公寓站新敷设电缆至新上青年站，缆头制作、中间接头制作、试验、搭头。","powerOffId":"2020042431020444"},{"poweroffId":2020042431020438,"sgpoweroffId":null,"subsName":"","lineName":"10kV汽配9364线","pubTranName":"水宜二,","scope":"浙江省-杭州市-拱墅区-祥符街道-浙江省杭州市拱墅区水色宜居3幢及地下车库，塘萍路361、363、365、367、369、371、373、375、377号附近","startTime":"2020-05-09 13:00:00","stopDate":"2020-05-09 15:00:00","orgNo":"3340101","typeCode":"计划停电","poweroffArea":"110kV余塘变:汽配9364线-水宜二站水宜二配变","poweroffReason":"水宜二安装减震降噪装置 原停电结束时间为2020-05-09 17:30:00,为减少客户停电时间,加快工作进度,提前送电,现变更停电结束时间为2020-05-09 15:00:00","powerTime":"2020-05-09 14:04:24","powerComm":"已送电","subsNo":"","lineNo":"","tgNo":"","tgName":null,"infoStatus":"1","orgName":"浙江杭州电力客户服务中心","typeName":null,"infoStatusName":null,"dateDay":null,"orgNos":null,"nowTime":null,"countyName":null,"streetName":null,"villageName":null,"roadName":null,"communityName":null,"tranName":null,"sdLineName":null,"cityCode":"3340101","cityName":"浙江杭州电力客户服务中心","provinceCode":null,"stopTime":"2020-05-09 15:00:00","powerType":"全部","powerOffArea":"110kV余塘变:汽配9364线-水宜二站水宜二配变","powerOffReason":"水宜二安装减震降噪装置 原停电结束时间为2020-05-09 17:30:00,为减少客户停电时间,加快工作进度,提前送电,现变更停电结束时间为2020-05-09 15:00:00","powerOffId":"2020042431020438"},{"poweroffId":2020042431020437,"sgpoweroffId":null,"subsName":"","lineName":"10kV丁公H459线","pubTranName":"万年桥社区粮站弄公变,勾庄村老街道2号公变,勾庄村老卫生院公变,勾庄村马甫桥公变,东塘河村卫生院2号公变,勾庄村桥北塘公变,勾庄村老街公变,","scope":"浙江省-杭州市-余杭区-良渚街道：勾庄村老卫生院、勾庄村马甫桥、勾庄村桥北塘、万年桥社区粮站弄、勾庄村老街公bian一带","startTime":"2020-05-10 08:40:00","stopDate":"2020-05-10 16:40:00","orgNo":"3340140","typeCode":"计划停电","poweroffArea":"110kV金渡变:丁公H459线-桥北塘分线开关后段","poweroffReason":"丁公H459线桥北塘分线1#杆至12#杆导线拆除，后段割接至丁公H459线16#杆（需带电立杆）新出导线","powerTime":"2020-05-10 15:43:21","powerComm":"已送电","subsNo":"","lineNo":"","tgNo":"","tgName":null,"infoStatus":"1","orgName":"国网浙江杭州市余杭区供电有限公司","typeName":null,"infoStatusName":null,"dateDay":null,"orgNos":null,"nowTime":null,"countyName":null,"streetName":null,"villageName":null,"roadName":null,"communityName":null,"tranName":null,"sdLineName":null,"cityCode":"3340140","cityName":"国网浙江杭州市余杭区供电有限公司","provinceCode":null,"stopTime":"2020-05-10 16:40:00","powerType":"全部","powerOffArea":"110kV金渡变:丁公H459线-桥北塘分线开关后段","powerOffReason":"丁公H459线桥北塘分线1#杆至12#杆导线拆除，后段割接至丁公H459线16#杆（需带电立杆）新出导线","powerOffId":"2020042431020437"}],"pageModel":{"pageNow":285,"totalCount":17788,"totalPage":1779,"tableRows":0,"pageCount":10,"beginCount":2840},"isExperi":"1"}