{"message":"","today":"2020-06-15","seleList":[{"poweroffId":2020042431020344,"sgpoweroffId":null,"subsName":"","lineName":"10kV园北D945线","pubTranName":"中水3#公变,中水2#公变,中水1#公变,中水6#公变,中水5#公变,中水4#公变,中水7#公变,","scope":"浙江省-杭州市-富阳区-富春街道(水稻所试验农场-西环北路,镬子山社区-西环北路)","startTime":"2020-05-07 07:45:00","stopDate":"2020-05-07 08:25:00","orgNo":"3340170","typeCode":"计划停电","poweroffArea":"110kV育才变:园北D945线首端，中水1#公变，中水2#公变，中水3#公变，中水4#公变，中水5#公变，中水6#公变，中水7#公变之间","poweroffReason":"杭州富阳阳陂湖生态修复治理工程一期-10kVA高压电力迁改工程：短时停电配合园北D945线中水分线负荷转供至10千伏发电车","powerTime":"2020-05-07 08:19:09","powerComm":"已送电","subsNo":"","lineNo":"","tgNo":"","tgName":null,"infoStatus":"1","orgName":"国网浙江杭州市富阳区供电公司","typeName":null,"infoStatusName":null,"dateDay":null,"orgNos":null,"nowTime":null,"countyName":null,"streetName":null,"villageName":null,"roadName":null,"communityName":null,"tranName":null,"sdLineName":null,"cityCode":"3340170","cityName":"国网浙江杭州市富阳区供电公司","provinceCode":null,"stopTime":"2020-05-07 08:25:00","powerType":"全部","powerOffArea":"110kV育才变:园北D945线首端，中水1#公变，中水2#公变，中水3#公变，中水4#公变，中水5#公变，中水6#公变，中水7#公变之间","powerOffReason":"杭州富阳阳陂湖生态修复治理工程一期-10kVA高压电力迁改工程：短时停电配合园北D945线中水分线负荷转供至10千伏发电车","powerOffId":"2020042431020344"},{"poweroffId":2020042431020338,"sgpoweroffId":null,"subsName":"","lineName":"10kV城南D135线","pubTranName":"银行弄1#公变,","scope":"浙江省-杭州市-富阳区-新登镇-秉贤村-银行弄一带","startTime":"2020-05-09 08:00:00","stopDate":"2020-05-09 16:30:00","orgNo":"3340170","typeCode":"计划停电","poweroffArea":"110kV新登变:城南D135线-银行弄1#公变后段","poweroffReason":"(低压停电信息)01线、02线各更换表箱1只表后线整理1处。","powerTime":"2020-05-09 16:20:21","powerComm":"已送电","subsNo":"","lineNo":"","tgNo":"","tgName":null,"infoStatus":"1","orgName":"国网浙江杭州市富阳区供电公司","typeName":null,"infoStatusName":null,"dateDay":null,"orgNos":null,"nowTime":null,"countyName":null,"streetName":null,"villageName":null,"roadName":null,"communityName":null,"tranName":null,"sdLineName":null,"cityCode":"3340170","cityName":"国网浙江杭州市富阳区供电公司","provinceCode":null,"stopTime":"2020-05-09 16:30:00","powerType":"全部","powerOffArea":"110kV新登变:城南D135线-银行弄1#公变后段","powerOffReason":"(低压停电信息)01线、02线各更换表箱1只表后线整理1处。","powerOffId":"2020042431020338"},{"poweroffId":2020042431020330,"sgpoweroffId":null,"subsName":"","lineName":"10kV友耐A399线","pubTranName":"钱江农场6#公变,杭州市地铁集团有限责任公司2#,杭州市地铁集团有限责任公司6#,盈二村27#变,杭州市地铁集团有限责任公司3#,钱江农场7#公变,001#变压器,新北村16#变,新北村14#变,盈二村14#变,杭州市地铁集团有限责任公司7#,钱江农场1#公变,杭州萧山中发机械厂变压器,杭州市萧山区钱江农场,新北村12#变,新北村24#变,1#变,钱江新村2区1#变,盈二村6#变,杭州市地铁集团有限责任公司4#,杭州双佳汽车部件制造有限公司,杭州市地铁集团有限责任公司1#,杭州深远工贸有限公司（1321411548）,新北村15#变,1#变,杭州市地铁集团有限责任公司5#,杭州泰定机械有限公司,盈二村3#变,新北村7#变,钱江链条传动,2#变,杭州萧山宁围旅游用品厂1#变,","scope":"浙江省-杭州市-萧山区-宁围镇、宁围街道、经济技术开发区-钱江社区(钱农西路,钱农东路),宁围街道(盈二行政村-盈二自然村,二桥行政村-新北自然村,新安行政村-新安自然村,盈一行政村-盈一自然村,新华行政村-新华自然村);经济技术开发区(杭州钱江链传动有限公司,杭州钱鸿苏美达车业有限公司,杭州鸿利型钢有限公司,杭州深远工贸有限公司,杭州萧山宁围旅游用品厂,杭州萧山河庄浩发门窗配件厂,杭州双佳汽车部件制造有限公司,杭州市萧山区钱江农场),宁围街道(杭州泰定机械有限公司,中铁二局集团有限公司)等一带","startTime":"2020-04-24 13:59:00","stopDate":"2020-04-24 16:59:00","orgNo":"3340130","typeCode":"电网故障停限电","poweroffArea":"110kV顺坝变:友耐A399线友耐A3994开关后段","poweroffReason":"高压柱上断路器短路故障","powerTime":"2020-04-24 16:06:46","powerComm":"已送电","subsNo":"","lineNo":"","tgNo":"","tgName":null,"infoStatus":"1","orgName":"国网浙江杭州市萧山区供电有限公司","typeName":null,"infoStatusName":null,"dateDay":null,"orgNos":null,"nowTime":null,"countyName":null,"streetName":null,"villageName":null,"roadName":null,"communityName":null,"tranName":null,"sdLineName":null,"cityCode":"3340130","cityName":"国网浙江杭州市萧山区供电有限公司","provinceCode":null,"stopTime":"2020-04-24 16:59:00","powerType":"全部","powerOffArea":"110kV顺坝变:友耐A399线友耐A3994开关后段","powerOffReason":"高压柱上断路器短路故障","powerOffId":"2020042431020330"},{"poweroffId":2020042431020324,"sgpoweroffId":null,"subsName":"","lineName":"10kV陆鸣D705线","pubTranName":"陆家村11号渠道公变,","scope":"浙江省-杭州市-富阳区-鹿山街道-陆家行政村(秦坞路,陆家自然村,学校路)","startTime":"2020-04-26 12:30:00","stopDate":"2020-04-26 15:30:00","orgNo":"3340170","typeCode":"临时停电","poweroffArea":"110kV陆家变:陆鸣D705线-陆家村11号渠道后段","poweroffReason":"(低压停电信息)富阳320国道至富阳大桥连接线鹿山（大盘山）隧道电力迁改工程：低压配合停电","powerTime":"2020-04-26 15:15:39","powerComm":"已送电","subsNo":"","lineNo":"","tgNo":"","tgName":null,"infoStatus":"1","orgName":"国网浙江杭州市富阳区供电公司","typeName":null,"infoStatusName":null,"dateDay":null,"orgNos":null,"nowTime":null,"countyName":null,"streetName":null,"villageName":null,"roadName":null,"communityName":null,"tranName":null,"sdLineName":null,"cityCode":"3340170","cityName":"国网浙江杭州市富阳区供电公司","provinceCode":null,"stopTime":"2020-04-26 15:30:00","powerType":"全部","powerOffArea":"110kV陆家变:陆鸣D705线-陆家村11号渠道后段","powerOffReason":"(低压停电信息)富阳320国道至富阳大桥连接线鹿山（大盘山）隧道电力迁改工程：低压配合停电","powerOffId":"2020042431020324"},{"poweroffId":2020042431020322,"sgpoweroffId":null,"subsName":"","lineName":"10kV步桥D937线","pubTranName":"步桥村7号公变,","scope":"浙江省-杭州市-富阳区-富春街道-金桥工业园区-文居街,三桥行政村(何家头自然村,下渔山自然村,步桥自然村)","startTime":"2020-05-10 08:00:00","stopDate":"2020-05-10 16:50:00","orgNo":"3340170","typeCode":"计划停电","poweroffArea":"110kV育才变:步桥D937线-步桥村7号后段","poweroffReason":"(低压停电信息)青云2020年龙星村5#罗家岭公变等低压线路改造工程照明1#线更换落户线14处，照明2#线更换落户线4处，照明3#线更换落户线4处搭接等工作","powerTime":"2020-05-10 16:30:09","powerComm":"已送电","subsNo":"","lineNo":"","tgNo":"","tgName":null,"infoStatus":"1","orgName":"国网浙江杭州市富阳区供电公司","typeName":null,"infoStatusName":null,"dateDay":null,"orgNos":null,"nowTime":null,"countyName":null,"streetName":null,"villageName":null,"roadName":null,"communityName":null,"tranName":null,"sdLineName":null,"cityCode":"3340170","cityName":"国网浙江杭州市富阳区供电公司","provinceCode":null,"stopTime":"2020-05-10 16:50:00","powerType":"全部","powerOffArea":"110kV育才变:步桥D937线-步桥村7号后段","powerOffReason":"(低压停电信息)青云2020年龙星村5#罗家岭公变等低压线路改造工程照明1#线更换落户线14处，照明2#线更换落户线4处，照明3#线更换落户线4处搭接等工作","powerOffId":"2020042431020322"},{"poweroffId":2020042431020321,"sgpoweroffId":null,"subsName":"","lineName":"10kV双林D786线","pubTranName":"真佳溪村18号红溪江边公变,","scope":"浙江省-杭州市-富阳区-场口镇-真佳溪行政村-红溪自然村一带","startTime":"2020-05-10 08:30:00","stopDate":"2020-05-10 14:10:00","orgNo":"3340170","typeCode":"计划停电","poweroffArea":"110kV王洲变:双林D786线-真佳溪村18#红溪江边开关后段","poweroffReason":"(低压停电信息)配电屏抬高、低压出线电缆拆装、脚手架拆除等工作；","powerTime":"2020-05-10 13:37:00","powerComm":"已送电","subsNo":"","lineNo":"","tgNo":"","tgName":null,"infoStatus":"1","orgName":"国网浙江杭州市富阳区供电公司","typeName":null,"infoStatusName":null,"dateDay":null,"orgNos":null,"nowTime":null,"countyName":null,"streetName":null,"villageName":null,"roadName":null,"communityName":null,"tranName":null,"sdLineName":null,"cityCode":"3340170","cityName":"国网浙江杭州市富阳区供电公司","provinceCode":null,"stopTime":"2020-05-10 14:10:00","powerType":"全部","powerOffArea":"110kV王洲变:双林D786线-真佳溪村18#红溪江边开关后段","powerOffReason":"(低压停电信息)配电屏抬高、低压出线电缆拆装、脚手架拆除等工作；","powerOffId":"2020042431020321"},{"poweroffId":2020042431020312,"sgpoweroffId":null,"subsName":"","lineName":"10kV十月D225线","pubTranName":"坑西村1#集镇公变,","scope":"浙江省-杭州市-富阳区-银湖街道-坑西行政村-坑西自然村","startTime":"2020-05-09 09:00:00","stopDate":"2020-05-09 17:00:00","orgNo":"3340170","typeCode":"计划停电","poweroffArea":"110kV银湖变:十月D225线-坑西村1#集镇公变低压开关后段","poweroffReason":"(低压停电信息)迎东2020年华士村1#村中公变等布点工程：低压线路改接等工作","powerTime":"2020-05-09 16:50:31","powerComm":"已送电","subsNo":"","lineNo":"","tgNo":"","tgName":null,"infoStatus":"1","orgName":"国网浙江杭州市富阳区供电公司","typeName":null,"infoStatusName":null,"dateDay":null,"orgNos":null,"nowTime":null,"countyName":null,"streetName":null,"villageName":null,"roadName":null,"communityName":null,"tranName":null,"sdLineName":null,"cityCode":"3340170","cityName":"国网浙江杭州市富阳区供电公司","provinceCode":null,"stopTime":"2020-05-09 17:00:00","powerType":"全部","powerOffArea":"110kV银湖变:十月D225线-坑西村1#集镇公变低压开关后段","powerOffReason":"(低压停电信息)迎东2020年华士村1#村中公变等布点工程：低压线路改接等工作","powerOffId":"2020042431020312"},{"poweroffId":2020042431020308,"sgpoweroffId":null,"subsName":"","lineName":"10kV新春D938线","pubTranName":"新春村8#铁铺里公变,","scope":"浙江省-杭州市-富阳区-富春街道-杨清庙行政村(铁浦里自然村,杨清庙自然村,新春自然村)","startTime":"2020-05-09 08:30:00","stopDate":"2020-05-09 17:00:00","orgNo":"3340170","typeCode":"计划停电","poweroffArea":"110kV育才变:新春D938线-新春村8#铁铺里后段","poweroffReason":"(低压停电信息)青云2020年10kV农林村9#茶叶市场公变等配变增容布点工程：0.4kV新春村8#铁铺里公变和0.4kV新春村22#铁铺里公变低压线路割接等工作","powerTime":"2020-05-09 16:50:13","powerComm":"已送电","subsNo":"","lineNo":"","tgNo":"","tgName":null,"infoStatus":"1","orgName":"国网浙江杭州市富阳区供电公司","typeName":null,"infoStatusName":null,"dateDay":null,"orgNos":null,"nowTime":null,"countyName":null,"streetName":null,"villageName":null,"roadName":null,"communityName":null,"tranName":null,"sdLineName":null,"cityCode":"3340170","cityName":"国网浙江杭州市富阳区供电公司","provinceCode":null,"stopTime":"2020-05-09 17:00:00","powerType":"全部","powerOffArea":"110kV育才变:新春D938线-新春村8#铁铺里后段","powerOffReason":"(低压停电信息)青云2020年10kV农林村9#茶叶市场公变等配变增容布点工程：0.4kV新春村8#铁铺里公变和0.4kV新春村22#铁铺里公变低压线路割接等工作","powerOffId":"2020042431020308"},{"poweroffId":2020042431020307,"sgpoweroffId":null,"subsName":"","lineName":"10kV步桥D937线","pubTranName":"步桥村10号下渔山公变,","scope":"浙江省-杭州市-富阳区-富春街道-三桥行政村(下渔山自然村,步桥自然村,何家头自然村)","startTime":"2020-05-09 12:00:00","stopDate":"2020-05-09 16:50:00","orgNo":"3340170","typeCode":"计划停电","poweroffArea":"110kV育才变:步桥D937线-步桥村10号下渔山后段","poweroffReason":"(低压停电信息)青云2020年龙星村5#罗家岭公变等低压线路改造工程照明1#线更换落户线1处，照明2#线更换落户线10处，搭接等工作","powerTime":"2020-05-09 16:40:10","powerComm":"已送电","subsNo":"","lineNo":"","tgNo":"","tgName":null,"infoStatus":"1","orgName":"国网浙江杭州市富阳区供电公司","typeName":null,"infoStatusName":null,"dateDay":null,"orgNos":null,"nowTime":null,"countyName":null,"streetName":null,"villageName":null,"roadName":null,"communityName":null,"tranName":null,"sdLineName":null,"cityCode":"3340170","cityName":"国网浙江杭州市富阳区供电公司","provinceCode":null,"stopTime":"2020-05-09 16:50:00","powerType":"全部","powerOffArea":"110kV育才变:步桥D937线-步桥村10号下渔山后段","powerOffReason":"(低压停电信息)青云2020年龙星村5#罗家岭公变等低压线路改造工程照明1#线更换落户线1处，照明2#线更换落户线10处，搭接等工作","powerOffId":"2020042431020307"},{"poweroffId":2020042431020306,"sgpoweroffId":null,"subsName":"","lineName":"10kV金秋D947线","pubTranName":"春华村2#宝山路公变,","scope":"浙江省-杭州市-富阳区-富春街道-春华行政村(春华路,宝山路,春华自然村,潘村路)","startTime":"2020-05-09 08:00:00","stopDate":"2020-05-09 11:20:00","orgNo":"3340170","typeCode":"计划停电","poweroffArea":"110kV育才变:金秋D947线-春华村2#宝山路后段","poweroffReason":"(低压停电信息)青云2020年龙星村5#罗家岭公变等低压线路改造工程照明1#线更换落户线4处，搭接等工作","powerTime":"2020-05-09 11:10:23","powerComm":"已送电","subsNo":"","lineNo":"","tgNo":"","tgName":null,"infoStatus":"1","orgName":"国网浙江杭州市富阳区供电公司","typeName":null,"infoStatusName":null,"dateDay":null,"orgNos":null,"nowTime":null,"countyName":null,"streetName":null,"villageName":null,"roadName":null,"communityName":null,"tranName":null,"sdLineName":null,"cityCode":"3340170","cityName":"国网浙江杭州市富阳区供电公司","provinceCode":null,"stopTime":"2020-05-09 11:20:00","powerType":"全部","powerOffArea":"110kV育才变:金秋D947线-春华村2#宝山路后段","powerOffReason":"(低压停电信息)青云2020年龙星村5#罗家岭公变等低压线路改造工程照明1#线更换落户线4处，搭接等工作","powerOffId":"2020042431020306"}],"pageModel":{"pageNow":288,"totalCount":17788,"totalPage":1779,"tableRows":0,"pageCount":10,"beginCount":2870},"isExperi":"1"}