{"message":"","today":"2020-06-15","seleList":[{"poweroffId":2020042231020242,"sgpoweroffId":null,"subsName":"","lineName":"10kV东海062线","pubTranName":"农业开发办,萧农开发办,萧农开发办,新湾三新村,萧山农业开发办,萧农开发办,天元农业,庞涛农业,银飞饲料,东湾养殖,萧农开发办永丰农场,萧农开发办,新东湾农业（四）01#,水利工程所,农业开发办,萧农开发办,萧农开发办,萧农开发办,农业开发办,农业开发办,周鑫农业,萧农开发办,龙翔养殖,萧农开发办,萧农开发办,萧农开发办,星光水产,农业开发办,萧山交投资产经营,萧农开发办,萧农开发区钱江水产养殖场,星光水产,萧农开发办,天元农业,萧山农业开发办东丰农场,","scope":"浙江省-杭州市-萧山区-围垦垦区(萧山农业对外综合开发区管理委员会办公室,市农业开发办,萧山农业对外综合开发区东丰农场,萧农外综合开发区,萧农对外综合开发区管委会,杭州萧山星光水产养殖有限公司,萧山农业开发区钱江水产养殖场),临江街道(杭州天元农业开发有限公司,杭州萧山交投资产经营开发有限公司,杭州萧山龙翔养殖有限责任公司,萧农外综合开发区,萧山农业对外综合开发区管理委员会办公室,萧农对外综合开发区管委会,萧山农业对外合开发区管理委员会办公室,萧农对外开发区,杭州萧山星光水产养殖有限公司,萧山农业对外综合开发区,萧山区新湾镇三新村(围垦用电),萧山农业对外综合开发区永丰农场,萧山区围垦水利工程管理所,萧山农业对外综合开发区管委会办公室,市农业开发办,市农业开发区,萧农对外综合开发区,杭州庞涛农业开发有限公司,杭州银飞饲料有限公司,浙江新东湾农业开发有限公司)","startTime":"2020-04-22 20:59:00","stopDate":"2020-04-22 23:30:00","orgNo":"3340120","typeCode":"电网故障停限电","poweroffArea":"110kV长征变:东海062线2730后段","poweroffReason":"高压开关跳闸","powerTime":"2020-04-22 22:32:53","powerComm":"已送电","subsNo":"","lineNo":"","tgNo":"","tgName":null,"infoStatus":"1","orgName":"国网浙江杭州市钱塘新区供电公司","typeName":null,"infoStatusName":null,"dateDay":null,"orgNos":null,"nowTime":null,"countyName":null,"streetName":null,"villageName":null,"roadName":null,"communityName":null,"tranName":null,"sdLineName":null,"cityCode":"3340120","cityName":"国网浙江杭州市钱塘新区供电公司","provinceCode":null,"stopTime":"2020-04-22 23:30:00","powerType":"全部","powerOffArea":"110kV长征变:东海062线2730后段","powerOffReason":"高压开关跳闸","powerOffId":"2020042231020242"},{"poweroffId":2020042231020239,"sgpoweroffId":null,"subsName":"","lineName":"10kV逸城D251线","pubTranName":"泉水湾32号公变,","scope":"浙江省-杭州市-富阳区-东洲街道-黄公望行政村-株林坞自然村","startTime":"2020-04-22 20:39:27","stopDate":"2020-04-22 21:11:00","orgNo":"3340170","typeCode":"电网故障停限电","poweroffArea":"110kV白鹤变:逸城D251线泉水湾32号公变泉水湾32号公变进线开关配变","poweroffReason":"高压开关跳闸 原停电结束时间为2020-04-22 22:11:00,为减少客户停电时间,加快工作进度,提前送电,现变更停电结束时间为2020-04-22 21:11:00","powerTime":"2020-04-22 20:50:25","powerComm":"已送电","subsNo":"","lineNo":"","tgNo":"","tgName":null,"infoStatus":"1","orgName":"国网浙江杭州市富阳区供电公司","typeName":null,"infoStatusName":null,"dateDay":null,"orgNos":null,"nowTime":null,"countyName":null,"streetName":null,"villageName":null,"roadName":null,"communityName":null,"tranName":null,"sdLineName":null,"cityCode":"3340170","cityName":"国网浙江杭州市富阳区供电公司","provinceCode":null,"stopTime":"2020-04-22 21:11:00","powerType":"全部","powerOffArea":"110kV白鹤变:逸城D251线泉水湾32号公变泉水湾32号公变进线开关配变","powerOffReason":"高压开关跳闸 原停电结束时间为2020-04-22 22:11:00,为减少客户停电时间,加快工作进度,提前送电,现变更停电结束时间为2020-04-22 21:11:00","powerOffId":"2020042231020239"},{"poweroffId":2020042231020238,"sgpoweroffId":null,"subsName":"","lineName":"10kV逸城D251线","pubTranName":"锦兰苑1号公变,三美林枫苑一号公变,","scope":"浙江省-杭州市-富阳区-东洲街道-黄公望行政村(富春玫瑰园,株林坞自然村,江滨东大道)","startTime":"2020-04-22 20:37:50","stopDate":"2020-04-22 21:11:00","orgNo":"3340170","typeCode":"电网故障停限电","poweroffArea":"110kV白鹤变:逸城D251线林枫一站林枫四线开关后段","poweroffReason":"高压开关跳闸 原停电结束时间为2020-04-22 22:11:00,为减少客户停电时间,加快工作进度,提前送电,现变更停电结束时间为2020-04-22 21:11:00","powerTime":"2020-04-22 20:50:15","powerComm":"已送电","subsNo":"","lineNo":"","tgNo":"","tgName":null,"infoStatus":"1","orgName":"国网浙江杭州市富阳区供电公司","typeName":null,"infoStatusName":null,"dateDay":null,"orgNos":null,"nowTime":null,"countyName":null,"streetName":null,"villageName":null,"roadName":null,"communityName":null,"tranName":null,"sdLineName":null,"cityCode":"3340170","cityName":"国网浙江杭州市富阳区供电公司","provinceCode":null,"stopTime":"2020-04-22 21:11:00","powerType":"全部","powerOffArea":"110kV白鹤变:逸城D251线林枫一站林枫四线开关后段","powerOffReason":"高压开关跳闸 原停电结束时间为2020-04-22 22:11:00,为减少客户停电时间,加快工作进度,提前送电,现变更停电结束时间为2020-04-22 21:11:00","powerOffId":"2020042231020238"},{"poweroffId":2020042231020236,"sgpoweroffId":null,"subsName":"","lineName":"10kV沙湾T185线","pubTranName":"华兴房产1号公变,","scope":"浙江省-杭州市-桐庐县-富春江镇-大洋坪社区-盛家路、横山路68号。","startTime":"2020-04-22 18:41:07","stopDate":"2020-04-22 22:30:07","orgNo":"3340150","typeCode":"电网故障停限电","poweroffArea":"110kV外董变:沙湾T185线-华兴房产1号公变后段","poweroffReason":"(低压停电信息)低压开关跳闸","powerTime":"2020-04-22 22:00:56","powerComm":"已送电","subsNo":"","lineNo":"","tgNo":"","tgName":null,"infoStatus":"1","orgName":"国网浙江桐庐县供电公司","typeName":null,"infoStatusName":null,"dateDay":null,"orgNos":null,"nowTime":null,"countyName":null,"streetName":null,"villageName":null,"roadName":null,"communityName":null,"tranName":null,"sdLineName":null,"cityCode":"3340150","cityName":"国网浙江桐庐县供电公司","provinceCode":null,"stopTime":"2020-04-22 22:30:07","powerType":"全部","powerOffArea":"110kV外董变:沙湾T185线-华兴房产1号公变后段","powerOffReason":"(低压停电信息)低压开关跳闸","powerOffId":"2020042231020236"},{"poweroffId":2020042231020227,"sgpoweroffId":null,"subsName":"","lineName":"10kV真珠9185线","pubTranName":"乐音2,司迈特水处理厂,康泉,海关1#,真珠乐器,中蔓2#,万事达,海宏威电子(1)(2)2,司迈特电器,康泉,英格斯,德帕姆,英格斯,市泵,中蔓1#,海宏威电子(1)(2)2,克雷登,海关2#,精效家具2,乐音1,万事达,精效家具,","scope":"浙江省-杭州市-杭州市经济技术开发区-下沙街道-杭州中蔓实业有限公司,白杨街道(杭州精效文化创意有限公司,杭州乐音仓储有限公司),误白杨街道(克雷登热能设备(浙江)有限公司,杭州和达市政园林建设有限公司,杭州司迈特水处理工程有限公司,杭州中能汽轮动力有限公司,真珠乐器（杭州）有限公司,杭州康泉热水器有限公司,德帕姆(杭州)泵业科技有限公司,英格斯模具制造(中国)有限公司,杭州海弘微电子有限公司,中华人民共和国钱江海关,杭州万事达装饰用品有限公司)","startTime":"2020-04-22 17:25:00","stopDate":"2020-04-22 18:50:00","orgNo":"3340120","typeCode":"电网故障停限电","poweroffArea":"110kV新港变:真珠9185线世泵站真珠9185线后段","poweroffReason":"高压开关跳闸原停电结束时间为2020-04-2220:00:00,为减少客户停电时间,加快工作进度,提前送电,现变更停电结束时间为2020-04-2218:50:00","powerTime":"2020-04-22 18:19:29","powerComm":"已送电","subsNo":"","lineNo":"","tgNo":"","tgName":null,"infoStatus":"1","orgName":"国网浙江杭州市钱塘新区供电公司","typeName":null,"infoStatusName":null,"dateDay":null,"orgNos":null,"nowTime":null,"countyName":null,"streetName":null,"villageName":null,"roadName":null,"communityName":null,"tranName":null,"sdLineName":null,"cityCode":"3340120","cityName":"国网浙江杭州市钱塘新区供电公司","provinceCode":null,"stopTime":"2020-04-22 18:50:00","powerType":"全部","powerOffArea":"110kV新港变:真珠9185线世泵站真珠9185线后段","powerOffReason":"高压开关跳闸原停电结束时间为2020-04-2220:00:00,为减少客户停电时间,加快工作进度,提前送电,现变更停电结束时间为2020-04-2218:50:00","powerOffId":"2020042231020227"},{"poweroffId":2020042231020217,"sgpoweroffId":null,"subsName":"","lineName":"10kV程坟D832线","pubTranName":"蛇浦村1号桥头公变,","scope":"浙江省-杭州市-富阳区-新桐乡-程浦行政村(蛇浦自然村,章家自然村)","startTime":"2020-04-22 17:00:55","stopDate":"2020-04-22 18:00:55","orgNo":"3340170","typeCode":"电网故障停限电","poweroffArea":"110kV新桐变:程坟D832线-蛇浦村1号桥头公变后段","poweroffReason":"(低压停电信息)低压开关跳闸","powerTime":"2020-04-22 17:46:33","powerComm":"已送电","subsNo":"","lineNo":"","tgNo":"","tgName":null,"infoStatus":"1","orgName":"国网浙江杭州市富阳区供电公司","typeName":null,"infoStatusName":null,"dateDay":null,"orgNos":null,"nowTime":null,"countyName":null,"streetName":null,"villageName":null,"roadName":null,"communityName":null,"tranName":null,"sdLineName":null,"cityCode":"3340170","cityName":"国网浙江杭州市富阳区供电公司","provinceCode":null,"stopTime":"2020-04-22 18:00:55","powerType":"全部","powerOffArea":"110kV新桐变:程坟D832线-蛇浦村1号桥头公变后段","powerOffReason":"(低压停电信息)低压开关跳闸","powerOffId":"2020042231020217"},{"poweroffId":2020042231020212,"sgpoweroffId":null,"subsName":"","lineName":"10kV横塘V173线","pubTranName":"杭州临安交口砂石有限公司2#,临安志平纺织品经营部变压器间隔配电变压器,10kV亭口村[新坑桥]公变,临安市藻溪污水处理有限公司,10kV亭口村亭口桥头公变,10kV横塘村瑞向公变变压器,10kV亭口村[亭口坎头]公变,10kV长六村[长村龙皇庙]公变,浙江杭徽高速公路有限公司,临安远大纺织有限公司,临安兴达线缆材料厂,10kV亭口村[下徐]公变,杭州临安丰源油脂有限公司,10kV横塘村【杭向】变压器,浙江省商业集团有限公司临安服务区2#,杭州临安银花贸易有限公司1#,杭州临安交口砂石有限公司计量点1#,杭州撒拉弗科技有限公司,10kV横塘村[麻泥]公变,临安藻溪生强冷库租赁服务部,10kV长六村[长村黄窑变]公变,杭州临安交口砂石有限公司1#,临安宏臣玻璃制品有限公司,杭州祥和纺织涂层有限公司,临安超限运输检测站1,10kV亭口村[亭口]公变,10kV藻溪村公交站公变,10kV藻溪村[六海口]公变,10kV亭口村[下徐将军庙]公变,藻溪供电营业所,杭州嘉凯农业开发有限公司（基建）,临安佳有电子有限公司,杭州临安银花贸易有限公司2#,临安恒达织造厂,10kV藻溪村[桥西公变]公变,10kV长六村[外长村]公变,10kV亭口村新坑桥下公变,临安普力电子材料有限公司,10kV长六村[里长村]公变,10kV亭口村[城门头]公变,10kV长六村[六海变]公变,10kV横塘村[麻泥服务区]公变,临安市金顺线缆材料有限公司,10kV藻溪村[凤凰顶]公变,","scope":"浙江省-杭州市-临安市-天目山镇-亭口行政村(亭口自然村,新坑自然村,下徐自然村),天目山镇-横塘行政村(横塘自然村,方塘自然村,麻泥自然村),天目山镇-长六行政村(长六自然村,六海自然村),天目山镇(藻溪行政村-藻溪自然村,闽坞行政村-闽坞自然村);天目山镇(浙江恒力电力承装有限公司,杭州嘉凯农业开发有限公司(基建),临安志平纺织品经营部,杭州临安丰源油脂有限公司,临安普力电子材料有限公司,临安远大纺织有限公司,浙江杭徽高速公路有限公司,临安超限运输检测站,浙江省商业集团有限公司临安服务区,临安恒达织造厂,临安兴达线缆材料厂,临安市金顺线缆材料有限公司,临安市藻溪污水处理有限公司,临安宏臣玻璃制品有限公司,杭州撒拉弗科技有限公司,临安藻溪生强冷库租赁服务部,杭州临安银花贸易有限公司,杭州祥和纺织涂层有限公司,临安佳有电子有限公司,杭州临安交口砂石有限公司)","startTime":"2020-04-22 16:28:00","stopDate":"2020-04-22 17:40:00","orgNo":"3340160","typeCode":"电网故障停限电","poweroffArea":"35kV藻溪变:横塘V173线1731开关后段","poweroffReason":"高压开关跳闸原停电结束时间为2020-04-2218:28:00,为减少客户停电时间,加快工作进度,提前送电,现变更停电结束时间为2020-04-2217:40:00","powerTime":"2020-04-22 16:46:11","powerComm":"已送电","subsNo":"","lineNo":"","tgNo":"","tgName":null,"infoStatus":"1","orgName":"国网浙江临安市供电公司","typeName":null,"infoStatusName":null,"dateDay":null,"orgNos":null,"nowTime":null,"countyName":null,"streetName":null,"villageName":null,"roadName":null,"communityName":null,"tranName":null,"sdLineName":null,"cityCode":"3340160","cityName":"国网浙江临安市供电公司","provinceCode":null,"stopTime":"2020-04-22 17:40:00","powerType":"全部","powerOffArea":"35kV藻溪变:横塘V173线1731开关后段","powerOffReason":"高压开关跳闸原停电结束时间为2020-04-2218:28:00,为减少客户停电时间,加快工作进度,提前送电,现变更停电结束时间为2020-04-2217:40:00","powerOffId":"2020042231020212"},{"poweroffId":2020042231020205,"sgpoweroffId":null,"subsName":"","lineName":"10kV岭源T191线","pubTranName":"麻境3号公变,","scope":"浙江省-杭州市-桐庐县-合村乡-合村行政村-大琅坞自然村","startTime":"2020-04-22 16:18:00","stopDate":"2020-04-22 18:21:00","orgNo":"3340150","typeCode":"电网故障停限电","poweroffArea":"35kV合村变:岭源T191线麻境3号公变配变","poweroffReason":"高压开关跳闸原停电结束时间为2020-04-2219:30:00,为减少客户停电时间,加快工作进度,提前送电,现变更停电结束时间为2020-04-2218:21:00","powerTime":"2020-04-22 17:51:52","powerComm":"已送电","subsNo":"","lineNo":"","tgNo":"","tgName":null,"infoStatus":"1","orgName":"国网浙江桐庐县供电公司","typeName":null,"infoStatusName":null,"dateDay":null,"orgNos":null,"nowTime":null,"countyName":null,"streetName":null,"villageName":null,"roadName":null,"communityName":null,"tranName":null,"sdLineName":null,"cityCode":"3340150","cityName":"国网浙江桐庐县供电公司","provinceCode":null,"stopTime":"2020-04-22 18:21:00","powerType":"全部","powerOffArea":"35kV合村变:岭源T191线麻境3号公变配变","powerOffReason":"高压开关跳闸原停电结束时间为2020-04-2219:30:00,为减少客户停电时间,加快工作进度,提前送电,现变更停电结束时间为2020-04-2218:21:00","powerOffId":"2020042231020205"},{"poweroffId":2020042231020202,"sgpoweroffId":null,"subsName":"","lineName":"10kV丰荡8905线","pubTranName":"变压器2,紫油,变压器1,变压器1,","scope":"浙江省-杭州市-西湖区-三墩镇(蒋村街道-悦庄社区-湖州中海联石油有限公司杭州城西加油站,古荡街道-古荡社区-杭州市排水有限公司,三墩镇-三坝社区-杭州西湖城市建设投资集团有限公司)","startTime":"2020-04-22 16:13:12","stopDate":"2020-04-22 18:38:58","orgNo":"3340101","typeCode":"电网故障停限电","poweroffArea":"110kV丰潭变:丰荡8905线","poweroffReason":"高压开关跳闸原停电结束时间为2020-04-2220:05:58,为减少客户停电时间,加快工作进度,提前送电,现变更停电结束时间为2020-04-2218:38:58","powerTime":"2020-04-22 17:53:49","powerComm":"已送电","subsNo":"","lineNo":"","tgNo":"","tgName":null,"infoStatus":"1","orgName":"浙江杭州电力客户服务中心","typeName":null,"infoStatusName":null,"dateDay":null,"orgNos":null,"nowTime":null,"countyName":null,"streetName":null,"villageName":null,"roadName":null,"communityName":null,"tranName":null,"sdLineName":null,"cityCode":"3340101","cityName":"浙江杭州电力客户服务中心","provinceCode":null,"stopTime":"2020-04-22 18:38:58","powerType":"全部","powerOffArea":"110kV丰潭变:丰荡8905线","powerOffReason":"高压开关跳闸原停电结束时间为2020-04-2220:05:58,为减少客户停电时间,加快工作进度,提前送电,现变更停电结束时间为2020-04-2218:38:58","powerOffId":"2020042231020202"},{"poweroffId":2020042231020201,"sgpoweroffId":null,"subsName":"","lineName":"10kV蟹坟8575线","pubTranName":"回收,","scope":"浙江省-杭州市-下城区-东新街道-中舟社区-杭州市物资回收有限公司，中国人民解放军杭州市下城区人民武装部、杭州城享商业发展有限公司、杭州蓝色倾情服饰有限公司（当日销户）","startTime":"2020-04-23 13:00:00","stopDate":"2020-04-23 17:30:00","orgNo":"3340101","typeCode":"临时停电","poweroffArea":"220kV霞湾变:蟹坟8575线-回收后段","poweroffReason":"大功站回收分线消缺，大功城享改接支T接箱，杭州蓝色倾情服饰有限公司拆头销户","powerTime":"2020-04-23 16:34:25","powerComm":"已送电","subsNo":"","lineNo":"","tgNo":"","tgName":null,"infoStatus":"1","orgName":"浙江杭州电力客户服务中心","typeName":null,"infoStatusName":null,"dateDay":null,"orgNos":null,"nowTime":null,"countyName":null,"streetName":null,"villageName":null,"roadName":null,"communityName":null,"tranName":null,"sdLineName":null,"cityCode":"3340101","cityName":"浙江杭州电力客户服务中心","provinceCode":null,"stopTime":"2020-04-23 17:30:00","powerType":"全部","powerOffArea":"220kV霞湾变:蟹坟8575线-回收后段","powerOffReason":"大功站回收分线消缺，大功城享改接支T接箱，杭州蓝色倾情服饰有限公司拆头销户","powerOffId":"2020042231020201"}],"pageModel":{"pageNow":296,"totalCount":17788,"totalPage":1779,"tableRows":0,"pageCount":10,"beginCount":2950},"isExperi":"1"}