{"message":"","today":"2020-06-15","seleList":[{"poweroffId":2020042231020183,"sgpoweroffId":null,"subsName":"","lineName":"10kV城三A606线","pubTranName":"文源社区6#公变,文源社区14#公变,万都房地产开发2,万都房地产开发4,","scope":"浙江省-杭州市-萧山区-新塘街道-文源社区-文里头自然村;浙江省-杭州市-萧山区-新塘街道-通惠南路-浙江万都房地产开发有限公司","startTime":"2020-04-30 08:30:00","stopDate":"2020-04-30 18:00:00","orgNo":"3340130","typeCode":"计划停电","poweroffArea":"110kV城东变:城三A606线-文源社区后段","poweroffReason":"新上分支开，电大分支开G12至新上分支开G11电缆敷设试验搭接；文源社区6#公变改接至新上分支开G12间隔，文源社区15#公变、文源社区14#公变改接至新上分支开G13间隔，新上文源社区16#公变至新上分支开G14间隔，电缆敷设试验搭接；","powerTime":"2020-04-30 17:15:12","powerComm":"已送电","subsNo":"","lineNo":"","tgNo":"","tgName":null,"infoStatus":"1","orgName":"国网浙江杭州市萧山区供电有限公司","typeName":null,"infoStatusName":null,"dateDay":null,"orgNos":null,"nowTime":null,"countyName":null,"streetName":null,"villageName":null,"roadName":null,"communityName":null,"tranName":null,"sdLineName":null,"cityCode":"3340130","cityName":"国网浙江杭州市萧山区供电有限公司","provinceCode":null,"stopTime":"2020-04-30 18:00:00","powerType":"全部","powerOffArea":"110kV城东变:城三A606线-文源社区后段","powerOffReason":"新上分支开，电大分支开G12至新上分支开G11电缆敷设试验搭接；文源社区6#公变改接至新上分支开G12间隔，文源社区15#公变、文源社区14#公变改接至新上分支开G13间隔，新上文源社区16#公变至新上分支开G14间隔，电缆敷设试验搭接；","powerOffId":"2020042231020183"},{"poweroffId":2020042231020167,"sgpoweroffId":null,"subsName":"","lineName":"10kV石屏Y175线","pubTranName":"建德市航头镇娜飞建筑材料厂,建德市利鑫土石方工程有限公司,建德市华鹏土石方工程有限公司,建德市石屏赤源石灰石矿,石屏村赤源台区,石屏村石桥头台区,石屏村荷坞口台区,","scope":"浙江省-杭州市-建德市-航头镇-石屏行政村(赤源自然村,石桥头自然村,后塘畈自然村,荷坞口自然村);航头镇(建德市航头镇娜飞建筑材料厂,建德市灵石矿业有限责任公司,建德市利鑫土石方工程有限公司,建德骅鹏土石方工程有限公司)","startTime":"2020-04-22 14:08:00","stopDate":"2020-04-22 16:30:00","orgNo":"3340180","typeCode":"电网故障停限电","poweroffArea":"110kV航头变:石屏Y175线赤源支线0#杆真空开关后段","poweroffReason":"高压开关跳闸","powerTime":"2020-04-22 16:01:00","powerComm":"已送电","subsNo":"","lineNo":"","tgNo":"","tgName":null,"infoStatus":"1","orgName":"国网浙江建德市供电有限公司","typeName":null,"infoStatusName":null,"dateDay":null,"orgNos":null,"nowTime":null,"countyName":null,"streetName":null,"villageName":null,"roadName":null,"communityName":null,"tranName":null,"sdLineName":null,"cityCode":"3340180","cityName":"国网浙江建德市供电有限公司","provinceCode":null,"stopTime":"2020-04-22 16:30:00","powerType":"全部","powerOffArea":"110kV航头变:石屏Y175线赤源支线0#杆真空开关后段","powerOffReason":"高压开关跳闸","powerOffId":"2020042231020167"},{"poweroffId":2020042231020146,"sgpoweroffId":null,"subsName":"","lineName":"10kV凤凰Y323线","pubTranName":"梓里村东坑坞台区,","scope":"浙江省-杭州市-建德市-三都镇-梓里行政村-东坑坞自然村","startTime":"2020-04-22 13:08:00","stopDate":"2020-04-22 15:10:00","orgNo":"3340180","typeCode":"电网故障停限电","poweroffArea":"35kV三都变:凤凰Y323线梓里村东坑坞台区配变","poweroffReason":"(低压停电信息)低压电缆头烧毁","powerTime":"2020-04-22 14:20:00","powerComm":"已送电","subsNo":"","lineNo":"","tgNo":"","tgName":null,"infoStatus":"1","orgName":"国网浙江建德市供电有限公司","typeName":null,"infoStatusName":null,"dateDay":null,"orgNos":null,"nowTime":null,"countyName":null,"streetName":null,"villageName":null,"roadName":null,"communityName":null,"tranName":null,"sdLineName":null,"cityCode":"3340180","cityName":"国网浙江建德市供电有限公司","provinceCode":null,"stopTime":"2020-04-22 15:10:00","powerType":"全部","powerOffArea":"35kV三都变:凤凰Y323线梓里村东坑坞台区配变","powerOffReason":"(低压停电信息)低压电缆头烧毁","powerOffId":"2020042231020146"},{"poweroffId":2020042231020145,"sgpoweroffId":null,"subsName":"","lineName":"10kV秀畈V406线","pubTranName":"杭州兴伦房地产开发有限公司1#,杭州佳隆网络设备有限公司,杭州兴伦房地产开发有限公司1#,浙江盛龙装饰材料有限公司,杭州金昌宝顺汽车销售服务有限公司,卦畈村[上卦畈]公变,浙江盛龙装饰材料有限公司2#,杭州临安华成煤炭能源有限公司,杭州临安排水有限公司2#,","scope":"浙江省-杭州市-临安区锦南街道卦畈行政村-福兴街,锦南街道-卦畈行政村-上卦畈自然村;杭州兴伦房地产开发有限公司,杭州佳隆网络设备有限公司,浙江盛龙装饰材料有限公司,杭州临安排水有限公司,杭州临安区红华生物质燃料有限公司,杭州金昌宝顺汽车销售服务有限公司","startTime":"2020-04-22 12:55:00","stopDate":"2020-04-22 14:20:00","orgNo":"3340160","typeCode":"电网故障停限电","poweroffArea":"110kV秀水变:秀畈V406线4061开关后段","poweroffReason":"高压开关跳闸原停电结束时间为2020-04-2214:55:00,为减少客户停电时间,加快工作进度,提前送电,现变更停电结束时间为2020-04-2214:20:00","powerTime":"2020-04-22 13:43:30","powerComm":"已送电","subsNo":"","lineNo":"","tgNo":"","tgName":null,"infoStatus":"1","orgName":"国网浙江临安市供电公司","typeName":null,"infoStatusName":null,"dateDay":null,"orgNos":null,"nowTime":null,"countyName":null,"streetName":null,"villageName":null,"roadName":null,"communityName":null,"tranName":null,"sdLineName":null,"cityCode":"3340160","cityName":"国网浙江临安市供电公司","provinceCode":null,"stopTime":"2020-04-22 14:20:00","powerType":"全部","powerOffArea":"110kV秀水变:秀畈V406线4061开关后段","powerOffReason":"高压开关跳闸原停电结束时间为2020-04-2214:55:00,为减少客户停电时间,加快工作进度,提前送电,现变更停电结束时间为2020-04-2214:20:00","powerOffId":"2020042231020145"},{"poweroffId":2020042231020137,"sgpoweroffId":null,"subsName":"","lineName":"10kV家东T565线","pubTranName":"凤岗村6号公变,凤岗村1号公变,","scope":"浙江省-杭州市-桐庐县-凤川街道-翙岗行政村(凤岗自然村,凤川大道,凤镇自然村)","startTime":"2020-04-22 12:25:20","stopDate":"2020-04-22 16:00:20","orgNo":"3340150","typeCode":"电网故障停限电","poweroffArea":"110kV旺家变:家东T565线首端，凤岗村1号公变，凤岗村6号公变之间","poweroffReason":"(低压停电信息)低压开关跳闸","powerTime":"2020-04-22 15:54:51","powerComm":"已送电","subsNo":"","lineNo":"","tgNo":"","tgName":null,"infoStatus":"1","orgName":"国网浙江桐庐县供电公司","typeName":null,"infoStatusName":null,"dateDay":null,"orgNos":null,"nowTime":null,"countyName":null,"streetName":null,"villageName":null,"roadName":null,"communityName":null,"tranName":null,"sdLineName":null,"cityCode":"3340150","cityName":"国网浙江桐庐县供电公司","provinceCode":null,"stopTime":"2020-04-22 16:00:20","powerType":"全部","powerOffArea":"110kV旺家变:家东T565线首端，凤岗村1号公变，凤岗村6号公变之间","powerOffReason":"(低压停电信息)低压开关跳闸","powerOffId":"2020042231020137"},{"poweroffId":2020042231020126,"sgpoweroffId":null,"subsName":"","lineName":"10kV付墩A352线","pubTranName":"诸坞村7#变,诸坞村8#变,合大铸造2#,凤凰山4#变,凤凰山1#变,诸坞村2#变,至城喷涂,诸坞村4#变,凤凰山8#变,凤凰山7#变,诸坞村3#变,1#,凤凰山3#变,久安锅炉,杭州炯友照明电器有限公司,杭州杜美拓机械有限公司,奋达邮电,合大铸造2#,天源伞厂,杭州市萧山区歌珊老年颐养院,诸坞村5#变,凤凰山2#变,凤凰山5#变,杭州萧山盈宁建设工程有限公司,诸坞村1#变,污水处理,诸坞村6#变,合大铸造1#,凤凰山6#变,杭州锦萧科技有限公司,","scope":"浙江省-杭州市-萧山区-进化镇-凤凰山行政村(安山陈自然村,鲁家自然村),进化镇-诸坞行政村(诸坞自然村,鲁家山自然村);进化镇(杭州炯友照明电器有限公司,萧山市进化天源伞厂,杭州奋达邮电器材制造有限公司,杭州杜美拓机械有限公司,杭州宏盛翔业建筑科技有限公司,杭州至诚喷涂有限公司,浙江玖安锅炉压力容器制造有限公司,中铁二十四局集团杭黄铁路站前Ⅲ标项目三分部,杭州合大铸造有限公司,杭州市萧山区歌珊老年颐养院,杭州萧山污水处理有限公司,杭州锦萧科技有限公司)浙江省杭州市萧山区金化镇凤凰山村,浙江省杭州市萧山区进化镇墅上王工业区等","startTime":"2020-04-22 11:05:00","stopDate":"2020-04-22 12:30:00","orgNo":"3340130","typeCode":"电网故障停限电","poweroffArea":"110kV进化变:付墩A352线付墩A3523开关后段","poweroffReason":"高压柱上断路器跳闸原停电结束时间为2020-04-2213:55:00,为减少客户停电时间,加快工作进度,提前送电,现变更停电结束时间为2020-04-2212:30:00","powerTime":"2020-04-22 11:41:31","powerComm":"已送电","subsNo":"","lineNo":"","tgNo":"","tgName":null,"infoStatus":"1","orgName":"国网浙江杭州市萧山区供电有限公司","typeName":null,"infoStatusName":null,"dateDay":null,"orgNos":null,"nowTime":null,"countyName":null,"streetName":null,"villageName":null,"roadName":null,"communityName":null,"tranName":null,"sdLineName":null,"cityCode":"3340130","cityName":"国网浙江杭州市萧山区供电有限公司","provinceCode":null,"stopTime":"2020-04-22 12:30:00","powerType":"全部","powerOffArea":"110kV进化变:付墩A352线付墩A3523开关后段","powerOffReason":"高压柱上断路器跳闸原停电结束时间为2020-04-2213:55:00,为减少客户停电时间,加快工作进度,提前送电,现变更停电结束时间为2020-04-2212:30:00","powerOffId":"2020042231020126"},{"poweroffId":2020042231020125,"sgpoweroffId":null,"subsName":"","lineName":"10kV天乐A359线","pubTranName":"杭州三冲工贸有限公司,杭州日创科技有限公司,浙江远翅控股集团有限公司,墅上王6#变,杭州亚铭威印刷包装有限公司,浙江新世纪家纺有限公司,杭州萧山奥得舒医疗器械有限公司,杭州宏艺文具有限公司,墅上王9#变,杭州东一激光设备有限公司,杭州美固实业有限公司,杭州萧山众汇工业电炉厂变压器,杭州宝塔机械有限公司,杭州加特玻璃制品有限公司1#,2#,杭州晟奇机械有限公司,杭州赛宝化工有限公司,杭州钜锋实业有限公司,杭州迦南纸制品有限公司,杭州加特玻璃制品有限公司2#,杭州汉丰工具有限公司,杭州惠通金属箱柜有限公司,杭州市萧山区进化镇人民政府,浙江浩洲机械制造有限公司,","scope":"浙江省-杭州市-萧山区-进化镇-墅上王行政村-墅上王自然村;进化镇(浙江浩洲机械制造有限公司,杭州众汇工业炉有限公司,杭州东一激光设备有限公司,杭州宏艺文具有限公司,杭州春信工具有限公司,杭州赛宝化工有限公司,浙江亚铭威印刷包装有限公司,杭州迦南纸制品有限公司,杭州三冲工贸有限公司,杭州惠通金属箱柜有限公司,杭州晟奇机械有限公司,杭州远翅进出口有限公司,杭州加特玻璃制品有限公司,杭州萧山奥得舒医疗器械有限公司,杭州博王五金工具有限公司,杭州日创科技有限公司,杭州通泽实业有限公司,杭州宝塔机械有限公司,杭州钜锋实业有限公司,杭州市萧山区进化镇人民政府),浙江省杭州市萧山区金化镇凤凰山村,浙江省杭州市萧山区进化镇墅上王工业区等","startTime":"2020-04-22 10:57:00","stopDate":"2020-04-22 12:55:00","orgNo":"3340130","typeCode":"电网故障停限电","poweroffArea":"110kV进化变:天乐A359线天乐A3593开关后段","poweroffReason":"高压柱上断路器跳闸","powerTime":"2020-04-22 12:01:32","powerComm":"已送电","subsNo":"","lineNo":"","tgNo":"","tgName":null,"infoStatus":"1","orgName":"国网浙江杭州市萧山区供电有限公司","typeName":null,"infoStatusName":null,"dateDay":null,"orgNos":null,"nowTime":null,"countyName":null,"streetName":null,"villageName":null,"roadName":null,"communityName":null,"tranName":null,"sdLineName":null,"cityCode":"3340130","cityName":"国网浙江杭州市萧山区供电有限公司","provinceCode":null,"stopTime":"2020-04-22 12:55:00","powerType":"全部","powerOffArea":"110kV进化变:天乐A359线天乐A3593开关后段","powerOffReason":"高压柱上断路器跳闸","powerOffId":"2020042231020125"},{"poweroffId":2020042231020124,"sgpoweroffId":null,"subsName":"","lineName":"10kV萧潘C425线","pubTranName":"杭州前进齿轮箱集团股份有限公司,沈家里社区5#公变,湘域湾3#公变,潇湘社区公变,萧山电视台,盛和苑1#公变,沈家里社区3#变,杭齿宿舍8#公变,湘域湾4#公变,杭齿宿舍1#公变,湘域湾1#公变,联华社区公变,1#,沈家里社区1#变,杭州鼎峰工程有限公司,盛和苑2#公变,萧山市政园管处,杭齿宿舍7#公变,湘域湾2#公变,杭齿宿舍3#公变,杭州市萧山机电职业高级中学,沈家里社区4#变,沈家里社区2#变,萧山人才市场1#,杭齿宿舍5#公变,变压器1,杭齿宿舍4#公变,杭齿宿舍6#公变,杭州前进通用机械有限公司,杭齿宿舍2#公变,","scope":"浙江省-杭州市-萧山区-蜀山街道-联华社区-张家里自然村,蜀山街道-沈家里社区(沈家里自然村,沈家里路),城厢街道(潇湘社区-萧金路,俊良社区-萧金路);蜀山街道-沈家里社区(杭州市萧山机电职业高级中学,杭州市萧山区人才管理服务处,杭州前进齿轮箱集团股份有限公司),城厢街道-万寿桥社区(杭州前进通用机械有限公司,杭州市萧山区融媒体中心),城厢街道-潘水社区-杭州市萧山区市政绿化养护保障中心,北干街道-风情大道-杭州市萧山区市政绿化养护保障中心、杭齿宿舍、沈家里社区、湘域湾、盛和苑、潇湘社区39栋一带","startTime":"2020-04-22 10:57:11","stopDate":"2020-04-22 12:25:11","orgNo":"3340130","typeCode":"电网故障停限电","poweroffArea":"110kV萧山变:萧潘C425线开关后段","poweroffReason":"高压开关跳闸原停电结束时间为2020-04-2214:30:11,为减少客户停电时间,加快工作进度,提前送电,现变更停电结束时间为2020-04-2212:25:11","powerTime":"2020-04-22 11:27:12","powerComm":"已送电","subsNo":"","lineNo":"","tgNo":"","tgName":null,"infoStatus":"1","orgName":"国网浙江杭州市萧山区供电有限公司","typeName":null,"infoStatusName":null,"dateDay":null,"orgNos":null,"nowTime":null,"countyName":null,"streetName":null,"villageName":null,"roadName":null,"communityName":null,"tranName":null,"sdLineName":null,"cityCode":"3340130","cityName":"国网浙江杭州市萧山区供电有限公司","provinceCode":null,"stopTime":"2020-04-22 12:25:11","powerType":"全部","powerOffArea":"110kV萧山变:萧潘C425线开关后段","powerOffReason":"高压开关跳闸原停电结束时间为2020-04-2214:30:11,为减少客户停电时间,加快工作进度,提前送电,现变更停电结束时间为2020-04-2212:25:11","powerOffId":"2020042231020124"},{"poweroffId":2020042231020113,"sgpoweroffId":null,"subsName":"","lineName":"10kV丰车H820线","pubTranName":"何母桥村光明桥公变,","scope":"浙江省-杭州市-余杭区-闲林街道-何母桥行政村(宋家头自然村,何母桥自然村)","startTime":"2020-04-22 10:29:00","stopDate":"2020-04-22 17:10:00","orgNo":"3340140","typeCode":"电网故障停限电","poweroffArea":"110kV油车变:丰车H820线光明桥配变","poweroffReason":"高压开关跳闸原停电结束时间为2020-04-2216:00:00,因工作复杂原因,延迟送电,现变更停电结束时间为2020-04-2217:10:00","powerTime":"2020-04-22 16:28:59","powerComm":"已送电","subsNo":"","lineNo":"","tgNo":"","tgName":null,"infoStatus":"1","orgName":"国网浙江杭州市余杭区供电有限公司","typeName":null,"infoStatusName":null,"dateDay":null,"orgNos":null,"nowTime":null,"countyName":null,"streetName":null,"villageName":null,"roadName":null,"communityName":null,"tranName":null,"sdLineName":null,"cityCode":"3340140","cityName":"国网浙江杭州市余杭区供电有限公司","provinceCode":null,"stopTime":"2020-04-22 17:10:00","powerType":"全部","powerOffArea":"110kV油车变:丰车H820线光明桥配变","powerOffReason":"高压开关跳闸原停电结束时间为2020-04-2216:00:00,因工作复杂原因,延迟送电,现变更停电结束时间为2020-04-2217:10:00","powerOffId":"2020042231020113"},{"poweroffId":2020042231020099,"sgpoweroffId":null,"subsName":"","lineName":"10kV凤凰Y323线","pubTranName":"梓洲村金昌台区,","scope":"浙江省-杭州市-建德市-乾潭镇-梓洲行政村-金昌自然村","startTime":"2020-04-22 09:46:00","stopDate":"2020-04-22 12:00:00","orgNo":"3340180","typeCode":"电网故障停限电","poweroffArea":"35kV三都变:凤凰Y323线梓洲村金昌台区配变","poweroffReason":"(低压停电信息)低压电缆头老化","powerTime":"2020-04-22 11:23:00","powerComm":"已送电","subsNo":"","lineNo":"","tgNo":"","tgName":null,"infoStatus":"1","orgName":"国网浙江建德市供电有限公司","typeName":null,"infoStatusName":null,"dateDay":null,"orgNos":null,"nowTime":null,"countyName":null,"streetName":null,"villageName":null,"roadName":null,"communityName":null,"tranName":null,"sdLineName":null,"cityCode":"3340180","cityName":"国网浙江建德市供电有限公司","provinceCode":null,"stopTime":"2020-04-22 12:00:00","powerType":"全部","powerOffArea":"35kV三都变:凤凰Y323线梓洲村金昌台区配变","powerOffReason":"(低压停电信息)低压电缆头老化","powerOffId":"2020042231020099"}],"pageModel":{"pageNow":297,"totalCount":17788,"totalPage":1779,"tableRows":0,"pageCount":10,"beginCount":2960},"isExperi":"1"}