{"message":"","today":"2020-06-15","seleList":[{"poweroffId":2020042231020098,"sgpoweroffId":null,"subsName":"","lineName":"10kV长浪0037线","pubTranName":"蓬园村10#变,蓬园村3#变,","scope":"浙江省-杭州市-萧山区-义蓬街道-蓬园行政村-蓬园自然村","startTime":"2020-04-30 09:00:00","stopDate":"2020-04-30 17:30:00","orgNo":"3340120","typeCode":"计划停电","poweroffArea":"110kV白浪变:长浪0037线-蓬园村3#变低压后段、蓬园村10#班低压后段","poweroffReason":"(低压停电信息)蓬园村10#变低压割接至蓬园村12#变等工作","powerTime":"2020-04-30 16:59:19","powerComm":"已送电","subsNo":"","lineNo":"","tgNo":"","tgName":null,"infoStatus":"1","orgName":"国网浙江杭州市钱塘新区供电公司","typeName":null,"infoStatusName":null,"dateDay":null,"orgNos":null,"nowTime":null,"countyName":null,"streetName":null,"villageName":null,"roadName":null,"communityName":null,"tranName":null,"sdLineName":null,"cityCode":"3340120","cityName":"国网浙江杭州市钱塘新区供电公司","provinceCode":null,"stopTime":"2020-04-30 17:30:00","powerType":"全部","powerOffArea":"110kV白浪变:长浪0037线-蓬园村3#变低压后段、蓬园村10#班低压后段","powerOffReason":"(低压停电信息)蓬园村10#变低压割接至蓬园村12#变等工作","powerOffId":"2020042231020098"},{"poweroffId":2020042231020092,"sgpoweroffId":null,"subsName":"","lineName":"10kV陈园C841线","pubTranName":"陈家园村10#变,","scope":"浙江省-杭州市-萧山区-新街镇-新街街道-陈家园行政村-陈家园自然村等一带","startTime":"2020-04-22 09:41:30","stopDate":"2020-04-22 11:41:30","orgNo":"3340130","typeCode":"电网故障停限电","poweroffArea":"110kV罗山变:陈园C841线-陈家园村10#变台区低压开关","poweroffReason":"(低压停电信息)低压漏电保护器短路故障","powerTime":"2020-04-22 10:44:40","powerComm":"已送电","subsNo":"","lineNo":"","tgNo":"","tgName":null,"infoStatus":"1","orgName":"国网浙江杭州市萧山区供电有限公司","typeName":null,"infoStatusName":null,"dateDay":null,"orgNos":null,"nowTime":null,"countyName":null,"streetName":null,"villageName":null,"roadName":null,"communityName":null,"tranName":null,"sdLineName":null,"cityCode":"3340130","cityName":"国网浙江杭州市萧山区供电有限公司","provinceCode":null,"stopTime":"2020-04-22 11:41:30","powerType":"全部","powerOffArea":"110kV罗山变:陈园C841线-陈家园村10#变台区低压开关","powerOffReason":"(低压停电信息)低压漏电保护器短路故障","powerOffId":"2020042231020092"},{"poweroffId":2020042231020064,"sgpoweroffId":null,"subsName":"","lineName":"10kV宁镇A108线","pubTranName":"新华村20#变,宁安社区11#变,宁东村20#变,宁泰家园2#公变,杭州市萧山区市政园林公用事业管理处1#,宁安社区10#变,腾达建设集团股份有限公司,腾达建设集团股份有限公司计量点,1#变,兆丰机电2#,宁泰家园1#公变,中石化碧辟(浙江)石油有限公司杭州分公司1#变压器间隔配电变压器,中意彩瓦,杭州麦吉机械有限公司,新华村13#变,杭州品客商务酒店有限公司,新华村48#变,宁围集镇5#公变,中爱机械,市政路灯1#,1#变,康盛汽车,宁安社区12#变,宁安社区08#变,宁税村7#变,杭州广大汽车销售服务有限公司,金鹏钢品,市政园林6#,宁税村8#变,宁税村15#变,新华村25#变,宁安社区09#变,宁围集镇6号公变,财税,宁安社区06#变,","scope":"浙江省-杭州市-萧山区-宁围镇-宁围街道-宁东社区-宁东自然村,宁围街道-新华行政村(新华自然村,中小区),宁围街道-宁安社区(宁安自然村,宁安路),宁围街道-宁税社区(宁税自然村,建设四路),宁围街道-振宁社区(文明路,集镇自然村,生兴路);经济技术开发区(浙江万兴恒服务有限公司,杭州市萧山区市政绿化养护保障中心,浙江兆丰机电股份有限公司,腾达建设集团股份有限公司),宁围街道(杭州金鹏钢品工程有限公司,国家税务总局杭州市萧山区税务局,杭州中爱机械有限公司,杭州市萧山区市政绿化养护保障中心,杭州中意机械设备有限公司,杭州麦吉机械有限公司,浙江星特迈汽车销售服务有限公司,浙江康盛汽车销售服务有限公司,杭州萧山益朵酒店有限公司,中石化碧辟(浙江)石油有限公司杭州分公司,腾达建设集团股份有限公司,中铁上海工程局集团有限公司)等一带","startTime":"2020-04-22 08:48:00","stopDate":"2020-04-22 11:28:00","orgNo":"3340130","typeCode":"电网故障停限电","poweroffArea":"110kV惠兴变:宁镇A108线宁初开镇初A1081线后段","poweroffReason":"高压柱上断路器短路故障原停电结束时间为2020-04-2212:50:00,为减少客户停电时间,加快工作进度,提前送电,现变更停电结束时间为2020-04-2211:28:00","powerTime":"2020-04-22 10:35:49","powerComm":"已送电","subsNo":"","lineNo":"","tgNo":"","tgName":null,"infoStatus":"1","orgName":"国网浙江杭州市萧山区供电有限公司","typeName":null,"infoStatusName":null,"dateDay":null,"orgNos":null,"nowTime":null,"countyName":null,"streetName":null,"villageName":null,"roadName":null,"communityName":null,"tranName":null,"sdLineName":null,"cityCode":"3340130","cityName":"国网浙江杭州市萧山区供电有限公司","provinceCode":null,"stopTime":"2020-04-22 11:28:00","powerType":"全部","powerOffArea":"110kV惠兴变:宁镇A108线宁初开镇初A1081线后段","powerOffReason":"高压柱上断路器短路故障原停电结束时间为2020-04-2212:50:00,为减少客户停电时间,加快工作进度,提前送电,现变更停电结束时间为2020-04-2211:28:00","powerOffId":"2020042231020064"},{"poweroffId":2020042231020034,"sgpoweroffId":null,"subsName":"","lineName":"10kV久峰C955线","pubTranName":"河杨湖2#变,","scope":"浙江省-杭州市-萧山区-戴村镇-河杨湖行政村-河上桥自然村","startTime":"2020-04-30 07:30:00","stopDate":"2020-04-30 16:00:00","orgNo":"3340130","typeCode":"临时停电","poweroffArea":"110kV永兴变:久峰C955线-河杨湖2#变后段","poweroffReason":"立杆，更换导线，拆装利旧照明表箱81只，动力表箱4只，线路搭接，拆旧，更换出线电缆。 原停电结束时间为2020-04-30 17:30:00,为减少客户停电时间,加快工作进度,提前送电,现变更停电结束时间为2020-04-30 16:00:00","powerTime":"2020-04-30 15:11:12","powerComm":"已送电","subsNo":"","lineNo":"","tgNo":"","tgName":null,"infoStatus":"1","orgName":"国网浙江杭州市萧山区供电有限公司","typeName":null,"infoStatusName":null,"dateDay":null,"orgNos":null,"nowTime":null,"countyName":null,"streetName":null,"villageName":null,"roadName":null,"communityName":null,"tranName":null,"sdLineName":null,"cityCode":"3340130","cityName":"国网浙江杭州市萧山区供电有限公司","provinceCode":null,"stopTime":"2020-04-30 16:00:00","powerType":"全部","powerOffArea":"110kV永兴变:久峰C955线-河杨湖2#变后段","powerOffReason":"立杆，更换导线，拆装利旧照明表箱81只，动力表箱4只，线路搭接，拆旧，更换出线电缆。 原停电结束时间为2020-04-30 17:30:00,为减少客户停电时间,加快工作进度,提前送电,现变更停电结束时间为2020-04-30 16:00:00","powerOffId":"2020042231020034"},{"poweroffId":2020042231020027,"sgpoweroffId":null,"subsName":"","lineName":"10kV凤凰Y323线","pubTranName":"新和村五马山台区,","scope":"浙江省-杭州市-建德市-三都镇-新和行政村-五马山自然村","startTime":"2020-04-22 07:18:00","stopDate":"2020-04-22 15:00:00","orgNo":"3340180","typeCode":"电网故障停限电","poweroffArea":"35kV三都变:凤凰Y323线新和村五马山台区新和村五马山台区配变","poweroffReason":"高压开关跳闸","powerTime":"2020-04-22 14:06:00","powerComm":"已送电","subsNo":"","lineNo":"","tgNo":"","tgName":null,"infoStatus":"1","orgName":"国网浙江建德市供电有限公司","typeName":null,"infoStatusName":null,"dateDay":null,"orgNos":null,"nowTime":null,"countyName":null,"streetName":null,"villageName":null,"roadName":null,"communityName":null,"tranName":null,"sdLineName":null,"cityCode":"3340180","cityName":"国网浙江建德市供电有限公司","provinceCode":null,"stopTime":"2020-04-22 15:00:00","powerType":"全部","powerOffArea":"35kV三都变:凤凰Y323线新和村五马山台区新和村五马山台区配变","powerOffReason":"高压开关跳闸","powerOffId":"2020042231020027"},{"poweroffId":2020042131020303,"sgpoweroffId":null,"subsName":"","lineName":"10kV春雷0811线","pubTranName":"1#,春元村6#变,庆平家具配件,亚美纺织,云石顶山党山垦种,春光村4#变,才荣机械,春光村8#变,春光村7#变,云石顶山党山垦种,春光村3#变,城东垦种,晓阳水产,卓宏农业,春雷村5#变,誉球机械,春雷村1#变,江五路灯（二）01#,春光村2#变,春雷村8#变,春光村6#变,宏伟钢结构,陆凯机械,河庄同二垦种,春雷村9#变,盖伦线业,晓阳养殖（四）,欣佳机械,春元村8#变,江五路灯（一）01#,伟达布厂,春雷村7#变,春雷村3#变,1#,春光村10#变,","scope":"浙江省-杭州市-萧山区-义蓬街道(春光行政村-春光自然村,春园行政村-春园自然村,春雷行政村-春雷自然村,蓬园行政村-蓬园自然村);围垦垦区(杭州晓阳养殖有限公司,云石顶山尖山垦种,浙江卓宏农业科技有限公司,萧山区河庄镇同二村(围垦用电),杭州晓阳水产品有限公司),前进街道(宏图城东垦种,云石顶山尖山垦种),义蓬街道(杭州萧山亚美丝织有限公司,杭州清逸纺织有限公司,杭州头蓬伟达布厂,杭州才荣机械有限公司,杭州陆凯机械制造有限公司,杭州盖伦业有限公司,杭州誉球机械有限公司,杭州宏伟钢结构有限公司,杭州欣佳机械厂,杭州萧山庆平家具厂,中电建路桥集团(杭州)大江东投资发展有限公司,中国水利水电第四工程局有限公司),义蓬街道春光村,义蓬街道春园行政村","startTime":"2020-04-21 23:15:00","stopDate":"2020-04-22 02:40:00","orgNo":"3340120","typeCode":"电网故障停限电","poweroffArea":"35kV头蓬变:春雷0811线2228(S)后段","poweroffReason":"高压开关跳闸原停电结束时间为2020-04-2203:10:00,为减少客户停电时间,加快工作进度,提前送电,现变更停电结束时间为2020-04-2202:40:00","powerTime":"2020-04-22 01:52:01","powerComm":"已送电","subsNo":"","lineNo":"","tgNo":"","tgName":null,"infoStatus":"1","orgName":"国网浙江杭州市钱塘新区供电公司","typeName":null,"infoStatusName":null,"dateDay":null,"orgNos":null,"nowTime":null,"countyName":null,"streetName":null,"villageName":null,"roadName":null,"communityName":null,"tranName":null,"sdLineName":null,"cityCode":"3340120","cityName":"国网浙江杭州市钱塘新区供电公司","provinceCode":null,"stopTime":"2020-04-22 02:40:00","powerType":"全部","powerOffArea":"35kV头蓬变:春雷0811线2228(S)后段","powerOffReason":"高压开关跳闸原停电结束时间为2020-04-2203:10:00,为减少客户停电时间,加快工作进度,提前送电,现变更停电结束时间为2020-04-2202:40:00","powerOffId":"2020042131020303"},{"poweroffId":2020042131020302,"sgpoweroffId":null,"subsName":"","lineName":"10kV春光0810线","pubTranName":"春元村3#变,春元村11#变,春元村5#变,1#,嘉诚机械,春元村10#变,春雷村2#变,1000,春雷村4#变,春元村4#变,何志兴布厂,兴隆纺织,春元村2#变,金氏泵业,蛟龙纺织,春雷村10#变,1#,","scope":"浙江省-杭州市-萧山区-义蓬街道(春园行政村-春园自然村,春雷行政村-春雷自然村);义蓬街道(杭州航天速机有限公司,杭州萧山兴隆纺织有限公司,杭州蛟龙纺织机械厂,萧山市头蓬镇何志兴布厂,杭州金氏泵业有限公司,杭州嘉诚机械有限公司,中电建路桥集团(杭州)大江东投资发展有限公司)","startTime":"2020-04-21 23:15:00","stopDate":"2020-04-22 02:33:00","orgNo":"3340120","typeCode":"电网故障停限电","poweroffArea":"35kV头蓬变:春光0810线2222后段","poweroffReason":"高压开关跳闸原停电结束时间为2020-04-2203:10:00,为减少客户停电时间,加快工作进度,提前送电,现变更停电结束时间为2020-04-2202:33:00","powerTime":"2020-04-22 01:58:01","powerComm":"已送电","subsNo":"","lineNo":"","tgNo":"","tgName":null,"infoStatus":"1","orgName":"国网浙江杭州市钱塘新区供电公司","typeName":null,"infoStatusName":null,"dateDay":null,"orgNos":null,"nowTime":null,"countyName":null,"streetName":null,"villageName":null,"roadName":null,"communityName":null,"tranName":null,"sdLineName":null,"cityCode":"3340120","cityName":"国网浙江杭州市钱塘新区供电公司","provinceCode":null,"stopTime":"2020-04-22 02:33:00","powerType":"全部","powerOffArea":"35kV头蓬变:春光0810线2222后段","powerOffReason":"高压开关跳闸原停电结束时间为2020-04-2203:10:00,为减少客户停电时间,加快工作进度,提前送电,现变更停电结束时间为2020-04-2202:33:00","powerOffId":"2020042131020302"},{"poweroffId":2020042131020296,"sgpoweroffId":null,"subsName":"","lineName":"10kV陈园C841线","pubTranName":"陈家园村10#变,","scope":"浙江省-杭州市-萧山区-新街镇、新街街道-陈家园行政村-陈家园自然村等一带","startTime":"2020-04-21 21:29:08","stopDate":"2020-04-21 23:29:08","orgNo":"3340130","typeCode":"电网故障停限电","poweroffArea":"110kV罗山变:陈园C841线-陈家园村10#变台区低压开关","poweroffReason":"（低压停电信息）低压漏电保护器短路故障","powerTime":"2020-04-21 22:34:55","powerComm":"已送电","subsNo":"","lineNo":"","tgNo":"","tgName":null,"infoStatus":"1","orgName":"国网浙江杭州市萧山区供电有限公司","typeName":null,"infoStatusName":null,"dateDay":null,"orgNos":null,"nowTime":null,"countyName":null,"streetName":null,"villageName":null,"roadName":null,"communityName":null,"tranName":null,"sdLineName":null,"cityCode":"3340130","cityName":"国网浙江杭州市萧山区供电有限公司","provinceCode":null,"stopTime":"2020-04-21 23:29:08","powerType":"全部","powerOffArea":"110kV罗山变:陈园C841线-陈家园村10#变台区低压开关","powerOffReason":"（低压停电信息）低压漏电保护器短路故障","powerOffId":"2020042131020296"},{"poweroffId":2020042131020286,"sgpoweroffId":null,"subsName":"","lineName":"10kV水印9433线","pubTranName":"西花(六),","scope":"浙江省-杭州市-下城区-石桥街道-石桥社区-漾河弄,漾河人家小区,东新街道(水漾苑社区-漾河弄,漾河人家,长青苑社区-东新路)","startTime":"2020-04-21 20:33:11","stopDate":"2020-04-22 00:43:11","orgNo":"3340101","typeCode":"电网故障停限电","poweroffArea":"110kV石桥变:水印9433线-西花(六)后段","poweroffReason":"高压开关跳闸原停电结束时间为2020-04-2207:33:11,为减少客户停电时间,加快工作进度,提前送电,现变更停电结束时间为2020-04-2200:43:11","powerTime":"2020-04-22 00:04:23","powerComm":"已送电","subsNo":"","lineNo":"","tgNo":"","tgName":null,"infoStatus":"1","orgName":"浙江杭州电力客户服务中心","typeName":null,"infoStatusName":null,"dateDay":null,"orgNos":null,"nowTime":null,"countyName":null,"streetName":null,"villageName":null,"roadName":null,"communityName":null,"tranName":null,"sdLineName":null,"cityCode":"3340101","cityName":"浙江杭州电力客户服务中心","provinceCode":null,"stopTime":"2020-04-22 00:43:11","powerType":"全部","powerOffArea":"110kV石桥变:水印9433线-西花(六)后段","powerOffReason":"高压开关跳闸原停电结束时间为2020-04-2207:33:11,为减少客户停电时间,加快工作进度,提前送电,现变更停电结束时间为2020-04-2200:43:11","powerOffId":"2020042131020286"},{"poweroffId":2020042131020281,"sgpoweroffId":null,"subsName":"","lineName":"10kV吉洪C655线","pubTranName":"2#,1#,益农供电营业所10#变,益农供电营业所15#变,杭州市萧山区益农镇社区卫生服务中心,","scope":"浙江省-杭州市-萧山区-益农镇-弘扬社区-杭州市萧山区益农镇人民政府","startTime":"2020-04-29 08:30:00","stopDate":"2020-04-29 15:05:00","orgNo":"3340130","typeCode":"计划停电","poweroffArea":"35kV益农变:吉洪C655线-益农政府后段;吉洪C655线-益农镇卫生院后段;吉洪C655线-益农供电营业所15#变后段;吉洪C655线-益农供电营业所10#变后段","poweroffReason":"吉洪C655线更换兴贸开1座 原停电结束时间为2020-04-29 16:30:00,为减少客户停电时间,加快工作进度,提前送电,现变更停电结束时间为2020-04-29 15:05:00","powerTime":"2020-04-29 14:15:06","powerComm":"已送电","subsNo":"","lineNo":"","tgNo":"","tgName":null,"infoStatus":"1","orgName":"国网浙江杭州市萧山区供电有限公司","typeName":null,"infoStatusName":null,"dateDay":null,"orgNos":null,"nowTime":null,"countyName":null,"streetName":null,"villageName":null,"roadName":null,"communityName":null,"tranName":null,"sdLineName":null,"cityCode":"3340130","cityName":"国网浙江杭州市萧山区供电有限公司","provinceCode":null,"stopTime":"2020-04-29 15:05:00","powerType":"全部","powerOffArea":"35kV益农变:吉洪C655线-益农政府后段;吉洪C655线-益农镇卫生院后段;吉洪C655线-益农供电营业所15#变后段;吉洪C655线-益农供电营业所10#变后段","powerOffReason":"吉洪C655线更换兴贸开1座 原停电结束时间为2020-04-29 16:30:00,为减少客户停电时间,加快工作进度,提前送电,现变更停电结束时间为2020-04-29 15:05:00","powerOffId":"2020042131020281"}],"pageModel":{"pageNow":298,"totalCount":17788,"totalPage":1779,"tableRows":0,"pageCount":10,"beginCount":2970},"isExperi":"1"}