{"message":"","today":"2020-06-15","seleList":[{"poweroffId":2020060831020024,"sgpoweroffId":null,"subsName":"","lineName":"10kV徐七T338线","pubTranName":"柳岩南母山2号公变,","scope":"浙江省-杭州市-桐庐县-横村镇-柳岩行政村(柳岩新农居点,柳岩自然村)","startTime":"2020-06-08 07:34:31","stopDate":"2020-06-08 11:34:31","orgNo":"3340150","typeCode":"电网故障停限电","poweroffArea":"110kV横村变:徐七T338线-柳岩南母山2号公变后段","poweroffReason":"(低压停电信息)低压开关跳闸","powerTime":"2020-06-08 11:10:28","powerComm":"已送电","subsNo":"","lineNo":"","tgNo":"","tgName":null,"infoStatus":"1","orgName":"国网浙江桐庐县供电公司","typeName":null,"infoStatusName":null,"dateDay":null,"orgNos":null,"nowTime":null,"countyName":null,"streetName":null,"villageName":null,"roadName":null,"communityName":null,"tranName":null,"sdLineName":null,"cityCode":"3340150","cityName":"国网浙江桐庐县供电公司","provinceCode":null,"stopTime":"2020-06-08 11:34:31","powerType":"全部","powerOffArea":"110kV横村变:徐七T338线-柳岩南母山2号公变后段","powerOffReason":"(低压停电信息)低压开关跳闸","powerOffId":"2020060831020024"},{"poweroffId":2020060831020023,"sgpoweroffId":null,"subsName":"","lineName":"10kV浪石T205线","pubTranName":"方埠头1号公变,","scope":"浙江省-杭州市-桐庐县-横村镇(方埠行政村-方埠自然村,柳茂行政村-柳茂自然村)","startTime":"2020-06-08 08:00:23","stopDate":"2020-06-08 17:00:23","orgNo":"3340150","typeCode":"电网故障停限电","poweroffArea":"110kV方埠变:浪石T205线-方埠头1号公变后段","poweroffReason":"(低压停电信息)低压开关跳闸","powerTime":"2020-06-08 16:50:12","powerComm":"已送电","subsNo":"","lineNo":"","tgNo":"","tgName":null,"infoStatus":"1","orgName":"国网浙江桐庐县供电公司","typeName":null,"infoStatusName":null,"dateDay":null,"orgNos":null,"nowTime":null,"countyName":null,"streetName":null,"villageName":null,"roadName":null,"communityName":null,"tranName":null,"sdLineName":null,"cityCode":"3340150","cityName":"国网浙江桐庐县供电公司","provinceCode":null,"stopTime":"2020-06-08 17:00:23","powerType":"全部","powerOffArea":"110kV方埠变:浪石T205线-方埠头1号公变后段","powerOffReason":"(低压停电信息)低压开关跳闸","powerOffId":"2020060831020023"},{"poweroffId":2020060831020020,"sgpoweroffId":null,"subsName":"","lineName":"10kV宅前T125线","pubTranName":"宅前1号公变,","scope":"浙江省-杭州市-桐庐县-富春江镇-大洋坪社区-七里泷大街,富春江镇-横山行政村(横山自然村,宅前自然村),富春江镇-黄坡岭社区(七里泷大街,子陵路)","startTime":"2020-06-08 07:26:48","stopDate":"2020-06-08 17:30:48","orgNo":"3340150","typeCode":"电网故障停限电","poweroffArea":"110kV外董变:宅前T125线-宅前1号公变后段","poweroffReason":"(低压停电信息)低压开关跳闸","powerTime":"2020-06-08 17:20:16","powerComm":"已送电","subsNo":"","lineNo":"","tgNo":"","tgName":null,"infoStatus":"1","orgName":"国网浙江桐庐县供电公司","typeName":null,"infoStatusName":null,"dateDay":null,"orgNos":null,"nowTime":null,"countyName":null,"streetName":null,"villageName":null,"roadName":null,"communityName":null,"tranName":null,"sdLineName":null,"cityCode":"3340150","cityName":"国网浙江桐庐县供电公司","provinceCode":null,"stopTime":"2020-06-08 17:30:48","powerType":"全部","powerOffArea":"110kV外董变:宅前T125线-宅前1号公变后段","powerOffReason":"(低压停电信息)低压开关跳闸","powerOffId":"2020060831020020"},{"poweroffId":2020060731020123,"sgpoweroffId":null,"subsName":"","lineName":"10kV长纸H707线","pubTranName":"义桥村团结公变,","scope":"浙江省-杭州市-余杭区-余杭街道-义桥行政村-义桥自然村","startTime":"2020-06-07 23:23:22","stopDate":"2020-06-08 01:23:22","orgNo":"3340140","typeCode":"电网故障停限电","poweroffArea":"110kV余杭变:长纸H707线-义桥村团结公变后段","poweroffReason":"高压开关跳闸","powerTime":"2020-06-08 00:26:00","powerComm":"已送电","subsNo":"","lineNo":"","tgNo":"","tgName":null,"infoStatus":"1","orgName":"国网浙江杭州市余杭区供电有限公司","typeName":null,"infoStatusName":null,"dateDay":null,"orgNos":null,"nowTime":null,"countyName":null,"streetName":null,"villageName":null,"roadName":null,"communityName":null,"tranName":null,"sdLineName":null,"cityCode":"3340140","cityName":"国网浙江杭州市余杭区供电有限公司","provinceCode":null,"stopTime":"2020-06-08 01:23:22","powerType":"全部","powerOffArea":"110kV余杭变:长纸H707线-义桥村团结公变后段","powerOffReason":"高压开关跳闸","powerOffId":"2020060731020123"},{"poweroffId":2020060731020120,"sgpoweroffId":null,"subsName":"","lineName":"10kV陆桥H788线","pubTranName":"万景村北斗门公变,","scope":"浙江省-杭州市-余杭区-闲林街道-万景行政村-万景自然村","startTime":"2020-06-07 22:10:00","stopDate":"2020-06-07 23:59:00","orgNo":"3340140","typeCode":"电网故障停限电","poweroffArea":"110kV仓前变:陆桥H788线万景村北斗门公变配变","poweroffReason":"高压开关跳闸","powerTime":"2020-06-07 23:18:00","powerComm":"已送电","subsNo":"","lineNo":"","tgNo":"","tgName":null,"infoStatus":"1","orgName":"国网浙江杭州市余杭区供电有限公司","typeName":null,"infoStatusName":null,"dateDay":null,"orgNos":null,"nowTime":null,"countyName":null,"streetName":null,"villageName":null,"roadName":null,"communityName":null,"tranName":null,"sdLineName":null,"cityCode":"3340140","cityName":"国网浙江杭州市余杭区供电有限公司","provinceCode":null,"stopTime":"2020-06-07 23:59:00","powerType":"全部","powerOffArea":"110kV仓前变:陆桥H788线万景村北斗门公变配变","powerOffReason":"高压开关跳闸","powerOffId":"2020060731020120"},{"poweroffId":2020060731020117,"sgpoweroffId":null,"subsName":"","lineName":"10kV于合Y160线","pubTranName":"于合村于合台区,","scope":"浙江省-杭州市-建德市-更楼街道-于合行政村-于合自然村","startTime":"2020-06-07 20:50:00","stopDate":"2020-06-07 22:30:00","orgNo":"3340180","typeCode":"电网故障停限电","poweroffArea":"110kV更楼变:于合Y160线-于合村于合台区后段","poweroffReason":"(低压停电信息)低压开关跳闸","powerTime":"2020-06-07 21:39:05","powerComm":"已送电","subsNo":"","lineNo":"","tgNo":"","tgName":null,"infoStatus":"1","orgName":"国网浙江建德市供电有限公司","typeName":null,"infoStatusName":null,"dateDay":null,"orgNos":null,"nowTime":null,"countyName":null,"streetName":null,"villageName":null,"roadName":null,"communityName":null,"tranName":null,"sdLineName":null,"cityCode":"3340180","cityName":"国网浙江建德市供电有限公司","provinceCode":null,"stopTime":"2020-06-07 22:30:00","powerType":"全部","powerOffArea":"110kV更楼变:于合Y160线-于合村于合台区后段","powerOffReason":"(低压停电信息)低压开关跳闸","powerOffId":"2020060731020117"},{"poweroffId":2020060731020109,"sgpoweroffId":null,"subsName":"","lineName":"10kV金鑫T114线","pubTranName":"交通小区1号公变,","scope":"浙江省-杭州市-桐庐县-桐君街道-金鑫社区(富春路,洋塘路,建设弄)","startTime":"2020-06-07 18:49:49","stopDate":"2020-06-07 20:49:49","orgNo":"3340150","typeCode":"电网故障停限电","poweroffArea":"110kV桐庐变:金鑫T114线-交通小区1号公变后段","poweroffReason":"高压开关跳闸","powerTime":"2020-06-07 20:40:21","powerComm":"已送电","subsNo":"","lineNo":"","tgNo":"","tgName":null,"infoStatus":"1","orgName":"国网浙江桐庐县供电公司","typeName":null,"infoStatusName":null,"dateDay":null,"orgNos":null,"nowTime":null,"countyName":null,"streetName":null,"villageName":null,"roadName":null,"communityName":null,"tranName":null,"sdLineName":null,"cityCode":"3340150","cityName":"国网浙江桐庐县供电公司","provinceCode":null,"stopTime":"2020-06-07 20:49:49","powerType":"全部","powerOffArea":"110kV桐庐变:金鑫T114线-交通小区1号公变后段","powerOffReason":"高压开关跳闸","powerOffId":"2020060731020109"},{"poweroffId":2020060731020101,"sgpoweroffId":null,"subsName":"","lineName":"10kV刘东9951线","pubTranName":"2#变,西大施4#变,肖水闸,双幼,双桥印刷,青联,下确桥(5),翁家头,西大施10#变,镓谷施3#变,申防,西大施5#变,西大施1#变,镓谷施1#变,山桥小学,西大施2#变,1#变,西大施3#变,镓谷施2#变,联委,变压器3,变压器1,官塘桥二,洪家,1#变,刘家村（2）,西大施9#变,西大施8#变,西大施7#变,变压器2,西大施6#变,","scope":"浙江省-杭州市-西湖区-蒋村街道-蒋村社区-文二西路,三墩镇-山联行政村-三仓路;三墩镇(杭州双桥胜利印刷有限公司,杭州青联印刷有限公司,杭州市三墩镇山联社区居民委员会,浙江精华科技有限公司,杭州市三墩镇中心小学,杭州市三墩镇山联村村民委员会,杭州市西湖区双桥幼儿园,杭州市三墩镇人民政府,上海建工集团股份有限公司,杭州市城市基础设施建设发展中心,杭州镓谷科技有限公司)","startTime":"2020-06-07 16:42:00","stopDate":"2020-06-08 02:10:00","orgNo":"3340101","typeCode":"电网故障停限电","poweroffArea":"110kV墩北变:刘东9951线8783后段","poweroffReason":"高压开关跳闸 原停电结束时间为2020-06-07 20:42:00,因现场故障情况复杂,现变更停电结束时间为2020-06-08 02:10:00","powerTime":"2020-06-08 01:38:37","powerComm":"已送电","subsNo":"","lineNo":"","tgNo":"","tgName":null,"infoStatus":"1","orgName":"浙江杭州电力客户服务中心","typeName":null,"infoStatusName":null,"dateDay":null,"orgNos":null,"nowTime":null,"countyName":null,"streetName":null,"villageName":null,"roadName":null,"communityName":null,"tranName":null,"sdLineName":null,"cityCode":"3340101","cityName":"浙江杭州电力客户服务中心","provinceCode":null,"stopTime":"2020-06-08 02:10:00","powerType":"全部","powerOffArea":"110kV墩北变:刘东9951线8783后段","powerOffReason":"高压开关跳闸 原停电结束时间为2020-06-07 20:42:00,因现场故障情况复杂,现变更停电结束时间为2020-06-08 02:10:00","powerOffId":"2020060731020101"},{"poweroffId":2020060731020100,"sgpoweroffId":null,"subsName":"","lineName":"10kV华联9949线","pubTranName":"天竺坝四,1,后村四,华联村委,天竺坝一,天竺坝三,后村三,后村五,","scope":"浙江省-杭州市-西湖区-三墩镇-华联村社区(荆大线,后村)-观音桥","startTime":"2020-06-07 16:48:00","stopDate":"2020-06-08 02:19:00","orgNo":"3340101","typeCode":"电网故障停限电","poweroffArea":"110kV墩北变:华联9949线华联四站华联四分线后段","poweroffReason":"高压开关跳闸 原停电结束时间为2020-06-07 20:48:00,因现场故障情况复杂,现变更停电结束时间为2020-06-08 02:19:00","powerTime":"2020-06-08 01:42:44","powerComm":"已送电","subsNo":"","lineNo":"","tgNo":"","tgName":null,"infoStatus":"1","orgName":"浙江杭州电力客户服务中心","typeName":null,"infoStatusName":null,"dateDay":null,"orgNos":null,"nowTime":null,"countyName":null,"streetName":null,"villageName":null,"roadName":null,"communityName":null,"tranName":null,"sdLineName":null,"cityCode":"3340101","cityName":"浙江杭州电力客户服务中心","provinceCode":null,"stopTime":"2020-06-08 02:19:00","powerType":"全部","powerOffArea":"110kV墩北变:华联9949线华联四站华联四分线后段","powerOffReason":"高压开关跳闸 原停电结束时间为2020-06-07 20:48:00,因现场故障情况复杂,现变更停电结束时间为2020-06-08 02:19:00","powerOffId":"2020060731020100"},{"poweroffId":2020060731020093,"sgpoweroffId":null,"subsName":"","lineName":"10kV芝花T395线","pubTranName":"世纪花城3号公变,世纪花城2号公变,","scope":"浙江省-杭州市-桐庐县-城南街道-上杭社区-大奇山路","startTime":"2020-06-07 15:09:13","stopDate":"2020-06-07 16:09:13","orgNo":"3340150","typeCode":"电网故障停限电","poweroffArea":"110kV迎春变:芝花T395线-世纪花城3号公变后段;芝花T395线-世纪花城2号公变后段","poweroffReason":"(低压停电信息)低压开关跳闸","powerTime":"2020-06-07 16:00:51","powerComm":"已送电","subsNo":"","lineNo":"","tgNo":"","tgName":null,"infoStatus":"1","orgName":"国网浙江桐庐县供电公司","typeName":null,"infoStatusName":null,"dateDay":null,"orgNos":null,"nowTime":null,"countyName":null,"streetName":null,"villageName":null,"roadName":null,"communityName":null,"tranName":null,"sdLineName":null,"cityCode":"3340150","cityName":"国网浙江桐庐县供电公司","provinceCode":null,"stopTime":"2020-06-07 16:09:13","powerType":"全部","powerOffArea":"110kV迎春变:芝花T395线-世纪花城3号公变后段;芝花T395线-世纪花城2号公变后段","powerOffReason":"(低压停电信息)低压开关跳闸","powerOffId":"2020060731020093"}],"pageModel":{"pageNow":29,"totalCount":17786,"totalPage":1779,"tableRows":0,"pageCount":10,"beginCount":280},"isExperi":"1"}