{"message":"","today":"2020-06-15","seleList":[{"poweroffId":2020042031020225,"sgpoweroffId":null,"subsName":"","lineName":"10kV白南Y222线","pubTranName":"白沙社区下坞台区,","scope":"浙江省-杭州市-建德市-新安江街道-白沙社区 下坞自然村,320国道","startTime":"2020-04-20 15:04:00","stopDate":"2020-04-20 16:15:00","orgNo":"3340180","typeCode":"电网故障停限电","poweroffArea":"110kV白沙变:白南Y222线白沙社区下坞台区配变","poweroffReason":"高压开关跳闸原停电结束时间为2020-04-2017:30:00,为减少客户停电时间,加快工作进度,提前送电,现变更停电结束时间为2020-04-2016:15:00","powerTime":"2020-04-20 15:40:11","powerComm":"已送电","subsNo":"","lineNo":"","tgNo":"","tgName":null,"infoStatus":"1","orgName":"国网浙江建德市供电有限公司","typeName":null,"infoStatusName":null,"dateDay":null,"orgNos":null,"nowTime":null,"countyName":null,"streetName":null,"villageName":null,"roadName":null,"communityName":null,"tranName":null,"sdLineName":null,"cityCode":"3340180","cityName":"国网浙江建德市供电有限公司","provinceCode":null,"stopTime":"2020-04-20 16:15:00","powerType":"全部","powerOffArea":"110kV白沙变:白南Y222线白沙社区下坞台区配变","powerOffReason":"高压开关跳闸原停电结束时间为2020-04-2017:30:00,为减少客户停电时间,加快工作进度,提前送电,现变更停电结束时间为2020-04-2016:15:00","powerOffId":"2020042031020225"},{"poweroffId":2020042031020222,"sgpoweroffId":null,"subsName":"","lineName":"10kV江村Y229线","pubTranName":"2#变,丰产村姜坞台区,丰产村板桥里台区,丰产村山河埠台区,白沙社区汤家台区,丰产村马家台区,白沙社区小塘坞台区,白沙社区水竹坞台区,白沙社区林村台区,白沙社区章家台区,白沙社区林村口台区变压器,丰产村新门头台区,丰产村山岗源台区,建德市看守所,看守所路口1#,建德市种子管理站,白沙社区风仙坝台区,1#变,丰产村朱岗埠台区,白沙社区立交桥1号公变,丰产村下湾台区,建德市新安江光华冷冻食品厂,白沙社区高塘坞台区,白沙社区茶厂台区,丰产村外龙台区,丰产村龙门台区,丰产村山河岭台区,丰产村塘坞台区,白沙社区道士庄台区,3#变,白沙社区立交桥3号公变,杭州百恒置业有限公司1#临变,丰产村凉亭边台区,丰产村章源台区,杭州百恒置业有限公司,丰产村骆坞台区,丰产村山河台区,丰产村双坑口台区,建德市城区至城东污水管网延伸工程项目指挥部,2#临变,丰产村安置房施工变,白沙社区江村埠台区,建德市桥南彩瓦厂,丰产村猴坞台区,白沙社区立交桥2号公变,","scope":"浙江省-杭州市-建德市-新安江街道-丰产行政村 板桥里自然村,龙门自然村,外龙自然村,凉亭边自然村,下湾自然村,横路自然村,双坑口自然村,山河自然村,新门头自然村,山岗源自然村,马家自然村,山河埠自然村,章源自然村,塘坞自然村,山河岭自然村,骆坞自然村,朱岗埠自然村,姜坞自然村 ,新安江街道-白沙社区 新衢路,水竹坞自然村,林村自然村,汤家自然村,江村埠自然村,茶厂自然村,小塘坞自然村,章家自然村,高塘坞自然村,林村口自然村,林溪路);新安江街道 建德市新安江街道丰产村股份经济合作社,杭州百恒置业有限公司,建德市新安城市照明管理有限公司,建德汇泉馨安家园颐养中心,建德市桥南彩瓦厂,建德市种子管理站,建德市新安江光华冷冻食品厂,杭州建德污水处理有限公司,建德市看守所","startTime":"2020-04-20 15:03:00","stopDate":"2020-04-20 17:00:00","orgNo":"3340180","typeCode":"电网故障停限电","poweroffArea":"110kV白沙变:江村Y229线新中开关站2#柜闸刀后段","poweroffReason":"高压开关跳闸原停电结束时间为2020-04-2017:30:00,为减少客户停电时间,加快工作进度,提前送电,现变更停电结束时间为2020-04-2017:00:00","powerTime":"2020-04-20 16:17:11","powerComm":"已送电","subsNo":"","lineNo":"","tgNo":"","tgName":null,"infoStatus":"1","orgName":"国网浙江建德市供电有限公司","typeName":null,"infoStatusName":null,"dateDay":null,"orgNos":null,"nowTime":null,"countyName":null,"streetName":null,"villageName":null,"roadName":null,"communityName":null,"tranName":null,"sdLineName":null,"cityCode":"3340180","cityName":"国网浙江建德市供电有限公司","provinceCode":null,"stopTime":"2020-04-20 17:00:00","powerType":"全部","powerOffArea":"110kV白沙变:江村Y229线新中开关站2#柜闸刀后段","powerOffReason":"高压开关跳闸原停电结束时间为2020-04-2017:30:00,为减少客户停电时间,加快工作进度,提前送电,现变更停电结束时间为2020-04-2017:00:00","powerOffId":"2020042031020222"},{"poweroffId":2020042031020165,"sgpoweroffId":null,"subsName":"","lineName":"10kV至优A816线","pubTranName":"横蓬村15#变,","scope":"浙江省-杭州市-萧山区-南阳街道-横蓬行政村(横蓬路,南虹路,横蓬自然村)等","startTime":"2020-04-20 13:00:34","stopDate":"2020-04-20 14:00:34","orgNo":"3340130","typeCode":"电网故障停限电","poweroffArea":"110kV黎明变:至优A816线-横蓬村15#变后段","poweroffReason":"(低压停电信息)低压开关跳闸原停电结束时间为2020-04-2017:00:34,为减少客户停电时间,加快工作进度,提前送电,现变更停电结束时间为2020-04-2014:00:34","powerTime":"2020-04-20 13:15:35","powerComm":"已送电","subsNo":"","lineNo":"","tgNo":"","tgName":null,"infoStatus":"1","orgName":"国网浙江杭州市萧山区供电有限公司","typeName":null,"infoStatusName":null,"dateDay":null,"orgNos":null,"nowTime":null,"countyName":null,"streetName":null,"villageName":null,"roadName":null,"communityName":null,"tranName":null,"sdLineName":null,"cityCode":"3340130","cityName":"国网浙江杭州市萧山区供电有限公司","provinceCode":null,"stopTime":"2020-04-20 14:00:34","powerType":"全部","powerOffArea":"110kV黎明变:至优A816线-横蓬村15#变后段","powerOffReason":"(低压停电信息)低压开关跳闸原停电结束时间为2020-04-2017:00:34,为减少客户停电时间,加快工作进度,提前送电,现变更停电结束时间为2020-04-2014:00:34","powerOffId":"2020042031020165"},{"poweroffId":2020042031020147,"sgpoweroffId":null,"subsName":"","lineName":"10kV四眼8785线","pubTranName":"虎井村三变,虎井村二变,虎井村变,四井领导小组,","scope":"浙江省-杭州市-西湖区-西湖街道-满觉陇村社区(满觉陇路,虎跑路四眼井,虎跑路,四眼井),西湖区-北山街道-曲院社区-孤山路,上城区-小营街道-马市街社区-大王庙巷,江干区-四季青街道-钱杭社区-杭海路;浙江省-杭州市-西湖区-西湖街道-满觉陇村社区-满觉陇61号、四眼井B楼、四眼井2、4、30-56双号用户、47、64-68双号用户、72、78、82、84、92-2、96、98、100、102、110、120-130双号用户、134-138双号用户、142-148双号用户、152-158双号用户、168-174双号用户、180、182、188、192、194、196-204双号用户、214、218、222、232、236-238双号用户、244、258、","startTime":"2020-04-30 13:40:00","stopDate":"2020-04-30 17:00:00","orgNo":"3340101","typeCode":"计划停电","poweroffArea":"110kV花港变:四眼8785线-虎井一线后段","poweroffReason":"1、四眼站I段开关柜更换，原有线路做相应改接。2、电缆拆头、试验与搭接等工作。","powerTime":"2020-04-30 16:58:17","powerComm":"已送电","subsNo":"","lineNo":"","tgNo":"","tgName":null,"infoStatus":"1","orgName":"浙江杭州电力客户服务中心","typeName":null,"infoStatusName":null,"dateDay":null,"orgNos":null,"nowTime":null,"countyName":null,"streetName":null,"villageName":null,"roadName":null,"communityName":null,"tranName":null,"sdLineName":null,"cityCode":"3340101","cityName":"浙江杭州电力客户服务中心","provinceCode":null,"stopTime":"2020-04-30 17:00:00","powerType":"全部","powerOffArea":"110kV花港变:四眼8785线-虎井一线后段","powerOffReason":"1、四眼站I段开关柜更换，原有线路做相应改接。2、电缆拆头、试验与搭接等工作。","powerOffId":"2020042031020147"},{"poweroffId":2020042031020146,"sgpoweroffId":null,"subsName":"","lineName":"10kV四眼8785线","pubTranName":"四井领导小组,虎井村三变,虎井村二变,虎井村变,","scope":"浙江省-杭州市-西湖区-西湖街道-满觉陇村社区(虎跑路四眼井,四眼井,满觉陇路,虎跑路),上城区-小营街道-马市街社区-大王庙巷,西湖区-北山街道-曲院社区-孤山路,江干区-四季青街道-钱杭社区-杭海路;浙江省-杭州市-西湖区-西湖街道-满觉陇村社区-满觉陇61号、四眼井B楼、四眼井2、4、30-56双号用户、47、64-68双号用户、72、78、82、84、92-2、96、98、100、102、110、120-130双号用户、134-138双号用户、142-148双号用户、152-158双号用户、168-174双号用户、180、182、188、192、194、196-204双号用户、214、218、222、232、236-238双号用户、244、258、","startTime":"2020-04-29 09:30:00","stopDate":"2020-04-29 12:30:00","orgNo":"3340101","typeCode":"计划停电","poweroffArea":"110kV花港变:四眼8785线-虎井一线后段","poweroffReason":"杭州城南片区（古墩1811HZ1800WS03A0000000）四眼站虎井一线更换至II段7# 原停电结束时间为2020-04-29 17:00:00,为减少客户停电时间,加快工作进度,提前送电,现变更停电结束时间为2020-04-29 12:30:00","powerTime":"2020-04-29 11:50:59","powerComm":"已送电","subsNo":"","lineNo":"","tgNo":"","tgName":null,"infoStatus":"1","orgName":"浙江杭州电力客户服务中心","typeName":null,"infoStatusName":null,"dateDay":null,"orgNos":null,"nowTime":null,"countyName":null,"streetName":null,"villageName":null,"roadName":null,"communityName":null,"tranName":null,"sdLineName":null,"cityCode":"3340101","cityName":"浙江杭州电力客户服务中心","provinceCode":null,"stopTime":"2020-04-29 12:30:00","powerType":"全部","powerOffArea":"110kV花港变:四眼8785线-虎井一线后段","powerOffReason":"杭州城南片区（古墩1811HZ1800WS03A0000000）四眼站虎井一线更换至II段7# 原停电结束时间为2020-04-29 17:00:00,为减少客户停电时间,加快工作进度,提前送电,现变更停电结束时间为2020-04-29 12:30:00","powerOffId":"2020042031020146"},{"poweroffId":2020042031020145,"sgpoweroffId":null,"subsName":"","lineName":"10kV虎跑8786线","pubTranName":"桂花变,杭州少年儿童公园,四眼三变,杭州市水业集团有限公司泵站运营分公司,伊家鲜,满桂泵站专变,眼井村变,杭州少年儿童公园,","scope":"浙江省-杭州市-西湖区-西湖街道-满觉陇村社区(虎跑路四眼井,虎跑路,四眼井,满觉陇);西湖街道-满陇花雨、四眼井228号、四眼井1-15单号用户、17-1、17-2、23-1、23-2、25-49单号用户、55-83单号用户、84、91-99单号用户","startTime":"2020-04-28 14:34:00","stopDate":"2020-04-28 17:00:00","orgNo":"3340101","typeCode":"计划停电","poweroffArea":"110kV花港变:虎跑8786线-桂花二线后段;虎跑8786线-四眼二分线后段","poweroffReason":"杭州城南片区（古墩1811HZ1800WS03A0000000）四眼站II段更换","powerTime":"2020-04-28 16:04:59","powerComm":"已送电","subsNo":"","lineNo":"","tgNo":"","tgName":null,"infoStatus":"1","orgName":"浙江杭州电力客户服务中心","typeName":null,"infoStatusName":null,"dateDay":null,"orgNos":null,"nowTime":null,"countyName":null,"streetName":null,"villageName":null,"roadName":null,"communityName":null,"tranName":null,"sdLineName":null,"cityCode":"3340101","cityName":"浙江杭州电力客户服务中心","provinceCode":null,"stopTime":"2020-04-28 17:00:00","powerType":"全部","powerOffArea":"110kV花港变:虎跑8786线-桂花二线后段;虎跑8786线-四眼二分线后段","powerOffReason":"杭州城南片区（古墩1811HZ1800WS03A0000000）四眼站II段更换","powerOffId":"2020042031020145"},{"poweroffId":2020042031020144,"sgpoweroffId":null,"subsName":"","lineName":"10kV虎跑8786线","pubTranName":"杭州少年儿童公园,杭州少年儿童公园,眼井村变,桂花变,伊家鲜,杭州市水业集团有限公司泵站运营分公司,四眼三变,满桂泵站专变,","scope":"浙江省-杭州市-西湖区-西湖街道-满觉陇村社区-满陇花雨、四眼井228号、四眼井1-15单号用户、17-1、17-2、23-1、23-2、25-49单号用户、55-83单号用户、84、91-99单号用户","startTime":"2020-04-27 09:30:00","stopDate":"2020-04-27 14:00:28","orgNo":"3340101","typeCode":"临时停电","poweroffArea":"110kV花港变:虎跑8786线-四眼二分线后段;虎跑8786线-桂花二线后段","poweroffReason":"杭州城南片区（古墩1811HZ1800WS03A0000000）四眼站I段线路割接，原停电结束时间为2020-04-27 17:00:28,为减少客户停电时间,加快工作进度,提前送电,现变更停电结束时间为2020-04-27 14:00:28","powerTime":"2020-04-27 13:19:59","powerComm":"已送电","subsNo":"","lineNo":"","tgNo":"","tgName":null,"infoStatus":"1","orgName":"浙江杭州电力客户服务中心","typeName":null,"infoStatusName":null,"dateDay":null,"orgNos":null,"nowTime":null,"countyName":null,"streetName":null,"villageName":null,"roadName":null,"communityName":null,"tranName":null,"sdLineName":null,"cityCode":"3340101","cityName":"浙江杭州电力客户服务中心","provinceCode":null,"stopTime":"2020-04-27 14:00:28","powerType":"全部","powerOffArea":"110kV花港变:虎跑8786线-四眼二分线后段;虎跑8786线-桂花二线后段","powerOffReason":"杭州城南片区（古墩1811HZ1800WS03A0000000）四眼站I段线路割接，原停电结束时间为2020-04-27 17:00:28,为减少客户停电时间,加快工作进度,提前送电,现变更停电结束时间为2020-04-27 14:00:28","powerOffId":"2020042031020144"},{"poweroffId":2020042031020143,"sgpoweroffId":null,"subsName":"","lineName":"10kV天竺8783线","pubTranName":"2011年1月14日新上专变,变压器1,变压器,灵顺寺,大安停车场专变I号,电视塔,灵隐寺#2,","scope":"浙江省-杭州市-西湖区-灵隐街道(浙江广播电视发展总公司索道游览分公司双路单侧、浙江省杭州市西湖区杭州自来水总公司泵房双路单侧、浙江省杭州市西湖区浙江灵隐实业发展有限公司双路单侧、浙江省杭州市西湖区杭州北高峰灵顺寺双路单侧、浙江省杭州市西湖区浙江人民广播电台双路单侧、浙江省杭州市西湖区杭州市灵隐寺双路单侧，浙江省杭州市西湖区杭州市佛教协会","startTime":"2020-04-27 10:00:00","stopDate":"2020-04-27 21:00:00","orgNo":"3340101","typeCode":"临时停电","poweroffArea":"110kV花港变:天竺8783线-灵寺一线后段;天竺8783线-北高一线后段;天竺8783线-大安一线后段;天竺8783线-索道一线后段;天竺8783线-灵泵一线后段","poweroffReason":"杭州城南片区灵隐站等老旧开关站更换工程（城源1811HZ19004T07A0000000）灵隐站I段环网柜更换 原停电结束时间为2020-04-27 17:00:00,因工作量大原因,延迟送电,现变更停电结束时间为2020-04-27 21:00:00","powerTime":"2020-04-27 20:28:17","powerComm":"已送电","subsNo":"","lineNo":"","tgNo":"","tgName":null,"infoStatus":"1","orgName":"浙江杭州电力客户服务中心","typeName":null,"infoStatusName":null,"dateDay":null,"orgNos":null,"nowTime":null,"countyName":null,"streetName":null,"villageName":null,"roadName":null,"communityName":null,"tranName":null,"sdLineName":null,"cityCode":"3340101","cityName":"浙江杭州电力客户服务中心","provinceCode":null,"stopTime":"2020-04-27 21:00:00","powerType":"全部","powerOffArea":"110kV花港变:天竺8783线-灵寺一线后段;天竺8783线-北高一线后段;天竺8783线-大安一线后段;天竺8783线-索道一线后段;天竺8783线-灵泵一线后段","powerOffReason":"杭州城南片区灵隐站等老旧开关站更换工程（城源1811HZ19004T07A0000000）灵隐站I段环网柜更换 原停电结束时间为2020-04-27 17:00:00,因工作量大原因,延迟送电,现变更停电结束时间为2020-04-27 21:00:00","powerOffId":"2020042031020143"},{"poweroffId":2020042031020136,"sgpoweroffId":null,"subsName":"","lineName":"10kV交通D364线","pubTranName":"秋丰村3号秋丰公变,","scope":"浙江省-杭州市-富阳区-富春街道-金桥社区-横凉亭路,秋丰行政村(秋丰自然村,横凉亭路)","startTime":"2020-04-25 16:05:00","stopDate":"2020-04-25 16:45:00","orgNo":"3340170","typeCode":"临时停电","poweroffArea":"110kV富鹿变:交通D364线-秋丰村3号秋丰公变后段","poweroffReason":"富阳320国道至富阳大桥连接线鹿山（大盘山）隧道电力迁改工程：秋丰村3#秋丰公变变压器出线电缆恢复","powerTime":"2020-04-25 16:30:19","powerComm":"已送电","subsNo":"","lineNo":"","tgNo":"","tgName":null,"infoStatus":"1","orgName":"国网浙江杭州市富阳区供电公司","typeName":null,"infoStatusName":null,"dateDay":null,"orgNos":null,"nowTime":null,"countyName":null,"streetName":null,"villageName":null,"roadName":null,"communityName":null,"tranName":null,"sdLineName":null,"cityCode":"3340170","cityName":"国网浙江杭州市富阳区供电公司","provinceCode":null,"stopTime":"2020-04-25 16:45:00","powerType":"全部","powerOffArea":"110kV富鹿变:交通D364线-秋丰村3号秋丰公变后段","powerOffReason":"富阳320国道至富阳大桥连接线鹿山（大盘山）隧道电力迁改工程：秋丰村3#秋丰公变变压器出线电缆恢复","powerOffId":"2020042031020136"},{"poweroffId":2020042031020135,"sgpoweroffId":null,"subsName":"","lineName":"10kV交通D364线","pubTranName":"中铁一局集团第五工程有限公司 二期肖邦西侧1#变,","scope":"浙江省-杭州市-富阳区-富春街道-城西社区-中铁一局集团第五工程有限公司","startTime":"2020-04-25 07:00:00","stopDate":"2020-04-25 16:30:00","orgNo":"3340170","typeCode":"临时停电","poweroffArea":"110kV富鹿变:交通D364线-中铁一局集团第五工程有限公司后段","poweroffReason":"富阳320国道至富阳大桥连接线鹿山（大盘山）隧道电力迁改工程：客户内部检修 原停电结束时间为2020-04-25 16:00:00,因工作难度大原因,延迟送电,现变更停电结束时间为2020-04-25 16:30:00","powerTime":"2020-04-25 16:08:47","powerComm":"已送电","subsNo":"","lineNo":"","tgNo":"","tgName":null,"infoStatus":"1","orgName":"国网浙江杭州市富阳区供电公司","typeName":null,"infoStatusName":null,"dateDay":null,"orgNos":null,"nowTime":null,"countyName":null,"streetName":null,"villageName":null,"roadName":null,"communityName":null,"tranName":null,"sdLineName":null,"cityCode":"3340170","cityName":"国网浙江杭州市富阳区供电公司","provinceCode":null,"stopTime":"2020-04-25 16:30:00","powerType":"全部","powerOffArea":"110kV富鹿变:交通D364线-中铁一局集团第五工程有限公司后段","powerOffReason":"富阳320国道至富阳大桥连接线鹿山（大盘山）隧道电力迁改工程：客户内部检修 原停电结束时间为2020-04-25 16:00:00,因工作难度大原因,延迟送电,现变更停电结束时间为2020-04-25 16:30:00","powerOffId":"2020042031020135"}],"pageModel":{"pageNow":304,"totalCount":17788,"totalPage":1779,"tableRows":0,"pageCount":10,"beginCount":3030},"isExperi":"1"}