{"message":"","today":"2020-06-15","seleList":[{"poweroffId":2020042031020134,"sgpoweroffId":null,"subsName":"","lineName":"10kV交通D364线","pubTranName":"富阳华策明坤汽车维修有限公司,杭州市富阳区公路管理段,杭州市富阳区公路管理段,富阳市公路运输配载中心,杭州富阳工贸资产经营投资集团有限公司2#变,浙江奔腾建设工程有限公司,杭州富阳工贸资产经营投资集团有限公司1#变,上海宝冶集团有限公司1#变,富阳市汽车综合性能检测有限公司,","scope":"浙江省-杭州市-富阳区-富春街道-浙江省富阳力达竹材模板有限公司、富阳区公路管理段、浙江奔腾建设工程有限公司、上海宝冶集团有限公司、富阳区公路运输配载中心、杭州高利森新能源科技有限公司、富阳区汽车综合性能检测有限公司","startTime":"2020-04-25 16:05:00","stopDate":"2020-04-25 16:55:00","orgNo":"3340170","typeCode":"临时停电","poweroffArea":"110kV富鹿变:交通D364线-富阳华策明坤汽车维修有限公司后段;交通D364线-富阳市向新化工有限公司后段;交通D364线-公路段线开关后段","poweroffReason":"富阳320国道至富阳大桥连接线鹿山（大盘山）隧道电力迁改工程：短时停电配合交通D364线花岗分线负荷恢复 原停电结束时间为2020-04-25 16:25:00,因工作难度大原因,延迟送电,现变更停电结束时间为2020-04-25 16:55:00","powerTime":"2020-04-25 16:30:02","powerComm":"已送电","subsNo":"","lineNo":"","tgNo":"","tgName":null,"infoStatus":"1","orgName":"国网浙江杭州市富阳区供电公司","typeName":null,"infoStatusName":null,"dateDay":null,"orgNos":null,"nowTime":null,"countyName":null,"streetName":null,"villageName":null,"roadName":null,"communityName":null,"tranName":null,"sdLineName":null,"cityCode":"3340170","cityName":"国网浙江杭州市富阳区供电公司","provinceCode":null,"stopTime":"2020-04-25 16:55:00","powerType":"全部","powerOffArea":"110kV富鹿变:交通D364线-富阳华策明坤汽车维修有限公司后段;交通D364线-富阳市向新化工有限公司后段;交通D364线-公路段线开关后段","powerOffReason":"富阳320国道至富阳大桥连接线鹿山（大盘山）隧道电力迁改工程：短时停电配合交通D364线花岗分线负荷恢复 原停电结束时间为2020-04-25 16:25:00,因工作难度大原因,延迟送电,现变更停电结束时间为2020-04-25 16:55:00","powerOffId":"2020042031020134"},{"poweroffId":2020042031020125,"sgpoweroffId":null,"subsName":"","lineName":"10kV交通D364线","pubTranName":"秋丰村26#湖南山2公变,秋丰村53号湖南山公变,","scope":"浙江省-杭州市-富阳区-富春街道-秋丰行政村-秋丰自然村","startTime":"2020-04-25 16:05:00","stopDate":"2020-04-25 16:55:00","orgNo":"3340170","typeCode":"临时停电","poweroffArea":"110kV富鹿变:交通D364线首端，秋丰村26#湖南山2公变，秋丰村53号湖南山公变之间","poweroffReason":"富阳320国道至富阳大桥连接线鹿山（大盘山）隧道电力迁改工程：短时停电配合交通D364线湖南山二分线负荷恢复 原停电结束时间为2020-04-25 16:25:00,因工作难度大原因,延迟送电,现变更停电结束时间为2020-04-25 16:55:00","powerTime":"2020-04-25 16:29:52","powerComm":"已送电","subsNo":"","lineNo":"","tgNo":"","tgName":null,"infoStatus":"1","orgName":"国网浙江杭州市富阳区供电公司","typeName":null,"infoStatusName":null,"dateDay":null,"orgNos":null,"nowTime":null,"countyName":null,"streetName":null,"villageName":null,"roadName":null,"communityName":null,"tranName":null,"sdLineName":null,"cityCode":"3340170","cityName":"国网浙江杭州市富阳区供电公司","provinceCode":null,"stopTime":"2020-04-25 16:55:00","powerType":"全部","powerOffArea":"110kV富鹿变:交通D364线首端，秋丰村26#湖南山2公变，秋丰村53号湖南山公变之间","powerOffReason":"富阳320国道至富阳大桥连接线鹿山（大盘山）隧道电力迁改工程：短时停电配合交通D364线湖南山二分线负荷恢复 原停电结束时间为2020-04-25 16:25:00,因工作难度大原因,延迟送电,现变更停电结束时间为2020-04-25 16:55:00","powerOffId":"2020042031020125"},{"poweroffId":2020042031020122,"sgpoweroffId":null,"subsName":"","lineName":"10kV交通D364线","pubTranName":"富阳市丰登热镀锌有限公司,鹿山村小湖南山3号公变,秋丰村湖南山10号配电变压器,鹿山村5#小湖南山公变,鹿山村小湖南山4号公变,富阳工路段,鹿山村小湖南山1号公变,秋丰村11#湖南山2公变,秋丰村49号湖南山公变,上海宝冶集团有限公司1#变,富阳市救助管理站,杭州金竺机械有限公司,上海宝冶集团有限公司2#变,秋丰村57号湖南山公变,鹿山村小湖南山2号公变,","scope":"浙江省-杭州市-富阳区-富春街道-鹿山社区-大盘山路","startTime":"2020-04-25 16:05:00","stopDate":"2020-04-25 16:55:00","orgNo":"3340170","typeCode":"临时停电","poweroffArea":"110kV富鹿变:交通D364线-秋丰村57号湖南山公变开关后段;交通D364线-杭州市富阳区公路管理段后段;交通D364线-秋丰村49号湖南山公变后段;交通D364线-鹿山村小湖南山1号公变后段;交通D364线-鹿山村5#小湖南山公变后段;交通D364线-鹿山村小湖南山2号公变后段;交通D364线-富阳市丰登热镀锌有限公司后段;交通D364线-富阳市救助管理站后段;交通D364线-公路段线开关后段;交通D364线-杭州金竺机械有限公司后段;交通D364线-富阳工路段后段;交通D364线-秋丰村11#湖南山2公变后段;交通D364线-鹿山村小湖南山3号公变后段;交通D364线-秋丰村湖南山10号配电变压器后段;交通D364线-上海宝冶集团有限公司后段;交通D364线-鹿山村小湖南山4号公变后段","poweroffReason":"富阳320国道至富阳大桥连接线鹿山（大盘山）隧道电力迁改工程：短时停电配合交通D364线丰登分线负荷恢复 原停电结束时间为2020-04-25 16:25:00,因工作难度大原因,延迟送电,现变更停电结束时间为2020-04-25 16:55:00","powerTime":"2020-04-25 16:29:41","powerComm":"已送电","subsNo":"","lineNo":"","tgNo":"","tgName":null,"infoStatus":"1","orgName":"国网浙江杭州市富阳区供电公司","typeName":null,"infoStatusName":null,"dateDay":null,"orgNos":null,"nowTime":null,"countyName":null,"streetName":null,"villageName":null,"roadName":null,"communityName":null,"tranName":null,"sdLineName":null,"cityCode":"3340170","cityName":"国网浙江杭州市富阳区供电公司","provinceCode":null,"stopTime":"2020-04-25 16:55:00","powerType":"全部","powerOffArea":"110kV富鹿变:交通D364线-秋丰村57号湖南山公变开关后段;交通D364线-杭州市富阳区公路管理段后段;交通D364线-秋丰村49号湖南山公变后段;交通D364线-鹿山村小湖南山1号公变后段;交通D364线-鹿山村5#小湖南山公变后段;交通D364线-鹿山村小湖南山2号公变后段;交通D364线-富阳市丰登热镀锌有限公司后段;交通D364线-富阳市救助管理站后段;交通D364线-公路段线开关后段;交通D364线-杭州金竺机械有限公司后段;交通D364线-富阳工路段后段;交通D364线-秋丰村11#湖南山2公变后段;交通D364线-鹿山村小湖南山3号公变后段;交通D364线-秋丰村湖南山10号配电变压器后段;交通D364线-上海宝冶集团有限公司后段;交通D364线-鹿山村小湖南山4号公变后段","powerOffReason":"富阳320国道至富阳大桥连接线鹿山（大盘山）隧道电力迁改工程：短时停电配合交通D364线丰登分线负荷恢复 原停电结束时间为2020-04-25 16:25:00,因工作难度大原因,延迟送电,现变更停电结束时间为2020-04-25 16:55:00","powerOffId":"2020042031020122"},{"poweroffId":2020042031020118,"sgpoweroffId":null,"subsName":"","lineName":"10kV五星C163线","pubTranName":"罗幕村3#变,","scope":"浙江省-杭州市-萧山区-义桥镇-罗幕行政村-西址埠自然村等","startTime":"2020-04-20 10:38:00","stopDate":"2020-04-20 12:00:00","orgNo":"3340130","typeCode":"电网故障停限电","poweroffArea":"110kV许贤变:五星C163线罗幕村3#变低压开关","poweroffReason":"(低压停电信息)低压漏电保护器跳闸原停电结束时间为2020-04-2012:38:00,为减少客户停电时间,加快工作进度,提前送电,现变更停电结束时间为2020-04-2012:00:00","powerTime":"2020-04-20 11:28:55","powerComm":"已送电","subsNo":"","lineNo":"","tgNo":"","tgName":null,"infoStatus":"1","orgName":"国网浙江杭州市萧山区供电有限公司","typeName":null,"infoStatusName":null,"dateDay":null,"orgNos":null,"nowTime":null,"countyName":null,"streetName":null,"villageName":null,"roadName":null,"communityName":null,"tranName":null,"sdLineName":null,"cityCode":"3340130","cityName":"国网浙江杭州市萧山区供电有限公司","provinceCode":null,"stopTime":"2020-04-20 12:00:00","powerType":"全部","powerOffArea":"110kV许贤变:五星C163线罗幕村3#变低压开关","powerOffReason":"(低压停电信息)低压漏电保护器跳闸原停电结束时间为2020-04-2012:38:00,为减少客户停电时间,加快工作进度,提前送电,现变更停电结束时间为2020-04-2012:00:00","powerOffId":"2020042031020118"},{"poweroffId":2020042031020117,"sgpoweroffId":null,"subsName":"","lineName":"10kV交通D364线","pubTranName":"富阳市路灯安装维修管理所1#变,","scope":"浙江省-杭州市-富阳区-富春街道-秋丰行政村-杭州富阳城市照明工程有限公司","startTime":"2020-04-25 07:40:00","stopDate":"2020-04-25 16:30:00","orgNo":"3340170","typeCode":"临时停电","poweroffArea":"110kV富鹿变:交通D364线-富阳市路灯安装维修管理所后段","poweroffReason":"客户内部检修 原停电结束时间为2020-04-25 16:00:00,因工作难度大原因,延迟送电,现变更停电结束时间为2020-04-25 16:30:00","powerTime":"2020-04-25 16:08:58","powerComm":"已送电","subsNo":"","lineNo":"","tgNo":"","tgName":null,"infoStatus":"1","orgName":"国网浙江杭州市富阳区供电公司","typeName":null,"infoStatusName":null,"dateDay":null,"orgNos":null,"nowTime":null,"countyName":null,"streetName":null,"villageName":null,"roadName":null,"communityName":null,"tranName":null,"sdLineName":null,"cityCode":"3340170","cityName":"国网浙江杭州市富阳区供电公司","provinceCode":null,"stopTime":"2020-04-25 16:30:00","powerType":"全部","powerOffArea":"110kV富鹿变:交通D364线-富阳市路灯安装维修管理所后段","powerOffReason":"客户内部检修 原停电结束时间为2020-04-25 16:00:00,因工作难度大原因,延迟送电,现变更停电结束时间为2020-04-25 16:30:00","powerOffId":"2020042031020117"},{"poweroffId":2020042031020111,"sgpoweroffId":null,"subsName":"","lineName":"10kV交通D364线","pubTranName":"秋丰村9号秋湖小区公变,秋丰村庙山东区2号公变,","scope":"浙江省-杭州市-富阳区-富春街道-秋丰行政村-秋丰自然村","startTime":"2020-04-25 08:45:00","stopDate":"2020-04-25 16:30:00","orgNo":"3340170","typeCode":"临时停电","poweroffArea":"110kV富鹿变:交通D364线首端，秋丰村庙山东区2号公变，秋丰村9号秋湖小区公变之间","poweroffReason":"富阳320国道至富阳大桥连接线鹿山（大盘山）隧道电力迁改工程：10kV交通D364线31#杆至34+1#杆上改下等工作 原停电结束时间为2020-04-25 16:00:00,因工作难度大原因,延迟送电,现变更停电结束时间为2020-04-25 16:30:00","powerTime":"2020-04-25 16:08:35","powerComm":"已送电","subsNo":"","lineNo":"","tgNo":"","tgName":null,"infoStatus":"1","orgName":"国网浙江杭州市富阳区供电公司","typeName":null,"infoStatusName":null,"dateDay":null,"orgNos":null,"nowTime":null,"countyName":null,"streetName":null,"villageName":null,"roadName":null,"communityName":null,"tranName":null,"sdLineName":null,"cityCode":"3340170","cityName":"国网浙江杭州市富阳区供电公司","provinceCode":null,"stopTime":"2020-04-25 16:30:00","powerType":"全部","powerOffArea":"110kV富鹿变:交通D364线首端，秋丰村庙山东区2号公变，秋丰村9号秋湖小区公变之间","powerOffReason":"富阳320国道至富阳大桥连接线鹿山（大盘山）隧道电力迁改工程：10kV交通D364线31#杆至34+1#杆上改下等工作 原停电结束时间为2020-04-25 16:00:00,因工作难度大原因,延迟送电,现变更停电结束时间为2020-04-25 16:30:00","powerOffId":"2020042031020111"},{"poweroffId":2020042031020110,"sgpoweroffId":null,"subsName":"","lineName":"10kV交通D364线","pubTranName":"杭州富阳市金日科技有限公司,","scope":"浙江省-杭州市-富阳区-富春街道-秋丰行政村-杭州富阳金日科技有限公司","startTime":"2020-04-25 07:20:00","stopDate":"2020-04-25 16:30:00","orgNo":"3340170","typeCode":"临时停电","poweroffArea":"110kV富鹿变:交通D364线-杭州富阳市金日科技有限公司后段","poweroffReason":"客户迁改配合停电 原停电结束时间为2020-04-25 16:00:00,因工作难度大原因,延迟送电,现变更停电结束时间为2020-04-25 16:30:00","powerTime":"2020-04-25 16:08:17","powerComm":"已送电","subsNo":"","lineNo":"","tgNo":"","tgName":null,"infoStatus":"1","orgName":"国网浙江杭州市富阳区供电公司","typeName":null,"infoStatusName":null,"dateDay":null,"orgNos":null,"nowTime":null,"countyName":null,"streetName":null,"villageName":null,"roadName":null,"communityName":null,"tranName":null,"sdLineName":null,"cityCode":"3340170","cityName":"国网浙江杭州市富阳区供电公司","provinceCode":null,"stopTime":"2020-04-25 16:30:00","powerType":"全部","powerOffArea":"110kV富鹿变:交通D364线-杭州富阳市金日科技有限公司后段","powerOffReason":"客户迁改配合停电 原停电结束时间为2020-04-25 16:00:00,因工作难度大原因,延迟送电,现变更停电结束时间为2020-04-25 16:30:00","powerOffId":"2020042031020110"},{"poweroffId":2020042031020107,"sgpoweroffId":null,"subsName":"","lineName":"10kV交通D364线","pubTranName":"杭州市富阳区公路管理段,杭州富阳工贸资产经营投资集团有限公司2#变,富阳华策明坤汽车维修有限公司,富阳市汽车综合性能检测有限公司,杭州市富阳区公路管理段,富阳市公路运输配载中心,上海宝冶集团有限公司1#变,杭州富阳工贸资产经营投资集团有限公司1#变,浙江奔腾建设工程有限公司,","scope":"浙江省-杭州市-富阳区-富春街道-金桥社区(浙江奔腾市政园林建设工程有限公司,杭州富阳汽车综合性能检测有限公司,杭州市富阳区公路管理段,杭州高利森新能源科技有限公司,杭州市富阳区道路运输管理处)","startTime":"2020-04-25 08:10:00","stopDate":"2020-04-25 08:40:00","orgNo":"3340170","typeCode":"临时停电","poweroffArea":"110kV富鹿变:交通D364线-公路段线开关后段;交通D364线首端，富阳华策明坤汽车维修有限公司，富阳市汽车综合性能检测有限公司之间;交通D364线-上海宝冶集团有限公司1#变后段","poweroffReason":"富阳320国道至富阳大桥连接线鹿山（大盘山）隧道电力迁改工程：短时停电配合交通D364线花岗分线负荷转供至10千伏发电车","powerTime":"2020-04-25 08:28:37","powerComm":"已送电","subsNo":"","lineNo":"","tgNo":"","tgName":null,"infoStatus":"1","orgName":"国网浙江杭州市富阳区供电公司","typeName":null,"infoStatusName":null,"dateDay":null,"orgNos":null,"nowTime":null,"countyName":null,"streetName":null,"villageName":null,"roadName":null,"communityName":null,"tranName":null,"sdLineName":null,"cityCode":"3340170","cityName":"国网浙江杭州市富阳区供电公司","provinceCode":null,"stopTime":"2020-04-25 08:40:00","powerType":"全部","powerOffArea":"110kV富鹿变:交通D364线-公路段线开关后段;交通D364线首端，富阳华策明坤汽车维修有限公司，富阳市汽车综合性能检测有限公司之间;交通D364线-上海宝冶集团有限公司1#变后段","powerOffReason":"富阳320国道至富阳大桥连接线鹿山（大盘山）隧道电力迁改工程：短时停电配合交通D364线花岗分线负荷转供至10千伏发电车","powerOffId":"2020042031020107"},{"poweroffId":2020042031020106,"sgpoweroffId":null,"subsName":"","lineName":"10kV顿力G389线","pubTranName":"顺力建材（6120874780）1#变,中国电信股份有限公司杭州余杭区分公司,詹乔头排涝,中铁十一局集团有限公司612091747401#专变,","scope":"浙江省-杭州市-余杭区-仁和街道：中国电信股份有限公司杭州余杭区分公司、中铁十一局集团有限公司杭州顺力建材有限公司、詹乔头排涝","startTime":"2020-05-14 08:20:00","stopDate":"2020-05-14 15:40:00","orgNo":"3340140","typeCode":"计划停电","poweroffArea":"110kV东塘变:顿力G389线顿力G3893开关-顿力G389线62#杆拆头处","poweroffReason":"湖杭铁路塘栖供电所线路迁改工程：顿力G389线新立杆1基，新装真空开关1台，新放电缆至秧田开关站II段11#间隔，原60#杆后段线路拆除","powerTime":"2020-05-14 15:01:23","powerComm":"已送电","subsNo":"","lineNo":"","tgNo":"","tgName":null,"infoStatus":"1","orgName":"国网浙江杭州市余杭区供电有限公司","typeName":null,"infoStatusName":null,"dateDay":null,"orgNos":null,"nowTime":null,"countyName":null,"streetName":null,"villageName":null,"roadName":null,"communityName":null,"tranName":null,"sdLineName":null,"cityCode":"3340140","cityName":"国网浙江杭州市余杭区供电有限公司","provinceCode":null,"stopTime":"2020-05-14 15:40:00","powerType":"全部","powerOffArea":"110kV东塘变:顿力G389线顿力G3893开关-顿力G389线62#杆拆头处","powerOffReason":"湖杭铁路塘栖供电所线路迁改工程：顿力G389线新立杆1基，新装真空开关1台，新放电缆至秧田开关站II段11#间隔，原60#杆后段线路拆除","powerOffId":"2020042031020106"},{"poweroffId":2020042031020105,"sgpoweroffId":null,"subsName":"","lineName":"10kV紫荆H873线","pubTranName":"新泰村西坞岭公变,紫荆村车口小学公变,新泰村马岭脚公变,紫荆村车口畈公变,新泰村岑家弄2号公变,杭州市余杭区中泰中心幼儿园,吉树木业,丰硕物业,新泰村洪家公变,","scope":"浙江省-杭州市-余杭区-中泰街道：新泰村岑家弄、紫荆村洪家、丰硕物业厂、紫荆村车口畈、紫荆村车口畈幼儿园、紫荆村车口畈小学、吉树木业厂一带","startTime":"2020-04-29 08:40:00","stopDate":"2020-04-29 19:30:00","orgNo":"3340140","typeCode":"计划停电","poweroffArea":"110kV中泰变:紫荆H873线首端，紫荆H8735开关，紫荆H8736开关之间","poweroffReason":"计划工作 原停电结束时间为2020-04-29 17:30:00,因原路径改造工作量大原因,延迟送电,现变更停电结束时间为2020-04-29 19:30:00","powerTime":"2020-04-29 19:15:37","powerComm":"已送电","subsNo":"","lineNo":"","tgNo":"","tgName":null,"infoStatus":"1","orgName":"国网浙江杭州市余杭区供电有限公司","typeName":null,"infoStatusName":null,"dateDay":null,"orgNos":null,"nowTime":null,"countyName":null,"streetName":null,"villageName":null,"roadName":null,"communityName":null,"tranName":null,"sdLineName":null,"cityCode":"3340140","cityName":"国网浙江杭州市余杭区供电有限公司","provinceCode":null,"stopTime":"2020-04-29 19:30:00","powerType":"全部","powerOffArea":"110kV中泰变:紫荆H873线首端，紫荆H8735开关，紫荆H8736开关之间","powerOffReason":"计划工作 原停电结束时间为2020-04-29 17:30:00,因原路径改造工作量大原因,延迟送电,现变更停电结束时间为2020-04-29 19:30:00","powerOffId":"2020042031020105"}],"pageModel":{"pageNow":305,"totalCount":17788,"totalPage":1779,"tableRows":0,"pageCount":10,"beginCount":3040},"isExperi":"1"}