{"message":"","today":"2020-06-15","seleList":[{"poweroffId":2020042031020104,"sgpoweroffId":null,"subsName":"","lineName":"10kV世工H366线","pubTranName":"杜甫村章村塘公变,张家坝排涝机埠(良渚城建投资),良渚第一中学（6120028190）2#变,良渚第一中学（6120028190）1#变,","scope":"浙江省-杭州市-余杭区-良渚街道：良渚中学、章村塘、张家坝排涝机埠一带","startTime":"2020-04-29 08:40:00","stopDate":"2020-04-29 19:00:00","orgNo":"3340140","typeCode":"计划停电","poweroffArea":"110kV学里变:世工H366线-章家塘18#熔后段","poweroffReason":"世工H366线章村塘分线线路改造 原停电结束时间为2020-04-29 17:00:00,因施工力量不足原因,延迟送电,现变更停电结束时间为2020-04-29 19:00:00","powerTime":"2020-04-29 18:03:48","powerComm":"已送电","subsNo":"","lineNo":"","tgNo":"","tgName":null,"infoStatus":"1","orgName":"国网浙江杭州市余杭区供电有限公司","typeName":null,"infoStatusName":null,"dateDay":null,"orgNos":null,"nowTime":null,"countyName":null,"streetName":null,"villageName":null,"roadName":null,"communityName":null,"tranName":null,"sdLineName":null,"cityCode":"3340140","cityName":"国网浙江杭州市余杭区供电有限公司","provinceCode":null,"stopTime":"2020-04-29 19:00:00","powerType":"全部","powerOffArea":"110kV学里变:世工H366线-章家塘18#熔后段","powerOffReason":"世工H366线章村塘分线线路改造 原停电结束时间为2020-04-29 17:00:00,因施工力量不足原因,延迟送电,现变更停电结束时间为2020-04-29 19:00:00","powerOffId":"2020042031020104"},{"poweroffId":2020042031020103,"sgpoweroffId":null,"subsName":"","lineName":"10kV秧田G379线","pubTranName":"中铁十一局集团有限公司612091774801#专变,收费站2,","scope":"浙江省-杭州市-余杭区-仁和街道:中铁十一局集团有限公司、浙江杭宁高速公路有限责任公司","startTime":"2020-05-13 14:25:00","stopDate":"2020-05-13 17:40:00","orgNo":"3340140","typeCode":"计划停电","poweroffArea":"110kV东塘变:秧田G379线秧田分线","poweroffReason":"湖杭铁路塘栖供电所线路迁改工程：收费站分线2#杆新装真空开关1台，新放电缆至秧田开关站I段5#间隔","powerTime":"2020-05-13 17:38:41","powerComm":"已送电","subsNo":"","lineNo":"","tgNo":"","tgName":null,"infoStatus":"1","orgName":"国网浙江杭州市余杭区供电有限公司","typeName":null,"infoStatusName":null,"dateDay":null,"orgNos":null,"nowTime":null,"countyName":null,"streetName":null,"villageName":null,"roadName":null,"communityName":null,"tranName":null,"sdLineName":null,"cityCode":"3340140","cityName":"国网浙江杭州市余杭区供电有限公司","provinceCode":null,"stopTime":"2020-05-13 17:40:00","powerType":"全部","powerOffArea":"110kV东塘变:秧田G379线秧田分线","powerOffReason":"湖杭铁路塘栖供电所线路迁改工程：收费站分线2#杆新装真空开关1台，新放电缆至秧田开关站I段5#间隔","powerOffId":"2020042031020103"},{"poweroffId":2020042031020102,"sgpoweroffId":null,"subsName":"","lineName":"10kV金明G343线","pubTranName":"杭州市余杭区苕溪堤防河道管理所,","scope":"浙江省-杭州市-余杭区-良渚街道：上牵埠船闸一带","startTime":"2020-04-28 08:40:00","stopDate":"2020-04-28 17:40:00","orgNo":"3340140","typeCode":"计划停电","poweroffArea":"110kV洛山变:金明G343线-杆苕溪堤防管理所进线开关后段","poweroffReason":"上牵埠配水泵站预试工作","powerTime":"2020-04-28 16:40:29","powerComm":"已送电","subsNo":"","lineNo":"","tgNo":"","tgName":null,"infoStatus":"1","orgName":"国网浙江杭州市余杭区供电有限公司","typeName":null,"infoStatusName":null,"dateDay":null,"orgNos":null,"nowTime":null,"countyName":null,"streetName":null,"villageName":null,"roadName":null,"communityName":null,"tranName":null,"sdLineName":null,"cityCode":"3340140","cityName":"国网浙江杭州市余杭区供电有限公司","provinceCode":null,"stopTime":"2020-04-28 17:40:00","powerType":"全部","powerOffArea":"110kV洛山变:金明G343线-杆苕溪堤防管理所进线开关后段","powerOffReason":"上牵埠配水泵站预试工作","powerOffId":"2020042031020102"},{"poweroffId":2020042031020101,"sgpoweroffId":null,"subsName":"","lineName":"10kV安溪H404线","pubTranName":"安溪村罗村公变,","scope":"浙江省-杭州市-余杭区-良渚街道：安溪村罗村一带","startTime":"2020-04-28 08:40:00","stopDate":"2020-04-28 17:00:00","orgNo":"3340140","typeCode":"计划停电","poweroffArea":"35kV良渚变:安溪H404线-安溪H404线罗村分线开关后段","poweroffReason":"安溪H404线罗村分线线路改造","powerTime":"2020-04-28 16:01:08","powerComm":"已送电","subsNo":"","lineNo":"","tgNo":"","tgName":null,"infoStatus":"1","orgName":"国网浙江杭州市余杭区供电有限公司","typeName":null,"infoStatusName":null,"dateDay":null,"orgNos":null,"nowTime":null,"countyName":null,"streetName":null,"villageName":null,"roadName":null,"communityName":null,"tranName":null,"sdLineName":null,"cityCode":"3340140","cityName":"国网浙江杭州市余杭区供电有限公司","provinceCode":null,"stopTime":"2020-04-28 17:00:00","powerType":"全部","powerOffArea":"35kV良渚变:安溪H404线-安溪H404线罗村分线开关后段","powerOffReason":"安溪H404线罗村分线线路改造","powerOffId":"2020042031020101"},{"poweroffId":2020042031020100,"sgpoweroffId":null,"subsName":"","lineName":"10kV安溪H404线","pubTranName":"安溪村排涝,安溪村俞家头公变,安溪村梅家涧公变,","scope":"浙江省-杭州市-余杭区-良渚街道：安溪村俞家头、安溪村梅家涧、梅家涧排涝机埠一带","startTime":"2020-04-28 08:40:00","stopDate":"2020-04-28 17:00:00","orgNo":"3340140","typeCode":"计划停电","poweroffArea":"35kV良渚变:安溪H404线-安溪H404线安溪村排涝分线开关后段","poweroffReason":"安溪H404线安溪排涝分线线路改造","powerTime":"2020-04-28 16:00:34","powerComm":"已送电","subsNo":"","lineNo":"","tgNo":"","tgName":null,"infoStatus":"1","orgName":"国网浙江杭州市余杭区供电有限公司","typeName":null,"infoStatusName":null,"dateDay":null,"orgNos":null,"nowTime":null,"countyName":null,"streetName":null,"villageName":null,"roadName":null,"communityName":null,"tranName":null,"sdLineName":null,"cityCode":"3340140","cityName":"国网浙江杭州市余杭区供电有限公司","provinceCode":null,"stopTime":"2020-04-28 17:00:00","powerType":"全部","powerOffArea":"35kV良渚变:安溪H404线-安溪H404线安溪村排涝分线开关后段","powerOffReason":"安溪H404线安溪排涝分线线路改造","powerOffId":"2020042031020100"},{"poweroffId":2020042031020099,"sgpoweroffId":null,"subsName":"","lineName":"10kV胡桥G945线","pubTranName":"浙江天勤建设有限公司,浙江天勤建设有限公司,杭州禾丰奥蜜尔家私有限公司,杭州斌科标准件有限公司1#变,浙江双子智能装备有限公司,杭州斌科标准件有限公司2#变,","scope":"浙江省-杭州市-余杭区-东湖街道：斌科机械、双子机械、天勤建设、杭州禾丰奥蜜儿家私有限公司新天路基建一带","startTime":"2020-04-28 10:00:00","stopDate":"2020-04-28 12:00:00","orgNo":"3340140","typeCode":"计划停电","poweroffArea":"110kV亭趾变:胡桥G945线-斌科机械基建变分线开关后段","poweroffReason":"配合胡桥G945线6号杆分线上桩引线拆头、新丝G928线6号杆分线上桩引线搭接工作 原停电结束时间为2020-04-28 13:00:00,为减少客户停电时间,加快工作进度,提前送电,现变更停电结束时间为2020-04-28 12:00:00","powerTime":"2020-04-28 11:15:36","powerComm":"已送电","subsNo":"","lineNo":"","tgNo":"","tgName":null,"infoStatus":"1","orgName":"国网浙江杭州市余杭区供电有限公司","typeName":null,"infoStatusName":null,"dateDay":null,"orgNos":null,"nowTime":null,"countyName":null,"streetName":null,"villageName":null,"roadName":null,"communityName":null,"tranName":null,"sdLineName":null,"cityCode":"3340140","cityName":"国网浙江杭州市余杭区供电有限公司","provinceCode":null,"stopTime":"2020-04-28 12:00:00","powerType":"全部","powerOffArea":"110kV亭趾变:胡桥G945线-斌科机械基建变分线开关后段","powerOffReason":"配合胡桥G945线6号杆分线上桩引线拆头、新丝G928线6号杆分线上桩引线搭接工作 原停电结束时间为2020-04-28 13:00:00,为减少客户停电时间,加快工作进度,提前送电,现变更停电结束时间为2020-04-28 12:00:00","powerOffId":"2020042031020099"},{"poweroffId":2020042031020097,"sgpoweroffId":null,"subsName":"","lineName":"10kV交通D364线","pubTranName":"秋丰村26#湖南山2公变,秋丰村53号湖南山公变,","scope":"浙江省-杭州市-富阳区-富春街道-秋丰行政村-秋丰自然村","startTime":"2020-04-25 08:20:00","stopDate":"2020-04-25 08:40:00","orgNo":"3340170","typeCode":"临时停电","poweroffArea":"110kV富鹿变:交通D364线首端，秋丰村26#湖南山2公变，秋丰村53号湖南山公变之间","poweroffReason":"富阳320国道至富阳大桥连接线鹿山（大盘山）隧道电力迁改工程：短时停电配合交通D364线湖南山二分线负荷转供至10千伏发电车","powerTime":"2020-04-25 08:28:27","powerComm":"已送电","subsNo":"","lineNo":"","tgNo":"","tgName":null,"infoStatus":"1","orgName":"国网浙江杭州市富阳区供电公司","typeName":null,"infoStatusName":null,"dateDay":null,"orgNos":null,"nowTime":null,"countyName":null,"streetName":null,"villageName":null,"roadName":null,"communityName":null,"tranName":null,"sdLineName":null,"cityCode":"3340170","cityName":"国网浙江杭州市富阳区供电公司","provinceCode":null,"stopTime":"2020-04-25 08:40:00","powerType":"全部","powerOffArea":"110kV富鹿变:交通D364线首端，秋丰村26#湖南山2公变，秋丰村53号湖南山公变之间","powerOffReason":"富阳320国道至富阳大桥连接线鹿山（大盘山）隧道电力迁改工程：短时停电配合交通D364线湖南山二分线负荷转供至10千伏发电车","powerOffId":"2020042031020097"},{"poweroffId":2020042031020094,"sgpoweroffId":null,"subsName":"","lineName":"10kV交通D364线","pubTranName":"秋丰村3号秋丰公变,","scope":"浙江省-杭州市-富阳区-富春街道-金桥社区-横凉亭路,秋丰行政村(横凉亭路,秋丰自然村)","startTime":"2020-04-25 08:00:00","stopDate":"2020-04-25 10:40:00","orgNo":"3340170","typeCode":"临时停电","poweroffArea":"110kV富鹿变:交通D364线-秋丰村3号秋丰公变后段","poweroffReason":"富阳320国道至富阳大桥连接线鹿山（大盘山）隧道电力迁改工程：秋丰村3#秋丰公变变压器出线电缆改接至发电机T接箱 原停电结束时间为2020-04-25 08:40:00,因工作难度大原因,延迟送电,现变更停电结束时间为2020-04-25 10:40:00","powerTime":"2020-04-25 09:43:14","powerComm":"已送电","subsNo":"","lineNo":"","tgNo":"","tgName":null,"infoStatus":"1","orgName":"国网浙江杭州市富阳区供电公司","typeName":null,"infoStatusName":null,"dateDay":null,"orgNos":null,"nowTime":null,"countyName":null,"streetName":null,"villageName":null,"roadName":null,"communityName":null,"tranName":null,"sdLineName":null,"cityCode":"3340170","cityName":"国网浙江杭州市富阳区供电公司","provinceCode":null,"stopTime":"2020-04-25 10:40:00","powerType":"全部","powerOffArea":"110kV富鹿变:交通D364线-秋丰村3号秋丰公变后段","powerOffReason":"富阳320国道至富阳大桥连接线鹿山（大盘山）隧道电力迁改工程：秋丰村3#秋丰公变变压器出线电缆改接至发电机T接箱 原停电结束时间为2020-04-25 08:40:00,因工作难度大原因,延迟送电,现变更停电结束时间为2020-04-25 10:40:00","powerOffId":"2020042031020094"},{"poweroffId":2020042031020093,"sgpoweroffId":null,"subsName":"","lineName":"10kV星火G754线","pubTranName":"禾丰港闸站,禾丰港泵站,","scope":"浙江省-杭州市-余杭区-东湖街道-杭州市余杭区河道建设管理中心","startTime":"2020-04-20 10:22:00","stopDate":"2020-04-20 13:00:00","orgNo":"3340140","typeCode":"电网故障停限电","poweroffArea":"110kV金家变:星火G754线禾丰港闸站分线开关后段","poweroffReason":"高压开关跳闸原停电结束时间为2020-04-2012:22:00,因施工难度大,延迟送电,现变更停电结束时间为2020-04-2013:00:00","powerTime":"2020-04-20 12:46:58","powerComm":"已送电","subsNo":"","lineNo":"","tgNo":"","tgName":null,"infoStatus":"1","orgName":"国网浙江杭州市余杭区供电有限公司","typeName":null,"infoStatusName":null,"dateDay":null,"orgNos":null,"nowTime":null,"countyName":null,"streetName":null,"villageName":null,"roadName":null,"communityName":null,"tranName":null,"sdLineName":null,"cityCode":"3340140","cityName":"国网浙江杭州市余杭区供电有限公司","provinceCode":null,"stopTime":"2020-04-20 13:00:00","powerType":"全部","powerOffArea":"110kV金家变:星火G754线禾丰港闸站分线开关后段","powerOffReason":"高压开关跳闸原停电结束时间为2020-04-2012:22:00,因施工难度大,延迟送电,现变更停电结束时间为2020-04-2013:00:00","powerOffId":"2020042031020093"},{"poweroffId":2020042031020092,"sgpoweroffId":null,"subsName":"","lineName":"10kV交通D364线","pubTranName":"秋丰村湖南山10号配电变压器,鹿山村小湖南山4号公变,鹿山村小湖南山1号公变,上海宝冶集团有限公司1#变,鹿山村小湖南山2号公变,鹿山村小湖南山3号公变,富阳市丰登热镀锌有限公司,秋丰村49号湖南山公变,杭州金竺机械有限公司,富阳市救助管理站,秋丰村11#湖南山2公变,鹿山村5#小湖南山公变,秋丰村57号湖南山公变,富阳工路段,","scope":"浙江省-杭州市-富阳区-富春街道-秋丰行政村-秋丰自然村","startTime":"2020-04-25 08:00:00","stopDate":"2020-04-25 08:40:00","orgNo":"3340170","typeCode":"临时停电","poweroffArea":"110kV富鹿变:交通D364线-秋丰村11#湖南山2公变后段;交通D364线-杭州金竺机械有限公司后段;交通D364线-富阳市丰登热镀锌有限公司后段;交通D364线-上海宝冶集团有限公司后段;交通D364线-救助站支线后段;交通D364线-公路段支线后段;交通D364线-秋丰村57号湖南山公变开关后段;交通D364线-秋丰村49号湖南山公变后段;交通D364线-秋丰村湖南山10号公变负荷开关后段;交通D364线-鹿山村小湖南山2号公变后段;交通D364线-鹿山村小湖南山4号公变熔断器后段;交通D364线-鹿山村小湖南山3号公变熔断器后段;交通D364线-鹿山村小湖南山1号公变后段;交通D364线-鹿山村5#小湖南山公变后段","poweroffReason":"富阳320国道至富阳大桥连接线鹿山（大盘山）隧道电力迁改工程：短时停电配合交通D364线丰登分线负荷转供至10千伏发电车","powerTime":"2020-04-25 08:28:15","powerComm":"已送电","subsNo":"","lineNo":"","tgNo":"","tgName":null,"infoStatus":"1","orgName":"国网浙江杭州市富阳区供电公司","typeName":null,"infoStatusName":null,"dateDay":null,"orgNos":null,"nowTime":null,"countyName":null,"streetName":null,"villageName":null,"roadName":null,"communityName":null,"tranName":null,"sdLineName":null,"cityCode":"3340170","cityName":"国网浙江杭州市富阳区供电公司","provinceCode":null,"stopTime":"2020-04-25 08:40:00","powerType":"全部","powerOffArea":"110kV富鹿变:交通D364线-秋丰村11#湖南山2公变后段;交通D364线-杭州金竺机械有限公司后段;交通D364线-富阳市丰登热镀锌有限公司后段;交通D364线-上海宝冶集团有限公司后段;交通D364线-救助站支线后段;交通D364线-公路段支线后段;交通D364线-秋丰村57号湖南山公变开关后段;交通D364线-秋丰村49号湖南山公变后段;交通D364线-秋丰村湖南山10号公变负荷开关后段;交通D364线-鹿山村小湖南山2号公变后段;交通D364线-鹿山村小湖南山4号公变熔断器后段;交通D364线-鹿山村小湖南山3号公变熔断器后段;交通D364线-鹿山村小湖南山1号公变后段;交通D364线-鹿山村5#小湖南山公变后段","powerOffReason":"富阳320国道至富阳大桥连接线鹿山（大盘山）隧道电力迁改工程：短时停电配合交通D364线丰登分线负荷转供至10千伏发电车","powerOffId":"2020042031020092"}],"pageModel":{"pageNow":306,"totalCount":17788,"totalPage":1779,"tableRows":0,"pageCount":10,"beginCount":3050},"isExperi":"1"}