{"message":"","today":"2020-06-15","seleList":[{"poweroffId":2020042031020084,"sgpoweroffId":null,"subsName":"","lineName":"10kV彩虹D550线","pubTranName":"戴家墩2#公变,","scope":"浙江省-杭州市-富阳区-富春街道-春晖社区-孙权路,后亭子社区(孙权路,孙权路一弄)一带","startTime":"2020-04-22 08:30:00","stopDate":"2020-04-22 17:00:00","orgNo":"3340170","typeCode":"临时停电","poweroffArea":"110kV春江变:彩虹D550线-戴家墩2#公变后段","poweroffReason":"(低压停电信息)青云2019年南园路1#公变等10kV配变增容布点工程：0.4kV戴家墩2#公变01线低压线路改接至400kVa柱上变等工作","powerTime":"2020-04-22 16:46:11","powerComm":"已送电","subsNo":"","lineNo":"","tgNo":"","tgName":null,"infoStatus":"1","orgName":"国网浙江杭州市富阳区供电公司","typeName":null,"infoStatusName":null,"dateDay":null,"orgNos":null,"nowTime":null,"countyName":null,"streetName":null,"villageName":null,"roadName":null,"communityName":null,"tranName":null,"sdLineName":null,"cityCode":"3340170","cityName":"国网浙江杭州市富阳区供电公司","provinceCode":null,"stopTime":"2020-04-22 17:00:00","powerType":"全部","powerOffArea":"110kV春江变:彩虹D550线-戴家墩2#公变后段","powerOffReason":"(低压停电信息)青云2019年南园路1#公变等10kV配变增容布点工程：0.4kV戴家墩2#公变01线低压线路改接至400kVa柱上变等工作","powerOffId":"2020042031020084"},{"poweroffId":2020042031020083,"sgpoweroffId":null,"subsName":"","lineName":"10kV临一C640线","pubTranName":"谭家埭5#变,","scope":"浙江省-杭州市-萧山区-临浦镇-谭家埭社区-谭家埭自然村","startTime":"2020-04-27 08:30:00","stopDate":"2020-04-27 15:30:00","orgNo":"3340130","typeCode":"临时停电","poweroffArea":"110kV临浦变:临一C640线-谭家埭5#变后段","poweroffReason":"谭家埭5#变下250kVA1台上400kA1台，割接等工作","powerTime":"2020-04-27 14:44:29","powerComm":"已送电","subsNo":"","lineNo":"","tgNo":"","tgName":null,"infoStatus":"1","orgName":"国网浙江杭州市萧山区供电有限公司","typeName":null,"infoStatusName":null,"dateDay":null,"orgNos":null,"nowTime":null,"countyName":null,"streetName":null,"villageName":null,"roadName":null,"communityName":null,"tranName":null,"sdLineName":null,"cityCode":"3340130","cityName":"国网浙江杭州市萧山区供电有限公司","provinceCode":null,"stopTime":"2020-04-27 15:30:00","powerType":"全部","powerOffArea":"110kV临浦变:临一C640线-谭家埭5#变后段","powerOffReason":"谭家埭5#变下250kVA1台上400kA1台，割接等工作","powerOffId":"2020042031020083"},{"poweroffId":2020042031020078,"sgpoweroffId":null,"subsName":"","lineName":"10kV德圣A464线","pubTranName":"党湾供电营业所9#变,","scope":"浙江省-杭州市-萧山区-党湾镇-德北行政村-德北自然村等","startTime":"2020-04-20 09:50:11","stopDate":"2020-04-20 11:45:11","orgNo":"3340130","typeCode":"电网故障停限电","poweroffArea":"110kV幸福变:德圣A464线-党湾供电营业所9#变后段","poweroffReason":"(低压停电信息)低压熔断器消缺原停电结束时间为2020-04-2012:06:11,为减少客户停电时间,加快工作进度,提前送电,现变更停电结束时间为2020-04-2011:45:11","powerTime":"2020-04-20 10:55:43","powerComm":"已送电","subsNo":"","lineNo":"","tgNo":"","tgName":null,"infoStatus":"1","orgName":"国网浙江杭州市萧山区供电有限公司","typeName":null,"infoStatusName":null,"dateDay":null,"orgNos":null,"nowTime":null,"countyName":null,"streetName":null,"villageName":null,"roadName":null,"communityName":null,"tranName":null,"sdLineName":null,"cityCode":"3340130","cityName":"国网浙江杭州市萧山区供电有限公司","provinceCode":null,"stopTime":"2020-04-20 11:45:11","powerType":"全部","powerOffArea":"110kV幸福变:德圣A464线-党湾供电营业所9#变后段","powerOffReason":"(低压停电信息)低压熔断器消缺原停电结束时间为2020-04-2012:06:11,为减少客户停电时间,加快工作进度,提前送电,现变更停电结束时间为2020-04-2011:45:11","powerOffId":"2020042031020078"},{"poweroffId":2020042031020073,"sgpoweroffId":null,"subsName":"","lineName":"10kV星火G754线","pubTranName":"久久国际4号配变,久久国际3号配变,久久国际2号配变,久久国际1号配变,","scope":"浙江省-杭州市-余杭区-东湖街道-海珀社区-荷禹路","startTime":"2020-04-20 09:59:00","stopDate":"2020-04-20 11:59:00","orgNo":"3340140","typeCode":"电网故障停限电","poweroffArea":"110kV金家变:星火G754线星玖城1号双投站星玖城1号双投站1#负荷开关配变","poweroffReason":"高压开关跳闸","powerTime":"2020-04-20 11:09:00","powerComm":"已送电","subsNo":"","lineNo":"","tgNo":"","tgName":null,"infoStatus":"1","orgName":"国网浙江杭州市余杭区供电有限公司","typeName":null,"infoStatusName":null,"dateDay":null,"orgNos":null,"nowTime":null,"countyName":null,"streetName":null,"villageName":null,"roadName":null,"communityName":null,"tranName":null,"sdLineName":null,"cityCode":"3340140","cityName":"国网浙江杭州市余杭区供电有限公司","provinceCode":null,"stopTime":"2020-04-20 11:59:00","powerType":"全部","powerOffArea":"110kV金家变:星火G754线星玖城1号双投站星玖城1号双投站1#负荷开关配变","powerOffReason":"高压开关跳闸","powerOffId":"2020042031020073"},{"poweroffId":2020042031020072,"sgpoweroffId":null,"subsName":"","lineName":"10kV星火G754线","pubTranName":"星火村新区2#变,","scope":"浙江省-杭州市-余杭区(东湖街道-蓝庭社区-东湖振兴西路,临平街道-星火行政村-星光街)","startTime":"2020-04-20 09:59:00","stopDate":"2020-04-20 11:59:00","orgNo":"3340140","typeCode":"电网故障停限电","poweroffArea":"110kV金家变:星火G754线星火新区2＃配变","poweroffReason":"高压开关跳闸","powerTime":"2020-04-20 11:09:00","powerComm":"已送电","subsNo":"","lineNo":"","tgNo":"","tgName":null,"infoStatus":"1","orgName":"国网浙江杭州市余杭区供电有限公司","typeName":null,"infoStatusName":null,"dateDay":null,"orgNos":null,"nowTime":null,"countyName":null,"streetName":null,"villageName":null,"roadName":null,"communityName":null,"tranName":null,"sdLineName":null,"cityCode":"3340140","cityName":"国网浙江杭州市余杭区供电有限公司","provinceCode":null,"stopTime":"2020-04-20 11:59:00","powerType":"全部","powerOffArea":"110kV金家变:星火G754线星火新区2＃配变","powerOffReason":"高压开关跳闸","powerOffId":"2020042031020072"},{"poweroffId":2020042031020071,"sgpoweroffId":null,"subsName":"","lineName":"10kV风行G761线","pubTranName":"欣苑14号公变,2#,理想湾1号公变,理想湾3号公变,东厦东港1#公变,理想湾2号公变,1#,元茂欣苑6号公变,2#,欣苑11号公变,理想湾4号公变,欣苑12号公变,东厦东港2#公变,理想湾14号公变,理想湾11号公变,欣苑13号公变,理想湾34号公变,东厦东港15#公变,理想湾33号公变,元茂欣苑5号公变,2#,理想湾12号公变,理想湾13号公变,","scope":"浙江省-杭州市-余杭区-东湖街道-茅山社区-北沙西路,东湖街道-万陈社区(顺风路,新洲路),临平街道(茅山社区-北沙西路,小林社区-新洲路,万陈社区-新洲路);东湖街道-绿城物业服务集团有限公司杭州第六分公司,临平街道-浙江赞誉物业管理有限公司余杭分公司,塘栖镇-浙江赞誉物业管理有限公司余杭分公司","startTime":"2020-04-20 10:00:00","stopDate":"2020-04-20 10:49:00","orgNo":"3340140","typeCode":"电网故障停限电","poweroffArea":"110kV金家变:风行G761线东厦开关站东厦开关站孚厦G7611线后段","poweroffReason":"高压开关跳闸","powerTime":"2020-04-20 10:06:00","powerComm":"已送电","subsNo":"","lineNo":"","tgNo":"","tgName":null,"infoStatus":"1","orgName":"国网浙江杭州市余杭区供电有限公司","typeName":null,"infoStatusName":null,"dateDay":null,"orgNos":null,"nowTime":null,"countyName":null,"streetName":null,"villageName":null,"roadName":null,"communityName":null,"tranName":null,"sdLineName":null,"cityCode":"3340140","cityName":"国网浙江杭州市余杭区供电有限公司","provinceCode":null,"stopTime":"2020-04-20 10:49:00","powerType":"全部","powerOffArea":"110kV金家变:风行G761线东厦开关站东厦开关站孚厦G7611线后段","powerOffReason":"高压开关跳闸","powerOffId":"2020042031020071"},{"poweroffId":2020042031020069,"sgpoweroffId":null,"subsName":"","lineName":"10kV新坝A186线","pubTranName":"新坝村4#变,","scope":"浙江省-杭州市-萧山区-义桥镇-新坝行政村(上埠自然村,下埠自然村,联新自然村)","startTime":"2020-04-27 08:30:00","stopDate":"2020-04-27 16:00:00","orgNo":"3340130","typeCode":"临时停电","poweroffArea":"110kV群建变:新坝A186线-新坝村4#变后段","poweroffReason":"(低压停电信息)新坝村4#变放线，出电缆，线路搭接。","powerTime":"2020-04-27 15:26:04","powerComm":"已送电","subsNo":"","lineNo":"","tgNo":"","tgName":null,"infoStatus":"1","orgName":"国网浙江杭州市萧山区供电有限公司","typeName":null,"infoStatusName":null,"dateDay":null,"orgNos":null,"nowTime":null,"countyName":null,"streetName":null,"villageName":null,"roadName":null,"communityName":null,"tranName":null,"sdLineName":null,"cityCode":"3340130","cityName":"国网浙江杭州市萧山区供电有限公司","provinceCode":null,"stopTime":"2020-04-27 16:00:00","powerType":"全部","powerOffArea":"110kV群建变:新坝A186线-新坝村4#变后段","powerOffReason":"(低压停电信息)新坝村4#变放线，出电缆，线路搭接。","powerOffId":"2020042031020069"},{"poweroffId":2020042031020068,"sgpoweroffId":null,"subsName":"","lineName":"10kV久峰C955线","pubTranName":"河杨湖1#变,","scope":"浙江省-杭州市-萧山区-戴村镇-河杨湖行政村-河上桥自然村","startTime":"2020-04-25 07:30:00","stopDate":"2020-04-25 12:30:00","orgNo":"3340130","typeCode":"临时停电","poweroffArea":"110kV永兴变:久峰C955线-河杨湖1#变后段","poweroffReason":"(低压停电信息)河杨湖1#变更换接户线，拆装利旧照明表箱61只，动力表箱8只，线路搭接，拆旧低压电缆。 原停电结束时间为2020-04-25 17:30:00,为减少客户停电时间,加快工作进度,提前送电,现变更停电结束时间为2020-04-25 12:30:00","powerTime":"2020-04-25 11:42:58","powerComm":"已送电","subsNo":"","lineNo":"","tgNo":"","tgName":null,"infoStatus":"1","orgName":"国网浙江杭州市萧山区供电有限公司","typeName":null,"infoStatusName":null,"dateDay":null,"orgNos":null,"nowTime":null,"countyName":null,"streetName":null,"villageName":null,"roadName":null,"communityName":null,"tranName":null,"sdLineName":null,"cityCode":"3340130","cityName":"国网浙江杭州市萧山区供电有限公司","provinceCode":null,"stopTime":"2020-04-25 12:30:00","powerType":"全部","powerOffArea":"110kV永兴变:久峰C955线-河杨湖1#变后段","powerOffReason":"(低压停电信息)河杨湖1#变更换接户线，拆装利旧照明表箱61只，动力表箱8只，线路搭接，拆旧低压电缆。 原停电结束时间为2020-04-25 17:30:00,为减少客户停电时间,加快工作进度,提前送电,现变更停电结束时间为2020-04-25 12:30:00","powerOffId":"2020042031020068"},{"poweroffId":2020042031020067,"sgpoweroffId":null,"subsName":"","lineName":"10kV新坝A186线","pubTranName":"新坝村10#变,","scope":"浙江省-杭州市-萧山区-义桥镇-新坝行政村(方家里自然村,下埠自然村,联新自然村)","startTime":"2020-04-24 08:30:00","stopDate":"2020-04-24 15:00:00","orgNo":"3340130","typeCode":"临时停电","poweroffArea":"110kV群建变:新坝A186线-新坝村10#变后段","poweroffReason":"新坝村10#变放线，出电缆，线路搭接。 原停电结束时间为2020-04-24 16:30:00,为减少客户停电时间,加快工作进度,提前送电,现变更停电结束时间为2020-04-24 15:00:00","powerTime":"2020-04-24 14:13:26","powerComm":"已送电","subsNo":"","lineNo":"","tgNo":"","tgName":null,"infoStatus":"1","orgName":"国网浙江杭州市萧山区供电有限公司","typeName":null,"infoStatusName":null,"dateDay":null,"orgNos":null,"nowTime":null,"countyName":null,"streetName":null,"villageName":null,"roadName":null,"communityName":null,"tranName":null,"sdLineName":null,"cityCode":"3340130","cityName":"国网浙江杭州市萧山区供电有限公司","provinceCode":null,"stopTime":"2020-04-24 15:00:00","powerType":"全部","powerOffArea":"110kV群建变:新坝A186线-新坝村10#变后段","powerOffReason":"新坝村10#变放线，出电缆，线路搭接。 原停电结束时间为2020-04-24 16:30:00,为减少客户停电时间,加快工作进度,提前送电,现变更停电结束时间为2020-04-24 15:00:00","powerOffId":"2020042031020067"},{"poweroffId":2020042031020066,"sgpoweroffId":null,"subsName":"","lineName":"10kV永富C980线","pubTranName":"永富村7#变,","scope":"浙江省-杭州市-萧山区-戴村镇-永富行政村(姚家山下自然村,积堰山自然村,建民自然村)","startTime":"2020-04-23 07:30:00","stopDate":"2020-04-23 18:00:00","orgNo":"3340130","typeCode":"临时停电","poweroffArea":"110kV永兴变:永富C980线-永富村7#变后段","poweroffReason":"(低压停电信息)永富村7#变立杆，更换导线，更换接户线，表箱拆装利旧，线路搭接，拆旧，更换低压出线电缆。 原停电结束时间为2020-04-23 17:30:00,因施工难度大原因,延迟送电,现变更停电结束时间为2020-04-23 18:00:00","powerTime":"2020-04-23 17:30:55","powerComm":"已送电","subsNo":"","lineNo":"","tgNo":"","tgName":null,"infoStatus":"1","orgName":"国网浙江杭州市萧山区供电有限公司","typeName":null,"infoStatusName":null,"dateDay":null,"orgNos":null,"nowTime":null,"countyName":null,"streetName":null,"villageName":null,"roadName":null,"communityName":null,"tranName":null,"sdLineName":null,"cityCode":"3340130","cityName":"国网浙江杭州市萧山区供电有限公司","provinceCode":null,"stopTime":"2020-04-23 18:00:00","powerType":"全部","powerOffArea":"110kV永兴变:永富C980线-永富村7#变后段","powerOffReason":"(低压停电信息)永富村7#变立杆，更换导线，更换接户线，表箱拆装利旧，线路搭接，拆旧，更换低压出线电缆。 原停电结束时间为2020-04-23 17:30:00,因施工难度大原因,延迟送电,现变更停电结束时间为2020-04-23 18:00:00","powerOffId":"2020042031020066"}],"pageModel":{"pageNow":307,"totalCount":17788,"totalPage":1779,"tableRows":0,"pageCount":10,"beginCount":3060},"isExperi":"1"}