{"message":"","today":"2020-06-15","seleList":[{"poweroffId":2020041931020131,"sgpoweroffId":null,"subsName":"","lineName":"10kV陈园C841线","pubTranName":"陈家园村12#变,","scope":"浙江省-杭州市-萧山区-新街镇-新街街道-陈家园行政村-陈家园自然村、浙江省杭州市萧山区新街街道陈家园行政村陈家园自然村5组275号等一带","startTime":"2020-04-19 11:11:19","stopDate":"2020-04-19 13:24:19","orgNo":"3340130","typeCode":"电网故障停限电","poweroffArea":"110kV罗山变:陈园C841线-陈家园村12#变台区低压开关","poweroffReason":"(低压停电信息)低压漏电保护器短路故障原停电结束时间为2020-04-1913:43:19,为减少客户停电时间,加快工作进度,提前送电,现变更停电结束时间为2020-04-1913:24:19","powerTime":"2020-04-19 12:34:42","powerComm":"已送电","subsNo":"","lineNo":"","tgNo":"","tgName":null,"infoStatus":"1","orgName":"国网浙江杭州市萧山区供电有限公司","typeName":null,"infoStatusName":null,"dateDay":null,"orgNos":null,"nowTime":null,"countyName":null,"streetName":null,"villageName":null,"roadName":null,"communityName":null,"tranName":null,"sdLineName":null,"cityCode":"3340130","cityName":"国网浙江杭州市萧山区供电有限公司","provinceCode":null,"stopTime":"2020-04-19 13:24:19","powerType":"全部","powerOffArea":"110kV罗山变:陈园C841线-陈家园村12#变台区低压开关","powerOffReason":"(低压停电信息)低压漏电保护器短路故障原停电结束时间为2020-04-1913:43:19,为减少客户停电时间,加快工作进度,提前送电,现变更停电结束时间为2020-04-1913:24:19","powerOffId":"2020041931020131"},{"poweroffId":2020041931020130,"sgpoweroffId":null,"subsName":"","lineName":"10kV安置A698线","pubTranName":"任家娄公变,","scope":"浙江省-杭州市-萧山区-瓜沥镇-芭蕉砚社区(剧院弄,塘头街,中街,环保弄,人民路34号,任家楼路,明朗路,於家楼路,任家路,任家娄路,航坞路,人民路,西街,人民路9号),瓜沥镇(明朗行政村-人民路,城中社区-红友桥路,航坞社区-航坞路、老粮管所、瓜沥镇芭蕉砚社区人民路16号西街综合楼B座等","startTime":"2020-04-19 11:55:12","stopDate":"2020-04-19 14:40:12","orgNo":"3340130","typeCode":"电网故障停限电","poweroffArea":"110kV白川变:安置A698线-任家娄公变后段","poweroffReason":"(低压停电信息)低压漏电保护器跳闸原停电结束时间为2020-04-1916:30:12,为减少客户停电时间,加快工作进度,提前送电,现变更停电结束时间为2020-04-1914:40:12","powerTime":"2020-04-19 14:02:20","powerComm":"已送电","subsNo":"","lineNo":"","tgNo":"","tgName":null,"infoStatus":"1","orgName":"国网浙江杭州市萧山区供电有限公司","typeName":null,"infoStatusName":null,"dateDay":null,"orgNos":null,"nowTime":null,"countyName":null,"streetName":null,"villageName":null,"roadName":null,"communityName":null,"tranName":null,"sdLineName":null,"cityCode":"3340130","cityName":"国网浙江杭州市萧山区供电有限公司","provinceCode":null,"stopTime":"2020-04-19 14:40:12","powerType":"全部","powerOffArea":"110kV白川变:安置A698线-任家娄公变后段","powerOffReason":"(低压停电信息)低压漏电保护器跳闸原停电结束时间为2020-04-1916:30:12,为减少客户停电时间,加快工作进度,提前送电,现变更停电结束时间为2020-04-1914:40:12","powerOffId":"2020041931020130"},{"poweroffId":2020041931020128,"sgpoweroffId":null,"subsName":"","lineName":"10kV凤坞C483线","pubTranName":"河上集镇3#变,","scope":"浙江省-杭州市-萧山区-河上镇-溪头行政村(溪头自然村,殿英弄),河上镇-伟民行政村(后溪滩,伟民自然村),浙江省杭州市萧山区河上镇溪头村等","startTime":"2020-04-19 11:03:00","stopDate":"2020-04-19 12:50:00","orgNo":"3340130","typeCode":"电网故障停限电","poweroffArea":"35kV河上变:凤坞C483线河上集镇3#变台区低压开关","poweroffReason":"(低压停电信息)低压熔断器短路原停电结束时间为2020-04-1914:03:00,为减少客户停电时间,加快工作进度,提前送电,现变更停电结束时间为2020-04-1912:50:00","powerTime":"2020-04-19 12:02:08","powerComm":"已送电","subsNo":"","lineNo":"","tgNo":"","tgName":null,"infoStatus":"1","orgName":"国网浙江杭州市萧山区供电有限公司","typeName":null,"infoStatusName":null,"dateDay":null,"orgNos":null,"nowTime":null,"countyName":null,"streetName":null,"villageName":null,"roadName":null,"communityName":null,"tranName":null,"sdLineName":null,"cityCode":"3340130","cityName":"国网浙江杭州市萧山区供电有限公司","provinceCode":null,"stopTime":"2020-04-19 12:50:00","powerType":"全部","powerOffArea":"35kV河上变:凤坞C483线河上集镇3#变台区低压开关","powerOffReason":"(低压停电信息)低压熔断器短路原停电结束时间为2020-04-1914:03:00,为减少客户停电时间,加快工作进度,提前送电,现变更停电结束时间为2020-04-1912:50:00","powerOffId":"2020041931020128"},{"poweroffId":2020041931020125,"sgpoweroffId":null,"subsName":"","lineName":"10kV联中T204线","pubTranName":"景秀嘉苑1号公变,景秀嘉苑2号公变,","scope":"浙江省-杭州市-桐庐县-横村镇-城东行政村(横政路,北环路)","startTime":"2020-04-27 07:30:00","stopDate":"2020-04-27 08:30:00","orgNo":"3340150","typeCode":"计划停电","poweroffArea":"110kV方埠变:联中T204线-景秀F1104开关后段","poweroffReason":"10kV保供电车接入工作 原停电结束时间为2020-04-27 07:50:00,因现场施工原因,延迟送电,现变更停电结束时间为2020-04-27 08:30:00","powerTime":"2020-04-27 08:20:24","powerComm":"已送电","subsNo":"","lineNo":"","tgNo":"","tgName":null,"infoStatus":"1","orgName":"国网浙江桐庐县供电公司","typeName":null,"infoStatusName":null,"dateDay":null,"orgNos":null,"nowTime":null,"countyName":null,"streetName":null,"villageName":null,"roadName":null,"communityName":null,"tranName":null,"sdLineName":null,"cityCode":"3340150","cityName":"国网浙江桐庐县供电公司","provinceCode":null,"stopTime":"2020-04-27 08:30:00","powerType":"全部","powerOffArea":"110kV方埠变:联中T204线-景秀F1104开关后段","powerOffReason":"10kV保供电车接入工作 原停电结束时间为2020-04-27 07:50:00,因现场施工原因,延迟送电,现变更停电结束时间为2020-04-27 08:30:00","powerOffId":"2020041931020125"},{"poweroffId":2020041931020124,"sgpoweroffId":null,"subsName":"","lineName":"10kV云石C954线","pubTranName":"青山村10#变,青山村12#变,青山村9#变,青山村11#变,","scope":"浙江省-杭州市-萧山区-戴村镇-青山行政村-石牛山自然村","startTime":"2020-04-28 08:30:00","stopDate":"2020-04-28 17:30:00","orgNo":"3340130","typeCode":"计划停电","poweroffArea":"110kV永兴变:云石C954线首端，青山村12#变，青山村10#变，青山村9#变，青山村11#变之间","poweroffReason":"云石C954线121分支后段单回路改双回路、青山村16#变布点原停电结束时间为2020-04-2717:30:00,因计划变动原因,延迟送电,现变更停电结束时间为2020-04-2817:30:00","powerTime":"2020-04-28 17:16:02","powerComm":"已送电","subsNo":"","lineNo":"","tgNo":"","tgName":null,"infoStatus":"1","orgName":"国网浙江杭州市萧山区供电有限公司","typeName":null,"infoStatusName":null,"dateDay":null,"orgNos":null,"nowTime":null,"countyName":null,"streetName":null,"villageName":null,"roadName":null,"communityName":null,"tranName":null,"sdLineName":null,"cityCode":"3340130","cityName":"国网浙江杭州市萧山区供电有限公司","provinceCode":null,"stopTime":"2020-04-28 17:30:00","powerType":"全部","powerOffArea":"110kV永兴变:云石C954线首端，青山村12#变，青山村10#变，青山村9#变，青山村11#变之间","powerOffReason":"云石C954线121分支后段单回路改双回路、青山村16#变布点原停电结束时间为2020-04-2717:30:00,因计划变动原因,延迟送电,现变更停电结束时间为2020-04-2817:30:00","powerOffId":"2020041931020124"},{"poweroffId":2020041931020123,"sgpoweroffId":null,"subsName":"","lineName":"10kV西畈A771线","pubTranName":"杭州洪武精密机械有限公司,林宏服饰,杭州嵩阳印刷实业有限公司,","scope":"浙江省-杭州市-萧山区-河上镇-大桥行政村-杭州萧山林宏服饰有限公司","startTime":"2020-04-27 08:30:00","stopDate":"2020-04-27 17:30:00","orgNo":"3340130","typeCode":"计划停电","poweroffArea":"110kV大西变:西畈A771线-林宏服饰后段;西畈A771线-洪武精密机械后段;西畈A771线-嵩阳印刷实业令克后段","poweroffReason":"西畈A771线08#杆A分支后段线路迁改 原停电结束时间为2020-04-27 15:30:00,因施工难度大原因,延迟送电,现变更停电结束时间为2020-04-27 17:30:00","powerTime":"2020-04-27 16:50:20","powerComm":"已送电","subsNo":"","lineNo":"","tgNo":"","tgName":null,"infoStatus":"1","orgName":"国网浙江杭州市萧山区供电有限公司","typeName":null,"infoStatusName":null,"dateDay":null,"orgNos":null,"nowTime":null,"countyName":null,"streetName":null,"villageName":null,"roadName":null,"communityName":null,"tranName":null,"sdLineName":null,"cityCode":"3340130","cityName":"国网浙江杭州市萧山区供电有限公司","provinceCode":null,"stopTime":"2020-04-27 17:30:00","powerType":"全部","powerOffArea":"110kV大西变:西畈A771线-林宏服饰后段;西畈A771线-洪武精密机械后段;西畈A771线-嵩阳印刷实业令克后段","powerOffReason":"西畈A771线08#杆A分支后段线路迁改 原停电结束时间为2020-04-27 15:30:00,因施工难度大原因,延迟送电,现变更停电结束时间为2020-04-27 17:30:00","powerOffId":"2020041931020123"},{"poweroffId":2020041931020118,"sgpoweroffId":null,"subsName":"","lineName":"10kV大坑T206线","pubTranName":"桐庐县横村镇人民政府,","scope":"浙江省-杭州市-桐庐县-横村镇-城东行政村-桐庐县横村镇人民政府","startTime":"2020-04-27 07:30:00","stopDate":"2020-04-27 08:30:00","orgNo":"3340150","typeCode":"计划停电","poweroffArea":"110kV方埠变:大坑T206线-横镇F1244令克后段","poweroffReason":"0.4kV发电车倒送高压保供电短时停电 原停电结束时间为2020-04-27 07:50:00,因现场施工原因,延迟送电,现变更停电结束时间为2020-04-27 08:30:00","powerTime":"2020-04-27 07:52:59","powerComm":"已送电","subsNo":"","lineNo":"","tgNo":"","tgName":null,"infoStatus":"1","orgName":"国网浙江桐庐县供电公司","typeName":null,"infoStatusName":null,"dateDay":null,"orgNos":null,"nowTime":null,"countyName":null,"streetName":null,"villageName":null,"roadName":null,"communityName":null,"tranName":null,"sdLineName":null,"cityCode":"3340150","cityName":"国网浙江桐庐县供电公司","provinceCode":null,"stopTime":"2020-04-27 08:30:00","powerType":"全部","powerOffArea":"110kV方埠变:大坑T206线-横镇F1244令克后段","powerOffReason":"0.4kV发电车倒送高压保供电短时停电 原停电结束时间为2020-04-27 07:50:00,因现场施工原因,延迟送电,现变更停电结束时间为2020-04-27 08:30:00","powerOffId":"2020041931020118"},{"poweroffId":2020041931020103,"sgpoweroffId":null,"subsName":"","lineName":"10kV秧田G379线","pubTranName":"葛墩村机埠公变,葛墩村范家塘公变,葛墩村赵介角公变,葛墩村沈介湾公变,葛墩村建设桥公变,东塘村前庄湾西公变,葛墩村加工厂公变,前庄湾闸站变,余杭区农业综合开发办,葛墩村秧田湾南公变,中铁十一局集团有限公司612091774801#专变,杭州璐欣电器制造有限公司,收费站2,葛墩村赵家角东公变,葛墩村范家塘2号公变,葛墩村解放桥公变,浙江启美生态农业有限公司,杭州丝路达制丝有限公司,葛墩村倪家角公变,葛墩村朱家斗公变,葛墩村陆家坟公变,葛墩村机埠2号公变,葛墩村计家墩公变,杭州洛克风机有限公司,葛墩村沾桥头公变,葛墩村秧田湾公变,","scope":"浙江省-杭州市-余杭区-仁和街道-平宅行政村-西岸墩自然村,仁和街道-新桥行政村(西木桥自然村,长木桥自然村,十亩头自然村),仁和街道-葛墩行政村(桥西自然村,范家塘自然村,占桥头自然村,沈家湾自然村,范家埭自然村,沈介湾自然村,徐家斗自然村,华士桥自然村,朱家抖自然村,秧田自然村,秧田湾自然村,沈家斗自然村,朱家斗自然村,倪家角自然村,田头村自然村,沈家兜自然村,赵家角自然村,赵介角自然村,坝儿斗自然村,解放桥自然村,张家墩自然村,建设桥自然村,机埠自然村,田头自然村,詹桥头自然村,沾桥头自然村,加工厂自然村,窑湾自然村,计家墩自然村,坝儿头自然村,计介墩自然村,沈家湾,葛墩村,葛仙桥自然村,范介塘自然村),仁和街道-东塘行政村(东新桥自然村,东塘街道电管站自然村,东姚家湾自然村,西姚家湾自然村,大桥自然村,马峰头自然村,前庄湾自然村,丁家抖自然村,唐家墩自然村,隔河自然村,沈介墩自然村);仁和街道(杭州凯业塑料制品厂,杭州洛克风机有限公司,浙江杭宁高速公路有限责任公司,余杭区农业综合开发办,杭州市余杭区仁和镇东塘村村民委员会（前庄湾闸站）,杭州璐欣电器制造有限公司,浙江启美生态农业有限公司,)","startTime":"2020-04-19 09:36:00","stopDate":"2020-04-19 12:36:00","orgNo":"3340140","typeCode":"电网故障停限电","poweroffArea":"110kV东塘变:秧田G379线秧田G3792开关后段","poweroffReason":"高压开关跳闸原停电结束时间为2020-04-1911:36:00,因现场情况复杂原因,延迟送电,现变更停电结束时间为2020-04-1912:36:00","powerTime":"2020-04-19 12:03:00","powerComm":"已送电","subsNo":"","lineNo":"","tgNo":"","tgName":null,"infoStatus":"1","orgName":"国网浙江杭州市余杭区供电有限公司","typeName":null,"infoStatusName":null,"dateDay":null,"orgNos":null,"nowTime":null,"countyName":null,"streetName":null,"villageName":null,"roadName":null,"communityName":null,"tranName":null,"sdLineName":null,"cityCode":"3340140","cityName":"国网浙江杭州市余杭区供电有限公司","provinceCode":null,"stopTime":"2020-04-19 12:36:00","powerType":"全部","powerOffArea":"110kV东塘变:秧田G379线秧田G3792开关后段","powerOffReason":"高压开关跳闸原停电结束时间为2020-04-1911:36:00,因现场情况复杂原因,延迟送电,现变更停电结束时间为2020-04-1912:36:00","powerOffId":"2020041931020103"},{"poweroffId":2020041931020099,"sgpoweroffId":null,"subsName":"","lineName":"10kV顿力G389线","pubTranName":"中国电信股份有限公司杭州余杭区分公司,东塘村前庄湾公变,东塘村叶介抖公变,杭州顿力展示道具有限公司2#,杭州顿力展示道具有限公司5#,杭州市余杭区东塘中心小学612087764301#专变,杭州顿力展示道具有限公司1#,顺力建材（6120874780）1#变,顿力实业（6111062593）7#变,杭州顿力展示道具有限公司4#,杭州顿力展示道具有限公司6#,东塘村东塘电管站2号公变,东塘村邵介塘西公变,中铁十一局集团有限公司612091747401#专变,詹乔头排涝,杭州顿力展示道具有限公司3#,东塘村西邵公变,东塘村邵介塘公变,","scope":"浙江省-杭州市-余杭区-仁和街道-东塘行政村(邵家塘自然村,俞家塘自然村,漾斗,沈家墩,王家塘自然村,得胜自然村,余家塘自然村,叶家抖自然村,陈家塘自然村,对家斗,小环桥自然村,马峰头自然村,前庄湾自然村,西邵自然村,东塘街道电管站自然村,章介抖自然村,良塘路,叶环路,叶介抖自然村,大桥自然村,学德路,丁家抖自然村,鲁家湾自然村,北桥头自然村,顿力路,东塘村,中和路,东旺路,谢介墩自然村,谢家墩自然村),仁和街道-獐山社区(邵介塘自然村,叶环路),仁和街道(葛墩行政村-邵家埭自然村,永泰行政村-北坝儿自然村,三白潭行政村-姚家墩);浙江省-杭州市-余杭区-仁和街道-中铁十一局集团有限公司,仁和街道-葛墩行政村(中国铁塔股份有限公司杭州市分公司,詹乔头排涝,杭州顺力建材有限公司),仁和街道-东塘行政村(杭州顿力电器有限公司,杭州市余杭区东塘中心小学)","startTime":"2020-04-19 09:24:00","stopDate":"2020-04-19 12:30:00","orgNo":"3340140","typeCode":"电网故障停限电","poweroffArea":"110kV东塘变:顿力G389线首端，顿力G3892开关，苑顿G25340开关之间","poweroffReason":"高压开关跳闸原停电结束时间为2020-04-1911:40:00,因现场情况复杂原因,延迟送电,现变更停电结束时间为2020-04-1912:30:00","powerTime":"2020-04-19 12:02:00","powerComm":"已送电","subsNo":"","lineNo":"","tgNo":"","tgName":null,"infoStatus":"1","orgName":"国网浙江杭州市余杭区供电有限公司","typeName":null,"infoStatusName":null,"dateDay":null,"orgNos":null,"nowTime":null,"countyName":null,"streetName":null,"villageName":null,"roadName":null,"communityName":null,"tranName":null,"sdLineName":null,"cityCode":"3340140","cityName":"国网浙江杭州市余杭区供电有限公司","provinceCode":null,"stopTime":"2020-04-19 12:30:00","powerType":"全部","powerOffArea":"110kV东塘变:顿力G389线首端，顿力G3892开关，苑顿G25340开关之间","powerOffReason":"高压开关跳闸原停电结束时间为2020-04-1911:40:00,因现场情况复杂原因,延迟送电,现变更停电结束时间为2020-04-1912:30:00","powerOffId":"2020041931020099"},{"poweroffId":2020041931020091,"sgpoweroffId":null,"subsName":"","lineName":"10kV万安751线","pubTranName":"万安南苑专变双路内部二,万安南苑I变,联合银行3#,华藏三变,联合银行1#,万安北苑一变,万安南苑专变双路内部一,市政排灌泵站,市政排灌泵站,万安北苑二变,万安桥停车库1#,浙江中瑞大厦,浙江中瑞大厦,联合银行2#,万安桥停车库2#,1#变压器,2#变压器,联合银行4#,金港商厦管理服务中心,","scope":"浙江省-杭州市-上城区-小营街道-葵巷社区(建国中路,万安花园,,横河桥小河下);小营街道(马市街社区-直大方伯,大学路社区-大学路,老浙大社区-环城东路,长明寺巷社区-解放路);小营街道(浙江中瑞大厦,杭州联合农村商业银行股份有限公司,浙江广厦物业管理有限公司,杭州市旅游职业学校,金港商厦管理服务中心,杭州市排水有限公司,杭州市湖滨地区商贸旅游特色街居建设整治指挥部)","startTime":"2020-04-19 09:08:00","stopDate":"2020-04-19 10:40:00","orgNo":"3340101","typeCode":"电网故障停限电","poweroffArea":"110kV中心变:万安751线万安站万安751线后段","poweroffReason":"高压开关跳闸原停电结束时间为2020-04-1917:08:00,为减少客户停电时间,加快工作进度,提前送电,现变更停电结束时间为2020-04-1910:40:00","powerTime":"2020-04-19 10:09:22","powerComm":"已送电","subsNo":"","lineNo":"","tgNo":"","tgName":null,"infoStatus":"1","orgName":"浙江杭州电力客户服务中心","typeName":null,"infoStatusName":null,"dateDay":null,"orgNos":null,"nowTime":null,"countyName":null,"streetName":null,"villageName":null,"roadName":null,"communityName":null,"tranName":null,"sdLineName":null,"cityCode":"3340101","cityName":"浙江杭州电力客户服务中心","provinceCode":null,"stopTime":"2020-04-19 10:40:00","powerType":"全部","powerOffArea":"110kV中心变:万安751线万安站万安751线后段","powerOffReason":"高压开关跳闸原停电结束时间为2020-04-1917:08:00,为减少客户停电时间,加快工作进度,提前送电,现变更停电结束时间为2020-04-1910:40:00","powerOffId":"2020041931020091"}],"pageModel":{"pageNow":311,"totalCount":17788,"totalPage":1779,"tableRows":0,"pageCount":10,"beginCount":3100},"isExperi":"1"}