{"message":"","today":"2020-06-15","seleList":[{"poweroffId":2020041931020023,"sgpoweroffId":null,"subsName":"","lineName":"10kV宏波A301线","pubTranName":"前进科技3#,陈氏纸业,宏新村6#变,东升村1#变,宏新村1#变,宏波村3#变,前进科技2#,前进科技1#,肖山第二农垦场,交通局,前进科技5#,精铭金属02,宏新村7#变,创建村11#变,前进科技4#,农二场（宿舍北）,东升村7#变,新塘垦种,农二场,泽欣纺织厂1#,前进科技6#,农二场（3~4队）,东升村2#变,宏新村4#变,2#,宏波村1#变,精铭金属01,创建村1#变,东升村4#变,临江市政,中铁十七局01#,宏新村5#变,宏波村9#变,东升村3#变,东升村6#变,中国铁建1#,中国铁建2#,燕锋玻璃,钱江通道新湾收费站,江东投资（临）,交通局,宏新村3#变,前峰村3#变,泽欣纺织厂2#,临江市政(临),1#,1#,宏新村8#变,","scope":"浙江省-杭州市-萧山区-新湾街道(宏新行政村-宏新自然村,三新行政村-新湾自然村,宏波行政村-宏波自然村,创建行政村-创建自然村),前进街道(临江行政村-东升自然村,三丰行政村-海丰自然村,前峰行政村-前峰自然村);义蓬街道,新湾街道(杭州萧山泽欣纺织有限公司,杭州燕锋玻璃有限公司,杭州萧山陈氏纸业有限公司,杭州江东市政公用事业服务有限公司,杭州三通道南接工程有限公司,杭州精铭金属制品有限公司),临江街道(萧山市第二农垦场水电管理站,肖山第二农垦场,杭州临江投资发展有限公司,杭州市萧山区人民政府临江街道办事处,农二场,中国铁建大桥工程局集团有限公司),前进街道(杭州宇祥房地产开发有限公司,城东和平桥垦种,杭州前进科技有限公司,杭州临江投资发展有限公司,杭州江东开发建设投资有限责任公司,中铁十七局集团上海轨道交通工程有限公司) ,浙江省杭州市萧山区新湾街道上建村9组","startTime":"2020-04-19 04:30:00","stopDate":"2020-04-19 09:00:00","orgNo":"3340120","typeCode":"电网故障停限电","poweroffArea":"110kV建湾变:宏波A301线2107（Z）后段","poweroffReason":"高压开关跳闸原停电结束时间为2020-04-1910:00:00,为减少客户停电时间,加快工作进度,提前送电,现变更停电结束时间为2020-04-1909:00:00","powerTime":"2020-04-19 08:02:18","powerComm":"已送电","subsNo":"","lineNo":"","tgNo":"","tgName":null,"infoStatus":"1","orgName":"国网浙江杭州市钱塘新区供电公司","typeName":null,"infoStatusName":null,"dateDay":null,"orgNos":null,"nowTime":null,"countyName":null,"streetName":null,"villageName":null,"roadName":null,"communityName":null,"tranName":null,"sdLineName":null,"cityCode":"3340120","cityName":"国网浙江杭州市钱塘新区供电公司","provinceCode":null,"stopTime":"2020-04-19 09:00:00","powerType":"全部","powerOffArea":"110kV建湾变:宏波A301线2107（Z）后段","powerOffReason":"高压开关跳闸原停电结束时间为2020-04-1910:00:00,为减少客户停电时间,加快工作进度,提前送电,现变更停电结束时间为2020-04-1909:00:00","powerOffId":"2020041931020023"},{"poweroffId":2020041931020017,"sgpoweroffId":null,"subsName":"","lineName":"10kV周家G292线","pubTranName":"塘北村外口公变,塘北村龙光桥机埠公变,塘北村二十四度公变,塘北村二十四度2号公变,塘北村墩郎公变,溢达机电制造250永久,龙光桥村,塘北村白云桥公变,塘北村沈家埭公变,润昌丝绸,塘北村西宅角公变,","scope":"浙江省-杭州市-余杭区-塘栖镇-塘北行政村-塘北村;塘栖镇(塘南龙光桥村,杭州润昌丝绸有限公司,杭州溢达机电制造有限公司)","startTime":"2020-04-19 04:02:00","stopDate":"2020-04-19 07:30:00","orgNo":"3340140","typeCode":"电网故障停限电","poweroffArea":"110kV渔桥变:周家G292线周家G292线二十四度分线真空开关后段","poweroffReason":"高压开关跳闸原停电结束时间为2020-04-1906:02:00,因现场情况复杂原因,延迟送电,现变更停电结束时间为2020-04-1907:30:00","powerTime":"2020-04-19 06:47:49","powerComm":"已送电","subsNo":"","lineNo":"","tgNo":"","tgName":null,"infoStatus":"1","orgName":"国网浙江杭州市余杭区供电有限公司","typeName":null,"infoStatusName":null,"dateDay":null,"orgNos":null,"nowTime":null,"countyName":null,"streetName":null,"villageName":null,"roadName":null,"communityName":null,"tranName":null,"sdLineName":null,"cityCode":"3340140","cityName":"国网浙江杭州市余杭区供电有限公司","provinceCode":null,"stopTime":"2020-04-19 07:30:00","powerType":"全部","powerOffArea":"110kV渔桥变:周家G292线周家G292线二十四度分线真空开关后段","powerOffReason":"高压开关跳闸原停电结束时间为2020-04-1906:02:00,因现场情况复杂原因,延迟送电,现变更停电结束时间为2020-04-1907:30:00","powerOffId":"2020041931020017"},{"poweroffId":2020041931020016,"sgpoweroffId":null,"subsName":"","lineName":"10kV周家G292线","pubTranName":"塘北村火长港公变,塘南姚家坝村镇政府,汇益机械变,塘北村郁家斗公变,","scope":"浙江省-杭州市-余杭区-塘栖镇-塘北行政村-塘北村;塘栖镇(塘南姚家坝村镇政府,杭州汇益机械有限公司)","startTime":"2020-04-19 04:01:00","stopDate":"2020-04-19 07:30:00","orgNo":"3340140","typeCode":"电网故障停限电","poweroffArea":"110kV渔桥变:周家G292线周家G2925开关后段","poweroffReason":"原停电结束时间为2020-04-1906:07:00,因现场情况复杂原因,延迟送电,现变更停电结束时间为2020-04-1907:30:00","powerTime":"2020-04-19 06:47:34","powerComm":"已送电","subsNo":"","lineNo":"","tgNo":"","tgName":null,"infoStatus":"1","orgName":"国网浙江杭州市余杭区供电有限公司","typeName":null,"infoStatusName":null,"dateDay":null,"orgNos":null,"nowTime":null,"countyName":null,"streetName":null,"villageName":null,"roadName":null,"communityName":null,"tranName":null,"sdLineName":null,"cityCode":"3340140","cityName":"国网浙江杭州市余杭区供电有限公司","provinceCode":null,"stopTime":"2020-04-19 07:30:00","powerType":"全部","powerOffArea":"110kV渔桥变:周家G292线周家G2925开关后段","powerOffReason":"原停电结束时间为2020-04-1906:07:00,因现场情况复杂原因,延迟送电,现变更停电结束时间为2020-04-1907:30:00","powerOffId":"2020041931020016"},{"poweroffId":2020041931020014,"sgpoweroffId":null,"subsName":"","lineName":"10kV万兆G271线","pubTranName":"瑞温实业（6120870308）1#变,登峰离合器厂,云会村西南山公变,东山村上施桥公变,万兆不锈钢制品(杭州)有限公司,云会村南山公变,东山村王巷儿2号公变,云会村水产2号公变,极限信息科技,希隆文体,云会中心小学（6120660523）2#变,云会中心小学（6120660523）1#变,天然消防2,欧创布衣,华迪纺织,云会村西山斗2号公变,鸿艺变,杭州龙鼎铸锻有限公司,云会村水产公变,云会村西山斗公变,云会村西山公变,云会村水路里公变,东山村酒厂公变,松井包装,瑞温实业（6120870308）2#变,创嘉印刷（6120008969）1#变,杭州双马纺织品有限公司611102437801#专变,中交第二航务工程局有限公司余杭分公司612087364401#专变,天然消防1,粮食收储,杭州瑞高家用纺织品有限公司611104106501#专变,云会村水路里南公变,中铁五局集团有限公司612091838801#专变,云会村施家斗2号公变,联通,云会村南山2号公变,玛丽高,云会村公变,云会村西南山东公变,杭州赛龙机电设备有限公司,杭州大洋刀业有限公司,东山村王巷儿公变,杭州联德金属制品有限公司611030104601#专变,澳斯美,云会村水路里南2号公变,瑞高纺织,杭州欧源纺织有限公司,杭州绿康医院投资管理有限公司,2#变压器,创嘉印刷（6120008969）2#变,科杰铸钢,华馨家纺,云会村施家斗公变,云会村王家门公变,云会村裕家桥公变,杭州创利布业有限公司,","scope":"浙江省-杭州市-余杭区-仁和街道-栅庄桥行政村(莫家门自然村,杨家斗自然村),仁和街道-九龙行政村(人民墩自然村,丁家门自然村),仁和街道-东山行政村(王巷儿自然村,毛墩坝自然村,横港儿自然村,豆腐桥自然村,施田畈自然村,后墩桥自然村,石板路自然村,潘家里自然村,东山后自然村,金家里自然村,墙门里自然村,酒厂自然村,东山前自然村,郑家墩自然村),仁和街道-云会行政村(西山斗南自然村,西南山自然村,西山斗自然村,店头村自然村,西山斗北自然村,西南山路,西南山北路自然村,西山后自然村,裕家桥自然村,四丰桥南自然村,西南山西路自然村,新房子埭自然村,莫家塘自然村,云会村,王家门自然村,沈家门自然村,北施港自然村,水产自然村,水路里自然村,石灰桥自然村,西南山东路自然村,南庄湾自然村,唐家桥自然村,西南山南路,西南山西路,四丰桥南陈家门,施家洋自然村,施家斗自然村),仁和街道(东塘行政村-水产自然村,东风行政村-上施桥自然村);浙江省-杭州市-余杭区-崇贤街道-崇贤社区-中交第二航务工程局有限公司余杭分公司,仁和街道-云会行政村(杭州余杭区仁和神工家俱厂,中国电信股份有限公司杭州余杭区分公司,杭州希隆纺织文体用品有限公司,杭州余杭云会科杰铸造厂,杭州金马管业有限公司,杭州天顺消防器材有限公司,杭州大洋刀业有限公司,杭州鸿艺工贸有限公司,杭州畅颖纺织布艺有限公司,杭州仁祥泵业有限公司,杭州路宗机械有限公司,杭州余杭区粮食收储有限责任公司良渚分公司,杭州创利布业有限公司,杭州绿康护理院有限公司,万兆不锈钢制品(杭州)有限公司,杭州市余杭区云会中心小学,杭州双马纺织品有限公司,杭州瑞温实业有限公司,杭州瑞高家用纺织品有限公司),仁和街道-东山行政村(杭州华馨家纺有限公司,杭州创嘉印刷文化有限公司,杭州欧创布艺织造有限公司,杭州九龙机械制造有限公司,杭州松井包装有限公司,杭州赛龙机电设备有限公司,杭州华迪纺织有限公司,杭州联德金属制品有限公司),仁和街道(中铁五局集团有限公司,栅庄桥行政村-杭州余杭伟晨水产养殖有限公司)","startTime":"2020-04-19 03:36:34","stopDate":"2020-04-19 08:00:34","orgNo":"3340140","typeCode":"电网故障停限电","poweroffArea":"110kV仁镇变:万兆G271线","poweroffReason":"原停电结束时间为2020-04-1908:36:34,为减少客户停电时间,加快工作进度,提前送电,现变更停电结束时间为2020-04-1908:00:34","powerTime":"2020-04-19 07:30:01","powerComm":"已送电","subsNo":"","lineNo":"","tgNo":"","tgName":null,"infoStatus":"1","orgName":"国网浙江杭州市余杭区供电有限公司","typeName":null,"infoStatusName":null,"dateDay":null,"orgNos":null,"nowTime":null,"countyName":null,"streetName":null,"villageName":null,"roadName":null,"communityName":null,"tranName":null,"sdLineName":null,"cityCode":"3340140","cityName":"国网浙江杭州市余杭区供电有限公司","provinceCode":null,"stopTime":"2020-04-19 08:00:34","powerType":"全部","powerOffArea":"110kV仁镇变:万兆G271线","powerOffReason":"原停电结束时间为2020-04-1908:36:34,为减少客户停电时间,加快工作进度,提前送电,现变更停电结束时间为2020-04-1908:00:34","powerOffId":"2020041931020014"},{"poweroffId":2020041931020013,"sgpoweroffId":null,"subsName":"","lineName":"10kV翁梅G060线","pubTranName":"杭州余杭天万股份经济合作社61208248681#变压器,天万村委2号公变,天万2组2号公变,天万4组（双范西村）公变,杭州捷充新能源科技有限公司（6120873733）01号专变,天万4组3号公变,天万2组3号公变,天万2组4号公变,天万村委公变,天万2组（范埠村）公变,天万1组3号公变,天万7组4号公变,","scope":"浙江省-杭州市-余杭区-南苑街道-天万社区(天万,双范西自然村,双范东自然村,范埠自然村);南苑街道(杭州余杭天万股份经济合作社,杭州捷充新能源科技有限公司)","startTime":"2020-04-19 03:11:00","stopDate":"2020-04-19 05:11:00","orgNo":"3340140","typeCode":"电网故障停限电","poweroffArea":"110kV外乔变:翁梅G060线3#开关后段","poweroffReason":"高压开关跳闸","powerTime":"2020-04-19 05:01:25","powerComm":"已送电","subsNo":"","lineNo":"","tgNo":"","tgName":null,"infoStatus":"1","orgName":"国网浙江杭州市余杭区供电有限公司","typeName":null,"infoStatusName":null,"dateDay":null,"orgNos":null,"nowTime":null,"countyName":null,"streetName":null,"villageName":null,"roadName":null,"communityName":null,"tranName":null,"sdLineName":null,"cityCode":"3340140","cityName":"国网浙江杭州市余杭区供电有限公司","provinceCode":null,"stopTime":"2020-04-19 05:11:00","powerType":"全部","powerOffArea":"110kV外乔变:翁梅G060线3#开关后段","powerOffReason":"高压开关跳闸","powerOffId":"2020041931020013"},{"poweroffId":2020041831020158,"sgpoweroffId":null,"subsName":"","lineName":"10kV江城6937线","pubTranName":"勇进实验中学,始板二,始板东村变,客运变,","scope":"浙江省-杭州市-西湖区-北山街道-曲院社区-白沙泉,望江街道(始版桥社区-海潮路,杭州市勇进实验学校，兴隆社区-东宝路）","startTime":"2020-04-18 20:47:39","stopDate":"2020-04-18 23:00:39","orgNo":"3340101","typeCode":"电网故障停限电","poweroffArea":"110kV秋涛变:江城6937线-秋宝线后段","poweroffReason":"高压开关跳闸原停电结束时间为2020-04-1823:47:39,为减少客户停电时间,加快工作进度,提前送电,现变更停电结束时间为2020-04-1823:00:39","powerTime":"2020-04-18 22:18:53","powerComm":"已送电","subsNo":"","lineNo":"","tgNo":"","tgName":null,"infoStatus":"1","orgName":"浙江杭州电力客户服务中心","typeName":null,"infoStatusName":null,"dateDay":null,"orgNos":null,"nowTime":null,"countyName":null,"streetName":null,"villageName":null,"roadName":null,"communityName":null,"tranName":null,"sdLineName":null,"cityCode":"3340101","cityName":"浙江杭州电力客户服务中心","provinceCode":null,"stopTime":"2020-04-18 23:00:39","powerType":"全部","powerOffArea":"110kV秋涛变:江城6937线-秋宝线后段","powerOffReason":"高压开关跳闸原停电结束时间为2020-04-1823:47:39,为减少客户停电时间,加快工作进度,提前送电,现变更停电结束时间为2020-04-1823:00:39","powerOffId":"2020041831020158"},{"poweroffId":2020041831020157,"sgpoweroffId":null,"subsName":"","lineName":"10kV胜峰T335线","pubTranName":"板头村1号公变,","scope":"浙江省-杭州市-桐庐县-横村镇-板头行政村-板头自然村","startTime":"2020-04-18 20:24:35","stopDate":"2020-04-18 22:24:35","orgNo":"3340150","typeCode":"电网故障停限电","poweroffArea":"110kV横村变:胜峰T335线-板头村1号公变后段","poweroffReason":"(低压停电信息)低压开关跳闸","powerTime":"2020-04-18 21:58:21","powerComm":"已送电","subsNo":"","lineNo":"","tgNo":"","tgName":null,"infoStatus":"1","orgName":"国网浙江桐庐县供电公司","typeName":null,"infoStatusName":null,"dateDay":null,"orgNos":null,"nowTime":null,"countyName":null,"streetName":null,"villageName":null,"roadName":null,"communityName":null,"tranName":null,"sdLineName":null,"cityCode":"3340150","cityName":"国网浙江桐庐县供电公司","provinceCode":null,"stopTime":"2020-04-18 22:24:35","powerType":"全部","powerOffArea":"110kV横村变:胜峰T335线-板头村1号公变后段","powerOffReason":"(低压停电信息)低压开关跳闸","powerOffId":"2020041831020157"},{"poweroffId":2020041831020149,"sgpoweroffId":null,"subsName":"","lineName":"10kV儒桥T438线","pubTranName":"天英看牛畈1号公变,","scope":"浙江省-杭州市-桐庐县-分水镇-天英行政村(天英自然村,塘口溪自然村,看牛畈自然村)","startTime":"2020-04-18 18:33:00","stopDate":"2020-04-18 22:33:00","orgNo":"3340150","typeCode":"电网故障停限电","poweroffArea":"110kV天英变:儒桥T438线天英看牛畈1号公变配变","poweroffReason":"高压开关跳闸","powerTime":"2020-04-18 22:05:50","powerComm":"已送电","subsNo":"","lineNo":"","tgNo":"","tgName":null,"infoStatus":"1","orgName":"国网浙江桐庐县供电公司","typeName":null,"infoStatusName":null,"dateDay":null,"orgNos":null,"nowTime":null,"countyName":null,"streetName":null,"villageName":null,"roadName":null,"communityName":null,"tranName":null,"sdLineName":null,"cityCode":"3340150","cityName":"国网浙江桐庐县供电公司","provinceCode":null,"stopTime":"2020-04-18 22:33:00","powerType":"全部","powerOffArea":"110kV天英变:儒桥T438线天英看牛畈1号公变配变","powerOffReason":"高压开关跳闸","powerOffId":"2020041831020149"},{"poweroffId":2020041831020139,"sgpoweroffId":null,"subsName":"","lineName":"10kV双喜D383线","pubTranName":"富阳市常安横坑钨水电站,横槎村11号陈家埠公变,横槎村4号树石公变,富阳市常安镇树石村东坑坞电站2#,横槎村5号东坑埠公变,富阳市常安镇树石村东坑坞电站1#,","scope":"浙江省-杭州市-富阳区-常安镇-横槎村一带","startTime":"2020-04-20 12:00:00","stopDate":"2020-04-20 13:30:00","orgNo":"3340170","typeCode":"临时停电","poweroffArea":"35kV湖源变:双喜D383线-双喜D3832开关后段","poweroffReason":"横槎D386线双喜D383线54#杆至55#杆紧急缺陷消缺","powerTime":"2020-04-20 13:05:32","powerComm":"已送电","subsNo":"","lineNo":"","tgNo":"","tgName":null,"infoStatus":"1","orgName":"国网浙江杭州市富阳区供电公司","typeName":null,"infoStatusName":null,"dateDay":null,"orgNos":null,"nowTime":null,"countyName":null,"streetName":null,"villageName":null,"roadName":null,"communityName":null,"tranName":null,"sdLineName":null,"cityCode":"3340170","cityName":"国网浙江杭州市富阳区供电公司","provinceCode":null,"stopTime":"2020-04-20 13:30:00","powerType":"全部","powerOffArea":"35kV湖源变:双喜D383线-双喜D3832开关后段","powerOffReason":"横槎D386线双喜D383线54#杆至55#杆紧急缺陷消缺","powerOffId":"2020041831020139"},{"poweroffId":2020041831020136,"sgpoweroffId":null,"subsName":"","lineName":"10kV红友A696线","pubTranName":"瓜沥镇机场安置区4#变,","scope":"浙江省-杭州市-萧山区-瓜沥镇-城中社区(塘北中路,塘北中路北巷,塘北中路南巷,友谊路,永福路,3组)、永福村等","startTime":"2020-04-18 16:15:32","stopDate":"2020-04-18 17:50:32","orgNo":"3340130","typeCode":"电网故障停限电","poweroffArea":"110kV白川变:红友A696线-瓜沥镇机场安置区4#变后段","poweroffReason":"(低压停电信息)低压电缆外力破坏原停电结束时间为2020-04-1818:10:32,为减少客户停电时间,加快工作进度,提前送电,现变更停电结束时间为2020-04-1817:50:32","powerTime":"2020-04-18 17:02:34","powerComm":"已送电","subsNo":"","lineNo":"","tgNo":"","tgName":null,"infoStatus":"1","orgName":"国网浙江杭州市萧山区供电有限公司","typeName":null,"infoStatusName":null,"dateDay":null,"orgNos":null,"nowTime":null,"countyName":null,"streetName":null,"villageName":null,"roadName":null,"communityName":null,"tranName":null,"sdLineName":null,"cityCode":"3340130","cityName":"国网浙江杭州市萧山区供电有限公司","provinceCode":null,"stopTime":"2020-04-18 17:50:32","powerType":"全部","powerOffArea":"110kV白川变:红友A696线-瓜沥镇机场安置区4#变后段","powerOffReason":"(低压停电信息)低压电缆外力破坏原停电结束时间为2020-04-1818:10:32,为减少客户停电时间,加快工作进度,提前送电,现变更停电结束时间为2020-04-1817:50:32","powerOffId":"2020041831020136"}],"pageModel":{"pageNow":313,"totalCount":17788,"totalPage":1779,"tableRows":0,"pageCount":10,"beginCount":3120},"isExperi":"1"}