{"message":"","today":"2020-06-15","seleList":[{"poweroffId":2020060731020088,"sgpoweroffId":null,"subsName":"","lineName":"10kV南兴A804线","pubTranName":"南兴小区2#变,","scope":"浙江省-杭州市-萧山区-南阳街道-南兴行政村(南北自然村,南镇路)等","startTime":"2020-06-07 14:25:20","stopDate":"2020-06-07 18:25:20","orgNo":"3340130","typeCode":"电网故障停限电","poweroffArea":"110kV黎明变:南兴A804线-南兴小区2#变后段","poweroffReason":"(低压停电信息)低压开关跳闸 原停电结束时间为2020-06-07 16:25:20,因现场故障情况复杂,现变更停电结束时间为2020-06-07 18:25:20","powerTime":"2020-06-07 17:35:25","powerComm":"已送电","subsNo":"","lineNo":"","tgNo":"","tgName":null,"infoStatus":"1","orgName":"国网浙江杭州市萧山区供电有限公司","typeName":null,"infoStatusName":null,"dateDay":null,"orgNos":null,"nowTime":null,"countyName":null,"streetName":null,"villageName":null,"roadName":null,"communityName":null,"tranName":null,"sdLineName":null,"cityCode":"3340130","cityName":"国网浙江杭州市萧山区供电有限公司","provinceCode":null,"stopTime":"2020-06-07 18:25:20","powerType":"全部","powerOffArea":"110kV黎明变:南兴A804线-南兴小区2#变后段","powerOffReason":"(低压停电信息)低压开关跳闸 原停电结束时间为2020-06-07 16:25:20,因现场故障情况复杂,现变更停电结束时间为2020-06-07 18:25:20","powerOffId":"2020060731020088"},{"poweroffId":2020060731020087,"sgpoweroffId":null,"subsName":"","lineName":"10kV十月D225线","pubTranName":"沈家坞1号坑东公变,","scope":"浙江省-杭州市-富阳区-银湖街道-沈家坞行政村(外沈家坞自然村,筱岭自然村,沈家坞自然村,坑东自然村)","startTime":"2020-06-07 14:19:08","stopDate":"2020-06-07 16:19:08","orgNo":"3340170","typeCode":"电网故障停限电","poweroffArea":"110kV银湖变:十月D225线-沈家坞1号坑东公变后段","poweroffReason":"(低压停电信息)低压开关跳闸","powerTime":"2020-06-07 15:23:00","powerComm":"已送电","subsNo":"","lineNo":"","tgNo":"","tgName":null,"infoStatus":"1","orgName":"国网浙江杭州市富阳区供电公司","typeName":null,"infoStatusName":null,"dateDay":null,"orgNos":null,"nowTime":null,"countyName":null,"streetName":null,"villageName":null,"roadName":null,"communityName":null,"tranName":null,"sdLineName":null,"cityCode":"3340170","cityName":"国网浙江杭州市富阳区供电公司","provinceCode":null,"stopTime":"2020-06-07 16:19:08","powerType":"全部","powerOffArea":"110kV银湖变:十月D225线-沈家坞1号坑东公变后段","powerOffReason":"(低压停电信息)低压开关跳闸","powerOffId":"2020060731020087"},{"poweroffId":2020060731020077,"sgpoweroffId":null,"subsName":"","lineName":"10kV永富C980线","pubTranName":"永富村6#变,三巨汽配,杭州莹飞塑胶有限公司,永富村3#变,杭州萧山电力水泥制品实验厂,永富村8#变,1#,康美塑化,万通塑胶,永富村19#变,永富村13#变,大石盖7#变,永富村15#变,永富村11#变,同创实业,同泽塑业,永富村9#变,永富村2#变,永富村1#变,永富村16#变,杭州市萧山区义桥镇人民政府（积堰山机埠）2#,永富村10#变,杭州华越塑料有限公司,永富村12#变,永富村5#变,杭州市萧山区义桥镇人民政府（积堰山机埠）1#,永富村18#变,变压器,永富村7#变,永富村4#变,永富村17#变,永富村14#变,","scope":"浙江省-杭州市-萧山区-戴村镇-大石盖行政村(石盖自然村,畈里自然村),戴村镇-永富行政村(建民自然村,姚家山下自然村,积堰山自然村,谭宇里自然村,马安自然村,新宅自然村,冗里自然村,黄洞岭自然村,山坎头自然村,小东坞自然村,大东坞自然村);义桥镇-杭州市萧山区义桥镇人民政府,戴村镇(杭州杭冶机械有限公司,杭州莹飞塑胶有限公司,杭州伟民农业开发有限公司,杭州同创实业有限公司,杭州汇锆特铸造有限公司,杭州万通塑胶有限公司,杭州康美塑化有限公司,杭州同泽塑业有限公司,杭州华越塑料有限公司)等","startTime":"2020-06-07 13:41:00","stopDate":"2020-06-07 15:30:00","orgNo":"3340130","typeCode":"电网故障停限电","poweroffArea":"110kV永兴变:永富C980线永徐C9802开关后段","poweroffReason":"高压柱上断路器跳闸 原停电结束时间为2020-06-07 16:41:00,为减少客户停电时间,加快工作进度,提前送电,现变更停电结束时间为2020-06-07 15:30:00","powerTime":"2020-06-07 14:31:52","powerComm":"已送电","subsNo":"","lineNo":"","tgNo":"","tgName":null,"infoStatus":"1","orgName":"国网浙江杭州市萧山区供电有限公司","typeName":null,"infoStatusName":null,"dateDay":null,"orgNos":null,"nowTime":null,"countyName":null,"streetName":null,"villageName":null,"roadName":null,"communityName":null,"tranName":null,"sdLineName":null,"cityCode":"3340130","cityName":"国网浙江杭州市萧山区供电有限公司","provinceCode":null,"stopTime":"2020-06-07 15:30:00","powerType":"全部","powerOffArea":"110kV永兴变:永富C980线永徐C9802开关后段","powerOffReason":"高压柱上断路器跳闸 原停电结束时间为2020-06-07 16:41:00,为减少客户停电时间,加快工作进度,提前送电,现变更停电结束时间为2020-06-07 15:30:00","powerOffId":"2020060731020077"},{"poweroffId":2020060731020074,"sgpoweroffId":null,"subsName":"","lineName":"10kV义和A55线","pubTranName":"火星村2#变,","scope":"浙江省-杭州市-萧山区-义蓬街道-火星行政村-火星自然村","startTime":"2020-06-12 09:00:00","stopDate":"2020-06-12 16:30:00","orgNo":"3340120","typeCode":"临时停电","poweroffArea":"110kV白浪变:义和A55线-火星村2#变后段","poweroffReason":"(低压停电信息)线路改造 原停电结束时间为2020-06-12 17:30:00,为减少客户停电时间,加快工作进度,提前送电,现变更停电结束时间为2020-06-12 16:30:00","powerTime":"2020-06-12 16:07:01","powerComm":"已送电","subsNo":"","lineNo":"","tgNo":"","tgName":null,"infoStatus":"1","orgName":"国网浙江杭州市钱塘新区供电公司","typeName":null,"infoStatusName":null,"dateDay":null,"orgNos":null,"nowTime":null,"countyName":null,"streetName":null,"villageName":null,"roadName":null,"communityName":null,"tranName":null,"sdLineName":null,"cityCode":"3340120","cityName":"国网浙江杭州市钱塘新区供电公司","provinceCode":null,"stopTime":"2020-06-12 16:30:00","powerType":"全部","powerOffArea":"110kV白浪变:义和A55线-火星村2#变后段","powerOffReason":"(低压停电信息)线路改造 原停电结束时间为2020-06-12 17:30:00,为减少客户停电时间,加快工作进度,提前送电,现变更停电结束时间为2020-06-12 16:30:00","powerOffId":"2020060731020074"},{"poweroffId":2020060731020073,"sgpoweroffId":null,"subsName":"","lineName":"10kV益农462线","pubTranName":"共和村1#变,","scope":"浙江省-杭州市-萧山区-新湾街道-共和行政村-共和自然村","startTime":"2020-06-11 09:00:00","stopDate":"2020-06-11 15:30:00","orgNo":"3340120","typeCode":"临时停电","poweroffArea":"35kV新湾变:益农462线-共和村1#变后段","poweroffReason":"(低压停电信息)线路改造共和村1#变更换吊柜等工作 原停电结束时间为2020-06-11 17:30:00,为减少客户停电时间,加快工作进度,提前送电,现变更停电结束时间为2020-06-11 15:30:00","powerTime":"2020-06-11 14:58:40","powerComm":"已送电","subsNo":"","lineNo":"","tgNo":"","tgName":null,"infoStatus":"1","orgName":"国网浙江杭州市钱塘新区供电公司","typeName":null,"infoStatusName":null,"dateDay":null,"orgNos":null,"nowTime":null,"countyName":null,"streetName":null,"villageName":null,"roadName":null,"communityName":null,"tranName":null,"sdLineName":null,"cityCode":"3340120","cityName":"国网浙江杭州市钱塘新区供电公司","provinceCode":null,"stopTime":"2020-06-11 15:30:00","powerType":"全部","powerOffArea":"35kV新湾变:益农462线-共和村1#变后段","powerOffReason":"(低压停电信息)线路改造共和村1#变更换吊柜等工作 原停电结束时间为2020-06-11 17:30:00,为减少客户停电时间,加快工作进度,提前送电,现变更停电结束时间为2020-06-11 15:30:00","powerOffId":"2020060731020073"},{"poweroffId":2020060731020072,"sgpoweroffId":null,"subsName":"","lineName":"10kV王家D645线","pubTranName":"王家宕1#姜家闸公变,","scope":"浙江省-杭州市-富阳区-灵桥镇-王家宕行政村-王家宕自然村","startTime":"2020-06-07 13:18:46","stopDate":"2020-06-07 14:18:46","orgNo":"3340170","typeCode":"电网故障停限电","poweroffArea":"110kV灵桥变:王家D645线-王家宕1#姜家闸公变后段","poweroffReason":"(低压停电信息)低压开关跳闸","powerTime":"2020-06-07 13:35:04","powerComm":"已送电","subsNo":"","lineNo":"","tgNo":"","tgName":null,"infoStatus":"1","orgName":"国网浙江杭州市富阳区供电公司","typeName":null,"infoStatusName":null,"dateDay":null,"orgNos":null,"nowTime":null,"countyName":null,"streetName":null,"villageName":null,"roadName":null,"communityName":null,"tranName":null,"sdLineName":null,"cityCode":"3340170","cityName":"国网浙江杭州市富阳区供电公司","provinceCode":null,"stopTime":"2020-06-07 14:18:46","powerType":"全部","powerOffArea":"110kV灵桥变:王家D645线-王家宕1#姜家闸公变后段","powerOffReason":"(低压停电信息)低压开关跳闸","powerOffId":"2020060731020072"},{"poweroffId":2020060731020070,"sgpoweroffId":null,"subsName":"","lineName":"10kV南兴A804线","pubTranName":"南阳街道16#变,南兴村13#变,南兴村8#变,横蓬村20#变,南翔村9#变,泉萍包装,2#变,金城铸造(1315078828),萧山供水有限公司配变,南翔村10#变,南阳街道1#变,杭州市萧山区人民政府南阳街道办事处,南阳街道5#变,南翔村7#变,4#变,电信股份萧山区分公司配变,南翔村17#变,南阳街道4#变,南翔村18#变,超越机械2#,南翔村19#变,1#变,1#变,南阳泵站,南兴村1#变,南阳街道8#变,南阳街道7#变,3#变,义乌领秀,1#,南翔村4#变,超越机械1#,南阳街道2#变,高扬南阳针织厂,南翔村11#变,横蓬村10#变,南兴村12#变,浙江融信投资有限公司,杭州萧山南阳橡塑工艺五金厂变压器间隔配电变压器,南兴村7#变,杭州福鹏实业有限公司,南兴村5#变,南翔村8#变,南兴村14#变,2#变,南兴小区1#变,南翔村5#变,南翔村20#变,南翔村1#变,南兴小区2#变,","scope":"浙江省-杭州市-萧山区-南阳街道-南兴行政村(南兴自然村,南虹路,南联自然村,南北自然村,南镇路),南阳街道-横蓬行政村(横蓬自然村,横蓬路,南虹路),南阳街道-南翔行政村(万丰自然村,南阳自然村,南翔自然村,镇阳路,向阳路,惠南街),南阳街道-南阳社区(惠阳街,南翔路,惠南路,南虹路,横湾路,惠南街,向阳路,迎春街,宝丰路,南街后弄,南北路,惠阳路,宝丰东弄,南兴路);南阳街道(杭州福鹏实业有限公司,杭州萧山金城机械铸造厂,中国电信股份有限公司杭州萧山区分公司,杭州萧山供水有限公司,杭州萧山污水处理有限公司,杭州超越机械设备有限公司,杭州市萧山区南阳街道社区卫生服务中心,杭州萧山南阳高扬针织厂,杭州领秀实业有限公司,杭州泉萍包装有限公司,杭州萧山南阳橡塑工艺五金厂,杭州市萧山区人民政府南阳街道办事处,浙江融信投资有限公司,浙江交工集团股份有限公司)等","startTime":"2020-06-07 13:05:00","stopDate":"2020-06-07 15:20:00","orgNo":"3340130","typeCode":"电网故障停限电","poweroffArea":"110kV黎明变:南兴A804线南兴A804线开关后段","poweroffReason":"高压开关跳闸 原停电结束时间为2020-06-07 16:05:00,为减少客户停电时间,加快工作进度,提前送电,现变更停电结束时间为2020-06-07 15:20:00","powerTime":"2020-06-07 14:32:37","powerComm":"已送电","subsNo":"","lineNo":"","tgNo":"","tgName":null,"infoStatus":"1","orgName":"国网浙江杭州市萧山区供电有限公司","typeName":null,"infoStatusName":null,"dateDay":null,"orgNos":null,"nowTime":null,"countyName":null,"streetName":null,"villageName":null,"roadName":null,"communityName":null,"tranName":null,"sdLineName":null,"cityCode":"3340130","cityName":"国网浙江杭州市萧山区供电有限公司","provinceCode":null,"stopTime":"2020-06-07 15:20:00","powerType":"全部","powerOffArea":"110kV黎明变:南兴A804线南兴A804线开关后段","powerOffReason":"高压开关跳闸 原停电结束时间为2020-06-07 16:05:00,为减少客户停电时间,加快工作进度,提前送电,现变更停电结束时间为2020-06-07 15:20:00","powerOffId":"2020060731020070"},{"poweroffId":2020060731020066,"sgpoweroffId":null,"subsName":"","lineName":"10kV深澳T251线","pubTranName":"环溪村3号公变,","scope":"浙江省-杭州市-桐庐县-江南镇-环溪行政村-环溪自然村","startTime":"2020-06-15 08:30:00","stopDate":"2020-06-15 16:00:00","orgNo":"3340150","typeCode":"计划停电","poweroffArea":"110kV石阜变:深澳T251线-环溪村3号公变10kV跌落式熔断器后段","poweroffReason":"杭州桐庐江南西坞村等台区配变及线路改造工程","powerTime":"2020-06-15 15:30:25","powerComm":"已送电","subsNo":"","lineNo":"","tgNo":"","tgName":null,"infoStatus":"1","orgName":"国网浙江桐庐县供电公司","typeName":null,"infoStatusName":null,"dateDay":null,"orgNos":null,"nowTime":null,"countyName":null,"streetName":null,"villageName":null,"roadName":null,"communityName":null,"tranName":null,"sdLineName":null,"cityCode":"3340150","cityName":"国网浙江桐庐县供电公司","provinceCode":null,"stopTime":"2020-06-15 16:00:00","powerType":"全部","powerOffArea":"110kV石阜变:深澳T251线-环溪村3号公变10kV跌落式熔断器后段","powerOffReason":"杭州桐庐江南西坞村等台区配变及线路改造工程","powerOffId":"2020060731020066"},{"poweroffId":2020060731020058,"sgpoweroffId":null,"subsName":"","lineName":"10kV丁南H708线","pubTranName":"南峰村上洪老村委公变,南头村杨家畈公变,杭州市余杭区人民政府中泰街道办事处（6120913329）2#专变,南峰村南头上洪公变,杭州市余杭区人民政府中泰街道办事处（6120913329）5#专变,南峰村上洪小学公变,杭州市余杭区人民政府中泰街道办事处（6120913329）1#专变,杭州市余杭区人民政府中泰街道办事处（6120913329）4#专变,杭州市余杭区人民政府中泰街道办事处（6120913329）3#专变,南湖村水路畈公变,南峰村施家头公变,","scope":"浙江省-杭州市-余杭区-中泰街道-南峰行政村-南峰自然村;浙江省-杭州市-余杭区-中泰街道-南湖行政村-杭州市余杭区人民政府中泰街道办事处","startTime":"2020-06-07 11:12:32","stopDate":"2020-06-07 12:30:00","orgNo":"3340140","typeCode":"电网故障停限电","poweroffArea":"110kV余杭变:丁南H708线首端，丁南H7087开关，丁南H7080开关之间","poweroffReason":"高压开关跳闸 原停电结束时间为2020-06-07 13:12:32,为减少客户停电时间,加快工作进度,提前送电,现变更停电结束时间为2020-06-07 12:30:00","powerTime":"2020-06-07 11:48:00","powerComm":"已送电","subsNo":"","lineNo":"","tgNo":"","tgName":null,"infoStatus":"1","orgName":"国网浙江杭州市余杭区供电有限公司","typeName":null,"infoStatusName":null,"dateDay":null,"orgNos":null,"nowTime":null,"countyName":null,"streetName":null,"villageName":null,"roadName":null,"communityName":null,"tranName":null,"sdLineName":null,"cityCode":"3340140","cityName":"国网浙江杭州市余杭区供电有限公司","provinceCode":null,"stopTime":"2020-06-07 12:30:00","powerType":"全部","powerOffArea":"110kV余杭变:丁南H708线首端，丁南H7087开关，丁南H7080开关之间","powerOffReason":"高压开关跳闸 原停电结束时间为2020-06-07 13:12:32,为减少客户停电时间,加快工作进度,提前送电,现变更停电结束时间为2020-06-07 12:30:00","powerOffId":"2020060731020058"},{"poweroffId":2020060731020040,"sgpoweroffId":null,"subsName":"","lineName":"10kV钱东C909线","pubTranName":"宁北村20#变,","scope":"浙江省-杭州市-萧山区-宁围镇-宁围街道-二桥行政村-宁北自然村、宁北村等","startTime":"2020-06-07 10:00:15","stopDate":"2020-06-07 13:00:15","orgNo":"3340130","typeCode":"电网故障停限电","poweroffArea":"110kV鸿达变:钱东C909线-宁北村20#变台区低压开关","poweroffReason":"(低压停电信息)低压漏电保护器跳闸","powerTime":"2020-06-07 12:24:42","powerComm":"已送电","subsNo":"","lineNo":"","tgNo":"","tgName":null,"infoStatus":"1","orgName":"国网浙江杭州市萧山区供电有限公司","typeName":null,"infoStatusName":null,"dateDay":null,"orgNos":null,"nowTime":null,"countyName":null,"streetName":null,"villageName":null,"roadName":null,"communityName":null,"tranName":null,"sdLineName":null,"cityCode":"3340130","cityName":"国网浙江杭州市萧山区供电有限公司","provinceCode":null,"stopTime":"2020-06-07 13:00:15","powerType":"全部","powerOffArea":"110kV鸿达变:钱东C909线-宁北村20#变台区低压开关","powerOffReason":"(低压停电信息)低压漏电保护器跳闸","powerOffId":"2020060731020040"}],"pageModel":{"pageNow":30,"totalCount":17786,"totalPage":1779,"tableRows":0,"pageCount":10,"beginCount":290},"isExperi":"1"}