{"message":"","today":"2020-06-15","seleList":[{"poweroffId":2020041831020107,"sgpoweroffId":null,"subsName":"","lineName":"10kV姚家T243线","pubTranName":"桐庐县江南镇人民政府(路灯),桐庐永南铁合金厂,","scope":"浙江省-杭州市-桐庐县-江南镇-金茂行政村(桐庐永南铁合金厂,桐庐县江南镇人民政府(路灯))","startTime":"2020-04-27 08:50:00","stopDate":"2020-04-27 15:37:00","orgNo":"3340150","typeCode":"计划停电","poweroffArea":"110kV石阜变:姚家T243线-姚家F4084智能开关后段","poweroffReason":"运维消缺（智能开关更换） 原停电结束时间为2020-04-27 14:20:00,因天气原因,延迟送电,现变更停电结束时间为2020-04-27 15:37:00","powerTime":"2020-04-27 15:17:53","powerComm":"已送电","subsNo":"","lineNo":"","tgNo":"","tgName":null,"infoStatus":"1","orgName":"国网浙江桐庐县供电公司","typeName":null,"infoStatusName":null,"dateDay":null,"orgNos":null,"nowTime":null,"countyName":null,"streetName":null,"villageName":null,"roadName":null,"communityName":null,"tranName":null,"sdLineName":null,"cityCode":"3340150","cityName":"国网浙江桐庐县供电公司","provinceCode":null,"stopTime":"2020-04-27 15:37:00","powerType":"全部","powerOffArea":"110kV石阜变:姚家T243线-姚家F4084智能开关后段","powerOffReason":"运维消缺（智能开关更换） 原停电结束时间为2020-04-27 14:20:00,因天气原因,延迟送电,现变更停电结束时间为2020-04-27 15:37:00","powerOffId":"2020041831020107"},{"poweroffId":2020041831020104,"sgpoweroffId":null,"subsName":"","lineName":"10kV洋洲T256线","pubTranName":"桐庐城市建设投资有限公司(320路灯变3#),","scope":"浙江省-杭州市-桐庐县-江南镇-窄溪行政村-桐庐县江南镇人民政府国道路灯三号","startTime":"2020-04-26 08:00:00","stopDate":"2020-04-26 18:00:00","orgNo":"3340150","typeCode":"计划停电","poweroffArea":"110kV石阜变:洋洲T256线-路灯F5176令克后段","poweroffReason":"湖杭迁改工程 原停电结束时间为2020-04-26 14:30:00,因现场人员准备不足原因,,延迟送电,现变更停电结束时间为2020-04-26 18:00:00","powerTime":"2020-04-26 17:31:05","powerComm":"已送电","subsNo":"","lineNo":"","tgNo":"","tgName":null,"infoStatus":"1","orgName":"国网浙江桐庐县供电公司","typeName":null,"infoStatusName":null,"dateDay":null,"orgNos":null,"nowTime":null,"countyName":null,"streetName":null,"villageName":null,"roadName":null,"communityName":null,"tranName":null,"sdLineName":null,"cityCode":"3340150","cityName":"国网浙江桐庐县供电公司","provinceCode":null,"stopTime":"2020-04-26 18:00:00","powerType":"全部","powerOffArea":"110kV石阜变:洋洲T256线-路灯F5176令克后段","powerOffReason":"湖杭迁改工程 原停电结束时间为2020-04-26 14:30:00,因现场人员准备不足原因,,延迟送电,现变更停电结束时间为2020-04-26 18:00:00","powerOffId":"2020041831020104"},{"poweroffId":2020041831020103,"sgpoweroffId":null,"subsName":"","lineName":"10kV石莲T279线","pubTranName":"中铁大桥局集团第二工程有限公司,","scope":"浙江省-杭州市-桐庐县-江南镇-窄溪行政村-中铁大桥局集团第二工程有限公司","startTime":"2020-04-26 08:00:00","stopDate":"2020-04-26 13:30:00","orgNo":"3340150","typeCode":"计划停电","poweroffArea":"110kV石阜变:石莲T279线-湖杭F4087后段","poweroffReason":"湖杭迁改工程","powerTime":"2020-04-26 13:22:19","powerComm":"已送电","subsNo":"","lineNo":"","tgNo":"","tgName":null,"infoStatus":"1","orgName":"国网浙江桐庐县供电公司","typeName":null,"infoStatusName":null,"dateDay":null,"orgNos":null,"nowTime":null,"countyName":null,"streetName":null,"villageName":null,"roadName":null,"communityName":null,"tranName":null,"sdLineName":null,"cityCode":"3340150","cityName":"国网浙江桐庐县供电公司","provinceCode":null,"stopTime":"2020-04-26 13:30:00","powerType":"全部","powerOffArea":"110kV石阜变:石莲T279线-湖杭F4087后段","powerOffReason":"湖杭迁改工程","powerOffId":"2020041831020103"},{"poweroffId":2020041831020085,"sgpoweroffId":null,"subsName":"","lineName":"10kV怡合T199线","pubTranName":"定源1号公变,","scope":"浙江省-杭州市-桐庐县-分水镇-百岁坊行政村-定源村自然村","startTime":"2020-04-18 10:27:00","stopDate":"2020-04-18 17:00:00","orgNo":"3340150","typeCode":"电网故障停限电","poweroffArea":"35kV合村变:怡合T199线定源1号公变配变","poweroffReason":"高压开关跳闸原停电结束时间为2020-04-1814:27:00,因天气原因,延迟送电,现变更停电结束时间为2020-04-1817:00:00","powerTime":"2020-04-18 16:37:37","powerComm":"已送电","subsNo":"","lineNo":"","tgNo":"","tgName":null,"infoStatus":"1","orgName":"国网浙江桐庐县供电公司","typeName":null,"infoStatusName":null,"dateDay":null,"orgNos":null,"nowTime":null,"countyName":null,"streetName":null,"villageName":null,"roadName":null,"communityName":null,"tranName":null,"sdLineName":null,"cityCode":"3340150","cityName":"国网浙江桐庐县供电公司","provinceCode":null,"stopTime":"2020-04-18 17:00:00","powerType":"全部","powerOffArea":"35kV合村变:怡合T199线定源1号公变配变","powerOffReason":"高压开关跳闸原停电结束时间为2020-04-1814:27:00,因天气原因,延迟送电,现变更停电结束时间为2020-04-1817:00:00","powerOffId":"2020041831020085"},{"poweroffId":2020041831020063,"sgpoweroffId":null,"subsName":"","lineName":"10kV家东T565线","pubTranName":"凤川移民村1号公变,","scope":"浙江省-杭州市-桐庐县-凤川街道-翙岗行政村(移民自然村,凤川大道,城东公路)","startTime":"2020-04-29 09:00:00","stopDate":"2020-04-29 14:30:00","orgNo":"3340150","typeCode":"计划停电","poweroffArea":"110kV旺家变:家东T565线-凤川移民村1号公变10kV跌落式熔断器后段","poweroffReason":"1、拆除凤川移民村1号公变杆上配电箱及出线电缆、调换移民村1号公变城西线出线电缆及集束电缆敷设、搭接工作；2、凤川移民村3号公变电缆搭接、营南线营东分线调换导线三档及集束电缆敷设、搭接。","powerTime":"2020-04-29 14:10:26","powerComm":"已送电","subsNo":"","lineNo":"","tgNo":"","tgName":null,"infoStatus":"1","orgName":"国网浙江桐庐县供电公司","typeName":null,"infoStatusName":null,"dateDay":null,"orgNos":null,"nowTime":null,"countyName":null,"streetName":null,"villageName":null,"roadName":null,"communityName":null,"tranName":null,"sdLineName":null,"cityCode":"3340150","cityName":"国网浙江桐庐县供电公司","provinceCode":null,"stopTime":"2020-04-29 14:30:00","powerType":"全部","powerOffArea":"110kV旺家变:家东T565线-凤川移民村1号公变10kV跌落式熔断器后段","powerOffReason":"1、拆除凤川移民村1号公变杆上配电箱及出线电缆、调换移民村1号公变城西线出线电缆及集束电缆敷设、搭接工作；2、凤川移民村3号公变电缆搭接、营南线营东分线调换导线三档及集束电缆敷设、搭接。","powerOffId":"2020041831020063"},{"poweroffId":2020041831020062,"sgpoweroffId":null,"subsName":"","lineName":"10kV三鑫T277线","pubTranName":"东下坞村1号公变,","scope":"浙江省-杭州市-桐庐县-凤川街道-大源行政村-东下坞自然村","startTime":"2020-04-29 09:00:00","stopDate":"2020-04-29 14:30:00","orgNo":"3340150","typeCode":"计划停电","poweroffArea":"110kV石阜变:三鑫T277线-东坞F7258令克后段","poweroffReason":"1、拆除10KV三鑫T277线东下坞分线及配变移位工作（带电作业配合）；2、东下坞村1号公变东下坞1000线、村里1100线杆上集束导线搭接、表计电缆搭接工作","powerTime":"2020-04-29 14:21:55","powerComm":"已送电","subsNo":"","lineNo":"","tgNo":"","tgName":null,"infoStatus":"1","orgName":"国网浙江桐庐县供电公司","typeName":null,"infoStatusName":null,"dateDay":null,"orgNos":null,"nowTime":null,"countyName":null,"streetName":null,"villageName":null,"roadName":null,"communityName":null,"tranName":null,"sdLineName":null,"cityCode":"3340150","cityName":"国网浙江桐庐县供电公司","provinceCode":null,"stopTime":"2020-04-29 14:30:00","powerType":"全部","powerOffArea":"110kV石阜变:三鑫T277线-东坞F7258令克后段","powerOffReason":"1、拆除10KV三鑫T277线东下坞分线及配变移位工作（带电作业配合）；2、东下坞村1号公变东下坞1000线、村里1100线杆上集束导线搭接、表计电缆搭接工作","powerOffId":"2020041831020062"},{"poweroffId":2020041831020058,"sgpoweroffId":null,"subsName":"","lineName":"10kV临西V496线","pubTranName":"西墅2＃公变,","scope":"浙江省-杭州市-临安市-锦北街道-西墅社区-大梁山庄附近","startTime":"2020-04-30 08:20:00","stopDate":"2020-04-30 12:00:00","orgNo":"3340160","typeCode":"计划停电","poweroffArea":"110kV平山变:临西V496线-西墅2＃公变低压总闸刀后段","poweroffReason":"(低压停电信息)开关安装","powerTime":"2020-04-30 11:50:35","powerComm":"已送电","subsNo":"","lineNo":"","tgNo":"","tgName":null,"infoStatus":"1","orgName":"国网浙江临安市供电公司","typeName":null,"infoStatusName":null,"dateDay":null,"orgNos":null,"nowTime":null,"countyName":null,"streetName":null,"villageName":null,"roadName":null,"communityName":null,"tranName":null,"sdLineName":null,"cityCode":"3340160","cityName":"国网浙江临安市供电公司","provinceCode":null,"stopTime":"2020-04-30 12:00:00","powerType":"全部","powerOffArea":"110kV平山变:临西V496线-西墅2＃公变低压总闸刀后段","powerOffReason":"(低压停电信息)开关安装","powerOffId":"2020041831020058"},{"poweroffId":2020041831020057,"sgpoweroffId":null,"subsName":"","lineName":"10kV置北9941线","pubTranName":"姚家塘,","scope":"浙江省-杭州市-西湖区-绕城村社区-双桥路-绕城村-柴家坝村","startTime":"2020-04-18 09:23:04","stopDate":"2020-04-18 10:36:04","orgNo":"3340101","typeCode":"电网故障停限电","poweroffArea":"110kV墩北变:置北9941线-10千伏置北9941线置北站柴家坝分线开关后段","poweroffReason":"高压开关跳闸原停电结束时间为2020-04-1816:23:04,为减少客户停电时间,加快工作进度,提前送电,现变更停电结束时间为2020-04-1810:36:04","powerTime":"2020-04-18 10:07:43","powerComm":"已送电","subsNo":"","lineNo":"","tgNo":"","tgName":null,"infoStatus":"1","orgName":"浙江杭州电力客户服务中心","typeName":null,"infoStatusName":null,"dateDay":null,"orgNos":null,"nowTime":null,"countyName":null,"streetName":null,"villageName":null,"roadName":null,"communityName":null,"tranName":null,"sdLineName":null,"cityCode":"3340101","cityName":"浙江杭州电力客户服务中心","provinceCode":null,"stopTime":"2020-04-18 10:36:04","powerType":"全部","powerOffArea":"110kV墩北变:置北9941线-10千伏置北9941线置北站柴家坝分线开关后段","powerOffReason":"高压开关跳闸原停电结束时间为2020-04-1816:23:04,为减少客户停电时间,加快工作进度,提前送电,现变更停电结束时间为2020-04-1810:36:04","powerOffId":"2020041831020057"},{"poweroffId":2020041831020055,"sgpoweroffId":null,"subsName":"","lineName":"10kV东蒋9262线","pubTranName":"金穗,市场,木桥,味宿,兴隆,区委,永芳,金南,","scope":"浙江省-杭州市-西湖区-三墩镇-五里塘社区(三墩街,五里塘路,庙前街,双港路),-庙前街社区(庙前街,西河口路,厚诚路,中学弄,陈家桥南街,范家湾,双港路)(绕城村-,新星社区-三墩街,金禹社区-通济路)","startTime":"2020-04-18 09:08:58","stopDate":"2020-04-18 16:08:58","orgNo":"3340101","typeCode":"电网故障停限电","poweroffArea":"110kV三墩变:东蒋9262线-10千伏南洋8054线永芳分线开关后段","poweroffReason":"高压开关跳闸","powerTime":"2020-04-18 15:11:37","powerComm":"已送电","subsNo":"","lineNo":"","tgNo":"","tgName":null,"infoStatus":"1","orgName":"浙江杭州电力客户服务中心","typeName":null,"infoStatusName":null,"dateDay":null,"orgNos":null,"nowTime":null,"countyName":null,"streetName":null,"villageName":null,"roadName":null,"communityName":null,"tranName":null,"sdLineName":null,"cityCode":"3340101","cityName":"浙江杭州电力客户服务中心","provinceCode":null,"stopTime":"2020-04-18 16:08:58","powerType":"全部","powerOffArea":"110kV三墩变:东蒋9262线-10千伏南洋8054线永芳分线开关后段","powerOffReason":"高压开关跳闸","powerOffId":"2020041831020055"},{"poweroffId":2020041831020053,"sgpoweroffId":null,"subsName":"","lineName":"10kV浦村6679线","pubTranName":"浦横,遗址施1#,南郊二,消防,大浦三,潘家五,镇西二,森翔,蒋家,镇西,功臣,电化,浦幼,潘家六,潘家,工业遗址1#,功臣二,庙新二,横塘二,横塘一,横塘六,功臣三,里曹,横塘四,沿江公园施1#,沿江公园施2#,潘家一变,富前二,工业遗址2#,潘家七,1#,浦寓二变,遗址施2#,","scope":"浙江省-杭州市-滨江区-浦沿街道-浦联村社区(浦沿路)-浦联社区(东冠路,浦联村)-新浦社区(新浦路,镇前路,浦沿公寓),西兴街道(西陵社区-固陵路,马湖社区-马湖路,襄七房社区-滨安路),(新生社区-新生路,山二村社区-火炬大道,联庄社区-江南大道),长河街道(山一村社区-汤家桥社区-汤家桥,江二社区-,长一社区-天官社区-天官路,长二社区-长二,塘子堰社区-塘子堰)","startTime":"2020-04-18 09:04:49","stopDate":"2020-04-18 10:50:49","orgNo":"3340101","typeCode":"电网故障停限电","poweroffArea":"110kV浦沿变:浦村6679线","poweroffReason":"高压开关跳闸原停电结束时间为2020-04-1816:04:49,为减少客户停电时间,加快工作进度,提前送电,现变更停电结束时间为2020-04-1810:50:49","powerTime":"2020-04-18 10:31:44","powerComm":"已送电","subsNo":"","lineNo":"","tgNo":"","tgName":null,"infoStatus":"1","orgName":"浙江杭州电力客户服务中心","typeName":null,"infoStatusName":null,"dateDay":null,"orgNos":null,"nowTime":null,"countyName":null,"streetName":null,"villageName":null,"roadName":null,"communityName":null,"tranName":null,"sdLineName":null,"cityCode":"3340101","cityName":"浙江杭州电力客户服务中心","provinceCode":null,"stopTime":"2020-04-18 10:50:49","powerType":"全部","powerOffArea":"110kV浦沿变:浦村6679线","powerOffReason":"高压开关跳闸原停电结束时间为2020-04-1816:04:49,为减少客户停电时间,加快工作进度,提前送电,现变更停电结束时间为2020-04-1810:50:49","powerOffId":"2020041831020053"}],"pageModel":{"pageNow":315,"totalCount":17788,"totalPage":1779,"tableRows":0,"pageCount":10,"beginCount":3140},"isExperi":"1"}