{"message":"","today":"2020-06-15","seleList":[{"poweroffId":2020041831020049,"sgpoweroffId":null,"subsName":"","lineName":"10kV宫前D603线","pubTranName":"蒋家村蒋家5#五圣堂公变,","scope":"浙江省-杭州市-富阳区-大源镇(蒋家行政村-蒋家自然村,亭山行政村-东升自然村,稠溪行政村-春一自然村)","startTime":"2020-04-18 08:57:41","stopDate":"2020-04-18 09:57:41","orgNo":"3340170","typeCode":"电网故障停限电","poweroffArea":"35kV溪东变:宫前D603线-蒋家村蒋家5#五圣堂公变后段","poweroffReason":"(低压停电信息)低压开关跳闸","powerTime":"2020-04-18 09:30:52","powerComm":"已送电","subsNo":"","lineNo":"","tgNo":"","tgName":null,"infoStatus":"1","orgName":"国网浙江杭州市富阳区供电公司","typeName":null,"infoStatusName":null,"dateDay":null,"orgNos":null,"nowTime":null,"countyName":null,"streetName":null,"villageName":null,"roadName":null,"communityName":null,"tranName":null,"sdLineName":null,"cityCode":"3340170","cityName":"国网浙江杭州市富阳区供电公司","provinceCode":null,"stopTime":"2020-04-18 09:57:41","powerType":"全部","powerOffArea":"35kV溪东变:宫前D603线-蒋家村蒋家5#五圣堂公变后段","powerOffReason":"(低压停电信息)低压开关跳闸","powerOffId":"2020041831020049"},{"poweroffId":2020041831020047,"sgpoweroffId":null,"subsName":"","lineName":"10kV沿江C619线","pubTranName":"沿江村8#变,","scope":"浙江省-杭州市-萧山区-新街镇、新街街道-沿江行政村-沿江自然村等一带","startTime":"2020-04-18 08:44:37","stopDate":"2020-04-18 12:15:37","orgNo":"3340130","typeCode":"电网故障停限电","poweroffArea":"110kV新街变:沿江C619线-沿江村8#变台区低压开关","poweroffReason":"（低压停电信息）低压漏电保护器短路故障","powerTime":"2020-04-18 11:20:31","powerComm":"已送电","subsNo":"","lineNo":"","tgNo":"","tgName":null,"infoStatus":"1","orgName":"国网浙江杭州市萧山区供电有限公司","typeName":null,"infoStatusName":null,"dateDay":null,"orgNos":null,"nowTime":null,"countyName":null,"streetName":null,"villageName":null,"roadName":null,"communityName":null,"tranName":null,"sdLineName":null,"cityCode":"3340130","cityName":"国网浙江杭州市萧山区供电有限公司","provinceCode":null,"stopTime":"2020-04-18 12:15:37","powerType":"全部","powerOffArea":"110kV新街变:沿江C619线-沿江村8#变台区低压开关","powerOffReason":"（低压停电信息）低压漏电保护器短路故障","powerOffId":"2020041831020047"},{"poweroffId":2020041831020046,"sgpoweroffId":null,"subsName":"","lineName":"10kV陈园C841线","pubTranName":"陈家园村11#变,","scope":"浙江省-杭州市-萧山区-新街镇、新街街道-陈家园行政村-陈家园自然村等一带","startTime":"2020-04-18 08:34:36","stopDate":"2020-04-18 13:00:36","orgNo":"3340130","typeCode":"电网故障停限电","poweroffArea":"110kV罗山变:陈园C841线-陈家园村11#变台区低压开关","poweroffReason":"（低压停电信息）低压漏电保护器短路故障原停电结束时间为2020-04-1817:30:36,为减少客户停电时间,加快工作进度,提前送电,现变更停电结束时间为2020-04-1813:00:36","powerTime":"2020-04-18 12:07:12","powerComm":"已送电","subsNo":"","lineNo":"","tgNo":"","tgName":null,"infoStatus":"1","orgName":"国网浙江杭州市萧山区供电有限公司","typeName":null,"infoStatusName":null,"dateDay":null,"orgNos":null,"nowTime":null,"countyName":null,"streetName":null,"villageName":null,"roadName":null,"communityName":null,"tranName":null,"sdLineName":null,"cityCode":"3340130","cityName":"国网浙江杭州市萧山区供电有限公司","provinceCode":null,"stopTime":"2020-04-18 13:00:36","powerType":"全部","powerOffArea":"110kV罗山变:陈园C841线-陈家园村11#变台区低压开关","powerOffReason":"（低压停电信息）低压漏电保护器短路故障原停电结束时间为2020-04-1817:30:36,为减少客户停电时间,加快工作进度,提前送电,现变更停电结束时间为2020-04-1813:00:36","powerOffId":"2020041831020046"},{"poweroffId":2020041831020044,"sgpoweroffId":null,"subsName":"","lineName":"10kV瓜港A078线","pubTranName":"沙田头村4#变,","scope":"浙江省-杭州市-萧山区-瓜沥镇-沙田头行政村-沙田头自然村等","startTime":"2020-04-18 08:30:05","stopDate":"2020-04-18 10:05:05","orgNo":"3340130","typeCode":"电网故障停限电","poweroffArea":"110kV航坞变:瓜港A078线-沙田头村4#变台区低压开关","poweroffReason":"(低压停电信息)低压漏电保护器跳闸原停电结束时间为2020-04-1811:30:05,为减少客户停电时间,加快工作进度,提前送电,现变更停电结束时间为2020-04-1810:05:05","powerTime":"2020-04-18 09:10:02","powerComm":"已送电","subsNo":"","lineNo":"","tgNo":"","tgName":null,"infoStatus":"1","orgName":"国网浙江杭州市萧山区供电有限公司","typeName":null,"infoStatusName":null,"dateDay":null,"orgNos":null,"nowTime":null,"countyName":null,"streetName":null,"villageName":null,"roadName":null,"communityName":null,"tranName":null,"sdLineName":null,"cityCode":"3340130","cityName":"国网浙江杭州市萧山区供电有限公司","provinceCode":null,"stopTime":"2020-04-18 10:05:05","powerType":"全部","powerOffArea":"110kV航坞变:瓜港A078线-沙田头村4#变台区低压开关","powerOffReason":"(低压停电信息)低压漏电保护器跳闸原停电结束时间为2020-04-1811:30:05,为减少客户停电时间,加快工作进度,提前送电,现变更停电结束时间为2020-04-1810:05:05","powerOffId":"2020041831020044"},{"poweroffId":2020041831020043,"sgpoweroffId":null,"subsName":"","lineName":"10kV凤凰D586线","pubTranName":"富阳市高桥镇长山五金配件厂,长山村9号村委口公变,长山村7号施家公变,富阳市荣业印刷有限公司,长山村10号村委口2公变,长山村1号公变,长山村2#凤凰山公变,长山村8#车子坞东公变,长山村3号小长山公变,长山村5号车子坞公变,","scope":"浙江省-杭州市-富阳区-银湖街道-高桥行政村-高桥自然村,银湖街道-观前行政村(长山自然村,大长山自然村,观前自然村,凤凰山脚自然村,周公坞自然村,长山凤凰山自然村,车子坞自然村);银湖街道(杭州顾安仪表配件厂,杭州富阳荣业印刷有限公司)","startTime":"2020-04-18 08:28:00","stopDate":"2020-04-18 12:00:00","orgNo":"3340170","typeCode":"电网故障停限电","poweroffArea":"110kV高桥变:凤凰D586线凤凰D5861开关后段","poweroffReason":"高压开关跳闸原停电结束时间为2020-04-1810:28:00,因施工复杂原因,延迟送电,现变更停电结束时间为2020-04-1812:00:00","powerTime":"2020-04-18 11:13:02","powerComm":"已送电","subsNo":"","lineNo":"","tgNo":"","tgName":null,"infoStatus":"1","orgName":"国网浙江杭州市富阳区供电公司","typeName":null,"infoStatusName":null,"dateDay":null,"orgNos":null,"nowTime":null,"countyName":null,"streetName":null,"villageName":null,"roadName":null,"communityName":null,"tranName":null,"sdLineName":null,"cityCode":"3340170","cityName":"国网浙江杭州市富阳区供电公司","provinceCode":null,"stopTime":"2020-04-18 12:00:00","powerType":"全部","powerOffArea":"110kV高桥变:凤凰D586线凤凰D5861开关后段","powerOffReason":"高压开关跳闸原停电结束时间为2020-04-1810:28:00,因施工复杂原因,延迟送电,现变更停电结束时间为2020-04-1812:00:00","powerOffId":"2020041831020043"},{"poweroffId":2020041831020015,"sgpoweroffId":null,"subsName":"","lineName":"10kV胜峰T335线","pubTranName":"板头村2号公变,","scope":"浙江省-杭州市-桐庐县-横村镇-横村行政村-富乐自然村,横村镇-板头行政村板头(木桥头自然村,板头自然村)","startTime":"2020-04-18 06:51:25","stopDate":"2020-04-18 09:48:28","orgNo":"3340150","typeCode":"电网故障停限电","poweroffArea":"110kV横村变:胜峰T335线-板头村2号公变后段","poweroffReason":"(低压停电信息)低压开关跳闸","powerTime":"2020-04-18 09:19:18","powerComm":"已送电","subsNo":"","lineNo":"","tgNo":"","tgName":null,"infoStatus":"1","orgName":"国网浙江桐庐县供电公司","typeName":null,"infoStatusName":null,"dateDay":null,"orgNos":null,"nowTime":null,"countyName":null,"streetName":null,"villageName":null,"roadName":null,"communityName":null,"tranName":null,"sdLineName":null,"cityCode":"3340150","cityName":"国网浙江桐庐县供电公司","provinceCode":null,"stopTime":"2020-04-18 09:48:28","powerType":"全部","powerOffArea":"110kV横村变:胜峰T335线-板头村2号公变后段","powerOffReason":"(低压停电信息)低压开关跳闸","powerOffId":"2020041831020015"},{"poweroffId":2020041831020014,"sgpoweroffId":null,"subsName":"","lineName":"10kV洛山G259线","pubTranName":"花园村长坝儿北公变,花园村下星桥北公变,花园村马庄桥公变,花园村计介斗北公变,花园村河金坝公变,花园雅居2#公变,多层公寓建设管理中心变压器2,花园村计家斗北2号公变,杭州市余杭区人民政府仁和街道办事处612084005601#专变,多层公寓建设管理中心变压器,花园村长坝儿2#公变,宏熹布业,花园村马介圩公变,花园雅居8#公变,花园雅居4#公变,杭州市余杭区人民政府仁和街道办事处612084954901#专变,花园村新科圩2号公变,花园村计家斗东公变,双陈村钮家塘1#公变,花园村新科圩公变,仁和镇花园村马口闸站,花园村河儿塘公变,花园村长坝儿中公变,杭州市余杭区人民政府仁和街道办事处612084005601#专变,花园雅居1#公变,花园雅居6#公变,花园村夏介桥公变,花园村计家斗公变,花园村河儿塘2号公变,花园雅居5#公变,花园雅居3#公变,花园雅居7#公变,花园村长坝儿公变,花园村计林公变,花园村杨介斗公变,花园村杨家斗东公变,","scope":"浙江省-杭州市-余杭区-仁和街道-双陈行政村(计家坝自然村,鱼家坝自然村,姚家坝自然村,钮家塘自然村),仁和街道-花园行政村(长坝儿自然村,河儿塘自然村,计家斗自然村,河经坝自然村,杨家斗自然村,夏家桥自然村,马庄坝自然村,花园村,和尚坝自然村,章桥自然村,下星桥自然村,林家斗自然村,新科圩自然村,蔡家角自然村,马家圩自然村,陈章路),仁和街道(九龙行政村-丁家门自然村,渔公桥行政村-东杨家斗自然村);仁和街道(杭州市余杭区人民政府仁和街道办事处,杭州宏熹布艺有限公司,仁和镇花园村马口闸站,杭州恩玮物业管理有限公司)","startTime":"2020-04-18 06:09:00","stopDate":"2020-04-18 09:40:00","orgNo":"3340140","typeCode":"电网故障停限电","poweroffArea":"110kV仁镇变:洛山G259线云和环网站云和环网站云花分线后段","poweroffReason":"高压开关跳闸原停电结束时间为2020-04-1808:09:00,因故障复杂原因,延迟送电,现变更停电结束时间为2020-04-1809:40:00","powerTime":"2020-04-18 08:55:00","powerComm":"已送电","subsNo":"","lineNo":"","tgNo":"","tgName":null,"infoStatus":"1","orgName":"国网浙江杭州市余杭区供电有限公司","typeName":null,"infoStatusName":null,"dateDay":null,"orgNos":null,"nowTime":null,"countyName":null,"streetName":null,"villageName":null,"roadName":null,"communityName":null,"tranName":null,"sdLineName":null,"cityCode":"3340140","cityName":"国网浙江杭州市余杭区供电有限公司","provinceCode":null,"stopTime":"2020-04-18 09:40:00","powerType":"全部","powerOffArea":"110kV仁镇变:洛山G259线云和环网站云和环网站云花分线后段","powerOffReason":"高压开关跳闸原停电结束时间为2020-04-1808:09:00,因故障复杂原因,延迟送电,现变更停电结束时间为2020-04-1809:40:00","powerOffId":"2020041831020014"},{"poweroffId":2020041831020011,"sgpoweroffId":null,"subsName":"","lineName":"10kV西周C950线","pubTranName":"新联村7#变,","scope":"浙江省-杭州市-萧山区-临浦镇-新联行政村-塘头钟自然村等","startTime":"2020-04-18 05:23:00","stopDate":"2020-04-18 07:40:00","orgNo":"3340130","typeCode":"电网故障停限电","poweroffArea":"110kV永兴变:西周C950线新联村7#变低压开关","poweroffReason":"(低压停电信息)低压漏电保护器跳闸原停电结束时间为2020-04-1808:23:00,为减少客户停电时间,加快工作进度,提前送电,现变更停电结束时间为2020-04-1807:40:00","powerTime":"2020-04-18 07:00:12","powerComm":"已送电","subsNo":"","lineNo":"","tgNo":"","tgName":null,"infoStatus":"1","orgName":"国网浙江杭州市萧山区供电有限公司","typeName":null,"infoStatusName":null,"dateDay":null,"orgNos":null,"nowTime":null,"countyName":null,"streetName":null,"villageName":null,"roadName":null,"communityName":null,"tranName":null,"sdLineName":null,"cityCode":"3340130","cityName":"国网浙江杭州市萧山区供电有限公司","provinceCode":null,"stopTime":"2020-04-18 07:40:00","powerType":"全部","powerOffArea":"110kV永兴变:西周C950线新联村7#变低压开关","powerOffReason":"(低压停电信息)低压漏电保护器跳闸原停电结束时间为2020-04-1808:23:00,为减少客户停电时间,加快工作进度,提前送电,现变更停电结束时间为2020-04-1807:40:00","powerOffId":"2020041831020011"},{"poweroffId":2020041831020003,"sgpoweroffId":null,"subsName":"","lineName":"10kV传化C543线","pubTranName":"喜加乐商务酒店,中佳纺织,杭州市萧山区市政园林公用事业管理处（传化）,宁新村3#变,威玛轴承,宁牧村22#变,文堂橡塑,全盛纺织,宁新村30#变,宁新,杭通汽车轴承,宁鑫轴承,宁新村19#变,光富汽车,宁新村20#变,科峰轴承,宁新村4#变,宁新村18#变,传化集团3#,宁牧村3#变,","scope":"浙江省-杭州市-萧山区-宁围镇-宁围街道(宁牧行政村-宁牧自然村,宁新行政村-宁新自然村);宁围街道(杭州科峰轴承有限公司,杭州市萧山区人民政府宁围街道办事处,浙江中佳纺织有限公司,杭州萧山文堂橡塑制品有限公司,杭州佑军机械有限公司,杭州东展科技服务有限公司,杭州全盛纺织有限公司,杭州光富汽车配件厂,杭州杭通汽车轴承有限公司,杭州威玛轴承制造有限公司,浙江东风南方宁新汽车销售服务有限公司,杭州市萧山区市政绿化养护保障中心)等一带","startTime":"2020-04-18 01:13:00","stopDate":"2020-04-18 03:35:00","orgNo":"3340130","typeCode":"电网故障停限电","poweroffArea":"35kV钱江变:传化C543线传化C543线传北分线开关后段","poweroffReason":"高压柱上断路器短路故障原停电结束时间为2020-04-1807:30:00,为减少客户停电时间,加快工作进度,提前送电,现变更停电结束时间为2020-04-1803:35:00","powerTime":"2020-04-18 02:37:45","powerComm":"已送电","subsNo":"","lineNo":"","tgNo":"","tgName":null,"infoStatus":"1","orgName":"国网浙江杭州市萧山区供电有限公司","typeName":null,"infoStatusName":null,"dateDay":null,"orgNos":null,"nowTime":null,"countyName":null,"streetName":null,"villageName":null,"roadName":null,"communityName":null,"tranName":null,"sdLineName":null,"cityCode":"3340130","cityName":"国网浙江杭州市萧山区供电有限公司","provinceCode":null,"stopTime":"2020-04-18 03:35:00","powerType":"全部","powerOffArea":"35kV钱江变:传化C543线传化C543线传北分线开关后段","powerOffReason":"高压柱上断路器短路故障原停电结束时间为2020-04-1807:30:00,为减少客户停电时间,加快工作进度,提前送电,现变更停电结束时间为2020-04-1803:35:00","powerOffId":"2020041831020003"},{"poweroffId":2020041831020002,"sgpoweroffId":null,"subsName":"","lineName":"10kV经管G175线","pubTranName":"荣臣皮具,横塘河闸站,碧海印刷,新纪元安全用品,恒业包装,横塘支路基建变,320国道唐宁路叉口路灯变,杭州老板电器股份有限公司,杭州余杭横塘股份经济合作社,老板电器2#变,杭州山鹰纸业配变,恒业包装2,","scope":"浙江省-杭州市-余杭区-经济开发区(杭州市余杭区城市管理综合行政执法局,杭州新纪元安全产品有限公司),东湖街道(杭州余杭经济开发建设有限公司,杭州余杭横塘股份经济合作社,杭州东南印务有限公司,杭州市余杭区河道建设管理中心,祥恒(杭州)包装有限公司,荣臣(杭州)皮具有限公司,浙江碧海实业有限公司,杭州老板电器股份有限公司)","startTime":"2020-04-18 00:14:00","stopDate":"2020-04-18 02:14:00","orgNo":"3340140","typeCode":"电网故障停限电","poweroffArea":"110kV丘山变:经管G175线经管G1751开关后段","poweroffReason":"高压开关跳闸","powerTime":"2020-04-18 01:28:00","powerComm":"已送电","subsNo":"","lineNo":"","tgNo":"","tgName":null,"infoStatus":"1","orgName":"国网浙江杭州市余杭区供电有限公司","typeName":null,"infoStatusName":null,"dateDay":null,"orgNos":null,"nowTime":null,"countyName":null,"streetName":null,"villageName":null,"roadName":null,"communityName":null,"tranName":null,"sdLineName":null,"cityCode":"3340140","cityName":"国网浙江杭州市余杭区供电有限公司","provinceCode":null,"stopTime":"2020-04-18 02:14:00","powerType":"全部","powerOffArea":"110kV丘山变:经管G175线经管G1751开关后段","powerOffReason":"高压开关跳闸","powerOffId":"2020041831020002"}],"pageModel":{"pageNow":316,"totalCount":17788,"totalPage":1779,"tableRows":0,"pageCount":10,"beginCount":3150},"isExperi":"1"}