{"message":"","today":"2020-06-15","seleList":[{"poweroffId":2020041731020584,"sgpoweroffId":null,"subsName":"","lineName":"10kV潘家T403线","pubTranName":"桐庐民生文教塑品有限公司,杭州小来大农业开发集团有限公司变压器,桐庐恒盛磁业有限公司,","scope":"浙江省-杭州市-桐庐县-城南街道-下杭社区-杭州小来大农业开发集团有限公司,城南街道-金中行政村(桐庐恒盛磁业有限公司,桐庐民生文教塑品有限公司)","startTime":"2020-04-27 09:00:00","stopDate":"2020-04-27 18:05:00","orgNo":"3340150","typeCode":"计划停电","poweroffArea":"110kV枫塘变:潘家T403线-华鑫F0734开关后段","poweroffReason":"电力线路入地 原停电结束时间为2020-04-27 17:05:00,因天气原因,延迟送电,现变更停电结束时间为2020-04-27 18:05:00","powerTime":"2020-04-27 17:41:02","powerComm":"已送电","subsNo":"","lineNo":"","tgNo":"","tgName":null,"infoStatus":"1","orgName":"国网浙江桐庐县供电公司","typeName":null,"infoStatusName":null,"dateDay":null,"orgNos":null,"nowTime":null,"countyName":null,"streetName":null,"villageName":null,"roadName":null,"communityName":null,"tranName":null,"sdLineName":null,"cityCode":"3340150","cityName":"国网浙江桐庐县供电公司","provinceCode":null,"stopTime":"2020-04-27 18:05:00","powerType":"全部","powerOffArea":"110kV枫塘变:潘家T403线-华鑫F0734开关后段","powerOffReason":"电力线路入地 原停电结束时间为2020-04-27 17:05:00,因天气原因,延迟送电,现变更停电结束时间为2020-04-27 18:05:00","powerOffId":"2020041731020584"},{"poweroffId":2020041731020583,"sgpoweroffId":null,"subsName":"","lineName":"10kV潘家T403线","pubTranName":"中联新村委2号公变,","scope":"浙江省-杭州市-桐庐县-城南街道-金溪行政村(陈家自然村,中联自然村,峙山自然村)","startTime":"2020-04-27 09:00:00","stopDate":"2020-04-27 18:05:00","orgNo":"3340150","typeCode":"计划停电","poweroffArea":"110kV枫塘变:潘家T403线-中联新村委2号公变线后段","poweroffReason":"电力线路入地 原停电结束时间为2020-04-27 17:05:00,因天气原因,延迟送电,现变更停电结束时间为2020-04-27 18:05:00","powerTime":"2020-04-27 17:41:16","powerComm":"已送电","subsNo":"","lineNo":"","tgNo":"","tgName":null,"infoStatus":"1","orgName":"国网浙江桐庐县供电公司","typeName":null,"infoStatusName":null,"dateDay":null,"orgNos":null,"nowTime":null,"countyName":null,"streetName":null,"villageName":null,"roadName":null,"communityName":null,"tranName":null,"sdLineName":null,"cityCode":"3340150","cityName":"国网浙江桐庐县供电公司","provinceCode":null,"stopTime":"2020-04-27 18:05:00","powerType":"全部","powerOffArea":"110kV枫塘变:潘家T403线-中联新村委2号公变线后段","powerOffReason":"电力线路入地 原停电结束时间为2020-04-27 17:05:00,因天气原因,延迟送电,现变更停电结束时间为2020-04-27 18:05:00","powerOffId":"2020041731020583"},{"poweroffId":2020041731020581,"sgpoweroffId":null,"subsName":"","lineName":"10kV潘家T403线","pubTranName":"潘家1号公变,桐庐惠安大药房连锁有限公司变压器,","scope":"浙江省-杭州市-桐庐县-城南街道-金溪行政村(中联自然村,潘家自然村)","startTime":"2020-04-28 09:00:00","stopDate":"2020-04-28 15:30:00","orgNo":"3340150","typeCode":"计划停电","poweroffArea":"110kV枫塘变:潘家T403线-中联F0426后段;潘家T403线-保森F0213开关后段","poweroffReason":"电力线路入地 原停电结束时间为2020-04-28 14:30:00,因人员配备不足原因,延迟送电,现变更停电结束时间为2020-04-28 15:30:00","powerTime":"2020-04-28 15:12:23","powerComm":"已送电","subsNo":"","lineNo":"","tgNo":"","tgName":null,"infoStatus":"1","orgName":"国网浙江桐庐县供电公司","typeName":null,"infoStatusName":null,"dateDay":null,"orgNos":null,"nowTime":null,"countyName":null,"streetName":null,"villageName":null,"roadName":null,"communityName":null,"tranName":null,"sdLineName":null,"cityCode":"3340150","cityName":"国网浙江桐庐县供电公司","provinceCode":null,"stopTime":"2020-04-28 15:30:00","powerType":"全部","powerOffArea":"110kV枫塘变:潘家T403线-中联F0426后段;潘家T403线-保森F0213开关后段","powerOffReason":"电力线路入地 原停电结束时间为2020-04-28 14:30:00,因人员配备不足原因,延迟送电,现变更停电结束时间为2020-04-28 15:30:00","powerOffId":"2020041731020581"},{"poweroffId":2020041731020580,"sgpoweroffId":null,"subsName":"","lineName":"10kV湾里T414线","pubTranName":"春江长山头1号公变,","scope":"浙江省-杭州市-桐庐县-城南街道-春江行政村(春江自然村,江联自然村)","startTime":"2020-04-30 09:00:00","stopDate":"2020-04-30 12:00:00","orgNo":"3340150","typeCode":"计划停电","poweroffArea":"110kV枫塘变:湾里T414线-长山F0471后段","poweroffReason":"老旧线路改造","powerTime":"2020-04-30 11:30:47","powerComm":"已送电","subsNo":"","lineNo":"","tgNo":"","tgName":null,"infoStatus":"1","orgName":"国网浙江桐庐县供电公司","typeName":null,"infoStatusName":null,"dateDay":null,"orgNos":null,"nowTime":null,"countyName":null,"streetName":null,"villageName":null,"roadName":null,"communityName":null,"tranName":null,"sdLineName":null,"cityCode":"3340150","cityName":"国网浙江桐庐县供电公司","provinceCode":null,"stopTime":"2020-04-30 12:00:00","powerType":"全部","powerOffArea":"110kV枫塘变:湾里T414线-长山F0471后段","powerOffReason":"老旧线路改造","powerOffId":"2020041731020580"},{"poweroffId":2020041731020577,"sgpoweroffId":null,"subsName":"","lineName":"10kV申能D793线","pubTranName":"杭州富阳申能固废环保再生有限公司3#变,杭州富阳申能固废环保再生有限公司1#变,杭州富阳申能固废环保再生有限公司5#变,","scope":"浙江省-杭州市-富阳区-环山乡-中兴行政村-杭州富阳申能固废环保再生有限公司","startTime":"2020-04-22 08:30:00","stopDate":"2020-04-22 12:30:00","orgNo":"3340170","typeCode":"临时停电","poweroffArea":"110kV王洲变:申能D793线","poweroffReason":"申能D793线低周保护改定值","powerTime":"2020-04-22 12:14:56","powerComm":"已送电","subsNo":"","lineNo":"","tgNo":"","tgName":null,"infoStatus":"1","orgName":"国网浙江杭州市富阳区供电公司","typeName":null,"infoStatusName":null,"dateDay":null,"orgNos":null,"nowTime":null,"countyName":null,"streetName":null,"villageName":null,"roadName":null,"communityName":null,"tranName":null,"sdLineName":null,"cityCode":"3340170","cityName":"国网浙江杭州市富阳区供电公司","provinceCode":null,"stopTime":"2020-04-22 12:30:00","powerType":"全部","powerOffArea":"110kV王洲变:申能D793线","powerOffReason":"申能D793线低周保护改定值","powerOffId":"2020041731020577"},{"poweroffId":2020041731020576,"sgpoweroffId":null,"subsName":"","lineName":"10kV固废D796线","pubTranName":"杭州富阳申能固废环保再生有限公司7#变,杭州富阳申能固废环保再生有限公司2#变,杭州富阳申能固废环保再生有限公司4#变,杭州富阳申能固废环保再生有限公司6#变,","scope":"浙江省-杭州市-富阳区-环山乡-中兴行政村-杭州富阳申能固废环保再生有限公司","startTime":"2020-04-22 08:30:00","stopDate":"2020-04-22 12:30:00","orgNo":"3340170","typeCode":"临时停电","poweroffArea":"110kV王洲变:固废D796线-固废D796线开关后段","poweroffReason":"固废D796线低周保护改定值","powerTime":"2020-04-22 12:14:45","powerComm":"已送电","subsNo":"","lineNo":"","tgNo":"","tgName":null,"infoStatus":"1","orgName":"国网浙江杭州市富阳区供电公司","typeName":null,"infoStatusName":null,"dateDay":null,"orgNos":null,"nowTime":null,"countyName":null,"streetName":null,"villageName":null,"roadName":null,"communityName":null,"tranName":null,"sdLineName":null,"cityCode":"3340170","cityName":"国网浙江杭州市富阳区供电公司","provinceCode":null,"stopTime":"2020-04-22 12:30:00","powerType":"全部","powerOffArea":"110kV王洲变:固废D796线-固废D796线开关后段","powerOffReason":"固废D796线低周保护改定值","powerOffId":"2020041731020576"},{"poweroffId":2020041731020551,"sgpoweroffId":null,"subsName":"","lineName":"10kV尖山A538线","pubTranName":"谢家村11#变,","scope":"浙江省-杭州市-萧山区-浦阳镇-谢家行政村-谢家自然村等","startTime":"2020-04-17 17:06:48","stopDate":"2020-04-17 19:30:48","orgNo":"3340130","typeCode":"电网故障停限电","poweroffArea":"110kV浦阳变:尖山A538线-谢家村11#变低压开关","poweroffReason":"(低压停电信息)低压漏电保护器跳闸原停电结束时间为2020-04-1722:00:48,为减少客户停电时间,加快工作进度,提前送电,现变更停电结束时间为2020-04-1719:30:48","powerTime":"2020-04-17 18:33:31","powerComm":"已送电","subsNo":"","lineNo":"","tgNo":"","tgName":null,"infoStatus":"1","orgName":"国网浙江杭州市萧山区供电有限公司","typeName":null,"infoStatusName":null,"dateDay":null,"orgNos":null,"nowTime":null,"countyName":null,"streetName":null,"villageName":null,"roadName":null,"communityName":null,"tranName":null,"sdLineName":null,"cityCode":"3340130","cityName":"国网浙江杭州市萧山区供电有限公司","provinceCode":null,"stopTime":"2020-04-17 19:30:48","powerType":"全部","powerOffArea":"110kV浦阳变:尖山A538线-谢家村11#变低压开关","powerOffReason":"(低压停电信息)低压漏电保护器跳闸原停电结束时间为2020-04-1722:00:48,为减少客户停电时间,加快工作进度,提前送电,现变更停电结束时间为2020-04-1719:30:48","powerOffId":"2020041731020551"},{"poweroffId":2020041731020535,"sgpoweroffId":null,"subsName":"","lineName":"10kV同花H664线","pubTranName":"高桥村徐家头,高桥村会源桥公变,高桥村沈家村1号公变,高桥村林家头公变,高桥村钮家头公变,高桥村吴家头,","scope":"浙江省-杭州市-余杭区-仓前街道：灵源村会源桥、林家头、吴家头、徐家头、钮家头、沈家村一带","startTime":"2020-04-29 09:30:00","stopDate":"2020-04-29 17:30:00","orgNo":"3340140","typeCode":"计划停电","poweroffArea":"同花H664线会源桥分线18号杆开关","poweroffReason":"计划工作 原停电结束时间为2020-04-28 17:30:00,因计划更改原因,延迟送电,现变更停电结束时间为2020-04-29 17:30:00","powerTime":"2020-04-29 17:01:38","powerComm":"已送电","subsNo":"","lineNo":"","tgNo":"","tgName":null,"infoStatus":"1","orgName":"国网浙江杭州市余杭区供电有限公司","typeName":null,"infoStatusName":null,"dateDay":null,"orgNos":null,"nowTime":null,"countyName":null,"streetName":null,"villageName":null,"roadName":null,"communityName":null,"tranName":null,"sdLineName":null,"cityCode":"3340140","cityName":"国网浙江杭州市余杭区供电有限公司","provinceCode":null,"stopTime":"2020-04-29 17:30:00","powerType":"全部","powerOffArea":"同花H664线会源桥分线18号杆开关","powerOffReason":"计划工作 原停电结束时间为2020-04-28 17:30:00,因计划更改原因,延迟送电,现变更停电结束时间为2020-04-29 17:30:00","powerOffId":"2020041731020535"},{"poweroffId":2020041731020534,"sgpoweroffId":null,"subsName":"","lineName":"10kV创意H772线","pubTranName":"西曙示范区,西曙示范区2#专变,","scope":"浙江省-杭州市-余杭区-五常街道：西曙置业示范区一带","startTime":"2020-04-28 09:30:00","stopDate":"2020-04-28 16:30:00","orgNo":"3340140","typeCode":"计划停电","poweroffArea":"创意H772线车辆地段3分线","poweroffReason":"业扩工程（西曙置业有限公司）：拆除车辆地段3分线6#杆至21#杆导线15档、拔除15米电杆15基、拆除开关3台。","powerTime":"2020-04-28 15:31:32","powerComm":"已送电","subsNo":"","lineNo":"","tgNo":"","tgName":null,"infoStatus":"1","orgName":"国网浙江杭州市余杭区供电有限公司","typeName":null,"infoStatusName":null,"dateDay":null,"orgNos":null,"nowTime":null,"countyName":null,"streetName":null,"villageName":null,"roadName":null,"communityName":null,"tranName":null,"sdLineName":null,"cityCode":"3340140","cityName":"国网浙江杭州市余杭区供电有限公司","provinceCode":null,"stopTime":"2020-04-28 16:30:00","powerType":"全部","powerOffArea":"创意H772线车辆地段3分线","powerOffReason":"业扩工程（西曙置业有限公司）：拆除车辆地段3分线6#杆至21#杆导线15档、拔除15米电杆15基、拆除开关3台。","powerOffId":"2020041731020534"},{"poweroffId":2020041731020533,"sgpoweroffId":null,"subsName":"","lineName":"10kV仓兴H789线","pubTranName":"西站13安置基建,西站10安置基建,1#变压器,","scope":"浙江省-杭州市-余杭区-仓前街道：西站安置房建设工地一带","startTime":"2020-04-27 09:30:00","stopDate":"2020-04-27 16:30:00","orgNo":"3340140","typeCode":"计划停电","poweroffArea":"仓兴H789线仓幼基建分线","poweroffReason":"业扩工程（仓前中心幼儿园）：拆除仓幼基建分线2#杆-5#杆导线3档、拔除15米电杆3基、拆除仓幼400kVA基建变1台，400kVA基建箱1台，50方电缆25米及开关1台。","powerTime":"2020-04-27 15:32:02","powerComm":"已送电","subsNo":"","lineNo":"","tgNo":"","tgName":null,"infoStatus":"1","orgName":"国网浙江杭州市余杭区供电有限公司","typeName":null,"infoStatusName":null,"dateDay":null,"orgNos":null,"nowTime":null,"countyName":null,"streetName":null,"villageName":null,"roadName":null,"communityName":null,"tranName":null,"sdLineName":null,"cityCode":"3340140","cityName":"国网浙江杭州市余杭区供电有限公司","provinceCode":null,"stopTime":"2020-04-27 16:30:00","powerType":"全部","powerOffArea":"仓兴H789线仓幼基建分线","powerOffReason":"业扩工程（仓前中心幼儿园）：拆除仓幼基建分线2#杆-5#杆导线3档、拔除15米电杆3基、拆除仓幼400kVA基建变1台，400kVA基建箱1台，50方电缆25米及开关1台。","powerOffId":"2020041731020533"}],"pageModel":{"pageNow":318,"totalCount":17788,"totalPage":1779,"tableRows":0,"pageCount":10,"beginCount":3170},"isExperi":"1"}