{"message":"","today":"2020-06-15","seleList":[{"poweroffId":2020041731020510,"sgpoweroffId":null,"subsName":"","lineName":"10kV华电8595线","pubTranName":"朝七(4),朝七(8),朝七(3),朝七(7),","scope":"浙江省-杭州市-下城区-文晖街道-浙江省杭州市下城区朝晖七小区48、50、52-63、85、87、88、91-94、96、98幢、河东路157号及商铺附近一带","startTime":"2020-04-30 09:30:00","stopDate":"2020-04-30 12:00:00","orgNo":"3340101","typeCode":"计划停电","poweroffArea":"220kV霞湾变:华电8595线首端，东王站朝七（8）分线","poweroffReason":"东王站朝七（8）分线修树 原停电结束时间为2020-04-30 17:30:00,为减少客户停电时间,加快工作进度,提前送电,现变更停电结束时间为2020-04-30 12:00:00","powerTime":"2020-04-30 11:20:59","powerComm":"已送电","subsNo":"","lineNo":"","tgNo":"","tgName":null,"infoStatus":"1","orgName":"浙江杭州电力客户服务中心","typeName":null,"infoStatusName":null,"dateDay":null,"orgNos":null,"nowTime":null,"countyName":null,"streetName":null,"villageName":null,"roadName":null,"communityName":null,"tranName":null,"sdLineName":null,"cityCode":"3340101","cityName":"浙江杭州电力客户服务中心","provinceCode":null,"stopTime":"2020-04-30 12:00:00","powerType":"全部","powerOffArea":"220kV霞湾变:华电8595线首端，东王站朝七（8）分线","powerOffReason":"东王站朝七（8）分线修树 原停电结束时间为2020-04-30 17:30:00,为减少客户停电时间,加快工作进度,提前送电,现变更停电结束时间为2020-04-30 12:00:00","powerOffId":"2020041731020510"},{"poweroffId":2020041731020503,"sgpoweroffId":null,"subsName":"","lineName":"10kV诸佳D794线","pubTranName":"诸佳坞4号羊垄山公变,","scope":"浙江省-杭州市-富阳区-环山乡-诸佳坞行政村-诸佳坞自然村一带","startTime":"2020-04-27 14:05:00","stopDate":"2020-04-27 14:45:00","orgNo":"3340170","typeCode":"计划停电","poweroffArea":"110kV王洲变:诸佳D794线-诸佳坞4号羊垄山公变后段","poweroffReason":"诸佳D794线129#杆诸佳坞分线9#支线2#杆杆诸佳坞4#公变拆除T接箱电缆等工作。 原停电结束时间为2020-04-27 16:55:00,为减少客户停电时间,加快工作进度,提前送电,现变更停电结束时间为2020-04-27 14:45:00","powerTime":"2020-04-27 14:35:55","powerComm":"已送电","subsNo":"","lineNo":"","tgNo":"","tgName":null,"infoStatus":"1","orgName":"国网浙江杭州市富阳区供电公司","typeName":null,"infoStatusName":null,"dateDay":null,"orgNos":null,"nowTime":null,"countyName":null,"streetName":null,"villageName":null,"roadName":null,"communityName":null,"tranName":null,"sdLineName":null,"cityCode":"3340170","cityName":"国网浙江杭州市富阳区供电公司","provinceCode":null,"stopTime":"2020-04-27 14:45:00","powerType":"全部","powerOffArea":"110kV王洲变:诸佳D794线-诸佳坞4号羊垄山公变后段","powerOffReason":"诸佳D794线129#杆诸佳坞分线9#支线2#杆杆诸佳坞4#公变拆除T接箱电缆等工作。 原停电结束时间为2020-04-27 16:55:00,为减少客户停电时间,加快工作进度,提前送电,现变更停电结束时间为2020-04-27 14:45:00","powerOffId":"2020041731020503"},{"poweroffId":2020041731020499,"sgpoweroffId":null,"subsName":"","lineName":"10kV诸佳D794线","pubTranName":"天津城建集团有限公司2#变,诸佳坞10#枫树湾樟门口公变,天津城建集团有限公司3#变,诸佳坞11号枫树湾冰塘头公变,天津城建集团有限公司1#变,诸佳坞9号枫树湾山脚公变,天津城建集团有限公司1#变,","scope":"浙江省-杭州市-富阳区-环山乡-中兴行政村-芳泉自然村,环山乡-诸佳坞行政村(诸佳坞自然村,枫树湾自然村)、天津城建集团有限公司","startTime":"2020-04-27 14:05:43","stopDate":"2020-04-27 14:55:00","orgNo":"3340170","typeCode":"计划停电","poweroffArea":"110kV王洲变:诸佳D794线-诸佳坞分线13+1#开关后段","poweroffReason":"短时停电倒负荷 原停电结束时间为2020-04-27 16:55:00,为减少客户停电时间,加快工作进度,提前送电,现变更停电结束时间为2020-04-27 14:55:00","powerTime":"2020-04-27 14:40:31","powerComm":"已送电","subsNo":"","lineNo":"","tgNo":"","tgName":null,"infoStatus":"1","orgName":"国网浙江杭州市富阳区供电公司","typeName":null,"infoStatusName":null,"dateDay":null,"orgNos":null,"nowTime":null,"countyName":null,"streetName":null,"villageName":null,"roadName":null,"communityName":null,"tranName":null,"sdLineName":null,"cityCode":"3340170","cityName":"国网浙江杭州市富阳区供电公司","provinceCode":null,"stopTime":"2020-04-27 14:55:00","powerType":"全部","powerOffArea":"110kV王洲变:诸佳D794线-诸佳坞分线13+1#开关后段","powerOffReason":"短时停电倒负荷 原停电结束时间为2020-04-27 16:55:00,为减少客户停电时间,加快工作进度,提前送电,现变更停电结束时间为2020-04-27 14:55:00","powerOffId":"2020041731020499"},{"poweroffId":2020041731020492,"sgpoweroffId":null,"subsName":"","lineName":"10kV诸佳D794线","pubTranName":"诸佳坞4号羊垄山公变,","scope":"浙江省-杭州市-富阳区-环山乡-诸佳坞行政村-诸佳坞自然村一带","startTime":"2020-04-27 08:30:00","stopDate":"2020-04-27 09:15:00","orgNo":"3340170","typeCode":"计划停电","poweroffArea":"110kV王洲变:诸佳D794线-诸佳坞4号羊垄山公变后段","poweroffReason":"诸佳D794线129#杆诸佳坞分线9#杆诸佳坞西坛支线2#杆羊垄山支线1#杆诸佳坞4#羊垄山公变拆除电缆并搭接于T接箱出线侧等工作（0.4kV自备电源）。","powerTime":"2020-04-27 09:06:07","powerComm":"已送电","subsNo":"","lineNo":"","tgNo":"","tgName":null,"infoStatus":"1","orgName":"国网浙江杭州市富阳区供电公司","typeName":null,"infoStatusName":null,"dateDay":null,"orgNos":null,"nowTime":null,"countyName":null,"streetName":null,"villageName":null,"roadName":null,"communityName":null,"tranName":null,"sdLineName":null,"cityCode":"3340170","cityName":"国网浙江杭州市富阳区供电公司","provinceCode":null,"stopTime":"2020-04-27 09:15:00","powerType":"全部","powerOffArea":"110kV王洲变:诸佳D794线-诸佳坞4号羊垄山公变后段","powerOffReason":"诸佳D794线129#杆诸佳坞分线9#杆诸佳坞西坛支线2#杆羊垄山支线1#杆诸佳坞4#羊垄山公变拆除电缆并搭接于T接箱出线侧等工作（0.4kV自备电源）。","powerOffId":"2020041731020492"},{"poweroffId":2020041731020487,"sgpoweroffId":null,"subsName":"","lineName":"10kV诸佳D794线","pubTranName":"天津城建集团有限公司2#变,诸佳坞9号枫树湾山脚公变,诸佳坞10#枫树湾樟门口公变,天津城建集团有限公司3#变,诸佳坞11号枫树湾冰塘头公变,天津城建集团有限公司1#变,天津城建集团有限公司1#变,","scope":"浙江省-杭州市-富阳区-环山乡-中兴行政村-芳泉自然村,环山乡-诸佳坞行政村(诸佳坞自然村,枫树湾自然村)、天津城建集团有限公司","startTime":"2020-04-27 08:30:00","stopDate":"2020-04-27 09:15:00","orgNo":"3340170","typeCode":"计划停电","poweroffArea":"110kV王洲变:诸佳D794线-诸佳坞分线13+1#开关后段","poweroffReason":"短时停电倒负荷","powerTime":"2020-04-27 09:05:55","powerComm":"已送电","subsNo":"","lineNo":"","tgNo":"","tgName":null,"infoStatus":"1","orgName":"国网浙江杭州市富阳区供电公司","typeName":null,"infoStatusName":null,"dateDay":null,"orgNos":null,"nowTime":null,"countyName":null,"streetName":null,"villageName":null,"roadName":null,"communityName":null,"tranName":null,"sdLineName":null,"cityCode":"3340170","cityName":"国网浙江杭州市富阳区供电公司","provinceCode":null,"stopTime":"2020-04-27 09:15:00","powerType":"全部","powerOffArea":"110kV王洲变:诸佳D794线-诸佳坞分线13+1#开关后段","powerOffReason":"短时停电倒负荷","powerOffId":"2020041731020487"},{"poweroffId":2020041731020485,"sgpoweroffId":null,"subsName":"","lineName":"10kV诸佳D794线","pubTranName":"诸佳坞5号球场公变,诸佳坞12#黄坞公变,诸佳坞3号茅山公变,","scope":"浙江省-杭州市-富阳区-环山乡-诸佳坞行政村-诸佳坞自然村一带","startTime":"2020-04-27 08:30:00","stopDate":"2020-04-27 09:15:00","orgNo":"3340170","typeCode":"计划停电","poweroffArea":"110kV王洲变:诸佳D794线-诸佳坞西坛支线5+1#开关后段","poweroffReason":"短时停电倒负荷","powerTime":"2020-04-27 09:05:41","powerComm":"已送电","subsNo":"","lineNo":"","tgNo":"","tgName":null,"infoStatus":"1","orgName":"国网浙江杭州市富阳区供电公司","typeName":null,"infoStatusName":null,"dateDay":null,"orgNos":null,"nowTime":null,"countyName":null,"streetName":null,"villageName":null,"roadName":null,"communityName":null,"tranName":null,"sdLineName":null,"cityCode":"3340170","cityName":"国网浙江杭州市富阳区供电公司","provinceCode":null,"stopTime":"2020-04-27 09:15:00","powerType":"全部","powerOffArea":"110kV王洲变:诸佳D794线-诸佳坞西坛支线5+1#开关后段","powerOffReason":"短时停电倒负荷","powerOffId":"2020041731020485"},{"poweroffId":2020041731020483,"sgpoweroffId":null,"subsName":"","lineName":"10kV诸佳D794线","pubTranName":"诸佳坞3号茅山公变,诸佳坞12#黄坞公变,诸佳坞5号球场公变,","scope":"浙江省-杭州市-富阳区-环山乡-诸佳坞行政村-诸佳坞自然村一带","startTime":"2020-04-27 14:00:00","stopDate":"2020-04-27 14:40:00","orgNo":"3340170","typeCode":"计划停电","poweroffArea":"110kV王洲变:诸佳D794线-诸佳坞西坛支线5+1#开关后段","poweroffReason":"短时停电倒负荷 原停电结束时间为2020-04-27 16:55:00,为减少客户停电时间,加快工作进度,提前送电,现变更停电结束时间为2020-04-27 14:40:00","powerTime":"2020-04-27 14:35:25","powerComm":"已送电","subsNo":"","lineNo":"","tgNo":"","tgName":null,"infoStatus":"1","orgName":"国网浙江杭州市富阳区供电公司","typeName":null,"infoStatusName":null,"dateDay":null,"orgNos":null,"nowTime":null,"countyName":null,"streetName":null,"villageName":null,"roadName":null,"communityName":null,"tranName":null,"sdLineName":null,"cityCode":"3340170","cityName":"国网浙江杭州市富阳区供电公司","provinceCode":null,"stopTime":"2020-04-27 14:40:00","powerType":"全部","powerOffArea":"110kV王洲变:诸佳D794线-诸佳坞西坛支线5+1#开关后段","powerOffReason":"短时停电倒负荷 原停电结束时间为2020-04-27 16:55:00,为减少客户停电时间,加快工作进度,提前送电,现变更停电结束时间为2020-04-27 14:40:00","powerOffId":"2020041731020483"},{"poweroffId":2020041731020449,"sgpoweroffId":null,"subsName":"","lineName":"10kV高湖D594线","pubTranName":"长山村1#变,","scope":"浙江省-杭州市-富阳区-银湖街道-长山村一带","startTime":"2020-04-30 09:00:00","stopDate":"2020-04-30 16:30:00","orgNo":"3340170","typeCode":"计划停电","poweroffArea":"110kV高桥变:高湖D594线-长山村1#变后段","poweroffReason":"配合用户内部检修","powerTime":"2020-04-30 16:08:52","powerComm":"已送电","subsNo":"","lineNo":"","tgNo":"","tgName":null,"infoStatus":"1","orgName":"国网浙江杭州市富阳区供电公司","typeName":null,"infoStatusName":null,"dateDay":null,"orgNos":null,"nowTime":null,"countyName":null,"streetName":null,"villageName":null,"roadName":null,"communityName":null,"tranName":null,"sdLineName":null,"cityCode":"3340170","cityName":"国网浙江杭州市富阳区供电公司","provinceCode":null,"stopTime":"2020-04-30 16:30:00","powerType":"全部","powerOffArea":"110kV高桥变:高湖D594线-长山村1#变后段","powerOffReason":"配合用户内部检修","powerOffId":"2020041731020449"},{"poweroffId":2020041731020447,"sgpoweroffId":null,"subsName":"","lineName":"10kV机专8440线","pubTranName":"金农(4),","scope":"浙江省-杭州市-拱墅区-半山街道，浙江省杭州市拱墅区杭玻金家堰29#","startTime":"2020-04-26 09:50:00","stopDate":"2020-04-26 11:00:00","orgNo":"3340101","typeCode":"计划停电","poweroffArea":"110kV永宁变:机专8440线-临丁站金农分线金农（4）配变跌落式开关","poweroffReason":"金农（4）更换终端 原停电结束时间为2020-04-26 17:30:00,为减少客户停电时间,加快工作进度,提前送电,现变更停电结束时间为2020-04-26 11:00:00","powerTime":"2020-04-26 10:19:59","powerComm":"已送电","subsNo":"","lineNo":"","tgNo":"","tgName":null,"infoStatus":"1","orgName":"浙江杭州电力客户服务中心","typeName":null,"infoStatusName":null,"dateDay":null,"orgNos":null,"nowTime":null,"countyName":null,"streetName":null,"villageName":null,"roadName":null,"communityName":null,"tranName":null,"sdLineName":null,"cityCode":"3340101","cityName":"浙江杭州电力客户服务中心","provinceCode":null,"stopTime":"2020-04-26 11:00:00","powerType":"全部","powerOffArea":"110kV永宁变:机专8440线-临丁站金农分线金农（4）配变跌落式开关","powerOffReason":"金农（4）更换终端 原停电结束时间为2020-04-26 17:30:00,为减少客户停电时间,加快工作进度,提前送电,现变更停电结束时间为2020-04-26 11:00:00","powerOffId":"2020041731020447"},{"poweroffId":2020041731020442,"sgpoweroffId":null,"subsName":"","lineName":"10kV人医D820线","pubTranName":"9#变,10#,7#变,6#变,8#变,","scope":"浙江省-杭州市-富阳区-富春街道-金桥社区-杭州市富阳区第一人民医院","startTime":"2020-04-29 06:30:00","stopDate":"2020-04-29 23:50:00","orgNo":"3340170","typeCode":"计划停电","poweroffArea":"110kV容大变:人医D820线-富阳市人民医院电源2后段;人医D820线-富阳市人民医院10#后段","poweroffReason":"10kV人医D820线保护测控装置更换、调试、自动化联调、复贸D815线配合停电","powerTime":"2020-04-29 23:40:32","powerComm":"已送电","subsNo":"","lineNo":"","tgNo":"","tgName":null,"infoStatus":"1","orgName":"国网浙江杭州市富阳区供电公司","typeName":null,"infoStatusName":null,"dateDay":null,"orgNos":null,"nowTime":null,"countyName":null,"streetName":null,"villageName":null,"roadName":null,"communityName":null,"tranName":null,"sdLineName":null,"cityCode":"3340170","cityName":"国网浙江杭州市富阳区供电公司","provinceCode":null,"stopTime":"2020-04-29 23:50:00","powerType":"全部","powerOffArea":"110kV容大变:人医D820线-富阳市人民医院电源2后段;人医D820线-富阳市人民医院10#后段","powerOffReason":"10kV人医D820线保护测控装置更换、调试、自动化联调、复贸D815线配合停电","powerOffId":"2020041731020442"}],"pageModel":{"pageNow":320,"totalCount":17788,"totalPage":1779,"tableRows":0,"pageCount":10,"beginCount":3190},"isExperi":"1"}