{"message":"","today":"2020-06-15","seleList":[{"poweroffId":2020041731020340,"sgpoweroffId":null,"subsName":"","lineName":"10kV丰南G661线","pubTranName":"新安村闸站,江苏雷威建设工程有限公司61208822361#变压器,人民路路灯组合变,","scope":"浙江省-杭州市-余杭区-南苑街道：江苏雷威建设工程有限公司、新安村闸站、万霖置业基建bian、人民路路灯组合bian一带","startTime":"2020-04-29 08:30:00","stopDate":"2020-04-29 15:30:00","orgNo":"3340140","typeCode":"计划停电","poweroffArea":"110kV南苑变:丰南G661线-桂花开关站新安村委分线后段","poweroffReason":"计划工作","powerTime":"2020-04-29 14:45:40","powerComm":"已送电","subsNo":"","lineNo":"","tgNo":"","tgName":null,"infoStatus":"1","orgName":"国网浙江杭州市余杭区供电有限公司","typeName":null,"infoStatusName":null,"dateDay":null,"orgNos":null,"nowTime":null,"countyName":null,"streetName":null,"villageName":null,"roadName":null,"communityName":null,"tranName":null,"sdLineName":null,"cityCode":"3340140","cityName":"国网浙江杭州市余杭区供电有限公司","provinceCode":null,"stopTime":"2020-04-29 15:30:00","powerType":"全部","powerOffArea":"110kV南苑变:丰南G661线-桂花开关站新安村委分线后段","powerOffReason":"计划工作","powerOffId":"2020041731020340"},{"poweroffId":2020041731020338,"sgpoweroffId":null,"subsName":"","lineName":"10kV五园9245线","pubTranName":"泥桥2组3号公变,","scope":"浙江省-杭州市-余杭区-乔司街道：泥桥2组一带","startTime":"2020-04-28 08:30:00","stopDate":"2020-04-28 12:00:00","orgNo":"3340140","typeCode":"计划停电","poweroffArea":"110kV东风变:五园9245线-泥桥2组3#变后段","poweroffReason":"计划工作 原停电结束时间为2020-04-28 13:00:00,为减少客户停电时间,加快工作进度,提前送电,现变更停电结束时间为2020-04-28 12:00:00","powerTime":"2020-04-28 11:09:59","powerComm":"已送电","subsNo":"","lineNo":"","tgNo":"","tgName":null,"infoStatus":"1","orgName":"国网浙江杭州市余杭区供电有限公司","typeName":null,"infoStatusName":null,"dateDay":null,"orgNos":null,"nowTime":null,"countyName":null,"streetName":null,"villageName":null,"roadName":null,"communityName":null,"tranName":null,"sdLineName":null,"cityCode":"3340140","cityName":"国网浙江杭州市余杭区供电有限公司","provinceCode":null,"stopTime":"2020-04-28 12:00:00","powerType":"全部","powerOffArea":"110kV东风变:五园9245线-泥桥2组3#变后段","powerOffReason":"计划工作 原停电结束时间为2020-04-28 13:00:00,为减少客户停电时间,加快工作进度,提前送电,现变更停电结束时间为2020-04-28 12:00:00","powerOffId":"2020041731020338"},{"poweroffId":2020041731020336,"sgpoweroffId":null,"subsName":"","lineName":"10kV红联G918线","pubTranName":"方桥村委,","scope":"浙江省-杭州市-余杭区-乔司街道：方桥村委一带","startTime":"2020-04-27 13:30:00","stopDate":"2020-04-27 16:30:00","orgNo":"3340140","typeCode":"计划停电","poweroffArea":"110kV庙港变:红联G918线-方桥村委分线后段","poweroffReason":"计划工作","powerTime":"2020-04-27 15:39:26","powerComm":"已送电","subsNo":"","lineNo":"","tgNo":"","tgName":null,"infoStatus":"1","orgName":"国网浙江杭州市余杭区供电有限公司","typeName":null,"infoStatusName":null,"dateDay":null,"orgNos":null,"nowTime":null,"countyName":null,"streetName":null,"villageName":null,"roadName":null,"communityName":null,"tranName":null,"sdLineName":null,"cityCode":"3340140","cityName":"国网浙江杭州市余杭区供电有限公司","provinceCode":null,"stopTime":"2020-04-27 16:30:00","powerType":"全部","powerOffArea":"110kV庙港变:红联G918线-方桥村委分线后段","powerOffReason":"计划工作","powerOffId":"2020041731020336"},{"poweroffId":2020041731020334,"sgpoweroffId":null,"subsName":"","lineName":"10kV香下H546线","pubTranName":"西山村大山平1号公变,西山村公变,浙江物产长乐实业有限公司6110534076,","scope":"浙江省-杭州市-余杭区-径山镇：浙江物产长乐实业有限公司、西山村、西山村大山平一带","startTime":"2020-04-27 09:30:00","stopDate":"2020-04-27 14:30:00","orgNo":"3340140","typeCode":"计划停电","poweroffArea":"110kV潘板变:香下H546线西山林区分线后段","poweroffReason":"计划工作","powerTime":"2020-04-27 13:30:26","powerComm":"已送电","subsNo":"","lineNo":"","tgNo":"","tgName":null,"infoStatus":"1","orgName":"国网浙江杭州市余杭区供电有限公司","typeName":null,"infoStatusName":null,"dateDay":null,"orgNos":null,"nowTime":null,"countyName":null,"streetName":null,"villageName":null,"roadName":null,"communityName":null,"tranName":null,"sdLineName":null,"cityCode":"3340140","cityName":"国网浙江杭州市余杭区供电有限公司","provinceCode":null,"stopTime":"2020-04-27 14:30:00","powerType":"全部","powerOffArea":"110kV潘板变:香下H546线西山林区分线后段","powerOffReason":"计划工作","powerOffId":"2020041731020334"},{"poweroffId":2020041731020333,"sgpoweroffId":null,"subsName":"","lineName":"10kV洪福G904线","pubTranName":"城建星河南路125kVA路灯变,中铁四局集团第二工程有限公司3#,","scope":"浙江省-杭州市-余杭区-乔司街道：中铁四局方桥基建bian、星河南路星都大道路灯bian一带","startTime":"2020-04-27 08:30:00","stopDate":"2020-04-27 13:00:00","orgNo":"3340140","typeCode":"计划停电","poweroffArea":"110kV庙港变:洪福G904线-36#开关后段","poweroffReason":"计划工作","powerTime":"2020-04-27 12:29:44","powerComm":"已送电","subsNo":"","lineNo":"","tgNo":"","tgName":null,"infoStatus":"1","orgName":"国网浙江杭州市余杭区供电有限公司","typeName":null,"infoStatusName":null,"dateDay":null,"orgNos":null,"nowTime":null,"countyName":null,"streetName":null,"villageName":null,"roadName":null,"communityName":null,"tranName":null,"sdLineName":null,"cityCode":"3340140","cityName":"国网浙江杭州市余杭区供电有限公司","provinceCode":null,"stopTime":"2020-04-27 13:00:00","powerType":"全部","powerOffArea":"110kV庙港变:洪福G904线-36#开关后段","powerOffReason":"计划工作","powerOffId":"2020041731020333"},{"poweroffId":2020041731020328,"sgpoweroffId":null,"subsName":"","lineName":"10kV秦置D993线","pubTranName":"上海建工集团股份有限公司4#变,上海建工集团股份有限公司2#变,上海建工集团股份有限公司3#变,上海建工集团股份有限公司5#变,上海建工集团股份有限公司1#变,","scope":"浙江省-杭州市-富阳区-富春街道-金秋社区-上海建工集团股份有限公司","startTime":"2020-04-27 06:30:00","stopDate":"2020-04-27 23:50:00","orgNo":"3340170","typeCode":"计划停电","poweroffArea":"110kV育才变:秦置D993线-上海建工集团股份有限公司后段","poweroffReason":"育才变集中检修配合停电","powerTime":"2020-04-27 22:57:02","powerComm":"已送电","subsNo":"","lineNo":"","tgNo":"","tgName":null,"infoStatus":"1","orgName":"国网浙江杭州市富阳区供电公司","typeName":null,"infoStatusName":null,"dateDay":null,"orgNos":null,"nowTime":null,"countyName":null,"streetName":null,"villageName":null,"roadName":null,"communityName":null,"tranName":null,"sdLineName":null,"cityCode":"3340170","cityName":"国网浙江杭州市富阳区供电公司","provinceCode":null,"stopTime":"2020-04-27 23:50:00","powerType":"全部","powerOffArea":"110kV育才变:秦置D993线-上海建工集团股份有限公司后段","powerOffReason":"育才变集中检修配合停电","powerOffId":"2020041731020328"},{"poweroffId":2020041731020324,"sgpoweroffId":null,"subsName":"","lineName":"10kV环西8302线","pubTranName":"龙游,","scope":"浙江省-杭州市-下城区-武林街道开化路4号附近、开化路附近，遂安路4至10号附近、遂安路附近","startTime":"2020-04-20 09:55:00","stopDate":"2020-04-20 15:00:00","orgNo":"3340101","typeCode":"临时停电","poweroffArea":"110kV昭庆变:环西8302线-龙游后段","poweroffReason":"龙游变台区改造。原停电结束时间为2020-04-2017:30:00,为减少客户停电时间,加快工作进度,提前送电,现变更停电结束时间为2020-04-2015:00:00","powerTime":"2020-04-20 14:23:15","powerComm":"已送电","subsNo":"","lineNo":"","tgNo":"","tgName":null,"infoStatus":"1","orgName":"浙江杭州电力客户服务中心","typeName":null,"infoStatusName":null,"dateDay":null,"orgNos":null,"nowTime":null,"countyName":null,"streetName":null,"villageName":null,"roadName":null,"communityName":null,"tranName":null,"sdLineName":null,"cityCode":"3340101","cityName":"浙江杭州电力客户服务中心","provinceCode":null,"stopTime":"2020-04-20 15:00:00","powerType":"全部","powerOffArea":"110kV昭庆变:环西8302线-龙游后段","powerOffReason":"龙游变台区改造。原停电结束时间为2020-04-2017:30:00,为减少客户停电时间,加快工作进度,提前送电,现变更停电结束时间为2020-04-2015:00:00","powerOffId":"2020041731020324"},{"poweroffId":2020041731020321,"sgpoweroffId":null,"subsName":"","lineName":"10kV上泉V850线","pubTranName":"祥里村[板坞]公变,","scope":"浙江省-杭州市-临安区-玲珑街道-祥里行政村(板坞自然村,祥里自然村)一带","startTime":"2020-04-30 08:30:00","stopDate":"2020-04-30 15:30:00","orgNo":"3340160","typeCode":"计划停电","poweroffArea":"110kV夏禹变:上泉V850线-祥里村[板坞]公变后段","poweroffReason":"公变增容工作 原停电结束时间为2020-04-30 17:00:00,为减少客户停电时间,加快工作进度,提前送电,现变更停电结束时间为2020-04-30 15:30:00","powerTime":"2020-04-30 15:10:49","powerComm":"已送电","subsNo":"","lineNo":"","tgNo":"","tgName":null,"infoStatus":"1","orgName":"国网浙江临安市供电公司","typeName":null,"infoStatusName":null,"dateDay":null,"orgNos":null,"nowTime":null,"countyName":null,"streetName":null,"villageName":null,"roadName":null,"communityName":null,"tranName":null,"sdLineName":null,"cityCode":"3340160","cityName":"国网浙江临安市供电公司","provinceCode":null,"stopTime":"2020-04-30 15:30:00","powerType":"全部","powerOffArea":"110kV夏禹变:上泉V850线-祥里村[板坞]公变后段","powerOffReason":"公变增容工作 原停电结束时间为2020-04-30 17:00:00,为减少客户停电时间,加快工作进度,提前送电,现变更停电结束时间为2020-04-30 15:30:00","powerOffId":"2020041731020321"},{"poweroffId":2020041731020320,"sgpoweroffId":null,"subsName":"","lineName":"10kV由口V290线","pubTranName":"射干村[东社塘头坞],","scope":"浙江省-杭州市-临安区-太湖源镇-射干行政村-东社塘头坞自然村一带","startTime":"2020-04-30 08:30:00","stopDate":"2020-04-30 12:30:00","orgNo":"3340160","typeCode":"计划停电","poweroffArea":"35kV西天目变:由口V290线-东社分线30#后段","poweroffReason":"公变增容工作","powerTime":"2020-04-30 12:05:42","powerComm":"已送电","subsNo":"","lineNo":"","tgNo":"","tgName":null,"infoStatus":"1","orgName":"国网浙江临安市供电公司","typeName":null,"infoStatusName":null,"dateDay":null,"orgNos":null,"nowTime":null,"countyName":null,"streetName":null,"villageName":null,"roadName":null,"communityName":null,"tranName":null,"sdLineName":null,"cityCode":"3340160","cityName":"国网浙江临安市供电公司","provinceCode":null,"stopTime":"2020-04-30 12:30:00","powerType":"全部","powerOffArea":"35kV西天目变:由口V290线-东社分线30#后段","powerOffReason":"公变增容工作","powerOffId":"2020041731020320"},{"poweroffId":2020041731020319,"sgpoweroffId":null,"subsName":"","lineName":"10kV杨华V731线","pubTranName":"东天目村[朱里坞],","scope":"浙江省-杭州市-临安区-太湖源镇-东天目行政村-梅家自然村一带","startTime":"2020-04-29 08:30:00","stopDate":"2020-04-29 14:00:00","orgNo":"3340160","typeCode":"计划停电","poweroffArea":"110kV杨岭变:杨华V731线-梅家支线081#后段","poweroffReason":"公变增容工作 原停电结束时间为2020-04-29 11:20:00,因工作进度原因,延迟送电,现变更停电结束时间为2020-04-29 14:00:00","powerTime":"2020-04-29 13:12:16","powerComm":"已送电","subsNo":"","lineNo":"","tgNo":"","tgName":null,"infoStatus":"1","orgName":"国网浙江临安市供电公司","typeName":null,"infoStatusName":null,"dateDay":null,"orgNos":null,"nowTime":null,"countyName":null,"streetName":null,"villageName":null,"roadName":null,"communityName":null,"tranName":null,"sdLineName":null,"cityCode":"3340160","cityName":"国网浙江临安市供电公司","provinceCode":null,"stopTime":"2020-04-29 14:00:00","powerType":"全部","powerOffArea":"110kV杨岭变:杨华V731线-梅家支线081#后段","powerOffReason":"公变增容工作 原停电结束时间为2020-04-29 11:20:00,因工作进度原因,延迟送电,现变更停电结束时间为2020-04-29 14:00:00","powerOffId":"2020041731020319"}],"pageModel":{"pageNow":323,"totalCount":17788,"totalPage":1779,"tableRows":0,"pageCount":10,"beginCount":3220},"isExperi":"1"}