{"message":"","today":"2020-06-15","seleList":[{"poweroffId":2020041731020318,"sgpoweroffId":null,"subsName":"","lineName":"10kV塘湾V872线","pubTranName":"杭州美生美置业有限公司5#,杭州美生美置业有限公司2#,杭州美生美置业有限公司3#,杭州美生美置业有限公司4#,杭州美生美置业有限公司1#,","scope":"浙江省-杭州市-临安区-锦南街道-卦畈行政村-杭州美生美置业有限公司一带","startTime":"2020-04-27 08:00:00","stopDate":"2020-04-27 14:00:00","orgNo":"3340160","typeCode":"计划停电","poweroffArea":"110kV杨岱变:塘湾V872线-祥夏站5#备用间隔后段","poweroffReason":"环网柜移位","powerTime":"2020-04-27 13:50:07","powerComm":"已送电","subsNo":"","lineNo":"","tgNo":"","tgName":null,"infoStatus":"1","orgName":"国网浙江临安市供电公司","typeName":null,"infoStatusName":null,"dateDay":null,"orgNos":null,"nowTime":null,"countyName":null,"streetName":null,"villageName":null,"roadName":null,"communityName":null,"tranName":null,"sdLineName":null,"cityCode":"3340160","cityName":"国网浙江临安市供电公司","provinceCode":null,"stopTime":"2020-04-27 14:00:00","powerType":"全部","powerOffArea":"110kV杨岱变:塘湾V872线-祥夏站5#备用间隔后段","powerOffReason":"环网柜移位","powerOffId":"2020041731020318"},{"poweroffId":2020041731020301,"sgpoweroffId":null,"subsName":"","lineName":"10kV蓝顿8520线","pubTranName":"紫金（六）,紫金（五）,","scope":"浙江省-杭州市-西湖区-紫金公寓小区1幢、4幢、5幢、9幢、10幢、13幢、16幢、20幢一带","startTime":"2020-04-29 09:00:00","stopDate":"2020-04-29 14:30:00","orgNo":"3340101","typeCode":"计划停电","poweroffArea":"110kV文三变:蓝顿8520线首端，紫金（五），紫金（六）之间","poweroffReason":"紫金小区等0.4kVT接箱更换工程/1811HZ18010601A0000000紫金六0.4kV改造 原停电结束时间为2020-04-29 17:00:00,为减少客户停电时间,加快工作进度,提前送电,现变更停电结束时间为2020-04-29 14:30:00","powerTime":"2020-04-29 13:42:59","powerComm":"已送电","subsNo":"","lineNo":"","tgNo":"","tgName":null,"infoStatus":"1","orgName":"浙江杭州电力客户服务中心","typeName":null,"infoStatusName":null,"dateDay":null,"orgNos":null,"nowTime":null,"countyName":null,"streetName":null,"villageName":null,"roadName":null,"communityName":null,"tranName":null,"sdLineName":null,"cityCode":"3340101","cityName":"浙江杭州电力客户服务中心","provinceCode":null,"stopTime":"2020-04-29 14:30:00","powerType":"全部","powerOffArea":"110kV文三变:蓝顿8520线首端，紫金（五），紫金（六）之间","powerOffReason":"紫金小区等0.4kVT接箱更换工程/1811HZ18010601A0000000紫金六0.4kV改造 原停电结束时间为2020-04-29 17:00:00,为减少客户停电时间,加快工作进度,提前送电,现变更停电结束时间为2020-04-29 14:30:00","powerOffId":"2020041731020301"},{"poweroffId":2020041731020300,"sgpoweroffId":null,"subsName":"","lineName":"10kV上陈D295线","pubTranName":"周公坞村7号白马湾公变,","scope":"浙江省-杭州市-富阳区-银湖街道-观前行政村(周公坞自然村,观前自然村)","startTime":"2020-04-30 09:00:00","stopDate":"2020-04-30 17:00:00","orgNo":"3340170","typeCode":"计划停电","poweroffArea":"35kV新义变:上陈D295线-周公坞村7号白马湾公变低压开关后段","poweroffReason":"(低压停电信息)迎东2020年华士村1#村中公变等布点工程：低压线路改接等工作","powerTime":"2020-04-30 16:46:32","powerComm":"已送电","subsNo":"","lineNo":"","tgNo":"","tgName":null,"infoStatus":"1","orgName":"国网浙江杭州市富阳区供电公司","typeName":null,"infoStatusName":null,"dateDay":null,"orgNos":null,"nowTime":null,"countyName":null,"streetName":null,"villageName":null,"roadName":null,"communityName":null,"tranName":null,"sdLineName":null,"cityCode":"3340170","cityName":"国网浙江杭州市富阳区供电公司","provinceCode":null,"stopTime":"2020-04-30 17:00:00","powerType":"全部","powerOffArea":"35kV新义变:上陈D295线-周公坞村7号白马湾公变低压开关后段","powerOffReason":"(低压停电信息)迎东2020年华士村1#村中公变等布点工程：低压线路改接等工作","powerOffId":"2020041731020300"},{"poweroffId":2020041731020297,"sgpoweroffId":null,"subsName":"","lineName":"10kV悦墅D987线","pubTranName":"金桥村15#金家桥4公变,","scope":"浙江省-杭州市-富阳区-富春街道-金秋社区(文居街,公望街)一带","startTime":"2020-04-28 08:20:00","stopDate":"2020-04-28 15:10:00","orgNo":"3340170","typeCode":"计划停电","poweroffArea":"110kV育才变:悦墅D987线-金桥村15#金家桥4公变后段","poweroffReason":"(低压停电信息)拆除导线3档、新放4*35电缆40米、按装墙架横担2组、搭接等工作","powerTime":"2020-04-28 14:54:23","powerComm":"已送电","subsNo":"","lineNo":"","tgNo":"","tgName":null,"infoStatus":"1","orgName":"国网浙江杭州市富阳区供电公司","typeName":null,"infoStatusName":null,"dateDay":null,"orgNos":null,"nowTime":null,"countyName":null,"streetName":null,"villageName":null,"roadName":null,"communityName":null,"tranName":null,"sdLineName":null,"cityCode":"3340170","cityName":"国网浙江杭州市富阳区供电公司","provinceCode":null,"stopTime":"2020-04-28 15:10:00","powerType":"全部","powerOffArea":"110kV育才变:悦墅D987线-金桥村15#金家桥4公变后段","powerOffReason":"(低压停电信息)拆除导线3档、新放4*35电缆40米、按装墙架横担2组、搭接等工作","powerOffId":"2020041731020297"},{"poweroffId":2020041731020296,"sgpoweroffId":null,"subsName":"","lineName":"10kV南津D138线","pubTranName":"五里桥村4#狮果墩公变,","scope":"浙江省-杭州市-富阳区-新登镇-五里桥村行政村-狮果墩自然村一带","startTime":"2020-04-27 08:00:00","stopDate":"2020-04-27 16:30:00","orgNo":"3340170","typeCode":"计划停电","poweroffArea":"110kV新登变:南津D138线-五里桥村4#狮果墩公变低压开关后段","poweroffReason":"(低压停电信息)黄家02线架设导线JKLYJ-120*4*6档、拆除JKLYJ-70*4*6档、更换落户线BS-JKLYJ-2*25*9户、BS-JKLYJ-4*35*70米、拆装表箱7只","powerTime":"2020-04-27 16:23:13","powerComm":"已送电","subsNo":"","lineNo":"","tgNo":"","tgName":null,"infoStatus":"1","orgName":"国网浙江杭州市富阳区供电公司","typeName":null,"infoStatusName":null,"dateDay":null,"orgNos":null,"nowTime":null,"countyName":null,"streetName":null,"villageName":null,"roadName":null,"communityName":null,"tranName":null,"sdLineName":null,"cityCode":"3340170","cityName":"国网浙江杭州市富阳区供电公司","provinceCode":null,"stopTime":"2020-04-27 16:30:00","powerType":"全部","powerOffArea":"110kV新登变:南津D138线-五里桥村4#狮果墩公变低压开关后段","powerOffReason":"(低压停电信息)黄家02线架设导线JKLYJ-120*4*6档、拆除JKLYJ-70*4*6档、更换落户线BS-JKLYJ-2*25*9户、BS-JKLYJ-4*35*70米、拆装表箱7只","powerOffId":"2020041731020296"},{"poweroffId":2020041731020292,"sgpoweroffId":null,"subsName":"","lineName":"10kV望月8241线","pubTranName":"三农（一）,三农十四,","scope":"浙江省-杭州市-西湖区-望月公寓樱花苑1幢至17幢、26幢一带","startTime":"2020-04-26 09:00:00","stopDate":"2020-04-26 17:00:00","orgNo":"3340101","typeCode":"计划停电","poweroffArea":"110kV申花变:望月8241线-三农一配变后段","poweroffReason":"(低压停电信息)望月公寓等小区设备改造工程（不含箱变）PD2020-04-029-LX三农十四变、三农(一)低压改接","powerTime":"2020-04-26 16:14:22","powerComm":"已送电","subsNo":"","lineNo":"","tgNo":"","tgName":null,"infoStatus":"1","orgName":"浙江杭州电力客户服务中心","typeName":null,"infoStatusName":null,"dateDay":null,"orgNos":null,"nowTime":null,"countyName":null,"streetName":null,"villageName":null,"roadName":null,"communityName":null,"tranName":null,"sdLineName":null,"cityCode":"3340101","cityName":"浙江杭州电力客户服务中心","provinceCode":null,"stopTime":"2020-04-26 17:00:00","powerType":"全部","powerOffArea":"110kV申花变:望月8241线-三农一配变后段","powerOffReason":"(低压停电信息)望月公寓等小区设备改造工程（不含箱变）PD2020-04-029-LX三农十四变、三农(一)低压改接","powerOffId":"2020041731020292"},{"poweroffId":2020041731020276,"sgpoweroffId":null,"subsName":"","lineName":"10kV沁雅6793线","pubTranName":"杭公（八）,","scope":"浙江省-杭州市-西湖区-文新街道-香樟公寓3幢1单元一带","startTime":"2020-04-24 09:00:00","stopDate":"2020-04-24 12:00:00","orgNo":"3340101","typeCode":"临时停电","poweroffArea":"110kV高技变:沁雅6793线-杭公（八）后段","poweroffReason":"(低压停电信息)香樟公寓5幢东表计新装6KW","powerTime":"2020-04-24 11:06:10","powerComm":"已送电","subsNo":"","lineNo":"","tgNo":"","tgName":null,"infoStatus":"1","orgName":"浙江杭州电力客户服务中心","typeName":null,"infoStatusName":null,"dateDay":null,"orgNos":null,"nowTime":null,"countyName":null,"streetName":null,"villageName":null,"roadName":null,"communityName":null,"tranName":null,"sdLineName":null,"cityCode":"3340101","cityName":"浙江杭州电力客户服务中心","provinceCode":null,"stopTime":"2020-04-24 12:00:00","powerType":"全部","powerOffArea":"110kV高技变:沁雅6793线-杭公（八）后段","powerOffReason":"(低压停电信息)香樟公寓5幢东表计新装6KW","powerOffId":"2020041731020276"},{"poweroffId":2020041731020275,"sgpoweroffId":null,"subsName":"","lineName":"10kV迦南8031线","pubTranName":"星洲（四）,","scope":"浙江省-杭州市-西湖区-文新街道-星洲花园白沙拂庭1-12号","startTime":"2020-04-24 09:00:00","stopDate":"2020-04-24 12:00:00","orgNo":"3340101","typeCode":"临时停电","poweroffArea":"110kV紫荆变:迦南8031线-星洲四配变后段","poweroffReason":"(低压停电信息)星洲花园白沙拂庭6号表计新装12KW","powerTime":"2020-04-24 11:05:52","powerComm":"已送电","subsNo":"","lineNo":"","tgNo":"","tgName":null,"infoStatus":"1","orgName":"浙江杭州电力客户服务中心","typeName":null,"infoStatusName":null,"dateDay":null,"orgNos":null,"nowTime":null,"countyName":null,"streetName":null,"villageName":null,"roadName":null,"communityName":null,"tranName":null,"sdLineName":null,"cityCode":"3340101","cityName":"浙江杭州电力客户服务中心","provinceCode":null,"stopTime":"2020-04-24 12:00:00","powerType":"全部","powerOffArea":"110kV紫荆变:迦南8031线-星洲四配变后段","powerOffReason":"(低压停电信息)星洲花园白沙拂庭6号表计新装12KW","powerOffId":"2020041731020275"},{"poweroffId":2020041731020266,"sgpoweroffId":null,"subsName":"","lineName":"10kV登城D142线","pubTranName":"富阳长远干粉砂浆有限公司,登城水泥2#,","scope":"浙江省-杭州市-富阳区-渌渚镇-岘口行政村-杭州富阳登城水泥有限公司、杭州登城砂浆有限公司一带","startTime":"2020-04-28 08:30:00","stopDate":"2020-04-28 17:00:00","orgNo":"3340170","typeCode":"计划停电","poweroffArea":"110kV新登变:登城D142线-登城水泥10#后段","poweroffReason":"登城D142线、灵山D143线、南津D138线低周保护改定值","powerTime":"2020-04-28 16:44:19","powerComm":"已送电","subsNo":"","lineNo":"","tgNo":"","tgName":null,"infoStatus":"1","orgName":"国网浙江杭州市富阳区供电公司","typeName":null,"infoStatusName":null,"dateDay":null,"orgNos":null,"nowTime":null,"countyName":null,"streetName":null,"villageName":null,"roadName":null,"communityName":null,"tranName":null,"sdLineName":null,"cityCode":"3340170","cityName":"国网浙江杭州市富阳区供电公司","provinceCode":null,"stopTime":"2020-04-28 17:00:00","powerType":"全部","powerOffArea":"110kV新登变:登城D142线-登城水泥10#后段","powerOffReason":"登城D142线、灵山D143线、南津D138线低周保护改定值","powerOffId":"2020041731020266"},{"poweroffId":2020041731020254,"sgpoweroffId":null,"subsName":"","lineName":"10kV水印D461线","pubTranName":"水印3#公变,水印2#公变,水印11#公变,水印7#公变,水印1#公变,水印8#公变,水印6#公变,杭州富阳山水置业有限公司变压器,水印4#公变,水印9#公变,水印5#公变,水印10#公变,","scope":"浙江省-杭州市-富阳区-鹿山街道-蒋家行政村(蒋家自然村,1号路)","startTime":"2020-04-29 17:10:00","stopDate":"2020-04-29 17:40:00","orgNo":"3340170","typeCode":"计划停电","poweroffArea":"110kV长春变:水印D461线首端，水印1#公变，水印2#公变，水印3#公变之间;水印D461线首端，水印1#公变，水印2#公变，水印3#公变总开关之间","poweroffReason":"短时停电配合水印D461线负荷恢复 原停电开始时间为2020-04-29 16:40:00,因政策原因,现变更停电开始时间为2020-04-29 17:10:00","powerTime":"2020-04-29 17:29:47","powerComm":"已送电","subsNo":"","lineNo":"","tgNo":"","tgName":null,"infoStatus":"1","orgName":"国网浙江杭州市富阳区供电公司","typeName":null,"infoStatusName":null,"dateDay":null,"orgNos":null,"nowTime":null,"countyName":null,"streetName":null,"villageName":null,"roadName":null,"communityName":null,"tranName":null,"sdLineName":null,"cityCode":"3340170","cityName":"国网浙江杭州市富阳区供电公司","provinceCode":null,"stopTime":"2020-04-29 17:40:00","powerType":"全部","powerOffArea":"110kV长春变:水印D461线首端，水印1#公变，水印2#公变，水印3#公变之间;水印D461线首端，水印1#公变，水印2#公变，水印3#公变总开关之间","powerOffReason":"短时停电配合水印D461线负荷恢复 原停电开始时间为2020-04-29 16:40:00,因政策原因,现变更停电开始时间为2020-04-29 17:10:00","powerOffId":"2020041731020254"}],"pageModel":{"pageNow":324,"totalCount":17788,"totalPage":1779,"tableRows":0,"pageCount":10,"beginCount":3230},"isExperi":"1"}