{"message":"","today":"2020-06-15","seleList":[{"poweroffId":2020041731020246,"sgpoweroffId":null,"subsName":"","lineName":"10kV水印D461线","pubTranName":"水印3#公变,水印11#公变,水印6#公变,水印2#公变,水印4#公变,水印7#公变,水印10#公变,水印8#公变,水印9#公变,水印1#公变,水印5#公变,杭州富阳山水置业有限公司变压器,","scope":"浙江省-杭州市-富阳区-鹿山街道-蒋家行政村-蒋家自然村","startTime":"2020-04-29 08:05:00","stopDate":"2020-04-29 08:25:00","orgNo":"3340170","typeCode":"计划停电","poweroffArea":"110kV长春变:水印D461线-水印3#公变后段;水印D461线-水印2#公变后段;水印D461线-水印1#公变后段;水印D461线首端，水印1#公变，水印2#公变，水印3#公变总开关之间","poweroffReason":"短时停电配合水印D461线负荷转供至10千伏发电车","powerTime":"2020-04-29 08:15:26","powerComm":"已送电","subsNo":"","lineNo":"","tgNo":"","tgName":null,"infoStatus":"1","orgName":"国网浙江杭州市富阳区供电公司","typeName":null,"infoStatusName":null,"dateDay":null,"orgNos":null,"nowTime":null,"countyName":null,"streetName":null,"villageName":null,"roadName":null,"communityName":null,"tranName":null,"sdLineName":null,"cityCode":"3340170","cityName":"国网浙江杭州市富阳区供电公司","provinceCode":null,"stopTime":"2020-04-29 08:25:00","powerType":"全部","powerOffArea":"110kV长春变:水印D461线-水印3#公变后段;水印D461线-水印2#公变后段;水印D461线-水印1#公变后段;水印D461线首端，水印1#公变，水印2#公变，水印3#公变总开关之间","powerOffReason":"短时停电配合水印D461线负荷转供至10千伏发电车","powerOffId":"2020041731020246"},{"poweroffId":2020041731020241,"sgpoweroffId":null,"subsName":"","lineName":"10kV麻车Y312线","pubTranName":"鲁塘村长方台区,","scope":"浙江省-杭州市-建德市-大洋镇-鲁塘行政村(坟坞垅自然村,鲁塘自然村)","startTime":"2020-04-17 12:45:00","stopDate":"2020-04-17 13:40:00","orgNo":"3340180","typeCode":"电网故障停限电","poweroffArea":"35kV大洋变:麻车Y312线鲁塘村长方台区配变","poweroffReason":"高压开关跳闸原停电结束时间为2020-04-1714:45:00,为减少客户停电时间,加快工作进度,提前送电,现变更停电结束时间为2020-04-1713:40:00","powerTime":"2020-04-17 13:05:00","powerComm":"已送电","subsNo":"","lineNo":"","tgNo":"","tgName":null,"infoStatus":"1","orgName":"国网浙江建德市供电有限公司","typeName":null,"infoStatusName":null,"dateDay":null,"orgNos":null,"nowTime":null,"countyName":null,"streetName":null,"villageName":null,"roadName":null,"communityName":null,"tranName":null,"sdLineName":null,"cityCode":"3340180","cityName":"国网浙江建德市供电有限公司","provinceCode":null,"stopTime":"2020-04-17 13:40:00","powerType":"全部","powerOffArea":"35kV大洋变:麻车Y312线鲁塘村长方台区配变","powerOffReason":"高压开关跳闸原停电结束时间为2020-04-1714:45:00,为减少客户停电时间,加快工作进度,提前送电,现变更停电结束时间为2020-04-1713:40:00","powerOffId":"2020041731020241"},{"poweroffId":2020041731020236,"sgpoweroffId":null,"subsName":"","lineName":"10kV工贸A695线","pubTranName":"运东村5#变,","scope":"浙江省-杭州市-萧山区-瓜沥镇-运东行政村-运东自然村等","startTime":"2020-04-17 12:30:56","stopDate":"2020-04-17 15:50:56","orgNo":"3340130","typeCode":"电网故障停限电","poweroffArea":"110kV白川变:工贸A695线-运东村5#变台区低压开关","poweroffReason":"(低压停电信息)低压漏电保护器跳闸原停电结束时间为2020-04-1716:30:56,为减少客户停电时间,加快工作进度,提前送电,现变更停电结束时间为2020-04-1715:50:56","powerTime":"2020-04-17 15:10:26","powerComm":"已送电","subsNo":"","lineNo":"","tgNo":"","tgName":null,"infoStatus":"1","orgName":"国网浙江杭州市萧山区供电有限公司","typeName":null,"infoStatusName":null,"dateDay":null,"orgNos":null,"nowTime":null,"countyName":null,"streetName":null,"villageName":null,"roadName":null,"communityName":null,"tranName":null,"sdLineName":null,"cityCode":"3340130","cityName":"国网浙江杭州市萧山区供电有限公司","provinceCode":null,"stopTime":"2020-04-17 15:50:56","powerType":"全部","powerOffArea":"110kV白川变:工贸A695线-运东村5#变台区低压开关","powerOffReason":"(低压停电信息)低压漏电保护器跳闸原停电结束时间为2020-04-1716:30:56,为减少客户停电时间,加快工作进度,提前送电,现变更停电结束时间为2020-04-1715:50:56","powerOffId":"2020041731020236"},{"poweroffId":2020041731020232,"sgpoweroffId":null,"subsName":"","lineName":"10kV宫前D603线","pubTranName":"蒋家村东方1号东方公变,","scope":"浙江省-杭州市-富阳区-大源镇-蒋家村东方村","startTime":"2020-04-30 08:10:00","stopDate":"2020-04-30 17:00:00","orgNo":"3340170","typeCode":"计划停电","poweroffArea":"35kV溪东变:宫前D603线-蒋家村东方1号东方公变低压开关后段","poweroffReason":"(低压停电信息)1#照明线1#19杆新架集束导线11档，拆除1#20杆分线，表箱移位3只，搭接等工作。（江南2020年蒋家村14#东坑水库公变等台区低压线路改造工程）","powerTime":"2020-04-30 16:46:24","powerComm":"已送电","subsNo":"","lineNo":"","tgNo":"","tgName":null,"infoStatus":"1","orgName":"国网浙江杭州市富阳区供电公司","typeName":null,"infoStatusName":null,"dateDay":null,"orgNos":null,"nowTime":null,"countyName":null,"streetName":null,"villageName":null,"roadName":null,"communityName":null,"tranName":null,"sdLineName":null,"cityCode":"3340170","cityName":"国网浙江杭州市富阳区供电公司","provinceCode":null,"stopTime":"2020-04-30 17:00:00","powerType":"全部","powerOffArea":"35kV溪东变:宫前D603线-蒋家村东方1号东方公变低压开关后段","powerOffReason":"(低压停电信息)1#照明线1#19杆新架集束导线11档，拆除1#20杆分线，表箱移位3只，搭接等工作。（江南2020年蒋家村14#东坑水库公变等台区低压线路改造工程）","powerOffId":"2020041731020232"},{"poweroffId":2020041731020231,"sgpoweroffId":null,"subsName":"","lineName":"10kV三联D943线","pubTranName":"龙星村5号罗家岭公变,","scope":"浙江省-杭州市-富阳区-富春街道-三桥行政村(罗家岭自然村,甘溪自然村,龙星自然村)","startTime":"2020-04-30 08:00:00","stopDate":"2020-04-30 16:50:00","orgNo":"3340170","typeCode":"计划停电","poweroffArea":"110kV育才变:三联D943线-龙星村5号罗家岭后段","poweroffReason":"(低压停电信息)青云2020年龙星村5#罗家岭公变等低压线路改造工程打支架，更换落户线13处，搭接等工作","powerTime":"2020-04-30 16:30:50","powerComm":"已送电","subsNo":"","lineNo":"","tgNo":"","tgName":null,"infoStatus":"1","orgName":"国网浙江杭州市富阳区供电公司","typeName":null,"infoStatusName":null,"dateDay":null,"orgNos":null,"nowTime":null,"countyName":null,"streetName":null,"villageName":null,"roadName":null,"communityName":null,"tranName":null,"sdLineName":null,"cityCode":"3340170","cityName":"国网浙江杭州市富阳区供电公司","provinceCode":null,"stopTime":"2020-04-30 16:50:00","powerType":"全部","powerOffArea":"110kV育才变:三联D943线-龙星村5号罗家岭后段","powerOffReason":"(低压停电信息)青云2020年龙星村5#罗家岭公变等低压线路改造工程打支架，更换落户线13处，搭接等工作","powerOffId":"2020041731020231"},{"poweroffId":2020041731020228,"sgpoweroffId":null,"subsName":"","lineName":"10kV横槎D386线","pubTranName":"横槎村8#新区公变,","scope":"浙江省-杭州市-富阳区-常安镇-横槎村一带","startTime":"2020-04-30 08:30:00","stopDate":"2020-04-30 15:30:00","orgNo":"3340170","typeCode":"计划停电","poweroffArea":"35kV湖源变:横槎D386线-横槎村8#新区公变低压开关后段","poweroffReason":"(低压停电信息)横槎D386线荞麦岭分线线路迁改工程：横槎村8#新区公变3#出线1#杆-8#杆之间新立电杆2支，架设导线2档，拆移导线1档，拆除导线6档等工作。","powerTime":"2020-04-30 15:15:52","powerComm":"已送电","subsNo":"","lineNo":"","tgNo":"","tgName":null,"infoStatus":"1","orgName":"国网浙江杭州市富阳区供电公司","typeName":null,"infoStatusName":null,"dateDay":null,"orgNos":null,"nowTime":null,"countyName":null,"streetName":null,"villageName":null,"roadName":null,"communityName":null,"tranName":null,"sdLineName":null,"cityCode":"3340170","cityName":"国网浙江杭州市富阳区供电公司","provinceCode":null,"stopTime":"2020-04-30 15:30:00","powerType":"全部","powerOffArea":"35kV湖源变:横槎D386线-横槎村8#新区公变低压开关后段","powerOffReason":"(低压停电信息)横槎D386线荞麦岭分线线路迁改工程：横槎村8#新区公变3#出线1#杆-8#杆之间新立电杆2支，架设导线2档，拆移导线1档，拆除导线6档等工作。","powerOffId":"2020041731020228"},{"poweroffId":2020041731020226,"sgpoweroffId":null,"subsName":"","lineName":"10kV浦东D198线","pubTranName":"大源村浦东4#二洞桥公变,","scope":"浙江省-杭州市-富阳区-大源镇-大源村浦东村一带","startTime":"2020-04-29 08:00:00","stopDate":"2020-04-29 17:30:00","orgNo":"3340170","typeCode":"计划停电","poweroffArea":"110kV大源变:浦东D198线-大源村浦东4#二洞桥公变低压开关后段","poweroffReason":"(低压停电信息)江南2020年五爱村7#新路公变等台区增容布点工程：新放JKLYJ-1-120导线9档，拆除旧导线4档，低压负荷割接，线路拆、搭头等工作。","powerTime":"2020-04-29 17:09:08","powerComm":"已送电","subsNo":"","lineNo":"","tgNo":"","tgName":null,"infoStatus":"1","orgName":"国网浙江杭州市富阳区供电公司","typeName":null,"infoStatusName":null,"dateDay":null,"orgNos":null,"nowTime":null,"countyName":null,"streetName":null,"villageName":null,"roadName":null,"communityName":null,"tranName":null,"sdLineName":null,"cityCode":"3340170","cityName":"国网浙江杭州市富阳区供电公司","provinceCode":null,"stopTime":"2020-04-29 17:30:00","powerType":"全部","powerOffArea":"110kV大源变:浦东D198线-大源村浦东4#二洞桥公变低压开关后段","powerOffReason":"(低压停电信息)江南2020年五爱村7#新路公变等台区增容布点工程：新放JKLYJ-1-120导线9档，拆除旧导线4档，低压负荷割接，线路拆、搭头等工作。","powerOffId":"2020041731020226"},{"poweroffId":2020041731020224,"sgpoweroffId":null,"subsName":"","lineName":"10kV潘塘D521线","pubTranName":"大源村永庆1#新区西公变,","scope":"浙江省-杭州市-富阳区-大源镇-大源村永庆村一带","startTime":"2020-04-29 08:10:00","stopDate":"2020-04-29 17:00:00","orgNo":"3340170","typeCode":"计划停电","poweroffArea":"110kV大源变:潘塘D521线-大源村永庆1#新区西公变低压开关后段","poweroffReason":"(低压停电信息)1#照明线1#3杆至1#9杆更换导线6档，拆装接户线7处，搭接等工作。（江南2020年蒋家村14#东坑水库公变等台区低压线路改造工程）","powerTime":"2020-04-29 16:40:51","powerComm":"已送电","subsNo":"","lineNo":"","tgNo":"","tgName":null,"infoStatus":"1","orgName":"国网浙江杭州市富阳区供电公司","typeName":null,"infoStatusName":null,"dateDay":null,"orgNos":null,"nowTime":null,"countyName":null,"streetName":null,"villageName":null,"roadName":null,"communityName":null,"tranName":null,"sdLineName":null,"cityCode":"3340170","cityName":"国网浙江杭州市富阳区供电公司","provinceCode":null,"stopTime":"2020-04-29 17:00:00","powerType":"全部","powerOffArea":"110kV大源变:潘塘D521线-大源村永庆1#新区西公变低压开关后段","powerOffReason":"(低压停电信息)1#照明线1#3杆至1#9杆更换导线6档，拆装接户线7处，搭接等工作。（江南2020年蒋家村14#东坑水库公变等台区低压线路改造工程）","powerOffId":"2020041731020224"},{"poweroffId":2020041731020223,"sgpoweroffId":null,"subsName":"","lineName":"10kV金秋D947线","pubTranName":"春华村20号珠宝路公变变压器,","scope":"浙江省-杭州市-富阳区-富春街道-春华行政村(学士路,春华自然村,潘村路)","startTime":"2020-04-29 12:30:00","stopDate":"2020-04-29 16:50:00","orgNo":"3340170","typeCode":"计划停电","poweroffArea":"110kV育才变:金秋D947线-春华村20号珠宝路后段","poweroffReason":"(低压停电信息)青云2020年龙星村5#罗家岭公变等低压线路改造工程更换落户线6处，搭接等工作","powerTime":"2020-04-29 16:32:03","powerComm":"已送电","subsNo":"","lineNo":"","tgNo":"","tgName":null,"infoStatus":"1","orgName":"国网浙江杭州市富阳区供电公司","typeName":null,"infoStatusName":null,"dateDay":null,"orgNos":null,"nowTime":null,"countyName":null,"streetName":null,"villageName":null,"roadName":null,"communityName":null,"tranName":null,"sdLineName":null,"cityCode":"3340170","cityName":"国网浙江杭州市富阳区供电公司","provinceCode":null,"stopTime":"2020-04-29 16:50:00","powerType":"全部","powerOffArea":"110kV育才变:金秋D947线-春华村20号珠宝路后段","powerOffReason":"(低压停电信息)青云2020年龙星村5#罗家岭公变等低压线路改造工程更换落户线6处，搭接等工作","powerOffId":"2020041731020223"},{"poweroffId":2020041731020222,"sgpoweroffId":null,"subsName":"","lineName":"10kV潘村D207线","pubTranName":"铁坞口7号新区公变,","scope":"浙江省-杭州市-富阳区-富春街道-青云桥行政村(青云桥自然村,铁坞口自然村,油树坞自然村)","startTime":"2020-04-29 08:00:00","stopDate":"2020-04-29 11:40:00","orgNo":"3340170","typeCode":"计划停电","poweroffArea":"35kV大青变:潘村D207线-铁坞口7号新区后段","poweroffReason":"(低压停电信息)杭州富阳阳陂湖生态修复治俚项目(一期)-四号渠堤防整治工程农用线移位工程拆旧，人工拔立杆1支，拆架1kV70*4*2档，安装拉线2组，搭接等工作","powerTime":"2020-04-29 11:25:17","powerComm":"已送电","subsNo":"","lineNo":"","tgNo":"","tgName":null,"infoStatus":"1","orgName":"国网浙江杭州市富阳区供电公司","typeName":null,"infoStatusName":null,"dateDay":null,"orgNos":null,"nowTime":null,"countyName":null,"streetName":null,"villageName":null,"roadName":null,"communityName":null,"tranName":null,"sdLineName":null,"cityCode":"3340170","cityName":"国网浙江杭州市富阳区供电公司","provinceCode":null,"stopTime":"2020-04-29 11:40:00","powerType":"全部","powerOffArea":"35kV大青变:潘村D207线-铁坞口7号新区后段","powerOffReason":"(低压停电信息)杭州富阳阳陂湖生态修复治俚项目(一期)-四号渠堤防整治工程农用线移位工程拆旧，人工拔立杆1支，拆架1kV70*4*2档，安装拉线2组，搭接等工作","powerOffId":"2020041731020222"}],"pageModel":{"pageNow":325,"totalCount":17788,"totalPage":1779,"tableRows":0,"pageCount":10,"beginCount":3240},"isExperi":"1"}