{"message":"","today":"2020-06-15","seleList":[{"poweroffId":2020041631020311,"sgpoweroffId":null,"subsName":"","lineName":"10kV镇龙A503线","pubTranName":"星联村3#变,","scope":"浙江省-杭州市-萧山区-益农镇-星联行政村-夹灶自然村","startTime":"2020-04-24 09:00:00","stopDate":"2020-04-24 14:10:00","orgNo":"3340130","typeCode":"计划停电","poweroffArea":"110kV群围变:镇龙A503线-星联村3#变跌落式熔断器后段","poweroffReason":"镇龙A503线75/08#杆星联村03#变拆250kVA变压器1台，新装400kVA变压器1台 原停电结束时间为2020-04-24 15:00:00,为减少客户停电时间,加快工作进度,提前送电,现变更停电结束时间为2020-04-24 14:10:00","powerTime":"2020-04-24 13:25:17","powerComm":"已送电","subsNo":"","lineNo":"","tgNo":"","tgName":null,"infoStatus":"1","orgName":"国网浙江杭州市萧山区供电有限公司","typeName":null,"infoStatusName":null,"dateDay":null,"orgNos":null,"nowTime":null,"countyName":null,"streetName":null,"villageName":null,"roadName":null,"communityName":null,"tranName":null,"sdLineName":null,"cityCode":"3340130","cityName":"国网浙江杭州市萧山区供电有限公司","provinceCode":null,"stopTime":"2020-04-24 14:10:00","powerType":"全部","powerOffArea":"110kV群围变:镇龙A503线-星联村3#变跌落式熔断器后段","powerOffReason":"镇龙A503线75/08#杆星联村03#变拆250kVA变压器1台，新装400kVA变压器1台 原停电结束时间为2020-04-24 15:00:00,为减少客户停电时间,加快工作进度,提前送电,现变更停电结束时间为2020-04-24 14:10:00","powerOffId":"2020041631020311"},{"poweroffId":2020041631020310,"sgpoweroffId":null,"subsName":"","lineName":"10kV振华C786线","pubTranName":"东社村4#变,杭州萧山万华塑料制品厂1#,张神殿村11#变,杭州利登精工机械有限公司,三岔路村9#变,杭州萧山建康化纤织物整理厂,杭州尧兴废旧金属回收有限公司,1#变,三岔路村12#变,杭州萧山金峰油脂化工厂,杭州萧山钱江化肥厂,张神殿村4#变,振宏商品混凝土变压器,杭州尧兴废旧金属回收有限公司,国庆村3#变,杭州宸龙实业有限公司,张神殿村1#变,杭州萧山兴鑫塑料电器厂变压器,张神殿村6#变,孙家弄村2#变,国庆村1#变,三岔路村22#变,三岔路村23#变,孙家弄村16#变,杭州邻家医联投资管理有限公司1#,三岔路村15#变,张神殿村10#变,三岔路村18#变,三岔路村8#变,三岔路村21#变,三岔路村19#变,浙江波皇装饰材料有限公司,三岔路村5#变,三岔路村6#变,杭州佐奇机械有限公司,三岔路村7#变,三岔路村25#变,张神殿村7#变,凤凰印染印花厂,萧山管道二分厂,杭州宇佳工艺布厂,杭州迈特汽车配件有限公司,1#变,张神殿村2#变,三岔路村3#变,杭州萧山立丰塑料五金厂,杭州坎山电镀有限公司,三岔路村14#变,三岔路村13#变,东社村5#变,杭州迈特汽车配件有限公司2#,孙家弄村5#变,三岔路村11#变,东社村6#变,杭州欧诗曼五金有限公司,1#变,张神殿村8#变,三岔路村20#变,杭州明光印染化工有限公司,杭州萧山东南电缆塑料有限公司,杭州明光印染化工有限公司,杭州傢鹤家居制品有限公司,三岔路村16#变,三岔路村17#变,","scope":"浙江省-杭州市-萧山区-瓜沥镇-新港行政村、瓜沥镇-三岔路行政村(北塘东路,三岔路自然村,河西北路,小庵湾路),瓜沥镇-孙家弄行政村(建设四路,众安路,孙家弄自然村,北塘东路),瓜沥镇-张神殿行政村(张神殿自然村,北塘东路,建新路),瓜沥镇-东社行政村(东社自然村,建设四路,河西中路,北塘东路,红星路),瓜沥镇-国庆行政村(北塘东路,国庆自然村,北塘河东路,紫新路,清陈路),瓜沥镇-下街社区(草庵弄,下街,北塘东路);瓜沥镇-三岔路行政村(杭州迈特汽车配件有限公司,杭州萧山立丰塑料五金厂,杭州利登精工机械有限公司,杭州萧山第五化工厂,杭州萧山东南电缆塑料有限公司,杭州明光印染化工有限公司,凤凰印染印花厂,萧山管道二分厂,杭州宇佳工艺布厂,杭州立明电工器材有限公司,杭州萧峰新材料有限公司,杭州傢鹤家居制品有限公司),瓜沥镇-张神殿行政村(浙江波皇装饰材料有限公司,杭州万华塑料制品有限公司),瓜沥镇-东社行政村(杭州萧山建康化纤织物整理厂,杭州坎山电镀有限公司,杭州尧兴废旧金属回收有限公司,杭州萧山钱江化肥厂,杭州萧山兴鑫塑料电器厂,杭州佐奇机械有限公司,杭州欧诗曼五金有限公司,杭州宸龙实业有限公司,杭州萧山兴丰废旧物资回收有限公司),瓜沥镇(孙家弄行政村-杭州振宏商品混凝土有限公司,国庆行政村-杭州萧山邻家联合医院有限公司,群谊行政村-中铁二局集团有限公司)、瓜沥镇张神殿村等","startTime":"2020-04-16 17:48:38","stopDate":"2020-04-16 19:55:38","orgNo":"3340130","typeCode":"电网故障停限电","poweroffArea":"35kV坎山变:振华C786线-振华C7861开关后段","poweroffReason":"高压柱上断路器跳闸原停电结束时间为2020-04-1621:50:38,为减少客户停电时间,加快工作进度,提前送电,现变更停电结束时间为2020-04-1619:55:38","powerTime":"2020-04-16 19:04:48","powerComm":"已送电","subsNo":"","lineNo":"","tgNo":"","tgName":null,"infoStatus":"1","orgName":"国网浙江杭州市萧山区供电有限公司","typeName":null,"infoStatusName":null,"dateDay":null,"orgNos":null,"nowTime":null,"countyName":null,"streetName":null,"villageName":null,"roadName":null,"communityName":null,"tranName":null,"sdLineName":null,"cityCode":"3340130","cityName":"国网浙江杭州市萧山区供电有限公司","provinceCode":null,"stopTime":"2020-04-16 19:55:38","powerType":"全部","powerOffArea":"35kV坎山变:振华C786线-振华C7861开关后段","powerOffReason":"高压柱上断路器跳闸原停电结束时间为2020-04-1621:50:38,为减少客户停电时间,加快工作进度,提前送电,现变更停电结束时间为2020-04-1619:55:38","powerOffId":"2020041631020310"},{"poweroffId":2020041631020309,"sgpoweroffId":null,"subsName":"","lineName":"10kV裘围808线","pubTranName":"晓阳养殖,靖港垦种,晓阳水产,萧然电力照明公司,尔平农庄,晓阳水产,楼塔垦种,荣丰农业（三）,荣丰农业（二）,仓北垦种,头蓬四垦,1#,康顺农庄,靖江五垦（一）,01,靖港垦种,楼塔岩下,萧南村经济联合社,周鑫农业,江五路灯（三）01#,新庙前村,1#,闻堰红旗垦种,头蓬镇人民政府,晓阳水产,春雷村6#变,义蓬垦种,新湾共建,闻堰闻兴垦种,汇利蔬菜,水利水电临三,越寨庄垦种,闻堰五联,明朗农业开发公司,头蓬四垦,靖港垦种,楼塔垦种大黄岭,金家埭村,","scope":"浙江省-杭州市-萧山区-义蓬街道-春雷行政村-春雷自然村;围垦垦区-七工段片区(萧山区义蓬镇仓北村(围垦用电),萧山区蜀山街道金家埭社区（围垦用电）,萧山区义蓬镇新庙前村（围垦）,杭州康顺农庄有限公司,文堰红光垦种,靖江镇靖港村（七工段围垦用电）,头蓬镇四垦种,杭州明朗农业开发有限公司,杭州市萧山区义蓬镇义蓬村村民委员会(围垦用电)),前进街道-七工段片区(靖江五垦种,杭州荣丰农业开发有限公司,杭州尔平农业发展有限公司,义蓬镇人民政府(头蓬四垦七工段),杭州萧然电力照明工程有限公司,杭州晓阳农业开发有限公司,萧山区新湾镇共建村（围垦用电）,萧山区靖江镇靖港村民委员会（围垦用电）,萧山区靖江镇靖港村(围垦用电),杭州萧山富春养殖有限公司,头蓬镇四垦种,萧山区闻堰镇闻兴村民委员会),义蓬街道-春雷行政村(中国水利水电第四工程局有限公司,杭州萧山汇利蔬菜食品厂),义蓬街道-六工段片区(杭州萧山楼塔镇萧南村经济联合社,杭州萧山义蓬镇灯塔石料加工场,萧山区蜀山街道越寨社区(围垦用电)),围垦垦区-六工段片区(杭州晓阳农业开发有限公司,杭州晓阳养殖有限公司,杭州萧山楼塔岩山股份经济联合社,萧山区楼塔镇大黄岭村(围垦)),义蓬街道(四工段片区-楼塔垦种,中国水利水电第四工程局有限公司),围垦垦区-外七工段片区-杭州荣丰农业开发有限公司,河庄街道-四工段片区-楼塔垦种,临江街道-七工段片区-文堰红旗垦种","startTime":"2020-04-25 13:30:00","stopDate":"2020-04-25 14:15:00","orgNo":"3340120","typeCode":"计划停电","poweroffArea":"35kV头蓬变:裘围808线","poweroffReason":"裘围808线负荷倒回","powerTime":"2020-04-25 13:37:43","powerComm":"已送电","subsNo":"","lineNo":"","tgNo":"","tgName":null,"infoStatus":"1","orgName":"国网浙江杭州市钱塘新区供电公司","typeName":null,"infoStatusName":null,"dateDay":null,"orgNos":null,"nowTime":null,"countyName":null,"streetName":null,"villageName":null,"roadName":null,"communityName":null,"tranName":null,"sdLineName":null,"cityCode":"3340120","cityName":"国网浙江杭州市钱塘新区供电公司","provinceCode":null,"stopTime":"2020-04-25 14:15:00","powerType":"全部","powerOffArea":"35kV头蓬变:裘围808线","powerOffReason":"裘围808线负荷倒回","powerOffId":"2020041631020309"},{"poweroffId":2020041631020308,"sgpoweroffId":null,"subsName":"","lineName":"10kV宏蓬807线","pubTranName":"良达宏包装,友润机械,江东市政,01,江东市政（临）,义蓬机械厂,广力实业,丽绣色纺材料,河庄南钱菜厂,张叠塑料泡末,良达宏包装02#,钱江制桶,江东市政,向前村6#变,","scope":"浙江省-杭州市-萧山区-河庄街道-向前行政村-向前自然村;河庄街道-江东开发区园区(杭州江东市政公用事业服务有限公司,广力实业(杭州)有限公司,杭州钱江制桶有限公司,浙江丽绣色纺材料有限公司,杭州钱杰五金塑料有限公司,杭州萧山河庄南钱菜厂,杭州良达宏包装科技有限公司),河庄街道-向前行政村(杭州钱杰五金塑料有限公司,杭州强叠塑料泡沫有限公司),河庄街道-江东行政村-杭州江东市政公用事业服务有限公司,义蓬街道-春园行政村-杭州义蓬机械厂","startTime":"2020-04-24 14:15:00","stopDate":"2020-04-24 15:00:00","orgNo":"3340120","typeCode":"计划停电","poweroffArea":"35kV头蓬变:宏蓬807线","poweroffReason":"宏蓬807线负荷倒出（设备班）配合头蓬变临时开闭站吊装倒负荷工作","powerTime":"2020-04-24 14:27:14","powerComm":"已送电","subsNo":"","lineNo":"","tgNo":"","tgName":null,"infoStatus":"1","orgName":"国网浙江杭州市钱塘新区供电公司","typeName":null,"infoStatusName":null,"dateDay":null,"orgNos":null,"nowTime":null,"countyName":null,"streetName":null,"villageName":null,"roadName":null,"communityName":null,"tranName":null,"sdLineName":null,"cityCode":"3340120","cityName":"国网浙江杭州市钱塘新区供电公司","provinceCode":null,"stopTime":"2020-04-24 15:00:00","powerType":"全部","powerOffArea":"35kV头蓬变:宏蓬807线","powerOffReason":"宏蓬807线负荷倒出（设备班）配合头蓬变临时开闭站吊装倒负荷工作","powerOffId":"2020041631020308"},{"poweroffId":2020041631020306,"sgpoweroffId":null,"subsName":"","lineName":"10kV帝凯801线","pubTranName":"帝凯8化工厂3#,2#,3#,1#,天然气,新湾街道办事处（一）,帝凯8化工厂2#,","scope":"浙江省-杭州市-萧山区-新湾街道—围垦垦区(六工段片区-杭州江东农场开发有限公司,外六工段片区-杭州泰谱环境科技有限公司),义蓬街道-六工段片区-杭州帝凯化工有限公司,临江街道-六工段片区-中石油管道有限责任公司西气东输分公司","startTime":"2020-04-24 13:30:00","stopDate":"2020-04-24 14:15:00","orgNo":"3340120","typeCode":"计划停电","poweroffArea":"35kV头蓬变:帝凯801线","poweroffReason":"帝凯801线负荷倒出（设备班）配合头蓬变临时开闭站吊装倒负荷工作","powerTime":"2020-04-24 13:38:09","powerComm":"已送电","subsNo":"","lineNo":"","tgNo":"","tgName":null,"infoStatus":"1","orgName":"国网浙江杭州市钱塘新区供电公司","typeName":null,"infoStatusName":null,"dateDay":null,"orgNos":null,"nowTime":null,"countyName":null,"streetName":null,"villageName":null,"roadName":null,"communityName":null,"tranName":null,"sdLineName":null,"cityCode":"3340120","cityName":"国网浙江杭州市钱塘新区供电公司","provinceCode":null,"stopTime":"2020-04-24 14:15:00","powerType":"全部","powerOffArea":"35kV头蓬变:帝凯801线","powerOffReason":"帝凯801线负荷倒出（设备班）配合头蓬变临时开闭站吊装倒负荷工作","powerOffId":"2020041631020306"},{"poweroffId":2020041631020305,"sgpoweroffId":null,"subsName":"","lineName":"10kV梅仙C790线","pubTranName":"1#变,杭州馥盛纺织有限公司1#,2#变,杭州萧山志秀针纺服饰有限公司,1#变,1#变,梅仙村17#变,杭州绣一阁纺织有限公司,杭州萧港假日酒店有限公司,梅仙村5#变,杭州萧山管道工具有限公司,浙江丰润酒业有限公司,杭州易川塑业有限公司,梅仙村13#变,杭州萧山光明粮棉油加工有限公司2#,2#变,1#变,1#变,国庆村5#变,1#,杭州萧山区公路段,杭州飞翔电力电器有限公司,杭州钱江电气制造有限公司2#,杭州宏盾五金机械有限公司,杭州辰阳浸塑有限公司,梅仙村12#变,梅仙村8#变,杭州杰达服装辅料有限公司,杭州富圣纺织有限公司,杭州立明电工器材有限公司,坎山供电营业所2#变,杭州南方高科机械制造有限公司,杭州敏驿行制衣有限公司,杭州萧山志方摩托车用品厂,国庆村15#变,梅仙村14#变,梅仙村1#变,梅仙村6#变,梅仙村18#变,杭州钱江电气制造有限公司,浙江水祥水产食品有限公司,杭州宏鑫金属制品有限公司,梅仙村2#变,梅仙村9#变,","scope":"浙江省-杭州市-萧山区-瓜沥镇-国庆行政村(国庆村西直路,建设四路,紫新路,国庆自然村,北塘东路,坎红公路),瓜沥镇-新凉亭社区(新凉亭三路,新凉亭二路,新凉亭一路),瓜沥镇-梅仙行政村(梅仙路,梅仙自然村,梅仙西直路,坎红盈路,富强路);浙江省-杭州市-萧山区-瓜沥镇-孙家弄行政村-杭州暴龙酒店管理有限公司,瓜沥镇-新凉亭社区(杭州萧山志秀针纺服饰有限公司,杭州萧山志方摩托车用品厂),瓜沥镇-梅仙行政村(杭州飞翔电力电器有限公司,杭州易川塑业有限公司,杭州宏盾五金机械有限公司,杭州钱江电气制造有限公司,浙江丰润酒业有限公司,杭州富圣纺织有限公司,杭州萧山管道工具有限公司,杭州立明电工器材有限公司,杭州萧港假日酒店有限公司,杭州萧山坎山阿根加弹厂,杭州萧山光明粮棉油加工有限公司,杭州宏鑫金属制品有限公司,浙江帝友塑业有限公司,杭州鑫鸿森纺织有限公司,杭州卓一新能源汽车有限公司),瓜沥镇-国庆行政村(杭州杰达服装辅料有限公司,杭州辰阳浸塑有限公司,浙江水祥水产食品有限公司,杭州市萧山区公路管理处靖江所,杭州敏驿行制衣有限公司,杭州南方高科机械制造有限公司,杭州绣一阁纺织有限公司,杭州路遥新能源有限公司,杭州云充能源科技有限公司)萧山区瓜沥镇梅仙村等","startTime":"2020-04-16 17:26:47","stopDate":"2020-04-16 18:40:47","orgNo":"3340130","typeCode":"电网故障停限电","poweroffArea":"35kV坎山变:梅仙C790线","poweroffReason":"高压柱上断路器跳闸原停电结束时间为2020-04-1621:31:47,为减少客户停电时间,加快工作进度,提前送电,现变更停电结束时间为2020-04-1618:40:47","powerTime":"2020-04-16 17:57:14","powerComm":"已送电","subsNo":"","lineNo":"","tgNo":"","tgName":null,"infoStatus":"1","orgName":"国网浙江杭州市萧山区供电有限公司","typeName":null,"infoStatusName":null,"dateDay":null,"orgNos":null,"nowTime":null,"countyName":null,"streetName":null,"villageName":null,"roadName":null,"communityName":null,"tranName":null,"sdLineName":null,"cityCode":"3340130","cityName":"国网浙江杭州市萧山区供电有限公司","provinceCode":null,"stopTime":"2020-04-16 18:40:47","powerType":"全部","powerOffArea":"35kV坎山变:梅仙C790线","powerOffReason":"高压柱上断路器跳闸原停电结束时间为2020-04-1621:31:47,为减少客户停电时间,加快工作进度,提前送电,现变更停电结束时间为2020-04-1618:40:47","powerOffId":"2020041631020305"},{"poweroffId":2020041631020274,"sgpoweroffId":null,"subsName":"","lineName":"10kV建共G605线","pubTranName":"高地3组（小星桥）公变,高地2组（金家角）2号公变,高地1组公变,高地2组（金家角）1号公变,","scope":"浙江省-杭州市-余杭区-南苑街道-高地社区-高地","startTime":"2020-04-16 16:15:00","stopDate":"2020-04-16 19:30:00","orgNo":"3340140","typeCode":"电网故障停限电","poweroffArea":"110kV艺尚变:建共G605线高地2组分线开关后段","poweroffReason":"高压开关跳闸原停电结束时间为2020-04-1618:15:00,因现场情况复杂原因,延迟送电,现变更停电结束时间为2020-04-1619:30:00","powerTime":"2020-04-16 18:52:00","powerComm":"已送电","subsNo":"","lineNo":"","tgNo":"","tgName":null,"infoStatus":"1","orgName":"国网浙江杭州市余杭区供电有限公司","typeName":null,"infoStatusName":null,"dateDay":null,"orgNos":null,"nowTime":null,"countyName":null,"streetName":null,"villageName":null,"roadName":null,"communityName":null,"tranName":null,"sdLineName":null,"cityCode":"3340140","cityName":"国网浙江杭州市余杭区供电有限公司","provinceCode":null,"stopTime":"2020-04-16 19:30:00","powerType":"全部","powerOffArea":"110kV艺尚变:建共G605线高地2组分线开关后段","powerOffReason":"高压开关跳闸原停电结束时间为2020-04-1618:15:00,因现场情况复杂原因,延迟送电,现变更停电结束时间为2020-04-1619:30:00","powerOffId":"2020041631020274"},{"poweroffId":2020041631020273,"sgpoweroffId":null,"subsName":"","lineName":"10kV横下D204线","pubTranName":"浙江郑诺复合材料有限公司,2#变压器,2#电机,#1电机,富阳市富春汇金纳米矿业有限公司,横山下6号油树坞公变,杭州途锐机械有限公司1#变,富阳市富翔建材有限公司,富阳金畏铸造有限公司,富阳市鑫源精细化工有限公司,富阳市横山矿粉厂1#变,","scope":"浙江省-杭州市-富阳区-富春街道-青云桥行政村(横山下自然村,冷水塘自然村,新凉亭自然村,油树坞自然村,米筛坞自然村);富春街道(杭州富阳鑫源化工有限公司,杭州富阳建业建材有限公司,杭州富阳金畏铸造有限公司,杭州富阳横山矿粉厂,杭州雅尚造型艺术有限公司,浙江郑诺复合材料有限公司,杭州富阳富春汇金纳米矿业有限公司)","startTime":"2020-04-16 16:10:00","stopDate":"2020-04-16 18:10:00","orgNo":"3340170","typeCode":"电网故障停限电","poweroffArea":"35kV大青变:横下D204线横山下分线后段","poweroffReason":"高压开关跳闸","powerTime":"2020-04-16 17:17:50","powerComm":"已送电","subsNo":"","lineNo":"","tgNo":"","tgName":null,"infoStatus":"1","orgName":"国网浙江杭州市富阳区供电公司","typeName":null,"infoStatusName":null,"dateDay":null,"orgNos":null,"nowTime":null,"countyName":null,"streetName":null,"villageName":null,"roadName":null,"communityName":null,"tranName":null,"sdLineName":null,"cityCode":"3340170","cityName":"国网浙江杭州市富阳区供电公司","provinceCode":null,"stopTime":"2020-04-16 18:10:00","powerType":"全部","powerOffArea":"35kV大青变:横下D204线横山下分线后段","powerOffReason":"高压开关跳闸","powerOffId":"2020041631020273"},{"poweroffId":2020041631020267,"sgpoweroffId":null,"subsName":"","lineName":"10kV保安T182线","pubTranName":"朝阳珠洞坞1号公变,朝阳珠洞坞2号公变,朝阳牧岭脚1号公变,朝阳1号公变,朝阳贰队1号公变,","scope":"浙江省-杭州市-桐庐县-分水镇(朝阳行政村-朝阳自然村,三溪行政村-三溪自然村)","startTime":"2020-04-16 15:55:00","stopDate":"2020-04-16 17:00:00","orgNo":"3340150","typeCode":"电网故障停限电","poweroffArea":"110kV分水变:保安T182线朝阳F4974开关后段","poweroffReason":"高压开关跳闸原停电结束时间为2020-04-1619:55:00,为减少客户停电时间,加快工作进度,提前送电,现变更停电结束时间为2020-04-1617:00:00","powerTime":"2020-04-16 16:44:59","powerComm":"已送电","subsNo":"","lineNo":"","tgNo":"","tgName":null,"infoStatus":"1","orgName":"国网浙江桐庐县供电公司","typeName":null,"infoStatusName":null,"dateDay":null,"orgNos":null,"nowTime":null,"countyName":null,"streetName":null,"villageName":null,"roadName":null,"communityName":null,"tranName":null,"sdLineName":null,"cityCode":"3340150","cityName":"国网浙江桐庐县供电公司","provinceCode":null,"stopTime":"2020-04-16 17:00:00","powerType":"全部","powerOffArea":"110kV分水变:保安T182线朝阳F4974开关后段","powerOffReason":"高压开关跳闸原停电结束时间为2020-04-1619:55:00,为减少客户停电时间,加快工作进度,提前送电,现变更停电结束时间为2020-04-1617:00:00","powerOffId":"2020041631020267"},{"poweroffId":2020041631020240,"sgpoweroffId":null,"subsName":"","lineName":"10kV惠都A098线","pubTranName":"盈兴公寓2#变,宁牧村12#变,盈兴公寓1#变,","scope":"浙江省-杭州市-萧山区-宁围街道(宁牧村,宁牧行政村,盈兴公寓)","startTime":"2020-04-28 08:35:00","stopDate":"2020-04-28 17:30:00","orgNo":"3340130","typeCode":"计划停电","poweroffArea":"110kV惠兴变:惠都A098线-新宁分线后段","poweroffReason":"宁府开换柜","powerTime":"2020-04-28 16:33:09","powerComm":"已送电","subsNo":"","lineNo":"","tgNo":"","tgName":null,"infoStatus":"1","orgName":"国网浙江杭州市萧山区供电有限公司","typeName":null,"infoStatusName":null,"dateDay":null,"orgNos":null,"nowTime":null,"countyName":null,"streetName":null,"villageName":null,"roadName":null,"communityName":null,"tranName":null,"sdLineName":null,"cityCode":"3340130","cityName":"国网浙江杭州市萧山区供电有限公司","provinceCode":null,"stopTime":"2020-04-28 17:30:00","powerType":"全部","powerOffArea":"110kV惠兴变:惠都A098线-新宁分线后段","powerOffReason":"宁府开换柜","powerOffId":"2020041631020240"}],"pageModel":{"pageNow":330,"totalCount":17788,"totalPage":1779,"tableRows":0,"pageCount":10,"beginCount":3290},"isExperi":"1"}