{"message":"","today":"2020-06-15","seleList":[{"poweroffId":2020041631020236,"sgpoweroffId":null,"subsName":"","lineName":"10kV章村D382线","pubTranName":"新一村4#杨龙头公变,","scope":"浙江省-杭州市-富阳区-湖源乡-新一行政村-小章村自然村","startTime":"2020-04-16 15:14:28","stopDate":"2020-04-16 16:14:28","orgNo":"3340170","typeCode":"电网故障停限电","poweroffArea":"35kV湖源变:章村D382线-新一村4#杨龙头公变后段","poweroffReason":"(低压停电信息)低压开关跳闸原停电结束时间为2020-04-1617:14:28,为减少客户停电时间,加快工作进度,提前送电,现变更停电结束时间为2020-04-1616:14:28","powerTime":"2020-04-16 15:42:33","powerComm":"已送电","subsNo":"","lineNo":"","tgNo":"","tgName":null,"infoStatus":"1","orgName":"国网浙江杭州市富阳区供电公司","typeName":null,"infoStatusName":null,"dateDay":null,"orgNos":null,"nowTime":null,"countyName":null,"streetName":null,"villageName":null,"roadName":null,"communityName":null,"tranName":null,"sdLineName":null,"cityCode":"3340170","cityName":"国网浙江杭州市富阳区供电公司","provinceCode":null,"stopTime":"2020-04-16 16:14:28","powerType":"全部","powerOffArea":"35kV湖源变:章村D382线-新一村4#杨龙头公变后段","powerOffReason":"(低压停电信息)低压开关跳闸原停电结束时间为2020-04-1617:14:28,为减少客户停电时间,加快工作进度,提前送电,现变更停电结束时间为2020-04-1616:14:28","powerOffId":"2020041631020236"},{"poweroffId":2020041631020220,"sgpoweroffId":null,"subsName":"","lineName":"10kV川崎C895线","pubTranName":"浙江中玻进出口有限公司,中国移动3#,胜达包装2#,胜达包装1#,中铁十局集团第四工程有限公司,华能金属,","scope":"浙江省-杭州市-萧山区-宁围街道(浙江大胜达包装股份有限公司,杭州飞鹰房屋拆迁有限公司,中国移动通信集团浙江有限公司萧山分公司,浙江中玻进出口有限公司,中铁十局集团第四工程有限公司)","startTime":"2020-04-24 09:35:00","stopDate":"2020-04-24 16:30:00","orgNo":"3340130","typeCode":"计划停电","poweroffArea":"110kV万安变:川崎C895线-包装分线开关后段","poweroffReason":"通城大道（昌园路-通彩互通）并行铁路路段电力线路迁改","powerTime":"2020-04-24 16:25:44","powerComm":"已送电","subsNo":"","lineNo":"","tgNo":"","tgName":null,"infoStatus":"1","orgName":"国网浙江杭州市萧山区供电有限公司","typeName":null,"infoStatusName":null,"dateDay":null,"orgNos":null,"nowTime":null,"countyName":null,"streetName":null,"villageName":null,"roadName":null,"communityName":null,"tranName":null,"sdLineName":null,"cityCode":"3340130","cityName":"国网浙江杭州市萧山区供电有限公司","provinceCode":null,"stopTime":"2020-04-24 16:30:00","powerType":"全部","powerOffArea":"110kV万安变:川崎C895线-包装分线开关后段","powerOffReason":"通城大道（昌园路-通彩互通）并行铁路路段电力线路迁改","powerOffId":"2020041631020220"},{"poweroffId":2020041631020210,"sgpoweroffId":null,"subsName":"","lineName":"10kV门口V295线","pubTranName":"10kV告岭村[东关中宝坑]公变,","scope":"浙江省-杭州市-临安市-天目山镇-告岭行政村东关中宝坑一带","startTime":"2020-04-28 13:00:00","stopDate":"2020-04-28 15:30:00","orgNo":"3340160","typeCode":"计划停电","poweroffArea":"35kV西天目变:门口V295线东关分线田春堂支线5#杆中宝坑分支线令克","poweroffReason":"公变增容","powerTime":"2020-04-28 14:37:46","powerComm":"已送电","subsNo":"","lineNo":"","tgNo":"","tgName":null,"infoStatus":"1","orgName":"国网浙江临安市供电公司","typeName":null,"infoStatusName":null,"dateDay":null,"orgNos":null,"nowTime":null,"countyName":null,"streetName":null,"villageName":null,"roadName":null,"communityName":null,"tranName":null,"sdLineName":null,"cityCode":"3340160","cityName":"国网浙江临安市供电公司","provinceCode":null,"stopTime":"2020-04-28 15:30:00","powerType":"全部","powerOffArea":"35kV西天目变:门口V295线东关分线田春堂支线5#杆中宝坑分支线令克","powerOffReason":"公变增容","powerOffId":"2020041631020210"},{"poweroffId":2020041631020209,"sgpoweroffId":null,"subsName":"","lineName":"10kV门口V295线","pubTranName":"10kV告岭村[东关火堂湾]公变,","scope":"浙江省-杭州市-临安市-天目山镇-告岭行政村东关火塘湾一带","startTime":"2020-04-28 08:10:00","stopDate":"2020-04-28 10:30:00","orgNo":"3340160","typeCode":"计划停电","poweroffArea":"35kV西天目变门口V295线东关分线田春堂支线28#杆东关村东关火塘湾公变令克","poweroffReason":"公变增容 原停电结束时间为2020-04-28 11:00:00,为减少客户停电时间,加快工作进度,提前送电,现变更停电结束时间为2020-04-28 10:30:00","powerTime":"2020-04-28 09:56:47","powerComm":"已送电","subsNo":"","lineNo":"","tgNo":"","tgName":null,"infoStatus":"1","orgName":"国网浙江临安市供电公司","typeName":null,"infoStatusName":null,"dateDay":null,"orgNos":null,"nowTime":null,"countyName":null,"streetName":null,"villageName":null,"roadName":null,"communityName":null,"tranName":null,"sdLineName":null,"cityCode":"3340160","cityName":"国网浙江临安市供电公司","provinceCode":null,"stopTime":"2020-04-28 10:30:00","powerType":"全部","powerOffArea":"35kV西天目变门口V295线东关分线田春堂支线28#杆东关村东关火塘湾公变令克","powerOffReason":"公变增容 原停电结束时间为2020-04-28 11:00:00,为减少客户停电时间,加快工作进度,提前送电,现变更停电结束时间为2020-04-28 10:30:00","powerOffId":"2020041631020209"},{"poweroffId":2020041631020183,"sgpoweroffId":null,"subsName":"","lineName":"10kV钱东C909线","pubTranName":"宁北村22#变,宁北村15#变,","scope":"浙江省-杭州市-萧山区-宁围街道-二桥行政村-宁北自然村","startTime":"2020-04-24 08:35:00","stopDate":"2020-04-24 13:30:00","orgNo":"3340130","typeCode":"计划停电","poweroffArea":"110kV鸿达变:钱东C909线-宁北村15#变跌落式熔断器后段;钱东C909线-宁北村22#变令克后段","poweroffReason":"宁北村26#变布点 原停电结束时间为2020-04-24 12:30:00,因施工难度大原因,延迟送电,现变更停电结束时间为2020-04-24 13:30:00","powerTime":"2020-04-24 13:10:11","powerComm":"已送电","subsNo":"","lineNo":"","tgNo":"","tgName":null,"infoStatus":"1","orgName":"国网浙江杭州市萧山区供电有限公司","typeName":null,"infoStatusName":null,"dateDay":null,"orgNos":null,"nowTime":null,"countyName":null,"streetName":null,"villageName":null,"roadName":null,"communityName":null,"tranName":null,"sdLineName":null,"cityCode":"3340130","cityName":"国网浙江杭州市萧山区供电有限公司","provinceCode":null,"stopTime":"2020-04-24 13:30:00","powerType":"全部","powerOffArea":"110kV鸿达变:钱东C909线-宁北村15#变跌落式熔断器后段;钱东C909线-宁北村22#变令克后段","powerOffReason":"宁北村26#变布点 原停电结束时间为2020-04-24 12:30:00,因施工难度大原因,延迟送电,现变更停电结束时间为2020-04-24 13:30:00","powerOffId":"2020041631020183"},{"poweroffId":2020041631020170,"sgpoweroffId":null,"subsName":"","lineName":"10kV宫前D603线","pubTranName":"蒋家村9#东方凤山公变,","scope":"浙江省-杭州市-富阳区-大源镇-蒋家行政村-东方自然村","startTime":"2020-04-16 13:57:10","stopDate":"2020-04-16 15:57:10","orgNo":"3340170","typeCode":"电网故障停限电","poweroffArea":"35kV溪东变:宫前D603线-蒋家村9#东方凤山公变后段","poweroffReason":"(低压停电信息)低压开关跳闸","powerTime":"2020-04-16 15:04:14","powerComm":"已送电","subsNo":"","lineNo":"","tgNo":"","tgName":null,"infoStatus":"1","orgName":"国网浙江杭州市富阳区供电公司","typeName":null,"infoStatusName":null,"dateDay":null,"orgNos":null,"nowTime":null,"countyName":null,"streetName":null,"villageName":null,"roadName":null,"communityName":null,"tranName":null,"sdLineName":null,"cityCode":"3340170","cityName":"国网浙江杭州市富阳区供电公司","provinceCode":null,"stopTime":"2020-04-16 15:57:10","powerType":"全部","powerOffArea":"35kV溪东变:宫前D603线-蒋家村9#东方凤山公变后段","powerOffReason":"(低压停电信息)低压开关跳闸","powerOffId":"2020041631020170"},{"poweroffId":2020041631020167,"sgpoweroffId":null,"subsName":"","lineName":"10kV梧村T244线","pubTranName":"堂梓上村1号公变,","scope":"浙江省-杭州市-桐庐县-江南镇-彰坞行政村-堂梓上自然村","startTime":"2020-04-16 13:48:36","stopDate":"2020-04-16 16:00:36","orgNo":"3340150","typeCode":"电网故障停限电","poweroffArea":"110kV石阜变:梧村T244线-堂梓上村1号公变后段","poweroffReason":"(低压停电信息)低压开关跳闸","powerTime":"2020-04-16 15:43:53","powerComm":"已送电","subsNo":"","lineNo":"","tgNo":"","tgName":null,"infoStatus":"1","orgName":"国网浙江桐庐县供电公司","typeName":null,"infoStatusName":null,"dateDay":null,"orgNos":null,"nowTime":null,"countyName":null,"streetName":null,"villageName":null,"roadName":null,"communityName":null,"tranName":null,"sdLineName":null,"cityCode":"3340150","cityName":"国网浙江桐庐县供电公司","provinceCode":null,"stopTime":"2020-04-16 16:00:36","powerType":"全部","powerOffArea":"110kV石阜变:梧村T244线-堂梓上村1号公变后段","powerOffReason":"(低压停电信息)低压开关跳闸","powerOffId":"2020041631020167"},{"poweroffId":2020041631020138,"sgpoweroffId":null,"subsName":"","lineName":"10kV和睦Y506线","pubTranName":"马目村马目台区,","scope":"浙江省-杭州市-建德市-下涯镇-马目行政村乌龙庵自然村,马目自然村","startTime":"2020-04-16 11:24:00","stopDate":"2020-04-16 13:00:00","orgNo":"3340180","typeCode":"电网故障停限电","poweroffArea":"110kV沿口变:和睦Y506线-马目村马目台区后段","poweroffReason":"(低压停电信息)低压开关跳闸原停电结束时间为2020-04-1613:30:00,为减少客户停电时间,加快工作进度,提前送电,现变更停电结束时间为2020-04-1613:00:00","powerTime":"2020-04-16 12:21:06","powerComm":"已送电","subsNo":"","lineNo":"","tgNo":"","tgName":null,"infoStatus":"1","orgName":"国网浙江建德市供电有限公司","typeName":null,"infoStatusName":null,"dateDay":null,"orgNos":null,"nowTime":null,"countyName":null,"streetName":null,"villageName":null,"roadName":null,"communityName":null,"tranName":null,"sdLineName":null,"cityCode":"3340180","cityName":"国网浙江建德市供电有限公司","provinceCode":null,"stopTime":"2020-04-16 13:00:00","powerType":"全部","powerOffArea":"110kV沿口变:和睦Y506线-马目村马目台区后段","powerOffReason":"(低压停电信息)低压开关跳闸原停电结束时间为2020-04-1613:30:00,为减少客户停电时间,加快工作进度,提前送电,现变更停电结束时间为2020-04-1613:00:00","powerOffId":"2020041631020138"},{"poweroffId":2020041631020112,"sgpoweroffId":null,"subsName":"","lineName":"10kV下干D385线","pubTranName":"新绿村6#胡家公变,常南村1号罗坞公变,新绿村1#刘村公变,杭州富阳通达公路工程有限公司1#基建变,常南村2号洪家公变,新绿村4#下南坞公变,1#主变,景山村3号牛峰岭公变,新绿村7#花园塘公变,常南村4号上南坞公变,新绿村5号下干公变,新绿村3号大角公变,常南村3号柳树湾公变,新绿村2#双江口公变,","scope":"浙江省-杭州市-富阳区-湖源乡-常南行政村(洪家自然村,罗坞自然村,柳树弯自然村,上南坞自然村),湖源乡-新绿行政村(双江口自然村,胡家自然村,下干自然村,花园塘自然村,刘村自然村,费家自然村,大角自然村),常安镇-景山行政村-牛峰岭自然村,湖源乡-新一行政村-小章村自然村;湖源乡(杭州富阳通达公路工程有限公司,杭州富阳康树乐养护院有限公司)","startTime":"2020-04-16 10:38:00","stopDate":"2020-04-16 13:38:00","orgNo":"3340170","typeCode":"电网故障停限电","poweroffArea":"35kV湖源变:下干D385线下干D3852开关后段","poweroffReason":"高压开关跳闸原停电结束时间为2020-04-1612:38:00,因抢修难度较大原因,延迟送电,现变更停电结束时间为2020-04-1613:38:00","powerTime":"2020-04-16 13:00:30","powerComm":"已送电","subsNo":"","lineNo":"","tgNo":"","tgName":null,"infoStatus":"1","orgName":"国网浙江杭州市富阳区供电公司","typeName":null,"infoStatusName":null,"dateDay":null,"orgNos":null,"nowTime":null,"countyName":null,"streetName":null,"villageName":null,"roadName":null,"communityName":null,"tranName":null,"sdLineName":null,"cityCode":"3340170","cityName":"国网浙江杭州市富阳区供电公司","provinceCode":null,"stopTime":"2020-04-16 13:38:00","powerType":"全部","powerOffArea":"35kV湖源变:下干D385线下干D3852开关后段","powerOffReason":"高压开关跳闸原停电结束时间为2020-04-1612:38:00,因抢修难度较大原因,延迟送电,现变更停电结束时间为2020-04-1613:38:00","powerOffId":"2020041631020112"},{"poweroffId":2020041631020099,"sgpoweroffId":null,"subsName":"","lineName":"10kV周袁6594线","pubTranName":"袁家浦农四,袁家浦农五,","scope":"浙江省-杭州市-西湖区-双浦镇-小叔房行政村-小叔房村道,双浦镇-袁家浦社区(袁浦街,袁家浦)","startTime":"2020-04-16 10:08:00","stopDate":"2020-04-16 12:08:00","orgNo":"3340101","typeCode":"电网故障停限电","poweroffArea":"110kV周浦变:周袁6594线袁家浦农五配变","poweroffReason":"高压开关跳闸","powerTime":"2020-04-16 11:10:12","powerComm":"已送电","subsNo":"","lineNo":"","tgNo":"","tgName":null,"infoStatus":"1","orgName":"浙江杭州电力客户服务中心","typeName":null,"infoStatusName":null,"dateDay":null,"orgNos":null,"nowTime":null,"countyName":null,"streetName":null,"villageName":null,"roadName":null,"communityName":null,"tranName":null,"sdLineName":null,"cityCode":"3340101","cityName":"浙江杭州电力客户服务中心","provinceCode":null,"stopTime":"2020-04-16 12:08:00","powerType":"全部","powerOffArea":"110kV周浦变:周袁6594线袁家浦农五配变","powerOffReason":"高压开关跳闸","powerOffId":"2020041631020099"}],"pageModel":{"pageNow":331,"totalCount":17788,"totalPage":1779,"tableRows":0,"pageCount":10,"beginCount":3300},"isExperi":"1"}