{"message":"","today":"2020-06-15","seleList":[{"poweroffId":2020041631020007,"sgpoweroffId":null,"subsName":"","lineName":"10kV春南8014线","pubTranName":"紫晶商务二变,华家2,紫晶商务三变,华景南苑二变,太平二变,浙江紫晶大酒店有限公司,特种设备研究院2#,杭州木的地酒店管理有限公司1,杭州滨江房屋建设开发公司,华家池饭店1,华景南苑一变,杭州滨江房屋建设开发公司,龙生凯旋苑二变,太平一变,浙江省邮电工程建设有限公司,浙江紫晶大酒店有限公司,特种设备研究院1#,","scope":"浙江省-杭州市-江干区-凯旋街道-金兰池社区(凯旋路170号,杭州,凯旋路168号,凯旋路,双菱路179号,凤起东路),南肖埠社区(,凯旋路166号,,庆春东路82号),凯西社区(庆春东路),(金秋花园社区-,华家池社区-庆和社区-景苑社区-凯旋路);采荷街道","startTime":"2020-04-16 06:33:00","stopDate":"2020-04-16 07:50:00","orgNo":"3340101","typeCode":"电网故障停限电","poweroffArea":"110kV庆春变:春南8014线华南站春南8014线后段","poweroffReason":"高压开关跳闸原停电结束时间为2020-04-1610:33:00,为减少客户停电时间,加快工作进度,提前送电,现变更停电结束时间为2020-04-1607:50:00","powerTime":"2020-04-16 07:31:13","powerComm":"已送电","subsNo":"","lineNo":"","tgNo":"","tgName":null,"infoStatus":"1","orgName":"浙江杭州电力客户服务中心","typeName":null,"infoStatusName":null,"dateDay":null,"orgNos":null,"nowTime":null,"countyName":null,"streetName":null,"villageName":null,"roadName":null,"communityName":null,"tranName":null,"sdLineName":null,"cityCode":"3340101","cityName":"浙江杭州电力客户服务中心","provinceCode":null,"stopTime":"2020-04-16 07:50:00","powerType":"全部","powerOffArea":"110kV庆春变:春南8014线华南站春南8014线后段","powerOffReason":"高压开关跳闸原停电结束时间为2020-04-1610:33:00,为减少客户停电时间,加快工作进度,提前送电,现变更停电结束时间为2020-04-1607:50:00","powerOffId":"2020041631020007"},{"poweroffId":2020041531020284,"sgpoweroffId":null,"subsName":"","lineName":"10kV桥头V410线","pubTranName":"斜阳轧石变,杨家村变,青山斜阳村（2）,临安炜业建材有限公司,青山桥头村1#,桥头村2,青山斜阳村（1）,斜阳3#公变,白纸槽公变,","scope":"浙江省-杭州市-临安市-青山湖街道-青南行政村(斜阳自然村,杨家自然村,桥头自然村),青山湖街道(洞霄宫行政村-石泉自然村,研口行政村-研口自然村);青山湖街道-杭州临安炜业建材有限公司","startTime":"2020-04-15 22:38:00","stopDate":"2020-04-15 23:55:00","orgNo":"3340160","typeCode":"电网故障停限电","poweroffArea":"110kV石泉变:桥头V410线4103开关后段","poweroffReason":"高压开关跳闸原停电结束时间为2020-04-1600:30:00,为减少客户停电时间,加快工作进度,提前送电,现变更停电结束时间为2020-04-1523:55:00","powerTime":"2020-04-15 23:19:41","powerComm":"已送电","subsNo":"","lineNo":"","tgNo":"","tgName":null,"infoStatus":"1","orgName":"国网浙江临安市供电公司","typeName":null,"infoStatusName":null,"dateDay":null,"orgNos":null,"nowTime":null,"countyName":null,"streetName":null,"villageName":null,"roadName":null,"communityName":null,"tranName":null,"sdLineName":null,"cityCode":"3340160","cityName":"国网浙江临安市供电公司","provinceCode":null,"stopTime":"2020-04-15 23:55:00","powerType":"全部","powerOffArea":"110kV石泉变:桥头V410线4103开关后段","powerOffReason":"高压开关跳闸原停电结束时间为2020-04-1600:30:00,为减少客户停电时间,加快工作进度,提前送电,现变更停电结束时间为2020-04-1523:55:00","powerOffId":"2020041531020284"},{"poweroffId":2020041531020264,"sgpoweroffId":null,"subsName":"","lineName":"10kV普利955线","pubTranName":"艮充一变,","scope":"浙江省-杭州市-江干区-误九堡镇-误九堡社区-艮山东路艮山东路131号-3充电桩","startTime":"2020-04-23 09:50:00","stopDate":"2020-04-23 12:30:00","orgNo":"3340120","typeCode":"计划停电","poweroffArea":"110kV彭埠变:普利955线-艮充一变后段","poweroffReason":"艮运站I段辐射线路改接工作1、艮运站艮充一线电缆拆头，割接至艮运站7#间隔 原停电结束时间为2020-04-23 11:30:00,因工作量大原因,延迟送电,现变更停电结束时间为2020-04-23 12:30:00","powerTime":"2020-04-23 12:27:59","powerComm":"已送电","subsNo":"","lineNo":"","tgNo":"","tgName":null,"infoStatus":"1","orgName":"国网浙江杭州市钱塘新区供电公司","typeName":null,"infoStatusName":null,"dateDay":null,"orgNos":null,"nowTime":null,"countyName":null,"streetName":null,"villageName":null,"roadName":null,"communityName":null,"tranName":null,"sdLineName":null,"cityCode":"3340120","cityName":"国网浙江杭州市钱塘新区供电公司","provinceCode":null,"stopTime":"2020-04-23 12:30:00","powerType":"全部","powerOffArea":"110kV彭埠变:普利955线-艮充一变后段","powerOffReason":"艮运站I段辐射线路改接工作1、艮运站艮充一线电缆拆头，割接至艮运站7#间隔 原停电结束时间为2020-04-23 11:30:00,因工作量大原因,延迟送电,现变更停电结束时间为2020-04-23 12:30:00","powerOffId":"2020041531020264"},{"poweroffId":2020041531020263,"sgpoweroffId":null,"subsName":"","lineName":"10kV联佳C827线","pubTranName":"吟龙村3#变,","scope":"浙江省-杭州市-萧山区-衙前镇-吟龙行政村(吟龙自然村,吟新路,海塘路)","startTime":"2020-04-23 08:30:00","stopDate":"2020-04-23 14:30:00","orgNo":"3340130","typeCode":"计划停电","poweroffArea":"110kV罗山变:联佳C827线-吟龙村3#变后段","poweroffReason":"吟龙村3#变室内柜改杆上配电柜，更换出线电缆","powerTime":"2020-04-23 13:57:38","powerComm":"已送电","subsNo":"","lineNo":"","tgNo":"","tgName":null,"infoStatus":"1","orgName":"国网浙江杭州市萧山区供电有限公司","typeName":null,"infoStatusName":null,"dateDay":null,"orgNos":null,"nowTime":null,"countyName":null,"streetName":null,"villageName":null,"roadName":null,"communityName":null,"tranName":null,"sdLineName":null,"cityCode":"3340130","cityName":"国网浙江杭州市萧山区供电有限公司","provinceCode":null,"stopTime":"2020-04-23 14:30:00","powerType":"全部","powerOffArea":"110kV罗山变:联佳C827线-吟龙村3#变后段","powerOffReason":"吟龙村3#变室内柜改杆上配电柜，更换出线电缆","powerOffId":"2020041531020263"},{"poweroffId":2020041531020259,"sgpoweroffId":null,"subsName":"","lineName":"10kV江双8997线","pubTranName":"栢丽一变,","scope":"浙江省-杭州市-滨江区-长河街道-中兴社区-滨盛路柏悦轩小区13-17层。","startTime":"2020-04-23 09:30:00","stopDate":"2020-04-23 11:30:00","orgNo":"3340101","typeCode":"计划停电","poweroffArea":"110kV江一变:江双8997线-栢丽一变后段","poweroffReason":"(低压停电信息)","powerTime":"2020-04-23 11:06:27","powerComm":"已送电","subsNo":"","lineNo":"","tgNo":"","tgName":null,"infoStatus":"1","orgName":"浙江杭州电力客户服务中心","typeName":null,"infoStatusName":null,"dateDay":null,"orgNos":null,"nowTime":null,"countyName":null,"streetName":null,"villageName":null,"roadName":null,"communityName":null,"tranName":null,"sdLineName":null,"cityCode":"3340101","cityName":"浙江杭州电力客户服务中心","provinceCode":null,"stopTime":"2020-04-23 11:30:00","powerType":"全部","powerOffArea":"110kV江一变:江双8997线-栢丽一变后段","powerOffReason":"(低压停电信息)","powerOffId":"2020041531020259"},{"poweroffId":2020041531020258,"sgpoweroffId":null,"subsName":"","lineName":"10kV晖桥8093线","pubTranName":"春西十一变,","scope":"浙江省-杭州市-滨江区-长河街道-江一社区-春波西苑13幢1单元部分。","startTime":"2020-04-24 09:30:00","stopDate":"2020-04-24 11:30:00","orgNo":"3340101","typeCode":"计划停电","poweroffArea":"110kV西兴变:晖桥8093线-春西十一变后段","poweroffReason":"(低压停电信息)","powerTime":"2020-04-24 10:55:13","powerComm":"已送电","subsNo":"","lineNo":"","tgNo":"","tgName":null,"infoStatus":"1","orgName":"浙江杭州电力客户服务中心","typeName":null,"infoStatusName":null,"dateDay":null,"orgNos":null,"nowTime":null,"countyName":null,"streetName":null,"villageName":null,"roadName":null,"communityName":null,"tranName":null,"sdLineName":null,"cityCode":"3340101","cityName":"浙江杭州电力客户服务中心","provinceCode":null,"stopTime":"2020-04-24 11:30:00","powerType":"全部","powerOffArea":"110kV西兴变:晖桥8093线-春西十一变后段","powerOffReason":"(低压停电信息)","powerOffId":"2020041531020258"},{"poweroffId":2020041531020253,"sgpoweroffId":null,"subsName":"","lineName":"10kV新联D211线","pubTranName":"新桥6号桥东公变,","scope":"浙江省-杭州市-富阳区-银湖街道-高桥行政村-新桥自然村","startTime":"2020-04-15 18:04:00","stopDate":"2020-04-15 19:04:00","orgNo":"3340170","typeCode":"电网故障停限电","poweroffArea":"110kV银湖变:新联D211线新桥6号桥东公变熔断器配变","poweroffReason":"高压开关跳闸","powerTime":"2020-04-15 18:26:04","powerComm":"已送电","subsNo":"","lineNo":"","tgNo":"","tgName":null,"infoStatus":"1","orgName":"国网浙江杭州市富阳区供电公司","typeName":null,"infoStatusName":null,"dateDay":null,"orgNos":null,"nowTime":null,"countyName":null,"streetName":null,"villageName":null,"roadName":null,"communityName":null,"tranName":null,"sdLineName":null,"cityCode":"3340170","cityName":"国网浙江杭州市富阳区供电公司","provinceCode":null,"stopTime":"2020-04-15 19:04:00","powerType":"全部","powerOffArea":"110kV银湖变:新联D211线新桥6号桥东公变熔断器配变","powerOffReason":"高压开关跳闸","powerOffId":"2020041531020253"},{"poweroffId":2020041531020251,"sgpoweroffId":null,"subsName":"","lineName":"10kV新联D211线","pubTranName":"新桥村2#桥头公变,","scope":"浙江省-杭州市-富阳区-银湖街道-高桥行政村(新桥自然村,新桥路)","startTime":"2020-04-15 18:04:00","stopDate":"2020-04-15 19:04:00","orgNo":"3340170","typeCode":"电网故障停限电","poweroffArea":"110kV银湖变:新联D211线新桥村2#桥头公变跌落式熔断器配变","poweroffReason":"高压开关跳闸","powerTime":"2020-04-15 18:25:55","powerComm":"已送电","subsNo":"","lineNo":"","tgNo":"","tgName":null,"infoStatus":"1","orgName":"国网浙江杭州市富阳区供电公司","typeName":null,"infoStatusName":null,"dateDay":null,"orgNos":null,"nowTime":null,"countyName":null,"streetName":null,"villageName":null,"roadName":null,"communityName":null,"tranName":null,"sdLineName":null,"cityCode":"3340170","cityName":"国网浙江杭州市富阳区供电公司","provinceCode":null,"stopTime":"2020-04-15 19:04:00","powerType":"全部","powerOffArea":"110kV银湖变:新联D211线新桥村2#桥头公变跌落式熔断器配变","powerOffReason":"高压开关跳闸","powerOffId":"2020041531020251"},{"poweroffId":2020041531020250,"sgpoweroffId":null,"subsName":"","lineName":"10kV新联D211线","pubTranName":"杭州怡田工具制造有限公司,浙江逸畅通信技术有限公司,杭州三普机械有限公司,","scope":"浙江省-杭州市-富阳区-富春街道(杭州三普机械有限公司,杭州怡田工具制造有限公司,浙江逸畅通信技术有限公司)","startTime":"2020-04-15 18:05:00","stopDate":"2020-04-15 19:05:00","orgNo":"3340170","typeCode":"电网故障停限电","poweroffArea":"110kV银湖变:新联D211线新联二号开关站新联T接四线开关后段","poweroffReason":"高压开关跳闸","powerTime":"2020-04-15 18:26:30","powerComm":"已送电","subsNo":"","lineNo":"","tgNo":"","tgName":null,"infoStatus":"1","orgName":"国网浙江杭州市富阳区供电公司","typeName":null,"infoStatusName":null,"dateDay":null,"orgNos":null,"nowTime":null,"countyName":null,"streetName":null,"villageName":null,"roadName":null,"communityName":null,"tranName":null,"sdLineName":null,"cityCode":"3340170","cityName":"国网浙江杭州市富阳区供电公司","provinceCode":null,"stopTime":"2020-04-15 19:05:00","powerType":"全部","powerOffArea":"110kV银湖变:新联D211线新联二号开关站新联T接四线开关后段","powerOffReason":"高压开关跳闸","powerOffId":"2020041531020250"},{"poweroffId":2020041531020249,"sgpoweroffId":null,"subsName":"","lineName":"10kV新联D211线","pubTranName":"杭州东昌丰田汽车销售服务有限公司,富阳富春江电缆材料厂,杭州祥和实业有限公司汽车销售分公司,浙江金火机床有限公司,富阳市路灯安装维修管理所,富阳市路灯安装维修管理所,富阳广成汽车有限公司,富阳市浩宇五金厂,富阳市高桥金属制品有限公司,","scope":"浙江省-杭州市-富阳区-银湖街道(杭州东昌丰田汽车销售服务有限公司,浙江金火科技实业有限公司,杭州富阳广成汽车有限公司,杭州富阳高桥金属制品有限公司,杭州富阳富春江电缆材料厂,杭州富阳城市照明工程有限公司,杭州富阳浩宇五金厂),富春街道(杭州祥悦汽车销售有限公司,杭州富阳城市照明工程有限公司)","startTime":"2020-04-15 18:06:00","stopDate":"2020-04-15 19:06:00","orgNo":"3340170","typeCode":"电网故障停限电","poweroffArea":"110kV银湖变:新联D211线新联二号开关站新联T接三线开关后段","poweroffReason":"高压开关跳闸","powerTime":"2020-04-15 18:26:42","powerComm":"已送电","subsNo":"","lineNo":"","tgNo":"","tgName":null,"infoStatus":"1","orgName":"国网浙江杭州市富阳区供电公司","typeName":null,"infoStatusName":null,"dateDay":null,"orgNos":null,"nowTime":null,"countyName":null,"streetName":null,"villageName":null,"roadName":null,"communityName":null,"tranName":null,"sdLineName":null,"cityCode":"3340170","cityName":"国网浙江杭州市富阳区供电公司","provinceCode":null,"stopTime":"2020-04-15 19:06:00","powerType":"全部","powerOffArea":"110kV银湖变:新联D211线新联二号开关站新联T接三线开关后段","powerOffReason":"高压开关跳闸","powerOffId":"2020041531020249"}],"pageModel":{"pageNow":333,"totalCount":17788,"totalPage":1779,"tableRows":0,"pageCount":10,"beginCount":3320},"isExperi":"1"}