{"message":"","today":"2020-06-15","seleList":[{"poweroffId":2020041531020154,"sgpoweroffId":null,"subsName":"","lineName":"10kV隆新L001线","pubTranName":"南阳造纸厂2#,1#变,禾新化工2#,南阳造纸厂3#,佳龙金属,1#变,萧山益佳工艺厂1321084921,左山湾闸,浙江油品储运有限公司2#,3#变,南阳造纸厂4#,新纪元经济公司(1321079874),1#变,红山村11#变,1#变,浙江油品储运有限公司1#,西气东输,红山村15#变,钱塘管理局(1315084999),禾新化工1#,1#变,九鼎纸管,陆伟庆砂石,杭州市萧山区青少年劳技培训服务中心,1#变,华凌石材加工(1316017092),震宇金属家具(1315086597),1#变,红山村18#变,红山村13#变,2#变,南阳造纸厂1#,红山村7#变,佳宇泡沫制品(1316084633),杭州阳成塑胶厂变压器间隔配电变压器,红山村5#变,杭州萧山青少年劳技培训服务中心1#,","scope":"浙江省-杭州市-萧山区-南阳街道-红山行政村-红山自然村;南阳街道-红山行政村(杭州阳成塑胶厂,杭州萧山南阳镇华林石料加工场,杭州市萧山区青少年劳技培训服务中心,杭州萧山陆伟庆砂石有限公司,杭州佳宇泡沫制品有限公司,杭州震宇金属家具有限公司,杭州萧山南阳造纸有限公司,杭州科成金属制品有限公司,杭州萧山益佳工艺五金厂,杭州九鼎纸管有限公司,中石油管道有限责任公司西气东输分公司,杭州星时达塑业有限公司,杭州市萧山区公路管理处,杭州临空再生资源有限公司),南阳街道-岩峰行政村(杭州市萧山区钱塘江灌区管理处,杭州萧山南阳新纪元经济开发有限公司),南阳街道-赭山社区(杭州仁源汽配有限公司,杭州市萧山区青少年劳技培训服务中心,浙江中纺控股集团有限公司),南阳街道(东风行政村-浙江省钱塘江管理局杭州管理处,远大行政村-浙江油品储运有限公司,坞里行政村-杭州禾新化工有限公司)等","startTime":"2020-04-15 14:06:08","stopDate":"2020-04-15 15:30:08","orgNo":"3340130","typeCode":"电网故障停限电","poweroffArea":"35kV赭山变:隆新L001线-隆新C7071开关后段","poweroffReason":"高压柱上断路器跳闸原停电结束时间为2020-04-1517:14:08,为减少客户停电时间,加快工作进度,提前送电,现变更停电结束时间为2020-04-1515:30:08","powerTime":"2020-04-15 14:45:20","powerComm":"已送电","subsNo":"","lineNo":"","tgNo":"","tgName":null,"infoStatus":"1","orgName":"国网浙江杭州市萧山区供电有限公司","typeName":null,"infoStatusName":null,"dateDay":null,"orgNos":null,"nowTime":null,"countyName":null,"streetName":null,"villageName":null,"roadName":null,"communityName":null,"tranName":null,"sdLineName":null,"cityCode":"3340130","cityName":"国网浙江杭州市萧山区供电有限公司","provinceCode":null,"stopTime":"2020-04-15 15:30:08","powerType":"全部","powerOffArea":"35kV赭山变:隆新L001线-隆新C7071开关后段","powerOffReason":"高压柱上断路器跳闸原停电结束时间为2020-04-1517:14:08,为减少客户停电时间,加快工作进度,提前送电,现变更停电结束时间为2020-04-1515:30:08","powerOffId":"2020041531020154"},{"poweroffId":2020041531020150,"sgpoweroffId":null,"subsName":"","lineName":"10kV龙虎L009线","pubTranName":"永利村11#变,永利村10#变,赭山村7#变,奔月线业(1321022323),阳力化工(1315081476),永利村3#变,赭山村13#变,坞里村3#变,红垦防腐,赭山村8#变,赭山村16#变,兴旺经编(1321024851),永利植绒(1315085235),永利村9#变,杭州市萧山区机动车驾驶员考试服务中心,中原机械厂(1316085191),赭山村10#变,永利村7#变,坞里村6#变,坞里村1#变,邮电所,永利村5#变,赭山村11#变,凯泉织造(1315086017),电器塑料厂(1315077216),永利村6#变,中江彩瓦,永利村12#变,周氏建材厂(1316004240),萧山万丰医药,远大村6#变,圣山集团,永利村1#变,","scope":"浙江省-杭州市-萧山区-南阳街道-永利行政村(永利自然村,永利路,永里路),南阳街道-赭山社区(中街,禅机弄,魁星阁弄,永利路,冯祠弄,俞家弄,麻花弄,塘下街,塘上街,永里路,坝头弄,赭山家园),南阳街道(坞里行政村-坞里自然村,远大行政村-长远自然村);南阳街道-永利行政村(杭州中原机械厂,杭州永利植绒有限公司,杭州萧山电器塑料厂,杭州萧山万丰医药有限责任公司),南阳街道-坞里行政村(杭州凯泉织造有限公司,杭州欧帝亚卫浴有限公司,杭州萧山周氏建材厂,杭州萧山红垦保温防腐有限公司,杭州中江彩瓦有限公司,圣山集团有限公司,杭州市萧山区机动车驾驶员考试服务中心有限公司),南阳街道(龙虎行政村-杭州阳力化工设备有限公司,赭东行政村-杭州萧山兴旺经编纺织有限公司,横蓬行政村-中国铁塔股份有限公司杭州市分公司)等","startTime":"2020-04-15 13:45:02","stopDate":"2020-04-15 16:20:02","orgNo":"3340130","typeCode":"电网故障停限电","poweroffArea":"35kV赭山变:龙虎L009线","poweroffReason":"高压柱上断路器跳闸原停电结束时间为2020-04-1518:57:02,为减少客户停电时间,加快工作进度,提前送电,现变更停电结束时间为2020-04-1516:20:02","powerTime":"2020-04-15 15:30:05","powerComm":"已送电","subsNo":"","lineNo":"","tgNo":"","tgName":null,"infoStatus":"1","orgName":"国网浙江杭州市萧山区供电有限公司","typeName":null,"infoStatusName":null,"dateDay":null,"orgNos":null,"nowTime":null,"countyName":null,"streetName":null,"villageName":null,"roadName":null,"communityName":null,"tranName":null,"sdLineName":null,"cityCode":"3340130","cityName":"国网浙江杭州市萧山区供电有限公司","provinceCode":null,"stopTime":"2020-04-15 16:20:02","powerType":"全部","powerOffArea":"35kV赭山变:龙虎L009线","powerOffReason":"高压柱上断路器跳闸原停电结束时间为2020-04-1518:57:02,为减少客户停电时间,加快工作进度,提前送电,现变更停电结束时间为2020-04-1516:20:02","powerOffId":"2020041531020150"},{"poweroffId":2020041531020144,"sgpoweroffId":null,"subsName":"","lineName":"10kV安山A526线","pubTranName":"安山村1#变,安山村3#变,双金鞋业,","scope":"浙江省-杭州市-萧山区-浦阳镇-安山行政村(曹家湾自然村,渔池头自然村);浙江省-杭州市-萧山区-浦阳镇-安山行政村-杭州华运汽车配件有限公司等","startTime":"2020-04-15 13:53:14","stopDate":"2020-04-15 15:20:14","orgNo":"3340130","typeCode":"电网故障停限电","poweroffArea":"110kV浦阳变:安山A526线-安山A5263开关后段","poweroffReason":"高压柱上断路器跳闸原停电结束时间为2020-04-1516:53:14,为减少客户停电时间,加快工作进度,提前送电,现变更停电结束时间为2020-04-1515:20:14","powerTime":"2020-04-15 14:32:54","powerComm":"已送电","subsNo":"","lineNo":"","tgNo":"","tgName":null,"infoStatus":"1","orgName":"国网浙江杭州市萧山区供电有限公司","typeName":null,"infoStatusName":null,"dateDay":null,"orgNos":null,"nowTime":null,"countyName":null,"streetName":null,"villageName":null,"roadName":null,"communityName":null,"tranName":null,"sdLineName":null,"cityCode":"3340130","cityName":"国网浙江杭州市萧山区供电有限公司","provinceCode":null,"stopTime":"2020-04-15 15:20:14","powerType":"全部","powerOffArea":"110kV浦阳变:安山A526线-安山A5263开关后段","powerOffReason":"高压柱上断路器跳闸原停电结束时间为2020-04-1516:53:14,为减少客户停电时间,加快工作进度,提前送电,现变更停电结束时间为2020-04-1515:20:14","powerOffId":"2020041531020144"},{"poweroffId":2020041531020142,"sgpoweroffId":null,"subsName":"","lineName":"10kV赭东A807线","pubTranName":"金星塑粉(1315080956),杭州市萧山区人民政府南阳街道办事处,赭东村12#变,东风村7#变,永利村4#变,赭东村10#变,赭东村17#变,红山村17#变,赭东村8#变,永利村2#变,圣茂塑胶,1#,赭东村18#变,红山村8#变,盛宏绣花厂(1315078607),翔风铝业,杭州龙德信机械有限公司,赭东村16#变,赭东村6#变,永利村8#变,赭东村11#变,桐乡市交通工程有限公司,1#变,红山村14#变,赭东村20#变,赭东村19#变,东风村6#变,卫锋管业(1315078082),赭东村7#变,东风村11#变,红山村16#变,1,东风村5#变,赭东村14#变,红山村10#变,红山村6#变,红山村9#变,华凌轴承(1315077224),","scope":"浙江省-杭州市-萧山区-南阳街道-南翔行政村(南阳自然村,万丰自然村),南阳街道-赭东行政村(赭东自然村,经四路),南阳街道(红山行政村-红山自然村,东风行政村-东风自然村,永利行政村-永利自然村);南阳街道-赭东行政村(萧山市南阳金星浸塑粉厂,杭州卫锋管业有限公司,杭州翔凤铝业有限公司,杭州圣茂塑胶有限公司,杭州市萧山区人民政府南阳街道办事处,杭州明缘塑料制品有限公司),南阳街道-红山行政村(杭州诚盈针织有限公司,杭州龙德信机械有限公司,杭州可淋普包装科技有限公司,桐乡市交通工程有限公司),南阳街道(横蓬行政村-杭州华凌轴承有限公司,赭山社区-杭州萧山宝苑医院有限公司、南阳街道永利行政村、南阳街道远大行政村、远大村、赭山社区农贸市场、南阳街道赭东村14组002户、南阳街道永利村503号等","startTime":"2020-04-15 13:42:03","stopDate":"2020-04-15 17:20:03","orgNo":"3340130","typeCode":"电网故障停限电","poweroffArea":"110kV黎明变:赭东A807线","poweroffReason":"高压柱上断路器跳闸原停电结束时间为2020-04-1518:50:03,为减少客户停电时间,加快工作进度,提前送电,现变更停电结束时间为2020-04-1517:20:03","powerTime":"2020-04-15 16:32:07","powerComm":"已送电","subsNo":"","lineNo":"","tgNo":"","tgName":null,"infoStatus":"1","orgName":"国网浙江杭州市萧山区供电有限公司","typeName":null,"infoStatusName":null,"dateDay":null,"orgNos":null,"nowTime":null,"countyName":null,"streetName":null,"villageName":null,"roadName":null,"communityName":null,"tranName":null,"sdLineName":null,"cityCode":"3340130","cityName":"国网浙江杭州市萧山区供电有限公司","provinceCode":null,"stopTime":"2020-04-15 17:20:03","powerType":"全部","powerOffArea":"110kV黎明变:赭东A807线","powerOffReason":"高压柱上断路器跳闸原停电结束时间为2020-04-1518:50:03,为减少客户停电时间,加快工作进度,提前送电,现变更停电结束时间为2020-04-1517:20:03","powerOffId":"2020041531020142"},{"poweroffId":2020041531020124,"sgpoweroffId":null,"subsName":"","lineName":"10kV阳山D615线","pubTranName":"徐家村4#大元村西公变,徐家村3号大元操场公变,","scope":"浙江省-杭州市-富阳区-场口镇-华丰行政村-徐家坞自然村,场口镇-徐家行政村(大元自然村,大元里自然村,塘华自然村)","startTime":"2020-04-15 12:39:43","stopDate":"2020-04-15 14:39:43","orgNo":"3340170","typeCode":"电网故障停限电","poweroffArea":"110kV鸿丰变:阳山D615线首端，徐家村3号大元操场公变，徐家村4#大元村西公变之间","poweroffReason":"高压开关跳闸","powerTime":"2020-04-15 13:58:27","powerComm":"已送电","subsNo":"","lineNo":"","tgNo":"","tgName":null,"infoStatus":"1","orgName":"国网浙江杭州市富阳区供电公司","typeName":null,"infoStatusName":null,"dateDay":null,"orgNos":null,"nowTime":null,"countyName":null,"streetName":null,"villageName":null,"roadName":null,"communityName":null,"tranName":null,"sdLineName":null,"cityCode":"3340170","cityName":"国网浙江杭州市富阳区供电公司","provinceCode":null,"stopTime":"2020-04-15 14:39:43","powerType":"全部","powerOffArea":"110kV鸿丰变:阳山D615线首端，徐家村3号大元操场公变，徐家村4#大元村西公变之间","powerOffReason":"高压开关跳闸","powerOffId":"2020041531020124"},{"poweroffId":2020041531020118,"sgpoweroffId":null,"subsName":"","lineName":"10kV爱迪C932线","pubTranName":"杭州银邦金属制品有限公司,党山供电营业所单相变3#变,1#变,杭州星宇精密压铸有限公司,八里桥村13#变,梅林村14#变,党山供电营业所单相变1#变,八里桥村1#变,杭州顺业物业管理有限公司,车路湾村11#变,杭州萧山凤凰实业有限公司,八里桥村4#变,2#主变,杭州品勒洁具有限公司配变,杭州市萧山区瓜沥镇人民政府11#,杭州萧山污水处理有限公司1#,车路湾村12#变,梅林村8#变,杭州珠格莱镜艺有限公司2#,党山供电营业所4#变,党山供电营业所18#变,党山供电营业所15#变,梅林村9#变,杭州萧山凤凰实业有限公司,杭州市萧山区党山镇人民政府6#,梅林村12#变,1#变,车路湾村4#变,杭州萧山污水处理有限公司2#,碧苑七区2#公变,信源村2#变,杭州市公安局萧山区分局,杭州市萧山区党山金迪学校,杭州萧山党山信源电器五金厂,八里桥村11#变,党山供电营业所单相变2#变,梅林村3#变,杭州珠格莱镜艺有限公司1#,杭州华利尔实业有限公司,浙江爱迪尔包装股份有限公司,梅林村2#变,杭州桑莱特木业有限公司,梅林村7#变,梅林村1#变,杭州双达洁具有限公司,杭州君利莱实业有限公司,车路湾村13#变,党山供电营业所单相变4#变,杭州奥利仕家居制造有限公司,萧山市党山机械另件厂,桑莱特镜业,杭州新贝卫浴有限公司,党山供电营业所单相变15#变,杭州萧蒙心浪服装厂,碧苑七区1#公变,科盛涤丝整理厂(1316063710),乐家卫浴洁具配变,车路湾村7#变,","scope":"浙江省-杭州市-萧山区-瓜沥镇-碧苑新村社区-七区自然村,瓜沥镇-车路湾行政村(车路湾自然村,车安路),瓜沥镇-八里桥行政村(北塘东路,八里桥自然村,村中直路,村西直路),瓜沥镇-信源行政村(党益路,诚善路,井岭路,信源自然村,川北路),瓜沥镇-南大房社区(为民路,井岭路),瓜沥镇-梅林行政村(园六路,新农村自然村,梅林自然村,园五路,梅林大道),瓜沥镇-党山行政村(井岭路,党山自然村);瓜沥镇-车路湾行政村(杭州市萧山区瓜沥镇人民政府,杭州顺业物业管理有限公司),瓜沥镇-八里桥行政村(杭州新贝卫浴有限公司,杭州星宇精密压铸有限公司),瓜沥镇-信源行政村(杭州双达洁具有限公司,杭州萧山党山信源电器五金厂),瓜沥镇-群力行政村(杭州乐家卫浴洁具有限公司,杭州君利莱实业有限公司,杭州鑫典实业有限公司,杭州华利尔实业有限公司),瓜沥镇-梅林行政村(浙江爱迪尔包装股份有限公司,杭州萧蒙心浪服装厂,萧山市党山机械另件厂),瓜沥镇-党山行政村(杭州萧山凤凰实业有限公司,杭州银邦金属制品有限公司,杭州桑莱特卫浴有限公司,杭州品勒洁具有限公司,杭州市公安局萧山区分局,杭州金迪企业管理服务有限公司,杭州钱江美容柜有限公司,杭州奥利仕家居制造有限公司,杭州萧山污水处理有限公司,杭州奔马化纤纺丝有限公司,杭州市萧山区瓜沥镇社区卫生服务中心),瓜沥镇(世安桥行政村-杭州萧山党山科盛涤丝整理厂,杭州桑莱特木业有限公司等","startTime":"2020-04-15 12:02:54","stopDate":"2020-04-15 15:02:54","orgNo":"3340130","typeCode":"电网故障停限电","poweroffArea":"110kV党山变:爱迪C932线","poweroffReason":"高压开关跳闸原停电结束时间为2020-04-1516:02:54,为减少客户停电时间,加快工作进度,提前送电,现变更停电结束时间为2020-04-1515:02:54","powerTime":"2020-04-15 14:18:51","powerComm":"已送电","subsNo":"","lineNo":"","tgNo":"","tgName":null,"infoStatus":"1","orgName":"国网浙江杭州市萧山区供电有限公司","typeName":null,"infoStatusName":null,"dateDay":null,"orgNos":null,"nowTime":null,"countyName":null,"streetName":null,"villageName":null,"roadName":null,"communityName":null,"tranName":null,"sdLineName":null,"cityCode":"3340130","cityName":"国网浙江杭州市萧山区供电有限公司","provinceCode":null,"stopTime":"2020-04-15 15:02:54","powerType":"全部","powerOffArea":"110kV党山变:爱迪C932线","powerOffReason":"高压开关跳闸原停电结束时间为2020-04-1516:02:54,为减少客户停电时间,加快工作进度,提前送电,现变更停电结束时间为2020-04-1515:02:54","powerOffId":"2020041531020118"},{"poweroffId":2020041531020117,"sgpoweroffId":null,"subsName":"","lineName":"10kV贤德D333线","pubTranName":"查口村10#西坞里公变,","scope":"浙江省-杭州市-富阳区-洞桥镇-查口行政村-黄家自然村","startTime":"2020-04-15 11:56:26","stopDate":"2020-04-15 12:56:26","orgNo":"3340170","typeCode":"电网故障停限电","poweroffArea":"110kV万市变:贤德D333线-查口村10#西坞里公变开关后段","poweroffReason":"(低压停电信息)低压开关跳闸","powerTime":"2020-04-15 12:17:34","powerComm":"已送电","subsNo":"","lineNo":"","tgNo":"","tgName":null,"infoStatus":"1","orgName":"国网浙江杭州市富阳区供电公司","typeName":null,"infoStatusName":null,"dateDay":null,"orgNos":null,"nowTime":null,"countyName":null,"streetName":null,"villageName":null,"roadName":null,"communityName":null,"tranName":null,"sdLineName":null,"cityCode":"3340170","cityName":"国网浙江杭州市富阳区供电公司","provinceCode":null,"stopTime":"2020-04-15 12:56:26","powerType":"全部","powerOffArea":"110kV万市变:贤德D333线-查口村10#西坞里公变开关后段","powerOffReason":"(低压停电信息)低压开关跳闸","powerOffId":"2020041531020117"},{"poweroffId":2020041531020115,"sgpoweroffId":null,"subsName":"","lineName":"10kV屯里G077线","pubTranName":"杭州余杭区交通项目管理有限公司,上海燕浦石油公司,","scope":"浙江省-杭州市-余杭区-东湖街道：燕浦石油屯里加油站、320国道路灯一带","startTime":"2020-04-24 08:40:00","stopDate":"2020-04-24 16:40:00","orgNo":"3340140","typeCode":"计划停电","poweroffArea":"110kV星桥变:屯里G077线-上海燕浦石油公司分线开关后段;屯里G077线-杭州市交通工程集团有限公司开关后段","poweroffReason":"新布屯里加油站公变400kVA、计量箱、表箱、新立12米杆","powerTime":"2020-04-24 15:47:42","powerComm":"已送电","subsNo":"","lineNo":"","tgNo":"","tgName":null,"infoStatus":"1","orgName":"国网浙江杭州市余杭区供电有限公司","typeName":null,"infoStatusName":null,"dateDay":null,"orgNos":null,"nowTime":null,"countyName":null,"streetName":null,"villageName":null,"roadName":null,"communityName":null,"tranName":null,"sdLineName":null,"cityCode":"3340140","cityName":"国网浙江杭州市余杭区供电有限公司","provinceCode":null,"stopTime":"2020-04-24 16:40:00","powerType":"全部","powerOffArea":"110kV星桥变:屯里G077线-上海燕浦石油公司分线开关后段;屯里G077线-杭州市交通工程集团有限公司开关后段","powerOffReason":"新布屯里加油站公变400kVA、计量箱、表箱、新立12米杆","powerOffId":"2020041531020115"},{"poweroffId":2020041531020114,"sgpoweroffId":null,"subsName":"","lineName":"10kV龙船G884线","pubTranName":"浙江中大元通科技发展有限公司1#,浙江中大元通科技发展有限公司2#,杭州金奥实业投资有限公司,杭州纳德实业有限公司1#,杭州西大洋实业投资有限公司,杭州瑞光电气有限公司,浙江中大元通科技,7#,杭州金奥实业投资有限公司,杭州纳德实业有限公司3#,中大元通1600,杭州纳德实业有限公司2#,","scope":"浙江省-杭州市-余杭区-东湖街道：杭州西大洋实业投资有限公司（商业区）、杭州金奥实业投资有限公司、杭州纳德实业有限公司、杭州瑞光电气有限公司、浙江中大元通实业有限公司一带","startTime":"2020-04-22 08:40:00","stopDate":"2020-04-22 21:00:00","orgNo":"3340140","typeCode":"临时停电","poweroffArea":"110kV漳河变:龙船G884线-培德开关站龙船G884线后段","poweroffReason":"培德开关站II段整体换柜工作","powerTime":"2020-04-22 20:38:36","powerComm":"已送电","subsNo":"","lineNo":"","tgNo":"","tgName":null,"infoStatus":"1","orgName":"国网浙江杭州市余杭区供电有限公司","typeName":null,"infoStatusName":null,"dateDay":null,"orgNos":null,"nowTime":null,"countyName":null,"streetName":null,"villageName":null,"roadName":null,"communityName":null,"tranName":null,"sdLineName":null,"cityCode":"3340140","cityName":"国网浙江杭州市余杭区供电有限公司","provinceCode":null,"stopTime":"2020-04-22 21:00:00","powerType":"全部","powerOffArea":"110kV漳河变:龙船G884线-培德开关站龙船G884线后段","powerOffReason":"培德开关站II段整体换柜工作","powerOffId":"2020041531020114"},{"poweroffId":2020041531020111,"sgpoweroffId":null,"subsName":"","lineName":"10kV田湾G265线","pubTranName":"双陈村西斗南2号公变,双陈村西斗公变,双陈村姚家坝公变,杭州万全金属软管有限公司,杭州金鸿福丝绸有限公司611030469301#专变,杭州三小龙热处理有限公司612085324901#专变,双陈村西斗2号公变,杭州煜琳建筑机械有限公司,杭州众人丝绸科技有限公司,杭州欣意机械有限公司,杭州震远丝绸有限公司,双陈村陈家角西公变,杭州金鸿福丝绸有限公司,双陈村西斗南公变,双陈村陈家角南公变,","scope":"浙江省-杭州市-余杭区-仁和街道-双陈行政村(陈家角西斗自然村,西斗自然村,陈家角自然村,陈家坝自然村,东斗自然村,计家坝自然村,姚家坝自然村,陈家角东斗自然村),仁和街道(云会行政村-西南山自然村,花园行政村-章桥自然村);仁和街道-云会行政村(杭州市余杭区云禾幼儿园,杭州金鸿福丝绸有限公司),仁和街道-双陈行政村(杭州万全金属软管有限公司,杭州欣意机械有限公司,杭州煜琳精密钣金有限公司,杭州众人丝绸科技有限公司,杭州三小龙热处理有限公司)","startTime":"2020-04-15 12:30:00","stopDate":"2020-04-15 13:30:00","orgNo":"3340140","typeCode":"电网故障停限电","poweroffArea":"110kV仁镇变:田湾G265线-西斗分线开关后段","poweroffReason":"高压开关跳闸","powerTime":"2020-04-15 13:17:00","powerComm":"已送电","subsNo":"","lineNo":"","tgNo":"","tgName":null,"infoStatus":"1","orgName":"国网浙江杭州市余杭区供电有限公司","typeName":null,"infoStatusName":null,"dateDay":null,"orgNos":null,"nowTime":null,"countyName":null,"streetName":null,"villageName":null,"roadName":null,"communityName":null,"tranName":null,"sdLineName":null,"cityCode":"3340140","cityName":"国网浙江杭州市余杭区供电有限公司","provinceCode":null,"stopTime":"2020-04-15 13:30:00","powerType":"全部","powerOffArea":"110kV仁镇变:田湾G265线-西斗分线开关后段","powerOffReason":"高压开关跳闸","powerOffId":"2020041531020111"}],"pageModel":{"pageNow":335,"totalCount":17788,"totalPage":1779,"tableRows":0,"pageCount":10,"beginCount":3340},"isExperi":"1"}