{"message":"","today":"2020-06-15","seleList":[{"poweroffId":2020041331020242,"sgpoweroffId":null,"subsName":"","lineName":"10kV浪川R133线","pubTranName":"全朴村全朴配变,马石村桥下配变,峰川村姜坞口公变,姜家村长烈配变,淳安溢达生态农场配变,全朴村高步头公变,三里亭2#配变配变,千岛湖建来金属网带（大自然助剂）,姜家居委会原造纸厂配变,点水坑制茶配变,联欢村大畈碓配变,浪川乡峰川村瑞塘公变,联欢农业1#专变,杨家村后山湾公变,杭州鸿沃肥料科技有限公司,浯溪村沈家配变,水利水电投资（林家坞水电站大坝）,芹川村众家坞配变,裕丰村板桥配变,狮石村龙里公变,芹川村芹川新村配变,浯溪村榨坑口公变,马石村月山底配变,程家坞,杨家村内塘边公变,芹川村芹川三期公变,芹川村马金配变,桃源村桃源新村配变,双丰制线配变,80公社4#配变配变,高山养殖场配变,10千伏70公社3-2#专变,全朴村下唐家配变,杭州千岛湖金川农业开发有限公司专变,浯溪村上方坑公变,玄山酒店专变,占家村占家公变,淳安县姜家镇人民政府（敬老院）主变,源峰村茶林配变,汇源村林家坞配变,浯溪村下五洲源公变,碣头公变,洪家村竹园后配变,狮古山配变,70公社3-1#配变配变,10千伏自然农法专变,马石村庙坞口配变,洪家源,姜家自来水厂专变,汇源村蒲桃畈配变,大联村象形山公变,霞社村唐家配变,狮石村龙塘配变,马石桥公变,鲍家村台末配变,浯溪村送驾岭公变,源峰村汪家配变,淳安浪川新店水电站（1#主变）,新桥村岭脚公变,菇业公变,源峰村许家山配变,狮石村汪家桥配变,源峰村船银上配变,新店公变,鲍家村六家曲公变,霞社村后山塘配变,桃源村桃源配变,新桥村高庄公变,源峰村黄坑配变,桃源村下坞公变,联欢村曹家配变,占家村桥头公变,芳梧村横山庙配变,塘边,龙川湾90公社施工专变,浯溪村浯溪配变,芳梧村芳梧配变,裕丰村洪家畈公变,新桥村石狮坞公变,杨家村新湾里公变,狮石村幸岭源公变,占家村占家前公变,鲍家村鲍家配变,联欢村方家配变,方家店配变,桃源村上坞公变,杨家村泽家坞公变,浙江方鼎生物科技有限公司配变,汇源村三榜配变,鲍家村凤形山公变,联欢农业2#专变,浯溪村马尾凸公变,芹川村焦坞配变,水利水电投资（林家坞水电站）,连岭公变,占家村占家后公变,鲍家村牙塘配变,宏山加油站配主变,浙江千岛湖西南景区旅游有限公司配变,霞社村霞社配变,大联村湖田里公变,鲍家村洪栏坞公变,洪顺法配变,浪川纺织配变,浯溪村茶坞脚公变,杨家村外杨配变,裕丰村钱川公变,霞社村徐家公变,峰川生物科技专变,芳梧村杨家塘公变,联欢村白溪滩配变,浯溪村榨坑公变,狮石村李家公变,淳安县姜家饮用水管理有限公司（姜家取水泵站专变）,杨家村内杨公变,狮古山村陈家配变,黄村桥村山口配变,鲍家村瑞朝家公变,","scope":"浙江省-杭州市-淳安县-浪川乡-狮古山行政村(陈家自然村,狮古山村,连岭脚自然村),姜家镇-黄村桥行政村(山口自然村,黄村桥自然村),浪川乡-大联行政村(大联村,机关公变2号,占家坞自然村,碣头自然村,毛家碓自然村),浪川乡-新桥行政村(石狮坞自然村,新桥村,岭脚),浪川乡-汇源行政村(三榜自然村,林家坞自然村,蒲桃畈自然村,新店自然村),浪川乡-芳梧行政村(芳梧村,王金畈自然村,横山庙自然村),浪川乡-源峰行政村(黄坑自然村,船银上自然村,茶林自然村,汪家自然村,许家山自然村),浪川乡-洪家行政村(洪家村,竹园后自然村),浪川乡-浯溪行政村(沈家下五洲源,沈家自然村,浯溪自然村),浪川乡-马石行政村(庙坞口自然村,马石村,桥下自然村,月山底自然村),浪川乡-芹川行政村(马金自然村,芹川村,焦坞自然村,众家坞自然村,芹川新村),浪川乡-占家行政村(占家村,占家村桥头),浪川乡-联欢行政村(外曹家自然村,大畈碓自然村,方家自然村,白溪滩自然村,联欢村,曹家自然村),浪川乡-大塘行政村(机关公变1号,芹畈自然村),浪川乡-杨家行政村(内杨自然村,外杨自然村),浪川乡-裕丰行政村(板桥自然村,钱川自然村,洪家畈自然村),姜家镇-狮石行政村(汪家桥自然村,幸岭源自然村,龙塘自然村,李家自然村),姜家镇-霞社行政村(唐家自然村,霞社村,后山塘自然村,霞社二),姜家镇-龙川行政村(塘边自然村,程家坞自然村,洪家源自然村,方家店自然村),浪川乡-峰川行政村(瑞塘自然村,沙众自然村,姜坞口自然村),浪川乡-鲍家行政村(牙塘自然村,鲍家村,台末自然村),浪川乡-桃源行政村(桃源新村,桃源村),浪川乡-全朴行政村(全朴村,下唐家自然村),姜家镇(姜家居委会-狮城路,姜家行政村-长烈自然村);浪川乡(杭州鸿沃肥料科技有限公司,杭州千岛湖东铭金属制品有限公司,千岛湖高山养殖场,淳安双丰制线有限公司,点水坑制茶,浙江方鼎生物科技有限公司,淳安县水利水电投资有限公司,淳安千岛湖农业发展集团有限公司,淳安县浪川纺织有限公司,杭州千岛湖峰川生物科技有限公司,淳安浪川新店水电站,杭州千岛湖金川农业开发有限公司,杭州千岛湖联欢农业开发有限公司),姜家镇(洪顺法,淳安县姜家镇农村五保供养服务中心,淳安溢达生态农场,淳安县姜家镇宏山加油点,浙江千岛湖西南景区旅游有限公司,淳安县姜家饮用水管理有限公司,千岛湖自然农法推广和示范中心,杭州千岛湖玄山酒店有限公司)","startTime":"2020-04-13 15:32:00","stopDate":"2020-04-13 16:32:00","orgNo":"3340190","typeCode":"电网故障停限电","poweroffArea":"110kV姜家变:浪川R133线浪川R133线12号杆开关后段","poweroffReason":"高压开关跳闸","powerTime":"2020-04-13 15:38:41","powerComm":"已送电","subsNo":"","lineNo":"","tgNo":"","tgName":null,"infoStatus":"1","orgName":"国网浙江淳安县供电有限公司","typeName":null,"infoStatusName":null,"dateDay":null,"orgNos":null,"nowTime":null,"countyName":null,"streetName":null,"villageName":null,"roadName":null,"communityName":null,"tranName":null,"sdLineName":null,"cityCode":"3340190","cityName":"国网浙江淳安县供电有限公司","provinceCode":null,"stopTime":"2020-04-13 16:32:00","powerType":"全部","powerOffArea":"110kV姜家变:浪川R133线浪川R133线12号杆开关后段","powerOffReason":"高压开关跳闸","powerOffId":"2020041331020242"},{"poweroffId":2020041331020239,"sgpoweroffId":null,"subsName":"","lineName":"10kV城镇V178线","pubTranName":"中国电信股份有限公司临安分公司,10kV藻溪村[新寺新区]公变,杭州红其线缆材料有限公司1#,杭州红其线缆材料有限公司2#,","scope":"浙江省-杭州市-临安区-天目山镇中国电信股份有限公司临安分公司,藻溪村新寺新区,杭州红其线缆材料有限公司一带","startTime":"2020-04-25 08:10:00","stopDate":"2020-04-25 15:00:00","orgNo":"3340160","typeCode":"计划停电","poweroffArea":"35kV藻溪变城镇V178线董市1782线市场站1783开关后段","poweroffReason":"配网改造 原停电结束时间为2020-04-25 13:40:00,因道路维修原因,延迟送电,现变更停电结束时间为2020-04-25 15:00:00","powerTime":"2020-04-25 14:20:25","powerComm":"已送电","subsNo":"","lineNo":"","tgNo":"","tgName":null,"infoStatus":"1","orgName":"国网浙江临安市供电公司","typeName":null,"infoStatusName":null,"dateDay":null,"orgNos":null,"nowTime":null,"countyName":null,"streetName":null,"villageName":null,"roadName":null,"communityName":null,"tranName":null,"sdLineName":null,"cityCode":"3340160","cityName":"国网浙江临安市供电公司","provinceCode":null,"stopTime":"2020-04-25 15:00:00","powerType":"全部","powerOffArea":"35kV藻溪变城镇V178线董市1782线市场站1783开关后段","powerOffReason":"配网改造 原停电结束时间为2020-04-25 13:40:00,因道路维修原因,延迟送电,现变更停电结束时间为2020-04-25 15:00:00","powerOffId":"2020041331020239"},{"poweroffId":2020041331020238,"sgpoweroffId":null,"subsName":"","lineName":"10kV城镇V178线","pubTranName":"10kV藻溪村董家公变,","scope":"浙江省-杭州市-临安市-天目山镇-藻溪行政村董家一带","startTime":"2020-04-25 08:10:00","stopDate":"2020-04-25 15:00:00","orgNo":"3340160","typeCode":"计划停电","poweroffArea":"35kV藻溪变城镇V178线藻溪村董家公变4000线低压闸刀","poweroffReason":"(低压停电信息)配网改造 原停电结束时间为2020-04-25 13:40:00,因道路维修原因,延迟送电,现变更停电结束时间为2020-04-25 15:00:00","powerTime":"2020-04-25 14:20:46","powerComm":"已送电","subsNo":"","lineNo":"","tgNo":"","tgName":null,"infoStatus":"1","orgName":"国网浙江临安市供电公司","typeName":null,"infoStatusName":null,"dateDay":null,"orgNos":null,"nowTime":null,"countyName":null,"streetName":null,"villageName":null,"roadName":null,"communityName":null,"tranName":null,"sdLineName":null,"cityCode":"3340160","cityName":"国网浙江临安市供电公司","provinceCode":null,"stopTime":"2020-04-25 15:00:00","powerType":"全部","powerOffArea":"35kV藻溪变城镇V178线藻溪村董家公变4000线低压闸刀","powerOffReason":"(低压停电信息)配网改造 原停电结束时间为2020-04-25 13:40:00,因道路维修原因,延迟送电,现变更停电结束时间为2020-04-25 15:00:00","powerOffId":"2020041331020238"},{"poweroffId":2020041331020237,"sgpoweroffId":null,"subsName":"","lineName":"10kV郜岭V293线","pubTranName":"10kV西游村[鲍家村下]公变,","scope":"浙江省-杭州市-临安区-天目山镇-西游行政村鲍家村下一带","startTime":"2020-04-23 08:10:00","stopDate":"2020-04-23 15:00:00","orgNo":"3340160","typeCode":"计划停电","poweroffArea":"35kV西天目变:郜岭V293线10kV西游村鲍家村下公变鲍家1000线卫生院上2000线低压闸刀","poweroffReason":"(低压停电信息)公变布点低压割接 原停电结束时间为2020-04-23 15:30:00,为减少客户停电时间,加快工作进度,提前送电,现变更停电结束时间为2020-04-23 15:00:00","powerTime":"2020-04-23 14:13:00","powerComm":"已送电","subsNo":"","lineNo":"","tgNo":"","tgName":null,"infoStatus":"1","orgName":"国网浙江临安市供电公司","typeName":null,"infoStatusName":null,"dateDay":null,"orgNos":null,"nowTime":null,"countyName":null,"streetName":null,"villageName":null,"roadName":null,"communityName":null,"tranName":null,"sdLineName":null,"cityCode":"3340160","cityName":"国网浙江临安市供电公司","provinceCode":null,"stopTime":"2020-04-23 15:00:00","powerType":"全部","powerOffArea":"35kV西天目变:郜岭V293线10kV西游村鲍家村下公变鲍家1000线卫生院上2000线低压闸刀","powerOffReason":"(低压停电信息)公变布点低压割接 原停电结束时间为2020-04-23 15:30:00,为减少客户停电时间,加快工作进度,提前送电,现变更停电结束时间为2020-04-23 15:00:00","powerOffId":"2020041331020237"},{"poweroffId":2020041331020236,"sgpoweroffId":null,"subsName":"","lineName":"10kV郜岭V293线","pubTranName":"10kV西游村[鲍家村下]公变,","scope":"浙江省-杭州市-临安市-天目山镇-西游行政村鲍家村下一带","startTime":"2020-04-23 08:10:00","stopDate":"2020-04-23 15:00:00","orgNo":"3340160","typeCode":"计划停电","poweroffArea":"35kV西天目变郜岭V293线西游村鲍家村下公变鲍家1000线卫生院上2000线低压闸刀","poweroffReason":"(低压停电信息)低压割接 原停电结束时间为2020-04-23 15:30:00,为减少客户停电时间,加快工作进度,提前送电,现变更停电结束时间为2020-04-23 15:00:00","powerTime":"2020-04-23 14:12:40","powerComm":"已送电","subsNo":"","lineNo":"","tgNo":"","tgName":null,"infoStatus":"1","orgName":"国网浙江临安市供电公司","typeName":null,"infoStatusName":null,"dateDay":null,"orgNos":null,"nowTime":null,"countyName":null,"streetName":null,"villageName":null,"roadName":null,"communityName":null,"tranName":null,"sdLineName":null,"cityCode":"3340160","cityName":"国网浙江临安市供电公司","provinceCode":null,"stopTime":"2020-04-23 15:00:00","powerType":"全部","powerOffArea":"35kV西天目变郜岭V293线西游村鲍家村下公变鲍家1000线卫生院上2000线低压闸刀","powerOffReason":"(低压停电信息)低压割接 原停电结束时间为2020-04-23 15:30:00,为减少客户停电时间,加快工作进度,提前送电,现变更停电结束时间为2020-04-23 15:00:00","powerOffId":"2020041331020236"},{"poweroffId":2020041331020217,"sgpoweroffId":null,"subsName":"","lineName":"10kV紫庭8501线","pubTranName":"登云圩,","scope":"浙江省-杭州市-西湖区-蒋村街道-蒋村花园社区-崇仁路","startTime":"2020-04-13 14:33:00","stopDate":"2020-04-13 16:00:00","orgNo":"3340101","typeCode":"电网故障停限电","poweroffArea":"110kV文三变:紫庭8501线登云圩配变","poweroffReason":"高压开关跳闸原停电结束时间为2020-04-1318:33:00,为减少客户停电时间,加快工作进度,提前送电,现变更停电结束时间为2020-04-1316:00:00","powerTime":"2020-04-13 15:42:28","powerComm":"已送电","subsNo":"","lineNo":"","tgNo":"","tgName":null,"infoStatus":"1","orgName":"浙江杭州电力客户服务中心","typeName":null,"infoStatusName":null,"dateDay":null,"orgNos":null,"nowTime":null,"countyName":null,"streetName":null,"villageName":null,"roadName":null,"communityName":null,"tranName":null,"sdLineName":null,"cityCode":"3340101","cityName":"浙江杭州电力客户服务中心","provinceCode":null,"stopTime":"2020-04-13 16:00:00","powerType":"全部","powerOffArea":"110kV文三变:紫庭8501线登云圩配变","powerOffReason":"高压开关跳闸原停电结束时间为2020-04-1318:33:00,为减少客户停电时间,加快工作进度,提前送电,现变更停电结束时间为2020-04-1316:00:00","powerOffId":"2020041331020217"},{"poweroffId":2020041331020216,"sgpoweroffId":null,"subsName":"","lineName":"10kV前兴A491线","pubTranName":"官一村10#变,官一村1#变,1#变,杭州兴迪机械有限公司,萧山永发电器有限公司,前兴村10#变,官一村8#变,杭州宏优达无纺布有限公司,3#,杭州萧山党山柏祥涤丝整理厂,杭州华杰镜艺有限公司,杭州康达卫浴有限公司,前兴村2#变,杭州宇邦卫浴洁具有限公司,官一村9#变,官一村7#变,杭州迪威机械有限公司,杭州康达莱木业有限公司,4#变,前兴村9#变,杭州萧山梦财塑料制品经营部,官一村12#变,杭州丰贝厨卫科技有限公司,官一村3#变,前兴村13#变,杭州萧山党山梦森洁具厂,杭州拓普电器有限公司,杭州华源金属电泳有限公司,杭州萧山维美德洁具有限公司,杭州丽杰卫浴有限公司,官一村6#变,前兴村1#变,杭州永逸家居有限公司,杭州康迪装饰门业有限公司,2#,前兴村14#变,杭州凯源门业有限公司,杭州晨鑫五金机电有限公司,官一村2#变,杭州锦标工艺品有限公司,杭州良晟塑业有限公司,杭州宇强五金机械有限公司,官一村5#变,官一村4#变,党山供电营业所单相变13#变,官一村11#变,1#,杭州嘉迪装饰材料有限公司,官一村14#变,前兴村8#变,前兴村5#变,官一村13#变,","scope":"浙江省-杭州市-萧山区-瓜沥镇-前兴行政村(前兴自然村,翠苑新村自然村,新东公路),瓜沥镇(官一行政村-官一自然村,群力行政村-群力自然村);浙江省-杭州市-萧山区-益农镇-赵家湾行政村-钱潮轴承有限公司,瓜沥镇-群力行政村(杭州萧山梦财塑料制品经营部,杭州萧山柏祥涤丝整理有限公司),瓜沥镇-官一行政村(杭州宇强五金机械有限公司,杭州萧山永发电器有限公司,杭州永逸家居有限公司,杭州宏优达无纺布有限公司,杭州凯源门业有限公司,杭州萧山维美德洁具有限公司),瓜沥镇-前兴行政村(杭州康迪装饰有限公司,杭州宇邦卫浴洁具有限公司,杭州静亿科技有限公司,杭州华杰镜艺有限公司,杭州良晟塑业有限公司,杭州嘉迪装饰材料有限公司,杭州丽杰卫浴有限公司,杭州萧山党山梦森洁具厂,杭州兴迪机械有限公司,杭州康达卫浴有限公司,杭州锦港工艺品有限公司,杭州康达莱木业有限公司,杭州拓普电器有限公司,杭州艾派机电有限公司),益农镇-益农行政村(杭州迪威机械有限公司,杭州丰贝厨卫科技有限公司,杭州晨鑫五金机电有限公司)等","startTime":"2020-04-13 14:32:03","stopDate":"2020-04-13 17:30:03","orgNo":"3340130","typeCode":"电网故障停限电","poweroffArea":"110kV群围变:前兴A491线-前兴A4911开关后段","poweroffReason":"高压开关跳闸原停电结束时间为2020-04-1317:38:03,为减少客户停电时间,加快工作进度,提前送电,现变更停电结束时间为2020-04-1317:30:03","powerTime":"2020-04-13 16:38:46","powerComm":"已送电","subsNo":"","lineNo":"","tgNo":"","tgName":null,"infoStatus":"1","orgName":"国网浙江杭州市萧山区供电有限公司","typeName":null,"infoStatusName":null,"dateDay":null,"orgNos":null,"nowTime":null,"countyName":null,"streetName":null,"villageName":null,"roadName":null,"communityName":null,"tranName":null,"sdLineName":null,"cityCode":"3340130","cityName":"国网浙江杭州市萧山区供电有限公司","provinceCode":null,"stopTime":"2020-04-13 17:30:03","powerType":"全部","powerOffArea":"110kV群围变:前兴A491线-前兴A4911开关后段","powerOffReason":"高压开关跳闸原停电结束时间为2020-04-1317:38:03,为减少客户停电时间,加快工作进度,提前送电,现变更停电结束时间为2020-04-1317:30:03","powerOffId":"2020041331020216"},{"poweroffId":2020041331020175,"sgpoweroffId":null,"subsName":"","lineName":"10kV顺和C929线","pubTranName":"党山新区2#变,","scope":"浙江省-杭州市-萧山区-瓜沥镇-碧苑新村社区(川北路,一区自然村,天和路)等","startTime":"2020-04-13 13:30:28","stopDate":"2020-04-13 15:30:28","orgNo":"3340130","typeCode":"电网故障停限电","poweroffArea":"110kV党山变:顺和C929线-党山新区2#变后段","poweroffReason":"(低压停电信息)低压开关跳闸","powerTime":"2020-04-13 14:33:25","powerComm":"已送电","subsNo":"","lineNo":"","tgNo":"","tgName":null,"infoStatus":"1","orgName":"国网浙江杭州市萧山区供电有限公司","typeName":null,"infoStatusName":null,"dateDay":null,"orgNos":null,"nowTime":null,"countyName":null,"streetName":null,"villageName":null,"roadName":null,"communityName":null,"tranName":null,"sdLineName":null,"cityCode":"3340130","cityName":"国网浙江杭州市萧山区供电有限公司","provinceCode":null,"stopTime":"2020-04-13 15:30:28","powerType":"全部","powerOffArea":"110kV党山变:顺和C929线-党山新区2#变后段","powerOffReason":"(低压停电信息)低压开关跳闸","powerOffId":"2020041331020175"},{"poweroffId":2020041331020169,"sgpoweroffId":null,"subsName":"","lineName":"10kV横槎D386线","pubTranName":"杭州富阳和顺生态农业开发有限公司,杏梅坞村3#上家坞公变,杏梅坞村1#马家坞公变,杏梅坞村4#乌龟坪公变,横槎村1号上公变,杏梅坞村2#后亩山公变,","scope":"浙江省-杭州市-富阳区-常安镇-横槎行政村-横槎自然村,常安镇-杏梅坞行政村(后亩山自然村,马家坞自然村,上家坞自然村);浙江省-杭州市-富阳区-常安镇-杏梅坞行政村-杭州富阳和顺生态农业开发有限公司","startTime":"2020-04-13 13:05:49","stopDate":"2020-04-13 15:05:49","orgNo":"3340170","typeCode":"电网故障停限电","poweroffArea":"35kV湖源变:横槎D386线-后亩山分线开关后段","poweroffReason":"高压开关跳闸","powerTime":"2020-04-13 14:20:55","powerComm":"已送电","subsNo":"","lineNo":"","tgNo":"","tgName":null,"infoStatus":"1","orgName":"国网浙江杭州市富阳区供电公司","typeName":null,"infoStatusName":null,"dateDay":null,"orgNos":null,"nowTime":null,"countyName":null,"streetName":null,"villageName":null,"roadName":null,"communityName":null,"tranName":null,"sdLineName":null,"cityCode":"3340170","cityName":"国网浙江杭州市富阳区供电公司","provinceCode":null,"stopTime":"2020-04-13 15:05:49","powerType":"全部","powerOffArea":"35kV湖源变:横槎D386线-后亩山分线开关后段","powerOffReason":"高压开关跳闸","powerOffId":"2020041331020169"},{"poweroffId":2020041331020163,"sgpoweroffId":null,"subsName":"","lineName":"10kV谢家D746线","pubTranName":"鹿山街6号集镇公变,","scope":"浙江省-杭州市-富阳区-鹿山街道-蒋家行政村(阳光路,蒋家自然村,葱门头自然村)","startTime":"2020-04-13 12:51:43","stopDate":"2020-04-13 14:51:43","orgNo":"3340170","typeCode":"电网故障停限电","poweroffArea":"110kV陆家变:谢家D746线-鹿山街6号集镇公变后段","poweroffReason":"高压开关跳闸","powerTime":"2020-04-13 13:55:19","powerComm":"已送电","subsNo":"","lineNo":"","tgNo":"","tgName":null,"infoStatus":"1","orgName":"国网浙江杭州市富阳区供电公司","typeName":null,"infoStatusName":null,"dateDay":null,"orgNos":null,"nowTime":null,"countyName":null,"streetName":null,"villageName":null,"roadName":null,"communityName":null,"tranName":null,"sdLineName":null,"cityCode":"3340170","cityName":"国网浙江杭州市富阳区供电公司","provinceCode":null,"stopTime":"2020-04-13 14:51:43","powerType":"全部","powerOffArea":"110kV陆家变:谢家D746线-鹿山街6号集镇公变后段","powerOffReason":"高压开关跳闸","powerOffId":"2020041331020163"}],"pageModel":{"pageNow":343,"totalCount":17788,"totalPage":1779,"tableRows":0,"pageCount":10,"beginCount":3420},"isExperi":"1"}