{"message":"","today":"2020-06-15","seleList":[{"poweroffId":2020060631020104,"sgpoweroffId":null,"subsName":"","lineName":"10kV拔山D942线","pubTranName":"农林村18号厂里公变,农林村1#厂里公变,农林村2#荒地上公变,农林村15号厂里公变,新联村13号后栗柴坞公变,新联村栗柴坞4号公变,新联村8#栗柴坞3公变,","scope":"浙江省-杭州市-富阳区-富春街道-拔山行政村(温州厂上自然村,爽坞里自然村,荒地上自然村)","startTime":"2020-06-15 17:35:00","stopDate":"2020-06-15 18:15:00","orgNo":"3340170","typeCode":"计划停电","poweroffArea":"110kV育才变:拔山D942线-拔山D9427开关后段;拔山D942线-农林村2#荒地上公变后段","poweroffReason":"中铁三局集团电务工程有限公司湖杭铁路三电迁改工程：短时停电配合拔山D942线107#杆后段负荷恢复 原停电结束时间为2020-06-15 17:55:00,因现场故障情况复杂,现变更停电结束时间为2020-06-15 18:15:00","powerTime":"2020-06-15 17:59:03","powerComm":"已送电","subsNo":"","lineNo":"","tgNo":"","tgName":null,"infoStatus":"1","orgName":"国网浙江杭州市富阳区供电公司","typeName":null,"infoStatusName":null,"dateDay":null,"orgNos":null,"nowTime":null,"countyName":null,"streetName":null,"villageName":null,"roadName":null,"communityName":null,"tranName":null,"sdLineName":null,"cityCode":"3340170","cityName":"国网浙江杭州市富阳区供电公司","provinceCode":null,"stopTime":"2020-06-15 18:15:00","powerType":"全部","powerOffArea":"110kV育才变:拔山D942线-拔山D9427开关后段;拔山D942线-农林村2#荒地上公变后段","powerOffReason":"中铁三局集团电务工程有限公司湖杭铁路三电迁改工程：短时停电配合拔山D942线107#杆后段负荷恢复 原停电结束时间为2020-06-15 17:55:00,因现场故障情况复杂,现变更停电结束时间为2020-06-15 18:15:00","powerOffId":"2020060631020104"},{"poweroffId":2020060631020103,"sgpoweroffId":null,"subsName":"","lineName":"10kV拔山D942线","pubTranName":"农林村2#荒地上公变,农林村18号厂里公变,农林村1#厂里公变,新联村8#栗柴坞3公变,农林村15号厂里公变,新联村13号后栗柴坞公变,新联村栗柴坞4号公变,","scope":"浙江省-杭州市-富阳区-富春街道-拔山行政村(温州厂上自然村,爽坞里自然村,荒地上自然村)","startTime":"2020-06-15 07:55:00","stopDate":"2020-06-15 08:25:00","orgNo":"3340170","typeCode":"计划停电","poweroffArea":"110kV育才变:拔山D942线-农林村2#荒地上公变后段;拔山D942线-拔山D9427开关后段","poweroffReason":"中铁三局集团电务工程有限公司湖杭铁路三电迁改工程：短时停电配合拔山D942线107#杆后段负荷倒至10kV发电车","powerTime":"2020-06-15 08:10:21","powerComm":"已送电","subsNo":"","lineNo":"","tgNo":"","tgName":null,"infoStatus":"1","orgName":"国网浙江杭州市富阳区供电公司","typeName":null,"infoStatusName":null,"dateDay":null,"orgNos":null,"nowTime":null,"countyName":null,"streetName":null,"villageName":null,"roadName":null,"communityName":null,"tranName":null,"sdLineName":null,"cityCode":"3340170","cityName":"国网浙江杭州市富阳区供电公司","provinceCode":null,"stopTime":"2020-06-15 08:25:00","powerType":"全部","powerOffArea":"110kV育才变:拔山D942线-农林村2#荒地上公变后段;拔山D942线-拔山D9427开关后段","powerOffReason":"中铁三局集团电务工程有限公司湖杭铁路三电迁改工程：短时停电配合拔山D942线107#杆后段负荷倒至10kV发电车","powerOffId":"2020060631020103"},{"poweroffId":2020060631020102,"sgpoweroffId":null,"subsName":"","lineName":"10kV胜达C623线","pubTranName":"新华村28#变,","scope":"浙江省-杭州市-萧山区-宁围镇-宁围街道-新华行政村-新华自然村等","startTime":"2020-06-06 10:52:41","stopDate":"2020-06-06 12:45:41","orgNo":"3340130","typeCode":"电网故障停限电","poweroffArea":"110kV新街变:胜达C623线-新华村28#变台区低压开关","poweroffReason":"（低压停电信息）低压漏电保护器跳闸","powerTime":"2020-06-06 11:48:00","powerComm":"已送电","subsNo":"","lineNo":"","tgNo":"","tgName":null,"infoStatus":"1","orgName":"国网浙江杭州市萧山区供电有限公司","typeName":null,"infoStatusName":null,"dateDay":null,"orgNos":null,"nowTime":null,"countyName":null,"streetName":null,"villageName":null,"roadName":null,"communityName":null,"tranName":null,"sdLineName":null,"cityCode":"3340130","cityName":"国网浙江杭州市萧山区供电有限公司","provinceCode":null,"stopTime":"2020-06-06 12:45:41","powerType":"全部","powerOffArea":"110kV新街变:胜达C623线-新华村28#变台区低压开关","powerOffReason":"（低压停电信息）低压漏电保护器跳闸","powerOffId":"2020060631020102"},{"poweroffId":2020060631020092,"sgpoweroffId":null,"subsName":"","lineName":"10kV谢村8842线","pubTranName":"谢村(7)农,谢政,运保开发,谢村(1)农,丰泰住宿1#,京运1#,恒基1#,运施,运河谢村,杭水施,","scope":"浙江省-杭州市-拱墅区-康桥街道-谢村社区(拱康路,金昌路);浙江省-杭州市-拱墅区-半山街道-杭州市运河综合保护开发建设集团有限责任公司,康桥街道-谢村社区(杭州市水业集团有限公司,杭州市拱墅区城市河道保护管理中心),康桥街道(西杨社区-杭州市运河综合保护开发建设集团有限责任公司,义桥社区-杭州市路桥集团股份有限公司,吴家墩社区-杭州市拱墅区京杭运河综合整治与保护开发指挥部,康桥村社区-杭州丰泰商产业园管理有限公司,平安桥社区-杭州高强混凝土制造有限公司)","startTime":"2020-06-06 10:14:45","stopDate":"2020-06-06 11:10:45","orgNo":"3340101","typeCode":"电网故障停限电","poweroffArea":"110kV拱宸变:谢村8842线-谢村(3)分线","poweroffReason":"高压开关跳闸 原停电结束时间为2020-06-06 14:14:45,为减少客户停电时间,加快工作进度,提前送电,现变更停电结束时间为2020-06-06 11:10:45","powerTime":"2020-06-06 10:36:59","powerComm":"已送电","subsNo":"","lineNo":"","tgNo":"","tgName":null,"infoStatus":"1","orgName":"浙江杭州电力客户服务中心","typeName":null,"infoStatusName":null,"dateDay":null,"orgNos":null,"nowTime":null,"countyName":null,"streetName":null,"villageName":null,"roadName":null,"communityName":null,"tranName":null,"sdLineName":null,"cityCode":"3340101","cityName":"浙江杭州电力客户服务中心","provinceCode":null,"stopTime":"2020-06-06 11:10:45","powerType":"全部","powerOffArea":"110kV拱宸变:谢村8842线-谢村(3)分线","powerOffReason":"高压开关跳闸 原停电结束时间为2020-06-06 14:14:45,为减少客户停电时间,加快工作进度,提前送电,现变更停电结束时间为2020-06-06 11:10:45","powerOffId":"2020060631020092"},{"poweroffId":2020060631020075,"sgpoweroffId":null,"subsName":"","lineName":"10kV东风C981线","pubTranName":"戴村镇东风村9#变,","scope":"浙江省-杭州市-萧山区-戴村镇-东风行政村-东周自然村等","startTime":"2020-06-06 09:46:51","stopDate":"2020-06-06 11:46:51","orgNo":"3340130","typeCode":"电网故障停限电","poweroffArea":"110kV永兴变:东风C981线-戴村镇东风村9#变台区低压开关","poweroffReason":"（低压停电信息）低压架空线断线","powerTime":"2020-06-06 11:21:31","powerComm":"已送电","subsNo":"","lineNo":"","tgNo":"","tgName":null,"infoStatus":"1","orgName":"国网浙江杭州市萧山区供电有限公司","typeName":null,"infoStatusName":null,"dateDay":null,"orgNos":null,"nowTime":null,"countyName":null,"streetName":null,"villageName":null,"roadName":null,"communityName":null,"tranName":null,"sdLineName":null,"cityCode":"3340130","cityName":"国网浙江杭州市萧山区供电有限公司","provinceCode":null,"stopTime":"2020-06-06 11:46:51","powerType":"全部","powerOffArea":"110kV永兴变:东风C981线-戴村镇东风村9#变台区低压开关","powerOffReason":"（低压停电信息）低压架空线断线","powerOffId":"2020060631020075"},{"poweroffId":2020060631020073,"sgpoweroffId":null,"subsName":"","lineName":"10kV永民A819线","pubTranName":"东风村9#变,","scope":"浙江省-杭州市-萧山区-南阳街道(东风行政村-东风自然村,远大行政村-长远自然村,南丰行政村-南丰自然村)等","startTime":"2020-06-06 09:43:23","stopDate":"2020-06-06 10:30:23","orgNo":"3340130","typeCode":"电网故障停限电","poweroffArea":"110kV黎明变:永民A819线-东风村9#变台区低压开关","poweroffReason":"（低压停电信息）低压架空线断线 原停电结束时间为2020-06-06 11:43:23,为减少客户停电时间,加快工作进度,提前送电,现变更停电结束时间为2020-06-06 10:30:23","powerTime":"2020-06-06 09:50:47","powerComm":"已送电","subsNo":"","lineNo":"","tgNo":"","tgName":null,"infoStatus":"1","orgName":"国网浙江杭州市萧山区供电有限公司","typeName":null,"infoStatusName":null,"dateDay":null,"orgNos":null,"nowTime":null,"countyName":null,"streetName":null,"villageName":null,"roadName":null,"communityName":null,"tranName":null,"sdLineName":null,"cityCode":"3340130","cityName":"国网浙江杭州市萧山区供电有限公司","provinceCode":null,"stopTime":"2020-06-06 10:30:23","powerType":"全部","powerOffArea":"110kV黎明变:永民A819线-东风村9#变台区低压开关","powerOffReason":"（低压停电信息）低压架空线断线 原停电结束时间为2020-06-06 11:43:23,为减少客户停电时间,加快工作进度,提前送电,现变更停电结束时间为2020-06-06 10:30:23","powerOffId":"2020060631020073"},{"poweroffId":2020060631020072,"sgpoweroffId":null,"subsName":"","lineName":"10kV金明G343线","pubTranName":"纤石村上欠埠公变,康家涧机埠1,纤石村韩曹村公变,纤石村沈家塘公变,纤石村油车桥东公变,箱变,纤石村万岁桥公变,纤石村前后桥公变,有机肥厂,康家涧机埠2,树云石料,纤石村油车桥西公变,","scope":"浙江省-杭州市-余杭区-仁和街道-东风行政村-上纤埠自然村,良渚街道-纤石行政村(花园桥自然村,上纤埠自然村,纤石自然村);良渚街道(安溪康家涧机埠,杭州余杭区良渚街道树云园林绿化工程服务部,杭州寿明有机肥有限公司,杭州市余杭区人民政府良渚街道办事处)","startTime":"2020-06-06 09:34:51","stopDate":"2020-06-06 14:34:51","orgNo":"3340140","typeCode":"电网故障停限电","poweroffArea":"110kV洛山变:金明G343线金明G343线万岁桥分线开关后段","poweroffReason":"高压开关跳闸 原停电结束时间为2020-06-06 11:34:51,因现场故障情况复杂,现变更停电结束时间为2020-06-06 14:34:51","powerTime":"2020-06-06 13:59:00","powerComm":"已送电","subsNo":"","lineNo":"","tgNo":"","tgName":null,"infoStatus":"1","orgName":"国网浙江杭州市余杭区供电有限公司","typeName":null,"infoStatusName":null,"dateDay":null,"orgNos":null,"nowTime":null,"countyName":null,"streetName":null,"villageName":null,"roadName":null,"communityName":null,"tranName":null,"sdLineName":null,"cityCode":"3340140","cityName":"国网浙江杭州市余杭区供电有限公司","provinceCode":null,"stopTime":"2020-06-06 14:34:51","powerType":"全部","powerOffArea":"110kV洛山变:金明G343线金明G343线万岁桥分线开关后段","powerOffReason":"高压开关跳闸 原停电结束时间为2020-06-06 11:34:51,因现场故障情况复杂,现变更停电结束时间为2020-06-06 14:34:51","powerOffId":"2020060631020072"},{"poweroffId":2020060631020071,"sgpoweroffId":null,"subsName":"","lineName":"10kV新兴D551线","pubTranName":"富春街道办公变,","scope":"浙江省-杭州市-富阳区-富春街道-苋浦社区-桂花西路","startTime":"2020-06-06 09:16:00","stopDate":"2020-06-06 12:30:00","orgNo":"3340170","typeCode":"电网故障停限电","poweroffArea":"110kV春江变:新兴D551线富春街道办公变配变","poweroffReason":"高压开关跳闸","powerTime":"2020-06-06 12:26:32","powerComm":"已送电","subsNo":"","lineNo":"","tgNo":"","tgName":null,"infoStatus":"1","orgName":"国网浙江杭州市富阳区供电公司","typeName":null,"infoStatusName":null,"dateDay":null,"orgNos":null,"nowTime":null,"countyName":null,"streetName":null,"villageName":null,"roadName":null,"communityName":null,"tranName":null,"sdLineName":null,"cityCode":"3340170","cityName":"国网浙江杭州市富阳区供电公司","provinceCode":null,"stopTime":"2020-06-06 12:30:00","powerType":"全部","powerOffArea":"110kV春江变:新兴D551线富春街道办公变配变","powerOffReason":"高压开关跳闸","powerOffId":"2020060631020071"},{"poweroffId":2020060631020070,"sgpoweroffId":null,"subsName":"","lineName":"10kV新兴D551线","pubTranName":"金桥公变,","scope":"浙江省-杭州市-富阳区-富春街道-城西社区-桂花西路,富春街道-苋浦社区(苋浦路,桂花西路)","startTime":"2020-06-06 09:17:00","stopDate":"2020-06-06 12:30:00","orgNo":"3340170","typeCode":"电网故障停限电","poweroffArea":"110kV春江变:新兴D551线金桥公变金桥公变配变","poweroffReason":"高压开关跳闸","powerTime":"2020-06-06 12:26:24","powerComm":"已送电","subsNo":"","lineNo":"","tgNo":"","tgName":null,"infoStatus":"1","orgName":"国网浙江杭州市富阳区供电公司","typeName":null,"infoStatusName":null,"dateDay":null,"orgNos":null,"nowTime":null,"countyName":null,"streetName":null,"villageName":null,"roadName":null,"communityName":null,"tranName":null,"sdLineName":null,"cityCode":"3340170","cityName":"国网浙江杭州市富阳区供电公司","provinceCode":null,"stopTime":"2020-06-06 12:30:00","powerType":"全部","powerOffArea":"110kV春江变:新兴D551线金桥公变金桥公变配变","powerOffReason":"高压开关跳闸","powerOffId":"2020060631020070"},{"poweroffId":2020060631020069,"sgpoweroffId":null,"subsName":"","lineName":"10kV新兴D551线","pubTranName":"苋浦路3#公变,","scope":"浙江省-杭州市-富阳区-富春街道-城西社区-桂花西路,富春街道-苋浦社区(桂花西路,苋浦路,苋浦西路)","startTime":"2020-06-06 09:16:00","stopDate":"2020-06-06 12:30:00","orgNo":"3340170","typeCode":"电网故障停限电","poweroffArea":"110kV春江变:新兴D551线苋浦路3#公变苋浦路3#公变配变","poweroffReason":"高压开关跳闸","powerTime":"2020-06-06 12:26:43","powerComm":"已送电","subsNo":"","lineNo":"","tgNo":"","tgName":null,"infoStatus":"1","orgName":"国网浙江杭州市富阳区供电公司","typeName":null,"infoStatusName":null,"dateDay":null,"orgNos":null,"nowTime":null,"countyName":null,"streetName":null,"villageName":null,"roadName":null,"communityName":null,"tranName":null,"sdLineName":null,"cityCode":"3340170","cityName":"国网浙江杭州市富阳区供电公司","provinceCode":null,"stopTime":"2020-06-06 12:30:00","powerType":"全部","powerOffArea":"110kV春江变:新兴D551线苋浦路3#公变苋浦路3#公变配变","powerOffReason":"高压开关跳闸","powerOffId":"2020060631020069"}],"pageModel":{"pageNow":33,"totalCount":17786,"totalPage":1779,"tableRows":0,"pageCount":10,"beginCount":320},"isExperi":"1"}