{"message":"","today":"2020-06-15","seleList":[{"poweroffId":2020041231020151,"sgpoweroffId":null,"subsName":"","lineName":"10kV文德6869线","pubTranName":"银马(七),","scope":"浙江省-杭州市-西湖区-西溪街道-铁佛寺社区(教工路,文二路),翠苑街道-保亭社区(教工路,文二路)","startTime":"2020-04-12 15:02:00","stopDate":"2020-04-12 20:37:59","orgNo":"3340101","typeCode":"电网故障停限电","poweroffArea":"110kV文化变:文德6869线银马(七)配变","poweroffReason":"高压开关跳闸原停电结束时间为2020-04-1217:02:00,因施工现场环境比较复杂，存在不确定因素原因,延迟送电,现变更停电结束时间为2020-04-1220:37:59","powerTime":"2020-04-12 20:01:23","powerComm":"已送电","subsNo":"","lineNo":"","tgNo":"","tgName":null,"infoStatus":"1","orgName":"浙江杭州电力客户服务中心","typeName":null,"infoStatusName":null,"dateDay":null,"orgNos":null,"nowTime":null,"countyName":null,"streetName":null,"villageName":null,"roadName":null,"communityName":null,"tranName":null,"sdLineName":null,"cityCode":"3340101","cityName":"浙江杭州电力客户服务中心","provinceCode":null,"stopTime":"2020-04-12 20:37:59","powerType":"全部","powerOffArea":"110kV文化变:文德6869线银马(七)配变","powerOffReason":"高压开关跳闸原停电结束时间为2020-04-1217:02:00,因施工现场环境比较复杂，存在不确定因素原因,延迟送电,现变更停电结束时间为2020-04-1220:37:59","powerOffId":"2020041231020151"},{"poweroffId":2020041231020150,"sgpoweroffId":null,"subsName":"","lineName":"10kV芦岭V130线","pubTranName":"杨村朱兰坪,杨村黄柏坞,杨村俞家,","scope":"浙江省-杭州市-临安市-昌化镇-虞溪村杨村,黄柏坞,俞家,朱良坪。","startTime":"2020-04-22 07:40:00","stopDate":"2020-04-22 16:20:00","orgNo":"3340160","typeCode":"计划停电","poweroffArea":"110kV昌化变:芦岭V130线-杨村支线129#开关后段","poweroffReason":"分支线路移位原停电结束时间为2020-04-2217:20:00,为减少客户停电时间,加快工作进度,提前送电,现变更停电结束时间为2020-04-2216:20:00","powerTime":"2020-04-22 15:49:50","powerComm":"已送电","subsNo":"","lineNo":"","tgNo":"","tgName":null,"infoStatus":"1","orgName":"国网浙江临安市供电公司","typeName":null,"infoStatusName":null,"dateDay":null,"orgNos":null,"nowTime":null,"countyName":null,"streetName":null,"villageName":null,"roadName":null,"communityName":null,"tranName":null,"sdLineName":null,"cityCode":"3340160","cityName":"国网浙江临安市供电公司","provinceCode":null,"stopTime":"2020-04-22 16:20:00","powerType":"全部","powerOffArea":"110kV昌化变:芦岭V130线-杨村支线129#开关后段","powerOffReason":"分支线路移位原停电结束时间为2020-04-2217:20:00,为减少客户停电时间,加快工作进度,提前送电,现变更停电结束时间为2020-04-2216:20:00","powerOffId":"2020041231020150"},{"poweroffId":2020041231020148,"sgpoweroffId":null,"subsName":"","lineName":"10kV仁里V312线","pubTranName":"直川村凌家,","scope":"浙江省-杭州市-临安市-岛石镇-仁里村直川,凌家。","startTime":"2020-04-21 08:10:00","stopDate":"2020-04-21 12:50:00","orgNo":"3340160","typeCode":"计划停电","poweroffArea":"35kV岛石变:仁里V312线-直川村凌家配变","poweroffReason":"直川村凌家配变增容","powerTime":"2020-04-21 11:54:28","powerComm":"已送电","subsNo":"","lineNo":"","tgNo":"","tgName":null,"infoStatus":"1","orgName":"国网浙江临安市供电公司","typeName":null,"infoStatusName":null,"dateDay":null,"orgNos":null,"nowTime":null,"countyName":null,"streetName":null,"villageName":null,"roadName":null,"communityName":null,"tranName":null,"sdLineName":null,"cityCode":"3340160","cityName":"国网浙江临安市供电公司","provinceCode":null,"stopTime":"2020-04-21 12:50:00","powerType":"全部","powerOffArea":"35kV岛石变:仁里V312线-直川村凌家配变","powerOffReason":"直川村凌家配变增容","powerOffId":"2020041231020148"},{"poweroffId":2020041231020147,"sgpoweroffId":null,"subsName":"","lineName":"10kV河桥V781线","pubTranName":"蒲坑村二,","scope":"浙江省-杭州市-临安市-河桥镇-七都村邵脚坞,鲁家,蒲坑。","startTime":"2020-04-21 08:10:00","stopDate":"2020-04-21 12:50:00","orgNo":"3340160","typeCode":"计划停电","poweroffArea":"35kV湍口变:河桥V781线-蒲坑村二配变","poweroffReason":"蒲坑村二配变增容","powerTime":"2020-04-21 12:40:11","powerComm":"已送电","subsNo":"","lineNo":"","tgNo":"","tgName":null,"infoStatus":"1","orgName":"国网浙江临安市供电公司","typeName":null,"infoStatusName":null,"dateDay":null,"orgNos":null,"nowTime":null,"countyName":null,"streetName":null,"villageName":null,"roadName":null,"communityName":null,"tranName":null,"sdLineName":null,"cityCode":"3340160","cityName":"国网浙江临安市供电公司","provinceCode":null,"stopTime":"2020-04-21 12:50:00","powerType":"全部","powerOffArea":"35kV湍口变:河桥V781线-蒲坑村二配变","powerOffReason":"蒲坑村二配变增容","powerOffId":"2020041231020147"},{"poweroffId":2020041231020146,"sgpoweroffId":null,"subsName":"","lineName":"10kV昌西V142线","pubTranName":"新溪变(二),","scope":"浙江省-杭州市-临安市-龙岗镇-新溪村","startTime":"2020-04-20 08:10:00","stopDate":"2020-04-20 16:20:00","orgNo":"3340160","typeCode":"计划停电","poweroffArea":"110kV龙岗变:昌西V142线-新溪变(二)配变","poweroffReason":"(低压停电信息)低压改造","powerTime":"2020-04-20 16:10:11","powerComm":"已送电","subsNo":"","lineNo":"","tgNo":"","tgName":null,"infoStatus":"1","orgName":"国网浙江临安市供电公司","typeName":null,"infoStatusName":null,"dateDay":null,"orgNos":null,"nowTime":null,"countyName":null,"streetName":null,"villageName":null,"roadName":null,"communityName":null,"tranName":null,"sdLineName":null,"cityCode":"3340160","cityName":"国网浙江临安市供电公司","provinceCode":null,"stopTime":"2020-04-20 16:20:00","powerType":"全部","powerOffArea":"110kV龙岗变:昌西V142线-新溪变(二)配变","powerOffReason":"(低压停电信息)低压改造","powerOffId":"2020041231020146"},{"poweroffId":2020041231020138,"sgpoweroffId":null,"subsName":"","lineName":"10kV宋江6785线","pubTranName":"今嘉(一),臻祥今日1#,十三今日,附中,今嘉(三),国土资源2#,","scope":"浙江省-杭州市-西湖区-翠苑街道-保亭社区（文一路，今日嘉园）;翠苑街道(保亭社区-杭州市十三中教育集团(总校),翠苑四区社区-杭州山水宾馆,花园社区-杭州市十三中教育集团(总校),杭州臻祥房地产开发有限公司)","startTime":"2020-04-12 12:34:30","stopDate":"2020-04-12 20:37:59","orgNo":"3340101","typeCode":"电网故障停限电","poweroffArea":"110kV高技变:宋江6785线-今嘉一线后段","poweroffReason":"高压开关跳闸原停电结束时间为2020-04-1216:34:30,因施工现场环境比较复杂，存在不确定因素原因,延迟送电,现变更停电结束时间为2020-04-1220:37:59","powerTime":"2020-04-12 20:00:35","powerComm":"已送电","subsNo":"","lineNo":"","tgNo":"","tgName":null,"infoStatus":"1","orgName":"浙江杭州电力客户服务中心","typeName":null,"infoStatusName":null,"dateDay":null,"orgNos":null,"nowTime":null,"countyName":null,"streetName":null,"villageName":null,"roadName":null,"communityName":null,"tranName":null,"sdLineName":null,"cityCode":"3340101","cityName":"浙江杭州电力客户服务中心","provinceCode":null,"stopTime":"2020-04-12 20:37:59","powerType":"全部","powerOffArea":"110kV高技变:宋江6785线-今嘉一线后段","powerOffReason":"高压开关跳闸原停电结束时间为2020-04-1216:34:30,因施工现场环境比较复杂，存在不确定因素原因,延迟送电,现变更停电结束时间为2020-04-1220:37:59","powerOffId":"2020041231020138"},{"poweroffId":2020041231020133,"sgpoweroffId":null,"subsName":"","lineName":"10kV十桥317线","pubTranName":"02,05,天潮水产,国亚水产,天潮水产,国亚水产养殖,01,06,03,天海饲料,浩然纺织1#,04,天潮水产,国联农业,","scope":"浙江省-杭州市-萧山区-义蓬街道(杭州国联农业科技开发有限公司,杭州浩然纺织科技有限公司,杭州萧山天潮水产养殖有限公司),围垦垦区(杭州天海饲料有限公司,杭州浩然纺织科技有限公司),前进街道-杭州萧山天潮养殖水产有限公司,河庄街道-杭州俞柏夫水产养殖有限公司,临江街道-杭州俞柏夫水产养殖有限公司","startTime":"2020-04-12 14:22:00","stopDate":"2020-04-12 17:22:00","orgNo":"3340120","typeCode":"电网故障停限电","poweroffArea":"110kV启江变:十桥317线十桥317线60#柱上开关(Z)后段","poweroffReason":"高压开关跳闸","powerTime":"2020-04-12 16:27:49","powerComm":"已送电","subsNo":"","lineNo":"","tgNo":"","tgName":null,"infoStatus":"1","orgName":"国网浙江杭州市钱塘新区供电公司","typeName":null,"infoStatusName":null,"dateDay":null,"orgNos":null,"nowTime":null,"countyName":null,"streetName":null,"villageName":null,"roadName":null,"communityName":null,"tranName":null,"sdLineName":null,"cityCode":"3340120","cityName":"国网浙江杭州市钱塘新区供电公司","provinceCode":null,"stopTime":"2020-04-12 17:22:00","powerType":"全部","powerOffArea":"110kV启江变:十桥317线十桥317线60#柱上开关(Z)后段","powerOffReason":"高压开关跳闸","powerOffId":"2020041231020133"},{"poweroffId":2020041231020127,"sgpoweroffId":null,"subsName":"","lineName":"10kV凤凰Y323线","pubTranName":"前源村姚家庄台区,","scope":"浙江省-杭州市-建德市-三都镇-前源行政村-姚家庄自然村","startTime":"2020-04-12 14:04:00","stopDate":"2020-04-12 16:00:00","orgNo":"3340180","typeCode":"电网故障停限电","poweroffArea":"35kV三都变:凤凰Y323线-前源村姚家庄台区后段","poweroffReason":"(低压停电信息)低熔芯烧毁","powerTime":"2020-04-12 15:07:48","powerComm":"已送电","subsNo":"","lineNo":"","tgNo":"","tgName":null,"infoStatus":"1","orgName":"国网浙江建德市供电有限公司","typeName":null,"infoStatusName":null,"dateDay":null,"orgNos":null,"nowTime":null,"countyName":null,"streetName":null,"villageName":null,"roadName":null,"communityName":null,"tranName":null,"sdLineName":null,"cityCode":"3340180","cityName":"国网浙江建德市供电有限公司","provinceCode":null,"stopTime":"2020-04-12 16:00:00","powerType":"全部","powerOffArea":"35kV三都变:凤凰Y323线-前源村姚家庄台区后段","powerOffReason":"(低压停电信息)低熔芯烧毁","powerOffId":"2020041231020127"},{"poweroffId":2020041231020125,"sgpoweroffId":null,"subsName":"","lineName":"10kV六围296线","pubTranName":"萧山区楼塔镇萧南村经济联合社,楼塔垦种（五）1#,头蓬林场,河庄垦种（二）,英伦农业,2#,楼塔,兴昌纸业,棉麻原料场,联丰猪场,","scope":"浙江省-杭州市-萧山区-义蓬街道(楼塔垦种,杭州市萧山区棉花原种场,头蓬林场,杭州联丰养殖有限公司,杭州兴昌纸业有限公司,杭州英伦农业开发有限公司),围垦垦区(河庄二垦种,杭州萧山楼塔镇萧南村经济联合社,杭州萧山楼塔萧南股份经济联合社)","startTime":"2020-04-12 14:05:00","stopDate":"2020-04-12 17:05:00","orgNo":"3340120","typeCode":"电网故障停限电","poweroffArea":"110kV启江变:六围296线六围296线02#开关(Z)后段","poweroffReason":"高压开关跳闸","powerTime":"2020-04-12 16:17:13","powerComm":"已送电","subsNo":"","lineNo":"","tgNo":"","tgName":null,"infoStatus":"1","orgName":"国网浙江杭州市钱塘新区供电公司","typeName":null,"infoStatusName":null,"dateDay":null,"orgNos":null,"nowTime":null,"countyName":null,"streetName":null,"villageName":null,"roadName":null,"communityName":null,"tranName":null,"sdLineName":null,"cityCode":"3340120","cityName":"国网浙江杭州市钱塘新区供电公司","provinceCode":null,"stopTime":"2020-04-12 17:05:00","powerType":"全部","powerOffArea":"110kV启江变:六围296线六围296线02#开关(Z)后段","powerOffReason":"高压开关跳闸","powerOffId":"2020041231020125"},{"poweroffId":2020041231020124,"sgpoweroffId":null,"subsName":"","lineName":"10kV东源D339线","pubTranName":"万市村8#路前公变,","scope":"浙江省-杭州市-富阳区-万市镇-万市行政村(考坎坞自然村,镇头自然村,东源自然村,骆家自然村,下陈家自然村,上陈家自然村)","startTime":"2020-04-12 14:11:13","stopDate":"2020-04-12 15:41:13","orgNo":"3340170","typeCode":"电网故障停限电","poweroffArea":"110kV万市变:东源D339线-万市村8#路前公变后段","poweroffReason":"(低压停电信息)低压开关跳闸","powerTime":"2020-04-12 14:41:48","powerComm":"已送电","subsNo":"","lineNo":"","tgNo":"","tgName":null,"infoStatus":"1","orgName":"国网浙江杭州市富阳区供电公司","typeName":null,"infoStatusName":null,"dateDay":null,"orgNos":null,"nowTime":null,"countyName":null,"streetName":null,"villageName":null,"roadName":null,"communityName":null,"tranName":null,"sdLineName":null,"cityCode":"3340170","cityName":"国网浙江杭州市富阳区供电公司","provinceCode":null,"stopTime":"2020-04-12 15:41:13","powerType":"全部","powerOffArea":"110kV万市变:东源D339线-万市村8#路前公变后段","powerOffReason":"(低压停电信息)低压开关跳闸","powerOffId":"2020041231020124"}],"pageModel":{"pageNow":348,"totalCount":17788,"totalPage":1779,"tableRows":0,"pageCount":10,"beginCount":3470},"isExperi":"1"}