{"message":"","today":"2020-06-15","seleList":[{"poweroffId":2020041131020220,"sgpoweroffId":null,"subsName":"","lineName":"10kV杨桥V720线","pubTranName":"杨桥村[汪家山脚],","scope":"浙江省-杭州市-临安区-太湖源镇-杨桥行政村-汪家山脚自然村一带","startTime":"2020-04-22 08:00:00","stopDate":"2020-04-22 09:00:00","orgNo":"3340160","typeCode":"计划停电","poweroffArea":"110kV杨岭变:杨桥V720线-杨桥村[汪家山脚]后段","poweroffReason":"发电车接入原停电结束时间为2020-04-2208:30:00,因工作进度原因,延迟送电,现变更停电结束时间为2020-04-2209:00:00","powerTime":"2020-04-22 08:38:48","powerComm":"已送电","subsNo":"","lineNo":"","tgNo":"","tgName":null,"infoStatus":"1","orgName":"国网浙江临安市供电公司","typeName":null,"infoStatusName":null,"dateDay":null,"orgNos":null,"nowTime":null,"countyName":null,"streetName":null,"villageName":null,"roadName":null,"communityName":null,"tranName":null,"sdLineName":null,"cityCode":"3340160","cityName":"国网浙江临安市供电公司","provinceCode":null,"stopTime":"2020-04-22 09:00:00","powerType":"全部","powerOffArea":"110kV杨岭变:杨桥V720线-杨桥村[汪家山脚]后段","powerOffReason":"发电车接入原停电结束时间为2020-04-2208:30:00,因工作进度原因,延迟送电,现变更停电结束时间为2020-04-2209:00:00","powerOffId":"2020041131020220"},{"poweroffId":2020041131020219,"sgpoweroffId":null,"subsName":"","lineName":"10kV上东V494线","pubTranName":"临安市路灯管理所,竹林村[竹林1-2队]公变,","scope":"浙江省-杭州市-临安区-锦北街道-竹林居委会-湖塘下自然村;临安市路灯管理所一带","startTime":"2020-04-24 08:10:00","stopDate":"2020-04-24 12:00:00","orgNo":"3340160","typeCode":"计划停电","poweroffArea":"110kV平山变:上东V494线-工农亭分线11#后段","poweroffReason":"公变增容移位","powerTime":"2020-04-24 11:50:01","powerComm":"已送电","subsNo":"","lineNo":"","tgNo":"","tgName":null,"infoStatus":"1","orgName":"国网浙江临安市供电公司","typeName":null,"infoStatusName":null,"dateDay":null,"orgNos":null,"nowTime":null,"countyName":null,"streetName":null,"villageName":null,"roadName":null,"communityName":null,"tranName":null,"sdLineName":null,"cityCode":"3340160","cityName":"国网浙江临安市供电公司","provinceCode":null,"stopTime":"2020-04-24 12:00:00","powerType":"全部","powerOffArea":"110kV平山变:上东V494线-工农亭分线11#后段","powerOffReason":"公变增容移位","powerOffId":"2020041131020219"},{"poweroffId":2020041131020218,"sgpoweroffId":null,"subsName":"","lineName":"10kV锦秀V402线","pubTranName":"锦绣村[梅坞里]公变,","scope":"浙江省-杭州市-临安区-玲珑街道-锦绣行政村(锦绣自然村,梅坞里自然村)一带","startTime":"2020-04-23 08:30:00","stopDate":"2020-04-23 16:30:00","orgNo":"3340160","typeCode":"计划停电","poweroffArea":"110kV秀水变:锦秀V402线-锦绣村[梅坞里]公变后段","poweroffReason":"公变增容 原停电结束时间为2020-04-23 13:30:00,因工作进度原因,延迟送电,现变更停电结束时间为2020-04-23 16:30:00","powerTime":"2020-04-23 16:20:14","powerComm":"已送电","subsNo":"","lineNo":"","tgNo":"","tgName":null,"infoStatus":"1","orgName":"国网浙江临安市供电公司","typeName":null,"infoStatusName":null,"dateDay":null,"orgNos":null,"nowTime":null,"countyName":null,"streetName":null,"villageName":null,"roadName":null,"communityName":null,"tranName":null,"sdLineName":null,"cityCode":"3340160","cityName":"国网浙江临安市供电公司","provinceCode":null,"stopTime":"2020-04-23 16:30:00","powerType":"全部","powerOffArea":"110kV秀水变:锦秀V402线-锦绣村[梅坞里]公变后段","powerOffReason":"公变增容 原停电结束时间为2020-04-23 13:30:00,因工作进度原因,延迟送电,现变更停电结束时间为2020-04-23 16:30:00","powerOffId":"2020041131020218"},{"poweroffId":2020041131020217,"sgpoweroffId":null,"subsName":"","lineName":"10kV塘湾V872线","pubTranName":"上海建工一建集团有限公司2#,上海建工一建集团有限公司1#,上海建工一建集团有限公司3#,上海建工一建集团有限公司4#,","scope":"浙江省-杭州市-临安区-锦南街道-杨岱行政村-上海建工一建集团有限公司一带","startTime":"2020-04-23 07:50:00","stopDate":"2020-04-23 13:00:00","orgNo":"3340160","typeCode":"计划停电","poweroffArea":"110kV杨岱变:塘湾V872线-祥分站G6备用间隔负荷开关后段","poweroffReason":"用户配变移位","powerTime":"2020-04-23 12:50:08","powerComm":"已送电","subsNo":"","lineNo":"","tgNo":"","tgName":null,"infoStatus":"1","orgName":"国网浙江临安市供电公司","typeName":null,"infoStatusName":null,"dateDay":null,"orgNos":null,"nowTime":null,"countyName":null,"streetName":null,"villageName":null,"roadName":null,"communityName":null,"tranName":null,"sdLineName":null,"cityCode":"3340160","cityName":"国网浙江临安市供电公司","provinceCode":null,"stopTime":"2020-04-23 13:00:00","powerType":"全部","powerOffArea":"110kV杨岱变:塘湾V872线-祥分站G6备用间隔负荷开关后段","powerOffReason":"用户配变移位","powerOffId":"2020041131020217"},{"poweroffId":2020041131020216,"sgpoweroffId":null,"subsName":"","lineName":"10kV吴马V493线","pubTranName":"上东村[龙浮一组]公变,","scope":"浙江省-杭州市-临安区-锦北街道-上东行政村(龙浮山自然村,上东自然村,龙浮自然村)一带","startTime":"2020-04-20 09:30:00","stopDate":"2020-04-20 17:00:00","orgNo":"3340160","typeCode":"计划停电","poweroffArea":"110kV平山变:吴马V493线-上东村[龙浮一组]公变后段","poweroffReason":"公变增容原停电结束时间为2020-04-2014:30:00,因工程进度原因,延迟送电,现变更停电结束时间为2020-04-2017:00:00","powerTime":"2020-04-20 16:03:47","powerComm":"已送电","subsNo":"","lineNo":"","tgNo":"","tgName":null,"infoStatus":"1","orgName":"国网浙江临安市供电公司","typeName":null,"infoStatusName":null,"dateDay":null,"orgNos":null,"nowTime":null,"countyName":null,"streetName":null,"villageName":null,"roadName":null,"communityName":null,"tranName":null,"sdLineName":null,"cityCode":"3340160","cityName":"国网浙江临安市供电公司","provinceCode":null,"stopTime":"2020-04-20 17:00:00","powerType":"全部","powerOffArea":"110kV平山变:吴马V493线-上东村[龙浮一组]公变后段","powerOffReason":"公变增容原停电结束时间为2020-04-2014:30:00,因工程进度原因,延迟送电,现变更停电结束时间为2020-04-2017:00:00","powerOffId":"2020041131020216"},{"poweroffId":2020041131020215,"sgpoweroffId":null,"subsName":"","lineName":"10kV双桥C223线","pubTranName":"五联村20#变,","scope":"浙江省-杭州市-萧山区-新塘街道-五联行政村-南沿埭自然村，浙江省杭州市萧山区新塘街道五联村","startTime":"2020-04-11 19:40:33","stopDate":"2020-04-12 00:20:33","orgNo":"3340130","typeCode":"电网故障停限电","poweroffArea":"110kV霞江变:双桥C223线-五联村20#公变台区低压开关","poweroffReason":"(低压停电信息)低压断路器跳闸原停电结束时间为2020-04-1123:50:33,因抢修工作难度大的原因,延迟送电,现变更停电结束时间为2020-04-1200:20:33","powerTime":"2020-04-11 23:36:52","powerComm":"已送电","subsNo":"","lineNo":"","tgNo":"","tgName":null,"infoStatus":"1","orgName":"国网浙江杭州市萧山区供电有限公司","typeName":null,"infoStatusName":null,"dateDay":null,"orgNos":null,"nowTime":null,"countyName":null,"streetName":null,"villageName":null,"roadName":null,"communityName":null,"tranName":null,"sdLineName":null,"cityCode":"3340130","cityName":"国网浙江杭州市萧山区供电有限公司","provinceCode":null,"stopTime":"2020-04-12 00:20:33","powerType":"全部","powerOffArea":"110kV霞江变:双桥C223线-五联村20#公变台区低压开关","powerOffReason":"(低压停电信息)低压断路器跳闸原停电结束时间为2020-04-1123:50:33,因抢修工作难度大的原因,延迟送电,现变更停电结束时间为2020-04-1200:20:33","powerOffId":"2020041131020215"},{"poweroffId":2020041131020212,"sgpoweroffId":null,"subsName":"","lineName":"10kV杨华V731线","pubTranName":"光辉村[年头],","scope":"浙江省-杭州市-临安区-太湖源镇-光辉行政村-年头自然村一带","startTime":"2020-04-23 08:30:00","stopDate":"2020-04-23 14:30:00","orgNo":"3340160","typeCode":"计划停电","poweroffArea":"110kV杨岭变:杨华V731线-光辉村[年头]后段","poweroffReason":"(低压停电信息)配合低压割接","powerTime":"2020-04-23 14:20:52","powerComm":"已送电","subsNo":"","lineNo":"","tgNo":"","tgName":null,"infoStatus":"1","orgName":"国网浙江临安市供电公司","typeName":null,"infoStatusName":null,"dateDay":null,"orgNos":null,"nowTime":null,"countyName":null,"streetName":null,"villageName":null,"roadName":null,"communityName":null,"tranName":null,"sdLineName":null,"cityCode":"3340160","cityName":"国网浙江临安市供电公司","provinceCode":null,"stopTime":"2020-04-23 14:30:00","powerType":"全部","powerOffArea":"110kV杨岭变:杨华V731线-光辉村[年头]后段","powerOffReason":"(低压停电信息)配合低压割接","powerOffId":"2020041131020212"},{"poweroffId":2020041131020210,"sgpoweroffId":null,"subsName":"","lineName":"10kV东山V153线","pubTranName":"宏渡村[桥头]公变,","scope":"浙江省-杭州市-临安区-玲珑街道-宏渡行政村(吴家坂自然村,乌渡自然村,宏渡自然村)一带","startTime":"2020-04-20 08:30:00","stopDate":"2020-04-20 14:30:00","orgNo":"3340160","typeCode":"计划停电","poweroffArea":"110kV夏禹变:东山V153线-宏渡村[桥头]公变后段","poweroffReason":"(低压停电信息)配合停电","powerTime":"2020-04-20 13:32:08","powerComm":"已送电","subsNo":"","lineNo":"","tgNo":"","tgName":null,"infoStatus":"1","orgName":"国网浙江临安市供电公司","typeName":null,"infoStatusName":null,"dateDay":null,"orgNos":null,"nowTime":null,"countyName":null,"streetName":null,"villageName":null,"roadName":null,"communityName":null,"tranName":null,"sdLineName":null,"cityCode":"3340160","cityName":"国网浙江临安市供电公司","provinceCode":null,"stopTime":"2020-04-20 14:30:00","powerType":"全部","powerOffArea":"110kV夏禹变:东山V153线-宏渡村[桥头]公变后段","powerOffReason":"(低压停电信息)配合停电","powerOffId":"2020041131020210"},{"poweroffId":2020041131020209,"sgpoweroffId":null,"subsName":"","lineName":"10kV高坎V150线","pubTranName":"夏禹桥村[夏禹桥]公变,","scope":"浙江省-杭州市-临安区-玲珑街道-夏禹桥行政村(夏禹桥自然村,冯家头自然村)一带","startTime":"2020-04-20 08:30:00","stopDate":"2020-04-20 14:30:00","orgNo":"3340160","typeCode":"计划停电","poweroffArea":"110kV夏禹变:高坎V150线-夏禹桥村[夏禹桥]公变后段","poweroffReason":"(低压停电信息)配合停电","powerTime":"2020-04-20 13:31:35","powerComm":"已送电","subsNo":"","lineNo":"","tgNo":"","tgName":null,"infoStatus":"1","orgName":"国网浙江临安市供电公司","typeName":null,"infoStatusName":null,"dateDay":null,"orgNos":null,"nowTime":null,"countyName":null,"streetName":null,"villageName":null,"roadName":null,"communityName":null,"tranName":null,"sdLineName":null,"cityCode":"3340160","cityName":"国网浙江临安市供电公司","provinceCode":null,"stopTime":"2020-04-20 14:30:00","powerType":"全部","powerOffArea":"110kV夏禹变:高坎V150线-夏禹桥村[夏禹桥]公变后段","powerOffReason":"(低压停电信息)配合停电","powerOffId":"2020041131020209"},{"poweroffId":2020041131020203,"sgpoweroffId":null,"subsName":"","lineName":"10kV红坞T117线","pubTranName":"塔坞路3号公变,","scope":"浙江省-杭州市-桐庐县-桐君街道-圆通社区-塔坞路","startTime":"2020-04-11 18:15:10","stopDate":"2020-04-11 20:15:10","orgNo":"3340150","typeCode":"电网故障停限电","poweroffArea":"110kV桐庐变:红坞T117线-塔坞路3号公变后段","poweroffReason":"(低压停电信息)低压开关跳闸","powerTime":"2020-04-11 20:00:29","powerComm":"已送电","subsNo":"","lineNo":"","tgNo":"","tgName":null,"infoStatus":"1","orgName":"国网浙江桐庐县供电公司","typeName":null,"infoStatusName":null,"dateDay":null,"orgNos":null,"nowTime":null,"countyName":null,"streetName":null,"villageName":null,"roadName":null,"communityName":null,"tranName":null,"sdLineName":null,"cityCode":"3340150","cityName":"国网浙江桐庐县供电公司","provinceCode":null,"stopTime":"2020-04-11 20:15:10","powerType":"全部","powerOffArea":"110kV桐庐变:红坞T117线-塔坞路3号公变后段","powerOffReason":"(低压停电信息)低压开关跳闸","powerOffId":"2020041131020203"}],"pageModel":{"pageNow":351,"totalCount":17788,"totalPage":1779,"tableRows":0,"pageCount":10,"beginCount":3500},"isExperi":"1"}