{"message":"","today":"2020-06-15","seleList":[{"poweroffId":2020041131020120,"sgpoweroffId":null,"subsName":"","lineName":"10kV银乔C832线","pubTranName":"芝兰村5#变,","scope":"浙江省-杭州市-萧山区-新街镇-新街街道-芝兰行政村-芝兰自然村等一带","startTime":"2020-04-11 13:58:16","stopDate":"2020-04-11 16:58:16","orgNo":"3340130","typeCode":"电网故障停限电","poweroffArea":"110kV罗山变:银乔C832线-芝兰村5#变台区低压开关","poweroffReason":"(低压停电信息)低压漏电保护器短路故障","powerTime":"2020-04-11 16:05:32","powerComm":"已送电","subsNo":"","lineNo":"","tgNo":"","tgName":null,"infoStatus":"1","orgName":"国网浙江杭州市萧山区供电有限公司","typeName":null,"infoStatusName":null,"dateDay":null,"orgNos":null,"nowTime":null,"countyName":null,"streetName":null,"villageName":null,"roadName":null,"communityName":null,"tranName":null,"sdLineName":null,"cityCode":"3340130","cityName":"国网浙江杭州市萧山区供电有限公司","provinceCode":null,"stopTime":"2020-04-11 16:58:16","powerType":"全部","powerOffArea":"110kV罗山变:银乔C832线-芝兰村5#变台区低压开关","powerOffReason":"(低压停电信息)低压漏电保护器短路故障","powerOffId":"2020041131020120"},{"poweroffId":2020041131020116,"sgpoweroffId":null,"subsName":"","lineName":"10kV名二A067线","pubTranName":"名港城二期4#公变,","scope":"浙江省-杭州市-萧山区-瓜沥镇-东灵社区-名港城小区等","startTime":"2020-04-11 13:40:35","stopDate":"2020-04-11 15:20:35","orgNo":"3340130","typeCode":"电网故障停限电","poweroffArea":"110kV航坞变:名二A067线-名港城二期4#公变台区低压开关","poweroffReason":"(低压停电信息)低压漏电保护器跳闸原停电结束时间为2020-04-1115:41:35,为减少客户停电时间,加快工作进度,提前送电,现变更停电结束时间为2020-04-1115:20:35","powerTime":"2020-04-11 14:38:16","powerComm":"已送电","subsNo":"","lineNo":"","tgNo":"","tgName":null,"infoStatus":"1","orgName":"国网浙江杭州市萧山区供电有限公司","typeName":null,"infoStatusName":null,"dateDay":null,"orgNos":null,"nowTime":null,"countyName":null,"streetName":null,"villageName":null,"roadName":null,"communityName":null,"tranName":null,"sdLineName":null,"cityCode":"3340130","cityName":"国网浙江杭州市萧山区供电有限公司","provinceCode":null,"stopTime":"2020-04-11 15:20:35","powerType":"全部","powerOffArea":"110kV航坞变:名二A067线-名港城二期4#公变台区低压开关","powerOffReason":"(低压停电信息)低压漏电保护器跳闸原停电结束时间为2020-04-1115:41:35,为减少客户停电时间,加快工作进度,提前送电,现变更停电结束时间为2020-04-1115:20:35","powerOffId":"2020041131020116"},{"poweroffId":2020041131020115,"sgpoweroffId":null,"subsName":"","lineName":"10kV名一A083线","pubTranName":"名港城二期3#公变,","scope":"浙江省-杭州市-萧山区-瓜沥镇-东灵社区-名港城小区等","startTime":"2020-04-11 13:40:41","stopDate":"2020-04-11 15:20:41","orgNo":"3340130","typeCode":"电网故障停限电","poweroffArea":"110kV航坞变:名一A083线-名港城二期3#公变台区低压开关","poweroffReason":"(低压停电信息)低压漏电保护器跳闸原停电结束时间为2020-04-1115:40:41,为减少客户停电时间,加快工作进度,提前送电,现变更停电结束时间为2020-04-1115:20:41","powerTime":"2020-04-11 14:38:23","powerComm":"已送电","subsNo":"","lineNo":"","tgNo":"","tgName":null,"infoStatus":"1","orgName":"国网浙江杭州市萧山区供电有限公司","typeName":null,"infoStatusName":null,"dateDay":null,"orgNos":null,"nowTime":null,"countyName":null,"streetName":null,"villageName":null,"roadName":null,"communityName":null,"tranName":null,"sdLineName":null,"cityCode":"3340130","cityName":"国网浙江杭州市萧山区供电有限公司","provinceCode":null,"stopTime":"2020-04-11 15:20:41","powerType":"全部","powerOffArea":"110kV航坞变:名一A083线-名港城二期3#公变台区低压开关","powerOffReason":"(低压停电信息)低压漏电保护器跳闸原停电结束时间为2020-04-1115:40:41,为减少客户停电时间,加快工作进度,提前送电,现变更停电结束时间为2020-04-1115:20:41","powerOffId":"2020041131020115"},{"poweroffId":2020041131020106,"sgpoweroffId":null,"subsName":"","lineName":"10kV荷塘Y511线","pubTranName":"荷塘嘉园1#公变,荷塘嘉园3号公变,城东村青龙头台区,城东村西塘台区,城东村下塘台区,城东村创业路台区,城东村胡宅台区,杭州美亚液化石油气有限公司,荷塘嘉园2#公变,","scope":"浙江省-杭州市-建德市-洋溪街道-城东行政村(下塘自然村,西塘自然村,青龙头自然村,创业路自然村,荷塘嘉苑小区,方家坪自然村,胡宅自然村);洋溪街道-杭州美亚液化石油气有限公司","startTime":"2020-04-11 12:34:00","stopDate":"2020-04-11 17:00:00","orgNo":"3340180","typeCode":"电网故障停限电","poweroffArea":"110kV沿口变:荷塘Y511线荷塘Y511线01#开关后段","poweroffReason":"高压开关跳闸原停电结束时间为2020-04-1115:00:00,因大雨天气原因,延迟送电,现变更停电结束时间为2020-04-1117:00:00","powerTime":"2020-04-11 16:44:00","powerComm":"已送电","subsNo":"","lineNo":"","tgNo":"","tgName":null,"infoStatus":"1","orgName":"国网浙江建德市供电有限公司","typeName":null,"infoStatusName":null,"dateDay":null,"orgNos":null,"nowTime":null,"countyName":null,"streetName":null,"villageName":null,"roadName":null,"communityName":null,"tranName":null,"sdLineName":null,"cityCode":"3340180","cityName":"国网浙江建德市供电有限公司","provinceCode":null,"stopTime":"2020-04-11 17:00:00","powerType":"全部","powerOffArea":"110kV沿口变:荷塘Y511线荷塘Y511线01#开关后段","powerOffReason":"高压开关跳闸原停电结束时间为2020-04-1115:00:00,因大雨天气原因,延迟送电,现变更停电结束时间为2020-04-1117:00:00","powerOffId":"2020041131020106"},{"poweroffId":2020041131020100,"sgpoweroffId":null,"subsName":"","lineName":"10kV南丰L004线","pubTranName":"南丰村1#变,南丰村4#变,杭州传佳涂装有限公司变压器间隔配电变压器,永宁尔集团1#,南丰村11#变,远大村4#变,南丰村2#变,南丰村7#变,晨杰水泥,南围精密机械,宏峰制衣厂,杭州萧山二垦酒业有限公司变压器,凌红纺织,永宁尔集团2#,2#,开元安装,浙江手心制药有限公司1#,远大村12#变,南丰村9#变,浙通金属有限公司,中亚精细化工(1316046164),南丰村15#变,杭州德信锦玉置业有限公司2#变,南丰村3#变,南丰村6#变,南丰村12#变,永宁尔集团3#,南丰小区2#变,杭州德信锦玉置业有限公司1#变,泡沫包装(1315078393),永宁尔集团4#,南丰村10#变,","scope":"浙江省-杭州市-萧山区-南阳街道-东风行政村-东风自然村,南阳街道-远大行政村(长远自然村,南围自然村),南阳街道-南丰行政村(南丰自然村,港城大道,南丰大道);南阳街道-坞里行政村(杭州浙通金属材料有限公司,杭州萧山南阳晨杰水泥制品加工厂),南阳街道-远大行政村(浙江省工业设备安装集团有限公司压力容器制造厂,杭州萧山南围精密机械配件厂,杭州萧山二垦酒业有限公司,杭州凌红纺织厂,浙江手心制药有限公司),南阳街道-南丰行政村(杭州萧山宏峰制衣厂,杭州德信锦玉置业有限公司),南阳街道(南阳社区-杭州萧山泡沫包装有限公司,横蓬行政村-中亚精细化工(杭州)有限公司,龙虎行政村-永宁尔集团股份有限公司,东风行政村-杭州传佳涂装有限公司)、浙江省杭州市萧山区南阳街道南丰行政村南丰自然村南丰村东、南阳镇远大村等","startTime":"2020-04-11 12:05:03","stopDate":"2020-04-11 14:10:03","orgNo":"3340130","typeCode":"电网故障停限电","poweroffArea":"35kV赭山变:南丰L004线","poweroffReason":"高压柱上断路器跳闸原停电结束时间为2020-04-1114:19:03,为减少客户停电时间,加快工作进度,提前送电,现变更停电结束时间为2020-04-1114:10:03","powerTime":"2020-04-11 13:20:41","powerComm":"已送电","subsNo":"","lineNo":"","tgNo":"","tgName":null,"infoStatus":"1","orgName":"国网浙江杭州市萧山区供电有限公司","typeName":null,"infoStatusName":null,"dateDay":null,"orgNos":null,"nowTime":null,"countyName":null,"streetName":null,"villageName":null,"roadName":null,"communityName":null,"tranName":null,"sdLineName":null,"cityCode":"3340130","cityName":"国网浙江杭州市萧山区供电有限公司","provinceCode":null,"stopTime":"2020-04-11 14:10:03","powerType":"全部","powerOffArea":"35kV赭山变:南丰L004线","powerOffReason":"高压柱上断路器跳闸原停电结束时间为2020-04-1114:19:03,为减少客户停电时间,加快工作进度,提前送电,现变更停电结束时间为2020-04-1114:10:03","powerOffId":"2020041131020100"},{"poweroffId":2020041131020098,"sgpoweroffId":null,"subsName":"","lineName":"10kV黎岩A806线","pubTranName":"南阳镇中心辅导学校配变,4,6,杭州萧山新星化纤有限公司1#,1#变,杭州龙翔洁具有限公司,南丰村13#变,南丰小区1#变,鸿兴彩印,文发布业配变,永宁尔集团股份有限公司1#,永盛卫浴(1321026213),杭州萧山新星化纤有限公司,杭州萧山真誉传动件厂,文发布业(1316004405),熙民纺织,同昌机械,迪升涂料,文发布业2#,龙虎村5#变,永宁尔集团股份有限公司2#,萧邦物流,龙虎村13#变,","scope":"浙江省-杭州市-萧山区-南阳街道-南丰行政村(南丰自然村,南丰大道),南阳街道(龙虎行政村-龙虎自然村,岩峰行政村-岩峰自然村);南阳街道-岩峰行政村(杭州萧山文发布业有限公司,杭州萧邦物流有限公司),南阳街道-龙虎行政村(杭州同昌机械有限公司,杭州永盛卫浴有限公司,萧山区南阳小学,杭州迪升涂料有限公司,杭州鸿兴彩印包装有限公司,杭州熙民纺织有限公司,杭州龙翔洁具有限公司,杭州萧山真誉传动件厂),南阳街道(坞里行政村-杭州萧山新星化纤有限公司,南丰行政村-杭州柏悦酒店管理有限公司)、南阳街道龙虎行政村浦十四南侧等","startTime":"2020-04-11 12:02:07","stopDate":"2020-04-11 14:00:07","orgNo":"3340130","typeCode":"电网故障停限电","poweroffArea":"110kV黎明变:黎岩A806线","poweroffReason":"高压柱上断路器跳闸原停电结束时间为2020-04-1114:14:07,为减少客户停电时间,加快工作进度,提前送电,现变更停电结束时间为2020-04-1114:00:07","powerTime":"2020-04-11 13:12:31","powerComm":"已送电","subsNo":"","lineNo":"","tgNo":"","tgName":null,"infoStatus":"1","orgName":"国网浙江杭州市萧山区供电有限公司","typeName":null,"infoStatusName":null,"dateDay":null,"orgNos":null,"nowTime":null,"countyName":null,"streetName":null,"villageName":null,"roadName":null,"communityName":null,"tranName":null,"sdLineName":null,"cityCode":"3340130","cityName":"国网浙江杭州市萧山区供电有限公司","provinceCode":null,"stopTime":"2020-04-11 14:00:07","powerType":"全部","powerOffArea":"110kV黎明变:黎岩A806线","powerOffReason":"高压柱上断路器跳闸原停电结束时间为2020-04-1114:14:07,为减少客户停电时间,加快工作进度,提前送电,现变更停电结束时间为2020-04-1114:00:07","powerOffId":"2020041131020098"},{"poweroffId":2020041131020091,"sgpoweroffId":null,"subsName":"","lineName":"10kV春光0810线","pubTranName":"春元村4#变,","scope":"浙江省-杭州市-萧山区-义蓬街道-春园行政村-春园自然村","startTime":"2020-04-11 11:55:00","stopDate":"2020-04-11 12:55:00","orgNo":"3340120","typeCode":"电网故障停限电","poweroffArea":"35kV头蓬变:春光0810线春元村4#变配变","poweroffReason":"(低压停电信息)低压开关跳闸","powerTime":"2020-04-11 12:30:32","powerComm":"已送电","subsNo":"","lineNo":"","tgNo":"","tgName":null,"infoStatus":"1","orgName":"国网浙江杭州市钱塘新区供电公司","typeName":null,"infoStatusName":null,"dateDay":null,"orgNos":null,"nowTime":null,"countyName":null,"streetName":null,"villageName":null,"roadName":null,"communityName":null,"tranName":null,"sdLineName":null,"cityCode":"3340120","cityName":"国网浙江杭州市钱塘新区供电公司","provinceCode":null,"stopTime":"2020-04-11 12:55:00","powerType":"全部","powerOffArea":"35kV头蓬变:春光0810线春元村4#变配变","powerOffReason":"(低压停电信息)低压开关跳闸","powerOffId":"2020041131020091"},{"poweroffId":2020041131020090,"sgpoweroffId":null,"subsName":"","lineName":"10kV下定A524线","pubTranName":"江南村5#变,江南村1#变,径游村7#变,江南村7#变,江南村8#变,杭州萧山浦阳江南股份经济联合社2#,径游村8#变,江南村9#变,杭州市萧山区浦阳镇人民政府,杭州双威机械制造有限公司2#,杭州信达鞋业有限公司,江南村4#变,天成玻纤,杭州双威机械制造有限公司3#,杭州萧山浦阳江南股份经济联合社1#,杭州诗涛针织厂,永利制线,江南村3#变,惠业机械,径游村6#变,径游村5#变,杭州兆亿丰鞋业有限公司,径游小学,杭州路克鞋业有限公司(下定),径游村12#变,江南村10#变,杭州萧山杰威鞋业有限公司,杭州天峰纺织机械有限公司,径游村13#变,远洋鞋业,成功鞋业,江南村2#变,校发线缆,杭州双威机械制造有限公司1#,径游机埠1#配变,彩虹毛杉,江南村6#变,杭州伟量管业有限公司,通达鞋业,乐铠鞋业,1#,","scope":"浙江省-杭州市-萧山区-浦阳镇-径游行政村(上庄自然村,径游自然村,占家自然村),浦阳镇-江南行政村(下俞自然村,纪家汇自然村,下定自然村);浦阳镇(杭州信达鞋业有限公司,杭州通达鞋业有限公司,杭州萧山天成复合材料有限公司,杭州伟量管业有限公司,萧山区浦阳镇径游中心小学,杭州萧山彩虹工艺毛衫厂,杭州路克鞋业有限公司,杭州联鸿鞋业有限公司,杭州天峰纺织机械有限公司,杭州萧山杰威鞋业有限公司,杭州诗涛针织厂,杭州双威机械制造有限公司,杭州跃发铝合金电子线缆有限公司,杭州乐铠鞋业有限公司,杭州远洋鞋业有限公司,杭州萧山浦阳镇永利制线厂,杭州成功鞋业有限公司,杭州惠业机械有限公司,杭州市萧山区浦阳镇人民政府,杭州萧山浦阳江南股份经济联合社)等","startTime":"2020-04-11 11:44:00","stopDate":"2020-04-11 13:30:00","orgNo":"3340130","typeCode":"电网故障停限电","poweroffArea":"110kV浦阳变:下定A524线下定A5242开关后段","poweroffReason":"高压柱上断路器跳闸原停电结束时间为2020-04-1114:44:00,为减少客户停电时间,加快工作进度,提前送电,现变更停电结束时间为2020-04-1113:30:00","powerTime":"2020-04-11 12:45:16","powerComm":"已送电","subsNo":"","lineNo":"","tgNo":"","tgName":null,"infoStatus":"1","orgName":"国网浙江杭州市萧山区供电有限公司","typeName":null,"infoStatusName":null,"dateDay":null,"orgNos":null,"nowTime":null,"countyName":null,"streetName":null,"villageName":null,"roadName":null,"communityName":null,"tranName":null,"sdLineName":null,"cityCode":"3340130","cityName":"国网浙江杭州市萧山区供电有限公司","provinceCode":null,"stopTime":"2020-04-11 13:30:00","powerType":"全部","powerOffArea":"110kV浦阳变:下定A524线下定A5242开关后段","powerOffReason":"高压柱上断路器跳闸原停电结束时间为2020-04-1114:44:00,为减少客户停电时间,加快工作进度,提前送电,现变更停电结束时间为2020-04-1113:30:00","powerOffId":"2020041131020090"},{"poweroffId":2020041131020060,"sgpoweroffId":null,"subsName":"","lineName":"10kV春光0810线","pubTranName":"春元村4#变,","scope":"浙江省-杭州市-萧山区-义蓬街道-春园行政村-春园自然村","startTime":"2020-04-11 09:48:00","stopDate":"2020-04-11 10:48:00","orgNo":"3340120","typeCode":"电网故障停限电","poweroffArea":"35kV头蓬变:春光0810线春元村4#变配变","poweroffReason":"(低压停电信息)低压开关跳闸","powerTime":"2020-04-11 10:10:30","powerComm":"已送电","subsNo":"","lineNo":"","tgNo":"","tgName":null,"infoStatus":"1","orgName":"国网浙江杭州市钱塘新区供电公司","typeName":null,"infoStatusName":null,"dateDay":null,"orgNos":null,"nowTime":null,"countyName":null,"streetName":null,"villageName":null,"roadName":null,"communityName":null,"tranName":null,"sdLineName":null,"cityCode":"3340120","cityName":"国网浙江杭州市钱塘新区供电公司","provinceCode":null,"stopTime":"2020-04-11 10:48:00","powerType":"全部","powerOffArea":"35kV头蓬变:春光0810线春元村4#变配变","powerOffReason":"(低压停电信息)低压开关跳闸","powerOffId":"2020041131020060"},{"poweroffId":2020041131020055,"sgpoweroffId":null,"subsName":"","lineName":"10kV镇龙A503线","pubTranName":"星联村7#变,","scope":"浙江省-杭州市-萧山区-益农镇-星联行政村(夹灶自然村,转塘头自然村)等","startTime":"2020-04-11 09:30:37","stopDate":"2020-04-11 11:40:37","orgNo":"3340130","typeCode":"电网故障停限电","poweroffArea":"110kV群围变:镇龙A503线-星联村7#变台区低压开关","poweroffReason":"(低压停电信息)低压漏电保护器跳闸","powerTime":"2020-04-11 10:45:15","powerComm":"已送电","subsNo":"","lineNo":"","tgNo":"","tgName":null,"infoStatus":"1","orgName":"国网浙江杭州市萧山区供电有限公司","typeName":null,"infoStatusName":null,"dateDay":null,"orgNos":null,"nowTime":null,"countyName":null,"streetName":null,"villageName":null,"roadName":null,"communityName":null,"tranName":null,"sdLineName":null,"cityCode":"3340130","cityName":"国网浙江杭州市萧山区供电有限公司","provinceCode":null,"stopTime":"2020-04-11 11:40:37","powerType":"全部","powerOffArea":"110kV群围变:镇龙A503线-星联村7#变台区低压开关","powerOffReason":"(低压停电信息)低压漏电保护器跳闸","powerOffId":"2020041131020055"}],"pageModel":{"pageNow":355,"totalCount":17788,"totalPage":1779,"tableRows":0,"pageCount":10,"beginCount":3540},"isExperi":"1"}