{"message":"","today":"2020-06-15","seleList":[{"poweroffId":2020041031020560,"sgpoweroffId":null,"subsName":"","lineName":"10kV红火D673线","pubTranName":"杭州富阳永乐造纸厂1号变,","scope":"浙江省-杭州市-富阳区-春江街道-杭州富阳永乐造纸厂一带","startTime":"2020-04-22 05:00:00","stopDate":"2020-04-22 20:30:00","orgNo":"3340170","typeCode":"计划停电","poweroffArea":"110kV临江变:红火D673线-富阳市永乐造纸厂开关后段","poweroffReason":"配合用户内部检修原停电结束时间为2020-04-2217:30:00,因工作复杂原因,延迟送电,现变更停电结束时间为2020-04-2220:30:00","powerTime":"2020-04-22 20:16:25","powerComm":"已送电","subsNo":"","lineNo":"","tgNo":"","tgName":null,"infoStatus":"1","orgName":"国网浙江杭州市富阳区供电公司","typeName":null,"infoStatusName":null,"dateDay":null,"orgNos":null,"nowTime":null,"countyName":null,"streetName":null,"villageName":null,"roadName":null,"communityName":null,"tranName":null,"sdLineName":null,"cityCode":"3340170","cityName":"国网浙江杭州市富阳区供电公司","provinceCode":null,"stopTime":"2020-04-22 20:30:00","powerType":"全部","powerOffArea":"110kV临江变:红火D673线-富阳市永乐造纸厂开关后段","powerOffReason":"配合用户内部检修原停电结束时间为2020-04-2217:30:00,因工作复杂原因,延迟送电,现变更停电结束时间为2020-04-2220:30:00","powerOffId":"2020041031020560"},{"poweroffId":2020041031020553,"sgpoweroffId":null,"subsName":"","lineName":"10kV红火D673线","pubTranName":"浙江交工集团股份有限公司富阳分公司1号基建变,","scope":"浙江省-杭州市-富阳区-春江街道-浙江交工集团股份有限公司富阳分公司一带","startTime":"2020-04-22 04:40:00","stopDate":"2020-04-22 20:30:00","orgNo":"3340170","typeCode":"计划停电","poweroffArea":"110kV临江变:红火D673线-交工基建变分线开关后段","poweroffReason":"配合用户内部检修原停电结束时间为2020-04-2217:30:00,因工作复杂原因,延迟送电,现变更停电结束时间为2020-04-2220:30:00","powerTime":"2020-04-22 20:15:55","powerComm":"已送电","subsNo":"","lineNo":"","tgNo":"","tgName":null,"infoStatus":"1","orgName":"国网浙江杭州市富阳区供电公司","typeName":null,"infoStatusName":null,"dateDay":null,"orgNos":null,"nowTime":null,"countyName":null,"streetName":null,"villageName":null,"roadName":null,"communityName":null,"tranName":null,"sdLineName":null,"cityCode":"3340170","cityName":"国网浙江杭州市富阳区供电公司","provinceCode":null,"stopTime":"2020-04-22 20:30:00","powerType":"全部","powerOffArea":"110kV临江变:红火D673线-交工基建变分线开关后段","powerOffReason":"配合用户内部检修原停电结束时间为2020-04-2217:30:00,因工作复杂原因,延迟送电,现变更停电结束时间为2020-04-2220:30:00","powerOffId":"2020041031020553"},{"poweroffId":2020041031020546,"sgpoweroffId":null,"subsName":"","lineName":"10kV毛家R142线","pubTranName":"毛家村毛家配变,","scope":"浙江省-杭州市-淳安县-汾口镇-毛家行政村-后山自然村","startTime":"2020-04-22 13:00:00","stopDate":"2020-04-22 17:00:00","orgNo":"3340190","typeCode":"计划停电","poweroffArea":"110kV汾口变:毛家R142线-毛家配变跌落式熔断器","poweroffReason":"毛家R142线毛家配变过载增容","powerTime":"2020-04-22 16:29:45","powerComm":"已送电","subsNo":"","lineNo":"","tgNo":"","tgName":null,"infoStatus":"1","orgName":"国网浙江淳安县供电有限公司","typeName":null,"infoStatusName":null,"dateDay":null,"orgNos":null,"nowTime":null,"countyName":null,"streetName":null,"villageName":null,"roadName":null,"communityName":null,"tranName":null,"sdLineName":null,"cityCode":"3340190","cityName":"国网浙江淳安县供电有限公司","provinceCode":null,"stopTime":"2020-04-22 17:00:00","powerType":"全部","powerOffArea":"110kV汾口变:毛家R142线-毛家配变跌落式熔断器","powerOffReason":"毛家R142线毛家配变过载增容","powerOffId":"2020041031020546"},{"poweroffId":2020041031020545,"sgpoweroffId":null,"subsName":"","lineName":"10kV瑶山R183线","pubTranName":"临岐张家村毛家公变,","scope":"浙江省-杭州市-淳安县-瑶山乡-张家行政村(张家自然村,朱坑坞自然村)","startTime":"2020-04-22 08:50:00","stopDate":"2020-04-22 13:00:00","orgNo":"3340190","typeCode":"计划停电","poweroffArea":"35kV临岐变:瑶山R183线-临岐张家村毛家公变","poweroffReason":"10kV瑶山R183线106号杆带电断毛家支线引线(支线后段使用发电车保供电","powerTime":"2020-04-22 12:30:13","powerComm":"已送电","subsNo":"","lineNo":"","tgNo":"","tgName":null,"infoStatus":"1","orgName":"国网浙江淳安县供电有限公司","typeName":null,"infoStatusName":null,"dateDay":null,"orgNos":null,"nowTime":null,"countyName":null,"streetName":null,"villageName":null,"roadName":null,"communityName":null,"tranName":null,"sdLineName":null,"cityCode":"3340190","cityName":"国网浙江淳安县供电有限公司","provinceCode":null,"stopTime":"2020-04-22 13:00:00","powerType":"全部","powerOffArea":"35kV临岐变:瑶山R183线-临岐张家村毛家公变","powerOffReason":"10kV瑶山R183线106号杆带电断毛家支线引线(支线后段使用发电车保供电","powerOffId":"2020041031020545"},{"poweroffId":2020041031020544,"sgpoweroffId":null,"subsName":"","lineName":"10kV毛家R142线","pubTranName":"桃林畈村枧头配变,","scope":"浙江省-杭州市-淳安县-汾口镇-桃林畈行政村-枧头自然村","startTime":"2020-04-22 08:00:00","stopDate":"2020-04-22 12:00:00","orgNo":"3340190","typeCode":"计划停电","poweroffArea":"110kV汾口变:毛家R142线-枧头配变跌落式熔断器后段","poweroffReason":"毛家R142线枧头配变过载增容","powerTime":"2020-04-22 11:30:13","powerComm":"已送电","subsNo":"","lineNo":"","tgNo":"","tgName":null,"infoStatus":"1","orgName":"国网浙江淳安县供电有限公司","typeName":null,"infoStatusName":null,"dateDay":null,"orgNos":null,"nowTime":null,"countyName":null,"streetName":null,"villageName":null,"roadName":null,"communityName":null,"tranName":null,"sdLineName":null,"cityCode":"3340190","cityName":"国网浙江淳安县供电有限公司","provinceCode":null,"stopTime":"2020-04-22 12:00:00","powerType":"全部","powerOffArea":"110kV汾口变:毛家R142线-枧头配变跌落式熔断器后段","powerOffReason":"毛家R142线枧头配变过载增容","powerOffId":"2020041031020544"},{"poweroffId":2020041031020532,"sgpoweroffId":null,"subsName":"","lineName":"10kV里桐R153线","pubTranName":"黄村村崇向畈公变,","scope":"浙江省-杭州市-淳安县-梓桐镇-黄村行政村(黄村,下黄村自然村)","startTime":"2020-04-20 12:00:00","stopDate":"2020-04-20 12:30:00","orgNo":"3340190","typeCode":"计划停电","poweroffArea":"35kV梓桐变:里桐R153线-黄村村崇向畈公变跌落式熔断器后段","poweroffReason":"里桐R153线崇向畈支线0号杆更换智能开关，崇向畈配变发电车配合临时停电","powerTime":"2020-04-20 12:13:09","powerComm":"已送电","subsNo":"","lineNo":"","tgNo":"","tgName":null,"infoStatus":"1","orgName":"国网浙江淳安县供电有限公司","typeName":null,"infoStatusName":null,"dateDay":null,"orgNos":null,"nowTime":null,"countyName":null,"streetName":null,"villageName":null,"roadName":null,"communityName":null,"tranName":null,"sdLineName":null,"cityCode":"3340190","cityName":"国网浙江淳安县供电有限公司","provinceCode":null,"stopTime":"2020-04-20 12:30:00","powerType":"全部","powerOffArea":"35kV梓桐变:里桐R153线-黄村村崇向畈公变跌落式熔断器后段","powerOffReason":"里桐R153线崇向畈支线0号杆更换智能开关，崇向畈配变发电车配合临时停电","powerOffId":"2020041031020532"},{"poweroffId":2020041031020531,"sgpoweroffId":null,"subsName":"","lineName":"10kV里桐R153线","pubTranName":"黄村村崇向畈公变,","scope":"浙江省-杭州市-淳安县-梓桐镇-黄村行政村(黄村,下黄村自然村)","startTime":"2020-04-20 08:00:00","stopDate":"2020-04-20 08:30:00","orgNo":"3340190","typeCode":"计划停电","poweroffArea":"35kV梓桐变:里桐R153线-黄村村崇向畈公变跌落式熔断器后段","poweroffReason":"里桐R153线崇向畈支线0号杆更换智能开关，崇向畈配变发电车配合临时停电","powerTime":"2020-04-20 08:16:30","powerComm":"已送电","subsNo":"","lineNo":"","tgNo":"","tgName":null,"infoStatus":"1","orgName":"国网浙江淳安县供电有限公司","typeName":null,"infoStatusName":null,"dateDay":null,"orgNos":null,"nowTime":null,"countyName":null,"streetName":null,"villageName":null,"roadName":null,"communityName":null,"tranName":null,"sdLineName":null,"cityCode":"3340190","cityName":"国网浙江淳安县供电有限公司","provinceCode":null,"stopTime":"2020-04-20 08:30:00","powerType":"全部","powerOffArea":"35kV梓桐变:里桐R153线-黄村村崇向畈公变跌落式熔断器后段","powerOffReason":"里桐R153线崇向畈支线0号杆更换智能开关，崇向畈配变发电车配合临时停电","powerOffId":"2020041031020531"},{"poweroffId":2020041031020530,"sgpoweroffId":null,"subsName":"","lineName":"10kV卸岭R196线","pubTranName":"丰茂村尖坞配变,丰茂村尖坞口配变,","scope":"浙江省-杭州市-淳安县-文昌镇-丰茂行政村(尖坞自然村,丰茂自然村,丰茂村,算坑自然村)","startTime":"2020-04-21 08:50:00","stopDate":"2020-04-21 13:00:00","orgNo":"3340190","typeCode":"计划停电","poweroffArea":"35kV潭头变:卸岭R196线首端，丰茂村尖坞配变，丰茂村尖坞口配变之间","poweroffReason":"10kV卸岭R196线丰茂支线54号杆带电断尖坞支线引线(支线后段使用发电车保供电)","powerTime":"2020-04-21 12:35:28","powerComm":"已送电","subsNo":"","lineNo":"","tgNo":"","tgName":null,"infoStatus":"1","orgName":"国网浙江淳安县供电有限公司","typeName":null,"infoStatusName":null,"dateDay":null,"orgNos":null,"nowTime":null,"countyName":null,"streetName":null,"villageName":null,"roadName":null,"communityName":null,"tranName":null,"sdLineName":null,"cityCode":"3340190","cityName":"国网浙江淳安县供电有限公司","provinceCode":null,"stopTime":"2020-04-21 13:00:00","powerType":"全部","powerOffArea":"35kV潭头变:卸岭R196线首端，丰茂村尖坞配变，丰茂村尖坞口配变之间","powerOffReason":"10kV卸岭R196线丰茂支线54号杆带电断尖坞支线引线(支线后段使用发电车保供电)","powerOffId":"2020041031020530"},{"poweroffId":2020041031020507,"sgpoweroffId":null,"subsName":"","lineName":"10kV龙江D730线","pubTranName":"陆家村8#水库公变,","scope":"浙江省-杭州市-富阳区-鹿山街道-陆家行政村(财神弄,陆家自然村)","startTime":"2020-04-26 16:35:00","stopDate":"2020-04-26 23:59:00","orgNo":"3340170","typeCode":"计划停电","poweroffArea":"110kV陆家变:龙江D730线-陆家村8#水库公变后段","poweroffReason":"陆家村8#水库公变变压器出线电缆恢复 原停电结束时间为2020-04-26 17:15:00,因工作复杂原因,延迟送电,现变更停电结束时间为2020-04-26 23:59:00","powerTime":"2020-04-26 23:09:10","powerComm":"已送电","subsNo":"","lineNo":"","tgNo":"","tgName":null,"infoStatus":"1","orgName":"国网浙江杭州市富阳区供电公司","typeName":null,"infoStatusName":null,"dateDay":null,"orgNos":null,"nowTime":null,"countyName":null,"streetName":null,"villageName":null,"roadName":null,"communityName":null,"tranName":null,"sdLineName":null,"cityCode":"3340170","cityName":"国网浙江杭州市富阳区供电公司","provinceCode":null,"stopTime":"2020-04-26 23:59:00","powerType":"全部","powerOffArea":"110kV陆家变:龙江D730线-陆家村8#水库公变后段","powerOffReason":"陆家村8#水库公变变压器出线电缆恢复 原停电结束时间为2020-04-26 17:15:00,因工作复杂原因,延迟送电,现变更停电结束时间为2020-04-26 23:59:00","powerOffId":"2020041031020507"},{"poweroffId":2020041031020504,"sgpoweroffId":null,"subsName":"","lineName":"10kV三溪D337线","pubTranName":"三溪村11#郎家坞公变,","scope":"浙江省-杭州市-富阳区-洞桥镇-三溪行政村-郎家坞自然村一带","startTime":"2020-04-20 08:30:00","stopDate":"2020-04-20 16:30:00","orgNo":"3340170","typeCode":"计划停电","poweroffArea":"110kV万市变:三溪D337线152#杆郎家坞分线","poweroffReason":"新登2020年万市村2#野坞里公变等配变增容布点工程:三溪村郎家坞新布点架线、搭头、郎家坞分线后段拆除等工作","powerTime":"2020-04-20 16:16:38","powerComm":"已送电","subsNo":"","lineNo":"","tgNo":"","tgName":null,"infoStatus":"1","orgName":"国网浙江杭州市富阳区供电公司","typeName":null,"infoStatusName":null,"dateDay":null,"orgNos":null,"nowTime":null,"countyName":null,"streetName":null,"villageName":null,"roadName":null,"communityName":null,"tranName":null,"sdLineName":null,"cityCode":"3340170","cityName":"国网浙江杭州市富阳区供电公司","provinceCode":null,"stopTime":"2020-04-20 16:30:00","powerType":"全部","powerOffArea":"110kV万市变:三溪D337线152#杆郎家坞分线","powerOffReason":"新登2020年万市村2#野坞里公变等配变增容布点工程:三溪村郎家坞新布点架线、搭头、郎家坞分线后段拆除等工作","powerOffId":"2020041031020504"}],"pageModel":{"pageNow":360,"totalCount":17788,"totalPage":1779,"tableRows":0,"pageCount":10,"beginCount":3590},"isExperi":"1"}