{"message":"","today":"2020-06-15","seleList":[{"poweroffId":2020041031020454,"sgpoweroffId":null,"subsName":"","lineName":"10kV方家D201线","pubTranName":"杭州市富阳区人民政府富春街道办事处1#变,","scope":"浙江省-杭州市-富阳区-富春街道-方家井行政村-杭州市富阳区人民政府富春街道办事处","startTime":"2020-04-23 08:45:00","stopDate":"2020-04-23 16:00:00","orgNo":"3340170","typeCode":"计划停电","poweroffArea":"35kV大青变:方家D201线-方家井分线开关后段","poweroffReason":"大青幼儿园方家井分园配变工程：拆315kV变压器一台，电缆敷设、制作、试验、搭接，新上变压器配电屏安装等工作","powerTime":"2020-04-23 15:50:34","powerComm":"已送电","subsNo":"","lineNo":"","tgNo":"","tgName":null,"infoStatus":"1","orgName":"国网浙江杭州市富阳区供电公司","typeName":null,"infoStatusName":null,"dateDay":null,"orgNos":null,"nowTime":null,"countyName":null,"streetName":null,"villageName":null,"roadName":null,"communityName":null,"tranName":null,"sdLineName":null,"cityCode":"3340170","cityName":"国网浙江杭州市富阳区供电公司","provinceCode":null,"stopTime":"2020-04-23 16:00:00","powerType":"全部","powerOffArea":"35kV大青变:方家D201线-方家井分线开关后段","powerOffReason":"大青幼儿园方家井分园配变工程：拆315kV变压器一台，电缆敷设、制作、试验、搭接，新上变压器配电屏安装等工作","powerOffId":"2020041031020454"},{"poweroffId":2020041031020449,"sgpoweroffId":null,"subsName":"","lineName":"10kV新桐D411线","pubTranName":"富阳市民政局,","scope":"浙江省-杭州市-富阳区-鹿山街道-汤家埠行政村-富阳区民政局","startTime":"2020-04-22 08:45:00","stopDate":"2020-04-22 16:00:00","orgNo":"3340170","typeCode":"计划停电","poweroffArea":"110kV长春变:新桐D411线-富阳市民政局后段","poweroffReason":"青云2019年10千伏状元D417线电站分线等线路改造工程：10kV新桐D411线65#杆宏大分线线路改造，其中新立电杆6基，架线9档，安装真空开关1台，线路改接等工作","powerTime":"2020-04-22 15:44:45","powerComm":"已送电","subsNo":"","lineNo":"","tgNo":"","tgName":null,"infoStatus":"1","orgName":"国网浙江杭州市富阳区供电公司","typeName":null,"infoStatusName":null,"dateDay":null,"orgNos":null,"nowTime":null,"countyName":null,"streetName":null,"villageName":null,"roadName":null,"communityName":null,"tranName":null,"sdLineName":null,"cityCode":"3340170","cityName":"国网浙江杭州市富阳区供电公司","provinceCode":null,"stopTime":"2020-04-22 16:00:00","powerType":"全部","powerOffArea":"110kV长春变:新桐D411线-富阳市民政局后段","powerOffReason":"青云2019年10千伏状元D417线电站分线等线路改造工程：10kV新桐D411线65#杆宏大分线线路改造，其中新立电杆6基，架线9档，安装真空开关1台，线路改接等工作","powerOffId":"2020041031020449"},{"poweroffId":2020041031020447,"sgpoweroffId":null,"subsName":"","lineName":"10kV彩虹D550线","pubTranName":"戴家墩1#公变,","scope":"浙江省-杭州市-富阳区-富春街道-后亭子社区(孙权路三弄,孙权路)","startTime":"2020-04-22 08:45:00","stopDate":"2020-04-22 15:15:00","orgNo":"3340170","typeCode":"计划停电","poweroffArea":"110kV春江变:彩虹D550线-戴家墩1#公变后段","poweroffReason":"青云2019年南园路1#公变等10kV配变增容布点工程：0.4kV戴家墩2#公变01线线路改接至400柱上变等工作","powerTime":"2020-04-22 14:59:38","powerComm":"已送电","subsNo":"","lineNo":"","tgNo":"","tgName":null,"infoStatus":"1","orgName":"国网浙江杭州市富阳区供电公司","typeName":null,"infoStatusName":null,"dateDay":null,"orgNos":null,"nowTime":null,"countyName":null,"streetName":null,"villageName":null,"roadName":null,"communityName":null,"tranName":null,"sdLineName":null,"cityCode":"3340170","cityName":"国网浙江杭州市富阳区供电公司","provinceCode":null,"stopTime":"2020-04-22 15:15:00","powerType":"全部","powerOffArea":"110kV春江变:彩虹D550线-戴家墩1#公变后段","powerOffReason":"青云2019年南园路1#公变等10kV配变增容布点工程：0.4kV戴家墩2#公变01线线路改接至400柱上变等工作","powerOffId":"2020041031020447"},{"poweroffId":2020041031020446,"sgpoweroffId":null,"subsName":"","lineName":"10kV龙江D730线","pubTranName":"陆家村7#陆坞公变,","scope":"浙江省-杭州市-富阳区-鹿山街道-陆家行政村(财神弄,陆家自然村)","startTime":"2020-04-26 08:45:00","stopDate":"2020-04-26 23:59:00","orgNo":"3340170","typeCode":"计划停电","poweroffArea":"110kV陆家变:龙江D730线-陆家村7#陆坞公变后段","poweroffReason":"富阳320国道至富阳大桥连接线鹿山（大盘山）隧道电力迁改工程：陆家村7#陆坞公变移位工作 原停电结束时间为2020-04-26 16:30:00,因工作复杂原因,延迟送电,现变更停电结束时间为2020-04-26 23:59:00","powerTime":"2020-04-26 23:09:33","powerComm":"已送电","subsNo":"","lineNo":"","tgNo":"","tgName":null,"infoStatus":"1","orgName":"国网浙江杭州市富阳区供电公司","typeName":null,"infoStatusName":null,"dateDay":null,"orgNos":null,"nowTime":null,"countyName":null,"streetName":null,"villageName":null,"roadName":null,"communityName":null,"tranName":null,"sdLineName":null,"cityCode":"3340170","cityName":"国网浙江杭州市富阳区供电公司","provinceCode":null,"stopTime":"2020-04-26 23:59:00","powerType":"全部","powerOffArea":"110kV陆家变:龙江D730线-陆家村7#陆坞公变后段","powerOffReason":"富阳320国道至富阳大桥连接线鹿山（大盘山）隧道电力迁改工程：陆家村7#陆坞公变移位工作 原停电结束时间为2020-04-26 16:30:00,因工作复杂原因,延迟送电,现变更停电结束时间为2020-04-26 23:59:00","powerOffId":"2020041031020446"},{"poweroffId":2020041031020445,"sgpoweroffId":null,"subsName":"","lineName":"10kV陆鸣D705线","pubTranName":"三山陆家村,","scope":"浙江省-杭州市-富阳区-鹿山街道-陆家行政村-杭州市富阳区鹿山街道陆家村股份经济合作社","startTime":"2020-04-26 07:45:00","stopDate":"2020-04-26 23:59:00","orgNo":"3340170","typeCode":"计划停电","poweroffArea":"110kV陆家变:陆鸣D705线-三山陆家村后段","poweroffReason":"富阳320国道至富阳大桥连接线鹿山（大盘山）隧道电力迁改工程：客户内部检修配合停电 原停电结束时间为2020-04-26 16:30:00,因工作复杂原因,延迟送电,现变更停电结束时间为2020-04-26 23:59:00","powerTime":"2020-04-26 23:09:20","powerComm":"已送电","subsNo":"","lineNo":"","tgNo":"","tgName":null,"infoStatus":"1","orgName":"国网浙江杭州市富阳区供电公司","typeName":null,"infoStatusName":null,"dateDay":null,"orgNos":null,"nowTime":null,"countyName":null,"streetName":null,"villageName":null,"roadName":null,"communityName":null,"tranName":null,"sdLineName":null,"cityCode":"3340170","cityName":"国网浙江杭州市富阳区供电公司","provinceCode":null,"stopTime":"2020-04-26 23:59:00","powerType":"全部","powerOffArea":"110kV陆家变:陆鸣D705线-三山陆家村后段","powerOffReason":"富阳320国道至富阳大桥连接线鹿山（大盘山）隧道电力迁改工程：客户内部检修配合停电 原停电结束时间为2020-04-26 16:30:00,因工作复杂原因,延迟送电,现变更停电结束时间为2020-04-26 23:59:00","powerOffId":"2020041031020445"},{"poweroffId":2020041031020442,"sgpoweroffId":null,"subsName":"","lineName":"10kV陆鸣D705线","pubTranName":"杭州雄鹰水上运动器材有限公司,","scope":"浙江省-杭州市-富阳区-富春街道-鹿山社区-杭州飞鹰船艇有限公司","startTime":"2020-04-26 07:25:00","stopDate":"2020-04-26 23:59:00","orgNo":"3340170","typeCode":"计划停电","poweroffArea":"110kV陆家变:陆鸣D705线-杭州雄鹰水上运动器材有限公司后段","poweroffReason":"客户内部检修配合停电 原停电结束时间为2020-04-26 16:30:00,因工作复杂原因,延迟送电,现变更停电结束时间为2020-04-26 23:59:00","powerTime":"2020-04-26 23:09:00","powerComm":"已送电","subsNo":"","lineNo":"","tgNo":"","tgName":null,"infoStatus":"1","orgName":"国网浙江杭州市富阳区供电公司","typeName":null,"infoStatusName":null,"dateDay":null,"orgNos":null,"nowTime":null,"countyName":null,"streetName":null,"villageName":null,"roadName":null,"communityName":null,"tranName":null,"sdLineName":null,"cityCode":"3340170","cityName":"国网浙江杭州市富阳区供电公司","provinceCode":null,"stopTime":"2020-04-26 23:59:00","powerType":"全部","powerOffArea":"110kV陆家变:陆鸣D705线-杭州雄鹰水上运动器材有限公司后段","powerOffReason":"客户内部检修配合停电 原停电结束时间为2020-04-26 16:30:00,因工作复杂原因,延迟送电,现变更停电结束时间为2020-04-26 23:59:00","powerOffId":"2020041031020442"},{"poweroffId":2020041031020435,"sgpoweroffId":null,"subsName":"","lineName":"10kV陆鸣D705线","pubTranName":"陆家村2号桥头公变,","scope":"浙江省-杭州市-富阳区-鹿山街道-陆家行政村(财神弄,中心中路,陆家自然村)","startTime":"2020-04-26 10:20:00","stopDate":"2020-04-26 23:59:00","orgNo":"3340170","typeCode":"计划停电","poweroffArea":"110kV陆家变:陆鸣D705线-陆家村2#桥头跌落式熔断器后段","poweroffReason":"富阳320国道至富阳大桥连接线鹿山（大盘山）隧道电力迁改工程：电缆敷设、制作、试验，安装箱变一台，线路改接等工作 原停电结束时间为2020-04-26 16:30:00,因工作复杂原因,延迟送电,现变更停电结束时间为2020-04-26 23:59:00","powerTime":"2020-04-26 23:06:31","powerComm":"已送电","subsNo":"","lineNo":"","tgNo":"","tgName":null,"infoStatus":"1","orgName":"国网浙江杭州市富阳区供电公司","typeName":null,"infoStatusName":null,"dateDay":null,"orgNos":null,"nowTime":null,"countyName":null,"streetName":null,"villageName":null,"roadName":null,"communityName":null,"tranName":null,"sdLineName":null,"cityCode":"3340170","cityName":"国网浙江杭州市富阳区供电公司","provinceCode":null,"stopTime":"2020-04-26 23:59:00","powerType":"全部","powerOffArea":"110kV陆家变:陆鸣D705线-陆家村2#桥头跌落式熔断器后段","powerOffReason":"富阳320国道至富阳大桥连接线鹿山（大盘山）隧道电力迁改工程：电缆敷设、制作、试验，安装箱变一台，线路改接等工作 原停电结束时间为2020-04-26 16:30:00,因工作复杂原因,延迟送电,现变更停电结束时间为2020-04-26 23:59:00","powerOffId":"2020041031020435"},{"poweroffId":2020041031020433,"sgpoweroffId":null,"subsName":"","lineName":"10kV新春D938线","pubTranName":"下高村9号公变,","scope":"浙江省-杭州市-富阳区-春建乡-春建行政村(上高自然村,下高自然村)","startTime":"2020-04-21 08:45:00","stopDate":"2020-04-21 16:00:00","orgNo":"3340170","typeCode":"计划停电","poweroffArea":"110kV育才变:新春D938线-下高村9#公变后段","poweroffReason":"青云2020年10kV农林村9#茶叶市场公变等配变增容布点工程：下高九分线3#杆后段及下高村9#公变拆除等工作，0.4kV下高村9#公变、0.kV春建村下高4#公变、0.4kV下高村2#下高公变线路改接等工作","powerTime":"2020-04-21 15:52:43","powerComm":"已送电","subsNo":"","lineNo":"","tgNo":"","tgName":null,"infoStatus":"1","orgName":"国网浙江杭州市富阳区供电公司","typeName":null,"infoStatusName":null,"dateDay":null,"orgNos":null,"nowTime":null,"countyName":null,"streetName":null,"villageName":null,"roadName":null,"communityName":null,"tranName":null,"sdLineName":null,"cityCode":"3340170","cityName":"国网浙江杭州市富阳区供电公司","provinceCode":null,"stopTime":"2020-04-21 16:00:00","powerType":"全部","powerOffArea":"110kV育才变:新春D938线-下高村9#公变后段","powerOffReason":"青云2020年10kV农林村9#茶叶市场公变等配变增容布点工程：下高九分线3#杆后段及下高村9#公变拆除等工作，0.4kV下高村9#公变、0.kV春建村下高4#公变、0.4kV下高村2#下高公变线路改接等工作","powerOffId":"2020041031020433"},{"poweroffId":2020041031020424,"sgpoweroffId":null,"subsName":"","lineName":"10kV龙江D730线","pubTranName":"陆家村6号礼堂公变,陆家村1#下村公变,陆家村10号小山公变,","scope":"浙江省-杭州市-富阳区-鹿山街道-陆家行政村(隐坞弄,陆家自然村,园仓路,杨家弄,阳光路,中心中路,小山路,中心东路)","startTime":"2020-04-26 08:45:00","stopDate":"2020-04-26 11:15:00","orgNo":"3340170","typeCode":"计划停电","poweroffArea":"110kV陆家变:龙江D730线首端，陆家村6号礼堂公变，陆家村1#下村公变，陆家村10号小山公变之间","poweroffReason":"10kV龙江D730线依江二号开关站5#间隔陆家村分线6#杆改终端杆等工作 原停电结束时间为2020-04-26 10:15:00,因工作复杂原因,延迟送电,现变更停电结束时间为2020-04-26 11:15:00","powerTime":"2020-04-26 11:01:58","powerComm":"已送电","subsNo":"","lineNo":"","tgNo":"","tgName":null,"infoStatus":"1","orgName":"国网浙江杭州市富阳区供电公司","typeName":null,"infoStatusName":null,"dateDay":null,"orgNos":null,"nowTime":null,"countyName":null,"streetName":null,"villageName":null,"roadName":null,"communityName":null,"tranName":null,"sdLineName":null,"cityCode":"3340170","cityName":"国网浙江杭州市富阳区供电公司","provinceCode":null,"stopTime":"2020-04-26 11:15:00","powerType":"全部","powerOffArea":"110kV陆家变:龙江D730线首端，陆家村6号礼堂公变，陆家村1#下村公变，陆家村10号小山公变之间","powerOffReason":"10kV龙江D730线依江二号开关站5#间隔陆家村分线6#杆改终端杆等工作 原停电结束时间为2020-04-26 10:15:00,因工作复杂原因,延迟送电,现变更停电结束时间为2020-04-26 11:15:00","powerOffId":"2020041031020424"},{"poweroffId":2020041031020418,"sgpoweroffId":null,"subsName":"","lineName":"10kV龙江D730线","pubTranName":"陆家村8#水库公变,","scope":"浙江省-杭州市-富阳区-鹿山街道-陆家行政村(陆家自然村,财神弄)","startTime":"2020-04-26 08:00:00","stopDate":"2020-04-26 08:40:00","orgNo":"3340170","typeCode":"计划停电","poweroffArea":"110kV陆家变:龙江D730线-陆家村8#水库公变后段","poweroffReason":"陆家村8#水库公变变压器出线电缆改接至0.4kV发电机T接箱原停电时间为2020-04-21,因政策原因,现变更停电时间为2020-04-26","powerTime":"2020-04-26 08:24:39","powerComm":"已送电","subsNo":"","lineNo":"","tgNo":"","tgName":null,"infoStatus":"1","orgName":"国网浙江杭州市富阳区供电公司","typeName":null,"infoStatusName":null,"dateDay":null,"orgNos":null,"nowTime":null,"countyName":null,"streetName":null,"villageName":null,"roadName":null,"communityName":null,"tranName":null,"sdLineName":null,"cityCode":"3340170","cityName":"国网浙江杭州市富阳区供电公司","provinceCode":null,"stopTime":"2020-04-26 08:40:00","powerType":"全部","powerOffArea":"110kV陆家变:龙江D730线-陆家村8#水库公变后段","powerOffReason":"陆家村8#水库公变变压器出线电缆改接至0.4kV发电机T接箱原停电时间为2020-04-21,因政策原因,现变更停电时间为2020-04-26","powerOffId":"2020041031020418"}],"pageModel":{"pageNow":362,"totalCount":17788,"totalPage":1779,"tableRows":0,"pageCount":10,"beginCount":3610},"isExperi":"1"}