{"message":"","today":"2020-06-15","seleList":[{"poweroffId":2020041031020412,"sgpoweroffId":null,"subsName":"","lineName":"10kV园北D945线","pubTranName":"富阳三方特种阀门有限公司,","scope":"浙江省-杭州市-富阳区-富春街道-金桥工业园区-浙江三方控制阀股份有限公司","startTime":"2020-04-20 08:25:00","stopDate":"2020-04-20 18:00:00","orgNo":"3340170","typeCode":"计划停电","poweroffArea":"110kV育才变:园北D945线-富阳三方特种阀门有限公司后段","poweroffReason":"杭州富阳阳陂湖生态修复治理工程一期-10kVA高压电力迁改工程：客户内部检修配合停电原停电结束时间为2020-04-2016:00:00,因政策原因,延迟送电,现变更停电结束时间为2020-04-2018:00:00","powerTime":"2020-04-20 17:59:48","powerComm":"已送电","subsNo":"","lineNo":"","tgNo":"","tgName":null,"infoStatus":"1","orgName":"国网浙江杭州市富阳区供电公司","typeName":null,"infoStatusName":null,"dateDay":null,"orgNos":null,"nowTime":null,"countyName":null,"streetName":null,"villageName":null,"roadName":null,"communityName":null,"tranName":null,"sdLineName":null,"cityCode":"3340170","cityName":"国网浙江杭州市富阳区供电公司","provinceCode":null,"stopTime":"2020-04-20 18:00:00","powerType":"全部","powerOffArea":"110kV育才变:园北D945线-富阳三方特种阀门有限公司后段","powerOffReason":"杭州富阳阳陂湖生态修复治理工程一期-10kVA高压电力迁改工程：客户内部检修配合停电原停电结束时间为2020-04-2016:00:00,因政策原因,延迟送电,现变更停电结束时间为2020-04-2018:00:00","powerOffId":"2020041031020412"},{"poweroffId":2020041031020409,"sgpoweroffId":null,"subsName":"","lineName":"10kV园北D945线","pubTranName":"富阳永兴热处理厂,","scope":"浙江省-杭州市-富阳区-富春街道-金桥工业园区-杭州富阳永兴热处理厂","startTime":"2020-04-20 08:05:00","stopDate":"2020-04-20 18:00:00","orgNo":"3340170","typeCode":"计划停电","poweroffArea":"110kV育才变:园北D945线-富阳永兴热处理厂后段","poweroffReason":"客户迁改配合停电原停电结束时间为2020-04-2016:00:00,因政策原因,延迟送电,现变更停电结束时间为2020-04-2018:00:00","powerTime":"2020-04-20 17:59:39","powerComm":"已送电","subsNo":"","lineNo":"","tgNo":"","tgName":null,"infoStatus":"1","orgName":"国网浙江杭州市富阳区供电公司","typeName":null,"infoStatusName":null,"dateDay":null,"orgNos":null,"nowTime":null,"countyName":null,"streetName":null,"villageName":null,"roadName":null,"communityName":null,"tranName":null,"sdLineName":null,"cityCode":"3340170","cityName":"国网浙江杭州市富阳区供电公司","provinceCode":null,"stopTime":"2020-04-20 18:00:00","powerType":"全部","powerOffArea":"110kV育才变:园北D945线-富阳永兴热处理厂后段","powerOffReason":"客户迁改配合停电原停电结束时间为2020-04-2016:00:00,因政策原因,延迟送电,现变更停电结束时间为2020-04-2018:00:00","powerOffId":"2020041031020409"},{"poweroffId":2020041031020408,"sgpoweroffId":null,"subsName":"","lineName":"10kV园北D945线","pubTranName":"杭州富阳盛拓渣土处置有限公司1#,","scope":"浙江省-杭州市-富阳区-富春街道-三桥行政村-杭州富阳盛拓渣土处置有限公司","startTime":"2020-04-20 08:45:00","stopDate":"2020-04-20 18:00:00","orgNo":"3340170","typeCode":"计划停电","poweroffArea":"110kV育才变:园北D945线-杭州富阳盛拓渣土处置有限公司后段","poweroffReason":"杭州富阳阳陂湖生态修复治理工程一期-10kVA高压电力迁改工程：10kV园北D945线园北三号开关站2#间隔园凤D9453线2#杆环西分线水稻所配变改接，工作原停电结束时间为16:00:00,因政策原因,延迟送电,现变更停电结束时间为18:00:00","powerTime":"2020-04-20 17:59:29","powerComm":"已送电","subsNo":"","lineNo":"","tgNo":"","tgName":null,"infoStatus":"1","orgName":"国网浙江杭州市富阳区供电公司","typeName":null,"infoStatusName":null,"dateDay":null,"orgNos":null,"nowTime":null,"countyName":null,"streetName":null,"villageName":null,"roadName":null,"communityName":null,"tranName":null,"sdLineName":null,"cityCode":"3340170","cityName":"国网浙江杭州市富阳区供电公司","provinceCode":null,"stopTime":"2020-04-20 18:00:00","powerType":"全部","powerOffArea":"110kV育才变:园北D945线-杭州富阳盛拓渣土处置有限公司后段","powerOffReason":"杭州富阳阳陂湖生态修复治理工程一期-10kVA高压电力迁改工程：10kV园北D945线园北三号开关站2#间隔园凤D9453线2#杆环西分线水稻所配变改接，工作原停电结束时间为16:00:00,因政策原因,延迟送电,现变更停电结束时间为18:00:00","powerOffId":"2020041031020408"},{"poweroffId":2020041031020403,"sgpoweroffId":null,"subsName":"","lineName":"10kV园北D945线","pubTranName":"杭州富阳金明塑钢有限公司1#变,","scope":"浙江省-杭州市-富阳区-富春街道-金桥工业园区-杭州富阳金明塑钢有限公司","startTime":"2020-04-20 07:25:00","stopDate":"2020-04-20 18:00:00","orgNo":"3340170","typeCode":"计划停电","poweroffArea":"110kV育才变:园北D945线-富阳市金明塑钢有限公司后段","poweroffReason":"客户迁改配合停电原停电结束时间为2020-04-2016:00:00,因政策原因,延迟送电,现变更停电结束时间为2020-04-2018:00:00","powerTime":"2020-04-20 17:59:19","powerComm":"已送电","subsNo":"","lineNo":"","tgNo":"","tgName":null,"infoStatus":"1","orgName":"国网浙江杭州市富阳区供电公司","typeName":null,"infoStatusName":null,"dateDay":null,"orgNos":null,"nowTime":null,"countyName":null,"streetName":null,"villageName":null,"roadName":null,"communityName":null,"tranName":null,"sdLineName":null,"cityCode":"3340170","cityName":"国网浙江杭州市富阳区供电公司","provinceCode":null,"stopTime":"2020-04-20 18:00:00","powerType":"全部","powerOffArea":"110kV育才变:园北D945线-富阳市金明塑钢有限公司后段","powerOffReason":"客户迁改配合停电原停电结束时间为2020-04-2016:00:00,因政策原因,延迟送电,现变更停电结束时间为2020-04-2018:00:00","powerOffId":"2020041031020403"},{"poweroffId":2020041031020398,"sgpoweroffId":null,"subsName":"","lineName":"10kV园北D945线","pubTranName":"浙江诸超涂料有限公司,","scope":"浙江省-杭州市-富阳区-富春街道-金桥工业园区-浙江诸超涂料有限公司","startTime":"2020-04-20 07:05:00","stopDate":"2020-04-20 18:00:00","orgNo":"3340170","typeCode":"计划停电","poweroffArea":"110kV育才变:园北D945线-浙江诸超涂料有限公司后段","poweroffReason":"客户内部检修配合停电原停电结束时间为2020-04-2016:00:00,因政策原因,延迟送电,现变更停电结束时间为2020-04-2018:00:00","powerTime":"2020-04-20 17:59:10","powerComm":"已送电","subsNo":"","lineNo":"","tgNo":"","tgName":null,"infoStatus":"1","orgName":"国网浙江杭州市富阳区供电公司","typeName":null,"infoStatusName":null,"dateDay":null,"orgNos":null,"nowTime":null,"countyName":null,"streetName":null,"villageName":null,"roadName":null,"communityName":null,"tranName":null,"sdLineName":null,"cityCode":"3340170","cityName":"国网浙江杭州市富阳区供电公司","provinceCode":null,"stopTime":"2020-04-20 18:00:00","powerType":"全部","powerOffArea":"110kV育才变:园北D945线-浙江诸超涂料有限公司后段","powerOffReason":"客户内部检修配合停电原停电结束时间为2020-04-2016:00:00,因政策原因,延迟送电,现变更停电结束时间为2020-04-2018:00:00","powerOffId":"2020041031020398"},{"poweroffId":2020041031020392,"sgpoweroffId":null,"subsName":"","lineName":"10kV园北D945线","pubTranName":"1#,","scope":"浙江省-杭州市-富阳区-富春街道-金桥工业园区-杭州福达仪表有限公司","startTime":"2020-04-20 07:45:00","stopDate":"2020-04-20 18:00:00","orgNo":"3340170","typeCode":"计划停电","poweroffArea":"110kV育才变:园北D945线-杭州福达仪表有限公司后段","poweroffReason":"杭州富阳阳陂湖生态修复治理工程一期-10kVA高压电力迁改工程：客户内部检修配合停电原停电结束时间为2020-04-2016:00:00,因政策原因,延迟送电,现变更停电结束时间为2020-04-2018:00:00","powerTime":"2020-04-20 17:59:00","powerComm":"已送电","subsNo":"","lineNo":"","tgNo":"","tgName":null,"infoStatus":"1","orgName":"国网浙江杭州市富阳区供电公司","typeName":null,"infoStatusName":null,"dateDay":null,"orgNos":null,"nowTime":null,"countyName":null,"streetName":null,"villageName":null,"roadName":null,"communityName":null,"tranName":null,"sdLineName":null,"cityCode":"3340170","cityName":"国网浙江杭州市富阳区供电公司","provinceCode":null,"stopTime":"2020-04-20 18:00:00","powerType":"全部","powerOffArea":"110kV育才变:园北D945线-杭州福达仪表有限公司后段","powerOffReason":"杭州富阳阳陂湖生态修复治理工程一期-10kVA高压电力迁改工程：客户内部检修配合停电原停电结束时间为2020-04-2016:00:00,因政策原因,延迟送电,现变更停电结束时间为2020-04-2018:00:00","powerOffId":"2020041031020392"},{"poweroffId":2020041031020383,"sgpoweroffId":null,"subsName":"","lineName":"10kV上杭T274线","pubTranName":"宸宫花园1号公变,","scope":"浙江省-杭州市-桐庐县-城南街道-上杭社区-滨江路-宸宫花园小区","startTime":"2020-04-10 14:09:59","stopDate":"2020-04-10 15:30:59","orgNo":"3340150","typeCode":"电网故障停限电","poweroffArea":"35kV三合变:上杭T274线-宸宫花园1号公变后段","poweroffReason":"(低压停电信息)低压开关跳闸","powerTime":"2020-04-10 15:20:33","powerComm":"已送电","subsNo":"","lineNo":"","tgNo":"","tgName":null,"infoStatus":"1","orgName":"国网浙江桐庐县供电公司","typeName":null,"infoStatusName":null,"dateDay":null,"orgNos":null,"nowTime":null,"countyName":null,"streetName":null,"villageName":null,"roadName":null,"communityName":null,"tranName":null,"sdLineName":null,"cityCode":"3340150","cityName":"国网浙江桐庐县供电公司","provinceCode":null,"stopTime":"2020-04-10 15:30:59","powerType":"全部","powerOffArea":"35kV三合变:上杭T274线-宸宫花园1号公变后段","powerOffReason":"(低压停电信息)低压开关跳闸","powerOffId":"2020041031020383"},{"poweroffId":2020041031020378,"sgpoweroffId":null,"subsName":"","lineName":"10kV明星D424线","pubTranName":"湖上沙2#后埭公变,","scope":"浙江省-杭州市-富阳区-东洲街道-东洲行政村-湖上沙自然村","startTime":"2020-04-26 09:00:00","stopDate":"2020-04-26 17:00:00","orgNo":"3340170","typeCode":"计划停电","poweroffArea":"110kV东洲变:明星D424线-湖上沙2#后埭公变台区低压开关后段","poweroffReason":"(低压停电信息)迎东2020年华士村1#村中公变等布点工程：低压线路改接等工作","powerTime":"2020-04-26 16:49:16","powerComm":"已送电","subsNo":"","lineNo":"","tgNo":"","tgName":null,"infoStatus":"1","orgName":"国网浙江杭州市富阳区供电公司","typeName":null,"infoStatusName":null,"dateDay":null,"orgNos":null,"nowTime":null,"countyName":null,"streetName":null,"villageName":null,"roadName":null,"communityName":null,"tranName":null,"sdLineName":null,"cityCode":"3340170","cityName":"国网浙江杭州市富阳区供电公司","provinceCode":null,"stopTime":"2020-04-26 17:00:00","powerType":"全部","powerOffArea":"110kV东洲变:明星D424线-湖上沙2#后埭公变台区低压开关后段","powerOffReason":"(低压停电信息)迎东2020年华士村1#村中公变等布点工程：低压线路改接等工作","powerOffId":"2020041031020378"},{"poweroffId":2020041031020375,"sgpoweroffId":null,"subsName":"","lineName":"10kV白鹤D240线","pubTranName":"华士村1号村中公变,","scope":"浙江省-杭州市-富阳区-东洲街道-黄公望行政村-华墅自然村","startTime":"2020-04-25 09:00:00","stopDate":"2020-04-25 17:00:00","orgNo":"3340170","typeCode":"计划停电","poweroffArea":"110kV白鹤变:白鹤D240线-华士村1号村中公变台区低压开关后段","poweroffReason":"(低压停电信息)迎东2020年华士村1#村中公变等布点工程：低压线路改接等工作","powerTime":"2020-04-25 16:35:35","powerComm":"已送电","subsNo":"","lineNo":"","tgNo":"","tgName":null,"infoStatus":"1","orgName":"国网浙江杭州市富阳区供电公司","typeName":null,"infoStatusName":null,"dateDay":null,"orgNos":null,"nowTime":null,"countyName":null,"streetName":null,"villageName":null,"roadName":null,"communityName":null,"tranName":null,"sdLineName":null,"cityCode":"3340170","cityName":"国网浙江杭州市富阳区供电公司","provinceCode":null,"stopTime":"2020-04-25 17:00:00","powerType":"全部","powerOffArea":"110kV白鹤变:白鹤D240线-华士村1号村中公变台区低压开关后段","powerOffReason":"(低压停电信息)迎东2020年华士村1#村中公变等布点工程：低压线路改接等工作","powerOffId":"2020041031020375"},{"poweroffId":2020041031020364,"sgpoweroffId":null,"subsName":"","lineName":"10kV长盘D722线","pubTranName":"湘溪村6#石门王家公变,","scope":"浙江省-杭州市-富阳区-新登镇-湘溪行政村、石门王家自然村一带","startTime":"2020-04-24 08:10:00","stopDate":"2020-04-24 16:30:00","orgNo":"3340170","typeCode":"计划停电","poweroffArea":"110kV松溪变:长盘D722线-湘溪村6#石门王家公变低压开关后段","poweroffReason":"(低压停电信息)落户线导线搭接、安装更换落户线BS-JKLYJ-2*25*10户、BS-JKLYJ-4*35*2户、安装墙上支架15只、表箱12只","powerTime":"2020-04-24 16:15:10","powerComm":"已送电","subsNo":"","lineNo":"","tgNo":"","tgName":null,"infoStatus":"1","orgName":"国网浙江杭州市富阳区供电公司","typeName":null,"infoStatusName":null,"dateDay":null,"orgNos":null,"nowTime":null,"countyName":null,"streetName":null,"villageName":null,"roadName":null,"communityName":null,"tranName":null,"sdLineName":null,"cityCode":"3340170","cityName":"国网浙江杭州市富阳区供电公司","provinceCode":null,"stopTime":"2020-04-24 16:30:00","powerType":"全部","powerOffArea":"110kV松溪变:长盘D722线-湘溪村6#石门王家公变低压开关后段","powerOffReason":"(低压停电信息)落户线导线搭接、安装更换落户线BS-JKLYJ-2*25*10户、BS-JKLYJ-4*35*2户、安装墙上支架15只、表箱12只","powerOffId":"2020041031020364"}],"pageModel":{"pageNow":363,"totalCount":17788,"totalPage":1779,"tableRows":0,"pageCount":10,"beginCount":3620},"isExperi":"1"}