{"message":"","today":"2020-06-15","seleList":[{"poweroffId":2020041031020356,"sgpoweroffId":null,"subsName":"","lineName":"10kV长盘D722线","pubTranName":"湘溪村8#石门裘家公变,","scope":"浙江省-杭州市-富阳区-新登镇-湘溪行政村石门裘家自然村一带","startTime":"2020-04-23 08:10:00","stopDate":"2020-04-23 16:30:00","orgNo":"3340170","typeCode":"计划停电","poweroffArea":"110kV松溪变:长盘D722线-湘溪村8#石门裘家公变低压开关后段","poweroffReason":"(低压停电信息)照明01线、更换落户线BS-JKLYJ-2*25*30户、BS-JKLYJ-4*35*100米、安装表箱30只、装墙上支架20只、导线搭接","powerTime":"2020-04-23 16:20:11","powerComm":"已送电","subsNo":"","lineNo":"","tgNo":"","tgName":null,"infoStatus":"1","orgName":"国网浙江杭州市富阳区供电公司","typeName":null,"infoStatusName":null,"dateDay":null,"orgNos":null,"nowTime":null,"countyName":null,"streetName":null,"villageName":null,"roadName":null,"communityName":null,"tranName":null,"sdLineName":null,"cityCode":"3340170","cityName":"国网浙江杭州市富阳区供电公司","provinceCode":null,"stopTime":"2020-04-23 16:30:00","powerType":"全部","powerOffArea":"110kV松溪变:长盘D722线-湘溪村8#石门裘家公变低压开关后段","powerOffReason":"(低压停电信息)照明01线、更换落户线BS-JKLYJ-2*25*30户、BS-JKLYJ-4*35*100米、安装表箱30只、装墙上支架20只、导线搭接","powerOffId":"2020041031020356"},{"poweroffId":2020041031020355,"sgpoweroffId":null,"subsName":"","lineName":"10kV浦东D198线","pubTranName":"潘塘村1#潘塘公变,","scope":"浙江省-杭州市-富阳区-大源镇-大源村潘塘村一带","startTime":"2020-04-23 08:00:00","stopDate":"2020-04-23 15:30:00","orgNo":"3340170","typeCode":"计划停电","poweroffArea":"110kV大源变:浦东D198线-潘塘村1#潘塘公变低压配电开关后段","poweroffReason":"(低压停电信息)江南2020年太平村新华4#东公变等台区增容布点工程：新布点400KVA配变1台，新放JKLYJ-10-70导线1档，线路拆、搭头等工作。","powerTime":"2020-04-23 15:20:13","powerComm":"已送电","subsNo":"","lineNo":"","tgNo":"","tgName":null,"infoStatus":"1","orgName":"国网浙江杭州市富阳区供电公司","typeName":null,"infoStatusName":null,"dateDay":null,"orgNos":null,"nowTime":null,"countyName":null,"streetName":null,"villageName":null,"roadName":null,"communityName":null,"tranName":null,"sdLineName":null,"cityCode":"3340170","cityName":"国网浙江杭州市富阳区供电公司","provinceCode":null,"stopTime":"2020-04-23 15:30:00","powerType":"全部","powerOffArea":"110kV大源变:浦东D198线-潘塘村1#潘塘公变低压配电开关后段","powerOffReason":"(低压停电信息)江南2020年太平村新华4#东公变等台区增容布点工程：新布点400KVA配变1台，新放JKLYJ-10-70导线1档，线路拆、搭头等工作。","powerOffId":"2020041031020355"},{"poweroffId":2020041031020354,"sgpoweroffId":null,"subsName":"","lineName":"10kV长盘D722线","pubTranName":"湘溪村8#石门裘家公变,","scope":"浙江省-杭州市-富阳区-新登镇-湘溪行政村石门裘家自然村一带","startTime":"2020-04-22 08:10:00","stopDate":"2020-04-22 16:30:00","orgNo":"3340170","typeCode":"计划停电","poweroffArea":"110kV松溪变:长盘D722线-湘溪村8#石门裘家公变低压开关后段","poweroffReason":"(低压停电信息)照明01线、照明02线更换落户线BS-JKLYJ-2*25*30户、BS-JKLYJ-4*35*100米、安装表箱30只、装墙上支架15只、导线搭接","powerTime":"2020-04-22 16:16:02","powerComm":"已送电","subsNo":"","lineNo":"","tgNo":"","tgName":null,"infoStatus":"1","orgName":"国网浙江杭州市富阳区供电公司","typeName":null,"infoStatusName":null,"dateDay":null,"orgNos":null,"nowTime":null,"countyName":null,"streetName":null,"villageName":null,"roadName":null,"communityName":null,"tranName":null,"sdLineName":null,"cityCode":"3340170","cityName":"国网浙江杭州市富阳区供电公司","provinceCode":null,"stopTime":"2020-04-22 16:30:00","powerType":"全部","powerOffArea":"110kV松溪变:长盘D722线-湘溪村8#石门裘家公变低压开关后段","powerOffReason":"(低压停电信息)照明01线、照明02线更换落户线BS-JKLYJ-2*25*30户、BS-JKLYJ-4*35*100米、安装表箱30只、装墙上支架15只、导线搭接","powerOffId":"2020041031020354"},{"poweroffId":2020041031020353,"sgpoweroffId":null,"subsName":"","lineName":"10kV长盘D722线","pubTranName":"湘溪村7号新石门金家公变,","scope":"浙江省-杭州市-富阳区-新登镇-湘溪行政村石门金家自然村一带","startTime":"2020-04-21 08:10:00","stopDate":"2020-04-21 16:30:00","orgNo":"3340170","typeCode":"计划停电","poweroffArea":"110kV松溪变:长盘D722线-湘溪村7号新石门金家公变低压开关后段","poweroffReason":"(低压停电信息)更换落户线BS-JKLYJ-2*25*5户、BS-JKLYJ-4*35*5户、安装墙上支架10只、落户线BS-JKLYJ-2*25*30户、BS-JKLYJ-4*35*5户、导线搭接","powerTime":"2020-04-21 16:14:07","powerComm":"已送电","subsNo":"","lineNo":"","tgNo":"","tgName":null,"infoStatus":"1","orgName":"国网浙江杭州市富阳区供电公司","typeName":null,"infoStatusName":null,"dateDay":null,"orgNos":null,"nowTime":null,"countyName":null,"streetName":null,"villageName":null,"roadName":null,"communityName":null,"tranName":null,"sdLineName":null,"cityCode":"3340170","cityName":"国网浙江杭州市富阳区供电公司","provinceCode":null,"stopTime":"2020-04-21 16:30:00","powerType":"全部","powerOffArea":"110kV松溪变:长盘D722线-湘溪村7号新石门金家公变低压开关后段","powerOffReason":"(低压停电信息)更换落户线BS-JKLYJ-2*25*5户、BS-JKLYJ-4*35*5户、安装墙上支架10只、落户线BS-JKLYJ-2*25*30户、BS-JKLYJ-4*35*5户、导线搭接","powerOffId":"2020041031020353"},{"poweroffId":2020041031020352,"sgpoweroffId":null,"subsName":"","lineName":"10kV大兆D605线","pubTranName":"虹赤村大兆5#大黄岭公变,","scope":"浙江省-杭州市-富阳区-大源镇-虹赤村大兆村一带","startTime":"2020-04-20 08:30:00","stopDate":"2020-04-20 16:40:00","orgNo":"3340170","typeCode":"计划停电","poweroffArea":"35kV溪东变:大兆D605线-虹赤村大兆5#大黄岭公变低压配电开关后段","poweroffReason":"(低压停电信息)吊车拨、立杆、拆架导线、拆装接户搭接等工作","powerTime":"2020-04-20 16:20:34","powerComm":"已送电","subsNo":"","lineNo":"","tgNo":"","tgName":null,"infoStatus":"1","orgName":"国网浙江杭州市富阳区供电公司","typeName":null,"infoStatusName":null,"dateDay":null,"orgNos":null,"nowTime":null,"countyName":null,"streetName":null,"villageName":null,"roadName":null,"communityName":null,"tranName":null,"sdLineName":null,"cityCode":"3340170","cityName":"国网浙江杭州市富阳区供电公司","provinceCode":null,"stopTime":"2020-04-20 16:40:00","powerType":"全部","powerOffArea":"35kV溪东变:大兆D605线-虹赤村大兆5#大黄岭公变低压配电开关后段","powerOffReason":"(低压停电信息)吊车拨、立杆、拆架导线、拆装接户搭接等工作","powerOffId":"2020041031020352"},{"poweroffId":2020041031020350,"sgpoweroffId":null,"subsName":"","lineName":"10kV春利D744线","pubTranName":"春联村2#老坟头公变,","scope":"浙江省-杭州市-富阳区-春江街道-新建村春联村老坟头村一带","startTime":"2020-04-20 08:00:00","stopDate":"2020-04-20 16:30:00","orgNo":"3340170","typeCode":"计划停电","poweroffArea":"110kV春联变:春利D744线-春联村2#老坟头公变低压配电开关后段","poweroffReason":"(低压停电信息)江南2020年太平村新华4#东公变等台区增容布点工程：新布点400KVA配变1台，新立15杆2支，新放JKLYJ-10-70导线2档，低压出线割接，负荷割接，线路拆、搭头等工作。","powerTime":"2020-04-20 16:09:18","powerComm":"已送电","subsNo":"","lineNo":"","tgNo":"","tgName":null,"infoStatus":"1","orgName":"国网浙江杭州市富阳区供电公司","typeName":null,"infoStatusName":null,"dateDay":null,"orgNos":null,"nowTime":null,"countyName":null,"streetName":null,"villageName":null,"roadName":null,"communityName":null,"tranName":null,"sdLineName":null,"cityCode":"3340170","cityName":"国网浙江杭州市富阳区供电公司","provinceCode":null,"stopTime":"2020-04-20 16:30:00","powerType":"全部","powerOffArea":"110kV春联变:春利D744线-春联村2#老坟头公变低压配电开关后段","powerOffReason":"(低压停电信息)江南2020年太平村新华4#东公变等台区增容布点工程：新布点400KVA配变1台，新立15杆2支，新放JKLYJ-10-70导线2档，低压出线割接，负荷割接，线路拆、搭头等工作。","powerOffId":"2020041031020350"},{"poweroffId":2020041031020347,"sgpoweroffId":null,"subsName":"","lineName":"10kV长盘D722线","pubTranName":"湘溪村3号上崔家公变,","scope":"浙江省-杭州市-富阳区-新登镇-湘溪行政村上崔家自然村一带","startTime":"2020-04-20 08:10:00","stopDate":"2020-04-20 16:30:00","orgNo":"3340170","typeCode":"计划停电","poweroffArea":"110kV松溪变:长盘D722线-湘溪村3号上崔家公变低压开关后段","poweroffReason":"(低压停电信息)照明01线、照明02线更换落户线BS-JKLYJ-2*25*25户、BS-JKLYJ4*35*100米、安装照明表箱25只、动力表箱5只、落户线搭接","powerTime":"2020-04-20 16:09:02","powerComm":"已送电","subsNo":"","lineNo":"","tgNo":"","tgName":null,"infoStatus":"1","orgName":"国网浙江杭州市富阳区供电公司","typeName":null,"infoStatusName":null,"dateDay":null,"orgNos":null,"nowTime":null,"countyName":null,"streetName":null,"villageName":null,"roadName":null,"communityName":null,"tranName":null,"sdLineName":null,"cityCode":"3340170","cityName":"国网浙江杭州市富阳区供电公司","provinceCode":null,"stopTime":"2020-04-20 16:30:00","powerType":"全部","powerOffArea":"110kV松溪变:长盘D722线-湘溪村3号上崔家公变低压开关后段","powerOffReason":"(低压停电信息)照明01线、照明02线更换落户线BS-JKLYJ-2*25*25户、BS-JKLYJ4*35*100米、安装照明表箱25只、动力表箱5只、落户线搭接","powerOffId":"2020041031020347"},{"poweroffId":2020041031020341,"sgpoweroffId":null,"subsName":"","lineName":"10kV许源R244线","pubTranName":"大市塔山村阮家源2号公变,阮家源1号公变,","scope":"浙江省-杭州市-淳安县-里商乡-塔山行政村-阮家源自然村","startTime":"2020-04-22 08:00:00","stopDate":"2020-04-22 12:00:00","orgNo":"3340190","typeCode":"计划停电","poweroffArea":"35kV里商变:许源R244线-阮家源支线0号杆真空断路器","poweroffReason":"10KV许源R244线阮家源支线1号杆-4号杆旁路电缆搭接","powerTime":"2020-04-22 11:30:32","powerComm":"已送电","subsNo":"","lineNo":"","tgNo":"","tgName":null,"infoStatus":"1","orgName":"国网浙江淳安县供电有限公司","typeName":null,"infoStatusName":null,"dateDay":null,"orgNos":null,"nowTime":null,"countyName":null,"streetName":null,"villageName":null,"roadName":null,"communityName":null,"tranName":null,"sdLineName":null,"cityCode":"3340190","cityName":"国网浙江淳安县供电有限公司","provinceCode":null,"stopTime":"2020-04-22 12:00:00","powerType":"全部","powerOffArea":"35kV里商变:许源R244线-阮家源支线0号杆真空断路器","powerOffReason":"10KV许源R244线阮家源支线1号杆-4号杆旁路电缆搭接","powerOffId":"2020041031020341"},{"poweroffId":2020041031020340,"sgpoweroffId":null,"subsName":"","lineName":"10kV上坊R165线","pubTranName":"大市桃林村六亩宅公变,","scope":"浙江省-杭州市-淳安县-大墅镇-桃林行政村-六亩宅自然村","startTime":"2020-04-21 08:00:00","stopDate":"2020-04-21 14:00:00","orgNo":"3340190","typeCode":"计划停电","poweroffArea":"35kV大市变:上坊R165线-六亩宅支线0号杆跌落式熔断器","poweroffReason":"(低压停电信息)上坊R165线六亩宅配变增容低压进出线及配电柜更换","powerTime":"2020-04-21 13:27:51","powerComm":"已送电","subsNo":"","lineNo":"","tgNo":"","tgName":null,"infoStatus":"1","orgName":"国网浙江淳安县供电有限公司","typeName":null,"infoStatusName":null,"dateDay":null,"orgNos":null,"nowTime":null,"countyName":null,"streetName":null,"villageName":null,"roadName":null,"communityName":null,"tranName":null,"sdLineName":null,"cityCode":"3340190","cityName":"国网浙江淳安县供电有限公司","provinceCode":null,"stopTime":"2020-04-21 14:00:00","powerType":"全部","powerOffArea":"35kV大市变:上坊R165线-六亩宅支线0号杆跌落式熔断器","powerOffReason":"(低压停电信息)上坊R165线六亩宅配变增容低压进出线及配电柜更换","powerOffId":"2020041031020340"},{"poweroffId":2020041031020339,"sgpoweroffId":null,"subsName":"","lineName":"10kV许源R244线","pubTranName":"驮坑公变,驮坑口公变,","scope":"浙江省-杭州市-淳安县-枫树岭镇-知心坑行政村-金竹坞自然村,里商乡-里阳行政村(后坑自然村,驮坑自然村,三合自然村)","startTime":"2020-04-24 08:00:00","stopDate":"2020-04-24 12:00:00","orgNo":"3340190","typeCode":"计划停电","poweroffArea":"35kV里商变:许源R244线-驮坑支线0号杆开关后段","poweroffReason":"10KV许源R244线驮坑支线4号杆-5号杆旁路电缆搭接","powerTime":"2020-04-24 11:07:06","powerComm":"已送电","subsNo":"","lineNo":"","tgNo":"","tgName":null,"infoStatus":"1","orgName":"国网浙江淳安县供电有限公司","typeName":null,"infoStatusName":null,"dateDay":null,"orgNos":null,"nowTime":null,"countyName":null,"streetName":null,"villageName":null,"roadName":null,"communityName":null,"tranName":null,"sdLineName":null,"cityCode":"3340190","cityName":"国网浙江淳安县供电有限公司","provinceCode":null,"stopTime":"2020-04-24 12:00:00","powerType":"全部","powerOffArea":"35kV里商变:许源R244线-驮坑支线0号杆开关后段","powerOffReason":"10KV许源R244线驮坑支线4号杆-5号杆旁路电缆搭接","powerOffId":"2020041031020339"}],"pageModel":{"pageNow":364,"totalCount":17788,"totalPage":1779,"tableRows":0,"pageCount":10,"beginCount":3630},"isExperi":"1"}