{"message":"","today":"2020-06-15","seleList":[{"poweroffId":2020040931020397,"sgpoweroffId":null,"subsName":"","lineName":"10kV仁吴6842线","pubTranName":"浙江省中医院,浙江省中医院,浙江省中医院,浙江省中医院,浙江省中医院,浙江省中医院,","scope":"浙江省-杭州市-上城区-湖滨街道-吴山路-浙江省中医院","startTime":"2020-04-09 22:20:00","stopDate":"2020-04-10 00:50:00","orgNo":"3340101","typeCode":"电网故障停限电","poweroffArea":"110kV涌金变:仁吴6842线省中医院专变一省中医院专变一2#后段","poweroffReason":"高压开关跳闸原停电结束时间为2020-04-10-00:20:00,由于施工现场环境比较复杂，存在不确定因素，因此预估施工时间不足，延迟送电了,现变更停电结束时间为2020-04-10-00:50:00","powerTime":"2020-04-10 00:25:01","powerComm":"已送电","subsNo":"","lineNo":"","tgNo":"","tgName":null,"infoStatus":"1","orgName":"浙江杭州电力客户服务中心","typeName":null,"infoStatusName":null,"dateDay":null,"orgNos":null,"nowTime":null,"countyName":null,"streetName":null,"villageName":null,"roadName":null,"communityName":null,"tranName":null,"sdLineName":null,"cityCode":"3340101","cityName":"浙江杭州电力客户服务中心","provinceCode":null,"stopTime":"2020-04-10 00:50:00","powerType":"全部","powerOffArea":"110kV涌金变:仁吴6842线省中医院专变一省中医院专变一2#后段","powerOffReason":"高压开关跳闸原停电结束时间为2020-04-10-00:20:00,由于施工现场环境比较复杂，存在不确定因素，因此预估施工时间不足，延迟送电了,现变更停电结束时间为2020-04-10-00:50:00","powerOffId":"2020040931020397"},{"poweroffId":2020040931020378,"sgpoweroffId":null,"subsName":"","lineName":"10kV建新A190线","pubTranName":"山后村9#变,","scope":"浙江省-杭州市-萧山区-义桥镇-山后行政村(双桥头自然村,山后自然村)","startTime":"2020-04-17 08:30:00","stopDate":"2020-04-17 16:30:00","orgNo":"3340130","typeCode":"计划停电","poweroffArea":"110kV群建变:建新A190线-山后村9#变后段","poweroffReason":"建新A190线新建开闭所，G11G12间隔电缆敷设、试验、搭接；66-67#杆导线拆除","powerTime":"2020-04-17 15:35:02","powerComm":"已送电","subsNo":"","lineNo":"","tgNo":"","tgName":null,"infoStatus":"1","orgName":"国网浙江杭州市萧山区供电有限公司","typeName":null,"infoStatusName":null,"dateDay":null,"orgNos":null,"nowTime":null,"countyName":null,"streetName":null,"villageName":null,"roadName":null,"communityName":null,"tranName":null,"sdLineName":null,"cityCode":"3340130","cityName":"国网浙江杭州市萧山区供电有限公司","provinceCode":null,"stopTime":"2020-04-17 16:30:00","powerType":"全部","powerOffArea":"110kV群建变:建新A190线-山后村9#变后段","powerOffReason":"建新A190线新建开闭所，G11G12间隔电缆敷设、试验、搭接；66-67#杆导线拆除","powerOffId":"2020040931020378"},{"poweroffId":2020040931020377,"sgpoweroffId":null,"subsName":"","lineName":"10kV山后A188线","pubTranName":"杭州久安物业服务有限公司义桥分公司1#,杭州高新（滨江）水务有限公司2#,杭州高新（滨江）水务有限公司1#,杭州市公安局（山后村安检站）,杭州久安物业服务有限公司义桥分公司2#,","scope":"浙江省-杭州市-萧山区-义桥镇-山后行政村(杭州高新(滨江)水务有限公司,杭州久安物业服务有限公司义桥分公司,杭州市公安局)","startTime":"2020-04-17 08:30:00","stopDate":"2020-04-17 16:30:00","orgNo":"3340130","typeCode":"计划停电","poweroffArea":"110kV群建变:山后A188线首端，杭州高新（滨江）水务有限公司1#，杭州高新（滨江）水务有限公司2#，杭州久安物业服务有限公司义桥分公司1#，杭州久安物业服务有限公司义桥分公司2#，杭州市公安局（山后村安检站）之间","poweroffReason":"山后A188线71#、72#杆电缆拆除，山后II开G11、G12间隔电缆敷设、试验、搭接，66-67#杆导线拆除","powerTime":"2020-04-17 15:35:41","powerComm":"已送电","subsNo":"","lineNo":"","tgNo":"","tgName":null,"infoStatus":"1","orgName":"国网浙江杭州市萧山区供电有限公司","typeName":null,"infoStatusName":null,"dateDay":null,"orgNos":null,"nowTime":null,"countyName":null,"streetName":null,"villageName":null,"roadName":null,"communityName":null,"tranName":null,"sdLineName":null,"cityCode":"3340130","cityName":"国网浙江杭州市萧山区供电有限公司","provinceCode":null,"stopTime":"2020-04-17 16:30:00","powerType":"全部","powerOffArea":"110kV群建变:山后A188线首端，杭州高新（滨江）水务有限公司1#，杭州高新（滨江）水务有限公司2#，杭州久安物业服务有限公司义桥分公司1#，杭州久安物业服务有限公司义桥分公司2#，杭州市公安局（山后村安检站）之间","powerOffReason":"山后A188线71#、72#杆电缆拆除，山后II开G11、G12间隔电缆敷设、试验、搭接，66-67#杆导线拆除","powerOffId":"2020040931020377"},{"poweroffId":2020040931020376,"sgpoweroffId":null,"subsName":"","lineName":"10kV尖山A538线","pubTranName":"谢家村11#变,","scope":"浙江省-杭州市-萧山区-浦阳镇-谢家行政村-谢家自然村","startTime":"2020-04-17 08:30:00","stopDate":"2020-04-17 17:30:00","orgNo":"3340130","typeCode":"计划停电","poweroffArea":"110kV浦阳变:尖山A538线-谢家村11#变后段","poweroffReason":"谢家村11#变下250kVA1台上400kA1台，割接等工作原停电结束时间为2020-04-1715:30:00,因由于施工难度大原因,延迟送电,现变更停电结束时间为2020-04-1717:30:00","powerTime":"2020-04-17 17:06:37","powerComm":"已送电","subsNo":"","lineNo":"","tgNo":"","tgName":null,"infoStatus":"1","orgName":"国网浙江杭州市萧山区供电有限公司","typeName":null,"infoStatusName":null,"dateDay":null,"orgNos":null,"nowTime":null,"countyName":null,"streetName":null,"villageName":null,"roadName":null,"communityName":null,"tranName":null,"sdLineName":null,"cityCode":"3340130","cityName":"国网浙江杭州市萧山区供电有限公司","provinceCode":null,"stopTime":"2020-04-17 17:30:00","powerType":"全部","powerOffArea":"110kV浦阳变:尖山A538线-谢家村11#变后段","powerOffReason":"谢家村11#变下250kVA1台上400kA1台，割接等工作原停电结束时间为2020-04-1715:30:00,因由于施工难度大原因,延迟送电,现变更停电结束时间为2020-04-1717:30:00","powerOffId":"2020040931020376"},{"poweroffId":2020040931020375,"sgpoweroffId":null,"subsName":"","lineName":"10kV东曹A189线","pubTranName":"联三村5#变,","scope":"浙江省-杭州市-萧山区-义桥镇-联三行政村(联村自然村,金家堰兜自然村,曹家里自然村,后韩自然村,曹家地自然村)","startTime":"2020-04-16 09:00:00","stopDate":"2020-04-16 15:00:00","orgNo":"3340130","typeCode":"临时停电","poweroffArea":"110kV群建变:东曹A189线-联三村5#变后段","poweroffReason":"联三村5#变下250kVA1台上400kA1台，割接等工作原停电结束时间为2020-04-1616:00:00,为减少客户停电时间,加快工作进度,提前送电,现变更停电结束时间为2020-04-1615:00:00","powerTime":"2020-04-16 14:26:36","powerComm":"已送电","subsNo":"","lineNo":"","tgNo":"","tgName":null,"infoStatus":"1","orgName":"国网浙江杭州市萧山区供电有限公司","typeName":null,"infoStatusName":null,"dateDay":null,"orgNos":null,"nowTime":null,"countyName":null,"streetName":null,"villageName":null,"roadName":null,"communityName":null,"tranName":null,"sdLineName":null,"cityCode":"3340130","cityName":"国网浙江杭州市萧山区供电有限公司","provinceCode":null,"stopTime":"2020-04-16 15:00:00","powerType":"全部","powerOffArea":"110kV群建变:东曹A189线-联三村5#变后段","powerOffReason":"联三村5#变下250kVA1台上400kA1台，割接等工作原停电结束时间为2020-04-1616:00:00,为减少客户停电时间,加快工作进度,提前送电,现变更停电结束时间为2020-04-1615:00:00","powerOffId":"2020040931020375"},{"poweroffId":2020040931020374,"sgpoweroffId":null,"subsName":"","lineName":"10kV横筑A187线","pubTranName":"湘南村4#变,","scope":"浙江省-杭州市-萧山区-义桥镇-湘南行政村-峡山头自然村","startTime":"2020-04-16 08:30:00","stopDate":"2020-04-16 14:30:00","orgNo":"3340130","typeCode":"临时停电","poweroffArea":"110kV群建变:横筑A187线-湘南村4#变后段","poweroffReason":"湘南村4#变下250kVA1台上400kA1台，割接等工作原停电结束时间为2020-04-1615:30:00,为减少客户停电时间,加快工作进度,提前送电,现变更停电结束时间为2020-04-1614:30:00","powerTime":"2020-04-16 13:49:11","powerComm":"已送电","subsNo":"","lineNo":"","tgNo":"","tgName":null,"infoStatus":"1","orgName":"国网浙江杭州市萧山区供电有限公司","typeName":null,"infoStatusName":null,"dateDay":null,"orgNos":null,"nowTime":null,"countyName":null,"streetName":null,"villageName":null,"roadName":null,"communityName":null,"tranName":null,"sdLineName":null,"cityCode":"3340130","cityName":"国网浙江杭州市萧山区供电有限公司","provinceCode":null,"stopTime":"2020-04-16 14:30:00","powerType":"全部","powerOffArea":"110kV群建变:横筑A187线-湘南村4#变后段","powerOffReason":"湘南村4#变下250kVA1台上400kA1台，割接等工作原停电结束时间为2020-04-1615:30:00,为减少客户停电时间,加快工作进度,提前送电,现变更停电结束时间为2020-04-1614:30:00","powerOffId":"2020040931020374"},{"poweroffId":2020040931020373,"sgpoweroffId":null,"subsName":"","lineName":"10kV大桥A772线","pubTranName":"大桥村2#变,","scope":"浙江省-杭州市-萧山区-河上镇-大桥行政村(大桥自然村,染店孙自然村,青年路)","startTime":"2020-04-15 09:30:00","stopDate":"2020-04-15 16:30:00","orgNo":"3340130","typeCode":"临时停电","poweroffArea":"110kV大西变:大桥A772线-大桥村2#变后段","poweroffReason":"大桥村2#变下250kVA1台上400kA1台，割接等工作","powerTime":"2020-04-15 15:45:40","powerComm":"已送电","subsNo":"","lineNo":"","tgNo":"","tgName":null,"infoStatus":"1","orgName":"国网浙江杭州市萧山区供电有限公司","typeName":null,"infoStatusName":null,"dateDay":null,"orgNos":null,"nowTime":null,"countyName":null,"streetName":null,"villageName":null,"roadName":null,"communityName":null,"tranName":null,"sdLineName":null,"cityCode":"3340130","cityName":"国网浙江杭州市萧山区供电有限公司","provinceCode":null,"stopTime":"2020-04-15 16:30:00","powerType":"全部","powerOffArea":"110kV大西变:大桥A772线-大桥村2#变后段","powerOffReason":"大桥村2#变下250kVA1台上400kA1台，割接等工作","powerOffId":"2020040931020373"},{"poweroffId":2020040931020372,"sgpoweroffId":null,"subsName":"","lineName":"10kV树蓬A530线","pubTranName":"新河口3#变,","scope":"浙江省-杭州市-萧山区-浦阳镇-新河口行政村-新河口自然村","startTime":"2020-04-15 09:00:00","stopDate":"2020-04-15 12:30:00","orgNo":"3340130","typeCode":"临时停电","poweroffArea":"110kV浦阳变:树蓬A530线-新河口3#变后段","poweroffReason":"新河口3#变下250kVA1台上400kA1台移位增量等工作原停电结束时间为2020-04-1516:00:00,为减少客户停电时间,加快工作进度,提前送电,现变更停电结束时间为2020-04-1512:30:00","powerTime":"2020-04-15 11:40:39","powerComm":"已送电","subsNo":"","lineNo":"","tgNo":"","tgName":null,"infoStatus":"1","orgName":"国网浙江杭州市萧山区供电有限公司","typeName":null,"infoStatusName":null,"dateDay":null,"orgNos":null,"nowTime":null,"countyName":null,"streetName":null,"villageName":null,"roadName":null,"communityName":null,"tranName":null,"sdLineName":null,"cityCode":"3340130","cityName":"国网浙江杭州市萧山区供电有限公司","provinceCode":null,"stopTime":"2020-04-15 12:30:00","powerType":"全部","powerOffArea":"110kV浦阳变:树蓬A530线-新河口3#变后段","powerOffReason":"新河口3#变下250kVA1台上400kA1台移位增量等工作原停电结束时间为2020-04-1516:00:00,为减少客户停电时间,加快工作进度,提前送电,现变更停电结束时间为2020-04-1512:30:00","powerOffId":"2020040931020372"},{"poweroffId":2020040931020370,"sgpoweroffId":null,"subsName":"","lineName":"10kV柴家A536线","pubTranName":"浦一村1#变,","scope":"浙江省-杭州市-萧山区-浦阳镇-浦一行政村-李家埭自然村","startTime":"2020-04-15 08:30:00","stopDate":"2020-04-15 15:30:00","orgNo":"3340130","typeCode":"临时停电","poweroffArea":"110kV浦阳变:柴家A536线-浦一村1#变后段","poweroffReason":"浦一村1#变下250kVA1台上400kA1台，割接等工作","powerTime":"2020-04-15 15:00:23","powerComm":"已送电","subsNo":"","lineNo":"","tgNo":"","tgName":null,"infoStatus":"1","orgName":"国网浙江杭州市萧山区供电有限公司","typeName":null,"infoStatusName":null,"dateDay":null,"orgNos":null,"nowTime":null,"countyName":null,"streetName":null,"villageName":null,"roadName":null,"communityName":null,"tranName":null,"sdLineName":null,"cityCode":"3340130","cityName":"国网浙江杭州市萧山区供电有限公司","provinceCode":null,"stopTime":"2020-04-15 15:30:00","powerType":"全部","powerOffArea":"110kV浦阳变:柴家A536线-浦一村1#变后段","powerOffReason":"浦一村1#变下250kVA1台上400kA1台，割接等工作","powerOffId":"2020040931020370"},{"poweroffId":2020040931020369,"sgpoweroffId":null,"subsName":"","lineName":"10kV潘山C161线","pubTranName":"七里店5#变,","scope":"浙江省-杭州市-萧山区-义桥镇-七里店行政村-猫头山自然村","startTime":"2020-04-14 10:00:00","stopDate":"2020-04-14 16:30:00","orgNo":"3340130","typeCode":"临时停电","poweroffArea":"110kV许贤变:潘山C161线-七里店5#变后段","poweroffReason":"七里店5#变下250kVA1台上400kA1台，割接等工作原停电结束时间为2020-04-1417:00:00,为减少客户停电时间,加快工作进度,提前送电,现变更停电结束时间为2020-04-1416:30:00","powerTime":"2020-04-14 15:42:45","powerComm":"已送电","subsNo":"","lineNo":"","tgNo":"","tgName":null,"infoStatus":"1","orgName":"国网浙江杭州市萧山区供电有限公司","typeName":null,"infoStatusName":null,"dateDay":null,"orgNos":null,"nowTime":null,"countyName":null,"streetName":null,"villageName":null,"roadName":null,"communityName":null,"tranName":null,"sdLineName":null,"cityCode":"3340130","cityName":"国网浙江杭州市萧山区供电有限公司","provinceCode":null,"stopTime":"2020-04-14 16:30:00","powerType":"全部","powerOffArea":"110kV许贤变:潘山C161线-七里店5#变后段","powerOffReason":"七里店5#变下250kVA1台上400kA1台，割接等工作原停电结束时间为2020-04-1417:00:00,为减少客户停电时间,加快工作进度,提前送电,现变更停电结束时间为2020-04-1416:30:00","powerOffId":"2020040931020369"}],"pageModel":{"pageNow":371,"totalCount":17788,"totalPage":1779,"tableRows":0,"pageCount":10,"beginCount":3700},"isExperi":"1"}