{"message":"","today":"2020-06-15","seleList":[{"poweroffId":2020040931020368,"sgpoweroffId":null,"subsName":"","lineName":"10kV吉山A365线","pubTranName":"欢潭村9#变,","scope":"浙江省-杭州市-萧山区-进化镇-欢潭行政村(欢潭自然村,东坞自然村,诸家自然村)","startTime":"2020-04-13 08:30:00","stopDate":"2020-04-13 15:00:00","orgNo":"3340130","typeCode":"临时停电","poweroffArea":"110kV进化变:吉山A365线-欢潭村9#变后段","poweroffReason":"欢潭村9#变下250kVA1台上400kA1台，割接等工作原停电结束时间为2020-04-1315:30:00,为减少客户停电时间,加快工作进度,提前送电,现变更停电结束时间为2020-04-1315:00:00","powerTime":"2020-04-13 14:13:43","powerComm":"已送电","subsNo":"","lineNo":"","tgNo":"","tgName":null,"infoStatus":"1","orgName":"国网浙江杭州市萧山区供电有限公司","typeName":null,"infoStatusName":null,"dateDay":null,"orgNos":null,"nowTime":null,"countyName":null,"streetName":null,"villageName":null,"roadName":null,"communityName":null,"tranName":null,"sdLineName":null,"cityCode":"3340130","cityName":"国网浙江杭州市萧山区供电有限公司","provinceCode":null,"stopTime":"2020-04-13 15:00:00","powerType":"全部","powerOffArea":"110kV进化变:吉山A365线-欢潭村9#变后段","powerOffReason":"欢潭村9#变下250kVA1台上400kA1台，割接等工作原停电结束时间为2020-04-1315:30:00,为减少客户停电时间,加快工作进度,提前送电,现变更停电结束时间为2020-04-1315:00:00","powerOffId":"2020040931020368"},{"poweroffId":2020040931020351,"sgpoweroffId":null,"subsName":"","lineName":"10kV盈湖A358线","pubTranName":"吉山村4#变,","scope":"浙江省-杭州市-萧山区-进化镇-吉山行政村-吉山自然村等","startTime":"2020-04-09 16:46:06","stopDate":"2020-04-09 18:55:06","orgNo":"3340130","typeCode":"电网故障停限电","poweroffArea":"110kV进化变:盈湖A358线-吉山村4#变台区低压开关","poweroffReason":"(低压停电信息)低压漏电保护器短路故障","powerTime":"2020-04-09 17:56:18","powerComm":"已送电","subsNo":"","lineNo":"","tgNo":"","tgName":null,"infoStatus":"1","orgName":"国网浙江杭州市萧山区供电有限公司","typeName":null,"infoStatusName":null,"dateDay":null,"orgNos":null,"nowTime":null,"countyName":null,"streetName":null,"villageName":null,"roadName":null,"communityName":null,"tranName":null,"sdLineName":null,"cityCode":"3340130","cityName":"国网浙江杭州市萧山区供电有限公司","provinceCode":null,"stopTime":"2020-04-09 18:55:06","powerType":"全部","powerOffArea":"110kV进化变:盈湖A358线-吉山村4#变台区低压开关","powerOffReason":"(低压停电信息)低压漏电保护器短路故障","powerOffId":"2020040931020351"},{"poweroffId":2020040931020325,"sgpoweroffId":null,"subsName":"","lineName":"10kV标工161线","pubTranName":"云端九变,","scope":"浙江省-杭州市-滨江区-长河街道-长一社区-彩霞路云端公寓9幢2单元201、301、401、501、601、701、1001、1101。","startTime":"2020-04-17 09:30:00","stopDate":"2020-04-17 11:30:00","orgNo":"3340101","typeCode":"计划停电","poweroffArea":"110kV长河变:标工161线-云端九变后段","poweroffReason":"(低压停电信息)","powerTime":"2020-04-17 11:28:45","powerComm":"已送电","subsNo":"","lineNo":"","tgNo":"","tgName":null,"infoStatus":"1","orgName":"浙江杭州电力客户服务中心","typeName":null,"infoStatusName":null,"dateDay":null,"orgNos":null,"nowTime":null,"countyName":null,"streetName":null,"villageName":null,"roadName":null,"communityName":null,"tranName":null,"sdLineName":null,"cityCode":"3340101","cityName":"浙江杭州电力客户服务中心","provinceCode":null,"stopTime":"2020-04-17 11:30:00","powerType":"全部","powerOffArea":"110kV长河变:标工161线-云端九变后段","powerOffReason":"(低压停电信息)","powerOffId":"2020040931020325"},{"poweroffId":2020040931020293,"sgpoweroffId":null,"subsName":"","lineName":"10kV上山Y763线","pubTranName":"上山村上山台区,上山村陈家变台区,上山村金竹坞台区,1#,","scope":"浙江省-杭州市-建德市-下涯镇-联和行政村-金竹坞自然村,杨村桥镇-上山行政村(塔石坞自然村,金竹坞自然村,陈家自然村,陈家新村,上山自然村);杨村桥镇-杭州史密斯重工机械有限公司","startTime":"2020-04-09 16:12:00","stopDate":"2020-04-09 17:30:00","orgNo":"3340180","typeCode":"电网故障停限电","poweroffArea":"110kV乾潭变:上山Y763线上山Y7634开关后段","poweroffReason":"高压开关跳闸","powerTime":"2020-04-09 16:44:00","powerComm":"已送电","subsNo":"","lineNo":"","tgNo":"","tgName":null,"infoStatus":"1","orgName":"国网浙江建德市供电有限公司","typeName":null,"infoStatusName":null,"dateDay":null,"orgNos":null,"nowTime":null,"countyName":null,"streetName":null,"villageName":null,"roadName":null,"communityName":null,"tranName":null,"sdLineName":null,"cityCode":"3340180","cityName":"国网浙江建德市供电有限公司","provinceCode":null,"stopTime":"2020-04-09 17:30:00","powerType":"全部","powerOffArea":"110kV乾潭变:上山Y763线上山Y7634开关后段","powerOffReason":"高压开关跳闸","powerOffId":"2020040931020293"},{"poweroffId":2020040931020281,"sgpoweroffId":null,"subsName":"","lineName":"10kV和铭D817线","pubTranName":"世华4号公变,","scope":"浙江省-杭州市-富阳区-富春街道-东山社区-丰收中路","startTime":"2020-04-09 16:02:00","stopDate":"2020-04-09 18:02:00","orgNo":"3340170","typeCode":"电网故障停限电","poweroffArea":"110kV容大变:和铭D817线世华4号公变配变","poweroffReason":"高压开关跳闸","powerTime":"2020-04-09 17:31:10","powerComm":"已送电","subsNo":"","lineNo":"","tgNo":"","tgName":null,"infoStatus":"1","orgName":"国网浙江杭州市富阳区供电公司","typeName":null,"infoStatusName":null,"dateDay":null,"orgNos":null,"nowTime":null,"countyName":null,"streetName":null,"villageName":null,"roadName":null,"communityName":null,"tranName":null,"sdLineName":null,"cityCode":"3340170","cityName":"国网浙江杭州市富阳区供电公司","provinceCode":null,"stopTime":"2020-04-09 18:02:00","powerType":"全部","powerOffArea":"110kV容大变:和铭D817线世华4号公变配变","powerOffReason":"高压开关跳闸","powerOffId":"2020040931020281"},{"poweroffId":2020040931020248,"sgpoweroffId":null,"subsName":"","lineName":"10kV凌村H570线","pubTranName":"山沟沟村毛塘公变,","scope":"浙江省-杭州市-余杭区-鸬鸟镇-山沟沟行政村(茅塘自然村,山沟沟自然村)","startTime":"2020-04-09 15:36:23","stopDate":"2020-04-09 17:00:23","orgNo":"3340140","typeCode":"电网故障停限电","poweroffArea":"35kV黄湖变:凌村H570线-山沟沟村毛塘公变后段","poweroffReason":"高压开关跳闸","powerTime":"2020-04-09 16:06:19","powerComm":"已送电","subsNo":"","lineNo":"","tgNo":"","tgName":null,"infoStatus":"1","orgName":"国网浙江杭州市余杭区供电有限公司","typeName":null,"infoStatusName":null,"dateDay":null,"orgNos":null,"nowTime":null,"countyName":null,"streetName":null,"villageName":null,"roadName":null,"communityName":null,"tranName":null,"sdLineName":null,"cityCode":"3340140","cityName":"国网浙江杭州市余杭区供电有限公司","provinceCode":null,"stopTime":"2020-04-09 17:00:23","powerType":"全部","powerOffArea":"35kV黄湖变:凌村H570线-山沟沟村毛塘公变后段","powerOffReason":"高压开关跳闸","powerOffId":"2020040931020248"},{"poweroffId":2020040931020195,"sgpoweroffId":null,"subsName":"","lineName":"10kV鸣翠H614线","pubTranName":"西溪山庄13-1号公变,","scope":"浙江省-杭州市-余杭区-余杭街道-沈家店社区-荆余","startTime":"2020-04-09 14:31:09","stopDate":"2020-04-09 15:31:00","orgNo":"3340140","typeCode":"电网故障停限电","poweroffArea":"110kV桃源变:鸣翠H614线-西溪山庄13-1号公变后段","poweroffReason":"高压开关跳闸","powerTime":"2020-04-09 15:15:37","powerComm":"已送电","subsNo":"","lineNo":"","tgNo":"","tgName":null,"infoStatus":"1","orgName":"国网浙江杭州市余杭区供电有限公司","typeName":null,"infoStatusName":null,"dateDay":null,"orgNos":null,"nowTime":null,"countyName":null,"streetName":null,"villageName":null,"roadName":null,"communityName":null,"tranName":null,"sdLineName":null,"cityCode":"3340140","cityName":"国网浙江杭州市余杭区供电有限公司","provinceCode":null,"stopTime":"2020-04-09 15:31:00","powerType":"全部","powerOffArea":"110kV桃源变:鸣翠H614线-西溪山庄13-1号公变后段","powerOffReason":"高压开关跳闸","powerOffId":"2020040931020195"},{"poweroffId":2020040931020169,"sgpoweroffId":null,"subsName":"","lineName":"10kV文村H769线","pubTranName":"文一农居(2-1)公变,","scope":"浙江省-杭州市-余杭区-五常街道-文一社区(文一西路,溪望路)","startTime":"2020-04-09 14:19:41","stopDate":"2020-04-09 17:10:41","orgNo":"3340140","typeCode":"电网故障停限电","poweroffArea":"110kV五常变:文村H769线-文一农居(2-1)公变后段","poweroffReason":"高压开关跳闸原停电结束时间为2020-04-0916:19:41,因施工复杂原因,延迟送电,现变更停电结束时间为2020-04-0917:10:41","powerTime":"2020-04-09 16:11:49","powerComm":"已送电","subsNo":"","lineNo":"","tgNo":"","tgName":null,"infoStatus":"1","orgName":"国网浙江杭州市余杭区供电有限公司","typeName":null,"infoStatusName":null,"dateDay":null,"orgNos":null,"nowTime":null,"countyName":null,"streetName":null,"villageName":null,"roadName":null,"communityName":null,"tranName":null,"sdLineName":null,"cityCode":"3340140","cityName":"国网浙江杭州市余杭区供电有限公司","provinceCode":null,"stopTime":"2020-04-09 17:10:41","powerType":"全部","powerOffArea":"110kV五常变:文村H769线-文一农居(2-1)公变后段","powerOffReason":"高压开关跳闸原停电结束时间为2020-04-0916:19:41,因施工复杂原因,延迟送电,现变更停电结束时间为2020-04-0917:10:41","powerOffId":"2020040931020169"},{"poweroffId":2020040931020160,"sgpoweroffId":null,"subsName":"","lineName":"10kV里深D345线","pubTranName":"洞桥镇4#政府公变变压器间隔配电变压器,","scope":"浙江省-杭州市-富阳区-洞桥镇-洞桥行政村(十房里自然村,于家自然村,皇印石自然村,陈林自然村,洞桥自然村)","startTime":"2020-04-09 13:51:59","stopDate":"2020-04-09 14:51:59","orgNo":"3340170","typeCode":"电网故障停限电","poweroffArea":"110kV万市变:里深D345线-洞桥镇4#政府公变变压器间隔配电变压器后段","poweroffReason":"高压开关跳闸","powerTime":"2020-04-09 14:09:47","powerComm":"已送电","subsNo":"","lineNo":"","tgNo":"","tgName":null,"infoStatus":"1","orgName":"国网浙江杭州市富阳区供电公司","typeName":null,"infoStatusName":null,"dateDay":null,"orgNos":null,"nowTime":null,"countyName":null,"streetName":null,"villageName":null,"roadName":null,"communityName":null,"tranName":null,"sdLineName":null,"cityCode":"3340170","cityName":"国网浙江杭州市富阳区供电公司","provinceCode":null,"stopTime":"2020-04-09 14:51:59","powerType":"全部","powerOffArea":"110kV万市变:里深D345线-洞桥镇4#政府公变变压器间隔配电变压器后段","powerOffReason":"高压开关跳闸","powerOffId":"2020040931020160"},{"poweroffId":2020040931020156,"sgpoweroffId":null,"subsName":"","lineName":"10kV亚河G286线","pubTranName":"3#泵站（杭州市开发投资有限公司）,杭州市开发投资有限公司,","scope":"浙江省-杭州市-余杭区-东湖街道-杭州市开发投资有限公司","startTime":"2020-04-09 13:30:00","stopDate":"2020-04-09 15:00:00","orgNo":"3340140","typeCode":"电网故障停限电","poweroffArea":"110kV渔桥变:亚河G286线枣树环网站枣树分支箱分线后段","poweroffReason":"高压开关跳闸原停电结束时间为2020-04-0915:30:00,为减少客户停电时间,加快工作进度,提前送电,现变更停电结束时间为2020-04-0915:00:00","powerTime":"2020-04-09 14:22:00","powerComm":"已送电","subsNo":"","lineNo":"","tgNo":"","tgName":null,"infoStatus":"1","orgName":"国网浙江杭州市余杭区供电有限公司","typeName":null,"infoStatusName":null,"dateDay":null,"orgNos":null,"nowTime":null,"countyName":null,"streetName":null,"villageName":null,"roadName":null,"communityName":null,"tranName":null,"sdLineName":null,"cityCode":"3340140","cityName":"国网浙江杭州市余杭区供电有限公司","provinceCode":null,"stopTime":"2020-04-09 15:00:00","powerType":"全部","powerOffArea":"110kV渔桥变:亚河G286线枣树环网站枣树分支箱分线后段","powerOffReason":"高压开关跳闸原停电结束时间为2020-04-0915:30:00,为减少客户停电时间,加快工作进度,提前送电,现变更停电结束时间为2020-04-0915:00:00","powerOffId":"2020040931020156"}],"pageModel":{"pageNow":372,"totalCount":17788,"totalPage":1779,"tableRows":0,"pageCount":10,"beginCount":3710},"isExperi":"1"}