{"message":"","today":"2020-06-15","seleList":[{"poweroffId":2020040931020016,"sgpoweroffId":null,"subsName":"","lineName":"10kV景福H541线","pubTranName":"双溪旅游,杭长服务区4#,小古城村羊场公变,径山服务区充电桩北区公变,小古城村金钟山公变,杭长服务区3#,杭州大麓茶业有限公司6110116221,庆宏印刷制品,小古城村横坑6组公变,杭长服务区1#,小古城村东风公变,潘板集镇老中学公变,杭州茶叶试验场6110119023,小古城村东风2号公变,小古城村团结公变,东巨实业6110116223,小古城村杨家畈1号公变,小古城村杨家畈2号公变,小古城村上钱公变,杭州双溪旅游开发有限公司6110115058,径山服务区充电桩南区公变,杭州茶叶试验场6110119011,茗竹生态612060171001#专变,杭州余杭双溪铸钢厂6111015438,小古城村侯家公变,小古城村龙头公变,小古城村横坑5组公变,杭州余杭区径山镇祥和茶厂6110118080,小古城村红卫1号公变,杭长服务区2#,小古城村钱家滩村公变,金巴顿变,小古城村蓬崇公变,小古城村赤子弄公变,小古城村下钱公变,小古城村金钟山2#公变,小古城村施家村公变,小古城村小山坞公变,杭州径山神龙茶业有限公司6110116019,杭州径乐茶业有限公司6111009302,杭长服务区1#,小古城村红卫2号公变,小古城村塔山公变,","scope":"浙江省-杭州市-余杭区-径山镇-麻车头行政村(仇山自然村,麻车头自然村),径山镇-小古城行政村(吴山自然村,枉坑自然村,小古城自然村,钱家滩自然村,赤子异自然村,法华寺自然村,杨府山自然村,下钱自然村,上房自然村,蓬从自然村,上钱自然村,杨家畈自然村,胜利门自然村,西边山自然村),径山镇-潘坂桥行政村(潘坂桥自然村,感塘村,小古城村),径山镇-平山头行政村(斜坑自然村,平山自然村,龙潭组自然村),径山镇-前溪行政村(袁家桥自然村,前溪自然村),径山镇-绿景行政村(绿景塘自然村,冷水桥自然村),径山镇-径山行政村(径山自然村,桐桥自然村,里洪自然村),径山镇(求是行政村-求是自然村,长乐行政村-长乐片,双溪行政村-双溪村,四岭行政村-千代坑自然村,小古城村-杭长高速);瓶窑镇-杭州茶叶试验场有限公司,径山镇(杭州径乐茶业有限公司,杭州余杭区径山镇祥和茶厂,杭州余杭双溪铸钢厂,杭州径山神龙茶业有限公司,杭州大麓茶业有限公司,杭州双溪旅游开发有限公司,杭州庆宏印刷制品有限公司,杭州东巨实业有限公司,浙江杭长高速公路有限公司,杭州金巴登实业有限公司,杭州茗竹生态农业有限公司)","startTime":"2020-04-09 07:38:14","stopDate":"2020-04-09 12:00:00","orgNo":"3340140","typeCode":"电网故障停限电","poweroffArea":"110kV潘板变:景福H541线景福H541线29号杆开关后段","poweroffReason":"高压开关跳闸原停电结束时间为2020-04-0910:38:00,因故障复杂原因,延迟送电,现变更停电结束时间为2020-04-0912:00:00","powerTime":"2020-04-09 11:04:30","powerComm":"已送电","subsNo":"","lineNo":"","tgNo":"","tgName":null,"infoStatus":"1","orgName":"国网浙江杭州市余杭区供电有限公司","typeName":null,"infoStatusName":null,"dateDay":null,"orgNos":null,"nowTime":null,"countyName":null,"streetName":null,"villageName":null,"roadName":null,"communityName":null,"tranName":null,"sdLineName":null,"cityCode":"3340140","cityName":"国网浙江杭州市余杭区供电有限公司","provinceCode":null,"stopTime":"2020-04-09 12:00:00","powerType":"全部","powerOffArea":"110kV潘板变:景福H541线景福H541线29号杆开关后段","powerOffReason":"高压开关跳闸原停电结束时间为2020-04-0910:38:00,因故障复杂原因,延迟送电,现变更停电结束时间为2020-04-0912:00:00","powerOffId":"2020040931020016"},{"poweroffId":2020040931020013,"sgpoweroffId":null,"subsName":"","lineName":"10kV徐坑Y774线","pubTranName":"新程村大山畈台区,","scope":"浙江省-杭州市-建德市-乾潭镇 新程行政村-包家自然村,姚村行政村-姚村自然村","startTime":"2020-04-09 07:11:00","stopDate":"2020-04-09 09:00:00","orgNo":"3340180","typeCode":"电网故障停限电","poweroffArea":"110kV乾潭变:徐坑Y774线新程村大山畈台区配变","poweroffReason":"安装开关工作停电原停电结束时间为2020-04-0914:00:00,为减少客户停电时间,加快工作进度,提前送电,现变更停电结束时间为2020-04-0909:00:00","powerTime":"2020-04-09 08:08:23","powerComm":"已送电","subsNo":"","lineNo":"","tgNo":"","tgName":null,"infoStatus":"1","orgName":"国网浙江建德市供电有限公司","typeName":null,"infoStatusName":null,"dateDay":null,"orgNos":null,"nowTime":null,"countyName":null,"streetName":null,"villageName":null,"roadName":null,"communityName":null,"tranName":null,"sdLineName":null,"cityCode":"3340180","cityName":"国网浙江建德市供电有限公司","provinceCode":null,"stopTime":"2020-04-09 09:00:00","powerType":"全部","powerOffArea":"110kV乾潭变:徐坑Y774线新程村大山畈台区配变","powerOffReason":"安装开关工作停电原停电结束时间为2020-04-0914:00:00,为减少客户停电时间,加快工作进度,提前送电,现变更停电结束时间为2020-04-0909:00:00","powerOffId":"2020040931020013"},{"poweroffId":2020040931020012,"sgpoweroffId":null,"subsName":"","lineName":"10kV上山Y763线","pubTranName":"1#,上山村陈家变台区,上山村上山台区,上山村金竹坞台区,","scope":"浙江省-杭州市-建德市-下涯镇-联和行政村-金竹坞自然村,杨村桥镇-上山行政村 塔石坞自然村,金竹坞自然村,陈家自然村,陈家新村,上山自然村;杨村桥镇-杭州史密斯重工机械有限公司","startTime":"2020-04-09 07:12:00","stopDate":"2020-04-09 09:00:00","orgNo":"3340180","typeCode":"电网故障停限电","poweroffArea":"110kV乾潭变:上山Y763线上山Y7634开关后段","poweroffReason":"计划工作检修原停电结束时间为2020-04-0914:00:00,为减少客户停电时间,加快工作进度,提前送电,现变更停电结束时间为2020-04-0909:00:00","powerTime":"2020-04-09 08:09:41","powerComm":"已送电","subsNo":"","lineNo":"","tgNo":"","tgName":null,"infoStatus":"1","orgName":"国网浙江建德市供电有限公司","typeName":null,"infoStatusName":null,"dateDay":null,"orgNos":null,"nowTime":null,"countyName":null,"streetName":null,"villageName":null,"roadName":null,"communityName":null,"tranName":null,"sdLineName":null,"cityCode":"3340180","cityName":"国网浙江建德市供电有限公司","provinceCode":null,"stopTime":"2020-04-09 09:00:00","powerType":"全部","powerOffArea":"110kV乾潭变:上山Y763线上山Y7634开关后段","powerOffReason":"计划工作检修原停电结束时间为2020-04-0914:00:00,为减少客户停电时间,加快工作进度,提前送电,现变更停电结束时间为2020-04-0909:00:00","powerOffId":"2020040931020012"},{"poweroffId":2020040931020010,"sgpoweroffId":null,"subsName":"","lineName":"10kV立祥Y139线","pubTranName":"新程村后蒋畈台区,","scope":"浙江省-杭州市-建德市-乾潭镇-新程行政村-程头自然村","startTime":"2020-04-09 07:04:00","stopDate":"2020-04-09 09:00:00","orgNo":"3340180","typeCode":"电网故障停限电","poweroffArea":"110kV乾潭变:立祥Y139线新程村后蒋畈台区配变","poweroffReason":"业扩工作停电原停电结束时间为2020-04-0914:00:00,为减少客户停电时间,加快工作进度,提前送电,现变更停电结束时间为2020-04-0909:00:00","powerTime":"2020-04-09 08:10:06","powerComm":"已送电","subsNo":"","lineNo":"","tgNo":"","tgName":null,"infoStatus":"1","orgName":"国网浙江建德市供电有限公司","typeName":null,"infoStatusName":null,"dateDay":null,"orgNos":null,"nowTime":null,"countyName":null,"streetName":null,"villageName":null,"roadName":null,"communityName":null,"tranName":null,"sdLineName":null,"cityCode":"3340180","cityName":"国网浙江建德市供电有限公司","provinceCode":null,"stopTime":"2020-04-09 09:00:00","powerType":"全部","powerOffArea":"110kV乾潭变:立祥Y139线新程村后蒋畈台区配变","powerOffReason":"业扩工作停电原停电结束时间为2020-04-0914:00:00,为减少客户停电时间,加快工作进度,提前送电,现变更停电结束时间为2020-04-0909:00:00","powerOffId":"2020040931020010"},{"poweroffId":2020040931020001,"sgpoweroffId":null,"subsName":"","lineName":"10kV凌村H570线","pubTranName":"山沟沟村下溪头公变,杭州依森特实业有限公司6120917456,山沟沟村宋村下村公变,鸬鸟镇政府（自来水厂）6120051834,山沟沟村宋村公变,山沟沟村下余村公变,山沟沟村后山公变,山沟沟村斗坞公变,山沟沟村宋村2号村变,山沟沟村汤坑公变,山沟沟村毛塘公变,光大利合6120867007,山沟沟宾馆,山沟沟村盛家塘公变,山沟沟村汤坑2号公变,山沟沟村叶家堂公变,山沟沟村观口公变,","scope":"浙江省-杭州市-余杭区-黄湖镇-清波行政村-清波自然村,鸬鸟镇-山沟沟行政村(下溪头自然村,山沟沟自然村,灌口自然村,下余自然村,后山自然村,嵩自然村,汤坑自然村,山沟沟,土斗坞自然村,茅塘自然村,上高自然村),鸬鸟镇(太平山行政村-太平山自然村,仙佰坑行政村-仙佰坑自然村,雅城行政村-雅城自然村);浙江省-杭州市-余杭区-鸬鸟镇-前庄行政村-杭州市余杭区鸬鸟镇人民政府,鸬鸟镇-山沟沟行政村(杭州阿汤生态农业开发有限公司,杭州山沟沟旅游度假有限公司,杭州依森特实业有限公司)","startTime":"2020-04-09 00:09:12","stopDate":"2020-04-09 12:30:00","orgNo":"3340140","typeCode":"电网故障停限电","poweroffArea":"35kV黄湖变:凌村H570线-馒头山电站分线105号杆开关后段","poweroffReason":"高压开关跳闸原停电结束时间为2020-04-0910:30:00,因施工复杂原因原因,延迟送电,现变更停电结束时间为2020-04-0912:30:00","powerTime":"2020-04-09 12:02:00","powerComm":"已送电","subsNo":"","lineNo":"","tgNo":"","tgName":null,"infoStatus":"1","orgName":"国网浙江杭州市余杭区供电有限公司","typeName":null,"infoStatusName":null,"dateDay":null,"orgNos":null,"nowTime":null,"countyName":null,"streetName":null,"villageName":null,"roadName":null,"communityName":null,"tranName":null,"sdLineName":null,"cityCode":"3340140","cityName":"国网浙江杭州市余杭区供电有限公司","provinceCode":null,"stopTime":"2020-04-09 12:30:00","powerType":"全部","powerOffArea":"35kV黄湖变:凌村H570线-馒头山电站分线105号杆开关后段","powerOffReason":"高压开关跳闸原停电结束时间为2020-04-0910:30:00,因施工复杂原因原因,延迟送电,现变更停电结束时间为2020-04-0912:30:00","powerOffId":"2020040931020001"},{"poweroffId":2020040831020351,"sgpoweroffId":null,"subsName":"","lineName":"10kV翔弘A591线","pubTranName":"富地大厦1#公变,","scope":"浙江省-杭州市-萧山区-新塘街道-商城社区-商城南路","startTime":"2020-04-16 08:30:00","stopDate":"2020-04-16 11:30:00","orgNo":"3340130","typeCode":"计划停电","poweroffArea":"110kV城东变:翔弘A591线-富地大厦1#公变后段","poweroffReason":"嘉豪分支箱内用户电缆拆头原停电结束时间为2020-04-1612:30:00,为减少客户停电时间,加快工作进度,提前送电,现变更停电结束时间为2020-04-1611:30:00","powerTime":"2020-04-16 10:59:18","powerComm":"已送电","subsNo":"","lineNo":"","tgNo":"","tgName":null,"infoStatus":"1","orgName":"国网浙江杭州市萧山区供电有限公司","typeName":null,"infoStatusName":null,"dateDay":null,"orgNos":null,"nowTime":null,"countyName":null,"streetName":null,"villageName":null,"roadName":null,"communityName":null,"tranName":null,"sdLineName":null,"cityCode":"3340130","cityName":"国网浙江杭州市萧山区供电有限公司","provinceCode":null,"stopTime":"2020-04-16 11:30:00","powerType":"全部","powerOffArea":"110kV城东变:翔弘A591线-富地大厦1#公变后段","powerOffReason":"嘉豪分支箱内用户电缆拆头原停电结束时间为2020-04-1612:30:00,为减少客户停电时间,加快工作进度,提前送电,现变更停电结束时间为2020-04-1611:30:00","powerOffId":"2020040831020351"},{"poweroffId":2020040831020348,"sgpoweroffId":null,"subsName":"","lineName":"10kV乐园674线","pubTranName":"农贸四配变,","scope":"浙江省-杭州市-萧山区-义蓬街道-蜜蜂行政村-蜜蜂自然村,义蓬街道-义盛社区(集镇,迎宾路,商业路)","startTime":"2020-04-17 09:00:00","stopDate":"2020-04-17 15:20:00","orgNo":"3340120","typeCode":"计划停电","poweroffArea":"35kV义盛变:乐园674线-农贸四配变后段","poweroffReason":"110KV义盛变乐园674线农贸四站农贸四配变负荷割接原停电结束时间为2020-04-1717:30:00,为减少客户停电时间,加快工作进度,提前送电,现变更停电结束时间为2020-04-1715:20:00","powerTime":"2020-04-17 14:35:01","powerComm":"已送电","subsNo":"","lineNo":"","tgNo":"","tgName":null,"infoStatus":"1","orgName":"国网浙江杭州市钱塘新区供电公司","typeName":null,"infoStatusName":null,"dateDay":null,"orgNos":null,"nowTime":null,"countyName":null,"streetName":null,"villageName":null,"roadName":null,"communityName":null,"tranName":null,"sdLineName":null,"cityCode":"3340120","cityName":"国网浙江杭州市钱塘新区供电公司","provinceCode":null,"stopTime":"2020-04-17 15:20:00","powerType":"全部","powerOffArea":"35kV义盛变:乐园674线-农贸四配变后段","powerOffReason":"110KV义盛变乐园674线农贸四站农贸四配变负荷割接原停电结束时间为2020-04-1717:30:00,为减少客户停电时间,加快工作进度,提前送电,现变更停电结束时间为2020-04-1715:20:00","powerOffId":"2020040831020348"},{"poweroffId":2020040831020346,"sgpoweroffId":null,"subsName":"","lineName":"10kV钱安357线","pubTranName":"钱民花苑18#变,钱民花苑19#箱变,","scope":"浙江省-杭州市-萧山区-河庄街道-蜀南行政村-河庄大道","startTime":"2020-04-16 09:00:00","stopDate":"2020-04-16 18:30:00","orgNo":"3340120","typeCode":"计划停电","poweroffArea":"110kV河庄变:钱安357线-钱安一站安置九线","poweroffReason":"钱民花苑18#、19#变美变更换工作原停电结束时间为2020-04-1619:00:00,为减少客户停电时间,加快工作进度,提前送电,现变更停电结束时间为2020-04-1618:30:00","powerTime":"2020-04-16 17:48:32","powerComm":"已送电","subsNo":"","lineNo":"","tgNo":"","tgName":null,"infoStatus":"1","orgName":"国网浙江杭州市钱塘新区供电公司","typeName":null,"infoStatusName":null,"dateDay":null,"orgNos":null,"nowTime":null,"countyName":null,"streetName":null,"villageName":null,"roadName":null,"communityName":null,"tranName":null,"sdLineName":null,"cityCode":"3340120","cityName":"国网浙江杭州市钱塘新区供电公司","provinceCode":null,"stopTime":"2020-04-16 18:30:00","powerType":"全部","powerOffArea":"110kV河庄变:钱安357线-钱安一站安置九线","powerOffReason":"钱民花苑18#、19#变美变更换工作原停电结束时间为2020-04-1619:00:00,为减少客户停电时间,加快工作进度,提前送电,现变更停电结束时间为2020-04-1618:30:00","powerOffId":"2020040831020346"},{"poweroffId":2020040831020345,"sgpoweroffId":null,"subsName":"","lineName":"10kV春利D744线","pubTranName":"杭州大丰纸业有限公司,","scope":"浙江省-杭州市-富阳区-春江街道-新建行政村-杭州大丰纸业有限公司","startTime":"2020-04-08 20:08:34","stopDate":"2020-04-08 21:08:34","orgNo":"3340170","typeCode":"电网故障停限电","poweroffArea":"110kV春联变:春利D744线-杭州大丰纸业有限公司后段","poweroffReason":"高压开关跳闸，原停电结束时间为2020-04-0822:08:34,为减少客户停电时间,加快工作进度,提前送电,现变更停电结束时间为2020-04-0821:08:34","powerTime":"2020-04-08 20:19:30","powerComm":"已送电","subsNo":"","lineNo":"","tgNo":"","tgName":null,"infoStatus":"1","orgName":"国网浙江杭州市富阳区供电公司","typeName":null,"infoStatusName":null,"dateDay":null,"orgNos":null,"nowTime":null,"countyName":null,"streetName":null,"villageName":null,"roadName":null,"communityName":null,"tranName":null,"sdLineName":null,"cityCode":"3340170","cityName":"国网浙江杭州市富阳区供电公司","provinceCode":null,"stopTime":"2020-04-08 21:08:34","powerType":"全部","powerOffArea":"110kV春联变:春利D744线-杭州大丰纸业有限公司后段","powerOffReason":"高压开关跳闸，原停电结束时间为2020-04-0822:08:34,为减少客户停电时间,加快工作进度,提前送电,现变更停电结束时间为2020-04-0821:08:34","powerOffId":"2020040831020345"},{"poweroffId":2020040831020344,"sgpoweroffId":null,"subsName":"","lineName":"10kV桂竹9412线","pubTranName":"长木(3),长木(2),长木(4),长木一局1#,长木一局2#,","scope":"浙江省-杭州市-下城区-东新街道-东新园社区(陶角里,香积寺路),东新街道(中舟社区-再行路,长青苑社区-东新路);浙江省-杭州市-下城区-东新街道-中国建筑一局(集团)有限公司浙江分公司","startTime":"2020-04-08 19:55:21","stopDate":"2020-04-09 07:55:21","orgNo":"3340101","typeCode":"电网故障停限电","poweroffArea":"110kV石桥变:桂竹9412线-长木2分线后段","poweroffReason":"高压开关跳闸 原停电结束时间为2020-04-08 23:55:21,因现场施工较为复杂原因,延迟送电,现变更停电结束时间为2020-04-09 07:55:21","powerTime":"2020-04-09 07:16:49","powerComm":"已送电","subsNo":"","lineNo":"","tgNo":"","tgName":null,"infoStatus":"1","orgName":"浙江杭州电力客户服务中心","typeName":null,"infoStatusName":null,"dateDay":null,"orgNos":null,"nowTime":null,"countyName":null,"streetName":null,"villageName":null,"roadName":null,"communityName":null,"tranName":null,"sdLineName":null,"cityCode":"3340101","cityName":"浙江杭州电力客户服务中心","provinceCode":null,"stopTime":"2020-04-09 07:55:21","powerType":"全部","powerOffArea":"110kV石桥变:桂竹9412线-长木2分线后段","powerOffReason":"高压开关跳闸 原停电结束时间为2020-04-08 23:55:21,因现场施工较为复杂原因,延迟送电,现变更停电结束时间为2020-04-09 07:55:21","powerOffId":"2020040831020344"}],"pageModel":{"pageNow":375,"totalCount":17788,"totalPage":1779,"tableRows":0,"pageCount":10,"beginCount":3740},"isExperi":"1"}