{"message":"","today":"2020-06-15","seleList":[{"poweroffId":2020040831020235,"sgpoweroffId":null,"subsName":"","lineName":"10kV金印9279线","pubTranName":"分星埠,","scope":"浙江省-杭州市-西湖区-三墩镇-双桥行政村-三仓路","startTime":"2020-04-08 14:54:00","stopDate":"2020-04-08 16:30:00","orgNo":"3340101","typeCode":"电网故障停限电","poweroffArea":"110kV三墩变:金印9279线分星埠配变","poweroffReason":"高压开关跳闸 原停电结束时间为2020-04-08 18:54:00,为减少客户停电时间,加快工作进度,提前送电,现变更停电结束时间为2020-04-08 16:30:00","powerTime":"2020-04-08 15:50:52","powerComm":"已送电","subsNo":"","lineNo":"","tgNo":"","tgName":null,"infoStatus":"1","orgName":"浙江杭州电力客户服务中心","typeName":null,"infoStatusName":null,"dateDay":null,"orgNos":null,"nowTime":null,"countyName":null,"streetName":null,"villageName":null,"roadName":null,"communityName":null,"tranName":null,"sdLineName":null,"cityCode":"3340101","cityName":"浙江杭州电力客户服务中心","provinceCode":null,"stopTime":"2020-04-08 16:30:00","powerType":"全部","powerOffArea":"110kV三墩变:金印9279线分星埠配变","powerOffReason":"高压开关跳闸 原停电结束时间为2020-04-08 18:54:00,为减少客户停电时间,加快工作进度,提前送电,现变更停电结束时间为2020-04-08 16:30:00","powerOffId":"2020040831020235"},{"poweroffId":2020040831020233,"sgpoweroffId":null,"subsName":"","lineName":"10kV晖桥8093线","pubTranName":"金江一变,","scope":"浙江省-杭州市-滨江区-长河街道-江一社区-春晓路与滨兴路丁字路口","startTime":"2020-04-08 14:48:35","stopDate":"2020-04-08 18:48:35","orgNo":"3340101","typeCode":"电网故障停限电","poweroffArea":"110kV西兴变:晖桥8093线-金江一变后段","poweroffReason":"高压开关跳闸","powerTime":"2020-04-08 18:09:05","powerComm":"已送电","subsNo":"","lineNo":"","tgNo":"","tgName":null,"infoStatus":"1","orgName":"浙江杭州电力客户服务中心","typeName":null,"infoStatusName":null,"dateDay":null,"orgNos":null,"nowTime":null,"countyName":null,"streetName":null,"villageName":null,"roadName":null,"communityName":null,"tranName":null,"sdLineName":null,"cityCode":"3340101","cityName":"浙江杭州电力客户服务中心","provinceCode":null,"stopTime":"2020-04-08 18:48:35","powerType":"全部","powerOffArea":"110kV西兴变:晖桥8093线-金江一变后段","powerOffReason":"高压开关跳闸","powerOffId":"2020040831020233"},{"poweroffId":2020040831020216,"sgpoweroffId":null,"subsName":"","lineName":"10kV草洋C822线","pubTranName":"项漾村3#变,","scope":"浙江省-杭州市-萧山区-衙前镇-项漾行政村(项家自然村,衙前路,保安路)一带","startTime":"2020-04-08 14:07:58","stopDate":"2020-04-08 15:30:58","orgNo":"3340130","typeCode":"电网故障停限电","poweroffArea":"110kV罗山变:草洋C822线-项漾村3#变后段","poweroffReason":"(低压停电信息)低压开关跳闸 原停电结束时间为2020-04-08 16:00:58,为减少客户停电时间,加快工作进度,提前送电,现变更停电结束时间为2020-04-08 15:30:58","powerTime":"2020-04-08 14:44:21","powerComm":"已送电","subsNo":"","lineNo":"","tgNo":"","tgName":null,"infoStatus":"1","orgName":"国网浙江杭州市萧山区供电有限公司","typeName":null,"infoStatusName":null,"dateDay":null,"orgNos":null,"nowTime":null,"countyName":null,"streetName":null,"villageName":null,"roadName":null,"communityName":null,"tranName":null,"sdLineName":null,"cityCode":"3340130","cityName":"国网浙江杭州市萧山区供电有限公司","provinceCode":null,"stopTime":"2020-04-08 15:30:58","powerType":"全部","powerOffArea":"110kV罗山变:草洋C822线-项漾村3#变后段","powerOffReason":"(低压停电信息)低压开关跳闸 原停电结束时间为2020-04-08 16:00:58,为减少客户停电时间,加快工作进度,提前送电,现变更停电结束时间为2020-04-08 15:30:58","powerOffId":"2020040831020216"},{"poweroffId":2020040831020212,"sgpoweroffId":null,"subsName":"","lineName":"10kV士电7171线","pubTranName":"和利时1,旭化医械1#,罗依尔1#,和利时1,旭化医械2,美坚华,盛天仓储1#,罗依尔2#,罗依儿,盛天仓储,盛天仓储2#,罗依尔3#,","scope":"浙江省-杭州市-江干区-误白杨街道(旭化成医疗器械(杭州)有限公司,杭州美坚华包装材料有限公司,杭州和利时自动化有限公司,浙江杭电实业有限公司,杭州盛天仓储有限公司)","startTime":"2020-04-08 13:45:00","stopDate":"2020-04-08 15:50:00","orgNo":"3340120","typeCode":"电网故障停限电","poweroffArea":"110kV沿江变:士电7171线微电站士电7171线后段","poweroffReason":"高压开关跳闸 原停电结束时间为2020-04-08 17:30:00,为减少客户停电时间,加快工作进度,提前送电,现变更停电结束时间为2020-04-08 15:50:00","powerTime":"2020-04-08 14:53:54","powerComm":"已送电","subsNo":"","lineNo":"","tgNo":"","tgName":null,"infoStatus":"1","orgName":"国网浙江杭州市钱塘新区供电公司","typeName":null,"infoStatusName":null,"dateDay":null,"orgNos":null,"nowTime":null,"countyName":null,"streetName":null,"villageName":null,"roadName":null,"communityName":null,"tranName":null,"sdLineName":null,"cityCode":"3340120","cityName":"国网浙江杭州市钱塘新区供电公司","provinceCode":null,"stopTime":"2020-04-08 15:50:00","powerType":"全部","powerOffArea":"110kV沿江变:士电7171线微电站士电7171线后段","powerOffReason":"高压开关跳闸 原停电结束时间为2020-04-08 17:30:00,为减少客户停电时间,加快工作进度,提前送电,现变更停电结束时间为2020-04-08 15:50:00","powerOffId":"2020040831020212"},{"poweroffId":2020040831020209,"sgpoweroffId":null,"subsName":"","lineName":"10kV百诺9188线","pubTranName":"三花车桥,污水泵站1,友华机械1#,杭康生药3,东芝1,三花车桥,东芝1,友华机械2#,东芝1,友华机械3#,奥普卫浴2#,","scope":"浙江省-杭州市-江干区-误白杨街道-误白杨社区杭州三花微通道换热器有限公司,杭州和达市政园林建设有限公司,奥普家居股份有限公司,杭州友华精密机械有限公司,玳能科技(杭州)有限公司,浙江杭康药业有限公司","startTime":"2020-04-08 13:38:00","stopDate":"2020-04-08 15:50:00","orgNo":"3340120","typeCode":"电网故障停限电","poweroffArea":"110kV新港变:百诺9188线","poweroffReason":"高压开关跳闸 原停电结束时间为2020-04-08 17:30:00,为减少客户停电时间,加快工作进度,提前送电,现变更停电结束时间为2020-04-08 15:50:00","powerTime":"2020-04-08 14:54:14","powerComm":"已送电","subsNo":"","lineNo":"","tgNo":"","tgName":null,"infoStatus":"1","orgName":"国网浙江杭州市钱塘新区供电公司","typeName":null,"infoStatusName":null,"dateDay":null,"orgNos":null,"nowTime":null,"countyName":null,"streetName":null,"villageName":null,"roadName":null,"communityName":null,"tranName":null,"sdLineName":null,"cityCode":"3340120","cityName":"国网浙江杭州市钱塘新区供电公司","provinceCode":null,"stopTime":"2020-04-08 15:50:00","powerType":"全部","powerOffArea":"110kV新港变:百诺9188线","powerOffReason":"高压开关跳闸 原停电结束时间为2020-04-08 17:30:00,为减少客户停电时间,加快工作进度,提前送电,现变更停电结束时间为2020-04-08 15:50:00","powerOffId":"2020040831020209"},{"poweroffId":2020040831020198,"sgpoweroffId":null,"subsName":"","lineName":"10kV森禾H647线","pubTranName":"浙江省建工集团有限责任公司,浙江省建工集团有限责任公司,欧港置业,1#,中快1号基建,浙江省建工集团有限责任公司,中快3号基建,爱力领富工棚,杭州舒亚科技有限公司,欧港置业,未来科技城路灯地埋变,中快2号基建,","scope":"浙江省-杭州市-余杭区-仓前街道-葛巷行政村(杭州未来科技城建设有限公司,浙江省建工集团有限责任公司),仓前街道-朱庙行政村(杭州舒亚科技有限公司,中铁四局集团有限公司城市轨道交通工程分公司,中铁一局集团第五工程有限公司),仓前街道-灵源行政村-杭州市地铁集团有限责任公司,五常街道-永福社区-杭州爱力领富科技股份有限公司","startTime":"2020-04-08 13:15:00","stopDate":"2020-04-08 15:50:00","orgNo":"3340140","typeCode":"电网故障停限电","poweroffArea":"110kV永福变:森禾H647线-红旗排分线后段","poweroffReason":"高压开关跳闸","powerTime":"2020-04-08 15:02:00","powerComm":"已送电","subsNo":"","lineNo":"","tgNo":"","tgName":null,"infoStatus":"1","orgName":"国网浙江杭州市余杭区供电有限公司","typeName":null,"infoStatusName":null,"dateDay":null,"orgNos":null,"nowTime":null,"countyName":null,"streetName":null,"villageName":null,"roadName":null,"communityName":null,"tranName":null,"sdLineName":null,"cityCode":"3340140","cityName":"国网浙江杭州市余杭区供电有限公司","provinceCode":null,"stopTime":"2020-04-08 15:50:00","powerType":"全部","powerOffArea":"110kV永福变:森禾H647线-红旗排分线后段","powerOffReason":"高压开关跳闸","powerOffId":"2020040831020198"},{"poweroffId":2020040831020197,"sgpoweroffId":null,"subsName":"","lineName":"10kV下涯Y301线","pubTranName":"官路村官路村变台区,","scope":"浙江省-杭州市-建德市-杨村桥镇-杨村桥行政村-百旗街,杨村桥镇-官路行政村胡家自然村,官路自然村,梓木畈自然村,官路新村","startTime":"2020-04-08 13:05:00","stopDate":"2020-04-08 15:00:00","orgNo":"3340180","typeCode":"电网故障停限电","poweroffArea":"110kV梅城变:下涯Y301线-官路村官路村变台区后段","poweroffReason":"(低压停电信息)低压开关跳闸","powerTime":"2020-04-08 14:06:45","powerComm":"已送电","subsNo":"","lineNo":"","tgNo":"","tgName":null,"infoStatus":"1","orgName":"国网浙江建德市供电有限公司","typeName":null,"infoStatusName":null,"dateDay":null,"orgNos":null,"nowTime":null,"countyName":null,"streetName":null,"villageName":null,"roadName":null,"communityName":null,"tranName":null,"sdLineName":null,"cityCode":"3340180","cityName":"国网浙江建德市供电有限公司","provinceCode":null,"stopTime":"2020-04-08 15:00:00","powerType":"全部","powerOffArea":"110kV梅城变:下涯Y301线-官路村官路村变台区后段","powerOffReason":"(低压停电信息)低压开关跳闸","powerOffId":"2020040831020197"},{"poweroffId":2020040831020194,"sgpoweroffId":null,"subsName":"","lineName":"10kV兴美8471线","pubTranName":"农波三变,春波十一变,东会一变,美尔杰,农波十三变,新东变2#,农波十一变,金绣4#,春波六变,农波五变,农波十五变,1,美达物业,新东变4#,农波一变,农波九变,春波一变,春波二变,新东变1#,金绣2#,春波八变,春波十变,农波十七变,1,春波五,农波七变,新东变3#,","scope":"浙江省-杭州市-滨江区-长河街道-江一社区(江陵路,春波路,,春波南苑,滨江区春波小区),西兴街道-东方商务会馆小区","startTime":"2020-04-08 13:04:00","stopDate":"2020-04-08 15:04:00","orgNo":"3340101","typeCode":"电网故障停限电","poweroffArea":"220kV兴南变:兴美8471线美杰站兴美8471线后段","poweroffReason":"高压开关跳闸 原停电结束时间为2020-04-08 17:04:00,为减少客户停电时间,加快工作进度,提前送电,现变更停电结束时间为2020-04-08 15:04:00","powerTime":"2020-04-08 14:48:54","powerComm":"已送电","subsNo":"","lineNo":"","tgNo":"","tgName":null,"infoStatus":"1","orgName":"浙江杭州电力客户服务中心","typeName":null,"infoStatusName":null,"dateDay":null,"orgNos":null,"nowTime":null,"countyName":null,"streetName":null,"villageName":null,"roadName":null,"communityName":null,"tranName":null,"sdLineName":null,"cityCode":"3340101","cityName":"浙江杭州电力客户服务中心","provinceCode":null,"stopTime":"2020-04-08 15:04:00","powerType":"全部","powerOffArea":"220kV兴南变:兴美8471线美杰站兴美8471线后段","powerOffReason":"高压开关跳闸 原停电结束时间为2020-04-08 17:04:00,为减少客户停电时间,加快工作进度,提前送电,现变更停电结束时间为2020-04-08 15:04:00","powerOffId":"2020040831020194"},{"poweroffId":2020040831020193,"sgpoweroffId":null,"subsName":"","lineName":"10kV晖桥8093线","pubTranName":"金江一变,铂寓七变,济园2#,济园1#,春西十一变,旅职一,赢建施1#,春西七变,春西十三变,春西九变,春西五变,铂寓三变,赢建施2#,春南二变,春南四变,铂寓九变,春西三变,赢建施3#,济园4#,铂寓一变,赢建施4#,春西一变,铂寓五变,铂寓八变,济园3#,赢建施5#,","scope":"浙江省-杭州市-滨江区-西兴街道-温馨社区-春晓路,西兴街道-金东方社区(春晓路,铂金时代小区),长河街道-江一社区(江一,江陵路,春波西苑,滨江区春波小区);长河街道(杭州旅游职业学校,杭州高新技术产业开发区资产经营有限公司,杭州中赢华恒置业有限公司)","startTime":"2020-04-08 13:04:00","stopDate":"2020-04-08 15:30:00","orgNo":"3340101","typeCode":"电网故障停限电","poweroffArea":"110kV西兴变:晖桥8093线金潮站晖桥8093线后段","poweroffReason":"高压开关跳闸 原停电结束时间为2020-04-08 17:04:00,为减少客户停电时间,加快工作进度,提前送电,现变更停电结束时间为2020-04-08 15:30:00","powerTime":"2020-04-08 14:47:13","powerComm":"已送电","subsNo":"","lineNo":"","tgNo":"","tgName":null,"infoStatus":"1","orgName":"浙江杭州电力客户服务中心","typeName":null,"infoStatusName":null,"dateDay":null,"orgNos":null,"nowTime":null,"countyName":null,"streetName":null,"villageName":null,"roadName":null,"communityName":null,"tranName":null,"sdLineName":null,"cityCode":"3340101","cityName":"浙江杭州电力客户服务中心","provinceCode":null,"stopTime":"2020-04-08 15:30:00","powerType":"全部","powerOffArea":"110kV西兴变:晖桥8093线金潮站晖桥8093线后段","powerOffReason":"高压开关跳闸 原停电结束时间为2020-04-08 17:04:00,为减少客户停电时间,加快工作进度,提前送电,现变更停电结束时间为2020-04-08 15:30:00","powerOffId":"2020040831020193"},{"poweroffId":2020040831020189,"sgpoweroffId":null,"subsName":"","lineName":"10kV下城T272线","pubTranName":"下城1号公变,","scope":"浙江省-杭州市-桐庐县-城南街道-金中行政村(下城自然村,青山自然村,尖端路)","startTime":"2020-04-08 12:30:48","stopDate":"2020-04-08 16:00:48","orgNo":"3340150","typeCode":"电网故障停限电","poweroffArea":"35kV三合变:下城T272线-下城1号公变后段","poweroffReason":"(低压停电信息)低压开关跳闸","powerTime":"2020-04-08 15:58:20","powerComm":"已送电","subsNo":"","lineNo":"","tgNo":"","tgName":null,"infoStatus":"1","orgName":"国网浙江桐庐县供电公司","typeName":null,"infoStatusName":null,"dateDay":null,"orgNos":null,"nowTime":null,"countyName":null,"streetName":null,"villageName":null,"roadName":null,"communityName":null,"tranName":null,"sdLineName":null,"cityCode":"3340150","cityName":"国网浙江桐庐县供电公司","provinceCode":null,"stopTime":"2020-04-08 16:00:48","powerType":"全部","powerOffArea":"35kV三合变:下城T272线-下城1号公变后段","powerOffReason":"(低压停电信息)低压开关跳闸","powerOffId":"2020040831020189"}],"pageModel":{"pageNow":377,"totalCount":17788,"totalPage":1779,"tableRows":0,"pageCount":10,"beginCount":3760},"isExperi":"1"}