{"message":"","today":"2020-06-15","seleList":[{"poweroffId":2020040831020176,"sgpoweroffId":null,"subsName":"","lineName":"10kV梅花6357线","pubTranName":"直吉,","scope":"浙江省-杭州市-上城区-小营街道-直吉祥巷,小营街道-西牌楼社区(百岁坊巷,百安坊巷,,横吉祥巷)","startTime":"2020-04-08 11:40:00","stopDate":"2020-04-08 13:00:00","orgNo":"3340101","typeCode":"电网故障停限电","poweroffArea":"110kV滨江变:梅花6357线直吉配变","poweroffReason":"高压开关跳闸 原停电结束时间为2020-04-08 17:40:00,为减少客户停电时间,加快工作进度,提前送电,现变更停电结束时间为2020-04-08 13:00:00","powerTime":"2020-04-08 12:14:11","powerComm":"已送电","subsNo":"","lineNo":"","tgNo":"","tgName":null,"infoStatus":"1","orgName":"浙江杭州电力客户服务中心","typeName":null,"infoStatusName":null,"dateDay":null,"orgNos":null,"nowTime":null,"countyName":null,"streetName":null,"villageName":null,"roadName":null,"communityName":null,"tranName":null,"sdLineName":null,"cityCode":"3340101","cityName":"浙江杭州电力客户服务中心","provinceCode":null,"stopTime":"2020-04-08 13:00:00","powerType":"全部","powerOffArea":"110kV滨江变:梅花6357线直吉配变","powerOffReason":"高压开关跳闸 原停电结束时间为2020-04-08 17:40:00,为减少客户停电时间,加快工作进度,提前送电,现变更停电结束时间为2020-04-08 13:00:00","powerOffId":"2020040831020176"},{"poweroffId":2020040831020170,"sgpoweroffId":null,"subsName":"","lineName":"10kV金典8818线","pubTranName":"瑞盛浜施2,瑞盛浜施6,星源7,天马置业4,水务控股,五八威施5,2,桃幼,桃卫1#,金典三,桃金小学1,天马置业2,广绣一变,金典一,星源5,桃源幼儿1#,联嘉地产3#,广绣七变,五八威施3,瑞盛浜施4,上宸五变,瑞盛浜施3,春华七变,天马置业1,天马置业3,袁家一,广绣三变,上宸九变,五八威施4,桃源幼儿2#,联嘉地产2#,五八威施1,袁家三,瑞盛浜施5,车库2#,五八威施2,1,金星经社1,星源3,桃卫2#,春华十一变,桃金小学2,天马置业5,永秀幼儿,杭远房产2,星源1,瑞盛浜施1,金星(3)西农,天马置业6,春华一变,路灯金典,春华五变,电梯,联嘉地产1#,金星经社2,广绣五变,春华九变,车库1#,春华三变,路灯袁院,星源9,上宸七变,五八威施6,杭远房产1,","scope":"浙江省-杭州市-拱墅区-半山街道-半山社区-沈半路,-金星社区(桃源街,翠锦路,丰源路,金典巷),上塘街道-皋亭社区(储鑫路9号)","startTime":"2020-04-08 11:11:36","stopDate":"2020-04-08 12:40:00","orgNo":"3340101","typeCode":"电网故障停限电","poweroffArea":"110kV拱宸变:金典8818线塘章站塘上88181线后段","poweroffReason":"高压开关跳闸 原停电结束时间为2020-04-08 16:55:00,为减少客户停电时间,加快工作进度,提前送电,现变更停电结束时间为2020-04-08 12:40:00","powerTime":"2020-04-08 12:08:08","powerComm":"已送电","subsNo":"","lineNo":"","tgNo":"","tgName":null,"infoStatus":"1","orgName":"浙江杭州电力客户服务中心","typeName":null,"infoStatusName":null,"dateDay":null,"orgNos":null,"nowTime":null,"countyName":null,"streetName":null,"villageName":null,"roadName":null,"communityName":null,"tranName":null,"sdLineName":null,"cityCode":"3340101","cityName":"浙江杭州电力客户服务中心","provinceCode":null,"stopTime":"2020-04-08 12:40:00","powerType":"全部","powerOffArea":"110kV拱宸变:金典8818线塘章站塘上88181线后段","powerOffReason":"高压开关跳闸 原停电结束时间为2020-04-08 16:55:00,为减少客户停电时间,加快工作进度,提前送电,现变更停电结束时间为2020-04-08 12:40:00","powerOffId":"2020040831020170"},{"poweroffId":2020040831020158,"sgpoweroffId":null,"subsName":"","lineName":"10kV国投8824线","pubTranName":"隽逸一,武警2,武警1,隽逸三,隽逸五,隽逸七,幼儿园2,","scope":"浙江省-杭州市-拱墅区-上塘街道-皋亭社区-隽逸路;上塘街道皋亭社区隽逸花苑小区 上塘街道(浙师大杭州幼儿师范学院第二附属幼儿园,)","startTime":"2020-04-08 10:33:00","stopDate":"2020-04-08 20:33:00","orgNo":"3340101","typeCode":"电网故障停限电","poweroffArea":"110kV拱宸变:国投8824线皋寓站国投8824线后段","poweroffReason":"高压开关跳闸 原停电结束时间为2020-04-08 14:33:00,因施工现场环境比较复杂，存在不确定因素，预估施工时间不足原因,延迟送电,现变更停电结束时间为2020-04-08 20:33:00","powerTime":"2020-04-08 20:06:03","powerComm":"已送电","subsNo":"","lineNo":"","tgNo":"","tgName":null,"infoStatus":"1","orgName":"浙江杭州电力客户服务中心","typeName":null,"infoStatusName":null,"dateDay":null,"orgNos":null,"nowTime":null,"countyName":null,"streetName":null,"villageName":null,"roadName":null,"communityName":null,"tranName":null,"sdLineName":null,"cityCode":"3340101","cityName":"浙江杭州电力客户服务中心","provinceCode":null,"stopTime":"2020-04-08 20:33:00","powerType":"全部","powerOffArea":"110kV拱宸变:国投8824线皋寓站国投8824线后段","powerOffReason":"高压开关跳闸 原停电结束时间为2020-04-08 14:33:00,因施工现场环境比较复杂，存在不确定因素，预估施工时间不足原因,延迟送电,现变更停电结束时间为2020-04-08 20:33:00","powerOffId":"2020040831020158"},{"poweroffId":2020040831020133,"sgpoweroffId":null,"subsName":"","lineName":"10kV景福H541线","pubTranName":"杭州大麓茶业有限公司6110116221,杭州径山神龙茶业有限公司6110116019,庆宏印刷制品,小古城村侯家公变,小古城村横坑5组公变,东巨实业6110116223,小古城村横坑6组公变,杭州茶叶试验场6110119023,小古城村杨家畈1号公变,杭州茶叶试验场6110119011,小古城村赤子弄公变,小古城村杨家畈2号公变,","scope":"浙江省-杭州市-余杭区-径山镇-径山行政村-径山自然村,径山镇-小古城行政村(枉坑自然村,小古城自然村,钱家滩自然村,赤子异自然村,上房自然村,杨家畈自然村);瓶窑镇-杭州茶叶试验场有限公司,径山镇(杭州径山神龙茶业有限公司,杭州大麓茶业有限公司,杭州庆宏印刷制品有限公司,杭州东巨实业有限公司)","startTime":"2020-04-08 09:45:00","stopDate":"2020-04-08 11:20:00","orgNo":"3340140","typeCode":"电网故障停限电","poweroffArea":"110kV潘板变:景福H541线古村环网站景福总分线后段","poweroffReason":"高压开关跳闸","powerTime":"2020-04-08 11:00:00","powerComm":"已送电","subsNo":"","lineNo":"","tgNo":"","tgName":null,"infoStatus":"1","orgName":"国网浙江杭州市余杭区供电有限公司","typeName":null,"infoStatusName":null,"dateDay":null,"orgNos":null,"nowTime":null,"countyName":null,"streetName":null,"villageName":null,"roadName":null,"communityName":null,"tranName":null,"sdLineName":null,"cityCode":"3340140","cityName":"国网浙江杭州市余杭区供电有限公司","provinceCode":null,"stopTime":"2020-04-08 11:20:00","powerType":"全部","powerOffArea":"110kV潘板变:景福H541线古村环网站景福总分线后段","powerOffReason":"高压开关跳闸","powerOffId":"2020040831020133"},{"poweroffId":2020040831020132,"sgpoweroffId":null,"subsName":"","lineName":"10kV景福H541线","pubTranName":"小古城村钱家滩村公变,小古城村杨家畈1号公变,小古城村杨家畈2号公变,小古城村横坑6组公变,杭州茶叶试验场6110119011,杭州茶叶试验场6110119023,潘板集镇老中学公变,小古城村侯家公变,庆宏印刷制品,小古城村横坑5组公变,小古城村赤子弄公变,","scope":"浙江省-杭州市-余杭区-径山镇-径山行政村-径山自然村,径山镇-小古城行政村(枉坑自然村,小古城自然村,钱家滩自然村,赤子异自然村,上房自然村,杨家畈自然村,杨府山自然村,西边山自然村),径山镇-潘坂桥行政村(潘坂桥自然村,感塘村);瓶窑镇-杭州茶叶试验场有限公司,径山镇-杭州庆宏印刷制品有限公司","startTime":"2020-04-08 09:43:00","stopDate":"2020-04-08 11:40:00","orgNo":"3340140","typeCode":"电网故障停限电","poweroffArea":"110kV潘板变:景福H541线景福总分线18号杆开关后段","poweroffReason":"高压开关跳闸","powerTime":"2020-04-08 11:01:00","powerComm":"已送电","subsNo":"","lineNo":"","tgNo":"","tgName":null,"infoStatus":"1","orgName":"国网浙江杭州市余杭区供电有限公司","typeName":null,"infoStatusName":null,"dateDay":null,"orgNos":null,"nowTime":null,"countyName":null,"streetName":null,"villageName":null,"roadName":null,"communityName":null,"tranName":null,"sdLineName":null,"cityCode":"3340140","cityName":"国网浙江杭州市余杭区供电有限公司","provinceCode":null,"stopTime":"2020-04-08 11:40:00","powerType":"全部","powerOffArea":"110kV潘板变:景福H541线景福总分线18号杆开关后段","powerOffReason":"高压开关跳闸","powerOffId":"2020040831020132"},{"poweroffId":2020040831020129,"sgpoweroffId":null,"subsName":"","lineName":"10kV大浒8752线","pubTranName":"浒安(八),浒安(六),","scope":"浙江省-杭州市-拱墅区-大关街道-西苑第二社区-大关路,上塘街道-绍兴路社区(双绍路,上绍路),红建河社区大浒东苑小区","startTime":"2020-04-08 09:41:20","stopDate":"2020-04-08 10:34:00","orgNo":"3340101","typeCode":"电网故障停限电","poweroffArea":"110kV大关变:大浒8752线浒安三站安站四线后段","poweroffReason":"高压开关跳闸 原停电结束时间为2020-04-08 13:34:00,为减少客户停电时间,加快工作进度,提前送电,现变更停电结束时间为2020-04-08 10:34:00","powerTime":"2020-04-08 10:10:48","powerComm":"已送电","subsNo":"","lineNo":"","tgNo":"","tgName":null,"infoStatus":"1","orgName":"浙江杭州电力客户服务中心","typeName":null,"infoStatusName":null,"dateDay":null,"orgNos":null,"nowTime":null,"countyName":null,"streetName":null,"villageName":null,"roadName":null,"communityName":null,"tranName":null,"sdLineName":null,"cityCode":"3340101","cityName":"浙江杭州电力客户服务中心","provinceCode":null,"stopTime":"2020-04-08 10:34:00","powerType":"全部","powerOffArea":"110kV大关变:大浒8752线浒安三站安站四线后段","powerOffReason":"高压开关跳闸 原停电结束时间为2020-04-08 13:34:00,为减少客户停电时间,加快工作进度,提前送电,现变更停电结束时间为2020-04-08 10:34:00","powerOffId":"2020040831020129"},{"poweroffId":2020040831020128,"sgpoweroffId":null,"subsName":"","lineName":"10kV新博G031线","pubTranName":"新宇村戴家里公变,兴裕绸厂,新宇村戴家里2号公变,杭州市余杭区人民政府运河街道办事处变压器,新宇村梁安桥公变,新宇村北安桥公变,","scope":"浙江省-杭州市-余杭区-运河街道-新宇行政村(新圩自然村,新宇自然村,沈家里自然村);运河街道(博陆社区-杭州兴裕丝绸有限公司,新宇行政村-杭州余杭新宇股份经济合作社)","startTime":"2020-04-08 09:40:00","stopDate":"2020-04-08 11:30:00","orgNo":"3340140","typeCode":"电网故障停限电","poweroffArea":"110kV五杭变:新博G031线-北安桥分线开关后段","poweroffReason":"高压开关跳闸","powerTime":"2020-04-08 11:00:00","powerComm":"已送电","subsNo":"","lineNo":"","tgNo":"","tgName":null,"infoStatus":"1","orgName":"国网浙江杭州市余杭区供电有限公司","typeName":null,"infoStatusName":null,"dateDay":null,"orgNos":null,"nowTime":null,"countyName":null,"streetName":null,"villageName":null,"roadName":null,"communityName":null,"tranName":null,"sdLineName":null,"cityCode":"3340140","cityName":"国网浙江杭州市余杭区供电有限公司","provinceCode":null,"stopTime":"2020-04-08 11:30:00","powerType":"全部","powerOffArea":"110kV五杭变:新博G031线-北安桥分线开关后段","powerOffReason":"高压开关跳闸","powerOffId":"2020040831020128"},{"poweroffId":2020040831020112,"sgpoweroffId":null,"subsName":"","lineName":"10kV南园7234线","pubTranName":"江南星座5#,豪园五变,江南星座6#,钱塘5变,江南星座4#,豪园七变,春晓路路灯变,杭州滨兴房地产开发有限公司,江南星座2#,钱塘13变,钱塘3变,钱塘1变,江校二,江南星座3#,江南星座1#,豪园一变,豪园三变,钱塘7变,江校一,","scope":"浙江省-杭州市-滨江区-西兴街道-温馨社区-月明路,长河街道-江陵路-钱塘春晓小区,月明社区","startTime":"2020-04-08 09:25:14","stopDate":"2020-04-08 10:50:00","orgNo":"3340101","typeCode":"电网故障停限电","poweroffArea":"110kV江虹变:南园7234线江豪站豪南72341线后段","poweroffReason":"高压开关跳闸 原停电结束时间为2020-04-08 17:41:00,为减少客户停电时间,加快工作进度,提前送电,现变更停电结束时间为2020-04-08 10:50:00","powerTime":"2020-04-08 10:17:17","powerComm":"已送电","subsNo":"","lineNo":"","tgNo":"","tgName":null,"infoStatus":"1","orgName":"浙江杭州电力客户服务中心","typeName":null,"infoStatusName":null,"dateDay":null,"orgNos":null,"nowTime":null,"countyName":null,"streetName":null,"villageName":null,"roadName":null,"communityName":null,"tranName":null,"sdLineName":null,"cityCode":"3340101","cityName":"浙江杭州电力客户服务中心","provinceCode":null,"stopTime":"2020-04-08 10:50:00","powerType":"全部","powerOffArea":"110kV江虹变:南园7234线江豪站豪南72341线后段","powerOffReason":"高压开关跳闸 原停电结束时间为2020-04-08 17:41:00,为减少客户停电时间,加快工作进度,提前送电,现变更停电结束时间为2020-04-08 10:50:00","powerOffId":"2020040831020112"},{"poweroffId":2020040831020111,"sgpoweroffId":null,"subsName":"","lineName":"10kV高峰Y197线","pubTranName":"友谊村友洪台区,","scope":"浙江省-杭州市-建德市-洋溪街道-友谊行政村-友洪自然村","startTime":"2020-04-08 09:12:00","stopDate":"2020-04-08 10:10:00","orgNo":"3340180","typeCode":"电网故障停限电","poweroffArea":"35kV洋溪变:高峰Y197线友谊村友洪台区配变","poweroffReason":"(低压停电信息)配合停电工作 原停电结束时间为2020-04-08 12:00:00,为减少客户停电时间,加快工作进度,提前送电,现变更停电结束时间为2020-04-08 10:10:00","powerTime":"2020-04-08 09:39:34","powerComm":"已送电","subsNo":"","lineNo":"","tgNo":"","tgName":null,"infoStatus":"1","orgName":"国网浙江建德市供电有限公司","typeName":null,"infoStatusName":null,"dateDay":null,"orgNos":null,"nowTime":null,"countyName":null,"streetName":null,"villageName":null,"roadName":null,"communityName":null,"tranName":null,"sdLineName":null,"cityCode":"3340180","cityName":"国网浙江建德市供电有限公司","provinceCode":null,"stopTime":"2020-04-08 10:10:00","powerType":"全部","powerOffArea":"35kV洋溪变:高峰Y197线友谊村友洪台区配变","powerOffReason":"(低压停电信息)配合停电工作 原停电结束时间为2020-04-08 12:00:00,为减少客户停电时间,加快工作进度,提前送电,现变更停电结束时间为2020-04-08 10:10:00","powerOffId":"2020040831020111"},{"poweroffId":2020040831020106,"sgpoweroffId":null,"subsName":"","lineName":"10kV南园7234线","pubTranName":"豪西九变,","scope":"浙江省-杭州市-滨江区-长河街道-月明社区-月明路","startTime":"2020-04-08 09:14:18","stopDate":"2020-04-08 10:50:00","orgNo":"3340101","typeCode":"电网故障停限电","poweroffArea":"110kV江虹变:南园7234线豪西五站豪西变九线配变","poweroffReason":"高压开关跳闸 原停电结束时间为2020-04-08 16:45:00,为减少客户停电时间,加快工作进度,提前送电,现变更停电结束时间为2020-04-08 10:50:00","powerTime":"2020-04-08 10:14:13","powerComm":"已送电","subsNo":"","lineNo":"","tgNo":"","tgName":null,"infoStatus":"1","orgName":"浙江杭州电力客户服务中心","typeName":null,"infoStatusName":null,"dateDay":null,"orgNos":null,"nowTime":null,"countyName":null,"streetName":null,"villageName":null,"roadName":null,"communityName":null,"tranName":null,"sdLineName":null,"cityCode":"3340101","cityName":"浙江杭州电力客户服务中心","provinceCode":null,"stopTime":"2020-04-08 10:50:00","powerType":"全部","powerOffArea":"110kV江虹变:南园7234线豪西五站豪西变九线配变","powerOffReason":"高压开关跳闸 原停电结束时间为2020-04-08 16:45:00,为减少客户停电时间,加快工作进度,提前送电,现变更停电结束时间为2020-04-08 10:50:00","powerOffId":"2020040831020106"}],"pageModel":{"pageNow":378,"totalCount":17788,"totalPage":1779,"tableRows":0,"pageCount":10,"beginCount":3770},"isExperi":"1"}