{"message":"","today":"2020-06-15","seleList":[{"poweroffId":2020040831020103,"sgpoweroffId":null,"subsName":"","lineName":"10kV南瑞8464线","pubTranName":"钱塘17变,","scope":"浙江省-杭州市-滨江区-西兴街道-温馨社区-月明路-钱塘春晓小区","startTime":"2020-04-08 09:11:22","stopDate":"2020-04-08 10:50:00","orgNo":"3340101","typeCode":"电网故障停限电","poweroffArea":"220kV兴南变:南瑞8464线钱塘17变配变","poweroffReason":"高压开关跳闸 原停电结束时间为2020-04-08 17:03:00,为减少客户停电时间,加快工作进度,提前送电,现变更停电结束时间为2020-04-08 10:50:00","powerTime":"2020-04-08 10:10:47","powerComm":"已送电","subsNo":"","lineNo":"","tgNo":"","tgName":null,"infoStatus":"1","orgName":"浙江杭州电力客户服务中心","typeName":null,"infoStatusName":null,"dateDay":null,"orgNos":null,"nowTime":null,"countyName":null,"streetName":null,"villageName":null,"roadName":null,"communityName":null,"tranName":null,"sdLineName":null,"cityCode":"3340101","cityName":"浙江杭州电力客户服务中心","provinceCode":null,"stopTime":"2020-04-08 10:50:00","powerType":"全部","powerOffArea":"220kV兴南变:南瑞8464线钱塘17变配变","powerOffReason":"高压开关跳闸 原停电结束时间为2020-04-08 17:03:00,为减少客户停电时间,加快工作进度,提前送电,现变更停电结束时间为2020-04-08 10:50:00","powerOffId":"2020040831020103"},{"poweroffId":2020040831020102,"sgpoweroffId":null,"subsName":"","lineName":"10kV海威8988线","pubTranName":"海威六变,","scope":"浙江省-杭州市-滨江区-长河街道-闻涛社区(闻涛路,滨盛路)","startTime":"2020-04-08 09:10:37","stopDate":"2020-04-08 10:50:00","orgNo":"3340101","typeCode":"电网故障停限电","poweroffArea":"110kV江一变:海威8988线海威六变海威六变配变","poweroffReason":"高压开关跳闸 原停电结束时间为2020-04-08 12:45:00,为减少客户停电时间,加快工作进度,提前送电,现变更停电结束时间为2020-04-08 10:50:00","powerTime":"2020-04-08 10:12:56","powerComm":"已送电","subsNo":"","lineNo":"","tgNo":"","tgName":null,"infoStatus":"1","orgName":"浙江杭州电力客户服务中心","typeName":null,"infoStatusName":null,"dateDay":null,"orgNos":null,"nowTime":null,"countyName":null,"streetName":null,"villageName":null,"roadName":null,"communityName":null,"tranName":null,"sdLineName":null,"cityCode":"3340101","cityName":"浙江杭州电力客户服务中心","provinceCode":null,"stopTime":"2020-04-08 10:50:00","powerType":"全部","powerOffArea":"110kV江一变:海威8988线海威六变海威六变配变","powerOffReason":"高压开关跳闸 原停电结束时间为2020-04-08 12:45:00,为减少客户停电时间,加快工作进度,提前送电,现变更停电结束时间为2020-04-08 10:50:00","powerOffId":"2020040831020102"},{"poweroffId":2020040831020101,"sgpoweroffId":null,"subsName":"","lineName":"10kV江馆7255线","pubTranName":"中赢华倬变压器,江二建管施3#,杭州新可乐大酒店有限公司,滨兴幼儿园1#,滨体2#,兴东四变,山合变压器1,杭州新可乐大酒店有限公司,丹香四变,山合变压器2,梁英5#,丹香六变,江二建管施5#,梁英4#,梁英2#,兴东一变,兴东三变,中赢华倬2变压器2,梁英3#,兴东二变,浙江省杭州滨兴学校,新科,梁英6#,滨体充三变,山合2变压器2,丹香八变,九鼎2#,丹香十二变,江二建管施4#,滨体充一变,滨体4#,山合2变压器2,梁英1#,中赢华倬变压器2,丹香二变,虹软施1#,江二建管施1#,江二建管施2#,虹软施3#,滨体2#,九鼎2#,滨体充二变,滨体1#,丹香十变,虹软施2#,中赢华倬2变压器1,","scope":"浙江省-杭州市-滨江区-长河街道-江二社区(滨兴路,江虹路),长河街道-江一社区-滨兴路,西兴街道-共联社区-春晓路;长河街道(浙江省杭州滨兴学校,杭新科技(杭州)有限公司,杭州新可乐大酒店有限公司,浙江九鼎实业有限公司,杭州梁英实业有限公司,杭州市滨江区社会发展局,杭州联安物业管理有限公司,杭州中赢华倬置业有限公司,杭州市滨江区农村多层住宅建设管理中心,虹软科技股份有限公司)","startTime":"2020-04-08 09:10:46","stopDate":"2020-04-08 11:00:55","orgNo":"3340101","typeCode":"电网故障停限电","poweroffArea":"110kV江虹变:江馆7255线倬科站江馆7255线后段","poweroffReason":"高压开关跳闸 原停电结束时间为2020-04-08 15:10:55,为减少客户停电时间,加快工作进度,提前送电,现变更停电结束时间为2020-04-08 11:00:55","powerTime":"2020-04-08 10:21:51","powerComm":"已送电","subsNo":"","lineNo":"","tgNo":"","tgName":null,"infoStatus":"1","orgName":"浙江杭州电力客户服务中心","typeName":null,"infoStatusName":null,"dateDay":null,"orgNos":null,"nowTime":null,"countyName":null,"streetName":null,"villageName":null,"roadName":null,"communityName":null,"tranName":null,"sdLineName":null,"cityCode":"3340101","cityName":"浙江杭州电力客户服务中心","provinceCode":null,"stopTime":"2020-04-08 11:00:55","powerType":"全部","powerOffArea":"110kV江虹变:江馆7255线倬科站江馆7255线后段","powerOffReason":"高压开关跳闸 原停电结束时间为2020-04-08 15:10:55,为减少客户停电时间,加快工作进度,提前送电,现变更停电结束时间为2020-04-08 11:00:55","powerOffId":"2020040831020101"},{"poweroffId":2020040831020100,"sgpoweroffId":null,"subsName":"","lineName":"10kV南瑞8464线","pubTranName":"温馨十六变,","scope":"浙江省-杭州市-滨江区-西兴街道-温馨社区-月明路","startTime":"2020-04-08 09:10:12","stopDate":"2020-04-08 10:50:00","orgNo":"3340101","typeCode":"电网故障停限电","poweroffArea":"220kV兴南变:南瑞8464线温馨十六变配变","poweroffReason":"高压开关跳闸 原停电结束时间为2020-04-08 13:03:00,为减少客户停电时间,加快工作进度,提前送电,现变更停电结束时间为2020-04-08 10:50:00","powerTime":"2020-04-08 10:12:15","powerComm":"已送电","subsNo":"","lineNo":"","tgNo":"","tgName":null,"infoStatus":"1","orgName":"浙江杭州电力客户服务中心","typeName":null,"infoStatusName":null,"dateDay":null,"orgNos":null,"nowTime":null,"countyName":null,"streetName":null,"villageName":null,"roadName":null,"communityName":null,"tranName":null,"sdLineName":null,"cityCode":"3340101","cityName":"浙江杭州电力客户服务中心","provinceCode":null,"stopTime":"2020-04-08 10:50:00","powerType":"全部","powerOffArea":"220kV兴南变:南瑞8464线温馨十六变配变","powerOffReason":"高压开关跳闸 原停电结束时间为2020-04-08 13:03:00,为减少客户停电时间,加快工作进度,提前送电,现变更停电结束时间为2020-04-08 10:50:00","powerOffId":"2020040831020100"},{"poweroffId":2020040831020099,"sgpoweroffId":null,"subsName":"","lineName":"10kV神兴8473线","pubTranName":"滨归一变,钱塘11变,吉桥汽车3#,钱塘9变,土管局一,吉桥汽车1#,钱塘15变,吉桥汽车1#,钱塘春晓综合楼2#,吉桥汽车2#,钱塘春晓综合楼1#,钱塘16变,","scope":"浙江省-杭州市-滨江区-长河街道-江陵路-钱塘春晓小区,西兴街道(温馨社区-月明路,西兴社区-江陵路);长河街道-杭州滨江城建发展有限公司,西兴街道(浙江吉利控股集团有限公司,杭州市滨江区区级机关事务管理服务中心)","startTime":"2020-04-08 09:09:51","stopDate":"2020-04-08 10:40:00","orgNo":"3340101","typeCode":"电网故障停限电","poweroffArea":"220kV兴南变:神兴8473线滨花站馨滨89974线后段","poweroffReason":"高压开关跳闸 原停电结束时间为2020-04-08 13:03:00,为减少客户停电时间,加快工作进度,提前送电,现变更停电结束时间为2020-04-08 10:40:00","powerTime":"2020-04-08 10:09:01","powerComm":"已送电","subsNo":"","lineNo":"","tgNo":"","tgName":null,"infoStatus":"1","orgName":"浙江杭州电力客户服务中心","typeName":null,"infoStatusName":null,"dateDay":null,"orgNos":null,"nowTime":null,"countyName":null,"streetName":null,"villageName":null,"roadName":null,"communityName":null,"tranName":null,"sdLineName":null,"cityCode":"3340101","cityName":"浙江杭州电力客户服务中心","provinceCode":null,"stopTime":"2020-04-08 10:40:00","powerType":"全部","powerOffArea":"220kV兴南变:神兴8473线滨花站馨滨89974线后段","powerOffReason":"高压开关跳闸 原停电结束时间为2020-04-08 13:03:00,为减少客户停电时间,加快工作进度,提前送电,现变更停电结束时间为2020-04-08 10:40:00","powerOffId":"2020040831020099"},{"poweroffId":2020040831020098,"sgpoweroffId":null,"subsName":"","lineName":"10kV神兴8473线","pubTranName":"温馨六变,温馨十三变,吉桥汽车3#,温馨十七变,温馨三变,钱塘9变,温馨十一变,馨专变二,钱塘春晓综合楼1#,温馨九变,土管局一,温馨十五变,温馨一变,钱塘11变,吉桥汽车1#,钱塘16变,滨归一变,钱塘春晓综合楼2#,实验学校一,吉桥汽车1#,馨专变一,温馨二变,钱塘15变,温馨五变,吉桥汽车2#,实验学校二,","scope":"浙江省-杭州市-滨江区-长河街道-江陵路-钱塘春晓小区,西兴街道(温馨社区-月明路,西兴社区-江陵路);长河街道","startTime":"2020-04-08 09:03:00","stopDate":"2020-04-08 10:40:00","orgNo":"3340101","typeCode":"电网故障停限电","poweroffArea":"220kV兴南变:神兴8473线馨苑站神馨89975线后段","poweroffReason":"高压开关跳闸 原停电结束时间为2020-04-08 17:03:00,为减少客户停电时间,加快工作进度,提前送电,现变更停电结束时间为2020-04-08 10:40:00","powerTime":"2020-04-08 10:07:36","powerComm":"已送电","subsNo":"","lineNo":"","tgNo":"","tgName":null,"infoStatus":"1","orgName":"浙江杭州电力客户服务中心","typeName":null,"infoStatusName":null,"dateDay":null,"orgNos":null,"nowTime":null,"countyName":null,"streetName":null,"villageName":null,"roadName":null,"communityName":null,"tranName":null,"sdLineName":null,"cityCode":"3340101","cityName":"浙江杭州电力客户服务中心","provinceCode":null,"stopTime":"2020-04-08 10:40:00","powerType":"全部","powerOffArea":"220kV兴南变:神兴8473线馨苑站神馨89975线后段","powerOffReason":"高压开关跳闸 原停电结束时间为2020-04-08 17:03:00,为减少客户停电时间,加快工作进度,提前送电,现变更停电结束时间为2020-04-08 10:40:00","powerOffId":"2020040831020098"},{"poweroffId":2020040831020093,"sgpoweroffId":null,"subsName":"","lineName":"10kV滨花8103线","pubTranName":"中嘉7#,瑞花十一变,绿城物业服务集团有限公司杭州第二分公司1#变压器,瑞花五变,欣西二十一变,中嘉1#,欣西十五变,欣西十九变,中嘉6#,安望一变,荣安置业2#,绿城物业服务集团有限公司杭州第二分公司2#变压器,安望三变,停车场,中嘉8#,欣西十七变,中嘉4#,欣西十一变,瑞花十三变,瑞花三变,中嘉2#,中嘉5#,瑞花一变,中嘉3#,欣西十三变,瑞花九变,荣安置业1#,瑞花七变,安望五变,","scope":"浙江省-杭州市-滨江区-长河街道-江一社区-江汉路,长河街道-月明社区(江南望庄小区,月明路),西兴街道-温馨社区-滨和路,金东方社区-,西陵社区","startTime":"2020-04-08 09:03:00","stopDate":"2020-04-08 10:38:00","orgNo":"3340101","typeCode":"电网故障停限电","poweroffArea":"110kV西兴变:滨花8103线郡西站滨花8103线后段","poweroffReason":"高压开关跳闸 原停电结束时间为2020-04-08 17:03:00,为减少客户停电时间,加快工作进度,提前送电,现变更停电结束时间为2020-04-08 10:38:00","powerTime":"2020-04-08 10:11:28","powerComm":"已送电","subsNo":"","lineNo":"","tgNo":"","tgName":null,"infoStatus":"1","orgName":"浙江杭州电力客户服务中心","typeName":null,"infoStatusName":null,"dateDay":null,"orgNos":null,"nowTime":null,"countyName":null,"streetName":null,"villageName":null,"roadName":null,"communityName":null,"tranName":null,"sdLineName":null,"cityCode":"3340101","cityName":"浙江杭州电力客户服务中心","provinceCode":null,"stopTime":"2020-04-08 10:38:00","powerType":"全部","powerOffArea":"110kV西兴变:滨花8103线郡西站滨花8103线后段","powerOffReason":"高压开关跳闸 原停电结束时间为2020-04-08 17:03:00,为减少客户停电时间,加快工作进度,提前送电,现变更停电结束时间为2020-04-08 10:38:00","powerOffId":"2020040831020093"},{"poweroffId":2020040831020084,"sgpoweroffId":null,"subsName":"","lineName":"10kV海威8988线","pubTranName":"海威十二变,海威十变,","scope":"浙江省-杭州市-滨江区-长河街道-闻涛社区(滨盛路,闻涛路)海威国际小区","startTime":"2020-04-08 09:12:47","stopDate":"2020-04-08 10:50:00","orgNo":"3340101","typeCode":"电网故障停限电","poweroffArea":"110kV江一变:海威8988线海住三站海站六线后段","poweroffReason":"高压开关跳闸 原停电结束时间为2020-04-08 17:45:00,为减少客户停电时间,加快工作进度,提前送电,现变更停电结束时间为2020-04-08 10:50:00","powerTime":"2020-04-08 10:16:14","powerComm":"已送电","subsNo":"","lineNo":"","tgNo":"","tgName":null,"infoStatus":"1","orgName":"浙江杭州电力客户服务中心","typeName":null,"infoStatusName":null,"dateDay":null,"orgNos":null,"nowTime":null,"countyName":null,"streetName":null,"villageName":null,"roadName":null,"communityName":null,"tranName":null,"sdLineName":null,"cityCode":"3340101","cityName":"浙江杭州电力客户服务中心","provinceCode":null,"stopTime":"2020-04-08 10:50:00","powerType":"全部","powerOffArea":"110kV江一变:海威8988线海住三站海站六线后段","powerOffReason":"高压开关跳闸 原停电结束时间为2020-04-08 17:45:00,为减少客户停电时间,加快工作进度,提前送电,现变更停电结束时间为2020-04-08 10:50:00","powerOffId":"2020040831020084"},{"poweroffId":2020040831020083,"sgpoweroffId":null,"subsName":"","lineName":"10kV海威8988线","pubTranName":"海威二变,海威四变,","scope":"浙江省-杭州市-滨江区-长河街道-闻涛社区(滨盛路,闻涛路)海威国际小区","startTime":"2020-04-08 09:03:56","stopDate":"2020-04-08 10:50:00","orgNo":"3340101","typeCode":"电网故障停限电","poweroffArea":"110kV江一变:海威8988线海住一站海站二线后段","poweroffReason":"高压开关跳闸 原停电结束时间为2020-04-08 17:45:00,为减少客户停电时间,加快工作进度,提前送电,现变更停电结束时间为2020-04-08 10:50:00","powerTime":"2020-04-08 10:13:39","powerComm":"已送电","subsNo":"","lineNo":"","tgNo":"","tgName":null,"infoStatus":"1","orgName":"浙江杭州电力客户服务中心","typeName":null,"infoStatusName":null,"dateDay":null,"orgNos":null,"nowTime":null,"countyName":null,"streetName":null,"villageName":null,"roadName":null,"communityName":null,"tranName":null,"sdLineName":null,"cityCode":"3340101","cityName":"浙江杭州电力客户服务中心","provinceCode":null,"stopTime":"2020-04-08 10:50:00","powerType":"全部","powerOffArea":"110kV江一变:海威8988线海住一站海站二线后段","powerOffReason":"高压开关跳闸 原停电结束时间为2020-04-08 17:45:00,为减少客户停电时间,加快工作进度,提前送电,现变更停电结束时间为2020-04-08 10:50:00","powerOffId":"2020040831020083"},{"poweroffId":2020040831020081,"sgpoweroffId":null,"subsName":"","lineName":"10kV泊科7227线","pubTranName":"春风2#,电魂4#,电魂3#,新大集团二2#,赛诺1#,新大集团一2#,赛诺2#,电魂1#,天艺工贸专变,新大集团二1#,新大集团一1#,春风1#,春风4#,电魂2#,春风3#,","scope":"浙江省-杭州市-滨江区-西兴街道(杭州天艺工贸有限公司,浙江春风集团有限公司,赛诺菲(杭州)制药有限公司,杭州电魂网络科技股份有限公司,浙江新大集团有限公司)","startTime":"2020-04-08 09:03:02","stopDate":"2020-04-08 10:50:55","orgNo":"3340101","typeCode":"电网故障停限电","poweroffArea":"110kV江虹变:泊科7227线邮电站泊科7227线后段","poweroffReason":"高压开关跳闸 原停电结束时间为2020-04-08 17:44:55,为减少客户停电时间,加快工作进度,提前送电,现变更停电结束时间为2020-04-08 10:50:55","powerTime":"2020-04-08 10:16:50","powerComm":"已送电","subsNo":"","lineNo":"","tgNo":"","tgName":null,"infoStatus":"1","orgName":"浙江杭州电力客户服务中心","typeName":null,"infoStatusName":null,"dateDay":null,"orgNos":null,"nowTime":null,"countyName":null,"streetName":null,"villageName":null,"roadName":null,"communityName":null,"tranName":null,"sdLineName":null,"cityCode":"3340101","cityName":"浙江杭州电力客户服务中心","provinceCode":null,"stopTime":"2020-04-08 10:50:55","powerType":"全部","powerOffArea":"110kV江虹变:泊科7227线邮电站泊科7227线后段","powerOffReason":"高压开关跳闸 原停电结束时间为2020-04-08 17:44:55,为减少客户停电时间,加快工作进度,提前送电,现变更停电结束时间为2020-04-08 10:50:55","powerOffId":"2020040831020081"}],"pageModel":{"pageNow":379,"totalCount":17788,"totalPage":1779,"tableRows":0,"pageCount":10,"beginCount":3780},"isExperi":"1"}