{"message":"","today":"2020-06-15","seleList":[{"poweroffId":2020060531020845,"sgpoweroffId":null,"subsName":"","lineName":"10kV胜稼G058线","pubTranName":"杭州余杭区保障房建设有限公司（6120914111）04号专变,中交第二航务工程局有限公司61209201751#变压器,杭州余杭区保障房建设有限公司（6120914111）03号专变,杭州余杭区保障房建设有限公司（6120914111）02号专变,中交第二航务工程局有限公司（6120905851）02号专变,学稼7组2号公变,中交第二航务工程局有限公司（6120905851）01号专变,杭州余杭区保障房建设有限公司（6120914111）01号专变,","scope":"浙江省-杭州市-余杭区-乔司街道-朝阳行政村-新三自然村;乔司街道(吴家行政村-中交第二航务工程局有限公司,三角行政村-中交第二航务工程局有限公司,胜稼行政村-杭州余杭区保障房建设有限公司)","startTime":"2020-06-05 17:23:02","stopDate":"2020-06-05 19:23:02","orgNo":"3340140","typeCode":"电网故障停限电","poweroffArea":"110kV外乔变:胜稼G058线","poweroffReason":"高压开关跳闸","powerTime":"2020-06-05 19:20:22","powerComm":"已送电","subsNo":"","lineNo":"","tgNo":"","tgName":null,"infoStatus":"1","orgName":"国网浙江杭州市余杭区供电有限公司","typeName":null,"infoStatusName":null,"dateDay":null,"orgNos":null,"nowTime":null,"countyName":null,"streetName":null,"villageName":null,"roadName":null,"communityName":null,"tranName":null,"sdLineName":null,"cityCode":"3340140","cityName":"国网浙江杭州市余杭区供电有限公司","provinceCode":null,"stopTime":"2020-06-05 19:23:02","powerType":"全部","powerOffArea":"110kV外乔变:胜稼G058线","powerOffReason":"高压开关跳闸","powerOffId":"2020060531020845"},{"poweroffId":2020060531020841,"sgpoweroffId":null,"subsName":"","lineName":"10kV前源Y322线","pubTranName":"前源村八亩排台区,前源村大坪台区,","scope":"浙江省-杭州市-建德市-三都镇 前源行政村 大坪自然村、八亩排自然村区域用户。","startTime":"2020-06-15 07:00:00","stopDate":"2020-06-15 14:00:00","orgNo":"3340180","typeCode":"计划停电","poweroffArea":"35kV三都变:前源Y322线-前源村大坪台区后段;前源Y322线-前源村八亩排台区令克后段","poweroffReason":"梅城地区配变增容改造工程：八亩排台区变压器更换；大坪支线1-12杆通道清理 原停电结束时间为2020-06-15 12:00:00,因现场故障情况复杂,现变更停电结束时间为2020-06-15 14:00:00","powerTime":"2020-06-15 13:31:02","powerComm":"已送电","subsNo":"","lineNo":"","tgNo":"","tgName":null,"infoStatus":"1","orgName":"国网浙江建德市供电有限公司","typeName":null,"infoStatusName":null,"dateDay":null,"orgNos":null,"nowTime":null,"countyName":null,"streetName":null,"villageName":null,"roadName":null,"communityName":null,"tranName":null,"sdLineName":null,"cityCode":"3340180","cityName":"国网浙江建德市供电有限公司","provinceCode":null,"stopTime":"2020-06-15 14:00:00","powerType":"全部","powerOffArea":"35kV三都变:前源Y322线-前源村大坪台区后段;前源Y322线-前源村八亩排台区令克后段","powerOffReason":"梅城地区配变增容改造工程：八亩排台区变压器更换；大坪支线1-12杆通道清理 原停电结束时间为2020-06-15 12:00:00,因现场故障情况复杂,现变更停电结束时间为2020-06-15 14:00:00","powerOffId":"2020060531020841"},{"poweroffId":2020060531020833,"sgpoweroffId":null,"subsName":"","lineName":"10kV万六C876线","pubTranName":"恒泰永泰丰2#公变,杭州美萧物业管理有限公司,杭州美萧物业管理有限公司,恒泰永泰丰1#公变,杭州美萧物业管理有限公司,","scope":"浙江省-杭州市-萧山区-宁围街道-市北社区(杭州美萧物业管理有限公司、恒泰永泰丰)","startTime":"2020-06-15 08:35:00","stopDate":"2020-06-15 12:30:00","orgNo":"3340130","typeCode":"计划停电","poweroffArea":"110kV万安变:万六C876线-恒泰二线后段","poweroffReason":"专四开G13间隔电缆割接回万一开","powerTime":"2020-06-15 11:32:15","powerComm":"已送电","subsNo":"","lineNo":"","tgNo":"","tgName":null,"infoStatus":"1","orgName":"国网浙江杭州市萧山区供电有限公司","typeName":null,"infoStatusName":null,"dateDay":null,"orgNos":null,"nowTime":null,"countyName":null,"streetName":null,"villageName":null,"roadName":null,"communityName":null,"tranName":null,"sdLineName":null,"cityCode":"3340130","cityName":"国网浙江杭州市萧山区供电有限公司","provinceCode":null,"stopTime":"2020-06-15 12:30:00","powerType":"全部","powerOffArea":"110kV万安变:万六C876线-恒泰二线后段","powerOffReason":"专四开G13间隔电缆割接回万一开","powerOffId":"2020060531020833"},{"poweroffId":2020060531020802,"sgpoweroffId":null,"subsName":"","lineName":"10kV宫前D603线","pubTranName":"富阳前进日用纸厂,蒋家村12#后田畈公变,天津城建集团有限公司拌和站5号基建变,蒋家村13#红砖厂新区公变,天津城建集团有限公司拌和站6号基建变,兰庄村1#兰庄公变,蒋家村9#东方凤山公变,东前村溪东1号溪东公变,富阳市金旺纸业有限公司,富阳市东山寺,蒋家村蒋家1#玻纤公变,大源镇蒋家村东方3#祠堂公变,蒋家村东方4号新区公变,兰庄村2#水库山脚公变,杭州富阳鼎泰五金有限公司,蒋家村14#东坑水库公变,天津城建集团有限公司宫前自然村拌和站2号变,蒋家村2#桥头公变,富阳市新兴塑化有限公司,富阳市科宏塑料加工厂1#变,富阳市泰隆纸业有限公司,杭州富阳东恒大源加油站有限公司1号变,蒋家村16号黄泥潭公变,蒋家村蒋家5#五圣堂公变,蒋家村蒋家3#池塘坞公变,蒋家村11#桥东村委公变,东前村溪东2#公变,东方村2号杨子坊公变,蒋家村17号水库山脚公变,富阳市金旺纸业有限公司,蒋家村15号老虎头公变,蒋家村东方1号东方公变,富阳市大源镇中意碳酸钙厂,蒋家村蒋家8#红砖厂公变,杭州市公安局富阳区分局1#基建变,蒋家村蒋家7#对门公变,蒋家村蒋家6#新区公变,蒋家村10#苦竹园公变,","scope":"浙江省-杭州市-富阳区-大源镇-蒋家行政村(东方自然村,蒋家自然村,蒋家村对门自然村),大源镇(东前行政村-溪东自然村,新关行政村-兰庄自然村,亭山行政村-东升自然村,稠溪行政村-春一自然村);大源镇-新关行政村(富阳市科宏塑料加工厂,富阳市新兴塑化有限公司,杭州富阳鼎泰五金有限公司,杭州富阳泰隆纸业有限公司),大源镇-蒋家行政村(富阳前进日用纸厂,杭州富阳区大源镇中意碳酸钙厂,杭州富阳金旺纸业有限公司,富阳市金旺纸业有限公司,富阳区东山禅寺,杭州富阳东恒大源加油站有限公司),大源镇(东前行政村-天津城建集团有限公司,大源行政村-杭州市公安局富阳区分局)","startTime":"2020-06-05 16:48:26","stopDate":"2020-06-05 17:48:27","orgNo":"3340170","typeCode":"电网故障停限电","poweroffArea":"35kV溪东变:宫前D603线-宫前D603线开关后段","poweroffReason":"高压开关跳闸","powerTime":"2020-06-05 17:15:48","powerComm":"已送电","subsNo":"","lineNo":"","tgNo":"","tgName":null,"infoStatus":"1","orgName":"国网浙江杭州市富阳区供电公司","typeName":null,"infoStatusName":null,"dateDay":null,"orgNos":null,"nowTime":null,"countyName":null,"streetName":null,"villageName":null,"roadName":null,"communityName":null,"tranName":null,"sdLineName":null,"cityCode":"3340170","cityName":"国网浙江杭州市富阳区供电公司","provinceCode":null,"stopTime":"2020-06-05 17:48:27","powerType":"全部","powerOffArea":"35kV溪东变:宫前D603线-宫前D603线开关后段","powerOffReason":"高压开关跳闸","powerOffId":"2020060531020802"},{"poweroffId":2020060531020790,"sgpoweroffId":null,"subsName":"","lineName":"10kV施家D970线","pubTranName":"东坞山村3号蒋家桥公变,","scope":"浙江省-杭州市-富阳区-银湖街道-东坞山行政村(外何家自然村,东坞山自然村,蒋家自然村,里何家自然村,何家自然村)","startTime":"2020-06-15 13:20:00","stopDate":"2020-06-15 17:30:00","orgNo":"3340170","typeCode":"计划停电","poweroffArea":"110kV九龙变:施家D970线-东坞山村3号蒋家桥公变低压开关后段","poweroffReason":"(低压停电信息)吊车拔立杆1支、按装横担1组、搭接等工作","powerTime":"2020-06-15 17:20:08","powerComm":"已送电","subsNo":"","lineNo":"","tgNo":"","tgName":null,"infoStatus":"1","orgName":"国网浙江杭州市富阳区供电公司","typeName":null,"infoStatusName":null,"dateDay":null,"orgNos":null,"nowTime":null,"countyName":null,"streetName":null,"villageName":null,"roadName":null,"communityName":null,"tranName":null,"sdLineName":null,"cityCode":"3340170","cityName":"国网浙江杭州市富阳区供电公司","provinceCode":null,"stopTime":"2020-06-15 17:30:00","powerType":"全部","powerOffArea":"110kV九龙变:施家D970线-东坞山村3号蒋家桥公变低压开关后段","powerOffReason":"(低压停电信息)吊车拔立杆1支、按装横担1组、搭接等工作","powerOffId":"2020060531020790"},{"poweroffId":2020060531020785,"sgpoweroffId":null,"subsName":"","lineName":"10kV龙虎C704线","pubTranName":"永利村9#变,","scope":"浙江省-杭州市-萧山区-南阳街道-永利行政村-永利自然村,南阳街道-赭山社区(赭山家园,永利路,永里路)","startTime":"2020-06-15 09:00:00","stopDate":"2020-06-15 16:00:00","orgNo":"3340130","typeCode":"计划停电","poweroffArea":"35kV赭山变:龙虎C704线-永利村9#变跌落式熔断器后段","poweroffReason":"龙虎C704线56/03/06#杆永利村09#变拆400kVA变压器1台装630kVA欧变1台新装真空开关1台 原停电结束时间为2020-06-15 15:00:00,因现场故障情况复杂,现变更停电结束时间为2020-06-15 16:00:00","powerTime":"2020-06-15 15:40:41","powerComm":"已送电","subsNo":"","lineNo":"","tgNo":"","tgName":null,"infoStatus":"1","orgName":"国网浙江杭州市萧山区供电有限公司","typeName":null,"infoStatusName":null,"dateDay":null,"orgNos":null,"nowTime":null,"countyName":null,"streetName":null,"villageName":null,"roadName":null,"communityName":null,"tranName":null,"sdLineName":null,"cityCode":"3340130","cityName":"国网浙江杭州市萧山区供电有限公司","provinceCode":null,"stopTime":"2020-06-15 16:00:00","powerType":"全部","powerOffArea":"35kV赭山变:龙虎C704线-永利村9#变跌落式熔断器后段","powerOffReason":"龙虎C704线56/03/06#杆永利村09#变拆400kVA变压器1台装630kVA欧变1台新装真空开关1台 原停电结束时间为2020-06-15 15:00:00,因现场故障情况复杂,现变更停电结束时间为2020-06-15 16:00:00","powerOffId":"2020060531020785"},{"poweroffId":2020060531020777,"sgpoweroffId":null,"subsName":"","lineName":"10kV下沙976线","pubTranName":"林杰化工厂,前峰村8#变,前峰村6#变,东升村5#变,前进街道二配变,义丈三垦,前峰安置小区2#变,前峰村2#变,前峰安置区1#变,前峰村12#变,前峰村11#变,前进街道六配变,长征村5#变,前峰村7#变,新峰村2#变,前峰村13#变,衙前垦种（一）,前峰村1#变,前峰村9#变,","scope":"浙江省-杭州市-萧山区-前进街道-前进街道社区(前进自然村,前进街道),前进街道-临江行政村(长征自然村,东升自然村,新峰自然村),新湾街道(共建行政村-梅林自然村,三新行政村-新湾自然村),前进街道-前峰行政村-前峰自然村,临江街道-萧东行政村-东梅自然村;前进街道(宏图衙前三垦种,前进义丈三垦种,杭州林杰化工有限公司)长征村、前进街道、前进村、共建村、梅林村、前峰村、东梅村、萧东村","startTime":"2020-06-05 16:32:00","stopDate":"2020-06-05 20:32:00","orgNo":"3340120","typeCode":"电网故障停限电","poweroffArea":"110kV前进变:下沙976线三号闸分线01号开关后段","poweroffReason":"高压开关跳闸","powerTime":"2020-06-05 19:43:21","powerComm":"已送电","subsNo":"","lineNo":"","tgNo":"","tgName":null,"infoStatus":"1","orgName":"国网浙江杭州市钱塘新区供电公司","typeName":null,"infoStatusName":null,"dateDay":null,"orgNos":null,"nowTime":null,"countyName":null,"streetName":null,"villageName":null,"roadName":null,"communityName":null,"tranName":null,"sdLineName":null,"cityCode":"3340120","cityName":"国网浙江杭州市钱塘新区供电公司","provinceCode":null,"stopTime":"2020-06-05 20:32:00","powerType":"全部","powerOffArea":"110kV前进变:下沙976线三号闸分线01号开关后段","powerOffReason":"高压开关跳闸","powerOffId":"2020060531020777"},{"poweroffId":2020060531020772,"sgpoweroffId":null,"subsName":"","lineName":"10kV山末C624线","pubTranName":"山末址村6#变,","scope":"浙江省-杭州市-萧山区-新街镇、新街街道-山末址行政村-山末址自然村、新街街道三木字村等一带","startTime":"2020-06-05 16:27:51","stopDate":"2020-06-05 18:05:51","orgNo":"3340130","typeCode":"电网故障停限电","poweroffArea":"110kV新街变:山末C624线-山末址村6#变台区低压开关","poweroffReason":"（低压停电信息）低压漏电保护器短路故障 原停电结束时间为2020-06-05 18:33:51,为减少客户停电时间,加快工作进度,提前送电,现变更停电结束时间为2020-06-05 18:05:51","powerTime":"2020-06-05 17:18:36","powerComm":"已送电","subsNo":"","lineNo":"","tgNo":"","tgName":null,"infoStatus":"1","orgName":"国网浙江杭州市萧山区供电有限公司","typeName":null,"infoStatusName":null,"dateDay":null,"orgNos":null,"nowTime":null,"countyName":null,"streetName":null,"villageName":null,"roadName":null,"communityName":null,"tranName":null,"sdLineName":null,"cityCode":"3340130","cityName":"国网浙江杭州市萧山区供电有限公司","provinceCode":null,"stopTime":"2020-06-05 18:05:51","powerType":"全部","powerOffArea":"110kV新街变:山末C624线-山末址村6#变台区低压开关","powerOffReason":"（低压停电信息）低压漏电保护器短路故障 原停电结束时间为2020-06-05 18:33:51,为减少客户停电时间,加快工作进度,提前送电,现变更停电结束时间为2020-06-05 18:05:51","powerOffId":"2020060531020772"},{"poweroffId":2020060531020758,"sgpoweroffId":null,"subsName":"","lineName":"10kV林语8057线","pubTranName":"林语（四）,","scope":"浙江省-杭州市-西湖区-文新街道-新金都社区-文二西路林语别墅117、118、121、123、129、130、131、132号一带","startTime":"2020-06-15 13:00:00","stopDate":"2020-06-15 17:00:00","orgNo":"3340101","typeCode":"计划停电","poweroffArea":"110kV紫荆变:林语8057线-林语（四）后段","poweroffReason":"(低压停电信息)林语别墅118号表计移位","powerTime":"2020-06-15 16:05:26","powerComm":"已送电","subsNo":"","lineNo":"","tgNo":"","tgName":null,"infoStatus":"1","orgName":"浙江杭州电力客户服务中心","typeName":null,"infoStatusName":null,"dateDay":null,"orgNos":null,"nowTime":null,"countyName":null,"streetName":null,"villageName":null,"roadName":null,"communityName":null,"tranName":null,"sdLineName":null,"cityCode":"3340101","cityName":"浙江杭州电力客户服务中心","provinceCode":null,"stopTime":"2020-06-15 17:00:00","powerType":"全部","powerOffArea":"110kV紫荆变:林语8057线-林语（四）后段","powerOffReason":"(低压停电信息)林语别墅118号表计移位","powerOffId":"2020060531020758"},{"poweroffId":2020060531020701,"sgpoweroffId":null,"subsName":"","lineName":"10kV横筑A187线","pubTranName":"湘东村2#变,","scope":"浙江省-杭州市-萧山区-义桥镇-湘东行政村(吴家里自然村,潘家里自然村,横筑塘自然村)等","startTime":"2020-06-05 16:04:45","stopDate":"2020-06-05 17:04:45","orgNo":"3340130","typeCode":"电网故障停限电","poweroffArea":"110kV群建变:横筑A187线-湘东村2#变低压开关","poweroffReason":"(低压停电信息)低压漏电保护器跳闸","powerTime":"2020-06-05 16:25:58","powerComm":"已送电","subsNo":"","lineNo":"","tgNo":"","tgName":null,"infoStatus":"1","orgName":"国网浙江杭州市萧山区供电有限公司","typeName":null,"infoStatusName":null,"dateDay":null,"orgNos":null,"nowTime":null,"countyName":null,"streetName":null,"villageName":null,"roadName":null,"communityName":null,"tranName":null,"sdLineName":null,"cityCode":"3340130","cityName":"国网浙江杭州市萧山区供电有限公司","provinceCode":null,"stopTime":"2020-06-05 17:04:45","powerType":"全部","powerOffArea":"110kV群建变:横筑A187线-湘东村2#变低压开关","powerOffReason":"(低压停电信息)低压漏电保护器跳闸","powerOffId":"2020060531020701"}],"pageModel":{"pageNow":37,"totalCount":17786,"totalPage":1779,"tableRows":0,"pageCount":10,"beginCount":360},"isExperi":"1"}