{"message":"","today":"2020-06-15","seleList":[{"poweroffId":2020040731020042,"sgpoweroffId":null,"subsName":"","lineName":"10kV杨镇Y156线","pubTranName":"乌驹市村焦树湾台区,","scope":"浙江省-杭州市-建德市-下涯镇-乌驹市行政村-焦树湾自然村","startTime":"2020-04-07 09:05:00","stopDate":"2020-04-07 11:30:00","orgNo":"3340180","typeCode":"电网故障停限电","poweroffArea":"110kV沿口变:杨镇Y156线乌驹市村焦树湾台区配变","poweroffReason":"(低压停电信息)低压电缆头烧毁","powerTime":"2020-04-07 10:37:00","powerComm":"已送电","subsNo":"","lineNo":"","tgNo":"","tgName":null,"infoStatus":"1","orgName":"国网浙江建德市供电有限公司","typeName":null,"infoStatusName":null,"dateDay":null,"orgNos":null,"nowTime":null,"countyName":null,"streetName":null,"villageName":null,"roadName":null,"communityName":null,"tranName":null,"sdLineName":null,"cityCode":"3340180","cityName":"国网浙江建德市供电有限公司","provinceCode":null,"stopTime":"2020-04-07 11:30:00","powerType":"全部","powerOffArea":"110kV沿口变:杨镇Y156线乌驹市村焦树湾台区配变","powerOffReason":"(低压停电信息)低压电缆头烧毁","powerOffId":"2020040731020042"},{"poweroffId":2020040731020022,"sgpoweroffId":null,"subsName":"","lineName":"10kV陆桥H788线","pubTranName":"万景村康乐,万景村章家角,万景村石道地公变,上和一号基建,万胜电器（2）,梧桐村南村潭公变,上和二号基建,万胜电器,万景村梧桐庙公变,万景村喻家桥,","scope":"浙江省-杭州市-余杭区-闲林街道-万景行政村(万景自然村,康乐自然村,后桥头自然村,南自然村潭自然村,南星桥自然村,盛家地自然村,石道地自然村,王家潭自然村,章家角自然村),闲林街道(民丰行政村-阮家田畈自然村,里项行政村-里项自然村);闲林街道(杭州鑫洲制冷设备有限公司,鼎盛控股集团有限公司)","startTime":"2020-04-07 08:23:36","stopDate":"2020-04-07 11:35:00","orgNo":"3340140","typeCode":"电网故障停限电","poweroffArea":"110kV仓前变:陆桥H788线绿澜H78816开关后段","poweroffReason":"高压开关跳闸 原停电结束时间为2020-04-07 10:23:36,因现场情况复杂原因,延迟送电,现变更停电结束时间为2020-04-07 11:35:00","powerTime":"2020-04-07 11:00:00","powerComm":"已送电","subsNo":"","lineNo":"","tgNo":"","tgName":null,"infoStatus":"1","orgName":"国网浙江杭州市余杭区供电有限公司","typeName":null,"infoStatusName":null,"dateDay":null,"orgNos":null,"nowTime":null,"countyName":null,"streetName":null,"villageName":null,"roadName":null,"communityName":null,"tranName":null,"sdLineName":null,"cityCode":"3340140","cityName":"国网浙江杭州市余杭区供电有限公司","provinceCode":null,"stopTime":"2020-04-07 11:35:00","powerType":"全部","powerOffArea":"110kV仓前变:陆桥H788线绿澜H78816开关后段","powerOffReason":"高压开关跳闸 原停电结束时间为2020-04-07 10:23:36,因现场情况复杂原因,延迟送电,现变更停电结束时间为2020-04-07 11:35:00","powerOffId":"2020040731020022"},{"poweroffId":2020040731020003,"sgpoweroffId":null,"subsName":"","lineName":"10kV独山G137线","pubTranName":"远顺贸易,龙旋村山前东南2号公变,崇贤四维农居点南区5-1号公变,天地塑胶,崇贤四维农居点3-2号公变,崇贤四维农居点4-2号公变,崇贤四维农居点南区7-1号公变,2#,崇贤四维农居点南区7-2号公变,崇贤四维农居点南区8-1号公变,龙旋村山前机埠公变,崇贤四维农居点2-2号公变,崇贤四维农居点4-1号公变,龙旋村莫家浜变,崇贤四维农居点南区6-2号公变,五星包装,中交第二航务工程局有限公司余杭分公司612087364401#专变,龙旋村山前农居点1-2#公变,森特纺织,崇贤四维农居点1-1号公变,1#,龙旋村山前西二公变,崇贤四维农居点2-1号公变,龙旋村山前2组2号公变,沈家浜收费站,龙旋村莫家浜2号公变,崇贤四维农居点1-2号公变,龙旋村山前西变,崇贤四维农居点南区5-2号公变,龙旋村山前2组变,崇贤四维农居点南区6-1号公变,崇贤四维农居点3-1号公变,龙旋村山前东南公变,中交第二航务工程局有限公司余杭分公司612084193101#专变,崇维农居点8B-2号公变,龙旋村山前农居点1-1#公变,","scope":"浙江省-杭州市-余杭区-崇贤街道-四维行政村(运河路,沉莫斗自然村,四维村),崇贤街道-龙旋行政村(213县道,南自然村,北自然村,莫家浜自然村,龙旋子自然村,独山路,龙旋村,农居点);崇贤街道(中交第二航务工程局有限公司余杭分公司,浙江申嘉湖杭高速公路有限公司,杭州远顺贸易有限公司,杭州众誉纺织品有限公司,杭州众恒纺织品有限公司,杭州天地幕墙工程有限公司,杭州中亚布艺有限公司)","startTime":"2020-04-07 02:41:00","stopDate":"2020-04-07 05:00:00","orgNo":"3340140","typeCode":"电网故障停限电","poweroffArea":"35kV沾桥变:独山G137线独山G1373开关后段","poweroffReason":"高压开关跳闸 原停电结束时间为2020-04-07 05:41:00,为减少客户停电时间,加快工作进度,提前送电,现变更停电结束时间为2020-04-07 05:00:00","powerTime":"2020-04-07 04:15:22","powerComm":"已送电","subsNo":"","lineNo":"","tgNo":"","tgName":null,"infoStatus":"1","orgName":"国网浙江杭州市余杭区供电有限公司","typeName":null,"infoStatusName":null,"dateDay":null,"orgNos":null,"nowTime":null,"countyName":null,"streetName":null,"villageName":null,"roadName":null,"communityName":null,"tranName":null,"sdLineName":null,"cityCode":"3340140","cityName":"国网浙江杭州市余杭区供电有限公司","provinceCode":null,"stopTime":"2020-04-07 05:00:00","powerType":"全部","powerOffArea":"35kV沾桥变:独山G137线独山G1373开关后段","powerOffReason":"高压开关跳闸 原停电结束时间为2020-04-07 05:41:00,为减少客户停电时间,加快工作进度,提前送电,现变更停电结束时间为2020-04-07 05:00:00","powerOffId":"2020040731020003"},{"poweroffId":2020040631020170,"sgpoweroffId":null,"subsName":"","lineName":"10kV新春D938线","pubTranName":"富阳市华春机械构件厂1#变,","scope":"浙江省-杭州市-富阳区-富春街道-杨清庙行政村-杭州富阳华春机械构件厂","startTime":"2020-04-06 23:19:01","stopDate":"2020-04-07 01:40:01","orgNo":"3340170","typeCode":"电网故障停限电","poweroffArea":"110kV育才变:新春D938线-富阳市华春机械构件厂后段","poweroffReason":"高压开关跳闸","powerTime":"2020-04-07 00:56:05","powerComm":"已送电","subsNo":"","lineNo":"","tgNo":"","tgName":null,"infoStatus":"1","orgName":"国网浙江杭州市富阳区供电公司","typeName":null,"infoStatusName":null,"dateDay":null,"orgNos":null,"nowTime":null,"countyName":null,"streetName":null,"villageName":null,"roadName":null,"communityName":null,"tranName":null,"sdLineName":null,"cityCode":"3340170","cityName":"国网浙江杭州市富阳区供电公司","provinceCode":null,"stopTime":"2020-04-07 01:40:01","powerType":"全部","powerOffArea":"110kV育才变:新春D938线-富阳市华春机械构件厂后段","powerOffReason":"高压开关跳闸","powerOffId":"2020040631020170"},{"poweroffId":2020040631020169,"sgpoweroffId":null,"subsName":"","lineName":"10kV新春D938线","pubTranName":"新春村2#后山岭公变,新春村7#后山岭2公变,新春村10#沈石岭2公变,新春村16号后山岭公变,新春村15号沈石岭公变,新春村4#沈石岭公变,新春村8#铁铺里公变,","scope":"浙江省-杭州市-富阳区-富春街道-杨清庙行政村(后山岭自然村,沈石岭自然村,新春自然村)","startTime":"2020-04-06 23:13:35","stopDate":"2020-04-07 01:40:35","orgNo":"3340170","typeCode":"电网故障停限电","poweroffArea":"110kV育才变:新春D938线-新春村15号沈石岭公变后段;新春D938线-新春村10#沈石岭2公变后段;新春D938线-新春村4#沈石岭公变后段;新春D938线-新春村8#铁铺里公变后段;新春D938线-新春村2#后山岭公变后段;新春D938线-新春村7#后山岭2公变后段;新春D938线-新春村16号后山岭公变后段","poweroffReason":"高压开关跳闸","powerTime":"2020-04-07 00:55:41","powerComm":"已送电","subsNo":"","lineNo":"","tgNo":"","tgName":null,"infoStatus":"1","orgName":"国网浙江杭州市富阳区供电公司","typeName":null,"infoStatusName":null,"dateDay":null,"orgNos":null,"nowTime":null,"countyName":null,"streetName":null,"villageName":null,"roadName":null,"communityName":null,"tranName":null,"sdLineName":null,"cityCode":"3340170","cityName":"国网浙江杭州市富阳区供电公司","provinceCode":null,"stopTime":"2020-04-07 01:40:35","powerType":"全部","powerOffArea":"110kV育才变:新春D938线-新春村15号沈石岭公变后段;新春D938线-新春村10#沈石岭2公变后段;新春D938线-新春村4#沈石岭公变后段;新春D938线-新春村8#铁铺里公变后段;新春D938线-新春村2#后山岭公变后段;新春D938线-新春村7#后山岭2公变后段;新春D938线-新春村16号后山岭公变后段","powerOffReason":"高压开关跳闸","powerOffId":"2020040631020169"},{"poweroffId":2020040631020155,"sgpoweroffId":null,"subsName":"","lineName":"10kV三亭8069线","pubTranName":"橘园（一）,新风地铁4#,风悦七变,风悦一变,杭州福利院1,风悦十一变,风悦九变,润城地产二2#,润城地产二6#,风悦十三变,江干区闸弄口街道办事处,新风地铁3#,城府一变,恒麒（三）,润城地产二4#,城府三变,风悦十五变,新风地铁2#,风悦三变,橘园（五）,三里亭泵站,杭州福利院2,城府五变,橘园（三）,润城地产二1#,新风地铁1#,梅园（三）,桂柳（一）,恒麒（一）,润城地产二3#,风悦五变,润城地产二5#,星充科技,","scope":"浙江省-杭州市-江干区-闸弄口街道-三里亭社区(董家桥路,三里亭小区,三里新城小区,石桥路,工农路),笕桥街道-枸桔弄社区(石桥路,天城府小区,驿城路,百田巷,新风路),闸弄口街道(兰苑社区-董家桥路,春晖社区-石桥路,克拉公寓),笕桥街道(黎明社区-同协路,新风社区-新风路,新风悦居小区);闸弄口街道(江干区闸弄口街道办事处,市第二福利院,杭州市水务集团有限公司供水泵站分公司,绿城物业服务集团有限公司杭州第一分公司),笕桥镇-杭州星充新能源科技有限公司,彭埠镇-杭州市地铁集团有限责任公司","startTime":"2020-04-06 20:08:00","stopDate":"2020-04-06 22:42:00","orgNo":"3340101","typeCode":"电网故障停限电","poweroffArea":"110kV东站变:三亭8069线弘筑站三亭8069线后段","poweroffReason":"高压开关跳闸 原停电结束时间为2020-04-07 04:08:00,为减少客户停电时间,加快工作进度,提前送电,现变更停电结束时间为2020-04-06 22:42:00","powerTime":"2020-04-06 22:00:29","powerComm":"已送电","subsNo":"","lineNo":"","tgNo":"","tgName":null,"infoStatus":"1","orgName":"浙江杭州电力客户服务中心","typeName":null,"infoStatusName":null,"dateDay":null,"orgNos":null,"nowTime":null,"countyName":null,"streetName":null,"villageName":null,"roadName":null,"communityName":null,"tranName":null,"sdLineName":null,"cityCode":"3340101","cityName":"浙江杭州电力客户服务中心","provinceCode":null,"stopTime":"2020-04-06 22:42:00","powerType":"全部","powerOffArea":"110kV东站变:三亭8069线弘筑站三亭8069线后段","powerOffReason":"高压开关跳闸 原停电结束时间为2020-04-07 04:08:00,为减少客户停电时间,加快工作进度,提前送电,现变更停电结束时间为2020-04-06 22:42:00","powerOffId":"2020040631020155"},{"poweroffId":2020040631020148,"sgpoweroffId":null,"subsName":"","lineName":"10kV创世G808线","pubTranName":"龙悦湾2#公变,龙悦湾4#公变,龙悦湾1#公变,龙悦湾3#公变,","scope":"浙江省-杭州市-余杭区-陈家木桥社区-五洲路","startTime":"2020-04-06 17:50:00","stopDate":"2020-04-06 19:50:00","orgNo":"3340140","typeCode":"电网故障停限电","poweroffArea":"110kV建富变:创世G808线1号双投站龙悦湾1号配电室1号双投站龙悦湾1号负荷开关后段","poweroffReason":"高压开关跳闸","powerTime":"2020-04-06 18:51:00","powerComm":"已送电","subsNo":"","lineNo":"","tgNo":"","tgName":null,"infoStatus":"1","orgName":"国网浙江杭州市余杭区供电有限公司","typeName":null,"infoStatusName":null,"dateDay":null,"orgNos":null,"nowTime":null,"countyName":null,"streetName":null,"villageName":null,"roadName":null,"communityName":null,"tranName":null,"sdLineName":null,"cityCode":"3340140","cityName":"国网浙江杭州市余杭区供电有限公司","provinceCode":null,"stopTime":"2020-04-06 19:50:00","powerType":"全部","powerOffArea":"110kV建富变:创世G808线1号双投站龙悦湾1号配电室1号双投站龙悦湾1号负荷开关后段","powerOffReason":"高压开关跳闸","powerOffId":"2020040631020148"},{"poweroffId":2020040631020147,"sgpoweroffId":null,"subsName":"","lineName":"10kV田湾G265线","pubTranName":"双陈村陈家角西公变,","scope":"浙江省-杭州市-余杭区-仁和街道-双陈行政村(计家坝自然村,陈家角东斗自然村,西斗自然村,陈家角自然村)","startTime":"2020-04-06 17:40:00","stopDate":"2020-04-06 19:00:00","orgNo":"3340140","typeCode":"电网故障停限电","poweroffArea":"110kV仁镇变:田湾G265线双陈村陈家角西公变配变","poweroffReason":"高压开关跳闸","powerTime":"2020-04-06 18:02:21","powerComm":"已送电","subsNo":"","lineNo":"","tgNo":"","tgName":null,"infoStatus":"1","orgName":"国网浙江杭州市余杭区供电有限公司","typeName":null,"infoStatusName":null,"dateDay":null,"orgNos":null,"nowTime":null,"countyName":null,"streetName":null,"villageName":null,"roadName":null,"communityName":null,"tranName":null,"sdLineName":null,"cityCode":"3340140","cityName":"国网浙江杭州市余杭区供电有限公司","provinceCode":null,"stopTime":"2020-04-06 19:00:00","powerType":"全部","powerOffArea":"110kV仁镇变:田湾G265线双陈村陈家角西公变配变","powerOffReason":"高压开关跳闸","powerOffId":"2020040631020147"},{"poweroffId":2020040631020099,"sgpoweroffId":null,"subsName":"","lineName":"10kV万商H336线","pubTranName":"杭州佳能(迦南印刷),行宫塘村上洋桥公变,行宫塘村厍头斗2号公变,行宫塘村厍头斗公变,一方印刷（6120151602）02#专变,","scope":"浙江省-杭州市-余杭区-良渚街道-行宫塘行政村-厍头斗自然村;浙江省-杭州市-余杭区-良渚街道-运河行政村-浙江一方印业有限公司","startTime":"2020-04-06 15:02:11","stopDate":"2020-04-06 17:02:00","orgNo":"3340140","typeCode":"电网故障停限电","poweroffArea":"110kV长桥变:万商H336线-源大工贸分线开关后段","poweroffReason":"高压开关跳闸","powerTime":"2020-04-06 16:25:00","powerComm":"已送电","subsNo":"","lineNo":"","tgNo":"","tgName":null,"infoStatus":"1","orgName":"国网浙江杭州市余杭区供电有限公司","typeName":null,"infoStatusName":null,"dateDay":null,"orgNos":null,"nowTime":null,"countyName":null,"streetName":null,"villageName":null,"roadName":null,"communityName":null,"tranName":null,"sdLineName":null,"cityCode":"3340140","cityName":"国网浙江杭州市余杭区供电有限公司","provinceCode":null,"stopTime":"2020-04-06 17:02:00","powerType":"全部","powerOffArea":"110kV长桥变:万商H336线-源大工贸分线开关后段","powerOffReason":"高压开关跳闸","powerOffId":"2020040631020099"},{"poweroffId":2020040631020069,"sgpoweroffId":null,"subsName":"","lineName":"10kV金临A432线","pubTranName":"金临湖村5#变,","scope":"浙江省-杭州市-萧山区-所前镇-金临湖行政村(里士湖路,魏家自然村)，所前镇金临湖行政村里士湖","startTime":"2020-04-06 13:15:07","stopDate":"2020-04-06 14:25:07","orgNo":"3340130","typeCode":"电网故障停限电","poweroffArea":"110kV来苏变:金临A432线-金临湖村5#变后段","poweroffReason":"(低压停电信息)低压架空线断线","powerTime":"2020-04-06 13:50:54","powerComm":"已送电","subsNo":"","lineNo":"","tgNo":"","tgName":null,"infoStatus":"1","orgName":"国网浙江杭州市萧山区供电有限公司","typeName":null,"infoStatusName":null,"dateDay":null,"orgNos":null,"nowTime":null,"countyName":null,"streetName":null,"villageName":null,"roadName":null,"communityName":null,"tranName":null,"sdLineName":null,"cityCode":"3340130","cityName":"国网浙江杭州市萧山区供电有限公司","provinceCode":null,"stopTime":"2020-04-06 14:25:07","powerType":"全部","powerOffArea":"110kV来苏变:金临A432线-金临湖村5#变后段","powerOffReason":"(低压停电信息)低压架空线断线","powerOffId":"2020040631020069"}],"pageModel":{"pageNow":385,"totalCount":17788,"totalPage":1779,"tableRows":0,"pageCount":10,"beginCount":3840},"isExperi":"1"}