{"message":"","today":"2020-06-15","seleList":[{"poweroffId":2020040631020058,"sgpoweroffId":null,"subsName":"","lineName":"10kV裘围808线","pubTranName":"越寨庄垦种,尔平农庄,楼塔岩下,晓阳水产,靖江五垦（一）,1#,靖港垦种,仓北垦种,头蓬四垦,萧南村经济联合社,楼塔垦种,闻堰五联,荣丰农业（三）,春雷村6#变,荣丰农业（二）,周鑫农业,萧然电力照明公司,晓阳水产,金家埭村,头蓬四垦,江五路灯（三）01#,新湾共建,明朗农业开发公司,头蓬镇人民政府,靖港垦种,晓阳水产,楼塔垦种大黄岭,靖港垦种,汇利蔬菜,义蓬垦种,闻堰红旗垦种,康顺农庄,晓阳养殖,水利水电临三,闻堰闻兴垦种,1#,新庙前村,01,","scope":"浙江省-杭州市-萧山区-义蓬街道-春雷行政村-春雷自然村;围垦垦区-七工段片区(萧山区义蓬镇仓北村(围垦用电),萧山区蜀山街道金家埭社区（围垦用电）,萧山区义蓬镇新庙前村（围垦）,杭州康顺农庄有限公司,文堰红光垦种,靖江镇靖港村（七工段围垦用电）,头蓬镇四垦种,杭州明朗农业开发有限公司,杭州市萧山区义蓬镇义蓬村村民委员会(围垦用电)),前进街道-七工段片区(靖江五垦种,杭州荣丰农业开发有限公司,杭州尔平农业发展有限公司,义蓬镇人民政府(头蓬四垦七工段),杭州萧然电力照明工程有限公司,杭州晓阳农业开发有限公司,萧山区新湾镇共建村（围垦用电）,萧山区靖江镇靖港村民委员会（围垦用电）,萧山区靖江镇靖港村(围垦用电),杭州萧山富春养殖有限公司,头蓬镇四垦种,萧山区闻堰镇闻兴村民委员会),义蓬街道-春雷行政村(中国水利水电第四工程局有限公司,杭州萧山汇利蔬菜食品厂),义蓬街道-六工段片区(杭州萧山楼塔镇萧南村经济联合社,杭州萧山义蓬镇灯塔石料加工场,萧山区蜀山街道越寨社区(围垦用电)),围垦垦区-六工段片区(杭州晓阳农业开发有限公司,杭州晓阳养殖有限公司,杭州萧山楼塔岩山股份经济联合社,萧山区楼塔镇大黄岭村(围垦)),义蓬街道(四工段片区-楼塔垦种,中国水利水电第四工程局有限公司),围垦垦区-外七工段片区-杭州荣丰农业开发有限公司,河庄街道-四工段片区-楼塔垦种,临江街道-七工段片区-文堰红旗垦种","startTime":"2020-04-18 10:50:00","stopDate":"2020-04-18 11:30:00","orgNo":"3340120","typeCode":"计划停电","poweroffArea":"35kV头蓬变:裘围808线","poweroffReason":"裘围808线配合主网倒负荷(设备班）配合头蓬变临时开闭站吊装倒负荷工作","powerTime":"2020-04-18 10:54:24","powerComm":"已送电","subsNo":"","lineNo":"","tgNo":"","tgName":null,"infoStatus":"1","orgName":"国网浙江杭州市钱塘新区供电公司","typeName":null,"infoStatusName":null,"dateDay":null,"orgNos":null,"nowTime":null,"countyName":null,"streetName":null,"villageName":null,"roadName":null,"communityName":null,"tranName":null,"sdLineName":null,"cityCode":"3340120","cityName":"国网浙江杭州市钱塘新区供电公司","provinceCode":null,"stopTime":"2020-04-18 11:30:00","powerType":"全部","powerOffArea":"35kV头蓬变:裘围808线","powerOffReason":"裘围808线配合主网倒负荷(设备班）配合头蓬变临时开闭站吊装倒负荷工作","powerOffId":"2020040631020058"},{"poweroffId":2020040631020057,"sgpoweroffId":null,"subsName":"","lineName":"10kV五围803线","pubTranName":"兴法养猪场,河庄民主村01#,河庄民主垦种,源善水产,河庄四垦种,党湾勤联垦种,特维艾机械2#,乐园垦种,河庄向公垦种,江东市政,义蓬长红垦种,特维艾机械1#,河庄同一四垦,河庄四垦,党湾裕民村,河庄同二垦种,梅西五垦,宏伟机电,1#,水利水电临一,义蓬杏花垦种,党湾幸福垦种,","scope":"浙江省-杭州市-萧山区-新湾街道-围垦垦区-四工段片区-杭州市萧山区河庄街道民主村经济联合社,河庄街道-江东开发区园区(杭州特维艾机械制造有限公司,杭州江东市政公用事业服务有限公司),义蓬街道-六工段片区(萧山区党湾镇幸福村围垦,萧山区党湾镇裕民村（围垦用电）),围垦垦区-五工段片区(萧山区义蓬镇蓬园村(围垦用电),河庄四垦种,萧山区河庄街道民主村经济联合社,杭州江东农场开发有限公司,杭州市萧山区义蓬街道蓬园村经济联合社,萧山区河庄街道向公村经济合作社),围垦垦区-六工段片区(梅西五垦种,宏伟机电站垦种,萧山区河庄镇同二村村民委员会(围垦用电)),河庄街道-五工段片区(萧山区义蓬镇长红村（围垦用电）,萧山区义蓬镇杏花村(围垦用电)),河庄街道(六工段片区-萧山区河庄镇同一村四垦,围中行政村-杭州萧山河庄镇兴法养猪场,同二行政村-杭州源善水产专业合作社),义蓬街道(南沙行政村-杭州萧山天潮水产养殖有限公司,春雷行政村-中国水利水电第四工程局有限公司)","startTime":"2020-04-18 10:30:00","stopDate":"2020-04-18 11:00:00","orgNo":"3340120","typeCode":"计划停电","poweroffArea":"35kV头蓬变:五围803线","poweroffReason":"五围803线配合主网倒负荷（设备班）配合头蓬变临时开闭站吊装倒负荷工作","powerTime":"2020-04-18 10:38:22","powerComm":"已送电","subsNo":"","lineNo":"","tgNo":"","tgName":null,"infoStatus":"1","orgName":"国网浙江杭州市钱塘新区供电公司","typeName":null,"infoStatusName":null,"dateDay":null,"orgNos":null,"nowTime":null,"countyName":null,"streetName":null,"villageName":null,"roadName":null,"communityName":null,"tranName":null,"sdLineName":null,"cityCode":"3340120","cityName":"国网浙江杭州市钱塘新区供电公司","provinceCode":null,"stopTime":"2020-04-18 11:00:00","powerType":"全部","powerOffArea":"35kV头蓬变:五围803线","powerOffReason":"五围803线配合主网倒负荷（设备班）配合头蓬变临时开闭站吊装倒负荷工作","powerOffId":"2020040631020057"},{"poweroffId":2020040631020056,"sgpoweroffId":null,"subsName":"","lineName":"10kV帝凯801线","pubTranName":"帝凯8化工厂2#,天然气,3#,帝凯8化工厂3#,1#,新湾街道办事处（一）,2#,","scope":"浙江省-杭州市-萧山区-义蓬街道-围垦垦区(六工段片区-杭州江东农场开发有限公司,外六工段片区-杭州泰谱环境科技有限公司),义蓬街道-六工段片区-杭州帝凯化工有限公司,临江街道-六工段片区-中石油管道有限责任公司西气东输分公司","startTime":"2020-04-18 10:15:00","stopDate":"2020-04-18 10:45:00","orgNo":"3340120","typeCode":"计划停电","poweroffArea":"35kV头蓬变:帝凯801线","poweroffReason":"帝凯801线配合主网倒负荷设备班）配合头蓬变临时开闭站吊装倒负荷工作","powerTime":"2020-04-18 10:33:48","powerComm":"已送电","subsNo":"","lineNo":"","tgNo":"","tgName":null,"infoStatus":"1","orgName":"国网浙江杭州市钱塘新区供电公司","typeName":null,"infoStatusName":null,"dateDay":null,"orgNos":null,"nowTime":null,"countyName":null,"streetName":null,"villageName":null,"roadName":null,"communityName":null,"tranName":null,"sdLineName":null,"cityCode":"3340120","cityName":"国网浙江杭州市钱塘新区供电公司","provinceCode":null,"stopTime":"2020-04-18 10:45:00","powerType":"全部","powerOffArea":"35kV头蓬变:帝凯801线","powerOffReason":"帝凯801线配合主网倒负荷设备班）配合头蓬变临时开闭站吊装倒负荷工作","powerOffId":"2020040631020056"},{"poweroffId":2020040631020055,"sgpoweroffId":null,"subsName":"","lineName":"10kV宏蓬807线","pubTranName":"张叠塑料泡末,广力实业,江东市政,义蓬机械厂,友润机械,河庄南钱菜厂,钱江制桶,向前村6#变,丽绣色纺材料,江东市政,良达宏包装02#,01,江东市政（临）,良达宏包装,","scope":"浙江省-杭州市-萧山区-河庄街道-向前行政村-向前自然村;河庄街道-江东开发区园区(杭州江东市政公用事业服务有限公司,广力实业(杭州)有限公司,杭州钱江制桶有限公司,浙江丽绣色纺材料有限公司,杭州钱杰五金塑料有限公司,杭州萧山河庄南钱菜厂,杭州良达宏包装科技有限公司),河庄街道-向前行政村(杭州钱杰五金塑料有限公司,杭州强叠塑料泡沫有限公司),河庄街道-江东行政村-杭州江东市政公用事业服务有限公司,义蓬街道-春园行政村-杭州义蓬机械厂","startTime":"2020-04-18 09:30:00","stopDate":"2020-04-18 10:00:00","orgNo":"3340120","typeCode":"计划停电","poweroffArea":"35kV头蓬变:宏蓬807线","poweroffReason":"宏蓬807线配合主网倒负荷（设备班）配合头蓬变临时开闭站吊装倒负荷工作","powerTime":"2020-04-18 09:57:56","powerComm":"已送电","subsNo":"","lineNo":"","tgNo":"","tgName":null,"infoStatus":"1","orgName":"国网浙江杭州市钱塘新区供电公司","typeName":null,"infoStatusName":null,"dateDay":null,"orgNos":null,"nowTime":null,"countyName":null,"streetName":null,"villageName":null,"roadName":null,"communityName":null,"tranName":null,"sdLineName":null,"cityCode":"3340120","cityName":"国网浙江杭州市钱塘新区供电公司","provinceCode":null,"stopTime":"2020-04-18 10:00:00","powerType":"全部","powerOffArea":"35kV头蓬变:宏蓬807线","powerOffReason":"宏蓬807线配合主网倒负荷（设备班）配合头蓬变临时开闭站吊装倒负荷工作","powerOffId":"2020040631020055"},{"poweroffId":2020040631020052,"sgpoweroffId":null,"subsName":"","lineName":"10kV长浪0037线","pubTranName":"蓬园村4#变,","scope":"浙江省-杭州市-萧山区-义蓬街道(蓬园行政村-蓬园自然村,长红行政村-长红自然村)","startTime":"2020-04-17 09:00:00","stopDate":"2020-04-17 17:30:00","orgNo":"3340120","typeCode":"计划停电","poweroffArea":"110kV白浪变:长浪0037线-蓬园村4#变低压后段","poweroffReason":"(低压停电信息)线路改造","powerTime":"2020-04-17 17:15:24","powerComm":"已送电","subsNo":"","lineNo":"","tgNo":"","tgName":null,"infoStatus":"1","orgName":"国网浙江杭州市钱塘新区供电公司","typeName":null,"infoStatusName":null,"dateDay":null,"orgNos":null,"nowTime":null,"countyName":null,"streetName":null,"villageName":null,"roadName":null,"communityName":null,"tranName":null,"sdLineName":null,"cityCode":"3340120","cityName":"国网浙江杭州市钱塘新区供电公司","provinceCode":null,"stopTime":"2020-04-17 17:30:00","powerType":"全部","powerOffArea":"110kV白浪变:长浪0037线-蓬园村4#变低压后段","powerOffReason":"(低压停电信息)线路改造","powerOffId":"2020040631020052"},{"poweroffId":2020040631020051,"sgpoweroffId":null,"subsName":"","lineName":"10kV春光0810线","pubTranName":"春元村10#变,蛟龙纺织,春雷村2#变,春元村4#变,1#,春雷村4#变,春元村5#变,1000,嘉诚机械,兴隆纺织,春元村2#变,春元村3#变,春元村11#变,1#,金氏泵业,何志兴布厂,春雷村10#变,","scope":"浙江省-杭州市-萧山区-义蓬街道(春园行政村-春园自然村,春雷行政村-春雷自然村);浙江省-杭州市-萧山区-义蓬街道-春雷行政村-萧山市头蓬镇何志兴布厂,义蓬街道-春园行政村(杭州航天速机有限公司,杭州萧山兴隆纺织有限公司,杭州蛟龙纺织机械厂,杭州金氏泵业有限公司,杭州嘉诚机械有限公司,中电建路桥集团(杭州)大江东投资发展有限公司)","startTime":"2020-04-16 15:00:00","stopDate":"2020-04-16 15:30:00","orgNo":"3340120","typeCode":"计划停电","poweroffArea":"35kV头蓬变:春光0810线","poweroffReason":"春光0810线配合主网倒负荷(设备班）配合头蓬变临时开闭站吊装倒负荷工作","powerTime":"2020-04-16 15:25:48","powerComm":"已送电","subsNo":"","lineNo":"","tgNo":"","tgName":null,"infoStatus":"1","orgName":"国网浙江杭州市钱塘新区供电公司","typeName":null,"infoStatusName":null,"dateDay":null,"orgNos":null,"nowTime":null,"countyName":null,"streetName":null,"villageName":null,"roadName":null,"communityName":null,"tranName":null,"sdLineName":null,"cityCode":"3340120","cityName":"国网浙江杭州市钱塘新区供电公司","provinceCode":null,"stopTime":"2020-04-16 15:30:00","powerType":"全部","powerOffArea":"35kV头蓬变:春光0810线","powerOffReason":"春光0810线配合主网倒负荷(设备班）配合头蓬变临时开闭站吊装倒负荷工作","powerOffId":"2020040631020051"},{"poweroffId":2020040631020050,"sgpoweroffId":null,"subsName":"","lineName":"10kV春雷0811线","pubTranName":"春雷村3#变,城东垦种,云石顶山党山垦种,1#,春光村2#变,春雷村5#变,卓宏农业,春元村6#变,江五路灯（二）01#,宏伟钢结构,江五路灯（一）01#,欣佳机械,春雷村7#变,伟达布厂,春光村8#变,晓阳水产,亚美纺织,春元村8#变,春光村3#变,陆凯机械,1#,春光村4#变,河庄同二垦种,春雷村8#变,春雷村9#变,春光村10#变,春雷村1#变,盖伦线业,春光村7#变,春光村6#变,晓阳养殖（四）,云石顶山党山垦种,才荣机械,庆平家具配件,誉球机械,","scope":"浙江省-杭州市-萧山区-义蓬街道-春光行政村-春光自然村,春园行政村-春园自然村,春雷行政村-春雷自然村,蓬园行政村-蓬园自然村);浙江省-杭州市-萧山区-义蓬街道-中国水利水电第四工程局有限公司,义蓬街道-春雷行政村(杭州萧山亚美丝织有限公司,杭州宏伟钢结构有限公司,中国水利水电第四工程局有限公司),围垦垦区-六工段片区(杭州晓阳养殖有限公司,浙江卓宏农业科技有限公司),前进街道-七工段片区(宏图城东垦种,云石顶山尖山垦种),义蓬街道-春光行政村(杭州清逸纺织有限公司,杭州头蓬伟达布厂,杭州才荣机械有限公司,杭州誉球机械有限公司,中电建路桥集团(杭州)大江东投资发展有限公司),义蓬街道-春园行政村(杭州陆凯机械制造有限公司,杭州盖伦业有限公司,杭州欣佳机械厂,杭州萧山庆平家具配件厂),围垦垦区(七工段片区-云石顶山尖山垦种,五工段片区-萧山区河庄镇同二村(围垦用电),十工段片区-杭州晓阳水产品有限公司)","startTime":"2020-04-16 15:00:00","stopDate":"2020-04-16 15:30:00","orgNo":"3340120","typeCode":"计划停电","poweroffArea":"35kV头蓬变:春雷0811线","poweroffReason":"春雷0811线配合主网倒负荷（设备班）配合头蓬变临时开闭站吊装倒负荷工作","powerTime":"2020-04-16 15:25:28","powerComm":"已送电","subsNo":"","lineNo":"","tgNo":"","tgName":null,"infoStatus":"1","orgName":"国网浙江杭州市钱塘新区供电公司","typeName":null,"infoStatusName":null,"dateDay":null,"orgNos":null,"nowTime":null,"countyName":null,"streetName":null,"villageName":null,"roadName":null,"communityName":null,"tranName":null,"sdLineName":null,"cityCode":"3340120","cityName":"国网浙江杭州市钱塘新区供电公司","provinceCode":null,"stopTime":"2020-04-16 15:30:00","powerType":"全部","powerOffArea":"35kV头蓬变:春雷0811线","powerOffReason":"春雷0811线配合主网倒负荷（设备班）配合头蓬变临时开闭站吊装倒负荷工作","powerOffId":"2020040631020050"},{"poweroffId":2020040631020049,"sgpoweroffId":null,"subsName":"","lineName":"10kV帝凯801线","pubTranName":"新湾街道办事处（一）,天然气,帝凯8化工厂3#,1#,3#,2#,帝凯8化工厂2#,","scope":"浙江省-杭州市-萧山区-义蓬街道围垦垦区(六工段片区-杭州江东农场开发有限公司,外六工段片区-杭州泰谱环境科技有限公司),杭州帝凯化工有限公司,临江街道-六工段片区-中石油管道有限责任公司西气东输分公司","startTime":"2020-04-16 14:15:00","stopDate":"2020-04-16 14:45:00","orgNo":"3340120","typeCode":"计划停电","poweroffArea":"35kV头蓬变:帝凯801线","poweroffReason":"帝凯801线配合主网倒负荷设备班）配合头蓬变临时开闭站吊装倒负荷工作","powerTime":"2020-04-16 14:25:54","powerComm":"已送电","subsNo":"","lineNo":"","tgNo":"","tgName":null,"infoStatus":"1","orgName":"国网浙江杭州市钱塘新区供电公司","typeName":null,"infoStatusName":null,"dateDay":null,"orgNos":null,"nowTime":null,"countyName":null,"streetName":null,"villageName":null,"roadName":null,"communityName":null,"tranName":null,"sdLineName":null,"cityCode":"3340120","cityName":"国网浙江杭州市钱塘新区供电公司","provinceCode":null,"stopTime":"2020-04-16 14:45:00","powerType":"全部","powerOffArea":"35kV头蓬变:帝凯801线","powerOffReason":"帝凯801线配合主网倒负荷设备班）配合头蓬变临时开闭站吊装倒负荷工作","powerOffId":"2020040631020049"},{"poweroffId":2020040631020048,"sgpoweroffId":null,"subsName":"","lineName":"10kV宏蓬807线","pubTranName":"义蓬机械厂,良达宏包装02#,01,江东市政,江东市政,张叠塑料泡末,钱江制桶,广力实业,丽绣色纺材料,良达宏包装,江东市政（临）,向前村6#变,友润机械,河庄南钱菜厂,","scope":"浙江省-杭州市-萧山区-河庄街道-向前行政村-向前自然村;河庄街道-江东开发区园区(杭州江东市政公用事业服务有限公司,广力实业(杭州)有限公司,杭州钱江制桶有限公司,浙江丽绣色纺材料有限公司,杭州钱杰五金塑料有限公司,杭州萧山河庄南钱菜厂,杭州良达宏包装科技有限公司),河庄街道-向前行政村(杭州钱杰五金塑料有限公司,杭州强叠塑料泡沫有限公司),河庄街道-江东行政村-杭州江东市政公用事业服务有限公司,义蓬街道-春园行政村-杭州义蓬机械厂","startTime":"2020-04-16 13:30:00","stopDate":"2020-04-16 14:00:00","orgNo":"3340120","typeCode":"计划停电","poweroffArea":"35kV头蓬变:宏蓬807线","poweroffReason":"宏蓬807线配合主网倒负荷（设备班）配合头蓬变临时开闭站吊装倒负荷工作","powerTime":"2020-04-16 13:54:11","powerComm":"已送电","subsNo":"","lineNo":"","tgNo":"","tgName":null,"infoStatus":"1","orgName":"国网浙江杭州市钱塘新区供电公司","typeName":null,"infoStatusName":null,"dateDay":null,"orgNos":null,"nowTime":null,"countyName":null,"streetName":null,"villageName":null,"roadName":null,"communityName":null,"tranName":null,"sdLineName":null,"cityCode":"3340120","cityName":"国网浙江杭州市钱塘新区供电公司","provinceCode":null,"stopTime":"2020-04-16 14:00:00","powerType":"全部","powerOffArea":"35kV头蓬变:宏蓬807线","powerOffReason":"宏蓬807线配合主网倒负荷（设备班）配合头蓬变临时开闭站吊装倒负荷工作","powerOffId":"2020040631020048"},{"poweroffId":2020040631020047,"sgpoweroffId":null,"subsName":"","lineName":"10kV五围803线","pubTranName":"梅西五垦,河庄同二垦种,党湾幸福垦种,河庄民主垦种,乐园垦种,河庄四垦,1#,水利水电临一,河庄同一四垦,河庄民主村01#,源善水产,党湾勤联垦种,义蓬杏花垦种,义蓬长红垦种,江东市政,兴法养猪场,河庄向公垦种,特维艾机械2#,宏伟机电,党湾裕民村,特维艾机械1#,河庄四垦种,","scope":"浙江省-杭州市-萧山区-河庄街道民主村经济联合社,河庄街道-江东开发区园区(杭州特维艾机械制造有限公司,杭州江东市政公用事业服务有限公司),义蓬街道-六工段片区(萧山区党湾镇幸福村围垦,萧山区党湾镇裕民村（围垦用电）),围垦垦区-五工段片区(萧山区义蓬镇蓬园村(围垦用电),河庄四垦种,萧山区河庄街道民主村经济联合社,杭州江东农场开发有限公司,杭州市萧山区义蓬街道蓬园村经济联合社,萧山区河庄街道向公村经济合作社),围垦垦区-六工段片区(梅西五垦种,宏伟机电站垦种,萧山区河庄镇同二村村民委员会(围垦用电)),河庄街道-五工段片区(萧山区义蓬镇长红村（围垦用电）,萧山区义蓬镇杏花村(围垦用电)),河庄街道(六工段片区-萧山区河庄镇同一村四垦,围中行政村-杭州萧山河庄镇兴法养猪场,同二行政村-杭州源善水产专业合作社),义蓬街道(南沙行政村-杭州萧山天潮水产养殖有限公司,春雷行政村-中国水利水电第四工程局有限公司)","startTime":"2020-04-16 13:40:00","stopDate":"2020-04-16 14:20:00","orgNo":"3340120","typeCode":"计划停电","poweroffArea":"35kV头蓬变:五围803线","poweroffReason":"五围803线配合主网倒负荷（设备班）配合头蓬变临时开闭站吊装倒负荷工作原停电结束时间为2020-04-1614:00:00,因计划原因,延迟送电,现变更停电结束时间为2020-04-1614:20:00","powerTime":"2020-04-16 14:00:07","powerComm":"已送电","subsNo":"","lineNo":"","tgNo":"","tgName":null,"infoStatus":"1","orgName":"国网浙江杭州市钱塘新区供电公司","typeName":null,"infoStatusName":null,"dateDay":null,"orgNos":null,"nowTime":null,"countyName":null,"streetName":null,"villageName":null,"roadName":null,"communityName":null,"tranName":null,"sdLineName":null,"cityCode":"3340120","cityName":"国网浙江杭州市钱塘新区供电公司","provinceCode":null,"stopTime":"2020-04-16 14:20:00","powerType":"全部","powerOffArea":"35kV头蓬变:五围803线","powerOffReason":"五围803线配合主网倒负荷（设备班）配合头蓬变临时开闭站吊装倒负荷工作原停电结束时间为2020-04-1614:00:00,因计划原因,延迟送电,现变更停电结束时间为2020-04-1614:20:00","powerOffId":"2020040631020047"}],"pageModel":{"pageNow":386,"totalCount":17788,"totalPage":1779,"tableRows":0,"pageCount":10,"beginCount":3850},"isExperi":"1"}