{"message":"","today":"2020-06-15","seleList":[{"poweroffId":2020040531020122,"sgpoweroffId":null,"subsName":"","lineName":"10kV大禾V622线","pubTranName":"下光明,","scope":"浙江省-杭州市-临安市-青山湖街道-雅观行政村-雅观自然村","startTime":"2020-04-17 08:20:00","stopDate":"2020-04-17 14:10:00","orgNo":"3340160","typeCode":"计划停电","poweroffArea":"110kV雅观变:大禾V622线雅观小学配变分线1#杆雅观小学配变低压总闸刀以后","poweroffReason":"增容布点工作","powerTime":"2020-04-17 14:00:15","powerComm":"已送电","subsNo":"","lineNo":"","tgNo":"","tgName":null,"infoStatus":"1","orgName":"国网浙江临安市供电公司","typeName":null,"infoStatusName":null,"dateDay":null,"orgNos":null,"nowTime":null,"countyName":null,"streetName":null,"villageName":null,"roadName":null,"communityName":null,"tranName":null,"sdLineName":null,"cityCode":"3340160","cityName":"国网浙江临安市供电公司","provinceCode":null,"stopTime":"2020-04-17 14:10:00","powerType":"全部","powerOffArea":"110kV雅观变:大禾V622线雅观小学配变分线1#杆雅观小学配变低压总闸刀以后","powerOffReason":"增容布点工作","powerOffId":"2020040531020122"},{"poweroffId":2020040531020120,"sgpoweroffId":null,"subsName":"","lineName":"10kV鹤石V934线","pubTranName":"岳山村变,浙江省临安市曙光印务有限公司,临安市青山小学,","scope":"浙江省-杭州市-临安市-青山湖街道-岳山村，浙江省临安市曙光印务有限公司，临安市青山小学","startTime":"2020-04-16 08:50:00","stopDate":"2020-04-16 11:50:00","orgNo":"3340160","typeCode":"计划停电","poweroffArea":"110kV天柱变:鹤石V934线蒋墅站青山小学分线间隔开关","poweroffReason":"业扩工程线路迁改原停电结束时间为2020-04-1612:50:00,为减少客户停电时间,加快工作进度,提前送电,现变更停电结束时间为2020-04-1611:50:00","powerTime":"2020-04-16 11:12:58","powerComm":"已送电","subsNo":"","lineNo":"","tgNo":"","tgName":null,"infoStatus":"1","orgName":"国网浙江临安市供电公司","typeName":null,"infoStatusName":null,"dateDay":null,"orgNos":null,"nowTime":null,"countyName":null,"streetName":null,"villageName":null,"roadName":null,"communityName":null,"tranName":null,"sdLineName":null,"cityCode":"3340160","cityName":"国网浙江临安市供电公司","provinceCode":null,"stopTime":"2020-04-16 11:50:00","powerType":"全部","powerOffArea":"110kV天柱变:鹤石V934线蒋墅站青山小学分线间隔开关","powerOffReason":"业扩工程线路迁改原停电结束时间为2020-04-1612:50:00,为减少客户停电时间,加快工作进度,提前送电,现变更停电结束时间为2020-04-1611:50:00","powerOffId":"2020040531020120"},{"poweroffId":2020040531020119,"sgpoweroffId":null,"subsName":"","lineName":"10kV秋口V542线","pubTranName":"秋口村青塘头,","scope":"浙江省-杭州市-临安市-板桥镇秋口村青塘头","startTime":"2020-04-15 13:00:00","stopDate":"2020-04-15 18:00:00","orgNo":"3340160","typeCode":"计划停电","poweroffArea":"110kV板桥变:秋口V542线243#杆秋口村青塘头公变令克以后","poweroffReason":"配变增容工作","powerTime":"2020-04-15 17:48:37","powerComm":"已送电","subsNo":"","lineNo":"","tgNo":"","tgName":null,"infoStatus":"1","orgName":"国网浙江临安市供电公司","typeName":null,"infoStatusName":null,"dateDay":null,"orgNos":null,"nowTime":null,"countyName":null,"streetName":null,"villageName":null,"roadName":null,"communityName":null,"tranName":null,"sdLineName":null,"cityCode":"3340160","cityName":"国网浙江临安市供电公司","provinceCode":null,"stopTime":"2020-04-15 18:00:00","powerType":"全部","powerOffArea":"110kV板桥变:秋口V542线243#杆秋口村青塘头公变令克以后","powerOffReason":"配变增容工作","powerOffId":"2020040531020119"},{"poweroffId":2020040531020118,"sgpoweroffId":null,"subsName":"","lineName":"10kV观湖V601线","pubTranName":"曹前,","scope":"浙江省-杭州市-临安市-青山湖街道-洪村行政村-曹前自然村","startTime":"2020-04-15 08:20:00","stopDate":"2020-04-15 14:10:00","orgNo":"3340160","typeCode":"计划停电","poweroffArea":"110kV雅观变:观湖V601线曹前变支线1#杆曹前配变总闸刀以后","poweroffReason":"增容布点工作","powerTime":"2020-04-15 14:00:07","powerComm":"已送电","subsNo":"","lineNo":"","tgNo":"","tgName":null,"infoStatus":"1","orgName":"国网浙江临安市供电公司","typeName":null,"infoStatusName":null,"dateDay":null,"orgNos":null,"nowTime":null,"countyName":null,"streetName":null,"villageName":null,"roadName":null,"communityName":null,"tranName":null,"sdLineName":null,"cityCode":"3340160","cityName":"国网浙江临安市供电公司","provinceCode":null,"stopTime":"2020-04-15 14:10:00","powerType":"全部","powerOffArea":"110kV雅观变:观湖V601线曹前变支线1#杆曹前配变总闸刀以后","powerOffReason":"增容布点工作","powerOffId":"2020040531020118"},{"poweroffId":2020040531020117,"sgpoweroffId":null,"subsName":"","lineName":"10kV三口V552线","pubTranName":"秋口村青天目,","scope":"浙江省-杭州市-临安市-板桥镇秋口村青天目","startTime":"2020-04-15 08:00:00","stopDate":"2020-04-15 14:00:00","orgNo":"3340160","typeCode":"计划停电","poweroffArea":"110kV板桥变:三口V552线早湾里分线1#杆秋口青天目支线令克以后","poweroffReason":"配变增容工作原停电结束时间为2020-04-1513:00:00,因现场工作原因,延迟送电,现变更停电结束时间为2020-04-1514:00:00","powerTime":"2020-04-15 13:50:19","powerComm":"已送电","subsNo":"","lineNo":"","tgNo":"","tgName":null,"infoStatus":"1","orgName":"国网浙江临安市供电公司","typeName":null,"infoStatusName":null,"dateDay":null,"orgNos":null,"nowTime":null,"countyName":null,"streetName":null,"villageName":null,"roadName":null,"communityName":null,"tranName":null,"sdLineName":null,"cityCode":"3340160","cityName":"国网浙江临安市供电公司","provinceCode":null,"stopTime":"2020-04-15 14:00:00","powerType":"全部","powerOffArea":"110kV板桥变:三口V552线早湾里分线1#杆秋口青天目支线令克以后","powerOffReason":"配变增容工作原停电结束时间为2020-04-1513:00:00,因现场工作原因,延迟送电,现变更停电结束时间为2020-04-1514:00:00","powerOffId":"2020040531020117"},{"poweroffId":2020040531020116,"sgpoweroffId":null,"subsName":"","lineName":"10kV意向V617线","pubTranName":"临安市莲花山光明寺,","scope":"浙江省-杭州市-临安市-青山湖街道-雅观行政村-临安市莲花山光明寺","startTime":"2020-04-14 08:30:00","stopDate":"2020-04-14 13:30:00","orgNo":"3340160","typeCode":"计划停电","poweroffArea":"110kV雅观变:意向V617线临安莲花山光明寺分线1#杆令克以后","poweroffReason":"配变增容工作","powerTime":"2020-04-14 13:20:06","powerComm":"已送电","subsNo":"","lineNo":"","tgNo":"","tgName":null,"infoStatus":"1","orgName":"国网浙江临安市供电公司","typeName":null,"infoStatusName":null,"dateDay":null,"orgNos":null,"nowTime":null,"countyName":null,"streetName":null,"villageName":null,"roadName":null,"communityName":null,"tranName":null,"sdLineName":null,"cityCode":"3340160","cityName":"国网浙江临安市供电公司","provinceCode":null,"stopTime":"2020-04-14 13:30:00","powerType":"全部","powerOffArea":"110kV雅观变:意向V617线临安莲花山光明寺分线1#杆令克以后","powerOffReason":"配变增容工作","powerOffId":"2020040531020116"},{"poweroffId":2020040531020115,"sgpoweroffId":null,"subsName":"","lineName":"10kV科技V792线","pubTranName":"杭州杭临轨道交通有限公司5#,","scope":"浙江省-杭州市-临安市-锦北街道-民主行政村-城际铁路高架段","startTime":"2020-04-13 12:00:00","stopDate":"2020-04-13 17:00:00","orgNo":"3340160","typeCode":"计划停电","poweroffArea":"110kV胜联变:1、停科技V792线黄岭站城铁分线开关； 2、停科技V792线新44#杆城铁分线1#杆令克","poweroffReason":"科技大道迁改","powerTime":"2020-04-13 16:50:20","powerComm":"已送电","subsNo":"","lineNo":"","tgNo":"","tgName":null,"infoStatus":"1","orgName":"国网浙江临安市供电公司","typeName":null,"infoStatusName":null,"dateDay":null,"orgNos":null,"nowTime":null,"countyName":null,"streetName":null,"villageName":null,"roadName":null,"communityName":null,"tranName":null,"sdLineName":null,"cityCode":"3340160","cityName":"国网浙江临安市供电公司","provinceCode":null,"stopTime":"2020-04-13 17:00:00","powerType":"全部","powerOffArea":"110kV胜联变:1、停科技V792线黄岭站城铁分线开关； 2、停科技V792线新44#杆城铁分线1#杆令克","powerOffReason":"科技大道迁改","powerOffId":"2020040531020115"},{"poweroffId":2020040531020103,"sgpoweroffId":null,"subsName":"","lineName":"10kV桐浦D844线","pubTranName":"阆坞村阆港2号孙家公变,","scope":"浙江省-杭州市-富阳区-渌渚镇-阆坞行政村-阆港孙家自然村","startTime":"2020-04-05 18:03:14","stopDate":"2020-04-05 19:03:14","orgNo":"3340170","typeCode":"电网故障停限电","poweroffArea":"110kV新桐变:桐浦D844线-阆坞村阆港2号孙家公变后段","poweroffReason":"高压开关跳闸 原停电结束时间为2020-04-05 20:03:14,为减少客户停电时间,加快工作进度,提前送电,现变更停电结束时间为2020-04-05 19:03:14","powerTime":"2020-04-05 18:45:07","powerComm":"已送电","subsNo":"","lineNo":"","tgNo":"","tgName":null,"infoStatus":"1","orgName":"国网浙江杭州市富阳区供电公司","typeName":null,"infoStatusName":null,"dateDay":null,"orgNos":null,"nowTime":null,"countyName":null,"streetName":null,"villageName":null,"roadName":null,"communityName":null,"tranName":null,"sdLineName":null,"cityCode":"3340170","cityName":"国网浙江杭州市富阳区供电公司","provinceCode":null,"stopTime":"2020-04-05 19:03:14","powerType":"全部","powerOffArea":"110kV新桐变:桐浦D844线-阆坞村阆港2号孙家公变后段","powerOffReason":"高压开关跳闸 原停电结束时间为2020-04-05 20:03:14,为减少客户停电时间,加快工作进度,提前送电,现变更停电结束时间为2020-04-05 19:03:14","powerOffId":"2020040531020103"},{"poweroffId":2020040531020101,"sgpoweroffId":null,"subsName":"","lineName":"10kV彭宣975线","pubTranName":"江干区看守所,胜典,彩印,摩擦,高丰,和合,三村(3-1)农,三村(3-5)农,定坤保洁,和合,","scope":"浙江省-杭州市-江干区-误彭埠镇-普福社区(备塘路,普福村),九堡镇-三村村社区","startTime":"2020-04-05 17:46:18","stopDate":"2020-04-05 19:15:18","orgNo":"3340101","typeCode":"电网故障停限电","poweroffArea":"110kV彭埠变:彭宣975线-广告分线后段","poweroffReason":"高压开关跳闸 原停电结束时间为2020-04-05 23:46:18,为减少客户停电时间,加快工作进度,提前送电,现变更停电结束时间为2020-04-05 19:15:18","powerTime":"2020-04-05 18:50:26","powerComm":"已送电","subsNo":"","lineNo":"","tgNo":"","tgName":null,"infoStatus":"1","orgName":"浙江杭州电力客户服务中心","typeName":null,"infoStatusName":null,"dateDay":null,"orgNos":null,"nowTime":null,"countyName":null,"streetName":null,"villageName":null,"roadName":null,"communityName":null,"tranName":null,"sdLineName":null,"cityCode":"3340101","cityName":"浙江杭州电力客户服务中心","provinceCode":null,"stopTime":"2020-04-05 19:15:18","powerType":"全部","powerOffArea":"110kV彭埠变:彭宣975线-广告分线后段","powerOffReason":"高压开关跳闸 原停电结束时间为2020-04-05 23:46:18,为减少客户停电时间,加快工作进度,提前送电,现变更停电结束时间为2020-04-05 19:15:18","powerOffId":"2020040531020101"},{"poweroffId":2020040531020095,"sgpoweroffId":null,"subsName":"","lineName":"10kV仙宅H777线","pubTranName":"仙宅村里村2号公变,","scope":"浙江省-杭州市-余杭区-余杭街道-仙宅行政村-仙宅自然村","startTime":"2020-04-05 16:42:50","stopDate":"2020-04-05 18:10:50","orgNo":"3340140","typeCode":"电网故障停限电","poweroffArea":"35kV长岗临时变:仙宅H777线-里村2分线跌落式熔断器后段","poweroffReason":"高压开关跳闸","powerTime":"2020-04-05 18:03:15","powerComm":"已送电","subsNo":"","lineNo":"","tgNo":"","tgName":null,"infoStatus":"1","orgName":"国网浙江杭州市余杭区供电有限公司","typeName":null,"infoStatusName":null,"dateDay":null,"orgNos":null,"nowTime":null,"countyName":null,"streetName":null,"villageName":null,"roadName":null,"communityName":null,"tranName":null,"sdLineName":null,"cityCode":"3340140","cityName":"国网浙江杭州市余杭区供电有限公司","provinceCode":null,"stopTime":"2020-04-05 18:10:50","powerType":"全部","powerOffArea":"35kV长岗临时变:仙宅H777线-里村2分线跌落式熔断器后段","powerOffReason":"高压开关跳闸","powerOffId":"2020040531020095"}],"pageModel":{"pageNow":388,"totalCount":17788,"totalPage":1779,"tableRows":0,"pageCount":10,"beginCount":3870},"isExperi":"1"}