{"message":"","today":"2020-06-15","seleList":[{"poweroffId":2020040431020106,"sgpoweroffId":null,"subsName":"","lineName":"10kV芦岭V130线","pubTranName":"临安市中信线业有限公司,","scope":"浙江省-杭州市-临安市-昌化镇-石铺村-杭州临安中信线业有限公司","startTime":"2020-04-13 08:10:00","stopDate":"2020-04-13 12:50:00","orgNo":"3340160","typeCode":"计划停电","poweroffArea":"110kV昌化变:芦岭V130线-中信线业支线","poweroffReason":"新装配变布点","powerTime":"2020-04-13 11:56:42","powerComm":"已送电","subsNo":"","lineNo":"","tgNo":"","tgName":null,"infoStatus":"1","orgName":"国网浙江临安市供电公司","typeName":null,"infoStatusName":null,"dateDay":null,"orgNos":null,"nowTime":null,"countyName":null,"streetName":null,"villageName":null,"roadName":null,"communityName":null,"tranName":null,"sdLineName":null,"cityCode":"3340160","cityName":"国网浙江临安市供电公司","provinceCode":null,"stopTime":"2020-04-13 12:50:00","powerType":"全部","powerOffArea":"110kV昌化变:芦岭V130线-中信线业支线","powerOffReason":"新装配变布点","powerOffId":"2020040431020106"},{"poweroffId":2020040431020105,"sgpoweroffId":null,"subsName":"","lineName":"10kV湍口V303线","pubTranName":"岔口村,","scope":"浙江省-杭州市-临安市-湍口镇-塘溪源村-岔口。","startTime":"2020-04-16 08:10:00","stopDate":"2020-04-16 11:50:00","orgNo":"3340160","typeCode":"计划停电","poweroffArea":"35kV湍口变:湍口V303线-岔口村配变","poweroffReason":"岔口村配变增容原停电结束时间为2020-04-1612:50:00,为减少客户停电时间,加快工作进度,提前送电,现变更停电结束时间为2020-04-1611:50:00","powerTime":"2020-04-16 11:14:09","powerComm":"已送电","subsNo":"","lineNo":"","tgNo":"","tgName":null,"infoStatus":"1","orgName":"国网浙江临安市供电公司","typeName":null,"infoStatusName":null,"dateDay":null,"orgNos":null,"nowTime":null,"countyName":null,"streetName":null,"villageName":null,"roadName":null,"communityName":null,"tranName":null,"sdLineName":null,"cityCode":"3340160","cityName":"国网浙江临安市供电公司","provinceCode":null,"stopTime":"2020-04-16 11:50:00","powerType":"全部","powerOffArea":"35kV湍口变:湍口V303线-岔口村配变","powerOffReason":"岔口村配变增容原停电结束时间为2020-04-1612:50:00,为减少客户停电时间,加快工作进度,提前送电,现变更停电结束时间为2020-04-1611:50:00","powerOffId":"2020040431020105"},{"poweroffId":2020040431020104,"sgpoweroffId":null,"subsName":"","lineName":"10kV仁里V312线","pubTranName":"中山村,","scope":"浙江省-杭州市-临安市-岛石镇-太平里村-中山。","startTime":"2020-04-15 07:40:00","stopDate":"2020-04-15 12:20:00","orgNo":"3340160","typeCode":"计划停电","poweroffArea":"35kV岛石变:仁里V312线-中山村配变","poweroffReason":"中山村配变移位","powerTime":"2020-04-15 11:34:07","powerComm":"已送电","subsNo":"","lineNo":"","tgNo":"","tgName":null,"infoStatus":"1","orgName":"国网浙江临安市供电公司","typeName":null,"infoStatusName":null,"dateDay":null,"orgNos":null,"nowTime":null,"countyName":null,"streetName":null,"villageName":null,"roadName":null,"communityName":null,"tranName":null,"sdLineName":null,"cityCode":"3340160","cityName":"国网浙江临安市供电公司","provinceCode":null,"stopTime":"2020-04-15 12:20:00","powerType":"全部","powerOffArea":"35kV岛石变:仁里V312线-中山村配变","powerOffReason":"中山村配变移位","powerOffId":"2020040431020104"},{"poweroffId":2020040431020102,"sgpoweroffId":null,"subsName":"","lineName":"10kV湍河V301线","pubTranName":"三联村,三联村洋湖,三联村下余,临安市湍口镇人民镇府,","scope":"浙江省-杭州市-临安市-湍口镇-三联村三联、洋湖、下余、馒头迎客。","startTime":"2020-04-17 07:00:00","stopDate":"2020-04-17 11:30:00","orgNo":"3340160","typeCode":"计划停电","poweroffArea":"35kV湍口变:湍河V301线3012开关至3013开关之间","poweroffReason":"湍河V301线57#杆移位原停电结束时间为2020-04-1713:00:00,为减少客户停电时间,加快工作进度,提前送电,现变更停电结束时间为2020-04-1711:30:00","powerTime":"2020-04-17 10:52:59","powerComm":"已送电","subsNo":"","lineNo":"","tgNo":"","tgName":null,"infoStatus":"1","orgName":"国网浙江临安市供电公司","typeName":null,"infoStatusName":null,"dateDay":null,"orgNos":null,"nowTime":null,"countyName":null,"streetName":null,"villageName":null,"roadName":null,"communityName":null,"tranName":null,"sdLineName":null,"cityCode":"3340160","cityName":"国网浙江临安市供电公司","provinceCode":null,"stopTime":"2020-04-17 11:30:00","powerType":"全部","powerOffArea":"35kV湍口变:湍河V301线3012开关至3013开关之间","powerOffReason":"湍河V301线57#杆移位原停电结束时间为2020-04-1713:00:00,为减少客户停电时间,加快工作进度,提前送电,现变更停电结束时间为2020-04-1711:30:00","powerOffId":"2020040431020102"},{"poweroffId":2020040431020091,"sgpoweroffId":null,"subsName":"","lineName":"10kV城阳D144线","pubTranName":"古城社区1#公变,","scope":"浙江省-杭州市-富阳区-新登镇-惠来社区-天主弄,新登镇-古城社区(共和南路,小东门,大东门,东门路),新登镇-东安社区(东门路,东门东路)","startTime":"2020-04-04 16:18:57","stopDate":"2020-04-04 18:18:57","orgNo":"3340170","typeCode":"电网故障停限电","poweroffArea":"110kV新登变:城阳D144线-古城社区1#公变后段","poweroffReason":"(低压停电信息)低压开关跳闸","powerTime":"2020-04-04 17:50:03","powerComm":"已送电","subsNo":"","lineNo":"","tgNo":"","tgName":null,"infoStatus":"1","orgName":"国网浙江杭州市富阳区供电公司","typeName":null,"infoStatusName":null,"dateDay":null,"orgNos":null,"nowTime":null,"countyName":null,"streetName":null,"villageName":null,"roadName":null,"communityName":null,"tranName":null,"sdLineName":null,"cityCode":"3340170","cityName":"国网浙江杭州市富阳区供电公司","provinceCode":null,"stopTime":"2020-04-04 18:18:57","powerType":"全部","powerOffArea":"110kV新登变:城阳D144线-古城社区1#公变后段","powerOffReason":"(低压停电信息)低压开关跳闸","powerOffId":"2020040431020091"},{"poweroffId":2020040431020082,"sgpoweroffId":null,"subsName":"","lineName":"10kV百岁T168线","pubTranName":"桐庐森原矿业有限公司,糁源村对山1号公变,糁源村里糁源3号公变,糁源村冷子里2号公变,","scope":"浙江省-杭州市-桐庐县-瑶琳镇(大山行政村-俞毕,毕浦行政村-糁源自然村);瑶琳镇-杭州浩琪雕塑工程有限公司","startTime":"2020-04-04 15:35:00","stopDate":"2020-04-04 19:46:00","orgNo":"3340150","typeCode":"电网故障停限电","poweroffArea":"35kV瑶琳变:百岁T168线糁源F6077令克后段","poweroffReason":"高压开关跳闸 原停电结束时间为2020-04-04 20:30:00,为减少客户停电时间,加快工作进度,提前送电,现变更停电结束时间为2020-04-04 19:46:00","powerTime":"2020-04-04 19:33:24","powerComm":"已送电","subsNo":"","lineNo":"","tgNo":"","tgName":null,"infoStatus":"1","orgName":"国网浙江桐庐县供电公司","typeName":null,"infoStatusName":null,"dateDay":null,"orgNos":null,"nowTime":null,"countyName":null,"streetName":null,"villageName":null,"roadName":null,"communityName":null,"tranName":null,"sdLineName":null,"cityCode":"3340150","cityName":"国网浙江桐庐县供电公司","provinceCode":null,"stopTime":"2020-04-04 19:46:00","powerType":"全部","powerOffArea":"35kV瑶琳变:百岁T168线糁源F6077令克后段","powerOffReason":"高压开关跳闸 原停电结束时间为2020-04-04 20:30:00,为减少客户停电时间,加快工作进度,提前送电,现变更停电结束时间为2020-04-04 19:46:00","powerOffId":"2020040431020082"},{"poweroffId":2020040431020081,"sgpoweroffId":null,"subsName":"","lineName":"10kV水阁C233线","pubTranName":"雀山岭3#变,雀山岭4#变,雀山岭1#变,雀山岭2#变,服装八厂,电工器材,雀山岭5#变,雀山岭7#变,雀山岭6#变,杭州萧山艾毅五金制品厂,康达机械,","scope":"浙江省-杭州市-萧山区-楼塔镇-大黄岭行政村-夏坞自然村,楼塔镇-雀山岭行政村(儒坞自然村,徐家店自然村,直坞自然村);楼塔镇-雀山岭行政村(杭州萧山楼塔康达机械五金厂,杭州岩山电工器材有限公司,杭州萧山服装八厂,杭州萧山艾毅五金制品厂)一带","startTime":"2020-04-04 15:31:37","stopDate":"2020-04-04 18:31:37","orgNo":"3340130","typeCode":"电网故障停限电","poweroffArea":"35kV楼塔变:水阁C233线-水阁C233线雀山岭分线开关后段","poweroffReason":"高压架空线路断线故障","powerTime":"2020-04-04 17:38:04","powerComm":"已送电","subsNo":"","lineNo":"","tgNo":"","tgName":null,"infoStatus":"1","orgName":"国网浙江杭州市萧山区供电有限公司","typeName":null,"infoStatusName":null,"dateDay":null,"orgNos":null,"nowTime":null,"countyName":null,"streetName":null,"villageName":null,"roadName":null,"communityName":null,"tranName":null,"sdLineName":null,"cityCode":"3340130","cityName":"国网浙江杭州市萧山区供电有限公司","provinceCode":null,"stopTime":"2020-04-04 18:31:37","powerType":"全部","powerOffArea":"35kV楼塔变:水阁C233线-水阁C233线雀山岭分线开关后段","powerOffReason":"高压架空线路断线故障","powerOffId":"2020040431020081"},{"poweroffId":2020040431020070,"sgpoweroffId":null,"subsName":"","lineName":"10kV凤鸣252线","pubTranName":"徐石村1号公变,","scope":"浙江省-杭州市-桐庐县-江南镇-金茂行政村(满林自然村,徐石自然村)","startTime":"2020-04-16 08:00:00","stopDate":"2020-04-16 12:00:00","orgNo":"3340150","typeCode":"计划停电","poweroffArea":"110kV石阜变:凤鸣252线-徐石F4003后段","poweroffReason":"杭州桐庐江南镇徐石村1号公变JP柜调换及出线电缆搭接工作","powerTime":"2020-04-16 11:41:52","powerComm":"已送电","subsNo":"","lineNo":"","tgNo":"","tgName":null,"infoStatus":"1","orgName":"国网浙江桐庐县供电公司","typeName":null,"infoStatusName":null,"dateDay":null,"orgNos":null,"nowTime":null,"countyName":null,"streetName":null,"villageName":null,"roadName":null,"communityName":null,"tranName":null,"sdLineName":null,"cityCode":"3340150","cityName":"国网浙江桐庐县供电公司","provinceCode":null,"stopTime":"2020-04-16 12:00:00","powerType":"全部","powerOffArea":"110kV石阜变:凤鸣252线-徐石F4003后段","powerOffReason":"杭州桐庐江南镇徐石村1号公变JP柜调换及出线电缆搭接工作","powerOffId":"2020040431020070"},{"poweroffId":2020040431020065,"sgpoweroffId":null,"subsName":"","lineName":"10kV白云C946线","pubTranName":"信源村7#变,","scope":"浙江省-杭州市-萧山区-瓜沥镇-信源行政村(信源自然村,党柯路,川北路,党益路),瓜沥镇-官一行政村(党益路,官一自然村)等","startTime":"2020-04-04 13:15:58","stopDate":"2020-04-04 15:10:58","orgNo":"3340130","typeCode":"电网故障停限电","poweroffArea":"110kV党山变:白云C946线-信源村7#变台区低压开关","poweroffReason":"(低压停电信息)低压架空导线断线 原停电结束时间为2020-04-04 15:40:58,为减少客户停电时间,加快工作进度,提前送电,现变更停电结束时间为2020-04-04 15:10:58","powerTime":"2020-04-04 14:18:32","powerComm":"已送电","subsNo":"","lineNo":"","tgNo":"","tgName":null,"infoStatus":"1","orgName":"国网浙江杭州市萧山区供电有限公司","typeName":null,"infoStatusName":null,"dateDay":null,"orgNos":null,"nowTime":null,"countyName":null,"streetName":null,"villageName":null,"roadName":null,"communityName":null,"tranName":null,"sdLineName":null,"cityCode":"3340130","cityName":"国网浙江杭州市萧山区供电有限公司","provinceCode":null,"stopTime":"2020-04-04 15:10:58","powerType":"全部","powerOffArea":"110kV党山变:白云C946线-信源村7#变台区低压开关","powerOffReason":"(低压停电信息)低压架空导线断线 原停电结束时间为2020-04-04 15:40:58,为减少客户停电时间,加快工作进度,提前送电,现变更停电结束时间为2020-04-04 15:10:58","powerOffId":"2020040431020065"},{"poweroffId":2020040431020060,"sgpoweroffId":null,"subsName":"","lineName":"10kV油车G147线","pubTranName":"沿山村潘家埭变,沿山村张家里变,中交第二航务工程局有限公司余杭分公司612084193301#专变,中交第二航务工程局有限公司余杭分公司612084197301#专变,","scope":"浙江省-杭州市-余杭区-崇贤街道-浙江省杭州市余杭区崇贤街道：沿山村潘家埭、沿山村张家里、中交第二航务工程局有限公司余杭分公司","startTime":"2020-04-17 08:20:00","stopDate":"2020-04-17 11:20:00","orgNo":"3340140","typeCode":"计划停电","poweroffArea":"35kV南山变:油车G147线沿山村张家里分线","poweroffReason":"杭州余杭崇贤0.4千伏角沙线崇贤村公变改造工程：张家里分线6#杆新放导线1档，新布400kVA公变一台","powerTime":"2020-04-17 11:18:00","powerComm":"已送电","subsNo":"","lineNo":"","tgNo":"","tgName":null,"infoStatus":"1","orgName":"国网浙江杭州市余杭区供电有限公司","typeName":null,"infoStatusName":null,"dateDay":null,"orgNos":null,"nowTime":null,"countyName":null,"streetName":null,"villageName":null,"roadName":null,"communityName":null,"tranName":null,"sdLineName":null,"cityCode":"3340140","cityName":"国网浙江杭州市余杭区供电有限公司","provinceCode":null,"stopTime":"2020-04-17 11:20:00","powerType":"全部","powerOffArea":"35kV南山变:油车G147线沿山村张家里分线","powerOffReason":"杭州余杭崇贤0.4千伏角沙线崇贤村公变改造工程：张家里分线6#杆新放导线1档，新布400kVA公变一台","powerOffId":"2020040431020060"}],"pageModel":{"pageNow":391,"totalCount":17788,"totalPage":1779,"tableRows":0,"pageCount":10,"beginCount":3900},"isExperi":"1"}