{"message":"","today":"2020-06-15","seleList":[{"poweroffId":2020040431020055,"sgpoweroffId":null,"subsName":"","lineName":"10kV杨家Y218线","pubTranName":"龙桥村前坊台区,","scope":"浙江省-杭州市-建德市-李家镇 李家行政村-上前山排自然村,龙桥行政村-前坊自然村","startTime":"2020-04-04 10:15:00","stopDate":"2020-04-04 11:40:00","orgNo":"3340180","typeCode":"电网故障停限电","poweroffArea":"35kV李家变:杨家Y218线-龙桥村前坊台区后段","poweroffReason":"(低压停电信息)低压开关跳闸 原停电结束时间为2020-04-04 12:30:00,为减少客户停电时间,加快工作进度,提前送电,现变更停电结束时间为2020-04-04 11:40:00","powerTime":"2020-04-04 11:01:06","powerComm":"已送电","subsNo":"","lineNo":"","tgNo":"","tgName":null,"infoStatus":"1","orgName":"国网浙江建德市供电有限公司","typeName":null,"infoStatusName":null,"dateDay":null,"orgNos":null,"nowTime":null,"countyName":null,"streetName":null,"villageName":null,"roadName":null,"communityName":null,"tranName":null,"sdLineName":null,"cityCode":"3340180","cityName":"国网浙江建德市供电有限公司","provinceCode":null,"stopTime":"2020-04-04 11:40:00","powerType":"全部","powerOffArea":"35kV李家变:杨家Y218线-龙桥村前坊台区后段","powerOffReason":"(低压停电信息)低压开关跳闸 原停电结束时间为2020-04-04 12:30:00,为减少客户停电时间,加快工作进度,提前送电,现变更停电结束时间为2020-04-04 11:40:00","powerOffId":"2020040431020055"},{"poweroffId":2020040431020043,"sgpoweroffId":null,"subsName":"","lineName":"10kV农药L003线","pubTranName":"浙江舒奇蒙能源科技有限公司1#,浙江舒奇蒙能源科技有限公司5#,浙江舒奇蒙能源科技有限公司6#,浙江舒奇蒙能源科技有限公司3#,浙江舒奇蒙能源科技有限公司4#,浙江舒奇蒙能源科技有限公司2#,","scope":"浙江省-杭州市-萧山区-南阳街道-坞里行政村-浙江舒奇蒙能源科技有限公司","startTime":"2020-04-14 07:30:00","stopDate":"2020-04-14 16:30:00","orgNo":"3340130","typeCode":"计划停电","poweroffArea":"35kV赭山变:农药L003线-浙江舒奇蒙能源科技有限公司5#后段","poweroffReason":"农药L003线出线电缆割接至正式柜农药C705线原停电结束时间为2020-04-1415:30:00,因工作强度大的原因,延迟送电,现变更停电结束时间为2020-04-1416:30:00","powerTime":"2020-04-14 15:45:51","powerComm":"已送电","subsNo":"","lineNo":"","tgNo":"","tgName":null,"infoStatus":"1","orgName":"国网浙江杭州市萧山区供电有限公司","typeName":null,"infoStatusName":null,"dateDay":null,"orgNos":null,"nowTime":null,"countyName":null,"streetName":null,"villageName":null,"roadName":null,"communityName":null,"tranName":null,"sdLineName":null,"cityCode":"3340130","cityName":"国网浙江杭州市萧山区供电有限公司","provinceCode":null,"stopTime":"2020-04-14 16:30:00","powerType":"全部","powerOffArea":"35kV赭山变:农药L003线-浙江舒奇蒙能源科技有限公司5#后段","powerOffReason":"农药L003线出线电缆割接至正式柜农药C705线原停电结束时间为2020-04-1415:30:00,因工作强度大的原因,延迟送电,现变更停电结束时间为2020-04-1416:30:00","powerOffId":"2020040431020043"},{"poweroffId":2020040431020042,"sgpoweroffId":null,"subsName":"","lineName":"10kV舒蒙L005线","pubTranName":"舒奇蒙光伏电站,","scope":"浙江省-杭州市-萧山区-南阳街道-赭山村","startTime":"2020-04-14 07:30:00","stopDate":"2020-04-14 16:30:00","orgNo":"3340130","typeCode":"计划停电","poweroffArea":"35kV赭山变:舒蒙L005线-并网开关后段","poweroffReason":"舒蒙L005线出线电缆割接至正式柜舒蒙C703线原停电结束时间为2020-04-1415:30:00,因工作强度大的原因,延迟送电,现变更停电结束时间为2020-04-1416:30:00","powerTime":"2020-04-14 15:45:26","powerComm":"已送电","subsNo":"","lineNo":"","tgNo":"","tgName":null,"infoStatus":"1","orgName":"国网浙江杭州市萧山区供电有限公司","typeName":null,"infoStatusName":null,"dateDay":null,"orgNos":null,"nowTime":null,"countyName":null,"streetName":null,"villageName":null,"roadName":null,"communityName":null,"tranName":null,"sdLineName":null,"cityCode":"3340130","cityName":"国网浙江杭州市萧山区供电有限公司","provinceCode":null,"stopTime":"2020-04-14 16:30:00","powerType":"全部","powerOffArea":"35kV赭山变:舒蒙L005线-并网开关后段","powerOffReason":"舒蒙L005线出线电缆割接至正式柜舒蒙C703线原停电结束时间为2020-04-1415:30:00,因工作强度大的原因,延迟送电,现变更停电结束时间为2020-04-1416:30:00","powerOffId":"2020040431020042"},{"poweroffId":2020040431020041,"sgpoweroffId":null,"subsName":"","lineName":"10kV圣山L008线","pubTranName":"圣山印花2#车间,圣山3#车间,圣山2#1车间,圣山印花1#车间,圣山1#,圣山2#2车间,","scope":"浙江省-杭州市-萧山区-南阳街道-坞里行政村-圣山集团有限公司","startTime":"2020-04-14 07:30:00","stopDate":"2020-04-14 17:00:00","orgNo":"3340130","typeCode":"计划停电","poweroffArea":"35kV赭山变:圣山L008线-圣山集团有限公司开关后段","poweroffReason":"圣山L008线出线电缆割接至正式柜圣山C701线原停电结束时间为2020-04-1415:30:00,因工作强度大的原因,延迟送电,现变更停电结束时间为2020-04-1417:00:00","powerTime":"2020-04-14 16:17:40","powerComm":"已送电","subsNo":"","lineNo":"","tgNo":"","tgName":null,"infoStatus":"1","orgName":"国网浙江杭州市萧山区供电有限公司","typeName":null,"infoStatusName":null,"dateDay":null,"orgNos":null,"nowTime":null,"countyName":null,"streetName":null,"villageName":null,"roadName":null,"communityName":null,"tranName":null,"sdLineName":null,"cityCode":"3340130","cityName":"国网浙江杭州市萧山区供电有限公司","provinceCode":null,"stopTime":"2020-04-14 17:00:00","powerType":"全部","powerOffArea":"35kV赭山变:圣山L008线-圣山集团有限公司开关后段","powerOffReason":"圣山L008线出线电缆割接至正式柜圣山C701线原停电结束时间为2020-04-1415:30:00,因工作强度大的原因,延迟送电,现变更停电结束时间为2020-04-1417:00:00","powerOffId":"2020040431020041"},{"poweroffId":2020040431020039,"sgpoweroffId":null,"subsName":"","lineName":"10kV游乐A001线","pubTranName":"湘湖路公变,休博路公变,","scope":"浙江省-杭州市-萧山区-城厢街道-休博园社区(湘湖路,休博路)、湘湖路、休博路及其周边一带","startTime":"2020-04-04 08:55:00","stopDate":"2020-04-04 13:10:00","orgNo":"3340130","typeCode":"电网故障停限电","poweroffArea":"110kV越王变:游乐A001线休博分线后段","poweroffReason":"变压器放电缺陷处理 原停电结束时间为2020-04-04 16:00:00,为减少客户停电时间,加快工作进度,提前送电,现变更停电结束时间为2020-04-04 13:10:00","powerTime":"2020-04-04 12:22:43","powerComm":"已送电","subsNo":"","lineNo":"","tgNo":"","tgName":null,"infoStatus":"1","orgName":"国网浙江杭州市萧山区供电有限公司","typeName":null,"infoStatusName":null,"dateDay":null,"orgNos":null,"nowTime":null,"countyName":null,"streetName":null,"villageName":null,"roadName":null,"communityName":null,"tranName":null,"sdLineName":null,"cityCode":"3340130","cityName":"国网浙江杭州市萧山区供电有限公司","provinceCode":null,"stopTime":"2020-04-04 13:10:00","powerType":"全部","powerOffArea":"110kV越王变:游乐A001线休博分线后段","powerOffReason":"变压器放电缺陷处理 原停电结束时间为2020-04-04 16:00:00,为减少客户停电时间,加快工作进度,提前送电,现变更停电结束时间为2020-04-04 13:10:00","powerOffId":"2020040431020039"},{"poweroffId":2020040331020757,"sgpoweroffId":null,"subsName":"","lineName":"10kV科研A090线","pubTranName":"东恩村13#变,","scope":"浙江省-杭州市-萧山区-瓜沥镇-东恩行政村-东恩自然村、瓜沥镇东恩行政村东恩自然村桂花苑48号、东恩村等","startTime":"2020-04-03 20:08:25","stopDate":"2020-04-03 21:40:25","orgNo":"3340130","typeCode":"电网故障停限电","poweroffArea":"110kV航坞变:科研A090线-东恩村13#变后段","poweroffReason":"(低压停电信息)低压熔断器跳闸 原停电结束时间为2020-04-03 22:14:25,为减少客户停电时间,加快工作进度,提前送电,现变更停电结束时间为2020-04-03 21:40:25","powerTime":"2020-04-03 20:52:44","powerComm":"已送电","subsNo":"","lineNo":"","tgNo":"","tgName":null,"infoStatus":"1","orgName":"国网浙江杭州市萧山区供电有限公司","typeName":null,"infoStatusName":null,"dateDay":null,"orgNos":null,"nowTime":null,"countyName":null,"streetName":null,"villageName":null,"roadName":null,"communityName":null,"tranName":null,"sdLineName":null,"cityCode":"3340130","cityName":"国网浙江杭州市萧山区供电有限公司","provinceCode":null,"stopTime":"2020-04-03 21:40:25","powerType":"全部","powerOffArea":"110kV航坞变:科研A090线-东恩村13#变后段","powerOffReason":"(低压停电信息)低压熔断器跳闸 原停电结束时间为2020-04-03 22:14:25,为减少客户停电时间,加快工作进度,提前送电,现变更停电结束时间为2020-04-03 21:40:25","powerOffId":"2020040331020757"},{"poweroffId":2020040331020745,"sgpoweroffId":null,"subsName":"","lineName":"10kV新龙A287线","pubTranName":"建华村12#变,建华村10#变,建华村5#变,建华村11#变,建华村16#变,杭州大江东建设发展有限公司1#,","scope":"浙江省-杭州市-萧山区-新湾街道-建华行政村-建华自然村;浙江省-杭州市-萧山区-新湾街道-建华行政村-杭州大江东建设发展有限公司","startTime":"2020-04-16 09:20:00","stopDate":"2020-04-16 16:40:00","orgNo":"3340120","typeCode":"计划停电","poweroffArea":"110kV建湾变:新龙A287线-2115（Z）后段","poweroffReason":"10kV新龙A287线线建华分线04#杆新装开关，建华分线7-18#杆上改下、建华村分线03-04#杆导线拆除等工作","powerTime":"2020-04-16 16:04:49","powerComm":"已送电","subsNo":"","lineNo":"","tgNo":"","tgName":null,"infoStatus":"1","orgName":"国网浙江杭州市钱塘新区供电公司","typeName":null,"infoStatusName":null,"dateDay":null,"orgNos":null,"nowTime":null,"countyName":null,"streetName":null,"villageName":null,"roadName":null,"communityName":null,"tranName":null,"sdLineName":null,"cityCode":"3340120","cityName":"国网浙江杭州市钱塘新区供电公司","provinceCode":null,"stopTime":"2020-04-16 16:40:00","powerType":"全部","powerOffArea":"110kV建湾变:新龙A287线-2115（Z）后段","powerOffReason":"10kV新龙A287线线建华分线04#杆新装开关，建华分线7-18#杆上改下、建华村分线03-04#杆导线拆除等工作","powerOffId":"2020040331020745"},{"poweroffId":2020040331020744,"sgpoweroffId":null,"subsName":"","lineName":"10kV青龙508线","pubTranName":"三联村13#变,","scope":"浙江省-杭州市-萧山区-河庄街道-三联行政村-三联自然村","startTime":"2020-04-22 09:00:00","stopDate":"2020-04-22 15:00:00","orgNo":"3340120","typeCode":"计划停电","poweroffArea":"35kV永丰变:青龙508线-三联村13#变低压后段","poweroffReason":"(低压停电信息)10kV青龙508线终端互感器安装，电缆头制作、试验、搭接等工作原停电结束时间为2020-04-1517:30:00,","powerTime":"2020-04-22 14:15:49","powerComm":"已送电","subsNo":"","lineNo":"","tgNo":"","tgName":null,"infoStatus":"1","orgName":"国网浙江杭州市钱塘新区供电公司","typeName":null,"infoStatusName":null,"dateDay":null,"orgNos":null,"nowTime":null,"countyName":null,"streetName":null,"villageName":null,"roadName":null,"communityName":null,"tranName":null,"sdLineName":null,"cityCode":"3340120","cityName":"国网浙江杭州市钱塘新区供电公司","provinceCode":null,"stopTime":"2020-04-22 15:00:00","powerType":"全部","powerOffArea":"35kV永丰变:青龙508线-三联村13#变低压后段","powerOffReason":"(低压停电信息)10kV青龙508线终端互感器安装，电缆头制作、试验、搭接等工作原停电结束时间为2020-04-1517:30:00,","powerOffId":"2020040331020744"},{"poweroffId":2020040331020742,"sgpoweroffId":null,"subsName":"","lineName":"10kV火星A294线","pubTranName":"新龙村10#变,","scope":"浙江省-杭州市-萧山区-新湾街道(新北桥社区-闸口路,三新行政村-新龙自然村)","startTime":"2020-04-15 09:00:00","stopDate":"2020-04-15 17:30:00","orgNo":"3340120","typeCode":"计划停电","poweroffArea":"110kV建湾变:火星A294线-新龙村10#变低压后段","poweroffReason":"(低压停电信息)新龙村10#变负荷个割接至新龙村10#配变","powerTime":"2020-04-15 17:02:20","powerComm":"已送电","subsNo":"","lineNo":"","tgNo":"","tgName":null,"infoStatus":"1","orgName":"国网浙江杭州市钱塘新区供电公司","typeName":null,"infoStatusName":null,"dateDay":null,"orgNos":null,"nowTime":null,"countyName":null,"streetName":null,"villageName":null,"roadName":null,"communityName":null,"tranName":null,"sdLineName":null,"cityCode":"3340120","cityName":"国网浙江杭州市钱塘新区供电公司","provinceCode":null,"stopTime":"2020-04-15 17:30:00","powerType":"全部","powerOffArea":"110kV建湾变:火星A294线-新龙村10#变低压后段","powerOffReason":"(低压停电信息)新龙村10#变负荷个割接至新龙村10#配变","powerOffId":"2020040331020742"},{"poweroffId":2020040331020740,"sgpoweroffId":null,"subsName":"","lineName":"10kV火星A294线","pubTranName":"建华村13#变,","scope":"浙江省-杭州市-萧山区-新湾街道(建华行政村-建华自然村,三新行政村-新龙自然村)","startTime":"2020-04-15 09:00:00","stopDate":"2020-04-15 13:30:00","orgNo":"3340120","typeCode":"计划停电","poweroffArea":"110kV建湾变:火星A294线-建华13#变后段","poweroffReason":"(低压停电信息)建华村13#变负荷个割接至建华村十三配变","powerTime":"2020-04-15 13:11:13","powerComm":"已送电","subsNo":"","lineNo":"","tgNo":"","tgName":null,"infoStatus":"1","orgName":"国网浙江杭州市钱塘新区供电公司","typeName":null,"infoStatusName":null,"dateDay":null,"orgNos":null,"nowTime":null,"countyName":null,"streetName":null,"villageName":null,"roadName":null,"communityName":null,"tranName":null,"sdLineName":null,"cityCode":"3340120","cityName":"国网浙江杭州市钱塘新区供电公司","provinceCode":null,"stopTime":"2020-04-15 13:30:00","powerType":"全部","powerOffArea":"110kV建湾变:火星A294线-建华13#变后段","powerOffReason":"(低压停电信息)建华村13#变负荷个割接至建华村十三配变","powerOffId":"2020040331020740"}],"pageModel":{"pageNow":392,"totalCount":17788,"totalPage":1779,"tableRows":0,"pageCount":10,"beginCount":3910},"isExperi":"1"}