{"message":"","today":"2020-06-15","seleList":[{"poweroffId":2020040331020693,"sgpoweroffId":null,"subsName":"","lineName":"10kV安桥D203线","pubTranName":"横山下2号油树坞公变,横山下4#油树坞公变,横山下3#油树坞公变,富阳市路灯安装维修管理所,富阳市横山矿粉厂,富阳市君龙水泥砖有限公司,富阳市职业高级中学变压器1,富阳市职业高级中学变压器2,","scope":"浙江省-杭州市-富阳区-富春街道-青云桥行政村","startTime":"2020-04-16 08:05:00","stopDate":"2020-04-16 08:20:00","orgNo":"3340170","typeCode":"计划停电","poweroffArea":"35kV大青变:安桥D203线-安桥D2031开关后段","poweroffReason":"青云2020年大青变10kV间隔整理及咸康D208等线路网架优化工程：短时停电配合横下D204线、安桥D203线负荷转供至10千伏发电车","powerTime":"2020-04-16 08:10:20","powerComm":"已送电","subsNo":"","lineNo":"","tgNo":"","tgName":null,"infoStatus":"1","orgName":"国网浙江杭州市富阳区供电公司","typeName":null,"infoStatusName":null,"dateDay":null,"orgNos":null,"nowTime":null,"countyName":null,"streetName":null,"villageName":null,"roadName":null,"communityName":null,"tranName":null,"sdLineName":null,"cityCode":"3340170","cityName":"国网浙江杭州市富阳区供电公司","provinceCode":null,"stopTime":"2020-04-16 08:20:00","powerType":"全部","powerOffArea":"35kV大青变:安桥D203线-安桥D2031开关后段","powerOffReason":"青云2020年大青变10kV间隔整理及咸康D208等线路网架优化工程：短时停电配合横下D204线、安桥D203线负荷转供至10千伏发电车","powerOffId":"2020040331020693"},{"poweroffId":2020040331020691,"sgpoweroffId":null,"subsName":"","lineName":"10kV横下D204线","pubTranName":"富阳市富翔建材有限公司,2#变压器,杭州途锐机械有限公司1#变,2#电机,浙江郑诺复合材料有限公司,#1电机,富阳金畏铸造有限公司,横山下6号油树坞公变,","scope":"浙江省-杭州市-富阳区-富春街道-青云桥行政村(米筛坞自然村,油树坞自然村,冷水塘自然村,横山下自然村,新凉亭自然村)","startTime":"2020-04-16 08:05:00","stopDate":"2020-04-16 08:20:00","orgNo":"3340170","typeCode":"计划停电","poweroffArea":"35kV大青变:横下D204线-横山下6#油树坞公变后段;横下D204线-富阳市富翔建材有限公司后段;横下D204线首端，横山下6#油树坞公变，富阳市富翔建材有限公司之间","poweroffReason":"青云2020年大青变10kV间隔整理及咸康D208等线路网架优化工程：短时停电配合横下D204线、安桥D203线负荷转供至10千伏发电车","powerTime":"2020-04-16 08:19:16","powerComm":"已送电","subsNo":"","lineNo":"","tgNo":"","tgName":null,"infoStatus":"1","orgName":"国网浙江杭州市富阳区供电公司","typeName":null,"infoStatusName":null,"dateDay":null,"orgNos":null,"nowTime":null,"countyName":null,"streetName":null,"villageName":null,"roadName":null,"communityName":null,"tranName":null,"sdLineName":null,"cityCode":"3340170","cityName":"国网浙江杭州市富阳区供电公司","provinceCode":null,"stopTime":"2020-04-16 08:20:00","powerType":"全部","powerOffArea":"35kV大青变:横下D204线-横山下6#油树坞公变后段;横下D204线-富阳市富翔建材有限公司后段;横下D204线首端，横山下6#油树坞公变，富阳市富翔建材有限公司之间","powerOffReason":"青云2020年大青变10kV间隔整理及咸康D208等线路网架优化工程：短时停电配合横下D204线、安桥D203线负荷转供至10千伏发电车","powerOffId":"2020040331020691"},{"poweroffId":2020040331020689,"sgpoweroffId":null,"subsName":"","lineName":"10kV上里D409线","pubTranName":"中铁十二局集团有限公司2#变,","scope":"浙江省-杭州市-富阳区-鹿山街道-新祥行政村-中铁十二局集团有限公司","startTime":"2020-04-15 10:00:00","stopDate":"2020-04-15 21:00:00","orgNo":"3340170","typeCode":"计划停电","poweroffArea":"110kV长春变:上里D409线-中铁十二局集团有限公司2#变后段","poweroffReason":"湖杭铁路项目经理部三分部临时用电设计架设安装工程等工作原停电结束时间为2020-04-1517:00:00,因政策原因,延迟送电,现变更停电结束时间为2020-04-1521:00:00","powerTime":"2020-04-15 20:50:09","powerComm":"已送电","subsNo":"","lineNo":"","tgNo":"","tgName":null,"infoStatus":"1","orgName":"国网浙江杭州市富阳区供电公司","typeName":null,"infoStatusName":null,"dateDay":null,"orgNos":null,"nowTime":null,"countyName":null,"streetName":null,"villageName":null,"roadName":null,"communityName":null,"tranName":null,"sdLineName":null,"cityCode":"3340170","cityName":"国网浙江杭州市富阳区供电公司","provinceCode":null,"stopTime":"2020-04-15 21:00:00","powerType":"全部","powerOffArea":"110kV长春变:上里D409线-中铁十二局集团有限公司2#变后段","powerOffReason":"湖杭铁路项目经理部三分部临时用电设计架设安装工程等工作原停电结束时间为2020-04-1517:00:00,因政策原因,延迟送电,现变更停电结束时间为2020-04-1521:00:00","powerOffId":"2020040331020689"},{"poweroffId":2020040331020688,"sgpoweroffId":null,"subsName":"","lineName":"10kV龙江D730线","pubTranName":"浙江富和置业有限公司 1#变,","scope":"浙江省-杭州市-富阳区-鹿山街道-陆家行政村-浙江富和置业有限公司","startTime":"2020-04-15 08:45:00","stopDate":"2020-04-15 16:00:00","orgNo":"3340170","typeCode":"计划停电","poweroffArea":"110kV陆家变:龙江D730线-浙江富和置业有限公司后段","poweroffReason":"海正药业基建变拆除工程：10kV龙江D730线长春一号开关站4#间隔长园线1#杆富和支线1#杆后段海正药业基建变拆除等工作","powerTime":"2020-04-15 15:50:29","powerComm":"已送电","subsNo":"","lineNo":"","tgNo":"","tgName":null,"infoStatus":"1","orgName":"国网浙江杭州市富阳区供电公司","typeName":null,"infoStatusName":null,"dateDay":null,"orgNos":null,"nowTime":null,"countyName":null,"streetName":null,"villageName":null,"roadName":null,"communityName":null,"tranName":null,"sdLineName":null,"cityCode":"3340170","cityName":"国网浙江杭州市富阳区供电公司","provinceCode":null,"stopTime":"2020-04-15 16:00:00","powerType":"全部","powerOffArea":"110kV陆家变:龙江D730线-浙江富和置业有限公司后段","powerOffReason":"海正药业基建变拆除工程：10kV龙江D730线长春一号开关站4#间隔长园线1#杆富和支线1#杆后段海正药业基建变拆除等工作","powerOffId":"2020040331020688"},{"poweroffId":2020040331020687,"sgpoweroffId":null,"subsName":"","lineName":"10kV谢家D746线","pubTranName":"谢家溪4#渠道公变,","scope":"浙江省-杭州市-富阳区-鹿山街道-谢家溪行政村(庙西弄,中心路,泉潭弄,谢家溪自然村,凉亭弄,孙家弄,横樟路)","startTime":"2020-04-15 08:45:00","stopDate":"2020-04-15 16:00:00","orgNo":"3340170","typeCode":"计划停电","poweroffArea":"110kV陆家变:谢家D746线-谢家溪4#渠道公变后段","poweroffReason":"谢家溪4#渠道公变更换工程：10kV谢家D746线6#杆谢家溪4#渠道公变由315kVA更换为400kVA等工作","powerTime":"2020-04-15 15:50:20","powerComm":"已送电","subsNo":"","lineNo":"","tgNo":"","tgName":null,"infoStatus":"1","orgName":"国网浙江杭州市富阳区供电公司","typeName":null,"infoStatusName":null,"dateDay":null,"orgNos":null,"nowTime":null,"countyName":null,"streetName":null,"villageName":null,"roadName":null,"communityName":null,"tranName":null,"sdLineName":null,"cityCode":"3340170","cityName":"国网浙江杭州市富阳区供电公司","provinceCode":null,"stopTime":"2020-04-15 16:00:00","powerType":"全部","powerOffArea":"110kV陆家变:谢家D746线-谢家溪4#渠道公变后段","powerOffReason":"谢家溪4#渠道公变更换工程：10kV谢家D746线6#杆谢家溪4#渠道公变由315kVA更换为400kVA等工作","powerOffId":"2020040331020687"},{"poweroffId":2020040331020682,"sgpoweroffId":null,"subsName":"","lineName":"10kV瓜港A078线","pubTranName":"沙田头村7#变,","scope":"浙江省-杭州市-萧山区-瓜沥镇-沙田头行政村-沙田头自然村","startTime":"2020-04-20 10:00:00","stopDate":"2020-04-20 15:10:00","orgNo":"3340130","typeCode":"计划停电","poweroffArea":"110kV航坞变:瓜港A078线-沙田头村7#变后段","poweroffReason":"瓜港A078线01/11#杆沙田头村7#变下160kVA上400kVA原停电结束时间为2020-04-2016:00:00,为减少客户停电时间,加快工作进度,提前送电,现变更停电结束时间为2020-04-2015:10:00","powerTime":"2020-04-20 14:21:28","powerComm":"已送电","subsNo":"","lineNo":"","tgNo":"","tgName":null,"infoStatus":"1","orgName":"国网浙江杭州市萧山区供电有限公司","typeName":null,"infoStatusName":null,"dateDay":null,"orgNos":null,"nowTime":null,"countyName":null,"streetName":null,"villageName":null,"roadName":null,"communityName":null,"tranName":null,"sdLineName":null,"cityCode":"3340130","cityName":"国网浙江杭州市萧山区供电有限公司","provinceCode":null,"stopTime":"2020-04-20 15:10:00","powerType":"全部","powerOffArea":"110kV航坞变:瓜港A078线-沙田头村7#变后段","powerOffReason":"瓜港A078线01/11#杆沙田头村7#变下160kVA上400kVA原停电结束时间为2020-04-2016:00:00,为减少客户停电时间,加快工作进度,提前送电,现变更停电结束时间为2020-04-2015:10:00","powerOffId":"2020040331020682"},{"poweroffId":2020040331020681,"sgpoweroffId":null,"subsName":"","lineName":"10kV东村A488线","pubTranName":"东村村12#变,","scope":"浙江省-杭州市-萧山区-益农镇-东村行政村-东村自然村","startTime":"2020-04-13 09:00:00","stopDate":"2020-04-13 14:45:00","orgNo":"3340130","typeCode":"计划停电","poweroffArea":"110kV群围变:东村A488线-东村村12#变后段","poweroffReason":"东村A488线92/04/05#杆东村村12#变下250kVA上400kVA（需带电作业配合）原停电结束时间为2020-04-1315:00:00,为减少客户停电时间,加快工作进度,提前送电,现变更停电结束时间为2020-04-1314:45:00","powerTime":"2020-04-13 13:48:17","powerComm":"已送电","subsNo":"","lineNo":"","tgNo":"","tgName":null,"infoStatus":"1","orgName":"国网浙江杭州市萧山区供电有限公司","typeName":null,"infoStatusName":null,"dateDay":null,"orgNos":null,"nowTime":null,"countyName":null,"streetName":null,"villageName":null,"roadName":null,"communityName":null,"tranName":null,"sdLineName":null,"cityCode":"3340130","cityName":"国网浙江杭州市萧山区供电有限公司","provinceCode":null,"stopTime":"2020-04-13 14:45:00","powerType":"全部","powerOffArea":"110kV群围变:东村A488线-东村村12#变后段","powerOffReason":"东村A488线92/04/05#杆东村村12#变下250kVA上400kVA（需带电作业配合）原停电结束时间为2020-04-1315:00:00,为减少客户停电时间,加快工作进度,提前送电,现变更停电结束时间为2020-04-1314:45:00","powerOffId":"2020040331020681"},{"poweroffId":2020040331020680,"sgpoweroffId":null,"subsName":"","lineName":"10kV东村A488线","pubTranName":"东村村2#变,","scope":"浙江省-杭州市-萧山区-益农镇-东村行政村-东村自然村","startTime":"2020-04-13 09:00:00","stopDate":"2020-04-13 14:40:00","orgNo":"3340130","typeCode":"计划停电","poweroffArea":"110kV群围变:东村A488线-东村村2#变后段","poweroffReason":"东村A488线92/11#杆东村村02#变下250kVA上400kVA原停电结束时间为2020-04-1315:00:00,为减少客户停电时间,加快工作进度,提前送电,现变更停电结束时间为2020-04-1314:40:00","powerTime":"2020-04-13 13:47:35","powerComm":"已送电","subsNo":"","lineNo":"","tgNo":"","tgName":null,"infoStatus":"1","orgName":"国网浙江杭州市萧山区供电有限公司","typeName":null,"infoStatusName":null,"dateDay":null,"orgNos":null,"nowTime":null,"countyName":null,"streetName":null,"villageName":null,"roadName":null,"communityName":null,"tranName":null,"sdLineName":null,"cityCode":"3340130","cityName":"国网浙江杭州市萧山区供电有限公司","provinceCode":null,"stopTime":"2020-04-13 14:40:00","powerType":"全部","powerOffArea":"110kV群围变:东村A488线-东村村2#变后段","powerOffReason":"东村A488线92/11#杆东村村02#变下250kVA上400kVA原停电结束时间为2020-04-1315:00:00,为减少客户停电时间,加快工作进度,提前送电,现变更停电结束时间为2020-04-1314:40:00","powerOffId":"2020040331020680"},{"poweroffId":2020040331020679,"sgpoweroffId":null,"subsName":"","lineName":"10kV庆丰A459线","pubTranName":"萧山区党湾镇第一小学,","scope":"浙江省-杭州市-萧山区-党湾镇-庆丰行政村-萧山区党湾镇第一小学","startTime":"2020-04-13 10:00:00","stopDate":"2020-04-13 16:30:00","orgNo":"3340130","typeCode":"计划停电","poweroffArea":"110kV幸福变:庆丰A459线-党湾小学(1315082549)后段","poweroffReason":"庆丰A459线湾东站永安分线07/02#-07/05杆上改下 原停电结束时间为2020-04-13 15:00:00,因当天工作量增加原因,延迟送电,现变更停电结束时间为2020-04-13 16:30:00","powerTime":"2020-04-13 15:31:59","powerComm":"已送电","subsNo":"","lineNo":"","tgNo":"","tgName":null,"infoStatus":"1","orgName":"国网浙江杭州市萧山区供电有限公司","typeName":null,"infoStatusName":null,"dateDay":null,"orgNos":null,"nowTime":null,"countyName":null,"streetName":null,"villageName":null,"roadName":null,"communityName":null,"tranName":null,"sdLineName":null,"cityCode":"3340130","cityName":"国网浙江杭州市萧山区供电有限公司","provinceCode":null,"stopTime":"2020-04-13 16:30:00","powerType":"全部","powerOffArea":"110kV幸福变:庆丰A459线-党湾小学(1315082549)后段","powerOffReason":"庆丰A459线湾东站永安分线07/02#-07/05杆上改下 原停电结束时间为2020-04-13 15:00:00,因当天工作量增加原因,延迟送电,现变更停电结束时间为2020-04-13 16:30:00","powerOffId":"2020040331020679"},{"poweroffId":2020040331020675,"sgpoweroffId":null,"subsName":"","lineName":"10kV恒升8645线","pubTranName":"沈塘村,","scope":"浙江省-杭州市-拱墅区-米市巷街道-沈塘桥社区(沈塘新村,文三路,莫干山路),西溪街道，浙江省杭州市西湖区沈塘新村15-19幢附近","startTime":"2020-04-10 09:30:00","stopDate":"2020-04-10 13:00:00","orgNo":"3340101","typeCode":"临时停电","poweroffArea":"220kV庆丰变:恒升8645线-门村三站3#间隔；门村站沈塘村配变","poweroffReason":"杭州地铁机场快线沈塘桥站10kV电力迁改一期工程门村站沈塘村配变改接至门村三站3#间隔原停电结束时间为2020-04-1012:30:00,因工程量大原因,延迟送电,现变更停电结束时间为2020-04-1013:00:00","powerTime":"2020-04-10 12:27:31","powerComm":"已送电","subsNo":"","lineNo":"","tgNo":"","tgName":null,"infoStatus":"1","orgName":"浙江杭州电力客户服务中心","typeName":null,"infoStatusName":null,"dateDay":null,"orgNos":null,"nowTime":null,"countyName":null,"streetName":null,"villageName":null,"roadName":null,"communityName":null,"tranName":null,"sdLineName":null,"cityCode":"3340101","cityName":"浙江杭州电力客户服务中心","provinceCode":null,"stopTime":"2020-04-10 13:00:00","powerType":"全部","powerOffArea":"220kV庆丰变:恒升8645线-门村三站3#间隔；门村站沈塘村配变","powerOffReason":"杭州地铁机场快线沈塘桥站10kV电力迁改一期工程门村站沈塘村配变改接至门村三站3#间隔原停电结束时间为2020-04-1012:30:00,因工程量大原因,延迟送电,现变更停电结束时间为2020-04-1013:00:00","powerOffId":"2020040331020675"}],"pageModel":{"pageNow":394,"totalCount":17788,"totalPage":1779,"tableRows":0,"pageCount":10,"beginCount":3930},"isExperi":"1"}