{"message":"","today":"2020-06-15","seleList":[{"poweroffId":2020040331020613,"sgpoweroffId":null,"subsName":"","lineName":"10kV大岭8867线","pubTranName":"邮工,唐家一变,","scope":"浙江省-杭州市-西湖区-转塘街道-桐坞村社区-唐家桥;浙江省邮电工程建设有限公司,","startTime":"2020-04-03 16:02:35","stopDate":"2020-04-03 22:02:35","orgNo":"3340101","typeCode":"电网故障停限电","poweroffArea":"110kV留下变:大岭8867线-留转路分线后段","poweroffReason":"高压开关跳闸","powerTime":"2020-04-03 21:52:03","powerComm":"已送电","subsNo":"","lineNo":"","tgNo":"","tgName":null,"infoStatus":"1","orgName":"浙江杭州电力客户服务中心","typeName":null,"infoStatusName":null,"dateDay":null,"orgNos":null,"nowTime":null,"countyName":null,"streetName":null,"villageName":null,"roadName":null,"communityName":null,"tranName":null,"sdLineName":null,"cityCode":"3340101","cityName":"浙江杭州电力客户服务中心","provinceCode":null,"stopTime":"2020-04-03 22:02:35","powerType":"全部","powerOffArea":"110kV留下变:大岭8867线-留转路分线后段","powerOffReason":"高压开关跳闸","powerOffId":"2020040331020613"},{"poweroffId":2020040331020606,"sgpoweroffId":null,"subsName":"","lineName":"10kV大岭8867线","pubTranName":"变压器2,合肥,医药,外桐灯,汇同,转基二,外桐坞（四）,","scope":"浙江省-杭州市-西湖区-转塘街道(,杭州之江国家旅游度假区基础设施建设开发中心，外桐坞行政村外桐坞工业区)","startTime":"2020-04-03 15:59:45","stopDate":"2020-04-03 21:59:45","orgNo":"3340101","typeCode":"电网故障停限电","poweroffArea":"110kV留下变:大岭8867线养生堂站养生堂分线后段","poweroffReason":"高压开关跳闸","powerTime":"2020-04-03 21:51:31","powerComm":"已送电","subsNo":"","lineNo":"","tgNo":"","tgName":null,"infoStatus":"1","orgName":"浙江杭州电力客户服务中心","typeName":null,"infoStatusName":null,"dateDay":null,"orgNos":null,"nowTime":null,"countyName":null,"streetName":null,"villageName":null,"roadName":null,"communityName":null,"tranName":null,"sdLineName":null,"cityCode":"3340101","cityName":"浙江杭州电力客户服务中心","provinceCode":null,"stopTime":"2020-04-03 21:59:45","powerType":"全部","powerOffArea":"110kV留下变:大岭8867线养生堂站养生堂分线后段","powerOffReason":"高压开关跳闸","powerOffId":"2020040331020606"},{"poweroffId":2020040331020603,"sgpoweroffId":null,"subsName":"","lineName":"10kV红星859线","pubTranName":"中铁二十四局集团,","scope":"浙江省-杭州市-上城区-望江街道中铁二十四局集团浙江工程有限公司","startTime":"2020-04-07 09:30:00","stopDate":"2020-04-07 14:00:00","orgNo":"3340101","typeCode":"临时停电","poweroffArea":"110kV涌金变:红星859线-中铁二十四线后段","poweroffReason":"地铁7号线下穿中铁二十四局集团浙江工程有限公司房屋，中铁二十四局集团，当日内完成停电、送电工作。 原停电结束时间为2020-04-07 17:00:00,为减少客户停电时间,加快工作进度,提前送电,现变更停电结束时间为2020-04-07 14:00:00","powerTime":"2020-04-07 13:15:40","powerComm":"已送电","subsNo":"","lineNo":"","tgNo":"","tgName":null,"infoStatus":"1","orgName":"浙江杭州电力客户服务中心","typeName":null,"infoStatusName":null,"dateDay":null,"orgNos":null,"nowTime":null,"countyName":null,"streetName":null,"villageName":null,"roadName":null,"communityName":null,"tranName":null,"sdLineName":null,"cityCode":"3340101","cityName":"浙江杭州电力客户服务中心","provinceCode":null,"stopTime":"2020-04-07 14:00:00","powerType":"全部","powerOffArea":"110kV涌金变:红星859线-中铁二十四线后段","powerOffReason":"地铁7号线下穿中铁二十四局集团浙江工程有限公司房屋，中铁二十四局集团，当日内完成停电、送电工作。 原停电结束时间为2020-04-07 17:00:00,为减少客户停电时间,加快工作进度,提前送电,现变更停电结束时间为2020-04-07 14:00:00","powerOffId":"2020040331020603"},{"poweroffId":2020040331020601,"sgpoweroffId":null,"subsName":"","lineName":"10kV雅坞V395线","pubTranName":"1#,","scope":"浙江省-杭州市-临安市-玲珑街道-雅园行政村-杭州临安雨洁包装用品有限公司一带","startTime":"2020-04-15 08:30:00","stopDate":"2020-04-15 13:00:00","orgNo":"3340160","typeCode":"计划停电","poweroffArea":"110kV秀水变:雅坞V395线-石华方分支线1#后段","poweroffReason":"用户配变增容原停电结束时间为2020-04-1514:00:00,为减少客户停电时间,加快工作进度,提前送电,现变更停电结束时间为2020-04-1513:00:00","powerTime":"2020-04-15 12:28:51","powerComm":"已送电","subsNo":"","lineNo":"","tgNo":"","tgName":null,"infoStatus":"1","orgName":"国网浙江临安市供电公司","typeName":null,"infoStatusName":null,"dateDay":null,"orgNos":null,"nowTime":null,"countyName":null,"streetName":null,"villageName":null,"roadName":null,"communityName":null,"tranName":null,"sdLineName":null,"cityCode":"3340160","cityName":"国网浙江临安市供电公司","provinceCode":null,"stopTime":"2020-04-15 13:00:00","powerType":"全部","powerOffArea":"110kV秀水变:雅坞V395线-石华方分支线1#后段","powerOffReason":"用户配变增容原停电结束时间为2020-04-1514:00:00,为减少客户停电时间,加快工作进度,提前送电,现变更停电结束时间为2020-04-1513:00:00","powerOffId":"2020040331020601"},{"poweroffId":2020040331020600,"sgpoweroffId":null,"subsName":"","lineName":"10kV华惠G927线","pubTranName":"华盛辅料,华鼎绣花1#,基诺纺织,华鼎绣花2#,","scope":"浙江省-杭州市-余杭区-东湖街道(杭州华鼎西服时装有限公司,浙江基诺纺织品有限公司,杭州华盛辅料有限公司)","startTime":"2020-04-03 15:53:00","stopDate":"2020-04-03 17:00:00","orgNo":"3340140","typeCode":"电网故障停限电","poweroffArea":"110kV亭趾变:华惠G927线基诺纺织分线开关后段","poweroffReason":"高压开关跳闸","powerTime":"2020-04-03 16:46:00","powerComm":"已送电","subsNo":"","lineNo":"","tgNo":"","tgName":null,"infoStatus":"1","orgName":"国网浙江杭州市余杭区供电有限公司","typeName":null,"infoStatusName":null,"dateDay":null,"orgNos":null,"nowTime":null,"countyName":null,"streetName":null,"villageName":null,"roadName":null,"communityName":null,"tranName":null,"sdLineName":null,"cityCode":"3340140","cityName":"国网浙江杭州市余杭区供电有限公司","provinceCode":null,"stopTime":"2020-04-03 17:00:00","powerType":"全部","powerOffArea":"110kV亭趾变:华惠G927线基诺纺织分线开关后段","powerOffReason":"高压开关跳闸","powerOffId":"2020040331020600"},{"poweroffId":2020040331020599,"sgpoweroffId":null,"subsName":"","lineName":"10kV上里D409线","pubTranName":"中铁十二局集团有限公司3#变,","scope":"浙江省-杭州市-富阳区-鹿山街道-中铁十二局集团有限公司一带","startTime":"2020-04-17 10:00:00","stopDate":"2020-04-17 23:59:00","orgNo":"3340170","typeCode":"计划停电","poweroffArea":"110kV长春变:上里D409线-上叶分线后段","poweroffReason":"中铁十二局集团有限公司湖杭铁路项目经理部三分部线路迁改工程：其中立杆8基，架线8档，线路改接等工作原停电结束时间为2020-04-1717:00:00,因工作难度大原因,延迟送电,现变更停电结束时间为2020-04-172020-04-1723:59:00","powerTime":"2020-04-17 23:49:12","powerComm":"已送电","subsNo":"","lineNo":"","tgNo":"","tgName":null,"infoStatus":"1","orgName":"国网浙江杭州市富阳区供电公司","typeName":null,"infoStatusName":null,"dateDay":null,"orgNos":null,"nowTime":null,"countyName":null,"streetName":null,"villageName":null,"roadName":null,"communityName":null,"tranName":null,"sdLineName":null,"cityCode":"3340170","cityName":"国网浙江杭州市富阳区供电公司","provinceCode":null,"stopTime":"2020-04-17 23:59:00","powerType":"全部","powerOffArea":"110kV长春变:上里D409线-上叶分线后段","powerOffReason":"中铁十二局集团有限公司湖杭铁路项目经理部三分部线路迁改工程：其中立杆8基，架线8档，线路改接等工作原停电结束时间为2020-04-1717:00:00,因工作难度大原因,延迟送电,现变更停电结束时间为2020-04-172020-04-1723:59:00","powerOffId":"2020040331020599"},{"poweroffId":2020040331020596,"sgpoweroffId":null,"subsName":"","lineName":"10kV安桥D203线","pubTranName":"富阳市路灯安装维修管理所,横山下6号油树坞公变,杭州途锐机械有限公司1#变,富阳市富翔建材有限公司,杭州富阳云来亚化工有限公司1#变,横山下3#油树坞公变,富阳金畏铸造有限公司,2#电机,横山下2号油树坞公变,2#变压器,横山下4#油树坞公变,浙江郑诺复合材料有限公司,富阳市君龙水泥砖有限公司,#1电机,富阳市职业高级中学变压器2,","scope":"浙江省-杭州市-富阳区-横山下油树坞村、富阳区职业高级中学、富阳区君龙水泥砖有限公司、富阳区云来亚化工有限公司、富阳区路灯安装维修管理所、富阳区富春街道横山下村村民委员会、富阳金畏铸造有限公司、浙江郑诺复合材料有限公司、富阳区富翔建材有限公司、杭州途锐机械有限公司、富阳区横山矿粉厂一带","startTime":"2020-04-16 16:10:00","stopDate":"2020-04-16 17:25:00","orgNo":"3340170","typeCode":"计划停电","poweroffArea":"35kV大青变:安桥D203线-富阳市职业高级中学变压器2后段;安桥D203线-杭州富阳云来亚化工有限公司1#变后段;横下D204线-横山下分线后段;安桥D203线-富阳市横山矿粉厂后段;横下D204线;安桥D203线-富阳市君龙水泥砖有限公司后段;安桥D203线-横山下3#油树坞公变后段;横下D204线-横山下6号油树坞公变后段;安桥D203线-富阳市路灯安装维修管理所后段;安桥D203线-横山下4#油树坞公变后段;安桥D203线-横山下2号油树坞公变后段","poweroffReason":"青云2020年大青变10kV间隔整理及咸康D208等线路网架优化工程：短时停电配合横下D204线、安桥D203线负荷转恢复原停电结束时间为2020-04-1616:25:00,因政策原因,延迟送电,现变更停电结束时间为2020-04-1617:25:00","powerTime":"2020-04-16 17:10:11","powerComm":"已送电","subsNo":"","lineNo":"","tgNo":"","tgName":null,"infoStatus":"1","orgName":"国网浙江杭州市富阳区供电公司","typeName":null,"infoStatusName":null,"dateDay":null,"orgNos":null,"nowTime":null,"countyName":null,"streetName":null,"villageName":null,"roadName":null,"communityName":null,"tranName":null,"sdLineName":null,"cityCode":"3340170","cityName":"国网浙江杭州市富阳区供电公司","provinceCode":null,"stopTime":"2020-04-16 17:25:00","powerType":"全部","powerOffArea":"35kV大青变:安桥D203线-富阳市职业高级中学变压器2后段;安桥D203线-杭州富阳云来亚化工有限公司1#变后段;横下D204线-横山下分线后段;安桥D203线-富阳市横山矿粉厂后段;横下D204线;安桥D203线-富阳市君龙水泥砖有限公司后段;安桥D203线-横山下3#油树坞公变后段;横下D204线-横山下6号油树坞公变后段;安桥D203线-富阳市路灯安装维修管理所后段;安桥D203线-横山下4#油树坞公变后段;安桥D203线-横山下2号油树坞公变后段","powerOffReason":"青云2020年大青变10kV间隔整理及咸康D208等线路网架优化工程：短时停电配合横下D204线、安桥D203线负荷转恢复原停电结束时间为2020-04-1616:25:00,因政策原因,延迟送电,现变更停电结束时间为2020-04-1617:25:00","powerOffId":"2020040331020596"},{"poweroffId":2020040331020595,"sgpoweroffId":null,"subsName":"","lineName":"10kV化龙V152线","pubTranName":"双源村[下源]公变,","scope":"浙江省-杭州市-临安市-玲珑街道-双源行政村-下源自然村一带","startTime":"2020-04-14 08:30:00","stopDate":"2020-04-14 14:30:00","orgNo":"3340160","typeCode":"计划停电","poweroffArea":"110kV夏禹变:化龙V152线-双源村[下源]公变后段","poweroffReason":"公变增容","powerTime":"2020-04-14 14:00:56","powerComm":"已送电","subsNo":"","lineNo":"","tgNo":"","tgName":null,"infoStatus":"1","orgName":"国网浙江临安市供电公司","typeName":null,"infoStatusName":null,"dateDay":null,"orgNos":null,"nowTime":null,"countyName":null,"streetName":null,"villageName":null,"roadName":null,"communityName":null,"tranName":null,"sdLineName":null,"cityCode":"3340160","cityName":"国网浙江临安市供电公司","provinceCode":null,"stopTime":"2020-04-14 14:30:00","powerType":"全部","powerOffArea":"110kV夏禹变:化龙V152线-双源村[下源]公变后段","powerOffReason":"公变增容","powerOffId":"2020040331020595"},{"poweroffId":2020040331020594,"sgpoweroffId":null,"subsName":"","lineName":"10kV锦都V117线","pubTranName":"东湖村[上仓]公变,东湖村[1#]公变,","scope":"浙江省-杭州市-临安市-锦北街道-东湖行政村-东湖自然村一带","startTime":"2020-04-17 08:30:00","stopDate":"2020-04-17 15:30:00","orgNo":"3340160","typeCode":"计划停电","poweroffArea":"110kV临安变:锦都V117线-东湖村[1#]公变后段;锦都V117线-东湖村[上仓]公变后段","poweroffReason":"(低压停电信息)低压线路割接","powerTime":"2020-04-17 15:20:13","powerComm":"已送电","subsNo":"","lineNo":"","tgNo":"","tgName":null,"infoStatus":"1","orgName":"国网浙江临安市供电公司","typeName":null,"infoStatusName":null,"dateDay":null,"orgNos":null,"nowTime":null,"countyName":null,"streetName":null,"villageName":null,"roadName":null,"communityName":null,"tranName":null,"sdLineName":null,"cityCode":"3340160","cityName":"国网浙江临安市供电公司","provinceCode":null,"stopTime":"2020-04-17 15:30:00","powerType":"全部","powerOffArea":"110kV临安变:锦都V117线-东湖村[1#]公变后段;锦都V117线-东湖村[上仓]公变后段","powerOffReason":"(低压停电信息)低压线路割接","powerOffId":"2020040331020594"},{"poweroffId":2020040331020593,"sgpoweroffId":null,"subsName":"","lineName":"10kV溪里V591线","pubTranName":"众社村[下培],","scope":"浙江省-杭州市-临安市-太湖源镇-众社行政村-下爿自然村一带","startTime":"2020-04-16 08:30:00","stopDate":"2020-04-16 13:00:00","orgNo":"3340160","typeCode":"计划停电","poweroffArea":"110kV杨岭变:溪里V591线-众社村[下培]后段","poweroffReason":"(低压停电信息)低压线路割接","powerTime":"2020-04-16 12:50:09","powerComm":"已送电","subsNo":"","lineNo":"","tgNo":"","tgName":null,"infoStatus":"1","orgName":"国网浙江临安市供电公司","typeName":null,"infoStatusName":null,"dateDay":null,"orgNos":null,"nowTime":null,"countyName":null,"streetName":null,"villageName":null,"roadName":null,"communityName":null,"tranName":null,"sdLineName":null,"cityCode":"3340160","cityName":"国网浙江临安市供电公司","provinceCode":null,"stopTime":"2020-04-16 13:00:00","powerType":"全部","powerOffArea":"110kV杨岭变:溪里V591线-众社村[下培]后段","powerOffReason":"(低压停电信息)低压线路割接","powerOffId":"2020040331020593"}],"pageModel":{"pageNow":397,"totalCount":17788,"totalPage":1779,"tableRows":0,"pageCount":10,"beginCount":3960},"isExperi":"1"}