{"message":"","today":"2020-06-15","seleList":[{"poweroffId":2020040331020526,"sgpoweroffId":null,"subsName":"","lineName":"10kV悦墅D987线","pubTranName":"金桥村28#第四联7公变,金桥村29号第四联8公变,金桥村19#第四联2公变,金桥村26#第四联6公变,","scope":"浙江省-杭州市-富阳区-富春街道-金秋社区(凤浦西路,文居街,公园西路,公望街,第四年)","startTime":"2020-04-14 08:25:00","stopDate":"2020-04-14 08:40:00","orgNo":"3340170","typeCode":"计划停电","poweroffArea":"110kV育才变:悦墅D987线-金桥村29号第四联8公变后段;悦墅D987线-金桥村28#第四联7公变后段;悦墅D987线-金桥村26#第四联6公变后段;悦墅D987线-金桥村19#第四联2公变后段","poweroffReason":"短时停电配合第四联六、七、八站负荷转供至10千伏发电车","powerTime":"2020-04-14 08:32:21","powerComm":"已送电","subsNo":"","lineNo":"","tgNo":"","tgName":null,"infoStatus":"1","orgName":"国网浙江杭州市富阳区供电公司","typeName":null,"infoStatusName":null,"dateDay":null,"orgNos":null,"nowTime":null,"countyName":null,"streetName":null,"villageName":null,"roadName":null,"communityName":null,"tranName":null,"sdLineName":null,"cityCode":"3340170","cityName":"国网浙江杭州市富阳区供电公司","provinceCode":null,"stopTime":"2020-04-14 08:40:00","powerType":"全部","powerOffArea":"110kV育才变:悦墅D987线-金桥村29号第四联8公变后段;悦墅D987线-金桥村28#第四联7公变后段;悦墅D987线-金桥村26#第四联6公变后段;悦墅D987线-金桥村19#第四联2公变后段","powerOffReason":"短时停电配合第四联六、七、八站负荷转供至10千伏发电车","powerOffId":"2020040331020526"},{"poweroffId":2020040331020471,"sgpoweroffId":null,"subsName":"","lineName":"10kV下涯Y301线","pubTranName":"长宁村黄家畈台区,","scope":"浙江省-杭州市-建德市-杨村桥镇 长宁行政村 长宁自然村黄家畈区域用户。","startTime":"2020-04-14 08:30:00","stopDate":"2020-04-14 17:00:00","orgNo":"3340180","typeCode":"计划停电","poweroffArea":"110kV梅城变:下涯Y301线-黄家畈支线0#杆令克后段","poweroffReason":"杨村桥镇长宁村黄家畈台区消缺等工程","powerTime":"2020-04-14 16:19:00","powerComm":"已送电","subsNo":"","lineNo":"","tgNo":"","tgName":null,"infoStatus":"1","orgName":"国网浙江建德市供电有限公司","typeName":null,"infoStatusName":null,"dateDay":null,"orgNos":null,"nowTime":null,"countyName":null,"streetName":null,"villageName":null,"roadName":null,"communityName":null,"tranName":null,"sdLineName":null,"cityCode":"3340180","cityName":"国网浙江建德市供电有限公司","provinceCode":null,"stopTime":"2020-04-14 17:00:00","powerType":"全部","powerOffArea":"110kV梅城变:下涯Y301线-黄家畈支线0#杆令克后段","powerOffReason":"杨村桥镇长宁村黄家畈台区消缺等工程","powerOffId":"2020040331020471"},{"poweroffId":2020040331020470,"sgpoweroffId":null,"subsName":"","lineName":"10kV恒升8645线","pubTranName":"马塍(9),马塍（十）,文三村,马塍(5),马塍(7),马塍(6),","scope":"浙江省-杭州市-西湖区-西溪街道(文天社区-马塍路,下马塍社区-马塍路)，浙江省杭州市西湖区文三巷31-43号、68号，马塍路11号4-7幢，10-12幢，文三新村甲2，3-5、7-10、12、23-26幢，文三路103号13-15幢，文三路105号1-3幢附近","startTime":"2020-04-09 13:25:00","stopDate":"2020-04-09 19:00:00","orgNo":"3340101","typeCode":"临时停电","poweroffArea":"220kV庆丰变:恒升8645线-马塍分线（武门站-马塍一站）； ，新武门站5#间隔","poweroffReason":"杭州地铁机场快线沈塘桥站10kV电力迁改一期工程马塍分线武门站侧部分电缆拆除原停电结束时间为2020-04-0917:30:00,因工程量大原因,延迟送电,现变更停电结束时间为2020-04-0919:00:00","powerTime":"2020-04-09 18:05:31","powerComm":"已送电","subsNo":"","lineNo":"","tgNo":"","tgName":null,"infoStatus":"1","orgName":"浙江杭州电力客户服务中心","typeName":null,"infoStatusName":null,"dateDay":null,"orgNos":null,"nowTime":null,"countyName":null,"streetName":null,"villageName":null,"roadName":null,"communityName":null,"tranName":null,"sdLineName":null,"cityCode":"3340101","cityName":"浙江杭州电力客户服务中心","provinceCode":null,"stopTime":"2020-04-09 19:00:00","powerType":"全部","powerOffArea":"220kV庆丰变:恒升8645线-马塍分线（武门站-马塍一站）； ，新武门站5#间隔","powerOffReason":"杭州地铁机场快线沈塘桥站10kV电力迁改一期工程马塍分线武门站侧部分电缆拆除原停电结束时间为2020-04-0917:30:00,因工程量大原因,延迟送电,现变更停电结束时间为2020-04-0919:00:00","powerOffId":"2020040331020470"},{"poweroffId":2020040331020469,"sgpoweroffId":null,"subsName":"","lineName":"10kV排塘Y185线","pubTranName":"建德市强盛民用爆破器材经营有限公司,一分库3号哨,一分库机关,建德晶科光伏发电有限公司,南浦村大坑底台区,南浦村东榨岭台区,南浦村泥台底台区,南浦村石槽台区,南浦村杨坞台区,","scope":"浙江省-杭州市-建德市-寿昌镇-南浦行政村 杨坞自然村,东榨岭自然村,石槽自然村,泥台底自然村,南浦自然村,大坑底自然村区域用户。","startTime":"2020-04-14 07:00:00","stopDate":"2020-04-14 16:00:00","orgNo":"3340180","typeCode":"计划停电","poweroffArea":"35kV河南里变:排塘Y185线-东榨岭支线0#杆令克后段","poweroffReason":"杭州建德寿昌地区10千伏线路改造工程","powerTime":"2020-04-14 15:23:00","powerComm":"已送电","subsNo":"","lineNo":"","tgNo":"","tgName":null,"infoStatus":"1","orgName":"国网浙江建德市供电有限公司","typeName":null,"infoStatusName":null,"dateDay":null,"orgNos":null,"nowTime":null,"countyName":null,"streetName":null,"villageName":null,"roadName":null,"communityName":null,"tranName":null,"sdLineName":null,"cityCode":"3340180","cityName":"国网浙江建德市供电有限公司","provinceCode":null,"stopTime":"2020-04-14 16:00:00","powerType":"全部","powerOffArea":"35kV河南里变:排塘Y185线-东榨岭支线0#杆令克后段","powerOffReason":"杭州建德寿昌地区10千伏线路改造工程","powerOffId":"2020040331020469"},{"poweroffId":2020040331020468,"sgpoweroffId":null,"subsName":"","lineName":"10kV东辉T373线","pubTranName":"东辉电管站1号公变,","scope":"浙江省-杭州市-桐庐县-百江镇-东辉行政村(东辉电管站自然村,东辉村自然村)","startTime":"2020-04-16 09:00:00","stopDate":"2020-04-16 14:00:00","orgNo":"3340150","typeCode":"计划停电","poweroffArea":"110kV百江变:东辉T373线-东辉电管站F9084令克后段","poweroffReason":"1、电管站1号公变配变增容（160KVA增至400KVA）原停电结束时间为2020-04-1613:00:00,因人员配备不足原因,延迟送电,现变更停电结束时间为2020-04-1614:00:00","powerTime":"2020-04-16 13:37:29","powerComm":"已送电","subsNo":"","lineNo":"","tgNo":"","tgName":null,"infoStatus":"1","orgName":"国网浙江桐庐县供电公司","typeName":null,"infoStatusName":null,"dateDay":null,"orgNos":null,"nowTime":null,"countyName":null,"streetName":null,"villageName":null,"roadName":null,"communityName":null,"tranName":null,"sdLineName":null,"cityCode":"3340150","cityName":"国网浙江桐庐县供电公司","provinceCode":null,"stopTime":"2020-04-16 14:00:00","powerType":"全部","powerOffArea":"110kV百江变:东辉T373线-东辉电管站F9084令克后段","powerOffReason":"1、电管站1号公变配变增容（160KVA增至400KVA）原停电结束时间为2020-04-1613:00:00,因人员配备不足原因,延迟送电,现变更停电结束时间为2020-04-1614:00:00","powerOffId":"2020040331020468"},{"poweroffId":2020040331020466,"sgpoweroffId":null,"subsName":"","lineName":"10kV石屏Y175线","pubTranName":"石屏村荷坞口台区,","scope":"浙江省-杭州市-建德市-航头镇-石屏行政村 赤源自然村、荷坞口自然村区域用户。","startTime":"2020-04-13 07:00:00","stopDate":"2020-04-13 13:00:00","orgNo":"3340180","typeCode":"计划停电","poweroffArea":"110kV航头变:石屏Y175线-石屏村荷坞口台区后段","poweroffReason":"10千伏石屏Y175线赤源支线31#杆支接荷坞口支线1#杆原荷坞口台区 新立副杆1基配变移位、更换JP柜及高压进线电缆并搭接、熔丝具及横担调整、引线重新制作并搭接工作","powerTime":"2020-04-13 12:09:10","powerComm":"已送电","subsNo":"","lineNo":"","tgNo":"","tgName":null,"infoStatus":"1","orgName":"国网浙江建德市供电有限公司","typeName":null,"infoStatusName":null,"dateDay":null,"orgNos":null,"nowTime":null,"countyName":null,"streetName":null,"villageName":null,"roadName":null,"communityName":null,"tranName":null,"sdLineName":null,"cityCode":"3340180","cityName":"国网浙江建德市供电有限公司","provinceCode":null,"stopTime":"2020-04-13 13:00:00","powerType":"全部","powerOffArea":"110kV航头变:石屏Y175线-石屏村荷坞口台区后段","powerOffReason":"10千伏石屏Y175线赤源支线31#杆支接荷坞口支线1#杆原荷坞口台区 新立副杆1基配变移位、更换JP柜及高压进线电缆并搭接、熔丝具及横担调整、引线重新制作并搭接工作","powerOffId":"2020040331020466"},{"poweroffId":2020040331020465,"sgpoweroffId":null,"subsName":"","lineName":"10kV水岸V363线","pubTranName":"木梳弄3#变,","scope":"浙江省-杭州市-临安市-锦城街道-苕溪南路与临水路交叉口附近","startTime":"2020-04-15 08:45:00","stopDate":"2020-04-15 16:50:00","orgNo":"3340160","typeCode":"计划停电","poweroffArea":"110kV临安变:水岸V363线-木梳弄3#变低压T2-1电缆分支箱后段","poweroffReason":"(低压停电信息)电缆分支箱移位","powerTime":"2020-04-15 16:40:15","powerComm":"已送电","subsNo":"","lineNo":"","tgNo":"","tgName":null,"infoStatus":"1","orgName":"国网浙江临安市供电公司","typeName":null,"infoStatusName":null,"dateDay":null,"orgNos":null,"nowTime":null,"countyName":null,"streetName":null,"villageName":null,"roadName":null,"communityName":null,"tranName":null,"sdLineName":null,"cityCode":"3340160","cityName":"国网浙江临安市供电公司","provinceCode":null,"stopTime":"2020-04-15 16:50:00","powerType":"全部","powerOffArea":"110kV临安变:水岸V363线-木梳弄3#变低压T2-1电缆分支箱后段","powerOffReason":"(低压停电信息)电缆分支箱移位","powerOffId":"2020040331020465"},{"poweroffId":2020040331020464,"sgpoweroffId":null,"subsName":"","lineName":"10kV水岸V363线","pubTranName":"临安市人民广场物业管理有限公司,预制场公变,","scope":"浙江省-杭州市-临安市-锦城街道预制场，杭州临安城市园林有限公司。","startTime":"2020-04-15 08:45:00","stopDate":"2020-04-15 16:50:00","orgNo":"3340160","typeCode":"计划停电","poweroffArea":"110kV临安变:水岸V363线安阁弄站3#开闭所预制场公变分线开关后段。","poweroffReason":"水岸V363线安阁弄站3#开闭所预制场分线高压T接箱移位、电缆熔接制作。","powerTime":"2020-04-15 16:16:45","powerComm":"已送电","subsNo":"","lineNo":"","tgNo":"","tgName":null,"infoStatus":"1","orgName":"国网浙江临安市供电公司","typeName":null,"infoStatusName":null,"dateDay":null,"orgNos":null,"nowTime":null,"countyName":null,"streetName":null,"villageName":null,"roadName":null,"communityName":null,"tranName":null,"sdLineName":null,"cityCode":"3340160","cityName":"国网浙江临安市供电公司","provinceCode":null,"stopTime":"2020-04-15 16:50:00","powerType":"全部","powerOffArea":"110kV临安变:水岸V363线安阁弄站3#开闭所预制场公变分线开关后段。","powerOffReason":"水岸V363线安阁弄站3#开闭所预制场分线高压T接箱移位、电缆熔接制作。","powerOffId":"2020040331020464"},{"poweroffId":2020040331020463,"sgpoweroffId":null,"subsName":"","lineName":"10kV于合Y160线","pubTranName":"于合村黄泥垅台区,","scope":"浙江省-杭州市-建德市-更楼街道 于合行政村 黄泥垅自然村区域用户。","startTime":"2020-04-13 08:00:00","stopDate":"2020-04-13 12:00:00","orgNo":"3340180","typeCode":"计划停电","poweroffArea":"110kV更楼变:于合Y160线-于合村黄泥垅台区后段","poweroffReason":"黄泥垅支线跌落式熔断器更换","powerTime":"2020-04-13 11:11:08","powerComm":"已送电","subsNo":"","lineNo":"","tgNo":"","tgName":null,"infoStatus":"1","orgName":"国网浙江建德市供电有限公司","typeName":null,"infoStatusName":null,"dateDay":null,"orgNos":null,"nowTime":null,"countyName":null,"streetName":null,"villageName":null,"roadName":null,"communityName":null,"tranName":null,"sdLineName":null,"cityCode":"3340180","cityName":"国网浙江建德市供电有限公司","provinceCode":null,"stopTime":"2020-04-13 12:00:00","powerType":"全部","powerOffArea":"110kV更楼变:于合Y160线-于合村黄泥垅台区后段","powerOffReason":"黄泥垅支线跌落式熔断器更换","powerOffId":"2020040331020463"},{"poweroffId":2020040331020462,"sgpoweroffId":null,"subsName":"","lineName":"10kV光昌R186线","pubTranName":"临岐塘边村林家公变,","scope":"浙江省-杭州市-淳安县-左口乡-塘边行政村-奎星桥自然村","startTime":"2020-04-13 08:50:00","stopDate":"2020-04-13 13:10:00","orgNo":"3340190","typeCode":"计划停电","poweroffArea":"35kV临岐变:光昌R186线-林家公变跌落式熔断器","poweroffReason":"林家配变更换变压器","powerTime":"2020-04-13 12:40:20","powerComm":"已送电","subsNo":"","lineNo":"","tgNo":"","tgName":null,"infoStatus":"1","orgName":"国网浙江淳安县供电有限公司","typeName":null,"infoStatusName":null,"dateDay":null,"orgNos":null,"nowTime":null,"countyName":null,"streetName":null,"villageName":null,"roadName":null,"communityName":null,"tranName":null,"sdLineName":null,"cityCode":"3340190","cityName":"国网浙江淳安县供电有限公司","provinceCode":null,"stopTime":"2020-04-13 13:10:00","powerType":"全部","powerOffArea":"35kV临岐变:光昌R186线-林家公变跌落式熔断器","powerOffReason":"林家配变更换变压器","powerOffId":"2020040331020462"}],"pageModel":{"pageNow":400,"totalCount":17788,"totalPage":1779,"tableRows":0,"pageCount":10,"beginCount":3990},"isExperi":"1"}