{"message":"","today":"2020-06-15","seleList":[{"poweroffId":2020040331020454,"sgpoweroffId":null,"subsName":"","lineName":"10kV方汇H602线","pubTranName":"余杭街道农民多层公寓建设管理中心1#专变（6120854936）,余杭街道农民多层公寓建设管理中心3#专变（6120854936）,余杭街道农民多层公寓建设管理中心2#专变（6120854936）,基督教堂,","scope":"浙江省-杭州市-余杭区-余杭街道：禹丰嘉苑三期基建工地、凤凰山基督教堂一带","startTime":"2020-04-10 08:40:00","stopDate":"2020-04-10 16:30:00","orgNo":"3340140","typeCode":"临时停电","poweroffArea":"110kV桃源变:方汇H602线-教堂分线开关后段","poweroffReason":"计划工作","powerTime":"2020-04-10 15:33:30","powerComm":"已送电","subsNo":"","lineNo":"","tgNo":"","tgName":null,"infoStatus":"1","orgName":"国网浙江杭州市余杭区供电有限公司","typeName":null,"infoStatusName":null,"dateDay":null,"orgNos":null,"nowTime":null,"countyName":null,"streetName":null,"villageName":null,"roadName":null,"communityName":null,"tranName":null,"sdLineName":null,"cityCode":"3340140","cityName":"国网浙江杭州市余杭区供电有限公司","provinceCode":null,"stopTime":"2020-04-10 16:30:00","powerType":"全部","powerOffArea":"110kV桃源变:方汇H602线-教堂分线开关后段","powerOffReason":"计划工作","powerOffId":"2020040331020454"},{"poweroffId":2020040331020442,"sgpoweroffId":null,"subsName":"","lineName":"10kV德胜G226线","pubTranName":"喜得力基建,中通吉科技（6120879454）1#变,传赋科技（6120894923）1#变,浙江鲜丰食品有限公司612088989101#专变,杭州富丽来装饰材料市场有限公司611109170301#专变,","scope":"浙江省-杭州市-余杭区-塘栖镇-唐家埭行政村(杭州富丽来装饰材料市场有限公司,杭州传赋健康科技有限公司),塘栖镇(莫家桥行政村-浙江鲜丰食品有限公司,河西埭行政村-浙江喜得力钢结构有限公司,乐苑社区-浙江宏兴建设有限公司)","startTime":"2020-04-04 08:20:00","stopDate":"2020-04-04 12:20:00","orgNo":"3340140","typeCode":"临时停电","poweroffArea":"110kV宏畔变:德胜G226线德胜G2261开关-德胜G2262开关","poweroffReason":"2020年杭州余杭塘栖10kV天水G208线等分支线消缺工程：同鑫G236线17#杆至19#杆更换导线1档工作","powerTime":"2020-04-04 12:14:03","powerComm":"已送电","subsNo":"","lineNo":"","tgNo":"","tgName":null,"infoStatus":"1","orgName":"国网浙江杭州市余杭区供电有限公司","typeName":null,"infoStatusName":null,"dateDay":null,"orgNos":null,"nowTime":null,"countyName":null,"streetName":null,"villageName":null,"roadName":null,"communityName":null,"tranName":null,"sdLineName":null,"cityCode":"3340140","cityName":"国网浙江杭州市余杭区供电有限公司","provinceCode":null,"stopTime":"2020-04-04 12:20:00","powerType":"全部","powerOffArea":"110kV宏畔变:德胜G226线德胜G2261开关-德胜G2262开关","powerOffReason":"2020年杭州余杭塘栖10kV天水G208线等分支线消缺工程：同鑫G236线17#杆至19#杆更换导线1档工作","powerOffId":"2020040331020442"},{"poweroffId":2020040331020431,"sgpoweroffId":null,"subsName":"","lineName":"10kV沿路D237线","pubTranName":"杭州浙锚结构工程研究院有限公司1#变,杭州浙锚预应力有限公司3#,杭州浙锚预应力4#变,杭州浙锚预应力有限公司5#,","scope":"浙江省-杭州市-富阳区-东洲街道-浙锚科技股份有限公司一带","startTime":"2020-04-15 13:30:00","stopDate":"2020-04-15 18:30:00","orgNo":"3340170","typeCode":"计划停电","poweroffArea":"110kV白鹤变:沿路D237线-沿路D237线开关后段","poweroffReason":"江丰D235线、赤松D236线、沿路D237线低周保护改定值","powerTime":"2020-04-15 18:14:33","powerComm":"已送电","subsNo":"","lineNo":"","tgNo":"","tgName":null,"infoStatus":"1","orgName":"国网浙江杭州市富阳区供电公司","typeName":null,"infoStatusName":null,"dateDay":null,"orgNos":null,"nowTime":null,"countyName":null,"streetName":null,"villageName":null,"roadName":null,"communityName":null,"tranName":null,"sdLineName":null,"cityCode":"3340170","cityName":"国网浙江杭州市富阳区供电公司","provinceCode":null,"stopTime":"2020-04-15 18:30:00","powerType":"全部","powerOffArea":"110kV白鹤变:沿路D237线-沿路D237线开关后段","powerOffReason":"江丰D235线、赤松D236线、沿路D237线低周保护改定值","powerOffId":"2020040331020431"},{"poweroffId":2020040331020428,"sgpoweroffId":null,"subsName":"","lineName":"10kV宸和8827线","pubTranName":"永和(三),","scope":"浙江省-杭州市-拱墅区-小河街道-小河社区-小河路,拱宸桥街道-蚕花园社区(永庆路,上塘路),上塘街道(八丈井社区-上塘路,红建河社区-上塘路)，浙江省杭州市拱墅区永和坊9幢1单元，10幢1单元，11幢1单元，12、13幢附近一带","startTime":"2020-04-08 09:30:00","stopDate":"2020-04-08 16:00:00","orgNo":"3340101","typeCode":"临时停电","poweroffArea":"110kV拱宸变:宸和8827线-永和站永和三线","poweroffReason":"永和（三）美变换欧变（城北送变电） 原停电结束时间为2020-04-08 17:30:00,为减少客户停电时间,加快工作进度,提前送电,现变更停电结束时间为2020-04-08 16:00:00","powerTime":"2020-04-08 15:10:59","powerComm":"已送电","subsNo":"","lineNo":"","tgNo":"","tgName":null,"infoStatus":"1","orgName":"浙江杭州电力客户服务中心","typeName":null,"infoStatusName":null,"dateDay":null,"orgNos":null,"nowTime":null,"countyName":null,"streetName":null,"villageName":null,"roadName":null,"communityName":null,"tranName":null,"sdLineName":null,"cityCode":"3340101","cityName":"浙江杭州电力客户服务中心","provinceCode":null,"stopTime":"2020-04-08 16:00:00","powerType":"全部","powerOffArea":"110kV拱宸变:宸和8827线-永和站永和三线","powerOffReason":"永和（三）美变换欧变（城北送变电） 原停电结束时间为2020-04-08 17:30:00,为减少客户停电时间,加快工作进度,提前送电,现变更停电结束时间为2020-04-08 16:00:00","powerOffId":"2020040331020428"},{"poweroffId":2020040331020423,"sgpoweroffId":null,"subsName":"","lineName":"10kV图山D502线","pubTranName":"下图山村4号新区公变,下图山1#村中公变,下图山2#潘家塘公变,","scope":"浙江省-杭州市-富阳区-场口镇(下图山行政村-下图山自然村,乌畴溪新村行政村-新佳庄自然村)一带","startTime":"2020-04-14 12:30:00","stopDate":"2020-04-14 13:30:00","orgNo":"3340170","typeCode":"计划停电","poweroffArea":"110kV常安变:图山D502线-图山D5025开关后段","poweroffReason":"场口2020年缺陷处理工程：图山D502线153#杆下图山1#村中分线1#杆更换C型设备线夹等工作。","powerTime":"2020-04-14 13:25:52","powerComm":"已送电","subsNo":"","lineNo":"","tgNo":"","tgName":null,"infoStatus":"1","orgName":"国网浙江杭州市富阳区供电公司","typeName":null,"infoStatusName":null,"dateDay":null,"orgNos":null,"nowTime":null,"countyName":null,"streetName":null,"villageName":null,"roadName":null,"communityName":null,"tranName":null,"sdLineName":null,"cityCode":"3340170","cityName":"国网浙江杭州市富阳区供电公司","provinceCode":null,"stopTime":"2020-04-14 13:30:00","powerType":"全部","powerOffArea":"110kV常安变:图山D502线-图山D5025开关后段","powerOffReason":"场口2020年缺陷处理工程：图山D502线153#杆下图山1#村中分线1#杆更换C型设备线夹等工作。","powerOffId":"2020040331020423"},{"poweroffId":2020040331020412,"sgpoweroffId":null,"subsName":"","lineName":"10kV白信D242线","pubTranName":"冷冻站1#高压电机,冷冻站2#高压电机,杭州永特信息技术有限公司1#变,杭州永特信息技术有限公司2#变,","scope":"浙江省-杭州市-富阳区-东洲街道-杭州永特信息技术有限公司一带","startTime":"2020-04-15 08:00:00","stopDate":"2020-04-15 13:20:00","orgNo":"3340170","typeCode":"计划停电","poweroffArea":"110kV白鹤变:白信D242线-杭州永特信息技术有限公司1#后段","poweroffReason":"白信D242线、株林D243线、高园D250线、笼山D252线低周保护改定值","powerTime":"2020-04-15 13:10:49","powerComm":"已送电","subsNo":"","lineNo":"","tgNo":"","tgName":null,"infoStatus":"1","orgName":"国网浙江杭州市富阳区供电公司","typeName":null,"infoStatusName":null,"dateDay":null,"orgNos":null,"nowTime":null,"countyName":null,"streetName":null,"villageName":null,"roadName":null,"communityName":null,"tranName":null,"sdLineName":null,"cityCode":"3340170","cityName":"国网浙江杭州市富阳区供电公司","provinceCode":null,"stopTime":"2020-04-15 13:20:00","powerType":"全部","powerOffArea":"110kV白鹤变:白信D242线-杭州永特信息技术有限公司1#后段","powerOffReason":"白信D242线、株林D243线、高园D250线、笼山D252线低周保护改定值","powerOffId":"2020040331020412"},{"poweroffId":2020040331020393,"sgpoweroffId":null,"subsName":"","lineName":"10kV兴材D837线","pubTranName":"杭州富阳鸿富矿业有限公司5#变,富阳市钜兴建材有限公司,","scope":"浙江省-杭州市-富阳区-渌渚镇-新浦行政村-钜兴建材有限公司，杭州富阳鸿富矿业有限公司一带","startTime":"2020-04-20 08:00:00","stopDate":"2020-04-20 17:30:00","orgNo":"3340170","typeCode":"计划停电","poweroffArea":"110kV新桐变:兴材D837线","poweroffReason":"顺林建材专线工程：兴材D837线81#杆至126#杆单改双导线架设，真空开关安装等工作原停电时间为2020-04-17,因政策原因,现变更停电时间为2020-04-20","powerTime":"2020-04-20 17:18:30","powerComm":"已送电","subsNo":"","lineNo":"","tgNo":"","tgName":null,"infoStatus":"1","orgName":"国网浙江杭州市富阳区供电公司","typeName":null,"infoStatusName":null,"dateDay":null,"orgNos":null,"nowTime":null,"countyName":null,"streetName":null,"villageName":null,"roadName":null,"communityName":null,"tranName":null,"sdLineName":null,"cityCode":"3340170","cityName":"国网浙江杭州市富阳区供电公司","provinceCode":null,"stopTime":"2020-04-20 17:30:00","powerType":"全部","powerOffArea":"110kV新桐变:兴材D837线","powerOffReason":"顺林建材专线工程：兴材D837线81#杆至126#杆单改双导线架设，真空开关安装等工作原停电时间为2020-04-17,因政策原因,现变更停电时间为2020-04-20","powerOffId":"2020040331020393"},{"poweroffId":2020040331020391,"sgpoweroffId":null,"subsName":"","lineName":"10kV武门8663线","pubTranName":"文三,","scope":"浙江省-杭州市-拱墅区-米市巷街道-红石桥社区-湖墅南路,西溪街道，浙江省杭州市西湖区马塍路13号2幢附近，省大成建设实业公司","startTime":"2020-04-08 09:50:00","stopDate":"2020-04-08 17:30:00","orgNo":"3340101","typeCode":"临时停电","poweroffArea":"220kV庆丰变:武门8663线-升门86631线（武门站-恒升站）；武村分线（武村分站-武门站）；武门站大成分线；宁门86632线（武门站-上宁站）","poweroffReason":"杭州地铁机场快线沈塘桥站10kV电力迁改一期工程（城源）CZ2019-08-056-YBQQ 武门站II段迁改","powerTime":"2020-04-08 16:55:01","powerComm":"已送电","subsNo":"","lineNo":"","tgNo":"","tgName":null,"infoStatus":"1","orgName":"浙江杭州电力客户服务中心","typeName":null,"infoStatusName":null,"dateDay":null,"orgNos":null,"nowTime":null,"countyName":null,"streetName":null,"villageName":null,"roadName":null,"communityName":null,"tranName":null,"sdLineName":null,"cityCode":"3340101","cityName":"浙江杭州电力客户服务中心","provinceCode":null,"stopTime":"2020-04-08 17:30:00","powerType":"全部","powerOffArea":"220kV庆丰变:武门8663线-升门86631线（武门站-恒升站）；武村分线（武村分站-武门站）；武门站大成分线；宁门86632线（武门站-上宁站）","powerOffReason":"杭州地铁机场快线沈塘桥站10kV电力迁改一期工程（城源）CZ2019-08-056-YBQQ 武门站II段迁改","powerOffId":"2020040331020391"},{"poweroffId":2020040331020369,"sgpoweroffId":null,"subsName":"","lineName":"10kV通达D740线","pubTranName":"杭州通达纸业有限公司3#变,","scope":"浙江省-杭州市-富阳区-春江街道-八一行政村-杭州通达纸业有限公司一带","startTime":"2020-04-16 08:30:00","stopDate":"2020-04-16 17:00:00","orgNo":"3340170","typeCode":"计划停电","poweroffArea":"110kV春联变:通达D740线-杭州通达纸业有限公司进线熔断器后段","poweroffReason":"通达D740线、沿江D766线低周保护改定值","powerTime":"2020-04-16 16:42:24","powerComm":"已送电","subsNo":"","lineNo":"","tgNo":"","tgName":null,"infoStatus":"1","orgName":"国网浙江杭州市富阳区供电公司","typeName":null,"infoStatusName":null,"dateDay":null,"orgNos":null,"nowTime":null,"countyName":null,"streetName":null,"villageName":null,"roadName":null,"communityName":null,"tranName":null,"sdLineName":null,"cityCode":"3340170","cityName":"国网浙江杭州市富阳区供电公司","provinceCode":null,"stopTime":"2020-04-16 17:00:00","powerType":"全部","powerOffArea":"110kV春联变:通达D740线-杭州通达纸业有限公司进线熔断器后段","powerOffReason":"通达D740线、沿江D766线低周保护改定值","powerOffId":"2020040331020369"},{"poweroffId":2020040331020364,"sgpoweroffId":null,"subsName":"","lineName":"10kV新阳D841线","pubTranName":"新浦村五连2#豆园里公变,","scope":"浙江省-杭州市-富阳区-渌渚镇-新浦行政村-五连豆园里自然村一带","startTime":"2020-04-14 16:30:00","stopDate":"2020-04-14 17:00:00","orgNo":"3340170","typeCode":"计划停电","poweroffArea":"110kV新桐变:新阳D841线115#杆五村2#变分线5#杆新浦村五连2#豆园里公变","poweroffReason":"配合0.4kV发电车拆头","powerTime":"2020-04-14 16:45:32","powerComm":"已送电","subsNo":"","lineNo":"","tgNo":"","tgName":null,"infoStatus":"1","orgName":"国网浙江杭州市富阳区供电公司","typeName":null,"infoStatusName":null,"dateDay":null,"orgNos":null,"nowTime":null,"countyName":null,"streetName":null,"villageName":null,"roadName":null,"communityName":null,"tranName":null,"sdLineName":null,"cityCode":"3340170","cityName":"国网浙江杭州市富阳区供电公司","provinceCode":null,"stopTime":"2020-04-14 17:00:00","powerType":"全部","powerOffArea":"110kV新桐变:新阳D841线115#杆五村2#变分线5#杆新浦村五连2#豆园里公变","powerOffReason":"配合0.4kV发电车拆头","powerOffId":"2020040331020364"}],"pageModel":{"pageNow":401,"totalCount":17788,"totalPage":1779,"tableRows":0,"pageCount":10,"beginCount":4000},"isExperi":"1"}