{"message":"","today":"2020-06-15","seleList":[{"poweroffId":2020040231020244,"sgpoweroffId":null,"subsName":"","lineName":"10kV华惠G927线","pubTranName":"海龙注塑,兴达物流I段（6120859230）04#专变,华盛辅料,兴达物流I段（6120859230）01#专变,华鼎绣花2#,利蒙达,斯泰建筑科技1#,华惠1#公变,杭州中杭建材有限公司,天石合金,华惠1#专变,炼华鸿加油站,天石合金2,兴达物流I段（6120859230）03#专变,基诺纺织,兴达物流I段（6120859230）05#专变,杭州缔诚果品有限公司,斯泰建筑科技2#,华鼎绣花1#,华惠2#公变,利蒙达2#,森阳纺织,","scope":"浙江省-杭州市-余杭区-东湖街道-横塘社区-新丝路;东湖街道(浙江利蒙达科技开发有限公司,杭州海龙注塑合金有限公司,杭州余杭邦尔医院有限公司,杭州华鼎西服时装有限公司,浙江基诺纺织品有限公司,杭州华盛辅料有限公司,杭州天石硬质合金有限公司,杭州缔诚果品有限公司,杭州余杭镇炼华鸿加油站有限公司,杭州晨峰物业服务有限公司,杭州中杭建材有限公司,杭州斯泰建筑科技有限公司,浙江兴达物流有限公司)","startTime":"2020-04-02 15:33:00","stopDate":"2020-04-02 18:50:00","orgNo":"3340140","typeCode":"电网故障停限电","poweroffArea":"110kV亭趾变:华惠G927线国荣开关站国荣开关站华惠G927线后段","poweroffReason":"高压开关跳闸 原停电结束时间为2020-04-02 17:33:00,因故障复杂原因,延迟送电,现变更停电结束时间为2020-04-02 18:50:00","powerTime":"2020-04-02 17:58:00","powerComm":"已送电","subsNo":"","lineNo":"","tgNo":"","tgName":null,"infoStatus":"1","orgName":"国网浙江杭州市余杭区供电有限公司","typeName":null,"infoStatusName":null,"dateDay":null,"orgNos":null,"nowTime":null,"countyName":null,"streetName":null,"villageName":null,"roadName":null,"communityName":null,"tranName":null,"sdLineName":null,"cityCode":"3340140","cityName":"国网浙江杭州市余杭区供电有限公司","provinceCode":null,"stopTime":"2020-04-02 18:50:00","powerType":"全部","powerOffArea":"110kV亭趾变:华惠G927线国荣开关站国荣开关站华惠G927线后段","powerOffReason":"高压开关跳闸 原停电结束时间为2020-04-02 17:33:00,因故障复杂原因,延迟送电,现变更停电结束时间为2020-04-02 18:50:00","powerOffId":"2020040231020244"},{"poweroffId":2020040231020242,"sgpoweroffId":null,"subsName":"","lineName":"10kV花房8115线","pubTranName":"新州二变,","scope":"浙江省-杭州市-滨江区-西兴街道(西兴社区-月明路,新州社区-月明路)浙江省杭州市滨江区西兴街道新洲花园小区月明路287.289.291.293.295.297.299.301.303.305号商铺","startTime":"2020-04-10 09:30:00","stopDate":"2020-04-10 11:30:00","orgNo":"3340101","typeCode":"计划停电","poweroffArea":"110kV西兴变:花房8115线-新州二变后段A-15-01号计量间配电柜3号空开","poweroffReason":"(低压停电信息)非居增容","powerTime":"2020-04-10 11:15:06","powerComm":"已送电","subsNo":"","lineNo":"","tgNo":"","tgName":null,"infoStatus":"1","orgName":"浙江杭州电力客户服务中心","typeName":null,"infoStatusName":null,"dateDay":null,"orgNos":null,"nowTime":null,"countyName":null,"streetName":null,"villageName":null,"roadName":null,"communityName":null,"tranName":null,"sdLineName":null,"cityCode":"3340101","cityName":"浙江杭州电力客户服务中心","provinceCode":null,"stopTime":"2020-04-10 11:30:00","powerType":"全部","powerOffArea":"110kV西兴变:花房8115线-新州二变后段A-15-01号计量间配电柜3号空开","powerOffReason":"(低压停电信息)非居增容","powerOffId":"2020040231020242"},{"poweroffId":2020040231020233,"sgpoweroffId":null,"subsName":"","lineName":"10kV陈坞V763线","pubTranName":"浙江新广发置业有限公司2#,浙江新广发置业有限公司6#,浙江新广发置业有限公司5#,浙江新广发置业有限公司1#,浙江新广发置业有限公司3#,浙江新广发置业有限公司4#,","scope":"浙江省-杭州市-临安市-锦北街道-潘山行政村-浙江新广发置业有限公司","startTime":"2020-04-09 06:50:00","stopDate":"2020-04-09 19:00:00","orgNo":"3340160","typeCode":"临时停电","poweroffArea":"110kV科创变:陈坞V763线-牛坊站支线开关后段","poweroffReason":"湖光山社杆线移位","powerTime":"2020-04-09 18:50:09","powerComm":"已送电","subsNo":"","lineNo":"","tgNo":"","tgName":null,"infoStatus":"1","orgName":"国网浙江临安市供电公司","typeName":null,"infoStatusName":null,"dateDay":null,"orgNos":null,"nowTime":null,"countyName":null,"streetName":null,"villageName":null,"roadName":null,"communityName":null,"tranName":null,"sdLineName":null,"cityCode":"3340160","cityName":"国网浙江临安市供电公司","provinceCode":null,"stopTime":"2020-04-09 19:00:00","powerType":"全部","powerOffArea":"110kV科创变:陈坞V763线-牛坊站支线开关后段","powerOffReason":"湖光山社杆线移位","powerOffId":"2020040231020233"},{"poweroffId":2020040231020181,"sgpoweroffId":null,"subsName":"","lineName":"10kV富源V509线","pubTranName":"10kV横鑫村[小昔横坞口]公变,","scope":"浙江省-杭州市-临安市-於潜镇-小昔横坞口一带","startTime":"2020-04-08 08:30:00","stopDate":"2020-04-08 17:00:00","orgNo":"3340160","typeCode":"临时停电","poweroffArea":"110kV於潜变:富源V509线横岭分线小昔支线22#杆开关","poweroffReason":"(低压停电信息)配合停电","powerTime":"2020-04-08 16:50:26","powerComm":"已送电","subsNo":"","lineNo":"","tgNo":"","tgName":null,"infoStatus":"1","orgName":"国网浙江临安市供电公司","typeName":null,"infoStatusName":null,"dateDay":null,"orgNos":null,"nowTime":null,"countyName":null,"streetName":null,"villageName":null,"roadName":null,"communityName":null,"tranName":null,"sdLineName":null,"cityCode":"3340160","cityName":"国网浙江临安市供电公司","provinceCode":null,"stopTime":"2020-04-08 17:00:00","powerType":"全部","powerOffArea":"110kV於潜变:富源V509线横岭分线小昔支线22#杆开关","powerOffReason":"(低压停电信息)配合停电","powerOffId":"2020040231020181"},{"poweroffId":2020040231020145,"sgpoweroffId":null,"subsName":"","lineName":"10kV望景8402线","pubTranName":"景苑(四),","scope":"浙江省-杭州市-下城区-东新街道-东新园社区-香积寺路，浙江省杭州市下城区望景苑1-3幢附近一带","startTime":"2020-04-10 09:30:00","stopDate":"2020-04-10 15:30:00","orgNo":"3340101","typeCode":"计划停电","poweroffArea":"110kV长木变:望景8402线-景苑站景苑四线","poweroffReason":"景苑（四）、景苑（六）美变换欧变原停电结束时间为2020-04-1017:30:00,为减少客户停电时间,加快工作进度,提前送电,现变更停电结束时间为2020-04-1015:30:00","powerTime":"2020-04-10 14:48:44","powerComm":"已送电","subsNo":"","lineNo":"","tgNo":"","tgName":null,"infoStatus":"1","orgName":"浙江杭州电力客户服务中心","typeName":null,"infoStatusName":null,"dateDay":null,"orgNos":null,"nowTime":null,"countyName":null,"streetName":null,"villageName":null,"roadName":null,"communityName":null,"tranName":null,"sdLineName":null,"cityCode":"3340101","cityName":"浙江杭州电力客户服务中心","provinceCode":null,"stopTime":"2020-04-10 15:30:00","powerType":"全部","powerOffArea":"110kV长木变:望景8402线-景苑站景苑四线","powerOffReason":"景苑（四）、景苑（六）美变换欧变原停电结束时间为2020-04-1017:30:00,为减少客户停电时间,加快工作进度,提前送电,现变更停电结束时间为2020-04-1015:30:00","powerOffId":"2020040231020145"},{"poweroffId":2020040231020144,"sgpoweroffId":null,"subsName":"","lineName":"10kV杨凌756线","pubTranName":"劳培2变,商检大厦专变II,中国电信股份有限公司杭州分公司,杭州美特斯邦威服饰,改革月报专变双路内部三,改革月报专变双路内部四,庆春路联建大楼专变双路内部三,改革月报专变双路内部一,庆春路联建大楼专变双路内部四,瑞丰大厦专变双路内部四,商检大厦专变I,瑞丰大厦专变双路内部三,改革月报专变双路内部二,瑞丰大厦专变双路内部二,瑞丰大厦专变双路内部一,市劳动大楼管理处1,皇诰二变,","scope":"浙江省-杭州市-上城区-小营街道(马市街社区-孝友里,紫金社区-皇诰巷);小营街道(市劳动大楼管理处,省商检培训中心楼,杭州改革月报大楼物业管理有限公司,杭州格林物业管理有限公司,浙江物产环保能源股份有限公司,中国电信股份有限公司杭州分公司,杭州美特斯邦威服饰有限公司)","startTime":"2020-04-02 11:21:00","stopDate":"2020-04-02 13:21:00","orgNo":"3340101","typeCode":"电网故障停限电","poweroffArea":"110kV中心变:杨凌756线瑞丰站绫丰7562线后段","poweroffReason":"高压开关跳闸","powerTime":"2020-04-02 12:24:00","powerComm":"已送电","subsNo":"","lineNo":"","tgNo":"","tgName":null,"infoStatus":"1","orgName":"浙江杭州电力客户服务中心","typeName":null,"infoStatusName":null,"dateDay":null,"orgNos":null,"nowTime":null,"countyName":null,"streetName":null,"villageName":null,"roadName":null,"communityName":null,"tranName":null,"sdLineName":null,"cityCode":"3340101","cityName":"浙江杭州电力客户服务中心","provinceCode":null,"stopTime":"2020-04-02 13:21:00","powerType":"全部","powerOffArea":"110kV中心变:杨凌756线瑞丰站绫丰7562线后段","powerOffReason":"高压开关跳闸","powerOffId":"2020040231020144"},{"poweroffId":2020040231020142,"sgpoweroffId":null,"subsName":"","lineName":"10kV杨凌756线","pubTranName":"瑞宝大厦专变双路内部一,瑞宝大厦专变双路内部二,","scope":"浙江省-杭州市-上城区-小营街道(紫金社区-清吟街-市社会劳动保险,市社会劳动保险办)","startTime":"2020-04-02 11:14:00","stopDate":"2020-04-02 13:14:00","orgNo":"3340101","typeCode":"电网故障停限电","poweroffArea":"110kV中心变:杨凌756线瑞宝大厦专变二后段","poweroffReason":"高压开关跳闸","powerTime":"2020-04-02 12:15:27","powerComm":"已送电","subsNo":"","lineNo":"","tgNo":"","tgName":null,"infoStatus":"1","orgName":"浙江杭州电力客户服务中心","typeName":null,"infoStatusName":null,"dateDay":null,"orgNos":null,"nowTime":null,"countyName":null,"streetName":null,"villageName":null,"roadName":null,"communityName":null,"tranName":null,"sdLineName":null,"cityCode":"3340101","cityName":"浙江杭州电力客户服务中心","provinceCode":null,"stopTime":"2020-04-02 13:14:00","powerType":"全部","powerOffArea":"110kV中心变:杨凌756线瑞宝大厦专变二后段","powerOffReason":"高压开关跳闸","powerOffId":"2020040231020142"},{"poweroffId":2020040231020106,"sgpoweroffId":null,"subsName":"","lineName":"10kV得力C448线","pubTranName":"南峰公寓2#公变,南门社区6#公变,","scope":"浙江省-杭州市-萧山区-城厢街道-南门江社区-潘水路","startTime":"2020-04-14 13:30:00","stopDate":"2020-04-14 17:00:00","orgNo":"3340130","typeCode":"计划停电","poweroffArea":"110kV萧山变:得力C448线-小南分线后段","poweroffReason":"小南分线06B/01至忠义分支开G12电缆敷设试验搭接原停电结束时间为2020-04-1415:30:00,因现场阻工，工作量较大的原因,现变更停电结束时间为2020-04-1417:00:00","powerTime":"2020-04-14 16:52:10","powerComm":"已送电","subsNo":"","lineNo":"","tgNo":"","tgName":null,"infoStatus":"1","orgName":"国网浙江杭州市萧山区供电有限公司","typeName":null,"infoStatusName":null,"dateDay":null,"orgNos":null,"nowTime":null,"countyName":null,"streetName":null,"villageName":null,"roadName":null,"communityName":null,"tranName":null,"sdLineName":null,"cityCode":"3340130","cityName":"国网浙江杭州市萧山区供电有限公司","provinceCode":null,"stopTime":"2020-04-14 17:00:00","powerType":"全部","powerOffArea":"110kV萧山变:得力C448线-小南分线后段","powerOffReason":"小南分线06B/01至忠义分支开G12电缆敷设试验搭接原停电结束时间为2020-04-1415:30:00,因现场阻工，工作量较大的原因,现变更停电结束时间为2020-04-1417:00:00","powerOffId":"2020040231020106"},{"poweroffId":2020040231020105,"sgpoweroffId":null,"subsName":"","lineName":"10kV得力C448线","pubTranName":"南峰公寓1#公变,杭州中航市政工程有限公司,","scope":"浙江省-杭州市-萧山区-城厢街道-南门江社区-潘水路;浙江省-杭州市-萧山区-城厢街道-南门江社区-杭州中航建设集团有限公司","startTime":"2020-04-14 08:30:00","stopDate":"2020-04-14 12:30:00","orgNo":"3340130","typeCode":"计划停电","poweroffArea":"110kV萧山变:得力C448线-小南分线后段","poweroffReason":"教工宿舍、中航市政工程改接至忠义分支开G14间隔，电缆敷设试验搭接（04/04#杆电缆上杆）原停电结束时间为2020-04-1410:30:00,因现场阻工，工作量较大的原因,现变更停电结束时间为2020-04-1412:30:00","powerTime":"2020-04-14 11:33:13","powerComm":"已送电","subsNo":"","lineNo":"","tgNo":"","tgName":null,"infoStatus":"1","orgName":"国网浙江杭州市萧山区供电有限公司","typeName":null,"infoStatusName":null,"dateDay":null,"orgNos":null,"nowTime":null,"countyName":null,"streetName":null,"villageName":null,"roadName":null,"communityName":null,"tranName":null,"sdLineName":null,"cityCode":"3340130","cityName":"国网浙江杭州市萧山区供电有限公司","provinceCode":null,"stopTime":"2020-04-14 12:30:00","powerType":"全部","powerOffArea":"110kV萧山变:得力C448线-小南分线后段","powerOffReason":"教工宿舍、中航市政工程改接至忠义分支开G14间隔，电缆敷设试验搭接（04/04#杆电缆上杆）原停电结束时间为2020-04-1410:30:00,因现场阻工，工作量较大的原因,现变更停电结束时间为2020-04-1412:30:00","powerOffId":"2020040231020105"},{"poweroffId":2020040231020104,"sgpoweroffId":null,"subsName":"","lineName":"10kV得力C448线","pubTranName":"开元瀚府公变,萧开元旅业总公司,","scope":"浙江省-杭州市-萧山区-城厢街道-南门江社区-萧然南路;浙江省-杭州市-萧山区-蜀山街道-安桥社区-杭州湘湖开元森泊文化旅游开发有限公司","startTime":"2020-04-13 13:30:00","stopDate":"2020-04-13 17:00:00","orgNo":"3340130","typeCode":"计划停电","poweroffArea":"110kV萧山变:得力C448线-FX390(FC084)后段","poweroffReason":"开元瀚府公变、杭州湘湖开元森泊文化旅游开发有限公司（1315003136）改接至忠义分支开G13间隔，电缆敷设试验搭接原停电结束时间为2020-04-1315:30:00,因施工难度大原因,延迟送电,现变更停电结束时间为2020-04-1317:00:00","powerTime":"2020-04-13 16:08:18","powerComm":"已送电","subsNo":"","lineNo":"","tgNo":"","tgName":null,"infoStatus":"1","orgName":"国网浙江杭州市萧山区供电有限公司","typeName":null,"infoStatusName":null,"dateDay":null,"orgNos":null,"nowTime":null,"countyName":null,"streetName":null,"villageName":null,"roadName":null,"communityName":null,"tranName":null,"sdLineName":null,"cityCode":"3340130","cityName":"国网浙江杭州市萧山区供电有限公司","provinceCode":null,"stopTime":"2020-04-13 17:00:00","powerType":"全部","powerOffArea":"110kV萧山变:得力C448线-FX390(FC084)后段","powerOffReason":"开元瀚府公变、杭州湘湖开元森泊文化旅游开发有限公司（1315003136）改接至忠义分支开G13间隔，电缆敷设试验搭接原停电结束时间为2020-04-1315:30:00,因施工难度大原因,延迟送电,现变更停电结束时间为2020-04-1317:00:00","powerOffId":"2020040231020104"}],"pageModel":{"pageNow":408,"totalCount":17788,"totalPage":1779,"tableRows":0,"pageCount":10,"beginCount":4070},"isExperi":"1"}