{"message":"","today":"2020-06-15","seleList":[{"poweroffId":2020040231020020,"sgpoweroffId":null,"subsName":"","lineName":"10kV石墓D217线","pubTranName":"富阳市路灯安装维修管理所,勤丰村5号三角区公变,勤丰村2#陆家山里公变,杭州富春食品添加剂有限公司1#变,2#变,富阳万彩物资有限公司,郜村1号村北公变,郜村2号村委公变,勤丰村1#陆家山外公变,富阳市金马金属包装有限公司,杭州富春食品添加剂有限公司2#变,杭州富阳城北加油站有限公司 1#,1#变,杭州兴发弹簧有限公司4#变,杭州兴发弹簧有限公司3#变,","scope":"浙江省-杭州市-富阳区-银湖街道-勤丰行政村(黄泥山自然村,勤丰自然村,陆家山自然村),银湖街道(郜村行政村-郜村自然村,高桥行政村-高桥自然村);银湖街道(杭州富阳金马金属包装有限公司,杭州富阳万彩物资有限公司,杭州富春食品添加剂有限公司,杭州兴发弹簧有限公司,杭州富阳城市照明工程有限公司,浙江壳牌燃油有限公司)","startTime":"2020-04-02 06:11:00","stopDate":"2020-04-02 08:11:00","orgNo":"3340170","typeCode":"电网故障停限电","poweroffArea":"110kV银湖变:石墓D217线石墓D2176开关后段","poweroffReason":"高压开关跳闸","powerTime":"2020-04-02 07:23:52","powerComm":"已送电","subsNo":"","lineNo":"","tgNo":"","tgName":null,"infoStatus":"1","orgName":"国网浙江杭州市富阳区供电公司","typeName":null,"infoStatusName":null,"dateDay":null,"orgNos":null,"nowTime":null,"countyName":null,"streetName":null,"villageName":null,"roadName":null,"communityName":null,"tranName":null,"sdLineName":null,"cityCode":"3340170","cityName":"国网浙江杭州市富阳区供电公司","provinceCode":null,"stopTime":"2020-04-02 08:11:00","powerType":"全部","powerOffArea":"110kV银湖变:石墓D217线石墓D2176开关后段","powerOffReason":"高压开关跳闸","powerOffId":"2020040231020020"},{"poweroffId":2020040231020017,"sgpoweroffId":null,"subsName":"","lineName":"10kV周袁6594线","pubTranName":"浦东,","scope":"浙江省-杭州市-西湖区-双浦镇-小叔房行政村(小叔房村道,小叔房)","startTime":"2020-04-02 05:55:00","stopDate":"2020-04-02 08:45:12","orgNo":"3340101","typeCode":"电网故障停限电","poweroffArea":"110kV周浦变:周袁6594线浦东配变","poweroffReason":"高压开关跳闸 原停电结束时间为2020-04-02 07:55:00,因施工现场环境复杂原因,延迟送电,现变更停电结束时间为2020-04-02 08:45:12","powerTime":"2020-04-02 07:56:40","powerComm":"已送电","subsNo":"","lineNo":"","tgNo":"","tgName":null,"infoStatus":"1","orgName":"浙江杭州电力客户服务中心","typeName":null,"infoStatusName":null,"dateDay":null,"orgNos":null,"nowTime":null,"countyName":null,"streetName":null,"villageName":null,"roadName":null,"communityName":null,"tranName":null,"sdLineName":null,"cityCode":"3340101","cityName":"浙江杭州电力客户服务中心","provinceCode":null,"stopTime":"2020-04-02 08:45:12","powerType":"全部","powerOffArea":"110kV周浦变:周袁6594线浦东配变","powerOffReason":"高压开关跳闸 原停电结束时间为2020-04-02 07:55:00,因施工现场环境复杂原因,延迟送电,现变更停电结束时间为2020-04-02 08:45:12","powerOffId":"2020040231020017"},{"poweroffId":2020040231020016,"sgpoweroffId":null,"subsName":"","lineName":"10kV周袁6594线","pubTranName":"浦东二,","scope":"浙江省-杭州市-西湖区-双浦镇-小叔房行政村-小叔房村道","startTime":"2020-04-02 05:55:00","stopDate":"2020-04-02 08:45:00","orgNo":"3340101","typeCode":"电网故障停限电","poweroffArea":"110kV周浦变:周袁6594线浦东二配变","poweroffReason":"高压开关跳闸 原停电结束时间为2020-04-02 07:55:00,因施工现场环境复杂原因,延迟送电,现变更停电结束时间为2020-04-02 08:45:00","powerTime":"2020-04-02 07:59:08","powerComm":"已送电","subsNo":"","lineNo":"","tgNo":"","tgName":null,"infoStatus":"1","orgName":"浙江杭州电力客户服务中心","typeName":null,"infoStatusName":null,"dateDay":null,"orgNos":null,"nowTime":null,"countyName":null,"streetName":null,"villageName":null,"roadName":null,"communityName":null,"tranName":null,"sdLineName":null,"cityCode":"3340101","cityName":"浙江杭州电力客户服务中心","provinceCode":null,"stopTime":"2020-04-02 08:45:00","powerType":"全部","powerOffArea":"110kV周浦变:周袁6594线浦东二配变","powerOffReason":"高压开关跳闸 原停电结束时间为2020-04-02 07:55:00,因施工现场环境复杂原因,延迟送电,现变更停电结束时间为2020-04-02 08:45:00","powerOffId":"2020040231020016"},{"poweroffId":2020040231020015,"sgpoweroffId":null,"subsName":"","lineName":"10kV周袁6594线","pubTranName":"五间,","scope":"浙江省-杭州市-西湖区-留下街道-金鱼井社区-西溪路","startTime":"2020-04-02 05:55:00","stopDate":"2020-04-02 08:45:00","orgNo":"3340101","typeCode":"电网故障停限电","poweroffArea":"110kV周浦变:周袁6594线五间配变","poweroffReason":"高压开关跳闸 原停电结束时间为2020-04-02 07:55:00,因施工现场环境复杂原因,延迟送电,现变更停电结束时间为2020-04-02 08:45:00","powerTime":"2020-04-02 08:00:37","powerComm":"已送电","subsNo":"","lineNo":"","tgNo":"","tgName":null,"infoStatus":"1","orgName":"浙江杭州电力客户服务中心","typeName":null,"infoStatusName":null,"dateDay":null,"orgNos":null,"nowTime":null,"countyName":null,"streetName":null,"villageName":null,"roadName":null,"communityName":null,"tranName":null,"sdLineName":null,"cityCode":"3340101","cityName":"浙江杭州电力客户服务中心","provinceCode":null,"stopTime":"2020-04-02 08:45:00","powerType":"全部","powerOffArea":"110kV周浦变:周袁6594线五间配变","powerOffReason":"高压开关跳闸 原停电结束时间为2020-04-02 07:55:00,因施工现场环境复杂原因,延迟送电,现变更停电结束时间为2020-04-02 08:45:00","powerOffId":"2020040231020015"},{"poweroffId":2020040231020014,"sgpoweroffId":null,"subsName":"","lineName":"10kV艮南6466线","pubTranName":"绿施2#,城市基础开发公司2#,寨南变,城河,铁服,2,绿施5#,浙物双路内部一,9,城市基础开发公司1#,02,浙江物产物业管理有限公司,市政设施监管中心,浙江物产物业管理有限公司,浙江东茂宾馆有限公司,凯支二变,01,汇元房地产2#,光阳国际,绿施7#,浙江东茂宾馆有限公司,绿施6#,绿施3#,浙物双路内部四,04,浙物双路内部二,03,凯支一变,玉馆一变,汇元房地产1#,绿施1#,物贸双路内部七,1,浙物双路内部三,浙江物产元通汽车集团有限公司,凯景一变,07,浙江大学华家池校区,8,物贸双路内部四,化机(停),物贸双路内部五,物贸双路内部二,绿施8#,浙江物产物业管理有限公司,绿施4#,05,浙江物产物业管理有限公司,","scope":"浙江省-杭州市-江干区-凯旋街道-华家池社区(艮山西路81号),凯旋街道-凯西社区(凯旋路,凯旋支路,凯旋路339号,凯景公寓,紫玉名府),(江干区-彭埠镇-新塘社区-艮山西路);凯旋街道(浙江东茂宾馆有限公司,杭州元通之宝汽车销售服务有限公司,浙江物产物业管理有限公司,杭州市路灯管理所,绿地控股集团杭州东城房地产开发有限公司,杭州蓝苑物业管理有限公司),(浙江杭钻机械制造股份有限公司,南都物业服务集团股份有限公司,杭州市市政设施发展中心)","startTime":"2020-04-02 05:48:00","stopDate":"2020-04-02 09:48:00","orgNo":"3340101","typeCode":"电网故障停限电","poweroffArea":"110kV五福变:艮南6466线中贸站艮南6466线后段","poweroffReason":"高压开关跳闸","powerTime":"2020-04-02 09:15:50","powerComm":"已送电","subsNo":"","lineNo":"","tgNo":"","tgName":null,"infoStatus":"1","orgName":"浙江杭州电力客户服务中心","typeName":null,"infoStatusName":null,"dateDay":null,"orgNos":null,"nowTime":null,"countyName":null,"streetName":null,"villageName":null,"roadName":null,"communityName":null,"tranName":null,"sdLineName":null,"cityCode":"3340101","cityName":"浙江杭州电力客户服务中心","provinceCode":null,"stopTime":"2020-04-02 09:48:00","powerType":"全部","powerOffArea":"110kV五福变:艮南6466线中贸站艮南6466线后段","powerOffReason":"高压开关跳闸","powerOffId":"2020040231020014"},{"poweroffId":2020040231020013,"sgpoweroffId":null,"subsName":"","lineName":"10kV安镇Y331线","pubTranName":"安仁村安仁台区,建德市乾泰再生资源有限公司,建德市精良五金工具有限公司,安仁村杭派民居台区,浙江博华环境技术工程有限公司,建德市雯峰五金工具有限公司,杭州欧德钙业有限公司1#,下梓村里梓台区,建德市建北电杆厂,杭州欧德钙业有限公司,后山村开发区台区,建德市安仁村石矿,安仁村窑棚后台区,安仁村菜市场台区,1#变,安仁村安下台区,前陵村渡息桥台区,建德市运通工具有限公司,杭州艺佳纺织品有限公司,杭州圣德义塑化机电有限公司,建德市红伟新型墙体材料厂,前陵村新塘垅台区,建德市千宸钙业有限公司1#变,杭千高速公路发展有限公司,下梓村朱几坞台区,浙江神鹰椅业有限公司,后山村下垅口新村台区,杭州当当涂料有限公司,建德市安仁建筑工程有限公司,杭州朝阳实业有限公司,下梓村下梓台区,变压器,中国石油化工股份有限公司浙江杭州石油分公司,安仁村安胜路台区,安梓新村公变,安仁村金秋南街台区,建德市宏运新能源科技有限公司,施家村小坑岭台区,","scope":"浙江省-杭州市-建德市-乾潭镇-后山行政村(后山自然村,下垅口新村自然村),乾潭镇-前陵行政村(新塘垅自然村,渡息桥自然村),乾潭镇-下梓行政村(朱几坞自然村,下梓自然村),乾潭镇-安仁行政村(安下自然村,安仁自然村,荻州自然村),乾潭镇(施家行政村-小坑岭自然村,乾潭集镇-金秋街);钦堂乡-杭州康晟达新材料有限公司,乾潭镇(建德市神虎包装材料厂,建德市建北电杆厂,杭州市交通工程集团有限公司,杭州欧德钙业有限公司,建德市安仁中心学校,杭千高速公路发展有限公司,建德市威格工具有限公司,建德市红伟新型墙体材料厂,杭州艺佳纺织品有限公司,建德市雯峰机械有限公司,杭州圣德义塑化机电有限公司,浙江神鹰椅业有限公司,杭州当当涂料有限公司,建德市水务有限公司,建德市安仁村石矿,建德市雅康医疗器械有限公司,建德市宏运新能源科技有限公司,中国石化销售股份有限公司浙江杭州石油分公司,杭州朝阳实业有限公司)","startTime":"2020-04-02 05:44:00","stopDate":"2020-04-02 07:30:00","orgNo":"3340180","typeCode":"电网故障停限电","poweroffArea":"110kV钦堂变:安镇Y331线安镇Y3311开关后段","poweroffReason":"高压开关跳闸 原停电结束时间为2020-04-02 08:00:00,为减少客户停电时间,加快工作进度,提前送电,现变更停电结束时间为2020-04-02 07:30:00","powerTime":"2020-04-02 06:57:00","powerComm":"已送电","subsNo":"","lineNo":"","tgNo":"","tgName":null,"infoStatus":"1","orgName":"国网浙江建德市供电有限公司","typeName":null,"infoStatusName":null,"dateDay":null,"orgNos":null,"nowTime":null,"countyName":null,"streetName":null,"villageName":null,"roadName":null,"communityName":null,"tranName":null,"sdLineName":null,"cityCode":"3340180","cityName":"国网浙江建德市供电有限公司","provinceCode":null,"stopTime":"2020-04-02 07:30:00","powerType":"全部","powerOffArea":"110kV钦堂变:安镇Y331线安镇Y3311开关后段","powerOffReason":"高压开关跳闸 原停电结束时间为2020-04-02 08:00:00,为减少客户停电时间,加快工作进度,提前送电,现变更停电结束时间为2020-04-02 07:30:00","powerOffId":"2020040231020013"},{"poweroffId":2020040231020012,"sgpoweroffId":null,"subsName":"","lineName":"10kV后山Y785线","pubTranName":"建德市乾泰再生资源有限公司3#,1#变,建德市远宏建材有限公司,浙江汇丰世邦生物工程有限公司,1#变压器,建德市宝华座椅厂,杭州豪宇节能门窗制造有限公司,1#变压器,杭州萧宏康美盛铝业有限公司,安仁后山青山蓬台区,后山村施家畈台区,建德市南方家园商城置业有限公司,杭州萧宏康美盛铝业有限公司,1#变,1#变,2#变压器,浙江弟歌工贸有限公司,建德市乾泰再生资源有限公司2#,1#,2#变,","scope":"浙江省-杭州市-建德市-乾潭镇-后山行政村(青山蓬自然村,施家畈自然村);乾潭镇(建德市华绎家具有限公司,建德市远宏建材有限公司,杭州大伟胶粘剂有限公司,杭州法拉第节能科技有限公司,杭州正邦木业有限公司,杭州铭邦铝业有限公司,建德市新帛家纺有限公司,建德市南方家园商城置业有限公司,杭州萧宏康美盛铝业有限公司,杭州豪宇节能门窗制造有限公司,建德市乾泰再生资源有限公司,建德市宝华座椅厂,杭州丰润油品有限公司)","startTime":"2020-04-02 05:29:00","stopDate":"2020-04-02 08:00:00","orgNo":"3340180","typeCode":"电网故障停限电","poweroffArea":"110kV钦堂变:后山Y785线后山Y7852开关后段","poweroffReason":"高压开关跳闸","powerTime":"2020-04-02 07:23:00","powerComm":"已送电","subsNo":"","lineNo":"","tgNo":"","tgName":null,"infoStatus":"1","orgName":"国网浙江建德市供电有限公司","typeName":null,"infoStatusName":null,"dateDay":null,"orgNos":null,"nowTime":null,"countyName":null,"streetName":null,"villageName":null,"roadName":null,"communityName":null,"tranName":null,"sdLineName":null,"cityCode":"3340180","cityName":"国网浙江建德市供电有限公司","provinceCode":null,"stopTime":"2020-04-02 08:00:00","powerType":"全部","powerOffArea":"110kV钦堂变:后山Y785线后山Y7852开关后段","powerOffReason":"高压开关跳闸","powerOffId":"2020040231020012"},{"poweroffId":2020040231020005,"sgpoweroffId":null,"subsName":"","lineName":"10kV山后A188线","pubTranName":"杭州可楠实业有限公司,杭州荣发五金工具有限公司,杭州市萧山区义桥镇人民政府杨家浜排灌站,","scope":"浙江省-杭州市-萧山区-义桥镇-河西行政村-杭州市萧山区义桥镇人民政府杨家浜排灌站,义桥镇-民丰行政村(杭州荣发五金工具有限公司,杭州可楠实业有限公司)","startTime":"2020-04-12 09:30:00","stopDate":"2020-04-12 13:30:00","orgNo":"3340130","typeCode":"计划停电","poweroffArea":"110kV群建变:山后A188线首端，杭州可楠实业有限公司，杭州市萧山区义桥镇人民政府杨家浜排灌站，杭州荣发五金工具有限公司之间","poweroffReason":"山后A188线18/49/C09#杆后段线路迁改原停电结束时间为2020-04-1113:30:00,因天气原因,需延期送电,现变更停电结束时间为2020-04-1213:30:00","powerTime":"2020-04-12 13:17:40","powerComm":"已送电","subsNo":"","lineNo":"","tgNo":"","tgName":null,"infoStatus":"1","orgName":"国网浙江杭州市萧山区供电有限公司","typeName":null,"infoStatusName":null,"dateDay":null,"orgNos":null,"nowTime":null,"countyName":null,"streetName":null,"villageName":null,"roadName":null,"communityName":null,"tranName":null,"sdLineName":null,"cityCode":"3340130","cityName":"国网浙江杭州市萧山区供电有限公司","provinceCode":null,"stopTime":"2020-04-12 13:30:00","powerType":"全部","powerOffArea":"110kV群建变:山后A188线首端，杭州可楠实业有限公司，杭州市萧山区义桥镇人民政府杨家浜排灌站，杭州荣发五金工具有限公司之间","powerOffReason":"山后A188线18/49/C09#杆后段线路迁改原停电结束时间为2020-04-1113:30:00,因天气原因,需延期送电,现变更停电结束时间为2020-04-1213:30:00","powerOffId":"2020040231020005"},{"poweroffId":2020040231020004,"sgpoweroffId":null,"subsName":"","lineName":"10kV义集C515线","pubTranName":"义桥村6#变,","scope":"浙江省-杭州市-萧山区-义桥镇-义桥行政村(西庄自然村,义一自然村)","startTime":"2020-04-12 09:30:00","stopDate":"2020-04-12 13:30:00","orgNo":"3340130","typeCode":"计划停电","poweroffArea":"35kV义桥变:义集C515线-义桥村6#变后段","poweroffReason":"义桥村6#变移位原停电结束时间为2020-04-1113:30:00,因天气原因,需延期送电,现变更停电结束时间为2020-04-1213:30:00","powerTime":"2020-04-12 12:33:39","powerComm":"已送电","subsNo":"","lineNo":"","tgNo":"","tgName":null,"infoStatus":"1","orgName":"国网浙江杭州市萧山区供电有限公司","typeName":null,"infoStatusName":null,"dateDay":null,"orgNos":null,"nowTime":null,"countyName":null,"streetName":null,"villageName":null,"roadName":null,"communityName":null,"tranName":null,"sdLineName":null,"cityCode":"3340130","cityName":"国网浙江杭州市萧山区供电有限公司","provinceCode":null,"stopTime":"2020-04-12 13:30:00","powerType":"全部","powerOffArea":"35kV义桥变:义集C515线-义桥村6#变后段","powerOffReason":"义桥村6#变移位原停电结束时间为2020-04-1113:30:00,因天气原因,需延期送电,现变更停电结束时间为2020-04-1213:30:00","powerOffId":"2020040231020004"},{"poweroffId":2020040231020003,"sgpoweroffId":null,"subsName":"","lineName":"10kV洄龙C232线","pubTranName":"杭州互投网络科技有限公司,","scope":"浙江省-杭州市-萧山区-楼塔镇-大同三行政村-杭州互投网络科技有限公司","startTime":"2020-04-10 08:30:00","stopDate":"2020-04-10 12:30:00","orgNo":"3340130","typeCode":"计划停电","poweroffArea":"35kV楼塔变:洄龙C232线-互投网络科技跌落式熔断器后段","poweroffReason":"洄龙C232线30/10#--11#杆新立12米电杆1基，移装令克，避雷器横担1组。电缆搭接2处，新做线路终端1组。拆线路1档，拔电杆1基，电缆拆除1处，","powerTime":"2020-04-10 11:33:19","powerComm":"已送电","subsNo":"","lineNo":"","tgNo":"","tgName":null,"infoStatus":"1","orgName":"国网浙江杭州市萧山区供电有限公司","typeName":null,"infoStatusName":null,"dateDay":null,"orgNos":null,"nowTime":null,"countyName":null,"streetName":null,"villageName":null,"roadName":null,"communityName":null,"tranName":null,"sdLineName":null,"cityCode":"3340130","cityName":"国网浙江杭州市萧山区供电有限公司","provinceCode":null,"stopTime":"2020-04-10 12:30:00","powerType":"全部","powerOffArea":"35kV楼塔变:洄龙C232线-互投网络科技跌落式熔断器后段","powerOffReason":"洄龙C232线30/10#--11#杆新立12米电杆1基，移装令克，避雷器横担1组。电缆搭接2处，新做线路终端1组。拆线路1档，拔电杆1基，电缆拆除1处，","powerOffId":"2020040231020003"}],"pageModel":{"pageNow":410,"totalCount":17788,"totalPage":1779,"tableRows":0,"pageCount":10,"beginCount":4090},"isExperi":"1"}