{"message":"","today":"2020-06-15","seleList":[{"poweroffId":2020060531020470,"sgpoweroffId":null,"subsName":"","lineName":"10kV上坊R165线","pubTranName":"高桥公变,","scope":"浙江省-杭州市-淳安县-大墅镇-下坑行政村-高桥自然村","startTime":"2020-06-05 14:00:00","stopDate":"2020-06-05 15:00:00","orgNo":"3340190","typeCode":"电网故障停限电","poweroffArea":"35kV大市变:上坊R165线高桥公变跌落式熔断器配变","poweroffReason":"高压开关跳闸 原停电结束时间为2020-06-05 15:44:00,为减少客户停电时间,加快工作进度,提前送电,现变更停电结束时间为2020-06-05 15:00:00","powerTime":"2020-06-05 14:15:36","powerComm":"已送电","subsNo":"","lineNo":"","tgNo":"","tgName":null,"infoStatus":"1","orgName":"国网浙江淳安县供电有限公司","typeName":null,"infoStatusName":null,"dateDay":null,"orgNos":null,"nowTime":null,"countyName":null,"streetName":null,"villageName":null,"roadName":null,"communityName":null,"tranName":null,"sdLineName":null,"cityCode":"3340190","cityName":"国网浙江淳安县供电有限公司","provinceCode":null,"stopTime":"2020-06-05 15:00:00","powerType":"全部","powerOffArea":"35kV大市变:上坊R165线高桥公变跌落式熔断器配变","powerOffReason":"高压开关跳闸 原停电结束时间为2020-06-05 15:44:00,为减少客户停电时间,加快工作进度,提前送电,现变更停电结束时间为2020-06-05 15:00:00","powerOffId":"2020060531020470"},{"poweroffId":2020060531020451,"sgpoweroffId":null,"subsName":"","lineName":"10kV永磁A392线","pubTranName":"新北村3#变,","scope":"浙江省-杭州市-萧山区-宁围镇、宁围街道(盈一行政村-盈一自然村,二桥行政村-新北自然村)宁围街道二桥行政村等一带","startTime":"2020-06-05 13:55:50","stopDate":"2020-06-05 15:20:50","orgNo":"3340130","typeCode":"电网故障停限电","poweroffArea":"110kV顺坝变:永磁A392线-新北村3#变台区低压开关","poweroffReason":"（低压停电信息）低压漏电保护器短路故障 原停电结束时间为2020-06-05 15:59:50,为减少客户停电时间,加快工作进度,提前送电,现变更停电结束时间为2020-06-05 15:20:50","powerTime":"2020-06-05 14:25:13","powerComm":"已送电","subsNo":"","lineNo":"","tgNo":"","tgName":null,"infoStatus":"1","orgName":"国网浙江杭州市萧山区供电有限公司","typeName":null,"infoStatusName":null,"dateDay":null,"orgNos":null,"nowTime":null,"countyName":null,"streetName":null,"villageName":null,"roadName":null,"communityName":null,"tranName":null,"sdLineName":null,"cityCode":"3340130","cityName":"国网浙江杭州市萧山区供电有限公司","provinceCode":null,"stopTime":"2020-06-05 15:20:50","powerType":"全部","powerOffArea":"110kV顺坝变:永磁A392线-新北村3#变台区低压开关","powerOffReason":"（低压停电信息）低压漏电保护器短路故障 原停电结束时间为2020-06-05 15:59:50,为减少客户停电时间,加快工作进度,提前送电,现变更停电结束时间为2020-06-05 15:20:50","powerOffId":"2020060531020451"},{"poweroffId":2020060531020426,"sgpoweroffId":null,"subsName":"","lineName":"10kV彩虹D550线","pubTranName":"戴家墩6#公变,","scope":"浙江省-杭州市-富阳区-富春街道-后周社区-春秋北路99号一带","startTime":"2020-06-08 08:50:00","stopDate":"2020-06-08 11:30:00","orgNo":"3340170","typeCode":"临时停电","poweroffArea":"110kV春江变:彩虹D550线-戴家墩6#公变后段","poweroffReason":"(低压停电信息)戴家墩6#号公变3#、4#开关，春秋北路99号（杭州富阳山居爷爷餐饮店春秋北路店6620095606）三相表1只及电缆搭接工作。","powerTime":"2020-06-08 11:10:15","powerComm":"已送电","subsNo":"","lineNo":"","tgNo":"","tgName":null,"infoStatus":"1","orgName":"国网浙江杭州市富阳区供电公司","typeName":null,"infoStatusName":null,"dateDay":null,"orgNos":null,"nowTime":null,"countyName":null,"streetName":null,"villageName":null,"roadName":null,"communityName":null,"tranName":null,"sdLineName":null,"cityCode":"3340170","cityName":"国网浙江杭州市富阳区供电公司","provinceCode":null,"stopTime":"2020-06-08 11:30:00","powerType":"全部","powerOffArea":"110kV春江变:彩虹D550线-戴家墩6#公变后段","powerOffReason":"(低压停电信息)戴家墩6#号公变3#、4#开关，春秋北路99号（杭州富阳山居爷爷餐饮店春秋北路店6620095606）三相表1只及电缆搭接工作。","powerOffId":"2020060531020426"},{"poweroffId":2020060531020419,"sgpoweroffId":null,"subsName":"","lineName":"10kV城二A600线","pubTranName":"万都晶典1#公变,","scope":"浙江省-杭州市-萧山区-新塘街道(汇宇社区-南秀路,金家浜社区-金家浜自然村)，浙江省杭州市萧山区新塘街道汇宇社区南秀路晶典公寓等","startTime":"2020-06-05 13:36:05","stopDate":"2020-06-05 14:30:00","orgNo":"3340130","typeCode":"电网故障停限电","poweroffArea":"110kV城东变:城二A600线-万都晶典1#公变后段","poweroffReason":"高压开关跳闸 原停电结束时间为2020-06-05 15:00:00,为减少客户停电时间,加快工作进度,提前送电,现变更停电结束时间为2020-06-05 14:30:00","powerTime":"2020-06-05 13:47:47","powerComm":"已送电","subsNo":"","lineNo":"","tgNo":"","tgName":null,"infoStatus":"1","orgName":"国网浙江杭州市萧山区供电有限公司","typeName":null,"infoStatusName":null,"dateDay":null,"orgNos":null,"nowTime":null,"countyName":null,"streetName":null,"villageName":null,"roadName":null,"communityName":null,"tranName":null,"sdLineName":null,"cityCode":"3340130","cityName":"国网浙江杭州市萧山区供电有限公司","provinceCode":null,"stopTime":"2020-06-05 14:30:00","powerType":"全部","powerOffArea":"110kV城东变:城二A600线-万都晶典1#公变后段","powerOffReason":"高压开关跳闸 原停电结束时间为2020-06-05 15:00:00,为减少客户停电时间,加快工作进度,提前送电,现变更停电结束时间为2020-06-05 14:30:00","powerOffId":"2020060531020419"},{"poweroffId":2020060531020415,"sgpoweroffId":null,"subsName":"","lineName":"10kV紫东A787线","pubTranName":"紫东村4#变,","scope":"浙江省-杭州市-萧山区-河上镇-紫东行政村(紫东自然村,孙桥头自然村,胡家自然村)等","startTime":"2020-06-05 13:35:12","stopDate":"2020-06-05 15:40:12","orgNo":"3340130","typeCode":"电网故障停限电","poweroffArea":"110kV大西变:紫东A787线-紫东村4#变低压开关","poweroffReason":"(低压停电信息)低压架空导线断线 原停电结束时间为2020-06-05 16:00:12,为减少客户停电时间,加快工作进度,提前送电,现变更停电结束时间为2020-06-05 15:40:12","powerTime":"2020-06-05 15:01:13","powerComm":"已送电","subsNo":"","lineNo":"","tgNo":"","tgName":null,"infoStatus":"1","orgName":"国网浙江杭州市萧山区供电有限公司","typeName":null,"infoStatusName":null,"dateDay":null,"orgNos":null,"nowTime":null,"countyName":null,"streetName":null,"villageName":null,"roadName":null,"communityName":null,"tranName":null,"sdLineName":null,"cityCode":"3340130","cityName":"国网浙江杭州市萧山区供电有限公司","provinceCode":null,"stopTime":"2020-06-05 15:40:12","powerType":"全部","powerOffArea":"110kV大西变:紫东A787线-紫东村4#变低压开关","powerOffReason":"(低压停电信息)低压架空导线断线 原停电结束时间为2020-06-05 16:00:12,为减少客户停电时间,加快工作进度,提前送电,现变更停电结束时间为2020-06-05 15:40:12","powerOffId":"2020060531020415"},{"poweroffId":2020060531020385,"sgpoweroffId":null,"subsName":"","lineName":"10kV先申A223线","pubTranName":"沿江村3#变,","scope":"浙江省-杭州市-萧山区-新街镇、新街街道-沿江行政村-沿江自然村等一带","startTime":"2020-06-05 13:06:20","stopDate":"2020-06-05 14:50:20","orgNo":"3340130","typeCode":"电网故障停限电","poweroffArea":"110kV先锋变:先申A223线-沿江村3#变台区低压开关","poweroffReason":"（低压停电信息）低压漏电保护器短路故障 原停电结束时间为2020-06-05 16:05:20,为减少客户停电时间,加快工作进度,提前送电,现变更停电结束时间为2020-06-05 14:50:20","powerTime":"2020-06-05 13:56:49","powerComm":"已送电","subsNo":"","lineNo":"","tgNo":"","tgName":null,"infoStatus":"1","orgName":"国网浙江杭州市萧山区供电有限公司","typeName":null,"infoStatusName":null,"dateDay":null,"orgNos":null,"nowTime":null,"countyName":null,"streetName":null,"villageName":null,"roadName":null,"communityName":null,"tranName":null,"sdLineName":null,"cityCode":"3340130","cityName":"国网浙江杭州市萧山区供电有限公司","provinceCode":null,"stopTime":"2020-06-05 14:50:20","powerType":"全部","powerOffArea":"110kV先锋变:先申A223线-沿江村3#变台区低压开关","powerOffReason":"（低压停电信息）低压漏电保护器短路故障 原停电结束时间为2020-06-05 16:05:20,为减少客户停电时间,加快工作进度,提前送电,现变更停电结束时间为2020-06-05 14:50:20","powerOffId":"2020060531020385"},{"poweroffId":2020060531020362,"sgpoweroffId":null,"subsName":"","lineName":"10kV朱村V222线","pubTranName":"笠灶变,","scope":"浙江省-杭州市-临安市-青山湖街道-朱村行政村-笠灶","startTime":"2020-06-15 08:30:00","stopDate":"2020-06-15 14:50:00","orgNo":"3340160","typeCode":"计划停电","poweroffArea":"110kV青山变:朱村V222线省如2227线大山矿业分线2#杆笠灶配变令克","poweroffReason":"增容布点工程 原停电结束时间为2020-06-15 15:20:00,为减少客户停电时间,加快工作进度,提前送电,现变更停电结束时间为2020-06-15 14:50:00","powerTime":"2020-06-15 14:15:49","powerComm":"已送电","subsNo":"","lineNo":"","tgNo":"","tgName":null,"infoStatus":"1","orgName":"国网浙江临安市供电公司","typeName":null,"infoStatusName":null,"dateDay":null,"orgNos":null,"nowTime":null,"countyName":null,"streetName":null,"villageName":null,"roadName":null,"communityName":null,"tranName":null,"sdLineName":null,"cityCode":"3340160","cityName":"国网浙江临安市供电公司","provinceCode":null,"stopTime":"2020-06-15 14:50:00","powerType":"全部","powerOffArea":"110kV青山变:朱村V222线省如2227线大山矿业分线2#杆笠灶配变令克","powerOffReason":"增容布点工程 原停电结束时间为2020-06-15 15:20:00,为减少客户停电时间,加快工作进度,提前送电,现变更停电结束时间为2020-06-15 14:50:00","powerOffId":"2020060531020362"},{"poweroffId":2020060531020351,"sgpoweroffId":null,"subsName":"","lineName":"10kV下干D385线","pubTranName":"新绿村1#刘村公变,","scope":"浙江省-杭州市-富阳区-湖源乡-新绿村一带","startTime":"2020-06-15 08:30:00","stopDate":"2020-06-15 17:30:00","orgNo":"3340170","typeCode":"计划停电","poweroffArea":"35kV湖源变:下干D385线-新绿村1#刘村公变低压开关后段","poweroffReason":"(低压停电信息)场口10千伏下干D385线道路迁改工程：新绿村1#刘村公变低压出线改造：架设导线3档，拆移导线1档，拆除导线21档，拆移表计3只，下火线拆、搭14处等工作。","powerTime":"2020-06-15 17:19:25","powerComm":"已送电","subsNo":"","lineNo":"","tgNo":"","tgName":null,"infoStatus":"1","orgName":"国网浙江杭州市富阳区供电公司","typeName":null,"infoStatusName":null,"dateDay":null,"orgNos":null,"nowTime":null,"countyName":null,"streetName":null,"villageName":null,"roadName":null,"communityName":null,"tranName":null,"sdLineName":null,"cityCode":"3340170","cityName":"国网浙江杭州市富阳区供电公司","provinceCode":null,"stopTime":"2020-06-15 17:30:00","powerType":"全部","powerOffArea":"35kV湖源变:下干D385线-新绿村1#刘村公变低压开关后段","powerOffReason":"(低压停电信息)场口10千伏下干D385线道路迁改工程：新绿村1#刘村公变低压出线改造：架设导线3档，拆移导线1档，拆除导线21档，拆移表计3只，下火线拆、搭14处等工作。","powerOffId":"2020060531020351"},{"poweroffId":2020060531020348,"sgpoweroffId":null,"subsName":"","lineName":"10kV印城8985线","pubTranName":"白海七变,","scope":"浙江省-杭州市-滨江区-长河街道-闻涛社区(白金海岸小区,闻涛路)","startTime":"2020-06-05 12:46:37","stopDate":"2020-06-05 17:00:37","orgNo":"3340101","typeCode":"电网故障停限电","poweroffArea":"110kV江一变:印城8985线-白海七变后段","poweroffReason":"(低压停电信息)低压开关跳闸 原停电结束时间为2020-06-05 19:00:00,为减少客户停电时间,加快工作进度,提前送电,现变更停电结束时间为2020-06-05 17:00:37","powerTime":"2020-06-05 16:25:05","powerComm":"已送电","subsNo":"","lineNo":"","tgNo":"","tgName":null,"infoStatus":"1","orgName":"浙江杭州电力客户服务中心","typeName":null,"infoStatusName":null,"dateDay":null,"orgNos":null,"nowTime":null,"countyName":null,"streetName":null,"villageName":null,"roadName":null,"communityName":null,"tranName":null,"sdLineName":null,"cityCode":"3340101","cityName":"浙江杭州电力客户服务中心","provinceCode":null,"stopTime":"2020-06-05 17:00:37","powerType":"全部","powerOffArea":"110kV江一变:印城8985线-白海七变后段","powerOffReason":"(低压停电信息)低压开关跳闸 原停电结束时间为2020-06-05 19:00:00,为减少客户停电时间,加快工作进度,提前送电,现变更停电结束时间为2020-06-05 17:00:37","powerOffId":"2020060531020348"},{"poweroffId":2020060531020347,"sgpoweroffId":null,"subsName":"","lineName":"10kV东村D501线","pubTranName":"东村坞2号路边公变,","scope":"浙江省-杭州市-富阳区-常安镇-东村坞村一带","startTime":"2020-06-15 08:30:00","stopDate":"2020-06-15 16:40:00","orgNo":"3340170","typeCode":"计划停电","poweroffArea":"110kV常安变:东村D501线-东村坞2号路边公变低压开关后段","poweroffReason":"(低压停电信息)装横担、做拉线、线路拆移、接户线改接等工作；","powerTime":"2020-06-15 16:20:12","powerComm":"已送电","subsNo":"","lineNo":"","tgNo":"","tgName":null,"infoStatus":"1","orgName":"国网浙江杭州市富阳区供电公司","typeName":null,"infoStatusName":null,"dateDay":null,"orgNos":null,"nowTime":null,"countyName":null,"streetName":null,"villageName":null,"roadName":null,"communityName":null,"tranName":null,"sdLineName":null,"cityCode":"3340170","cityName":"国网浙江杭州市富阳区供电公司","provinceCode":null,"stopTime":"2020-06-15 16:40:00","powerType":"全部","powerOffArea":"110kV常安变:东村D501线-东村坞2号路边公变低压开关后段","powerOffReason":"(低压停电信息)装横担、做拉线、线路拆移、接户线改接等工作；","powerOffId":"2020060531020347"}],"pageModel":{"pageNow":40,"totalCount":17786,"totalPage":1779,"tableRows":0,"pageCount":10,"beginCount":390},"isExperi":"1"}