{"message":"","today":"2020-06-15","seleList":[{"poweroffId":2020033131020242,"sgpoweroffId":null,"subsName":"","lineName":"10kV杨家Y218线","pubTranName":"龙桥村前坊台区,","scope":"浙江省-杭州市-建德市-李家镇 李家行政村-上前山排自然村,龙桥行政村-前坊自然村","startTime":"2020-03-31 17:14:00","stopDate":"2020-03-31 18:10:00","orgNo":"3340180","typeCode":"电网故障停限电","poweroffArea":"35kV李家变:杨家Y218线龙桥村前坊台区配变","poweroffReason":"(低压停电信息)低压熔丝烧毁 原停电结束时间为2020-03-31 19:30:00,为减少客户停电时间,加快工作进度,提前送电,现变更停电结束时间为2020-03-31 18:10:00","powerTime":"2020-03-31 17:38:30","powerComm":"已送电","subsNo":"","lineNo":"","tgNo":"","tgName":null,"infoStatus":"1","orgName":"国网浙江建德市供电有限公司","typeName":null,"infoStatusName":null,"dateDay":null,"orgNos":null,"nowTime":null,"countyName":null,"streetName":null,"villageName":null,"roadName":null,"communityName":null,"tranName":null,"sdLineName":null,"cityCode":"3340180","cityName":"国网浙江建德市供电有限公司","provinceCode":null,"stopTime":"2020-03-31 18:10:00","powerType":"全部","powerOffArea":"35kV李家变:杨家Y218线龙桥村前坊台区配变","powerOffReason":"(低压停电信息)低压熔丝烧毁 原停电结束时间为2020-03-31 19:30:00,为减少客户停电时间,加快工作进度,提前送电,现变更停电结束时间为2020-03-31 18:10:00","powerOffId":"2020033131020242"},{"poweroffId":2020033131020241,"sgpoweroffId":null,"subsName":"","lineName":"10kV石莲6716线","pubTranName":"浙江广播电视发展总公司索道游览分公司,吉庆变,九里松农居一变,一一七四变,117 医院工作区,杭州自来水总公司泵房,花圃,浙江医院,大安停车场专变II号,九里松农居三变,金沙港农居变2,石莲亭,移动灵隐基站,1#变压器,一一七二变,灵隐寺#1,白乐农居二变,117 医院工作区,九里松农居二变,灵顺寺2,浙江医院2,白乐农居四变,市地下空间建设发展中心2#,九里松农居四变,省委办公厅培训中心2#,杭州九里松生态茶庄有限公司,浙江医院2,117医院路灯,一一七一变,一一七三变,","scope":"浙江省-杭州市-西湖区-灵隐街道-曙光社区-灵隐路,-117社区-九里松花苑-灵溪隧道,梅灵北路,灵溪南路,,白乐桥-西湖街道-金沙港社区-金沙曲苑,,双峰村社区-上茅家埠,茅家埠村社区","startTime":"2020-03-31 17:12:07","stopDate":"2020-03-31 18:12:07","orgNo":"3340101","typeCode":"电网故障停限电","poweroffArea":"110kV黄体变:石莲6716线","poweroffReason":"高压开关跳闸 原停电结束时间为2020-03-31 22:12:07,为减少客户停电时间,加快工作进度,提前送电,现变更停电结束时间为2020-03-31 18:12:07","powerTime":"2020-03-31 17:51:15","powerComm":"已送电","subsNo":"","lineNo":"","tgNo":"","tgName":null,"infoStatus":"1","orgName":"浙江杭州电力客户服务中心","typeName":null,"infoStatusName":null,"dateDay":null,"orgNos":null,"nowTime":null,"countyName":null,"streetName":null,"villageName":null,"roadName":null,"communityName":null,"tranName":null,"sdLineName":null,"cityCode":"3340101","cityName":"浙江杭州电力客户服务中心","provinceCode":null,"stopTime":"2020-03-31 18:12:07","powerType":"全部","powerOffArea":"110kV黄体变:石莲6716线","powerOffReason":"高压开关跳闸 原停电结束时间为2020-03-31 22:12:07,为减少客户停电时间,加快工作进度,提前送电,现变更停电结束时间为2020-03-31 18:12:07","powerOffId":"2020033131020241"},{"poweroffId":2020033131020240,"sgpoweroffId":null,"subsName":"","lineName":"10kV洪春6715线","pubTranName":"高尔夫,117 医院工作区,浙江省国家安全厅,变压器,植物,117 医院工作区,市地下空间建设发展中心2#,桃植分变,117 医院工作区,植物,杭州九里松生态茶庄有限公司,白乐农居一变,白乐农居三变,白乐农居五变,变压器,杭州九里松生态茶庄有限公司,万马新能源变,植物,植物,省警卫局,市地下空间建设发展中心1#,1,","scope":"浙江省-杭州市-西湖区-西湖街道-灵隐社区-白乐桥,灵隐街道-117社区(灵溪南路,灵隐路,白乐桥);西湖街道-杭州市市政设施发展中心,灵隐街道(杭州植物园(杭州市园林科学研究院),中国人民解放军联勤保障部队第九〇三医院,杭州之江饭店,韩美林艺术馆,杭州市市政设施发展中心,万马联合新能源投资有限公司)","startTime":"2020-03-31 17:02:00","stopDate":"2020-03-31 19:20:00","orgNo":"3340101","typeCode":"电网故障停限电","poweroffArea":"110kV黄体变:洪春6715线军医环网箱洪军67151线后段","poweroffReason":"高压开关跳闸 原停电结束时间为2020-03-31 21:02:00,为减少客户停电时间,加快工作进度,提前送电,现变更停电结束时间为2020-03-31 19:20:00","powerTime":"2020-03-31 18:43:42","powerComm":"已送电","subsNo":"","lineNo":"","tgNo":"","tgName":null,"infoStatus":"1","orgName":"浙江杭州电力客户服务中心","typeName":null,"infoStatusName":null,"dateDay":null,"orgNos":null,"nowTime":null,"countyName":null,"streetName":null,"villageName":null,"roadName":null,"communityName":null,"tranName":null,"sdLineName":null,"cityCode":"3340101","cityName":"浙江杭州电力客户服务中心","provinceCode":null,"stopTime":"2020-03-31 19:20:00","powerType":"全部","powerOffArea":"110kV黄体变:洪春6715线军医环网箱洪军67151线后段","powerOffReason":"高压开关跳闸 原停电结束时间为2020-03-31 21:02:00,为减少客户停电时间,加快工作进度,提前送电,现变更停电结束时间为2020-03-31 19:20:00","powerOffId":"2020033131020240"},{"poweroffId":2020033131020239,"sgpoweroffId":null,"subsName":"","lineName":"10kV灵隐8798线","pubTranName":"变压器,变压器,计数,法喜寺,永福寺专变二,古村二变,永福,灵庄,灵隐管理处4#,园校变,法喜寺,云弄变,灵隐管理处,灵隐管理处3#,天居二变,灵隐管理处1#,变压器,01,灵隐管理处2#,照壁变,杭州市佛教协会2#,","scope":"浙江省-杭州市-西湖区-灵隐街道-117社区(天竺路,灵隐路,灵隐支路,法云弄,黄泥岭,白乐桥,梅灵北路,灵竺路,龙井路,灵溪南路),,西湖区-灵隐街道-曙光社区-灵隐路)","startTime":"2020-03-31 17:01:00","stopDate":"2020-03-31 19:01:00","orgNo":"3340101","typeCode":"电网故障停限电","poweroffArea":"110kV花港变:灵隐8798线天竺站灵隐8798线后段","poweroffReason":"高压开关跳闸 原停电结束时间为2020-03-31 21:01:00,为减少客户停电时间,加快工作进度,提前送电,现变更停电结束时间为2020-03-31 19:01:00","powerTime":"2020-03-31 18:39:38","powerComm":"已送电","subsNo":"","lineNo":"","tgNo":"","tgName":null,"infoStatus":"1","orgName":"浙江杭州电力客户服务中心","typeName":null,"infoStatusName":null,"dateDay":null,"orgNos":null,"nowTime":null,"countyName":null,"streetName":null,"villageName":null,"roadName":null,"communityName":null,"tranName":null,"sdLineName":null,"cityCode":"3340101","cityName":"浙江杭州电力客户服务中心","provinceCode":null,"stopTime":"2020-03-31 19:01:00","powerType":"全部","powerOffArea":"110kV花港变:灵隐8798线天竺站灵隐8798线后段","powerOffReason":"高压开关跳闸 原停电结束时间为2020-03-31 21:01:00,为减少客户停电时间,加快工作进度,提前送电,现变更停电结束时间为2020-03-31 19:01:00","powerOffId":"2020033131020239"},{"poweroffId":2020033131020231,"sgpoweroffId":null,"subsName":"","lineName":"10kV浦詹6593线","pubTranName":"机电,金制,工程队,运输,1,杭州继勇实业有限公司,黄沙,绕南,","scope":"浙江省-杭州市-西湖区-双浦镇新沙行政村,杭州市袁浦街,双浦镇(,浙江三丰建设有限公司,杭州之江度假区桐菊餐饮服务部,杭州千辉通实业有限公司)","startTime":"2020-03-31 16:30:52","stopDate":"2020-03-31 20:00:52","orgNo":"3340101","typeCode":"电网故障停限电","poweroffArea":"110kV周浦变:浦詹6593线闻狮站黄沙分线后段","poweroffReason":"高压开关跳闸 原停电结束时间为2020-03-31 20:30:52,为减少客户停电时间,加快工作进度,提前送电,现变更停电结束时间为2020-03-31 20:00:52","powerTime":"2020-03-31 19:13:38","powerComm":"已送电","subsNo":"","lineNo":"","tgNo":"","tgName":null,"infoStatus":"1","orgName":"浙江杭州电力客户服务中心","typeName":null,"infoStatusName":null,"dateDay":null,"orgNos":null,"nowTime":null,"countyName":null,"streetName":null,"villageName":null,"roadName":null,"communityName":null,"tranName":null,"sdLineName":null,"cityCode":"3340101","cityName":"浙江杭州电力客户服务中心","provinceCode":null,"stopTime":"2020-03-31 20:00:52","powerType":"全部","powerOffArea":"110kV周浦变:浦詹6593线闻狮站黄沙分线后段","powerOffReason":"高压开关跳闸 原停电结束时间为2020-03-31 20:30:52,为减少客户停电时间,加快工作进度,提前送电,现变更停电结束时间为2020-03-31 20:00:52","powerOffId":"2020033131020231"},{"poweroffId":2020033131020217,"sgpoweroffId":null,"subsName":"","lineName":"10kV三鑫T277线","pubTranName":"雷坞村1号公变,","scope":"浙江省-杭州市-桐庐县-凤川街道-三鑫行政村-雷坞自然村，三鑫行政村雷坞自然村1号公边组团内","startTime":"2020-03-31 16:15:41","stopDate":"2020-03-31 17:45:41","orgNo":"3340150","typeCode":"电网故障停限电","poweroffArea":"110kV石阜变:三鑫T277线-雷坞村1号公变后段","poweroffReason":"(低压停电信息)低压开关跳闸 原停电结束时间为2020-03-31 20:15:41,为减少客户停电时间,加快工作进度,提前送电,现变更停电结束时间为2020-03-31 17:45:41","powerTime":"2020-03-31 17:28:54","powerComm":"已送电","subsNo":"","lineNo":"","tgNo":"","tgName":null,"infoStatus":"1","orgName":"国网浙江桐庐县供电公司","typeName":null,"infoStatusName":null,"dateDay":null,"orgNos":null,"nowTime":null,"countyName":null,"streetName":null,"villageName":null,"roadName":null,"communityName":null,"tranName":null,"sdLineName":null,"cityCode":"3340150","cityName":"国网浙江桐庐县供电公司","provinceCode":null,"stopTime":"2020-03-31 17:45:41","powerType":"全部","powerOffArea":"110kV石阜变:三鑫T277线-雷坞村1号公变后段","powerOffReason":"(低压停电信息)低压开关跳闸 原停电结束时间为2020-03-31 20:15:41,为减少客户停电时间,加快工作进度,提前送电,现变更停电结束时间为2020-03-31 17:45:41","powerOffId":"2020033131020217"},{"poweroffId":2020033131020213,"sgpoweroffId":null,"subsName":"","lineName":"10kV七坑V236线","pubTranName":"杭州奥鑫纸业有限公司,","scope":"浙江省-杭州市-临安市-潜川镇-杭州奥鑫纸业有限公司一带","startTime":"2020-04-09 08:30:00","stopDate":"2020-04-09 17:30:00","orgNo":"3340160","typeCode":"计划停电","poweroffArea":"35KV潜川变七坑V236线115#杆瑞丰纸业分线","poweroffReason":"西乐村樟树等增容布点（02项）：阔滩V231线115#杆瑞丰纸业分线0-3#杆调杆、调导线结束时间为2020-04-09 15:00:00,因天气原因,延迟送电,现变更停电结束时间为2020-04-09 17:30:00","powerTime":"2020-04-09 17:20:11","powerComm":"已送电","subsNo":"","lineNo":"","tgNo":"","tgName":null,"infoStatus":"1","orgName":"国网浙江临安市供电公司","typeName":null,"infoStatusName":null,"dateDay":null,"orgNos":null,"nowTime":null,"countyName":null,"streetName":null,"villageName":null,"roadName":null,"communityName":null,"tranName":null,"sdLineName":null,"cityCode":"3340160","cityName":"国网浙江临安市供电公司","provinceCode":null,"stopTime":"2020-04-09 17:30:00","powerType":"全部","powerOffArea":"35KV潜川变七坑V236线115#杆瑞丰纸业分线","powerOffReason":"西乐村樟树等增容布点（02项）：阔滩V231线115#杆瑞丰纸业分线0-3#杆调杆、调导线结束时间为2020-04-09 15:00:00,因天气原因,延迟送电,现变更停电结束时间为2020-04-09 17:30:00","powerOffId":"2020033131020213"},{"poweroffId":2020033131020211,"sgpoweroffId":null,"subsName":"","lineName":"10kV富源V509线","pubTranName":"10kV横鑫村[小昔楼家]公变,","scope":"浙江省-杭州市-临安市-於潜镇-小昔楼家一带","startTime":"2020-04-08 08:30:00","stopDate":"2020-04-08 17:00:00","orgNo":"3340160","typeCode":"计划停电","poweroffArea":"110KV於潜变富源V509线横岭分线小昔支线22#杆开关","poweroffReason":"1、横鑫村[小昔楼家]公变移位、横鑫村[小昔横坞口]公变架线。.2、小昔支线22#-27#杆上改下、51#-53#杆上改下.原13#-47#杆线路拆除","powerTime":"2020-04-08 16:23:07","powerComm":"已送电","subsNo":"","lineNo":"","tgNo":"","tgName":null,"infoStatus":"1","orgName":"国网浙江临安市供电公司","typeName":null,"infoStatusName":null,"dateDay":null,"orgNos":null,"nowTime":null,"countyName":null,"streetName":null,"villageName":null,"roadName":null,"communityName":null,"tranName":null,"sdLineName":null,"cityCode":"3340160","cityName":"国网浙江临安市供电公司","provinceCode":null,"stopTime":"2020-04-08 17:00:00","powerType":"全部","powerOffArea":"110KV於潜变富源V509线横岭分线小昔支线22#杆开关","powerOffReason":"1、横鑫村[小昔楼家]公变移位、横鑫村[小昔横坞口]公变架线。.2、小昔支线22#-27#杆上改下、51#-53#杆上改下.原13#-47#杆线路拆除","powerOffId":"2020033131020211"},{"poweroffId":2020033131020208,"sgpoweroffId":null,"subsName":"","lineName":"10kV德沃V699线","pubTranName":"杭州西子富沃德精密机械有限公司4#,","scope":"浙江省-杭州市-临安市-於潜镇-杭州西子富沃德精密机械有限公司一带","startTime":"2020-04-07 08:00:00","stopDate":"2020-04-07 12:20:00","orgNo":"3340160","typeCode":"临时停电","poweroffArea":"110KV於潜变德沃V699线","poweroffReason":"配合於太3563线3#—6#塔拆线","powerTime":"2020-04-07 12:10:17","powerComm":"已送电","subsNo":"","lineNo":"","tgNo":"","tgName":null,"infoStatus":"1","orgName":"国网浙江临安市供电公司","typeName":null,"infoStatusName":null,"dateDay":null,"orgNos":null,"nowTime":null,"countyName":null,"streetName":null,"villageName":null,"roadName":null,"communityName":null,"tranName":null,"sdLineName":null,"cityCode":"3340160","cityName":"国网浙江临安市供电公司","provinceCode":null,"stopTime":"2020-04-07 12:20:00","powerType":"全部","powerOffArea":"110KV於潜变德沃V699线","powerOffReason":"配合於太3563线3#—6#塔拆线","powerOffId":"2020033131020208"},{"poweroffId":2020033131020206,"sgpoweroffId":null,"subsName":"","lineName":"10kV姚家V297线","pubTranName":"10kV潜东村[上尤村]公变,10kV潜东村[上尤村东坞口]公变,","scope":"浙江省-杭州市-临安市-於潜镇-上尤村、上尤村东坞口一带","startTime":"2020-04-03 15:20:00","stopDate":"2020-04-03 15:35:00","orgNo":"3340160","typeCode":"临时停电","poweroffArea":"35KV西天目变姚家V297线上尤分线","poweroffReason":"高后线(03项）：姚家V297线上尤分线16#杆发电车开关下桩引线拆头","powerTime":"2020-04-03 15:25:11","powerComm":"已送电","subsNo":"","lineNo":"","tgNo":"","tgName":null,"infoStatus":"1","orgName":"国网浙江临安市供电公司","typeName":null,"infoStatusName":null,"dateDay":null,"orgNos":null,"nowTime":null,"countyName":null,"streetName":null,"villageName":null,"roadName":null,"communityName":null,"tranName":null,"sdLineName":null,"cityCode":"3340160","cityName":"国网浙江临安市供电公司","provinceCode":null,"stopTime":"2020-04-03 15:35:00","powerType":"全部","powerOffArea":"35KV西天目变姚家V297线上尤分线","powerOffReason":"高后线(03项）：姚家V297线上尤分线16#杆发电车开关下桩引线拆头","powerOffId":"2020033131020206"}],"pageModel":{"pageNow":415,"totalCount":17788,"totalPage":1779,"tableRows":0,"pageCount":10,"beginCount":4140},"isExperi":"1"}