{"message":"","today":"2020-06-15","seleList":[{"poweroffId":2020033131020205,"sgpoweroffId":null,"subsName":"","lineName":"10kV姚家V297线","pubTranName":"10kV潜东村[涌村]公变,10kV潜东村[涌东村路边]公变,","scope":"浙江省-杭州市-临安市-於潜镇-涌东村路边、涌村一带","startTime":"2020-04-03 08:40:00","stopDate":"2020-04-03 15:20:00","orgNo":"3340160","typeCode":"临时停电","poweroffArea":"35KV西天目变姚家V297线48#杆2972开关至姚家V297线72#杆2973开关","poweroffReason":"高后线(02项）：1、姚家V297线48#杆至71#杆杆子移位，姚家V297线60#杆天顺分线搭接 2、姚家V297线66#杆上尤分线0-1#杆导线调换；姚家V297线71#杆涌村分线改接至70#杆，0-1#杆导线调换。","powerTime":"2020-04-03 15:10:10","powerComm":"已送电","subsNo":"","lineNo":"","tgNo":"","tgName":null,"infoStatus":"1","orgName":"国网浙江临安市供电公司","typeName":null,"infoStatusName":null,"dateDay":null,"orgNos":null,"nowTime":null,"countyName":null,"streetName":null,"villageName":null,"roadName":null,"communityName":null,"tranName":null,"sdLineName":null,"cityCode":"3340160","cityName":"国网浙江临安市供电公司","provinceCode":null,"stopTime":"2020-04-03 15:20:00","powerType":"全部","powerOffArea":"35KV西天目变姚家V297线48#杆2972开关至姚家V297线72#杆2973开关","powerOffReason":"高后线(02项）：1、姚家V297线48#杆至71#杆杆子移位，姚家V297线60#杆天顺分线搭接 2、姚家V297线66#杆上尤分线0-1#杆导线调换；姚家V297线71#杆涌村分线改接至70#杆，0-1#杆导线调换。","powerOffId":"2020033131020205"},{"poweroffId":2020033131020204,"sgpoweroffId":null,"subsName":"","lineName":"10kV姚家V297线","pubTranName":"10kV潜东村[上尤村]公变,10kV潜东村[上尤村东坞口]公变,","scope":"浙江省-杭州市-临安市-於潜镇-上尤村、上尤村东坞口一带","startTime":"2020-04-03 08:25:00","stopDate":"2020-04-03 08:40:00","orgNo":"3340160","typeCode":"临时停电","poweroffArea":"35KV西天目变姚家V297线上尤分线","poweroffReason":"高后线(01项）：姚家V297线上尤分线16#杆发电车开关下桩引线搭头","powerTime":"2020-04-03 08:30:01","powerComm":"已送电","subsNo":"","lineNo":"","tgNo":"","tgName":null,"infoStatus":"1","orgName":"国网浙江临安市供电公司","typeName":null,"infoStatusName":null,"dateDay":null,"orgNos":null,"nowTime":null,"countyName":null,"streetName":null,"villageName":null,"roadName":null,"communityName":null,"tranName":null,"sdLineName":null,"cityCode":"3340160","cityName":"国网浙江临安市供电公司","provinceCode":null,"stopTime":"2020-04-03 08:40:00","powerType":"全部","powerOffArea":"35KV西天目变姚家V297线上尤分线","powerOffReason":"高后线(01项）：姚家V297线上尤分线16#杆发电车开关下桩引线搭头","powerOffId":"2020033131020204"},{"poweroffId":2020033131020199,"sgpoweroffId":null,"subsName":"","lineName":"10kV阳崇G415线","pubTranName":"杭州鑫怡置业有限公司612070703403#专变,杭州鑫怡置业有限公司612070703504#专变,杭州鑫怡置业有限公司612070703201#专变,杭州鑫怡置业有限公司612070703602#专变,","scope":"浙江省-杭州市-余杭区-崇贤街道-向阳行政村-杭州鑫怡置业有限公司","startTime":"2020-04-07 09:20:00","stopDate":"2020-04-07 12:50:00","orgNo":"3340140","typeCode":"临时停电","poweroffArea":"110kV向阳变:阳崇G415线森邦开关站II段鑫怡置业分支箱分线","poweroffReason":"杭州鑫怡置业有限公司电缆分支箱迁改：鑫怡置业分支箱分线电缆分支箱拆除，新旧电缆对接工作","powerTime":"2020-04-07 12:45:00","powerComm":"已送电","subsNo":"","lineNo":"","tgNo":"","tgName":null,"infoStatus":"1","orgName":"国网浙江杭州市余杭区供电有限公司","typeName":null,"infoStatusName":null,"dateDay":null,"orgNos":null,"nowTime":null,"countyName":null,"streetName":null,"villageName":null,"roadName":null,"communityName":null,"tranName":null,"sdLineName":null,"cityCode":"3340140","cityName":"国网浙江杭州市余杭区供电有限公司","provinceCode":null,"stopTime":"2020-04-07 12:50:00","powerType":"全部","powerOffArea":"110kV向阳变:阳崇G415线森邦开关站II段鑫怡置业分支箱分线","powerOffReason":"杭州鑫怡置业有限公司电缆分支箱迁改：鑫怡置业分支箱分线电缆分支箱拆除，新旧电缆对接工作","powerOffId":"2020033131020199"},{"poweroffId":2020033131020198,"sgpoweroffId":null,"subsName":"","lineName":"10kV建联G924线","pubTranName":"葛家4组公变,","scope":"浙江省-杭州市-余杭区-乔司镇-葛家车行政村-葛家车自然村,乔司街道-葛家车行政村(葛家车自然村,吴家车自然村)","startTime":"2020-03-31 15:37:00","stopDate":"2020-03-31 16:30:00","orgNo":"3340140","typeCode":"电网故障停限电","poweroffArea":"110kV庙港变:建联G924线-葛家4组1#分线开关后段","poweroffReason":"高压开关跳闸","powerTime":"2020-03-31 16:07:00","powerComm":"已送电","subsNo":"","lineNo":"","tgNo":"","tgName":null,"infoStatus":"1","orgName":"国网浙江杭州市余杭区供电有限公司","typeName":null,"infoStatusName":null,"dateDay":null,"orgNos":null,"nowTime":null,"countyName":null,"streetName":null,"villageName":null,"roadName":null,"communityName":null,"tranName":null,"sdLineName":null,"cityCode":"3340140","cityName":"国网浙江杭州市余杭区供电有限公司","provinceCode":null,"stopTime":"2020-03-31 16:30:00","powerType":"全部","powerOffArea":"110kV庙港变:建联G924线-葛家4组1#分线开关后段","powerOffReason":"高压开关跳闸","powerOffId":"2020033131020198"},{"poweroffId":2020033131020179,"sgpoweroffId":null,"subsName":"","lineName":"10kV江九6260线","pubTranName":"长寓三变,","scope":"浙江省-杭州市-滨江区-长河街道-江三社区(长江小区,滨康路)浙江省杭州市滨江区长河街道长江小区11幢1.2单元住户","startTime":"2020-04-08 09:30:00","stopDate":"2020-04-08 15:30:00","orgNo":"3340101","typeCode":"计划停电","poweroffArea":"110kV之江变:江九6260线-长寓三变后段B3-4T接箱闸刀","poweroffReason":"(低压停电信息)非居新装 原停电结束时间为2020-04-08 16:30:00,为减少客户停电时间,加快工作进度,提前送电,现变更停电结束时间为2020-04-08 15:30:00","powerTime":"2020-04-08 15:04:36","powerComm":"已送电","subsNo":"","lineNo":"","tgNo":"","tgName":null,"infoStatus":"1","orgName":"浙江杭州电力客户服务中心","typeName":null,"infoStatusName":null,"dateDay":null,"orgNos":null,"nowTime":null,"countyName":null,"streetName":null,"villageName":null,"roadName":null,"communityName":null,"tranName":null,"sdLineName":null,"cityCode":"3340101","cityName":"浙江杭州电力客户服务中心","provinceCode":null,"stopTime":"2020-04-08 15:30:00","powerType":"全部","powerOffArea":"110kV之江变:江九6260线-长寓三变后段B3-4T接箱闸刀","powerOffReason":"(低压停电信息)非居新装 原停电结束时间为2020-04-08 16:30:00,为减少客户停电时间,加快工作进度,提前送电,现变更停电结束时间为2020-04-08 15:30:00","powerOffId":"2020033131020179"},{"poweroffId":2020033131020168,"sgpoweroffId":null,"subsName":"","lineName":"10kV青少8669线","pubTranName":"保淑二,保淑,宝石二,省案双路内部一,桃园变,","scope":"浙江省-杭州市-西湖区-北山街道-松木场社区-松木场,北山街道-宝石社区(宝石路,宝石二路,宝石一路,保俶路);北山街道-浙江省机关事务管理局","startTime":"2020-03-31 14:39:00","stopDate":"2020-03-31 17:10:00","orgNo":"3340101","typeCode":"电网故障停限电","poweroffArea":"220kV庆丰变:青少8669线宝二支线柱上断路器后段","poweroffReason":"高压开关跳闸 原停电结束时间为2020-03-31 16:39:00,因施工现场环境比较复杂原因,延迟送电,现变更停电结束时间为2020-03-31 17:10:00","powerTime":"2020-03-31 16:42:41","powerComm":"已送电","subsNo":"","lineNo":"","tgNo":"","tgName":null,"infoStatus":"1","orgName":"浙江杭州电力客户服务中心","typeName":null,"infoStatusName":null,"dateDay":null,"orgNos":null,"nowTime":null,"countyName":null,"streetName":null,"villageName":null,"roadName":null,"communityName":null,"tranName":null,"sdLineName":null,"cityCode":"3340101","cityName":"浙江杭州电力客户服务中心","provinceCode":null,"stopTime":"2020-03-31 17:10:00","powerType":"全部","powerOffArea":"220kV庆丰变:青少8669线宝二支线柱上断路器后段","powerOffReason":"高压开关跳闸 原停电结束时间为2020-03-31 16:39:00,因施工现场环境比较复杂原因,延迟送电,现变更停电结束时间为2020-03-31 17:10:00","powerOffId":"2020033131020168"},{"poweroffId":2020033131020157,"sgpoweroffId":null,"subsName":"","lineName":"10kV永科H843线","pubTranName":"浙一医院1#基建变,浙一医院2#基建变,浙一医院6#基建变,浙一医院4#基建变,","scope":"浙江省-杭州市-余杭区-仓前街道-浙江大学医学院附属第一医院","startTime":"2020-03-31 13:50:00","stopDate":"2020-03-31 15:50:00","orgNo":"3340140","typeCode":"电网故障停限电","poweroffArea":"110kV永乐变:永科H843线杨桥环网站浙一医院基建分支箱分线后段","poweroffReason":"高压开关跳闸","powerTime":"2020-03-31 15:28:00","powerComm":"已送电","subsNo":"","lineNo":"","tgNo":"","tgName":null,"infoStatus":"1","orgName":"国网浙江杭州市余杭区供电有限公司","typeName":null,"infoStatusName":null,"dateDay":null,"orgNos":null,"nowTime":null,"countyName":null,"streetName":null,"villageName":null,"roadName":null,"communityName":null,"tranName":null,"sdLineName":null,"cityCode":"3340140","cityName":"国网浙江杭州市余杭区供电有限公司","provinceCode":null,"stopTime":"2020-03-31 15:50:00","powerType":"未送电","powerOffArea":"110kV永乐变:永科H843线杨桥环网站浙一医院基建分支箱分线后段","powerOffReason":"高压开关跳闸","powerOffId":"2020033131020157"},{"poweroffId":2020033131020109,"sgpoweroffId":null,"subsName":"","lineName":"10kV姚家R401线","pubTranName":"玛璜村洪塘里公变,玛璜村西坞公变,玛璜村满花里公变,","scope":"浙江省-杭州市-淳安县-界首乡-玛璜行政村(满花里自然村,玛璜村,玛璜新村)","startTime":"2020-04-03 16:00:00","stopDate":"2020-04-03 16:30:00","orgNo":"3340190","typeCode":"临时停电","poweroffArea":"110kV界首变:姚家R401线-满花里支线配变跌落式熔断器后段;姚家R401线-洪塘里配变跌落式熔断器后段;姚家R401线-西坞配变跌落式熔断器","poweroffReason":"10KV姚家R401线12#杆至20#杆杆线迁移12#杆至20#杆发电车配合临时停电","powerTime":"2020-04-03 16:14:33","powerComm":"已送电","subsNo":"","lineNo":"","tgNo":"","tgName":null,"infoStatus":"1","orgName":"国网浙江淳安县供电有限公司","typeName":null,"infoStatusName":null,"dateDay":null,"orgNos":null,"nowTime":null,"countyName":null,"streetName":null,"villageName":null,"roadName":null,"communityName":null,"tranName":null,"sdLineName":null,"cityCode":"3340190","cityName":"国网浙江淳安县供电有限公司","provinceCode":null,"stopTime":"2020-04-03 16:30:00","powerType":"全部","powerOffArea":"110kV界首变:姚家R401线-满花里支线配变跌落式熔断器后段;姚家R401线-洪塘里配变跌落式熔断器后段;姚家R401线-西坞配变跌落式熔断器","powerOffReason":"10KV姚家R401线12#杆至20#杆杆线迁移12#杆至20#杆发电车配合临时停电","powerOffId":"2020033131020109"},{"poweroffId":2020033131020108,"sgpoweroffId":null,"subsName":"","lineName":"10kV姚家R401线","pubTranName":"玛璜村满花里公变,玛璜村西坞公变,玛璜村洪塘里公变,","scope":"浙江省-杭州市-淳安县-界首乡-玛璜行政村(满花里自然村,玛璜村,玛璜新村)","startTime":"2020-04-03 12:00:00","stopDate":"2020-04-03 12:30:00","orgNo":"3340190","typeCode":"临时停电","poweroffArea":"110kV界首变:姚家R401线-满花里支线配变跌落式熔断器后段;姚家R401线-洪塘里配变跌落式熔断器后段;姚家R401线-西坞配变跌落式熔断器","poweroffReason":"10KV姚家R401线12#杆至20#杆杆线迁移12#杆至20#杆发电车配合临时停电","powerTime":"2020-04-03 12:14:20","powerComm":"已送电","subsNo":"","lineNo":"","tgNo":"","tgName":null,"infoStatus":"1","orgName":"国网浙江淳安县供电有限公司","typeName":null,"infoStatusName":null,"dateDay":null,"orgNos":null,"nowTime":null,"countyName":null,"streetName":null,"villageName":null,"roadName":null,"communityName":null,"tranName":null,"sdLineName":null,"cityCode":"3340190","cityName":"国网浙江淳安县供电有限公司","provinceCode":null,"stopTime":"2020-04-03 12:30:00","powerType":"全部","powerOffArea":"110kV界首变:姚家R401线-满花里支线配变跌落式熔断器后段;姚家R401线-洪塘里配变跌落式熔断器后段;姚家R401线-西坞配变跌落式熔断器","powerOffReason":"10KV姚家R401线12#杆至20#杆杆线迁移12#杆至20#杆发电车配合临时停电","powerOffId":"2020033131020108"},{"poweroffId":2020033131020094,"sgpoweroffId":null,"subsName":"","lineName":"10kV小岭T104线","pubTranName":"公园山路1号公变,","scope":"浙江省-杭州市-桐庐县-桐君街道-迎宾社区(劳动路,富春路,公园山路),桐君街道-圆通社区(公园山路,富春路)","startTime":"2020-04-08 08:00:00","stopDate":"2020-04-08 13:00:00","orgNo":"3340150","typeCode":"计划停电","poweroffArea":"110kV桐庐变:小岭T104线-公园山路1号公变后段","poweroffReason":"(低压停电信息)低压线路施工","powerTime":"2020-04-08 12:51:27","powerComm":"已送电","subsNo":"","lineNo":"","tgNo":"","tgName":null,"infoStatus":"1","orgName":"国网浙江桐庐县供电公司","typeName":null,"infoStatusName":null,"dateDay":null,"orgNos":null,"nowTime":null,"countyName":null,"streetName":null,"villageName":null,"roadName":null,"communityName":null,"tranName":null,"sdLineName":null,"cityCode":"3340150","cityName":"国网浙江桐庐县供电公司","provinceCode":null,"stopTime":"2020-04-08 13:00:00","powerType":"全部","powerOffArea":"110kV桐庐变:小岭T104线-公园山路1号公变后段","powerOffReason":"(低压停电信息)低压线路施工","powerOffId":"2020033131020094"}],"pageModel":{"pageNow":416,"totalCount":17788,"totalPage":1779,"tableRows":0,"pageCount":10,"beginCount":4150},"isExperi":"1"}