{"message":"","today":"2020-06-15","seleList":[{"poweroffId":2020033131020079,"sgpoweroffId":null,"subsName":"","lineName":"10kV下塘Y198线","pubTranName":"嘉和雅苑3号公变,","scope":"浙江省-杭州市-建德市-洋溪街道-青龙头社区-雅鼎路","startTime":"2020-03-31 10:11:00","stopDate":"2020-03-31 11:30:00","orgNo":"3340180","typeCode":"电网故障停限电","poweroffArea":"110kV沿口变:下塘Y198线嘉和雅苑3号公变配变","poweroffReason":"(低压停电信息)低压开关跳闸 原停电结束时间为2020-03-31 12:00:00,为减少客户停电时间,加快工作进度,提前送电,现变更停电结束时间为2020-03-31 11:30:00","powerTime":"2020-03-31 10:43:49","powerComm":"已送电","subsNo":"","lineNo":"","tgNo":"","tgName":null,"infoStatus":"1","orgName":"国网浙江建德市供电有限公司","typeName":null,"infoStatusName":null,"dateDay":null,"orgNos":null,"nowTime":null,"countyName":null,"streetName":null,"villageName":null,"roadName":null,"communityName":null,"tranName":null,"sdLineName":null,"cityCode":"3340180","cityName":"国网浙江建德市供电有限公司","provinceCode":null,"stopTime":"2020-03-31 11:30:00","powerType":"全部","powerOffArea":"110kV沿口变:下塘Y198线嘉和雅苑3号公变配变","powerOffReason":"(低压停电信息)低压开关跳闸 原停电结束时间为2020-03-31 12:00:00,为减少客户停电时间,加快工作进度,提前送电,现变更停电结束时间为2020-03-31 11:30:00","powerOffId":"2020033131020079"},{"poweroffId":2020033131020065,"sgpoweroffId":null,"subsName":"","lineName":"10kV立太H431线","pubTranName":"联发集团杭州房地产开发有限公司基建变2,联发集团杭州房地产开发有限公司基建变1,","scope":"浙江省-杭州市-余杭区-良渚街道-联发集团杭州房地产开发有限公司","startTime":"2020-03-31 09:53:00","stopDate":"2020-03-31 11:53:00","orgNo":"3340140","typeCode":"电网故障停限电","poweroffArea":"110kV勾庄变:立太H431线联发集团分线开关后段","poweroffReason":"高压开关跳闸","powerTime":"2020-03-31 11:29:34","powerComm":"已送电","subsNo":"","lineNo":"","tgNo":"","tgName":null,"infoStatus":"1","orgName":"国网浙江杭州市余杭区供电有限公司","typeName":null,"infoStatusName":null,"dateDay":null,"orgNos":null,"nowTime":null,"countyName":null,"streetName":null,"villageName":null,"roadName":null,"communityName":null,"tranName":null,"sdLineName":null,"cityCode":"3340140","cityName":"国网浙江杭州市余杭区供电有限公司","provinceCode":null,"stopTime":"2020-03-31 11:53:00","powerType":"全部","powerOffArea":"110kV勾庄变:立太H431线联发集团分线开关后段","powerOffReason":"高压开关跳闸","powerOffId":"2020033131020065"},{"poweroffId":2020033131020064,"sgpoweroffId":null,"subsName":"","lineName":"10kV旧县T225线","pubTranName":"洪儒村5号公变,","scope":"浙江省-杭州市-桐庐县-旧县街道(母岭行政村-黄昌岭自然村,洪儒行政村-里畈坞自然村,合岭行政村-尹峰自然村)","startTime":"2020-04-09 09:00:00","stopDate":"2020-04-09 13:00:00","orgNo":"3340150","typeCode":"计划停电","poweroffArea":"35kV西武变:旧县T225线-里畈F3347令克后段","poweroffReason":"1：洪儒村5号公变配变移位及增容工作 2：新立配变电杆及导线架设工作","powerTime":"2020-04-09 12:50:52","powerComm":"已送电","subsNo":"","lineNo":"","tgNo":"","tgName":null,"infoStatus":"1","orgName":"国网浙江桐庐县供电公司","typeName":null,"infoStatusName":null,"dateDay":null,"orgNos":null,"nowTime":null,"countyName":null,"streetName":null,"villageName":null,"roadName":null,"communityName":null,"tranName":null,"sdLineName":null,"cityCode":"3340150","cityName":"国网浙江桐庐县供电公司","provinceCode":null,"stopTime":"2020-04-09 13:00:00","powerType":"全部","powerOffArea":"35kV西武变:旧县T225线-里畈F3347令克后段","powerOffReason":"1：洪儒村5号公变配变移位及增容工作 2：新立配变电杆及导线架设工作","powerOffId":"2020033131020064"},{"poweroffId":2020033131020052,"sgpoweroffId":null,"subsName":"","lineName":"10kV南峰Y127线","pubTranName":"建德市新鹏车业有限公司,建德市万宇金属制品厂,建德市建明电器有限公司,1#,建德市万家电器电缆有限公司,建德市卓豪车业有限公司,葛家村姚家塘台区,葛家村葛家园区台区,浙江美工精细陶瓷科技有限公司,御品江南1号公变,建德市卓安塑料电器厂,杭州中创针织有限公司,1#专变。,葛家园区康桥水岸1#公变,建德市三环塑化有限公司,建德市欣诚五金工艺厂,葛家村葛家桥头台区,杭州科龙电器工具有限公司1#,杭州科龙电器工具有限公司2#,建德市永欣辐条有限公司,南峰村童家台区,葛家村平苏山台区,建德市全利防腐设备厂,御品江南3号公变,建德市超德五金工具有限公司,葛家村朱家塘台区,建德市前程塑料厂,建德市欣荣辐条有限公司,建德市亚星橡胶工具厂,建德市金博电线电缆有限公司,建德市敏达车业有限公司,梅城集镇江南花苑公变,葛家潘家山台区,建德市康瑞牧业有限公司,五马洲集中式污水处理厂,建德市鹏飞电子有限公司,建德市梅城林氏模具厂,春江花苑公变,建德市丰鼎金属制品有限公司,1#变,2#,建德市于闳塑料有限公司,杭州同鑫工具制造有限公司,葛家村南峰码头台区,建德市欣荣辐条有限公司,建德市宏泰电器有限公司,建德市梅城新城建设有限公司,2#专变,建德市万家电器电缆有限公司,建德市人民法院,1#,建德市新安江电器开关制造有限公司,建德市三森电器有限公司,建德市宇科辐条有限公司,1#变,建德市兴业达五金工具有限公司1#变,建德市万家电器电缆有限公司1#变,1#,建德市新晟制衣有限公司,","scope":"浙江省-杭州市-建德市-梅城镇-葛家行政村葛家埠自然村,康桥水岸名苑自然村,葛家自然村,姚家塘自然村,朱家塘自然村,平苏山自然村,严陵路,新村,春江花苑自然村,南峰码头,桥头自然村,巽峰西路,梅城镇-姜山行政村五马洲自然村,王圣堂自然村,梅城镇-南峰行政村童家自然村,南峰自然村,江南花苑,南峰码头,梅城镇-严陵社区-严陵路,杨村桥镇-黄盛行政村-潘家自然村;梅城镇建德市万家电器电缆有限公司,建德市晨鑫服装有限公司,杭州建德高铁新区投资发展有限公司,建德市梅城君达针织厂,建德市延升电器有限公司,建德市梅城新农村建设开发有限公司,建德市永欣辐条有限公司,建德市宇科辐条有限公司,建德市天地源电器工具有限公司,建德市远晨包装有限公司,杭州巨安物流有限公司,建德市三环塑化有限公司,建德市马南水务有限公司,建德市人民法院,建德市金博电缆有限公司,建德市兴业达五金工具有限公司,建德市新晟制衣有限公司,杭州同鑫工具制造有限公司,杭州建德厚道生物科技有限公司,建德市建明电器有限公司,建德市欣荣辐条有限公司,建德市宏泰电器有限公司,建德市卓安塑料电器厂,建德市前程塑料厂,杭州科龙电器工具有限公司,建德市轩业五金工具有限公司,建德市飞龙电器有限公司,建德市全利防腐设备厂,建德市三森电器有限公司,建德市卓豪车业有限公司,江苏镇江路桥工程有限公司,建德市新安江电器制造有限公司,建德市于闳塑料有限公司,杭州斯敏格车业有限公司,建德市梅城林氏模具厂,建德市鹏飞电子有限公司,建德市翔和厂,建德市亚星橡胶工具厂,建德市万宇金属制品厂,建德美工精细陶瓷科技有限公司.","startTime":"2020-03-31 09:28:00","stopDate":"2020-03-31 10:30:00","orgNo":"3340180","typeCode":"电网故障停限电","poweroffArea":"110kV南峰变:南峰Y127线南峰127线01#开关后段","poweroffReason":"高压开关跳闸 原停电结束时间为2020-03-31 11:28:00,为减少客户停电时间,加快工作进度,提前送电,现变更停电结束时间为2020-03-31 10:30:00","powerTime":"2020-03-31 09:59:00","powerComm":"已送电","subsNo":"","lineNo":"","tgNo":"","tgName":null,"infoStatus":"1","orgName":"国网浙江建德市供电有限公司","typeName":null,"infoStatusName":null,"dateDay":null,"orgNos":null,"nowTime":null,"countyName":null,"streetName":null,"villageName":null,"roadName":null,"communityName":null,"tranName":null,"sdLineName":null,"cityCode":"3340180","cityName":"国网浙江建德市供电有限公司","provinceCode":null,"stopTime":"2020-03-31 10:30:00","powerType":"全部","powerOffArea":"110kV南峰变:南峰Y127线南峰127线01#开关后段","powerOffReason":"高压开关跳闸 原停电结束时间为2020-03-31 11:28:00,为减少客户停电时间,加快工作进度,提前送电,现变更停电结束时间为2020-03-31 10:30:00","powerOffId":"2020033131020052"},{"poweroffId":2020033131020040,"sgpoweroffId":null,"subsName":"","lineName":"10kV博镇G962线","pubTranName":"东新村四联北公变,运河镇博陆村庄前湾公变,运河镇东新村四联南公变,","scope":"浙江省-杭州市-余杭区-运河街道-博陆社区-博陆,运河街道-博陆行政村(博陆自然村,南园自然村,打鸟滨,南元自然村,庄前村,打鸟浜自然村,庄前自然村),运河街道-东新行政村(南石桥自然村,东新自然村,南石桥村,扶栏桥自然村)","startTime":"2020-03-31 09:14:00","stopDate":"2020-03-31 11:14:00","orgNo":"3340140","typeCode":"电网故障停限电","poweroffArea":"110kV博陆变:博镇G962线-南元前湾分线开关后段","poweroffReason":"高压开关跳闸","powerTime":"2020-03-31 10:32:00","powerComm":"已送电","subsNo":"","lineNo":"","tgNo":"","tgName":null,"infoStatus":"1","orgName":"国网浙江杭州市余杭区供电有限公司","typeName":null,"infoStatusName":null,"dateDay":null,"orgNos":null,"nowTime":null,"countyName":null,"streetName":null,"villageName":null,"roadName":null,"communityName":null,"tranName":null,"sdLineName":null,"cityCode":"3340140","cityName":"国网浙江杭州市余杭区供电有限公司","provinceCode":null,"stopTime":"2020-03-31 11:14:00","powerType":"全部","powerOffArea":"110kV博陆变:博镇G962线-南元前湾分线开关后段","powerOffReason":"高压开关跳闸","powerOffId":"2020033131020040"},{"poweroffId":2020033131020018,"sgpoweroffId":null,"subsName":"","lineName":"10kV南站D321线","pubTranName":"四联村4#村北公变,","scope":"浙江省-杭州市-富阳区-春江街道-中沙行政村-洋浦沙自然村","startTime":"2020-03-31 08:34:23","stopDate":"2020-03-31 09:34:23","orgNo":"3340170","typeCode":"电网故障停限电","poweroffArea":"110kV建设变:南站D321线-四联村4#村北公变后段","poweroffReason":"(低压停电信息)低压开关跳闸","powerTime":"2020-03-31 08:54:43","powerComm":"已送电","subsNo":"","lineNo":"","tgNo":"","tgName":null,"infoStatus":"1","orgName":"国网浙江杭州市富阳区供电公司","typeName":null,"infoStatusName":null,"dateDay":null,"orgNos":null,"nowTime":null,"countyName":null,"streetName":null,"villageName":null,"roadName":null,"communityName":null,"tranName":null,"sdLineName":null,"cityCode":"3340170","cityName":"国网浙江杭州市富阳区供电公司","provinceCode":null,"stopTime":"2020-03-31 09:34:23","powerType":"全部","powerOffArea":"110kV建设变:南站D321线-四联村4#村北公变后段","powerOffReason":"(低压停电信息)低压开关跳闸","powerOffId":"2020033131020018"},{"poweroffId":2020033131020007,"sgpoweroffId":null,"subsName":"","lineName":"10kV联强H852线","pubTranName":"安通科技,劲达齐泰,乘鸿科技,","scope":"浙江省-杭州市-余杭区-仓前街道(浙江竞达齐泰科技有限公司,杭州安通科技有限公司,杭州乘鸿信息科技有限公司)","startTime":"2020-03-31 07:07:00","stopDate":"2020-03-31 10:07:00","orgNo":"3340140","typeCode":"电网故障停限电","poweroffArea":"110kV永乐变:联强H852线乘鸿分支箱后段","poweroffReason":"高压开关跳闸","powerTime":"2020-03-31 09:29:00","powerComm":"已送电","subsNo":"","lineNo":"","tgNo":"","tgName":null,"infoStatus":"1","orgName":"国网浙江杭州市余杭区供电有限公司","typeName":null,"infoStatusName":null,"dateDay":null,"orgNos":null,"nowTime":null,"countyName":null,"streetName":null,"villageName":null,"roadName":null,"communityName":null,"tranName":null,"sdLineName":null,"cityCode":"3340140","cityName":"国网浙江杭州市余杭区供电有限公司","provinceCode":null,"stopTime":"2020-03-31 10:07:00","powerType":"未送电","powerOffArea":"110kV永乐变:联强H852线乘鸿分支箱后段","powerOffReason":"高压开关跳闸","powerOffId":"2020033131020007"},{"poweroffId":2020033131020005,"sgpoweroffId":null,"subsName":"","lineName":"10kV三山D402线","pubTranName":"富阳市春安加油站有限公司,浙江飞龙管业有限公司,春安村1#村中公变,浙江鑫耐铝熔铸设备材料有限公司1#,杭州鑫鹿机械制造有限公司,春安村6#排楼公变,富阳市城建集团鹿山新区建设有限公司,杭州富盈车业有限公司,春安村8#江边公变,春安村9#徐新公变,浙江飞龙管业有限公司,富阳格林机械制造有限公司,杭州富阳天禾塑业有限公司,富阳通力机械制造有限公司2#变,富阳格林机械制造有限公司,富阳通力机械制造有限公司,杭州广胜管业有限公司,","scope":"浙江省-杭州市-富阳区-鹿山街道-汤家埠行政村(春安自然村,屋基上自然村,汤家埠自然村,官房自然村,牌楼下自然村);鹿山街道(杭州富阳格林机械制造有限公司,杭州广胜管业有限公司,杭州富阳春安加油站有限公司,富阳通力机械制造有限公司,杭州富盈车业有限公司,浙江飞龙管业有限公司,杭州富阳水务有限公司,杭州富阳天禾塑业有限公司,浙江鑫耐铝熔铸设备材料有限公司,杭州鑫鹿机械制造有限公司)","startTime":"2020-03-31 06:17:00","stopDate":"2020-03-31 09:17:00","orgNo":"3340170","typeCode":"电网故障停限电","poweroffArea":"110kV长春变:三山D402线三山D4021线后段","poweroffReason":"高压开关跳闸","powerTime":"2020-03-31 08:18:32","powerComm":"已送电","subsNo":"","lineNo":"","tgNo":"","tgName":null,"infoStatus":"1","orgName":"国网浙江杭州市富阳区供电公司","typeName":null,"infoStatusName":null,"dateDay":null,"orgNos":null,"nowTime":null,"countyName":null,"streetName":null,"villageName":null,"roadName":null,"communityName":null,"tranName":null,"sdLineName":null,"cityCode":"3340170","cityName":"国网浙江杭州市富阳区供电公司","provinceCode":null,"stopTime":"2020-03-31 09:17:00","powerType":"全部","powerOffArea":"110kV长春变:三山D402线三山D4021线后段","powerOffReason":"高压开关跳闸","powerOffId":"2020033131020005"},{"poweroffId":2020033031020274,"sgpoweroffId":null,"subsName":"","lineName":"10kV尖山A538线","pubTranName":"尖山村1#变,尖山村2#变,旭日染整,","scope":"浙江省-杭州市-萧山区-浦阳镇(尖山行政村-尖山自然村,谢家行政村-谢家自然村);浙江省-杭州市-萧山区-浦阳镇-尖山行政村-杭州萧山旭日染整机械有限公司","startTime":"2020-04-07 08:30:00","stopDate":"2020-04-07 16:20:00","orgNo":"3340130","typeCode":"计划停电","poweroffArea":"110kV浦阳变:尖山A538线-尖山A538线尖山1号分线开关后段","poweroffReason":"尖山A538线33-36#杆线路绝缘化改造，更换导线4档移位 原停电结束时间为2020-04-07 17:30:00,为减少客户停电时间,加快工作进度,提前送电,现变更停电结束时间为2020-04-07 16:20:00","powerTime":"2020-04-07 15:26:07","powerComm":"已送电","subsNo":"","lineNo":"","tgNo":"","tgName":null,"infoStatus":"1","orgName":"国网浙江杭州市萧山区供电有限公司","typeName":null,"infoStatusName":null,"dateDay":null,"orgNos":null,"nowTime":null,"countyName":null,"streetName":null,"villageName":null,"roadName":null,"communityName":null,"tranName":null,"sdLineName":null,"cityCode":"3340130","cityName":"国网浙江杭州市萧山区供电有限公司","provinceCode":null,"stopTime":"2020-04-07 16:20:00","powerType":"全部","powerOffArea":"110kV浦阳变:尖山A538线-尖山A538线尖山1号分线开关后段","powerOffReason":"尖山A538线33-36#杆线路绝缘化改造，更换导线4档移位 原停电结束时间为2020-04-07 17:30:00,为减少客户停电时间,加快工作进度,提前送电,现变更停电结束时间为2020-04-07 16:20:00","powerOffId":"2020033031020274"},{"poweroffId":2020033031020263,"sgpoweroffId":null,"subsName":"","lineName":"10kV丁公H459线","pubTranName":"勾庄村马甫桥公变,东塘河村卫生院2号公变,勾庄村桥北塘公变,勾庄村老卫生院公变,勾庄村沈家村西公变,勾庄村沈家门2号公变,万年桥社区粮站弄公变,勾庄村老街公变,勾庄村老街道2号公变,勾庄村沈家村2号公变,","scope":"浙江省-杭州市-余杭区-良渚街道-小洋坝行政村-通信桥路,良渚街道-勾庄行政村(勾庄街道,马铺弄,勾庄老街,通信路,粮站弄,沈港塘自然村,沈家塘自然村,通信桥路,朝辉路,勾庄路,通信桥,马铺路,白洋自然村,通讯路,良博路,吴王自然村),良渚街道-万年桥社区(粮站弄,通信桥,勾庄路)","startTime":"2020-03-30 20:17:00","stopDate":"2020-03-30 23:59:00","orgNo":"3340140","typeCode":"电网故障停限电","poweroffArea":"110kV金渡变:丁公H459线-桥北塘分线开关后段","poweroffReason":"高压开关跳闸","powerTime":"2020-03-30 23:16:05","powerComm":"已送电","subsNo":"","lineNo":"","tgNo":"","tgName":null,"infoStatus":"1","orgName":"国网浙江杭州市余杭区供电有限公司","typeName":null,"infoStatusName":null,"dateDay":null,"orgNos":null,"nowTime":null,"countyName":null,"streetName":null,"villageName":null,"roadName":null,"communityName":null,"tranName":null,"sdLineName":null,"cityCode":"3340140","cityName":"国网浙江杭州市余杭区供电有限公司","provinceCode":null,"stopTime":"2020-03-30 23:59:00","powerType":"全部","powerOffArea":"110kV金渡变:丁公H459线-桥北塘分线开关后段","powerOffReason":"高压开关跳闸","powerOffId":"2020033031020263"}],"pageModel":{"pageNow":417,"totalCount":17788,"totalPage":1779,"tableRows":0,"pageCount":10,"beginCount":4160},"isExperi":"1"}