{"message":"","today":"2020-06-15","seleList":[{"poweroffId":2020033031020219,"sgpoweroffId":null,"subsName":"","lineName":"10kV徐桥D641线","pubTranName":"富阳新盈嘉水务有限公司1#变,富阳新盈嘉水务有限公司3#变,杭州富阳鑫洲纸业有限公司1#变,富阳市灵桥镇人民政府,杭州富阳真力机械有限公司,","scope":"浙江省-杭州市-富阳区-灵桥镇(杭州富阳真力机械有限公司,富阳市灵桥镇人民政府,杭州富阳新盈嘉水务有限公司,杭州富阳博达纺织品有限公司)","startTime":"2020-03-30 16:21:00","stopDate":"2020-03-30 18:21:00","orgNo":"3340170","typeCode":"电网故障停限电","poweroffArea":"110kV灵桥变:徐桥D641线徐桥D6411开关后段","poweroffReason":"高压开关跳闸","powerTime":"2020-03-30 17:51:44","powerComm":"已送电","subsNo":"","lineNo":"","tgNo":"","tgName":null,"infoStatus":"1","orgName":"国网浙江杭州市富阳区供电公司","typeName":null,"infoStatusName":null,"dateDay":null,"orgNos":null,"nowTime":null,"countyName":null,"streetName":null,"villageName":null,"roadName":null,"communityName":null,"tranName":null,"sdLineName":null,"cityCode":"3340170","cityName":"国网浙江杭州市富阳区供电公司","provinceCode":null,"stopTime":"2020-03-30 18:21:00","powerType":"全部","powerOffArea":"110kV灵桥变:徐桥D641线徐桥D6411开关后段","powerOffReason":"高压开关跳闸","powerOffId":"2020033031020219"},{"poweroffId":2020033031020203,"sgpoweroffId":null,"subsName":"","lineName":"10kV富源V509线","pubTranName":"10kV横鑫村[小昔塔岭]公变,","scope":"浙江省-杭州市-临安市-於潜镇-小昔塔岭一带","startTime":"2020-04-08 08:50:00","stopDate":"2020-04-08 16:10:00","orgNo":"3340160","typeCode":"计划停电","poweroffArea":"10kV横鑫村[小昔塔岭]公变低压马屁潭3000线","poweroffReason":"(低压停电信息)配合停电","powerTime":"2020-04-08 16:00:19","powerComm":"已送电","subsNo":"","lineNo":"","tgNo":"","tgName":null,"infoStatus":"1","orgName":"国网浙江临安市供电公司","typeName":null,"infoStatusName":null,"dateDay":null,"orgNos":null,"nowTime":null,"countyName":null,"streetName":null,"villageName":null,"roadName":null,"communityName":null,"tranName":null,"sdLineName":null,"cityCode":"3340160","cityName":"国网浙江临安市供电公司","provinceCode":null,"stopTime":"2020-04-08 16:10:00","powerType":"全部","powerOffArea":"10kV横鑫村[小昔塔岭]公变低压马屁潭3000线","powerOffReason":"(低压停电信息)配合停电","powerOffId":"2020033031020203"},{"poweroffId":2020033031020202,"sgpoweroffId":null,"subsName":"","lineName":"10kV潜阳V504线","pubTranName":"10kV金家村[杏花村]公变,","scope":"浙江省-杭州市-临安市-於潜镇-杏花村一带","startTime":"2020-04-08 08:10:00","stopDate":"2020-04-08 15:30:00","orgNo":"3340160","typeCode":"计划停电","poweroffArea":"潜阳V504线天风街西边支线4#杆10KV金家村[杏花村]公变低压环城东路1000线","poweroffReason":"(低压停电信息)低压线路割接","powerTime":"2020-04-08 15:20:27","powerComm":"已送电","subsNo":"","lineNo":"","tgNo":"","tgName":null,"infoStatus":"1","orgName":"国网浙江临安市供电公司","typeName":null,"infoStatusName":null,"dateDay":null,"orgNos":null,"nowTime":null,"countyName":null,"streetName":null,"villageName":null,"roadName":null,"communityName":null,"tranName":null,"sdLineName":null,"cityCode":"3340160","cityName":"国网浙江临安市供电公司","provinceCode":null,"stopTime":"2020-04-08 15:30:00","powerType":"全部","powerOffArea":"潜阳V504线天风街西边支线4#杆10KV金家村[杏花村]公变低压环城东路1000线","powerOffReason":"(低压停电信息)低压线路割接","powerOffId":"2020033031020202"},{"poweroffId":2020033031020201,"sgpoweroffId":null,"subsName":"","lineName":"10kV城后V512线","pubTranName":"10kV海龙村[许家]公变,10kV海龙村[方家]公变,","scope":"浙江省-杭州市-临安市-潜川镇-方家、许家一带","startTime":"2020-04-08 08:20:00","stopDate":"2020-04-08 12:30:00","orgNo":"3340160","typeCode":"计划停电","poweroffArea":"10kV海龙村（方家）公变低压向阳1000线、用户专线4000线 10kV海龙村（许家）公变低压大坞口3000线","poweroffReason":"(低压停电信息)配合停电","powerTime":"2020-04-08 12:20:09","powerComm":"已送电","subsNo":"","lineNo":"","tgNo":"","tgName":null,"infoStatus":"1","orgName":"国网浙江临安市供电公司","typeName":null,"infoStatusName":null,"dateDay":null,"orgNos":null,"nowTime":null,"countyName":null,"streetName":null,"villageName":null,"roadName":null,"communityName":null,"tranName":null,"sdLineName":null,"cityCode":"3340160","cityName":"国网浙江临安市供电公司","provinceCode":null,"stopTime":"2020-04-08 12:30:00","powerType":"全部","powerOffArea":"10kV海龙村（方家）公变低压向阳1000线、用户专线4000线 10kV海龙村（许家）公变低压大坞口3000线","powerOffReason":"(低压停电信息)配合停电","powerOffId":"2020033031020201"},{"poweroffId":2020033031020199,"sgpoweroffId":null,"subsName":"","lineName":"10kV富源V509线","pubTranName":"10kV横鑫村[小昔塔岭]公变,","scope":"浙江省-杭州市-临安市-於潜镇-小昔塔岭一带","startTime":"2020-04-06 08:20:00","stopDate":"2020-04-06 15:40:00","orgNo":"3340160","typeCode":"临时停电","poweroffArea":"10kV横鑫村[小昔塔岭]公变低压马屁潭3000线","poweroffReason":"(低压停电信息)配合停电","powerTime":"2020-04-06 15:30:21","powerComm":"已送电","subsNo":"","lineNo":"","tgNo":"","tgName":null,"infoStatus":"1","orgName":"国网浙江临安市供电公司","typeName":null,"infoStatusName":null,"dateDay":null,"orgNos":null,"nowTime":null,"countyName":null,"streetName":null,"villageName":null,"roadName":null,"communityName":null,"tranName":null,"sdLineName":null,"cityCode":"3340160","cityName":"国网浙江临安市供电公司","provinceCode":null,"stopTime":"2020-04-06 15:40:00","powerType":"全部","powerOffArea":"10kV横鑫村[小昔塔岭]公变低压马屁潭3000线","powerOffReason":"(低压停电信息)配合停电","powerOffId":"2020033031020199"},{"poweroffId":2020033031020198,"sgpoweroffId":null,"subsName":"","lineName":"10kV阔滩V231线","pubTranName":"10kV西乐村[西乐村]公变,","scope":"浙江省-杭州市-临安市-潜川镇-西乐村一带","startTime":"2020-04-09 08:20:00","stopDate":"2020-04-09 17:30:00","orgNo":"3340160","typeCode":"计划停电","poweroffArea":"10kV西乐村（西乐村）公变低压大礼堂3000线，下村4000线","poweroffReason":"(低压停电信息)配合停电 原停电结束时间为2020-04-09 14:30:00,因天气原因,延迟送电,现变更停电结束时间为2020-04-09 17:30:00","powerTime":"2020-04-09 17:20:16","powerComm":"已送电","subsNo":"","lineNo":"","tgNo":"","tgName":null,"infoStatus":"1","orgName":"国网浙江临安市供电公司","typeName":null,"infoStatusName":null,"dateDay":null,"orgNos":null,"nowTime":null,"countyName":null,"streetName":null,"villageName":null,"roadName":null,"communityName":null,"tranName":null,"sdLineName":null,"cityCode":"3340160","cityName":"国网浙江临安市供电公司","provinceCode":null,"stopTime":"2020-04-09 17:30:00","powerType":"全部","powerOffArea":"10kV西乐村（西乐村）公变低压大礼堂3000线，下村4000线","powerOffReason":"(低压停电信息)配合停电 原停电结束时间为2020-04-09 14:30:00,因天气原因,延迟送电,现变更停电结束时间为2020-04-09 17:30:00","powerOffId":"2020033031020198"},{"poweroffId":2020033031020187,"sgpoweroffId":null,"subsName":"","lineName":"10kV姚家T243线","pubTranName":"会山村2号公变,","scope":"浙江省-杭州市-桐庐县-江南镇-锦江行政村-会山自然村","startTime":"2020-03-30 15:09:00","stopDate":"2020-03-30 16:55:00","orgNo":"3340150","typeCode":"电网故障停限电","poweroffArea":"110kV石阜变:姚家T243线会山村2号公变10kV跌落式熔断器配变","poweroffReason":"(低压停电信息)低压开关跳闸","powerTime":"2020-03-30 16:25:22","powerComm":"已送电","subsNo":"","lineNo":"","tgNo":"","tgName":null,"infoStatus":"1","orgName":"国网浙江桐庐县供电公司","typeName":null,"infoStatusName":null,"dateDay":null,"orgNos":null,"nowTime":null,"countyName":null,"streetName":null,"villageName":null,"roadName":null,"communityName":null,"tranName":null,"sdLineName":null,"cityCode":"3340150","cityName":"国网浙江桐庐县供电公司","provinceCode":null,"stopTime":"2020-03-30 16:55:00","powerType":"全部","powerOffArea":"110kV石阜变:姚家T243线会山村2号公变10kV跌落式熔断器配变","powerOffReason":"(低压停电信息)低压开关跳闸","powerOffId":"2020033031020187"},{"poweroffId":2020033031020186,"sgpoweroffId":null,"subsName":"","lineName":"10kV姚家T243线","pubTranName":"姚家村2号公变,","scope":"浙江省-杭州市-桐庐县-江南镇-金茂行政村-姚家自然村","startTime":"2020-03-30 15:10:00","stopDate":"2020-03-30 16:55:00","orgNo":"3340150","typeCode":"电网故障停限电","poweroffArea":"110kV石阜变:姚家T243线姚家村2号公变10kV跌落式熔断器配变","poweroffReason":"(低压停电信息)低压开关跳闸","powerTime":"2020-03-30 16:25:07","powerComm":"已送电","subsNo":"","lineNo":"","tgNo":"","tgName":null,"infoStatus":"1","orgName":"国网浙江桐庐县供电公司","typeName":null,"infoStatusName":null,"dateDay":null,"orgNos":null,"nowTime":null,"countyName":null,"streetName":null,"villageName":null,"roadName":null,"communityName":null,"tranName":null,"sdLineName":null,"cityCode":"3340150","cityName":"国网浙江桐庐县供电公司","provinceCode":null,"stopTime":"2020-03-30 16:55:00","powerType":"全部","powerOffArea":"110kV石阜变:姚家T243线姚家村2号公变10kV跌落式熔断器配变","powerOffReason":"(低压停电信息)低压开关跳闸","powerOffId":"2020033031020186"},{"poweroffId":2020033031020185,"sgpoweroffId":null,"subsName":"","lineName":"10kV姚家T243线","pubTranName":"姚家村1号公变,","scope":"浙江省-杭州市-桐庐县-江南镇-金茂行政村-姚家自然村","startTime":"2020-03-30 15:09:00","stopDate":"2020-03-30 16:55:00","orgNo":"3340150","typeCode":"电网故障停限电","poweroffArea":"110kV石阜变:姚家T243线姚家村1号公变10kV跌落式熔断器配变","poweroffReason":"(低压停电信息)低压开关跳闸","powerTime":"2020-03-30 16:25:21","powerComm":"已送电","subsNo":"","lineNo":"","tgNo":"","tgName":null,"infoStatus":"1","orgName":"国网浙江桐庐县供电公司","typeName":null,"infoStatusName":null,"dateDay":null,"orgNos":null,"nowTime":null,"countyName":null,"streetName":null,"villageName":null,"roadName":null,"communityName":null,"tranName":null,"sdLineName":null,"cityCode":"3340150","cityName":"国网浙江桐庐县供电公司","provinceCode":null,"stopTime":"2020-03-30 16:55:00","powerType":"全部","powerOffArea":"110kV石阜变:姚家T243线姚家村1号公变10kV跌落式熔断器配变","powerOffReason":"(低压停电信息)低压开关跳闸","powerOffId":"2020033031020185"},{"poweroffId":2020033031020178,"sgpoweroffId":null,"subsName":"","lineName":"10kV姚家T243线","pubTranName":"2#,杭州久满固建筑材料有限公司,会山村3号公变,","scope":"浙江省-杭州市-桐庐县-江南镇-锦江行政村-会山自然村;江南镇-杭州久满固建筑材料有限公司","startTime":"2020-03-30 14:55:00","stopDate":"2020-03-30 16:55:00","orgNo":"3340150","typeCode":"电网故障停限电","poweroffArea":"110kV石阜变:姚家T243线会山F4082智能开关后段","poweroffReason":"高压开关跳闸","powerTime":"2020-03-30 16:25:46","powerComm":"已送电","subsNo":"","lineNo":"","tgNo":"","tgName":null,"infoStatus":"1","orgName":"国网浙江桐庐县供电公司","typeName":null,"infoStatusName":null,"dateDay":null,"orgNos":null,"nowTime":null,"countyName":null,"streetName":null,"villageName":null,"roadName":null,"communityName":null,"tranName":null,"sdLineName":null,"cityCode":"3340150","cityName":"国网浙江桐庐县供电公司","provinceCode":null,"stopTime":"2020-03-30 16:55:00","powerType":"全部","powerOffArea":"110kV石阜变:姚家T243线会山F4082智能开关后段","powerOffReason":"高压开关跳闸","powerOffId":"2020033031020178"}],"pageModel":{"pageNow":419,"totalCount":17788,"totalPage":1779,"tableRows":0,"pageCount":10,"beginCount":4180},"isExperi":"1"}