{"message":"","today":"2020-06-15","seleList":[{"poweroffId":2020032931020115,"sgpoweroffId":null,"subsName":"","lineName":"10kV建联G924线","pubTranName":"大井4组4号公变,葛家4组公变,乔司葛家车7组1号公变,茜子碟服饰,大井2组5号公变,大井1组2号公变,金色池塘2#变,大井5组2号公变,乔司供销社,永西5组9号公变,葛家4组2号公变,大井4组3号公变,葛家4组3号公变,乔司高埂河泵站,大井1组3号公变,大井4组6号公变,余杭水务局葛家车行政村大井2组变压器,大井5组4号公变,大井5组3号公变,浙江贝利建设集团有限公司大井分公司61204384951#变压器,大井4组2号公变,葛家4组4号公变,大井3组1号公变,大井2组2号公变,1#,葛家18组公变,大井村公变,金色池塘1#变,大井4组5号公变,大井3组3号公变,","scope":"浙江省-杭州市-余杭区-乔司街道-永西行政村-永西自然村,乔司街道-葛家车行政村(吴家车自然村,张家角自然村,葛家车自然村,香樟树下自然村),乔司镇-葛家车行政村(吴家车自然村,葛家车自然村);乔司街道-葛家车行政村(杭州余杭乔司建达纱厂,杭州金色池塘生态农业观光有限公司,杭州余杭区乔司街道顺宏服装厂,浙江贝利建设集团有限公司大井分公司,杭州余杭临平供排水有限公司),乔司街道(朝阳行政村-杭州市余杭区人民政府乔司街道办事处,五星行政村-杭州万全盛食品有限公司)","startTime":"2020-03-29 13:03:00","stopDate":"2020-03-29 15:03:00","orgNo":"3340140","typeCode":"电网故障停限电","poweroffArea":"110kV庙港变:建联G924线","poweroffReason":"高压开关跳闸","powerTime":"2020-03-29 14:53:00","powerComm":"已送电","subsNo":"","lineNo":"","tgNo":"","tgName":null,"infoStatus":"1","orgName":"国网浙江杭州市余杭区供电有限公司","typeName":null,"infoStatusName":null,"dateDay":null,"orgNos":null,"nowTime":null,"countyName":null,"streetName":null,"villageName":null,"roadName":null,"communityName":null,"tranName":null,"sdLineName":null,"cityCode":"3340140","cityName":"国网浙江杭州市余杭区供电有限公司","provinceCode":null,"stopTime":"2020-03-29 15:03:00","powerType":"全部","powerOffArea":"110kV庙港变:建联G924线","powerOffReason":"高压开关跳闸","powerOffId":"2020032931020115"},{"poweroffId":2020032931020101,"sgpoweroffId":null,"subsName":"","lineName":"10kV浦詹6593线","pubTranName":"机电,绕南,杭州继勇实业有限公司,1,运输,浙江三丰建设有限公司,金制,黄沙,","scope":"浙江省-杭州市-西湖区-双浦镇(,浙江三丰建设有限公司,杭州之江度假区桐菊餐饮服务部,杭州千辉通实业有限公司)","startTime":"2020-03-29 11:24:23","stopDate":"2020-03-29 12:35:23","orgNo":"3340101","typeCode":"电网故障停限电","poweroffArea":"110kV周浦变:浦詹6593线闻狮站黄沙分线后段","poweroffReason":"高压开关跳闸 原停电结束时间为2020-03-29 13:24:23,为减少客户停电时间,加快工作进度,提前送电,现变更停电结束时间为2020-03-29 12:35:23","powerTime":"2020-03-29 12:00:41","powerComm":"已送电","subsNo":"","lineNo":"","tgNo":"","tgName":null,"infoStatus":"1","orgName":"浙江杭州电力客户服务中心","typeName":null,"infoStatusName":null,"dateDay":null,"orgNos":null,"nowTime":null,"countyName":null,"streetName":null,"villageName":null,"roadName":null,"communityName":null,"tranName":null,"sdLineName":null,"cityCode":"3340101","cityName":"浙江杭州电力客户服务中心","provinceCode":null,"stopTime":"2020-03-29 12:35:23","powerType":"全部","powerOffArea":"110kV周浦变:浦詹6593线闻狮站黄沙分线后段","powerOffReason":"高压开关跳闸 原停电结束时间为2020-03-29 13:24:23,为减少客户停电时间,加快工作进度,提前送电,现变更停电结束时间为2020-03-29 12:35:23","powerOffId":"2020032931020101"},{"poweroffId":2020032931020080,"sgpoweroffId":null,"subsName":"","lineName":"10kV东安D140线","pubTranName":"恒鑫贤明府4#变,恒鑫贤明府3#变,恒鑫贤明府1#变,恒鑫贤明府5#变,1#,恒鑫贤明府2#变,恒鑫贤明府7#变,恒鑫贤明府8#变,恒鑫贤明府6#变,","scope":"浙江省-杭州市-富阳区-新登镇-南津行政村(罗隐路,贤明路,葛溪南路);新登镇-杭州富阳恒丰物业管理有限公司","startTime":"2020-03-29 11:02:00","stopDate":"2020-03-29 13:02:00","orgNo":"3340170","typeCode":"电网故障停限电","poweroffArea":"110kV新登变:东安D140线贤明府开关站贤明府开关站6#开关后段","poweroffReason":"高压开关跳闸","powerTime":"2020-03-29 12:11:09","powerComm":"已送电","subsNo":"","lineNo":"","tgNo":"","tgName":null,"infoStatus":"1","orgName":"国网浙江杭州市富阳区供电公司","typeName":null,"infoStatusName":null,"dateDay":null,"orgNos":null,"nowTime":null,"countyName":null,"streetName":null,"villageName":null,"roadName":null,"communityName":null,"tranName":null,"sdLineName":null,"cityCode":"3340170","cityName":"国网浙江杭州市富阳区供电公司","provinceCode":null,"stopTime":"2020-03-29 13:02:00","powerType":"全部","powerOffArea":"110kV新登变:东安D140线贤明府开关站贤明府开关站6#开关后段","powerOffReason":"高压开关跳闸","powerOffId":"2020032931020080"},{"poweroffId":2020032931020077,"sgpoweroffId":null,"subsName":"","lineName":"10kV南津D138线","pubTranName":"桃花岭村余家庄2#麦秋里公变,桃花岭村1#桃花岭公变,五里桥村9#宦应农居点公变,桃花岭村施公畈1#公变,富阳优扬传动设备有限公司1#变,富阳奔象五金厂,五里桥村7#宦应将军殿公变,升压变变压器,葛溪嘉苑2#公变,桃花岭村余家庄1#公变,五里桥村5号杜家坞公变,富阳市新登镇塔山村村民委员会,五里桥村10#田畈里公变,莲桥建材1#变,广福寺1#公变,富阳博奥石材有限公司,富阳市新登镇东盛环保材料厂,俊源休闲用品1#变,银泰机械1#变,五里桥村6#米坞坎公变,五里桥村4#狮果墩公变,双庙村3#诸家公变,飞月五金机械,葛溪嘉苑1#公变,五里桥村8#宦应公变,五里桥村11号杜家坞夏家坎公变,杭州登华塑料机械有限公司,南津村6#安乐公变,浙江皓途市政园林工程有限公司,杭州瑞森生态农业开发有限公司,富阳市大地铸造厂,双庙村4#张家公变,双庙村7#徐家汪家岭公变,安诺过滤1#变,双庙村1#西坞坎公变,五里桥村1#下白家公变,施墨尔(杭州)复合材料技术有限公司,富阳市立恒洁具厂,五里桥村3#办事处公变,莲桥村罗桥2#桥头公变,桃花岭村1#高山公变,五里桥村2#上白家公变,桃花岭村2#桃花岭公变,富阳莲桥建材有限公司,莲桥村罗桥1#里门公变,双庙村5号徐家谢家岭公变,杭州金牛压铸有限公司,莲桥村罗桥3#毛岭头公变,双庙村2#碗厂里公变,富阳飞浪旅游用品有限公司,双庙村6#徐家裘坎坞公变,贤明山1#公变,","scope":"浙江省-杭州市-富阳区-新登镇-双塔行政村-过岸滩自然村,渌渚镇-桃花岭行政村(高山自然村,余家庄自然村,前龙村自然村,麦秋里自然村,施公畈自然村,桃花岭自然村),新登镇-五里桥行政村(宦应自然村,五里桥自然村,杜家坞自然村,白家自然村,夏家堪自然村),渌渚镇-莲桥行政村(罗桥里门自然村,罗桥桥头自然村,罗桥毛岭头自然村),新登镇-南津行政村(南四路,杨子山自然村,安乐自然村,南四,罗隐路,贤明路),新登镇-双庙行政村(双庙自然村,汪家岭自然村,深坞口自然村,袁家自然村,西山上自然村,谢家岭自然村,排前山自然村,深塘垄自然村,潘家自然村,对门山自然村,裘坑坞自然村,李家自然村,深坞里自然村),新登镇-乘庄行政村(牧场自然村,郑家庄自然村);新登镇-五里桥行政村(富阳市新登镇东盛环保材料厂,杭州登华塑料机械有限公司,杭州富阳飞月五金机械有限公司,杭州富阳博奥石材有限公司,杭州富阳飞浪旅游用品有限公司,杭州名轩卫生用品有限公司,杭州富阳奔象五金厂,杭州富阳立恒洁具厂,杭州富阳大地铸造厂,杭州金牛压铸有限公司,杭州安诺过滤器材有限公司,杭州俊源休闲用品有限公司,杭州富阳银泰机械铸造厂),渌渚镇-莲桥行政村(杭州富阳莲桥建材有限公司,杭州瑞森生态农业开发有限公司),新登镇-南津行政村(富阳市新登镇塔山村村民委员会,杭州富阳绿力塑业有限公司)","startTime":"2020-03-29 10:55:21","stopDate":"2020-03-29 12:55:21","orgNo":"3340170","typeCode":"电网故障停限电","poweroffArea":"110kV新登变:南津D138线-南津D1381开关后段","poweroffReason":"高压开关跳闸","powerTime":"2020-03-29 11:56:04","powerComm":"已送电","subsNo":"","lineNo":"","tgNo":"","tgName":null,"infoStatus":"1","orgName":"国网浙江杭州市富阳区供电公司","typeName":null,"infoStatusName":null,"dateDay":null,"orgNos":null,"nowTime":null,"countyName":null,"streetName":null,"villageName":null,"roadName":null,"communityName":null,"tranName":null,"sdLineName":null,"cityCode":"3340170","cityName":"国网浙江杭州市富阳区供电公司","provinceCode":null,"stopTime":"2020-03-29 12:55:21","powerType":"全部","powerOffArea":"110kV新登变:南津D138线-南津D1381开关后段","powerOffReason":"高压开关跳闸","powerOffId":"2020032931020077"},{"poweroffId":2020032931020059,"sgpoweroffId":null,"subsName":"","lineName":"10kV钱龚V876线","pubTranName":"上畔村[石畈桥头]公变,","scope":"浙江省-杭州市-临安区-锦南街道-上畔行政村石畈桥头一带","startTime":"2020-04-10 09:00:00","stopDate":"2020-04-10 15:00:00","orgNo":"3340160","typeCode":"计划停电","poweroffArea":"110kV杨岱变:钱龚V876线-上畔村[石畈桥头]公变后段","poweroffReason":"配变增容","powerTime":"2020-04-10 14:39:28","powerComm":"已送电","subsNo":"","lineNo":"","tgNo":"","tgName":null,"infoStatus":"1","orgName":"国网浙江临安市供电公司","typeName":null,"infoStatusName":null,"dateDay":null,"orgNos":null,"nowTime":null,"countyName":null,"streetName":null,"villageName":null,"roadName":null,"communityName":null,"tranName":null,"sdLineName":null,"cityCode":"3340160","cityName":"国网浙江临安市供电公司","provinceCode":null,"stopTime":"2020-04-10 15:00:00","powerType":"全部","powerOffArea":"110kV杨岱变:钱龚V876线-上畔村[石畈桥头]公变后段","powerOffReason":"配变增容","powerOffId":"2020032931020059"},{"poweroffId":2020032931020057,"sgpoweroffId":null,"subsName":"","lineName":"10kV横山V381线","pubTranName":"临安城市污水处理有限公司2#,杭州临安排水有限公司2#,临安城市污水处理有限公司1#,临安城市污水处理有限公司3#,泥山湾村[庙山脚]公变,临安城市污水处理有限公司4#,","scope":"浙江省-杭州市-临安区-锦城街道-泥山湾行政村庙山脚自然村，杭州临安排水有限公司一带","startTime":"2020-04-10 08:00:00","stopDate":"2020-04-10 14:00:00","orgNo":"3340160","typeCode":"计划停电","poweroffArea":"35kV渔村变:横山V381线-污水处理厂分线23#杆开关后段","poweroffReason":"线路迁改","powerTime":"2020-04-10 13:18:45","powerComm":"已送电","subsNo":"","lineNo":"","tgNo":"","tgName":null,"infoStatus":"1","orgName":"国网浙江临安市供电公司","typeName":null,"infoStatusName":null,"dateDay":null,"orgNos":null,"nowTime":null,"countyName":null,"streetName":null,"villageName":null,"roadName":null,"communityName":null,"tranName":null,"sdLineName":null,"cityCode":"3340160","cityName":"国网浙江临安市供电公司","provinceCode":null,"stopTime":"2020-04-10 14:00:00","powerType":"全部","powerOffArea":"35kV渔村变:横山V381线-污水处理厂分线23#杆开关后段","powerOffReason":"线路迁改","powerOffId":"2020032931020057"},{"poweroffId":2020032931020055,"sgpoweroffId":null,"subsName":"","lineName":"10kV杨华V731线","pubTranName":"青云村[凹桥头],","scope":"浙江省-杭州市-临安区-太湖源镇-青云行政村(茹荷自然村,青云自然村)一带","startTime":"2020-04-09 08:30:00","stopDate":"2020-04-09 13:30:00","orgNo":"3340160","typeCode":"计划停电","poweroffArea":"110kV杨岭变:杨华V731线-青云村[凹桥头]后段","poweroffReason":"配变增容","powerTime":"2020-04-09 13:19:22","powerComm":"已送电","subsNo":"","lineNo":"","tgNo":"","tgName":null,"infoStatus":"1","orgName":"国网浙江临安市供电公司","typeName":null,"infoStatusName":null,"dateDay":null,"orgNos":null,"nowTime":null,"countyName":null,"streetName":null,"villageName":null,"roadName":null,"communityName":null,"tranName":null,"sdLineName":null,"cityCode":"3340160","cityName":"国网浙江临安市供电公司","provinceCode":null,"stopTime":"2020-04-09 13:30:00","powerType":"全部","powerOffArea":"110kV杨岭变:杨华V731线-青云村[凹桥头]后段","powerOffReason":"配变增容","powerOffId":"2020032931020055"},{"poweroffId":2020032931020053,"sgpoweroffId":null,"subsName":"","lineName":"10kV郎碧V594线","pubTranName":"郎碧机埠(抗旱),临安协丰城市配套设施有限公司,杭州艾米新材料有限公司,临安市恒发机械有限公司,临安玲珑远航电缆厂,浙江乐创线缆有限公司,杭州锦香源装饰材料有限公司1#,杭州锦源装饰材料有限公司1#,","scope":"浙江省-杭州市-临安区-锦城街道-杭州锦香源装饰材料有限公司,横街行政村(临安玲珑远航电缆厂,杭州艾米新材料有限公司,临安恒发机械有限公司,郎碧机埠(抗旱),杭州协丰城市配套设施有限公司,杭州锦源装饰材料有限公司)一带","startTime":"2020-04-08 08:30:00","stopDate":"2020-04-08 12:40:00","orgNo":"3340160","typeCode":"计划停电","poweroffArea":"110kV杨岭变:郎碧V594线-巨丰分线开关后段","poweroffReason":"线路改造 原停电结束时间为2020-04-08 11:40:00,因现场工作原因,延迟送电,现变更停电结束时间为2020-04-08 12:40:00","powerTime":"2020-04-08 12:30:18","powerComm":"已送电","subsNo":"","lineNo":"","tgNo":"","tgName":null,"infoStatus":"1","orgName":"国网浙江临安市供电公司","typeName":null,"infoStatusName":null,"dateDay":null,"orgNos":null,"nowTime":null,"countyName":null,"streetName":null,"villageName":null,"roadName":null,"communityName":null,"tranName":null,"sdLineName":null,"cityCode":"3340160","cityName":"国网浙江临安市供电公司","provinceCode":null,"stopTime":"2020-04-08 12:40:00","powerType":"全部","powerOffArea":"110kV杨岭变:郎碧V594线-巨丰分线开关后段","powerOffReason":"线路改造 原停电结束时间为2020-04-08 11:40:00,因现场工作原因,延迟送电,现变更停电结束时间为2020-04-08 12:40:00","powerOffId":"2020032931020053"},{"poweroffId":2020032931020052,"sgpoweroffId":null,"subsName":"","lineName":"10kV塘湾V872线","pubTranName":"临安天都粮油饲料厂1#,","scope":"浙江省-杭州市-临安区-锦南街道-杨岱行政村杭州临安裕丰米业有限公司一带","startTime":"2020-04-08 08:30:00","stopDate":"2020-04-08 17:00:00","orgNo":"3340160","typeCode":"计划停电","poweroffArea":"110kV杨岱变:塘湾V872线-大唐路分线09#后段","poweroffReason":"新上用户 原停电结束时间为2020-04-08 14:00:00,因工作延长原因,延迟送电,现变更停电结束时间为2020-04-08 17:00:00","powerTime":"2020-04-08 16:50:12","powerComm":"已送电","subsNo":"","lineNo":"","tgNo":"","tgName":null,"infoStatus":"1","orgName":"国网浙江临安市供电公司","typeName":null,"infoStatusName":null,"dateDay":null,"orgNos":null,"nowTime":null,"countyName":null,"streetName":null,"villageName":null,"roadName":null,"communityName":null,"tranName":null,"sdLineName":null,"cityCode":"3340160","cityName":"国网浙江临安市供电公司","provinceCode":null,"stopTime":"2020-04-08 17:00:00","powerType":"全部","powerOffArea":"110kV杨岱变:塘湾V872线-大唐路分线09#后段","powerOffReason":"新上用户 原停电结束时间为2020-04-08 14:00:00,因工作延长原因,延迟送电,现变更停电结束时间为2020-04-08 17:00:00","powerOffId":"2020032931020052"},{"poweroffId":2020032931020051,"sgpoweroffId":null,"subsName":"","lineName":"10kV钱谷V408线","pubTranName":"临安迅硕建材有限公司,","scope":"浙江省-杭州市-临安区-玲珑街道东山行政村杭州临安迅硕建材有限公司一带","startTime":"2020-04-07 08:30:00","stopDate":"2020-04-07 14:00:00","orgNo":"3340160","typeCode":"计划停电","poweroffArea":"110kV秀水变:钱谷V408线-临安澄里拉丝厂分线1#开关后段","poweroffReason":"用户增容","powerTime":"2020-04-07 13:41:57","powerComm":"已送电","subsNo":"","lineNo":"","tgNo":"","tgName":null,"infoStatus":"1","orgName":"国网浙江临安市供电公司","typeName":null,"infoStatusName":null,"dateDay":null,"orgNos":null,"nowTime":null,"countyName":null,"streetName":null,"villageName":null,"roadName":null,"communityName":null,"tranName":null,"sdLineName":null,"cityCode":"3340160","cityName":"国网浙江临安市供电公司","provinceCode":null,"stopTime":"2020-04-07 14:00:00","powerType":"全部","powerOffArea":"110kV秀水变:钱谷V408线-临安澄里拉丝厂分线1#开关后段","powerOffReason":"用户增容","powerOffId":"2020032931020051"}],"pageModel":{"pageNow":422,"totalCount":17788,"totalPage":1779,"tableRows":0,"pageCount":10,"beginCount":4210},"isExperi":"1"}