{"message":"","today":"2020-06-15","seleList":[{"poweroffId":2020060531020346,"sgpoweroffId":null,"subsName":"","lineName":"10kV蔡家D893线","pubTranName":"倪家滩4号燕子窠公变,","scope":"浙江省-杭州市-富阳区-灵桥镇-新华行政村-倪家滩自然村一带","startTime":"2020-06-15 07:30:00","stopDate":"2020-06-15 16:30:00","orgNo":"3340170","typeCode":"计划停电","poweroffArea":"110kV永春变:蔡家D893线-倪家滩4号燕子窠低压开关后段","poweroffReason":"(低压停电信息)新装出线电缆1路，拆旧、新架导线6档，新装水平拉线1组，更换接户线10处，搭接等工作。（江南2020年菖蒲村3#桐湾口公变等台区低压线路改造工程）","powerTime":"2020-06-15 16:10:11","powerComm":"已送电","subsNo":"","lineNo":"","tgNo":"","tgName":null,"infoStatus":"1","orgName":"国网浙江杭州市富阳区供电公司","typeName":null,"infoStatusName":null,"dateDay":null,"orgNos":null,"nowTime":null,"countyName":null,"streetName":null,"villageName":null,"roadName":null,"communityName":null,"tranName":null,"sdLineName":null,"cityCode":"3340170","cityName":"国网浙江杭州市富阳区供电公司","provinceCode":null,"stopTime":"2020-06-15 16:30:00","powerType":"全部","powerOffArea":"110kV永春变:蔡家D893线-倪家滩4号燕子窠低压开关后段","powerOffReason":"(低压停电信息)新装出线电缆1路，拆旧、新架导线6档，新装水平拉线1组，更换接户线10处，搭接等工作。（江南2020年菖蒲村3#桐湾口公变等台区低压线路改造工程）","powerOffId":"2020060531020346"},{"poweroffId":2020060531020345,"sgpoweroffId":null,"subsName":"","lineName":"10kV万泉D738线","pubTranName":"上山村上山2号万泉路公变,","scope":"浙江省-杭州市-富阳区-新登镇-上山行政村-万泉自然村一带","startTime":"2020-06-15 07:40:00","stopDate":"2020-06-15 15:30:00","orgNo":"3340170","typeCode":"计划停电","poweroffArea":"110kV松溪变:万泉D738线-上山村上山2号万泉路公变低压开关后段","poweroffReason":"(低压停电信息)吴家01线架设导线JKLYJ-70*4*3档、BS-JKLYJ-4*35*2档、拆除导线JKLYJ-35*4*14档、更换落户线BS-JKLYJ-2*25*7户、导线搭接","powerTime":"2020-06-15 15:04:55","powerComm":"已送电","subsNo":"","lineNo":"","tgNo":"","tgName":null,"infoStatus":"1","orgName":"国网浙江杭州市富阳区供电公司","typeName":null,"infoStatusName":null,"dateDay":null,"orgNos":null,"nowTime":null,"countyName":null,"streetName":null,"villageName":null,"roadName":null,"communityName":null,"tranName":null,"sdLineName":null,"cityCode":"3340170","cityName":"国网浙江杭州市富阳区供电公司","provinceCode":null,"stopTime":"2020-06-15 15:30:00","powerType":"全部","powerOffArea":"110kV松溪变:万泉D738线-上山村上山2号万泉路公变低压开关后段","powerOffReason":"(低压停电信息)吴家01线架设导线JKLYJ-70*4*3档、BS-JKLYJ-4*35*2档、拆除导线JKLYJ-35*4*14档、更换落户线BS-JKLYJ-2*25*7户、导线搭接","powerOffId":"2020060531020345"},{"poweroffId":2020060531020344,"sgpoweroffId":null,"subsName":"","lineName":"10kV上练D713线","pubTranName":"下练村5#闻家桥公变,","scope":"浙江省-杭州市-富阳区-胥口镇-下练行政村","startTime":"2020-06-15 08:00:00","stopDate":"2020-06-15 14:50:00","orgNo":"3340170","typeCode":"计划停电","poweroffArea":"110kV松溪变:上练D713线-下练村5#闻家桥公变台区低压开关后段","poweroffReason":"(低压停电信息)村西03线8-1#杆使用吊车电杆移位、拆JKLYJ-70*4*1档、横担2付、拉线1组、安装抱箍3付、拉线1组、架BS-JKLYJ-4*70*1档、更换接户线3户、杆上表箱移位1处、搭接2处等工作。","powerTime":"2020-06-15 14:25:54","powerComm":"已送电","subsNo":"","lineNo":"","tgNo":"","tgName":null,"infoStatus":"1","orgName":"国网浙江杭州市富阳区供电公司","typeName":null,"infoStatusName":null,"dateDay":null,"orgNos":null,"nowTime":null,"countyName":null,"streetName":null,"villageName":null,"roadName":null,"communityName":null,"tranName":null,"sdLineName":null,"cityCode":"3340170","cityName":"国网浙江杭州市富阳区供电公司","provinceCode":null,"stopTime":"2020-06-15 14:50:00","powerType":"全部","powerOffArea":"110kV松溪变:上练D713线-下练村5#闻家桥公变台区低压开关后段","powerOffReason":"(低压停电信息)村西03线8-1#杆使用吊车电杆移位、拆JKLYJ-70*4*1档、横担2付、拉线1组、安装抱箍3付、拉线1组、架BS-JKLYJ-4*70*1档、更换接户线3户、杆上表箱移位1处、搭接2处等工作。","powerOffId":"2020060531020344"},{"poweroffId":2020060531020328,"sgpoweroffId":null,"subsName":"","lineName":"10kV长山C776线","pubTranName":"江南学府11#公变,","scope":"浙江省-杭州市-萧山区-北干街道-银河社区-博学路","startTime":"2020-06-05 12:24:00","stopDate":"2020-06-05 14:46:00","orgNo":"3340130","typeCode":"电网故障停限电","poweroffArea":"110kV通惠变:长山C776线江南学府11#公变配变","poweroffReason":"高压开关跳闸 原停电结束时间为2020-06-05 15:24:00,为减少客户停电时间,加快工作进度,提前送电,现变更停电结束时间为2020-06-05 14:46:00","powerTime":"2020-06-05 13:50:24","powerComm":"已送电","subsNo":"","lineNo":"","tgNo":"","tgName":null,"infoStatus":"1","orgName":"国网浙江杭州市萧山区供电有限公司","typeName":null,"infoStatusName":null,"dateDay":null,"orgNos":null,"nowTime":null,"countyName":null,"streetName":null,"villageName":null,"roadName":null,"communityName":null,"tranName":null,"sdLineName":null,"cityCode":"3340130","cityName":"国网浙江杭州市萧山区供电有限公司","provinceCode":null,"stopTime":"2020-06-05 14:46:00","powerType":"全部","powerOffArea":"110kV通惠变:长山C776线江南学府11#公变配变","powerOffReason":"高压开关跳闸 原停电结束时间为2020-06-05 15:24:00,为减少客户停电时间,加快工作进度,提前送电,现变更停电结束时间为2020-06-05 14:46:00","powerOffId":"2020060531020328"},{"poweroffId":2020060531020318,"sgpoweroffId":null,"subsName":"","lineName":"10kV城南T173线","pubTranName":"美景花苑2号公变,","scope":"浙江省-杭州市-桐庐县-分水镇-武盛行政村(武盛自然村,广电路),分水镇(玉华社区-广电路,分江社区-中心街)","startTime":"2020-06-15 08:30:00","stopDate":"2020-06-15 12:30:00","orgNo":"3340150","typeCode":"计划停电","poweroffArea":"110kV分水变:城南T173线-美苑F4200令克后段","poweroffReason":"杭州桐庐分水虹桥村等台区配变及线路改造工程","powerTime":"2020-06-15 11:54:36","powerComm":"已送电","subsNo":"","lineNo":"","tgNo":"","tgName":null,"infoStatus":"1","orgName":"国网浙江桐庐县供电公司","typeName":null,"infoStatusName":null,"dateDay":null,"orgNos":null,"nowTime":null,"countyName":null,"streetName":null,"villageName":null,"roadName":null,"communityName":null,"tranName":null,"sdLineName":null,"cityCode":"3340150","cityName":"国网浙江桐庐县供电公司","provinceCode":null,"stopTime":"2020-06-15 12:30:00","powerType":"全部","powerOffArea":"110kV分水变:城南T173线-美苑F4200令克后段","powerOffReason":"杭州桐庐分水虹桥村等台区配变及线路改造工程","powerOffId":"2020060531020318"},{"poweroffId":2020060531020315,"sgpoweroffId":null,"subsName":"","lineName":"10kV海洋8650线","pubTranName":"速中（3）,西宅,速中(2),","scope":"浙江省-杭州市-西湖区-西溪街道-西溪社区-保俶北路,西溪街道-西溪河东社区(西溪河东路,西溪河东),西溪街道-求智社区(西溪河东,文三路,西溪河东路) 西溪河东3幢、4幢、5幢；浙江省杭州市西湖区西溪河东1号1-3单元、传达室、南平房、东平房；西溪河东2号1幢、2幢、东平房；西溪河东平房、管理所；保俶北路28号1、2单元、保俶北路23号商铺及附近；浙江省杭州市西湖区西溪河东6、7、8、9幢；","startTime":"2020-06-12 09:30:00","stopDate":"2020-06-12 20:00:00","orgNo":"3340101","typeCode":"临时停电","poweroffArea":"220kV庆丰变:海洋8650线-西宅后段;海洋8650线-速中（3）后段;海洋8650线-速中(2)后段 \"海洋站速中分线\"","poweroffReason":"\"西溪河东配电改造工程（古墩 冯亮 673342） 1、割接 2、电缆拆、搭头试验等工作。 原停电结束时间为2020-06-12 18:00:00,因现场故障情况复杂,现变更停电结束时间为2020-06-12 20:00:00","powerTime":"2020-06-12 19:01:08","powerComm":"已送电","subsNo":"","lineNo":"","tgNo":"","tgName":null,"infoStatus":"1","orgName":"浙江杭州电力客户服务中心","typeName":null,"infoStatusName":null,"dateDay":null,"orgNos":null,"nowTime":null,"countyName":null,"streetName":null,"villageName":null,"roadName":null,"communityName":null,"tranName":null,"sdLineName":null,"cityCode":"3340101","cityName":"浙江杭州电力客户服务中心","provinceCode":null,"stopTime":"2020-06-12 20:00:00","powerType":"全部","powerOffArea":"220kV庆丰变:海洋8650线-西宅后段;海洋8650线-速中（3）后段;海洋8650线-速中(2)后段 \"海洋站速中分线\"","powerOffReason":"\"西溪河东配电改造工程（古墩 冯亮 673342） 1、割接 2、电缆拆、搭头试验等工作。 原停电结束时间为2020-06-12 18:00:00,因现场故障情况复杂,现变更停电结束时间为2020-06-12 20:00:00","powerOffId":"2020060531020315"},{"poweroffId":2020060531020313,"sgpoweroffId":null,"subsName":"","lineName":"10kV厦山R308线","pubTranName":"葫芦桐配变,","scope":"浙江省-杭州市-淳安县-中洲镇-余家行政村(富川自然村,余家自然村)","startTime":"2020-06-05 12:04:00","stopDate":"2020-06-05 13:04:00","orgNo":"3340190","typeCode":"电网故障停限电","poweroffArea":"110kV汾口变:厦山R308线葫芦桐配变配变","poweroffReason":"高压开关跳闸 原停电结束时间为2020-06-05 14:04:00,为减少客户停电时间,加快工作进度,提前送电,现变更停电结束时间为2020-06-05 13:04:00","powerTime":"2020-06-05 12:09:29","powerComm":"已送电","subsNo":"","lineNo":"","tgNo":"","tgName":null,"infoStatus":"1","orgName":"国网浙江淳安县供电有限公司","typeName":null,"infoStatusName":null,"dateDay":null,"orgNos":null,"nowTime":null,"countyName":null,"streetName":null,"villageName":null,"roadName":null,"communityName":null,"tranName":null,"sdLineName":null,"cityCode":"3340190","cityName":"国网浙江淳安县供电有限公司","provinceCode":null,"stopTime":"2020-06-05 13:04:00","powerType":"全部","powerOffArea":"110kV汾口变:厦山R308线葫芦桐配变配变","powerOffReason":"高压开关跳闸 原停电结束时间为2020-06-05 14:04:00,为减少客户停电时间,加快工作进度,提前送电,现变更停电结束时间为2020-06-05 13:04:00","powerOffId":"2020060531020313"},{"poweroffId":2020060531020306,"sgpoweroffId":null,"subsName":"","lineName":"10kV春风A302线","pubTranName":"南沙村春风5#变,","scope":"浙江省-杭州市-萧山区-义蓬街道-南沙行政村-南沙自然村","startTime":"2020-06-05 11:50:00","stopDate":"2020-06-05 15:50:00","orgNo":"3340120","typeCode":"电网故障停限电","poweroffArea":"110kV建湾变:春风A302线南沙村春风5#变配变","poweroffReason":"(低压停电信息)低压开关跳闸 原停电结束时间为2020-06-05 13:50:00,因现场故障情况复杂,现变更停电结束时间为2020-06-05 15:50:00","powerTime":"2020-06-05 15:09:16","powerComm":"已送电","subsNo":"","lineNo":"","tgNo":"","tgName":null,"infoStatus":"1","orgName":"国网浙江杭州市钱塘新区供电公司","typeName":null,"infoStatusName":null,"dateDay":null,"orgNos":null,"nowTime":null,"countyName":null,"streetName":null,"villageName":null,"roadName":null,"communityName":null,"tranName":null,"sdLineName":null,"cityCode":"3340120","cityName":"国网浙江杭州市钱塘新区供电公司","provinceCode":null,"stopTime":"2020-06-05 15:50:00","powerType":"全部","powerOffArea":"110kV建湾变:春风A302线南沙村春风5#变配变","powerOffReason":"(低压停电信息)低压开关跳闸 原停电结束时间为2020-06-05 13:50:00,因现场故障情况复杂,现变更停电结束时间为2020-06-05 15:50:00","powerOffId":"2020060531020306"},{"poweroffId":2020060531020303,"sgpoweroffId":null,"subsName":"","lineName":"10kV大坝D244线","pubTranName":"杭州富阳水利建设投资有限公司 2#,富阳中大房地产有限公司 1#变,杭州富阳碧水源房地产有限公司（11#地块）2#变,富阳中大房地产有限公司,西郊一号变,西郊七号变,杭州富阳碧源光酒店管理有限公司 2#变,富阳中大房地产有限公司,西郊五号变,新民村4#新区公变,杭州富阳碧源光酒店管理有限公司 1#变,杭州富阳水利建设投资有限公司 3#,杭州富阳碧水源房地产有限公司（12#地块）2#变,杭州富阳碧水源房地产有限公司（12#地块）1#变,杭州富阳碧水源房地产有限公司（11#地块）1#变,杭州富阳水利建设投资有限公司 1#,水务公司（污水处理厂）1#变,杭州富阳碧源光酒店管理有限公司 3#变,杭州富阳水利建设投资有限公司 4#,西郊九号变,新民村2号大坞坑北公变,杭州富阳碧水源房地产有限公司（10#地块）1#变,新民村1号大坞坑东公变,杭州富阳碧水源房地产有限公司（10#地块）2#变,富阳市富春街道昌鑫五金厂,1#,水务公司（污水处理厂）3#变,水务公司（污水处理厂）5#变,西郊三号变,富阳市新民塑料彩印厂,","scope":"浙江省-杭州市-富阳区-富春街道-城东社区(江滨东大道52号,江滨东大道),富春街道(新民行政村-新民自然村,江滨东大道-西郊半岛小区);富春街道-城东社区(杭州富阳碧水源房地产有限公司,杭州富阳水务有限公司,杭州富阳碧源光酒店管理有限公司),东洲街道(鸡笼山行政村-富阳市新民塑料彩印厂,城东社区-杭州富阳碧水源房地产有限公司,杭州富阳水利建设投资有限公司),富春街道(新民行政村-富阳市富春街道昌鑫五金厂,金秋社区-杭州富阳碧水源房地产有限公司)","startTime":"2020-06-05 11:49:34","stopDate":"2020-06-05 12:49:34","orgNo":"3340170","typeCode":"电网故障停限电","poweroffArea":"110kV白鹤变:大坝D244线-大坝D244线开关后段","poweroffReason":"高压开关跳闸","powerTime":"2020-06-05 11:51:13","powerComm":"已送电","subsNo":"","lineNo":"","tgNo":"","tgName":null,"infoStatus":"1","orgName":"国网浙江杭州市富阳区供电公司","typeName":null,"infoStatusName":null,"dateDay":null,"orgNos":null,"nowTime":null,"countyName":null,"streetName":null,"villageName":null,"roadName":null,"communityName":null,"tranName":null,"sdLineName":null,"cityCode":"3340170","cityName":"国网浙江杭州市富阳区供电公司","provinceCode":null,"stopTime":"2020-06-05 12:49:34","powerType":"全部","powerOffArea":"110kV白鹤变:大坝D244线-大坝D244线开关后段","powerOffReason":"高压开关跳闸","powerOffId":"2020060531020303"},{"poweroffId":2020060531020301,"sgpoweroffId":null,"subsName":"","lineName":"10kV浙锚D255线","pubTranName":"杭州蔚然实业有限公司5#,杭州蔚然实业有限公司3#,杭州中泰深冷技术股份有限公司3#,杭州安泰英标电器有限公司,1#变,富阳市万豪实业有限公司,杭州天地钢结构有限公司,杭州中泰深冷技术股份有限公司1#,杭州蔚然实业有限公司1#,佑昌(杭州)照明电器有限公司1#,佑昌(杭州)照明电器有限公司2#,杭州万汇家私有限公司,杭州蔚然实业有限公司2#,杭州蔚然实业有限公司4#,","scope":"浙江省-杭州市-富阳区-银湖街道-高桥行政村-杭州中泰深冷技术股份有限公司,东洲街道-鸡笼山行政村(杭州安泰英标电器有限公司,杭州蔚然实业有限公司,佑昌（杭州）照明电器有限公司,杭州万兴科技股份有限公司,杭州万汇家私有限公司,杭州天地钢结构有限公司)","startTime":"2020-06-05 11:46:35","stopDate":"2020-06-05 12:46:35","orgNo":"3340170","typeCode":"电网故障停限电","poweroffArea":"110kV白鹤变:浙锚D255线-浙锚D255线开关后段","poweroffReason":"高压开关跳闸","powerTime":"2020-06-05 11:50:49","powerComm":"已送电","subsNo":"","lineNo":"","tgNo":"","tgName":null,"infoStatus":"1","orgName":"国网浙江杭州市富阳区供电公司","typeName":null,"infoStatusName":null,"dateDay":null,"orgNos":null,"nowTime":null,"countyName":null,"streetName":null,"villageName":null,"roadName":null,"communityName":null,"tranName":null,"sdLineName":null,"cityCode":"3340170","cityName":"国网浙江杭州市富阳区供电公司","provinceCode":null,"stopTime":"2020-06-05 12:46:35","powerType":"全部","powerOffArea":"110kV白鹤变:浙锚D255线-浙锚D255线开关后段","powerOffReason":"高压开关跳闸","powerOffId":"2020060531020301"}],"pageModel":{"pageNow":41,"totalCount":17786,"totalPage":1779,"tableRows":0,"pageCount":10,"beginCount":400},"isExperi":"1"}