{"message":"","today":"2020-06-15","seleList":[{"poweroffId":2020032931020001,"sgpoweroffId":null,"subsName":"","lineName":"10kV游乐A001线","pubTranName":"湘湖路公变,","scope":"浙江省-杭州市-萧山区-城厢街道-休博园社区-湘湖路、休博路及其周边一带","startTime":"2020-03-29 00:02:12","stopDate":"2020-03-29 03:30:12","orgNo":"3340130","typeCode":"电网故障停限电","poweroffArea":"110kV越王变:游乐A001线-湘湖路公变后段","poweroffReason":"高压开关跳闸 原停电结束时间为2020-03-29 05:00:12,为减少客户停电时间,加快工作进度,提前送电,现变更停电结束时间为2020-03-29 03:30:12","powerTime":"2020-03-29 02:41:57","powerComm":"已送电","subsNo":"","lineNo":"","tgNo":"","tgName":null,"infoStatus":"1","orgName":"国网浙江杭州市萧山区供电有限公司","typeName":null,"infoStatusName":null,"dateDay":null,"orgNos":null,"nowTime":null,"countyName":null,"streetName":null,"villageName":null,"roadName":null,"communityName":null,"tranName":null,"sdLineName":null,"cityCode":"3340130","cityName":"国网浙江杭州市萧山区供电有限公司","provinceCode":null,"stopTime":"2020-03-29 03:30:12","powerType":"全部","powerOffArea":"110kV越王变:游乐A001线-湘湖路公变后段","powerOffReason":"高压开关跳闸 原停电结束时间为2020-03-29 05:00:12,为减少客户停电时间,加快工作进度,提前送电,现变更停电结束时间为2020-03-29 03:30:12","powerOffId":"2020032931020001"},{"poweroffId":2020032831020182,"sgpoweroffId":null,"subsName":"","lineName":"10kV水北G207线","pubTranName":"杭州德曼汽车零部件有限公司1#,杭州余杭美德利墙体材料有限公司,杭州德曼汽车零部件有限公司2#,杭州德曼汽车零部件有限公司3#,","scope":"浙江省-杭州市-余杭区-塘栖镇-塘北行政村(杭州余杭美德利墙体材料有限公司,杭州德曼汽车零部件有限公司)","startTime":"2020-03-28 21:33:56","stopDate":"2020-03-28 23:33:56","orgNo":"3340140","typeCode":"电网故障停限电","poweroffArea":"110kV广济变:水北G207线首端，天扬G20737开关，天杨G20730开关之间","poweroffReason":"高压开关跳闸","powerTime":"2020-03-28 23:00:30","powerComm":"已送电","subsNo":"","lineNo":"","tgNo":"","tgName":null,"infoStatus":"1","orgName":"国网浙江杭州市余杭区供电有限公司","typeName":null,"infoStatusName":null,"dateDay":null,"orgNos":null,"nowTime":null,"countyName":null,"streetName":null,"villageName":null,"roadName":null,"communityName":null,"tranName":null,"sdLineName":null,"cityCode":"3340140","cityName":"国网浙江杭州市余杭区供电有限公司","provinceCode":null,"stopTime":"2020-03-28 23:33:56","powerType":"全部","powerOffArea":"110kV广济变:水北G207线首端，天扬G20737开关，天杨G20730开关之间","powerOffReason":"高压开关跳闸","powerOffId":"2020032831020182"},{"poweroffId":2020032831020181,"sgpoweroffId":null,"subsName":"","lineName":"10kV新桥G214线","pubTranName":"杭州荣力铸锻有限公司2#,杭州荣力铸锻有限公司3#,荣圣化工,熠恒铸锻,杭州钧钎物资有限公司,莱力机械,杭州煜恒铸锻有限公司612091374401#专变,杭州广茂工贸有限公司,1#,华深金属1#,华深金属2#,杭州荣力铸锻有限公司1#,杭州润龙节能建材有限公司,塘北村周家桥公变,","scope":"浙江省-杭州市-余杭区-塘栖镇-塘北行政村-塘北村;浙江省-杭州市-余杭区-塘栖镇-泉漳行政村-浙江荣力重工有限公司,塘栖镇-邵家坝行政村(杭州高铭金属制品有限公司,杭州全成金属制品有限公司,杭州广茂工贸有限公司),塘栖镇-塘北行政村(浙江海盟建筑科技有限公司,杭州华深金属制品有限公司,杭州煜恒铸锻有限公司,杭州钧钎物资有限公司,杭州云鼎新型建材科技有限公司)","startTime":"2020-03-28 21:32:55","stopDate":"2020-03-28 23:32:55","orgNo":"3340140","typeCode":"电网故障停限电","poweroffArea":"110kV广济变:新桥G214线首端，新桥G2147开关，新桥G2140开关之间","poweroffReason":"高压开关跳闸","powerTime":"2020-03-28 23:00:16","powerComm":"已送电","subsNo":"","lineNo":"","tgNo":"","tgName":null,"infoStatus":"1","orgName":"国网浙江杭州市余杭区供电有限公司","typeName":null,"infoStatusName":null,"dateDay":null,"orgNos":null,"nowTime":null,"countyName":null,"streetName":null,"villageName":null,"roadName":null,"communityName":null,"tranName":null,"sdLineName":null,"cityCode":"3340140","cityName":"国网浙江杭州市余杭区供电有限公司","provinceCode":null,"stopTime":"2020-03-28 23:32:55","powerType":"全部","powerOffArea":"110kV广济变:新桥G214线首端，新桥G2147开关，新桥G2140开关之间","powerOffReason":"高压开关跳闸","powerOffId":"2020032831020181"},{"poweroffId":2020032831020161,"sgpoweroffId":null,"subsName":"","lineName":"10kV汉塘T312线","pubTranName":"仁智江家1号公变,","scope":"浙江省-杭州市-桐庐县-城南街道-仁智行政村(石墙里自然村,江家自然村,城南街道仁志村姜家)","startTime":"2020-03-28 16:55:09","stopDate":"2020-03-28 18:55:09","orgNo":"3340150","typeCode":"电网故障停限电","poweroffArea":"110kV洋洲变:汉塘T312线-仁智江家1号公变后段","poweroffReason":"(低压停电信息)低压开关跳闸","powerTime":"2020-03-28 18:40:28","powerComm":"已送电","subsNo":"","lineNo":"","tgNo":"","tgName":null,"infoStatus":"1","orgName":"国网浙江桐庐县供电公司","typeName":null,"infoStatusName":null,"dateDay":null,"orgNos":null,"nowTime":null,"countyName":null,"streetName":null,"villageName":null,"roadName":null,"communityName":null,"tranName":null,"sdLineName":null,"cityCode":"3340150","cityName":"国网浙江桐庐县供电公司","provinceCode":null,"stopTime":"2020-03-28 18:55:09","powerType":"全部","powerOffArea":"110kV洋洲变:汉塘T312线-仁智江家1号公变后段","powerOffReason":"(低压停电信息)低压开关跳闸","powerOffId":"2020032831020161"},{"poweroffId":2020032831020142,"sgpoweroffId":null,"subsName":"","lineName":"10kV立祥Y139线","pubTranName":"建德市扬力五金加工厂,黄立垟园区宏达公变,杭州祥瑞印务有限公司,2#变,1#变,建德市乌龙乙稀绳网厂,3#变,","scope":"浙江省-杭州市-建德市-乾潭镇 黄立洋工业园区 宏达工业园区用户。","startTime":"2020-04-09 07:00:00","stopDate":"2020-04-09 17:30:00","orgNo":"3340180","typeCode":"计划停电","poweroffArea":"110kV乾潭变:立祥Y139线首端，立祥139线03#开关，新程村松明山支线0#杆开关之间","poweroffReason":"杭州建德10千伏乾潭地区业扩配套工程原停电结束时间为2020-04-0916:00:00,因施工现场出现临时状况,施工时间不足原因,延迟送电,现变更停电结束时间为2020-04-0917:30:00","powerTime":"2020-04-09 16:50:41","powerComm":"已送电","subsNo":"","lineNo":"","tgNo":"","tgName":null,"infoStatus":"1","orgName":"国网浙江建德市供电有限公司","typeName":null,"infoStatusName":null,"dateDay":null,"orgNos":null,"nowTime":null,"countyName":null,"streetName":null,"villageName":null,"roadName":null,"communityName":null,"tranName":null,"sdLineName":null,"cityCode":"3340180","cityName":"国网浙江建德市供电有限公司","provinceCode":null,"stopTime":"2020-04-09 17:30:00","powerType":"全部","powerOffArea":"110kV乾潭变:立祥Y139线首端，立祥139线03#开关，新程村松明山支线0#杆开关之间","powerOffReason":"杭州建德10千伏乾潭地区业扩配套工程原停电结束时间为2020-04-0916:00:00,因施工现场出现临时状况,施工时间不足原因,延迟送电,现变更停电结束时间为2020-04-0917:30:00","powerOffId":"2020032831020142"},{"poweroffId":2020032831020141,"sgpoweroffId":null,"subsName":"","lineName":"10kV徐坑Y774线","pubTranName":"建德市旋具有限公司2#,新程村程头台区,建德市旋具有限公司,新程村白果树台区,","scope":"浙江省-杭州市-建德市-乾潭镇 新程行政村 程头自然村、白果树自然村区域用户。","startTime":"2020-04-09 07:00:00","stopDate":"2020-04-09 17:30:00","orgNo":"3340180","typeCode":"计划停电","poweroffArea":"110kV乾潭变:徐坑Y774线首端，徐坑Y7742开关，徐坑Y7743开关之间","poweroffReason":"10千伏徐坑Y774线78#杆真空开关安装原停电结束时间为2020-04-0916:00:00,因施工现场出现临时状况,施工时间不足原因,延迟送电,现变更停电结束时间为2020-04-0917:30:00","powerTime":"2020-04-09 16:51:00","powerComm":"已送电","subsNo":"","lineNo":"","tgNo":"","tgName":null,"infoStatus":"1","orgName":"国网浙江建德市供电有限公司","typeName":null,"infoStatusName":null,"dateDay":null,"orgNos":null,"nowTime":null,"countyName":null,"streetName":null,"villageName":null,"roadName":null,"communityName":null,"tranName":null,"sdLineName":null,"cityCode":"3340180","cityName":"国网浙江建德市供电有限公司","provinceCode":null,"stopTime":"2020-04-09 17:30:00","powerType":"全部","powerOffArea":"110kV乾潭变:徐坑Y774线首端，徐坑Y7742开关，徐坑Y7743开关之间","powerOffReason":"10千伏徐坑Y774线78#杆真空开关安装原停电结束时间为2020-04-0916:00:00,因施工现场出现临时状况,施工时间不足原因,延迟送电,现变更停电结束时间为2020-04-0917:30:00","powerOffId":"2020032831020141"},{"poweroffId":2020032831020140,"sgpoweroffId":null,"subsName":"","lineName":"10kV大镇Y315线","pubTranName":"大洋集镇兰苑新村1#台区,大洋集镇教工路公变,大洋集镇兰苑新村3号公变,兰苑四期1号公变,","scope":"浙江省-杭州市-建德市-大洋镇 集镇英烈路、教工宿舍楼、大洋自然村苟坞垅区域用户。","startTime":"2020-04-07 15:00:00","stopDate":"2020-04-07 19:00:00","orgNo":"3340180","typeCode":"计划停电","poweroffArea":"35kV大洋变:大镇Y315线首端，政大Y3154线负荷开关，大里Y315线1#杆真空开关之间","poweroffReason":"大洋镇小城镇环境综合整治—道路整体提升工程 因村民阻扰工作不能正常开始，原停电开始时间2020-04-07 13:00变更为2020-04-07 15:00，原停电结束时间2020-04-07 17:00变更为2020-04-07 19:00","powerTime":"2020-04-07 18:51:00","powerComm":"已送电","subsNo":"","lineNo":"","tgNo":"","tgName":null,"infoStatus":"1","orgName":"国网浙江建德市供电有限公司","typeName":null,"infoStatusName":null,"dateDay":null,"orgNos":null,"nowTime":null,"countyName":null,"streetName":null,"villageName":null,"roadName":null,"communityName":null,"tranName":null,"sdLineName":null,"cityCode":"3340180","cityName":"国网浙江建德市供电有限公司","provinceCode":null,"stopTime":"2020-04-07 19:00:00","powerType":"全部","powerOffArea":"35kV大洋变:大镇Y315线首端，政大Y3154线负荷开关，大里Y315线1#杆真空开关之间","powerOffReason":"大洋镇小城镇环境综合整治—道路整体提升工程 因村民阻扰工作不能正常开始，原停电开始时间2020-04-07 13:00变更为2020-04-07 15:00，原停电结束时间2020-04-07 17:00变更为2020-04-07 19:00","powerOffId":"2020032831020140"},{"poweroffId":2020032831020139,"sgpoweroffId":null,"subsName":"","lineName":"10kV洋峰Y310线","pubTranName":"1#,上源村雷公山下台区,","scope":"浙江省-杭州市-建德市-大洋镇 上源行政村 高坎头自然村、1号公寓楼区域用户。","startTime":"2020-04-07 15:00:00","stopDate":"2020-04-07 19:00:00","orgNo":"3340180","typeCode":"计划停电","poweroffArea":"35kV大洋变:洋峰Y310线-庆丰32522线10#杆真空开关后段","poweroffReason":"长春至深圳高速公路（G25）建德至金华段公路杆线迁移工程 因村民阻扰工作不能正常开始，原停电开始时间2020-04-07 13:00变更为2020-04-07 15:00，原停电结束时间2020-04-07 17:00变更为2020-04-07 19:00","powerTime":"2020-04-07 18:54:00","powerComm":"已送电","subsNo":"","lineNo":"","tgNo":"","tgName":null,"infoStatus":"1","orgName":"国网浙江建德市供电有限公司","typeName":null,"infoStatusName":null,"dateDay":null,"orgNos":null,"nowTime":null,"countyName":null,"streetName":null,"villageName":null,"roadName":null,"communityName":null,"tranName":null,"sdLineName":null,"cityCode":"3340180","cityName":"国网浙江建德市供电有限公司","provinceCode":null,"stopTime":"2020-04-07 19:00:00","powerType":"全部","powerOffArea":"35kV大洋变:洋峰Y310线-庆丰32522线10#杆真空开关后段","powerOffReason":"长春至深圳高速公路（G25）建德至金华段公路杆线迁移工程 因村民阻扰工作不能正常开始，原停电开始时间2020-04-07 13:00变更为2020-04-07 15:00，原停电结束时间2020-04-07 17:00变更为2020-04-07 19:00","powerOffId":"2020032831020139"},{"poweroffId":2020032831020138,"sgpoweroffId":null,"subsName":"","lineName":"10kV洋峰Y310线","pubTranName":"大洋集镇兰苑新村2#台区,兰苑四期2号公变,","scope":"浙江省-杭州市-建德市-大洋镇 集镇 英烈路、大洋自然村苟坞垅区域用户。","startTime":"2020-04-07 10:00:00","stopDate":"2020-04-07 15:00:00","orgNo":"3340180","typeCode":"计划停电","poweroffArea":"35kV大洋变:洋峰Y310线-兰苑四期2号公变断路器后段;洋峰Y310线-大洋集镇兰苑新村2#台区后段","poweroffReason":"大洋镇小城镇环境综合整治—道路整体提升工程 原停电结束时间为2020-04-07 14:00:00,因现场施工环境复杂,施工时间不足原因,延迟送电,现变更停电结束时间为2020-04-07 15:00:00","powerTime":"2020-04-07 14:38:00","powerComm":"已送电","subsNo":"","lineNo":"","tgNo":"","tgName":null,"infoStatus":"1","orgName":"国网浙江建德市供电有限公司","typeName":null,"infoStatusName":null,"dateDay":null,"orgNos":null,"nowTime":null,"countyName":null,"streetName":null,"villageName":null,"roadName":null,"communityName":null,"tranName":null,"sdLineName":null,"cityCode":"3340180","cityName":"国网浙江建德市供电有限公司","provinceCode":null,"stopTime":"2020-04-07 15:00:00","powerType":"全部","powerOffArea":"35kV大洋变:洋峰Y310线-兰苑四期2号公变断路器后段;洋峰Y310线-大洋集镇兰苑新村2#台区后段","powerOffReason":"大洋镇小城镇环境综合整治—道路整体提升工程 原停电结束时间为2020-04-07 14:00:00,因现场施工环境复杂,施工时间不足原因,延迟送电,现变更停电结束时间为2020-04-07 15:00:00","powerOffId":"2020032831020138"},{"poweroffId":2020032831020121,"sgpoweroffId":null,"subsName":"","lineName":"10kV兰庄D604线","pubTranName":"稠溪村幸福1#幸福公变,","scope":"浙江省-杭州市-富阳区-大源镇-稠溪行政村-幸福自然村","startTime":"2020-03-28 14:06:08","stopDate":"2020-03-28 16:06:08","orgNo":"3340170","typeCode":"电网故障停限电","poweroffArea":"35kV溪东变:兰庄D604线-稠溪村幸福1#幸福公变后段","poweroffReason":"高压开关跳闸，原停电结束时间为2020-03-28 15:06:08,因天气原因,延迟送电,现变更停电结束时间为2020-03-28 16:06:08","powerTime":"2020-03-28 15:59:35","powerComm":"已送电","subsNo":"","lineNo":"","tgNo":"","tgName":null,"infoStatus":"1","orgName":"国网浙江杭州市富阳区供电公司","typeName":null,"infoStatusName":null,"dateDay":null,"orgNos":null,"nowTime":null,"countyName":null,"streetName":null,"villageName":null,"roadName":null,"communityName":null,"tranName":null,"sdLineName":null,"cityCode":"3340170","cityName":"国网浙江杭州市富阳区供电公司","provinceCode":null,"stopTime":"2020-03-28 16:06:08","powerType":"全部","powerOffArea":"35kV溪东变:兰庄D604线-稠溪村幸福1#幸福公变后段","powerOffReason":"高压开关跳闸，原停电结束时间为2020-03-28 15:06:08,因天气原因,延迟送电,现变更停电结束时间为2020-03-28 16:06:08","powerOffId":"2020032831020121"}],"pageModel":{"pageNow":424,"totalCount":17788,"totalPage":1779,"tableRows":0,"pageCount":10,"beginCount":4230},"isExperi":"1"}