{"message":"","today":"2020-06-15","seleList":[{"poweroffId":2020032831020117,"sgpoweroffId":null,"subsName":"","lineName":"10kV如意A326线","pubTranName":"运西村9#变,运西村4#变,","scope":"浙江省-杭州市-萧山区-瓜沥镇-运西行政村-运西自然村","startTime":"2020-03-28 13:28:12","stopDate":"2020-03-28 15:58:12","orgNo":"3340130","typeCode":"电网故障停限电","poweroffArea":"110kV靖江变:如意A326线首端，如意A3261开关，如意A3262开关之间","poweroffReason":"高压开关跳闸","powerTime":"2020-03-28 15:02:37","powerComm":"已送电","subsNo":"","lineNo":"","tgNo":"","tgName":null,"infoStatus":"1","orgName":"国网浙江杭州市萧山区供电有限公司","typeName":null,"infoStatusName":null,"dateDay":null,"orgNos":null,"nowTime":null,"countyName":null,"streetName":null,"villageName":null,"roadName":null,"communityName":null,"tranName":null,"sdLineName":null,"cityCode":"3340130","cityName":"国网浙江杭州市萧山区供电有限公司","provinceCode":null,"stopTime":"2020-03-28 15:58:12","powerType":"全部","powerOffArea":"110kV靖江变:如意A326线首端，如意A3261开关，如意A3262开关之间","powerOffReason":"高压开关跳闸","powerOffId":"2020032831020117"},{"poweroffId":2020032731020743,"sgpoweroffId":null,"subsName":"","lineName":"10kV新镇C620线","pubTranName":"山末址村8#变,","scope":"浙江省-杭州市-萧山区-新街镇-新街街道-山末址行政村-山末址自然村，浙江省杭州市萧山区新街街道山末址行政村山末址自然村21组868号、浙江省杭州市萧山区新街街道山末址行政村山末址自然村21组872号、浙江省杭州市萧山区新街街道山末址村、浙江省杭州市萧山区新街街道山末址行政村山末址自然村21组888号等一带","startTime":"2020-03-27 22:47:59","stopDate":"2020-03-28 00:35:59","orgNo":"3340130","typeCode":"电网故障停限电","poweroffArea":"110kV新街变:新镇C620线-山末址村8#变台区低压开关","poweroffReason":"(低压停电信息)低压漏电保护器短路故障 原停电结束时间为2020-03-28 00:50:59,为减少客户停电时间,加快工作进度,提前送电,现变更停电结束时间为2020-03-28 00:35:59","powerTime":"2020-03-27 23:37:26","powerComm":"已送电","subsNo":"","lineNo":"","tgNo":"","tgName":null,"infoStatus":"1","orgName":"国网浙江杭州市萧山区供电有限公司","typeName":null,"infoStatusName":null,"dateDay":null,"orgNos":null,"nowTime":null,"countyName":null,"streetName":null,"villageName":null,"roadName":null,"communityName":null,"tranName":null,"sdLineName":null,"cityCode":"3340130","cityName":"国网浙江杭州市萧山区供电有限公司","provinceCode":null,"stopTime":"2020-03-28 00:35:59","powerType":"全部","powerOffArea":"110kV新街变:新镇C620线-山末址村8#变台区低压开关","powerOffReason":"(低压停电信息)低压漏电保护器短路故障 原停电结束时间为2020-03-28 00:50:59,为减少客户停电时间,加快工作进度,提前送电,现变更停电结束时间为2020-03-28 00:35:59","powerOffId":"2020032731020743"},{"poweroffId":2020032731020718,"sgpoweroffId":null,"subsName":"","lineName":"10kV北和9655线","pubTranName":"铭雅(八),农沙(六),高沙小学2,铭雅(二),铭雅(六),高沙小学2,农沙(四),农沙(二),铭雅(四),","scope":"浙江省-杭州市-杭州市经济技术开发区-白杨街道-白杨社区-学源路,下沙街道-铭和社区(学源街1273号,学源街),下沙街道(新沙社区-学林街1270号,新元社区-华景街),误下沙街道-误新元社区-学林街1270号,误白杨街道-误白杨社区-学林街;误白杨街道-杭州市下沙第一小学、江干区四季青街道绿城留香园9幢、下沙街道铭荷苑新荷坊西商铺西门、杭州市经济技术开发区下沙街道新沙社区新沙家园8幢1单元801、江干区鸣和苑柳翠坊、经济技术开发区下沙街道铭和社区铭和苑桂雨坊小区6幢2单元602、白杨街道高教社区银海街38号城市果岭地下负一层237号车位地下车位237号","startTime":"2020-03-27 20:10:00","stopDate":"2020-03-27 22:50:00","orgNo":"3340120","typeCode":"电网故障停限电","poweroffArea":"110kV教北变:北和9655线铭学站源学82243线后段","poweroffReason":"高压开关跳闸 原停电结束时间为2020-03-27 23:24:00,为减少客户停电时间,加快工作进度,提前送电,现变更停电结束时间为2020-03-27 22:50:00","powerTime":"2020-03-27 22:00:38","powerComm":"已送电","subsNo":"","lineNo":"","tgNo":"","tgName":null,"infoStatus":"1","orgName":"国网浙江杭州市钱塘新区供电公司","typeName":null,"infoStatusName":null,"dateDay":null,"orgNos":null,"nowTime":null,"countyName":null,"streetName":null,"villageName":null,"roadName":null,"communityName":null,"tranName":null,"sdLineName":null,"cityCode":"3340120","cityName":"国网浙江杭州市钱塘新区供电公司","provinceCode":null,"stopTime":"2020-03-27 22:50:00","powerType":"全部","powerOffArea":"110kV教北变:北和9655线铭学站源学82243线后段","powerOffReason":"高压开关跳闸 原停电结束时间为2020-03-27 23:24:00,为减少客户停电时间,加快工作进度,提前送电,现变更停电结束时间为2020-03-27 22:50:00","powerOffId":"2020032731020718"},{"poweroffId":2020032731020713,"sgpoweroffId":null,"subsName":"","lineName":"10kV付娄C207线","pubTranName":"桥南沈村7#变,","scope":"浙江省-杭州市-萧山区-新塘街道-桥南沈行政村(河北王自然村,坝里朱自然村,桥南沈自然村,沈家汇自然村,南沈村)一带","startTime":"2020-03-27 20:12:03","stopDate":"2020-03-27 23:59:03","orgNo":"3340130","typeCode":"电网故障停限电","poweroffArea":"110kV霞江变:付娄C207线-桥南沈村7#变后段","poweroffReason":"外力破坏引起高压柱上断路器短路 原停电结束时间为2020-03-27 23:00:03,因抢修工作难度大原因,现变更停电结束时间为2020-03-27 23:59:03","powerTime":"2020-03-27 23:23:10","powerComm":"已送电","subsNo":"","lineNo":"","tgNo":"","tgName":null,"infoStatus":"1","orgName":"国网浙江杭州市萧山区供电有限公司","typeName":null,"infoStatusName":null,"dateDay":null,"orgNos":null,"nowTime":null,"countyName":null,"streetName":null,"villageName":null,"roadName":null,"communityName":null,"tranName":null,"sdLineName":null,"cityCode":"3340130","cityName":"国网浙江杭州市萧山区供电有限公司","provinceCode":null,"stopTime":"2020-03-27 23:59:03","powerType":"全部","powerOffArea":"110kV霞江变:付娄C207线-桥南沈村7#变后段","powerOffReason":"外力破坏引起高压柱上断路器短路 原停电结束时间为2020-03-27 23:00:03,因抢修工作难度大原因,现变更停电结束时间为2020-03-27 23:59:03","powerOffId":"2020032731020713"},{"poweroffId":2020032731020640,"sgpoweroffId":null,"subsName":"","lineName":"10kV都滟9795线","pubTranName":"水滟(十三),水滟(十五),","scope":"浙江省-杭州市-拱墅区-祥符街道-秀水社区-长阳路","startTime":"2020-03-27 17:01:00","stopDate":"2020-03-27 20:01:00","orgNo":"3340101","typeCode":"电网故障停限电","poweroffArea":"110kV红旗变:都滟9795线水滟十五站水滟五线后段","poweroffReason":"高压开关跳闸","powerTime":"2020-03-27 19:09:34","powerComm":"已送电","subsNo":"","lineNo":"","tgNo":"","tgName":null,"infoStatus":"1","orgName":"浙江杭州电力客户服务中心","typeName":null,"infoStatusName":null,"dateDay":null,"orgNos":null,"nowTime":null,"countyName":null,"streetName":null,"villageName":null,"roadName":null,"communityName":null,"tranName":null,"sdLineName":null,"cityCode":"3340101","cityName":"浙江杭州电力客户服务中心","provinceCode":null,"stopTime":"2020-03-27 20:01:00","powerType":"全部","powerOffArea":"110kV红旗变:都滟9795线水滟十五站水滟五线后段","powerOffReason":"高压开关跳闸","powerOffId":"2020032731020640"},{"poweroffId":2020032731020639,"sgpoweroffId":null,"subsName":"","lineName":"10kV长阳9791线","pubTranName":"水滟(三),水滟(一),","scope":"浙江省-杭州市-拱墅区-祥符街道-秀水社区-长阳路","startTime":"2020-03-27 17:01:00","stopDate":"2020-03-27 20:01:00","orgNo":"3340101","typeCode":"电网故障停限电","poweroffArea":"110kV红旗变:长阳9791线水滟三站水滟七线后段","poweroffReason":"高压开关跳闸","powerTime":"2020-03-27 19:09:00","powerComm":"已送电","subsNo":"","lineNo":"","tgNo":"","tgName":null,"infoStatus":"1","orgName":"浙江杭州电力客户服务中心","typeName":null,"infoStatusName":null,"dateDay":null,"orgNos":null,"nowTime":null,"countyName":null,"streetName":null,"villageName":null,"roadName":null,"communityName":null,"tranName":null,"sdLineName":null,"cityCode":"3340101","cityName":"浙江杭州电力客户服务中心","provinceCode":null,"stopTime":"2020-03-27 20:01:00","powerType":"全部","powerOffArea":"110kV红旗变:长阳9791线水滟三站水滟七线后段","powerOffReason":"高压开关跳闸","powerOffId":"2020032731020639"},{"poweroffId":2020032731020635,"sgpoweroffId":null,"subsName":"","lineName":"10kV回安R961线","pubTranName":"千岛湖镇井塘村井塘公变,","scope":"浙江省-杭州市-淳安县-千岛湖镇-井塘行政村-井塘自然村","startTime":"2020-04-08 08:00:00","stopDate":"2020-04-08 15:00:00","orgNo":"3340190","typeCode":"计划停电","poweroffArea":"35kV千黄二变:回安R961线-井塘村配变跌落式熔断器","poweroffReason":"(低压停电信息)杭州淳安千岛湖0.4千伏井塘村低压台区改造工程;井塘村配变更换","powerTime":"2020-04-08 14:18:46","powerComm":"已送电","subsNo":"","lineNo":"","tgNo":"","tgName":null,"infoStatus":"1","orgName":"国网浙江淳安县供电有限公司","typeName":null,"infoStatusName":null,"dateDay":null,"orgNos":null,"nowTime":null,"countyName":null,"streetName":null,"villageName":null,"roadName":null,"communityName":null,"tranName":null,"sdLineName":null,"cityCode":"3340190","cityName":"国网浙江淳安县供电有限公司","provinceCode":null,"stopTime":"2020-04-08 15:00:00","powerType":"全部","powerOffArea":"35kV千黄二变:回安R961线-井塘村配变跌落式熔断器","powerOffReason":"(低压停电信息)杭州淳安千岛湖0.4千伏井塘村低压台区改造工程;井塘村配变更换","powerOffId":"2020032731020635"},{"poweroffId":2020032731020632,"sgpoweroffId":null,"subsName":"","lineName":"10kV长阳9791线","pubTranName":"水滟(五),水滟(十一),","scope":"浙江省-杭州市-拱墅区-祥符街道-秀水社区-长阳路","startTime":"2020-03-27 16:54:00","stopDate":"2020-03-27 19:40:00","orgNo":"3340101","typeCode":"电网故障停限电","poweroffArea":"110kV红旗变:长阳9791线水滟十一站水滟三线后段","poweroffReason":"高压开关跳闸 原停电结束时间为2020-03-27 20:54:00,为减少客户停电时间,加快工作进度,提前送电,现变更停电结束时间为2020-03-27 19:40:00","powerTime":"2020-03-27 19:05:28","powerComm":"已送电","subsNo":"","lineNo":"","tgNo":"","tgName":null,"infoStatus":"1","orgName":"浙江杭州电力客户服务中心","typeName":null,"infoStatusName":null,"dateDay":null,"orgNos":null,"nowTime":null,"countyName":null,"streetName":null,"villageName":null,"roadName":null,"communityName":null,"tranName":null,"sdLineName":null,"cityCode":"3340101","cityName":"浙江杭州电力客户服务中心","provinceCode":null,"stopTime":"2020-03-27 19:40:00","powerType":"全部","powerOffArea":"110kV红旗变:长阳9791线水滟十一站水滟三线后段","powerOffReason":"高压开关跳闸 原停电结束时间为2020-03-27 20:54:00,为减少客户停电时间,加快工作进度,提前送电,现变更停电结束时间为2020-03-27 19:40:00","powerOffId":"2020032731020632"},{"poweroffId":2020032731020631,"sgpoweroffId":null,"subsName":"","lineName":"10kV都滟9795线","pubTranName":"水滟(九),水滟(七),","scope":"浙江省-杭州市-拱墅区-祥符街道-秀水社区-长阳路","startTime":"2020-03-27 16:54:00","stopDate":"2020-03-27 19:40:00","orgNo":"3340101","typeCode":"电网故障停限电","poweroffArea":"110kV红旗变:都滟9795线水滟九站水滟一线后段","poweroffReason":"高压开关跳闸 原停电结束时间为2020-03-27 20:54:00,为减少客户停电时间,加快工作进度,提前送电,现变更停电结束时间为2020-03-27 19:40:00","powerTime":"2020-03-27 19:04:56","powerComm":"已送电","subsNo":"","lineNo":"","tgNo":"","tgName":null,"infoStatus":"1","orgName":"浙江杭州电力客户服务中心","typeName":null,"infoStatusName":null,"dateDay":null,"orgNos":null,"nowTime":null,"countyName":null,"streetName":null,"villageName":null,"roadName":null,"communityName":null,"tranName":null,"sdLineName":null,"cityCode":"3340101","cityName":"浙江杭州电力客户服务中心","provinceCode":null,"stopTime":"2020-03-27 19:40:00","powerType":"全部","powerOffArea":"110kV红旗变:都滟9795线水滟九站水滟一线后段","powerOffReason":"高压开关跳闸 原停电结束时间为2020-03-27 20:54:00,为减少客户停电时间,加快工作进度,提前送电,现变更停电结束时间为2020-03-27 19:40:00","powerOffId":"2020032731020631"},{"poweroffId":2020032731020619,"sgpoweroffId":null,"subsName":"","lineName":"10kV湘岭D714线","pubTranName":"潘堰村9#炉头白泥弯公变,","scope":"浙江省杭州市富阳区新登镇潘堰行政村炉头白泥湾自然村一带","startTime":"2020-04-08 08:10:00","stopDate":"2020-04-08 16:30:00","orgNo":"3340170","typeCode":"计划停电","poweroffArea":"110kV松溪变:湘岭D714线-潘堰村9#炉头白泥弯公变低压开关后段","poweroffReason":"(低压停电信息)01线拆除JKLYJ-70*4*3档、架设JKLYJ-120*4*12档、安装横担、拉线","powerTime":"2020-04-08 16:01:04","powerComm":"已送电","subsNo":"","lineNo":"","tgNo":"","tgName":null,"infoStatus":"1","orgName":"国网浙江杭州市富阳区供电公司","typeName":null,"infoStatusName":null,"dateDay":null,"orgNos":null,"nowTime":null,"countyName":null,"streetName":null,"villageName":null,"roadName":null,"communityName":null,"tranName":null,"sdLineName":null,"cityCode":"3340170","cityName":"国网浙江杭州市富阳区供电公司","provinceCode":null,"stopTime":"2020-04-08 16:30:00","powerType":"全部","powerOffArea":"110kV松溪变:湘岭D714线-潘堰村9#炉头白泥弯公变低压开关后段","powerOffReason":"(低压停电信息)01线拆除JKLYJ-70*4*3档、架设JKLYJ-120*4*12档、安装横担、拉线","powerOffId":"2020032731020619"}],"pageModel":{"pageNow":425,"totalCount":17788,"totalPage":1779,"tableRows":0,"pageCount":10,"beginCount":4240},"isExperi":"1"}