{"message":"","today":"2020-06-15","seleList":[{"poweroffId":2020032731020545,"sgpoweroffId":null,"subsName":"","lineName":"10kV湘主D286线","pubTranName":"湘主村4#殿边公变,","scope":"浙江省杭州市富阳区新登镇湘主行政村殿边自然村一带","startTime":"2020-04-12 08:30:00","stopDate":"2020-04-12 16:30:00","orgNo":"3340170","typeCode":"计划停电","poweroffArea":"110kV清泉变:湘主D286线-湘主村4#殿边公变低压开关后段","poweroffReason":"(低压停电信息)新登2020年湘主村新增公变布点工程吊车立杆、架线、开关安装等工作","powerTime":"2020-04-12 15:30:23","powerComm":"已送电","subsNo":"","lineNo":"","tgNo":"","tgName":null,"infoStatus":"1","orgName":"国网浙江杭州市富阳区供电公司","typeName":null,"infoStatusName":null,"dateDay":null,"orgNos":null,"nowTime":null,"countyName":null,"streetName":null,"villageName":null,"roadName":null,"communityName":null,"tranName":null,"sdLineName":null,"cityCode":"3340170","cityName":"国网浙江杭州市富阳区供电公司","provinceCode":null,"stopTime":"2020-04-12 16:30:00","powerType":"全部","powerOffArea":"110kV清泉变:湘主D286线-湘主村4#殿边公变低压开关后段","powerOffReason":"(低压停电信息)新登2020年湘主村新增公变布点工程吊车立杆、架线、开关安装等工作","powerOffId":"2020032731020545"},{"poweroffId":2020032731020544,"sgpoweroffId":null,"subsName":"","lineName":"10kV香下H546线","pubTranName":"西山村黄泥坞2号公变,西山村黄泥坞1号公变,","scope":"浙江省杭州市余杭区径山镇：西山村黄泥坞一带","startTime":"2020-04-10 09:30:00","stopDate":"2020-04-10 14:30:00","orgNo":"3340140","typeCode":"计划停电","poweroffArea":"110kV潘板变:香下H546线西山村2分线","poweroffReason":"计划工作","powerTime":"2020-04-10 14:16:12","powerComm":"已送电","subsNo":"","lineNo":"","tgNo":"","tgName":null,"infoStatus":"1","orgName":"国网浙江杭州市余杭区供电有限公司","typeName":null,"infoStatusName":null,"dateDay":null,"orgNos":null,"nowTime":null,"countyName":null,"streetName":null,"villageName":null,"roadName":null,"communityName":null,"tranName":null,"sdLineName":null,"cityCode":"3340140","cityName":"国网浙江杭州市余杭区供电有限公司","provinceCode":null,"stopTime":"2020-04-10 14:30:00","powerType":"全部","powerOffArea":"110kV潘板变:香下H546线西山村2分线","powerOffReason":"计划工作","powerOffId":"2020032731020544"},{"poweroffId":2020032731020543,"sgpoweroffId":null,"subsName":"","lineName":"10kV分水G622线","pubTranName":"银泰城11号公变,","scope":"浙江省-杭州市-余杭区-南苑街道：银泰城一带","startTime":"2020-04-10 08:30:00","stopDate":"2020-04-10 14:00:00","orgNo":"3340140","typeCode":"计划停电","poweroffArea":"银泰城6#站分水G622线银泰城11号公变分线","poweroffReason":"计划工作原停电结束时间为2020-04-1012:30:00,因现场原因,延迟送电,现变更停电结束时间为2020-04-1014:00:00","powerTime":"2020-04-10 13:36:31","powerComm":"已送电","subsNo":"","lineNo":"","tgNo":"","tgName":null,"infoStatus":"1","orgName":"国网浙江杭州市余杭区供电有限公司","typeName":null,"infoStatusName":null,"dateDay":null,"orgNos":null,"nowTime":null,"countyName":null,"streetName":null,"villageName":null,"roadName":null,"communityName":null,"tranName":null,"sdLineName":null,"cityCode":"3340140","cityName":"国网浙江杭州市余杭区供电有限公司","provinceCode":null,"stopTime":"2020-04-10 14:00:00","powerType":"全部","powerOffArea":"银泰城6#站分水G622线银泰城11号公变分线","powerOffReason":"计划工作原停电结束时间为2020-04-1012:30:00,因现场原因,延迟送电,现变更停电结束时间为2020-04-1014:00:00","powerOffId":"2020032731020543"},{"poweroffId":2020032731020542,"sgpoweroffId":null,"subsName":"","lineName":"10kV图山D502线","pubTranName":"上图山村2#朝头山公变,","scope":"浙江省杭州市富阳区场口镇上图山村一带","startTime":"2020-04-11 08:30:00","stopDate":"2020-04-11 15:40:00","orgNo":"3340170","typeCode":"计划停电","poweroffArea":"110kV常安变:图山D502线-上图山村2#朝头山公变低压开关后段","poweroffReason":"(低压停电信息)安装横担、做拉线、架线、放接户线、搭接等工作；","powerTime":"2020-04-11 15:30:20","powerComm":"已送电","subsNo":"","lineNo":"","tgNo":"","tgName":null,"infoStatus":"1","orgName":"国网浙江杭州市富阳区供电公司","typeName":null,"infoStatusName":null,"dateDay":null,"orgNos":null,"nowTime":null,"countyName":null,"streetName":null,"villageName":null,"roadName":null,"communityName":null,"tranName":null,"sdLineName":null,"cityCode":"3340170","cityName":"国网浙江杭州市富阳区供电公司","provinceCode":null,"stopTime":"2020-04-11 15:40:00","powerType":"全部","powerOffArea":"110kV常安变:图山D502线-上图山村2#朝头山公变低压开关后段","powerOffReason":"(低压停电信息)安装横担、做拉线、架线、放接户线、搭接等工作；","powerOffId":"2020032731020542"},{"poweroffId":2020032731020540,"sgpoweroffId":null,"subsName":"","lineName":"10kV分水G622线","pubTranName":"银泰城10号公变,","scope":"浙江省-杭州市-余杭区-南苑街道：银泰城一带","startTime":"2020-04-09 13:00:00","stopDate":"2020-04-09 16:00:00","orgNo":"3340140","typeCode":"计划停电","poweroffArea":"银泰城5#站分水G622线银泰城10号公变分线","poweroffReason":"计划工作原停电结束时间为2020-04-0917:00:00,为减少客户停电时间,加快工作进度,提前送电,现变更停电结束时间为2020-04-0916:00:00","powerTime":"2020-04-09 15:17:53","powerComm":"因施工力量加强，现场进度较快，提前送电","subsNo":"","lineNo":"","tgNo":"","tgName":null,"infoStatus":"1","orgName":"国网浙江杭州市余杭区供电有限公司","typeName":null,"infoStatusName":null,"dateDay":null,"orgNos":null,"nowTime":null,"countyName":null,"streetName":null,"villageName":null,"roadName":null,"communityName":null,"tranName":null,"sdLineName":null,"cityCode":"3340140","cityName":"国网浙江杭州市余杭区供电有限公司","provinceCode":null,"stopTime":"2020-04-09 16:00:00","powerType":"全部","powerOffArea":"银泰城5#站分水G622线银泰城10号公变分线","powerOffReason":"计划工作原停电结束时间为2020-04-0917:00:00,为减少客户停电时间,加快工作进度,提前送电,现变更停电结束时间为2020-04-0916:00:00","powerOffId":"2020032731020540"},{"poweroffId":2020032731020538,"sgpoweroffId":null,"subsName":"","lineName":"10kV毛园H265线","pubTranName":"彭公村东皇坞2号公变,彭公村东皇坞里村2号公变,彭公村东皇坞村公变,彭公村东皇坞里村1号公变,","scope":"浙江省-杭州市-余杭区-瓶窑镇：彭公村东皇坞里村、彭公村东皇坞村","startTime":"2020-04-09 08:40:00","stopDate":"2020-04-09 14:40:00","orgNo":"3340140","typeCode":"计划停电","poweroffArea":"110kV彭公变:毛园H265线东皇坞里村分线","poweroffReason":"计划工作原停电结束时间为2020-04-0913:40:00,因系统录入错误原因,延迟送电,现变更停电结束时间为2020-04-0914:40:00","powerTime":"2020-04-09 14:08:07","powerComm":"已送电","subsNo":"","lineNo":"","tgNo":"","tgName":null,"infoStatus":"1","orgName":"国网浙江杭州市余杭区供电有限公司","typeName":null,"infoStatusName":null,"dateDay":null,"orgNos":null,"nowTime":null,"countyName":null,"streetName":null,"villageName":null,"roadName":null,"communityName":null,"tranName":null,"sdLineName":null,"cityCode":"3340140","cityName":"国网浙江杭州市余杭区供电有限公司","provinceCode":null,"stopTime":"2020-04-09 14:40:00","powerType":"全部","powerOffArea":"110kV彭公变:毛园H265线东皇坞里村分线","powerOffReason":"计划工作原停电结束时间为2020-04-0913:40:00,因系统录入错误原因,延迟送电,现变更停电结束时间为2020-04-0914:40:00","powerOffId":"2020032731020538"},{"poweroffId":2020032731020536,"sgpoweroffId":null,"subsName":"","lineName":"10kV阀门H725线","pubTranName":"天赋花苑(2)公变,天赋花苑(1)公变,","scope":"浙江省杭州市余杭区闲林街道：天赋花苑小区1号、2号公bian一带","startTime":"2020-04-09 09:30:00","stopDate":"2020-04-09 12:30:00","orgNo":"3340140","typeCode":"计划停电","poweroffArea":"110kV闲林变:阀门H725线-天赋花苑(1)后段;阀门H725线首端，天赋花苑(1)，天赋花苑(2)之间","poweroffReason":"业扩工程（悦汀蓝锦轩进线工程）：蓝锦开关站阀门H725线天赋花苑公变分线改接至蓝锦开关站Ⅱ段17号间隔","powerTime":"2020-04-09 11:45:33","powerComm":"已送电","subsNo":"","lineNo":"","tgNo":"","tgName":null,"infoStatus":"1","orgName":"国网浙江杭州市余杭区供电有限公司","typeName":null,"infoStatusName":null,"dateDay":null,"orgNos":null,"nowTime":null,"countyName":null,"streetName":null,"villageName":null,"roadName":null,"communityName":null,"tranName":null,"sdLineName":null,"cityCode":"3340140","cityName":"国网浙江杭州市余杭区供电有限公司","provinceCode":null,"stopTime":"2020-04-09 12:30:00","powerType":"全部","powerOffArea":"110kV闲林变:阀门H725线-天赋花苑(1)后段;阀门H725线首端，天赋花苑(1)，天赋花苑(2)之间","powerOffReason":"业扩工程（悦汀蓝锦轩进线工程）：蓝锦开关站阀门H725线天赋花苑公变分线改接至蓝锦开关站Ⅱ段17号间隔","powerOffId":"2020032731020536"},{"poweroffId":2020032731020535,"sgpoweroffId":null,"subsName":"","lineName":"10kV图山D502线","pubTranName":"上图山村5#大门山公变,","scope":"浙江省杭州市富阳区场口镇上图山村一带","startTime":"2020-04-10 08:30:00","stopDate":"2020-04-10 15:40:00","orgNo":"3340170","typeCode":"计划停电","poweroffArea":"110kV常安变:图山D502线-上图山村5#大门山公变低压开关后段","poweroffReason":"(低压停电信息)安装横担、做拉线、架线拆集束线、搭接等工作；","powerTime":"2020-04-10 15:27:43","powerComm":"已送电","subsNo":"","lineNo":"","tgNo":"","tgName":null,"infoStatus":"1","orgName":"国网浙江杭州市富阳区供电公司","typeName":null,"infoStatusName":null,"dateDay":null,"orgNos":null,"nowTime":null,"countyName":null,"streetName":null,"villageName":null,"roadName":null,"communityName":null,"tranName":null,"sdLineName":null,"cityCode":"3340170","cityName":"国网浙江杭州市富阳区供电公司","provinceCode":null,"stopTime":"2020-04-10 15:40:00","powerType":"全部","powerOffArea":"110kV常安变:图山D502线-上图山村5#大门山公变低压开关后段","powerOffReason":"(低压停电信息)安装横担、做拉线、架线拆集束线、搭接等工作；","powerOffId":"2020032731020535"},{"poweroffId":2020032731020532,"sgpoweroffId":null,"subsName":"","lineName":"10kV分水G622线","pubTranName":"银泰城9号公变,","scope":"浙江省杭州市余杭区南苑街道：银泰城一带","startTime":"2020-04-09 08:30:00","stopDate":"2020-04-09 12:30:00","orgNo":"3340140","typeCode":"计划停电","poweroffArea":"银泰城5#站分水G622线银泰城9号公变分线","poweroffReason":"计划工作","powerTime":"2020-04-09 12:20:05","powerComm":"已送电","subsNo":"","lineNo":"","tgNo":"","tgName":null,"infoStatus":"1","orgName":"国网浙江杭州市余杭区供电有限公司","typeName":null,"infoStatusName":null,"dateDay":null,"orgNos":null,"nowTime":null,"countyName":null,"streetName":null,"villageName":null,"roadName":null,"communityName":null,"tranName":null,"sdLineName":null,"cityCode":"3340140","cityName":"国网浙江杭州市余杭区供电有限公司","provinceCode":null,"stopTime":"2020-04-09 12:30:00","powerType":"全部","powerOffArea":"银泰城5#站分水G622线银泰城9号公变分线","powerOffReason":"计划工作","powerOffId":"2020032731020532"},{"poweroffId":2020032731020530,"sgpoweroffId":null,"subsName":"","lineName":"10kV图山D502线","pubTranName":"上图山村3号医院公变,","scope":"浙江省杭州市富阳区场口镇上图山村一带","startTime":"2020-04-07 08:30:00","stopDate":"2020-04-07 16:10:00","orgNo":"3340170","typeCode":"计划停电","poweroffArea":"110kV常安变:图山D502线-上图山村3号医院公变低压开关后段","poweroffReason":"(低压停电信息)架线、做拉线、安装横担等工作；","powerTime":"2020-04-07 16:00:11","powerComm":"已送电","subsNo":"","lineNo":"","tgNo":"","tgName":null,"infoStatus":"1","orgName":"国网浙江杭州市富阳区供电公司","typeName":null,"infoStatusName":null,"dateDay":null,"orgNos":null,"nowTime":null,"countyName":null,"streetName":null,"villageName":null,"roadName":null,"communityName":null,"tranName":null,"sdLineName":null,"cityCode":"3340170","cityName":"国网浙江杭州市富阳区供电公司","provinceCode":null,"stopTime":"2020-04-07 16:10:00","powerType":"全部","powerOffArea":"110kV常安变:图山D502线-上图山村3号医院公变低压开关后段","powerOffReason":"(低压停电信息)架线、做拉线、安装横担等工作；","powerOffId":"2020032731020530"}],"pageModel":{"pageNow":427,"totalCount":17788,"totalPage":1779,"tableRows":0,"pageCount":10,"beginCount":4260},"isExperi":"1"}