{"message":"","today":"2020-06-15","seleList":[{"poweroffId":2020032731020529,"sgpoweroffId":null,"subsName":"","lineName":"10kV宏丰H804线","pubTranName":"荆岭通信,恒威通信,横板桥股份经济合作社,求实检测,杭州成洲锯业工具有限公司,美力电子,","scope":"浙江省杭州市余杭区五常街道：求实检测厂、美力电子厂、荆岭通信厂、成洲锯业厂一带","startTime":"2020-04-08 09:30:00","stopDate":"2020-04-08 16:30:00","orgNo":"3340140","typeCode":"计划停电","poweroffArea":"宏丰H804线回族村分线11号杆开关","poweroffReason":"线路标修：回族村分线15-21号杆标","powerTime":"2020-04-08 16:10:35","powerComm":"已送电","subsNo":"","lineNo":"","tgNo":"","tgName":null,"infoStatus":"1","orgName":"国网浙江杭州市余杭区供电有限公司","typeName":null,"infoStatusName":null,"dateDay":null,"orgNos":null,"nowTime":null,"countyName":null,"streetName":null,"villageName":null,"roadName":null,"communityName":null,"tranName":null,"sdLineName":null,"cityCode":"3340140","cityName":"国网浙江杭州市余杭区供电有限公司","provinceCode":null,"stopTime":"2020-04-08 16:30:00","powerType":"全部","powerOffArea":"宏丰H804线回族村分线11号杆开关","powerOffReason":"线路标修：回族村分线15-21号杆标","powerOffId":"2020032731020529"},{"poweroffId":2020032731020527,"sgpoweroffId":null,"subsName":"","lineName":"10kV杨池H268线","pubTranName":"石濑村土地庙公变,石濑村油车公变,石濑村北头公变,","scope":"浙江省杭州市余杭区瓶窑镇：石濑村北头、石濑村土地庙、石濑村油车一带","startTime":"2020-04-08 08:40:00","stopDate":"2020-04-08 15:40:00","orgNo":"3340140","typeCode":"计划停电","poweroffArea":"110kV彭公变:杨池H268线石濑油车分线","poweroffReason":"计划工作","powerTime":"2020-04-08 14:40:03","powerComm":"因施工力量加强，现场进度较快，提前送电。","subsNo":"","lineNo":"","tgNo":"","tgName":null,"infoStatus":"1","orgName":"国网浙江杭州市余杭区供电有限公司","typeName":null,"infoStatusName":null,"dateDay":null,"orgNos":null,"nowTime":null,"countyName":null,"streetName":null,"villageName":null,"roadName":null,"communityName":null,"tranName":null,"sdLineName":null,"cityCode":"3340140","cityName":"国网浙江杭州市余杭区供电有限公司","provinceCode":null,"stopTime":"2020-04-08 15:40:00","powerType":"全部","powerOffArea":"110kV彭公变:杨池H268线石濑油车分线","powerOffReason":"计划工作","powerOffId":"2020032731020527"},{"poweroffId":2020032731020525,"sgpoweroffId":null,"subsName":"","lineName":"10kV太平H547线","pubTranName":"四岭村里车坑2号公变,径山旅游（同安驿）6120550763,四岭村里车坑1号公变,杭州市余杭区同安寺6120385014,","scope":"浙江省杭州市余杭区径山镇：四岭村里车坑、径山旅游（同安驿）、杭州市余杭区同安寺一带","startTime":"2020-04-08 09:30:00","stopDate":"2020-04-08 15:30:00","orgNo":"3340140","typeCode":"计划停电","poweroffArea":"110kV潘板变:太平H547线里车坑分线24号杆开关后段","poweroffReason":"计划工作","powerTime":"2020-04-08 14:31:30","powerComm":"因施工力量加强，现场进度较快，提前送电。","subsNo":"","lineNo":"","tgNo":"","tgName":null,"infoStatus":"1","orgName":"国网浙江杭州市余杭区供电有限公司","typeName":null,"infoStatusName":null,"dateDay":null,"orgNos":null,"nowTime":null,"countyName":null,"streetName":null,"villageName":null,"roadName":null,"communityName":null,"tranName":null,"sdLineName":null,"cityCode":"3340140","cityName":"国网浙江杭州市余杭区供电有限公司","provinceCode":null,"stopTime":"2020-04-08 15:30:00","powerType":"全部","powerOffArea":"110kV潘板变:太平H547线里车坑分线24号杆开关后段","powerOffReason":"计划工作","powerOffId":"2020032731020525"},{"poweroffId":2020032731020524,"sgpoweroffId":null,"subsName":"","lineName":"10kV里鱼H560线","pubTranName":"麻车头村洪家村1号公变,麻车头村洪家村2号公变,","scope":"浙江省杭州市余杭区径山镇：麻车头村洪家村一带","startTime":"2020-04-08 09:30:00","stopDate":"2020-04-08 14:30:00","orgNo":"3340140","typeCode":"计划停电","poweroffArea":"110kV潘板变:里鱼H560线洪家村2分线","poweroffReason":"计划工作","powerTime":"2020-04-08 14:09:07","powerComm":"已送电","subsNo":"","lineNo":"","tgNo":"","tgName":null,"infoStatus":"1","orgName":"国网浙江杭州市余杭区供电有限公司","typeName":null,"infoStatusName":null,"dateDay":null,"orgNos":null,"nowTime":null,"countyName":null,"streetName":null,"villageName":null,"roadName":null,"communityName":null,"tranName":null,"sdLineName":null,"cityCode":"3340140","cityName":"国网浙江杭州市余杭区供电有限公司","provinceCode":null,"stopTime":"2020-04-08 14:30:00","powerType":"全部","powerOffArea":"110kV潘板变:里鱼H560线洪家村2分线","powerOffReason":"计划工作","powerOffId":"2020032731020524"},{"poweroffId":2020032731020522,"sgpoweroffId":null,"subsName":"","lineName":"10kV道古G994线","pubTranName":"杭州余杭枉山股份经济合作社（6120899570）01号专变,城建集团61207140521#变压器,横山6组1号（姚大富）公变,杭州余杭枉山股份经济合作社（6120899570）02号专变,横山7组（施家畈）公变,","scope":"浙江省-杭州市-余杭区-星桥街道：新城公租房基建变、枉山股份经济合作社、横山7组、横山6组","startTime":"2020-04-08 09:00:00","stopDate":"2020-04-08 17:00:00","orgNo":"3340140","typeCode":"计划停电","poweroffArea":"110kV茅山变:道古G993线沙子桥分线7+1#杆耐张引流线（带电作业配合拆除）。","poweroffReason":"计划工作 原停电结束时间为2020-04-08 15:00:00,因现场原因,延迟送电,现变更停电结束时间为2020-04-08 17:00:00","powerTime":"2020-04-08 16:00:25","powerComm":"因施工力量加强，现场进度较快，提前送电","subsNo":"","lineNo":"","tgNo":"","tgName":null,"infoStatus":"1","orgName":"国网浙江杭州市余杭区供电有限公司","typeName":null,"infoStatusName":null,"dateDay":null,"orgNos":null,"nowTime":null,"countyName":null,"streetName":null,"villageName":null,"roadName":null,"communityName":null,"tranName":null,"sdLineName":null,"cityCode":"3340140","cityName":"国网浙江杭州市余杭区供电有限公司","provinceCode":null,"stopTime":"2020-04-08 17:00:00","powerType":"全部","powerOffArea":"110kV茅山变:道古G993线沙子桥分线7+1#杆耐张引流线（带电作业配合拆除）。","powerOffReason":"计划工作 原停电结束时间为2020-04-08 15:00:00,因现场原因,延迟送电,现变更停电结束时间为2020-04-08 17:00:00","powerOffId":"2020032731020522"},{"poweroffId":2020032731020517,"sgpoweroffId":null,"subsName":"","lineName":"10kV景福H541线","pubTranName":"小古城村红卫1号公变,杭州余杭区径山镇祥和茶厂6110118080,小古城村红卫2号公变,","scope":"浙江省杭州市余杭区径山镇：小古城村红卫、杭州余杭区径山镇祥和茶厂一带","startTime":"2020-04-07 09:30:00","stopDate":"2020-04-07 16:30:00","orgNo":"3340140","typeCode":"计划停电","poweroffArea":"110kV潘板变:景福H541线红卫分线","poweroffReason":"计划工作","powerTime":"2020-04-07 15:50:08","powerComm":"已送电","subsNo":"","lineNo":"","tgNo":"","tgName":null,"infoStatus":"1","orgName":"国网浙江杭州市余杭区供电有限公司","typeName":null,"infoStatusName":null,"dateDay":null,"orgNos":null,"nowTime":null,"countyName":null,"streetName":null,"villageName":null,"roadName":null,"communityName":null,"tranName":null,"sdLineName":null,"cityCode":"3340140","cityName":"国网浙江杭州市余杭区供电有限公司","provinceCode":null,"stopTime":"2020-04-07 16:30:00","powerType":"全部","powerOffArea":"110kV潘板变:景福H541线红卫分线","powerOffReason":"计划工作","powerOffId":"2020032731020517"},{"poweroffId":2020032731020512,"sgpoweroffId":null,"subsName":"","lineName":"10kV白湖H272线","pubTranName":"塘埠村方家村公变,塘埠村马树边公变,塘埠村白湖公变,","scope":"浙江省杭州市余杭区瓶窑镇：塘埠村白湖、塘埠村马树边、塘埠村方家村公bian一带","startTime":"2020-04-07 08:40:00","stopDate":"2020-04-07 13:40:00","orgNo":"3340140","typeCode":"计划停电","poweroffArea":"110kV彭公变:白湖H272线典图总分线40号杆开关后段","poweroffReason":"计划工作","powerTime":"2020-04-07 13:04:30","powerComm":"已送电","subsNo":"","lineNo":"","tgNo":"","tgName":null,"infoStatus":"1","orgName":"国网浙江杭州市余杭区供电有限公司","typeName":null,"infoStatusName":null,"dateDay":null,"orgNos":null,"nowTime":null,"countyName":null,"streetName":null,"villageName":null,"roadName":null,"communityName":null,"tranName":null,"sdLineName":null,"cityCode":"3340140","cityName":"国网浙江杭州市余杭区供电有限公司","provinceCode":null,"stopTime":"2020-04-07 13:40:00","powerType":"全部","powerOffArea":"110kV彭公变:白湖H272线典图总分线40号杆开关后段","powerOffReason":"计划工作","powerOffId":"2020032731020512"},{"poweroffId":2020032731020505,"sgpoweroffId":null,"subsName":"","lineName":"10kV道古G994线","pubTranName":"城建枉山二期61208400093#变,城建集团61207140531#变压器,城建集团61207140541#变压器,","scope":"浙江省-杭州市-余杭区-星桥街道：新城公租房基建变、枉山安置房基建变","startTime":"2020-04-07 09:00:00","stopDate":"2020-04-07 16:00:00","orgNo":"3340140","typeCode":"计划停电","poweroffArea":"110kV茅山变:道古G993线沙子桥分线11#杆开关引线（带电作业配合拆除）。","poweroffReason":"原停电结束时间为2020-04-07 15:00:00,因现场原因,延迟送电,现变更停电结束时间为2020-04-07 16:00:00","powerTime":"2020-04-07 15:24:12","powerComm":"已送电","subsNo":"","lineNo":"","tgNo":"","tgName":null,"infoStatus":"1","orgName":"国网浙江杭州市余杭区供电有限公司","typeName":null,"infoStatusName":null,"dateDay":null,"orgNos":null,"nowTime":null,"countyName":null,"streetName":null,"villageName":null,"roadName":null,"communityName":null,"tranName":null,"sdLineName":null,"cityCode":"3340140","cityName":"国网浙江杭州市余杭区供电有限公司","provinceCode":null,"stopTime":"2020-04-07 16:00:00","powerType":"全部","powerOffArea":"110kV茅山变:道古G993线沙子桥分线11#杆开关引线（带电作业配合拆除）。","powerOffReason":"原停电结束时间为2020-04-07 15:00:00,因现场原因,延迟送电,现变更停电结束时间为2020-04-07 16:00:00","powerOffId":"2020032731020505"},{"poweroffId":2020032731020499,"sgpoweroffId":null,"subsName":"","lineName":"10kV道古G994线","pubTranName":"城建枉山二期61208400072#台区,城建枉山二期61208400041#变,","scope":"浙江省-杭州市-余杭区-星桥街道：枉山安置房基建变","startTime":"2020-04-07 09:00:00","stopDate":"2020-04-07 16:00:00","orgNo":"3340140","typeCode":"计划停电","poweroffArea":"110kV茅山变:道古G993线沙子桥分线9#杆开关引线（带电作业配合拆除）。","poweroffReason":"因现场原因,延迟送电,现变更停电结束时间为2020-04-07 15:00:00 原停电结束时间为2020-04-07 15:00:00,因现场原因,延迟送电,现变更停电结束时间为2020-04-07 16:00:00","powerTime":"2020-04-07 15:23:55","powerComm":"已送电","subsNo":"","lineNo":"","tgNo":"","tgName":null,"infoStatus":"1","orgName":"国网浙江杭州市余杭区供电有限公司","typeName":null,"infoStatusName":null,"dateDay":null,"orgNos":null,"nowTime":null,"countyName":null,"streetName":null,"villageName":null,"roadName":null,"communityName":null,"tranName":null,"sdLineName":null,"cityCode":"3340140","cityName":"国网浙江杭州市余杭区供电有限公司","provinceCode":null,"stopTime":"2020-04-07 16:00:00","powerType":"全部","powerOffArea":"110kV茅山变:道古G993线沙子桥分线9#杆开关引线（带电作业配合拆除）。","powerOffReason":"因现场原因,延迟送电,现变更停电结束时间为2020-04-07 15:00:00 原停电结束时间为2020-04-07 15:00:00,因现场原因,延迟送电,现变更停电结束时间为2020-04-07 16:00:00","powerOffId":"2020032731020499"},{"poweroffId":2020032731020477,"sgpoweroffId":null,"subsName":"","lineName":"10kV昌界D542线","pubTranName":"昌东村昌东7号金家公变,","scope":"浙江省杭州市富阳区新登镇昌东行政村金家自然村一带","startTime":"2020-04-11 08:30:00","stopDate":"2020-04-11 16:30:00","orgNo":"3340170","typeCode":"计划停电","poweroffArea":"110kV清泉变:昌界D542线-昌东村昌东7号金家公变低压开关后段","poweroffReason":"(低压停电信息)新登2020年上练村5#猫塘里公变等配变增容布点工程:昌东村昌东7#金家公变低压割接、电缆上杆、搭接等工作","powerTime":"2020-04-11 16:20:14","powerComm":"已送电","subsNo":"","lineNo":"","tgNo":"","tgName":null,"infoStatus":"1","orgName":"国网浙江杭州市富阳区供电公司","typeName":null,"infoStatusName":null,"dateDay":null,"orgNos":null,"nowTime":null,"countyName":null,"streetName":null,"villageName":null,"roadName":null,"communityName":null,"tranName":null,"sdLineName":null,"cityCode":"3340170","cityName":"国网浙江杭州市富阳区供电公司","provinceCode":null,"stopTime":"2020-04-11 16:30:00","powerType":"全部","powerOffArea":"110kV清泉变:昌界D542线-昌东村昌东7号金家公变低压开关后段","powerOffReason":"(低压停电信息)新登2020年上练村5#猫塘里公变等配变增容布点工程:昌东村昌东7#金家公变低压割接、电缆上杆、搭接等工作","powerOffId":"2020032731020477"}],"pageModel":{"pageNow":428,"totalCount":17788,"totalPage":1779,"tableRows":0,"pageCount":10,"beginCount":4270},"isExperi":"1"}