{"message":"","today":"2020-06-15","seleList":[{"poweroffId":2020032731020448,"sgpoweroffId":null,"subsName":"","lineName":"10kV迎丰V783线","pubTranName":"陆家村考坑,陆家村,","scope":"浙江省-杭州市-临安市-湍口镇-湍源村陆家，考坑。","startTime":"2020-04-09 07:40:00","stopDate":"2020-04-09 11:40:00","orgNo":"3340160","typeCode":"计划停电","poweroffArea":"35kV湍口变:迎丰V783线-陆家分线85#开关后段","poweroffReason":"公变增容原停电结束时间为2020-04-0913:20:00,为减少客户停电时间,加快工作进度,提前送电,现变更停电结束时间为2020-04-0911:40:00","powerTime":"2020-04-09 11:02:03","powerComm":"已送电","subsNo":"","lineNo":"","tgNo":"","tgName":null,"infoStatus":"1","orgName":"国网浙江临安市供电公司","typeName":null,"infoStatusName":null,"dateDay":null,"orgNos":null,"nowTime":null,"countyName":null,"streetName":null,"villageName":null,"roadName":null,"communityName":null,"tranName":null,"sdLineName":null,"cityCode":"3340160","cityName":"国网浙江临安市供电公司","provinceCode":null,"stopTime":"2020-04-09 11:40:00","powerType":"全部","powerOffArea":"35kV湍口变:迎丰V783线-陆家分线85#开关后段","powerOffReason":"公变增容原停电结束时间为2020-04-0913:20:00,为减少客户停电时间,加快工作进度,提前送电,现变更停电结束时间为2020-04-0911:40:00","powerOffId":"2020032731020448"},{"poweroffId":2020032731020447,"sgpoweroffId":null,"subsName":"","lineName":"10kV联高D380线","pubTranName":"灵桥村黄泥沙3#黄蒲湾公变,","scope":"浙江省-杭州市-富阳区-灵桥镇-灵桥村一带","startTime":"2020-04-08 08:45:00","stopDate":"2020-04-08 12:45:00","orgNo":"3340170","typeCode":"计划停电","poweroffArea":"110kV永春变:联高D380线-灵桥村黄泥沙3#黄蒲湾公变开关后段","poweroffReason":"江南2019年勤俭村1#村中公变等台区低压线路改造工程；10KV联高D380线富春江分线2号杆灵桥村黄泥沙3#黄蒲湾公变、更换配电屏一组、拆装进线电缆5米等工作","powerTime":"2020-04-08 12:15:30","powerComm":"已送电","subsNo":"","lineNo":"","tgNo":"","tgName":null,"infoStatus":"1","orgName":"国网浙江杭州市富阳区供电公司","typeName":null,"infoStatusName":null,"dateDay":null,"orgNos":null,"nowTime":null,"countyName":null,"streetName":null,"villageName":null,"roadName":null,"communityName":null,"tranName":null,"sdLineName":null,"cityCode":"3340170","cityName":"国网浙江杭州市富阳区供电公司","provinceCode":null,"stopTime":"2020-04-08 12:45:00","powerType":"全部","powerOffArea":"110kV永春变:联高D380线-灵桥村黄泥沙3#黄蒲湾公变开关后段","powerOffReason":"江南2019年勤俭村1#村中公变等台区低压线路改造工程；10KV联高D380线富春江分线2号杆灵桥村黄泥沙3#黄蒲湾公变、更换配电屏一组、拆装进线电缆5米等工作","powerOffId":"2020032731020447"},{"poweroffId":2020032731020446,"sgpoweroffId":null,"subsName":"","lineName":"10kV白牛V455线","pubTranName":"临安市昌化林场,腰脯高峰,","scope":"浙江省-杭州市-临安市-昌化镇-联盟村高峰水库、昌化林场一带。","startTime":"2020-04-08 08:40:00","stopDate":"2020-04-08 16:20:00","orgNo":"3340160","typeCode":"计划停电","poweroffArea":"110kV昌化变:白牛V455线-临安市昌化林场分线令克后段","poweroffReason":"配合35KV工作","powerTime":"2020-04-08 16:10:12","powerComm":"已送电","subsNo":"","lineNo":"","tgNo":"","tgName":null,"infoStatus":"1","orgName":"国网浙江临安市供电公司","typeName":null,"infoStatusName":null,"dateDay":null,"orgNos":null,"nowTime":null,"countyName":null,"streetName":null,"villageName":null,"roadName":null,"communityName":null,"tranName":null,"sdLineName":null,"cityCode":"3340160","cityName":"国网浙江临安市供电公司","provinceCode":null,"stopTime":"2020-04-08 16:20:00","powerType":"全部","powerOffArea":"110kV昌化变:白牛V455线-临安市昌化林场分线令克后段","powerOffReason":"配合35KV工作","powerOffId":"2020032731020446"},{"poweroffId":2020032731020445,"sgpoweroffId":null,"subsName":"","lineName":"10kV洪村V340线","pubTranName":"庆南村[回坞里]配变,","scope":"浙江省-杭州市-临安市-青山湖街道庆南村[回坞里]一带","startTime":"2020-04-11 08:30:00","stopDate":"2020-04-11 11:00:00","orgNo":"3340160","typeCode":"计划停电","poweroffArea":"110kV高虹变:洪村V340线57#杆庆南村回坞里分线令克","poweroffReason":"缺陷处理原停电结束时间为2020-04-1111:30:00,为减少客户停电时间,加快工作进度,提前送电,现变更停电结束时间为2020-04-1111:00:00","powerTime":"2020-04-11 10:15:20","powerComm":"已送电","subsNo":"","lineNo":"","tgNo":"","tgName":null,"infoStatus":"1","orgName":"国网浙江临安市供电公司","typeName":null,"infoStatusName":null,"dateDay":null,"orgNos":null,"nowTime":null,"countyName":null,"streetName":null,"villageName":null,"roadName":null,"communityName":null,"tranName":null,"sdLineName":null,"cityCode":"3340160","cityName":"国网浙江临安市供电公司","provinceCode":null,"stopTime":"2020-04-11 11:00:00","powerType":"全部","powerOffArea":"110kV高虹变:洪村V340线57#杆庆南村回坞里分线令克","powerOffReason":"缺陷处理原停电结束时间为2020-04-1111:30:00,为减少客户停电时间,加快工作进度,提前送电,现变更停电结束时间为2020-04-1111:00:00","powerOffId":"2020032731020445"},{"poweroffId":2020032731020444,"sgpoweroffId":null,"subsName":"","lineName":"10kV白牛V455线","pubTranName":"高犁村（后村）,","scope":"浙江省-杭州市-临安市-昌化镇-白牛高梨村一带。","startTime":"2020-04-08 07:40:00","stopDate":"2020-04-08 13:20:00","orgNo":"3340160","typeCode":"计划停电","poweroffArea":"110kV昌化变:白牛V455线-高犁后村支线令克后段","poweroffReason":"公变增容","powerTime":"2020-04-08 12:40:31","powerComm":"已送电","subsNo":"","lineNo":"","tgNo":"","tgName":null,"infoStatus":"1","orgName":"国网浙江临安市供电公司","typeName":null,"infoStatusName":null,"dateDay":null,"orgNos":null,"nowTime":null,"countyName":null,"streetName":null,"villageName":null,"roadName":null,"communityName":null,"tranName":null,"sdLineName":null,"cityCode":"3340160","cityName":"国网浙江临安市供电公司","provinceCode":null,"stopTime":"2020-04-08 13:20:00","powerType":"全部","powerOffArea":"110kV昌化变:白牛V455线-高犁后村支线令克后段","powerOffReason":"公变增容","powerOffId":"2020032731020444"},{"poweroffId":2020032731020443,"sgpoweroffId":null,"subsName":"","lineName":"10kV罗山D390线","pubTranName":"杭州富春湾新城资产运营管理有限公司1号变,","scope":"浙江省-杭州市-富阳区-灵桥镇-杭州富春湾新城资产运营管理有限公司一带","startTime":"2020-04-07 12:00:00","stopDate":"2020-04-07 16:30:00","orgNo":"3340170","typeCode":"计划停电","poweroffArea":"110kV永春变:灵埠D621线-杭州富春湾新城资产运营管理有限公司开关后段","poweroffReason":"杭州富春湾新城资产运营管理有限公司路灯变更换工程：路灯变250KVA配变更换，杆上附件拆、装等工作。","powerTime":"2020-04-07 16:21:10","powerComm":"已送电","subsNo":"","lineNo":"","tgNo":"","tgName":null,"infoStatus":"1","orgName":"国网浙江杭州市富阳区供电公司","typeName":null,"infoStatusName":null,"dateDay":null,"orgNos":null,"nowTime":null,"countyName":null,"streetName":null,"villageName":null,"roadName":null,"communityName":null,"tranName":null,"sdLineName":null,"cityCode":"3340170","cityName":"国网浙江杭州市富阳区供电公司","provinceCode":null,"stopTime":"2020-04-07 16:30:00","powerType":"全部","powerOffArea":"110kV永春变:灵埠D621线-杭州富春湾新城资产运营管理有限公司开关后段","powerOffReason":"杭州富春湾新城资产运营管理有限公司路灯变更换工程：路灯变250KVA配变更换，杆上附件拆、装等工作。","powerOffId":"2020032731020443"},{"poweroffId":2020032731020442,"sgpoweroffId":null,"subsName":"","lineName":"10kV新桥V311线","pubTranName":"下许村,","scope":"浙江省-杭州市-临安市-岛石镇-下许村一带。","startTime":"2020-04-08 07:40:00","stopDate":"2020-04-08 12:20:00","orgNo":"3340160","typeCode":"计划停电","poweroffArea":"35kV岛石变:新桥V311线-下许村配变后段","poweroffReason":"缺陷处理","powerTime":"2020-04-08 12:10:12","powerComm":"已送电","subsNo":"","lineNo":"","tgNo":"","tgName":null,"infoStatus":"1","orgName":"国网浙江临安市供电公司","typeName":null,"infoStatusName":null,"dateDay":null,"orgNos":null,"nowTime":null,"countyName":null,"streetName":null,"villageName":null,"roadName":null,"communityName":null,"tranName":null,"sdLineName":null,"cityCode":"3340160","cityName":"国网浙江临安市供电公司","provinceCode":null,"stopTime":"2020-04-08 12:20:00","powerType":"全部","powerOffArea":"35kV岛石变:新桥V311线-下许村配变后段","powerOffReason":"缺陷处理","powerOffId":"2020032731020442"},{"poweroffId":2020032731020438,"sgpoweroffId":null,"subsName":"","lineName":"10kV牧歌9600线","pubTranName":"田绿(四),田绿(六),","scope":"浙江省-杭州市-拱墅区-半山街道-田园社区(半山东路,广济路)，浙江省杭州市拱墅区朗诗田园绿郡5-11幢附近一带（先断后通，短时停电）","startTime":"2020-04-10 09:15:00","stopDate":"2020-04-10 11:50:00","orgNo":"3340101","typeCode":"计划停电","poweroffArea":"110kV华丰变:牧歌9600线首端，田绿(四)，田绿(六)之间吗，田绿四线（绿郡站-田绿三站）、绿郡站14#间隔","poweroffReason":"圣都公寓等小区老旧设备更换一期工程（CZ2019-11-023-WBPD）（城源）原停电结束时间为2020-04-1017:00:00,为减少客户停电时间,加快工作进度,提前送电,现变更停电结束时间为2020-04-1011:50:00","powerTime":"2020-04-10 11:04:59","powerComm":"已送电","subsNo":"","lineNo":"","tgNo":"","tgName":null,"infoStatus":"1","orgName":"浙江杭州电力客户服务中心","typeName":null,"infoStatusName":null,"dateDay":null,"orgNos":null,"nowTime":null,"countyName":null,"streetName":null,"villageName":null,"roadName":null,"communityName":null,"tranName":null,"sdLineName":null,"cityCode":"3340101","cityName":"浙江杭州电力客户服务中心","provinceCode":null,"stopTime":"2020-04-10 11:50:00","powerType":"全部","powerOffArea":"110kV华丰变:牧歌9600线首端，田绿(四)，田绿(六)之间吗，田绿四线（绿郡站-田绿三站）、绿郡站14#间隔","powerOffReason":"圣都公寓等小区老旧设备更换一期工程（CZ2019-11-023-WBPD）（城源）原停电结束时间为2020-04-1017:00:00,为减少客户停电时间,加快工作进度,提前送电,现变更停电结束时间为2020-04-1011:50:00","powerOffId":"2020032731020438"},{"poweroffId":2020032731020435,"sgpoweroffId":null,"subsName":"","lineName":"10kV电康V824线","pubTranName":"浙江青山湖科研创新基地投资有限公司4#,浙江青山湖科研创新基地投资有限公司,浙江青山湖科研创新基地投资有限公司3#,浙江青山湖科研创新基地投资有限公司2#,浙江青山湖科研创新基地投资有限公司5#,","scope":"浙江省-杭州市-临安市-青山湖街道-青山行政村-中电海康一带","startTime":"2020-04-10 05:30:00","stopDate":"2020-04-10 22:00:00","orgNo":"3340160","typeCode":"计划停电","poweroffArea":"110kV胜联变:电康V824线全线","poweroffReason":"胜联变检修","powerTime":"2020-04-10 21:50:34","powerComm":"已送电","subsNo":"","lineNo":"","tgNo":"","tgName":null,"infoStatus":"1","orgName":"国网浙江临安市供电公司","typeName":null,"infoStatusName":null,"dateDay":null,"orgNos":null,"nowTime":null,"countyName":null,"streetName":null,"villageName":null,"roadName":null,"communityName":null,"tranName":null,"sdLineName":null,"cityCode":"3340160","cityName":"国网浙江临安市供电公司","provinceCode":null,"stopTime":"2020-04-10 22:00:00","powerType":"全部","powerOffArea":"110kV胜联变:电康V824线全线","powerOffReason":"胜联变检修","powerOffId":"2020032731020435"},{"poweroffId":2020032731020433,"sgpoweroffId":null,"subsName":"","lineName":"10kV莫塘G072线","pubTranName":"杭州万星印务有限公司（6120134719）01号专变,天元酷迪宠物2#,仁和热熔胶2#,新华书店,杭州佰特机电有限公司400配变,杭州恒力纺织,天元酷迪宠物1#,恒达印刷（6120073845）1#变,仁和热熔胶1#,腾胜实业,","scope":"浙江省-杭州市-余杭区-星桥街道-星桥社区(杭州佰特机电有限公司,杭州恒力纺织有限公司,杭州天元宠物用品股份有限公司),星桥街道-南星社区(杭州恒达印刷包装有限公司,浙江余杭新华书店有限公司,杭州仁和热熔胶有限公司,杭州万星印务有限公司,杭州腾胜实业有限公司)","startTime":"2020-03-27 14:41:00","stopDate":"2020-03-27 20:30:00","orgNo":"3340140","typeCode":"电网故障停限电","poweroffArea":"110kV星桥变:莫塘G072线-莫塘G072线万星印务分线开关后段","poweroffReason":"高压开关跳闸 原停电结束时间为2020-03-27 16:50:00,因现场情况复杂原因,延迟送电,现变更停电结束时间为2020-03-27 20:30:00","powerTime":"2020-03-27 19:56:00","powerComm":"已送电","subsNo":"","lineNo":"","tgNo":"","tgName":null,"infoStatus":"1","orgName":"国网浙江杭州市余杭区供电有限公司","typeName":null,"infoStatusName":null,"dateDay":null,"orgNos":null,"nowTime":null,"countyName":null,"streetName":null,"villageName":null,"roadName":null,"communityName":null,"tranName":null,"sdLineName":null,"cityCode":"3340140","cityName":"国网浙江杭州市余杭区供电有限公司","provinceCode":null,"stopTime":"2020-03-27 20:30:00","powerType":"全部","powerOffArea":"110kV星桥变:莫塘G072线-莫塘G072线万星印务分线开关后段","powerOffReason":"高压开关跳闸 原停电结束时间为2020-03-27 16:50:00,因现场情况复杂原因,延迟送电,现变更停电结束时间为2020-03-27 20:30:00","powerOffId":"2020032731020433"}],"pageModel":{"pageNow":430,"totalCount":17788,"totalPage":1779,"tableRows":0,"pageCount":10,"beginCount":4290},"isExperi":"1"}