{"message":"","today":"2020-06-15","seleList":[{"poweroffId":2020032731020432,"sgpoweroffId":null,"subsName":"","lineName":"10kV能源V813线","pubTranName":"青山湖节能科技有限公司,浙江青山湖节能科技有限公司24,青山湖节能科技有限公司（T4变）,浙江青山湖节能科技有限公司22,","scope":"浙江省-杭州市-临安市-青山湖街道-青山行政村-浙江青山湖节能科技有限公司一带","startTime":"2020-04-10 05:30:00","stopDate":"2020-04-10 22:00:00","orgNo":"3340160","typeCode":"计划停电","poweroffArea":"110kV胜联变:能源V813线全线","poweroffReason":"胜联变检修","powerTime":"2020-04-10 21:50:25","powerComm":"已送电","subsNo":"","lineNo":"","tgNo":"","tgName":null,"infoStatus":"1","orgName":"国网浙江临安市供电公司","typeName":null,"infoStatusName":null,"dateDay":null,"orgNos":null,"nowTime":null,"countyName":null,"streetName":null,"villageName":null,"roadName":null,"communityName":null,"tranName":null,"sdLineName":null,"cityCode":"3340160","cityName":"国网浙江临安市供电公司","provinceCode":null,"stopTime":"2020-04-10 22:00:00","powerType":"全部","powerOffArea":"110kV胜联变:能源V813线全线","powerOffReason":"胜联变检修","powerOffId":"2020032731020432"},{"poweroffId":2020032731020428,"sgpoweroffId":null,"subsName":"","lineName":"10kV医科V823线","pubTranName":"浙江省医学科学院2#,","scope":"浙江省-杭州市-临安市-青山湖街道-胜联行政村-杭州医学院一带","startTime":"2020-04-10 05:30:00","stopDate":"2020-04-10 22:00:00","orgNo":"3340160","typeCode":"计划停电","poweroffArea":"110kV胜联变:医科V823线全线","poweroffReason":"胜联变检修","powerTime":"2020-04-10 21:50:15","powerComm":"已送电","subsNo":"","lineNo":"","tgNo":"","tgName":null,"infoStatus":"1","orgName":"国网浙江临安市供电公司","typeName":null,"infoStatusName":null,"dateDay":null,"orgNos":null,"nowTime":null,"countyName":null,"streetName":null,"villageName":null,"roadName":null,"communityName":null,"tranName":null,"sdLineName":null,"cityCode":"3340160","cityName":"国网浙江临安市供电公司","provinceCode":null,"stopTime":"2020-04-10 22:00:00","powerType":"全部","powerOffArea":"110kV胜联变:医科V823线全线","powerOffReason":"胜联变检修","powerOffId":"2020032731020428"},{"poweroffId":2020032731020426,"sgpoweroffId":null,"subsName":"","lineName":"10kV港大V820线","pubTranName":"临安德业实业投资有限公司,浙江大学2#,浙江大学4#,临安德业实业投资有限公司,","scope":"浙江省-杭州市-临安市-青山湖街道(浙江大学,青山行政村-香港大学浙江科学技术研究院)一带","startTime":"2020-04-10 05:30:00","stopDate":"2020-04-10 22:00:00","orgNo":"3340160","typeCode":"计划停电","poweroffArea":"110kV胜联变:港大V820线全线","poweroffReason":"胜联变检修","powerTime":"2020-04-10 21:50:05","powerComm":"已送电","subsNo":"","lineNo":"","tgNo":"","tgName":null,"infoStatus":"1","orgName":"国网浙江临安市供电公司","typeName":null,"infoStatusName":null,"dateDay":null,"orgNos":null,"nowTime":null,"countyName":null,"streetName":null,"villageName":null,"roadName":null,"communityName":null,"tranName":null,"sdLineName":null,"cityCode":"3340160","cityName":"国网浙江临安市供电公司","provinceCode":null,"stopTime":"2020-04-10 22:00:00","powerType":"全部","powerOffArea":"110kV胜联变:港大V820线全线","powerOffReason":"胜联变检修","powerOffId":"2020032731020426"},{"poweroffId":2020032731020425,"sgpoweroffId":null,"subsName":"","lineName":"10kV科大V825线","pubTranName":"杭州电子科技大学信息工程学院02,杭州电子科技大学信息工程学院007,杭州电子科技大学信息工程学院005,杭州电子科技大学信息工程学院03,杭州电子科技大学信息工程学院001,杭州电子科技大学信息工程学院05,杭州越秀房地产开发有限公司,杭州临安杭越酒店管理有限公司临安酒店有限公司,杭州电子科技大学信息工程学院07,杭州越秀房地产开发有限公司,杭州临安杭越酒店管理有限公司临安酒店有限公司,","scope":"浙江省-杭州市-临安市-青山湖街道(胜联行政村-杭州电子科技大学信息工程学院,青山行政村-广州越秀怡城商业运营管理有限公司临安分公司,蒋杨行政村-杭州临安杭越酒店管理有限公司临安酒店分公司)","startTime":"2020-04-10 05:30:00","stopDate":"2020-04-10 22:00:00","orgNo":"3340160","typeCode":"计划停电","poweroffArea":"110kV胜联变:科大V825线全线","poweroffReason":"胜联变检修","powerTime":"2020-04-10 21:49:53","powerComm":"已送电","subsNo":"","lineNo":"","tgNo":"","tgName":null,"infoStatus":"1","orgName":"国网浙江临安市供电公司","typeName":null,"infoStatusName":null,"dateDay":null,"orgNos":null,"nowTime":null,"countyName":null,"streetName":null,"villageName":null,"roadName":null,"communityName":null,"tranName":null,"sdLineName":null,"cityCode":"3340160","cityName":"国网浙江临安市供电公司","provinceCode":null,"stopTime":"2020-04-10 22:00:00","powerType":"全部","powerOffArea":"110kV胜联变:科大V825线全线","powerOffReason":"胜联变检修","powerOffId":"2020032731020425"},{"poweroffId":2020032731020424,"sgpoweroffId":null,"subsName":"","lineName":"10kV里桃V541线","pubTranName":"里桃村,杭州临安板桥里桃造纸厂,","scope":"浙江省-杭州市-临安市-板桥镇临安运泽纸制品厂，里桃村","startTime":"2020-04-10 08:30:00","stopDate":"2020-04-10 14:30:00","orgNo":"3340160","typeCode":"计划停电","poweroffArea":"110kV板桥变:里桃V541线193#杆里桃村分线令克","poweroffReason":"配变增容原停电结束时间为2020-04-1013:30:00,因现场工作难度大原因,延迟送电,现变更停电结束时间为2020-04-1014:30:00","powerTime":"2020-04-10 14:28:37","powerComm":"已送电","subsNo":"","lineNo":"","tgNo":"","tgName":null,"infoStatus":"1","orgName":"国网浙江临安市供电公司","typeName":null,"infoStatusName":null,"dateDay":null,"orgNos":null,"nowTime":null,"countyName":null,"streetName":null,"villageName":null,"roadName":null,"communityName":null,"tranName":null,"sdLineName":null,"cityCode":"3340160","cityName":"国网浙江临安市供电公司","provinceCode":null,"stopTime":"2020-04-10 14:30:00","powerType":"全部","powerOffArea":"110kV板桥变:里桃V541线193#杆里桃村分线令克","powerOffReason":"配变增容原停电结束时间为2020-04-1013:30:00,因现场工作难度大原因,延迟送电,现变更停电结束时间为2020-04-1014:30:00","powerOffId":"2020032731020424"},{"poweroffId":2020032731020420,"sgpoweroffId":null,"subsName":"","lineName":"10kV施家D970线","pubTranName":"江苏万环建设工程有限公司1#变,","scope":"浙江省杭州市富阳区银湖街道江苏万环建设工程有限公司一带","startTime":"2020-04-10 09:00:00","stopDate":"2020-04-10 14:40:00","orgNo":"3340170","typeCode":"计划停电","poweroffArea":"110kV九龙变:施家D970线-江苏万环建设工程有限公司后段","poweroffReason":"配合客户内部检修","powerTime":"2020-04-10 14:28:28","powerComm":"已送电","subsNo":"","lineNo":"","tgNo":"","tgName":null,"infoStatus":"1","orgName":"国网浙江杭州市富阳区供电公司","typeName":null,"infoStatusName":null,"dateDay":null,"orgNos":null,"nowTime":null,"countyName":null,"streetName":null,"villageName":null,"roadName":null,"communityName":null,"tranName":null,"sdLineName":null,"cityCode":"3340170","cityName":"国网浙江杭州市富阳区供电公司","provinceCode":null,"stopTime":"2020-04-10 14:40:00","powerType":"全部","powerOffArea":"110kV九龙变:施家D970线-江苏万环建设工程有限公司后段","powerOffReason":"配合客户内部检修","powerOffId":"2020032731020420"},{"poweroffId":2020032731020412,"sgpoweroffId":null,"subsName":"","lineName":"10kV上陈D295线","pubTranName":"杭州市千岛湖原水股份有限公司1#变,","scope":"浙江省杭州市富阳区银湖街道千岛湖源水股份有限公司一带","startTime":"2020-04-09 09:00:00","stopDate":"2020-04-09 17:00:00","orgNo":"3340170","typeCode":"计划停电","poweroffArea":"35kV新义变:上陈D295线-水利基建支线后段","poweroffReason":"千岛湖源水电力迁改工程：周公坞分线81#杆移位，分支线改接等工作","powerTime":"2020-04-09 16:38:09","powerComm":"已送电","subsNo":"","lineNo":"","tgNo":"","tgName":null,"infoStatus":"1","orgName":"国网浙江杭州市富阳区供电公司","typeName":null,"infoStatusName":null,"dateDay":null,"orgNos":null,"nowTime":null,"countyName":null,"streetName":null,"villageName":null,"roadName":null,"communityName":null,"tranName":null,"sdLineName":null,"cityCode":"3340170","cityName":"国网浙江杭州市富阳区供电公司","provinceCode":null,"stopTime":"2020-04-09 17:00:00","powerType":"全部","powerOffArea":"35kV新义变:上陈D295线-水利基建支线后段","powerOffReason":"千岛湖源水电力迁改工程：周公坞分线81#杆移位，分支线改接等工作","powerOffId":"2020032731020412"},{"poweroffId":2020032731020409,"sgpoweroffId":null,"subsName":"","lineName":"10kV桥头V410线","pubTranName":"青山斜阳村（1）,","scope":"浙江省-杭州市-临安市-青山湖街道青山斜阳村一带","startTime":"2020-04-08 08:30:00","stopDate":"2020-04-08 15:30:00","orgNo":"3340160","typeCode":"计划停电","poweroffArea":"110kV石泉变:停桥头V410线斜阳分线27#杆斜阳村（1）支线令克","poweroffReason":"配变增容","powerTime":"2020-04-08 15:20:19","powerComm":"已送电","subsNo":"","lineNo":"","tgNo":"","tgName":null,"infoStatus":"1","orgName":"国网浙江临安市供电公司","typeName":null,"infoStatusName":null,"dateDay":null,"orgNos":null,"nowTime":null,"countyName":null,"streetName":null,"villageName":null,"roadName":null,"communityName":null,"tranName":null,"sdLineName":null,"cityCode":"3340160","cityName":"国网浙江临安市供电公司","provinceCode":null,"stopTime":"2020-04-08 15:30:00","powerType":"全部","powerOffArea":"110kV石泉变:停桥头V410线斜阳分线27#杆斜阳村（1）支线令克","powerOffReason":"配变增容","powerOffId":"2020032731020409"},{"poweroffId":2020032731020406,"sgpoweroffId":null,"subsName":"","lineName":"10kV高湖D594线","pubTranName":"杭州富阳工贸资产经营投资集团有限公司1#变,","scope":"浙江省杭州市富阳区银湖街道新桥村工贸资产经营投资集团有限公司一带","startTime":"2020-04-08 08:45:00","stopDate":"2020-04-08 14:15:00","orgNo":"3340170","typeCode":"计划停电","poweroffArea":"110kV高桥变:高湖D594线-杭州富阳工贸资产经营投资集团有限公司后段","poweroffReason":"工贸资产线路移位工程：10kV高湖D594线28#杆高长联线25#杆德莱涂料分线8#杆章墩支线12#杆工贸二支线线路移位等工作","powerTime":"2020-04-08 13:46:03","powerComm":"已送电","subsNo":"","lineNo":"","tgNo":"","tgName":null,"infoStatus":"1","orgName":"国网浙江杭州市富阳区供电公司","typeName":null,"infoStatusName":null,"dateDay":null,"orgNos":null,"nowTime":null,"countyName":null,"streetName":null,"villageName":null,"roadName":null,"communityName":null,"tranName":null,"sdLineName":null,"cityCode":"3340170","cityName":"国网浙江杭州市富阳区供电公司","provinceCode":null,"stopTime":"2020-04-08 14:15:00","powerType":"全部","powerOffArea":"110kV高桥变:高湖D594线-杭州富阳工贸资产经营投资集团有限公司后段","powerOffReason":"工贸资产线路移位工程：10kV高湖D594线28#杆高长联线25#杆德莱涂料分线8#杆章墩支线12#杆工贸二支线线路移位等工作","powerOffId":"2020032731020406"},{"poweroffId":2020032731020405,"sgpoweroffId":null,"subsName":"","lineName":"10kV石门V353线","pubTranName":"水涛庄村(大林寺),","scope":"浙江省-杭州市-临安市-高虹镇-虹桥行政村水涛庄村(大林寺)一带","startTime":"2020-04-07 08:30:00","stopDate":"2020-04-07 10:45:00","orgNo":"3340160","typeCode":"计划停电","poweroffArea":"110kV高虹变:石门V353线55#杆水涛庄村大林寺配变令克以后","poweroffReason":"配变增容 原停电结束时间为2020-04-07 15:00:00,为减少客户停电时间,加快工作进度,提前送电,现变更停电结束时间为2020-04-07 10:45:00","powerTime":"2020-04-07 10:11:45","powerComm":"已送电","subsNo":"","lineNo":"","tgNo":"","tgName":null,"infoStatus":"1","orgName":"国网浙江临安市供电公司","typeName":null,"infoStatusName":null,"dateDay":null,"orgNos":null,"nowTime":null,"countyName":null,"streetName":null,"villageName":null,"roadName":null,"communityName":null,"tranName":null,"sdLineName":null,"cityCode":"3340160","cityName":"国网浙江临安市供电公司","provinceCode":null,"stopTime":"2020-04-07 10:45:00","powerType":"全部","powerOffArea":"110kV高虹变:石门V353线55#杆水涛庄村大林寺配变令克以后","powerOffReason":"配变增容 原停电结束时间为2020-04-07 15:00:00,为减少客户停电时间,加快工作进度,提前送电,现变更停电结束时间为2020-04-07 10:45:00","powerOffId":"2020032731020405"}],"pageModel":{"pageNow":431,"totalCount":17788,"totalPage":1779,"tableRows":0,"pageCount":10,"beginCount":4300},"isExperi":"1"}