{"message":"","today":"2020-06-15","seleList":[{"poweroffId":2020032731020268,"sgpoweroffId":null,"subsName":"","lineName":"10kV沈家D212线","pubTranName":"高桥村14#高桥南路西2公变,","scope":"浙江省-杭州市-富阳区-银湖街道-高桥行政村(高桥南路,高桥西路,高桥自然村高桥新路,高桥自然村)","startTime":"2020-03-27 12:29:27","stopDate":"2020-03-27 13:59:27","orgNo":"3340170","typeCode":"电网故障停限电","poweroffArea":"110kV银湖变:沈家D212线-高桥村14#高桥南路西2公变后段","poweroffReason":"(低压停电信息)低压开关跳闸","powerTime":"2020-03-27 13:28:09","powerComm":"已送电","subsNo":"","lineNo":"","tgNo":"","tgName":null,"infoStatus":"1","orgName":"国网浙江杭州市富阳区供电公司","typeName":null,"infoStatusName":null,"dateDay":null,"orgNos":null,"nowTime":null,"countyName":null,"streetName":null,"villageName":null,"roadName":null,"communityName":null,"tranName":null,"sdLineName":null,"cityCode":"3340170","cityName":"国网浙江杭州市富阳区供电公司","provinceCode":null,"stopTime":"2020-03-27 13:59:27","powerType":"全部","powerOffArea":"110kV银湖变:沈家D212线-高桥村14#高桥南路西2公变后段","powerOffReason":"(低压停电信息)低压开关跳闸","powerOffId":"2020032731020268"},{"poweroffId":2020032731020266,"sgpoweroffId":null,"subsName":"","lineName":"10kV长树G664线","pubTranName":"长树3组（杨家塘）2号公变,","scope":"浙江省-杭州市-余杭区-南苑街道-长树社区(长树自然村,长树,杨家埭自然村)","startTime":"2020-03-27 12:25:08","stopDate":"2020-03-27 15:25:00","orgNo":"3340140","typeCode":"电网故障停限电","poweroffArea":"110kV南苑变:长树G664线-长树3组（杨家塘）2#公变后段","poweroffReason":"高压开关跳闸 原停电结束时间为2020-03-27 14:25:08,因现场情况复杂原因,延迟送电,现变更停电结束时间为2020-03-27 15:25:00","powerTime":"2020-03-27 14:51:00","powerComm":"已送电","subsNo":"","lineNo":"","tgNo":"","tgName":null,"infoStatus":"1","orgName":"国网浙江杭州市余杭区供电有限公司","typeName":null,"infoStatusName":null,"dateDay":null,"orgNos":null,"nowTime":null,"countyName":null,"streetName":null,"villageName":null,"roadName":null,"communityName":null,"tranName":null,"sdLineName":null,"cityCode":"3340140","cityName":"国网浙江杭州市余杭区供电有限公司","provinceCode":null,"stopTime":"2020-03-27 15:25:00","powerType":"全部","powerOffArea":"110kV南苑变:长树G664线-长树3组（杨家塘）2#公变后段","powerOffReason":"高压开关跳闸 原停电结束时间为2020-03-27 14:25:08,因现场情况复杂原因,延迟送电,现变更停电结束时间为2020-03-27 15:25:00","powerOffId":"2020032731020266"},{"poweroffId":2020032731020239,"sgpoweroffId":null,"subsName":"","lineName":"10kV清水6017线","pubTranName":"杭州市水业集团有限公司2#,杭州市水业集团有限公司,杭州市水业集团有限公司1#,07,杭州市水业集团有限公司,杭州市水业集团有限公司,杭州市水业集团有限公司3#,08,","scope":"浙江省-杭州市-上城区-望江街道水务集团有限公司清泰水厂双路单侧","startTime":"2020-04-10 08:30:00","stopDate":"2020-04-10 15:00:00","orgNo":"3340101","typeCode":"计划停电","poweroffArea":"110kV望江变:清水6017线","poweroffReason":"清泰水厂10千伏清水6017线检修、继保试验（牟中）当天恢复原停电结束时间为2020-04-1017:00:00,为减少客户停电时间,加快工作进度,提前送电,现变更停电结束时间为2020-04-1015:00:00","powerTime":"2020-04-10 14:23:59","powerComm":"已送电","subsNo":"","lineNo":"","tgNo":"","tgName":null,"infoStatus":"1","orgName":"浙江杭州电力客户服务中心","typeName":null,"infoStatusName":null,"dateDay":null,"orgNos":null,"nowTime":null,"countyName":null,"streetName":null,"villageName":null,"roadName":null,"communityName":null,"tranName":null,"sdLineName":null,"cityCode":"3340101","cityName":"浙江杭州电力客户服务中心","provinceCode":null,"stopTime":"2020-04-10 15:00:00","powerType":"全部","powerOffArea":"110kV望江变:清水6017线","powerOffReason":"清泰水厂10千伏清水6017线检修、继保试验（牟中）当天恢复原停电结束时间为2020-04-1017:00:00,为减少客户停电时间,加快工作进度,提前送电,现变更停电结束时间为2020-04-1015:00:00","powerOffId":"2020032731020239"},{"poweroffId":2020032731020238,"sgpoweroffId":null,"subsName":"","lineName":"10kV泉校6728线","pubTranName":"浙江大学玉泉校区,浙江大学玉泉校区,浙江大学玉泉校区,浙江大学玉泉校区,浙江大学玉泉校区,浙江大学玉泉校区,浙江大学玉泉校区,浙江大学玉泉校区,03,","scope":"浙江省-杭州市-西湖区-灵隐街道浙江大学双路单侧","startTime":"2020-04-10 09:00:00","stopDate":"2020-04-10 17:00:00","orgNo":"3340101","typeCode":"计划停电","poweroffArea":"110kV黄体变:泉校6728线-泉校6728线开关后段","poweroffReason":"杭州地铁10号线玉古路站10kV电力迁改一期工程（丰安）CZ2019-03-059-YXQQ洪春6715线电缆迁改","powerTime":"2020-04-10 16:35:06","powerComm":"已送电","subsNo":"","lineNo":"","tgNo":"","tgName":null,"infoStatus":"1","orgName":"浙江杭州电力客户服务中心","typeName":null,"infoStatusName":null,"dateDay":null,"orgNos":null,"nowTime":null,"countyName":null,"streetName":null,"villageName":null,"roadName":null,"communityName":null,"tranName":null,"sdLineName":null,"cityCode":"3340101","cityName":"浙江杭州电力客户服务中心","provinceCode":null,"stopTime":"2020-04-10 17:00:00","powerType":"全部","powerOffArea":"110kV黄体变:泉校6728线-泉校6728线开关后段","powerOffReason":"杭州地铁10号线玉古路站10kV电力迁改一期工程（丰安）CZ2019-03-059-YXQQ洪春6715线电缆迁改","powerOffId":"2020032731020238"},{"poweroffId":2020032731020237,"sgpoweroffId":null,"subsName":"","lineName":"10kV书院6727线","pubTranName":"专变11,9,专变12,专变4,专变7,8,16,专变1,专变8,专变9,专变5,专变2,浙大专变,专变10,","scope":"浙江省-杭州市-西湖区-灵隐街道-浙江大学双路单侧","startTime":"2020-04-09 09:00:00","stopDate":"2020-04-09 18:00:00","orgNo":"3340101","typeCode":"计划停电","poweroffArea":"110kV黄体变:书院6727线-书院6727线开关后段","poweroffReason":"杭州地铁10号线玉古路站10kV电力迁改一期工程（丰安）CZ2019-03-059-YXQQ书院6727线电缆迁改原停电结束时间为2020-04-0917:00:00,因工作量大原因,延迟送电,现变更停电结束时间为2020-04-0918:00:00","powerTime":"2020-04-09 17:26:46","powerComm":"已送电","subsNo":"","lineNo":"","tgNo":"","tgName":null,"infoStatus":"1","orgName":"浙江杭州电力客户服务中心","typeName":null,"infoStatusName":null,"dateDay":null,"orgNos":null,"nowTime":null,"countyName":null,"streetName":null,"villageName":null,"roadName":null,"communityName":null,"tranName":null,"sdLineName":null,"cityCode":"3340101","cityName":"浙江杭州电力客户服务中心","provinceCode":null,"stopTime":"2020-04-09 18:00:00","powerType":"全部","powerOffArea":"110kV黄体变:书院6727线-书院6727线开关后段","powerOffReason":"杭州地铁10号线玉古路站10kV电力迁改一期工程（丰安）CZ2019-03-059-YXQQ书院6727线电缆迁改原停电结束时间为2020-04-0917:00:00,因工作量大原因,延迟送电,现变更停电结束时间为2020-04-0918:00:00","powerOffId":"2020032731020237"},{"poweroffId":2020032731020235,"sgpoweroffId":null,"subsName":"","lineName":"10kV海狮6443线","pubTranName":"红峰,","scope":"浙江省-杭州市-下城区-潮鸣街道红雷丝织厂","startTime":"2020-04-07 13:30:00","stopDate":"2020-04-07 17:00:00","orgNo":"3340101","typeCode":"计划停电","poweroffArea":"110kV新华变:海狮6443线-红峰后段","poweroffReason":"用户高压增容，原有单路供电，容量630KVA，现增容至2台800KVA，双路供电。原电源：10kV建区站2#间隔，原老电缆当天拆头，新上一路电源：10kV所巷站2#间隔，搭头通电（原老电缆拆头，新电缆搭头通电）","powerTime":"2020-04-07 16:14:59","powerComm":"已送电","subsNo":"","lineNo":"","tgNo":"","tgName":null,"infoStatus":"1","orgName":"浙江杭州电力客户服务中心","typeName":null,"infoStatusName":null,"dateDay":null,"orgNos":null,"nowTime":null,"countyName":null,"streetName":null,"villageName":null,"roadName":null,"communityName":null,"tranName":null,"sdLineName":null,"cityCode":"3340101","cityName":"浙江杭州电力客户服务中心","provinceCode":null,"stopTime":"2020-04-07 17:00:00","powerType":"全部","powerOffArea":"110kV新华变:海狮6443线-红峰后段","powerOffReason":"用户高压增容，原有单路供电，容量630KVA，现增容至2台800KVA，双路供电。原电源：10kV建区站2#间隔，原老电缆当天拆头，新上一路电源：10kV所巷站2#间隔，搭头通电（原老电缆拆头，新电缆搭头通电）","powerOffId":"2020032731020235"},{"poweroffId":2020032731020215,"sgpoweroffId":null,"subsName":"","lineName":"10kV新春D938线","pubTranName":"春建村蟠山垅4号公变,春建村蟠山垅10号公变,","scope":"浙江省-杭州市-富阳区-春建乡-春建行政村(上高自然村,下高自然村,蟠山垄自然村)","startTime":"2020-04-11 08:30:00","stopDate":"2020-04-11 17:00:00","orgNo":"3340170","typeCode":"计划停电","poweroffArea":"110kV育才变:新春D938线首端，春建村蟠山垅4号后段，春建村蟠山垅10号后段","poweroffReason":"(低压停电信息)春建村蟠山垅4#公变0.4kV1线、2线，春建村蟠山垅10#公变0.4kV1线、2线割接","powerTime":"2020-04-11 16:51:58","powerComm":"已送电","subsNo":"","lineNo":"","tgNo":"","tgName":null,"infoStatus":"1","orgName":"国网浙江杭州市富阳区供电公司","typeName":null,"infoStatusName":null,"dateDay":null,"orgNos":null,"nowTime":null,"countyName":null,"streetName":null,"villageName":null,"roadName":null,"communityName":null,"tranName":null,"sdLineName":null,"cityCode":"3340170","cityName":"国网浙江杭州市富阳区供电公司","provinceCode":null,"stopTime":"2020-04-11 17:00:00","powerType":"全部","powerOffArea":"110kV育才变:新春D938线首端，春建村蟠山垅4号后段，春建村蟠山垅10号后段","powerOffReason":"(低压停电信息)春建村蟠山垅4#公变0.4kV1线、2线，春建村蟠山垅10#公变0.4kV1线、2线割接","powerOffId":"2020032731020215"},{"poweroffId":2020032731020213,"sgpoweroffId":null,"subsName":"","lineName":"10kV店口D941线","pubTranName":"店口村3#店口下公变,","scope":"浙江省-杭州市-富阳区-富春街道-三桥行政村-店口自然村","startTime":"2020-04-11 08:00:00","stopDate":"2020-04-11 16:40:00","orgNo":"3340170","typeCode":"计划停电","poweroffArea":"110kV育才变:店口D941线-店口村3#店口下后段","poweroffReason":"(低压停电信息)青云2020年龙星村5#罗家岭公变等低压线路改造工程更换落户线20处，搭接等工作","powerTime":"2020-04-11 16:29:12","powerComm":"已送电","subsNo":"","lineNo":"","tgNo":"","tgName":null,"infoStatus":"1","orgName":"国网浙江杭州市富阳区供电公司","typeName":null,"infoStatusName":null,"dateDay":null,"orgNos":null,"nowTime":null,"countyName":null,"streetName":null,"villageName":null,"roadName":null,"communityName":null,"tranName":null,"sdLineName":null,"cityCode":"3340170","cityName":"国网浙江杭州市富阳区供电公司","provinceCode":null,"stopTime":"2020-04-11 16:40:00","powerType":"全部","powerOffArea":"110kV育才变:店口D941线-店口村3#店口下后段","powerOffReason":"(低压停电信息)青云2020年龙星村5#罗家岭公变等低压线路改造工程更换落户线20处，搭接等工作","powerOffId":"2020032731020213"},{"poweroffId":2020032731020212,"sgpoweroffId":null,"subsName":"","lineName":"10kV三联D943线","pubTranName":"龙星村6号甘溪里公变,","scope":"浙江省-杭州市-富阳区-富春街道-三桥行政村(甘溪自然村,店口自然村,龙星自然村)","startTime":"2020-04-10 08:00:00","stopDate":"2020-04-10 16:40:00","orgNo":"3340170","typeCode":"计划停电","poweroffArea":"110kV育才变:住光D946线-龙星村6号甘溪里后段","poweroffReason":"(低压停电信息)青云2020年龙星村5#罗家岭公变等低压线路改造工程架设1kV70*4*1档，更换落户线13处，搭接等工作","powerTime":"2020-04-10 16:26:53","powerComm":"已送电","subsNo":"","lineNo":"","tgNo":"","tgName":null,"infoStatus":"1","orgName":"国网浙江杭州市富阳区供电公司","typeName":null,"infoStatusName":null,"dateDay":null,"orgNos":null,"nowTime":null,"countyName":null,"streetName":null,"villageName":null,"roadName":null,"communityName":null,"tranName":null,"sdLineName":null,"cityCode":"3340170","cityName":"国网浙江杭州市富阳区供电公司","provinceCode":null,"stopTime":"2020-04-10 16:40:00","powerType":"全部","powerOffArea":"110kV育才变:住光D946线-龙星村6号甘溪里后段","powerOffReason":"(低压停电信息)青云2020年龙星村5#罗家岭公变等低压线路改造工程架设1kV70*4*1档，更换落户线13处，搭接等工作","powerOffId":"2020032731020212"},{"poweroffId":2020032731020210,"sgpoweroffId":null,"subsName":"","lineName":"10kV三联D943线","pubTranName":"龙星村1#罗家岭公变,","scope":"浙江省-杭州市-富阳区-富春街道-三桥行政村(甘溪自然村,罗家岭自然村,龙星自然村)","startTime":"2020-04-08 08:00:00","stopDate":"2020-04-08 16:40:00","orgNo":"3340170","typeCode":"计划停电","poweroffArea":"110kV育才变:三联D943线-龙星村1#罗家岭后段","poweroffReason":"(低压停电信息)青云2020年龙星村5#罗家岭公变等低压线路改造工程拆旧，吊车拔立杆1支，架设1kV70*4*4档，更换落户线6处，搭接等工作","powerTime":"2020-04-08 16:10:29","powerComm":"已送电","subsNo":"","lineNo":"","tgNo":"","tgName":null,"infoStatus":"1","orgName":"国网浙江杭州市富阳区供电公司","typeName":null,"infoStatusName":null,"dateDay":null,"orgNos":null,"nowTime":null,"countyName":null,"streetName":null,"villageName":null,"roadName":null,"communityName":null,"tranName":null,"sdLineName":null,"cityCode":"3340170","cityName":"国网浙江杭州市富阳区供电公司","provinceCode":null,"stopTime":"2020-04-08 16:40:00","powerType":"全部","powerOffArea":"110kV育才变:三联D943线-龙星村1#罗家岭后段","powerOffReason":"(低压停电信息)青云2020年龙星村5#罗家岭公变等低压线路改造工程拆旧，吊车拔立杆1支，架设1kV70*4*4档，更换落户线6处，搭接等工作","powerOffId":"2020032731020210"}],"pageModel":{"pageNow":435,"totalCount":17788,"totalPage":1779,"tableRows":0,"pageCount":10,"beginCount":4340},"isExperi":"1"}