{"message":"","today":"2020-06-15","seleList":[{"poweroffId":2020032731020122,"sgpoweroffId":null,"subsName":"","lineName":"10kV长阳9791线","pubTranName":"水滟(一),","scope":"浙江省-杭州市-拱墅区-祥符街道-秀水社区-长阳路","startTime":"2020-03-27 09:38:30","stopDate":"2020-03-27 11:05:00","orgNo":"3340101","typeCode":"电网故障停限电","poweroffArea":"110kV红旗变:长阳9791线水滟(一)配变","poweroffReason":"高压开关跳闸 原停电结束时间为2020-03-27 13:29:00,为减少客户停电时间,加快工作进度,提前送电,现变更停电结束时间为2020-03-27 11:05:00","powerTime":"2020-03-27 10:30:08","powerComm":"已送电","subsNo":"","lineNo":"","tgNo":"","tgName":null,"infoStatus":"1","orgName":"浙江杭州电力客户服务中心","typeName":null,"infoStatusName":null,"dateDay":null,"orgNos":null,"nowTime":null,"countyName":null,"streetName":null,"villageName":null,"roadName":null,"communityName":null,"tranName":null,"sdLineName":null,"cityCode":"3340101","cityName":"浙江杭州电力客户服务中心","provinceCode":null,"stopTime":"2020-03-27 11:05:00","powerType":"全部","powerOffArea":"110kV红旗变:长阳9791线水滟(一)配变","powerOffReason":"高压开关跳闸 原停电结束时间为2020-03-27 13:29:00,为减少客户停电时间,加快工作进度,提前送电,现变更停电结束时间为2020-03-27 11:05:00","powerOffId":"2020032731020122"},{"poweroffId":2020032731020121,"sgpoweroffId":null,"subsName":"","lineName":"10kV行堂H465线","pubTranName":"行宫塘农居点2-1#公变,","scope":"浙江省-杭州市-余杭区-良渚街道行宫塘农居点2-1#公变","startTime":"2020-04-07 09:00:00","stopDate":"2020-04-07 10:40:00","orgNo":"3340140","typeCode":"计划停电","poweroffArea":"110kV金渡变:行堂H465线-行宫塘农居点一带","poweroffReason":"(低压停电信息)行宫塘农居点2-1#公变2-1-4分支箱、行宫塘农居点2-2#公变2-2-1分支箱电缆拆除","powerTime":"2020-04-07 10:21:37","powerComm":"已送电","subsNo":"","lineNo":"","tgNo":"","tgName":null,"infoStatus":"1","orgName":"国网浙江杭州市余杭区供电有限公司","typeName":null,"infoStatusName":null,"dateDay":null,"orgNos":null,"nowTime":null,"countyName":null,"streetName":null,"villageName":null,"roadName":null,"communityName":null,"tranName":null,"sdLineName":null,"cityCode":"3340140","cityName":"国网浙江杭州市余杭区供电有限公司","provinceCode":null,"stopTime":"2020-04-07 10:40:00","powerType":"全部","powerOffArea":"110kV金渡变:行堂H465线-行宫塘农居点一带","powerOffReason":"(低压停电信息)行宫塘农居点2-1#公变2-1-4分支箱、行宫塘农居点2-2#公变2-2-1分支箱电缆拆除","powerOffId":"2020032731020121"},{"poweroffId":2020032731020119,"sgpoweroffId":null,"subsName":"","lineName":"10kV行堂H465线","pubTranName":"行宫塘农居点2-2#公变,","scope":"浙江省-杭州市-余杭区-良渚街道行宫塘农居点2-2#公变","startTime":"2020-04-07 09:00:00","stopDate":"2020-04-07 10:40:00","orgNo":"3340140","typeCode":"计划停电","poweroffArea":"110kV金渡变:行堂H465线-行宫塘农居点一带","poweroffReason":"(低压停电信息)行宫塘农居点2-1#公变2-1-4分支箱、行宫塘农居点2-2#公变2-2-1分支箱电缆拆除","powerTime":"2020-04-07 10:21:18","powerComm":"已送电","subsNo":"","lineNo":"","tgNo":"","tgName":null,"infoStatus":"1","orgName":"国网浙江杭州市余杭区供电有限公司","typeName":null,"infoStatusName":null,"dateDay":null,"orgNos":null,"nowTime":null,"countyName":null,"streetName":null,"villageName":null,"roadName":null,"communityName":null,"tranName":null,"sdLineName":null,"cityCode":"3340140","cityName":"国网浙江杭州市余杭区供电有限公司","provinceCode":null,"stopTime":"2020-04-07 10:40:00","powerType":"全部","powerOffArea":"110kV金渡变:行堂H465线-行宫塘农居点一带","powerOffReason":"(低压停电信息)行宫塘农居点2-1#公变2-1-4分支箱、行宫塘农居点2-2#公变2-2-1分支箱电缆拆除","powerOffId":"2020032731020119"},{"poweroffId":2020032731020108,"sgpoweroffId":null,"subsName":"","lineName":"10kV长阳9791线","pubTranName":"水滟(十一),水滟(五),","scope":"浙江省-杭州市-拱墅区-祥符街道-秀水社区-长阳路","startTime":"2020-03-27 09:22:00","stopDate":"2020-03-27 11:00:00","orgNo":"3340101","typeCode":"电网故障停限电","poweroffArea":"110kV红旗变:长阳9791线水滟十一站水滟三线后段","poweroffReason":"高压开关跳闸 原停电结束时间为2020-03-27 13:22:00,为减少客户停电时间,加快工作进度,提前送电,现变更停电结束时间为2020-03-27 11:00:00","powerTime":"2020-03-27 10:24:29","powerComm":"已送电","subsNo":"","lineNo":"","tgNo":"","tgName":null,"infoStatus":"1","orgName":"浙江杭州电力客户服务中心","typeName":null,"infoStatusName":null,"dateDay":null,"orgNos":null,"nowTime":null,"countyName":null,"streetName":null,"villageName":null,"roadName":null,"communityName":null,"tranName":null,"sdLineName":null,"cityCode":"3340101","cityName":"浙江杭州电力客户服务中心","provinceCode":null,"stopTime":"2020-03-27 11:00:00","powerType":"全部","powerOffArea":"110kV红旗变:长阳9791线水滟十一站水滟三线后段","powerOffReason":"高压开关跳闸 原停电结束时间为2020-03-27 13:22:00,为减少客户停电时间,加快工作进度,提前送电,现变更停电结束时间为2020-03-27 11:00:00","powerOffId":"2020032731020108"},{"poweroffId":2020032731020103,"sgpoweroffId":null,"subsName":"","lineName":"10kV都滟9795线","pubTranName":"水滟(七),水滟(九),","scope":"浙江省-杭州市-拱墅区-祥符街道-秀水社区-长阳路","startTime":"2020-03-27 09:22:00","stopDate":"2020-03-27 11:00:00","orgNo":"3340101","typeCode":"电网故障停限电","poweroffArea":"110kV红旗变:都滟9795线水滟九站水滟一线后段","poweroffReason":"高压开关跳闸 原停电结束时间为2020-03-27 13:22:00,为减少客户停电时间,加快工作进度,提前送电,现变更停电结束时间为2020-03-27 11:00:00","powerTime":"2020-03-27 10:21:45","powerComm":"已送电","subsNo":"","lineNo":"","tgNo":"","tgName":null,"infoStatus":"1","orgName":"浙江杭州电力客户服务中心","typeName":null,"infoStatusName":null,"dateDay":null,"orgNos":null,"nowTime":null,"countyName":null,"streetName":null,"villageName":null,"roadName":null,"communityName":null,"tranName":null,"sdLineName":null,"cityCode":"3340101","cityName":"浙江杭州电力客户服务中心","provinceCode":null,"stopTime":"2020-03-27 11:00:00","powerType":"全部","powerOffArea":"110kV红旗变:都滟9795线水滟九站水滟一线后段","powerOffReason":"高压开关跳闸 原停电结束时间为2020-03-27 13:22:00,为减少客户停电时间,加快工作进度,提前送电,现变更停电结束时间为2020-03-27 11:00:00","powerOffId":"2020032731020103"},{"poweroffId":2020032731020094,"sgpoweroffId":null,"subsName":"","lineName":"10kV东影A667线","pubTranName":"宁北村16#变,","scope":"浙江省-杭州市-萧山区-宁围镇-宁围街道-二桥行政村-宁北自然村等一带","startTime":"2020-03-27 09:14:59","stopDate":"2020-03-27 12:14:59","orgNo":"3340130","typeCode":"电网故障停限电","poweroffArea":"110kV东霖变:东影A667线-宁北村16#变台区低压开关","poweroffReason":"(低压停电信息)低压漏电保护器短路故障","powerTime":"2020-03-27 11:35:49","powerComm":"已送电","subsNo":"","lineNo":"","tgNo":"","tgName":null,"infoStatus":"1","orgName":"国网浙江杭州市萧山区供电有限公司","typeName":null,"infoStatusName":null,"dateDay":null,"orgNos":null,"nowTime":null,"countyName":null,"streetName":null,"villageName":null,"roadName":null,"communityName":null,"tranName":null,"sdLineName":null,"cityCode":"3340130","cityName":"国网浙江杭州市萧山区供电有限公司","provinceCode":null,"stopTime":"2020-03-27 12:14:59","powerType":"全部","powerOffArea":"110kV东霖变:东影A667线-宁北村16#变台区低压开关","powerOffReason":"(低压停电信息)低压漏电保护器短路故障","powerOffId":"2020032731020094"},{"poweroffId":2020032731020086,"sgpoweroffId":null,"subsName":"","lineName":"10kV城清9921线","pubTranName":"滨城六变,","scope":"浙江省-杭州市-江干区-四季青街道-钱杭社区-城星路","startTime":"2020-03-27 09:11:57","stopDate":"2020-03-27 12:11:57","orgNo":"3340101","typeCode":"电网故障停限电","poweroffArea":"110kV时代变:城清9921线-滨城六变后段","poweroffReason":"高压开关跳闸 原停电结束时间为2020-03-27 14:11:57,为减少客户停电时间,加快工作进度,提前送电,现变更停电结束时间为2020-03-27 12:11:57","powerTime":"2020-03-27 11:38:56","powerComm":"已送电","subsNo":"","lineNo":"","tgNo":"","tgName":null,"infoStatus":"1","orgName":"浙江杭州电力客户服务中心","typeName":null,"infoStatusName":null,"dateDay":null,"orgNos":null,"nowTime":null,"countyName":null,"streetName":null,"villageName":null,"roadName":null,"communityName":null,"tranName":null,"sdLineName":null,"cityCode":"3340101","cityName":"浙江杭州电力客户服务中心","provinceCode":null,"stopTime":"2020-03-27 12:11:57","powerType":"全部","powerOffArea":"110kV时代变:城清9921线-滨城六变后段","powerOffReason":"高压开关跳闸 原停电结束时间为2020-03-27 14:11:57,为减少客户停电时间,加快工作进度,提前送电,现变更停电结束时间为2020-03-27 12:11:57","powerOffId":"2020032731020086"},{"poweroffId":2020032731020083,"sgpoweroffId":null,"subsName":"","lineName":"10kV东桦6325线","pubTranName":"胜利二,","scope":"浙江省杭州市西湖区双浦镇东江嘴村一带部分用户（胜利二变北侧赵家169号一带）","startTime":"2020-04-03 10:00:00","stopDate":"2020-04-03 15:00:00","orgNo":"3340101","typeCode":"计划停电","poweroffArea":"110kV转塘变:东桦6325线-胜利二后段","poweroffReason":"(低压停电信息)双浦镇东江嘴村赵家169号表计新装（12KW）","powerTime":"2020-04-03 14:05:33","powerComm":"已送电","subsNo":"","lineNo":"","tgNo":"","tgName":null,"infoStatus":"1","orgName":"浙江杭州电力客户服务中心","typeName":null,"infoStatusName":null,"dateDay":null,"orgNos":null,"nowTime":null,"countyName":null,"streetName":null,"villageName":null,"roadName":null,"communityName":null,"tranName":null,"sdLineName":null,"cityCode":"3340101","cityName":"浙江杭州电力客户服务中心","provinceCode":null,"stopTime":"2020-04-03 15:00:00","powerType":"全部","powerOffArea":"110kV转塘变:东桦6325线-胜利二后段","powerOffReason":"(低压停电信息)双浦镇东江嘴村赵家169号表计新装（12KW）","powerOffId":"2020032731020083"},{"poweroffId":2020032731020047,"sgpoweroffId":null,"subsName":"","lineName":"10kV株林D243线","pubTranName":"浙江城投建设有限公司 1#,杭州富耀置业有限公司2#变,杭州富耀置业有限公司1#变,杭州涌都房地产开发有限公司1#基建变,杭州富耀置业有限公司4#变,杭州澜都房地产开发有限公司 1#,杭州涌都房地产开发有限公司1#,杭州涌都房地产开发有限公司 1#,横山村1#村中公变,杭州澜都房地产开发有限公司 1#,杭州富耀置业有限公司3#变,","scope":"浙江省-杭州市-富阳区-东洲街道-黄公望行政村(横山自然村,株林坞自然村);东洲街道(杭州澜都房地产开发有限公司,杭州涌都房地产开发有限公司,浙江城投建设有限公司,杭州富耀置业有限公司)","startTime":"2020-03-27 08:26:00","stopDate":"2020-03-27 10:26:00","orgNo":"3340170","typeCode":"电网故障停限电","poweroffArea":"110kV白鹤变:株林D243线横山分线1号杆开关后段","poweroffReason":"高压开关跳闸","powerTime":"2020-03-27 09:33:43","powerComm":"已送电","subsNo":"","lineNo":"","tgNo":"","tgName":null,"infoStatus":"1","orgName":"国网浙江杭州市富阳区供电公司","typeName":null,"infoStatusName":null,"dateDay":null,"orgNos":null,"nowTime":null,"countyName":null,"streetName":null,"villageName":null,"roadName":null,"communityName":null,"tranName":null,"sdLineName":null,"cityCode":"3340170","cityName":"国网浙江杭州市富阳区供电公司","provinceCode":null,"stopTime":"2020-03-27 10:26:00","powerType":"全部","powerOffArea":"110kV白鹤变:株林D243线横山分线1号杆开关后段","powerOffReason":"高压开关跳闸","powerOffId":"2020032731020047"},{"poweroffId":2020032731020044,"sgpoweroffId":null,"subsName":"","lineName":"10kV梓树D973线","pubTranName":"上大庄村12号白纸槽公变,","scope":"浙江省-杭州市-富阳区-银湖街道-大庄行政村(十月自然村,曹家自然村,上大庄自然村,白纸槽自然村)","startTime":"2020-03-27 08:30:01","stopDate":"2020-03-27 10:15:01","orgNo":"3340170","typeCode":"电网故障停限电","poweroffArea":"110kV九龙变:梓树D973线-上大庄村12号白纸槽公变后段","poweroffReason":"(低压停电信息)低压开关跳闸","powerTime":"2020-03-27 10:01:12","powerComm":"已送电","subsNo":"","lineNo":"","tgNo":"","tgName":null,"infoStatus":"1","orgName":"国网浙江杭州市富阳区供电公司","typeName":null,"infoStatusName":null,"dateDay":null,"orgNos":null,"nowTime":null,"countyName":null,"streetName":null,"villageName":null,"roadName":null,"communityName":null,"tranName":null,"sdLineName":null,"cityCode":"3340170","cityName":"国网浙江杭州市富阳区供电公司","provinceCode":null,"stopTime":"2020-03-27 10:15:01","powerType":"全部","powerOffArea":"110kV九龙变:梓树D973线-上大庄村12号白纸槽公变后段","powerOffReason":"(低压停电信息)低压开关跳闸","powerOffId":"2020032731020044"}],"pageModel":{"pageNow":438,"totalCount":17789,"totalPage":1779,"tableRows":0,"pageCount":10,"beginCount":4370},"isExperi":"1"}