{"message":"","today":"2020-06-15","seleList":[{"poweroffId":2020032631020424,"sgpoweroffId":null,"subsName":"","lineName":"10kV宏水G244线","pubTranName":"亨金属制品厂,宏畔纸塑（6120122100）1#变,中国电信股份有限公司杭州余杭区分公司,杭州华发玻璃有限公司,三桩缫丝2,2＃,莫家桥村自变1#公变,华越煤炭,华源前线,杭州嘉鹏钢带有限公司,浙江成钢投资发展有限公司,塘栖镇人民政府,杭州中新实业有限公司,杭州中新实业有限公司,浙江成钢投资发展有限公司,莫家桥村湾里池公变,杭州余杭水务有限公司2#,杭州余杭水务有限公司3#,莫家桥村易家坝公变,杭州余杭水务有限公司4#,杭州市余杭区塘栖镇第二幼儿园612088029501#专变,莫家桥村斗外公变,宏畔中心小学（6120880282）1#变,莫家桥村斗湾公变,莫家桥村宏伟大队公变,华发玻璃02#专变,百友时装,莫家桥村莫家桥北公变,宏畔纸塑（6120122100）2#变,杭州余杭长捷贸易有限公司,莫家桥村斗里公变,","scope":"浙江省-杭州市-余杭区-塘栖镇(莫家桥行政村-莫家桥村,唐家埭行政村-唐家埭村);塘栖镇-河西埭行政村(杭州宏畔纸塑包装有限公司,杭州中新实业有限公司,浙江成钢投资发展有限公司),塘栖镇-莫家桥行政村(杭州百友时装有限公司,中国电信股份有限公司杭州余杭区分公司,塘栖镇人民政府,杭州三桩缫丝机械有限公司,杭州华源前线能源设备有限公司,杭州华发实业有限公司,杭州余加纺织有限公司,杭州贵亨金属制品有限公司,浙江丽居实业有限公司,杭州市余杭区塘栖镇宏畔中心小学,杭州市余杭区塘栖镇宏畔幼儿园),塘栖镇(三星行政村-杭州余杭制水有限公司,唐家埭行政村-杭州嘉鹏钢带有限公司)","startTime":"2020-03-26 19:50:00","stopDate":"2020-03-26 20:50:00","orgNo":"3340140","typeCode":"电网故障停限电","poweroffArea":"110kV宏畔变:宏水G244线-宏水G244线开关后段","poweroffReason":"高压开关跳闸","powerTime":"2020-03-26 19:52:00","powerComm":"已送电","subsNo":"","lineNo":"","tgNo":"","tgName":null,"infoStatus":"1","orgName":"国网浙江杭州市余杭区供电有限公司","typeName":null,"infoStatusName":null,"dateDay":null,"orgNos":null,"nowTime":null,"countyName":null,"streetName":null,"villageName":null,"roadName":null,"communityName":null,"tranName":null,"sdLineName":null,"cityCode":"3340140","cityName":"国网浙江杭州市余杭区供电有限公司","provinceCode":null,"stopTime":"2020-03-26 20:50:00","powerType":"全部","powerOffArea":"110kV宏畔变:宏水G244线-宏水G244线开关后段","powerOffReason":"高压开关跳闸","powerOffId":"2020032631020424"},{"poweroffId":2020032631020403,"sgpoweroffId":null,"subsName":"","lineName":"10kV道古6713线","pubTranName":"河东二,","scope":"浙江省-杭州市-西湖区-北山街道-金祝社区-松木场社区-松木场河东","startTime":"2020-03-26 19:23:07","stopDate":"2020-03-26 20:10:07","orgNo":"3340101","typeCode":"电网故障停限电","poweroffArea":"110kV黄体变:道古6713线-河东二变","poweroffReason":"(低压停电信息) 低压开关跳闸 原停电结束时间为2020-03-26 23:36:07,为减少客户停电时间,加快工作进度,提前送电,现变更停电结束时间为2020-03-26 20:10:07","powerTime":"2020-03-26 19:44:20","powerComm":"已送电","subsNo":"","lineNo":"","tgNo":"","tgName":null,"infoStatus":"1","orgName":"浙江杭州电力客户服务中心","typeName":null,"infoStatusName":null,"dateDay":null,"orgNos":null,"nowTime":null,"countyName":null,"streetName":null,"villageName":null,"roadName":null,"communityName":null,"tranName":null,"sdLineName":null,"cityCode":"3340101","cityName":"浙江杭州电力客户服务中心","provinceCode":null,"stopTime":"2020-03-26 20:10:07","powerType":"全部","powerOffArea":"110kV黄体变:道古6713线-河东二变","powerOffReason":"(低压停电信息) 低压开关跳闸 原停电结束时间为2020-03-26 23:36:07,为减少客户停电时间,加快工作进度,提前送电,现变更停电结束时间为2020-03-26 20:10:07","powerOffId":"2020032631020403"},{"poweroffId":2020032631020384,"sgpoweroffId":null,"subsName":"","lineName":"10kV通济C633线","pubTranName":"孔兴华五金,高运公司3#,临东社区3#变,华家村2#变,苎萝村6#变,荣潮孵坊,久远机械,高田陈5#变,杭州市萧山区临浦镇人民政府,苎萝村11#变,高运公司1#,苎萝村9#变,公路管理处,杭州德瑞宝管道科技有限公司,临东社区1#变,高田陈12#变,高田陈7#变,华家村1#变,慧杰电子,华通胶印,华家村3#变,临东村4#变,临东村3#变,临东社区2#变,杭州萧山亚太纺织有限公司,阳光车业,苎萝村1#变,苎萝村5#变,华家村6#变,高峰制钉,苎萝村10#变,临东村1#变,高运公司2#,苎萝村7#变,金川齿轮,华家村5#变,杭州新河塑料制品有限公司,临东村2#变,临东社区7#变,临东社区5#变,华家村4#变,临东社区4#变,杭州市萧山区临浦镇人民政府,高田陈11#变,临东社区6#变,杭州井盛包装有限公司,","scope":"浙江省-杭州市-萧山区-临浦镇-高田陈社区(傅家自然村,外塘自然村,高田陈自然村,塘里陈自然村),临浦镇-华家行政村(华家自然村,小华家自然村),临浦镇-苎萝行政村(木汀徐自然村,屠家埭自然村,施家渡村,施家渡自然村,九房自然村),临浦镇-临东社区(浴美路西自然村,塘下屠自然村,临东小区,乌石桥自然村,浴美路);临浦镇(杭州浦荣五金机械有限公司,杭州金川齿轮制造有限公司,杭州德瑞宝管道科技有限公司,杭州萧山亚太纺织有限公司,杭州市萧山区公路管理处,临浦荣潮孵坊,杭州萧山阳光车业有限公司,杭州高军金属制品有限公司,杭州萧山华通胶印上光有限公司,杭州萧山久远机械有限公司,杭州慧杰电子科技有限公司,杭州新河塑料制品有限公司,杭州萧山高桥运输有限公司,杭州井盛包装有限公司,杭州市萧山区临浦镇人民政府)，浙江省杭州市萧山区临浦镇苎萝行政村一带","startTime":"2020-03-26 18:56:00","stopDate":"2020-03-26 20:56:00","orgNo":"3340130","typeCode":"电网故障停限电","poweroffArea":"110kV临浦变:通济C633线通济C6332开关后段","poweroffReason":"高压柱上断路器短路故障 原停电结束时间为2020-03-26 21:56:00,为减少客户停电时间,加快工作进度,提前送电,现变更停电结束时间为2020-03-26 20:56:00","powerTime":"2020-03-26 20:12:35","powerComm":"已送电","subsNo":"","lineNo":"","tgNo":"","tgName":null,"infoStatus":"1","orgName":"国网浙江杭州市萧山区供电有限公司","typeName":null,"infoStatusName":null,"dateDay":null,"orgNos":null,"nowTime":null,"countyName":null,"streetName":null,"villageName":null,"roadName":null,"communityName":null,"tranName":null,"sdLineName":null,"cityCode":"3340130","cityName":"国网浙江杭州市萧山区供电有限公司","provinceCode":null,"stopTime":"2020-03-26 20:56:00","powerType":"全部","powerOffArea":"110kV临浦变:通济C633线通济C6332开关后段","powerOffReason":"高压柱上断路器短路故障 原停电结束时间为2020-03-26 21:56:00,为减少客户停电时间,加快工作进度,提前送电,现变更停电结束时间为2020-03-26 20:56:00","powerOffId":"2020032631020384"},{"poweroffId":2020032631020380,"sgpoweroffId":null,"subsName":"","lineName":"10kV肇和H436线","pubTranName":"东塘河村费家塘公变,东塘河村费家塘2号公变,东塘河村东洋村北公变,丁公村沈家门3号公变,丁公村沈家门公变,东塘河村裘家村公变,东塘河村东洋村公变,金家门泵站,东塘河村王泥坝公变,东塘河村王泥坝2号公变,东塘河村东洋村西公变,排涝,陈华仙,东塘河村金家抖2号公变,东塘河村金家抖公变,东塘河村裘家村2号公变,","scope":"浙江省-杭州市-余杭区-良渚街道(西塘河行政村-丁公自然村,东塘河行政村-吴家桥自然村);良渚街道(杭州余杭城西净水有限公司,杭州余杭西塘河股份经济合作社)","startTime":"2020-03-26 18:56:00","stopDate":"2020-03-26 22:30:00","orgNo":"3340140","typeCode":"电网故障停限电","poweroffArea":"110kV勾庄变:肇和H436线肇和H436线22号杆开关后段","poweroffReason":"高压开关跳闸 原停电结束时间为2020-03-26 21:56:00,因现场情况复杂，抢修难度大原因,延迟送电,现变更停电结束时间为2020-03-26 22:30:00","powerTime":"2020-03-26 21:32:00","powerComm":"已送电","subsNo":"","lineNo":"","tgNo":"","tgName":null,"infoStatus":"1","orgName":"国网浙江杭州市余杭区供电有限公司","typeName":null,"infoStatusName":null,"dateDay":null,"orgNos":null,"nowTime":null,"countyName":null,"streetName":null,"villageName":null,"roadName":null,"communityName":null,"tranName":null,"sdLineName":null,"cityCode":"3340140","cityName":"国网浙江杭州市余杭区供电有限公司","provinceCode":null,"stopTime":"2020-03-26 22:30:00","powerType":"全部","powerOffArea":"110kV勾庄变:肇和H436线肇和H436线22号杆开关后段","powerOffReason":"高压开关跳闸 原停电结束时间为2020-03-26 21:56:00,因现场情况复杂，抢修难度大原因,延迟送电,现变更停电结束时间为2020-03-26 22:30:00","powerOffId":"2020032631020380"},{"poweroffId":2020032631020366,"sgpoweroffId":null,"subsName":"","lineName":"10kV俞家D843线","pubTranName":"俞家村3#田畈公变,富阳宏升建材有限公司,富阳市双群矿业有限公司,富阳市三江石料有限公司1#,富阳市三江石料有限公司,后山边1号村西公变,富阳市新桐乡新荣水泥砖厂1#变,富阳市三江石料有限公司2#,富阳市双群矿业有限公司,富阳市双群矿业有限公司,江洲村1号毛竹湾公变,","scope":"浙江省-杭州市-富阳区-新桐乡-春渚行政村-后山边自然村;新桐乡-春渚行政村(富阳市双群矿业有限公司,杭州富阳三江石料有限公司),新桐乡(俞家行政村-杭州富阳宏升建材有限公司,江洲行政村-杭州富阳孙华水泥制品有限公司)","startTime":"2020-03-26 18:44:49","stopDate":"2020-03-26 19:44:49","orgNo":"3340170","typeCode":"电网故障停限电","poweroffArea":"110kV新桐变:俞家D843线-俞家D8431开关后段","poweroffReason":"高压开关跳闸","powerTime":"2020-03-26 19:15:46","powerComm":"已送电","subsNo":"","lineNo":"","tgNo":"","tgName":null,"infoStatus":"1","orgName":"国网浙江杭州市富阳区供电公司","typeName":null,"infoStatusName":null,"dateDay":null,"orgNos":null,"nowTime":null,"countyName":null,"streetName":null,"villageName":null,"roadName":null,"communityName":null,"tranName":null,"sdLineName":null,"cityCode":"3340170","cityName":"国网浙江杭州市富阳区供电公司","provinceCode":null,"stopTime":"2020-03-26 19:44:49","powerType":"全部","powerOffArea":"110kV新桐变:俞家D843线-俞家D8431开关后段","powerOffReason":"高压开关跳闸","powerOffId":"2020032631020366"},{"poweroffId":2020032631020364,"sgpoweroffId":null,"subsName":"","lineName":"10kV都滟9795线","pubTranName":"水滟(六),水滟(八),","scope":"浙江省-杭州市-拱墅区-祥符街道-秀水社区-长阳路-都市水乡小区-水滟苑","startTime":"2020-03-26 18:41:00","stopDate":"2020-03-26 19:41:00","orgNo":"3340101","typeCode":"电网故障停限电","poweroffArea":"110kV红旗变:都滟9795线水滟八站水滟六线后段","poweroffReason":"高压开关跳闸 原停电结束时间为2020-03-26 23:41:00,为减少客户停电时间,加快工作进度,提前送电,现变更停电结束时间为2020-03-26 19:41:00","powerTime":"2020-03-26 19:01:46","powerComm":"已送电","subsNo":"","lineNo":"","tgNo":"","tgName":null,"infoStatus":"1","orgName":"浙江杭州电力客户服务中心","typeName":null,"infoStatusName":null,"dateDay":null,"orgNos":null,"nowTime":null,"countyName":null,"streetName":null,"villageName":null,"roadName":null,"communityName":null,"tranName":null,"sdLineName":null,"cityCode":"3340101","cityName":"浙江杭州电力客户服务中心","provinceCode":null,"stopTime":"2020-03-26 19:41:00","powerType":"全部","powerOffArea":"110kV红旗变:都滟9795线水滟八站水滟六线后段","powerOffReason":"高压开关跳闸 原停电结束时间为2020-03-26 23:41:00,为减少客户停电时间,加快工作进度,提前送电,现变更停电结束时间为2020-03-26 19:41:00","powerOffId":"2020032631020364"},{"poweroffId":2020032631020360,"sgpoweroffId":null,"subsName":"","lineName":"10kV窄溪T257线","pubTranName":"农贸市场1号公变,","scope":"浙江省-杭州市-桐庐县-江南镇-窄溪行政村(窄溪西路,金浦南路,大元里自然村,大元路,鼓楼街,金浦路,集市路,市场路,富前路)","startTime":"2020-03-26 18:37:29","stopDate":"2020-03-26 20:37:29","orgNo":"3340150","typeCode":"电网故障停限电","poweroffArea":"110kV石阜变:窄溪T257线-农贸市场1号公变后段","poweroffReason":"(低压停电信息)低压开关跳闸","powerTime":"2020-03-26 20:24:35","powerComm":"已送电","subsNo":"","lineNo":"","tgNo":"","tgName":null,"infoStatus":"1","orgName":"国网浙江桐庐县供电公司","typeName":null,"infoStatusName":null,"dateDay":null,"orgNos":null,"nowTime":null,"countyName":null,"streetName":null,"villageName":null,"roadName":null,"communityName":null,"tranName":null,"sdLineName":null,"cityCode":"3340150","cityName":"国网浙江桐庐县供电公司","provinceCode":null,"stopTime":"2020-03-26 20:37:29","powerType":"全部","powerOffArea":"110kV石阜变:窄溪T257线-农贸市场1号公变后段","powerOffReason":"(低压停电信息)低压开关跳闸","powerOffId":"2020032631020360"},{"poweroffId":2020032631020357,"sgpoweroffId":null,"subsName":"","lineName":"10kV东曹A189线","pubTranName":"王村村9#变,杭州海煜机械有限公司,杭州雄盛制桶有限公司,杭州王村石料有限公司,杭州森腾五金机械制造有限公司,杭州金渠物资有限公司,浙江顺畅高等级公路养护有限公司萧山分公司,杭州萧山华盛机械有限公司,杭州朔工工具有限公司,杭州王村石料有限公司,杭州南越实业有限公司,杭州和祥废品回收有限公司,义桥村17#变,杭州华杰商品混凝土有限公司,杭州优狮混凝土有限公司,王村村4#变,杭州天宏焊接材料有限公司,王村村5#变,杭州萧山临浦镇葛国泉石粉加工场,杭州吉美汽车配件厂,杭州王村石料有限公司,联三村5#变,新河村15#变,三峰村2#变,","scope":"浙江省-杭州市-萧山区-临浦镇-王村行政村(杜家桥自然村,王自然村,楼家坞自然村),临浦镇-三峰行政村(东曹自然村,周家湖自然村),义桥镇-联三行政村(后韩自然村,曹家地自然村,联村自然村,曹家里自然村,金家堰兜自然村),临浦镇-新河行政村-西葛自然村,义桥镇-义桥行政村-茅山头自然村;临浦镇-王村行政村(杭州王村石料有限公司,浙江顺畅高等级公路养护有限公司萧山分公司,杭州和祥废品回收有限公司,杭州华杰商品混凝土有限公司),义桥镇-义桥行政村(杭州吉美汽车配件厂,杭州天宏焊接材料有限公司),义桥镇-湘南行政村(杭州朔工工具有限公司,杭州南越实业有限公司,杭州萧山华盛机械有限公司,杭州森腾五金机械制造有限公司),临浦镇-新河行政村(杭州萧山临浦镇葛国泉石粉加工场,杭州海煜机械有限公司,杭州雄盛制桶有限公司),临浦镇-柏山陈社区-杭州优狮混凝土有限公司,义桥镇-联三行政村-浙江润桐医药有限公司一带","startTime":"2020-03-26 18:30:49","stopDate":"2020-03-26 21:30:49","orgNo":"3340130","typeCode":"电网故障停限电","poweroffArea":"110kV群建变:东曹A189线-东曹A1891开关后段","poweroffReason":"高压开关跳闸","powerTime":"2020-03-26 20:38:33","powerComm":"已送电","subsNo":"","lineNo":"","tgNo":"","tgName":null,"infoStatus":"1","orgName":"国网浙江杭州市萧山区供电有限公司","typeName":null,"infoStatusName":null,"dateDay":null,"orgNos":null,"nowTime":null,"countyName":null,"streetName":null,"villageName":null,"roadName":null,"communityName":null,"tranName":null,"sdLineName":null,"cityCode":"3340130","cityName":"国网浙江杭州市萧山区供电有限公司","provinceCode":null,"stopTime":"2020-03-26 21:30:49","powerType":"全部","powerOffArea":"110kV群建变:东曹A189线-东曹A1891开关后段","powerOffReason":"高压开关跳闸","powerOffId":"2020032631020357"},{"poweroffId":2020032631020356,"sgpoweroffId":null,"subsName":"","lineName":"10kV都滟9795线","pubTranName":"水滟(十二),水滟(十四),","scope":"浙江省-杭州市-拱墅区-祥符街道-秀水社区-水起苑社区-长阳路 水滟苑","startTime":"2020-03-26 18:24:00","stopDate":"2020-03-26 19:32:00","orgNo":"3340101","typeCode":"电网故障停限电","poweroffArea":"110kV红旗变:都滟9795线水滟十四站水滟二线后段","poweroffReason":"高压开关跳闸 原停电结束时间为2020-03-26 23:24:00,为减少客户停电时间,加快工作进度,提前送电,现变更停电结束时间为2020-03-26 19:32:00","powerTime":"2020-03-26 19:01:13","powerComm":"已送电","subsNo":"","lineNo":"","tgNo":"","tgName":null,"infoStatus":"1","orgName":"浙江杭州电力客户服务中心","typeName":null,"infoStatusName":null,"dateDay":null,"orgNos":null,"nowTime":null,"countyName":null,"streetName":null,"villageName":null,"roadName":null,"communityName":null,"tranName":null,"sdLineName":null,"cityCode":"3340101","cityName":"浙江杭州电力客户服务中心","provinceCode":null,"stopTime":"2020-03-26 19:32:00","powerType":"全部","powerOffArea":"110kV红旗变:都滟9795线水滟十四站水滟二线后段","powerOffReason":"高压开关跳闸 原停电结束时间为2020-03-26 23:24:00,为减少客户停电时间,加快工作进度,提前送电,现变更停电结束时间为2020-03-26 19:32:00","powerOffId":"2020032631020356"},{"poweroffId":2020032631020355,"sgpoweroffId":null,"subsName":"","lineName":"10kV群大A191线","pubTranName":"王村村6#变,新河村14#变,临浦镇政府-快速通道-王村路灯,浙江省萧山棉麻研究所,新河村6#变,新河村4#变,王村村1#变,新河村13#变,浙江省萧山棉麻研究所,王村村10#变,新河村2#变,新河村5#变,杭州市萧山区临浦镇人民政府,杭州琳峰塑业有限公司,新河村12#变,新河村10#变,新河村11#变,新河村7#变,王村村2#变,王村村3#变,新河村9#变,","scope":"浙江省-杭州市-萧山区-临浦镇-王村行政村(王自然村,张家自然村),临浦镇-新河行政村(油车桥自然村,西葛自然村,五间头自然村,三庄自然村,六庄自然村);临浦镇(浙江省萧山棉麻研究所,杭州市萧山区临浦镇人民政府,杭州琳峰塑业有限公司)一带","startTime":"2020-03-26 18:21:00","stopDate":"2020-03-26 21:30:00","orgNo":"3340130","typeCode":"电网故障停限电","poweroffArea":"110kV群建变:群大A191线群大A1913开关后段","poweroffReason":"高压柱上断路器短路故障 原停电结束时间为2020-03-26 22:30:00,为减少客户停电时间,加快工作进度,提前送电,现变更停电结束时间为2020-03-26 21:30:00","powerTime":"2020-03-26 20:45:28","powerComm":"已送电","subsNo":"","lineNo":"","tgNo":"","tgName":null,"infoStatus":"1","orgName":"国网浙江杭州市萧山区供电有限公司","typeName":null,"infoStatusName":null,"dateDay":null,"orgNos":null,"nowTime":null,"countyName":null,"streetName":null,"villageName":null,"roadName":null,"communityName":null,"tranName":null,"sdLineName":null,"cityCode":"3340130","cityName":"国网浙江杭州市萧山区供电有限公司","provinceCode":null,"stopTime":"2020-03-26 21:30:00","powerType":"全部","powerOffArea":"110kV群建变:群大A191线群大A1913开关后段","powerOffReason":"高压柱上断路器短路故障 原停电结束时间为2020-03-26 22:30:00,为减少客户停电时间,加快工作进度,提前送电,现变更停电结束时间为2020-03-26 21:30:00","powerOffId":"2020032631020355"}],"pageModel":{"pageNow":440,"totalCount":17789,"totalPage":1779,"tableRows":0,"pageCount":10,"beginCount":4390},"isExperi":"1"}