{"message":"","today":"2020-06-15","seleList":[{"poweroffId":2020032631020353,"sgpoweroffId":null,"subsName":"","lineName":"10kV文昌V450线","pubTranName":"昌化地税所,杭州临安鑫达橡塑厂,上街公变,昌化人民医院,临安杭挂东兴机电有限公司,电站公变,临安市宇杰精密元件厂,","scope":"浙江省-杭州市-临安市-昌化镇-西街行政村(电站里自然村,文昌路,西大街);昌化镇(杭州临安鑫达橡塑厂,临安宇杰精密制品有限公司,国家税务总局杭州市临安区税务局,杭州市临安区昌化人民医院,临安杭挂东兴机电有限公司)","startTime":"2020-03-26 18:25:00","stopDate":"2020-03-26 20:25:00","orgNo":"3340160","typeCode":"电网故障停限电","poweroffArea":"110kV昌化变:文昌V450线上街分线开关后段","poweroffReason":"高压开关跳闸","powerTime":"2020-03-26 19:26:31","powerComm":"已送电","subsNo":"","lineNo":"","tgNo":"","tgName":null,"infoStatus":"1","orgName":"国网浙江临安市供电公司","typeName":null,"infoStatusName":null,"dateDay":null,"orgNos":null,"nowTime":null,"countyName":null,"streetName":null,"villageName":null,"roadName":null,"communityName":null,"tranName":null,"sdLineName":null,"cityCode":"3340160","cityName":"国网浙江临安市供电公司","provinceCode":null,"stopTime":"2020-03-26 20:25:00","powerType":"全部","powerOffArea":"110kV昌化变:文昌V450线上街分线开关后段","powerOffReason":"高压开关跳闸","powerOffId":"2020032631020353"},{"poweroffId":2020032631020349,"sgpoweroffId":null,"subsName":"","lineName":"10kV杨桥V720线","pubTranName":"临安市海霞节能灯厂,杭州临安明锋电器配件有限公司,中国电信股份有限公司临安分公司,杨桥村[杨桥],临安临西织布厂1,临安太湖源袜业有限公司,杭州临安明锋电器配件有限公司,杨桥村[枣圆],临安市正隆塑料厂,杨桥村[溪东畈],杨桥村[电管站],杭州临安贝特电子有限公司,临安新青年照明电器有限公司,杨桥村[董家],杭州元亨畜牧兽医研究所,临安市太湖源杨岭中心学校,临安晶鑫芯柱厂,临安市盛泰照明电器厂,","scope":"浙江省-杭州市-临安市-太湖源镇-杨桥行政村-杨桥自然村;太湖源镇(中国电信股份有限公司临安分公司,杭州临安立鑫玻璃制品有限公司,杭州元亨畜牧兽医研究所,杭州临安明锋电器配件有限公司,临安市正隆塑料厂(普通合伙),临安太湖源袜业有限公司,临安临西织布厂,杭州临安贝特电子有限公司,临安市海霞节能灯厂,临安晶鑫芯柱厂,临安市盛泰照明电器厂,杭州市临安区太湖源镇杨岭小学)","startTime":"2020-03-26 18:18:16","stopDate":"2020-03-26 20:18:16","orgNo":"3340160","typeCode":"电网故障停限电","poweroffArea":"110kV杨岭变:杨桥V720线杨桥头分线01#开关后段","poweroffReason":"高压开关跳闸","powerTime":"2020-03-26 19:44:02","powerComm":"已送电","subsNo":"","lineNo":"","tgNo":"","tgName":null,"infoStatus":"1","orgName":"国网浙江临安市供电公司","typeName":null,"infoStatusName":null,"dateDay":null,"orgNos":null,"nowTime":null,"countyName":null,"streetName":null,"villageName":null,"roadName":null,"communityName":null,"tranName":null,"sdLineName":null,"cityCode":"3340160","cityName":"国网浙江临安市供电公司","provinceCode":null,"stopTime":"2020-03-26 20:18:16","powerType":"全部","powerOffArea":"110kV杨岭变:杨桥V720线杨桥头分线01#开关后段","powerOffReason":"高压开关跳闸","powerOffId":"2020032631020349"},{"poweroffId":2020032631020323,"sgpoweroffId":null,"subsName":"","lineName":"10kV西周C950线","pubTranName":"浙江斯凯福汽车零部件有限公司1#,杭州平方五金机械厂,浦二村6#变,横二村3#变,横二村7#变,杭州前齿齿轮箱有限公司,杭州维亿塑业有限公司,横二村4#变,横二村8#变,戴村镇东风村1#变,杭州旭烈电机有限公司,戴村镇东风村3#变,杭州市萧山区临浦镇人民政府,横二村2#变,新联村9#变,杭州安达塑业有限公司,浦二村5#变,杭州振华钣金有限公司,杭州创锐机械铸造有限公司1#,杭州凯玲塑业有限公司,戴村镇东风村6#变,浙江富欧实业有限公司,新联村7#变,戴村镇东风村9#变,戴村镇东风村12#变,杭州懒汉机械有限公司,杭州雪尔电器有限公司,浦二村8#变,横二村1#变,戴村镇东风村5#变,杭州萧山临浦镇横二村经济联合社,杭州佳堂机械有限公司,河杨湖10#变,浙江斯凯福汽车零部件有限公司2#,浙江卫士农业开发有限公司,杭州创锐机械铸造有限公司2#,新联村6#变,萧山区临浦镇第二小学,杭州萧山肯特味品厂,杭州萧山临江化工制品有限公司,戴村镇东风村4#变,浦二村9#变,戴村镇东风村2#变,","scope":"浙江省-杭州市-萧山区-临浦镇-浦二行政村(钟家坦自然村,蒲山韩自然村),戴村镇-东风行政村(西周自然村,何童埠自然村,东周自然村),临浦镇-横二行政村(上倪自然村,胡家弄自然村,下甫王自然村,后倪自然村),临浦镇-新联行政村-塘头钟自然村,戴村镇-河杨湖行政村-后马湖自然村;戴村镇-东风行政村(杭州振华钣金有限公司,杭州维亿塑业有限公司,杭州康诚汽车附件有限公司,杭州佳堂机械有限公司,杭州懒汉机械有限公司,杭州创锐机械铸造有限公司),临浦镇-横二行政村(杭州凯玲塑业有限公司,杭州雪尔电器有限公司,杭州高瑞恒五金有限公司,杭州市萧山区临浦镇人民政府,杭州神豪机械有限公司,杭州安达塑业有限公司),临浦镇-新联行政村(杭州市萧山区临浦镇人民政府,浙江斯凯福汽车零部件有限公司),临浦镇(通一行政村-杭州英峰五金塑胶有限公司,浦二行政村-杭州旭烈电机有限公司,横一行政村-浙江富欧实业有限公司),戴村镇(石马头行政村-浙江皓光农业开发有限公司,郁家山下行政村-杭州前齿齿轮箱有限公司)一带","startTime":"2020-03-26 17:42:34","stopDate":"2020-03-26 20:30:34","orgNo":"3340130","typeCode":"电网故障停限电","poweroffArea":"110kV永兴变:西周C950线-西周C950线东风分线开关后段","poweroffReason":"高压开关跳闸 原停电结束时间为2020-03-26 19:42:34,因抢修难度大原因,延迟送电,现变更停电结束时间为2020-03-26 20:30:34","powerTime":"2020-03-26 19:49:21","powerComm":"已送电","subsNo":"","lineNo":"","tgNo":"","tgName":null,"infoStatus":"1","orgName":"国网浙江杭州市萧山区供电有限公司","typeName":null,"infoStatusName":null,"dateDay":null,"orgNos":null,"nowTime":null,"countyName":null,"streetName":null,"villageName":null,"roadName":null,"communityName":null,"tranName":null,"sdLineName":null,"cityCode":"3340130","cityName":"国网浙江杭州市萧山区供电有限公司","provinceCode":null,"stopTime":"2020-03-26 20:30:34","powerType":"全部","powerOffArea":"110kV永兴变:西周C950线-西周C950线东风分线开关后段","powerOffReason":"高压开关跳闸 原停电结束时间为2020-03-26 19:42:34,因抢修难度大原因,延迟送电,现变更停电结束时间为2020-03-26 20:30:34","powerOffId":"2020032631020323"},{"poweroffId":2020032631020321,"sgpoweroffId":null,"subsName":"","lineName":"10kV杨畈V582线","pubTranName":"畈龙村[里佃村狮子山],畈龙村[里佃村大沙滩],畈龙村[里佃村],","scope":"浙江省-杭州市-临安市-太湖源镇-畈龙行政村-佃村自然村","startTime":"2020-03-26 17:34:00","stopDate":"2020-03-26 20:34:00","orgNo":"3340160","typeCode":"电网故障停限电","poweroffArea":"110kV杨岭变:杨畈V582线佃村农场外分支线01#后段","poweroffReason":"高压开关跳闸 原停电结束时间为2020-03-26 19:34:00,因下雨原因,延迟送电,现变更停电结束时间为2020-03-26 20:34:00","powerTime":"2020-03-26 19:44:14","powerComm":"已送电","subsNo":"","lineNo":"","tgNo":"","tgName":null,"infoStatus":"1","orgName":"国网浙江临安市供电公司","typeName":null,"infoStatusName":null,"dateDay":null,"orgNos":null,"nowTime":null,"countyName":null,"streetName":null,"villageName":null,"roadName":null,"communityName":null,"tranName":null,"sdLineName":null,"cityCode":"3340160","cityName":"国网浙江临安市供电公司","provinceCode":null,"stopTime":"2020-03-26 20:34:00","powerType":"全部","powerOffArea":"110kV杨岭变:杨畈V582线佃村农场外分支线01#后段","powerOffReason":"高压开关跳闸 原停电结束时间为2020-03-26 19:34:00,因下雨原因,延迟送电,现变更停电结束时间为2020-03-26 20:34:00","powerOffId":"2020032631020321"},{"poweroffId":2020032631020320,"sgpoweroffId":null,"subsName":"","lineName":"10kV横路V128线","pubTranName":"临安市於潜牛上水混料拌和厂,浙江交工集团股份有限公司1#,10kV百园村[周潭坞口]公变,10kV百园村[牛上村]公变,浙江交工集团股份有限公司2#,临安市英公水库管理处,临安市英公水库电站,10kV百园村[牛上英坞口]公变,临金高速公路临安段建设指挥部1#,临安市英公水库电站,10kV百园村[周潭村]公变,","scope":"浙江省-杭州市-临安市-於潜镇-百园行政村(周潭自然村,牛上自然村,百园自然村,上骆自然村);於潜镇(浙江交工集团股份有限公司,杭州市临安区英公水库管理所,临安市於潜牛上水混料拌和厂,临安市英公水库电站)","startTime":"2020-03-26 17:29:00","stopDate":"2020-03-26 19:29:00","orgNo":"3340160","typeCode":"电网故障停限电","poweroffArea":"110kV於潜变:横路V128线1285开关后段","poweroffReason":"高压开关跳闸","powerTime":"2020-03-26 18:33:06","powerComm":"已送电","subsNo":"","lineNo":"","tgNo":"","tgName":null,"infoStatus":"1","orgName":"国网浙江临安市供电公司","typeName":null,"infoStatusName":null,"dateDay":null,"orgNos":null,"nowTime":null,"countyName":null,"streetName":null,"villageName":null,"roadName":null,"communityName":null,"tranName":null,"sdLineName":null,"cityCode":"3340160","cityName":"国网浙江临安市供电公司","provinceCode":null,"stopTime":"2020-03-26 19:29:00","powerType":"全部","powerOffArea":"110kV於潜变:横路V128线1285开关后段","powerOffReason":"高压开关跳闸","powerOffId":"2020032631020320"},{"poweroffId":2020032631020318,"sgpoweroffId":null,"subsName":"","lineName":"10kV新浦D845线","pubTranName":"富阳市杭富罐头食品有限公,新浦村昌子坞1#公变,新浦村二联3#马路旁公变,中铁十二局杜邵村西1#变,富阳市之江塑料有限公司,天顺通信1#变,新浦村二联1#塘坞里公变,合兴机械1#变,中铁十二局杜邵村东1#变,杭州富轮汽车部件制造有限公司,新港村新江1#埠头公变,","scope":"浙江省-杭州市-富阳区-渌渚镇-新港行政村-埠头自然村,渌渚镇-新浦行政村(二联马路旁自然村,昌子坞自然村,二联塘坞里自然村);浙江省-杭州市-富阳区-渌渚镇-浦中行政村-中铁十二局集团有限公司,渌渚镇-新浦行政村(杭州富阳之江塑料有限公司,杭州富阳铭虹凯商贸有限公司,杭州富轮汽车部件制造有限公司,杭州富阳杭富罐头食品有限公司,杭州富阳合兴机械有限公司)","startTime":"2020-03-26 17:32:03","stopDate":"2020-03-26 18:00:03","orgNo":"3340170","typeCode":"电网故障停限电","poweroffArea":"110kV新桐变:新浦D845线-新浦D8451开关后段","poweroffReason":"高压开关跳闸","powerTime":"2020-03-26 17:35:39","powerComm":"已送电","subsNo":"","lineNo":"","tgNo":"","tgName":null,"infoStatus":"1","orgName":"国网浙江杭州市富阳区供电公司","typeName":null,"infoStatusName":null,"dateDay":null,"orgNos":null,"nowTime":null,"countyName":null,"streetName":null,"villageName":null,"roadName":null,"communityName":null,"tranName":null,"sdLineName":null,"cityCode":"3340170","cityName":"国网浙江杭州市富阳区供电公司","provinceCode":null,"stopTime":"2020-03-26 18:00:03","powerType":"全部","powerOffArea":"110kV新桐变:新浦D845线-新浦D8451开关后段","powerOffReason":"高压开关跳闸","powerOffId":"2020032631020318"},{"poweroffId":2020032631020316,"sgpoweroffId":null,"subsName":"","lineName":"10kV横路V128线","pubTranName":"10kV寨村村[上杨岭脚]公变,10kV英公村[南坞大会堂]公变,10kV英公村[九幽口]公变,10kV寨村村[杨岭脚]公变,10kV英公村[南坞朱家湾]公变,10kV英公村[南坞石门]公变,10kV英公村[麻车塘]公变,10kV寨村村[香粉堆]公变,临安市昌化公路段,10kV英公村[南坞横岭脚]公变,10kV英公村[南坞大阳山]公变,","scope":"浙江省-杭州市-临安市-於潜镇-英公行政村(英公自然村,南坞自然村),太阳镇(横路行政村-横路自然村,寨村行政村-寨村自然村);於潜镇-杭州市临安区昌化公路段","startTime":"2020-03-26 17:28:29","stopDate":"2020-03-26 20:28:29","orgNo":"3340160","typeCode":"电网故障停限电","poweroffArea":"110kV於潜变:横路V128线横路分线开关后段","poweroffReason":"高压开关跳闸 原停电结束时间为2020-03-26 19:28:29,因下雨原因,延迟送电,现变更停电结束时间为2020-03-26 20:28:29","powerTime":"2020-03-26 19:44:50","powerComm":"已送电","subsNo":"","lineNo":"","tgNo":"","tgName":null,"infoStatus":"1","orgName":"国网浙江临安市供电公司","typeName":null,"infoStatusName":null,"dateDay":null,"orgNos":null,"nowTime":null,"countyName":null,"streetName":null,"villageName":null,"roadName":null,"communityName":null,"tranName":null,"sdLineName":null,"cityCode":"3340160","cityName":"国网浙江临安市供电公司","provinceCode":null,"stopTime":"2020-03-26 20:28:29","powerType":"全部","powerOffArea":"110kV於潜变:横路V128线横路分线开关后段","powerOffReason":"高压开关跳闸 原停电结束时间为2020-03-26 19:28:29,因下雨原因,延迟送电,现变更停电结束时间为2020-03-26 20:28:29","powerOffId":"2020032631020316"},{"poweroffId":2020032631020311,"sgpoweroffId":null,"subsName":"","lineName":"10kV通济C633线","pubTranName":"高田陈12#变,久远机械,苎萝村3#变,苎萝村10#变,杭州德瑞宝管道科技有限公司,孔兴华五金,高田陈7#变,慧杰电子,临东社区6#变,苎萝村11#变,临东社区1#变,杭州萧山亚太纺织有限公司,高运公司2#,临东村3#变,苎萝村7#变,临东村4#变,高田陈11#变,杭州市萧山区临浦镇人民政府,杭州顺泽精密机械有限公司,公路管理处,高运公司1#,荣潮孵坊,苎萝村9#变,杭州烽天机械制造有限公司,苎萝村1#变,苎萝村6#变,高田陈5#变,临东社区7#变,金川齿轮,华通胶印,高运公司3#,华家村5#变,杭州井盛包装有限公司,阳光车业,苎萝村5#变,高峰制钉,临东社区3#变,临东村2#变,杭州市萧山区临浦镇人民政府,临东社区4#变,杭州惠伦科技有限公司,苎萝村12#变,华家村3#变,华家村4#变,华家村6#变,华家村1#变,临东社区5#变,杭州新河塑料制品有限公司,临东村1#变,临东社区2#变,华家村2#变,盛达纺织,","scope":"浙江省-杭州市-萧山区-临浦镇-高田陈社区(傅家自然村,外塘自然村,高田陈自然村,塘里陈自然村),临浦镇-华家行政村(华家自然村,小华家自然村),临浦镇-苎萝行政村(木汀徐自然村,屠家埭自然村,施家渡村,施家渡自然村,九房自然村),临浦镇-临东社区(浴美路西自然村,塘下屠自然村,临东小区,乌石桥自然村,浴美路);浙江省-杭州市-萧山区-临浦镇-高田陈社区-杭州市萧山区临浦镇人民政府,临浦镇-华家行政村(杭州慧杰电子科技有限公司,杭州萧山高桥运输有限公司,杭州井盛包装有限公司),临浦镇-苎萝行政村(杭州德瑞宝管道科技有限公司,杭州萧山亚太纺织有限公司,杭州兆达五金工具厂,杭州惠伦科技有限公司,杭州顺泽精密机械有限公司,杭州烽天机械制造有限公司),临浦镇-通一行政村(杭州市萧山区公路管理处,临浦荣潮孵坊),临浦镇-临东社区(杭州浦荣五金机械有限公司,杭州金川齿轮制造有限公司,杭州萧山阳光车业有限公司,杭州高军金属制品有限公司,杭州萧山华通胶印上光有限公司,杭州萧山久远机械有限公司,杭州新河塑料制品有限公司,杭州市萧山区临浦镇人民政府)一带","startTime":"2020-03-26 17:17:51","stopDate":"2020-03-26 19:17:51","orgNo":"3340130","typeCode":"电网故障停限电","poweroffArea":"110kV临浦变:通济C633线-通济C6334开关后段","poweroffReason":"高压开关跳闸","powerTime":"2020-03-26 18:23:46","powerComm":"已送电","subsNo":"","lineNo":"","tgNo":"","tgName":null,"infoStatus":"1","orgName":"国网浙江杭州市萧山区供电有限公司","typeName":null,"infoStatusName":null,"dateDay":null,"orgNos":null,"nowTime":null,"countyName":null,"streetName":null,"villageName":null,"roadName":null,"communityName":null,"tranName":null,"sdLineName":null,"cityCode":"3340130","cityName":"国网浙江杭州市萧山区供电有限公司","provinceCode":null,"stopTime":"2020-03-26 19:17:51","powerType":"全部","powerOffArea":"110kV临浦变:通济C633线-通济C6334开关后段","powerOffReason":"高压开关跳闸","powerOffId":"2020032631020311"},{"poweroffId":2020032631020298,"sgpoweroffId":null,"subsName":"","lineName":"10kV高岭Y802线","pubTranName":"建德中房旅业发展有限公司,杭州新安江旅业发展有限公司,","scope":"浙江省-杭州市-建德市-新安江街道-岭后社区 建德中房旅业发展有限公司,建德市新安旅游投资有限公司","startTime":"2020-03-26 16:33:55","stopDate":"2020-03-26 17:30:00","orgNo":"3340180","typeCode":"电网故障停限电","poweroffArea":"35kV莲花变:高岭Y802线-好运岛支线6#杆令克后段","poweroffReason":"高压开关跳闸 原停电结束时间为2020-03-26 18:33:55,为减少客户停电时间,加快工作进度,提前送电,现变更停电结束时间为2020-03-26 17:30:00","powerTime":"2020-03-26 16:55:00","powerComm":"已送电","subsNo":"","lineNo":"","tgNo":"","tgName":null,"infoStatus":"1","orgName":"国网浙江建德市供电有限公司","typeName":null,"infoStatusName":null,"dateDay":null,"orgNos":null,"nowTime":null,"countyName":null,"streetName":null,"villageName":null,"roadName":null,"communityName":null,"tranName":null,"sdLineName":null,"cityCode":"3340180","cityName":"国网浙江建德市供电有限公司","provinceCode":null,"stopTime":"2020-03-26 17:30:00","powerType":"全部","powerOffArea":"35kV莲花变:高岭Y802线-好运岛支线6#杆令克后段","powerOffReason":"高压开关跳闸 原停电结束时间为2020-03-26 18:33:55,为减少客户停电时间,加快工作进度,提前送电,现变更停电结束时间为2020-03-26 17:30:00","powerOffId":"2020032631020298"},{"poweroffId":2020032631020290,"sgpoweroffId":null,"subsName":"","lineName":"10kV大镇Y315线","pubTranName":"建德市金鑫冲件厂,大洋集镇湖苑新村台区,大洋集镇公园台区,1#,胡店村路塘山台区,大洋集镇振兴路台区,大洋集镇兰苑新村1#台区,大洋集镇一庄1#台区,建德市耀欣针纺有限公司,大洋集镇政府台区,2#变,大洋集镇汇美佳园台区,兰苑四期1号公变,大洋集镇兰江边台区,建德市大洋实业有限公司,建德市杭丝工贸有限公司,大洋村新城台区,建德市港联机械设备有限公司,胡店村胡店台区,徐店村后高台区,建金高速2标目科里遂道2#临变,中交第二公路工程局有限公司1#变,大洋集镇邮电所台区,大洋集镇兰苑新村3号公变,杭州凯特电器有限公司,大洋集镇教工路公变,建金高速2标目科里遂道出口1#专变,1#变,建金高速2标目科里遂道出口,大洋集镇卫生院台区,1#变,胡店村塘坞台区,","scope":"浙江省-杭州市-建德市-大洋镇-倪家行政村-杨梅山自然村,大洋镇-大洋行政村(鱼鸣坞自然村,新成自然村,张天坟头自然村,后山脚自然村,徐家自然村,谢家屋后自然村,新建自然村,中埠自然村,渔民村,下埠自然村,方家垅自然村,兰苑新村小区),大洋镇-徐店行政村(下埂坞自然村,后高自然村),大洋镇-胡店行政村(胡店自然村,塘坞自然村),大洋镇-大洋集镇(学前路,新成路,振兴路,新建路,大庆路,上源路,兰江路,朝阳路,英烈路,后山路);大洋镇(杭州凯特电器有限公司,中交第二公路工程局有限公司,建德市大洋资产经营有限公司,建德市港联机械设备有限公司,建德市金鑫冲件厂,建德市大洋实业有限公司,建德市红旅企业管理服务有限公司,建德市耀欣针纺有限公司,浙江贝家生物科技有限公司)","startTime":"2020-03-26 16:22:00","stopDate":"2020-03-26 18:22:00","orgNo":"3340180","typeCode":"电网故障停限电","poweroffArea":"35kV大洋变:大镇Y315线公园环网单元大镇Y315线断路器后段","poweroffReason":"高压开关跳闸","powerTime":"2020-03-26 18:08:00","powerComm":"已送电","subsNo":"","lineNo":"","tgNo":"","tgName":null,"infoStatus":"1","orgName":"国网浙江建德市供电有限公司","typeName":null,"infoStatusName":null,"dateDay":null,"orgNos":null,"nowTime":null,"countyName":null,"streetName":null,"villageName":null,"roadName":null,"communityName":null,"tranName":null,"sdLineName":null,"cityCode":"3340180","cityName":"国网浙江建德市供电有限公司","provinceCode":null,"stopTime":"2020-03-26 18:22:00","powerType":"全部","powerOffArea":"35kV大洋变:大镇Y315线公园环网单元大镇Y315线断路器后段","powerOffReason":"高压开关跳闸","powerOffId":"2020032631020290"}],"pageModel":{"pageNow":441,"totalCount":17789,"totalPage":1779,"tableRows":0,"pageCount":10,"beginCount":4400},"isExperi":"1"}