{"message":"","today":"2020-06-15","seleList":[{"poweroffId":2020032631020280,"sgpoweroffId":null,"subsName":"","lineName":"10kV奉欣G347线","pubTranName":"2#,仁良花苑19号公变,仁良花苑10#公变,仁良花苑17号公变,4#,仁良花苑11#公变,仁良花苑20号公变,仁良花苑18号公变,东风小学（6120689004）II段2#变,仁良花苑9#公变,仁良花苑12#公变,","scope":"浙江省-杭州市-余杭区-仁和街道-东风行政村-东风路;仁和街道-东风行政村(杭州仁和先进制造业投资有限公司,杭州市余杭区仁和东风小学)","startTime":"2020-03-26 16:12:00","stopDate":"2020-03-26 18:20:00","orgNo":"3340140","typeCode":"电网故障停限电","poweroffArea":"110kV洛山变:奉欣G347线","poweroffReason":"高压开关跳闸 原停电结束时间为2020-03-26 19:30:00,为减少客户停电时间,加快工作进度,提前送电,现变更停电结束时间为2020-03-26 18:20:00","powerTime":"2020-03-26 17:28:00","powerComm":"已送电","subsNo":"","lineNo":"","tgNo":"","tgName":null,"infoStatus":"1","orgName":"国网浙江杭州市余杭区供电有限公司","typeName":null,"infoStatusName":null,"dateDay":null,"orgNos":null,"nowTime":null,"countyName":null,"streetName":null,"villageName":null,"roadName":null,"communityName":null,"tranName":null,"sdLineName":null,"cityCode":"3340140","cityName":"国网浙江杭州市余杭区供电有限公司","provinceCode":null,"stopTime":"2020-03-26 18:20:00","powerType":"全部","powerOffArea":"110kV洛山变:奉欣G347线","powerOffReason":"高压开关跳闸 原停电结束时间为2020-03-26 19:30:00,为减少客户停电时间,加快工作进度,提前送电,现变更停电结束时间为2020-03-26 18:20:00","powerOffId":"2020032631020280"},{"poweroffId":2020032631020269,"sgpoweroffId":null,"subsName":"","lineName":"10kV所前C636线","pubTranName":"杭州宝顺塑业有限公司,杭州江发塑料五金厂,杭州宏升塑胶有限公司(通二),杭州萧山宏源汽车修配厂,杭州萧山精工铝业有限公司,1#主变,杭州汇诚实业有限公司,浙江涤锦塑染有限公司,杭州萧山元通纸制品厂,杭州萧山高峰制钉厂,通二村9#变,中策电气有限公司,杭州萧山南江五金喷塑有限公司1#,杭州萧山力神浸塑工艺品厂﹙普通合伙﹚,通二村14#变,杭州萧山宏源汽车修配厂,杭州杭发信诚实业有限公司,杭州骁麟车业有限公司,杭州振球工业有限公司,浙江金鹭集团装饰有限公司,杭州东松电源电器有限公司,杭州大度体育用品有限公司,2#,杭州耀江包装材料有限公司,杭州皇鼎五金有限公司,杭州耶鲁实业有限公司,杭州爱龙金属制品有限公司,浙江涤锦塑染有限公司2#,杭州澳飞丝工艺品有限公司,通二村10#变,杭州萧山南江五金喷塑有限公司2#,1#,杭州申卯实业有限公司,通二村3#变,杭州由企画门业有限公司,","scope":"浙江省-杭州市-萧山区-临浦镇-塘郎孙行政村-塘郎孙自然村,临浦镇-通二行政村(庙前上段自然村,通二自然村,瓦窑金自然村,庙前下段自然村);临浦镇(杭州杭发信诚实业有限公司,宏升塑胶(杭州)有限公司,浙江瑞翔钢品科技有限公司,杭州爱龙金属制品有限公司,杭州申卯实业有限公司,杭州澳飞丝工艺品有限公司,杭州耶鲁实业有限公司,杭州恩域机械有限公司,杭州萧山宏源汽车修配厂,杭州鼎琦机械有限公司,杭州大度体育用品有限公司,杭州骁麟车业有限公司,杭州萧山力神浸塑工艺品厂﹙普通合伙﹚,杭州萧山元通纸制品厂(普通合伙),杭州高军金属制品有限公司,浙江涤锦塑染有限公司,浙江金鹭集团装饰有限公司,杭州萧山南江五金喷塑有限公司,杭州汇诚实业有限公司,杭州东松电源电器有限公司,杭州皇鼎五金有限公司,杭州江发塑料五金厂,浙江省交通投资集团有限公司杭金衢分公司,杭州由企画木业有限公司,永通中策电缆有限公司,杭州耀江包装材料有限公司,杭州振球工业有限公司)一带","startTime":"2020-03-26 15:59:00","stopDate":"2020-03-26 18:59:00","orgNo":"3340130","typeCode":"电网故障停限电","poweroffArea":"110kV临浦变:所前C636线所前C6362开关后段","poweroffReason":"高压开关跳闸","powerTime":"2020-03-26 18:22:13","powerComm":"已送电","subsNo":"","lineNo":"","tgNo":"","tgName":null,"infoStatus":"1","orgName":"国网浙江杭州市萧山区供电有限公司","typeName":null,"infoStatusName":null,"dateDay":null,"orgNos":null,"nowTime":null,"countyName":null,"streetName":null,"villageName":null,"roadName":null,"communityName":null,"tranName":null,"sdLineName":null,"cityCode":"3340130","cityName":"国网浙江杭州市萧山区供电有限公司","provinceCode":null,"stopTime":"2020-03-26 18:59:00","powerType":"全部","powerOffArea":"110kV临浦变:所前C636线所前C6362开关后段","powerOffReason":"高压开关跳闸","powerOffId":"2020032631020269"},{"poweroffId":2020032631020255,"sgpoweroffId":null,"subsName":"","lineName":"10kV城北T174线","pubTranName":"五金加工,桐庐县先锋纺织厂,桐庐县先锋纺织厂1#变,天喜制笔厂,","scope":"浙江省-杭州市-桐庐县-分水镇-武盛行政村(桐庐县先锋纺织厂,桐庐天喜文具制造有限公司)","startTime":"2020-04-10 09:30:00","stopDate":"2020-04-10 14:00:00","orgNo":"3340150","typeCode":"计划停电","poweroffArea":"110kV分水变:城北T174线-先锋F4261后段;城北T174线-五金加工后段","poweroffReason":"杭州桐庐分水城北174线大坞715线等线路改造工程原停电结束时间为2020-04-1013:30:00,因现场施工环境原因,延迟送电,现变更停电结束时间为2020-04-1014:00:00","powerTime":"2020-04-10 13:56:18","powerComm":"已送电","subsNo":"","lineNo":"","tgNo":"","tgName":null,"infoStatus":"1","orgName":"国网浙江桐庐县供电公司","typeName":null,"infoStatusName":null,"dateDay":null,"orgNos":null,"nowTime":null,"countyName":null,"streetName":null,"villageName":null,"roadName":null,"communityName":null,"tranName":null,"sdLineName":null,"cityCode":"3340150","cityName":"国网浙江桐庐县供电公司","provinceCode":null,"stopTime":"2020-04-10 14:00:00","powerType":"全部","powerOffArea":"110kV分水变:城北T174线-先锋F4261后段;城北T174线-五金加工后段","powerOffReason":"杭州桐庐分水城北174线大坞715线等线路改造工程原停电结束时间为2020-04-1013:30:00,因现场施工环境原因,延迟送电,现变更停电结束时间为2020-04-1014:00:00","powerOffId":"2020032631020255"},{"poweroffId":2020032631020254,"sgpoweroffId":null,"subsName":"","lineName":"10kV城北T174线","pubTranName":"武盛高坞口1号公变,","scope":"浙江省-杭州市-桐庐县-分水镇-武盛行政村(武盛自然村,新淳路,玉泉自然村)","startTime":"2020-04-08 09:00:00","stopDate":"2020-04-08 13:00:00","orgNo":"3340150","typeCode":"计划停电","poweroffArea":"110kV分水变:城北T174线-武盛高坞口1号公变10kV跌落式熔断器后段","poweroffReason":"杭州桐庐分水城北174线大坞715线等线路改造工程","powerTime":"2020-04-08 12:50:22","powerComm":"已送电","subsNo":"","lineNo":"","tgNo":"","tgName":null,"infoStatus":"1","orgName":"国网浙江桐庐县供电公司","typeName":null,"infoStatusName":null,"dateDay":null,"orgNos":null,"nowTime":null,"countyName":null,"streetName":null,"villageName":null,"roadName":null,"communityName":null,"tranName":null,"sdLineName":null,"cityCode":"3340150","cityName":"国网浙江桐庐县供电公司","provinceCode":null,"stopTime":"2020-04-08 13:00:00","powerType":"全部","powerOffArea":"110kV分水变:城北T174线-武盛高坞口1号公变10kV跌落式熔断器后段","powerOffReason":"杭州桐庐分水城北174线大坞715线等线路改造工程","powerOffId":"2020032631020254"},{"poweroffId":2020032631020135,"sgpoweroffId":null,"subsName":"","lineName":"10kV湾里T414线","pubTranName":"湾里2号公变,桐庐飞腾公路工程有限公司(隧道路灯变),湾里上滩头2号公变,","scope":"浙江省-杭州市-桐庐县-城南街道-湾里行政村(湾里自然村,上滩头自然村,马家自然村,施家自然村,许家自然村),城南街道(滩头行政村-滩头自然村,金溪行政村-乌枫塘自然村);城南街道-桐庐飞腾公路工程有限公司","startTime":"2020-03-26 13:41:00","stopDate":"2020-03-26 18:30:00","orgNo":"3340150","typeCode":"电网故障停限电","poweroffArea":"110kV枫塘变:湾里T414线隧道F0207开关后段","poweroffReason":"高压开关跳闸","powerTime":"2020-03-26 18:21:25","powerComm":"已送电","subsNo":"","lineNo":"","tgNo":"","tgName":null,"infoStatus":"1","orgName":"国网浙江桐庐县供电公司","typeName":null,"infoStatusName":null,"dateDay":null,"orgNos":null,"nowTime":null,"countyName":null,"streetName":null,"villageName":null,"roadName":null,"communityName":null,"tranName":null,"sdLineName":null,"cityCode":"3340150","cityName":"国网浙江桐庐县供电公司","provinceCode":null,"stopTime":"2020-03-26 18:30:00","powerType":"全部","powerOffArea":"110kV枫塘变:湾里T414线隧道F0207开关后段","powerOffReason":"高压开关跳闸","powerOffId":"2020032631020135"},{"poweroffId":2020032631020134,"sgpoweroffId":null,"subsName":"","lineName":"10kV龙门D787线","pubTranName":"环联村8号新畈桥头公变,","scope":"浙江省-杭州市-富阳区-环山乡-环联行政村(环四球场自然村,新畈自然村)","startTime":"2020-03-26 13:45:23","stopDate":"2020-03-26 15:42:23","orgNo":"3340170","typeCode":"电网故障停限电","poweroffArea":"110kV王洲变:龙门D787线-环联村8号新畈桥头公变后段","poweroffReason":"(低压停电信息)低压开关跳闸","powerTime":"2020-03-26 15:07:32","powerComm":"已送电","subsNo":"","lineNo":"","tgNo":"","tgName":null,"infoStatus":"1","orgName":"国网浙江杭州市富阳区供电公司","typeName":null,"infoStatusName":null,"dateDay":null,"orgNos":null,"nowTime":null,"countyName":null,"streetName":null,"villageName":null,"roadName":null,"communityName":null,"tranName":null,"sdLineName":null,"cityCode":"3340170","cityName":"国网浙江杭州市富阳区供电公司","provinceCode":null,"stopTime":"2020-03-26 15:42:23","powerType":"全部","powerOffArea":"110kV王洲变:龙门D787线-环联村8号新畈桥头公变后段","powerOffReason":"(低压停电信息)低压开关跳闸","powerOffId":"2020032631020134"},{"poweroffId":2020032631020110,"sgpoweroffId":null,"subsName":"","lineName":"10kV于合Y160线","pubTranName":"于合村黄泥垅台区,","scope":"浙江省-杭州市-建德市-更楼街道-于合行政村新街自然村,黄泥垅自然村,于合自然村","startTime":"2020-03-26 13:01:00","stopDate":"2020-03-26 16:00:00","orgNo":"3340180","typeCode":"电网故障停限电","poweroffArea":"110kV更楼变:于合Y160线于合村黄泥垅台区配变","poweroffReason":"高压开关跳闸 原停电结束时间为2020-03-26 15:00:00,因施工现场复杂原因,延迟送电,现变更停电结束时间为2020-03-26 16:00:00","powerTime":"2020-03-26 15:30:00","powerComm":"已送电","subsNo":"","lineNo":"","tgNo":"","tgName":null,"infoStatus":"1","orgName":"国网浙江建德市供电有限公司","typeName":null,"infoStatusName":null,"dateDay":null,"orgNos":null,"nowTime":null,"countyName":null,"streetName":null,"villageName":null,"roadName":null,"communityName":null,"tranName":null,"sdLineName":null,"cityCode":"3340180","cityName":"国网浙江建德市供电有限公司","provinceCode":null,"stopTime":"2020-03-26 16:00:00","powerType":"全部","powerOffArea":"110kV更楼变:于合Y160线于合村黄泥垅台区配变","powerOffReason":"高压开关跳闸 原停电结束时间为2020-03-26 15:00:00,因施工现场复杂原因,延迟送电,现变更停电结束时间为2020-03-26 16:00:00","powerOffId":"2020032631020110"},{"poweroffId":2020032631020101,"sgpoweroffId":null,"subsName":"","lineName":"10kV青江D784线","pubTranName":"青江村6#国道公变,青江村4号环村路公变,","scope":"浙江省-杭州市-富阳区-场口镇-青江行政村-青江自然村","startTime":"2020-03-26 12:15:40","stopDate":"2020-03-26 17:00:00","orgNo":"3340170","typeCode":"电网故障停限电","poweroffArea":"110kV王洲变:青江D784线-环村路分线后段","poweroffReason":"高压开关跳闸 原停电结束时间为2020-03-26 13:33:33,因施工困难原因,延迟送电,现变更停电结束时间为2020-03-26 17:00:00","powerTime":"2020-03-26 16:10:14","powerComm":"已送电","subsNo":"","lineNo":"","tgNo":"","tgName":null,"infoStatus":"1","orgName":"国网浙江杭州市富阳区供电公司","typeName":null,"infoStatusName":null,"dateDay":null,"orgNos":null,"nowTime":null,"countyName":null,"streetName":null,"villageName":null,"roadName":null,"communityName":null,"tranName":null,"sdLineName":null,"cityCode":"3340170","cityName":"国网浙江杭州市富阳区供电公司","provinceCode":null,"stopTime":"2020-03-26 17:00:00","powerType":"全部","powerOffArea":"110kV王洲变:青江D784线-环村路分线后段","powerOffReason":"高压开关跳闸 原停电结束时间为2020-03-26 13:33:33,因施工困难原因,延迟送电,现变更停电结束时间为2020-03-26 17:00:00","powerOffId":"2020032631020101"},{"poweroffId":2020032631020078,"sgpoweroffId":null,"subsName":"","lineName":"10kV艮路380线","pubTranName":"皋塘(9)农（退运）,皋塘(9-2)农（退运）,皋塘（9-3）农,","scope":"浙江省-杭州市-江干区-误彭埠镇-皋塘社区-艮山西路","startTime":"2020-03-26 10:38:52","stopDate":"2020-03-26 13:38:52","orgNo":"3340101","typeCode":"电网故障停限电","poweroffArea":"35kV新塘变:艮路380线-皋九分线后段","poweroffReason":"高压开关跳闸 原停电结束时间为2020-03-26 14:38:52,为减少客户停电时间,加快工作进度,提前送电,现变更停电结束时间为2020-03-26 13:38:52","powerTime":"2020-03-26 13:08:07","powerComm":"已送电","subsNo":"","lineNo":"","tgNo":"","tgName":null,"infoStatus":"1","orgName":"浙江杭州电力客户服务中心","typeName":null,"infoStatusName":null,"dateDay":null,"orgNos":null,"nowTime":null,"countyName":null,"streetName":null,"villageName":null,"roadName":null,"communityName":null,"tranName":null,"sdLineName":null,"cityCode":"3340101","cityName":"浙江杭州电力客户服务中心","provinceCode":null,"stopTime":"2020-03-26 13:38:52","powerType":"全部","powerOffArea":"35kV新塘变:艮路380线-皋九分线后段","powerOffReason":"高压开关跳闸 原停电结束时间为2020-03-26 14:38:52,为减少客户停电时间,加快工作进度,提前送电,现变更停电结束时间为2020-03-26 13:38:52","powerOffId":"2020032631020078"},{"poweroffId":2020032631020064,"sgpoweroffId":null,"subsName":"","lineName":"10kV邓家Y161线","pubTranName":"湖岑畈村湖岑畈台区,","scope":"浙江省-杭州市-建德市-更楼街道-湖岑畈行政村-湖岑畈自然村一带用户","startTime":"2020-03-26 09:40:00","stopDate":"2020-03-26 12:00:00","orgNo":"3340180","typeCode":"电网故障停限电","poweroffArea":"110kV更楼变:邓家Y161线-湖岑畈村湖岑畈台区后段","poweroffReason":"(低压停电信息)低压开关跳闸","powerTime":"2020-03-26 11:19:00","powerComm":"已送电","subsNo":"","lineNo":"","tgNo":"","tgName":null,"infoStatus":"1","orgName":"国网浙江建德市供电有限公司","typeName":null,"infoStatusName":null,"dateDay":null,"orgNos":null,"nowTime":null,"countyName":null,"streetName":null,"villageName":null,"roadName":null,"communityName":null,"tranName":null,"sdLineName":null,"cityCode":"3340180","cityName":"国网浙江建德市供电有限公司","provinceCode":null,"stopTime":"2020-03-26 12:00:00","powerType":"全部","powerOffArea":"110kV更楼变:邓家Y161线-湖岑畈村湖岑畈台区后段","powerOffReason":"(低压停电信息)低压开关跳闸","powerOffId":"2020032631020064"}],"pageModel":{"pageNow":442,"totalCount":17789,"totalPage":1779,"tableRows":0,"pageCount":10,"beginCount":4410},"isExperi":"1"}