{"message":"","today":"2020-06-15","seleList":[{"poweroffId":2020032531020227,"sgpoweroffId":null,"subsName":"","lineName":"10kV坎镇C576线","pubTranName":"山南富村6#变,","scope":"浙江省-杭州市-萧山区-衙前镇-山南富行政村(衙前路,沿河横路,衙前直路,山南自然村,村西直路,山下张路)","startTime":"2020-04-02 08:30:00","stopDate":"2020-04-02 15:30:00","orgNo":"3340130","typeCode":"计划停电","poweroffArea":"35kV衙前变:坎镇C576线-山南富村6#变后段","poweroffReason":"山南富村6#变更换变压器，更换GGD柜，更换GGD柜进线、出线电缆 原停电结束时间为2020-04-02 16:30:00,为减少客户停电时间,加快工作进度,提前送电,现变更停电结束时间为2020-04-02 15:30:00","powerTime":"2020-04-02 14:54:21","powerComm":"已送电","subsNo":"","lineNo":"","tgNo":"","tgName":null,"infoStatus":"1","orgName":"国网浙江杭州市萧山区供电有限公司","typeName":null,"infoStatusName":null,"dateDay":null,"orgNos":null,"nowTime":null,"countyName":null,"streetName":null,"villageName":null,"roadName":null,"communityName":null,"tranName":null,"sdLineName":null,"cityCode":"3340130","cityName":"国网浙江杭州市萧山区供电有限公司","provinceCode":null,"stopTime":"2020-04-02 15:30:00","powerType":"全部","powerOffArea":"35kV衙前变:坎镇C576线-山南富村6#变后段","powerOffReason":"山南富村6#变更换变压器，更换GGD柜，更换GGD柜进线、出线电缆 原停电结束时间为2020-04-02 16:30:00,为减少客户停电时间,加快工作进度,提前送电,现变更停电结束时间为2020-04-02 15:30:00","powerOffId":"2020032531020227"},{"poweroffId":2020032531020225,"sgpoweroffId":null,"subsName":"","lineName":"10kV传芳C254线","pubTranName":"越山村5#变,","scope":"浙江省-杭州市-萧山区-所前镇-越王行政村-东山夏自然村,所前镇-越山行政村(郑家自然村,汪家自然村,徐家自然村)","startTime":"2020-04-02 08:30:00","stopDate":"2020-04-02 14:30:00","orgNo":"3340130","typeCode":"计划停电","poweroffArea":"110kV所前变:传芳C254线-越山村5#开关后段","poweroffReason":"95/05#杆电缆更换，新电缆至新立杆上杆、搭接","powerTime":"2020-04-02 14:14:09","powerComm":"已送电","subsNo":"","lineNo":"","tgNo":"","tgName":null,"infoStatus":"1","orgName":"国网浙江杭州市萧山区供电有限公司","typeName":null,"infoStatusName":null,"dateDay":null,"orgNos":null,"nowTime":null,"countyName":null,"streetName":null,"villageName":null,"roadName":null,"communityName":null,"tranName":null,"sdLineName":null,"cityCode":"3340130","cityName":"国网浙江杭州市萧山区供电有限公司","provinceCode":null,"stopTime":"2020-04-02 14:30:00","powerType":"全部","powerOffArea":"110kV所前变:传芳C254线-越山村5#开关后段","powerOffReason":"95/05#杆电缆更换，新电缆至新立杆上杆、搭接","powerOffId":"2020032531020225"},{"poweroffId":2020032531020214,"sgpoweroffId":null,"subsName":"","lineName":"10kV盈湖A358线","pubTranName":"吉山村4#变,","scope":"浙江省-杭州市-萧山区-进化镇-吉山行政村-吉山自然村，浙江省杭州市萧山区进化镇吉山行政村吉山自然村吉山等一带","startTime":"2020-03-25 17:16:04","stopDate":"2020-03-25 19:16:04","orgNo":"3340130","typeCode":"电网故障停限电","poweroffArea":"110kV进化变:盈湖A358线-吉山村4#变低压开关","poweroffReason":"(低压停电信息)低压漏电保护器短路故障","powerTime":"2020-03-25 18:31:45","powerComm":"已送电","subsNo":"","lineNo":"","tgNo":"","tgName":null,"infoStatus":"1","orgName":"国网浙江杭州市萧山区供电有限公司","typeName":null,"infoStatusName":null,"dateDay":null,"orgNos":null,"nowTime":null,"countyName":null,"streetName":null,"villageName":null,"roadName":null,"communityName":null,"tranName":null,"sdLineName":null,"cityCode":"3340130","cityName":"国网浙江杭州市萧山区供电有限公司","provinceCode":null,"stopTime":"2020-03-25 19:16:04","powerType":"全部","powerOffArea":"110kV进化变:盈湖A358线-吉山村4#变低压开关","powerOffReason":"(低压停电信息)低压漏电保护器短路故障","powerOffId":"2020032531020214"},{"poweroffId":2020032531020195,"sgpoweroffId":null,"subsName":"","lineName":"10kV仁里V312线","pubTranName":"临安市绿岛有机食品有限公司,","scope":"浙江省-杭州市-临安市-岛石镇-岛石村-临安市绿岛有机食品有限公司一带。","startTime":"2020-04-03 08:30:00","stopDate":"2020-04-03 14:50:00","orgNo":"3340160","typeCode":"计划停电","poweroffArea":"35kV岛石变:仁里V312线-绿岛分线令克后段","poweroffReason":"配合政府工程 原停电结束时间为2020-04-03 16:00:00,为减少客户停电时间,加快工作进度,提前送电,现变更停电结束时间为2020-04-03 14:50:00","powerTime":"2020-04-03 14:19:51","powerComm":"已送电","subsNo":"","lineNo":"","tgNo":"","tgName":null,"infoStatus":"1","orgName":"国网浙江临安市供电公司","typeName":null,"infoStatusName":null,"dateDay":null,"orgNos":null,"nowTime":null,"countyName":null,"streetName":null,"villageName":null,"roadName":null,"communityName":null,"tranName":null,"sdLineName":null,"cityCode":"3340160","cityName":"国网浙江临安市供电公司","provinceCode":null,"stopTime":"2020-04-03 14:50:00","powerType":"全部","powerOffArea":"35kV岛石变:仁里V312线-绿岛分线令克后段","powerOffReason":"配合政府工程 原停电结束时间为2020-04-03 16:00:00,为减少客户停电时间,加快工作进度,提前送电,现变更停电结束时间为2020-04-03 14:50:00","powerOffId":"2020032531020195"},{"poweroffId":2020032531020193,"sgpoweroffId":null,"subsName":"","lineName":"10kV如宝C855线","pubTranName":"如松村5#变,","scope":"浙江省-杭州市-萧山区-瓜沥镇-如松行政村-如松自然村","startTime":"2020-04-02 09:00:00","stopDate":"2020-04-02 13:40:00","orgNo":"3340130","typeCode":"计划停电","poweroffArea":"110kV昭东变:如宝C855线-如松村5#变后段","poweroffReason":"如宝C855线天龙分线63/02#杆如松村5#变拆除250kVA变压器1台，新装400kVA变压器1台 原停电结束时间为04-02 15:00:00,为减少客户停电时间,加快工作进度,提前送电,现变更停电结束时间为04-02 13:40:00","powerTime":"2020-04-02 13:03:06","powerComm":"已送电","subsNo":"","lineNo":"","tgNo":"","tgName":null,"infoStatus":"1","orgName":"国网浙江杭州市萧山区供电有限公司","typeName":null,"infoStatusName":null,"dateDay":null,"orgNos":null,"nowTime":null,"countyName":null,"streetName":null,"villageName":null,"roadName":null,"communityName":null,"tranName":null,"sdLineName":null,"cityCode":"3340130","cityName":"国网浙江杭州市萧山区供电有限公司","provinceCode":null,"stopTime":"2020-04-02 13:40:00","powerType":"全部","powerOffArea":"110kV昭东变:如宝C855线-如松村5#变后段","powerOffReason":"如宝C855线天龙分线63/02#杆如松村5#变拆除250kVA变压器1台，新装400kVA变压器1台 原停电结束时间为04-02 15:00:00,为减少客户停电时间,加快工作进度,提前送电,现变更停电结束时间为04-02 13:40:00","powerOffId":"2020032531020193"},{"poweroffId":2020032531020192,"sgpoweroffId":null,"subsName":"","lineName":"10kV肆联C472线","pubTranName":"运西村1#变,运西村11#变,","scope":"浙江省-杭州市-萧山区-瓜沥镇-运西行政村-运西自然村","startTime":"2020-04-02 08:30:00","stopDate":"2020-04-02 14:30:00","orgNo":"3340130","typeCode":"计划停电","poweroffArea":"35kV塘头变:肆联C472线-运西村11#变后段;肆联C472线-运西村1#变后段","poweroffReason":"肆联C472线友北开友如C472线11/04#杆运西村1#变拆除200kVA变压器1台，新装400kVA变压器1台，更换低压综合配电箱1台、跌落式熔断器开关1套（需带电作业配合）","powerTime":"2020-04-02 13:50:17","powerComm":"已送电","subsNo":"","lineNo":"","tgNo":"","tgName":null,"infoStatus":"1","orgName":"国网浙江杭州市萧山区供电有限公司","typeName":null,"infoStatusName":null,"dateDay":null,"orgNos":null,"nowTime":null,"countyName":null,"streetName":null,"villageName":null,"roadName":null,"communityName":null,"tranName":null,"sdLineName":null,"cityCode":"3340130","cityName":"国网浙江杭州市萧山区供电有限公司","provinceCode":null,"stopTime":"2020-04-02 14:30:00","powerType":"全部","powerOffArea":"35kV塘头变:肆联C472线-运西村11#变后段;肆联C472线-运西村1#变后段","powerOffReason":"肆联C472线友北开友如C472线11/04#杆运西村1#变拆除200kVA变压器1台，新装400kVA变压器1台，更换低压综合配电箱1台、跌落式熔断器开关1套（需带电作业配合）","powerOffId":"2020032531020192"},{"poweroffId":2020032531020179,"sgpoweroffId":null,"subsName":"","lineName":"10kV港城A815线","pubTranName":"岩峰村11#变,","scope":"浙江省-杭州市-萧山区-南阳街道-岩峰行政村-岩峰自然村、岩峰村一带","startTime":"2020-03-25 15:30:37","stopDate":"2020-03-25 17:30:37","orgNo":"3340130","typeCode":"电网故障停限电","poweroffArea":"110kV黎明变:港城A815线-岩峰村11#变台区低压开关","poweroffReason":"(低压停电信息)低压漏电保护器短路故障","powerTime":"2020-03-25 16:40:39","powerComm":"已送电","subsNo":"","lineNo":"","tgNo":"","tgName":null,"infoStatus":"1","orgName":"国网浙江杭州市萧山区供电有限公司","typeName":null,"infoStatusName":null,"dateDay":null,"orgNos":null,"nowTime":null,"countyName":null,"streetName":null,"villageName":null,"roadName":null,"communityName":null,"tranName":null,"sdLineName":null,"cityCode":"3340130","cityName":"国网浙江杭州市萧山区供电有限公司","provinceCode":null,"stopTime":"2020-03-25 17:30:37","powerType":"全部","powerOffArea":"110kV黎明变:港城A815线-岩峰村11#变台区低压开关","powerOffReason":"(低压停电信息)低压漏电保护器短路故障","powerOffId":"2020032531020179"},{"poweroffId":2020032531020175,"sgpoweroffId":null,"subsName":"","lineName":"10kV嘉景8530线","pubTranName":"景苑(七),","scope":"浙江省-杭州市-西湖区-古荡街道-嘉荷社区-莲花街-嘉绿景苑东园","startTime":"2020-03-25 15:29:32","stopDate":"2020-03-25 17:00:00","orgNo":"3340101","typeCode":"电网故障停限电","poweroffArea":"110kV文三变:嘉景8530线-景苑(七)后段","poweroffReason":"高压开关跳闸 原停电结束时间为2020-03-25 18:00:00,为减少客户停电时间,加快工作进度,提前送电,现变更停电结束时间为2020-03-25 17:00:00","powerTime":"2020-03-25 16:01:14","powerComm":"已送电","subsNo":"","lineNo":"","tgNo":"","tgName":null,"infoStatus":"1","orgName":"浙江杭州电力客户服务中心","typeName":null,"infoStatusName":null,"dateDay":null,"orgNos":null,"nowTime":null,"countyName":null,"streetName":null,"villageName":null,"roadName":null,"communityName":null,"tranName":null,"sdLineName":null,"cityCode":"3340101","cityName":"浙江杭州电力客户服务中心","provinceCode":null,"stopTime":"2020-03-25 17:00:00","powerType":"全部","powerOffArea":"110kV文三变:嘉景8530线-景苑(七)后段","powerOffReason":"高压开关跳闸 原停电结束时间为2020-03-25 18:00:00,为减少客户停电时间,加快工作进度,提前送电,现变更停电结束时间为2020-03-25 17:00:00","powerOffId":"2020032531020175"},{"poweroffId":2020032531020169,"sgpoweroffId":null,"subsName":"","lineName":"10kV蚕花8825线","pubTranName":"永庆(三),","scope":"浙江省-杭州市-拱墅区-拱宸桥街道(蚕花园社区-永庆路,永庆路社区-永庆路)，浙江省杭州市拱墅区永庆坊12、14-18幢附近一带","startTime":"2020-04-03 09:30:00","stopDate":"2020-04-03 21:30:00","orgNo":"3340101","typeCode":"计划停电","poweroffArea":"110kV拱宸变:蚕花8825线-永庆(三)后段","poweroffReason":"永庆（二）美变换欧变（城北送变电） 原停电结束时间为2020-04-03 19:30:00,因工作量原因,延迟送电,现变更停电结束时间为2020-04-03 21:30:00","powerTime":"2020-04-03 20:32:50","powerComm":"已送电","subsNo":"","lineNo":"","tgNo":"","tgName":null,"infoStatus":"1","orgName":"浙江杭州电力客户服务中心","typeName":null,"infoStatusName":null,"dateDay":null,"orgNos":null,"nowTime":null,"countyName":null,"streetName":null,"villageName":null,"roadName":null,"communityName":null,"tranName":null,"sdLineName":null,"cityCode":"3340101","cityName":"浙江杭州电力客户服务中心","provinceCode":null,"stopTime":"2020-04-03 21:30:00","powerType":"全部","powerOffArea":"110kV拱宸变:蚕花8825线-永庆(三)后段","powerOffReason":"永庆（二）美变换欧变（城北送变电） 原停电结束时间为2020-04-03 19:30:00,因工作量原因,延迟送电,现变更停电结束时间为2020-04-03 21:30:00","powerOffId":"2020032531020169"},{"poweroffId":2020032531020161,"sgpoweroffId":null,"subsName":"","lineName":"10kV陵上Y133线","pubTranName":"乾一村西桥台区,","scope":"浙江省-杭州市-建德市-乾潭镇-乾一行政村 岗脚自然村,西桥自然村一带用户","startTime":"2020-03-25 14:43:00","stopDate":"2020-03-25 16:00:00","orgNo":"3340180","typeCode":"电网故障停限电","poweroffArea":"110kV乾潭变:陵上Y133线-乾一村西桥台区后段","poweroffReason":"(低压停电信息)低压开关跳闸 原停电结束时间为2020-03-25 16:30:00,为减少客户停电时间,加快工作进度,提前送电,现变更停电结束时间为2020-03-25 16:00:00","powerTime":"2020-03-25 15:19:00","powerComm":"已送电","subsNo":"","lineNo":"","tgNo":"","tgName":null,"infoStatus":"1","orgName":"国网浙江建德市供电有限公司","typeName":null,"infoStatusName":null,"dateDay":null,"orgNos":null,"nowTime":null,"countyName":null,"streetName":null,"villageName":null,"roadName":null,"communityName":null,"tranName":null,"sdLineName":null,"cityCode":"3340180","cityName":"国网浙江建德市供电有限公司","provinceCode":null,"stopTime":"2020-03-25 16:00:00","powerType":"全部","powerOffArea":"110kV乾潭变:陵上Y133线-乾一村西桥台区后段","powerOffReason":"(低压停电信息)低压开关跳闸 原停电结束时间为2020-03-25 16:30:00,为减少客户停电时间,加快工作进度,提前送电,现变更停电结束时间为2020-03-25 16:00:00","powerOffId":"2020032531020161"}],"pageModel":{"pageNow":444,"totalCount":17789,"totalPage":1779,"tableRows":0,"pageCount":10,"beginCount":4430},"isExperi":"1"}