{"message":"","today":"2020-06-15","seleList":[{"poweroffId":2020032431020229,"sgpoweroffId":null,"subsName":"","lineName":"10kV中桥H874线","pubTranName":"新西湖2号公变,新西湖1号公变,","scope":"浙江省-杭州市-余杭区-中泰街道-石鸽社区-中泰路","startTime":"2020-03-24 16:51:00","stopDate":"2020-03-24 18:51:00","orgNo":"3340140","typeCode":"电网故障停限电","poweroffArea":"110kV中泰变:中桥H874线西湖1#站西湖1联线后段","poweroffReason":"高压开关跳闸","powerTime":"2020-03-24 18:28:20","powerComm":"已送电","subsNo":"","lineNo":"","tgNo":"","tgName":null,"infoStatus":"1","orgName":"国网浙江杭州市余杭区供电有限公司","typeName":null,"infoStatusName":null,"dateDay":null,"orgNos":null,"nowTime":null,"countyName":null,"streetName":null,"villageName":null,"roadName":null,"communityName":null,"tranName":null,"sdLineName":null,"cityCode":"3340140","cityName":"国网浙江杭州市余杭区供电有限公司","provinceCode":null,"stopTime":"2020-03-24 18:51:00","powerType":"全部","powerOffArea":"110kV中泰变:中桥H874线西湖1#站西湖1联线后段","powerOffReason":"高压开关跳闸","powerOffId":"2020032431020229"},{"poweroffId":2020032431020228,"sgpoweroffId":null,"subsName":"","lineName":"10kV中桥H874线","pubTranName":"新西湖4号公变,新西湖3号公变,","scope":"浙江省-杭州市-余杭区-中泰街道-石鸽社区-中泰路","startTime":"2020-03-24 16:51:00","stopDate":"2020-03-24 18:51:00","orgNo":"3340140","typeCode":"电网故障停限电","poweroffArea":"110kV中泰变:中桥H874线西湖2#站西湖2联线后段","poweroffReason":"高压开关跳闸","powerTime":"2020-03-24 18:28:54","powerComm":"已送电","subsNo":"","lineNo":"","tgNo":"","tgName":null,"infoStatus":"1","orgName":"国网浙江杭州市余杭区供电有限公司","typeName":null,"infoStatusName":null,"dateDay":null,"orgNos":null,"nowTime":null,"countyName":null,"streetName":null,"villageName":null,"roadName":null,"communityName":null,"tranName":null,"sdLineName":null,"cityCode":"3340140","cityName":"国网浙江杭州市余杭区供电有限公司","provinceCode":null,"stopTime":"2020-03-24 18:51:00","powerType":"全部","powerOffArea":"110kV中泰变:中桥H874线西湖2#站西湖2联线后段","powerOffReason":"高压开关跳闸","powerOffId":"2020032431020228"},{"poweroffId":2020032431020227,"sgpoweroffId":null,"subsName":"","lineName":"10kV白云H884线","pubTranName":"新西湖5号公变,新西湖8号公变,新西湖6号公变,新西湖7号公变,","scope":"浙江省-杭州市-余杭区-中泰街道-石鸽社区-中泰路","startTime":"2020-03-24 16:51:00","stopDate":"2020-03-24 18:51:00","orgNo":"3340140","typeCode":"电网故障停限电","poweroffArea":"110kV中泰变:白云H884线西湖4#站新西湖8B分线后段","poweroffReason":"高压开关跳闸","powerTime":"2020-03-24 18:27:21","powerComm":"已送电","subsNo":"","lineNo":"","tgNo":"","tgName":null,"infoStatus":"1","orgName":"国网浙江杭州市余杭区供电有限公司","typeName":null,"infoStatusName":null,"dateDay":null,"orgNos":null,"nowTime":null,"countyName":null,"streetName":null,"villageName":null,"roadName":null,"communityName":null,"tranName":null,"sdLineName":null,"cityCode":"3340140","cityName":"国网浙江杭州市余杭区供电有限公司","provinceCode":null,"stopTime":"2020-03-24 18:51:00","powerType":"全部","powerOffArea":"110kV中泰变:白云H884线西湖4#站新西湖8B分线后段","powerOffReason":"高压开关跳闸","powerOffId":"2020032431020227"},{"poweroffId":2020032431020226,"sgpoweroffId":null,"subsName":"","lineName":"10kV白云H884线","pubTranName":"白云村毛家桥公变,白云村下铜山公变,浙江交工路桥绕城西复线三标9#基建变,白云村章岭公变,新西湖19号公变,白云村陈家墩公变,中桥村,白云村小山桥公变,白云村东坞公变,新西湖20号公变,白云村白石桥公变,中桥村后殿公变,新西湖15号公变,悠扬生态农业变,中桥村黄婆庙公变,1#,浙石石粉,中桥村白洋岭公变,浙江交工路桥绕城西复线三标13#基建变,白云村黄石坎公变,彩云石料,中桥村后殿礼堂公变,中明白云石矿,中桥村皇坟头公变,2#,双裕印务,野凤岭农庄,中桥村马里2号公变,1#,中桥村外马里公变,2#,中泰章岭石粉,新西湖17号公变,白云村卢家头公变,清水湾1号公变,白云村石坞山公变,中桥村船桥山公变,交通工程监理咨询配变,生荣建材,白云村汪家头公变,中桥村沙村2号公变,新西湖18号公变,中泰旅游基建变,中桥村卢家湾公变,中桥村道泥弄公变,中泰旅游中心公变,白云村大坞口公变,中桥村杨家头公变,白云村章家岭公变,清水湾2号公变,白云村西坞公变,中桥村朱桥庙公变,中桥村半山公变,中桥村杨桥村公变,新西湖16号公变,中桥村茶凉公变,浙江交工路桥绕城西复线三标12#基建变,中桥村赵界坞公变,杭州余杭旅游集团有限公司1#专变（6120882511）,白云村鸡笼山公变,白云村青草湾公变,白云村叶家头公变,中桥村马里公变,白云村铜山公变,中桥村村委公变,景顺电子,中桥村沙村公变,白云村天井湾公变,建设集团（惠余置业宿舍）基建变,白云村黄石坎2号公变,","scope":"浙江省-杭州市-余杭区-中泰街道-中桥行政村(中桥自然村,小羊坞自然村,杨界山自然村,板桥山自然村),中泰街道(南湖行政村-南湖自然村,白云行政村-白云自然村,石鸽社区-中泰路);中泰街道(杭州余杭中泰章岭白云石料厂,浙江交工路桥建设有限公司,杭州余杭中泰旅游开发有限公司,杭州余杭中桥股份经济合作社,杭州旅游实业发展有限公司,杭州余杭区中泰乡日金白云石料销售站,杭州仟井电器制造有限公司,杭州余杭区余杭景顺电子厂,杭州野凤岭休闲农庄有限公司,杭州中泰彩云石料厂,杭州市余杭区人民政府中泰街道办事处,杭州越华物业管理有限公司,杭州交通工程监理咨询有限公司,杭州余杭高氏水泥管道有限公司,杭州悠扬生态农业开发有限公司,杭州市建设集团有限公司)","startTime":"2020-03-24 16:50:00","stopDate":"2020-03-24 18:50:00","orgNo":"3340140","typeCode":"电网故障停限电","poweroffArea":"110kV中泰变:白云H884线小镇开关站小镇开关站湖镇H8841线后段","poweroffReason":"高压开关跳闸","powerTime":"2020-03-24 18:25:20","powerComm":"已送电","subsNo":"","lineNo":"","tgNo":"","tgName":null,"infoStatus":"1","orgName":"国网浙江杭州市余杭区供电有限公司","typeName":null,"infoStatusName":null,"dateDay":null,"orgNos":null,"nowTime":null,"countyName":null,"streetName":null,"villageName":null,"roadName":null,"communityName":null,"tranName":null,"sdLineName":null,"cityCode":"3340140","cityName":"国网浙江杭州市余杭区供电有限公司","provinceCode":null,"stopTime":"2020-03-24 18:50:00","powerType":"全部","powerOffArea":"110kV中泰变:白云H884线小镇开关站小镇开关站湖镇H8841线后段","powerOffReason":"高压开关跳闸","powerOffId":"2020032431020226"},{"poweroffId":2020032431020225,"sgpoweroffId":null,"subsName":"","lineName":"10kV中桥H874线","pubTranName":"新西湖11号公变,新西湖22号公变,颐景园(7)专变,新西湖21号公变,新西湖10号公变,新西湖13号公变,新西湖12号公变,新西湖14号公变,新西湖9号公变,","scope":"浙江省-杭州市-余杭区-中泰街道-石鸽社区-中泰路;中泰街道-杭州越华物业管理有限公司","startTime":"2020-03-24 16:51:00","stopDate":"2020-03-24 18:51:00","orgNo":"3340140","typeCode":"电网故障停限电","poweroffArea":"110kV中泰变:中桥H874线小镇开关站小镇开关站西小H8741线后段","poweroffReason":"高压开关跳闸","powerTime":"2020-03-24 18:29:13","powerComm":"已送电","subsNo":"","lineNo":"","tgNo":"","tgName":null,"infoStatus":"1","orgName":"国网浙江杭州市余杭区供电有限公司","typeName":null,"infoStatusName":null,"dateDay":null,"orgNos":null,"nowTime":null,"countyName":null,"streetName":null,"villageName":null,"roadName":null,"communityName":null,"tranName":null,"sdLineName":null,"cityCode":"3340140","cityName":"国网浙江杭州市余杭区供电有限公司","provinceCode":null,"stopTime":"2020-03-24 18:51:00","powerType":"全部","powerOffArea":"110kV中泰变:中桥H874线小镇开关站小镇开关站西小H8741线后段","powerOffReason":"高压开关跳闸","powerOffId":"2020032431020225"},{"poweroffId":2020032431020219,"sgpoweroffId":null,"subsName":"","lineName":"10kV杭园G282线","pubTranName":"杭州市投资开发有限公司,泉漳村西坝公变,泉漳村丁家桥公变,路灯箱变,杭州远方钢结构制造有限公司,天猫技术开发区基建（6120882250）02#专变,天猫技术开发区基建（6120882250）01#专变,杭州余杭公交场站管理有限公司,","scope":"浙江省-杭州市-余杭区-塘栖镇-泉漳行政村-泉漳自然村;东湖街道-浙江天猫技术有限公司,塘栖镇(杭州市开发投资有限公司,杭州远方钢结构制造有限公司,杭州市余杭公共交通有限公司)","startTime":"2020-03-24 16:25:59","stopDate":"2020-03-24 18:25:59","orgNo":"3340140","typeCode":"电网故障停限电","poweroffArea":"110kV渔桥变:杭园G282线杭园G2822开关后段","poweroffReason":"高压开关跳闸","powerTime":"2020-03-24 18:23:29","powerComm":"已送电","subsNo":"","lineNo":"","tgNo":"","tgName":null,"infoStatus":"1","orgName":"国网浙江杭州市余杭区供电有限公司","typeName":null,"infoStatusName":null,"dateDay":null,"orgNos":null,"nowTime":null,"countyName":null,"streetName":null,"villageName":null,"roadName":null,"communityName":null,"tranName":null,"sdLineName":null,"cityCode":"3340140","cityName":"国网浙江杭州市余杭区供电有限公司","provinceCode":null,"stopTime":"2020-03-24 18:25:59","powerType":"全部","powerOffArea":"110kV渔桥变:杭园G282线杭园G2822开关后段","powerOffReason":"高压开关跳闸","powerOffId":"2020032431020219"},{"poweroffId":2020032431020196,"sgpoweroffId":null,"subsName":"","lineName":"10kV潘村D207线","pubTranName":"横山下5#横山下公变,","scope":"浙江省-杭州市-富阳区-富春街道-青云桥行政村-横山下自然村","startTime":"2020-03-26 09:00:00","stopDate":"2020-03-26 11:00:00","orgNo":"3340170","typeCode":"临时停电","poweroffArea":"35kV大青变:潘村D207线-横山下5#横山下公变后段","poweroffReason":"横山下5#横山下公变低压母线电缆更换","powerTime":"2020-03-26 10:25:01","powerComm":"已送电","subsNo":"","lineNo":"","tgNo":"","tgName":null,"infoStatus":"1","orgName":"国网浙江杭州市富阳区供电公司","typeName":null,"infoStatusName":null,"dateDay":null,"orgNos":null,"nowTime":null,"countyName":null,"streetName":null,"villageName":null,"roadName":null,"communityName":null,"tranName":null,"sdLineName":null,"cityCode":"3340170","cityName":"国网浙江杭州市富阳区供电公司","provinceCode":null,"stopTime":"2020-03-26 11:00:00","powerType":"全部","powerOffArea":"35kV大青变:潘村D207线-横山下5#横山下公变后段","powerOffReason":"横山下5#横山下公变低压母线电缆更换","powerOffId":"2020032431020196"},{"poweroffId":2020032431020189,"sgpoweroffId":null,"subsName":"","lineName":"10kV浦詹6593线","pubTranName":"小江三,老塘,横埭街农(4),1,小江七,钱塘,红星,麦服,小塑,钱塘二,金离,小江二,捷明贸易,绕南二,小宅里,红星(2),小江,金钢变,双浦施一,左中右(2),老塘三,老塘二,小宅里二,袁浦施,","scope":"浙江省-杭州市-西湖区-转塘街道(村口社区-鸡山路,石龙山社区-石龙山村道,五云梦湖社区-之江路),双浦镇(小江行政村-小江村道,麦岭沙社区-麦岭沙村道,新浦沿行政村-新浦沿村道,袁家浦社区-袁浦街,夏家桥行政村-夏家桥村道);双浦镇(国网浙江省电力公司杭州供电公司,杭州市双浦镇人民政府,杭州金马离合器有限公司,浙江左中右电动汽车服务有限公司,杭州捷明贸易有限公司,杭州市公路管理局,)","startTime":"2020-03-24 14:54:00","stopDate":"2020-03-24 16:54:00","orgNo":"3340101","typeCode":"电网故障停限电","poweroffArea":"110kV周浦变:浦詹6593线10千伏友谊051线小宅里分线开关后段","poweroffReason":"高压开关跳闸","powerTime":"2020-03-24 16:10:31","powerComm":"已送电","subsNo":"","lineNo":"","tgNo":"","tgName":null,"infoStatus":"1","orgName":"浙江杭州电力客户服务中心","typeName":null,"infoStatusName":null,"dateDay":null,"orgNos":null,"nowTime":null,"countyName":null,"streetName":null,"villageName":null,"roadName":null,"communityName":null,"tranName":null,"sdLineName":null,"cityCode":"3340101","cityName":"浙江杭州电力客户服务中心","provinceCode":null,"stopTime":"2020-03-24 16:54:00","powerType":"全部","powerOffArea":"110kV周浦变:浦詹6593线10千伏友谊051线小宅里分线开关后段","powerOffReason":"高压开关跳闸","powerOffId":"2020032431020189"},{"poweroffId":2020032431020185,"sgpoweroffId":null,"subsName":"","lineName":"10kV杭园G282线","pubTranName":"富康五金,合金铁球1#,杭州市余杭区临平乾元基督教堂,天猫技术开发区基建（6120882250）01#专变,泉漳村鱼桥河公变,杭州市投资开发有限公司,泉漳村西坝公变,天猫技术开发区基建（6120882250）02#专变,合金铁球2#,龙船坞村坝桥公变,泉漳村杨家角公变,泉漳村寺桥南公变,路灯箱变,杭州余杭公交场站管理有限公司,泉漳村泉漳街道公变,杭州远方钢结构制造有限公司,泉漳村丁家桥公变,","scope":"浙江省-杭州市-余杭区-塘栖镇-泉漳行政村(泉漳自然村,泉漳),塘栖镇-孤林行政村(龙船坞,土山坝村),塘栖镇-龙船坞行政村-龙船坞村,东湖街道-泉漳行政村-泉漳村;东湖街道(浙江安科磁力科技有限公司,杭州市余杭区临平乾元基督教堂,浙江天猫技术有限公司),塘栖镇(杭州市开发投资有限公司,杭州远方钢结构制造有限公司,杭州塘栖合金球铁有限公司,杭州市余杭公共交通有限公司)","startTime":"2020-03-24 14:46:00","stopDate":"2020-03-24 18:46:00","orgNo":"3340140","typeCode":"电网故障停限电","poweroffArea":"110kV渔桥变:杭园G282线杭园G2821开关后段","poweroffReason":"高压开关跳闸 原停电结束时间为2020-03-24 16:46:00,因现场复杂原因,现变更停电结束时间为2020-03-24 18:46:00","powerTime":"2020-03-24 18:21:29","powerComm":"已送电","subsNo":"","lineNo":"","tgNo":"","tgName":null,"infoStatus":"1","orgName":"国网浙江杭州市余杭区供电有限公司","typeName":null,"infoStatusName":null,"dateDay":null,"orgNos":null,"nowTime":null,"countyName":null,"streetName":null,"villageName":null,"roadName":null,"communityName":null,"tranName":null,"sdLineName":null,"cityCode":"3340140","cityName":"国网浙江杭州市余杭区供电有限公司","provinceCode":null,"stopTime":"2020-03-24 18:46:00","powerType":"全部","powerOffArea":"110kV渔桥变:杭园G282线杭园G2821开关后段","powerOffReason":"高压开关跳闸 原停电结束时间为2020-03-24 16:46:00,因现场复杂原因,现变更停电结束时间为2020-03-24 18:46:00","powerOffId":"2020032431020185"},{"poweroffId":2020032431020169,"sgpoweroffId":null,"subsName":"","lineName":"10kV杨家G293线","pubTranName":"塘北村大塘湾公变,塘北村小家河公变,塘北村塘北村公变,塘北泵站,塘北村郑家埭六组公变,杭州金利丝业有限公司,塘北村周家坝公变,杭州市余杭区塘栖镇塘南中心小学612087988601#专变,杭州余杭塘北股份经济合作社,海玄标牌,塘北村毛家埭公变,广丰五金,杭州超博装饰材料有限公司,","scope":"浙江省-杭州市-余杭区-塘栖镇-塘北行政村-塘北村;塘栖镇(杭州海玄标牌有限公司,杭州金利丝业有限公司,杭州财达机械有限公司,杭州余杭塘北股份经济合作社,杭州市余杭区塘栖镇塘南中心小学)","startTime":"2020-03-24 14:31:00","stopDate":"2020-03-24 16:31:00","orgNo":"3340140","typeCode":"电网故障停限电","poweroffArea":"110kV渔桥变:杨家G293线景林村分线开关后段","poweroffReason":"高压开关跳闸","powerTime":"2020-03-24 15:54:14","powerComm":"已送电","subsNo":"","lineNo":"","tgNo":"","tgName":null,"infoStatus":"1","orgName":"国网浙江杭州市余杭区供电有限公司","typeName":null,"infoStatusName":null,"dateDay":null,"orgNos":null,"nowTime":null,"countyName":null,"streetName":null,"villageName":null,"roadName":null,"communityName":null,"tranName":null,"sdLineName":null,"cityCode":"3340140","cityName":"国网浙江杭州市余杭区供电有限公司","provinceCode":null,"stopTime":"2020-03-24 16:31:00","powerType":"全部","powerOffArea":"110kV渔桥变:杨家G293线景林村分线开关后段","powerOffReason":"高压开关跳闸","powerOffId":"2020032431020169"}],"pageModel":{"pageNow":446,"totalCount":17789,"totalPage":1779,"tableRows":0,"pageCount":10,"beginCount":4450},"isExperi":"1"}