{"message":"","today":"2020-06-15","seleList":[{"poweroffId":2020032131020415,"sgpoweroffId":null,"subsName":"","lineName":"10kV夏山C258线","pubTranName":"山联村6#变,杭州天然气有限公司,杭州市萧山区所前人镇民政府,越王村6#变,越王村2#变,杭州市萧山区公路管理处专变,金山村10#变,杭州力能坚机械有限公司,山联村3#变,金山村6#变,越王村1#变,山联村4#变,山联村13#变,杭州蓝莓生态农业有限公司,金山村8#变,杭州大禾市政工程有限公司,金山村5#变,山联村10#变,金山村9#变,山联村5#变,越王村3#变,越王村8#变,越王村5#变,金山村3#变,所前工具,山联村8#变,山联村2#变,金山村15#变,杭州泰博热处理有限公司,夏山埭村,越王村4#变,越王村7#变,越王村9#变,杭州优利克五金工具有限公司,山联村11#变,杭州潘工工具有限公司,祥龙机械2#,蓝海基地1#专变,传芳村,杭州源本农业发展有限公司,山联村12#变,杭州迪曼特轴承有限公司,金山村2#变,杭州明成木业有限公司,山联村7#变,变压器,祥龙机械1#,山联村14#变,山联村9#变,杭州迪生车业有限公司,变压器,山联村1#变,变压器,金山村11#变,杭州景源环保设备有限公司,","scope":"浙江省-杭州市-萧山区-所前镇-越山行政村-郑家自然村,所前镇-山联行政村(夏山埭自然村,渔家埭自然村,赵坞自然村,池头沈自然村),所前镇-越王行政村(夏家埭自然村,山里沈自然村,东山夏自然村,上安王自然村,岭下胡自然村),所前镇-金山行政村(庄里陈自然村,娄家湾自然村,张家坂自然村,钱家湾自然村);所前镇-金山行政村(杭州旭达轴承有限公司,杭州天然气有限公司),所前镇-山联行政村(杭州潘工工具有限公司,杭州景源环保设备有限公司,杭州明成木业有限公司,夏山埭村,杭州蓝海生态农业有限公司,杭州所前工具有限公司,杭州力能坚机械有限公司,杭州赵氏茶叶专业合作社,杭州大禾市政工程有限公司),所前镇-越王行政村(杭州泰博热处理有限公司,杭州绿杰环保科技有限公司,杭州迪生车业有限公司,杭州萧山祥龙机械有限公司,杭州源本农业发展有限公司,杭州市萧山区所前镇人民政府),所前镇(传芳行政村-传芳村,越山行政村-杭州市萧山区公路管理处)","startTime":"2020-03-22 00:00:00","stopDate":"2020-03-22 02:00:00","orgNo":"3340130","typeCode":"电网故障停限电","poweroffArea":"110kV所前变:夏山C258线夏山C2581开关后段","poweroffReason":"自然原因引起所前变夏山C258线夏山C2581开关后段高压柱上断路器短路跳闸 原停电结束时间为2020-03-22 01:30:00,因现场天气恶劣原因,现变更停电结束时间为2020-03-22 02:00:00","powerTime":"2020-03-22 01:28:00","powerComm":"已送电","subsNo":"","lineNo":"","tgNo":"","tgName":null,"infoStatus":"1","orgName":"国网浙江杭州市萧山区供电有限公司","typeName":null,"infoStatusName":null,"dateDay":null,"orgNos":null,"nowTime":null,"countyName":null,"streetName":null,"villageName":null,"roadName":null,"communityName":null,"tranName":null,"sdLineName":null,"cityCode":"3340130","cityName":"国网浙江杭州市萧山区供电有限公司","provinceCode":null,"stopTime":"2020-03-22 02:00:00","powerType":"全部","powerOffArea":"110kV所前变:夏山C258线夏山C2581开关后段","powerOffReason":"自然原因引起所前变夏山C258线夏山C2581开关后段高压柱上断路器短路跳闸 原停电结束时间为2020-03-22 01:30:00,因现场天气恶劣原因,现变更停电结束时间为2020-03-22 02:00:00","powerOffId":"2020032131020415"},{"poweroffId":2020032131020414,"sgpoweroffId":null,"subsName":"","lineName":"10kV生态C253线","pubTranName":"天乐云都4#公变,天乐云都2#公变,天乐云都聆风苑1#公变,天乐云都聆风苑2#公变,李家村6#变,李家村9#变,天乐云都19#公变,天乐云都5#公变,杭州生态园有限公司,杭州生态园有限公司,李家村2#变,天乐云都18#公变,天乐云都20#公变,天乐云都6#公变,杭州萧山瑶林汽车配件厂,天乐云都1#公变,天乐云都17#公变,天乐云都21#公变,李家村10#变,天乐云都10#公变,天乐云都12#公变,杭州中嘉物业管理有限公司1号专变,天乐云都14#公变,李家村5#变,祥里王村5#变,天乐云都9#公变,李家村7#变,李家村3#变,杭州市萧山区公路管理处专变,康明塑料配电变压器,天乐云都7#公变,李家村4#变,天乐云都临水苑1#公变,杭州萧山康盛养殖有限公司,天乐云都3#公变,杭州宽力金属材料有限公司,天乐云都11#公变,祥里王村1#变,杭州萧山龙达健身器材配件厂,李家村8#变,天乐云都8#公变,变压器,天乐云都13#公变,天乐云都16#公变,","scope":"浙江省-杭州市-萧山区-所前镇-祥里王行政村-祥里王自然村,所前镇-越王行政村(天乐云都,东山夏自然村),所前镇-李家行政村(大小坞自然村,下闻自然村,大坞自然村,小坞自然村),所前镇-天乐社区(天乐云都,杭州生态园);所前镇-传芳行政村(杭州市萧山区公路管理处,杭州萧山康盛养殖有限公司),所前镇-李家行政村(杭州瑶林汽车配件有限公司,杭州萧山龙达健身器材配件厂,杭州宽力金属材料有限公司),所前镇(金山行政村-浙江省交通投资集团有限公司杭金衢分公司,越山行政村-杭州生态园有限公司,越王行政村-杭州生态园有限公司,三泉王行政村-杭州康明塑料包装有限公司,天乐社区-杭州中嘉物业管理有限公司)","startTime":"2020-03-22 00:00:00","stopDate":"2020-03-22 02:00:00","orgNo":"3340130","typeCode":"电网故障停限电","poweroffArea":"110kV所前变:生态C253线生态C2531开关后段","poweroffReason":"自然原因引起所前变生态C253线生态C2531开关后段高压柱上断路器短路跳闸 原停电结束时间为2020-03-22 01:30:00,因现场天气恶劣原因,现变更停电结束时间为2020-03-22 02:00:00","powerTime":"2020-03-22 01:28:02","powerComm":"已送电","subsNo":"","lineNo":"","tgNo":"","tgName":null,"infoStatus":"1","orgName":"国网浙江杭州市萧山区供电有限公司","typeName":null,"infoStatusName":null,"dateDay":null,"orgNos":null,"nowTime":null,"countyName":null,"streetName":null,"villageName":null,"roadName":null,"communityName":null,"tranName":null,"sdLineName":null,"cityCode":"3340130","cityName":"国网浙江杭州市萧山区供电有限公司","provinceCode":null,"stopTime":"2020-03-22 02:00:00","powerType":"全部","powerOffArea":"110kV所前变:生态C253线生态C2531开关后段","powerOffReason":"自然原因引起所前变生态C253线生态C2531开关后段高压柱上断路器短路跳闸 原停电结束时间为2020-03-22 01:30:00,因现场天气恶劣原因,现变更停电结束时间为2020-03-22 02:00:00","powerOffId":"2020032131020414"},{"poweroffId":2020032131020403,"sgpoweroffId":null,"subsName":"","lineName":"10kV贾家G112线","pubTranName":"万乐5组2号公变,万乐3组公变,万乐3组2号公变,万乐3组4#公变,万乐3组3号公变,万乐5组公变,万乐4组公变,万乐村委,万乐4组2号公变,万乐社区居民委员会,品味橱柜,","scope":"浙江省-杭州市-余杭区-星桥街道-贾家社区-贾家,星桥街道-万乐社区(卜家桥自然村,万乐,杨家自然村);乔司街道-杭州余杭品味橱柜有限公司,星桥街道(杭州余杭万乐股份经济合作社,杭州运成包装有限公司)","startTime":"2020-03-21 23:05:00","stopDate":"2020-03-22 01:05:00","orgNo":"3340140","typeCode":"电网故障停限电","poweroffArea":"110kV临平变:贾家G112线贾家3组分线开关后段","poweroffReason":"高压开关跳闸","powerTime":"2020-03-22 00:30:20","powerComm":"已送电","subsNo":"","lineNo":"","tgNo":"","tgName":null,"infoStatus":"1","orgName":"国网浙江杭州市余杭区供电有限公司","typeName":null,"infoStatusName":null,"dateDay":null,"orgNos":null,"nowTime":null,"countyName":null,"streetName":null,"villageName":null,"roadName":null,"communityName":null,"tranName":null,"sdLineName":null,"cityCode":"3340140","cityName":"国网浙江杭州市余杭区供电有限公司","provinceCode":null,"stopTime":"2020-03-22 01:05:00","powerType":"全部","powerOffArea":"110kV临平变:贾家G112线贾家3组分线开关后段","powerOffReason":"高压开关跳闸","powerOffId":"2020032131020403"},{"poweroffId":2020032131020397,"sgpoweroffId":null,"subsName":"","lineName":"10kV屏山Y445线","pubTranName":"锦弘环保2#专变,红路村新柳下台区,建德市中鑫建材有限公司专变,红路村江家垅台区,锦弘环保1#专变,杭州锦弘环保墙体材料有限公司1#电机,","scope":"浙江省-杭州市-建德市-寿昌镇-红路行政村新柳下自然村,后大路自然村,江家垅自然村,汪家自然村;杭州锦弘环保墙体材料有限公司,浙江钜元建筑科技有限公司一带用户","startTime":"2020-03-21 22:55:00","stopDate":"2020-03-21 23:59:00","orgNo":"3340180","typeCode":"电网故障停限电","poweroffArea":"110kV家蓬变:屏山Y445线江家垅支线0#杆开关后段","poweroffReason":"高压开关跳闸 原停电结束时间为2020-03-22 00:55:00,为减少客户停电时间,加快工作进度,提前送电,现变更停电结束时间为2020-03-21 23:59:00","powerTime":"2020-03-21 23:41:00","powerComm":"已送电","subsNo":"","lineNo":"","tgNo":"","tgName":null,"infoStatus":"1","orgName":"国网浙江建德市供电有限公司","typeName":null,"infoStatusName":null,"dateDay":null,"orgNos":null,"nowTime":null,"countyName":null,"streetName":null,"villageName":null,"roadName":null,"communityName":null,"tranName":null,"sdLineName":null,"cityCode":"3340180","cityName":"国网浙江建德市供电有限公司","provinceCode":null,"stopTime":"2020-03-21 23:59:00","powerType":"全部","powerOffArea":"110kV家蓬变:屏山Y445线江家垅支线0#杆开关后段","powerOffReason":"高压开关跳闸 原停电结束时间为2020-03-22 00:55:00,为减少客户停电时间,加快工作进度,提前送电,现变更停电结束时间为2020-03-21 23:59:00","powerOffId":"2020032131020397"},{"poweroffId":2020032131020385,"sgpoweroffId":null,"subsName":"","lineName":"10kV陶春H558线","pubTranName":"前溪村上百步公变,求是村招河墩公变,杭州余杭西安寺股份经济合作社6120873949,前溪村百步公变,漕桥村水塔公变,小古城村章山公变,求是村喻家头公变,径山镇政府（门前畈排）6120418152,求是村农居点公变,杭州余杭太平山股份经济合作社（军马场）6110116043,1＃,前溪村下百步公变,西安寺村郎家山公变,漕桥村桥北公变,求是村陶村桥下村公变,径山中学,姚家排1,潘板中心小学配电变压器,浙江鼎盛交通建设有限公司6120697757,求是村塘东公变,杭州余杭农林径山经营有限公司（天宝蚕种）6110118072,杭州余杭农林径山经营有限公司（七里坂）6110116006,杭州铖飞生态农业有限公司6120205923,西安寺村桐家头公变,求是村求是大村公变,老虎墩,求是村求是村公变,前溪村袁家公变,求是村大舍1号公变,杭州余杭农林径山经营有限公司（蚕种场2）6111002533,前溪村前溪公变,浙江鼎盛交通建设有限公司6120697759,求是村李王庙公变,前溪村陈其畈公变,漕桥村公变,西安寺外畈排涝机埠6110118095,漕桥村吴池头公变,求是村茶山机埠1号公变,漕桥村烂料池公变,前溪村石坎下公变,公安局径山6120849061,杭州市余杭区径山镇前溪村村民委员会(百步排)6110103036,前溪村李家村公变,求是村梅秋里公变,浙江鼎盛交通建设有限公司6120816093,翔源过滤,前溪村陈坝畈公变,径山中心幼儿园I段（6120879820）01#专变,浙江鼎盛交通建设有限公司6120697758,径山镇政府（漕桥村路灯）6120305428,中森金属拉丝厂（速森电缆）,西安寺村黄河头公变,1#,2#,潘板集镇求是路口公变,潘板漕桥村(祝家斗1排涝)6110116025,浙江鼎盛交通建设有限公司6120816094,求是村大舍2号公变,求是村门前畈公变,杭州余杭求是股份经济合作社（排涝）6120812436,杭州唯康农业开发有限公司6120585939,1#,前溪村杨家村公变,漕桥村村委公变,漕桥村祝家头公变,求是村苏家头公变,前溪村倪家头公变,前溪村前溪村委公变,求是村陶村桥公变,漕桥村下街公变,求是村罗介头公变,1#,潘板排涝站(大舍排)6110103034,七里排,杭州画境种业有限公司,径迅机械6110116101,西安寺村梧桐弄公变,径山镇政府（罗家头排）6110103030,前溪村井子畈公变,求是村茶山机埠2号公变,倪家排,前溪村普家头公变,前溪村招家堰公变,求是村陶村桥上村公变,径山镇政府（求是村路灯）6120305429,求是村陶村桥中村公变,","scope":"浙江省-杭州市-余杭区-径山镇-小古城行政村(章山自然村,小古城自然村),瓶窑镇-西安寺行政村(圣堂自然村,黄河头自然村,郎家山自然村,梧桐弄自然村,长山自然村,马家坝),径山镇-漕桥行政村(漕桥上街头自然村,漕桥自然村,漕桥吴池头自然村,漕桥下街头自然村,漕桥中街头自然村,漕桥祝家头自然村),径山镇-前溪行政村(前溪自然村,袁家桥自然村,李上自然村,陈基畈自然村,杜家头自然村,百步自然村,景子畈自然村,倪家头自然村,陈家头自然村,秦家墩自然村,上百步自然村,王家墩自然村,下百步自然村,姜吴自然村,前上自然村,崇阳庙自然村),径山镇-求是行政村(陶桥自然村,求是自然村,大舍自然村,后塘自然村,门前畈自然村,毛潘线,罗家头自然村,梅秋里自然村,下自然村,塘东自然村,照河墩自然村,后塘,上自然村,下东组自然村,里皇妙自然村),径山镇(径山行政村-径山自然村,麻车头行政村-麻车头自然村,潘坂桥行政村-潘坂桥自然村,西山行政村-邵家畈自然村);浙江省-杭州市-余杭区-瓶窑镇-瓶窑行政村-西安寺外畈排涝机埠,瓶窑镇-西安寺行政村(浙江鼎盛交通建设有限公司,杭州余杭西安寺股份经济合作社),径山镇-潘坂桥行政村(杭州余杭农林径山经营有限公司,杭州余杭太平山股份经济合作社,杭州径迅机械有限公司,潘板排涝站),径山镇-漕桥行政村(潘板漕桥村,杭州余杭农林径山经营有限公司,杭州翔源过滤机有限公司,杭州市余杭区径山镇漕桥村村民委员会,杭州市余杭区径山镇人民政府),径山镇-前溪行政村(杭州唯康农业开发有限公司,浙江鼎盛交通建设有限公司,杭州速森线缆材料有限公司,杭州余杭前溪股份经济合作社),径山镇-径山行政村(杭州市余杭区径山镇前溪村村民委员会,杭州铖飞生态农业有限公司,潘板排涝站,杭州余杭农林径山经营有限公司,杭州市余杭区径山镇中学,径山镇政府),径山镇-求是行政村(杭州市余杭区径山镇人民政府,杭州余杭求是股份经济合作社,杭州市公安局余杭区分局,浙江森禾集团股份有限公司余杭分公司,杭州画境种业有限公司,杭州市余杭区径山镇潘板中心小学,杭州市余杭区径山镇中心幼儿园)","startTime":"2020-03-21 22:36:08","stopDate":"2020-03-22 01:39:08","orgNo":"3340140","typeCode":"电网故障停限电","poweroffArea":"110kV潘板变:陶春H558线","poweroffReason":"高压开关跳闸 原停电结束时间为2020-03-22 02:20:08,为减少客户停电时间,加快工作进度,提前送电,现变更停电结束时间为2020-03-22 01:39:08","powerTime":"2020-03-22 01:00:51","powerComm":"已送电","subsNo":"","lineNo":"","tgNo":"","tgName":null,"infoStatus":"1","orgName":"国网浙江杭州市余杭区供电有限公司","typeName":null,"infoStatusName":null,"dateDay":null,"orgNos":null,"nowTime":null,"countyName":null,"streetName":null,"villageName":null,"roadName":null,"communityName":null,"tranName":null,"sdLineName":null,"cityCode":"3340140","cityName":"国网浙江杭州市余杭区供电有限公司","provinceCode":null,"stopTime":"2020-03-22 01:39:08","powerType":"全部","powerOffArea":"110kV潘板变:陶春H558线","powerOffReason":"高压开关跳闸 原停电结束时间为2020-03-22 02:20:08,为减少客户停电时间,加快工作进度,提前送电,现变更停电结束时间为2020-03-22 01:39:08","powerOffId":"2020032131020385"},{"poweroffId":2020032131020384,"sgpoweroffId":null,"subsName":"","lineName":"10kV陶春H558线","pubTranName":"漕桥村吴池头公变,漕桥村桥北公变,漕桥村公变,","scope":"浙江省-杭州市-余杭区-径山镇-麻车头行政村-麻车头自然村,径山镇-漕桥行政村(漕桥吴池头自然村,漕桥自然村,漕桥上街头自然村,漕桥下街头自然村,漕桥中街头自然村),径山镇-前溪行政村(前溪自然村,杜家头自然村)","startTime":"2020-03-21 22:26:00","stopDate":"2020-03-21 23:22:00","orgNo":"3340140","typeCode":"电网故障停限电","poweroffArea":"110kV潘板变:陶春H558线吴池头分线开关后段","poweroffReason":"高压开关跳闸 原停电结束时间为2020-03-22 00:26:00,为减少客户停电时间,加快工作进度,提前送电,现变更停电结束时间为2020-03-21 23:22:00","powerTime":"2020-03-21 22:39:22","powerComm":"已送电","subsNo":"","lineNo":"","tgNo":"","tgName":null,"infoStatus":"1","orgName":"国网浙江杭州市余杭区供电有限公司","typeName":null,"infoStatusName":null,"dateDay":null,"orgNos":null,"nowTime":null,"countyName":null,"streetName":null,"villageName":null,"roadName":null,"communityName":null,"tranName":null,"sdLineName":null,"cityCode":"3340140","cityName":"国网浙江杭州市余杭区供电有限公司","provinceCode":null,"stopTime":"2020-03-21 23:22:00","powerType":"全部","powerOffArea":"110kV潘板变:陶春H558线吴池头分线开关后段","powerOffReason":"高压开关跳闸 原停电结束时间为2020-03-22 00:26:00,为减少客户停电时间,加快工作进度,提前送电,现变更停电结束时间为2020-03-21 23:22:00","powerOffId":"2020032131020384"},{"poweroffId":2020032131020383,"sgpoweroffId":null,"subsName":"","lineName":"10kV下定A524线","pubTranName":"杭州双威机械制造有限公司1#,江南村3#变,惠业机械,径游村7#变,径游小学,杭州伟量管业有限公司,径游村12#变,径游机埠1#配变,杭州市萧山区浦阳镇人民政府,天成玻纤,江南村9#变,江南村6#变,校发线缆,永利制线,杭州萧山浦阳江南股份经济联合社1#,江南村10#变,江南村4#变,1#,彩虹毛杉,江南村7#变,江南村2#变,杭州信达鞋业有限公司,杭州天峰纺织机械有限公司,通达鞋业,远洋鞋业,径游村13#变,杭州诗涛针织厂,径游村6#变,杭州双威机械制造有限公司2#,杭州萧山浦阳江南股份经济联合社2#,径游村5#变,杭州兆亿丰鞋业有限公司,江南村5#变,乐铠鞋业,江南村8#变,杭州双威机械制造有限公司3#,江南村1#变,成功鞋业,杭州萧山杰威鞋业有限公司,径游村8#变,杭州路克鞋业有限公司(下定),","scope":"浙江省-杭州市-萧山区-浦阳镇-径游行政村(上庄自然村,径游自然村,占家自然村),浦阳镇-江南行政村(下俞自然村,纪家汇自然村,下定自然村);浦阳镇(杭州信达鞋业有限公司,杭州通达鞋业有限公司,杭州萧山天成复合材料有限公司,杭州伟量管业有限公司,萧山区浦阳镇径游中心小学,杭州萧山彩虹工艺毛衫厂,杭州路克鞋业有限公司,杭州联鸿鞋业有限公司,杭州天峰纺织机械有限公司,杭州萧山杰威鞋业有限公司,杭州诗涛针织厂,杭州双威机械制造有限公司,杭州跃发铝合金电子有限公司,杭州乐铠鞋业有限公司,杭州远洋鞋业有限公司,杭州萧山浦阳镇永利厂,杭州成功鞋业有限公司,杭州惠业机械有限公司,杭州市萧山区浦阳镇人民政府,杭州萧山浦阳江南股份经济联合社)，浙江省杭州市萧山区浦阳镇径游村等一带","startTime":"2020-03-21 22:05:00","stopDate":"2020-03-22 00:16:00","orgNo":"3340130","typeCode":"电网故障停限电","poweroffArea":"110kV浦阳变:下定A524线下定A5242开关后段","poweroffReason":"高压柱上断路器短路故障 原停电结束时间为2020-03-22 01:05:00,为减少客户停电时间,加快工作进度,提前送电,现变更停电结束时间为2020-03-22 00:16:00","powerTime":"2020-03-21 23:42:01","powerComm":"已送电","subsNo":"","lineNo":"","tgNo":"","tgName":null,"infoStatus":"1","orgName":"国网浙江杭州市萧山区供电有限公司","typeName":null,"infoStatusName":null,"dateDay":null,"orgNos":null,"nowTime":null,"countyName":null,"streetName":null,"villageName":null,"roadName":null,"communityName":null,"tranName":null,"sdLineName":null,"cityCode":"3340130","cityName":"国网浙江杭州市萧山区供电有限公司","provinceCode":null,"stopTime":"2020-03-22 00:16:00","powerType":"全部","powerOffArea":"110kV浦阳变:下定A524线下定A5242开关后段","powerOffReason":"高压柱上断路器短路故障 原停电结束时间为2020-03-22 01:05:00,为减少客户停电时间,加快工作进度,提前送电,现变更停电结束时间为2020-03-22 00:16:00","powerOffId":"2020032131020383"},{"poweroffId":2020032131020377,"sgpoweroffId":null,"subsName":"","lineName":"10kV金印9279线","pubTranName":"村泵(2),杭州三信织造有限公司1#,杭州三信织造有限公司3#,恒康,顾家塘三,后斗门,杭州岑岑电子有限公司 多余,4,顾家塘,村泵施,顾家塘二,杭州三信织造有限公司2#,","scope":"浙江省-杭州市-西湖区-三墩镇-山联行政村(三仓路);三墩镇(杭州市三墩镇山联社区居民委员会,杭州康恒建筑配套技术工程有限公司,杭州岑岑电子有限公司,杭州奥达化纤有限公司)","startTime":"2020-03-21 21:56:00","stopDate":"2020-03-22 00:56:00","orgNo":"3340101","typeCode":"电网故障停限电","poweroffArea":"110kV三墩变:金印9279线10千伏金印9279线东升分线开关后段","poweroffReason":"高压开关跳闸 原停电结束时间为2020-03-21 23:56:00,因施工现场环境比较复杂，存在不确定因素原因,现变更停电结束时间为2020-03-22 00:56:00","powerTime":"2020-03-22 00:13:37","powerComm":"已送电","subsNo":"","lineNo":"","tgNo":"","tgName":null,"infoStatus":"1","orgName":"浙江杭州电力客户服务中心","typeName":null,"infoStatusName":null,"dateDay":null,"orgNos":null,"nowTime":null,"countyName":null,"streetName":null,"villageName":null,"roadName":null,"communityName":null,"tranName":null,"sdLineName":null,"cityCode":"3340101","cityName":"浙江杭州电力客户服务中心","provinceCode":null,"stopTime":"2020-03-22 00:56:00","powerType":"全部","powerOffArea":"110kV三墩变:金印9279线10千伏金印9279线东升分线开关后段","powerOffReason":"高压开关跳闸 原停电结束时间为2020-03-21 23:56:00,因施工现场环境比较复杂，存在不确定因素原因,现变更停电结束时间为2020-03-22 00:56:00","powerOffId":"2020032131020377"},{"poweroffId":2020032131020374,"sgpoweroffId":null,"subsName":"","lineName":"10kV合强192线","pubTranName":"合村1号公变,","scope":"浙江省-杭州市-桐庐县-合村乡-合村行政村-合村自然村","startTime":"2020-03-21 21:41:00","stopDate":"2020-03-21 23:41:00","orgNo":"3340150","typeCode":"电网故障停限电","poweroffArea":"35kV合村变:合强192线合村1号公变配变","poweroffReason":"高压开关跳闸","powerTime":"2020-03-21 23:11:49","powerComm":"已送电","subsNo":"","lineNo":"","tgNo":"","tgName":null,"infoStatus":"1","orgName":"国网浙江桐庐县供电公司","typeName":null,"infoStatusName":null,"dateDay":null,"orgNos":null,"nowTime":null,"countyName":null,"streetName":null,"villageName":null,"roadName":null,"communityName":null,"tranName":null,"sdLineName":null,"cityCode":"3340150","cityName":"国网浙江桐庐县供电公司","provinceCode":null,"stopTime":"2020-03-21 23:41:00","powerType":"全部","powerOffArea":"35kV合村变:合强192线合村1号公变配变","powerOffReason":"高压开关跳闸","powerOffId":"2020032131020374"},{"poweroffId":2020032131020356,"sgpoweroffId":null,"subsName":"","lineName":"10kV浦詹6593线","pubTranName":"前郑,","scope":"浙江省-杭州市-西湖区-转塘街道-南村社区-南村村道,双浦镇(麦岭沙社区-麦岭沙村道,外张行政村-外张村道)","startTime":"2020-03-21 21:14:20","stopDate":"2020-03-22 00:32:00","orgNo":"3340101","typeCode":"电网故障停限电","poweroffArea":"110kV周浦变:浦詹6593线前郑配变","poweroffReason":"高压开关跳闸 原停电结束时间为2020-03-21 22:59:00,因施工现场环境比较复杂，存在不确定因素原因,现变更停电结束时间为2020-03-22 00:32:00","powerTime":"2020-03-22 00:01:38","powerComm":"已送电","subsNo":"","lineNo":"","tgNo":"","tgName":null,"infoStatus":"1","orgName":"浙江杭州电力客户服务中心","typeName":null,"infoStatusName":null,"dateDay":null,"orgNos":null,"nowTime":null,"countyName":null,"streetName":null,"villageName":null,"roadName":null,"communityName":null,"tranName":null,"sdLineName":null,"cityCode":"3340101","cityName":"浙江杭州电力客户服务中心","provinceCode":null,"stopTime":"2020-03-22 00:32:00","powerType":"全部","powerOffArea":"110kV周浦变:浦詹6593线前郑配变","powerOffReason":"高压开关跳闸 原停电结束时间为2020-03-21 22:59:00,因施工现场环境比较复杂，存在不确定因素原因,现变更停电结束时间为2020-03-22 00:32:00","powerOffId":"2020032131020356"}],"pageModel":{"pageNow":452,"totalCount":17789,"totalPage":1779,"tableRows":0,"pageCount":10,"beginCount":4510},"isExperi":"1"}