{"message":"","today":"2020-06-15","seleList":[{"poweroffId":2020060531020022,"sgpoweroffId":null,"subsName":"","lineName":"10kV苕溪H522线","pubTranName":"堤防管理所,苕溪大桥路灯612070056901#专变,羊山多层公寓2号公变,羊山多层公寓3号公变,羊山多层公寓1号公变,2#,羊山多层公寓5号公变,羊山多层公寓6号公变,6120557064,苕溪城市（羊城路汽车站边路灯）6120890349,杭州余杭水务有限公司,羊山多层公寓4号公变,","scope":"浙江省-杭州市-余杭区-瓶窑镇-瓶窑行政村-羊城路,瓶窑镇-瓶窑社区(羊城路,羊山公寓,凤凰大道);瓶窑镇(杭州市余杭区苕溪堤防河道管理所,杭州余杭制水有限公司,杭州杭亿投资管理有限公司,杭州市余杭区瓶窑镇人民政府,杭州余杭区交通项目管理有限公司,杭州余杭苕溪城市建设有限公司)","startTime":"2020-06-05 05:21:00","stopDate":"2020-06-05 08:21:00","orgNo":"3340140","typeCode":"电网故障停限电","poweroffArea":"110kV凤山变:苕溪H522线乐水分线开关后段","poweroffReason":"高压开关跳闸","powerTime":"2020-06-05 07:54:00","powerComm":"已送电","subsNo":"","lineNo":"","tgNo":"","tgName":null,"infoStatus":"1","orgName":"国网浙江杭州市余杭区供电有限公司","typeName":null,"infoStatusName":null,"dateDay":null,"orgNos":null,"nowTime":null,"countyName":null,"streetName":null,"villageName":null,"roadName":null,"communityName":null,"tranName":null,"sdLineName":null,"cityCode":"3340140","cityName":"国网浙江杭州市余杭区供电有限公司","provinceCode":null,"stopTime":"2020-06-05 08:21:00","powerType":"全部","powerOffArea":"110kV凤山变:苕溪H522线乐水分线开关后段","powerOffReason":"高压开关跳闸","powerOffId":"2020060531020022"},{"poweroffId":2020060531020007,"sgpoweroffId":null,"subsName":"","lineName":"10kV陈米G352线","pubTranName":"威仕达机电（6120259982））1#变,杭州余杭九龙股份经济合作社,威浩实业（6120393641）1#变,杭州高德菲斯科技有限公司2#,杭州威浩实业有限公司,东风村三星2号公变,东风村周介坝公变,东风村俞家门南公变,奉口村奉口北公变,东风村吴家斗公变,2#,奉口村徐家角公变,奉口村奉东公变,建达标识,搏路尚新能源（6120912479）1#变,威仕达机电（6120259982））2#变,冠重机械2#,东风村三星公变,东风村永和坝公变,奉口村树东村公变,杭州华达喷射真空设备有限公司612029418901#专变,搏路尚新能源（6120912479）2#变,1#,奉口村北埭公变,威浩实业（6120393641）2#变,东风村周介坝2号公变,东风村下港公变,奉口村南埭公变,杭州高德菲斯科技有限公司1#,冠重机械1#,杭州精工机械有限公司,","scope":"浙江省-杭州市-余杭区-仁和街道-奉口行政村(徐家角自然村,朱家角自然村,北埭自然村,南埭自然村,奉口自然村,獐湾自然村,树东村自然村,奉口村树东村自然村),仁和街道-东风行政村(东风村,下港自然村,拥护坝自然村,余家门自然村,吴家斗自然村,木桥头自然村,仲家塘自然村,吴介斗路自然村,永和坝自然村,张家塘自然村,范家塘自然村,张家舍自然村,三星自然村,管家塘自然村,周介坝自然村,马家塘自然村,潘家角自然村,小坝儿自然村,塘湾自然村,华士角自然村,马介塘自然村),仁和街道-洛阳行政村(洛阳桥自然村,顺水桥自然村,南庄桥自然村),仁和街道(獐山社区-和旺街,双陈行政村-计家坝自然村);仁和街道(杭州建达标识系统工程有限公司,杭州威仕达机电科技有限公司,杭州冠重矿山机械有限公司,杭州精工机械有限公司,杭州精诚三和定时器实业有限公司,杭州米格电机有限公司,浙江恒泽生态农业科技有限公司,杭州威浩实业有限公司,杭州华达喷射真空设备有限公司,杭州仁和先进制造业投资有限公司)","startTime":"2020-06-05 01:28:00","stopDate":"2020-06-05 08:28:00","orgNo":"3340140","typeCode":"电网故障停限电","poweroffArea":"110kV洛山变:陈米G352线天洛开关站天洛开关站I段陈米G352线后段","poweroffReason":"高压开关跳闸 原停电结束时间为2020-06-05 03:28:00,因现场故障情况复杂,现变更停电结束时间为2020-06-05 08:28:00","powerTime":"2020-06-05 07:53:00","powerComm":"已送电","subsNo":"","lineNo":"","tgNo":"","tgName":null,"infoStatus":"1","orgName":"国网浙江杭州市余杭区供电有限公司","typeName":null,"infoStatusName":null,"dateDay":null,"orgNos":null,"nowTime":null,"countyName":null,"streetName":null,"villageName":null,"roadName":null,"communityName":null,"tranName":null,"sdLineName":null,"cityCode":"3340140","cityName":"国网浙江杭州市余杭区供电有限公司","provinceCode":null,"stopTime":"2020-06-05 08:28:00","powerType":"全部","powerOffArea":"110kV洛山变:陈米G352线天洛开关站天洛开关站I段陈米G352线后段","powerOffReason":"高压开关跳闸 原停电结束时间为2020-06-05 03:28:00,因现场故障情况复杂,现变更停电结束时间为2020-06-05 08:28:00","powerOffId":"2020060531020007"},{"poweroffId":2020060431020527,"sgpoweroffId":null,"subsName":"","lineName":"10kV园东D931线","pubTranName":"睦泽苑1#公变,","scope":"浙江省-杭州市-富阳区-富春街道-金桥社区-香槟路","startTime":"2020-06-04 22:27:27","stopDate":"2020-06-05 00:27:27","orgNo":"3340170","typeCode":"电网故障停限电","poweroffArea":"110kV育才变:园东D931线-睦泽苑1#公变后段","poweroffReason":"(低压停电信息)低压开关跳闸","powerTime":"2020-06-04 23:52:31","powerComm":"已送电","subsNo":"","lineNo":"","tgNo":"","tgName":null,"infoStatus":"1","orgName":"国网浙江杭州市富阳区供电公司","typeName":null,"infoStatusName":null,"dateDay":null,"orgNos":null,"nowTime":null,"countyName":null,"streetName":null,"villageName":null,"roadName":null,"communityName":null,"tranName":null,"sdLineName":null,"cityCode":"3340170","cityName":"国网浙江杭州市富阳区供电公司","provinceCode":null,"stopTime":"2020-06-05 00:27:27","powerType":"全部","powerOffArea":"110kV育才变:园东D931线-睦泽苑1#公变后段","powerOffReason":"(低压停电信息)低压开关跳闸","powerOffId":"2020060431020527"},{"poweroffId":2020060431020517,"sgpoweroffId":null,"subsName":"","lineName":"10kV翁梅G060线","pubTranName":"杭州余杭天万股份经济合作社61208248681#变压器,天万4组（双范西村）公变,天万2组2号公变,杭州捷充新能源科技有限公司（6120873733）01号专变,天万4组3号公变,天万1组3号公变,天万2组3号公变,天万2组（范埠村）公变,天万村委2号公变,天万7组4号公变,天万2组4号公变,天万村委公变,","scope":"浙江省-杭州市-余杭区-临平街道-天万社区-天万,南苑街道-天万社区(双范西自然村,天万,范埠自然村,双范东自然村);南苑街道(杭州余杭天万股份经济合作社,杭州捷充新能源科技有限公司)","startTime":"2020-06-04 21:51:00","stopDate":"2020-06-04 23:51:00","orgNo":"3340140","typeCode":"电网故障停限电","poweroffArea":"110kV外乔变:翁梅G060线3#开关后段","poweroffReason":"高压开关跳闸","powerTime":"2020-06-04 23:28:34","powerComm":"已送电","subsNo":"","lineNo":"","tgNo":"","tgName":null,"infoStatus":"1","orgName":"国网浙江杭州市余杭区供电有限公司","typeName":null,"infoStatusName":null,"dateDay":null,"orgNos":null,"nowTime":null,"countyName":null,"streetName":null,"villageName":null,"roadName":null,"communityName":null,"tranName":null,"sdLineName":null,"cityCode":"3340140","cityName":"国网浙江杭州市余杭区供电有限公司","provinceCode":null,"stopTime":"2020-06-04 23:51:00","powerType":"全部","powerOffArea":"110kV外乔变:翁梅G060线3#开关后段","powerOffReason":"高压开关跳闸","powerOffId":"2020060431020517"},{"poweroffId":2020060431020507,"sgpoweroffId":null,"subsName":"","lineName":"10kV乐村H556线","pubTranName":"杭州勤业弹簧有限公司6120015919,创奇展示612064119901#专变,水务控股（顺南）6120844672,济南机械,雅研化妆品2号专变,杭州余杭径山经济开发有限公司,成宏彩印,余杭三奇钢管厂,康华泡沫,太洋机械611109070701#专变,漕桥村小五山陆家头公变,博达塑业6120006026,中波实业,泽邦涂料,杭州吉瑞塑业有限公司,宇达通信,华安电气,浙江远圣茶业有限公司6120207381,长乐富华电器,乐源丝绸,后港闸站,杭州余杭漕桥股份经济合作社6120167925,漕桥村小五山茶厂公变,杭州协泰科技有限公司,小五山排涝,径山镇人民政府(里鱼山排涝),雅研化妆品基建变,杭州天辰称重设备有限公司6120867011,鑫坤实业,漕桥村小王庙公变,","scope":"浙江省-杭州市-余杭区-径山镇-麻车头行政村-麻车头自然村,径山镇-漕桥行政村(漕桥自然村,景家头自然村,喻家头自然村,陆家头自然村);径山镇(浙江远圣茶业有限公司,杭州余杭水务控股集团有限公司,杭州天辰称重设备有限公司,杭州勤业弹簧有限公司,杭州创奇展示用品有限公司,杭州卓裕钣金制造有限公司,杭州泽南机械配件有限公司,杭州金言达塑业有限公司,杭州乐源丝绸有限公司,杭州太洋机械制造有限公司,杭州鑫坤实业有限公司,杭州中波实业有限公司,杭州富临德展示用品厂,杭州雅妍化妆品有限公司,杭州康华泡沫制品有限公司,杭州博达塑业有限公司,杭州佳融和食品有限公司,小五山排涝机埠,杭州市余杭区径山镇人民政府,杭州余杭漕桥股份经济合作社,杭州钱江物业管理有限公司,杭州协泰科技有限公司,杭州成宏彩印包装有限公司,杭州泽邦新材料科技有限公司)","startTime":"2020-06-04 21:22:00","stopDate":"2020-06-04 23:22:00","orgNo":"3340140","typeCode":"电网故障停限电","poweroffArea":"110kV潘板变:乐村H556线乐村H5565开关后段","poweroffReason":"高压开关跳闸","powerTime":"2020-06-04 23:09:00","powerComm":"已送电","subsNo":"","lineNo":"","tgNo":"","tgName":null,"infoStatus":"1","orgName":"国网浙江杭州市余杭区供电有限公司","typeName":null,"infoStatusName":null,"dateDay":null,"orgNos":null,"nowTime":null,"countyName":null,"streetName":null,"villageName":null,"roadName":null,"communityName":null,"tranName":null,"sdLineName":null,"cityCode":"3340140","cityName":"国网浙江杭州市余杭区供电有限公司","provinceCode":null,"stopTime":"2020-06-04 23:22:00","powerType":"全部","powerOffArea":"110kV潘板变:乐村H556线乐村H5565开关后段","powerOffReason":"高压开关跳闸","powerOffId":"2020060431020507"},{"poweroffId":2020060431020457,"sgpoweroffId":null,"subsName":"","lineName":"10kV石桥Y446线","pubTranName":"昌和公寓5号公变,","scope":"浙江省-杭州市-建德市-寿昌镇-西湖社区-溪边路","startTime":"2020-06-04 20:33:00","stopDate":"2020-06-04 23:30:00","orgNo":"3340180","typeCode":"电网故障停限电","poweroffArea":"110kV家蓬变:石桥Y446线昌和公寓5号公变配变","poweroffReason":"(低压停电信息)低压开关跳闸 原停电结束时间为2020-06-04 22:30:00,因现场故障情况复杂,现变更停电结束时间为2020-06-04 23:30:00","powerTime":"2020-06-04 22:39:10","powerComm":"已送电","subsNo":"","lineNo":"","tgNo":"","tgName":null,"infoStatus":"1","orgName":"国网浙江建德市供电有限公司","typeName":null,"infoStatusName":null,"dateDay":null,"orgNos":null,"nowTime":null,"countyName":null,"streetName":null,"villageName":null,"roadName":null,"communityName":null,"tranName":null,"sdLineName":null,"cityCode":"3340180","cityName":"国网浙江建德市供电有限公司","provinceCode":null,"stopTime":"2020-06-04 23:30:00","powerType":"全部","powerOffArea":"110kV家蓬变:石桥Y446线昌和公寓5号公变配变","powerOffReason":"(低压停电信息)低压开关跳闸 原停电结束时间为2020-06-04 22:30:00,因现场故障情况复杂,现变更停电结束时间为2020-06-04 23:30:00","powerOffId":"2020060431020457"},{"poweroffId":2020060431020437,"sgpoweroffId":null,"subsName":"","lineName":"10kV陈家Y181线","pubTranName":"大塘边村荷叶塘台区,","scope":"浙江省-杭州市-建德市-寿昌镇-大塘边行政村(荷叶塘自然村,大塘边自然村)","startTime":"2020-06-04 19:40:00","stopDate":"2020-06-04 21:40:00","orgNo":"3340180","typeCode":"电网故障停限电","poweroffArea":"35kV河南里变:陈家Y181线-大塘边村荷叶塘台区后段","poweroffReason":"(低压停电信息)低压开关跳闸","powerTime":"2020-06-04 20:58:05","powerComm":"已送电","subsNo":"","lineNo":"","tgNo":"","tgName":null,"infoStatus":"1","orgName":"国网浙江建德市供电有限公司","typeName":null,"infoStatusName":null,"dateDay":null,"orgNos":null,"nowTime":null,"countyName":null,"streetName":null,"villageName":null,"roadName":null,"communityName":null,"tranName":null,"sdLineName":null,"cityCode":"3340180","cityName":"国网浙江建德市供电有限公司","provinceCode":null,"stopTime":"2020-06-04 21:40:00","powerType":"全部","powerOffArea":"35kV河南里变:陈家Y181线-大塘边村荷叶塘台区后段","powerOffReason":"(低压停电信息)低压开关跳闸","powerOffId":"2020060431020437"},{"poweroffId":2020060431020431,"sgpoweroffId":null,"subsName":"","lineName":"10kV慈河Y364线","pubTranName":"乌石村乌石台区,乌石村乌石源台区,","scope":"浙江省-杭州市-建德市-寿昌镇-乌石行政村(乌石自然村,乌石源自然村)","startTime":"2020-06-04 19:20:00","stopDate":"2020-06-04 21:30:00","orgNo":"3340180","typeCode":"电网故障停限电","poweroffArea":"110kV慈岩变:慈河Y364线乌石源支线5#杆真空开关后段","poweroffReason":"高压开关跳闸","powerTime":"2020-06-04 20:59:20","powerComm":"已送电","subsNo":"","lineNo":"","tgNo":"","tgName":null,"infoStatus":"1","orgName":"国网浙江建德市供电有限公司","typeName":null,"infoStatusName":null,"dateDay":null,"orgNos":null,"nowTime":null,"countyName":null,"streetName":null,"villageName":null,"roadName":null,"communityName":null,"tranName":null,"sdLineName":null,"cityCode":"3340180","cityName":"国网浙江建德市供电有限公司","provinceCode":null,"stopTime":"2020-06-04 21:30:00","powerType":"全部","powerOffArea":"110kV慈岩变:慈河Y364线乌石源支线5#杆真空开关后段","powerOffReason":"高压开关跳闸","powerOffId":"2020060431020431"},{"poweroffId":2020060431020410,"sgpoweroffId":null,"subsName":"","lineName":"10kV坪鼓R269线","pubTranName":"天鹅,","scope":"浙江省-杭州市-淳安县-千岛湖镇-云村行政村-天鹅自然村","startTime":"2020-06-04 17:53:00","stopDate":"2020-06-04 18:53:00","orgNo":"3340190","typeCode":"电网故障停限电","poweroffArea":"110kV坪山变:坪鼓R269线天鹅配变","poweroffReason":"高压开关跳闸","powerTime":"2020-06-04 18:09:43","powerComm":"已送电","subsNo":"","lineNo":"","tgNo":"","tgName":null,"infoStatus":"1","orgName":"国网浙江淳安县供电有限公司","typeName":null,"infoStatusName":null,"dateDay":null,"orgNos":null,"nowTime":null,"countyName":null,"streetName":null,"villageName":null,"roadName":null,"communityName":null,"tranName":null,"sdLineName":null,"cityCode":"3340190","cityName":"国网浙江淳安县供电有限公司","provinceCode":null,"stopTime":"2020-06-04 18:53:00","powerType":"全部","powerOffArea":"110kV坪山变:坪鼓R269线天鹅配变","powerOffReason":"高压开关跳闸","powerOffId":"2020060431020410"},{"poweroffId":2020060431020407,"sgpoweroffId":null,"subsName":"","lineName":"10kV坪鼓R269线","pubTranName":"虎形,","scope":"浙江省-杭州市-淳安县-千岛湖镇-云村行政村-虎形自然村","startTime":"2020-06-04 17:53:00","stopDate":"2020-06-04 18:53:00","orgNo":"3340190","typeCode":"电网故障停限电","poweroffArea":"110kV坪山变:坪鼓R269线虎形配变","poweroffReason":"高压开关跳闸 原停电结束时间为2020-06-04 19:53:00,为减少客户停电时间,加快工作进度,提前送电,现变更停电结束时间为2020-06-04 18:53:00","powerTime":"2020-06-04 18:11:21","powerComm":"已送电","subsNo":"","lineNo":"","tgNo":"","tgName":null,"infoStatus":"1","orgName":"国网浙江淳安县供电有限公司","typeName":null,"infoStatusName":null,"dateDay":null,"orgNos":null,"nowTime":null,"countyName":null,"streetName":null,"villageName":null,"roadName":null,"communityName":null,"tranName":null,"sdLineName":null,"cityCode":"3340190","cityName":"国网浙江淳安县供电有限公司","provinceCode":null,"stopTime":"2020-06-04 18:53:00","powerType":"全部","powerOffArea":"110kV坪山变:坪鼓R269线虎形配变","powerOffReason":"高压开关跳闸 原停电结束时间为2020-06-04 19:53:00,为减少客户停电时间,加快工作进度,提前送电,现变更停电结束时间为2020-06-04 18:53:00","powerOffId":"2020060431020407"}],"pageModel":{"pageNow":44,"totalCount":17786,"totalPage":1779,"tableRows":0,"pageCount":10,"beginCount":430},"isExperi":"1"}