{"message":"","today":"2020-06-15","seleList":[{"poweroffId":2020032131020153,"sgpoweroffId":null,"subsName":"","lineName":"10kV制笔T170线","pubTranName":"桐庐县分水镇有德来制笔厂,东溪石膏坞1号公变,百合笔业1号,建安钢化玻璃,华钏制笔1号,东溪柘坞2号公变,杭州优加文具有限公司,东溪柘坞4号公变,天晨笔业,丹霞制笔,红金诚制笔,华超机械厂,桐庐宏光制笔有限公司1#变,桐庐县分水镇杨力制笔厂,东溪前湾1号公变,杰烨文具2号,东溪柘坞1号公变,越峰笔业,桐庐飞燕文化用品有限公司1#变,华钏制笔2号,杭州雅乐制笔有限公司,东溪柘坞5号公变,荣业大酒店,永浩笔业,桐庐百胜制笔有限公司,东溪前湾2号公变,东溪柘坞3号公变,百合笔业2号,欧赛笔业1号,桐庐县分水镇欣旺笔杆厂,远成制笔,杭州欧赛笔业有限公司1#变,桐庐县分水镇倩颖模具加工厂,","scope":"浙江省-杭州市-桐庐县-分水镇-东溪行政村(石膏坞自然村,东溪自然村,柘坞自然村,张家山自然村,新安自然村,东溪工业区自然村,前湾自然村,新淳东路);分水镇(桐庐天晨笔业有限公司,桐庐百合笔业有限公司,桐庐飞燕文化用品有限公司,桐庐有德来文具礼品有限公司,桐庐永浩笔业有限公司,桐庐宏光制笔有限公司,杭州雅乐制笔有限公司,杭州丹霞科技有限公司,桐庐县分水镇杨力制笔厂,杭州华超工程机械有限公司,杭州欧赛笔业有限公司,桐庐越峰制笔厂,杭州优加文具有限公司,桐庐红金诚制笔厂,桐庐华钏制笔厂,桐庐县分水镇倩颖模具加工厂,桐庐县分水镇欣旺笔杆厂,杭州市桐庐远成制笔有限公司,桐庐荣业大酒店有限公司,杭州建安玻璃有限公司,桐庐百胜制笔有限公司)","startTime":"2020-03-21 16:19:00","stopDate":"2020-03-21 18:19:00","orgNo":"3340150","typeCode":"电网故障停限电","poweroffArea":"110kV分水变:制笔T170线制笔4112后段","poweroffReason":"高压开关跳闸","powerTime":"2020-03-21 18:05:08","powerComm":"已送电","subsNo":"","lineNo":"","tgNo":"","tgName":null,"infoStatus":"1","orgName":"国网浙江桐庐县供电公司","typeName":null,"infoStatusName":null,"dateDay":null,"orgNos":null,"nowTime":null,"countyName":null,"streetName":null,"villageName":null,"roadName":null,"communityName":null,"tranName":null,"sdLineName":null,"cityCode":"3340150","cityName":"国网浙江桐庐县供电公司","provinceCode":null,"stopTime":"2020-03-21 18:19:00","powerType":"全部","powerOffArea":"110kV分水变:制笔T170线制笔4112后段","powerOffReason":"高压开关跳闸","powerOffId":"2020032131020153"},{"poweroffId":2020032131020152,"sgpoweroffId":null,"subsName":"","lineName":"10kV桥东T180线","pubTranName":"奥尔文具1#,光华文化,东溪园区2号公变,爱华表面技术2#,桐庐多源制笔厂,桐庐利和制笔有限公司,东溪新安4号公变,普仕达文具,顶点文具,桐庐县分水镇双元文具厂,奥尔文具2#,杭州东达笔业有限公司,众汇文具,东溪新安1号公变,桐庐东隆科技有限公司1#变,天缘笔业2#,爱华表面技术1#,华华塑料厂,丹可装饰品,杭州天睿文具礼品有限公司,桐庐向上科技有限公司,广众文具,杭州晨彩塑料制品有限公司,杭州晨彩塑料制品有限公司1#,天缘笔业2#,杭州丹鹏科技有限公司,桐庐煊煊塑胶制品厂,桐庐县东溪小学,","scope":"浙江省-杭州市-桐庐县-分水镇-东溪行政村(新安自然村,东溪自然村,张家山自然村,郎家自然村);分水镇(桐庐文钰制笔厂,桐庐县分水镇华华塑料拉丝厂,杭州普仕达文具礼品有限公司,桐庐多源制笔厂,桐庐县东溪小学,杭州天睿文具礼品有限公司,桐庐东隆科技有限公司,杭州丹鹏科技有限公司,桐庐奥尔文具有限公司,桐庐县分水镇双元文具厂,桐庐天缘笔业有限公司,杭州晨彩塑料制品有限公司,桐庐向上科技有限公司,浙江申振机械科技有限公司,桐庐丹可装饰品有限公司,杭州桐庐广众文具礼品有限公司,桐庐煊煊塑胶制品厂,桐庐海川文具有限公司,桐庐众汇文具有限公司,桐庐光华文化用品有限公司,桐庐利和制笔有限公司)","startTime":"2020-03-21 16:40:00","stopDate":"2020-03-21 18:40:00","orgNo":"3340150","typeCode":"电网故障停限电","poweroffArea":"110kV分水变:桥东T180线园区4142开关后段","poweroffReason":"高压开关跳闸","powerTime":"2020-03-21 18:22:29","powerComm":"已送电","subsNo":"","lineNo":"","tgNo":"","tgName":null,"infoStatus":"1","orgName":"国网浙江桐庐县供电公司","typeName":null,"infoStatusName":null,"dateDay":null,"orgNos":null,"nowTime":null,"countyName":null,"streetName":null,"villageName":null,"roadName":null,"communityName":null,"tranName":null,"sdLineName":null,"cityCode":"3340150","cityName":"国网浙江桐庐县供电公司","provinceCode":null,"stopTime":"2020-03-21 18:40:00","powerType":"全部","powerOffArea":"110kV分水变:桥东T180线园区4142开关后段","powerOffReason":"高压开关跳闸","powerOffId":"2020032131020152"},{"poweroffId":2020032131020151,"sgpoweroffId":null,"subsName":"","lineName":"10kV众丽A328线","pubTranName":"靖一村8#变,靖一村17#变,靖一村20#变,1#电机,杭州萧山众丽花边有限公司,横埂头村12#变,浙江争好服饰有限公司,杭州萧山瓜沥凤条化纤布厂,杭州萧山众丽花边有限公司,靖一村16#变,中国石油化工股份有限公司浙江杭州石油分公司,运西村14#变,杭州市萧山区瓜沥镇人民政府5#,杭州萧山金汇纺织有限公司,浙江争好服饰有限公司,靖一村2#变,靖一村3#变,靖一村19#变,靖一村1#变,靖一村4#变,浙江争好服饰有限公司1变压器,","scope":"浙江省-杭州市-萧山区-瓜沥镇(运西行政村-运西自然村,靖一行政村-靖一自然村,横埂头行政村-横埂头自然村);瓜沥镇-运西行政村(杭州萧山金汇纺织有限公司,杭州萧山众丽花边有限公司,杭州市萧山区瓜沥镇人民政府),瓜沥镇-靖一行政村(中国石化销售股份有限公司浙江杭州石油分公司,杭州萧山瓜沥凤条化纤布厂),瓜沥镇(渭水桥行政村-浙江争好服饰有限公司,横埂头行政村-浙江争好服饰有限公司)一带","startTime":"2020-03-21 16:48:38","stopDate":"2020-03-22 01:48:38","orgNo":"3340130","typeCode":"电网故障停限电","poweroffArea":"110kV靖江变:众丽A328线-众丽A328线开关后段","poweroffReason":"高压柱上断路器短路故障 原停电结束时间为2020-03-21 23:48:38,因抢修难度大原因,现变更停电结束时间为2020-03-22 01:48:38","powerTime":"2020-03-22 01:00:56","powerComm":"已送电","subsNo":"","lineNo":"","tgNo":"","tgName":null,"infoStatus":"1","orgName":"国网浙江杭州市萧山区供电有限公司","typeName":null,"infoStatusName":null,"dateDay":null,"orgNos":null,"nowTime":null,"countyName":null,"streetName":null,"villageName":null,"roadName":null,"communityName":null,"tranName":null,"sdLineName":null,"cityCode":"3340130","cityName":"国网浙江杭州市萧山区供电有限公司","provinceCode":null,"stopTime":"2020-03-22 01:48:38","powerType":"全部","powerOffArea":"110kV靖江变:众丽A328线-众丽A328线开关后段","powerOffReason":"高压柱上断路器短路故障 原停电结束时间为2020-03-21 23:48:38,因抢修难度大原因,现变更停电结束时间为2020-03-22 01:48:38","powerOffId":"2020032131020151"},{"poweroffId":2020032131020150,"sgpoweroffId":null,"subsName":"","lineName":"10kV萧晖C423线","pubTranName":"萧山区蜀山中心幼儿园,浙江萧峰建设集团有限公司,浙江萧峰建设集团有限公司,德慧公寓1#公变,德慧公寓3#公变,曹家桥社区2#变,曹家桥社区6#变,浙江萧峰建设集团有限公司,市政园林,富中鞋厂,德慧公寓7#公变,浙江国象建设有限公司,曹家桥社区8#变,曹家桥社区10#变,曹家桥社区9#变,曹家桥社区5#变,杭州萧山城市建设发展有限公司,曹家桥社区13#变,市时代金属热处理,曹家桥社区4#变,曹家桥社区7#变,浙江萧峰建设集团有限公司,萧山城市建设投资集团#1主变,杭州江南管道有限公司,向阳社区7#变,变压器,浙江萧峰建设集团有限公司,污水处理,鲁公桥社区2#变,杭州市萧山区市政园林公用事业管理处,曹家桥社区1#变,浙江省杭州市萧山区蜀山街道向阳社区晨辉路德慧公寓,变压器,浙江萧峰建设集团有限公司,曹家桥社区11#变,德慧公寓5#公变,","scope":"浙江省-杭州市-萧山区-蜀山街道-曹家桥社区(曹家桥自然村,曹家桥街面,大门堂自然村,解元房自然村,旸四房自然村,旸二房自然村,元十房自然村),蜀山街道-向阳社区(许家新屋自然村,许家老屋自然村,推官房自然村),蜀山街道(鲁公桥社区-鲁公桥自然村,广宁社区-晨晖路1号);蜀山街道-祝家桥社区(杭州市萧山区市政绿化养护保障中心,杭州萧山污水处理有限公司),蜀山街道-曹家桥社区(杭州江南管道有限公司,杭州萧山时代金属热处理厂,杭州萧山富中鞋厂,萧山区蜀山中心幼儿园),蜀山街道-向阳社区(杭州市萧山区市政绿化养护保障中心,杭州萧山城市物业服务有限公司,浙江萧峰建设集团有限公司,杭州萧山城市建设发展有限公司,杭州萧山市政拆迁安置房建设有限公司),蜀山街道(山水苑社区-绿城物业服务集团有限公司萧山分公司,联丰社区-杭州萧山城市建设投资集团有限公司,鲁公桥社区-浙江国象建设有限公司)","startTime":"2020-03-21 16:38:00","stopDate":"2020-03-21 20:00:00","orgNo":"3340130","typeCode":"电网故障停限电","poweroffArea":"110kV萧山变:萧晖C423线-晖晨C4232开关后段","poweroffReason":"自然原因引起萧山变萧晖C423线晖晨C4232开关后段高压柱上断路器短路跳闸 原停电结束时间为2020-03-21 21:30:00,为减少客户停电时间,加快工作进度,提前送电,现变更停电结束时间为2020-03-21 20:00:00","powerTime":"2020-03-21 19:24:34","powerComm":"已送电","subsNo":"","lineNo":"","tgNo":"","tgName":null,"infoStatus":"1","orgName":"国网浙江杭州市萧山区供电有限公司","typeName":null,"infoStatusName":null,"dateDay":null,"orgNos":null,"nowTime":null,"countyName":null,"streetName":null,"villageName":null,"roadName":null,"communityName":null,"tranName":null,"sdLineName":null,"cityCode":"3340130","cityName":"国网浙江杭州市萧山区供电有限公司","provinceCode":null,"stopTime":"2020-03-21 20:00:00","powerType":"全部","powerOffArea":"110kV萧山变:萧晖C423线-晖晨C4232开关后段","powerOffReason":"自然原因引起萧山变萧晖C423线晖晨C4232开关后段高压柱上断路器短路跳闸 原停电结束时间为2020-03-21 21:30:00,为减少客户停电时间,加快工作进度,提前送电,现变更停电结束时间为2020-03-21 20:00:00","powerOffId":"2020032131020150"},{"poweroffId":2020032131020149,"sgpoweroffId":null,"subsName":"","lineName":"10kV如意A326线","pubTranName":"杭州昌杰机械有限公司,运西村7#变,运西村12#变,杭州萧山项云林废旧物资回收站,运西村5#变,运西村8#变,运西村3#变,运西村2#变,2#变,瓜沥运西针织厂,运西村9#变,运西村10#变,运西村4#变,杭州萧山瓜沥永新捻丝加工厂,运西村6#变,运西村13#变,杭州志帛花边有限公司变压器,杭州萧山鸿达染整有限公司1#,杭州天丽花边有限公司,杭州萧山鸿达染整有限公司2#,杭州萧山鸿达染整有限公司3#,杭州萧山瓜沥镇宝贤化纤厂,运西沈管林化纤厂,","scope":"浙江省-杭州市-萧山区-瓜沥镇-运西行政村-运西自然村;瓜沥镇-运西行政村(瓜力运西针织厂,运西沈管林化纤厂,杭州萧山瓜沥镇宝贤化纤厂,杭州志帛花边有限公司,杭州萧山瓜沥永新捻丝加工厂,杭州萧山项云林废旧物资回收站,杭州萧山鸿达染整有限公司,杭州昌杰机械有限公司),靖江街道-靖东行政村-杭州天丽花边有限公司,瓜沥镇-运东行政村-杭州市萧山区瓜沥镇人民政府、浙江省杭州市萧山区瓜沥镇运西村一带","startTime":"2020-03-21 16:47:16","stopDate":"2020-03-21 21:20:16","orgNo":"3340130","typeCode":"电网故障停限电","poweroffArea":"110kV靖江变:如意A326线-如意A326线开关后段","poweroffReason":"高压柱上断路器短路故障 原停电结束时间为2020-03-21 21:47:16,为减少客户停电时间,加快工作进度,提前送电,现变更停电结束时间为2020-03-21 21:20:16","powerTime":"2020-03-21 20:38:03","powerComm":"已送电","subsNo":"","lineNo":"","tgNo":"","tgName":null,"infoStatus":"1","orgName":"国网浙江杭州市萧山区供电有限公司","typeName":null,"infoStatusName":null,"dateDay":null,"orgNos":null,"nowTime":null,"countyName":null,"streetName":null,"villageName":null,"roadName":null,"communityName":null,"tranName":null,"sdLineName":null,"cityCode":"3340130","cityName":"国网浙江杭州市萧山区供电有限公司","provinceCode":null,"stopTime":"2020-03-21 21:20:16","powerType":"全部","powerOffArea":"110kV靖江变:如意A326线-如意A326线开关后段","powerOffReason":"高压柱上断路器短路故障 原停电结束时间为2020-03-21 21:47:16,为减少客户停电时间,加快工作进度,提前送电,现变更停电结束时间为2020-03-21 21:20:16","powerOffId":"2020032131020149"},{"poweroffId":2020032131020148,"sgpoweroffId":null,"subsName":"","lineName":"10kV联盟T370线","pubTranName":"杭州牛耳科技有限公司1#专变,紫燕山1号公变,几坞口1号公变,联盟桥头1号公变,潇威制笔厂,中坞口1号公变,桐庐龙盛纺织有限公司1#变,冷水1号公变,双坞电站,桐庐晨喆包装有限公司专变,杨村电站,联盟俞家村1号公变,双坞村1号公变,浙江准提实业有限公司专变,外桐山1号公变,钱家垄1号公变,桐庐建波真空镀膜有限公司专变,窑子山1号公变,桐庐江明竹木制品厂1号变,桐庐新发笔业有限公司,仰天坞1号公变,桐庐县百江镇双坞村股份经济合作社,桐庐森隆木业材料厂,邵舍1号公变,龙盛纺织,里桐山1号公变,落苏坞1号公变,小坑1号公变,联盟赵家1号公变,江坞1号公变,杭州腾力机械制造有限公司,西村1号公变,杨村1号公变,","scope":"浙江省-杭州市-桐庐县-百江镇-小京行政村-六坑外自然村,百江镇-双坞行政村(双坞自然村,小坑自然村,中坞口自然村),百江镇-联盟行政村(杨村自然村,几坞口自然村,西村自然村,俞家村自然村,落苏坞自然村,外桐山自然村,江坞自然村,联盟赵家自然村,邵舍自然村,联盟桥头自然村,冷水自然村,窑子山自然村,钱家垄自然村,仰天坞自然村);百江镇(双坞电站,杨村电站,桐庐新发笔业有限公司,桐庐龙盛纺织有限公司,桐庐江明竹木制品厂,桐庐县百江镇江涛石材厂,桐庐森隆木业材料厂,浙江准提实业有限公司,桐庐建波真空镀膜有限公司,桐庐县百江镇双坞村股份经济合作社)","startTime":"2020-03-21 16:40:00","stopDate":"2020-03-21 18:40:00","orgNo":"3340150","typeCode":"电网故障停限电","poweroffArea":"110kV百江变:联盟T370线联盟4323后段","poweroffReason":"高压开关跳闸","powerTime":"2020-03-21 18:34:59","powerComm":"已送电","subsNo":"","lineNo":"","tgNo":"","tgName":null,"infoStatus":"1","orgName":"国网浙江桐庐县供电公司","typeName":null,"infoStatusName":null,"dateDay":null,"orgNos":null,"nowTime":null,"countyName":null,"streetName":null,"villageName":null,"roadName":null,"communityName":null,"tranName":null,"sdLineName":null,"cityCode":"3340150","cityName":"国网浙江桐庐县供电公司","provinceCode":null,"stopTime":"2020-03-21 18:40:00","powerType":"全部","powerOffArea":"110kV百江变:联盟T370线联盟4323后段","powerOffReason":"高压开关跳闸","powerOffId":"2020032131020148"},{"poweroffId":2020032131020146,"sgpoweroffId":null,"subsName":"","lineName":"10kV东辉T373线","pubTranName":"后河村委会,严家坪1号公变,桐庐朝发装饰材料厂1号变,东辉下村1号公变,道坪1号公变,后河村1号公变,小京口1号公变,道坞1号公变,桐庐县百江镇晨星塑料拉丝厂变压器,广王电站,白前庵1号公变,冯家赵家1号公变,东辉村1号公变,坞石1号公变,郭村1号公变,白水1号公变,炮台山1号公变,小京口新区1号公变,冯家1号公变,桐庐县百江镇招堂木制品厂,桐庐县05.16省道有限责任公司,翰板陈家1号公变,东树坑村外1号公变,麻坑湾1号公变,六坑里1号公变,东树坑村里1号公变,桐庐县百江镇宏聚木制品厂,翰板村1号公变,桐庐小京水电开发有限公司,大年坞1号公变,仰家1号公变,后河道坞口1号公变,六坑外1号公变,塔岭1号公变,孟坑坞1号公变,东辉电管站1号公变,徐村畈1号公变,倒坞口1号公变,外塔脚1号公变,桐庐县百江镇青水弯休闲农庄,浩源1号公变,坑口1号公变,","scope":"浙江省-杭州市-桐庐县-百江镇-联盟行政村-俞家村自然村,文昌镇-东树坑行政村(东树坑外自然村,东树坑里自然村),百江镇-翰板行政村(翰板自然村,陈家自然村),百江镇-郭村行政村(浩源自然村,郭村自然村),百江镇-百江行政村(冯家赵家自然村,冯家自然村,白前奄自然村,徐家畈自然村,白水自然村,广王自然村),百江镇-后河行政村(坞石自然村,后河自然村,仰家自然村,道坞自然村,道坞口自然村),百江镇-东辉行政村(东辉下村自然村,东辉村自然村,麻坑湾自然村,坑口自然村,塔岭自然村,东辉电管站自然村),百江镇-小京行政村(倒坞口自然村,外塔脚自然村,六坑里自然村,六坑外自然村,炮台山自然村,小京口自然村,严家坪自然村,大年坞自然村,小京口新区自然村);百江镇(广王电站,桐庐朝发装饰材料厂,桐庐县05.16省道有限责任公司,桐庐小京水电开发有限公司,桐庐县百江镇青水弯休闲农庄,桐庐县百江镇老郑木制品加工厂,桐庐县百江镇宏聚木制品厂,后河村委会,桐庐县百江镇晨星塑料拉丝厂)","startTime":"2020-03-21 16:40:43","stopDate":"2020-03-21 18:40:43","orgNo":"3340150","typeCode":"电网故障停限电","poweroffArea":"110kV百江变:东辉T373线东辉4316后段","poweroffReason":"高压开关跳闸","powerTime":"2020-03-21 18:35:29","powerComm":"已送电","subsNo":"","lineNo":"","tgNo":"","tgName":null,"infoStatus":"1","orgName":"国网浙江桐庐县供电公司","typeName":null,"infoStatusName":null,"dateDay":null,"orgNos":null,"nowTime":null,"countyName":null,"streetName":null,"villageName":null,"roadName":null,"communityName":null,"tranName":null,"sdLineName":null,"cityCode":"3340150","cityName":"国网浙江桐庐县供电公司","provinceCode":null,"stopTime":"2020-03-21 18:40:43","powerType":"全部","powerOffArea":"110kV百江变:东辉T373线东辉4316后段","powerOffReason":"高压开关跳闸","powerOffId":"2020032131020146"},{"poweroffId":2020032131020142,"sgpoweroffId":null,"subsName":"","lineName":"10kV浦詹6593线","pubTranName":"浮汽,诚佳,回龙沙三,交混,俞家二变,横埭街农(1),前郑,浮山施1,上泗基,缪家桥,浮山施3,南挂,浮山,四号浦,移动,横埭街农(3),浮山路,何家保,缪家桥(3),电讯,前郑(2),横埭街,浮山施2,冷藏,俞家五,转科施(5),国家厅二,回龙沙,浮山施5,关庙,何家埠村,良户(二),浮山(三),冷库,浮山施4,良户3,光明,农居施五,良户1,佳苑施四3,之度施(3),佳苑施四1,佳苑施四2,南村二,俞家变,车厢,四号浦路,佳苑施四4,南村三,浦路二,良户,佳苑施四5,回龙张,良户2,海德塑料,","scope":"浙江省-杭州市-西湖区-留下街道-东穆坞行政村-留泗路,双浦镇-白鸟行政村(白鸟村道,白鸟村),转塘街道(缪家社区-缪家村道,南村社区-南村村道,桕联社区-桕联村道,何家埠社区-何家埠村道,良户社区-良户村道,回龙社区-回龙村道,村口社区-村口村道),双浦镇(湖埠行政村-湖埠村道,双灵行政村-双灵村道,麦岭沙社区-麦岭沙村道,外张行政村-外张村道);三墩镇-中国移动通信集团浙江有限公司杭州分公司,转塘街道(,杭州之江运输机械有限公司,杭州之江国家旅游度假区农转居多层公寓建设管理中心,杭州之江城市建设投资集团有限公司,杭州之江车厢厂,中国电信股份有限公司杭州分公司,杭州市路灯管理所,杭州市西湖区转塘街道何家埠村村民委员会,杭州龙行机械科技有限公司,浙江省国家安全厅),双浦镇(杭州市路灯管理所,杭州杭丰纸业有限公司)","startTime":"2020-03-21 16:28:00","stopDate":"2020-03-21 19:28:00","orgNo":"3340101","typeCode":"电网故障停限电","poweroffArea":"110kV周浦变:浦詹6593线回雅站雅祥线后段","poweroffReason":"高压开关跳闸 原停电结束时间为2020-03-21 18:28:00,因施工现场环境比较复杂，存在不确定因素原因,现变更停电结束时间为2020-03-21 19:28:00","powerTime":"2020-03-21 19:03:36","powerComm":"已送电","subsNo":"","lineNo":"","tgNo":"","tgName":null,"infoStatus":"1","orgName":"浙江杭州电力客户服务中心","typeName":null,"infoStatusName":null,"dateDay":null,"orgNos":null,"nowTime":null,"countyName":null,"streetName":null,"villageName":null,"roadName":null,"communityName":null,"tranName":null,"sdLineName":null,"cityCode":"3340101","cityName":"浙江杭州电力客户服务中心","provinceCode":null,"stopTime":"2020-03-21 19:28:00","powerType":"全部","powerOffArea":"110kV周浦变:浦詹6593线回雅站雅祥线后段","powerOffReason":"高压开关跳闸 原停电结束时间为2020-03-21 18:28:00,因施工现场环境比较复杂，存在不确定因素原因,现变更停电结束时间为2020-03-21 19:28:00","powerOffId":"2020032131020142"},{"poweroffId":2020032131020141,"sgpoweroffId":null,"subsName":"","lineName":"10kV新隆6610线","pubTranName":"下新浦,龙潭二,新浦赵,下新浦二,拉丝厂,赵家三,龙潭,村变,赵家二,赵家四,美浦施,小学边,","scope":"浙江省-杭州市-西湖区-转塘街道-叶埠桥社区-叶埠桥村道,双浦镇-新浦沿行政村(新浦沿,新浦沿村道),双浦镇(麦岭沙社区-麦岭沙村道,袁家浦社区-袁浦街);双浦镇(浙江瑞诺泰富科技有限公司,浙江大同建设工程有限公司)","startTime":"2020-03-21 16:32:00","stopDate":"2020-03-21 18:32:00","orgNo":"3340101","typeCode":"电网故障停限电","poweroffArea":"110kV周浦变:新隆6610线10千伏周富595线赵家分线开关后段","poweroffReason":"高压开关跳闸","powerTime":"2020-03-21 18:13:06","powerComm":"已送电","subsNo":"","lineNo":"","tgNo":"","tgName":null,"infoStatus":"1","orgName":"浙江杭州电力客户服务中心","typeName":null,"infoStatusName":null,"dateDay":null,"orgNos":null,"nowTime":null,"countyName":null,"streetName":null,"villageName":null,"roadName":null,"communityName":null,"tranName":null,"sdLineName":null,"cityCode":"3340101","cityName":"浙江杭州电力客户服务中心","provinceCode":null,"stopTime":"2020-03-21 18:32:00","powerType":"全部","powerOffArea":"110kV周浦变:新隆6610线10千伏周富595线赵家分线开关后段","powerOffReason":"高压开关跳闸","powerOffId":"2020032131020141"},{"poweroffId":2020032131020138,"sgpoweroffId":null,"subsName":"","lineName":"10kV金坞Y211线","pubTranName":"李家村下前山排台区,","scope":"浙江省-杭州市-建德市-李家镇-李家行政村-下前山排自然村一带用户","startTime":"2020-03-21 16:09:00","stopDate":"2020-03-21 17:30:00","orgNo":"3340180","typeCode":"电网故障停限电","poweroffArea":"35kV李家变:金坞Y211线李家村下前山排台区配变","poweroffReason":"高压开关跳闸","powerTime":"2020-03-21 16:40:00","powerComm":"已送电","subsNo":"","lineNo":"","tgNo":"","tgName":null,"infoStatus":"1","orgName":"国网浙江建德市供电有限公司","typeName":null,"infoStatusName":null,"dateDay":null,"orgNos":null,"nowTime":null,"countyName":null,"streetName":null,"villageName":null,"roadName":null,"communityName":null,"tranName":null,"sdLineName":null,"cityCode":"3340180","cityName":"国网浙江建德市供电有限公司","provinceCode":null,"stopTime":"2020-03-21 17:30:00","powerType":"全部","powerOffArea":"35kV李家变:金坞Y211线李家村下前山排台区配变","powerOffReason":"高压开关跳闸","powerOffId":"2020032131020138"}],"pageModel":{"pageNow":458,"totalCount":17789,"totalPage":1779,"tableRows":0,"pageCount":10,"beginCount":4570},"isExperi":"1"}