{"message":"","today":"2020-06-15","seleList":[{"poweroffId":2020032131020077,"sgpoweroffId":null,"subsName":"","lineName":"10kV昕印C629线","pubTranName":"同兴村10#变,","scope":"浙江省-杭州市-萧山区-新街镇-新街街道-同兴行政村-同兴自然村、同兴村、104国道东海加油站等一带","startTime":"2020-03-21 13:27:57","stopDate":"2020-03-21 19:50:57","orgNo":"3340130","typeCode":"电网故障停限电","poweroffArea":"110kV新街变:昕印C629线-同兴10#变台区低压开关","poweroffReason":"(低压停电信息)低压漏电保护器短路故障 原停电结束时间为2020-03-21 20:30:57,为减少客户停电时间,加快工作进度,提前送电,现变更停电结束时间为2020-03-21 19:50:57","powerTime":"2020-03-21 18:56:28","powerComm":"已送电","subsNo":"","lineNo":"","tgNo":"","tgName":null,"infoStatus":"1","orgName":"国网浙江杭州市萧山区供电有限公司","typeName":null,"infoStatusName":null,"dateDay":null,"orgNos":null,"nowTime":null,"countyName":null,"streetName":null,"villageName":null,"roadName":null,"communityName":null,"tranName":null,"sdLineName":null,"cityCode":"3340130","cityName":"国网浙江杭州市萧山区供电有限公司","provinceCode":null,"stopTime":"2020-03-21 19:50:57","powerType":"全部","powerOffArea":"110kV新街变:昕印C629线-同兴10#变台区低压开关","powerOffReason":"(低压停电信息)低压漏电保护器短路故障 原停电结束时间为2020-03-21 20:30:57,为减少客户停电时间,加快工作进度,提前送电,现变更停电结束时间为2020-03-21 19:50:57","powerOffId":"2020032131020077"},{"poweroffId":2020032131020061,"sgpoweroffId":null,"subsName":"","lineName":"10kV西阳8528线","pubTranName":"古村（二）,皇朝(一),古村（一）,古排,皇朝(二),","scope":"浙江省-杭州市-西湖区(古荡街道-嘉荷社区-紫荆花路,文新街道-桂花园社区-紫荆花路);浙江省-杭州市-西湖区-古荡街道-莲花社区-杭州古荡镇股份经济合作社","startTime":"2020-03-21 11:57:28","stopDate":"2020-03-21 16:30:28","orgNo":"3340101","typeCode":"电网故障停限电","poweroffArea":"110kV文三变:西阳8528线-阳光分线后段","poweroffReason":"高压开关跳闸 原停电结束时间为2020-03-21 15:57:28,因工现场环境比较复杂，存在不确定因素原因,现变更停电结束时间为2020-03-21 16:30:28","powerTime":"2020-03-21 16:00:49","powerComm":"已送电","subsNo":"","lineNo":"","tgNo":"","tgName":null,"infoStatus":"1","orgName":"浙江杭州电力客户服务中心","typeName":null,"infoStatusName":null,"dateDay":null,"orgNos":null,"nowTime":null,"countyName":null,"streetName":null,"villageName":null,"roadName":null,"communityName":null,"tranName":null,"sdLineName":null,"cityCode":"3340101","cityName":"浙江杭州电力客户服务中心","provinceCode":null,"stopTime":"2020-03-21 16:30:28","powerType":"全部","powerOffArea":"110kV文三变:西阳8528线-阳光分线后段","powerOffReason":"高压开关跳闸 原停电结束时间为2020-03-21 15:57:28,因工现场环境比较复杂，存在不确定因素原因,现变更停电结束时间为2020-03-21 16:30:28","powerOffId":"2020032131020061"},{"poweroffId":2020032131020059,"sgpoweroffId":null,"subsName":"","lineName":"10kV庆丰A459线","pubTranName":"庆丰村8#变,4#,杭州萧山庆丰化纤有限公司,庆丰村11#变,3#,2#,庆丰村10#变,镇中村17#变,2#变,1#变,1#,杭州鼎炉机械有限公司,杭州亿利钢铁有限公司2#,","scope":"浙江省-杭州市-萧山区-党湾镇-镇中行政村-镇中自然村,党湾镇-庆丰行政村(新农村,庆丰自然村);浙江省-杭州市-萧山区-党湾镇-卫东桥社区-浙江宝盛建设集团有限公司,党湾镇-庆丰行政村(杭州萧山庆丰化纤有限公司,杭州亿利钢铁有限公司,杭州鼎炉机械有限公司)一带","startTime":"2020-03-21 11:10:37","stopDate":"2020-03-21 13:00:37","orgNo":"3340130","typeCode":"电网故障停限电","poweroffArea":"110kV幸福变:庆丰A459线-庆丰A459线庆丰分线开关后段","poweroffReason":"高压柱上断路器短路故障 原停电结束时间为2020-03-21 16:21:37,为减少客户停电时间,加快工作进度,提前送电,现变更停电结束时间为2020-03-21 13:00:37","powerTime":"2020-03-21 12:10:23","powerComm":"已送电","subsNo":"","lineNo":"","tgNo":"","tgName":null,"infoStatus":"1","orgName":"国网浙江杭州市萧山区供电有限公司","typeName":null,"infoStatusName":null,"dateDay":null,"orgNos":null,"nowTime":null,"countyName":null,"streetName":null,"villageName":null,"roadName":null,"communityName":null,"tranName":null,"sdLineName":null,"cityCode":"3340130","cityName":"国网浙江杭州市萧山区供电有限公司","provinceCode":null,"stopTime":"2020-03-21 13:00:37","powerType":"全部","powerOffArea":"110kV幸福变:庆丰A459线-庆丰A459线庆丰分线开关后段","powerOffReason":"高压柱上断路器短路故障 原停电结束时间为2020-03-21 16:21:37,为减少客户停电时间,加快工作进度,提前送电,现变更停电结束时间为2020-03-21 13:00:37","powerOffId":"2020032131020059"},{"poweroffId":2020032131020042,"sgpoweroffId":null,"subsName":"","lineName":"10kV利民D241线","pubTranName":"江岭村1号村北路公变,","scope":"浙江省-杭州市-富阳区-东洲街道-富春江行政村-江岭自然村","startTime":"2020-03-21 09:24:49","stopDate":"2020-03-21 12:00:49","orgNo":"3340170","typeCode":"电网故障停限电","poweroffArea":"110kV白鹤变:利民D241线-江岭村1号村北路公变后段","poweroffReason":"高压开关跳闸","powerTime":"2020-03-21 11:08:29","powerComm":"已送电","subsNo":"","lineNo":"","tgNo":"","tgName":null,"infoStatus":"1","orgName":"国网浙江杭州市富阳区供电公司","typeName":null,"infoStatusName":null,"dateDay":null,"orgNos":null,"nowTime":null,"countyName":null,"streetName":null,"villageName":null,"roadName":null,"communityName":null,"tranName":null,"sdLineName":null,"cityCode":"3340170","cityName":"国网浙江杭州市富阳区供电公司","provinceCode":null,"stopTime":"2020-03-21 12:00:49","powerType":"全部","powerOffArea":"110kV白鹤变:利民D241线-江岭村1号村北路公变后段","powerOffReason":"高压开关跳闸","powerOffId":"2020032131020042"},{"poweroffId":2020032131020040,"sgpoweroffId":null,"subsName":"","lineName":"10kV航园Y442线","pubTranName":"卜家蓬村长西垅台区,卜家蓬村上马山台区,建德市寿昌镇根富水晶厂,建德千岛湖通用机场有限公司,","scope":"浙江省-杭州市-建德市-寿昌镇-卜家蓬行政村小山自然村,前山塘自然村,长西垅自然村,上马山自然村,建德市寿昌镇根富水晶厂,-建德通用机场管理有限公司一带用户。","startTime":"2020-03-21 09:13:10","stopDate":"2020-03-21 11:00:00","orgNo":"3340180","typeCode":"电网故障停限电","poweroffArea":"110kV家蓬变:航园Y442线老前山塘支线1#杆真空开关后段","poweroffReason":"高压开关跳闸 原停电结束时间为2020-03-21 12:00:00,为减少客户停电时间,加快工作进度,提前送电,现变更停电结束时间为2020-03-21 11:00:00","powerTime":"2020-03-21 10:30:00","powerComm":"已送电","subsNo":"","lineNo":"","tgNo":"","tgName":null,"infoStatus":"1","orgName":"国网浙江建德市供电有限公司","typeName":null,"infoStatusName":null,"dateDay":null,"orgNos":null,"nowTime":null,"countyName":null,"streetName":null,"villageName":null,"roadName":null,"communityName":null,"tranName":null,"sdLineName":null,"cityCode":"3340180","cityName":"国网浙江建德市供电有限公司","provinceCode":null,"stopTime":"2020-03-21 11:00:00","powerType":"全部","powerOffArea":"110kV家蓬变:航园Y442线老前山塘支线1#杆真空开关后段","powerOffReason":"高压开关跳闸 原停电结束时间为2020-03-21 12:00:00,为减少客户停电时间,加快工作进度,提前送电,现变更停电结束时间为2020-03-21 11:00:00","powerOffId":"2020032131020040"},{"poweroffId":2020032131020031,"sgpoweroffId":null,"subsName":"","lineName":"10kV紫庭8501线","pubTranName":"西路（1）,文幼,派出所,蒋服,","scope":"浙江省-杭州市-西湖区-文新街道-桂花园社区-杭州市路灯管理所,文新街道-府新社区(杭州市公安局西湖区分局蒋村派出所,杭州欣越物业服务有限公司,蒋村商住区建设管理办公室)","startTime":"2020-03-21 08:25:48","stopDate":"2020-03-21 11:25:48","orgNo":"3340101","typeCode":"电网故障停限电","poweroffArea":"110kV文三变:紫庭8501线-紫花分线后段","poweroffReason":"高压开关跳闸 原停电结束时间为2020-03-21 10:25:48,因施工现场环境比较复杂，存在不确定因素原因,现变更停电结束时间为2020-03-21 11:25:48","powerTime":"2020-03-21 10:55:39","powerComm":"已送电","subsNo":"","lineNo":"","tgNo":"","tgName":null,"infoStatus":"1","orgName":"浙江杭州电力客户服务中心","typeName":null,"infoStatusName":null,"dateDay":null,"orgNos":null,"nowTime":null,"countyName":null,"streetName":null,"villageName":null,"roadName":null,"communityName":null,"tranName":null,"sdLineName":null,"cityCode":"3340101","cityName":"浙江杭州电力客户服务中心","provinceCode":null,"stopTime":"2020-03-21 11:25:48","powerType":"全部","powerOffArea":"110kV文三变:紫庭8501线-紫花分线后段","powerOffReason":"高压开关跳闸 原停电结束时间为2020-03-21 10:25:48,因施工现场环境比较复杂，存在不确定因素原因,现变更停电结束时间为2020-03-21 11:25:48","powerOffId":"2020032131020031"},{"poweroffId":2020032131020019,"sgpoweroffId":null,"subsName":"","lineName":"10kV西阳8528线","pubTranName":"富灯,富都（一）,","scope":"浙江省-杭州市-西湖区-古荡街道-嘉绿苑社区-益乐路,文新街道(府新社区-文三西路,竞舟社区-竞舟路);浙江省-杭州市-西湖区-文新街道-竞舟社区-杭州市路灯管理所","startTime":"2020-03-21 07:38:42","stopDate":"2020-03-21 11:38:42","orgNo":"3340101","typeCode":"电网故障停限电","poweroffArea":"110kV文三变:西阳8528线-荆路分线后段","poweroffReason":"高压开关跳闸","powerTime":"2020-03-21 10:47:27","powerComm":"已送电","subsNo":"","lineNo":"","tgNo":"","tgName":null,"infoStatus":"1","orgName":"浙江杭州电力客户服务中心","typeName":null,"infoStatusName":null,"dateDay":null,"orgNos":null,"nowTime":null,"countyName":null,"streetName":null,"villageName":null,"roadName":null,"communityName":null,"tranName":null,"sdLineName":null,"cityCode":"3340101","cityName":"浙江杭州电力客户服务中心","provinceCode":null,"stopTime":"2020-03-21 11:38:42","powerType":"全部","powerOffArea":"110kV文三变:西阳8528线-荆路分线后段","powerOffReason":"高压开关跳闸","powerOffId":"2020032131020019"},{"poweroffId":2020032131020011,"sgpoweroffId":null,"subsName":"","lineName":"10kV西阳8528线","pubTranName":"庭院（八）,庭院（四）,富都（一）,文紫施1#变,古排,风尚(四),阳园(一),银桂（一）,文紫施2#变,皇朝(一),富灯,庭院（六）,庭院（二）,古村（一）,皇朝(二),古村（二）,银专,东方蓬莱1#,阳园(二),风尚(二),银桂（二）,","scope":"浙江省-杭州市-西湖区-文新街道-桂花园社区(文三西路,紫荆花路,锋尚路),古荡街道(嘉荷社区-紫荆花路,嘉绿苑社区-益乐路),文新街道(府新社区-文三西路,竞舟社区-竞舟路,金乐社区-文三西路);古荡街道-杭州古荡镇股份经济合作社,文新街道(杭州市路灯管理所,绿城物业服务集团有限公司杭州第四分公司,浙江波普环境服务有限公司,杭州市公共交通集团有限公司)","startTime":"2020-03-21 06:39:00","stopDate":"2020-03-21 08:20:00","orgNo":"3340101","typeCode":"电网故障停限电","poweroffArea":"110kV文三变:西阳8528线紫庭站西阳8528线后段","poweroffReason":"高压开关跳闸 原停电结束时间为2020-03-21 10:39:00,为减少客户停电时间,加快工作进度,提前送电,现变更停电结束时间为2020-03-21 08:20:00","powerTime":"2020-03-21 07:37:12","powerComm":"已送电","subsNo":"","lineNo":"","tgNo":"","tgName":null,"infoStatus":"1","orgName":"浙江杭州电力客户服务中心","typeName":null,"infoStatusName":null,"dateDay":null,"orgNos":null,"nowTime":null,"countyName":null,"streetName":null,"villageName":null,"roadName":null,"communityName":null,"tranName":null,"sdLineName":null,"cityCode":"3340101","cityName":"浙江杭州电力客户服务中心","provinceCode":null,"stopTime":"2020-03-21 08:20:00","powerType":"全部","powerOffArea":"110kV文三变:西阳8528线紫庭站西阳8528线后段","powerOffReason":"高压开关跳闸 原停电结束时间为2020-03-21 10:39:00,为减少客户停电时间,加快工作进度,提前送电,现变更停电结束时间为2020-03-21 08:20:00","powerOffId":"2020032131020011"},{"poweroffId":2020032031020605,"sgpoweroffId":null,"subsName":"","lineName":"10kV安迪V630线","pubTranName":"青山童村变,","scope":"浙江省-杭州市-临安市-青山湖街道-青山行政村青山童村一带","startTime":"2020-04-03 12:00:00","stopDate":"2020-04-03 18:00:00","orgNo":"3340160","typeCode":"计划停电","poweroffArea":"110kV雅观变:1、停安迪V630线童村分支线22#杆青山童村配变令克； 2、停安迪V630线中路建设支支线2#杆新出支线线路1#杆令克","poweroffReason":"配变增容","powerTime":"2020-04-03 17:06:37","powerComm":"已送电","subsNo":"","lineNo":"","tgNo":"","tgName":null,"infoStatus":"1","orgName":"国网浙江临安市供电公司","typeName":null,"infoStatusName":null,"dateDay":null,"orgNos":null,"nowTime":null,"countyName":null,"streetName":null,"villageName":null,"roadName":null,"communityName":null,"tranName":null,"sdLineName":null,"cityCode":"3340160","cityName":"国网浙江临安市供电公司","provinceCode":null,"stopTime":"2020-04-03 18:00:00","powerType":"全部","powerOffArea":"110kV雅观变:1、停安迪V630线童村分支线22#杆青山童村配变令克； 2、停安迪V630线中路建设支支线2#杆新出支线线路1#杆令克","powerOffReason":"配变增容","powerOffId":"2020032031020605"},{"poweroffId":2020032031020604,"sgpoweroffId":null,"subsName":"","lineName":"10kV牌联V670线","pubTranName":"祝家村新唐里,","scope":"浙江省-杭州市-临安市-板桥镇-桃源行政村-祝家村新唐里","startTime":"2020-04-03 08:30:00","stopDate":"2020-04-03 15:30:00","orgNo":"3340160","typeCode":"计划停电","poweroffArea":"110kV板桥变:停牌联V670线142#杆祝家村新塘里公变分线令克","poweroffReason":"配变增容 原停电结束时间为2020-04-03 14:30:00,因带电作业搭头工作延期原因,延迟送电,现变更停电结束时间为2020-04-03 15:30:00","powerTime":"2020-04-03 15:20:23","powerComm":"已送电","subsNo":"","lineNo":"","tgNo":"","tgName":null,"infoStatus":"1","orgName":"国网浙江临安市供电公司","typeName":null,"infoStatusName":null,"dateDay":null,"orgNos":null,"nowTime":null,"countyName":null,"streetName":null,"villageName":null,"roadName":null,"communityName":null,"tranName":null,"sdLineName":null,"cityCode":"3340160","cityName":"国网浙江临安市供电公司","provinceCode":null,"stopTime":"2020-04-03 15:30:00","powerType":"全部","powerOffArea":"110kV板桥变:停牌联V670线142#杆祝家村新塘里公变分线令克","powerOffReason":"配变增容 原停电结束时间为2020-04-03 14:30:00,因带电作业搭头工作延期原因,延迟送电,现变更停电结束时间为2020-04-03 15:30:00","powerOffId":"2020032031020604"}],"pageModel":{"pageNow":459,"totalCount":17789,"totalPage":1779,"tableRows":0,"pageCount":10,"beginCount":4580},"isExperi":"1"}