{"message":"","today":"2020-06-15","seleList":[{"poweroffId":2020032031020603,"sgpoweroffId":null,"subsName":"","lineName":"10kV信工V796线","pubTranName":"杭州越秀房地产开发有限公司,杭州越秀房地产开发有限公司,杭州临安杭越酒店管理有限公司临安酒店有限公司,杭州电子科技大学信息工程学院04,杭州电子科技大学信息工程学院001,杭州电子科技大学信息工程学院004,杭州电子科技大学信息工程学院06,杭州电子科技大学信息工程学院003,杭州临安杭越酒店管理有限公司临安酒店有限公司,杭州电子科技大学信息工程学院002,杭州电子科技大学信息工程学院01,","scope":"浙江省-杭州市-临安市-青山湖街道胜联行政村-杭州电子科技大学信息工程学院,蒋杨行政村-杭州临安杭越酒店管理有限公司临安酒店分公司,青山行政村-广州越秀怡城商业运营管理有限公司临安分公司一带","startTime":"2020-04-02 06:00:00","stopDate":"2020-04-02 22:00:00","orgNo":"3340160","typeCode":"计划停电","poweroffArea":"110kV胜联变:信工V796线全线","poweroffReason":"胜联变检修","powerTime":"2020-04-02 21:50:55","powerComm":"已送电","subsNo":"","lineNo":"","tgNo":"","tgName":null,"infoStatus":"1","orgName":"国网浙江临安市供电公司","typeName":null,"infoStatusName":null,"dateDay":null,"orgNos":null,"nowTime":null,"countyName":null,"streetName":null,"villageName":null,"roadName":null,"communityName":null,"tranName":null,"sdLineName":null,"cityCode":"3340160","cityName":"国网浙江临安市供电公司","provinceCode":null,"stopTime":"2020-04-02 22:00:00","powerType":"全部","powerOffArea":"110kV胜联变:信工V796线全线","powerOffReason":"胜联变检修","powerOffId":"2020032031020603"},{"poweroffId":2020032031020602,"sgpoweroffId":null,"subsName":"","lineName":"10kV云盈V793线","pubTranName":"临安云盈数据科技有限公司7,临安云盈数据科技有限公司10,云盈数据科技9#,临安云盈数据科技有限公司6,临安云盈数据科技有限公司8,","scope":"浙江省-杭州市-临安市-青山湖街道-胜联行政村-临安云盈数据科技有限公司一带","startTime":"2020-04-02 06:00:00","stopDate":"2020-04-02 22:00:00","orgNo":"3340160","typeCode":"计划停电","poweroffArea":"110kV胜联变:云盈V793线全线","poweroffReason":"胜联变检修","powerTime":"2020-04-02 21:50:45","powerComm":"已送电","subsNo":"","lineNo":"","tgNo":"","tgName":null,"infoStatus":"1","orgName":"国网浙江临安市供电公司","typeName":null,"infoStatusName":null,"dateDay":null,"orgNos":null,"nowTime":null,"countyName":null,"streetName":null,"villageName":null,"roadName":null,"communityName":null,"tranName":null,"sdLineName":null,"cityCode":"3340160","cityName":"国网浙江临安市供电公司","provinceCode":null,"stopTime":"2020-04-02 22:00:00","powerType":"全部","powerOffArea":"110kV胜联变:云盈V793线全线","powerOffReason":"胜联变检修","powerOffId":"2020032031020602"},{"poweroffId":2020032031020601,"sgpoweroffId":null,"subsName":"","lineName":"10kV安迪V630线","pubTranName":"上海电科智能系统股份有限公司1#,临安市路灯管理所,","scope":"浙江省-杭州市-临安市-锦北街道-大罗行政村-临安市路灯管理所,上海电科智能系统股份有限公司","startTime":"2020-04-03 08:20:00","stopDate":"2020-04-03 12:00:00","orgNo":"3340160","typeCode":"计划停电","poweroffArea":"110kV雅观变:停安迪V630线中路建设支支线1#杆令克以后","poweroffReason":"新架线路 原停电结束时间为2020-04-03 11:20:00,因现场工作未完工原因,延迟送电,现变更停电结束时间为2020-04-03 12:00:00","powerTime":"2020-04-03 11:50:19","powerComm":"已送电","subsNo":"","lineNo":"","tgNo":"","tgName":null,"infoStatus":"1","orgName":"国网浙江临安市供电公司","typeName":null,"infoStatusName":null,"dateDay":null,"orgNos":null,"nowTime":null,"countyName":null,"streetName":null,"villageName":null,"roadName":null,"communityName":null,"tranName":null,"sdLineName":null,"cityCode":"3340160","cityName":"国网浙江临安市供电公司","provinceCode":null,"stopTime":"2020-04-03 12:00:00","powerType":"全部","powerOffArea":"110kV雅观变:停安迪V630线中路建设支支线1#杆令克以后","powerOffReason":"新架线路 原停电结束时间为2020-04-03 11:20:00,因现场工作未完工原因,延迟送电,现变更停电结束时间为2020-04-03 12:00:00","powerOffId":"2020032031020601"},{"poweroffId":2020032031020600,"sgpoweroffId":null,"subsName":"","lineName":"10kV海康V795线","pubTranName":"浙江青山湖科研创新基地投资有限公司3#,浙江青山湖科研创新基地投资有限公司1#,浙江青山湖科研创新基地投资有限公司2#,浙江青山湖科研创新基地投资有限公司5#,浙江青山湖科研创新基地投资有限公司4#,","scope":"浙江省-杭州市-临安市-青山湖街道-青山行政村-浙江青山湖科研创新基地投资有限公司一带","startTime":"2020-04-02 06:00:00","stopDate":"2020-04-02 22:00:00","orgNo":"3340160","typeCode":"计划停电","poweroffArea":"110kV胜联变:海康V795线全线","poweroffReason":"胜联变检修","powerTime":"2020-04-02 21:50:19","powerComm":"已送电","subsNo":"","lineNo":"","tgNo":"","tgName":null,"infoStatus":"1","orgName":"国网浙江临安市供电公司","typeName":null,"infoStatusName":null,"dateDay":null,"orgNos":null,"nowTime":null,"countyName":null,"streetName":null,"villageName":null,"roadName":null,"communityName":null,"tranName":null,"sdLineName":null,"cityCode":"3340160","cityName":"国网浙江临安市供电公司","provinceCode":null,"stopTime":"2020-04-02 22:00:00","powerType":"全部","powerOffArea":"110kV胜联变:海康V795线全线","powerOffReason":"胜联变检修","powerOffId":"2020032031020600"},{"poweroffId":2020032031020599,"sgpoweroffId":null,"subsName":"","lineName":"10kV节能V794线","pubTranName":"浙江青山湖节能科技有限公司4,青山湖节能科技有限公司（B1变）,青山湖节能科技有限公司（T3变）,浙江青山湖节能科技有限公司2（所用变）,","scope":"浙江省-杭州市-临安市-青山湖街道-青山行政村-浙江青山湖节能科技有限公司一带","startTime":"2020-04-02 06:00:00","stopDate":"2020-04-02 22:00:00","orgNo":"3340160","typeCode":"计划停电","poweroffArea":"110kV胜联变:节能V794线全线","poweroffReason":"胜联变检修","powerTime":"2020-04-02 21:50:32","powerComm":"已送电","subsNo":"","lineNo":"","tgNo":"","tgName":null,"infoStatus":"1","orgName":"国网浙江临安市供电公司","typeName":null,"infoStatusName":null,"dateDay":null,"orgNos":null,"nowTime":null,"countyName":null,"streetName":null,"villageName":null,"roadName":null,"communityName":null,"tranName":null,"sdLineName":null,"cityCode":"3340160","cityName":"国网浙江临安市供电公司","provinceCode":null,"stopTime":"2020-04-02 22:00:00","powerType":"全部","powerOffArea":"110kV胜联变:节能V794线全线","powerOffReason":"胜联变检修","powerOffId":"2020032031020599"},{"poweroffId":2020032031020598,"sgpoweroffId":null,"subsName":"","lineName":"10kV朱村V222线","pubTranName":"朱村矿山变,","scope":"浙江省-杭州市-临安市-青山湖街道-朱村行政村-朱村矿山一带","startTime":"2020-04-02 08:30:00","stopDate":"2020-04-02 17:30:00","orgNo":"3340160","typeCode":"计划停电","poweroffArea":"110kV青山变:朱村V222线顺达建材厂分线22#杆朱村矿山公变支线令克","poweroffReason":"配变增容 原停电结束时间为2020-04-02 18:00:00,为减少客户停电时间,加快工作进度,提前送电,现变更停电结束时间为2020-04-02 17:30:00","powerTime":"2020-04-02 16:46:52","powerComm":"已送电","subsNo":"","lineNo":"","tgNo":"","tgName":null,"infoStatus":"1","orgName":"国网浙江临安市供电公司","typeName":null,"infoStatusName":null,"dateDay":null,"orgNos":null,"nowTime":null,"countyName":null,"streetName":null,"villageName":null,"roadName":null,"communityName":null,"tranName":null,"sdLineName":null,"cityCode":"3340160","cityName":"国网浙江临安市供电公司","provinceCode":null,"stopTime":"2020-04-02 17:30:00","powerType":"全部","powerOffArea":"110kV青山变:朱村V222线顺达建材厂分线22#杆朱村矿山公变支线令克","powerOffReason":"配变增容 原停电结束时间为2020-04-02 18:00:00,为减少客户停电时间,加快工作进度,提前送电,现变更停电结束时间为2020-04-02 17:30:00","powerOffId":"2020032031020598"},{"poweroffId":2020032031020597,"sgpoweroffId":null,"subsName":"","lineName":"10kV如龙V556线","pubTranName":"高湾村,","scope":"浙江省-杭州市-临安市-板桥镇-灵溪行政村-高湾村一带","startTime":"2020-04-02 08:30:00","stopDate":"2020-04-02 14:00:00","orgNo":"3340160","typeCode":"计划停电","poweroffArea":"110kV板桥变:停如龙V556线高湾村公变支支线1#杆高湾村公变令克以后","poweroffReason":"配变增容","powerTime":"2020-04-02 13:02:54","powerComm":"已送电","subsNo":"","lineNo":"","tgNo":"","tgName":null,"infoStatus":"1","orgName":"国网浙江临安市供电公司","typeName":null,"infoStatusName":null,"dateDay":null,"orgNos":null,"nowTime":null,"countyName":null,"streetName":null,"villageName":null,"roadName":null,"communityName":null,"tranName":null,"sdLineName":null,"cityCode":"3340160","cityName":"国网浙江临安市供电公司","provinceCode":null,"stopTime":"2020-04-02 14:00:00","powerType":"全部","powerOffArea":"110kV板桥变:停如龙V556线高湾村公变支支线1#杆高湾村公变令克以后","powerOffReason":"配变增容","powerOffId":"2020032031020597"},{"poweroffId":2020032031020593,"sgpoweroffId":null,"subsName":"","lineName":"10kV建材V545线","pubTranName":"岙里村里村,","scope":"浙江省-杭州市-临安市-板桥镇-环湖行政村-岙里村里村一带","startTime":"2020-04-01 08:30:00","stopDate":"2020-04-01 14:00:00","orgNo":"3340160","typeCode":"计划停电","poweroffArea":"110kV板桥变:停建材V545线岙里分线16#杆岙里村里村配变令克","poweroffReason":"配变增容","powerTime":"2020-04-01 13:50:14","powerComm":"已送电","subsNo":"","lineNo":"","tgNo":"","tgName":null,"infoStatus":"1","orgName":"国网浙江临安市供电公司","typeName":null,"infoStatusName":null,"dateDay":null,"orgNos":null,"nowTime":null,"countyName":null,"streetName":null,"villageName":null,"roadName":null,"communityName":null,"tranName":null,"sdLineName":null,"cityCode":"3340160","cityName":"国网浙江临安市供电公司","provinceCode":null,"stopTime":"2020-04-01 14:00:00","powerType":"全部","powerOffArea":"110kV板桥变:停建材V545线岙里分线16#杆岙里村里村配变令克","powerOffReason":"配变增容","powerOffId":"2020032031020593"},{"poweroffId":2020032031020591,"sgpoweroffId":null,"subsName":"","lineName":"10kV陈坞V763线","pubTranName":"浙江新广发置业有限公司1#,浙江新广发置业有限公司5#,浙江新广发置业有限公司2#,浙江新广发置业有限公司3#,浙江新广发置业有限公司6#,浙江新广发置业有限公司4#,","scope":"浙江省-杭州市-临安市-锦北街道-潘山行政村-浙江新广发置业有限公司一带","startTime":"2020-03-30 06:50:00","stopDate":"2020-03-30 16:10:00","orgNo":"3340160","typeCode":"计划停电","poweroffArea":"110kV科创变:1、停陈坞V763线湖光山社1#变分线1#杆开关以后 2、停陈坞V763线六合分线1#杆开关以后 3、停陈坞V763线六合分线六合站G1、G3、G4间隔开关 4、停陈坞V763线六合分线湖光山社环网柜进线间隔开关 5、停陈坞V763线六合分线湖光山社7#变进线间隔开关","poweroffReason":"电缆移位 原停电结束时间为2020-03-30 11:40:00,因现场变更原因,延迟送电,现变更停电结束时间为2020-03-30 16:10:00","powerTime":"","powerComm":"","subsNo":"","lineNo":"","tgNo":"","tgName":null,"infoStatus":"1","orgName":"国网浙江临安市供电公司","typeName":null,"infoStatusName":null,"dateDay":null,"orgNos":null,"nowTime":null,"countyName":null,"streetName":null,"villageName":null,"roadName":null,"communityName":null,"tranName":null,"sdLineName":null,"cityCode":"3340160","cityName":"国网浙江临安市供电公司","provinceCode":null,"stopTime":"2020-03-30 16:10:00","powerType":"全部","powerOffArea":"110kV科创变:1、停陈坞V763线湖光山社1#变分线1#杆开关以后 2、停陈坞V763线六合分线1#杆开关以后 3、停陈坞V763线六合分线六合站G1、G3、G4间隔开关 4、停陈坞V763线六合分线湖光山社环网柜进线间隔开关 5、停陈坞V763线六合分线湖光山社7#变进线间隔开关","powerOffReason":"电缆移位 原停电结束时间为2020-03-30 11:40:00,因现场变更原因,延迟送电,现变更停电结束时间为2020-03-30 16:10:00","powerOffId":"2020032031020591"},{"poweroffId":2020032031020510,"sgpoweroffId":null,"subsName":"","lineName":"10kV河建0349线","pubTranName":"民主村8#变,","scope":"浙江省-杭州市-萧山区-河庄街道(群建行政村-群建自然村,民主行政村-民主自然村)","startTime":"2020-04-03 09:00:00","stopDate":"2020-04-03 11:30:00","orgNo":"3340120","typeCode":"计划停电","poweroffArea":"110kV河庄变:河建0349线-民主村8#变后段","poweroffReason":"(低压停电信息)民主村8#变A3#至A12#杆拆线工作 原停电结束时间为2020-04-03 17:00:00,为减少客户停电时间,加快工作进度,提前送电,现变更停电结束时间为2020-04-03 11:30:00","powerTime":"2020-04-03 10:43:03","powerComm":"已送电","subsNo":"","lineNo":"","tgNo":"","tgName":null,"infoStatus":"1","orgName":"国网浙江杭州市钱塘新区供电公司","typeName":null,"infoStatusName":null,"dateDay":null,"orgNos":null,"nowTime":null,"countyName":null,"streetName":null,"villageName":null,"roadName":null,"communityName":null,"tranName":null,"sdLineName":null,"cityCode":"3340120","cityName":"国网浙江杭州市钱塘新区供电公司","provinceCode":null,"stopTime":"2020-04-03 11:30:00","powerType":"全部","powerOffArea":"110kV河庄变:河建0349线-民主村8#变后段","powerOffReason":"(低压停电信息)民主村8#变A3#至A12#杆拆线工作 原停电结束时间为2020-04-03 17:00:00,为减少客户停电时间,加快工作进度,提前送电,现变更停电结束时间为2020-04-03 11:30:00","powerOffId":"2020032031020510"}],"pageModel":{"pageNow":460,"totalCount":17789,"totalPage":1779,"tableRows":0,"pageCount":10,"beginCount":4590},"isExperi":"1"}