{"message":"","today":"2020-06-15","seleList":[{"poweroffId":2020032031020440,"sgpoweroffId":null,"subsName":"","lineName":"10kV天开G067线","pubTranName":"天万9组（天开河中）公变,天万9组（天开河中）2号公变,","scope":"浙江省杭州市余杭区南苑街道：天万9组一带","startTime":"2020-04-02 08:30:00","stopDate":"2020-04-02 13:00:00","orgNo":"3340140","typeCode":"计划停电","poweroffArea":"110kV外乔变:天开G067线天万9组1号公变令克；天开G067线天万9组2号公变令克（配合停电）。","poweroffReason":"天万9组1号公变调换计量箱1台","powerTime":"2020-04-02 12:11:48","powerComm":"因施工力量加强，现场进度较快，提前送电","subsNo":"","lineNo":"","tgNo":"","tgName":null,"infoStatus":"1","orgName":"国网浙江杭州市余杭区供电有限公司","typeName":null,"infoStatusName":null,"dateDay":null,"orgNos":null,"nowTime":null,"countyName":null,"streetName":null,"villageName":null,"roadName":null,"communityName":null,"tranName":null,"sdLineName":null,"cityCode":"3340140","cityName":"国网浙江杭州市余杭区供电有限公司","provinceCode":null,"stopTime":"2020-04-02 13:00:00","powerType":"未送电","powerOffArea":"110kV外乔变:天开G067线天万9组1号公变令克；天开G067线天万9组2号公变令克（配合停电）。","powerOffReason":"天万9组1号公变调换计量箱1台","powerOffId":"2020032031020440"},{"poweroffId":2020032031020438,"sgpoweroffId":null,"subsName":"","lineName":"10kV闻家H292线","pubTranName":"崇化村朱家桥2号公变,崇化村朱家桥1号公变,","scope":"浙江省杭州市余杭区瓶窑镇：崇化村朱家桥一带","startTime":"2020-04-02 09:30:00","stopDate":"2020-04-02 12:30:00","orgNo":"3340140","typeCode":"计划停电","poweroffArea":"110kV柏庙变:闻家H292线朱家桥2分线","poweroffReason":"计划工作","powerTime":"2020-04-02 11:51:54","powerComm":"已送电","subsNo":"","lineNo":"","tgNo":"","tgName":null,"infoStatus":"1","orgName":"国网浙江杭州市余杭区供电有限公司","typeName":null,"infoStatusName":null,"dateDay":null,"orgNos":null,"nowTime":null,"countyName":null,"streetName":null,"villageName":null,"roadName":null,"communityName":null,"tranName":null,"sdLineName":null,"cityCode":"3340140","cityName":"国网浙江杭州市余杭区供电有限公司","provinceCode":null,"stopTime":"2020-04-02 12:30:00","powerType":"全部","powerOffArea":"110kV柏庙变:闻家H292线朱家桥2分线","powerOffReason":"计划工作","powerOffId":"2020032031020438"},{"poweroffId":2020032031020437,"sgpoweroffId":null,"subsName":"","lineName":"10kV天开G067线","pubTranName":"天万6组2号公变,天万6组（王家堂）公变,","scope":"浙江省-杭州市-余杭区-南苑街道：天万6组一带","startTime":"2020-04-01 13:30:00","stopDate":"2020-04-01 16:30:00","orgNo":"3340140","typeCode":"计划停电","poweroffArea":"110kV外乔变:天开G067线天万6组1号公变令克；天开G067线天万6组2号公变令克（配合停电）","poweroffReason":"天万6组1号公变调换计量箱1台 原停电结束时间为2020-04-01 17:30:00,为减少客户停电时间,加快工作进度,提前送电,现变更停电结束时间为2020-04-01 16:30:00","powerTime":"2020-04-01 16:11:27","powerComm":"已送电","subsNo":"","lineNo":"","tgNo":"","tgName":null,"infoStatus":"1","orgName":"国网浙江杭州市余杭区供电有限公司","typeName":null,"infoStatusName":null,"dateDay":null,"orgNos":null,"nowTime":null,"countyName":null,"streetName":null,"villageName":null,"roadName":null,"communityName":null,"tranName":null,"sdLineName":null,"cityCode":"3340140","cityName":"国网浙江杭州市余杭区供电有限公司","provinceCode":null,"stopTime":"2020-04-01 16:30:00","powerType":"未送电","powerOffArea":"110kV外乔变:天开G067线天万6组1号公变令克；天开G067线天万6组2号公变令克（配合停电）","powerOffReason":"天万6组1号公变调换计量箱1台 原停电结束时间为2020-04-01 17:30:00,为减少客户停电时间,加快工作进度,提前送电,现变更停电结束时间为2020-04-01 16:30:00","powerOffId":"2020032031020437"},{"poweroffId":2020032031020435,"sgpoweroffId":null,"subsName":"","lineName":"10kV姚坝G971线","pubTranName":"明智村南庄2号公变,杭州杭湖电子有限公司,运河镇明智村南庄公变,运河镇明智村南庄北公变,运河镇明智村塘南公变,","scope":"浙江省杭州市余杭区运河街道：明智村石桥头、明智村南庄北、明智村南庄、杭湖电子一带","startTime":"2020-04-03 08:40:00","stopDate":"2020-04-03 16:40:00","orgNo":"3340140","typeCode":"计划停电","poweroffArea":"110kV博陆变:姚坝G971线-南庄分线开关后段","poweroffReason":"原停电结束时间为2020-04-01 16:40:00,因计划变更原因,现变更停电结束时间为2020-04-03 16:40:00","powerTime":"2020-04-03 16:00:00","powerComm":"送电","subsNo":"","lineNo":"","tgNo":"","tgName":null,"infoStatus":"1","orgName":"国网浙江杭州市余杭区供电有限公司","typeName":null,"infoStatusName":null,"dateDay":null,"orgNos":null,"nowTime":null,"countyName":null,"streetName":null,"villageName":null,"roadName":null,"communityName":null,"tranName":null,"sdLineName":null,"cityCode":"3340140","cityName":"国网浙江杭州市余杭区供电有限公司","provinceCode":null,"stopTime":"2020-04-03 16:40:00","powerType":"全部","powerOffArea":"110kV博陆变:姚坝G971线-南庄分线开关后段","powerOffReason":"原停电结束时间为2020-04-01 16:40:00,因计划变更原因,现变更停电结束时间为2020-04-03 16:40:00","powerOffId":"2020032031020435"},{"poweroffId":2020032031020433,"sgpoweroffId":null,"subsName":"","lineName":"10kV运佳H599线","pubTranName":"万家名府1#基建变,","scope":"浙江省杭州市余杭区良渚街道：万家名府路灯bian一带","startTime":"2020-04-01 08:40:00","stopDate":"2020-04-01 16:40:00","orgNo":"3340140","typeCode":"计划停电","poweroffArea":"110kV南庄变:运佳H599线-万家名府分线开关后段","poweroffReason":"接入：杭州名城博园置业有限公司基建变","powerTime":"2020-04-01 15:58:24","powerComm":"已送电","subsNo":"","lineNo":"","tgNo":"","tgName":null,"infoStatus":"1","orgName":"国网浙江杭州市余杭区供电有限公司","typeName":null,"infoStatusName":null,"dateDay":null,"orgNos":null,"nowTime":null,"countyName":null,"streetName":null,"villageName":null,"roadName":null,"communityName":null,"tranName":null,"sdLineName":null,"cityCode":"3340140","cityName":"国网浙江杭州市余杭区供电有限公司","provinceCode":null,"stopTime":"2020-04-01 16:40:00","powerType":"全部","powerOffArea":"110kV南庄变:运佳H599线-万家名府分线开关后段","powerOffReason":"接入：杭州名城博园置业有限公司基建变","powerOffId":"2020032031020433"},{"poweroffId":2020032031020431,"sgpoweroffId":null,"subsName":"","lineName":"10kV圣堂H509线","pubTranName":"南山村弄里公变,龙跃冷拉厂,内燃机,南山村东山公变,南山村横山公变,","scope":"浙江省杭州市余杭区瓶窑镇：南山村弄里、南山村横山、南山村东山、杭州瓶窑内燃机配件有限公司、杭州龙跃冷拉钢丝厂一带","startTime":"2020-04-01 09:40:00","stopDate":"2020-04-01 14:40:00","orgNo":"3340140","typeCode":"计划停电","poweroffArea":"35kV瓶镇变:圣堂H509线东山分线38号杆开关后段","poweroffReason":"计划工作","powerTime":"2020-04-01 14:29:16","powerComm":"已送电","subsNo":"","lineNo":"","tgNo":"","tgName":null,"infoStatus":"1","orgName":"国网浙江杭州市余杭区供电有限公司","typeName":null,"infoStatusName":null,"dateDay":null,"orgNos":null,"nowTime":null,"countyName":null,"streetName":null,"villageName":null,"roadName":null,"communityName":null,"tranName":null,"sdLineName":null,"cityCode":"3340140","cityName":"国网浙江杭州市余杭区供电有限公司","provinceCode":null,"stopTime":"2020-04-01 14:40:00","powerType":"全部","powerOffArea":"35kV瓶镇变:圣堂H509线东山分线38号杆开关后段","powerOffReason":"计划工作","powerOffId":"2020032031020431"},{"poweroffId":2020032031020429,"sgpoweroffId":null,"subsName":"","lineName":"10kV天开G067线","pubTranName":"天万11组（天开河北）公变,天万11组3号公变,","scope":"浙江省-杭州市-余杭区-南苑街道：天万11组一带","startTime":"2020-04-01 08:30:00","stopDate":"2020-04-01 16:00:00","orgNo":"3340140","typeCode":"计划停电","poweroffArea":"110kV外乔变:天开G067线天万11组1号公变令克；天开G067线天万11组3号公变令克（配合停电）。","poweroffReason":"天万11组1号公变调换计量箱1台 原停电结束时间为2020-04-01 13:00:00,因现场工作量增加原因,延迟送电,现变更停电结束时间为2020-04-01 16:00:00","powerTime":"2020-04-01 15:01:25","powerComm":"因施工力量加强，现场进度较快，提前送电","subsNo":"","lineNo":"","tgNo":"","tgName":null,"infoStatus":"1","orgName":"国网浙江杭州市余杭区供电有限公司","typeName":null,"infoStatusName":null,"dateDay":null,"orgNos":null,"nowTime":null,"countyName":null,"streetName":null,"villageName":null,"roadName":null,"communityName":null,"tranName":null,"sdLineName":null,"cityCode":"3340140","cityName":"国网浙江杭州市余杭区供电有限公司","provinceCode":null,"stopTime":"2020-04-01 16:00:00","powerType":"未送电","powerOffArea":"110kV外乔变:天开G067线天万11组1号公变令克；天开G067线天万11组3号公变令克（配合停电）。","powerOffReason":"天万11组1号公变调换计量箱1台 原停电结束时间为2020-04-01 13:00:00,因现场工作量增加原因,延迟送电,现变更停电结束时间为2020-04-01 16:00:00","powerOffId":"2020032031020429"},{"poweroffId":2020032031020427,"sgpoweroffId":null,"subsName":"","lineName":"10kV海常H643线","pubTranName":"1#变压器,中国建筑第八工程局有限公司,宝力工棚,南通工棚,隽安工棚,中国建筑第八工程局有限公司,机场快线工棚,","scope":"浙江省杭州市余杭区仓前街道：左岸实业建设工地、机场快xian工棚、南通工棚、宝力工棚、中建八局建设工地一带","startTime":"2020-04-01 09:30:00","stopDate":"2020-04-01 12:30:00","orgNo":"3340140","typeCode":"计划停电","poweroffArea":"东河开关站海常H643线东河分支箱分线","poweroffReason":"配网工程（2020年余杭公司科技城所10kV通义H782线等配电线路整治工程）：东河开关站海常H643线东河分支箱隽安工棚分线空电缆拆除工作","powerTime":"2020-04-01 11:56:04","powerComm":"已送电","subsNo":"","lineNo":"","tgNo":"","tgName":null,"infoStatus":"1","orgName":"国网浙江杭州市余杭区供电有限公司","typeName":null,"infoStatusName":null,"dateDay":null,"orgNos":null,"nowTime":null,"countyName":null,"streetName":null,"villageName":null,"roadName":null,"communityName":null,"tranName":null,"sdLineName":null,"cityCode":"3340140","cityName":"国网浙江杭州市余杭区供电有限公司","provinceCode":null,"stopTime":"2020-04-01 12:30:00","powerType":"全部","powerOffArea":"东河开关站海常H643线东河分支箱分线","powerOffReason":"配网工程（2020年余杭公司科技城所10kV通义H782线等配电线路整治工程）：东河开关站海常H643线东河分支箱隽安工棚分线空电缆拆除工作","powerOffId":"2020032031020427"},{"poweroffId":2020032031020407,"sgpoweroffId":null,"subsName":"","lineName":"10kV上陈D295线","pubTranName":"富阳高桥化工厂,杭州富阳交通发展投资集团有限公司1#变,泗洲村5#青山头外公变,周公坞村5号水坑口公变,浙江省第一水电建设集团股份有限公司,周公坞村3#村委口公变,浙江远大空分设备有限公司,浙江高盛输变电设备2#变,周公坞村1#公变,2号变,富阳市日欣精密机械制造有限公司1#变,泗洲村1#陶瓷厂公变,中铁十二局集团有限公司 1#,上陈村2#元宝石头公变,杭州联诚通信有限公司,上陈村3#作毛坞里公变,周公坞村2号公变,周公坞村8号村口公变,周公坞村9号斜坞口下公变,浙江高盛输变电设备3#变,富阳市皇天畈水利管理处,中铁十二局集团有限公司 2#,周公坞村4号马护口公变,富阳振宇包装印刷有限公司,上陈村1#公变,洪庄村5#白龙坞公变,浙江宏途交通工程科技有限公司 1#,新义电管站公变,周公坞村7号白马湾公变,河南省水利第二工程局4#基建变,泗洲村9号陶瓷厂二公变,杭州金宇房地产开发有限公司1,上陈村6#黄泥山公变,泗洲村2#学校变,上陈村5#作毛坞外公变,富阳锅炉设备厂,杭州市千岛湖原水股份有限公司1#变,泗洲村10号学校二公变,周公坞村6号直坞口公变,上陈村4#塑料厂公变,上陈村7#后山畈公变,浙江高盛输变电设备1#变,1号变,泗洲村4号青山头里公变,杭州富阳自动化仪表二厂 1#,","scope":"浙江省杭州市富阳区银湖街道新义乡上陈村一带","startTime":"2020-04-03 09:00:00","stopDate":"2020-04-03 09:30:00","orgNo":"3340170","typeCode":"计划停电","poweroffArea":"35kV新义变:上陈D295线-上陈D2951开关后段","poweroffReason":"倒负荷短时停电（35kV新义变10kV上陈D295线负荷由110kV高桥变10kV云水D569线倒回）","powerTime":"2020-04-03 09:21:51","powerComm":"已送电","subsNo":"","lineNo":"","tgNo":"","tgName":null,"infoStatus":"1","orgName":"国网浙江杭州市富阳区供电公司","typeName":null,"infoStatusName":null,"dateDay":null,"orgNos":null,"nowTime":null,"countyName":null,"streetName":null,"villageName":null,"roadName":null,"communityName":null,"tranName":null,"sdLineName":null,"cityCode":"3340170","cityName":"国网浙江杭州市富阳区供电公司","provinceCode":null,"stopTime":"2020-04-03 09:30:00","powerType":"全部","powerOffArea":"35kV新义变:上陈D295线-上陈D2951开关后段","powerOffReason":"倒负荷短时停电（35kV新义变10kV上陈D295线负荷由110kV高桥变10kV云水D569线倒回）","powerOffId":"2020032031020407"},{"poweroffId":2020032031020402,"sgpoweroffId":null,"subsName":"","lineName":"10kV秋月D552线","pubTranName":"望月弄3#公变,","scope":"浙江省-杭州市-富阳区-富春街道-秋月社区(秋月路,望月弄,康月路,苋浦西路)","startTime":"2020-03-20 15:33:55","stopDate":"2020-03-20 17:33:55","orgNo":"3340170","typeCode":"电网故障停限电","poweroffArea":"110kV春江变:秋月D552线-望月弄3#公变后段","poweroffReason":"(低压停电信息)低压开关跳闸","powerTime":"2020-03-20 16:34:22","powerComm":"已送电","subsNo":"","lineNo":"","tgNo":"","tgName":null,"infoStatus":"1","orgName":"国网浙江杭州市富阳区供电公司","typeName":null,"infoStatusName":null,"dateDay":null,"orgNos":null,"nowTime":null,"countyName":null,"streetName":null,"villageName":null,"roadName":null,"communityName":null,"tranName":null,"sdLineName":null,"cityCode":"3340170","cityName":"国网浙江杭州市富阳区供电公司","provinceCode":null,"stopTime":"2020-03-20 17:33:55","powerType":"全部","powerOffArea":"110kV春江变:秋月D552线-望月弄3#公变后段","powerOffReason":"(低压停电信息)低压开关跳闸","powerOffId":"2020032031020402"}],"pageModel":{"pageNow":463,"totalCount":17789,"totalPage":1779,"tableRows":0,"pageCount":10,"beginCount":4620},"isExperi":"1"}