{"message":"","today":"2020-06-15","seleList":[{"poweroffId":2020032031020398,"sgpoweroffId":null,"subsName":"","lineName":"10kV仙宅H777线","pubTranName":"1#,2#,4#,3#,贝莱特,","scope":"浙江省-杭州市-余杭区-余杭街道-仙宅行政村(浙江贝莱特蓝莓综合开发有限公司,杭州云曼星酒店管理有限公司)","startTime":"2020-03-20 15:40:00","stopDate":"2020-03-20 20:00:00","orgNo":"3340140","typeCode":"电网故障停限电","poweroffArea":"35kV长岗临时变:仙宅H777线-贝莱特分线后段","poweroffReason":"高压开关跳闸 原停电结束时间为2020-03-20 21:00:00,为减少客户停电时间,加快工作进度,提前送电,现变更停电结束时间为2020-03-20 20:00:00","powerTime":"2020-03-20 19:28:00","powerComm":"已送电","subsNo":"","lineNo":"","tgNo":"","tgName":null,"infoStatus":"1","orgName":"国网浙江杭州市余杭区供电有限公司","typeName":null,"infoStatusName":null,"dateDay":null,"orgNos":null,"nowTime":null,"countyName":null,"streetName":null,"villageName":null,"roadName":null,"communityName":null,"tranName":null,"sdLineName":null,"cityCode":"3340140","cityName":"国网浙江杭州市余杭区供电有限公司","provinceCode":null,"stopTime":"2020-03-20 20:00:00","powerType":"全部","powerOffArea":"35kV长岗临时变:仙宅H777线-贝莱特分线后段","powerOffReason":"高压开关跳闸 原停电结束时间为2020-03-20 21:00:00,为减少客户停电时间,加快工作进度,提前送电,现变更停电结束时间为2020-03-20 20:00:00","powerOffId":"2020032031020398"},{"poweroffId":2020032031020385,"sgpoweroffId":null,"subsName":"","lineName":"10kV里湖T424线","pubTranName":"里湖4号公变,","scope":"浙江省-杭州市-桐庐县-分水镇-里湖行政村(虹桥自然村,里湖自然村,里湖村村委门口)","startTime":"2020-03-20 15:20:51","stopDate":"2020-03-20 20:50:51","orgNo":"3340150","typeCode":"电网故障停限电","poweroffArea":"110kV天英变:里湖T424线-里湖4号公变后段","poweroffReason":"(低压停电信息)低压开关跳闸 原停电结束时间为2020-03-20 20:00:51,因材料原因,现变更停电结束时间为2020-03-20 20:50:51","powerTime":"2020-03-20 20:28:48","powerComm":"已送电","subsNo":"","lineNo":"","tgNo":"","tgName":null,"infoStatus":"1","orgName":"国网浙江桐庐县供电公司","typeName":null,"infoStatusName":null,"dateDay":null,"orgNos":null,"nowTime":null,"countyName":null,"streetName":null,"villageName":null,"roadName":null,"communityName":null,"tranName":null,"sdLineName":null,"cityCode":"3340150","cityName":"国网浙江桐庐县供电公司","provinceCode":null,"stopTime":"2020-03-20 20:50:51","powerType":"全部","powerOffArea":"110kV天英变:里湖T424线-里湖4号公变后段","powerOffReason":"(低压停电信息)低压开关跳闸 原停电结束时间为2020-03-20 20:00:51,因材料原因,现变更停电结束时间为2020-03-20 20:50:51","powerOffId":"2020032031020385"},{"poweroffId":2020032031020381,"sgpoweroffId":null,"subsName":"","lineName":"10kV杨凌756线","pubTranName":"改革月报专变双路内部三,改革月报专变双路内部四,劳培2变,商检大厦专变II,","scope":"浙江省-杭州市-上城区-小营街道-劳动大楼管理处双路单侧，浙江省杭州市上城区商检局培训中心楼双路单侧，浙江省杭州市上城区杭州市改革月报大楼双路单侧","startTime":"2020-04-03 09:30:00","stopDate":"2020-04-03 16:00:00","orgNo":"3340101","typeCode":"计划停电","poweroffArea":"110kV中心变:杨凌756线-皇诰二线后段","poweroffReason":"杭州城南片区皇诰巷小区皇诰站等换柜工程（古荡）皇诰站Ⅱ段更换。 原停电结束时间为2020-04-03 17:00，为减少客户停电时间，加快工作进度，提前送电，现变更停电结束时间为2020-04-03 16:00:00","powerTime":"2020-04-03 15:16:59","powerComm":"已送电","subsNo":"","lineNo":"","tgNo":"","tgName":null,"infoStatus":"1","orgName":"浙江杭州电力客户服务中心","typeName":null,"infoStatusName":null,"dateDay":null,"orgNos":null,"nowTime":null,"countyName":null,"streetName":null,"villageName":null,"roadName":null,"communityName":null,"tranName":null,"sdLineName":null,"cityCode":"3340101","cityName":"浙江杭州电力客户服务中心","provinceCode":null,"stopTime":"2020-04-03 16:00:00","powerType":"全部","powerOffArea":"110kV中心变:杨凌756线-皇诰二线后段","powerOffReason":"杭州城南片区皇诰巷小区皇诰站等换柜工程（古荡）皇诰站Ⅱ段更换。 原停电结束时间为2020-04-03 17:00，为减少客户停电时间，加快工作进度，提前送电，现变更停电结束时间为2020-04-03 16:00:00","powerOffId":"2020032031020381"},{"poweroffId":2020032031020380,"sgpoweroffId":null,"subsName":"","lineName":"10kV白井6421线","pubTranName":"市劳动大楼管理处1,改革月报专变双路内部一,商检大厦专变I,改革月报专变双路内部二,","scope":"浙江省-杭州市-上城区-小营街道劳动大楼管理处双路单侧，浙江省杭州市上城区商检局培训中心楼双路单侧，浙江省杭州市上城区杭州市改革月报大楼双路单侧","startTime":"2020-04-02 09:30:00","stopDate":"2020-04-02 23:59:00","orgNo":"3340101","typeCode":"计划停电","poweroffArea":"110kV新华变:白井6421线-皇诰一线后段","poweroffReason":"杭州城南片区皇诰巷小区皇诰站等换柜工程（古荡1811HZ1800WS04A0000000）皇诰站I段更换 原停电结束时间为2020-04-02 21:00:00,因工作量大原因,延迟送电,现变更停电结束时间为2020-04-02 23:59:00","powerTime":"2020-04-02 23:01:28","powerComm":"已送电","subsNo":"","lineNo":"","tgNo":"","tgName":null,"infoStatus":"1","orgName":"浙江杭州电力客户服务中心","typeName":null,"infoStatusName":null,"dateDay":null,"orgNos":null,"nowTime":null,"countyName":null,"streetName":null,"villageName":null,"roadName":null,"communityName":null,"tranName":null,"sdLineName":null,"cityCode":"3340101","cityName":"浙江杭州电力客户服务中心","provinceCode":null,"stopTime":"2020-04-02 23:59:00","powerType":"全部","powerOffArea":"110kV新华变:白井6421线-皇诰一线后段","powerOffReason":"杭州城南片区皇诰巷小区皇诰站等换柜工程（古荡1811HZ1800WS04A0000000）皇诰站I段更换 原停电结束时间为2020-04-02 21:00:00,因工作量大原因,延迟送电,现变更停电结束时间为2020-04-02 23:59:00","powerOffId":"2020032031020380"},{"poweroffId":2020032031020370,"sgpoweroffId":null,"subsName":"","lineName":"10kV姚家R401线","pubTranName":"界首污水处理厂专变,姚家村排平坞公变,","scope":"浙江省-杭州市-淳安县-界首乡-姚家行政村-姚家自然村;浙江省-杭州市-淳安县-界首乡-姚家行政村-淳安千岛湖建设集团城建发展有限公司","startTime":"2020-04-02 08:00:00","stopDate":"2020-04-02 14:00:00","orgNo":"3340190","typeCode":"计划停电","poweroffArea":"110kV界首变:姚家R401线-排平坞支线跌落式熔断器后段","poweroffReason":"10KV姚家R401线48号杆排平坞支线0号杆熔丝具更换开关带电班配合","powerTime":"2020-04-02 13:01:22","powerComm":"已送电","subsNo":"","lineNo":"","tgNo":"","tgName":null,"infoStatus":"1","orgName":"国网浙江淳安县供电有限公司","typeName":null,"infoStatusName":null,"dateDay":null,"orgNos":null,"nowTime":null,"countyName":null,"streetName":null,"villageName":null,"roadName":null,"communityName":null,"tranName":null,"sdLineName":null,"cityCode":"3340190","cityName":"国网浙江淳安县供电有限公司","provinceCode":null,"stopTime":"2020-04-02 14:00:00","powerType":"全部","powerOffArea":"110kV界首变:姚家R401线-排平坞支线跌落式熔断器后段","powerOffReason":"10KV姚家R401线48号杆排平坞支线0号杆熔丝具更换开关带电班配合","powerOffId":"2020032031020370"},{"poweroffId":2020032031020369,"sgpoweroffId":null,"subsName":"","lineName":"10kV溪口R181线","pubTranName":"临岐溪口村狮子头公变,临岐溪口村神公坞公变,","scope":"浙江省-杭州市-淳安县-临岐镇-溪口行政村(新农居点,溪口自然村,神公坞自然村)","startTime":"2020-04-01 16:50:00","stopDate":"2020-04-01 17:10:00","orgNo":"3340190","typeCode":"计划停电","poweroffArea":"35kV临岐变:溪口R181线首端，临岐溪口村狮子头公变，临岐溪口村神公坞公变之间","poweroffReason":"10kV溪口R181线杨塘支线03号杆更换开关带电作业配合","powerTime":"2020-04-01 17:00:20","powerComm":"已送电","subsNo":"","lineNo":"","tgNo":"","tgName":null,"infoStatus":"1","orgName":"国网浙江淳安县供电有限公司","typeName":null,"infoStatusName":null,"dateDay":null,"orgNos":null,"nowTime":null,"countyName":null,"streetName":null,"villageName":null,"roadName":null,"communityName":null,"tranName":null,"sdLineName":null,"cityCode":"3340190","cityName":"国网浙江淳安县供电有限公司","provinceCode":null,"stopTime":"2020-04-01 17:10:00","powerType":"全部","powerOffArea":"35kV临岐变:溪口R181线首端，临岐溪口村狮子头公变，临岐溪口村神公坞公变之间","powerOffReason":"10kV溪口R181线杨塘支线03号杆更换开关带电作业配合","powerOffId":"2020032031020369"},{"poweroffId":2020032031020368,"sgpoweroffId":null,"subsName":"","lineName":"10kV溪口R181线","pubTranName":"临岐溪口村神公坞公变,临岐溪口村狮子头公变,","scope":"浙江省-杭州市-淳安县-临岐镇-溪口行政村(新农居点,溪口自然村,神公坞自然村)","startTime":"2020-04-01 13:10:00","stopDate":"2020-04-01 13:30:00","orgNo":"3340190","typeCode":"计划停电","poweroffArea":"35kV临岐变:溪口R181线首端，临岐溪口村狮子头公变，临岐溪口村神公坞公变之间","poweroffReason":"10kV溪口R181线杨塘支线03号杆更换开关带电作业配合","powerTime":"2020-04-01 13:23:04","powerComm":"已送电","subsNo":"","lineNo":"","tgNo":"","tgName":null,"infoStatus":"1","orgName":"国网浙江淳安县供电有限公司","typeName":null,"infoStatusName":null,"dateDay":null,"orgNos":null,"nowTime":null,"countyName":null,"streetName":null,"villageName":null,"roadName":null,"communityName":null,"tranName":null,"sdLineName":null,"cityCode":"3340190","cityName":"国网浙江淳安县供电有限公司","provinceCode":null,"stopTime":"2020-04-01 13:30:00","powerType":"全部","powerOffArea":"35kV临岐变:溪口R181线首端，临岐溪口村狮子头公变，临岐溪口村神公坞公变之间","powerOffReason":"10kV溪口R181线杨塘支线03号杆更换开关带电作业配合","powerOffId":"2020032031020368"},{"poweroffId":2020032031020365,"sgpoweroffId":null,"subsName":"","lineName":"10kV拔山D942线","pubTranName":"农林村1#厂里公变,","scope":"浙江省-杭州市-富阳区-富春街道-拔山行政村(骑龙里自然村,栗柴坞自然村,拔山自然村,温州厂下自然村,温州厂上自然村,荒地上自然村)","startTime":"2020-04-04 08:30:00","stopDate":"2020-04-04 17:00:00","orgNo":"3340170","typeCode":"计划停电","poweroffArea":"110kV育才变:拔山D942线-农林村1#厂里后段","poweroffReason":"(低压停电信息)青云2020年10kV农林村9#茶叶市场公变等配变增容布点工程：农林村1#厂里公变0.4kV3线出线电缆拆除；农林村18#厂里公变新出2路0.4kV出线电缆搭接至原农林村1#厂里公变3线3#-2杆；3#-2杆至3#-4杆单改双等工作","powerTime":"2020-04-04 16:30:32","powerComm":"已送电","subsNo":"","lineNo":"","tgNo":"","tgName":null,"infoStatus":"1","orgName":"国网浙江杭州市富阳区供电公司","typeName":null,"infoStatusName":null,"dateDay":null,"orgNos":null,"nowTime":null,"countyName":null,"streetName":null,"villageName":null,"roadName":null,"communityName":null,"tranName":null,"sdLineName":null,"cityCode":"3340170","cityName":"国网浙江杭州市富阳区供电公司","provinceCode":null,"stopTime":"2020-04-04 17:00:00","powerType":"全部","powerOffArea":"110kV育才变:拔山D942线-农林村1#厂里后段","powerOffReason":"(低压停电信息)青云2020年10kV农林村9#茶叶市场公变等配变增容布点工程：农林村1#厂里公变0.4kV3线出线电缆拆除；农林村18#厂里公变新出2路0.4kV出线电缆搭接至原农林村1#厂里公变3线3#-2杆；3#-2杆至3#-4杆单改双等工作","powerOffId":"2020032031020365"},{"poweroffId":2020032031020362,"sgpoweroffId":null,"subsName":"","lineName":"10kV碧园9564线","pubTranName":"桂园(十八)变,","scope":"浙江省-杭州市-杭州市经济技术开发区-下沙街道-碧桂园小区6幢2单元24层-32层居民用户","startTime":"2020-04-03 09:30:00","stopDate":"2020-04-03 17:00:00","orgNo":"3340120","typeCode":"计划停电","poweroffArea":"110kV学林变:碧园9564线-桂园(十八)变6幢2单元24层始端箱","poweroffReason":"(低压停电信息)碧桂园小区6幢2单元3203室低压消缺工作 原停电结束时间为2020-04-03 16:30:00,因现场工作量大原因,延迟送电,现变更停电结束时间为2020-04-03 17:00:00","powerTime":"2020-04-03 16:40:48","powerComm":"已送电","subsNo":"","lineNo":"","tgNo":"","tgName":null,"infoStatus":"1","orgName":"国网浙江杭州市钱塘新区供电公司","typeName":null,"infoStatusName":null,"dateDay":null,"orgNos":null,"nowTime":null,"countyName":null,"streetName":null,"villageName":null,"roadName":null,"communityName":null,"tranName":null,"sdLineName":null,"cityCode":"3340120","cityName":"国网浙江杭州市钱塘新区供电公司","provinceCode":null,"stopTime":"2020-04-03 17:00:00","powerType":"全部","powerOffArea":"110kV学林变:碧园9564线-桂园(十八)变6幢2单元24层始端箱","powerOffReason":"(低压停电信息)碧桂园小区6幢2单元3203室低压消缺工作 原停电结束时间为2020-04-03 16:30:00,因现场工作量大原因,延迟送电,现变更停电结束时间为2020-04-03 17:00:00","powerOffId":"2020032031020362"},{"poweroffId":2020032031020360,"sgpoweroffId":null,"subsName":"","lineName":"10kV碧园9564线","pubTranName":"","scope":"浙江省杭州市江干区宋都东郡国际花园小区嘉湾18幢1单元103附近部分用户","startTime":"2020-04-02 09:30:00","stopDate":"2020-04-02 16:30:00","orgNo":"3340120","typeCode":"计划停电","poweroffArea":"110kV学林变:碧园9564线-嘉湾六变B6-2号低压开关","poweroffReason":"(低压停电信息)宋都东郡国际花园小区嘉湾18幢1单元103低压消缺工作","powerTime":"2020-04-02 16:01:03","powerComm":"已送电","subsNo":"","lineNo":"","tgNo":"","tgName":null,"infoStatus":"1","orgName":"国网浙江杭州市钱塘新区供电公司","typeName":null,"infoStatusName":null,"dateDay":null,"orgNos":null,"nowTime":null,"countyName":null,"streetName":null,"villageName":null,"roadName":null,"communityName":null,"tranName":null,"sdLineName":null,"cityCode":"3340120","cityName":"国网浙江杭州市钱塘新区供电公司","provinceCode":null,"stopTime":"2020-04-02 16:30:00","powerType":"全部","powerOffArea":"110kV学林变:碧园9564线-嘉湾六变B6-2号低压开关","powerOffReason":"(低压停电信息)宋都东郡国际花园小区嘉湾18幢1单元103低压消缺工作","powerOffId":"2020032031020360"}],"pageModel":{"pageNow":464,"totalCount":17789,"totalPage":1779,"tableRows":0,"pageCount":10,"beginCount":4630},"isExperi":"1"}