{"message":"","today":"2020-06-15","seleList":[{"poweroffId":2020032031020359,"sgpoweroffId":null,"subsName":"","lineName":"10kV普农7119线","pubTranName":"心苑(七)变,","scope":"浙江省-杭州市-江干区-九堡街道-远洋心里小区2幢1单元、2单元居民用户，6幢1单元、2单元、3单元居民用户，2幢公共负荷，5幢动力备供，6幢公共负荷，地下室一区消防总柜主供，","startTime":"2020-04-02 10:00:00","stopDate":"2020-04-02 11:30:00","orgNo":"3340120","typeCode":"计划停电","poweroffArea":"110kV牛田变:普农7119线-心苑(七)变后段","poweroffReason":"心苑七变公变终端消缺工作","powerTime":"2020-04-02 10:47:33","powerComm":"已送电","subsNo":"","lineNo":"","tgNo":"","tgName":null,"infoStatus":"1","orgName":"国网浙江杭州市钱塘新区供电公司","typeName":null,"infoStatusName":null,"dateDay":null,"orgNos":null,"nowTime":null,"countyName":null,"streetName":null,"villageName":null,"roadName":null,"communityName":null,"tranName":null,"sdLineName":null,"cityCode":"3340120","cityName":"国网浙江杭州市钱塘新区供电公司","provinceCode":null,"stopTime":"2020-04-02 11:30:00","powerType":"全部","powerOffArea":"110kV牛田变:普农7119线-心苑(七)变后段","powerOffReason":"心苑七变公变终端消缺工作","powerOffId":"2020032031020359"},{"poweroffId":2020032031020356,"sgpoweroffId":null,"subsName":"","lineName":"10kV绍鲁V502线","pubTranName":"10kV后渚村[鹤村村]公变,杭州莱噢食品有限公司,10kV后渚村[鹤村口]公变,","scope":"浙江省-杭州市-临安市-於潜镇-鹤村村、鹤村口、杭州莱噢食品有限公司一带","startTime":"2020-04-02 15:20:00","stopDate":"2020-04-02 15:35:00","orgNo":"3340160","typeCode":"计划停电","poweroffArea":"绍鲁V502线鹤村分线","poweroffReason":"杭州临安於潜10千伏绍鲁V502线等线路改造工程（高后线03项）：绍鲁V502线鹤村分线8#杆发电车开关下桩引线拆头","powerTime":"2020-04-02 15:25:15","powerComm":"已送电","subsNo":"","lineNo":"","tgNo":"","tgName":null,"infoStatus":"1","orgName":"国网浙江临安市供电公司","typeName":null,"infoStatusName":null,"dateDay":null,"orgNos":null,"nowTime":null,"countyName":null,"streetName":null,"villageName":null,"roadName":null,"communityName":null,"tranName":null,"sdLineName":null,"cityCode":"3340160","cityName":"国网浙江临安市供电公司","provinceCode":null,"stopTime":"2020-04-02 15:35:00","powerType":"全部","powerOffArea":"绍鲁V502线鹤村分线","powerOffReason":"杭州临安於潜10千伏绍鲁V502线等线路改造工程（高后线03项）：绍鲁V502线鹤村分线8#杆发电车开关下桩引线拆头","powerOffId":"2020032031020356"},{"poweroffId":2020032031020355,"sgpoweroffId":null,"subsName":"","lineName":"10kV绍鲁V502线","pubTranName":"10kV观山村[秋村]公变,","scope":"浙江省-杭州市-临安市-於潜镇-秋村一带","startTime":"2020-04-02 08:40:00","stopDate":"2020-04-02 15:20:00","orgNo":"3340160","typeCode":"计划停电","poweroffArea":"绍鲁V502线1#杆5021开关至绍鲁V502线81#杆5023开关","poweroffReason":"杭州临安於潜10千伏绍鲁V502线等线路改造工程（高后线02项）：1、绍鲁V502线33#-38#杆、42-57#杆、63-75#杆杆子移位，绍鲁V502线69#杆鹤村分线、73#杆条石岭分线搭接。","powerTime":"2020-04-02 15:10:17","powerComm":"已送电","subsNo":"","lineNo":"","tgNo":"","tgName":null,"infoStatus":"1","orgName":"国网浙江临安市供电公司","typeName":null,"infoStatusName":null,"dateDay":null,"orgNos":null,"nowTime":null,"countyName":null,"streetName":null,"villageName":null,"roadName":null,"communityName":null,"tranName":null,"sdLineName":null,"cityCode":"3340160","cityName":"国网浙江临安市供电公司","provinceCode":null,"stopTime":"2020-04-02 15:20:00","powerType":"全部","powerOffArea":"绍鲁V502线1#杆5021开关至绍鲁V502线81#杆5023开关","powerOffReason":"杭州临安於潜10千伏绍鲁V502线等线路改造工程（高后线02项）：1、绍鲁V502线33#-38#杆、42-57#杆、63-75#杆杆子移位，绍鲁V502线69#杆鹤村分线、73#杆条石岭分线搭接。","powerOffId":"2020032031020355"},{"poweroffId":2020032031020354,"sgpoweroffId":null,"subsName":"","lineName":"10kV林琴9572线","pubTranName":"","scope":"浙江省杭州市江干区多蓝水岸银沙苑5幢1单元附近部分用户","startTime":"2020-04-01 09:30:00","stopDate":"2020-04-01 16:30:00","orgNo":"3340120","typeCode":"计划停电","poweroffArea":"110kV学林变:林琴9572线-沙岸(六)银沙5#1单元低压总开关","poweroffReason":"(低压停电信息)多蓝水岸银沙苑5幢1单元1003低压消缺工作","powerTime":"2020-04-01 16:05:40","powerComm":"已送电","subsNo":"","lineNo":"","tgNo":"","tgName":null,"infoStatus":"1","orgName":"国网浙江杭州市钱塘新区供电公司","typeName":null,"infoStatusName":null,"dateDay":null,"orgNos":null,"nowTime":null,"countyName":null,"streetName":null,"villageName":null,"roadName":null,"communityName":null,"tranName":null,"sdLineName":null,"cityCode":"3340120","cityName":"国网浙江杭州市钱塘新区供电公司","provinceCode":null,"stopTime":"2020-04-01 16:30:00","powerType":"全部","powerOffArea":"110kV学林变:林琴9572线-沙岸(六)银沙5#1单元低压总开关","powerOffReason":"(低压停电信息)多蓝水岸银沙苑5幢1单元1003低压消缺工作","powerOffId":"2020032031020354"},{"poweroffId":2020032031020353,"sgpoweroffId":null,"subsName":"","lineName":"10kV太阳V124线","pubTranName":"1#,方元变所用变,10kV方元村[杨树坞]公变,","scope":"浙江省-杭州市-临安市-於潜镇-杨树坞、临安市方元包装厂、方元便所用便一带","startTime":"2020-04-02 09:00:00","stopDate":"2020-04-02 15:00:00","orgNo":"3340160","typeCode":"计划停电","poweroffArea":"太阳V124线75#杆方元包装厂分线","poweroffReason":"方元包装厂分线割接（02）：项:太阳V124线方元包装厂分线1#-10#拆线、10#杆后线路割接至太阳V124线枢纽分线7#杆、太阳V124线枢纽分线7#杆新装分线开关一台","powerTime":"2020-04-02 14:50:15","powerComm":"已送电","subsNo":"","lineNo":"","tgNo":"","tgName":null,"infoStatus":"1","orgName":"国网浙江临安市供电公司","typeName":null,"infoStatusName":null,"dateDay":null,"orgNos":null,"nowTime":null,"countyName":null,"streetName":null,"villageName":null,"roadName":null,"communityName":null,"tranName":null,"sdLineName":null,"cityCode":"3340160","cityName":"国网浙江临安市供电公司","provinceCode":null,"stopTime":"2020-04-02 15:00:00","powerType":"全部","powerOffArea":"太阳V124线75#杆方元包装厂分线","powerOffReason":"方元包装厂分线割接（02）：项:太阳V124线方元包装厂分线1#-10#拆线、10#杆后线路割接至太阳V124线枢纽分线7#杆、太阳V124线枢纽分线7#杆新装分线开关一台","powerOffId":"2020032031020353"},{"poweroffId":2020032031020350,"sgpoweroffId":null,"subsName":"","lineName":"10kV绍鲁V502线","pubTranName":"杭州莱噢食品有限公司,10kV后渚村[鹤村村]公变,10kV后渚村[鹤村口]公变,","scope":"浙江省-杭州市-临安市-於潜镇-鹤村村、鹤村口、杭州莱噢食品有限公司一带","startTime":"2020-04-02 08:25:00","stopDate":"2020-04-02 08:40:00","orgNo":"3340160","typeCode":"计划停电","poweroffArea":"绍鲁V502线鹤村分线","poweroffReason":"杭州临安於潜10千伏绍鲁V502线等线路改造工程（高后线01项）：绍鲁V502线鹤村分线8#杆发电车开关下桩引线搭头","powerTime":"2020-04-02 08:30:17","powerComm":"已送电","subsNo":"","lineNo":"","tgNo":"","tgName":null,"infoStatus":"1","orgName":"国网浙江临安市供电公司","typeName":null,"infoStatusName":null,"dateDay":null,"orgNos":null,"nowTime":null,"countyName":null,"streetName":null,"villageName":null,"roadName":null,"communityName":null,"tranName":null,"sdLineName":null,"cityCode":"3340160","cityName":"国网浙江临安市供电公司","provinceCode":null,"stopTime":"2020-04-02 08:40:00","powerType":"全部","powerOffArea":"绍鲁V502线鹤村分线","powerOffReason":"杭州临安於潜10千伏绍鲁V502线等线路改造工程（高后线01项）：绍鲁V502线鹤村分线8#杆发电车开关下桩引线搭头","powerOffId":"2020032031020350"},{"poweroffId":2020032031020349,"sgpoweroffId":null,"subsName":"","lineName":"10kV富源V509线","pubTranName":"10kV横鑫村[小昔楼家]公变,10kV横鑫村[小昔塔岭]公变,10kV横鑫村[小昔横坞口]公变,10kV横鑫村[竹库湾]公变,10kV横鑫村[横岭坞口]公变,10kV横鑫村[正坞沙滩头]公变,10kV横鑫村[外横岭]公变,10kV横鑫村[乌金大礼堂]公变,10kV横鑫村[后横岭]公变,10kV横鑫村[石井坞口]公变,","scope":"浙江省-杭州市-临安市-於潜镇-小昔塔岭、石井坞口、小昔楼家、小昔横坞口、正坞沙滩头、后横岭、外横岭、竹库湾、乌金大礼堂、横岭坞口一带","startTime":"2020-04-01 16:20:00","stopDate":"2020-04-01 16:35:00","orgNo":"3340160","typeCode":"计划停电","poweroffArea":"富源v509线横岭分线44#杆后段、小昔支线","poweroffReason":"临金高速改迁03项：富源V509线横岭分线小昔支线10#杆发电车开关下桩引线拆头，横岭分线45#杆发电车开关下桩引线拆头","powerTime":"2020-04-01 16:25:05","powerComm":"已送电","subsNo":"","lineNo":"","tgNo":"","tgName":null,"infoStatus":"1","orgName":"国网浙江临安市供电公司","typeName":null,"infoStatusName":null,"dateDay":null,"orgNos":null,"nowTime":null,"countyName":null,"streetName":null,"villageName":null,"roadName":null,"communityName":null,"tranName":null,"sdLineName":null,"cityCode":"3340160","cityName":"国网浙江临安市供电公司","provinceCode":null,"stopTime":"2020-04-01 16:35:00","powerType":"全部","powerOffArea":"富源v509线横岭分线44#杆后段、小昔支线","powerOffReason":"临金高速改迁03项：富源V509线横岭分线小昔支线10#杆发电车开关下桩引线拆头，横岭分线45#杆发电车开关下桩引线拆头","powerOffId":"2020032031020349"},{"poweroffId":2020032031020348,"sgpoweroffId":null,"subsName":"","lineName":"10kV太阳V124线","pubTranName":"10kV方元村[方元黄泥墩]公变,","scope":"浙江省-杭州市-临安市-於潜镇-方元黄泥墩一带","startTime":"2020-04-01 08:40:00","stopDate":"2020-04-01 16:20:00","orgNo":"3340160","typeCode":"计划停电","poweroffArea":"太阳v124线76#杆1242开关至太阳v124线85#杆开关","poweroffReason":"临金高速改迁02项：太阳V124线富源V509线83#杆钢管塔组立，新装2台分线开关，富源V509线83#杆新出高速分线、26#杆新装分段开关一台，太阳V124线83#杆新出枢纽分线、26#杆新装分段开关一台","powerTime":"2020-04-01 16:10:11","powerComm":"已送电","subsNo":"","lineNo":"","tgNo":"","tgName":null,"infoStatus":"1","orgName":"国网浙江临安市供电公司","typeName":null,"infoStatusName":null,"dateDay":null,"orgNos":null,"nowTime":null,"countyName":null,"streetName":null,"villageName":null,"roadName":null,"communityName":null,"tranName":null,"sdLineName":null,"cityCode":"3340160","cityName":"国网浙江临安市供电公司","provinceCode":null,"stopTime":"2020-04-01 16:20:00","powerType":"全部","powerOffArea":"太阳v124线76#杆1242开关至太阳v124线85#杆开关","powerOffReason":"临金高速改迁02项：太阳V124线富源V509线83#杆钢管塔组立，新装2台分线开关，富源V509线83#杆新出高速分线、26#杆新装分段开关一台，太阳V124线83#杆新出枢纽分线、26#杆新装分段开关一台","powerOffId":"2020032031020348"},{"poweroffId":2020032031020347,"sgpoweroffId":null,"subsName":"","lineName":"10kV太阳V124线","pubTranName":"10kV方元村[方元公路]公变,","scope":"浙江省-杭州市-临安市-於潜镇-方元公路一带","startTime":"2020-04-01 08:40:00","stopDate":"2020-04-01 16:20:00","orgNo":"3340160","typeCode":"计划停电","poweroffArea":"停太阳V124线方元村分线5#杆方元村[公路下]配变低压公路下2000线","poweroffReason":"配合停电","powerTime":"2020-04-01 16:10:23","powerComm":"已送电","subsNo":"","lineNo":"","tgNo":"","tgName":null,"infoStatus":"1","orgName":"国网浙江临安市供电公司","typeName":null,"infoStatusName":null,"dateDay":null,"orgNos":null,"nowTime":null,"countyName":null,"streetName":null,"villageName":null,"roadName":null,"communityName":null,"tranName":null,"sdLineName":null,"cityCode":"3340160","cityName":"国网浙江临安市供电公司","provinceCode":null,"stopTime":"2020-04-01 16:20:00","powerType":"全部","powerOffArea":"停太阳V124线方元村分线5#杆方元村[公路下]配变低压公路下2000线","powerOffReason":"配合停电","powerOffId":"2020032031020347"},{"poweroffId":2020032031020346,"sgpoweroffId":null,"subsName":"","lineName":"10kV富源V509线","pubTranName":"10kV横鑫村[正坞口]公变,10kV横鑫村[正坞罗鼓园]公变,","scope":"浙江省-杭州市-临安市-於潜镇正坞罗鼓园、正坞口一带","startTime":"2020-04-01 08:40:00","stopDate":"2020-04-01 16:20:00","orgNo":"3340160","typeCode":"计划停电","poweroffArea":"富源v509线横岭分线1#杆开关至横岭分线44#杆开关","poweroffReason":"临金高速改迁02项：太阳V124线富源V509线83#杆钢管塔组立，新装2台分线开关，富源V509线83#杆新出高速分线、26#杆新装分段开关一台，太阳V124线83#杆新出枢纽分线、26#杆新装分段开关一台","powerTime":"2020-04-01 16:10:07","powerComm":"已送电","subsNo":"","lineNo":"","tgNo":"","tgName":null,"infoStatus":"1","orgName":"国网浙江临安市供电公司","typeName":null,"infoStatusName":null,"dateDay":null,"orgNos":null,"nowTime":null,"countyName":null,"streetName":null,"villageName":null,"roadName":null,"communityName":null,"tranName":null,"sdLineName":null,"cityCode":"3340160","cityName":"国网浙江临安市供电公司","provinceCode":null,"stopTime":"2020-04-01 16:20:00","powerType":"全部","powerOffArea":"富源v509线横岭分线1#杆开关至横岭分线44#杆开关","powerOffReason":"临金高速改迁02项：太阳V124线富源V509线83#杆钢管塔组立，新装2台分线开关，富源V509线83#杆新出高速分线、26#杆新装分段开关一台，太阳V124线83#杆新出枢纽分线、26#杆新装分段开关一台","powerOffId":"2020032031020346"}],"pageModel":{"pageNow":465,"totalCount":17789,"totalPage":1779,"tableRows":0,"pageCount":10,"beginCount":4640},"isExperi":"1"}