{"message":"","today":"2020-06-15","seleList":[{"poweroffId":2020032031020198,"sgpoweroffId":null,"subsName":"","lineName":"10kV江曹A525线","pubTranName":"曹坞村1#变,","scope":"浙江省-杭州市-萧山区-浦阳镇-曹坞行政村(下曹坞自然村,上曹坞自然村)等一带","startTime":"2020-03-20 13:16:11","stopDate":"2020-03-20 15:00:11","orgNo":"3340130","typeCode":"电网故障停限电","poweroffArea":"110kV浦阳变:江曹A525线-曹坞村1#变台区低压开关","poweroffReason":"(低压停电信息)低压熔断器短路故障 原停电结束时间为2020-03-20 15:16:11,为减少客户停电时间,加快工作进度,提前送电,现变更停电结束时间为2020-03-20 15:00:11","powerTime":"2020-03-20 14:08:19","powerComm":"已送电","subsNo":"","lineNo":"","tgNo":"","tgName":null,"infoStatus":"1","orgName":"国网浙江杭州市萧山区供电有限公司","typeName":null,"infoStatusName":null,"dateDay":null,"orgNos":null,"nowTime":null,"countyName":null,"streetName":null,"villageName":null,"roadName":null,"communityName":null,"tranName":null,"sdLineName":null,"cityCode":"3340130","cityName":"国网浙江杭州市萧山区供电有限公司","provinceCode":null,"stopTime":"2020-03-20 15:00:11","powerType":"全部","powerOffArea":"110kV浦阳变:江曹A525线-曹坞村1#变台区低压开关","powerOffReason":"(低压停电信息)低压熔断器短路故障 原停电结束时间为2020-03-20 15:16:11,为减少客户停电时间,加快工作进度,提前送电,现变更停电结束时间为2020-03-20 15:00:11","powerOffId":"2020032031020198"},{"poweroffId":2020032031020189,"sgpoweroffId":null,"subsName":"","lineName":"10kV金家8337线","pubTranName":"岗苑充变,","scope":"岗苑充配变接入的充电桩","startTime":"2020-03-24 09:30:00","stopDate":"2020-03-24 15:30:00","orgNo":"3340101","typeCode":"临时停电","poweroffArea":"110kV祥符变:金家8337线-置浜站7#间隔岗苑充分线、置浜站10#间隔、置浜站15#间隔","poweroffReason":"置浜站7#间隔岗苑充分线改接至置浜站15#间隔，杭州花园岗股份经济合作社双路用户站内搭头通电 原停电结束时间为2020-03-24 17:30:00,为减少客户停电时间,加快工作进度,提前送电,现变更停电结束时间为2020-03-24 15:30:00","powerTime":"2020-03-24 14:38:59","powerComm":"已送电","subsNo":"","lineNo":"","tgNo":"","tgName":null,"infoStatus":"1","orgName":"浙江杭州电力客户服务中心","typeName":null,"infoStatusName":null,"dateDay":null,"orgNos":null,"nowTime":null,"countyName":null,"streetName":null,"villageName":null,"roadName":null,"communityName":null,"tranName":null,"sdLineName":null,"cityCode":"3340101","cityName":"浙江杭州电力客户服务中心","provinceCode":null,"stopTime":"2020-03-24 15:30:00","powerType":"全部","powerOffArea":"110kV祥符变:金家8337线-置浜站7#间隔岗苑充分线、置浜站10#间隔、置浜站15#间隔","powerOffReason":"置浜站7#间隔岗苑充分线改接至置浜站15#间隔，杭州花园岗股份经济合作社双路用户站内搭头通电 原停电结束时间为2020-03-24 17:30:00,为减少客户停电时间,加快工作进度,提前送电,现变更停电结束时间为2020-03-24 15:30:00","powerOffId":"2020032031020189"},{"poweroffId":2020032031020183,"sgpoweroffId":null,"subsName":"","lineName":"10kV五联8816线","pubTranName":"港杭大厦1,港杭大厦2#,散码（1）（2）2#,瓜北(6)农,瓜山临住,瓜南(5)农,市石(2),1#,散码（1）（2）1#,方正(1),","scope":"浙江省-杭州市-拱墅区-上塘街道-瓜山社区(瓜山村,石祥路);上塘街道(杭州市城市照明发展中心,杭州港航有限公司,杭州港务管理有限公司,杭州正方商品混凝土搅拌厂,杭州正方实业集团有限公司,)","startTime":"2020-03-20 12:51:00","stopDate":"2020-03-20 14:20:00","orgNo":"3340101","typeCode":"电网故障停限电","poweroffArea":"110kV拱宸变:五联8816线上石站五联8816线后段","poweroffReason":"高压开关跳闸 原停电结束时间为2020-03-20 16:51:00,为减少客户停电时间,加快工作进度,提前送电,现变更停电结束时间为2020-03-20 14:20:00","powerTime":"2020-03-20 13:40:30","powerComm":"已送电","subsNo":"","lineNo":"","tgNo":"","tgName":null,"infoStatus":"1","orgName":"浙江杭州电力客户服务中心","typeName":null,"infoStatusName":null,"dateDay":null,"orgNos":null,"nowTime":null,"countyName":null,"streetName":null,"villageName":null,"roadName":null,"communityName":null,"tranName":null,"sdLineName":null,"cityCode":"3340101","cityName":"浙江杭州电力客户服务中心","provinceCode":null,"stopTime":"2020-03-20 14:20:00","powerType":"全部","powerOffArea":"110kV拱宸变:五联8816线上石站五联8816线后段","powerOffReason":"高压开关跳闸 原停电结束时间为2020-03-20 16:51:00,为减少客户停电时间,加快工作进度,提前送电,现变更停电结束时间为2020-03-20 14:20:00","powerOffId":"2020032031020183"},{"poweroffId":2020032031020172,"sgpoweroffId":null,"subsName":"","lineName":"10kV碧水8376线","pubTranName":"华龙八变,","scope":"浙江省-杭州市-滨江区-浦沿街道-之江社区-西环路浙江省杭州市滨江区浦沿街道碧水豪园小区6幢住户。","startTime":"2020-03-27 13:30:00","stopDate":"2020-03-27 16:30:00","orgNo":"3340101","typeCode":"计划停电","poweroffArea":"110kV新生变:碧水8376线-华龙八变后段","poweroffReason":"(低压停电信息)","powerTime":"2020-03-27 15:39:19","powerComm":"已送电","subsNo":"","lineNo":"","tgNo":"","tgName":null,"infoStatus":"1","orgName":"浙江杭州电力客户服务中心","typeName":null,"infoStatusName":null,"dateDay":null,"orgNos":null,"nowTime":null,"countyName":null,"streetName":null,"villageName":null,"roadName":null,"communityName":null,"tranName":null,"sdLineName":null,"cityCode":"3340101","cityName":"浙江杭州电力客户服务中心","provinceCode":null,"stopTime":"2020-03-27 16:30:00","powerType":"全部","powerOffArea":"110kV新生变:碧水8376线-华龙八变后段","powerOffReason":"(低压停电信息)","powerOffId":"2020032031020172"},{"poweroffId":2020032031020162,"sgpoweroffId":null,"subsName":"","lineName":"10kV东红A673线","pubTranName":"盛乐村31#变,新华村47#变,新华教堂,鸿达市政(高新四路),新华村11#变,新华村2#变,新华衍缝,大力神建设有限公司,盛乐村11#变,盛乐村3#变,新华村33#变,浙江国丰集团有限公司1#,新华村15#变,新华村50#变,美文机械,杭州三助环境工程有限责任公司,盛乐村8#变,新华村29#公变,新华村41#变,利华汽车,新华村45#变,新华村49#变,浙江国丰集团有限公司2#,杭州高士达印染有限公司,新华村8#变,新华村23#变,新华村经济合作社1#,杭州依博市政工程有限公司4,新华村9#变,新华村22#变,新华村46#变,杭州市萧山区人民政府宁围街道办事处,","scope":"浙江省-杭州市-萧山区-新街镇-新街街道-盛乐行政村-盛乐自然村,宁围街道-新华行政村(文明路,新华自然村,振宁路,西小区,南小区);新街街道-杭州三助环境工程有限责任公司,经济技术开发区(杭州鸿达市政公用事业服务有限公司,浙江利华汽车销售有限公司),宁围街道(杭州萧山新华绗缝绣服厂,杭州高士达印染有限公司,杭州市萧山区宁围镇基督教新华教堂,杭州美文机械有限公司,大力神建设有限公司,杭州萧山宁围镇新华村经济合作社,浙江国丰集团有限公司,杭州依博市政工程有限公司)、宁围镇新华村城北小区13组等一带","startTime":"2020-03-20 11:10:00","stopDate":"2020-03-20 13:15:00","orgNo":"3340130","typeCode":"电网故障停限电","poweroffArea":"110kV东霖变:东红A673线东红A6731开关后段","poweroffReason":"高压柱上断路器短路故障 原停电结束时间为2020-03-20 17:10:00,为减少客户停电时间,加快工作进度,提前送电,现变更停电结束时间为2020-03-20 13:15:00","powerTime":"2020-03-20 12:19:15","powerComm":"已送电","subsNo":"","lineNo":"","tgNo":"","tgName":null,"infoStatus":"1","orgName":"国网浙江杭州市萧山区供电有限公司","typeName":null,"infoStatusName":null,"dateDay":null,"orgNos":null,"nowTime":null,"countyName":null,"streetName":null,"villageName":null,"roadName":null,"communityName":null,"tranName":null,"sdLineName":null,"cityCode":"3340130","cityName":"国网浙江杭州市萧山区供电有限公司","provinceCode":null,"stopTime":"2020-03-20 13:15:00","powerType":"全部","powerOffArea":"110kV东霖变:东红A673线东红A6731开关后段","powerOffReason":"高压柱上断路器短路故障 原停电结束时间为2020-03-20 17:10:00,为减少客户停电时间,加快工作进度,提前送电,现变更停电结束时间为2020-03-20 13:15:00","powerOffId":"2020032031020162"},{"poweroffId":2020032031020158,"sgpoweroffId":null,"subsName":"","lineName":"10kV紫东8035线","pubTranName":"仕园一,","scope":"浙江省杭州市西湖区名仕家园商铺文一西路227号附近一带","startTime":"2020-03-27 09:00:00","stopDate":"2020-03-27 12:00:00","orgNo":"3340101","typeCode":"临时停电","poweroffArea":"110kV紫荆变:紫东8035线-仕园一后段","poweroffReason":"(低压停电信息)1.名仕家园商铺文一西路227表计增容（12KW增到48KW）","powerTime":"2020-03-27 11:10:10","powerComm":"已送电","subsNo":"","lineNo":"","tgNo":"","tgName":null,"infoStatus":"1","orgName":"浙江杭州电力客户服务中心","typeName":null,"infoStatusName":null,"dateDay":null,"orgNos":null,"nowTime":null,"countyName":null,"streetName":null,"villageName":null,"roadName":null,"communityName":null,"tranName":null,"sdLineName":null,"cityCode":"3340101","cityName":"浙江杭州电力客户服务中心","provinceCode":null,"stopTime":"2020-03-27 12:00:00","powerType":"未送电","powerOffArea":"110kV紫荆变:紫东8035线-仕园一后段","powerOffReason":"(低压停电信息)1.名仕家园商铺文一西路227表计增容（12KW增到48KW）","powerOffId":"2020032031020158"},{"poweroffId":2020032031020136,"sgpoweroffId":null,"subsName":"","lineName":"10kV江曹A525线","pubTranName":"曹坞村1#变,","scope":"浙江省-杭州市-萧山区-浦阳镇-曹坞行政村(下曹坞自然村,上曹坞自然村),杭州市萧山区浦阳镇下曹坞村口等一带","startTime":"2020-03-20 10:33:58","stopDate":"2020-03-20 12:30:58","orgNo":"3340130","typeCode":"电网故障停限电","poweroffArea":"110kV浦阳变:江曹A525线-曹坞村1#变台区低压开关","poweroffReason":"(低压停电信息)低压熔断器短路故障 原停电结束时间为2020-03-20 13:33:58,为减少客户停电时间,加快工作进度,提前送电,现变更停电结束时间为2020-03-20 12:30:58","powerTime":"2020-03-20 11:48:44","powerComm":"已送电","subsNo":"","lineNo":"","tgNo":"","tgName":null,"infoStatus":"1","orgName":"国网浙江杭州市萧山区供电有限公司","typeName":null,"infoStatusName":null,"dateDay":null,"orgNos":null,"nowTime":null,"countyName":null,"streetName":null,"villageName":null,"roadName":null,"communityName":null,"tranName":null,"sdLineName":null,"cityCode":"3340130","cityName":"国网浙江杭州市萧山区供电有限公司","provinceCode":null,"stopTime":"2020-03-20 12:30:58","powerType":"全部","powerOffArea":"110kV浦阳变:江曹A525线-曹坞村1#变台区低压开关","powerOffReason":"(低压停电信息)低压熔断器短路故障 原停电结束时间为2020-03-20 13:33:58,为减少客户停电时间,加快工作进度,提前送电,现变更停电结束时间为2020-03-20 12:30:58","powerOffId":"2020032031020136"},{"poweroffId":2020032031020129,"sgpoweroffId":null,"subsName":"","lineName":"10kV四联D961线","pubTranName":"四联村4#戴家坞公变,杭富轨道交通有限公司SGHF-5标2#,杭富轨道交通有限公司SGHF-5标1#,杭州杭富轨道交通有限公司5标4#,杭州杭富轨道交通有限公司1#变,杭富轨道交通有限公司SGHF-5标3,","scope":"浙江省-杭州市-富阳区-银湖街道-银湖行政村(戴家坞自然村,四联自然村);银湖街道(中铁上海工程局集团有限公司,浙江省大成建设集团有限公司)","startTime":"2020-03-20 10:24:46","stopDate":"2020-03-20 14:19:00","orgNo":"3340170","typeCode":"电网故障停限电","poweroffArea":"110kV九龙变:四联D961线四联五号开关站联四D9614线开关后段","poweroffReason":"高压开关跳闸 原停电结束时间为2020-03-20 12:19:00,因施工复杂原因,现变更停电结束时间为2020-03-20 14:19:00","powerTime":"2020-03-20 12:39:24","powerComm":"已送电，作业人员技术较好","subsNo":"","lineNo":"","tgNo":"","tgName":null,"infoStatus":"1","orgName":"国网浙江杭州市富阳区供电公司","typeName":null,"infoStatusName":null,"dateDay":null,"orgNos":null,"nowTime":null,"countyName":null,"streetName":null,"villageName":null,"roadName":null,"communityName":null,"tranName":null,"sdLineName":null,"cityCode":"3340170","cityName":"国网浙江杭州市富阳区供电公司","provinceCode":null,"stopTime":"2020-03-20 14:19:00","powerType":"全部","powerOffArea":"110kV九龙变:四联D961线四联五号开关站联四D9614线开关后段","powerOffReason":"高压开关跳闸 原停电结束时间为2020-03-20 12:19:00,因施工复杂原因,现变更停电结束时间为2020-03-20 14:19:00","powerOffId":"2020032031020129"},{"poweroffId":2020032031020128,"sgpoweroffId":null,"subsName":"","lineName":"10kV金网D969线","pubTranName":"悠远1号变,翠峰居4＃公变,金都泽闲居4#变,浙江金都网球俱乐部有限公司2#,杭州富阳富春江房地产开发有限公司1#变,智谷创业园有限公司 2#,科创公寓7号公变,智谷创业园有限公司 1#,微雨居2#公变,翠峰居2＃公变,浙江金都网球俱乐部有限公司,智谷创业园有限公司 4#,金都泽闲居5#变,智谷创业园有限公司 5#,智谷创业园有限公司 6#,智谷创业园有限公司 3#,科创公寓3号公变,翰风居1#,杭州富阳富春江房地产开发有限公司2#变,科创公寓1号公变,浙江金都网球俱乐部有限公司,秀隐居2#,浙江金都网球俱乐部有限公司1#,悠远2号变,翠峰居1＃公变,金都泽闲居6#变,微雨居1#公变,金都翰风居3#公变,金都泽闲居3#变,翰风居2#,科创公寓9号公变,秀隐居1#,科创公寓5号公变,翠峰居3＃公变,","scope":"浙江省-杭州市-富阳区-银湖街道-受降行政村-九龙大道,银湖街道-银湖行政村(银湖自然村,四联自然村,九龙大道);银湖街道(智谷创业园有限公司,浙江金都网球俱乐部有限公司,)","startTime":"2020-03-20 10:20:00","stopDate":"2020-03-20 14:20:00","orgNo":"3340170","typeCode":"电网故障停限电","poweroffArea":"110kV九龙变:金网D969线金网一号开关站金网D969线后段","poweroffReason":"高压开关跳闸 原停电结束时间为2020-03-20 12:20:00,因施工复杂原因,现变更停电结束时间为2020-03-20 14:20:00","powerTime":"2020-03-20 12:39:49","powerComm":"已送电，作业人员技术较好","subsNo":"","lineNo":"","tgNo":"","tgName":null,"infoStatus":"1","orgName":"国网浙江杭州市富阳区供电公司","typeName":null,"infoStatusName":null,"dateDay":null,"orgNos":null,"nowTime":null,"countyName":null,"streetName":null,"villageName":null,"roadName":null,"communityName":null,"tranName":null,"sdLineName":null,"cityCode":"3340170","cityName":"国网浙江杭州市富阳区供电公司","provinceCode":null,"stopTime":"2020-03-20 14:20:00","powerType":"全部","powerOffArea":"110kV九龙变:金网D969线金网一号开关站金网D969线后段","powerOffReason":"高压开关跳闸 原停电结束时间为2020-03-20 12:20:00,因施工复杂原因,现变更停电结束时间为2020-03-20 14:20:00","powerOffId":"2020032031020128"},{"poweroffId":2020032031020085,"sgpoweroffId":null,"subsName":"","lineName":"10kV临通C649线","pubTranName":"1#,高压电动机,通一村8#变,变压器,2#,杭州诺丁食品有限公司2#,杭州广大新能源科技有限公司,通一村7#变,杭州海利机械有限公司,杭州驰丰机械有限公司（下戴）,浙江永诚电缆制造有限公司,杭州广和机械有限公司2#,通一村6#变,","scope":"浙江省-杭州市-萧山区-临浦镇-通一行政村-下戴自然村;临浦镇(杭州诺丁食品有限公司,杭州诺颇劳博科技开发有限公司,杭州广大新能源科技有限公司,浙江永诚电缆制造有限公司,杭州海利机械有限公司,杭州驰丰机械有限公司,杭州广和机械有限公司),浙江省杭州市萧山区临浦镇白鹿塘行政村等一带","startTime":"2020-03-20 09:14:00","stopDate":"2020-03-20 11:00:00","orgNo":"3340130","typeCode":"电网故障停限电","poweroffArea":"110kV临浦变:临通C649线临通C6492开关后段","poweroffReason":"高压柱上断路器短路故障 原停电结束时间为2020-03-20 12:14:00,为减少客户停电时间,加快工作进度,提前送电,现变更停电结束时间为2020-03-20 11:00:00","powerTime":"2020-03-20 10:04:39","powerComm":"已送电","subsNo":"","lineNo":"","tgNo":"","tgName":null,"infoStatus":"1","orgName":"国网浙江杭州市萧山区供电有限公司","typeName":null,"infoStatusName":null,"dateDay":null,"orgNos":null,"nowTime":null,"countyName":null,"streetName":null,"villageName":null,"roadName":null,"communityName":null,"tranName":null,"sdLineName":null,"cityCode":"3340130","cityName":"国网浙江杭州市萧山区供电有限公司","provinceCode":null,"stopTime":"2020-03-20 11:00:00","powerType":"全部","powerOffArea":"110kV临浦变:临通C649线临通C6492开关后段","powerOffReason":"高压柱上断路器短路故障 原停电结束时间为2020-03-20 12:14:00,为减少客户停电时间,加快工作进度,提前送电,现变更停电结束时间为2020-03-20 11:00:00","powerOffId":"2020032031020085"}],"pageModel":{"pageNow":468,"totalCount":17789,"totalPage":1779,"tableRows":0,"pageCount":10,"beginCount":4670},"isExperi":"1"}