{"message":"","today":"2020-06-15","seleList":[{"poweroffId":2020031931020243,"sgpoweroffId":null,"subsName":"","lineName":"10kV牛弄8011线","pubTranName":"凯苑二变,杭州合众工业集团有限公司,村花,凯苑四变,凯旋指挥部,凯苑六变,凯苑一变,铁运,圃铁,清泰一变,","scope":"浙江省-杭州市-上城区-望江街道-清泰门社区-凯旋路,采荷街道-新凯苑社区(清泰街-铁路花圃新村),绿茗社区,商教苑社区-芙蓉社区-健风社区-航海路),凯旋街道(凯西社区-华家池社区,南肖埠社区)","startTime":"2020-03-19 19:02:35","stopDate":"2020-03-19 22:02:35","orgNo":"3340101","typeCode":"电网故障停限电","poweroffArea":"110kV庆春变:牛弄8011线","poweroffReason":"高压开关跳闸 原停电结束时间为2020-03-19 23:02:35,为减少客户停电时间,加快工作进度,提前送电,现变更停电结束时间为2020-03-19 22:02:35","powerTime":"2020-03-19 21:22:39","powerComm":"已送电","subsNo":"","lineNo":"","tgNo":"","tgName":null,"infoStatus":"1","orgName":"浙江杭州电力客户服务中心","typeName":null,"infoStatusName":null,"dateDay":null,"orgNos":null,"nowTime":null,"countyName":null,"streetName":null,"villageName":null,"roadName":null,"communityName":null,"tranName":null,"sdLineName":null,"cityCode":"3340101","cityName":"浙江杭州电力客户服务中心","provinceCode":null,"stopTime":"2020-03-19 22:02:35","powerType":"全部","powerOffArea":"110kV庆春变:牛弄8011线","powerOffReason":"高压开关跳闸 原停电结束时间为2020-03-19 23:02:35,为减少客户停电时间,加快工作进度,提前送电,现变更停电结束时间为2020-03-19 22:02:35","powerOffId":"2020031931020243"},{"poweroffId":2020031931020239,"sgpoweroffId":null,"subsName":"","lineName":"10kV三元D912线","pubTranName":"勤俭村5号林道公变,","scope":"浙江省-杭州市-富阳区-渔山乡-大葛行政村(勤建自然村,葛村自然村,勤俭自然村)","startTime":"2020-03-19 18:23:02","stopDate":"2020-03-19 20:23:02","orgNo":"3340170","typeCode":"电网故障停限电","poweroffArea":"110kV里渔变:三元D912线-勤俭村5号林道公变后段","poweroffReason":"高压开关跳闸","powerTime":"2020-03-19 18:38:40","powerComm":"已送电，作业人员技术较好","subsNo":"","lineNo":"","tgNo":"","tgName":null,"infoStatus":"1","orgName":"国网浙江杭州市富阳区供电公司","typeName":null,"infoStatusName":null,"dateDay":null,"orgNos":null,"nowTime":null,"countyName":null,"streetName":null,"villageName":null,"roadName":null,"communityName":null,"tranName":null,"sdLineName":null,"cityCode":"3340170","cityName":"国网浙江杭州市富阳区供电公司","provinceCode":null,"stopTime":"2020-03-19 20:23:02","powerType":"全部","powerOffArea":"110kV里渔变:三元D912线-勤俭村5号林道公变后段","powerOffReason":"高压开关跳闸","powerOffId":"2020031931020239"},{"poweroffId":2020031931020235,"sgpoweroffId":null,"subsName":"","lineName":"10kV燕方G255线","pubTranName":"双陈村鱼家桥公变,","scope":"浙江省-杭州市-余杭区-仁和街道-双陈行政村(鱼家坝自然村,姚家坝自然村,穆家坝自然村,陈家角自然村,陈家坝自然村)一带","startTime":"2020-03-19 17:39:00","stopDate":"2020-03-19 22:30:00","orgNo":"3340140","typeCode":"电网故障停限电","poweroffArea":"110kV仁镇变:燕方G255线-双陈村鱼家桥公变后段","poweroffReason":"高压开关跳闸","powerTime":"2020-03-19 22:00:00","powerComm":"已送电","subsNo":"","lineNo":"","tgNo":"","tgName":null,"infoStatus":"1","orgName":"国网浙江杭州市余杭区供电有限公司","typeName":null,"infoStatusName":null,"dateDay":null,"orgNos":null,"nowTime":null,"countyName":null,"streetName":null,"villageName":null,"roadName":null,"communityName":null,"tranName":null,"sdLineName":null,"cityCode":"3340140","cityName":"国网浙江杭州市余杭区供电有限公司","provinceCode":null,"stopTime":"2020-03-19 22:30:00","powerType":"全部","powerOffArea":"110kV仁镇变:燕方G255线-双陈村鱼家桥公变后段","powerOffReason":"高压开关跳闸","powerOffId":"2020031931020235"},{"poweroffId":2020031931020234,"sgpoweroffId":null,"subsName":"","lineName":"10kV田湾G265线","pubTranName":"双陈村鱼家坝公变,","scope":"浙江省-杭州市-余杭区-仁和街道-双陈行政村(陈家角自然村,鱼家坝自然村,姚家坝自然村,穆家坝自然村,陈家坝自然村)一带","startTime":"2020-03-19 17:37:00","stopDate":"2020-03-19 22:30:00","orgNo":"3340140","typeCode":"电网故障停限电","poweroffArea":"110kV仁镇变:田湾G265线-双陈村鱼家坝公变后段","poweroffReason":"高压开关跳闸","powerTime":"2020-03-19 22:00:00","powerComm":"已送电","subsNo":"","lineNo":"","tgNo":"","tgName":null,"infoStatus":"1","orgName":"国网浙江杭州市余杭区供电有限公司","typeName":null,"infoStatusName":null,"dateDay":null,"orgNos":null,"nowTime":null,"countyName":null,"streetName":null,"villageName":null,"roadName":null,"communityName":null,"tranName":null,"sdLineName":null,"cityCode":"3340140","cityName":"国网浙江杭州市余杭区供电有限公司","provinceCode":null,"stopTime":"2020-03-19 22:30:00","powerType":"全部","powerOffArea":"110kV仁镇变:田湾G265线-双陈村鱼家坝公变后段","powerOffReason":"高压开关跳闸","powerOffId":"2020031931020234"},{"poweroffId":2020031931020207,"sgpoweroffId":null,"subsName":"","lineName":"10kV长中158线","pubTranName":"云端十变,","scope":"浙江省-杭州市-滨江区-长河街道-长一社区-彩霞路-云端公寓","startTime":"2020-03-19 15:39:00","stopDate":"2020-03-19 19:55:00","orgNo":"3340101","typeCode":"电网故障停限电","poweroffArea":"110kV长河变:长中158线云端十变配变","poweroffReason":"高压开关跳闸 原停电结束时间为2020-03-19 21:39:00,为减少客户停电时间,加快工作进度,提前送电,现变更停电结束时间为2020-03-19 19:55:00","powerTime":"2020-03-19 19:10:32","powerComm":"已送电","subsNo":"","lineNo":"","tgNo":"","tgName":null,"infoStatus":"1","orgName":"浙江杭州电力客户服务中心","typeName":null,"infoStatusName":null,"dateDay":null,"orgNos":null,"nowTime":null,"countyName":null,"streetName":null,"villageName":null,"roadName":null,"communityName":null,"tranName":null,"sdLineName":null,"cityCode":"3340101","cityName":"浙江杭州电力客户服务中心","provinceCode":null,"stopTime":"2020-03-19 19:55:00","powerType":"全部","powerOffArea":"110kV长河变:长中158线云端十变配变","powerOffReason":"高压开关跳闸 原停电结束时间为2020-03-19 21:39:00,为减少客户停电时间,加快工作进度,提前送电,现变更停电结束时间为2020-03-19 19:55:00","powerOffId":"2020031931020207"},{"poweroffId":2020031931020191,"sgpoweroffId":null,"subsName":"","lineName":"10kV登北D534线","pubTranName":"金奥博1#变,博纳水净化1#变,方圆塑机1#变,昆仲机械1#变,联辰实业1#变,包秦村5号后头陈家公变,中软塑胶1#变,亦正水处理1#变,美易膜1#变,森东五金1#变,包秦村4号新农居点公变,","scope":"浙江省-杭州市-富阳区-新登镇-包秦行政村-包秦自然村;浙江省-杭州市-富阳区-新登镇-官山行政村-杭州昆仲机械设备有限公司,新登镇-松溪行政村(杭州森东五金科技有限公司,杭州联辰实业有限公司),新登镇-新登新区(杭州富阳博纳水净化设备有限公司,杭州富阳金奥博鞋业有限公司,杭州亦正水处理设备有限公司,杭州中软塑胶有限公司,浙江美易膜科技有限公司,杭州方圆塑机股份有限公司)","startTime":"2020-03-19 15:10:59","stopDate":"2020-03-19 17:10:59","orgNo":"3340170","typeCode":"电网故障停限电","poweroffArea":"110kV清泉变:登北D534线首端，登北D5341开关，登北D5342开关之间","poweroffReason":"高压开关跳闸","powerTime":"2020-03-19 16:43:13","powerComm":"已送电","subsNo":"","lineNo":"","tgNo":"","tgName":null,"infoStatus":"1","orgName":"国网浙江杭州市富阳区供电公司","typeName":null,"infoStatusName":null,"dateDay":null,"orgNos":null,"nowTime":null,"countyName":null,"streetName":null,"villageName":null,"roadName":null,"communityName":null,"tranName":null,"sdLineName":null,"cityCode":"3340170","cityName":"国网浙江杭州市富阳区供电公司","provinceCode":null,"stopTime":"2020-03-19 17:10:59","powerType":"全部","powerOffArea":"110kV清泉变:登北D534线首端，登北D5341开关，登北D5342开关之间","powerOffReason":"高压开关跳闸","powerOffId":"2020031931020191"},{"poweroffId":2020031931020180,"sgpoweroffId":null,"subsName":"","lineName":"10kV田村C238线","pubTranName":"萧南村7#变,萧南村4#变,浙江交工集团股份有限公司,岩下村13#变,岩上村5#变,浙江交工集团股份有限公司（1321507629）,岩下村7#变,岩下村8#变,萧南村1#变,萧南村10#变,萧南村6#变,萧南村5#变,岩下村2#变,岩上村2#变,1#,杰伟,岩下村5#变,岩下村1#变,萧南村2#变,岩下村3#变,岩下村6#变,萧南村3#变,萧南村11#变,浙江交工集团股份有限公司,岩上村6#变,萧南村8#变,岩上村4#变,岩上村1#变,萧南村12#变,浙江交工集团股份有限公司,萧南村9#变,岩上村3#变,浙江交工集团股份有限公司（1321507629）,华树纺织,岩上村7#变,","scope":"浙江省-杭州市-萧山区-楼塔镇-岩山行政村-岩下自然村,楼塔镇-岩上行政村(后畈自然村,前畈自然村),楼塔镇-萧南行政村(田村自然村,长山坞桥头自然村,长山坞自然村,长山坞大贝坞自然村,长山坞西沈自然村,长山坞东升自然村,田村江畈自然村,田村金畈自然村);浙江省-杭州市-萧山区-楼塔镇-岩上行政村-浙江交工集团股份有限公司,楼塔镇-岩山行政村(杭州杰伟塑业有限公司,杭州萧山华树纺织有限公司,浙江交工集团股份有限公司)等一带","startTime":"2020-03-19 14:50:04","stopDate":"2020-03-19 17:30:04","orgNo":"3340130","typeCode":"电网故障停限电","poweroffArea":"35kV楼塔变:田村C238线开关后段","poweroffReason":"高压柱上断路器短路故障","powerTime":"2020-03-19 16:50:44","powerComm":"已送电","subsNo":"","lineNo":"","tgNo":"","tgName":null,"infoStatus":"1","orgName":"国网浙江杭州市萧山区供电有限公司","typeName":null,"infoStatusName":null,"dateDay":null,"orgNos":null,"nowTime":null,"countyName":null,"streetName":null,"villageName":null,"roadName":null,"communityName":null,"tranName":null,"sdLineName":null,"cityCode":"3340130","cityName":"国网浙江杭州市萧山区供电有限公司","provinceCode":null,"stopTime":"2020-03-19 17:30:04","powerType":"全部","powerOffArea":"35kV楼塔变:田村C238线开关后段","powerOffReason":"高压柱上断路器短路故障","powerOffId":"2020031931020180"},{"poweroffId":2020031931020170,"sgpoweroffId":null,"subsName":"","lineName":"10kV下颜A353线","pubTranName":"裘家坞9#变,","scope":"浙江省-杭州市-萧山区-进化镇-裘家坞行政村(城山王自然村,裘家坞自然村)等一带","startTime":"2020-03-19 14:22:00","stopDate":"2020-03-19 15:00:00","orgNo":"3340130","typeCode":"电网故障停限电","poweroffArea":"110kV进化变:下颜A353线裘家坞9#变台区低压开关","poweroffReason":"(低压停电信息)低压架空线断线故障 原停电结束时间为2020-03-19 16:22:00,为减少客户停电时间,加快工作进度,提前送电,现变更停电结束时间为2020-03-19 15:00:00","powerTime":"2020-03-19 14:40:58","powerComm":"已送电","subsNo":"","lineNo":"","tgNo":"","tgName":null,"infoStatus":"1","orgName":"国网浙江杭州市萧山区供电有限公司","typeName":null,"infoStatusName":null,"dateDay":null,"orgNos":null,"nowTime":null,"countyName":null,"streetName":null,"villageName":null,"roadName":null,"communityName":null,"tranName":null,"sdLineName":null,"cityCode":"3340130","cityName":"国网浙江杭州市萧山区供电有限公司","provinceCode":null,"stopTime":"2020-03-19 15:00:00","powerType":"全部","powerOffArea":"110kV进化变:下颜A353线裘家坞9#变台区低压开关","powerOffReason":"(低压停电信息)低压架空线断线故障 原停电结束时间为2020-03-19 16:22:00,为减少客户停电时间,加快工作进度,提前送电,现变更停电结束时间为2020-03-19 15:00:00","powerOffId":"2020031931020170"},{"poweroffId":2020031931020153,"sgpoweroffId":null,"subsName":"","lineName":"10kV排塘Y185线","pubTranName":"河南里村杭岭背台区,","scope":"浙江省-杭州市-建德市-寿昌镇-河南里行政村 杭岭后自然村,杭岭背自然村,河南里自然村一带用户","startTime":"2020-03-19 14:08:00","stopDate":"2020-03-19 15:30:00","orgNo":"3340180","typeCode":"电网故障停限电","poweroffArea":"35kV河南里变:排塘Y185线河南里村杭岭背台区配变","poweroffReason":"高压开关跳闸 原停电结束时间为2020-03-19 16:00:00,为减少客户停电时间,加快工作进度,提前送电,现变更停电结束时间为2020-03-19 15:30:00","powerTime":"2020-03-19 14:50:20","powerComm":"已送电","subsNo":"","lineNo":"","tgNo":"","tgName":null,"infoStatus":"1","orgName":"国网浙江建德市供电有限公司","typeName":null,"infoStatusName":null,"dateDay":null,"orgNos":null,"nowTime":null,"countyName":null,"streetName":null,"villageName":null,"roadName":null,"communityName":null,"tranName":null,"sdLineName":null,"cityCode":"3340180","cityName":"国网浙江建德市供电有限公司","provinceCode":null,"stopTime":"2020-03-19 15:30:00","powerType":"全部","powerOffArea":"35kV河南里变:排塘Y185线河南里村杭岭背台区配变","powerOffReason":"高压开关跳闸 原停电结束时间为2020-03-19 16:00:00,为减少客户停电时间,加快工作进度,提前送电,现变更停电结束时间为2020-03-19 15:30:00","powerOffId":"2020031931020153"},{"poweroffId":2020031931020111,"sgpoweroffId":null,"subsName":"","lineName":"10kV百岁T168线","pubTranName":"范家村里范家2号公变,","scope":"浙江省-杭州市-桐庐县-瑶琳镇-百岁行政村-范家自然村","startTime":"2020-03-19 13:08:00","stopDate":"2020-03-19 14:30:00","orgNo":"3340150","typeCode":"电网故障停限电","poweroffArea":"35kV瑶琳变:百岁T168线范家村里范家2号公变配变","poweroffReason":"高压开关跳闸 原停电结束时间为2020-03-19 17:01:00,为减少客户停电时间,加快工作进度,提前送电,现变更停电结束时间为2020-03-19 14:30:00","powerTime":"2020-03-19 14:18:10","powerComm":"已送电","subsNo":"","lineNo":"","tgNo":"","tgName":null,"infoStatus":"1","orgName":"国网浙江桐庐县供电公司","typeName":null,"infoStatusName":null,"dateDay":null,"orgNos":null,"nowTime":null,"countyName":null,"streetName":null,"villageName":null,"roadName":null,"communityName":null,"tranName":null,"sdLineName":null,"cityCode":"3340150","cityName":"国网浙江桐庐县供电公司","provinceCode":null,"stopTime":"2020-03-19 14:30:00","powerType":"全部","powerOffArea":"35kV瑶琳变:百岁T168线范家村里范家2号公变配变","powerOffReason":"高压开关跳闸 原停电结束时间为2020-03-19 17:01:00,为减少客户停电时间,加快工作进度,提前送电,现变更停电结束时间为2020-03-19 14:30:00","powerOffId":"2020031931020111"}],"pageModel":{"pageNow":470,"totalCount":17789,"totalPage":1779,"tableRows":0,"pageCount":10,"beginCount":4690},"isExperi":"1"}