{"message":"","today":"2020-06-15","seleList":[{"poweroffId":2020031931020099,"sgpoweroffId":null,"subsName":"","lineName":"10kV上官D265线","pubTranName":"剡溪村2#徐村老桥公变,","scope":"浙江省-杭州市-富阳区-上官乡-剡溪行政村-徐村自然村","startTime":"2020-03-19 12:27:40","stopDate":"2020-03-19 14:20:40","orgNo":"3340170","typeCode":"电网故障停限电","poweroffArea":"35kV盛村变:上官D265线-剡溪村2#徐村老桥公变后段","poweroffReason":"高压开关跳闸","powerTime":"2020-03-19 13:58:48","powerComm":"已送电","subsNo":"","lineNo":"","tgNo":"","tgName":null,"infoStatus":"1","orgName":"国网浙江杭州市富阳区供电公司","typeName":null,"infoStatusName":null,"dateDay":null,"orgNos":null,"nowTime":null,"countyName":null,"streetName":null,"villageName":null,"roadName":null,"communityName":null,"tranName":null,"sdLineName":null,"cityCode":"3340170","cityName":"国网浙江杭州市富阳区供电公司","provinceCode":null,"stopTime":"2020-03-19 14:20:40","powerType":"全部","powerOffArea":"35kV盛村变:上官D265线-剡溪村2#徐村老桥公变后段","powerOffReason":"高压开关跳闸","powerOffId":"2020031931020099"},{"poweroffId":2020031931020074,"sgpoweroffId":null,"subsName":"","lineName":"10kV谢田Y786线","pubTranName":"大溪边村下坑垅台区,","scope":"浙江省-杭州市-建德市-钦堂乡-大溪边村行政村-下坑垅自然村一带用户","startTime":"2020-03-19 10:57:00","stopDate":"2020-03-19 13:00:00","orgNo":"3340180","typeCode":"电网故障停限电","poweroffArea":"110kV钦堂变:谢田Y786线-大溪边村下坑垅台区后段","poweroffReason":"(低压停电信息)低压熔丝烧毁 原停电结束时间为2020-03-19 14:00:00,为减少客户停电时间,加快工作进度,提前送电,现变更停电结束时间为2020-03-19 13:00:00","powerTime":"2020-03-19 12:03:16","powerComm":"已送电","subsNo":"","lineNo":"","tgNo":"","tgName":null,"infoStatus":"1","orgName":"国网浙江建德市供电有限公司","typeName":null,"infoStatusName":null,"dateDay":null,"orgNos":null,"nowTime":null,"countyName":null,"streetName":null,"villageName":null,"roadName":null,"communityName":null,"tranName":null,"sdLineName":null,"cityCode":"3340180","cityName":"国网浙江建德市供电有限公司","provinceCode":null,"stopTime":"2020-03-19 13:00:00","powerType":"全部","powerOffArea":"110kV钦堂变:谢田Y786线-大溪边村下坑垅台区后段","powerOffReason":"(低压停电信息)低压熔丝烧毁 原停电结束时间为2020-03-19 14:00:00,为减少客户停电时间,加快工作进度,提前送电,现变更停电结束时间为2020-03-19 13:00:00","powerOffId":"2020031931020074"},{"poweroffId":2020031931020069,"sgpoweroffId":null,"subsName":"","lineName":"10kV桥南Y202线","pubTranName":"冷冻厂公变,","scope":"浙江省-杭州市-建德市-新安江街道-府西社区 麻岭巷,严东关路,新安路,麻园巷二弄,麻园巷一带用户","startTime":"2020-03-19 10:45:00","stopDate":"2020-03-19 12:30:00","orgNo":"3340180","typeCode":"电网故障停限电","poweroffArea":"110kV白沙变:桥南Y202线-冷冻厂公变后段","poweroffReason":"(低压停电信息)低压主线烧毁","powerTime":"2020-03-19 11:34:46","powerComm":"已送电","subsNo":"","lineNo":"","tgNo":"","tgName":null,"infoStatus":"1","orgName":"国网浙江建德市供电有限公司","typeName":null,"infoStatusName":null,"dateDay":null,"orgNos":null,"nowTime":null,"countyName":null,"streetName":null,"villageName":null,"roadName":null,"communityName":null,"tranName":null,"sdLineName":null,"cityCode":"3340180","cityName":"国网浙江建德市供电有限公司","provinceCode":null,"stopTime":"2020-03-19 12:30:00","powerType":"全部","powerOffArea":"110kV白沙变:桥南Y202线-冷冻厂公变后段","powerOffReason":"(低压停电信息)低压主线烧毁","powerOffId":"2020031931020069"},{"poweroffId":2020031931020039,"sgpoweroffId":null,"subsName":"","lineName":"10kV鹤里V256线","pubTranName":"龙皇(太阳)电站,10kV大溪坞村[小坞口]公变,10kV横路村[二队]公变,临安市宁阳照明电器有限公司,10kV大溪坞村[上七里]公变,临安市永锦五金工具有限公司,杭州临安诚信电子器材厂,临安铁桥工具有限公司1#,10kV谢家桥村[上全]公变,10kV横路村[后干前村]公变,10kV桃源溪村[朱相坞里]公变,10kV大溪坞村[大溪村]公变,10kV登村村[登村]公变,10kV桃源溪村[桃树岭王家]公变,10kV上太阳村[朱柏坞企业]公变,10kV鹤里村[木灵坞]公变,10kV谢家桥村[谢家桥]公变,10kV横路村[廊桥]公变,10kV大溪坞村[大溪中畈]公变,10kV大溪坞村[黄泥岭]公变,10kV横路村[鹤岭口庄坞]公变,10kV谢家桥村[大石桥]公变,临安市昌化公路段,10kV武村村[武村高桥头]公变,10kV寨村村[平公山]公变,10kV鹤里村[茅翁山]公变,10kV横路村[后干]公变,10kV寨村村[石岭头]公变,10kV寨村村[燕塘杨家]公变,太阳镇自来水厂,10kV上太阳村[朱柏坞黄泥坪]公变,10kV上太阳村[里家]公变,10kV寨村村[燕塘沈家]公变,10kV武村村[狮子潭]公变,10kV横路村[横路中学]公变,10kV寨村村[寨村]公变,10kV横路村[陈杆]公变,10kV寨村村[平公山桥头]公变,10kV横路村[鹤岭]公变,10kV桃源溪村[盛村]公变,浙江省临安市太阳萤石矿1#,10kV桃源溪村[桃树岭村]公变,10kV登村村[登村林场]公变,10kV桃源溪村[桃树岭龙台山]公变,临安市太阳镇桃源溪股份经济合作社1#,10kV登村村[马家畈]公变,10kV寨村村[燕塘周家]公变,10kV武村村[武村西川坞]公变,临安市奥远五金工具有限公司,临安市龙皇水电有限公司,10kV桃源溪村[朱相坞饶家]公变,10kV上太阳村[朱柏坞村]公变,临安伟梦工具有限公司,10kV横路村[横路村]公变,10kV桃源溪村[湖田]公变,10kV大溪坞村[寺坑]公变,临安市桃园机械铸造厂,临安铁桥工具有限公司,10kV大溪坞村[七里墙园]公变,10kV横路村[炮台]公变,10kV桃源溪村[岭后]公变,临安太阳纱管厂,临安呈祥工具有限公司,10kV寨村村[敬老院]公变,10kV大溪坞村[七里杨树坞]公变,10kV鹤里村[鹤里樊村]公变,10kV桃源溪村[朱相坞村]公变,10kV上太阳村[上王家]公变,临安市横路乡鹤岭轧石厂,临安市公安局,临安东方滑动轴承有限公司,10kV登村村[千秋关口]公变,10kV上太阳村[上太阳村]公变,10kV鹤里村[朱后]公变,浙江交工集团股份有限公司1#,10kV登村村[牌坊坞口]公变,10kV上太阳村[上太阳企业]公变,临安市立荣五金工具厂,10kV上太阳村[大街]公变,叶承群,10kV大溪坞村[上七里毛竹岭]公变,10kV登村村[张家]公变,10kV大溪坞村[寺坑庵]公变,10kV谢家桥村[章家]公变,10kV横路村[鹤岭云雾]公变,10kV武村村[武村八队]公变,10kV鹤里村[鹤里]公变,10kV横路村[大庙]公变,临安市橡胶厂,10kV寨村村[小学]公变,","scope":"浙江省-杭州市-临安市-於潜镇-谢家行政村-谢家自然村,太阳镇-大溪坞行政村(大溪坞自然村,谢家桥自然村,寺坑自然村,七里自然村),太阳镇-上太阳行政村(上太阳自然村,上王家自然村,盛家自然村,樟山头自然村,下王家自然村,李家自然村,黄泥坪自然村,朱柏坞自然村,木杓溪自然村),太阳镇-桃源溪行政村(龙台山自然村,桃树岭自然村,岭后自然村,饶家自然村,朱相坞自然村,湖田里自然村,盛村自然村,王家坞自然村,榧树下自然村),太阳镇-寨村行政村(寨村自然村,燕塘自然村),太阳镇-鹤里行政村(鹤里自然村,朱后自然村),太阳镇-横路行政村(横路自然村,鹤岭自然村,后干自然村,武村自然村),太阳镇-太阳行政村(下太阳自然村,王家自然村,太阳自然村),太阳镇(谢家桥行政村-谢家桥自然村,武村行政村-武村自然村,登村行政村-登村自然村);於潜镇-浙江交工集团股份有限公司,太阳镇(叶承群,临安市公安局,临安市宁阳照明电器有限公司,杭州临安祝伟石料有限公司,杭州临安诚信电子器材厂,临安市桃园机械铸造厂,杭州临安太阳纱管厂,临安市永锦五金工具有限公司,杭州临安奥远工具有限公司,杭州临安铁桥工具有限公司,杭州市临安区昌化公路段,临安伟梦工具有限公司,杭州临安区太阳自来水厂,临安东方滑动轴承有限公司,临安呈祥工具有限公司,杭州临安立荣五金工具有限公司,临安市橡胶厂,杭州临安龙皇水电有限公司,杭州市临安区太阳镇桃源溪村股份经济合作社,临安太阳萤石矿)一带","startTime":"2020-03-19 09:24:00","stopDate":"2020-03-19 10:25:00","orgNo":"3340160","typeCode":"电网故障停限电","poweroffArea":"35kV太阳变:鹤里V256线2561开关后段","poweroffReason":"高压开关跳闸 原停电结束时间为2020-03-19 11:24:00,为减少客户停电时间,加快工作进度,提前送电,现变更停电结束时间为2020-03-19 10:25:00","powerTime":"2020-03-19 10:17:43","powerComm":"已送电","subsNo":"","lineNo":"","tgNo":"","tgName":null,"infoStatus":"1","orgName":"国网浙江临安市供电公司","typeName":null,"infoStatusName":null,"dateDay":null,"orgNos":null,"nowTime":null,"countyName":null,"streetName":null,"villageName":null,"roadName":null,"communityName":null,"tranName":null,"sdLineName":null,"cityCode":"3340160","cityName":"国网浙江临安市供电公司","provinceCode":null,"stopTime":"2020-03-19 10:25:00","powerType":"全部","powerOffArea":"35kV太阳变:鹤里V256线2561开关后段","powerOffReason":"高压开关跳闸 原停电结束时间为2020-03-19 11:24:00,为减少客户停电时间,加快工作进度,提前送电,现变更停电结束时间为2020-03-19 10:25:00","powerOffId":"2020031931020039"},{"poweroffId":2020031931020031,"sgpoweroffId":null,"subsName":"","lineName":"10kV怡合199线","pubTranName":"建设1号公变,","scope":"浙江省-杭州市-桐庐县-分水镇-百岁坊行政村-建设自然村","startTime":"2020-03-19 09:16:00","stopDate":"2020-03-19 13:20:00","orgNo":"3340150","typeCode":"电网故障停限电","poweroffArea":"35kV合村变:怡合199线建设1号公变配变","poweroffReason":"高压开关跳闸 原停电结束时间为2020-03-19 14:10:00,为减少客户停电时间,加快工作进度,提前送电,现变更停电结束时间为2020-03-19 13:20:00","powerTime":"2020-03-19 13:11:25","powerComm":"已送电","subsNo":"","lineNo":"","tgNo":"","tgName":null,"infoStatus":"1","orgName":"国网浙江桐庐县供电公司","typeName":null,"infoStatusName":null,"dateDay":null,"orgNos":null,"nowTime":null,"countyName":null,"streetName":null,"villageName":null,"roadName":null,"communityName":null,"tranName":null,"sdLineName":null,"cityCode":"3340150","cityName":"国网浙江桐庐县供电公司","provinceCode":null,"stopTime":"2020-03-19 13:20:00","powerType":"全部","powerOffArea":"35kV合村变:怡合199线建设1号公变配变","powerOffReason":"高压开关跳闸 原停电结束时间为2020-03-19 14:10:00,为减少客户停电时间,加快工作进度,提前送电,现变更停电结束时间为2020-03-19 13:20:00","powerOffId":"2020031931020031"},{"poweroffId":2020031931020019,"sgpoweroffId":null,"subsName":"","lineName":"10kV贤德D333线","pubTranName":"查口村8#告坞公变,查口村3#黄家公变,查口村7#桥头坞公变,查口村5号黄泥凸公变,查口村2#徐家公变,查口村9#文昌阁公变,富阳文达机械配件厂,查口村6#太阳坞公变,查口村4#袁家公变,查口村10#西坞里公变,贤德村14号俞家公变,查口村1号俞家公变,","scope":"浙江省-杭州市-富阳区-洞桥镇-查口行政村(石门坞自然村,查口自然村,黄家自然村,俞家自然村,黄泥凸自然村,徐家自然村,袁家自然村,查源自然村,告坞自然村,外石门坞自然村,里石门坞自然村,太阳坞自然村,上车畈自然村,巧坑自然村,深坞里自然村,下徐家自然村),洞桥镇(贤德行政村-俞家自然村,洞桥行政村-范家自然村);洞桥镇-杭州富阳文达机械配件厂","startTime":"2020-03-19 08:30:38","stopDate":"2020-03-19 09:00:38","orgNo":"3340170","typeCode":"电网故障停限电","poweroffArea":"110kV万市变:贤德D333线贤德D3338开关后段","poweroffReason":"高压开关跳闸","powerTime":"2020-03-19 08:43:07","powerComm":"已送电","subsNo":"","lineNo":"","tgNo":"","tgName":null,"infoStatus":"1","orgName":"国网浙江杭州市富阳区供电公司","typeName":null,"infoStatusName":null,"dateDay":null,"orgNos":null,"nowTime":null,"countyName":null,"streetName":null,"villageName":null,"roadName":null,"communityName":null,"tranName":null,"sdLineName":null,"cityCode":"3340170","cityName":"国网浙江杭州市富阳区供电公司","provinceCode":null,"stopTime":"2020-03-19 09:00:38","powerType":"全部","powerOffArea":"110kV万市变:贤德D333线贤德D3338开关后段","powerOffReason":"高压开关跳闸","powerOffId":"2020031931020019"},{"poweroffId":2020031931020018,"sgpoweroffId":null,"subsName":"","lineName":"10kV云峰H872线","pubTranName":"1#,老朋友食品,申加混泥土,申加混凝土,南峰村大竹园公变,浙江交工路桥绕城西复线三标15#基建变,浙江交工路桥绕城西复线三标11#基建变,南峰村新农公变,浙江交工路桥绕城西复线三标10#基建变,浙江杭徽高速公路有限公司杭徽管理处,骄航环保,南头排 6110520042,收费站,10KV电动机,南峰村南头公变,1#,杭州九峰新材料科技有限公司1#专变（6120874675）,浙江交工路桥绕城西复线三标13#基建变,10KV变压器,杭州九峰新材料科技有限公司2#专变（6120874675）,","scope":"浙江省-杭州市-余杭区-中泰街道(南峰行政村-南峰自然村,南湖行政村-南湖自然村);中泰街道(浙江交工路桥建设有限公司,中桥排涝站,杭州钱神商品混凝土有限公司,杭州老朋友食品有限公司,杭州余杭南峰股份经济合作社,杭州骄航环保科技有限公司,光大环保能源(杭州)有限公司,浙江杭徽高速公路有限公司,杭州余杭农林园林绿化建设有限公司)","startTime":"2020-03-19 08:30:00","stopDate":"2020-03-19 11:24:00","orgNo":"3340140","typeCode":"电网故障停限电","poweroffArea":"110kV中泰变:云峰H872线汪家埠分线0+1#杆开关后段","poweroffReason":"高压开关跳闸 原停电结束时间为2020-03-19 10:24:00,因现场情况复杂原因,现变更停电结束时间为2020-03-19 11:24:00","powerTime":"2020-03-19 10:53:00","powerComm":"已送电","subsNo":"","lineNo":"","tgNo":"","tgName":null,"infoStatus":"1","orgName":"国网浙江杭州市余杭区供电有限公司","typeName":null,"infoStatusName":null,"dateDay":null,"orgNos":null,"nowTime":null,"countyName":null,"streetName":null,"villageName":null,"roadName":null,"communityName":null,"tranName":null,"sdLineName":null,"cityCode":"3340140","cityName":"国网浙江杭州市余杭区供电有限公司","provinceCode":null,"stopTime":"2020-03-19 11:24:00","powerType":"全部","powerOffArea":"110kV中泰变:云峰H872线汪家埠分线0+1#杆开关后段","powerOffReason":"高压开关跳闸 原停电结束时间为2020-03-19 10:24:00,因现场情况复杂原因,现变更停电结束时间为2020-03-19 11:24:00","powerOffId":"2020031931020018"},{"poweroffId":2020031931020011,"sgpoweroffId":null,"subsName":"","lineName":"10kV邱东H761线","pubTranName":"杭州未来科技城建设有限公司,1#变压器,1#变压器,中国铁塔股份有限公司杭州市分公司,1#变压器,水建中心2号基建,五常基督教会,1#变压器,","scope":"浙江省-杭州市-余杭区-五常街道-文一社区(杭州市余杭区五常基督教堂,中国铁塔股份有限公司杭州市分公司,杭州市市政工程集团有限公司,中国电信股份有限公司浙江网络科技分公司,浙江鸿程计算机系统有限公司),仓前街道-朱庙行政村-杭州未来科技城建设有限公司,五常街道-杭州三阳建设工程有限公司","startTime":"2020-03-19 07:13:02","stopDate":"2020-03-19 09:13:02","orgNo":"3340140","typeCode":"电网故障停限电","poweroffArea":"110kV五常变:邱东H761线-豪立实业分线开关后段","poweroffReason":"高压开关跳闸 原停电结束时间为2020-03-19 10:13:02,为减少客户停电时间,加快工作进度,提前送电,现变更停电结束时间为2020-03-19 09:13:02","powerTime":"2020-03-19 08:48:00","powerComm":"已送电","subsNo":"","lineNo":"","tgNo":"","tgName":null,"infoStatus":"1","orgName":"国网浙江杭州市余杭区供电有限公司","typeName":null,"infoStatusName":null,"dateDay":null,"orgNos":null,"nowTime":null,"countyName":null,"streetName":null,"villageName":null,"roadName":null,"communityName":null,"tranName":null,"sdLineName":null,"cityCode":"3340140","cityName":"国网浙江杭州市余杭区供电有限公司","provinceCode":null,"stopTime":"2020-03-19 09:13:02","powerType":"全部","powerOffArea":"110kV五常变:邱东H761线-豪立实业分线开关后段","powerOffReason":"高压开关跳闸 原停电结束时间为2020-03-19 10:13:02,为减少客户停电时间,加快工作进度,提前送电,现变更停电结束时间为2020-03-19 09:13:02","powerOffId":"2020031931020011"},{"poweroffId":2020031931020003,"sgpoweroffId":null,"subsName":"","lineName":"10kV双镇H542线","pubTranName":"双溪村狮子山公变,","scope":"浙江省-杭州市-余杭区-径山镇-双溪行政村-双溪村","startTime":"2020-03-19 04:44:01","stopDate":"2020-03-19 05:44:01","orgNo":"3340140","typeCode":"电网故障停限电","poweroffArea":"110kV潘板变:双镇H542线-双溪村狮子山公变后段","poweroffReason":"高压开关跳闸","powerTime":"2020-03-19 05:18:39","powerComm":"已送电","subsNo":"","lineNo":"","tgNo":"","tgName":null,"infoStatus":"1","orgName":"国网浙江杭州市余杭区供电有限公司","typeName":null,"infoStatusName":null,"dateDay":null,"orgNos":null,"nowTime":null,"countyName":null,"streetName":null,"villageName":null,"roadName":null,"communityName":null,"tranName":null,"sdLineName":null,"cityCode":"3340140","cityName":"国网浙江杭州市余杭区供电有限公司","provinceCode":null,"stopTime":"2020-03-19 05:44:01","powerType":"全部","powerOffArea":"110kV潘板变:双镇H542线-双溪村狮子山公变后段","powerOffReason":"高压开关跳闸","powerOffId":"2020031931020003"},{"poweroffId":2020031931020002,"sgpoweroffId":null,"subsName":"","lineName":"10kV农校H413线","pubTranName":"良渚村莫家里公变,良渚村东木桥公变,良渚村冯家桥2号公变,荣翔机械,良渚村冯家桥公变,良渚村西木桥2号公变,路灯变,良渚村张家桥公变,树富塑料厂,亿丰印刷,良渚村西木桥1号公变,中交第二航务工程局有限公司余杭分公司,良渚村金家门公变,良渚村张家桥2号公变,良渚村冯家桥3号公变,良渚村沈家门公变,杭州余杭区良渚机械铸造厂,","scope":"浙江省-杭州市-余杭区-良渚街道-大陆行政村-冯家桥自然村,良渚街道-良渚行政村(良渚自然村,疏港公路);浙江省-杭州市-余杭区-良渚街道-杜甫行政村-中交第二航务工程局有限公司余杭分公司,良渚街道-良渚行政村(杭州博强塑业有限公司,杭州亿丰印务有限公司,杭州余杭区良渚赛翔五金加工厂,杭州余杭区良渚机械铸造厂)","startTime":"2020-03-19 02:06:34","stopDate":"2020-03-19 05:30:34","orgNo":"3340140","typeCode":"电网故障停限电","poweroffArea":"35kV良渚变:农校H413线-莫家里9#杆开关后段","poweroffReason":"高压开关跳闸","powerTime":"2020-03-19 05:01:07","powerComm":"已送电","subsNo":"","lineNo":"","tgNo":"","tgName":null,"infoStatus":"1","orgName":"国网浙江杭州市余杭区供电有限公司","typeName":null,"infoStatusName":null,"dateDay":null,"orgNos":null,"nowTime":null,"countyName":null,"streetName":null,"villageName":null,"roadName":null,"communityName":null,"tranName":null,"sdLineName":null,"cityCode":"3340140","cityName":"国网浙江杭州市余杭区供电有限公司","provinceCode":null,"stopTime":"2020-03-19 05:30:34","powerType":"全部","powerOffArea":"35kV良渚变:农校H413线-莫家里9#杆开关后段","powerOffReason":"高压开关跳闸","powerOffId":"2020031931020002"}],"pageModel":{"pageNow":471,"totalCount":17789,"totalPage":1779,"tableRows":0,"pageCount":10,"beginCount":4700},"isExperi":"1"}