{"message":"","today":"2020-06-15","seleList":[{"poweroffId":2020031631020053,"sgpoweroffId":null,"subsName":"","lineName":"10kV中丰9623线","pubTranName":"逸星一,逸星二,","scope":"浙江省-杭州市-下城区-石桥街道-华丰社区-华丰路,康华路,田逸之星公寓","startTime":"2020-03-16 09:34:00","stopDate":"2020-03-16 10:39:00","orgNo":"3340101","typeCode":"电网故障停限电","poweroffArea":"110kV华丰变:中丰9623线逸星二配变","poweroffReason":"高压开关跳闸 原停电结束时间为2020-03-16 16:34:00,为减少客户停电时间,加快工作进度,提前送电,现变更停电结束时间为2020-03-16 10:39:00","powerTime":"2020-03-16 09:56:50","powerComm":"已送电","subsNo":"","lineNo":"","tgNo":"","tgName":null,"infoStatus":"1","orgName":"浙江杭州电力客户服务中心","typeName":null,"infoStatusName":null,"dateDay":null,"orgNos":null,"nowTime":null,"countyName":null,"streetName":null,"villageName":null,"roadName":null,"communityName":null,"tranName":null,"sdLineName":null,"cityCode":"3340101","cityName":"浙江杭州电力客户服务中心","provinceCode":null,"stopTime":"2020-03-16 10:39:00","powerType":"全部","powerOffArea":"110kV华丰变:中丰9623线逸星二配变","powerOffReason":"高压开关跳闸 原停电结束时间为2020-03-16 16:34:00,为减少客户停电时间,加快工作进度,提前送电,现变更停电结束时间为2020-03-16 10:39:00","powerOffId":"2020031631020053"},{"poweroffId":2020031631020047,"sgpoweroffId":null,"subsName":"","lineName":"10kV胜利Y782线","pubTranName":"建德市悦钢铸造厂2#变,1#变压器,配电变压器,谢田村新村台区,杭州国茂生态农业科技开发有限公司1#,谢田村谢田台区,浙江军祥矿业有限公司2#,建德市钦堂乡良潮石材厂,配电变压器,建德市佳佳塑业有限公司3#专变,杭州国茂生态农业科技开发有限公司2#,杭州石祥建材有限公司2#,建德市青峰山泉有限公司,建德市悦钢铸造厂1#变,浙江军祥矿业有限公司3#,谢田村公园台区,浙江军祥矿业有限公司1#,谢田村中村台区,建德市于春石粉厂,建德市钦堂工艺石材厂,谢田村李家山台区,4#变,配水6标(凉坑砂石场),千岛湖配水六标(凉坑坞)2#,千岛湖配水六标(谢田支洞)2#,3#变,2#,建德市佳佳塑业有限公司,谢田村上村台区,谢田村上岭山台区,3#,杭州石祥建材有限公司,建德合拓矿业有限公司,1#,","scope":"浙江省-杭州市-建德市-钦堂乡-谢田行政村(上岭山自然村,后奖自然村,李家山自然村,中村自然村,谢田自然村,龙园新村自然村,上村自然村);钦堂乡(建德市钦堂工艺石材厂,建德市欣瑞企业管理有限公司,建德市于春石粉厂,中铁三局集团桥隧工程有限公司,浙江钦堂钙业股份有限公司,建德市悦钢铸造厂,建德市佳佳塑业有限公司,浙江军祥矿业有限公司,建德合拓矿业有限公司,建德市钦堂乡良潮石材厂,杭州国茂生态农业科技开发有限公司)一带用户","startTime":"2020-03-16 09:10:00","stopDate":"2020-03-16 10:30:00","orgNo":"3340180","typeCode":"电网故障停限电","poweroffArea":"110kV钦堂变:胜利Y782线胜利Y7822开关后段","poweroffReason":"高压开关跳闸 原停电结束时间为2020-03-16 12:00:00,为减少客户停电时间,加快工作进度,提前送电,现变更停电结束时间为2020-03-16 10:30:00","powerTime":"2020-03-16 10:08:00","powerComm":"已送电","subsNo":"","lineNo":"","tgNo":"","tgName":null,"infoStatus":"1","orgName":"国网浙江建德市供电有限公司","typeName":null,"infoStatusName":null,"dateDay":null,"orgNos":null,"nowTime":null,"countyName":null,"streetName":null,"villageName":null,"roadName":null,"communityName":null,"tranName":null,"sdLineName":null,"cityCode":"3340180","cityName":"国网浙江建德市供电有限公司","provinceCode":null,"stopTime":"2020-03-16 10:30:00","powerType":"全部","powerOffArea":"110kV钦堂变:胜利Y782线胜利Y7822开关后段","powerOffReason":"高压开关跳闸 原停电结束时间为2020-03-16 12:00:00,为减少客户停电时间,加快工作进度,提前送电,现变更停电结束时间为2020-03-16 10:30:00","powerOffId":"2020031631020047"},{"poweroffId":2020031631020040,"sgpoweroffId":null,"subsName":"","lineName":"10kV秋源R188线","pubTranName":"临岐隐将村后山公变,","scope":"浙江省-杭州市-淳安县-屏门乡-隐将行政村(隐将村,隐将自然村)","startTime":"2020-03-27 09:30:00","stopDate":"2020-03-27 13:30:00","orgNo":"3340190","typeCode":"计划停电","poweroffArea":"35kV临岐变:秋源R188线-后山配变跌落式熔断器后段","poweroffReason":"后山支线03号杆后山配变增容","powerTime":"2020-03-27 13:03:07","powerComm":"已送电","subsNo":"","lineNo":"","tgNo":"","tgName":null,"infoStatus":"1","orgName":"国网浙江淳安县供电有限公司","typeName":null,"infoStatusName":null,"dateDay":null,"orgNos":null,"nowTime":null,"countyName":null,"streetName":null,"villageName":null,"roadName":null,"communityName":null,"tranName":null,"sdLineName":null,"cityCode":"3340190","cityName":"国网浙江淳安县供电有限公司","provinceCode":null,"stopTime":"2020-03-27 13:30:00","powerType":"全部","powerOffArea":"35kV临岐变:秋源R188线-后山配变跌落式熔断器后段","powerOffReason":"后山支线03号杆后山配变增容","powerOffId":"2020031631020040"},{"poweroffId":2020031631020039,"sgpoweroffId":null,"subsName":"","lineName":"10kV潭头R193线","pubTranName":"卢家庄村孟坑坞配变,","scope":"浙江省-杭州市-淳安县-文昌镇-卢家庄行政村-孟坑坞自然村","startTime":"2020-03-26 09:30:00","stopDate":"2020-03-26 13:30:00","orgNo":"3340190","typeCode":"计划停电","poweroffArea":"35kV潭头变:潭头R193线-孟坑坞支线0号杆跌落式熔断器后段","poweroffReason":"潭头R193线孟坑坞支线20号杆缺陷处理","powerTime":"2020-03-26 13:06:25","powerComm":"已送电","subsNo":"","lineNo":"","tgNo":"","tgName":null,"infoStatus":"1","orgName":"国网浙江淳安县供电有限公司","typeName":null,"infoStatusName":null,"dateDay":null,"orgNos":null,"nowTime":null,"countyName":null,"streetName":null,"villageName":null,"roadName":null,"communityName":null,"tranName":null,"sdLineName":null,"cityCode":"3340190","cityName":"国网浙江淳安县供电有限公司","provinceCode":null,"stopTime":"2020-03-26 13:30:00","powerType":"全部","powerOffArea":"35kV潭头变:潭头R193线-孟坑坞支线0号杆跌落式熔断器后段","powerOffReason":"潭头R193线孟坑坞支线20号杆缺陷处理","powerOffId":"2020031631020039"},{"poweroffId":2020031631020038,"sgpoweroffId":null,"subsName":"","lineName":"10kV屏门R182线","pubTranName":"临岐金陵村驮坪里公变,","scope":"浙江省-杭州市-淳安县-屏门乡-金陵行政村(金陵自然村,驮坪里自然村,双坪自然村)","startTime":"2020-03-24 09:00:00","stopDate":"2020-03-24 13:00:00","orgNo":"3340190","typeCode":"计划停电","poweroffArea":"35kV临岐变:屏门R182线-驮坪里配变跌落式熔断器后段","poweroffReason":"双坪支线驮坪里配变增容","powerTime":"2020-03-24 12:52:59","powerComm":"已送电","subsNo":"","lineNo":"","tgNo":"","tgName":null,"infoStatus":"1","orgName":"国网浙江淳安县供电有限公司","typeName":null,"infoStatusName":null,"dateDay":null,"orgNos":null,"nowTime":null,"countyName":null,"streetName":null,"villageName":null,"roadName":null,"communityName":null,"tranName":null,"sdLineName":null,"cityCode":"3340190","cityName":"国网浙江淳安县供电有限公司","provinceCode":null,"stopTime":"2020-03-24 13:00:00","powerType":"全部","powerOffArea":"35kV临岐变:屏门R182线-驮坪里配变跌落式熔断器后段","powerOffReason":"双坪支线驮坪里配变增容","powerOffId":"2020031631020038"},{"poweroffId":2020031631020037,"sgpoweroffId":null,"subsName":"","lineName":"10kV屏门R182线","pubTranName":"临岐金陵村水竹坪公变,","scope":"浙江省-杭州市-淳安县-屏门乡-金陵行政村-水竹坪自然村","startTime":"2020-03-24 08:30:00","stopDate":"2020-03-24 12:30:00","orgNo":"3340190","typeCode":"计划停电","poweroffArea":"35kV临岐变:屏门R182线-水竹坪配变跌落式熔断器后段","poweroffReason":"双坪支线水竹坪配变增容","powerTime":"2020-03-24 12:25:08","powerComm":"已送电","subsNo":"","lineNo":"","tgNo":"","tgName":null,"infoStatus":"1","orgName":"国网浙江淳安县供电有限公司","typeName":null,"infoStatusName":null,"dateDay":null,"orgNos":null,"nowTime":null,"countyName":null,"streetName":null,"villageName":null,"roadName":null,"communityName":null,"tranName":null,"sdLineName":null,"cityCode":"3340190","cityName":"国网浙江淳安县供电有限公司","provinceCode":null,"stopTime":"2020-03-24 12:30:00","powerType":"全部","powerOffArea":"35kV临岐变:屏门R182线-水竹坪配变跌落式熔断器后段","powerOffReason":"双坪支线水竹坪配变增容","powerOffId":"2020031631020037"},{"poweroffId":2020031631020036,"sgpoweroffId":null,"subsName":"","lineName":"10kV文昌R194线","pubTranName":"小酉坞村三蓬坞配变,","scope":"浙江省-杭州市-淳安县-文昌镇-小酉坞行政村(小酉坞村,三蓬坞自然村,黄尖自然村,小酉坞自然村)","startTime":"2020-03-23 09:30:00","stopDate":"2020-03-23 13:30:00","orgNo":"3340190","typeCode":"计划停电","poweroffArea":"35kV潭头变:文昌R194线-三蓬坞配变跌落式熔断器后段","poweroffReason":"小酉坞支线三蓬坞配变增容","powerTime":"2020-03-23 12:55:29","powerComm":"已送电","subsNo":"","lineNo":"","tgNo":"","tgName":null,"infoStatus":"1","orgName":"国网浙江淳安县供电有限公司","typeName":null,"infoStatusName":null,"dateDay":null,"orgNos":null,"nowTime":null,"countyName":null,"streetName":null,"villageName":null,"roadName":null,"communityName":null,"tranName":null,"sdLineName":null,"cityCode":"3340190","cityName":"国网浙江淳安县供电有限公司","provinceCode":null,"stopTime":"2020-03-23 13:30:00","powerType":"全部","powerOffArea":"35kV潭头变:文昌R194线-三蓬坞配变跌落式熔断器后段","powerOffReason":"小酉坞支线三蓬坞配变增容","powerOffId":"2020031631020036"},{"poweroffId":2020031631020032,"sgpoweroffId":null,"subsName":"","lineName":"10kV珠山D523线","pubTranName":"大源镇5#东升新区公变,","scope":"浙江省-杭州市-富阳区-大源镇-亭山行政村-东升自然村","startTime":"2020-03-16 08:53:00","stopDate":"2020-03-16 10:53:00","orgNo":"3340170","typeCode":"电网故障停限电","poweroffArea":"110kV大源变:珠山D523线大源镇5#东升新区公变配变","poweroffReason":"高压开关跳闸","powerTime":"2020-03-16 10:23:17","powerComm":"已送电","subsNo":"","lineNo":"","tgNo":"","tgName":null,"infoStatus":"1","orgName":"国网浙江杭州市富阳区供电公司","typeName":null,"infoStatusName":null,"dateDay":null,"orgNos":null,"nowTime":null,"countyName":null,"streetName":null,"villageName":null,"roadName":null,"communityName":null,"tranName":null,"sdLineName":null,"cityCode":"3340170","cityName":"国网浙江杭州市富阳区供电公司","provinceCode":null,"stopTime":"2020-03-16 10:53:00","powerType":"全部","powerOffArea":"110kV大源变:珠山D523线大源镇5#东升新区公变配变","powerOffReason":"高压开关跳闸","powerOffId":"2020031631020032"},{"poweroffId":2020031631020014,"sgpoweroffId":null,"subsName":"","lineName":"10kV潘塘H435线","pubTranName":"西塘河村杨家门1号公变,西塘河村杨家门2号公变,西塘河村杨家门4号公变,西塘河村杨家门3号公变,收费站,","scope":"浙江省-杭州市-余杭区-良渚街道-杜甫行政村-疏港公路,良渚街道-西塘河行政村(潘塘自然村,104国道);良渚街道-杭州市余杭区收费管理所","startTime":"2020-03-16 07:59:00","stopDate":"2020-03-16 09:59:00","orgNo":"3340140","typeCode":"电网故障停限电","poweroffArea":"110kV勾庄变:潘塘H435线峰美开关站潘塘H435线杨家门分支箱分线后段","poweroffReason":"高压开关跳闸","powerTime":"2020-03-16 09:39:49","powerComm":"已送电","subsNo":"","lineNo":"","tgNo":"","tgName":null,"infoStatus":"1","orgName":"国网浙江杭州市余杭区供电有限公司","typeName":null,"infoStatusName":null,"dateDay":null,"orgNos":null,"nowTime":null,"countyName":null,"streetName":null,"villageName":null,"roadName":null,"communityName":null,"tranName":null,"sdLineName":null,"cityCode":"3340140","cityName":"国网浙江杭州市余杭区供电有限公司","provinceCode":null,"stopTime":"2020-03-16 09:59:00","powerType":"全部","powerOffArea":"110kV勾庄变:潘塘H435线峰美开关站潘塘H435线杨家门分支箱分线后段","powerOffReason":"高压开关跳闸","powerOffId":"2020031631020014"},{"poweroffId":2020031631020008,"sgpoweroffId":null,"subsName":"","lineName":"10kV澄源Y443线","pubTranName":"绿荷塘村上仓台区,杭州绿荷塘古楠木森林公园有限公司,建德市童家乡林场,绿荷塘一级电站专变,绿荷塘村杨柳塘台区,绿荷塘村洪家山台区,绿荷塘村赵家台区,","scope":"浙江省-杭州市-建德市-寿昌镇-童家行政村-童家自然村,寿昌镇-绿荷塘行政村 赵家自然村,上仓自然村,洪家山自然村,杨柳塘自然村；杭州绿荷塘古楠木森林公园有限公司,建德市童家乡林场,建德市童家乡绿荷塘水库电站一带用户","startTime":"2020-03-16 07:28:11","stopDate":"2020-03-16 09:00:00","orgNo":"3340180","typeCode":"电网故障停限电","poweroffArea":"110kV家蓬变:澄源Y443线上仓支线0#杆真空开关后段","poweroffReason":"高压开关跳闸 原停电结束时间为2020-03-16 10:30:00,为减少客户停电时间,加快工作进度,提前送电,现变更停电结束时间为2020-03-16 09:00:00","powerTime":"2020-03-16 08:19:29","powerComm":"已送电","subsNo":"","lineNo":"","tgNo":"","tgName":null,"infoStatus":"1","orgName":"国网浙江建德市供电有限公司","typeName":null,"infoStatusName":null,"dateDay":null,"orgNos":null,"nowTime":null,"countyName":null,"streetName":null,"villageName":null,"roadName":null,"communityName":null,"tranName":null,"sdLineName":null,"cityCode":"3340180","cityName":"国网浙江建德市供电有限公司","provinceCode":null,"stopTime":"2020-03-16 09:00:00","powerType":"全部","powerOffArea":"110kV家蓬变:澄源Y443线上仓支线0#杆真空开关后段","powerOffReason":"高压开关跳闸 原停电结束时间为2020-03-16 10:30:00,为减少客户停电时间,加快工作进度,提前送电,现变更停电结束时间为2020-03-16 09:00:00","powerOffId":"2020031631020008"}],"pageModel":{"pageNow":477,"totalCount":17789,"totalPage":1779,"tableRows":0,"pageCount":10,"beginCount":4760},"isExperi":"1"}