{"message":"","today":"2020-06-15","seleList":[{"poweroffId":2020031531020055,"sgpoweroffId":null,"subsName":"","lineName":"10kV严州Y303线","pubTranName":"龙溪村高湾台区,","scope":"浙江省-杭州市-建德市 杨村桥镇-龙溪桥行政村-高湾自然村,梅城镇-龙溪行政村龙溪豪庭133号-高湾自然村一带用户","startTime":"2020-03-15 13:05:00","stopDate":"2020-03-15 14:30:00","orgNo":"3340180","typeCode":"电网故障停限电","poweroffArea":"110kV梅城变:严州Y303线-龙溪村高湾台区后段","poweroffReason":"(低压停电信息)低压开关跳闸 变更停电设备范围","powerTime":"2020-03-15 14:00:29","powerComm":"已送电","subsNo":"","lineNo":"","tgNo":"","tgName":null,"infoStatus":"1","orgName":"国网浙江建德市供电有限公司","typeName":null,"infoStatusName":null,"dateDay":null,"orgNos":null,"nowTime":null,"countyName":null,"streetName":null,"villageName":null,"roadName":null,"communityName":null,"tranName":null,"sdLineName":null,"cityCode":"3340180","cityName":"国网浙江建德市供电有限公司","provinceCode":null,"stopTime":"2020-03-15 14:30:00","powerType":"全部","powerOffArea":"110kV梅城变:严州Y303线-龙溪村高湾台区后段","powerOffReason":"(低压停电信息)低压开关跳闸 变更停电设备范围","powerOffId":"2020031531020055"},{"poweroffId":2020031531020045,"sgpoweroffId":null,"subsName":"","lineName":"10kV西良H407线","pubTranName":"荀山村马家角公变,良渚阿祖农庄变,荀山村俞家斗公变,荀山村黄墩坝公变,","scope":"浙江省-杭州市-余杭区-仁和街道-獐山社区-东西大道,良渚街道-荀山行政村(马家角自然村,杨自然村,荀山自然村);良渚街道-杭州良渚野芦湾农业科技开发有限公司","startTime":"2020-03-15 11:26:18","stopDate":"2020-03-15 13:26:18","orgNo":"3340140","typeCode":"电网故障停限电","poweroffArea":"35kV良渚变:西良H407线西良H407线黄墩坝分线开关后段","poweroffReason":"高压开关跳闸","powerTime":"2020-03-15 12:34:00","powerComm":"已送电","subsNo":"","lineNo":"","tgNo":"","tgName":null,"infoStatus":"1","orgName":"国网浙江杭州市余杭区供电有限公司","typeName":null,"infoStatusName":null,"dateDay":null,"orgNos":null,"nowTime":null,"countyName":null,"streetName":null,"villageName":null,"roadName":null,"communityName":null,"tranName":null,"sdLineName":null,"cityCode":"3340140","cityName":"国网浙江杭州市余杭区供电有限公司","provinceCode":null,"stopTime":"2020-03-15 13:26:18","powerType":"全部","powerOffArea":"35kV良渚变:西良H407线西良H407线黄墩坝分线开关后段","powerOffReason":"高压开关跳闸","powerOffId":"2020031531020045"},{"poweroffId":2020031531020032,"sgpoweroffId":null,"subsName":"","lineName":"10kV南市H740线","pubTranName":"交通能源,闲林镇人民政府,","scope":"浙江省-杭州市-余杭区-闲林街道(杭州余杭杭石交通能源有限责任公司,杭州市余杭区人民政府闲林街道办事处)","startTime":"2020-03-15 09:18:59","stopDate":"2020-03-15 11:18:59","orgNo":"3340140","typeCode":"电网故障停限电","poweroffArea":"110kV闲林变:南市H740线和睦2#分支箱后段","poweroffReason":"高压开关跳闸","powerTime":"2020-03-15 10:47:00","powerComm":"已送电","subsNo":"","lineNo":"","tgNo":"","tgName":null,"infoStatus":"1","orgName":"国网浙江杭州市余杭区供电有限公司","typeName":null,"infoStatusName":null,"dateDay":null,"orgNos":null,"nowTime":null,"countyName":null,"streetName":null,"villageName":null,"roadName":null,"communityName":null,"tranName":null,"sdLineName":null,"cityCode":"3340140","cityName":"国网浙江杭州市余杭区供电有限公司","provinceCode":null,"stopTime":"2020-03-15 11:18:59","powerType":"全部","powerOffArea":"110kV闲林变:南市H740线和睦2#分支箱后段","powerOffReason":"高压开关跳闸","powerOffId":"2020031531020032"},{"poweroffId":2020031531020016,"sgpoweroffId":null,"subsName":"","lineName":"10kV梧村T244线","pubTranName":"西庄坞村1号公变,","scope":"浙江省-杭州市-桐庐县-江南镇-彰坞行政村(贤茂里自然村,彰坞自然村,西庄坞自然村)","startTime":"2020-03-15 07:51:51","stopDate":"2020-03-15 09:51:51","orgNo":"3340150","typeCode":"电网故障停限电","poweroffArea":"110kV石阜变:梧村T244线-西庄坞村1号公变后段","poweroffReason":"(低压停电信息)低压开关跳闸","powerTime":"2020-03-15 09:45:12","powerComm":"已送电","subsNo":"","lineNo":"","tgNo":"","tgName":null,"infoStatus":"1","orgName":"国网浙江桐庐县供电公司","typeName":null,"infoStatusName":null,"dateDay":null,"orgNos":null,"nowTime":null,"countyName":null,"streetName":null,"villageName":null,"roadName":null,"communityName":null,"tranName":null,"sdLineName":null,"cityCode":"3340150","cityName":"国网浙江桐庐县供电公司","provinceCode":null,"stopTime":"2020-03-15 09:51:51","powerType":"全部","powerOffArea":"110kV石阜变:梧村T244线-西庄坞村1号公变后段","powerOffReason":"(低压停电信息)低压开关跳闸","powerOffId":"2020031531020016"},{"poweroffId":2020031531020012,"sgpoweroffId":null,"subsName":"","lineName":"10kV东皇Y182线","pubTranName":"3#,寿昌集镇东皇畈公变,建德市应佳电器工具有限公司,建德市威尔塑化厂(普通合伙),建德市广鑫塑业有限公司1#,杭州宝德银业有限公司,寿昌铁路桥旁1#,建德市三业金属制造有限公司,建德市精制米厂,建德市华海化工有限公司,杭州晶星有机玻璃有限公司2#,建德市广鑫塑业有限公司2#,寿昌集镇幸福嘉苑2号公变,杭州耕耘电子有限公司,建德市金龙钢结构厂,建德市宇浩电力工程有限公司,建德市鹏兴液化气有限公司,杭州晶星有机玻璃有限公司1#,建德千岛湖通用机场有限公司,建德市上马塑料厂,4#,桂花村横峰路台区,杭州金曦工具有限公司,寿昌集镇桥东路台区,","scope":"浙江省-杭州市-建德市-寿昌镇-桂花行政村(下桂自然村,上桂自然村),寿昌镇-城中行政村(桥东路,青池垅自然村),寿昌镇-东昌社区(桥东路,东昌路,东皇畈集聚区,二桥路,东昌北路,教育东路),寿昌镇(横山社区-横山路,东门行政村-邓家坞自然村);建德经济开发区-建德市秋林阁酒店管理有限公司,寿昌镇(建德市新安城市照明管理有限公司,建德千岛湖通用机场有限公司,建德市应佳电器工具有限公司,建德市君悦家纺有限公司,建德市华海化工有限公司,杭州宝德银业有限公司,杭州金曦工具有限公司,建德市奕铭家纺有限公司,杭州晶星有机玻璃有限公司,建德市金龙钢结构厂,杭州耕耘电子有限公司,建德市鹏兴液化气有限公司,建德市广鑫塑业有限公司,建德市三业金属制造有限公司,建德市精制米厂)一带用户。","startTime":"2020-03-15 07:10:00","stopDate":"2020-03-15 09:30:00","orgNo":"3340180","typeCode":"电网故障停限电","poweroffArea":"35kV河南里变:东皇Y182线豪童Y1821开关后段","poweroffReason":"高压开关跳闸","powerTime":"2020-03-15 08:32:00","powerComm":"已送电","subsNo":"","lineNo":"","tgNo":"","tgName":null,"infoStatus":"1","orgName":"国网浙江建德市供电有限公司","typeName":null,"infoStatusName":null,"dateDay":null,"orgNos":null,"nowTime":null,"countyName":null,"streetName":null,"villageName":null,"roadName":null,"communityName":null,"tranName":null,"sdLineName":null,"cityCode":"3340180","cityName":"国网浙江建德市供电有限公司","provinceCode":null,"stopTime":"2020-03-15 09:30:00","powerType":"全部","powerOffArea":"35kV河南里变:东皇Y182线豪童Y1821开关后段","powerOffReason":"高压开关跳闸","powerOffId":"2020031531020012"},{"poweroffId":2020031531020011,"sgpoweroffId":null,"subsName":"","lineName":"10kV屏山Y445线","pubTranName":"余洪村屋基里台区,红路村后大路台区,三岩村洪家垅台区,1#,红路村下毛家台区,三岩村岩山脚台区,三岩村汪家蓬台区,桂花村下桂台区,余洪村山岗背台区,建德市中鑫建材有限公司专变,锦弘环保1#专变,余洪村石口台区,三岩村上岩台区,建德市福利纸品厂,余洪村余洪台区,3#临变,三岩村牛石斗台区,2#临变,4#临变,万松变第三路电源,建德市寿昌镇农村五保供养服务中心,杭州锦弘环保墙体材料有限公司1#电机,1#,红路村毛家畈台区,余洪村洪畈台区,三岩村三岩台区,三岩村富岑塘台区,桂花村上桂台区,余洪村华光台区,1#临变,建德市万兴机械有限公司,建德市新鑫工艺品厂,建德市盛航建材有限公司,锦弘环保2#专变,桂花村樟山台区,余洪村上坞口台区,红路村江家垅台区,1#,红路村汪家台区,三岩村岩下台区,红路村新柳下台区,","scope":"浙江省-杭州市-建德市-寿昌镇-山峰行政村-刘家自然村,寿昌镇-三岩行政村(牛石斗自然村,岩山脚自然村,上岩山自然村,上岩自然村,下岩下自然村,新村自然村,富岑塘自然村,洪家垅自然村,黄家蓬自然村,三岩自然村,下岩山自然村,岩下自然村),寿昌镇-桂花行政村(上桂自然村,下桂自然村),寿昌镇-红路行政村(后大路自然村,毛家畈自然村,汪家自然村,下毛家自然村,江家垅自然村,新柳下自然村),寿昌镇-余洪行政村(洪畈自然村,余洪自然村,协余自然村,石口自然村,枣园自然村,前村畈自然村,山岗背自然村);寿昌镇(杭州锦弘环保墙体材料有限公司,浙江钜元建筑科技有限公司,杭州盛建置业有限公司,建德千岛湖通用机场有限公司,建德市锦鑫包装有限公司,建德市鑫隆水泥有限公司,建德市新鑫工艺品厂,建德市万兴机械有限公司)一带用户。","startTime":"2020-03-15 07:13:00","stopDate":"2020-03-15 09:30:00","orgNo":"3340180","typeCode":"电网故障停限电","poweroffArea":"110kV家蓬变:屏山Y445线屏山Y4451开关后段","poweroffReason":"高压开关跳闸","powerTime":"2020-03-15 08:31:00","powerComm":"已送电","subsNo":"","lineNo":"","tgNo":"","tgName":null,"infoStatus":"1","orgName":"国网浙江建德市供电有限公司","typeName":null,"infoStatusName":null,"dateDay":null,"orgNos":null,"nowTime":null,"countyName":null,"streetName":null,"villageName":null,"roadName":null,"communityName":null,"tranName":null,"sdLineName":null,"cityCode":"3340180","cityName":"国网浙江建德市供电有限公司","provinceCode":null,"stopTime":"2020-03-15 09:30:00","powerType":"全部","powerOffArea":"110kV家蓬变:屏山Y445线屏山Y4451开关后段","powerOffReason":"高压开关跳闸","powerOffId":"2020031531020011"},{"poweroffId":2020031531020002,"sgpoweroffId":null,"subsName":"","lineName":"10kV桕蓬9134线","pubTranName":"九乔保障房三区61208354624#变,九乔保障房二期三区61208392004#变,城建三角安置房三区1#基建变,城建三角安置房三区2#基建变,九乔保障三区61208354532#变压器,城建三角安置房三区3#基建变,九乔保障房三区61208354471#变,九乔保障房三区61208354573#变,九乔保障房二期三区61208389923#变压器,","scope":"浙江省-杭州市-余杭区-乔司街道-胜稼行政村-杭州余杭九乔保障房建设有限公司,乔司街道-三角行政村(杭州余杭九乔保障房建设有限公司,淳安水利水电建设有限公司)","startTime":"2020-03-15 00:11:03","stopDate":"2020-03-15 01:11:03","orgNo":"3340140","typeCode":"电网故障停限电","poweroffArea":"110kV蚕桑变:桕蓬9134线-三角安置房四区分线11#杆开关后段","poweroffReason":"高压开关跳闸","powerTime":"2020-03-15 00:41:14","powerComm":"已送电","subsNo":"","lineNo":"","tgNo":"","tgName":null,"infoStatus":"1","orgName":"国网浙江杭州市余杭区供电有限公司","typeName":null,"infoStatusName":null,"dateDay":null,"orgNos":null,"nowTime":null,"countyName":null,"streetName":null,"villageName":null,"roadName":null,"communityName":null,"tranName":null,"sdLineName":null,"cityCode":"3340140","cityName":"国网浙江杭州市余杭区供电有限公司","provinceCode":null,"stopTime":"2020-03-15 01:11:03","powerType":"全部","powerOffArea":"110kV蚕桑变:桕蓬9134线-三角安置房四区分线11#杆开关后段","powerOffReason":"高压开关跳闸","powerOffId":"2020031531020002"},{"poweroffId":2020031431020104,"sgpoweroffId":null,"subsName":"","lineName":"10kV戴家Y800线","pubTranName":"建德市金源马赛克有限公司,戴家村邓宅源台区,戴家村项塘坞口台区,戴家村项塘坞台区,建德市兴荣塑料材料厂,洋溪社区综合厂台区,","scope":"浙江省-杭州市-建德市-洋溪街道-洋溪社区-洋溪综合厂自然村,莲花镇-戴家行政村(项塘坞自然村,戴家自然村,邓宅源自然村);莲花镇(建德市兴荣塑料材料厂,建德市超越助剂有限公司)一带用户。","startTime":"2020-03-14 16:12:00","stopDate":"2020-03-14 18:00:00","orgNo":"3340180","typeCode":"电网故障停限电","poweroffArea":"35kV莲花变:戴家Y800线邓宅源支线0#杆开关后段","poweroffReason":"高压开关跳闸","powerTime":"2020-03-14 17:04:00","powerComm":"已送电","subsNo":"","lineNo":"","tgNo":"","tgName":null,"infoStatus":"1","orgName":"国网浙江建德市供电有限公司","typeName":null,"infoStatusName":null,"dateDay":null,"orgNos":null,"nowTime":null,"countyName":null,"streetName":null,"villageName":null,"roadName":null,"communityName":null,"tranName":null,"sdLineName":null,"cityCode":"3340180","cityName":"国网浙江建德市供电有限公司","provinceCode":null,"stopTime":"2020-03-14 18:00:00","powerType":"全部","powerOffArea":"35kV莲花变:戴家Y800线邓宅源支线0#杆开关后段","powerOffReason":"高压开关跳闸","powerOffId":"2020031431020104"},{"poweroffId":2020031431020103,"sgpoweroffId":null,"subsName":"","lineName":"10kV皇印D392线","pubTranName":"洞桥村16#十房里公变,1#,2#,洞桥村8#龙王坎公变,洞桥村14#井山新村公变,洞桥村6#凌家公变,洞桥村5#旗山公变,洞桥村13#石剪口公变,新兴车料2#,洞桥村7#沈家公变,杭州蓝锋铝业有限公司变压器,","scope":"浙江省-杭州市-富阳区-洞桥镇-洞桥行政村(沈家自然村,二茶棵自然村,凌家自然村,洞桥自然村,塘湾里自然村,于家自然村,旗山自然村,马家自然村,沈家西自然村,上林自然村,徐家自然村,景山自然村,十房里自然村),万市镇-万市行政村-西门路自然村,洞桥镇-里仁行政村-章母何家自然村;洞桥镇-洞桥行政村(浙江容大电力工程有限公司,杭州新兴车料有限公司)","startTime":"2020-03-14 16:09:08","stopDate":"2020-03-14 17:35:08","orgNo":"3340170","typeCode":"电网故障停限电","poweroffArea":"110kV万市变:皇印D392线-上林分线2号杆开关后段","poweroffReason":"高压开关跳闸 原停电结束时间为2020-03-14 17:09:08,因施工困难原因,现变更停电结束时间为2020-03-14 17:35:08","powerTime":"2020-03-14 17:25:49","powerComm":"已送电","subsNo":"","lineNo":"","tgNo":"","tgName":null,"infoStatus":"1","orgName":"国网浙江杭州市富阳区供电公司","typeName":null,"infoStatusName":null,"dateDay":null,"orgNos":null,"nowTime":null,"countyName":null,"streetName":null,"villageName":null,"roadName":null,"communityName":null,"tranName":null,"sdLineName":null,"cityCode":"3340170","cityName":"国网浙江杭州市富阳区供电公司","provinceCode":null,"stopTime":"2020-03-14 17:35:08","powerType":"全部","powerOffArea":"110kV万市变:皇印D392线-上林分线2号杆开关后段","powerOffReason":"高压开关跳闸 原停电结束时间为2020-03-14 17:09:08,因施工困难原因,现变更停电结束时间为2020-03-14 17:35:08","powerOffId":"2020031431020103"},{"poweroffId":2020031431020100,"sgpoweroffId":null,"subsName":"","lineName":"10kV东源D339线","pubTranName":"众源村5号钟家公变,富阳天铭机械制造有限公司,杭州富阳正兴建材有限公司3#变,富阳市万市富强汽配厂1#变,众源村15#新东山畈公变,富阳正兴建材有限公司,众源村13#清水坞公变,众源村4#了岸坞公变,3#变,","scope":"浙江省-杭州市-富阳区-万市镇-众缘行政村(了岸坞自然村,坞口自然村,骆家自然村,清水坞自然村,傅家自然村,钟家自然村,东山畈自然村);万市镇-众缘行政村(杭州富阳万市富强汽配厂,富阳天铭机械制造有限公司,杭州富阳正兴建材有限公司)","startTime":"2020-03-14 15:26:57","stopDate":"2020-03-14 17:26:57","orgNo":"3340170","typeCode":"电网故障停限电","poweroffArea":"110kV万市变:东源D339线-东源D3393开关后段","poweroffReason":"高压开关跳闸","powerTime":"2020-03-14 16:30:28","powerComm":"已送电","subsNo":"","lineNo":"","tgNo":"","tgName":null,"infoStatus":"1","orgName":"国网浙江杭州市富阳区供电公司","typeName":null,"infoStatusName":null,"dateDay":null,"orgNos":null,"nowTime":null,"countyName":null,"streetName":null,"villageName":null,"roadName":null,"communityName":null,"tranName":null,"sdLineName":null,"cityCode":"3340170","cityName":"国网浙江杭州市富阳区供电公司","provinceCode":null,"stopTime":"2020-03-14 17:26:57","powerType":"全部","powerOffArea":"110kV万市变:东源D339线-东源D3393开关后段","powerOffReason":"高压开关跳闸","powerOffId":"2020031431020100"}],"pageModel":{"pageNow":479,"totalCount":17789,"totalPage":1779,"tableRows":0,"pageCount":10,"beginCount":4780},"isExperi":"1"}