{"message":"","today":"2020-06-15","seleList":[{"poweroffId":2020031431020099,"sgpoweroffId":null,"subsName":"","lineName":"10kV东源D339线","pubTranName":"众源村5号钟家公变,","scope":"浙江省-杭州市-富阳区-万市镇-众缘行政村(傅家自然村,了岸坞自然村,钟家自然村,东山畈自然村)","startTime":"2020-03-14 15:10:00","stopDate":"2020-03-14 17:10:00","orgNo":"3340170","typeCode":"电网故障停限电","poweroffArea":"110kV万市变:东源D339线众源村5号钟家配变","poweroffReason":"高压开关跳闸","powerTime":"2020-03-14 16:13:36","powerComm":"已送电","subsNo":"","lineNo":"","tgNo":"","tgName":null,"infoStatus":"1","orgName":"国网浙江杭州市富阳区供电公司","typeName":null,"infoStatusName":null,"dateDay":null,"orgNos":null,"nowTime":null,"countyName":null,"streetName":null,"villageName":null,"roadName":null,"communityName":null,"tranName":null,"sdLineName":null,"cityCode":"3340170","cityName":"国网浙江杭州市富阳区供电公司","provinceCode":null,"stopTime":"2020-03-14 17:10:00","powerType":"全部","powerOffArea":"110kV万市变:东源D339线众源村5号钟家配变","powerOffReason":"高压开关跳闸","powerOffId":"2020031431020099"},{"poweroffId":2020031431020096,"sgpoweroffId":null,"subsName":"","lineName":"10kV通新H762线","pubTranName":"1#,西美3号站西美岸5号公变,天域充电桩,5#变压器,4#,1#,华盛达（6120841887）I段1#专变,1#,9#,国承信1号变压器,7#,1#,6#,3#变压器,西美1号站西美岸2号公变,15#,1#,金座1B公变,13#,1#,西美3号站西美岸6号公变,金座2B公变,3#,5#,2#,1#,2#,5#,11#,3#,西美1号站西美岸1号公变,1#变压器,3#变压器,","scope":"浙江省-杭州市-余杭区-五常街道-文一社区-荆长路;五常街道-文一社区(杭州华盛达西溪时代置业有限公司,杭州品尚物业服务集团有限公司,浙江天域商业运营管理有限公司),五常街道-五常社区(浙江新南北物业管理有限公司,杭州鸿金工贸有限公司),五常街道(洪园社区-杭州庄恒新能源科技有限公司,友谊社区-杭州中璟邦达置业有限公司,浙江蓝德置业发展有限公司,浙江同花顺网络科技有限公司)","startTime":"2020-03-14 14:34:00","stopDate":"2020-03-14 19:00:00","orgNo":"3340140","typeCode":"电网故障停限电","poweroffArea":"110kV五常变:通新H762线","poweroffReason":"高压开关跳闸 原停电结束时间为2020-03-14 17:34:00,因现场情况复杂原因,现变更停电结束时间为2020-03-14 19:00:00","powerTime":"2020-03-14 18:36:00","powerComm":"已送电","subsNo":"","lineNo":"","tgNo":"","tgName":null,"infoStatus":"1","orgName":"国网浙江杭州市余杭区供电有限公司","typeName":null,"infoStatusName":null,"dateDay":null,"orgNos":null,"nowTime":null,"countyName":null,"streetName":null,"villageName":null,"roadName":null,"communityName":null,"tranName":null,"sdLineName":null,"cityCode":"3340140","cityName":"国网浙江杭州市余杭区供电有限公司","provinceCode":null,"stopTime":"2020-03-14 19:00:00","powerType":"全部","powerOffArea":"110kV五常变:通新H762线","powerOffReason":"高压开关跳闸 原停电结束时间为2020-03-14 17:34:00,因现场情况复杂原因,现变更停电结束时间为2020-03-14 19:00:00","powerOffId":"2020031431020096"},{"poweroffId":2020031431020090,"sgpoweroffId":null,"subsName":"","lineName":"10kV银湖V383线","pubTranName":"浙江临安中都置业有限公司,","scope":"浙江省杭州市临安区锦城街道余村居委会浙江临安中都置业有限公司一带","startTime":"2020-03-25 08:00:00","stopDate":"2020-03-25 14:30:00","orgNo":"3340160","typeCode":"计划停电","poweroffArea":"35kV渔村变:银湖V383线-泥山湾分线26#后段","poweroffReason":"线路移位","powerTime":"2020-03-25 14:01:32","powerComm":"已送电","subsNo":"","lineNo":"","tgNo":"","tgName":null,"infoStatus":"1","orgName":"国网浙江临安市供电公司","typeName":null,"infoStatusName":null,"dateDay":null,"orgNos":null,"nowTime":null,"countyName":null,"streetName":null,"villageName":null,"roadName":null,"communityName":null,"tranName":null,"sdLineName":null,"cityCode":"3340160","cityName":"国网浙江临安市供电公司","provinceCode":null,"stopTime":"2020-03-25 14:30:00","powerType":"全部","powerOffArea":"35kV渔村变:银湖V383线-泥山湾分线26#后段","powerOffReason":"线路移位","powerOffId":"2020031431020090"},{"poweroffId":2020031431020089,"sgpoweroffId":null,"subsName":"","lineName":"10kV桥东V584线","pubTranName":"浪口村[桥东],","scope":"浙江省杭州市临安区太湖源镇浪口行政村桥东自然村一带","startTime":"2020-03-24 09:00:00","stopDate":"2020-03-24 14:30:00","orgNo":"3340160","typeCode":"计划停电","poweroffArea":"110kV杨岭变:桥东V584线-浪口村[桥东]后段","poweroffReason":"配合停电","powerTime":"2020-03-24 14:20:19","powerComm":"已送电","subsNo":"","lineNo":"","tgNo":"","tgName":null,"infoStatus":"1","orgName":"国网浙江临安市供电公司","typeName":null,"infoStatusName":null,"dateDay":null,"orgNos":null,"nowTime":null,"countyName":null,"streetName":null,"villageName":null,"roadName":null,"communityName":null,"tranName":null,"sdLineName":null,"cityCode":"3340160","cityName":"国网浙江临安市供电公司","provinceCode":null,"stopTime":"2020-03-24 14:30:00","powerType":"全部","powerOffArea":"110kV杨岭变:桥东V584线-浪口村[桥东]后段","powerOffReason":"配合停电","powerOffId":"2020031431020089"},{"poweroffId":2020031431020088,"sgpoweroffId":null,"subsName":"","lineName":"10kV上东V494线","pubTranName":"杭州国能实业有限公司,杭州国能实业有限公司,","scope":"浙江省杭州市临安区锦北街道金马行政村杭州国能实业有限公司一带","startTime":"2020-03-25 08:30:00","stopDate":"2020-03-25 14:00:00","orgNo":"3340160","typeCode":"计划停电","poweroffArea":"110kV平山变:上东V494线-竹林后畈坞石矿分线开关后段","poweroffReason":"新上用户","powerTime":"2020-03-25 13:51:34","powerComm":"已送电","subsNo":"","lineNo":"","tgNo":"","tgName":null,"infoStatus":"1","orgName":"国网浙江临安市供电公司","typeName":null,"infoStatusName":null,"dateDay":null,"orgNos":null,"nowTime":null,"countyName":null,"streetName":null,"villageName":null,"roadName":null,"communityName":null,"tranName":null,"sdLineName":null,"cityCode":"3340160","cityName":"国网浙江临安市供电公司","provinceCode":null,"stopTime":"2020-03-25 14:00:00","powerType":"全部","powerOffArea":"110kV平山变:上东V494线-竹林后畈坞石矿分线开关后段","powerOffReason":"新上用户","powerOffId":"2020031431020088"},{"poweroffId":2020031431020085,"sgpoweroffId":null,"subsName":"","lineName":"10kV塘湾V872线","pubTranName":"杭州美生美置业有限公司1#,杭州美生美置业有限公司3#,杭州美生美置业有限公司4#,杭州美生美置业有限公司2#,","scope":"浙江省杭州市临安区锦南街道卦畈行政村杭州美生美置业有限公司一带","startTime":"2020-03-26 08:00:00","stopDate":"2020-03-26 12:00:00","orgNo":"3340160","typeCode":"计划停电","poweroffArea":"110kV杨岱变:塘湾V872线-祥夏站5#备用间隔后段","poweroffReason":"新上用户","powerTime":"2020-03-26 11:39:07","powerComm":"已送电","subsNo":"","lineNo":"","tgNo":"","tgName":null,"infoStatus":"1","orgName":"国网浙江临安市供电公司","typeName":null,"infoStatusName":null,"dateDay":null,"orgNos":null,"nowTime":null,"countyName":null,"streetName":null,"villageName":null,"roadName":null,"communityName":null,"tranName":null,"sdLineName":null,"cityCode":"3340160","cityName":"国网浙江临安市供电公司","provinceCode":null,"stopTime":"2020-03-26 12:00:00","powerType":"全部","powerOffArea":"110kV杨岱变:塘湾V872线-祥夏站5#备用间隔后段","powerOffReason":"新上用户","powerOffId":"2020031431020085"},{"poweroffId":2020031431020084,"sgpoweroffId":null,"subsName":"","lineName":"10kV上东V494线","pubTranName":"金马村[后塘坞]公变,","scope":"浙江省杭州市临安区锦北街道金马行政村后塘坞自然村一带","startTime":"2020-03-25 08:30:00","stopDate":"2020-03-25 14:00:00","orgNo":"3340160","typeCode":"计划停电","poweroffArea":"110kV平山变:上东V494线-金马村[后塘坞]公变后段","poweroffReason":"新上用户","powerTime":"2020-03-25 13:51:11","powerComm":"已送电","subsNo":"","lineNo":"","tgNo":"","tgName":null,"infoStatus":"1","orgName":"国网浙江临安市供电公司","typeName":null,"infoStatusName":null,"dateDay":null,"orgNos":null,"nowTime":null,"countyName":null,"streetName":null,"villageName":null,"roadName":null,"communityName":null,"tranName":null,"sdLineName":null,"cityCode":"3340160","cityName":"国网浙江临安市供电公司","provinceCode":null,"stopTime":"2020-03-25 14:00:00","powerType":"全部","powerOffArea":"110kV平山变:上东V494线-金马村[后塘坞]公变后段","powerOffReason":"新上用户","powerOffId":"2020031431020084"},{"poweroffId":2020031431020083,"sgpoweroffId":null,"subsName":"","lineName":"10kV银湖V383线","pubTranName":"泥山湾村[村中]公变,","scope":"浙江省杭州市临安区锦城街道泥山湾行政村泥山湾自然村一带","startTime":"2020-03-25 08:00:00","stopDate":"2020-03-25 14:30:00","orgNo":"3340160","typeCode":"计划停电","poweroffArea":"35kV渔村变:银湖V383线-泥山湾村[村中]公变后段","poweroffReason":"线路移位","powerTime":"2020-03-25 14:00:34","powerComm":"已送电","subsNo":"","lineNo":"","tgNo":"","tgName":null,"infoStatus":"1","orgName":"国网浙江临安市供电公司","typeName":null,"infoStatusName":null,"dateDay":null,"orgNos":null,"nowTime":null,"countyName":null,"streetName":null,"villageName":null,"roadName":null,"communityName":null,"tranName":null,"sdLineName":null,"cityCode":"3340160","cityName":"国网浙江临安市供电公司","provinceCode":null,"stopTime":"2020-03-25 14:30:00","powerType":"全部","powerOffArea":"35kV渔村变:银湖V383线-泥山湾村[村中]公变后段","powerOffReason":"线路移位","powerOffId":"2020031431020083"},{"poweroffId":2020031431020082,"sgpoweroffId":null,"subsName":"","lineName":"10kV雅坞V395线","pubTranName":"杭州临安福地陵园有限公司1#,","scope":"浙江省杭州市临安区玲珑街道前山行政村杭州临安福地陵园有限公司一带","startTime":"2020-03-23 08:30:00","stopDate":"2020-03-23 16:30:00","orgNo":"3340160","typeCode":"计划停电","poweroffArea":"110kV秀水变:雅坞V395线-福地陵园支支线后段","poweroffReason":"新上用户","powerTime":"2020-03-23 16:01:46","powerComm":"已送电","subsNo":"","lineNo":"","tgNo":"","tgName":null,"infoStatus":"1","orgName":"国网浙江临安市供电公司","typeName":null,"infoStatusName":null,"dateDay":null,"orgNos":null,"nowTime":null,"countyName":null,"streetName":null,"villageName":null,"roadName":null,"communityName":null,"tranName":null,"sdLineName":null,"cityCode":"3340160","cityName":"国网浙江临安市供电公司","provinceCode":null,"stopTime":"2020-03-23 16:30:00","powerType":"全部","powerOffArea":"110kV秀水变:雅坞V395线-福地陵园支支线后段","powerOffReason":"新上用户","powerOffId":"2020031431020082"},{"poweroffId":2020031431020076,"sgpoweroffId":null,"subsName":"","lineName":"10kV东钱A670线","pubTranName":"同兴村15#变,","scope":"浙江省-杭州市-萧山区-新街镇-新街街道-同兴行政村-同兴自然村等一带","startTime":"2020-03-14 13:05:15","stopDate":"2020-03-14 16:05:15","orgNo":"3340130","typeCode":"电网故障停限电","poweroffArea":"110kV东霖变:东钱A670线-同兴村15#变台区低压开关","poweroffReason":"(低压停电信息)低压漏电保护器短路故障","powerTime":"2020-03-14 15:08:11","powerComm":"已送电","subsNo":"","lineNo":"","tgNo":"","tgName":null,"infoStatus":"1","orgName":"国网浙江杭州市萧山区供电有限公司","typeName":null,"infoStatusName":null,"dateDay":null,"orgNos":null,"nowTime":null,"countyName":null,"streetName":null,"villageName":null,"roadName":null,"communityName":null,"tranName":null,"sdLineName":null,"cityCode":"3340130","cityName":"国网浙江杭州市萧山区供电有限公司","provinceCode":null,"stopTime":"2020-03-14 16:05:15","powerType":"全部","powerOffArea":"110kV东霖变:东钱A670线-同兴村15#变台区低压开关","powerOffReason":"(低压停电信息)低压漏电保护器短路故障","powerOffId":"2020031431020076"}],"pageModel":{"pageNow":480,"totalCount":17789,"totalPage":1779,"tableRows":0,"pageCount":10,"beginCount":4790},"isExperi":"1"}