{"message":"","today":"2020-06-15","seleList":[{"poweroffId":2020031331020543,"sgpoweroffId":null,"subsName":"","lineName":"10kV长厅056线","pubTranName":"震宇布业,瓜沥永联垦种,省水利厅,省围垦造地开发公司,吉天农业,瓜沥镇永联村,","scope":"浙江省-杭州市-萧山区-围垦垦区(十七工段片区-浙江吉天农业开发有限公司,萧山5.2万亩垦区-萧山区坎山镇三岔陆村,十二工段片区-浙江省水利围垦综合开发一场),临江街道(十二工段片区-浙江省围垦造地开发公司萧山分公司,五点二万亩垦区-萧山区瓜沥镇永联村(围垦用电),二十二工段片区-萧山区瓜沥镇永联村村民委员会)","startTime":"2020-03-25 08:00:00","stopDate":"2020-03-25 16:10:00","orgNo":"3340120","typeCode":"计划停电","poweroffArea":"110kV长征变:长厅056线-长厅056线吉天二分线43/24#开关(S)后段","poweroffReason":"长厅056线吉天一分线02#杆至09#杆换线等工作 原停电结束时间为2020-03-25 17:30:00,为减少客户停电时间,加快工作进度,提前送电,现变更停电结束时间为2020-03-25 16:10:00","powerTime":"2020-03-25 15:40:27","powerComm":"已送电","subsNo":"","lineNo":"","tgNo":"","tgName":null,"infoStatus":"1","orgName":"国网浙江杭州市钱塘新区供电公司","typeName":null,"infoStatusName":null,"dateDay":null,"orgNos":null,"nowTime":null,"countyName":null,"streetName":null,"villageName":null,"roadName":null,"communityName":null,"tranName":null,"sdLineName":null,"cityCode":"3340120","cityName":"国网浙江杭州市钱塘新区供电公司","provinceCode":null,"stopTime":"2020-03-25 16:10:00","powerType":"全部","powerOffArea":"110kV长征变:长厅056线-长厅056线吉天二分线43/24#开关(S)后段","powerOffReason":"长厅056线吉天一分线02#杆至09#杆换线等工作 原停电结束时间为2020-03-25 17:30:00,为减少客户停电时间,加快工作进度,提前送电,现变更停电结束时间为2020-03-25 16:10:00","powerOffId":"2020031331020543"},{"poweroffId":2020031331020542,"sgpoweroffId":null,"subsName":"","lineName":"10kV义府A50线","pubTranName":"义蓬安置小区2#变,","scope":"浙江省-杭州市-萧山区-义蓬街道-义蓬行政村-义蓬自然村","startTime":"2020-03-24 09:00:00","stopDate":"2020-03-24 12:30:00","orgNo":"3340120","typeCode":"计划停电","poweroffArea":"110kV白浪变:义府A50线-义蓬安置小区2#变后段","poweroffReason":"新做落地式低压电缆分支箱，集表箱电缆搭接、表计移位，旧电缆拆除等工作 原停电结束时间为2020-03-24 17:30:00,为减少客户停电时间,加快工作进度,提前送电,现变更停电结束时间为2020-03-24 12:30:00","powerTime":"2020-03-24 11:53:59","powerComm":"已送电","subsNo":"","lineNo":"","tgNo":"","tgName":null,"infoStatus":"1","orgName":"国网浙江杭州市钱塘新区供电公司","typeName":null,"infoStatusName":null,"dateDay":null,"orgNos":null,"nowTime":null,"countyName":null,"streetName":null,"villageName":null,"roadName":null,"communityName":null,"tranName":null,"sdLineName":null,"cityCode":"3340120","cityName":"国网浙江杭州市钱塘新区供电公司","provinceCode":null,"stopTime":"2020-03-24 12:30:00","powerType":"全部","powerOffArea":"110kV白浪变:义府A50线-义蓬安置小区2#变后段","powerOffReason":"新做落地式低压电缆分支箱，集表箱电缆搭接、表计移位，旧电缆拆除等工作 原停电结束时间为2020-03-24 17:30:00,为减少客户停电时间,加快工作进度,提前送电,现变更停电结束时间为2020-03-24 12:30:00","powerOffId":"2020031331020542"},{"poweroffId":2020031331020541,"sgpoweroffId":null,"subsName":"","lineName":"10kV新创502线","pubTranName":"闸北村3#变,","scope":"浙江省-杭州市-萧山区-河庄街道-闸北行政村-闸北自然村","startTime":"2020-03-23 09:00:00","stopDate":"2020-03-23 15:00:00","orgNo":"3340120","typeCode":"计划停电","poweroffArea":"35kV永丰变:新创502线-闸北村3#变后段","poweroffReason":"闸北村3#变配电房内低压柜3台拆除，回抽电缆接至闸北村3#变B01#杆等工作 原停电结束时间为2020-03-23 17:30:00,为减少客户停电时间,加快工作进度,提前送电,现变更停电结束时间为2020-03-23 15:00:00","powerTime":"2020-03-23 14:21:48","powerComm":"已送电","subsNo":"","lineNo":"","tgNo":"","tgName":null,"infoStatus":"1","orgName":"国网浙江杭州市钱塘新区供电公司","typeName":null,"infoStatusName":null,"dateDay":null,"orgNos":null,"nowTime":null,"countyName":null,"streetName":null,"villageName":null,"roadName":null,"communityName":null,"tranName":null,"sdLineName":null,"cityCode":"3340120","cityName":"国网浙江杭州市钱塘新区供电公司","provinceCode":null,"stopTime":"2020-03-23 15:00:00","powerType":"全部","powerOffArea":"35kV永丰变:新创502线-闸北村3#变后段","powerOffReason":"闸北村3#变配电房内低压柜3台拆除，回抽电缆接至闸北村3#变B01#杆等工作 原停电结束时间为2020-03-23 17:30:00,为减少客户停电时间,加快工作进度,提前送电,现变更停电结束时间为2020-03-23 15:00:00","powerOffId":"2020031331020541"},{"poweroffId":2020031331020540,"sgpoweroffId":null,"subsName":"","lineName":"10kV青龙508线","pubTranName":"文伟村7#变,江东大桥,水利工程管理01#,文伟村6#变,三联村5#变,","scope":"浙江省-杭州市-萧山区-河庄街道(文伟行政村-文伟自然村,三联行政村-三联自然村);河庄街道(文伟行政村-杭州江东大桥建设发展有限公司,一工段片区-杭州大江东产业集聚区水利工程管理所)","startTime":"2020-03-23 09:00:00","stopDate":"2020-03-23 16:30:00","orgNo":"3340120","typeCode":"计划停电","poweroffArea":"35kV永丰变:青龙508线-九桥分线01#开关（Z）后段","poweroffReason":"10KV青龙508线九桥分线02#杆至41#杆更换横挡与瓷瓶,直线杆加装过电压保护器等工作。 原停电结束时间为2020-03-23 17:30:00,为减少客户停电时间,加快工作进度,提前送电,现变更停电结束时间为2020-03-23 16:30:00","powerTime":"2020-03-23 16:05:47","powerComm":"已送电","subsNo":"","lineNo":"","tgNo":"","tgName":null,"infoStatus":"1","orgName":"国网浙江杭州市钱塘新区供电公司","typeName":null,"infoStatusName":null,"dateDay":null,"orgNos":null,"nowTime":null,"countyName":null,"streetName":null,"villageName":null,"roadName":null,"communityName":null,"tranName":null,"sdLineName":null,"cityCode":"3340120","cityName":"国网浙江杭州市钱塘新区供电公司","provinceCode":null,"stopTime":"2020-03-23 16:30:00","powerType":"全部","powerOffArea":"35kV永丰变:青龙508线-九桥分线01#开关（Z）后段","powerOffReason":"10KV青龙508线九桥分线02#杆至41#杆更换横挡与瓷瓶,直线杆加装过电压保护器等工作。 原停电结束时间为2020-03-23 17:30:00,为减少客户停电时间,加快工作进度,提前送电,现变更停电结束时间为2020-03-23 16:30:00","powerOffId":"2020031331020540"},{"poweroffId":2020031331020500,"sgpoweroffId":null,"subsName":"","lineName":"10kV上练D713线","pubTranName":"里坞村3#范家公变,杭州富阳钱潮建材有限公司,里坞村8#新水库公变变压器间隔配电变压器,里坞村1#留下公变,里坞村5#石塘公变,里坞村9号留下后山公变,","scope":"浙江省杭州市富阳区胥口镇里坞行政村（留下自然村,范家自然村,石塘自然村），杭州富阳钱潮建材有限公司一带","startTime":"2020-03-16 07:00:00","stopDate":"2020-03-16 08:00:00","orgNo":"3340170","typeCode":"临时停电","poweroffArea":"110kV松溪变:10kV上练D713线上胥联线80#杆后段","poweroffReason":"94#杆过电压保护器更换等工作","powerTime":"2020-03-16 07:31:10","powerComm":"已送电","subsNo":"","lineNo":"","tgNo":"","tgName":null,"infoStatus":"1","orgName":"国网浙江杭州市富阳区供电公司","typeName":null,"infoStatusName":null,"dateDay":null,"orgNos":null,"nowTime":null,"countyName":null,"streetName":null,"villageName":null,"roadName":null,"communityName":null,"tranName":null,"sdLineName":null,"cityCode":"3340170","cityName":"国网浙江杭州市富阳区供电公司","provinceCode":null,"stopTime":"2020-03-16 08:00:00","powerType":"全部","powerOffArea":"110kV松溪变:10kV上练D713线上胥联线80#杆后段","powerOffReason":"94#杆过电压保护器更换等工作","powerOffId":"2020031331020500"},{"poweroffId":2020031331020471,"sgpoweroffId":null,"subsName":"","lineName":"10kV台旭8188线","pubTranName":"塑胶,沙隧一施,","scope":"浙江省-杭州市-江干区-下沙经济开发区街道-杭州大诚塑胶制品有限公司、中铁十四局集团大盾构工程有限公司","startTime":"2020-03-27 09:00:00","stopDate":"2020-03-27 12:30:00","orgNo":"3340120","typeCode":"计划停电","poweroffArea":"110kV智格变:台旭8188线-沙隧施二线后段;台旭8188线-塑胶后段","poweroffReason":"10kV大成站老旧环网柜更换工程/ 1811HZ1800X210A0000000（城源） 原停电结束时间为2020-03-27 14:00:00,为减少客户停电时间,加快工作进度,提前送电,现变更停电结束时间为2020-03-27 12:30:00","powerTime":"2020-03-27 11:35:59","powerComm":"已送电","subsNo":"","lineNo":"","tgNo":"","tgName":null,"infoStatus":"1","orgName":"国网浙江杭州市钱塘新区供电公司","typeName":null,"infoStatusName":null,"dateDay":null,"orgNos":null,"nowTime":null,"countyName":null,"streetName":null,"villageName":null,"roadName":null,"communityName":null,"tranName":null,"sdLineName":null,"cityCode":"3340120","cityName":"国网浙江杭州市钱塘新区供电公司","provinceCode":null,"stopTime":"2020-03-27 12:30:00","powerType":"未送电","powerOffArea":"110kV智格变:台旭8188线-沙隧施二线后段;台旭8188线-塑胶后段","powerOffReason":"10kV大成站老旧环网柜更换工程/ 1811HZ1800X210A0000000（城源） 原停电结束时间为2020-03-27 14:00:00,为减少客户停电时间,加快工作进度,提前送电,现变更停电结束时间为2020-03-27 12:30:00","powerOffId":"2020031331020471"},{"poweroffId":2020031331020470,"sgpoweroffId":null,"subsName":"","lineName":"10kV台旭8188线","pubTranName":"大成站路灯370M,大成站路灯560M,","scope":"浙江省-杭州市-江干区-经济开发区街道-杭经开城市管理办公室、杭经开城市管理办公室","startTime":"2020-03-26 09:00:00","stopDate":"2020-03-26 18:00:00","orgNo":"3340120","typeCode":"计划停电","poweroffArea":"110kV智格变:台旭8188线-大成站路灯560M后段;台旭8188线-大成站路灯370M后段","poweroffReason":"10kV大成站老旧环网柜更换工程/ 1811HZ1800X210A0000000（城源） 原停电结束时间为2020-03-26 17:00:00,因工作量大原因,延迟送电,现变更停电结束时间为2020-03-26 18:00:00","powerTime":"2020-03-26 17:46:44","powerComm":"已送电","subsNo":"","lineNo":"","tgNo":"","tgName":null,"infoStatus":"1","orgName":"国网浙江杭州市钱塘新区供电公司","typeName":null,"infoStatusName":null,"dateDay":null,"orgNos":null,"nowTime":null,"countyName":null,"streetName":null,"villageName":null,"roadName":null,"communityName":null,"tranName":null,"sdLineName":null,"cityCode":"3340120","cityName":"国网浙江杭州市钱塘新区供电公司","provinceCode":null,"stopTime":"2020-03-26 18:00:00","powerType":"未送电","powerOffArea":"110kV智格变:台旭8188线-大成站路灯560M后段;台旭8188线-大成站路灯370M后段","powerOffReason":"10kV大成站老旧环网柜更换工程/ 1811HZ1800X210A0000000（城源） 原停电结束时间为2020-03-26 17:00:00,因工作量大原因,延迟送电,现变更停电结束时间为2020-03-26 18:00:00","powerOffId":"2020031331020470"},{"poweroffId":2020031331020469,"sgpoweroffId":null,"subsName":"","lineName":"10kV台旭8188线","pubTranName":"塑胶,沙隧一施,","scope":"浙江省杭州市江干区杭州大诚塑胶制品有限公司、中铁十四局集团大盾构工程有限公司","startTime":"2020-03-25 13:30:00","stopDate":"2020-03-25 17:00:00","orgNo":"3340120","typeCode":"计划停电","poweroffArea":"110kV智格变:台旭8188线-沙隧施二线后段;台旭8188线-塑胶后段","poweroffReason":"10kV大成站老旧环网柜更换工程/ 1811HZ1800X210A0000000（城源） 原停电结束时间为2020-03-25 17:30:00,为减少客户停电时间,加快工作进度,提前送电,现变更停电结束时间为2020-03-25 17:00:00","powerTime":"2020-03-25 16:03:40","powerComm":"已送电","subsNo":"","lineNo":"","tgNo":"","tgName":null,"infoStatus":"1","orgName":"国网浙江杭州市钱塘新区供电公司","typeName":null,"infoStatusName":null,"dateDay":null,"orgNos":null,"nowTime":null,"countyName":null,"streetName":null,"villageName":null,"roadName":null,"communityName":null,"tranName":null,"sdLineName":null,"cityCode":"3340120","cityName":"国网浙江杭州市钱塘新区供电公司","provinceCode":null,"stopTime":"2020-03-25 17:00:00","powerType":"全部","powerOffArea":"110kV智格变:台旭8188线-沙隧施二线后段;台旭8188线-塑胶后段","powerOffReason":"10kV大成站老旧环网柜更换工程/ 1811HZ1800X210A0000000（城源） 原停电结束时间为2020-03-25 17:30:00,为减少客户停电时间,加快工作进度,提前送电,现变更停电结束时间为2020-03-25 17:00:00","powerOffId":"2020031331020469"},{"poweroffId":2020031331020468,"sgpoweroffId":null,"subsName":"","lineName":"10kV大成8187线","pubTranName":"海森自控,大安,热电,","scope":"浙江省-杭州市-江干区-杭州海森自控系统有限公司、浙江史密斯医学仪器有限公司、杭州杭联热电有限公司","startTime":"2020-03-25 09:00:00","stopDate":"2020-03-25 14:00:00","orgNo":"3340120","typeCode":"计划停电","poweroffArea":"110kV智格变:大成8187线-热电后段;大成8187线-大安后段;大成8187线-海森自控后段","poweroffReason":"10kV大成站老旧环网柜更换工程/ 1811HZ1800X210A0000000（城源） 1、大成站海森一线改接回5#间隔、大安一线改接回4#间隔、热电一线改接回3#间隔 2、电缆拆头、试验、搭头","powerTime":"2020-03-25 13:31:46","powerComm":"已送电","subsNo":"","lineNo":"","tgNo":"","tgName":null,"infoStatus":"1","orgName":"国网浙江杭州市钱塘新区供电公司","typeName":null,"infoStatusName":null,"dateDay":null,"orgNos":null,"nowTime":null,"countyName":null,"streetName":null,"villageName":null,"roadName":null,"communityName":null,"tranName":null,"sdLineName":null,"cityCode":"3340120","cityName":"国网浙江杭州市钱塘新区供电公司","provinceCode":null,"stopTime":"2020-03-25 14:00:00","powerType":"全部","powerOffArea":"110kV智格变:大成8187线-热电后段;大成8187线-大安后段;大成8187线-海森自控后段","powerOffReason":"10kV大成站老旧环网柜更换工程/ 1811HZ1800X210A0000000（城源） 1、大成站海森一线改接回5#间隔、大安一线改接回4#间隔、热电一线改接回3#间隔 2、电缆拆头、试验、搭头","powerOffId":"2020031331020468"},{"poweroffId":2020031331020467,"sgpoweroffId":null,"subsName":"","lineName":"10kV大成8187线","pubTranName":"热电,海森自控,大安,","scope":"浙江省-杭州市-江干区-杭州海森自控系统有限公司、浙江史密斯医学仪器有限公司、杭州杭联热电有限公司","startTime":"2020-03-23 09:00:00","stopDate":"2020-03-23 15:00:00","orgNo":"3340120","typeCode":"计划停电","poweroffArea":"110kV智格变:大成8187线-大安后段;大成8187线-热电后段;大成8187线-海森自控后段","poweroffReason":"10kV大成站老旧环网柜更换工程/ 1811HZ1800X210A0000000（城源） 原停电结束时间为2020-03-23 14:00:00,因工作量大原因,现变更停电结束时间为2020-03-23 15:00:00","powerTime":"2020-03-23 14:01:59","powerComm":"已送电","subsNo":"","lineNo":"","tgNo":"","tgName":null,"infoStatus":"1","orgName":"国网浙江杭州市钱塘新区供电公司","typeName":null,"infoStatusName":null,"dateDay":null,"orgNos":null,"nowTime":null,"countyName":null,"streetName":null,"villageName":null,"roadName":null,"communityName":null,"tranName":null,"sdLineName":null,"cityCode":"3340120","cityName":"国网浙江杭州市钱塘新区供电公司","provinceCode":null,"stopTime":"2020-03-23 15:00:00","powerType":"全部","powerOffArea":"110kV智格变:大成8187线-大安后段;大成8187线-热电后段;大成8187线-海森自控后段","powerOffReason":"10kV大成站老旧环网柜更换工程/ 1811HZ1800X210A0000000（城源） 原停电结束时间为2020-03-23 14:00:00,因工作量大原因,现变更停电结束时间为2020-03-23 15:00:00","powerOffId":"2020031331020467"}],"pageModel":{"pageNow":482,"totalCount":17789,"totalPage":1779,"tableRows":0,"pageCount":10,"beginCount":4810},"isExperi":"1"}