{"message":"","today":"2020-06-15","seleList":[{"poweroffId":2020031331020368,"sgpoweroffId":null,"subsName":"","lineName":"10kV双镇H542线","pubTranName":"双溪村台山村公变,","scope":"浙江省杭州市余杭区径山镇：双溪村台山村一带","startTime":"2020-03-25 09:40:00","stopDate":"2020-03-25 15:40:00","orgNo":"3340140","typeCode":"计划停电","poweroffArea":"110kV潘板变:双镇H542线台山村分线","poweroffReason":"计划工作","powerTime":"2020-03-25 14:31:09","powerComm":"因施工力量增强，提前送电","subsNo":"","lineNo":"","tgNo":"","tgName":null,"infoStatus":"1","orgName":"国网浙江杭州市余杭区供电有限公司","typeName":null,"infoStatusName":null,"dateDay":null,"orgNos":null,"nowTime":null,"countyName":null,"streetName":null,"villageName":null,"roadName":null,"communityName":null,"tranName":null,"sdLineName":null,"cityCode":"3340140","cityName":"国网浙江杭州市余杭区供电有限公司","provinceCode":null,"stopTime":"2020-03-25 15:40:00","powerType":"全部","powerOffArea":"110kV潘板变:双镇H542线台山村分线","powerOffReason":"计划工作","powerOffId":"2020031331020368"},{"poweroffId":2020031331020366,"sgpoweroffId":null,"subsName":"","lineName":"10kV长树G664线","pubTranName":"东湖6组（和平机埠）公变,","scope":"浙江省杭州市余杭区南苑街道：东湖6组一带","startTime":"2020-03-25 08:30:00","stopDate":"2020-03-25 15:00:00","orgNo":"3340140","typeCode":"计划停电","poweroffArea":"110kV南苑变:长树G664线东湖6组（和平机埠）公变令克。","poweroffReason":"东湖6组（和平机埠）公变调换计量箱1台。","powerTime":"2020-03-25 13:50:08","powerComm":"已送电","subsNo":"","lineNo":"","tgNo":"","tgName":null,"infoStatus":"1","orgName":"国网浙江杭州市余杭区供电有限公司","typeName":null,"infoStatusName":null,"dateDay":null,"orgNos":null,"nowTime":null,"countyName":null,"streetName":null,"villageName":null,"roadName":null,"communityName":null,"tranName":null,"sdLineName":null,"cityCode":"3340140","cityName":"国网浙江杭州市余杭区供电有限公司","provinceCode":null,"stopTime":"2020-03-25 15:00:00","powerType":"全部","powerOffArea":"110kV南苑变:长树G664线东湖6组（和平机埠）公变令克。","powerOffReason":"东湖6组（和平机埠）公变调换计量箱1台。","powerOffId":"2020031331020366"},{"poweroffId":2020031331020362,"sgpoweroffId":null,"subsName":"","lineName":"10kV新竹园H712线","pubTranName":"义桥村路灯,义桥农居点基建3#,义桥村郎宅五组公变,","scope":"浙江省杭州市余杭区余杭街道：义桥村郎宅五组、义桥村农居点基建工地、舟青xian义桥村路灯一带","startTime":"2020-03-25 08:40:00","stopDate":"2020-03-25 12:30:00","orgNo":"3340140","typeCode":"计划停电","poweroffArea":"110kV余杭临时变:新竹园H712线-郎宅五组分线开关后段","poweroffReason":"计划工作","powerTime":"2020-03-25 11:50:35","powerComm":"已送电","subsNo":"","lineNo":"","tgNo":"","tgName":null,"infoStatus":"1","orgName":"国网浙江杭州市余杭区供电有限公司","typeName":null,"infoStatusName":null,"dateDay":null,"orgNos":null,"nowTime":null,"countyName":null,"streetName":null,"villageName":null,"roadName":null,"communityName":null,"tranName":null,"sdLineName":null,"cityCode":"3340140","cityName":"国网浙江杭州市余杭区供电有限公司","provinceCode":null,"stopTime":"2020-03-25 12:30:00","powerType":"全部","powerOffArea":"110kV余杭临时变:新竹园H712线-郎宅五组分线开关后段","powerOffReason":"计划工作","powerOffId":"2020031331020362"},{"poweroffId":2020031331020355,"sgpoweroffId":null,"subsName":"","lineName":"10kV中桐R156线","pubTranName":"程家源村石门塘配变,","scope":"浙江省-杭州市-淳安县-梓桐镇-程家源行政村-石门塘自然村","startTime":"2020-03-25 08:00:00","stopDate":"2020-03-25 12:00:00","orgNo":"3340190","typeCode":"计划停电","poweroffArea":"35kV梓桐变:中桐R156线-石门塘配变跌落式熔断器后段","poweroffReason":"中桐R156线程家源村石门塘配变配变增容","powerTime":"2020-03-25 11:28:54","powerComm":"已送电","subsNo":"","lineNo":"","tgNo":"","tgName":null,"infoStatus":"1","orgName":"国网浙江淳安县供电有限公司","typeName":null,"infoStatusName":null,"dateDay":null,"orgNos":null,"nowTime":null,"countyName":null,"streetName":null,"villageName":null,"roadName":null,"communityName":null,"tranName":null,"sdLineName":null,"cityCode":"3340190","cityName":"国网浙江淳安县供电有限公司","provinceCode":null,"stopTime":"2020-03-25 12:00:00","powerType":"全部","powerOffArea":"35kV梓桐变:中桐R156线-石门塘配变跌落式熔断器后段","powerOffReason":"中桐R156线程家源村石门塘配变配变增容","powerOffId":"2020031331020355"},{"poweroffId":2020031331020354,"sgpoweroffId":null,"subsName":"","lineName":"10kV郭村R132线","pubTranName":"双溪口村里程配变,","scope":"浙江省-杭州市-淳安县-姜家镇-双溪口行政村-里程自然村","startTime":"2020-03-24 08:00:00","stopDate":"2020-03-24 12:00:00","orgNo":"3340190","typeCode":"计划停电","poweroffArea":"110kV姜家变:郭村R132线-里程配变跌落式熔断器后段","poweroffReason":"郭村R132线双溪口村里程配变配变增容","powerTime":"2020-03-24 11:00:25","powerComm":"已送电","subsNo":"","lineNo":"","tgNo":"","tgName":null,"infoStatus":"1","orgName":"国网浙江淳安县供电有限公司","typeName":null,"infoStatusName":null,"dateDay":null,"orgNos":null,"nowTime":null,"countyName":null,"streetName":null,"villageName":null,"roadName":null,"communityName":null,"tranName":null,"sdLineName":null,"cityCode":"3340190","cityName":"国网浙江淳安县供电有限公司","provinceCode":null,"stopTime":"2020-03-24 12:00:00","powerType":"全部","powerOffArea":"110kV姜家变:郭村R132线-里程配变跌落式熔断器后段","powerOffReason":"郭村R132线双溪口村里程配变配变增容","powerOffId":"2020031331020354"},{"poweroffId":2020031331020353,"sgpoweroffId":null,"subsName":"","lineName":"10kV里桐R153线","pubTranName":"慈溪村斗畈公变,","scope":"浙江省-杭州市-淳安县-梓桐镇-慈溪行政村-斗畈自然村","startTime":"2020-03-23 08:00:00","stopDate":"2020-03-23 12:00:00","orgNo":"3340190","typeCode":"计划停电","poweroffArea":"35kV梓桐变:里桐R153线-斗畈支线跌落式熔断器后段","poweroffReason":"里桐R153线慈溪村斗畈配变配变增容","powerTime":"2020-03-23 11:24:50","powerComm":"已送电","subsNo":"","lineNo":"","tgNo":"","tgName":null,"infoStatus":"1","orgName":"国网浙江淳安县供电有限公司","typeName":null,"infoStatusName":null,"dateDay":null,"orgNos":null,"nowTime":null,"countyName":null,"streetName":null,"villageName":null,"roadName":null,"communityName":null,"tranName":null,"sdLineName":null,"cityCode":"3340190","cityName":"国网浙江淳安县供电有限公司","provinceCode":null,"stopTime":"2020-03-23 12:00:00","powerType":"全部","powerOffArea":"35kV梓桐变:里桐R153线-斗畈支线跌落式熔断器后段","powerOffReason":"里桐R153线慈溪村斗畈配变配变增容","powerOffId":"2020031331020353"},{"poweroffId":2020031331020349,"sgpoweroffId":null,"subsName":"","lineName":"10kV鸿雁H802线","pubTranName":"西溪湿地1#路灯,","scope":"浙江省杭州市余杭区五常街道：西溪湿地1号路灯一带","startTime":"2020-03-24 09:30:00","stopDate":"2020-03-24 17:30:00","orgNo":"3340140","typeCode":"计划停电","poweroffArea":"鸿雁H802线西溪湿地1号路灯分线","poweroffReason":"业扩工程（科技城建设公司荆长大道提升改造鸿雁H802线等线路迁改工程）：九胜开关站Ⅰ段移位工作","powerTime":"2020-03-24 13:33:22","powerComm":"因施工力量充足，工作提前完成。","subsNo":"","lineNo":"","tgNo":"","tgName":null,"infoStatus":"1","orgName":"国网浙江杭州市余杭区供电有限公司","typeName":null,"infoStatusName":null,"dateDay":null,"orgNos":null,"nowTime":null,"countyName":null,"streetName":null,"villageName":null,"roadName":null,"communityName":null,"tranName":null,"sdLineName":null,"cityCode":"3340140","cityName":"国网浙江杭州市余杭区供电有限公司","provinceCode":null,"stopTime":"2020-03-24 17:30:00","powerType":"全部","powerOffArea":"鸿雁H802线西溪湿地1号路灯分线","powerOffReason":"业扩工程（科技城建设公司荆长大道提升改造鸿雁H802线等线路迁改工程）：九胜开关站Ⅰ段移位工作","powerOffId":"2020031331020349"},{"poweroffId":2020031331020344,"sgpoweroffId":null,"subsName":"","lineName":"10kV双林G942线","pubTranName":"红旗村白毛墩2号公变,","scope":"浙江省杭州市余杭区南苑街道：红旗村白毛墩一带","startTime":"2020-03-24 13:30:00","stopDate":"2020-03-24 17:30:00","orgNo":"3340140","typeCode":"计划停电","poweroffArea":"110kV亭趾变:双林G942线红旗村白毛墩2#变令克。","poweroffReason":"红旗村白毛墩2#变调换计量箱1台。","powerTime":"2020-03-24 16:08:26","powerComm":"已送电","subsNo":"","lineNo":"","tgNo":"","tgName":null,"infoStatus":"1","orgName":"国网浙江杭州市余杭区供电有限公司","typeName":null,"infoStatusName":null,"dateDay":null,"orgNos":null,"nowTime":null,"countyName":null,"streetName":null,"villageName":null,"roadName":null,"communityName":null,"tranName":null,"sdLineName":null,"cityCode":"3340140","cityName":"国网浙江杭州市余杭区供电有限公司","provinceCode":null,"stopTime":"2020-03-24 17:30:00","powerType":"全部","powerOffArea":"110kV亭趾变:双林G942线红旗村白毛墩2#变令克。","powerOffReason":"红旗村白毛墩2#变调换计量箱1台。","powerOffId":"2020031331020344"},{"poweroffId":2020031331020337,"sgpoweroffId":null,"subsName":"","lineName":"10kV双林G942线","pubTranName":"红旗村白毛墩公变,","scope":"浙江省杭州市余杭区南苑街道：红旗村白毛墩一带","startTime":"2020-03-24 08:30:00","stopDate":"2020-03-24 13:00:00","orgNo":"3340140","typeCode":"计划停电","poweroffArea":"110kV亭趾变:双林G942线红旗村白毛墩公变令克。","poweroffReason":"红旗村白毛墩公变调换计量箱1台。","powerTime":"2020-03-24 12:09:47","powerComm":"已送电","subsNo":"","lineNo":"","tgNo":"","tgName":null,"infoStatus":"1","orgName":"国网浙江杭州市余杭区供电有限公司","typeName":null,"infoStatusName":null,"dateDay":null,"orgNos":null,"nowTime":null,"countyName":null,"streetName":null,"villageName":null,"roadName":null,"communityName":null,"tranName":null,"sdLineName":null,"cityCode":"3340140","cityName":"国网浙江杭州市余杭区供电有限公司","provinceCode":null,"stopTime":"2020-03-24 13:00:00","powerType":"全部","powerOffArea":"110kV亭趾变:双林G942线红旗村白毛墩公变令克。","powerOffReason":"红旗村白毛墩公变调换计量箱1台。","powerOffId":"2020031331020337"},{"poweroffId":2020031331020325,"sgpoweroffId":null,"subsName":"","lineName":"10kV乐村H556线","pubTranName":"漕桥村小王庙公变,","scope":"浙江省杭州市余杭区径山镇：漕桥村小王庙一带","startTime":"2020-03-23 09:00:00","stopDate":"2020-03-23 15:00:00","orgNo":"3340140","typeCode":"计划停电","poweroffArea":"110kV潘板变:乐村H556线小王庙分线","poweroffReason":"计划工作","powerTime":"2020-03-23 14:06:35","powerComm":"已送电","subsNo":"","lineNo":"","tgNo":"","tgName":null,"infoStatus":"1","orgName":"国网浙江杭州市余杭区供电有限公司","typeName":null,"infoStatusName":null,"dateDay":null,"orgNos":null,"nowTime":null,"countyName":null,"streetName":null,"villageName":null,"roadName":null,"communityName":null,"tranName":null,"sdLineName":null,"cityCode":"3340140","cityName":"国网浙江杭州市余杭区供电有限公司","provinceCode":null,"stopTime":"2020-03-23 15:00:00","powerType":"全部","powerOffArea":"110kV潘板变:乐村H556线小王庙分线","powerOffReason":"计划工作","powerOffId":"2020031331020325"}],"pageModel":{"pageNow":486,"totalCount":17789,"totalPage":1779,"tableRows":0,"pageCount":10,"beginCount":4850},"isExperi":"1"}