{"message":"","today":"2020-06-15","seleList":[{"poweroffId":2020031331020132,"sgpoweroffId":null,"subsName":"","lineName":"10kV杨家T106线","pubTranName":"浮桥埠村8号公变,","scope":"浙江省-杭州市-桐庐县-桐君街道-浮桥埠行政村(公司自然村,上高岭自然村,浮桥埠自然村)","startTime":"2020-03-24 09:00:00","stopDate":"2020-03-24 12:00:00","orgNo":"3340150","typeCode":"计划停电","poweroffArea":"110kV桐庐变:杨家T106线-浮桥埠村8号公变10kV跌落式熔断器后段","poweroffReason":"浮桥埠村8号公变更换跌落式熔断器","powerTime":"2020-03-24 11:40:55","powerComm":"已送电","subsNo":"","lineNo":"","tgNo":"","tgName":null,"infoStatus":"1","orgName":"国网浙江桐庐县供电公司","typeName":null,"infoStatusName":null,"dateDay":null,"orgNos":null,"nowTime":null,"countyName":null,"streetName":null,"villageName":null,"roadName":null,"communityName":null,"tranName":null,"sdLineName":null,"cityCode":"3340150","cityName":"国网浙江桐庐县供电公司","provinceCode":null,"stopTime":"2020-03-24 12:00:00","powerType":"全部","powerOffArea":"110kV桐庐变:杨家T106线-浮桥埠村8号公变10kV跌落式熔断器后段","powerOffReason":"浮桥埠村8号公变更换跌落式熔断器","powerOffId":"2020031331020132"},{"poweroffId":2020031331020131,"sgpoweroffId":null,"subsName":"","lineName":"10kV旧县T225线","pubTranName":"娘岭坞1号公变,","scope":"浙江省-杭州市-桐庐县-旧县街道-洪儒行政村(洪儒自然村,娘岭坞自然村,)","startTime":"2020-03-25 08:00:00","stopDate":"2020-03-25 11:30:00","orgNo":"3340150","typeCode":"计划停电","poweroffArea":"35kV西武变:旧县T225线-大山F3303令克后段","poweroffReason":"1.10kV旧溪站洪儒T2253线娘岭坞支线22号杆娘岭坞1号公变100kVA增容至200kVA及低压一次电缆拆搭工作 2.10kV旧溪站洪儒T2253线娘岭坞支线22号杆娘岭坞1号公变跌落式熔断器调换及搭接工作","powerTime":"2020-03-25 11:00:31","powerComm":"已送电","subsNo":"","lineNo":"","tgNo":"","tgName":null,"infoStatus":"1","orgName":"国网浙江桐庐县供电公司","typeName":null,"infoStatusName":null,"dateDay":null,"orgNos":null,"nowTime":null,"countyName":null,"streetName":null,"villageName":null,"roadName":null,"communityName":null,"tranName":null,"sdLineName":null,"cityCode":"3340150","cityName":"国网浙江桐庐县供电公司","provinceCode":null,"stopTime":"2020-03-25 11:30:00","powerType":"全部","powerOffArea":"35kV西武变:旧县T225线-大山F3303令克后段","powerOffReason":"1.10kV旧溪站洪儒T2253线娘岭坞支线22号杆娘岭坞1号公变100kVA增容至200kVA及低压一次电缆拆搭工作 2.10kV旧溪站洪儒T2253线娘岭坞支线22号杆娘岭坞1号公变跌落式熔断器调换及搭接工作","powerOffId":"2020031331020131"},{"poweroffId":2020031331020124,"sgpoweroffId":null,"subsName":"","lineName":"10kV院士T440线","pubTranName":"锐力特制笔,桐庐县分水镇华凤塑料制品厂,晨航制笔,桐庐新天地房地产开发有限公司1#变,致远笔业,桐庐王鑫制笔厂,","scope":"浙江省-杭州市-桐庐县-分水镇-玉华社区-桐庐新天地房地产开发有限公司,分水镇-城西行政村(桐庐县分水镇华凤塑料制品厂,桐庐晨航制笔厂,桐庐致远笔业有限公司),分水镇-武盛行政村(桐庐王鑫制笔厂,桐庐锐力制笔厂)","startTime":"2020-03-27 08:30:00","stopDate":"2020-03-27 13:30:00","orgNo":"3340150","typeCode":"计划停电","poweroffArea":"110kV天英变:院士T440线-工业F4425智能开关后段","poweroffReason":"分水学府金座南侧道路电力线路移位工程","powerTime":"2020-03-27 13:14:06","powerComm":"已送电","subsNo":"","lineNo":"","tgNo":"","tgName":null,"infoStatus":"1","orgName":"国网浙江桐庐县供电公司","typeName":null,"infoStatusName":null,"dateDay":null,"orgNos":null,"nowTime":null,"countyName":null,"streetName":null,"villageName":null,"roadName":null,"communityName":null,"tranName":null,"sdLineName":null,"cityCode":"3340150","cityName":"国网浙江桐庐县供电公司","provinceCode":null,"stopTime":"2020-03-27 13:30:00","powerType":"全部","powerOffArea":"110kV天英变:院士T440线-工业F4425智能开关后段","powerOffReason":"分水学府金座南侧道路电力线路移位工程","powerOffId":"2020031331020124"},{"poweroffId":2020031331020123,"sgpoweroffId":null,"subsName":"","lineName":"10kV院士T440线","pubTranName":"桐庐峰霞制笔厂,桐庐志义模具有限公司,文苑制笔,桐庐县分水镇龙图制笔厂,启逸制笔,桐庐恒邦制笔有限公司1#变,舒畅制笔,","scope":"浙江省-杭州市-桐庐县-分水镇-城西行政村(桐庐恒邦制笔有限公司,桐庐文苑制笔有限公司),分水镇-武盛行政村(桐庐舒畅制笔厂,桐庐县分水镇启逸织带厂,桐庐志义模具有限公司,桐庐县分水镇龙图制笔厂,桐庐峰霞制笔厂)","startTime":"2020-03-27 07:30:00","stopDate":"2020-03-27 08:30:00","orgNo":"3340150","typeCode":"计划停电","poweroffArea":"110kV天英变:院士T440线-工业F4425智能开关后段","poweroffReason":"分水学府金座南侧道路电力线路移位工程","powerTime":"2020-03-27 08:13:10","powerComm":"已送电","subsNo":"","lineNo":"","tgNo":"","tgName":null,"infoStatus":"1","orgName":"国网浙江桐庐县供电公司","typeName":null,"infoStatusName":null,"dateDay":null,"orgNos":null,"nowTime":null,"countyName":null,"streetName":null,"villageName":null,"roadName":null,"communityName":null,"tranName":null,"sdLineName":null,"cityCode":"3340150","cityName":"国网浙江桐庐县供电公司","provinceCode":null,"stopTime":"2020-03-27 08:30:00","powerType":"全部","powerOffArea":"110kV天英变:院士T440线-工业F4425智能开关后段","powerOffReason":"分水学府金座南侧道路电力线路移位工程","powerOffId":"2020031331020123"},{"poweroffId":2020031331020112,"sgpoweroffId":null,"subsName":"","lineName":"10kV观潮L007线","pubTranName":"赭山村9#变,","scope":"浙江省-杭州市-萧山区-南阳街道-坞里行政村、坞里自然村,美狮西路),南阳街道-赭山社区(坝头弄,阳城路,魁星阁弄,大井弄、萧山区南阳街道一带","startTime":"2020-03-13 10:15:40","stopDate":"2020-03-13 11:35:40","orgNo":"3340130","typeCode":"电网故障停限电","poweroffArea":"35kV赭山变:观潮L007线-赭山村9#变台区低压开关","poweroffReason":"(低压停电信息) 低压漏电保护器短路故障","powerTime":"2020-03-13 10:43:56","powerComm":"已送电","subsNo":"","lineNo":"","tgNo":"","tgName":null,"infoStatus":"1","orgName":"国网浙江杭州市萧山区供电有限公司","typeName":null,"infoStatusName":null,"dateDay":null,"orgNos":null,"nowTime":null,"countyName":null,"streetName":null,"villageName":null,"roadName":null,"communityName":null,"tranName":null,"sdLineName":null,"cityCode":"3340130","cityName":"国网浙江杭州市萧山区供电有限公司","provinceCode":null,"stopTime":"2020-03-13 11:35:40","powerType":"全部","powerOffArea":"35kV赭山变:观潮L007线-赭山村9#变台区低压开关","powerOffReason":"(低压停电信息) 低压漏电保护器短路故障","powerOffId":"2020031331020112"},{"poweroffId":2020031331020111,"sgpoweroffId":null,"subsName":"","lineName":"10kV三河Y311线","pubTranName":"三河村塘坞口台区,","scope":"浙江省-杭州市-建德市-大洋镇-三河行政村 曹村源自然村,三河自然村,塘坞自然村,何坞自然村,塘坞口自然村一带用户","startTime":"2020-03-13 10:15:00","stopDate":"2020-03-13 12:20:00","orgNo":"3340180","typeCode":"电网故障停限电","poweroffArea":"35kV大洋变:三河Y311线三河村塘坞口台区配变","poweroffReason":"(低压停电信息)低压开关跳闸","powerTime":"2020-03-13 11:35:00","powerComm":"已送电","subsNo":"","lineNo":"","tgNo":"","tgName":null,"infoStatus":"1","orgName":"国网浙江建德市供电有限公司","typeName":null,"infoStatusName":null,"dateDay":null,"orgNos":null,"nowTime":null,"countyName":null,"streetName":null,"villageName":null,"roadName":null,"communityName":null,"tranName":null,"sdLineName":null,"cityCode":"3340180","cityName":"国网浙江建德市供电有限公司","provinceCode":null,"stopTime":"2020-03-13 12:20:00","powerType":"全部","powerOffArea":"35kV大洋变:三河Y311线三河村塘坞口台区配变","powerOffReason":"(低压停电信息)低压开关跳闸","powerOffId":"2020031331020111"},{"poweroffId":2020031331020088,"sgpoweroffId":null,"subsName":"","lineName":"10kV东源D339线","pubTranName":"万市村8#路前公变,","scope":"浙江省-杭州市-富阳区-万市镇-万市行政村(上陈家自然村,骆家自然村,考坎坞自然村,下陈家自然村,东源自然村,镇头自然村)","startTime":"2020-03-13 10:01:20","stopDate":"2020-03-13 11:15:20","orgNo":"3340170","typeCode":"电网故障停限电","poweroffArea":"110kV万市变:东源D339线-万市村8#路前公变后段","poweroffReason":"高压开关跳闸","powerTime":"2020-03-13 10:23:51","powerComm":"已送电","subsNo":"","lineNo":"","tgNo":"","tgName":null,"infoStatus":"1","orgName":"国网浙江杭州市富阳区供电公司","typeName":null,"infoStatusName":null,"dateDay":null,"orgNos":null,"nowTime":null,"countyName":null,"streetName":null,"villageName":null,"roadName":null,"communityName":null,"tranName":null,"sdLineName":null,"cityCode":"3340170","cityName":"国网浙江杭州市富阳区供电公司","provinceCode":null,"stopTime":"2020-03-13 11:15:20","powerType":"全部","powerOffArea":"110kV万市变:东源D339线-万市村8#路前公变后段","powerOffReason":"高压开关跳闸","powerOffId":"2020031331020088"},{"poweroffId":2020031331020057,"sgpoweroffId":null,"subsName":"","lineName":"10kV国航C147线","pubTranName":"伟南村5#变,","scope":"浙江省-杭州市-萧山区-靖江街道-伟南社区、伟神路,新港路,伟南自然村、靖江街道伟南自然村7组14户一带","startTime":"2020-03-13 08:30:30","stopDate":"2020-03-13 10:45:30","orgNo":"3340130","typeCode":"电网故障停限电","poweroffArea":"110kV梅西变:国航C147线-伟南村5#变台区低压开关","poweroffReason":"(低压停电信息)低压漏电保护器短路故障 原停电结束时间为2020-03-13 11:30:30,为减少客户停电时间,加快工作进度,提前送电,现变更停电结束时间为2020-03-13 10:45:30","powerTime":"2020-03-13 09:55:48","powerComm":"已送电","subsNo":"","lineNo":"","tgNo":"","tgName":null,"infoStatus":"1","orgName":"国网浙江杭州市萧山区供电有限公司","typeName":null,"infoStatusName":null,"dateDay":null,"orgNos":null,"nowTime":null,"countyName":null,"streetName":null,"villageName":null,"roadName":null,"communityName":null,"tranName":null,"sdLineName":null,"cityCode":"3340130","cityName":"国网浙江杭州市萧山区供电有限公司","provinceCode":null,"stopTime":"2020-03-13 10:45:30","powerType":"全部","powerOffArea":"110kV梅西变:国航C147线-伟南村5#变台区低压开关","powerOffReason":"(低压停电信息)低压漏电保护器短路故障 原停电结束时间为2020-03-13 11:30:30,为减少客户停电时间,加快工作进度,提前送电,现变更停电结束时间为2020-03-13 10:45:30","powerOffId":"2020031331020057"},{"poweroffId":2020031331020041,"sgpoweroffId":null,"subsName":"","lineName":"10kV东源D339线","pubTranName":"万市村5#骆家公变,","scope":"浙江省-杭州市-富阳区-万市镇-万市行政村(骆家自然村,上陈家自然村,镇头自然村,下陈家自然村,考坎坞自然村)","startTime":"2020-03-13 09:22:16","stopDate":"2020-03-13 11:22:16","orgNo":"3340170","typeCode":"电网故障停限电","poweroffArea":"110kV万市变:东源D339线-万市村5#骆家公变后段","poweroffReason":"高压开关跳闸","powerTime":"2020-03-13 10:01:51","powerComm":"已送电，作业人员技术较好","subsNo":"","lineNo":"","tgNo":"","tgName":null,"infoStatus":"1","orgName":"国网浙江杭州市富阳区供电公司","typeName":null,"infoStatusName":null,"dateDay":null,"orgNos":null,"nowTime":null,"countyName":null,"streetName":null,"villageName":null,"roadName":null,"communityName":null,"tranName":null,"sdLineName":null,"cityCode":"3340170","cityName":"国网浙江杭州市富阳区供电公司","provinceCode":null,"stopTime":"2020-03-13 11:22:16","powerType":"全部","powerOffArea":"110kV万市变:东源D339线-万市村5#骆家公变后段","powerOffReason":"高压开关跳闸","powerOffId":"2020031331020041"},{"poweroffId":2020031331020029,"sgpoweroffId":null,"subsName":"","lineName":"10kV东源D339线","pubTranName":"万市村9#下陈家公变,","scope":"浙江省-杭州市-富阳区-万市镇-万市行政村(上陈家自然村,骆家自然村,镇头自然村,下陈家自然村,花家自然村,陈家自然村)","startTime":"2020-03-13 08:46:31","stopDate":"2020-03-13 10:30:31","orgNo":"3340170","typeCode":"电网故障停限电","poweroffArea":"110kV万市变:东源D339线-万市村9#下陈家公变后段","poweroffReason":"高压开关跳闸","powerTime":"2020-03-13 09:23:01","powerComm":"已送电，作业人员技术较好","subsNo":"","lineNo":"","tgNo":"","tgName":null,"infoStatus":"1","orgName":"国网浙江杭州市富阳区供电公司","typeName":null,"infoStatusName":null,"dateDay":null,"orgNos":null,"nowTime":null,"countyName":null,"streetName":null,"villageName":null,"roadName":null,"communityName":null,"tranName":null,"sdLineName":null,"cityCode":"3340170","cityName":"国网浙江杭州市富阳区供电公司","provinceCode":null,"stopTime":"2020-03-13 10:30:31","powerType":"全部","powerOffArea":"110kV万市变:东源D339线-万市村9#下陈家公变后段","powerOffReason":"高压开关跳闸","powerOffId":"2020031331020029"}],"pageModel":{"pageNow":490,"totalCount":17789,"totalPage":1779,"tableRows":0,"pageCount":10,"beginCount":4890},"isExperi":"1"}