{"message":"","today":"2020-06-15","seleList":[{"poweroffId":2020031331020013,"sgpoweroffId":null,"subsName":"","lineName":"10kV横街V593线","pubTranName":"横街村[钱童大岭脚]公变,临安市钱童生军拉丝厂,横街村[钱童对家头]公变,横街村[钱童对家头2#]公变,临安万鸿表面精饰有限公司,钱童生军拉丝厂,临安市盛发电缆材料厂,横街村[钱童村中]公变,","scope":"浙江省-杭州市-临安市-锦城街道-横街行政村(钱童自然村,横街自然村);锦城街道(临安万鸿表面精饰有限公司,临安市钱童生军拉丝厂,临安市盛发电缆材料厂)","startTime":"2020-03-13 08:20:00","stopDate":"2020-03-13 10:20:00","orgNo":"3340160","typeCode":"电网故障停限电","poweroffArea":"110kV杨岭变:横街V593线钱童村分支线开关后段","poweroffReason":"高压开关跳闸","powerTime":"2020-03-13 10:01:01","powerComm":"已送电","subsNo":"","lineNo":"","tgNo":"","tgName":null,"infoStatus":"1","orgName":"国网浙江临安市供电公司","typeName":null,"infoStatusName":null,"dateDay":null,"orgNos":null,"nowTime":null,"countyName":null,"streetName":null,"villageName":null,"roadName":null,"communityName":null,"tranName":null,"sdLineName":null,"cityCode":"3340160","cityName":"国网浙江临安市供电公司","provinceCode":null,"stopTime":"2020-03-13 10:20:00","powerType":"全部","powerOffArea":"110kV杨岭变:横街V593线钱童村分支线开关后段","powerOffReason":"高压开关跳闸","powerOffId":"2020031331020013"},{"poweroffId":2020031331020012,"sgpoweroffId":null,"subsName":"","lineName":"10kV果园H403线","pubTranName":"荀山村唐家头2号公变,荀山村唐家头1号公变,良渚汽车技校,良渚遗址管委会,","scope":"浙江省-杭州市-余杭区-良渚街道-荀山行政村-荀山自然村;良渚街道(杭州市余杭区良渚镇人民政府,杭州交投机动车驾驶员培训有限公司)","startTime":"2020-03-13 08:19:00","stopDate":"2020-03-13 10:40:00","orgNo":"3340140","typeCode":"电网故障停限电","poweroffArea":"35kV良渚变:果园H403线汽校分线开关后段","poweroffReason":"高压开关跳闸 原停电结束时间为2020-03-13 10:19:00,因现场情况复杂原因,现变更停电结束时间为2020-03-13 10:40:00","powerTime":"2020-03-13 10:20:00","powerComm":"已送电","subsNo":"","lineNo":"","tgNo":"","tgName":null,"infoStatus":"1","orgName":"国网浙江杭州市余杭区供电有限公司","typeName":null,"infoStatusName":null,"dateDay":null,"orgNos":null,"nowTime":null,"countyName":null,"streetName":null,"villageName":null,"roadName":null,"communityName":null,"tranName":null,"sdLineName":null,"cityCode":"3340140","cityName":"国网浙江杭州市余杭区供电有限公司","provinceCode":null,"stopTime":"2020-03-13 10:40:00","powerType":"全部","powerOffArea":"35kV良渚变:果园H403线汽校分线开关后段","powerOffReason":"高压开关跳闸 原停电结束时间为2020-03-13 10:19:00,因现场情况复杂原因,现变更停电结束时间为2020-03-13 10:40:00","powerOffId":"2020031331020012"},{"poweroffId":2020031331020003,"sgpoweroffId":null,"subsName":"","lineName":"10kV新竹园H712线","pubTranName":"鸿恰科技2#,义桥村西杨梅岭公变,义桥农居点基建1#,义桥村路灯,义桥村黄泥岭公变,鸿恰科技1#,南运河纸箱,竹园村路灯变,竹园村舟枕电管站公变,余杭街道（竹园村终点站）临时变,竹园村壬子弄公变,竹园村盛弄公变,义桥农居点基建3#,义桥村郎宅五组公变,义桥村舟枕农机厂公变,绿恒塑料,上湖村严家弄西公变,义桥农居点基建2#,舟枕小学400,润泰水泥,古力园林正式变,天宝蚕种(2),路凯摩擦,义桥村周家岭公变,","scope":"浙江省-杭州市-余杭区-余杭街道-竹园行政村(竹园自然村,壬子弄自然村),余杭街道-上湖行政村(安山自然村,上湖自然村),余杭街道-义桥行政村(新和自然村,义桥自然村,王家山自然村,郎宅自然村,王家台门自然村);余杭街道-义桥行政村(杭州三和纺织助剂有限公司,杭州南运河包装有限公司,杭州余杭义桥股份经济合作社,杭州余杭区余杭镇绿恒塑料制品厂,杭州路凯摩擦材料有限公司,杭州鸿恰科技有限公司,杭州市余杭区舟枕小学,杭州古力园林机械有限公司,杭州市余杭区人民政府余杭街道办事处),余杭街道(上湖行政村-杭州余杭区余杭街道润泰水泥制品厂,竹园行政村-杭州市余杭区人民政府余杭街道办事处)","startTime":"2020-03-13 07:16:32","stopDate":"2020-03-13 09:16:32","orgNo":"3340140","typeCode":"电网故障停限电","poweroffArea":"110kV余杭临时变:新竹园H712线-长岗H7066开关后段","poweroffReason":"高压开关跳闸","powerTime":"2020-03-13 08:34:43","powerComm":"已送电","subsNo":"","lineNo":"","tgNo":"","tgName":null,"infoStatus":"1","orgName":"国网浙江杭州市余杭区供电有限公司","typeName":null,"infoStatusName":null,"dateDay":null,"orgNos":null,"nowTime":null,"countyName":null,"streetName":null,"villageName":null,"roadName":null,"communityName":null,"tranName":null,"sdLineName":null,"cityCode":"3340140","cityName":"国网浙江杭州市余杭区供电有限公司","provinceCode":null,"stopTime":"2020-03-13 09:16:32","powerType":"全部","powerOffArea":"110kV余杭临时变:新竹园H712线-长岗H7066开关后段","powerOffReason":"高压开关跳闸","powerOffId":"2020031331020003"},{"poweroffId":2020031331020001,"sgpoweroffId":null,"subsName":"","lineName":"10kV学田T107线","pubTranName":"桐君广场2号公变,","scope":"浙江省-杭州市-桐庐县-桐君街道-迎春社区-广场路,桐君街道-东门社区(天目路,广场路,开元街,桐君广场3号楼)","startTime":"2020-03-13 01:12:25","stopDate":"2020-03-13 03:12:25","orgNo":"3340150","typeCode":"电网故障停限电","poweroffArea":"110kV桐庐变:学田T107线-桐君广场2号公变后段","poweroffReason":"(低压停电信息)低压开关跳闸","powerTime":"2020-03-13 03:00:46","powerComm":"已送电","subsNo":"","lineNo":"","tgNo":"","tgName":null,"infoStatus":"1","orgName":"国网浙江桐庐县供电公司","typeName":null,"infoStatusName":null,"dateDay":null,"orgNos":null,"nowTime":null,"countyName":null,"streetName":null,"villageName":null,"roadName":null,"communityName":null,"tranName":null,"sdLineName":null,"cityCode":"3340150","cityName":"国网浙江桐庐县供电公司","provinceCode":null,"stopTime":"2020-03-13 03:12:25","powerType":"全部","powerOffArea":"110kV桐庐变:学田T107线-桐君广场2号公变后段","powerOffReason":"(低压停电信息)低压开关跳闸","powerOffId":"2020031331020001"},{"poweroffId":2020031231020212,"sgpoweroffId":null,"subsName":"","lineName":"10kV久峰C955线","pubTranName":"浦南村2#变,","scope":"浙江省-杭州市-萧山区-临浦镇-浦南行政村-田头庄自然村，浙江省杭州市萧山区玲铺镇天恩建材等一带","startTime":"2020-03-12 22:50:50","stopDate":"2020-03-13 01:15:50","orgNo":"3340130","typeCode":"电网故障停限电","poweroffArea":"110kV永兴变:久峰C955线-浦南村2#变台区低压开关","poweroffReason":"(低压停电信息)低压架空线断线故障 原停电结束时间为2020-03-13 03:28:50,为减少客户停电时间,加快工作进度,提前送电,现变更停电结束时间为2020-03-13 01:15:50","powerTime":"2020-03-13 00:35:58","powerComm":"已送电","subsNo":"","lineNo":"","tgNo":"","tgName":null,"infoStatus":"1","orgName":"国网浙江杭州市萧山区供电有限公司","typeName":null,"infoStatusName":null,"dateDay":null,"orgNos":null,"nowTime":null,"countyName":null,"streetName":null,"villageName":null,"roadName":null,"communityName":null,"tranName":null,"sdLineName":null,"cityCode":"3340130","cityName":"国网浙江杭州市萧山区供电有限公司","provinceCode":null,"stopTime":"2020-03-13 01:15:50","powerType":"全部","powerOffArea":"110kV永兴变:久峰C955线-浦南村2#变台区低压开关","powerOffReason":"(低压停电信息)低压架空线断线故障 原停电结束时间为2020-03-13 03:28:50,为减少客户停电时间,加快工作进度,提前送电,现变更停电结束时间为2020-03-13 01:15:50","powerOffId":"2020031231020212"},{"poweroffId":2020031231020188,"sgpoweroffId":null,"subsName":"","lineName":"10kV长浪0037线","pubTranName":"长红村3#变,","scope":"浙江省-杭州市-萧山区-义蓬街道-长红行政村-长红自然村一带","startTime":"2020-03-12 18:02:00","stopDate":"2020-03-12 20:02:00","orgNo":"3340120","typeCode":"电网故障停限电","poweroffArea":"110kV白浪变:长浪0037线长红村3#变配变","poweroffReason":"(低压停电信息)低压开关跳闸","powerTime":"2020-03-12 19:23:59","powerComm":"已送电","subsNo":"","lineNo":"","tgNo":"","tgName":null,"infoStatus":"1","orgName":"国网浙江杭州市钱塘新区供电公司","typeName":null,"infoStatusName":null,"dateDay":null,"orgNos":null,"nowTime":null,"countyName":null,"streetName":null,"villageName":null,"roadName":null,"communityName":null,"tranName":null,"sdLineName":null,"cityCode":"3340120","cityName":"国网浙江杭州市钱塘新区供电公司","provinceCode":null,"stopTime":"2020-03-12 20:02:00","powerType":"全部","powerOffArea":"110kV白浪变:长浪0037线长红村3#变配变","powerOffReason":"(低压停电信息)低压开关跳闸","powerOffId":"2020031231020188"},{"poweroffId":2020031231020166,"sgpoweroffId":null,"subsName":"","lineName":"10kV上喻T570线","pubTranName":"上喻村2号公变,","scope":"浙江省-杭州市-桐庐县-凤川街道-园林行政村-上喻自然村","startTime":"2020-03-12 15:39:17","stopDate":"2020-03-12 16:39:17","orgNo":"3340150","typeCode":"电网故障停限电","poweroffArea":"110kV旺家变:上喻T570线-上喻村2号公变后段","poweroffReason":"(低压停电信息)低压开关跳闸","powerTime":"2020-03-12 16:30:38","powerComm":"已送电","subsNo":"","lineNo":"","tgNo":"","tgName":null,"infoStatus":"1","orgName":"国网浙江桐庐县供电公司","typeName":null,"infoStatusName":null,"dateDay":null,"orgNos":null,"nowTime":null,"countyName":null,"streetName":null,"villageName":null,"roadName":null,"communityName":null,"tranName":null,"sdLineName":null,"cityCode":"3340150","cityName":"国网浙江桐庐县供电公司","provinceCode":null,"stopTime":"2020-03-12 16:39:17","powerType":"全部","powerOffArea":"110kV旺家变:上喻T570线-上喻村2号公变后段","powerOffReason":"(低压停电信息)低压开关跳闸","powerOffId":"2020031231020166"},{"poweroffId":2020031231020126,"sgpoweroffId":null,"subsName":"","lineName":"10kV锻造C334线","pubTranName":"勇建村7#变,","scope":"浙江省-杭州市-萧山区-瓜沥镇-勇建行政村(塘上街,勇建自然村)","startTime":"2020-03-20 08:30:00","stopDate":"2020-03-20 13:50:00","orgNo":"3340130","typeCode":"计划停电","poweroffArea":"110kV沿塘变:锻造C334线-勇建村7#变后段","poweroffReason":"锻造C334线34#杆勇建村7#变下250kVA上400kVA更换低压综合配电箱1台跌落式熔断器开关1套 原停电结束时间为2020-03-20 16:30:00,由于计划工作提前完成，现变更停电结束时间为2020-03-20 13:50:00","powerTime":"2020-03-20 13:04:37","powerComm":"已送电","subsNo":"","lineNo":"","tgNo":"","tgName":null,"infoStatus":"1","orgName":"国网浙江杭州市萧山区供电有限公司","typeName":null,"infoStatusName":null,"dateDay":null,"orgNos":null,"nowTime":null,"countyName":null,"streetName":null,"villageName":null,"roadName":null,"communityName":null,"tranName":null,"sdLineName":null,"cityCode":"3340130","cityName":"国网浙江杭州市萧山区供电有限公司","provinceCode":null,"stopTime":"2020-03-20 13:50:00","powerType":"全部","powerOffArea":"110kV沿塘变:锻造C334线-勇建村7#变后段","powerOffReason":"锻造C334线34#杆勇建村7#变下250kVA上400kVA更换低压综合配电箱1台跌落式熔断器开关1套 原停电结束时间为2020-03-20 16:30:00,由于计划工作提前完成，现变更停电结束时间为2020-03-20 13:50:00","powerOffId":"2020031231020126"},{"poweroffId":2020031231020125,"sgpoweroffId":null,"subsName":"","lineName":"10kV塘上C793线","pubTranName":"勇建村1#变,","scope":"浙江省-杭州市-萧山区-瓜沥镇-勇建行政村(衙党公路,勇建自然村)","startTime":"2020-03-20 08:30:00","stopDate":"2020-03-20 16:30:00","orgNo":"3340130","typeCode":"计划停电","poweroffArea":"35kV坎山变:塘上C793线-勇建村1#变后段","poweroffReason":"塘上C793线93/08#杆勇建村1#变下250kVA上400kVA，更换低压综合配电箱1台、跌落式熔断器开关1套（需带电作业配合）","powerTime":"2020-03-20 15:32:02","powerComm":"已送电","subsNo":"","lineNo":"","tgNo":"","tgName":null,"infoStatus":"1","orgName":"国网浙江杭州市萧山区供电有限公司","typeName":null,"infoStatusName":null,"dateDay":null,"orgNos":null,"nowTime":null,"countyName":null,"streetName":null,"villageName":null,"roadName":null,"communityName":null,"tranName":null,"sdLineName":null,"cityCode":"3340130","cityName":"国网浙江杭州市萧山区供电有限公司","provinceCode":null,"stopTime":"2020-03-20 16:30:00","powerType":"全部","powerOffArea":"35kV坎山变:塘上C793线-勇建村1#变后段","powerOffReason":"塘上C793线93/08#杆勇建村1#变下250kVA上400kVA，更换低压综合配电箱1台、跌落式熔断器开关1套（需带电作业配合）","powerOffId":"2020031231020125"},{"poweroffId":2020031231020121,"sgpoweroffId":null,"subsName":"","lineName":"10kV湾里T414线","pubTranName":"杭州墨臣文化艺术有限公司,桐庐康尔医疗器械厂,","scope":"浙江省-杭州市-桐庐县-城南街道-梅林社区-桐庐康尔医疗器械有限公司","startTime":"2020-03-26 07:00:00","stopDate":"2020-03-26 07:30:00","orgNo":"3340150","typeCode":"计划停电","poweroffArea":"110kV枫塘变:湾里T414线-桐庐康尔医疗器械厂后段;湾里T414线-墨臣0799线后段","poweroffReason":"(低压停电信息)发电车保供电接入","powerTime":"2020-03-26 07:27:57","powerComm":"已送电","subsNo":"","lineNo":"","tgNo":"","tgName":null,"infoStatus":"1","orgName":"国网浙江桐庐县供电公司","typeName":null,"infoStatusName":null,"dateDay":null,"orgNos":null,"nowTime":null,"countyName":null,"streetName":null,"villageName":null,"roadName":null,"communityName":null,"tranName":null,"sdLineName":null,"cityCode":"3340150","cityName":"国网浙江桐庐县供电公司","provinceCode":null,"stopTime":"2020-03-26 07:30:00","powerType":"全部","powerOffArea":"110kV枫塘变:湾里T414线-桐庐康尔医疗器械厂后段;湾里T414线-墨臣0799线后段","powerOffReason":"(低压停电信息)发电车保供电接入","powerOffId":"2020031231020121"}],"pageModel":{"pageNow":491,"totalCount":17789,"totalPage":1779,"tableRows":0,"pageCount":10,"beginCount":4900},"isExperi":"1"}