{"message":"","today":"2020-06-15","seleList":[{"poweroffId":2020031131020124,"sgpoweroffId":null,"subsName":"","lineName":"10kV黎明A338线","pubTranName":"宏图实业,","scope":"浙江省-杭州市-萧山区-靖江街道-黎明社区-杭州弘图实业有限公司","startTime":"2020-03-19 13:00:00","stopDate":"2020-03-19 17:00:00","orgNo":"3340130","typeCode":"计划停电","poweroffArea":"110kV靖江变:黎明A338线-宏图实业后段","poweroffReason":"配合黎明A338线44/B03#杆令克更换开关 原停电结束时间为2020-03-19 17:30:00,为减少客户停电时间,加快工作进度,提前送电,现变更停电结束时间为2020-03-19 17:00:00","powerTime":"2020-03-19 16:04:54","powerComm":"已送电","subsNo":"","lineNo":"","tgNo":"","tgName":null,"infoStatus":"1","orgName":"国网浙江杭州市萧山区供电有限公司","typeName":null,"infoStatusName":null,"dateDay":null,"orgNos":null,"nowTime":null,"countyName":null,"streetName":null,"villageName":null,"roadName":null,"communityName":null,"tranName":null,"sdLineName":null,"cityCode":"3340130","cityName":"国网浙江杭州市萧山区供电有限公司","provinceCode":null,"stopTime":"2020-03-19 17:00:00","powerType":"全部","powerOffArea":"110kV靖江变:黎明A338线-宏图实业后段","powerOffReason":"配合黎明A338线44/B03#杆令克更换开关 原停电结束时间为2020-03-19 17:30:00,为减少客户停电时间,加快工作进度,提前送电,现变更停电结束时间为2020-03-19 17:00:00","powerOffId":"2020031131020124"},{"poweroffId":2020031131020120,"sgpoweroffId":null,"subsName":"","lineName":"10kV瓷厂C405线","pubTranName":"金帝高科技广场1#公变,浙江金帝物业服务有限公司商业1#,浙江萧山农村合作银行高新支行,金帝高科技广场3#公变,","scope":"浙江省-杭州市-萧山区-北干街道-金山西苑社区-山阴路;北干街道-北干一苑社区(浙江萧山农村商业银行股份有限公司,杭州中野传媒有限公司)","startTime":"2020-03-19 08:30:00","stopDate":"2020-03-19 10:30:00","orgNo":"3340130","typeCode":"计划停电","poweroffArea":"110kV湘湖变:瓷厂C405线-时代超市后段","poweroffReason":"农商行电气改造配合停电","powerTime":"2020-03-19 09:43:42","powerComm":"已送电","subsNo":"","lineNo":"","tgNo":"","tgName":null,"infoStatus":"1","orgName":"国网浙江杭州市萧山区供电有限公司","typeName":null,"infoStatusName":null,"dateDay":null,"orgNos":null,"nowTime":null,"countyName":null,"streetName":null,"villageName":null,"roadName":null,"communityName":null,"tranName":null,"sdLineName":null,"cityCode":"3340130","cityName":"国网浙江杭州市萧山区供电有限公司","provinceCode":null,"stopTime":"2020-03-19 10:30:00","powerType":"全部","powerOffArea":"110kV湘湖变:瓷厂C405线-时代超市后段","powerOffReason":"农商行电气改造配合停电","powerOffId":"2020031131020120"},{"poweroffId":2020031131020119,"sgpoweroffId":null,"subsName":"","lineName":"10kV国美C770线","pubTranName":"浙江金帝物业服务有限公司商业2#,","scope":"浙江省-杭州市-萧山区-北干街道-北干一苑社区-杭州中野传媒有限公司","startTime":"2020-03-19 08:30:00","stopDate":"2020-03-19 10:30:00","orgNo":"3340130","typeCode":"计划停电","poweroffArea":"110kV通惠变:国美C770线-中星分线后段","poweroffReason":"农商行电气改造配合停电","powerTime":"2020-03-19 09:43:26","powerComm":"已送电","subsNo":"","lineNo":"","tgNo":"","tgName":null,"infoStatus":"1","orgName":"国网浙江杭州市萧山区供电有限公司","typeName":null,"infoStatusName":null,"dateDay":null,"orgNos":null,"nowTime":null,"countyName":null,"streetName":null,"villageName":null,"roadName":null,"communityName":null,"tranName":null,"sdLineName":null,"cityCode":"3340130","cityName":"国网浙江杭州市萧山区供电有限公司","provinceCode":null,"stopTime":"2020-03-19 10:30:00","powerType":"全部","powerOffArea":"110kV通惠变:国美C770线-中星分线后段","powerOffReason":"农商行电气改造配合停电","powerOffId":"2020031131020119"},{"poweroffId":2020031131020086,"sgpoweroffId":null,"subsName":"","lineName":"10kV贤德D333线","pubTranName":"大溪村11#大坞何家公变,","scope":"浙江省-杭州市-富阳区-洞桥镇-大溪行政村(方家自然村,姚宅自然村,毛山上自然村,大坞方家自然村,大坞自然村,岭落坞自然村,俞家山自然村,大坞何家自然村,堰头自然村)","startTime":"2020-03-11 12:42:40","stopDate":"2020-03-11 13:42:40","orgNo":"3340170","typeCode":"电网故障停限电","poweroffArea":"110kV万市变:贤德D333线-大溪村11#大坞何家公变后段","poweroffReason":"(低压停电信息)低压开关跳闸","powerTime":"2020-03-11 13:33:46","powerComm":"已送电","subsNo":"","lineNo":"","tgNo":"","tgName":null,"infoStatus":"1","orgName":"国网浙江杭州市富阳区供电公司","typeName":null,"infoStatusName":null,"dateDay":null,"orgNos":null,"nowTime":null,"countyName":null,"streetName":null,"villageName":null,"roadName":null,"communityName":null,"tranName":null,"sdLineName":null,"cityCode":"3340170","cityName":"国网浙江杭州市富阳区供电公司","provinceCode":null,"stopTime":"2020-03-11 13:42:40","powerType":"全部","powerOffArea":"110kV万市变:贤德D333线-大溪村11#大坞何家公变后段","powerOffReason":"(低压停电信息)低压开关跳闸","powerOffId":"2020031131020086"},{"poweroffId":2020031131020057,"sgpoweroffId":null,"subsName":"","lineName":"10kV生态C253线","pubTranName":"李家村7#变,","scope":"浙江省-杭州市-萧山区-所前镇-李家行政村(大小坞自然村,下闻自然村)一带","startTime":"2020-03-11 10:25:25","stopDate":"2020-03-11 12:05:25","orgNo":"3340130","typeCode":"电网故障停限电","poweroffArea":"110kV所前变:生态C253线-李家村7#变后段","poweroffReason":"（低压停电信息）低压漏电保护器短路故障","powerTime":"2020-03-11 11:07:26","powerComm":"已送电","subsNo":"","lineNo":"","tgNo":"","tgName":null,"infoStatus":"1","orgName":"国网浙江杭州市萧山区供电有限公司","typeName":null,"infoStatusName":null,"dateDay":null,"orgNos":null,"nowTime":null,"countyName":null,"streetName":null,"villageName":null,"roadName":null,"communityName":null,"tranName":null,"sdLineName":null,"cityCode":"3340130","cityName":"国网浙江杭州市萧山区供电有限公司","provinceCode":null,"stopTime":"2020-03-11 12:05:25","powerType":"全部","powerOffArea":"110kV所前变:生态C253线-李家村7#变后段","powerOffReason":"（低压停电信息）低压漏电保护器短路故障","powerOffId":"2020031131020057"},{"poweroffId":2020031131020052,"sgpoweroffId":null,"subsName":"","lineName":"10kV俞赵T121线","pubTranName":"上泗3号公变,","scope":"浙江省-杭州市-桐庐县-富春江镇-上四行政村-上四自然村","startTime":"2020-03-11 09:54:01","stopDate":"2020-03-11 13:30:01","orgNo":"3340150","typeCode":"电网故障停限电","poweroffArea":"110kV外董变:俞赵T121线-上泗3号公变后段","poweroffReason":"(低压停电信息)低压开关跳闸","powerTime":"2020-03-11 13:14:10","powerComm":"已送电","subsNo":"","lineNo":"","tgNo":"","tgName":null,"infoStatus":"1","orgName":"国网浙江桐庐县供电公司","typeName":null,"infoStatusName":null,"dateDay":null,"orgNos":null,"nowTime":null,"countyName":null,"streetName":null,"villageName":null,"roadName":null,"communityName":null,"tranName":null,"sdLineName":null,"cityCode":"3340150","cityName":"国网浙江桐庐县供电公司","provinceCode":null,"stopTime":"2020-03-11 13:30:01","powerType":"全部","powerOffArea":"110kV外董变:俞赵T121线-上泗3号公变后段","powerOffReason":"(低压停电信息)低压开关跳闸","powerOffId":"2020031131020052"},{"poweroffId":2020031131020022,"sgpoweroffId":null,"subsName":"","lineName":"10kV留泗8856线","pubTranName":"龙坎六变,","scope":"浙江省杭州市西湖区龙门坎村杨家外里61号、67号、68号-1附近一带","startTime":"2020-03-18 10:00:00","stopDate":"2020-03-18 12:00:00","orgNo":"3340101","typeCode":"计划停电","poweroffArea":"110kV留下变:留泗8856线-龙坎六变后段","poweroffReason":"(低压停电信息)2.转塘街道龙门坎村杨家外里61号增容","powerTime":"2020-03-18 11:45:45","powerComm":"已送电","subsNo":"","lineNo":"","tgNo":"","tgName":null,"infoStatus":"1","orgName":"浙江杭州电力客户服务中心","typeName":null,"infoStatusName":null,"dateDay":null,"orgNos":null,"nowTime":null,"countyName":null,"streetName":null,"villageName":null,"roadName":null,"communityName":null,"tranName":null,"sdLineName":null,"cityCode":"3340101","cityName":"浙江杭州电力客户服务中心","provinceCode":null,"stopTime":"2020-03-18 12:00:00","powerType":"全部","powerOffArea":"110kV留下变:留泗8856线-龙坎六变后段","powerOffReason":"(低压停电信息)2.转塘街道龙门坎村杨家外里61号增容","powerOffId":"2020031131020022"},{"poweroffId":2020031131020005,"sgpoweroffId":null,"subsName":"","lineName":"10kV桐浦D844线","pubTranName":"渌渚环境能源1#变,渌渚环境能源2#变,山亚村3#上港公变,山亚村上畈1#戚家公变,山亚村2#新村公变,山亚村1#俞家公变,杭州富阳巨润混凝土有限公司2#变,杭州富阳富顺活性钙有限公司1#变,阆坞村汪家1#洪家岭公变,阆坞村大同4#村委公变,富阳市渌渚镇山亚村村民委员会,阆坞村阆港1#桥里公变,杭州富阳巨润混凝土有限公司6#变,杭州富阳巨润混凝土有限公司4#变,阆坞村阆港2号孙家公变,山亚村6#凌家公变,杭州富阳富顺活性钙有限公司2#变,杭州富阳巨润混凝土有限公司1#变,中国石化销售有限公司浙江杭州石油分公司,杭州富阳巨润混凝土有限公司3#变,富顺活性钙2#变,山亚村上畈2#新村公变,富阳市山亚制砂有限公司,富阳长奇生物科技有限公司,富阳市渌渚镇迎军制砂厂,阆坞村大同1#邵家公变,岘口村7#金家公变,阆坞村大同3#新村公变,中铁十二局山亚村1#变,富阳市渌渚镇山亚村村民委员会,新港村港东2#新村公变,岘口村1#徐家公变,杭州富阳巨润混凝土有限公司5#变,新港村港东3号村委公变,杭州富阳兴峰碳酸钙有限公司,富阳市渌渚大同石英砂二厂,阆坞村汪家2#公变,中铁十二局山亚路南1#变,新港村港东1#将台山公变,山亚村5#麻山公变,","scope":"浙江省-杭州市-富阳区-渌渚镇-山亚行政村(俞家自然村,山亚新村自然村,上畈新村自然村,上港自然村,戚家自然村,麻山自然村,凌徐自然村),渌渚镇-新港行政村(港东新村自然村,将台山自然村,村委自然村),渌渚镇-阆坞行政村(汪家自然村,汪家洪家岭自然村,大同邵家自然村,大同吕家自然村,阆港桥里自然村,阆港孙家自然村,大同新村自然村,大同村委自然村),渌渚镇-岘口行政村(金家自然村,邵家自然村,徐家自然村);渌渚镇(富阳市渌渚镇山亚村村民委员会,杭州富阳兴峰碳酸钙有限公司,富阳市山亚制砂有限公司,富阳市渌渚大同石英砂二厂,中铁十二局集团有限公司,杭州富阳长奇生物科技有限公司,杭州富阳迎军实业有限公司,中国石化销售股份有限公司浙江杭州石油分公司,杭州富阳路顺建材有限公司,杭州富阳富顺活性钙有限公司,杭州富阳渌渚环境能源有限公司,杭州富阳巨润混凝土有限公司)","startTime":"2020-03-11 06:04:00","stopDate":"2020-03-11 08:30:00","orgNo":"3340170","typeCode":"电网故障停限电","poweroffArea":"110kV新桐变:桐浦D844线桐浦D8444开关后段","poweroffReason":"高压开关跳闸","powerTime":"2020-03-11 07:47:08","powerComm":"已送电","subsNo":"","lineNo":"","tgNo":"","tgName":null,"infoStatus":"1","orgName":"国网浙江杭州市富阳区供电公司","typeName":null,"infoStatusName":null,"dateDay":null,"orgNos":null,"nowTime":null,"countyName":null,"streetName":null,"villageName":null,"roadName":null,"communityName":null,"tranName":null,"sdLineName":null,"cityCode":"3340170","cityName":"国网浙江杭州市富阳区供电公司","provinceCode":null,"stopTime":"2020-03-11 08:30:00","powerType":"全部","powerOffArea":"110kV新桐变:桐浦D844线桐浦D8444开关后段","powerOffReason":"高压开关跳闸","powerOffId":"2020031131020005"},{"poweroffId":2020031131020004,"sgpoweroffId":null,"subsName":"","lineName":"10kV桐浦D844线","pubTranName":"中国石化销售有限公司浙江杭州石油分公司,","scope":"浙江省-杭州市-富阳区-渌渚镇-中国石化销售股份有限公司浙江杭州石油分公司","startTime":"2020-03-11 06:06:11","stopDate":"2020-03-11 08:30:11","orgNo":"3340170","typeCode":"电网故障停限电","poweroffArea":"110kV新桐变:桐浦D844线中国石化销售有限公司浙江杭州石油分公司中国石化销售有限公司浙江杭州石油分公司配变","poweroffReason":"高压开关跳闸","powerTime":"2020-03-11 07:47:29","powerComm":"已送电","subsNo":"","lineNo":"","tgNo":"","tgName":null,"infoStatus":"1","orgName":"国网浙江杭州市富阳区供电公司","typeName":null,"infoStatusName":null,"dateDay":null,"orgNos":null,"nowTime":null,"countyName":null,"streetName":null,"villageName":null,"roadName":null,"communityName":null,"tranName":null,"sdLineName":null,"cityCode":"3340170","cityName":"国网浙江杭州市富阳区供电公司","provinceCode":null,"stopTime":"2020-03-11 08:30:11","powerType":"全部","powerOffArea":"110kV新桐变:桐浦D844线中国石化销售有限公司浙江杭州石油分公司中国石化销售有限公司浙江杭州石油分公司配变","powerOffReason":"高压开关跳闸","powerOffId":"2020031131020004"},{"poweroffId":2020031131020003,"sgpoweroffId":null,"subsName":"","lineName":"10kV海德H333线","pubTranName":"海德公寓8#公变,海德公寓1#公变,万家之星1#公变,海德公寓10#公变,金澳置业6120830254I段1#专变,运河小学（6120816044）1#变,海德公寓9#公变,海德公寓7#公变,海德公寓2#公变,运河小学（6120816044）1#变,万家之星3#公变,运河二期I段(6120913539)01#专变,海德公寓3#公变,1#,运河二期I段(6120913539)03#专变,万家之星4#公变,万家之星2#公变,海德公寓4#公变,","scope":"浙江省-杭州市-余杭区-良渚街道-运河行政村(郁宅路,运河自然村),良渚街道-勾庄行政村(勾庄街道,吴王自然村,沈港塘自然村,沈家塘自然村,勾庄自然村),良渚街道(良渚行政村-良渚自然村,东塘河行政村-孟家湾自然村,行宫塘行政村-行宫塘自然村,万年桥社区-良运街,铭雅社区-郁宅路,谢村行政村-锦江路);良渚街道(勾庄行政村-盛全物业服务股份有限公司杭州分公司,谢村行政村-杭州滨江物业管理有限公司,运河行政村-杭州市余杭区良渚杭行路小学,吴家厍行政村-杭州良渚文化城集团有限公司)","startTime":"2020-03-11 02:06:35","stopDate":"2020-03-11 05:00:00","orgNo":"3340140","typeCode":"电网故障停限电","poweroffArea":"110kV长桥变:海德H333线","poweroffReason":"高压开关跳闸 原停电结束时间为2020-03-11 08:00:00,为减少客户停电时间,加快工作进度,提前送电,现变更停电结束时间为2020-03-11 05:00:00","powerTime":"2020-03-11 04:10:40","powerComm":"已送电","subsNo":"","lineNo":"","tgNo":"","tgName":null,"infoStatus":"1","orgName":"国网浙江杭州市余杭区供电有限公司","typeName":null,"infoStatusName":null,"dateDay":null,"orgNos":null,"nowTime":null,"countyName":null,"streetName":null,"villageName":null,"roadName":null,"communityName":null,"tranName":null,"sdLineName":null,"cityCode":"3340140","cityName":"国网浙江杭州市余杭区供电有限公司","provinceCode":null,"stopTime":"2020-03-11 05:00:00","powerType":"全部","powerOffArea":"110kV长桥变:海德H333线","powerOffReason":"高压开关跳闸 原停电结束时间为2020-03-11 08:00:00,为减少客户停电时间,加快工作进度,提前送电,现变更停电结束时间为2020-03-11 05:00:00","powerOffId":"2020031131020003"}],"pageModel":{"pageNow":494,"totalCount":17789,"totalPage":1779,"tableRows":0,"pageCount":10,"beginCount":4930},"isExperi":"1"}