{"message":"","today":"2020-06-15","seleList":[{"poweroffId":2020031031020051,"sgpoweroffId":null,"subsName":"","lineName":"10kV所前C636线","pubTranName":"杭州振球工业有限公司,1#主变,杭州耶鲁实业有限公司,杭州皇鼎五金有限公司,杭州萧山宏源汽车修配厂,杭州萧山宏源汽车修配厂,杭州汇诚实业有限公司,杭州萧山元通纸制品厂,杭州萧山精工铝业有限公司,1#,杭州耀江包装材料有限公司,杭州萧山南江五金喷塑有限公司1#,杭州申卯实业有限公司,杭州澳飞丝工艺品有限公司,杭州爱龙金属制品有限公司,中策电气有限公司,浙江涤锦塑染有限公司2#,浙江厚恩智能科技有限公司,通二村10#变,杭州宝顺塑业有限公司,杭州萧山高峰制钉厂,杭州萧山力神浸塑工艺品厂﹙普通合伙﹚,通二村9#变,2#,杭州杭发信诚实业有限公司,杭州宏升塑胶有限公司(通二),通二村3#变,通二村14#变,杭州江发塑料五金厂,杭州骁麟车业有限公司,杭州东松电源电器有限公司,杭州萧山南江五金喷塑有限公司2#,杭州大度体育用品有限公司,浙江涤锦塑染有限公司,杭州由企画门业有限公司,浙江金鹭集团装饰有限公司,","scope":"浙江省-杭州市-萧山区-临浦镇-塘郎孙行政村-塘郎孙自然村,临浦镇-通二行政村(通二自然村,庙前上段自然村,瓦窑金自然村,庙前下段自然村);临浦镇-塘郎孙行政村(浙江瑞翔钢品科技有限公司,杭州申卯实业有限公司,杭州萧山宏源汽车修配厂,杭州鼎琦机械有限公司,杭州大度体育用品有限公司,杭州骁麟车业有限公司,杭州高军金属制品有限公司,杭州萧山南江五金喷塑有限公司,杭州皇鼎五金有限公司),临浦镇-通二行政村(杭州杭发信诚实业有限公司,杭州爱龙金属制品有限公司,杭州澳飞丝工艺品有限公司,杭州萧山元通纸制品厂(普通合伙),浙江涤锦塑染有限公司,浙江金鹭集团装饰有限公司,杭州汇诚实业有限公司,杭州江发塑料五金厂,杭州由企画木业有限公司,永通中策电缆有限公司,杭州耀江包装材料有限公司,杭州振球工业有限公司),临浦镇-苎萝行政村(杭州耶鲁实业有限公司,浙江厚恩智能科技有限公司),临浦镇-通一行政村(宏升塑胶(杭州)有限公司,杭州萧山精工铝业有限公司,杭州萧山力神浸塑工艺品厂﹙普通合伙﹚,杭州东松电源电器有限公司),临浦镇(浦南行政村-浙江省交通投资集团有限公司杭金衢分公司,临北路-杭州萧山宏源汽车修配厂)一带","startTime":"2020-03-10 09:47:51","stopDate":"2020-03-10 11:47:51","orgNo":"3340130","typeCode":"电网故障停限电","poweroffArea":"110kV临浦变:所前C636线-所前C6361开关后段","poweroffReason":"高压开关跳闸","powerTime":"2020-03-10 10:56:32","powerComm":"已送电","subsNo":"","lineNo":"","tgNo":"","tgName":null,"infoStatus":"1","orgName":"国网浙江杭州市萧山区供电有限公司","typeName":null,"infoStatusName":null,"dateDay":null,"orgNos":null,"nowTime":null,"countyName":null,"streetName":null,"villageName":null,"roadName":null,"communityName":null,"tranName":null,"sdLineName":null,"cityCode":"3340130","cityName":"国网浙江杭州市萧山区供电有限公司","provinceCode":null,"stopTime":"2020-03-10 11:47:51","powerType":"全部","powerOffArea":"110kV临浦变:所前C636线-所前C6361开关后段","powerOffReason":"高压开关跳闸","powerOffId":"2020031031020051"},{"poweroffId":2020031031020050,"sgpoweroffId":null,"subsName":"","lineName":"10kV苎东C260线","pubTranName":"杭州名扬天纸业有限公司,杭州奥雪机械有限公司,萧山区临浦镇第三小学,通二村1#变,1#,通二村5#变,杭州海天管业有限公司,杭州萧山精诚五金有限公司,通二村2#变,变压器,杭州百炼机械有限公司,杭州安达机械有限公司,杭州建大机械有限公司,通二村12#变,通二村8#变,2#,2#,通二村6#变,杭州萧山昌盛电动车辆配件厂,杭州萧山污水处理有限公司,通二村7#变,杭州泛亚休闲用品有限公司,杭州新金龟机械有限公司,杭州婉饰琳姚氏家纺有限公司,杭州市萧山区临浦镇经济贸易局,1#,杭州民华金属制品有限公司,杭州萧山金峰机械制造厂,杭州婉饰琳姚氏家纺有限公司2#变压器,杭州市萧山区临浦镇人民政府,杭州守岛轴承有限公司,变压器,杭州婉饰琳姚氏家纺有限公司,杭州振球工业有限公司,通二村4#变,浙江聚淼复合面料有限公司,杭州建大机械有限公司,希孟实业(杭州)有限公司,通二村13#变,","scope":"浙江省-杭州市-萧山区-临浦镇-塘郎孙行政村(塘郎孙自然村,赵家塘自然村),临浦镇-通二行政村(柳家自然村,通二自然村,庙前下段自然村,湾里童自然村,下坞自然村,青山张自然村,瓦窑金自然村,后徐自然村,庙前上段自然村);浙江省-杭州市-萧山区-所前镇-三泉王行政村-杭州敏德科技有限公司,临浦镇-通二行政村(杭州千岛拓新进出口有限公司,杭州振球工业有限公司,杭州市萧山区临浦镇人民政府,杭州萧山精诚五金有限公司,杭州奥雪机械有限公司,杭州新金龟机械有限公司,杭州萧山金峰机械制造厂,杭州铭通电气有限公司,杭州萧山污水处理有限公司,杭州建大机械有限公司,萧山区临浦镇第三小学,杭州海天管业有限公司,希孟实业(杭州)有限公司,杭州名扬天纸业有限公司,杭州中浙四通包装科技有限公司,杭州柏金车业配件有限公司,杭州百炼机械有限公司,浙江聚淼复合面料有限公司),临浦镇-通一行政村(杭州慧富物流有限公司,杭州格仕玛实业有限公司,杭州安达机械有限公司,杭州守岛轴承有限公司),临浦镇(苎萝行政村-杭州泛亚休闲用品有限公司,塘郎孙行政村-杭州市萧山区临浦镇经济贸易局)，浙江省杭州市萧山区临浦镇通二行政村一带","startTime":"2020-03-10 09:44:24","stopDate":"2020-03-10 11:46:24","orgNo":"3340130","typeCode":"电网故障停限电","poweroffArea":"110kV所前变:苎东C260线开关后段","poweroffReason":"高压柱上断路器短路故障","powerTime":"2020-03-10 10:52:08","powerComm":"已送电","subsNo":"","lineNo":"","tgNo":"","tgName":null,"infoStatus":"1","orgName":"国网浙江杭州市萧山区供电有限公司","typeName":null,"infoStatusName":null,"dateDay":null,"orgNos":null,"nowTime":null,"countyName":null,"streetName":null,"villageName":null,"roadName":null,"communityName":null,"tranName":null,"sdLineName":null,"cityCode":"3340130","cityName":"国网浙江杭州市萧山区供电有限公司","provinceCode":null,"stopTime":"2020-03-10 11:46:24","powerType":"全部","powerOffArea":"110kV所前变:苎东C260线开关后段","powerOffReason":"高压柱上断路器短路故障","powerOffId":"2020031031020050"},{"poweroffId":2020030931020181,"sgpoweroffId":null,"subsName":"","lineName":"10kV东辉T373线","pubTranName":"后河村1号公变,","scope":"浙江省-杭州市-桐庐县-百江镇-后河行政村-后河自然村。","startTime":"2020-03-09 21:08:35","stopDate":"2020-03-09 22:08:35","orgNo":"3340150","typeCode":"电网故障停限电","poweroffArea":"110kV百江变:东辉T373线-后河村1号公变后段","poweroffReason":"高压开关跳闸 原停电结束时间为2020-03-09 23:08:35,为减少客户停电时间,加快工作进度,提前送电,现变更停电结束时间为2020-03-09 22:08:35","powerTime":"2020-03-09 21:50:22","powerComm":"已送电","subsNo":"","lineNo":"","tgNo":"","tgName":null,"infoStatus":"1","orgName":"国网浙江桐庐县供电公司","typeName":null,"infoStatusName":null,"dateDay":null,"orgNos":null,"nowTime":null,"countyName":null,"streetName":null,"villageName":null,"roadName":null,"communityName":null,"tranName":null,"sdLineName":null,"cityCode":"3340150","cityName":"国网浙江桐庐县供电公司","provinceCode":null,"stopTime":"2020-03-09 22:08:35","powerType":"全部","powerOffArea":"110kV百江变:东辉T373线-后河村1号公变后段","powerOffReason":"高压开关跳闸 原停电结束时间为2020-03-09 23:08:35,为减少客户停电时间,加快工作进度,提前送电,现变更停电结束时间为2020-03-09 22:08:35","powerOffId":"2020030931020181"},{"poweroffId":2020030931020180,"sgpoweroffId":null,"subsName":"","lineName":"10kV上戴C248线","pubTranName":"2#,杭州兴建墙体材料有限公司,苎东村4#变,苎东村7#变,2#,杭州越菱金属制品有限公司,苎东村1#变,1#,杭州萧山石岩建筑工程有限公司,浙江昇大节能建材科技有限公司,变压器,杭州钰友精密机械有限公司,杭州润旺纺织有限公司,杭州森祥机械有限公司2#,杭州临峰液化气有限公司,苎东村8#变,杭州环习实睿铝制品有限公司,杭州东坤机械有限公司1#,苎东村6#变,3#,杭州东坤机械有限公司2#,杭州虎牛节能设备有限公司,苎东村10#变,苎东村5#变,杭州萧山通用电缆材料有限公司,杭州浦源机械有限公司1#,杭州大天数控机床有限公司,苎东村2#变,苎东村3#变,苎东村12#变,杭州森祥机械有限公司1#,杭州明辉玻璃有限公司,浙江圣大幕墙工程有限公司配电变压器,杭州德嘉汽车部件有限公司,苎东村9#变,","scope":"浙江省-杭州市-萧山区-临浦镇-苎东行政村(邱家桥自然村,庄里王自然村,汀联自然村,汀头沈自然村,汀头王自然村);所前镇-杭州明辉玻璃有限公司,临浦镇(浙江昇大节能建材科技有限公司,杭州临峰液化气有限公司,杭州大天数控机床有限公司,浙江新跃舞台工程有限公司,杭州兴建墙体材料有限公司,杭州萧山通用电缆材料有限公司,杭州钰友精密机械有限公司,杭州萧山石岩建筑工程有限公司,杭州越菱金属制品有限公司,杭州东坤机械有限公司,杭州立车机械厂,杭州臻斓新材料有限公司,杭州森祥机械有限公司,杭州环习实睿铝制品有限公司,杭州虎牛节能设备有限公司,杭州浦源机械有限公司)等一带","startTime":"2020-03-09 20:47:00","stopDate":"2020-03-09 21:47:00","orgNo":"3340130","typeCode":"电网故障停限电","poweroffArea":"110kV所前变:上戴C248线上戴C2481开关后段","poweroffReason":"高压柱上断路器短路故障","powerTime":"2020-03-09 21:19:56","powerComm":"已送电","subsNo":"","lineNo":"","tgNo":"","tgName":null,"infoStatus":"1","orgName":"国网浙江杭州市萧山区供电有限公司","typeName":null,"infoStatusName":null,"dateDay":null,"orgNos":null,"nowTime":null,"countyName":null,"streetName":null,"villageName":null,"roadName":null,"communityName":null,"tranName":null,"sdLineName":null,"cityCode":"3340130","cityName":"国网浙江杭州市萧山区供电有限公司","provinceCode":null,"stopTime":"2020-03-09 21:47:00","powerType":"全部","powerOffArea":"110kV所前变:上戴C248线上戴C2481开关后段","powerOffReason":"高压柱上断路器短路故障","powerOffId":"2020030931020180"},{"poweroffId":2020030931020176,"sgpoweroffId":null,"subsName":"","lineName":"10kV城山C635线","pubTranName":"杭州大观起重机械有限公司,通一村4#变,杭州臻达汽车维修有限公司,杭州华旭运动器材有限公司,通一村5#变,杭州三志紧固件轴承有限公司1#,通一村9#变,杭州市萧山区萧南老年护理中心,杭州市萧山区临浦镇人民政府,塘郎孙3#变,塘郎孙2#变,杭州凯誉装饰材料有限公司,杭州恩域机械有限公司,苎萝村8#变,杭州萧山嘉年华服装有限公司,杭州龙辰家纺有限公司,塘郎孙8#变,塘郎孙6#变,塘郎孙9#变,变压器,杭州萧山烟草机械设备有限公司,杭州佳硕包装制品有限公司,杭州市萧山区临浦镇人民政府,杭州唐潮食品有限公司,杭州宏鹏五金工具有限公司2#,杭州萧山广通电信器材厂,杭州正元齿轮制造有限公司,杭州宏鹏五金工具有限公司1#,塘郎孙1#变,2#,杭州萧山临浦镇钧凯机械厂,杭州百晨食品有限公司,杭州国恒电器有限公司,杭州埃洛圣工艺箱包有限公司,杭州正友汽车部件有限公司,浙江恒诺家具有限公司,1#,杭州田力机械厂,","scope":"浙江省-杭州市-萧山区-临浦镇-塘郎孙行政村(河西屠自然村,老屋屠自然村,塘郎孙自然村,道四房自然村,新屋屠自然村,孔家自然村,赵家塘自然村),临浦镇-通一行政村(后沈自然村,通一村),临浦镇(苎萝行政村-木汀徐自然村,通二行政村-通二自然村);浙江省-杭州市-萧山区-所前镇-三泉王行政村-杭州正元齿轮制造有限公司,临浦镇-塘郎孙行政村(杭州市萧山区临浦镇人民政府,杭州大观起重机械有限公司,杭州百晨食品有限公司,杭州田力机械厂,杭州宏鹏实业有限公司,杭州三志紧固件轴承有限公司,杭州恩域机械有限公司,杭州市萧山区萧南老年护理中心),临浦镇-通二行政村(浙江恒诺家具有限公司,杭州中旭金属制品有限公司,杭州凯誉装饰材料有限公司,杭州华凌纺织有限公司),临浦镇-通一行政村(杭州臻达汽车维修有限公司,杭州唐潮食品有限公司,杭州萧山烟草机械设备有限公司,杭州萧山嘉年华服装有限公司,杭州国恒电器有限公司,杭州龙辰家纺有限公司,杭州萧山广通电信器材厂,杭州正友汽车部件有限公司,杭州佳硕包装制品有限公司,杭州埃洛圣工艺箱包有限公司)等一带","startTime":"2020-03-09 20:39:45","stopDate":"2020-03-09 21:39:45","orgNo":"3340130","typeCode":"电网故障停限电","poweroffArea":"110kV临浦变:城山C635线-城山C6351开关后段","poweroffReason":"高压柱上断路器短路故障","powerTime":"2020-03-09 21:19:42","powerComm":"已送电","subsNo":"","lineNo":"","tgNo":"","tgName":null,"infoStatus":"1","orgName":"国网浙江杭州市萧山区供电有限公司","typeName":null,"infoStatusName":null,"dateDay":null,"orgNos":null,"nowTime":null,"countyName":null,"streetName":null,"villageName":null,"roadName":null,"communityName":null,"tranName":null,"sdLineName":null,"cityCode":"3340130","cityName":"国网浙江杭州市萧山区供电有限公司","provinceCode":null,"stopTime":"2020-03-09 21:39:45","powerType":"全部","powerOffArea":"110kV临浦变:城山C635线-城山C6351开关后段","powerOffReason":"高压柱上断路器短路故障","powerOffId":"2020030931020176"},{"poweroffId":2020030931020170,"sgpoweroffId":null,"subsName":"","lineName":"10kV洋塘T101线","pubTranName":"洋塘新村1号公变,","scope":"浙江省-杭州市-桐庐县-桐君街道-洋塘社区-洋塘新村小区一带。","startTime":"2020-03-09 18:21:34","stopDate":"2020-03-09 20:21:34","orgNo":"3340150","typeCode":"电网故障停限电","poweroffArea":"110kV桐庐变:洋塘T101线-洋塘新村1号公变后段","poweroffReason":"(低压停电信息)低压开关跳闸","powerTime":"2020-03-09 19:52:03","powerComm":"已送电","subsNo":"","lineNo":"","tgNo":"","tgName":null,"infoStatus":"1","orgName":"国网浙江桐庐县供电公司","typeName":null,"infoStatusName":null,"dateDay":null,"orgNos":null,"nowTime":null,"countyName":null,"streetName":null,"villageName":null,"roadName":null,"communityName":null,"tranName":null,"sdLineName":null,"cityCode":"3340150","cityName":"国网浙江桐庐县供电公司","provinceCode":null,"stopTime":"2020-03-09 20:21:34","powerType":"全部","powerOffArea":"110kV桐庐变:洋塘T101线-洋塘新村1号公变后段","powerOffReason":"(低压停电信息)低压开关跳闸","powerOffId":"2020030931020170"},{"poweroffId":2020030931020144,"sgpoweroffId":null,"subsName":"","lineName":"10kV东关Y122线","pubTranName":"梅城集镇镇政府公变,","scope":"浙江省-杭州市-建德市-梅城镇-总府社区 双桂坊路,市民路,总府后街,府前街,总府街一带用户","startTime":"2020-03-09 15:05:00","stopDate":"2020-03-09 17:05:00","orgNo":"3340180","typeCode":"电网故障停限电","poweroffArea":"110kV梅城变:东关Y122线-梅城集镇镇政府公变后段","poweroffReason":"(低压停电信息)低压开关跳闸","powerTime":"2020-03-09 16:21:00","powerComm":"已送电（实际为客户内部故障）","subsNo":"","lineNo":"","tgNo":"","tgName":null,"infoStatus":"1","orgName":"国网浙江建德市供电有限公司","typeName":null,"infoStatusName":null,"dateDay":null,"orgNos":null,"nowTime":null,"countyName":null,"streetName":null,"villageName":null,"roadName":null,"communityName":null,"tranName":null,"sdLineName":null,"cityCode":"3340180","cityName":"国网浙江建德市供电有限公司","provinceCode":null,"stopTime":"2020-03-09 17:05:00","powerType":"全部","powerOffArea":"110kV梅城变:东关Y122线-梅城集镇镇政府公变后段","powerOffReason":"(低压停电信息)低压开关跳闸","powerOffId":"2020030931020144"},{"poweroffId":2020030931020138,"sgpoweroffId":null,"subsName":"","lineName":"10kV庆丰A459线","pubTranName":"庆丰村8#变,","scope":"浙江省-杭州市-萧山区-党湾镇-庆丰行政村-庆丰自然村","startTime":"2020-03-17 08:30:00","stopDate":"2020-03-17 14:30:00","orgNo":"3340130","typeCode":"计划停电","poweroffArea":"110kV幸福变:庆丰A459线-庆丰村8#变后段","poweroffReason":"庆丰A459线湾东开湾永A459线20#杆庆丰村8#变160kVA增容至400kVA（需带电作业配合）","powerTime":"2020-03-17 14:06:34","powerComm":"已送电","subsNo":"","lineNo":"","tgNo":"","tgName":null,"infoStatus":"1","orgName":"国网浙江杭州市萧山区供电有限公司","typeName":null,"infoStatusName":null,"dateDay":null,"orgNos":null,"nowTime":null,"countyName":null,"streetName":null,"villageName":null,"roadName":null,"communityName":null,"tranName":null,"sdLineName":null,"cityCode":"3340130","cityName":"国网浙江杭州市萧山区供电有限公司","provinceCode":null,"stopTime":"2020-03-17 14:30:00","powerType":"全部","powerOffArea":"110kV幸福变:庆丰A459线-庆丰村8#变后段","powerOffReason":"庆丰A459线湾东开湾永A459线20#杆庆丰村8#变160kVA增容至400kVA（需带电作业配合）","powerOffId":"2020030931020138"},{"poweroffId":2020030931020137,"sgpoweroffId":null,"subsName":"","lineName":"10kV勤联A461线","pubTranName":"先锋村10#变,","scope":"浙江省-杭州市-萧山区-党湾镇(庆丰行政村-庆丰自然村,先锋行政村-先锋自然村,勤联行政村-勤联自然村)","startTime":"2020-03-17 08:30:00","stopDate":"2020-03-17 14:30:00","orgNo":"3340130","typeCode":"计划停电","poweroffArea":"110kV幸福变:勤联A461线-先锋村10#变后段","poweroffReason":"勤联A461线34#杆先锋村10#变200kVA增容至400kVA（需带电作业配合）","powerTime":"2020-03-17 13:56:08","powerComm":"已送电","subsNo":"","lineNo":"","tgNo":"","tgName":null,"infoStatus":"1","orgName":"国网浙江杭州市萧山区供电有限公司","typeName":null,"infoStatusName":null,"dateDay":null,"orgNos":null,"nowTime":null,"countyName":null,"streetName":null,"villageName":null,"roadName":null,"communityName":null,"tranName":null,"sdLineName":null,"cityCode":"3340130","cityName":"国网浙江杭州市萧山区供电有限公司","provinceCode":null,"stopTime":"2020-03-17 14:30:00","powerType":"全部","powerOffArea":"110kV幸福变:勤联A461线-先锋村10#变后段","powerOffReason":"勤联A461线34#杆先锋村10#变200kVA增容至400kVA（需带电作业配合）","powerOffId":"2020030931020137"},{"poweroffId":2020030931020133,"sgpoweroffId":null,"subsName":"","lineName":"10kV严家V175线","pubTranName":"10kV横塘村[横塘荷花塘]公变,","scope":"浙江省-杭州市-临安市-天目山镇-横塘行政村(横塘自然村,方塘自然村)","startTime":"2020-03-20 13:00:00","stopDate":"2020-03-20 17:00:00","orgNo":"3340160","typeCode":"计划停电","poweroffArea":"35kV藻溪变严家V175线113#杆荷花塘分线令克","poweroffReason":"配变增容 原停电结束时间为2020-03-20 16:00:00,因缺陷处理原因,现变更停电结束时间为2020-03-20 17:00:00","powerTime":"2020-03-20 16:50:09","powerComm":"已送电","subsNo":"","lineNo":"","tgNo":"","tgName":null,"infoStatus":"1","orgName":"国网浙江临安市供电公司","typeName":null,"infoStatusName":null,"dateDay":null,"orgNos":null,"nowTime":null,"countyName":null,"streetName":null,"villageName":null,"roadName":null,"communityName":null,"tranName":null,"sdLineName":null,"cityCode":"3340160","cityName":"国网浙江临安市供电公司","provinceCode":null,"stopTime":"2020-03-20 17:00:00","powerType":"全部","powerOffArea":"35kV藻溪变严家V175线113#杆荷花塘分线令克","powerOffReason":"配变增容 原停电结束时间为2020-03-20 16:00:00,因缺陷处理原因,现变更停电结束时间为2020-03-20 17:00:00","powerOffId":"2020030931020133"}],"pageModel":{"pageNow":496,"totalCount":17789,"totalPage":1779,"tableRows":0,"pageCount":10,"beginCount":4950},"isExperi":"1"}