{"message":"","today":"2020-06-15","seleList":[{"poweroffId":2020030931020132,"sgpoweroffId":null,"subsName":"","lineName":"10kV武山V299线","pubTranName":"10kV月亮桥村[泗部陈家]公变,","scope":"浙江省-杭州市-临安区-天目山镇-月亮桥泗部陈家一带","startTime":"2020-03-20 08:30:00","stopDate":"2020-03-20 11:00:00","orgNo":"3340160","typeCode":"计划停电","poweroffArea":"停35kV西天目变武山V299线63#杆陈家分线令克","poweroffReason":"配变增容","powerTime":"2020-03-20 10:50:17","powerComm":"已送电","subsNo":"","lineNo":"","tgNo":"","tgName":null,"infoStatus":"1","orgName":"国网浙江临安市供电公司","typeName":null,"infoStatusName":null,"dateDay":null,"orgNos":null,"nowTime":null,"countyName":null,"streetName":null,"villageName":null,"roadName":null,"communityName":null,"tranName":null,"sdLineName":null,"cityCode":"3340160","cityName":"国网浙江临安市供电公司","provinceCode":null,"stopTime":"2020-03-20 11:00:00","powerType":"全部","powerOffArea":"停35kV西天目变武山V299线63#杆陈家分线令克","powerOffReason":"配变增容","powerOffId":"2020030931020132"},{"poweroffId":2020030931020131,"sgpoweroffId":null,"subsName":"","lineName":"10kV严家V175线","pubTranName":"10kV杲村村[蔡山昌家坞]公变,","scope":"浙江省-杭州市-临安市-天目山镇-杲村行政村(蔡山自然村,杲村自然村),天目山镇(横塘行政村-方塘自然村,严家行政村-严家自然村)","startTime":"2020-03-18 08:30:00","stopDate":"2020-03-18 11:30:00","orgNo":"3340160","typeCode":"计划停电","poweroffArea":"35kV藻溪变:严家V175线-10kV杲村村[蔡山昌家坞]公变横塘口2000线闸刀","poweroffReason":"开关改造","powerTime":"2020-03-18 11:20:14","powerComm":"已送电","subsNo":"","lineNo":"","tgNo":"","tgName":null,"infoStatus":"1","orgName":"国网浙江临安市供电公司","typeName":null,"infoStatusName":null,"dateDay":null,"orgNos":null,"nowTime":null,"countyName":null,"streetName":null,"villageName":null,"roadName":null,"communityName":null,"tranName":null,"sdLineName":null,"cityCode":"3340160","cityName":"国网浙江临安市供电公司","provinceCode":null,"stopTime":"2020-03-18 11:30:00","powerType":"全部","powerOffArea":"35kV藻溪变:严家V175线-10kV杲村村[蔡山昌家坞]公变横塘口2000线闸刀","powerOffReason":"开关改造","powerOffId":"2020030931020131"},{"poweroffId":2020030931020129,"sgpoweroffId":null,"subsName":"","lineName":"10kV上召V177线","pubTranName":"10kV桂芳桥村[平越村]公变,","scope":"浙江省-杭州市-临安市-天目山镇-桂芳桥行政村平越村一带","startTime":"2020-03-16 08:30:00","stopDate":"2020-03-16 14:30:00","orgNo":"3340160","typeCode":"临时停电","poweroffArea":"停35kV藻溪变上召V177线10kV桂芳桥村[平越村]公变低压闸刀","poweroffReason":"低压改造","powerTime":"2020-03-16 14:20:06","powerComm":"已送电","subsNo":"","lineNo":"","tgNo":"","tgName":null,"infoStatus":"1","orgName":"国网浙江临安市供电公司","typeName":null,"infoStatusName":null,"dateDay":null,"orgNos":null,"nowTime":null,"countyName":null,"streetName":null,"villageName":null,"roadName":null,"communityName":null,"tranName":null,"sdLineName":null,"cityCode":"3340160","cityName":"国网浙江临安市供电公司","provinceCode":null,"stopTime":"2020-03-16 14:30:00","powerType":"全部","powerOffArea":"停35kV藻溪变上召V177线10kV桂芳桥村[平越村]公变低压闸刀","powerOffReason":"低压改造","powerOffId":"2020030931020129"},{"poweroffId":2020030931020128,"sgpoweroffId":null,"subsName":"","lineName":"10kV南水H587线","pubTranName":"农兴路商铺A区1#公变,农兴路商铺A区2#公变,","scope":"浙江省杭州市余杭区良渚街道：商业街A区1号公bian及商业街A区2号公bian一带","startTime":"2020-03-17 08:40:00","stopDate":"2020-03-17 20:40:00","orgNo":"3340140","typeCode":"计划停电","poweroffArea":"110kV南庄变:南水H587线-商业街A区分线后段","poweroffReason":"水产开关站I段调换老旧开关柜，配电自动改造","powerTime":"2020-03-17 19:44:50","powerComm":"已送电","subsNo":"","lineNo":"","tgNo":"","tgName":null,"infoStatus":"1","orgName":"国网浙江杭州市余杭区供电有限公司","typeName":null,"infoStatusName":null,"dateDay":null,"orgNos":null,"nowTime":null,"countyName":null,"streetName":null,"villageName":null,"roadName":null,"communityName":null,"tranName":null,"sdLineName":null,"cityCode":"3340140","cityName":"国网浙江杭州市余杭区供电有限公司","provinceCode":null,"stopTime":"2020-03-17 20:40:00","powerType":"全部","powerOffArea":"110kV南庄变:南水H587线-商业街A区分线后段","powerOffReason":"水产开关站I段调换老旧开关柜，配电自动改造","powerOffId":"2020030931020128"},{"poweroffId":2020030931020126,"sgpoweroffId":null,"subsName":"","lineName":"10kV大吉H476线","pubTranName":"金家渡南苑西3号公变,","scope":"浙江省杭州市余杭区良渚街道：金家渡中苑西区一带","startTime":"2020-03-18 14:00:00","stopDate":"2020-03-18 16:00:00","orgNo":"3340140","typeCode":"计划停电","poweroffArea":"110kV金渡变:大吉H476线-金家渡南苑西3号公变后段","poweroffReason":"金家渡南苑西3号公变（地埋变）加装保护装置","powerTime":"2020-03-18 15:02:40","powerComm":"已送电","subsNo":"","lineNo":"","tgNo":"","tgName":null,"infoStatus":"1","orgName":"国网浙江杭州市余杭区供电有限公司","typeName":null,"infoStatusName":null,"dateDay":null,"orgNos":null,"nowTime":null,"countyName":null,"streetName":null,"villageName":null,"roadName":null,"communityName":null,"tranName":null,"sdLineName":null,"cityCode":"3340140","cityName":"国网浙江杭州市余杭区供电有限公司","provinceCode":null,"stopTime":"2020-03-18 16:00:00","powerType":"全部","powerOffArea":"110kV金渡变:大吉H476线-金家渡南苑西3号公变后段","powerOffReason":"金家渡南苑西3号公变（地埋变）加装保护装置","powerOffId":"2020030931020126"},{"poweroffId":2020030931020125,"sgpoweroffId":null,"subsName":"","lineName":"10kV大吉H476线","pubTranName":"金家渡中苑东3号公变,","scope":"浙江省杭州市余杭区良渚街道：金家渡中苑东区一带","startTime":"2020-03-18 11:40:00","stopDate":"2020-03-18 13:40:00","orgNo":"3340140","typeCode":"计划停电","poweroffArea":"110kV金渡变:大吉H476线-金家渡中苑东3号公变后段","poweroffReason":"金家渡中苑东3号公变（地埋变）加装保护装置","powerTime":"2020-03-18 12:42:16","powerComm":"已送电","subsNo":"","lineNo":"","tgNo":"","tgName":null,"infoStatus":"1","orgName":"国网浙江杭州市余杭区供电有限公司","typeName":null,"infoStatusName":null,"dateDay":null,"orgNos":null,"nowTime":null,"countyName":null,"streetName":null,"villageName":null,"roadName":null,"communityName":null,"tranName":null,"sdLineName":null,"cityCode":"3340140","cityName":"国网浙江杭州市余杭区供电有限公司","provinceCode":null,"stopTime":"2020-03-18 13:40:00","powerType":"全部","powerOffArea":"110kV金渡变:大吉H476线-金家渡中苑东3号公变后段","powerOffReason":"金家渡中苑东3号公变（地埋变）加装保护装置","powerOffId":"2020030931020125"},{"poweroffId":2020030931020124,"sgpoweroffId":null,"subsName":"","lineName":"10kV铭雅H428线","pubTranName":"金家渡中苑西3号公变,","scope":"浙江省杭州市余杭区良渚街道：金家渡中苑西区一带","startTime":"2020-03-18 08:30:00","stopDate":"2020-03-18 10:40:00","orgNo":"3340140","typeCode":"计划停电","poweroffArea":"110kV勾庄变:铭雅H428线-金家渡中苑西3号公变分线后段","poweroffReason":"金家渡中苑西3号公变（地埋变）加装保护装置","powerTime":"2020-03-18 09:42:39","powerComm":"已送电","subsNo":"","lineNo":"","tgNo":"","tgName":null,"infoStatus":"1","orgName":"国网浙江杭州市余杭区供电有限公司","typeName":null,"infoStatusName":null,"dateDay":null,"orgNos":null,"nowTime":null,"countyName":null,"streetName":null,"villageName":null,"roadName":null,"communityName":null,"tranName":null,"sdLineName":null,"cityCode":"3340140","cityName":"国网浙江杭州市余杭区供电有限公司","provinceCode":null,"stopTime":"2020-03-18 10:40:00","powerType":"全部","powerOffArea":"110kV勾庄变:铭雅H428线-金家渡中苑西3号公变分线后段","powerOffReason":"金家渡中苑西3号公变（地埋变）加装保护装置","powerOffId":"2020030931020124"},{"poweroffId":2020030931020105,"sgpoweroffId":null,"subsName":"","lineName":"10kV苎东C260线","pubTranName":"杭州振球工业有限公司,变压器,杭州萧山金峰机械制造厂,1#,杭州泛亚休闲用品有限公司,通二村13#变,杭州萧山昌盛电动车辆配件厂,杭州市萧山区临浦镇经济贸易局,通二村7#变,通二村1#变,通二村5#变,杭州民华金属制品有限公司,杭州守岛轴承有限公司,杭州百炼机械有限公司,杭州萧山污水处理有限公司,萧山区临浦镇第三小学,杭州新金龟机械有限公司,杭州海天管业有限公司,杭州市萧山区临浦镇人民政府,通二村8#变,2#,杭州萧山精诚五金有限公司,杭州婉饰琳姚氏家纺有限公司,杭州婉饰琳姚氏家纺有限公司,通二村4#变,杭州建大机械有限公司,1#,杭州安达机械有限公司,通二村12#变,希孟实业(杭州)有限公司,通二村6#变,变压器,通二村2#变,杭州名扬天纸业有限公司,杭州婉饰琳姚氏家纺有限公司2#变压器,杭州建大机械有限公司,浙江聚淼复合面料有限公司,2#,杭州奥雪机械有限公司,","scope":"浙江省-杭州市-萧山区-临浦镇-塘郎孙行政村(塘郎孙自然村,赵家塘自然村),临浦镇-通二行政村(柳家自然村,通二自然村,庙前下段自然村,湾里童自然村,下坞自然村,青山张自然村,瓦窑金自然村,后徐自然村,庙前上段自然村);所前镇-杭州敏德科技有限公司,临浦镇(杭州千岛拓新进出口有限公司,杭州振球工业有限公司,杭州泛亚休闲用品有限公司,杭州市萧山区临浦镇人民政府,杭州慧富物流有限公司,杭州萧山精诚五金有限公司,杭州奥雪机械有限公司,杭州新金龟机械有限公司,杭州萧山金峰机械制造厂,杭州铭通电气有限公司,杭州市萧山区临浦镇经济贸易局,杭州萧山污水处理有限公司,杭州建大机械有限公司,萧山区临浦镇第三小学,杭州海天管业有限公司,杭州格仕玛实业有限公司,杭州安达机械有限公司,希孟实业(杭州)有限公司,杭州名扬天纸业有限公司,杭州守岛轴承有限公司,杭州中浙四通包装科技有限公司,杭州柏金车业配件有限公司,杭州百炼机械有限公司,浙江聚淼复合面料有限公司)等一带","startTime":"2020-03-09 13:15:00","stopDate":"2020-03-09 14:00:00","orgNo":"3340130","typeCode":"电网故障停限电","poweroffArea":"110kV所前变:苎东C260线苎东C2602开关后段","poweroffReason":"高压柱上断路器短路故障 原停电结束时间为2020-03-09 15:15:00,为减少客户停电时间,加快工作进度,提前送电,现变更停电结束时间为2020-03-09 14:00:00","powerTime":"2020-03-09 13:53:31","powerComm":"已送电","subsNo":"","lineNo":"","tgNo":"","tgName":null,"infoStatus":"1","orgName":"国网浙江杭州市萧山区供电有限公司","typeName":null,"infoStatusName":null,"dateDay":null,"orgNos":null,"nowTime":null,"countyName":null,"streetName":null,"villageName":null,"roadName":null,"communityName":null,"tranName":null,"sdLineName":null,"cityCode":"3340130","cityName":"国网浙江杭州市萧山区供电有限公司","provinceCode":null,"stopTime":"2020-03-09 14:00:00","powerType":"全部","powerOffArea":"110kV所前变:苎东C260线苎东C2602开关后段","powerOffReason":"高压柱上断路器短路故障 原停电结束时间为2020-03-09 15:15:00,为减少客户停电时间,加快工作进度,提前送电,现变更停电结束时间为2020-03-09 14:00:00","powerOffId":"2020030931020105"},{"poweroffId":2020030931020104,"sgpoweroffId":null,"subsName":"","lineName":"10kV农校H413线","pubTranName":"施家湾社区良电3#公变,良渚街道二公变,苏宁电器,施家湾社区集镇公变,施家湾社区集镇2号公变,良渚供电营业所,","scope":"浙江省-杭州市-余杭区-良渚街道-西塘河行政村(老104国道,丁公自然村,中潘塘自然村),良渚街道-杜城行政村(前山自然村,杜城自然村),良渚街道-良渚行政村(仰家塘自然村,良博路,玉管路,玉琮路,良渚路,良港路),良渚街道-纤石行政村(上纤埠自然村,沈家门自然村),良渚街道-新港行政村(塘东自然村,三合自然村),良渚街道-施家湾社区(玉管路,良博路,玉琮路,良渚路,良港路),良渚街道-大陆行政村(歌罗桥自然村,冯家桥自然村),良渚街道-石桥行政村(小桥自然村,石桥自然村),良渚街道-安溪行政村(新港村,下溪自然村),良渚街道-崇福社区(崇福村,顾家埠村),良渚街道(荀山行政村-荀山自然村,东莲行政村-屠家坝自然村,杜甫行政村-杜甫自然村,北秀社区-东西大道,安溪街道地块-安溪街道,良渚文化村社区-勾良路,勾庄行政村-沈港塘自然村);良渚街道-浙江苏宁易购商贸有限公司","startTime":"2020-03-09 13:05:00","stopDate":"2020-03-09 15:00:00","orgNo":"3340140","typeCode":"电网故障停限电","poweroffArea":"35kV良渚变:农校H413线集镇分线开关后段","poweroffReason":"高压开关跳闸 原停电结束时间为2020-03-09 16:05:00,为减少客户停电时间,加快工作进度,提前送电,现变更停电结束时间为2020-03-09 15:00:00","powerTime":"2020-03-09 14:33:58","powerComm":"已送电","subsNo":"","lineNo":"","tgNo":"","tgName":null,"infoStatus":"1","orgName":"国网浙江杭州市余杭区供电有限公司","typeName":null,"infoStatusName":null,"dateDay":null,"orgNos":null,"nowTime":null,"countyName":null,"streetName":null,"villageName":null,"roadName":null,"communityName":null,"tranName":null,"sdLineName":null,"cityCode":"3340140","cityName":"国网浙江杭州市余杭区供电有限公司","provinceCode":null,"stopTime":"2020-03-09 15:00:00","powerType":"全部","powerOffArea":"35kV良渚变:农校H413线集镇分线开关后段","powerOffReason":"高压开关跳闸 原停电结束时间为2020-03-09 16:05:00,为减少客户停电时间,加快工作进度,提前送电,现变更停电结束时间为2020-03-09 15:00:00","powerOffId":"2020030931020104"},{"poweroffId":2020030931020097,"sgpoweroffId":null,"subsName":"","lineName":"10kV七堡385线","pubTranName":"新艮三变,汽配,社区,铁投（70）,邮政,刑侦,新艮四变,派出所,火路,汽配（2）,铁投（71）,新风(14)农,皋塘(2-3)农,","scope":"浙江省-杭州市-(江干区-彭埠镇-皋塘社区-新塘路);彭埠镇(浙江汽城经营有限公司,杭州市公安局江干分局城东派出所,杭州市公安局江干区分局刑侦大队责任区二中队,中国邮政集团公司杭州市分公司),笕桥镇-中国铁路上海局集团有限公司乔司站,丁桥镇-浙江汽城经营有限公司,笕桥街道-杭州市江干区新风股份经济合作社","startTime":"2020-03-09 12:01:00","stopDate":"2020-03-09 15:04:00","orgNo":"3340101","typeCode":"电网故障停限电","poweroffArea":"35kV新塘变:七堡385线7701后段","poweroffReason":"高压开关跳闸 原停电结束时间为2020-03-09 17:54:00,为减少客户停电时间,加快工作进度,提前送电,现变更停电结束时间为2020-03-09 15:04:00","powerTime":"2020-03-09 14:13:32","powerComm":"已送电","subsNo":"","lineNo":"","tgNo":"","tgName":null,"infoStatus":"1","orgName":"浙江杭州电力客户服务中心","typeName":null,"infoStatusName":null,"dateDay":null,"orgNos":null,"nowTime":null,"countyName":null,"streetName":null,"villageName":null,"roadName":null,"communityName":null,"tranName":null,"sdLineName":null,"cityCode":"3340101","cityName":"浙江杭州电力客户服务中心","provinceCode":null,"stopTime":"2020-03-09 15:04:00","powerType":"全部","powerOffArea":"35kV新塘变:七堡385线7701后段","powerOffReason":"高压开关跳闸 原停电结束时间为2020-03-09 17:54:00,为减少客户停电时间,加快工作进度,提前送电,现变更停电结束时间为2020-03-09 15:04:00","powerOffId":"2020030931020097"}],"pageModel":{"pageNow":497,"totalCount":17789,"totalPage":1779,"tableRows":0,"pageCount":10,"beginCount":4960},"isExperi":"1"}