{"message":"","today":"2020-06-15","seleList":[{"poweroffId":2020060331020527,"sgpoweroffId":null,"subsName":"","lineName":"10kV汽南D312线","pubTranName":"浙江华远纸业有限公司,浙江交工集团股份有限公司富阳分公司1号基建变,杭州快嘀新能源科技有限公司1号变,杭州富阳江南医院,富阳城南加油站有限公司变压器,","scope":"浙江省-杭州市-富阳区-春江街道(浙江交工集团股份有限公司富阳分公司,杭州富阳江南医院,杭州富阳中南纸业有限公司,杭州富阳城南加油站有限公司,杭州快嘀新能源科技有限公司)","startTime":"2020-06-03 21:10:55","stopDate":"2020-06-03 23:10:55","orgNo":"3340170","typeCode":"电网故障停限电","poweroffArea":"110kV建设变:汽南D312线汽南D3124开关后段","poweroffReason":"高压开关跳闸","powerTime":"2020-06-03 22:23:54","powerComm":"已送电","subsNo":"","lineNo":"","tgNo":"","tgName":null,"infoStatus":"1","orgName":"国网浙江杭州市富阳区供电公司","typeName":null,"infoStatusName":null,"dateDay":null,"orgNos":null,"nowTime":null,"countyName":null,"streetName":null,"villageName":null,"roadName":null,"communityName":null,"tranName":null,"sdLineName":null,"cityCode":"3340170","cityName":"国网浙江杭州市富阳区供电公司","provinceCode":null,"stopTime":"2020-06-03 23:10:55","powerType":"全部","powerOffArea":"110kV建设变:汽南D312线汽南D3124开关后段","powerOffReason":"高压开关跳闸","powerOffId":"2020060331020527"},{"poweroffId":2020060331020516,"sgpoweroffId":null,"subsName":"","lineName":"10kV家同Y281线","pubTranName":"李家村群力台区,","scope":"浙江省-杭州市-建德市-李家镇-李家行政村(付家自然村,群力自然村,上前山排自然村,李家自然村)","startTime":"2020-06-03 20:12:10","stopDate":"2020-06-03 21:30:00","orgNo":"3340180","typeCode":"电网故障停限电","poweroffArea":"35kV李家变:家同Y281线-李家村群力台区令克后段","poweroffReason":"(低压停电信息)低压开关跳闸 原停电结束时间为2020-06-03 22:30:10,为减少客户停电时间,加快工作进度,提前送电,现变更停电结束时间为2020-06-03 21:30:00","powerTime":"2020-06-03 20:46:00","powerComm":"已送电","subsNo":"","lineNo":"","tgNo":"","tgName":null,"infoStatus":"1","orgName":"国网浙江建德市供电有限公司","typeName":null,"infoStatusName":null,"dateDay":null,"orgNos":null,"nowTime":null,"countyName":null,"streetName":null,"villageName":null,"roadName":null,"communityName":null,"tranName":null,"sdLineName":null,"cityCode":"3340180","cityName":"国网浙江建德市供电有限公司","provinceCode":null,"stopTime":"2020-06-03 21:30:00","powerType":"全部","powerOffArea":"35kV李家变:家同Y281线-李家村群力台区令克后段","powerOffReason":"(低压停电信息)低压开关跳闸 原停电结束时间为2020-06-03 22:30:10,为减少客户停电时间,加快工作进度,提前送电,现变更停电结束时间为2020-06-03 21:30:00","powerOffId":"2020060331020516"},{"poweroffId":2020060331020504,"sgpoweroffId":null,"subsName":"","lineName":"10kV坪鼓R269线","pubTranName":"千岛湖镇联丰村上洪公变,黄泥湾,夏坞村,千岛湖镇联丰村何家公变,千岛湖镇联丰村方坞口公变,千岛湖镇联丰村贵坑公变,上坪村,千岛湖镇联丰村下坪公变,千岛湖镇联丰村长畈公变,千岛湖镇联丰村下洪公变,杜山,千岛湖镇联丰村叶坞口公变,千岛湖镇联丰村太公畈公变,","scope":"浙江省-杭州市-淳安县-千岛湖镇-联丰行政村(杜山自然村,上坪自然村,夏坞自然村,何家自然村,黄泥湾自然村,下洪自然村,上洪自然村)","startTime":"2020-06-03 19:50:00","stopDate":"2020-06-03 21:50:00","orgNo":"3340190","typeCode":"电网故障停限电","poweroffArea":"110kV坪山变:坪鼓R269线汪家支线75#杆跌落式熔断器后段","poweroffReason":"高压开关跳闸 原停电结束时间为2020-06-03 23:50:00,为减少客户停电时间,加快工作进度,提前送电,现变更停电结束时间为2020-06-03 21:50:00","powerTime":"2020-06-03 21:01:48","powerComm":"已送电","subsNo":"","lineNo":"","tgNo":"","tgName":null,"infoStatus":"1","orgName":"国网浙江淳安县供电有限公司","typeName":null,"infoStatusName":null,"dateDay":null,"orgNos":null,"nowTime":null,"countyName":null,"streetName":null,"villageName":null,"roadName":null,"communityName":null,"tranName":null,"sdLineName":null,"cityCode":"3340190","cityName":"国网浙江淳安县供电有限公司","provinceCode":null,"stopTime":"2020-06-03 21:50:00","powerType":"全部","powerOffArea":"110kV坪山变:坪鼓R269线汪家支线75#杆跌落式熔断器后段","powerOffReason":"高压开关跳闸 原停电结束时间为2020-06-03 23:50:00,为减少客户停电时间,加快工作进度,提前送电,现变更停电结束时间为2020-06-03 21:50:00","powerOffId":"2020060331020504"},{"poweroffId":2020060331020503,"sgpoweroffId":null,"subsName":"","lineName":"10kV坪鼓R269线","pubTranName":"虎形,高燕山公变,天鹅,千黄高速6标沥青厂专变,燕山村,湖坑隧道7#临变,张成香专变,","scope":"浙江省-杭州市-淳安县-千岛湖镇-云村行政村(天鹅自然村,虎形自然村,燕山自然村,高燕山自然村);千岛湖镇(张成香,中交三公局第一工程有限公司)","startTime":"2020-06-03 19:50:00","stopDate":"2020-06-03 23:50:00","orgNo":"3340190","typeCode":"电网故障停限电","poweroffArea":"110kV坪山变:坪鼓R269线燕山支线0号杆开关后段","poweroffReason":"高压开关跳闸 原停电结束时间为2020-06-03 21:50:00,因现场故障情况复杂,现变更停电结束时间为2020-06-03 23:50:00","powerTime":"2020-06-03 23:20:00","powerComm":"已送电","subsNo":"","lineNo":"","tgNo":"","tgName":null,"infoStatus":"1","orgName":"国网浙江淳安县供电有限公司","typeName":null,"infoStatusName":null,"dateDay":null,"orgNos":null,"nowTime":null,"countyName":null,"streetName":null,"villageName":null,"roadName":null,"communityName":null,"tranName":null,"sdLineName":null,"cityCode":"3340190","cityName":"国网浙江淳安县供电有限公司","provinceCode":null,"stopTime":"2020-06-03 23:50:00","powerType":"全部","powerOffArea":"110kV坪山变:坪鼓R269线燕山支线0号杆开关后段","powerOffReason":"高压开关跳闸 原停电结束时间为2020-06-03 21:50:00,因现场故障情况复杂,现变更停电结束时间为2020-06-03 23:50:00","powerOffId":"2020060331020503"},{"poweroffId":2020060331020487,"sgpoweroffId":null,"subsName":"","lineName":"10kV春江Y500线","pubTranName":"东都2#公变台区,","scope":"浙江省-杭州市-建德市-洋溪街道-洋溪社区-朝阳路东都城市家园8幢1单元8-2号东都商业街255号-国梁门业","startTime":"2020-06-03 19:15:43","stopDate":"2020-06-03 21:30:00","orgNo":"3340180","typeCode":"电网故障停限电","poweroffArea":"35kV洋溪变:春江Y500线-东都2#公变台区后段","poweroffReason":"(低压停电信息)低压开关跳闸","powerTime":"2020-06-03 20:58:00","powerComm":"已送电","subsNo":"","lineNo":"","tgNo":"","tgName":null,"infoStatus":"1","orgName":"国网浙江建德市供电有限公司","typeName":null,"infoStatusName":null,"dateDay":null,"orgNos":null,"nowTime":null,"countyName":null,"streetName":null,"villageName":null,"roadName":null,"communityName":null,"tranName":null,"sdLineName":null,"cityCode":"3340180","cityName":"国网浙江建德市供电有限公司","provinceCode":null,"stopTime":"2020-06-03 21:30:00","powerType":"全部","powerOffArea":"35kV洋溪变:春江Y500线-东都2#公变台区后段","powerOffReason":"(低压停电信息)低压开关跳闸","powerOffId":"2020060331020487"},{"poweroffId":2020060331020442,"sgpoweroffId":null,"subsName":"","lineName":"10kV荆书8253线","pubTranName":"环资学院变4#,东实验楼2#,环资学院变2#,生工食品变2#,动物科学院变2#,国家实验室变4#,国家实验室变2#,东实验楼1#,","scope":"浙江省-杭州市-西湖区-三墩镇-紫金港社区 余杭塘路","startTime":"2020-06-03 18:10:00","stopDate":"2020-06-03 20:10:00","orgNo":"3340101","typeCode":"电网故障停限电","poweroffArea":"110kV申花变:荆书8253线 外东三线后段","poweroffReason":"高压开关跳闸 原停电结束时间为2020-06-03 23:10:00,为减少客户停电时间,加快工作进度,提前送电,现变更停电结束时间为2020-06-03 20:10:00","powerTime":"2020-06-03 19:21:12","powerComm":"已送电","subsNo":"","lineNo":"","tgNo":"","tgName":null,"infoStatus":"1","orgName":"浙江杭州电力客户服务中心","typeName":null,"infoStatusName":null,"dateDay":null,"orgNos":null,"nowTime":null,"countyName":null,"streetName":null,"villageName":null,"roadName":null,"communityName":null,"tranName":null,"sdLineName":null,"cityCode":"3340101","cityName":"浙江杭州电力客户服务中心","provinceCode":null,"stopTime":"2020-06-03 20:10:00","powerType":"全部","powerOffArea":"110kV申花变:荆书8253线 外东三线后段","powerOffReason":"高压开关跳闸 原停电结束时间为2020-06-03 23:10:00,为减少客户停电时间,加快工作进度,提前送电,现变更停电结束时间为2020-06-03 20:10:00","powerOffId":"2020060331020442"},{"poweroffId":2020060331020426,"sgpoweroffId":null,"subsName":"","lineName":"10kV新城C213线","pubTranName":"新塘街道紫霞村8#变,新塘街道紫霞村7#变,","scope":"浙江省-杭州市-萧山区-新塘街道-紫霞行政村(一都韩自然村,新区)","startTime":"2020-06-11 08:30:00","stopDate":"2020-06-11 14:30:00","orgNo":"3340130","typeCode":"计划停电","poweroffArea":"110kV霞江变:新城C213线-新塘紫霞村开关后段","poweroffReason":"新塘街道紫霞村7#变，8#下315kVA上400kVA，换柜； 原停电结束时间为2020-06-11 15:30:00,为减少客户停电时间,加快工作进度,提前送电,现变更停电结束时间为2020-06-11 14:30:00","powerTime":"2020-06-11 14:00:29","powerComm":"已送电","subsNo":"","lineNo":"","tgNo":"","tgName":null,"infoStatus":"1","orgName":"国网浙江杭州市萧山区供电有限公司","typeName":null,"infoStatusName":null,"dateDay":null,"orgNos":null,"nowTime":null,"countyName":null,"streetName":null,"villageName":null,"roadName":null,"communityName":null,"tranName":null,"sdLineName":null,"cityCode":"3340130","cityName":"国网浙江杭州市萧山区供电有限公司","provinceCode":null,"stopTime":"2020-06-11 14:30:00","powerType":"全部","powerOffArea":"110kV霞江变:新城C213线-新塘紫霞村开关后段","powerOffReason":"新塘街道紫霞村7#变，8#下315kVA上400kVA，换柜； 原停电结束时间为2020-06-11 15:30:00,为减少客户停电时间,加快工作进度,提前送电,现变更停电结束时间为2020-06-11 14:30:00","powerOffId":"2020060331020426"},{"poweroffId":2020060331020405,"sgpoweroffId":null,"subsName":"","lineName":"10kV文昌V450线","pubTranName":"大道公变,新城丽景5号变,杭州白牛电商小镇发展有限公司,新城丽景7号变,新城丽景1号变,文昌公变,杭州白牛电商小镇发展有限公司,杭州临安宝润矿业投资有限公司,临安市昌化人民医院,杭州百利沙昌化大酒店有限公司1#,新城丽景3号变,临安市市场监督管理局(昌化市场监管所),杭州临安宝润矿业投资有限公司,新城丽景6号变,河北路公变,临安市昌化初级中学,","scope":"浙江省-杭州市-临安市-昌化镇-西街行政村(西街自然村,河北路,西大街,大道,文昌路);浙江省-杭州市-临安市-昌化镇-杭州百利沙昌化大酒店有限公司,昌化镇-朱穴行政村(杭州市临安区昌化人民医院,临安市市场监督管理局(昌化市场监管所)),昌化镇-西街行政村(杭州市临安区昌化初级中学,杭州临安宝润矿业投资有限公司,杭州白牛电商小镇发展有限公司)","startTime":"2020-06-03 23:00:16","stopDate":"2020-06-04 01:00:16","orgNo":"3340160","typeCode":"电网故障停限电","poweroffArea":"110kV昌化变:文昌V450线-4503开关后段","poweroffReason":"高压开关跳闸","powerTime":"2020-06-04 00:52:25","powerComm":"已送电","subsNo":"","lineNo":"","tgNo":"","tgName":null,"infoStatus":"1","orgName":"国网浙江临安市供电公司","typeName":null,"infoStatusName":null,"dateDay":null,"orgNos":null,"nowTime":null,"countyName":null,"streetName":null,"villageName":null,"roadName":null,"communityName":null,"tranName":null,"sdLineName":null,"cityCode":"3340160","cityName":"国网浙江临安市供电公司","provinceCode":null,"stopTime":"2020-06-04 01:00:16","powerType":"全部","powerOffArea":"110kV昌化变:文昌V450线-4503开关后段","powerOffReason":"高压开关跳闸","powerOffId":"2020060331020405"},{"poweroffId":2020060331020403,"sgpoweroffId":null,"subsName":"","lineName":"10kV石屏Y175线","pubTranName":"石屏村赤源台区,","scope":"浙江省-杭州市-建德市-航头镇 石屏行政村 赤源自然村区域用户。","startTime":"2020-06-11 06:30:00","stopDate":"2020-06-11 12:30:00","orgNo":"3340180","typeCode":"计划停电","poweroffArea":"10千伏石屏Y175线赤源支线23#杆支接赤源台区支线0#杆熔丝具后段停电","poweroffReason":"杭州建德航头石屏庄台区等电压压改造工程（局属）：原赤源台区支线0#-4#杆旧线路拆除","powerTime":"2020-06-11 11:42:05","powerComm":"已送电","subsNo":"","lineNo":"","tgNo":"","tgName":null,"infoStatus":"1","orgName":"国网浙江建德市供电有限公司","typeName":null,"infoStatusName":null,"dateDay":null,"orgNos":null,"nowTime":null,"countyName":null,"streetName":null,"villageName":null,"roadName":null,"communityName":null,"tranName":null,"sdLineName":null,"cityCode":"3340180","cityName":"国网浙江建德市供电有限公司","provinceCode":null,"stopTime":"2020-06-11 12:30:00","powerType":"全部","powerOffArea":"10千伏石屏Y175线赤源支线23#杆支接赤源台区支线0#杆熔丝具后段停电","powerOffReason":"杭州建德航头石屏庄台区等电压压改造工程（局属）：原赤源台区支线0#-4#杆旧线路拆除","powerOffId":"2020060331020403"},{"poweroffId":2020060331020402,"sgpoweroffId":null,"subsName":"","lineName":"10kV永众A705线","pubTranName":"1#电机,杭州正大纺织有限公司,杭州佳丽花边有限公司1#,杭州众艺布业有限公司,杭州佳丽花边有限公司2#,永联村（镇海）7#变,杭州华意纺织有限公司,","scope":"浙江省-杭州市-萧山区-瓜沥镇-永联行政村-镇海自然村;瓜沥镇-永联行政村(杭州新正大纺织有限公司,杭州正大纺织有限公司),瓜沥镇-长联行政村(杭州众艺布业有限公司,杭州佳丽花边有限公司)等","startTime":"2020-06-03 17:35:43","stopDate":"2020-06-03 19:30:43","orgNo":"3340130","typeCode":"电网故障停限电","poweroffArea":"110kV白川变:永众A705线","poweroffReason":"高压柱上断路器跳闸 原停电结束时间为2020-06-03 20:00:43,为减少客户停电时间,加快工作进度,提前送电,现变更停电结束时间为2020-06-03 19:30:43","powerTime":"2020-06-03 18:42:07","powerComm":"已送电","subsNo":"","lineNo":"","tgNo":"","tgName":null,"infoStatus":"1","orgName":"国网浙江杭州市萧山区供电有限公司","typeName":null,"infoStatusName":null,"dateDay":null,"orgNos":null,"nowTime":null,"countyName":null,"streetName":null,"villageName":null,"roadName":null,"communityName":null,"tranName":null,"sdLineName":null,"cityCode":"3340130","cityName":"国网浙江杭州市萧山区供电有限公司","provinceCode":null,"stopTime":"2020-06-03 19:30:43","powerType":"全部","powerOffArea":"110kV白川变:永众A705线","powerOffReason":"高压柱上断路器跳闸 原停电结束时间为2020-06-03 20:00:43,为减少客户停电时间,加快工作进度,提前送电,现变更停电结束时间为2020-06-03 19:30:43","powerOffId":"2020060331020402"}],"pageModel":{"pageNow":49,"totalCount":17786,"totalPage":1779,"tableRows":0,"pageCount":10,"beginCount":480},"isExperi":"1"}