{"message":"","today":"2020-06-15","seleList":[{"poweroffId":2020030631020344,"sgpoweroffId":null,"subsName":"","lineName":"10kV双林G942线","pubTranName":"双林村一组公变,","scope":"浙江省杭州市余杭区南苑街道：双林村一组一带","startTime":"2020-03-19 13:30:00","stopDate":"2020-03-19 16:00:00","orgNo":"3340140","typeCode":"计划停电","poweroffArea":"110kV亭趾变:双林G942线双林村一组公变令克。","poweroffReason":"双林村一组公变调换计量箱1台。 原停电结束时间为2020-03-19 17:30:00,为减少客户停电时间,加快工作进度,提前送电,现变更停电结束时间为2020-03-19 16:00:00","powerTime":"2020-03-19 15:29:43","powerComm":"已送电","subsNo":"","lineNo":"","tgNo":"","tgName":null,"infoStatus":"1","orgName":"国网浙江杭州市余杭区供电有限公司","typeName":null,"infoStatusName":null,"dateDay":null,"orgNos":null,"nowTime":null,"countyName":null,"streetName":null,"villageName":null,"roadName":null,"communityName":null,"tranName":null,"sdLineName":null,"cityCode":"3340140","cityName":"国网浙江杭州市余杭区供电有限公司","provinceCode":null,"stopTime":"2020-03-19 16:00:00","powerType":"全部","powerOffArea":"110kV亭趾变:双林G942线双林村一组公变令克。","powerOffReason":"双林村一组公变调换计量箱1台。 原停电结束时间为2020-03-19 17:30:00,为减少客户停电时间,加快工作进度,提前送电,现变更停电结束时间为2020-03-19 16:00:00","powerOffId":"2020030631020344"},{"poweroffId":2020030631020333,"sgpoweroffId":null,"subsName":"","lineName":"10kV西环G644线","pubTranName":"苑中园1号公变,苑中园3号公变,苑中园2号公变,","scope":"浙江省杭州市余杭区南苑街道：苑中园一带","startTime":"2020-03-19 08:30:00","stopDate":"2020-03-19 13:30:00","orgNo":"3340140","typeCode":"计划停电","poweroffArea":"110kV南苑变:新城开关站西环G644线苑中园分线","poweroffReason":"新城开关站西环G644线苑中园分线和新城开关站大厦G654线苑中园专用分线互换间隔。 原停电结束时间为2020-03-19 15:30:00,为减少客户停电时间,加快工作进度,提前送电,现变更停电结束时间为2020-03-19 13:30:00","powerTime":"2020-03-19 12:30:51","powerComm":"已送电","subsNo":"","lineNo":"","tgNo":"","tgName":null,"infoStatus":"1","orgName":"国网浙江杭州市余杭区供电有限公司","typeName":null,"infoStatusName":null,"dateDay":null,"orgNos":null,"nowTime":null,"countyName":null,"streetName":null,"villageName":null,"roadName":null,"communityName":null,"tranName":null,"sdLineName":null,"cityCode":"3340140","cityName":"国网浙江杭州市余杭区供电有限公司","provinceCode":null,"stopTime":"2020-03-19 13:30:00","powerType":"全部","powerOffArea":"110kV南苑变:新城开关站西环G644线苑中园分线","powerOffReason":"新城开关站西环G644线苑中园分线和新城开关站大厦G654线苑中园专用分线互换间隔。 原停电结束时间为2020-03-19 15:30:00,为减少客户停电时间,加快工作进度,提前送电,现变更停电结束时间为2020-03-19 13:30:00","powerOffId":"2020030631020333"},{"poweroffId":2020030631020324,"sgpoweroffId":null,"subsName":"","lineName":"10kV大厦G654线","pubTranName":"杭州市余杭区苑中园业主委员会,","scope":"浙江省杭州市余杭区南苑街道：苑中园一带","startTime":"2020-03-19 08:30:00","stopDate":"2020-03-19 13:30:00","orgNo":"3340140","typeCode":"计划停电","poweroffArea":"110kV南苑变:新城开关站西环G644线苑中园分线。","poweroffReason":"新城开关站西环G644线苑中园分线和新城开关站大厦G654线苑中园专用分线互换间隔。 原停电结束时间为2020-03-19 15:30:00,为减少客户停电时间,加快工作进度,提前送电,现变更停电结束时间为2020-03-19 13:30:00","powerTime":"2020-03-19 12:30:30","powerComm":"已送电","subsNo":"","lineNo":"","tgNo":"","tgName":null,"infoStatus":"1","orgName":"国网浙江杭州市余杭区供电有限公司","typeName":null,"infoStatusName":null,"dateDay":null,"orgNos":null,"nowTime":null,"countyName":null,"streetName":null,"villageName":null,"roadName":null,"communityName":null,"tranName":null,"sdLineName":null,"cityCode":"3340140","cityName":"国网浙江杭州市余杭区供电有限公司","provinceCode":null,"stopTime":"2020-03-19 13:30:00","powerType":"全部","powerOffArea":"110kV南苑变:新城开关站西环G644线苑中园分线。","powerOffReason":"新城开关站西环G644线苑中园分线和新城开关站大厦G654线苑中园专用分线互换间隔。 原停电结束时间为2020-03-19 15:30:00,为减少客户停电时间,加快工作进度,提前送电,现变更停电结束时间为2020-03-19 13:30:00","powerOffId":"2020030631020324"},{"poweroffId":2020030631020321,"sgpoweroffId":null,"subsName":"","lineName":"10kV北湖H504线","pubTranName":"张堰村六组公变,","scope":"浙江省杭州市余杭区瓶窑镇：张堰村六组一带","startTime":"2020-03-19 08:40:00","stopDate":"2020-03-19 14:40:00","orgNo":"3340140","typeCode":"计划停电","poweroffArea":"35kV瓶镇变:北湖H504线张堰六组分线","poweroffReason":"计划工作","powerTime":"2020-03-19 13:44:01","powerComm":"已送电","subsNo":"","lineNo":"","tgNo":"","tgName":null,"infoStatus":"1","orgName":"国网浙江杭州市余杭区供电有限公司","typeName":null,"infoStatusName":null,"dateDay":null,"orgNos":null,"nowTime":null,"countyName":null,"streetName":null,"villageName":null,"roadName":null,"communityName":null,"tranName":null,"sdLineName":null,"cityCode":"3340140","cityName":"国网浙江杭州市余杭区供电有限公司","provinceCode":null,"stopTime":"2020-03-19 14:40:00","powerType":"全部","powerOffArea":"35kV瓶镇变:北湖H504线张堰六组分线","powerOffReason":"计划工作","powerOffId":"2020030631020321"},{"poweroffId":2020030631020314,"sgpoweroffId":null,"subsName":"","lineName":"10kV双林G942线","pubTranName":"双林村三凌圈公变,","scope":"浙江省杭州市余杭区南苑街道：双林村三凌圈一带","startTime":"2020-03-19 08:30:00","stopDate":"2020-03-19 13:00:00","orgNo":"3340140","typeCode":"计划停电","poweroffArea":"110kV亭趾变:双林G942线双林村三凌圈公变令克。","poweroffReason":"双林村三凌圈公变调换计量箱1台。","powerTime":"2020-03-19 11:53:47","powerComm":"已送电","subsNo":"","lineNo":"","tgNo":"","tgName":null,"infoStatus":"1","orgName":"国网浙江杭州市余杭区供电有限公司","typeName":null,"infoStatusName":null,"dateDay":null,"orgNos":null,"nowTime":null,"countyName":null,"streetName":null,"villageName":null,"roadName":null,"communityName":null,"tranName":null,"sdLineName":null,"cityCode":"3340140","cityName":"国网浙江杭州市余杭区供电有限公司","provinceCode":null,"stopTime":"2020-03-19 13:00:00","powerType":"全部","powerOffArea":"110kV亭趾变:双林G942线双林村三凌圈公变令克。","powerOffReason":"双林村三凌圈公变调换计量箱1台。","powerOffId":"2020030631020314"},{"poweroffId":2020030631020298,"sgpoweroffId":null,"subsName":"","lineName":"10kV断桥H760线","pubTranName":"腾达工棚,致用印务2#基建,杭州利玛房地产开发有限公司,杭州利玛房地产开发有限公司,超艺精密,致用印务1#基建,","scope":"浙江省杭州市余杭区五常街道：浙江省财务开发公司,杭州超艺精密五金制品有限公司、腾达建设集团股份有限公司、致用印务一带","startTime":"2020-03-18 09:30:00","stopDate":"2020-03-18 15:30:00","orgNo":"3340140","typeCode":"计划停电","poweroffArea":"九胜开关站断桥H760线西坝路分支箱分线","poweroffReason":"业扩工程（科技城建设公司荆长大道提升改造鸿雁H802线等线路迁改工程）：西坝路分支箱分线改接至新九胜开关站待用G06号间隔","powerTime":"2020-03-18 15:22:44","powerComm":"已送电","subsNo":"","lineNo":"","tgNo":"","tgName":null,"infoStatus":"1","orgName":"国网浙江杭州市余杭区供电有限公司","typeName":null,"infoStatusName":null,"dateDay":null,"orgNos":null,"nowTime":null,"countyName":null,"streetName":null,"villageName":null,"roadName":null,"communityName":null,"tranName":null,"sdLineName":null,"cityCode":"3340140","cityName":"国网浙江杭州市余杭区供电有限公司","provinceCode":null,"stopTime":"2020-03-18 15:30:00","powerType":"全部","powerOffArea":"九胜开关站断桥H760线西坝路分支箱分线","powerOffReason":"业扩工程（科技城建设公司荆长大道提升改造鸿雁H802线等线路迁改工程）：西坝路分支箱分线改接至新九胜开关站待用G06号间隔","powerOffId":"2020030631020298"},{"poweroffId":2020030631020297,"sgpoweroffId":null,"subsName":"","lineName":"10kV双林G942线","pubTranName":"双林村施家河公变,","scope":"浙江省杭州市余杭区南苑街道：双林村施家河一带","startTime":"2020-03-18 13:30:00","stopDate":"2020-03-18 16:00:00","orgNo":"3340140","typeCode":"计划停电","poweroffArea":"110kV亭趾变:双林G942线双林村施家河公变令克。","poweroffReason":"双林村施家河公变调换计量箱1台。 原停电结束时间为2020-03-18 17:30:00,为减少客户停电时间,加快工作进度,提前送电,现变更停电结束时间为2020-03-18 16:00:00","powerTime":"2020-03-18 15:33:31","powerComm":"已送电","subsNo":"","lineNo":"","tgNo":"","tgName":null,"infoStatus":"1","orgName":"国网浙江杭州市余杭区供电有限公司","typeName":null,"infoStatusName":null,"dateDay":null,"orgNos":null,"nowTime":null,"countyName":null,"streetName":null,"villageName":null,"roadName":null,"communityName":null,"tranName":null,"sdLineName":null,"cityCode":"3340140","cityName":"国网浙江杭州市余杭区供电有限公司","provinceCode":null,"stopTime":"2020-03-18 16:00:00","powerType":"全部","powerOffArea":"110kV亭趾变:双林G942线双林村施家河公变令克。","powerOffReason":"双林村施家河公变调换计量箱1台。 原停电结束时间为2020-03-18 17:30:00,为减少客户停电时间,加快工作进度,提前送电,现变更停电结束时间为2020-03-18 16:00:00","powerOffId":"2020030631020297"},{"poweroffId":2020030631020294,"sgpoweroffId":null,"subsName":"","lineName":"10kV西环G644线","pubTranName":"金盛公变,金经公变,","scope":"浙江省杭州市余杭区南苑街道：金盛花园一带","startTime":"2020-03-18 08:30:00","stopDate":"2020-03-18 14:00:00","orgNo":"3340140","typeCode":"计划停电","poweroffArea":"110kV南苑变:新城开关站西环G644线金盛公变分线。","poweroffReason":"新城开关站西环G644线金盛公变分线改接至新城开关站大厦G654线待用G18线。 原停电结束时间为2020-03-18 17:00:00,为减少客户停电时间,加快工作进度,提前送电,现变更停电结束时间为2020-03-18 14:00:00","powerTime":"2020-03-18 13:06:23","powerComm":"已送电","subsNo":"","lineNo":"","tgNo":"","tgName":null,"infoStatus":"1","orgName":"国网浙江杭州市余杭区供电有限公司","typeName":null,"infoStatusName":null,"dateDay":null,"orgNos":null,"nowTime":null,"countyName":null,"streetName":null,"villageName":null,"roadName":null,"communityName":null,"tranName":null,"sdLineName":null,"cityCode":"3340140","cityName":"国网浙江杭州市余杭区供电有限公司","provinceCode":null,"stopTime":"2020-03-18 14:00:00","powerType":"全部","powerOffArea":"110kV南苑变:新城开关站西环G644线金盛公变分线。","powerOffReason":"新城开关站西环G644线金盛公变分线改接至新城开关站大厦G654线待用G18线。 原停电结束时间为2020-03-18 17:00:00,为减少客户停电时间,加快工作进度,提前送电,现变更停电结束时间为2020-03-18 14:00:00","powerOffId":"2020030631020294"},{"poweroffId":2020030631020291,"sgpoweroffId":null,"subsName":"","lineName":"10kV石墓D217线","pubTranName":"勤乐村上郜2号木桥头公变,","scope":"浙江省杭州市富阳区银湖街道勤乐村上郜木桥头自然村一带","startTime":"2020-03-18 08:45:00","stopDate":"2020-03-18 13:30:00","orgNo":"3340170","typeCode":"计划停电","poweroffArea":"110kV银湖变:石墓D217线-勤乐村上郜2号木桥头公变后段","poweroffReason":"10KV石墓D217线88号杆勤乐村上郜2#木桥头公变、更换配电屏一组、拆装低压进、出线电缆等工作","powerTime":"2020-03-18 13:00:22","powerComm":"已送电","subsNo":"","lineNo":"","tgNo":"","tgName":null,"infoStatus":"1","orgName":"国网浙江杭州市富阳区供电公司","typeName":null,"infoStatusName":null,"dateDay":null,"orgNos":null,"nowTime":null,"countyName":null,"streetName":null,"villageName":null,"roadName":null,"communityName":null,"tranName":null,"sdLineName":null,"cityCode":"3340170","cityName":"国网浙江杭州市富阳区供电公司","provinceCode":null,"stopTime":"2020-03-18 13:30:00","powerType":"全部","powerOffArea":"110kV银湖变:石墓D217线-勤乐村上郜2号木桥头公变后段","powerOffReason":"10KV石墓D217线88号杆勤乐村上郜2#木桥头公变、更换配电屏一组、拆装低压进、出线电缆等工作","powerOffId":"2020030631020291"},{"poweroffId":2020030631020289,"sgpoweroffId":null,"subsName":"","lineName":"10kV安顶D909线","pubTranName":"安顶村7#山坎上公变,","scope":"浙江省-杭州市-富阳区-里山镇-安顶自然村一带","startTime":"2020-03-17 08:10:00","stopDate":"2020-03-17 15:00:00","orgNo":"3340170","typeCode":"计划停电","poweroffArea":"110kV里渔变:安顶D909线-安顶村7#公变跌落式熔断器后段","poweroffReason":"江南2020年五爱村7#新路公变等台区增容布点工程：安顶村7#山坎上公变增容为400KVA配变，拆除旧配电屏1套，新上JP柜1台，低压线路新放1档，低压电缆等附件更换等工作。","powerTime":"2020-03-17 14:51:28","powerComm":"已送电","subsNo":"","lineNo":"","tgNo":"","tgName":null,"infoStatus":"1","orgName":"国网浙江杭州市富阳区供电公司","typeName":null,"infoStatusName":null,"dateDay":null,"orgNos":null,"nowTime":null,"countyName":null,"streetName":null,"villageName":null,"roadName":null,"communityName":null,"tranName":null,"sdLineName":null,"cityCode":"3340170","cityName":"国网浙江杭州市富阳区供电公司","provinceCode":null,"stopTime":"2020-03-17 15:00:00","powerType":"全部","powerOffArea":"110kV里渔变:安顶D909线-安顶村7#公变跌落式熔断器后段","powerOffReason":"江南2020年五爱村7#新路公变等台区增容布点工程：安顶村7#山坎上公变增容为400KVA配变，拆除旧配电屏1套，新上JP柜1台，低压线路新放1档，低压电缆等附件更换等工作。","powerOffId":"2020030631020289"}],"pageModel":{"pageNow":504,"totalCount":17789,"totalPage":1779,"tableRows":0,"pageCount":10,"beginCount":5030},"isExperi":"1"}