{"message":"","today":"2020-06-15","seleList":[{"poweroffId":2020030631020287,"sgpoweroffId":null,"subsName":"","lineName":"10kV安顶D909线","pubTranName":"何村3#溪边公变,","scope":"浙江省-杭州市-富阳区-里山镇-何村自然村一带","startTime":"2020-03-17 08:40:00","stopDate":"2020-03-17 14:00:00","orgNo":"3340170","typeCode":"计划停电","poweroffArea":"110kV里渔变:安顶D909线-何村3#溪边公变跌落式熔断器后段","poweroffReason":"江南2020年五爱村7#新路公变等台区增容布点工程：何村3#溪边公变增容为400KVA配变，拆除旧配电屏1套，新上JP柜1台，低压电缆等附件更换等工作。","powerTime":"2020-03-17 13:45:51","powerComm":"已送电","subsNo":"","lineNo":"","tgNo":"","tgName":null,"infoStatus":"1","orgName":"国网浙江杭州市富阳区供电公司","typeName":null,"infoStatusName":null,"dateDay":null,"orgNos":null,"nowTime":null,"countyName":null,"streetName":null,"villageName":null,"roadName":null,"communityName":null,"tranName":null,"sdLineName":null,"cityCode":"3340170","cityName":"国网浙江杭州市富阳区供电公司","provinceCode":null,"stopTime":"2020-03-17 14:00:00","powerType":"全部","powerOffArea":"110kV里渔变:安顶D909线-何村3#溪边公变跌落式熔断器后段","powerOffReason":"江南2020年五爱村7#新路公变等台区增容布点工程：何村3#溪边公变增容为400KVA配变，拆除旧配电屏1套，新上JP柜1台，低压电缆等附件更换等工作。","powerOffId":"2020030631020287"},{"poweroffId":2020030631020284,"sgpoweroffId":null,"subsName":"","lineName":"10kV北湖H504线","pubTranName":"张堰村八组公变,","scope":"浙江省杭州市余杭区瓶窑镇：张堰村八组一带","startTime":"2020-03-18 08:40:00","stopDate":"2020-03-18 14:40:00","orgNo":"3340140","typeCode":"计划停电","poweroffArea":"35kV瓶镇变:北湖H504线张堰八组分线","poweroffReason":"计划工作","powerTime":"2020-03-18 14:37:14","powerComm":"已送电","subsNo":"","lineNo":"","tgNo":"","tgName":null,"infoStatus":"1","orgName":"国网浙江杭州市余杭区供电有限公司","typeName":null,"infoStatusName":null,"dateDay":null,"orgNos":null,"nowTime":null,"countyName":null,"streetName":null,"villageName":null,"roadName":null,"communityName":null,"tranName":null,"sdLineName":null,"cityCode":"3340140","cityName":"国网浙江杭州市余杭区供电有限公司","provinceCode":null,"stopTime":"2020-03-18 14:40:00","powerType":"全部","powerOffArea":"35kV瓶镇变:北湖H504线张堰八组分线","powerOffReason":"计划工作","powerOffId":"2020030631020284"},{"poweroffId":2020030631020283,"sgpoweroffId":null,"subsName":"","lineName":"10kV双林G942线","pubTranName":"双林村大家车曲公变,","scope":"浙江省杭州市余杭区南苑街道：双林村一组一带","startTime":"2020-03-18 08:30:00","stopDate":"2020-03-18 13:00:00","orgNo":"3340140","typeCode":"计划停电","poweroffArea":"110kV亭趾变:双林G942线大家车曲公变令克。","poweroffReason":"大家车曲公变调换计量箱1台。","powerTime":"2020-03-18 12:15:41","powerComm":"已送电","subsNo":"","lineNo":"","tgNo":"","tgName":null,"infoStatus":"1","orgName":"国网浙江杭州市余杭区供电有限公司","typeName":null,"infoStatusName":null,"dateDay":null,"orgNos":null,"nowTime":null,"countyName":null,"streetName":null,"villageName":null,"roadName":null,"communityName":null,"tranName":null,"sdLineName":null,"cityCode":"3340140","cityName":"国网浙江杭州市余杭区供电有限公司","provinceCode":null,"stopTime":"2020-03-18 13:00:00","powerType":"全部","powerOffArea":"110kV亭趾变:双林G942线大家车曲公变令克。","powerOffReason":"大家车曲公变调换计量箱1台。","powerOffId":"2020030631020283"},{"poweroffId":2020030631020282,"sgpoweroffId":null,"subsName":"","lineName":"10kV断桥H760线","pubTranName":"邦帮实业投资（杭州）有限公司1#变压器,1#变压器,1#变压器,","scope":"浙江省杭州市余杭区五常街道：杭州国立工贸集团有限公司,杭州源信机械有限公司,邦帮公馆一带","startTime":"2020-03-17 09:30:00","stopDate":"2020-03-17 18:30:00","orgNo":"3340140","typeCode":"计划停电","poweroffArea":"九胜开关站断桥H760线国立分支箱分线","poweroffReason":"业扩工程（科技城建设公司荆长大道提升改造鸿雁H802线等线路迁改工程）：大九H7607线电缆改接至新上九胜开关站Ⅰ段，国立分支箱分线改接至新九胜开关站待用G05号间隔","powerTime":"2020-03-17 16:23:53","powerComm":"施工力量充足，工作提前结束。","subsNo":"","lineNo":"","tgNo":"","tgName":null,"infoStatus":"1","orgName":"国网浙江杭州市余杭区供电有限公司","typeName":null,"infoStatusName":null,"dateDay":null,"orgNos":null,"nowTime":null,"countyName":null,"streetName":null,"villageName":null,"roadName":null,"communityName":null,"tranName":null,"sdLineName":null,"cityCode":"3340140","cityName":"国网浙江杭州市余杭区供电有限公司","provinceCode":null,"stopTime":"2020-03-17 18:30:00","powerType":"全部","powerOffArea":"九胜开关站断桥H760线国立分支箱分线","powerOffReason":"业扩工程（科技城建设公司荆长大道提升改造鸿雁H802线等线路迁改工程）：大九H7607线电缆改接至新上九胜开关站Ⅰ段，国立分支箱分线改接至新九胜开关站待用G05号间隔","powerOffId":"2020030631020282"},{"poweroffId":2020030631020278,"sgpoweroffId":null,"subsName":"","lineName":"10kV三桥G652线","pubTranName":"丁塘4组（红联）公变,","scope":"浙江省杭州市余杭区南苑街道：丁塘4组一带","startTime":"2020-03-17 13:30:00","stopDate":"2020-03-17 17:30:00","orgNo":"3340140","typeCode":"计划停电","poweroffArea":"110kV南苑变:三桥G652线丁塘4组（红联）公变令克。","poweroffReason":"丁塘4组（红联）变调换计量箱1台及配变计量出线电缆。","powerTime":"2020-03-17 16:04:55","powerComm":"已送电","subsNo":"","lineNo":"","tgNo":"","tgName":null,"infoStatus":"1","orgName":"国网浙江杭州市余杭区供电有限公司","typeName":null,"infoStatusName":null,"dateDay":null,"orgNos":null,"nowTime":null,"countyName":null,"streetName":null,"villageName":null,"roadName":null,"communityName":null,"tranName":null,"sdLineName":null,"cityCode":"3340140","cityName":"国网浙江杭州市余杭区供电有限公司","provinceCode":null,"stopTime":"2020-03-17 17:30:00","powerType":"全部","powerOffArea":"110kV南苑变:三桥G652线丁塘4组（红联）公变令克。","powerOffReason":"丁塘4组（红联）变调换计量箱1台及配变计量出线电缆。","powerOffId":"2020030631020278"},{"poweroffId":2020030631020277,"sgpoweroffId":null,"subsName":"","lineName":"10kV北湖H504线","pubTranName":"西安寺村下洋村公变,西安寺村赤淇公变,","scope":"浙江省杭州市余杭区瓶窑镇：西安寺村下洋村、西安寺村赤淇一带","startTime":"2020-03-17 09:40:00","stopDate":"2020-03-17 16:40:00","orgNo":"3340140","typeCode":"计划停电","poweroffArea":"35kV瓶镇变:北湖H504线赤淇分线","poweroffReason":"计划工作 原停电结束时间为2020-03-17 15:40:00,因施工受阻原因,现变更停电结束时间为2020-03-17 16:40:00","powerTime":"2020-03-17 16:35:09","powerComm":"已送电","subsNo":"","lineNo":"","tgNo":"","tgName":null,"infoStatus":"1","orgName":"国网浙江杭州市余杭区供电有限公司","typeName":null,"infoStatusName":null,"dateDay":null,"orgNos":null,"nowTime":null,"countyName":null,"streetName":null,"villageName":null,"roadName":null,"communityName":null,"tranName":null,"sdLineName":null,"cityCode":"3340140","cityName":"国网浙江杭州市余杭区供电有限公司","provinceCode":null,"stopTime":"2020-03-17 16:40:00","powerType":"全部","powerOffArea":"35kV瓶镇变:北湖H504线赤淇分线","powerOffReason":"计划工作 原停电结束时间为2020-03-17 15:40:00,因施工受阻原因,现变更停电结束时间为2020-03-17 16:40:00","powerOffId":"2020030631020277"},{"poweroffId":2020030631020276,"sgpoweroffId":null,"subsName":"","lineName":"10kV北湖H504线","pubTranName":"张堰村东塘角1号公变,","scope":"浙江省杭州市余杭区瓶窑镇：张堰村东塘角一带","startTime":"2020-03-17 08:40:00","stopDate":"2020-03-17 17:50:00","orgNo":"3340140","typeCode":"计划停电","poweroffArea":"35kV瓶镇变:北湖H504线东塘角1分线","poweroffReason":"计划工作 原停电结束时间为2020-03-17 17:00:00,因施工受阻原因,现变更停电结束时间为2020-03-17 17:50:00","powerTime":"2020-03-17 17:30:09","powerComm":"已送电","subsNo":"","lineNo":"","tgNo":"","tgName":null,"infoStatus":"1","orgName":"国网浙江杭州市余杭区供电有限公司","typeName":null,"infoStatusName":null,"dateDay":null,"orgNos":null,"nowTime":null,"countyName":null,"streetName":null,"villageName":null,"roadName":null,"communityName":null,"tranName":null,"sdLineName":null,"cityCode":"3340140","cityName":"国网浙江杭州市余杭区供电有限公司","provinceCode":null,"stopTime":"2020-03-17 17:50:00","powerType":"全部","powerOffArea":"35kV瓶镇变:北湖H504线东塘角1分线","powerOffReason":"计划工作 原停电结束时间为2020-03-17 17:00:00,因施工受阻原因,现变更停电结束时间为2020-03-17 17:50:00","powerOffId":"2020030631020276"},{"poweroffId":2020030631020274,"sgpoweroffId":null,"subsName":"","lineName":"10kV三桥G652线","pubTranName":"丁塘4组（贺家堰）公变,","scope":"浙江省杭州市余杭区南苑街道：丁塘4组一带","startTime":"2020-03-17 08:30:00","stopDate":"2020-03-17 13:00:00","orgNo":"3340140","typeCode":"计划停电","poweroffArea":"110kV南苑变:三桥G652线丁塘4组（贺家堰）公变令克","poweroffReason":"丁塘4组（贺家堰）变调换计量箱1台及配变至计量箱电缆。","powerTime":"2020-03-17 12:38:32","powerComm":"已送电","subsNo":"","lineNo":"","tgNo":"","tgName":null,"infoStatus":"1","orgName":"国网浙江杭州市余杭区供电有限公司","typeName":null,"infoStatusName":null,"dateDay":null,"orgNos":null,"nowTime":null,"countyName":null,"streetName":null,"villageName":null,"roadName":null,"communityName":null,"tranName":null,"sdLineName":null,"cityCode":"3340140","cityName":"国网浙江杭州市余杭区供电有限公司","provinceCode":null,"stopTime":"2020-03-17 13:00:00","powerType":"全部","powerOffArea":"110kV南苑变:三桥G652线丁塘4组（贺家堰）公变令克","powerOffReason":"丁塘4组（贺家堰）变调换计量箱1台及配变至计量箱电缆。","powerOffId":"2020030631020274"},{"poweroffId":2020030631020273,"sgpoweroffId":null,"subsName":"","lineName":"10kV三桥G652线","pubTranName":"长树11组（王家门）公变,","scope":"浙江省杭州市余杭区南苑街道：长树11组一带","startTime":"2020-03-17 08:30:00","stopDate":"2020-03-17 13:00:00","orgNo":"3340140","typeCode":"计划停电","poweroffArea":"110kV南苑变:三桥G652线长树11组（王家门）公变令克","poweroffReason":"长树11组（王家门）公变调换计量箱1台。","powerTime":"2020-03-17 12:34:45","powerComm":"已送电","subsNo":"","lineNo":"","tgNo":"","tgName":null,"infoStatus":"1","orgName":"国网浙江杭州市余杭区供电有限公司","typeName":null,"infoStatusName":null,"dateDay":null,"orgNos":null,"nowTime":null,"countyName":null,"streetName":null,"villageName":null,"roadName":null,"communityName":null,"tranName":null,"sdLineName":null,"cityCode":"3340140","cityName":"国网浙江杭州市余杭区供电有限公司","provinceCode":null,"stopTime":"2020-03-17 13:00:00","powerType":"全部","powerOffArea":"110kV南苑变:三桥G652线长树11组（王家门）公变令克","powerOffReason":"长树11组（王家门）公变调换计量箱1台。","powerOffId":"2020030631020273"},{"poweroffId":2020030631020272,"sgpoweroffId":null,"subsName":"","lineName":"10kV苕溪H522线","pubTranName":"崇化村施家斗公变,崇化村蒿山头公变,崇化村小木桥公变,崇化村戴家头公变,","scope":"浙江省杭州市余杭区瓶窑镇：崇化村施家斗、崇化村蒿山头、崇化村戴家头、崇化村小木桥一带","startTime":"2020-03-16 08:40:00","stopDate":"2020-03-16 15:40:00","orgNo":"3340140","typeCode":"计划停电","poweroffArea":"110kV凤山变:苕溪H522线蒿山头分线10号杆开关后段","poweroffReason":"计划工作","powerTime":"2020-03-16 14:55:08","powerComm":"已送电","subsNo":"","lineNo":"","tgNo":"","tgName":null,"infoStatus":"1","orgName":"国网浙江杭州市余杭区供电有限公司","typeName":null,"infoStatusName":null,"dateDay":null,"orgNos":null,"nowTime":null,"countyName":null,"streetName":null,"villageName":null,"roadName":null,"communityName":null,"tranName":null,"sdLineName":null,"cityCode":"3340140","cityName":"国网浙江杭州市余杭区供电有限公司","provinceCode":null,"stopTime":"2020-03-16 15:40:00","powerType":"全部","powerOffArea":"110kV凤山变:苕溪H522线蒿山头分线10号杆开关后段","powerOffReason":"计划工作","powerOffId":"2020030631020272"}],"pageModel":{"pageNow":505,"totalCount":17789,"totalPage":1779,"tableRows":0,"pageCount":10,"beginCount":5040},"isExperi":"1"}