{"message":"","today":"2020-06-15","seleList":[{"poweroffId":2020030631020231,"sgpoweroffId":null,"subsName":"","lineName":"10kV江堤D355线","pubTranName":"富阳市人民检察院,","scope":"浙江省-杭州市-富阳区-富春街道-城西社区-杭州市富阳区人民检察院","startTime":"2020-03-21 08:10:00","stopDate":"2020-03-21 16:00:00","orgNo":"3340170","typeCode":"计划停电","poweroffArea":"110kV富鹿变:江堤D355线-富阳市人民检察院后段","poweroffReason":"客户迁改配合停电","powerTime":"2020-03-21 15:30:18","powerComm":"已送电","subsNo":"","lineNo":"","tgNo":"","tgName":null,"infoStatus":"1","orgName":"国网浙江杭州市富阳区供电公司","typeName":null,"infoStatusName":null,"dateDay":null,"orgNos":null,"nowTime":null,"countyName":null,"streetName":null,"villageName":null,"roadName":null,"communityName":null,"tranName":null,"sdLineName":null,"cityCode":"3340170","cityName":"国网浙江杭州市富阳区供电公司","provinceCode":null,"stopTime":"2020-03-21 16:00:00","powerType":"全部","powerOffArea":"110kV富鹿变:江堤D355线-富阳市人民检察院后段","powerOffReason":"客户迁改配合停电","powerOffId":"2020030631020231"},{"poweroffId":2020030631020226,"sgpoweroffId":null,"subsName":"","lineName":"10kV江堤D355线","pubTranName":"杭州海关驻富阳办事处,","scope":"浙江省-杭州市-富阳区-富春街道-城西社区-中华人民共和国钱江海关","startTime":"2020-03-21 08:30:00","stopDate":"2020-03-21 16:00:00","orgNo":"3340170","typeCode":"计划停电","poweroffArea":"110kV富鹿变:江堤D355线-杭州海关驻富阳办事处后段","poweroffReason":"富春73号地块（金茂房产）出让线路迁改工程：江堤D355线西堤一号开关站5#间隔海关线电缆拆除，原海关线电缆上杆至西堤一号开关站2#间隔西新D3551线1#杆新上海关分线13#杆等工作","powerTime":"2020-03-21 15:30:07","powerComm":"已送电","subsNo":"","lineNo":"","tgNo":"","tgName":null,"infoStatus":"1","orgName":"国网浙江杭州市富阳区供电公司","typeName":null,"infoStatusName":null,"dateDay":null,"orgNos":null,"nowTime":null,"countyName":null,"streetName":null,"villageName":null,"roadName":null,"communityName":null,"tranName":null,"sdLineName":null,"cityCode":"3340170","cityName":"国网浙江杭州市富阳区供电公司","provinceCode":null,"stopTime":"2020-03-21 16:00:00","powerType":"全部","powerOffArea":"110kV富鹿变:江堤D355线-杭州海关驻富阳办事处后段","powerOffReason":"富春73号地块（金茂房产）出让线路迁改工程：江堤D355线西堤一号开关站5#间隔海关线电缆拆除，原海关线电缆上杆至西堤一号开关站2#间隔西新D3551线1#杆新上海关分线13#杆等工作","powerOffId":"2020030631020226"},{"poweroffId":2020030631020217,"sgpoweroffId":null,"subsName":"","lineName":"10kV贤德D333线","pubTranName":"查口村5号黄泥凸公变,","scope":"浙江省杭州市富阳区洞桥镇查口行政村黄泥凸自然村一带","startTime":"2020-03-19 16:30:00","stopDate":"2020-03-19 17:00:00","orgNo":"3340170","typeCode":"计划停电","poweroffArea":"110kV万市变:贤德D333线196#杆查口分线2#杆贤三联线3#杆俞家公变分线10#杆查口村5号黄泥凸公变","poweroffReason":"配合0.4kV发电车拆除","powerTime":"2020-03-19 16:51:51","powerComm":"已送电","subsNo":"","lineNo":"","tgNo":"","tgName":null,"infoStatus":"1","orgName":"国网浙江杭州市富阳区供电公司","typeName":null,"infoStatusName":null,"dateDay":null,"orgNos":null,"nowTime":null,"countyName":null,"streetName":null,"villageName":null,"roadName":null,"communityName":null,"tranName":null,"sdLineName":null,"cityCode":"3340170","cityName":"国网浙江杭州市富阳区供电公司","provinceCode":null,"stopTime":"2020-03-19 17:00:00","powerType":"全部","powerOffArea":"110kV万市变:贤德D333线196#杆查口分线2#杆贤三联线3#杆俞家公变分线10#杆查口村5号黄泥凸公变","powerOffReason":"配合0.4kV发电车拆除","powerOffId":"2020030631020217"},{"poweroffId":2020030631020206,"sgpoweroffId":null,"subsName":"","lineName":"10kV贤德D333线","pubTranName":"查口村2#徐家公变,查口村8#告坞公变,查口村3#黄家公变,查口村4#袁家公变,查口村6#太阳坞公变,查口村9#文昌阁公变,查口村1号俞家公变,查口村7#桥头坞公变,查口村10#西坞里公变,","scope":"浙江省杭州市富阳区洞桥镇查口行政村一带","startTime":"2020-03-19 16:30:00","stopDate":"2020-03-19 17:00:00","orgNo":"3340170","typeCode":"计划停电","poweroffArea":"110kV万市变:贤德D333线196#杆查口分线10#杆后段","poweroffReason":"配合10kV发电车拆除","powerTime":"2020-03-19 16:51:41","powerComm":"已送电","subsNo":"","lineNo":"","tgNo":"","tgName":null,"infoStatus":"1","orgName":"国网浙江杭州市富阳区供电公司","typeName":null,"infoStatusName":null,"dateDay":null,"orgNos":null,"nowTime":null,"countyName":null,"streetName":null,"villageName":null,"roadName":null,"communityName":null,"tranName":null,"sdLineName":null,"cityCode":"3340170","cityName":"国网浙江杭州市富阳区供电公司","provinceCode":null,"stopTime":"2020-03-19 17:00:00","powerType":"全部","powerOffArea":"110kV万市变:贤德D333线196#杆查口分线10#杆后段","powerOffReason":"配合10kV发电车拆除","powerOffId":"2020030631020206"},{"poweroffId":2020030631020203,"sgpoweroffId":null,"subsName":"","lineName":"10kV贤德D333线","pubTranName":"富阳文达机械配件厂,","scope":"浙江省杭州市富阳区洞桥镇富阳文达机械配件厂一带","startTime":"2020-03-19 07:30:00","stopDate":"2020-03-19 17:00:00","orgNo":"3340170","typeCode":"计划停电","poweroffArea":"110kV万市变:贤德D333线196#杆查口分线2#杆贤三联线20#杆文达机械分线2#杆富阳文达机械配件厂","poweroffReason":"配合用户内部检修","powerTime":"2020-03-19 16:51:29","powerComm":"已送电","subsNo":"","lineNo":"","tgNo":"","tgName":null,"infoStatus":"1","orgName":"国网浙江杭州市富阳区供电公司","typeName":null,"infoStatusName":null,"dateDay":null,"orgNos":null,"nowTime":null,"countyName":null,"streetName":null,"villageName":null,"roadName":null,"communityName":null,"tranName":null,"sdLineName":null,"cityCode":"3340170","cityName":"国网浙江杭州市富阳区供电公司","provinceCode":null,"stopTime":"2020-03-19 17:00:00","powerType":"全部","powerOffArea":"110kV万市变:贤德D333线196#杆查口分线2#杆贤三联线20#杆文达机械分线2#杆富阳文达机械配件厂","powerOffReason":"配合用户内部检修","powerOffId":"2020030631020203"},{"poweroffId":2020030631020199,"sgpoweroffId":null,"subsName":"","lineName":"10kV贤德D333线","pubTranName":"贤德村14号俞家公变,","scope":"浙江省杭州市富阳区洞桥镇贤德行政村俞家自然村一带","startTime":"2020-03-19 16:30:00","stopDate":"2020-03-19 17:00:00","orgNo":"3340170","typeCode":"计划停电","poweroffArea":"110kV万市变:贤德D333线196#杆查口分线2#杆贤三联线3#杆俞家公变分线3#杆贤德村14号俞家公变","poweroffReason":"配合0.4kV发电车拆除","powerTime":"2020-03-19 16:51:06","powerComm":"已送电","subsNo":"","lineNo":"","tgNo":"","tgName":null,"infoStatus":"1","orgName":"国网浙江杭州市富阳区供电公司","typeName":null,"infoStatusName":null,"dateDay":null,"orgNos":null,"nowTime":null,"countyName":null,"streetName":null,"villageName":null,"roadName":null,"communityName":null,"tranName":null,"sdLineName":null,"cityCode":"3340170","cityName":"国网浙江杭州市富阳区供电公司","provinceCode":null,"stopTime":"2020-03-19 17:00:00","powerType":"全部","powerOffArea":"110kV万市变:贤德D333线196#杆查口分线2#杆贤三联线3#杆俞家公变分线3#杆贤德村14号俞家公变","powerOffReason":"配合0.4kV发电车拆除","powerOffId":"2020030631020199"},{"poweroffId":2020030631020198,"sgpoweroffId":null,"subsName":"","lineName":"10kV贤德D333线","pubTranName":"查口村7#桥头坞公变,查口村2#徐家公变,查口村10#西坞里公变,查口村1号俞家公变,查口村3#黄家公变,查口村9#文昌阁公变,查口村4#袁家公变,查口村8#告坞公变,查口村6#太阳坞公变,","scope":"浙江省杭州市富阳区洞桥镇查口行政村一带","startTime":"2020-03-19 08:00:00","stopDate":"2020-03-19 08:30:00","orgNo":"3340170","typeCode":"计划停电","poweroffArea":"110kV万市变:贤德D333线196#杆查口分线10#杆后段","poweroffReason":"配合10Kv发电车接入","powerTime":"2020-03-19 08:11:48","powerComm":"已送电","subsNo":"","lineNo":"","tgNo":"","tgName":null,"infoStatus":"1","orgName":"国网浙江杭州市富阳区供电公司","typeName":null,"infoStatusName":null,"dateDay":null,"orgNos":null,"nowTime":null,"countyName":null,"streetName":null,"villageName":null,"roadName":null,"communityName":null,"tranName":null,"sdLineName":null,"cityCode":"3340170","cityName":"国网浙江杭州市富阳区供电公司","provinceCode":null,"stopTime":"2020-03-19 08:30:00","powerType":"全部","powerOffArea":"110kV万市变:贤德D333线196#杆查口分线10#杆后段","powerOffReason":"配合10Kv发电车接入","powerOffId":"2020030631020198"},{"poweroffId":2020030631020195,"sgpoweroffId":null,"subsName":"","lineName":"10kV贤德D333线","pubTranName":"贤德村14号俞家公变,","scope":"浙江省杭州市富阳区洞桥镇贤德行政村俞家自然村一带","startTime":"2020-03-19 08:00:00","stopDate":"2020-03-19 08:30:00","orgNo":"3340170","typeCode":"计划停电","poweroffArea":"110kV万市变:贤德D333线196#杆查口分线2#杆贤三联线3#杆俞家公变分线3#杆贤德村14号俞家公变","poweroffReason":"配合0.4Kv发电车接入","powerTime":"2020-03-19 08:11:37","powerComm":"已送电","subsNo":"","lineNo":"","tgNo":"","tgName":null,"infoStatus":"1","orgName":"国网浙江杭州市富阳区供电公司","typeName":null,"infoStatusName":null,"dateDay":null,"orgNos":null,"nowTime":null,"countyName":null,"streetName":null,"villageName":null,"roadName":null,"communityName":null,"tranName":null,"sdLineName":null,"cityCode":"3340170","cityName":"国网浙江杭州市富阳区供电公司","provinceCode":null,"stopTime":"2020-03-19 08:30:00","powerType":"全部","powerOffArea":"110kV万市变:贤德D333线196#杆查口分线2#杆贤三联线3#杆俞家公变分线3#杆贤德村14号俞家公变","powerOffReason":"配合0.4Kv发电车接入","powerOffId":"2020030631020195"},{"poweroffId":2020030631020194,"sgpoweroffId":null,"subsName":"","lineName":"10kV贤德D333线","pubTranName":"查口村5号黄泥凸公变,","scope":"浙江省杭州市富阳区洞桥镇查口行政村黄泥凸自然村一带","startTime":"2020-03-19 08:00:00","stopDate":"2020-03-19 08:30:00","orgNo":"3340170","typeCode":"计划停电","poweroffArea":"110kV万市变:贤德D333线196#杆查口分线2#杆贤三联线3#杆俞家公变分线10#杆查口村5号黄泥凸公变","poweroffReason":"配合0.4kV发电车接入","powerTime":"2020-03-19 08:28:42","powerComm":"已送电","subsNo":"","lineNo":"","tgNo":"","tgName":null,"infoStatus":"1","orgName":"国网浙江杭州市富阳区供电公司","typeName":null,"infoStatusName":null,"dateDay":null,"orgNos":null,"nowTime":null,"countyName":null,"streetName":null,"villageName":null,"roadName":null,"communityName":null,"tranName":null,"sdLineName":null,"cityCode":"3340170","cityName":"国网浙江杭州市富阳区供电公司","provinceCode":null,"stopTime":"2020-03-19 08:30:00","powerType":"全部","powerOffArea":"110kV万市变:贤德D333线196#杆查口分线2#杆贤三联线3#杆俞家公变分线10#杆查口村5号黄泥凸公变","powerOffReason":"配合0.4kV发电车接入","powerOffId":"2020030631020194"},{"poweroffId":2020030631020193,"sgpoweroffId":null,"subsName":"","lineName":"10kV拔山D942线","pubTranName":"新联村栗柴坞4号公变,新联村8#栗柴坞3公变,","scope":"浙江省-杭州市-富阳区-富春街道-拔山行政村(栗柴坞自然村,骑龙里自然村)","startTime":"2020-03-17 08:45:00","stopDate":"2020-03-17 13:30:00","orgNo":"3340170","typeCode":"计划停电","poweroffArea":"110kV育才变:拔山D942线首端，新联村栗柴坞4号公变，新联村8#栗柴坞3公变之间","poweroffReason":"10kV拔山D942线113#杆栗柴坞分线12#杆搭头，0.4kV新联村8#栗柴坞3公变1线1#-3杆至1#-4杆导线拆除等工作，原停电结束时间为11:30:00,因工作复杂原因,现变更停电结束时间为13:30:00","powerTime":"2020-03-17 13:09:53","powerComm":"已送电","subsNo":"","lineNo":"","tgNo":"","tgName":null,"infoStatus":"1","orgName":"国网浙江杭州市富阳区供电公司","typeName":null,"infoStatusName":null,"dateDay":null,"orgNos":null,"nowTime":null,"countyName":null,"streetName":null,"villageName":null,"roadName":null,"communityName":null,"tranName":null,"sdLineName":null,"cityCode":"3340170","cityName":"国网浙江杭州市富阳区供电公司","provinceCode":null,"stopTime":"2020-03-17 13:30:00","powerType":"全部","powerOffArea":"110kV育才变:拔山D942线首端，新联村栗柴坞4号公变，新联村8#栗柴坞3公变之间","powerOffReason":"10kV拔山D942线113#杆栗柴坞分线12#杆搭头，0.4kV新联村8#栗柴坞3公变1线1#-3杆至1#-4杆导线拆除等工作，原停电结束时间为11:30:00,因工作复杂原因,现变更停电结束时间为13:30:00","powerOffId":"2020030631020193"}],"pageModel":{"pageNow":507,"totalCount":17789,"totalPage":1779,"tableRows":0,"pageCount":10,"beginCount":5060},"isExperi":"1"}