{"message":"","today":"2020-06-15","seleList":[{"poweroffId":2020030631020190,"sgpoweroffId":null,"subsName":"","lineName":"10kV交通D364线","pubTranName":"富阳市向新化工有限公司,","scope":"浙江省-杭州市-富阳区-富春街道-秋丰行政村-杭州富阳向新化工有限公司","startTime":"2020-03-23 08:45:00","stopDate":"2020-03-23 16:00:00","orgNo":"3340170","typeCode":"计划停电","poweroffArea":"110kV富鹿变:交通D364线-富阳市向新化工有限公司后段","poweroffReason":"富阳320国道至富阳大桥连接线鹿山（大盘山）隧道电力迁改工程：10kV交通D364线28#杆花岗分线6#杆富阳市向新化工有限公司配变拆装，安装计量箱等工作 原停电时间为2020-03-16 ,因政策原因,现变更停电时间为2020-03-23","powerTime":"2020-03-23 15:50:12","powerComm":"已送电","subsNo":"","lineNo":"","tgNo":"","tgName":null,"infoStatus":"1","orgName":"国网浙江杭州市富阳区供电公司","typeName":null,"infoStatusName":null,"dateDay":null,"orgNos":null,"nowTime":null,"countyName":null,"streetName":null,"villageName":null,"roadName":null,"communityName":null,"tranName":null,"sdLineName":null,"cityCode":"3340170","cityName":"国网浙江杭州市富阳区供电公司","provinceCode":null,"stopTime":"2020-03-23 16:00:00","powerType":"全部","powerOffArea":"110kV富鹿变:交通D364线-富阳市向新化工有限公司后段","powerOffReason":"富阳320国道至富阳大桥连接线鹿山（大盘山）隧道电力迁改工程：10kV交通D364线28#杆花岗分线6#杆富阳市向新化工有限公司配变拆装，安装计量箱等工作 原停电时间为2020-03-16 ,因政策原因,现变更停电时间为2020-03-23","powerOffId":"2020030631020190"},{"poweroffId":2020030631020186,"sgpoweroffId":null,"subsName":"","lineName":"10kV站用T176线","pubTranName":"保安义林2号公变,","scope":"浙江省-杭州市-桐庐县-分水镇-保安行政村-义林自然村","startTime":"2020-03-06 13:48:00","stopDate":"2020-03-06 17:48:00","orgNo":"3340150","typeCode":"电网故障停限电","poweroffArea":"110kV分水变:站用T176线保安义林2号公变配变","poweroffReason":"(低压停电信息)低压开关跳闸","powerTime":"2020-03-06 17:19:35","powerComm":"已送电","subsNo":"","lineNo":"","tgNo":"","tgName":null,"infoStatus":"1","orgName":"国网浙江桐庐县供电公司","typeName":null,"infoStatusName":null,"dateDay":null,"orgNos":null,"nowTime":null,"countyName":null,"streetName":null,"villageName":null,"roadName":null,"communityName":null,"tranName":null,"sdLineName":null,"cityCode":"3340150","cityName":"国网浙江桐庐县供电公司","provinceCode":null,"stopTime":"2020-03-06 17:48:00","powerType":"全部","powerOffArea":"110kV分水变:站用T176线保安义林2号公变配变","powerOffReason":"(低压停电信息)低压开关跳闸","powerOffId":"2020030631020186"},{"poweroffId":2020030631020185,"sgpoweroffId":null,"subsName":"","lineName":"10kV万兴D675线","pubTranName":"华共村2#上沈家公变,","scope":"浙江省杭州市富阳区春江街道华共村一带","startTime":"2020-03-20 08:30:00","stopDate":"2020-03-20 16:40:00","orgNo":"3340170","typeCode":"计划停电","poweroffArea":"110kV临江变:万兴D675线-华共村2#上沈家公变低压配电开关后段","poweroffReason":"(低压停电信息)江南华共村拆迁工程；拆导线15档、橫担工作。","powerTime":"2020-03-20 16:28:44","powerComm":"已送电","subsNo":"","lineNo":"","tgNo":"","tgName":null,"infoStatus":"1","orgName":"国网浙江杭州市富阳区供电公司","typeName":null,"infoStatusName":null,"dateDay":null,"orgNos":null,"nowTime":null,"countyName":null,"streetName":null,"villageName":null,"roadName":null,"communityName":null,"tranName":null,"sdLineName":null,"cityCode":"3340170","cityName":"国网浙江杭州市富阳区供电公司","provinceCode":null,"stopTime":"2020-03-20 16:40:00","powerType":"全部","powerOffArea":"110kV临江变:万兴D675线-华共村2#上沈家公变低压配电开关后段","powerOffReason":"(低压停电信息)江南华共村拆迁工程；拆导线15档、橫担工作。","powerOffId":"2020030631020185"},{"poweroffId":2020030631020183,"sgpoweroffId":null,"subsName":"","lineName":"10kV李家D384线","pubTranName":"新二村5#中塔公变,","scope":"浙江省杭州市富阳区湖源乡新二村一带","startTime":"2020-03-19 09:00:00","stopDate":"2020-03-19 16:40:00","orgNo":"3340170","typeCode":"计划停电","poweroffArea":"35kV湖源变:李家D384线-新二村5#中塔公变开关后段","poweroffReason":"(低压停电信息)放接户线、装表等工作","powerTime":"2020-03-19 16:25:00","powerComm":"已送电","subsNo":"","lineNo":"","tgNo":"","tgName":null,"infoStatus":"1","orgName":"国网浙江杭州市富阳区供电公司","typeName":null,"infoStatusName":null,"dateDay":null,"orgNos":null,"nowTime":null,"countyName":null,"streetName":null,"villageName":null,"roadName":null,"communityName":null,"tranName":null,"sdLineName":null,"cityCode":"3340170","cityName":"国网浙江杭州市富阳区供电公司","provinceCode":null,"stopTime":"2020-03-19 16:40:00","powerType":"全部","powerOffArea":"35kV湖源变:李家D384线-新二村5#中塔公变开关后段","powerOffReason":"(低压停电信息)放接户线、装表等工作","powerOffId":"2020030631020183"},{"poweroffId":2020030631020181,"sgpoweroffId":null,"subsName":"","lineName":"10kV安顶D909线","pubTranName":"东何村1#桥头公变,","scope":"浙江省-杭州市-富阳区-里山镇-安顶行政村-东何自然村一带","startTime":"2020-03-18 08:00:00","stopDate":"2020-03-18 16:30:00","orgNo":"3340170","typeCode":"计划停电","poweroffArea":"110kV里渔变:安顶D909线-东何村1号桥头低压开关后段","poweroffReason":"(低压停电信息)江南2020年五爱村7#新路公变等台区增容布点工程（配合停电）","powerTime":"2020-03-18 16:15:07","powerComm":"已送电","subsNo":"","lineNo":"","tgNo":"","tgName":null,"infoStatus":"1","orgName":"国网浙江杭州市富阳区供电公司","typeName":null,"infoStatusName":null,"dateDay":null,"orgNos":null,"nowTime":null,"countyName":null,"streetName":null,"villageName":null,"roadName":null,"communityName":null,"tranName":null,"sdLineName":null,"cityCode":"3340170","cityName":"国网浙江杭州市富阳区供电公司","provinceCode":null,"stopTime":"2020-03-18 16:30:00","powerType":"全部","powerOffArea":"110kV里渔变:安顶D909线-东何村1号桥头低压开关后段","powerOffReason":"(低压停电信息)江南2020年五爱村7#新路公变等台区增容布点工程（配合停电）","powerOffId":"2020030631020181"},{"poweroffId":2020030631020180,"sgpoweroffId":null,"subsName":"","lineName":"10kV巨星D926线","pubTranName":"万众村1#村中公变,","scope":"浙江省-杭州市-富阳区-渔山乡-墅溪行政村-万众自然村一带","startTime":"2020-03-17 08:30:00","stopDate":"2020-03-17 16:40:00","orgNo":"3340170","typeCode":"计划停电","poweroffArea":"110kV里渔变:巨星D926线-万众村1号村中低压开关后段","poweroffReason":"(低压停电信息)江南2019年江南地区0.4kV配电线路缺陷处理工程；架集束导线,更换接户线、搭接等工作。","powerTime":"2020-03-17 16:30:08","powerComm":"已送电","subsNo":"","lineNo":"","tgNo":"","tgName":null,"infoStatus":"1","orgName":"国网浙江杭州市富阳区供电公司","typeName":null,"infoStatusName":null,"dateDay":null,"orgNos":null,"nowTime":null,"countyName":null,"streetName":null,"villageName":null,"roadName":null,"communityName":null,"tranName":null,"sdLineName":null,"cityCode":"3340170","cityName":"国网浙江杭州市富阳区供电公司","provinceCode":null,"stopTime":"2020-03-17 16:40:00","powerType":"全部","powerOffArea":"110kV里渔变:巨星D926线-万众村1号村中低压开关后段","powerOffReason":"(低压停电信息)江南2019年江南地区0.4kV配电线路缺陷处理工程；架集束导线,更换接户线、搭接等工作。","powerOffId":"2020030631020180"},{"poweroffId":2020030631020178,"sgpoweroffId":null,"subsName":"","lineName":"10kV胥口D712线","pubTranName":"高联村8#田家公变,","scope":"浙江省杭州市富阳区胥口镇高联村田家一带","startTime":"2020-03-17 08:30:00","stopDate":"2020-03-17 16:30:00","orgNo":"3340170","typeCode":"计划停电","poweroffArea":"110kV松溪变:胥口D712线-高联村8#田家公变台区低压开关后段","poweroffReason":"(低压停电信息)新登2020年上练村5#猫塘里公变等配变增容布点工程：高联村11#周家公变吊车立杆、架线、低压电缆上杆搭头及高联村8#田家公变周家02线2#杆-3#杆水平拉制作等工作","powerTime":"2020-03-17 16:20:44","powerComm":"已送电","subsNo":"","lineNo":"","tgNo":"","tgName":null,"infoStatus":"1","orgName":"国网浙江杭州市富阳区供电公司","typeName":null,"infoStatusName":null,"dateDay":null,"orgNos":null,"nowTime":null,"countyName":null,"streetName":null,"villageName":null,"roadName":null,"communityName":null,"tranName":null,"sdLineName":null,"cityCode":"3340170","cityName":"国网浙江杭州市富阳区供电公司","provinceCode":null,"stopTime":"2020-03-17 16:30:00","powerType":"全部","powerOffArea":"110kV松溪变:胥口D712线-高联村8#田家公变台区低压开关后段","powerOffReason":"(低压停电信息)新登2020年上练村5#猫塘里公变等配变增容布点工程：高联村11#周家公变吊车立杆、架线、低压电缆上杆搭头及高联村8#田家公变周家02线2#杆-3#杆水平拉制作等工作","powerOffId":"2020030631020178"},{"poweroffId":2020030631020176,"sgpoweroffId":null,"subsName":"","lineName":"10kV新坝A186线","pubTranName":"新坝村10#变,","scope":"浙江省-杭州市-萧山区-义桥镇-新坝行政村(联新自然村,下埠自然村,方家里自然村)一带","startTime":"2020-03-06 13:46:36","stopDate":"2020-03-06 14:50:36","orgNo":"3340130","typeCode":"电网故障停限电","poweroffArea":"110kV群建变:新坝A186线-新坝村10#变台区低压开关","poweroffReason":"(低压停电信息)低压熔断器短路故障 原停电结束时间为2020-03-06 15:30:36,为减少客户停电时间,加快工作进度,提前送电,现变更停电结束时间为2020-03-06 14:50:36","powerTime":"2020-03-06 14:02:25","powerComm":"已送电","subsNo":"","lineNo":"","tgNo":"","tgName":null,"infoStatus":"1","orgName":"国网浙江杭州市萧山区供电有限公司","typeName":null,"infoStatusName":null,"dateDay":null,"orgNos":null,"nowTime":null,"countyName":null,"streetName":null,"villageName":null,"roadName":null,"communityName":null,"tranName":null,"sdLineName":null,"cityCode":"3340130","cityName":"国网浙江杭州市萧山区供电有限公司","provinceCode":null,"stopTime":"2020-03-06 14:50:36","powerType":"全部","powerOffArea":"110kV群建变:新坝A186线-新坝村10#变台区低压开关","powerOffReason":"(低压停电信息)低压熔断器短路故障 原停电结束时间为2020-03-06 15:30:36,为减少客户停电时间,加快工作进度,提前送电,现变更停电结束时间为2020-03-06 14:50:36","powerOffId":"2020030631020176"},{"poweroffId":2020030631020170,"sgpoweroffId":null,"subsName":"","lineName":"10kV安顶D909线","pubTranName":"大坞底3#车站公变,","scope":"浙江省-杭州市-富阳区-里山镇-安顶行政村-大坞底自然村 -大坞底自然村车站一带","startTime":"2020-03-16 08:00:00","stopDate":"2020-03-16 16:00:00","orgNo":"3340170","typeCode":"计划停电","poweroffArea":"110kV里渔变:安顶D909线-大坞底3号车站低压开关后段","poweroffReason":"(低压停电信息)江南2020年五爱村7#新路公变等台区增容布点工程：新布点400KVA配变1台，杆上计量箱1只，新立15米杆1支、12米杆1支，新出低压线路2档，拆除旧导线1档，耐张引线拆除1处，负荷割接，线路拆、搭头等工作。","powerTime":"2020-03-16 15:50:20","powerComm":"已送电","subsNo":"","lineNo":"","tgNo":"","tgName":null,"infoStatus":"1","orgName":"国网浙江杭州市富阳区供电公司","typeName":null,"infoStatusName":null,"dateDay":null,"orgNos":null,"nowTime":null,"countyName":null,"streetName":null,"villageName":null,"roadName":null,"communityName":null,"tranName":null,"sdLineName":null,"cityCode":"3340170","cityName":"国网浙江杭州市富阳区供电公司","provinceCode":null,"stopTime":"2020-03-16 16:00:00","powerType":"全部","powerOffArea":"110kV里渔变:安顶D909线-大坞底3号车站低压开关后段","powerOffReason":"(低压停电信息)江南2020年五爱村7#新路公变等台区增容布点工程：新布点400KVA配变1台，杆上计量箱1只，新立15米杆1支、12米杆1支，新出低压线路2档，拆除旧导线1档，耐张引线拆除1处，负荷割接，线路拆、搭头等工作。","powerOffId":"2020030631020170"},{"poweroffId":2020030631020169,"sgpoweroffId":null,"subsName":"","lineName":"10kV安顶D909线","pubTranName":"石埭村2#路边公变,","scope":"浙江省-杭州市-富阳区-里山镇-安顶行政村-石埭自然村一带","startTime":"2020-03-16 08:00:00","stopDate":"2020-03-16 16:00:00","orgNo":"3340170","typeCode":"计划停电","poweroffArea":"110kV里渔变:安顶D909线-石埭村2号路边低压开关后段","poweroffReason":"(低压停电信息)江南2020年五爱村7#新路公变等台区增容布点工程（配合停电）","powerTime":"2020-03-16 15:50:10","powerComm":"已送电","subsNo":"","lineNo":"","tgNo":"","tgName":null,"infoStatus":"1","orgName":"国网浙江杭州市富阳区供电公司","typeName":null,"infoStatusName":null,"dateDay":null,"orgNos":null,"nowTime":null,"countyName":null,"streetName":null,"villageName":null,"roadName":null,"communityName":null,"tranName":null,"sdLineName":null,"cityCode":"3340170","cityName":"国网浙江杭州市富阳区供电公司","provinceCode":null,"stopTime":"2020-03-16 16:00:00","powerType":"全部","powerOffArea":"110kV里渔变:安顶D909线-石埭村2号路边低压开关后段","powerOffReason":"(低压停电信息)江南2020年五爱村7#新路公变等台区增容布点工程（配合停电）","powerOffId":"2020030631020169"}],"pageModel":{"pageNow":508,"totalCount":17789,"totalPage":1779,"tableRows":0,"pageCount":10,"beginCount":5070},"isExperi":"1"}