{"message":"","today":"2020-06-15","seleList":[{"poweroffId":2020030531020032,"sgpoweroffId":null,"subsName":"","lineName":"10kV里湖T424线","pubTranName":"天英新民1号公变,","scope":"浙江省-杭州市-桐庐县-分水镇-天英行政村新民自然村","startTime":"2020-03-05 09:55:26","stopDate":"2020-03-05 12:55:26","orgNo":"3340150","typeCode":"电网故障停限电","poweroffArea":"110kV天英变:里湖T424线-天英新民1号公变后段","poweroffReason":"高压开关跳闸","powerTime":"2020-03-05 12:42:03","powerComm":"已送电","subsNo":"","lineNo":"","tgNo":"","tgName":null,"infoStatus":"1","orgName":"国网浙江桐庐县供电公司","typeName":null,"infoStatusName":null,"dateDay":null,"orgNos":null,"nowTime":null,"countyName":null,"streetName":null,"villageName":null,"roadName":null,"communityName":null,"tranName":null,"sdLineName":null,"cityCode":"3340150","cityName":"国网浙江桐庐县供电公司","provinceCode":null,"stopTime":"2020-03-05 12:55:26","powerType":"全部","powerOffArea":"110kV天英变:里湖T424线-天英新民1号公变后段","powerOffReason":"高压开关跳闸","powerOffId":"2020030531020032"},{"poweroffId":2020030531020027,"sgpoweroffId":null,"subsName":"","lineName":"10kV万圣C877线","pubTranName":"宁东村11#变,","scope":"浙江省-杭州市-萧山区-宁围镇-宁围街道-宁东社区-宁东自然村等一带","startTime":"2020-03-05 09:22:06","stopDate":"2020-03-05 10:58:06","orgNo":"3340130","typeCode":"电网故障停限电","poweroffArea":"110kV万安变:万圣C877线-宁东村11#变台区低压开关","poweroffReason":"(低压停电信息)低压漏电保护器短路故障 原停电结束时间为2020-03-05 11:58:06,为减少客户停电时间,加快工作进度,提前送电,现变更停电结束时间为2020-03-05 10:58:06","powerTime":"2020-03-05 10:02:57","powerComm":"已送电","subsNo":"","lineNo":"","tgNo":"","tgName":null,"infoStatus":"1","orgName":"国网浙江杭州市萧山区供电有限公司","typeName":null,"infoStatusName":null,"dateDay":null,"orgNos":null,"nowTime":null,"countyName":null,"streetName":null,"villageName":null,"roadName":null,"communityName":null,"tranName":null,"sdLineName":null,"cityCode":"3340130","cityName":"国网浙江杭州市萧山区供电有限公司","provinceCode":null,"stopTime":"2020-03-05 10:58:06","powerType":"全部","powerOffArea":"110kV万安变:万圣C877线-宁东村11#变台区低压开关","powerOffReason":"(低压停电信息)低压漏电保护器短路故障 原停电结束时间为2020-03-05 11:58:06,为减少客户停电时间,加快工作进度,提前送电,现变更停电结束时间为2020-03-05 10:58:06","powerOffId":"2020030531020027"},{"poweroffId":2020030531020024,"sgpoweroffId":null,"subsName":"","lineName":"10kV留南8869线","pubTranName":"何村（四）,","scope":"浙江省杭州市西湖区何家村北村3号、7号、8号、11号、12号、14号、15号、17号、南村14号、15号、16号、20号、24号一带","startTime":"2020-03-12 09:30:00","stopDate":"2020-03-12 12:00:00","orgNo":"3340101","typeCode":"计划停电","poweroffArea":"110kV留下变:留南8869线-何村（四）后段","poweroffReason":"(低压停电信息)转塘街道何家行政村何家村南村8号表计移表","powerTime":"2020-03-12 11:10:30","powerComm":"已送电","subsNo":"","lineNo":"","tgNo":"","tgName":null,"infoStatus":"1","orgName":"浙江杭州电力客户服务中心","typeName":null,"infoStatusName":null,"dateDay":null,"orgNos":null,"nowTime":null,"countyName":null,"streetName":null,"villageName":null,"roadName":null,"communityName":null,"tranName":null,"sdLineName":null,"cityCode":"3340101","cityName":"浙江杭州电力客户服务中心","provinceCode":null,"stopTime":"2020-03-12 12:00:00","powerType":"全部","powerOffArea":"110kV留下变:留南8869线-何村（四）后段","powerOffReason":"(低压停电信息)转塘街道何家行政村何家村南村8号表计移表","powerOffId":"2020030531020024"},{"poweroffId":2020030431020107,"sgpoweroffId":null,"subsName":"","lineName":"10kV泉华D238线","pubTranName":"逸城16#公变,","scope":"浙江省-杭州市-富阳区-东洲街道-黄公望行政村-江滨东大道","startTime":"2020-03-04 20:47:00","stopDate":"2020-03-04 23:47:00","orgNo":"3340170","typeCode":"电网故障停限电","poweroffArea":"110kV白鹤变:泉华D238线逸城16#公变配变","poweroffReason":"高压开关跳闸 原停电结束时间为2020-03-04 22:47:00,因天气原因,现变更停电结束时间为2020-03-04 23:47:00","powerTime":"2020-03-04 22:53:30","powerComm":"已送电","subsNo":"","lineNo":"","tgNo":"","tgName":null,"infoStatus":"1","orgName":"国网浙江杭州市富阳区供电公司","typeName":null,"infoStatusName":null,"dateDay":null,"orgNos":null,"nowTime":null,"countyName":null,"streetName":null,"villageName":null,"roadName":null,"communityName":null,"tranName":null,"sdLineName":null,"cityCode":"3340170","cityName":"国网浙江杭州市富阳区供电公司","provinceCode":null,"stopTime":"2020-03-04 23:47:00","powerType":"全部","powerOffArea":"110kV白鹤变:泉华D238线逸城16#公变配变","powerOffReason":"高压开关跳闸 原停电结束时间为2020-03-04 22:47:00,因天气原因,现变更停电结束时间为2020-03-04 23:47:00","powerOffId":"2020030431020107"},{"poweroffId":2020030431020099,"sgpoweroffId":null,"subsName":"","lineName":"10kV江东0302线","pubTranName":"头蓬街道9#变,","scope":"浙江省-杭州市-萧山区-义蓬街道-头蓬社区(集镇,头蓬,头蓬街)","startTime":"2020-03-12 09:00:00","stopDate":"2020-03-12 16:00:00","orgNo":"3340120","typeCode":"计划停电","poweroffArea":"110kV启江变:江东0302线-头蓬街道9#变低压总闸后段","poweroffReason":"头蓬街道9#变低压线路上改下","powerTime":"2020-03-12 15:03:13","powerComm":"已送电","subsNo":"","lineNo":"","tgNo":"","tgName":null,"infoStatus":"1","orgName":"国网浙江杭州市钱塘新区供电公司","typeName":null,"infoStatusName":null,"dateDay":null,"orgNos":null,"nowTime":null,"countyName":null,"streetName":null,"villageName":null,"roadName":null,"communityName":null,"tranName":null,"sdLineName":null,"cityCode":"3340120","cityName":"国网浙江杭州市钱塘新区供电公司","provinceCode":null,"stopTime":"2020-03-12 16:00:00","powerType":"全部","powerOffArea":"110kV启江变:江东0302线-头蓬街道9#变低压总闸后段","powerOffReason":"头蓬街道9#变低压线路上改下","powerOffId":"2020030431020099"},{"poweroffId":2020030431020092,"sgpoweroffId":null,"subsName":"","lineName":"10kV陈家Y181线","pubTranName":"建德市霞雾农业开发中心变压器,大塘边村大塘边台区,杭州双马生物工程有限公司1#,建德皇爵洲际大酒店有限公司1#,陈家村小刺源台区,建德市永鑫塑料厂,金桥村大坟山台区配变,大塘边村荷叶塘台区,陈家村大垅底台区,建德市同策太阳能科技有限公司,杭州双马生物工程有限公司,陈家村柏树底台区,杭州建德天堂食品有限公司,金桥村小坑口台区,2#,大塘边村黄泥潭台区,陈家村海塘源台区,于合村大机埠台区,建德市寿昌镇思思水晶磨珠厂,浙江钜元建设有限公司配电变压器,上海铁路局金华货运中心1#专变,铁路危化品货场1#专变,金桥村桥下台区,金桥村洋后山台区配变,建德市寿昌通讯工程安装队,大塘边村夫人庙台区,金桥村桥头源台区,建德市精制米厂,水岸鑫域2#公变,陈家村陈家台区,寿昌集镇涌金1#公变,大塘边村江山台区,中球冠集团有限公司建德寿昌油库,大塘边村黄家台区,建德市宏生粉末冶金厂,1#,建德市里诸水电厂,建德源达建材有限公司,陈家村黄泥邵家台区,金桥村里诸台区,金桥村杨村畈台区,寿昌集镇新三叉口公变,金桥村翠坑口台区,建德市第四人民医院,陈家村金山台区,陈家村下朱台区,水岸鑫域1#公变,3#,寿昌集镇豪廷公变,寿昌集镇牛角塘公变,建德市路通公路工程有限公司,","scope":"浙江省-杭州市-建德市-寿昌镇 大塘边行政村夫人庙自然村、牛角塘自然村、大塘边自然村、东入城口安置房、桥东路、江山自然村、荷叶塘自然村、下徐自然村、黄家自然村、黄泥潭自然村；金桥行政村翠坑口自然村、杨村畈自然村、里诸自然村、桥下自然村、桥头源自然村、小坑口自然村,洋后山自然村；陈家行政村四龙口自然村、黄泥邵家自然村、金山自然村、陈家自然村、下朱自然村、小刺源自然村、柏树底自然村；城中行政村新三叉口路、桥东路、白艾畈；东昌社区新三叉路口、桥东路、二桥路、溪边路；更楼街道于合行政村于合自然村一带用户。","startTime":"2020-03-15 07:00:00","stopDate":"2020-03-15 07:30:00","orgNo":"3340180","typeCode":"计划停电","poweroffArea":"35kV河南里变:陈家Y181线","poweroffReason":"35千伏河南里变技改10KV线路转接施工：10千伏陈家Y181线倒负荷","powerTime":"2020-03-15 07:19:00","powerComm":"已送电","subsNo":"","lineNo":"","tgNo":"","tgName":null,"infoStatus":"1","orgName":"国网浙江建德市供电有限公司","typeName":null,"infoStatusName":null,"dateDay":null,"orgNos":null,"nowTime":null,"countyName":null,"streetName":null,"villageName":null,"roadName":null,"communityName":null,"tranName":null,"sdLineName":null,"cityCode":"3340180","cityName":"国网浙江建德市供电有限公司","provinceCode":null,"stopTime":"2020-03-15 07:30:00","powerType":"全部","powerOffArea":"35kV河南里变:陈家Y181线","powerOffReason":"35千伏河南里变技改10KV线路转接施工：10千伏陈家Y181线倒负荷","powerOffId":"2020030431020092"},{"poweroffId":2020030431020091,"sgpoweroffId":null,"subsName":"","lineName":"10kV寿镇Y183线","pubTranName":"寿昌集镇大天地公变,1#,寿昌集镇滨溪苑公变,寿昌集镇沁华园公变,卫生院公变,2#,农贸市场公变,","scope":"浙江省-杭州市-建德市-寿昌镇 西门行政村溪边路；城中行政村溪边路、湖滨路、解放路、城南自然村；望江社区昌西二路、湖滨路、溪边路、滨江路、东昌路、复兴路、解放南路；东昌社区溪边路、湖滨路、东昌路、桥东路、环城东路；西湖社区溪边路、中山路、湖滨路、石佛巷一带用户。","startTime":"2020-03-12 07:00:00","stopDate":"2020-03-12 07:30:00","orgNo":"3340180","typeCode":"计划停电","poweroffArea":"35kV河南里变:寿镇Y183线-寿镇183 线02#开关后段","poweroffReason":"35千伏河南里变技改10KV线路转接施工：10千伏寿镇Y183线倒负荷","powerTime":"2020-03-12 07:14:33","powerComm":"已送电","subsNo":"","lineNo":"","tgNo":"","tgName":null,"infoStatus":"1","orgName":"国网浙江建德市供电有限公司","typeName":null,"infoStatusName":null,"dateDay":null,"orgNos":null,"nowTime":null,"countyName":null,"streetName":null,"villageName":null,"roadName":null,"communityName":null,"tranName":null,"sdLineName":null,"cityCode":"3340180","cityName":"国网浙江建德市供电有限公司","provinceCode":null,"stopTime":"2020-03-12 07:30:00","powerType":"全部","powerOffArea":"35kV河南里变:寿镇Y183线-寿镇183 线02#开关后段","powerOffReason":"35千伏河南里变技改10KV线路转接施工：10千伏寿镇Y183线倒负荷","powerOffId":"2020030431020091"},{"poweroffId":2020030431020090,"sgpoweroffId":null,"subsName":"","lineName":"10kV东皇Y182线","pubTranName":"寿昌集镇幸福嘉苑2号公变,寿昌集镇桥东路台区,建德市应佳电器工具有限公司,建德市广鑫塑业有限公司2#,杭州耕耘电子有限公司,建德皇爵洲际大酒店有限公司2#,1#变,建德千岛湖通用机场有限公司,建德市威尔塑化厂(普通合伙),寿昌集镇东皇畈公变,杭州金曦工具有限公司,建德市上马塑料厂,建德市金龙钢结构厂,杭州晶星有机玻璃有限公司2#,寿昌铁路桥旁1#,桂花村横峰路台区,杭州晶星有机玻璃有限公司1#,建德市精制米厂,建德市三业金属制造有限公司,4#,3#,建德市华海化工有限公司,建德市鹏兴液化气有限公司,建德市宇浩电力工程有限公司,杭州宝德银业有限公司,建德市广鑫塑业有限公司1#,","scope":"浙江省-杭州市-建德市-寿昌镇 桂花行政村下桂自然村、上桂自然村；城中行政村青池垅自然村、桥东路；东昌社区东昌路、桥东路、二桥路、东皇畈集聚区、东昌北路,教育东路；横山社区横山路；东门行政村邓家坞自然村一带用户。","startTime":"2020-03-12 07:00:00","stopDate":"2020-03-12 07:30:00","orgNo":"3340180","typeCode":"计划停电","poweroffArea":"35kV河南里变:东皇Y182线","poweroffReason":"35千伏河南里变技改10KV线路转接施工：10千伏东皇Y182线倒负荷","powerTime":"2020-03-12 07:07:41","powerComm":"已送电","subsNo":"","lineNo":"","tgNo":"","tgName":null,"infoStatus":"1","orgName":"国网浙江建德市供电有限公司","typeName":null,"infoStatusName":null,"dateDay":null,"orgNos":null,"nowTime":null,"countyName":null,"streetName":null,"villageName":null,"roadName":null,"communityName":null,"tranName":null,"sdLineName":null,"cityCode":"3340180","cityName":"国网浙江建德市供电有限公司","provinceCode":null,"stopTime":"2020-03-12 07:30:00","powerType":"全部","powerOffArea":"35kV河南里变:东皇Y182线","powerOffReason":"35千伏河南里变技改10KV线路转接施工：10千伏东皇Y182线倒负荷","powerOffId":"2020030431020090"},{"poweroffId":2020030431020084,"sgpoweroffId":null,"subsName":"","lineName":"10kV福星C319线","pubTranName":"八大村2#变,","scope":"浙江省-杭州市-萧山区-瓜沥镇-八大行政村(新八路,八大自然村,南大路,南开路)","startTime":"2020-03-16 08:30:00","stopDate":"2020-03-16 15:00:00","orgNo":"3340130","typeCode":"计划停电","poweroffArea":"110kV沿塘变:福星C319线-八大村2#变后段","poweroffReason":"福星C319线33/01#杆八大村2#变250kVA增容至400kVA（需带电作业配合） 原停电结束时间为2020-03-16 14:30:00,因工作难度大的原因,现变更停电结束时间为2020-03-16 15:00:00","powerTime":"2020-03-16 14:51:35","powerComm":"已送电","subsNo":"","lineNo":"","tgNo":"","tgName":null,"infoStatus":"1","orgName":"国网浙江杭州市萧山区供电有限公司","typeName":null,"infoStatusName":null,"dateDay":null,"orgNos":null,"nowTime":null,"countyName":null,"streetName":null,"villageName":null,"roadName":null,"communityName":null,"tranName":null,"sdLineName":null,"cityCode":"3340130","cityName":"国网浙江杭州市萧山区供电有限公司","provinceCode":null,"stopTime":"2020-03-16 15:00:00","powerType":"全部","powerOffArea":"110kV沿塘变:福星C319线-八大村2#变后段","powerOffReason":"福星C319线33/01#杆八大村2#变250kVA增容至400kVA（需带电作业配合） 原停电结束时间为2020-03-16 14:30:00,因工作难度大的原因,现变更停电结束时间为2020-03-16 15:00:00","powerOffId":"2020030431020084"},{"poweroffId":2020030431020083,"sgpoweroffId":null,"subsName":"","lineName":"10kV福星C319线","pubTranName":"八大村4#变,","scope":"浙江省-杭州市-萧山区-瓜沥镇-八大行政村-何翟路","startTime":"2020-03-16 08:30:00","stopDate":"2020-03-16 15:00:00","orgNo":"3340130","typeCode":"计划停电","poweroffArea":"110kV沿塘变:福星C319线-八大村4#变后段","poweroffReason":"福星C319线49#杆八大村4#变160kVA增容至400kVA（需带电作业配合） 原停电结束时间为2020-03-16 14:30:00,因工作难度大的原因,现变更停电结束时间为2020-03-16 15:00:00","powerTime":"2020-03-16 14:49:14","powerComm":"已送电","subsNo":"","lineNo":"","tgNo":"","tgName":null,"infoStatus":"1","orgName":"国网浙江杭州市萧山区供电有限公司","typeName":null,"infoStatusName":null,"dateDay":null,"orgNos":null,"nowTime":null,"countyName":null,"streetName":null,"villageName":null,"roadName":null,"communityName":null,"tranName":null,"sdLineName":null,"cityCode":"3340130","cityName":"国网浙江杭州市萧山区供电有限公司","provinceCode":null,"stopTime":"2020-03-16 15:00:00","powerType":"全部","powerOffArea":"110kV沿塘变:福星C319线-八大村4#变后段","powerOffReason":"福星C319线49#杆八大村4#变160kVA增容至400kVA（需带电作业配合） 原停电结束时间为2020-03-16 14:30:00,因工作难度大的原因,现变更停电结束时间为2020-03-16 15:00:00","powerOffId":"2020030431020083"}],"pageModel":{"pageNow":512,"totalCount":17789,"totalPage":1779,"tableRows":0,"pageCount":10,"beginCount":5110},"isExperi":"1"}