{"message":"","today":"2020-06-15","seleList":[{"poweroffId":2020030431020053,"sgpoweroffId":null,"subsName":"","lineName":"10kV笑岭V750线","pubTranName":"西子玫瑰园29#变,中国铁塔股份有限公司杭州市分公司1#,西子玫瑰苑32#变,临安市供电局路灯管理所专变,西子玫瑰苑7#,西子玫瑰园21#变,西子玫瑰园25#变,麒麟山庄5#变,西子玫瑰苑3#,西子玫瑰苑10#,西子玫瑰苑12#,杭州临安西子房地产开发有限公司2#,杭州临安环湖绿道建设有限公司,浙江锦天房地产开发有限公司,西子玫瑰苑9#,西子玫瑰园27#变,临安西子房地产开发有限公司（2号会所）,临安西子房地产开发有限公司（1号会所）,锦源花园3#变,临安西子房地产开发有限公司,杭州临安环湖绿道建设有限公司1#,杭州临安西子房地产开发有限公司1#,临安西子房地产开发有限公司,西子玫瑰苑6#,西子玫瑰苑11#,西子玫瑰苑5#,临安西子房地产开发有限公司（基建）,西子玫瑰苑8#,浙江锦天房地产开发有限公司第一分公司,西子玫瑰苑31#变,锦源花园1#变,西子玫瑰苑34#变,西子玫瑰苑13#,麒麟山庄3#变,西子玫瑰苑33#变,麒麟山庄,麒麟山庄4#变,西子玫瑰园28#变,西子玫瑰苑2#,西子玫瑰苑1#,锦源花园2#变,西子玫瑰园24#变,西子玫瑰园30#变,西子玫瑰园22#变,西子玫瑰园26#变,西子玫瑰园23#变,西子玫瑰苑4#,","scope":"浙江省-杭州市-临安市-锦北街道-民主行政村-民主自然村,青山湖街道(坎头行政村-坎头自然村,洞霄宫行政村-石泉自然村);青山湖街道(,杭州临安环湖绿道建设有限公司),锦北街道(杭州临安西子房地产开发有限公司,临安市路灯管理所,浙江锦天房地产开发有限公司第一分公司,浙江锦天房地产开发有限公司,中国铁塔股份有限公司杭州市分公司)一带","startTime":"2020-03-04 11:42:00","stopDate":"2020-03-04 12:25:00","orgNo":"3340160","typeCode":"电网故障停限电","poweroffArea":"110kV科创变:笑岭V750线广发站广发站7501开关后段","poweroffReason":"高压开关跳闸 原停电结束时间为2020-03-04 17:42:00,为减少客户停电时间,加快工作进度,提前送电,现变更停电结束时间为2020-03-04 12:25:00","powerTime":"2020-03-04 12:17:06","powerComm":"已送电","subsNo":"","lineNo":"","tgNo":"","tgName":null,"infoStatus":"1","orgName":"国网浙江临安市供电公司","typeName":null,"infoStatusName":null,"dateDay":null,"orgNos":null,"nowTime":null,"countyName":null,"streetName":null,"villageName":null,"roadName":null,"communityName":null,"tranName":null,"sdLineName":null,"cityCode":"3340160","cityName":"国网浙江临安市供电公司","provinceCode":null,"stopTime":"2020-03-04 12:25:00","powerType":"全部","powerOffArea":"110kV科创变:笑岭V750线广发站广发站7501开关后段","powerOffReason":"高压开关跳闸 原停电结束时间为2020-03-04 17:42:00,为减少客户停电时间,加快工作进度,提前送电,现变更停电结束时间为2020-03-04 12:25:00","powerOffId":"2020030431020053"},{"poweroffId":2020030431020052,"sgpoweroffId":null,"subsName":"","lineName":"10kV昌南V452线","pubTranName":"云浪村塘秀,宜养村,朱秀村阴山,临安市圣谛心苑酒店,杭州临安杰盛电子有限公司,临安升达电子厂,杭派食品变,云浪村上周家,临安升达电子厂,临安市志华食品厂,杭州临安昌化公路工程处,西九村关山,云浪村新中畈,临安高通实业有限公司800,曙光上村,临安丰裕农业开发有限公司,云浪村红山,杭州真地塑料制品有限公司,朱秀村阳山,杭州临安新杭派食品有限公司,宜养（二）村,西九村宋家,杭州真地塑料制品有限公司,10kV锦坑桥村[锦坑桥村]公变,西九村余家,临安市华裕水电开发有限公司,东升电站,临安市汇丰塑料制品有限公司,临安永兴橡塑制品有限公司,朱秀村黄泥岭,云浪村乐平,水南村大地,云浪村村中二,临安市昌化民用爆破器材有限公司,临安市华裕水电开发有限公司,西九村洪家,云浪村村中,10kV锦坑桥村[锦坑桥康坞]公变,杭州临安新杭派食品有限公司,杭州市临安区河桥镇人民政府,毕家村,宜养村老鹰窠,临安昌化数控设备厂,临安风之谷旅游开发有限公司,杭州临安杭派食品有限公司,东升电站,杭州临安新晨华源食品有限公司,云浪村塘秀布点,毕家村清水萍,临安市昌化公路工程处,临安东毅纺织有限公司,云浪村塘秀二,","scope":"浙江省-杭州市-临安市-太阳镇-锦坑桥行政村(锦坑桥自然村,康坞自然村,青石门自然村),河桥镇-云浪行政村(云浪自然村,村中自然村,红山自然村,乐平自然村),河桥镇-聚秀行政村(阴山自然村,阳山自然村,聚秀自然村,黄泥岭自然村),河桥镇-罗山行政村(西鸠坞自然村,洪家自然村,西鸠自然村,余家庄自然村,罗山自然村,毕家自然村),昌化镇-双塔行政村(水南自然村,宜养自然村),河桥镇-河桥行政村-曙光自然村,於潜镇-田干行政村-康坞自然村;河桥镇(,杭州临安聚秀水电开发有限公司,杭州临安新杭派食品有限公司,杭州临安昌化公路工程处,杭州真地塑料制品有限公司,杭州临安新晨华源食品有限公司,杭州临安杰盛电子有限公司,临安丰裕农业开发有限公司,杭州升达电子有限公司,杭州临安圣谛农业开发有限公司,临安市志华食品厂,杭州临安汇乡食品有限公司),昌化镇(临安市昌化金属机电建材供应站,杭州风之谷旅游发展有限公司,临安昌化数控设备厂,杭州临安区昌化东升电站有限公司,临安永兴橡塑制品有限公司,临安市汇丰塑料制品有限公司)一带","startTime":"2020-03-04 11:43:00","stopDate":"2020-03-04 12:21:00","orgNo":"3340160","typeCode":"电网故障停限电","poweroffArea":"110kV昌化变:昌南V452线4522开关后段","poweroffReason":"高压开关跳闸 原停电结束时间为2020-03-04 15:36:00,为减少客户停电时间,加快工作进度,提前送电,现变更停电结束时间为2020-03-04 12:21:00","powerTime":"2020-03-04 12:16:25","powerComm":"已送电","subsNo":"","lineNo":"","tgNo":"","tgName":null,"infoStatus":"1","orgName":"国网浙江临安市供电公司","typeName":null,"infoStatusName":null,"dateDay":null,"orgNos":null,"nowTime":null,"countyName":null,"streetName":null,"villageName":null,"roadName":null,"communityName":null,"tranName":null,"sdLineName":null,"cityCode":"3340160","cityName":"国网浙江临安市供电公司","provinceCode":null,"stopTime":"2020-03-04 12:21:00","powerType":"全部","powerOffArea":"110kV昌化变:昌南V452线4522开关后段","powerOffReason":"高压开关跳闸 原停电结束时间为2020-03-04 15:36:00,为减少客户停电时间,加快工作进度,提前送电,现变更停电结束时间为2020-03-04 12:21:00","powerOffId":"2020030431020052"},{"poweroffId":2020030431020050,"sgpoweroffId":null,"subsName":"","lineName":"10kV湍河V301线","pubTranName":"曙光村新街2#,曙光村广场配变,曙光村新街三,誉光村(二)荷村,曹家村石室寺,临安市湍口镇三联股份经济合作社,泥骆上村,朱下村(一),枉塘村,临安市昌化公路工程处,临安市华裕水电开发有限公司(青龙山水电站),曙光村街后,临安市湍口镇人民镇府,白下村二变,杭州临安高通实业有限公司2#变,朱下村（二）,杭州临安高通实业有限公司3#变,河桥供销社,誉光村（一）,赤石村比坞,临安市河桥镇人民政府(污水处理厂),誉光村邮电所旁,赤石村,临安市青龙山水电开发有限公司（厂用电）,曹家村岭头,赤石桥头,曹家村金牛坞,临安市河桥轧石场,三联村,三联村洋湖,泥骆铁骆坞,曹家村九江坞,杭州临安高通实业有限公司1#变,临安市白下沙石经营部,泥骆村程家,湍口三联村(二),临安市昌化公路工程处,白下村,杭州市临安区河桥绿色家园富丽山村新农村建设有限公司,泥骆（四）,临安市河桥镇卫生院,三联村下余,泥骆村下村,昌文公路改建工程路面项目部,","scope":"浙江省-杭州市-临安市-湍口镇-雪山行政村-横塘自然村,河桥镇-中鑫行政村(朱下自然村,中鑫自然村,曙光自然村),湍口镇-三联行政村(潘口自然村,三联自然村,洋湖自然村,下余自然村),河桥镇-河桥行政村(白下自然村,誉光自然村,河桥自然村,曹家自然村,曙光自然村),河桥镇-泥骆行政村(泥骆自然村,铁落坞自然村,程家自然村,下村自然村),河桥镇(秀溪行政村-双溪自然村,七都行政村-赤石自然村,蒲村行政村-勤建自然村);河桥镇(临安市昌化公路工程处,临安市青龙山水电开发有限公司(厂用电),杭州市临安区河桥绿色家园富丽山村新农村建设有限公司,杭州市临安区河桥镇中心卫生院,杭州金言环保科技有限公司,临安市青龙山水电开发有限公司,杭州临安高通实业有限公司),湍口镇(杭州市临安区湍口镇三联股份经济合作社,杭州市临安区湍口镇人民政府)一带","startTime":"2020-03-04 11:36:00","stopDate":"2020-03-04 12:20:00","orgNo":"3340160","typeCode":"电网故障停限电","poweroffArea":"35kV湍口变:湍河V301线3011开关后段","poweroffReason":"高压开关跳闸 原停电结束时间为2020-03-04 15:36:00,为减少客户停电时间,加快工作进度,提前送电,现变更停电结束时间为2020-03-04 12:20:00","powerTime":"2020-03-04 12:15:36","powerComm":"已送电","subsNo":"","lineNo":"","tgNo":"","tgName":null,"infoStatus":"1","orgName":"国网浙江临安市供电公司","typeName":null,"infoStatusName":null,"dateDay":null,"orgNos":null,"nowTime":null,"countyName":null,"streetName":null,"villageName":null,"roadName":null,"communityName":null,"tranName":null,"sdLineName":null,"cityCode":"3340160","cityName":"国网浙江临安市供电公司","provinceCode":null,"stopTime":"2020-03-04 12:20:00","powerType":"全部","powerOffArea":"35kV湍口变:湍河V301线3011开关后段","powerOffReason":"高压开关跳闸 原停电结束时间为2020-03-04 15:36:00,为减少客户停电时间,加快工作进度,提前送电,现变更停电结束时间为2020-03-04 12:20:00","powerOffId":"2020030431020050"},{"poweroffId":2020030431020041,"sgpoweroffId":null,"subsName":"","lineName":"10kV运敦G972线","pubTranName":"运河镇亭趾村打网里公变,","scope":"浙江省-杭州市-余杭区-运河街道-亭趾行政村(亭趾自然村,打网里自然村)","startTime":"2020-03-04 10:33:22","stopDate":"2020-03-04 11:33:22","orgNo":"3340140","typeCode":"电网故障停限电","poweroffArea":"110kV博陆变:运敦G972线-运河镇亭趾村打网里公变后段","poweroffReason":"高压开关跳闸 原停电结束时间为2020-03-04 12:33:22,为减少客户停电时间,加快工作进度,提前送电,现变更停电结束时间为2020-03-04 11:33:22","powerTime":"2020-03-04 10:50:22","powerComm":"已送电","subsNo":"","lineNo":"","tgNo":"","tgName":null,"infoStatus":"1","orgName":"国网浙江杭州市余杭区供电有限公司","typeName":null,"infoStatusName":null,"dateDay":null,"orgNos":null,"nowTime":null,"countyName":null,"streetName":null,"villageName":null,"roadName":null,"communityName":null,"tranName":null,"sdLineName":null,"cityCode":"3340140","cityName":"国网浙江杭州市余杭区供电有限公司","provinceCode":null,"stopTime":"2020-03-04 11:33:22","powerType":"全部","powerOffArea":"110kV博陆变:运敦G972线-运河镇亭趾村打网里公变后段","powerOffReason":"高压开关跳闸 原停电结束时间为2020-03-04 12:33:22,为减少客户停电时间,加快工作进度,提前送电,现变更停电结束时间为2020-03-04 11:33:22","powerOffId":"2020030431020041"},{"poweroffId":2020030431020026,"sgpoweroffId":null,"subsName":"","lineName":"10kV石码Y163线","pubTranName":"岩源村狼坞台区,","scope":"浙江省-杭州市-建德市-更楼街道-岩源行政村-狼坞自然村一带用户","startTime":"2020-03-04 09:25:00","stopDate":"2020-03-04 12:00:00","orgNo":"3340180","typeCode":"电网故障停限电","poweroffArea":"110kV更楼变:石码Y163线狼坞台区令克配变","poweroffReason":"高压开关跳闸","powerTime":"2020-03-04 11:36:00","powerComm":"已送电","subsNo":"","lineNo":"","tgNo":"","tgName":null,"infoStatus":"1","orgName":"国网浙江建德市供电有限公司","typeName":null,"infoStatusName":null,"dateDay":null,"orgNos":null,"nowTime":null,"countyName":null,"streetName":null,"villageName":null,"roadName":null,"communityName":null,"tranName":null,"sdLineName":null,"cityCode":"3340180","cityName":"国网浙江建德市供电有限公司","provinceCode":null,"stopTime":"2020-03-04 12:00:00","powerType":"全部","powerOffArea":"110kV更楼变:石码Y163线狼坞台区令克配变","powerOffReason":"高压开关跳闸","powerOffId":"2020030431020026"},{"poweroffId":2020030431020025,"sgpoweroffId":null,"subsName":"","lineName":"10kV石码Y163线","pubTranName":"岩源村横山台区,","scope":"浙江省-杭州市-建德市-更楼街道-岩源行政村-横山自然村 一带用户","startTime":"2020-03-04 09:25:00","stopDate":"2020-03-04 12:00:00","orgNo":"3340180","typeCode":"电网故障停限电","poweroffArea":"110kV更楼变:石码Y163线岩源村横山台区配变","poweroffReason":"高压开关跳闸","powerTime":"2020-03-04 11:34:00","powerComm":"已送电","subsNo":"","lineNo":"","tgNo":"","tgName":null,"infoStatus":"1","orgName":"国网浙江建德市供电有限公司","typeName":null,"infoStatusName":null,"dateDay":null,"orgNos":null,"nowTime":null,"countyName":null,"streetName":null,"villageName":null,"roadName":null,"communityName":null,"tranName":null,"sdLineName":null,"cityCode":"3340180","cityName":"国网浙江建德市供电有限公司","provinceCode":null,"stopTime":"2020-03-04 12:00:00","powerType":"全部","powerOffArea":"110kV更楼变:石码Y163线岩源村横山台区配变","powerOffReason":"高压开关跳闸","powerOffId":"2020030431020025"},{"poweroffId":2020030431020018,"sgpoweroffId":null,"subsName":"","lineName":"10kV杨华V731线","pubTranName":"光辉村[罗家头],","scope":"浙江省-杭州市-临安市-太湖源镇-光辉行政村-光辉自然村","startTime":"2020-03-04 09:05:00","stopDate":"2020-03-04 11:01:00","orgNo":"3340160","typeCode":"电网故障停限电","poweroffArea":"110kV杨岭变:杨华V731线光辉村[罗家头]配变","poweroffReason":"高压开关跳闸","powerTime":"2020-03-04 09:20:31","powerComm":"已送电","subsNo":"","lineNo":"","tgNo":"","tgName":null,"infoStatus":"1","orgName":"国网浙江临安市供电公司","typeName":null,"infoStatusName":null,"dateDay":null,"orgNos":null,"nowTime":null,"countyName":null,"streetName":null,"villageName":null,"roadName":null,"communityName":null,"tranName":null,"sdLineName":null,"cityCode":"3340160","cityName":"国网浙江临安市供电公司","provinceCode":null,"stopTime":"2020-03-04 11:01:00","powerType":"全部","powerOffArea":"110kV杨岭变:杨华V731线光辉村[罗家头]配变","powerOffReason":"高压开关跳闸","powerOffId":"2020030431020018"},{"poweroffId":2020030431020017,"sgpoweroffId":null,"subsName":"","lineName":"10kV农业G385线","pubTranName":"粮食收储1#,和源置业II段（6120913823）2#变,粮食收储2#,","scope":"浙江省-杭州市-余杭区-仁和街道(普宁行政村-杭州余杭区粮食收储有限责任公司,东山行政村-杭州和源置业有限公司)","startTime":"2020-03-04 09:02:35","stopDate":"2020-03-04 10:55:35","orgNo":"3340140","typeCode":"电网故障停限电","poweroffArea":"110kV东塘变:农业G385线首端，农业G3854开关，农业G3856开关，农业G385A开关之间","poweroffReason":"农业G3855开关处鸟巢树枝掉落至开关上，引起开关烧毁","powerTime":"2020-03-04 10:15:43","powerComm":"已送电","subsNo":"","lineNo":"","tgNo":"","tgName":null,"infoStatus":"1","orgName":"国网浙江杭州市余杭区供电有限公司","typeName":null,"infoStatusName":null,"dateDay":null,"orgNos":null,"nowTime":null,"countyName":null,"streetName":null,"villageName":null,"roadName":null,"communityName":null,"tranName":null,"sdLineName":null,"cityCode":"3340140","cityName":"国网浙江杭州市余杭区供电有限公司","provinceCode":null,"stopTime":"2020-03-04 10:55:35","powerType":"全部","powerOffArea":"110kV东塘变:农业G385线首端，农业G3854开关，农业G3856开关，农业G385A开关之间","powerOffReason":"农业G3855开关处鸟巢树枝掉落至开关上，引起开关烧毁","powerOffId":"2020030431020017"},{"poweroffId":2020030431020013,"sgpoweroffId":null,"subsName":"","lineName":"10kV长树G664线","pubTranName":"国网浙江省电力有限公司杭州供电公司61208333481#变压器,杭州市余杭区市场开发服务中心61208248691#变压器,","scope":"浙江省-杭州市-余杭区(南苑街道-杭州市余杭区市场开发服务中心,东湖街道-国网浙江省电力有限公司杭州供电公司)","startTime":"2020-03-04 08:31:00","stopDate":"2020-03-04 10:00:00","orgNo":"3340140","typeCode":"电网故障停限电","poweroffArea":"110kV南苑变:长树G664线市场开发服务中心分线1#杆开关后段","poweroffReason":"高压开关跳闸 原停电结束时间为2020-03-04 10:31:00,为减少客户停电时间,加快工作进度,提前送电,现变更停电结束时间为2020-03-04 10:00:00","powerTime":"2020-03-04 09:14:18","powerComm":"已送电","subsNo":"","lineNo":"","tgNo":"","tgName":null,"infoStatus":"1","orgName":"国网浙江杭州市余杭区供电有限公司","typeName":null,"infoStatusName":null,"dateDay":null,"orgNos":null,"nowTime":null,"countyName":null,"streetName":null,"villageName":null,"roadName":null,"communityName":null,"tranName":null,"sdLineName":null,"cityCode":"3340140","cityName":"国网浙江杭州市余杭区供电有限公司","provinceCode":null,"stopTime":"2020-03-04 10:00:00","powerType":"全部","powerOffArea":"110kV南苑变:长树G664线市场开发服务中心分线1#杆开关后段","powerOffReason":"高压开关跳闸 原停电结束时间为2020-03-04 10:31:00,为减少客户停电时间,加快工作进度,提前送电,现变更停电结束时间为2020-03-04 10:00:00","powerOffId":"2020030431020013"},{"poweroffId":2020030331020146,"sgpoweroffId":null,"subsName":"","lineName":"10kV联和Y504线","pubTranName":"黄尧村后山埂台区,建德市康庆农业发展有限公司,之江村桔场台区,之江村前溪头台区,","scope":"浙江省-杭州市-建德市-下涯镇-之江行政村 后山埂自然村,黄饶下村自然村,桔场自然村,里江自然村,沙田里自然村);下涯镇-建德市城兴城防工程建设有限公司一带用户。","startTime":"2020-03-03 20:41:00","stopDate":"2020-03-03 22:00:00","orgNo":"3340180","typeCode":"电网故障停限电","poweroffArea":"110kV沿口变:联和Y504线黄饶环网单元桔厂12211线断路器后段","poweroffReason":"高压开关跳闸 原停电结束时间为2020-03-03 22:41:00,为减少客户停电时间,加快工作进度,提前送电,现变更停电结束时间为2020-03-03 22:00:00","powerTime":"2020-03-03 21:36:00","powerComm":"已送电","subsNo":"","lineNo":"","tgNo":"","tgName":null,"infoStatus":"1","orgName":"国网浙江建德市供电有限公司","typeName":null,"infoStatusName":null,"dateDay":null,"orgNos":null,"nowTime":null,"countyName":null,"streetName":null,"villageName":null,"roadName":null,"communityName":null,"tranName":null,"sdLineName":null,"cityCode":"3340180","cityName":"国网浙江建德市供电有限公司","provinceCode":null,"stopTime":"2020-03-03 22:00:00","powerType":"全部","powerOffArea":"110kV沿口变:联和Y504线黄饶环网单元桔厂12211线断路器后段","powerOffReason":"高压开关跳闸 原停电结束时间为2020-03-03 22:41:00,为减少客户停电时间,加快工作进度,提前送电,现变更停电结束时间为2020-03-03 22:00:00","powerOffId":"2020030331020146"}],"pageModel":{"pageNow":513,"totalCount":17789,"totalPage":1779,"tableRows":0,"pageCount":10,"beginCount":5120},"isExperi":"1"}