{"message":"","today":"2020-06-15","seleList":[{"poweroffId":2020030231020087,"sgpoweroffId":null,"subsName":"","lineName":"10kV东溪T171线","pubTranName":"杭州石油分公司,桥东立新1号公变,桥东立新2号公变,","scope":"浙江省-杭州市-桐庐县-分水镇-东溪行政村(石膏坞自然村,新淳东路),分水镇-桥东行政村(三角塘农居点,新淳东路,周王坞自然村,桥东自然村);分水镇-中国石化销售股份有限公司浙江杭州石油分公司","startTime":"2020-03-02 20:09:00","stopDate":"2020-03-02 22:09:00","orgNo":"3340150","typeCode":"电网故障停限电","poweroffArea":"110kV分水变:东溪T171线杭油F4024后段","poweroffReason":"高压开关跳闸","powerTime":"2020-03-02 21:39:31","powerComm":"已送电","subsNo":"","lineNo":"","tgNo":"","tgName":null,"infoStatus":"1","orgName":"国网浙江桐庐县供电公司","typeName":null,"infoStatusName":null,"dateDay":null,"orgNos":null,"nowTime":null,"countyName":null,"streetName":null,"villageName":null,"roadName":null,"communityName":null,"tranName":null,"sdLineName":null,"cityCode":"3340150","cityName":"国网浙江桐庐县供电公司","provinceCode":null,"stopTime":"2020-03-02 22:09:00","powerType":"全部","powerOffArea":"110kV分水变:东溪T171线杭油F4024后段","powerOffReason":"高压开关跳闸","powerOffId":"2020030231020087"},{"poweroffId":2020030231020084,"sgpoweroffId":null,"subsName":"","lineName":"10kV宏波A301线","pubTranName":"宏波村3#变,宏波村9#变,宏新村8#变,宏新村4#变,宏新村7#变,1#,泽欣纺织厂2#,泽欣纺织厂1#,创建村11#变,精铭金属01,宏新村6#变,前峰村3#变,新塘垦种,宏新村3#变,创建村1#变,交通局,中铁十七局01#,精铭金属02,宏新村5#变,江东投资（临）,宏波村1#变,钱江通道新湾收费站,燕锋玻璃,宏新村1#变,2#,","scope":"浙江省-杭州市-萧山区-新湾街道(宏新行政村-宏新自然村,三新行政村-新湾自然村,宏波行政村-宏波自然村,创建行政村-创建自然村),前进街道(临江行政村-东升自然村,三丰行政村-海丰自然村,前峰行政村-前峰自然村);前进街道-前进工业园区(杭州宇祥房地产开发有限公司,城东和平桥垦种,杭州江东开发建设投资有限责任公司),新湾街道-宏新行政村(杭州江东市政公用事业服务有限公司,杭州三通道南接 工程有限公司),新湾街道-创建行政村(杭州燕锋玻璃有限公司,杭州精铭金属制品有限公司),新湾街道-宏波行政村-杭州萧山泽欣纺织有限公司,前进街道-临江行政村-中铁十七局集团上海轨道交通工程有限公司","startTime":"2020-03-14 08:00:00","stopDate":"2020-03-14 08:45:00","orgNo":"3340120","typeCode":"计划停电","poweroffArea":"110kV建湾变:宏波A301线首端，2107（Z），2126之间","poweroffReason":"计划检修工作","powerTime":"2020-03-14 08:31:39","powerComm":"已送电","subsNo":"","lineNo":"","tgNo":"","tgName":null,"infoStatus":"1","orgName":"国网浙江杭州市钱塘新区供电公司","typeName":null,"infoStatusName":null,"dateDay":null,"orgNos":null,"nowTime":null,"countyName":null,"streetName":null,"villageName":null,"roadName":null,"communityName":null,"tranName":null,"sdLineName":null,"cityCode":"3340120","cityName":"国网浙江杭州市钱塘新区供电公司","provinceCode":null,"stopTime":"2020-03-14 08:45:00","powerType":"全部","powerOffArea":"110kV建湾变:宏波A301线首端，2107（Z），2126之间","powerOffReason":"计划检修工作","powerOffId":"2020030231020084"},{"poweroffId":2020030231020083,"sgpoweroffId":null,"subsName":"","lineName":"10kV宏波A301线","pubTranName":"燕锋玻璃,宏波村3#变,钱江通道新湾收费站,2#,泽欣纺织厂1#,交通局,宏新村5#变,宏波村1#变,创建村11#变,宏波村9#变,创建村1#变,泽欣纺织厂2#,宏新村8#变,新塘垦种,精铭金属02,宏新村3#变,宏新村1#变,宏新村4#变,精铭金属01,中铁十七局01#,宏新村6#变,前峰村3#变,1#,宏新村7#变,江东投资（临）,","scope":"浙江省-杭州市-萧山区-新湾街道(宏新行政村-宏新自然村,三新行政村-新湾自然村,宏波行政村-宏波自然村,创建行政村-创建自然村),前进街道(临江行政村-东升自然村,三丰行政村-海丰自然村,前峰行政村-前峰自然村);前进街道-前进工业园区(杭州宇祥房地产开发有限公司,城东和平桥垦种,杭州江东开发建设投资有限责任公司),新湾街道-宏新行政村(杭州江东市政公用事业服务有限公司,杭州三通道南接 工程有限公司),新湾街道-创建行政村(杭州燕锋玻璃有限公司,杭州精铭金属制品有限公司),新湾街道-宏波行政村-杭州萧山泽欣纺织有限公司,前进街道-临江行政村-中铁十七局集团上海轨道交通工程有限公司","startTime":"2020-03-11 13:30:00","stopDate":"2020-03-11 14:15:00","orgNo":"3340120","typeCode":"计划停电","poweroffArea":"110kV建湾变:宏波A301线首端，2107（Z），2126之间","poweroffReason":"计划检修工作 原停电结束时间为2020-03-12 14:15:00,为减少客户停电时间,加快工作进度,提前送电,现变更停电结束时间为2020-03-11 14:15:00","powerTime":"2020-03-11 14:01:28","powerComm":"已送电","subsNo":"","lineNo":"","tgNo":"","tgName":null,"infoStatus":"1","orgName":"国网浙江杭州市钱塘新区供电公司","typeName":null,"infoStatusName":null,"dateDay":null,"orgNos":null,"nowTime":null,"countyName":null,"streetName":null,"villageName":null,"roadName":null,"communityName":null,"tranName":null,"sdLineName":null,"cityCode":"3340120","cityName":"国网浙江杭州市钱塘新区供电公司","provinceCode":null,"stopTime":"2020-03-11 14:15:00","powerType":"全部","powerOffArea":"110kV建湾变:宏波A301线首端，2107（Z），2126之间","powerOffReason":"计划检修工作 原停电结束时间为2020-03-12 14:15:00,为减少客户停电时间,加快工作进度,提前送电,现变更停电结束时间为2020-03-11 14:15:00","powerOffId":"2020030231020083"},{"poweroffId":2020030231020079,"sgpoweroffId":null,"subsName":"","lineName":"10kV安顶D909线","pubTranName":"马鞍山村国富2#宜春坞公变,","scope":"浙江省-杭州市-富阳区-里山镇-马鞍山行政村-国富自然村","startTime":"2020-03-02 18:12:18","stopDate":"2020-03-02 20:12:18","orgNo":"3340170","typeCode":"电网故障停限电","poweroffArea":"110kV里渔变:安顶D909线-马鞍山村国富2#宜春坞公变后段","poweroffReason":"(低压停电信息)低压开关跳闸","powerTime":"2020-03-02 19:16:18","powerComm":"已送电","subsNo":"","lineNo":"","tgNo":"","tgName":null,"infoStatus":"1","orgName":"国网浙江杭州市富阳区供电公司","typeName":null,"infoStatusName":null,"dateDay":null,"orgNos":null,"nowTime":null,"countyName":null,"streetName":null,"villageName":null,"roadName":null,"communityName":null,"tranName":null,"sdLineName":null,"cityCode":"3340170","cityName":"国网浙江杭州市富阳区供电公司","provinceCode":null,"stopTime":"2020-03-02 20:12:18","powerType":"全部","powerOffArea":"110kV里渔变:安顶D909线-马鞍山村国富2#宜春坞公变后段","powerOffReason":"(低压停电信息)低压开关跳闸","powerOffId":"2020030231020079"},{"poweroffId":2020030231020077,"sgpoweroffId":null,"subsName":"","lineName":"10kV留泗8856线","pubTranName":"龙坎十五变,","scope":"浙江省杭州市西湖区龙门坎村蛟龙庙18、37、39、40、42、52、56、57、58、61号一带","startTime":"2020-03-11 10:30:00","stopDate":"2020-03-11 13:00:00","orgNo":"3340101","typeCode":"计划停电","poweroffArea":"110kV留下变:留泗8856线-龙坎十五变后段","poweroffReason":"(低压停电信息)龙门坎村蛟龙庙40号居民增容","powerTime":"2020-03-11 12:15:03","powerComm":"已送电","subsNo":"","lineNo":"","tgNo":"","tgName":null,"infoStatus":"1","orgName":"浙江杭州电力客户服务中心","typeName":null,"infoStatusName":null,"dateDay":null,"orgNos":null,"nowTime":null,"countyName":null,"streetName":null,"villageName":null,"roadName":null,"communityName":null,"tranName":null,"sdLineName":null,"cityCode":"3340101","cityName":"浙江杭州电力客户服务中心","provinceCode":null,"stopTime":"2020-03-11 13:00:00","powerType":"全部","powerOffArea":"110kV留下变:留泗8856线-龙坎十五变后段","powerOffReason":"(低压停电信息)龙门坎村蛟龙庙40号居民增容","powerOffId":"2020030231020077"},{"poweroffId":2020030231020076,"sgpoweroffId":null,"subsName":"","lineName":"10kV留泗8856线","pubTranName":"龙坎六变,","scope":"浙江省杭州市西湖区龙门坎村葛家里10号至14号、5号、75号-1一带","startTime":"2020-03-11 09:30:00","stopDate":"2020-03-11 12:00:00","orgNo":"3340101","typeCode":"计划停电","poweroffArea":"110kV留下变:留泗8856线-龙坎六变后段","poweroffReason":"(低压停电信息)龙门坎村葛家里10号居民增容","powerTime":"2020-03-11 11:17:08","powerComm":"已送电","subsNo":"","lineNo":"","tgNo":"","tgName":null,"infoStatus":"1","orgName":"浙江杭州电力客户服务中心","typeName":null,"infoStatusName":null,"dateDay":null,"orgNos":null,"nowTime":null,"countyName":null,"streetName":null,"villageName":null,"roadName":null,"communityName":null,"tranName":null,"sdLineName":null,"cityCode":"3340101","cityName":"浙江杭州电力客户服务中心","provinceCode":null,"stopTime":"2020-03-11 12:00:00","powerType":"全部","powerOffArea":"110kV留下变:留泗8856线-龙坎六变后段","powerOffReason":"(低压停电信息)龙门坎村葛家里10号居民增容","powerOffId":"2020030231020076"},{"poweroffId":2020030231020075,"sgpoweroffId":null,"subsName":"","lineName":"10kV之龙6321线","pubTranName":"埭村(二)变,","scope":"浙江省杭州市西湖区长埭村路北17号至21号、路南58号及村委会一带","startTime":"2020-03-10 10:30:00","stopDate":"2020-03-10 15:00:00","orgNo":"3340101","typeCode":"计划停电","poweroffArea":"110kV转塘变:之龙6321线-埭村(二)变后段","poweroffReason":"(低压停电信息)长埭村村民委员会非居新装 原停电结束时间为2020-03-10 13:00:00,因计划调整原因,现变更停电结束时间为2020-03-10 15:00:00","powerTime":"2020-03-10 14:17:24","powerComm":"已送电","subsNo":"","lineNo":"","tgNo":"","tgName":null,"infoStatus":"1","orgName":"浙江杭州电力客户服务中心","typeName":null,"infoStatusName":null,"dateDay":null,"orgNos":null,"nowTime":null,"countyName":null,"streetName":null,"villageName":null,"roadName":null,"communityName":null,"tranName":null,"sdLineName":null,"cityCode":"3340101","cityName":"浙江杭州电力客户服务中心","provinceCode":null,"stopTime":"2020-03-10 15:00:00","powerType":"全部","powerOffArea":"110kV转塘变:之龙6321线-埭村(二)变后段","powerOffReason":"(低压停电信息)长埭村村民委员会非居新装 原停电结束时间为2020-03-10 13:00:00,因计划调整原因,现变更停电结束时间为2020-03-10 15:00:00","powerOffId":"2020030231020075"},{"poweroffId":2020030231020074,"sgpoweroffId":null,"subsName":"","lineName":"10kV龙坞6328线","pubTranName":"大清（四）,","scope":"浙江省杭州市西湖区大清社区大清54号T旁新1号至4号、7号、8号一带","startTime":"2020-03-10 09:30:00","stopDate":"2020-03-10 15:00:00","orgNo":"3340101","typeCode":"计划停电","poweroffArea":"110kV转塘变:龙坞6328线-大清（四）后段","poweroffReason":"(低压停电信息)大清社区大清49号居民增容 原停电结束时间为2020-03-10 12:00:00,因计划调整原因,现变更停电结束时间为2020-03-10 15:00:00","powerTime":"2020-03-10 14:17:56","powerComm":"已送电","subsNo":"","lineNo":"","tgNo":"","tgName":null,"infoStatus":"1","orgName":"浙江杭州电力客户服务中心","typeName":null,"infoStatusName":null,"dateDay":null,"orgNos":null,"nowTime":null,"countyName":null,"streetName":null,"villageName":null,"roadName":null,"communityName":null,"tranName":null,"sdLineName":null,"cityCode":"3340101","cityName":"浙江杭州电力客户服务中心","provinceCode":null,"stopTime":"2020-03-10 15:00:00","powerType":"全部","powerOffArea":"110kV转塘变:龙坞6328线-大清（四）后段","powerOffReason":"(低压停电信息)大清社区大清49号居民增容 原停电结束时间为2020-03-10 12:00:00,因计划调整原因,现变更停电结束时间为2020-03-10 15:00:00","powerOffId":"2020030231020074"},{"poweroffId":2020030231020073,"sgpoweroffId":null,"subsName":"","lineName":"10kV欣美L002线","pubTranName":"帛源制衣,明华花园1#公变,新华缘座2#公变,宁税村26#变,新华缘座3#公变,新华实业（物业变）2#,杭州萧山经济技术开发区国有资产经营有限公司1#变,宁税村25#变,新华缘座1#公变,宁税村22#变,宁税村13#变,宁税村6#变,杭州萧山经济技术开发区国有资产经营有限公司1#变,宁税村4#变,新华缘座4#公变,杭州萧山经济技术开发区国有资产经营有限公司1#,新华缘座5#公变,明华花园2#公变,杭州市地铁集团有限责任公司1#,宁税村20#变,送电工区,新华实业（商业变）,新华实业（物业变）1#,曼格森酒店,","scope":"浙江省-杭州市-萧山区-宁围镇-宁围街道-宁税社区(宁税自然村,通惠北路),宁围街道(新华行政村-兴园路,振宁社区-通惠北路);经济技术开发区-市北社区(杭州林毳裘革制品有限公司,帛源(杭州)服装有限公司,中铁四局集团有限公司城市轨道交通工程分公司,杭州萧山经济技术开发区国有资产经营有限公司,杭州市公安局萧山区分局),宁围街道(宁税社区-杭州唐邦餐饮管理有限公司,新华行政村-杭州新华实业投资有限公司)、浙江省杭州市萧山区宁围镇宁税社区通惠北路、宁围街道新华园3幢2单元1304等一带","startTime":"2020-03-02 17:03:30","stopDate":"2020-03-02 23:30:30","orgNo":"3340130","typeCode":"电网故障停限电","poweroffArea":"35kV市北变:欣美L002线","poweroffReason":"高压柱上断路器短路故障 原停电结束时间为2020-03-02 21:30:30,因抢修工作难度大原因,现变更停电结束时间为2020-03-02 23:30:30","powerTime":"2020-03-02 23:03:14","powerComm":"已送电","subsNo":"","lineNo":"","tgNo":"","tgName":null,"infoStatus":"1","orgName":"国网浙江杭州市萧山区供电有限公司","typeName":null,"infoStatusName":null,"dateDay":null,"orgNos":null,"nowTime":null,"countyName":null,"streetName":null,"villageName":null,"roadName":null,"communityName":null,"tranName":null,"sdLineName":null,"cityCode":"3340130","cityName":"国网浙江杭州市萧山区供电有限公司","provinceCode":null,"stopTime":"2020-03-02 23:30:30","powerType":"全部","powerOffArea":"35kV市北变:欣美L002线","powerOffReason":"高压柱上断路器短路故障 原停电结束时间为2020-03-02 21:30:30,因抢修工作难度大原因,现变更停电结束时间为2020-03-02 23:30:30","powerOffId":"2020030231020073"},{"poweroffId":2020030231020042,"sgpoweroffId":null,"subsName":"","lineName":"10kV径山H545线","pubTranName":"平山村下平山公变,绿景村冷水桥大村公变,平山村黄家弄公变,绿景村桥北加工厂公变,绿景防水配电变压器,利川生态农业开发配电变压器,绿景村冷水桥大队公变,交通项目管理6120449246,绿景村冷水桥砖瓦厂公变,路灯变,顺帆包装6120516193,平山村中平山公变,绿景村绿景塘公变,利川生态6120280277,绿景村冷水桥老村委公变,长西线5号路灯变6120449248,绿景村杨树畈公变,绿景村汗岭2号公变,俞才荣6110534064,西子农业,明康汇生态农业集团杭州种植有限公司6110534065,绿景村桥北堰山公变,平山村梅林公变,余杭轻工化工,绿景村汗岭1号公变,绿景村后诸2号公变,花之韵612063519801#专变,平山村平山公变,绿景村狄家山公变,绿景村后诸1号公变,静嘉装饰6120491427,绿景村后阳公变,绿景村冷上公变,绿景村圣塘头公变,长西线4号路灯变6120449247,绿景村路口公变,","scope":"浙江省-杭州市-余杭区-径山镇-平山头行政村(黄家墩组自然村,中平山组自然村,平山自然村,梅岭组自然村,上自然村组自然村,上平山组自然村),径山镇-绿景行政村(后诸自然村,桥北自然村,绿景自然村,汗岭自然村,冷水桥自然村,绿景塘自然村,后阳自然村,堰山自然村,圣塘头自然村,千口桥,狄家山自然村,进贤自然村,杨树畈自然村),径山镇(长乐行政村-长乐片,西山行政村-西山自然村,径山行政村-径山自然村,潘坂桥行政村-潘坂桥自然村,小古城行政村-小古城自然村);径山镇(明康汇生态农业集团杭州种植有限公司,俞才荣,杭州顺帆包装制品有限公司,杭州花之韵农业投资有限公司,杭州余杭化工轻工有限公司,杭州利川生态农业开发有限公司,杭州西子农业开发有限公司,杭州市余杭区径山镇人民政府,杭州市余杭区径山镇绿景防水材料厂,杭州市余杭区公路管理处,杭州静嘉装饰工程有限公司)","startTime":"2020-03-02 13:33:00","stopDate":"2020-03-02 16:00:00","orgNo":"3340140","typeCode":"电网故障停限电","poweroffArea":"110kV潘板变:径山H545线绿景堂总分线31#杆开关后段","poweroffReason":"高压开关跳闸 原停电结束时间为2020-03-02 16:33:00,为减少客户停电时间,加快工作进度,提前送电,现变更停电结束时间为2020-03-02 16:00:00","powerTime":"2020-03-02 15:07:00","powerComm":"已送电","subsNo":"","lineNo":"","tgNo":"","tgName":null,"infoStatus":"1","orgName":"国网浙江杭州市余杭区供电有限公司","typeName":null,"infoStatusName":null,"dateDay":null,"orgNos":null,"nowTime":null,"countyName":null,"streetName":null,"villageName":null,"roadName":null,"communityName":null,"tranName":null,"sdLineName":null,"cityCode":"3340140","cityName":"国网浙江杭州市余杭区供电有限公司","provinceCode":null,"stopTime":"2020-03-02 16:00:00","powerType":"全部","powerOffArea":"110kV潘板变:径山H545线绿景堂总分线31#杆开关后段","powerOffReason":"高压开关跳闸 原停电结束时间为2020-03-02 16:33:00,为减少客户停电时间,加快工作进度,提前送电,现变更停电结束时间为2020-03-02 16:00:00","powerOffId":"2020030231020042"}],"pageModel":{"pageNow":515,"totalCount":17789,"totalPage":1779,"tableRows":0,"pageCount":10,"beginCount":5140},"isExperi":"1"}