{"message":"","today":"2020-06-15","seleList":[{"poweroffId":2020030231020041,"sgpoweroffId":null,"subsName":"","lineName":"10kV启东0313线","pubTranName":"围中村8#变,新围初级中学(新),围中村6#变,江建村4#变,赛泰纺织,围中化纤厂,围中村13#变,围中村9#变,悦宁纺织,围中村2#变,江东村11#变,1#,围中村5#变,围中村14#变,登远纺织,围中村7#变,围中村12#变,江建村1#变,江东村10#变,万灵机械,恩惠塑料,","scope":"浙江省-杭州市-萧山区-河庄街道(江东行政村-江东自然村,围中行政村-围中自然村,闸北行政村-闸北自然村);河庄街道(杭州万灵机械工具有限公司,杭州登远纺织有限公司,杭州大江东产业集聚区李江英布厂,杭州英才高级中学,杭州大江东产业集聚区英伦森林幼儿园,杭州悦宁纺织绣品有限公司,杭州赛泰纺织绣品有限公司,中电建路桥集团(杭州)大江东投资发展有限公司)","startTime":"2020-03-02 13:41:00","stopDate":"2020-03-02 15:10:00","orgNo":"3340120","typeCode":"电网故障停限电","poweroffArea":"110kV启江变:启东0313线2521后段","poweroffReason":"高压开关跳闸","powerTime":"2020-03-02 14:22:34","powerComm":"已送电","subsNo":"","lineNo":"","tgNo":"","tgName":null,"infoStatus":"1","orgName":"国网浙江杭州市钱塘新区供电公司","typeName":null,"infoStatusName":null,"dateDay":null,"orgNos":null,"nowTime":null,"countyName":null,"streetName":null,"villageName":null,"roadName":null,"communityName":null,"tranName":null,"sdLineName":null,"cityCode":"3340120","cityName":"国网浙江杭州市钱塘新区供电公司","provinceCode":null,"stopTime":"2020-03-02 15:10:00","powerType":"全部","powerOffArea":"110kV启江变:启东0313线2521后段","powerOffReason":"高压开关跳闸","powerOffId":"2020030231020041"},{"poweroffId":2020030231020038,"sgpoweroffId":null,"subsName":"","lineName":"10kV三元D912线","pubTranName":"葛村1#路上公变,","scope":"浙江省-杭州市-富阳区-渔山乡-大葛行政村-葛村自然村","startTime":"2020-03-02 13:04:16","stopDate":"2020-03-02 15:04:16","orgNo":"3340170","typeCode":"电网故障停限电","poweroffArea":"110kV里渔变:三元D912线-葛村1#路上公变后段","poweroffReason":"(低压停电信息)低压开关跳闸","powerTime":"2020-03-02 14:30:59","powerComm":"已送电","subsNo":"","lineNo":"","tgNo":"","tgName":null,"infoStatus":"1","orgName":"国网浙江杭州市富阳区供电公司","typeName":null,"infoStatusName":null,"dateDay":null,"orgNos":null,"nowTime":null,"countyName":null,"streetName":null,"villageName":null,"roadName":null,"communityName":null,"tranName":null,"sdLineName":null,"cityCode":"3340170","cityName":"国网浙江杭州市富阳区供电公司","provinceCode":null,"stopTime":"2020-03-02 15:04:16","powerType":"全部","powerOffArea":"110kV里渔变:三元D912线-葛村1#路上公变后段","powerOffReason":"(低压停电信息)低压开关跳闸","powerOffId":"2020030231020038"},{"poweroffId":2020030231020035,"sgpoweroffId":null,"subsName":"","lineName":"10kV康乐D354线","pubTranName":"三江花园2#公变,","scope":"浙江省-杭州市-富阳区-富春街道-镬子山社区-春秋南路,富春街道-春南社区(春秋南路,秦望路)","startTime":"2020-03-02 12:47:13","stopDate":"2020-03-02 14:47:13","orgNo":"3340170","typeCode":"电网故障停限电","poweroffArea":"110kV富鹿变:康乐D354线-三江花园2#公变后段","poweroffReason":"(低压停电信息)低压开关跳闸","powerTime":"2020-03-02 13:47:17","powerComm":"已送电","subsNo":"","lineNo":"","tgNo":"","tgName":null,"infoStatus":"1","orgName":"国网浙江杭州市富阳区供电公司","typeName":null,"infoStatusName":null,"dateDay":null,"orgNos":null,"nowTime":null,"countyName":null,"streetName":null,"villageName":null,"roadName":null,"communityName":null,"tranName":null,"sdLineName":null,"cityCode":"3340170","cityName":"国网浙江杭州市富阳区供电公司","provinceCode":null,"stopTime":"2020-03-02 14:47:13","powerType":"全部","powerOffArea":"110kV富鹿变:康乐D354线-三江花园2#公变后段","powerOffReason":"(低压停电信息)低压开关跳闸","powerOffId":"2020030231020035"},{"poweroffId":2020030231020017,"sgpoweroffId":null,"subsName":"","lineName":"10kV丰车H820线","pubTranName":"全丰变2号基建,全丰变基建,何母桥村光明桥公变,凯拓滤网,良睦路4号基建,","scope":"浙江省杭州市余杭区闲林街道：光明桥村、全丰1#2#基建、凯拓滤网、良睦路4号基建一带","startTime":"2020-03-12 09:00:00","stopDate":"2020-03-12 18:00:00","orgNo":"3340140","typeCode":"计划停电","poweroffArea":"丰车H820线光明桥分线","poweroffReason":"业扩工程（全丰变线路迁改工作）：光明桥分线2-6号杆移位工作","powerTime":"2020-03-12 16:32:15","powerComm":"已送电","subsNo":"","lineNo":"","tgNo":"","tgName":null,"infoStatus":"1","orgName":"国网浙江杭州市余杭区供电有限公司","typeName":null,"infoStatusName":null,"dateDay":null,"orgNos":null,"nowTime":null,"countyName":null,"streetName":null,"villageName":null,"roadName":null,"communityName":null,"tranName":null,"sdLineName":null,"cityCode":"3340140","cityName":"国网浙江杭州市余杭区供电有限公司","provinceCode":null,"stopTime":"2020-03-12 18:00:00","powerType":"全部","powerOffArea":"丰车H820线光明桥分线","powerOffReason":"业扩工程（全丰变线路迁改工作）：光明桥分线2-6号杆移位工作","powerOffId":"2020030231020017"},{"poweroffId":2020030231020008,"sgpoweroffId":null,"subsName":"","lineName":"10kV庆仙V853线","pubTranName":"杭州临安东胜碎石有限公司1#,杭州临安东胜碎石有限公司2#,","scope":"浙江省杭州市临安区玲珑街道杭州临安东胜碎石有限公司一带","startTime":"2020-03-11 08:30:00","stopDate":"2020-03-11 13:00:00","orgNo":"3340160","typeCode":"计划停电","poweroffArea":"110kV夏禹变:庆仙V853线-东胜碎石支线开关后段","poweroffReason":"开关更换","powerTime":"2020-03-11 12:30:24","powerComm":"已送电","subsNo":"","lineNo":"","tgNo":"","tgName":null,"infoStatus":"1","orgName":"国网浙江临安市供电公司","typeName":null,"infoStatusName":null,"dateDay":null,"orgNos":null,"nowTime":null,"countyName":null,"streetName":null,"villageName":null,"roadName":null,"communityName":null,"tranName":null,"sdLineName":null,"cityCode":"3340160","cityName":"国网浙江临安市供电公司","provinceCode":null,"stopTime":"2020-03-11 13:00:00","powerType":"全部","powerOffArea":"110kV夏禹变:庆仙V853线-东胜碎石支线开关后段","powerOffReason":"开关更换","powerOffId":"2020030231020008"},{"poweroffId":2020030131020065,"sgpoweroffId":null,"subsName":"","lineName":"10kV图山D502线","pubTranName":"下图山村4号新区公变,","scope":"浙江省-杭州市-富阳区-场口镇-下图山行政村-下图山自然村","startTime":"2020-03-01 18:10:10","stopDate":"2020-03-01 20:10:10","orgNo":"3340170","typeCode":"电网故障停限电","poweroffArea":"110kV常安变:图山D502线-下图山村4#新区公变开关后段","poweroffReason":"高压开关跳闸","powerTime":"2020-03-01 18:57:12","powerComm":"已送电，作业人员技术较好","subsNo":"","lineNo":"","tgNo":"","tgName":null,"infoStatus":"1","orgName":"国网浙江杭州市富阳区供电公司","typeName":null,"infoStatusName":null,"dateDay":null,"orgNos":null,"nowTime":null,"countyName":null,"streetName":null,"villageName":null,"roadName":null,"communityName":null,"tranName":null,"sdLineName":null,"cityCode":"3340170","cityName":"国网浙江杭州市富阳区供电公司","provinceCode":null,"stopTime":"2020-03-01 20:10:10","powerType":"全部","powerOffArea":"110kV常安变:图山D502线-下图山村4#新区公变开关后段","powerOffReason":"高压开关跳闸","powerOffId":"2020030131020065"},{"poweroffId":2020030131020055,"sgpoweroffId":null,"subsName":"","lineName":"10kV科研A090线","pubTranName":"航民村4#变,","scope":"浙江省-杭州市-萧山区-瓜沥镇-航民行政村-航坞路、航民村一带","startTime":"2020-03-01 14:05:30","stopDate":"2020-03-01 16:30:30","orgNo":"3340130","typeCode":"电网故障停限电","poweroffArea":"110kV航坞变:科研A090线-航民村4#变台区低压开关","poweroffReason":"(低压停电信息)低压熔断器短路故障","powerTime":"2020-03-01 15:32:26","powerComm":"已送电","subsNo":"","lineNo":"","tgNo":"","tgName":null,"infoStatus":"1","orgName":"国网浙江杭州市萧山区供电有限公司","typeName":null,"infoStatusName":null,"dateDay":null,"orgNos":null,"nowTime":null,"countyName":null,"streetName":null,"villageName":null,"roadName":null,"communityName":null,"tranName":null,"sdLineName":null,"cityCode":"3340130","cityName":"国网浙江杭州市萧山区供电有限公司","provinceCode":null,"stopTime":"2020-03-01 16:30:30","powerType":"全部","powerOffArea":"110kV航坞变:科研A090线-航民村4#变台区低压开关","powerOffReason":"(低压停电信息)低压熔断器短路故障","powerOffId":"2020030131020055"},{"poweroffId":2020030131020043,"sgpoweroffId":null,"subsName":"","lineName":"10kV下市Y153线","pubTranName":"绪塘村岭下台区,","scope":"浙江省-杭州市-建德市-杨村桥镇-绪塘行政村-岭下自然村一带用户","startTime":"2020-03-01 10:18:00","stopDate":"2020-03-01 12:10:00","orgNo":"3340180","typeCode":"电网故障停限电","poweroffArea":"110kV沿口变:下市Y153线绪塘村岭下台区绪塘村岭下台区断路器配变","poweroffReason":"高压线路故障 原停电结束时间为2020-03-01 13:00:00,为减少客户停电时间,加快工作进度,提前送电,现变更停电结束时间为2020-03-01 12:10:00","powerTime":"2020-03-01 11:43:00","powerComm":"已送电","subsNo":"","lineNo":"","tgNo":"","tgName":null,"infoStatus":"1","orgName":"国网浙江建德市供电有限公司","typeName":null,"infoStatusName":null,"dateDay":null,"orgNos":null,"nowTime":null,"countyName":null,"streetName":null,"villageName":null,"roadName":null,"communityName":null,"tranName":null,"sdLineName":null,"cityCode":"3340180","cityName":"国网浙江建德市供电有限公司","provinceCode":null,"stopTime":"2020-03-01 12:10:00","powerType":"全部","powerOffArea":"110kV沿口变:下市Y153线绪塘村岭下台区绪塘村岭下台区断路器配变","powerOffReason":"高压线路故障 原停电结束时间为2020-03-01 13:00:00,为减少客户停电时间,加快工作进度,提前送电,现变更停电结束时间为2020-03-01 12:10:00","powerOffId":"2020030131020043"},{"poweroffId":2020030131020035,"sgpoweroffId":null,"subsName":"","lineName":"10kV抢一A003线","pubTranName":"杭州市萧山区教育局#1,湘湖家园6#公变,城市建设投资集团4#,1,商业1,荣星君佳园7#公变,荣星君佳园13#公变,湘湖家园7#公变,荣星君佳园5#公变,开元商业4#,3,城市建设投资集团6#,城市建设投资集团3#,杭州市萧山区市政园林公用事业管理处2#,荣星君佳园1#公变,变压器,变压器,城市建设投资集团5#,荣星君佳园15#公变,城市建设投资集团2#,湘湖家园2#公变,湘湖家园8#公变,湘湖家园4#公变,湘湖家园5#公变,湘湖家园3#公变,荣星君佳园11#公变,2,湘湖家园18#公变,湘湖家园15#公变,城市建设投资集团1#,荣星君佳园9#公变,湘湖家园10#公变,荣星君佳园3#公变,湘湖家园1#公变,湘湖家园9#公变,开元商业5#,","scope":"浙江省-杭州市-萧山区-城厢街道-休博园社区(湘湖路,休博路),城厢街道-湘湖社区-跨月路,北干街道-荣星社区-金惠路;城厢街道-湘湖社区(杭州市萧山区市政绿化养护保障中心,杭州萧山城市建设投资集团有限公司),城厢街道-杜湖社区(杭州市萧山区市政园林公用事业管理处,萧山区湘湖初级中学),北干街道-荣星社区(杭州市萧山区人民政府北干街道办事处,杭州萧山城市物业服务有限公司),北干街道(加德社区-浙江开元商业管理集团有限公司加州分公司,北干一苑社区-杭州萧山城市建设投资集团有限公司)一带","startTime":"2020-03-01 09:14:25","stopDate":"2020-03-01 11:30:25","orgNo":"3340130","typeCode":"电网故障停限电","poweroffArea":"110kV越王变:抢一A003线开关后段","poweroffReason":"高压开关跳闸 原停电结束时间为2020-03-01 13:14:25,为减少客户停电时间,加快工作进度,提前送电,现变更停电结束时间为2020-03-01 11:30:25","powerTime":"2020-03-01 10:56:34","powerComm":"已送电","subsNo":"","lineNo":"","tgNo":"","tgName":null,"infoStatus":"1","orgName":"国网浙江杭州市萧山区供电有限公司","typeName":null,"infoStatusName":null,"dateDay":null,"orgNos":null,"nowTime":null,"countyName":null,"streetName":null,"villageName":null,"roadName":null,"communityName":null,"tranName":null,"sdLineName":null,"cityCode":"3340130","cityName":"国网浙江杭州市萧山区供电有限公司","provinceCode":null,"stopTime":"2020-03-01 11:30:25","powerType":"全部","powerOffArea":"110kV越王变:抢一A003线开关后段","powerOffReason":"高压开关跳闸 原停电结束时间为2020-03-01 13:14:25,为减少客户停电时间,加快工作进度,提前送电,现变更停电结束时间为2020-03-01 11:30:25","powerOffId":"2020030131020035"},{"poweroffId":2020030131020033,"sgpoweroffId":null,"subsName":"","lineName":"10kV外桐8879线","pubTranName":"变压器3,变压器2,变压器1,橄榄树三,橄榄施四,橄榄树二,橄榄树,科盈,","scope":"浙江省-杭州市-西湖区-转塘街道(浙江橄榄树置业发展有限公司,杭州龙坞茶镇建设管理有限公司)","startTime":"2020-03-01 09:09:00","stopDate":"2020-03-01 10:00:00","orgNo":"3340101","typeCode":"电网故障停限电","poweroffArea":"110kV留下变:外桐8879线橄榄树支线开关后段","poweroffReason":"高压开关跳闸 原停电结束时间为2020-03-01 11:09:00,为减少客户停电时间,加快工作进度,提前送电,现变更停电结束时间为2020-03-01 10:00:00","powerTime":"2020-03-01 09:31:17","powerComm":"已送电","subsNo":"","lineNo":"","tgNo":"","tgName":null,"infoStatus":"1","orgName":"浙江杭州电力客户服务中心","typeName":null,"infoStatusName":null,"dateDay":null,"orgNos":null,"nowTime":null,"countyName":null,"streetName":null,"villageName":null,"roadName":null,"communityName":null,"tranName":null,"sdLineName":null,"cityCode":"3340101","cityName":"浙江杭州电力客户服务中心","provinceCode":null,"stopTime":"2020-03-01 10:00:00","powerType":"全部","powerOffArea":"110kV留下变:外桐8879线橄榄树支线开关后段","powerOffReason":"高压开关跳闸 原停电结束时间为2020-03-01 11:09:00,为减少客户停电时间,加快工作进度,提前送电,现变更停电结束时间为2020-03-01 10:00:00","powerOffId":"2020030131020033"}],"pageModel":{"pageNow":516,"totalCount":17789,"totalPage":1779,"tableRows":0,"pageCount":10,"beginCount":5150},"isExperi":"1"}