{"message":"","today":"2020-06-15","seleList":[{"poweroffId":2020030131020028,"sgpoweroffId":null,"subsName":"","lineName":"10kV留思H880线","pubTranName":"泰峰村思古山村口公变,","scope":"浙江省-杭州市-余杭区-中泰街道-泰峰行政村-泰峰自然村","startTime":"2020-03-01 08:40:00","stopDate":"2020-03-01 10:40:00","orgNo":"3340140","typeCode":"电网故障停限电","poweroffArea":"110kV中泰变:留思H880线-泰峰村思古山村口公变后段","poweroffReason":"思古山村口公变桩头烧毁，需紧急更换 原停电结束时间为2020-03-01 11:40:00,为减少客户停电时间,加快工作进度,提前送电,现变更停电结束时间为2020-03-01 10:40:00","powerTime":"2020-03-01 10:08:00","powerComm":"已送电","subsNo":"","lineNo":"","tgNo":"","tgName":null,"infoStatus":"1","orgName":"国网浙江杭州市余杭区供电有限公司","typeName":null,"infoStatusName":null,"dateDay":null,"orgNos":null,"nowTime":null,"countyName":null,"streetName":null,"villageName":null,"roadName":null,"communityName":null,"tranName":null,"sdLineName":null,"cityCode":"3340140","cityName":"国网浙江杭州市余杭区供电有限公司","provinceCode":null,"stopTime":"2020-03-01 10:40:00","powerType":"全部","powerOffArea":"110kV中泰变:留思H880线-泰峰村思古山村口公变后段","powerOffReason":"思古山村口公变桩头烧毁，需紧急更换 原停电结束时间为2020-03-01 11:40:00,为减少客户停电时间,加快工作进度,提前送电,现变更停电结束时间为2020-03-01 10:40:00","powerOffId":"2020030131020028"},{"poweroffId":2020030131020023,"sgpoweroffId":null,"subsName":"","lineName":"10kV塘河A743线","pubTranName":"风情雅苑2#公变,春江悦茗9#公变,杭州萧山鑫裕建筑装璜有限公司,01#变压器,#2,1#,浙江国丰集团有限公司#1,#2,宝公幕墙装饰1#,风情雅苑1#公变,杭州兴达市政公用服务有限公司4变压器,杭州萧山中丽机械有限公司,兴议村30#公变,中国人民武装警察部队浙江省边防总队司令部管理处2#,宝龙置业,杭州伟泰纺织绣品有限公司,春江悦茗3#公变,春江悦茗5#公变,市政园林,深圳市莱蒙物业服务变压器间隔2配电变压器,武警经适房1#公变,春江悦茗7#公变,杭州考拉车业有限公司,投资开发1#变压器,萧山污水处理有限公司,中国人民武装警察部队浙江省边防总队司令部管理处1#,风情雅苑4#公变,1,1#变,2#变,杭州天长印务有限公司,杭州腾达建设集团股份有限公司变压器2#,荣星村6#公变,1,变压器,兴议村17#公变,浙江哨兵实业有限公司（1321128489）,风情雅苑3#公变,路灯变9#,杭州腾达建设集团股份有限公司变压器1#,杭州绿城启兴置业有限公司2#变压器,浙江天科建设有限公司,市政园林,春江悦茗1#公变,杭州市萧山区城市河道管理处（1321117181）,开发区管委会1#,深圳市莱蒙物业服务变压器间隔1配电变压器,杭州萧山供销投资开发有限公司1#,杭州绿城启兴置业有限公司1#变压器,杭州盛隆纸业有限公司,","scope":"浙江省-杭州市-萧山区-城厢街道-回澜北苑社区-育才路,北干街道-风情大道(风情雅苑,春江悦茗),北干街道(城北行政村-金惠路,明星行政村-建设一路);浙江省-杭州市-萧山区-北干街道-荣星行政村-杭州天长印务有限公司,经济技术开发区-市北社区(浙江天科建设有限公司,杭州安林纸制品有限公司,杭州萧山经济技术开发区国有资产经营有限公司,杭州市萧山区城市河道管理处,杭州兴达市政公用服务有限公司,龙湖物业服务集团有限公司杭州分公司),北干街道-北干二苑社区(杭州好洁物业管理有限公司,杭州聚旺新能源科技有限公司),北干街道-兴议行政村(杭州萧山北干兴议股份经济联合社,杭州萧山中丽机械有限公司,中国人民武装警察部队浙江省边防总队司令部管理处,深圳市莱蒙物业服务有限公司杭州分公司,杭州万丰卓越物业服务有限公司,杭州市萧山区人民政府北干街道办事处,杭州萧山城区投资开发有限公司,浙江宝公幕墙装饰有限公司,杭州绿城启兴置业有限公司,杭州滨原房地产开发有限公司),北干街道-明星行政村(杭州锦繁置业有限公司,杭州兴达市政公用服务有限公司,杭州萧山经济技术开发区国有资产经营有限公司),北干街道-风情大道(腾达建设集团股份有限公司,浙江国丰集团有限公司),北干街道-金风社区(杭州萧山污水处理有限公司,杭州市萧山区市政绿化养护保障中心,浙江哨兵实业有限公司)一带","startTime":"2020-03-01 07:30:40","stopDate":"2020-03-01 09:30:40","orgNo":"3340130","typeCode":"电网故障停限电","poweroffArea":"110kV北干变:塘河A743线-塘河A743线开关后段","poweroffReason":"高压开关跳闸","powerTime":"2020-03-01 09:05:30","powerComm":"已送电","subsNo":"","lineNo":"","tgNo":"","tgName":null,"infoStatus":"1","orgName":"国网浙江杭州市萧山区供电有限公司","typeName":null,"infoStatusName":null,"dateDay":null,"orgNos":null,"nowTime":null,"countyName":null,"streetName":null,"villageName":null,"roadName":null,"communityName":null,"tranName":null,"sdLineName":null,"cityCode":"3340130","cityName":"国网浙江杭州市萧山区供电有限公司","provinceCode":null,"stopTime":"2020-03-01 09:30:40","powerType":"全部","powerOffArea":"110kV北干变:塘河A743线-塘河A743线开关后段","powerOffReason":"高压开关跳闸","powerOffId":"2020030131020023"},{"poweroffId":2020030131020022,"sgpoweroffId":null,"subsName":"","lineName":"10kV鼎升D404线","pubTranName":"春安村7号屋基上公变,春安村4号官房公变,杭州贝斯特化纤有限公司1#变,杭州贝斯特化纤有限公司2#变,杭州贝斯特化纤有限公司2#变,汤家埠春安10#新区公变,杭州博大净化设备有限公司,杭州博大净化设备有限公司2#变,杭州富阳恒通机电工程有限公司,","scope":"浙江省-杭州市-富阳区-鹿山街道-鹿山工业园区-裕阳路,鹿山街道-汤家埠行政村(春安自然村,屋基上自然村,汤家埠自然村);鹿山街道(杭州贝斯特化纤有限公司,杭州博大净化设备有限公司,杭州富阳恒通机电工程有限公司)","startTime":"2020-03-01 07:20:00","stopDate":"2020-03-01 10:00:00","orgNo":"3340170","typeCode":"电网故障停限电","poweroffArea":"110kV长春变:鼎升D404线鼎升D4042开关后段","poweroffReason":"高压开关跳闸 原停电结束时间为2020-03-01 09:20:00,因现场抢修难度大原因,现变更停电结束时间为2020-03-01 10:00:00","powerTime":"2020-03-01 09:03:30","powerComm":"已送电","subsNo":"","lineNo":"","tgNo":"","tgName":null,"infoStatus":"1","orgName":"国网浙江杭州市富阳区供电公司","typeName":null,"infoStatusName":null,"dateDay":null,"orgNos":null,"nowTime":null,"countyName":null,"streetName":null,"villageName":null,"roadName":null,"communityName":null,"tranName":null,"sdLineName":null,"cityCode":"3340170","cityName":"国网浙江杭州市富阳区供电公司","provinceCode":null,"stopTime":"2020-03-01 10:00:00","powerType":"全部","powerOffArea":"110kV长春变:鼎升D404线鼎升D4042开关后段","powerOffReason":"高压开关跳闸 原停电结束时间为2020-03-01 09:20:00,因现场抢修难度大原因,现变更停电结束时间为2020-03-01 10:00:00","powerOffId":"2020030131020022"},{"poweroffId":2020030131020021,"sgpoweroffId":null,"subsName":"","lineName":"10kV鼎升D404线","pubTranName":"杭州富阳恒通机电工程有限公司,杭州博大净化设备有限公司2#变,汤家埠春安10#新区公变,杭州博大净化设备有限公司,春安村7号屋基上公变,杭州贝斯特化纤有限公司1#变,杭州贝斯特化纤有限公司2#变,春安村4号官房公变,杭州贝斯特化纤有限公司2#变,","scope":"浙江省-杭州市-富阳区-鹿山街道-鹿山工业园区-裕阳路,鹿山街道-汤家埠行政村(春安自然村,屋基上自然村,汤家埠自然村);浙江省-杭州市-富阳区-鹿山街道-汤家埠行政村-杭州富阳恒通机电工程有限公司,鹿山街道-鹿山工业园区(杭州贝斯特化纤有限公司,杭州博大净化设备有限公司)","startTime":"2020-03-01 07:19:58","stopDate":"2020-03-01 10:00:58","orgNo":"3340170","typeCode":"电网故障停限电","poweroffArea":"110kV长春变:鼎升D404线-鼎升D4041开关后段","poweroffReason":"高压开关跳闸 原停电结束时间为2020-03-01 08:19:58,因现场抢修难度大原因,现变更停电结束时间为2020-03-01 10:00:58","powerTime":"2020-03-01 09:03:07","powerComm":"已送电","subsNo":"","lineNo":"","tgNo":"","tgName":null,"infoStatus":"1","orgName":"国网浙江杭州市富阳区供电公司","typeName":null,"infoStatusName":null,"dateDay":null,"orgNos":null,"nowTime":null,"countyName":null,"streetName":null,"villageName":null,"roadName":null,"communityName":null,"tranName":null,"sdLineName":null,"cityCode":"3340170","cityName":"国网浙江杭州市富阳区供电公司","provinceCode":null,"stopTime":"2020-03-01 10:00:58","powerType":"全部","powerOffArea":"110kV长春变:鼎升D404线-鼎升D4041开关后段","powerOffReason":"高压开关跳闸 原停电结束时间为2020-03-01 08:19:58,因现场抢修难度大原因,现变更停电结束时间为2020-03-01 10:00:58","powerOffId":"2020030131020021"},{"poweroffId":2020030131020016,"sgpoweroffId":null,"subsName":"","lineName":"10kV永盛D406线","pubTranName":"杭州鼎升机械有限公司,浙江森虎复合材料科技有限公司,浙江飞鱼实业有限公司,杭州富阳环宇塑管有限公司,3#变,杭州百文食品有限公司,富阳市瑞华涂装有限公司1#变,杭州富阳格陵兰家居艺品有限公司 1#变,杭州力通管业有限公司,浙江飞鱼实业有限公司,杭州市富阳区人民政府鹿山街道办事处1#变,浙江森虎复合材料科技有限公司,2#变,富阳市瑞华涂装有限公司,变压器,富阳东达新型材料有限公司,","scope":"浙江省-杭州市-富阳区-鹿山街道(杭州市富阳区人民政府鹿山街道办事处,富阳市金鑫电子元件制造有限公司,杭州百文食品有限公司,杭州鼎升机械有限公司,浙江飞鱼实业有限公司,杭州富阳环宇塑管有限公司,浙江森虎复合材料科技有限公司,杭州力通管业有限公司,杭州富阳东达新型材料有限公司,杭州富阳格陵兰家居艺品有限公司,杭州海通管桩构件有限公司)","startTime":"2020-03-01 06:23:00","stopDate":"2020-03-01 10:00:00","orgNo":"3340170","typeCode":"电网故障停限电","poweroffArea":"110kV长春变:永盛D406线永盛D4061开关后段","poweroffReason":"高压开关跳闸 原停电结束时间为2020-03-01 08:30:00,因现场抢修难度大原因,现变更停电结束时间为2020-03-01 10:00:00","powerTime":"2020-03-01 09:02:45","powerComm":"已送电","subsNo":"","lineNo":"","tgNo":"","tgName":null,"infoStatus":"1","orgName":"国网浙江杭州市富阳区供电公司","typeName":null,"infoStatusName":null,"dateDay":null,"orgNos":null,"nowTime":null,"countyName":null,"streetName":null,"villageName":null,"roadName":null,"communityName":null,"tranName":null,"sdLineName":null,"cityCode":"3340170","cityName":"国网浙江杭州市富阳区供电公司","provinceCode":null,"stopTime":"2020-03-01 10:00:00","powerType":"全部","powerOffArea":"110kV长春变:永盛D406线永盛D4061开关后段","powerOffReason":"高压开关跳闸 原停电结束时间为2020-03-01 08:30:00,因现场抢修难度大原因,现变更停电结束时间为2020-03-01 10:00:00","powerOffId":"2020030131020016"},{"poweroffId":2020030131020009,"sgpoweroffId":null,"subsName":"","lineName":"10kV山北G751线","pubTranName":"杭庄10号公变,汀北8号公变,金帝海珀8#公变,3#,杭庄5号公变,杭庄6号公变,金帝海珀7#公变,汀北7号公变,杭庄9号公变,金帝海珀5#公变,海珀华庭2#专变,1#,汀北2号公变,汀北5号公变,杭庄8号公变,1#,汀北9号公变,金帝海珀6#公变,汀北3号公变,汀北4号公变,汀北1号公变,杭庄7号公变,汀北6号公变,汀北10号公变,4#,1#,","scope":"浙江省-杭州市-余杭区-经济开发区-星火苑社区(振兴西路,汀洲路,汀洲花苑小区),经济开发区-海珀社区(振兴西路,雨荷路),东湖街道(经济开发区-汀洲路,海珀社区-振兴西路),临平街道(星火社区-汀洲路,映荷社区-映荷路);浙江省-杭州市-余杭区-临平街道-映荷社区-浙江浙大求是物业管理有限公司,东湖街道-经济开发区(杭州汀洲物业管理有限公司,德丰物业服务集团有限公司余杭分公司)","startTime":"2020-03-01 05:15:00","stopDate":"2020-03-01 08:15:00","orgNo":"3340140","typeCode":"电网故障停限电","poweroffArea":"110kV金家变:山北G751线-汀南开关站山北G751线后段","poweroffReason":"高压开关跳闸 原停电结束时间为2020-03-01 12:15:00,为减少客户停电时间,加快工作进度,提前送电,现变更停电结束时间为2020-03-01 08:15:00","powerTime":"2020-03-01 07:35:11","powerComm":"已送电","subsNo":"","lineNo":"","tgNo":"","tgName":null,"infoStatus":"1","orgName":"国网浙江杭州市余杭区供电有限公司","typeName":null,"infoStatusName":null,"dateDay":null,"orgNos":null,"nowTime":null,"countyName":null,"streetName":null,"villageName":null,"roadName":null,"communityName":null,"tranName":null,"sdLineName":null,"cityCode":"3340140","cityName":"国网浙江杭州市余杭区供电有限公司","provinceCode":null,"stopTime":"2020-03-01 08:15:00","powerType":"全部","powerOffArea":"110kV金家变:山北G751线-汀南开关站山北G751线后段","powerOffReason":"高压开关跳闸 原停电结束时间为2020-03-01 12:15:00,为减少客户停电时间,加快工作进度,提前送电,现变更停电结束时间为2020-03-01 08:15:00","powerOffId":"2020030131020009"},{"poweroffId":2020030131020005,"sgpoweroffId":null,"subsName":"","lineName":"10kV山北G751线","pubTranName":"汀北1号公变,汀北3号公变,海珀华庭2#专变,杭庄7号公变,杭庄6号公变,4#,汀北II段2#专变,1#,金帝海珀7#公变,杭庄10号公变,金帝海珀5#公变,金帝海珀6#公变,海珀华庭1#专变,金帝海珀8#公变,汀北8号公变,3#,杭庄8号公变,杭庄5号公变,1#,汀北2号公变,3#,汀北9号公变,杭庄9号公变,汀北5号公变,1#,汀北10号公变,汀北7号公变,汀北6号公变,汀北4号公变,","scope":"浙江省-杭州市-余杭区-经济开发区-星火苑社区(振兴西路,汀洲花苑小区,汀洲路),经济开发区-海珀社区(振兴西路,雨荷路),东湖街道(经济开发区-汀洲路,海珀社区-振兴西路),临平街道(星火社区-汀洲路,映荷社区-映荷路);临平街道-浙江浙大求是物业管理有限公司,东湖街道(杭州汀洲物业管理有限公司,德丰物业服务集团有限公司余杭分公司)","startTime":"2020-03-01 02:45:00","stopDate":"2020-03-01 05:45:00","orgNo":"3340140","typeCode":"电网故障停限电","poweroffArea":"110kV金家变:山北G751线汀南开关站汀南开关站山北G751线后段","poweroffReason":"高压开关跳闸 原停电结束时间为2020-03-01 04:45:00,因现场情况复杂原因,现变更停电结束时间为2020-03-01 05:45:00","powerTime":"2020-03-01 05:01:03","powerComm":"已送电","subsNo":"","lineNo":"","tgNo":"","tgName":null,"infoStatus":"1","orgName":"国网浙江杭州市余杭区供电有限公司","typeName":null,"infoStatusName":null,"dateDay":null,"orgNos":null,"nowTime":null,"countyName":null,"streetName":null,"villageName":null,"roadName":null,"communityName":null,"tranName":null,"sdLineName":null,"cityCode":"3340140","cityName":"国网浙江杭州市余杭区供电有限公司","provinceCode":null,"stopTime":"2020-03-01 05:45:00","powerType":"全部","powerOffArea":"110kV金家变:山北G751线汀南开关站汀南开关站山北G751线后段","powerOffReason":"高压开关跳闸 原停电结束时间为2020-03-01 04:45:00,因现场情况复杂原因,现变更停电结束时间为2020-03-01 05:45:00","powerOffId":"2020030131020005"},{"poweroffId":2020030131020004,"sgpoweroffId":null,"subsName":"","lineName":"10kV永立G270线","pubTranName":"九龙村缪家里2号公变,杭州沁雅纺织品有限公司612089021401#专变,中国石油天然气股份有限公司浙江杭州销售分公司,杭州山立净化设备股份有限公司,九龙村骆家斗南公变,九龙村北水角公变,九龙村烘荡漾公变,九龙村缪家里公变,杭州云会印染整理有限公司2#,云会村施家斗西公变,九龙村烘荡漾东公变,栅庄桥村栅庄桥西公变,九龙村汪家里公变,九龙村骆家斗公变,九龙村汪家里西公变,九龙村丁家门2号公变,九龙村林家桥公变,栅庄桥村翁家塘公变,杭州天翔新型建材股份有限公司611109037701#专变,九龙村李家桥公变,栅庄桥村塘家湾公变,杭州云会印染整理有限公司,九龙村人民墩公变,栅庄桥村栅庄桥公变,九龙村丁家门公变,栅庄桥村金家门北公变,九龙村冯家墩公变,栅庄桥村金家门公变,九龙村人民墩西公变,九龙村北水角南公变,栅庄桥村车里公变,","scope":"浙江省-杭州市-余杭区-仁和街道-栅庄桥行政村(木克桥自然村,车里自然村,俞家庄自然村,翁家塘自然村,栅庄桥自然村,翁家埭自然村,唐家湾自然村,金港庵自然村,杨家斗自然村,南陈家角自然村,河口埭自然村,倪家里自然村,杨家兜自然村,南坝头自然村),仁和街道-九龙行政村(孙家抖自然村,冯家墩自然村,人民墩自然村,俞家门自然村,黄家门自然村,烘荡洋自然村,店头村,李家桥自然村,莫家塘自然村,王家荡自然村,骆家抖自然村,骆家斗自然村,坝廊自然村,沈家门自然村,张花弄自然村,坝郎自然村,王家门自然村,计家里自然村,林家桥自然村,何家门自然村,汪家里自然村,缪家里自然村,凌家埭自然村,周家里自然村,丁家门自然村,莫家荡自然村,北水角自然村,王家池自然村,施家斗自然村),仁和街道-东风行政村(丁家坝自然村,马家塘自然村,马介塘自然村),仁和街道-云会行政村(施家洋自然村,水路里自然村,施家斗自然村,马介塘自然村,西南山自然村),仁和街道(新桥行政村-长木桥自然村,葛墩行政村-坝儿斗自然村,獐山社区-奉欣路自然村,洛阳行政村-洛阳桥自然村,东塘行政村-大桥自然村);仁和街道(中国石油天然气股份有限公司浙江杭州销售分公司,杭州优尼克消毒设备有限公司,杭州云会家纺科技发展有限公司,杭州天翔新型建材股份有限公司,杭州沁雅纺织品有限公司)","startTime":"2020-03-01 02:13:00","stopDate":"2020-03-01 05:13:00","orgNo":"3340140","typeCode":"电网故障停限电","poweroffArea":"110kV仁镇变:永立G270线永立G2701开关后段","poweroffReason":"高压开关跳闸 原停电结束时间为2020-03-01 04:13:00,因现场情况复杂原因,现变更停电结束时间为2020-03-01 05:13:00","powerTime":"2020-03-01 04:20:22","powerComm":"已送电","subsNo":"","lineNo":"","tgNo":"","tgName":null,"infoStatus":"1","orgName":"国网浙江杭州市余杭区供电有限公司","typeName":null,"infoStatusName":null,"dateDay":null,"orgNos":null,"nowTime":null,"countyName":null,"streetName":null,"villageName":null,"roadName":null,"communityName":null,"tranName":null,"sdLineName":null,"cityCode":"3340140","cityName":"国网浙江杭州市余杭区供电有限公司","provinceCode":null,"stopTime":"2020-03-01 05:13:00","powerType":"全部","powerOffArea":"110kV仁镇变:永立G270线永立G2701开关后段","powerOffReason":"高压开关跳闸 原停电结束时间为2020-03-01 04:13:00,因现场情况复杂原因,现变更停电结束时间为2020-03-01 05:13:00","powerOffId":"2020030131020004"},{"poweroffId":2020022931020106,"sgpoweroffId":null,"subsName":"","lineName":"10kV启东0313线","pubTranName":"文伟村11#变,歌山建设,万灵机械,东风养殖,江东村10#变,新围村3#变,河庄街道11#变,围中村6#变,江建村1#变,1#,新围建筑,闸北村经济联合社,登远纺织,赛泰纺织,1#,新围村1#变,新围村2#变,河庄街道5#变,围中村8#变,围中村9#变,杭州亮光纺织花边有限公司,文伟村5#变,新围农机厂,围中村10#变,江东村11#变,悦宁纺织,围中村2#变,远东针织厂,闸北村经济联合社1#,围中村11#变,围中化纤厂,围中村14#变,新围村8#变,永顺化工,新围邮电所,江建村4#变,围中村12#变,围中村13#变,河庄街道13#变,围中村3#变,文伟村10#变,新围村12#变,闸北村11#变,河庄街道17#变,新围村9#变,张氏纺织,龙杰实业,幸宝健康02#,围中村5#变,新围村10#变,新围初级中学(新),新围村15#变,恩惠塑料,围中村7#变,宝山市政设施,文伟村12#变,","scope":"浙江省-杭州市-萧山区-河庄街道(江东行政村-江东自然村,围中行政村-围中自然村,新围行政村-新围自然村,闸北行政村-闸北自然村,文伟行政村-文伟自然村);河庄街道-江东行政村(杭州万灵机械工具有限公司,杭州英才高级中学,杭州大江东产业集聚区英伦森林幼儿园,杭州幸宝健康管理有限公司),河庄街道-文伟行政村(杭州亮光纺织花边有限公司,杭州翱天制衣有限公司),河庄街道-围中行政村(杭州登远纺织有限公司,杭州大江东产业集聚区李江英布厂,杭州杭工量具制造有限公司,杭州悦宁纺织绣品有限公司,杭州赛泰纺织绣品有限公司,中电建路桥集团(杭州)大江东投资发展有限公司),河庄街道-闸北行政村(杭州新围建筑设备有限公司,杭州宝山市政设施有限公司,杭州龙杰实业有限公司,杭州张氏纺织有限公司,杭州市萧山区河庄街道闸北村经济联合社),河庄街道-新围行政村(歌山建设集团有限公司,中国电信股份有限公司杭州萧山区分公司,杭州远东针织服装有限公司,杭州萧山河庄新围农机厂),河庄街道围中行政村4组32,河庄街道闸北村,和庄街道新围村6组20户,河庄街道魏庄村,河庄街道围中行政村,河庄街道围中村一带","startTime":"2020-02-29 20:38:16","stopDate":"2020-03-01 00:30:16","orgNo":"3340120","typeCode":"电网故障停限电","poweroffArea":"110kV启江变:启东0313线-围中0313A线后段","poweroffReason":"高压开关跳闸 原停电结束时间为2020-02-29 23:55:16,因更换开关原因,现变更停电结束时间为2020-03-01 00:30:16","powerTime":"2020-02-29 23:35:43","powerComm":"已送电","subsNo":"","lineNo":"","tgNo":"","tgName":null,"infoStatus":"1","orgName":"国网浙江杭州市钱塘新区供电公司","typeName":null,"infoStatusName":null,"dateDay":null,"orgNos":null,"nowTime":null,"countyName":null,"streetName":null,"villageName":null,"roadName":null,"communityName":null,"tranName":null,"sdLineName":null,"cityCode":"3340120","cityName":"国网浙江杭州市钱塘新区供电公司","provinceCode":null,"stopTime":"2020-03-01 00:30:16","powerType":"全部","powerOffArea":"110kV启江变:启东0313线-围中0313A线后段","powerOffReason":"高压开关跳闸 原停电结束时间为2020-02-29 23:55:16,因更换开关原因,现变更停电结束时间为2020-03-01 00:30:16","powerOffId":"2020022931020106"},{"poweroffId":2020022931020100,"sgpoweroffId":null,"subsName":"","lineName":"10kV明朗A066线","pubTranName":"供销公变,杭州余氏机械铸造有限公司2#,高家公变,杭州老大昌调味品有限责任公司,杭州萧山瓜沥煤制品厂,永联村黄公娄6#变,杭州萧山佳琪化纤厂,永联村黄公娄1#变,老大昌公变,杭州永兴化纤有限公司,明朗新村公变,杭州登泰装饰材料有限公司变压器,萧山节日灯具有限公司,杭州宇龙线业有限公司,永联村黄公娄2#变,杭州萧山供销贸易中心,杭州雪泉家纺绣品厂,杭州余氏机械铸造有限公司1#,杭州萧山双鲸消防机械有限公司,南桥公变,萧山区瓜沥镇第一初级中学,大昌南公变,","scope":"浙江省-杭州市-萧山区-瓜沥镇-芭蕉砚社区(南桥路,陆家台门弄,殿下路,前大台门,南桥北弄,明朗路,章家弄,航坞路,塘头街,新街弄,人民路,殿下路20-1号,马家弄),瓜沥镇-明朗行政村(瓜南路,南桥弄,前高弄,塘新一弄,塘新二弄自然村,塘新二弄,闸南弄,塘新三弄,前高自然村,叶家汇头),瓜沥镇-塘头社区(殿下路,塘新一弄14号,纺织弄,河东路,塘新一弄,塘新二弄,闸南弄,文卫弄,塘新三弄,塘五弄,塘四弄,人民路,陆家汇头,南闸弄,中街,市场北弄,叶家汇头,塘头街,东街,乾源弄,塘头路,陆家台门,河西路,殿下路42号,谢家弄),瓜沥镇-东灵社区(前高弄85号,殿下路,纺织弄,瓜南路),瓜沥镇(永联行政村-黄公娄自然村,航坞社区-商贸路);瓜沥镇-永联行政村(杭州萧山瓜沥煤制品厂,杭州宇龙有限公司,杭州萧山佳琪化纤厂,杭州雪泉家纺绣品厂,杭州登泰实业有限公司,杭州余氏机械铸造有限公司),瓜沥镇-东灵社区(萧山区瓜沥镇第一初级中学,杭州老大昌调味品有限责任公司,杭州萧山节日灯具有限公司),瓜沥镇(芭蕉砚社区-杭州萧山双鲸消防机械有限公司,航坞社区-杭州萧山供销贸易中心,明朗行政村-杭州品美绣艺有限公司)瓜沥镇殿下路119号、瓜沥镇明朗新村A区31号一带","startTime":"2020-02-29 18:50:08","stopDate":"2020-02-29 20:35:08","orgNo":"3340130","typeCode":"电网故障停限电","poweroffArea":"110kV航坞变:明朗A066线-明环A0661开关后段","poweroffReason":"高压柱上断路器短路故障 原停电结束时间为2020-02-29 23:45:08,为减少客户停电时间,加快工作进度,提前送电,现变更停电结束时间为2020-02-29 20:35:08","powerTime":"2020-02-29 19:50:00","powerComm":"已送电","subsNo":"","lineNo":"","tgNo":"","tgName":null,"infoStatus":"1","orgName":"国网浙江杭州市萧山区供电有限公司","typeName":null,"infoStatusName":null,"dateDay":null,"orgNos":null,"nowTime":null,"countyName":null,"streetName":null,"villageName":null,"roadName":null,"communityName":null,"tranName":null,"sdLineName":null,"cityCode":"3340130","cityName":"国网浙江杭州市萧山区供电有限公司","provinceCode":null,"stopTime":"2020-02-29 20:35:08","powerType":"全部","powerOffArea":"110kV航坞变:明朗A066线-明环A0661开关后段","powerOffReason":"高压柱上断路器短路故障 原停电结束时间为2020-02-29 23:45:08,为减少客户停电时间,加快工作进度,提前送电,现变更停电结束时间为2020-02-29 20:35:08","powerOffId":"2020022931020100"}],"pageModel":{"pageNow":517,"totalCount":17789,"totalPage":1779,"tableRows":0,"pageCount":10,"beginCount":5160},"isExperi":"1"}