{"message":"","today":"2020-06-15","seleList":[{"poweroffId":2020022831020075,"sgpoweroffId":null,"subsName":"","lineName":"10kV新春D938线","pubTranName":"农林村4#油车头公变,","scope":"浙江省-杭州市-富阳区-富春街道-拔山行政村-油车头自然村","startTime":"2020-03-14 08:20:00","stopDate":"2020-03-14 17:00:00","orgNo":"3340170","typeCode":"计划停电","poweroffArea":"110kV育才变:新春D938线-农林村4#油车头后段","poweroffReason":"(低压停电信息)青云2020年铁坎村羊家庙等台区改造工程安装横担，拉线，架线6档等工作 原停电开始时间为2020-03-09 08:20:00,因天气原因,现变更停电开始时间为2020-03-14 08:20:00","powerTime":"2020-03-14 16:50:54","powerComm":"已送电","subsNo":"","lineNo":"","tgNo":"","tgName":null,"infoStatus":"1","orgName":"国网浙江杭州市富阳区供电公司","typeName":null,"infoStatusName":null,"dateDay":null,"orgNos":null,"nowTime":null,"countyName":null,"streetName":null,"villageName":null,"roadName":null,"communityName":null,"tranName":null,"sdLineName":null,"cityCode":"3340170","cityName":"国网浙江杭州市富阳区供电公司","provinceCode":null,"stopTime":"2020-03-14 17:00:00","powerType":"全部","powerOffArea":"110kV育才变:新春D938线-农林村4#油车头后段","powerOffReason":"(低压停电信息)青云2020年铁坎村羊家庙等台区改造工程安装横担，拉线，架线6档等工作 原停电开始时间为2020-03-09 08:20:00,因天气原因,现变更停电开始时间为2020-03-14 08:20:00","powerOffId":"2020022831020075"},{"poweroffId":2020022831020074,"sgpoweroffId":null,"subsName":"","lineName":"10kV新春D938线","pubTranName":"农林村12号油车头公变,","scope":"浙江省-杭州市-富阳区-富春街道-拔山行政村(拔山自然村,油车头自然村)","startTime":"2020-03-14 08:20:00","stopDate":"2020-03-14 17:00:00","orgNo":"3340170","typeCode":"计划停电","poweroffArea":"110kV育才变:新春D938线-农林村12号油车头后段","poweroffReason":"(低压停电信息)青云2020年铁坎村羊家庙等台区改造工程配合停电安装拉线等工作 原停电开始时间为2020-03-09 08:20:00,因天气原因,现变更停电开始时间为2020-03-14 08:20:00","powerTime":"2020-03-14 16:50:22","powerComm":"已送电","subsNo":"","lineNo":"","tgNo":"","tgName":null,"infoStatus":"1","orgName":"国网浙江杭州市富阳区供电公司","typeName":null,"infoStatusName":null,"dateDay":null,"orgNos":null,"nowTime":null,"countyName":null,"streetName":null,"villageName":null,"roadName":null,"communityName":null,"tranName":null,"sdLineName":null,"cityCode":"3340170","cityName":"国网浙江杭州市富阳区供电公司","provinceCode":null,"stopTime":"2020-03-14 17:00:00","powerType":"全部","powerOffArea":"110kV育才变:新春D938线-农林村12号油车头后段","powerOffReason":"(低压停电信息)青云2020年铁坎村羊家庙等台区改造工程配合停电安装拉线等工作 原停电开始时间为2020-03-09 08:20:00,因天气原因,现变更停电开始时间为2020-03-14 08:20:00","powerOffId":"2020022831020074"},{"poweroffId":2020022831020073,"sgpoweroffId":null,"subsName":"","lineName":"10kV青莲G144线","pubTranName":"杭州亨德莱家具有限公司,1#变压器,","scope":"浙江省杭州市余杭区塘栖镇：杭州杭忠塑胶有限公司、杭州亨德莱家具有限公司一带","startTime":"2020-03-12 08:20:00","stopDate":"2020-03-12 17:20:00","orgNo":"3340140","typeCode":"计划停电","poweroffArea":"35kV南山变:青莲G144线伟星纺织分线","poweroffReason":"杭州超峰布艺有限公司厂房建设青莲G144线迁改工程：青莲G144线伟星纺织分线线路移位，1#杆令克开关更换真空开关工作","powerTime":"2020-03-12 14:26:43","powerComm":"已送电","subsNo":"","lineNo":"","tgNo":"","tgName":null,"infoStatus":"1","orgName":"国网浙江杭州市余杭区供电有限公司","typeName":null,"infoStatusName":null,"dateDay":null,"orgNos":null,"nowTime":null,"countyName":null,"streetName":null,"villageName":null,"roadName":null,"communityName":null,"tranName":null,"sdLineName":null,"cityCode":"3340140","cityName":"国网浙江杭州市余杭区供电有限公司","provinceCode":null,"stopTime":"2020-03-12 17:20:00","powerType":"全部","powerOffArea":"35kV南山变:青莲G144线伟星纺织分线","powerOffReason":"杭州超峰布艺有限公司厂房建设青莲G144线迁改工程：青莲G144线伟星纺织分线线路移位，1#杆令克开关更换真空开关工作","powerOffId":"2020022831020073"},{"poweroffId":2020022831020072,"sgpoweroffId":null,"subsName":"","lineName":"10kV项家D512线","pubTranName":"杏梅坞村1#马家坞公变,","scope":"浙江省杭州市富阳区常安镇杏梅坞村一带","startTime":"2020-03-09 09:00:00","stopDate":"2020-03-09 16:10:00","orgNo":"3340170","typeCode":"计划停电","poweroffArea":"110kV常安变:项家D512线-杏梅坞村1#马家坞公变低压开关后段","poweroffReason":"(低压停电信息)人工挖洞、拔杆、立杆（挖机配合）线路拆除、接户线改接等工作","powerTime":"2020-03-09 15:31:22","powerComm":"已送电","subsNo":"","lineNo":"","tgNo":"","tgName":null,"infoStatus":"1","orgName":"国网浙江杭州市富阳区供电公司","typeName":null,"infoStatusName":null,"dateDay":null,"orgNos":null,"nowTime":null,"countyName":null,"streetName":null,"villageName":null,"roadName":null,"communityName":null,"tranName":null,"sdLineName":null,"cityCode":"3340170","cityName":"国网浙江杭州市富阳区供电公司","provinceCode":null,"stopTime":"2020-03-09 16:10:00","powerType":"全部","powerOffArea":"110kV常安变:项家D512线-杏梅坞村1#马家坞公变低压开关后段","powerOffReason":"(低压停电信息)人工挖洞、拔杆、立杆（挖机配合）线路拆除、接户线改接等工作","powerOffId":"2020022831020072"},{"poweroffId":2020022831020059,"sgpoweroffId":null,"subsName":"","lineName":"10kV教一8647线","pubTranName":"海宿(二),","scope":"浙江省-杭州市-西湖区-翠苑街道-古荡湾社区-文三路,西溪街道(文教社区-文三路,花园亭社区-文三路)","startTime":"2020-02-28 10:07:55","stopDate":"2020-02-28 16:07:55","orgNo":"3340101","typeCode":"电网故障停限电","poweroffArea":"220kV庆丰变:教一8647线-海宿(二)后段","poweroffReason":"高压开关跳闸","powerTime":"2020-02-28 15:16:26","powerComm":"已送电","subsNo":"","lineNo":"","tgNo":"","tgName":null,"infoStatus":"1","orgName":"浙江杭州电力客户服务中心","typeName":null,"infoStatusName":null,"dateDay":null,"orgNos":null,"nowTime":null,"countyName":null,"streetName":null,"villageName":null,"roadName":null,"communityName":null,"tranName":null,"sdLineName":null,"cityCode":"3340101","cityName":"浙江杭州电力客户服务中心","provinceCode":null,"stopTime":"2020-02-28 16:07:55","powerType":"全部","powerOffArea":"220kV庆丰变:教一8647线-海宿(二)后段","powerOffReason":"高压开关跳闸","powerOffId":"2020022831020059"},{"poweroffId":2020022831020058,"sgpoweroffId":null,"subsName":"","lineName":"10kV新春D938线","pubTranName":"春建村蟠山垅3号公变,","scope":"浙江省-杭州市-富阳区-春建乡-春建行政村(下高自然村,蟠山垄自然村)","startTime":"2020-03-08 08:30:00","stopDate":"2020-03-08 17:00:00","orgNo":"3340170","typeCode":"计划停电","poweroffArea":"110kV育才变:新春D938线-春建村蟠山垅3号后段","poweroffReason":"(低压停电信息)春建村蟠山垅3号公变1线、2线低压割接至新上公变","powerTime":"2020-03-08 16:44:28","powerComm":"已送电","subsNo":"","lineNo":"","tgNo":"","tgName":null,"infoStatus":"1","orgName":"国网浙江杭州市富阳区供电公司","typeName":null,"infoStatusName":null,"dateDay":null,"orgNos":null,"nowTime":null,"countyName":null,"streetName":null,"villageName":null,"roadName":null,"communityName":null,"tranName":null,"sdLineName":null,"cityCode":"3340170","cityName":"国网浙江杭州市富阳区供电公司","provinceCode":null,"stopTime":"2020-03-08 17:00:00","powerType":"全部","powerOffArea":"110kV育才变:新春D938线-春建村蟠山垅3号后段","powerOffReason":"(低压停电信息)春建村蟠山垅3号公变1线、2线低压割接至新上公变","powerOffId":"2020022831020058"},{"poweroffId":2020022831020057,"sgpoweroffId":null,"subsName":"","lineName":"10kV教一8647线","pubTranName":"教宿变,","scope":"浙江省-杭州市-西湖区-西溪街道-求智社区-下宁巷","startTime":"2020-02-28 10:03:33","stopDate":"2020-02-28 16:03:33","orgNo":"3340101","typeCode":"电网故障停限电","poweroffArea":"220kV庆丰变:教一8647线-教宿分线后段","poweroffReason":"高压开关跳闸","powerTime":"2020-02-28 15:15:04","powerComm":"已送电","subsNo":"","lineNo":"","tgNo":"","tgName":null,"infoStatus":"1","orgName":"浙江杭州电力客户服务中心","typeName":null,"infoStatusName":null,"dateDay":null,"orgNos":null,"nowTime":null,"countyName":null,"streetName":null,"villageName":null,"roadName":null,"communityName":null,"tranName":null,"sdLineName":null,"cityCode":"3340101","cityName":"浙江杭州电力客户服务中心","provinceCode":null,"stopTime":"2020-02-28 16:03:33","powerType":"全部","powerOffArea":"220kV庆丰变:教一8647线-教宿分线后段","powerOffReason":"高压开关跳闸","powerOffId":"2020022831020057"},{"poweroffId":2020022831020054,"sgpoweroffId":null,"subsName":"","lineName":"10kV农校H413线","pubTranName":"良渚村沈家门公变,","scope":"浙江省-杭州市-余杭区-良渚街道-良渚行政村(良渚自然村,疏港公路)","startTime":"2020-02-28 09:44:00","stopDate":"2020-02-28 11:44:00","orgNo":"3340140","typeCode":"电网故障停限电","poweroffArea":"35kV良渚变:农校H413线-良渚村沈家门公变后段","poweroffReason":"高压开关跳闸","powerTime":"2020-02-28 10:53:00","powerComm":"已送电","subsNo":"","lineNo":"","tgNo":"","tgName":null,"infoStatus":"1","orgName":"国网浙江杭州市余杭区供电有限公司","typeName":null,"infoStatusName":null,"dateDay":null,"orgNos":null,"nowTime":null,"countyName":null,"streetName":null,"villageName":null,"roadName":null,"communityName":null,"tranName":null,"sdLineName":null,"cityCode":"3340140","cityName":"国网浙江杭州市余杭区供电有限公司","provinceCode":null,"stopTime":"2020-02-28 11:44:00","powerType":"全部","powerOffArea":"35kV良渚变:农校H413线-良渚村沈家门公变后段","powerOffReason":"高压开关跳闸","powerOffId":"2020022831020054"},{"poweroffId":2020022831020027,"sgpoweroffId":null,"subsName":"","lineName":"10kV立太H431线","pubTranName":"中青创基建变8,中青创基建变5,中交第二航务工程局有限公司余杭分公司,中青创基建变6,路灯变,","scope":"浙江省-杭州市-余杭区-良渚街道-杜甫行政村-中交第二航务工程局有限公司余杭分公司,良渚街道-良渚行政村(中青创文化发展有限公司,杭州市余杭区人民政府良渚街道办事处)","startTime":"2020-02-28 08:42:20","stopDate":"2020-02-28 11:10:00","orgNo":"3340140","typeCode":"电网故障停限电","poweroffArea":"110kV勾庄变:立太H431线-中青环网站分线后段","poweroffReason":"高压开关跳闸 原停电结束时间为2020-02-28 10:42:20,因现场情况复杂原因,现变更停电结束时间为2020-02-28 11:10:00","powerTime":"2020-02-28 10:55:00","powerComm":"已送电","subsNo":"","lineNo":"","tgNo":"","tgName":null,"infoStatus":"1","orgName":"国网浙江杭州市余杭区供电有限公司","typeName":null,"infoStatusName":null,"dateDay":null,"orgNos":null,"nowTime":null,"countyName":null,"streetName":null,"villageName":null,"roadName":null,"communityName":null,"tranName":null,"sdLineName":null,"cityCode":"3340140","cityName":"国网浙江杭州市余杭区供电有限公司","provinceCode":null,"stopTime":"2020-02-28 11:10:00","powerType":"全部","powerOffArea":"110kV勾庄变:立太H431线-中青环网站分线后段","powerOffReason":"高压开关跳闸 原停电结束时间为2020-02-28 10:42:20,因现场情况复杂原因,现变更停电结束时间为2020-02-28 11:10:00","powerOffId":"2020022831020027"},{"poweroffId":2020022831020021,"sgpoweroffId":null,"subsName":"","lineName":"10kV家同Y281线","pubTranName":"李家村幼儿园台区,","scope":"浙江省-杭州市-建德市-李家镇-李家行政村-幼儿园自然村一带用户","startTime":"2020-02-28 08:05:00","stopDate":"2020-02-28 10:00:00","orgNo":"3340180","typeCode":"电网故障停限电","poweroffArea":"35kV李家变:家同Y281线-李家村幼儿园台区后段","poweroffReason":"(低压停电信息)低压开关跳闸 变更停电地理区域","powerTime":"2020-02-28 09:21:49","powerComm":"已送电","subsNo":"","lineNo":"","tgNo":"","tgName":null,"infoStatus":"1","orgName":"国网浙江建德市供电有限公司","typeName":null,"infoStatusName":null,"dateDay":null,"orgNos":null,"nowTime":null,"countyName":null,"streetName":null,"villageName":null,"roadName":null,"communityName":null,"tranName":null,"sdLineName":null,"cityCode":"3340180","cityName":"国网浙江建德市供电有限公司","provinceCode":null,"stopTime":"2020-02-28 10:00:00","powerType":"全部","powerOffArea":"35kV李家变:家同Y281线-李家村幼儿园台区后段","powerOffReason":"(低压停电信息)低压开关跳闸 变更停电地理区域","powerOffId":"2020022831020021"}],"pageModel":{"pageNow":521,"totalCount":17789,"totalPage":1779,"tableRows":0,"pageCount":10,"beginCount":5200},"isExperi":"1"}