{"message":"","today":"2020-06-15","seleList":[{"poweroffId":2020022631020040,"sgpoweroffId":null,"subsName":"","lineName":"10kV下沙976线","pubTranName":"东升村5#变,前峰安置区1#变,新峰村2#变,前峰村6#变,前进街道二配变,前峰村11#变,前峰村7#变,前峰村12#变,前峰村2#变,前峰村1#变,前峰村9#变,前峰村13#变,义丈三垦,衙前垦种（一）,前进街道六配变,前峰村8#变,林杰化工厂,前峰安置小区2#变,长征村5#变,","scope":"浙江省-杭州市-萧山区-前进街道-前进街道社区(前进自然村,前进街道),前进街道-临江行政村(长征自然村,东升自然村,新峰自然村),新湾街道(共建行政村-梅林自然村,三新行政村-新湾自然村),前进街道-前峰行政村-前峰自然村,临江街道-萧东行政村-东梅自然村;浙江省-杭州市-萧山区-前进街道-前峰行政村-前进义丈三垦种,前进街道-前进工业园区(宏图衙前三垦种,杭州林杰化工有限公司),前进街道临江村新峰11组,前进街道临江村新丰11组拆迁区域,前进街道前峰村三组一带","startTime":"2020-02-26 09:18:22","stopDate":"2020-02-26 12:20:27","orgNo":"3340120","typeCode":"电网故障停限电","poweroffArea":"110kV前进变:下沙976线-三号闸分线01号开关后段","poweroffReason":"高压开关跳闸 原停电结束时间为2020-02-26 12:30:27,为减少客户停电时间,加快工作进度,提前送电,现变更停电结束时间为2020-02-26 12:20:27","powerTime":"2020-02-26 11:36:59","powerComm":"已送电","subsNo":"","lineNo":"","tgNo":"","tgName":null,"infoStatus":"1","orgName":"国网浙江杭州市钱塘新区供电公司","typeName":null,"infoStatusName":null,"dateDay":null,"orgNos":null,"nowTime":null,"countyName":null,"streetName":null,"villageName":null,"roadName":null,"communityName":null,"tranName":null,"sdLineName":null,"cityCode":"3340120","cityName":"国网浙江杭州市钱塘新区供电公司","provinceCode":null,"stopTime":"2020-02-26 12:20:27","powerType":"全部","powerOffArea":"110kV前进变:下沙976线-三号闸分线01号开关后段","powerOffReason":"高压开关跳闸 原停电结束时间为2020-02-26 12:30:27,为减少客户停电时间,加快工作进度,提前送电,现变更停电结束时间为2020-02-26 12:20:27","powerOffId":"2020022631020040"},{"poweroffId":2020022631020033,"sgpoweroffId":null,"subsName":"","lineName":"10kV鸿新C920线","pubTranName":"杭州萧山区排水管理处,变压器,同兴村9#变,同兴村24#变,盛中村24#变,华丽染整,天恩金属,新魁液压4#,耀帛实业,许圣福,康帛羽绒变压器2#,杭州萧山新盛五金机械厂,环毗建筑,宝兴钢管,杭州星宇汽车轴承有限公司,盛中村15#变,中国移动6#,业邦建设,杭州盛润金属回收有限公司,杭州萧山超佳金属构件有限公司,机场公路高架7号变配电变压器,机场公路高架8号变配电变压器,盛中村20#变,新魁液压2#,中铁三局集团变压器1#,路灯变,陆顺刺绣,杰美装饰,中国移动5#,同兴村29#变,杭州萧山广宇建筑工程有限公司,杭州萧山许圣福实业有限公司,华丽染整,新魁液压3#,新盛五金机械厂,机场公路道路17号变配电变压器,汇达绿地,康帛羽绒变压器,机场公路道路18号变配电变压器,盛中村11#变,杭州正良橡塑制品有限公司,新街镇人民政府,杭州萧山清和商务酒店计,","scope":"浙江省-杭州市-萧山区-新街镇-新街街道(盛中行政村-盛中自然村,同兴行政村-同兴自然村);浙江省-杭州市-萧山区-新街街道-长山头行政村-杭州业邦建设工程有限公司,经济技术开发区-市北社区(杭州市萧山区新街镇人民政府,杭州萧山清和商务酒店),新街街道-新盛行政村(杭州天恩金属制品有限公司,杭州萧山广宇建筑工程有限公司,浙江杰美新能源有限公司,杭州环玭建筑垃圾回收再生利用有限公司,杭州华丽染整有限公司,杭州萧山许圣福实业有限公司,杭州萧山新盛五金机械厂,杭州萧山超佳金属构件有限公司),新街街道-盛中行政村(杭州萧山国际机场高速公路建设开发有限公司,杭州市萧山区市政绿化养护保障中心,杭州盛润金属回收有限公司,杭州正良橡塑制品有限公司,杭州萧山污水处理有限公司,杭州鸿志实业有限公司,杭州星宇汽车轴承有限公司),新街街道-盛东行政村(杭州萧山国际机场高速公路建设开发有限公司,杭州市萧山区市政绿化养护保障中心,中铁三局集团有限公司),新街街道-同兴行政村(浙江阿凡特精密设备制造有限公司,杭州陆顺刺绣有限公司,杭州耀帛实业有限公司,杭州康帛羽绒制品有限公司,杭州宝兴钢管租赁有限公司,杭州汇达绿地有限公司)，浙江省杭州市萧山区新街街道同兴行政村西，浙江省杭州市萧山区新街街道同心村（红星C920线）等一带","startTime":"2020-02-26 09:15:43","stopDate":"2020-02-26 11:20:43","orgNo":"3340130","typeCode":"电网故障停限电","poweroffArea":"110kV鸿达变:鸿新C920线","poweroffReason":"高压柱上断路器短路故障 原停电结束时间为2020-02-26 13:30:43,为减少客户停电时间,加快工作进度,提前送电,现变更停电结束时间为2020-02-26 11:20:43","powerTime":"2020-02-26 10:30:08","powerComm":"已送电","subsNo":"","lineNo":"","tgNo":"","tgName":null,"infoStatus":"1","orgName":"国网浙江杭州市萧山区供电有限公司","typeName":null,"infoStatusName":null,"dateDay":null,"orgNos":null,"nowTime":null,"countyName":null,"streetName":null,"villageName":null,"roadName":null,"communityName":null,"tranName":null,"sdLineName":null,"cityCode":"3340130","cityName":"国网浙江杭州市萧山区供电有限公司","provinceCode":null,"stopTime":"2020-02-26 11:20:43","powerType":"全部","powerOffArea":"110kV鸿达变:鸿新C920线","powerOffReason":"高压柱上断路器短路故障 原停电结束时间为2020-02-26 13:30:43,为减少客户停电时间,加快工作进度,提前送电,现变更停电结束时间为2020-02-26 11:20:43","powerOffId":"2020022631020033"},{"poweroffId":2020022631020032,"sgpoweroffId":null,"subsName":"","lineName":"10kV姚家T243线","pubTranName":"沈家村3号公变,杭州亚邦新材料有限公司,胡家坞村1号公变,横山埠村1号公变,水碓里村1号公变,会山村2号公变,会山村1号公变,五联马浦机埠（虚拟）,2#,桐庐益群汽车配件有限公司,姚家村2号公变,桐庐华博混凝土有限公司,横山排涝站,桐庐伟业锁具有限公司,李家坞村1号公变,桐庐永南铁合金厂,中国石化销售有限公司浙江石油分公司,会山排涝变,杭州永增镍业有限公司,桐庐县江南镇人民政府(路灯),横山埠村2号公变,小马浦排涝站,杭州久满固建筑材料有限公司,杭州亚邦新材料有限公司（宿舍）,姚家村1号公变,沈家村1号公变,桐庐永南铁合金厂,大马浦排涝站（虚拟）,会山村4号公变,会山村3号公变,桐庐长宏沙石加工厂,会山5号公变,杭州森乐实业有限公司,横山埠村4号公变,桐庐江南镇小型生猪屠宰有限公司,姚家坞村1号公变,横山埠村3号公变,塘家坞村1号公变,杭州凯昌造纸机械有限公司,杭州亚邦新材料有限公司,后龙里村1号公变,","scope":"浙江省-杭州市-桐庐县-江南镇-石阜行政村(水碓里自然村,石阜自然村),江南镇-锦江行政村(会山自然村,五联姚家坞自然村,五联后弄里自然村,五联唐家坞自然村,五联胡家坞自然村,五联李家坞自然村),江南镇(金茂行政村-姚家自然村,窄溪行政村-沈家自然村,横山埠行政村-横山埠自然村);江南镇(横山排涝站,杭州永增镍业有限公司,杭州森乐实业有限公司,桐庐永南铁合金厂,杭州亚邦新材料有限公司（宿舍）,桐庐华博混凝土有限公司,小马浦排涝站,杭州凯昌造纸机械有限公司,桐庐江南镇小型生猪屠宰有限公司,会山马浦抽水,桐庐县江南镇宏城砂石加工厂,桐庐伟业锁具有限公司,桐庐县江南镇人民政府(路灯),桐庐益群汽车配件有限公司,五联马浦机埠,大马浦排涝站,中国石化销售股份有限公司浙江石油分公司,杭州久满固建筑材料有限公司,杭州亚邦新材料有限公司)","startTime":"2020-02-26 09:07:00","stopDate":"2020-02-26 13:59:00","orgNo":"3340150","typeCode":"电网故障停限电","poweroffArea":"110kV石阜变:姚家T243线姚家T2431智能隔离开关2后段","poweroffReason":"(低压停电信息)低压开关跳闸","powerTime":"2020-02-26 13:54:42","powerComm":"已送电","subsNo":"","lineNo":"","tgNo":"","tgName":null,"infoStatus":"1","orgName":"国网浙江桐庐县供电公司","typeName":null,"infoStatusName":null,"dateDay":null,"orgNos":null,"nowTime":null,"countyName":null,"streetName":null,"villageName":null,"roadName":null,"communityName":null,"tranName":null,"sdLineName":null,"cityCode":"3340150","cityName":"国网浙江桐庐县供电公司","provinceCode":null,"stopTime":"2020-02-26 13:59:00","powerType":"全部","powerOffArea":"110kV石阜变:姚家T243线姚家T2431智能隔离开关2后段","powerOffReason":"(低压停电信息)低压开关跳闸","powerOffId":"2020022631020032"},{"poweroffId":2020022631020030,"sgpoweroffId":null,"subsName":"","lineName":"10kV姚家T243线","pubTranName":"会山村3号公变,","scope":"浙江省-杭州市-桐庐县-江南镇-锦江行政村-会山自然村","startTime":"2020-02-26 09:02:00","stopDate":"2020-02-26 11:02:00","orgNo":"3340150","typeCode":"电网故障停限电","poweroffArea":"110kV石阜变:姚家T243线会山村3号公变10kV跌落式熔断器配变","poweroffReason":"(低压停电信息)低压开关跳闸","powerTime":"2020-02-26 10:53:09","powerComm":"已送电","subsNo":"","lineNo":"","tgNo":"","tgName":null,"infoStatus":"1","orgName":"国网浙江桐庐县供电公司","typeName":null,"infoStatusName":null,"dateDay":null,"orgNos":null,"nowTime":null,"countyName":null,"streetName":null,"villageName":null,"roadName":null,"communityName":null,"tranName":null,"sdLineName":null,"cityCode":"3340150","cityName":"国网浙江桐庐县供电公司","provinceCode":null,"stopTime":"2020-02-26 11:02:00","powerType":"全部","powerOffArea":"110kV石阜变:姚家T243线会山村3号公变10kV跌落式熔断器配变","powerOffReason":"(低压停电信息)低压开关跳闸","powerOffId":"2020022631020030"},{"poweroffId":2020022631020029,"sgpoweroffId":null,"subsName":"","lineName":"10kV姚家T243线","pubTranName":"会山村2号公变,","scope":"浙江省-杭州市-桐庐县-江南镇-锦江行政村-会山自然村","startTime":"2020-02-26 09:02:00","stopDate":"2020-02-26 11:02:00","orgNo":"3340150","typeCode":"电网故障停限电","poweroffArea":"110kV石阜变:姚家T243线会山村2号公变10kV跌落式熔断器配变","poweroffReason":"(低压停电信息)低压开关跳闸","powerTime":"2020-02-26 10:52:57","powerComm":"已送电","subsNo":"","lineNo":"","tgNo":"","tgName":null,"infoStatus":"1","orgName":"国网浙江桐庐县供电公司","typeName":null,"infoStatusName":null,"dateDay":null,"orgNos":null,"nowTime":null,"countyName":null,"streetName":null,"villageName":null,"roadName":null,"communityName":null,"tranName":null,"sdLineName":null,"cityCode":"3340150","cityName":"国网浙江桐庐县供电公司","provinceCode":null,"stopTime":"2020-02-26 11:02:00","powerType":"全部","powerOffArea":"110kV石阜变:姚家T243线会山村2号公变10kV跌落式熔断器配变","powerOffReason":"(低压停电信息)低压开关跳闸","powerOffId":"2020022631020029"},{"poweroffId":2020022631020026,"sgpoweroffId":null,"subsName":"","lineName":"10kV庆丰H588线","pubTranName":"东塘河村中家塘2号公变,东塘河村曹家桥2号公变,行宫塘村洪行桥2号公变,路灯变1#,行公堂路路灯变,杭州市余杭区勾庄中心幼儿园,东塘河村孟家湾公变,东塘河村曹家桥公变,东塘河村曹家港公变,百家香卤味店,东塘河村孟家湾2号公变,箱变,东塘河村曹家桥农居点2号公变,行宫塘村解放桥南公变,东塘河村陆家斗公变,东塘河村中家塘公变,东塘河村孟家湾3号公变,行宫塘村解放桥公变,东塘河村曹家桥农居点公变,行宫塘村平桥头公变,行宫塘村陈国潭公变,","scope":"浙江省-杭州市-余杭区-良渚街道-勾庄行政村-勾庄街道,良渚街道-行宫塘行政村(陈国潭自然村,上坝儿自然村),良渚街道-东塘河行政村(孟家湾自然村,吴家桥自然村,行盛路);良渚街道(杭州良渚新城管理委员会,杭州市余杭区勾庄中心幼儿园)","startTime":"2020-02-26 08:59:00","stopDate":"2020-02-26 10:59:00","orgNo":"3340140","typeCode":"电网故障停限电","poweroffArea":"110kV南庄变:庆丰H588线徐家坝南分线开关后段","poweroffReason":"高压开关跳闸","powerTime":"2020-02-26 10:20:22","powerComm":"已送电","subsNo":"","lineNo":"","tgNo":"","tgName":null,"infoStatus":"1","orgName":"国网浙江杭州市余杭区供电有限公司","typeName":null,"infoStatusName":null,"dateDay":null,"orgNos":null,"nowTime":null,"countyName":null,"streetName":null,"villageName":null,"roadName":null,"communityName":null,"tranName":null,"sdLineName":null,"cityCode":"3340140","cityName":"国网浙江杭州市余杭区供电有限公司","provinceCode":null,"stopTime":"2020-02-26 10:59:00","powerType":"全部","powerOffArea":"110kV南庄变:庆丰H588线徐家坝南分线开关后段","powerOffReason":"高压开关跳闸","powerOffId":"2020022631020026"},{"poweroffId":2020022631020022,"sgpoweroffId":null,"subsName":"","lineName":"10kV墅园H793线","pubTranName":"舒葛路灯,光大建设基建变,杭州未来科技城建设有限公司,中南工棚,杭州睿成房地产开发有限公司,","scope":"浙江省-杭州市-余杭区-仓前街道(杭州未来科技城建设有限公司,杭州睿成房地产开发有限公司,浙江光大建设集团有限公司,杭州中南御锦置业有限公司)","startTime":"2020-02-26 08:20:00","stopDate":"2020-02-26 11:20:00","orgNo":"3340140","typeCode":"电网故障停限电","poweroffArea":"110kV仓前变:墅园H793线汀巷开关站鼎旺环境分线后段","poweroffReason":"高压开关跳闸 原停电结束时间为2020-02-26 10:20:00,因施工复杂原因,现变更停电结束时间为2020-02-26 11:20:00","powerTime":"2020-02-26 10:21:00","powerComm":"已送电","subsNo":"","lineNo":"","tgNo":"","tgName":null,"infoStatus":"1","orgName":"国网浙江杭州市余杭区供电有限公司","typeName":null,"infoStatusName":null,"dateDay":null,"orgNos":null,"nowTime":null,"countyName":null,"streetName":null,"villageName":null,"roadName":null,"communityName":null,"tranName":null,"sdLineName":null,"cityCode":"3340140","cityName":"国网浙江杭州市余杭区供电有限公司","provinceCode":null,"stopTime":"2020-02-26 11:20:00","powerType":"全部","powerOffArea":"110kV仓前变:墅园H793线汀巷开关站鼎旺环境分线后段","powerOffReason":"高压开关跳闸 原停电结束时间为2020-02-26 10:20:00,因施工复杂原因,现变更停电结束时间为2020-02-26 11:20:00","powerOffId":"2020022631020022"},{"poweroffId":2020022531020090,"sgpoweroffId":null,"subsName":"","lineName":"10kV良加H362线","pubTranName":"东莲村木桥头公变,","scope":"浙江省-杭州市-余杭区-良渚街道-东莲村木桥头一带","startTime":"2020-03-05 08:30:00","stopDate":"2020-03-05 13:00:00","orgNo":"3340140","typeCode":"计划停电","poweroffArea":"110kV学里变:良加H362线-东莲村木桥头公变","poweroffReason":"(低压停电信息)良加H362线东莲村木桥头公变线路线路消缺","powerTime":"2020-03-05 12:23:28","powerComm":"已送电","subsNo":"","lineNo":"","tgNo":"","tgName":null,"infoStatus":"1","orgName":"国网浙江杭州市余杭区供电有限公司","typeName":null,"infoStatusName":null,"dateDay":null,"orgNos":null,"nowTime":null,"countyName":null,"streetName":null,"villageName":null,"roadName":null,"communityName":null,"tranName":null,"sdLineName":null,"cityCode":"3340140","cityName":"国网浙江杭州市余杭区供电有限公司","provinceCode":null,"stopTime":"2020-03-05 13:00:00","powerType":"全部","powerOffArea":"110kV学里变:良加H362线-东莲村木桥头公变","powerOffReason":"(低压停电信息)良加H362线东莲村木桥头公变线路线路消缺","powerOffId":"2020022531020090"},{"poweroffId":2020022531020072,"sgpoweroffId":null,"subsName":"","lineName":"10kV新春D938线","pubTranName":"杭州富阳金盾塑业有限公司2#变,杭州富阳金盾塑业有限公司1#变,富阳市富春街道前进包装纸制品厂,杭州时空涂料有限公司,","scope":"浙江省-杭州市-富阳区-富春街道(杭州富阳区富春街道前进包装纸制品厂,杭州时空涂料有限公司,杭州富阳金盾塑业有限公司)","startTime":"2020-02-25 14:47:07","stopDate":"2020-02-25 20:41:00","orgNo":"3340170","typeCode":"电网故障停限电","poweroffArea":"110kV育才变:新春D938线金盾支线开关后段","poweroffReason":"高压开关跳闸 原停电结束时间为2020-02-25 16:41:00,因施工困难原因,现变更停电结束时间为2020-02-25 20:41:00","powerTime":"2020-02-25 19:03:50","powerComm":"已送电，作业人员技术较好","subsNo":"","lineNo":"","tgNo":"","tgName":null,"infoStatus":"1","orgName":"国网浙江杭州市富阳区供电公司","typeName":null,"infoStatusName":null,"dateDay":null,"orgNos":null,"nowTime":null,"countyName":null,"streetName":null,"villageName":null,"roadName":null,"communityName":null,"tranName":null,"sdLineName":null,"cityCode":"3340170","cityName":"国网浙江杭州市富阳区供电公司","provinceCode":null,"stopTime":"2020-02-25 20:41:00","powerType":"全部","powerOffArea":"110kV育才变:新春D938线金盾支线开关后段","powerOffReason":"高压开关跳闸 原停电结束时间为2020-02-25 16:41:00,因施工困难原因,现变更停电结束时间为2020-02-25 20:41:00","powerOffId":"2020022531020072"},{"poweroffId":2020022531020071,"sgpoweroffId":null,"subsName":"","lineName":"10kV新春D938线","pubTranName":"农林村14号新建桥公变,","scope":"浙江省-杭州市-富阳区-富春街道-拔山行政村(温州厂下自然村,荒地上自然村,拔山自然村,温州厂上自然村,爽坞里自然村)","startTime":"2020-02-25 14:41:00","stopDate":"2020-02-25 20:41:00","orgNo":"3340170","typeCode":"电网故障停限电","poweroffArea":"110kV育才变:新春D938线农林村14号新建桥公变配变","poweroffReason":"高压开关跳闸 原停电结束时间为2020-02-25 16:41:00,因施工困难原因,现变更停电结束时间为2020-02-25 20:41:00","powerTime":"2020-02-25 19:04:25","powerComm":"已送电，作业人员技术较好","subsNo":"","lineNo":"","tgNo":"","tgName":null,"infoStatus":"1","orgName":"国网浙江杭州市富阳区供电公司","typeName":null,"infoStatusName":null,"dateDay":null,"orgNos":null,"nowTime":null,"countyName":null,"streetName":null,"villageName":null,"roadName":null,"communityName":null,"tranName":null,"sdLineName":null,"cityCode":"3340170","cityName":"国网浙江杭州市富阳区供电公司","provinceCode":null,"stopTime":"2020-02-25 20:41:00","powerType":"全部","powerOffArea":"110kV育才变:新春D938线农林村14号新建桥公变配变","powerOffReason":"高压开关跳闸 原停电结束时间为2020-02-25 16:41:00,因施工困难原因,现变更停电结束时间为2020-02-25 20:41:00","powerOffId":"2020022531020071"}],"pageModel":{"pageNow":524,"totalCount":17789,"totalPage":1779,"tableRows":0,"pageCount":10,"beginCount":5230},"isExperi":"1"}