{"message":"","today":"2020-06-15","seleList":[{"poweroffId":2020022531020058,"sgpoweroffId":null,"subsName":"","lineName":"10kV昌界D542线","pubTranName":"上山村上山6号大坞口公变,","scope":"浙江省-杭州市-富阳区-新登镇-上山行政村-上山自然村","startTime":"2020-02-25 13:57:53","stopDate":"2020-02-25 15:55:53","orgNo":"3340170","typeCode":"电网故障停限电","poweroffArea":"110kV清泉变:昌界D542线-上山村上山6号大坞口公变后段","poweroffReason":"高压开关跳闸","powerTime":"2020-02-25 14:56:46","powerComm":"已送电","subsNo":"","lineNo":"","tgNo":"","tgName":null,"infoStatus":"1","orgName":"国网浙江杭州市富阳区供电公司","typeName":null,"infoStatusName":null,"dateDay":null,"orgNos":null,"nowTime":null,"countyName":null,"streetName":null,"villageName":null,"roadName":null,"communityName":null,"tranName":null,"sdLineName":null,"cityCode":"3340170","cityName":"国网浙江杭州市富阳区供电公司","provinceCode":null,"stopTime":"2020-02-25 15:55:53","powerType":"全部","powerOffArea":"110kV清泉变:昌界D542线-上山村上山6号大坞口公变后段","powerOffReason":"高压开关跳闸","powerOffId":"2020022531020058"},{"poweroffId":2020022531020056,"sgpoweroffId":null,"subsName":"","lineName":"10kV大同C235线","pubTranName":"大同一13#变,萧山区楼塔镇大同中心小学,杭州众力纺织品有限公司,大同一9#变,大同二13#变,大同二5#变,杭州三原纺织工艺品有限公司,大同一7#变,大同二2#变,大同一6#变,大同一4#变,大同二7#变,大同一1#变,文才能源,大同一10#变,大同一14#变,大同二3#变,大同一5#变,大同一11#变,万庆塑料,大同二8#变,大同二1#变,杭州众力纺织品有限公司,大同一8#变,大同一3#变,大同一2#变,大同二4#变,","scope":"浙江省-杭州市-萧山区-楼塔镇-大同二行政村(余元坞自然村,伊家店自然村),楼塔镇-大同一行政村(上马石自然村,塘头自然村,母岭自然村,佳山坞自然村);楼塔镇-大同二行政村(杭州万庆塑料制品有限公司,杭州三原纺织工艺品有限公司,杭州众力纺织品有限公司,萧山区楼塔镇大同中心小学),楼塔镇-大同一行政村(杭州文才能源科技有限公司,杭州华斌包装有限公司)，浙江省杭州市萧山区大同一村上马石，浙江省杭州市萧山区楼塔镇大同三行政村大同坞自然村17号，浙江省杭州市萧山区楼塔镇大同二行政村,浙江省杭州市萧山区楼塔镇大同二行政村伊家店自然村258号等一带","startTime":"2020-02-25 12:30:04","stopDate":"2020-02-25 15:56:04","orgNo":"3340130","typeCode":"电网故障停限电","poweroffArea":"35kV楼塔变:大同C235线-大同C2355开关后段","poweroffReason":"高压柱上断路器短路故障","powerTime":"2020-02-25 15:10:58","powerComm":"已送电","subsNo":"","lineNo":"","tgNo":"","tgName":null,"infoStatus":"1","orgName":"国网浙江杭州市萧山区供电有限公司","typeName":null,"infoStatusName":null,"dateDay":null,"orgNos":null,"nowTime":null,"countyName":null,"streetName":null,"villageName":null,"roadName":null,"communityName":null,"tranName":null,"sdLineName":null,"cityCode":"3340130","cityName":"国网浙江杭州市萧山区供电有限公司","provinceCode":null,"stopTime":"2020-02-25 15:56:04","powerType":"全部","powerOffArea":"35kV楼塔变:大同C235线-大同C2355开关后段","powerOffReason":"高压柱上断路器短路故障","powerOffId":"2020022531020056"},{"poweroffId":2020022531020053,"sgpoweroffId":null,"subsName":"","lineName":"10kV河口C160线","pubTranName":"佛山村1#变,","scope":"浙江省-杭州市-萧山区-戴村镇-佛山行政村(佛山自然村,上堡自然村),浙江省杭州市萧山区戴村镇佛山行政村佛山自然村等一带","startTime":"2020-02-25 12:30:05","stopDate":"2020-02-25 17:00:05","orgNo":"3340130","typeCode":"电网故障停限电","poweroffArea":"110kV许贤变:河口C160线-佛山村1#变台区低压开关","poweroffReason":"(低压停电信息)低压开关跳闸","powerTime":"2020-02-25 16:08:54","powerComm":"已送电","subsNo":"","lineNo":"","tgNo":"","tgName":null,"infoStatus":"1","orgName":"国网浙江杭州市萧山区供电有限公司","typeName":null,"infoStatusName":null,"dateDay":null,"orgNos":null,"nowTime":null,"countyName":null,"streetName":null,"villageName":null,"roadName":null,"communityName":null,"tranName":null,"sdLineName":null,"cityCode":"3340130","cityName":"国网浙江杭州市萧山区供电有限公司","provinceCode":null,"stopTime":"2020-02-25 17:00:05","powerType":"全部","powerOffArea":"110kV许贤变:河口C160线-佛山村1#变台区低压开关","powerOffReason":"(低压停电信息)低压开关跳闸","powerOffId":"2020022531020053"},{"poweroffId":2020022531020019,"sgpoweroffId":null,"subsName":"","lineName":"10kV万兆G271线","pubTranName":"玛丽高,","scope":"浙江省-杭州市-余杭区-仁和街道-云会行政村-杭州畅颖纺织布艺有限公司","startTime":"2020-02-25 09:21:54","stopDate":"2020-02-25 11:40:00","orgNo":"3340140","typeCode":"电网故障停限电","poweroffArea":"110kV仁镇变:万兆G271线-玛丽高开关后段","poweroffReason":"高压开关跳闸","powerTime":"2020-02-25 11:13:00","powerComm":"已送电","subsNo":"","lineNo":"","tgNo":"","tgName":null,"infoStatus":"1","orgName":"国网浙江杭州市余杭区供电有限公司","typeName":null,"infoStatusName":null,"dateDay":null,"orgNos":null,"nowTime":null,"countyName":null,"streetName":null,"villageName":null,"roadName":null,"communityName":null,"tranName":null,"sdLineName":null,"cityCode":"3340140","cityName":"国网浙江杭州市余杭区供电有限公司","provinceCode":null,"stopTime":"2020-02-25 11:40:00","powerType":"全部","powerOffArea":"110kV仁镇变:万兆G271线-玛丽高开关后段","powerOffReason":"高压开关跳闸","powerOffId":"2020022531020019"},{"poweroffId":2020022531020006,"sgpoweroffId":null,"subsName":"","lineName":"10kV云飞A357线","pubTranName":"天乐村3#变,杭州天绿纸模制品有限公司,杭州萧山进化镇马家造纸机械配件厂,杭州博轮胶带有限公司,平阳村2#变,杭州桦砜链条有限公司3#,杭州天恩饰品有限公司,杭州桦砜链条有限公司1#,平阳村1#变,平阳村5#变,平阳村3#变,天乐村1#变,杭州桦砜链条有限公司2#,天乐村4#变,天乐村7#变,天乐村8#变,平阳村6#变,杭州萧山利达汽配厂,平阳村4#变,杭州市萧山区进化镇华家垫村经济联合社,杭州市萧山区林场,天乐村6#变,","scope":"浙江省-杭州市-萧山区-进化镇-华家垫行政村-华家垫自然村,进化镇-天乐行政村(肇家桥自然村,盛家坞自然村,马家垫自然村),进化镇-平阳行政村(平阳自然村,霄汉自然村,郗坞自然村);进化镇(杭州天沃农业开发有限公司,杭州天恩饰品有限公司,杭州萧山利达汽配厂,杭州博轮胶带有限公司,杭州桦砜链条有限公司,杭州萧山进化镇马家造纸机械配件厂,杭州华伦塑业有限公司,杭州乐德农业开发有限公司),浙江省杭州市萧山区进化镇平阳萧汉自然村,进化镇萧汉村3组17号等一带","startTime":"2020-02-25 08:00:00","stopDate":"2020-02-25 09:50:00","orgNo":"3340130","typeCode":"电网故障停限电","poweroffArea":"110kV进化变:云飞A357线云盈A3573开关后段","poweroffReason":"高压柱上断路器短路故障 原停电结束时间为2020-02-25 11:00:00,为减少客户停电时间,加快工作进度,提前送电,现变更停电结束时间为2020-02-25 09:50:00","powerTime":"2020-02-25 09:00:25","powerComm":"已送电","subsNo":"","lineNo":"","tgNo":"","tgName":null,"infoStatus":"1","orgName":"国网浙江杭州市萧山区供电有限公司","typeName":null,"infoStatusName":null,"dateDay":null,"orgNos":null,"nowTime":null,"countyName":null,"streetName":null,"villageName":null,"roadName":null,"communityName":null,"tranName":null,"sdLineName":null,"cityCode":"3340130","cityName":"国网浙江杭州市萧山区供电有限公司","provinceCode":null,"stopTime":"2020-02-25 09:50:00","powerType":"全部","powerOffArea":"110kV进化变:云飞A357线云盈A3573开关后段","powerOffReason":"高压柱上断路器短路故障 原停电结束时间为2020-02-25 11:00:00,为减少客户停电时间,加快工作进度,提前送电,现变更停电结束时间为2020-02-25 09:50:00","powerOffId":"2020022531020006"},{"poweroffId":2020022531020002,"sgpoweroffId":null,"subsName":"","lineName":"10kV果园H403线","pubTranName":"良渚汽车技校,荀山村唐家头2号公变,荀山村唐家头1号公变,良渚遗址管委会,","scope":"浙江省-杭州市-余杭区-良渚街道-荀山行政村-荀山自然村;良渚街道(杭州市余杭区良渚镇人民政府,杭州交投机动车驾驶员培训有限公司)一带","startTime":"2020-02-25 06:13:00","stopDate":"2020-02-25 08:55:00","orgNo":"3340140","typeCode":"电网故障停限电","poweroffArea":"35kV良渚变:果园H403线汽校分线开关后段","poweroffReason":"高压开关跳闸 原停电结束时间为2020-02-25 08:30:00,因故障复杂原因,现变更停电结束时间为2020-02-25 08:55:00","powerTime":"2020-02-25 08:38:00","powerComm":"已送电","subsNo":"","lineNo":"","tgNo":"","tgName":null,"infoStatus":"1","orgName":"国网浙江杭州市余杭区供电有限公司","typeName":null,"infoStatusName":null,"dateDay":null,"orgNos":null,"nowTime":null,"countyName":null,"streetName":null,"villageName":null,"roadName":null,"communityName":null,"tranName":null,"sdLineName":null,"cityCode":"3340140","cityName":"国网浙江杭州市余杭区供电有限公司","provinceCode":null,"stopTime":"2020-02-25 08:55:00","powerType":"全部","powerOffArea":"35kV良渚变:果园H403线汽校分线开关后段","powerOffReason":"高压开关跳闸 原停电结束时间为2020-02-25 08:30:00,因故障复杂原因,现变更停电结束时间为2020-02-25 08:55:00","powerOffId":"2020022531020002"},{"poweroffId":2020022431020153,"sgpoweroffId":null,"subsName":"","lineName":"10kV南村H304线","pubTranName":"香格里拉2-2号公变,香格里拉2-1号公变,","scope":"浙江省-杭州市-余杭区-良渚街道-良渚行政村-东西大道,瓶窑镇-里窑社区(东西大道,里窑街)一带","startTime":"2020-02-24 21:22:00","stopDate":"2020-02-24 23:22:00","orgNo":"3340140","typeCode":"电网故障停限电","poweroffArea":"110kV柏庙变:南村H304线香格里拉2-1号公变配变","poweroffReason":"高压开关跳闸","powerTime":"2020-02-24 22:46:00","powerComm":"已送电","subsNo":"","lineNo":"","tgNo":"","tgName":null,"infoStatus":"1","orgName":"国网浙江杭州市余杭区供电有限公司","typeName":null,"infoStatusName":null,"dateDay":null,"orgNos":null,"nowTime":null,"countyName":null,"streetName":null,"villageName":null,"roadName":null,"communityName":null,"tranName":null,"sdLineName":null,"cityCode":"3340140","cityName":"国网浙江杭州市余杭区供电有限公司","provinceCode":null,"stopTime":"2020-02-24 23:22:00","powerType":"全部","powerOffArea":"110kV柏庙变:南村H304线香格里拉2-1号公变配变","powerOffReason":"高压开关跳闸","powerOffId":"2020022431020153"},{"poweroffId":2020022431020151,"sgpoweroffId":null,"subsName":"","lineName":"10kV丁山G866线","pubTranName":"超丁金属拉丝厂,杭州余杭超丁股份经济合作社,超丁村陈店村公变,超丁村洋口公变,超丁村小丁山公变,杭州中岛实业有限公司,超山金属配件,洪肖圩机埠,超丁村张家埭大队公变,超丁村丁山桥公变,超丁村田下村公变,","scope":"浙江省-杭州市-余杭区-塘栖镇(超丁行政村-超丁村,超山行政村-超山村);塘栖镇-超丁行政村(杭州汤禾实业有限公司,杭州鸿胜金属配件有限公司,杭州市余杭区塘栖镇超丁村村民委员会,杭州泰麒工贸有限公司,杭州余杭超丁股份经济合作社)一带","startTime":"2020-02-24 20:58:40","stopDate":"2020-02-24 22:58:40","orgNo":"3340140","typeCode":"电网故障停限电","poweroffArea":"110kV漳河变:丁山G866线-丁山G866线洪肖圩分线真空开关后段","poweroffReason":"高压开关跳闸","powerTime":"2020-02-24 22:16:00","powerComm":"已送电","subsNo":"","lineNo":"","tgNo":"","tgName":null,"infoStatus":"1","orgName":"国网浙江杭州市余杭区供电有限公司","typeName":null,"infoStatusName":null,"dateDay":null,"orgNos":null,"nowTime":null,"countyName":null,"streetName":null,"villageName":null,"roadName":null,"communityName":null,"tranName":null,"sdLineName":null,"cityCode":"3340140","cityName":"国网浙江杭州市余杭区供电有限公司","provinceCode":null,"stopTime":"2020-02-24 22:58:40","powerType":"全部","powerOffArea":"110kV漳河变:丁山G866线-丁山G866线洪肖圩分线真空开关后段","powerOffReason":"高压开关跳闸","powerOffId":"2020022431020151"},{"poweroffId":2020022431020139,"sgpoweroffId":null,"subsName":"","lineName":"10kV滨北D369线","pubTranName":"小寺弄6号公变,","scope":"浙江省-杭州市-富阳区-富春街道-镬子山社区-达夫路,富春街道-鹳山社区(桂花路,达夫路,市心路,小寺弄,后河西路)","startTime":"2020-02-24 17:44:00","stopDate":"2020-02-24 19:44:00","orgNo":"3340170","typeCode":"电网故障停限电","poweroffArea":"110kV富鹿变:滨北D369线小寺弄6号公变配变","poweroffReason":"高压开关跳闸","powerTime":"2020-02-24 18:37:37","powerComm":"已送电，作业人员技术较好","subsNo":"","lineNo":"","tgNo":"","tgName":null,"infoStatus":"1","orgName":"国网浙江杭州市富阳区供电公司","typeName":null,"infoStatusName":null,"dateDay":null,"orgNos":null,"nowTime":null,"countyName":null,"streetName":null,"villageName":null,"roadName":null,"communityName":null,"tranName":null,"sdLineName":null,"cityCode":"3340170","cityName":"国网浙江杭州市富阳区供电公司","provinceCode":null,"stopTime":"2020-02-24 19:44:00","powerType":"全部","powerOffArea":"110kV富鹿变:滨北D369线小寺弄6号公变配变","powerOffReason":"高压开关跳闸","powerOffId":"2020022431020139"},{"poweroffId":2020022431020102,"sgpoweroffId":null,"subsName":"","lineName":"10kV林湖D982线","pubTranName":"清源八号变,清源2#专变,清源十一号变,清源十二号变,清源3#,清源六号变,清源七号变,清源十号公变配变,清源十三号变,清源九号公变配变,清源十四号变,","scope":"浙江省-杭州市-富阳区-银湖街道-梓树行政村(上林路9号,上林路,梓树自然村上林路);银湖街道-浙江上林湖房地产开发有限公司","startTime":"2020-02-24 14:51:00","stopDate":"2020-02-24 16:51:00","orgNo":"3340170","typeCode":"电网故障停限电","poweroffArea":"110kV九龙变:林湖D982线上林二号开关站林湖982线后段","poweroffReason":"高压开关跳闸","powerTime":"2020-02-24 15:31:26","powerComm":"已送电，作业人员技术较好","subsNo":"","lineNo":"","tgNo":"","tgName":null,"infoStatus":"1","orgName":"国网浙江杭州市富阳区供电公司","typeName":null,"infoStatusName":null,"dateDay":null,"orgNos":null,"nowTime":null,"countyName":null,"streetName":null,"villageName":null,"roadName":null,"communityName":null,"tranName":null,"sdLineName":null,"cityCode":"3340170","cityName":"国网浙江杭州市富阳区供电公司","provinceCode":null,"stopTime":"2020-02-24 16:51:00","powerType":"全部","powerOffArea":"110kV九龙变:林湖D982线上林二号开关站林湖982线后段","powerOffReason":"高压开关跳闸","powerOffId":"2020022431020102"}],"pageModel":{"pageNow":525,"totalCount":17789,"totalPage":1779,"tableRows":0,"pageCount":10,"beginCount":5240},"isExperi":"1"}