{"message":"","today":"2020-06-15","seleList":[{"poweroffId":2020021831020074,"sgpoweroffId":null,"subsName":"","lineName":"10kV洋峰Y310线","pubTranName":"上源村毛田里台区,上源村文头湾台区,上源村塘沙坞台区,","scope":"浙江省-杭州市-建德市-大洋镇-上源行政村 马田里自然村,文头湾自然村,塘沙坞自然村,前山自然村,南山下自然村,姜岩下自然村,新桥头自然村一带用户","startTime":"2020-02-18 16:05:00","stopDate":"2020-02-18 17:00:00","orgNo":"3340180","typeCode":"电网故障停限电","poweroffArea":"35kV大洋变:洋峰Y310线塘沙坞支线0#令克后段","poweroffReason":"高压开关跳闸","powerTime":"2020-02-18 16:44:00","powerComm":"已送电","subsNo":"","lineNo":"","tgNo":"","tgName":null,"infoStatus":"1","orgName":"国网浙江建德市供电有限公司","typeName":null,"infoStatusName":null,"dateDay":null,"orgNos":null,"nowTime":null,"countyName":null,"streetName":null,"villageName":null,"roadName":null,"communityName":null,"tranName":null,"sdLineName":null,"cityCode":"3340180","cityName":"国网浙江建德市供电有限公司","provinceCode":null,"stopTime":"2020-02-18 17:00:00","powerType":"全部","powerOffArea":"35kV大洋变:洋峰Y310线塘沙坞支线0#令克后段","powerOffReason":"高压开关跳闸","powerOffId":"2020021831020074"},{"poweroffId":2020021831020073,"sgpoweroffId":null,"subsName":"","lineName":"10kV洋峰Y310线","pubTranName":"上源村文头湾台区,","scope":"浙江省-杭州市-建德市-大洋镇-上源行政村 文头湾自然村,塘沙坞自然村 一带用户","startTime":"2020-02-18 16:00:00","stopDate":"2020-02-18 17:20:00","orgNo":"3340180","typeCode":"电网故障停限电","poweroffArea":"35kV大洋变:洋峰Y310线-上源村文头湾台区后段","poweroffReason":"(低压停电信息)低压导线断线 原停电结束时间为2020-02-18 18:00:00,为减少客户停电时间,加快工作进度,提前送电,现变更停电结束时间为2020-02-18 17:20:00","powerTime":"2020-02-18 16:48:00","powerComm":"已送电","subsNo":"","lineNo":"","tgNo":"","tgName":null,"infoStatus":"1","orgName":"国网浙江建德市供电有限公司","typeName":null,"infoStatusName":null,"dateDay":null,"orgNos":null,"nowTime":null,"countyName":null,"streetName":null,"villageName":null,"roadName":null,"communityName":null,"tranName":null,"sdLineName":null,"cityCode":"3340180","cityName":"国网浙江建德市供电有限公司","provinceCode":null,"stopTime":"2020-02-18 17:20:00","powerType":"全部","powerOffArea":"35kV大洋变:洋峰Y310线-上源村文头湾台区后段","powerOffReason":"(低压停电信息)低压导线断线 原停电结束时间为2020-02-18 18:00:00,为减少客户停电时间,加快工作进度,提前送电,现变更停电结束时间为2020-02-18 17:20:00","powerOffId":"2020021831020073"},{"poweroffId":2020021831020066,"sgpoweroffId":null,"subsName":"","lineName":"10kV春建D202线","pubTranName":"上唐村6号上唐公变,","scope":"浙江省-杭州市-富阳区-春建乡-大唐行政村(上唐路,沙地上自然村,上唐自然村)","startTime":"2020-02-18 14:53:03","stopDate":"2020-02-18 16:53:03","orgNo":"3340170","typeCode":"电网故障停限电","poweroffArea":"35kV大青变:春建D202线-上唐村6号上唐公变后段","poweroffReason":"高压开关跳闸","powerTime":"2020-02-18 16:03:48","powerComm":"已送电","subsNo":"","lineNo":"","tgNo":"","tgName":null,"infoStatus":"1","orgName":"国网浙江杭州市富阳区供电公司","typeName":null,"infoStatusName":null,"dateDay":null,"orgNos":null,"nowTime":null,"countyName":null,"streetName":null,"villageName":null,"roadName":null,"communityName":null,"tranName":null,"sdLineName":null,"cityCode":"3340170","cityName":"国网浙江杭州市富阳区供电公司","provinceCode":null,"stopTime":"2020-02-18 16:53:03","powerType":"全部","powerOffArea":"35kV大青变:春建D202线-上唐村6号上唐公变后段","powerOffReason":"高压开关跳闸","powerOffId":"2020021831020066"},{"poweroffId":2020021831020063,"sgpoweroffId":null,"subsName":"","lineName":"10kV银乔C832线","pubTranName":"元沙村13#变,","scope":"浙江省-杭州市-萧山区-新街镇、新街街道-元沙行政村-元沙自然村等一带","startTime":"2020-02-18 14:36:30","stopDate":"2020-02-18 16:40:30","orgNo":"3340130","typeCode":"电网故障停限电","poweroffArea":"110kV罗山变:银乔C832线-元沙村13#变台区低压开关","poweroffReason":"（低压停电信息）低压漏电保护器短路故障","powerTime":"2020-02-18 15:50:02","powerComm":"已送电","subsNo":"","lineNo":"","tgNo":"","tgName":null,"infoStatus":"1","orgName":"国网浙江杭州市萧山区供电有限公司","typeName":null,"infoStatusName":null,"dateDay":null,"orgNos":null,"nowTime":null,"countyName":null,"streetName":null,"villageName":null,"roadName":null,"communityName":null,"tranName":null,"sdLineName":null,"cityCode":"3340130","cityName":"国网浙江杭州市萧山区供电有限公司","provinceCode":null,"stopTime":"2020-02-18 16:40:30","powerType":"全部","powerOffArea":"110kV罗山变:银乔C832线-元沙村13#变台区低压开关","powerOffReason":"（低压停电信息）低压漏电保护器短路故障","powerOffId":"2020021831020063"},{"poweroffId":2020021831020020,"sgpoweroffId":null,"subsName":"","lineName":"10kV三联D943线","pubTranName":"店口村7号汤家山公变,","scope":"浙江省-杭州市-富阳区-富春街道-三桥行政村(店口自然村,亭桥头自然村)","startTime":"2020-02-18 09:47:58","stopDate":"2020-02-18 11:47:58","orgNo":"3340170","typeCode":"电网故障停限电","poweroffArea":"110kV育才变:三联D943线-店口村7号汤家山公变熔断器后段","poweroffReason":"高压开关跳闸 原停电结束时间为2020-02-18 10:47:58,因抢修难度大原因,现变更停电结束时间为2020-02-18 11:47:58","powerTime":"2020-02-18 11:25:15","powerComm":"已送电","subsNo":"","lineNo":"","tgNo":"","tgName":null,"infoStatus":"1","orgName":"国网浙江杭州市富阳区供电公司","typeName":null,"infoStatusName":null,"dateDay":null,"orgNos":null,"nowTime":null,"countyName":null,"streetName":null,"villageName":null,"roadName":null,"communityName":null,"tranName":null,"sdLineName":null,"cityCode":"3340170","cityName":"国网浙江杭州市富阳区供电公司","provinceCode":null,"stopTime":"2020-02-18 11:47:58","powerType":"全部","powerOffArea":"110kV育才变:三联D943线-店口村7号汤家山公变熔断器后段","powerOffReason":"高压开关跳闸 原停电结束时间为2020-02-18 10:47:58,因抢修难度大原因,现变更停电结束时间为2020-02-18 11:47:58","powerOffId":"2020021831020020"},{"poweroffId":2020021831020003,"sgpoweroffId":null,"subsName":"","lineName":"10kV丁茂9227线","pubTranName":"玺寓（十五）,塘苑(一),新城超市2#,新城写字楼1#,新城超市6#,玺寓（十三）,塘苑(三),兰轩（三）,新城写字楼3#,新城超市21#,兰轩（七）,上东(一),兰轩（五）,上东(五),玺寓（七）,上东(九),丁大基础,新城写字楼4#,玺寓（三）,丁灯,新城写字楼5#,上东(七),玺寓（一）,新城超市23#,玺寓（五）,新城超市5#,新城写字楼2#,新城写字楼6#,玺寓（十一）,新城超市4#,玺寓（九）,兰轩（一）,上东(三),","scope":"浙江省-杭州市-江干区-丁桥镇-大唐苑社区(上东领地小区,大农港路,惠兰雅路,紫丁香街),丁桥镇-和西社区(笕丁路,丁桥路,玺之湾小区),丁桥镇(丁桥苑社区-笕丁路,丁兰社区-丁群路,东兰轩);丁兰街道-杭州市江干区三堡排灌站,丁桥镇(杭州市路灯管理所,杭州物美丁桥商业有限公司,杭州世都物业管理有限公司)","startTime":"2020-02-18 01:51:00","stopDate":"2020-02-18 06:31:00","orgNo":"3340101","typeCode":"电网故障停限电","poweroffArea":"110kV东风变:丁茂9227线宇城站丁茂9227线后段","poweroffReason":"高压开关跳闸 原停电结束时间为2020-02-18 07:51:00,为减少客户停电时间,加快工作进度,提前送电,现变更停电结束时间为2020-02-18 06:31:00","powerTime":"2020-02-18 05:56:37","powerComm":"已送电","subsNo":"","lineNo":"","tgNo":"","tgName":null,"infoStatus":"1","orgName":"浙江杭州电力客户服务中心","typeName":null,"infoStatusName":null,"dateDay":null,"orgNos":null,"nowTime":null,"countyName":null,"streetName":null,"villageName":null,"roadName":null,"communityName":null,"tranName":null,"sdLineName":null,"cityCode":"3340101","cityName":"浙江杭州电力客户服务中心","provinceCode":null,"stopTime":"2020-02-18 06:31:00","powerType":"全部","powerOffArea":"110kV东风变:丁茂9227线宇城站丁茂9227线后段","powerOffReason":"高压开关跳闸 原停电结束时间为2020-02-18 07:51:00,为减少客户停电时间,加快工作进度,提前送电,现变更停电结束时间为2020-02-18 06:31:00","powerOffId":"2020021831020003"},{"poweroffId":2020021731020116,"sgpoweroffId":null,"subsName":"","lineName":"10kV蒋家D408线","pubTranName":"蒋家村3#马家公变,浙江省富阳市鹿山中学,浙江金鑫管桩有限公司1#变,杭州合众特种钢材3#,蒋家村12#林场公变,蒋家村19号湖家弄公变,杭州合众特种钢材1#,蒋家村22号村委公变,蒋家村11#草堂公变,蒋家村13#新区公变,蒋家村1#村中公变,蒋家村20号中心路公变,蒋家村4号许家公变,","scope":"浙江省-杭州市-富阳区-新桐乡-程浦行政村-程坟自然村,鹿山街道-蒋家行政村(许家自然村,蒋家自然村,平安路,金鑫路,村中心路,新建路,大坞口自然村,中心路,和家弄自然村,仁爱路,阳光路,康福路,康复路,大户口自然村,礼堂路,工农路),鹿山街道(南山行政村-晖山自然村,汤家埠行政村-春安自然村);鹿山街道(杭州市富阳区鹿山中学,杭州合众特种钢材有限公司,浙江金鑫管桩有限公司)","startTime":"2020-02-17 20:48:00","stopDate":"2020-02-17 22:45:00","orgNo":"3340170","typeCode":"电网故障停限电","poweroffArea":"110kV长春变:蒋家D408线蒋家D4083开关后段","poweroffReason":"高压开关跳闸","powerTime":"2020-02-17 22:03:36","powerComm":"已送电","subsNo":"","lineNo":"","tgNo":"","tgName":null,"infoStatus":"1","orgName":"国网浙江杭州市富阳区供电公司","typeName":null,"infoStatusName":null,"dateDay":null,"orgNos":null,"nowTime":null,"countyName":null,"streetName":null,"villageName":null,"roadName":null,"communityName":null,"tranName":null,"sdLineName":null,"cityCode":"3340170","cityName":"国网浙江杭州市富阳区供电公司","provinceCode":null,"stopTime":"2020-02-17 22:45:00","powerType":"全部","powerOffArea":"110kV长春变:蒋家D408线蒋家D4083开关后段","powerOffReason":"高压开关跳闸","powerOffId":"2020021731020116"},{"poweroffId":2020021731020093,"sgpoweroffId":null,"subsName":"","lineName":"10kV胥口D712线","pubTranName":"长垅村6#倪家弄公变,新长垅村7#雪岭头公变,","scope":"浙江省-杭州市-富阳区-新登镇-长垄行政村(白虎岭自然村,胡家自然村,泥家垄自然村,马坞垄自然村,雪岭头自然村)","startTime":"2020-02-17 15:06:19","stopDate":"2020-02-17 17:10:19","orgNo":"3340170","typeCode":"电网故障停限电","poweroffArea":"110kV松溪变:胥口D712线-倪家弄支线开关后段","poweroffReason":"高压开关跳闸","powerTime":"2020-02-17 16:29:17","powerComm":"已送电","subsNo":"","lineNo":"","tgNo":"","tgName":null,"infoStatus":"1","orgName":"国网浙江杭州市富阳区供电公司","typeName":null,"infoStatusName":null,"dateDay":null,"orgNos":null,"nowTime":null,"countyName":null,"streetName":null,"villageName":null,"roadName":null,"communityName":null,"tranName":null,"sdLineName":null,"cityCode":"3340170","cityName":"国网浙江杭州市富阳区供电公司","provinceCode":null,"stopTime":"2020-02-17 17:10:19","powerType":"全部","powerOffArea":"110kV松溪变:胥口D712线-倪家弄支线开关后段","powerOffReason":"高压开关跳闸","powerOffId":"2020021731020093"},{"poweroffId":2020021731020067,"sgpoweroffId":null,"subsName":"","lineName":"10kV邦汇C321线","pubTranName":"建盈村1#变,建盈村6#变,建盈村4#变,钱富冷挤机械1#变压器,建盈村9#变,1#变,三盈村8#变,1#变,杭州萧山钱富冷挤机械有限公司1#,三盈村6#变,三盈村11#变,杭州萧山第四化工厂,杭州创旗纺织有限公司1#,建盈村2#变,建盈村3#变,杭州创旗纺织有限公司3#,杭州钱正锻压机械有限公司,建盈村10#变,1#,1#变,杭州佳腾汽车零部件有限公司,杭州冠亨包装材料有限公司,中石化碧辟（浙江）石油有限公司杭州分公司,三盈村9#变,杭州萧山三盈实业公司,三盈村10#变,三盈村13#变,杭州创旗纺织有限公司2#,三盈村4#变,三盈村7#变,三盈村1#变,杭州萧山钱富冷挤机械有限公司2#,建盈村11#变,建盈村8#变,杭州华策纸管有限公司,机场高速公路2变压器,建盈村7#变,三盈村14#变,杭州萧山交通投资集团基础设施建设指挥部5#,杭州市萧山区市政园林公用事业管理处,建盈村5#变,三盈村12#变,杭州萧山交通投资集团基础设施建设指挥部4#变压器,杭州萧山交通投资集团基础设施建设指挥部高速10#变压器,三盈村3#变,杭州增祥机械有限公司,建盈村12#变,三盈村5#变,杭州蕊彬市政工程有限公司,1#变,","scope":"浙江省-杭州市-萧山区-瓜沥镇-三盈行政村(盈南路,盈一路,万盈路,祥和路,盈中路,盈二路,文明路,三盈自然村,盈北路,盈西路,万红路),瓜沥镇-建盈行政村(万红路,建盈自然村,万盈路,盈钱路),瓜沥镇(万安行政村-万安自然村,梅仙行政村-梅仙自然村);浙江省-杭州市-萧山区-瓜沥镇-浙江钱富万向节有限公司,瓜沥镇-万安行政村(杭州隆翔机电设备有限公司,杭州市萧山区瓜沥镇人民政府),瓜沥镇-三盈行政村(浙江钱富冷挤机械有限公司,杭州萧山三盈实业公司,杭州增祥机械有限公司,杭州钱正锻压机械有限公司,杭州华策纸管有限公司,杭州市萧山区瓜沥镇人民政府,浙江钱富万向节有限公司,中铁十局集团第三建设有限公司,杭州聚兴弹簧垫圈有限公司),瓜沥镇-建盈行政村(杭州萧山国际机场高速公路建设开发有限公司,杭州萧山交投中石化能源有限公司,杭州蕊彬市政工程有限公司,杭州冠亨包装材料有限公司,杭州创旗纺织有限公司,杭州佳腾汽车零部件有限公司,杭州市萧山区市政绿化养护保障中心,杭州三助环境工程有限责任公司,杭州萧山晶鑫制冰厂)、瓜沥镇三盈行政村盈二路一带","startTime":"2020-02-17 12:36:09","stopDate":"2020-02-17 15:55:09","orgNo":"3340130","typeCode":"电网故障停限电","poweroffArea":"110kV沿塘变:邦汇C321线-邦汇C3212开关后段","poweroffReason":"高压柱上断路器短路故障 原停电结束时间为2020-02-17 16:30:09,为减少客户停电时间,加快工作进度,提前送电,现变更停电结束时间为2020-02-17 15:55:09","powerTime":"2020-02-17 15:08:59","powerComm":"已送电","subsNo":"","lineNo":"","tgNo":"","tgName":null,"infoStatus":"1","orgName":"国网浙江杭州市萧山区供电有限公司","typeName":null,"infoStatusName":null,"dateDay":null,"orgNos":null,"nowTime":null,"countyName":null,"streetName":null,"villageName":null,"roadName":null,"communityName":null,"tranName":null,"sdLineName":null,"cityCode":"3340130","cityName":"国网浙江杭州市萧山区供电有限公司","provinceCode":null,"stopTime":"2020-02-17 15:55:09","powerType":"全部","powerOffArea":"110kV沿塘变:邦汇C321线-邦汇C3212开关后段","powerOffReason":"高压柱上断路器短路故障 原停电结束时间为2020-02-17 16:30:09,为减少客户停电时间,加快工作进度,提前送电,现变更停电结束时间为2020-02-17 15:55:09","powerOffId":"2020021731020067"},{"poweroffId":2020021731020063,"sgpoweroffId":null,"subsName":"","lineName":"10kV迪青A396线","pubTranName":"顺坝村17#变,志达沙场,志航汽车,顺坝村1#变,亦能生物科技,万华轴承,宇葳机械,江南大地,杭州正方实业公司,樱道机械,天成通风,华信自行车架有限公司,乐天有机肥,京奥新科技,九堡杨公社区,杭州海塘机械,建科水泥,巨星蓄电池,国泰,杭州渊景农业开发有限公司,八堡畜牧,顺坝村7#变,创业物业,杭州惠亚农科技有限公司,杭州海塘机械,程杰车业,杭州文春机械有限公司,杭州惠亚农业科技有限公司,京奥新科技1#,徐祥水产,利磊建筑,广业建筑机械,渊景农业,杭州迪青生态农庄有限公司,正方商品混凝土,京奥新科技,杭州顺昊餐饮有限公司,江干区庆飞沙场,杭州惠亚农业科技有限公司,璐易砂石场,京奥新科技2#,文春机械,1#变,","scope":"浙江省-杭州市-萧山区-宁围镇-宁围街道-顺坝行政村-顺坝自然村;经济技术开发区-钱江社区(杭州萧山宁围镇璐易砂石服务部,传化智联股份有限公司,浙江传化江南大地发展有限公司,杭州萧山钱江农场庆飞砂石场,杭州樱道机械有限公司,杭州正方商品混凝土搅拌厂,杭州正方实业集团有限公司),宁围街道-顺坝行政村(杭州万华轴承有限公司,杭州市江干区九堡镇杨公社区居民委员会,杭州迪青生态农庄有限公司,杭州江干区八堡畜牧养殖场,杭州亦能生物科技有限公司,杭州嘉誉物流有限公司,杭州萧山国际科创中心开发有限公司,杭州渊景农业开发有限公司,杭州顺昊餐饮有限公司,杭州八桥农产品有限公司,杭州惠亚农业科技有限公司),宁围街道-二桥行政村-杭州萧山宁围志达砂石场,新街街道-江南行政村-杭州建科水泥助剂有限公司等一带","startTime":"2020-02-17 12:11:53","stopDate":"2020-02-17 13:55:53","orgNo":"3340130","typeCode":"电网故障停限电","poweroffArea":"110kV顺坝变:迪青A396线-迪青A3961开关后段","poweroffReason":"高压柱上断路器短路故障 原停电结束时间为2020-02-17 16:55:53,为减少客户停电时间,加快工作进度,提前送电,现变更停电结束时间为2020-02-17 13:55:53","powerTime":"2020-02-17 13:06:58","powerComm":"已送电","subsNo":"","lineNo":"","tgNo":"","tgName":null,"infoStatus":"1","orgName":"国网浙江杭州市萧山区供电有限公司","typeName":null,"infoStatusName":null,"dateDay":null,"orgNos":null,"nowTime":null,"countyName":null,"streetName":null,"villageName":null,"roadName":null,"communityName":null,"tranName":null,"sdLineName":null,"cityCode":"3340130","cityName":"国网浙江杭州市萧山区供电有限公司","provinceCode":null,"stopTime":"2020-02-17 13:55:53","powerType":"全部","powerOffArea":"110kV顺坝变:迪青A396线-迪青A3961开关后段","powerOffReason":"高压柱上断路器短路故障 原停电结束时间为2020-02-17 16:55:53,为减少客户停电时间,加快工作进度,提前送电,现变更停电结束时间为2020-02-17 13:55:53","powerOffId":"2020021731020063"}],"pageModel":{"pageNow":532,"totalCount":17789,"totalPage":1779,"tableRows":0,"pageCount":10,"beginCount":5310},"isExperi":"1"}