{"message":"","today":"2020-06-15","seleList":[{"poweroffId":2020021731020046,"sgpoweroffId":null,"subsName":"","lineName":"10kV宅前T125线","pubTranName":"职工大学1号公变,","scope":"浙江省-杭州市-桐庐县-富春江镇-黄坡岭社区-七里泷大街","startTime":"2020-02-17 11:23:14","stopDate":"2020-02-17 13:23:14","orgNo":"3340150","typeCode":"电网故障停限电","poweroffArea":"110kV外董变:宅前T125线-职工大学1号公变后段","poweroffReason":"(低压停电信息)低压开关跳闸 原停电结束时间为2020-02-17 14:23:14,为减少客户停电时间,加快工作进度,提前送电,现变更停电结束时间为2020-02-17 13:23:14","powerTime":"2020-02-17 13:11:46","powerComm":"已送电","subsNo":"","lineNo":"","tgNo":"","tgName":null,"infoStatus":"1","orgName":"国网浙江桐庐县供电公司","typeName":null,"infoStatusName":null,"dateDay":null,"orgNos":null,"nowTime":null,"countyName":null,"streetName":null,"villageName":null,"roadName":null,"communityName":null,"tranName":null,"sdLineName":null,"cityCode":"3340150","cityName":"国网浙江桐庐县供电公司","provinceCode":null,"stopTime":"2020-02-17 13:23:14","powerType":"全部","powerOffArea":"110kV外董变:宅前T125线-职工大学1号公变后段","powerOffReason":"(低压停电信息)低压开关跳闸 原停电结束时间为2020-02-17 14:23:14,为减少客户停电时间,加快工作进度,提前送电,现变更停电结束时间为2020-02-17 13:23:14","powerOffId":"2020021731020046"},{"poweroffId":2020021731020021,"sgpoweroffId":null,"subsName":"","lineName":"10kV院士T440线","pubTranName":"乐得苑1号公变,","scope":"浙江省-杭州市-桐庐县-分水镇-分江社区(东门路,东门大道，县东农支点)","startTime":"2020-02-17 09:26:58","stopDate":"2020-02-17 11:26:58","orgNo":"3340150","typeCode":"电网故障停限电","poweroffArea":"110kV天英变:院士T440线-乐得苑1号公变后段","poweroffReason":"(低压停电信息)低压开关跳闸","powerTime":"2020-02-17 11:00:13","powerComm":"已送电","subsNo":"","lineNo":"","tgNo":"","tgName":null,"infoStatus":"1","orgName":"国网浙江桐庐县供电公司","typeName":null,"infoStatusName":null,"dateDay":null,"orgNos":null,"nowTime":null,"countyName":null,"streetName":null,"villageName":null,"roadName":null,"communityName":null,"tranName":null,"sdLineName":null,"cityCode":"3340150","cityName":"国网浙江桐庐县供电公司","provinceCode":null,"stopTime":"2020-02-17 11:26:58","powerType":"全部","powerOffArea":"110kV天英变:院士T440线-乐得苑1号公变后段","powerOffReason":"(低压停电信息)低压开关跳闸","powerOffId":"2020021731020021"},{"poweroffId":2020021731020020,"sgpoweroffId":null,"subsName":"","lineName":"10kV民主9223线","pubTranName":"永祥玻璃,杭州兴鸿钢结构厂,红衫树,","scope":"浙江省-杭州市-余杭区-乔司街道-五星行政村(杭州东健运输有限公司,杭州海欣机械制造有限公司,杭州永祥玻璃有限公司)","startTime":"2020-02-17 09:21:49","stopDate":"2020-02-17 16:30:00","orgNo":"3340140","typeCode":"电网故障停限电","poweroffArea":"110kV东风变:民主9223线-兴鸿分支箱分线后段","poweroffReason":"高压开关跳闸 原停电结束时间为2020-02-17 14:30:00,因故障复杂原因,现变更停电结束时间为2020-02-17 16:30:00","powerTime":"2020-02-17 15:30:00","powerComm":"已送电","subsNo":"","lineNo":"","tgNo":"","tgName":null,"infoStatus":"1","orgName":"国网浙江杭州市余杭区供电有限公司","typeName":null,"infoStatusName":null,"dateDay":null,"orgNos":null,"nowTime":null,"countyName":null,"streetName":null,"villageName":null,"roadName":null,"communityName":null,"tranName":null,"sdLineName":null,"cityCode":"3340140","cityName":"国网浙江杭州市余杭区供电有限公司","provinceCode":null,"stopTime":"2020-02-17 16:30:00","powerType":"全部","powerOffArea":"110kV东风变:民主9223线-兴鸿分支箱分线后段","powerOffReason":"高压开关跳闸 原停电结束时间为2020-02-17 14:30:00,因故障复杂原因,现变更停电结束时间为2020-02-17 16:30:00","powerOffId":"2020021731020020"},{"poweroffId":2020021731020007,"sgpoweroffId":null,"subsName":"","lineName":"10kV宅前T125线","pubTranName":"职工大学1号公变,","scope":"浙江省-杭州市-桐庐县-富春江镇-黄坡岭社区-七里泷大街","startTime":"2020-02-17 07:27:15","stopDate":"2020-02-17 11:30:15","orgNo":"3340150","typeCode":"电网故障停限电","poweroffArea":"110kV外董变:宅前T125线-职工大学1号公变后段","poweroffReason":"(低压停电信息)低压开关跳闸","powerTime":"2020-02-17 11:23:08","powerComm":"已送电","subsNo":"","lineNo":"","tgNo":"","tgName":null,"infoStatus":"1","orgName":"国网浙江桐庐县供电公司","typeName":null,"infoStatusName":null,"dateDay":null,"orgNos":null,"nowTime":null,"countyName":null,"streetName":null,"villageName":null,"roadName":null,"communityName":null,"tranName":null,"sdLineName":null,"cityCode":"3340150","cityName":"国网浙江桐庐县供电公司","provinceCode":null,"stopTime":"2020-02-17 11:30:15","powerType":"全部","powerOffArea":"110kV外董变:宅前T125线-职工大学1号公变后段","powerOffReason":"(低压停电信息)低压开关跳闸","powerOffId":"2020021731020007"},{"poweroffId":2020021731020006,"sgpoweroffId":null,"subsName":"","lineName":"10kV龙狮6323线","pubTranName":"之园五变,转基,2,江家一,之园一变,之家十七变,1,之家七,之家一,之园七变,之家十五,之家十一,之家九,之家十九,之园十一变,之家五,之家三,之园九变,象山小学,之家十三,江家三,之园三变,","scope":"浙江省-杭州市-西湖区-转塘街道-象山社区(杜家浦路，之江家园一区,二区,四区，转之路);转塘社区-杭州之江国家旅游度假区基础设施建设开发中心,转塘街道-象山社区(杭州市西湖区教育局,杭州之江国家旅游度假区农转居多层公寓建设管理中心)","startTime":"2020-02-17 07:21:10","stopDate":"2020-02-17 10:00:10","orgNo":"3340101","typeCode":"电网故障停限电","poweroffArea":"110kV转塘变:龙狮6323线","poweroffReason":"高压开关跳闸 原停电结束时间为2020-02-17 12:21:10,为减少客户停电时间,加快工作进度,提前送电,现变更停电结束时间为2020-02-17 10:00:10","powerTime":"2020-02-17 09:12:40","powerComm":"已送电","subsNo":"","lineNo":"","tgNo":"","tgName":null,"infoStatus":"1","orgName":"浙江杭州电力客户服务中心","typeName":null,"infoStatusName":null,"dateDay":null,"orgNos":null,"nowTime":null,"countyName":null,"streetName":null,"villageName":null,"roadName":null,"communityName":null,"tranName":null,"sdLineName":null,"cityCode":"3340101","cityName":"浙江杭州电力客户服务中心","provinceCode":null,"stopTime":"2020-02-17 10:00:10","powerType":"全部","powerOffArea":"110kV转塘变:龙狮6323线","powerOffReason":"高压开关跳闸 原停电结束时间为2020-02-17 12:21:10,为减少客户停电时间,加快工作进度,提前送电,现变更停电结束时间为2020-02-17 10:00:10","powerOffId":"2020021731020006"},{"poweroffId":2020021731020001,"sgpoweroffId":null,"subsName":"","lineName":"10kV宅前T125线","pubTranName":"职工大学1号公变,","scope":"浙江省-杭州市-桐庐县-富春江镇-黄坡岭社区-七里泷大街","startTime":"2020-02-17 00:00:59","stopDate":"2020-02-17 07:35:59","orgNo":"3340150","typeCode":"电网故障停限电","poweroffArea":"110kV外董变:宅前T125线-职工大学1号公变后段","poweroffReason":"(低压停电信息)低压开关跳闸 原停电结束时间为2020-02-17 08:00:59,为减少客户停电时间,加快工作进度,提前送电,现变更停电结束时间为2020-02-17 07:35:59","powerTime":"2020-02-17 07:27:28","powerComm":"已送电","subsNo":"","lineNo":"","tgNo":"","tgName":null,"infoStatus":"1","orgName":"国网浙江桐庐县供电公司","typeName":null,"infoStatusName":null,"dateDay":null,"orgNos":null,"nowTime":null,"countyName":null,"streetName":null,"villageName":null,"roadName":null,"communityName":null,"tranName":null,"sdLineName":null,"cityCode":"3340150","cityName":"国网浙江桐庐县供电公司","provinceCode":null,"stopTime":"2020-02-17 07:35:59","powerType":"全部","powerOffArea":"110kV外董变:宅前T125线-职工大学1号公变后段","powerOffReason":"(低压停电信息)低压开关跳闸 原停电结束时间为2020-02-17 08:00:59,为减少客户停电时间,加快工作进度,提前送电,现变更停电结束时间为2020-02-17 07:35:59","powerOffId":"2020021731020001"},{"poweroffId":2020021631020110,"sgpoweroffId":null,"subsName":"","lineName":"10kV宅前T125线","pubTranName":"职工大学1号公变,","scope":"浙江省-杭州市-桐庐县-富春江镇-黄坡岭社区-七里泷大街","startTime":"2020-02-16 22:36:00","stopDate":"2020-02-16 23:59:00","orgNo":"3340150","typeCode":"电网故障停限电","poweroffArea":"110kV外董变:宅前T125线职工大学1号公变配变","poweroffReason":"(低压停电信息)低压开关跳闸","powerTime":"2020-02-16 23:54:01","powerComm":"已送电","subsNo":"","lineNo":"","tgNo":"","tgName":null,"infoStatus":"1","orgName":"国网浙江桐庐县供电公司","typeName":null,"infoStatusName":null,"dateDay":null,"orgNos":null,"nowTime":null,"countyName":null,"streetName":null,"villageName":null,"roadName":null,"communityName":null,"tranName":null,"sdLineName":null,"cityCode":"3340150","cityName":"国网浙江桐庐县供电公司","provinceCode":null,"stopTime":"2020-02-16 23:59:00","powerType":"全部","powerOffArea":"110kV外董变:宅前T125线职工大学1号公变配变","powerOffReason":"(低压停电信息)低压开关跳闸","powerOffId":"2020021631020110"},{"poweroffId":2020021631020108,"sgpoweroffId":null,"subsName":"","lineName":"10kV木桥D422线","pubTranName":"木桥头2号东公变,","scope":"浙江省-杭州市-富阳区-东洲街道-木桥头行政村(木桥头自然村,富民路)","startTime":"2020-02-16 19:55:10","stopDate":"2020-02-16 20:55:10","orgNo":"3340170","typeCode":"电网故障停限电","poweroffArea":"110kV东洲变:木桥D422线-木桥头2#东公变后段","poweroffReason":"(低压停电信息)低压开关跳闸","powerTime":"2020-02-16 20:24:34","powerComm":"已送电","subsNo":"","lineNo":"","tgNo":"","tgName":null,"infoStatus":"1","orgName":"国网浙江杭州市富阳区供电公司","typeName":null,"infoStatusName":null,"dateDay":null,"orgNos":null,"nowTime":null,"countyName":null,"streetName":null,"villageName":null,"roadName":null,"communityName":null,"tranName":null,"sdLineName":null,"cityCode":"3340170","cityName":"国网浙江杭州市富阳区供电公司","provinceCode":null,"stopTime":"2020-02-16 20:55:10","powerType":"全部","powerOffArea":"110kV东洲变:木桥D422线-木桥头2#东公变后段","powerOffReason":"(低压停电信息)低压开关跳闸","powerOffId":"2020021631020108"},{"poweroffId":2020021631020087,"sgpoweroffId":null,"subsName":"","lineName":"10kV星发G084线","pubTranName":"锐库机械,葛饰1#,筱原,葛饰2#,","scope":"浙江省-杭州市-余杭区-星桥街道-南星社区(杭州筱原化妆用具有限公司,杭州葛饰化妆包材有限公司,杭州锐库机械有限公司)","startTime":"2020-02-16 14:59:20","stopDate":"2020-02-16 19:40:00","orgNo":"3340140","typeCode":"电网故障停限电","poweroffArea":"110kV星桥变:星发G084线-葛氏分线开关后段","poweroffReason":"高压开关跳闸 原停电结束时间为2020-02-16 17:20:00,因现场情况复杂原因,现变更停电结束时间为2020-02-16 19:40:00","powerTime":"2020-02-16 19:10:00","powerComm":"已送电","subsNo":"","lineNo":"","tgNo":"","tgName":null,"infoStatus":"1","orgName":"国网浙江杭州市余杭区供电有限公司","typeName":null,"infoStatusName":null,"dateDay":null,"orgNos":null,"nowTime":null,"countyName":null,"streetName":null,"villageName":null,"roadName":null,"communityName":null,"tranName":null,"sdLineName":null,"cityCode":"3340140","cityName":"国网浙江杭州市余杭区供电有限公司","provinceCode":null,"stopTime":"2020-02-16 19:40:00","powerType":"全部","powerOffArea":"110kV星桥变:星发G084线-葛氏分线开关后段","powerOffReason":"高压开关跳闸 原停电结束时间为2020-02-16 17:20:00,因现场情况复杂原因,现变更停电结束时间为2020-02-16 19:40:00","powerOffId":"2020021631020087"},{"poweroffId":2020021631020084,"sgpoweroffId":null,"subsName":"","lineName":"10kV株林D243线","pubTranName":"杭州涌都房地产开发有限公司 1#,杭州澜都房地产开发有限公司 1#,杭州涌都房地产开发有限公司1#基建变,杭州澜都房地产开发有限公司 1#,杭州涌都房地产开发有限公司1#,","scope":"浙江省-杭州市-富阳区-东洲街道(杭州澜都房地产开发有限公司,杭州涌都房地产开发有限公司)","startTime":"2020-02-16 13:47:00","stopDate":"2020-02-16 15:47:00","orgNo":"3340170","typeCode":"电网故障停限电","poweroffArea":"110kV白鹤变:株林D243线澜都支线后段","poweroffReason":"高压开关跳闸","powerTime":"2020-02-16 14:59:34","powerComm":"已送电","subsNo":"","lineNo":"","tgNo":"","tgName":null,"infoStatus":"1","orgName":"国网浙江杭州市富阳区供电公司","typeName":null,"infoStatusName":null,"dateDay":null,"orgNos":null,"nowTime":null,"countyName":null,"streetName":null,"villageName":null,"roadName":null,"communityName":null,"tranName":null,"sdLineName":null,"cityCode":"3340170","cityName":"国网浙江杭州市富阳区供电公司","provinceCode":null,"stopTime":"2020-02-16 15:47:00","powerType":"全部","powerOffArea":"110kV白鹤变:株林D243线澜都支线后段","powerOffReason":"高压开关跳闸","powerOffId":"2020021631020084"}],"pageModel":{"pageNow":533,"totalCount":17789,"totalPage":1779,"tableRows":0,"pageCount":10,"beginCount":5320},"isExperi":"1"}