{"message":"","today":"2020-06-15","seleList":[{"poweroffId":2020021531020022,"sgpoweroffId":null,"subsName":"","lineName":"20kV国博B219线","pubTranName":"3#变,2#变,杭州奥体博览中心萧山建设投资有限公司,1#变,4#变,5#变,","scope":"浙江省-杭州市-萧山区-宁围镇-宁围街道-宁牧行政村-万向钱潮股份有限公司、钱江世纪城鸿宁路（石岩医院，万象中学东面）等一带","startTime":"2020-02-15 08:12:57","stopDate":"2020-02-15 09:55:57","orgNo":"3340130","typeCode":"电网故障停限电","poweroffArea":"110kV顺丰变:国博B219线","poweroffReason":"高压柱上断路器短路故障 原停电结束时间为2020-02-15 12:00:57,为减少客户停电时间,加快工作进度,提前送电,现变更停电结束时间为2020-02-15 09:55:57","powerTime":"2020-02-15 09:04:21","powerComm":"已送电","subsNo":"","lineNo":"","tgNo":"","tgName":null,"infoStatus":"1","orgName":"国网浙江杭州市萧山区供电有限公司","typeName":null,"infoStatusName":null,"dateDay":null,"orgNos":null,"nowTime":null,"countyName":null,"streetName":null,"villageName":null,"roadName":null,"communityName":null,"tranName":null,"sdLineName":null,"cityCode":"3340130","cityName":"国网浙江杭州市萧山区供电有限公司","provinceCode":null,"stopTime":"2020-02-15 09:55:57","powerType":"全部","powerOffArea":"110kV顺丰变:国博B219线","powerOffReason":"高压柱上断路器短路故障 原停电结束时间为2020-02-15 12:00:57,为减少客户停电时间,加快工作进度,提前送电,现变更停电结束时间为2020-02-15 09:55:57","powerOffId":"2020021531020022"},{"poweroffId":2020021531020021,"sgpoweroffId":null,"subsName":"","lineName":"10kV彭凤H508线","pubTranName":"窑北村地质队公变,申达化妆品厂2,国发建材经营部,煤炭地质局综合物探测量队,杭州余杭瓶窑新星塑料厂6110118210,","scope":"浙江省-杭州市-余杭区-瓶窑镇-杨梅坞社区-樟树路253路;瓶窑镇(杭州余杭瓶窑新星塑料厂,杭州海煌实业有限公司,浙江煤炭地质局综合物探测量队,杭州申达化妆品包装有限公司)","startTime":"2020-02-15 08:02:00","stopDate":"2020-02-15 10:02:00","orgNo":"3340140","typeCode":"电网故障停限电","poweroffArea":"35kV瓶镇变:彭凤H508线北湖砖厂分线开关后段","poweroffReason":"高压开关跳闸","powerTime":"2020-02-15 09:50:00","powerComm":"已送电","subsNo":"","lineNo":"","tgNo":"","tgName":null,"infoStatus":"1","orgName":"国网浙江杭州市余杭区供电有限公司","typeName":null,"infoStatusName":null,"dateDay":null,"orgNos":null,"nowTime":null,"countyName":null,"streetName":null,"villageName":null,"roadName":null,"communityName":null,"tranName":null,"sdLineName":null,"cityCode":"3340140","cityName":"国网浙江杭州市余杭区供电有限公司","provinceCode":null,"stopTime":"2020-02-15 10:02:00","powerType":"全部","powerOffArea":"35kV瓶镇变:彭凤H508线北湖砖厂分线开关后段","powerOffReason":"高压开关跳闸","powerOffId":"2020021531020021"},{"poweroffId":2020021531020019,"sgpoweroffId":null,"subsName":"","lineName":"10kV福团A463线","pubTranName":"团结村10#变,","scope":"浙江省-杭州市-萧山区-党湾镇-团结行政村-团结自然村、浙江省杭州市萧山区党湾镇团结行政村团结自然村16组31号一带","startTime":"2020-02-15 06:38:41","stopDate":"2020-02-15 09:00:41","orgNo":"3340130","typeCode":"电网故障停限电","poweroffArea":"110kV幸福变:福团A463线-团结村10#变台区低压开关","poweroffReason":"(低压停电信息)低压漏电保护器短路故障","powerTime":"2020-02-15 08:20:44","powerComm":"已送电","subsNo":"","lineNo":"","tgNo":"","tgName":null,"infoStatus":"1","orgName":"国网浙江杭州市萧山区供电有限公司","typeName":null,"infoStatusName":null,"dateDay":null,"orgNos":null,"nowTime":null,"countyName":null,"streetName":null,"villageName":null,"roadName":null,"communityName":null,"tranName":null,"sdLineName":null,"cityCode":"3340130","cityName":"国网浙江杭州市萧山区供电有限公司","provinceCode":null,"stopTime":"2020-02-15 09:00:41","powerType":"全部","powerOffArea":"110kV幸福变:福团A463线-团结村10#变台区低压开关","powerOffReason":"(低压停电信息)低压漏电保护器短路故障","powerOffId":"2020021531020019"},{"poweroffId":2020021531020008,"sgpoweroffId":null,"subsName":"","lineName":"10kV工厂D125线","pubTranName":"富阳市路灯安装维修管理所1#变,富阳市洪泰胶木电器有限公司,金塑机械,谈山1#公变,塔山村6#城北三里亭公变,方圆塑机2#变,城投福利中心1#变,塔山村2#城北罗家公变,富阳大山纸盒厂,杭州桑尼能源科技有限公司富阳分公司,杭州裕华钢网有限公司1#,杭州富阳区新登镇月琴家庭农场1#变,杭州中软塑胶有限公司,塔山村3#城北孝弯里公变,亿源实业2#变,杭州佳瑞五金制品有限公司,杭州富阳美术印刷有限公司1#变,塔山村1号城北钢办山公变,杭州裕华钢网有限公司2#,轻奢纸业1#变,方圆塑机1#变,塔山村5#城北七家坞公变,杭州富阳博纳水净化设备有限公司,新登建设1#,鑫鹏旧货贸易1#变,亿源实业1#变,富阳威佛尔塑机有限公司,天龙皮业,塔山村3号朱家公变,富阳市新登镇成人文化技术学校,新登建设2#,","scope":"浙江省-杭州市-富阳区-新登镇-塔山行政村(城北自然村,朱家自然村),新登镇-惠来社区(塔山朱家,塔山村,登城北路,塔山童家,新兴西路,工厂路,塔山湾),新登镇(乘庄行政村-牧场自然村,双江行政村-双江自然村,登云社区-新兴西路,双庙行政村-双庙自然村);新登镇(杭州富阳洪泰胶木电器有限公司,富阳市新登镇成人文化技术学校,杭州富阳城市照明工程有限公司,杭州长森五金制品有限公司,杭州富阳新登城镇建设投资集团有限公司,杭州富阳新登小城市建设有限公司,杭州富阳鑫鹏旧货贸易有限公司,杭州富阳博纳水净化设备有限公司,杭州威佛尔建材有限公司,杭州裕华钢网有限公司,杭州富阳大山纸盒厂,杭州桑尼能源科技股份有限公司富阳分公司,杭州方圆塑机股份有限公司,杭州富阳金塑机械有限公司,杭州富阳美术印刷有限公司,杭州天龙皮业有限公司,杭州中软塑胶有限公司,杭州富阳亿源实业有限公司,杭州富阳区新登镇月琴家庭农场,杭州轻奢纸业有限公司)","startTime":"2020-02-15 06:27:00","stopDate":"2020-02-15 08:27:00","orgNo":"3340170","typeCode":"电网故障停限电","poweroffArea":"110kV新登变:工厂D125线工厂D1252开关后段","poweroffReason":"高压开关跳闸","powerTime":"2020-02-15 07:28:07","powerComm":"已送电","subsNo":"","lineNo":"","tgNo":"","tgName":null,"infoStatus":"1","orgName":"国网浙江杭州市富阳区供电公司","typeName":null,"infoStatusName":null,"dateDay":null,"orgNos":null,"nowTime":null,"countyName":null,"streetName":null,"villageName":null,"roadName":null,"communityName":null,"tranName":null,"sdLineName":null,"cityCode":"3340170","cityName":"国网浙江杭州市富阳区供电公司","provinceCode":null,"stopTime":"2020-02-15 08:27:00","powerType":"全部","powerOffArea":"110kV新登变:工厂D125线工厂D1252开关后段","powerOffReason":"高压开关跳闸","powerOffId":"2020021531020008"},{"poweroffId":2020021531020003,"sgpoweroffId":null,"subsName":"","lineName":"10kV紫阳6347线","pubTranName":"大马弄变,","scope":"浙江省-杭州市-上城区-紫阳街道-太庙社区(大马弄,察院前巷,方井弄,勤远里,大马厂巷,太庙巷)","startTime":"2020-02-15 03:07:42","stopDate":"2020-02-15 06:00:00","orgNo":"3340101","typeCode":"电网故障停限电","poweroffArea":"110kV滨江变:紫阳6347线大马弄变配变","poweroffReason":"高压开关跳闸 原停电结束时间为2020-02-15 07:07:00,为减少客户停电时间,加快工作进度,提前送电,现变更停电结束时间为2020-02-15 06:00:00","powerTime":"2020-02-15 05:32:33","powerComm":"已送电","subsNo":"","lineNo":"","tgNo":"","tgName":null,"infoStatus":"1","orgName":"浙江杭州电力客户服务中心","typeName":null,"infoStatusName":null,"dateDay":null,"orgNos":null,"nowTime":null,"countyName":null,"streetName":null,"villageName":null,"roadName":null,"communityName":null,"tranName":null,"sdLineName":null,"cityCode":"3340101","cityName":"浙江杭州电力客户服务中心","provinceCode":null,"stopTime":"2020-02-15 06:00:00","powerType":"全部","powerOffArea":"110kV滨江变:紫阳6347线大马弄变配变","powerOffReason":"高压开关跳闸 原停电结束时间为2020-02-15 07:07:00,为减少客户停电时间,加快工作进度,提前送电,现变更停电结束时间为2020-02-15 06:00:00","powerOffId":"2020021531020003"},{"poweroffId":2020021431020096,"sgpoweroffId":null,"subsName":"","lineName":"10kV亿家H423线","pubTranName":"杭州市余杭区交通重点工程建设管理处,杭州保欣置业有限公司,杭州保欣置业有限公司,杭州保欣置业有限公司,排污处理厂,杭州保欣置业有限公司,杭州良渚文化城投资有限公司,杭州保欣置业有限公司,杭州保欣置业有限公司,浙江荣辉建设有限公司,杭州保欣置业有限公司,","scope":"浙江省-杭州市-余杭区-良渚街道-良渚文化村社区(浙江荣辉建设有限公司,杭州良渚文化城投资有限公司),良渚街道(七贤桥行政村-杭州余杭城西净水有限公司,亲亲家园社区-杭州保欣置业有限公司,杜甫行政村-杭州市余杭区公路管理处)","startTime":"2020-02-14 19:19:10","stopDate":"2020-02-14 21:30:00","orgNo":"3340140","typeCode":"电网故障停限电","poweroffArea":"110kV勾庄变:亿家H423线-良渚组团基建一分线开关后段","poweroffReason":"高压开关跳闸","powerTime":"2020-02-14 20:55:00","powerComm":"已送电","subsNo":"","lineNo":"","tgNo":"","tgName":null,"infoStatus":"1","orgName":"国网浙江杭州市余杭区供电有限公司","typeName":null,"infoStatusName":null,"dateDay":null,"orgNos":null,"nowTime":null,"countyName":null,"streetName":null,"villageName":null,"roadName":null,"communityName":null,"tranName":null,"sdLineName":null,"cityCode":"3340140","cityName":"国网浙江杭州市余杭区供电有限公司","provinceCode":null,"stopTime":"2020-02-14 21:30:00","powerType":"全部","powerOffArea":"110kV勾庄变:亿家H423线-良渚组团基建一分线开关后段","powerOffReason":"高压开关跳闸","powerOffId":"2020021431020096"},{"poweroffId":2020021431020095,"sgpoweroffId":null,"subsName":"","lineName":"10kV明星D424线","pubTranName":"陆家浦3#兴陆路公变1,明星村10号祠堂旁公变,陆家浦1号兴陆北路公变,湖上沙5号中埭公变,陆家浦村6号金家通畈公变,民建村8号倪家公变,湖上沙2#后埭公变,民建村1#东公变,中铁二十五局集团有限公司2#变,中铁二十五局集团有限公司1#变,民建村10号祠堂旁公变,杭州市富阳区人民政府东洲街道办事处 2#,民建村2号中公变,民建村7号四八九公变,民建村9号新区公变,浙江宏拓建设有限公司1#变,北支江3#路灯变,杭州市富阳区东洲中学,杭州恒泰建设工程有限公司2#变,东州初山排涝站,民建村4#村中公变,民建村（2）,明星村8#倪赵公变1,民建村3#西公变,湖上沙1号中埭公变,中铁二十五局集团有限公司3#变,杭州恒泰建设工程有限公司1#变,大同村（前华村）,明星村1#塘外公变,民建村6号邵家公变,杭州市公安局富阳区分局1#变,","scope":"浙江省-杭州市-富阳区-东洲街道-东洲行政村-湖上沙自然村,东洲街道-陆家浦行政村(陆家浦自然村,陆家浦村),东洲街道-建华行政村(民建自然村,明星自然村);东洲街道(大同村(前华村),东州初山排涝站,民建村,浙江宏拓建设有限公司,杭州恒泰建设工程有限公司,杭州市富阳区东洲中学,杭州富阳城市照明工程有限公司,杭州市公安局富阳区分局,中铁二十五局集团有限公司)","startTime":"2020-02-14 19:03:00","stopDate":"2020-02-14 21:33:00","orgNo":"3340170","typeCode":"电网故障停限电","poweroffArea":"110kV东洲变:明星D424线明星D4243开关后段","poweroffReason":"高压开关跳闸 原停电结束时间为2020-02-14 21:03:00,因抢修难度较大原因,现变更停电结束时间为2020-02-14 21:33:00","powerTime":"2020-02-14 20:49:37","powerComm":"已送电","subsNo":"","lineNo":"","tgNo":"","tgName":null,"infoStatus":"1","orgName":"国网浙江杭州市富阳区供电公司","typeName":null,"infoStatusName":null,"dateDay":null,"orgNos":null,"nowTime":null,"countyName":null,"streetName":null,"villageName":null,"roadName":null,"communityName":null,"tranName":null,"sdLineName":null,"cityCode":"3340170","cityName":"国网浙江杭州市富阳区供电公司","provinceCode":null,"stopTime":"2020-02-14 21:33:00","powerType":"全部","powerOffArea":"110kV东洲变:明星D424线明星D4243开关后段","powerOffReason":"高压开关跳闸 原停电结束时间为2020-02-14 21:03:00,因抢修难度较大原因,现变更停电结束时间为2020-02-14 21:33:00","powerOffId":"2020021431020095"},{"poweroffId":2020021431020060,"sgpoweroffId":null,"subsName":"","lineName":"10kV小岭T104线","pubTranName":"迎宾路1号公变,","scope":"浙江省-杭州市-桐庐县-桐君街道-迎宾社区(迎宾路13幢）","startTime":"2020-02-14 12:23:12","stopDate":"2020-02-14 13:30:12","orgNo":"3340150","typeCode":"电网故障停限电","poweroffArea":"110kV桐庐变:小岭T104线-迎宾路1号公变后段","poweroffReason":"(低压停电信息)低压开关跳闸","powerTime":"2020-02-14 13:14:56","powerComm":"已送电","subsNo":"","lineNo":"","tgNo":"","tgName":null,"infoStatus":"1","orgName":"国网浙江桐庐县供电公司","typeName":null,"infoStatusName":null,"dateDay":null,"orgNos":null,"nowTime":null,"countyName":null,"streetName":null,"villageName":null,"roadName":null,"communityName":null,"tranName":null,"sdLineName":null,"cityCode":"3340150","cityName":"国网浙江桐庐县供电公司","provinceCode":null,"stopTime":"2020-02-14 13:30:12","powerType":"全部","powerOffArea":"110kV桐庐变:小岭T104线-迎宾路1号公变后段","powerOffReason":"(低压停电信息)低压开关跳闸","powerOffId":"2020021431020060"},{"poweroffId":2020021431020015,"sgpoweroffId":null,"subsName":"","lineName":"10kV宏福D214线","pubTranName":"杭州富阳野风乐多房地产开发有限公司10#变,杭州富阳野风乐多房地产开发有限公司1#变,虎哨杏村3号麻墩公变,杭州富阳野风乐多房地产开发有限公司1#变,虎哨杏村7号麻墩公变,虎哨杏村2#溪西公变,杭州富阳野风乐多房地产开发有限公司1#变,杭州富阳银湖新区建设有限公司1#变,杭州富阳野风乐多房地产开发有限公司1#变,虎哨杏村6号溪西2公变,受降村受降溪2#公变,杭州富阳野风乐多房地产开发有限公司基建变8,富阳区银湖街道杭州富阳野风乐多房地产开发有限公司基建七,杭州富阳野风乐多房地产开发有限公司1#变,","scope":"浙江省-杭州市-富阳区-银湖街道-受降行政村(中秋自然村,上宋自然村),银湖街道-新常行政村(虎啸杏自然村,溪西自然村);银湖街道(杭州富阳野风乐多房地产开发有限公司,杭州富阳银湖新区建设有限公司)","startTime":"2020-02-14 08:21:00","stopDate":"2020-02-14 10:21:00","orgNo":"3340170","typeCode":"电网故障停限电","poweroffArea":"110kV银湖变:宏福D214线虎啸杏一分线后段","poweroffReason":"高压开关跳闸","powerTime":"2020-02-14 09:22:29","powerComm":"已送电","subsNo":"","lineNo":"","tgNo":"","tgName":null,"infoStatus":"1","orgName":"国网浙江杭州市富阳区供电公司","typeName":null,"infoStatusName":null,"dateDay":null,"orgNos":null,"nowTime":null,"countyName":null,"streetName":null,"villageName":null,"roadName":null,"communityName":null,"tranName":null,"sdLineName":null,"cityCode":"3340170","cityName":"国网浙江杭州市富阳区供电公司","provinceCode":null,"stopTime":"2020-02-14 10:21:00","powerType":"全部","powerOffArea":"110kV银湖变:宏福D214线虎啸杏一分线后段","powerOffReason":"高压开关跳闸","powerOffId":"2020021431020015"},{"poweroffId":2020021331020060,"sgpoweroffId":null,"subsName":"","lineName":"10kV上堡9172线","pubTranName":"上堡六,","scope":"浙江省-杭州市-西湖区-双浦镇-双灵行政村-双灵村道-上堡组村","startTime":"2020-02-13 22:05:00","stopDate":"2020-02-14 00:25:00","orgNo":"3340101","typeCode":"电网故障停限电","poweroffArea":"110kV象山变:上堡9172线上堡六配变","poweroffReason":"高压开关跳闸 原停电结束时间为2020-02-14 00:05:00,因由于施工现场环境比较复杂，存在不确定因素,现变更停电结束时间为2020-02-14 00:25:00","powerTime":"2020-02-13 23:53:03","powerComm":"已送电","subsNo":"","lineNo":"","tgNo":"","tgName":null,"infoStatus":"1","orgName":"浙江杭州电力客户服务中心","typeName":null,"infoStatusName":null,"dateDay":null,"orgNos":null,"nowTime":null,"countyName":null,"streetName":null,"villageName":null,"roadName":null,"communityName":null,"tranName":null,"sdLineName":null,"cityCode":"3340101","cityName":"浙江杭州电力客户服务中心","provinceCode":null,"stopTime":"2020-02-14 00:25:00","powerType":"全部","powerOffArea":"110kV象山变:上堡9172线上堡六配变","powerOffReason":"高压开关跳闸 原停电结束时间为2020-02-14 00:05:00,因由于施工现场环境比较复杂，存在不确定因素,现变更停电结束时间为2020-02-14 00:25:00","powerOffId":"2020021331020060"}],"pageModel":{"pageNow":537,"totalCount":17789,"totalPage":1779,"tableRows":0,"pageCount":10,"beginCount":5360},"isExperi":"1"}