{"message":"","today":"2020-06-15","seleList":[{"poweroffId":2020021331020056,"sgpoweroffId":null,"subsName":"","lineName":"10kV浙亲T464线","pubTranName":"御溪名都1号公变,","scope":"浙江省-杭州市-桐庐县-城南街道-梅林社区-瑶琳路-御溪名都","startTime":"2020-02-13 18:31:22","stopDate":"2020-02-13 21:31:22","orgNo":"3340150","typeCode":"电网故障停限电","poweroffArea":"110kV下杭变:浙亲T464线-御溪名都1号公变后段","poweroffReason":"(低压停电信息)低压开关跳闸","powerTime":"2020-02-13 21:10:18","powerComm":"已送电","subsNo":"","lineNo":"","tgNo":"","tgName":null,"infoStatus":"1","orgName":"国网浙江桐庐县供电公司","typeName":null,"infoStatusName":null,"dateDay":null,"orgNos":null,"nowTime":null,"countyName":null,"streetName":null,"villageName":null,"roadName":null,"communityName":null,"tranName":null,"sdLineName":null,"cityCode":"3340150","cityName":"国网浙江桐庐县供电公司","provinceCode":null,"stopTime":"2020-02-13 21:31:22","powerType":"全部","powerOffArea":"110kV下杭变:浙亲T464线-御溪名都1号公变后段","powerOffReason":"(低压停电信息)低压开关跳闸","powerOffId":"2020021331020056"},{"poweroffId":2020021331020045,"sgpoweroffId":null,"subsName":"","lineName":"10kV联和Y504线","pubTranName":"江湾村坑坎台区,","scope":"浙江省-杭州市-建德市-下涯镇-江湾行政村(坑坎自然村,江湾新村自然村),下涯镇-马目行政村(和睦村自然村,塘壮坞自然村),下涯镇(丰和行政村-朱家自然村,联和行政村-联横自然村)一带用户","startTime":"2020-02-13 16:13:00","stopDate":"2020-02-13 17:30:00","orgNo":"3340180","typeCode":"电网故障停限电","poweroffArea":"110kV沿口变:联和Y504线-江湾村坑坎台区后段","poweroffReason":"(低压停电信息)低压开关跳闸 原停电结束时间为2020-02-13 18:30:00,为减少客户停电时间,加快工作进度,提前送电,现变更停电结束时间为2020-02-13 17:30:00","powerTime":"2020-02-13 17:07:00","powerComm":"已送电","subsNo":"","lineNo":"","tgNo":"","tgName":null,"infoStatus":"1","orgName":"国网浙江建德市供电有限公司","typeName":null,"infoStatusName":null,"dateDay":null,"orgNos":null,"nowTime":null,"countyName":null,"streetName":null,"villageName":null,"roadName":null,"communityName":null,"tranName":null,"sdLineName":null,"cityCode":"3340180","cityName":"国网浙江建德市供电有限公司","provinceCode":null,"stopTime":"2020-02-13 17:30:00","powerType":"全部","powerOffArea":"110kV沿口变:联和Y504线-江湾村坑坎台区后段","powerOffReason":"(低压停电信息)低压开关跳闸 原停电结束时间为2020-02-13 18:30:00,为减少客户停电时间,加快工作进度,提前送电,现变更停电结束时间为2020-02-13 17:30:00","powerOffId":"2020021331020045"},{"poweroffId":2020021331020041,"sgpoweroffId":null,"subsName":"","lineName":"10kV通三C763线","pubTranName":"新城香悦公馆8#公变,","scope":"浙江省-杭州市-萧山区-北干街道-塘湾行政村-金城路萧悦中御府、新城香悦公馆、香悦奥府一带","startTime":"2020-02-13 14:46:56","stopDate":"2020-02-13 17:46:56","orgNo":"3340130","typeCode":"电网故障停限电","poweroffArea":"110kV通惠变:通三C763线-新城香悦公馆8#公变后段","poweroffReason":"高压开关跳闸","powerTime":"2020-02-13 16:48:16","powerComm":"已送电","subsNo":"","lineNo":"","tgNo":"","tgName":null,"infoStatus":"1","orgName":"国网浙江杭州市萧山区供电有限公司","typeName":null,"infoStatusName":null,"dateDay":null,"orgNos":null,"nowTime":null,"countyName":null,"streetName":null,"villageName":null,"roadName":null,"communityName":null,"tranName":null,"sdLineName":null,"cityCode":"3340130","cityName":"国网浙江杭州市萧山区供电有限公司","provinceCode":null,"stopTime":"2020-02-13 17:46:56","powerType":"全部","powerOffArea":"110kV通惠变:通三C763线-新城香悦公馆8#公变后段","powerOffReason":"高压开关跳闸","powerOffId":"2020021331020041"},{"poweroffId":2020021331020035,"sgpoweroffId":null,"subsName":"","lineName":"10kV胡林H538线","pubTranName":"长命村郑村公变,长命村龙腰塘公变,杭州恒旺塑胶染料有限公司6110108090,长命泵站,长命村俞家角公变,长命村和尚斗1号公变,锐智展柜,长命村胡林老村委公变,杭州鼎彩橡塑制品有限公司6110108116,正威建材,长命村翁家斗公变,长命股份611110285801#专变,长命村港东村公变,","scope":"浙江省-杭州市-余杭区-瓶窑镇-长命行政村(和尚斗自然村,翁家头自然村,长命桥,胡林老自然村,龙腰塘自然村,俞家角自然村,庄地自然村,港东自然村,郑自然村);瓶窑镇(杭州恒旺塑胶染料有限公司,杭州鼎彩橡塑制品有限公司,杭州余杭城西净水有限公司,杭州余杭长命股份经济合作社,杭州志弘机械有限公司)","startTime":"2020-02-13 13:56:00","stopDate":"2020-02-13 17:00:00","orgNo":"3340140","typeCode":"电网故障停限电","poweroffArea":"110kV凤山变:胡林H538线祥安开关站祥安开关站9#开关后段","poweroffReason":"高压开关跳闸 原停电结束时间为2020-02-13 15:56:00,因故障复杂原因,现变更停电结束时间为2020-02-13 17:00:00","powerTime":"2020-02-13 16:02:00","powerComm":"已送电","subsNo":"","lineNo":"","tgNo":"","tgName":null,"infoStatus":"1","orgName":"国网浙江杭州市余杭区供电有限公司","typeName":null,"infoStatusName":null,"dateDay":null,"orgNos":null,"nowTime":null,"countyName":null,"streetName":null,"villageName":null,"roadName":null,"communityName":null,"tranName":null,"sdLineName":null,"cityCode":"3340140","cityName":"国网浙江杭州市余杭区供电有限公司","provinceCode":null,"stopTime":"2020-02-13 17:00:00","powerType":"全部","powerOffArea":"110kV凤山变:胡林H538线祥安开关站祥安开关站9#开关后段","powerOffReason":"高压开关跳闸 原停电结束时间为2020-02-13 15:56:00,因故障复杂原因,现变更停电结束时间为2020-02-13 17:00:00","powerOffId":"2020021331020035"},{"poweroffId":2020021331020033,"sgpoweroffId":null,"subsName":"","lineName":"10kV下城T272线","pubTranName":"樟青塘1号公变,城南西路1号公变,桐庐创杰针织厂,三亚宿舍1号公变,杭州科德磁业有限公司宿舍,普罗旺斯2号公变,桐庐铝箔加工厂,普罗旺斯4号公变,瑞得寝具,普罗旺斯12号公变,下城1号公变,杭州科德磁业有限公司,桐庐中科数控设备有限公司,富春发电,普罗旺斯6号公变,桐庐明睿制衣有限公司变压器,桐庐励德制衣有限公司,杭州皇越实业有限公司（宿舍）,普罗旺斯8号公变,桐庐远鹏印务有限公司,普罗旺斯13号公变,浙江兴腾物业管理有限公司1,普罗旺斯1号公变,浙江恒立电气科技有限公司变压器,杭州大力瑶泉机械制造有限公司,桐庐县环境卫生管理处,杭州大力瑶泉机械制造有限公司机械,普罗旺斯3号公变,红龙建材,普罗旺斯7号公变,桐庐万帮针织厂,普罗旺斯10号公变,桐庐电力开发有限公司,江南人家2号公变,杭州皇越实业有限公司,普罗旺斯5号公变,普罗旺斯11号公变,社会福利院,桐庐成诚钢构材料有限公司,江南人家1号公变,","scope":"浙江省-杭州市-桐庐县-城南街道-兰田行政村(樟青塘自然村,樟青塘路,兰田自然村),城南街道-金中行政村(青山自然村,下城自然村,尖端路),城南街道-中杭社区(城南路,尖端路,乔林路),城南街道(金溪行政村-城南西路,东兴行政村-东兴路);城南街道(桐庐中通速递有限公司,杭州皇越实业有限公司,杭州富春江中药饮片有限公司,浙江恒立电气科技有限公司,杭州大力瑶泉机械制造有限公司,桐庐县环境卫生管理处,桐庐中科数控设备有限公司,桐庐创杰针织厂,桐庐红龙建材工艺精品厂,桐庐万帮针织厂,桐庐康君康复医院有限公司,桐庐远鹏印务有限公司,桐庐铝箔加工厂,杭州皇越实业有限公司(宿舍),桐庐成诚钢构材料有限公司,桐庐恒通电缆管道有限公司,桐庐县社会福利中心,浙江兴腾物业管理有限公司,桐庐电力开发有限公司,杭州科德磁业有限公司)，徐溪村，普罗旺斯小区，高家一带","startTime":"2020-02-13 13:41:00","stopDate":"2020-02-13 15:41:00","orgNo":"3340150","typeCode":"电网故障停限电","poweroffArea":"35kV三合变:下城T272线青城开关站下城T272线后段","poweroffReason":"高压开关跳闸","powerTime":"2020-02-13 15:22:40","powerComm":"已送电","subsNo":"","lineNo":"","tgNo":"","tgName":null,"infoStatus":"1","orgName":"国网浙江桐庐县供电公司","typeName":null,"infoStatusName":null,"dateDay":null,"orgNos":null,"nowTime":null,"countyName":null,"streetName":null,"villageName":null,"roadName":null,"communityName":null,"tranName":null,"sdLineName":null,"cityCode":"3340150","cityName":"国网浙江桐庐县供电公司","provinceCode":null,"stopTime":"2020-02-13 15:41:00","powerType":"全部","powerOffArea":"35kV三合变:下城T272线青城开关站下城T272线后段","powerOffReason":"高压开关跳闸","powerOffId":"2020021331020033"},{"poweroffId":2020021331020028,"sgpoweroffId":null,"subsName":"","lineName":"10kV三桥G652线","pubTranName":"长树8组（柴塘河）公变,长树5组（阿娘桥）公变,长树7组（维尔堰）公变,长树4组（老村委）公变,长树11组（王家门）公变,长树2组（李家石桥）公变,长树10组(高地廊)1号公变,丁塘4组（红联）公变,丁塘4组（贺家堰）公变,长树7组（梅家角）公变,女儿港闸站,下塘河公变,长树6组公变,","scope":"浙江省-杭州市-余杭区-临平街道-邱山社区-沿山路,东湖街道-红旗行政村(白毛墩自然村,红旗,弗儿堰自然村),南苑街道-长树社区(梅家角自然村,长树,南袁家自然村,郎家里自然村,长树自然村,柴塘头自然村,高地廊自然村,孙界埭自然村,李家埭自然村,杨家埭自然村,沈埭自然村,环桥头自然村,王家门自然村,长树廊自然村,十八井自然村),星桥街道(太平社区-藕花洲大街西段,汤家社区-汤家),东湖街道(庙东社区-九曲营路,丁塘行政村-丁塘,丁塘社区-丁塘,梅堰社区-红丰路,红旗社区-红旗,新塘行政村-新塘自然村),南苑街道(联盟社区-迎宾路,万常社区-万常);南苑街道-杭州市余杭区河道建设管理中心","startTime":"2020-02-13 12:30:58","stopDate":"2020-02-13 15:30:00","orgNo":"3340140","typeCode":"电网故障停限电","poweroffArea":"110kV南苑变:三桥G652线长树7组分线开关后段","poweroffReason":"高压开关跳闸 原停电结束时间为2020-02-13 14:30:58,因故障情况复杂原因,现变更停电结束时间为2020-02-13 15:30:00","powerTime":"2020-02-13 14:45:00","powerComm":"已送电","subsNo":"","lineNo":"","tgNo":"","tgName":null,"infoStatus":"1","orgName":"国网浙江杭州市余杭区供电有限公司","typeName":null,"infoStatusName":null,"dateDay":null,"orgNos":null,"nowTime":null,"countyName":null,"streetName":null,"villageName":null,"roadName":null,"communityName":null,"tranName":null,"sdLineName":null,"cityCode":"3340140","cityName":"国网浙江杭州市余杭区供电有限公司","provinceCode":null,"stopTime":"2020-02-13 15:30:00","powerType":"全部","powerOffArea":"110kV南苑变:三桥G652线长树7组分线开关后段","powerOffReason":"高压开关跳闸 原停电结束时间为2020-02-13 14:30:58,因故障情况复杂原因,现变更停电结束时间为2020-02-13 15:30:00","powerOffId":"2020021331020028"},{"poweroffId":2020021331020025,"sgpoweroffId":null,"subsName":"","lineName":"10kV家东T565线","pubTranName":"凤岗村3号公变,","scope":"浙江省-杭州市-桐庐县-凤川街道-翙岗行政村(凤岗自然村,凤镇自然村,石桥自然村)","startTime":"2020-02-13 11:45:08","stopDate":"2020-02-13 13:45:08","orgNo":"3340150","typeCode":"电网故障停限电","poweroffArea":"110kV旺家变:家东T565线-凤岗村3号公变后段","poweroffReason":"(低压停电信息)低压开关跳闸","powerTime":"2020-02-13 13:14:55","powerComm":"已送电","subsNo":"","lineNo":"","tgNo":"","tgName":null,"infoStatus":"1","orgName":"国网浙江桐庐县供电公司","typeName":null,"infoStatusName":null,"dateDay":null,"orgNos":null,"nowTime":null,"countyName":null,"streetName":null,"villageName":null,"roadName":null,"communityName":null,"tranName":null,"sdLineName":null,"cityCode":"3340150","cityName":"国网浙江桐庐县供电公司","provinceCode":null,"stopTime":"2020-02-13 13:45:08","powerType":"全部","powerOffArea":"110kV旺家变:家东T565线-凤岗村3号公变后段","powerOffReason":"(低压停电信息)低压开关跳闸","powerOffId":"2020021331020025"},{"poweroffId":2020021331020023,"sgpoweroffId":null,"subsName":"","lineName":"10kV陵上Y133线","pubTranName":"乾一村莲塘蓬台区,","scope":"浙江省-杭州市-建德市-乾潭镇-乾一行政村(西桥自然村,莲塘蓬自然村)一带用户","startTime":"2020-02-13 10:33:00","stopDate":"2020-02-13 12:00:00","orgNo":"3340180","typeCode":"电网故障停限电","poweroffArea":"110kV乾潭变:陵上Y133线-乾一村莲塘蓬台区后段","poweroffReason":"(低压停电信息)低压电缆烧毁","powerTime":"2020-02-13 11:05:00","powerComm":"已送电","subsNo":"","lineNo":"","tgNo":"","tgName":null,"infoStatus":"1","orgName":"国网浙江建德市供电有限公司","typeName":null,"infoStatusName":null,"dateDay":null,"orgNos":null,"nowTime":null,"countyName":null,"streetName":null,"villageName":null,"roadName":null,"communityName":null,"tranName":null,"sdLineName":null,"cityCode":"3340180","cityName":"国网浙江建德市供电有限公司","provinceCode":null,"stopTime":"2020-02-13 12:00:00","powerType":"全部","powerOffArea":"110kV乾潭变:陵上Y133线-乾一村莲塘蓬台区后段","powerOffReason":"(低压停电信息)低压电缆烧毁","powerOffId":"2020021331020023"},{"poweroffId":2020021331020021,"sgpoweroffId":null,"subsName":"","lineName":"10kV湾镇A458线","pubTranName":"新前村7#变,新前村2#变,杭州嘉和减速机有限公司,梅东村11#变,党湾营业所13#变,新前村10#变,新梅村5#变,梅东村17#变,永安村5#变,新前村5#变,新前村3#变,新前村12#变,永安村4#变,杭州乐士电器有限公司,新前村9#变,镇中村24#变,新前村1#变,梅东村9#变,永安村6#变,杭州特力铸造厂,中国电信股份有限公司杭州萧山区分公司（党湾）,杭州萧山党湾飞跃化纤有限公司,梅东村3#变,党湾供电营业所14#变,萧山市党湾镇李强布厂,杭州欧淋卫浴洁具制造有限公司,杭州康居耀鑫水泥制品厂,永安村2#变,杭州定江机械有限公司,新前村4#变,梅东村10#变,新前村13#变,永安村7#变,永安村8#变,永安村3#变,新前村6#变,杭州杰晟纺织有限公司变压器,党湾供电营业所12#变,新梅村3#变,永安村1#变,梅东村18#变,杭州科友汽车零部件有限公司,新前村11#变,新前村8#变,梅东村5#变,梅东村7#变,杭州讯安物业有限公司,梅东村1#变,梅东村16#变,杭州林森建筑工程有限公司,梅东村12#变,梅东村2#变,","scope":"浙江省-杭州市-萧山区-党湾镇-梅东行政村(梅东自然村,新农村),党湾镇-永安行政村(新农村,永安自然村,梅东自然村),党湾镇-卫东桥社区(党山湾路,永安,兴乐路,伟老线,卫东桥,桥森弄,镇中路,镇中村,政和路,富民弄),党湾镇-新前行政村(新前自然村,新农村),党湾镇(新梅行政村-新梅自然村,镇中行政村-镇中自然村);党湾镇-镇中行政村(杭州宽飞纺织有限公司,杭州萧山党湾飞跃化纤有限公司,杭州林森建筑工程有限公司,杭州康居耀鑫水泥制品厂),党湾镇-卫东桥社区(中国电信股份有限公司杭州萧山区分公司,杭州科友汽车零部件有限公司),党湾镇-梅东行政村(杭州欧淋卫浴洁具制造有限责任公司,萧山市党湾镇李强布厂,杭州讯安物业有限公司),党湾镇-永安行政村(杭州嘉和减速机有限公司,杭州乐士电器有限公司),党湾镇(新梅行政村-杭州特力铸造厂,新前行政村-杭州定江机械有限公司、党湾镇卫东桥社区富民弄46号、老街、党湾镇新梅行政村新梅自然村17组4号一带","startTime":"2020-02-13 09:36:32","stopDate":"2020-02-13 11:20:32","orgNo":"3340130","typeCode":"电网故障停限电","poweroffArea":"110kV幸福变:湾镇A458线-湾镇A458线开关后段","poweroffReason":"高压柱上断路器短路故障 原停电结束时间为2020-02-13 13:39:32,为减少客户停电时间,加快工作进度,提前送电,现变更停电结束时间为2020-02-13 11:20:32","powerTime":"2020-02-13 10:35:06","powerComm":"已送电","subsNo":"","lineNo":"","tgNo":"","tgName":null,"infoStatus":"1","orgName":"国网浙江杭州市萧山区供电有限公司","typeName":null,"infoStatusName":null,"dateDay":null,"orgNos":null,"nowTime":null,"countyName":null,"streetName":null,"villageName":null,"roadName":null,"communityName":null,"tranName":null,"sdLineName":null,"cityCode":"3340130","cityName":"国网浙江杭州市萧山区供电有限公司","provinceCode":null,"stopTime":"2020-02-13 11:20:32","powerType":"全部","powerOffArea":"110kV幸福变:湾镇A458线-湾镇A458线开关后段","powerOffReason":"高压柱上断路器短路故障 原停电结束时间为2020-02-13 13:39:32,为减少客户停电时间,加快工作进度,提前送电,现变更停电结束时间为2020-02-13 11:20:32","powerOffId":"2020021331020021"},{"poweroffId":2020021331020020,"sgpoweroffId":null,"subsName":"","lineName":"10kV果园H403线","pubTranName":"良渚汽车技校,良渚遗址管委会,荀山村唐家头2号公变,荀山村唐家头1号公变,","scope":"浙江省-杭州市-余杭区-良渚街道-荀山行政村-荀山自然村;良渚街道(杭州市余杭区良渚镇人民政府,杭州交投机动车驾驶员培训有限公司)","startTime":"2020-02-13 09:10:00","stopDate":"2020-02-13 11:10:00","orgNo":"3340140","typeCode":"电网故障停限电","poweroffArea":"35kV良渚变:果园H403线汽校分线开关后段","poweroffReason":"高压开关跳闸","powerTime":"2020-02-13 10:28:00","powerComm":"已送电","subsNo":"","lineNo":"","tgNo":"","tgName":null,"infoStatus":"1","orgName":"国网浙江杭州市余杭区供电有限公司","typeName":null,"infoStatusName":null,"dateDay":null,"orgNos":null,"nowTime":null,"countyName":null,"streetName":null,"villageName":null,"roadName":null,"communityName":null,"tranName":null,"sdLineName":null,"cityCode":"3340140","cityName":"国网浙江杭州市余杭区供电有限公司","provinceCode":null,"stopTime":"2020-02-13 11:10:00","powerType":"全部","powerOffArea":"35kV良渚变:果园H403线汽校分线开关后段","powerOffReason":"高压开关跳闸","powerOffId":"2020021331020020"}],"pageModel":{"pageNow":538,"totalCount":17789,"totalPage":1779,"tableRows":0,"pageCount":10,"beginCount":5370},"isExperi":"1"}