{"message":"","today":"2020-06-15","seleList":[{"poweroffId":2020021331020014,"sgpoweroffId":null,"subsName":"","lineName":"10kV万市D338线","pubTranName":"万市集镇4#龙丘公变,万市集镇2#西门公变,万市镇10#百合嘉苑公变,万市集镇5#镇头公变,万市集镇3#朱村公变,杭州市富阳区万市社区卫生服务中心1#变,田源村3号童家桥公变,田源村1#田畈公变,田源村6#潘家公变,田源村9#钱家公变,田源村5#四公坞公变,万市集镇8#镇头桥公变,田源村8#石元里公变,田源村4#回坞公变,田源村2#弯里公变,杭州富阳远向锻压件厂1#变,杭州利园机械制造有限公司1#变,万市村4#泥坎坞公变,万市集镇10#和尚头公变,田源村11#黄地里公变变压器间隔配电变压器,万市集镇1#黄宅公变,田源村10#汪家公变,田源村7#钟家公变,杭州富阳五豪办公设备制造有限公司,中国电信股份有限公司富阳分公司（万市）,","scope":"浙江省-杭州市-富阳区-洞桥镇-贤德行政村-大年坞自然村,万市镇-田源行政村(田源自然村,田畈自然村,黄山上自然村,石元自然村,钟家自然村,落宅坞自然村,钱家自然村,汪家自然村,童家桥自然村,石源自然村,落宅自然村,回坞自然村,四公坞自然村,黄地里自然村,潘家自然村,弯里自然村,湾里自然村,落宅户自然村),万市镇-万市行政村(西门路自然村,黄宅自然村,万市路自然村,古田路自然村,镇府路自然村,古城路自然村,西门北路自然村,田圆路自然村,杜坞自然村,镇头自然村,上陈家自然村,下陈家自然村,枫树岭自然村,田畈自然村,骆家自然村,龙丘自然村,朱村自然村,万市自然村,野坞自然村,陈安自然村,西山下自然村,陈家自然村,冯家自然村,西门路72号),万市镇(何务行政村-下何务自然村,罗宅行政村-白粉墙自然村);万市镇-万市行政村(杭州富阳五豪办公设备制造有限公司,中国电信股份有限公司富阳分公司,杭州市富阳区万市社区卫生服务中心(杭州市富阳区万市人民医院)),万市镇-田源行政村(杭州富阳远向锻压件厂,杭州利园机械制造有限公司)","startTime":"2020-02-13 08:24:52","stopDate":"2020-02-13 12:24:52","orgNo":"3340170","typeCode":"电网故障停限电","poweroffArea":"110kV万市变:万市D338线-万市D3382开关后段","poweroffReason":"高压开关跳闸 原停电结束时间为2020-02-13 11:24:52,因抢修难度大原因,现变更停电结束时间为2020-02-13 12:24:52","powerTime":"2020-02-13 09:38:25","powerComm":"已送电，增加施工力量","subsNo":"","lineNo":"","tgNo":"","tgName":null,"infoStatus":"1","orgName":"国网浙江杭州市富阳区供电公司","typeName":null,"infoStatusName":null,"dateDay":null,"orgNos":null,"nowTime":null,"countyName":null,"streetName":null,"villageName":null,"roadName":null,"communityName":null,"tranName":null,"sdLineName":null,"cityCode":"3340170","cityName":"国网浙江杭州市富阳区供电公司","provinceCode":null,"stopTime":"2020-02-13 12:24:52","powerType":"全部","powerOffArea":"110kV万市变:万市D338线-万市D3382开关后段","powerOffReason":"高压开关跳闸 原停电结束时间为2020-02-13 11:24:52,因抢修难度大原因,现变更停电结束时间为2020-02-13 12:24:52","powerOffId":"2020021331020014"},{"poweroffId":2020021331020011,"sgpoweroffId":null,"subsName":"","lineName":"10kV小港H617线","pubTranName":"金泓置业8#基建变,金泓置业9#基建变,金泓置业6#基建变,金泓置业11#基建变,金泓置业5#基建变,金泓置业4#基建变,杨毕馆,金泓置业10#基建变,金泓置业7#基建变,杭州金泓置业有限公司,","scope":"浙江省-杭州市-余杭区-余杭街道(杭州金成文化旅游有限公司,杭州金泓置业有限公司)","startTime":"2020-02-13 07:45:00","stopDate":"2020-02-13 09:45:00","orgNo":"3340140","typeCode":"电网故障停限电","poweroffArea":"110kV桃源变:小港H617线杨馆开关站杨馆开关站馆特H6174线后段","poweroffReason":"高压开关跳闸","powerTime":"2020-02-13 09:11:49","powerComm":"已送电","subsNo":"","lineNo":"","tgNo":"","tgName":null,"infoStatus":"1","orgName":"国网浙江杭州市余杭区供电有限公司","typeName":null,"infoStatusName":null,"dateDay":null,"orgNos":null,"nowTime":null,"countyName":null,"streetName":null,"villageName":null,"roadName":null,"communityName":null,"tranName":null,"sdLineName":null,"cityCode":"3340140","cityName":"国网浙江杭州市余杭区供电有限公司","provinceCode":null,"stopTime":"2020-02-13 09:45:00","powerType":"全部","powerOffArea":"110kV桃源变:小港H617线杨馆开关站杨馆开关站馆特H6174线后段","powerOffReason":"高压开关跳闸","powerOffId":"2020021331020011"},{"poweroffId":2020021331020009,"sgpoweroffId":null,"subsName":"","lineName":"10kV汤家D418线","pubTranName":"富阳市路灯安装维修管理所1#变,汤家埠春安村11#公变,汤家埠1#埠头公变,汤家埠4号集镇公变,汤家埠村,汤家埠5号孙家公变,春安村2#新房公变,杭州润德车轮制造有限公司1#,杭州润德车轮制造有限公司2#,杭州市富阳区人民政府鹿山街道办事处2#变,杭州市富阳区人民政府鹿山街道办事处1#变,三山上里联合机埠,汤家埠村,富阳市鹿山街道汤家埠沙场,富阳市禹航新型建材有限公司,汤家埠2号闻家公变,","scope":"浙江省-杭州市-富阳区-鹿山街道-汤家埠行政村(闻家自然村,汤家埠自然村,王家自然村,新区自然村,春安自然村,大房自然村,埠头自然村,孙家自然村);鹿山街道(杭州市富阳区鹿山街道汤家埠村股份经济合作社,富阳市鹿山街道汤家埠沙场,杭州富阳禹航新型建材有限公司,杭州富阳城市照明工程有限公司,杭州市富阳区人民政府鹿山街道办事处,杭州润德车轮制造有限公司)","startTime":"2020-02-13 07:42:00","stopDate":"2020-02-13 14:42:00","orgNo":"3340170","typeCode":"电网故障停限电","poweroffArea":"110kV长春变:汤家D418线汤家D4181开关后段","poweroffReason":"高压开关跳闸 原停电结束时间为2020-02-13 12:42:00,因施工困难原因,现变更停电结束时间为2020-02-13 14:42:00","powerTime":"2020-02-13 12:47:29","powerComm":"已送电，增加施工力量","subsNo":"","lineNo":"","tgNo":"","tgName":null,"infoStatus":"1","orgName":"国网浙江杭州市富阳区供电公司","typeName":null,"infoStatusName":null,"dateDay":null,"orgNos":null,"nowTime":null,"countyName":null,"streetName":null,"villageName":null,"roadName":null,"communityName":null,"tranName":null,"sdLineName":null,"cityCode":"3340170","cityName":"国网浙江杭州市富阳区供电公司","provinceCode":null,"stopTime":"2020-02-13 14:42:00","powerType":"全部","powerOffArea":"110kV长春变:汤家D418线汤家D4181开关后段","powerOffReason":"高压开关跳闸 原停电结束时间为2020-02-13 12:42:00,因施工困难原因,现变更停电结束时间为2020-02-13 14:42:00","powerOffId":"2020021331020009"},{"poweroffId":2020021331020008,"sgpoweroffId":null,"subsName":"","lineName":"10kV状元D417线","pubTranName":"中铁三局集团第二工程有限公司24#变,浙江航驱汽车科技有限公司1#变,杭州申浙家禽有限公司,汤家埠3#南山公变,中铁三局集团第二工程有限公司 22#变,中铁三局集团第二工程有限公司1#变,中铁三局集团第二工程有限公司1#变,栋山村3#渠道公变,富阳市富春江水上运动器材厂,中铁三局集团第二工程有限公司1#变,","scope":"浙江省-杭州市-富阳区-鹿山街道-汤家埠行政村(南山自然村,汤家埠自然村),鹿山街道-南山行政村(栋山自然村,栋山村自然村);鹿山街道(中铁三局集团第二工程有限公司,杭州富阳富春江水上运动器材厂,杭州申浙家禽有限公司,浙江航驱汽车科技有限公司)","startTime":"2020-02-13 07:43:00","stopDate":"2020-02-13 14:43:00","orgNo":"3340170","typeCode":"电网故障停限电","poweroffArea":"110kV长春变:状元D417线状元D4171开关后段","poweroffReason":"高压开关跳闸 原停电结束时间为2020-02-13 12:43:00,因施工困难原因,现变更停电结束时间为2020-02-13 14:43:00","powerTime":"2020-02-13 12:47:46","powerComm":"已送电，增加施工力量","subsNo":"","lineNo":"","tgNo":"","tgName":null,"infoStatus":"1","orgName":"国网浙江杭州市富阳区供电公司","typeName":null,"infoStatusName":null,"dateDay":null,"orgNos":null,"nowTime":null,"countyName":null,"streetName":null,"villageName":null,"roadName":null,"communityName":null,"tranName":null,"sdLineName":null,"cityCode":"3340170","cityName":"国网浙江杭州市富阳区供电公司","provinceCode":null,"stopTime":"2020-02-13 14:43:00","powerType":"全部","powerOffArea":"110kV长春变:状元D417线状元D4171开关后段","powerOffReason":"高压开关跳闸 原停电结束时间为2020-02-13 12:43:00,因施工困难原因,现变更停电结束时间为2020-02-13 14:43:00","powerOffId":"2020021331020008"},{"poweroffId":2020021331020007,"sgpoweroffId":null,"subsName":"","lineName":"10kV白石D640线","pubTranName":"洪家塘5#国道边公变,富阳兴达工具有限公司1#变,乌畴溪新村5号乌畴公变,乌畴溪新村3号赵家庄公变,杭州富阳兴达工具有限公司2#变,富阳星宇铜业有限公司1#,赵欧村1号赵家溪口公变,杭州远鸿科技有限公司2#变,杭州远鸿科技有限公司1#变,杭州润鑫有色金属有限公司,富阳市场口镇赵家村,富阳星宇铜业有限公司2#,富阳市公路管理段（场口公路养护管理站）,赵欧村3号欧家溪公变,乌畴溪新村1#苏家桥公变,杭州佑东工艺品有限公司,1#变,杭州金泰塑业有限公司2#变,赵欧村5#水井公变,上图山村6#国道边公变,杭州富阳森杰新型建材有限公司,杭州金泰塑业有限公司1#,杭州旦邦生态农业开发有限公司,赵欧村2号赵家桥头公变,赵欧村4号荷花塘公变,富阳市路灯安装维修管理所（白石74#）1号变,东梓村8#国道边公变,","scope":"浙江省-杭州市-富阳区-场口镇-乌畴溪新村行政村(新佳庄自然村,乌畴自然村,苏家桥自然村,赵家庄自然村),场口镇-洪家塘行政村(洪家塘自然村,冯家自然村),场口镇-赵欧行政村(欧家溪自然村,赵家村自然村),场口镇(白石胶行政村-白石胶自然村,东梓关行政村-东梓关自然村,上图山行政村-上图山自然村,东梓行政村-屠家自然村);场口镇(富阳市场口镇赵家村,富阳市公路管理段（场口公路养护管理站）,杭州佑东工艺品有限公司,杭州富阳森杰新型建材有限公司,杭州旦邦生态农业开发有限公司,杭州富阳伟顺金属有限公司,杭州富阳兴达工具有限公司,杭州金泰塑业有限公司,杭州富阳星宇铜业有限公司,杭州富阳区场口镇东群五金配件厂,杭州富阳城市照明工程有限公司,杭州远鸿科技有限公司)","startTime":"2020-02-13 07:21:00","stopDate":"2020-02-13 10:21:00","orgNo":"3340170","typeCode":"电网故障停限电","poweroffArea":"110kV鸿丰变:白石D640线白石D6402开关后段","poweroffReason":"高压开关跳闸","powerTime":"2020-02-13 09:21:19","powerComm":"已送电","subsNo":"","lineNo":"","tgNo":"","tgName":null,"infoStatus":"1","orgName":"国网浙江杭州市富阳区供电公司","typeName":null,"infoStatusName":null,"dateDay":null,"orgNos":null,"nowTime":null,"countyName":null,"streetName":null,"villageName":null,"roadName":null,"communityName":null,"tranName":null,"sdLineName":null,"cityCode":"3340170","cityName":"国网浙江杭州市富阳区供电公司","provinceCode":null,"stopTime":"2020-02-13 10:21:00","powerType":"全部","powerOffArea":"110kV鸿丰变:白石D640线白石D6402开关后段","powerOffReason":"高压开关跳闸","powerOffId":"2020021331020007"},{"poweroffId":2020021331020002,"sgpoweroffId":null,"subsName":"","lineName":"10kV中康7205线","pubTranName":"西北湾农,","scope":"浙江省-杭州市-拱墅区-上塘街道-拱宸社区-陆家坞","startTime":"2020-02-13 03:07:00","stopDate":"2020-02-13 08:07:00","orgNo":"3340101","typeCode":"电网故障停限电","poweroffArea":"110kV康桥变:中康7205线西北湾农配变","poweroffReason":"高压开关跳闸 原停电结束时间为2020-02-13 05:07:00,因施工现场环境比较复杂，存在不确定因素原因,现变更停电结束时间为2020-02-13 08:07:00","powerTime":"2020-02-13 07:29:23","powerComm":"已送电","subsNo":"","lineNo":"","tgNo":"","tgName":null,"infoStatus":"1","orgName":"浙江杭州电力客户服务中心","typeName":null,"infoStatusName":null,"dateDay":null,"orgNos":null,"nowTime":null,"countyName":null,"streetName":null,"villageName":null,"roadName":null,"communityName":null,"tranName":null,"sdLineName":null,"cityCode":"3340101","cityName":"浙江杭州电力客户服务中心","provinceCode":null,"stopTime":"2020-02-13 08:07:00","powerType":"全部","powerOffArea":"110kV康桥变:中康7205线西北湾农配变","powerOffReason":"高压开关跳闸 原停电结束时间为2020-02-13 05:07:00,因施工现场环境比较复杂，存在不确定因素原因,现变更停电结束时间为2020-02-13 08:07:00","powerOffId":"2020021331020002"},{"poweroffId":2020021331020001,"sgpoweroffId":null,"subsName":"","lineName":"10kV西伞9670线","pubTranName":"达峰电子1#,栖岚四,杨村二,和求八变,溪珠二变,栖岚六,万玉二,和求四变,栖岚八,溪珠八变,百投1#,中国人民解放军61191部队,栖岚十,和求六变,万玉四,溪珠六变,栖岚二,牌企一,部水,和求二变,杨企,溪珠四变,中国人民解放军61191部队,牌楼五,","scope":"浙江省-杭州市-西湖区-留下街道-和家园社区(求和路,杨梅山路),留下街道-杨家牌楼社区-百家园路,转塘街道-叶埠桥社区-叶埠桥村道;留下街道(杭州华庚实业有限公司,杭州铭圆机动车检测服务有限公司,杭州华盛服饰有限公司,杭州启航国际大酒店有限公司,杭州润龙投资管理有限公司)","startTime":"2020-02-13 01:45:00","stopDate":"2020-02-13 03:45:00","orgNo":"3340101","typeCode":"电网故障停限电","poweroffArea":"220kV古荡变:西伞9670线","poweroffReason":"高压开关跳闸","powerTime":"2020-02-13 03:22:15","powerComm":"已送电","subsNo":"","lineNo":"","tgNo":"","tgName":null,"infoStatus":"1","orgName":"浙江杭州电力客户服务中心","typeName":null,"infoStatusName":null,"dateDay":null,"orgNos":null,"nowTime":null,"countyName":null,"streetName":null,"villageName":null,"roadName":null,"communityName":null,"tranName":null,"sdLineName":null,"cityCode":"3340101","cityName":"浙江杭州电力客户服务中心","provinceCode":null,"stopTime":"2020-02-13 03:45:00","powerType":"全部","powerOffArea":"220kV古荡变:西伞9670线","powerOffReason":"高压开关跳闸","powerOffId":"2020021331020001"},{"poweroffId":2020021231020088,"sgpoweroffId":null,"subsName":"","lineName":"10kV石鼓Y212线","pubTranName":"石鼓村石鼓台区,","scope":"浙江省-杭州市-建德市-李家镇-石鼓行政村-石鼓自然村一带用户","startTime":"2020-02-12 20:37:00","stopDate":"2020-02-12 22:00:00","orgNo":"3340180","typeCode":"电网故障停限电","poweroffArea":"35kV李家变:石鼓Y212线-石鼓村石鼓台区后段","poweroffReason":"(低压停电信息)低压开关跳闸 原停电结束时间为2020-02-12 22:45:00,为减少客户停电时间,加快工作进度,提前送电,现变更停电结束时间为2020-02-12 22:00:00","powerTime":"2020-02-12 21:13:09","powerComm":"已送电","subsNo":"","lineNo":"","tgNo":"","tgName":null,"infoStatus":"1","orgName":"国网浙江建德市供电有限公司","typeName":null,"infoStatusName":null,"dateDay":null,"orgNos":null,"nowTime":null,"countyName":null,"streetName":null,"villageName":null,"roadName":null,"communityName":null,"tranName":null,"sdLineName":null,"cityCode":"3340180","cityName":"国网浙江建德市供电有限公司","provinceCode":null,"stopTime":"2020-02-12 22:00:00","powerType":"全部","powerOffArea":"35kV李家变:石鼓Y212线-石鼓村石鼓台区后段","powerOffReason":"(低压停电信息)低压开关跳闸 原停电结束时间为2020-02-12 22:45:00,为减少客户停电时间,加快工作进度,提前送电,现变更停电结束时间为2020-02-12 22:00:00","powerOffId":"2020021231020088"},{"poweroffId":2020021231020087,"sgpoweroffId":null,"subsName":"","lineName":"10kV富湾T401线","pubTranName":"里湾1号公变,","scope":"浙江省-杭州市-桐庐县-城南街道-大丰行政村(大丰自然村,方家自然村,毛家自然村)、城南街道大公村","startTime":"2020-02-12 19:58:50","stopDate":"2020-02-12 21:00:50","orgNo":"3340150","typeCode":"电网故障停限电","poweroffArea":"110kV枫塘变:富湾T401线-里湾1号公变后段","poweroffReason":"(低压停电信息)低压开关跳闸 原停电结束时间为2020-02-12 21:58:50,为减少客户停电时间,加快工作进度,提前送电,现变更停电结束时间为2020-02-12 21:00:50","powerTime":"2020-02-12 20:51:06","powerComm":"已送电","subsNo":"","lineNo":"","tgNo":"","tgName":null,"infoStatus":"1","orgName":"国网浙江桐庐县供电公司","typeName":null,"infoStatusName":null,"dateDay":null,"orgNos":null,"nowTime":null,"countyName":null,"streetName":null,"villageName":null,"roadName":null,"communityName":null,"tranName":null,"sdLineName":null,"cityCode":"3340150","cityName":"国网浙江桐庐县供电公司","provinceCode":null,"stopTime":"2020-02-12 21:00:50","powerType":"全部","powerOffArea":"110kV枫塘变:富湾T401线-里湾1号公变后段","powerOffReason":"(低压停电信息)低压开关跳闸 原停电结束时间为2020-02-12 21:58:50,为减少客户停电时间,加快工作进度,提前送电,现变更停电结束时间为2020-02-12 21:00:50","powerOffId":"2020021231020087"},{"poweroffId":2020021231020083,"sgpoweroffId":null,"subsName":"","lineName":"10kV古城Y683线","pubTranName":"永平村高家台区,","scope":"浙江省-杭州市-建德市-大同镇-永平行政村-高家自然村 富楼自然村一带用户","startTime":"2020-02-12 19:15:00","stopDate":"2020-02-12 20:30:00","orgNo":"3340180","typeCode":"电网故障停限电","poweroffArea":"110kV大同变:古城Y683线-永平村高家台区后段","poweroffReason":"(低压停电信息)低压开关跳闸 原停电结束时间为2020-02-12 21:30:00,为减少客户停电时间,加快工作进度,提前送电,现变更停电结束时间为2020-02-12 20:30:00","powerTime":"2020-02-12 19:47:05","powerComm":"已送电","subsNo":"","lineNo":"","tgNo":"","tgName":null,"infoStatus":"1","orgName":"国网浙江建德市供电有限公司","typeName":null,"infoStatusName":null,"dateDay":null,"orgNos":null,"nowTime":null,"countyName":null,"streetName":null,"villageName":null,"roadName":null,"communityName":null,"tranName":null,"sdLineName":null,"cityCode":"3340180","cityName":"国网浙江建德市供电有限公司","provinceCode":null,"stopTime":"2020-02-12 20:30:00","powerType":"全部","powerOffArea":"110kV大同变:古城Y683线-永平村高家台区后段","powerOffReason":"(低压停电信息)低压开关跳闸 原停电结束时间为2020-02-12 21:30:00,为减少客户停电时间,加快工作进度,提前送电,现变更停电结束时间为2020-02-12 20:30:00","powerOffId":"2020021231020083"}],"pageModel":{"pageNow":539,"totalCount":17789,"totalPage":1779,"tableRows":0,"pageCount":10,"beginCount":5380},"isExperi":"1"}