{"message":"","today":"2020-06-15","seleList":[{"poweroffId":2020060331020023,"sgpoweroffId":null,"subsName":"","lineName":"10kV张坛A145线","pubTranName":"山三村8#变,","scope":"浙江省-杭州市-萧山区-瓜沥镇-山三行政村(长沙路,山池路)等","startTime":"2020-06-03 06:22:35","stopDate":"2020-06-03 08:00:35","orgNo":"3340130","typeCode":"电网故障停限电","poweroffArea":"220kV甘露变:张坛A145线-山三村8#变台区低压开关","poweroffReason":"(低压停电信息)低压漏电保护器短路消缺 原停电结束时间为2020-06-03 08:30:35,为减少客户停电时间,加快工作进度,提前送电,现变更停电结束时间为2020-06-03 08:00:35","powerTime":"2020-06-03 07:10:14","powerComm":"已送电","subsNo":"","lineNo":"","tgNo":"","tgName":null,"infoStatus":"1","orgName":"国网浙江杭州市萧山区供电有限公司","typeName":null,"infoStatusName":null,"dateDay":null,"orgNos":null,"nowTime":null,"countyName":null,"streetName":null,"villageName":null,"roadName":null,"communityName":null,"tranName":null,"sdLineName":null,"cityCode":"3340130","cityName":"国网浙江杭州市萧山区供电有限公司","provinceCode":null,"stopTime":"2020-06-03 08:00:35","powerType":"全部","powerOffArea":"220kV甘露变:张坛A145线-山三村8#变台区低压开关","powerOffReason":"(低压停电信息)低压漏电保护器短路消缺 原停电结束时间为2020-06-03 08:30:35,为减少客户停电时间,加快工作进度,提前送电,现变更停电结束时间为2020-06-03 08:00:35","powerOffId":"2020060331020023"},{"poweroffId":2020060331020013,"sgpoweroffId":null,"subsName":"","lineName":"10kV吴桥9932线","pubTranName":"贝村,","scope":"浙江省-杭州市-西湖区-三墩镇-吉鸿社区-吉鸿路","startTime":"2020-06-03 05:05:00","stopDate":"2020-06-03 08:05:00","orgNo":"3340101","typeCode":"电网故障停限电","poweroffArea":"110kV墩北变:吴桥9932线贝村配变","poweroffReason":"高压开关跳闸 原停电结束时间为2020-06-03 09:05:00,为减少客户停电时间,加快工作进度,提前送电,现变更停电结束时间为2020-06-03 08:05:00","powerTime":"2020-06-03 07:24:42","powerComm":"已送电","subsNo":"","lineNo":"","tgNo":"","tgName":null,"infoStatus":"1","orgName":"浙江杭州电力客户服务中心","typeName":null,"infoStatusName":null,"dateDay":null,"orgNos":null,"nowTime":null,"countyName":null,"streetName":null,"villageName":null,"roadName":null,"communityName":null,"tranName":null,"sdLineName":null,"cityCode":"3340101","cityName":"浙江杭州电力客户服务中心","provinceCode":null,"stopTime":"2020-06-03 08:05:00","powerType":"全部","powerOffArea":"110kV墩北变:吴桥9932线贝村配变","powerOffReason":"高压开关跳闸 原停电结束时间为2020-06-03 09:05:00,为减少客户停电时间,加快工作进度,提前送电,现变更停电结束时间为2020-06-03 08:05:00","powerOffId":"2020060331020013"},{"poweroffId":2020060331020011,"sgpoweroffId":null,"subsName":"","lineName":"10kV双镇H542线","pubTranName":"双溪村台山抗旱公变,双溪村台山村公变,双溪村双溪旅游公变,陆羽山庄1#,双溪村双电2号公变,陆羽泉茶叶6120593162,双溪村敬老院公变,双溪村狮子山公变,竹海山庄612062638601#专变,陆羽山庄2#,","scope":"浙江省-杭州市-余杭区-径山镇-双溪行政村(双溪村,凉亭头自然村,竹海路),径山镇(径山行政村-径山自然村,小古城行政村-小古城自然村,求是行政村-求是自然村);径山镇(杭州陆羽君澜度假酒店有限公司,杭州陆羽泉茶叶有限公司,杭州双溪竹海山庄有限公司)","startTime":"2020-06-03 04:49:00","stopDate":"2020-06-03 08:00:00","orgNo":"3340140","typeCode":"电网故障停限电","poweroffArea":"110kV潘板变:双镇H542线狮子山分线开关后段","poweroffReason":"高压开关跳闸","powerTime":"2020-06-03 07:02:58","powerComm":"已送电","subsNo":"","lineNo":"","tgNo":"","tgName":null,"infoStatus":"1","orgName":"国网浙江杭州市余杭区供电有限公司","typeName":null,"infoStatusName":null,"dateDay":null,"orgNos":null,"nowTime":null,"countyName":null,"streetName":null,"villageName":null,"roadName":null,"communityName":null,"tranName":null,"sdLineName":null,"cityCode":"3340140","cityName":"国网浙江杭州市余杭区供电有限公司","provinceCode":null,"stopTime":"2020-06-03 08:00:00","powerType":"全部","powerOffArea":"110kV潘板变:双镇H542线狮子山分线开关后段","powerOffReason":"高压开关跳闸","powerOffId":"2020060331020011"},{"poweroffId":2020060331020009,"sgpoweroffId":null,"subsName":"","lineName":"10kV溪塔H849线","pubTranName":"欣之美塑胶,1＃,帝特建材,","scope":"浙江省-杭州市-余杭区-余杭街道(杭州欣之美塑胶制品有限公司,杭州帝特建材有限公司)","startTime":"2020-06-03 03:02:00","stopDate":"2020-06-03 04:40:00","orgNo":"3340140","typeCode":"电网故障停限电","poweroffArea":"110kV永乐变:溪塔H849线半路开关站帝特建材分线后段","poweroffReason":"高压开关跳闸 原停电结束时间为2020-06-03 07:30:00,为减少客户停电时间,加快工作进度,提前送电,现变更停电结束时间为2020-06-03 04:40:00","powerTime":"2020-06-03 04:02:55","powerComm":"已送电","subsNo":"","lineNo":"","tgNo":"","tgName":null,"infoStatus":"1","orgName":"国网浙江杭州市余杭区供电有限公司","typeName":null,"infoStatusName":null,"dateDay":null,"orgNos":null,"nowTime":null,"countyName":null,"streetName":null,"villageName":null,"roadName":null,"communityName":null,"tranName":null,"sdLineName":null,"cityCode":"3340140","cityName":"国网浙江杭州市余杭区供电有限公司","provinceCode":null,"stopTime":"2020-06-03 04:40:00","powerType":"全部","powerOffArea":"110kV永乐变:溪塔H849线半路开关站帝特建材分线后段","powerOffReason":"高压开关跳闸 原停电结束时间为2020-06-03 07:30:00,为减少客户停电时间,加快工作进度,提前送电,现变更停电结束时间为2020-06-03 04:40:00","powerOffId":"2020060331020009"},{"poweroffId":2020060331020008,"sgpoweroffId":null,"subsName":"","lineName":"10kV三镇Y321线","pubTranName":"春江源村下二都台区,","scope":"浙江省-杭州市-建德市-三都镇-春江源行政村(山背自然村,下二都自然村)","startTime":"2020-06-03 02:24:00","stopDate":"2020-06-03 04:00:00","orgNo":"3340180","typeCode":"电网故障停限电","poweroffArea":"35kV三都变:三镇Y321线-春江源村下二都台区后段","poweroffReason":"(低压停电信息)低压开关跳闸 原停电结束时间为2020-06-03 05:00:00,为减少客户停电时间,加快工作进度,提前送电,现变更停电结束时间为2020-06-03 04:00:00","powerTime":"2020-06-03 03:24:13","powerComm":"已送电","subsNo":"","lineNo":"","tgNo":"","tgName":null,"infoStatus":"1","orgName":"国网浙江建德市供电有限公司","typeName":null,"infoStatusName":null,"dateDay":null,"orgNos":null,"nowTime":null,"countyName":null,"streetName":null,"villageName":null,"roadName":null,"communityName":null,"tranName":null,"sdLineName":null,"cityCode":"3340180","cityName":"国网浙江建德市供电有限公司","provinceCode":null,"stopTime":"2020-06-03 04:00:00","powerType":"全部","powerOffArea":"35kV三都变:三镇Y321线-春江源村下二都台区后段","powerOffReason":"(低压停电信息)低压开关跳闸 原停电结束时间为2020-06-03 05:00:00,为减少客户停电时间,加快工作进度,提前送电,现变更停电结束时间为2020-06-03 04:00:00","powerOffId":"2020060331020008"},{"poweroffId":2020060331020007,"sgpoweroffId":null,"subsName":"","lineName":"10kV杨旗R143线","pubTranName":"霞明公变变压器,翁川源村沈家配变,淳安县汾口制丝有限公司配变,翁川源村童家田配变,淳安县千岛湖中华鳖基地专变,下明公变,翁川源村林深源配变,汪苏州配变,红旗电站专变,淳安千岛湖新飞碳素厂配变,淳安县汾口镇荷花池塑料制品厂配变,杭州千岛湖艳阳天农业开发有限公司1#配电变压器,翁川源村长埂源台区配变,汾口所先锋公变,淳安县团源木业有限公司配变,汾口红兴装饰材料商行专变,翁川源村翁川配变,翁川源村霞源山配变,祝家村李家公变,先锋新公变变压器,","scope":"浙江省-杭州市-淳安县-汾口镇-舒翠行政村-舒翠自然村,汾口镇-翁川源行政村(翁川自然村,童家田自然村,黄石塔自然村,林深源自然村,霞源山自然村,长埂源自然村,沈家自然村,霞明自然村),汾口镇-祝家行政村(李家自然村,祝家自然村),汾口镇-杨旗社区(杨旗街,武强路);汾口镇(淳安县汾口制丝有限公司,淳安县汾口镇荷花池塑料制品厂,淳安千岛湖新飞碳素厂,淳安县千岛湖中华鳖基地,汪苏州,淳安县团源木业有限公司,杭州千岛湖艳阳天农业开发有限公司,淳安县汾口红旗电站,淳安县汾口红兴装饰材料商行)","startTime":"2020-06-03 02:15:00","stopDate":"2020-06-03 05:30:00","orgNo":"3340190","typeCode":"电网故障停限电","poweroffArea":"110kV汾口变:杨旗R143线先锋支线01#杆断路器后段","poweroffReason":"高压开关跳闸 原停电结束时间为2020-06-03 04:04:00,因树压导线体积太大原因,延迟送电,现变更停电结束时间为2020-06-03 05:30:00","powerTime":"2020-06-03 05:04:58","powerComm":"已送电","subsNo":"","lineNo":"","tgNo":"","tgName":null,"infoStatus":"1","orgName":"国网浙江淳安县供电有限公司","typeName":null,"infoStatusName":null,"dateDay":null,"orgNos":null,"nowTime":null,"countyName":null,"streetName":null,"villageName":null,"roadName":null,"communityName":null,"tranName":null,"sdLineName":null,"cityCode":"3340190","cityName":"国网浙江淳安县供电有限公司","provinceCode":null,"stopTime":"2020-06-03 05:30:00","powerType":"全部","powerOffArea":"110kV汾口变:杨旗R143线先锋支线01#杆断路器后段","powerOffReason":"高压开关跳闸 原停电结束时间为2020-06-03 04:04:00,因树压导线体积太大原因,延迟送电,现变更停电结束时间为2020-06-03 05:30:00","powerOffId":"2020060331020007"},{"poweroffId":2020060331020004,"sgpoweroffId":null,"subsName":"","lineName":"10kV麻车Y312线","pubTranName":"麻车村下新店台区,","scope":"浙江省-杭州市-建德市-大洋镇-麻车行政村(麻车埠自然村,松坞源自然村,下新店自然村,伊坞自然村)","startTime":"2020-06-03 00:59:00","stopDate":"2020-06-03 07:30:00","orgNo":"3340180","typeCode":"电网故障停限电","poweroffArea":"35kV大洋变:麻车Y312线麻车村下新店台区配变","poweroffReason":"高压开关跳闸 原停电结束时间为2020-06-03 06:00:00,因暴雨天气，抢修环境复杂原因,延迟送电,现变更停电结束时间为2020-06-03 07:30:00","powerTime":"2020-06-03 06:50:37","powerComm":"已送电","subsNo":"","lineNo":"","tgNo":"","tgName":null,"infoStatus":"1","orgName":"国网浙江建德市供电有限公司","typeName":null,"infoStatusName":null,"dateDay":null,"orgNos":null,"nowTime":null,"countyName":null,"streetName":null,"villageName":null,"roadName":null,"communityName":null,"tranName":null,"sdLineName":null,"cityCode":"3340180","cityName":"国网浙江建德市供电有限公司","provinceCode":null,"stopTime":"2020-06-03 07:30:00","powerType":"全部","powerOffArea":"35kV大洋变:麻车Y312线麻车村下新店台区配变","powerOffReason":"高压开关跳闸 原停电结束时间为2020-06-03 06:00:00,因暴雨天气，抢修环境复杂原因,延迟送电,现变更停电结束时间为2020-06-03 07:30:00","powerOffId":"2020060331020004"},{"poweroffId":2020060331020003,"sgpoweroffId":null,"subsName":"","lineName":"10kV双镇H542线","pubTranName":"双溪村狮子山公变,陆羽泉茶叶6120593162,双溪村台山抗旱公变,双溪村双电2号公变,陆羽山庄1#,双溪村台山村公变,陆羽山庄2#,双溪村敬老院公变,竹海山庄612062638601#专变,双溪村双溪旅游公变,","scope":"浙江省-杭州市-余杭区-径山镇-双溪行政村(双溪村,凉亭头自然村,竹海路),径山镇(径山行政村-径山自然村,小古城行政村-小古城自然村,求是行政村-求是自然村);径山镇(杭州陆羽君澜度假酒店有限公司,杭州陆羽泉茶叶有限公司,杭州双溪竹海山庄有限公司)","startTime":"2020-06-03 00:48:00","stopDate":"2020-06-03 03:10:00","orgNo":"3340140","typeCode":"电网故障停限电","poweroffArea":"110kV潘板变:双镇H542线狮子山分线开关后段","poweroffReason":"高压开关跳闸 原停电结束时间为2020-06-03 04:48:00,为减少客户停电时间,加快工作进度,提前送电,现变更停电结束时间为2020-06-03 03:10:00","powerTime":"2020-06-03 02:29:03","powerComm":"已送电","subsNo":"","lineNo":"","tgNo":"","tgName":null,"infoStatus":"1","orgName":"国网浙江杭州市余杭区供电有限公司","typeName":null,"infoStatusName":null,"dateDay":null,"orgNos":null,"nowTime":null,"countyName":null,"streetName":null,"villageName":null,"roadName":null,"communityName":null,"tranName":null,"sdLineName":null,"cityCode":"3340140","cityName":"国网浙江杭州市余杭区供电有限公司","provinceCode":null,"stopTime":"2020-06-03 03:10:00","powerType":"全部","powerOffArea":"110kV潘板变:双镇H542线狮子山分线开关后段","powerOffReason":"高压开关跳闸 原停电结束时间为2020-06-03 04:48:00,为减少客户停电时间,加快工作进度,提前送电,现变更停电结束时间为2020-06-03 03:10:00","powerOffId":"2020060331020003"},{"poweroffId":2020060331020001,"sgpoweroffId":null,"subsName":"","lineName":"10kV沙大Y203线","pubTranName":"巴萨名门2#公变,","scope":"浙江省-杭州市-建德市-新安江街道-溪头社区-严州大道巴萨名门小区","startTime":"2020-06-03 00:01:00","stopDate":"2020-06-03 02:10:00","orgNo":"3340180","typeCode":"电网故障停限电","poweroffArea":"110kV白沙变:沙大Y203线-巴萨名门2#公变后段","poweroffReason":"(低压停电信息)低压开关跳闸 原停电结束时间为2020-06-03 03:00:00,为减少客户停电时间,加快工作进度,提前送电,现变更停电结束时间为2020-06-03 02:10:00","powerTime":"2020-06-03 01:41:27","powerComm":"已送电","subsNo":"","lineNo":"","tgNo":"","tgName":null,"infoStatus":"1","orgName":"国网浙江建德市供电有限公司","typeName":null,"infoStatusName":null,"dateDay":null,"orgNos":null,"nowTime":null,"countyName":null,"streetName":null,"villageName":null,"roadName":null,"communityName":null,"tranName":null,"sdLineName":null,"cityCode":"3340180","cityName":"国网浙江建德市供电有限公司","provinceCode":null,"stopTime":"2020-06-03 02:10:00","powerType":"全部","powerOffArea":"110kV白沙变:沙大Y203线-巴萨名门2#公变后段","powerOffReason":"(低压停电信息)低压开关跳闸 原停电结束时间为2020-06-03 03:00:00,为减少客户停电时间,加快工作进度,提前送电,现变更停电结束时间为2020-06-03 02:10:00","powerOffId":"2020060331020001"},{"poweroffId":2020060231020470,"sgpoweroffId":null,"subsName":"","lineName":"10kV大洋Y126线","pubTranName":"浙江实优石业有限公司2#变,南峰村徐村台区,浙江实优石业有限公司1#变,亿倡垣盛1#变,2#,建德市大洋镇会兵砂石料场,南峰村摇头畈台区,建德市旭阳新型墙材有限公司1#,南峰村孙家坞台区变压器,南峰村黑龙庙台区,南峰村赵坞湾台区,浙江亿倡垣盛农业科技有限公司1#变,南峰村毛高坞台区变压器,大洋村李梓坊台区,大洋村凉亭边台区,南峰村桐溪坞台区,建德市新鹏车业有限公司,杭州新德环保科技有限公司,林家台区,大洋村小洋坞台区,吴家畈台区,浙江亿倡垣盛农业科技有限公司2#变,南峰村窑垅里台区,建德市梅城镇南峰林家农防专变,亿倡垣盛农业科技有限公司1#临变,南峰村浦后台区,大洋村石壁台区,大洋村外梓坊台区,","scope":"浙江省-杭州市-建德市-梅城镇-望山行政村-余家自然村,大洋镇-大洋行政村(小洋坞自然村,石壁自然村,里梓坊自然村,外梓坊自然村),梅城镇-南峰行政村(黑龙庙自然村,窑垅里自然村,桐溪岭自然村,浦后自然村,黄包坞自然村,联红自然村,林家自然村,桐溪坞自然村,徐村自然村,孙家坞自然村,毛家坞自然村,毛高坞自然村,吴家自然村);梅城镇(建德市梅城镇南峰林家农防，,建德市新鹏车业有限公司,杭州新德环保科技有限公司),大洋镇(浙江亿倡垣盛农业科技有限公司,浙江实优石业有限公司,建德市大洋镇会兵砂石料场,建德市旭阳新型墙材有限公司)","startTime":"2020-06-02 23:48:00","stopDate":"2020-06-03 08:30:00","orgNo":"3340180","typeCode":"电网故障停限电","poweroffArea":"110kV南峰变:大洋Y126线大洋126线01#开关后段","poweroffReason":"高压开关跳闸 原停电结束时间为2020-06-03 11:00:00,为减少客户停电时间,加快工作进度,提前送电,现变更停电结束时间为2020-06-03 08:30:00","powerTime":"2020-06-03 08:00:00","powerComm":"已送电","subsNo":"","lineNo":"","tgNo":"","tgName":null,"infoStatus":"1","orgName":"国网浙江建德市供电有限公司","typeName":null,"infoStatusName":null,"dateDay":null,"orgNos":null,"nowTime":null,"countyName":null,"streetName":null,"villageName":null,"roadName":null,"communityName":null,"tranName":null,"sdLineName":null,"cityCode":"3340180","cityName":"国网浙江建德市供电有限公司","provinceCode":null,"stopTime":"2020-06-03 08:30:00","powerType":"全部","powerOffArea":"110kV南峰变:大洋Y126线大洋126线01#开关后段","powerOffReason":"高压开关跳闸 原停电结束时间为2020-06-03 11:00:00,为减少客户停电时间,加快工作进度,提前送电,现变更停电结束时间为2020-06-03 08:30:00","powerOffId":"2020060231020470"}],"pageModel":{"pageNow":53,"totalCount":17786,"totalPage":1779,"tableRows":0,"pageCount":10,"beginCount":520},"isExperi":"1"}