{"message":"","today":"2020-06-15","seleList":[{"poweroffId":2020020731020057,"sgpoweroffId":null,"subsName":"","lineName":"10kV西街8308线","pubTranName":"鸿瑛房产专变,华侨饭店专变双路内部二,鸿瑛房产专变一1#,浙江省国家安全厅,鸽皇餐饮,华侨饭店专变双路内部一,鸿瑛房产专变,华侨饭店,浙江省国家安全厅,华侨饭店,鸿瑛房产专变一1#,","scope":"浙江省-杭州市-上城区-湖滨街道(浙江怡华物业服务有限公司,浙江省国家安全厅,杭州华侨饭店有限责任公司,杭州鸣晨餐饮管理有限公司)","startTime":"2020-02-07 17:57:59","stopDate":"2020-02-07 19:57:59","orgNo":"3340101","typeCode":"电网故障停限电","poweroffArea":"110kV昭庆变:西街8308线鸿瑛环网室医鸿83081线后段","poweroffReason":"高压开关跳闸","powerTime":"2020-02-07 19:21:42","powerComm":"已送电","subsNo":"","lineNo":"","tgNo":"","tgName":null,"infoStatus":"1","orgName":"浙江杭州电力客户服务中心","typeName":null,"infoStatusName":null,"dateDay":null,"orgNos":null,"nowTime":null,"countyName":null,"streetName":null,"villageName":null,"roadName":null,"communityName":null,"tranName":null,"sdLineName":null,"cityCode":"3340101","cityName":"浙江杭州电力客户服务中心","provinceCode":null,"stopTime":"2020-02-07 19:57:59","powerType":"全部","powerOffArea":"110kV昭庆变:西街8308线鸿瑛环网室医鸿83081线后段","powerOffReason":"高压开关跳闸","powerOffId":"2020020731020057"},{"poweroffId":2020020731020054,"sgpoweroffId":null,"subsName":"","lineName":"10kV高水164线","pubTranName":"姚村1号公变,","scope":"浙江省-杭州市-桐庐县-瑶琳镇-姚村行政村-皇瑶路（皇瑶路1号）","startTime":"2020-02-07 17:42:20","stopDate":"2020-02-07 19:42:20","orgNo":"3340150","typeCode":"电网故障停限电","poweroffArea":"35kV瑶琳变:高水164线-姚村1号公变后段","poweroffReason":"(低压停电信息)低压开关跳闸","powerTime":"2020-02-07 19:20:21","powerComm":"已送电","subsNo":"","lineNo":"","tgNo":"","tgName":null,"infoStatus":"1","orgName":"国网浙江桐庐县供电公司","typeName":null,"infoStatusName":null,"dateDay":null,"orgNos":null,"nowTime":null,"countyName":null,"streetName":null,"villageName":null,"roadName":null,"communityName":null,"tranName":null,"sdLineName":null,"cityCode":"3340150","cityName":"国网浙江桐庐县供电公司","provinceCode":null,"stopTime":"2020-02-07 19:42:20","powerType":"全部","powerOffArea":"35kV瑶琳变:高水164线-姚村1号公变后段","powerOffReason":"(低压停电信息)低压开关跳闸","powerOffId":"2020020731020054"},{"poweroffId":2020020731020051,"sgpoweroffId":null,"subsName":"","lineName":"10kV金鑫T114线","pubTranName":"金鑫小区1号公变,","scope":"浙江省-杭州市-桐庐县-桐君街道-金鑫社区(富春路,建设弄,桐君街道鑫鑫小区)","startTime":"2020-02-07 17:20:55","stopDate":"2020-02-07 19:20:55","orgNo":"3340150","typeCode":"电网故障停限电","poweroffArea":"110kV桐庐变:金鑫T114线-金鑫小区1号公变后段","poweroffReason":"(低压停电信息)低压开关跳闸","powerTime":"2020-02-07 19:04:21","powerComm":"已送电","subsNo":"","lineNo":"","tgNo":"","tgName":null,"infoStatus":"1","orgName":"国网浙江桐庐县供电公司","typeName":null,"infoStatusName":null,"dateDay":null,"orgNos":null,"nowTime":null,"countyName":null,"streetName":null,"villageName":null,"roadName":null,"communityName":null,"tranName":null,"sdLineName":null,"cityCode":"3340150","cityName":"国网浙江桐庐县供电公司","provinceCode":null,"stopTime":"2020-02-07 19:20:55","powerType":"全部","powerOffArea":"110kV桐庐变:金鑫T114线-金鑫小区1号公变后段","powerOffReason":"(低压停电信息)低压开关跳闸","powerOffId":"2020020731020051"},{"poweroffId":2020020731020048,"sgpoweroffId":null,"subsName":"","lineName":"10kV肇和H436线","pubTranName":"东塘河村金家抖公变,东塘河村东洋村公变,东塘河村东洋村北公变,东塘河村东洋村西公变,东塘河村金家抖2号公变,","scope":"浙江省-杭州市-余杭区-良渚街道-东塘河行政村-吴家桥自然村","startTime":"2020-02-07 15:31:00","stopDate":"2020-02-07 20:31:00","orgNo":"3340140","typeCode":"电网故障停限电","poweroffArea":"110kV勾庄变:肇和H436线东阳村分线开关后段","poweroffReason":"高压开关跳闸 原停电结束时间为2020-02-07 17:31:00,因现场情况复杂原因,现变更停电结束时间为2020-02-07 20:31:00","powerTime":"2020-02-07 19:45:00","powerComm":"已送电","subsNo":"","lineNo":"","tgNo":"","tgName":null,"infoStatus":"1","orgName":"国网浙江杭州市余杭区供电有限公司","typeName":null,"infoStatusName":null,"dateDay":null,"orgNos":null,"nowTime":null,"countyName":null,"streetName":null,"villageName":null,"roadName":null,"communityName":null,"tranName":null,"sdLineName":null,"cityCode":"3340140","cityName":"国网浙江杭州市余杭区供电有限公司","provinceCode":null,"stopTime":"2020-02-07 20:31:00","powerType":"全部","powerOffArea":"110kV勾庄变:肇和H436线东阳村分线开关后段","powerOffReason":"高压开关跳闸 原停电结束时间为2020-02-07 17:31:00,因现场情况复杂原因,现变更停电结束时间为2020-02-07 20:31:00","powerOffId":"2020020731020048"},{"poweroffId":2020020731020047,"sgpoweroffId":null,"subsName":"","lineName":"10kV苕溪H522线","pubTranName":"崇化村戴家头公变,","scope":"浙江省-杭州市-余杭区-瓶窑镇-崇化行政村(崇化自然村农居点,小木桥自然村,水河桥戴家头自然村,戴家头组,陆家塘自然村)","startTime":"2020-02-07 15:22:00","stopDate":"2020-02-07 17:22:00","orgNo":"3340140","typeCode":"电网故障停限电","poweroffArea":"110kV凤山变:苕溪H522线-戴家头分线开关后段","poweroffReason":"高压开关跳闸","powerTime":"2020-02-07 16:44:00","powerComm":"已送电","subsNo":"","lineNo":"","tgNo":"","tgName":null,"infoStatus":"1","orgName":"国网浙江杭州市余杭区供电有限公司","typeName":null,"infoStatusName":null,"dateDay":null,"orgNos":null,"nowTime":null,"countyName":null,"streetName":null,"villageName":null,"roadName":null,"communityName":null,"tranName":null,"sdLineName":null,"cityCode":"3340140","cityName":"国网浙江杭州市余杭区供电有限公司","provinceCode":null,"stopTime":"2020-02-07 17:22:00","powerType":"全部","powerOffArea":"110kV凤山变:苕溪H522线-戴家头分线开关后段","powerOffReason":"高压开关跳闸","powerOffId":"2020020731020047"},{"poweroffId":2020020731020043,"sgpoweroffId":null,"subsName":"","lineName":"10kV银乔C832线","pubTranName":"元沙村5#变,","scope":"浙江省-杭州市-萧山区-新街镇-新街街道(元沙行政村-元沙自然村,盈中行政村-盈中自然村)，浙江省杭州市萧山区新街镇袁莎村东新农村269号等一带","startTime":"2020-02-07 14:05:51","stopDate":"2020-02-07 16:10:51","orgNo":"3340130","typeCode":"电网故障停限电","poweroffArea":"110kV罗山变:银乔C832线-元沙村5#变台区低压开关","poweroffReason":"(低压停电信息)低压漏电保护器短路故障","powerTime":"2020-02-07 15:14:45","powerComm":"已送电","subsNo":"","lineNo":"","tgNo":"","tgName":null,"infoStatus":"1","orgName":"国网浙江杭州市萧山区供电有限公司","typeName":null,"infoStatusName":null,"dateDay":null,"orgNos":null,"nowTime":null,"countyName":null,"streetName":null,"villageName":null,"roadName":null,"communityName":null,"tranName":null,"sdLineName":null,"cityCode":"3340130","cityName":"国网浙江杭州市萧山区供电有限公司","provinceCode":null,"stopTime":"2020-02-07 16:10:51","powerType":"全部","powerOffArea":"110kV罗山变:银乔C832线-元沙村5#变台区低压开关","powerOffReason":"(低压停电信息)低压漏电保护器短路故障","powerOffId":"2020020731020043"},{"poweroffId":2020020731020035,"sgpoweroffId":null,"subsName":"","lineName":"10kV张里G288线","pubTranName":"华泽丝绸,杭州协净再生资源开发有限公司,浙江运达风电股份有限公司,杭州万华净化科技有限公司,所用变,世创瑞翔（6120880333）01#专变,东湖街道办事处,杭州市余杭区人民政府东湖街道办事处,浙江运达风电股份有限公司,杭州能源环境工程有限公司,1#变压器,杭州市开发投资有限公司,杭州万华净化科技有限公司,泉漳村塘家公变,杭州能源环境工程有限公司,杭州市余杭区人民政府东湖街道办事处,孤林村石界河公变,杭州耀麒机械有限公司,","scope":"浙江省-杭州市-余杭区-塘栖镇(孤林行政村-孤林村,泉漳行政村-泉漳自然村);东湖街道-经济开发区(杭州能源环境工程有限公司,杭州万华净化科技有限公司,杭州市余杭区人民政府东湖街道办事处,杭州世创瑞翔科技有限责任公司),东湖街道-泉漳行政村(余杭供电局,杭州市开发投资有限公司,杭州市余杭区人民政府东湖街道办事处),塘栖镇-泉漳行政村(杭州华泽丝绸织造有限公司,杭州余杭泽贤织造有限公司,杭州华沣铸造厂),塘栖镇(孤林行政村-杭州协净再生资源开发有限公司,钱江经济开发区社区-浙江运达风电股份有限公司)","startTime":"2020-02-07 12:37:00","stopDate":"2020-02-07 14:37:00","orgNo":"3340140","typeCode":"电网故障停限电","poweroffArea":"110kV渔桥变:张里G288线首端，张里G2881开关，泉庄G0350开关之间","poweroffReason":"高压开关跳闸","powerTime":"2020-02-07 14:19:00","powerComm":"已送电","subsNo":"","lineNo":"","tgNo":"","tgName":null,"infoStatus":"1","orgName":"国网浙江杭州市余杭区供电有限公司","typeName":null,"infoStatusName":null,"dateDay":null,"orgNos":null,"nowTime":null,"countyName":null,"streetName":null,"villageName":null,"roadName":null,"communityName":null,"tranName":null,"sdLineName":null,"cityCode":"3340140","cityName":"国网浙江杭州市余杭区供电有限公司","provinceCode":null,"stopTime":"2020-02-07 14:37:00","powerType":"全部","powerOffArea":"110kV渔桥变:张里G288线首端，张里G2881开关，泉庄G0350开关之间","powerOffReason":"高压开关跳闸","powerOffId":"2020020731020035"},{"poweroffId":2020020731020034,"sgpoweroffId":null,"subsName":"","lineName":"10kV杭园G282线","pubTranName":"泉漳村寺桥南公变,杭州市余杭区临平乾元基督教堂,泉漳村泉漳街道公变,泉漳村鱼桥河公变,合金铁球2#,龙船坞村坝桥公变,合金铁球1#,富康五金,泉漳村杨家角公变,","scope":"浙江省-杭州市-余杭区-塘栖镇-泉漳行政村(泉漳自然村,泉漳),塘栖镇-孤林行政村(龙船坞,土山坝村),塘栖镇-龙船坞行政村-龙船坞村,东湖街道-泉漳行政村-泉漳村;浙江省-杭州市-余杭区-塘栖镇-泉漳行政村-杭州塘栖合金球铁有限公司,东湖街道-经济开发区(浙江安科磁力科技有限公司,杭州市余杭区临平乾元基督教堂)","startTime":"2020-02-07 12:36:00","stopDate":"2020-02-07 14:36:00","orgNo":"3340140","typeCode":"电网故障停限电","poweroffArea":"110kV渔桥变:杭园G282线首端，杭园G2821开关，杭园G2822开关之间","poweroffReason":"高压开关跳闸","powerTime":"2020-02-07 14:18:00","powerComm":"已送电","subsNo":"","lineNo":"","tgNo":"","tgName":null,"infoStatus":"1","orgName":"国网浙江杭州市余杭区供电有限公司","typeName":null,"infoStatusName":null,"dateDay":null,"orgNos":null,"nowTime":null,"countyName":null,"streetName":null,"villageName":null,"roadName":null,"communityName":null,"tranName":null,"sdLineName":null,"cityCode":"3340140","cityName":"国网浙江杭州市余杭区供电有限公司","provinceCode":null,"stopTime":"2020-02-07 14:36:00","powerType":"全部","powerOffArea":"110kV渔桥变:杭园G282线首端，杭园G2821开关，杭园G2822开关之间","powerOffReason":"高压开关跳闸","powerOffId":"2020020731020034"},{"poweroffId":2020020731020022,"sgpoweroffId":null,"subsName":"","lineName":"10kV严村H440线","pubTranName":"玉城公寓1#公变,","scope":"浙江省-杭州市-余杭区-良渚街道(北秀社区-东西大道,良渚行政村-东西大道)","startTime":"2020-02-07 10:17:00","stopDate":"2020-02-07 13:17:00","orgNo":"3340140","typeCode":"电网故障停限电","poweroffArea":"110kV勾庄变:严村H440线-玉城公寓1#公变后段","poweroffReason":"高压开关跳闸","powerTime":"2020-02-07 12:34:00","powerComm":"已送电","subsNo":"","lineNo":"","tgNo":"","tgName":null,"infoStatus":"1","orgName":"国网浙江杭州市余杭区供电有限公司","typeName":null,"infoStatusName":null,"dateDay":null,"orgNos":null,"nowTime":null,"countyName":null,"streetName":null,"villageName":null,"roadName":null,"communityName":null,"tranName":null,"sdLineName":null,"cityCode":"3340140","cityName":"国网浙江杭州市余杭区供电有限公司","provinceCode":null,"stopTime":"2020-02-07 13:17:00","powerType":"全部","powerOffArea":"110kV勾庄变:严村H440线-玉城公寓1#公变后段","powerOffReason":"高压开关跳闸","powerOffId":"2020020731020022"},{"poweroffId":2020020731020005,"sgpoweroffId":null,"subsName":"","lineName":"10kV沿闻9523线","pubTranName":"田里坞,","scope":"浙江省-杭州市-滨江区-浦沿街道-杨家墩社区-浦沿路","startTime":"2020-02-07 03:07:00","stopDate":"2020-02-07 04:20:00","orgNo":"3340101","typeCode":"电网故障停限电","poweroffArea":"110kV冠山变:沿闻9523线田里坞配变","poweroffReason":"高压开关跳闸 原停电结束时间为2020-02-07 05:07:00,为减少客户停电时间,加快工作进度,提前送电,现变更停电结束时间为2020-02-07 04:20:00","powerTime":"2020-02-07 03:50:08","powerComm":"已送电","subsNo":"","lineNo":"","tgNo":"","tgName":null,"infoStatus":"1","orgName":"浙江杭州电力客户服务中心","typeName":null,"infoStatusName":null,"dateDay":null,"orgNos":null,"nowTime":null,"countyName":null,"streetName":null,"villageName":null,"roadName":null,"communityName":null,"tranName":null,"sdLineName":null,"cityCode":"3340101","cityName":"浙江杭州电力客户服务中心","provinceCode":null,"stopTime":"2020-02-07 04:20:00","powerType":"全部","powerOffArea":"110kV冠山变:沿闻9523线田里坞配变","powerOffReason":"高压开关跳闸 原停电结束时间为2020-02-07 05:07:00,为减少客户停电时间,加快工作进度,提前送电,现变更停电结束时间为2020-02-07 04:20:00","powerOffId":"2020020731020005"}],"pageModel":{"pageNow":544,"totalCount":17789,"totalPage":1779,"tableRows":0,"pageCount":10,"beginCount":5430},"isExperi":"1"}