{"message":"","today":"2020-06-15","seleList":[{"poweroffId":2020020631020019,"sgpoweroffId":null,"subsName":"","lineName":"10kV潼江C632线","pubTranName":"冷拉型钢,临一村6#变,消防化工,淀粉厂,杭州华利铸造有限公司1#配变,南江村6#变,临一村11#变,欧邦照明,临一村10#变,格兰多铝业,信用社,下桥排灌,大庄村5#变,公路段,杭州萧山潼江化工厂,临一村1#变,方兴种猪,肖山万达塑胶,杭州祥发工艺鞋厂,杭州梦杰电器厂,南江村8#变,皮革机械,杭州市萧山区临浦镇人民政府（下桥机埠）2#,杭州萧山临浦生生电炉厂,杭州萧山华乐鞋业有限公司,南江村7#变,临一村9#变,临一村4#变,临一村12#变,临一村3#变,杭州萧山浦阳江建设开发有限公司,杭州萧山浦阳江建设开发有限公司,杭州萧山浦阳江建设开发有限公司,临一村7#变,旭日染整,三通,临浦镇新港村10#变,傅氏机械,杭州民盛建设工程有限公司,杭州华利铸造有限公司2#配变,装饰装璜,","scope":"浙江省-杭州市-萧山区-临浦镇-新港行政村-桥南自然村,临浦镇-南江行政村(陈家塘自然村,江沿自然村),临浦镇-临一行政村(潼江里自然村,塘郎姚自然村,施家闸自然村,沈家门自然村,下桥自然村,从塘自然村,上桥自然村),临浦镇-大庄行政村(大庄桥自然村,九间头自然村);临浦镇(杭州市萧山区公路管理处,杭州市萧山区临浦镇人民政府,杭州萧山潼江化工厂,杭州萧山天一化工有限公司,杭州格兰多铝业有限公司,杭州华利铸造有限公司,杭州祥胜鞋业有限公司,杭州萧山旭日染整机械有限公司,杭州友龙实业有限公司,杭州萧山三通水泥制品厂,杭州欧邦照明电器有限公司,浙江萧山农村商业银行股份有限公司,杭州萧山华明淀粉有限公司,杭州萧山临浦镇装饰装璜五金厂,杭州萧山临浦冷拉型钢有限公司,杭州梦杰电器厂,杭州萧山前进皮革纸业机械有限公司,杭州方兴种猪有限公司,杭州萧山临浦生生电炉厂,杭州傅氏机械铸造厂,杭州萧山华乐鞋业有限公司,杭州萧山浦阳江建设开发有限公司,杭州民盛建设工程有限公司)，临浦镇南江村，临浦镇临一村，临浦镇南江村天一化工厂等一带","startTime":"2020-02-06 11:46:00","stopDate":"2020-02-06 13:46:00","orgNo":"3340130","typeCode":"电网故障停限电","poweroffArea":"110kV临浦变:潼江C632线潼江C632线詹家开南江临一分线开关后段","poweroffReason":"高压开关跳闸","powerTime":"2020-02-06 12:50:56","powerComm":"已送电","subsNo":"","lineNo":"","tgNo":"","tgName":null,"infoStatus":"1","orgName":"国网浙江杭州市萧山区供电有限公司","typeName":null,"infoStatusName":null,"dateDay":null,"orgNos":null,"nowTime":null,"countyName":null,"streetName":null,"villageName":null,"roadName":null,"communityName":null,"tranName":null,"sdLineName":null,"cityCode":"3340130","cityName":"国网浙江杭州市萧山区供电有限公司","provinceCode":null,"stopTime":"2020-02-06 13:46:00","powerType":"全部","powerOffArea":"110kV临浦变:潼江C632线潼江C632线詹家开南江临一分线开关后段","powerOffReason":"高压开关跳闸","powerOffId":"2020020631020019"},{"poweroffId":2020020631020016,"sgpoweroffId":null,"subsName":"","lineName":"10kV金西T263线","pubTranName":"大丰1号公变,","scope":"浙江省-杭州市-桐庐县-城南街道-乔林行政村-乔林自然村,城南街道-大丰行政村(毛家自然村,里汪自然村,外汪自然村,大丰自然村)","startTime":"2020-02-06 10:52:34","stopDate":"2020-02-06 13:52:34","orgNo":"3340150","typeCode":"电网故障停限电","poweroffArea":"35kV三合变:金西T263线-大丰1号公变后段","poweroffReason":"(低压停电信息)低压开关跳闸","powerTime":"2020-02-06 13:41:13","powerComm":"已送电","subsNo":"","lineNo":"","tgNo":"","tgName":null,"infoStatus":"1","orgName":"国网浙江桐庐县供电公司","typeName":null,"infoStatusName":null,"dateDay":null,"orgNos":null,"nowTime":null,"countyName":null,"streetName":null,"villageName":null,"roadName":null,"communityName":null,"tranName":null,"sdLineName":null,"cityCode":"3340150","cityName":"国网浙江桐庐县供电公司","provinceCode":null,"stopTime":"2020-02-06 13:52:34","powerType":"全部","powerOffArea":"35kV三合变:金西T263线-大丰1号公变后段","powerOffReason":"(低压停电信息)低压开关跳闸","powerOffId":"2020020631020016"},{"poweroffId":2020020631020014,"sgpoweroffId":null,"subsName":"","lineName":"10kV排塘Y185线","pubTranName":"南浦村官桥头台区,","scope":"浙江省-杭州市-建德市-寿昌镇-南浦行政村 官桥头自然村,桐源口自然村,南浦自然村,杨坞自然村一带用户","startTime":"2020-02-06 10:40:00","stopDate":"2020-02-06 12:00:00","orgNo":"3340180","typeCode":"电网故障停限电","poweroffArea":"35kV河南里变:排塘Y185线-南浦村官桥头台区后段","poweroffReason":"(低压停电信息)低压熔芯烧毁故障 原停电结束时间为2020-02-06 13:40:00,为减少客户停电时间,加快工作进度,提前送电,现变更停电结束时间为2020-02-06 12:00:00","powerTime":"2020-02-06 11:25:00","powerComm":"已送电","subsNo":"","lineNo":"","tgNo":"","tgName":null,"infoStatus":"1","orgName":"国网浙江建德市供电有限公司","typeName":null,"infoStatusName":null,"dateDay":null,"orgNos":null,"nowTime":null,"countyName":null,"streetName":null,"villageName":null,"roadName":null,"communityName":null,"tranName":null,"sdLineName":null,"cityCode":"3340180","cityName":"国网浙江建德市供电有限公司","provinceCode":null,"stopTime":"2020-02-06 12:00:00","powerType":"全部","powerOffArea":"35kV河南里变:排塘Y185线-南浦村官桥头台区后段","powerOffReason":"(低压停电信息)低压熔芯烧毁故障 原停电结束时间为2020-02-06 13:40:00,为减少客户停电时间,加快工作进度,提前送电,现变更停电结束时间为2020-02-06 12:00:00","powerOffId":"2020020631020014"},{"poweroffId":2020020631020012,"sgpoweroffId":null,"subsName":"","lineName":"10kV绪塘Y157线","pubTranName":"乌驹市村长塘台区,","scope":"浙江省-杭州市-建德市-下涯镇-乌驹市行政村 下市自然村,长塘自然村一带用户","startTime":"2020-02-06 10:10:00","stopDate":"2020-02-06 11:00:00","orgNo":"3340180","typeCode":"电网故障停限电","poweroffArea":"110kV沿口变:绪塘Y157线乌驹市村长塘台区配变","poweroffReason":"(低压停电信息)低压开关跳闸 原停电结束时间为2020-02-06 12:30:00,为减少客户停电时间,加快工作进度,提前送电,现变更停电结束时间为2020-02-06 11:00:00","powerTime":"2020-02-06 10:32:00","powerComm":"已送电","subsNo":"","lineNo":"","tgNo":"","tgName":null,"infoStatus":"1","orgName":"国网浙江建德市供电有限公司","typeName":null,"infoStatusName":null,"dateDay":null,"orgNos":null,"nowTime":null,"countyName":null,"streetName":null,"villageName":null,"roadName":null,"communityName":null,"tranName":null,"sdLineName":null,"cityCode":"3340180","cityName":"国网浙江建德市供电有限公司","provinceCode":null,"stopTime":"2020-02-06 11:00:00","powerType":"全部","powerOffArea":"110kV沿口变:绪塘Y157线乌驹市村长塘台区配变","powerOffReason":"(低压停电信息)低压开关跳闸 原停电结束时间为2020-02-06 12:30:00,为减少客户停电时间,加快工作进度,提前送电,现变更停电结束时间为2020-02-06 11:00:00","powerOffId":"2020020631020012"},{"poweroffId":2020020631020006,"sgpoweroffId":null,"subsName":"","lineName":"10kV新竹园H712线","pubTranName":"竹园村红光公变,竹园村踏子弄公变,竹园村徐家组公变,竹园村上舍圩公变,舟枕石矿,竹园村林家公变,竹园村桃园公变,竹园村红元公变,竹园村红胜公变,竹园生态农业,竹园村六组公变,云雾阁正式变,竹园村前村公变,竹园建材,竹园村小弄公变,竹园村里山坞公变,竹园村石矿公变,竹园村梅岭公变,增生链条,交工（竹园村）,竹园村红胜对家公变,竹园村费家公变,竹园村竹园公变,检票站,竹园村千家公变,竹园村顾家公变,竹园村大洋圩公变,竹园村竹园村委公变,竹园村官塘公变,竹园村鲍家公变,竹园村南山公变,孙鸣华建材,","scope":"浙江省-杭州市-余杭区-余杭街道-仙宅行政村-仙宅自然村,余杭街道-竹园行政村(竹园自然村,鲍家自然村,徐家自然村);浙江省-杭州市-余杭区-余杭街道-华坞行政村-杭州旺山建材有限公司,余杭街道-竹园行政村(杭州市余杭区收费管理所,杭州余杭竹园生态农业有限公司,杭州正生链传动有限公司,杭州竹园建材厂,杭州余杭区余杭镇孙鸿华建材经营部,杭州云雾阁生态农业开发有限公司,浙江交工路桥建设有限公司)","startTime":"2020-02-06 07:54:21","stopDate":"2020-02-06 09:54:21","orgNo":"3340140","typeCode":"电网故障停限电","poweroffArea":"110kV余杭临时变:新竹园H712线-竹园H712线竹园分线3#杆开关后段","poweroffReason":"高压开关跳闸","powerTime":"2020-02-06 09:09:11","powerComm":"已送电","subsNo":"","lineNo":"","tgNo":"","tgName":null,"infoStatus":"1","orgName":"国网浙江杭州市余杭区供电有限公司","typeName":null,"infoStatusName":null,"dateDay":null,"orgNos":null,"nowTime":null,"countyName":null,"streetName":null,"villageName":null,"roadName":null,"communityName":null,"tranName":null,"sdLineName":null,"cityCode":"3340140","cityName":"国网浙江杭州市余杭区供电有限公司","provinceCode":null,"stopTime":"2020-02-06 09:54:21","powerType":"全部","powerOffArea":"110kV余杭临时变:新竹园H712线-竹园H712线竹园分线3#杆开关后段","powerOffReason":"高压开关跳闸","powerOffId":"2020020631020006"},{"poweroffId":2020020631020004,"sgpoweroffId":null,"subsName":"","lineName":"10kV东园D420线","pubTranName":"安顺化纤有限公司2#变压器,杭州春水镀膜玻璃有限公司,杭州春水镀膜玻璃有限公司,浙江安顺化纤有限公司3#变,浙江轻机离心机制造有限公司,浙江安顺化纤有限公司,","scope":"浙江省-杭州市-富阳区-东洲街道(浙江安顺化纤有限公司,杭州春水镀膜玻璃有限公司,浙江轻机离心机制造有限公司)","startTime":"2020-02-06 07:19:00","stopDate":"2020-02-06 09:30:00","orgNo":"3340170","typeCode":"电网故障停限电","poweroffArea":"110kV东洲变:东园D420线东园D4201开关后段","poweroffReason":"高压开关跳闸","powerTime":"2020-02-06 08:30:25","powerComm":"已送电","subsNo":"","lineNo":"","tgNo":"","tgName":null,"infoStatus":"1","orgName":"国网浙江杭州市富阳区供电公司","typeName":null,"infoStatusName":null,"dateDay":null,"orgNos":null,"nowTime":null,"countyName":null,"streetName":null,"villageName":null,"roadName":null,"communityName":null,"tranName":null,"sdLineName":null,"cityCode":"3340170","cityName":"国网浙江杭州市富阳区供电公司","provinceCode":null,"stopTime":"2020-02-06 09:30:00","powerType":"全部","powerOffArea":"110kV东洲变:东园D420线东园D4201开关后段","powerOffReason":"高压开关跳闸","powerOffId":"2020020631020004"},{"poweroffId":2020020631020003,"sgpoweroffId":null,"subsName":"","lineName":"10kV桐洲D842线","pubTranName":"俞家村2号学校公变,俞家村4号江边公变,俞家村农灌,","scope":"浙江省-杭州市-富阳区-新桐乡-俞家行政村-俞家自然村;浙江省-杭州市-富阳区-新桐乡-俞家行政村-杭州市富阳区新桐乡俞家村股份经济合作社","startTime":"2020-02-06 03:44:18","stopDate":"2020-02-06 04:44:18","orgNo":"3340170","typeCode":"电网故障停限电","poweroffArea":"110kV新桐变:桐洲D842线-俞家分线断路器后段","poweroffReason":"高压开关跳闸","powerTime":"2020-02-06 04:22:01","powerComm":"已送电","subsNo":"","lineNo":"","tgNo":"","tgName":null,"infoStatus":"1","orgName":"国网浙江杭州市富阳区供电公司","typeName":null,"infoStatusName":null,"dateDay":null,"orgNos":null,"nowTime":null,"countyName":null,"streetName":null,"villageName":null,"roadName":null,"communityName":null,"tranName":null,"sdLineName":null,"cityCode":"3340170","cityName":"国网浙江杭州市富阳区供电公司","provinceCode":null,"stopTime":"2020-02-06 04:44:18","powerType":"全部","powerOffArea":"110kV新桐变:桐洲D842线-俞家分线断路器后段","powerOffReason":"高压开关跳闸","powerOffId":"2020020631020003"},{"poweroffId":2020020631020002,"sgpoweroffId":null,"subsName":"","lineName":"10kV山居D588线","pubTranName":"云水山居18#公变,云水山居15#公变,云水山居11#公变,杭州金宇房地产开发有限公司,云水山居12#公变,云水山居16#公变,云水山居14号公变,云水山居2#公变,云水山居3#公变,云水山居1#公变,杭州金宇房地产开发有限公司1#变,2#变,云水山居13号公变,云水山居4#公变,云水山居17#公变,","scope":"浙江省-杭州市-富阳区-银湖街道-勤丰行政村-勤丰自然村;银湖街道(杭州金宇房地产开发有限公司,杭州东昱艺术培训有限公司)","startTime":"2020-02-06 02:56:19","stopDate":"2020-02-06 05:00:00","orgNo":"3340170","typeCode":"电网故障停限电","poweroffArea":"110kV高桥变:山居D588线云水开关站云二D5886线开关间隔后段","poweroffReason":"高压开关跳闸","powerTime":"2020-02-06 04:00:35","powerComm":"已送电","subsNo":"","lineNo":"","tgNo":"","tgName":null,"infoStatus":"1","orgName":"国网浙江杭州市富阳区供电公司","typeName":null,"infoStatusName":null,"dateDay":null,"orgNos":null,"nowTime":null,"countyName":null,"streetName":null,"villageName":null,"roadName":null,"communityName":null,"tranName":null,"sdLineName":null,"cityCode":"3340170","cityName":"国网浙江杭州市富阳区供电公司","provinceCode":null,"stopTime":"2020-02-06 05:00:00","powerType":"全部","powerOffArea":"110kV高桥变:山居D588线云水开关站云二D5886线开关间隔后段","powerOffReason":"高压开关跳闸","powerOffId":"2020020631020002"},{"poweroffId":2020020531020033,"sgpoweroffId":null,"subsName":"","lineName":"10kV环联D788线","pubTranName":"环联村12#回龙桥公变,环二村1#球场公变,环二村4号乡政府公变,","scope":"浙江省-杭州市-富阳区-环山乡-环联行政村(环四球场自然村,环四桥南自然村,朱马车自然村),环山乡-环二行政村(村边畈自然村,环山自然村,环二新自然村,球场自然村)","startTime":"2020-02-05 17:09:15","stopDate":"2020-02-05 19:00:00","orgNo":"3340170","typeCode":"电网故障停限电","poweroffArea":"110kV王洲变:环联D788线-球场分线开关后段","poweroffReason":"高压开关跳闸","powerTime":"2020-02-05 18:00:18","powerComm":"已送电","subsNo":"","lineNo":"","tgNo":"","tgName":null,"infoStatus":"1","orgName":"国网浙江杭州市富阳区供电公司","typeName":null,"infoStatusName":null,"dateDay":null,"orgNos":null,"nowTime":null,"countyName":null,"streetName":null,"villageName":null,"roadName":null,"communityName":null,"tranName":null,"sdLineName":null,"cityCode":"3340170","cityName":"国网浙江杭州市富阳区供电公司","provinceCode":null,"stopTime":"2020-02-05 19:00:00","powerType":"全部","powerOffArea":"110kV王洲变:环联D788线-球场分线开关后段","powerOffReason":"高压开关跳闸","powerOffId":"2020020531020033"},{"poweroffId":2020020531020027,"sgpoweroffId":null,"subsName":"","lineName":"10kV三溪D337线","pubTranName":"三溪村8#九房里公变,三溪村14#对山公变,三溪村7#三房里公变,三溪村10#羊坞变公变,富阳贝宏电器有限公司,三溪村17号枫林公变,三溪村16#二房里公变,三溪村9#小山上公变,","scope":"浙江省-杭州市-富阳区-洞桥镇-三溪行政村(门前坞自然村,三房里自然村,高子坞自然村,九房里自然村,三溪袁家自然村,对山自然村,潘坞口自然村,枫林自然村,沙帽山自然村,大园里自然村,二房里自然村,小山上自然村,三溪自然村,牧家坞自然村,鲍家畈自然村,羊坞里自然村,土福湾自然村,雷山自然村),洞桥镇(袁家行政村-袁家自然村,大溪行政村-俞家山自然村,枫瑞行政村-菖蒲俞家自然村,洞桥行政村-卸坞里自然村);浙江省-杭州市-富阳区-洞桥镇-三溪行政村-杭州富阳贝宏电器有限公司","startTime":"2020-02-05 14:06:47","stopDate":"2020-02-05 17:00:00","orgNo":"3340170","typeCode":"电网故障停限电","poweroffArea":"110kV万市变:三溪D337线首端，三溪D3379开关，三溪D337A开关之间","poweroffReason":"高压开关跳闸","powerTime":"2020-02-05 16:55:16","powerComm":"已送电","subsNo":"","lineNo":"","tgNo":"","tgName":null,"infoStatus":"1","orgName":"国网浙江杭州市富阳区供电公司","typeName":null,"infoStatusName":null,"dateDay":null,"orgNos":null,"nowTime":null,"countyName":null,"streetName":null,"villageName":null,"roadName":null,"communityName":null,"tranName":null,"sdLineName":null,"cityCode":"3340170","cityName":"国网浙江杭州市富阳区供电公司","provinceCode":null,"stopTime":"2020-02-05 17:00:00","powerType":"全部","powerOffArea":"110kV万市变:三溪D337线首端，三溪D3379开关，三溪D337A开关之间","powerOffReason":"高压开关跳闸","powerOffId":"2020020531020027"}],"pageModel":{"pageNow":546,"totalCount":17789,"totalPage":1779,"tableRows":0,"pageCount":10,"beginCount":5450},"isExperi":"1"}