{"message":"","today":"2020-06-15","seleList":[{"poweroffId":2020020531020023,"sgpoweroffId":null,"subsName":"","lineName":"10kV小岭T104线","pubTranName":"公园山路1号公变,","scope":"浙江省-杭州市-桐庐县-桐君街道-迎宾社区(富春路,劳动路,公园山路),桐君街道-圆通社区(公园山路,富春路,桐君街道迎宾社区公园山路53号)","startTime":"2020-02-05 11:29:01","stopDate":"2020-02-05 13:29:01","orgNo":"3340150","typeCode":"电网故障停限电","poweroffArea":"110kV桐庐变:小岭T104线-公园山路1号公变后段","poweroffReason":"(低压停电信息)低压开关跳闸","powerTime":"2020-02-05 13:15:56","powerComm":"已送电","subsNo":"","lineNo":"","tgNo":"","tgName":null,"infoStatus":"1","orgName":"国网浙江桐庐县供电公司","typeName":null,"infoStatusName":null,"dateDay":null,"orgNos":null,"nowTime":null,"countyName":null,"streetName":null,"villageName":null,"roadName":null,"communityName":null,"tranName":null,"sdLineName":null,"cityCode":"3340150","cityName":"国网浙江桐庐县供电公司","provinceCode":null,"stopTime":"2020-02-05 13:29:01","powerType":"全部","powerOffArea":"110kV桐庐变:小岭T104线-公园山路1号公变后段","powerOffReason":"(低压停电信息)低压开关跳闸","powerOffId":"2020020531020023"},{"poweroffId":2020020531020022,"sgpoweroffId":null,"subsName":"","lineName":"10kV广福H767线","pubTranName":"油车斗村王家门前公变,荆丰村西海,绿汀路1号基建,山家湾,荆丰社区田家塘,水产技术总站2#,乌龟新村公变,绿汀路2号基建,兆和桥(2)公变,水产技术总站2#,","scope":"浙江省-杭州市-余杭区-五常街道-荆丰行政村-荆丰自然村,五常街道-荆丰社区(五常大道,西坝路,社区);五常街道(五常社区-浙江省水产技术推广总站,横板桥行政村-温岭市市政环境工程公司)","startTime":"2020-02-05 11:14:05","stopDate":"2020-02-05 14:55:00","orgNo":"3340140","typeCode":"电网故障停限电","poweroffArea":"110kV五常变:广福H767线-田家塘分线后段","poweroffReason":"高压开关跳闸 原停电结束时间为2020-02-05 14:14:05,因施工难度大原因,现变更停电结束时间为2020-02-05 14:55:00","powerTime":"2020-02-05 14:40:32","powerComm":"已送电","subsNo":"","lineNo":"","tgNo":"","tgName":null,"infoStatus":"1","orgName":"国网浙江杭州市余杭区供电有限公司","typeName":null,"infoStatusName":null,"dateDay":null,"orgNos":null,"nowTime":null,"countyName":null,"streetName":null,"villageName":null,"roadName":null,"communityName":null,"tranName":null,"sdLineName":null,"cityCode":"3340140","cityName":"国网浙江杭州市余杭区供电有限公司","provinceCode":null,"stopTime":"2020-02-05 14:55:00","powerType":"全部","powerOffArea":"110kV五常变:广福H767线-田家塘分线后段","powerOffReason":"高压开关跳闸 原停电结束时间为2020-02-05 14:14:05,因施工难度大原因,现变更停电结束时间为2020-02-05 14:55:00","powerOffId":"2020020531020022"},{"poweroffId":2020020531020010,"sgpoweroffId":null,"subsName":"","lineName":"10kV屏山Y445线","pubTranName":"红路村后大路台区,","scope":"浙江省-杭州市-建德市-寿昌镇-红路行政村(后大路自然村,毛家畈自然村)一带用户","startTime":"2020-02-05 09:00:00","stopDate":"2020-02-05 10:00:00","orgNo":"3340180","typeCode":"电网故障停限电","poweroffArea":"110kV家蓬变:屏山Y445线红路村后大路台区配变","poweroffReason":"高压熔丝烧毁 原停电结束时间为2020-02-05 11:00:00,为减少客户停电时间,加快工作进度,提前送电,现变更停电结束时间为2020-02-05 10:00:00","powerTime":"2020-02-05 09:33:00","powerComm":"已送电","subsNo":"","lineNo":"","tgNo":"","tgName":null,"infoStatus":"1","orgName":"国网浙江建德市供电有限公司","typeName":null,"infoStatusName":null,"dateDay":null,"orgNos":null,"nowTime":null,"countyName":null,"streetName":null,"villageName":null,"roadName":null,"communityName":null,"tranName":null,"sdLineName":null,"cityCode":"3340180","cityName":"国网浙江建德市供电有限公司","provinceCode":null,"stopTime":"2020-02-05 10:00:00","powerType":"全部","powerOffArea":"110kV家蓬变:屏山Y445线红路村后大路台区配变","powerOffReason":"高压熔丝烧毁 原停电结束时间为2020-02-05 11:00:00,为减少客户停电时间,加快工作进度,提前送电,现变更停电结束时间为2020-02-05 10:00:00","powerOffId":"2020020531020010"},{"poweroffId":2020020531020008,"sgpoweroffId":null,"subsName":"","lineName":"10kV三溪D337线","pubTranName":"袁家村3#村委前公变,三溪村6#大塔地公变,杭州富阳永顺工贸有限公司2#变,袁家村2#章坎坞公变,三溪村3#沙帽山公变,袁家村1#高庆岭公变,三溪村10#羊坞变公变,袁家村5#七坞口公变,三溪村17号枫林公变,大乐村2#朱家公变,三溪村11#郎家坞公变,三溪村2#西年坞公变,大乐村4号江江坞公变,袁家村4#白坞口公变,三溪村8#九房里公变,修改成中国电信股份有限公司富阳分公司（万市俞家山）,大溪村15#塘坞里公变,三溪村15#农居点公变,枫瑞村5#大兰公变,三溪村12#磨盘山公变,大溪村4#俞家山公变,枫瑞村2#大红家公变,袁家村8#团圆里公变,三溪村4#大院里公变,大乐村3#健坞公变,三溪村5#西坎坞公变,洞桥政府1#变,大溪村7#泮畈公变,袁家村6#深坞口公变,中国石化销售有限公司浙江杭州石油分公司,大溪村9#沈家公变,袁家村9#童家公变1,杭州富阳永兴包装厂,大溪村13#俞家山目坞口公变,富阳贝宏电器有限公司,杭州富阳永顺工贸有限公司1#变,大溪村8#东畈公变,枫瑞村4#金家公变,石羊村1#泮家公变,金泉纸业,欧拓普生物技术,三溪村16#二房里公变,三溪村1#鲍家畈公变,鑫鹿链罩厂,富阳洞桥镇旦锋生态养殖场,大溪村16#炎田坞公变,三溪村13#上门前公变,大乐村1#章家公变,大溪村10#郎家村公变,三溪村9#小山上公变,三溪村14#对山公变,三溪村7#三房里公变,富阳市永恒电镀厂,大溪村1#青台上公变,洞桥镇宏翔塑料制品厂,","scope":"浙江省-杭州市-富阳区-洞桥镇-查口行政村-徐家自然村,洞桥镇-枫瑞行政村(骆坞口自然村,枫瑞自然村,菖蒲俞家自然村,菖蒲袁家自然村,麻车里自然村,大兰自然村),洞桥镇-石羊行政村(潘家自然村,石羊坞自然村,西石岭自然村,杨家自然村),洞桥镇-大溪行政村(文河自然村,郎家自然村,潘畈自然村,塘坞里自然村,文河东畈自然村,东畈自然村,俞家山自然村,岭脚跟自然村,文河郎家自然村,沙帽山自然村,文河沈家自然村,山里垅自然村,大坞何家自然村,沈家自然村,垅里沈家自然村,唐坞里自然村,中堂畈自然村,堰头自然村,毛山上自然村,何家自然村,姚宅自然村),洞桥镇-大乐行政村(大乐坞自然村,俭坞自然村,朱家自然村,章家自然村,里云洞坞自然村,健坞里自然村,虎石坞口自然村,半坞自然村,章家金竹坞自然村,大青山坞口自然村,章家迈家坞树华门前自然村),洞桥镇-洞桥行政村(大乐村朱家自然村,卸坞里自然村),洞桥镇-三溪行政村(雷山自然村,磨盘山自然村,西坑坞自然村,高子坞自然村,门前坞自然村,三溪袁家自然村,三房里自然村,九房里自然村,对山自然村,潘坞口自然村,枫林自然村,土福湾自然村,黄宅自然村,大青坞自然村,大塔地自然村,三溪自然村,大园里自然村,小山上自然村,二房里自然村,沙帽山自然村,西云路自然村,西年坞自然村,牧家坞自然村,鲍家畈自然村,纱帽山自然村,羊坞里自然村),洞桥镇-袁家行政村(袁家自然村,查坑坞自然村,上山坞口自然村,深坞口自然村,高村岭自然村,紫房里自然村,三溪袁家自然村);洞桥镇(杭州富阳永恒电镀厂,中国电信股份有限公司富阳分公司,杭州富阳贝宏电器有限公司,杭州富阳金源纸业有限公司,杭州欧拓普生物技术有限公司,杭州鑫鹿链罩有限公司,富阳市洞桥镇宏翔塑料制品厂,富阳洞桥镇旦锋生态养殖场,中国石化销售股份有限公司浙江杭州石油分公司,杭州富阳永顺工贸有限公司,杭州市富阳区洞桥镇人民政府)","startTime":"2020-02-05 08:47:00","stopDate":"2020-02-05 15:15:00","orgNo":"3340170","typeCode":"电网故障停限电","poweroffArea":"110kV万市变:三溪D337线三溪D3372开关后段","poweroffReason":"高压开关跳闸 原停电结束时间为2020-02-05 14:00:00,因现场抢修难度大原因,现变更停电结束时间为2020-02-05 15:15:00","powerTime":"2020-02-05 14:16:35","powerComm":"已送电","subsNo":"","lineNo":"","tgNo":"","tgName":null,"infoStatus":"1","orgName":"国网浙江杭州市富阳区供电公司","typeName":null,"infoStatusName":null,"dateDay":null,"orgNos":null,"nowTime":null,"countyName":null,"streetName":null,"villageName":null,"roadName":null,"communityName":null,"tranName":null,"sdLineName":null,"cityCode":"3340170","cityName":"国网浙江杭州市富阳区供电公司","provinceCode":null,"stopTime":"2020-02-05 15:15:00","powerType":"全部","powerOffArea":"110kV万市变:三溪D337线三溪D3372开关后段","powerOffReason":"高压开关跳闸 原停电结束时间为2020-02-05 14:00:00,因现场抢修难度大原因,现变更停电结束时间为2020-02-05 15:15:00","powerOffId":"2020020531020008"},{"poweroffId":2020020431020052,"sgpoweroffId":null,"subsName":"","lineName":"10kV屏山Y445线","pubTranName":"红路村后大路台区,","scope":"浙江省-杭州市-建德市-寿昌镇-红路行政村 后大路自然村,毛家畈自然村一带用户","startTime":"2020-02-04 21:20:00","stopDate":"2020-02-04 23:30:00","orgNo":"3340180","typeCode":"电网故障停限电","poweroffArea":"110kV家蓬变:屏山Y445线-红路村后大路台区后段","poweroffReason":"(低压停电信息)低压开关跳闸","powerTime":"2020-02-04 22:47:08","powerComm":"已送电","subsNo":"","lineNo":"","tgNo":"","tgName":null,"infoStatus":"1","orgName":"国网浙江建德市供电有限公司","typeName":null,"infoStatusName":null,"dateDay":null,"orgNos":null,"nowTime":null,"countyName":null,"streetName":null,"villageName":null,"roadName":null,"communityName":null,"tranName":null,"sdLineName":null,"cityCode":"3340180","cityName":"国网浙江建德市供电有限公司","provinceCode":null,"stopTime":"2020-02-04 23:30:00","powerType":"全部","powerOffArea":"110kV家蓬变:屏山Y445线-红路村后大路台区后段","powerOffReason":"(低压停电信息)低压开关跳闸","powerOffId":"2020020431020052"},{"poweroffId":2020020431020051,"sgpoweroffId":null,"subsName":"","lineName":"10kV石珠T451线","pubTranName":"文昌苑2号公变,文昌苑1号公变,路灯变,杭州桐庐中欧城开发有限公司,下轮新村12#专变,中艺花边集团有限公司,浙江龙生汽车部件科技有限公司变压器,杭州桐庐中欧城开发有限公司,中国移动通信集团浙江有限公司桐庐分公司,杭州桐庐中欧城开发有限公司,杭州桐庐中欧城开发有限公司,桐庐家园物业服务有限公司,桐庐县实验初级中学,丰汇公寓2号公变,下轮村综合楼,中国石油化工股份有限公司浙江杭州石油分公司,桐庐县实验初级中学,中国人民解放军浙江省桐庐人民武装部,","scope":"浙江省-杭州市-桐庐县-城南街道-梅林社区(学圣路,石马路,白云源路);浙江省-杭州市-桐庐县-城南街道-中杭社区-中国石化销售股份有限公司浙江杭州石油分公司,城南街道-梅林社区(浙江龙生汽车部件科技有限公司,中艺花边集团有限公司),城南街道-下杭社区(桐庐县实验初级中学,桐庐县市政园林建设管理处,桐庐家园物业服务有限公司,桐庐县城南街道下轮村经济合作社,桐庐佰欧特假日酒店有限公司,中国移动通信集团浙江有限公司桐庐分公司),城南街道-上杭社区(桐庐县学府小学,中国人民解放军浙江省桐庐人民武装部)绿都文昌苑一带","startTime":"2020-02-04 20:54:47","stopDate":"2020-02-04 21:54:47","orgNo":"3340150","typeCode":"电网故障停限电","poweroffArea":"110kV下杭变:石珠T451线","poweroffReason":"高压开关跳闸 原停电结束时间为2020-02-04 23:54:47,为减少客户停电时间,加快工作进度,提前送电,现变更停电结束时间为2020-02-04 21:54:47","powerTime":"2020-02-04 21:41:08","powerComm":"已送电","subsNo":"","lineNo":"","tgNo":"","tgName":null,"infoStatus":"1","orgName":"国网浙江桐庐县供电公司","typeName":null,"infoStatusName":null,"dateDay":null,"orgNos":null,"nowTime":null,"countyName":null,"streetName":null,"villageName":null,"roadName":null,"communityName":null,"tranName":null,"sdLineName":null,"cityCode":"3340150","cityName":"国网浙江桐庐县供电公司","provinceCode":null,"stopTime":"2020-02-04 21:54:47","powerType":"全部","powerOffArea":"110kV下杭变:石珠T451线","powerOffReason":"高压开关跳闸 原停电结束时间为2020-02-04 23:54:47,为减少客户停电时间,加快工作进度,提前送电,现变更停电结束时间为2020-02-04 21:54:47","powerOffId":"2020020431020051"},{"poweroffId":2020020431020050,"sgpoweroffId":null,"subsName":"","lineName":"10kV高桥Y679线","pubTranName":"大同镇金鑫2#台区,","scope":"浙江省-杭州市-建德市-大同镇-黄山头行政村-永平路 金鑫佳苑1幢1单元202室一带用户","startTime":"2020-02-04 20:14:00","stopDate":"2020-02-04 21:30:00","orgNo":"3340180","typeCode":"电网故障停限电","poweroffArea":"110kV大同变:高桥Y679线-大同镇金鑫2#台区后段","poweroffReason":"(低压停电信息)低压开关跳闸 原停电结束时间为2020-02-04 22:30:00,为减少客户停电时间,加快工作进度,提前送电,现变更停电结束时间为2020-02-04 21:30:00","powerTime":"2020-02-04 20:57:02","powerComm":"已送电","subsNo":"","lineNo":"","tgNo":"","tgName":null,"infoStatus":"1","orgName":"国网浙江建德市供电有限公司","typeName":null,"infoStatusName":null,"dateDay":null,"orgNos":null,"nowTime":null,"countyName":null,"streetName":null,"villageName":null,"roadName":null,"communityName":null,"tranName":null,"sdLineName":null,"cityCode":"3340180","cityName":"国网浙江建德市供电有限公司","provinceCode":null,"stopTime":"2020-02-04 21:30:00","powerType":"全部","powerOffArea":"110kV大同变:高桥Y679线-大同镇金鑫2#台区后段","powerOffReason":"(低压停电信息)低压开关跳闸 原停电结束时间为2020-02-04 22:30:00,为减少客户停电时间,加快工作进度,提前送电,现变更停电结束时间为2020-02-04 21:30:00","powerOffId":"2020020431020050"},{"poweroffId":2020020431020031,"sgpoweroffId":null,"subsName":"","lineName":"10kV东门D121线","pubTranName":"富阳华邦鞋业有限公司,登城北路2号医院前公变,新大生1#变,6#变,登城北路3号大东门公变,双江村1#桥头公变,茂盛鞋业,双溪村4#双江路口公变,东山塑机,富阳市新登镇人民政府,浙江美易膜科技有限公司,静电喷塑厂3#,浙江新远化工有限公司,杭州富阳新登静电喷塑厂1,杭州富利毛纺织品有限公司,5#变,浙江美易膜科技有限公司,静电喷塑厂2#,登城北路4#供电宿舍公变2,","scope":"浙江省-杭州市-富阳区-新登镇-双庙行政村(对门山自然村,谢家岭自然村),新登镇-双江行政村(钦贤罗家自然村,岭上徐家自然村,太婆湾自然村,赵家基自然村,下汪垄口自然村,裘家岭脚自然村,双江自然村,青山下自然村,钱家坞自然村,鸡鸣山自然村),新登镇-东安社区(双江路,城东,金城路,登城北路,新兴街,登城南路,登云路,登城路,新街,大东门,登云北路),新登镇(元村行政村-元村自然村,南津行政村-南四,共和行政村-登城北路,古城社区-共和街);新登镇(浙江美易膜科技有限公司,杭州茂盛鞋业有限公司,杭州富阳新登静电喷塑厂,浙江新远科技有限公司,杭州京旺科技有限公司,杭州富利毛纺织品有限公司,杭州正飞置业有限公司,杭州华邦鞋业有限公司,富阳市新登镇人民政府,新大生（杭州）工艺品有限公司)","startTime":"2020-02-04 12:36:00","stopDate":"2020-02-04 14:36:00","orgNo":"3340170","typeCode":"电网故障停限电","poweroffArea":"110kV新登变:东门D121线东门D1211开关后段","poweroffReason":"高压开关跳闸","powerTime":"2020-02-04 13:43:24","powerComm":"已送电","subsNo":"","lineNo":"","tgNo":"","tgName":null,"infoStatus":"1","orgName":"国网浙江杭州市富阳区供电公司","typeName":null,"infoStatusName":null,"dateDay":null,"orgNos":null,"nowTime":null,"countyName":null,"streetName":null,"villageName":null,"roadName":null,"communityName":null,"tranName":null,"sdLineName":null,"cityCode":"3340170","cityName":"国网浙江杭州市富阳区供电公司","provinceCode":null,"stopTime":"2020-02-04 14:36:00","powerType":"全部","powerOffArea":"110kV新登变:东门D121线东门D1211开关后段","powerOffReason":"高压开关跳闸","powerOffId":"2020020431020031"},{"poweroffId":2020020431020026,"sgpoweroffId":null,"subsName":"","lineName":"10kV河埠350线","pubTranName":"建一村7#变,","scope":"浙江省-杭州市-萧山区-河庄街道-建一行政村-建一自然村、建一村、河庄街道建一行政村3组13号一带","startTime":"2020-02-04 11:25:34","stopDate":"2020-02-04 13:05:34","orgNo":"3340120","typeCode":"电网故障停限电","poweroffArea":"110kV河庄变:河埠350线-建一村7#变台区低压开关","poweroffReason":"(低压停电信息)低压开关跳闸 原停电结束时间为2020-02-04 13:38:34,为减少客户停电时间,加快工作进度,提前送电,现变更停电结束时间为2020-02-04 13:05:34","powerTime":"2020-02-04 12:12:54","powerComm":"已送电","subsNo":"","lineNo":"","tgNo":"","tgName":null,"infoStatus":"1","orgName":"国网浙江杭州市钱塘新区供电公司","typeName":null,"infoStatusName":null,"dateDay":null,"orgNos":null,"nowTime":null,"countyName":null,"streetName":null,"villageName":null,"roadName":null,"communityName":null,"tranName":null,"sdLineName":null,"cityCode":"3340120","cityName":"国网浙江杭州市钱塘新区供电公司","provinceCode":null,"stopTime":"2020-02-04 13:05:34","powerType":"全部","powerOffArea":"110kV河庄变:河埠350线-建一村7#变台区低压开关","powerOffReason":"(低压停电信息)低压开关跳闸 原停电结束时间为2020-02-04 13:38:34,为减少客户停电时间,加快工作进度,提前送电,现变更停电结束时间为2020-02-04 13:05:34","powerOffId":"2020020431020026"},{"poweroffId":2020020431020008,"sgpoweroffId":null,"subsName":"","lineName":"10kV唐昌D539线","pubTranName":"官山村唐家2#上畈公变,","scope":"浙江省-杭州市-富阳区-新登镇-包秦行政村-包秦自然村,新登镇-官山行政村(唐家自然村,官山自然村)","startTime":"2020-02-04 08:18:00","stopDate":"2020-02-04 10:18:00","orgNo":"3340170","typeCode":"电网故障停限电","poweroffArea":"110kV清泉变:唐昌D539线官山村唐家2#上畈公变配变","poweroffReason":"高压开关跳闸","powerTime":"2020-02-04 09:56:03","powerComm":"已送电","subsNo":"","lineNo":"","tgNo":"","tgName":null,"infoStatus":"1","orgName":"国网浙江杭州市富阳区供电公司","typeName":null,"infoStatusName":null,"dateDay":null,"orgNos":null,"nowTime":null,"countyName":null,"streetName":null,"villageName":null,"roadName":null,"communityName":null,"tranName":null,"sdLineName":null,"cityCode":"3340170","cityName":"国网浙江杭州市富阳区供电公司","provinceCode":null,"stopTime":"2020-02-04 10:18:00","powerType":"全部","powerOffArea":"110kV清泉变:唐昌D539线官山村唐家2#上畈公变配变","powerOffReason":"高压开关跳闸","powerOffId":"2020020431020008"}],"pageModel":{"pageNow":547,"totalCount":17789,"totalPage":1779,"tableRows":0,"pageCount":10,"beginCount":5460},"isExperi":"1"}