{"message":"","today":"2020-06-15","seleList":[{"poweroffId":2020020431020006,"sgpoweroffId":null,"subsName":"","lineName":"10kV南星G993线","pubTranName":"都城科技开发400配变,星桥4组1号公变,杭州余杭南星股份（6120189276）01号专变,星桥4组2号公变,都城科技开发250配变,电力节能灯具厂基建变,星桥4组3号公变,","scope":"浙江省-杭州市-余杭区-星桥街道-星都社区(星源路,星桥自然村),星桥街道-星桥社区(星桥自然村,星桥星源路,星源路,藕花洲大街西段线,星桥);浙江省-杭州市-余杭区-星桥街道-南星社区-杭州余杭南星股份经济合作社,星桥街道-星桥社区(杭州电力节能灯具厂,杭州都城科技开发有限公司)","startTime":"2020-02-04 07:30:00","stopDate":"2020-02-04 09:30:00","orgNo":"3340140","typeCode":"电网故障停限电","poweroffArea":"110kV茅山变:南星G993线-星桥4组2#变分线后段","poweroffReason":"高压开关跳闸","powerTime":"2020-02-04 08:54:00","powerComm":"已送电","subsNo":"","lineNo":"","tgNo":"","tgName":null,"infoStatus":"1","orgName":"国网浙江杭州市余杭区供电有限公司","typeName":null,"infoStatusName":null,"dateDay":null,"orgNos":null,"nowTime":null,"countyName":null,"streetName":null,"villageName":null,"roadName":null,"communityName":null,"tranName":null,"sdLineName":null,"cityCode":"3340140","cityName":"国网浙江杭州市余杭区供电有限公司","provinceCode":null,"stopTime":"2020-02-04 09:30:00","powerType":"全部","powerOffArea":"110kV茅山变:南星G993线-星桥4组2#变分线后段","powerOffReason":"高压开关跳闸","powerOffId":"2020020431020006"},{"poweroffId":2020020431020005,"sgpoweroffId":null,"subsName":"","lineName":"10kV金明G343线","pubTranName":"石桥村施家斗公变,石桥村丁家桥公变,石桥村小桥头公变,石桥村吴家斗公变,配变,石桥村梁东村后公变,石桥村小桥村五组公变,浙江广播电视有限公司,杭州凯迪纺织制品有限公司,石桥村金家角公变,石桥村钱家斗公变,石桥村梁东村公变,双坝芋排涝变,浙江广播电视有限公司,杭州市余杭区人民政府良渚街道办事处,云会胜利大队机埠,石桥村尖斗里公变,","scope":"浙江省-杭州市-余杭区-良渚街道-杜甫行政村(杜甫自然村,疏港公路),良渚街道-石桥行政村(石桥自然村,小桥自然村),仁和街道-獐山社区-东西大道,良渚街道-纤石行政村-上纤埠自然村;良渚街道(杭州凯迪纺织制品有限公司,云会胜利大队机埠,余杭区良渚镇双坝圩区管理委员会,浙江广播电视集团,杭州市余杭区人民政府良渚街道办事处,杭州余杭区良渚苗建花木种植场)","startTime":"2020-02-04 06:27:00","stopDate":"2020-02-04 09:27:00","orgNo":"3340140","typeCode":"电网故障停限电","poweroffArea":"110kV洛山变:金明G343线尖斗里分线开关后段","poweroffReason":"高压开关跳闸","powerTime":"2020-02-04 08:48:00","powerComm":"已送电","subsNo":"","lineNo":"","tgNo":"","tgName":null,"infoStatus":"1","orgName":"国网浙江杭州市余杭区供电有限公司","typeName":null,"infoStatusName":null,"dateDay":null,"orgNos":null,"nowTime":null,"countyName":null,"streetName":null,"villageName":null,"roadName":null,"communityName":null,"tranName":null,"sdLineName":null,"cityCode":"3340140","cityName":"国网浙江杭州市余杭区供电有限公司","provinceCode":null,"stopTime":"2020-02-04 09:27:00","powerType":"全部","powerOffArea":"110kV洛山变:金明G343线尖斗里分线开关后段","powerOffReason":"高压开关跳闸","powerOffId":"2020020431020005"},{"poweroffId":2020020331020042,"sgpoweroffId":null,"subsName":"","lineName":"10kV盛东C922线","pubTranName":"盛东村4#变,","scope":"浙江省-杭州市-萧山区-新街镇、新街街道-盛东行政村-盛东自然村等一带","startTime":"2020-02-03 16:24:20","stopDate":"2020-02-03 18:59:20","orgNo":"3340130","typeCode":"电网故障停限电","poweroffArea":"110kV鸿达变:盛东C922线-盛东村4#变台区低压开关","poweroffReason":"（低压停电信息）低压漏电保护器短路故障","powerTime":"2020-02-03 18:10:23","powerComm":"已送电","subsNo":"","lineNo":"","tgNo":"","tgName":null,"infoStatus":"1","orgName":"国网浙江杭州市萧山区供电有限公司","typeName":null,"infoStatusName":null,"dateDay":null,"orgNos":null,"nowTime":null,"countyName":null,"streetName":null,"villageName":null,"roadName":null,"communityName":null,"tranName":null,"sdLineName":null,"cityCode":"3340130","cityName":"国网浙江杭州市萧山区供电有限公司","provinceCode":null,"stopTime":"2020-02-03 18:59:20","powerType":"全部","powerOffArea":"110kV鸿达变:盛东C922线-盛东村4#变台区低压开关","powerOffReason":"（低压停电信息）低压漏电保护器短路故障","powerOffId":"2020020331020042"},{"poweroffId":2020020331020032,"sgpoweroffId":null,"subsName":"","lineName":"10kV九乔9120线","pubTranName":"九社三变,","scope":"浙江省-杭州市-江干区-九堡街道-九堡社区-老杭海路,九堡家苑一带","startTime":"2020-02-03 12:13:46","stopDate":"2020-02-03 13:30:46","orgNo":"3340120","typeCode":"电网故障停限电","poweroffArea":"110kV蚕桑变:九乔9120线-九社三变后段","poweroffReason":"(低压停电信息)低压开关跳闸","powerTime":"2020-02-03 12:38:42","powerComm":"已送电","subsNo":"","lineNo":"","tgNo":"","tgName":null,"infoStatus":"1","orgName":"国网浙江杭州市钱塘新区供电公司","typeName":null,"infoStatusName":null,"dateDay":null,"orgNos":null,"nowTime":null,"countyName":null,"streetName":null,"villageName":null,"roadName":null,"communityName":null,"tranName":null,"sdLineName":null,"cityCode":"3340120","cityName":"国网浙江杭州市钱塘新区供电公司","provinceCode":null,"stopTime":"2020-02-03 13:30:46","powerType":"全部","powerOffArea":"110kV蚕桑变:九乔9120线-九社三变后段","powerOffReason":"(低压停电信息)低压开关跳闸","powerOffId":"2020020331020032"},{"poweroffId":2020020331020030,"sgpoweroffId":null,"subsName":"","lineName":"10kV新化Y108线","pubTranName":"白沙社区三和公变,","scope":"浙江省-杭州市-建德市-新安江街道-白沙社区 白沙路,华隆东路,三和路一带用户","startTime":"2020-02-03 11:55:00","stopDate":"2020-02-03 13:30:00","orgNo":"3340180","typeCode":"电网故障停限电","poweroffArea":"110kV新安江变:新化Y108线-白沙社区三和公变后段","poweroffReason":"(低压停电信息)低压开关跳闸","powerTime":"2020-02-03 12:59:00","powerComm":"已送电","subsNo":"","lineNo":"","tgNo":"","tgName":null,"infoStatus":"1","orgName":"国网浙江建德市供电有限公司","typeName":null,"infoStatusName":null,"dateDay":null,"orgNos":null,"nowTime":null,"countyName":null,"streetName":null,"villageName":null,"roadName":null,"communityName":null,"tranName":null,"sdLineName":null,"cityCode":"3340180","cityName":"国网浙江建德市供电有限公司","provinceCode":null,"stopTime":"2020-02-03 13:30:00","powerType":"全部","powerOffArea":"110kV新安江变:新化Y108线-白沙社区三和公变后段","powerOffReason":"(低压停电信息)低压开关跳闸","powerOffId":"2020020331020030"},{"poweroffId":2020020331020024,"sgpoweroffId":null,"subsName":"","lineName":"10kV石坝G039线","pubTranName":"宏润建设（6120912548）07#专变,宏润建设（6120912548）09#专变,杭州余杭颜荣华围巾有限公司,三兄丝绸,中天建设集团有限公司,宏润建设（6120912548）04#专变,龙安村四组,杭州丰润羊绒织造有限公司,宏润建设（6120912548）03#专变,宏润建设（6120912548）01#专变,宏润建设（6120912548）06#专变,龙安村长泥坝排涝,运河镇滩里村陈家里公变,交通项目管理公司160,龙安村新丰大队,梦情卫生用品,路宇建设（6120892770）01#专变,龙安桥南祥泥坝变,宏润建设（6120912548）02#专变,宏润建设（6120912548）05#专变,宏润建设（6120912548）08#专变,石坝村一组公变,","scope":"浙江省-杭州市-余杭区-经济开发区-南横港社区(南港自然村,滩里自然村),经济开发区-滩里社区(陈家里自然村,陈家里),临平街道-龙安社区(北祥泥坝自然村,龙安自然村,龙安河自然村,南祥泥坝自然村),临平街道(龙安行政村-龙安自然村,乾元行政村-乾元自然村),东湖街道-石坝社区-石坝,经济开发区-龙安社区-龙安自然村;东湖街道-经济开发区(杭州尚乾实业有限公司,杭州银杉家具有限公司,杭州余杭颜荣华围巾有限公司),经济开发区(南横港社区-杭州余杭城南锻压五金厂,荷花塘社区-宏润建设集团股份有限公司,杭州路宇建设工程有限公司),塘栖镇-钱江经济开发区社区-中天建设集团有限公司,运河街道-荷禹社区-杭州市余杭区公路管理处","startTime":"2020-02-03 10:39:00","stopDate":"2020-02-03 14:30:00","orgNo":"3340140","typeCode":"电网故障停限电","poweroffArea":"110kV五杭变:石坝G039线","poweroffReason":"高压开关跳闸 原停电结束时间为2020-02-03 14:00:00,因现场情况复杂原因,现变更停电结束时间为2020-02-03 14:30:00","powerTime":"2020-02-03 14:15:00","powerComm":"已送电","subsNo":"","lineNo":"","tgNo":"","tgName":null,"infoStatus":"1","orgName":"国网浙江杭州市余杭区供电有限公司","typeName":null,"infoStatusName":null,"dateDay":null,"orgNos":null,"nowTime":null,"countyName":null,"streetName":null,"villageName":null,"roadName":null,"communityName":null,"tranName":null,"sdLineName":null,"cityCode":"3340140","cityName":"国网浙江杭州市余杭区供电有限公司","provinceCode":null,"stopTime":"2020-02-03 14:30:00","powerType":"全部","powerOffArea":"110kV五杭变:石坝G039线","powerOffReason":"高压开关跳闸 原停电结束时间为2020-02-03 14:00:00,因现场情况复杂原因,现变更停电结束时间为2020-02-03 14:30:00","powerOffId":"2020020331020024"},{"poweroffId":2020020331020013,"sgpoweroffId":null,"subsName":"","lineName":"10kV蔡家D893线","pubTranName":"新华村月台2#新区公变,","scope":"浙江省-杭州市-富阳区-灵桥镇-新华行政村(倪家滩自然村,月台自然村,新华自然村)","startTime":"2020-02-03 09:38:07","stopDate":"2020-02-03 11:38:07","orgNo":"3340170","typeCode":"电网故障停限电","poweroffArea":"110kV永春变:蔡家D893线-新华村月台2#新区公变进线熔断器后段","poweroffReason":"高压开关跳闸","powerTime":"2020-02-03 10:54:02","powerComm":"已送电","subsNo":"","lineNo":"","tgNo":"","tgName":null,"infoStatus":"1","orgName":"国网浙江杭州市富阳区供电公司","typeName":null,"infoStatusName":null,"dateDay":null,"orgNos":null,"nowTime":null,"countyName":null,"streetName":null,"villageName":null,"roadName":null,"communityName":null,"tranName":null,"sdLineName":null,"cityCode":"3340170","cityName":"国网浙江杭州市富阳区供电公司","provinceCode":null,"stopTime":"2020-02-03 11:38:07","powerType":"全部","powerOffArea":"110kV永春变:蔡家D893线-新华村月台2#新区公变进线熔断器后段","powerOffReason":"高压开关跳闸","powerOffId":"2020020331020013"},{"poweroffId":2020020331020006,"sgpoweroffId":null,"subsName":"","lineName":"10kV安溪H404线","pubTranName":"安溪村斜步滩公变,安溪村金村公变,杭州市余杭区人民政府良渚街道办事处,","scope":"浙江省-杭州市-余杭区(良渚街道-安溪行政村-上溪自然村,仁和街道-獐山社区-东西大道);浙江省-杭州市-余杭区-良渚街道-安溪行政村-杭州市余杭区人民政府良渚街道办事处","startTime":"2020-02-03 07:54:58","stopDate":"2020-02-03 15:00:00","orgNo":"3340140","typeCode":"电网故障停限电","poweroffArea":"35kV良渚变:安溪H404线-斜步滩分线开关后段","poweroffReason":"高压开关跳闸 原停电结束时间为2020-02-03 10:54:58,因现场情况比较复杂原因,现变更停电结束时间为2020-02-03 15:00:00","powerTime":"2020-02-03 14:14:00","powerComm":"已送电","subsNo":"","lineNo":"","tgNo":"","tgName":null,"infoStatus":"1","orgName":"国网浙江杭州市余杭区供电有限公司","typeName":null,"infoStatusName":null,"dateDay":null,"orgNos":null,"nowTime":null,"countyName":null,"streetName":null,"villageName":null,"roadName":null,"communityName":null,"tranName":null,"sdLineName":null,"cityCode":"3340140","cityName":"国网浙江杭州市余杭区供电有限公司","provinceCode":null,"stopTime":"2020-02-03 15:00:00","powerType":"全部","powerOffArea":"35kV良渚变:安溪H404线-斜步滩分线开关后段","powerOffReason":"高压开关跳闸 原停电结束时间为2020-02-03 10:54:58,因现场情况比较复杂原因,现变更停电结束时间为2020-02-03 15:00:00","powerOffId":"2020020331020006"},{"poweroffId":2020020331020003,"sgpoweroffId":null,"subsName":"","lineName":"10kV爱丽G069线","pubTranName":"民乐铁铺埭家苑1号公变,杭州余杭民乐股份经济合作社变压器,民乐2组（邵家）公变,杭州市地铁集团有限责任公司61208160231#变压器,民乐3组公变,杭州余杭城市建设集团有限公司（6120913733）01号专变,民乐,民乐1组2号公变,民乐社区活动用房配电变压器,民乐合作社,民乐铁铺埭家苑2号公变,民乐4组公变,美超塑胶,民乐2组2号公变,星桥城建3#路灯变,民乐1组公变,民乐3组2号公变,","scope":"浙江省-杭州市-余杭区-星桥街道-周杨社区-周杨,星桥街道-民乐社区(钟家浜自然村,铁铺埭自然村,民乐,邵家自然村);星桥街道(星桥民乐村,杭州余杭城市建设集团有限公司,杭州余杭星桥城建开发有限公司,杭州天明毛纺有限公司,杭州余杭民乐股份经济合作社,中铁一局集团城市轨道交通工程有限公司)","startTime":"2020-02-03 06:32:00","stopDate":"2020-02-03 10:32:00","orgNo":"3340140","typeCode":"电网故障停限电","poweroffArea":"110kV星桥变:爱丽G069线民乐分线开关后段","poweroffReason":"高压开关跳闸 原停电结束时间为2020-02-03 08:32:00,因天气原因原因,现变更停电结束时间为2020-02-03 10:32:00","powerTime":"2020-02-03 09:44:07","powerComm":"已送电","subsNo":"","lineNo":"","tgNo":"","tgName":null,"infoStatus":"1","orgName":"国网浙江杭州市余杭区供电有限公司","typeName":null,"infoStatusName":null,"dateDay":null,"orgNos":null,"nowTime":null,"countyName":null,"streetName":null,"villageName":null,"roadName":null,"communityName":null,"tranName":null,"sdLineName":null,"cityCode":"3340140","cityName":"国网浙江杭州市余杭区供电有限公司","provinceCode":null,"stopTime":"2020-02-03 10:32:00","powerType":"全部","powerOffArea":"110kV星桥变:爱丽G069线民乐分线开关后段","powerOffReason":"高压开关跳闸 原停电结束时间为2020-02-03 08:32:00,因天气原因原因,现变更停电结束时间为2020-02-03 10:32:00","powerOffId":"2020020331020003"},{"poweroffId":2020020231020042,"sgpoweroffId":null,"subsName":"","lineName":"10kV排塘Y185线","pubTranName":"南浦村官桥头台区,","scope":"浙江省-杭州市-建德市-寿昌镇-南浦行政村 桐源口自然村,杨坞自然村,官桥头自然村,南浦自然村一带用户","startTime":"2020-02-02 18:37:00","stopDate":"2020-02-02 20:30:00","orgNo":"3340180","typeCode":"电网故障停限电","poweroffArea":"35kV河南里变:排塘Y185线-南浦村官桥头台区后段","poweroffReason":"(低压停电信息)低压熔芯烧毁 变更停电区域","powerTime":"2020-02-02 19:45:00","powerComm":"已送电","subsNo":"","lineNo":"","tgNo":"","tgName":null,"infoStatus":"1","orgName":"国网浙江建德市供电有限公司","typeName":null,"infoStatusName":null,"dateDay":null,"orgNos":null,"nowTime":null,"countyName":null,"streetName":null,"villageName":null,"roadName":null,"communityName":null,"tranName":null,"sdLineName":null,"cityCode":"3340180","cityName":"国网浙江建德市供电有限公司","provinceCode":null,"stopTime":"2020-02-02 20:30:00","powerType":"全部","powerOffArea":"35kV河南里变:排塘Y185线-南浦村官桥头台区后段","powerOffReason":"(低压停电信息)低压熔芯烧毁 变更停电区域","powerOffId":"2020020231020042"}],"pageModel":{"pageNow":548,"totalCount":17789,"totalPage":1779,"tableRows":0,"pageCount":10,"beginCount":5470},"isExperi":"1"}