{"message":"","today":"2020-06-15","seleList":[{"poweroffId":2020012831020076,"sgpoweroffId":null,"subsName":"","lineName":"10kV大洲Y152线","pubTranName":"下涯村下坞口台区,","scope":"浙江省-杭州市-建德市-下涯镇-下涯行政村 下坞口自然村,唐村坞自然村,溪上自然村一带用户","startTime":"2020-01-28 21:24:00","stopDate":"2020-01-28 22:30:00","orgNo":"3340180","typeCode":"电网故障停限电","poweroffArea":"110kV沿口变:大洲Y152线-下涯村下坞口台区后段","poweroffReason":"(低压停电信息)低压熔芯烧毁 原停电结束时间为2020-01-28 23:30:00,为减少客户停电时间,加快工作进度,提前送电,现变更停电结束时间为2020-01-28 22:30:00","powerTime":"2020-01-28 21:56:00","powerComm":"已送电","subsNo":"","lineNo":"","tgNo":"","tgName":null,"infoStatus":"1","orgName":"国网浙江建德市供电有限公司","typeName":null,"infoStatusName":null,"dateDay":null,"orgNos":null,"nowTime":null,"countyName":null,"streetName":null,"villageName":null,"roadName":null,"communityName":null,"tranName":null,"sdLineName":null,"cityCode":"3340180","cityName":"国网浙江建德市供电有限公司","provinceCode":null,"stopTime":"2020-01-28 22:30:00","powerType":"全部","powerOffArea":"110kV沿口变:大洲Y152线-下涯村下坞口台区后段","powerOffReason":"(低压停电信息)低压熔芯烧毁 原停电结束时间为2020-01-28 23:30:00,为减少客户停电时间,加快工作进度,提前送电,现变更停电结束时间为2020-01-28 22:30:00","powerOffId":"2020012831020076"},{"poweroffId":2020012831020073,"sgpoweroffId":null,"subsName":"","lineName":"10kV站用T176线","pubTranName":"小源郎家1号公变,","scope":"浙江省-杭州市-桐庐县-分水镇-保安行政村-丰收自然村,分水镇-小源行政村(陈家自然村,塔岭自然村，郎家)","startTime":"2020-01-28 20:34:28","stopDate":"2020-01-28 23:34:28","orgNo":"3340150","typeCode":"电网故障停限电","poweroffArea":"110kV分水变:站用T176线-小源郎家1号公变后段","poweroffReason":"(低压停电信息)低压开关跳闸","powerTime":"2020-01-28 23:00:42","powerComm":"已送电","subsNo":"","lineNo":"","tgNo":"","tgName":null,"infoStatus":"1","orgName":"国网浙江桐庐县供电公司","typeName":null,"infoStatusName":null,"dateDay":null,"orgNos":null,"nowTime":null,"countyName":null,"streetName":null,"villageName":null,"roadName":null,"communityName":null,"tranName":null,"sdLineName":null,"cityCode":"3340150","cityName":"国网浙江桐庐县供电公司","provinceCode":null,"stopTime":"2020-01-28 23:34:28","powerType":"全部","powerOffArea":"110kV分水变:站用T176线-小源郎家1号公变后段","powerOffReason":"(低压停电信息)低压开关跳闸","powerOffId":"2020012831020073"},{"poweroffId":2020012831020070,"sgpoweroffId":null,"subsName":"","lineName":"10kV五星Y744线","pubTranName":"联合村金竹坞台区,","scope":"浙江省-杭州市-建德市-下涯镇-联和行政村, 联横自然村,金竹坞自然村,奇龙山角一带用户","startTime":"2020-01-28 20:15:00","stopDate":"2020-01-28 21:30:00","orgNo":"3340180","typeCode":"电网故障停限电","poweroffArea":"110kV马目变:五星Y744线-联合村金竹坞台区后段","poweroffReason":"(低压停电信息)低压熔芯烧毁跳闸 原停电结束时间为2020-01-28 22:15:00,为减少客户停电时间,加快工作进度,提前送电,现变更停电结束时间为2020-01-28 21:30:00","powerTime":"2020-01-28 20:51:00","powerComm":"已送电","subsNo":"","lineNo":"","tgNo":"","tgName":null,"infoStatus":"1","orgName":"国网浙江建德市供电有限公司","typeName":null,"infoStatusName":null,"dateDay":null,"orgNos":null,"nowTime":null,"countyName":null,"streetName":null,"villageName":null,"roadName":null,"communityName":null,"tranName":null,"sdLineName":null,"cityCode":"3340180","cityName":"国网浙江建德市供电有限公司","provinceCode":null,"stopTime":"2020-01-28 21:30:00","powerType":"全部","powerOffArea":"110kV马目变:五星Y744线-联合村金竹坞台区后段","powerOffReason":"(低压停电信息)低压熔芯烧毁跳闸 原停电结束时间为2020-01-28 22:15:00,为减少客户停电时间,加快工作进度,提前送电,现变更停电结束时间为2020-01-28 21:30:00","powerOffId":"2020012831020070"},{"poweroffId":2020012831020050,"sgpoweroffId":null,"subsName":"","lineName":"10kV罗桐Y109线","pubTranName":"康安公变,","scope":"浙江省-杭州市-建德市-新安江街道 新安社区-康安新村路,府东社区-康安路 一带用户","startTime":"2020-01-28 16:36:00","stopDate":"2020-01-28 18:30:00","orgNo":"3340180","typeCode":"电网故障停限电","poweroffArea":"110kV新安江变:罗桐Y109线-康安公变后段","poweroffReason":"(低压停电信息)低压开关跳闸","powerTime":"2020-01-28 17:39:00","powerComm":"已送电","subsNo":"","lineNo":"","tgNo":"","tgName":null,"infoStatus":"1","orgName":"国网浙江建德市供电有限公司","typeName":null,"infoStatusName":null,"dateDay":null,"orgNos":null,"nowTime":null,"countyName":null,"streetName":null,"villageName":null,"roadName":null,"communityName":null,"tranName":null,"sdLineName":null,"cityCode":"3340180","cityName":"国网浙江建德市供电有限公司","provinceCode":null,"stopTime":"2020-01-28 18:30:00","powerType":"全部","powerOffArea":"110kV新安江变:罗桐Y109线-康安公变后段","powerOffReason":"(低压停电信息)低压开关跳闸","powerOffId":"2020012831020050"},{"poweroffId":2020012831020041,"sgpoweroffId":null,"subsName":"","lineName":"10kV万市D338线","pubTranName":"万市集镇3#朱村公变,","scope":"浙江省-杭州市-富阳区-万市镇-万市行政村(朱村自然村,西门北路自然村,冯家自然村,西山下自然村,西门路自然村,杜坞自然村,野坞自然村,陈安自然村,黄宅自然村)","startTime":"2020-01-28 14:23:58","stopDate":"2020-01-28 17:00:58","orgNo":"3340170","typeCode":"电网故障停限电","poweroffArea":"110kV万市变:万市D338线-万市集镇3#朱村公变后段","poweroffReason":"高压开关跳闸","powerTime":"2020-01-28 16:50:08","powerComm":"已送电","subsNo":"","lineNo":"","tgNo":"","tgName":null,"infoStatus":"1","orgName":"国网浙江杭州市富阳区供电公司","typeName":null,"infoStatusName":null,"dateDay":null,"orgNos":null,"nowTime":null,"countyName":null,"streetName":null,"villageName":null,"roadName":null,"communityName":null,"tranName":null,"sdLineName":null,"cityCode":"3340170","cityName":"国网浙江杭州市富阳区供电公司","provinceCode":null,"stopTime":"2020-01-28 17:00:58","powerType":"全部","powerOffArea":"110kV万市变:万市D338线-万市集镇3#朱村公变后段","powerOffReason":"高压开关跳闸","powerOffId":"2020012831020041"},{"poweroffId":2020012831020034,"sgpoweroffId":null,"subsName":"","lineName":"10kV潘塘H435线","pubTranName":"西塘河村闻家里2号公变,","scope":"浙江省-杭州市-余杭区-良渚街道-西塘河行政村(中潘塘自然村,西塘河自然村)","startTime":"2020-01-28 12:20:57","stopDate":"2020-01-28 17:20:57","orgNo":"3340140","typeCode":"电网故障停限电","poweroffArea":"110kV勾庄变:潘塘H435线-西塘河村闻家里2号公变后段","poweroffReason":"高压开关跳闸","powerTime":"2020-01-28 16:46:23","powerComm":"已送电","subsNo":"","lineNo":"","tgNo":"","tgName":null,"infoStatus":"1","orgName":"国网浙江杭州市余杭区供电有限公司","typeName":null,"infoStatusName":null,"dateDay":null,"orgNos":null,"nowTime":null,"countyName":null,"streetName":null,"villageName":null,"roadName":null,"communityName":null,"tranName":null,"sdLineName":null,"cityCode":"3340140","cityName":"国网浙江杭州市余杭区供电有限公司","provinceCode":null,"stopTime":"2020-01-28 17:20:57","powerType":"全部","powerOffArea":"110kV勾庄变:潘塘H435线-西塘河村闻家里2号公变后段","powerOffReason":"高压开关跳闸","powerOffId":"2020012831020034"},{"poweroffId":2020012831020028,"sgpoweroffId":null,"subsName":"","lineName":"10kV和风Y520线","pubTranName":"团结村冯坞台区,","scope":"浙江省-杭州市-建德市-洋溪街道-团结行政村-冯坞自然村一带用户","startTime":"2020-01-28 10:34:00","stopDate":"2020-01-28 11:40:00","orgNo":"3340180","typeCode":"电网故障停限电","poweroffArea":"35kV洋溪变:和风Y520线-团结村冯坞台区后段","poweroffReason":"(低压停电信息)低压开关跳闸 原停电结束时间为2020-01-28 12:40:00,为减少客户停电时间,加快工作进度,提前送电,现变更停电结束时间为2020-01-28 11:40:00","powerTime":"2020-01-28 11:06:00","powerComm":"已送电","subsNo":"","lineNo":"","tgNo":"","tgName":null,"infoStatus":"1","orgName":"国网浙江建德市供电有限公司","typeName":null,"infoStatusName":null,"dateDay":null,"orgNos":null,"nowTime":null,"countyName":null,"streetName":null,"villageName":null,"roadName":null,"communityName":null,"tranName":null,"sdLineName":null,"cityCode":"3340180","cityName":"国网浙江建德市供电有限公司","provinceCode":null,"stopTime":"2020-01-28 11:40:00","powerType":"全部","powerOffArea":"35kV洋溪变:和风Y520线-团结村冯坞台区后段","powerOffReason":"(低压停电信息)低压开关跳闸 原停电结束时间为2020-01-28 12:40:00,为减少客户停电时间,加快工作进度,提前送电,现变更停电结束时间为2020-01-28 11:40:00","powerOffId":"2020012831020028"},{"poweroffId":2020012831020025,"sgpoweroffId":null,"subsName":"","lineName":"10kV牌头H562线","pubTranName":"王位山村段大公变,","scope":"浙江省-杭州市-余杭区-黄湖镇-王位山行政村(段大自然村,独山桥自然村,王位山自然村)","startTime":"2020-01-28 10:30:49","stopDate":"2020-01-28 12:30:00","orgNo":"3340140","typeCode":"电网故障停限电","poweroffArea":"35kV黄湖变:牌头H562线-王位山村段大公变后段","poweroffReason":"高压开关跳闸","powerTime":"2020-01-28 11:32:00","powerComm":"已送电","subsNo":"","lineNo":"","tgNo":"","tgName":null,"infoStatus":"1","orgName":"国网浙江杭州市余杭区供电有限公司","typeName":null,"infoStatusName":null,"dateDay":null,"orgNos":null,"nowTime":null,"countyName":null,"streetName":null,"villageName":null,"roadName":null,"communityName":null,"tranName":null,"sdLineName":null,"cityCode":"3340140","cityName":"国网浙江杭州市余杭区供电有限公司","provinceCode":null,"stopTime":"2020-01-28 12:30:00","powerType":"全部","powerOffArea":"35kV黄湖变:牌头H562线-王位山村段大公变后段","powerOffReason":"高压开关跳闸","powerOffId":"2020012831020025"},{"poweroffId":2020012831020011,"sgpoweroffId":null,"subsName":"","lineName":"10kV惠六A127线","pubTranName":"国有资产经营1#,顺发恒园8#公变,湖滨花园17#公变,浙江开元物业管理股份有限公司萧山分公司3#,莱茵传奇园4#公变,青秀城10#公变,莱茵传奇园3#公变,变压器,保利霞飞郡11#公变,浙江开元物业管理股份有限公司萧山分公司2#,变压器,莱茵传奇园8#公变,顺发恒园4#公变,浙江开元物业管理股份有限公司萧山分公司1#,保利霞飞郡9#公变,湖滨花园16#公变,青秀城8#公变,青秀城6#公变,顺发恒园6#公变,湖滨花园13#公变,湖滨花园12#公变,顺发恒园10#公变,莱茵传奇园5#公变,顺发恒园2#公变,莱茵传奇园7#公变,湖滨花园10#公变,顺发恒园12#公变,莱茵传奇园6#公变,湖滨花园11#公变,保利霞飞郡10#公变,保利霞飞郡8#公变,青秀城4#公变,湖滨花园9#公变,青秀城2#公变,","scope":"浙江省-杭州市-萧山区-经济技术开发区-市北社区-建设一路,北干街道-明星社区(建设一路,明星路),北干街道(市北社区-建设二路,湖滨花园社区-博奥路,明星行政村-建设一路);浙江省-杭州市-萧山区-经济技术开发区-市北社区-杭州萧山经济技术开发区国有资产经营有限公司,北干街道(湖滨花园社区-浙江开元物业管理股份有限公司萧山分公司,市北社区-浙江保利物业管理有限公司)，高运莱茵传奇，莱茵传奇一带","startTime":"2020-01-28 08:57:52","stopDate":"2020-01-28 10:45:00","orgNo":"3340130","typeCode":"电网故障停限电","poweroffArea":"110kV惠兴变:惠六A127线后段","poweroffReason":"高压开关跳闸 原停电结束时间为2020-01-28 11:30:52,为减少客户停电时间,加快工作进度,提前送电,现变更停电结束时间为2020-01-28 10:45:00","powerTime":"2020-01-28 10:10:43","powerComm":"已送电","subsNo":"","lineNo":"","tgNo":"","tgName":null,"infoStatus":"1","orgName":"国网浙江杭州市萧山区供电有限公司","typeName":null,"infoStatusName":null,"dateDay":null,"orgNos":null,"nowTime":null,"countyName":null,"streetName":null,"villageName":null,"roadName":null,"communityName":null,"tranName":null,"sdLineName":null,"cityCode":"3340130","cityName":"国网浙江杭州市萧山区供电有限公司","provinceCode":null,"stopTime":"2020-01-28 10:45:00","powerType":"全部","powerOffArea":"110kV惠兴变:惠六A127线后段","powerOffReason":"高压开关跳闸 原停电结束时间为2020-01-28 11:30:52,为减少客户停电时间,加快工作进度,提前送电,现变更停电结束时间为2020-01-28 10:45:00","powerOffId":"2020012831020011"},{"poweroffId":2020012831020007,"sgpoweroffId":null,"subsName":"","lineName":"10kV永轴8434线","pubTranName":"横塘(3-1)农,","scope":"浙江省-杭州市-江干区-笕桥镇-横塘社区(横塘三区,笕丁路,同协路)","startTime":"2020-01-28 08:50:00","stopDate":"2020-01-28 13:50:00","orgNo":"3340101","typeCode":"电网故障停限电","poweroffArea":"110kV永宁变:永轴8434线横塘(3-1)农配变","poweroffReason":"高压开关跳闸 原停电结束时间为2020-01-28 10:50:00,因由于施工现场环境比较复杂原因,现变更停电结束时间为2020-01-28 13:50:00","powerTime":"2020-01-28 13:00:18","powerComm":"已送电","subsNo":"","lineNo":"","tgNo":"","tgName":null,"infoStatus":"1","orgName":"浙江杭州电力客户服务中心","typeName":null,"infoStatusName":null,"dateDay":null,"orgNos":null,"nowTime":null,"countyName":null,"streetName":null,"villageName":null,"roadName":null,"communityName":null,"tranName":null,"sdLineName":null,"cityCode":"3340101","cityName":"浙江杭州电力客户服务中心","provinceCode":null,"stopTime":"2020-01-28 13:50:00","powerType":"全部","powerOffArea":"110kV永宁变:永轴8434线横塘(3-1)农配变","powerOffReason":"高压开关跳闸 原停电结束时间为2020-01-28 10:50:00,因由于施工现场环境比较复杂原因,现变更停电结束时间为2020-01-28 13:50:00","powerOffId":"2020012831020007"}],"pageModel":{"pageNow":553,"totalCount":17789,"totalPage":1779,"tableRows":0,"pageCount":10,"beginCount":5520},"isExperi":"1"}