{"message":"","today":"2020-06-15","seleList":[{"poweroffId":2020012731020046,"sgpoweroffId":null,"subsName":"","lineName":"10kV十月D225线","pubTranName":"沈家坞1号坑东公变,","scope":"浙江省-杭州市-富阳区-银湖街道-沈家坞行政村(坑东自然村,外沈家坞自然村,筱岭自然村,沈家坞自然村)","startTime":"2020-01-27 11:31:20","stopDate":"2020-01-27 12:31:20","orgNo":"3340170","typeCode":"电网故障停限电","poweroffArea":"110kV银湖变:十月D225线-沈家坞1号坑东公变后段","poweroffReason":"(低压停电信息)低压开关跳闸","powerTime":"2020-01-27 11:55:25","powerComm":"已送电","subsNo":"","lineNo":"","tgNo":"","tgName":null,"infoStatus":"1","orgName":"国网浙江杭州市富阳区供电公司","typeName":null,"infoStatusName":null,"dateDay":null,"orgNos":null,"nowTime":null,"countyName":null,"streetName":null,"villageName":null,"roadName":null,"communityName":null,"tranName":null,"sdLineName":null,"cityCode":"3340170","cityName":"国网浙江杭州市富阳区供电公司","provinceCode":null,"stopTime":"2020-01-27 12:31:20","powerType":"全部","powerOffArea":"110kV银湖变:十月D225线-沈家坞1号坑东公变后段","powerOffReason":"(低压停电信息)低压开关跳闸","powerOffId":"2020012731020046"},{"poweroffId":2020012731020045,"sgpoweroffId":null,"subsName":"","lineName":"10kV田湾G265线","pubTranName":"双陈村计家坝西南公变,","scope":"浙江省-杭州市-余杭区-仁和街道-双陈行政村-计家坝自然村","startTime":"2020-01-27 11:29:46","stopDate":"2020-01-27 17:29:46","orgNo":"3340140","typeCode":"电网故障停限电","poweroffArea":"110kV仁镇变:田湾G265线-双陈村计家坝西南公变后段","poweroffReason":"高压开关跳闸","powerTime":"2020-01-27 16:43:54","powerComm":"已送电","subsNo":"","lineNo":"","tgNo":"","tgName":null,"infoStatus":"1","orgName":"国网浙江杭州市余杭区供电有限公司","typeName":null,"infoStatusName":null,"dateDay":null,"orgNos":null,"nowTime":null,"countyName":null,"streetName":null,"villageName":null,"roadName":null,"communityName":null,"tranName":null,"sdLineName":null,"cityCode":"3340140","cityName":"国网浙江杭州市余杭区供电有限公司","provinceCode":null,"stopTime":"2020-01-27 17:29:46","powerType":"全部","powerOffArea":"110kV仁镇变:田湾G265线-双陈村计家坝西南公变后段","powerOffReason":"高压开关跳闸","powerOffId":"2020012731020045"},{"poweroffId":2020012731020039,"sgpoweroffId":null,"subsName":"","lineName":"10kV梧村T244线","pubTranName":"大坞里村1号公变,","scope":"浙江省-杭州市-桐庐县-江南镇-彰坞行政村(大坞里自然村,伍聪自然村)","startTime":"2020-01-27 10:57:37","stopDate":"2020-01-27 13:00:37","orgNo":"3340150","typeCode":"电网故障停限电","poweroffArea":"110kV石阜变:梧村T244线-大坞里村1号公变后段","poweroffReason":"高压开关跳闸","powerTime":"2020-01-27 12:32:27","powerComm":"已送电","subsNo":"","lineNo":"","tgNo":"","tgName":null,"infoStatus":"1","orgName":"国网浙江桐庐县供电公司","typeName":null,"infoStatusName":null,"dateDay":null,"orgNos":null,"nowTime":null,"countyName":null,"streetName":null,"villageName":null,"roadName":null,"communityName":null,"tranName":null,"sdLineName":null,"cityCode":"3340150","cityName":"国网浙江桐庐县供电公司","provinceCode":null,"stopTime":"2020-01-27 13:00:37","powerType":"全部","powerOffArea":"110kV石阜变:梧村T244线-大坞里村1号公变后段","powerOffReason":"高压开关跳闸","powerOffId":"2020012731020039"},{"poweroffId":2020012731020029,"sgpoweroffId":null,"subsName":"","lineName":"10kV瓷厂C405线","pubTranName":"沁茵园1#公变,","scope":"浙江省-杭州市-萧山区-北干街道-星都社区-市心中路，沁茵园小区一带","startTime":"2020-01-27 09:55:02","stopDate":"2020-01-27 11:00:00","orgNo":"3340130","typeCode":"电网故障停限电","poweroffArea":"110kV湘湖变:瓷厂C405线-沁茵园1#公变台区低压开关","poweroffReason":"（低压停电信息）低压漏电保护器短路故障 原停电结束时间：2020-01-27 13:30:00,，变更停电结束时间：2020-01-27 11:00:00， 变更停电结束时间原因：由于抢修工作提前结束，故需要提前送电。","powerTime":"2020-01-27 10:19:46","powerComm":"已送电","subsNo":"","lineNo":"","tgNo":"","tgName":null,"infoStatus":"1","orgName":"国网浙江杭州市萧山区供电有限公司","typeName":null,"infoStatusName":null,"dateDay":null,"orgNos":null,"nowTime":null,"countyName":null,"streetName":null,"villageName":null,"roadName":null,"communityName":null,"tranName":null,"sdLineName":null,"cityCode":"3340130","cityName":"国网浙江杭州市萧山区供电有限公司","provinceCode":null,"stopTime":"2020-01-27 11:00:00","powerType":"全部","powerOffArea":"110kV湘湖变:瓷厂C405线-沁茵园1#公变台区低压开关","powerOffReason":"（低压停电信息）低压漏电保护器短路故障 原停电结束时间：2020-01-27 13:30:00,，变更停电结束时间：2020-01-27 11:00:00， 变更停电结束时间原因：由于抢修工作提前结束，故需要提前送电。","powerOffId":"2020012731020029"},{"poweroffId":2020012731020025,"sgpoweroffId":null,"subsName":"","lineName":"10kV百岁T168线","pubTranName":"泮村红沙坪1号公变,","scope":"浙江省-杭州市-桐庐县-瑶琳镇-百岁行政村-潘村自然村","startTime":"2020-01-27 09:32:32","stopDate":"2020-01-27 10:45:32","orgNo":"3340150","typeCode":"电网故障停限电","poweroffArea":"35kV瑶琳变:百岁T168线-泮村红沙坪1号公变后段","poweroffReason":"(低压停电信息)低压开关跳闸 原停电结束时间为2020-01-27 11:32:32,为减少客户停电时间,加快工作进度,提前送电,现变更停电结束时间为2020-01-27 10:45:32","powerTime":"2020-01-27 10:41:01","powerComm":"已送电","subsNo":"","lineNo":"","tgNo":"","tgName":null,"infoStatus":"1","orgName":"国网浙江桐庐县供电公司","typeName":null,"infoStatusName":null,"dateDay":null,"orgNos":null,"nowTime":null,"countyName":null,"streetName":null,"villageName":null,"roadName":null,"communityName":null,"tranName":null,"sdLineName":null,"cityCode":"3340150","cityName":"国网浙江桐庐县供电公司","provinceCode":null,"stopTime":"2020-01-27 10:45:32","powerType":"全部","powerOffArea":"35kV瑶琳变:百岁T168线-泮村红沙坪1号公变后段","powerOffReason":"(低压停电信息)低压开关跳闸 原停电结束时间为2020-01-27 11:32:32,为减少客户停电时间,加快工作进度,提前送电,现变更停电结束时间为2020-01-27 10:45:32","powerOffId":"2020012731020025"},{"poweroffId":2020012731020014,"sgpoweroffId":null,"subsName":"","lineName":"10kV润达D431线","pubTranName":"民建村5号东2公变,1#变,杭州飞捷机械有限公司,2#变,","scope":"浙江省-杭州市-富阳区-东洲街道-建华行政村-民建自然村;东洲街道(杭州飞捷机械有限公司,杭州金色能源科技有限公司)","startTime":"2020-01-27 07:31:51","stopDate":"2020-01-27 09:07:00","orgNo":"3340170","typeCode":"电网故障停限电","poweroffArea":"110kV东洲变:润达D431线十二号路分线开关后段","poweroffReason":"高压开关跳闸","powerTime":"2020-01-27 08:14:50","powerComm":"已送电","subsNo":"","lineNo":"","tgNo":"","tgName":null,"infoStatus":"1","orgName":"国网浙江杭州市富阳区供电公司","typeName":null,"infoStatusName":null,"dateDay":null,"orgNos":null,"nowTime":null,"countyName":null,"streetName":null,"villageName":null,"roadName":null,"communityName":null,"tranName":null,"sdLineName":null,"cityCode":"3340170","cityName":"国网浙江杭州市富阳区供电公司","provinceCode":null,"stopTime":"2020-01-27 09:07:00","powerType":"全部","powerOffArea":"110kV东洲变:润达D431线十二号路分线开关后段","powerOffReason":"高压开关跳闸","powerOffId":"2020012731020014"},{"poweroffId":2020012731020012,"sgpoweroffId":null,"subsName":"","lineName":"10kV白石D640线","pubTranName":"赵欧村3号欧家溪公变,杭州金泰塑业有限公司2#变,杭州润鑫有色金属有限公司,富阳市路灯安装维修管理所（白石74#）1号变,乌畴溪新村1#苏家桥公变,杭州佑东工艺品有限公司,洪家塘5#国道边公变,赵欧村4号荷花塘公变,杭州远鸿科技有限公司2#变,乌畴溪新村3号赵家庄公变,杭州远鸿科技有限公司1#变,杭州富阳兴达工具有限公司2#变,杭州富阳森杰新型建材有限公司,富阳兴达工具有限公司1#变,上图山村6#国道边公变,杭州旦邦生态农业开发有限公司,富阳市场口镇赵家村,东梓村8#国道边公变,富阳市公路管理段（场口公路养护管理站）,富阳星宇铜业有限公司1#,乌畴溪新村5号乌畴公变,赵欧村2号赵家桥头公变,赵欧村5#水井公变,1#变,富阳星宇铜业有限公司2#,赵欧村1号赵家溪口公变,杭州金泰塑业有限公司1#,","scope":"浙江省-杭州市-富阳区-场口镇-乌畴溪新村行政村(新佳庄自然村,乌畴自然村,苏家桥自然村,赵家庄自然村),场口镇-洪家塘行政村(洪家塘自然村,冯家自然村),场口镇-赵欧行政村(欧家溪自然村,赵家村自然村),场口镇(白石胶行政村-白石胶自然村,东梓关行政村-东梓关自然村,上图山行政村-上图山自然村,东梓行政村-屠家自然村);场口镇(富阳市场口镇赵家村,富阳市公路管理段（场口公路养护管理站）,杭州佑东工艺品有限公司,杭州富阳森杰新型建材有限公司,杭州旦邦生态农业开发有限公司,杭州富阳伟顺金属有限公司,杭州富阳兴达工具有限公司,杭州金泰塑业有限公司,杭州富阳星宇铜业有限公司,杭州富阳区场口镇东群五金配件厂,杭州富阳城市照明工程有限公司,杭州远鸿科技有限公司)","startTime":"2020-01-27 07:05:19","stopDate":"2020-01-27 09:05:23","orgNo":"3340170","typeCode":"电网故障停限电","poweroffArea":"110kV鸿丰变:白石D640线白石D6402开关后段","poweroffReason":"高压开关跳闸","powerTime":"2020-01-27 07:49:16","powerComm":"已送电，增加施工力量","subsNo":"","lineNo":"","tgNo":"","tgName":null,"infoStatus":"1","orgName":"国网浙江杭州市富阳区供电公司","typeName":null,"infoStatusName":null,"dateDay":null,"orgNos":null,"nowTime":null,"countyName":null,"streetName":null,"villageName":null,"roadName":null,"communityName":null,"tranName":null,"sdLineName":null,"cityCode":"3340170","cityName":"国网浙江杭州市富阳区供电公司","provinceCode":null,"stopTime":"2020-01-27 09:05:23","powerType":"全部","powerOffArea":"110kV鸿丰变:白石D640线白石D6402开关后段","powerOffReason":"高压开关跳闸","powerOffId":"2020012731020012"},{"poweroffId":2020012731020010,"sgpoweroffId":null,"subsName":"","lineName":"10kV众力C933线","pubTranName":"群益村7#变,","scope":"浙江省-杭州市-萧山区-瓜沥镇-群益行政村-群益自然村、瓜沥镇群益村2组484号一带","startTime":"2020-01-27 06:45:11","stopDate":"2020-01-27 11:50:11","orgNo":"3340130","typeCode":"电网故障停限电","poweroffArea":"110kV党山变:众力C933线-群益村7#变台区低压开关","poweroffReason":"(低压停电信息)低压架空导线断线故障","powerTime":"2020-01-27 10:51:13","powerComm":"已送电","subsNo":"","lineNo":"","tgNo":"","tgName":null,"infoStatus":"1","orgName":"国网浙江杭州市萧山区供电有限公司","typeName":null,"infoStatusName":null,"dateDay":null,"orgNos":null,"nowTime":null,"countyName":null,"streetName":null,"villageName":null,"roadName":null,"communityName":null,"tranName":null,"sdLineName":null,"cityCode":"3340130","cityName":"国网浙江杭州市萧山区供电有限公司","provinceCode":null,"stopTime":"2020-01-27 11:50:11","powerType":"全部","powerOffArea":"110kV党山变:众力C933线-群益村7#变台区低压开关","powerOffReason":"(低压停电信息)低压架空导线断线故障","powerOffId":"2020012731020010"},{"poweroffId":2020012731020005,"sgpoweroffId":null,"subsName":"","lineName":"10kV金荣A502线","pubTranName":"杭州恒冠塑业有限公司,浙江至诚化纤有限公司,群益村15#变,众力村1#变,杭州萧山党山金亿针织厂,杭州伊利康卫浴有限公司,浙江至诚化纤有限公司2#变,杭州萧山双迪卫浴厂,杭州金亚纺织品有限公司,","scope":"浙江省-杭州市-萧山区(瓜沥镇-群益行政村-群益自然村,益农镇-众力行政村-众力自然村);浙江省-杭州市-萧山区-瓜沥镇-党山行政村-浙江至诚化纤有限公司,瓜沥镇-群益行政村(杭州萧山双迪卫浴厂,杭州金亚纺织品有限公司,杭州萧山党山金亿针织厂,杭州恒冠塑业有限公司,杭州伊利康卫浴有限公司)一带","startTime":"2020-01-27 03:21:45","stopDate":"2020-01-27 05:55:45","orgNo":"3340130","typeCode":"电网故障停限电","poweroffArea":"110kV群围变:金荣A502线-金荣A5025开关后段","poweroffReason":"高压开关跳闸 原停电结束时间为2020-01-27 07:51:45,为减少客户停电时间,加快工作进度,提前送电,现变更停电结束时间为2020-01-27 05:55:45","powerTime":"2020-01-27 05:08:21","powerComm":"已送电","subsNo":"","lineNo":"","tgNo":"","tgName":null,"infoStatus":"1","orgName":"国网浙江杭州市萧山区供电有限公司","typeName":null,"infoStatusName":null,"dateDay":null,"orgNos":null,"nowTime":null,"countyName":null,"streetName":null,"villageName":null,"roadName":null,"communityName":null,"tranName":null,"sdLineName":null,"cityCode":"3340130","cityName":"国网浙江杭州市萧山区供电有限公司","provinceCode":null,"stopTime":"2020-01-27 05:55:45","powerType":"全部","powerOffArea":"110kV群围变:金荣A502线-金荣A5025开关后段","powerOffReason":"高压开关跳闸 原停电结束时间为2020-01-27 07:51:45,为减少客户停电时间,加快工作进度,提前送电,现变更停电结束时间为2020-01-27 05:55:45","powerOffId":"2020012731020005"},{"poweroffId":2020012631020115,"sgpoweroffId":null,"subsName":"","lineName":"10kV安镇Y331线","pubTranName":"安仁村杭派民居台区,","scope":"浙江省-杭州市-建德市-乾潭镇-安仁行政村-安仁自然村商铺7号一带用户。","startTime":"2020-01-26 22:50:00","stopDate":"2020-01-27 00:30:00","orgNo":"3340180","typeCode":"电网故障停限电","poweroffArea":"110kV钦堂变:安镇Y331线-安仁村杭派民居台区后段","poweroffReason":"(低压停电信息)低压开关跳闸 原停电结束时间为2020-01-27 01:30:00,为减少客户停电时间,加快工作进度,提前送电,现变更停电结束时间为2020-01-27 00:30:00","powerTime":"2020-01-27 00:02:00","powerComm":"已送电","subsNo":"","lineNo":"","tgNo":"","tgName":null,"infoStatus":"1","orgName":"国网浙江建德市供电有限公司","typeName":null,"infoStatusName":null,"dateDay":null,"orgNos":null,"nowTime":null,"countyName":null,"streetName":null,"villageName":null,"roadName":null,"communityName":null,"tranName":null,"sdLineName":null,"cityCode":"3340180","cityName":"国网浙江建德市供电有限公司","provinceCode":null,"stopTime":"2020-01-27 00:30:00","powerType":"全部","powerOffArea":"110kV钦堂变:安镇Y331线-安仁村杭派民居台区后段","powerOffReason":"(低压停电信息)低压开关跳闸 原停电结束时间为2020-01-27 01:30:00,为减少客户停电时间,加快工作进度,提前送电,现变更停电结束时间为2020-01-27 00:30:00","powerOffId":"2020012631020115"}],"pageModel":{"pageNow":555,"totalCount":17789,"totalPage":1779,"tableRows":0,"pageCount":10,"beginCount":5540},"isExperi":"1"}