{"message":"","today":"2020-06-15","seleList":[{"poweroffId":2020012631020114,"sgpoweroffId":null,"subsName":"","lineName":"10kV德圣A464线","pubTranName":"德北村5#变,","scope":"浙江省-杭州市-萧山区-党湾镇-德北行政村-德北自然村、党湾镇德北行政村11组一带","startTime":"2020-01-26 22:18:47","stopDate":"2020-01-26 23:58:47","orgNo":"3340130","typeCode":"电网故障停限电","poweroffArea":"110kV幸福变:德圣A464线-德北村5#变台区低压开关","poweroffReason":"(低压停电信息)低压漏电保护器短路故障","powerTime":"2020-01-26 23:02:04","powerComm":"已送电","subsNo":"","lineNo":"","tgNo":"","tgName":null,"infoStatus":"1","orgName":"国网浙江杭州市萧山区供电有限公司","typeName":null,"infoStatusName":null,"dateDay":null,"orgNos":null,"nowTime":null,"countyName":null,"streetName":null,"villageName":null,"roadName":null,"communityName":null,"tranName":null,"sdLineName":null,"cityCode":"3340130","cityName":"国网浙江杭州市萧山区供电有限公司","provinceCode":null,"stopTime":"2020-01-26 23:58:47","powerType":"全部","powerOffArea":"110kV幸福变:德圣A464线-德北村5#变台区低压开关","powerOffReason":"(低压停电信息)低压漏电保护器短路故障","powerOffId":"2020012631020114"},{"poweroffId":2020012631020111,"sgpoweroffId":null,"subsName":"","lineName":"10kV西许C212线","pubTranName":"西许村1#变,","scope":"浙江省-杭州市-萧山区-新塘街道-西许行政村(西湖自然村,西许自然村)，浙江省杭州市萧山区新塘街道西许行政村西湖自然村17组4户一带","startTime":"2020-01-26 21:10:07","stopDate":"2020-01-26 23:00:07","orgNo":"3340130","typeCode":"电网故障停限电","poweroffArea":"110kV霞江变:西许C212线-西许1#变后段","poweroffReason":"（低压停电信息）低压漏电保护器短路故障","powerTime":"2020-01-26 22:07:38","powerComm":"已送电","subsNo":"","lineNo":"","tgNo":"","tgName":null,"infoStatus":"1","orgName":"国网浙江杭州市萧山区供电有限公司","typeName":null,"infoStatusName":null,"dateDay":null,"orgNos":null,"nowTime":null,"countyName":null,"streetName":null,"villageName":null,"roadName":null,"communityName":null,"tranName":null,"sdLineName":null,"cityCode":"3340130","cityName":"国网浙江杭州市萧山区供电有限公司","provinceCode":null,"stopTime":"2020-01-26 23:00:07","powerType":"全部","powerOffArea":"110kV霞江变:西许C212线-西许1#变后段","powerOffReason":"（低压停电信息）低压漏电保护器短路故障","powerOffId":"2020012631020111"},{"poweroffId":2020012631020108,"sgpoweroffId":null,"subsName":"","lineName":"10kV佛山C170线","pubTranName":"复兴村8#变,","scope":"浙江省-杭州市-萧山区-义桥镇-復兴行政村-河口自然村，浙江省杭州市萧山区义桥镇復兴行政村河口村，浙江省杭州市萧山区义桥镇復兴行政村河口村，浙江省杭州市萧山区义桥镇復兴行政村河口自然村146号一带，","startTime":"2020-01-26 21:04:06","stopDate":"2020-01-26 23:40:06","orgNo":"3340130","typeCode":"电网故障停限电","poweroffArea":"110kV许贤变:佛山C170线-复兴村8#变台区低压开关","poweroffReason":"（低压停电信息）低压熔断器短路故障 原停电结束时间为2020-01-26 23:17:06,因天气原因,现变更停电结束时间为2020-01-26 23:40:06","powerTime":"2020-01-26 22:45:58","powerComm":"已送电","subsNo":"","lineNo":"","tgNo":"","tgName":null,"infoStatus":"1","orgName":"国网浙江杭州市萧山区供电有限公司","typeName":null,"infoStatusName":null,"dateDay":null,"orgNos":null,"nowTime":null,"countyName":null,"streetName":null,"villageName":null,"roadName":null,"communityName":null,"tranName":null,"sdLineName":null,"cityCode":"3340130","cityName":"国网浙江杭州市萧山区供电有限公司","provinceCode":null,"stopTime":"2020-01-26 23:40:06","powerType":"全部","powerOffArea":"110kV许贤变:佛山C170线-复兴村8#变台区低压开关","powerOffReason":"（低压停电信息）低压熔断器短路故障 原停电结束时间为2020-01-26 23:17:06,因天气原因,现变更停电结束时间为2020-01-26 23:40:06","powerOffId":"2020012631020108"},{"poweroffId":2020012631020107,"sgpoweroffId":null,"subsName":"","lineName":"10kV安仁Y134线","pubTranName":"幸福村新村台区,","scope":"浙江省-杭州市-建德市-乾潭镇-幸福行政村-幸福新村自然村一带用户","startTime":"2020-01-26 21:00:00","stopDate":"2020-01-26 22:10:00","orgNo":"3340180","typeCode":"电网故障停限电","poweroffArea":"110kV乾潭变:安仁Y134线-幸福新村台区令克后段","poweroffReason":"(低压停电信息)低压开关跳闸 原停电结束时间为2020-01-26 23:00:00,为减少客户停电时间,加快工作进度,提前送电,现变更停电结束时间为2020-01-26 22:10:00","powerTime":"2020-01-26 21:30:00","powerComm":"已送电","subsNo":"","lineNo":"","tgNo":"","tgName":null,"infoStatus":"1","orgName":"国网浙江建德市供电有限公司","typeName":null,"infoStatusName":null,"dateDay":null,"orgNos":null,"nowTime":null,"countyName":null,"streetName":null,"villageName":null,"roadName":null,"communityName":null,"tranName":null,"sdLineName":null,"cityCode":"3340180","cityName":"国网浙江建德市供电有限公司","provinceCode":null,"stopTime":"2020-01-26 22:10:00","powerType":"全部","powerOffArea":"110kV乾潭变:安仁Y134线-幸福新村台区令克后段","powerOffReason":"(低压停电信息)低压开关跳闸 原停电结束时间为2020-01-26 23:00:00,为减少客户停电时间,加快工作进度,提前送电,现变更停电结束时间为2020-01-26 22:10:00","powerOffId":"2020012631020107"},{"poweroffId":2020012631020100,"sgpoweroffId":null,"subsName":"","lineName":"10kV大源Y686线","pubTranName":"富塘村富塘台区,","scope":"浙江省-杭州市-建德市-大同镇-富塘行政村后垅岗自然村,富塘自然村一带用户。","startTime":"2020-01-26 20:10:00","stopDate":"2020-01-26 21:10:00","orgNo":"3340180","typeCode":"电网故障停限电","poweroffArea":"110kV大同变:大源Y686线-富塘村富塘台区后段","poweroffReason":"(低压停电信息)低压开关跳闸 原停电结束时间为2020-01-26 22:00:00,为减少客户停电时间,加快工作进度,提前送电,现变更停电结束时间为2020-01-26 21:10:00","powerTime":"2020-01-26 20:45:00","powerComm":"已送电","subsNo":"","lineNo":"","tgNo":"","tgName":null,"infoStatus":"1","orgName":"国网浙江建德市供电有限公司","typeName":null,"infoStatusName":null,"dateDay":null,"orgNos":null,"nowTime":null,"countyName":null,"streetName":null,"villageName":null,"roadName":null,"communityName":null,"tranName":null,"sdLineName":null,"cityCode":"3340180","cityName":"国网浙江建德市供电有限公司","provinceCode":null,"stopTime":"2020-01-26 21:10:00","powerType":"全部","powerOffArea":"110kV大同变:大源Y686线-富塘村富塘台区后段","powerOffReason":"(低压停电信息)低压开关跳闸 原停电结束时间为2020-01-26 22:00:00,为减少客户停电时间,加快工作进度,提前送电,现变更停电结束时间为2020-01-26 21:10:00","powerOffId":"2020012631020100"},{"poweroffId":2020012631020088,"sgpoweroffId":null,"subsName":"","lineName":"10kV童乐T262线","pubTranName":"上林春天4号公变,","scope":"浙江省-杭州市-桐庐县-城南街道-上杭社区-瑶琳西路-上林春天单身公寓18幢一带","startTime":"2020-01-26 19:10:54","stopDate":"2020-01-26 23:10:54","orgNo":"3340150","typeCode":"电网故障停限电","poweroffArea":"35kV三合变:童乐T262线-上林春天4号公变后段","poweroffReason":"(低压停电信息)低压开关跳闸 原停电结束时间为2020-01-26 22:10:54,因材料准备原因,现变更停电结束时间为2020-01-26 23:10:54","powerTime":"2020-01-26 22:52:16","powerComm":"已送电","subsNo":"","lineNo":"","tgNo":"","tgName":null,"infoStatus":"1","orgName":"国网浙江桐庐县供电公司","typeName":null,"infoStatusName":null,"dateDay":null,"orgNos":null,"nowTime":null,"countyName":null,"streetName":null,"villageName":null,"roadName":null,"communityName":null,"tranName":null,"sdLineName":null,"cityCode":"3340150","cityName":"国网浙江桐庐县供电公司","provinceCode":null,"stopTime":"2020-01-26 23:10:54","powerType":"全部","powerOffArea":"35kV三合变:童乐T262线-上林春天4号公变后段","powerOffReason":"(低压停电信息)低压开关跳闸 原停电结束时间为2020-01-26 22:10:54,因材料准备原因,现变更停电结束时间为2020-01-26 23:10:54","powerOffId":"2020012631020088"},{"poweroffId":2020012631020081,"sgpoweroffId":null,"subsName":"","lineName":"10kV华丰C622线","pubTranName":"江南村(盈上)4#变,","scope":"浙江省-杭州市-萧山区-新街镇--新街街道-江南行政村-江南自然村、浙江省杭州市萧山区江南自然村18组16号等一带","startTime":"2020-01-26 17:49:57","stopDate":"2020-01-26 19:30:57","orgNo":"3340130","typeCode":"电网故障停限电","poweroffArea":"110kV新街变:华丰C622线-江南村(盈上)4#变台区低压开关","poweroffReason":"(低压停电信息)低压漏电保护器短路故障 原停电结束时间为2020-01-26 20:54:57,为减少客户停电时间,加快工作进度,提前送电,现变更停电结束时间为2020-01-26 19:30:57","powerTime":"2020-01-26 18:41:24","powerComm":"已送电","subsNo":"","lineNo":"","tgNo":"","tgName":null,"infoStatus":"1","orgName":"国网浙江杭州市萧山区供电有限公司","typeName":null,"infoStatusName":null,"dateDay":null,"orgNos":null,"nowTime":null,"countyName":null,"streetName":null,"villageName":null,"roadName":null,"communityName":null,"tranName":null,"sdLineName":null,"cityCode":"3340130","cityName":"国网浙江杭州市萧山区供电有限公司","provinceCode":null,"stopTime":"2020-01-26 19:30:57","powerType":"全部","powerOffArea":"110kV新街变:华丰C622线-江南村(盈上)4#变台区低压开关","powerOffReason":"(低压停电信息)低压漏电保护器短路故障 原停电结束时间为2020-01-26 20:54:57,为减少客户停电时间,加快工作进度,提前送电,现变更停电结束时间为2020-01-26 19:30:57","powerOffId":"2020012631020081"},{"poweroffId":2020012631020060,"sgpoweroffId":null,"subsName":"","lineName":"10kV鸬鸟H564线","pubTranName":"仙佰坑村沈家堂公变,","scope":"浙江省-杭州市-余杭区-鸬鸟镇-仙佰坑行政村(石井坑自然村,沈家堂自然村,高家堂,仙佰坑自然村)","startTime":"2020-01-26 14:17:00","stopDate":"2020-01-26 15:30:00","orgNo":"3340140","typeCode":"电网故障停限电","poweroffArea":"35kV黄湖变:鸬鸟H564线-沈家堂后段","poweroffReason":"高压开关跳闸 原停电结束时间为2020-01-26 16:20:00,为减少客户停电时间,加快工作进度,提前送电,现变更停电结束时间为2020-01-26 15:30:00","powerTime":"2020-01-26 14:55:00","powerComm":"已送电","subsNo":"","lineNo":"","tgNo":"","tgName":null,"infoStatus":"1","orgName":"国网浙江杭州市余杭区供电有限公司","typeName":null,"infoStatusName":null,"dateDay":null,"orgNos":null,"nowTime":null,"countyName":null,"streetName":null,"villageName":null,"roadName":null,"communityName":null,"tranName":null,"sdLineName":null,"cityCode":"3340140","cityName":"国网浙江杭州市余杭区供电有限公司","provinceCode":null,"stopTime":"2020-01-26 15:30:00","powerType":"全部","powerOffArea":"35kV黄湖变:鸬鸟H564线-沈家堂后段","powerOffReason":"高压开关跳闸 原停电结束时间为2020-01-26 16:20:00,为减少客户停电时间,加快工作进度,提前送电,现变更停电结束时间为2020-01-26 15:30:00","powerOffId":"2020012631020060"},{"poweroffId":2020012631020057,"sgpoweroffId":null,"subsName":"","lineName":"10kV百岁T168线","pubTranName":"舒家村里陈家4号公变,","scope":"浙江省-杭州市-桐庐县-瑶琳镇-舒家行政村-舒家村里陈家","startTime":"2020-01-26 14:12:12","stopDate":"2020-01-26 16:12:12","orgNo":"3340150","typeCode":"电网故障停限电","poweroffArea":"35kV瑶琳变:百岁T168线-舒家村里陈家4号公变后段","poweroffReason":"(低压停电信息)低压开关跳闸","powerTime":"2020-01-26 15:59:27","powerComm":"已送电","subsNo":"","lineNo":"","tgNo":"","tgName":null,"infoStatus":"1","orgName":"国网浙江桐庐县供电公司","typeName":null,"infoStatusName":null,"dateDay":null,"orgNos":null,"nowTime":null,"countyName":null,"streetName":null,"villageName":null,"roadName":null,"communityName":null,"tranName":null,"sdLineName":null,"cityCode":"3340150","cityName":"国网浙江桐庐县供电公司","provinceCode":null,"stopTime":"2020-01-26 16:12:12","powerType":"全部","powerOffArea":"35kV瑶琳变:百岁T168线-舒家村里陈家4号公变后段","powerOffReason":"(低压停电信息)低压开关跳闸","powerOffId":"2020012631020057"},{"poweroffId":2020012631020042,"sgpoweroffId":null,"subsName":"","lineName":"10kV百岁T168线","pubTranName":"文源村上沈5号公变,","scope":"浙江省-杭州市-桐庐县-瑶琳镇-文源行政村-上沈自然村","startTime":"2020-01-26 12:40:48","stopDate":"2020-01-26 15:40:48","orgNo":"3340150","typeCode":"电网故障停限电","poweroffArea":"35kV瑶琳变:百岁T168线-文源村上沈5号公变后段","poweroffReason":"(低压停电信息)低压开关跳闸","powerTime":"2020-01-26 15:19:37","powerComm":"已送电","subsNo":"","lineNo":"","tgNo":"","tgName":null,"infoStatus":"1","orgName":"国网浙江桐庐县供电公司","typeName":null,"infoStatusName":null,"dateDay":null,"orgNos":null,"nowTime":null,"countyName":null,"streetName":null,"villageName":null,"roadName":null,"communityName":null,"tranName":null,"sdLineName":null,"cityCode":"3340150","cityName":"国网浙江桐庐县供电公司","provinceCode":null,"stopTime":"2020-01-26 15:40:48","powerType":"全部","powerOffArea":"35kV瑶琳变:百岁T168线-文源村上沈5号公变后段","powerOffReason":"(低压停电信息)低压开关跳闸","powerOffId":"2020012631020042"}],"pageModel":{"pageNow":556,"totalCount":17789,"totalPage":1779,"tableRows":0,"pageCount":10,"beginCount":5550},"isExperi":"1"}