{"message":"","today":"2020-06-15","seleList":[{"poweroffId":2020012631020016,"sgpoweroffId":null,"subsName":"","lineName":"10kV金星6605线","pubTranName":"板桥村农(6),","scope":"浙江省-杭州市-西湖区-双浦镇(麦岭沙社区-麦岭沙村道,板桥行政村-板桥村道)","startTime":"2020-01-26 09:13:00","stopDate":"2020-01-26 12:13:00","orgNo":"3340101","typeCode":"电网故障停限电","poweroffArea":"110kV周浦变:金星6605线板桥村农(6)配变","poweroffReason":"高压开关跳闸 原停电结束时间为2020-01-26 11:13:00,因由于施工现场环境比较复杂原因,现变更停电结束时间为2020-01-26 12:13:00","powerTime":"2020-01-26 11:38:23","powerComm":"已送电","subsNo":"","lineNo":"","tgNo":"","tgName":null,"infoStatus":"1","orgName":"浙江杭州电力客户服务中心","typeName":null,"infoStatusName":null,"dateDay":null,"orgNos":null,"nowTime":null,"countyName":null,"streetName":null,"villageName":null,"roadName":null,"communityName":null,"tranName":null,"sdLineName":null,"cityCode":"3340101","cityName":"浙江杭州电力客户服务中心","provinceCode":null,"stopTime":"2020-01-26 12:13:00","powerType":"全部","powerOffArea":"110kV周浦变:金星6605线板桥村农(6)配变","powerOffReason":"高压开关跳闸 原停电结束时间为2020-01-26 11:13:00,因由于施工现场环境比较复杂原因,现变更停电结束时间为2020-01-26 12:13:00","powerOffId":"2020012631020016"},{"poweroffId":2020012631020010,"sgpoweroffId":null,"subsName":"","lineName":"10kV港城A815线","pubTranName":"岩峰村15#变,岩峰村8#变,岩峰小区1#变,岩峰村14#变,岩峰村10#变,岩峰村7#变,岩峰村12#变,青龙内衣(1316105751),岩峰村13#变,杭州市萧山区人民政府南阳街道办事处,杭州成邦沥青混凝土有限公司,岩峰村9#变,沈氏铝业(1321022628),岩峰村6#变,","scope":"浙江省-杭州市-萧山区-南阳街道-岩峰行政村(岩峰自然村,十米路);浙江省-杭州市-萧山区-南阳街道-龙虎行政村-杭州成邦沥青混凝土有限公司,南阳街道-岩峰行政村(杭州青龙内衣厂,杭州沈士铝业有限公司,杭州市萧山区人民政府南阳街道办事处)、南阳街道岩峰行政村岩峰自然村625号一带","startTime":"2020-01-26 08:10:13","stopDate":"2020-01-26 11:15:13","orgNo":"3340130","typeCode":"电网故障停限电","poweroffArea":"110kV黎明变:港城A815线-岩峰北线后段","poweroffReason":"高压柱上断路器短路故障","powerTime":"2020-01-26 10:44:42","powerComm":"已送电","subsNo":"","lineNo":"","tgNo":"","tgName":null,"infoStatus":"1","orgName":"国网浙江杭州市萧山区供电有限公司","typeName":null,"infoStatusName":null,"dateDay":null,"orgNos":null,"nowTime":null,"countyName":null,"streetName":null,"villageName":null,"roadName":null,"communityName":null,"tranName":null,"sdLineName":null,"cityCode":"3340130","cityName":"国网浙江杭州市萧山区供电有限公司","provinceCode":null,"stopTime":"2020-01-26 11:15:13","powerType":"全部","powerOffArea":"110kV黎明变:港城A815线-岩峰北线后段","powerOffReason":"高压柱上断路器短路故障","powerOffId":"2020012631020010"},{"poweroffId":2020012631020009,"sgpoweroffId":null,"subsName":"","lineName":"10kV陵上Y133线","pubTranName":"乾一村庆功塘台区,","scope":"浙江省-杭州市-建德市-乾潭镇-乾一行政村-芝峰自然村，庆功塘头一带用户。","startTime":"2020-01-26 07:40:00","stopDate":"2020-01-26 10:00:00","orgNo":"3340180","typeCode":"电网故障停限电","poweroffArea":"110kV乾潭变:陵上Y133线-乾一村庆功塘台区后段","poweroffReason":"(低压停电信息)低压开关跳闸","powerTime":"2020-01-26 09:14:00","powerComm":"已送电","subsNo":"","lineNo":"","tgNo":"","tgName":null,"infoStatus":"1","orgName":"国网浙江建德市供电有限公司","typeName":null,"infoStatusName":null,"dateDay":null,"orgNos":null,"nowTime":null,"countyName":null,"streetName":null,"villageName":null,"roadName":null,"communityName":null,"tranName":null,"sdLineName":null,"cityCode":"3340180","cityName":"国网浙江建德市供电有限公司","provinceCode":null,"stopTime":"2020-01-26 10:00:00","powerType":"全部","powerOffArea":"110kV乾潭变:陵上Y133线-乾一村庆功塘台区后段","powerOffReason":"(低压停电信息)低压开关跳闸","powerOffId":"2020012631020009"},{"poweroffId":2020012531020092,"sgpoweroffId":null,"subsName":"","lineName":"10kV凤潭Y340线","pubTranName":"前陵村东山台区,","scope":"浙江省-杭州市-建德市-乾潭镇(前陵行政村-东山自然村,姚村行政村-姚村自然村)一带用户。","startTime":"2020-01-25 21:21:00","stopDate":"2020-01-25 23:00:00","orgNo":"3340180","typeCode":"电网故障停限电","poweroffArea":"110kV钦堂变:凤潭Y340线-前陵村东山台区后段","poweroffReason":"(低压停电信息)低压开关跳闸","powerTime":"2020-01-25 22:20:00","powerComm":"已送电","subsNo":"","lineNo":"","tgNo":"","tgName":null,"infoStatus":"1","orgName":"国网浙江建德市供电有限公司","typeName":null,"infoStatusName":null,"dateDay":null,"orgNos":null,"nowTime":null,"countyName":null,"streetName":null,"villageName":null,"roadName":null,"communityName":null,"tranName":null,"sdLineName":null,"cityCode":"3340180","cityName":"国网浙江建德市供电有限公司","provinceCode":null,"stopTime":"2020-01-25 23:00:00","powerType":"全部","powerOffArea":"110kV钦堂变:凤潭Y340线-前陵村东山台区后段","powerOffReason":"(低压停电信息)低压开关跳闸","powerOffId":"2020012531020092"},{"poweroffId":2020012531020091,"sgpoweroffId":null,"subsName":"","lineName":"10kV三元D912线","pubTranName":"勤俭村3#村中公变,","scope":"浙江省-杭州市-富阳区-渔山乡-大葛行政村(勤俭自然村,葛村自然村,勤建自然村)","startTime":"2020-01-25 21:28:55","stopDate":"2020-01-25 23:28:55","orgNo":"3340170","typeCode":"电网故障停限电","poweroffArea":"110kV里渔变:三元D912线-勤俭村3#村中公变后段","poweroffReason":"高压开关跳闸","powerTime":"2020-01-25 22:31:45","powerComm":"已送电","subsNo":"","lineNo":"","tgNo":"","tgName":null,"infoStatus":"1","orgName":"国网浙江杭州市富阳区供电公司","typeName":null,"infoStatusName":null,"dateDay":null,"orgNos":null,"nowTime":null,"countyName":null,"streetName":null,"villageName":null,"roadName":null,"communityName":null,"tranName":null,"sdLineName":null,"cityCode":"3340170","cityName":"国网浙江杭州市富阳区供电公司","provinceCode":null,"stopTime":"2020-01-25 23:28:55","powerType":"全部","powerOffArea":"110kV里渔变:三元D912线-勤俭村3#村中公变后段","powerOffReason":"高压开关跳闸","powerOffId":"2020012531020091"},{"poweroffId":2020012531020090,"sgpoweroffId":null,"subsName":"","lineName":"10kV石鼓Y212线","pubTranName":"石鼓村大坑源台区,","scope":"浙江省-杭州市-建德市-李家镇-石鼓行政村-大坑源自然村一带用户","startTime":"2020-01-25 20:54:00","stopDate":"2020-01-25 22:30:00","orgNo":"3340180","typeCode":"电网故障停限电","poweroffArea":"35kV李家变:石鼓Y212线-石鼓村大坑源台区后段","poweroffReason":"(低压停电信息)低压熔芯烧毁 原停电结束时间为2020-01-25 23:30:00,为减少客户停电时间,加快工作进度,提前送电,现变更停电结束时间为2020-01-25 22:30:00","powerTime":"2020-01-25 22:09:01","powerComm":"已送电","subsNo":"","lineNo":"","tgNo":"","tgName":null,"infoStatus":"1","orgName":"国网浙江建德市供电有限公司","typeName":null,"infoStatusName":null,"dateDay":null,"orgNos":null,"nowTime":null,"countyName":null,"streetName":null,"villageName":null,"roadName":null,"communityName":null,"tranName":null,"sdLineName":null,"cityCode":"3340180","cityName":"国网浙江建德市供电有限公司","provinceCode":null,"stopTime":"2020-01-25 22:30:00","powerType":"全部","powerOffArea":"35kV李家变:石鼓Y212线-石鼓村大坑源台区后段","powerOffReason":"(低压停电信息)低压熔芯烧毁 原停电结束时间为2020-01-25 23:30:00,为减少客户停电时间,加快工作进度,提前送电,现变更停电结束时间为2020-01-25 22:30:00","powerOffId":"2020012531020090"},{"poweroffId":2020012531020089,"sgpoweroffId":null,"subsName":"","lineName":"10kV里叶Y348线","pubTranName":"陈店村叶墩台区,","scope":"浙江省-杭州市-建德市-大慈岩镇-陈店行政村-叶墩自然村一带用户。","startTime":"2020-01-25 20:55:00","stopDate":"2020-01-25 23:59:00","orgNo":"3340180","typeCode":"电网故障停限电","poweroffArea":"110kV慈岩变:里叶Y348线-陈店村叶墩台区后段","poweroffReason":"(低压停电信息)低压电缆烧毁 原停电结束时间为2020-01-25 23:30:00,因大雨天气原因,现变更停电结束时间为2020-01-25 23:59:00","powerTime":"2020-01-25 23:55:00","powerComm":"已送电","subsNo":"","lineNo":"","tgNo":"","tgName":null,"infoStatus":"1","orgName":"国网浙江建德市供电有限公司","typeName":null,"infoStatusName":null,"dateDay":null,"orgNos":null,"nowTime":null,"countyName":null,"streetName":null,"villageName":null,"roadName":null,"communityName":null,"tranName":null,"sdLineName":null,"cityCode":"3340180","cityName":"国网浙江建德市供电有限公司","provinceCode":null,"stopTime":"2020-01-25 23:59:00","powerType":"全部","powerOffArea":"110kV慈岩变:里叶Y348线-陈店村叶墩台区后段","powerOffReason":"(低压停电信息)低压电缆烧毁 原停电结束时间为2020-01-25 23:30:00,因大雨天气原因,现变更停电结束时间为2020-01-25 23:59:00","powerOffId":"2020012531020089"},{"poweroffId":2020012531020085,"sgpoweroffId":null,"subsName":"","lineName":"10kV里叶Y348线","pubTranName":"陈店村陈店台区,","scope":"浙江省-杭州市-建德市-大慈岩镇-陈店行政村(后角厅自然村,陈店自然村)一带用户。","startTime":"2020-01-25 19:50:00","stopDate":"2020-01-25 21:00:00","orgNo":"3340180","typeCode":"电网故障停限电","poweroffArea":"110kV慈岩变:里叶Y348线-陈店村陈店台区后段","poweroffReason":"(低压停电信息)低压开关跳闸 原停电结束时间为2020-01-25 22:00:00,为减少客户停电时间,加快工作进度,提前送电,现变更停电结束时间为2020-01-25 21:00:00","powerTime":"2020-01-25 20:23:00","powerComm":"已送电","subsNo":"","lineNo":"","tgNo":"","tgName":null,"infoStatus":"1","orgName":"国网浙江建德市供电有限公司","typeName":null,"infoStatusName":null,"dateDay":null,"orgNos":null,"nowTime":null,"countyName":null,"streetName":null,"villageName":null,"roadName":null,"communityName":null,"tranName":null,"sdLineName":null,"cityCode":"3340180","cityName":"国网浙江建德市供电有限公司","provinceCode":null,"stopTime":"2020-01-25 21:00:00","powerType":"全部","powerOffArea":"110kV慈岩变:里叶Y348线-陈店村陈店台区后段","powerOffReason":"(低压停电信息)低压开关跳闸 原停电结束时间为2020-01-25 22:00:00,为减少客户停电时间,加快工作进度,提前送电,现变更停电结束时间为2020-01-25 21:00:00","powerOffId":"2020012531020085"},{"poweroffId":2020012531020078,"sgpoweroffId":null,"subsName":"","lineName":"10kV民族T148线","pubTranName":"桐庐畲洪禽业有限公司,戴丰2号公变,桐庐天一农庄有限公司,潘龙1号公变,浙江省桐庐县花炮厂,石青山1号公变,戴丰1号公变,铁钻石1号公变,黄家山1号公变,桐庐独幽处旅游开发有限公司变压器,中门1号公变,杭州亦舍酒店管理有限公司,横山1号公变,杭州天沐生态旅游开发有限公司,10千伏大王6462线红(2)农配变跌落式熔断器,","scope":"浙江省-杭州市-桐庐县-莪山畲族乡-中门民族行政村(中门莪溪自然村,香炉山自然村,石青山自然村,潘龙自然村,黄家山自然村),莪山畲族乡-新丰民族行政村(横山自然村,铁钻石自然村,桐坑自然村,戴家山自然村,东卜潭自然村);莪山畲族乡(杭州天沐生态旅游开发有限公司,浙江省桐庐县花炮厂,桐庐畲洪禽业有限公司,桐庐云夕戴家山民宿有限公司,桐庐秘境民宿有限公司,桐庐独幽处旅游开发有限公司,桐庐天一农庄有限公司)","startTime":"2020-01-25 17:20:00","stopDate":"2020-01-25 20:20:00","orgNo":"3340150","typeCode":"电网故障停限电","poweroffArea":"35kV钟山变:民族T148线中门F2594开关后段","poweroffReason":"高压开关跳闸","powerTime":"2020-01-25 19:55:53","powerComm":"已送电","subsNo":"","lineNo":"","tgNo":"","tgName":null,"infoStatus":"1","orgName":"国网浙江桐庐县供电公司","typeName":null,"infoStatusName":null,"dateDay":null,"orgNos":null,"nowTime":null,"countyName":null,"streetName":null,"villageName":null,"roadName":null,"communityName":null,"tranName":null,"sdLineName":null,"cityCode":"3340150","cityName":"国网浙江桐庐县供电公司","provinceCode":null,"stopTime":"2020-01-25 20:20:00","powerType":"全部","powerOffArea":"35kV钟山变:民族T148线中门F2594开关后段","powerOffReason":"高压开关跳闸","powerOffId":"2020012531020078"},{"poweroffId":2020012531020077,"sgpoweroffId":null,"subsName":"","lineName":"10kV大西C742线","pubTranName":"镇中村18#变,","scope":"浙江省-杭州市-萧山区-党湾镇-镇中行政村-镇中自然村、镇中村一带","startTime":"2020-01-25 17:05:25","stopDate":"2020-01-25 18:05:25","orgNo":"3340130","typeCode":"电网故障停限电","poweroffArea":"35kV党湾变:大西C742线-镇中村18#变台区低压开关","poweroffReason":"(低压停电信息) 低压漏电保护器短路故障","powerTime":"2020-01-25 17:28:00","powerComm":"已送电","subsNo":"","lineNo":"","tgNo":"","tgName":null,"infoStatus":"1","orgName":"国网浙江杭州市萧山区供电有限公司","typeName":null,"infoStatusName":null,"dateDay":null,"orgNos":null,"nowTime":null,"countyName":null,"streetName":null,"villageName":null,"roadName":null,"communityName":null,"tranName":null,"sdLineName":null,"cityCode":"3340130","cityName":"国网浙江杭州市萧山区供电有限公司","provinceCode":null,"stopTime":"2020-01-25 18:05:25","powerType":"全部","powerOffArea":"35kV党湾变:大西C742线-镇中村18#变台区低压开关","powerOffReason":"(低压停电信息) 低压漏电保护器短路故障","powerOffId":"2020012531020077"}],"pageModel":{"pageNow":557,"totalCount":17789,"totalPage":1779,"tableRows":0,"pageCount":10,"beginCount":5560},"isExperi":"1"}