{"message":"","today":"2020-06-15","seleList":[{"poweroffId":2020012331020058,"sgpoweroffId":null,"subsName":"","lineName":"10kV宝迪9102线","pubTranName":"万科(十四),生命制药2#,畈村三变,畈村一变,万科(二),万科(四),九堡中学2#,立方(八),万科(十),生命制药1,畈村四变,立方(六),立方(十),立方(二),立方(十二),雄睿,万科(十六),立方(十四),路灯,立方(四),万科(六),万科(八),万科(十二),畈村二变,润昊施,生命制药5,","scope":"浙江省-杭州市-江干区-误下沙街道-误下沙社区-九盛路,误九堡镇-误九堡社区(艮山东路,九盛路),九堡街道-和华社区(和华路,九华路),误九堡镇(误和华社区-和华路,误魅力城社区-九环路,误九塘社区-九堡老街,误格畈社区-九环路);浙江省-杭州市-江干区-九堡街道-三村社区-杭州润昊建材有限公司,误九堡镇-误九堡社区(杭州江干科技经济开发有限公司,杭州鹏和实业有限公司,浙江生命制药有限公司,杭州师范大学东城实验学校)一带","startTime":"2020-01-23 16:23:47","stopDate":"2020-01-23 17:30:47","orgNo":"3340120","typeCode":"电网故障停限电","poweroffArea":"110kV蚕桑变:宝迪9102线","poweroffReason":"高压开关跳闸 原停电结束时间为2020-01-23 18:10:47,为减少客户停电时间,加快工作进度,提前送电,现变更停电结束时间为2020-01-23 17:30:47","powerTime":"2020-01-23 16:51:42","powerComm":"已送电","subsNo":"","lineNo":"","tgNo":"","tgName":null,"infoStatus":"1","orgName":"国网浙江杭州市钱塘新区供电公司","typeName":null,"infoStatusName":null,"dateDay":null,"orgNos":null,"nowTime":null,"countyName":null,"streetName":null,"villageName":null,"roadName":null,"communityName":null,"tranName":null,"sdLineName":null,"cityCode":"3340120","cityName":"国网浙江杭州市钱塘新区供电公司","provinceCode":null,"stopTime":"2020-01-23 17:30:47","powerType":"全部","powerOffArea":"110kV蚕桑变:宝迪9102线","powerOffReason":"高压开关跳闸 原停电结束时间为2020-01-23 18:10:47,为减少客户停电时间,加快工作进度,提前送电,现变更停电结束时间为2020-01-23 17:30:47","powerOffId":"2020012331020058"},{"poweroffId":2020012331020057,"sgpoweroffId":null,"subsName":"","lineName":"10kV桃舜A542线","pubTranName":"申航化工,桃湖村8#变,桃湖村3#变,金利浦制衣,杭州市萧山区浦阳江水利工程管理所(1315071290),国力建材,舜湖村4#变,萧山区浦阳镇舜湖村经济联合社,桃湖村9#变,双元链条,浙江省交通投资集团有限公司杭金衢分公司杭绍管理处,杭州市萧山区浦阳镇人民政府（桃源机埠）1#,桃湖村4#变,舜湖村5#变,桃湖村6#变,双元链条,申航化工,杭州市萧山区浦阳镇人民政府（桃源机埠）2#,桃湖村5#变,舜湖村2#变,舜湖村1#变,舜湖村3#变,杭州双元链条有限公司,杭州金立浦塑业有限公司,","scope":"浙江省-杭州市-萧山区-浦阳镇-灵山行政村-灵头,浦阳镇-舜湖行政村(舜湖自然村,陶家桥自然村),浦阳镇-桃湖行政村(彭家桥自然村,洪水湾自然村,灵头自然村,沈家自然村);浦阳镇-桃湖行政村(杭州广源鞋业有限公司,杭州双元链条有限公司,杭州新程印刷厂,杭州国力建材有限公司,杭州缠绕环保科技有限公司,浙江省交通投资集团有限公司杭金衢分公司杭绍管理处,杭州申航新材料有限公司),浦阳镇(舜湖行政村-萧山区浦阳镇舜湖村经济联合社,桃源行政村-杭州市萧山区浦阳镇人民政府)一带","startTime":"2020-01-23 16:27:10","stopDate":"2020-01-23 17:40:10","orgNo":"3340130","typeCode":"电网故障停限电","poweroffArea":"110kV浦阳变:桃舜A542线-桃舜A5421开关后段","poweroffReason":"高压开关跳闸 原停电结束时间为2020-01-23 18:27:10,为减少客户停电时间,加快工作进度,提前送电,现变更停电结束时间为2020-01-23 17:40:10","powerTime":"2020-01-23 16:59:19","powerComm":"已送电","subsNo":"","lineNo":"","tgNo":"","tgName":null,"infoStatus":"1","orgName":"国网浙江杭州市萧山区供电有限公司","typeName":null,"infoStatusName":null,"dateDay":null,"orgNos":null,"nowTime":null,"countyName":null,"streetName":null,"villageName":null,"roadName":null,"communityName":null,"tranName":null,"sdLineName":null,"cityCode":"3340130","cityName":"国网浙江杭州市萧山区供电有限公司","provinceCode":null,"stopTime":"2020-01-23 17:40:10","powerType":"全部","powerOffArea":"110kV浦阳变:桃舜A542线-桃舜A5421开关后段","powerOffReason":"高压开关跳闸 原停电结束时间为2020-01-23 18:27:10,为减少客户停电时间,加快工作进度,提前送电,现变更停电结束时间为2020-01-23 17:40:10","powerOffId":"2020012331020057"},{"poweroffId":2020012331020052,"sgpoweroffId":null,"subsName":"","lineName":"10kV星园G086线","pubTranName":"天都天风苑6号箱公变,","scope":"浙江省-杭州市-余杭区-星桥街道-香榭社区(香榭,天鹤路)","startTime":"2020-01-23 15:47:49","stopDate":"2020-01-23 17:55:49","orgNo":"3340140","typeCode":"电网故障停限电","poweroffArea":"110kV星桥变:星园G086线-天都天风苑6号箱公变后段","poweroffReason":"高压开关跳闸","powerTime":"2020-01-23 17:21:00","powerComm":"已送电","subsNo":"","lineNo":"","tgNo":"","tgName":null,"infoStatus":"1","orgName":"国网浙江杭州市余杭区供电有限公司","typeName":null,"infoStatusName":null,"dateDay":null,"orgNos":null,"nowTime":null,"countyName":null,"streetName":null,"villageName":null,"roadName":null,"communityName":null,"tranName":null,"sdLineName":null,"cityCode":"3340140","cityName":"国网浙江杭州市余杭区供电有限公司","provinceCode":null,"stopTime":"2020-01-23 17:55:49","powerType":"全部","powerOffArea":"110kV星桥变:星园G086线-天都天风苑6号箱公变后段","powerOffReason":"高压开关跳闸","powerOffId":"2020012331020052"},{"poweroffId":2020012331020050,"sgpoweroffId":null,"subsName":"","lineName":"10kV徐七T338线","pubTranName":"集镇2号公变,","scope":"浙江省-杭州市-桐庐县-莪山畲族乡(塘联行政村-塘下自然村,莪山民族行政村-山阴岭自然村)","startTime":"2020-01-23 15:20:29","stopDate":"2020-01-23 17:46:29","orgNo":"3340150","typeCode":"电网故障停限电","poweroffArea":"110kV横村变:徐七T338线-集镇2号公变后段","poweroffReason":"(低压停电信息)低压开关跳闸","powerTime":"2020-01-23 17:19:10","powerComm":"已送电","subsNo":"","lineNo":"","tgNo":"","tgName":null,"infoStatus":"1","orgName":"国网浙江桐庐县供电公司","typeName":null,"infoStatusName":null,"dateDay":null,"orgNos":null,"nowTime":null,"countyName":null,"streetName":null,"villageName":null,"roadName":null,"communityName":null,"tranName":null,"sdLineName":null,"cityCode":"3340150","cityName":"国网浙江桐庐县供电公司","provinceCode":null,"stopTime":"2020-01-23 17:46:29","powerType":"全部","powerOffArea":"110kV横村变:徐七T338线-集镇2号公变后段","powerOffReason":"(低压停电信息)低压开关跳闸","powerOffId":"2020012331020050"},{"poweroffId":2020012331020049,"sgpoweroffId":null,"subsName":"","lineName":"10kV尖湖A529线","pubTranName":"国泰密封1#（1315070246）,杭州新琦密封管件有限公司,国泰密封2#（1315070246）,尖湖村7#变,杭州八达废品回收有限公司,桃源村5#变,桃源村8#变,桃源村6#变,杭州萧山东亚塑料制品有限公司,杭州弗朗西斯管业有限公司,尖湖村4#变,桃源村7#变,常盛装饰布,尖湖村1#变,尖湖村5#变,尖湖村10#变,杭州全瑞建材有限公司,杭州迈通鞋业有限公司,色织布厂,宏达化工,桃源村3#变,尖湖村3#变,杭州萧山宏达化工包装有限公司,杭州萧山东亚塑料制品有限公司,尖湖村8#变,金属型材,桃源村4#变,杭州缠绕环保科技有限公司,尖湖村2#变,尖湖村9#变,永固化工,国泰密封（1321003375）,尖湖村6#变,恒力摩擦,萧山区浦阳镇尖湖村（方家坞机埠）,","scope":"浙江省-杭州市-萧山区-浦阳镇-尖湖行政村(中央坂自然村,文家坞自然村,小山脚自然村,化山自然村,下湾自然村),浦阳镇-桃源行政村(闸上自然村,后湖自然村,洋湖自然村);浦阳镇(萧山区浦阳镇尖湖村,浙江国泰萧星密封材料股份有限公司,杭州常顺装饰布加工厂,杭州迈通鞋业有限公司,杭州萧山宏达化工包装有限公司,萧山市浦阳色织布厂,杭州萧山东亚塑料制品有限公司,浙江大恒新材料有限公司,杭州恒力摩擦材料有限公司,杭州弗朗西斯管业有限公司,杭州缠绕环保科技有限公司,杭州萧山浦阳金属型材厂,杭州萧山永固化工防腐设备厂,杭州八达废品回收有限公司,杭州全瑞建材有限公司,杭州新琦密封管件有限公司)，浙江省杭州市萧山区浦阳镇桃园村，浙江省杭州市萧山区浦阳镇尖湖行政村下湾自然村中石油，浙江省杭州市萧山区浦阳镇桃源行政村羊湖村等一带","startTime":"2020-01-23 15:10:00","stopDate":"2020-01-23 17:50:00","orgNo":"3340130","typeCode":"电网故障停限电","poweroffArea":"110kV浦阳变:尖湖A529线尖湖A5292开关后段","poweroffReason":"高压柱上断路器短路故障 原停电结束时间为2020-01-23 18:10:00,为减少客户停电时间,加快工作进度,提前送电,现变更停电结束时间为2020-01-23 17:50:00","powerTime":"2020-01-23 17:03:40","powerComm":"已送电","subsNo":"","lineNo":"","tgNo":"","tgName":null,"infoStatus":"1","orgName":"国网浙江杭州市萧山区供电有限公司","typeName":null,"infoStatusName":null,"dateDay":null,"orgNos":null,"nowTime":null,"countyName":null,"streetName":null,"villageName":null,"roadName":null,"communityName":null,"tranName":null,"sdLineName":null,"cityCode":"3340130","cityName":"国网浙江杭州市萧山区供电有限公司","provinceCode":null,"stopTime":"2020-01-23 17:50:00","powerType":"全部","powerOffArea":"110kV浦阳变:尖湖A529线尖湖A5292开关后段","powerOffReason":"高压柱上断路器短路故障 原停电结束时间为2020-01-23 18:10:00,为减少客户停电时间,加快工作进度,提前送电,现变更停电结束时间为2020-01-23 17:50:00","powerOffId":"2020012331020049"},{"poweroffId":2020012331020048,"sgpoweroffId":null,"subsName":"","lineName":"10kV棋盘H293线","pubTranName":"崇化村邱家坝公变,","scope":"浙江省-杭州市-余杭区-瓶窑镇-崇化行政村-邱家坝自然村","startTime":"2020-01-23 14:19:49","stopDate":"2020-01-23 18:20:00","orgNo":"3340140","typeCode":"电网故障停限电","poweroffArea":"110kV柏庙变:棋盘H293线-邱家坝分线开关后段","poweroffReason":"高压开关跳闸","powerTime":"2020-01-23 17:45:00","powerComm":"已送电","subsNo":"","lineNo":"","tgNo":"","tgName":null,"infoStatus":"1","orgName":"国网浙江杭州市余杭区供电有限公司","typeName":null,"infoStatusName":null,"dateDay":null,"orgNos":null,"nowTime":null,"countyName":null,"streetName":null,"villageName":null,"roadName":null,"communityName":null,"tranName":null,"sdLineName":null,"cityCode":"3340140","cityName":"国网浙江杭州市余杭区供电有限公司","provinceCode":null,"stopTime":"2020-01-23 18:20:00","powerType":"全部","powerOffArea":"110kV柏庙变:棋盘H293线-邱家坝分线开关后段","powerOffReason":"高压开关跳闸","powerOffId":"2020012331020048"},{"poweroffId":2020012331020038,"sgpoweroffId":null,"subsName":"","lineName":"10kV拔山D942线","pubTranName":"富阳防水材料厂,杭州丰创电机制造有限公司,新春村14号高畈公变,富阳市宏阳门窗安装有限公司,富阳市永安防雷设备厂,富阳市新建通信器材有限公司,","scope":"浙江省-杭州市-富阳区-富春街道-杨清庙行政村(杨清庙自然村,新春自然村,高畈自然村);富春街道(杭州富阳防水材料厂,杭州富阳新建通信器材有限公司,富阳市宏阳门窗安装有限公司,杭州丰创电机制造有限公司,杭州富阳永安防雷设备厂)","startTime":"2020-01-23 12:32:03","stopDate":"2020-01-23 14:32:03","orgNo":"3340170","typeCode":"电网故障停限电","poweroffArea":"110kV育才变:拔山D942线防水材料分线开关后段","poweroffReason":"高压开关跳闸","powerTime":"2020-01-23 13:38:08","powerComm":"已送电","subsNo":"","lineNo":"","tgNo":"","tgName":null,"infoStatus":"1","orgName":"国网浙江杭州市富阳区供电公司","typeName":null,"infoStatusName":null,"dateDay":null,"orgNos":null,"nowTime":null,"countyName":null,"streetName":null,"villageName":null,"roadName":null,"communityName":null,"tranName":null,"sdLineName":null,"cityCode":"3340170","cityName":"国网浙江杭州市富阳区供电公司","provinceCode":null,"stopTime":"2020-01-23 14:32:03","powerType":"全部","powerOffArea":"110kV育才变:拔山D942线防水材料分线开关后段","powerOffReason":"高压开关跳闸","powerOffId":"2020012331020038"},{"poweroffId":2020012331020035,"sgpoweroffId":null,"subsName":"","lineName":"10kV唐公G968线","pubTranName":"运河镇唐公村尤家坝公变,","scope":"浙江省-杭州市-余杭区-运河街道-杭南行政村(杭南路,杭南自然村),运河街道-唐公行政村(唐公行自然村,唐公自然村,尤家埭自然村)","startTime":"2020-01-23 11:01:31","stopDate":"2020-01-23 13:01:31","orgNo":"3340140","typeCode":"电网故障停限电","poweroffArea":"110kV博陆变:唐公G968线-运河镇唐公村尤家坝公变后段","poweroffReason":"高压开关跳闸","powerTime":"2020-01-23 12:56:15","powerComm":"已送电","subsNo":"","lineNo":"","tgNo":"","tgName":null,"infoStatus":"1","orgName":"国网浙江杭州市余杭区供电有限公司","typeName":null,"infoStatusName":null,"dateDay":null,"orgNos":null,"nowTime":null,"countyName":null,"streetName":null,"villageName":null,"roadName":null,"communityName":null,"tranName":null,"sdLineName":null,"cityCode":"3340140","cityName":"国网浙江杭州市余杭区供电有限公司","provinceCode":null,"stopTime":"2020-01-23 13:01:31","powerType":"全部","powerOffArea":"110kV博陆变:唐公G968线-运河镇唐公村尤家坝公变后段","powerOffReason":"高压开关跳闸","powerOffId":"2020012331020035"},{"poweroffId":2020012331020019,"sgpoweroffId":null,"subsName":"","lineName":"10kV秋荷H376线","pubTranName":"白鹭郡南9-1#公变,白鹭郡南8-2#公变,白鹭郡南8-1#公变,白鹭郡南9-2#公变,","scope":"浙江省-杭州市-余杭区-良渚街道-良渚文化村社区-风情大道","startTime":"2020-01-23 08:12:32","stopDate":"2020-01-23 12:12:32","orgNo":"3340140","typeCode":"电网故障停限电","poweroffArea":"110kV学里变:秋荷H376线首端，白鹭郡南9-2#公变，白鹭郡南9-1#公变，白鹭郡南8-2#公变，白鹭郡南8-1#公变之间","poweroffReason":"高压开关跳闸","powerTime":"2020-01-23 11:16:00","powerComm":"已送电","subsNo":"","lineNo":"","tgNo":"","tgName":null,"infoStatus":"1","orgName":"国网浙江杭州市余杭区供电有限公司","typeName":null,"infoStatusName":null,"dateDay":null,"orgNos":null,"nowTime":null,"countyName":null,"streetName":null,"villageName":null,"roadName":null,"communityName":null,"tranName":null,"sdLineName":null,"cityCode":"3340140","cityName":"国网浙江杭州市余杭区供电有限公司","provinceCode":null,"stopTime":"2020-01-23 12:12:32","powerType":"全部","powerOffArea":"110kV学里变:秋荷H376线首端，白鹭郡南9-2#公变，白鹭郡南9-1#公变，白鹭郡南8-2#公变，白鹭郡南8-1#公变之间","powerOffReason":"高压开关跳闸","powerOffId":"2020012331020019"},{"poweroffId":2020012331020012,"sgpoweroffId":null,"subsName":"","lineName":"10kV北星H371线","pubTranName":"东莲村盛家斗2号公变,大陆村杨家头2号公变,禹越建材,东莲村杨家头公变,大陆村日房桥公变,大陆村长兴庙公变,腾飞刺绣,信丰塑料,大陆村施村桥公变,大陆村董家角公变,大陆村邱家桥公变,大陆村吴家塘公变,七贤桥村田家门公变,大陆村九房桥公变,豪饰布业,配变,大陆村王家桥公变,","scope":"浙江省-杭州市-余杭区-良渚街道-大陆行政村(九房桥自然村,歌罗桥自然村),良渚街道-良渚行政村-仰家塘自然村,仁和街道-獐山社区-东西大道;良渚街道(杭州市江干区余金仙冷饮经营部,杭州余杭大陆股份经济合作社,杭州信丰塑业有限公司,杭州禹越建材有限公司,杭州祉聚服饰有限公司)","startTime":"2020-01-23 06:59:00","stopDate":"2020-01-23 11:40:00","orgNo":"3340140","typeCode":"电网故障停限电","poweroffArea":"110kV学里变:北星H371线郡诸H37117开关后段","poweroffReason":"高压开关跳闸 原停电结束时间为2020-01-23 08:59:00,因现场情况复杂原因,现变更停电结束时间为2020-01-23 11:40:00","powerTime":"2020-01-23 11:06:00","powerComm":"已送电","subsNo":"","lineNo":"","tgNo":"","tgName":null,"infoStatus":"1","orgName":"国网浙江杭州市余杭区供电有限公司","typeName":null,"infoStatusName":null,"dateDay":null,"orgNos":null,"nowTime":null,"countyName":null,"streetName":null,"villageName":null,"roadName":null,"communityName":null,"tranName":null,"sdLineName":null,"cityCode":"3340140","cityName":"国网浙江杭州市余杭区供电有限公司","provinceCode":null,"stopTime":"2020-01-23 11:40:00","powerType":"全部","powerOffArea":"110kV学里变:北星H371线郡诸H37117开关后段","powerOffReason":"高压开关跳闸 原停电结束时间为2020-01-23 08:59:00,因现场情况复杂原因,现变更停电结束时间为2020-01-23 11:40:00","powerOffId":"2020012331020012"}],"pageModel":{"pageNow":564,"totalCount":17789,"totalPage":1779,"tableRows":0,"pageCount":10,"beginCount":5630},"isExperi":"1"}