{"message":"","today":"2020-06-15","seleList":[{"poweroffId":2020012331020010,"sgpoweroffId":null,"subsName":"","lineName":"10kV南街A817线","pubTranName":"雷山村8#变,","scope":"浙江省-杭州市-萧山区-南阳街道-雷山行政村-雷山自然村、南阳街道雷山村一组13号、南阳街道雷山行政村雷山自然村1组16户一带","startTime":"2020-01-23 05:20:41","stopDate":"2020-01-23 07:40:41","orgNo":"3340130","typeCode":"电网故障停限电","poweroffArea":"110kV黎明变:南街A817线-雷山村8#变台区低压开关","poweroffReason":"(低压停电信息)低压熔断器短路故障","powerTime":"2020-01-23 06:43:13","powerComm":"已送电","subsNo":"","lineNo":"","tgNo":"","tgName":null,"infoStatus":"1","orgName":"国网浙江杭州市萧山区供电有限公司","typeName":null,"infoStatusName":null,"dateDay":null,"orgNos":null,"nowTime":null,"countyName":null,"streetName":null,"villageName":null,"roadName":null,"communityName":null,"tranName":null,"sdLineName":null,"cityCode":"3340130","cityName":"国网浙江杭州市萧山区供电有限公司","provinceCode":null,"stopTime":"2020-01-23 07:40:41","powerType":"全部","powerOffArea":"110kV黎明变:南街A817线-雷山村8#变台区低压开关","powerOffReason":"(低压停电信息)低压熔断器短路故障","powerOffId":"2020012331020010"},{"poweroffId":2020012331020006,"sgpoweroffId":null,"subsName":"","lineName":"10kV秋荷H376线","pubTranName":"柳映坊16#公变,2#,探梅里2#公变,秋荷坊7#公变,探梅里1#公变,秋荷坊10#公变,白鹭郡南8-1#公变,白鹭郡南6-2#公变,白鹭郡南7-2#公变,白鹭郡南9-1#公变,秋荷坊8#公变,2#,柳映坊9#公变,秋荷坊14#公变,白鹭郡南7-1#公变,白鹭郡南8-2#公变,柳映坊15#公变,路灯变,大雄寺,柳映坊12#公变,2#,秋荷坊9#公变,春漫里幼儿园专变,柳映坊10#公变,秋荷坊11#公变,柳映坊11#公变,秋荷坊13#公变,柳映坊14#公变,春漫里2#专变,秋荷坊小区2#专变,柳映坊13#公变,秋荷坊12#公变,白鹭郡南9-2#公变,白鹭郡南6-1#公变,","scope":"浙江省-杭州市-余杭区-良渚街道-良渚文化村社区(风情大道,玉鸟路,东西大道,大陆路,山水路),良渚街道-南庄兜行政村-星桥港自然村,仁和街道-獐山社区-东西大道;浙江省-杭州市-余杭区-良渚街道-杜甫行政村-杭州市余杭区人民政府良渚街道办事处,良渚街道-良渚文化村社区(杭州良渚大雄讲寺,杭州市余杭区良渚文化村英联幼儿园,上海万科物业服务有限公司余杭分公司,杭州良渚文化村开发有限公司)","startTime":"2020-01-23 04:02:46","stopDate":"2020-01-23 08:30:46","orgNo":"3340140","typeCode":"电网故障停限电","poweroffArea":"110kV学里变:秋荷H376线","poweroffReason":"高压开关跳闸 原停电结束时间为2020-01-23 07:30:46,因现场环境复杂原因,现变更停电结束时间为2020-01-23 08:30:46","powerTime":"2020-01-23 08:11:54","powerComm":"已送电","subsNo":"","lineNo":"","tgNo":"","tgName":null,"infoStatus":"1","orgName":"国网浙江杭州市余杭区供电有限公司","typeName":null,"infoStatusName":null,"dateDay":null,"orgNos":null,"nowTime":null,"countyName":null,"streetName":null,"villageName":null,"roadName":null,"communityName":null,"tranName":null,"sdLineName":null,"cityCode":"3340140","cityName":"国网浙江杭州市余杭区供电有限公司","provinceCode":null,"stopTime":"2020-01-23 08:30:46","powerType":"全部","powerOffArea":"110kV学里变:秋荷H376线","powerOffReason":"高压开关跳闸 原停电结束时间为2020-01-23 07:30:46,因现场环境复杂原因,现变更停电结束时间为2020-01-23 08:30:46","powerOffId":"2020012331020006"},{"poweroffId":2020012331020005,"sgpoweroffId":null,"subsName":"","lineName":"10kV春漫H369线","pubTranName":"白鹭郡南2-1#公变,白鹭郡南1-2#公变,郡南1#专变,春漫里2#公变,白鹭郡南4-1#公变,白鹭郡南1-1#公变,白南2#路灯变,柳映坊2-1#公变,白鹭郡南5-1#公变,2#,柳映坊4-1#公变,白鹭郡南3-2#公变,柳映坊3-1#公变,柳映坊4-2#公变,柳映坊2-2#公变,新都工程基建变,柳映坊1-1#公变,白鹭郡南2-2#公变,柳映坊1-2#公变,春漫里2#专变,春漫里4#公变,柳映坊3-2#公变,1#,白鹭郡南3-1#公变,1#,春漫里3#公变,春漫里1#专变,1#,2#,春漫里1#公变,白鹭郡南5-2#公变,春漫里5#公变,郡南路灯变2,白鹭郡南4-2#公变,","scope":"浙江省-杭州市-余杭区-良渚街道-良渚文化村社区(风情大道,东西大道,大陆路,玉鸟路),良渚街道-杜甫行政村-疏港公路,仁和街道-獐山社区-东西大道;良渚街道(杭州余杭新都工程开发有限公司,杭州万科物业服务有限公司,上海万科物业服务有限公司余杭分公司,杭州良渚文化村开发有限公司)","startTime":"2020-01-23 02:55:00","stopDate":"2020-01-23 04:26:00","orgNo":"3340140","typeCode":"电网故障停限电","poweroffArea":"110kV学里变:春漫H369线柳映开关站荷柳H3691线后段","poweroffReason":"高压开关跳闸 原停电结束时间为2020-01-23 07:50:00,为减少客户停电时间,加快工作进度,提前送电,现变更停电结束时间为2020-01-23 04:26:00","powerTime":"2020-01-23 04:06:12","powerComm":"已送电","subsNo":"","lineNo":"","tgNo":"","tgName":null,"infoStatus":"1","orgName":"国网浙江杭州市余杭区供电有限公司","typeName":null,"infoStatusName":null,"dateDay":null,"orgNos":null,"nowTime":null,"countyName":null,"streetName":null,"villageName":null,"roadName":null,"communityName":null,"tranName":null,"sdLineName":null,"cityCode":"3340140","cityName":"国网浙江杭州市余杭区供电有限公司","provinceCode":null,"stopTime":"2020-01-23 04:26:00","powerType":"全部","powerOffArea":"110kV学里变:春漫H369线柳映开关站荷柳H3691线后段","powerOffReason":"高压开关跳闸 原停电结束时间为2020-01-23 07:50:00,为减少客户停电时间,加快工作进度,提前送电,现变更停电结束时间为2020-01-23 04:26:00","powerOffId":"2020012331020005"},{"poweroffId":2020012231020107,"sgpoweroffId":null,"subsName":"","lineName":"10kV望交8562线","pubTranName":"望新一园九变,","scope":"浙江省-杭州市-上城区-紫阳街道-海潮社区-海潮路,望江街道-大通桥社区(望江路,映霞街,望江新园一园)","startTime":"2020-01-22 23:00:38","stopDate":"2020-01-23 07:36:38","orgNo":"3340101","typeCode":"电网故障停限电","poweroffArea":"220kV候潮变:望交8562线-望新一园九变后段","poweroffReason":"(低压停电信息)低压开关跳闸 原停电结束时间为2020-01-23 08:00:38,为减少客户停电时间,加快工作进度,提前送电,现变更停电结束时间为2020-01-23 07:36:38","powerTime":"2020-01-23 07:03:06","powerComm":"已送电","subsNo":"","lineNo":"","tgNo":"","tgName":null,"infoStatus":"1","orgName":"浙江杭州电力客户服务中心","typeName":null,"infoStatusName":null,"dateDay":null,"orgNos":null,"nowTime":null,"countyName":null,"streetName":null,"villageName":null,"roadName":null,"communityName":null,"tranName":null,"sdLineName":null,"cityCode":"3340101","cityName":"浙江杭州电力客户服务中心","provinceCode":null,"stopTime":"2020-01-23 07:36:38","powerType":"全部","powerOffArea":"220kV候潮变:望交8562线-望新一园九变后段","powerOffReason":"(低压停电信息)低压开关跳闸 原停电结束时间为2020-01-23 08:00:38,为减少客户停电时间,加快工作进度,提前送电,现变更停电结束时间为2020-01-23 07:36:38","powerOffId":"2020012231020107"},{"poweroffId":2020012231020106,"sgpoweroffId":null,"subsName":"","lineName":"10kV合强192线","pubTranName":"合强1号公变,","scope":"浙江省-杭州市-桐庐县-合村乡-合村行政村-合强自然村","startTime":"2020-01-22 22:26:49","stopDate":"2020-01-22 23:59:49","orgNo":"3340150","typeCode":"电网故障停限电","poweroffArea":"35kV合村变:合强192线-合强1号公变后段","poweroffReason":"高压开关跳闸","powerTime":"2020-01-22 23:53:09","powerComm":"已送电","subsNo":"","lineNo":"","tgNo":"","tgName":null,"infoStatus":"1","orgName":"国网浙江桐庐县供电公司","typeName":null,"infoStatusName":null,"dateDay":null,"orgNos":null,"nowTime":null,"countyName":null,"streetName":null,"villageName":null,"roadName":null,"communityName":null,"tranName":null,"sdLineName":null,"cityCode":"3340150","cityName":"国网浙江桐庐县供电公司","provinceCode":null,"stopTime":"2020-01-22 23:59:49","powerType":"全部","powerOffArea":"35kV合村变:合强192线-合强1号公变后段","powerOffReason":"高压开关跳闸","powerOffId":"2020012231020106"},{"poweroffId":2020012231020091,"sgpoweroffId":null,"subsName":"","lineName":"10kV安镇Y331线","pubTranName":"安仁村杭派民居台区,","scope":"浙江省-杭州市-建德市-乾潭镇-安仁行政村-安仁自然村老国道商业楼一带用户","startTime":"2020-01-22 17:55:00","stopDate":"2020-01-22 19:00:00","orgNo":"3340180","typeCode":"电网故障停限电","poweroffArea":"110kV钦堂变:安镇Y331线-安仁村杭派民居台区后段","poweroffReason":"(低压停电信息)低压开关跳闸 原停电结束时间为2020-01-22 20:00:00,为减少客户停电时间,加快工作进度,提前送电,现变更停电结束时间为2020-01-22 19:00:00","powerTime":"2020-01-22 18:40:00","powerComm":"已送电","subsNo":"","lineNo":"","tgNo":"","tgName":null,"infoStatus":"1","orgName":"国网浙江建德市供电有限公司","typeName":null,"infoStatusName":null,"dateDay":null,"orgNos":null,"nowTime":null,"countyName":null,"streetName":null,"villageName":null,"roadName":null,"communityName":null,"tranName":null,"sdLineName":null,"cityCode":"3340180","cityName":"国网浙江建德市供电有限公司","provinceCode":null,"stopTime":"2020-01-22 19:00:00","powerType":"全部","powerOffArea":"110kV钦堂变:安镇Y331线-安仁村杭派民居台区后段","powerOffReason":"(低压停电信息)低压开关跳闸 原停电结束时间为2020-01-22 20:00:00,为减少客户停电时间,加快工作进度,提前送电,现变更停电结束时间为2020-01-22 19:00:00","powerOffId":"2020012231020091"},{"poweroffId":2020012231020077,"sgpoweroffId":null,"subsName":"","lineName":"10kV云石C954线","pubTranName":"骆家舍3#变,方溪村8#变,青山村4#变,尖山下4#变,青山村1#变,球冠实业(渡假山庄),沈村6#变,电信萧山公司（云石）,青山村13#变,青山村12#变,青山村10#变,尖山下2#变,方溪村10#变,顾家溪2#变,杭州亿达五金有限公司,枫桥村4#变,尖山下3#变,青山村7#变,青山村6#变,尖山下6#变,沈村4#变,枫桥村3#变,杭州鼎绣工艺品有限公司,家家实业,方溪村1#变,浙江九龙厨具集团有限公司,柯佳伞件厂,杭州佳锦织造厂,青山村14#变,浙伟实业,特种建材,骆家舍5#变,沈村1#变,骆家舍4#变,辉煌卫生用品1#,沈村3#变,枫桥村5#变,顾家溪3#变,姜宇热缩,青山村9#变,尖山下1#变,方溪村9#变,枫桥村2#变,杭州萧山云峰涂料厂,青山村5#变,骆家舍6#变,辉煌卫生用品2#,尖山下5#变,青山村2#变,青山村3#变,骆家舍2#变,方溪村7#变,强达塑胶,顾家溪4#变,青山村11#变,方溪村4#变,方溪村6#变,方溪村3#变,顾家溪1#变,枫桥村1#变,顾家溪5#变,方溪村5#变,萧山区戴村镇云石中心小学,方溪村2#变,","scope":"浙江省-杭州市-萧山区-戴村镇-沈村行政村-沈村自然村,戴村镇-顾家溪行政村(平山自然村,勤工自然村),戴村镇-骆家舍行政村(骆村自然村,下骆家舍自然村,船山自然村,上骆家舍自然村),戴村镇-尖山下行政村(尖山下自然村,洪潭桥自然村,长爿田自然村,上门自然村),戴村镇-方溪行政村(增丰自然村,顶山自然村,征山自然村),戴村镇-枫桥行政村(响石桥自然村,枫树自然村),戴村镇-青山行政村(石牛山自然村,明堂自然村,狮山自然村,南坞自然村);戴村镇-尖山下行政村(杭州浙伟实业有限公司,杭州萧山姜字热缩制品厂,杭州辉煌卫生用品有限公司),戴村镇-枫桥行政村(杭州萧山云峰涂料厂,中国电信股份有限公司杭州萧山区分公司),戴村镇-方溪行政村(杭州萧山戴村镇柯佳伞件厂,杭州佳锦织造厂),戴村镇-青山行政村(浙江华东轻钢建材有限公司,杭州强达塑胶五金厂,萧山区戴村镇云石中心小学,杭州鼎绣工艺品有限公司,杭州云石生态休闲旅游开发有限公司,浙江九龙厨具集团有限公司),戴村镇(沈村行政村-杭州家家实业有限公司,顾家溪行政村-杭州亿达五金有限公司)，戴村镇沈村村等一带","startTime":"2020-01-22 14:52:08","stopDate":"2020-01-22 17:15:08","orgNo":"3340130","typeCode":"电网故障停限电","poweroffArea":"110kV永兴变:云石C954线-云石C954线云石II段分线开关后段","poweroffReason":"外力破坏引起高压电杆断杆故障 原停电结束时间为2020-01-22 17:55:08,为减少客户停电时间,加快工作进度,提前送电,现变更停电结束时间为2020-01-22 17:15:08","powerTime":"2020-01-22 16:43:59","powerComm":"已送电","subsNo":"","lineNo":"","tgNo":"","tgName":null,"infoStatus":"1","orgName":"国网浙江杭州市萧山区供电有限公司","typeName":null,"infoStatusName":null,"dateDay":null,"orgNos":null,"nowTime":null,"countyName":null,"streetName":null,"villageName":null,"roadName":null,"communityName":null,"tranName":null,"sdLineName":null,"cityCode":"3340130","cityName":"国网浙江杭州市萧山区供电有限公司","provinceCode":null,"stopTime":"2020-01-22 17:15:08","powerType":"全部","powerOffArea":"110kV永兴变:云石C954线-云石C954线云石II段分线开关后段","powerOffReason":"外力破坏引起高压电杆断杆故障 原停电结束时间为2020-01-22 17:55:08,为减少客户停电时间,加快工作进度,提前送电,现变更停电结束时间为2020-01-22 17:15:08","powerOffId":"2020012231020077"},{"poweroffId":2020012231020072,"sgpoweroffId":null,"subsName":"","lineName":"10kV杨镇Y156线","pubTranName":"杨村桥村后坞畈台区,","scope":"浙江省-杭州市-建德市-杨村桥镇-杨村桥行政村(王谢自然村,大山上自然村,后坞畈自然村)一带用户","startTime":"2020-01-22 14:10:00","stopDate":"2020-01-22 15:30:00","orgNo":"3340180","typeCode":"电网故障停限电","poweroffArea":"110kV沿口变:杨镇Y156线杨村桥村后坞畈台区配变","poweroffReason":"高压开关跳闸","powerTime":"2020-01-22 15:10:35","powerComm":"已送电","subsNo":"","lineNo":"","tgNo":"","tgName":null,"infoStatus":"1","orgName":"国网浙江建德市供电有限公司","typeName":null,"infoStatusName":null,"dateDay":null,"orgNos":null,"nowTime":null,"countyName":null,"streetName":null,"villageName":null,"roadName":null,"communityName":null,"tranName":null,"sdLineName":null,"cityCode":"3340180","cityName":"国网浙江建德市供电有限公司","provinceCode":null,"stopTime":"2020-01-22 15:30:00","powerType":"全部","powerOffArea":"110kV沿口变:杨镇Y156线杨村桥村后坞畈台区配变","powerOffReason":"高压开关跳闸","powerOffId":"2020012231020072"},{"poweroffId":2020012231020070,"sgpoweroffId":null,"subsName":"","lineName":"10kV严州Y303线","pubTranName":"龙溪村草蓬弯台区,","scope":"浙江省-杭州市-建德市-梅城镇-龙溪行政村-草蒲湾自然村一带用户","startTime":"2020-01-22 13:40:00","stopDate":"2020-01-22 14:50:00","orgNo":"3340180","typeCode":"电网故障停限电","poweroffArea":"110kV梅城变:严州Y303线龙溪村草蓬弯台区配变","poweroffReason":"高压开关跳闸 原停电结束时间为2020-01-22 16:00:00,为减少客户停电时间,加快工作进度,提前送电,现变更停电结束时间为2020-01-22 14:50:00","powerTime":"2020-01-22 14:23:00","powerComm":"已送电","subsNo":"","lineNo":"","tgNo":"","tgName":null,"infoStatus":"1","orgName":"国网浙江建德市供电有限公司","typeName":null,"infoStatusName":null,"dateDay":null,"orgNos":null,"nowTime":null,"countyName":null,"streetName":null,"villageName":null,"roadName":null,"communityName":null,"tranName":null,"sdLineName":null,"cityCode":"3340180","cityName":"国网浙江建德市供电有限公司","provinceCode":null,"stopTime":"2020-01-22 14:50:00","powerType":"全部","powerOffArea":"110kV梅城变:严州Y303线龙溪村草蓬弯台区配变","powerOffReason":"高压开关跳闸 原停电结束时间为2020-01-22 16:00:00,为减少客户停电时间,加快工作进度,提前送电,现变更停电结束时间为2020-01-22 14:50:00","powerOffId":"2020012231020070"},{"poweroffId":2020012231020067,"sgpoweroffId":null,"subsName":"","lineName":"10kV严州Y303线","pubTranName":"龙溪村后溪台区,","scope":"浙江省-杭州市-建德市-梅城镇-龙溪行政村(后溪自然村,庵口自然村)一带用户","startTime":"2020-01-22 13:00:00","stopDate":"2020-01-22 14:30:00","orgNo":"3340180","typeCode":"电网故障停限电","poweroffArea":"110kV梅城变:严州Y303线龙溪村后溪台区配变","poweroffReason":"高压开关跳闸 原停电结束时间为2020-01-22 15:30:00,为减少客户停电时间,加快工作进度,提前送电,现变更停电结束时间为2020-01-22 14:30:00","powerTime":"2020-01-22 14:00:00","powerComm":"已送电","subsNo":"","lineNo":"","tgNo":"","tgName":null,"infoStatus":"1","orgName":"国网浙江建德市供电有限公司","typeName":null,"infoStatusName":null,"dateDay":null,"orgNos":null,"nowTime":null,"countyName":null,"streetName":null,"villageName":null,"roadName":null,"communityName":null,"tranName":null,"sdLineName":null,"cityCode":"3340180","cityName":"国网浙江建德市供电有限公司","provinceCode":null,"stopTime":"2020-01-22 14:30:00","powerType":"全部","powerOffArea":"110kV梅城变:严州Y303线龙溪村后溪台区配变","powerOffReason":"高压开关跳闸 原停电结束时间为2020-01-22 15:30:00,为减少客户停电时间,加快工作进度,提前送电,现变更停电结束时间为2020-01-22 14:30:00","powerOffId":"2020012231020067"}],"pageModel":{"pageNow":565,"totalCount":17789,"totalPage":1779,"tableRows":0,"pageCount":10,"beginCount":5640},"isExperi":"1"}