{"message":"","today":"2020-06-15","seleList":[{"poweroffId":2020060231020120,"sgpoweroffId":null,"subsName":"","lineName":"10kV洪庄D292线","pubTranName":"洪庄村11#岔口公变,","scope":"浙江省-杭州市-富阳区-银湖街道-洪庄行政村(武林自然村,岔口自然村,洪庄自然村)","startTime":"2020-06-02 09:57:08","stopDate":"2020-06-02 10:57:08","orgNo":"3340170","typeCode":"电网故障停限电","poweroffArea":"35kV新义变:洪庄D292线-洪庄村11#岔口公变后段","poweroffReason":"(低压停电信息)低压开关跳闸","powerTime":"2020-06-02 10:23:50","powerComm":"已送电","subsNo":"","lineNo":"","tgNo":"","tgName":null,"infoStatus":"1","orgName":"国网浙江杭州市富阳区供电公司","typeName":null,"infoStatusName":null,"dateDay":null,"orgNos":null,"nowTime":null,"countyName":null,"streetName":null,"villageName":null,"roadName":null,"communityName":null,"tranName":null,"sdLineName":null,"cityCode":"3340170","cityName":"国网浙江杭州市富阳区供电公司","provinceCode":null,"stopTime":"2020-06-02 10:57:08","powerType":"全部","powerOffArea":"35kV新义变:洪庄D292线-洪庄村11#岔口公变后段","powerOffReason":"(低压停电信息)低压开关跳闸","powerOffId":"2020060231020120"},{"poweroffId":2020060231020119,"sgpoweroffId":null,"subsName":"","lineName":"10kV东塘Y187线","pubTranName":"山峰村平头山台区,","scope":"浙江省-杭州市-建德市-寿昌镇-山峰行政村(山峰自然村,刘家自然村)","startTime":"2020-06-02 09:45:00","stopDate":"2020-06-02 13:00:00","orgNo":"3340180","typeCode":"电网故障停限电","poweroffArea":"35kV河南里变:东塘Y187线山峰村平头山台区配变","poweroffReason":"高压开关跳闸 原停电结束时间为2020-06-02 12:00:00,因现场环境复杂，施工时间不足原因,延迟送电,现变更停电结束时间为2020-06-02 13:00:00","powerTime":"2020-06-02 12:07:08","powerComm":"已送电","subsNo":"","lineNo":"","tgNo":"","tgName":null,"infoStatus":"1","orgName":"国网浙江建德市供电有限公司","typeName":null,"infoStatusName":null,"dateDay":null,"orgNos":null,"nowTime":null,"countyName":null,"streetName":null,"villageName":null,"roadName":null,"communityName":null,"tranName":null,"sdLineName":null,"cityCode":"3340180","cityName":"国网浙江建德市供电有限公司","provinceCode":null,"stopTime":"2020-06-02 13:00:00","powerType":"全部","powerOffArea":"35kV河南里变:东塘Y187线山峰村平头山台区配变","powerOffReason":"高压开关跳闸 原停电结束时间为2020-06-02 12:00:00,因现场环境复杂，施工时间不足原因,延迟送电,现变更停电结束时间为2020-06-02 13:00:00","powerOffId":"2020060231020119"},{"poweroffId":2020060231020118,"sgpoweroffId":null,"subsName":"","lineName":"10kV丝化C377线","pubTranName":"红山农场五分场2#公变,","scope":"浙江省-杭州市-萧山区-新街镇-新街街道-红山农场-同德社区(五分场,北锋路)等一带","startTime":"2020-06-02 09:40:00","stopDate":"2020-06-02 13:45:00","orgNo":"3340130","typeCode":"电网故障停限电","poweroffArea":"110kV红山变:丝化C377线红山农场五分场2#公变配变","poweroffReason":"（低压停电信息）低压漏电保护器短路故障 原停电结束时间为2020-06-02 12:40:00,因施工难度大原因,延迟送电,现变更停电结束时间为2020-06-02 13:45:00","powerTime":"2020-06-02 13:21:22","powerComm":"已送电","subsNo":"","lineNo":"","tgNo":"","tgName":null,"infoStatus":"1","orgName":"国网浙江杭州市萧山区供电有限公司","typeName":null,"infoStatusName":null,"dateDay":null,"orgNos":null,"nowTime":null,"countyName":null,"streetName":null,"villageName":null,"roadName":null,"communityName":null,"tranName":null,"sdLineName":null,"cityCode":"3340130","cityName":"国网浙江杭州市萧山区供电有限公司","provinceCode":null,"stopTime":"2020-06-02 13:45:00","powerType":"全部","powerOffArea":"110kV红山变:丝化C377线红山农场五分场2#公变配变","powerOffReason":"（低压停电信息）低压漏电保护器短路故障 原停电结束时间为2020-06-02 12:40:00,因施工难度大原因,延迟送电,现变更停电结束时间为2020-06-02 13:45:00","powerOffId":"2020060231020118"},{"poweroffId":2020060231020113,"sgpoweroffId":null,"subsName":"","lineName":"10kV断桥H760线","pubTranName":"五常管委会,白庙村胡家棍南公变,西溪国家湿地公园三期,老粮站公变,顾家桥村五常街道东变,五常电管站,顾家桥村斗门畈2#公变,白庙桥头东公变,","scope":"浙江省-杭州市-余杭区-五常街道(五常社区-五常大道,顾家桥行政村-顾家桥自然村,白庙行政村-白庙自然村);五常街道(杭州市余杭区人民政府五常街道办事处,杭州西溪国家湿地公园三期工程有限公司)","startTime":"2020-06-02 09:37:00","stopDate":"2020-06-02 11:00:00","orgNo":"3340140","typeCode":"电网故障停限电","poweroffArea":"110kV五常变:断桥H760线阮家开关站新桥头分线后段","poweroffReason":"高压开关跳闸 原停电结束时间为2020-06-02 11:37:00,为减少客户停电时间,加快工作进度,提前送电,现变更停电结束时间为2020-06-02 11:00:00","powerTime":"2020-06-02 10:10:04","powerComm":"已送电","subsNo":"","lineNo":"","tgNo":"","tgName":null,"infoStatus":"1","orgName":"国网浙江杭州市余杭区供电有限公司","typeName":null,"infoStatusName":null,"dateDay":null,"orgNos":null,"nowTime":null,"countyName":null,"streetName":null,"villageName":null,"roadName":null,"communityName":null,"tranName":null,"sdLineName":null,"cityCode":"3340140","cityName":"国网浙江杭州市余杭区供电有限公司","provinceCode":null,"stopTime":"2020-06-02 11:00:00","powerType":"全部","powerOffArea":"110kV五常变:断桥H760线阮家开关站新桥头分线后段","powerOffReason":"高压开关跳闸 原停电结束时间为2020-06-02 11:37:00,为减少客户停电时间,加快工作进度,提前送电,现变更停电结束时间为2020-06-02 11:00:00","powerOffId":"2020060231020113"},{"poweroffId":2020060231020104,"sgpoweroffId":null,"subsName":"","lineName":"10kV东环V537线","pubTranName":"浙江万马药业有限公司,浙江万马药业有限公司,大叉车车间B2变,浙江天煌数码科技产业有限公司1#,浙江庭杉实业有限公司,浙江天煌数码科技产业有限公司1#,杭州朗成自动化工程有限公司,浙江万马药业有限公司,杭叉集团股份有限公司,中天建设集团浙江钢构有限公司,中天建设集团浙江钢构有限公司,杭州重型机械有限公司,浙江庭杉实业有限公司,腾达建设集团股份有限公司1#,杭州重型机械有限公司,中天建设集团浙江钢构有限公司,杭州重型机械有限公司,杭叉集团股份有限公司,","scope":"浙江省-杭州市-临安市-青山湖街道-洞霄宫行政村(腾达建设集团股份有限公司,浙江万晟药业有限公司,浙江中天恒筑钢构有限公司,浙江天煌数码科技产业有限公司),青山湖街道-坎头行政村(杭叉集团股份有限公司,浙江庭杉实业有限公司),青山湖街道(蒋杨行政村-浙江天煌数码科技产业有限公司,杭州朗成自动化工程有限公司)","startTime":"2020-06-02 10:00:00","stopDate":"2020-06-02 13:30:02","orgNo":"3340160","typeCode":"电网故障停限电","poweroffArea":"110kV石泉变:东环V537线-东环V537线开关后段","poweroffReason":"高压开关跳闸 原停电结束时间为2020-06-02 14:30:02,为减少客户停电时间,加快工作进度,提前送电,现变更停电结束时间为2020-06-02 13:30:02","powerTime":"2020-06-02 12:55:43","powerComm":"已送电","subsNo":"","lineNo":"","tgNo":"","tgName":null,"infoStatus":"1","orgName":"国网浙江临安市供电公司","typeName":null,"infoStatusName":null,"dateDay":null,"orgNos":null,"nowTime":null,"countyName":null,"streetName":null,"villageName":null,"roadName":null,"communityName":null,"tranName":null,"sdLineName":null,"cityCode":"3340160","cityName":"国网浙江临安市供电公司","provinceCode":null,"stopTime":"2020-06-02 13:30:02","powerType":"全部","powerOffArea":"110kV石泉变:东环V537线-东环V537线开关后段","powerOffReason":"高压开关跳闸 原停电结束时间为2020-06-02 14:30:02,为减少客户停电时间,加快工作进度,提前送电,现变更停电结束时间为2020-06-02 13:30:02","powerOffId":"2020060231020104"},{"poweroffId":2020060231020097,"sgpoweroffId":null,"subsName":"","lineName":"10kV相坞V536线","pubTranName":"相坞变,石壁山,临安市供电局路灯管理所,杭州捷瑞空气处理设备有限公司2,临安市供电局路灯管理所,相坞小区,坎头老年公寓,浙江开盛电汽有限公司,坎头村轧石变,","scope":"浙江省-杭州市-临安市-青山湖街道(坎头行政村-坎头自然村,洞霄宫行政村-石泉自然村);浙江省-杭州市-临安市-青山湖街道-青山行政村-临安市路灯管理所,青山湖街道-坎头行政村(临安市路灯管理所,杭州捷瑞空气处理设备有限公司,杭州市临安区青山湖街道坎头村股份经济合作社)","startTime":"2020-06-02 09:07:05","stopDate":"2020-06-02 11:07:05","orgNo":"3340160","typeCode":"电网故障停限电","poweroffArea":"110kV石泉变:相坞V536线-5361开关后段","poweroffReason":"高压开关跳闸","powerTime":"2020-06-02 11:00:13","powerComm":"已送电","subsNo":"","lineNo":"","tgNo":"","tgName":null,"infoStatus":"1","orgName":"国网浙江临安市供电公司","typeName":null,"infoStatusName":null,"dateDay":null,"orgNos":null,"nowTime":null,"countyName":null,"streetName":null,"villageName":null,"roadName":null,"communityName":null,"tranName":null,"sdLineName":null,"cityCode":"3340160","cityName":"国网浙江临安市供电公司","provinceCode":null,"stopTime":"2020-06-02 11:07:05","powerType":"全部","powerOffArea":"110kV石泉变:相坞V536线-5361开关后段","powerOffReason":"高压开关跳闸","powerOffId":"2020060231020097"},{"poweroffId":2020060231020094,"sgpoweroffId":null,"subsName":"","lineName":"10kV时代8358线","pubTranName":"温村(六),","scope":"浙江省-杭州市-西湖区-三墩镇-水月社区-温州村49幢1、2、3、4、5、6单元一带","startTime":"2020-06-09 09:00:00","stopDate":"2020-06-09 12:00:00","orgNo":"3340101","typeCode":"临时停电","poweroffArea":"110kV祥符变:时代8358线-温村(六)后段","poweroffReason":"(低压停电信息)温州村49幢6单元119表计增容","powerTime":"2020-06-09 11:05:23","powerComm":"已送电","subsNo":"","lineNo":"","tgNo":"","tgName":null,"infoStatus":"1","orgName":"浙江杭州电力客户服务中心","typeName":null,"infoStatusName":null,"dateDay":null,"orgNos":null,"nowTime":null,"countyName":null,"streetName":null,"villageName":null,"roadName":null,"communityName":null,"tranName":null,"sdLineName":null,"cityCode":"3340101","cityName":"浙江杭州电力客户服务中心","provinceCode":null,"stopTime":"2020-06-09 12:00:00","powerType":"全部","powerOffArea":"110kV祥符变:时代8358线-温村(六)后段","powerOffReason":"(低压停电信息)温州村49幢6单元119表计增容","powerOffId":"2020060231020094"},{"poweroffId":2020060231020086,"sgpoweroffId":null,"subsName":"","lineName":"10kV三溪D337线","pubTranName":"大溪村1#青台上公变,","scope":"浙江省-杭州市-富阳区-洞桥镇-大溪行政村(毛山上自然村,俞家山自然村,何家自然村,堰头自然村)","startTime":"2020-06-02 08:59:28","stopDate":"2020-06-02 09:59:28","orgNo":"3340170","typeCode":"电网故障停限电","poweroffArea":"110kV万市变:三溪D337线-大溪村1#青台上公变后段","poweroffReason":"(低压停电信息)低压开关跳闸","powerTime":"2020-06-02 09:36:01","powerComm":"已送电","subsNo":"","lineNo":"","tgNo":"","tgName":null,"infoStatus":"1","orgName":"国网浙江杭州市富阳区供电公司","typeName":null,"infoStatusName":null,"dateDay":null,"orgNos":null,"nowTime":null,"countyName":null,"streetName":null,"villageName":null,"roadName":null,"communityName":null,"tranName":null,"sdLineName":null,"cityCode":"3340170","cityName":"国网浙江杭州市富阳区供电公司","provinceCode":null,"stopTime":"2020-06-02 09:59:28","powerType":"全部","powerOffArea":"110kV万市变:三溪D337线-大溪村1#青台上公变后段","powerOffReason":"(低压停电信息)低压开关跳闸","powerOffId":"2020060231020086"},{"poweroffId":2020060231020077,"sgpoweroffId":null,"subsName":"","lineName":"10kV至南T162线","pubTranName":"和平塘下5号公变,","scope":"浙江省-杭州市-桐庐县-瑶琳镇-皇甫行政村-和平自然村","startTime":"2020-06-11 07:30:00","stopDate":"2020-06-11 11:30:00","orgNo":"3340150","typeCode":"计划停电","poweroffArea":"35kV瑶琳变:至南T162线-塘下F6016令克后段","poweroffReason":"临金高速瑶琳皇甫村线路迁改工程","powerTime":"2020-06-11 11:10:50","powerComm":"已送电","subsNo":"","lineNo":"","tgNo":"","tgName":null,"infoStatus":"1","orgName":"国网浙江桐庐县供电公司","typeName":null,"infoStatusName":null,"dateDay":null,"orgNos":null,"nowTime":null,"countyName":null,"streetName":null,"villageName":null,"roadName":null,"communityName":null,"tranName":null,"sdLineName":null,"cityCode":"3340150","cityName":"国网浙江桐庐县供电公司","provinceCode":null,"stopTime":"2020-06-11 11:30:00","powerType":"全部","powerOffArea":"35kV瑶琳变:至南T162线-塘下F6016令克后段","powerOffReason":"临金高速瑶琳皇甫村线路迁改工程","powerOffId":"2020060231020077"},{"poweroffId":2020060231020076,"sgpoweroffId":null,"subsName":"","lineName":"10kV家东T565线","pubTranName":"石桥村2号公变,","scope":"浙江省-杭州市-桐庐县-凤川街道-翙岗行政村(凤岗自然村,石桥自然村)","startTime":"2020-06-02 08:51:41","stopDate":"2020-06-02 10:16:41","orgNo":"3340150","typeCode":"电网故障停限电","poweroffArea":"110kV旺家变:家东T565线-石桥村2号公变后段","poweroffReason":"(低压停电信息)低压开关跳闸","powerTime":"2020-06-02 10:11:21","powerComm":"已送电","subsNo":"","lineNo":"","tgNo":"","tgName":null,"infoStatus":"1","orgName":"国网浙江桐庐县供电公司","typeName":null,"infoStatusName":null,"dateDay":null,"orgNos":null,"nowTime":null,"countyName":null,"streetName":null,"villageName":null,"roadName":null,"communityName":null,"tranName":null,"sdLineName":null,"cityCode":"3340150","cityName":"国网浙江桐庐县供电公司","provinceCode":null,"stopTime":"2020-06-02 10:16:41","powerType":"全部","powerOffArea":"110kV旺家变:家东T565线-石桥村2号公变后段","powerOffReason":"(低压停电信息)低压开关跳闸","powerOffId":"2020060231020076"}],"pageModel":{"pageNow":56,"totalCount":17786,"totalPage":1779,"tableRows":0,"pageCount":10,"beginCount":550},"isExperi":"1"}