{"message":"","today":"2020-06-15","seleList":[{"poweroffId":2020012031020118,"sgpoweroffId":null,"subsName":"","lineName":"10kV航坞C473线","pubTranName":"瓜沥镇机场安置区19#变,","scope":"浙江省-杭州市-萧山区-瓜沥镇-城中社区(东灵北路,塘北中路北巷,塘北中路南巷)、瓜沥镇城中社区7组16号、瓜沥镇城中社区永福自然村1组3号、瓜沥镇城中社区永福村一带","startTime":"2020-01-20 20:10:24","stopDate":"2020-01-20 21:45:24","orgNo":"3340130","typeCode":"电网故障停限电","poweroffArea":"35kV塘头变:航坞C473线-瓜沥镇机场安置区19#变台区低压开关","poweroffReason":"(低压停电信息)低压漏电保护器短路故障 原停电结束时间为2020-01-20 22:45:24,为减少客户停电时间,加快工作进度,提前送电,现变更停电结束时间为2020-01-20 21:45:24","powerTime":"2020-01-20 21:23:27","powerComm":"已送电","subsNo":"","lineNo":"","tgNo":"","tgName":null,"infoStatus":"1","orgName":"国网浙江杭州市萧山区供电有限公司","typeName":null,"infoStatusName":null,"dateDay":null,"orgNos":null,"nowTime":null,"countyName":null,"streetName":null,"villageName":null,"roadName":null,"communityName":null,"tranName":null,"sdLineName":null,"cityCode":"3340130","cityName":"国网浙江杭州市萧山区供电有限公司","provinceCode":null,"stopTime":"2020-01-20 21:45:24","powerType":"全部","powerOffArea":"35kV塘头变:航坞C473线-瓜沥镇机场安置区19#变台区低压开关","powerOffReason":"(低压停电信息)低压漏电保护器短路故障 原停电结束时间为2020-01-20 22:45:24,为减少客户停电时间,加快工作进度,提前送电,现变更停电结束时间为2020-01-20 21:45:24","powerOffId":"2020012031020118"},{"poweroffId":2020012031020116,"sgpoweroffId":null,"subsName":"","lineName":"10kV爱迪C932线","pubTranName":"八里桥村1#变,","scope":"浙江省-杭州市-萧山区-瓜沥镇-八里桥行政村(北塘东路,村中直路,八里桥自然村,新农村自然村)、八里桥村一带","startTime":"2020-01-20 19:30:15","stopDate":"2020-01-20 21:20:15","orgNo":"3340130","typeCode":"电网故障停限电","poweroffArea":"110kV党山变:爱迪C932线-八里桥村1#变台区低压开关","poweroffReason":"(低压停电信息)低压开关跳闸 原停电结束时间为2020-01-20 23:50:15,为减少客户停电时间,加快工作进度,提前送电,现变更停电结束时间为2020-01-20 21:20:15","powerTime":"2020-01-20 20:26:03","powerComm":"已送电","subsNo":"","lineNo":"","tgNo":"","tgName":null,"infoStatus":"1","orgName":"国网浙江杭州市萧山区供电有限公司","typeName":null,"infoStatusName":null,"dateDay":null,"orgNos":null,"nowTime":null,"countyName":null,"streetName":null,"villageName":null,"roadName":null,"communityName":null,"tranName":null,"sdLineName":null,"cityCode":"3340130","cityName":"国网浙江杭州市萧山区供电有限公司","provinceCode":null,"stopTime":"2020-01-20 21:20:15","powerType":"全部","powerOffArea":"110kV党山变:爱迪C932线-八里桥村1#变台区低压开关","powerOffReason":"(低压停电信息)低压开关跳闸 原停电结束时间为2020-01-20 23:50:15,为减少客户停电时间,加快工作进度,提前送电,现变更停电结束时间为2020-01-20 21:20:15","powerOffId":"2020012031020116"},{"poweroffId":2020012031020115,"sgpoweroffId":null,"subsName":"","lineName":"10kV浦水C174线","pubTranName":"华东钢构1#,丁家庄3#变,浦水水泥厂1#,杭州浦阳江水泥有限公司,杭州浦阳江水泥有限公司,浦水水泥厂2#,华东钢构2#,","scope":"浙江省-杭州市-萧山区-义桥镇-丁家庄行政村(丁家庄自然村,戴家里自然村);浙江省-杭州市-萧山区-义桥镇-徐童山下行政村-杭州浦阳江水泥有限公司,义桥镇-丁家庄行政村(杭州浦阳江水泥有限公司,杭州萧山交投资产经营开发有限公司)等一带","startTime":"2020-01-20 19:15:56","stopDate":"2020-01-20 21:38:56","orgNo":"3340130","typeCode":"电网故障停限电","poweroffArea":"110kV许贤变:浦水C174线-浦水C174线开关后段","poweroffReason":"高压柱上断路器短路故障","powerTime":"2020-01-20 20:46:49","powerComm":"已送电","subsNo":"","lineNo":"","tgNo":"","tgName":null,"infoStatus":"1","orgName":"国网浙江杭州市萧山区供电有限公司","typeName":null,"infoStatusName":null,"dateDay":null,"orgNos":null,"nowTime":null,"countyName":null,"streetName":null,"villageName":null,"roadName":null,"communityName":null,"tranName":null,"sdLineName":null,"cityCode":"3340130","cityName":"国网浙江杭州市萧山区供电有限公司","provinceCode":null,"stopTime":"2020-01-20 21:38:56","powerType":"全部","powerOffArea":"110kV许贤变:浦水C174线-浦水C174线开关后段","powerOffReason":"高压柱上断路器短路故障","powerOffId":"2020012031020115"},{"poweroffId":2020012031020109,"sgpoweroffId":null,"subsName":"","lineName":"10kV梅灵6307线","pubTranName":"西湖花苑南二变,西湖花苑南一变,","scope":"浙江省-杭州市-西湖区-转塘街道-五云梦湖社区-五云中路","startTime":"2020-01-20 17:45:25","stopDate":"2020-01-20 21:00:00","orgNo":"3340101","typeCode":"电网故障停限电","poweroffArea":"110kV转塘变:梅灵6307线-西湖花苑南二变后段","poweroffReason":"高压开关跳闸 原停电结束时间为2020-01-20 19:45:25,为减少客户停电时间,加快工作进度,提前送电,现变更停电结束时间为2020-01-20 21:00:00","powerTime":"2020-01-20 20:14:55","powerComm":"已送电","subsNo":"","lineNo":"","tgNo":"","tgName":null,"infoStatus":"1","orgName":"浙江杭州电力客户服务中心","typeName":null,"infoStatusName":null,"dateDay":null,"orgNos":null,"nowTime":null,"countyName":null,"streetName":null,"villageName":null,"roadName":null,"communityName":null,"tranName":null,"sdLineName":null,"cityCode":"3340101","cityName":"浙江杭州电力客户服务中心","provinceCode":null,"stopTime":"2020-01-20 21:00:00","powerType":"全部","powerOffArea":"110kV转塘变:梅灵6307线-西湖花苑南二变后段","powerOffReason":"高压开关跳闸 原停电结束时间为2020-01-20 19:45:25,为减少客户停电时间,加快工作进度,提前送电,现变更停电结束时间为2020-01-20 21:00:00","powerOffId":"2020012031020109"},{"poweroffId":2020012031020106,"sgpoweroffId":null,"subsName":"","lineName":"10kV墩学9953线","pubTranName":"求里二变,","scope":"浙江省-杭州市-西湖区-三墩镇(颐兰社区-厚仁路,自在城东苑社区-金蓬街)","startTime":"2020-01-20 16:48:00","stopDate":"2020-01-20 18:48:00","orgNo":"3340101","typeCode":"电网故障停限电","poweroffArea":"110kV墩北变:墩学9953线求里二变配变","poweroffReason":"高压开关跳闸","powerTime":"2020-01-20 18:00:50","powerComm":"已送电","subsNo":"","lineNo":"","tgNo":"","tgName":null,"infoStatus":"1","orgName":"浙江杭州电力客户服务中心","typeName":null,"infoStatusName":null,"dateDay":null,"orgNos":null,"nowTime":null,"countyName":null,"streetName":null,"villageName":null,"roadName":null,"communityName":null,"tranName":null,"sdLineName":null,"cityCode":"3340101","cityName":"浙江杭州电力客户服务中心","provinceCode":null,"stopTime":"2020-01-20 18:48:00","powerType":"全部","powerOffArea":"110kV墩北变:墩学9953线求里二变配变","powerOffReason":"高压开关跳闸","powerOffId":"2020012031020106"},{"poweroffId":2020012031020105,"sgpoweroffId":null,"subsName":"","lineName":"10kV西霞9965线","pubTranName":"求里六变,求里四变,","scope":"浙江省-杭州市-西湖区-三墩镇(自在城东苑社区-金蓬街,颐兰社区-厚仁路)","startTime":"2020-01-20 16:48:00","stopDate":"2020-01-20 18:48:00","orgNo":"3340101","typeCode":"电网故障停限电","poweroffArea":"110kV墩北变:西霞9965线求里六站求里四线后段","poweroffReason":"高压开关跳闸","powerTime":"2020-01-20 18:00:24","powerComm":"已送电","subsNo":"","lineNo":"","tgNo":"","tgName":null,"infoStatus":"1","orgName":"浙江杭州电力客户服务中心","typeName":null,"infoStatusName":null,"dateDay":null,"orgNos":null,"nowTime":null,"countyName":null,"streetName":null,"villageName":null,"roadName":null,"communityName":null,"tranName":null,"sdLineName":null,"cityCode":"3340101","cityName":"浙江杭州电力客户服务中心","provinceCode":null,"stopTime":"2020-01-20 18:48:00","powerType":"全部","powerOffArea":"110kV墩北变:西霞9965线求里六站求里四线后段","powerOffReason":"高压开关跳闸","powerOffId":"2020012031020105"},{"poweroffId":2020012031020095,"sgpoweroffId":null,"subsName":"","lineName":"10kV新隆6610线","pubTranName":"美浦施,赵家二,小学边,下新浦二,下新浦,拉丝厂,龙潭,新浦赵,村变,赵家三,龙潭二,赵家四,","scope":"浙江省-杭州市-西湖区-转塘街道-,双浦镇-新浦沿行政村(新浦沿村道,新浦沿),双浦镇(袁家浦社区-袁浦街,麦岭沙社区-麦岭沙村道);(-浙江瑞诺泰富科技有限公司,西湖区-双浦镇-浙江大同建设工程有限公司)","startTime":"2020-01-20 15:42:00","stopDate":"2020-01-20 19:42:00","orgNo":"3340101","typeCode":"电网故障停限电","poweroffArea":"110kV周浦变:新隆6610线10千伏周富595线赵家分线开关后段","poweroffReason":"高压开关跳闸 原停电结束时间为2020-01-20 17:42:00,因施工现场环境比较复杂，存在不确定因素原因,现变更停电结束时间为2020-01-20 19:42:00","powerTime":"2020-01-20 18:43:11","powerComm":"已送电","subsNo":"","lineNo":"","tgNo":"","tgName":null,"infoStatus":"1","orgName":"浙江杭州电力客户服务中心","typeName":null,"infoStatusName":null,"dateDay":null,"orgNos":null,"nowTime":null,"countyName":null,"streetName":null,"villageName":null,"roadName":null,"communityName":null,"tranName":null,"sdLineName":null,"cityCode":"3340101","cityName":"浙江杭州电力客户服务中心","provinceCode":null,"stopTime":"2020-01-20 19:42:00","powerType":"全部","powerOffArea":"110kV周浦变:新隆6610线10千伏周富595线赵家分线开关后段","powerOffReason":"高压开关跳闸 原停电结束时间为2020-01-20 17:42:00,因施工现场环境比较复杂，存在不确定因素原因,现变更停电结束时间为2020-01-20 19:42:00","powerOffId":"2020012031020095"},{"poweroffId":2020012031020080,"sgpoweroffId":null,"subsName":"","lineName":"10kV西关T177线","pubTranName":"城中公寓1号公变,","scope":"浙江省-杭州市-桐庐县-分水镇-玉华社区(九龙路,东门路)","startTime":"2020-01-20 13:29:00","stopDate":"2020-01-20 15:29:00","orgNo":"3340150","typeCode":"电网故障停限电","poweroffArea":"110kV分水变:西关T177线城中公寓1号公变配变","poweroffReason":"(低压停电信息)低压开关跳闸","powerTime":"2020-01-20 15:00:21","powerComm":"已送电","subsNo":"","lineNo":"","tgNo":"","tgName":null,"infoStatus":"1","orgName":"国网浙江桐庐县供电公司","typeName":null,"infoStatusName":null,"dateDay":null,"orgNos":null,"nowTime":null,"countyName":null,"streetName":null,"villageName":null,"roadName":null,"communityName":null,"tranName":null,"sdLineName":null,"cityCode":"3340150","cityName":"国网浙江桐庐县供电公司","provinceCode":null,"stopTime":"2020-01-20 15:29:00","powerType":"全部","powerOffArea":"110kV分水变:西关T177线城中公寓1号公变配变","powerOffReason":"(低压停电信息)低压开关跳闸","powerOffId":"2020012031020080"},{"poweroffId":2020012031020077,"sgpoweroffId":null,"subsName":"","lineName":"10kV三鑫G063线","pubTranName":"杭州中油石油天然气销售有限公司,","scope":"浙江省-杭州市-余杭区-乔司街道-乔司行政村-杭州中油石油天然气销售有限公司","startTime":"2020-01-20 13:21:09","stopDate":"2020-01-20 17:10:09","orgNo":"3340140","typeCode":"电网故障停限电","poweroffArea":"110kV外乔变:三鑫G063线-三鑫G063线加油站分线开关后段","poweroffReason":"高压开关跳闸","powerTime":"2020-01-20 16:42:10","powerComm":"已送电","subsNo":"","lineNo":"","tgNo":"","tgName":null,"infoStatus":"1","orgName":"国网浙江杭州市余杭区供电有限公司","typeName":null,"infoStatusName":null,"dateDay":null,"orgNos":null,"nowTime":null,"countyName":null,"streetName":null,"villageName":null,"roadName":null,"communityName":null,"tranName":null,"sdLineName":null,"cityCode":"3340140","cityName":"国网浙江杭州市余杭区供电有限公司","provinceCode":null,"stopTime":"2020-01-20 17:10:09","powerType":"全部","powerOffArea":"110kV外乔变:三鑫G063线-三鑫G063线加油站分线开关后段","powerOffReason":"高压开关跳闸","powerOffId":"2020012031020077"},{"poweroffId":2020012031020075,"sgpoweroffId":null,"subsName":"","lineName":"10kV上练D713线","pubTranName":"查岭村1#大岭公变,","scope":"浙江省-杭州市-富阳区-胥口镇-查岭行政村(大岭自然村,碟子山自然村)","startTime":"2020-01-20 13:11:49","stopDate":"2020-01-20 15:34:49","orgNo":"3340170","typeCode":"电网故障停限电","poweroffArea":"110kV松溪变:上练D713线-查岭村1#大岭公变后段","poweroffReason":"高压开关跳闸","powerTime":"2020-01-20 14:40:04","powerComm":"已送电","subsNo":"","lineNo":"","tgNo":"","tgName":null,"infoStatus":"1","orgName":"国网浙江杭州市富阳区供电公司","typeName":null,"infoStatusName":null,"dateDay":null,"orgNos":null,"nowTime":null,"countyName":null,"streetName":null,"villageName":null,"roadName":null,"communityName":null,"tranName":null,"sdLineName":null,"cityCode":"3340170","cityName":"国网浙江杭州市富阳区供电公司","provinceCode":null,"stopTime":"2020-01-20 15:34:49","powerType":"全部","powerOffArea":"110kV松溪变:上练D713线-查岭村1#大岭公变后段","powerOffReason":"高压开关跳闸","powerOffId":"2020012031020075"}],"pageModel":{"pageNow":569,"totalCount":17789,"totalPage":1779,"tableRows":0,"pageCount":10,"beginCount":5680},"isExperi":"1"}