{"message":"","today":"2020-06-15","seleList":[{"poweroffId":2020011931020146,"sgpoweroffId":null,"subsName":"","lineName":"10kV罗山T377线","pubTranName":"大松源1号公变,","scope":"浙江省-杭州市-桐庐县-百江镇-松村行政村-大松源自然村","startTime":"2020-01-19 19:40:00","stopDate":"2020-01-19 23:59:00","orgNo":"3340150","typeCode":"电网故障停限电","poweroffArea":"110kV百江变:罗山T377线大松源1号公变配变","poweroffReason":"(低压停电信息)低压开关跳闸: 原停电结束时间为2020-01-19 21:40:00,因材料准备原因,现变更停电结束时间为2020-01-19 23:59：00","powerTime":"2020-01-19 23:36:22","powerComm":"已送电","subsNo":"","lineNo":"","tgNo":"","tgName":null,"infoStatus":"1","orgName":"国网浙江桐庐县供电公司","typeName":null,"infoStatusName":null,"dateDay":null,"orgNos":null,"nowTime":null,"countyName":null,"streetName":null,"villageName":null,"roadName":null,"communityName":null,"tranName":null,"sdLineName":null,"cityCode":"3340150","cityName":"国网浙江桐庐县供电公司","provinceCode":null,"stopTime":"2020-01-19 23:59:00","powerType":"全部","powerOffArea":"110kV百江变:罗山T377线大松源1号公变配变","powerOffReason":"(低压停电信息)低压开关跳闸: 原停电结束时间为2020-01-19 21:40:00,因材料准备原因,现变更停电结束时间为2020-01-19 23:59：00","powerOffId":"2020011931020146"},{"poweroffId":2020011931020145,"sgpoweroffId":null,"subsName":"","lineName":"10kV科蝶8263线","pubTranName":"万溪(九),","scope":"浙江省-杭州市-西湖区-蒋村街道-蝶园社区-紫霞街,西溪蝶园","startTime":"2020-01-19 19:14:32","stopDate":"2020-01-20 01:14:32","orgNo":"3340101","typeCode":"电网故障停限电","poweroffArea":"110kV申花变:科蝶8263线-万溪九配变后段","poweroffReason":"高压开关跳闸 原停电结束时间为2020-01-19 23:14:32,因由于施工现场环境比较复杂原因,现变更停电结束时间为2020-01-20 01:14:32","powerTime":"2020-01-20 00:41:53","powerComm":"已送电","subsNo":"","lineNo":"","tgNo":"","tgName":null,"infoStatus":"1","orgName":"浙江杭州电力客户服务中心","typeName":null,"infoStatusName":null,"dateDay":null,"orgNos":null,"nowTime":null,"countyName":null,"streetName":null,"villageName":null,"roadName":null,"communityName":null,"tranName":null,"sdLineName":null,"cityCode":"3340101","cityName":"浙江杭州电力客户服务中心","provinceCode":null,"stopTime":"2020-01-20 01:14:32","powerType":"全部","powerOffArea":"110kV申花变:科蝶8263线-万溪九配变后段","powerOffReason":"高压开关跳闸 原停电结束时间为2020-01-19 23:14:32,因由于施工现场环境比较复杂原因,现变更停电结束时间为2020-01-20 01:14:32","powerOffId":"2020011931020145"},{"poweroffId":2020011931020143,"sgpoweroffId":null,"subsName":"","lineName":"10kV劳动C637线","pubTranName":"临浦集镇39#变,临浦集镇36#变,临浦集镇37#变,临浦集镇2#变,临浦集镇11#变,临浦集镇38#变,","scope":"浙江省-杭州市-萧山区-临浦镇-西市街社区-西江塘路,临浦镇-山阴街社区(旧里河,西江塘路,劳动路,石宝畈路,新河路,劳动路)，浙江省杭州市萧山区临浦镇旧里河社区44栋东单元102，浙江省杭州市萧山区临浦镇祝里河小区45幢中单元603室，浙江省杭州市萧山区临浦镇里河公寓小区7幢1单元，浙江省杭州市萧山区临浦镇旧里河路41栋，浙江省杭州市萧山区临浦镇中商超市门口68-1等一带","startTime":"2020-01-19 18:32:46","stopDate":"2020-01-19 20:37:46","orgNo":"3340130","typeCode":"电网故障停限电","poweroffArea":"110kV临浦变:劳动C637线-劳动C637线里河戴家桥分线开关后段","poweroffReason":"高压柱上断路器短路故障 原停电结束时间为2020-01-19 21:37:46,为减少客户停电时间,加快工作进度,提前送电,现变更停电结束时间为2020-01-19 20:37:46","powerTime":"2020-01-19 19:51:55","powerComm":"已送电","subsNo":"","lineNo":"","tgNo":"","tgName":null,"infoStatus":"1","orgName":"国网浙江杭州市萧山区供电有限公司","typeName":null,"infoStatusName":null,"dateDay":null,"orgNos":null,"nowTime":null,"countyName":null,"streetName":null,"villageName":null,"roadName":null,"communityName":null,"tranName":null,"sdLineName":null,"cityCode":"3340130","cityName":"国网浙江杭州市萧山区供电有限公司","provinceCode":null,"stopTime":"2020-01-19 20:37:46","powerType":"全部","powerOffArea":"110kV临浦变:劳动C637线-劳动C637线里河戴家桥分线开关后段","powerOffReason":"高压柱上断路器短路故障 原停电结束时间为2020-01-19 21:37:46,为减少客户停电时间,加快工作进度,提前送电,现变更停电结束时间为2020-01-19 20:37:46","powerOffId":"2020011931020143"},{"poweroffId":2020011931020140,"sgpoweroffId":null,"subsName":"","lineName":"10kV西霞9965线","pubTranName":"求里三变,求里一变,","scope":"浙江省-杭州市-西湖区-三墩镇-自在城东苑社区-金蓬街","startTime":"2020-01-19 17:37:00","stopDate":"2020-01-19 18:30:00","orgNo":"3340101","typeCode":"电网故障停限电","poweroffArea":"110kV墩北变:西霞9965线求里一站求里一线后段","poweroffReason":"高压开关跳闸 原停电结束时间为2020-01-19 19:37:00,为减少客户停电时间,加快工作进度,提前送电,现变更停电结束时间为2020-01-19 18:30:00","powerTime":"2020-01-19 18:00:35","powerComm":"已送电","subsNo":"","lineNo":"","tgNo":"","tgName":null,"infoStatus":"1","orgName":"浙江杭州电力客户服务中心","typeName":null,"infoStatusName":null,"dateDay":null,"orgNos":null,"nowTime":null,"countyName":null,"streetName":null,"villageName":null,"roadName":null,"communityName":null,"tranName":null,"sdLineName":null,"cityCode":"3340101","cityName":"浙江杭州电力客户服务中心","provinceCode":null,"stopTime":"2020-01-19 18:30:00","powerType":"全部","powerOffArea":"110kV墩北变:西霞9965线求里一站求里一线后段","powerOffReason":"高压开关跳闸 原停电结束时间为2020-01-19 19:37:00,为减少客户停电时间,加快工作进度,提前送电,现变更停电结束时间为2020-01-19 18:30:00","powerOffId":"2020011931020140"},{"poweroffId":2020011931020139,"sgpoweroffId":null,"subsName":"","lineName":"10kV墩学9953线","pubTranName":"求里五变,求里七变,","scope":"浙江省-杭州市-西湖区-三墩镇-自在城东苑社区-金蓬街","startTime":"2020-01-19 17:37:00","stopDate":"2020-01-19 18:24:00","orgNo":"3340101","typeCode":"电网故障停限电","poweroffArea":"110kV墩北变:墩学9953线求里五站求里三线后段","poweroffReason":"高压开关跳闸 原停电结束时间为2020-01-19 19:37:00,为减少客户停电时间,加快工作进度,提前送电,现变更停电结束时间为2020-01-19 18:24:00","powerTime":"2020-01-19 18:00:00","powerComm":"已送电","subsNo":"","lineNo":"","tgNo":"","tgName":null,"infoStatus":"1","orgName":"浙江杭州电力客户服务中心","typeName":null,"infoStatusName":null,"dateDay":null,"orgNos":null,"nowTime":null,"countyName":null,"streetName":null,"villageName":null,"roadName":null,"communityName":null,"tranName":null,"sdLineName":null,"cityCode":"3340101","cityName":"浙江杭州电力客户服务中心","provinceCode":null,"stopTime":"2020-01-19 18:24:00","powerType":"全部","powerOffArea":"110kV墩北变:墩学9953线求里五站求里三线后段","powerOffReason":"高压开关跳闸 原停电结束时间为2020-01-19 19:37:00,为减少客户停电时间,加快工作进度,提前送电,现变更停电结束时间为2020-01-19 18:24:00","powerOffId":"2020011931020139"},{"poweroffId":2020011931020133,"sgpoweroffId":null,"subsName":"","lineName":"10kV科蝶8263线","pubTranName":"科蝶(十一),科蝶(九),科蝶(七),","scope":"浙江省-杭州市-西湖区-蒋村街道-蝶园社区-紫霞街","startTime":"2020-01-19 16:38:00","stopDate":"2020-01-19 19:38:00","orgNo":"3340101","typeCode":"电网故障停限电","poweroffArea":"110kV申花变:科蝶8263线科蝶七站科蝶五线后段","poweroffReason":"高压开关跳闸 原停电结束时间为2020-01-19 20:38:00,为减少客户停电时间,加快工作进度,提前送电,现变更停电结束时间为2020-01-19 19:38:00","powerTime":"2020-01-19 19:11:29","powerComm":"已送电","subsNo":"","lineNo":"","tgNo":"","tgName":null,"infoStatus":"1","orgName":"浙江杭州电力客户服务中心","typeName":null,"infoStatusName":null,"dateDay":null,"orgNos":null,"nowTime":null,"countyName":null,"streetName":null,"villageName":null,"roadName":null,"communityName":null,"tranName":null,"sdLineName":null,"cityCode":"3340101","cityName":"浙江杭州电力客户服务中心","provinceCode":null,"stopTime":"2020-01-19 19:38:00","powerType":"全部","powerOffArea":"110kV申花变:科蝶8263线科蝶七站科蝶五线后段","powerOffReason":"高压开关跳闸 原停电结束时间为2020-01-19 20:38:00,为减少客户停电时间,加快工作进度,提前送电,现变更停电结束时间为2020-01-19 19:38:00","powerOffId":"2020011931020133"},{"poweroffId":2020011931020132,"sgpoweroffId":null,"subsName":"","lineName":"10kV科蝶8263线","pubTranName":"科蝶(五),","scope":"浙江省-杭州市-西湖区-蒋村街道-蝶园社区-紫霞街","startTime":"2020-01-19 16:38:00","stopDate":"2020-01-19 19:38:00","orgNo":"3340101","typeCode":"电网故障停限电","poweroffArea":"110kV申花变:科蝶8263线科蝶(五)科蝶(五)配变","poweroffReason":"高压开关跳闸 原停电结束时间为2020-01-19 20:38:00,为减少客户停电时间,加快工作进度,提前送电,现变更停电结束时间为2020-01-19 19:38:00","powerTime":"2020-01-19 19:10:05","powerComm":"已送电","subsNo":"","lineNo":"","tgNo":"","tgName":null,"infoStatus":"1","orgName":"浙江杭州电力客户服务中心","typeName":null,"infoStatusName":null,"dateDay":null,"orgNos":null,"nowTime":null,"countyName":null,"streetName":null,"villageName":null,"roadName":null,"communityName":null,"tranName":null,"sdLineName":null,"cityCode":"3340101","cityName":"浙江杭州电力客户服务中心","provinceCode":null,"stopTime":"2020-01-19 19:38:00","powerType":"全部","powerOffArea":"110kV申花变:科蝶8263线科蝶(五)科蝶(五)配变","powerOffReason":"高压开关跳闸 原停电结束时间为2020-01-19 20:38:00,为减少客户停电时间,加快工作进度,提前送电,现变更停电结束时间为2020-01-19 19:38:00","powerOffId":"2020011931020132"},{"poweroffId":2020011931020131,"sgpoweroffId":null,"subsName":"","lineName":"10kV科蝶8263线","pubTranName":"蒋村小1#变,万溪(五),蒋村幼1#变,五常港灯,蒋学停1#变,万溪(一),和随(六),万溪(七),万溪(十一),和随(三),枫排1#,和随(二十一),和随(一),万溪(九),万溪(三),万溪(十三),和随(二十),和随(十),蒋村中1#变,和随(十六),和随(八),和随(十八),和随(十三),","scope":"浙江省-杭州市-西湖区-蒋村街道-西溪里社区(紫霞街西溪里熙园,西溪里瑾园,文一西路),蒋村街道-蝶园社区-紫霞街西溪蝶园,留下街道-留下社区-西溪路;蒋村街道(杭州市西湖区城市管理局,杭州市路灯管理所,杭州市西湖区西庐幼儿园,杭州市行知第二小学,杭州西湖城市建设投资集团有限公司,杭州市第十五中学教育集团(总校))","startTime":"2020-01-19 16:37:00","stopDate":"2020-01-19 19:37:00","orgNo":"3340101","typeCode":"电网故障停限电","poweroffArea":"110kV申花变:科蝶8263线万溪站万科82631线后段","poweroffReason":"高压开关跳闸 原停电结束时间为2020-01-19 18:37:00,因由于施工现场环境比较复杂原因,现变更停电结束时间为2020-01-19 19:37:00","powerTime":"2020-01-19 19:10:24","powerComm":"已送电","subsNo":"","lineNo":"","tgNo":"","tgName":null,"infoStatus":"1","orgName":"浙江杭州电力客户服务中心","typeName":null,"infoStatusName":null,"dateDay":null,"orgNos":null,"nowTime":null,"countyName":null,"streetName":null,"villageName":null,"roadName":null,"communityName":null,"tranName":null,"sdLineName":null,"cityCode":"3340101","cityName":"浙江杭州电力客户服务中心","provinceCode":null,"stopTime":"2020-01-19 19:37:00","powerType":"全部","powerOffArea":"110kV申花变:科蝶8263线万溪站万科82631线后段","powerOffReason":"高压开关跳闸 原停电结束时间为2020-01-19 18:37:00,因由于施工现场环境比较复杂原因,现变更停电结束时间为2020-01-19 19:37:00","powerOffId":"2020011931020131"},{"poweroffId":2020011931020130,"sgpoweroffId":null,"subsName":"","lineName":"10kV紫苑7351线","pubTranName":"万溪(十二),科蝶(二),和随(十五),万溪(二),和随(二),和随(十二),和随(十九),科蝶(八),3,和随(十四),枫排2#,和随(五),科蝶(六),科蝶(四),和随(七),和随(十一),和随(四),万溪(十),4,科蝶(十),和随(十七),万溪(四),科蝶(十二),2,1,万溪(八),万溪(六),和随(九),","scope":"浙江省-杭州市-西湖区-留下街道-留下社区-西溪路,蒋村街道(西溪里社区-紫霞街西溪里瑾园,蝶园社区-紫霞街西溪蝶园);蒋村街道(杭州市西湖区城市管理局,杭州彩虹物业管理有限公司)","startTime":"2020-01-19 16:37:00","stopDate":"2020-01-19 19:37:00","orgNo":"3340101","typeCode":"电网故障停限电","poweroffArea":"110kV浙大变:紫苑7351线和园站幼园82683线后段","poweroffReason":"高压开关跳闸 原停电结束时间为2020-01-19 18:37:00,因由于施工现场环境比较复杂原因,现变更停电结束时间为2020-01-19 19:37:00","powerTime":"2020-01-19 19:09:53","powerComm":"已送电","subsNo":"","lineNo":"","tgNo":"","tgName":null,"infoStatus":"1","orgName":"浙江杭州电力客户服务中心","typeName":null,"infoStatusName":null,"dateDay":null,"orgNos":null,"nowTime":null,"countyName":null,"streetName":null,"villageName":null,"roadName":null,"communityName":null,"tranName":null,"sdLineName":null,"cityCode":"3340101","cityName":"浙江杭州电力客户服务中心","provinceCode":null,"stopTime":"2020-01-19 19:37:00","powerType":"全部","powerOffArea":"110kV浙大变:紫苑7351线和园站幼园82683线后段","powerOffReason":"高压开关跳闸 原停电结束时间为2020-01-19 18:37:00,因由于施工现场环境比较复杂原因,现变更停电结束时间为2020-01-19 19:37:00","powerOffId":"2020011931020130"},{"poweroffId":2020011931020129,"sgpoweroffId":null,"subsName":"","lineName":"10kV科蝶8263线","pubTranName":"科蝶(一),科蝶(三),","scope":"浙江省-杭州市-西湖区-蒋村街道-蝶园社区-紫霞街","startTime":"2020-01-19 16:38:00","stopDate":"2020-01-19 19:38:00","orgNo":"3340101","typeCode":"电网故障停限电","poweroffArea":"110kV申花变:科蝶8263线科蝶一站科蝶一线后段","poweroffReason":"高压开关跳闸 原停电结束时间为2020-01-19 20:38:00,为减少客户停电时间,加快工作进度,提前送电,现变更停电结束时间为2020-01-19 19:38:00","powerTime":"2020-01-19 19:12:21","powerComm":"已送电","subsNo":"","lineNo":"","tgNo":"","tgName":null,"infoStatus":"1","orgName":"浙江杭州电力客户服务中心","typeName":null,"infoStatusName":null,"dateDay":null,"orgNos":null,"nowTime":null,"countyName":null,"streetName":null,"villageName":null,"roadName":null,"communityName":null,"tranName":null,"sdLineName":null,"cityCode":"3340101","cityName":"浙江杭州电力客户服务中心","provinceCode":null,"stopTime":"2020-01-19 19:38:00","powerType":"全部","powerOffArea":"110kV申花变:科蝶8263线科蝶一站科蝶一线后段","powerOffReason":"高压开关跳闸 原停电结束时间为2020-01-19 20:38:00,为减少客户停电时间,加快工作进度,提前送电,现变更停电结束时间为2020-01-19 19:38:00","powerOffId":"2020011931020129"}],"pageModel":{"pageNow":572,"totalCount":17789,"totalPage":1779,"tableRows":0,"pageCount":10,"beginCount":5710},"isExperi":"1"}