{"message":"","today":"2020-06-15","seleList":[{"poweroffId":2020011931020077,"sgpoweroffId":null,"subsName":"","lineName":"10kV新塘G939线","pubTranName":"新塘村秋家埭,","scope":"浙江省-杭州市-余杭区-东湖街道-新塘行政村-新塘自然村","startTime":"2020-01-19 13:17:18","stopDate":"2020-01-19 15:17:18","orgNo":"3340140","typeCode":"电网故障停限电","poweroffArea":"110kV亭趾变:新塘G939线-新塘村秋家埭后段","poweroffReason":"高压开关跳闸","powerTime":"2020-01-19 14:49:52","powerComm":"已送电","subsNo":"","lineNo":"","tgNo":"","tgName":null,"infoStatus":"1","orgName":"国网浙江杭州市余杭区供电有限公司","typeName":null,"infoStatusName":null,"dateDay":null,"orgNos":null,"nowTime":null,"countyName":null,"streetName":null,"villageName":null,"roadName":null,"communityName":null,"tranName":null,"sdLineName":null,"cityCode":"3340140","cityName":"国网浙江杭州市余杭区供电有限公司","provinceCode":null,"stopTime":"2020-01-19 15:17:18","powerType":"全部","powerOffArea":"110kV亭趾变:新塘G939线-新塘村秋家埭后段","powerOffReason":"高压开关跳闸","powerOffId":"2020011931020077"},{"poweroffId":2020011931020060,"sgpoweroffId":null,"subsName":"","lineName":"10kV小岭T104线","pubTranName":"圆通路2号公变,","scope":"浙江省-杭州市-桐庐县-桐君街道-圆通社区-圆通路","startTime":"2020-01-19 12:07:27","stopDate":"2020-01-19 14:07:27","orgNo":"3340150","typeCode":"电网故障停限电","poweroffArea":"110kV桐庐变:小岭T104线-圆通路2号公变后段","poweroffReason":"(低压停电信息)低压开关跳闸","powerTime":"2020-01-19 13:50:17","powerComm":"已送电","subsNo":"","lineNo":"","tgNo":"","tgName":null,"infoStatus":"1","orgName":"国网浙江桐庐县供电公司","typeName":null,"infoStatusName":null,"dateDay":null,"orgNos":null,"nowTime":null,"countyName":null,"streetName":null,"villageName":null,"roadName":null,"communityName":null,"tranName":null,"sdLineName":null,"cityCode":"3340150","cityName":"国网浙江桐庐县供电公司","provinceCode":null,"stopTime":"2020-01-19 14:07:27","powerType":"全部","powerOffArea":"110kV桐庐变:小岭T104线-圆通路2号公变后段","powerOffReason":"(低压停电信息)低压开关跳闸","powerOffId":"2020011931020060"},{"poweroffId":2020011931020059,"sgpoweroffId":null,"subsName":"","lineName":"10kV山后G830线","pubTranName":"杭州市余杭区人民政府崇贤街道办事处612084955801#专变,龙旋村曹家墩2号公变,杭州市余杭区人民政府崇贤街道办事处612084956001#专变,三家村西木桥头变,龙旋村朝东埭2号公变,八脚桥闸站,良和化工,和平石矿,沾桥纸业,龙旋村村委北变,龙旋村斜桥2号公变,鸭兰村姜家斗西公变,龙旋村山前村北公变,龙旋村朝西埭2号公变,杭州余杭纤绣纺织有限公司612070706601#专变,龙旋村斜桥变,欧博机械（二）,杭州市余杭区人民政府崇贤街道办事处612089370701#专变,龙旋村独山街2号公变,杭州余杭道路运输管理处,龙旋村山后路南埭廊2号公变,龙旋村小路里2号公变,龙旋村沈家浜变,崇贤镇山后路村612090297801#专变,三家村范家角公变,龙旋村龙泉子2号公变,鸭兰到舍路西公变,中国电信股份有限公司杭州余杭区分公司,龙旋村朝西埭变,鸭兰村姜家斗公变,龙旋村朝东埭变,洲风纺织,龙旋村独山街变,浙江宝创钢铁有限公司612036629101#专变,欧博机械（一）,杭州崇博工贸有限公司612025552101#专变,杭州恒聚金属结构塑料厂,鸭兰村到舍路变,龙旋村小路里变,鸭兰村姜家斗南公变,龙旋村菜场2号公变,龙旋村菜场公变,龙旋村村委南公变,龙旋村龙泉子变,三家村西木桥头2号公变,龙旋村曹家墩变,京益汇物流（6120722801）1#变,龙旋村山后路南埭廊变,康兴化纤,龙旋村村委北2号公变,","scope":"浙江省-杭州市-余杭区-崇贤街道-鸭兰行政村(塘康路,东鸭兰自然村,姜家土斗自然村),崇贤街道-龙旋行政村(213县道,小路里自然村,沈家浜自然村,南埭廊自然村,龙旋子自然村,独山路,北马桥自然村,朝西埭自然村,曹家墩自然村,朝东埭自然村,斜桥自然村,塘康路,山前北自然村,北自然村,龙旋村,龙旋村委南自然村),崇贤街道-三家行政村(范家角自然村,西木桥头自然村,塘康路);崇贤街道(杭州良和化工助剂有限公司,杭州市余杭区人民政府崇贤街道办事处,崇贤镇山后路村,中国电信股份有限公司杭州余杭区分公司,杭州市余杭区崇贤镇人民政府,杭州盛隆纺纱有限公司,杭州恒聚金属结构塑料厂,杭州余杭宏远纺织机械厂,杭州洲风纺织有限公司,杭州欧博机械有限公司,杭州崇新装饰材料有限公司,杭州崇博工贸有限公司,杭州市余杭区道路运输管理处,浙江宝创钢铁有限公司,杭州余杭纤绣纺织有限公司,浙江京益汇物流有限公司)","startTime":"2020-01-19 12:00:00","stopDate":"2020-01-19 14:41:00","orgNo":"3340140","typeCode":"电网故障停限电","poweroffArea":"110kV北庄变:山后G830线山后G8301开关后段","poweroffReason":"高压开关跳闸","powerTime":"2020-01-19 14:36:56","powerComm":"已送电","subsNo":"","lineNo":"","tgNo":"","tgName":null,"infoStatus":"1","orgName":"国网浙江杭州市余杭区供电有限公司","typeName":null,"infoStatusName":null,"dateDay":null,"orgNos":null,"nowTime":null,"countyName":null,"streetName":null,"villageName":null,"roadName":null,"communityName":null,"tranName":null,"sdLineName":null,"cityCode":"3340140","cityName":"国网浙江杭州市余杭区供电有限公司","provinceCode":null,"stopTime":"2020-01-19 14:41:00","powerType":"全部","powerOffArea":"110kV北庄变:山后G830线山后G8301开关后段","powerOffReason":"高压开关跳闸","powerOffId":"2020011931020059"},{"poweroffId":2020011931020041,"sgpoweroffId":null,"subsName":"","lineName":"10kV上义H991线","pubTranName":"安山化纤厂公变,","scope":"浙江省-杭州市-余杭区-余杭街道-上湖行政村-安山自然村","startTime":"2020-01-19 10:14:28","stopDate":"2020-01-19 14:14:28","orgNo":"3340140","typeCode":"电网故障停限电","poweroffArea":"110kV余杭临时变:上义H991线-安山化纤厂公变后段","poweroffReason":"高压开关跳闸","powerTime":"2020-01-19 13:56:00","powerComm":"已送电","subsNo":"","lineNo":"","tgNo":"","tgName":null,"infoStatus":"1","orgName":"国网浙江杭州市余杭区供电有限公司","typeName":null,"infoStatusName":null,"dateDay":null,"orgNos":null,"nowTime":null,"countyName":null,"streetName":null,"villageName":null,"roadName":null,"communityName":null,"tranName":null,"sdLineName":null,"cityCode":"3340140","cityName":"国网浙江杭州市余杭区供电有限公司","provinceCode":null,"stopTime":"2020-01-19 14:14:28","powerType":"全部","powerOffArea":"110kV余杭临时变:上义H991线-安山化纤厂公变后段","powerOffReason":"高压开关跳闸","powerOffId":"2020011931020041"},{"poweroffId":2020011931020040,"sgpoweroffId":null,"subsName":"","lineName":"10kV双象A295线","pubTranName":"辰泽新材料3#,浙江万特水泥制品有限公司,新龙村5#变,中煤新型建材,三新村新龙12#变,杭州国申房地产开发有限公司01#,辰泽新材料1#,鼎昌混凝土,普洛米斯涂料,新湾小平石料场,污水厂1#,杭州萧山建材厂,创建村4#变,江东花边服饰,顺发纺织,辰泽新材料2#,立达汽车轴承,新湾人民政府(垃圾中转站),污水厂2#,顺发化纤厂,颂佳实业01#,","scope":"浙江省-杭州市-萧山区-新湾街道(三新行政村-新龙自然村,创建行政村-创建自然村,建华行政村-建华自然村);新湾街道-三新行政村(杭州立达汽车轴承有限公司,杭州鼎昌混凝土有限公司,杭州萧山顺发纺织有限公司,杭州江东花边服饰有限公司,杭州震兴水泥有限公司,杭州扬涛建材有限公司),新湾街道-宏波行政村(浙江万特水泥制品有限公司,杭州颂佳实业有限公司),新湾街道-创建行政村(杭州辰泽新材料有限公司,杭州市萧山区新湾镇人民政府(垃圾中转站),杭州萧山污水处理有限公司,杭州普洛米斯涂料有限公司),新湾街道(共和行政村-浙江中煤新型建材有限公司,杭州国申房地产开发有限公司)、新湾街道新龙村、创建村、建华村、三新村、共和村、宏波村一带","startTime":"2020-01-19 10:12:32","stopDate":"2020-01-19 19:00:32","orgNo":"3340120","typeCode":"电网故障停限电","poweroffArea":"110kV建湾变:双象A295线","poweroffReason":"高压开关跳闸","powerTime":"2020-01-19 18:05:07","powerComm":"已送电","subsNo":"","lineNo":"","tgNo":"","tgName":null,"infoStatus":"1","orgName":"国网浙江杭州市钱塘新区供电公司","typeName":null,"infoStatusName":null,"dateDay":null,"orgNos":null,"nowTime":null,"countyName":null,"streetName":null,"villageName":null,"roadName":null,"communityName":null,"tranName":null,"sdLineName":null,"cityCode":"3340120","cityName":"国网浙江杭州市钱塘新区供电公司","provinceCode":null,"stopTime":"2020-01-19 19:00:32","powerType":"全部","powerOffArea":"110kV建湾变:双象A295线","powerOffReason":"高压开关跳闸","powerOffId":"2020011931020040"},{"poweroffId":2020011931020035,"sgpoweroffId":null,"subsName":"","lineName":"10kV长征G032线","pubTranName":"运河镇戚家桥村屠家湾公变,","scope":"浙江省-杭州市-余杭区-运河街道-戚家桥行政村(戚家桥自然村,戚家桥,郎家斗自然村,郎家斗)","startTime":"2020-01-19 09:51:52","stopDate":"2020-01-19 11:00:23","orgNo":"3340140","typeCode":"电网故障停限电","poweroffArea":"110kV五杭变:长征G032线-运河镇戚家桥村屠家湾公变后段","poweroffReason":"高压开关跳闸","powerTime":"2020-01-19 10:41:56","powerComm":"已送电","subsNo":"","lineNo":"","tgNo":"","tgName":null,"infoStatus":"1","orgName":"国网浙江杭州市余杭区供电有限公司","typeName":null,"infoStatusName":null,"dateDay":null,"orgNos":null,"nowTime":null,"countyName":null,"streetName":null,"villageName":null,"roadName":null,"communityName":null,"tranName":null,"sdLineName":null,"cityCode":"3340140","cityName":"国网浙江杭州市余杭区供电有限公司","provinceCode":null,"stopTime":"2020-01-19 11:00:23","powerType":"全部","powerOffArea":"110kV五杭变:长征G032线-运河镇戚家桥村屠家湾公变后段","powerOffReason":"高压开关跳闸","powerOffId":"2020011931020035"},{"poweroffId":2020011931020029,"sgpoweroffId":null,"subsName":"","lineName":"10kV西霞9965线","pubTranName":"求里三变,求里一变,","scope":"浙江省-杭州市-西湖区-三墩镇-自在城东苑社区-金蓬街","startTime":"2020-01-19 09:22:00","stopDate":"2020-01-19 10:22:00","orgNo":"3340101","typeCode":"电网故障停限电","poweroffArea":"110kV墩北变:西霞9965线求里一站求里一线后段","poweroffReason":"高压开关跳闸 原停电结束时间为2020-01-19 11:22:00,为减少客户停电时间,加快工作进度,提前送电,现变更停电结束时间为2020-01-19 10:22:00","powerTime":"2020-01-19 09:51:18","powerComm":"已送电","subsNo":"","lineNo":"","tgNo":"","tgName":null,"infoStatus":"1","orgName":"浙江杭州电力客户服务中心","typeName":null,"infoStatusName":null,"dateDay":null,"orgNos":null,"nowTime":null,"countyName":null,"streetName":null,"villageName":null,"roadName":null,"communityName":null,"tranName":null,"sdLineName":null,"cityCode":"3340101","cityName":"浙江杭州电力客户服务中心","provinceCode":null,"stopTime":"2020-01-19 10:22:00","powerType":"全部","powerOffArea":"110kV墩北变:西霞9965线求里一站求里一线后段","powerOffReason":"高压开关跳闸 原停电结束时间为2020-01-19 11:22:00,为减少客户停电时间,加快工作进度,提前送电,现变更停电结束时间为2020-01-19 10:22:00","powerOffId":"2020011931020029"},{"poweroffId":2020011931020028,"sgpoweroffId":null,"subsName":"","lineName":"10kV墩学9953线","pubTranName":"求里七变,求里五变,","scope":"浙江省-杭州市-西湖区-三墩镇-自在城东苑社区-金蓬街","startTime":"2020-01-19 09:22:00","stopDate":"2020-01-19 10:22:00","orgNo":"3340101","typeCode":"电网故障停限电","poweroffArea":"110kV墩北变:墩学9953线求里五站求里三线后段","poweroffReason":"高压开关跳闸 原停电结束时间为2020-01-19 11:22:00,为减少客户停电时间,加快工作进度,提前送电,现变更停电结束时间为2020-01-19 10:22:00","powerTime":"2020-01-19 09:51:02","powerComm":"已送电","subsNo":"","lineNo":"","tgNo":"","tgName":null,"infoStatus":"1","orgName":"浙江杭州电力客户服务中心","typeName":null,"infoStatusName":null,"dateDay":null,"orgNos":null,"nowTime":null,"countyName":null,"streetName":null,"villageName":null,"roadName":null,"communityName":null,"tranName":null,"sdLineName":null,"cityCode":"3340101","cityName":"浙江杭州电力客户服务中心","provinceCode":null,"stopTime":"2020-01-19 10:22:00","powerType":"全部","powerOffArea":"110kV墩北变:墩学9953线求里五站求里三线后段","powerOffReason":"高压开关跳闸 原停电结束时间为2020-01-19 11:22:00,为减少客户停电时间,加快工作进度,提前送电,现变更停电结束时间为2020-01-19 10:22:00","powerOffId":"2020011931020028"},{"poweroffId":2020011931020027,"sgpoweroffId":null,"subsName":"","lineName":"10kV凤凰Y323线","pubTranName":"梓洲村女儿坑台区,梓洲村水堆湾台区,梓洲村横坞口台区,","scope":"浙江省-杭州市-建德市-乾潭镇-梓洲行政村 水堆湾自然村,横坞口自然村,女儿坑自然村一带用户","startTime":"2020-01-19 09:12:00","stopDate":"2020-01-19 11:15:00","orgNo":"3340180","typeCode":"电网故障停限电","poweroffArea":"35kV三都变:凤凰Y323线横坞口支线0#真空开关后段","poweroffReason":"高压开关跳闸","powerTime":"2020-01-19 10:58:27","powerComm":"已送电","subsNo":"","lineNo":"","tgNo":"","tgName":null,"infoStatus":"1","orgName":"国网浙江建德市供电有限公司","typeName":null,"infoStatusName":null,"dateDay":null,"orgNos":null,"nowTime":null,"countyName":null,"streetName":null,"villageName":null,"roadName":null,"communityName":null,"tranName":null,"sdLineName":null,"cityCode":"3340180","cityName":"国网浙江建德市供电有限公司","provinceCode":null,"stopTime":"2020-01-19 11:15:00","powerType":"全部","powerOffArea":"35kV三都变:凤凰Y323线横坞口支线0#真空开关后段","powerOffReason":"高压开关跳闸","powerOffId":"2020011931020027"},{"poweroffId":2020011931020024,"sgpoweroffId":null,"subsName":"","lineName":"10kV双象A295线","pubTranName":"三新村新龙12#变,","scope":"浙江省-杭州市-萧山区-新湾街道-三新行政村-新龙自然村,三新村新龙一带","startTime":"2020-01-19 09:00:14","stopDate":"2020-01-19 16:30:14","orgNo":"3340120","typeCode":"电网故障停限电","poweroffArea":"110kV建湾变:双象A295线-三新村新龙12#变后段","poweroffReason":"(低压停电信息)低压开关跳闸","powerTime":"2020-01-19 15:56:42","powerComm":"已送电","subsNo":"","lineNo":"","tgNo":"","tgName":null,"infoStatus":"1","orgName":"国网浙江杭州市钱塘新区供电公司","typeName":null,"infoStatusName":null,"dateDay":null,"orgNos":null,"nowTime":null,"countyName":null,"streetName":null,"villageName":null,"roadName":null,"communityName":null,"tranName":null,"sdLineName":null,"cityCode":"3340120","cityName":"国网浙江杭州市钱塘新区供电公司","provinceCode":null,"stopTime":"2020-01-19 16:30:14","powerType":"全部","powerOffArea":"110kV建湾变:双象A295线-三新村新龙12#变后段","powerOffReason":"(低压停电信息)低压开关跳闸","powerOffId":"2020011931020024"}],"pageModel":{"pageNow":573,"totalCount":17789,"totalPage":1779,"tableRows":0,"pageCount":10,"beginCount":5720},"isExperi":"1"}