{"message":"","today":"2020-06-15","seleList":[{"poweroffId":2020060231020050,"sgpoweroffId":null,"subsName":"","lineName":"10kV罗宅D396线","pubTranName":"罗宅村8#上街公变,罗宅村6#村委公变,平山村6#八面坞公变,平山村4#太平桥公变,杭州富阳信远锻造厂,平山村1#黄栗树公变,平山村3#贯前公变,杭州浙越纳米新材料科技有限公司,平山村9#鳌坞公变1,罗宅村5#吉龙公变,罗宅村7#大坞里公变,中国电信股份有限公司富阳分公司,罗宅村1#下街公变,平山村2#徐畈公变,罗宅村4#客山坞公变,新民村3#周家公变,新民村1#徐家公变,平山村5#马岭脚公变,罗宅村3#白粉墙公变,平山村8#里八面坞公变,吉龙矿粉厂,平山村7#洞山脚公变,杭州富阳新超碳酸钙有限公司,新民村5#上万公变,恒发碳酸钙,","scope":"浙江省-杭州市-富阳区-洞桥镇-里仁行政村-大树坪自然村,万市镇-新民行政村(下万自然村,郎家自然村,上万自然村,周家自然村,新民自然村,徐家自然村),万市镇-平山行政村(黄栗树下自然村,徐畈自然村,里八面坞自然村,桐毛坞自然村,怪坞里自然村,马岭脚自然村,浩坞自然村,太平桥自然村,巨龙坞自然村,坞里自然村,洞山脚自然村,贯前自然村,八面坞自然村,邵家自然村,邵家茶搭里自然村,水竹坞自然村),万市镇-罗宅行政村(夏叶坞自然村,吉龙自然村,枫树坞自然村,上街头自然村,下街头自然村,大坞里自然村,巨龙坞自然村,罗宅自然村,白粉墙自然村,客山坞自然村,金沙滩自然村,农居点自然村,南安路自然村),万市镇(万市行政村-罗宅自然村,槎源坞行政村-罗宅自然村);万市镇(杭州富阳吉龙矿粉厂,杭州恒发碳酸钙有限公司,中国电信股份有限公司富阳分公司,杭州富阳蓝星建材有限公司,杭州富阳信远锻造厂,杭州浙越纳米新材料科技有限公司)","startTime":"2020-06-02 08:15:00","stopDate":"2020-06-02 10:15:00","orgNo":"3340170","typeCode":"电网故障停限电","poweroffArea":"110kV万市变:罗宅D396线罗宅D3962开关后段","poweroffReason":"高压开关跳闸","powerTime":"2020-06-02 09:30:13","powerComm":"已送电","subsNo":"","lineNo":"","tgNo":"","tgName":null,"infoStatus":"1","orgName":"国网浙江杭州市富阳区供电公司","typeName":null,"infoStatusName":null,"dateDay":null,"orgNos":null,"nowTime":null,"countyName":null,"streetName":null,"villageName":null,"roadName":null,"communityName":null,"tranName":null,"sdLineName":null,"cityCode":"3340170","cityName":"国网浙江杭州市富阳区供电公司","provinceCode":null,"stopTime":"2020-06-02 10:15:00","powerType":"全部","powerOffArea":"110kV万市变:罗宅D396线罗宅D3962开关后段","powerOffReason":"高压开关跳闸","powerOffId":"2020060231020050"},{"poweroffId":2020060231020047,"sgpoweroffId":null,"subsName":"","lineName":"10kV马态155线","pubTranName":"水沟一变,","scope":"浙江省-杭州市-滨江区-长河街道-天官社区(天官路,长河),长河街道(长河社区-汤家桥,汤家桥社区-汤家桥)水沟沿路教工宿舍17号楼1单元","startTime":"2020-06-09 09:00:00","stopDate":"2020-06-09 13:00:00","orgNo":"3340101","typeCode":"计划停电","poweroffArea":"110kV长河变:马态155线-水沟一变后段水沟沿（一）T1-1 1号、2号间隔","poweroffReason":"(低压停电信息)水沟沿路教工宿舍17号楼 原停电结束时间为2020-06-09 16:30:00,为减少客户停电时间,加快工作进度,提前送电,现变更停电结束时间为2020-06-09 13:00:00","powerTime":"2020-06-09 12:00:48","powerComm":"已送电","subsNo":"","lineNo":"","tgNo":"","tgName":null,"infoStatus":"1","orgName":"浙江杭州电力客户服务中心","typeName":null,"infoStatusName":null,"dateDay":null,"orgNos":null,"nowTime":null,"countyName":null,"streetName":null,"villageName":null,"roadName":null,"communityName":null,"tranName":null,"sdLineName":null,"cityCode":"3340101","cityName":"浙江杭州电力客户服务中心","provinceCode":null,"stopTime":"2020-06-09 13:00:00","powerType":"全部","powerOffArea":"110kV长河变:马态155线-水沟一变后段水沟沿（一）T1-1 1号、2号间隔","powerOffReason":"(低压停电信息)水沟沿路教工宿舍17号楼 原停电结束时间为2020-06-09 16:30:00,为减少客户停电时间,加快工作进度,提前送电,现变更停电结束时间为2020-06-09 13:00:00","powerOffId":"2020060231020047"},{"poweroffId":2020060231020046,"sgpoweroffId":null,"subsName":"","lineName":"10kV彭家D342线","pubTranName":"彭家村1#富阳坞公变,杭州富阳三井环保制品有限公司,富阳市上富活性钙厂,彭家村4#张家公变,何家村3#潘家公变,何家村6#朱坞里公变,彭家村3#潘家公变,何家村5#何家公变,众源村12#灰灶坞公变,彭家村14#新村公变,彭家村5#五目里公变,中国电信股份有限公司富阳分公司1#变,彭家村16#望龙桥公变,晨虹化工,双安叉车2#变,富阳蓝星建材有限公司,彭家村13#太山坞公变,彭家村8#上街公变,众源村11#大礼堂公变,富阳市洋洋矿业有限公司,众源村6#东山畈公变,杭州富阳赛普灯具配件厂,众源村8#袁家公变,彭家村7#李家公变,众源村1#天目岭公变,富阳市白玉化工有限公司,何家村4#新桥头公变,奥达照明,富阳市业成锻造厂,何家村1#太平桥公变,何家村10号子皮山公变,众源村10#金山脚公变,何家村11号农居点公变,众源村7#傅家公变,杭州富阳华鹏实业有限公司,富阳市白玉化工有限公司,富阳市水务有限公司,杭州韩韵化妆品有限公司,众源村14#徐家公变,富阳德耀电器配件有限公司,富阳市南新富财石粉厂,赛白玉碳酸钙1#变,2#变,何家村9#龙王坎公变,盛力橡塑五金1#变,新天龙矿粉,彭家村9#高白塘公变,何家村8#前家庄公变,富阳建宇建筑材料有限公司,众源村9号横山岭公变,彭家村17#路下丘公变,彭家村12#外渚源公变,彭家村15#茂树岭公变,众源村3#骆家公变,杭州富阳腾飞锻造有限公司,彭家村18号方家公变,何家村7#小城坎公变,彭家村6#下街公变,1#,何家村2#花家庙公变,彭家村2#洪家公变,彭家村10#大礼堂公变,彭家村11#渚源汤家坞公变,杭州双安叉车零部件有限公司1#,","scope":"浙江省-杭州市-富阳区-万市镇-彭家行政村(洪家自然村,彭家自然村,张家自然村,塘里张家自然村,渚源坞自然村,多福寺自然村,汤家坞自然村,何家自然村,渚源自然村,高白塘自然村,午目里自然村,太山坞自然村,五目里自然村,潘家自然村,外渚源坞自然村,桃树丘自然村,李家自然村,富阳坞自然村,方家自然村,东叙自然村,望龙桥自然村),万市镇-何家行政村(何家自然村,外朱坞自然村,全家庄自然村,邵家自然村,新桥头自然村,里朱坞自然村,小城坎自然村,张家自然村,新坞里自然村,梨树坞自然村,柿塘坞自然村,花家庙自然村,王家自然村,潘家自然村,金竹山自然村),万市镇-众缘行政村(骆家自然村,徐家自然村,众源自然村,罗宅自然村,坞口自然村,傅家自然村,金山脚自然村,了岸坞自然村,灰灶坞自然村,后缘坞自然村,对山骆家自然村,桥弯桥自然村,东山畈自然村,镇头自然村,了岸自然村,天目岭自然村,钟家自然村,下塘坞自然村),万市镇(平山行政村-巨龙坞自然村,白石行政村-唐家桥自然村);万市镇(杭州溢年实业投资有限公司,杭州富阳上富活性钙厂,杭州富阳新天龙矿粉有限公司,杭州富阳德耀电器配件有限公司,杭州富阳腾飞锻造有限公司,富阳市晨虹化工包装制品厂,杭州富阳业成锻造厂,中国电信股份有限公司富阳分公司,杭州富阳赛白玉碳酸钙厂,杭州富阳赛普灯具配件厂,杭州双安叉车零部件有限公司,杭州富阳申瑞实业有限公司,杭州富阳白玉化工有限公司,杭州韩韵化妆品有限公司,杭州富阳蓝星建材有限公司,杭州富阳南新富财石粉厂,杭州富阳润熙工艺品有限公司,杭州富阳水务有限公司,杭州富阳万市汽车运输有限公司,杭州万大科技有限公司,杭州华鹍木业有限公司,杭州富阳盛力橡塑五金制品有限公司,杭州富阳元申建材有限公司)","startTime":"2020-06-02 08:14:00","stopDate":"2020-06-02 10:14:00","orgNo":"3340170","typeCode":"电网故障停限电","poweroffArea":"110kV万市变:彭家D342线彭家D3422开关后段","poweroffReason":"高压开关跳闸","powerTime":"2020-06-02 09:30:03","powerComm":"已送电","subsNo":"","lineNo":"","tgNo":"","tgName":null,"infoStatus":"1","orgName":"国网浙江杭州市富阳区供电公司","typeName":null,"infoStatusName":null,"dateDay":null,"orgNos":null,"nowTime":null,"countyName":null,"streetName":null,"villageName":null,"roadName":null,"communityName":null,"tranName":null,"sdLineName":null,"cityCode":"3340170","cityName":"国网浙江杭州市富阳区供电公司","provinceCode":null,"stopTime":"2020-06-02 10:14:00","powerType":"全部","powerOffArea":"110kV万市变:彭家D342线彭家D3422开关后段","powerOffReason":"高压开关跳闸","powerOffId":"2020060231020046"},{"poweroffId":2020060231020041,"sgpoweroffId":null,"subsName":"","lineName":"10kV梅仙C790线","pubTranName":"梅仙村2#变,","scope":"浙江省-杭州市-萧山区-瓜沥镇-梅仙行政村(坎红路,梅仙自然村)等","startTime":"2020-06-02 08:02:00","stopDate":"2020-06-02 17:00:00","orgNo":"3340130","typeCode":"电网故障停限电","poweroffArea":"35kV坎山变:梅仙C790线梅仙村2#变台区低压开关","poweroffReason":"(低压停电信息) 低压漏电保护器跳闸 原停电结束时间为2020-06-02 17:30:00,为减少客户停电时间,加快工作进度,提前送电,现变更停电结束时间为2020-06-02 17:00:00","powerTime":"2020-06-02 16:06:33","powerComm":"已送电","subsNo":"","lineNo":"","tgNo":"","tgName":null,"infoStatus":"1","orgName":"国网浙江杭州市萧山区供电有限公司","typeName":null,"infoStatusName":null,"dateDay":null,"orgNos":null,"nowTime":null,"countyName":null,"streetName":null,"villageName":null,"roadName":null,"communityName":null,"tranName":null,"sdLineName":null,"cityCode":"3340130","cityName":"国网浙江杭州市萧山区供电有限公司","provinceCode":null,"stopTime":"2020-06-02 17:00:00","powerType":"全部","powerOffArea":"35kV坎山变:梅仙C790线梅仙村2#变台区低压开关","powerOffReason":"(低压停电信息) 低压漏电保护器跳闸 原停电结束时间为2020-06-02 17:30:00,为减少客户停电时间,加快工作进度,提前送电,现变更停电结束时间为2020-06-02 17:00:00","powerOffId":"2020060231020041"},{"poweroffId":2020060231020002,"sgpoweroffId":null,"subsName":"","lineName":"10kV方家C171线","pubTranName":"徐童山下4#变,杭州萧山美信装饰布厂1#变压器,杭州萧山美信装饰布厂,杭州萧山美信装饰布厂,杭州萧山美信装饰布厂,萧山区积堰山电力排灌站（白马闸机埠）,杭州市萧山区义桥镇人民政府（白马闸机埠）,徐童山下2#变,","scope":"浙江省-杭州市-萧山区-义桥镇-徐童山下行政村(方家自然村,赶村王自然村);义桥镇(杭州萧山美信装饰布厂,杭州市萧山区义桥镇人民政府,萧山区积堰山电力排灌站)等","startTime":"2020-06-02 01:01:00","stopDate":"2020-06-02 03:01:00","orgNo":"3340130","typeCode":"电网故障停限电","poweroffArea":"110kV许贤变:方家C171线方家C171线美信分线开关后段","poweroffReason":"高压柱上断路器短路 原停电结束时间为2020-06-02 04:01:00,为减少客户停电时间,加快工作进度,提前送电,现变更停电结束时间为2020-06-02 03:01:00","powerTime":"2020-06-02 02:26:44","powerComm":"已送电","subsNo":"","lineNo":"","tgNo":"","tgName":null,"infoStatus":"1","orgName":"国网浙江杭州市萧山区供电有限公司","typeName":null,"infoStatusName":null,"dateDay":null,"orgNos":null,"nowTime":null,"countyName":null,"streetName":null,"villageName":null,"roadName":null,"communityName":null,"tranName":null,"sdLineName":null,"cityCode":"3340130","cityName":"国网浙江杭州市萧山区供电有限公司","provinceCode":null,"stopTime":"2020-06-02 03:01:00","powerType":"全部","powerOffArea":"110kV许贤变:方家C171线方家C171线美信分线开关后段","powerOffReason":"高压柱上断路器短路 原停电结束时间为2020-06-02 04:01:00,为减少客户停电时间,加快工作进度,提前送电,现变更停电结束时间为2020-06-02 03:01:00","powerOffId":"2020060231020002"},{"poweroffId":2020060131020451,"sgpoweroffId":null,"subsName":"","lineName":"10kV东塘Y187线","pubTranName":"山峰村平头山台区,","scope":"浙江省-杭州市-建德市-寿昌镇-山峰行政村(山峰自然村,刘家自然村)","startTime":"2020-06-01 23:03:00","stopDate":"2020-06-01 23:58:00","orgNo":"3340180","typeCode":"电网故障停限电","poweroffArea":"35kV河南里变:东塘Y187线山峰村平头山台区配变","poweroffReason":"高压开关跳闸 原停电结束时间为2020-06-02 02:00:00,为减少客户停电时间,加快工作进度,提前送电,现变更停电结束时间为2020-06-01 23:58:00","powerTime":"2020-06-01 23:25:00","powerComm":"已送电","subsNo":"","lineNo":"","tgNo":"","tgName":null,"infoStatus":"1","orgName":"国网浙江建德市供电有限公司","typeName":null,"infoStatusName":null,"dateDay":null,"orgNos":null,"nowTime":null,"countyName":null,"streetName":null,"villageName":null,"roadName":null,"communityName":null,"tranName":null,"sdLineName":null,"cityCode":"3340180","cityName":"国网浙江建德市供电有限公司","provinceCode":null,"stopTime":"2020-06-01 23:58:00","powerType":"全部","powerOffArea":"35kV河南里变:东塘Y187线山峰村平头山台区配变","powerOffReason":"高压开关跳闸 原停电结束时间为2020-06-02 02:00:00,为减少客户停电时间,加快工作进度,提前送电,现变更停电结束时间为2020-06-01 23:58:00","powerOffId":"2020060131020451"},{"poweroffId":2020060131020400,"sgpoweroffId":null,"subsName":"","lineName":"10kV凤坞C483线","pubTranName":"凤坞村9#变,","scope":"浙江省-杭州市-萧山区-河上镇-凤凰坞行政村-凤凰坞自然村等","startTime":"2020-06-01 16:50:12","stopDate":"2020-06-01 18:00:12","orgNo":"3340130","typeCode":"电网故障停限电","poweroffArea":"35kV河上变:凤坞C483线-凤坞村9#变台区低压开关","poweroffReason":"（低压停电信息）低压熔断器短路 原停电结束时间为2020-06-01 18:20:12,为减少客户停电时间,加快工作进度,提前送电,现变更停电结束时间为2020-06-01 18:00:12","powerTime":"2020-06-01 17:07:36","powerComm":"已送电","subsNo":"","lineNo":"","tgNo":"","tgName":null,"infoStatus":"1","orgName":"国网浙江杭州市萧山区供电有限公司","typeName":null,"infoStatusName":null,"dateDay":null,"orgNos":null,"nowTime":null,"countyName":null,"streetName":null,"villageName":null,"roadName":null,"communityName":null,"tranName":null,"sdLineName":null,"cityCode":"3340130","cityName":"国网浙江杭州市萧山区供电有限公司","provinceCode":null,"stopTime":"2020-06-01 18:00:12","powerType":"全部","powerOffArea":"35kV河上变:凤坞C483线-凤坞村9#变台区低压开关","powerOffReason":"（低压停电信息）低压熔断器短路 原停电结束时间为2020-06-01 18:20:12,为减少客户停电时间,加快工作进度,提前送电,现变更停电结束时间为2020-06-01 18:00:12","powerOffId":"2020060131020400"},{"poweroffId":2020060131020398,"sgpoweroffId":null,"subsName":"","lineName":"10kV前源Y322线","pubTranName":"前源村八亩丘台区,","scope":"浙江省-杭州市-建德市-三都镇 前源行政村 八亩丘自然村区域用户。","startTime":"2020-06-09 07:30:00","stopDate":"2020-06-09 12:30:00","orgNo":"3340180","typeCode":"计划停电","poweroffArea":"35kV三都变:前源Y322线-前源村八亩丘台区后段","poweroffReason":"梅城地区配变增容改造工程：八亩丘台区原变压器更换","powerTime":"2020-06-09 11:44:07","powerComm":"已送电","subsNo":"","lineNo":"","tgNo":"","tgName":null,"infoStatus":"1","orgName":"国网浙江建德市供电有限公司","typeName":null,"infoStatusName":null,"dateDay":null,"orgNos":null,"nowTime":null,"countyName":null,"streetName":null,"villageName":null,"roadName":null,"communityName":null,"tranName":null,"sdLineName":null,"cityCode":"3340180","cityName":"国网浙江建德市供电有限公司","provinceCode":null,"stopTime":"2020-06-09 12:30:00","powerType":"全部","powerOffArea":"35kV三都变:前源Y322线-前源村八亩丘台区后段","powerOffReason":"梅城地区配变增容改造工程：八亩丘台区原变压器更换","powerOffId":"2020060131020398"},{"poweroffId":2020060131020382,"sgpoweroffId":null,"subsName":"","lineName":"10kV江南Y137线","pubTranName":"乾潭村桃树坞台区,","scope":"浙江省-杭州市-建德市-乾潭镇 乾潭行政村 桃树坞自然村区域用户","startTime":"2020-06-09 08:00:00","stopDate":"2020-06-09 13:00:00","orgNo":"3340180","typeCode":"计划停电","poweroffArea":"110kV乾潭变:江南Y137线-乾潭村桃树坞公变令克后段","poweroffReason":"梅城地区配变增容改造工程（局属）：桃树坞支线4#杆桃树坞台区配变更换","powerTime":"2020-06-09 12:15:15","powerComm":"已送电","subsNo":"","lineNo":"","tgNo":"","tgName":null,"infoStatus":"1","orgName":"国网浙江建德市供电有限公司","typeName":null,"infoStatusName":null,"dateDay":null,"orgNos":null,"nowTime":null,"countyName":null,"streetName":null,"villageName":null,"roadName":null,"communityName":null,"tranName":null,"sdLineName":null,"cityCode":"3340180","cityName":"国网浙江建德市供电有限公司","provinceCode":null,"stopTime":"2020-06-09 13:00:00","powerType":"全部","powerOffArea":"110kV乾潭变:江南Y137线-乾潭村桃树坞公变令克后段","powerOffReason":"梅城地区配变增容改造工程（局属）：桃树坞支线4#杆桃树坞台区配变更换","powerOffId":"2020060131020382"},{"poweroffId":2020060131020378,"sgpoweroffId":null,"subsName":"","lineName":"10kV大店Y171线","pubTranName":"千源村千家台区,","scope":"浙江省-杭州市-建德市-航头镇 千源行政村 千家自然村区域用户。","startTime":"2020-06-09 06:30:00","stopDate":"2020-06-09 12:30:00","orgNo":"3340180","typeCode":"计划停电","poweroffArea":"10千伏大店Y171线162#杆支接千家支线2#杆千家台区配变熔丝具后段停电","poweroffReason":"2020年寿昌地区配变增容改造工程（局属）：千家支线2#杆千家台区配变更换","powerTime":"2020-06-09 11:45:08","powerComm":"已送电","subsNo":"","lineNo":"","tgNo":"","tgName":null,"infoStatus":"1","orgName":"国网浙江建德市供电有限公司","typeName":null,"infoStatusName":null,"dateDay":null,"orgNos":null,"nowTime":null,"countyName":null,"streetName":null,"villageName":null,"roadName":null,"communityName":null,"tranName":null,"sdLineName":null,"cityCode":"3340180","cityName":"国网浙江建德市供电有限公司","provinceCode":null,"stopTime":"2020-06-09 12:30:00","powerType":"全部","powerOffArea":"10千伏大店Y171线162#杆支接千家支线2#杆千家台区配变熔丝具后段停电","powerOffReason":"2020年寿昌地区配变增容改造工程（局属）：千家支线2#杆千家台区配变更换","powerOffId":"2020060131020378"}],"pageModel":{"pageNow":57,"totalCount":17786,"totalPage":1779,"tableRows":0,"pageCount":10,"beginCount":560},"isExperi":"1"}