{"message":"","today":"2020-06-15","seleList":[{"poweroffId":2020011731020127,"sgpoweroffId":null,"subsName":"","lineName":"10kV丽一C101线","pubTranName":"泰和芙蓉苑3#公变,泰和茉莉苑2#公变,浙江汇德隆实业集团有限公司2#,变压器,泰和桂花苑1#公变,杭州萧山污水处理有限公司,泰和桂花苑2#公变,泰和百合苑2#公变,泰和海棠苑1#公变,万兴恒服务1#,嘉富广场1#公变,泰和芙蓉苑1#公变,嘉富广场4#公变,萧山市老年颐乐园2#,萧山市老年颐乐园1#,浙江汇德隆实业集团有限公司1#,嘉富广场2#公变,万兴恒服务2#,泰和茉莉苑1#公变,泰和芙蓉苑2#公变,泰和茉莉苑4#公变,嘉富广场3#公变,泰和百合苑1#公变,浙江汇德隆实业集团有限公司1#,泰和海棠苑2#公变,泰和牡丹苑2#公变,浙江汇德隆实业集团有限公司2#,泰和玫瑰苑2#公变,泰和茉莉苑3#公变,泰和玫瑰苑1#公变,泰和牡丹苑1#公变,泰和牡丹苑3#公变,","scope":"浙江省-杭州市-萧山区(新塘街道-泰和社区-高桥路,蜀山街道-戚家池社区-嘉富广场);浙江省-杭州市-萧山区-蜀山街道-戚家池社区-浙江汇德隆实业集团有限公司,北干街道(萧然社区-浙江万兴恒服务有限公司,北干二苑社区-浙江万兴恒服务有限公司),城厢街道(泰和社区-杭州萧山颐乐养老服务有限公司,高桥社区-杭州萧山污水处理有限公司)一带","startTime":"2020-01-17 13:54:07","stopDate":"2020-01-17 17:00:00","orgNo":"3340130","typeCode":"电网故障停限电","poweroffArea":"110kV丽都变:丽一C101线后段","poweroffReason":"高压开关跳闸 原停电结束时间为2020-01-17 19:54:07,为减少客户停电时间,加快工作进度,提前送电,现变更停电结束时间为2020-01-17 17:00:00","powerTime":"2020-01-17 16:18:23","powerComm":"已送电","subsNo":"","lineNo":"","tgNo":"","tgName":null,"infoStatus":"1","orgName":"国网浙江杭州市萧山区供电有限公司","typeName":null,"infoStatusName":null,"dateDay":null,"orgNos":null,"nowTime":null,"countyName":null,"streetName":null,"villageName":null,"roadName":null,"communityName":null,"tranName":null,"sdLineName":null,"cityCode":"3340130","cityName":"国网浙江杭州市萧山区供电有限公司","provinceCode":null,"stopTime":"2020-01-17 17:00:00","powerType":"全部","powerOffArea":"110kV丽都变:丽一C101线后段","powerOffReason":"高压开关跳闸 原停电结束时间为2020-01-17 19:54:07,为减少客户停电时间,加快工作进度,提前送电,现变更停电结束时间为2020-01-17 17:00:00","powerOffId":"2020011731020127"},{"poweroffId":2020011731020109,"sgpoweroffId":null,"subsName":"","lineName":"10kV珠村163线","pubTranName":"后浦村周家2号公变,","scope":"浙江省-杭州市-桐庐县-瑶琳镇-后浦行政村-大庙自然村外佛堂一带","startTime":"2020-01-17 12:33:31","stopDate":"2020-01-17 15:33:31","orgNo":"3340150","typeCode":"电网故障停限电","poweroffArea":"35kV瑶琳变:珠村163线-后浦村周家2号公变后段","poweroffReason":"(低压停电信息)低压开关跳闸","powerTime":"2020-01-17 15:14:02","powerComm":"已送电","subsNo":"","lineNo":"","tgNo":"","tgName":null,"infoStatus":"1","orgName":"国网浙江桐庐县供电公司","typeName":null,"infoStatusName":null,"dateDay":null,"orgNos":null,"nowTime":null,"countyName":null,"streetName":null,"villageName":null,"roadName":null,"communityName":null,"tranName":null,"sdLineName":null,"cityCode":"3340150","cityName":"国网浙江桐庐县供电公司","provinceCode":null,"stopTime":"2020-01-17 15:33:31","powerType":"全部","powerOffArea":"35kV瑶琳变:珠村163线-后浦村周家2号公变后段","powerOffReason":"(低压停电信息)低压开关跳闸","powerOffId":"2020011731020109"},{"poweroffId":2020011731020095,"sgpoweroffId":null,"subsName":"","lineName":"10kV丁农6895线","pubTranName":"颐园（一）,颐园（三）,","scope":"浙江省-杭州市-江干区-丁桥镇-丁桥社区-笕丁路,丁桥镇-丁兰社区(文二西路,蕙兰雅路,惠兰雅路)","startTime":"2020-01-17 11:08:00","stopDate":"2020-01-17 13:08:00","orgNo":"3340101","typeCode":"电网故障停限电","poweroffArea":"110kV丁桥变:丁农6895线颐园一站颐园一线后段","poweroffReason":"高压开关跳闸 原停电结束时间为2020-01-17 15:08:00,为减少客户停电时间,加快工作进度,提前送电,现变更停电结束时间为2020-01-17 13:08:00","powerTime":"2020-01-17 12:38:09","powerComm":"已送电","subsNo":"","lineNo":"","tgNo":"","tgName":null,"infoStatus":"1","orgName":"浙江杭州电力客户服务中心","typeName":null,"infoStatusName":null,"dateDay":null,"orgNos":null,"nowTime":null,"countyName":null,"streetName":null,"villageName":null,"roadName":null,"communityName":null,"tranName":null,"sdLineName":null,"cityCode":"3340101","cityName":"浙江杭州电力客户服务中心","provinceCode":null,"stopTime":"2020-01-17 13:08:00","powerType":"全部","powerOffArea":"110kV丁桥变:丁农6895线颐园一站颐园一线后段","powerOffReason":"高压开关跳闸 原停电结束时间为2020-01-17 15:08:00,为减少客户停电时间,加快工作进度,提前送电,现变更停电结束时间为2020-01-17 13:08:00","powerOffId":"2020011731020095"},{"poweroffId":2020011731020094,"sgpoweroffId":null,"subsName":"","lineName":"10kV丁农6895线","pubTranName":"颐园（七）,颐园（五）,","scope":"浙江省-杭州市-江干区-丁桥镇-丁兰社区(蕙兰雅路,惠兰雅路,文二西路)","startTime":"2020-01-17 11:08:00","stopDate":"2020-01-17 13:08:00","orgNo":"3340101","typeCode":"电网故障停限电","poweroffArea":"110kV丁桥变:丁农6895线颐园四站颐园三线后段","poweroffReason":"高压开关跳闸 原停电结束时间为2020-01-17 15:08:00,为减少客户停电时间,加快工作进度,提前送电,现变更停电结束时间为2020-01-17 13:08:00","powerTime":"2020-01-17 12:36:59","powerComm":"已送电","subsNo":"","lineNo":"","tgNo":"","tgName":null,"infoStatus":"1","orgName":"浙江杭州电力客户服务中心","typeName":null,"infoStatusName":null,"dateDay":null,"orgNos":null,"nowTime":null,"countyName":null,"streetName":null,"villageName":null,"roadName":null,"communityName":null,"tranName":null,"sdLineName":null,"cityCode":"3340101","cityName":"浙江杭州电力客户服务中心","provinceCode":null,"stopTime":"2020-01-17 13:08:00","powerType":"全部","powerOffArea":"110kV丁桥变:丁农6895线颐园四站颐园三线后段","powerOffReason":"高压开关跳闸 原停电结束时间为2020-01-17 15:08:00,为减少客户停电时间,加快工作进度,提前送电,现变更停电结束时间为2020-01-17 13:08:00","powerOffId":"2020011731020094"},{"poweroffId":2020011731020065,"sgpoweroffId":null,"subsName":"","lineName":"10kV方谷8180线","pubTranName":"马市二变,","scope":"浙江省-杭州市-上城区-小营街道(马市街社区-马市街,小营巷社区)","startTime":"2020-01-17 09:52:00","stopDate":"2020-01-17 11:30:00","orgNo":"3340101","typeCode":"电网故障停限电","poweroffArea":"110kV横河变:方谷8180线马市二变配变","poweroffReason":"高压开关跳闸 原停电结束时间为2020-01-17 11:52:00,为减少客户停电时间,加快工作进度,提前送电,现变更停电结束时间为2020-01-17 11:30:00","powerTime":"2020-01-17 10:55:08","powerComm":"已送电","subsNo":"","lineNo":"","tgNo":"","tgName":null,"infoStatus":"1","orgName":"浙江杭州电力客户服务中心","typeName":null,"infoStatusName":null,"dateDay":null,"orgNos":null,"nowTime":null,"countyName":null,"streetName":null,"villageName":null,"roadName":null,"communityName":null,"tranName":null,"sdLineName":null,"cityCode":"3340101","cityName":"浙江杭州电力客户服务中心","provinceCode":null,"stopTime":"2020-01-17 11:30:00","powerType":"全部","powerOffArea":"110kV横河变:方谷8180线马市二变配变","powerOffReason":"高压开关跳闸 原停电结束时间为2020-01-17 11:52:00,为减少客户停电时间,加快工作进度,提前送电,现变更停电结束时间为2020-01-17 11:30:00","powerOffId":"2020011731020065"},{"poweroffId":2020011731020052,"sgpoweroffId":null,"subsName":"","lineName":"10kV昌达H613线","pubTranName":"山西园4号公变,","scope":"浙江省-杭州市-余杭区-余杭街道-凤联社区-禹航路,余杭街道-南安社区(南安路,宝林西路,禹航路,山西园路,宝林路)","startTime":"2020-01-17 09:20:00","stopDate":"2020-01-17 10:20:00","orgNo":"3340140","typeCode":"电网故障停限电","poweroffArea":"110kV桃源变:昌达H613线-山西园4号公变后段","poweroffReason":"高压开关跳闸","powerTime":"2020-01-17 10:08:00","powerComm":"已送电","subsNo":"","lineNo":"","tgNo":"","tgName":null,"infoStatus":"1","orgName":"国网浙江杭州市余杭区供电有限公司","typeName":null,"infoStatusName":null,"dateDay":null,"orgNos":null,"nowTime":null,"countyName":null,"streetName":null,"villageName":null,"roadName":null,"communityName":null,"tranName":null,"sdLineName":null,"cityCode":"3340140","cityName":"国网浙江杭州市余杭区供电有限公司","provinceCode":null,"stopTime":"2020-01-17 10:20:00","powerType":"全部","powerOffArea":"110kV桃源变:昌达H613线-山西园4号公变后段","powerOffReason":"高压开关跳闸","powerOffId":"2020011731020052"},{"poweroffId":2020011731020049,"sgpoweroffId":null,"subsName":"","lineName":"10kV凤鸣252线","pubTranName":"邓家村2号公变,","scope":"浙江省-杭州市-桐庐县-江南镇-凤鸣行政村-邓家自然村","startTime":"2020-01-17 09:05:43","stopDate":"2020-01-17 11:05:43","orgNo":"3340150","typeCode":"电网故障停限电","poweroffArea":"110kV石阜变:凤鸣252线-邓家村2号公变后段","poweroffReason":"(低压停电信息)低压开关跳闸","powerTime":"2020-01-17 10:49:14","powerComm":"已送电","subsNo":"","lineNo":"","tgNo":"","tgName":null,"infoStatus":"1","orgName":"国网浙江桐庐县供电公司","typeName":null,"infoStatusName":null,"dateDay":null,"orgNos":null,"nowTime":null,"countyName":null,"streetName":null,"villageName":null,"roadName":null,"communityName":null,"tranName":null,"sdLineName":null,"cityCode":"3340150","cityName":"国网浙江桐庐县供电公司","provinceCode":null,"stopTime":"2020-01-17 11:05:43","powerType":"全部","powerOffArea":"110kV石阜变:凤鸣252线-邓家村2号公变后段","powerOffReason":"(低压停电信息)低压开关跳闸","powerOffId":"2020011731020049"},{"poweroffId":2020011731020046,"sgpoweroffId":null,"subsName":"","lineName":"10kV后珠6896线","pubTranName":"颐园（六）,","scope":"浙江省-杭州市-江干区-丁桥镇-丁兰社区-蕙兰雅路","startTime":"2020-01-17 08:58:00","stopDate":"2020-01-17 10:00:00","orgNo":"3340101","typeCode":"电网故障停限电","poweroffArea":"110kV丁桥变:后珠6896线颐园（六）配变","poweroffReason":"高压开关跳闸 原停电结束时间为2020-01-17 10:58:00,为减少客户停电时间,加快工作进度,提前送电,现变更停电结束时间为2020-01-17 10:00:00","powerTime":"2020-01-17 09:24:48","powerComm":"已送电","subsNo":"","lineNo":"","tgNo":"","tgName":null,"infoStatus":"1","orgName":"浙江杭州电力客户服务中心","typeName":null,"infoStatusName":null,"dateDay":null,"orgNos":null,"nowTime":null,"countyName":null,"streetName":null,"villageName":null,"roadName":null,"communityName":null,"tranName":null,"sdLineName":null,"cityCode":"3340101","cityName":"浙江杭州电力客户服务中心","provinceCode":null,"stopTime":"2020-01-17 10:00:00","powerType":"全部","powerOffArea":"110kV丁桥变:后珠6896线颐园（六）配变","powerOffReason":"高压开关跳闸 原停电结束时间为2020-01-17 10:58:00,为减少客户停电时间,加快工作进度,提前送电,现变更停电结束时间为2020-01-17 10:00:00","powerOffId":"2020011731020046"},{"poweroffId":2020011731020045,"sgpoweroffId":null,"subsName":"","lineName":"10kV丁农6895线","pubTranName":"颐园（二）,","scope":"浙江省-杭州市-江干区-丁桥镇-丁兰社区-蕙兰雅路","startTime":"2020-01-17 08:57:00","stopDate":"2020-01-17 10:00:00","orgNo":"3340101","typeCode":"电网故障停限电","poweroffArea":"110kV丁桥变:丁农6895线颐园（二）配变","poweroffReason":"高压开关跳闸 原停电结束时间为2020-01-17 10:57:00,为减少客户停电时间,加快工作进度,提前送电,现变更停电结束时间为2020-01-17 10:00:00","powerTime":"2020-01-17 09:22:14","powerComm":"已送电","subsNo":"","lineNo":"","tgNo":"","tgName":null,"infoStatus":"1","orgName":"浙江杭州电力客户服务中心","typeName":null,"infoStatusName":null,"dateDay":null,"orgNos":null,"nowTime":null,"countyName":null,"streetName":null,"villageName":null,"roadName":null,"communityName":null,"tranName":null,"sdLineName":null,"cityCode":"3340101","cityName":"浙江杭州电力客户服务中心","provinceCode":null,"stopTime":"2020-01-17 10:00:00","powerType":"全部","powerOffArea":"110kV丁桥变:丁农6895线颐园（二）配变","powerOffReason":"高压开关跳闸 原停电结束时间为2020-01-17 10:57:00,为减少客户停电时间,加快工作进度,提前送电,现变更停电结束时间为2020-01-17 10:00:00","powerOffId":"2020011731020045"},{"poweroffId":2020011731020043,"sgpoweroffId":null,"subsName":"","lineName":"10kV丁农6895线","pubTranName":"颐园（四）,","scope":"浙江省-杭州市-江干区-丁桥镇(丁兰社区-蕙兰雅路,丁桥社区-蕙兰雅路)","startTime":"2020-01-17 08:57:00","stopDate":"2020-01-17 10:00:00","orgNo":"3340101","typeCode":"电网故障停限电","poweroffArea":"110kV丁桥变:丁农6895线颐园（四）配变","poweroffReason":"高压开关跳闸 原停电结束时间为2020-01-17 10:57:00,为减少客户停电时间,加快工作进度,提前送电,现变更停电结束时间为2020-01-17 10:00:00","powerTime":"2020-01-17 09:23:42","powerComm":"已送电","subsNo":"","lineNo":"","tgNo":"","tgName":null,"infoStatus":"1","orgName":"浙江杭州电力客户服务中心","typeName":null,"infoStatusName":null,"dateDay":null,"orgNos":null,"nowTime":null,"countyName":null,"streetName":null,"villageName":null,"roadName":null,"communityName":null,"tranName":null,"sdLineName":null,"cityCode":"3340101","cityName":"浙江杭州电力客户服务中心","provinceCode":null,"stopTime":"2020-01-17 10:00:00","powerType":"全部","powerOffArea":"110kV丁桥变:丁农6895线颐园（四）配变","powerOffReason":"高压开关跳闸 原停电结束时间为2020-01-17 10:57:00,为减少客户停电时间,加快工作进度,提前送电,现变更停电结束时间为2020-01-17 10:00:00","powerOffId":"2020011731020043"}],"pageModel":{"pageNow":576,"totalCount":17789,"totalPage":1779,"tableRows":0,"pageCount":10,"beginCount":5750},"isExperi":"1"}