{"message":"","today":"2020-06-15","seleList":[{"poweroffId":2020011731020025,"sgpoweroffId":null,"subsName":"","lineName":"10kV东郊G104线","pubTranName":"木桥浜3号公变,","scope":"浙江省-杭州市-余杭区-临平街道-工农新村社区(朝阳西路,木桥浜路,保健路,北大街),临平街道(邱山社区-邱山,西大街社区-西大街)","startTime":"2020-01-17 07:31:00","stopDate":"2020-01-17 15:10:00","orgNo":"3340140","typeCode":"电网故障停限电","poweroffArea":"110kV临平变:东郊G104线-木桥浜3号公变后段","poweroffReason":"高压开关跳闸 原停电结束时间为2020-01-17 16:10:00,为减少客户停电时间,加快工作进度,提前送电,现变更停电结束时间为2020-01-17 15:10:00","powerTime":"2020-01-17 14:40:00","powerComm":"已送电","subsNo":"","lineNo":"","tgNo":"","tgName":null,"infoStatus":"1","orgName":"国网浙江杭州市余杭区供电有限公司","typeName":null,"infoStatusName":null,"dateDay":null,"orgNos":null,"nowTime":null,"countyName":null,"streetName":null,"villageName":null,"roadName":null,"communityName":null,"tranName":null,"sdLineName":null,"cityCode":"3340140","cityName":"国网浙江杭州市余杭区供电有限公司","provinceCode":null,"stopTime":"2020-01-17 15:10:00","powerType":"全部","powerOffArea":"110kV临平变:东郊G104线-木桥浜3号公变后段","powerOffReason":"高压开关跳闸 原停电结束时间为2020-01-17 16:10:00,为减少客户停电时间,加快工作进度,提前送电,现变更停电结束时间为2020-01-17 15:10:00","powerOffId":"2020011731020025"},{"poweroffId":2020011731020013,"sgpoweroffId":null,"subsName":"","lineName":"10kV张斗G941线","pubTranName":"华惠2#专变,华贝纳1#,兴达物流II段（6120859230）02#专变,赛诺菲,3#,工农农居点9号公变,320国道兴达路灯变,5#,华惠4#公变,工农村五组公变,杭州晶映电器有限公司,6#,工农农居点11号公变,移动公司2#基站,杭州市开发投资有限公司,杨市河北港,工农农居点3-1#公变,工农农居点3-2#公变,工农农居点10号公变,4#,华惠3#公变,工农农居点6#公变,工农农居点1号公变,华贝纳2#,工农村张斗河公变,工农农居点4#公变,1#,华隆丝绸2#,豪悦护理基建（6120867852）01#专变,工农农居点5#公变,季丰服饰,工农村三联公变,工农农居点2#公变,亭趾变所用变,","scope":"浙江省-杭州市-余杭区-东湖街道-横塘社区-新丝路,东湖街道-工农行政村(工农自然村,红丰路,双美嘉苑),东湖街道-工农社区(双美嘉苑,红丰路,工农自然村);东湖街道-经济开发区(中国铁塔股份有限公司杭州市分公司,杭州市余杭区河道建设管理中心,杭州季丰实业有限公司,杭州市余杭区城市管理综合行政执法局,浙江华隆丝绸有限公司,杭州豪悦护理用品股份有限公司),东湖街道(工农社区-杭州市开发投资有限公司,塘湾社区-浙江晶映科技有限公司,红旗社区-杭州民生健康药业有限公司,胡桥行政村-华贝纳(杭州)毛纺染整有限公司,横塘社区-浙江兴达物流有限公司),运河街道-亭趾社区-余杭供电局,临平街道-红丰社区-杭州晨峰物业服务有限公司","startTime":"2020-01-17 04:15:00","stopDate":"2020-01-17 07:15:00","orgNo":"3340140","typeCode":"电网故障停限电","poweroffArea":"110kV亭趾变:张斗G941线","poweroffReason":"高压开关跳闸","powerTime":"2020-01-17 06:30:43","powerComm":"已送电","subsNo":"","lineNo":"","tgNo":"","tgName":null,"infoStatus":"1","orgName":"国网浙江杭州市余杭区供电有限公司","typeName":null,"infoStatusName":null,"dateDay":null,"orgNos":null,"nowTime":null,"countyName":null,"streetName":null,"villageName":null,"roadName":null,"communityName":null,"tranName":null,"sdLineName":null,"cityCode":"3340140","cityName":"国网浙江杭州市余杭区供电有限公司","provinceCode":null,"stopTime":"2020-01-17 07:15:00","powerType":"全部","powerOffArea":"110kV亭趾变:张斗G941线","powerOffReason":"高压开关跳闸","powerOffId":"2020011731020013"},{"poweroffId":2020011731020012,"sgpoweroffId":null,"subsName":"","lineName":"110kV山炬9520线","pubTranName":"田里坞,火炬二变,","scope":"浙江省-杭州市-滨江区-浦沿街道(杨家墩社区-浦沿路,岩大房社区-火炬大道)","startTime":"2020-01-17 04:15:55","stopDate":"2020-01-17 05:15:00","orgNo":"3340101","typeCode":"电网故障停限电","poweroffArea":"110kV冠山变:山炬9520线田里坞配变，火炬二变","poweroffReason":"高压开关跳闸","powerTime":"2020-01-17 04:40:12","powerComm":"已送电","subsNo":"","lineNo":"","tgNo":"","tgName":null,"infoStatus":"1","orgName":"浙江杭州电力客户服务中心","typeName":null,"infoStatusName":null,"dateDay":null,"orgNos":null,"nowTime":null,"countyName":null,"streetName":null,"villageName":null,"roadName":null,"communityName":null,"tranName":null,"sdLineName":null,"cityCode":"3340101","cityName":"浙江杭州电力客户服务中心","provinceCode":null,"stopTime":"2020-01-17 05:15:00","powerType":"全部","powerOffArea":"110kV冠山变:山炬9520线田里坞配变，火炬二变","powerOffReason":"高压开关跳闸","powerOffId":"2020011731020012"},{"poweroffId":2020011731020011,"sgpoweroffId":null,"subsName":"","lineName":"10kV山炬9520线","pubTranName":"火炬二变,","scope":"浙江省-杭州市-滨江区-浦沿街道-岩大房社区-火炬大道","startTime":"2020-01-17 04:13:06","stopDate":"2020-01-17 05:15:00","orgNo":"3340101","typeCode":"电网故障停限电","poweroffArea":"110kV冠山变:山炬9520线火炬二变配变","poweroffReason":"高压开关跳闸","powerTime":"2020-01-17 04:33:57","powerComm":"已送电","subsNo":"","lineNo":"","tgNo":"","tgName":null,"infoStatus":"1","orgName":"浙江杭州电力客户服务中心","typeName":null,"infoStatusName":null,"dateDay":null,"orgNos":null,"nowTime":null,"countyName":null,"streetName":null,"villageName":null,"roadName":null,"communityName":null,"tranName":null,"sdLineName":null,"cityCode":"3340101","cityName":"浙江杭州电力客户服务中心","provinceCode":null,"stopTime":"2020-01-17 05:15:00","powerType":"全部","powerOffArea":"110kV冠山变:山炬9520线火炬二变配变","powerOffReason":"高压开关跳闸","powerOffId":"2020011731020011"},{"poweroffId":2020011631020126,"sgpoweroffId":null,"subsName":"","lineName":"10kV毛岭R962线","pubTranName":"湖坑,","scope":"浙江省-杭州市-淳安县-千岛湖镇-青溪行政村(湖坑自然村,明湖自然村)","startTime":"2020-01-17 08:30:00","stopDate":"2020-01-17 15:00:00","orgNo":"3340190","typeCode":"临时停电","poweroffArea":"35kV千黄二变:毛岭R962线-湖坑支线0号杆开关后段","poweroffReason":"1,10KV望湖R962线43号至44号杆导线拆除2,望湖R962线43号至44号杆电缆上杆,搭接","powerTime":"2020-01-17 14:18:47","powerComm":"已送电","subsNo":"","lineNo":"","tgNo":"","tgName":null,"infoStatus":"1","orgName":"国网浙江淳安县供电有限公司","typeName":null,"infoStatusName":null,"dateDay":null,"orgNos":null,"nowTime":null,"countyName":null,"streetName":null,"villageName":null,"roadName":null,"communityName":null,"tranName":null,"sdLineName":null,"cityCode":"3340190","cityName":"国网浙江淳安县供电有限公司","provinceCode":null,"stopTime":"2020-01-17 15:00:00","powerType":"全部","powerOffArea":"35kV千黄二变:毛岭R962线-湖坑支线0号杆开关后段","powerOffReason":"1,10KV望湖R962线43号至44号杆导线拆除2,望湖R962线43号至44号杆电缆上杆,搭接","powerOffId":"2020011631020126"},{"poweroffId":2020011631020080,"sgpoweroffId":null,"subsName":"","lineName":"10kV百姓G766线","pubTranName":"中铁逸都二期6120828526I段1#专变,逸都花苑6#公变,逸都花苑8#公变,莲园3号公变,莲园8号公变,中铁九逸4#公变,合丰花苑6#公变,中铁九逸3#公变,中铁九逸1#公变,中铁九逸7#公变,中铁九逸2#公变,合丰花苑4#公变,莲园6号公变,逸都花苑4#公变,合丰花苑8#公变,合丰花苑7#公变,1#,逸都花苑3#公变,合丰花苑1#公变,销颖房地产I段（6120892668）03#专变,1#,合丰花苑2#公变,莲园4号公变,销颖房地产I段（6120892668）01#专变,逸都花苑7#公变,莲园7号公变,莲园2号公变,1#,合丰花苑3#公变,逸都花苑1#公变,中铁九逸5#公变,中铁九逸8#公变,莲园1号公变,合丰花苑5#公变,逸都花苑2#公变,莲园5号公变,2#,2#,中铁九逸6#公变,逸都花苑5#公变,","scope":"浙江省-杭州市-余杭区-经济开发区-禾丰社区(天荷路,汀洲路),东湖街道-荷花塘社区-汀洲路,临平街道-北沙社区-北沙西路;经济开发区(杭州利人物业管理有限公司,北京中铁第一太平物业服务有限公司杭州分公司),东湖街道(北京中铁第一太平物业服务有限公司杭州分公司,绿城物业服务集团有限公司杭州第六分公司,杭州销颖房地产开发有限公司)","startTime":"2020-01-16 14:03:00","stopDate":"2020-01-16 16:00:00","orgNo":"3340140","typeCode":"电网故障停限电","poweroffArea":"110kV金家变:百姓G766线九逸开关站九逸开关站百姓G766线后段","poweroffReason":"高压开关跳闸 原停电结束时间为2020-01-16 16:30:00,为减少客户停电时间,加快工作进度,提前送电,现变更停电结束时间为2020-01-16 16:00:00","powerTime":"2020-01-16 15:20:00","powerComm":"已送电","subsNo":"","lineNo":"","tgNo":"","tgName":null,"infoStatus":"1","orgName":"国网浙江杭州市余杭区供电有限公司","typeName":null,"infoStatusName":null,"dateDay":null,"orgNos":null,"nowTime":null,"countyName":null,"streetName":null,"villageName":null,"roadName":null,"communityName":null,"tranName":null,"sdLineName":null,"cityCode":"3340140","cityName":"国网浙江杭州市余杭区供电有限公司","provinceCode":null,"stopTime":"2020-01-16 16:00:00","powerType":"全部","powerOffArea":"110kV金家变:百姓G766线九逸开关站九逸开关站百姓G766线后段","powerOffReason":"高压开关跳闸 原停电结束时间为2020-01-16 16:30:00,为减少客户停电时间,加快工作进度,提前送电,现变更停电结束时间为2020-01-16 16:00:00","powerOffId":"2020011631020080"},{"poweroffId":2020011631020074,"sgpoweroffId":null,"subsName":"","lineName":"10kV鹿山D352线","pubTranName":"肖邦二期2#公变,","scope":"浙江省-杭州市-富阳区-富春街道(鹿山社区-天河路,城西社区-西环路)","startTime":"2020-01-16 13:39:02","stopDate":"2020-01-16 14:39:02","orgNo":"3340170","typeCode":"电网故障停限电","poweroffArea":"110kV富鹿变:鹿山D352线-肖邦二期2#公变后段","poweroffReason":"高压开关跳闸","powerTime":"2020-01-16 14:05:58","powerComm":"已送电","subsNo":"","lineNo":"","tgNo":"","tgName":null,"infoStatus":"1","orgName":"国网浙江杭州市富阳区供电公司","typeName":null,"infoStatusName":null,"dateDay":null,"orgNos":null,"nowTime":null,"countyName":null,"streetName":null,"villageName":null,"roadName":null,"communityName":null,"tranName":null,"sdLineName":null,"cityCode":"3340170","cityName":"国网浙江杭州市富阳区供电公司","provinceCode":null,"stopTime":"2020-01-16 14:39:02","powerType":"全部","powerOffArea":"110kV富鹿变:鹿山D352线-肖邦二期2#公变后段","powerOffReason":"高压开关跳闸","powerOffId":"2020011631020074"},{"poweroffId":2020011631020073,"sgpoweroffId":null,"subsName":"","lineName":"10kV交通D364线","pubTranName":"肖邦二期3#公变,","scope":"浙江省-杭州市-富阳区-富春街道-鹿山社区-天河路,富春街道-城西社区(西环路,天河路)","startTime":"2020-01-16 13:38:03","stopDate":"2020-01-16 14:38:03","orgNo":"3340170","typeCode":"电网故障停限电","poweroffArea":"110kV富鹿变:交通D364线-肖邦二期3#公变后段","poweroffReason":"高压开关跳闸","powerTime":"2020-01-16 14:05:33","powerComm":"已送电","subsNo":"","lineNo":"","tgNo":"","tgName":null,"infoStatus":"1","orgName":"国网浙江杭州市富阳区供电公司","typeName":null,"infoStatusName":null,"dateDay":null,"orgNos":null,"nowTime":null,"countyName":null,"streetName":null,"villageName":null,"roadName":null,"communityName":null,"tranName":null,"sdLineName":null,"cityCode":"3340170","cityName":"国网浙江杭州市富阳区供电公司","provinceCode":null,"stopTime":"2020-01-16 14:38:03","powerType":"全部","powerOffArea":"110kV富鹿变:交通D364线-肖邦二期3#公变后段","powerOffReason":"高压开关跳闸","powerOffId":"2020011631020073"},{"poweroffId":2020011631020068,"sgpoweroffId":null,"subsName":"","lineName":"10kV大安G831线","pubTranName":"杭州佑强实业有限公司611100421901#专变,五星包装,","scope":"浙江省-杭州市-余杭区-崇贤街道-大安行政村-杭州佑强实业有限公司","startTime":"2020-01-16 13:16:00","stopDate":"2020-01-16 17:10:00","orgNo":"3340140","typeCode":"电网故障停限电","poweroffArea":"110kV北庄变:大安G831线-五星包装分线开关后段","poweroffReason":"高压开关跳闸","powerTime":"2020-01-16 16:55:02","powerComm":"已送电","subsNo":"","lineNo":"","tgNo":"","tgName":null,"infoStatus":"1","orgName":"国网浙江杭州市余杭区供电有限公司","typeName":null,"infoStatusName":null,"dateDay":null,"orgNos":null,"nowTime":null,"countyName":null,"streetName":null,"villageName":null,"roadName":null,"communityName":null,"tranName":null,"sdLineName":null,"cityCode":"3340140","cityName":"国网浙江杭州市余杭区供电有限公司","provinceCode":null,"stopTime":"2020-01-16 17:10:00","powerType":"全部","powerOffArea":"110kV北庄变:大安G831线-五星包装分线开关后段","powerOffReason":"高压开关跳闸","powerOffId":"2020011631020068"},{"poweroffId":2020011631020049,"sgpoweroffId":null,"subsName":"","lineName":"10kV俞赵T121线","pubTranName":"金慧达水泥制品厂,俞家4号公变,杭州金慧达集团有限公司,","scope":"浙江省-杭州市-桐庐县-富春江镇-俞赵行政村(俞赵自然村,俞家自然村,新江自然村);富春江镇-杭州金慧达集团有限公司","startTime":"2020-01-16 10:42:00","stopDate":"2020-01-16 12:30:00","orgNo":"3340150","typeCode":"电网故障停限电","poweroffArea":"110kV外董变:俞赵T121线电杆F8006开关后段","poweroffReason":"高压开关跳闸","powerTime":"2020-01-16 12:00:57","powerComm":"已送电","subsNo":"","lineNo":"","tgNo":"","tgName":null,"infoStatus":"1","orgName":"国网浙江桐庐县供电公司","typeName":null,"infoStatusName":null,"dateDay":null,"orgNos":null,"nowTime":null,"countyName":null,"streetName":null,"villageName":null,"roadName":null,"communityName":null,"tranName":null,"sdLineName":null,"cityCode":"3340150","cityName":"国网浙江桐庐县供电公司","provinceCode":null,"stopTime":"2020-01-16 12:30:00","powerType":"全部","powerOffArea":"110kV外董变:俞赵T121线电杆F8006开关后段","powerOffReason":"高压开关跳闸","powerOffId":"2020011631020049"}],"pageModel":{"pageNow":577,"totalCount":17789,"totalPage":1779,"tableRows":0,"pageCount":10,"beginCount":5760},"isExperi":"1"}