{"message":"","today":"2020-06-15","seleList":[{"poweroffId":2020011631020037,"sgpoweroffId":null,"subsName":"","lineName":"10kV洋塘T101线","pubTranName":"西武山村2号公变,","scope":"浙江省-杭州市-桐庐县-旧县街道-西武山行政村-西武山自然村","startTime":"2020-01-16 09:50:54","stopDate":"2020-01-16 11:50:54","orgNo":"3340150","typeCode":"电网故障停限电","poweroffArea":"110kV桐庐变:洋塘T101线-西武山村2号公变后段","poweroffReason":"(低压停电信息)低压开关跳闸","powerTime":"2020-01-16 11:20:02","powerComm":"已送电","subsNo":"","lineNo":"","tgNo":"","tgName":null,"infoStatus":"1","orgName":"国网浙江桐庐县供电公司","typeName":null,"infoStatusName":null,"dateDay":null,"orgNos":null,"nowTime":null,"countyName":null,"streetName":null,"villageName":null,"roadName":null,"communityName":null,"tranName":null,"sdLineName":null,"cityCode":"3340150","cityName":"国网浙江桐庐县供电公司","provinceCode":null,"stopTime":"2020-01-16 11:50:54","powerType":"全部","powerOffArea":"110kV桐庐变:洋塘T101线-西武山村2号公变后段","powerOffReason":"(低压停电信息)低压开关跳闸","powerOffId":"2020011631020037"},{"poweroffId":2020011631020033,"sgpoweroffId":null,"subsName":"","lineName":"10kV绕村9942线","pubTranName":"久泰,中铁施,陈洪兴,废品再生,华经社,双金,","scope":"浙江省-杭州市-西湖区-三墩镇-华联社区-华联行政村","startTime":"2020-01-16 09:13:00","stopDate":"2020-01-16 10:30:00","orgNo":"3340101","typeCode":"电网故障停限电","poweroffArea":"110kV墩北变:绕村9942线华联九站华联七九线后段","poweroffReason":"高压开关跳闸 原停电结束时间为2020-01-16 11:13:00,为减少客户停电时间,加快工作进度,提前送电,现变更停电结束时间为2020-01-16 10:30:00","powerTime":"2020-01-16 09:43:30","powerComm":"已送电","subsNo":"","lineNo":"","tgNo":"","tgName":null,"infoStatus":"1","orgName":"浙江杭州电力客户服务中心","typeName":null,"infoStatusName":null,"dateDay":null,"orgNos":null,"nowTime":null,"countyName":null,"streetName":null,"villageName":null,"roadName":null,"communityName":null,"tranName":null,"sdLineName":null,"cityCode":"3340101","cityName":"浙江杭州电力客户服务中心","provinceCode":null,"stopTime":"2020-01-16 10:30:00","powerType":"全部","powerOffArea":"110kV墩北变:绕村9942线华联九站华联七九线后段","powerOffReason":"高压开关跳闸 原停电结束时间为2020-01-16 11:13:00,为减少客户停电时间,加快工作进度,提前送电,现变更停电结束时间为2020-01-16 10:30:00","powerOffId":"2020011631020033"},{"poweroffId":2020011631020024,"sgpoweroffId":null,"subsName":"","lineName":"10kV彩虹D550线","pubTranName":"防疫站公变,","scope":"浙江省-杭州市-富阳区-富春街道-秋月社区(春秋北路,苋浦西路)","startTime":"2020-01-16 09:01:46","stopDate":"2020-01-16 11:01:46","orgNo":"3340170","typeCode":"电网故障停限电","poweroffArea":"110kV春江变:彩虹D550线-防疫站公变后段","poweroffReason":"高压开关跳闸","powerTime":"2020-01-16 10:44:41","powerComm":"已送电","subsNo":"","lineNo":"","tgNo":"","tgName":null,"infoStatus":"1","orgName":"国网浙江杭州市富阳区供电公司","typeName":null,"infoStatusName":null,"dateDay":null,"orgNos":null,"nowTime":null,"countyName":null,"streetName":null,"villageName":null,"roadName":null,"communityName":null,"tranName":null,"sdLineName":null,"cityCode":"3340170","cityName":"国网浙江杭州市富阳区供电公司","provinceCode":null,"stopTime":"2020-01-16 11:01:46","powerType":"全部","powerOffArea":"110kV春江变:彩虹D550线-防疫站公变后段","powerOffReason":"高压开关跳闸","powerOffId":"2020011631020024"},{"poweroffId":2020011631020019,"sgpoweroffId":null,"subsName":"","lineName":"10kV鸿新C920线","pubTranName":"同兴村24#变,","scope":"浙江省-杭州市-萧山区-新街镇-新街街道-同兴行政村-同兴自然村，浙江省杭州市萧山区新街街道同心村（红星C920线）等一带","startTime":"2020-01-16 08:20:06","stopDate":"2020-01-16 15:50:06","orgNo":"3340130","typeCode":"电网故障停限电","poweroffArea":"110kV鸿达变:鸿新C920线-同兴村24#变台区低压开关","poweroffReason":"(低压停电信息)低压漏电保护器短路故障 原停电结束时间为2020-01-16 10:27:06,因抢修工作难度大原因,现变更停电结束时间为2020-01-16 15:50:06","powerTime":"2020-01-16 14:54:25","powerComm":"已送电","subsNo":"","lineNo":"","tgNo":"","tgName":null,"infoStatus":"1","orgName":"国网浙江杭州市萧山区供电有限公司","typeName":null,"infoStatusName":null,"dateDay":null,"orgNos":null,"nowTime":null,"countyName":null,"streetName":null,"villageName":null,"roadName":null,"communityName":null,"tranName":null,"sdLineName":null,"cityCode":"3340130","cityName":"国网浙江杭州市萧山区供电有限公司","provinceCode":null,"stopTime":"2020-01-16 15:50:06","powerType":"全部","powerOffArea":"110kV鸿达变:鸿新C920线-同兴村24#变台区低压开关","powerOffReason":"(低压停电信息)低压漏电保护器短路故障 原停电结束时间为2020-01-16 10:27:06,因抢修工作难度大原因,现变更停电结束时间为2020-01-16 15:50:06","powerOffId":"2020011631020019"},{"poweroffId":2020011631020012,"sgpoweroffId":null,"subsName":"","lineName":"10kV丝化C377线","pubTranName":"红山农场五分场2#公变,","scope":"浙江省-杭州市-萧山区-新街镇-新街街道-红山农场-同德社区(北锋路,五分场)、浙江省杭州市萧山区红山农场同德社区五分场7号等一带","startTime":"2020-01-16 07:27:44","stopDate":"2020-01-16 09:27:44","orgNo":"3340130","typeCode":"电网故障停限电","poweroffArea":"110kV红山变:丝化C377线-红山农场五分场2#公变台区低压开关","poweroffReason":"(低压停电信息)低压漏电保护器短路故障","powerTime":"2020-01-16 08:45:25","powerComm":"已送电","subsNo":"","lineNo":"","tgNo":"","tgName":null,"infoStatus":"1","orgName":"国网浙江杭州市萧山区供电有限公司","typeName":null,"infoStatusName":null,"dateDay":null,"orgNos":null,"nowTime":null,"countyName":null,"streetName":null,"villageName":null,"roadName":null,"communityName":null,"tranName":null,"sdLineName":null,"cityCode":"3340130","cityName":"国网浙江杭州市萧山区供电有限公司","provinceCode":null,"stopTime":"2020-01-16 09:27:44","powerType":"全部","powerOffArea":"110kV红山变:丝化C377线-红山农场五分场2#公变台区低压开关","powerOffReason":"(低压停电信息)低压漏电保护器短路故障","powerOffId":"2020011631020012"},{"poweroffId":2020011531020171,"sgpoweroffId":null,"subsName":"","lineName":"10kV潼江C632线","pubTranName":"临一村7#变,杭州民盛建设工程有限公司,杭州萧山潼江化工厂,杭州华利铸造有限公司1#配变,旭日染整,淀粉厂,下桥排灌,临一村9#变,杭州梦杰电器厂,肖山万达塑胶,杭州萧山临浦生生电炉厂,杭州华利铸造有限公司2#配变,临一村3#变,信用社,傅氏机械,欧邦照明,杭州祥发工艺鞋厂,杭州萧山浦阳江建设开发有限公司,南江村8#变,格兰多铝业,南江村7#变,消防化工,杭州萧山浦阳江建设开发有限公司,杭州萧山浦阳江建设开发有限公司,南江村6#变,冷拉型钢,三通,方兴种猪,临一村12#变,杭州萧山华乐鞋业有限公司,皮革机械,临一村4#变,临浦镇新港村10#变,临一村11#变,杭州市萧山区临浦镇人民政府（下桥机埠）2#,临一村6#变,公路段,临一村10#变,临一村1#变,装饰装璜,","scope":"浙江省-杭州市-萧山区-临浦镇-新港行政村-桥南自然村,临浦镇-南江行政村(陈家塘自然村,江沿自然村),临浦镇-临一行政村(潼江里自然村,塘郎姚自然村,施家闸自然村,沈家门自然村,下桥自然村,从塘自然村,上桥自然村);临浦镇-南江行政村(杭州萧山旭日染整机械有限公司,杭州友龙实业有限公司,杭州欧邦照明电器有限公司,杭州萧山华乐鞋业有限公司,杭州民盛建设工程有限公司),临浦镇-新港行政村(杭州市萧山区公路管理处,杭州萧山三通水泥制品厂,浙江萧山农村商业银行股份有限公司,杭州萧山华明淀粉有限公司,杭州萧山临浦镇装饰装璜五金厂,杭州萧山临浦冷拉型钢有限公司,杭州梦杰电器厂,杭州萧山前进皮革纸业机械有限公司,杭州萧山临浦生生电炉厂),临浦镇-临一行政村(杭州市萧山区临浦镇人民政府,杭州萧山潼江化工厂,杭州萧山天一化工有限公司,杭州格兰多铝业有限公司,杭州方兴种猪有限公司,杭州傅氏机械铸造厂,杭州萧山浦阳江建设开发有限公司),临浦镇(通一行政村-杭州华利铸造有限公司,浦南行政村-杭州祥胜鞋业有限公司)一带","startTime":"2020-01-15 21:54:50","stopDate":"2020-01-16 01:30:50","orgNo":"3340130","typeCode":"电网故障停限电","poweroffArea":"110kV临浦变:潼江C632线-潼江C632线詹家开南江临一分线开关后段","poweroffReason":"高压柱上断路器短路故障 原停电结束时间为2020-01-16 02:00:50,为减少客户停电时间,加快工作进度,提前送电,现变更停电结束时间为2020-01-16 01:30:50","powerTime":"2020-01-16 00:45:05","powerComm":"已送电","subsNo":"","lineNo":"","tgNo":"","tgName":null,"infoStatus":"1","orgName":"国网浙江杭州市萧山区供电有限公司","typeName":null,"infoStatusName":null,"dateDay":null,"orgNos":null,"nowTime":null,"countyName":null,"streetName":null,"villageName":null,"roadName":null,"communityName":null,"tranName":null,"sdLineName":null,"cityCode":"3340130","cityName":"国网浙江杭州市萧山区供电有限公司","provinceCode":null,"stopTime":"2020-01-16 01:30:50","powerType":"全部","powerOffArea":"110kV临浦变:潼江C632线-潼江C632线詹家开南江临一分线开关后段","powerOffReason":"高压柱上断路器短路故障 原停电结束时间为2020-01-16 02:00:50,为减少客户停电时间,加快工作进度,提前送电,现变更停电结束时间为2020-01-16 01:30:50","powerOffId":"2020011531020171"},{"poweroffId":2020011531020169,"sgpoweroffId":null,"subsName":"","lineName":"10kV东区Y204线","pubTranName":"金山湾2#公变,","scope":"浙江省-杭州市-建德市-新安江街道 府东社区-康安路,健安社区-健康南路 国信路一带用户","startTime":"2020-01-15 20:40:00","stopDate":"2020-01-15 22:00:00","orgNo":"3340180","typeCode":"电网故障停限电","poweroffArea":"110kV白沙变:东区Y204线-金山湾2#公变后段","poweroffReason":"(低压停电信息)低压开关跳闸","powerTime":"2020-01-15 21:19:09","powerComm":"已送电","subsNo":"","lineNo":"","tgNo":"","tgName":null,"infoStatus":"1","orgName":"国网浙江建德市供电有限公司","typeName":null,"infoStatusName":null,"dateDay":null,"orgNos":null,"nowTime":null,"countyName":null,"streetName":null,"villageName":null,"roadName":null,"communityName":null,"tranName":null,"sdLineName":null,"cityCode":"3340180","cityName":"国网浙江建德市供电有限公司","provinceCode":null,"stopTime":"2020-01-15 22:00:00","powerType":"全部","powerOffArea":"110kV白沙变:东区Y204线-金山湾2#公变后段","powerOffReason":"(低压停电信息)低压开关跳闸","powerOffId":"2020011531020169"},{"poweroffId":2020011531020164,"sgpoweroffId":null,"subsName":"","lineName":"10kV勤丰D222线","pubTranName":"高桥村18号马塘桥西上公变,","scope":"浙江省-杭州市-富阳区-银湖街道-高桥行政村(马塘桥自然村,高桥西路,合丰自然村,高新路,高桥自然村)","startTime":"2020-01-15 19:35:01","stopDate":"2020-01-15 20:35:01","orgNo":"3340170","typeCode":"电网故障停限电","poweroffArea":"110kV银湖变:勤丰D222线-高桥村18号马塘桥西上公变后段","poweroffReason":"高压开关跳闸","powerTime":"2020-01-15 20:20:07","powerComm":"已送电","subsNo":"","lineNo":"","tgNo":"","tgName":null,"infoStatus":"1","orgName":"国网浙江杭州市富阳区供电公司","typeName":null,"infoStatusName":null,"dateDay":null,"orgNos":null,"nowTime":null,"countyName":null,"streetName":null,"villageName":null,"roadName":null,"communityName":null,"tranName":null,"sdLineName":null,"cityCode":"3340170","cityName":"国网浙江杭州市富阳区供电公司","provinceCode":null,"stopTime":"2020-01-15 20:35:01","powerType":"全部","powerOffArea":"110kV银湖变:勤丰D222线-高桥村18号马塘桥西上公变后段","powerOffReason":"高压开关跳闸","powerOffId":"2020011531020164"},{"poweroffId":2020011531020153,"sgpoweroffId":null,"subsName":"","lineName":"10kV胜峰T335线","pubTranName":"板头村3号公变,","scope":"浙江省-杭州市-桐庐县-横村镇-横村行政村-富乐自然村,横村镇-板头行政村(板头自然村,木桥头自然村)","startTime":"2020-01-15 17:51:56","stopDate":"2020-01-15 20:52:33","orgNo":"3340150","typeCode":"电网故障停限电","poweroffArea":"110kV横村变:胜峰T335线-板头村3号公变后段","poweroffReason":"(低压停电信息)低压开关跳闸","powerTime":"2020-01-15 20:19:43","powerComm":"已送电","subsNo":"","lineNo":"","tgNo":"","tgName":null,"infoStatus":"1","orgName":"国网浙江桐庐县供电公司","typeName":null,"infoStatusName":null,"dateDay":null,"orgNos":null,"nowTime":null,"countyName":null,"streetName":null,"villageName":null,"roadName":null,"communityName":null,"tranName":null,"sdLineName":null,"cityCode":"3340150","cityName":"国网浙江桐庐县供电公司","provinceCode":null,"stopTime":"2020-01-15 20:52:33","powerType":"全部","powerOffArea":"110kV横村变:胜峰T335线-板头村3号公变后段","powerOffReason":"(低压停电信息)低压开关跳闸","powerOffId":"2020011531020153"},{"poweroffId":2020011531020152,"sgpoweroffId":null,"subsName":"","lineName":"10kV四围A492线","pubTranName":"新发村7#变,","scope":"浙江省-杭州市-萧山区-益农镇-新发行政村-新发自然村、新发行政村新发自然村四围垦、益农镇四围垦一带","startTime":"2020-01-15 17:35:09","stopDate":"2020-01-15 20:10:09","orgNo":"3340130","typeCode":"电网故障停限电","poweroffArea":"110kV群围变:四围A492线-新发村7#变台区低压开关","poweroffReason":"(低压停电信息)低压架空导线断线故障 原停电结束时间为2020-01-15 21:30:09,为减少客户停电时间,加快工作进度,提前送电,现变更停电结束时间为2020-01-15 20:10:09","powerTime":"2020-01-15 19:25:59","powerComm":"已送电","subsNo":"","lineNo":"","tgNo":"","tgName":null,"infoStatus":"1","orgName":"国网浙江杭州市萧山区供电有限公司","typeName":null,"infoStatusName":null,"dateDay":null,"orgNos":null,"nowTime":null,"countyName":null,"streetName":null,"villageName":null,"roadName":null,"communityName":null,"tranName":null,"sdLineName":null,"cityCode":"3340130","cityName":"国网浙江杭州市萧山区供电有限公司","provinceCode":null,"stopTime":"2020-01-15 20:10:09","powerType":"全部","powerOffArea":"110kV群围变:四围A492线-新发村7#变台区低压开关","powerOffReason":"(低压停电信息)低压架空导线断线故障 原停电结束时间为2020-01-15 21:30:09,为减少客户停电时间,加快工作进度,提前送电,现变更停电结束时间为2020-01-15 20:10:09","powerOffId":"2020011531020152"}],"pageModel":{"pageNow":578,"totalCount":17789,"totalPage":1779,"tableRows":0,"pageCount":10,"beginCount":5770},"isExperi":"1"}