{"message":"","today":"2020-06-15","seleList":[{"poweroffId":2020061431020371,"sgpoweroffId":null,"subsName":"","lineName":"10kV振邦A074线","pubTranName":"浙江天森装饰材料有限公司,1#电机,1#变,浙江诗歆家纺科技有限公司2#,杭州今仁家具制造有限公司,杭州今仁家具制造有限公司2#,1#变,杭州协成纺织品有限公司,展旺（杭州）食品有限公司,2#电机,浙江诗歆家纺科技有限公司3#,不二家(杭州)食品有限公司变压器,杭州市萧山区瓜沥镇人民政府,浙江蓝贝车业有限公司,杭州亚都食品有限公司萧山分公司,","scope":"浙江省-杭州市-萧山区-瓜沥镇(杭州今仁家具制造有限公司,杭州市萧山区瓜沥镇人民政府,浙江蓝贝车业有限公司,杭州协成纺织品有限公司,展旺(杭州)食品有限公司,杭州亚都食品有限公司萧山分公司,浙江诗歆家纺科技有限公司,不二家(杭州)食品有限公司,浙江天森装饰材料有限公司,杭州银彩食品有限公司)、瓜沥镇临港东路顺丰配送中心等","startTime":"2020-06-14 23:37:00","stopDate":"2020-06-15 01:30:00","orgNo":"3340130","typeCode":"电网故障停限电","poweroffArea":"110kV航坞变:振邦A074线振邦A0741开关后段","poweroffReason":"高压柱上断路器跳闸 原停电结束时间为2020-06-15 02:37:00,为减少客户停电时间,加快工作进度,提前送电,现变更停电结束时间为2020-06-15 01:30:00","powerTime":"2020-06-15 00:42:38","powerComm":"已送电","subsNo":"","lineNo":"","tgNo":"","tgName":null,"infoStatus":"1","orgName":"国网浙江杭州市萧山区供电有限公司","typeName":null,"infoStatusName":null,"dateDay":null,"orgNos":null,"nowTime":null,"countyName":null,"streetName":null,"villageName":null,"roadName":null,"communityName":null,"tranName":null,"sdLineName":null,"cityCode":"3340130","cityName":"国网浙江杭州市萧山区供电有限公司","provinceCode":null,"stopTime":"2020-06-15 01:30:00","powerType":"全部","powerOffArea":"110kV航坞变:振邦A074线振邦A0741开关后段","powerOffReason":"高压柱上断路器跳闸 原停电结束时间为2020-06-15 02:37:00,为减少客户停电时间,加快工作进度,提前送电,现变更停电结束时间为2020-06-15 01:30:00","powerOffId":"2020061431020371"},{"poweroffId":2020061431020361,"sgpoweroffId":null,"subsName":"","lineName":"10kV家垅Y738线","pubTranName":"施家村下施台区,","scope":"浙江省-杭州市-建德市-下涯镇-施家行政村(下施自然村,上施自然村)","startTime":"2020-06-14 22:55:00","stopDate":"2020-06-15 00:30:00","orgNo":"3340180","typeCode":"电网故障停限电","poweroffArea":"110kV马目变:家垅Y738线-施家村下施台区后段","poweroffReason":"(低压停电信息)低压熔丝烧毁 原停电结束时间为2020-06-15 01:30:00,为减少客户停电时间,加快工作进度,提前送电,现变更停电结束时间为2020-06-15 00:30:00","powerTime":"2020-06-14 23:39:05","powerComm":"已送电","subsNo":"","lineNo":"","tgNo":"","tgName":null,"infoStatus":"1","orgName":"国网浙江建德市供电有限公司","typeName":null,"infoStatusName":null,"dateDay":null,"orgNos":null,"nowTime":null,"countyName":null,"streetName":null,"villageName":null,"roadName":null,"communityName":null,"tranName":null,"sdLineName":null,"cityCode":"3340180","cityName":"国网浙江建德市供电有限公司","provinceCode":null,"stopTime":"2020-06-15 00:30:00","powerType":"全部","powerOffArea":"110kV马目变:家垅Y738线-施家村下施台区后段","powerOffReason":"(低压停电信息)低压熔丝烧毁 原停电结束时间为2020-06-15 01:30:00,为减少客户停电时间,加快工作进度,提前送电,现变更停电结束时间为2020-06-15 00:30:00","powerOffId":"2020061431020361"},{"poweroffId":2020061431020357,"sgpoweroffId":null,"subsName":"","lineName":"10kV永盛A323线","pubTranName":"小石桥村4#变,","scope":"浙江省-杭州市-萧山区-靖江街道-黎明社区-黎明自然村,靖江街道-小石桥社区(小石桥自然村,靖江路,黎明路,广场路)等","startTime":"2020-06-14 21:05:32","stopDate":"2020-06-15 00:02:32","orgNo":"3340130","typeCode":"电网故障停限电","poweroffArea":"110kV靖江变:永盛A323线-小石桥村4#变后段","poweroffReason":"(低压停电信息)低压架空线断线消缺 原停电结束时间为2020-06-15 00:33:32,为减少客户停电时间,加快工作进度,提前送电,现变更停电结束时间为2020-06-15 00:02:32","powerTime":"2020-06-14 23:12:21","powerComm":"已送电","subsNo":"","lineNo":"","tgNo":"","tgName":null,"infoStatus":"1","orgName":"国网浙江杭州市萧山区供电有限公司","typeName":null,"infoStatusName":null,"dateDay":null,"orgNos":null,"nowTime":null,"countyName":null,"streetName":null,"villageName":null,"roadName":null,"communityName":null,"tranName":null,"sdLineName":null,"cityCode":"3340130","cityName":"国网浙江杭州市萧山区供电有限公司","provinceCode":null,"stopTime":"2020-06-15 00:02:32","powerType":"全部","powerOffArea":"110kV靖江变:永盛A323线-小石桥村4#变后段","powerOffReason":"(低压停电信息)低压架空线断线消缺 原停电结束时间为2020-06-15 00:33:32,为减少客户停电时间,加快工作进度,提前送电,现变更停电结束时间为2020-06-15 00:02:32","powerOffId":"2020061431020357"},{"poweroffId":2020061431020356,"sgpoweroffId":null,"subsName":"","lineName":"10kV凤潭Y340线","pubTranName":"乾潭村练上台区,","scope":"浙江省-杭州市-建德市-乾潭镇-乾潭行政村-东源自然村","startTime":"2020-06-14 22:28:00","stopDate":"2020-06-15 00:30:00","orgNo":"3340180","typeCode":"电网故障停限电","poweroffArea":"110kV钦堂变:凤潭Y340线乾潭村练上台区配变","poweroffReason":"高压开关跳闸","powerTime":"2020-06-14 23:33:25","powerComm":"已送电","subsNo":"","lineNo":"","tgNo":"","tgName":null,"infoStatus":"1","orgName":"国网浙江建德市供电有限公司","typeName":null,"infoStatusName":null,"dateDay":null,"orgNos":null,"nowTime":null,"countyName":null,"streetName":null,"villageName":null,"roadName":null,"communityName":null,"tranName":null,"sdLineName":null,"cityCode":"3340180","cityName":"国网浙江建德市供电有限公司","provinceCode":null,"stopTime":"2020-06-15 00:30:00","powerType":"全部","powerOffArea":"110kV钦堂变:凤潭Y340线乾潭村练上台区配变","powerOffReason":"高压开关跳闸","powerOffId":"2020061431020356"},{"poweroffId":2020061431020336,"sgpoweroffId":null,"subsName":"","lineName":"10kV汉塘T312线","pubTranName":"岩桥1号公变,","scope":"浙江省-杭州市-桐庐县-城南街道-下洋洲行政村-下洋洲自然村,城南街道-岩桥行政村(桥外自然村,岩桥自然村)","startTime":"2020-06-14 21:25:23","stopDate":"2020-06-14 23:56:23","orgNo":"3340150","typeCode":"电网故障停限电","poweroffArea":"110kV洋洲变:汉塘T312线-岩桥1号公变后段","poweroffReason":"(低压停电信息)低压开关跳闸 原停电结束时间为2020-06-14 23:25:23,因现场故障情况复杂,现变更停电结束时间为2020-06-14 23:56:23","powerTime":"2020-06-14 23:27:06","powerComm":"已送电","subsNo":"","lineNo":"","tgNo":"","tgName":null,"infoStatus":"1","orgName":"国网浙江桐庐县供电公司","typeName":null,"infoStatusName":null,"dateDay":null,"orgNos":null,"nowTime":null,"countyName":null,"streetName":null,"villageName":null,"roadName":null,"communityName":null,"tranName":null,"sdLineName":null,"cityCode":"3340150","cityName":"国网浙江桐庐县供电公司","provinceCode":null,"stopTime":"2020-06-14 23:56:23","powerType":"全部","powerOffArea":"110kV洋洲变:汉塘T312线-岩桥1号公变后段","powerOffReason":"(低压停电信息)低压开关跳闸 原停电结束时间为2020-06-14 23:25:23,因现场故障情况复杂,现变更停电结束时间为2020-06-14 23:56:23","powerOffId":"2020061431020336"},{"poweroffId":2020061431020316,"sgpoweroffId":null,"subsName":"","lineName":"10kV良运H329线","pubTranName":"吴家厍村安置户公变,杭州市地铁集团有限责任公司,吴家厍章家门3号公变,长桥村长桥老年公寓公变,杭州临昌建设工程有限公司,勾庄吴家厍章家门2号公变,","scope":"浙江省-杭州市-余杭区-良渚街道-长桥行政村-好运路,良渚街道-吴家厍行政村(通运街,好运街);浙江省-杭州市-余杭区-良渚街道-吴家厍行政村-杭州市地铁集团有限责任公司","startTime":"2020-06-14 21:03:58","stopDate":"2020-06-15 03:40:58","orgNo":"3340140","typeCode":"电网故障停限电","poweroffArea":"110kV长桥变:良运H329线-金家角分线开关后段","poweroffReason":"高压开关跳闸 原停电结束时间为2020-06-15 07:03:58,为减少客户停电时间,加快工作进度,提前送电,现变更停电结束时间为2020-06-15 03:40:58","powerTime":"2020-06-15 02:59:13","powerComm":"已送电","subsNo":"","lineNo":"","tgNo":"","tgName":null,"infoStatus":"1","orgName":"国网浙江杭州市余杭区供电有限公司","typeName":null,"infoStatusName":null,"dateDay":null,"orgNos":null,"nowTime":null,"countyName":null,"streetName":null,"villageName":null,"roadName":null,"communityName":null,"tranName":null,"sdLineName":null,"cityCode":"3340140","cityName":"国网浙江杭州市余杭区供电有限公司","provinceCode":null,"stopTime":"2020-06-15 03:40:58","powerType":"全部","powerOffArea":"110kV长桥变:良运H329线-金家角分线开关后段","powerOffReason":"高压开关跳闸 原停电结束时间为2020-06-15 07:03:58,为减少客户停电时间,加快工作进度,提前送电,现变更停电结束时间为2020-06-15 03:40:58","powerOffId":"2020061431020316"},{"poweroffId":2020061431020308,"sgpoweroffId":null,"subsName":"","lineName":"10kV新博G031线","pubTranName":"杭州恒烽水煤浆销售有限公司,运河镇博陆村南园新区南公变,中海油销售杭州有限公司（煤库）,新宇村梁安桥公变,中天交通(6120912245)02#专变,新宇村盛家埭西公变,杭州奉翔合金材料有限公司变压器,新宇村北庄河西公变,杭州翰琳纺织服装有限公司,杭州锦茂工贸有限公司,运河小学II段（6120924365）02#专变,许家角排涝站,运河镇螺蛳桥村前溪公变,运河镇博陆村西独圩公变,杭州余杭水务有限公司100配变,杭州余杭高宏绸厂,运河镇博陆街道一号公变,中天交通建设投资集团有限公司2号基建变,新宇村姜宅北公变,新宇村王家里公变,南园村（南园一）,宏杰搪瓷厂2#,新宇村姜宅北2号公变,塘栖金属压延,新宇村戴家里2号公变,运河搪瓷厂,新圩村姜宅南2号公变,新宇村沈石河公变,杭州市余杭区人民政府运河街道办事处,郎家斗泵站,新宇村李家埭公变,中天交通(6120912245)01#专变,杭州丰顺塑业有限公司,新宇村盛家埭2号公变,运河镇博陆村朱家湾公变,杭州市余杭区人民政府运河街道办事处,博陆南园新区北,宏杰搪瓷厂1#,新宇村北安桥公变,新宇村戴家里公变,运河镇博陆村博陆名苑公变,运河镇螺蛳桥村前溪新村公变,杭州美邦电器有限公司,新宇村姜宅南公变,嘉润临平供销社,新宇村北庄河公变,运河镇博陆村长寿桥南公变,博陆村双桥路公变,雅迪丝加,新宇村莫家圈南公变,古运河大酒店,运河镇螺蛳桥村前溪南公变,杭州市余杭区人民政府运河街道办事处变压器,新宇村莫家圈北公变,兴裕绸厂,杭州华意塑料五金厂,","scope":"浙江省-杭州市-余杭区-运河街道-螺蛳桥行政村(螺蛳桥自然村,螺丝桥,东湖北路,螺丝桥自然村,长虹自然村,前溪自然村,螺蛳自然村),运河街道-博陆行政村(东湖北路,博陆自然村,南元自然村,西独圩,梁家里自然村,西独圩自然村,博新苑,朱家湾自然村,梁家里,南园里,庄前自然村,南园自然村,博陆社区,河北埭,寺西苑,鹿溪路),运河街道-新宇行政村(姜石自然村,新宇自然村,新圩自然村,北庄河自然村,沈石河自然村,盛家里自然村,梁安桥自然村,李家埭自然村,老鸦窠自然村,沈家里自然村),运河街道-博陆社区(博陆自然村,天顺路,南元自然村,博陆街道,博陆,电管站,双桥路,小鱼市场,文明路,文明弄,高家弄,鹿溪路,朱家桥),运河街道(兴旺行政村-兴旺自然村,南栅口社区-东湖北路);运河街道-博陆行政村(杭州宏杰搪瓷有限公司,杭州锦茂工贸有限公司,中天交通建设投资集团有限公司),运河街道-新宇行政村(杭州余杭新宇股份经济合作社,杭州余杭制水有限公司,杭州亿资鑫五金工艺品有限公司,杭州力豪胶粘剂有限公司),运河街道-东新行政村(杭州市余杭区人民政府运河街道办事处,杭州市港航管理局),运河街道-博陆社区(杭州兴裕丝绸有限公司,杭州超天塑化有限公司,运河镇南元村,杭州瑞屹商贸有限公司,杭州华意塑料五金厂,杭州嘉润临平供销社有限公司,杭州恒烽水煤浆销售有限公司,杭州恒达瓶业有限公司,中海油销售杭州有限公司,杭州余杭南峰丝绸织造厂,杭州奉翔合金材料有限公司,杭州美邦电器有限公司),东湖街道-经济开发区-五杭镇许家角排涝站,运河街道-兴旺行政村-杭州市余杭区人民政府运河街道办事处,经济开发区-圣塘河社区-杭州余杭城东净水有限公司,临平街道-星光社区-中天交通建设投资集团有限公司","startTime":"2020-06-14 20:41:03","stopDate":"2020-06-14 23:41:03","orgNo":"3340140","typeCode":"电网故障停限电","poweroffArea":"110kV五杭变:新博G031线","poweroffReason":"高压开关跳闸","powerTime":"2020-06-14 22:44:00","powerComm":"已送电","subsNo":"","lineNo":"","tgNo":"","tgName":null,"infoStatus":"1","orgName":"国网浙江杭州市余杭区供电有限公司","typeName":null,"infoStatusName":null,"dateDay":null,"orgNos":null,"nowTime":null,"countyName":null,"streetName":null,"villageName":null,"roadName":null,"communityName":null,"tranName":null,"sdLineName":null,"cityCode":"3340140","cityName":"国网浙江杭州市余杭区供电有限公司","provinceCode":null,"stopTime":"2020-06-14 23:41:03","powerType":"全部","powerOffArea":"110kV五杭变:新博G031线","powerOffReason":"高压开关跳闸","powerOffId":"2020061431020308"},{"poweroffId":2020061431020293,"sgpoweroffId":null,"subsName":"","lineName":"10kV五联D264线","pubTranName":"长佳村1#麻田垅公变,","scope":"浙江省-杭州市-富阳区-常绿镇-长佳行政村(麻田垅自然村,长佳坞自然村)","startTime":"2020-06-14 20:18:54","stopDate":"2020-06-14 21:09:54","orgNo":"3340170","typeCode":"电网故障停限电","poweroffArea":"35kV盛村变:五联D264线-长佳村1#麻田垅公变后段","poweroffReason":"(低压停电信息)低压开关跳闸 原停电结束时间为2020-06-14 22:18:54,为减少客户停电时间,加快工作进度,提前送电,现变更停电结束时间为2020-06-14 21:09:54","powerTime":"2020-06-14 20:35:52","powerComm":"已送电","subsNo":"","lineNo":"","tgNo":"","tgName":null,"infoStatus":"1","orgName":"国网浙江杭州市富阳区供电公司","typeName":null,"infoStatusName":null,"dateDay":null,"orgNos":null,"nowTime":null,"countyName":null,"streetName":null,"villageName":null,"roadName":null,"communityName":null,"tranName":null,"sdLineName":null,"cityCode":"3340170","cityName":"国网浙江杭州市富阳区供电公司","provinceCode":null,"stopTime":"2020-06-14 21:09:54","powerType":"全部","powerOffArea":"35kV盛村变:五联D264线-长佳村1#麻田垅公变后段","powerOffReason":"(低压停电信息)低压开关跳闸 原停电结束时间为2020-06-14 22:18:54,为减少客户停电时间,加快工作进度,提前送电,现变更停电结束时间为2020-06-14 21:09:54","powerOffId":"2020061431020293"},{"poweroffId":2020061431020273,"sgpoweroffId":null,"subsName":"","lineName":"10kV良运H329线","pubTranName":"同泰制衣,长桥村长桥老年公寓公变,杭州润珹房地产开发有限公司1#专变,友邦焊接,杭州润珹房地产开发有限公司3#专变,润城房地产(6120875722)02#专变,杭州临昌建设工程有限公司,同泰制衣,杭州市地铁集团有限责任公司,吴家厍村安置户公变,吴家厍章家门3号公变,双华科技,润城房地产(6120875722)01#专变,勾庄吴家厍章家门2号公变,配变,杭州润珹房地产开发有限公司2#专变,润城房地产(6120875722)03#专变,小洋坝村委公变,","scope":"浙江省-杭州市-余杭区-良渚街道-长桥行政村-好运路,良渚街道-吴家厍行政村(通运街,好运街),良渚街道-小洋坝行政村(勾运路,良运街);良渚街道-吴家厍行政村(杭州润珹房地产开发有限公司,杭州市地铁集团有限责任公司),良渚街道-勾庄行政村(杭州友邦焊锡材料有限公司,浙江同泰制衣有限公司,杭州双华科技有限公司,杭州卡威电子有限公司)","startTime":"2020-06-14 19:04:23","stopDate":"2020-06-14 21:04:23","orgNo":"3340140","typeCode":"电网故障停限电","poweroffArea":"110kV长桥变:良运H329线","poweroffReason":"高压开关跳闸","powerTime":"2020-06-14 21:00:24","powerComm":"已送电","subsNo":"","lineNo":"","tgNo":"","tgName":null,"infoStatus":"1","orgName":"国网浙江杭州市余杭区供电有限公司","typeName":null,"infoStatusName":null,"dateDay":null,"orgNos":null,"nowTime":null,"countyName":null,"streetName":null,"villageName":null,"roadName":null,"communityName":null,"tranName":null,"sdLineName":null,"cityCode":"3340140","cityName":"国网浙江杭州市余杭区供电有限公司","provinceCode":null,"stopTime":"2020-06-14 21:04:23","powerType":"全部","powerOffArea":"110kV长桥变:良运H329线","powerOffReason":"高压开关跳闸","powerOffId":"2020061431020273"},{"poweroffId":2020061431020270,"sgpoweroffId":null,"subsName":"","lineName":"10kV四康G099线","pubTranName":"梧桐蓝山15号公变,2＃,风华苑2号公变,风华苑3号公变,浙江绿城物业管理有限公司余杭分公司,1＃,梧桐蓝山1#专变,约克郡3号公变,梧桐蓝山16号公变,约克郡1号公变,梧桐蓝山13号公变,梧桐蓝山1号公变,梧桐蓝山14号公变,余杭区疾病预防控制中心2#,1#,风华苑1号公变,余杭区疾病预防控制中心,绿城物业服务集团有限公司余杭分公司2#,风华苑4号公变,梧桐蓝山11号公变,梧桐蓝山4号公变,约克郡7号公变,梧桐蓝山3#专变,梧桐蓝山5号公变,约克郡9号公变,梧桐蓝山6号公变,约克郡6号公变,约克郡10号公变,3#,约克郡8号公变,临平第一中学II段1#专变,约克郡4号公变,梧桐蓝山3号公变,梧桐蓝山12号公变,梧桐蓝山2号公变,约克郡5号公变,约克郡2号公变,梧桐蓝山5#专变,","scope":"浙江省-杭州市-余杭区-南苑街道-西安社区(红枫南路,西安,世纪大道西,梧桐蓝山花苑,世纪大道),南苑街道-水景社区(水景,梧桐蓝山花苑小区),南苑街道-新城社区-世纪大道,东湖街道-庙东社区-九曲营路;乔司街道-杭州市余杭区机关事务管理局,南苑街道(绿城物业服务集团有限公司杭州第六分公司,余杭区疾病预防控制中心,杭州市余杭区临平第一中学,杭州理想四维物业管理有限公司)","startTime":"2020-06-14 18:36:00","stopDate":"2020-06-14 20:36:00","orgNo":"3340140","typeCode":"电网故障停限电","poweroffArea":"110kV临平变:四康G099线约克开关站约克开关站康约G0992线后段","poweroffReason":"高压开关跳闸","powerTime":"2020-06-14 20:03:52","powerComm":"已送电","subsNo":"","lineNo":"","tgNo":"","tgName":null,"infoStatus":"1","orgName":"国网浙江杭州市余杭区供电有限公司","typeName":null,"infoStatusName":null,"dateDay":null,"orgNos":null,"nowTime":null,"countyName":null,"streetName":null,"villageName":null,"roadName":null,"communityName":null,"tranName":null,"sdLineName":null,"cityCode":"3340140","cityName":"国网浙江杭州市余杭区供电有限公司","provinceCode":null,"stopTime":"2020-06-14 20:36:00","powerType":"全部","powerOffArea":"110kV临平变:四康G099线约克开关站约克开关站康约G0992线后段","powerOffReason":"高压开关跳闸","powerOffId":"2020061431020270"}],"pageModel":{"pageNow":5,"totalCount":17786,"totalPage":1779,"tableRows":0,"pageCount":10,"beginCount":40},"isExperi":"1"}