{"message":"","today":"2020-06-15","seleList":[{"poweroffId":2020011231020017,"sgpoweroffId":null,"subsName":"","lineName":"10kV新坝A186线","pubTranName":"新坝村4#变,","scope":"浙江省-杭州市-萧山区-义桥镇-新坝行政村(上埠自然村,联新自然村,下埠自然村)等一带","startTime":"2020-01-12 08:05:56","stopDate":"2020-01-12 17:00:56","orgNo":"3340130","typeCode":"电网故障停限电","poweroffArea":"110kV群建变:新坝A186线-新坝村4#变台区低压开关","poweroffReason":"(低压停电信息)低压熔断器短路故障","powerTime":"2020-01-12 16:45:11","powerComm":"已送电","subsNo":"","lineNo":"","tgNo":"","tgName":null,"infoStatus":"1","orgName":"国网浙江杭州市萧山区供电有限公司","typeName":null,"infoStatusName":null,"dateDay":null,"orgNos":null,"nowTime":null,"countyName":null,"streetName":null,"villageName":null,"roadName":null,"communityName":null,"tranName":null,"sdLineName":null,"cityCode":"3340130","cityName":"国网浙江杭州市萧山区供电有限公司","provinceCode":null,"stopTime":"2020-01-12 17:00:56","powerType":"全部","powerOffArea":"110kV群建变:新坝A186线-新坝村4#变台区低压开关","powerOffReason":"(低压停电信息)低压熔断器短路故障","powerOffId":"2020011231020017"},{"poweroffId":2020011231020016,"sgpoweroffId":null,"subsName":"","lineName":"10kV新坝A186线","pubTranName":"新坝村10#变,","scope":"浙江省-杭州市-萧山区-义桥镇-新坝行政村(联新自然村,方家里自然村,下埠自然村)等一带","startTime":"2020-01-12 08:03:22","stopDate":"2020-01-12 17:00:22","orgNo":"3340130","typeCode":"电网故障停限电","poweroffArea":"110kV群建变:新坝A186线-新坝村10#变台区低压开关","poweroffReason":"(低压停电信息)低压熔断器短路故障","powerTime":"2020-01-12 16:45:46","powerComm":"已送电","subsNo":"","lineNo":"","tgNo":"","tgName":null,"infoStatus":"1","orgName":"国网浙江杭州市萧山区供电有限公司","typeName":null,"infoStatusName":null,"dateDay":null,"orgNos":null,"nowTime":null,"countyName":null,"streetName":null,"villageName":null,"roadName":null,"communityName":null,"tranName":null,"sdLineName":null,"cityCode":"3340130","cityName":"国网浙江杭州市萧山区供电有限公司","provinceCode":null,"stopTime":"2020-01-12 17:00:22","powerType":"全部","powerOffArea":"110kV群建变:新坝A186线-新坝村10#变台区低压开关","powerOffReason":"(低压停电信息)低压熔断器短路故障","powerOffId":"2020011231020016"},{"poweroffId":2020011231020015,"sgpoweroffId":null,"subsName":"","lineName":"10kV大桥A772线","pubTranName":"大桥村6#变,","scope":"浙江省-杭州市-萧山区-河上镇-大桥行政村(楼园自然村,大桥自然村,楼家园自然村,染店孙自然村,娄元自然村)等一带","startTime":"2020-01-12 07:58:50","stopDate":"2020-01-12 12:30:50","orgNo":"3340130","typeCode":"电网故障停限电","poweroffArea":"110kV大西变:大桥A772线-大桥村6#变台区低压开关","poweroffReason":"(低压停电信息)低压熔断器短路故障 原停电结束时间为2020-01-12 17:00:50,为减少客户停电时间,加快工作进度,提前送电,现变更停电结束时间为2020-01-12 12:30:50","powerTime":"2020-01-12 11:46:14","powerComm":"已送电","subsNo":"","lineNo":"","tgNo":"","tgName":null,"infoStatus":"1","orgName":"国网浙江杭州市萧山区供电有限公司","typeName":null,"infoStatusName":null,"dateDay":null,"orgNos":null,"nowTime":null,"countyName":null,"streetName":null,"villageName":null,"roadName":null,"communityName":null,"tranName":null,"sdLineName":null,"cityCode":"3340130","cityName":"国网浙江杭州市萧山区供电有限公司","provinceCode":null,"stopTime":"2020-01-12 12:30:50","powerType":"全部","powerOffArea":"110kV大西变:大桥A772线-大桥村6#变台区低压开关","powerOffReason":"(低压停电信息)低压熔断器短路故障 原停电结束时间为2020-01-12 17:00:50,为减少客户停电时间,加快工作进度,提前送电,现变更停电结束时间为2020-01-12 12:30:50","powerOffId":"2020011231020015"},{"poweroffId":2020011231020014,"sgpoweroffId":null,"subsName":"","lineName":"10kV湘岭D714线","pubTranName":"潘堰村11#泉塘坞公变,","scope":"浙江省-杭州市-富阳区-新登镇(元村行政村-元村自然村,潘堰行政村-炉头自然村)","startTime":"2020-01-12 07:55:00","stopDate":"2020-01-12 09:55:00","orgNo":"3340170","typeCode":"电网故障停限电","poweroffArea":"110kV松溪变:湘岭D714线潘堰村11#泉塘坞公变配变","poweroffReason":"高压开关跳闸","powerTime":"2020-01-12 09:38:01","powerComm":"已送电","subsNo":"","lineNo":"","tgNo":"","tgName":null,"infoStatus":"1","orgName":"国网浙江杭州市富阳区供电公司","typeName":null,"infoStatusName":null,"dateDay":null,"orgNos":null,"nowTime":null,"countyName":null,"streetName":null,"villageName":null,"roadName":null,"communityName":null,"tranName":null,"sdLineName":null,"cityCode":"3340170","cityName":"国网浙江杭州市富阳区供电公司","provinceCode":null,"stopTime":"2020-01-12 09:55:00","powerType":"全部","powerOffArea":"110kV松溪变:湘岭D714线潘堰村11#泉塘坞公变配变","powerOffReason":"高压开关跳闸","powerOffId":"2020011231020014"},{"poweroffId":2020011231020012,"sgpoweroffId":null,"subsName":"","lineName":"10kV石墓D217线","pubTranName":"宋家塘野亩垄2#桥头公变,","scope":"浙江省-杭州市-富阳区-银湖街道-郜村行政村(野庙垅自然村,宋家塘自然村),银湖街道(高桥行政村-高桥自然村,受降行政村-大树下自然村)","startTime":"2020-01-12 07:22:03","stopDate":"2020-01-12 08:22:03","orgNo":"3340170","typeCode":"电网故障停限电","poweroffArea":"110kV银湖变:石墓D217线-宋家塘野亩垄2#桥头公变后段","poweroffReason":"(低压停电信息)低压开关跳闸","powerTime":"2020-01-12 08:06:31","powerComm":"已送电","subsNo":"","lineNo":"","tgNo":"","tgName":null,"infoStatus":"1","orgName":"国网浙江杭州市富阳区供电公司","typeName":null,"infoStatusName":null,"dateDay":null,"orgNos":null,"nowTime":null,"countyName":null,"streetName":null,"villageName":null,"roadName":null,"communityName":null,"tranName":null,"sdLineName":null,"cityCode":"3340170","cityName":"国网浙江杭州市富阳区供电公司","provinceCode":null,"stopTime":"2020-01-12 08:22:03","powerType":"全部","powerOffArea":"110kV银湖变:石墓D217线-宋家塘野亩垄2#桥头公变后段","powerOffReason":"(低压停电信息)低压开关跳闸","powerOffId":"2020011231020012"},{"poweroffId":2020011231020010,"sgpoweroffId":null,"subsName":"","lineName":"10kV南水H587线","pubTranName":"II段专变,2#,I段专变,农兴路商铺A区2#公变,水产交易区,赞之城3#公变,果品东区4,水产综合楼1#变,赞之城2#公变,赞之城5#公变,水产冷库1#变*,赞之城1#专变,1#,水产交易区,II段3#变,果品东区3,果品西区1#变,赞之城6#公变,浙江良渚蔬菜市场开发有限公司,杭州昌海实业有限公司I段5#变,赞之城4#公变,赞之城1#公变,II段专变,农兴路商铺A区1#公变,","scope":"浙江省-杭州市-余杭区-良渚街道-易居城社区-逸盛路,良渚街道-行宫塘行政村(农兴路,博园西路,博园路);良渚街道-行宫塘行政村(浙江现代商贸物流发展有限公司,杭州商储果业有限公司,杭州昌海实业有限公司,杭州果品批发有限公司),良渚街道(良渚行政村-浙江赞誉物业管理有限公司余杭分公司,南庄兜行政村-浙江良渚蔬菜市场开发有限公司)","startTime":"2020-01-12 04:00:23","stopDate":"2020-01-12 08:00:23","orgNo":"3340140","typeCode":"电网故障停限电","poweroffArea":"110kV南庄变:南水H587线","poweroffReason":"高压开关跳闸 原停电结束时间为2020-01-12 04:00:23,因工作复杂原因,现变更停电结束时间为2020-01-12 08:00:23","powerTime":"2020-01-12 07:18:57","powerComm":"已送电","subsNo":"","lineNo":"","tgNo":"","tgName":null,"infoStatus":"1","orgName":"国网浙江杭州市余杭区供电有限公司","typeName":null,"infoStatusName":null,"dateDay":null,"orgNos":null,"nowTime":null,"countyName":null,"streetName":null,"villageName":null,"roadName":null,"communityName":null,"tranName":null,"sdLineName":null,"cityCode":"3340140","cityName":"国网浙江杭州市余杭区供电有限公司","provinceCode":null,"stopTime":"2020-01-12 08:00:23","powerType":"全部","powerOffArea":"110kV南庄变:南水H587线","powerOffReason":"高压开关跳闸 原停电结束时间为2020-01-12 04:00:23,因工作复杂原因,现变更停电结束时间为2020-01-12 08:00:23","powerOffId":"2020011231020010"},{"poweroffId":2020011131020133,"sgpoweroffId":null,"subsName":"","lineName":"10kV张圩8611线","pubTranName":"范家塘（3）,","scope":"浙江省-杭州市-西湖区-三墩镇-厚诚桥社区-厚诚路,三墩镇-兰里社区-厚诚公寓","startTime":"2020-01-11 21:13:28","stopDate":"2020-01-11 22:33:28","orgNo":"3340101","typeCode":"电网故障停限电","poweroffArea":"110kV谢村变:张圩8611线-范家塘（3）变","poweroffReason":"(低压停电信息)低压开关跳闸 原停电结束时间为2020-01-11 23:13:28,为减少客户停电时间,加快工作进度,提前送电,现变更停电结束时间为2020-01-11 22:33:28","powerTime":"2020-01-11 22:04:19","powerComm":"已送电","subsNo":"","lineNo":"","tgNo":"","tgName":null,"infoStatus":"1","orgName":"浙江杭州电力客户服务中心","typeName":null,"infoStatusName":null,"dateDay":null,"orgNos":null,"nowTime":null,"countyName":null,"streetName":null,"villageName":null,"roadName":null,"communityName":null,"tranName":null,"sdLineName":null,"cityCode":"3340101","cityName":"浙江杭州电力客户服务中心","provinceCode":null,"stopTime":"2020-01-11 22:33:28","powerType":"全部","powerOffArea":"110kV谢村变:张圩8611线-范家塘（3）变","powerOffReason":"(低压停电信息)低压开关跳闸 原停电结束时间为2020-01-11 23:13:28,为减少客户停电时间,加快工作进度,提前送电,现变更停电结束时间为2020-01-11 22:33:28","powerOffId":"2020011131020133"},{"poweroffId":2020011131020131,"sgpoweroffId":null,"subsName":"","lineName":"10kV上练D713线","pubTranName":"查岭村3#新马路公变,","scope":"浙江省-杭州市-富阳区-胥口镇-下练行政村-白家自然村,胥口镇-查岭行政村(查岭自然村,新马路自然村,碟子山自然村)","startTime":"2020-01-11 21:00:00","stopDate":"2020-01-11 22:00:00","orgNo":"3340170","typeCode":"电网故障停限电","poweroffArea":"110kV松溪变:上练D713线查岭村3#新马路公变配变","poweroffReason":"高压开关跳闸 原停电结束时间为2020-01-11 23:00:00,为减少客户停电时间,加快工作进度,提前送电,现变更停电结束时间为2020-01-11 22:00:00","powerTime":"2020-01-11 21:20:11","powerComm":"已送电","subsNo":"","lineNo":"","tgNo":"","tgName":null,"infoStatus":"1","orgName":"国网浙江杭州市富阳区供电公司","typeName":null,"infoStatusName":null,"dateDay":null,"orgNos":null,"nowTime":null,"countyName":null,"streetName":null,"villageName":null,"roadName":null,"communityName":null,"tranName":null,"sdLineName":null,"cityCode":"3340170","cityName":"国网浙江杭州市富阳区供电公司","provinceCode":null,"stopTime":"2020-01-11 22:00:00","powerType":"全部","powerOffArea":"110kV松溪变:上练D713线查岭村3#新马路公变配变","powerOffReason":"高压开关跳闸 原停电结束时间为2020-01-11 23:00:00,为减少客户停电时间,加快工作进度,提前送电,现变更停电结束时间为2020-01-11 22:00:00","powerOffId":"2020011131020131"},{"poweroffId":2020011131020126,"sgpoweroffId":null,"subsName":"","lineName":"10kV昌化6545线","pubTranName":"西子铭都一变,","scope":"浙江省-杭州市-下城区-武林街道-环西社区(桃花河弄,武林路)","startTime":"2020-01-11 18:56:00","stopDate":"2020-01-11 20:56:00","orgNo":"3340101","typeCode":"电网故障停限电","poweroffArea":"110kV武林变:昌化6545线西子铭都一变西子铭都一变配变","poweroffReason":"高压开关跳闸","powerTime":"2020-01-11 19:57:23","powerComm":"已送电","subsNo":"","lineNo":"","tgNo":"","tgName":null,"infoStatus":"1","orgName":"浙江杭州电力客户服务中心","typeName":null,"infoStatusName":null,"dateDay":null,"orgNos":null,"nowTime":null,"countyName":null,"streetName":null,"villageName":null,"roadName":null,"communityName":null,"tranName":null,"sdLineName":null,"cityCode":"3340101","cityName":"浙江杭州电力客户服务中心","provinceCode":null,"stopTime":"2020-01-11 20:56:00","powerType":"全部","powerOffArea":"110kV武林变:昌化6545线西子铭都一变西子铭都一变配变","powerOffReason":"高压开关跳闸","powerOffId":"2020011131020126"},{"poweroffId":2020011131020102,"sgpoweroffId":null,"subsName":"","lineName":"10kV西煤7203线","pubTranName":"康桥油库,废金,康油2#,油办,联煤,","scope":"浙江省-杭州市-拱墅区-康桥街道(义桥社区-浙江石油杭州储运有限责任公司,平安桥社区-杭州保元佳塑料制品有限公司,独城社区-杭州西洋联合煤场)","startTime":"2020-01-11 14:44:11","stopDate":"2020-01-11 16:44:11","orgNo":"3340101","typeCode":"电网故障停限电","poweroffArea":"110kV康桥变:西煤7203线-联煤分线后段","poweroffReason":"高压开关跳闸","powerTime":"2020-01-11 15:46:08","powerComm":"已送电","subsNo":"","lineNo":"","tgNo":"","tgName":null,"infoStatus":"1","orgName":"浙江杭州电力客户服务中心","typeName":null,"infoStatusName":null,"dateDay":null,"orgNos":null,"nowTime":null,"countyName":null,"streetName":null,"villageName":null,"roadName":null,"communityName":null,"tranName":null,"sdLineName":null,"cityCode":"3340101","cityName":"浙江杭州电力客户服务中心","provinceCode":null,"stopTime":"2020-01-11 16:44:11","powerType":"全部","powerOffArea":"110kV康桥变:西煤7203线-联煤分线后段","powerOffReason":"高压开关跳闸","powerOffId":"2020011131020102"}],"pageModel":{"pageNow":587,"totalCount":17789,"totalPage":1779,"tableRows":0,"pageCount":10,"beginCount":5860},"isExperi":"1"}