{"message":"","today":"2020-06-15","seleList":[{"poweroffId":2020011131020101,"sgpoweroffId":null,"subsName":"","lineName":"10kV飞云6810线","pubTranName":"南落,","scope":"浙江省-杭州市-上城区-紫阳街道-新工社区-南落马营","startTime":"2020-01-11 14:41:39","stopDate":"2020-01-11 16:25:39","orgNo":"3340101","typeCode":"电网故障停限电","poweroffArea":"110kV复兴变:飞云6810线-南落后段","poweroffReason":"高压开关跳闸 原停电结束时间为2020-01-11 17:41:39,为减少客户停电时间,加快工作进度,提前送电,现变更停电结束时间为2020-01-11 16:25:39","powerTime":"2020-01-11 15:35:49","powerComm":"已送电","subsNo":"","lineNo":"","tgNo":"","tgName":null,"infoStatus":"1","orgName":"浙江杭州电力客户服务中心","typeName":null,"infoStatusName":null,"dateDay":null,"orgNos":null,"nowTime":null,"countyName":null,"streetName":null,"villageName":null,"roadName":null,"communityName":null,"tranName":null,"sdLineName":null,"cityCode":"3340101","cityName":"浙江杭州电力客户服务中心","provinceCode":null,"stopTime":"2020-01-11 16:25:39","powerType":"全部","powerOffArea":"110kV复兴变:飞云6810线-南落后段","powerOffReason":"高压开关跳闸 原停电结束时间为2020-01-11 17:41:39,为减少客户停电时间,加快工作进度,提前送电,现变更停电结束时间为2020-01-11 16:25:39","powerOffId":"2020011131020101"},{"poweroffId":2020011131020095,"sgpoweroffId":null,"subsName":"","lineName":"10kV金西T263线","pubTranName":"大丰童家2号公变,","scope":"浙江省-杭州市-桐庐县-城南街道-金牛行政村-童家自然村,城南街道-大丰行政村(大丰自然村,童家自然村)","startTime":"2020-01-11 14:10:40","stopDate":"2020-01-11 16:30:40","orgNo":"3340150","typeCode":"电网故障停限电","poweroffArea":"35kV三合变:金西T263线-大丰童家2号公变后段","poweroffReason":"高压开关跳闸","powerTime":"2020-01-11 16:19:16","powerComm":"已送电","subsNo":"","lineNo":"","tgNo":"","tgName":null,"infoStatus":"1","orgName":"国网浙江桐庐县供电公司","typeName":null,"infoStatusName":null,"dateDay":null,"orgNos":null,"nowTime":null,"countyName":null,"streetName":null,"villageName":null,"roadName":null,"communityName":null,"tranName":null,"sdLineName":null,"cityCode":"3340150","cityName":"国网浙江桐庐县供电公司","provinceCode":null,"stopTime":"2020-01-11 16:30:40","powerType":"全部","powerOffArea":"35kV三合变:金西T263线-大丰童家2号公变后段","powerOffReason":"高压开关跳闸","powerOffId":"2020011131020095"},{"poweroffId":2020011131020001,"sgpoweroffId":null,"subsName":"","lineName":"10kV涌中6853线","pubTranName":"惠中二变,","scope":"浙江省-杭州市-上城区-紫阳街道-太庙社区-燕春里,清波街道-柳翠井巷社区(柳翠井巷光复路,中河中路,源茂里)","startTime":"2020-01-11 00:59:35","stopDate":"2020-01-11 07:00:35","orgNo":"3340101","typeCode":"电网故障停限电","poweroffArea":"110kV涌金变:涌中6853线-惠中二变后段","poweroffReason":"高压开关跳闸","powerTime":"2020-01-11 06:12:42","powerComm":"已送电","subsNo":"","lineNo":"","tgNo":"","tgName":null,"infoStatus":"1","orgName":"浙江杭州电力客户服务中心","typeName":null,"infoStatusName":null,"dateDay":null,"orgNos":null,"nowTime":null,"countyName":null,"streetName":null,"villageName":null,"roadName":null,"communityName":null,"tranName":null,"sdLineName":null,"cityCode":"3340101","cityName":"浙江杭州电力客户服务中心","provinceCode":null,"stopTime":"2020-01-11 07:00:35","powerType":"全部","powerOffArea":"110kV涌金变:涌中6853线-惠中二变后段","powerOffReason":"高压开关跳闸","powerOffId":"2020011131020001"},{"poweroffId":2020011031020256,"sgpoweroffId":null,"subsName":"","lineName":"10kV潘塘H435线","pubTranName":"骏杰公司,中交第二航务工程局有限公司余杭分公司,杜甫村沈家桥3号公变,天允机电,卡通公司,金丰机械,配变,","scope":"浙江省-杭州市-余杭区-良渚街道-杜甫行政村-杜甫自然村;浙江省-杭州市-余杭区-良渚街道-七贤桥行政村-杭州荣满粮油贸易有限公司,良渚街道-杜甫行政村(杭州洪氏工贸有限公司,中交第二航务工程局有限公司余杭分公司),良渚街道-良渚行政村(杭州金丰机械有限公司,杭州卡通文具用品有限公司)","startTime":"2020-01-10 23:23:46","stopDate":"2020-01-11 07:30:46","orgNo":"3340140","typeCode":"电网故障停限电","poweroffArea":"110kV勾庄变:潘塘H435线-潘塘H435线祥章2#分支箱分线后段","poweroffReason":"高压开关跳闸","powerTime":"2020-01-11 07:08:39","powerComm":"已送电","subsNo":"","lineNo":"","tgNo":"","tgName":null,"infoStatus":"1","orgName":"国网浙江杭州市余杭区供电有限公司","typeName":null,"infoStatusName":null,"dateDay":null,"orgNos":null,"nowTime":null,"countyName":null,"streetName":null,"villageName":null,"roadName":null,"communityName":null,"tranName":null,"sdLineName":null,"cityCode":"3340140","cityName":"国网浙江杭州市余杭区供电有限公司","provinceCode":null,"stopTime":"2020-01-11 07:30:46","powerType":"全部","powerOffArea":"110kV勾庄变:潘塘H435线-潘塘H435线祥章2#分支箱分线后段","powerOffReason":"高压开关跳闸","powerOffId":"2020011031020256"},{"poweroffId":2020011031020254,"sgpoweroffId":null,"subsName":"","lineName":"10kV三白G371线","pubTranName":"渔公桥村枉河桥公变,渔公桥村横河桥北公变,","scope":"浙江省-杭州市-余杭区-仁和街道-渔公桥行政村(枉河头自然村,横河桥自然村,枉河桥自然村,横河头自然村),仁和街道-新桥行政村(跳东,园里抖自然村,新桥头自然村),仁和街道-东塘行政村(张家塘自然村,马峰头自然村)","startTime":"2020-01-10 23:08:43","stopDate":"2020-01-11 00:40:43","orgNo":"3340140","typeCode":"电网故障停限电","poweroffArea":"110kV东塘变:三白G371线-分段开关后段","poweroffReason":"高压开关跳闸 原停电结束时间为2020-01-11 00:20:43,因现场环境复杂原因,现变更停电结束时间为2020-01-11 00:40:43","powerTime":"2020-01-11 00:27:59","powerComm":"已送电","subsNo":"","lineNo":"","tgNo":"","tgName":null,"infoStatus":"1","orgName":"国网浙江杭州市余杭区供电有限公司","typeName":null,"infoStatusName":null,"dateDay":null,"orgNos":null,"nowTime":null,"countyName":null,"streetName":null,"villageName":null,"roadName":null,"communityName":null,"tranName":null,"sdLineName":null,"cityCode":"3340140","cityName":"国网浙江杭州市余杭区供电有限公司","provinceCode":null,"stopTime":"2020-01-11 00:40:43","powerType":"全部","powerOffArea":"110kV东塘变:三白G371线-分段开关后段","powerOffReason":"高压开关跳闸 原停电结束时间为2020-01-11 00:20:43,因现场环境复杂原因,现变更停电结束时间为2020-01-11 00:40:43","powerOffId":"2020011031020254"},{"poweroffId":2020011031020245,"sgpoweroffId":null,"subsName":"","lineName":"10kV潘塘H435线","pubTranName":"西塘河村村叶家里公变,金丰机械,鑫帆纺织,1#,良港村打网村村西公变,广盛泡沫,良港村打网村北3号公变,中交第二航务工程局有限公司余杭分公司,余杭良渚西塘河村幼儿园,创鑫电力,骆越酒店（6120510493）1#变,良港村叶家坝公变,富利包装(莫仙龙),西塘河村叶家里2号公变,西塘河村杨家门1号公变,宇诚实业,杜甫村沈家桥3号公变,配变,西塘河村严家斗1号公变,新雅家私制造,良港村叶家坝2号公变,君友机电,良渚彩印厂,配变,良港村打网村北公变,杭州农副物流管理有限公司计量点,万向工贸分线,良港村周家里公变,良渚税务所,何备连诊所,杭州农副物流管理有限公司计量点,西塘河村冯家斗2号公变,卡通公司,箱变,必优特,星华幼儿园,良渚派出所,西塘河村冯家斗1号公变,宏美机械,天允机电,收费站,2#,宇诚实业,西塘河村上潘塘1号公变,杭州农副物流管理有限公司计量点,龙腾实业,良港村停车场站公变,西塘河村杨家门2号公变,向山贸易,配变,博杰家具,新得宝,杭州和祥经贸有限公司,西塘河村杨家门4号公变,骏杰公司,西塘河村委,山峰装饰,良港村周家里2号公变,西塘河村闻家里2号公变,良港村打网村村西2号公变,西塘河村杨家门3号公变,","scope":"浙江省-杭州市-余杭区-良渚街道-西塘河行政村(潘塘自然村,104国道,莫干山路,中潘塘自然村,西塘河自然村),良渚街道-良港行政村(周家里自然村,太平自然村,打网自然村),良渚街道-良渚行政村(莫干山路,良博路),良渚街道-杜甫行政村-杜甫自然村,仁和街道-獐山社区-东西大道;良渚街道(杭州洪氏工贸有限公司,杭州余杭区星华幼托园,杭州余杭西塘河股份经济合作社,杭州余杭良渚彩色印务有限公司,杭州金丰机械有限公司,杭州新雅家私制造有限公司,杭州向山贸易有限公司,杭州荣满粮油贸易有限公司,杭州卡通文具用品有限公司,杭州骆越酒店管理有限公司,杭州市公安局余杭区分局良渚派出所,杭州悦达金属材料有限公司,杭州广盛泡沫塑料有限公司,杭州余杭何备连中西医结合诊所,杭州鑫帆纺织有限公司,闻宏伟,杭州宏美机械工具有限公司,杭州创鑫电力设备安装有限公司,杭州龙腾实业有限公司,杭州玉城五金有限公司,杭州市余杭区良渚街道良港村村民委员会,国家税务总局杭州市余杭区税务局,杭州和祥经贸有限公司,杭州余杭新得宝丝织工艺有限公司,杭州市余杭区收费管理所,杭州市余杭区良渚西塘河幼儿园,莫仙龙,杭州齐创电控设备有限公司,浙江中南建设集团有限公司,杭州良寓酒店管理有限公司,中交第二航务工程局有限公司余杭分公司,杭州宇诚实业有限公司)","startTime":"2020-01-10 21:23:00","stopDate":"2020-01-10 23:47:00","orgNo":"3340140","typeCode":"电网故障停限电","poweroffArea":"110kV勾庄变:潘塘H435线峰美开关站潘塘H435线后段","poweroffReason":"高压开关跳闸","powerTime":"2020-01-10 23:23:35","powerComm":"已送电","subsNo":"","lineNo":"","tgNo":"","tgName":null,"infoStatus":"1","orgName":"国网浙江杭州市余杭区供电有限公司","typeName":null,"infoStatusName":null,"dateDay":null,"orgNos":null,"nowTime":null,"countyName":null,"streetName":null,"villageName":null,"roadName":null,"communityName":null,"tranName":null,"sdLineName":null,"cityCode":"3340140","cityName":"国网浙江杭州市余杭区供电有限公司","provinceCode":null,"stopTime":"2020-01-10 23:47:00","powerType":"全部","powerOffArea":"110kV勾庄变:潘塘H435线峰美开关站潘塘H435线后段","powerOffReason":"高压开关跳闸","powerOffId":"2020011031020245"},{"poweroffId":2020011031020244,"sgpoweroffId":null,"subsName":"","lineName":"10kV潘塘H435线","pubTranName":"良渚税务所,良港村打网村北3号公变,杭州农副物流管理有限公司计量点,宏美机械,西塘河村杨家门1号公变,杜甫村沈家桥3号公变,杭州农副物流管理有限公司计量点,西塘河村委,宇诚实业,西塘河村严家斗1号公变,良港村打网村村西公变,良港村叶家坝公变,龙腾实业,西塘河村冯家斗2号公变,宇诚实业,西塘河村杨家门3号公变,配变,良港村打网村村西2号公变,鑫帆纺织,博杰家具,配变,富利包装(莫仙龙),杭州和祥经贸有限公司,向山贸易,广盛泡沫,西塘河村冯家斗1号公变,良港村打网村北公变,收费站,金丰机械,西塘河村上潘塘1号公变,箱变,西塘河村杨家门4号公变,良渚派出所,余杭良渚西塘河村幼儿园,良港村叶家坝2号公变,2#,山峰装饰,良港村周家里公变,西塘河村杨家门2号公变,西塘河村闻家里2号公变,星华幼儿园,杭州农副物流管理有限公司计量点,配变,何备连诊所,君友机电,中交第二航务工程局有限公司余杭分公司,万向工贸分线,良渚彩印厂,良港村停车场站公变,新雅家私制造,创鑫电力,西塘河村叶家里2号公变,卡通公司,骆越酒店（6120510493）1#变,天允机电,新得宝,西塘河村村叶家里公变,骏杰公司,良港村周家里2号公变,1#,必优特,","scope":"浙江省-杭州市-余杭区-良渚街道-西塘河行政村(潘塘自然村,104国道,莫干山路,中潘塘自然村,西塘河自然村),良渚街道-良港行政村(周家里自然村,太平自然村,打网自然村),良渚街道-良渚行政村(莫干山路,良博路),良渚街道-杜甫行政村-杜甫自然村,仁和街道-獐山社区-东西大道;良渚街道-西塘河行政村(杭州余杭西塘河股份经济合作社,闻宏伟,杭州宏美机械工具有限公司,杭州鑫帆纺织有限公司,杭州玉城五金有限公司,杭州市余杭区良渚西塘河幼儿园),良渚街道-杜甫行政村(杭州洪氏工贸有限公司,中交第二航务工程局有限公司余杭分公司),良渚街道-良渚行政村(杭州余杭良渚彩色印务有限公司,杭州金丰机械有限公司,杭州新雅家私制造有限公司,杭州向山贸易有限公司,杭州卡通文具用品有限公司,杭州骆越酒店管理有限公司,杭州市公安局余杭区分局良渚派出所,杭州广盛泡沫塑料有限公司,杭州鑫帆纺织有限公司,杭州龙腾实业有限公司,国家税务总局杭州市余杭区税务局,杭州和祥经贸有限公司,杭州余杭新得宝丝织工艺有限公司,杭州市余杭区收费管理所,莫仙龙,杭州齐创电控设备有限公司,浙江中南建设集团有限公司,杭州良寓酒店管理有限公司,杭州宇诚实业有限公司),良渚街道-良港行政村(杭州余杭区星华幼托园,杭州余杭何备连中西医结合诊所,杭州创鑫电力设备安装有限公司,杭州向山贸易有限公司,杭州市余杭区良渚街道良港村村民委员会),良渚街道(七贤桥行政村-杭州荣满粮油贸易有限公司,勾庄行政村-杭州悦达金属材料有限公司,施家湾社区-浙江中南建设集团有限公司)","startTime":"2020-01-10 21:18:00","stopDate":"2020-01-10 21:35:00","orgNo":"3340140","typeCode":"电网故障停限电","poweroffArea":"110kV勾庄变:潘塘H435线","poweroffReason":"高压开关跳闸 原停电结束时间为2020-01-10 23:18:00,为减少客户停电时间,加快工作进度,提前送电,现变更停电结束时间为2020-01-10 21:35:00","powerTime":"2020-01-10 21:24:44","powerComm":"已送电","subsNo":"","lineNo":"","tgNo":"","tgName":null,"infoStatus":"1","orgName":"国网浙江杭州市余杭区供电有限公司","typeName":null,"infoStatusName":null,"dateDay":null,"orgNos":null,"nowTime":null,"countyName":null,"streetName":null,"villageName":null,"roadName":null,"communityName":null,"tranName":null,"sdLineName":null,"cityCode":"3340140","cityName":"国网浙江杭州市余杭区供电有限公司","provinceCode":null,"stopTime":"2020-01-10 21:35:00","powerType":"全部","powerOffArea":"110kV勾庄变:潘塘H435线","powerOffReason":"高压开关跳闸 原停电结束时间为2020-01-10 23:18:00,为减少客户停电时间,加快工作进度,提前送电,现变更停电结束时间为2020-01-10 21:35:00","powerOffId":"2020011031020244"},{"poweroffId":2020011031020242,"sgpoweroffId":null,"subsName":"","lineName":"10kV义集C515线","pubTranName":"义桥集镇6#变,","scope":"浙江省-杭州市-萧山区-义桥镇-罗峰社区(东方路,东方路77号,义桥街)，义桥镇农业银行等一带","startTime":"2020-01-10 20:47:54","stopDate":"2020-01-10 23:15:54","orgNo":"3340130","typeCode":"电网故障停限电","poweroffArea":"35kV义桥变:义集C515线-义桥集镇6#变后段","poweroffReason":"(低压停电信息)低压开关跳闸 原停电结束时间为2020-01-10 23:56:54,为减少客户停电时间,加快工作进度,提前送电,现变更停电结束时间为2020-01-10 23:15:54","powerTime":"2020-01-10 22:33:49","powerComm":"已送电","subsNo":"","lineNo":"","tgNo":"","tgName":null,"infoStatus":"1","orgName":"国网浙江杭州市萧山区供电有限公司","typeName":null,"infoStatusName":null,"dateDay":null,"orgNos":null,"nowTime":null,"countyName":null,"streetName":null,"villageName":null,"roadName":null,"communityName":null,"tranName":null,"sdLineName":null,"cityCode":"3340130","cityName":"国网浙江杭州市萧山区供电有限公司","provinceCode":null,"stopTime":"2020-01-10 23:15:54","powerType":"全部","powerOffArea":"35kV义桥变:义集C515线-义桥集镇6#变后段","powerOffReason":"(低压停电信息)低压开关跳闸 原停电结束时间为2020-01-10 23:56:54,为减少客户停电时间,加快工作进度,提前送电,现变更停电结束时间为2020-01-10 23:15:54","powerOffId":"2020011031020242"},{"poweroffId":2020011031020241,"sgpoweroffId":null,"subsName":"","lineName":"10kV湾里T414线","pubTranName":"湾里1号公变,","scope":"浙江省-杭州市-桐庐县-城南街道-湾里行政村(马家自然村,湾里自然村,湾里村向一组)","startTime":"2020-01-10 20:41:44","stopDate":"2020-01-10 22:41:44","orgNo":"3340150","typeCode":"电网故障停限电","poweroffArea":"110kV枫塘变:湾里T414线-湾里1号公变后段","poweroffReason":"(低压停电信息)低压开关跳闸","powerTime":"2020-01-10 22:30:26","powerComm":"已送电","subsNo":"","lineNo":"","tgNo":"","tgName":null,"infoStatus":"1","orgName":"国网浙江桐庐县供电公司","typeName":null,"infoStatusName":null,"dateDay":null,"orgNos":null,"nowTime":null,"countyName":null,"streetName":null,"villageName":null,"roadName":null,"communityName":null,"tranName":null,"sdLineName":null,"cityCode":"3340150","cityName":"国网浙江桐庐县供电公司","provinceCode":null,"stopTime":"2020-01-10 22:41:44","powerType":"全部","powerOffArea":"110kV枫塘变:湾里T414线-湾里1号公变后段","powerOffReason":"(低压停电信息)低压开关跳闸","powerOffId":"2020011031020241"},{"poweroffId":2020011031020239,"sgpoweroffId":null,"subsName":"","lineName":"10kV锻造C334线","pubTranName":"勇建村4#变,","scope":"浙江省-杭州市-萧山区-瓜沥镇-勇建行政村(勇建自然村,衙党公路)一带","startTime":"2020-01-10 20:08:38","stopDate":"2020-01-10 21:30:38","orgNo":"3340130","typeCode":"电网故障停限电","poweroffArea":"110kV沿塘变:锻造C334线-勇建村4#变台区低压开关","poweroffReason":"(低压停电信息)低压熔断器短路故障 原停电结束时间为2020-01-10 22:15:38,为减少客户停电时间,加快工作进度,提前送电,现变更停电结束时间为2020-01-10 21:30:38","powerTime":"2020-01-10 20:48:11","powerComm":"已送电","subsNo":"","lineNo":"","tgNo":"","tgName":null,"infoStatus":"1","orgName":"国网浙江杭州市萧山区供电有限公司","typeName":null,"infoStatusName":null,"dateDay":null,"orgNos":null,"nowTime":null,"countyName":null,"streetName":null,"villageName":null,"roadName":null,"communityName":null,"tranName":null,"sdLineName":null,"cityCode":"3340130","cityName":"国网浙江杭州市萧山区供电有限公司","provinceCode":null,"stopTime":"2020-01-10 21:30:38","powerType":"全部","powerOffArea":"110kV沿塘变:锻造C334线-勇建村4#变台区低压开关","powerOffReason":"(低压停电信息)低压熔断器短路故障 原停电结束时间为2020-01-10 22:15:38,为减少客户停电时间,加快工作进度,提前送电,现变更停电结束时间为2020-01-10 21:30:38","powerOffId":"2020011031020239"}],"pageModel":{"pageNow":588,"totalCount":17789,"totalPage":1779,"tableRows":0,"pageCount":10,"beginCount":5870},"isExperi":"1"}