{"message":"","today":"2020-06-15","seleList":[{"poweroffId":2020011031020231,"sgpoweroffId":null,"subsName":"","lineName":"10kV航坞C473线","pubTranName":"大埠头公变,","scope":"浙江省-杭州市-萧山区-瓜沥镇-明朗行政村(东灵路,商贸街,明朗自然村,金家弄,人民路,小桥头路,明朗路),瓜沥镇-芭蕉砚社区(人民路,人民路620号),瓜沥镇-城中社区(商贸桥弄,商贸街),瓜沥镇(东灵社区-人民路,塘头社区-人民路)一带","startTime":"2020-01-10 18:10:09","stopDate":"2020-01-10 20:30:09","orgNo":"3340130","typeCode":"电网故障停限电","poweroffArea":"35kV塘头变:航坞C473线-大埠头公变台区低压开关","poweroffReason":"(低压停电信息)低压架空导线断线故障 原停电结束时间为2020-01-10 20:45:09,为减少客户停电时间,加快工作进度,提前送电,现变更停电结束时间为2020-01-10 20:30:09","powerTime":"2020-01-10 19:50:38","powerComm":"已送电","subsNo":"","lineNo":"","tgNo":"","tgName":null,"infoStatus":"1","orgName":"国网浙江杭州市萧山区供电有限公司","typeName":null,"infoStatusName":null,"dateDay":null,"orgNos":null,"nowTime":null,"countyName":null,"streetName":null,"villageName":null,"roadName":null,"communityName":null,"tranName":null,"sdLineName":null,"cityCode":"3340130","cityName":"国网浙江杭州市萧山区供电有限公司","provinceCode":null,"stopTime":"2020-01-10 20:30:09","powerType":"全部","powerOffArea":"35kV塘头变:航坞C473线-大埠头公变台区低压开关","powerOffReason":"(低压停电信息)低压架空导线断线故障 原停电结束时间为2020-01-10 20:45:09,为减少客户停电时间,加快工作进度,提前送电,现变更停电结束时间为2020-01-10 20:30:09","powerOffId":"2020011031020231"},{"poweroffId":2020011031020228,"sgpoweroffId":null,"subsName":"","lineName":"10kV五联8816线","pubTranName":"瓜北(6)农,","scope":"浙江省-杭州市-拱墅区-上塘街道-瓜山社区-瓜山村","startTime":"2020-01-10 18:21:00","stopDate":"2020-01-10 19:37:00","orgNo":"3340101","typeCode":"电网故障停限电","poweroffArea":"110kV拱宸变:五联8816线瓜北(6)农配变","poweroffReason":"高压开关跳闸 原停电结束时间为2020-01-10 22:21:00,为减少客户停电时间,加快工作进度,提前送电,现变更停电结束时间为2020-01-10 19:37:00","powerTime":"2020-01-10 19:07:46","powerComm":"已送电","subsNo":"","lineNo":"","tgNo":"","tgName":null,"infoStatus":"1","orgName":"浙江杭州电力客户服务中心","typeName":null,"infoStatusName":null,"dateDay":null,"orgNos":null,"nowTime":null,"countyName":null,"streetName":null,"villageName":null,"roadName":null,"communityName":null,"tranName":null,"sdLineName":null,"cityCode":"3340101","cityName":"浙江杭州电力客户服务中心","provinceCode":null,"stopTime":"2020-01-10 19:37:00","powerType":"全部","powerOffArea":"110kV拱宸变:五联8816线瓜北(6)农配变","powerOffReason":"高压开关跳闸 原停电结束时间为2020-01-10 22:21:00,为减少客户停电时间,加快工作进度,提前送电,现变更停电结束时间为2020-01-10 19:37:00","powerOffId":"2020011031020228"},{"poweroffId":2020011031020222,"sgpoweroffId":null,"subsName":"","lineName":"10kV宫里V411线","pubTranName":"石泉村（夹沙坞）,浙江交工路桥建设有限公司1#,浙江交工路桥建设有限公司1#,浙江交工路桥建设有限公司1#,杭州真心热能电器有限公司,浙江交工路桥建设有限公司2#,杭州富康机械成套设备有限公司,红家庙,杭州四达电炉成套设备有限公司（基建）,杭州科星鼓风机有限公司,杭州帝玛实业有限公司,临安市路灯管理所,青山九峰村,青山所汪家埠,浙江交工路桥建设有限公司1#,浙江中天方圆幕墙有限公司,临安市路灯管理所,浙江交工路桥建设有限公司1#,浙江金质丽化工有限公司,杭州临安宏盛工程塑料有限公司1#,浙江交工路桥建设有限公司1#,临安市洞宵宫农业科技开发有限公司,联塑（杭州）机械有限公司2,临安市供电局路灯管理所,联塑（杭州）机械有限公司1#,杭州青山湖石化有限公司,宫里村变,","scope":"浙江省-杭州市-余杭区-中泰街道-南峰行政村-南峰自然村,青山湖街道-洞霄宫行政村(石泉自然村,宫里自然村);青山湖街道-洞霄宫行政村(浙江交工路桥建设有限公司,临安市路灯管理所,杭州富康机械成套设备有限公司,浙江鸿正精密机械有限公司,杭州帝玛实业有限公司,杭州科星鼓风机有限公司,浙江中天方圆幕墙有限公司,杭州真心热能电器有限公司,浙江金质丽化工有限公司,杭州临安宏盛工程塑料有限公司,杭州青山湖石化有限公司),青山湖街道(青南行政村-杭州四达电炉成套设备有限公司,青山行政村-临安市路灯管理所)","startTime":"2020-01-10 17:14:52","stopDate":"2020-01-10 23:00:59","orgNo":"3340160","typeCode":"电网故障停限电","poweroffArea":"110kV石泉变:宫里V411线","poweroffReason":"高压开关跳闸 原停电结束时间为2020-01-10 23:59:59,为减少客户停电时间,加快工作进度,提前送电,现变更停电结束时间为2020-01-10 23:00:59","powerTime":"2020-01-10 22:50:48","powerComm":"已送电","subsNo":"","lineNo":"","tgNo":"","tgName":null,"infoStatus":"1","orgName":"国网浙江临安市供电公司","typeName":null,"infoStatusName":null,"dateDay":null,"orgNos":null,"nowTime":null,"countyName":null,"streetName":null,"villageName":null,"roadName":null,"communityName":null,"tranName":null,"sdLineName":null,"cityCode":"3340160","cityName":"国网浙江临安市供电公司","provinceCode":null,"stopTime":"2020-01-10 23:00:59","powerType":"全部","powerOffArea":"110kV石泉变:宫里V411线","powerOffReason":"高压开关跳闸 原停电结束时间为2020-01-10 23:59:59,为减少客户停电时间,加快工作进度,提前送电,现变更停电结束时间为2020-01-10 23:00:59","powerOffId":"2020011031020222"},{"poweroffId":2020011031020220,"sgpoweroffId":null,"subsName":"","lineName":"10kV义集C515线","pubTranName":"义桥集镇6#变,","scope":"浙江省-杭州市-萧山区-义桥镇-罗峰社区(东方路,东方路77号,义桥街)等一带","startTime":"2020-01-10 16:40:07","stopDate":"2020-01-10 19:05:07","orgNo":"3340130","typeCode":"电网故障停限电","poweroffArea":"35kV义桥变:义集C515线-义桥集镇6#变低压开关","poweroffReason":"(低压停电信息)低压开关跳闸 原停电结束时间为2020-01-10 19:58:07,为减少客户停电时间,加快工作进度,提前送电,现变更停电结束时间为2020-01-10 19:05:07","powerTime":"2020-01-10 18:14:40","powerComm":"已送电","subsNo":"","lineNo":"","tgNo":"","tgName":null,"infoStatus":"1","orgName":"国网浙江杭州市萧山区供电有限公司","typeName":null,"infoStatusName":null,"dateDay":null,"orgNos":null,"nowTime":null,"countyName":null,"streetName":null,"villageName":null,"roadName":null,"communityName":null,"tranName":null,"sdLineName":null,"cityCode":"3340130","cityName":"国网浙江杭州市萧山区供电有限公司","provinceCode":null,"stopTime":"2020-01-10 19:05:07","powerType":"全部","powerOffArea":"35kV义桥变:义集C515线-义桥集镇6#变低压开关","powerOffReason":"(低压停电信息)低压开关跳闸 原停电结束时间为2020-01-10 19:58:07,为减少客户停电时间,加快工作进度,提前送电,现变更停电结束时间为2020-01-10 19:05:07","powerOffId":"2020011031020220"},{"poweroffId":2020011031020210,"sgpoweroffId":null,"subsName":"","lineName":"10kV永轴8434线","pubTranName":"石信,","scope":"浙江省-杭州市-下城区-石桥街道-石桥社区-石桥路","startTime":"2020-01-10 16:45:00","stopDate":"2020-01-10 18:50:00","orgNo":"3340101","typeCode":"电网故障停限电","poweroffArea":"110kV永宁变:永轴8434线石信配变","poweroffReason":"高压开关跳闸 原停电结束时间为2020-01-10 20:45:00,为减少客户停电时间,加快工作进度,提前送电,现变更停电结束时间为2020-01-10 18:50:00","powerTime":"2020-01-10 18:20:40","powerComm":"已送电","subsNo":"","lineNo":"","tgNo":"","tgName":null,"infoStatus":"1","orgName":"浙江杭州电力客户服务中心","typeName":null,"infoStatusName":null,"dateDay":null,"orgNos":null,"nowTime":null,"countyName":null,"streetName":null,"villageName":null,"roadName":null,"communityName":null,"tranName":null,"sdLineName":null,"cityCode":"3340101","cityName":"浙江杭州电力客户服务中心","provinceCode":null,"stopTime":"2020-01-10 18:50:00","powerType":"全部","powerOffArea":"110kV永宁变:永轴8434线石信配变","powerOffReason":"高压开关跳闸 原停电结束时间为2020-01-10 20:45:00,为减少客户停电时间,加快工作进度,提前送电,现变更停电结束时间为2020-01-10 18:50:00","powerOffId":"2020011031020210"},{"poweroffId":2020011031020196,"sgpoweroffId":null,"subsName":"","lineName":"10kV高湖D594线","pubTranName":"中天建设集团有限公司1#变,观前村9号毛竹山公变,1#,长山村1#变,新桥村8号下沙章基墩公变,杭州崇德家纺有限公司,水稻所4号章墩公变,富阳市水务有限公司,中天建设集团有限公司2#变,杭州富阳工贸资产经营投资集团有限公司1#变,中天建设集团有限公司4#变,杭州富阳通用锡业有限公司,中天建设集团有限公司3#变,杭州德莱涂料有限公司,浙江世轮实业有限公司,杭州富阳市华银塑料厂,","scope":"浙江省-杭州市-富阳区-富春街道-水稻所试验农场-水稻所路,银湖街道-高桥行政村(下沙自然村,新桥自然村),银湖街道-观前行政村(观前自然村,黄泥山自然村,长山自然村,大长山自然村);富春街道-湖塍行政村(杭州富阳通用锡业有限公司,杭州富阳邦东化工有限公司,杭州旷博机械设备有限公司),银湖街道-高桥行政村(杭州富阳水务有限公司,杭州富阳环联汽车服务有限公司),银湖街道-观前行政村(杭州富阳华银塑料厂,长山村,中天建设集团有限公司),富春街道(东山社区-杭州富阳工贸资产经营投资集团有限公司,金桥社区-杭州慧诺光电科技有限公司)","startTime":"2020-01-10 16:04:29","stopDate":"2020-01-10 18:04:29","orgNo":"3340170","typeCode":"电网故障停限电","poweroffArea":"110kV高桥变:高湖D594线","poweroffReason":"高压开关跳闸","powerTime":"2020-01-10 17:17:57","powerComm":"已送电","subsNo":"","lineNo":"","tgNo":"","tgName":null,"infoStatus":"1","orgName":"国网浙江杭州市富阳区供电公司","typeName":null,"infoStatusName":null,"dateDay":null,"orgNos":null,"nowTime":null,"countyName":null,"streetName":null,"villageName":null,"roadName":null,"communityName":null,"tranName":null,"sdLineName":null,"cityCode":"3340170","cityName":"国网浙江杭州市富阳区供电公司","provinceCode":null,"stopTime":"2020-01-10 18:04:29","powerType":"全部","powerOffArea":"110kV高桥变:高湖D594线","powerOffReason":"高压开关跳闸","powerOffId":"2020011031020196"},{"poweroffId":2020011031020195,"sgpoweroffId":null,"subsName":"","lineName":"10kV山炬9520线","pubTranName":"田里坞,","scope":"浙江省-杭州市-滨江区-浦沿街道-杨家墩社区-浦沿路一带","startTime":"2020-01-19 09:30:00","stopDate":"2020-01-19 17:00:00","orgNo":"3340101","typeCode":"计划停电","poweroffArea":"110kV冠山变:山炬9520线-田里坞后段","poweroffReason":"桥头王分线工作","powerTime":"2020-01-19 13:02:59","powerComm":"已送电","subsNo":"","lineNo":"","tgNo":"","tgName":null,"infoStatus":"1","orgName":"浙江杭州电力客户服务中心","typeName":null,"infoStatusName":null,"dateDay":null,"orgNos":null,"nowTime":null,"countyName":null,"streetName":null,"villageName":null,"roadName":null,"communityName":null,"tranName":null,"sdLineName":null,"cityCode":"3340101","cityName":"浙江杭州电力客户服务中心","provinceCode":null,"stopTime":"2020-01-19 17:00:00","powerType":"全部","powerOffArea":"110kV冠山变:山炬9520线-田里坞后段","powerOffReason":"桥头王分线工作","powerOffId":"2020011031020195"},{"poweroffId":2020011031020187,"sgpoweroffId":null,"subsName":"","lineName":"10kV创意9158线","pubTranName":"金粉,水源施二1#,诚佳二,2#,利资施三,智通,旺达,石龙二,支建,谷鼎,华控,1#,1#变压器,三奥电机,利资施四,之迅,转塔,永业光伏,3#,水源施二2#,世豪机械,石龙山,智通施,","scope":"浙江省-杭州市-西湖区-双浦镇-灵山行政村-杭州钱南原水有限公司,转塘街道-石龙山社区(浙江大有集团有限公司,杭州金龙矿粉有限公司,杭州市西湖区转塘街道石龙山社区居民委员会,杭州华方数控机床有限公司,杭州三奥电机有限公司,杭州石龙山实业有限公司,杭州云栖小镇开发有限公司,杭州之迅实业有限公司,杭州富裕鞋业有限公司,中国铁塔股份有限公司杭州市分公司,浙江智通网络信息技术有限公司),转塘街道(凌家桥社区-杭州云栖小镇开发有限公司,杭州诚佳服饰有限公司)","startTime":"2020-01-10 15:24:06","stopDate":"2020-01-10 16:24:06","orgNo":"3340101","typeCode":"电网故障停限电","poweroffArea":"110kV象山变:创意9158线-转泥分线后段","poweroffReason":"高压开关跳闸 原停电结束时间为2020-01-10 17:24:06,为减少客户停电时间,加快工作进度,提前送电,现变更停电结束时间为2020-01-10 16:24:06","powerTime":"2020-01-10 15:56:04","powerComm":"已送电","subsNo":"","lineNo":"","tgNo":"","tgName":null,"infoStatus":"1","orgName":"浙江杭州电力客户服务中心","typeName":null,"infoStatusName":null,"dateDay":null,"orgNos":null,"nowTime":null,"countyName":null,"streetName":null,"villageName":null,"roadName":null,"communityName":null,"tranName":null,"sdLineName":null,"cityCode":"3340101","cityName":"浙江杭州电力客户服务中心","provinceCode":null,"stopTime":"2020-01-10 16:24:06","powerType":"全部","powerOffArea":"110kV象山变:创意9158线-转泥分线后段","powerOffReason":"高压开关跳闸 原停电结束时间为2020-01-10 17:24:06,为减少客户停电时间,加快工作进度,提前送电,现变更停电结束时间为2020-01-10 16:24:06","powerOffId":"2020011031020187"},{"poweroffId":2020011031020178,"sgpoweroffId":null,"subsName":"","lineName":"10kV姚家R401线","pubTranName":"严家村姜洪公变,严家村严家配变,严家村生力坞公变,","scope":"浙江省-杭州市-淳安县-界首乡-严家行政村-严家村","startTime":"2020-01-15 08:30:00","stopDate":"2020-01-15 11:30:00","orgNo":"3340190","typeCode":"临时停电","poweroffArea":"110kV界首变:姚家R401线-洪畈支线9号杆跌落式熔断器后段","poweroffReason":"姚家R401线洪畈支线15号杆电杆移位","powerTime":"2020-01-15 10:34:40","powerComm":"已送电","subsNo":"","lineNo":"","tgNo":"","tgName":null,"infoStatus":"1","orgName":"国网浙江淳安县供电有限公司","typeName":null,"infoStatusName":null,"dateDay":null,"orgNos":null,"nowTime":null,"countyName":null,"streetName":null,"villageName":null,"roadName":null,"communityName":null,"tranName":null,"sdLineName":null,"cityCode":"3340190","cityName":"国网浙江淳安县供电有限公司","provinceCode":null,"stopTime":"2020-01-15 11:30:00","powerType":"全部","powerOffArea":"110kV界首变:姚家R401线-洪畈支线9号杆跌落式熔断器后段","powerOffReason":"姚家R401线洪畈支线15号杆电杆移位","powerOffId":"2020011031020178"},{"poweroffId":2020011031020174,"sgpoweroffId":null,"subsName":"","lineName":"10kV丽三C109线","pubTranName":"电力承装公变,","scope":"浙江省-杭州市-萧山区(新塘街道-泰和社区-高桥路,城厢街道-燕子河社区-育才路)育才西苑、月才西苑35.36栋、萧绍路华为大厦萧宾公寓36栋103一带","startTime":"2020-01-10 14:34:33","stopDate":"2020-01-10 20:00:33","orgNo":"3340130","typeCode":"电网故障停限电","poweroffArea":"110kV丽都变:丽三C109线-电力承装公变后段","poweroffReason":"(低压停电信息)低压电缆坏 原停电结束时间为2020-01-10 17:30:33,因天气加上现场施工困难原因,现变更停电结束时间为2020-01-10 20:30:33 加快工作进度,提前送电,现变更结束时间为2020-01-10 20:00:33","powerTime":"2020-01-10 19:08:21","powerComm":"已送电","subsNo":"","lineNo":"","tgNo":"","tgName":null,"infoStatus":"1","orgName":"国网浙江杭州市萧山区供电有限公司","typeName":null,"infoStatusName":null,"dateDay":null,"orgNos":null,"nowTime":null,"countyName":null,"streetName":null,"villageName":null,"roadName":null,"communityName":null,"tranName":null,"sdLineName":null,"cityCode":"3340130","cityName":"国网浙江杭州市萧山区供电有限公司","provinceCode":null,"stopTime":"2020-01-10 20:00:33","powerType":"全部","powerOffArea":"110kV丽都变:丽三C109线-电力承装公变后段","powerOffReason":"(低压停电信息)低压电缆坏 原停电结束时间为2020-01-10 17:30:33,因天气加上现场施工困难原因,现变更停电结束时间为2020-01-10 20:30:33 加快工作进度,提前送电,现变更结束时间为2020-01-10 20:00:33","powerOffId":"2020011031020174"}],"pageModel":{"pageNow":589,"totalCount":17789,"totalPage":1779,"tableRows":0,"pageCount":10,"beginCount":5880},"isExperi":"1"}