{"message":"","today":"2020-06-15","seleList":[{"poweroffId":2020011031020109,"sgpoweroffId":null,"subsName":"","lineName":"10kV千鹤Y121线","pubTranName":"城西村白毛坞台区,","scope":"浙江省-杭州市-建德市-梅城镇 千鹤行政村-千鹤自然村,城西行政村-下高自然村一带用户","startTime":"2020-01-10 11:00:00","stopDate":"2020-01-10 13:00:00","orgNo":"3340180","typeCode":"电网故障停限电","poweroffArea":"110kV梅城变:千鹤Y121线-城西村白毛坞台区后段","poweroffReason":"(低压停电信息)低压开关跳闸","powerTime":"2020-01-10 12:23:00","powerComm":"已送电","subsNo":"","lineNo":"","tgNo":"","tgName":null,"infoStatus":"1","orgName":"国网浙江建德市供电有限公司","typeName":null,"infoStatusName":null,"dateDay":null,"orgNos":null,"nowTime":null,"countyName":null,"streetName":null,"villageName":null,"roadName":null,"communityName":null,"tranName":null,"sdLineName":null,"cityCode":"3340180","cityName":"国网浙江建德市供电有限公司","provinceCode":null,"stopTime":"2020-01-10 13:00:00","powerType":"全部","powerOffArea":"110kV梅城变:千鹤Y121线-城西村白毛坞台区后段","powerOffReason":"(低压停电信息)低压开关跳闸","powerOffId":"2020011031020109"},{"poweroffId":2020011031020098,"sgpoweroffId":null,"subsName":"","lineName":"10kV经贸C634线","pubTranName":"浙江悍马光电设备有限公司,临浦集镇44#变,杭州汇宇宾馆有限公司（1316006170）,前孔村3#变,临浦集镇15#变,临浦集镇16#变,浙江萧山农村合作银行临浦支行,自由孔村4#变,临浦集镇43#变,自由孔村6#变,香格名苑4#公变,中国工商银行杭州市萧山支行临浦分理处,杭州市萧山区第三人民医院1#,杭州市萧山区环境保护局,前孔村2#变,杭州市萧山区浦阳江流域管理处,杭州宏升塑胶有限公司,杭州萧山华东化工设备有限公司,自由孔村2#变,前孔村1#变,变压器,香格名苑6#公变,萧山地方税务局临浦征收管理分局,杭州市萧山区第三人民医院4#,1#,自由孔7#变,汇秀山庄公变,杭州萧山区人民法院临浦人民法庭,临浦集镇13#变,浦阳江水利管理所,杭州市烟草公司萧山分公司,香格名苑5#公变,香格名苑7#公变,前孔村6#变,交警队,杭州天安消防水带有限公司,西江银座新1#公变,杭州市萧山区第三人民医院1#,杭州市萧山区第三人民医院3#,前孔村4#变,自由孔村1#变,杭州银越湾餐饮有限公司,自由孔村3#变,杭州市萧山区公路管理处（自由孔）,杭州萧山天发伞厂,萧山长途汽车运输有限公司(经贸),临浦集镇14#变,浙江汇德隆实业集团有限公司,浙江第二锻压机床厂,杭州市萧山区公路管理处（峙山西路）,临浦集镇17#变,杭州市公安局萧山区分局临浦派出所,前孔村5#变,自由孔村5#变,","scope":"浙江省-杭州市-萧山区-临浦镇-西市街社区(峙山西路,五洞闸路,觉海路,黄坡山路,黄坡山路25-1号,峙山东路,临江路),临浦镇-东麓池社区(峙山西路,峙山北路,东麓池弄,人民路,峙山西路,经贸区,临江路),临浦镇-自由孔社区(自由孔自然村,峙山北路),临浦镇-前孔社区(前孔自然村,苎萝路,市乐路),临浦镇-峙山西路(峙山西苑小区,临浦经贸区),临浦镇(石塔社区-石塔村,山阴街社区-峙山北路);临浦镇(杭州萧山长途汽车运输有限公司,杭州市萧山区临浦镇人民政府,国家税务总局杭州市萧山区税务局,杭州萧山区人民法院临浦人民法庭,杭州市萧山区环境保护局,杭州萧浦建设有限公司,浙江第二锻压机床厂,杭州萧山华东化工设备有限公司,宏升塑胶(杭州)有限公司,杭州天安消防水带有限公司,浙江汇德隆实业集团有限公司,杭州市萧山区浦阳江流域管理处,杭州市烟草公司萧山分公司,杭州市萧山区公路管理处,浙江萧山农村商业银行股份有限公司,中国工商银行股份有限公司萧山分行,杭州市公安局萧山区分局交通警察大队,杭州银越湾餐饮有限公司,杭州汇宇宾馆有限公司,杭州市萧山区第三人民医院,杭州萧山天发伞厂)，浙江省杭州市萧山区临浦镇劳动路，浙江省杭州市萧山区临浦镇东麓池社区峙山西路73号，浙江省杭州市萧山区临浦镇香格名苑商铺，浙江省杭州市萧山区临浦镇自由孔社区香格名苑小区9幢峙山北路291号，浙江省杭州市萧山区临浦镇四川西路，浙江省杭州市萧山区临浦镇唐家祠弄（山阴街居委会），浙江省杭州市萧山区进化镇竹家村，临浦临东社区等一带","startTime":"2020-01-10 10:26:00","stopDate":"2020-01-10 13:10:00","orgNo":"3340130","typeCode":"电网故障停限电","poweroffArea":"110kV临浦变:经贸C634线地税II开地税C6341线后段","poweroffReason":"高压开关跳闸 原停电结束时间为2020-01-10 13:59:00,为减少客户停电时间,加快工作进度,提前送电,现变更停电结束时间为2020-01-10 13:10:00","powerTime":"2020-01-10 12:25:23","powerComm":"已送电","subsNo":"","lineNo":"","tgNo":"","tgName":null,"infoStatus":"1","orgName":"国网浙江杭州市萧山区供电有限公司","typeName":null,"infoStatusName":null,"dateDay":null,"orgNos":null,"nowTime":null,"countyName":null,"streetName":null,"villageName":null,"roadName":null,"communityName":null,"tranName":null,"sdLineName":null,"cityCode":"3340130","cityName":"国网浙江杭州市萧山区供电有限公司","provinceCode":null,"stopTime":"2020-01-10 13:10:00","powerType":"全部","powerOffArea":"110kV临浦变:经贸C634线地税II开地税C6341线后段","powerOffReason":"高压开关跳闸 原停电结束时间为2020-01-10 13:59:00,为减少客户停电时间,加快工作进度,提前送电,现变更停电结束时间为2020-01-10 13:10:00","powerOffId":"2020011031020098"},{"poweroffId":2020011031020097,"sgpoweroffId":null,"subsName":"","lineName":"10kV劳动C637线","pubTranName":"临浦集镇45#变,临浦集镇39#变,临浦集镇51#变,轻工机械,临浦集镇4#变,杭州展鑫塑料制品有限公司,杭州萧山城市建设投资集团有限公司,粮油购销,高田陈1#变,杭州康发塑料机械有限公司,临浦集镇2#变,高田陈9#变,临浦集镇11#变,临浦燃料,临浦集镇8#变,临浦集镇1#变,临浦集镇36#变,临浦集镇7#变,临浦集镇12#变,临浦集镇35#变,临浦集镇5#变,临浦集镇37#变,临浦集镇9#变,杭州萧山浦阳江建设开发有限公司,杭州大迈机械有限公司,杭州萧山钧源塑料厂,临浦集镇34#变,佳乐塑料,临浦集镇3#变,杭州中商霞山超市有限公司,临浦集镇6#变,临浦集镇10#变,乾源糖果,临浦集镇38#变,","scope":"浙江省-杭州市-萧山区-临浦镇-劳动路居委会(劳动路,金谷弄8号),临浦镇-西市街社区(西市街,临东路,西江塘路,西江塘南路,临浦自然村,直街,华家弄,新誉街,黄坡山路),临浦镇-山阴街社区(西江塘南路,上灰弄,下灰弄,西江塘路,石宝畈路,旧里河,劳动路,新庵弄,劳动路51号,同兴弄,山阴街,直街,上灰弄23号,劳动路56-6号,萧山直街,旧里河菜场,劳动路62-14号,牛头山,金谷弄8号,三阴横街,缸甏弄,中沙街,仙家弄,山阴直街,金谷弄,宣家弄,金谷弄10号,长生弄,中街,扇面街,火神塘路,新塘弄),临浦镇-东麓池社区(新河路,东藩路),临浦镇-高田陈社区(外塘自然村,高田陈自然村),临浦镇-石塔社区(浴美施路,石塔村),临浦镇(苎萝行政村-浴美施自然村,西江塘居委会-西江塘,临东社区-牛场头自然村);临浦镇(浙江悍马天窗有限公司,杭州萧山粮食购销有限责任公司临浦分公司,杭州乾晨糖果食品厂,杭州展鑫塑料制品有限公司,杭州萧山轻工机械设备有限公司,杭州萧山佳乐塑料有限公司,杭州萧山临浦燃料有限公司,杭州康发塑料机械有限公司,杭州中商霞山超市有限公司,杭州萧山钧源塑料厂,杭州萧山浦阳江建设开发有限公司,杭州萧山城市建设投资集团有限公司)等一带","startTime":"2020-01-10 10:32:00","stopDate":"2020-01-10 13:10:00","orgNo":"3340130","typeCode":"电网故障停限电","poweroffArea":"110kV临浦变:劳动C637线劳动C637线劳动二段分线开关后段","poweroffReason":"高压开关跳闸 原停电结束时间为2020-01-10 13:59:00,为减少客户停电时间,加快工作进度,提前送电,现变更停电结束时间为2020-01-10 13:10:00","powerTime":"2020-01-10 12:18:40","powerComm":"已送电","subsNo":"","lineNo":"","tgNo":"","tgName":null,"infoStatus":"1","orgName":"国网浙江杭州市萧山区供电有限公司","typeName":null,"infoStatusName":null,"dateDay":null,"orgNos":null,"nowTime":null,"countyName":null,"streetName":null,"villageName":null,"roadName":null,"communityName":null,"tranName":null,"sdLineName":null,"cityCode":"3340130","cityName":"国网浙江杭州市萧山区供电有限公司","provinceCode":null,"stopTime":"2020-01-10 13:10:00","powerType":"全部","powerOffArea":"110kV临浦变:劳动C637线劳动C637线劳动二段分线开关后段","powerOffReason":"高压开关跳闸 原停电结束时间为2020-01-10 13:59:00,为减少客户停电时间,加快工作进度,提前送电,现变更停电结束时间为2020-01-10 13:10:00","powerOffId":"2020011031020097"},{"poweroffId":2020011031020096,"sgpoweroffId":null,"subsName":"","lineName":"10kV刘东9951线","pubTranName":"山桥小学,","scope":"浙江省杭州市西湖区山桥小学及附近一带","startTime":"2020-01-20 13:50:00","stopDate":"2020-01-20 19:00:00","orgNo":"3340101","typeCode":"计划停电","poweroffArea":"110kV墩北变:刘东9951线-山桥小学后段","poweroffReason":"杭州市城市基础设施建设发展中心墩余路迁改肖家坝分线部分线路上改下，电缆施工、试验及搭头等（配合带电） 原停电结束时间为2020-01-20 17:00:00,因计划调整原因,现变更停电结束时间为2020-01-20 19:00:00","powerTime":"2020-01-20 18:06:02","powerComm":"已送电","subsNo":"","lineNo":"","tgNo":"","tgName":null,"infoStatus":"1","orgName":"浙江杭州电力客户服务中心","typeName":null,"infoStatusName":null,"dateDay":null,"orgNos":null,"nowTime":null,"countyName":null,"streetName":null,"villageName":null,"roadName":null,"communityName":null,"tranName":null,"sdLineName":null,"cityCode":"3340101","cityName":"浙江杭州电力客户服务中心","provinceCode":null,"stopTime":"2020-01-20 19:00:00","powerType":"全部","powerOffArea":"110kV墩北变:刘东9951线-山桥小学后段","powerOffReason":"杭州市城市基础设施建设发展中心墩余路迁改肖家坝分线部分线路上改下，电缆施工、试验及搭头等（配合带电） 原停电结束时间为2020-01-20 17:00:00,因计划调整原因,现变更停电结束时间为2020-01-20 19:00:00","powerOffId":"2020011031020096"},{"poweroffId":2020011031020095,"sgpoweroffId":null,"subsName":"","lineName":"10kV之龙6321线","pubTranName":"上埭(十),","scope":"浙江省杭州市西湖区转塘街道上城埭村138号、144号、148号、150号、152号、154号、158号、238号一带","startTime":"2020-01-20 13:00:00","stopDate":"2020-01-20 15:00:00","orgNo":"3340101","typeCode":"计划停电","poweroffArea":"110kV转塘变:之龙6321线-上埭(十)后段","poweroffReason":"(低压停电信息)3.转塘街道上城埭行政村138号表计移表","powerTime":"2020-01-20 14:51:05","powerComm":"已送电","subsNo":"","lineNo":"","tgNo":"","tgName":null,"infoStatus":"1","orgName":"浙江杭州电力客户服务中心","typeName":null,"infoStatusName":null,"dateDay":null,"orgNos":null,"nowTime":null,"countyName":null,"streetName":null,"villageName":null,"roadName":null,"communityName":null,"tranName":null,"sdLineName":null,"cityCode":"3340101","cityName":"浙江杭州电力客户服务中心","provinceCode":null,"stopTime":"2020-01-20 15:00:00","powerType":"全部","powerOffArea":"110kV转塘变:之龙6321线-上埭(十)后段","powerOffReason":"(低压停电信息)3.转塘街道上城埭行政村138号表计移表","powerOffId":"2020011031020095"},{"poweroffId":2020011031020094,"sgpoweroffId":null,"subsName":"","lineName":"10kV留南8869线","pubTranName":"何村(一),","scope":"浙江省杭州市西湖区何家村一变附近一带用户","startTime":"2020-01-20 12:30:00","stopDate":"2020-01-20 15:00:00","orgNo":"3340101","typeCode":"计划停电","poweroffArea":"110kV留下变:留南8869线-何村(一)后段","poweroffReason":"(低压停电信息)2.转塘街道何家村文化礼堂表计新装","powerTime":"2020-01-20 14:50:42","powerComm":"已送电","subsNo":"","lineNo":"","tgNo":"","tgName":null,"infoStatus":"1","orgName":"浙江杭州电力客户服务中心","typeName":null,"infoStatusName":null,"dateDay":null,"orgNos":null,"nowTime":null,"countyName":null,"streetName":null,"villageName":null,"roadName":null,"communityName":null,"tranName":null,"sdLineName":null,"cityCode":"3340101","cityName":"浙江杭州电力客户服务中心","provinceCode":null,"stopTime":"2020-01-20 15:00:00","powerType":"全部","powerOffArea":"110kV留下变:留南8869线-何村(一)后段","powerOffReason":"(低压停电信息)2.转塘街道何家村文化礼堂表计新装","powerOffId":"2020011031020094"},{"poweroffId":2020011031020092,"sgpoweroffId":null,"subsName":"","lineName":"10kV象湖9163线","pubTranName":"周富二,","scope":"浙江省杭州市西湖区双浦镇周富村用户杨根法、胡正芳、胡邦祥、杨建堂、杨根产、陈永坤、杨根杭、加工场一带","startTime":"2020-01-20 09:30:00","stopDate":"2020-01-20 13:45:00","orgNo":"3340101","typeCode":"计划停电","poweroffArea":"110kV象山变:象湖9163线-周富二后段","poweroffReason":"(低压停电信息)1.双浦镇周富村1号表计新装 原停电结束时间为2020-01-20 12:00:00,因计划调整原因,现变更停电结束时间为2020-01-20 13:45:00","powerTime":"2020-01-20 13:39:59","powerComm":"已送电","subsNo":"","lineNo":"","tgNo":"","tgName":null,"infoStatus":"1","orgName":"浙江杭州电力客户服务中心","typeName":null,"infoStatusName":null,"dateDay":null,"orgNos":null,"nowTime":null,"countyName":null,"streetName":null,"villageName":null,"roadName":null,"communityName":null,"tranName":null,"sdLineName":null,"cityCode":"3340101","cityName":"浙江杭州电力客户服务中心","provinceCode":null,"stopTime":"2020-01-20 13:45:00","powerType":"全部","powerOffArea":"110kV象山变:象湖9163线-周富二后段","powerOffReason":"(低压停电信息)1.双浦镇周富村1号表计新装 原停电结束时间为2020-01-20 12:00:00,因计划调整原因,现变更停电结束时间为2020-01-20 13:45:00","powerOffId":"2020011031020092"},{"poweroffId":2020011031020089,"sgpoweroffId":null,"subsName":"","lineName":"10kV樱花9168线","pubTranName":"新西湖花园一变,","scope":"浙江省杭州市西湖区新西湖花园南蓝贝斯42号至48号一带","startTime":"2020-01-19 09:30:00","stopDate":"2020-01-19 12:00:00","orgNo":"3340101","typeCode":"计划停电","poweroffArea":"110kV象山变:樱花9168线-新西湖花园一变后段","poweroffReason":"(低压停电信息)1.之江路198号新西湖花园南蓝贝斯43号表计新装","powerTime":"2020-01-19 11:50:50","powerComm":"已送电","subsNo":"","lineNo":"","tgNo":"","tgName":null,"infoStatus":"1","orgName":"浙江杭州电力客户服务中心","typeName":null,"infoStatusName":null,"dateDay":null,"orgNos":null,"nowTime":null,"countyName":null,"streetName":null,"villageName":null,"roadName":null,"communityName":null,"tranName":null,"sdLineName":null,"cityCode":"3340101","cityName":"浙江杭州电力客户服务中心","provinceCode":null,"stopTime":"2020-01-19 12:00:00","powerType":"全部","powerOffArea":"110kV象山变:樱花9168线-新西湖花园一变后段","powerOffReason":"(低压停电信息)1.之江路198号新西湖花园南蓝贝斯43号表计新装","powerOffId":"2020011031020089"},{"poweroffId":2020011031020088,"sgpoweroffId":null,"subsName":"","lineName":"10kV留泗8856线","pubTranName":"龙坎二变,","scope":"浙江省杭州市西湖区转塘街道龙门坎村杨家外里31号、40号至43号一带","startTime":"2020-01-19 13:30:00","stopDate":"2020-01-19 15:40:00","orgNo":"3340101","typeCode":"计划停电","poweroffArea":"110kV留下变:留泗8856线-龙坎二变后段","poweroffReason":"(低压停电信息)3.转塘街道龙门坎行政村杨家外里42号表计增容（8kw增容至12kw） 原停电结束时间为2020-01-19 15:00:00,因计划调整原因,现变更停电结束时间为2020-01-19 15:40:00","powerTime":"2020-01-19 15:30:13","powerComm":"已送电","subsNo":"","lineNo":"","tgNo":"","tgName":null,"infoStatus":"1","orgName":"浙江杭州电力客户服务中心","typeName":null,"infoStatusName":null,"dateDay":null,"orgNos":null,"nowTime":null,"countyName":null,"streetName":null,"villageName":null,"roadName":null,"communityName":null,"tranName":null,"sdLineName":null,"cityCode":"3340101","cityName":"浙江杭州电力客户服务中心","provinceCode":null,"stopTime":"2020-01-19 15:40:00","powerType":"全部","powerOffArea":"110kV留下变:留泗8856线-龙坎二变后段","powerOffReason":"(低压停电信息)3.转塘街道龙门坎行政村杨家外里42号表计增容（8kw增容至12kw） 原停电结束时间为2020-01-19 15:00:00,因计划调整原因,现变更停电结束时间为2020-01-19 15:40:00","powerOffId":"2020011031020088"},{"poweroffId":2020011031020087,"sgpoweroffId":null,"subsName":"","lineName":"10kV宫里V411线","pubTranName":"杭州青山湖石化有限公司,杭州富康机械成套设备有限公司,浙江中天方圆幕墙有限公司,红家庙,浙江交工路桥建设有限公司1#,联塑（杭州）机械有限公司1#,浙江金质丽化工有限公司,浙江交工路桥建设有限公司1#,浙江交工路桥建设有限公司1#,临安市路灯管理所,临安市洞宵宫农业科技开发有限公司,杭州真心热能电器有限公司,青山九峰村,浙江交工路桥建设有限公司1#,临安市路灯管理所,石泉村（夹沙坞）,浙江交工路桥建设有限公司1#,联塑（杭州）机械有限公司2,杭州临安宏盛工程塑料有限公司1#,临安市供电局路灯管理所,浙江交工路桥建设有限公司1#,宫里村变,浙江交工路桥建设有限公司2#,青山所汪家埠,杭州帝玛实业有限公司,杭州科星鼓风机有限公司,杭州四达电炉成套设备有限公司（基建）,","scope":"浙江省-杭州市-余杭区-中泰街道-南峰行政村-南峰自然村,青山湖街道-洞霄宫行政村(石泉自然村,宫里自然村);青山湖街道-洞霄宫行政村(浙江交工路桥建设有限公司,临安市路灯管理所,杭州富康机械成套设备有限公司,浙江鸿正精密机械有限公司,杭州帝玛实业有限公司,杭州科星鼓风机有限公司,浙江中天方圆幕墙有限公司,杭州真心热能电器有限公司,浙江金质丽化工有限公司,杭州临安宏盛工程塑料有限公司,杭州青山湖石化有限公司),青山湖街道(青南行政村-杭州四达电炉成套设备有限公司,青山行政村-临安市路灯管理所)","startTime":"2020-01-10 10:31:24","stopDate":"2020-01-10 17:00:00","orgNo":"3340160","typeCode":"电网故障停限电","poweroffArea":"110kV石泉变:宫里V411线","poweroffReason":"高压开关跳闸 原停电结束时间为2020-01-10 12:31:24,因现场高压故障处理未结束原因,现变更停电结束时间为2020-01-10 17:00:00","powerTime":"2020-01-10 16:50:47","powerComm":"已送电","subsNo":"","lineNo":"","tgNo":"","tgName":null,"infoStatus":"1","orgName":"国网浙江临安市供电公司","typeName":null,"infoStatusName":null,"dateDay":null,"orgNos":null,"nowTime":null,"countyName":null,"streetName":null,"villageName":null,"roadName":null,"communityName":null,"tranName":null,"sdLineName":null,"cityCode":"3340160","cityName":"国网浙江临安市供电公司","provinceCode":null,"stopTime":"2020-01-10 17:00:00","powerType":"全部","powerOffArea":"110kV石泉变:宫里V411线","powerOffReason":"高压开关跳闸 原停电结束时间为2020-01-10 12:31:24,因现场高压故障处理未结束原因,现变更停电结束时间为2020-01-10 17:00:00","powerOffId":"2020011031020087"}],"pageModel":{"pageNow":591,"totalCount":17789,"totalPage":1779,"tableRows":0,"pageCount":10,"beginCount":5900},"isExperi":"1"}