{"message":"","today":"2020-06-15","seleList":[{"poweroffId":2020011031020005,"sgpoweroffId":null,"subsName":"","lineName":"10kV信源C665线","pubTranName":"杭州升腾卫浴洁具有限公司,永联村（镇海）8#变,杭州盛虹轻纺有限公司,杭州盛虹轻纺有限公司,杭州聚卿针纺有限公司3#,杭州升腾卫浴洁具有限公司2#,杭州均益纺织有限公司,杭州萧山王氏纺织有限公司,杭州聚卿针纺有限公司1#,高压电动机,杭州均益纺织有限公司2#,杭州聚卿针纺有限公司2#,1#变,","scope":"浙江省-杭州市-萧山区-瓜沥镇-永联行政村-镇海自然村;瓜沥镇-永联行政村(杭州聚卿针纺有限公司,杭州升腾卫浴洁具有限公司),瓜沥镇-党山行政村(杭州萧山王氏纺织有限公司,杭州依超板业有限公司),瓜沥镇-解放行政村(杭州盛虹纺织有限公司,杭州均益纺织有限公司)一带","startTime":"2020-01-10 05:45:25","stopDate":"2020-01-10 07:10:25","orgNo":"3340130","typeCode":"电网故障停限电","poweroffArea":"35kV长沙变:信源C665线-信源C6651开关后段","poweroffReason":"高压柱上断路器短路故障 原停电结束时间为2020-01-10 09:45:25,为减少客户停电时间,加快工作进度,提前送电,现变更停电结束时间为2020-01-10 07:10:25","powerTime":"2020-01-10 06:15:47","powerComm":"已送电","subsNo":"","lineNo":"","tgNo":"","tgName":null,"infoStatus":"1","orgName":"国网浙江杭州市萧山区供电有限公司","typeName":null,"infoStatusName":null,"dateDay":null,"orgNos":null,"nowTime":null,"countyName":null,"streetName":null,"villageName":null,"roadName":null,"communityName":null,"tranName":null,"sdLineName":null,"cityCode":"3340130","cityName":"国网浙江杭州市萧山区供电有限公司","provinceCode":null,"stopTime":"2020-01-10 07:10:25","powerType":"全部","powerOffArea":"35kV长沙变:信源C665线-信源C6651开关后段","powerOffReason":"高压柱上断路器短路故障 原停电结束时间为2020-01-10 09:45:25,为减少客户停电时间,加快工作进度,提前送电,现变更停电结束时间为2020-01-10 07:10:25","powerOffId":"2020011031020005"},{"poweroffId":2020011031020003,"sgpoweroffId":null,"subsName":"","lineName":"10kV沿江C619线","pubTranName":"江南村（新街）9#变,沿江村8#变,盈中村7#变,杭州保颐置业有限公司5#,沿江村9#变,1#,杭州萧山宏烽塑胶有限公司,沿江村14#变,变压器,长虹路桥,杭州华元拆房有限公司,1#变,杭州华磊塑料包装有限公司,03省道安置房,新发水管厂,杭州市地铁集团有限责任公司,塑料厂,1#变,沿江村18#变,沿江村6#变,交通投资集团（二号）变压器,汇丰呢绒,杭州港海建设有限公司,江南村(盈上)1#变,双圩村12#变,双圩村2#变,沿江村7#变,交通投资集团（三号）变压器,杭州同源彩印包装有限公司,盈中村12#变,沿江村19#变,江南村(九号坝)6#变,江南村(九号坝)1#变,江南村(盈上)2#变,双圩村17#变,双圩村13#变,沿江村2#变,沿江村13#变,沿江村11#变,盈中村4#变,绿典化工,杭州市萧山区人民政府新街街道办事处,杭州依博市政工程有限公司,杭州港海建设有限,飞贺五金,盈中村16#变,双圩村9#变,盈中村15#变,盈中村2#变,公路开发,双圩村7#变,双圩村19#变,盈中村1#变,山末址村9#变,中石油东部管道有限公司（沿江）,沿江村3#变,杭州保颐置业有限公司4#,杭州市地铁集团有限责任公司1#,盈中村10#变,盈中村5#变,杭州保颐置业有限公司3#,新街镇沿江行政村机场公路高架9#变配电变压器,盈中村11#变,爱得利,新街镇沿江行政村机场公路地面道路19#变配变压器,盈中村8#变,江南村(盈上)5#变,盈中村9#变,沿江村10#变,沿江村17#变,杭州保颐置业有限公司2#,盈中村18#变,盈中村17#变,盈中村3#变,沿江村1#变,沿江村4#变,杭州保颐置业有限公司6#,杭州保颐置业有限公司,沿江村15#变,江南村(盈上)3#变,","scope":"浙江省-杭州市-萧山区-新街镇-新街街道(沿江行政村-沿江自然村,双圩行政村-双圩自然村,江南行政村-江南自然村,盈中行政村-盈中自然村,新盛行政村-新盛自然村,山末址行政村-山末址自然村);新街街道-山末址行政村(浙江宁围环境服务有限公司,萧山区新街中心幼儿园),新街街道-江南行政村(杭州萧山新发塑料包装厂,杭州华磊塑料包装有限公司,杭州市萧山区人民政府新街街道办事处),新街街道-双圩行政村(杭州汇丰呢绒有限公司,杭州绿典科技有限公司,杭州萧山新街邦凯五金塑料加工厂,杭州同源彩印包装有限公司),新街街道-沿江行政村(杭州萧山国际机场高速公路建设开发有限公司,杭州市萧山区市政绿化养护保障中心,杭州飞进汽车零部件制造有限公司,杭州三助环境工程有限责任公司,杭州爱得利标准件有限公司,中石油管道有限责任公司西气东输分公司,杭州华元拆房有限公司,杭州港海建设有限公司,杭州萧山新街镇沿江村经济合作社),新街街道(盈中行政村-杭州市萧山区人民政府新街街道办事处,盛东行政村-杭州保颐置业有限公司,新盛行政村-杭州市地铁集团有限责任公司)等一带","startTime":"2020-01-10 03:50:02","stopDate":"2020-01-10 09:30:02","orgNo":"3340130","typeCode":"电网故障停限电","poweroffArea":"110kV新街变:沿江C619线","poweroffReason":"高压柱上断路器短路故障","powerTime":"2020-01-10 08:33:00","powerComm":"已送电","subsNo":"","lineNo":"","tgNo":"","tgName":null,"infoStatus":"1","orgName":"国网浙江杭州市萧山区供电有限公司","typeName":null,"infoStatusName":null,"dateDay":null,"orgNos":null,"nowTime":null,"countyName":null,"streetName":null,"villageName":null,"roadName":null,"communityName":null,"tranName":null,"sdLineName":null,"cityCode":"3340130","cityName":"国网浙江杭州市萧山区供电有限公司","provinceCode":null,"stopTime":"2020-01-10 09:30:02","powerType":"全部","powerOffArea":"110kV新街变:沿江C619线","powerOffReason":"高压柱上断路器短路故障","powerOffId":"2020011031020003"},{"poweroffId":2020010931020204,"sgpoweroffId":null,"subsName":"","lineName":"10kV竹林V483线","pubTranName":"竹林大街1#公变,","scope":"浙江省-杭州市-临安市-锦北街道-西墅社区-西墅街（白泥路与马溪路之间）附近一带","startTime":"2020-01-17 08:40:00","stopDate":"2020-01-17 15:00:00","orgNo":"3340160","typeCode":"计划停电","poweroffArea":"110kV平山变:竹林V483线-竹林大街1#公变后段","poweroffReason":"(低压停电信息)开关安装","powerTime":"2020-01-17 14:50:23","powerComm":"已送电","subsNo":"","lineNo":"","tgNo":"","tgName":null,"infoStatus":"1","orgName":"国网浙江临安市供电公司","typeName":null,"infoStatusName":null,"dateDay":null,"orgNos":null,"nowTime":null,"countyName":null,"streetName":null,"villageName":null,"roadName":null,"communityName":null,"tranName":null,"sdLineName":null,"cityCode":"3340160","cityName":"国网浙江临安市供电公司","provinceCode":null,"stopTime":"2020-01-17 15:00:00","powerType":"全部","powerOffArea":"110kV平山变:竹林V483线-竹林大街1#公变后段","powerOffReason":"(低压停电信息)开关安装","powerOffId":"2020010931020204"},{"poweroffId":2020010931020203,"sgpoweroffId":null,"subsName":"","lineName":"10kV党校V365线","pubTranName":"党校2#公变,","scope":"浙江省-杭州市-临安市-锦北街道-马溪路（西林街与西墅街之间)附近一带","startTime":"2020-01-17 08:20:00","stopDate":"2020-01-17 13:00:00","orgNo":"3340160","typeCode":"计划停电","poweroffArea":"110kV临安变:党校V365线-党校2#公变低压总闸刀后段","poweroffReason":"(低压停电信息)开关安装","powerTime":"2020-01-17 12:50:11","powerComm":"已送电","subsNo":"","lineNo":"","tgNo":"","tgName":null,"infoStatus":"1","orgName":"国网浙江临安市供电公司","typeName":null,"infoStatusName":null,"dateDay":null,"orgNos":null,"nowTime":null,"countyName":null,"streetName":null,"villageName":null,"roadName":null,"communityName":null,"tranName":null,"sdLineName":null,"cityCode":"3340160","cityName":"国网浙江临安市供电公司","provinceCode":null,"stopTime":"2020-01-17 13:00:00","powerType":"全部","powerOffArea":"110kV临安变:党校V365线-党校2#公变低压总闸刀后段","powerOffReason":"(低压停电信息)开关安装","powerOffId":"2020010931020203"},{"poweroffId":2020010931020186,"sgpoweroffId":null,"subsName":"","lineName":"10kV石马8853线","pubTranName":"工农,仪表1#,建服,浙江工业大学,光仪1,","scope":"浙江省杭州市西湖区留和路浙工大旁一带用户","startTime":"2020-01-17 09:30:00","stopDate":"2020-01-17 15:00:00","orgNo":"3340101","typeCode":"计划停电","poweroffArea":"110kV留下变:石马8853线-工农后段;石马8853线-建服后段;石马8853线-浙江工业大学后段;石马8853线-光仪1后段;石马8853线-仪表1#后段","poweroffReason":"光仪分线开关更换消缺工作","powerTime":"2020-01-17 12:30:54","powerComm":"已送电","subsNo":"","lineNo":"","tgNo":"","tgName":null,"infoStatus":"1","orgName":"浙江杭州电力客户服务中心","typeName":null,"infoStatusName":null,"dateDay":null,"orgNos":null,"nowTime":null,"countyName":null,"streetName":null,"villageName":null,"roadName":null,"communityName":null,"tranName":null,"sdLineName":null,"cityCode":"3340101","cityName":"浙江杭州电力客户服务中心","provinceCode":null,"stopTime":"2020-01-17 15:00:00","powerType":"全部","powerOffArea":"110kV留下变:石马8853线-工农后段;石马8853线-建服后段;石马8853线-浙江工业大学后段;石马8853线-光仪1后段;石马8853线-仪表1#后段","powerOffReason":"光仪分线开关更换消缺工作","powerOffId":"2020010931020186"},{"poweroffId":2020010931020181,"sgpoweroffId":null,"subsName":"","lineName":"10kV严州Y303线","pubTranName":"龙溪村庵口台区,","scope":"浙江省-杭州市-建德市-梅城镇-龙溪行政村(庵口自然村,高湾自然村)一带用户。","startTime":"2020-01-09 15:25:00","stopDate":"2020-01-09 17:00:00","orgNo":"3340180","typeCode":"电网故障停限电","poweroffArea":"110kV梅城变:严州Y303线-龙溪村庵口台区后段","poweroffReason":"(低压停电信息)低压熔丝烧毁","powerTime":"2020-01-09 16:10:00","powerComm":"已送电","subsNo":"","lineNo":"","tgNo":"","tgName":null,"infoStatus":"1","orgName":"国网浙江建德市供电有限公司","typeName":null,"infoStatusName":null,"dateDay":null,"orgNos":null,"nowTime":null,"countyName":null,"streetName":null,"villageName":null,"roadName":null,"communityName":null,"tranName":null,"sdLineName":null,"cityCode":"3340180","cityName":"国网浙江建德市供电有限公司","provinceCode":null,"stopTime":"2020-01-09 17:00:00","powerType":"全部","powerOffArea":"110kV梅城变:严州Y303线-龙溪村庵口台区后段","powerOffReason":"(低压停电信息)低压熔丝烧毁","powerOffId":"2020010931020181"},{"poweroffId":2020010931020177,"sgpoweroffId":null,"subsName":"","lineName":"10kV竹林V483线","pubTranName":"锦龙公寓公变,","scope":"浙江省-杭州市-临安市-锦北街道-马溪社区-锦龙公寓一带。","startTime":"2020-01-17 08:30:00","stopDate":"2020-01-17 17:10:00","orgNo":"3340160","typeCode":"计划停电","poweroffArea":"110kV平山变:竹林V483线18#杆锦龙公寓公变开关后段","poweroffReason":"竹林V483线（01项）竹林V483线18#杆锦龙公寓公变开关","powerTime":"2020-01-17 17:00:09","powerComm":"已送电","subsNo":"","lineNo":"","tgNo":"","tgName":null,"infoStatus":"1","orgName":"国网浙江临安市供电公司","typeName":null,"infoStatusName":null,"dateDay":null,"orgNos":null,"nowTime":null,"countyName":null,"streetName":null,"villageName":null,"roadName":null,"communityName":null,"tranName":null,"sdLineName":null,"cityCode":"3340160","cityName":"国网浙江临安市供电公司","provinceCode":null,"stopTime":"2020-01-17 17:10:00","powerType":"全部","powerOffArea":"110kV平山变:竹林V483线18#杆锦龙公寓公变开关后段","powerOffReason":"竹林V483线（01项）竹林V483线18#杆锦龙公寓公变开关","powerOffId":"2020010931020177"},{"poweroffId":2020010931020169,"sgpoweroffId":null,"subsName":"","lineName":"10kV厦山R308线","pubTranName":"左川村塘家配变,樟村村念七坞配变,樟村村樟村公变,樟村村门坑源公变,左川村流水湾配变,樟村村扎坑配变,左川村件坑配变,樟村村黄林关配变,扎源村扎源配变,左川村小件坑配变,扎源村介排配变,樟村村樟前配变,樟村村外毛山公变,左川村田坑配变,樟村村毛山岗配变,","scope":"浙江省-杭州市-淳安县-汾口镇-汾口行政村-畹墅自然村,中洲镇-樟村行政村(念柒坞自然村,樟村自然村,黄林关自然村,毛山岗自然村),中洲镇-左川行政村(田坑自然村,件坑自然村),中洲镇-札溪行政村(札源自然村,高山自然村)","startTime":"2020-01-10 08:00:00","stopDate":"2020-01-10 12:30:00","orgNo":"3340190","typeCode":"临时停电","poweroffArea":"110kV汾口变:厦山R308线-旧樟村支线0号杆开关后段","poweroffReason":"新建樟村支线40#,86#杆切割送电 原停电结束时间为2020-01-10 12:00:00,因天气原因,现变更停电结束时间为2020-01-10 12:30:00","powerTime":"2020-01-10 12:14:47","powerComm":"已送电","subsNo":"","lineNo":"","tgNo":"","tgName":null,"infoStatus":"1","orgName":"国网浙江淳安县供电有限公司","typeName":null,"infoStatusName":null,"dateDay":null,"orgNos":null,"nowTime":null,"countyName":null,"streetName":null,"villageName":null,"roadName":null,"communityName":null,"tranName":null,"sdLineName":null,"cityCode":"3340190","cityName":"国网浙江淳安县供电有限公司","provinceCode":null,"stopTime":"2020-01-10 12:30:00","powerType":"全部","powerOffArea":"110kV汾口变:厦山R308线-旧樟村支线0号杆开关后段","powerOffReason":"新建樟村支线40#,86#杆切割送电 原停电结束时间为2020-01-10 12:00:00,因天气原因,现变更停电结束时间为2020-01-10 12:30:00","powerOffId":"2020010931020169"},{"poweroffId":2020010931020152,"sgpoweroffId":null,"subsName":"","lineName":"10kV石莲T279线","pubTranName":"中铁大桥局集团第二工程有限公司,","scope":"浙江省-杭州市-桐庐县-凤川街道-翙岗行政村-中铁大桥局集团第二工程有限公司","startTime":"2020-01-10 08:30:00","stopDate":"2020-01-10 14:30:00","orgNo":"3340150","typeCode":"临时停电","poweroffArea":"110kV石阜变:石莲T279线-养殖F5403智能开关1后段","poweroffReason":"中铁大桥局集团第二工程有限公司新装两台400KVA基建变工程","powerTime":"2020-01-10 14:09:07","powerComm":"已送电","subsNo":"","lineNo":"","tgNo":"","tgName":null,"infoStatus":"1","orgName":"国网浙江桐庐县供电公司","typeName":null,"infoStatusName":null,"dateDay":null,"orgNos":null,"nowTime":null,"countyName":null,"streetName":null,"villageName":null,"roadName":null,"communityName":null,"tranName":null,"sdLineName":null,"cityCode":"3340150","cityName":"国网浙江桐庐县供电公司","provinceCode":null,"stopTime":"2020-01-10 14:30:00","powerType":"全部","powerOffArea":"110kV石阜变:石莲T279线-养殖F5403智能开关1后段","powerOffReason":"中铁大桥局集团第二工程有限公司新装两台400KVA基建变工程","powerOffId":"2020010931020152"},{"poweroffId":2020010931020147,"sgpoweroffId":null,"subsName":"","lineName":"10kV下沙976线","pubTranName":"前峰村1#变,前峰村8#变,","scope":"浙江省-杭州市-萧山区(前进街道-前峰行政村-前峰自然村,新湾街道-共建行政村-梅林自然村),前峰村,共建村,梅林村一带","startTime":"2020-01-09 14:02:00","stopDate":"2020-01-09 16:02:00","orgNo":"3340120","typeCode":"电网故障停限电","poweroffArea":"110kV前进变:下沙976线下沙976线三号闸分线32号开关（Z）后段","poweroffReason":"高压开关跳闸","powerTime":"2020-01-09 15:52:31","powerComm":"已送电","subsNo":"","lineNo":"","tgNo":"","tgName":null,"infoStatus":"1","orgName":"国网浙江杭州市钱塘新区供电公司","typeName":null,"infoStatusName":null,"dateDay":null,"orgNos":null,"nowTime":null,"countyName":null,"streetName":null,"villageName":null,"roadName":null,"communityName":null,"tranName":null,"sdLineName":null,"cityCode":"3340120","cityName":"国网浙江杭州市钱塘新区供电公司","provinceCode":null,"stopTime":"2020-01-09 16:02:00","powerType":"全部","powerOffArea":"110kV前进变:下沙976线下沙976线三号闸分线32号开关（Z）后段","powerOffReason":"高压开关跳闸","powerOffId":"2020010931020147"}],"pageModel":{"pageNow":593,"totalCount":17789,"totalPage":1779,"tableRows":0,"pageCount":10,"beginCount":5920},"isExperi":"1"}