{"message":"","today":"2020-06-15","seleList":[{"poweroffId":2020060131020253,"sgpoweroffId":null,"subsName":"","lineName":"10kV湖塍D813线","pubTranName":"郑家墩北1#公变,郑家墩北2#公变,湖塍村8#郑家墩新区公变,富阳市路灯安装维修管理所,富阳新世纪建材有限公司,湖塍村5#郑家墩2公变,湖塍村3#郑家墩公变,湖塍村9号郑家墩北公变,","scope":"浙江省-杭州市-富阳区-富春街道-湖塍行政村(郑家墩自然村,湖塍上自然村);富春街道(湖塍行政村-杭州富阳新世纪建材有限公司,金桥社区-杭州富阳城市照明工程有限公司)","startTime":"2020-06-13 17:35:00","stopDate":"2020-06-13 17:55:00","orgNo":"3340170","typeCode":"计划停电","poweroffArea":"110kV容大变:湖塍D813线-新世纪分线开关后段","poweroffReason":"杭州富阳城发建设发展有限公司金桥北路综合管廊水稻所路至体育场路段电缆管线迁改工程：短时停电配合湖塍D813线4#杆新世纪分线4#杆开关后段负荷恢复","powerTime":"2020-06-13 17:42:47","powerComm":"已送电","subsNo":"","lineNo":"","tgNo":"","tgName":null,"infoStatus":"1","orgName":"国网浙江杭州市富阳区供电公司","typeName":null,"infoStatusName":null,"dateDay":null,"orgNos":null,"nowTime":null,"countyName":null,"streetName":null,"villageName":null,"roadName":null,"communityName":null,"tranName":null,"sdLineName":null,"cityCode":"3340170","cityName":"国网浙江杭州市富阳区供电公司","provinceCode":null,"stopTime":"2020-06-13 17:55:00","powerType":"全部","powerOffArea":"110kV容大变:湖塍D813线-新世纪分线开关后段","powerOffReason":"杭州富阳城发建设发展有限公司金桥北路综合管廊水稻所路至体育场路段电缆管线迁改工程：短时停电配合湖塍D813线4#杆新世纪分线4#杆开关后段负荷恢复","powerOffId":"2020060131020253"},{"poweroffId":2020060131020251,"sgpoweroffId":null,"subsName":"","lineName":"10kV湖塍D813线","pubTranName":"杭州市富阳区天河富春湾幼儿园 1#变,","scope":"浙江省-杭州市-富阳区-富春街道-杭州市富阳区天河富春湾幼儿园","startTime":"2020-06-13 08:30:00","stopDate":"2020-06-13 17:30:00","orgNo":"3340170","typeCode":"计划停电","poweroffArea":"110kV容大变:湖塍D813线-杭州市富阳区天河富春湾幼儿园后段","poweroffReason":"杭州富阳城发建设发展有限公司金桥北路综合管廊水稻所路至体育场路段电缆管线迁改工程：10kV农场D803线1#杆至4+1#杆、10kV湖塍D813线1#杆至4+1#杆线路上改下等工作","powerTime":"2020-06-13 17:23:15","powerComm":"已送电","subsNo":"","lineNo":"","tgNo":"","tgName":null,"infoStatus":"1","orgName":"国网浙江杭州市富阳区供电公司","typeName":null,"infoStatusName":null,"dateDay":null,"orgNos":null,"nowTime":null,"countyName":null,"streetName":null,"villageName":null,"roadName":null,"communityName":null,"tranName":null,"sdLineName":null,"cityCode":"3340170","cityName":"国网浙江杭州市富阳区供电公司","provinceCode":null,"stopTime":"2020-06-13 17:30:00","powerType":"全部","powerOffArea":"110kV容大变:湖塍D813线-杭州市富阳区天河富春湾幼儿园后段","powerOffReason":"杭州富阳城发建设发展有限公司金桥北路综合管廊水稻所路至体育场路段电缆管线迁改工程：10kV农场D803线1#杆至4+1#杆、10kV湖塍D813线1#杆至4+1#杆线路上改下等工作","powerOffId":"2020060131020251"},{"poweroffId":2020060131020248,"sgpoweroffId":null,"subsName":"","lineName":"10kV湖塍D813线","pubTranName":"富阳市第一建筑工程有限责任公司,","scope":"浙江省-杭州市-富阳区-富春街道-湖塍行政村-杭州富阳第一建筑工程有限责任公司","startTime":"2020-06-13 07:40:00","stopDate":"2020-06-13 17:30:00","orgNo":"3340170","typeCode":"计划停电","poweroffArea":"110kV容大变:湖塍D813线-富阳市第一建筑工程有限责任公司后段","poweroffReason":"客户内部检修","powerTime":"2020-06-13 17:22:53","powerComm":"已送电","subsNo":"","lineNo":"","tgNo":"","tgName":null,"infoStatus":"1","orgName":"国网浙江杭州市富阳区供电公司","typeName":null,"infoStatusName":null,"dateDay":null,"orgNos":null,"nowTime":null,"countyName":null,"streetName":null,"villageName":null,"roadName":null,"communityName":null,"tranName":null,"sdLineName":null,"cityCode":"3340170","cityName":"国网浙江杭州市富阳区供电公司","provinceCode":null,"stopTime":"2020-06-13 17:30:00","powerType":"全部","powerOffArea":"110kV容大变:湖塍D813线-富阳市第一建筑工程有限责任公司后段","powerOffReason":"客户内部检修","powerOffId":"2020060131020248"},{"poweroffId":2020060131020245,"sgpoweroffId":null,"subsName":"","lineName":"10kV新渌D834线","pubTranName":"董湾村3#汪濑公变,","scope":"浙江省-杭州市-富阳区-渌渚镇-董湾行政村-汪濑自然村一带","startTime":"2020-06-13 16:30:00","stopDate":"2020-06-13 17:00:00","orgNo":"3340170","typeCode":"计划停电","poweroffArea":"110kV新桐变:新渌D834线-董湾村3#汪濑公变后段","poweroffReason":"配合0.4KV发电车拆除","powerTime":"2020-06-13 16:47:06","powerComm":"已送电","subsNo":"","lineNo":"","tgNo":"","tgName":null,"infoStatus":"1","orgName":"国网浙江杭州市富阳区供电公司","typeName":null,"infoStatusName":null,"dateDay":null,"orgNos":null,"nowTime":null,"countyName":null,"streetName":null,"villageName":null,"roadName":null,"communityName":null,"tranName":null,"sdLineName":null,"cityCode":"3340170","cityName":"国网浙江杭州市富阳区供电公司","provinceCode":null,"stopTime":"2020-06-13 17:00:00","powerType":"全部","powerOffArea":"110kV新桐变:新渌D834线-董湾村3#汪濑公变后段","powerOffReason":"配合0.4KV发电车拆除","powerOffId":"2020060131020245"},{"poweroffId":2020060131020244,"sgpoweroffId":null,"subsName":"","lineName":"10kV渌渚D133线","pubTranName":"董湾村6#金家坞公变,","scope":"浙江省-杭州市-富阳区-渌渚镇-董湾行政村-金家坞自然村一带","startTime":"2020-06-13 16:30:00","stopDate":"2020-06-13 17:00:00","orgNo":"3340170","typeCode":"计划停电","poweroffArea":"110kV新登变:渌渚D133线-董湾村6#金家坞公变后段","poweroffReason":"配合0.4KV发电车拆除","powerTime":"2020-06-13 16:46:19","powerComm":"已送电","subsNo":"","lineNo":"","tgNo":"","tgName":null,"infoStatus":"1","orgName":"国网浙江杭州市富阳区供电公司","typeName":null,"infoStatusName":null,"dateDay":null,"orgNos":null,"nowTime":null,"countyName":null,"streetName":null,"villageName":null,"roadName":null,"communityName":null,"tranName":null,"sdLineName":null,"cityCode":"3340170","cityName":"国网浙江杭州市富阳区供电公司","provinceCode":null,"stopTime":"2020-06-13 17:00:00","powerType":"全部","powerOffArea":"110kV新登变:渌渚D133线-董湾村6#金家坞公变后段","powerOffReason":"配合0.4KV发电车拆除","powerOffId":"2020060131020244"},{"poweroffId":2020060131020243,"sgpoweroffId":null,"subsName":"","lineName":"10kV新渌D834线","pubTranName":"董湾村5#山殿里公变,","scope":"浙江省-杭州市-富阳区-渌渚镇-董湾行政村-山殿里自然村一带","startTime":"2020-06-13 16:30:00","stopDate":"2020-06-13 17:00:00","orgNo":"3340170","typeCode":"计划停电","poweroffArea":"110kV新桐变:新渌D834线-董湾村5#山殿里公变后段","poweroffReason":"配合0.4KV发电车拆除","powerTime":"2020-06-13 16:46:09","powerComm":"已送电","subsNo":"","lineNo":"","tgNo":"","tgName":null,"infoStatus":"1","orgName":"国网浙江杭州市富阳区供电公司","typeName":null,"infoStatusName":null,"dateDay":null,"orgNos":null,"nowTime":null,"countyName":null,"streetName":null,"villageName":null,"roadName":null,"communityName":null,"tranName":null,"sdLineName":null,"cityCode":"3340170","cityName":"国网浙江杭州市富阳区供电公司","provinceCode":null,"stopTime":"2020-06-13 17:00:00","powerType":"全部","powerOffArea":"110kV新桐变:新渌D834线-董湾村5#山殿里公变后段","powerOffReason":"配合0.4KV发电车拆除","powerOffId":"2020060131020243"},{"poweroffId":2020060131020241,"sgpoweroffId":null,"subsName":"","lineName":"10kV银中D976线","pubTranName":"浙江富春山居集团有限公司3#变,浙江富春山居集团有限公司4变,浙江富春山居集团有限公司2#变,浙江富春山居集团有限公司1#变,","scope":"浙江省-杭州市-富阳区-银湖街道-杭州银湖实验中学","startTime":"2020-06-13 09:00:00","stopDate":"2020-06-13 18:30:00","orgNo":"3340170","typeCode":"计划停电","poweroffArea":"110kV九龙变:银中D976线-杭州银湖实验中学后段","poweroffReason":"银湖中学开关站侧进线电缆改接至新建开关站；银湖中学开关站至新建开关站新出电缆1根、制作、试验、搭接 原停电结束时间为2020-06-13 16:30:00,因工作复杂,现变更停电结束时间为2020-06-13 18:30:00","powerTime":"2020-06-13 18:27:20","powerComm":"已送电","subsNo":"","lineNo":"","tgNo":"","tgName":null,"infoStatus":"1","orgName":"国网浙江杭州市富阳区供电公司","typeName":null,"infoStatusName":null,"dateDay":null,"orgNos":null,"nowTime":null,"countyName":null,"streetName":null,"villageName":null,"roadName":null,"communityName":null,"tranName":null,"sdLineName":null,"cityCode":"3340170","cityName":"国网浙江杭州市富阳区供电公司","provinceCode":null,"stopTime":"2020-06-13 18:30:00","powerType":"全部","powerOffArea":"110kV九龙变:银中D976线-杭州银湖实验中学后段","powerOffReason":"银湖中学开关站侧进线电缆改接至新建开关站；银湖中学开关站至新建开关站新出电缆1根、制作、试验、搭接 原停电结束时间为2020-06-13 16:30:00,因工作复杂,现变更停电结束时间为2020-06-13 18:30:00","powerOffId":"2020060131020241"},{"poweroffId":2020060131020237,"sgpoweroffId":null,"subsName":"","lineName":"10kV新渌D834线","pubTranName":"董湾村3#汪濑公变,","scope":"浙江省-杭州市-富阳区-渌渚镇-董湾行政村-汪濑自然村一带","startTime":"2020-06-13 07:50:00","stopDate":"2020-06-13 08:30:00","orgNo":"3340170","typeCode":"计划停电","poweroffArea":"110kV新桐变:新渌D834线-董湾村3#汪濑公变后段","poweroffReason":"配合0.4KV发电车接入","powerTime":"2020-06-13 08:14:26","powerComm":"已送电","subsNo":"","lineNo":"","tgNo":"","tgName":null,"infoStatus":"1","orgName":"国网浙江杭州市富阳区供电公司","typeName":null,"infoStatusName":null,"dateDay":null,"orgNos":null,"nowTime":null,"countyName":null,"streetName":null,"villageName":null,"roadName":null,"communityName":null,"tranName":null,"sdLineName":null,"cityCode":"3340170","cityName":"国网浙江杭州市富阳区供电公司","provinceCode":null,"stopTime":"2020-06-13 08:30:00","powerType":"全部","powerOffArea":"110kV新桐变:新渌D834线-董湾村3#汪濑公变后段","powerOffReason":"配合0.4KV发电车接入","powerOffId":"2020060131020237"},{"poweroffId":2020060131020236,"sgpoweroffId":null,"subsName":"","lineName":"10kV渌渚D133线","pubTranName":"董湾村6#金家坞公变,","scope":"浙江省-杭州市-富阳区-渌渚镇-董湾行政村-金家坞自然村一带","startTime":"2020-06-13 07:50:00","stopDate":"2020-06-13 08:30:00","orgNo":"3340170","typeCode":"计划停电","poweroffArea":"110kV新登变:渌渚D133线-董湾村6#金家坞公变后段","poweroffReason":"配合0.4KV发电车接入","powerTime":"2020-06-13 08:14:16","powerComm":"已送电","subsNo":"","lineNo":"","tgNo":"","tgName":null,"infoStatus":"1","orgName":"国网浙江杭州市富阳区供电公司","typeName":null,"infoStatusName":null,"dateDay":null,"orgNos":null,"nowTime":null,"countyName":null,"streetName":null,"villageName":null,"roadName":null,"communityName":null,"tranName":null,"sdLineName":null,"cityCode":"3340170","cityName":"国网浙江杭州市富阳区供电公司","provinceCode":null,"stopTime":"2020-06-13 08:30:00","powerType":"全部","powerOffArea":"110kV新登变:渌渚D133线-董湾村6#金家坞公变后段","powerOffReason":"配合0.4KV发电车接入","powerOffId":"2020060131020236"},{"poweroffId":2020060131020235,"sgpoweroffId":null,"subsName":"","lineName":"10kV新渌D834线","pubTranName":"董湾村5#山殿里公变,","scope":"浙江省-杭州市-富阳区-渌渚镇-董湾行政村-山殿里自然村一带","startTime":"2020-06-13 07:50:00","stopDate":"2020-06-13 08:30:00","orgNo":"3340170","typeCode":"计划停电","poweroffArea":"110kV新桐变:新渌D834线-董湾村5#山殿里公变后段","poweroffReason":"配合0.4KV发电车接入","powerTime":"2020-06-13 08:14:00","powerComm":"已送电","subsNo":"","lineNo":"","tgNo":"","tgName":null,"infoStatus":"1","orgName":"国网浙江杭州市富阳区供电公司","typeName":null,"infoStatusName":null,"dateDay":null,"orgNos":null,"nowTime":null,"countyName":null,"streetName":null,"villageName":null,"roadName":null,"communityName":null,"tranName":null,"sdLineName":null,"cityCode":"3340170","cityName":"国网浙江杭州市富阳区供电公司","provinceCode":null,"stopTime":"2020-06-13 08:30:00","powerType":"全部","powerOffArea":"110kV新桐变:新渌D834线-董湾村5#山殿里公变后段","powerOffReason":"配合0.4KV发电车接入","powerOffId":"2020060131020235"}],"pageModel":{"pageNow":59,"totalCount":17786,"totalPage":1779,"tableRows":0,"pageCount":10,"beginCount":580},"isExperi":"1"}