{"message":"","today":"2020-06-15","seleList":[{"poweroffId":2020010831020112,"sgpoweroffId":null,"subsName":"","lineName":"10kV宝迪9102线","pubTranName":"","scope":"浙江省杭州市江干区畈家园南苑5排24-31","startTime":"2020-01-17 09:30:00","stopDate":"2020-01-17 16:30:00","orgNo":"3340101","typeCode":"计划停电","poweroffArea":"110kV蚕桑变:宝迪9102线-畈村三变T2低压开关","poweroffReason":"(低压停电信息)格畈家园南苑5排27号低压消缺工作","powerTime":"2020-01-17 15:59:58","powerComm":"已送电","subsNo":"","lineNo":"","tgNo":"","tgName":null,"infoStatus":"1","orgName":"浙江杭州电力客户服务中心","typeName":null,"infoStatusName":null,"dateDay":null,"orgNos":null,"nowTime":null,"countyName":null,"streetName":null,"villageName":null,"roadName":null,"communityName":null,"tranName":null,"sdLineName":null,"cityCode":"3340101","cityName":"浙江杭州电力客户服务中心","provinceCode":null,"stopTime":"2020-01-17 16:30:00","powerType":"全部","powerOffArea":"110kV蚕桑变:宝迪9102线-畈村三变T2低压开关","powerOffReason":"(低压停电信息)格畈家园南苑5排27号低压消缺工作","powerOffId":"2020010831020112"},{"poweroffId":2020010831020111,"sgpoweroffId":null,"subsName":"","lineName":"10kV教沙9639线","pubTranName":"沙铭(一),","scope":"浙江省-杭州市-杭州市经济技术开发区-东沙铭城F幢10楼部分用户","startTime":"2020-01-17 09:30:00","stopDate":"2020-01-17 16:30:00","orgNo":"3340101","typeCode":"计划停电","poweroffArea":"110kV教北变:教沙9639线-沙铭(一)B1-1，B1-2低压开关","poweroffReason":"(低压停电信息)东沙铭城F幢10楼更换插拔底座低压消缺工作","powerTime":"2020-01-17 16:01:05","powerComm":"已送电","subsNo":"","lineNo":"","tgNo":"","tgName":null,"infoStatus":"1","orgName":"浙江杭州电力客户服务中心","typeName":null,"infoStatusName":null,"dateDay":null,"orgNos":null,"nowTime":null,"countyName":null,"streetName":null,"villageName":null,"roadName":null,"communityName":null,"tranName":null,"sdLineName":null,"cityCode":"3340101","cityName":"浙江杭州电力客户服务中心","provinceCode":null,"stopTime":"2020-01-17 16:30:00","powerType":"全部","powerOffArea":"110kV教北变:教沙9639线-沙铭(一)B1-1，B1-2低压开关","powerOffReason":"(低压停电信息)东沙铭城F幢10楼更换插拔底座低压消缺工作","powerOffId":"2020010831020111"},{"poweroffId":2020010831020104,"sgpoweroffId":null,"subsName":"","lineName":"10kV云庆7305线","pubTranName":"庆隆八,","scope":"浙江省-杭州市-拱墅区-祥符街道-庆隆社区-隐秀路","startTime":"2020-01-08 10:07:00","stopDate":"2020-01-08 11:00:00","orgNo":"3340101","typeCode":"电网故障停限电","poweroffArea":"220kV登云变:云庆7305线庆隆一站庆隆八配变配变","poweroffReason":"高压开关跳闸 原停电结束时间为2020-01-08 12:07:00,为减少客户停电时间,加快工作进度,提前送电,现变更停电结束时间为2020-01-08 11:00:00","powerTime":"2020-01-08 10:16:33","powerComm":"已送电","subsNo":"","lineNo":"","tgNo":"","tgName":null,"infoStatus":"1","orgName":"浙江杭州电力客户服务中心","typeName":null,"infoStatusName":null,"dateDay":null,"orgNos":null,"nowTime":null,"countyName":null,"streetName":null,"villageName":null,"roadName":null,"communityName":null,"tranName":null,"sdLineName":null,"cityCode":"3340101","cityName":"浙江杭州电力客户服务中心","provinceCode":null,"stopTime":"2020-01-08 11:00:00","powerType":"全部","powerOffArea":"220kV登云变:云庆7305线庆隆一站庆隆八配变配变","powerOffReason":"高压开关跳闸 原停电结束时间为2020-01-08 12:07:00,为减少客户停电时间,加快工作进度,提前送电,现变更停电结束时间为2020-01-08 11:00:00","powerOffId":"2020010831020104"},{"poweroffId":2020010831020098,"sgpoweroffId":null,"subsName":"","lineName":"10kV友耐A399线","pubTranName":"盈二村14#变,","scope":"浙江省-杭州市-萧山区-宁围镇-宁围街道(盈二行政村-盈二自然村,盈一行政村-盈一自然村等一带","startTime":"2020-01-08 10:06:26","stopDate":"2020-01-08 13:06:26","orgNo":"3340130","typeCode":"电网故障停限电","poweroffArea":"110kV顺坝变:友耐A399线-盈二村14#变台区低压开关","poweroffReason":"(低压停电信息)低压漏电保护器短路故障","powerTime":"2020-01-08 12:19:32","powerComm":"已送电","subsNo":"","lineNo":"","tgNo":"","tgName":null,"infoStatus":"1","orgName":"国网浙江杭州市萧山区供电有限公司","typeName":null,"infoStatusName":null,"dateDay":null,"orgNos":null,"nowTime":null,"countyName":null,"streetName":null,"villageName":null,"roadName":null,"communityName":null,"tranName":null,"sdLineName":null,"cityCode":"3340130","cityName":"国网浙江杭州市萧山区供电有限公司","provinceCode":null,"stopTime":"2020-01-08 13:06:26","powerType":"全部","powerOffArea":"110kV顺坝变:友耐A399线-盈二村14#变台区低压开关","powerOffReason":"(低压停电信息)低压漏电保护器短路故障","powerOffId":"2020010831020098"},{"poweroffId":2020010831020094,"sgpoweroffId":null,"subsName":"","lineName":"10kV东红A673线","pubTranName":"新华村29#公变,","scope":"浙江省-杭州市-萧山区-宁围镇-宁围街道-新华行政村-新华自然村等一带","startTime":"2020-01-08 09:56:27","stopDate":"2020-01-08 12:56:27","orgNo":"3340130","typeCode":"电网故障停限电","poweroffArea":"110kV东霖变:东红A673线-新华村29#公变台区低压开关","poweroffReason":"(低压停电信息)低压漏电保护器短路故障","powerTime":"2020-01-08 11:59:36","powerComm":"已送电","subsNo":"","lineNo":"","tgNo":"","tgName":null,"infoStatus":"1","orgName":"国网浙江杭州市萧山区供电有限公司","typeName":null,"infoStatusName":null,"dateDay":null,"orgNos":null,"nowTime":null,"countyName":null,"streetName":null,"villageName":null,"roadName":null,"communityName":null,"tranName":null,"sdLineName":null,"cityCode":"3340130","cityName":"国网浙江杭州市萧山区供电有限公司","provinceCode":null,"stopTime":"2020-01-08 12:56:27","powerType":"全部","powerOffArea":"110kV东霖变:东红A673线-新华村29#公变台区低压开关","powerOffReason":"(低压停电信息)低压漏电保护器短路故障","powerOffId":"2020010831020094"},{"poweroffId":2020010831020065,"sgpoweroffId":null,"subsName":"","lineName":"10kV长浜8407线","pubTranName":"长隆(一),","scope":"浙江省-杭州市-下城区-文晖街道-胜利社区-东新路","startTime":"2020-01-08 09:00:00","stopDate":"2020-01-08 10:00:00","orgNo":"3340101","typeCode":"电网故障停限电","poweroffArea":"110kV长木变:长浜8407线长隆(一)配变","poweroffReason":"高压开关跳闸 原停电结束时间为2020-01-08 11:00:00,为减少客户停电时间,加快工作进度,提前送电,现变更停电结束时间为2020-01-08 10:00:00","powerTime":"2020-01-08 09:15:22","powerComm":"已送电","subsNo":"","lineNo":"","tgNo":"","tgName":null,"infoStatus":"1","orgName":"浙江杭州电力客户服务中心","typeName":null,"infoStatusName":null,"dateDay":null,"orgNos":null,"nowTime":null,"countyName":null,"streetName":null,"villageName":null,"roadName":null,"communityName":null,"tranName":null,"sdLineName":null,"cityCode":"3340101","cityName":"浙江杭州电力客户服务中心","provinceCode":null,"stopTime":"2020-01-08 10:00:00","powerType":"全部","powerOffArea":"110kV长木变:长浜8407线长隆(一)配变","powerOffReason":"高压开关跳闸 原停电结束时间为2020-01-08 11:00:00,为减少客户停电时间,加快工作进度,提前送电,现变更停电结束时间为2020-01-08 10:00:00","powerOffId":"2020010831020065"},{"poweroffId":2020010831020056,"sgpoweroffId":null,"subsName":"","lineName":"10kV深澳251线","pubTranName":"中国石油化工股份有限公司浙江杭州石油分公司,浙江好手艺家居有限公司,浙江天一农化有限公司(宿舍）,","scope":"浙江省-杭州市-桐庐县-江南镇(浙江好手艺家居有限公司,浙江天一农化有限公司(宿舍）,中国石化销售股份有限公司浙江杭州石油分公司)","startTime":"2020-01-08 08:55:00","stopDate":"2020-01-08 10:30:00","orgNo":"3340150","typeCode":"电网故障停限电","poweroffArea":"110kV石阜变:深澳251线加油F4030开关后段","poweroffReason":"(低压停电信息)低压开关跳闸","powerTime":"2020-01-08 10:08:55","powerComm":"已送电","subsNo":"","lineNo":"","tgNo":"","tgName":null,"infoStatus":"1","orgName":"国网浙江桐庐县供电公司","typeName":null,"infoStatusName":null,"dateDay":null,"orgNos":null,"nowTime":null,"countyName":null,"streetName":null,"villageName":null,"roadName":null,"communityName":null,"tranName":null,"sdLineName":null,"cityCode":"3340150","cityName":"国网浙江桐庐县供电公司","provinceCode":null,"stopTime":"2020-01-08 10:30:00","powerType":"全部","powerOffArea":"110kV石阜变:深澳251线加油F4030开关后段","powerOffReason":"(低压停电信息)低压开关跳闸","powerOffId":"2020010831020056"},{"poweroffId":2020010831020053,"sgpoweroffId":null,"subsName":"","lineName":"10kV青枫H787线","pubTranName":"新湖果岭(2-2)公变,","scope":"浙江省杭州市余杭区仓前街道：新湖果岭2-2号公变一带","startTime":"2020-01-15 14:00:00","stopDate":"2020-01-15 18:30:00","orgNo":"3340140","typeCode":"计划停电","poweroffArea":"果岭2号站青枫H787线新湖果岭2-2号公变分线","poweroffReason":"配变降噪工作：果岭2号站青枫H787线新湖果岭2-2号公变安装防阻尼降噪装置","powerTime":"2020-01-15 15:42:02","powerComm":"已送电","subsNo":"","lineNo":"","tgNo":"","tgName":null,"infoStatus":"1","orgName":"国网浙江杭州市余杭区供电有限公司","typeName":null,"infoStatusName":null,"dateDay":null,"orgNos":null,"nowTime":null,"countyName":null,"streetName":null,"villageName":null,"roadName":null,"communityName":null,"tranName":null,"sdLineName":null,"cityCode":"3340140","cityName":"国网浙江杭州市余杭区供电有限公司","provinceCode":null,"stopTime":"2020-01-15 18:30:00","powerType":"全部","powerOffArea":"果岭2号站青枫H787线新湖果岭2-2号公变分线","powerOffReason":"配变降噪工作：果岭2号站青枫H787线新湖果岭2-2号公变安装防阻尼降噪装置","powerOffId":"2020010831020053"},{"poweroffId":2020010831020052,"sgpoweroffId":null,"subsName":"","lineName":"10kV青枫H787线","pubTranName":"新湖果岭(2-1)公变,","scope":"浙江省杭州市余杭区仓前街道：新湖果岭2-1号公变一带","startTime":"2020-01-15 09:30:00","stopDate":"2020-01-15 14:00:00","orgNo":"3340140","typeCode":"计划停电","poweroffArea":"果岭2号站青枫H787线新湖果岭2-1号公变分线","poweroffReason":"配变降噪工作：果岭2号站青枫H787线新湖果岭2-1号公变安装防阻尼降噪装置","powerTime":"2020-01-15 13:40:12","powerComm":"已送电","subsNo":"","lineNo":"","tgNo":"","tgName":null,"infoStatus":"1","orgName":"国网浙江杭州市余杭区供电有限公司","typeName":null,"infoStatusName":null,"dateDay":null,"orgNos":null,"nowTime":null,"countyName":null,"streetName":null,"villageName":null,"roadName":null,"communityName":null,"tranName":null,"sdLineName":null,"cityCode":"3340140","cityName":"国网浙江杭州市余杭区供电有限公司","provinceCode":null,"stopTime":"2020-01-15 14:00:00","powerType":"全部","powerOffArea":"果岭2号站青枫H787线新湖果岭2-1号公变分线","powerOffReason":"配变降噪工作：果岭2号站青枫H787线新湖果岭2-1号公变安装防阻尼降噪装置","powerOffId":"2020010831020052"},{"poweroffId":2020010831020050,"sgpoweroffId":null,"subsName":"","lineName":"10kV广福H767线","pubTranName":"文一路5#路灯,杭州未来科技城建设有限公司,文一村加油站,","scope":"浙江省杭州市余杭区五常街道：文一村路灯、文一村加油站、文一路5号路灯一带","startTime":"2020-01-18 09:30:00","stopDate":"2020-01-18 13:30:00","orgNo":"3340140","typeCode":"临时停电","poweroffArea":"木善开关站广福H767线待用G13号间隔","poweroffReason":"业扩工程（文一路提升改造二期10kV迁改工程）：文一路加油站分支箱分线电缆改接至木善开关站待用G13号间隔 原停电结束时间为2020-01-14 13:30:00,因计划工作改变原因,现变更停电结束时间为2020-01-18 13:30:00","powerTime":"2020-01-18 13:01:21","powerComm":"已送电","subsNo":"","lineNo":"","tgNo":"","tgName":null,"infoStatus":"1","orgName":"国网浙江杭州市余杭区供电有限公司","typeName":null,"infoStatusName":null,"dateDay":null,"orgNos":null,"nowTime":null,"countyName":null,"streetName":null,"villageName":null,"roadName":null,"communityName":null,"tranName":null,"sdLineName":null,"cityCode":"3340140","cityName":"国网浙江杭州市余杭区供电有限公司","provinceCode":null,"stopTime":"2020-01-18 13:30:00","powerType":"全部","powerOffArea":"木善开关站广福H767线待用G13号间隔","powerOffReason":"业扩工程（文一路提升改造二期10kV迁改工程）：文一路加油站分支箱分线电缆改接至木善开关站待用G13号间隔 原停电结束时间为2020-01-14 13:30:00,因计划工作改变原因,现变更停电结束时间为2020-01-18 13:30:00","powerOffId":"2020010831020050"}],"pageModel":{"pageNow":596,"totalCount":17789,"totalPage":1779,"tableRows":0,"pageCount":10,"beginCount":5950},"isExperi":"1"}