{"message":"","today":"2020-06-15","seleList":[{"poweroffId":2020010831020038,"sgpoweroffId":null,"subsName":"","lineName":"10kV前河G333线","pubTranName":"杭州大地海洋环保股份有限公司612084183602#专变,杭州大地海洋环保股份有限公司612084183401#专变,","scope":"浙江省-杭州市-余杭区-仁和街道-杭州大地海洋环保股份有限公司","startTime":"2020-01-08 08:21:00","stopDate":"2020-01-08 10:21:00","orgNo":"3340140","typeCode":"电网故障停限电","poweroffArea":"110kV洛山变:前河G333线大地海洋环保股份有限公司开关后段","poweroffReason":"高压开关跳闸","powerTime":"2020-01-08 09:50:00","powerComm":"已送电","subsNo":"","lineNo":"","tgNo":"","tgName":null,"infoStatus":"1","orgName":"国网浙江杭州市余杭区供电有限公司","typeName":null,"infoStatusName":null,"dateDay":null,"orgNos":null,"nowTime":null,"countyName":null,"streetName":null,"villageName":null,"roadName":null,"communityName":null,"tranName":null,"sdLineName":null,"cityCode":"3340140","cityName":"国网浙江杭州市余杭区供电有限公司","provinceCode":null,"stopTime":"2020-01-08 10:21:00","powerType":"全部","powerOffArea":"110kV洛山变:前河G333线大地海洋环保股份有限公司开关后段","powerOffReason":"高压开关跳闸","powerOffId":"2020010831020038"},{"poweroffId":2020010831020037,"sgpoweroffId":null,"subsName":"","lineName":"10kV贤德D333线","pubTranName":"贤德村2#太见坞公变,","scope":"浙江省-杭州市-富阳区-洞桥镇-查口行政村-徐家自然村,洞桥镇-贤德行政村(黄家自然村,叶家自然村,下施家自然村,农居点自然村,俞家自然村,麻立湾自然村,槐花坞自然村,杨家自然村,太宰坞自然村,石头湾自然村)","startTime":"2020-01-08 08:21:06","stopDate":"2020-01-08 12:00:00","orgNo":"3340170","typeCode":"电网故障停限电","poweroffArea":"110kV万市变:贤德D333线-贤德村2#太见坞公变后段","poweroffReason":"高压开关跳闸","powerTime":"2020-01-08 11:06:35","powerComm":"已送电","subsNo":"","lineNo":"","tgNo":"","tgName":null,"infoStatus":"1","orgName":"国网浙江杭州市富阳区供电公司","typeName":null,"infoStatusName":null,"dateDay":null,"orgNos":null,"nowTime":null,"countyName":null,"streetName":null,"villageName":null,"roadName":null,"communityName":null,"tranName":null,"sdLineName":null,"cityCode":"3340170","cityName":"国网浙江杭州市富阳区供电公司","provinceCode":null,"stopTime":"2020-01-08 12:00:00","powerType":"全部","powerOffArea":"110kV万市变:贤德D333线-贤德村2#太见坞公变后段","powerOffReason":"高压开关跳闸","powerOffId":"2020010831020037"},{"poweroffId":2020010731020398,"sgpoweroffId":null,"subsName":"","lineName":"10kV新春D938线","pubTranName":"河南省水利第二工程局4#变压器,杭州堇荼如饴生态农业开发有限公司1#变,浙江交工集团股份有限公司11#变,春建村蟠山垅9号公变,农林村7#爽坞2#公变,农林村6#下厂公变,春建村蟠山垅6号公变,浙江交工集团股份有限公司(拔山村1#)变,农林村12号油车头公变,农林村4#油车头公变,农林村5号东厂公变,农林村11号水库公变,杭州时空涂料有限公司,拔山村5号茶叶市场公变,富阳市永根石料厂,春建村蟠山垅5号公变,春建村蟠山垅7号公变变压器,拔山村4#拔山公变,浙江交工集团股份有限公司1#变,浙江交工集团股份有限公司（拔山2#）变,富阳腾兴机械有限公司,农林村13号村委旁公变,农林村14号新建桥公变,浙江交工集团股份有限公司10#变,农林村8#荒地2#公变,农林村10号爽坞里公变,拔山村2#拔山公变,河南省水利第二工程局3#变压器,拔山村3#茶叶市场基地公变,农林村16号爽坞里公变,浙江交工集团股份有限公司9#变,拔山村6号公变,春建村蟠山垅8号公变,拔山村1#拔山公变,春建村蟠山垅4号公变,春建村蟠山垅1号公变,农林村9#茶叶市场公变1,杭州富阳金盾塑业有限公司1#变,富阳友邦化工有限公司,富阳市富春街道前进包装纸制品厂,农林村3#爽坞里公变,春建村蟠山垅3号公变,杭州永德电气有限公司2#变,农林村2#荒地上公变,杭州富阳金盾塑业有限公司2#变,下高村9#公变1,春建村蟠山垅2号公变,杭州永德电气有限公司1#变,","scope":"浙江省-杭州市-富阳区-富春街道-拔山行政村(拔山自然村,骑龙里自然村,温州厂下自然村,温州厂上自然村,爽坞里自然村,荒地上自然村,寺背后自然村,油车头自然村),春建乡-春建行政村(下高自然村,蟠山垄自然村,上高自然村);富春街道-拔山行政村(杭州富阳区富春街道前进包装纸制品厂,杭州富阳腾兴机械有限公司,富阳市拔山建材有限公司,杭州时空涂料有限公司,河南省水利第二工程局,浙江交工集团股份有限公司,杭州富阳金盾塑业有限公司),春建乡-春建行政村(杭州富阳友邦化工有限公司,杭州堇荼如饴生态农业开发有限公司,杭州永德电气有限公司)","startTime":"2020-01-08 00:00:00","stopDate":"2020-01-08 01:34:19","orgNo":"3340170","typeCode":"电网故障停限电","poweroffArea":"110kV育才变:新春D938线-新春D9383开关后段","poweroffReason":"高压开关跳闸","powerTime":"2020-01-08 00:35:28","powerComm":"已送电","subsNo":"","lineNo":"","tgNo":"","tgName":null,"infoStatus":"1","orgName":"国网浙江杭州市富阳区供电公司","typeName":null,"infoStatusName":null,"dateDay":null,"orgNos":null,"nowTime":null,"countyName":null,"streetName":null,"villageName":null,"roadName":null,"communityName":null,"tranName":null,"sdLineName":null,"cityCode":"3340170","cityName":"国网浙江杭州市富阳区供电公司","provinceCode":null,"stopTime":"2020-01-08 01:34:19","powerType":"全部","powerOffArea":"110kV育才变:新春D938线-新春D9383开关后段","powerOffReason":"高压开关跳闸","powerOffId":"2020010731020398"},{"poweroffId":2020010731020397,"sgpoweroffId":null,"subsName":"","lineName":"10kV金西T263线","pubTranName":"江头1号公变,","scope":"浙江省-杭州市-桐庐县-城南街道-大丰行政村-大丰自然村,城南街道-春江行政村(江头自然村,周家自然村)","startTime":"2020-01-07 22:12:36","stopDate":"2020-01-07 23:30:36","orgNo":"3340150","typeCode":"电网故障停限电","poweroffArea":"35kV三合变:金西T263线-江头1号公变后段","poweroffReason":"高压开关跳闸","powerTime":"2020-01-07 23:20:06","powerComm":"已送电","subsNo":"","lineNo":"","tgNo":"","tgName":null,"infoStatus":"1","orgName":"国网浙江桐庐县供电公司","typeName":null,"infoStatusName":null,"dateDay":null,"orgNos":null,"nowTime":null,"countyName":null,"streetName":null,"villageName":null,"roadName":null,"communityName":null,"tranName":null,"sdLineName":null,"cityCode":"3340150","cityName":"国网浙江桐庐县供电公司","provinceCode":null,"stopTime":"2020-01-07 23:30:36","powerType":"全部","powerOffArea":"35kV三合变:金西T263线-江头1号公变后段","powerOffReason":"高压开关跳闸","powerOffId":"2020010731020397"},{"poweroffId":2020010731020386,"sgpoweroffId":null,"subsName":"","lineName":"10kV金渡8602线","pubTranName":"润达（二）,","scope":"浙江省-杭州市-西湖区-三墩镇-水秀苑社区-古墩路-润达花园","startTime":"2020-01-07 20:25:32","stopDate":"2020-01-07 23:25:32","orgNo":"3340101","typeCode":"电网故障停限电","poweroffArea":"110kV谢村变:金渡8602线-润达（二）后段","poweroffReason":"(低压停电信息)低压开关跳闸 原停电结束时间为2020-01-08 00:25:32,为减少客户停电时间,加快工作进度,提前送电,现变更停电结束时间为2020-01-07 23:25:32","powerTime":"2020-01-07 22:55:36","powerComm":"已送电","subsNo":"","lineNo":"","tgNo":"","tgName":null,"infoStatus":"1","orgName":"浙江杭州电力客户服务中心","typeName":null,"infoStatusName":null,"dateDay":null,"orgNos":null,"nowTime":null,"countyName":null,"streetName":null,"villageName":null,"roadName":null,"communityName":null,"tranName":null,"sdLineName":null,"cityCode":"3340101","cityName":"浙江杭州电力客户服务中心","provinceCode":null,"stopTime":"2020-01-07 23:25:32","powerType":"全部","powerOffArea":"110kV谢村变:金渡8602线-润达（二）后段","powerOffReason":"(低压停电信息)低压开关跳闸 原停电结束时间为2020-01-08 00:25:32,为减少客户停电时间,加快工作进度,提前送电,现变更停电结束时间为2020-01-07 23:25:32","powerOffId":"2020010731020386"},{"poweroffId":2020010731020375,"sgpoweroffId":null,"subsName":"","lineName":"10kV新春D938线","pubTranName":"浙江交工集团股份有限公司11#变,杭州永德电气有限公司1#变,农林村14号新建桥公变,春建村蟠山垅6号公变,拔山村6号公变,杭州永德电气有限公司2#变,春建村蟠山垅4号公变,下高村9#公变1,浙江交工集团股份有限公司10#变,富阳市华春机械构件厂1#变,浙江交工集团股份有限公司（拔山2#）变,农林村16号爽坞里公变,富阳市佳能金属设备制造有限公司,新春村4#沈石岭公变,春建村蟠山垅8号公变,富阳友邦化工有限公司,春建村蟠山垅9号公变,拔山村3#茶叶市场基地公变,新春村10#沈石岭2公变,拔山村2#拔山公变,新春村8#铁铺里公变,浙江交工集团股份有限公司1#变,农林村7#爽坞2#公变,河南省水利第二工程局4#变压器,拔山村4#拔山公变,富阳市永根石料厂,富阳市富春街道前进包装纸制品厂,拔山村1#拔山公变,新春村15号沈石岭公变,富阳腾兴机械有限公司,春建村蟠山垅5号公变,农林村13号村委旁公变,春建村蟠山垅2号公变,农林村8#荒地2#公变,农林村2#荒地上公变,春建村蟠山垅1号公变,农林村10号爽坞里公变,农林村6#下厂公变,农林村11号水库公变,春建村蟠山垅3号公变,春建村蟠山垅7号公变变压器,浙江交工集团股份有限公司(拔山村1#)变,拔山村5号茶叶市场公变,农林村3#爽坞里公变,新春村7#后山岭2公变,杭州时空涂料有限公司,农林村9#茶叶市场公变1,新春村2#后山岭公变,河南省水利第二工程局3#变压器,浙江交工集团股份有限公司9#变,农林村4#油车头公变,新春村16号后山岭公变,杭州富阳金盾塑业有限公司1#变,农林村5号东厂公变,杭州堇荼如饴生态农业开发有限公司1#变,农林村12号油车头公变,杭州富阳金盾塑业有限公司2#变,","scope":"浙江省-杭州市-富阳区-富春街道-杨清庙行政村(杨清庙自然村,新春自然村,铁浦里自然村,沈石岭自然村,后山岭自然村,南山下自然村),富春街道-拔山行政村(拔山自然村,骑龙里自然村,温州厂下自然村,温州厂上自然村,爽坞里自然村,荒地上自然村,寺背后自然村,油车头自然村),春建乡-春建行政村(下高自然村,蟠山垄自然村,上高自然村);富春街道(杭州富阳区富春街道前进包装纸制品厂,杭州富阳腾兴机械有限公司,富阳市佳能金属设备制造有限公司,富阳市拔山建材有限公司,杭州时空涂料有限公司,河南省水利第二工程局,浙江交工集团股份有限公司,杭州富阳华春机械构件厂,杭州富阳金盾塑业有限公司),春建乡(杭州富阳友邦化工有限公司,杭州堇荼如饴生态农业开发有限公司,杭州永德电气有限公司)","startTime":"2020-01-07 20:08:00","stopDate":"2020-01-07 22:08:00","orgNo":"3340170","typeCode":"电网故障停限电","poweroffArea":"110kV育才变:新春D938线新春D9382开关后段","poweroffReason":"高压开关跳闸","powerTime":"2020-01-07 21:15:52","powerComm":"已送电","subsNo":"","lineNo":"","tgNo":"","tgName":null,"infoStatus":"1","orgName":"国网浙江杭州市富阳区供电公司","typeName":null,"infoStatusName":null,"dateDay":null,"orgNos":null,"nowTime":null,"countyName":null,"streetName":null,"villageName":null,"roadName":null,"communityName":null,"tranName":null,"sdLineName":null,"cityCode":"3340170","cityName":"国网浙江杭州市富阳区供电公司","provinceCode":null,"stopTime":"2020-01-07 22:08:00","powerType":"全部","powerOffArea":"110kV育才变:新春D938线新春D9382开关后段","powerOffReason":"高压开关跳闸","powerOffId":"2020010731020375"},{"poweroffId":2020010731020355,"sgpoweroffId":null,"subsName":"","lineName":"10kV石马8853线","pubTranName":"浙江工业大学,仪表1#,工农,中铁施,光仪1,仪表2#,建服,","scope":"浙江省-杭州市-西湖区-留下街道-屏峰社区-留和路;留下街道-屏峰社区(中铁七局集团第三工程有限公司,浙江工业大学后勤服务总公司,浙江建银服务有限公司,杭州西子集团有限公司,浙江工业大学)","startTime":"2020-01-07 17:51:41","stopDate":"2020-01-07 20:50:41","orgNo":"3340101","typeCode":"电网故障停限电","poweroffArea":"110kV留下变:石马8853线-光仪分线后段","poweroffReason":"高压开关跳闸 原停电结束时间为2020-01-07 22:51:41,为减少客户停电时间,加快工作进度,提前送电,现变更停电结束时间为2020-01-07 20:50:41","powerTime":"2020-01-07 20:10:02","powerComm":"已送电","subsNo":"","lineNo":"","tgNo":"","tgName":null,"infoStatus":"1","orgName":"浙江杭州电力客户服务中心","typeName":null,"infoStatusName":null,"dateDay":null,"orgNos":null,"nowTime":null,"countyName":null,"streetName":null,"villageName":null,"roadName":null,"communityName":null,"tranName":null,"sdLineName":null,"cityCode":"3340101","cityName":"浙江杭州电力客户服务中心","provinceCode":null,"stopTime":"2020-01-07 20:50:41","powerType":"全部","powerOffArea":"110kV留下变:石马8853线-光仪分线后段","powerOffReason":"高压开关跳闸 原停电结束时间为2020-01-07 22:51:41,为减少客户停电时间,加快工作进度,提前送电,现变更停电结束时间为2020-01-07 20:50:41","powerOffId":"2020010731020355"},{"poweroffId":2020010731020340,"sgpoweroffId":null,"subsName":"","lineName":"10kV石马8853线","pubTranName":"1#,屏风九变,杭州水业,留和路泵房,天颐施,望景施1,中铁施,地三施五1,仪表2#,浙江工业大学2#,浙江工业大学4#,建服,浙江工业大学,浙江工业大学6#,望景施3,花木,地三施五2,外院5#,外院3#,浙江工业大学后勤6#,浙江工业大学8#,外院4#,浙外2#,浙外4#,屏风（四）,望景施2,水务原水三施1,3#,屏股经,水务原水三施2,浙江工业大学5#,屏风十三配变,浙江工业大学后勤5#,嘉和科技2#,外院2#,浙外1#,天颐施2,8,浙江外国语学院7#,特来电,仪表1#,浙江工业大学后勤10#,嘉和科技3#,屏风十一变,坤旺,嘉和科技1#,1,铁三项施,浙江工业大学4#,浙江工业大学1#,浙江工业大学3#,光仪1,浙外3#,浙江外国语学院9#,嘉和科技4#,工农,地三施五3,5#,浙江工业大学3#,浙江工业大学2#,外院1#,浙江工业大学7#,","scope":"浙江省-杭州市-西湖区-留下街道-屏峰社区-留和路,屏峰新村,屏峰村;留下街道(杭州屏峰股份经济合作社,中铁七局集团第三工程有限公司,中铁三局集团建筑安装工程有限公司,绿城物业服务集团有限公司杭州第四分公司,浙江工业大学后勤服务总公司,浙江建银服务有限公司,杭州西子集团有限公司,杭州市水务集团有限公司供水泵站分公司,浙江外国语学院（小和山小区二期工程）,浙江工业大学,杭州市西湖区社会福利中心,杭州横街股份经济合作社,杭州外国语学校,杭州水务原水有限公司,杭州望景置业有限公司,杭州小电加科技有限公司,杭州天颐养老服务有限公司,浙江外国语学院)","startTime":"2020-01-07 17:10:00","stopDate":"2020-01-07 18:30:00","orgNo":"3340101","typeCode":"电网故障停限电","poweroffArea":"110kV留下变:石马8853线","poweroffReason":"高压开关跳闸 原停电结束时间为2020-01-07 22:10:00,为减少客户停电时间,加快工作进度,提前送电,现变更停电结束时间为2020-01-07 18:30:00","powerTime":"2020-01-07 17:57:41","powerComm":"已送电","subsNo":"","lineNo":"","tgNo":"","tgName":null,"infoStatus":"1","orgName":"浙江杭州电力客户服务中心","typeName":null,"infoStatusName":null,"dateDay":null,"orgNos":null,"nowTime":null,"countyName":null,"streetName":null,"villageName":null,"roadName":null,"communityName":null,"tranName":null,"sdLineName":null,"cityCode":"3340101","cityName":"浙江杭州电力客户服务中心","provinceCode":null,"stopTime":"2020-01-07 18:30:00","powerType":"全部","powerOffArea":"110kV留下变:石马8853线","powerOffReason":"高压开关跳闸 原停电结束时间为2020-01-07 22:10:00,为减少客户停电时间,加快工作进度,提前送电,现变更停电结束时间为2020-01-07 18:30:00","powerOffId":"2020010731020340"},{"poweroffId":2020010731020338,"sgpoweroffId":null,"subsName":"","lineName":"10kV凤凰Y323线","pubTranName":"大唐村花坟台区,姚村村方家山台区,乌祥村岭上台区,梓洲村下梓洲台区,3#,姚村村双溪口台区,东方村下姜台区,梓洲村水堆湾台区,梓洲村上马岭台区,东方村上姜台区,梓洲村女儿坑台区,建德市畅达公路养护有限公司,1#,凤凰村朱岭台区,凤凰村凤凰台区,乌祥村石塘台区,东方村王皮坞台区,大唐村大库台区,凤凰村凤兴桥台区,凤凰村龙门口台区,建德市广元蜡业有限公司,乌祥村乌祥台区,梓洲村毛洲台区,凤凰村龙门上台区,东方村汤家坞台区,梓洲村金昌口台区,建德市玄武矿业有限公司专变,1#,梓洲村金昌台区,姚村村六大坪台区,姚村村潘岭脚台区,姚村村姚村台区,镇头村岗上岭台区,大唐村唐家台区,梓洲村上梓洲新村台区,大唐村板桥台区,凤凰村长石垅台区,梓洲村东坞台区,梓洲村乡政府台区,乌祥村南华台区,梓洲村潘岭头台区,姚村村阳坞口台区,乌祥村杨召寺台区,梓洲村方家坞台区,大唐村三井沿台区,梓洲村上梓洲台区,凤凰村兵曹坞台区,乌祥村郑家坞台区,凤凰水电站专变2#,梓洲村横坞口台区,凤凰村高丘台区,大唐村南华岭脚台区,梓洲村毛洲湾台区,凤凰村洪岭台区,姚村村阳畈台区,凤凰村周家坪台区,姚村村榧坞台区,乌祥村南华口台区,乌祥村杨家坞台区,凤凰村大雪坞台区,梓洲村木染坑台区,建德市嘉恒电子有限公司,凤凰村石塘坪台区,乌祥村下坑台区,姚村村七坞台区,梓洲村下梓洲新村台区,","scope":"浙江省-杭州市-建德市-三都镇-镇头行政村-岗上岭自然村, 大唐行政村 板桥自然村,唐家自然村,大库自然村,南华岭脚自然村,花坟自然村,三井沿自然村 凤凰行政村 高丘自然村,兵曹坞自然村,大雪坞自然村,长石垅自然村,石塘坪自然村,朱岭自然村,龙门上自然村,洪岭自然村,周家坪自然村,凤凰自然村,凤兴桥自然村,龙门口自然村 -东方行政村 下姜自然村,上姜自然村,汤家坞自然村,王皮坞自然村 , 乌祥行政村 南华自然村,石塘自然村,岭上自然村,南华口自然村,杨家坞自然村,杨召寺自然村,下坑自然村,郑家坞自然村,乌祥自然村 ,乾潭镇-梓洲行政村 金昌自然村,金昌口自然村,毛洲自然村,毛洲湾自然村,上马岭自然村,上梓洲自然村,东坞自然村,潘岭头自然村,上梓洲新村自然村,下梓洲自然村,下梓洲新村自然村,乡政府自然村,方家坞自然村,水堆湾自然村,横坞口自然村,女儿坑自然村,木染坑自然村, 姚村行政村 七坞自然村,潘岭脚自然村,阳畈自然村,姚村自然村,六大坪自然村,榧坞自然村,方家山自然村,双溪口自然村 ; 乌祥行政村-建德市玄武矿业有限公司,乾潭镇-梓洲行政村 建德市畅达公路养护有限公司,建德市嘉恒电子有限公司,建德市广元蜡业有限公司, 凤凰行政村浙江杭州建德市凤凰水电开发有限公司,建德市龙门电站一带用户","startTime":"2020-01-07 16:50:00","stopDate":"2020-01-07 22:30:00","orgNo":"3340180","typeCode":"电网故障停限电","poweroffArea":"35kV三都变:凤凰Y323线-凤凰323线03#开关后段","poweroffReason":"高压开关跳闸 原停电结束时间为2020-01-07 22:00:00,因现场情况复杂原因,现变更停电结束时间为2020-01-07 22:30:00","powerTime":"2020-01-07 21:58:41","powerComm":"已送电","subsNo":"","lineNo":"","tgNo":"","tgName":null,"infoStatus":"1","orgName":"国网浙江建德市供电有限公司","typeName":null,"infoStatusName":null,"dateDay":null,"orgNos":null,"nowTime":null,"countyName":null,"streetName":null,"villageName":null,"roadName":null,"communityName":null,"tranName":null,"sdLineName":null,"cityCode":"3340180","cityName":"国网浙江建德市供电有限公司","provinceCode":null,"stopTime":"2020-01-07 22:30:00","powerType":"全部","powerOffArea":"35kV三都变:凤凰Y323线-凤凰323线03#开关后段","powerOffReason":"高压开关跳闸 原停电结束时间为2020-01-07 22:00:00,因现场情况复杂原因,现变更停电结束时间为2020-01-07 22:30:00","powerOffId":"2020010731020338"},{"poweroffId":2020010731020337,"sgpoweroffId":null,"subsName":"","lineName":"10kV芝厦T190线","pubTranName":"里董4号公变,","scope":"浙江省-杭州市-桐庐县-富春江镇-里董行政村-里董自然村","startTime":"2020-01-07 16:59:54","stopDate":"2020-01-07 18:59:54","orgNo":"3340150","typeCode":"电网故障停限电","poweroffArea":"110kV外董变:芝厦T190线-里董4号公变后段","poweroffReason":"高压开关跳闸","powerTime":"2020-01-07 18:48:23","powerComm":"已送电","subsNo":"","lineNo":"","tgNo":"","tgName":null,"infoStatus":"1","orgName":"国网浙江桐庐县供电公司","typeName":null,"infoStatusName":null,"dateDay":null,"orgNos":null,"nowTime":null,"countyName":null,"streetName":null,"villageName":null,"roadName":null,"communityName":null,"tranName":null,"sdLineName":null,"cityCode":"3340150","cityName":"国网浙江桐庐县供电公司","provinceCode":null,"stopTime":"2020-01-07 18:59:54","powerType":"全部","powerOffArea":"110kV外董变:芝厦T190线-里董4号公变后段","powerOffReason":"高压开关跳闸","powerOffId":"2020010731020337"}],"pageModel":{"pageNow":597,"totalCount":17789,"totalPage":1779,"tableRows":0,"pageCount":10,"beginCount":5960},"isExperi":"1"}