{"message":"","today":"2020-06-15","seleList":[{"poweroffId":2020010731020214,"sgpoweroffId":null,"subsName":"","lineName":"10kV浦长9531线","pubTranName":"东冠村二变,","scope":"浙江省-杭州市-滨江区-浦沿街道-东冠社区-东冠路，浙江省杭州市滨江区浦沿街道东冠公寓楼8号楼1.2.3.4.5单元住.户商铺；6号楼1.2.3单元住户.商铺。","startTime":"2020-01-19 09:30:00","stopDate":"2020-01-19 16:30:00","orgNo":"3340101","typeCode":"计划停电","poweroffArea":"110kV冠山变:浦长9531线-东冠村二变后段低压空开","poweroffReason":"(低压停电信息)非居新装 原停电结束时间为2020-01-20 16:30:00,为减少客户停电时间,加快工作进度,提前送电,现变更停电结束时间为2020-01-19 16:30:00","powerTime":"2020-01-19 14:41:10","powerComm":"已送电","subsNo":"","lineNo":"","tgNo":"","tgName":null,"infoStatus":"1","orgName":"浙江杭州电力客户服务中心","typeName":null,"infoStatusName":null,"dateDay":null,"orgNos":null,"nowTime":null,"countyName":null,"streetName":null,"villageName":null,"roadName":null,"communityName":null,"tranName":null,"sdLineName":null,"cityCode":"3340101","cityName":"浙江杭州电力客户服务中心","provinceCode":null,"stopTime":"2020-01-19 16:30:00","powerType":"全部","powerOffArea":"110kV冠山变:浦长9531线-东冠村二变后段低压空开","powerOffReason":"(低压停电信息)非居新装 原停电结束时间为2020-01-20 16:30:00,为减少客户停电时间,加快工作进度,提前送电,现变更停电结束时间为2020-01-19 16:30:00","powerOffId":"2020010731020214"},{"poweroffId":2020010731020213,"sgpoweroffId":null,"subsName":"","lineName":"10kV江企7232线","pubTranName":"江锦二变,","scope":"浙江省-杭州市-滨江区-长河街道-中兴社区-滨盛路，浙江省杭州市滨江区长河街道江锦国际大厦18-21层，22-26层用户。","startTime":"2020-01-19 09:30:00","stopDate":"2020-01-19 11:30:00","orgNo":"3340101","typeCode":"计划停电","poweroffArea":"110kV江虹变:江企7232线-江锦二变后段1号2号刀闸","poweroffReason":"(低压停电信息)充电桩新装充电桩新装 原停电结束时间为2020-01-20 11:30:00,为减少客户停电时间,加快工作进度,提前送电,现变更停电结束时间为2020-01-19 11:30:00","powerTime":"2020-01-19 10:28:47","powerComm":"已送电","subsNo":"","lineNo":"","tgNo":"","tgName":null,"infoStatus":"1","orgName":"浙江杭州电力客户服务中心","typeName":null,"infoStatusName":null,"dateDay":null,"orgNos":null,"nowTime":null,"countyName":null,"streetName":null,"villageName":null,"roadName":null,"communityName":null,"tranName":null,"sdLineName":null,"cityCode":"3340101","cityName":"浙江杭州电力客户服务中心","provinceCode":null,"stopTime":"2020-01-19 11:30:00","powerType":"全部","powerOffArea":"110kV江虹变:江企7232线-江锦二变后段1号2号刀闸","powerOffReason":"(低压停电信息)充电桩新装充电桩新装 原停电结束时间为2020-01-20 11:30:00,为减少客户停电时间,加快工作进度,提前送电,现变更停电结束时间为2020-01-19 11:30:00","powerOffId":"2020010731020213"},{"poweroffId":2020010731020212,"sgpoweroffId":null,"subsName":"","lineName":"10kV齐飞8101线","pubTranName":"倾恋十五变,","scope":"浙江省-杭州市-滨江区-长河街道-月明社区-月明路，浙江省杭州市滨江区长河街道倾城之恋小区17号楼备供，会所，15号楼商铺。","startTime":"2020-01-17 13:30:00","stopDate":"2020-01-17 16:30:00","orgNo":"3340101","typeCode":"计划停电","poweroffArea":"110kV西兴变:齐飞8101线-倾恋十五变后段5号6号刀闸","poweroffReason":"(低压停电信息)充电桩新装","powerTime":"2020-01-17 14:30:17","powerComm":"已送电","subsNo":"","lineNo":"","tgNo":"","tgName":null,"infoStatus":"1","orgName":"浙江杭州电力客户服务中心","typeName":null,"infoStatusName":null,"dateDay":null,"orgNos":null,"nowTime":null,"countyName":null,"streetName":null,"villageName":null,"roadName":null,"communityName":null,"tranName":null,"sdLineName":null,"cityCode":"3340101","cityName":"浙江杭州电力客户服务中心","provinceCode":null,"stopTime":"2020-01-17 16:30:00","powerType":"全部","powerOffArea":"110kV西兴变:齐飞8101线-倾恋十五变后段5号6号刀闸","powerOffReason":"(低压停电信息)充电桩新装","powerOffId":"2020010731020212"},{"poweroffId":2020010731020211,"sgpoweroffId":null,"subsName":"","lineName":"10kV浦长9531线","pubTranName":"东冠村一变,","scope":"浙江省-杭州市-滨江区-浦沿街道-东冠社区-东冠路，浙江省杭州市滨江区浦沿街道东冠公寓楼13号楼1.2.3.4单元住户.商铺；10号楼1.2.3.4单元住户.商铺；15号楼1.2.3单元住户.商铺。","startTime":"2020-01-17 09:30:00","stopDate":"2020-01-17 16:30:00","orgNo":"3340101","typeCode":"计划停电","poweroffArea":"110kV冠山变:浦长9531线-东冠村一变后段低压空开","poweroffReason":"(低压停电信息)非居新装","powerTime":"2020-01-17 10:23:09","powerComm":"已送电","subsNo":"","lineNo":"","tgNo":"","tgName":null,"infoStatus":"1","orgName":"浙江杭州电力客户服务中心","typeName":null,"infoStatusName":null,"dateDay":null,"orgNos":null,"nowTime":null,"countyName":null,"streetName":null,"villageName":null,"roadName":null,"communityName":null,"tranName":null,"sdLineName":null,"cityCode":"3340101","cityName":"浙江杭州电力客户服务中心","provinceCode":null,"stopTime":"2020-01-17 16:30:00","powerType":"全部","powerOffArea":"110kV冠山变:浦长9531线-东冠村一变后段低压空开","powerOffReason":"(低压停电信息)非居新装","powerOffId":"2020010731020211"},{"poweroffId":2020010731020210,"sgpoweroffId":null,"subsName":"","lineName":"10kV南园7234线","pubTranName":"豪西三变,","scope":"浙江省-杭州市-滨江区-长河街道-月明社区-月明路，浙江省杭州市滨江区长河街道江南豪园小区12号楼动力备供，11号楼19-26层照明，11号楼动力主供，B3-6T3个充电桩用户。","startTime":"2020-01-17 09:30:00","stopDate":"2020-01-17 11:30:00","orgNo":"3340101","typeCode":"计划停电","poweroffArea":"110kV江虹变:南园7234线-豪西三变后段1号2号刀闸","poweroffReason":"(低压停电信息)充电桩新装","powerTime":"2020-01-17 10:50:14","powerComm":"已送电","subsNo":"","lineNo":"","tgNo":"","tgName":null,"infoStatus":"1","orgName":"浙江杭州电力客户服务中心","typeName":null,"infoStatusName":null,"dateDay":null,"orgNos":null,"nowTime":null,"countyName":null,"streetName":null,"villageName":null,"roadName":null,"communityName":null,"tranName":null,"sdLineName":null,"cityCode":"3340101","cityName":"浙江杭州电力客户服务中心","provinceCode":null,"stopTime":"2020-01-17 11:30:00","powerType":"全部","powerOffArea":"110kV江虹变:南园7234线-豪西三变后段1号2号刀闸","powerOffReason":"(低压停电信息)充电桩新装","powerOffId":"2020010731020210"},{"poweroffId":2020010731020208,"sgpoweroffId":null,"subsName":"","lineName":"10kV浦长9531线","pubTranName":"冠寓变,","scope":"浙江省-杭州市-滨江区-浦沿街道(新浦社区-镇前路,东冠社区-东冠路)浙江省杭州市滨江区浦沿街道东冠公寓楼4号楼1.2.3.4单元住户.商铺。","startTime":"2020-01-17 13:00:00","stopDate":"2020-01-17 16:30:00","orgNo":"3340101","typeCode":"计划停电","poweroffArea":"110kV冠山变:浦长9531线-10千伏长河626线东冠站冠寓变后段","poweroffReason":"(低压停电信息)非居新装 原停电结束时间为2020-01-16 16:30:00,因用户原因,现变更停电结束时间为2020-01-17 16:30:00","powerTime":"2020-01-17 14:18:24","powerComm":"已送电","subsNo":"","lineNo":"","tgNo":"","tgName":null,"infoStatus":"1","orgName":"浙江杭州电力客户服务中心","typeName":null,"infoStatusName":null,"dateDay":null,"orgNos":null,"nowTime":null,"countyName":null,"streetName":null,"villageName":null,"roadName":null,"communityName":null,"tranName":null,"sdLineName":null,"cityCode":"3340101","cityName":"浙江杭州电力客户服务中心","provinceCode":null,"stopTime":"2020-01-17 16:30:00","powerType":"全部","powerOffArea":"110kV冠山变:浦长9531线-10千伏长河626线东冠站冠寓变后段","powerOffReason":"(低压停电信息)非居新装 原停电结束时间为2020-01-16 16:30:00,因用户原因,现变更停电结束时间为2020-01-17 16:30:00","powerOffId":"2020010731020208"},{"poweroffId":2020010731020207,"sgpoweroffId":null,"subsName":"","lineName":"10kV浦长9531线","pubTranName":"东冠一,","scope":"浙江省-杭州市-滨江区-浦沿街道-东冠社区-东冠路浙江省杭州市滨江区浦沿街道东冠社区，东冠幼儿园，东冠老年活东室。","startTime":"2020-01-17 13:00:00","stopDate":"2020-01-17 16:30:00","orgNo":"3340101","typeCode":"计划停电","poweroffArea":"110kV冠山变:浦长9531线-东冠一后段低压闸刀","poweroffReason":"(低压停电信息)非居新装 原停电结束时间为2020-01-16 16:30:00,因用户原因,现变更停电结束时间为2020-01-17 16:30:00","powerTime":"2020-01-17 15:49:02","powerComm":"已送电","subsNo":"","lineNo":"","tgNo":"","tgName":null,"infoStatus":"1","orgName":"浙江杭州电力客户服务中心","typeName":null,"infoStatusName":null,"dateDay":null,"orgNos":null,"nowTime":null,"countyName":null,"streetName":null,"villageName":null,"roadName":null,"communityName":null,"tranName":null,"sdLineName":null,"cityCode":"3340101","cityName":"浙江杭州电力客户服务中心","provinceCode":null,"stopTime":"2020-01-17 16:30:00","powerType":"全部","powerOffArea":"110kV冠山变:浦长9531线-东冠一后段低压闸刀","powerOffReason":"(低压停电信息)非居新装 原停电结束时间为2020-01-16 16:30:00,因用户原因,现变更停电结束时间为2020-01-17 16:30:00","powerOffId":"2020010731020207"},{"poweroffId":2020010731020205,"sgpoweroffId":null,"subsName":"","lineName":"10kV仁善9551线","pubTranName":"冠南,","scope":"浙江省-杭州市-滨江区-浦沿街道-东冠社区-东冠路，浙江省杭州市滨江区浦沿街道东冠公寓楼1号楼1.2.3.4单元住户.商铺。","startTime":"2020-01-17 09:30:00","stopDate":"2020-01-17 11:30:00","orgNo":"3340101","typeCode":"计划停电","poweroffArea":"110kV冠山变:仁善9551线-冠南后段1号低压空开","poweroffReason":"(低压停电信息)非居新装 原停电结束时间为2020-01-16 11:30:00,因用户原因,现变更停电结束时间为2020-01-17 11:30:00","powerTime":"2020-01-17 11:18:20","powerComm":"已送电","subsNo":"","lineNo":"","tgNo":"","tgName":null,"infoStatus":"1","orgName":"浙江杭州电力客户服务中心","typeName":null,"infoStatusName":null,"dateDay":null,"orgNos":null,"nowTime":null,"countyName":null,"streetName":null,"villageName":null,"roadName":null,"communityName":null,"tranName":null,"sdLineName":null,"cityCode":"3340101","cityName":"浙江杭州电力客户服务中心","provinceCode":null,"stopTime":"2020-01-17 11:30:00","powerType":"全部","powerOffArea":"110kV冠山变:仁善9551线-冠南后段1号低压空开","powerOffReason":"(低压停电信息)非居新装 原停电结束时间为2020-01-16 11:30:00,因用户原因,现变更停电结束时间为2020-01-17 11:30:00","powerOffId":"2020010731020205"},{"poweroffId":2020010731020201,"sgpoweroffId":null,"subsName":"","lineName":"10kV新桐D411线","pubTranName":"程坟村1#下埠头公变,程坟村5号十亩里公变,","scope":"浙江省-杭州市-富阳区-新桐乡-程浦行政村-程坟自然村","startTime":"2020-01-07 14:09:48","stopDate":"2020-01-07 16:09:48","orgNo":"3340170","typeCode":"电网故障停限电","poweroffArea":"110kV长春变:新桐D411线首端，程坟村1#下埠头公变，程坟村5号十亩里公变之间","poweroffReason":"高压开关跳闸","powerTime":"2020-01-07 15:21:48","powerComm":"已送电","subsNo":"","lineNo":"","tgNo":"","tgName":null,"infoStatus":"1","orgName":"国网浙江杭州市富阳区供电公司","typeName":null,"infoStatusName":null,"dateDay":null,"orgNos":null,"nowTime":null,"countyName":null,"streetName":null,"villageName":null,"roadName":null,"communityName":null,"tranName":null,"sdLineName":null,"cityCode":"3340170","cityName":"国网浙江杭州市富阳区供电公司","provinceCode":null,"stopTime":"2020-01-07 16:09:48","powerType":"全部","powerOffArea":"110kV长春变:新桐D411线首端，程坟村1#下埠头公变，程坟村5号十亩里公变之间","powerOffReason":"高压开关跳闸","powerOffId":"2020010731020201"},{"poweroffId":2020010731020200,"sgpoweroffId":null,"subsName":"","lineName":"10kV民族T148线","pubTranName":"桐庐富春江工艺石材厂,龙峰1号公变,桐庐远大工艺石材厂,桐庐杰阳钙业有限公司,桐庐大众石材工艺有限公司,桐庐金诚石材有限公司变压器,浙江省桐庐县花炮厂,山阴岭2号公变,新蓬1号公变,中国电信股份有限公司桐庐分公司,桐庐振幸雪花青石材有限公司,桐庐畲洪禽业有限公司,西坞1号公变,桐庐泽辉针织厂,桐庐龙峰花岗石工艺有限公司,桐庐威尔特石业有限公司,沈家1号公变,铁钻石1号公变,双园1号公变,桐庐万通石材有限公司,桐庐宏泰石材厂,杭州多森农业开发有限公司,黄家山1号公变,桐庐大众石材工艺厂,山阴湾1号公变,石青山1号公变,横山1号公变,尧山坞1号公变,龙峰2号公变,杭州天沐生态旅游开发有限公司,尧山1号公变,桐庐申盛花岗石工艺有限公司,桐庐独幽处旅游开发有限公司变压器,桐庐杰阳钙业有限公司,戴丰2号公变,戴丰1号公变,杭州亦舍酒店管理有限公司,10千伏大王6462线红(2)农配变跌落式熔断器,桐庐永丰石材有限公司,桐庐火隆石材有限公司,桐庐郑氏石料制品厂,尧山李家1号公变,桐庐潮林石材工艺厂,桐庐鑫达石材工程有限公司,潘龙1号公变,双井坞1号公变,桐庐联翔石材有限公司,大岭脚1号公变,尧山朱家1号公变,桐庐天一农庄有限公司,中门1号公变,衣冠1号公变,桐庐县莪山民族小学,双华1号公变,","scope":"浙江省-杭州市-桐庐县-莪山畲族乡-中门民族行政村(香炉山自然村,中门莪溪自然村,石青山自然村,潘龙自然村,黄家山自然村),莪山畲族乡-龙峰民族行政村(尧山坞自然村,项家自然村,水洪里自然村,双井坞自然村,下珠自然村),莪山畲族乡-莪山民族行政村(山阴岭自然村,周田自然村,山阴湾自然村,西坞自然村),莪山畲族乡-新丰民族行政村(横山自然村,铁钻石自然村,戴家山自然村,桐坑自然村,东卜潭自然村),莪山畲族乡-尧山行政村(尧山自然村,李家自然村,新蓬自然村,双圆自然村),莪山畲族乡-沈冠行政村(沈家自然村,皂树田自然村,衣冠自然村);莪山畲族乡-龙峰民族行政村(桐庐宏泰石材厂,桐庐畲洪禽业有限公司,桐庐县莪山畲族乡雪华石材经营部,桐庐龙峰花岗石工艺有限公司,桐庐泽辉针织厂),莪山畲族乡-莪山民族行政村(中国铁塔股份有限公司杭州市分公司,浙江省桐庐县花炮厂,桐庐县莪山民族小学),莪山畲族乡-新丰民族行政村(桐庐云夕戴家山民宿有限公司,桐庐秘境民宿有限公司,桐庐独幽处旅游开发有限公司,桐庐天一农庄有限公司),莪山畲族乡-尧山行政村(桐庐火隆石材有限公司,桐庐大众石材工艺厂,桐庐远大工艺石材厂,桐庐大众石材工艺有限公司,桐庐富春江工艺石材厂,杭州多森农业开发有限公司),莪山畲族乡-沈冠行政村(桐庐联翔石材有限公司,桐庐振幸雪花青石材有限公司,桐庐鑫达石材工程有限公司,桐庐潮林石材工艺厂,桐庐万通石材有限公司,浙江金诚石材有限公司),旧县街道-合岭行政村-桐庐永丰石材有限公司,钟山乡-中一行政村-桐庐杰阳钙业有限公司,莪山畲族乡-中门民族行政村-杭州天沐生态旅游开发有限公司","startTime":"2020-01-07 14:06:13","stopDate":"2020-01-07 16:15:13","orgNo":"3340150","typeCode":"电网故障停限电","poweroffArea":"35kV钟山变:民族T148线","poweroffReason":"高压开关跳闸 原停电结束时间为2020-01-07 19:30:13,为减少客户停电时间,加快工作进度,提前送电,现变更停电结束时间为2020-01-07 16:15:13","powerTime":"2020-01-07 16:06:02","powerComm":"已送电","subsNo":"","lineNo":"","tgNo":"","tgName":null,"infoStatus":"1","orgName":"国网浙江桐庐县供电公司","typeName":null,"infoStatusName":null,"dateDay":null,"orgNos":null,"nowTime":null,"countyName":null,"streetName":null,"villageName":null,"roadName":null,"communityName":null,"tranName":null,"sdLineName":null,"cityCode":"3340150","cityName":"国网浙江桐庐县供电公司","provinceCode":null,"stopTime":"2020-01-07 16:15:13","powerType":"全部","powerOffArea":"35kV钟山变:民族T148线","powerOffReason":"高压开关跳闸 原停电结束时间为2020-01-07 19:30:13,为减少客户停电时间,加快工作进度,提前送电,现变更停电结束时间为2020-01-07 16:15:13","powerOffId":"2020010731020200"}],"pageModel":{"pageNow":599,"totalCount":17789,"totalPage":1779,"tableRows":0,"pageCount":10,"beginCount":5980},"isExperi":"1"}