{"message":"","today":"2020-06-15","seleList":[{"poweroffId":2020010631020113,"sgpoweroffId":null,"subsName":"","lineName":"10kV马炬7293线","pubTranName":"中兴六变,","scope":"浙江省-杭州市-滨江区-浦沿街道-向南社区-火炬大道-中兴和园,茗水苑小区","startTime":"2020-01-06 11:14:00","stopDate":"2020-01-06 12:50:00","orgNo":"3340101","typeCode":"电网故障停限电","poweroffArea":"110kV白马变:马炬7293线中兴六变中兴六变配变","poweroffReason":"高压开关跳闸 原停电结束时间为2020-01-06 16:14:00,为减少客户停电时间,加快工作进度,提前送电,现变更停电结束时间为2020-01-06 12:50:00","powerTime":"2020-01-06 12:13:09","powerComm":"已送电","subsNo":"","lineNo":"","tgNo":"","tgName":null,"infoStatus":"1","orgName":"浙江杭州电力客户服务中心","typeName":null,"infoStatusName":null,"dateDay":null,"orgNos":null,"nowTime":null,"countyName":null,"streetName":null,"villageName":null,"roadName":null,"communityName":null,"tranName":null,"sdLineName":null,"cityCode":"3340101","cityName":"浙江杭州电力客户服务中心","provinceCode":null,"stopTime":"2020-01-06 12:50:00","powerType":"全部","powerOffArea":"110kV白马变:马炬7293线中兴六变中兴六变配变","powerOffReason":"高压开关跳闸 原停电结束时间为2020-01-06 16:14:00,为减少客户停电时间,加快工作进度,提前送电,现变更停电结束时间为2020-01-06 12:50:00","powerOffId":"2020010631020113"},{"poweroffId":2020010631020111,"sgpoweroffId":null,"subsName":"","lineName":"10kV马炬7293线","pubTranName":"中兴四变,中兴六变,中兴八变,中兴十变,中投,中兴二变,","scope":"浙江省-杭州市-滨江区-长河街道-中兴社区-中兴花园小区,浦沿街道(向南社区-火炬大道,中兴和园,茗馨苑小区,茗水苑小区,新浦社区-镇前路);浦沿街道-杭州中兴中投物业管理有限公司","startTime":"2020-01-06 11:12:00","stopDate":"2020-01-06 12:50:00","orgNo":"3340101","typeCode":"电网故障停限电","poweroffArea":"110kV白马变:马炬7293线讯和站家和72931线后段","poweroffReason":"高压开关跳闸 原停电结束时间为2020-01-06 14:12:00,为减少客户停电时间,加快工作进度,提前送电,现变更停电结束时间为2020-01-06 12:50:00","powerTime":"2020-01-06 12:12:55","powerComm":"已送电","subsNo":"","lineNo":"","tgNo":"","tgName":null,"infoStatus":"1","orgName":"浙江杭州电力客户服务中心","typeName":null,"infoStatusName":null,"dateDay":null,"orgNos":null,"nowTime":null,"countyName":null,"streetName":null,"villageName":null,"roadName":null,"communityName":null,"tranName":null,"sdLineName":null,"cityCode":"3340101","cityName":"浙江杭州电力客户服务中心","provinceCode":null,"stopTime":"2020-01-06 12:50:00","powerType":"全部","powerOffArea":"110kV白马变:马炬7293线讯和站家和72931线后段","powerOffReason":"高压开关跳闸 原停电结束时间为2020-01-06 14:12:00,为减少客户停电时间,加快工作进度,提前送电,现变更停电结束时间为2020-01-06 12:50:00","powerOffId":"2020010631020111"},{"poweroffId":2020010631020109,"sgpoweroffId":null,"subsName":"","lineName":"10kV马炬7293线","pubTranName":"塘河二,石塘河二,石塘河二,水务施,塘河,","scope":"浙江省-杭州市-滨江区-长河街道-山一村社区-山一;长河街道-杭州高新技术产业开发区(滨江)城建指挥部","startTime":"2020-01-06 11:15:00","stopDate":"2020-01-06 15:50:06","orgNo":"3340101","typeCode":"电网故障停限电","poweroffArea":"110kV白马变:马炬7293线10千伏德意159线孔家站有合总分线开关后段","poweroffReason":"高压开关跳闸 原停电结束时间为2020-01-06 16:15:06,为减少客户停电时间,加快工作进度,提前送电,现变更停电结束时间为2020-01-06 15:50:06","powerTime":"2020-01-06 15:10:23","powerComm":"已送电","subsNo":"","lineNo":"","tgNo":"","tgName":null,"infoStatus":"1","orgName":"浙江杭州电力客户服务中心","typeName":null,"infoStatusName":null,"dateDay":null,"orgNos":null,"nowTime":null,"countyName":null,"streetName":null,"villageName":null,"roadName":null,"communityName":null,"tranName":null,"sdLineName":null,"cityCode":"3340101","cityName":"浙江杭州电力客户服务中心","provinceCode":null,"stopTime":"2020-01-06 15:50:06","powerType":"全部","powerOffArea":"110kV白马变:马炬7293线10千伏德意159线孔家站有合总分线开关后段","powerOffReason":"高压开关跳闸 原停电结束时间为2020-01-06 16:15:06,为减少客户停电时间,加快工作进度,提前送电,现变更停电结束时间为2020-01-06 15:50:06","powerOffId":"2020010631020109"},{"poweroffId":2020010631020090,"sgpoweroffId":null,"subsName":"","lineName":"10kV夏中R18A线","pubTranName":"临岐新溪村里熟坑公变,","scope":"浙江省-杭州市-淳安县-临岐镇-新溪行政村(熟坑自然村,里熟坑自然村)","startTime":"2020-01-14 09:00:00","stopDate":"2020-01-14 12:00:00","orgNo":"3340190","typeCode":"计划停电","poweroffArea":"35kV临岐变:夏中R18A线-里熟坑支线跌落式熔断器后段","poweroffReason":"夏中R18A线里熟坑支线1-5号杆导线弧垂调整","powerTime":"2020-01-14 11:06:53","powerComm":"已送电","subsNo":"","lineNo":"","tgNo":"","tgName":null,"infoStatus":"1","orgName":"国网浙江淳安县供电有限公司","typeName":null,"infoStatusName":null,"dateDay":null,"orgNos":null,"nowTime":null,"countyName":null,"streetName":null,"villageName":null,"roadName":null,"communityName":null,"tranName":null,"sdLineName":null,"cityCode":"3340190","cityName":"国网浙江淳安县供电有限公司","provinceCode":null,"stopTime":"2020-01-14 12:00:00","powerType":"全部","powerOffArea":"35kV临岐变:夏中R18A线-里熟坑支线跌落式熔断器后段","powerOffReason":"夏中R18A线里熟坑支线1-5号杆导线弧垂调整","powerOffId":"2020010631020090"},{"poweroffId":2020010631020079,"sgpoweroffId":null,"subsName":"","lineName":"10kV武强R306线","pubTranName":"简门村汰门公变,","scope":"浙江省-杭州市-淳安县-汾口镇(经门行政村-经门自然村,简门行政村-汰门自然村)","startTime":"2020-01-07 08:00:00","stopDate":"2020-01-07 13:00:00","orgNo":"3340190","typeCode":"临时停电","poweroffArea":"110kV汾口变:武强R306线-汰门支线0号杆跌落式熔断器后段","poweroffReason":"汰门台区新建0.4kV汰门线00#-03#立杆架线及引下线集束架设及电缆搭接 原停电结束时间为2020-01-07 12:00:00,因XXX原因,现变更停电结束时间为2020-01-07 13:00:00","powerTime":"2020-01-07 12:52:26","powerComm":"已送电","subsNo":"","lineNo":"","tgNo":"","tgName":null,"infoStatus":"1","orgName":"国网浙江淳安县供电有限公司","typeName":null,"infoStatusName":null,"dateDay":null,"orgNos":null,"nowTime":null,"countyName":null,"streetName":null,"villageName":null,"roadName":null,"communityName":null,"tranName":null,"sdLineName":null,"cityCode":"3340190","cityName":"国网浙江淳安县供电有限公司","provinceCode":null,"stopTime":"2020-01-07 13:00:00","powerType":"全部","powerOffArea":"110kV汾口变:武强R306线-汰门支线0号杆跌落式熔断器后段","powerOffReason":"汰门台区新建0.4kV汰门线00#-03#立杆架线及引下线集束架设及电缆搭接 原停电结束时间为2020-01-07 12:00:00,因XXX原因,现变更停电结束时间为2020-01-07 13:00:00","powerOffId":"2020010631020079"},{"poweroffId":2020010631020073,"sgpoweroffId":null,"subsName":"","lineName":"10kV大联T448线","pubTranName":"迎春小区1号公变,","scope":"浙江省-杭州市-桐庐县-城南街道-下杭社区(大联路,滨江路,迎春一弄,迎春南路，迎春小区1幢)","startTime":"2020-01-06 10:00:36","stopDate":"2020-01-06 12:00:36","orgNo":"3340150","typeCode":"电网故障停限电","poweroffArea":"110kV下杭变:大联T448线-迎春小区1号公变后段","poweroffReason":"(低压停电信息)低压开关跳闸","powerTime":"2020-01-06 11:31:03","powerComm":"已送电","subsNo":"","lineNo":"","tgNo":"","tgName":null,"infoStatus":"1","orgName":"国网浙江桐庐县供电公司","typeName":null,"infoStatusName":null,"dateDay":null,"orgNos":null,"nowTime":null,"countyName":null,"streetName":null,"villageName":null,"roadName":null,"communityName":null,"tranName":null,"sdLineName":null,"cityCode":"3340150","cityName":"国网浙江桐庐县供电公司","provinceCode":null,"stopTime":"2020-01-06 12:00:36","powerType":"全部","powerOffArea":"110kV下杭变:大联T448线-迎春小区1号公变后段","powerOffReason":"(低压停电信息)低压开关跳闸","powerOffId":"2020010631020073"},{"poweroffId":2020010631020070,"sgpoweroffId":null,"subsName":"","lineName":"10kV树兰G992线","pubTranName":"杭州市余杭区人民政府星桥街道办事处 6120445672,安达汽修,","scope":"浙江省杭州市余杭区东湖街道：星桥街道办事处工地、安达汽修一带","startTime":"2020-01-14 09:00:00","stopDate":"2020-01-14 17:00:00","orgNo":"3340140","typeCode":"计划停电","poweroffArea":"110kV茅山变:树兰G992线首端，北书G99222开关，书香开关站北书G9922线之间","poweroffReason":"拆除曙光路灯变分线2档、配变移位至珠光粉分线1#杆","powerTime":"2020-01-14 14:05:18","powerComm":"已送电","subsNo":"","lineNo":"","tgNo":"","tgName":null,"infoStatus":"1","orgName":"国网浙江杭州市余杭区供电有限公司","typeName":null,"infoStatusName":null,"dateDay":null,"orgNos":null,"nowTime":null,"countyName":null,"streetName":null,"villageName":null,"roadName":null,"communityName":null,"tranName":null,"sdLineName":null,"cityCode":"3340140","cityName":"国网浙江杭州市余杭区供电有限公司","provinceCode":null,"stopTime":"2020-01-14 17:00:00","powerType":"全部","powerOffArea":"110kV茅山变:树兰G992线首端，北书G99222开关，书香开关站北书G9922线之间","powerOffReason":"拆除曙光路灯变分线2档、配变移位至珠光粉分线1#杆","powerOffId":"2020010631020070"},{"poweroffId":2020010631020069,"sgpoweroffId":null,"subsName":"","lineName":"10kV美程G764线","pubTranName":"杭州市余杭区临平街道星火苑社区居民委员会,龙升控股集团有限公司,","scope":"浙江省-杭州市-余杭区-东湖街道：龙升控股集团工地、星火社区工地一带","startTime":"2020-04-16 10:00:00","stopDate":"2020-04-16 16:00:00","orgNo":"3340140","typeCode":"计划停电","poweroffArea":"110kV金家变:美程G764线-星火社区基建变后段;美程G764线-龙升控股集团基建变后段","poweroffReason":"原停电结束时间为2020-04-1614:00:00,因现场施工难度大原因,延迟送电,现变更停电结束时间为2020-04-1616:00:00","powerTime":"2020-04-16 15:33:45","powerComm":"已送电","subsNo":"","lineNo":"","tgNo":"","tgName":null,"infoStatus":"1","orgName":"国网浙江杭州市余杭区供电有限公司","typeName":null,"infoStatusName":null,"dateDay":null,"orgNos":null,"nowTime":null,"countyName":null,"streetName":null,"villageName":null,"roadName":null,"communityName":null,"tranName":null,"sdLineName":null,"cityCode":"3340140","cityName":"国网浙江杭州市余杭区供电有限公司","provinceCode":null,"stopTime":"2020-04-16 16:00:00","powerType":"全部","powerOffArea":"110kV金家变:美程G764线-星火社区基建变后段;美程G764线-龙升控股集团基建变后段","powerOffReason":"原停电结束时间为2020-04-1614:00:00,因现场施工难度大原因,延迟送电,现变更停电结束时间为2020-04-1616:00:00","powerOffId":"2020010631020069"},{"poweroffId":2020010631020068,"sgpoweroffId":null,"subsName":"","lineName":"10kV铁铺G990线","pubTranName":"金都置业基建变,","scope":"浙江省杭州市余杭区东湖街道：金都置业一带","startTime":"2020-01-13 13:30:00","stopDate":"2020-01-13 17:00:00","orgNo":"3340140","typeCode":"临时停电","poweroffArea":"110kV茅山变:铁铺G990线-金都房产基建变开关后段","poweroffReason":"朗正置业基建分线电缆拆除","powerTime":"2020-01-13 14:50:50","powerComm":"已送电","subsNo":"","lineNo":"","tgNo":"","tgName":null,"infoStatus":"1","orgName":"国网浙江杭州市余杭区供电有限公司","typeName":null,"infoStatusName":null,"dateDay":null,"orgNos":null,"nowTime":null,"countyName":null,"streetName":null,"villageName":null,"roadName":null,"communityName":null,"tranName":null,"sdLineName":null,"cityCode":"3340140","cityName":"国网浙江杭州市余杭区供电有限公司","provinceCode":null,"stopTime":"2020-01-13 17:00:00","powerType":"全部","powerOffArea":"110kV茅山变:铁铺G990线-金都房产基建变开关后段","powerOffReason":"朗正置业基建分线电缆拆除","powerOffId":"2020010631020068"},{"poweroffId":2020010631020065,"sgpoweroffId":null,"subsName":"","lineName":"10kV天岭7191线","pubTranName":"话机沿港2,话机沿港1,俊力,双美,","scope":"浙江省-杭州市-拱墅区-半山街道(杭州双美家纺有限公司,杭州俊力机械设备有限公司)","startTime":"2020-01-06 09:43:43","stopDate":"2020-01-06 10:50:43","orgNo":"3340101","typeCode":"电网故障停限电","poweroffArea":"110kV康桥变:天岭7191线沿港分站沿港分线后段","poweroffReason":"高压开关跳闸 原停电结束时间为2020-01-06 11:43:43,为减少客户停电时间,加快工作进度,提前送电,现变更停电结束时间为2020-01-06 10:50:43","powerTime":"2020-01-06 10:15:39","powerComm":"已送电","subsNo":"","lineNo":"","tgNo":"","tgName":null,"infoStatus":"1","orgName":"浙江杭州电力客户服务中心","typeName":null,"infoStatusName":null,"dateDay":null,"orgNos":null,"nowTime":null,"countyName":null,"streetName":null,"villageName":null,"roadName":null,"communityName":null,"tranName":null,"sdLineName":null,"cityCode":"3340101","cityName":"浙江杭州电力客户服务中心","provinceCode":null,"stopTime":"2020-01-06 10:50:43","powerType":"全部","powerOffArea":"110kV康桥变:天岭7191线沿港分站沿港分线后段","powerOffReason":"高压开关跳闸 原停电结束时间为2020-01-06 11:43:43,为减少客户停电时间,加快工作进度,提前送电,现变更停电结束时间为2020-01-06 10:50:43","powerOffId":"2020010631020065"}],"pageModel":{"pageNow":603,"totalCount":17789,"totalPage":1779,"tableRows":0,"pageCount":10,"beginCount":6020},"isExperi":"1"}