{"message":"","today":"2020-06-15","seleList":[{"poweroffId":2020010631020058,"sgpoweroffId":null,"subsName":"","lineName":"10kV沧滩Y102线","pubTranName":"上沧102001公变,","scope":"浙江省-杭州市-建德市-新安江街道-罗桐社区-新电路一带用户","startTime":"2020-01-06 09:20:00","stopDate":"2020-01-06 10:30:00","orgNo":"3340180","typeCode":"电网故障停限电","poweroffArea":"110kV新安江变:沧滩Y102线-上沧102001公变后段","poweroffReason":"(低压停电信息)低压开关跳闸 原停电结束时间为2020-01-06 11:30:00,为减少客户停电时间,加快工作进度,提前送电,现变更停电结束时间为2020-01-06 10:30:00","powerTime":"2020-01-06 10:03:00","powerComm":"已送电","subsNo":"","lineNo":"","tgNo":"","tgName":null,"infoStatus":"1","orgName":"国网浙江建德市供电有限公司","typeName":null,"infoStatusName":null,"dateDay":null,"orgNos":null,"nowTime":null,"countyName":null,"streetName":null,"villageName":null,"roadName":null,"communityName":null,"tranName":null,"sdLineName":null,"cityCode":"3340180","cityName":"国网浙江建德市供电有限公司","provinceCode":null,"stopTime":"2020-01-06 10:30:00","powerType":"全部","powerOffArea":"110kV新安江变:沧滩Y102线-上沧102001公变后段","powerOffReason":"(低压停电信息)低压开关跳闸 原停电结束时间为2020-01-06 11:30:00,为减少客户停电时间,加快工作进度,提前送电,现变更停电结束时间为2020-01-06 10:30:00","powerOffId":"2020010631020058"},{"poweroffId":2020010631020052,"sgpoweroffId":null,"subsName":"","lineName":"10kV瑛珠C280线","pubTranName":"长安村祥大房2#变,","scope":"浙江省-杭州市-萧山区-闻堰镇-长安行政村-祥大房自然村","startTime":"2020-01-06 07:45:36","stopDate":"2020-01-06 10:00:36","orgNo":"3340130","typeCode":"电网故障停限电","poweroffArea":"110kV三江变:瑛珠C280线-长安村祥大房2#变后段","poweroffReason":"高压跌落式熔断器短路","powerTime":"2020-01-06 09:29:09","powerComm":"已送电","subsNo":"","lineNo":"","tgNo":"","tgName":null,"infoStatus":"1","orgName":"国网浙江杭州市萧山区供电有限公司","typeName":null,"infoStatusName":null,"dateDay":null,"orgNos":null,"nowTime":null,"countyName":null,"streetName":null,"villageName":null,"roadName":null,"communityName":null,"tranName":null,"sdLineName":null,"cityCode":"3340130","cityName":"国网浙江杭州市萧山区供电有限公司","provinceCode":null,"stopTime":"2020-01-06 10:00:36","powerType":"全部","powerOffArea":"110kV三江变:瑛珠C280线-长安村祥大房2#变后段","powerOffReason":"高压跌落式熔断器短路","powerOffId":"2020010631020052"},{"poweroffId":2020010631020042,"sgpoweroffId":null,"subsName":"","lineName":"10kV城东G176线","pubTranName":"红丰村七组西变,","scope":"浙江省-杭州市-余杭区-经济开发区-红丰社区(汤甫庙,红丰,7组),东湖街道-红丰社区(红丰路,汤浦庙自然村)","startTime":"2020-01-06 08:45:00","stopDate":"2020-01-06 10:20:00","orgNo":"3340140","typeCode":"电网故障停限电","poweroffArea":"110kV丘山变:城东G176线-红丰7组西后段","poweroffReason":"高压开关跳闸","powerTime":"2020-01-06 09:51:00","powerComm":"已送电","subsNo":"","lineNo":"","tgNo":"","tgName":null,"infoStatus":"1","orgName":"国网浙江杭州市余杭区供电有限公司","typeName":null,"infoStatusName":null,"dateDay":null,"orgNos":null,"nowTime":null,"countyName":null,"streetName":null,"villageName":null,"roadName":null,"communityName":null,"tranName":null,"sdLineName":null,"cityCode":"3340140","cityName":"国网浙江杭州市余杭区供电有限公司","provinceCode":null,"stopTime":"2020-01-06 10:20:00","powerType":"全部","powerOffArea":"110kV丘山变:城东G176线-红丰7组西后段","powerOffReason":"高压开关跳闸","powerOffId":"2020010631020042"},{"poweroffId":2020010631020041,"sgpoweroffId":null,"subsName":"","lineName":"10kV城东G176线","pubTranName":"红丰村7组2号公变,","scope":"浙江省-杭州市-余杭区-经济开发区-红丰社区-振兴东路","startTime":"2020-01-06 10:20:00","stopDate":"2020-01-06 10:44:06","orgNo":"3340140","typeCode":"电网故障停限电","poweroffArea":"110kV丘山变:城东G176线-红丰7组2#后段","poweroffReason":"高压开关跳闸","powerTime":"2020-01-06 10:41:00","powerComm":"已送电","subsNo":"","lineNo":"","tgNo":"","tgName":null,"infoStatus":"1","orgName":"国网浙江杭州市余杭区供电有限公司","typeName":null,"infoStatusName":null,"dateDay":null,"orgNos":null,"nowTime":null,"countyName":null,"streetName":null,"villageName":null,"roadName":null,"communityName":null,"tranName":null,"sdLineName":null,"cityCode":"3340140","cityName":"国网浙江杭州市余杭区供电有限公司","provinceCode":null,"stopTime":"2020-01-06 10:44:06","powerType":"全部","powerOffArea":"110kV丘山变:城东G176线-红丰7组2#后段","powerOffReason":"高压开关跳闸","powerOffId":"2020010631020041"},{"poweroffId":2020010631020037,"sgpoweroffId":null,"subsName":"","lineName":"10kV朱家Y739线","pubTranName":"2#变,建德市马目砖瓦厂,建德市马目砖瓦厂2#变,杭州交建公路养护有限公司,1#变,","scope":"浙江省-杭州市-建德市-下涯镇 杭州交建公路养护有限公司,建德市马目砖瓦厂一带用户。","startTime":"2020-01-06 08:25:00","stopDate":"2020-01-06 16:00:00","orgNo":"3340180","typeCode":"电网故障停限电","poweroffArea":"110kV马目变:朱家Y739线马目砖瓦厂0#杆真空开关后段","poweroffReason":"高压开关跳闸","powerTime":"2020-01-06 15:32:00","powerComm":"已送电","subsNo":"","lineNo":"","tgNo":"","tgName":null,"infoStatus":"1","orgName":"国网浙江建德市供电有限公司","typeName":null,"infoStatusName":null,"dateDay":null,"orgNos":null,"nowTime":null,"countyName":null,"streetName":null,"villageName":null,"roadName":null,"communityName":null,"tranName":null,"sdLineName":null,"cityCode":"3340180","cityName":"国网浙江建德市供电有限公司","provinceCode":null,"stopTime":"2020-01-06 16:00:00","powerType":"全部","powerOffArea":"110kV马目变:朱家Y739线马目砖瓦厂0#杆真空开关后段","powerOffReason":"高压开关跳闸","powerOffId":"2020010631020037"},{"poweroffId":2020010631020034,"sgpoweroffId":null,"subsName":"","lineName":"10kV名一A083线","pubTranName":"渔庄村7#变,杭州越翔科纺整理有限公司3#,渔庄村15#变,杭州越翔科纺整理有限公司2#,1#,渔庄村10#变,渔庄村4#变,渔庄村3#变,渔庄村16#变,渔庄村2#变,渔庄村1#变,渔庄村14#变,渔庄村8#变,渔庄村12#变,渔庄村9#变,渔庄村13#变,群联村6#变,杭州越翔科纺整理有限公司4#,","scope":"浙江省-杭州市-萧山区-瓜沥镇-渔庄行政村、渔庄自然村,后秋湖陈自然村,前秋湖陈自然村,龙房自然村,池上自然村,竹园蓬下自然村,长木桥自然村,东湖头自然村,桥头自然村,歪桥自然村,小桥头自然村,朝北台门自然村,四沿房自然村,瓜沥镇-群联行政村、畈里汪自然村,群联自然村;浙江省-杭州市-萧山区-瓜沥镇-渔庄行政村-杭州越翔科纺整理有限公司一带","startTime":"2020-01-06 08:30:59","stopDate":"2020-01-06 15:30:59","orgNo":"3340130","typeCode":"电网故障停限电","poweroffArea":"110kV航坞变:名一A083线-名一A083线豪景分支开昭越分线开关后段","poweroffReason":"高压柱上断路器短路故障 原停电结束时间: 2020-01-06 14:30:59，变更停电结束时间: 2020-01-06 15:30:59.由于抢修工作难度大,故需要延迟送电。","powerTime":"2020-01-06 14:42:03","powerComm":"已送电","subsNo":"","lineNo":"","tgNo":"","tgName":null,"infoStatus":"1","orgName":"国网浙江杭州市萧山区供电有限公司","typeName":null,"infoStatusName":null,"dateDay":null,"orgNos":null,"nowTime":null,"countyName":null,"streetName":null,"villageName":null,"roadName":null,"communityName":null,"tranName":null,"sdLineName":null,"cityCode":"3340130","cityName":"国网浙江杭州市萧山区供电有限公司","provinceCode":null,"stopTime":"2020-01-06 15:30:59","powerType":"全部","powerOffArea":"110kV航坞变:名一A083线-名一A083线豪景分支开昭越分线开关后段","powerOffReason":"高压柱上断路器短路故障 原停电结束时间: 2020-01-06 14:30:59，变更停电结束时间: 2020-01-06 15:30:59.由于抢修工作难度大,故需要延迟送电。","powerOffId":"2020010631020034"},{"poweroffId":2020010531020122,"sgpoweroffId":null,"subsName":"","lineName":"10kV海关A586线","pubTranName":"新城香悦公馆7#公变,","scope":"浙江省-杭州市-萧山区-北干街道-塘湾行政村-金城路、香悦奥府、新城香悦奥府8幢一带","startTime":"2020-01-05 19:55:00","stopDate":"2020-01-06 01:30:00","orgNo":"3340130","typeCode":"电网故障停限电","poweroffArea":"110kV城东变:海关A586线-新城香悦公馆7#公变后段","poweroffReason":"(低压停电信息)母排烧 原停电结束时间为2020-01-05 23:55:00,因现场需要重新搭建临时电缆原因,现变更停电结束时间为2020-01-06 05:00:00 加快工作进度,提前送电,现变更停电结束时间为2020-01-06 01:30:00","powerTime":"2020-01-06 00:34:40","powerComm":"已送电","subsNo":"","lineNo":"","tgNo":"","tgName":null,"infoStatus":"1","orgName":"国网浙江杭州市萧山区供电有限公司","typeName":null,"infoStatusName":null,"dateDay":null,"orgNos":null,"nowTime":null,"countyName":null,"streetName":null,"villageName":null,"roadName":null,"communityName":null,"tranName":null,"sdLineName":null,"cityCode":"3340130","cityName":"国网浙江杭州市萧山区供电有限公司","provinceCode":null,"stopTime":"2020-01-06 01:30:00","powerType":"全部","powerOffArea":"110kV城东变:海关A586线-新城香悦公馆7#公变后段","powerOffReason":"(低压停电信息)母排烧 原停电结束时间为2020-01-05 23:55:00,因现场需要重新搭建临时电缆原因,现变更停电结束时间为2020-01-06 05:00:00 加快工作进度,提前送电,现变更停电结束时间为2020-01-06 01:30:00","powerOffId":"2020010531020122"},{"poweroffId":2020010531020120,"sgpoweroffId":null,"subsName":"","lineName":"10kV双义253线","pubTranName":"乳泉村2号公变,","scope":"浙江省-杭州市-桐庐县-江南镇-珠山行政村-乳泉自然村","startTime":"2020-01-13 09:30:00","stopDate":"2020-01-13 15:30:00","orgNo":"3340150","typeCode":"计划停电","poweroffArea":"110kV石阜变:双义253线-乳泉F5158令克后段","poweroffReason":"杭州桐庐江南乳泉村等台区配变及低压线路改造工程 原停电结束时间为2020-01-13 13:30:00,因材料未到位原因,现变更停电结束时间为2020-01-13 15:30:00","powerTime":"2020-01-13 15:19:15","powerComm":"已送电","subsNo":"","lineNo":"","tgNo":"","tgName":null,"infoStatus":"1","orgName":"国网浙江桐庐县供电公司","typeName":null,"infoStatusName":null,"dateDay":null,"orgNos":null,"nowTime":null,"countyName":null,"streetName":null,"villageName":null,"roadName":null,"communityName":null,"tranName":null,"sdLineName":null,"cityCode":"3340150","cityName":"国网浙江桐庐县供电公司","provinceCode":null,"stopTime":"2020-01-13 15:30:00","powerType":"全部","powerOffArea":"110kV石阜变:双义253线-乳泉F5158令克后段","powerOffReason":"杭州桐庐江南乳泉村等台区配变及低压线路改造工程 原停电结束时间为2020-01-13 13:30:00,因材料未到位原因,现变更停电结束时间为2020-01-13 15:30:00","powerOffId":"2020010531020120"},{"poweroffId":2020010531020119,"sgpoweroffId":null,"subsName":"","lineName":"10kV姚家T243线","pubTranName":"李家坞村1号公变,","scope":"浙江省-杭州市-桐庐县-江南镇-锦江行政村(五联姚家坞自然村,五联李家坞自然村,会山自然村)","startTime":"2020-01-13 08:30:00","stopDate":"2020-01-13 17:00:00","orgNo":"3340150","typeCode":"计划停电","poweroffArea":"110kV石阜变:姚家T243线-伍联F5035智能开关1后段","poweroffReason":"杭州桐庐江南10kV姚家243线线路改造工程 原停电结束时间为2020-01-13 15:30:00,因材料未到位原因,现变更停电结束时间为2020-01-13 17:00:00","powerTime":"2020-01-13 16:47:37","powerComm":"已送电","subsNo":"","lineNo":"","tgNo":"","tgName":null,"infoStatus":"1","orgName":"国网浙江桐庐县供电公司","typeName":null,"infoStatusName":null,"dateDay":null,"orgNos":null,"nowTime":null,"countyName":null,"streetName":null,"villageName":null,"roadName":null,"communityName":null,"tranName":null,"sdLineName":null,"cityCode":"3340150","cityName":"国网浙江桐庐县供电公司","provinceCode":null,"stopTime":"2020-01-13 17:00:00","powerType":"全部","powerOffArea":"110kV石阜变:姚家T243线-伍联F5035智能开关1后段","powerOffReason":"杭州桐庐江南10kV姚家243线线路改造工程 原停电结束时间为2020-01-13 15:30:00,因材料未到位原因,现变更停电结束时间为2020-01-13 17:00:00","powerOffId":"2020010531020119"},{"poweroffId":2020010531020118,"sgpoweroffId":null,"subsName":"","lineName":"10kV姚家T243线","pubTranName":"胡家坞村1号公变,","scope":"浙江省-杭州市-桐庐县-江南镇-锦江行政村-五联胡家坞自然村","startTime":"2020-01-13 09:00:00","stopDate":"2020-01-13 17:00:00","orgNo":"3340150","typeCode":"计划停电","poweroffArea":"110kV石阜变:姚家T243线-伍联F5035智能开关1后段","poweroffReason":"杭州桐庐江南10kV姚家243线线路改造工程 原停电结束时间为2020-01-13 15:00:00,因材料未到位原因,现变更停电结束时间为2020-01-13 17:00:00","powerTime":"2020-01-13 16:47:51","powerComm":"已送电","subsNo":"","lineNo":"","tgNo":"","tgName":null,"infoStatus":"1","orgName":"国网浙江桐庐县供电公司","typeName":null,"infoStatusName":null,"dateDay":null,"orgNos":null,"nowTime":null,"countyName":null,"streetName":null,"villageName":null,"roadName":null,"communityName":null,"tranName":null,"sdLineName":null,"cityCode":"3340150","cityName":"国网浙江桐庐县供电公司","provinceCode":null,"stopTime":"2020-01-13 17:00:00","powerType":"全部","powerOffArea":"110kV石阜变:姚家T243线-伍联F5035智能开关1后段","powerOffReason":"杭州桐庐江南10kV姚家243线线路改造工程 原停电结束时间为2020-01-13 15:00:00,因材料未到位原因,现变更停电结束时间为2020-01-13 17:00:00","powerOffId":"2020010531020118"}],"pageModel":{"pageNow":604,"totalCount":17789,"totalPage":1779,"tableRows":0,"pageCount":10,"beginCount":6030},"isExperi":"1"}