{"message":"","today":"2020-06-15","seleList":[{"poweroffId":2020060131020234,"sgpoweroffId":null,"subsName":"","lineName":"10kV湖塍D813线","pubTranName":"郑家墩北1#公变,湖塍村3#郑家墩公变,富阳市路灯安装维修管理所,湖塍村5#郑家墩2公变,湖塍村8#郑家墩新区公变,郑家墩北2#公变,湖塍村9号郑家墩北公变,富阳新世纪建材有限公司,","scope":"浙江省-杭州市-富阳区-富春街道-湖塍行政村(郑家墩自然村,湖塍上自然村);富春街道(湖塍行政村-杭州富阳新世纪建材有限公司,金桥社区-杭州富阳城市照明工程有限公司)","startTime":"2020-06-13 06:30:00","stopDate":"2020-06-13 06:50:00","orgNo":"3340170","typeCode":"计划停电","poweroffArea":"110kV容大变:湖塍D813线-新世纪分线开关后段","poweroffReason":"短时停电配合湖塍D813线4#杆新世纪分线4#杆开关后段负荷倒至10kV发电车，原停电结束时间为2020-06-13 08:25:00,为减少客户停电时间,加快工作进度,提前送电,现变更停电结束时间为2020-06-13 06:50:00","powerTime":"2020-06-13 06:42:18","powerComm":"已送电","subsNo":"","lineNo":"","tgNo":"","tgName":null,"infoStatus":"1","orgName":"国网浙江杭州市富阳区供电公司","typeName":null,"infoStatusName":null,"dateDay":null,"orgNos":null,"nowTime":null,"countyName":null,"streetName":null,"villageName":null,"roadName":null,"communityName":null,"tranName":null,"sdLineName":null,"cityCode":"3340170","cityName":"国网浙江杭州市富阳区供电公司","provinceCode":null,"stopTime":"2020-06-13 06:50:00","powerType":"全部","powerOffArea":"110kV容大变:湖塍D813线-新世纪分线开关后段","powerOffReason":"短时停电配合湖塍D813线4#杆新世纪分线4#杆开关后段负荷倒至10kV发电车，原停电结束时间为2020-06-13 08:25:00,为减少客户停电时间,加快工作进度,提前送电,现变更停电结束时间为2020-06-13 06:50:00","powerOffId":"2020060131020234"},{"poweroffId":2020060131020232,"sgpoweroffId":null,"subsName":"","lineName":"10kV新春D938线","pubTranName":"新春村10#沈石岭2公变,","scope":"浙江省-杭州市-富阳区-富春街道-杨清庙行政村(沈石岭自然村,后山岭自然村)","startTime":"2020-06-12 17:10:00","stopDate":"2020-06-12 17:35:00","orgNo":"3340170","typeCode":"计划停电","poweroffArea":"110kV育才变:新春D938线-新春村10#沈石岭2公变后段","poweroffReason":"中铁三局集团电务工程有限公司湖杭铁路三电迁改工程：新春村10#沈石岭2公变负荷恢复短时停电。 原停电开始时间为2020-06-12 17:35:00,因政策原因现,变更停电开始时间为2020-06-12 17:10:00","powerTime":"2020-06-12 17:34:45","powerComm":"已送电","subsNo":"","lineNo":"","tgNo":"","tgName":null,"infoStatus":"1","orgName":"国网浙江杭州市富阳区供电公司","typeName":null,"infoStatusName":null,"dateDay":null,"orgNos":null,"nowTime":null,"countyName":null,"streetName":null,"villageName":null,"roadName":null,"communityName":null,"tranName":null,"sdLineName":null,"cityCode":"3340170","cityName":"国网浙江杭州市富阳区供电公司","provinceCode":null,"stopTime":"2020-06-12 17:35:00","powerType":"全部","powerOffArea":"110kV育才变:新春D938线-新春村10#沈石岭2公变后段","powerOffReason":"中铁三局集团电务工程有限公司湖杭铁路三电迁改工程：新春村10#沈石岭2公变负荷恢复短时停电。 原停电开始时间为2020-06-12 17:35:00,因政策原因现,变更停电开始时间为2020-06-12 17:10:00","powerOffId":"2020060131020232"},{"poweroffId":2020060131020231,"sgpoweroffId":null,"subsName":"","lineName":"10kV新春D938线","pubTranName":"新春村15号沈石岭公变,","scope":"浙江省-杭州市-富阳区-富春街道-杨清庙行政村(后山岭自然村,沈石岭自然村,新春自然村)","startTime":"2020-06-12 17:10:00","stopDate":"2020-06-12 17:50:00","orgNo":"3340170","typeCode":"计划停电","poweroffArea":"110kV育才变:新春D938线-新春村15号沈石岭公变后段","poweroffReason":"中铁三局集团电务工程有限公司湖杭铁路三电迁改工程：新春村15#沈石岭公变负荷恢复短时停电。 原停电结束时间为2020-06-12 17:35:00,因现场故障情况复杂,现变更停电结束时间为2020-06-12 17:50:00","powerTime":"2020-06-12 17:48:31","powerComm":"已送电","subsNo":"","lineNo":"","tgNo":"","tgName":null,"infoStatus":"1","orgName":"国网浙江杭州市富阳区供电公司","typeName":null,"infoStatusName":null,"dateDay":null,"orgNos":null,"nowTime":null,"countyName":null,"streetName":null,"villageName":null,"roadName":null,"communityName":null,"tranName":null,"sdLineName":null,"cityCode":"3340170","cityName":"国网浙江杭州市富阳区供电公司","provinceCode":null,"stopTime":"2020-06-12 17:50:00","powerType":"全部","powerOffArea":"110kV育才变:新春D938线-新春村15号沈石岭公变后段","powerOffReason":"中铁三局集团电务工程有限公司湖杭铁路三电迁改工程：新春村15#沈石岭公变负荷恢复短时停电。 原停电结束时间为2020-06-12 17:35:00,因现场故障情况复杂,现变更停电结束时间为2020-06-12 17:50:00","powerOffId":"2020060131020231"},{"poweroffId":2020060131020230,"sgpoweroffId":null,"subsName":"","lineName":"10kV新春D938线","pubTranName":"新春村4#沈石岭公变,中铁十二局集团有限公司15#变,","scope":"浙江省-杭州市-富阳区-富春街道-杨清庙行政村-中铁十二局集团有限公司","startTime":"2020-06-12 08:00:00","stopDate":"2020-06-12 17:50:00","orgNo":"3340170","typeCode":"计划停电","poweroffArea":"110kV育才变:新春D938线-中铁十二局集团有限公司后段;新春D938线-新春村4#沈石岭公变后段","poweroffReason":"新春D938线新春三分线11+1#杆保险丝开关更换为真空开关1台，0.4kv线路割接2档，新上电缆1根，线路拆、搭头等工作。原停电结束时间为2020-06-12 17:30:00,因现场故障情况复杂,现变更停电结束时间为2020-06-12 17:50:00","powerTime":"2020-06-12 17:30:49","powerComm":"已送电","subsNo":"","lineNo":"","tgNo":"","tgName":null,"infoStatus":"1","orgName":"国网浙江杭州市富阳区供电公司","typeName":null,"infoStatusName":null,"dateDay":null,"orgNos":null,"nowTime":null,"countyName":null,"streetName":null,"villageName":null,"roadName":null,"communityName":null,"tranName":null,"sdLineName":null,"cityCode":"3340170","cityName":"国网浙江杭州市富阳区供电公司","provinceCode":null,"stopTime":"2020-06-12 17:50:00","powerType":"全部","powerOffArea":"110kV育才变:新春D938线-中铁十二局集团有限公司后段;新春D938线-新春村4#沈石岭公变后段","powerOffReason":"新春D938线新春三分线11+1#杆保险丝开关更换为真空开关1台，0.4kv线路割接2档，新上电缆1根，线路拆、搭头等工作。原停电结束时间为2020-06-12 17:30:00,因现场故障情况复杂,现变更停电结束时间为2020-06-12 17:50:00","powerOffId":"2020060131020230"},{"poweroffId":2020060131020229,"sgpoweroffId":null,"subsName":"","lineName":"10kV秋山D925线","pubTranName":"渔山2#三元江边公变,","scope":"浙江省-杭州市-富阳区-渔山乡-渔山行政村(三元自然村,黎明自然村)一带","startTime":"2020-06-12 08:45:00","stopDate":"2020-06-12 11:45:00","orgNo":"3340170","typeCode":"计划停电","poweroffArea":"110kV里渔变:秋山D925线-渔山2#三元江边公变开关后段","poweroffReason":"10KV秋山D925线22#杆三元江边分线1#杆渔山2#三元江边公变、更换配电屏一组、拆装0.4kv进、出线电缆等工作","powerTime":"2020-06-12 11:36:17","powerComm":"已送电","subsNo":"","lineNo":"","tgNo":"","tgName":null,"infoStatus":"1","orgName":"国网浙江杭州市富阳区供电公司","typeName":null,"infoStatusName":null,"dateDay":null,"orgNos":null,"nowTime":null,"countyName":null,"streetName":null,"villageName":null,"roadName":null,"communityName":null,"tranName":null,"sdLineName":null,"cityCode":"3340170","cityName":"国网浙江杭州市富阳区供电公司","provinceCode":null,"stopTime":"2020-06-12 11:45:00","powerType":"全部","powerOffArea":"110kV里渔变:秋山D925线-渔山2#三元江边公变开关后段","powerOffReason":"10KV秋山D925线22#杆三元江边分线1#杆渔山2#三元江边公变、更换配电屏一组、拆装0.4kv进、出线电缆等工作","powerOffId":"2020060131020229"},{"poweroffId":2020060131020228,"sgpoweroffId":null,"subsName":"","lineName":"10kV新春D938线","pubTranName":"新春村15号沈石岭公变,","scope":"浙江省-杭州市-富阳区-富春街道-杨清庙行政村(后山岭自然村,沈石岭自然村,新春自然村)","startTime":"2020-06-12 07:15:00","stopDate":"2020-06-12 08:25:00","orgNo":"3340170","typeCode":"计划停电","poweroffArea":"110kV育才变:新春D938线-新春村15号沈石岭公变后段","poweroffReason":"中铁三局集团电务工程有限公司湖杭铁路三电迁改工程：新春村15#沈石岭公变负荷改接至0.4kV发电机短时停电。 原停电结束时间为2020-06-12 07:55:00,因现场故障情况复杂,现变更停电结束时间为2020-06-12 08:25:00","powerTime":"2020-06-12 08:15:10","powerComm":"已送电","subsNo":"","lineNo":"","tgNo":"","tgName":null,"infoStatus":"1","orgName":"国网浙江杭州市富阳区供电公司","typeName":null,"infoStatusName":null,"dateDay":null,"orgNos":null,"nowTime":null,"countyName":null,"streetName":null,"villageName":null,"roadName":null,"communityName":null,"tranName":null,"sdLineName":null,"cityCode":"3340170","cityName":"国网浙江杭州市富阳区供电公司","provinceCode":null,"stopTime":"2020-06-12 08:25:00","powerType":"全部","powerOffArea":"110kV育才变:新春D938线-新春村15号沈石岭公变后段","powerOffReason":"中铁三局集团电务工程有限公司湖杭铁路三电迁改工程：新春村15#沈石岭公变负荷改接至0.4kV发电机短时停电。 原停电结束时间为2020-06-12 07:55:00,因现场故障情况复杂,现变更停电结束时间为2020-06-12 08:25:00","powerOffId":"2020060131020228"},{"poweroffId":2020060131020227,"sgpoweroffId":null,"subsName":"","lineName":"10kV新春D938线","pubTranName":"新春村10#沈石岭2公变,","scope":"浙江省-杭州市-富阳区-富春街道-杨清庙行政村(沈石岭自然村,后山岭自然村)","startTime":"2020-06-12 07:15:00","stopDate":"2020-06-12 07:55:00","orgNo":"3340170","typeCode":"计划停电","poweroffArea":"110kV育才变:新春D938线-新春村10#沈石岭2公变后段","poweroffReason":"中铁三局集团电务工程有限公司湖杭铁路三电迁改工程：新春村10#沈石岭2公变负荷改接至0.4kV发电机短时停电。","powerTime":"2020-06-12 07:47:43","powerComm":"已送电","subsNo":"","lineNo":"","tgNo":"","tgName":null,"infoStatus":"1","orgName":"国网浙江杭州市富阳区供电公司","typeName":null,"infoStatusName":null,"dateDay":null,"orgNos":null,"nowTime":null,"countyName":null,"streetName":null,"villageName":null,"roadName":null,"communityName":null,"tranName":null,"sdLineName":null,"cityCode":"3340170","cityName":"国网浙江杭州市富阳区供电公司","provinceCode":null,"stopTime":"2020-06-12 07:55:00","powerType":"全部","powerOffArea":"110kV育才变:新春D938线-新春村10#沈石岭2公变后段","powerOffReason":"中铁三局集团电务工程有限公司湖杭铁路三电迁改工程：新春村10#沈石岭2公变负荷改接至0.4kV发电机短时停电。","powerOffId":"2020060131020227"},{"poweroffId":2020060131020226,"sgpoweroffId":null,"subsName":"","lineName":"10kV下干D385线","pubTranName":"杭州富阳通达公路工程有限公司1#基建变,","scope":"浙江省-杭州市-富阳区-湖源乡-常南行政村-杭州富阳通达公路工程有限公司一带","startTime":"2020-06-09 08:40:00","stopDate":"2020-06-09 17:30:00","orgNo":"3340170","typeCode":"计划停电","poweroffArea":"35kV湖源变:下干D385线-通达公路分线后段","poweroffReason":"配合用户内部检修","powerTime":"2020-06-09 17:12:55","powerComm":"已送电","subsNo":"","lineNo":"","tgNo":"","tgName":null,"infoStatus":"1","orgName":"国网浙江杭州市富阳区供电公司","typeName":null,"infoStatusName":null,"dateDay":null,"orgNos":null,"nowTime":null,"countyName":null,"streetName":null,"villageName":null,"roadName":null,"communityName":null,"tranName":null,"sdLineName":null,"cityCode":"3340170","cityName":"国网浙江杭州市富阳区供电公司","provinceCode":null,"stopTime":"2020-06-09 17:30:00","powerType":"全部","powerOffArea":"35kV湖源变:下干D385线-通达公路分线后段","powerOffReason":"配合用户内部检修","powerOffId":"2020060131020226"},{"poweroffId":2020060131020225,"sgpoweroffId":null,"subsName":"","lineName":"10kV下干D385线","pubTranName":"新绿村3号大角公变,","scope":"浙江省-杭州市-富阳区-湖源乡-新绿行政村-大角自然村一带","startTime":"2020-06-09 16:15:00","stopDate":"2020-06-09 16:55:00","orgNo":"3340170","typeCode":"计划停电","poweroffArea":"35kV湖源变:下干D385线-新绿村3#大角公变后段","poweroffReason":"下干D385线69#杆大角公变分线2#杆新绿村3#大角公变拆除0.4kv电缆并搭接于T接箱出线侧等工作。","powerTime":"2020-06-09 16:50:15","powerComm":"已送电","subsNo":"","lineNo":"","tgNo":"","tgName":null,"infoStatus":"1","orgName":"国网浙江杭州市富阳区供电公司","typeName":null,"infoStatusName":null,"dateDay":null,"orgNos":null,"nowTime":null,"countyName":null,"streetName":null,"villageName":null,"roadName":null,"communityName":null,"tranName":null,"sdLineName":null,"cityCode":"3340170","cityName":"国网浙江杭州市富阳区供电公司","provinceCode":null,"stopTime":"2020-06-09 16:55:00","powerType":"全部","powerOffArea":"35kV湖源变:下干D385线-新绿村3#大角公变后段","powerOffReason":"下干D385线69#杆大角公变分线2#杆新绿村3#大角公变拆除0.4kv电缆并搭接于T接箱出线侧等工作。","powerOffId":"2020060131020225"},{"poweroffId":2020060131020224,"sgpoweroffId":null,"subsName":"","lineName":"10kV下干D385线","pubTranName":"新绿村1#刘村公变,","scope":"浙江省-杭州市-富阳区-湖源乡-新绿行政村-刘村自然村","startTime":"2020-06-09 15:45:00","stopDate":"2020-06-09 16:55:00","orgNo":"3340170","typeCode":"计划停电","poweroffArea":"35kV湖源变:下干D385线-新绿村1#刘村公变后段","poweroffReason":"下干D385线82#杆新绿村1#刘村公变拆除0.4kv电缆并搭接于T接箱出线侧等工作。原停电开始时间2020-06-09 16:15:00，因政策原因变更至2020-06-09 15:45:00","powerTime":"2020-06-09 16:49:43","powerComm":"已送电","subsNo":"","lineNo":"","tgNo":"","tgName":null,"infoStatus":"1","orgName":"国网浙江杭州市富阳区供电公司","typeName":null,"infoStatusName":null,"dateDay":null,"orgNos":null,"nowTime":null,"countyName":null,"streetName":null,"villageName":null,"roadName":null,"communityName":null,"tranName":null,"sdLineName":null,"cityCode":"3340170","cityName":"国网浙江杭州市富阳区供电公司","provinceCode":null,"stopTime":"2020-06-09 16:55:00","powerType":"全部","powerOffArea":"35kV湖源变:下干D385线-新绿村1#刘村公变后段","powerOffReason":"下干D385线82#杆新绿村1#刘村公变拆除0.4kv电缆并搭接于T接箱出线侧等工作。原停电开始时间2020-06-09 16:15:00，因政策原因变更至2020-06-09 15:45:00","powerOffId":"2020060131020224"}],"pageModel":{"pageNow":60,"totalCount":17786,"totalPage":1779,"tableRows":0,"pageCount":10,"beginCount":590},"isExperi":"1"}