{"message":"","today":"2020-06-15","seleList":[{"poweroffId":2020010531020003,"sgpoweroffId":null,"subsName":"","lineName":"10kV惠盈A123线","pubTranName":"金二基建1#变,浙江国泰建设集团有限公司,浙江国泰建设集团有限公司,3#,杭州萧山北干明星股份经济联合社变压器,浙江国泰建设集团有限公司,恒旺控股,2#,浙江国泰建设集团有限公司,浙江国泰建设集团有限公司,金二村9#变,1#,金二村12#变,杭州萧山经济技术开发区国有资产经营有限公司变压器,变压器,浙江国泰建设集团有限公司,春嘉农副产品公司,杭州萧山宁围镇金二社区经济联合社1#,杭州萧山经济技术开发区国有资产经营有限公司变压器,杭州萧山经济技术开发区国有资产经营有限公司变压器,金二村7#变,浙江国泰建设集团有限公司,杭州萧山经济技术开发区国有资产经营有限公司1#,","scope":"浙江省-杭州市-萧山区-宁围镇-宁围街道-金二社区-金二自然村;经济技术开发区-市北社区(杭州恒皇餐饮娱乐有限公司,浙江国泰建设集团有限公司,杭州萧山经济技术开发区国有资产经营有限公司),宁围街道-金二社区(杭州隆爵大酒店有限公司,杭州萧山宁围镇金二社区经济联合社),宁围街道-金一社区-浙江国泰建设集团有限公司,北干街道-明星行政村-杭州庆连石油制品有限公司,萧山经济技术开发区-市北社区-杭州萧山经济技术开发区国有资产经营有限公司、金鸡路与建设四路交叉口等一带","startTime":"2020-01-05 05:27:31","stopDate":"2020-01-05 08:22:31","orgNo":"3340130","typeCode":"电网故障停限电","poweroffArea":"110kV惠兴变:惠盈A123线","poweroffReason":"高压柱上断路器短路故障 原停电结束时间为2020-01-05 10:31:31,为减少客户停电时间,加快工作进度,提前送电,现变更停电结束时间为2020-01-05 08:22:31","powerTime":"2020-01-05 07:34:29","powerComm":"已送电","subsNo":"","lineNo":"","tgNo":"","tgName":null,"infoStatus":"1","orgName":"国网浙江杭州市萧山区供电有限公司","typeName":null,"infoStatusName":null,"dateDay":null,"orgNos":null,"nowTime":null,"countyName":null,"streetName":null,"villageName":null,"roadName":null,"communityName":null,"tranName":null,"sdLineName":null,"cityCode":"3340130","cityName":"国网浙江杭州市萧山区供电有限公司","provinceCode":null,"stopTime":"2020-01-05 08:22:31","powerType":"全部","powerOffArea":"110kV惠兴变:惠盈A123线","powerOffReason":"高压柱上断路器短路故障 原停电结束时间为2020-01-05 10:31:31,为减少客户停电时间,加快工作进度,提前送电,现变更停电结束时间为2020-01-05 08:22:31","powerOffId":"2020010531020003"},{"poweroffId":2020010431020119,"sgpoweroffId":null,"subsName":"","lineName":"10kV长北C656线","pubTranName":"群英村14#变,","scope":"浙江省-杭州市-萧山区-益农镇(群英行政村-群英自然村,东联行政村-东联自然村)一带","startTime":"2020-01-04 21:20:18","stopDate":"2020-01-04 23:10:18","orgNo":"3340130","typeCode":"电网故障停限电","poweroffArea":"35kV益农变:长北C656线-群英村14#变台区低压开关","poweroffReason":"(低压停电信息)低压熔断器短路故障 原停电结束时间为2020-01-04 23:20:18,为减少客户停电时间,加快工作进度,提前送电,现变更停电结束时间为2020-01-04 23:10:18","powerTime":"2020-01-04 22:24:24","powerComm":"已送电","subsNo":"","lineNo":"","tgNo":"","tgName":null,"infoStatus":"1","orgName":"国网浙江杭州市萧山区供电有限公司","typeName":null,"infoStatusName":null,"dateDay":null,"orgNos":null,"nowTime":null,"countyName":null,"streetName":null,"villageName":null,"roadName":null,"communityName":null,"tranName":null,"sdLineName":null,"cityCode":"3340130","cityName":"国网浙江杭州市萧山区供电有限公司","provinceCode":null,"stopTime":"2020-01-04 23:10:18","powerType":"全部","powerOffArea":"35kV益农变:长北C656线-群英村14#变台区低压开关","powerOffReason":"(低压停电信息)低压熔断器短路故障 原停电结束时间为2020-01-04 23:20:18,为减少客户停电时间,加快工作进度,提前送电,现变更停电结束时间为2020-01-04 23:10:18","powerOffId":"2020010431020119"},{"poweroffId":2020010431020110,"sgpoweroffId":null,"subsName":"","lineName":"10kV东开A330线","pubTranName":"东方村2#变,","scope":"浙江省-杭州市-萧山区-瓜沥镇-东方行政村-东方自然村、瓜沥镇东方村四组、瓜沥镇东方行政村4组23号一带","startTime":"2020-01-04 18:15:14","stopDate":"2020-01-04 20:10:14","orgNo":"3340130","typeCode":"电网故障停限电","poweroffArea":"110kV靖江变:东开A330线-东方村2#变台区低压开关","poweroffReason":"(低压停电信息)低压熔断器短路故障","powerTime":"2020-01-04 19:14:53","powerComm":"已送电","subsNo":"","lineNo":"","tgNo":"","tgName":null,"infoStatus":"1","orgName":"国网浙江杭州市萧山区供电有限公司","typeName":null,"infoStatusName":null,"dateDay":null,"orgNos":null,"nowTime":null,"countyName":null,"streetName":null,"villageName":null,"roadName":null,"communityName":null,"tranName":null,"sdLineName":null,"cityCode":"3340130","cityName":"国网浙江杭州市萧山区供电有限公司","provinceCode":null,"stopTime":"2020-01-04 20:10:14","powerType":"全部","powerOffArea":"110kV靖江变:东开A330线-东方村2#变台区低压开关","powerOffReason":"(低压停电信息)低压熔断器短路故障","powerOffId":"2020010431020110"},{"poweroffId":2020010431020106,"sgpoweroffId":null,"subsName":"","lineName":"10kV后诸V123线","pubTranName":"10kV民幸村[北门]公变,","scope":"浙江省-杭州市-临安市-於潜镇-北门一带","startTime":"2020-01-13 08:30:00","stopDate":"2020-01-13 17:30:00","orgNo":"3340160","typeCode":"计划停电","poweroffArea":"10KV民幸村（北门）公变","poweroffReason":"配合北门V507线农於5072线28#-42#杆调导线，28#杆钢管塔组立","powerTime":"2020-01-13 17:20:17","powerComm":"已送电","subsNo":"","lineNo":"","tgNo":"","tgName":null,"infoStatus":"1","orgName":"国网浙江临安市供电公司","typeName":null,"infoStatusName":null,"dateDay":null,"orgNos":null,"nowTime":null,"countyName":null,"streetName":null,"villageName":null,"roadName":null,"communityName":null,"tranName":null,"sdLineName":null,"cityCode":"3340160","cityName":"国网浙江临安市供电公司","provinceCode":null,"stopTime":"2020-01-13 17:30:00","powerType":"全部","powerOffArea":"10KV民幸村（北门）公变","powerOffReason":"配合北门V507线农於5072线28#-42#杆调导线，28#杆钢管塔组立","powerOffId":"2020010431020106"},{"poweroffId":2020010431020105,"sgpoweroffId":null,"subsName":"","lineName":"10kV潜阳V504线","pubTranName":"10kV金家村[人民医院西门]公变,10kV后渚村[青石桥]公变,","scope":"浙江省-杭州市-临安市-於潜镇-人民医院西门、青石桥一带","startTime":"2020-01-13 08:30:00","stopDate":"2020-01-13 17:30:00","orgNo":"3340160","typeCode":"计划停电","poweroffArea":"10KV金家村（人民医院西门）公变、10KV后诸村（青石桥）公变低压","poweroffReason":"配合北门V507线农於5072线28#-42#杆调导线，28#杆钢管塔组立","powerTime":"2020-01-13 17:20:32","powerComm":"已送电","subsNo":"","lineNo":"","tgNo":"","tgName":null,"infoStatus":"1","orgName":"国网浙江临安市供电公司","typeName":null,"infoStatusName":null,"dateDay":null,"orgNos":null,"nowTime":null,"countyName":null,"streetName":null,"villageName":null,"roadName":null,"communityName":null,"tranName":null,"sdLineName":null,"cityCode":"3340160","cityName":"国网浙江临安市供电公司","provinceCode":null,"stopTime":"2020-01-13 17:30:00","powerType":"全部","powerOffArea":"10KV金家村（人民医院西门）公变、10KV后诸村（青石桥）公变低压","powerOffReason":"配合北门V507线农於5072线28#-42#杆调导线，28#杆钢管塔组立","powerOffId":"2020010431020105"},{"poweroffId":2020010431020104,"sgpoweroffId":null,"subsName":"","lineName":"10kV北门V507线","pubTranName":"10kV民幸村[供电所老宿舍]公变,10kV民幸村[石塘坞]公变,","scope":"浙江省-杭州市-临安市-於潜镇-供电所老宿舍、石塘坞一带","startTime":"2020-01-13 08:20:00","stopDate":"2020-01-13 19:00:00","orgNo":"3340160","typeCode":"计划停电","poweroffArea":"北门V507线农於5072线27#杆开关后段","poweroffReason":"1、潜阳V504线51#杆5046开关拆除、50-51#杆导线拆除 2、北门V507线农於5072线28#-42#杆调导线。原停电结束时间为2020-01-13 17:30:00,因天气原因,现变更停电结束时间为2020-01-13 19:00:00","powerTime":"2020-01-13 18:50:49","powerComm":"已送电","subsNo":"","lineNo":"","tgNo":"","tgName":null,"infoStatus":"1","orgName":"国网浙江临安市供电公司","typeName":null,"infoStatusName":null,"dateDay":null,"orgNos":null,"nowTime":null,"countyName":null,"streetName":null,"villageName":null,"roadName":null,"communityName":null,"tranName":null,"sdLineName":null,"cityCode":"3340160","cityName":"国网浙江临安市供电公司","provinceCode":null,"stopTime":"2020-01-13 19:00:00","powerType":"全部","powerOffArea":"北门V507线农於5072线27#杆开关后段","powerOffReason":"1、潜阳V504线51#杆5046开关拆除、50-51#杆导线拆除 2、北门V507线农於5072线28#-42#杆调导线。原停电结束时间为2020-01-13 17:30:00,因天气原因,现变更停电结束时间为2020-01-13 19:00:00","powerOffId":"2020010431020104"},{"poweroffId":2020010431020102,"sgpoweroffId":null,"subsName":"","lineName":"10kV东山Y132线","pubTranName":"前陵村前陵畈台区,","scope":"浙江省-杭州市-建德市-乾潭镇-前陵行政村(坞口自然村,前陵自然村)一带用户。","startTime":"2020-01-04 16:30:00","stopDate":"2020-01-04 17:30:00","orgNo":"3340180","typeCode":"电网故障停限电","poweroffArea":"110kV乾潭变:东山Y132线-前陵村前陵畈台区后段","poweroffReason":"(低压停电信息)低压开关跳闸 原停电结束时间为2020-01-04 18:30:00,为减少客户停电时间,加快工作进度,提前送电,现变更停电结束时间为2020-01-04 17:30:00","powerTime":"2020-01-04 17:05:00","powerComm":"已送电","subsNo":"","lineNo":"","tgNo":"","tgName":null,"infoStatus":"1","orgName":"国网浙江建德市供电有限公司","typeName":null,"infoStatusName":null,"dateDay":null,"orgNos":null,"nowTime":null,"countyName":null,"streetName":null,"villageName":null,"roadName":null,"communityName":null,"tranName":null,"sdLineName":null,"cityCode":"3340180","cityName":"国网浙江建德市供电有限公司","provinceCode":null,"stopTime":"2020-01-04 17:30:00","powerType":"全部","powerOffArea":"110kV乾潭变:东山Y132线-前陵村前陵畈台区后段","powerOffReason":"(低压停电信息)低压开关跳闸 原停电结束时间为2020-01-04 18:30:00,为减少客户停电时间,加快工作进度,提前送电,现变更停电结束时间为2020-01-04 17:30:00","powerOffId":"2020010431020102"},{"poweroffId":2020010431020101,"sgpoweroffId":null,"subsName":"","lineName":"10kV洋小T324线","pubTranName":"上洋洲7号公变,","scope":"浙江省-杭州市-桐庐县-城南街道-上洋洲行政村-上洋洲自然村","startTime":"2020-01-04 16:37:51","stopDate":"2020-01-04 18:37:51","orgNo":"3340150","typeCode":"电网故障停限电","poweroffArea":"110kV洋洲变:洋小T324线-上洋洲7号公变后段","poweroffReason":"(低压停电信息)低压开关跳闸","powerTime":"2020-01-04 18:20:27","powerComm":"已送电","subsNo":"","lineNo":"","tgNo":"","tgName":null,"infoStatus":"1","orgName":"国网浙江桐庐县供电公司","typeName":null,"infoStatusName":null,"dateDay":null,"orgNos":null,"nowTime":null,"countyName":null,"streetName":null,"villageName":null,"roadName":null,"communityName":null,"tranName":null,"sdLineName":null,"cityCode":"3340150","cityName":"国网浙江桐庐县供电公司","provinceCode":null,"stopTime":"2020-01-04 18:37:51","powerType":"全部","powerOffArea":"110kV洋洲变:洋小T324线-上洋洲7号公变后段","powerOffReason":"(低压停电信息)低压开关跳闸","powerOffId":"2020010431020101"},{"poweroffId":2020010431020092,"sgpoweroffId":null,"subsName":"","lineName":"10kV四围A492线","pubTranName":"东沙村1#变,","scope":"浙江省-杭州市-萧山区-益农镇-东沙行政村-东沙自然村、益农镇东沙行政村12组一带","startTime":"2020-01-04 15:25:53","stopDate":"2020-01-04 16:55:53","orgNo":"3340130","typeCode":"电网故障停限电","poweroffArea":"110kV群围变:四围A492线-东沙村1#变台区低压开关","poweroffReason":"(低压停电信息)低压熔断器短路故障","powerTime":"2020-01-04 16:05:32","powerComm":"已送电","subsNo":"","lineNo":"","tgNo":"","tgName":null,"infoStatus":"1","orgName":"国网浙江杭州市萧山区供电有限公司","typeName":null,"infoStatusName":null,"dateDay":null,"orgNos":null,"nowTime":null,"countyName":null,"streetName":null,"villageName":null,"roadName":null,"communityName":null,"tranName":null,"sdLineName":null,"cityCode":"3340130","cityName":"国网浙江杭州市萧山区供电有限公司","provinceCode":null,"stopTime":"2020-01-04 16:55:53","powerType":"全部","powerOffArea":"110kV群围变:四围A492线-东沙村1#变台区低压开关","powerOffReason":"(低压停电信息)低压熔断器短路故障","powerOffId":"2020010431020092"},{"poweroffId":2020010431020090,"sgpoweroffId":null,"subsName":"","lineName":"10kV林峰A393线","pubTranName":"杭州萧山宁围旅游用品厂1#变,钱江新村2区1#变,名扬阁1#公变,001#变压器,名扬阁2#公变,杭州双佳汽车部件制造有限公司,钱江农场7#公变,钱江链条传动,钱江农场1#公变,杭州永磁集团有限公司1#变,杭州深远工贸有限公司（1321411548）,1#变,2#变,杭州钱鸿苏美达车业有限公司,苏美达车业,杭州萧山中发机械厂变压器,钱江农场6#公变,杭州永磁集团有限公司2#变,","scope":"浙江省-杭州市-萧山区-宁围镇-宁围街道-萧山区-经济技术开发区-钱江社区(钱农西路,钱农东路),宁围街道-盈二行政村-盈二自然村,经济技术开发区-市北社区-钱农四路;浙江省-杭州市-萧山区-宁围街道-盈一行政村-中铁二局集团有限公司,经济技术开发区-钱江社区(杭州钱江链传动有限公司,杭州钱鸿苏美达车业有限公司,杭州鸿利型钢有限公司,杭州深远工贸有限公司,杭州萧山宁围旅游用品厂,杭州永磁集团有限公司,杭州萧山河庄浩发门窗配件厂,杭州双佳汽车部件制造有限公司、浙江省杭州市萧山区经济技术开发区钱江社区钱农西路名扬阁小区1幢1单元楼梯灯等一带","startTime":"2020-01-04 15:31:22","stopDate":"2020-01-04 17:50:22","orgNo":"3340130","typeCode":"电网故障停限电","poweroffArea":"110kV顺坝变:林峰A393线-林峰A3933开关后段","poweroffReason":"高压柱上断路器短路故障 原停电结束时间为2020-01-04 20:35:22,为减少客户停电时间,加快工作进度,提前送电,现变更停电结束时间为2020-01-04 17:50:22","powerTime":"2020-01-04 17:00:46","powerComm":"已送电","subsNo":"","lineNo":"","tgNo":"","tgName":null,"infoStatus":"1","orgName":"国网浙江杭州市萧山区供电有限公司","typeName":null,"infoStatusName":null,"dateDay":null,"orgNos":null,"nowTime":null,"countyName":null,"streetName":null,"villageName":null,"roadName":null,"communityName":null,"tranName":null,"sdLineName":null,"cityCode":"3340130","cityName":"国网浙江杭州市萧山区供电有限公司","provinceCode":null,"stopTime":"2020-01-04 17:50:22","powerType":"全部","powerOffArea":"110kV顺坝变:林峰A393线-林峰A3933开关后段","powerOffReason":"高压柱上断路器短路故障 原停电结束时间为2020-01-04 20:35:22,为减少客户停电时间,加快工作进度,提前送电,现变更停电结束时间为2020-01-04 17:50:22","powerOffId":"2020010431020090"}],"pageModel":{"pageNow":606,"totalCount":17789,"totalPage":1779,"tableRows":0,"pageCount":10,"beginCount":6050},"isExperi":"1"}