{"message":"","today":"2020-06-15","seleList":[{"poweroffId":2020010331020326,"sgpoweroffId":null,"subsName":"","lineName":"10kV胥口D712线","pubTranName":"高联村6#高山公变,","scope":"浙江省杭州市富阳区胥口镇高联行政村高山自然村一带","startTime":"2020-01-15 13:40:00","stopDate":"2020-01-15 14:15:00","orgNo":"3340170","typeCode":"计划停电","poweroffArea":"110kV松溪变:胥口D712线-高联村6#高山公变后段","poweroffReason":"配合0.4kV发电机拆除","powerTime":"2020-01-15 14:05:20","powerComm":"已送电","subsNo":"","lineNo":"","tgNo":"","tgName":null,"infoStatus":"1","orgName":"国网浙江杭州市富阳区供电公司","typeName":null,"infoStatusName":null,"dateDay":null,"orgNos":null,"nowTime":null,"countyName":null,"streetName":null,"villageName":null,"roadName":null,"communityName":null,"tranName":null,"sdLineName":null,"cityCode":"3340170","cityName":"国网浙江杭州市富阳区供电公司","provinceCode":null,"stopTime":"2020-01-15 14:15:00","powerType":"全部","powerOffArea":"110kV松溪变:胥口D712线-高联村6#高山公变后段","powerOffReason":"配合0.4kV发电机拆除","powerOffId":"2020010331020326"},{"poweroffId":2020010331020325,"sgpoweroffId":null,"subsName":"","lineName":"10kV胥口D712线","pubTranName":"高联村7#小垄坎公变,","scope":"浙江省杭州市富阳区胥口镇高联行政村小垄坎自然村一带","startTime":"2020-01-15 13:40:00","stopDate":"2020-01-15 14:15:00","orgNo":"3340170","typeCode":"计划停电","poweroffArea":"110kV松溪变:胥口D712线-高联村7#小垄坎公变后段","poweroffReason":"配合0.4kV发电机拆除","powerTime":"2020-01-15 14:05:09","powerComm":"已送电","subsNo":"","lineNo":"","tgNo":"","tgName":null,"infoStatus":"1","orgName":"国网浙江杭州市富阳区供电公司","typeName":null,"infoStatusName":null,"dateDay":null,"orgNos":null,"nowTime":null,"countyName":null,"streetName":null,"villageName":null,"roadName":null,"communityName":null,"tranName":null,"sdLineName":null,"cityCode":"3340170","cityName":"国网浙江杭州市富阳区供电公司","provinceCode":null,"stopTime":"2020-01-15 14:15:00","powerType":"全部","powerOffArea":"110kV松溪变:胥口D712线-高联村7#小垄坎公变后段","powerOffReason":"配合0.4kV发电机拆除","powerOffId":"2020010331020325"},{"poweroffId":2020010331020324,"sgpoweroffId":null,"subsName":"","lineName":"10kV胥口D712线","pubTranName":"高联村6#高山公变,","scope":"浙江省杭州市富阳区胥口镇高联行政村高山自然村一带","startTime":"2020-01-15 08:35:00","stopDate":"2020-01-15 09:20:00","orgNo":"3340170","typeCode":"计划停电","poweroffArea":"110kV松溪变:胥口D712线189号杆胥上联线73号杆灵山支线7号杆高联支线40号杆石山支线31号杆高山支线58号杆高联村6#高山公变","poweroffReason":"配合0.4kV发电机接入","powerTime":"2020-01-15 09:05:21","powerComm":"已送电","subsNo":"","lineNo":"","tgNo":"","tgName":null,"infoStatus":"1","orgName":"国网浙江杭州市富阳区供电公司","typeName":null,"infoStatusName":null,"dateDay":null,"orgNos":null,"nowTime":null,"countyName":null,"streetName":null,"villageName":null,"roadName":null,"communityName":null,"tranName":null,"sdLineName":null,"cityCode":"3340170","cityName":"国网浙江杭州市富阳区供电公司","provinceCode":null,"stopTime":"2020-01-15 09:20:00","powerType":"全部","powerOffArea":"110kV松溪变:胥口D712线189号杆胥上联线73号杆灵山支线7号杆高联支线40号杆石山支线31号杆高山支线58号杆高联村6#高山公变","powerOffReason":"配合0.4kV发电机接入","powerOffId":"2020010331020324"},{"poweroffId":2020010331020323,"sgpoweroffId":null,"subsName":"","lineName":"10kV胥口D712线","pubTranName":"高联村5#黄泥岭公变,","scope":"浙江省杭州市富阳区胥口镇高联行政村黄泥岭自然村一带","startTime":"2020-01-15 08:35:00","stopDate":"2020-01-15 09:20:00","orgNo":"3340170","typeCode":"计划停电","poweroffArea":"110kV松溪变:胥口D712线189号杆胥上联线73号杆灵山支线7号杆高联支线40号杆石山支线31号杆高山支线33号杆黄泥岭支线2号杆高联村5#黄泥岭公变","poweroffReason":"配合0.4kV发电机接入","powerTime":"2020-01-15 09:04:57","powerComm":"已送电","subsNo":"","lineNo":"","tgNo":"","tgName":null,"infoStatus":"1","orgName":"国网浙江杭州市富阳区供电公司","typeName":null,"infoStatusName":null,"dateDay":null,"orgNos":null,"nowTime":null,"countyName":null,"streetName":null,"villageName":null,"roadName":null,"communityName":null,"tranName":null,"sdLineName":null,"cityCode":"3340170","cityName":"国网浙江杭州市富阳区供电公司","provinceCode":null,"stopTime":"2020-01-15 09:20:00","powerType":"全部","powerOffArea":"110kV松溪变:胥口D712线189号杆胥上联线73号杆灵山支线7号杆高联支线40号杆石山支线31号杆高山支线33号杆黄泥岭支线2号杆高联村5#黄泥岭公变","powerOffReason":"配合0.4kV发电机接入","powerOffId":"2020010331020323"},{"poweroffId":2020010331020322,"sgpoweroffId":null,"subsName":"","lineName":"10kV胥口D712线","pubTranName":"高联村7#小垄坎公变,","scope":"浙江省杭州市富阳区胥口镇高联行政村小垄坎自然村一带","startTime":"2020-01-15 08:35:00","stopDate":"2020-01-15 09:20:00","orgNo":"3340170","typeCode":"计划停电","poweroffArea":"110kV松溪变:胥口D712线189号杆胥上联线73号杆灵山支线7号杆高联支线40号杆石山支线38号杆小垄坎支线4号杆高联村7#小垄坎公变","poweroffReason":"配合0.4kV发电机接入","powerTime":"2020-01-15 09:14:28","powerComm":"已送电","subsNo":"","lineNo":"","tgNo":"","tgName":null,"infoStatus":"1","orgName":"国网浙江杭州市富阳区供电公司","typeName":null,"infoStatusName":null,"dateDay":null,"orgNos":null,"nowTime":null,"countyName":null,"streetName":null,"villageName":null,"roadName":null,"communityName":null,"tranName":null,"sdLineName":null,"cityCode":"3340170","cityName":"国网浙江杭州市富阳区供电公司","provinceCode":null,"stopTime":"2020-01-15 09:20:00","powerType":"全部","powerOffArea":"110kV松溪变:胥口D712线189号杆胥上联线73号杆灵山支线7号杆高联支线40号杆石山支线38号杆小垄坎支线4号杆高联村7#小垄坎公变","powerOffReason":"配合0.4kV发电机接入","powerOffId":"2020010331020322"},{"poweroffId":2020010331020320,"sgpoweroffId":null,"subsName":"","lineName":"10kV胥口D712线","pubTranName":"高联村9#徐家公变,","scope":"浙江省杭州市富阳区胥口镇高联行政村徐家自然村一带","startTime":"2020-01-15 08:00:00","stopDate":"2020-01-15 08:35:00","orgNo":"3340170","typeCode":"计划停电","poweroffArea":"110kV松溪变:胥口D712线189号杆胥上联线73号杆灵山支线7号杆高联支线40号杆石山支线24号杆徐家支线10号杆高联村9#徐家公变","poweroffReason":"配合0.4kV发电机接入","powerTime":"2020-01-15 08:27:21","powerComm":"已送电","subsNo":"","lineNo":"","tgNo":"","tgName":null,"infoStatus":"1","orgName":"国网浙江杭州市富阳区供电公司","typeName":null,"infoStatusName":null,"dateDay":null,"orgNos":null,"nowTime":null,"countyName":null,"streetName":null,"villageName":null,"roadName":null,"communityName":null,"tranName":null,"sdLineName":null,"cityCode":"3340170","cityName":"国网浙江杭州市富阳区供电公司","provinceCode":null,"stopTime":"2020-01-15 08:35:00","powerType":"全部","powerOffArea":"110kV松溪变:胥口D712线189号杆胥上联线73号杆灵山支线7号杆高联支线40号杆石山支线24号杆徐家支线10号杆高联村9#徐家公变","powerOffReason":"配合0.4kV发电机接入","powerOffId":"2020010331020320"},{"poweroffId":2020010331020319,"sgpoweroffId":null,"subsName":"","lineName":"10kV胥口D712线","pubTranName":"高联村4#石畈公变,","scope":"浙江省杭州市富阳区胥口镇高联行政村石畈自然村一带","startTime":"2020-01-15 08:00:00","stopDate":"2020-01-15 08:35:00","orgNo":"3340170","typeCode":"计划停电","poweroffArea":"110kV松溪变:胥口D712线189号杆胥上联线73号杆灵山支线7号杆高联支线40号杆石山支线25号杆高联村4#石畈公变","poweroffReason":"配合0.4kV发电机接入","powerTime":"2020-01-15 08:27:38","powerComm":"已送电","subsNo":"","lineNo":"","tgNo":"","tgName":null,"infoStatus":"1","orgName":"国网浙江杭州市富阳区供电公司","typeName":null,"infoStatusName":null,"dateDay":null,"orgNos":null,"nowTime":null,"countyName":null,"streetName":null,"villageName":null,"roadName":null,"communityName":null,"tranName":null,"sdLineName":null,"cityCode":"3340170","cityName":"国网浙江杭州市富阳区供电公司","provinceCode":null,"stopTime":"2020-01-15 08:35:00","powerType":"全部","powerOffArea":"110kV松溪变:胥口D712线189号杆胥上联线73号杆灵山支线7号杆高联支线40号杆石山支线25号杆高联村4#石畈公变","powerOffReason":"配合0.4kV发电机接入","powerOffId":"2020010331020319"},{"poweroffId":2020010331020318,"sgpoweroffId":null,"subsName":"","lineName":"10kV悦墅D987线","pubTranName":"金桥村23#第四联3公变,金桥村24#第四联4公变,","scope":"浙江省-杭州市-富阳区-富春街道-金秋社区(公望街,文居街,公园西路,金桥村)","startTime":"2020-01-14 16:40:00","stopDate":"2020-01-14 16:50:00","orgNo":"3340170","typeCode":"计划停电","poweroffArea":"110kV育才变:悦墅D987线首端，金桥村23#第四联3公变，金桥村24#第四联4公变之间","poweroffReason":"短时停电配合第四联三、四站负荷恢复","powerTime":"2020-01-14 16:49:14","powerComm":"已送电","subsNo":"","lineNo":"","tgNo":"","tgName":null,"infoStatus":"1","orgName":"国网浙江杭州市富阳区供电公司","typeName":null,"infoStatusName":null,"dateDay":null,"orgNos":null,"nowTime":null,"countyName":null,"streetName":null,"villageName":null,"roadName":null,"communityName":null,"tranName":null,"sdLineName":null,"cityCode":"3340170","cityName":"国网浙江杭州市富阳区供电公司","provinceCode":null,"stopTime":"2020-01-14 16:50:00","powerType":"全部","powerOffArea":"110kV育才变:悦墅D987线首端，金桥村23#第四联3公变，金桥村24#第四联4公变之间","powerOffReason":"短时停电配合第四联三、四站负荷恢复","powerOffId":"2020010331020318"},{"poweroffId":2020010331020316,"sgpoweroffId":null,"subsName":"","lineName":"10kV悦墅D987线","pubTranName":"金桥村23#第四联3公变,金桥村24#第四联4公变,","scope":"浙江省-杭州市-富阳区-富春街道-金秋社区(公望街,文居街,公园西路,金桥村)","startTime":"2020-01-14 12:45:00","stopDate":"2020-01-14 13:55:00","orgNo":"3340170","typeCode":"计划停电","poweroffArea":"110kV育才变:悦墅D987线首端，金桥村23#第四联3公变，金桥村24#第四联4公变之间","poweroffReason":"短时停电配合第四联三、四站负荷转供至10千伏发电车 原停电结束时间为2020-01-14 12:55:00,因政策原因,现变更停电结束时间为2020-01-14 13:55:00","powerTime":"2020-01-14 13:40:15","powerComm":"已送电","subsNo":"","lineNo":"","tgNo":"","tgName":null,"infoStatus":"1","orgName":"国网浙江杭州市富阳区供电公司","typeName":null,"infoStatusName":null,"dateDay":null,"orgNos":null,"nowTime":null,"countyName":null,"streetName":null,"villageName":null,"roadName":null,"communityName":null,"tranName":null,"sdLineName":null,"cityCode":"3340170","cityName":"国网浙江杭州市富阳区供电公司","provinceCode":null,"stopTime":"2020-01-14 13:55:00","powerType":"全部","powerOffArea":"110kV育才变:悦墅D987线首端，金桥村23#第四联3公变，金桥村24#第四联4公变之间","powerOffReason":"短时停电配合第四联三、四站负荷转供至10千伏发电车 原停电结束时间为2020-01-14 12:55:00,因政策原因,现变更停电结束时间为2020-01-14 13:55:00","powerOffId":"2020010331020316"},{"poweroffId":2020010331020314,"sgpoweroffId":null,"subsName":"","lineName":"10kV悦墅D987线","pubTranName":"金桥村26#第四联6公变,金桥村28#第四联7公变,金桥村19#第四联2公变,金桥村29号第四联8公变,","scope":"浙江省-杭州市-富阳区-富春街道-金桥社区-公望街,富春街道-金秋社区(公园西路,公望街,文居街,凤浦西路,第四年)","startTime":"2020-01-14 11:40:00","stopDate":"2020-01-14 13:50:00","orgNo":"3340170","typeCode":"计划停电","poweroffArea":"110kV育才变:悦墅D987线首端，金桥村19#第四联2公变，金桥村26#第四联6公变，金桥村28#第四联7公变，金桥村29号第四联8公变之间","poweroffReason":"短时停电配合第四联六、七、八站负荷恢复 原停电结束时间为2020-01-14 11:50:00,因政策原因,现变更停电结束时间为2020-01-14 13:50:00","powerTime":"2020-01-14 13:12:22","powerComm":"已送电","subsNo":"","lineNo":"","tgNo":"","tgName":null,"infoStatus":"1","orgName":"国网浙江杭州市富阳区供电公司","typeName":null,"infoStatusName":null,"dateDay":null,"orgNos":null,"nowTime":null,"countyName":null,"streetName":null,"villageName":null,"roadName":null,"communityName":null,"tranName":null,"sdLineName":null,"cityCode":"3340170","cityName":"国网浙江杭州市富阳区供电公司","provinceCode":null,"stopTime":"2020-01-14 13:50:00","powerType":"全部","powerOffArea":"110kV育才变:悦墅D987线首端，金桥村19#第四联2公变，金桥村26#第四联6公变，金桥村28#第四联7公变，金桥村29号第四联8公变之间","powerOffReason":"短时停电配合第四联六、七、八站负荷恢复 原停电结束时间为2020-01-14 11:50:00,因政策原因,现变更停电结束时间为2020-01-14 13:50:00","powerOffId":"2020010331020314"}],"pageModel":{"pageNow":611,"totalCount":17789,"totalPage":1779,"tableRows":0,"pageCount":10,"beginCount":6100},"isExperi":"1"}