{"message":"","today":"2020-06-15","seleList":[{"poweroffId":2020010331020313,"sgpoweroffId":null,"subsName":"","lineName":"10kV悦墅D987线","pubTranName":"金桥村26#第四联6公变,金桥村28#第四联7公变,金桥村29号第四联8公变,金桥村19#第四联2公变,","scope":"浙江省-杭州市-富阳区-富春街道-金桥社区-公望街,富春街道-金秋社区(公园西路,公望街,文居街,凤浦西路,第四年)","startTime":"2020-01-14 07:45:00","stopDate":"2020-01-14 08:55:00","orgNo":"3340170","typeCode":"计划停电","poweroffArea":"110kV育才变:悦墅D987线首端，金桥村19#第四联2公变，金桥村26#第四联6公变，金桥村28#第四联7公变，金桥村29号第四联8公变之间","poweroffReason":"短时停电配合第四联六、七、八站负荷转供至10千伏发电车 原停电结束时间为2020-01-14 07:55:00,因施工难度大原因,现变更停电结束时间为2020-01-14 08:55:00","powerTime":"2020-01-14 08:42:42","powerComm":"已送电","subsNo":"","lineNo":"","tgNo":"","tgName":null,"infoStatus":"1","orgName":"国网浙江杭州市富阳区供电公司","typeName":null,"infoStatusName":null,"dateDay":null,"orgNos":null,"nowTime":null,"countyName":null,"streetName":null,"villageName":null,"roadName":null,"communityName":null,"tranName":null,"sdLineName":null,"cityCode":"3340170","cityName":"国网浙江杭州市富阳区供电公司","provinceCode":null,"stopTime":"2020-01-14 08:55:00","powerType":"全部","powerOffArea":"110kV育才变:悦墅D987线首端，金桥村19#第四联2公变，金桥村26#第四联6公变，金桥村28#第四联7公变，金桥村29号第四联8公变之间","powerOffReason":"短时停电配合第四联六、七、八站负荷转供至10千伏发电车 原停电结束时间为2020-01-14 07:55:00,因施工难度大原因,现变更停电结束时间为2020-01-14 08:55:00","powerOffId":"2020010331020313"},{"poweroffId":2020010331020307,"sgpoweroffId":null,"subsName":"","lineName":"10kV春时8986线","pubTranName":"旅水八变,","scope":"浙江省-杭州市-滨江区-长河街道-闻涛社区-滨盛路，浙江省杭州市滨江区长河街道水印城9号楼商铺。","startTime":"2020-01-14 09:30:00","stopDate":"2020-01-14 11:30:00","orgNo":"3340101","typeCode":"计划停电","poweroffArea":"110kV江一变:春时8986线-旅水八变后段B8-9低压空开","poweroffReason":"(低压停电信息)非居新装 原停电结束时间为2020-01-15 11:30:00,为减少客户停电时间,加快工作进度,提前送电,现变更停电结束时间为2020-01-14 11:30:00","powerTime":"2020-01-14 11:05:11","powerComm":"已送电","subsNo":"","lineNo":"","tgNo":"","tgName":null,"infoStatus":"1","orgName":"浙江杭州电力客户服务中心","typeName":null,"infoStatusName":null,"dateDay":null,"orgNos":null,"nowTime":null,"countyName":null,"streetName":null,"villageName":null,"roadName":null,"communityName":null,"tranName":null,"sdLineName":null,"cityCode":"3340101","cityName":"浙江杭州电力客户服务中心","provinceCode":null,"stopTime":"2020-01-14 11:30:00","powerType":"全部","powerOffArea":"110kV江一变:春时8986线-旅水八变后段B8-9低压空开","powerOffReason":"(低压停电信息)非居新装 原停电结束时间为2020-01-15 11:30:00,为减少客户停电时间,加快工作进度,提前送电,现变更停电结束时间为2020-01-14 11:30:00","powerOffId":"2020010331020307"},{"poweroffId":2020010331020301,"sgpoweroffId":null,"subsName":"","lineName":"10kV常绿D268线","pubTranName":"大章村9号章村后圣坞公变,杭州富阳新丰橡塑有限公司1#变,黄弹村1号应家公变,杭州富阳益昌纺织品有限公司,富阳洁诚纺织有限公司,大章村12号黄泥山公变,黄弹村9号枫桐坞公变,双溪村1#双溪坞公变,北坞村7号化山石板岭公变,黄弹村5号石梯公变,富阳市常绿加油站有限公司,青龙村2号青龙头公变,杭州竣阳建设工程有限公司1#,北坞村6号化山大杨篙公变,富阳市电力建设集团有限公司,富阳市常绿镇垃圾中转站,北坞村9号勤坞马家塘公变,北坞村8号化山楼家坞公变,浙江大运建设集团有限公司1号基建变,黄弹村7号冷园坞口公变,黄弹村6号外庄公变,大章村2号常三槐花潭公变,富阳市常绿镇黄弹水电站,浙江容大电力工程有限公司,大章村7号章村街道公变,双溪村2#杨树坑公变,青龙村3号盛家桥公变,大章村5号村南铜坞公变,富阳市上官乡倪龙文体材料厂,青龙村1号石棚公变,杭州富阳兴泰铸造机械厂1#,杭州市富阳区公路管理段,富阳市常绿镇黄弹水电站2,黄弹村4号里黄弹公变,黄弹村8号石梯口公变,杭州市富阳区常绿镇人民政府1#,黄弹村2号中央村公变,北坞村4号前山头公变,杭州市富阳区公路管理段,大章村3号常三后山公变,北坞村5号化山马笼山公变,大章村6号村南前山头公变,黄弹村3号寺前公变,大章村4号村南前田畈公变,青龙村4#庙后公变,杭州富阳科新绢云母矿业有限公司,富阳市常绿镇中心小学,常绿镇中心幼儿园1#变,北坞村3号庙外公变,富阳宣倪园林绿化工程有限公司,北坞村1号后坞公变,大章村10号村南三界桥公变,大章村8号章村文昌阁公变,青龙村5#陈北坞公变,北坞村2号勤坞公变,大章村1号常三中心村公变,大章村11号电管站公变,","scope":"浙江省-杭州市-富阳区-常绿镇-五联行政村-大岩坞自然村,常绿镇-大章村行政村(文昌阁自然村,常三中心自然村,前田畈自然村,桐坞自然村,槐花潭自然村,后溪桥自然村,钟家畈自然村,前山头自然村,后田畈自然村,庙下畈自然村),常绿镇-青龙行政村(青龙头自然村,盛家桥头自然村,庙背后自然村,陈北坞自然村,石棚自然村,普恩岭脚自然村),常绿镇-黄弹行政村(外黄弹自然村,石梯自然村,里黄弹自然村,黄弹寺前自然村,应家自然村,池头坞自然村),常绿镇-双溪行政村(双溪坞自然村,杨树坑自然村),常绿镇-北坞行政村(勤坞自然村,北坞自然村,石桥头自然村,化山村自然村,石板岭脚自然村,庙外自然村,马垄山脚自然村,费家门口自然村,后坞自然村,神坞自然村,楼家坞自然村);浙江省-杭州市-富阳区-上官乡-大盛行政村-富阳市上官乡倪龙文体材料厂,常绿镇-大章村行政村(杭州富阳益昌纺织品有限公司,中国石化销售股份有限公司浙江杭州石油分公司,杭州富阳洁诚纺织有限公司,浙江大运建设集团有限公司,杭州富阳新丰橡塑有限公司,富阳市常绿镇中心小学,杭州富阳兴泰铸造机械厂,杭州市富阳区常绿镇中心幼儿园,杭州市富阳区常绿镇人民政府),常绿镇-青龙行政村(杭州富阳科新绢云母矿业有限公司,富阳宣倪园林绿化工程有限公司),常绿镇-黄弹行政村(浙江容大电力工程有限公司,杭州富阳黄弹水电站,杭州竣阳建设工程有限公司),常绿镇-北坞行政村(富阳市常绿镇垃圾中转站,杭州市富阳区公路管理段)一带","startTime":"2020-01-13 22:00:00","stopDate":"2020-01-13 22:20:00","orgNo":"3340170","typeCode":"计划停电","poweroffArea":"35kV盛村变:常绿D268线","poweroffReason":"短时停电倒负荷","powerTime":"2020-01-13 22:14:11","powerComm":"已送电","subsNo":"","lineNo":"","tgNo":"","tgName":null,"infoStatus":"1","orgName":"国网浙江杭州市富阳区供电公司","typeName":null,"infoStatusName":null,"dateDay":null,"orgNos":null,"nowTime":null,"countyName":null,"streetName":null,"villageName":null,"roadName":null,"communityName":null,"tranName":null,"sdLineName":null,"cityCode":"3340170","cityName":"国网浙江杭州市富阳区供电公司","provinceCode":null,"stopTime":"2020-01-13 22:20:00","powerType":"全部","powerOffArea":"35kV盛村变:常绿D268线","powerOffReason":"短时停电倒负荷","powerOffId":"2020010331020301"},{"poweroffId":2020010331020300,"sgpoweroffId":null,"subsName":"","lineName":"10kV盛村D266线","pubTranName":"大盛村2号盛村泻清坞公变,深里村9号新塘头公变,深里村2#陈龙塘公变,富阳市百顺人造板厂,深里村1#汤家公变,深里村5#中心公变,大盛村6号斜坞公变,杭州致远文体用品有限公司,深里村3号庙前公变,杭州富阳赛星王文体用品有限公司,大盛村11号来龙山公变,大盛村7号黄土岭公变,深里村4#张家地公变,富阳市强盛文体用品有限公司,杭州富阳城市建设投资集团有限公司1#变,富阳市康辉网球有限公司,鑫尼克体育用品1#,大盛村1号盛村晒谷场公变,杭州富阳城市建设投资集团有限公司,杭州富阳博卡体育用品有限公司,杭州富康球拍有限公司,杭州恒鼎建设集团有限公司1#,杭州致远文体用品有限公司,杭州富阳城市建设投资集团有限公司2#变,深里村6#七边桥公变,深里村8#樟湾公变,富阳麦博球拍有限公司,鑫尼克体育用品2#,富阳金泰管业有限公司,深里村7#大山寺公变,","scope":"浙江省-杭州市-富阳区-上官乡-四堡行政村-四堡自然村,上官乡-大盛行政村(斜坞自然村,斜黄自然村,黄土岭村自然村,上官自然村,盛村自然村),上官乡-深里行政村(深里自然村,汤家自然村);上官乡-大盛行政村(杭州富阳金泰管业有限公司,富阳市百顺人造板厂),上官乡-深里行政村(富阳麦博球拍有限公司,杭州富阳强盛文体用品有限公司,杭州致远文体用品有限公司,杭州鑫尼克体育用品有限公司,杭州富康球拍有限公司,杭州富阳赛星王文体用品有限公司,杭州富阳博卡体育用品有限公司),上官乡(四堡行政村-杭州恒鼎建设集团有限公司,剡溪行政村-杭州富阳区康辉网球有限公司,上官行政村-杭州富阳城市建设投资集团有限公司,杭州富阳城市建设投资集团有限公司)一带","startTime":"2020-01-13 22:00:00","stopDate":"2020-01-13 22:20:00","orgNo":"3340170","typeCode":"计划停电","poweroffArea":"35kV盛村变:盛村D266线","poweroffReason":"短时停电倒负荷","powerTime":"2020-01-13 22:13:59","powerComm":"已送电","subsNo":"","lineNo":"","tgNo":"","tgName":null,"infoStatus":"1","orgName":"国网浙江杭州市富阳区供电公司","typeName":null,"infoStatusName":null,"dateDay":null,"orgNos":null,"nowTime":null,"countyName":null,"streetName":null,"villageName":null,"roadName":null,"communityName":null,"tranName":null,"sdLineName":null,"cityCode":"3340170","cityName":"国网浙江杭州市富阳区供电公司","provinceCode":null,"stopTime":"2020-01-13 22:20:00","powerType":"全部","powerOffArea":"35kV盛村变:盛村D266线","powerOffReason":"短时停电倒负荷","powerOffId":"2020010331020300"},{"poweroffId":2020010331020299,"sgpoweroffId":null,"subsName":"","lineName":"10kV上官D265线","pubTranName":"剡溪村13号睦村公交公变,剡溪村12号徐村大树下公变,大盛村9号上官陆家坞口公变,富阳市上官乡汉昌体育用品厂,剡溪村10#周村枫木桥公变,大盛村3号盛村祠堂公变,杭州上官球拍有限公司,大盛村12号公寓房公变,富阳金泰管业有限公司,杭州意达制管有限公司,杭州伊沃克海绵制品有限公司,杭州市富阳区上官乡人民政府1#,剡溪村5#周村对山公变,剡溪村6#睦村村口公变,芳村3号马栗弯公变,富阳市金泰管业有限公司,富阳市杰灵体育用品有限公司,剡溪村3#睦村乡政府公变,剡溪村4#睦村七亩畈公变,剡溪村2#徐村老桥公变,陈国华,芳村4号花面前公变,大盛村10号上官前山公变,剡溪村1#徐村工业园区公变,杭州意达制管有限公司,杭州耀星乒乓球有限公司1#,剡溪村11号睦村公园公变,芳村1号羊桥头公变,富阳市芳村文体用品厂,芳村2号程家门公变,杭州富阳华泰球拍有限公司,富阳大羽运动器材有限公司,杭州富阳区上官乡益新金属制品厂1#变,剡溪村9#睦村和尚岭公变,大盛村5号上官新农村公变,剡溪村8#徐村密坞公变,富阳市上官乡中心小学,剡溪村7#周村公寓房公变,","scope":"浙江省-杭州市-富阳区-上官乡-芳村行政村-芳村自然村,上官乡-剡溪行政村(睦村自然村,徐村自然村,周村自然村,密坞自然村),上官乡-大盛行政村(盛村自然村,上官自然村);浙江省-杭州市-富阳区-上官乡-大盛行政村-陈国华,上官乡-芳村行政村(杭州富阳芳村文体用品厂,杭州杰灵体育用品有限公司),上官乡-剡溪行政村(杭州上官球拍有限公司,杭州伊沃克海绵制品有限公司,杭州富阳华泰球拍有限公司,杭州意达制管有限公司,杭州富阳大羽运动器材有限公司,富阳市上官乡汉昌体育用品厂,杭州富阳金泰管业有限公司,富阳市上官乡中心小学,杭州富阳区上官乡益新金属制品厂,杭州耀星乒乓球有限公司,杭州市富阳区环境卫生管理处)一带","startTime":"2020-01-13 22:00:00","stopDate":"2020-01-13 22:20:00","orgNo":"3340170","typeCode":"计划停电","poweroffArea":"35kV盛村变:上官D265线","poweroffReason":"短时停电倒负荷","powerTime":"2020-01-13 22:12:40","powerComm":"已送电","subsNo":"","lineNo":"","tgNo":"","tgName":null,"infoStatus":"1","orgName":"国网浙江杭州市富阳区供电公司","typeName":null,"infoStatusName":null,"dateDay":null,"orgNos":null,"nowTime":null,"countyName":null,"streetName":null,"villageName":null,"roadName":null,"communityName":null,"tranName":null,"sdLineName":null,"cityCode":"3340170","cityName":"国网浙江杭州市富阳区供电公司","provinceCode":null,"stopTime":"2020-01-13 22:20:00","powerType":"全部","powerOffArea":"35kV盛村变:上官D265线","powerOffReason":"短时停电倒负荷","powerOffId":"2020010331020299"},{"poweroffId":2020010331020298,"sgpoweroffId":null,"subsName":"","lineName":"10kV学院D587线","pubTranName":"杭州科技职业技术学院4#变,杭州科技职业技术学院15#变,杭州科技职业技术学院25#变,杭州科技职业技术学院10#变,杭州科技职业技术学院2#变,杭州科技职业技术学院29#变,杭州科技职业技术学院8#变,杭州科技职业技术学院21#变,杭州科技职业技术学院17#变,杭州科技职业技术学院13#变,杭州科技职业技术学院6#变,杭州科技职业技术学院15#变,杭州科技职业技术学院23#变,杭州科技职业技术学院22#变,杭州科技职业技术学院11#变,杭州科技职业技术学院19#变,","scope":"浙江省-杭州市-富阳区-富春街道-三联行政村-杭州科技职业技术学院","startTime":"2020-01-13 08:30:00","stopDate":"2020-01-13 21:30:00","orgNo":"3340170","typeCode":"计划停电","poweroffArea":"110kV高桥变:学院D587线-杭州科技职业技术学院2#后段","poweroffReason":"科院开关站移位工程：10kV学院D587线科院开关站移位，线路改接，电缆敷设、制作、试验、搭接并核相等工作 原停电结束时间为2020-01-13 16:00:00,因政策原因,现变更停电结束时间为2020-01-13 21:30:00","powerTime":"2020-01-13 21:24:58","powerComm":"已送电","subsNo":"","lineNo":"","tgNo":"","tgName":null,"infoStatus":"1","orgName":"国网浙江杭州市富阳区供电公司","typeName":null,"infoStatusName":null,"dateDay":null,"orgNos":null,"nowTime":null,"countyName":null,"streetName":null,"villageName":null,"roadName":null,"communityName":null,"tranName":null,"sdLineName":null,"cityCode":"3340170","cityName":"国网浙江杭州市富阳区供电公司","provinceCode":null,"stopTime":"2020-01-13 21:30:00","powerType":"全部","powerOffArea":"110kV高桥变:学院D587线-杭州科技职业技术学院2#后段","powerOffReason":"科院开关站移位工程：10kV学院D587线科院开关站移位，线路改接，电缆敷设、制作、试验、搭接并核相等工作 原停电结束时间为2020-01-13 16:00:00,因政策原因,现变更停电结束时间为2020-01-13 21:30:00","powerOffId":"2020010331020298"},{"poweroffId":2020010331020296,"sgpoweroffId":null,"subsName":"","lineName":"10kV职教D564线","pubTranName":"2#变,3#变,","scope":"浙江省-杭州市-富阳区-富春街道-三联行政村-杭州市富阳区职业教育中心","startTime":"2020-01-13 08:30:00","stopDate":"2020-01-13 16:00:00","orgNo":"3340170","typeCode":"计划停电","poweroffArea":"110kV高桥变:职教D564线-10kV母线进线断路器1#后段","poweroffReason":"配合客户内部检修","powerTime":"2020-01-13 15:51:29","powerComm":"已送电","subsNo":"","lineNo":"","tgNo":"","tgName":null,"infoStatus":"1","orgName":"国网浙江杭州市富阳区供电公司","typeName":null,"infoStatusName":null,"dateDay":null,"orgNos":null,"nowTime":null,"countyName":null,"streetName":null,"villageName":null,"roadName":null,"communityName":null,"tranName":null,"sdLineName":null,"cityCode":"3340170","cityName":"国网浙江杭州市富阳区供电公司","provinceCode":null,"stopTime":"2020-01-13 16:00:00","powerType":"全部","powerOffArea":"110kV高桥变:职教D564线-10kV母线进线断路器1#后段","powerOffReason":"配合客户内部检修","powerOffId":"2020010331020296"},{"poweroffId":2020010331020293,"sgpoweroffId":null,"subsName":"","lineName":"10kV香福D948线","pubTranName":"6#,4#,3#,1#,2#,5#,","scope":"浙江省-杭州市-富阳区-富春街道-金秋社区-杭州市富阳区富春街道金桥股份经济合作社","startTime":"2020-01-13 08:45:00","stopDate":"2020-01-13 12:15:00","orgNo":"3340170","typeCode":"计划停电","poweroffArea":"110kV育才变:香福D948线","poweroffReason":"悦墅D987线第四联开关站II段7#间隔联络线II段开关改接至悦墅D987线第四联开关站II段8#间隔，电缆敷设等工作，原停电结束时间为2020-01-13 11:15:00,因客户原因,现变更停电结束时间为2020-01-13 12:15:00","powerTime":"2020-01-13 11:47:25","powerComm":"已送电","subsNo":"","lineNo":"","tgNo":"","tgName":null,"infoStatus":"1","orgName":"国网浙江杭州市富阳区供电公司","typeName":null,"infoStatusName":null,"dateDay":null,"orgNos":null,"nowTime":null,"countyName":null,"streetName":null,"villageName":null,"roadName":null,"communityName":null,"tranName":null,"sdLineName":null,"cityCode":"3340170","cityName":"国网浙江杭州市富阳区供电公司","provinceCode":null,"stopTime":"2020-01-13 12:15:00","powerType":"全部","powerOffArea":"110kV育才变:香福D948线","powerOffReason":"悦墅D987线第四联开关站II段7#间隔联络线II段开关改接至悦墅D987线第四联开关站II段8#间隔，电缆敷设等工作，原停电结束时间为2020-01-13 11:15:00,因客户原因,现变更停电结束时间为2020-01-13 12:15:00","powerOffId":"2020010331020293"},{"poweroffId":2020010331020292,"sgpoweroffId":null,"subsName":"","lineName":"10kV洋绛D782线","pubTranName":"联群村4号大路渔塘公变,","scope":"浙江省杭州市富阳区场口镇联群行政村大路自然村一带","startTime":"2020-01-16 08:30:00","stopDate":"2020-01-16 13:30:00","orgNo":"3340170","typeCode":"计划停电","poweroffArea":"110kV王洲变:洋绛D782线-联群村4号大路渔塘公变低压出线后段","poweroffReason":"(低压停电信息)场口镇精品村精品线路移位工程：联群村4#大路渔塘公变1#开关1#出线3-7#杆拆移电杆1支等工作。","powerTime":"2020-01-16 13:15:24","powerComm":"已送电","subsNo":"","lineNo":"","tgNo":"","tgName":null,"infoStatus":"1","orgName":"国网浙江杭州市富阳区供电公司","typeName":null,"infoStatusName":null,"dateDay":null,"orgNos":null,"nowTime":null,"countyName":null,"streetName":null,"villageName":null,"roadName":null,"communityName":null,"tranName":null,"sdLineName":null,"cityCode":"3340170","cityName":"国网浙江杭州市富阳区供电公司","provinceCode":null,"stopTime":"2020-01-16 13:30:00","powerType":"全部","powerOffArea":"110kV王洲变:洋绛D782线-联群村4号大路渔塘公变低压出线后段","powerOffReason":"(低压停电信息)场口镇精品村精品线路移位工程：联群村4#大路渔塘公变1#开关1#出线3-7#杆拆移电杆1支等工作。","powerOffId":"2020010331020292"},{"poweroffId":2020010331020289,"sgpoweroffId":null,"subsName":"","lineName":"10kV山居D588线","pubTranName":"云水山居2#公变,","scope":"浙江省-杭州市-富阳区-银湖街道-勤丰行政村-勤丰自然村","startTime":"2020-01-16 08:30:00","stopDate":"2020-01-16 12:40:00","orgNo":"3340170","typeCode":"计划停电","poweroffArea":"110kV高桥变:山居D588线-云水山居2#公变低压开关后段","poweroffReason":"(低压停电信息)云水山居绿荷苑6-2号表箱安装工程安装落地表箱一只、电缆搭坊","powerTime":"2020-01-16 12:25:18","powerComm":"已送电","subsNo":"","lineNo":"","tgNo":"","tgName":null,"infoStatus":"1","orgName":"国网浙江杭州市富阳区供电公司","typeName":null,"infoStatusName":null,"dateDay":null,"orgNos":null,"nowTime":null,"countyName":null,"streetName":null,"villageName":null,"roadName":null,"communityName":null,"tranName":null,"sdLineName":null,"cityCode":"3340170","cityName":"国网浙江杭州市富阳区供电公司","provinceCode":null,"stopTime":"2020-01-16 12:40:00","powerType":"全部","powerOffArea":"110kV高桥变:山居D588线-云水山居2#公变低压开关后段","powerOffReason":"(低压停电信息)云水山居绿荷苑6-2号表箱安装工程安装落地表箱一只、电缆搭坊","powerOffId":"2020010331020289"}],"pageModel":{"pageNow":612,"totalCount":17789,"totalPage":1779,"tableRows":0,"pageCount":10,"beginCount":6110},"isExperi":"1"}