{"message":"","today":"2020-06-15","seleList":[{"poweroffId":2020010331020286,"sgpoweroffId":null,"subsName":"","lineName":"10kV解百V216线","pubTranName":"土管局公变,","scope":"浙江省-杭州市-临安市-锦城街道-临天九弄（临天路与江南路之间)附近一带","startTime":"2020-01-11 08:40:00","stopDate":"2020-01-11 17:00:00","orgNo":"3340160","typeCode":"计划停电","poweroffArea":"110kV锦城变:解百V216线-土管局公变低压总闸刀后段","poweroffReason":"(低压停电信息)配合停电","powerTime":"2020-01-11 16:50:14","powerComm":"已送电","subsNo":"","lineNo":"","tgNo":"","tgName":null,"infoStatus":"1","orgName":"国网浙江临安市供电公司","typeName":null,"infoStatusName":null,"dateDay":null,"orgNos":null,"nowTime":null,"countyName":null,"streetName":null,"villageName":null,"roadName":null,"communityName":null,"tranName":null,"sdLineName":null,"cityCode":"3340160","cityName":"国网浙江临安市供电公司","provinceCode":null,"stopTime":"2020-01-11 17:00:00","powerType":"全部","powerOffArea":"110kV锦城变:解百V216线-土管局公变低压总闸刀后段","powerOffReason":"(低压停电信息)配合停电","powerOffId":"2020010331020286"},{"poweroffId":2020010331020285,"sgpoweroffId":null,"subsName":"","lineName":"10kV洋绛D782线","pubTranName":"联群村1号祠堂公变,","scope":"浙江省杭州市富阳区场口镇联群行政村联群自然村一带","startTime":"2020-01-15 08:30:00","stopDate":"2020-01-15 13:30:00","orgNo":"3340170","typeCode":"计划停电","poweroffArea":"110kV王洲变:洋绛D782线-联群村1#祠堂公变低压出线后段","poweroffReason":"(低压停电信息)场口镇精品村精品线路移位工程：联群村1#祠堂公变3#开关3#出线3#杆-3-1#杆之间新立电杆1支，拆除电杆1支，拆移导线1档，入户线改接1处，横担安装、拉线制作等工作。","powerTime":"2020-01-15 13:15:19","powerComm":"已送电","subsNo":"","lineNo":"","tgNo":"","tgName":null,"infoStatus":"1","orgName":"国网浙江杭州市富阳区供电公司","typeName":null,"infoStatusName":null,"dateDay":null,"orgNos":null,"nowTime":null,"countyName":null,"streetName":null,"villageName":null,"roadName":null,"communityName":null,"tranName":null,"sdLineName":null,"cityCode":"3340170","cityName":"国网浙江杭州市富阳区供电公司","provinceCode":null,"stopTime":"2020-01-15 13:30:00","powerType":"全部","powerOffArea":"110kV王洲变:洋绛D782线-联群村1#祠堂公变低压出线后段","powerOffReason":"(低压停电信息)场口镇精品村精品线路移位工程：联群村1#祠堂公变3#开关3#出线3#杆-3-1#杆之间新立电杆1支，拆除电杆1支，拆移导线1档，入户线改接1处，横担安装、拉线制作等工作。","powerOffId":"2020010331020285"},{"poweroffId":2020010331020284,"sgpoweroffId":null,"subsName":"","lineName":"10kV锦中V641线","pubTranName":"横潭路公变,","scope":"浙江省-杭州市-临安市-锦城街道-横潭路（钱王街至六园街之间）附近一带","startTime":"2020-01-11 07:50:00","stopDate":"2020-01-11 14:00:00","orgNo":"3340160","typeCode":"计划停电","poweroffArea":"110kV锦城变:锦中V641线-横潭路公变低压总闸刀后段","poweroffReason":"(低压停电信息)低压改接 原停电结束时间为2020-01-11 12:00:00,因现场材料等原因,现变更停电结束时间为2020-01-11 14:00:00","powerTime":"2020-01-11 13:14:42","powerComm":"已送电","subsNo":"","lineNo":"","tgNo":"","tgName":null,"infoStatus":"1","orgName":"国网浙江临安市供电公司","typeName":null,"infoStatusName":null,"dateDay":null,"orgNos":null,"nowTime":null,"countyName":null,"streetName":null,"villageName":null,"roadName":null,"communityName":null,"tranName":null,"sdLineName":null,"cityCode":"3340160","cityName":"国网浙江临安市供电公司","provinceCode":null,"stopTime":"2020-01-11 14:00:00","powerType":"全部","powerOffArea":"110kV锦城变:锦中V641线-横潭路公变低压总闸刀后段","powerOffReason":"(低压停电信息)低压改接 原停电结束时间为2020-01-11 12:00:00,因现场材料等原因,现变更停电结束时间为2020-01-11 14:00:00","powerOffId":"2020010331020284"},{"poweroffId":2020010331020283,"sgpoweroffId":null,"subsName":"","lineName":"10kV沪瑞D620线","pubTranName":"瓜桥埠村1号雄瓜地公变,瓜桥埠村2号大礼堂公变,","scope":"浙江省杭州市富阳区场口镇瓜桥埠行政村瓜桥埠自然村一带","startTime":"2020-01-14 08:30:00","stopDate":"2020-01-14 15:30:00","orgNo":"3340170","typeCode":"计划停电","poweroffArea":"110kV鸿丰变:沪瑞D620线首端，瓜桥埠村1号雄瓜地公变、瓜桥埠村2号大礼堂公变低压出线后段","poweroffReason":"(低压停电信息)瓜桥埠村2#大礼堂公变2#开关2#出线2#杆-4#杆之间新立电杆2支，横担安装、拉线制作等工作；瓜桥埠村1#雄瓜地公变1#开关1#出线、2#开关2#出线1#杆-2#杆之间新立电杆1支，拆除电杆1支，拉线制作等工作。","powerTime":"2020-01-14 15:19:44","powerComm":"已送电","subsNo":"","lineNo":"","tgNo":"","tgName":null,"infoStatus":"1","orgName":"国网浙江杭州市富阳区供电公司","typeName":null,"infoStatusName":null,"dateDay":null,"orgNos":null,"nowTime":null,"countyName":null,"streetName":null,"villageName":null,"roadName":null,"communityName":null,"tranName":null,"sdLineName":null,"cityCode":"3340170","cityName":"国网浙江杭州市富阳区供电公司","provinceCode":null,"stopTime":"2020-01-14 15:30:00","powerType":"全部","powerOffArea":"110kV鸿丰变:沪瑞D620线首端，瓜桥埠村1号雄瓜地公变、瓜桥埠村2号大礼堂公变低压出线后段","powerOffReason":"(低压停电信息)瓜桥埠村2#大礼堂公变2#开关2#出线2#杆-4#杆之间新立电杆2支，横担安装、拉线制作等工作；瓜桥埠村1#雄瓜地公变1#开关1#出线、2#开关2#出线1#杆-2#杆之间新立电杆1支，拆除电杆1支，拉线制作等工作。","powerOffId":"2020010331020283"},{"poweroffId":2020010331020282,"sgpoweroffId":null,"subsName":"","lineName":"10kV钱王V326线","pubTranName":"江桥二弄公变,","scope":"浙江省-杭州市-临安市-锦城街道-新民里社区-临天路与江桥路交叉口附近一带","startTime":"2020-01-12 08:30:00","stopDate":"2020-01-12 14:30:00","orgNo":"3340160","typeCode":"计划停电","poweroffArea":"110kV锦南变:钱王V326线-江桥二弄公变低压总闸刀后段","poweroffReason":"(低压停电信息)线路改接","powerTime":"2020-01-12 14:20:13","powerComm":"已送电","subsNo":"","lineNo":"","tgNo":"","tgName":null,"infoStatus":"1","orgName":"国网浙江临安市供电公司","typeName":null,"infoStatusName":null,"dateDay":null,"orgNos":null,"nowTime":null,"countyName":null,"streetName":null,"villageName":null,"roadName":null,"communityName":null,"tranName":null,"sdLineName":null,"cityCode":"3340160","cityName":"国网浙江临安市供电公司","provinceCode":null,"stopTime":"2020-01-12 14:30:00","powerType":"全部","powerOffArea":"110kV锦南变:钱王V326线-江桥二弄公变低压总闸刀后段","powerOffReason":"(低压停电信息)线路改接","powerOffId":"2020010331020282"},{"poweroffId":2020010331020275,"sgpoweroffId":null,"subsName":"","lineName":"10kV笼山D252线","pubTranName":"民丰村1#六十亩公变,","scope":"浙江省-杭州市-富阳区-东洲街道-鸡笼山行政村-民丰自然村","startTime":"2020-01-13 08:30:00","stopDate":"2020-01-13 16:40:00","orgNo":"3340170","typeCode":"计划停电","poweroffArea":"110kV白鹤变:笼山D252线-民丰村1#六十亩公变低压开关后段","poweroffReason":"(低压停电信息)迎东2019年0.4kV配电线路缺陷处理更换导线、接户线搭接等工作","powerTime":"2020-01-13 16:30:45","powerComm":"已送电","subsNo":"","lineNo":"","tgNo":"","tgName":null,"infoStatus":"1","orgName":"国网浙江杭州市富阳区供电公司","typeName":null,"infoStatusName":null,"dateDay":null,"orgNos":null,"nowTime":null,"countyName":null,"streetName":null,"villageName":null,"roadName":null,"communityName":null,"tranName":null,"sdLineName":null,"cityCode":"3340170","cityName":"国网浙江杭州市富阳区供电公司","provinceCode":null,"stopTime":"2020-01-13 16:40:00","powerType":"全部","powerOffArea":"110kV白鹤变:笼山D252线-民丰村1#六十亩公变低压开关后段","powerOffReason":"(低压停电信息)迎东2019年0.4kV配电线路缺陷处理更换导线、接户线搭接等工作","powerOffId":"2020010331020275"},{"poweroffId":2020010331020272,"sgpoweroffId":null,"subsName":"","lineName":"10kV复政6808线","pubTranName":"复兴南苑二变I,复兴南苑二变II,","scope":"浙江省-杭州市-上城区-南星街道-复兴街社区(之江路,复兴南街,复兴里街,美政路,洋潘路)","startTime":"2020-01-03 14:34:00","stopDate":"2020-01-03 18:00:00","orgNo":"3340101","typeCode":"电网故障停限电","poweroffArea":"110kV复兴变:复政6808线美政站复南二线后段","poweroffReason":"高压开关跳闸 原停电结束时间为2020-01-03 16:34:00,因施工现场环境比较复杂，存在不确定因素，因此预估施工时间不足原因,现变更停电结束时间为2020-01-03 18:00:00","powerTime":"2020-01-03 17:43:00","powerComm":"已送电","subsNo":"","lineNo":"","tgNo":"","tgName":null,"infoStatus":"1","orgName":"浙江杭州电力客户服务中心","typeName":null,"infoStatusName":null,"dateDay":null,"orgNos":null,"nowTime":null,"countyName":null,"streetName":null,"villageName":null,"roadName":null,"communityName":null,"tranName":null,"sdLineName":null,"cityCode":"3340101","cityName":"浙江杭州电力客户服务中心","provinceCode":null,"stopTime":"2020-01-03 18:00:00","powerType":"全部","powerOffArea":"110kV复兴变:复政6808线美政站复南二线后段","powerOffReason":"高压开关跳闸 原停电结束时间为2020-01-03 16:34:00,因施工现场环境比较复杂，存在不确定因素，因此预估施工时间不足原因,现变更停电结束时间为2020-01-03 18:00:00","powerOffId":"2020010331020272"},{"poweroffId":2020010331020271,"sgpoweroffId":null,"subsName":"","lineName":"10kV大厦G654线","pubTranName":"金箭公寓3号公变,金箭公寓2号公变,金箭公寓1号公变,","scope":"浙江省杭州市余杭区南苑街道：金箭公寓一带","startTime":"2020-01-16 08:30:00","stopDate":"2020-01-16 17:00:00","orgNo":"3340140","typeCode":"计划停电","poweroffArea":"110kV南苑变:大厦G654线广场公寓分线。","poweroffReason":"大厦G654线广场公寓分线改接至新城开关站港航G108线待用G16线。","powerTime":"2020-01-16 16:45:18","powerComm":"已送电","subsNo":"","lineNo":"","tgNo":"","tgName":null,"infoStatus":"1","orgName":"国网浙江杭州市余杭区供电有限公司","typeName":null,"infoStatusName":null,"dateDay":null,"orgNos":null,"nowTime":null,"countyName":null,"streetName":null,"villageName":null,"roadName":null,"communityName":null,"tranName":null,"sdLineName":null,"cityCode":"3340140","cityName":"国网浙江杭州市余杭区供电有限公司","provinceCode":null,"stopTime":"2020-01-16 17:00:00","powerType":"全部","powerOffArea":"110kV南苑变:大厦G654线广场公寓分线。","powerOffReason":"大厦G654线广场公寓分线改接至新城开关站港航G108线待用G16线。","powerOffId":"2020010331020271"},{"poweroffId":2020010331020269,"sgpoweroffId":null,"subsName":"","lineName":"10kV大厦G654线","pubTranName":"新城花园2号公变,新城花园1号公变,","scope":"浙江省杭州市余杭区南苑街道：新城花园一带","startTime":"2020-01-16 08:30:00","stopDate":"2020-01-16 17:00:00","orgNo":"3340140","typeCode":"计划停电","poweroffArea":"110kV南苑变:大厦G654线新城花园分线。","poweroffReason":"大厦G654线新城花园分线改接至新城开关站港航G108线待用G15线。","powerTime":"2020-01-16 16:44:52","powerComm":"已送电","subsNo":"","lineNo":"","tgNo":"","tgName":null,"infoStatus":"1","orgName":"国网浙江杭州市余杭区供电有限公司","typeName":null,"infoStatusName":null,"dateDay":null,"orgNos":null,"nowTime":null,"countyName":null,"streetName":null,"villageName":null,"roadName":null,"communityName":null,"tranName":null,"sdLineName":null,"cityCode":"3340140","cityName":"国网浙江杭州市余杭区供电有限公司","provinceCode":null,"stopTime":"2020-01-16 17:00:00","powerType":"全部","powerOffArea":"110kV南苑变:大厦G654线新城花园分线。","powerOffReason":"大厦G654线新城花园分线改接至新城开关站港航G108线待用G15线。","powerOffId":"2020010331020269"},{"poweroffId":2020010331020259,"sgpoweroffId":null,"subsName":"","lineName":"10kV万盛G847线","pubTranName":"兰里实业（6120045797）1#变,兰里实业（6120045797）2#变,","scope":"浙江省-杭州市-余杭区-崇贤街道-北庄行政村-杭州兰里实业有限公司","startTime":"2020-01-03 14:12:50","stopDate":"2020-01-03 17:12:00","orgNo":"3340140","typeCode":"电网故障停限电","poweroffArea":"110kV北庄变:万盛G847线","poweroffReason":"高压开关跳闸 原停电结束时间为2020-01-03 16:12:50,因现场情况复杂原因,现变更停电结束时间为2020-01-03 17:12:00","powerTime":"2020-01-03 16:50:00","powerComm":"已送电","subsNo":"","lineNo":"","tgNo":"","tgName":null,"infoStatus":"1","orgName":"国网浙江杭州市余杭区供电有限公司","typeName":null,"infoStatusName":null,"dateDay":null,"orgNos":null,"nowTime":null,"countyName":null,"streetName":null,"villageName":null,"roadName":null,"communityName":null,"tranName":null,"sdLineName":null,"cityCode":"3340140","cityName":"国网浙江杭州市余杭区供电有限公司","provinceCode":null,"stopTime":"2020-01-03 17:12:00","powerType":"全部","powerOffArea":"110kV北庄变:万盛G847线","powerOffReason":"高压开关跳闸 原停电结束时间为2020-01-03 16:12:50,因现场情况复杂原因,现变更停电结束时间为2020-01-03 17:12:00","powerOffId":"2020010331020259"}],"pageModel":{"pageNow":613,"totalCount":17789,"totalPage":1779,"tableRows":0,"pageCount":10,"beginCount":6120},"isExperi":"1"}