{"message":"","today":"2020-06-15","seleList":[{"poweroffId":2020060131020223,"sgpoweroffId":null,"subsName":"","lineName":"10kV下干D385线","pubTranName":"常南村1号罗坞公变,常南村2号洪家公变,景山村3号牛峰岭公变,常南村4号上南坞公变,常南村3号柳树湾公变,","scope":"浙江省-杭州市-富阳区-常安镇-景山行政村-牛峰岭自然村,湖源乡-常南行政村(罗坞自然村,柳树弯自然村,洪家自然村,上南坞自然村)一带","startTime":"2020-06-09 08:30:00","stopDate":"2020-06-09 09:15:00","orgNo":"3340170","typeCode":"计划停电","poweroffArea":"35kV湖源变:下干D385线-下干D385线112#杆开关后段","poweroffReason":"短时停电倒负荷","powerTime":"2020-06-09 09:14:56","powerComm":"已送电","subsNo":"","lineNo":"","tgNo":"","tgName":null,"infoStatus":"1","orgName":"国网浙江杭州市富阳区供电公司","typeName":null,"infoStatusName":null,"dateDay":null,"orgNos":null,"nowTime":null,"countyName":null,"streetName":null,"villageName":null,"roadName":null,"communityName":null,"tranName":null,"sdLineName":null,"cityCode":"3340170","cityName":"国网浙江杭州市富阳区供电公司","provinceCode":null,"stopTime":"2020-06-09 09:15:00","powerType":"全部","powerOffArea":"35kV湖源变:下干D385线-下干D385线112#杆开关后段","powerOffReason":"短时停电倒负荷","powerOffId":"2020060131020223"},{"poweroffId":2020060131020220,"sgpoweroffId":null,"subsName":"","lineName":"10kV斗门9362线","pubTranName":"物华(八),","scope":"浙江省-杭州市-西湖区-古荡街道-文华社区-物华小区25幢1单元及电梯、物华小区31幢丰潭路沿街商铺一带","startTime":"2020-06-09 13:00:00","stopDate":"2020-06-09 15:00:00","orgNo":"3340101","typeCode":"计划停电","poweroffArea":"110kV余塘变:斗门9362线-物华(八)后段","poweroffReason":"(低压停电信息)古荡街道丰潭路356号表计新装","powerTime":"2020-06-09 14:06:15","powerComm":"已送电","subsNo":"","lineNo":"","tgNo":"","tgName":null,"infoStatus":"1","orgName":"浙江杭州电力客户服务中心","typeName":null,"infoStatusName":null,"dateDay":null,"orgNos":null,"nowTime":null,"countyName":null,"streetName":null,"villageName":null,"roadName":null,"communityName":null,"tranName":null,"sdLineName":null,"cityCode":"3340101","cityName":"浙江杭州电力客户服务中心","provinceCode":null,"stopTime":"2020-06-09 15:00:00","powerType":"全部","powerOffArea":"110kV余塘变:斗门9362线-物华(八)后段","powerOffReason":"(低压停电信息)古荡街道丰潭路356号表计新装","powerOffId":"2020060131020220"},{"poweroffId":2020060131020217,"sgpoweroffId":null,"subsName":"","lineName":"10kV下干D385线","pubTranName":"新绿村1#刘村公变,","scope":"浙江省-杭州市-富阳区-湖源乡-新绿行政村-刘村自然村","startTime":"2020-06-09 08:30:00","stopDate":"2020-06-09 09:15:00","orgNo":"3340170","typeCode":"计划停电","poweroffArea":"35kV湖源变:下干D385线-新绿村1#刘村公变后段","poweroffReason":"下干D385线82#杆新绿村1#刘村公变搭接0.4kv电缆并搭接于T接箱出线侧等工作。","powerTime":"2020-06-09 09:09:08","powerComm":"已送电","subsNo":"","lineNo":"","tgNo":"","tgName":null,"infoStatus":"1","orgName":"国网浙江杭州市富阳区供电公司","typeName":null,"infoStatusName":null,"dateDay":null,"orgNos":null,"nowTime":null,"countyName":null,"streetName":null,"villageName":null,"roadName":null,"communityName":null,"tranName":null,"sdLineName":null,"cityCode":"3340170","cityName":"国网浙江杭州市富阳区供电公司","provinceCode":null,"stopTime":"2020-06-09 09:15:00","powerType":"全部","powerOffArea":"35kV湖源变:下干D385线-新绿村1#刘村公变后段","powerOffReason":"下干D385线82#杆新绿村1#刘村公变搭接0.4kv电缆并搭接于T接箱出线侧等工作。","powerOffId":"2020060131020217"},{"poweroffId":2020060131020216,"sgpoweroffId":null,"subsName":"","lineName":"10kV下干D385线","pubTranName":"新绿村3号大角公变,","scope":"浙江省-杭州市-富阳区-湖源乡-新绿行政村-大角自然村一带","startTime":"2020-06-09 08:30:00","stopDate":"2020-06-09 09:15:00","orgNo":"3340170","typeCode":"计划停电","poweroffArea":"35kV湖源变:下干D385线-新绿村3#大角公变后段","poweroffReason":"下干D385线69#杆大角公变分线2#杆新绿村3#大角公变搭接0.4kv电缆并搭接于T接箱出线侧等工作。","powerTime":"2020-06-09 09:08:44","powerComm":"已送电","subsNo":"","lineNo":"","tgNo":"","tgName":null,"infoStatus":"1","orgName":"国网浙江杭州市富阳区供电公司","typeName":null,"infoStatusName":null,"dateDay":null,"orgNos":null,"nowTime":null,"countyName":null,"streetName":null,"villageName":null,"roadName":null,"communityName":null,"tranName":null,"sdLineName":null,"cityCode":"3340170","cityName":"国网浙江杭州市富阳区供电公司","provinceCode":null,"stopTime":"2020-06-09 09:15:00","powerType":"全部","powerOffArea":"35kV湖源变:下干D385线-新绿村3#大角公变后段","powerOffReason":"下干D385线69#杆大角公变分线2#杆新绿村3#大角公变搭接0.4kv电缆并搭接于T接箱出线侧等工作。","powerOffId":"2020060131020216"},{"poweroffId":2020060131020215,"sgpoweroffId":null,"subsName":"","lineName":"10kV下干D385线","pubTranName":"新绿村4#下南坞公变,新绿村6#胡家公变,新绿村2#双江口公变,","scope":"浙江省-杭州市-富阳区-湖源乡-新绿行政村(双江口自然村,胡家自然村,费家自然村,刘村自然村)一带","startTime":"2020-06-09 08:30:00","stopDate":"2020-06-09 09:15:00","orgNo":"3340170","typeCode":"计划停电","poweroffArea":"35kV湖源变:下干D385线-下南坞分线1后段","poweroffReason":"短时停电倒负荷","powerTime":"2020-06-09 09:15:00","powerComm":"已送电","subsNo":"","lineNo":"","tgNo":"","tgName":null,"infoStatus":"1","orgName":"国网浙江杭州市富阳区供电公司","typeName":null,"infoStatusName":null,"dateDay":null,"orgNos":null,"nowTime":null,"countyName":null,"streetName":null,"villageName":null,"roadName":null,"communityName":null,"tranName":null,"sdLineName":null,"cityCode":"3340170","cityName":"国网浙江杭州市富阳区供电公司","provinceCode":null,"stopTime":"2020-06-09 09:15:00","powerType":"全部","powerOffArea":"35kV湖源变:下干D385线-下南坞分线1后段","powerOffReason":"短时停电倒负荷","powerOffId":"2020060131020215"},{"poweroffId":2020060131020214,"sgpoweroffId":null,"subsName":"","lineName":"10kV灵源H655线","pubTranName":"高桥村李家塘公变,灵源村上徐桥,灵源村龚家斗北2号公变,高桥村田家角2号公变,华灵仪表,高桥村贾八房2号公变,高桥村田家角,高桥村葛孟弄2#公变,高桥村李家塘2#公变,灵源村龚家斗公变,高桥村高桥街道3号公变,灵源村严公桥,灵源村西姚村2号公变,高桥村陈家角2号公变,高桥村贾八房,高桥村葛孟弄1#公变,灵源村周家角公变,星意皮革,高桥村高桥街道公变,灵源村严公桥2#公变,灵源村西姚村东公变,水务公司1#箱变,灵源村龚家斗北公变,灵源村王家祠堂公变,高桥村石华桥,三锋建材,灵源村陈家桥,高桥村李家塘3号公变,吴山前村鲁家桥公变,高桥村葛孟弄3#公变,高桥村高桥街道2号公变,灵源村西姚村公变,","scope":"浙江省-杭州市-余杭区-闲林街道-里项行政村-里项自然村,仓前街道-吴山前行政村(吴山前自然村,姚家营自然村,毛家庄自然村,鲁家桥自然村),仓前街道-高桥行政村(高桥自然村,田家角自然村,贾八房自然村,蒋家木桥自然村,葛孟弄自然村,李家塘自然村,孙家里自然村,田村里自然村,陈家角自然村),仓前街道-灵源行政村(灵源自然村,王家祠堂自然村,吴家小桥头自然村,石华桥自然村,龚家斗自然村,陈家桥自然村,西姚自然村,周家角自然村,吴家角自然村);仓前街道(杭州余杭华灵仪表配件有限公司,杭州余杭未来科技城供排水有限公司,杭州余杭区三锋建材厂)","startTime":"2020-06-01 11:41:00","stopDate":"2020-06-01 14:00:00","orgNo":"3340140","typeCode":"电网故障停限电","poweroffArea":"110kV永福变:灵源H655线灵源H6553开关后段","poweroffReason":"高压开关跳闸 原停电结束时间为2020-06-01 13:41:00,因现场复杂原因,延迟送电,现变更停电结束时间为2020-06-01 14:00:00","powerTime":"2020-06-01 13:50:16","powerComm":"已送电","subsNo":"","lineNo":"","tgNo":"","tgName":null,"infoStatus":"1","orgName":"国网浙江杭州市余杭区供电有限公司","typeName":null,"infoStatusName":null,"dateDay":null,"orgNos":null,"nowTime":null,"countyName":null,"streetName":null,"villageName":null,"roadName":null,"communityName":null,"tranName":null,"sdLineName":null,"cityCode":"3340140","cityName":"国网浙江杭州市余杭区供电有限公司","provinceCode":null,"stopTime":"2020-06-01 14:00:00","powerType":"全部","powerOffArea":"110kV永福变:灵源H655线灵源H6553开关后段","powerOffReason":"高压开关跳闸 原停电结束时间为2020-06-01 13:41:00,因现场复杂原因,延迟送电,现变更停电结束时间为2020-06-01 14:00:00","powerOffId":"2020060131020214"},{"poweroffId":2020060131020202,"sgpoweroffId":null,"subsName":"","lineName":"10kV横路V128线","pubTranName":"10kV观山村[甲子柴村]公变,","scope":"浙江省-杭州市-临安市-於潜镇-甲子柴村一带","startTime":"2020-06-12 08:20:00","stopDate":"2020-06-12 17:00:00","orgNo":"3340160","typeCode":"计划停电","poweroffArea":"110kV於潜变:横路V128线10kV观山村[甲子柴村]公变下村2000线","poweroffReason":"(低压停电信息)配合停电","powerTime":"2020-06-12 16:47:45","powerComm":"已送电","subsNo":"","lineNo":"","tgNo":"","tgName":null,"infoStatus":"1","orgName":"国网浙江临安市供电公司","typeName":null,"infoStatusName":null,"dateDay":null,"orgNos":null,"nowTime":null,"countyName":null,"streetName":null,"villageName":null,"roadName":null,"communityName":null,"tranName":null,"sdLineName":null,"cityCode":"3340160","cityName":"国网浙江临安市供电公司","provinceCode":null,"stopTime":"2020-06-12 17:00:00","powerType":"全部","powerOffArea":"110kV於潜变:横路V128线10kV观山村[甲子柴村]公变下村2000线","powerOffReason":"(低压停电信息)配合停电","powerOffId":"2020060131020202"},{"poweroffId":2020060131020201,"sgpoweroffId":null,"subsName":"","lineName":"10kV下埠V503线","pubTranName":"10kv观山村[甲子]公变,","scope":"浙江省-杭州市-临安市-於潜镇-甲子一带","startTime":"2020-06-12 08:20:00","stopDate":"2020-06-12 17:00:00","orgNo":"3340160","typeCode":"计划停电","poweroffArea":"110kV於潜变:下埠V503线10kv观山村[甲子]公变低压3000线、4000线","poweroffReason":"(低压停电信息)配合停电","powerTime":"2020-06-12 16:49:06","powerComm":"已送电","subsNo":"","lineNo":"","tgNo":"","tgName":null,"infoStatus":"1","orgName":"国网浙江临安市供电公司","typeName":null,"infoStatusName":null,"dateDay":null,"orgNos":null,"nowTime":null,"countyName":null,"streetName":null,"villageName":null,"roadName":null,"communityName":null,"tranName":null,"sdLineName":null,"cityCode":"3340160","cityName":"国网浙江临安市供电公司","provinceCode":null,"stopTime":"2020-06-12 17:00:00","powerType":"全部","powerOffArea":"110kV於潜变:下埠V503线10kv观山村[甲子]公变低压3000线、4000线","powerOffReason":"(低压停电信息)配合停电","powerOffId":"2020060131020201"},{"poweroffId":2020060131020200,"sgpoweroffId":null,"subsName":"","lineName":"10kV下埠V503线","pubTranName":"10kV观山村[甲子山岸头]公变,","scope":"浙江省-杭州市-临安市-於潜镇-甲子山岸头一带","startTime":"2020-06-12 08:20:00","stopDate":"2020-06-12 17:00:00","orgNo":"3340160","typeCode":"计划停电","poweroffArea":"110kV於潜变:下埠V503线29#杆自来水厂分线9#后","poweroffReason":"临金高速一期专线01项：下埠V503线自来水厂分线9#-10#杆线路拆除","powerTime":"2020-06-12 16:49:15","powerComm":"已送电","subsNo":"","lineNo":"","tgNo":"","tgName":null,"infoStatus":"1","orgName":"国网浙江临安市供电公司","typeName":null,"infoStatusName":null,"dateDay":null,"orgNos":null,"nowTime":null,"countyName":null,"streetName":null,"villageName":null,"roadName":null,"communityName":null,"tranName":null,"sdLineName":null,"cityCode":"3340160","cityName":"国网浙江临安市供电公司","provinceCode":null,"stopTime":"2020-06-12 17:00:00","powerType":"全部","powerOffArea":"110kV於潜变:下埠V503线29#杆自来水厂分线9#后","powerOffReason":"临金高速一期专线01项：下埠V503线自来水厂分线9#-10#杆线路拆除","powerOffId":"2020060131020200"},{"poweroffId":2020060131020199,"sgpoweroffId":null,"subsName":"","lineName":"10kV下埠V503线","pubTranName":"10kV后渚村[二牧里]公变,","scope":"浙江省-杭州市-临安市-於潜镇-二牧里一带","startTime":"2020-06-12 06:10:00","stopDate":"2020-06-12 08:20:00","orgNo":"3340160","typeCode":"计划停电","poweroffArea":"110kV於潜变:下埠V503线29#杆自来水厂分线1-9#","poweroffReason":"临金高速一期专线01项：下埠V503线自来水厂分线9#-10#杆线路拆除","powerTime":"2020-06-12 07:48:54","powerComm":"已送电","subsNo":"","lineNo":"","tgNo":"","tgName":null,"infoStatus":"1","orgName":"国网浙江临安市供电公司","typeName":null,"infoStatusName":null,"dateDay":null,"orgNos":null,"nowTime":null,"countyName":null,"streetName":null,"villageName":null,"roadName":null,"communityName":null,"tranName":null,"sdLineName":null,"cityCode":"3340160","cityName":"国网浙江临安市供电公司","provinceCode":null,"stopTime":"2020-06-12 08:20:00","powerType":"全部","powerOffArea":"110kV於潜变:下埠V503线29#杆自来水厂分线1-9#","powerOffReason":"临金高速一期专线01项：下埠V503线自来水厂分线9#-10#杆线路拆除","powerOffId":"2020060131020199"}],"pageModel":{"pageNow":61,"totalCount":17786,"totalPage":1779,"tableRows":0,"pageCount":10,"beginCount":600},"isExperi":"1"}