{"message":"","today":"2020-06-15","seleList":[{"poweroffId":2020010331020213,"sgpoweroffId":null,"subsName":"","lineName":"10kV觉陇8794线","pubTranName":"陆嘴二变,","scope":"浙江省杭州市西湖区龙井路双峰村、里鸡笼山一带，里鸡笼山35号至99号附近一带","startTime":"2020-01-09 13:00:00","stopDate":"2020-01-09 17:30:00","orgNo":"3340101","typeCode":"临时停电","poweroffArea":"110kV花港变:觉陇8794线-陆嘴二线后段","poweroffReason":"杭州西湖区人民政府西湖街道办事处双峰村整治电力改造工程 PD2018-12-004-QN 陆嘴一变低压改接","powerTime":"2020-01-09 16:55:16","powerComm":"已送电","subsNo":"","lineNo":"","tgNo":"","tgName":null,"infoStatus":"1","orgName":"浙江杭州电力客户服务中心","typeName":null,"infoStatusName":null,"dateDay":null,"orgNos":null,"nowTime":null,"countyName":null,"streetName":null,"villageName":null,"roadName":null,"communityName":null,"tranName":null,"sdLineName":null,"cityCode":"3340101","cityName":"浙江杭州电力客户服务中心","provinceCode":null,"stopTime":"2020-01-09 17:30:00","powerType":"全部","powerOffArea":"110kV花港变:觉陇8794线-陆嘴二线后段","powerOffReason":"杭州西湖区人民政府西湖街道办事处双峰村整治电力改造工程 PD2018-12-004-QN 陆嘴一变低压改接","powerOffId":"2020010331020213"},{"poweroffId":2020010331020211,"sgpoweroffId":null,"subsName":"","lineName":"10kV觉陇8794线","pubTranName":"陆嘴一变,","scope":"浙江省杭州市西湖区龙井路双峰村、里鸡笼山一带，里鸡笼山1号至41号，中国联通附近一带","startTime":"2020-01-08 13:00:00","stopDate":"2020-01-08 16:30:00","orgNo":"3340101","typeCode":"临时停电","poweroffArea":"110kV花港变:觉陇8794线-陆嘴一线线后段","poweroffReason":"杭州西湖区人民政府西湖街道办事处双峰村整治电力改造工程 PD2018-12-004-QN 鸡笼三变低压改接 原停电结束时间为17:30:00,为减少客户停电时间,加快工作进度,提前送电,现变更停电结束时间为16:30:00","powerTime":"2020-01-08 16:05:11","powerComm":"已送电","subsNo":"","lineNo":"","tgNo":"","tgName":null,"infoStatus":"1","orgName":"浙江杭州电力客户服务中心","typeName":null,"infoStatusName":null,"dateDay":null,"orgNos":null,"nowTime":null,"countyName":null,"streetName":null,"villageName":null,"roadName":null,"communityName":null,"tranName":null,"sdLineName":null,"cityCode":"3340101","cityName":"浙江杭州电力客户服务中心","provinceCode":null,"stopTime":"2020-01-08 16:30:00","powerType":"全部","powerOffArea":"110kV花港变:觉陇8794线-陆嘴一线线后段","powerOffReason":"杭州西湖区人民政府西湖街道办事处双峰村整治电力改造工程 PD2018-12-004-QN 鸡笼三变低压改接 原停电结束时间为17:30:00,为减少客户停电时间,加快工作进度,提前送电,现变更停电结束时间为16:30:00","powerOffId":"2020010331020211"},{"poweroffId":2020010331020210,"sgpoweroffId":null,"subsName":"","lineName":"10kV觉陇8794线","pubTranName":"鸡笼三变,鸡笼二变,双村专变,","scope":"浙江省杭州市西湖区双峰新村34—47号、92—118号附近一带。杭州市西湖区双峰新村61—88号、119—136号附近一带。杭州双村有限公司","startTime":"2020-01-07 13:00:00","stopDate":"2020-01-07 17:30:00","orgNo":"3340101","typeCode":"临时停电","poweroffArea":"110kV花港变:觉陇8794线-鸡变二线后段","poweroffReason":"杭州西湖区人民政府西湖街道办事处双峰村整治电力改造工程 PD2018-12-004-QN 鸡笼二变低压改接","powerTime":"2020-01-07 17:20:46","powerComm":"已送电","subsNo":"","lineNo":"","tgNo":"","tgName":null,"infoStatus":"1","orgName":"浙江杭州电力客户服务中心","typeName":null,"infoStatusName":null,"dateDay":null,"orgNos":null,"nowTime":null,"countyName":null,"streetName":null,"villageName":null,"roadName":null,"communityName":null,"tranName":null,"sdLineName":null,"cityCode":"3340101","cityName":"浙江杭州电力客户服务中心","provinceCode":null,"stopTime":"2020-01-07 17:30:00","powerType":"全部","powerOffArea":"110kV花港变:觉陇8794线-鸡变二线后段","powerOffReason":"杭州西湖区人民政府西湖街道办事处双峰村整治电力改造工程 PD2018-12-004-QN 鸡笼二变低压改接","powerOffId":"2020010331020210"},{"poweroffId":2020010331020196,"sgpoweroffId":null,"subsName":"","lineName":"10kV杨家G293线","pubTranName":"塘北泵站,海玄标牌,塘北村铁点河公变,杭州市余杭区塘栖镇塘南中心小学612087988601#专变,杭州倍润织造有限公司,杭州琦诚机械制造有限公司,塘北村仲家舍公变,杭州超博装饰材料有限公司,塘北村仲家舍北公变,塘北村仲家舍北2号公变,杭州祥胜铸造有限公司1#,杭州祥胜铸造有限公司2#,塘北村郑家埭公变,广丰五金,塘北村郑家埭六组公变,杭州财达机械有限公司,塘北村塘北村公变,塘北村周家坝公变,杭州金利丝业有限公司,开发区路灯箱变,塘北村大塘湾公变,杭州余杭塘北股份经济合作社,塘北村杨家埭公变,塘北村史家桥公变,塘南泉漳村造桥港机埠,塘北村小家河公变,杭州琦诚机械制造有限公司000260654501#专变,姚家埭村代头河公变,塘北村郑家埭北公变,塘北村毛家埭公变,","scope":"浙江省-杭州市-余杭区-塘栖镇-塘北行政村-塘北村,塘栖镇-姚家埭行政村(代田河,姚家埭,姚家埭自然村,双子贤);东湖街道-杭州市开发投资有限公司,塘栖镇(塘南泉漳村造桥港机埠,杭州海玄标牌有限公司,杭州金利丝业有限公司,杭州财达机械有限公司,杭州余杭塘北股份经济合作社,杭州倍润织造有限公司,杭州祥胜铸造有限公司塘栖分公司,杭州琦诚机械制造有限公司,杭州市余杭区塘栖镇塘南中心小学)","startTime":"2020-01-03 13:22:00","stopDate":"2020-01-03 15:22:00","orgNo":"3340140","typeCode":"电网故障停限电","poweroffArea":"110kV渔桥变:杨家G293线杨家G2931开关后段","poweroffReason":"高压开关跳闸","powerTime":"2020-01-03 14:52:00","powerComm":"已送电","subsNo":"","lineNo":"","tgNo":"","tgName":null,"infoStatus":"1","orgName":"国网浙江杭州市余杭区供电有限公司","typeName":null,"infoStatusName":null,"dateDay":null,"orgNos":null,"nowTime":null,"countyName":null,"streetName":null,"villageName":null,"roadName":null,"communityName":null,"tranName":null,"sdLineName":null,"cityCode":"3340140","cityName":"国网浙江杭州市余杭区供电有限公司","provinceCode":null,"stopTime":"2020-01-03 15:22:00","powerType":"全部","powerOffArea":"110kV渔桥变:杨家G293线杨家G2931开关后段","powerOffReason":"高压开关跳闸","powerOffId":"2020010331020196"},{"poweroffId":2020010331020194,"sgpoweroffId":null,"subsName":"","lineName":"10kV联盟T370线","pubTranName":"联盟赵家1号公变,","scope":"浙江省-杭州市-桐庐县-百江镇-联盟行政村(邵舍自然村,联盟赵家自然村)","startTime":"2020-01-14 09:00:00","stopDate":"2020-01-14 11:00:00","orgNo":"3340150","typeCode":"计划停电","poweroffArea":"110kV百江变:联盟T370线-联盟赵家F9009令克后段","poweroffReason":"调换联盟赵家1号公变配变工作","powerTime":"2020-01-14 10:39:22","powerComm":"已送电","subsNo":"","lineNo":"","tgNo":"","tgName":null,"infoStatus":"1","orgName":"国网浙江桐庐县供电公司","typeName":null,"infoStatusName":null,"dateDay":null,"orgNos":null,"nowTime":null,"countyName":null,"streetName":null,"villageName":null,"roadName":null,"communityName":null,"tranName":null,"sdLineName":null,"cityCode":"3340150","cityName":"国网浙江桐庐县供电公司","provinceCode":null,"stopTime":"2020-01-14 11:00:00","powerType":"全部","powerOffArea":"110kV百江变:联盟T370线-联盟赵家F9009令克后段","powerOffReason":"调换联盟赵家1号公变配变工作","powerOffId":"2020010331020194"},{"poweroffId":2020010331020182,"sgpoweroffId":null,"subsName":"","lineName":"10kV江村Y229线","pubTranName":"白沙社区风仙坝台区,","scope":"浙江省-杭州市-建德市-新安江街道-白沙社区-汤家自然村一带用户","startTime":"2020-01-03 12:50:00","stopDate":"2020-01-03 17:00:00","orgNo":"3340180","typeCode":"电网故障停限电","poweroffArea":"110kV白沙变:江村Y229线白沙社区风仙坝台区配变","poweroffReason":"(低压停电信息)低压开关跳闸","powerTime":"2020-01-03 16:08:07","powerComm":"已送电","subsNo":"","lineNo":"","tgNo":"","tgName":null,"infoStatus":"1","orgName":"国网浙江建德市供电有限公司","typeName":null,"infoStatusName":null,"dateDay":null,"orgNos":null,"nowTime":null,"countyName":null,"streetName":null,"villageName":null,"roadName":null,"communityName":null,"tranName":null,"sdLineName":null,"cityCode":"3340180","cityName":"国网浙江建德市供电有限公司","provinceCode":null,"stopTime":"2020-01-03 17:00:00","powerType":"全部","powerOffArea":"110kV白沙变:江村Y229线白沙社区风仙坝台区配变","powerOffReason":"(低压停电信息)低压开关跳闸","powerOffId":"2020010331020182"},{"poweroffId":2020010331020180,"sgpoweroffId":null,"subsName":"","lineName":"10kV紫政8047线","pubTranName":"国安厅1#,","scope":"浙江省-杭州市-西湖区-文新街道-古墩路","startTime":"2020-01-03 13:00:51","stopDate":"2020-01-03 14:30:12","orgNo":"3340101","typeCode":"电网故障停限电","poweroffArea":"110kV紫荆变:紫政8047线国安厅配变","poweroffReason":"高压开关跳闸 原停电结束时间为2020-01-03 15:00:12,为减少客户停电时间,加快工作进度,提前送电,现变更停电结束时间为2020-01-03 14:30:12","powerTime":"2020-01-03 13:42:03","powerComm":"已送电","subsNo":"","lineNo":"","tgNo":"","tgName":null,"infoStatus":"1","orgName":"浙江杭州电力客户服务中心","typeName":null,"infoStatusName":null,"dateDay":null,"orgNos":null,"nowTime":null,"countyName":null,"streetName":null,"villageName":null,"roadName":null,"communityName":null,"tranName":null,"sdLineName":null,"cityCode":"3340101","cityName":"浙江杭州电力客户服务中心","provinceCode":null,"stopTime":"2020-01-03 14:30:12","powerType":"全部","powerOffArea":"110kV紫荆变:紫政8047线国安厅配变","powerOffReason":"高压开关跳闸 原停电结束时间为2020-01-03 15:00:12,为减少客户停电时间,加快工作进度,提前送电,现变更停电结束时间为2020-01-03 14:30:12","powerOffId":"2020010331020180"},{"poweroffId":2020010331020162,"sgpoweroffId":null,"subsName":"","lineName":"10kV城镇V178线","pubTranName":"临安志平纺织品经营部变压器间隔配电变压器,杭州撒拉弗科技有限公司,临安宏臣玻璃制品有限公司,杭州祥和纺织涂层有限公司,","scope":"浙江省-杭州市-临安市-天目山镇临安志平纺织品经营部,杭州撒拉弗科技有限公司,杭州祥和纺织涂层有限公司,临安宏臣玻璃制品有限公司一带","startTime":"2020-01-13 08:30:00","stopDate":"2020-01-13 15:30:00","orgNo":"3340160","typeCode":"计划停电","poweroffArea":"停35kV藻溪变城镇V178线13#杆宏臣分线令克、城镇V178线14#杆祥和纺织厂分线令克","poweroffReason":"改造 原停电结束时间为2020-01-13 14:00:00,因路施工大型挖机工作，无法施工原因,现变更停电结束时间为2020-01-13 15:30:00","powerTime":"2020-01-13 15:00:31","powerComm":"已送电","subsNo":"","lineNo":"","tgNo":"","tgName":null,"infoStatus":"1","orgName":"国网浙江临安市供电公司","typeName":null,"infoStatusName":null,"dateDay":null,"orgNos":null,"nowTime":null,"countyName":null,"streetName":null,"villageName":null,"roadName":null,"communityName":null,"tranName":null,"sdLineName":null,"cityCode":"3340160","cityName":"国网浙江临安市供电公司","provinceCode":null,"stopTime":"2020-01-13 15:30:00","powerType":"全部","powerOffArea":"停35kV藻溪变城镇V178线13#杆宏臣分线令克、城镇V178线14#杆祥和纺织厂分线令克","powerOffReason":"改造 原停电结束时间为2020-01-13 14:00:00,因路施工大型挖机工作，无法施工原因,现变更停电结束时间为2020-01-13 15:30:00","powerOffId":"2020010331020162"},{"poweroffId":2020010331020161,"sgpoweroffId":null,"subsName":"","lineName":"10kV横塘V173线","pubTranName":"临安远大纺织有限公司,10kV藻溪村[六海口]公变,","scope":"浙江省-杭州市-临安市-天目山镇六海口,临安远大纺织有限公司一带","startTime":"2020-01-13 08:30:00","stopDate":"2020-01-13 15:30:00","orgNo":"3340160","typeCode":"计划停电","poweroffArea":"停35kV藻溪变横塘V173线36#杆凤凰顶绸厂分线开关","poweroffReason":"改造 原停电结束时间为2020-01-13 14:00:00,因路施工大型挖机工作，无法施工原因,现变更停电结束时间为2020-01-13 15:30:00","powerTime":"2020-01-13 15:00:33","powerComm":"已送电","subsNo":"","lineNo":"","tgNo":"","tgName":null,"infoStatus":"1","orgName":"国网浙江临安市供电公司","typeName":null,"infoStatusName":null,"dateDay":null,"orgNos":null,"nowTime":null,"countyName":null,"streetName":null,"villageName":null,"roadName":null,"communityName":null,"tranName":null,"sdLineName":null,"cityCode":"3340160","cityName":"国网浙江临安市供电公司","provinceCode":null,"stopTime":"2020-01-13 15:30:00","powerType":"全部","powerOffArea":"停35kV藻溪变横塘V173线36#杆凤凰顶绸厂分线开关","powerOffReason":"改造 原停电结束时间为2020-01-13 14:00:00,因路施工大型挖机工作，无法施工原因,现变更停电结束时间为2020-01-13 15:30:00","powerOffId":"2020010331020161"},{"poweroffId":2020010331020107,"sgpoweroffId":null,"subsName":"","lineName":"10kV小岭T104线","pubTranName":"迎宾路1号公变,","scope":"浙江省-杭州市-桐庐县-桐君街道-迎宾社区(劳动路,迎宾路),桐君街道-圆通社区(圆通路,迎宾路)","startTime":"2020-01-03 09:51:05","stopDate":"2020-01-03 12:31:05","orgNo":"3340150","typeCode":"电网故障停限电","poweroffArea":"110kV桐庐变:小岭T104线-迎宾路1号公变后段","poweroffReason":"高压开关跳闸","powerTime":"2020-01-03 12:20:32","powerComm":"已送电","subsNo":"","lineNo":"","tgNo":"","tgName":null,"infoStatus":"1","orgName":"国网浙江桐庐县供电公司","typeName":null,"infoStatusName":null,"dateDay":null,"orgNos":null,"nowTime":null,"countyName":null,"streetName":null,"villageName":null,"roadName":null,"communityName":null,"tranName":null,"sdLineName":null,"cityCode":"3340150","cityName":"国网浙江桐庐县供电公司","provinceCode":null,"stopTime":"2020-01-03 12:31:05","powerType":"全部","powerOffArea":"110kV桐庐变:小岭T104线-迎宾路1号公变后段","powerOffReason":"高压开关跳闸","powerOffId":"2020010331020107"}],"pageModel":{"pageNow":615,"totalCount":17789,"totalPage":1779,"tableRows":0,"pageCount":10,"beginCount":6140},"isExperi":"1"}