{"message":"","today":"2020-06-15","seleList":[{"poweroffId":2020010331020105,"sgpoweroffId":null,"subsName":"","lineName":"10kV上堡9172线","pubTranName":"周富十四,","scope":"浙江省杭州市西湖区周富村新塘组用户夏佐茂、郑爱仙、杨佐庆、邱水仙、灵西轴承、农灌、污水治理办公室一带","startTime":"2020-01-10 09:30:00","stopDate":"2020-01-10 15:00:00","orgNo":"3340101","typeCode":"临时停电","poweroffArea":"110kV象山变:上堡9172线-周富十四后段","poweroffReason":"(低压停电信息)双浦镇周富行政村新塘组东表计移表","powerTime":"2020-01-10 10:25:57","powerComm":"已送电","subsNo":"","lineNo":"","tgNo":"","tgName":null,"infoStatus":"1","orgName":"浙江杭州电力客户服务中心","typeName":null,"infoStatusName":null,"dateDay":null,"orgNos":null,"nowTime":null,"countyName":null,"streetName":null,"villageName":null,"roadName":null,"communityName":null,"tranName":null,"sdLineName":null,"cityCode":"3340101","cityName":"浙江杭州电力客户服务中心","provinceCode":null,"stopTime":"2020-01-10 15:00:00","powerType":"全部","powerOffArea":"110kV象山变:上堡9172线-周富十四后段","powerOffReason":"(低压停电信息)双浦镇周富行政村新塘组东表计移表","powerOffId":"2020010331020105"},{"poweroffId":2020010331020100,"sgpoweroffId":null,"subsName":"","lineName":"10kV昌桥D752线","pubTranName":"富阳市江南造纸助剂厂,","scope":"浙江省-杭州市-富阳区-春江街道-杭州富阳江南造纸助剂厂一带","startTime":"2020-01-13 08:00:00","stopDate":"2020-01-13 16:00:00","orgNo":"3340170","typeCode":"计划停电","poweroffArea":"110kV春联变:昌桥D752线-富阳市江南造纸助剂厂开关后段","poweroffReason":"杭州绿邦科技有限公司配变工程：新上真空开关2台，拆除保险丝开关1组，电缆拆、装等工作。","powerTime":"2020-01-13 15:44:16","powerComm":"已送电","subsNo":"","lineNo":"","tgNo":"","tgName":null,"infoStatus":"1","orgName":"国网浙江杭州市富阳区供电公司","typeName":null,"infoStatusName":null,"dateDay":null,"orgNos":null,"nowTime":null,"countyName":null,"streetName":null,"villageName":null,"roadName":null,"communityName":null,"tranName":null,"sdLineName":null,"cityCode":"3340170","cityName":"国网浙江杭州市富阳区供电公司","provinceCode":null,"stopTime":"2020-01-13 16:00:00","powerType":"全部","powerOffArea":"110kV春联变:昌桥D752线-富阳市江南造纸助剂厂开关后段","powerOffReason":"杭州绿邦科技有限公司配变工程：新上真空开关2台，拆除保险丝开关1组，电缆拆、装等工作。","powerOffId":"2020010331020100"},{"poweroffId":2020010331020099,"sgpoweroffId":null,"subsName":"","lineName":"10kV胥口D712线","pubTranName":"高联村4#石畈公变,","scope":"浙江省杭州市富阳区胥口镇高联村石畈自然村一带","startTime":"2020-01-15 13:50:00","stopDate":"2020-01-15 17:10:00","orgNo":"3340170","typeCode":"计划停电","poweroffArea":"110kV松溪变:胥口D712线-高联村4#石畈公变低压开关后段","poweroffReason":"(低压停电信息)红亭子01线5#杆后段安装横担1付、拉线1组、导线移位JKLYJ-70*4*1档、更换接户线3户、搭接、拆除横担2付、拉线2组、吊车拔除旧杆2基、拆旧等工作。","powerTime":"2020-01-15 17:00:11","powerComm":"已送电","subsNo":"","lineNo":"","tgNo":"","tgName":null,"infoStatus":"1","orgName":"国网浙江杭州市富阳区供电公司","typeName":null,"infoStatusName":null,"dateDay":null,"orgNos":null,"nowTime":null,"countyName":null,"streetName":null,"villageName":null,"roadName":null,"communityName":null,"tranName":null,"sdLineName":null,"cityCode":"3340170","cityName":"国网浙江杭州市富阳区供电公司","provinceCode":null,"stopTime":"2020-01-15 17:10:00","powerType":"全部","powerOffArea":"110kV松溪变:胥口D712线-高联村4#石畈公变低压开关后段","powerOffReason":"(低压停电信息)红亭子01线5#杆后段安装横担1付、拉线1组、导线移位JKLYJ-70*4*1档、更换接户线3户、搭接、拆除横担2付、拉线2组、吊车拔除旧杆2基、拆旧等工作。","powerOffId":"2020010331020099"},{"poweroffId":2020010331020096,"sgpoweroffId":null,"subsName":"","lineName":"10kV安顶D909线","pubTranName":"民强村3#石塔坞公变,","scope":"浙江省-杭州市-富阳区-里山镇-民强行政村-石塔坞自然村一带","startTime":"2020-01-19 08:30:00","stopDate":"2020-01-19 16:40:00","orgNo":"3340170","typeCode":"计划停电","poweroffArea":"110kV里渔变:安顶D909线-民强村3号石塔坞低压开关后段","poweroffReason":"(低压停电信息)江南2019年0.4kV配电线路缺陷处理更换导线、接户线搭接等工作 原停电结束时间为2020-01-15 16:40:00,因政策原因,现变更停电结束时间为2020-01-19 16:40:00","powerTime":"2020-01-19 16:20:54","powerComm":"已送电","subsNo":"","lineNo":"","tgNo":"","tgName":null,"infoStatus":"1","orgName":"国网浙江杭州市富阳区供电公司","typeName":null,"infoStatusName":null,"dateDay":null,"orgNos":null,"nowTime":null,"countyName":null,"streetName":null,"villageName":null,"roadName":null,"communityName":null,"tranName":null,"sdLineName":null,"cityCode":"3340170","cityName":"国网浙江杭州市富阳区供电公司","provinceCode":null,"stopTime":"2020-01-19 16:40:00","powerType":"全部","powerOffArea":"110kV里渔变:安顶D909线-民强村3号石塔坞低压开关后段","powerOffReason":"(低压停电信息)江南2019年0.4kV配电线路缺陷处理更换导线、接户线搭接等工作 原停电结束时间为2020-01-15 16:40:00,因政策原因,现变更停电结束时间为2020-01-19 16:40:00","powerOffId":"2020010331020096"},{"poweroffId":2020010331020094,"sgpoweroffId":null,"subsName":"","lineName":"10kV胥口D712线","pubTranName":"高联村4#石畈公变,","scope":"浙江省杭州市富阳区胥口镇高联村石畈自然村一带","startTime":"2020-01-14 08:20:00","stopDate":"2020-01-14 16:50:00","orgNo":"3340170","typeCode":"计划停电","poweroffArea":"110kV松溪变:胥口D712线-高联村4#石畈公变台区低压开关后段","poweroffReason":"(低压停电信息)红亭子01线1#杆至1-6#杆吊车新立电杆2基、电杆移位3基、拔除旧杆2基、拆装横担5付、拉线4组、导线移位JKLYJ-70*4*5档、更换接户线4户、红亭子01线1-3-1开耐张、架设JKLYJ-35*2*1档、搭接、拆旧等工作。","powerTime":"2020-01-14 16:40:14","powerComm":"已送电","subsNo":"","lineNo":"","tgNo":"","tgName":null,"infoStatus":"1","orgName":"国网浙江杭州市富阳区供电公司","typeName":null,"infoStatusName":null,"dateDay":null,"orgNos":null,"nowTime":null,"countyName":null,"streetName":null,"villageName":null,"roadName":null,"communityName":null,"tranName":null,"sdLineName":null,"cityCode":"3340170","cityName":"国网浙江杭州市富阳区供电公司","provinceCode":null,"stopTime":"2020-01-14 16:50:00","powerType":"全部","powerOffArea":"110kV松溪变:胥口D712线-高联村4#石畈公变台区低压开关后段","powerOffReason":"(低压停电信息)红亭子01线1#杆至1-6#杆吊车新立电杆2基、电杆移位3基、拔除旧杆2基、拆装横担5付、拉线4组、导线移位JKLYJ-70*4*5档、更换接户线4户、红亭子01线1-3-1开耐张、架设JKLYJ-35*2*1档、搭接、拆旧等工作。","powerOffId":"2020010331020094"},{"poweroffId":2020010331020072,"sgpoweroffId":null,"subsName":"","lineName":"10kV荆雪8042线","pubTranName":"曲水苑四,芦雪(六),流芳(二),蒹葭(四),流芳(六),凌波(二),蒋初2#变,蒋小2#变,龙章村4#,蒹葭(二),流芳(四),凌波(六),翔油(二),凌波(四),曲水苑六,蒹管2#,蒹葭(六),东耀2#变,1,芦雪(八),蒹葭(四),曲水苑二,芦雪(二),","scope":"浙江省-杭州市-西湖区-蒋村街道-竞渡社区-龙漳路 西溪花园小区","startTime":"2020-01-03 09:18:35","stopDate":"2020-01-03 16:30:35","orgNo":"3340101","typeCode":"电网故障停限电","poweroffArea":"110kV紫荆变:荆雪8042线-蒹葭二四线后段;荆雪8042线-芦雪二四线后段","poweroffReason":"高压开关跳闸 原停电结束时间为2020-01-03 17:18:35,为减少客户停电时间,加快工作进度,提前送电,现变更停电结束时间为2020-01-03 16:30:35","powerTime":"2020-01-03 15:51:18","powerComm":"已送电","subsNo":"","lineNo":"","tgNo":"","tgName":null,"infoStatus":"1","orgName":"浙江杭州电力客户服务中心","typeName":null,"infoStatusName":null,"dateDay":null,"orgNos":null,"nowTime":null,"countyName":null,"streetName":null,"villageName":null,"roadName":null,"communityName":null,"tranName":null,"sdLineName":null,"cityCode":"3340101","cityName":"浙江杭州电力客户服务中心","provinceCode":null,"stopTime":"2020-01-03 16:30:35","powerType":"全部","powerOffArea":"110kV紫荆变:荆雪8042线-蒹葭二四线后段;荆雪8042线-芦雪二四线后段","powerOffReason":"高压开关跳闸 原停电结束时间为2020-01-03 17:18:35,为减少客户停电时间,加快工作进度,提前送电,现变更停电结束时间为2020-01-03 16:30:35","powerOffId":"2020010331020072"},{"poweroffId":2020010331020071,"sgpoweroffId":null,"subsName":"","lineName":"10kV临天V644线","pubTranName":"浙江方宜电器有限公司,杭州市临安区城市建设投资集团有限公司1#,银都公寓公变,农工商超市集团临安有限公司,临安市市场监督管理局1#,气象局5＃公变,国际大酒店公变,九龙公寓公变,新民里公变,金宝商住楼公变,九龙花园公变,","scope":"浙江省-杭州市-临安市-锦城街道-农工商超市集团临安有限公司,浙江方宜电器有限公司,杭州市临安区市场监督管理局,杭州市临安区城市建设投资集团有限公司，新民里部分用户，银都公寓，九龙公寓，国际大酒店，金宝商住楼，九龙花园，新民街（江南路至江桥路）一带。","startTime":"2020-01-12 08:30:00","stopDate":"2020-01-12 17:30:00","orgNo":"3340160","typeCode":"计划停电","poweroffArea":"110kV锦城变:临天V644线18#杆6442开关","poweroffReason":"原停电结束时间为2020-01-12 14:30:00,因现场工作原因,现变更停电结束时间为2020-01-12 17:30:00","powerTime":"2020-01-12 17:09:51","powerComm":"已送电","subsNo":"","lineNo":"","tgNo":"","tgName":null,"infoStatus":"1","orgName":"国网浙江临安市供电公司","typeName":null,"infoStatusName":null,"dateDay":null,"orgNos":null,"nowTime":null,"countyName":null,"streetName":null,"villageName":null,"roadName":null,"communityName":null,"tranName":null,"sdLineName":null,"cityCode":"3340160","cityName":"国网浙江临安市供电公司","provinceCode":null,"stopTime":"2020-01-12 17:30:00","powerType":"全部","powerOffArea":"110kV锦城变:临天V644线18#杆6442开关","powerOffReason":"原停电结束时间为2020-01-12 14:30:00,因现场工作原因,现变更停电结束时间为2020-01-12 17:30:00","powerOffId":"2020010331020071"},{"poweroffId":2020010331020069,"sgpoweroffId":null,"subsName":"","lineName":"10kV解百V216线","pubTranName":"玫瑰苑公变,吕家弄公变,吕家弄2＃公变,","scope":"浙江省-杭州市-临安市-锦城街道-新民里社区-玫瑰苑，吕家弄一带。","startTime":"2020-01-12 08:30:00","stopDate":"2020-01-12 17:30:00","orgNo":"3340160","typeCode":"计划停电","poweroffArea":"110kV锦城变:解百V216线18#杆2162开关至2163开关间线路","poweroffReason":"原停电结束时间为2020-01-12 14:30:00,因现场工作原因,现变更停电结束时间为2020-01-12 17:30:00","powerTime":"2020-01-12 17:09:32","powerComm":"已送电","subsNo":"","lineNo":"","tgNo":"","tgName":null,"infoStatus":"1","orgName":"国网浙江临安市供电公司","typeName":null,"infoStatusName":null,"dateDay":null,"orgNos":null,"nowTime":null,"countyName":null,"streetName":null,"villageName":null,"roadName":null,"communityName":null,"tranName":null,"sdLineName":null,"cityCode":"3340160","cityName":"国网浙江临安市供电公司","provinceCode":null,"stopTime":"2020-01-12 17:30:00","powerType":"全部","powerOffArea":"110kV锦城变:解百V216线18#杆2162开关至2163开关间线路","powerOffReason":"原停电结束时间为2020-01-12 14:30:00,因现场工作原因,现变更停电结束时间为2020-01-12 17:30:00","powerOffId":"2020010331020069"},{"poweroffId":2020010331020066,"sgpoweroffId":null,"subsName":"","lineName":"10kV临天V644线","pubTranName":"会锦楼公变,临天路1#公变,","scope":"浙江省-杭州市-临安市-锦城街道-苕溪社区-会锦楼，临天路（新民街至临天九弄）一带。","startTime":"2020-01-11 08:40:00","stopDate":"2020-01-11 17:00:00","orgNo":"3340160","typeCode":"计划停电","poweroffArea":"110kV锦城变:临天V644线-临天V644线36#后段;临天V644线-临天V644线28#后段","poweroffReason":"水岸V363线农工站I段G3间隔、G5间隔电缆制作、试验、搭头，各新上630KVA欧式箱变。会锦楼公变、临天路1#公变低压割接至新上欧变","powerTime":"2020-01-11 16:50:16","powerComm":"已送电","subsNo":"","lineNo":"","tgNo":"","tgName":null,"infoStatus":"1","orgName":"国网浙江临安市供电公司","typeName":null,"infoStatusName":null,"dateDay":null,"orgNos":null,"nowTime":null,"countyName":null,"streetName":null,"villageName":null,"roadName":null,"communityName":null,"tranName":null,"sdLineName":null,"cityCode":"3340160","cityName":"国网浙江临安市供电公司","provinceCode":null,"stopTime":"2020-01-11 17:00:00","powerType":"全部","powerOffArea":"110kV锦城变:临天V644线-临天V644线36#后段;临天V644线-临天V644线28#后段","powerOffReason":"水岸V363线农工站I段G3间隔、G5间隔电缆制作、试验、搭头，各新上630KVA欧式箱变。会锦楼公变、临天路1#公变低压割接至新上欧变","powerOffId":"2020010331020066"},{"poweroffId":2020010331020063,"sgpoweroffId":null,"subsName":"","lineName":"10kV南苑V565线","pubTranName":"南苑二区4#公变,南苑二区1＃公变,南苑二区2#公变,新五洲公变,临安新五洲大酒店有限公司,胜利拆迁小区3＃公变,南苑二区3#公变,景杉路2#公变,民政局公变,临安市裕城酒店管理有限公司,杭州临安杭电化塑化有限公司,","scope":"浙江省-杭州市-临安市-锦城街道-临安市裕城酒店管理有限公司,杭州临安新五洲大酒店有限公司,杭州临安杭电化塑化有限公司，胜利拆迁小区，南苑二区，民政局，临天路（钱王街至景杉路），水杉路与景杉路交叉一带。","startTime":"2020-01-11 08:00:00","stopDate":"2020-01-11 16:00:00","orgNo":"3340160","typeCode":"计划停电","poweroffArea":"110kV锦南变:南苑V565线港城站南苑二小区分线开关后段","poweroffReason":"原南苑V565线港城站负荷改接至相应环网柜","powerTime":"2020-01-11 15:50:08","powerComm":"已送电","subsNo":"","lineNo":"","tgNo":"","tgName":null,"infoStatus":"1","orgName":"国网浙江临安市供电公司","typeName":null,"infoStatusName":null,"dateDay":null,"orgNos":null,"nowTime":null,"countyName":null,"streetName":null,"villageName":null,"roadName":null,"communityName":null,"tranName":null,"sdLineName":null,"cityCode":"3340160","cityName":"国网浙江临安市供电公司","provinceCode":null,"stopTime":"2020-01-11 16:00:00","powerType":"全部","powerOffArea":"110kV锦南变:南苑V565线港城站南苑二小区分线开关后段","powerOffReason":"原南苑V565线港城站负荷改接至相应环网柜","powerOffId":"2020010331020063"}],"pageModel":{"pageNow":616,"totalCount":17789,"totalPage":1779,"tableRows":0,"pageCount":10,"beginCount":6150},"isExperi":"1"}