{"message":"","today":"2020-06-15","seleList":[{"poweroffId":2020010131020051,"sgpoweroffId":null,"subsName":"","lineName":"10kV府第6796线","pubTranName":"西教,港达双路内部一3#,文路,古湾(8),港达双路内部一1#,港达双路内部一2#,","scope":"浙江省-杭州市-西湖区-翠苑街道-古荡湾社区(思娘桥,万塘路);翠苑街道(杭州市路灯管理所,浙江华越控制软件有限公司)","startTime":"2020-01-01 14:25:00","stopDate":"2020-01-01 16:20:00","orgNo":"3340101","typeCode":"电网故障停限电","poweroffArea":"110kV高技变:府第6796线俞家站西港二线后段","poweroffReason":"高压开关跳闸 原停电结束时间为2020-01-01 18:25:00,为减少客户停电时间,加快工作进度,提前送电,现变更停电结束时间为2020-01-01 16:20:00","powerTime":"2020-01-01 15:34:53","powerComm":"已送电","subsNo":"","lineNo":"","tgNo":"","tgName":null,"infoStatus":"1","orgName":"浙江杭州电力客户服务中心","typeName":null,"infoStatusName":null,"dateDay":null,"orgNos":null,"nowTime":null,"countyName":null,"streetName":null,"villageName":null,"roadName":null,"communityName":null,"tranName":null,"sdLineName":null,"cityCode":"3340101","cityName":"浙江杭州电力客户服务中心","provinceCode":null,"stopTime":"2020-01-01 16:20:00","powerType":"全部","powerOffArea":"110kV高技变:府第6796线俞家站西港二线后段","powerOffReason":"高压开关跳闸 原停电结束时间为2020-01-01 18:25:00,为减少客户停电时间,加快工作进度,提前送电,现变更停电结束时间为2020-01-01 16:20:00","powerOffId":"2020010131020051"},{"poweroffId":2020010131020050,"sgpoweroffId":null,"subsName":"","lineName":"10kV府第6796线","pubTranName":"枫华(1),华府(十),华府(十四),华府(十六),商博（二）,国安,华府(二),酒店,华府(六),华府(十二),华府(八),华府(四),","scope":"浙江省-杭州市-西湖区-翠苑街道-古荡湾社区(学院路,华星路),翠苑街道-花园社区(学院路,华星路),翠苑街道-黄姑山社区-学院路,西溪街道-西溪社区-学院路;古荡街道-浙江国都物业管理发展有限公司,翠苑街道(杭州锦辰酒店管理有限公司,浙江省国家安全厅)","startTime":"2020-01-01 14:25:00","stopDate":"2020-01-01 15:30:00","orgNo":"3340101","typeCode":"电网故障停限电","poweroffArea":"110kV高技变:府第6796线府第站油第7962线后段","poweroffReason":"高压开关跳闸 原停电结束时间为2020-01-01 18:25:00,为减少客户停电时间,加快工作进度,提前送电,现变更停电结束时间为2020-01-01 15:30:00","powerTime":"2020-01-01 14:54:35","powerComm":"已送电","subsNo":"","lineNo":"","tgNo":"","tgName":null,"infoStatus":"1","orgName":"浙江杭州电力客户服务中心","typeName":null,"infoStatusName":null,"dateDay":null,"orgNos":null,"nowTime":null,"countyName":null,"streetName":null,"villageName":null,"roadName":null,"communityName":null,"tranName":null,"sdLineName":null,"cityCode":"3340101","cityName":"浙江杭州电力客户服务中心","provinceCode":null,"stopTime":"2020-01-01 15:30:00","powerType":"全部","powerOffArea":"110kV高技变:府第6796线府第站油第7962线后段","powerOffReason":"高压开关跳闸 原停电结束时间为2020-01-01 18:25:00,为减少客户停电时间,加快工作进度,提前送电,现变更停电结束时间为2020-01-01 15:30:00","powerOffId":"2020010131020050"},{"poweroffId":2020010131020028,"sgpoweroffId":null,"subsName":"","lineName":"10kV阳创7415线","pubTranName":"沈家村,","scope":"浙江省杭州市下城区东新街道长浜路沈家村","startTime":"2020-01-01 11:07:00","stopDate":"2020-01-01 12:30:00","orgNo":"3340101","typeCode":"电网故障停限电","poweroffArea":"110kV安桥变:阳创7415线沈家村配变","poweroffReason":"高压开关跳闸 原停电结束时间为2020-01-01 14:07:00,为减少客户停电时间,加快工作进度,提前送电,现变更停电结束时间为2020-01-01 12:30:00","powerTime":"2020-01-01 11:58:44","powerComm":"已送电","subsNo":"","lineNo":"","tgNo":"","tgName":null,"infoStatus":"1","orgName":"浙江杭州电力客户服务中心","typeName":null,"infoStatusName":null,"dateDay":null,"orgNos":null,"nowTime":null,"countyName":null,"streetName":null,"villageName":null,"roadName":null,"communityName":null,"tranName":null,"sdLineName":null,"cityCode":"3340101","cityName":"浙江杭州电力客户服务中心","provinceCode":null,"stopTime":"2020-01-01 12:30:00","powerType":"全部","powerOffArea":"110kV安桥变:阳创7415线沈家村配变","powerOffReason":"高压开关跳闸 原停电结束时间为2020-01-01 14:07:00,为减少客户停电时间,加快工作进度,提前送电,现变更停电结束时间为2020-01-01 12:30:00","powerOffId":"2020010131020028"},{"poweroffId":2020010131020022,"sgpoweroffId":null,"subsName":"","lineName":"10kV旧县T225线","pubTranName":"母岭村7号公变,","scope":"浙江省-杭州市-桐庐县-旧县街道-母岭行政村-郭工塘自然村，旧县街道母岭村93号一带","startTime":"2020-01-01 10:32:41","stopDate":"2020-01-01 12:32:41","orgNo":"3340150","typeCode":"电网故障停限电","poweroffArea":"35kV西武变:旧县T225线-母岭村7号公变后段","poweroffReason":"(低压停电信息)低压开关跳闸","powerTime":"2020-01-01 12:10:02","powerComm":"已送电","subsNo":"","lineNo":"","tgNo":"","tgName":null,"infoStatus":"1","orgName":"国网浙江桐庐县供电公司","typeName":null,"infoStatusName":null,"dateDay":null,"orgNos":null,"nowTime":null,"countyName":null,"streetName":null,"villageName":null,"roadName":null,"communityName":null,"tranName":null,"sdLineName":null,"cityCode":"3340150","cityName":"国网浙江桐庐县供电公司","provinceCode":null,"stopTime":"2020-01-01 12:32:41","powerType":"全部","powerOffArea":"35kV西武变:旧县T225线-母岭村7号公变后段","powerOffReason":"(低压停电信息)低压开关跳闸","powerOffId":"2020010131020022"},{"poweroffId":2020010131020018,"sgpoweroffId":null,"subsName":"","lineName":"10kV圣堂H509线","pubTranName":"第三人民医院6120491430,大观山村良辰美苑5号公变,瓶窑镇政府（南山新城2号基建）6120348590,良辰美苑2号公变,西安寺村阮家畈公变,外窑村安置点（6120876938）01#专变,北湖中心小学（6120880435）01#专变,澄清排涝1,南山村弄里公变,教育资产（港渠路路灯）6120890405,杭州余杭瓶窑粮油贸易有限公司6110101009,粮食仓储,西安寺村圣堂四组公变,大观山安置点基建（6120877659）02#专变,气象局612062971701#专变,北湖小学基建,瓶窑路灯6120644553,西安寺村胡家桥2号公变,南山村刘家公变,大观山村良辰美苑8号公变,南山村枉山庙公变,杭州市瓶窑文教用品有限公司6110101012,瓶窑中学I段01#专变,南山村山门前公变,南山村杨火庙2号公变,南山村田畈2号公变,飞翔油脂,良辰美苑11号公变,杭州合邦矿山机械配件有限公司6120048226,南山新城基建2#变,良辰美苑1号公变,龙跃冷拉厂,窑山排涝2#,南山村南山公变,西安寺村圣堂头公变,南山村枉山公变,基础设施612064451601#专变,西安寺村胡家桥1号公变,良辰美苑12号公变,大观山村良辰美苑3号公变,澄清排涝2,南山村横山公变,大观山村良辰美苑6号公变,南山村相公庙1号公变,浙江博时市政园林建设有限公司6120842642基建变,南山村村委公变,鼎盛控股集团有限公司6120842582基建变,满元农业（6120683566）01#专变,良辰美苑10号公变,非遗博物馆II段（6120858417）02#变,大观山村良辰美苑4号公变,瓶窑中学,西溪小学基建02#专变,南山村东山公变,南山村观音堂公变,顶华木材612058373801#专变,南山村田畈1号公变,南山大桥路灯6120601658,第三人民医院6120491429,满元农业（6120683566）02#专变,良辰美苑9号公变,道尔通汽车6120871150,西安寺村圣塘村公变,交通项目(南山新城路灯)6120700568,大观山安置点基建（6120877659）01#专变,南山村杨火庙1号公变,西安寺村圣堂刘家公变,窑山排涝1#,浙江日田电子科技有限公司6111025519,南山村总管堂公变,外窑村安置点（6120876938）02#专变,西溪小学基建01#专变,南山村李王堂公变,南山村委排涝6120157860,杭州市原种场6110118039,104国道路灯612062128801#专变,内燃机,大观山村良辰美苑7号公变,","scope":"浙江省-杭州市-余杭区-瓶窑镇-西安寺行政村-阮家畈自然村、低田畈自然村、圣堂4(8组自然村,圣堂7组,圣堂自然村),瓶窑镇-西安寺行政村-圣堂自然村、圣堂4(8组自然村,圣堂4组自然村),瓶窑镇-瓶窑社区-羊城路,瓶窑镇-西安寺行政村(长山自然村,胡家桥自然村,圣堂1组,圣堂自然村,圣堂4组自然村,杨家园自然村,阮家畈自然村,圣堂3组,圣堂刘家自然村),瓶窑镇-大观山行政村(良辰美苑,凤溪路,华兴路),瓶窑镇-南山行政村(南山自然村,东山脚自然村,田畈自然村,观音堂自然村,横山组自然村,杨火庙自然村,山门前自然村,李王堂自然村,枉山庙自然村,刘家自然村,相公庙自然村,横山自然村,下山渠自然村,斗头组,总管堂自然村,弄里自然村,上塘湾自然村);瓶窑镇(杭州市余杭区瓶窑镇南山村村民委员会,浙江日田电子科技有限公司,杭州市余杭区瓶窑镇人民政府,杭州市瓶窑文教用品有限公司,杭州余杭瓶窑粮油贸易有限公司,杭州市原种场,杭州余杭区交通项目管理有限公司,鼎盛控股集团有限公司,浙江博时市政园林建设有限公司,杭州合邦矿山机械配件有限公司,杭州高翔润滑油有限公司,杭州余杭区粮食收储有限责任公司,杭州瓶窑内燃机配件有限公司,杭州市余杭区瓶窑镇第一幼儿园,杭州市瓶窑中学,杭州龙跃冷拉钢丝厂,杭州市余杭区第三人民医院,杭州顶华木材有限公司,杭州市余杭区气象局,杭州满元农业科技有限公司,杭州余杭苕溪城市建设有限公司,杭州道尔通汽车服务有限公司,杭州市余杭区瓶窑镇北湖中心小学)","startTime":"2020-01-01 09:44:00","stopDate":"2020-01-01 11:20:00","orgNo":"3340140","typeCode":"电网故障停限电","poweroffArea":"35kV瓶镇变:圣堂H509线伯言开关站伯言开关站圣堂H509线后段","poweroffReason":"高压开关跳闸 原停电结束时间为2020-01-01 12:44:00,为减少客户停电时间,加快工作进度,提前送电,现变更停电结束时间为2020-01-01 11:20:00","powerTime":"2020-01-01 10:50:00","powerComm":"已送电","subsNo":"","lineNo":"","tgNo":"","tgName":null,"infoStatus":"1","orgName":"国网浙江杭州市余杭区供电有限公司","typeName":null,"infoStatusName":null,"dateDay":null,"orgNos":null,"nowTime":null,"countyName":null,"streetName":null,"villageName":null,"roadName":null,"communityName":null,"tranName":null,"sdLineName":null,"cityCode":"3340140","cityName":"国网浙江杭州市余杭区供电有限公司","provinceCode":null,"stopTime":"2020-01-01 11:20:00","powerType":"全部","powerOffArea":"35kV瓶镇变:圣堂H509线伯言开关站伯言开关站圣堂H509线后段","powerOffReason":"高压开关跳闸 原停电结束时间为2020-01-01 12:44:00,为减少客户停电时间,加快工作进度,提前送电,现变更停电结束时间为2020-01-01 11:20:00","powerOffId":"2020010131020018"},{"poweroffId":2019123131020173,"sgpoweroffId":null,"subsName":"","lineName":"10kV莲塘H301线","pubTranName":"苕溪龙腰公变,","scope":"浙江省-杭州市-余杭区-仓前街道-吴山前行政村-吴山前自然村,仓前街道-苕溪行政村(秀才桥自然村,苕溪自然村)","startTime":"2019-12-31 17:58:10","stopDate":"2020-01-01 00:00:00","orgNo":"3340140","typeCode":"电网故障停限电","poweroffArea":"110kV柏庙变:莲塘H301线-苕溪龙腰公变后段","poweroffReason":"高压开关跳闸 原停电结束时间为2020-01-01 07:00:00,为减少客户停电时间,加快工作进度,提前送电,现变更停电结束时间为2020-01-01 00:00:00","powerTime":"2019-12-31 23:46:00","powerComm":"已送电","subsNo":"","lineNo":"","tgNo":"","tgName":null,"infoStatus":"1","orgName":"国网浙江杭州市余杭区供电有限公司","typeName":null,"infoStatusName":null,"dateDay":null,"orgNos":null,"nowTime":null,"countyName":null,"streetName":null,"villageName":null,"roadName":null,"communityName":null,"tranName":null,"sdLineName":null,"cityCode":"3340140","cityName":"国网浙江杭州市余杭区供电有限公司","provinceCode":null,"stopTime":"2020-01-01 00:00:00","powerType":"全部","powerOffArea":"110kV柏庙变:莲塘H301线-苕溪龙腰公变后段","powerOffReason":"高压开关跳闸 原停电结束时间为2020-01-01 07:00:00,为减少客户停电时间,加快工作进度,提前送电,现变更停电结束时间为2020-01-01 00:00:00","powerOffId":"2019123131020173"},{"poweroffId":2019123131020163,"sgpoweroffId":null,"subsName":"","lineName":"10kV肆联C472线","pubTranName":"瓜沥镇人民政府1#变,杭州市萧山区瓜沥镇人民政府2#,友谊村8#变,友谊村6#变,杭州萧山交通投资集团基础设施建设指挥部12#,友谊村5#变,瓜沥镇机场二期安置区7#变,杭州市萧山区瓜沥镇人民政府4#,杭州市萧山区瓜沥镇人民政府1#,杭州通达集团有限公司,进化村20#变,瓜沥镇机场二期安置区5#变,瓜沥镇机场二期安置区1#变,杭州市萧山区瓜沥镇人民政府3#,运西村11#变,风轩装饰变压器,瓜沥镇机场二期安置区2#变,运西村1#变,萧山区瓜沥镇第三小学,瓜沥镇机场二期安置区3#变,瓜沥镇机场二期安置区6#变,瓜沥镇机场二期安置区4#变,","scope":"浙江省-杭州市-萧山区-瓜沥镇-友谊行政村(友谊自然村,政通路,新安路),瓜沥镇(运西行政村-运西自然村,进化行政村-进化自然村);瓜沥镇-永福行政村(杭州风轩装饰材料有限公司,萧山区瓜沥镇第三小学),瓜沥镇(横埂头行政村-杭州市萧山区瓜沥镇人民政府,友谊行政村-杭州市萧山区瓜沥镇人民政府,运西行政村-杭州通达集团有限公司）、瓜沥镇详瑞家园一带","startTime":"2019-12-31 16:35:25","stopDate":"2019-12-31 18:30:25","orgNo":"3340130","typeCode":"电网故障停限电","poweroffArea":"35kV塘头变:肆联C472线-肆联C472线开关后段","poweroffReason":"高压柱上断路器短路故障 原停电结束时间为2019-12-31 18:43:25,为减少客户停电时间,加快工作进度,提前送电,现变更停电结束时间为2019-12-31 18:30:25","powerTime":"2019-12-31 17:52:18","powerComm":"已送电","subsNo":"","lineNo":"","tgNo":"","tgName":null,"infoStatus":"1","orgName":"国网浙江杭州市萧山区供电有限公司","typeName":null,"infoStatusName":null,"dateDay":null,"orgNos":null,"nowTime":null,"countyName":null,"streetName":null,"villageName":null,"roadName":null,"communityName":null,"tranName":null,"sdLineName":null,"cityCode":"3340130","cityName":"国网浙江杭州市萧山区供电有限公司","provinceCode":null,"stopTime":"2019-12-31 18:30:25","powerType":"全部","powerOffArea":"35kV塘头变:肆联C472线-肆联C472线开关后段","powerOffReason":"高压柱上断路器短路故障 原停电结束时间为2019-12-31 18:43:25,为减少客户停电时间,加快工作进度,提前送电,现变更停电结束时间为2019-12-31 18:30:25","powerOffId":"2019123131020163"},{"poweroffId":2019123131020154,"sgpoweroffId":null,"subsName":"","lineName":"10kV上喻T570线","pubTranName":"上喻村2号公变,","scope":"浙江省-杭州市-桐庐县-凤川街道-园林行政村-上喻自然村","startTime":"2019-12-31 16:04:42","stopDate":"2019-12-31 17:40:42","orgNo":"3340150","typeCode":"电网故障停限电","poweroffArea":"110kV旺家变:上喻T570线-上喻村2号公变后段","poweroffReason":"(低压停电信息)低压开关跳闸","powerTime":"2019-12-31 17:20:41","powerComm":"已送电","subsNo":"","lineNo":"","tgNo":"","tgName":null,"infoStatus":"1","orgName":"国网浙江桐庐县供电公司","typeName":null,"infoStatusName":null,"dateDay":null,"orgNos":null,"nowTime":null,"countyName":null,"streetName":null,"villageName":null,"roadName":null,"communityName":null,"tranName":null,"sdLineName":null,"cityCode":"3340150","cityName":"国网浙江桐庐县供电公司","provinceCode":null,"stopTime":"2019-12-31 17:40:42","powerType":"全部","powerOffArea":"110kV旺家变:上喻T570线-上喻村2号公变后段","powerOffReason":"(低压停电信息)低压开关跳闸","powerOffId":"2019123131020154"},{"poweroffId":2019123131020152,"sgpoweroffId":null,"subsName":"","lineName":"10kV东兴D560线","pubTranName":"浙江大运建筑工程有限公司,浙江大运建筑工程有限公司,","scope":"浙江省-杭州市-富阳区-富春街道(杭州市富阳区索知教育培训学校,杭州富阳皇家大酒店有限公司)","startTime":"2019-12-31 15:53:00","stopDate":"2019-12-31 17:53:00","orgNo":"3340170","typeCode":"电网故障停限电","poweroffArea":"110kV春江变:东兴D560线大运分线开关后段","poweroffReason":"高压开关跳闸","powerTime":"2019-12-31 17:23:39","powerComm":"已送电","subsNo":"","lineNo":"","tgNo":"","tgName":null,"infoStatus":"1","orgName":"国网浙江杭州市富阳区供电公司","typeName":null,"infoStatusName":null,"dateDay":null,"orgNos":null,"nowTime":null,"countyName":null,"streetName":null,"villageName":null,"roadName":null,"communityName":null,"tranName":null,"sdLineName":null,"cityCode":"3340170","cityName":"国网浙江杭州市富阳区供电公司","provinceCode":null,"stopTime":"2019-12-31 17:53:00","powerType":"全部","powerOffArea":"110kV春江变:东兴D560线大运分线开关后段","powerOffReason":"高压开关跳闸","powerOffId":"2019123131020152"},{"poweroffId":2019123131020151,"sgpoweroffId":null,"subsName":"","lineName":"10kV肆联C472线","pubTranName":"瓜沥镇机场二期安置区2#变,瓜沥镇机场二期安置区7#变,风轩装饰变压器,进化村20#变,瓜沥镇机场二期安置区1#变,瓜沥镇机场二期安置区4#变,瓜沥镇机场二期安置区3#变,瓜沥镇机场二期安置区6#变,杭州市萧山区瓜沥镇人民政府1#,瓜沥镇机场二期安置区5#变,杭州市萧山区瓜沥镇人民政府2#,杭州市萧山区瓜沥镇人民政府3#,萧山区瓜沥镇第三小学,杭州市萧山区瓜沥镇人民政府4#,","scope":"浙江省-杭州市-萧山区-瓜沥镇-进化行政村-进化自然村,瓜沥镇-友谊行政村(政通路,新安路);浙江省-杭州市-萧山区-瓜沥镇-横埂头行政村-杭州市萧山区瓜沥镇人民政府,瓜沥镇-永福行政村(杭州风轩装饰材料有限公司,萧山区瓜沥镇第三小学、友谊村、进化村一带","startTime":"2019-12-31 16:00:20","stopDate":"2019-12-31 17:10:20","orgNo":"3340130","typeCode":"电网故障停限电","poweroffArea":"35kV塘头变:肆联C472线-友永C472线友北开友永分线开关后段","poweroffReason":"高压柱上断路器短路故障 原停电结束时间为2019-12-31 18:00:20,为减少客户停电时间,加快工作进度,提前送电,现变更停电结束时间为2019-12-31 17:10:20","powerTime":"2019-12-31 16:25:09","powerComm":"已送电","subsNo":"","lineNo":"","tgNo":"","tgName":null,"infoStatus":"1","orgName":"国网浙江杭州市萧山区供电有限公司","typeName":null,"infoStatusName":null,"dateDay":null,"orgNos":null,"nowTime":null,"countyName":null,"streetName":null,"villageName":null,"roadName":null,"communityName":null,"tranName":null,"sdLineName":null,"cityCode":"3340130","cityName":"国网浙江杭州市萧山区供电有限公司","provinceCode":null,"stopTime":"2019-12-31 17:10:20","powerType":"全部","powerOffArea":"35kV塘头变:肆联C472线-友永C472线友北开友永分线开关后段","powerOffReason":"高压柱上断路器短路故障 原停电结束时间为2019-12-31 18:00:20,为减少客户停电时间,加快工作进度,提前送电,现变更停电结束时间为2019-12-31 17:10:20","powerOffId":"2019123131020151"}],"pageModel":{"pageNow":621,"totalCount":17789,"totalPage":1779,"tableRows":0,"pageCount":10,"beginCount":6200},"isExperi":"1"}