{"message":"","today":"2020-06-15","seleList":[{"poweroffId":2019123131020132,"sgpoweroffId":null,"subsName":"","lineName":"10kV半浜7371线","pubTranName":"西洋(10)农,","scope":"浙江省-杭州市-拱墅区-康桥街道-西杨社区-曹家簖21号西侧","startTime":"2019-12-31 14:46:00","stopDate":"2019-12-31 16:46:00","orgNo":"3340101","typeCode":"电网故障停限电","poweroffArea":"220kV金昌变:半浜7371线西洋(10)农配变","poweroffReason":"高压开关跳闸","powerTime":"2019-12-31 15:57:32","powerComm":"已送电","subsNo":"","lineNo":"","tgNo":"","tgName":null,"infoStatus":"1","orgName":"浙江杭州电力客户服务中心","typeName":null,"infoStatusName":null,"dateDay":null,"orgNos":null,"nowTime":null,"countyName":null,"streetName":null,"villageName":null,"roadName":null,"communityName":null,"tranName":null,"sdLineName":null,"cityCode":"3340101","cityName":"浙江杭州电力客户服务中心","provinceCode":null,"stopTime":"2019-12-31 16:46:00","powerType":"全部","powerOffArea":"220kV金昌变:半浜7371线西洋(10)农配变","powerOffReason":"高压开关跳闸","powerOffId":"2019123131020132"},{"poweroffId":2019123131020130,"sgpoweroffId":null,"subsName":"","lineName":"10kV新梅A473线","pubTranName":"新梅村11#变,","scope":"浙江省-杭州市-萧山区-党湾镇-新梅行政村(新农村,新梅自然村)","startTime":"2020-01-08 08:45:00","stopDate":"2020-01-08 16:00:00","orgNo":"3340130","typeCode":"计划停电","poweroffArea":"110kV幸福变:新梅A473线-新梅村11#变后段","poweroffReason":"(低压停电信息)新梅村11#变新做出线电缆2支 原停电结束时间为2020-01-08 16:45:00,为减少客户停电时间,加快工作进度,提前送电,现变更停电结束时间为2020-01-08 16:00:00","powerTime":"2020-01-08 15:43:32","powerComm":"已送电","subsNo":"","lineNo":"","tgNo":"","tgName":null,"infoStatus":"1","orgName":"国网浙江杭州市萧山区供电有限公司","typeName":null,"infoStatusName":null,"dateDay":null,"orgNos":null,"nowTime":null,"countyName":null,"streetName":null,"villageName":null,"roadName":null,"communityName":null,"tranName":null,"sdLineName":null,"cityCode":"3340130","cityName":"国网浙江杭州市萧山区供电有限公司","provinceCode":null,"stopTime":"2020-01-08 16:00:00","powerType":"全部","powerOffArea":"110kV幸福变:新梅A473线-新梅村11#变后段","powerOffReason":"(低压停电信息)新梅村11#变新做出线电缆2支 原停电结束时间为2020-01-08 16:45:00,为减少客户停电时间,加快工作进度,提前送电,现变更停电结束时间为2020-01-08 16:00:00","powerOffId":"2019123131020130"},{"poweroffId":2019123131020127,"sgpoweroffId":null,"subsName":"","lineName":"10kV宏发C149线","pubTranName":"杭州麒隆化纤有限公司,","scope":"浙江省-杭州市-萧山区-靖江街道-光明行政村-杭州麒隆化纤有限公司","startTime":"2020-01-09 09:30:00","stopDate":"2020-01-09 14:30:00","orgNo":"3340130","typeCode":"计划停电","poweroffArea":"110kV梅西变:宏发C149线-杭州麒隆化纤有限公司断路器后段","poweroffReason":"宏发C149线16/A02#杆令克换开关 原停电结束时间为2020-01-09 16:30:00,为减少客户停电时间,加快工作进度,提前送电,现变更停电结束时间为2020-01-09 14:30:00","powerTime":"2020-01-09 13:48:22","powerComm":"已送电","subsNo":"","lineNo":"","tgNo":"","tgName":null,"infoStatus":"1","orgName":"国网浙江杭州市萧山区供电有限公司","typeName":null,"infoStatusName":null,"dateDay":null,"orgNos":null,"nowTime":null,"countyName":null,"streetName":null,"villageName":null,"roadName":null,"communityName":null,"tranName":null,"sdLineName":null,"cityCode":"3340130","cityName":"国网浙江杭州市萧山区供电有限公司","provinceCode":null,"stopTime":"2020-01-09 14:30:00","powerType":"全部","powerOffArea":"110kV梅西变:宏发C149线-杭州麒隆化纤有限公司断路器后段","powerOffReason":"宏发C149线16/A02#杆令克换开关 原停电结束时间为2020-01-09 16:30:00,为减少客户停电时间,加快工作进度,提前送电,现变更停电结束时间为2020-01-09 14:30:00","powerOffId":"2019123131020127"},{"poweroffId":2019123131020126,"sgpoweroffId":null,"subsName":"","lineName":"10kV越富C152线","pubTranName":"2#变,杭州凯强化纤有限公司,","scope":"浙江省-杭州市-萧山区-靖江街道-甘露行政村-杭州凯强化纤有限公司","startTime":"2020-01-09 09:00:00","stopDate":"2020-01-09 14:10:00","orgNo":"3340130","typeCode":"计划停电","poweroffArea":"110kV梅西变:越富C152线-杭州凯强化纤有限公司开关后段","poweroffReason":"协谊C142线09/04#杆令克换开关 原停电结束时间为2020-01-09 16:30:00,为减少客户停电时间,加快工作进度,提前送电,现变更停电结束时间为2020-01-09 14:10:00","powerTime":"2020-01-09 13:20:23","powerComm":"已送电","subsNo":"","lineNo":"","tgNo":"","tgName":null,"infoStatus":"1","orgName":"国网浙江杭州市萧山区供电有限公司","typeName":null,"infoStatusName":null,"dateDay":null,"orgNos":null,"nowTime":null,"countyName":null,"streetName":null,"villageName":null,"roadName":null,"communityName":null,"tranName":null,"sdLineName":null,"cityCode":"3340130","cityName":"国网浙江杭州市萧山区供电有限公司","provinceCode":null,"stopTime":"2020-01-09 14:10:00","powerType":"全部","powerOffArea":"110kV梅西变:越富C152线-杭州凯强化纤有限公司开关后段","powerOffReason":"协谊C142线09/04#杆令克换开关 原停电结束时间为2020-01-09 16:30:00,为减少客户停电时间,加快工作进度,提前送电,现变更停电结束时间为2020-01-09 14:10:00","powerOffId":"2019123131020126"},{"poweroffId":2019123131020125,"sgpoweroffId":null,"subsName":"","lineName":"10kV协谊C142线","pubTranName":"光明村12#变,","scope":"浙江省-杭州市-萧山区-靖江街道-光明行政村-光明自然村","startTime":"2020-01-09 08:30:00","stopDate":"2020-01-09 11:55:00","orgNo":"3340130","typeCode":"计划停电","poweroffArea":"110kV梅西变:协谊C142线-光明村12#变后段","poweroffReason":"协谊C142线32/40/B01#杆光明村12#变令克更换工作 原停电结束时间为2020-01-09 16:30:00,为减少客户停电时间,加快工作进度,提前送电,现变更停电结束时间为2020-01-09 11:55:00","powerTime":"2020-01-09 11:05:18","powerComm":"已送电","subsNo":"","lineNo":"","tgNo":"","tgName":null,"infoStatus":"1","orgName":"国网浙江杭州市萧山区供电有限公司","typeName":null,"infoStatusName":null,"dateDay":null,"orgNos":null,"nowTime":null,"countyName":null,"streetName":null,"villageName":null,"roadName":null,"communityName":null,"tranName":null,"sdLineName":null,"cityCode":"3340130","cityName":"国网浙江杭州市萧山区供电有限公司","provinceCode":null,"stopTime":"2020-01-09 11:55:00","powerType":"全部","powerOffArea":"110kV梅西变:协谊C142线-光明村12#变后段","powerOffReason":"协谊C142线32/40/B01#杆光明村12#变令克更换工作 原停电结束时间为2020-01-09 16:30:00,为减少客户停电时间,加快工作进度,提前送电,现变更停电结束时间为2020-01-09 11:55:00","powerOffId":"2019123131020125"},{"poweroffId":2019123131020124,"sgpoweroffId":null,"subsName":"","lineName":"10kV新梅A473线","pubTranName":"新梅村12#变,曙光村1#变,新梅村14#变,","scope":"浙江省-杭州市-萧山区-党湾镇(新梅行政村-新梅自然村,曙光行政村-曙光自然村)","startTime":"2020-01-08 08:45:00","stopDate":"2020-01-08 16:00:00","orgNo":"3340130","typeCode":"计划停电","poweroffArea":"110kV幸福变:新梅A473线-新梅A473线萧冠分线开关（自）后段","poweroffReason":"新梅A473线40/B01#杆新梅村11#变拆装至新立22#杆，按标准化台区建造； 原停电结束时间为2020-01-08 16:45:00,为减少客户停电时间,加快工作进度,提前送电,现变更停电结束时间为2020-01-08 16:00:00","powerTime":"2020-01-08 15:42:12","powerComm":"已送电","subsNo":"","lineNo":"","tgNo":"","tgName":null,"infoStatus":"1","orgName":"国网浙江杭州市萧山区供电有限公司","typeName":null,"infoStatusName":null,"dateDay":null,"orgNos":null,"nowTime":null,"countyName":null,"streetName":null,"villageName":null,"roadName":null,"communityName":null,"tranName":null,"sdLineName":null,"cityCode":"3340130","cityName":"国网浙江杭州市萧山区供电有限公司","provinceCode":null,"stopTime":"2020-01-08 16:00:00","powerType":"全部","powerOffArea":"110kV幸福变:新梅A473线-新梅A473线萧冠分线开关（自）后段","powerOffReason":"新梅A473线40/B01#杆新梅村11#变拆装至新立22#杆，按标准化台区建造； 原停电结束时间为2020-01-08 16:45:00,为减少客户停电时间,加快工作进度,提前送电,现变更停电结束时间为2020-01-08 16:00:00","powerOffId":"2019123131020124"},{"poweroffId":2019123131020120,"sgpoweroffId":null,"subsName":"","lineName":"10kV永联A694线","pubTranName":"永联村镇海1#变,","scope":"浙江省-杭州市-萧山区-瓜沥镇永联行政村、镇海自然村、永联村、镇海行政村一带","startTime":"2019-12-31 14:18:55","stopDate":"2019-12-31 16:05:55","orgNo":"3340130","typeCode":"电网故障停限电","poweroffArea":"110kV白川变:永联A694线-永联村镇海1#变台区低压开关","poweroffReason":"(低压停电信息)低压漏电保护器短路故障 原停电结束时间为2019-12-31 16:30:55,为减少客户停电时间,加快工作进度,提前送电,现变更停电结束时间为2019-12-31 16:05:55","powerTime":"2019-12-31 15:12:08","powerComm":"已送电","subsNo":"","lineNo":"","tgNo":"","tgName":null,"infoStatus":"1","orgName":"国网浙江杭州市萧山区供电有限公司","typeName":null,"infoStatusName":null,"dateDay":null,"orgNos":null,"nowTime":null,"countyName":null,"streetName":null,"villageName":null,"roadName":null,"communityName":null,"tranName":null,"sdLineName":null,"cityCode":"3340130","cityName":"国网浙江杭州市萧山区供电有限公司","provinceCode":null,"stopTime":"2019-12-31 16:05:55","powerType":"全部","powerOffArea":"110kV白川变:永联A694线-永联村镇海1#变台区低压开关","powerOffReason":"(低压停电信息)低压漏电保护器短路故障 原停电结束时间为2019-12-31 16:30:55,为减少客户停电时间,加快工作进度,提前送电,现变更停电结束时间为2019-12-31 16:05:55","powerOffId":"2019123131020120"},{"poweroffId":2019123131020117,"sgpoweroffId":null,"subsName":"","lineName":"10kV下包Y768线","pubTranName":"幸福村高峰台区,","scope":"浙江省-杭州市-建德市-乾潭镇-邵家行政村-胥岭自然村一带用户。","startTime":"2019-12-31 14:06:00","stopDate":"2019-12-31 17:00:00","orgNo":"3340180","typeCode":"电网故障停限电","poweroffArea":"110kV乾潭变:下包Y768线幸福村高峰台区配变","poweroffReason":"高压开关跳闸","powerTime":"2019-12-31 16:08:00","powerComm":"已送电","subsNo":"","lineNo":"","tgNo":"","tgName":null,"infoStatus":"1","orgName":"国网浙江建德市供电有限公司","typeName":null,"infoStatusName":null,"dateDay":null,"orgNos":null,"nowTime":null,"countyName":null,"streetName":null,"villageName":null,"roadName":null,"communityName":null,"tranName":null,"sdLineName":null,"cityCode":"3340180","cityName":"国网浙江建德市供电有限公司","provinceCode":null,"stopTime":"2019-12-31 17:00:00","powerType":"全部","powerOffArea":"110kV乾潭变:下包Y768线幸福村高峰台区配变","powerOffReason":"高压开关跳闸","powerOffId":"2019123131020117"},{"poweroffId":2019123131020112,"sgpoweroffId":null,"subsName":"","lineName":"10kV勤丰D222线","pubTranName":"高桥村18号马塘桥西上公变,","scope":"浙江省-杭州市-富阳区-银湖街道-高桥行政村(马塘桥自然村,高桥西路,合丰自然村,高桥自然村,高新路)","startTime":"2019-12-31 13:47:15","stopDate":"2019-12-31 15:00:15","orgNo":"3340170","typeCode":"电网故障停限电","poweroffArea":"110kV银湖变:勤丰D222线-高桥村18号马塘桥西上公变后段","poweroffReason":"高压开关跳闸","powerTime":"2019-12-31 14:11:47","powerComm":"已送电","subsNo":"","lineNo":"","tgNo":"","tgName":null,"infoStatus":"1","orgName":"国网浙江杭州市富阳区供电公司","typeName":null,"infoStatusName":null,"dateDay":null,"orgNos":null,"nowTime":null,"countyName":null,"streetName":null,"villageName":null,"roadName":null,"communityName":null,"tranName":null,"sdLineName":null,"cityCode":"3340170","cityName":"国网浙江杭州市富阳区供电公司","provinceCode":null,"stopTime":"2019-12-31 15:00:15","powerType":"全部","powerOffArea":"110kV银湖变:勤丰D222线-高桥村18号马塘桥西上公变后段","powerOffReason":"高压开关跳闸","powerOffId":"2019123131020112"},{"poweroffId":2019123131020108,"sgpoweroffId":null,"subsName":"","lineName":"10kV闲镇H682线","pubTranName":"闲东公变,大树园公变,东海房产基建变4#,钼铁宿舍(1)公变,庙山(3)公变,东海房产基建5#,东海房产幼儿园变,杭州东海春房地产开发有限公司,庙山(2)公变,庙山(1)公变,东海房产1#临变,陈公井,东海阳光苑公变,","scope":"浙江省-杭州市-余杭区-闲林街道-方家山社区(庙山中路,庙山北路,社区,庙山路,闲林中路,文卫路,闲富中路,闲林东路,庙山南路),闲林街道(北山社区-闲林中路,闲林行政村-闲林中路,联荣行政村-联荣自然村);浙江省-杭州市-余杭区-闲林街道-华丰社区-杭州东海春房地产开发有限公司,闲林街道-北山社区(杭州市余杭区三之三闲湖城幼儿园,杭州东海春房地产开发有限公司)","startTime":"2019-12-31 13:03:20","stopDate":"2019-12-31 14:10:00","orgNo":"3340140","typeCode":"电网故障停限电","poweroffArea":"110kV闲林变:闲镇H682线-庙山分线开关后段","poweroffReason":"高压开关跳闸","powerTime":"2019-12-31 13:38:00","powerComm":"已送电","subsNo":"","lineNo":"","tgNo":"","tgName":null,"infoStatus":"1","orgName":"国网浙江杭州市余杭区供电有限公司","typeName":null,"infoStatusName":null,"dateDay":null,"orgNos":null,"nowTime":null,"countyName":null,"streetName":null,"villageName":null,"roadName":null,"communityName":null,"tranName":null,"sdLineName":null,"cityCode":"3340140","cityName":"国网浙江杭州市余杭区供电有限公司","provinceCode":null,"stopTime":"2019-12-31 14:10:00","powerType":"全部","powerOffArea":"110kV闲林变:闲镇H682线-庙山分线开关后段","powerOffReason":"高压开关跳闸","powerOffId":"2019123131020108"}],"pageModel":{"pageNow":622,"totalCount":17789,"totalPage":1779,"tableRows":0,"pageCount":10,"beginCount":6210},"isExperi":"1"}