{"message":"","today":"2020-06-15","seleList":[{"poweroffId":2019123131020106,"sgpoweroffId":null,"subsName":"","lineName":"10kV株林D243线","pubTranName":"株林坞2#北公变,株林坞1#南公变,","scope":"浙江省-杭州市-富阳区-东洲街道-黄公望行政村-株林坞自然村","startTime":"2019-12-31 12:50:39","stopDate":"2019-12-31 15:00:39","orgNo":"3340170","typeCode":"电网故障停限电","poweroffArea":"110kV白鹤变:株林D243线-株林坞分线开关后段","poweroffReason":"高压开关跳闸","powerTime":"2019-12-31 14:02:39","powerComm":"已送电","subsNo":"","lineNo":"","tgNo":"","tgName":null,"infoStatus":"1","orgName":"国网浙江杭州市富阳区供电公司","typeName":null,"infoStatusName":null,"dateDay":null,"orgNos":null,"nowTime":null,"countyName":null,"streetName":null,"villageName":null,"roadName":null,"communityName":null,"tranName":null,"sdLineName":null,"cityCode":"3340170","cityName":"国网浙江杭州市富阳区供电公司","provinceCode":null,"stopTime":"2019-12-31 15:00:39","powerType":"全部","powerOffArea":"110kV白鹤变:株林D243线-株林坞分线开关后段","powerOffReason":"高压开关跳闸","powerOffId":"2019123131020106"},{"poweroffId":2019123131020101,"sgpoweroffId":null,"subsName":"","lineName":"10kV湖塍D813线","pubTranName":"湖塍村8#郑家墩新区公变,","scope":"浙江省-杭州市-富阳区-富春街道-湖塍行政村-郑家墩自然村","startTime":"2019-12-31 12:22:28","stopDate":"2019-12-31 13:22:39","orgNo":"3340170","typeCode":"电网故障停限电","poweroffArea":"110kV容大变:湖塍D813线-湖塍村8#郑家墩新区公变后段","poweroffReason":"高压开关跳闸","powerTime":"2019-12-31 13:10:16","powerComm":"已送电","subsNo":"","lineNo":"","tgNo":"","tgName":null,"infoStatus":"1","orgName":"国网浙江杭州市富阳区供电公司","typeName":null,"infoStatusName":null,"dateDay":null,"orgNos":null,"nowTime":null,"countyName":null,"streetName":null,"villageName":null,"roadName":null,"communityName":null,"tranName":null,"sdLineName":null,"cityCode":"3340170","cityName":"国网浙江杭州市富阳区供电公司","provinceCode":null,"stopTime":"2019-12-31 13:22:39","powerType":"全部","powerOffArea":"110kV容大变:湖塍D813线-湖塍村8#郑家墩新区公变后段","powerOffReason":"高压开关跳闸","powerOffId":"2019123131020101"},{"poweroffId":2019123131020096,"sgpoweroffId":null,"subsName":"","lineName":"10kV四维G849线","pubTranName":"杭州华纺布艺有限公司612025552001#专变,伯乐针织,杭州余杭沾桥冷拉型钢厂250配变,","scope":"浙江省杭州市余杭区崇贤街道：杭州耀阳钢材经营部、杭州伯乐针织制衣有限公司、杭州华纺布艺有限公司一带","startTime":"2020-01-09 08:20:00","stopDate":"2020-01-09 15:20:00","orgNo":"3340140","typeCode":"计划停电","poweroffArea":"35kV独山变:四维G849线金独G84933开关-莫家G8600开关-金独G13751开关","poweroffReason":"崇贤至老余杭连接线（高架）10kV迁改工程-金独G8493线25号杆至26号杆上改下工作 原停电结束时间为2020-01-09 14:20:00,因天气原因,现变更停电结束时间为2020-01-09 15:20:00","powerTime":"2020-01-09 15:00:20","powerComm":"已送电","subsNo":"","lineNo":"","tgNo":"","tgName":null,"infoStatus":"1","orgName":"国网浙江杭州市余杭区供电有限公司","typeName":null,"infoStatusName":null,"dateDay":null,"orgNos":null,"nowTime":null,"countyName":null,"streetName":null,"villageName":null,"roadName":null,"communityName":null,"tranName":null,"sdLineName":null,"cityCode":"3340140","cityName":"国网浙江杭州市余杭区供电有限公司","provinceCode":null,"stopTime":"2020-01-09 15:20:00","powerType":"全部","powerOffArea":"35kV独山变:四维G849线金独G84933开关-莫家G8600开关-金独G13751开关","powerOffReason":"崇贤至老余杭连接线（高架）10kV迁改工程-金独G8493线25号杆至26号杆上改下工作 原停电结束时间为2020-01-09 14:20:00,因天气原因,现变更停电结束时间为2020-01-09 15:20:00","powerOffId":"2019123131020096"},{"poweroffId":2019123131020095,"sgpoweroffId":null,"subsName":"","lineName":"10kV独山G137线","pubTranName":"森特纺织,五星包装,远顺贸易,天地塑胶,","scope":"浙江省杭州市余杭区崇贤街道：杭州远顺贸易有限公司、杭州众誉纺织品有限公司、杭州众恒纺织品有限公司、杭州天地幕墙程有限公司一带","startTime":"2020-01-09 08:20:00","stopDate":"2020-01-09 14:20:00","orgNo":"3340140","typeCode":"计划停电","poweroffArea":"35kV沾桥变:独山G137线华兴分支箱分线","poweroffReason":"崇贤至老余杭连接线（高架）10kV迁改工程-独金1375线华兴分支箱分线电缆迁改工作","powerTime":"2020-01-09 13:33:55","powerComm":"已送电","subsNo":"","lineNo":"","tgNo":"","tgName":null,"infoStatus":"1","orgName":"国网浙江杭州市余杭区供电有限公司","typeName":null,"infoStatusName":null,"dateDay":null,"orgNos":null,"nowTime":null,"countyName":null,"streetName":null,"villageName":null,"roadName":null,"communityName":null,"tranName":null,"sdLineName":null,"cityCode":"3340140","cityName":"国网浙江杭州市余杭区供电有限公司","provinceCode":null,"stopTime":"2020-01-09 14:20:00","powerType":"全部","powerOffArea":"35kV沾桥变:独山G137线华兴分支箱分线","powerOffReason":"崇贤至老余杭连接线（高架）10kV迁改工程-独金1375线华兴分支箱分线电缆迁改工作","powerOffId":"2019123131020095"},{"poweroffId":2019123131020094,"sgpoweroffId":null,"subsName":"","lineName":"10kV青莲G144线","pubTranName":"杭州亨德莱家具有限公司,1#变压器,","scope":"浙江省杭州市余杭区塘栖镇：杭州杭忠塑胶有限公司、杭州超峰布艺有限公司一带","startTime":"2020-01-09 08:20:00","stopDate":"2020-01-09 14:20:00","orgNo":"3340140","typeCode":"计划停电","poweroffArea":"35kV南山变:青莲G144线伟星纺织分线","poweroffReason":"杭州超峰布艺有限公司线路移位工程：伟星纺织分线1#杆，2#杆移位，开关令克移用","powerTime":"2020-01-09 09:37:48","powerComm":"已送电","subsNo":"","lineNo":"","tgNo":"","tgName":null,"infoStatus":"1","orgName":"国网浙江杭州市余杭区供电有限公司","typeName":null,"infoStatusName":null,"dateDay":null,"orgNos":null,"nowTime":null,"countyName":null,"streetName":null,"villageName":null,"roadName":null,"communityName":null,"tranName":null,"sdLineName":null,"cityCode":"3340140","cityName":"国网浙江杭州市余杭区供电有限公司","provinceCode":null,"stopTime":"2020-01-09 14:20:00","powerType":"全部","powerOffArea":"35kV南山变:青莲G144线伟星纺织分线","powerOffReason":"杭州超峰布艺有限公司线路移位工程：伟星纺织分线1#杆，2#杆移位，开关令克移用","powerOffId":"2019123131020094"},{"poweroffId":2019123131020093,"sgpoweroffId":null,"subsName":"","lineName":"10kV中尚G127线","pubTranName":"中尚橄榄树4-1号公变,","scope":"浙江省杭州市余杭区崇贤街道：中尚橄榄树小区一带","startTime":"2020-01-08 08:20:00","stopDate":"2020-01-08 10:20:00","orgNo":"3340140","typeCode":"计划停电","poweroffArea":"35kV沾桥变:中尚G127线中尚橄榄树4号站中尚橄榄树4-1号公变分线","poweroffReason":"2019年杭州余杭塘栖10千伏中尚线橄榄树公变改造工程：橄榄开关站I段中尚橄榄树4号站中尚橄榄树4-1#公变增量至630kVA工作","powerTime":"2020-01-08 10:01:39","powerComm":"已送电","subsNo":"","lineNo":"","tgNo":"","tgName":null,"infoStatus":"1","orgName":"国网浙江杭州市余杭区供电有限公司","typeName":null,"infoStatusName":null,"dateDay":null,"orgNos":null,"nowTime":null,"countyName":null,"streetName":null,"villageName":null,"roadName":null,"communityName":null,"tranName":null,"sdLineName":null,"cityCode":"3340140","cityName":"国网浙江杭州市余杭区供电有限公司","provinceCode":null,"stopTime":"2020-01-08 10:20:00","powerType":"全部","powerOffArea":"35kV沾桥变:中尚G127线中尚橄榄树4号站中尚橄榄树4-1号公变分线","powerOffReason":"2019年杭州余杭塘栖10千伏中尚线橄榄树公变改造工程：橄榄开关站I段中尚橄榄树4号站中尚橄榄树4-1#公变增量至630kVA工作","powerOffId":"2019123131020093"},{"poweroffId":2019123131020092,"sgpoweroffId":null,"subsName":"","lineName":"10kV仁良G345线","pubTranName":"永胜村余家峰东公变,永胜村余家峰公变,洛阳村田头村公变,","scope":"浙江省杭州市余杭区仁和街道：永胜村余家峰、永胜村余家峰东、洛阳村田头村一带","startTime":"2020-01-08 08:20:00","stopDate":"2020-01-08 16:50:00","orgNo":"3340140","typeCode":"计划停电","poweroffArea":"110kV洛山变:仁良G345线智博开关站II段博三G3452线-博三G34522开关","poweroffReason":"杭州仁和先进制造业投资有限公司獐山港两侧提升改造工程：新立电杆1基，新上电缆2根，拆除3号杆-8号杆5档改中间电缆，全线标修修树、鸟巢清除工作","powerTime":"2020-01-08 16:23:33","powerComm":"已送电","subsNo":"","lineNo":"","tgNo":"","tgName":null,"infoStatus":"1","orgName":"国网浙江杭州市余杭区供电有限公司","typeName":null,"infoStatusName":null,"dateDay":null,"orgNos":null,"nowTime":null,"countyName":null,"streetName":null,"villageName":null,"roadName":null,"communityName":null,"tranName":null,"sdLineName":null,"cityCode":"3340140","cityName":"国网浙江杭州市余杭区供电有限公司","provinceCode":null,"stopTime":"2020-01-08 16:50:00","powerType":"全部","powerOffArea":"110kV洛山变:仁良G345线智博开关站II段博三G3452线-博三G34522开关","powerOffReason":"杭州仁和先进制造业投资有限公司獐山港两侧提升改造工程：新立电杆1基，新上电缆2根，拆除3号杆-8号杆5档改中间电缆，全线标修修树、鸟巢清除工作","powerOffId":"2019123131020092"},{"poweroffId":2019123131020091,"sgpoweroffId":null,"subsName":"","lineName":"10kV前河G333线","pubTranName":"螺丝坝排涝,永胜村姚家坝公变,仁和街道螺丝坝公变,浙江贝利建设集团有限公司612085358101#专变,永胜村姚家坝南公变,","scope":"浙江省杭州市余杭区仁和街道：永胜村姚家坝、永胜村姚家坝南、仁和街道螺丝坝、浙江贝利建设集团有限公司、螺丝坝排涝一带","startTime":"2020-01-08 08:20:00","stopDate":"2020-01-08 16:50:00","orgNo":"3340140","typeCode":"计划停电","poweroffArea":"110kV洛山变:前河G333线智博开关站I段智隔G3332线-智博G33322开关","poweroffReason":"杭州仁和先进制造业投资有限公司獐山港两侧提升改造工程前河G333线、仁良G345线上改下工程新立电杆1基，新上电缆2根，拆除3号杆-8号杆5档改中间电缆，全线标修修树、鸟巢清除工作","powerTime":"2020-01-08 16:23:15","powerComm":"已送电","subsNo":"","lineNo":"","tgNo":"","tgName":null,"infoStatus":"1","orgName":"国网浙江杭州市余杭区供电有限公司","typeName":null,"infoStatusName":null,"dateDay":null,"orgNos":null,"nowTime":null,"countyName":null,"streetName":null,"villageName":null,"roadName":null,"communityName":null,"tranName":null,"sdLineName":null,"cityCode":"3340140","cityName":"国网浙江杭州市余杭区供电有限公司","provinceCode":null,"stopTime":"2020-01-08 16:50:00","powerType":"全部","powerOffArea":"110kV洛山变:前河G333线智博开关站I段智隔G3332线-智博G33322开关","powerOffReason":"杭州仁和先进制造业投资有限公司獐山港两侧提升改造工程前河G333线、仁良G345线上改下工程新立电杆1基，新上电缆2根，拆除3号杆-8号杆5档改中间电缆，全线标修修树、鸟巢清除工作","powerOffId":"2019123131020091"},{"poweroffId":2019123131020090,"sgpoweroffId":null,"subsName":"","lineName":"10kV外山G335线","pubTranName":"仁和社区卫生服务中心2#,仁和社区卫生服务中心1#,东风村史家角公变,","scope":"浙江省杭州市余杭区仁和街道：东风村史家角、杭州市余杭区仁和街道社区卫生服务中心一带","startTime":"2020-01-07 08:20:00","stopDate":"2020-01-07 14:20:00","orgNo":"3340140","typeCode":"临时停电","poweroffArea":"110kV洛山变:外山G335线史家角分线","poweroffReason":"杭州仁和先进制造业投资有限公司接入系统工程：史家角分线5#杆令克开关拆除，新装真空开关，9#杆消缺工作","powerTime":"2020-01-07 13:39:16","powerComm":"已送电","subsNo":"","lineNo":"","tgNo":"","tgName":null,"infoStatus":"1","orgName":"国网浙江杭州市余杭区供电有限公司","typeName":null,"infoStatusName":null,"dateDay":null,"orgNos":null,"nowTime":null,"countyName":null,"streetName":null,"villageName":null,"roadName":null,"communityName":null,"tranName":null,"sdLineName":null,"cityCode":"3340140","cityName":"国网浙江杭州市余杭区供电有限公司","provinceCode":null,"stopTime":"2020-01-07 14:20:00","powerType":"全部","powerOffArea":"110kV洛山变:外山G335线史家角分线","powerOffReason":"杭州仁和先进制造业投资有限公司接入系统工程：史家角分线5#杆令克开关拆除，新装真空开关，9#杆消缺工作","powerOffId":"2019123131020090"},{"poweroffId":2019123131020089,"sgpoweroffId":null,"subsName":"","lineName":"10kV中尚G127线","pubTranName":"中尚橄榄树3-1号公变,","scope":"浙江省杭州市余杭区崇贤街道：中尚橄榄树小区一带","startTime":"2020-01-06 08:20:00","stopDate":"2020-01-06 15:20:00","orgNo":"3340140","typeCode":"临时停电","poweroffArea":"35kV沾桥变:中尚G127线中尚橄榄树3号站中尚橄榄树3-1号公变分线","poweroffReason":"2019年杭州余杭塘栖10千伏中尚线橄榄树公变改造工程：橄榄开关站I段中尚橄榄树3号站中尚橄榄树3-1#公变增量至630kVA工作","powerTime":"2020-01-06 15:18:00","powerComm":"已送电","subsNo":"","lineNo":"","tgNo":"","tgName":null,"infoStatus":"1","orgName":"国网浙江杭州市余杭区供电有限公司","typeName":null,"infoStatusName":null,"dateDay":null,"orgNos":null,"nowTime":null,"countyName":null,"streetName":null,"villageName":null,"roadName":null,"communityName":null,"tranName":null,"sdLineName":null,"cityCode":"3340140","cityName":"国网浙江杭州市余杭区供电有限公司","provinceCode":null,"stopTime":"2020-01-06 15:20:00","powerType":"全部","powerOffArea":"35kV沾桥变:中尚G127线中尚橄榄树3号站中尚橄榄树3-1号公变分线","powerOffReason":"2019年杭州余杭塘栖10千伏中尚线橄榄树公变改造工程：橄榄开关站I段中尚橄榄树3号站中尚橄榄树3-1#公变增量至630kVA工作","powerOffId":"2019123131020089"}],"pageModel":{"pageNow":623,"totalCount":17789,"totalPage":1779,"tableRows":0,"pageCount":10,"beginCount":6220},"isExperi":"1"}