{"message":"","today":"2020-06-15","seleList":[{"poweroffId":2020060131020198,"sgpoweroffId":null,"subsName":"","lineName":"10kV百亩V184线","pubTranName":"10kv太源村【富源外】公变,","scope":"浙江省-杭州市-临安市-太阳镇-富源外一带","startTime":"2020-06-10 12:50:00","stopDate":"2020-06-10 17:10:00","orgNo":"3340160","typeCode":"计划停电","poweroffArea":"35kV太阳变:百亩V184线班竹坞分线5#杆太源村（富源外）公变低压九龙坑3000线","poweroffReason":"(低压停电信息)10千伏枫树岭村徐家湾等增容布点：百亩V184线班竹坞分线太源村（九龙坑）公变布点低压割接","powerTime":"2020-06-10 17:00:10","powerComm":"已送电","subsNo":"","lineNo":"","tgNo":"","tgName":null,"infoStatus":"1","orgName":"国网浙江临安市供电公司","typeName":null,"infoStatusName":null,"dateDay":null,"orgNos":null,"nowTime":null,"countyName":null,"streetName":null,"villageName":null,"roadName":null,"communityName":null,"tranName":null,"sdLineName":null,"cityCode":"3340160","cityName":"国网浙江临安市供电公司","provinceCode":null,"stopTime":"2020-06-10 17:10:00","powerType":"全部","powerOffArea":"35kV太阳变:百亩V184线班竹坞分线5#杆太源村（富源外）公变低压九龙坑3000线","powerOffReason":"(低压停电信息)10千伏枫树岭村徐家湾等增容布点：百亩V184线班竹坞分线太源村（九龙坑）公变布点低压割接","powerOffId":"2020060131020198"},{"poweroffId":2020060131020197,"sgpoweroffId":null,"subsName":"","lineName":"10kV沈家V185线","pubTranName":"10kV方元村[方元公路]公变,","scope":"浙江省-杭州市-临安市-於潜镇-方元公路一带","startTime":"2020-06-10 08:20:00","stopDate":"2020-06-10 15:10:00","orgNo":"3340160","typeCode":"计划停电","poweroffArea":"35kV太阳变:沈家V185线方元村变分线5#杆10KV方元村（方元公路）公变低压2000线","poweroffReason":"(低压停电信息)配合沈家V185线枫林V255线103#杆至110#杆线路拆除","powerTime":"2020-06-10 15:00:18","powerComm":"已送电","subsNo":"","lineNo":"","tgNo":"","tgName":null,"infoStatus":"1","orgName":"国网浙江临安市供电公司","typeName":null,"infoStatusName":null,"dateDay":null,"orgNos":null,"nowTime":null,"countyName":null,"streetName":null,"villageName":null,"roadName":null,"communityName":null,"tranName":null,"sdLineName":null,"cityCode":"3340160","cityName":"国网浙江临安市供电公司","provinceCode":null,"stopTime":"2020-06-10 15:10:00","powerType":"全部","powerOffArea":"35kV太阳变:沈家V185线方元村变分线5#杆10KV方元村（方元公路）公变低压2000线","powerOffReason":"(低压停电信息)配合沈家V185线枫林V255线103#杆至110#杆线路拆除","powerOffId":"2020060131020197"},{"poweroffId":2020060131020196,"sgpoweroffId":null,"subsName":"","lineName":"10kV绍鲁V502线","pubTranName":"10kV光明村[敖干村企业]公变,","scope":"浙江省-杭州市-临安市-於潜镇-敖干村企业一带","startTime":"2020-06-10 08:00:00","stopDate":"2020-06-10 12:20:00","orgNo":"3340160","typeCode":"计划停电","poweroffArea":"110kV於潜变:绍鲁V502线88#杆敖干分线","poweroffReason":"光明村（敖干村企业）公变100KVA变压器增容至400KVA，原屋顶式改为杆上式","powerTime":"2020-06-10 11:49:00","powerComm":"已送电","subsNo":"","lineNo":"","tgNo":"","tgName":null,"infoStatus":"1","orgName":"国网浙江临安市供电公司","typeName":null,"infoStatusName":null,"dateDay":null,"orgNos":null,"nowTime":null,"countyName":null,"streetName":null,"villageName":null,"roadName":null,"communityName":null,"tranName":null,"sdLineName":null,"cityCode":"3340160","cityName":"国网浙江临安市供电公司","provinceCode":null,"stopTime":"2020-06-10 12:20:00","powerType":"全部","powerOffArea":"110kV於潜变:绍鲁V502线88#杆敖干分线","powerOffReason":"光明村（敖干村企业）公变100KVA变压器增容至400KVA，原屋顶式改为杆上式","powerOffId":"2020060131020196"},{"poweroffId":2020060131020195,"sgpoweroffId":null,"subsName":"","lineName":"10kV枫林V255线","pubTranName":"10kV昔口村[钱家后坎]公变,","scope":"浙江省-杭州市-临安市-於潜镇-钱家后坎一带","startTime":"2020-06-09 07:30:00","stopDate":"2020-06-09 15:20:00","orgNo":"3340160","typeCode":"计划停电","poweroffArea":"35kV太阳变:枫林V255线开枫林V255线109#杆2554开关、高速分线29#杆开关","poweroffReason":"临金高速一期迁改：1、铜山V697线潜洲站至方元V690线幸福站幸潜6904线电缆拆除（联络关系解除） 原停电结束时间为2020-06-09 17:30:00,为减少客户停电时间,加快工作进度,提前送电,现变更停电结束时间为2020-06-09 15:20:00","powerTime":"2020-06-09 14:43:39","powerComm":"已送电","subsNo":"","lineNo":"","tgNo":"","tgName":null,"infoStatus":"1","orgName":"国网浙江临安市供电公司","typeName":null,"infoStatusName":null,"dateDay":null,"orgNos":null,"nowTime":null,"countyName":null,"streetName":null,"villageName":null,"roadName":null,"communityName":null,"tranName":null,"sdLineName":null,"cityCode":"3340160","cityName":"国网浙江临安市供电公司","provinceCode":null,"stopTime":"2020-06-09 15:20:00","powerType":"全部","powerOffArea":"35kV太阳变:枫林V255线开枫林V255线109#杆2554开关、高速分线29#杆开关","powerOffReason":"临金高速一期迁改：1、铜山V697线潜洲站至方元V690线幸福站幸潜6904线电缆拆除（联络关系解除） 原停电结束时间为2020-06-09 17:30:00,为减少客户停电时间,加快工作进度,提前送电,现变更停电结束时间为2020-06-09 15:20:00","powerOffId":"2020060131020195"},{"poweroffId":2020060131020194,"sgpoweroffId":null,"subsName":"","lineName":"10kV沈家V185线","pubTranName":"10kV横鑫村[正坞罗鼓园]公变,","scope":"浙江省-杭州市-临安市-於潜镇-正坞罗鼓园一带","startTime":"2020-06-09 07:50:00","stopDate":"2020-06-09 15:20:00","orgNo":"3340160","typeCode":"计划停电","poweroffArea":"35kV太阳变:沈家V185线罗鼓园支线横鑫村（正坞罗鼓园）公变低压对面1000线","poweroffReason":"(低压停电信息)配合临金高速一期迁改 原停电结束时间为2020-06-09 17:00:00,为减少客户停电时间,加快工作进度,提前送电,现变更停电结束时间为2020-06-09 15:20:00","powerTime":"2020-06-09 14:43:52","powerComm":"已送电","subsNo":"","lineNo":"","tgNo":"","tgName":null,"infoStatus":"1","orgName":"国网浙江临安市供电公司","typeName":null,"infoStatusName":null,"dateDay":null,"orgNos":null,"nowTime":null,"countyName":null,"streetName":null,"villageName":null,"roadName":null,"communityName":null,"tranName":null,"sdLineName":null,"cityCode":"3340160","cityName":"国网浙江临安市供电公司","provinceCode":null,"stopTime":"2020-06-09 15:20:00","powerType":"全部","powerOffArea":"35kV太阳变:沈家V185线罗鼓园支线横鑫村（正坞罗鼓园）公变低压对面1000线","powerOffReason":"(低压停电信息)配合临金高速一期迁改 原停电结束时间为2020-06-09 17:00:00,为减少客户停电时间,加快工作进度,提前送电,现变更停电结束时间为2020-06-09 15:20:00","powerOffId":"2020060131020194"},{"poweroffId":2020060131020193,"sgpoweroffId":null,"subsName":"","lineName":"10kV铜山V697线","pubTranName":"10kV下埠村[下埠泥鳅岭]公变,","scope":"浙江省-杭州市-临安市-於潜镇-下埠泥鳅岭一带","startTime":"2020-06-08 07:50:00","stopDate":"2020-06-08 15:10:00","orgNo":"3340160","typeCode":"临时停电","poweroffArea":"110kV於潜变:铜山V697线潜洲站泥鳅分线10KV下埠村（下埠泥鳅岭）公变低压西路2000线段","poweroffReason":"(低压停电信息)临金高速一期迁改：配合临金高速线路钢管塔组立，1-9#架线。","powerTime":"2020-06-08 15:00:27","powerComm":"已送电","subsNo":"","lineNo":"","tgNo":"","tgName":null,"infoStatus":"1","orgName":"国网浙江临安市供电公司","typeName":null,"infoStatusName":null,"dateDay":null,"orgNos":null,"nowTime":null,"countyName":null,"streetName":null,"villageName":null,"roadName":null,"communityName":null,"tranName":null,"sdLineName":null,"cityCode":"3340160","cityName":"国网浙江临安市供电公司","provinceCode":null,"stopTime":"2020-06-08 15:10:00","powerType":"全部","powerOffArea":"110kV於潜变:铜山V697线潜洲站泥鳅分线10KV下埠村（下埠泥鳅岭）公变低压西路2000线段","powerOffReason":"(低压停电信息)临金高速一期迁改：配合临金高速线路钢管塔组立，1-9#架线。","powerOffId":"2020060131020193"},{"poweroffId":2020060131020192,"sgpoweroffId":null,"subsName":"","lineName":"10kV新梅V230线","pubTranName":"10kV双坑村[陈益坞]公变,","scope":"浙江省-杭州市-临安市-於潜镇-陈益坞一带","startTime":"2020-06-08 07:40:00","stopDate":"2020-06-08 12:20:00","orgNo":"3340160","typeCode":"临时停电","poweroffArea":"35kV潜川变:新梅V230线小马腿分线13#杆陈益坞公变支线","poweroffReason":"10千伏古竺村里古席家等增容布点：新梅V230线小马腿分线13#杆陈益坞公变支线1#杆10KV双坑村（陈益坞）公变由原屋顶改为杆上式、原80KVA变压器增容至200KVA、进出线电缆调换。","powerTime":"2020-06-08 12:13:55","powerComm":"已送电","subsNo":"","lineNo":"","tgNo":"","tgName":null,"infoStatus":"1","orgName":"国网浙江临安市供电公司","typeName":null,"infoStatusName":null,"dateDay":null,"orgNos":null,"nowTime":null,"countyName":null,"streetName":null,"villageName":null,"roadName":null,"communityName":null,"tranName":null,"sdLineName":null,"cityCode":"3340160","cityName":"国网浙江临安市供电公司","provinceCode":null,"stopTime":"2020-06-08 12:20:00","powerType":"全部","powerOffArea":"35kV潜川变:新梅V230线小马腿分线13#杆陈益坞公变支线","powerOffReason":"10千伏古竺村里古席家等增容布点：新梅V230线小马腿分线13#杆陈益坞公变支线1#杆10KV双坑村（陈益坞）公变由原屋顶改为杆上式、原80KVA变压器增容至200KVA、进出线电缆调换。","powerOffId":"2020060131020192"},{"poweroffId":2020060131020190,"sgpoweroffId":null,"subsName":"","lineName":"10kV新梅V230线","pubTranName":"中交三公局第一工程有限公司3#,","scope":"浙江省-杭州市-临安市-潜川镇-中交三公局第一工程有限公司一带","startTime":"2020-06-08 08:00:00","stopDate":"2020-06-08 12:00:00","orgNo":"3340160","typeCode":"临时停电","poweroffArea":"35kV潜川变:新梅V230线双坑分线47#杆潜川互通基建变支线","poweroffReason":"临金高速二期潜川互通01项：新梅V230线双坑分线潜川互通基建变支线3#-4#杆线路拆除，星奥V515线75#杆新出潜川互通拌合站分线1-48#杆，新梅V230线双坑分线潜川互通基建变支线4#杆后段线路改接至星奥V515线潜川互通拌和站分线48#杆","powerTime":"2020-06-08 11:50:16","powerComm":"已送电","subsNo":"","lineNo":"","tgNo":"","tgName":null,"infoStatus":"1","orgName":"国网浙江临安市供电公司","typeName":null,"infoStatusName":null,"dateDay":null,"orgNos":null,"nowTime":null,"countyName":null,"streetName":null,"villageName":null,"roadName":null,"communityName":null,"tranName":null,"sdLineName":null,"cityCode":"3340160","cityName":"国网浙江临安市供电公司","provinceCode":null,"stopTime":"2020-06-08 12:00:00","powerType":"全部","powerOffArea":"35kV潜川变:新梅V230线双坑分线47#杆潜川互通基建变支线","powerOffReason":"临金高速二期潜川互通01项：新梅V230线双坑分线潜川互通基建变支线3#-4#杆线路拆除，星奥V515线75#杆新出潜川互通拌合站分线1-48#杆，新梅V230线双坑分线潜川互通基建变支线4#杆后段线路改接至星奥V515线潜川互通拌和站分线48#杆","powerOffId":"2020060131020190"},{"poweroffId":2020060131020188,"sgpoweroffId":null,"subsName":"","lineName":"10kV上章Y199线","pubTranName":"雅地公馆3#公变,新华4号公变,新华3号公变,建德市城市建设开发有限公司,城东村新华台区,东湾丽景3#公变台区,建德市城市建设开发有限公司变压器,雅地公馆5#公变,朝阳小苑公变台区,青龙头社区乐豪1号公变,建德君廷大酒店有限公司2#变压器,朱池B14地块下边台区,杭州新马电梯有限公司1#,杭州惠都新型墙体材料有限公司,洋溪社区上章台区,杭州大明化工有限公司,杭州新马电梯有限公司2#,东湾丽景1#公变台区,建德市新安江污水处理厂,新华小区1#公变台区,建德市城市建设发展投资有限公司,雅地公馆1#公变,中国石油化工股份有限公司浙江杭州石油分公司,东湾丽景2#公变台区,朱池村朱池台区,丽景2#公变变压器,","scope":"浙江省-杭州市-建德市-洋溪街道-朱池行政村(320国道,朱池自然村,新安江路),洋溪街道-城东行政村(青龙头自然村,新华自然村,雅鼎路),洋溪街道(洋溪社区-上章自然村,青龙头社区-雅鼎路);洋溪街道(建德市城市建设发展投资有限公司,中国石化销售股份有限公司浙江杭州石油分公司,建德市新安城市照明管理有限公司,建德皇爵精品酒店有限公司,杭州大明化工有限公司,杭州新马电梯有限公司,杭州建德污水处理有限公司,杭州惠都新型墙体材料有限公司)","startTime":"2020-06-01 11:10:00","stopDate":"2020-06-01 16:00:00","orgNo":"3340180","typeCode":"电网故障停限电","poweroffArea":"35kV洋溪变:上章Y199线上章Y199线开关后段","poweroffReason":"高压开关跳闸 原停电结束时间为2020-06-01 14:30:00,因场环境复杂原因,延迟送电,现变更停电结束时间为2020-06-01 16:00:00","powerTime":"2020-06-01 15:02:00","powerComm":"已送电","subsNo":"","lineNo":"","tgNo":"","tgName":null,"infoStatus":"1","orgName":"国网浙江建德市供电有限公司","typeName":null,"infoStatusName":null,"dateDay":null,"orgNos":null,"nowTime":null,"countyName":null,"streetName":null,"villageName":null,"roadName":null,"communityName":null,"tranName":null,"sdLineName":null,"cityCode":"3340180","cityName":"国网浙江建德市供电有限公司","provinceCode":null,"stopTime":"2020-06-01 16:00:00","powerType":"全部","powerOffArea":"35kV洋溪变:上章Y199线上章Y199线开关后段","powerOffReason":"高压开关跳闸 原停电结束时间为2020-06-01 14:30:00,因场环境复杂原因,延迟送电,现变更停电结束时间为2020-06-01 16:00:00","powerOffId":"2020060131020188"},{"poweroffId":2020060131020172,"sgpoweroffId":null,"subsName":"","lineName":"10kV建材V545线","pubTranName":"西村2,","scope":"浙江省-杭州市-临安市-板桥镇-环湖行政村-西村自然村)","startTime":"2020-06-11 08:20:00","stopDate":"2020-06-11 13:30:50","orgNo":"3340160","typeCode":"计划停电","poweroffArea":"110kV板桥变:建材V545线橡胶密封件厂分线5#杆西村2配变令克","poweroffReason":"配变超满载治理 原停电结束时间为2020-06-11 14:20:00,为减少客户停电时间,加快工作进度,提前送电,现变更停电结束时间为2020-06-11 13:30:50","powerTime":"2020-06-11 12:31:47","powerComm":"已送电","subsNo":"","lineNo":"","tgNo":"","tgName":null,"infoStatus":"1","orgName":"国网浙江临安市供电公司","typeName":null,"infoStatusName":null,"dateDay":null,"orgNos":null,"nowTime":null,"countyName":null,"streetName":null,"villageName":null,"roadName":null,"communityName":null,"tranName":null,"sdLineName":null,"cityCode":"3340160","cityName":"国网浙江临安市供电公司","provinceCode":null,"stopTime":"2020-06-11 13:30:50","powerType":"全部","powerOffArea":"110kV板桥变:建材V545线橡胶密封件厂分线5#杆西村2配变令克","powerOffReason":"配变超满载治理 原停电结束时间为2020-06-11 14:20:00,为减少客户停电时间,加快工作进度,提前送电,现变更停电结束时间为2020-06-11 13:30:50","powerOffId":"2020060131020172"}],"pageModel":{"pageNow":62,"totalCount":17786,"totalPage":1779,"tableRows":0,"pageCount":10,"beginCount":610},"isExperi":"1"}