{"message":"","today":"2020-06-15","seleList":[{"poweroffId":2019123131020034,"sgpoweroffId":null,"subsName":"","lineName":"10kV奉水G273线","pubTranName":"杭州市公安用户（集中关押场所）3#变,九龙村九龙公变,杭州华塑色母有限公司,九龙村上港南3#公变,杭州仁龙实业有限公司,杭州市余杭区人民政府仁和街道办事处612065592501#专变,杭州东安金属制造有限公司,杭州市公安用户（集中关押场所）2#变,杭州欧源纺织有限公司,九龙村上港中公变,杭州鼎久实业有限公司612081533101#专变,杭州天翔新型建材有限公司,杭州余杭区仁和裕农预制场,杭州三益金属软管制品有限公司,九龙村张花弄东公变,杭州尊尚壁装饰材料有限公司,天翔新型建材（6120087062）2#变,杭州仁龙实业有限公司,杭州布源纺织有限公司,杭州市公安用户（集中关押场所）1#变,九龙村张花弄公变,九龙村计家桥公变,三峡移民公变,九龙村上港北2#公变,","scope":"浙江省-杭州市-余杭区-仁和街道-九龙行政村(上港自然村,九龙村,俞家门自然村,何家门自然村,孙家抖自然村,吴家斗自然村,吴家抖自然村,费家里自然村,张花弄自然村,九龙自然村,凌家埭自然村,莫家塘自然村,计家里自然村,计家桥自然村,孙家斗,沈家门自然村,骆家抖自然村,马家塘自然村,缪家里自然村,李家桥自然村,人民墩自然村,三峡移民自然村);浙江省-杭州市-余杭区-仁和街道-东风行政村-杭州天翔新型建材股份有限公司,仁和街道-九龙行政村(杭州三益金属软管制品有限公司,杭州布源纺织有限公司,杭州尊尚壁装饰材料有限公司,杭州市公安局监所管理支队,杭州华塑色母有限公司,杭州良渚玉琮扑克有限公司,杭州鼎久实业有限公司,杭州市余杭区人民政府仁和街道办事处,杭州余杭裕农建材有限公司)","startTime":"2019-12-31 09:16:09","stopDate":"2019-12-31 11:16:09","orgNo":"3340140","typeCode":"电网故障停限电","poweroffArea":"110kV仁镇变:奉水G273线","poweroffReason":"高压开关跳闸","powerTime":"2019-12-31 11:07:52","powerComm":"已送电","subsNo":"","lineNo":"","tgNo":"","tgName":null,"infoStatus":"1","orgName":"国网浙江杭州市余杭区供电有限公司","typeName":null,"infoStatusName":null,"dateDay":null,"orgNos":null,"nowTime":null,"countyName":null,"streetName":null,"villageName":null,"roadName":null,"communityName":null,"tranName":null,"sdLineName":null,"cityCode":"3340140","cityName":"国网浙江杭州市余杭区供电有限公司","provinceCode":null,"stopTime":"2019-12-31 11:16:09","powerType":"全部","powerOffArea":"110kV仁镇变:奉水G273线","powerOffReason":"高压开关跳闸","powerOffId":"2019123131020034"},{"poweroffId":2019123131020024,"sgpoweroffId":null,"subsName":"","lineName":"10kV双庙V253线","pubTranName":"10kV太阳村[高拔村]公变,10kV太阳村[高拔蒋家]公变,临安浪山董公家庭农场,10kV浪山村[浪山四门头]公变,临安神舟工具有限公司,10kV上庄村[中庄]公变,10kV上庄村[横坞口]公变,临安市田园建材有限公司,10kV景村村[徐家村]公变,临安荣达五金工具厂,10kV景村村[徐家企业]公变,杭州临安钱王鸵鸟养殖有限公司,10kV太阳村[高拔扶善]公变,10kV双庙村[陶家]公变,10kV浪山村[杨家坞青顶山]公变,10kV双庙村[朱伊外]公变,10kV景村村[景村村]公变,10kV太阳村[高拔杨春畈]公变,10kV浪山村[杨家坞村]公变,10kv双庙村【干溪头】公变,10kV浪山村[浪山企业]公变,10kV景村村[景村企业]公变,10kV上庄村[下庄]公变,临安同友五金工具有限公司,临安荣腾工具有限公司,10kV景村村[水踏畈]公变,临安恒达印制电路板厂1#,10kV大地村[周家村]公变,10kV大地村[周家苦竹]公变,临安市博远彩印包装有限公司,10kV上庄村[上庄村坞口]公变,临安市继生有机肥料有限公司1#,10kV大地村[大地企业]公变,杭州临安枫林家庭农场,杭州天山医药玻璃有限公司,10kV上庄村[文庄]公变,临安湘阳围巾厂,10kV景村村[徐家龙潭畈]公变,临安中晟玻璃制品有限公司,临安煜成工具有限公司,10kV太阳村[毛竹坪新村]公变,临安兆华五金工具厂,临安荣腾工具有限公司,金山环保集团温州投资有限公司临安分公司1#,10kV双庙村[朱伊李家坞]公变,10kV上庄村[朱夏坞]公变,10kV景村村[徐家桥头]公变,10kV双庙村[双庙村]公变,10kV大地村[周家桥头]公变,10kV双庙村[朱伊里]公变,10kV双庙村[观音村]公变,10kV大地村[马腿村]公变,10kV太阳村[毛竹坪村]公变,10k10kV浪山村[诸家村]公变,10kV大地村[大地]公变,10kV浪山村[兰田坞]公变,10kV太阳村[高拔梨坞口]公变,临安市永坤机械有限公司,杭州鸣梁消防科技有限公司,10kV锦坑桥村[青石门]公变,10kV浪山村[浪山村]公变,10kV上庄村[上庄村马家坞]公变,10kV双庙村[盛家]公变,临安市春跃养殖有限公司,","scope":"浙江省-杭州市-临安市-太阳镇-上庄村坞口、上庄村马家坞、下庄、中庄、文庄、朱夏坞、横坞口、双庙村、干溪头、朱伊外、朱伊李家坞、朱伊里、盛家、观音村、陶家、周家村、周家桥头、周家苦竹、大地、大地企业、马腿村、毛竹坪新村、毛竹坪村、高拔扶善、高拔村、高拔杨春畈、高拔梨坞口、高拔蒋家、徐家企业、徐家村、徐家桥头、徐家龙潭畈、景村企业、景村村、水踏畈、兰田坞、杨家坞村、杨家坞青顶山、浪山企业、浪山四门头、浪山村、诸家村、青石门、临安中晟玻璃制品有限公司、临安兆华五金工具厂、临安同友五金工具有限公司、临安市博远彩印包装有限公司、临安市春跃养殖有限公司、临安市永坤机械有限公司、临安市田园建材有限公司、临安市继生有机肥料有限公司、临安恒达印制电路板厂、临安浪山董公家庭农场、临安湘阳围巾厂、临安煜成工具有限公司、临安神舟工具有限公司、临安荣腾工具有限公司、临安荣达五金工具厂、天山医药玻璃有限公司、杭州临安枫林家庭农场、杭州临安钱王鸵鸟养殖有限公司、杭州天山医药玻璃有限公司、金山环保集团温州投资有限公司临安分公司一带","startTime":"2020-01-10 08:00:00","stopDate":"2020-01-10 08:30:00","orgNo":"3340160","typeCode":"计划停电","poweroffArea":"双庙V253线","poweroffReason":"倒方式","powerTime":"2020-01-10 08:20:10","powerComm":"已送电","subsNo":"","lineNo":"","tgNo":"","tgName":null,"infoStatus":"1","orgName":"国网浙江临安市供电公司","typeName":null,"infoStatusName":null,"dateDay":null,"orgNos":null,"nowTime":null,"countyName":null,"streetName":null,"villageName":null,"roadName":null,"communityName":null,"tranName":null,"sdLineName":null,"cityCode":"3340160","cityName":"国网浙江临安市供电公司","provinceCode":null,"stopTime":"2020-01-10 08:30:00","powerType":"全部","powerOffArea":"双庙V253线","powerOffReason":"倒方式","powerOffId":"2019123131020024"},{"poweroffId":2019123131020022,"sgpoweroffId":null,"subsName":"","lineName":"10kV田湾G265线","pubTranName":"双陈村陈家角西公变,双陈村陈家角公变,杭州文化广播电视集团,多层公寓建设管理中心变压器2,双陈村陈家角南公变,杭州煜琳建筑机械有限公司,双陈村双陈村西公变,双陈村鱼家坝公变,双陈村计家坝西南公变,杭州弘医保健品有限公司,杭州金鸿福丝绸有限公司611030469301#专变,双陈村坝北1#公变,双陈村计家坝西2号公变,多层公寓建设管理中心变压器,双陈村姚家坝公变,双陈村钮家塘东公变,双陈村西斗公变,杭州众人丝绸科技有限公司,杭州金鸿福丝绸有限公司,双陈村钮家塘2#公变,中交第二航务工程局有限公司余杭分公司612084997601#专变,双陈村钮家塘西公变,杭州震远丝绸有限公司,双陈村计家坝南2#公变,杭州双成实业有限公司,杭州欣意机械有限公司,杭州德鸿实业有限公司,双陈村计家坝南公变,杭州万全金属软管有限公司,双陈村陈家角东公变,双陈村坝北公变,杭州竺辰建筑工程有限公司612068733401#专变,杭州三小龙热处理有限公司612085324901#专变,双陈村西斗2号公变,双陈村西斗南2号公变,勾仁大道4#路灯箱变,双陈村姚家坝北公变,杭州双宏印刷有限公司,双陈村西斗南公变,双陈村计家坝西公变,杭州文化广播电视集团,","scope":"浙江省-杭州市-余杭区-仁和街道-双陈行政村(穆家坝自然村,陈家洋自然村,姚家坝自然村,陈家坝自然村,陈家角自然村,鱼家坝自然村,东斗自然村,陈家角东斗自然村,钮家塘自然村,陈家角西斗自然村,西斗自然村,计家坝自然村),仁和街道(云会行政村-西南山自然村,花园行政村-章桥自然村);仁和街道(杭州双宏印刷有限公司,杭州市余杭区云禾幼儿园,中交第二航务工程局有限公司余杭分公司,杭州市余杭区人民政府仁和街道办事处,杭州万全金属软管有限公司,杭州金鸿福丝绸有限公司,杭州欣意机械有限公司,杭州煜琳精密钣金有限公司,杭州双成实业有限公司,杭州德鸿实业有限公司,杭州弘医保健品有限公司,杭州众人丝绸科技有限公司,杭州恩玮物业管理有限公司,杭州文化广播电视集团,杭州竺辰建筑工程有限公司,杭州三小龙热处理有限公司)","startTime":"2019-12-31 08:30:00","stopDate":"2019-12-31 11:17:00","orgNo":"3340140","typeCode":"电网故障停限电","poweroffArea":"110kV仁镇变:田湾G265线田湾G2653开关后段","poweroffReason":"高压开关跳闸 原停电结束时间为2019-12-31 12:30:00,为减少客户停电时间,加快工作进度,提前送电,现变更停电结束时间为2019-12-31 11:17:00","powerTime":"2019-12-31 10:46:29","powerComm":"已送电","subsNo":"","lineNo":"","tgNo":"","tgName":null,"infoStatus":"1","orgName":"国网浙江杭州市余杭区供电有限公司","typeName":null,"infoStatusName":null,"dateDay":null,"orgNos":null,"nowTime":null,"countyName":null,"streetName":null,"villageName":null,"roadName":null,"communityName":null,"tranName":null,"sdLineName":null,"cityCode":"3340140","cityName":"国网浙江杭州市余杭区供电有限公司","provinceCode":null,"stopTime":"2019-12-31 11:17:00","powerType":"全部","powerOffArea":"110kV仁镇变:田湾G265线田湾G2653开关后段","powerOffReason":"高压开关跳闸 原停电结束时间为2019-12-31 12:30:00,为减少客户停电时间,加快工作进度,提前送电,现变更停电结束时间为2019-12-31 11:17:00","powerOffId":"2019123131020022"},{"poweroffId":2019123131020003,"sgpoweroffId":null,"subsName":"","lineName":"10kV横塘G771线","pubTranName":"横塘四组西变,","scope":"浙江省-杭州市-余杭区-东湖街道-横塘社区-横塘新自然村","startTime":"2019-12-31 01:49:21","stopDate":"2019-12-31 03:00:00","orgNo":"3340140","typeCode":"电网故障停限电","poweroffArea":"110kV金家变:知音G184线-横塘4组西变后段","poweroffReason":"高压开关跳闸","powerTime":"2019-12-31 02:43:20","powerComm":"已送电","subsNo":"","lineNo":"","tgNo":"","tgName":null,"infoStatus":"1","orgName":"国网浙江杭州市余杭区供电有限公司","typeName":null,"infoStatusName":null,"dateDay":null,"orgNos":null,"nowTime":null,"countyName":null,"streetName":null,"villageName":null,"roadName":null,"communityName":null,"tranName":null,"sdLineName":null,"cityCode":"3340140","cityName":"国网浙江杭州市余杭区供电有限公司","provinceCode":null,"stopTime":"2019-12-31 03:00:00","powerType":"全部","powerOffArea":"110kV金家变:知音G184线-横塘4组西变后段","powerOffReason":"高压开关跳闸","powerOffId":"2019123131020003"},{"poweroffId":2019123131020002,"sgpoweroffId":null,"subsName":"","lineName":"10kV平山D535线","pubTranName":"新兴铸管(浙江)铜业有限公司5#,伟天包装3#变,伟天包装4#变,新兴铸管(浙江)铜业有限公司2#,新兴铸管(浙江)铜业有限公司1#,伟天包装2#变,新兴铸管(浙江)铜业有限公司4#,1,新兴铸管(浙江)铜业有限公司3#,","scope":"浙江省-杭州市-富阳区-新登镇(杭州伟天包装制品有限公司,新兴铸管(浙江)铜业有限公司)","startTime":"2019-12-31 00:40:00","stopDate":"2019-12-31 02:40:00","orgNo":"3340170","typeCode":"电网故障停限电","poweroffArea":"110kV清泉变:平山D535线新科站新科736线后段","poweroffReason":"高压开关跳闸","powerTime":"2019-12-31 02:08:01","powerComm":"已送电","subsNo":"","lineNo":"","tgNo":"","tgName":null,"infoStatus":"1","orgName":"国网浙江杭州市富阳区供电公司","typeName":null,"infoStatusName":null,"dateDay":null,"orgNos":null,"nowTime":null,"countyName":null,"streetName":null,"villageName":null,"roadName":null,"communityName":null,"tranName":null,"sdLineName":null,"cityCode":"3340170","cityName":"国网浙江杭州市富阳区供电公司","provinceCode":null,"stopTime":"2019-12-31 02:40:00","powerType":"全部","powerOffArea":"110kV清泉变:平山D535线新科站新科736线后段","powerOffReason":"高压开关跳闸","powerOffId":"2019123131020002"},{"poweroffId":2019123031020342,"sgpoweroffId":null,"subsName":"","lineName":"10kV二王C251线","pubTranName":"三泉王村8#变,杭州古伽船舶科技有限公司变压器,三泉王村3#变,三泉王村7#变,三泉王村2#变,三泉王村4#变,","scope":"浙江省-杭州市-萧山区-所前镇-三泉王行政村(三泉王自然村,窑里孙自然村);浙江省-杭州市-萧山区-所前镇-三泉王行政村-杭州古伽船舶科技有限公司","startTime":"2020-01-15 08:30:00","stopDate":"2020-01-15 14:30:00","orgNo":"3340130","typeCode":"计划停电","poweroffArea":"110kV所前变:二王C251线-二王C251线明捷机械分线开关(自)后段","poweroffReason":"30/A35#杆电杆移位 原停电结束时间为2020-01-07 14:30:00,因计划改期原因,现变更停电结束时间为2020-01-15 14:30:00","powerTime":"2020-01-15 13:45:38","powerComm":"已送电","subsNo":"","lineNo":"","tgNo":"","tgName":null,"infoStatus":"1","orgName":"国网浙江杭州市萧山区供电有限公司","typeName":null,"infoStatusName":null,"dateDay":null,"orgNos":null,"nowTime":null,"countyName":null,"streetName":null,"villageName":null,"roadName":null,"communityName":null,"tranName":null,"sdLineName":null,"cityCode":"3340130","cityName":"国网浙江杭州市萧山区供电有限公司","provinceCode":null,"stopTime":"2020-01-15 14:30:00","powerType":"全部","powerOffArea":"110kV所前变:二王C251线-二王C251线明捷机械分线开关(自)后段","powerOffReason":"30/A35#杆电杆移位 原停电结束时间为2020-01-07 14:30:00,因计划改期原因,现变更停电结束时间为2020-01-15 14:30:00","powerOffId":"2019123031020342"},{"poweroffId":2019123031020340,"sgpoweroffId":null,"subsName":"","lineName":"10kV云石C954线","pubTranName":"尖山下5#变,杭州鼎绣工艺品有限公司,沈村5#变,青山村1#变,枫桥村5#变,萧山区戴村镇云石中心小学,沈村10#变,骆家舍6#变,沈村4#变,方溪村7#变,方溪村5#变,虹路包装,星云丝织工贸有限公司,青山村3#变,青山村11#变,杭州萧山春潇农业开发有限公司,青山村5#变,骆家舍3#变,浙伟实业,强达塑胶,尖山下6#变,辉煌卫生用品1#,枫桥村4#变,枫桥村3#变,尖山下1#变,沈村7#变,方溪村8#变,青山村2#变,尖山下2#变,柯佳伞件厂,特种建材,锦琪热缩,业新钢构,方溪村1#变,杭州业新钢结构有限公司,电信萧山公司（云石）,青山村10#变,青山村9#变,尖山下4#变,青山村13#变,沈村9#变,顾家溪3#变,杭州萧山云峰涂料厂,枫桥村2#变,枫桥村1#变,杭州亿达五金有限公司,顾家溪5#变,杭州业新钢结构有限公司,浙江九龙厨具集团有限公司,顾家溪1#变,青山村14#变,沈村3#变,沈村11#变,沈村8#变,方溪村3#变,浙江凯普顿厨房设备有限公司,方溪村10#变,家家实业,戴村镇人民政府,方溪村4#变,沈村1#变,顾家溪4#变,尖山下3#变,辉煌卫生用品2#,青山村4#变,沈村6#变,青山村7#变,青山村6#变,青山村12#变,姜宇热缩,骆家舍5#变,方溪村9#变,方溪村6#变,骆家舍4#变,顾家溪2#变,骆家舍2#变,杭州佳锦织造厂,球冠实业(渡假山庄),方溪村2#变,","scope":"浙江省-杭州市-萧山区-戴村镇-顾家溪行政村(平山自然村,勤工自然村),戴村镇-骆家舍行政村(下骆家舍自然村,骆村自然村,船山自然村,上骆家舍自然村),戴村镇-尖山下行政村(尖山下自然村,洪潭桥自然村,长爿田自然村,上门自然村),戴村镇-方溪行政村(顶山自然村,增丰自然村,征山自然村),戴村镇-枫桥行政村(响石桥自然村,枫树自然村),戴村镇-青山行政村(石牛山自然村,明堂自然村,狮山自然村,南坞自然村),戴村镇-沈村行政村(沈村自然村,汪家山下自然村);浙江省-杭州市-萧山区-戴村镇-顾家溪行政村-杭州亿达五金有限公司,戴村镇-尖山下行政村(杭州浙伟实业有限公司,杭州萧山姜字热缩制品厂,杭州辉煌卫生用品有限公司),戴村镇-方溪行政村(杭州萧山戴村镇柯佳伞件厂,杭州佳锦织造厂),戴村镇-枫桥行政村(杭州业新钢结构有限公司,杭州萧山云峰涂料厂,中国电信股份有限公司杭州萧山区分公司),戴村镇-青山行政村(浙江华东轻钢建材有限公司,杭州强达塑胶五金厂,萧山区戴村镇云石中心小学,杭州鼎绣工艺品有限公司,杭州云石生态休闲旅游开发有限公司,浙江九龙厨具集团有限公司),戴村镇-沈村行政村(杭州业新钢结构有限公司,杭州萧山昌达机械配件厂,杭州家家实业有限公司,杭州银泰农旅投资发展有限公司,杭州市萧山区戴村镇人民政府,浙江凯普顿厨房设备有限公司,杭州虹路包装彩印有限公司,杭州宏士机械有限公司)，浙江省杭州市萧山区戴村镇方溪村一带","startTime":"2019-12-30 22:10:38","stopDate":"2019-12-31 01:15:38","orgNo":"3340130","typeCode":"电网故障停限电","poweroffArea":"110kV永兴变:云石C954线-云石C954线云二分线开关后段","poweroffReason":"高压开关跳闸","powerTime":"2019-12-31 00:28:28","powerComm":"已送电","subsNo":"","lineNo":"","tgNo":"","tgName":null,"infoStatus":"1","orgName":"国网浙江杭州市萧山区供电有限公司","typeName":null,"infoStatusName":null,"dateDay":null,"orgNos":null,"nowTime":null,"countyName":null,"streetName":null,"villageName":null,"roadName":null,"communityName":null,"tranName":null,"sdLineName":null,"cityCode":"3340130","cityName":"国网浙江杭州市萧山区供电有限公司","provinceCode":null,"stopTime":"2019-12-31 01:15:38","powerType":"全部","powerOffArea":"110kV永兴变:云石C954线-云石C954线云二分线开关后段","powerOffReason":"高压开关跳闸","powerOffId":"2019123031020340"},{"poweroffId":2019123031020339,"sgpoweroffId":null,"subsName":"","lineName":"10kV成衙A576线","pubTranName":"四翔村5#变,","scope":"浙江省-杭州市-萧山区-衙前镇-四翔行政村(四村自然村,张家埭南路,张家埭北路,张家埭中路)","startTime":"2020-01-07 08:30:00","stopDate":"2020-01-07 11:10:00","orgNo":"3340130","typeCode":"计划停电","poweroffArea":"110kV成虎变:成衙A576线-四翔村5#变后段","poweroffReason":"四翔村5#变令克更换 原停电结束时间为2020-01-07 12:30:00,为减少客户停电时间,加快工作进度,提前送电,现变更停电结束时间为2020-01-07 11:10:00","powerTime":"2020-01-07 10:32:27","powerComm":"已送电","subsNo":"","lineNo":"","tgNo":"","tgName":null,"infoStatus":"1","orgName":"国网浙江杭州市萧山区供电有限公司","typeName":null,"infoStatusName":null,"dateDay":null,"orgNos":null,"nowTime":null,"countyName":null,"streetName":null,"villageName":null,"roadName":null,"communityName":null,"tranName":null,"sdLineName":null,"cityCode":"3340130","cityName":"国网浙江杭州市萧山区供电有限公司","provinceCode":null,"stopTime":"2020-01-07 11:10:00","powerType":"全部","powerOffArea":"110kV成虎变:成衙A576线-四翔村5#变后段","powerOffReason":"四翔村5#变令克更换 原停电结束时间为2020-01-07 12:30:00,为减少客户停电时间,加快工作进度,提前送电,现变更停电结束时间为2020-01-07 11:10:00","powerOffId":"2019123031020339"},{"poweroffId":2019123031020335,"sgpoweroffId":null,"subsName":"","lineName":"10kV庙山6318线","pubTranName":"景月湾四变,景月湾一变,景月湾二变,公保3,闸充8,午社2#,国盛置业2#,公保5,闸充4,公保1,润和山庄变,闸充6,午社1#,阳明(五),景月湾三变,阳明(四),闸充2,国盛置业1#,","scope":"浙江省-杭州市-西湖区-转塘街道-五云梦湖社区(之江路,常陇路,景月湾小区,阳明谷,润和山庄);转塘街道(杭州市西湖区转塘街道午山社区居民委员会,杭州国信名盛置业有限公司希尔酒店分公司,杭州市公共交通集团有限公司,华润普星电动汽车服务有限公司)","startTime":"2019-12-30 20:25:00","stopDate":"2019-12-30 22:05:00","orgNo":"3340101","typeCode":"电网故障停限电","poweroffArea":"110kV转塘变:庙山6318线","poweroffReason":"高压开关跳闸 原停电结束时间为2019-12-30 23:25:00,为减少客户停电时间,加快工作进度,提前送电,现变更停电结束时间为2019-12-30 22:05:00","powerTime":"2019-12-30 21:12:37","powerComm":"已送电","subsNo":"","lineNo":"","tgNo":"","tgName":null,"infoStatus":"1","orgName":"浙江杭州电力客户服务中心","typeName":null,"infoStatusName":null,"dateDay":null,"orgNos":null,"nowTime":null,"countyName":null,"streetName":null,"villageName":null,"roadName":null,"communityName":null,"tranName":null,"sdLineName":null,"cityCode":"3340101","cityName":"浙江杭州电力客户服务中心","provinceCode":null,"stopTime":"2019-12-30 22:05:00","powerType":"全部","powerOffArea":"110kV转塘变:庙山6318线","powerOffReason":"高压开关跳闸 原停电结束时间为2019-12-30 23:25:00,为减少客户停电时间,加快工作进度,提前送电,现变更停电结束时间为2019-12-30 22:05:00","powerOffId":"2019123031020335"},{"poweroffId":2019123031020331,"sgpoweroffId":null,"subsName":"","lineName":"10kV东铁A665线","pubTranName":"2#,7#,5#,9#,6#,8#,4#,10#,1#,3#,","scope":"浙江省-杭州市-萧山区-新街镇-新街街道-盈中行政村、中铁六局工地、杭州市地铁集团有限责任公司等一带","startTime":"2019-12-30 19:31:40","stopDate":"2019-12-31 00:44:40","orgNo":"3340130","typeCode":"电网故障停限电","poweroffArea":"110kV东霖变:东铁A665线","poweroffReason":"高压柱上断路器短路故障 原停电结束时间为2019-12-31 01:44:40,为减少客户停电时间,加快工作进度,提前送电,现变更停电结束时间为2019-12-31 00:44:40","powerTime":"2019-12-31 00:01:05","powerComm":"已送电","subsNo":"","lineNo":"","tgNo":"","tgName":null,"infoStatus":"1","orgName":"国网浙江杭州市萧山区供电有限公司","typeName":null,"infoStatusName":null,"dateDay":null,"orgNos":null,"nowTime":null,"countyName":null,"streetName":null,"villageName":null,"roadName":null,"communityName":null,"tranName":null,"sdLineName":null,"cityCode":"3340130","cityName":"国网浙江杭州市萧山区供电有限公司","provinceCode":null,"stopTime":"2019-12-31 00:44:40","powerType":"全部","powerOffArea":"110kV东霖变:东铁A665线","powerOffReason":"高压柱上断路器短路故障 原停电结束时间为2019-12-31 01:44:40,为减少客户停电时间,加快工作进度,提前送电,现变更停电结束时间为2019-12-31 00:44:40","powerOffId":"2019123031020331"}],"pageModel":{"pageNow":625,"totalCount":17789,"totalPage":1779,"tableRows":0,"pageCount":10,"beginCount":6240},"isExperi":"1"}