{"message":"","today":"2020-06-15","seleList":[{"poweroffId":2019123031020302,"sgpoweroffId":null,"subsName":"","lineName":"10kV永联A694线","pubTranName":"1#变,","scope":"浙江省-杭州市-萧山区-瓜沥镇-永联行政村-杭州萧山瓜沥机械厂","startTime":"2020-01-07 09:30:00","stopDate":"2020-01-07 14:20:00","orgNo":"3340130","typeCode":"计划停电","poweroffArea":"110kV白川变:永联A694线-杭州萧山瓜沥机械厂断路器后段","poweroffReason":"永联A694线21/03#杆架线一档，新装令克1处 原停电结束时间为2020-01-07 17:30:00,为减少客户停电时间,加快工作进度,提前送电,现变更停电结束时间为2020-01-07 14:20:00","powerTime":"2020-01-07 13:36:05","powerComm":"已送电","subsNo":"","lineNo":"","tgNo":"","tgName":null,"infoStatus":"1","orgName":"国网浙江杭州市萧山区供电有限公司","typeName":null,"infoStatusName":null,"dateDay":null,"orgNos":null,"nowTime":null,"countyName":null,"streetName":null,"villageName":null,"roadName":null,"communityName":null,"tranName":null,"sdLineName":null,"cityCode":"3340130","cityName":"国网浙江杭州市萧山区供电有限公司","provinceCode":null,"stopTime":"2020-01-07 14:20:00","powerType":"全部","powerOffArea":"110kV白川变:永联A694线-杭州萧山瓜沥机械厂断路器后段","powerOffReason":"永联A694线21/03#杆架线一档，新装令克1处 原停电结束时间为2020-01-07 17:30:00,为减少客户停电时间,加快工作进度,提前送电,现变更停电结束时间为2020-01-07 14:20:00","powerOffId":"2019123031020302"},{"poweroffId":2019123031020301,"sgpoweroffId":null,"subsName":"","lineName":"10kV解放C666线","pubTranName":"杭州炳丰纺织有限公司1#,","scope":"浙江省-杭州市-萧山区-瓜沥镇-解放行政村-杭州炳丰纺织有限公司","startTime":"2020-01-07 08:30:00","stopDate":"2020-01-07 14:55:00","orgNo":"3340130","typeCode":"计划停电","poweroffArea":"35kV长沙变:解放C666线-炳丰纺织令克后段","poweroffReason":"解放C666线24/02#杆令克换开关 原停电结束时间为2020-01-07 16:30:00,为减少客户停电时间,加快工作进度,提前送电,现变更停电结束时间为2020-01-07 14:55:00","powerTime":"2020-01-07 14:05:37","powerComm":"已送电","subsNo":"","lineNo":"","tgNo":"","tgName":null,"infoStatus":"1","orgName":"国网浙江杭州市萧山区供电有限公司","typeName":null,"infoStatusName":null,"dateDay":null,"orgNos":null,"nowTime":null,"countyName":null,"streetName":null,"villageName":null,"roadName":null,"communityName":null,"tranName":null,"sdLineName":null,"cityCode":"3340130","cityName":"国网浙江杭州市萧山区供电有限公司","provinceCode":null,"stopTime":"2020-01-07 14:55:00","powerType":"全部","powerOffArea":"35kV长沙变:解放C666线-炳丰纺织令克后段","powerOffReason":"解放C666线24/02#杆令克换开关 原停电结束时间为2020-01-07 16:30:00,为减少客户停电时间,加快工作进度,提前送电,现变更停电结束时间为2020-01-07 14:55:00","powerOffId":"2019123031020301"},{"poweroffId":2019123031020284,"sgpoweroffId":null,"subsName":"","lineName":"10kV锦西V201线","pubTranName":"苕溪北路5号坝,","scope":"浙江省-杭州市-临安市-锦北街道-西墅社区-浙江国兴投资集团有限公司一带。","startTime":"2020-01-10 08:20:00","stopDate":"2020-01-10 13:00:00","orgNo":"3340160","typeCode":"计划停电","poweroffArea":"110kV锦城变:锦西V201线华府站临安市城建发展有限公司（5#坝）分线开关后段","poweroffReason":"锦西V201线华府站G5备用间隔新出电缆，新上临安市城建发展有限公司（5#坝）160KVA美变调换","powerTime":"2020-01-10 12:50:17","powerComm":"已送电","subsNo":"","lineNo":"","tgNo":"","tgName":null,"infoStatus":"1","orgName":"国网浙江临安市供电公司","typeName":null,"infoStatusName":null,"dateDay":null,"orgNos":null,"nowTime":null,"countyName":null,"streetName":null,"villageName":null,"roadName":null,"communityName":null,"tranName":null,"sdLineName":null,"cityCode":"3340160","cityName":"国网浙江临安市供电公司","provinceCode":null,"stopTime":"2020-01-10 13:00:00","powerType":"全部","powerOffArea":"110kV锦城变:锦西V201线华府站临安市城建发展有限公司（5#坝）分线开关后段","powerOffReason":"锦西V201线华府站G5备用间隔新出电缆，新上临安市城建发展有限公司（5#坝）160KVA美变调换","powerOffId":"2019123031020284"},{"poweroffId":2019123031020283,"sgpoweroffId":null,"subsName":"","lineName":"10kV环山V106线","pubTranName":"药店公变,临安市人民医院,临安市人民医院,","scope":"浙江省-杭州市-临安市-锦城街道-武肃里社区-杭州市临安区人民医院，江桥路与衣锦街交叉一带。","startTime":"2020-01-09 08:00:00","stopDate":"2020-01-09 17:30:00","orgNo":"3340160","typeCode":"计划停电","poweroffArea":"110kV临安变:环山V106线27#杆药店公变令克；环山V106线32#杆人民医院环山分线开关","poweroffReason":"杭州临安10千伏水岸V363线等网架优化工程:(1)环山V106线29#--30#杆之间插杆,安装开关,环山V106线21#--29#新立杆拆线,环山V106线26#杆106A开关及电缆拆除,27#杆药店公变,29#杆1065开关拆除工作","powerTime":"2020-01-09 17:00:21","powerComm":"已送电","subsNo":"","lineNo":"","tgNo":"","tgName":null,"infoStatus":"1","orgName":"国网浙江临安市供电公司","typeName":null,"infoStatusName":null,"dateDay":null,"orgNos":null,"nowTime":null,"countyName":null,"streetName":null,"villageName":null,"roadName":null,"communityName":null,"tranName":null,"sdLineName":null,"cityCode":"3340160","cityName":"国网浙江临安市供电公司","provinceCode":null,"stopTime":"2020-01-09 17:30:00","powerType":"全部","powerOffArea":"110kV临安变:环山V106线27#杆药店公变令克；环山V106线32#杆人民医院环山分线开关","powerOffReason":"杭州临安10千伏水岸V363线等网架优化工程:(1)环山V106线29#--30#杆之间插杆,安装开关,环山V106线21#--29#新立杆拆线,环山V106线26#杆106A开关及电缆拆除,27#杆药店公变,29#杆1065开关拆除工作","powerOffId":"2019123031020283"},{"poweroffId":2019123031020282,"sgpoweroffId":null,"subsName":"","lineName":"10kV解百V216线","pubTranName":"赵永贵,横街公变,","scope":"浙江省-杭州市-临安市-锦城街道-文昌阁社区-赵永贵公司，江桥路与吕家弄交叉一带。","startTime":"2020-01-09 08:00:00","stopDate":"2020-01-09 17:30:00","orgNo":"3340160","typeCode":"计划停电","poweroffArea":"110kV锦城变:解百V216线33#杆2163开关后段","poweroffReason":"杭州临安10千伏水岸V363线等网架优化工程:(1)环山V106线29#--30#杆之间插杆,安装开关,环山V106线21#--29#新立杆拆线,环山V106线26#杆106A开关及电缆拆除,27#杆药店公变,29#杆1065开关拆除工作。","powerTime":"2020-01-09 17:20:22","powerComm":"已送电","subsNo":"","lineNo":"","tgNo":"","tgName":null,"infoStatus":"1","orgName":"国网浙江临安市供电公司","typeName":null,"infoStatusName":null,"dateDay":null,"orgNos":null,"nowTime":null,"countyName":null,"streetName":null,"villageName":null,"roadName":null,"communityName":null,"tranName":null,"sdLineName":null,"cityCode":"3340160","cityName":"国网浙江临安市供电公司","provinceCode":null,"stopTime":"2020-01-09 17:30:00","powerType":"全部","powerOffArea":"110kV锦城变:解百V216线33#杆2163开关后段","powerOffReason":"杭州临安10千伏水岸V363线等网架优化工程:(1)环山V106线29#--30#杆之间插杆,安装开关,环山V106线21#--29#新立杆拆线,环山V106线26#杆106A开关及电缆拆除,27#杆药店公变,29#杆1065开关拆除工作。","powerOffId":"2019123031020282"},{"poweroffId":2019123031020280,"sgpoweroffId":null,"subsName":"","lineName":"10kV环山V106线","pubTranName":"浙江星普五星电器有限公司,小商品市场公变,10kV小商品市场1#公变,","scope":"浙江省-杭州市-临安市-锦城街道-浙江星普五星电器有限公司，小商品市场一带。","startTime":"2020-01-08 08:40:00","stopDate":"2020-01-08 16:30:00","orgNo":"3340160","typeCode":"计划停电","poweroffArea":"110kV临安变:环山V106线17#杆小商品市场公变分线开关后段","poweroffReason":"杭州临安10千伏水岸V363线等网架优化工程: (1)原环山V106线17#杆--小商品市场公变分线1#杆拆线,小商品市场公变分线1#杆与来自[新建3#开闭所]G6柜电缆搭头工作","powerTime":"2020-01-08 15:41:29","powerComm":"已送电","subsNo":"","lineNo":"","tgNo":"","tgName":null,"infoStatus":"1","orgName":"国网浙江临安市供电公司","typeName":null,"infoStatusName":null,"dateDay":null,"orgNos":null,"nowTime":null,"countyName":null,"streetName":null,"villageName":null,"roadName":null,"communityName":null,"tranName":null,"sdLineName":null,"cityCode":"3340160","cityName":"国网浙江临安市供电公司","provinceCode":null,"stopTime":"2020-01-08 16:30:00","powerType":"全部","powerOffArea":"110kV临安变:环山V106线17#杆小商品市场公变分线开关后段","powerOffReason":"杭州临安10千伏水岸V363线等网架优化工程: (1)原环山V106线17#杆--小商品市场公变分线1#杆拆线,小商品市场公变分线1#杆与来自[新建3#开闭所]G6柜电缆搭头工作","powerOffId":"2019123031020280"},{"poweroffId":2019123031020279,"sgpoweroffId":null,"subsName":"","lineName":"10kV环山V106线","pubTranName":"临安大厦公变,","scope":"浙江省-杭州市-临安市-锦城街道-新民里社区-衣锦街-临安大厦一带。","startTime":"2020-01-07 12:30:00","stopDate":"2020-01-07 17:30:00","orgNo":"3340160","typeCode":"计划停电","poweroffArea":"110kV临安变:环山V106线28#杆临安大厦分线开关后段","poweroffReason":"原环山V106线28#杆临安大厦[高配]进线电缆拆除与来自[新建3#开闭所]G8柜电缆中间接头制作,试验和搭头工作","powerTime":"2020-01-07 17:20:06","powerComm":"已送电","subsNo":"","lineNo":"","tgNo":"","tgName":null,"infoStatus":"1","orgName":"国网浙江临安市供电公司","typeName":null,"infoStatusName":null,"dateDay":null,"orgNos":null,"nowTime":null,"countyName":null,"streetName":null,"villageName":null,"roadName":null,"communityName":null,"tranName":null,"sdLineName":null,"cityCode":"3340160","cityName":"国网浙江临安市供电公司","provinceCode":null,"stopTime":"2020-01-07 17:30:00","powerType":"全部","powerOffArea":"110kV临安变:环山V106线28#杆临安大厦分线开关后段","powerOffReason":"原环山V106线28#杆临安大厦[高配]进线电缆拆除与来自[新建3#开闭所]G8柜电缆中间接头制作,试验和搭头工作","powerOffId":"2019123031020279"},{"poweroffId":2019123031020277,"sgpoweroffId":null,"subsName":"","lineName":"10kV环山V106线","pubTranName":"临安市新世纪工贸有限公司,临安市新世纪工贸有限公司,","scope":"浙江省-杭州市-临安市-锦城街道-武肃里社区-临安市新世纪工贸有限公司一带。","startTime":"2020-01-07 07:30:00","stopDate":"2020-01-07 12:30:00","orgNo":"3340160","typeCode":"计划停电","poweroffArea":"110kV临安变:环山V106线25#杆新世纪工贸公司分线开关后段。","poweroffReason":"原环山V106线25#杆新世纪工贸公司[高配]进线电缆拆除与来自[新建3#开闭所]G7柜电缆中间接头制作,试验和搭头工作。","powerTime":"2020-01-07 12:20:16","powerComm":"已送电","subsNo":"","lineNo":"","tgNo":"","tgName":null,"infoStatus":"1","orgName":"国网浙江临安市供电公司","typeName":null,"infoStatusName":null,"dateDay":null,"orgNos":null,"nowTime":null,"countyName":null,"streetName":null,"villageName":null,"roadName":null,"communityName":null,"tranName":null,"sdLineName":null,"cityCode":"3340160","cityName":"国网浙江临安市供电公司","provinceCode":null,"stopTime":"2020-01-07 12:30:00","powerType":"全部","powerOffArea":"110kV临安变:环山V106线25#杆新世纪工贸公司分线开关后段。","powerOffReason":"原环山V106线25#杆新世纪工贸公司[高配]进线电缆拆除与来自[新建3#开闭所]G7柜电缆中间接头制作,试验和搭头工作。","powerOffId":"2019123031020277"},{"poweroffId":2019123031020276,"sgpoweroffId":null,"subsName":"","lineName":"10kV后扬H414线","pubTranName":"长命村庄地1号公变,","scope":"浙江省-杭州市-余杭区-瓶窑镇-长命行政村(庄地自然村,胡林老自然村)","startTime":"2020-01-08 08:00:00","stopDate":"2020-01-08 13:00:00","orgNo":"3340140","typeCode":"计划停电","poweroffArea":"35kV良渚变:后扬H414线-长命村庄地一带","poweroffReason":"(低压停电信息)计划工作 原停电结束时间为2020-01-08 16:30:00,为减少客户停电时间,加快工作进度,提前送电,现变更停电结束时间为2020-01-08 13:00:00","powerTime":"2020-01-08 12:46:31","powerComm":"已送电","subsNo":"","lineNo":"","tgNo":"","tgName":null,"infoStatus":"1","orgName":"国网浙江杭州市余杭区供电有限公司","typeName":null,"infoStatusName":null,"dateDay":null,"orgNos":null,"nowTime":null,"countyName":null,"streetName":null,"villageName":null,"roadName":null,"communityName":null,"tranName":null,"sdLineName":null,"cityCode":"3340140","cityName":"国网浙江杭州市余杭区供电有限公司","provinceCode":null,"stopTime":"2020-01-08 13:00:00","powerType":"全部","powerOffArea":"35kV良渚变:后扬H414线-长命村庄地一带","powerOffReason":"(低压停电信息)计划工作 原停电结束时间为2020-01-08 16:30:00,为减少客户停电时间,加快工作进度,提前送电,现变更停电结束时间为2020-01-08 13:00:00","powerOffId":"2019123031020276"},{"poweroffId":2019123031020270,"sgpoweroffId":null,"subsName":"","lineName":"10kV双庙V253线","pubTranName":"临安湘阳围巾厂,10kV景村村[景村企业]公变,10kV上庄村[下庄]公变,10kV景村村[景村村]公变,10kv双庙村【干溪头】公变,临安兆华五金工具厂,10kV景村村[水踏畈]公变,10kV上庄村[中庄]公变,临安市永坤机械有限公司,10kV大地村[周家苦竹]公变,临安荣腾工具有限公司,10kV上庄村[文庄]公变,10kV双庙村[盛家]公变,10kV双庙村[双庙村]公变,10kV景村村[徐家龙潭畈]公变,10kV浪山村[浪山企业]公变,10kV双庙村[朱伊外]公变,10kV太阳村[毛竹坪新村]公变,金山环保集团温州投资有限公司临安分公司1#,杭州鸣梁消防科技有限公司,10kV太阳村[高拔村]公变,10kV景村村[徐家桥头]公变,10kV太阳村[高拔扶善]公变,10kV双庙村[陶家]公变,临安市博远彩印包装有限公司,临安中晟玻璃制品有限公司,10kV太阳村[高拔蒋家]公变,10kV景村村[徐家村]公变,10kV景村村[徐家企业]公变,10kV大地村[马腿村]公变,10kV太阳村[高拔梨坞口]公变,10kV大地村[大地]公变,10kV浪山村[浪山村]公变,杭州临安枫林家庭农场,临安同友五金工具有限公司,10kV浪山村[浪山四门头]公变,10kV上庄村[上庄村马家坞]公变,10kV上庄村[朱夏坞]公变,临安市春跃养殖有限公司,临安市继生有机肥料有限公司1#,10kV太阳村[高拔杨春畈]公变,10kV太阳村[毛竹坪村]公变,杭州天山医药玻璃有限公司,10kV浪山村[杨家坞青顶山]公变,临安荣腾工具有限公司,10kV浪山村[兰田坞]公变,临安浪山董公家庭农场,10k10kV浪山村[诸家村]公变,临安恒达印制电路板厂1#,10kV大地村[周家村]公变,临安煜成工具有限公司,杭州临安钱王鸵鸟养殖有限公司,10kV双庙村[朱伊李家坞]公变,临安荣达五金工具厂,临安市田园建材有限公司,临安神舟工具有限公司,10kV上庄村[横坞口]公变,10kV大地村[周家桥头]公变,10kV双庙村[朱伊里]公变,10kV锦坑桥村[青石门]公变,10kV双庙村[观音村]公变,10kV大地村[大地企业]公变,10kV上庄村[上庄村坞口]公变,10kV浪山村[杨家坞村]公变,","scope":"浙江省-杭州市-临安市-太阳镇-锦坑桥行政村(青石门自然村,锦坑桥自然村),太阳镇-上庄行政村(上庄自然村,下庄自然村,中庄自然村,坞口自然村,文庄自然村,朱夏坞自然村,马家坞自然村),太阳镇-景村行政村(徐家自然村,景村自然村),太阳镇-浪山行政村(诸家自然村,杨家坞自然村,浪山自然村),太阳镇-大地行政村(周家自然村,苦竹自然村,大地自然村,马腿自然村),太阳镇-双庙行政村(李家坞自然村,朱伊自然村,朱伊坞自然村,陶家自然村,甘溪头自然村,双庙自然村,盛家自然村,观音自然村),太阳镇-太阳行政村(犁坞口自然村,高拔自然村,下太阳自然村,毛竹坪新村自然村,毛竹坪自然村,高拔杨村畈自然村,高拔扶善自然村,高拔蒋家自然村);太阳镇(杭州天山医药玻璃有限公司,杭州临安钱王鸵鸟养殖有限公司,杭州临安田园建材有限公司,临安恒达印制电路板厂,杭州临安永坤机械有限公司,金山环保集团温州投资有限公司临安分公司,杭州中晟玻璃制品有限公司,临安荣腾工具有限公司,临安同友五金工具有限公司,临安市春跃养殖有限公司,临安神舟工具有限公司,临安煜成工具有限公司,临安荣达五金工具厂,临安市继生有机肥料有限公司,临安湘阳围巾厂,杭州临安枫林家庭农场,临安浪山董公家庭农场,临安市博远彩印包装有限公司,临安兆华五金工具厂)","startTime":"2019-12-30 16:25:00","stopDate":"2019-12-30 17:25:00","orgNo":"3340160","typeCode":"电网故障停限电","poweroffArea":"35kV太阳变:双庙V253线2531开关后段","poweroffReason":"高压开关跳闸","powerTime":"2019-12-30 16:56:13","powerComm":"已送电","subsNo":"","lineNo":"","tgNo":"","tgName":null,"infoStatus":"1","orgName":"国网浙江临安市供电公司","typeName":null,"infoStatusName":null,"dateDay":null,"orgNos":null,"nowTime":null,"countyName":null,"streetName":null,"villageName":null,"roadName":null,"communityName":null,"tranName":null,"sdLineName":null,"cityCode":"3340160","cityName":"国网浙江临安市供电公司","provinceCode":null,"stopTime":"2019-12-30 17:25:00","powerType":"全部","powerOffArea":"35kV太阳变:双庙V253线2531开关后段","powerOffReason":"高压开关跳闸","powerOffId":"2019123031020270"}],"pageModel":{"pageNow":627,"totalCount":17789,"totalPage":1779,"tableRows":0,"pageCount":10,"beginCount":6260},"isExperi":"1"}