{"message":"","today":"2020-06-15","seleList":[{"poweroffId":2019123031020264,"sgpoweroffId":null,"subsName":"","lineName":"10kV洋尾Y317线","pubTranName":"洋程村里江台区,利群村赵村台区,利群村白路脚台区,洋程村姜宅台区,利群村任家尖台区,利群村外方台区,洋程村山青台区,洋程村里童台区,洋程村落山台区,利群村桥头台区,大畈坞台区,洋程村洋程台区,外方电站专变,洋程村下塘台区,利群村拓溪山台区,","scope":"浙江省-杭州市-建德市-梅城镇 严陵社区城南弄巷；滨江行政村外蔡自然村、里蔡自然村；利群行政村高楼下自然村、后塘自然村一带用户。","startTime":"2020-01-10 08:00:00","stopDate":"2020-01-10 13:00:00","orgNo":"3340180","typeCode":"计划停电","poweroffArea":"35kV大洋变:洋尾Y317线首端，伊村支线20#真空开关，伊村支线52#令克之间","poweroffReason":"伊村支线20#-新30#杆导线架设 原停电结束时间为2020-01-10 12:00:00,因天气原因,现变更停电结束时间为2020-01-10 13:00:00","powerTime":"2020-01-10 12:27:00","powerComm":"已送电","subsNo":"","lineNo":"","tgNo":"","tgName":null,"infoStatus":"1","orgName":"国网浙江建德市供电有限公司","typeName":null,"infoStatusName":null,"dateDay":null,"orgNos":null,"nowTime":null,"countyName":null,"streetName":null,"villageName":null,"roadName":null,"communityName":null,"tranName":null,"sdLineName":null,"cityCode":"3340180","cityName":"国网浙江建德市供电有限公司","provinceCode":null,"stopTime":"2020-01-10 13:00:00","powerType":"全部","powerOffArea":"35kV大洋变:洋尾Y317线首端，伊村支线20#真空开关，伊村支线52#令克之间","powerOffReason":"伊村支线20#-新30#杆导线架设 原停电结束时间为2020-01-10 12:00:00,因天气原因,现变更停电结束时间为2020-01-10 13:00:00","powerOffId":"2019123031020264"},{"poweroffId":2019123031020262,"sgpoweroffId":null,"subsName":"","lineName":"10kV人民C417线","pubTranName":"圣和花园1#公变,","scope":"浙江省-杭州市-萧山区-北干街道-萧然社区-工人路、圣和花园一带","startTime":"2019-12-30 16:05:17","stopDate":"2019-12-30 17:30:17","orgNo":"3340130","typeCode":"电网故障停限电","poweroffArea":"110kV湘湖变:人民C417线-圣和花园1#公变后段","poweroffReason":"(低压停电信息)低压隔离开关跳闸 原停电结束时间为2019-12-30 18:17:17,为减少客户停电时间,加快工作进度,提前送电,现变更停电结束时间为2019-12-30 17:30:17","powerTime":"2019-12-30 16:43:02","powerComm":"已送电","subsNo":"","lineNo":"","tgNo":"","tgName":null,"infoStatus":"1","orgName":"国网浙江杭州市萧山区供电有限公司","typeName":null,"infoStatusName":null,"dateDay":null,"orgNos":null,"nowTime":null,"countyName":null,"streetName":null,"villageName":null,"roadName":null,"communityName":null,"tranName":null,"sdLineName":null,"cityCode":"3340130","cityName":"国网浙江杭州市萧山区供电有限公司","provinceCode":null,"stopTime":"2019-12-30 17:30:17","powerType":"全部","powerOffArea":"110kV湘湖变:人民C417线-圣和花园1#公变后段","powerOffReason":"(低压停电信息)低压隔离开关跳闸 原停电结束时间为2019-12-30 18:17:17,为减少客户停电时间,加快工作进度,提前送电,现变更停电结束时间为2019-12-30 17:30:17","powerOffId":"2019123031020262"},{"poweroffId":2019123031020242,"sgpoweroffId":null,"subsName":"","lineName":"10kV宋路6826线","pubTranName":"梵天四,","scope":"浙江省-杭州市-上城区-紫阳街道-候潮门社区-凤山新村,南星街道-馒头山社区(凤凰山脚路,万松岭路)","startTime":"2019-12-30 15:51:38","stopDate":"2019-12-30 18:51:38","orgNo":"3340101","typeCode":"电网故障停限电","poweroffArea":"110kV复兴变:宋路6826线-梵天四后段","poweroffReason":"高压开关跳闸","powerTime":"2019-12-30 18:06:36","powerComm":"已送电","subsNo":"","lineNo":"","tgNo":"","tgName":null,"infoStatus":"1","orgName":"浙江杭州电力客户服务中心","typeName":null,"infoStatusName":null,"dateDay":null,"orgNos":null,"nowTime":null,"countyName":null,"streetName":null,"villageName":null,"roadName":null,"communityName":null,"tranName":null,"sdLineName":null,"cityCode":"3340101","cityName":"浙江杭州电力客户服务中心","provinceCode":null,"stopTime":"2019-12-30 18:51:38","powerType":"全部","powerOffArea":"110kV复兴变:宋路6826线-梵天四后段","powerOffReason":"高压开关跳闸","powerOffId":"2019123031020242"},{"poweroffId":2019123031020230,"sgpoweroffId":null,"subsName":"","lineName":"10kV瓷厂C405线","pubTranName":"棉北里1#公变,杭州嘉裕房地产开发经营有限公司,浙江萧山农村合作银行高新支行,绿地控股集团杭州众银置业有限公司1#,杭州萧山水务城市建设有限公司,畈里张村3#公变,沁茵园2#公变,浙江中冠物业管理有限公司2#,金帝高科技广场1#公变,棉北里2#公变,金帝高科技广场3#公变,永盛家园1#公变,棉北里3#公变,城中花园2#公变,城中花园1#公变,城中花园3#公变,绿地控股集团杭州众银置业有限公司3#,永盛家园2#公变,沁茵园1#公变,浙江金帝物业服务有限公司商业1#,绿地控股集团杭州众银置业有限公司2#,","scope":"浙江省-杭州市-萧山区-北干街道-畈里张社区(工人路,山阴路),北干街道(星都社区-市心中路,工人路社区-工人路,施家桥社区-工人路,金山西苑社区-山阴路);北干街道-北干一苑社区(浙江萧山农村商业银行股份有限公司,杭州萧山水务城市建设有限公司,杭州中野传媒有限公司),北干街道-畈里张社区(杭州嘉裕房地产开发经营有限公司,绿地控股集团杭州众银置业有限公司)、星都花园、 畈里张村、沁茵园、棉北里、 城中花园、永盛家园一带","startTime":"2019-12-30 15:35:00","stopDate":"2019-12-30 18:25:00","orgNo":"3340130","typeCode":"电网故障停限电","poweroffArea":"110kV湘湖变:瓷厂C405线开关后段","poweroffReason":"棉北分线架空线断 原停电结束时间为2019-12-30 19:00:00,为减少客户停电时间,加快工作进度,提前送电,现变更停电结束时间为2019-12-30 18:25:00","powerTime":"2019-12-30 17:27:16","powerComm":"已送电","subsNo":"","lineNo":"","tgNo":"","tgName":null,"infoStatus":"1","orgName":"国网浙江杭州市萧山区供电有限公司","typeName":null,"infoStatusName":null,"dateDay":null,"orgNos":null,"nowTime":null,"countyName":null,"streetName":null,"villageName":null,"roadName":null,"communityName":null,"tranName":null,"sdLineName":null,"cityCode":"3340130","cityName":"国网浙江杭州市萧山区供电有限公司","provinceCode":null,"stopTime":"2019-12-30 18:25:00","powerType":"全部","powerOffArea":"110kV湘湖变:瓷厂C405线开关后段","powerOffReason":"棉北分线架空线断 原停电结束时间为2019-12-30 19:00:00,为减少客户停电时间,加快工作进度,提前送电,现变更停电结束时间为2019-12-30 18:25:00","powerOffId":"2019123031020230"},{"poweroffId":2019123031020206,"sgpoweroffId":null,"subsName":"","lineName":"10kV利民D241线","pubTranName":"江岭村6号新区公变,杭州中能管业有限公司,江岭村3#前江路公变,小沙村6号新区公变,富阳四季红染织有限公司,江岭村2#三村路东公变,江岭村8号前江路公变,杭州中能管业有限公司,小沙村3#西公变,江岭村4#三村路西公变,","scope":"浙江省-杭州市-富阳区-东洲街道-富春江行政村(江岭自然村,小沙自然村,后江沙自然村);东洲街道(杭州富阳四季红染织有限公司,杭州中能管业有限公司)","startTime":"2019-12-30 15:04:00","stopDate":"2019-12-30 17:04:00","orgNo":"3340170","typeCode":"电网故障停限电","poweroffArea":"110kV白鹤变:利民D241线江岭造纸厂分线开关后段","poweroffReason":"高压开关跳闸","powerTime":"2019-12-30 16:15:29","powerComm":"已送电","subsNo":"","lineNo":"","tgNo":"","tgName":null,"infoStatus":"1","orgName":"国网浙江杭州市富阳区供电公司","typeName":null,"infoStatusName":null,"dateDay":null,"orgNos":null,"nowTime":null,"countyName":null,"streetName":null,"villageName":null,"roadName":null,"communityName":null,"tranName":null,"sdLineName":null,"cityCode":"3340170","cityName":"国网浙江杭州市富阳区供电公司","provinceCode":null,"stopTime":"2019-12-30 17:04:00","powerType":"全部","powerOffArea":"110kV白鹤变:利民D241线江岭造纸厂分线开关后段","powerOffReason":"高压开关跳闸","powerOffId":"2019123031020206"},{"poweroffId":2019123031020157,"sgpoweroffId":null,"subsName":"","lineName":"10kV余家R141线","pubTranName":"李家畈村乌石山公变,李家畈村李家坞配变,","scope":"浙江省-杭州市-淳安县-中洲镇-李家畈行政村(李家坞自然村,乌石山自然村)","startTime":"2020-01-05 08:00:00","stopDate":"2020-01-05 14:00:00","orgNo":"3340190","typeCode":"临时停电","poweroffArea":"110kV汾口变:余家R141线-李家坞支线18号杆跌落式熔断器后段","poweroffReason":"李家坞支线新24+1杆立杆,新建李家畈台区切割送电","powerTime":"2020-01-05 13:05:08","powerComm":"已送电","subsNo":"","lineNo":"","tgNo":"","tgName":null,"infoStatus":"1","orgName":"国网浙江淳安县供电有限公司","typeName":null,"infoStatusName":null,"dateDay":null,"orgNos":null,"nowTime":null,"countyName":null,"streetName":null,"villageName":null,"roadName":null,"communityName":null,"tranName":null,"sdLineName":null,"cityCode":"3340190","cityName":"国网浙江淳安县供电有限公司","provinceCode":null,"stopTime":"2020-01-05 14:00:00","powerType":"全部","powerOffArea":"110kV汾口变:余家R141线-李家坞支线18号杆跌落式熔断器后段","powerOffReason":"李家坞支线新24+1杆立杆,新建李家畈台区切割送电","powerOffId":"2019123031020157"},{"poweroffId":2019123031020143,"sgpoweroffId":null,"subsName":"","lineName":"20kV农业B218线","pubTranName":"丰东花苑14#公变,","scope":"浙江省-杭州市-萧山区-宁围镇-宁围街道-丰东行政村-振宁路、丰东花苑小区、浙江省杭州市萧山区宁围街道丰东行政村等一带","startTime":"2019-12-30 12:30:06","stopDate":"2019-12-30 14:10:06","orgNo":"3340130","typeCode":"电网故障停限电","poweroffArea":"110kV顺丰变:农业B218线-丰东花苑14#公变台区低压开关","poweroffReason":"(低压停电信息)低压漏电保护器短路故障 原停电结束时间为2019-12-30 15:34:06,为减少客户停电时间,加快工作进度,提前送电,现变更停电结束时间为2019-12-30 14:10:06","powerTime":"2019-12-30 13:15:52","powerComm":"已送电","subsNo":"","lineNo":"","tgNo":"","tgName":null,"infoStatus":"1","orgName":"国网浙江杭州市萧山区供电有限公司","typeName":null,"infoStatusName":null,"dateDay":null,"orgNos":null,"nowTime":null,"countyName":null,"streetName":null,"villageName":null,"roadName":null,"communityName":null,"tranName":null,"sdLineName":null,"cityCode":"3340130","cityName":"国网浙江杭州市萧山区供电有限公司","provinceCode":null,"stopTime":"2019-12-30 14:10:06","powerType":"全部","powerOffArea":"110kV顺丰变:农业B218线-丰东花苑14#公变台区低压开关","powerOffReason":"(低压停电信息)低压漏电保护器短路故障 原停电结束时间为2019-12-30 15:34:06,为减少客户停电时间,加快工作进度,提前送电,现变更停电结束时间为2019-12-30 14:10:06","powerOffId":"2019123031020143"},{"poweroffId":2019123031020131,"sgpoweroffId":null,"subsName":"","lineName":"10kV陆桥H788线","pubTranName":"上和一号基建,万景村石道地公变,万景村章家角,梧桐村南村潭公变,万景村康乐,","scope":"浙江省杭州市余杭区闲林街道：万景村南村潭、康乐村、石道地、章家角、 上和路建设工地一带","startTime":"2020-01-07 09:30:00","stopDate":"2020-01-07 17:30:00","orgNo":"3340140","typeCode":"计划停电","poweroffArea":"绿澜H78817开关 原停电结束时间为2020-01-07 18:30:00,为减少客户停电时间,加快工作进度,提前送电,现变更停电结束时间为2020-01-07 17:30:00","poweroffReason":"业扩工程（上和路迁改工程）：阀门H725线绿澜分线5号杆开关后段线路移位通原停电结束时间为2020-01-07 18:30:00,为减少客户停电时间,加快工作进度,提前送电,现变更停电结束时间为2020-01-07 17:30:00","powerTime":"2020-01-07 16:50:55","powerComm":"已送电","subsNo":"","lineNo":"","tgNo":"","tgName":null,"infoStatus":"1","orgName":"国网浙江杭州市余杭区供电有限公司","typeName":null,"infoStatusName":null,"dateDay":null,"orgNos":null,"nowTime":null,"countyName":null,"streetName":null,"villageName":null,"roadName":null,"communityName":null,"tranName":null,"sdLineName":null,"cityCode":"3340140","cityName":"国网浙江杭州市余杭区供电有限公司","provinceCode":null,"stopTime":"2020-01-07 17:30:00","powerType":"全部","powerOffArea":"绿澜H78817开关 原停电结束时间为2020-01-07 18:30:00,为减少客户停电时间,加快工作进度,提前送电,现变更停电结束时间为2020-01-07 17:30:00","powerOffReason":"业扩工程（上和路迁改工程）：阀门H725线绿澜分线5号杆开关后段线路移位通原停电结束时间为2020-01-07 18:30:00,为减少客户停电时间,加快工作进度,提前送电,现变更停电结束时间为2020-01-07 17:30:00","powerOffId":"2019123031020131"},{"poweroffId":2019123031020130,"sgpoweroffId":null,"subsName":"","lineName":"10kV桥南H507线","pubTranName":"水务,","scope":"浙江省杭州市余杭区瓶窑镇：窑北泵站一带","startTime":"2020-01-06 08:30:00","stopDate":"2020-01-06 13:30:00","orgNo":"3340140","typeCode":"临时停电","poweroffArea":"35kV瓶镇变:桥南H507线水务分线","poweroffReason":"计划工作 原停电结束时间为2020-01-06 16:30:00,为减少客户停电时间,加快工作进度,提前送电,现变更停电结束时间为2020-01-06 13:30:00","powerTime":"2020-01-06 13:17:53","powerComm":"已送电","subsNo":"","lineNo":"","tgNo":"","tgName":null,"infoStatus":"1","orgName":"国网浙江杭州市余杭区供电有限公司","typeName":null,"infoStatusName":null,"dateDay":null,"orgNos":null,"nowTime":null,"countyName":null,"streetName":null,"villageName":null,"roadName":null,"communityName":null,"tranName":null,"sdLineName":null,"cityCode":"3340140","cityName":"国网浙江杭州市余杭区供电有限公司","provinceCode":null,"stopTime":"2020-01-06 13:30:00","powerType":"全部","powerOffArea":"35kV瓶镇变:桥南H507线水务分线","powerOffReason":"计划工作 原停电结束时间为2020-01-06 16:30:00,为减少客户停电时间,加快工作进度,提前送电,现变更停电结束时间为2020-01-06 13:30:00","powerOffId":"2019123031020130"},{"poweroffId":2019123031020128,"sgpoweroffId":null,"subsName":"","lineName":"10kV三桥G652线","pubTranName":"长树10组(高地廊)1号公变,","scope":"浙江省杭州市余杭区东湖街道：长树10组一带","startTime":"2020-01-09 08:30:00","stopDate":"2020-01-09 11:00:00","orgNo":"3340140","typeCode":"计划停电","poweroffArea":"110kV南苑变:三桥G652线-长树10组(高地廊)1号公变后段","poweroffReason":"(低压停电信息)业扩工程（运河二通道）：拆除长树10组（高地廊）1#公变低压导线7档、做拉线1组 原停电结束时间为2020-01-09 13:00:00,为减少客户停电时间,加快工作进度,提前送电,现变更停电结束时间为2020-01-09 11:00:00","powerTime":"2020-01-09 10:54:59","powerComm":"已送电","subsNo":"","lineNo":"","tgNo":"","tgName":null,"infoStatus":"1","orgName":"国网浙江杭州市余杭区供电有限公司","typeName":null,"infoStatusName":null,"dateDay":null,"orgNos":null,"nowTime":null,"countyName":null,"streetName":null,"villageName":null,"roadName":null,"communityName":null,"tranName":null,"sdLineName":null,"cityCode":"3340140","cityName":"国网浙江杭州市余杭区供电有限公司","provinceCode":null,"stopTime":"2020-01-09 11:00:00","powerType":"全部","powerOffArea":"110kV南苑变:三桥G652线-长树10组(高地廊)1号公变后段","powerOffReason":"(低压停电信息)业扩工程（运河二通道）：拆除长树10组（高地廊）1#公变低压导线7档、做拉线1组 原停电结束时间为2020-01-09 13:00:00,为减少客户停电时间,加快工作进度,提前送电,现变更停电结束时间为2020-01-09 11:00:00","powerOffId":"2019123031020128"}],"pageModel":{"pageNow":628,"totalCount":17789,"totalPage":1779,"tableRows":0,"pageCount":10,"beginCount":6270},"isExperi":"1"}