{"message":"","today":"2020-06-15","seleList":[{"poweroffId":2020060131020146,"sgpoweroffId":null,"subsName":"","lineName":"10kV彭宣6975线","pubTranName":"三村（2）北农,三村(2)农,三村(2-1)农,","scope":"浙江省-杭州市-江干区-九堡镇-三村村社区-三村村3区","startTime":"2020-06-01 10:19:00","stopDate":"2020-06-01 15:30:00","orgNo":"3340101","typeCode":"电网故障停限电","poweroffArea":"110kV彭埠变:彭宣6975线三村(2)农分线后段","poweroffReason":"高压开关跳闸 原停电结束时间为2020-06-01 17:19:00,为减少客户停电时间,加快工作进度,提前送电,现变更停电结束时间为2020-06-01 15:30:00","powerTime":"2020-06-01 14:49:49","powerComm":"已送电","subsNo":"","lineNo":"","tgNo":"","tgName":null,"infoStatus":"1","orgName":"浙江杭州电力客户服务中心","typeName":null,"infoStatusName":null,"dateDay":null,"orgNos":null,"nowTime":null,"countyName":null,"streetName":null,"villageName":null,"roadName":null,"communityName":null,"tranName":null,"sdLineName":null,"cityCode":"3340101","cityName":"浙江杭州电力客户服务中心","provinceCode":null,"stopTime":"2020-06-01 15:30:00","powerType":"全部","powerOffArea":"110kV彭埠变:彭宣6975线三村(2)农分线后段","powerOffReason":"高压开关跳闸 原停电结束时间为2020-06-01 17:19:00,为减少客户停电时间,加快工作进度,提前送电,现变更停电结束时间为2020-06-01 15:30:00","powerOffId":"2020060131020146"},{"poweroffId":2020060131020138,"sgpoweroffId":null,"subsName":"","lineName":"10kV万牧C896线","pubTranName":"宁围集镇2#公变,","scope":"浙江省-杭州市-萧山区-宁围镇-宁围街道-宁牧行政村-宁牧自然村,宁围街道-振宁社区(集镇自然村,生兴路,振宁路)等","startTime":"2020-06-01 10:17:18","stopDate":"2020-06-01 12:17:18","orgNo":"3340130","typeCode":"电网故障停限电","poweroffArea":"110kV万安变:万牧C896线-宁围集镇2#公变台区低压开关","poweroffReason":"(低压停电信息)低压漏电保护器跳闸","powerTime":"2020-06-01 11:20:13","powerComm":"已送电","subsNo":"","lineNo":"","tgNo":"","tgName":null,"infoStatus":"1","orgName":"国网浙江杭州市萧山区供电有限公司","typeName":null,"infoStatusName":null,"dateDay":null,"orgNos":null,"nowTime":null,"countyName":null,"streetName":null,"villageName":null,"roadName":null,"communityName":null,"tranName":null,"sdLineName":null,"cityCode":"3340130","cityName":"国网浙江杭州市萧山区供电有限公司","provinceCode":null,"stopTime":"2020-06-01 12:17:18","powerType":"全部","powerOffArea":"110kV万安变:万牧C896线-宁围集镇2#公变台区低压开关","powerOffReason":"(低压停电信息)低压漏电保护器跳闸","powerOffId":"2020060131020138"},{"poweroffId":2020060131020103,"sgpoweroffId":null,"subsName":"","lineName":"10kV中苕G334线","pubTranName":"1#,中天建设集团有限公司612084460401#专变,求浩教育（6120679496）1#变压器,良渚组团路灯箱变,獐山矿山机械厂2,浙江省建工集团有限责任公司612084433301#专变,科昶机械1#,仁和城建路灯箱变,洛阳村树斗西公变,环艺铝业,洛阳村树斗东公变,杭州市余杭区仁和成人文化技术学校,求浩教育（6120679496）2#变压器,浙江省建工集团有限责任公司612084433701#专变,","scope":"浙江省-杭州市-余杭区-仁和街道-东山行政村-王巷儿自然村,仁和街道-洛阳行政村(南庄桥自然村,树斗自然村,余山西自然村,寺斗里自然村,洛阳村,斗里自然村);浙江省-杭州市-余杭区-仁和街道-永泰行政村-杭州余杭洛阳股份经济合作社,仁和街道-东风行政村(杭州仁和城建有限公司,杭州仁和先进制造业投资有限公司),仁和街道-洛阳行政村(浙江省建工集团有限责任公司,中天建设集团有限公司,杭州余杭獐山机械设备厂,杭州科昶机械制造有限公司,杭州建工环艺铝业有限公司,杭州市余杭区新理想高级中学,杭州市公安局余杭区分局)","startTime":"2020-06-01 09:52:18","stopDate":"2020-06-01 11:00:00","orgNo":"3340140","typeCode":"电网故障停限电","poweroffArea":"110kV洛山变:中苕G334线-树斗东分线开关后段","poweroffReason":"高压开关跳闸 原停电结束时间为2020-06-01 11:52:18,为减少客户停电时间,加快工作进度,提前送电,现变更停电结束时间为2020-06-01 11:00:00","powerTime":"2020-06-01 10:28:39","powerComm":"已送电","subsNo":"","lineNo":"","tgNo":"","tgName":null,"infoStatus":"1","orgName":"国网浙江杭州市余杭区供电有限公司","typeName":null,"infoStatusName":null,"dateDay":null,"orgNos":null,"nowTime":null,"countyName":null,"streetName":null,"villageName":null,"roadName":null,"communityName":null,"tranName":null,"sdLineName":null,"cityCode":"3340140","cityName":"国网浙江杭州市余杭区供电有限公司","provinceCode":null,"stopTime":"2020-06-01 11:00:00","powerType":"全部","powerOffArea":"110kV洛山变:中苕G334线-树斗东分线开关后段","powerOffReason":"高压开关跳闸 原停电结束时间为2020-06-01 11:52:18,为减少客户停电时间,加快工作进度,提前送电,现变更停电结束时间为2020-06-01 11:00:00","powerOffId":"2020060131020103"},{"poweroffId":2020060131020090,"sgpoweroffId":null,"subsName":"","lineName":"10kV沿滨6672线","pubTranName":"沙虞五,","scope":"浙江省-杭州市-滨江区-浦沿街道-新生社区-新生路","startTime":"2020-06-01 09:25:00","stopDate":"2020-06-01 10:50:00","orgNo":"3340101","typeCode":"电网故障停限电","poweroffArea":"110kV浦沿变:沿滨6672线沙虞五跌落式熔断器配变","poweroffReason":"高压开关跳闸 原停电结束时间为2020-06-01 11:25:00,为减少客户停电时间,加快工作进度,提前送电,现变更停电结束时间为2020-06-01 10:50:00","powerTime":"2020-06-01 10:00:27","powerComm":"已送电","subsNo":"","lineNo":"","tgNo":"","tgName":null,"infoStatus":"1","orgName":"浙江杭州电力客户服务中心","typeName":null,"infoStatusName":null,"dateDay":null,"orgNos":null,"nowTime":null,"countyName":null,"streetName":null,"villageName":null,"roadName":null,"communityName":null,"tranName":null,"sdLineName":null,"cityCode":"3340101","cityName":"浙江杭州电力客户服务中心","provinceCode":null,"stopTime":"2020-06-01 10:50:00","powerType":"全部","powerOffArea":"110kV浦沿变:沿滨6672线沙虞五跌落式熔断器配变","powerOffReason":"高压开关跳闸 原停电结束时间为2020-06-01 11:25:00,为减少客户停电时间,加快工作进度,提前送电,现变更停电结束时间为2020-06-01 10:50:00","powerOffId":"2020060131020090"},{"poweroffId":2020060131020078,"sgpoweroffId":null,"subsName":"","lineName":"10kV大厦G654线","pubTranName":"迎宾铁路桥泵站,大厦线南苑(一)公变,金经公变,杭州城市花园酒店有限公司(杭州余杭国际会议中心)1,胡姬花园1号公变,新城花园1号公变,水务公司612066814301#专变,杭州桓浩物业有限公司余杭分公司1#,美亚胡姬1#专变,胡姬花园7号公变,杭州市余杭区苑中园业主委员会,胡姬花园3号公变,苑中园3号公变,苑中园1号公变,胡姬花园6号公变,金盛公变,检法司1#,杭州城市花园酒店有限公司(杭州余杭国际会议中心)2,胡姬花园4号公变,景和园公变,苑中园2号公变,金箭公寓3号公变,胡姬花园2号公变,2＃,南苑二号公变,胡姬花园5号公变,金箭公寓2号公变,新城花园2号公变,金箭公寓1号公变,杭州城市花园酒店有限公司(杭州余杭国际会议中心)3,","scope":"浙江省-杭州市-余杭区-南苑街道-新城社区(新城,新城花苑小区,南苑商贸城小区,政法街,迎宾路273-36号,新城路,迎宾路,南苑二区小区,人民大道,世纪大道,广和街,南苑一区小区,南大街),南苑街道(新安社区-新安,保障桥社区-迎宾路,长树社区-人民大道,时代社区-南大街,东安社区-广和街);南苑街道(杭州城市花园酒店有限公司(杭州余杭国际会议中心),杭州桓浩物业有限公司余杭分公司,杭州明宇物业管理有限公司,杭州艺海名扬商厦有限公司,杭州市余杭区人民检察院,杭州市余杭区城市管理局,杭州余杭城东净水有限公司)","startTime":"2020-06-01 09:15:00","stopDate":"2020-06-01 11:09:00","orgNo":"3340140","typeCode":"电网故障停限电","poweroffArea":"110kV南苑变:大厦G654线大厦G654线开关后段","poweroffReason":"高压开关跳闸","powerTime":"2020-06-01 10:27:31","powerComm":"已送电","subsNo":"","lineNo":"","tgNo":"","tgName":null,"infoStatus":"1","orgName":"国网浙江杭州市余杭区供电有限公司","typeName":null,"infoStatusName":null,"dateDay":null,"orgNos":null,"nowTime":null,"countyName":null,"streetName":null,"villageName":null,"roadName":null,"communityName":null,"tranName":null,"sdLineName":null,"cityCode":"3340140","cityName":"国网浙江杭州市余杭区供电有限公司","provinceCode":null,"stopTime":"2020-06-01 11:09:00","powerType":"全部","powerOffArea":"110kV南苑变:大厦G654线大厦G654线开关后段","powerOffReason":"高压开关跳闸","powerOffId":"2020060131020078"},{"poweroffId":2020060131020075,"sgpoweroffId":null,"subsName":"","lineName":"10kV明月V482线","pubTranName":"环北路4＃公变,","scope":"浙江省-杭州市-临安市-锦城街道-环北路（环北路与西墅街交叉以北）附近。","startTime":"2020-06-11 08:10:00","stopDate":"2020-06-11 17:30:00","orgNo":"3340160","typeCode":"计划停电","poweroffArea":"110kV平山变:明月V482线-明月482线38#后段","poweroffReason":"变压器增容 原停电结束时间为2020-06-11 15:30:00,因天气原因短时大雨耽误施工,现变更停电结束时间为2020-06-11 17:30:00","powerTime":"2020-06-11 17:01:47","powerComm":"已送电","subsNo":"","lineNo":"","tgNo":"","tgName":null,"infoStatus":"1","orgName":"国网浙江临安市供电公司","typeName":null,"infoStatusName":null,"dateDay":null,"orgNos":null,"nowTime":null,"countyName":null,"streetName":null,"villageName":null,"roadName":null,"communityName":null,"tranName":null,"sdLineName":null,"cityCode":"3340160","cityName":"国网浙江临安市供电公司","provinceCode":null,"stopTime":"2020-06-11 17:30:00","powerType":"全部","powerOffArea":"110kV平山变:明月V482线-明月482线38#后段","powerOffReason":"变压器增容 原停电结束时间为2020-06-11 15:30:00,因天气原因短时大雨耽误施工,现变更停电结束时间为2020-06-11 17:30:00","powerOffId":"2020060131020075"},{"poweroffId":2020060131020062,"sgpoweroffId":null,"subsName":"","lineName":"10kV康庭G872线","pubTranName":"景丽华庭2-1#公变,景丽华庭1-2#公变,景丽华庭2-2#公变,景丽华庭1-1#公变,","scope":"浙江省-杭州市-余杭区-东湖街道-经济开发区-康信路,塘栖镇-钱江经济开发区社区(兴起路,兴盛路)","startTime":"2020-06-01 08:56:03","stopDate":"2020-06-01 11:46:00","orgNo":"3340140","typeCode":"电网故障停限电","poweroffArea":"110kV漳河变:康庭G872线景丽华庭1#箱变环网柜（户外）景丽华庭1#箱变开关站分线后段","poweroffReason":"高压开关跳闸","powerTime":"2020-06-01 11:07:47","powerComm":"已送电","subsNo":"","lineNo":"","tgNo":"","tgName":null,"infoStatus":"1","orgName":"国网浙江杭州市余杭区供电有限公司","typeName":null,"infoStatusName":null,"dateDay":null,"orgNos":null,"nowTime":null,"countyName":null,"streetName":null,"villageName":null,"roadName":null,"communityName":null,"tranName":null,"sdLineName":null,"cityCode":"3340140","cityName":"国网浙江杭州市余杭区供电有限公司","provinceCode":null,"stopTime":"2020-06-01 11:46:00","powerType":"全部","powerOffArea":"110kV漳河变:康庭G872线景丽华庭1#箱变环网柜（户外）景丽华庭1#箱变开关站分线后段","powerOffReason":"高压开关跳闸","powerOffId":"2020060131020062"},{"poweroffId":2020060131020052,"sgpoweroffId":null,"subsName":"","lineName":"10kV南苑V565线","pubTranName":"南苑二区2#公变,南苑二区4#公变,","scope":"浙江省-杭州市-临安市-锦城街道-兰岭社区南苑二区。","startTime":"2020-06-09 08:40:00","stopDate":"2020-06-09 11:20:00","orgNo":"3340160","typeCode":"计划停电","poweroffArea":"110kV锦南变:南苑V565线南苑二小区分线12#杆南苑二区2#公变开关后段","poweroffReason":"技改工程：杭州临安锦城2020年环北路4#公变等台区增容布点工程 原停电结束时间为2020-06-09 13:30:00,为减少客户停电时间,加快工作进度,提前送电,现变更停电结束时间为2020-06-09 11:20:00","powerTime":"2020-06-09 10:48:21","powerComm":"已送电","subsNo":"","lineNo":"","tgNo":"","tgName":null,"infoStatus":"1","orgName":"国网浙江临安市供电公司","typeName":null,"infoStatusName":null,"dateDay":null,"orgNos":null,"nowTime":null,"countyName":null,"streetName":null,"villageName":null,"roadName":null,"communityName":null,"tranName":null,"sdLineName":null,"cityCode":"3340160","cityName":"国网浙江临安市供电公司","provinceCode":null,"stopTime":"2020-06-09 11:20:00","powerType":"全部","powerOffArea":"110kV锦南变:南苑V565线南苑二小区分线12#杆南苑二区2#公变开关后段","powerOffReason":"技改工程：杭州临安锦城2020年环北路4#公变等台区增容布点工程 原停电结束时间为2020-06-09 13:30:00,为减少客户停电时间,加快工作进度,提前送电,现变更停电结束时间为2020-06-09 11:20:00","powerOffId":"2020060131020052"},{"poweroffId":2020060131020045,"sgpoweroffId":null,"subsName":"","lineName":"10kV城二A600线","pubTranName":"万都晶典2#公变,","scope":"浙江省-杭州市-萧山区-新塘街道(通惠南路-晶典公寓小区,汇宇社区-南秀路)，万都晶典公寓2号楼一带","startTime":"2020-06-01 08:32:00","stopDate":"2020-06-01 11:00:00","orgNo":"3340130","typeCode":"电网故障停限电","poweroffArea":"110kV城东变:城二A600线万都晶典2#公变台区低压开关","poweroffReason":"(低压停电信息)低压开关跳闸","powerTime":"2020-06-01 10:09:08","powerComm":"已送电","subsNo":"","lineNo":"","tgNo":"","tgName":null,"infoStatus":"1","orgName":"国网浙江杭州市萧山区供电有限公司","typeName":null,"infoStatusName":null,"dateDay":null,"orgNos":null,"nowTime":null,"countyName":null,"streetName":null,"villageName":null,"roadName":null,"communityName":null,"tranName":null,"sdLineName":null,"cityCode":"3340130","cityName":"国网浙江杭州市萧山区供电有限公司","provinceCode":null,"stopTime":"2020-06-01 11:00:00","powerType":"全部","powerOffArea":"110kV城东变:城二A600线万都晶典2#公变台区低压开关","powerOffReason":"(低压停电信息)低压开关跳闸","powerOffId":"2020060131020045"},{"poweroffId":2020060131020042,"sgpoweroffId":null,"subsName":"","lineName":"10kV皇印D392线","pubTranName":"洞桥村12#假山头公变,","scope":"浙江省-杭州市-富阳区-洞桥镇-洞桥行政村(假山头自然村,洞桥自然村,陈林自然村,旗山自然村,范家自然村,于家自然村)","startTime":"2020-06-01 08:27:30","stopDate":"2020-06-01 10:40:30","orgNo":"3340170","typeCode":"电网故障停限电","poweroffArea":"110kV万市变:皇印D392线-洞桥村12#假山头公变后段","poweroffReason":"(低压停电信息)低压开关跳闸","powerTime":"2020-06-01 10:11:46","powerComm":"已送电","subsNo":"","lineNo":"","tgNo":"","tgName":null,"infoStatus":"1","orgName":"国网浙江杭州市富阳区供电公司","typeName":null,"infoStatusName":null,"dateDay":null,"orgNos":null,"nowTime":null,"countyName":null,"streetName":null,"villageName":null,"roadName":null,"communityName":null,"tranName":null,"sdLineName":null,"cityCode":"3340170","cityName":"国网浙江杭州市富阳区供电公司","provinceCode":null,"stopTime":"2020-06-01 10:40:30","powerType":"全部","powerOffArea":"110kV万市变:皇印D392线-洞桥村12#假山头公变后段","powerOffReason":"(低压停电信息)低压开关跳闸","powerOffId":"2020060131020042"}],"pageModel":{"pageNow":63,"totalCount":17786,"totalPage":1779,"tableRows":0,"pageCount":10,"beginCount":620},"isExperi":"1"}