{"message":"","today":"2020-06-15","seleList":[{"poweroffId":2019122731020663,"sgpoweroffId":null,"subsName":"","lineName":"10kV下干D385线","pubTranName":"新绿村1#刘村公变,常南村3号柳树湾公变,常南村2号洪家公变,常南村4号上南坞公变,新绿村3号大角公变,杭州富阳通达公路工程有限公司1#基建变,新绿村6#胡家公变,新绿村2#双江口公变,常南村1号罗坞公变,新绿村4#下南坞公变,景山村3号牛峰岭公变,","scope":"浙江省-杭州市-富阳区-常安镇-景山行政村-牛峰岭自然村,湖源乡-常南行政村(洪家自然村,罗坞自然村,柳树弯自然村,上南坞自然村),湖源乡-新绿行政村(双江口自然村,胡家自然村,刘村自然村,费家自然村,大角自然村);浙江省-杭州市-富阳区-湖源乡-常南行政村-杭州富阳通达公路工程有限公司","startTime":"2020-01-10 15:30:00","stopDate":"2020-01-10 17:00:00","orgNo":"3340170","typeCode":"计划停电","poweroffArea":"35kV湖源变:下干D385线-下干D385线58#杆后段","poweroffReason":"场口10千伏下干D385线道路迁改工程：拆除下干D385线59#杆备用电源电缆头等工作。 原停电结束时间为2020-01-10 16:30:00,因天气原因,现变更停电结束时间为2020-01-10 17:00:00","powerTime":"2020-01-10 16:40:16","powerComm":"已送电","subsNo":"","lineNo":"","tgNo":"","tgName":null,"infoStatus":"1","orgName":"国网浙江杭州市富阳区供电公司","typeName":null,"infoStatusName":null,"dateDay":null,"orgNos":null,"nowTime":null,"countyName":null,"streetName":null,"villageName":null,"roadName":null,"communityName":null,"tranName":null,"sdLineName":null,"cityCode":"3340170","cityName":"国网浙江杭州市富阳区供电公司","provinceCode":null,"stopTime":"2020-01-10 17:00:00","powerType":"全部","powerOffArea":"35kV湖源变:下干D385线-下干D385线58#杆后段","powerOffReason":"场口10千伏下干D385线道路迁改工程：拆除下干D385线59#杆备用电源电缆头等工作。 原停电结束时间为2020-01-10 16:30:00,因天气原因,现变更停电结束时间为2020-01-10 17:00:00","powerOffId":"2019122731020663"},{"poweroffId":2019122731020662,"sgpoweroffId":null,"subsName":"","lineName":"10kV横山G080线","pubTranName":"油墨厂,320国道2#路灯变,移动公司南星基站,","scope":"浙江省杭州市余杭区星桥街道：320国道2#灯bian、移动公司南星基站一带","startTime":"2020-01-08 08:30:00","stopDate":"2020-01-08 11:30:00","orgNo":"3340140","typeCode":"计划停电","poweroffArea":"110kV星桥变:山岭开关站横山G080线山岭分支箱分线。","poweroffReason":"山岭开关站横山G080线山岭分支箱分线山岭分支箱油墨厂分线电缆拆头。","powerTime":"2020-01-08 11:25:36","powerComm":"已送电","subsNo":"","lineNo":"","tgNo":"","tgName":null,"infoStatus":"1","orgName":"国网浙江杭州市余杭区供电有限公司","typeName":null,"infoStatusName":null,"dateDay":null,"orgNos":null,"nowTime":null,"countyName":null,"streetName":null,"villageName":null,"roadName":null,"communityName":null,"tranName":null,"sdLineName":null,"cityCode":"3340140","cityName":"国网浙江杭州市余杭区供电有限公司","provinceCode":null,"stopTime":"2020-01-08 11:30:00","powerType":"全部","powerOffArea":"110kV星桥变:山岭开关站横山G080线山岭分支箱分线。","powerOffReason":"山岭开关站横山G080线山岭分支箱分线山岭分支箱油墨厂分线电缆拆头。","powerOffId":"2019122731020662"},{"poweroffId":2019122731020661,"sgpoweroffId":null,"subsName":"","lineName":"10kV能源V813线","pubTranName":"青山湖节能科技有限公司,青山湖节能科技有限公司（T4变）,浙江青山湖节能科技有限公司24,浙江青山湖节能科技有限公司22,","scope":"浙江省-杭州市-临安市-青山湖街道-青山行政村-浙江青山湖节能科技有限公司一带","startTime":"2020-01-06 08:00:00","stopDate":"2020-01-06 14:00:00","orgNo":"3340160","typeCode":"计划停电","poweroffArea":"110kV胜联变:能源V813线改线路检修","poweroffReason":"业扩工程","powerTime":"2020-01-06 13:50:11","powerComm":"已送电","subsNo":"","lineNo":"","tgNo":"","tgName":null,"infoStatus":"1","orgName":"国网浙江临安市供电公司","typeName":null,"infoStatusName":null,"dateDay":null,"orgNos":null,"nowTime":null,"countyName":null,"streetName":null,"villageName":null,"roadName":null,"communityName":null,"tranName":null,"sdLineName":null,"cityCode":"3340160","cityName":"国网浙江临安市供电公司","provinceCode":null,"stopTime":"2020-01-06 14:00:00","powerType":"全部","powerOffArea":"110kV胜联变:能源V813线改线路检修","powerOffReason":"业扩工程","powerOffId":"2019122731020661"},{"poweroffId":2019122731020659,"sgpoweroffId":null,"subsName":"","lineName":"10kV下干D385线","pubTranName":"新绿村2#双江口公变,常南村3号柳树湾公变,新绿村4#下南坞公变,新绿村6#胡家公变,常南村1号罗坞公变,常南村4号上南坞公变,杭州富阳通达公路工程有限公司1#基建变,新绿村1#刘村公变,新绿村3号大角公变,景山村3号牛峰岭公变,常南村2号洪家公变,","scope":"浙江省-杭州市-富阳区-常安镇-景山行政村-牛峰岭自然村,湖源乡-常南行政村(洪家自然村,罗坞自然村,柳树弯自然村,上南坞自然村),湖源乡-新绿行政村(双江口自然村,胡家自然村,刘村自然村,费家自然村,大角自然村);浙江省-杭州市-富阳区-湖源乡-常南行政村-杭州富阳通达公路工程有限公司一带","startTime":"2020-01-10 08:30:00","stopDate":"2020-01-10 09:30:00","orgNo":"3340170","typeCode":"计划停电","poweroffArea":"35kV湖源变:下干D385线-下干D385线58#杆后段","poweroffReason":"场口10千伏下干D385线道路迁改工程：备用电源电缆头搭接至下干D385线59#杆等工作。","powerTime":"2020-01-10 09:24:27","powerComm":"已送电","subsNo":"","lineNo":"","tgNo":"","tgName":null,"infoStatus":"1","orgName":"国网浙江杭州市富阳区供电公司","typeName":null,"infoStatusName":null,"dateDay":null,"orgNos":null,"nowTime":null,"countyName":null,"streetName":null,"villageName":null,"roadName":null,"communityName":null,"tranName":null,"sdLineName":null,"cityCode":"3340170","cityName":"国网浙江杭州市富阳区供电公司","provinceCode":null,"stopTime":"2020-01-10 09:30:00","powerType":"全部","powerOffArea":"35kV湖源变:下干D385线-下干D385线58#杆后段","powerOffReason":"场口10千伏下干D385线道路迁改工程：备用电源电缆头搭接至下干D385线59#杆等工作。","powerOffId":"2019122731020659"},{"poweroffId":2019122731020657,"sgpoweroffId":null,"subsName":"","lineName":"10kV大通G056线","pubTranName":"东三2组2号公变,","scope":"浙江省杭州市余杭区乔司街道：东三2组一带","startTime":"2020-01-07 08:30:00","stopDate":"2020-01-07 19:00:00","orgNo":"3340140","typeCode":"计划停电","poweroffArea":"110kV外乔变:外乔变大通G056线-通游开关站大通G056线。","poweroffReason":"大通G056线3#杆导线移用至基建线路1#杆，12#杆新放导线至基建线路13#杆，东三2组2#变移位及低压搭接。 原停电结束时间为2020-01-07 17:00:00,因现场施工条件原因,现变更停电结束时间为2020-01-07 19:00:00","powerTime":"2020-01-07 18:57:00","powerComm":"已送电","subsNo":"","lineNo":"","tgNo":"","tgName":null,"infoStatus":"1","orgName":"国网浙江杭州市余杭区供电有限公司","typeName":null,"infoStatusName":null,"dateDay":null,"orgNos":null,"nowTime":null,"countyName":null,"streetName":null,"villageName":null,"roadName":null,"communityName":null,"tranName":null,"sdLineName":null,"cityCode":"3340140","cityName":"国网浙江杭州市余杭区供电有限公司","provinceCode":null,"stopTime":"2020-01-07 19:00:00","powerType":"全部","powerOffArea":"110kV外乔变:外乔变大通G056线-通游开关站大通G056线。","powerOffReason":"大通G056线3#杆导线移用至基建线路1#杆，12#杆新放导线至基建线路13#杆，东三2组2#变移位及低压搭接。 原停电结束时间为2020-01-07 17:00:00,因现场施工条件原因,现变更停电结束时间为2020-01-07 19:00:00","powerOffId":"2019122731020657"},{"poweroffId":2019122731020656,"sgpoweroffId":null,"subsName":"","lineName":"10kV阳山D615线","pubTranName":"场口镇垃圾中转站,","scope":"浙江省-杭州市-富阳区-场口镇-徐家行政村-场口镇垃圾中转站一带","startTime":"2020-01-09 14:30:00","stopDate":"2020-01-09 15:30:00","orgNo":"3340170","typeCode":"计划停电","poweroffArea":"110kV鸿丰变:阳山D615线-场口镇垃圾中转站后段","poweroffReason":"场口镇精品村精品线路移位工程：阳山D615线39#杆中转站分线6#杆场口镇垃圾中转站：1、拆除自备电源搭接至配电屏电缆1根；2、接入场口镇垃圾中转站至配电屏进线侧电缆1根等工作。","powerTime":"2020-01-09 15:17:27","powerComm":"已送电","subsNo":"","lineNo":"","tgNo":"","tgName":null,"infoStatus":"1","orgName":"国网浙江杭州市富阳区供电公司","typeName":null,"infoStatusName":null,"dateDay":null,"orgNos":null,"nowTime":null,"countyName":null,"streetName":null,"villageName":null,"roadName":null,"communityName":null,"tranName":null,"sdLineName":null,"cityCode":"3340170","cityName":"国网浙江杭州市富阳区供电公司","provinceCode":null,"stopTime":"2020-01-09 15:30:00","powerType":"全部","powerOffArea":"110kV鸿丰变:阳山D615线-场口镇垃圾中转站后段","powerOffReason":"场口镇精品村精品线路移位工程：阳山D615线39#杆中转站分线6#杆场口镇垃圾中转站：1、拆除自备电源搭接至配电屏电缆1根；2、接入场口镇垃圾中转站至配电屏进线侧电缆1根等工作。","powerOffId":"2019122731020656"},{"poweroffId":2019122731020653,"sgpoweroffId":null,"subsName":"","lineName":"10kV阳山D615线","pubTranName":"百丈畈村3号田畈公变,浙江国裕隧道管片制造有限公司(2#变),富阳市王洲五金弹簧电讯厂,浙江国裕隧道管片制造有限公司(1#变),浙江国裕隧道管片制造有限公司3#变,","scope":"浙江省-杭州市-富阳区-场口镇-百丈畈行政村(百丈坞自然村,田畈自然村);场口镇(百丈畈行政村-富阳区王洲五金弹簧电讯厂,场口行政村-浙江国裕隧道管片制造有限公司)一带","startTime":"2020-01-09 14:30:00","stopDate":"2020-01-09 15:30:00","orgNo":"3340170","typeCode":"计划停电","poweroffArea":"110kV鸿丰变:阳山D615线-田畈支线后段","poweroffReason":"场口镇精品村精品线路移位工程：拆除阳山D615线39#杆中转站分线5#杆田畈支线5#杆备用电源电缆头等工作。","powerTime":"2020-01-09 15:17:18","powerComm":"已送电","subsNo":"","lineNo":"","tgNo":"","tgName":null,"infoStatus":"1","orgName":"国网浙江杭州市富阳区供电公司","typeName":null,"infoStatusName":null,"dateDay":null,"orgNos":null,"nowTime":null,"countyName":null,"streetName":null,"villageName":null,"roadName":null,"communityName":null,"tranName":null,"sdLineName":null,"cityCode":"3340170","cityName":"国网浙江杭州市富阳区供电公司","provinceCode":null,"stopTime":"2020-01-09 15:30:00","powerType":"全部","powerOffArea":"110kV鸿丰变:阳山D615线-田畈支线后段","powerOffReason":"场口镇精品村精品线路移位工程：拆除阳山D615线39#杆中转站分线5#杆田畈支线5#杆备用电源电缆头等工作。","powerOffId":"2019122731020653"},{"poweroffId":2019122731020650,"sgpoweroffId":null,"subsName":"","lineName":"10kV纤石H402线","pubTranName":"石桥村沈家斗2号公变,荀山村荷叶斗公变,尖角滩1,石桥村罗家桥公变,石桥村沈家斗1号公变,石桥村罗家坝公变,石桥村罗家坝2号公变,良渚朱家塘村,石桥村罗家塘公变,朱家塘,石桥村薛家里公变,橡胶厂,荀山村舍田湾公变,","scope":"浙江省杭州市余杭区良渚街道：罗家坝村、罗家桥村、罗家塘村、朱家塘村、舍田湾村、白马塘村、沈家斗村、荷叶斗村、尖角滩村、良渚塑胶厂一带","startTime":"2020-01-06 09:00:00","stopDate":"2020-01-06 16:30:00","orgNo":"3340140","typeCode":"计划停电","poweroffArea":"35kV良渚变:纤石H402线-舍田湾分线开关后段","poweroffReason":"纤石H402线八一分线线路改造工作 原停电结束时间为2020-01-06 15:00:00,因施工力量不足原因,现变更停电结束时间为2020-01-06 16:30:00","powerTime":"2020-01-06 16:27:24","powerComm":"已送电","subsNo":"","lineNo":"","tgNo":"","tgName":null,"infoStatus":"1","orgName":"国网浙江杭州市余杭区供电有限公司","typeName":null,"infoStatusName":null,"dateDay":null,"orgNos":null,"nowTime":null,"countyName":null,"streetName":null,"villageName":null,"roadName":null,"communityName":null,"tranName":null,"sdLineName":null,"cityCode":"3340140","cityName":"国网浙江杭州市余杭区供电有限公司","provinceCode":null,"stopTime":"2020-01-06 16:30:00","powerType":"全部","powerOffArea":"35kV良渚变:纤石H402线-舍田湾分线开关后段","powerOffReason":"纤石H402线八一分线线路改造工作 原停电结束时间为2020-01-06 15:00:00,因施工力量不足原因,现变更停电结束时间为2020-01-06 16:30:00","powerOffId":"2019122731020650"},{"poweroffId":2019122731020645,"sgpoweroffId":null,"subsName":"","lineName":"10kV五科G015线","pubTranName":"万常4组(十四堡)2#公变,","scope":"浙江省杭州市余杭区南苑街道：万常4组一带","startTime":"2020-01-06 08:30:00","stopDate":"2020-01-06 13:00:00","orgNo":"3340140","typeCode":"计划停电","poweroffArea":"110kV外乔变:五科G015线万常4组（十四堡）2#公变令克。","poweroffReason":"万常4组（十四堡）2#公变增至400kVA及调换计量箱 原停电结束时间为2020-01-06 15:00:00,为减少客户停电时间,加快工作进度,提前送电,现变更停电结束时间为2020-01-06 13:00:00","powerTime":"2020-01-06 12:48:48","powerComm":"已送电","subsNo":"","lineNo":"","tgNo":"","tgName":null,"infoStatus":"1","orgName":"国网浙江杭州市余杭区供电有限公司","typeName":null,"infoStatusName":null,"dateDay":null,"orgNos":null,"nowTime":null,"countyName":null,"streetName":null,"villageName":null,"roadName":null,"communityName":null,"tranName":null,"sdLineName":null,"cityCode":"3340140","cityName":"国网浙江杭州市余杭区供电有限公司","provinceCode":null,"stopTime":"2020-01-06 13:00:00","powerType":"全部","powerOffArea":"110kV外乔变:五科G015线万常4组（十四堡）2#公变令克。","powerOffReason":"万常4组（十四堡）2#公变增至400kVA及调换计量箱 原停电结束时间为2020-01-06 15:00:00,为减少客户停电时间,加快工作进度,提前送电,现变更停电结束时间为2020-01-06 13:00:00","powerOffId":"2019122731020645"},{"poweroffId":2019122731020643,"sgpoweroffId":null,"subsName":"","lineName":"10kV五科G015线","pubTranName":"天万11组2号公变,","scope":"浙江省杭州市余杭区南苑街道：天万11组一带","startTime":"2020-01-06 08:30:00","stopDate":"2020-01-06 13:00:00","orgNo":"3340140","typeCode":"计划停电","poweroffArea":"110kV外乔变:五科G015线天万11组2#变令克。","poweroffReason":"天万11组2#变增至400kVA","powerTime":"2020-01-06 12:14:07","powerComm":"已送电","subsNo":"","lineNo":"","tgNo":"","tgName":null,"infoStatus":"1","orgName":"国网浙江杭州市余杭区供电有限公司","typeName":null,"infoStatusName":null,"dateDay":null,"orgNos":null,"nowTime":null,"countyName":null,"streetName":null,"villageName":null,"roadName":null,"communityName":null,"tranName":null,"sdLineName":null,"cityCode":"3340140","cityName":"国网浙江杭州市余杭区供电有限公司","provinceCode":null,"stopTime":"2020-01-06 13:00:00","powerType":"全部","powerOffArea":"110kV外乔变:五科G015线天万11组2#变令克。","powerOffReason":"天万11组2#变增至400kVA","powerOffId":"2019122731020643"}],"pageModel":{"pageNow":636,"totalCount":17789,"totalPage":1779,"tableRows":0,"pageCount":10,"beginCount":6350},"isExperi":"1"}