{"message":"","today":"2020-06-15","seleList":[{"poweroffId":2019122731020639,"sgpoweroffId":null,"subsName":"","lineName":"10kV闲镇H682线","pubTranName":"鸿立纸塑,阀门厂宿舍,五杰（1）,荣正电子,杭建构建,","scope":"浙江省杭州市余杭区闲林街道：杭建构建厂、荣正电子厂、鸿立纸塑厂、五杰公司一带","startTime":"2020-01-06 09:30:00","stopDate":"2020-01-06 13:30:00","orgNo":"3340140","typeCode":"计划停电","poweroffArea":"杭建开关站闲镇H682线杭构分支箱分线","poweroffReason":"线路消缺：杭构分支箱阀门厂宿舍分线电缆拆头工作 原停电结束时间为2020-01-06 12:30:00,因施工受阻原因,现变更停电结束时间为2020-01-06 13:30:00","powerTime":"2020-01-06 12:39:26","powerComm":"已送电","subsNo":"","lineNo":"","tgNo":"","tgName":null,"infoStatus":"1","orgName":"国网浙江杭州市余杭区供电有限公司","typeName":null,"infoStatusName":null,"dateDay":null,"orgNos":null,"nowTime":null,"countyName":null,"streetName":null,"villageName":null,"roadName":null,"communityName":null,"tranName":null,"sdLineName":null,"cityCode":"3340140","cityName":"国网浙江杭州市余杭区供电有限公司","provinceCode":null,"stopTime":"2020-01-06 13:30:00","powerType":"全部","powerOffArea":"杭建开关站闲镇H682线杭构分支箱分线","powerOffReason":"线路消缺：杭构分支箱阀门厂宿舍分线电缆拆头工作 原停电结束时间为2020-01-06 12:30:00,因施工受阻原因,现变更停电结束时间为2020-01-06 13:30:00","powerOffId":"2019122731020639"},{"poweroffId":2019122731020583,"sgpoweroffId":null,"subsName":"","lineName":"10kV阳山D615线","pubTranName":"场口镇垃圾中转站,","scope":"浙江省-杭州市-富阳区-场口镇-徐家行政村-场口镇垃圾中转站一带","startTime":"2020-01-09 08:30:00","stopDate":"2020-01-09 09:30:00","orgNo":"3340170","typeCode":"计划停电","poweroffArea":"110kV鸿丰变:阳山D615线-场口镇垃圾中转站后段","poweroffReason":"场口镇精品村精品线路移位工程：阳山D615线39#杆中转站分线6#杆场口镇垃圾中转站：1、拆除场口镇垃圾中转站至配电屏进线侧电缆1根；2、自备电源搭接至配电屏接入电缆1根等工作。","powerTime":"2020-01-09 09:19:37","powerComm":"已送电","subsNo":"","lineNo":"","tgNo":"","tgName":null,"infoStatus":"1","orgName":"国网浙江杭州市富阳区供电公司","typeName":null,"infoStatusName":null,"dateDay":null,"orgNos":null,"nowTime":null,"countyName":null,"streetName":null,"villageName":null,"roadName":null,"communityName":null,"tranName":null,"sdLineName":null,"cityCode":"3340170","cityName":"国网浙江杭州市富阳区供电公司","provinceCode":null,"stopTime":"2020-01-09 09:30:00","powerType":"全部","powerOffArea":"110kV鸿丰变:阳山D615线-场口镇垃圾中转站后段","powerOffReason":"场口镇精品村精品线路移位工程：阳山D615线39#杆中转站分线6#杆场口镇垃圾中转站：1、拆除场口镇垃圾中转站至配电屏进线侧电缆1根；2、自备电源搭接至配电屏接入电缆1根等工作。","powerOffId":"2019122731020583"},{"poweroffId":2019122731020579,"sgpoweroffId":null,"subsName":"","lineName":"10kV阳山D615线","pubTranName":"富阳市王洲五金弹簧电讯厂,浙江国裕隧道管片制造有限公司3#变,百丈畈村3号田畈公变,浙江国裕隧道管片制造有限公司(1#变),浙江国裕隧道管片制造有限公司(2#变),","scope":"浙江省-杭州市-富阳区-场口镇-百丈畈行政村(百丈坞自然村,田畈自然村);场口镇(百丈畈行政村-富阳区王洲五金弹簧电讯厂,场口行政村-浙江国裕隧道管片制造有限公司)一带","startTime":"2020-01-09 08:30:00","stopDate":"2020-01-09 09:30:00","orgNo":"3340170","typeCode":"计划停电","poweroffArea":"110kV鸿丰变:阳山D615线-田畈支线后段","poweroffReason":"场口镇精品村精品线路移位工程：备用电源电缆头搭接至阳山D615线39#杆中转站分线5#杆田畈支线5#杆等工作。","powerTime":"2020-01-09 09:20:43","powerComm":"已送电","subsNo":"","lineNo":"","tgNo":"","tgName":null,"infoStatus":"1","orgName":"国网浙江杭州市富阳区供电公司","typeName":null,"infoStatusName":null,"dateDay":null,"orgNos":null,"nowTime":null,"countyName":null,"streetName":null,"villageName":null,"roadName":null,"communityName":null,"tranName":null,"sdLineName":null,"cityCode":"3340170","cityName":"国网浙江杭州市富阳区供电公司","provinceCode":null,"stopTime":"2020-01-09 09:30:00","powerType":"全部","powerOffArea":"110kV鸿丰变:阳山D615线-田畈支线后段","powerOffReason":"场口镇精品村精品线路移位工程：备用电源电缆头搭接至阳山D615线39#杆中转站分线5#杆田畈支线5#杆等工作。","powerOffId":"2019122731020579"},{"poweroffId":2019122731020577,"sgpoweroffId":null,"subsName":"","lineName":"10kV文创D966线","pubTranName":"文创十五号公变,文创十一号公变,文创十三号公变,","scope":"浙江省杭州市富阳区银湖街道天鸿文创园小区一带","startTime":"2020-01-09 08:30:00","stopDate":"2020-01-09 09:00:00","orgNo":"3340170","typeCode":"计划停电","poweroffArea":"110kV九龙变:文创D966线首端，文创十三号公变，文创十五号公变，文创十一号公变之间","poweroffReason":"倒负荷短时停电","powerTime":"2020-01-09 08:56:17","powerComm":"已送电","subsNo":"","lineNo":"","tgNo":"","tgName":null,"infoStatus":"1","orgName":"国网浙江杭州市富阳区供电公司","typeName":null,"infoStatusName":null,"dateDay":null,"orgNos":null,"nowTime":null,"countyName":null,"streetName":null,"villageName":null,"roadName":null,"communityName":null,"tranName":null,"sdLineName":null,"cityCode":"3340170","cityName":"国网浙江杭州市富阳区供电公司","provinceCode":null,"stopTime":"2020-01-09 09:00:00","powerType":"全部","powerOffArea":"110kV九龙变:文创D966线首端，文创十三号公变，文创十五号公变，文创十一号公变之间","powerOffReason":"倒负荷短时停电","powerOffId":"2019122731020577"},{"poweroffId":2019122731020576,"sgpoweroffId":null,"subsName":"","lineName":"10kV沪瑞D620线","pubTranName":"上村3号村口公变,","scope":"浙江省-杭州市-富阳区-场口镇-上村行政村(光明路,长安路,上村自然村,幸福路,华山路,兴达路,新建路,永安路)一带","startTime":"2020-01-08 09:00:00","stopDate":"2020-01-08 16:00:00","orgNo":"3340170","typeCode":"计划停电","poweroffArea":"110kV鸿丰变:沪瑞D620线-上村3#村口公变后段","poweroffReason":"场口镇精品村精品线路移位工程：沪瑞D620线36#杆乌畴分线38#杆-43#杆之间：横担安装及拉线制作等工作。 原停电结束时间为2020-01-08 15:00:00,因施工难度大原因,现变更停电结束时间为2020-01-08 16:00:00","powerTime":"2020-01-08 15:38:32","powerComm":"已送电","subsNo":"","lineNo":"","tgNo":"","tgName":null,"infoStatus":"1","orgName":"国网浙江杭州市富阳区供电公司","typeName":null,"infoStatusName":null,"dateDay":null,"orgNos":null,"nowTime":null,"countyName":null,"streetName":null,"villageName":null,"roadName":null,"communityName":null,"tranName":null,"sdLineName":null,"cityCode":"3340170","cityName":"国网浙江杭州市富阳区供电公司","provinceCode":null,"stopTime":"2020-01-08 16:00:00","powerType":"全部","powerOffArea":"110kV鸿丰变:沪瑞D620线-上村3#村口公变后段","powerOffReason":"场口镇精品村精品线路移位工程：沪瑞D620线36#杆乌畴分线38#杆-43#杆之间：横担安装及拉线制作等工作。 原停电结束时间为2020-01-08 15:00:00,因施工难度大原因,现变更停电结束时间为2020-01-08 16:00:00","powerOffId":"2019122731020576"},{"poweroffId":2019122731020571,"sgpoweroffId":null,"subsName":"","lineName":"10kV项家D512线","pubTranName":"礼门村2号下公变,项家村2号村口公变,杭州富阳李荣富家庭农场有,礼门村1号上公变,小剡村1号上边公变,杭州富阳永安旅游开发有限公司1#变,小剡村2#小剡公变,富阳永安旅游开发有限公司,项家村1#村中公变,","scope":"浙江省-杭州市-富阳区-常安镇-小剡行政村(小剡村自然村,前山园自然村,上边自然村),常安镇(礼门行政村-礼门自然村,项家行政村-项家自然村);常安镇-小剡行政村(杭州富阳李荣富家庭农场有限公司,杭州富阳永安旅游开发有限公司)一带","startTime":"2020-01-07 08:30:00","stopDate":"2020-01-07 10:30:00","orgNo":"3340170","typeCode":"计划停电","poweroffArea":"110kV常安变:项家D512线-礼门支线后段","poweroffReason":"场口地区缺陷处理工程：项家D512线13#杆前山坞分线14#杆礼门支线9#杆搭头线拆搭工作；礼门村2#下支线7#杆断开耐张搭头工作；项家D512线13#杆前山坞分线14#杆礼门支线20#杆礼门村1#上支线7#杆临时支线1#杆真空开关及引线拆除工作。","powerTime":"2020-01-07 10:10:14","powerComm":"已送电","subsNo":"","lineNo":"","tgNo":"","tgName":null,"infoStatus":"1","orgName":"国网浙江杭州市富阳区供电公司","typeName":null,"infoStatusName":null,"dateDay":null,"orgNos":null,"nowTime":null,"countyName":null,"streetName":null,"villageName":null,"roadName":null,"communityName":null,"tranName":null,"sdLineName":null,"cityCode":"3340170","cityName":"国网浙江杭州市富阳区供电公司","provinceCode":null,"stopTime":"2020-01-07 10:30:00","powerType":"全部","powerOffArea":"110kV常安变:项家D512线-礼门支线后段","powerOffReason":"场口地区缺陷处理工程：项家D512线13#杆前山坞分线14#杆礼门支线9#杆搭头线拆搭工作；礼门村2#下支线7#杆断开耐张搭头工作；项家D512线13#杆前山坞分线14#杆礼门支线20#杆礼门村1#上支线7#杆临时支线1#杆真空开关及引线拆除工作。","powerOffId":"2019122731020571"},{"poweroffId":2019122731020567,"sgpoweroffId":null,"subsName":"","lineName":"10kV昌界D542线","pubTranName":"昌东村万泉3#王家公变,","scope":"浙江省杭州市富阳区新登镇昌东村万泉行政村王家自然村一带","startTime":"2020-01-06 16:30:00","stopDate":"2020-01-06 16:50:00","orgNo":"3340170","typeCode":"计划停电","poweroffArea":"110kV清泉变:昌界D542线-昌东村万泉3#王家公变后段","poweroffReason":"配合昌东村万泉3#王家公变0.4KV发电机拆除","powerTime":"2020-01-06 16:38:39","powerComm":"已送电","subsNo":"","lineNo":"","tgNo":"","tgName":null,"infoStatus":"1","orgName":"国网浙江杭州市富阳区供电公司","typeName":null,"infoStatusName":null,"dateDay":null,"orgNos":null,"nowTime":null,"countyName":null,"streetName":null,"villageName":null,"roadName":null,"communityName":null,"tranName":null,"sdLineName":null,"cityCode":"3340170","cityName":"国网浙江杭州市富阳区供电公司","provinceCode":null,"stopTime":"2020-01-06 16:50:00","powerType":"全部","powerOffArea":"110kV清泉变:昌界D542线-昌东村万泉3#王家公变后段","powerOffReason":"配合昌东村万泉3#王家公变0.4KV发电机拆除","powerOffId":"2019122731020567"},{"poweroffId":2019122731020565,"sgpoweroffId":null,"subsName":"","lineName":"10kV昌界D542线","pubTranName":"浙江省围海建设集团股份公司02,","scope":"浙江省杭州市富阳区新登镇浙江省围海建设集团股份公司一带","startTime":"2020-01-06 07:00:00","stopDate":"2020-01-06 16:30:00","orgNo":"3340170","typeCode":"计划停电","poweroffArea":"110kV清泉变:昌界D542线-浙江省围海建设集团有限公司02后段","poweroffReason":"配合用户内部检修","powerTime":"2020-01-06 16:20:29","powerComm":"已送电","subsNo":"","lineNo":"","tgNo":"","tgName":null,"infoStatus":"1","orgName":"国网浙江杭州市富阳区供电公司","typeName":null,"infoStatusName":null,"dateDay":null,"orgNos":null,"nowTime":null,"countyName":null,"streetName":null,"villageName":null,"roadName":null,"communityName":null,"tranName":null,"sdLineName":null,"cityCode":"3340170","cityName":"国网浙江杭州市富阳区供电公司","provinceCode":null,"stopTime":"2020-01-06 16:30:00","powerType":"全部","powerOffArea":"110kV清泉变:昌界D542线-浙江省围海建设集团有限公司02后段","powerOffReason":"配合用户内部检修","powerOffId":"2019122731020565"},{"poweroffId":2019122731020562,"sgpoweroffId":null,"subsName":"","lineName":"10kV昌界D542线","pubTranName":"浙江省围海建设集团股份01,","scope":"浙江省杭州市富阳区新登镇浙江省围海建设集团股份有限公司一带","startTime":"2020-01-06 07:40:00","stopDate":"2020-01-06 16:30:00","orgNo":"3340170","typeCode":"计划停电","poweroffArea":"110kV清泉变:昌界D542线-浙江省围海建设集团股份有限公司01后段","poweroffReason":"配合用户内部检修","powerTime":"2020-01-06 16:20:19","powerComm":"已送电","subsNo":"","lineNo":"","tgNo":"","tgName":null,"infoStatus":"1","orgName":"国网浙江杭州市富阳区供电公司","typeName":null,"infoStatusName":null,"dateDay":null,"orgNos":null,"nowTime":null,"countyName":null,"streetName":null,"villageName":null,"roadName":null,"communityName":null,"tranName":null,"sdLineName":null,"cityCode":"3340170","cityName":"国网浙江杭州市富阳区供电公司","provinceCode":null,"stopTime":"2020-01-06 16:30:00","powerType":"全部","powerOffArea":"110kV清泉变:昌界D542线-浙江省围海建设集团股份有限公司01后段","powerOffReason":"配合用户内部检修","powerOffId":"2019122731020562"},{"poweroffId":2019122731020560,"sgpoweroffId":null,"subsName":"","lineName":"10kV昌界D542线","pubTranName":"浙江省围海建设集团股份有限公司4,","scope":"浙江省杭州市富阳区新登镇浙江省围海建设集团股份有限公司一带","startTime":"2020-01-06 07:20:00","stopDate":"2020-01-06 16:30:00","orgNo":"3340170","typeCode":"计划停电","poweroffArea":"110kV清泉变:昌界D542线-浙江省围海建设集团股份有限公司4","poweroffReason":"配合用户内部检修","powerTime":"2020-01-06 16:20:10","powerComm":"已送电","subsNo":"","lineNo":"","tgNo":"","tgName":null,"infoStatus":"1","orgName":"国网浙江杭州市富阳区供电公司","typeName":null,"infoStatusName":null,"dateDay":null,"orgNos":null,"nowTime":null,"countyName":null,"streetName":null,"villageName":null,"roadName":null,"communityName":null,"tranName":null,"sdLineName":null,"cityCode":"3340170","cityName":"国网浙江杭州市富阳区供电公司","provinceCode":null,"stopTime":"2020-01-06 16:30:00","powerType":"全部","powerOffArea":"110kV清泉变:昌界D542线-浙江省围海建设集团股份有限公司4","powerOffReason":"配合用户内部检修","powerOffId":"2019122731020560"}],"pageModel":{"pageNow":637,"totalCount":17789,"totalPage":1779,"tableRows":0,"pageCount":10,"beginCount":6360},"isExperi":"1"}