{"message":"","today":"2020-06-15","seleList":[{"poweroffId":2019122731020285,"sgpoweroffId":null,"subsName":"","lineName":"10kV下城T272线","pubTranName":"杭州科德磁业有限公司,杭州科德磁业有限公司宿舍,","scope":"浙江省-杭州市-桐庐县-城南街道(金中行政村-杭州科德磁业有限公司,金溪行政村-杭州科德磁业有限公司)","startTime":"2020-01-07 08:30:00","stopDate":"2020-01-07 14:30:00","orgNo":"3340150","typeCode":"计划停电","poweroffArea":"35kV三合变:下城T272线-科德F0147开关后段","poweroffReason":"线路入地","powerTime":"2020-01-07 14:22:40","powerComm":"已送电","subsNo":"","lineNo":"","tgNo":"","tgName":null,"infoStatus":"1","orgName":"国网浙江桐庐县供电公司","typeName":null,"infoStatusName":null,"dateDay":null,"orgNos":null,"nowTime":null,"countyName":null,"streetName":null,"villageName":null,"roadName":null,"communityName":null,"tranName":null,"sdLineName":null,"cityCode":"3340150","cityName":"国网浙江桐庐县供电公司","provinceCode":null,"stopTime":"2020-01-07 14:30:00","powerType":"全部","powerOffArea":"35kV三合变:下城T272线-科德F0147开关后段","powerOffReason":"线路入地","powerOffId":"2019122731020285"},{"poweroffId":2019122731020280,"sgpoweroffId":null,"subsName":"","lineName":"10kV启东0313线","pubTranName":"江建村1#变,","scope":"浙江省-杭州市-萧山区-河庄街道-江东行政村-江东自然村","startTime":"2020-01-07 09:00:00","stopDate":"2020-01-07 16:30:00","orgNo":"3340120","typeCode":"计划停电","poweroffArea":"110kV启江变:启东0313线-江建村1#变后段","poweroffReason":"(低压停电信息)江建村1#变低压割接至江东村12#变，江建村1#变低压台区改造等工作","powerTime":"2020-01-07 14:22:42","powerComm":"已送电","subsNo":"","lineNo":"","tgNo":"","tgName":null,"infoStatus":"1","orgName":"国网浙江杭州市钱塘新区供电公司","typeName":null,"infoStatusName":null,"dateDay":null,"orgNos":null,"nowTime":null,"countyName":null,"streetName":null,"villageName":null,"roadName":null,"communityName":null,"tranName":null,"sdLineName":null,"cityCode":"3340120","cityName":"国网浙江杭州市钱塘新区供电公司","provinceCode":null,"stopTime":"2020-01-07 16:30:00","powerType":"全部","powerOffArea":"110kV启江变:启东0313线-江建村1#变后段","powerOffReason":"(低压停电信息)江建村1#变低压割接至江东村12#变，江建村1#变低压台区改造等工作","powerOffId":"2019122731020280"},{"poweroffId":2019122731020279,"sgpoweroffId":null,"subsName":"","lineName":"10kV青龙508线","pubTranName":"三联村3#变,","scope":"浙江省-杭州市-萧山区-河庄街道-三联行政村-三联自然村","startTime":"2020-01-07 09:00:00","stopDate":"2020-01-07 16:00:00","orgNo":"3340120","typeCode":"计划停电","poweroffArea":"35kV永丰变:青龙508线-三联村3#变后段","poweroffReason":"(低压停电信息)三联村3#变低压导线更换","powerTime":"2020-01-07 14:00:21","powerComm":"已送电","subsNo":"","lineNo":"","tgNo":"","tgName":null,"infoStatus":"1","orgName":"国网浙江杭州市钱塘新区供电公司","typeName":null,"infoStatusName":null,"dateDay":null,"orgNos":null,"nowTime":null,"countyName":null,"streetName":null,"villageName":null,"roadName":null,"communityName":null,"tranName":null,"sdLineName":null,"cityCode":"3340120","cityName":"国网浙江杭州市钱塘新区供电公司","provinceCode":null,"stopTime":"2020-01-07 16:00:00","powerType":"全部","powerOffArea":"35kV永丰变:青龙508线-三联村3#变后段","powerOffReason":"(低压停电信息)三联村3#变低压导线更换","powerOffId":"2019122731020279"},{"poweroffId":2019122731020278,"sgpoweroffId":null,"subsName":"","lineName":"10kV长浪0037线","pubTranName":"蓬园村2#变,","scope":"浙江省-杭州市-萧山区-义蓬街道-蓬园行政村-蓬园自然村","startTime":"2020-01-06 09:00:00","stopDate":"2020-01-06 16:30:00","orgNo":"3340120","typeCode":"计划停电","poweroffArea":"110kV白浪变:长浪0037线-蓬园村2#变后段","poweroffReason":"(低压停电信息)线路改造","powerTime":"2020-01-06 16:15:32","powerComm":"已送电","subsNo":"","lineNo":"","tgNo":"","tgName":null,"infoStatus":"1","orgName":"国网浙江杭州市钱塘新区供电公司","typeName":null,"infoStatusName":null,"dateDay":null,"orgNos":null,"nowTime":null,"countyName":null,"streetName":null,"villageName":null,"roadName":null,"communityName":null,"tranName":null,"sdLineName":null,"cityCode":"3340120","cityName":"国网浙江杭州市钱塘新区供电公司","provinceCode":null,"stopTime":"2020-01-06 16:30:00","powerType":"全部","powerOffArea":"110kV白浪变:长浪0037线-蓬园村2#变后段","powerOffReason":"(低压停电信息)线路改造","powerOffId":"2019122731020278"},{"poweroffId":2019122731020277,"sgpoweroffId":null,"subsName":"","lineName":"10kV蜀南345线","pubTranName":"蜀南村6#变,","scope":"浙江省-杭州市-萧山区-河庄街道-蜀南行政村-蜀南自然村","startTime":"2020-01-06 09:00:00","stopDate":"2020-01-06 16:30:00","orgNo":"3340120","typeCode":"计划停电","poweroffArea":"110kV河庄变:蜀南345线-蜀南村6#变后段","poweroffReason":"(低压停电信息)蜀南村6#变低压导线更换","powerTime":"2020-01-06 16:15:19","powerComm":"已送电","subsNo":"","lineNo":"","tgNo":"","tgName":null,"infoStatus":"1","orgName":"国网浙江杭州市钱塘新区供电公司","typeName":null,"infoStatusName":null,"dateDay":null,"orgNos":null,"nowTime":null,"countyName":null,"streetName":null,"villageName":null,"roadName":null,"communityName":null,"tranName":null,"sdLineName":null,"cityCode":"3340120","cityName":"国网浙江杭州市钱塘新区供电公司","provinceCode":null,"stopTime":"2020-01-06 16:30:00","powerType":"全部","powerOffArea":"110kV河庄变:蜀南345线-蜀南村6#变后段","powerOffReason":"(低压停电信息)蜀南村6#变低压导线更换","powerOffId":"2019122731020277"},{"poweroffId":2019122731020274,"sgpoweroffId":null,"subsName":"","lineName":"10kV武举T460线","pubTranName":"阳光华庭2号公变,","scope":"浙江省-杭州市-桐庐县-城南街道-梅林社区-学圣路","startTime":"2019-12-27 11:14:51","stopDate":"2019-12-27 13:14:51","orgNo":"3340150","typeCode":"电网故障停限电","poweroffArea":"110kV下杭变:武举T460线-阳光华庭2号公变后段","poweroffReason":"(低压停电信息)低压开关跳闸","powerTime":"2019-12-27 13:00:51","powerComm":"已送电","subsNo":"","lineNo":"","tgNo":"","tgName":null,"infoStatus":"1","orgName":"国网浙江桐庐县供电公司","typeName":null,"infoStatusName":null,"dateDay":null,"orgNos":null,"nowTime":null,"countyName":null,"streetName":null,"villageName":null,"roadName":null,"communityName":null,"tranName":null,"sdLineName":null,"cityCode":"3340150","cityName":"国网浙江桐庐县供电公司","provinceCode":null,"stopTime":"2019-12-27 13:14:51","powerType":"全部","powerOffArea":"110kV下杭变:武举T460线-阳光华庭2号公变后段","powerOffReason":"(低压停电信息)低压开关跳闸","powerOffId":"2019122731020274"},{"poweroffId":2019122731020221,"sgpoweroffId":null,"subsName":"","lineName":"10kV迎东D572线","pubTranName":"东山村1#新农村公变,","scope":"浙江省-杭州市-富阳区-富春街道-东山社区(东兴路,丰收路)一带","startTime":"2020-01-09 08:00:00","stopDate":"2020-01-09 14:30:00","orgNo":"3340170","typeCode":"计划停电","poweroffArea":"110kV春江变:迎东D572线-东山村1#新农村公变后段","poweroffReason":"(低压停电信息)青云2019年东山村4#桥头公变等低压台区改造工程更换落户线21处，搭接等工作","powerTime":"2020-01-09 14:17:29","powerComm":"已送电","subsNo":"","lineNo":"","tgNo":"","tgName":null,"infoStatus":"1","orgName":"国网浙江杭州市富阳区供电公司","typeName":null,"infoStatusName":null,"dateDay":null,"orgNos":null,"nowTime":null,"countyName":null,"streetName":null,"villageName":null,"roadName":null,"communityName":null,"tranName":null,"sdLineName":null,"cityCode":"3340170","cityName":"国网浙江杭州市富阳区供电公司","provinceCode":null,"stopTime":"2020-01-09 14:30:00","powerType":"全部","powerOffArea":"110kV春江变:迎东D572线-东山村1#新农村公变后段","powerOffReason":"(低压停电信息)青云2019年东山村4#桥头公变等低压台区改造工程更换落户线21处，搭接等工作","powerOffId":"2019122731020221"},{"poweroffId":2019122731020219,"sgpoweroffId":null,"subsName":"","lineName":"10kV交通D364线","pubTranName":"秋丰村26#湖南山2公变,","scope":"浙江省-杭州市-富阳区-富春街道-秋丰行政村-秋丰自然村","startTime":"2020-01-08 12:30:00","stopDate":"2020-01-08 16:50:00","orgNo":"3340170","typeCode":"计划停电","poweroffArea":"110kV富鹿变:交通D364线-秋丰村26#湖南山后段","poweroffReason":"(低压停电信息)青云2019年东山村4#桥头公变等低压台区改造工程更换落户线19处，搭接等工作","powerTime":"2020-01-08 16:30:16","powerComm":"已送电","subsNo":"","lineNo":"","tgNo":"","tgName":null,"infoStatus":"1","orgName":"国网浙江杭州市富阳区供电公司","typeName":null,"infoStatusName":null,"dateDay":null,"orgNos":null,"nowTime":null,"countyName":null,"streetName":null,"villageName":null,"roadName":null,"communityName":null,"tranName":null,"sdLineName":null,"cityCode":"3340170","cityName":"国网浙江杭州市富阳区供电公司","provinceCode":null,"stopTime":"2020-01-08 16:50:00","powerType":"全部","powerOffArea":"110kV富鹿变:交通D364线-秋丰村26#湖南山后段","powerOffReason":"(低压停电信息)青云2019年东山村4#桥头公变等低压台区改造工程更换落户线19处，搭接等工作","powerOffId":"2019122731020219"},{"poweroffId":2019122731020218,"sgpoweroffId":null,"subsName":"","lineName":"10kV飞云6810线","pubTranName":"浙江益彰文化三2#,上体施一,1#,1#,上体施二,路灯箱变,","scope":"浙江省杭州市上城区路灯、浙江益彰文化、蓝领公寓有限公司","startTime":"2020-01-10 09:30:00","stopDate":"2020-01-10 12:00:00","orgNo":"3340101","typeCode":"计划停电","poweroffArea":"110kV复兴变:飞云6810线-煤库分线后段","poweroffReason":"杭州市上城区体育局，用户申请销户，变压器容量为400kVA，配变名:上体施一、二。10KV二凉站2#煤库分线高压T接箱用户电缆拆头。 原停电结束时间为17:30:00,为减少客户停电时间,加快工作进度,提前送电,现变更停电结束时间为 12:00:00","powerTime":"2020-01-10 11:20:51","powerComm":"已送电","subsNo":"","lineNo":"","tgNo":"","tgName":null,"infoStatus":"1","orgName":"浙江杭州电力客户服务中心","typeName":null,"infoStatusName":null,"dateDay":null,"orgNos":null,"nowTime":null,"countyName":null,"streetName":null,"villageName":null,"roadName":null,"communityName":null,"tranName":null,"sdLineName":null,"cityCode":"3340101","cityName":"浙江杭州电力客户服务中心","provinceCode":null,"stopTime":"2020-01-10 12:00:00","powerType":"全部","powerOffArea":"110kV复兴变:飞云6810线-煤库分线后段","powerOffReason":"杭州市上城区体育局，用户申请销户，变压器容量为400kVA，配变名:上体施一、二。10KV二凉站2#煤库分线高压T接箱用户电缆拆头。 原停电结束时间为17:30:00,为减少客户停电时间,加快工作进度,提前送电,现变更停电结束时间为 12:00:00","powerOffId":"2019122731020218"},{"poweroffId":2019122731020216,"sgpoweroffId":null,"subsName":"","lineName":"10kV海云8130线","pubTranName":"2#变压器,1#,宝善宾馆,宝善宾馆,","scope":"浙江省杭州市下城区宝善宾馆附近一带","startTime":"2020-01-07 09:30:00","stopDate":"2020-01-07 14:00:00","orgNo":"3340101","typeCode":"计划停电","poweroffArea":"220kV运河变:海云8130线-宝善二线后段","poweroffReason":"地铁5号线宝善桥站二期10kV电力管线临时迁改工程（城源）CZ2019-07-045-YNQQ 利兹站宝善二线电缆迁改 原停电结束时间为17:30:00,为减少客户停电时间,加快工作进度,提前送电,现变更停电结束时间为 14:00:00","powerTime":"2020-01-07 13:30:58","powerComm":"已送电","subsNo":"","lineNo":"","tgNo":"","tgName":null,"infoStatus":"1","orgName":"浙江杭州电力客户服务中心","typeName":null,"infoStatusName":null,"dateDay":null,"orgNos":null,"nowTime":null,"countyName":null,"streetName":null,"villageName":null,"roadName":null,"communityName":null,"tranName":null,"sdLineName":null,"cityCode":"3340101","cityName":"浙江杭州电力客户服务中心","provinceCode":null,"stopTime":"2020-01-07 14:00:00","powerType":"全部","powerOffArea":"220kV运河变:海云8130线-宝善二线后段","powerOffReason":"地铁5号线宝善桥站二期10kV电力管线临时迁改工程（城源）CZ2019-07-045-YNQQ 利兹站宝善二线电缆迁改 原停电结束时间为17:30:00,为减少客户停电时间,加快工作进度,提前送电,现变更停电结束时间为 14:00:00","powerOffId":"2019122731020216"}],"pageModel":{"pageNow":644,"totalCount":17789,"totalPage":1779,"tableRows":0,"pageCount":10,"beginCount":6430},"isExperi":"1"}