{"message":"","today":"2020-06-15","seleList":[{"poweroffId":2019122631020296,"sgpoweroffId":null,"subsName":"","lineName":"10kV高水164线","pubTranName":"皇甫小边厅3号公变,杭州中永电缆有限公司4号专变,沈村盘坞里5号公变,泮家江边抽水机埠,瑶琳仙境分公司职工宿舍,元川粮站边6号公变,元川蛤蟆登4号公变,皇甫纸厂边2号公变,姚村皇甫100KVA农用变,瑶琳镇后浦村罗卜洲农用,瑶琳镇政府6号路灯变,元川郭家2号公变,杭州汉峰服饰有限公司,桐庐宝堰钢件铸造有限公司2号专变,元川工业园区3号公变,杭州华易鞋业有限公司,桐庐宇锋工艺品有限公司,姚村毛山5号公变,姚村新村2号公变,桐庐县瑶琳镇获峰初级农产品加工点,石青上园1号公变,桐庐县瑶琳镇飞宏建材经营部,皇甫桥头5号公变,姚村1号公变,沈村公房4号公变,姚村六坟头3号公变,瑶琳镇政府7号路灯变,石青田畈里2号公变,皇甫破坑4号公变,沈村沈家埠2号公变,水岸瑶琳2号公变,恩施葆生物工程有限公司,杭州丰晟机械科技有限公司,桐庐宝堰钢件铸造有限公司,君山闸门,石青火洋里3号公变,桐庐分水江液化气配站有限公司,桐庐县瑶琳镇水库三级电站,中国石油化工股份有限公司浙江杭州石油分公司,元川桥头1号公变,杭州中永电缆有限公司4号专变,石青文园4号公变,水岸瑶琳4号公变,沈村老年室1号公变,冷坞焦山2号公变,潘联1号公变,元川塘坞5号公变,杭州德森工艺品有限公司,潘联村2号公变,桐庐潘联建材有限公司,姚村孙家边4号公变,","scope":"浙江省-杭州市-桐庐县-瑶琳镇-姚村行政村(皇瑶路,沈村自然村),瑶琳镇-东琳行政村(东华自然村,冷坞自然村),瑶琳镇-皇甫行政村(瑶桃路,友谊路,林桃路,和平路),瑶琳镇(元川行政村,高翔行政村-石青自然村,潘联行政村);瑶琳镇(浙江富春江旅游股份有限公司瑶琳仙境分公司,桐庐君山阀门厂,杭州宝堰机械有限公司,杭州恩施葆微生物工程有限公司,杭州中永电缆有限公司,桐庐大洲畈农业开发有限公司,桐庐宇锋工艺品有限公司,桐庐县瑶琳镇潘联村股份经济合作社,桐庐潘联建材有限公司,中国石化销售股份有限公司浙江杭州石油分公司,杭州汉峰服饰有限公司,桐庐县瑶琳镇水库三级电站,桐庐天屿机械制造有限公司,桐庐县瑶琳镇飞宏建材经营部,杭州德森工艺品有限公司,桐庐分水江液化气配站有限公司,浙江盛元文化艺术有限公司,瑶琳镇后浦村罗卜洲农用,桐庐县瑶琳镇获峰初级农产品加工点,杭州华易鞋业有限公司)","startTime":"2019-12-26 16:03:00","stopDate":"2019-12-26 17:45:00","orgNo":"3340150","typeCode":"电网故障停限电","poweroffArea":"35kV瑶琳变:高水164线高水4191后段","poweroffReason":"高压开关跳闸 原停电结束时间为2019-12-26 21:30:00,为减少客户停电时间,加快工作进度,提前送电,现变更停电结束时间为2019-12-26 17:45:00","powerTime":"2019-12-26 17:33:30","powerComm":"已送电","subsNo":"","lineNo":"","tgNo":"","tgName":null,"infoStatus":"1","orgName":"国网浙江桐庐县供电公司","typeName":null,"infoStatusName":null,"dateDay":null,"orgNos":null,"nowTime":null,"countyName":null,"streetName":null,"villageName":null,"roadName":null,"communityName":null,"tranName":null,"sdLineName":null,"cityCode":"3340150","cityName":"国网浙江桐庐县供电公司","provinceCode":null,"stopTime":"2019-12-26 17:45:00","powerType":"全部","powerOffArea":"35kV瑶琳变:高水164线高水4191后段","powerOffReason":"高压开关跳闸 原停电结束时间为2019-12-26 21:30:00,为减少客户停电时间,加快工作进度,提前送电,现变更停电结束时间为2019-12-26 17:45:00","powerOffId":"2019122631020296"},{"poweroffId":2019122631020266,"sgpoweroffId":null,"subsName":"","lineName":"10kV彭家D342线","pubTranName":"彭家村14#新村公变,","scope":"浙江省-杭州市-富阳区-万市镇-彭家行政村(彭家自然村,渚源坞自然村,太山坞自然村,多福寺自然村)","startTime":"2019-12-26 15:51:14","stopDate":"2019-12-26 17:51:14","orgNo":"3340170","typeCode":"电网故障停限电","poweroffArea":"110kV万市变:彭家D342线-彭家村14#新村公变后段","poweroffReason":"高压开关跳闸","powerTime":"2019-12-26 17:03:29","powerComm":"已送电","subsNo":"","lineNo":"","tgNo":"","tgName":null,"infoStatus":"1","orgName":"国网浙江杭州市富阳区供电公司","typeName":null,"infoStatusName":null,"dateDay":null,"orgNos":null,"nowTime":null,"countyName":null,"streetName":null,"villageName":null,"roadName":null,"communityName":null,"tranName":null,"sdLineName":null,"cityCode":"3340170","cityName":"国网浙江杭州市富阳区供电公司","provinceCode":null,"stopTime":"2019-12-26 17:51:14","powerType":"全部","powerOffArea":"110kV万市变:彭家D342线-彭家村14#新村公变后段","powerOffReason":"高压开关跳闸","powerOffId":"2019122631020266"},{"poweroffId":2019122631020249,"sgpoweroffId":null,"subsName":"","lineName":"10kV沙广Y206线","pubTranName":"翠微路公变,","scope":"浙江省-杭州市-建德市-新安江街道-沧滩社区-翠薇路一带用户","startTime":"2019-12-26 15:20:00","stopDate":"2019-12-26 17:30:00","orgNo":"3340180","typeCode":"电网故障停限电","poweroffArea":"110kV白沙变:沙广Y206线-翠微路公变后段","poweroffReason":"(低压停电信息)低压开关跳闸 原停电结束时间为2019-12-26 16:30:00,因下雨天气原因,现变更停电结束时间为2019-12-26 17:30:00","powerTime":"2019-12-26 16:50:47","powerComm":"已送电","subsNo":"","lineNo":"","tgNo":"","tgName":null,"infoStatus":"1","orgName":"国网浙江建德市供电有限公司","typeName":null,"infoStatusName":null,"dateDay":null,"orgNos":null,"nowTime":null,"countyName":null,"streetName":null,"villageName":null,"roadName":null,"communityName":null,"tranName":null,"sdLineName":null,"cityCode":"3340180","cityName":"国网浙江建德市供电有限公司","provinceCode":null,"stopTime":"2019-12-26 17:30:00","powerType":"全部","powerOffArea":"110kV白沙变:沙广Y206线-翠微路公变后段","powerOffReason":"(低压停电信息)低压开关跳闸 原停电结束时间为2019-12-26 16:30:00,因下雨天气原因,现变更停电结束时间为2019-12-26 17:30:00","powerOffId":"2019122631020249"},{"poweroffId":2019122631020241,"sgpoweroffId":null,"subsName":"","lineName":"10kV机前9700线","pubTranName":"高新施六,","scope":"浙江省-杭州市-滨江区-西兴街道-杭州高新技术产业开发区(滨江)城建指挥部","startTime":"2019-12-26 15:16:42","stopDate":"2019-12-26 16:20:11","orgNo":"3340101","typeCode":"电网故障停限电","poweroffArea":"110kV府前变:机前9700线高新施六配变","poweroffReason":"高压开关跳闸 原停电结束时间为2019-12-26 17:03:11,为减少客户停电时间,加快工作进度,提前送电,现变更停电结束时间为2019-12-26 16:20:11","powerTime":"2019-12-26 15:39:18","powerComm":"已送电","subsNo":"","lineNo":"","tgNo":"","tgName":null,"infoStatus":"1","orgName":"浙江杭州电力客户服务中心","typeName":null,"infoStatusName":null,"dateDay":null,"orgNos":null,"nowTime":null,"countyName":null,"streetName":null,"villageName":null,"roadName":null,"communityName":null,"tranName":null,"sdLineName":null,"cityCode":"3340101","cityName":"浙江杭州电力客户服务中心","provinceCode":null,"stopTime":"2019-12-26 16:20:11","powerType":"全部","powerOffArea":"110kV府前变:机前9700线高新施六配变","powerOffReason":"高压开关跳闸 原停电结束时间为2019-12-26 17:03:11,为减少客户停电时间,加快工作进度,提前送电,现变更停电结束时间为2019-12-26 16:20:11","powerOffId":"2019122631020241"},{"poweroffId":2019122631020231,"sgpoweroffId":null,"subsName":"","lineName":"10kV民族T148线","pubTranName":"中门1号公变,","scope":"浙江省-杭州市-桐庐县-莪山畲族乡-中门民族行政村-中门莪溪自然村","startTime":"2020-01-07 08:30:00","stopDate":"2020-01-07 12:30:00","orgNo":"3340150","typeCode":"计划停电","poweroffArea":"35kV钟山变:民族T148线-中门F2530令克后段","poweroffReason":"配网消缺","powerTime":"2020-01-07 12:13:12","powerComm":"已送电","subsNo":"","lineNo":"","tgNo":"","tgName":null,"infoStatus":"1","orgName":"国网浙江桐庐县供电公司","typeName":null,"infoStatusName":null,"dateDay":null,"orgNos":null,"nowTime":null,"countyName":null,"streetName":null,"villageName":null,"roadName":null,"communityName":null,"tranName":null,"sdLineName":null,"cityCode":"3340150","cityName":"国网浙江桐庐县供电公司","provinceCode":null,"stopTime":"2020-01-07 12:30:00","powerType":"全部","powerOffArea":"35kV钟山变:民族T148线-中门F2530令克后段","powerOffReason":"配网消缺","powerOffId":"2019122631020231"},{"poweroffId":2019122631020215,"sgpoweroffId":null,"subsName":"","lineName":"10kV章桥9271线","pubTranName":"三家村,","scope":"浙江省-杭州市-西湖区-三墩镇-五幸社区-三仓路","startTime":"2019-12-26 14:30:00","stopDate":"2019-12-26 16:30:00","orgNo":"3340101","typeCode":"电网故障停限电","poweroffArea":"110kV三墩变:章桥9271线三家村配变","poweroffReason":"高压开关跳闸","powerTime":"2019-12-26 15:36:56","powerComm":"已送电","subsNo":"","lineNo":"","tgNo":"","tgName":null,"infoStatus":"1","orgName":"浙江杭州电力客户服务中心","typeName":null,"infoStatusName":null,"dateDay":null,"orgNos":null,"nowTime":null,"countyName":null,"streetName":null,"villageName":null,"roadName":null,"communityName":null,"tranName":null,"sdLineName":null,"cityCode":"3340101","cityName":"浙江杭州电力客户服务中心","provinceCode":null,"stopTime":"2019-12-26 16:30:00","powerType":"全部","powerOffArea":"110kV三墩变:章桥9271线三家村配变","powerOffReason":"高压开关跳闸","powerOffId":"2019122631020215"},{"poweroffId":2019122631020151,"sgpoweroffId":null,"subsName":"","lineName":"10kV横星D233线","pubTranName":"前华村2#中公变,","scope":"浙江省-杭州市-富阳区-东洲街道-东洲行政村(前华村,前华自然村)","startTime":"2019-12-26 12:42:28","stopDate":"2019-12-26 13:42:28","orgNo":"3340170","typeCode":"电网故障停限电","poweroffArea":"110kV白鹤变:横星D233线-前华村2#中公变后段","poweroffReason":"高压开关跳闸","powerTime":"2019-12-26 13:07:45","powerComm":"已送电","subsNo":"","lineNo":"","tgNo":"","tgName":null,"infoStatus":"1","orgName":"国网浙江杭州市富阳区供电公司","typeName":null,"infoStatusName":null,"dateDay":null,"orgNos":null,"nowTime":null,"countyName":null,"streetName":null,"villageName":null,"roadName":null,"communityName":null,"tranName":null,"sdLineName":null,"cityCode":"3340170","cityName":"国网浙江杭州市富阳区供电公司","provinceCode":null,"stopTime":"2019-12-26 13:42:28","powerType":"全部","powerOffArea":"110kV白鹤变:横星D233线-前华村2#中公变后段","powerOffReason":"高压开关跳闸","powerOffId":"2019122631020151"},{"poweroffId":2019122631020131,"sgpoweroffId":null,"subsName":"","lineName":"10kV明星D424线","pubTranName":"明星村8#倪赵公变1,","scope":"浙江省-杭州市-富阳区-东洲街道(建华行政村-明星自然村,陆家浦行政村-陆家浦自然村)","startTime":"2019-12-26 11:49:05","stopDate":"2019-12-26 12:49:05","orgNo":"3340170","typeCode":"电网故障停限电","poweroffArea":"110kV东洲变:明星D424线-明星村8#倪赵公变后段","poweroffReason":"高压开关跳闸","powerTime":"2019-12-26 12:20:29","powerComm":"已送电","subsNo":"","lineNo":"","tgNo":"","tgName":null,"infoStatus":"1","orgName":"国网浙江杭州市富阳区供电公司","typeName":null,"infoStatusName":null,"dateDay":null,"orgNos":null,"nowTime":null,"countyName":null,"streetName":null,"villageName":null,"roadName":null,"communityName":null,"tranName":null,"sdLineName":null,"cityCode":"3340170","cityName":"国网浙江杭州市富阳区供电公司","provinceCode":null,"stopTime":"2019-12-26 12:49:05","powerType":"全部","powerOffArea":"110kV东洲变:明星D424线-明星村8#倪赵公变后段","powerOffReason":"高压开关跳闸","powerOffId":"2019122631020131"},{"poweroffId":2019122631020125,"sgpoweroffId":null,"subsName":"","lineName":"10kV南街A817线","pubTranName":"雷东村11#变,","scope":"浙江省-杭州市-萧山区-靖江街道-雷东行政村-雷东自然村一带","startTime":"2019-12-26 10:40:28","stopDate":"2019-12-26 13:20:28","orgNo":"3340130","typeCode":"电网故障停限电","poweroffArea":"110kV黎明变:南街A817线-雷东村11#变台区低压开关","poweroffReason":"(低压停电信息)低压熔断器短路故障 原停电结束时间为2019-12-26 13:30:28,为减少客户停电时间,加快工作进度,提前送电,现变更停电结束时间为2019-12-26 13:20:28","powerTime":"2019-12-26 12:26:51","powerComm":"已送电","subsNo":"","lineNo":"","tgNo":"","tgName":null,"infoStatus":"1","orgName":"国网浙江杭州市萧山区供电有限公司","typeName":null,"infoStatusName":null,"dateDay":null,"orgNos":null,"nowTime":null,"countyName":null,"streetName":null,"villageName":null,"roadName":null,"communityName":null,"tranName":null,"sdLineName":null,"cityCode":"3340130","cityName":"国网浙江杭州市萧山区供电有限公司","provinceCode":null,"stopTime":"2019-12-26 13:20:28","powerType":"全部","powerOffArea":"110kV黎明变:南街A817线-雷东村11#变台区低压开关","powerOffReason":"(低压停电信息)低压熔断器短路故障 原停电结束时间为2019-12-26 13:30:28,为减少客户停电时间,加快工作进度,提前送电,现变更停电结束时间为2019-12-26 13:20:28","powerOffId":"2019122631020125"},{"poweroffId":2019122631020123,"sgpoweroffId":null,"subsName":"","lineName":"10kV淳北T427线","pubTranName":"桐庐凯盛笔业有限公司,联通制笔,金大笔业2#,桐庐中彩文具有限公司,城西村委1号公变,杭州桐庐思源制笔有限公司1#变,城西向阳2号公变,金大笔业1#,城西西坞口1号公变,腾飞拉丝厂,","scope":"浙江省-杭州市-桐庐县-分水镇-城西行政村(梧桐自然村,西关自然村,新淳路),分水镇-武盛行政村(县西自然村,玉泉自然村),分水镇(玉华社区-新淳路,东溪行政村-柏山自然村,天英行政村-天英自然村);分水镇(桐庐县金大笔业有限公司,桐庐中彩文具有限公司,桐庐凯盛笔业有限公司,杭州腾飞拉丝机厂,桐庐县分水镇万成塑料拉丝厂,桐庐联通笔业有限公司)","startTime":"2019-12-26 11:09:00","stopDate":"2019-12-26 23:59:00","orgNo":"3340150","typeCode":"电网故障停限电","poweroffArea":"110kV天英变:淳北T427线西坞口开关站淳坞T4272线后段","poweroffReason":"高压开关跳闸 原停电结束时间为2019-12-26 18:30:00,因天气原因,现变更停电结束时间为2019-12-26 23:59:00","powerTime":"2019-12-26 23:43:40","powerComm":"已送电","subsNo":"","lineNo":"","tgNo":"","tgName":null,"infoStatus":"1","orgName":"国网浙江桐庐县供电公司","typeName":null,"infoStatusName":null,"dateDay":null,"orgNos":null,"nowTime":null,"countyName":null,"streetName":null,"villageName":null,"roadName":null,"communityName":null,"tranName":null,"sdLineName":null,"cityCode":"3340150","cityName":"国网浙江桐庐县供电公司","provinceCode":null,"stopTime":"2019-12-26 23:59:00","powerType":"全部","powerOffArea":"110kV天英变:淳北T427线西坞口开关站淳坞T4272线后段","powerOffReason":"高压开关跳闸 原停电结束时间为2019-12-26 18:30:00,因天气原因,现变更停电结束时间为2019-12-26 23:59:00","powerOffId":"2019122631020123"}],"pageModel":{"pageNow":650,"totalCount":17789,"totalPage":1779,"tableRows":0,"pageCount":10,"beginCount":6490},"isExperi":"1"}