{"message":"","today":"2020-06-15","seleList":[{"poweroffId":2019122531020168,"sgpoweroffId":null,"subsName":"","lineName":"10kV施家D970线","pubTranName":"东坞山村7号何家公变,","scope":"浙江省-杭州市-富阳区-银湖街道-东坞山行政村(东坞山自然村,新农村自然村,何家自然村)","startTime":"2019-12-25 15:03:19","stopDate":"2019-12-25 16:03:19","orgNo":"3340170","typeCode":"电网故障停限电","poweroffArea":"110kV九龙变:施家D970线-东坞山村7号何家公变后段","poweroffReason":"(低压停电信息)低压开关跳闸","powerTime":"2019-12-25 15:33:15","powerComm":"已送电","subsNo":"","lineNo":"","tgNo":"","tgName":null,"infoStatus":"1","orgName":"国网浙江杭州市富阳区供电公司","typeName":null,"infoStatusName":null,"dateDay":null,"orgNos":null,"nowTime":null,"countyName":null,"streetName":null,"villageName":null,"roadName":null,"communityName":null,"tranName":null,"sdLineName":null,"cityCode":"3340170","cityName":"国网浙江杭州市富阳区供电公司","provinceCode":null,"stopTime":"2019-12-25 16:03:19","powerType":"全部","powerOffArea":"110kV九龙变:施家D970线-东坞山村7号何家公变后段","powerOffReason":"(低压停电信息)低压开关跳闸","powerOffId":"2019122531020168"},{"poweroffId":2019122531020161,"sgpoweroffId":null,"subsName":"","lineName":"10kV南园7234线","pubTranName":"豪西一变,","scope":"浙江省-杭州市-滨江区-长河街道-月明社区-月明路，浙江省杭州市滨江区长河街道江南豪园小区9幢1单元11-20层住户。","startTime":"2020-01-03 13:30:00","stopDate":"2020-01-03 15:30:00","orgNo":"3340101","typeCode":"计划停电","poweroffArea":"110kV江虹变:南园7234线-豪西一变后段B1-2低压空开","poweroffReason":"(低压停电信息)非居新装 原停电结束时间为2020-01-03 16:30:00,为减少客户停电时间,加快工作进度,提前送电,现变更停电结束时间为2020-01-03 15:30:00","powerTime":"2020-01-03 14:50:59","powerComm":"已送电","subsNo":"","lineNo":"","tgNo":"","tgName":null,"infoStatus":"1","orgName":"浙江杭州电力客户服务中心","typeName":null,"infoStatusName":null,"dateDay":null,"orgNos":null,"nowTime":null,"countyName":null,"streetName":null,"villageName":null,"roadName":null,"communityName":null,"tranName":null,"sdLineName":null,"cityCode":"3340101","cityName":"浙江杭州电力客户服务中心","provinceCode":null,"stopTime":"2020-01-03 15:30:00","powerType":"全部","powerOffArea":"110kV江虹变:南园7234线-豪西一变后段B1-2低压空开","powerOffReason":"(低压停电信息)非居新装 原停电结束时间为2020-01-03 16:30:00,为减少客户停电时间,加快工作进度,提前送电,现变更停电结束时间为2020-01-03 15:30:00","powerOffId":"2019122531020161"},{"poweroffId":2019122531020160,"sgpoweroffId":null,"subsName":"","lineName":"10kV江一8117线","pubTranName":"铂寓十变,","scope":"浙江省-杭州市-滨江区-西兴街道-金东方社区(铂金时代小区,春晓路)，浙江省杭州市滨江区西兴街道铂金时代小区4号楼商铺二，3号楼1.2.3单元备供，商业裙房南侧商铺一.二。","startTime":"2020-01-03 09:30:00","stopDate":"2020-01-03 11:30:00","orgNo":"3340101","typeCode":"计划停电","poweroffArea":"110kV西兴变:江一8117线-铂寓十变后段B10-4.B10-5.B10-6.B10-7低压空开","poweroffReason":"(低压停电信息)非居增容","powerTime":"2020-01-03 11:04:21","powerComm":"已送电","subsNo":"","lineNo":"","tgNo":"","tgName":null,"infoStatus":"1","orgName":"浙江杭州电力客户服务中心","typeName":null,"infoStatusName":null,"dateDay":null,"orgNos":null,"nowTime":null,"countyName":null,"streetName":null,"villageName":null,"roadName":null,"communityName":null,"tranName":null,"sdLineName":null,"cityCode":"3340101","cityName":"浙江杭州电力客户服务中心","provinceCode":null,"stopTime":"2020-01-03 11:30:00","powerType":"全部","powerOffArea":"110kV西兴变:江一8117线-铂寓十变后段B10-4.B10-5.B10-6.B10-7低压空开","powerOffReason":"(低压停电信息)非居增容","powerOffId":"2019122531020160"},{"poweroffId":2019122531020152,"sgpoweroffId":null,"subsName":"","lineName":"10kV美程G764线","pubTranName":"荷花小区11#公变,","scope":"浙江省-杭州市-余杭区-临平街道-星火社区-星光街,临平街道-荷花塘社区(星光街,荷花路,荷花塘)","startTime":"2019-12-25 14:22:00","stopDate":"2019-12-25 15:22:00","orgNo":"3340140","typeCode":"电网故障停限电","poweroffArea":"110kV金家变:美程G764线-荷花小区11#公变后段","poweroffReason":"高压开关跳闸","powerTime":"2019-12-25 14:53:00","powerComm":"已送电","subsNo":"","lineNo":"","tgNo":"","tgName":null,"infoStatus":"1","orgName":"国网浙江杭州市余杭区供电有限公司","typeName":null,"infoStatusName":null,"dateDay":null,"orgNos":null,"nowTime":null,"countyName":null,"streetName":null,"villageName":null,"roadName":null,"communityName":null,"tranName":null,"sdLineName":null,"cityCode":"3340140","cityName":"国网浙江杭州市余杭区供电有限公司","provinceCode":null,"stopTime":"2019-12-25 15:22:00","powerType":"全部","powerOffArea":"110kV金家变:美程G764线-荷花小区11#公变后段","powerOffReason":"高压开关跳闸","powerOffId":"2019122531020152"},{"poweroffId":2019122531020146,"sgpoweroffId":null,"subsName":"","lineName":"10kV施家D970线","pubTranName":"东坞山村5#周家公变,","scope":"浙江省-杭州市-富阳区-银湖街道-东坞山行政村(刘家自然村,东坞山自然村,周家自然村)","startTime":"2019-12-25 14:13:44","stopDate":"2019-12-25 15:13:44","orgNo":"3340170","typeCode":"电网故障停限电","poweroffArea":"110kV九龙变:施家D970线-东坞山村5#周家公变后段","poweroffReason":"(低压停电信息)低压开关跳闸","powerTime":"2019-12-25 15:01:28","powerComm":"已送电","subsNo":"","lineNo":"","tgNo":"","tgName":null,"infoStatus":"1","orgName":"国网浙江杭州市富阳区供电公司","typeName":null,"infoStatusName":null,"dateDay":null,"orgNos":null,"nowTime":null,"countyName":null,"streetName":null,"villageName":null,"roadName":null,"communityName":null,"tranName":null,"sdLineName":null,"cityCode":"3340170","cityName":"国网浙江杭州市富阳区供电公司","provinceCode":null,"stopTime":"2019-12-25 15:13:44","powerType":"全部","powerOffArea":"110kV九龙变:施家D970线-东坞山村5#周家公变后段","powerOffReason":"(低压停电信息)低压开关跳闸","powerOffId":"2019122531020146"},{"poweroffId":2019122531020142,"sgpoweroffId":null,"subsName":"","lineName":"10kV新农G266线","pubTranName":"杭州知味食品有限公司,五丰联合（6120308967）3#变,2#变,格丽雅,杭州之春绿色食品有限公司,秀山美地,杭州知味食品有限公司,2#变压器,宁电新瑞,杭州和源置业有限公司612066367301#专变,3#,杭州和源置业有限公司612066367101#专变,1#变,高新农业园区经济适用房2#公变,农业开发园区,天农生物,1#变压器,杭州秀山美地农业科技有限公司,五丰联合肉类1变压器II,五丰联合肉类1变压器I,高新农业园区经济适用房1#公变,大地之春2,大地之春1,普宁村西村坝南2号公变,","scope":"浙江省-杭州市-余杭区-仁和街道-东山行政村-桂丰路,仁和街道-普宁行政村(郭亩坝自然村,国亩坝自然村,双抖滨自然村,长桥头自然村,西村坝自然村);崇贤街道(杭州知味食品有限公司,杭州五丰联合肉类有限公司),仁和街道(杭州大地之春农业开发有限公司,杭州市余杭区仁和第一幼儿园,杭州百穗食品有限公司,杭州金三意食品有限公司,杭州天农生物营养技术有限公司,杭州宁电新瑞生物技术有限公司,杭州和源置业有限公司,浙江格丽雅园艺有限公司,杭州稼禾秀实农业科技有限公司,浙江佳伊乐食品有限公司)","startTime":"2019-12-25 13:58:00","stopDate":"2019-12-25 16:30:00","orgNo":"3340140","typeCode":"电网故障停限电","poweroffArea":"110kV仁镇变:新农G266线新农G2663开关后段","poweroffReason":"高压开关跳闸 原停电结束时间为2019-12-25 16:58:00,为减少客户停电时间,加快工作进度,提前送电,现变更停电结束时间为2019-12-25 16:30:00","powerTime":"2019-12-25 15:52:00","powerComm":"已送电","subsNo":"","lineNo":"","tgNo":"","tgName":null,"infoStatus":"1","orgName":"国网浙江杭州市余杭区供电有限公司","typeName":null,"infoStatusName":null,"dateDay":null,"orgNos":null,"nowTime":null,"countyName":null,"streetName":null,"villageName":null,"roadName":null,"communityName":null,"tranName":null,"sdLineName":null,"cityCode":"3340140","cityName":"国网浙江杭州市余杭区供电有限公司","provinceCode":null,"stopTime":"2019-12-25 16:30:00","powerType":"全部","powerOffArea":"110kV仁镇变:新农G266线新农G2663开关后段","powerOffReason":"高压开关跳闸 原停电结束时间为2019-12-25 16:58:00,为减少客户停电时间,加快工作进度,提前送电,现变更停电结束时间为2019-12-25 16:30:00","powerOffId":"2019122531020142"},{"poweroffId":2019122531020132,"sgpoweroffId":null,"subsName":"","lineName":"10kV吴家052线","pubTranName":"五丰村3#村委变,","scope":"浙江省-杭州市-富阳区-东洲街道-五丰行政村-五丰自然村","startTime":"2019-12-25 13:37:10","stopDate":"2019-12-25 14:37:10","orgNo":"3340170","typeCode":"电网故障停限电","poweroffArea":"35kV袁浦临:吴家052线-五丰村3#村委变后段","poweroffReason":"(低压停电信息)低压开关跳闸","powerTime":"2019-12-25 13:58:29","powerComm":"已送电","subsNo":"","lineNo":"","tgNo":"","tgName":null,"infoStatus":"1","orgName":"国网浙江杭州市富阳区供电公司","typeName":null,"infoStatusName":null,"dateDay":null,"orgNos":null,"nowTime":null,"countyName":null,"streetName":null,"villageName":null,"roadName":null,"communityName":null,"tranName":null,"sdLineName":null,"cityCode":"3340170","cityName":"国网浙江杭州市富阳区供电公司","provinceCode":null,"stopTime":"2019-12-25 14:37:10","powerType":"全部","powerOffArea":"35kV袁浦临:吴家052线-五丰村3#村委变后段","powerOffReason":"(低压停电信息)低压开关跳闸","powerOffId":"2019122531020132"},{"poweroffId":2019122531020078,"sgpoweroffId":null,"subsName":"","lineName":"10kV中光D555线","pubTranName":"虎山单相变5#公变1,","scope":"浙江省-杭州市-富阳区-富春街道-东山社区-大桥北路","startTime":"2019-12-25 09:51:43","stopDate":"2019-12-25 10:51:43","orgNo":"3340170","typeCode":"电网故障停限电","poweroffArea":"110kV春江变:中光D555线-虎山单相变5#公变1后段","poweroffReason":"高压开关跳闸，原停电结束时间为2019-12-25 11:51:43,为减少客户停电时间,加快工作进度,提前送电,现变更停电结束时间为2019-12-25 10:51:43","powerTime":"2019-12-25 09:59:35","powerComm":"已送电","subsNo":"","lineNo":"","tgNo":"","tgName":null,"infoStatus":"1","orgName":"国网浙江杭州市富阳区供电公司","typeName":null,"infoStatusName":null,"dateDay":null,"orgNos":null,"nowTime":null,"countyName":null,"streetName":null,"villageName":null,"roadName":null,"communityName":null,"tranName":null,"sdLineName":null,"cityCode":"3340170","cityName":"国网浙江杭州市富阳区供电公司","provinceCode":null,"stopTime":"2019-12-25 10:51:43","powerType":"全部","powerOffArea":"110kV春江变:中光D555线-虎山单相变5#公变1后段","powerOffReason":"高压开关跳闸，原停电结束时间为2019-12-25 11:51:43,为减少客户停电时间,加快工作进度,提前送电,现变更停电结束时间为2019-12-25 10:51:43","powerOffId":"2019122531020078"},{"poweroffId":2019122531020066,"sgpoweroffId":null,"subsName":"","lineName":"10kV石镜V323线","pubTranName":"兰锦村[村中]公变,","scope":"浙江省杭州市临安区锦南街道兰锦行政村(锦溪南路兰巾桥边,兰锦自然村)一带","startTime":"2020-01-02 08:30:00","stopDate":"2020-01-02 13:00:00","orgNo":"3340160","typeCode":"计划停电","poweroffArea":"110kV锦南变:石镜V323线-兰锦村[村中]公变后段","poweroffReason":"配合停电","powerTime":"2020-01-02 12:50:13","powerComm":"已送电","subsNo":"","lineNo":"","tgNo":"","tgName":null,"infoStatus":"1","orgName":"国网浙江临安市供电公司","typeName":null,"infoStatusName":null,"dateDay":null,"orgNos":null,"nowTime":null,"countyName":null,"streetName":null,"villageName":null,"roadName":null,"communityName":null,"tranName":null,"sdLineName":null,"cityCode":"3340160","cityName":"国网浙江临安市供电公司","provinceCode":null,"stopTime":"2020-01-02 13:00:00","powerType":"全部","powerOffArea":"110kV锦南变:石镜V323线-兰锦村[村中]公变后段","powerOffReason":"配合停电","powerOffId":"2019122531020066"},{"poweroffId":2019122531020063,"sgpoweroffId":null,"subsName":"","lineName":"10kV润达D431线","pubTranName":"民建村5号东2公变,","scope":"浙江省-杭州市-富阳区-东洲街道-建华行政村-民建自然村","startTime":"2019-12-25 09:30:53","stopDate":"2019-12-25 10:30:53","orgNo":"3340170","typeCode":"电网故障停限电","poweroffArea":"110kV东洲变:润达D431线-民建村5#东2公变后段","poweroffReason":"高压开关跳闸","powerTime":"2019-12-25 10:14:21","powerComm":"已送电","subsNo":"","lineNo":"","tgNo":"","tgName":null,"infoStatus":"1","orgName":"国网浙江杭州市富阳区供电公司","typeName":null,"infoStatusName":null,"dateDay":null,"orgNos":null,"nowTime":null,"countyName":null,"streetName":null,"villageName":null,"roadName":null,"communityName":null,"tranName":null,"sdLineName":null,"cityCode":"3340170","cityName":"国网浙江杭州市富阳区供电公司","provinceCode":null,"stopTime":"2019-12-25 10:30:53","powerType":"全部","powerOffArea":"110kV东洲变:润达D431线-民建村5#东2公变后段","powerOffReason":"高压开关跳闸","powerOffId":"2019122531020063"}],"pageModel":{"pageNow":654,"totalCount":17789,"totalPage":1779,"tableRows":0,"pageCount":10,"beginCount":6530},"isExperi":"1"}