{"message":"","today":"2020-06-15","seleList":[{"poweroffId":2019122531020039,"sgpoweroffId":null,"subsName":"","lineName":"10kV三白G371线","pubTranName":"东塘村薛家峰公变,","scope":"浙江省-杭州市-余杭区-仁和街道-东塘行政村(漾斗,丁家抖自然村,马峰头自然村,黄家墩自然村,郭家墩自然村,黄介墩自然村,沈介墩自然村,薛家峰自然村,小环桥自然村,唐家墩自然村)","startTime":"2019-12-25 09:00:00","stopDate":"2019-12-25 10:00:00","orgNo":"3340140","typeCode":"电网故障停限电","poweroffArea":"110kV东塘变:三白G371线-东塘村薛家峰公变后段","poweroffReason":"高压开关跳闸","powerTime":"2019-12-25 09:52:00","powerComm":"已送电","subsNo":"","lineNo":"","tgNo":"","tgName":null,"infoStatus":"1","orgName":"国网浙江杭州市余杭区供电有限公司","typeName":null,"infoStatusName":null,"dateDay":null,"orgNos":null,"nowTime":null,"countyName":null,"streetName":null,"villageName":null,"roadName":null,"communityName":null,"tranName":null,"sdLineName":null,"cityCode":"3340140","cityName":"国网浙江杭州市余杭区供电有限公司","provinceCode":null,"stopTime":"2019-12-25 10:00:00","powerType":"全部","powerOffArea":"110kV东塘变:三白G371线-东塘村薛家峰公变后段","powerOffReason":"高压开关跳闸","powerOffId":"2019122531020039"},{"poweroffId":2019122531020037,"sgpoweroffId":null,"subsName":"","lineName":"10kV岩坞T311线","pubTranName":"宝兴路1号公变,","scope":"浙江省-杭州市-桐庐县-城南街道-下洋洲行政村-宝兴路","startTime":"2019-12-25 08:50:03","stopDate":"2019-12-25 10:50:03","orgNo":"3340150","typeCode":"电网故障停限电","poweroffArea":"110kV洋洲变:岩坞T311线-宝兴路1号公变后段","poweroffReason":"(低压停电信息)低压开关跳闸","powerTime":"2019-12-25 10:19:39","powerComm":"已送电","subsNo":"","lineNo":"","tgNo":"","tgName":null,"infoStatus":"1","orgName":"国网浙江桐庐县供电公司","typeName":null,"infoStatusName":null,"dateDay":null,"orgNos":null,"nowTime":null,"countyName":null,"streetName":null,"villageName":null,"roadName":null,"communityName":null,"tranName":null,"sdLineName":null,"cityCode":"3340150","cityName":"国网浙江桐庐县供电公司","provinceCode":null,"stopTime":"2019-12-25 10:50:03","powerType":"全部","powerOffArea":"110kV洋洲变:岩坞T311线-宝兴路1号公变后段","powerOffReason":"(低压停电信息)低压开关跳闸","powerOffId":"2019122531020037"},{"poweroffId":2019122531020036,"sgpoweroffId":null,"subsName":"","lineName":"10kV景福H541线","pubTranName":"双溪旅游,杭州双溪旅游开发有限公司6110115058,金巴顿变,小古城村塔山公变,杭州余杭双溪铸钢厂6111015438,","scope":"浙江省-杭州市-余杭区-径山镇-潘坂桥行政村-小古城村,径山镇-小古城行政村(小古城自然村,吴山自然村);径山镇(杭州余杭双溪铸钢厂,杭州双溪旅游开发有限公司,杭州金巴登实业有限公司)","startTime":"2019-12-25 08:49:00","stopDate":"2019-12-25 10:38:00","orgNo":"3340140","typeCode":"电网故障停限电","poweroffArea":"110kV潘板变:景福H541线团结2分线开关后段","poweroffReason":"高压开关跳闸","powerTime":"2019-12-25 09:57:00","powerComm":"已送电","subsNo":"","lineNo":"","tgNo":"","tgName":null,"infoStatus":"1","orgName":"国网浙江杭州市余杭区供电有限公司","typeName":null,"infoStatusName":null,"dateDay":null,"orgNos":null,"nowTime":null,"countyName":null,"streetName":null,"villageName":null,"roadName":null,"communityName":null,"tranName":null,"sdLineName":null,"cityCode":"3340140","cityName":"国网浙江杭州市余杭区供电有限公司","provinceCode":null,"stopTime":"2019-12-25 10:38:00","powerType":"全部","powerOffArea":"110kV潘板变:景福H541线团结2分线开关后段","powerOffReason":"高压开关跳闸","powerOffId":"2019122531020036"},{"poweroffId":2019122531020035,"sgpoweroffId":null,"subsName":"","lineName":"10kV总府Y309线","pubTranName":"梅城集镇客运站公变,","scope":"浙江省-杭州市-建德市-梅城镇-梅花社区车站路,梅花中路一带用户","startTime":"2019-12-25 08:30:00","stopDate":"2019-12-25 10:30:00","orgNo":"3340180","typeCode":"电网故障停限电","poweroffArea":"110kV梅城变:总府Y309线-梅城集镇客运站公变后段","poweroffReason":"(低压停电信息)低压开关跳闸","powerTime":"2019-12-25 10:23:00","powerComm":"已送电","subsNo":"","lineNo":"","tgNo":"","tgName":null,"infoStatus":"1","orgName":"国网浙江建德市供电有限公司","typeName":null,"infoStatusName":null,"dateDay":null,"orgNos":null,"nowTime":null,"countyName":null,"streetName":null,"villageName":null,"roadName":null,"communityName":null,"tranName":null,"sdLineName":null,"cityCode":"3340180","cityName":"国网浙江建德市供电有限公司","provinceCode":null,"stopTime":"2019-12-25 10:30:00","powerType":"全部","powerOffArea":"110kV梅城变:总府Y309线-梅城集镇客运站公变后段","powerOffReason":"(低压停电信息)低压开关跳闸","powerOffId":"2019122531020035"},{"poweroffId":2019122531020033,"sgpoweroffId":null,"subsName":"","lineName":"10kV水南G319线","pubTranName":"杭州余杭运河综合保护开发建设有限公司1#变,广济5#公变,园满桥公变,杭州余杭运河综合保护开发建设有限公司3#变,长桥1#公变,煤球厂公变,广济4#公变,","scope":"浙江省-杭州市-余杭区-塘栖镇-西小河社区(广济路,圣堂漾路),塘栖镇-广济路社区(广济西路,张家墩路,圆满路,西横头街,广济路);塘栖镇-杭州余杭运河综合保护开发建设有限公司","startTime":"2019-12-25 08:34:00","stopDate":"2019-12-25 10:00:00","orgNo":"3340140","typeCode":"电网故障停限电","poweroffArea":"110kV西苑变:水南G319线运动开关站运动开关站水南G319线后段","poweroffReason":"高压开关跳闸 原停电结束时间为2019-12-25 10:24:00,为减少客户停电时间,加快工作进度,提前送电,现变更停电结束时间为2019-12-25 10:00:00","powerTime":"2019-12-25 09:11:00","powerComm":"已送电","subsNo":"","lineNo":"","tgNo":"","tgName":null,"infoStatus":"1","orgName":"国网浙江杭州市余杭区供电有限公司","typeName":null,"infoStatusName":null,"dateDay":null,"orgNos":null,"nowTime":null,"countyName":null,"streetName":null,"villageName":null,"roadName":null,"communityName":null,"tranName":null,"sdLineName":null,"cityCode":"3340140","cityName":"国网浙江杭州市余杭区供电有限公司","provinceCode":null,"stopTime":"2019-12-25 10:00:00","powerType":"全部","powerOffArea":"110kV西苑变:水南G319线运动开关站运动开关站水南G319线后段","powerOffReason":"高压开关跳闸 原停电结束时间为2019-12-25 10:24:00,为减少客户停电时间,加快工作进度,提前送电,现变更停电结束时间为2019-12-25 10:00:00","powerOffId":"2019122531020033"},{"poweroffId":2019122531020007,"sgpoweroffId":null,"subsName":"","lineName":"10kV肇和H436线","pubTranName":"东塘河村裘家村公变,东塘河村东洋村北公变,金家门泵站,东塘河村金家抖2号公变,东塘河村东洋村公变,东塘河村东洋村西公变,东塘河村王泥坝2号公变,东塘河村金家抖公变,东塘河村王泥坝公变,东塘河村费家塘2号公变,东塘河村费家塘公变,","scope":"浙江省-杭州市-余杭区-良渚街道-东塘河行政村-吴家桥自然村;良渚街道-杭州余杭城西净水有限公司","startTime":"2019-12-25 07:26:00","stopDate":"2019-12-25 09:26:00","orgNo":"3340140","typeCode":"电网故障停限电","poweroffArea":"110kV勾庄变:肇和H436线肇和H436线费家塘分线开关后段","poweroffReason":"高压开关跳闸","powerTime":"2019-12-25 09:03:00","powerComm":"已送电","subsNo":"","lineNo":"","tgNo":"","tgName":null,"infoStatus":"1","orgName":"国网浙江杭州市余杭区供电有限公司","typeName":null,"infoStatusName":null,"dateDay":null,"orgNos":null,"nowTime":null,"countyName":null,"streetName":null,"villageName":null,"roadName":null,"communityName":null,"tranName":null,"sdLineName":null,"cityCode":"3340140","cityName":"国网浙江杭州市余杭区供电有限公司","provinceCode":null,"stopTime":"2019-12-25 09:26:00","powerType":"全部","powerOffArea":"110kV勾庄变:肇和H436线肇和H436线费家塘分线开关后段","powerOffReason":"高压开关跳闸","powerOffId":"2019122531020007"},{"poweroffId":2019122531020002,"sgpoweroffId":null,"subsName":"","lineName":"10kV首城G602线","pubTranName":"和睦12组1号公变,和睦3组3号公变,敏达服装,水西5组7号公变,乔司正方五金构件厂,华浩锻造厂1#,和睦10组4号公变,和睦11组公变,神鹰雨篷,中国建筑第八工程局世纪大道2#基建变,和睦10组2号公变,和睦街道公变,华浩锻造厂2#,和睦10组7号公变,和睦18组1号公变,和睦3组4号公变,和睦10组5号公变,和睦12组2号公变,和睦3组2号公变,和睦10组6号公变,方桥港闸站,和睦村委变,和睦3组6号公变,和睦10组3号公变,和睦11组2号公变,和睦12组3号公变,","scope":"浙江省-杭州市-余杭区-乔司街道-和睦桥行政村(茅家桥自然村,杨家桥自然村,和睦村北自然村,河西角自然村,八字桥自然村,马鸣嚎畈自然村,庙桥头自然村,和顺桥自然村);乔司街道(杭州正方五金构件有限公司,杭州余杭区乔司玖侨通信设备商行,杭州市余杭区河道建设管理中心,杭州天创交通设施工程有限公司,杭州华浩锻造有限公司,杭州余杭敏达服装有限公司,中国建筑第八工程局有限公司)","startTime":"2019-12-25 02:04:57","stopDate":"2019-12-25 04:10:30","orgNo":"3340140","typeCode":"电网故障停限电","poweroffArea":"110kV艺尚变:首城G602线华和G60241开关后段","poweroffReason":"高压开关跳闸原停电结束时间为2019-12-25 02:05:08, 原停电结束时间为2019-12-25 02:10:30,因其他原因,现变更停电结束时间为2019-12-25 04:10:30","powerTime":"2019-12-25 03:24:21","powerComm":"已送电","subsNo":"","lineNo":"","tgNo":"","tgName":null,"infoStatus":"1","orgName":"国网浙江杭州市余杭区供电有限公司","typeName":null,"infoStatusName":null,"dateDay":null,"orgNos":null,"nowTime":null,"countyName":null,"streetName":null,"villageName":null,"roadName":null,"communityName":null,"tranName":null,"sdLineName":null,"cityCode":"3340140","cityName":"国网浙江杭州市余杭区供电有限公司","provinceCode":null,"stopTime":"2019-12-25 04:10:30","powerType":"全部","powerOffArea":"110kV艺尚变:首城G602线华和G60241开关后段","powerOffReason":"高压开关跳闸原停电结束时间为2019-12-25 02:05:08, 原停电结束时间为2019-12-25 02:10:30,因其他原因,现变更停电结束时间为2019-12-25 04:10:30","powerOffId":"2019122531020002"},{"poweroffId":2019122531020001,"sgpoweroffId":null,"subsName":"","lineName":"10kV岩坞T311线","pubTranName":"岩坞口1号公变,十亩塘1号公变,杭州三杭锅炉配件有限公司,一洲化工厂1#,东兴村委变,污水处理厂3#变,杭州安烨户外休闲用品有限公司,2#,宝兴路1号公变,路灯变,杭州颐居智慧养生园有限公司基建,杭州安烨户外休闲用品有限公司,邓家1号公变,桐庐维尔利水务有限公司2变压器配电变压器,中汽商用汽车有限公司(杭州)桐庐分公司,一洲化工厂2#,姚卫基建变压器,瑞坤服饰专变1#,杭州三朵花印务有限公司,桐庐桐鑫房地产开发有限公司基建,申通印刷2#,桐庐桐鑫房地产开发有限公司变压器,瑞坤服饰专变,中汽商用汽车有限公司(杭州)桐庐分公司,浙江泰磊机械科技有限公司,下洋洲移民村1号公变,浙江迎丰建设有限公司,1#,1,中汽商用汽车有限公司,路灯变,瑞坤服饰专变2#,桐庐金江加油站有限公司变压器,杭州小来大农业开发集团有限公司,3#,桐庐县富春科技建设投资有限公司,蒋家2号公变,尹家1号公变,七里山1号公变,桐庐经济开发区管委会(宝兴路路灯),姚卫基建变压器,3#,桐庐宇燕服装织唛有限公司,污水处理厂2#变,桐庐富春污水处理有限公司1#,","scope":"浙江省-杭州市-桐庐县-城南街道-岩桥行政村-岩桥自然村,城南街道-下洋洲行政村(下洋洲自然村,下洋洲路,下洋洲移民村,宝兴路),城南街道-东兴行政村(邓家自然村,七里山自然村,高荷自然村,尹家自然村,岩坞口自然村,蒋陆家自然村,赖家自然村);城南街道(桐君街道东兴村委,杭州颐居智慧养生园有限公司,中汽商用汽车有限公司(杭州)桐庐分公司,桐庐宇燕服装织唛有限公司,桐庐县富春科技建设投资有限公司,杭州一洲化工有限公司,桐庐桐鑫房地产开发有限公司,杭州安烨户外休闲用品有限公司,杭州小来大农业开发集团有限公司,浙江泰磊机械科技有限公司,姚卫基建,桐庐维尔利水务有限公司,杭州三恒包装材料有限公司,杭州欣源电梯部件有限公司,杭州重力脚轮科技有限公司,杭州瑞坤时装有限公司,浙江迎丰建设有限公司,桐庐金江加油站有限公司)","startTime":"2019-12-25 00:04:00","stopDate":"2019-12-25 08:00:00","orgNo":"3340150","typeCode":"电网故障停限电","poweroffArea":"110kV洋洲变:岩坞T311线岩坞6133后段","poweroffReason":"高压开关跳闸","powerTime":"2019-12-25 07:33:46","powerComm":"已送电","subsNo":"","lineNo":"","tgNo":"","tgName":null,"infoStatus":"1","orgName":"国网浙江桐庐县供电公司","typeName":null,"infoStatusName":null,"dateDay":null,"orgNos":null,"nowTime":null,"countyName":null,"streetName":null,"villageName":null,"roadName":null,"communityName":null,"tranName":null,"sdLineName":null,"cityCode":"3340150","cityName":"国网浙江桐庐县供电公司","provinceCode":null,"stopTime":"2019-12-25 08:00:00","powerType":"全部","powerOffArea":"110kV洋洲变:岩坞T311线岩坞6133后段","powerOffReason":"高压开关跳闸","powerOffId":"2019122531020001"},{"poweroffId":2019122431020321,"sgpoweroffId":null,"subsName":"","lineName":"10kV汪更Y417线","pubTranName":"梅坪村源口台区,","scope":"浙江省-杭州市-建德市-新安江街道-梅坪行政村(源口自然村,梅坪自然村)一带用户","startTime":"2019-12-24 22:03:00","stopDate":"2019-12-24 23:30:00","orgNo":"3340180","typeCode":"电网故障停限电","poweroffArea":"110kV更楼变:汪更Y417线-梅坪村源口台区后段","poweroffReason":"(低压停电信息)低压开关跳闸","powerTime":"2019-12-24 23:12:00","powerComm":"已送电","subsNo":"","lineNo":"","tgNo":"","tgName":null,"infoStatus":"1","orgName":"国网浙江建德市供电有限公司","typeName":null,"infoStatusName":null,"dateDay":null,"orgNos":null,"nowTime":null,"countyName":null,"streetName":null,"villageName":null,"roadName":null,"communityName":null,"tranName":null,"sdLineName":null,"cityCode":"3340180","cityName":"国网浙江建德市供电有限公司","provinceCode":null,"stopTime":"2019-12-24 23:30:00","powerType":"全部","powerOffArea":"110kV更楼变:汪更Y417线-梅坪村源口台区后段","powerOffReason":"(低压停电信息)低压开关跳闸","powerOffId":"2019122431020321"},{"poweroffId":2019122431020313,"sgpoweroffId":null,"subsName":"","lineName":"10kV文教6730线","pubTranName":"医宿,科委,武村,","scope":"浙江省-杭州市-西湖区-翠苑街道-黄姑山社区-黄姑山路;古荡街道-杭州同济医院,翠苑街道-杭州市生产力促进中心(杭州市对外科技交流中心)","startTime":"2019-12-24 19:50:07","stopDate":"2019-12-24 21:00:07","orgNo":"3340101","typeCode":"电网故障停限电","poweroffArea":"110kV黄体变:文教6730线黄姑站医宿分线后段","poweroffReason":"高压开关跳闸 原停电结束时间为2019-12-24 23:59:07,为减少客户停电时间,加快工作进度,提前送电,现变更停电结束时间为2019-12-24 21:00:07","powerTime":"2019-12-24 20:08:08","powerComm":"已送电","subsNo":"","lineNo":"","tgNo":"","tgName":null,"infoStatus":"1","orgName":"浙江杭州电力客户服务中心","typeName":null,"infoStatusName":null,"dateDay":null,"orgNos":null,"nowTime":null,"countyName":null,"streetName":null,"villageName":null,"roadName":null,"communityName":null,"tranName":null,"sdLineName":null,"cityCode":"3340101","cityName":"浙江杭州电力客户服务中心","provinceCode":null,"stopTime":"2019-12-24 21:00:07","powerType":"全部","powerOffArea":"110kV黄体变:文教6730线黄姑站医宿分线后段","powerOffReason":"高压开关跳闸 原停电结束时间为2019-12-24 23:59:07,为减少客户停电时间,加快工作进度,提前送电,现变更停电结束时间为2019-12-24 21:00:07","powerOffId":"2019122431020313"}],"pageModel":{"pageNow":655,"totalCount":17789,"totalPage":1779,"tableRows":0,"pageCount":10,"beginCount":6540},"isExperi":"1"}