{"message":"","today":"2020-06-15","seleList":[{"poweroffId":2019122431020197,"sgpoweroffId":null,"subsName":"","lineName":"10kV航达H792线","pubTranName":"7#,海创企业管理II段2#专变,3#,2#,取一企业,3#变压器,5#变,3#变,海创企业管理II段1#专变,炬华科技2#,炬华科技1#,4#,1#变压器,4#,2#,浙江世导服饰有限公司II段3#变,","scope":"浙江省-杭州市-余杭区-仓前街道-朱庙行政村(杭州炬华科技股份有限公司,绿益物业服务集团有限公司,杭州金之源通信技术有限公司,浙江海创企业管理有限公司),仓前街道-太炎社区(杭州取一企业管理有限公司,浙江世导服饰有限公司,深圳市科技园物业集团有限公司杭州分公司,杭州炬华集团有限公司)","startTime":"2019-12-24 13:44:41","stopDate":"2019-12-24 15:44:41","orgNo":"3340140","typeCode":"电网故障停限电","poweroffArea":"110kV仓前变:航达H792线","poweroffReason":"高压开关跳闸","powerTime":"2019-12-24 15:00:00","powerComm":"已送电","subsNo":"","lineNo":"","tgNo":"","tgName":null,"infoStatus":"1","orgName":"国网浙江杭州市余杭区供电有限公司","typeName":null,"infoStatusName":null,"dateDay":null,"orgNos":null,"nowTime":null,"countyName":null,"streetName":null,"villageName":null,"roadName":null,"communityName":null,"tranName":null,"sdLineName":null,"cityCode":"3340140","cityName":"国网浙江杭州市余杭区供电有限公司","provinceCode":null,"stopTime":"2019-12-24 15:44:41","powerType":"全部","powerOffArea":"110kV仓前变:航达H792线","powerOffReason":"高压开关跳闸","powerOffId":"2019122431020197"},{"poweroffId":2019122431020196,"sgpoweroffId":null,"subsName":"","lineName":"10kV朝阳971线","pubTranName":"物美,明月桥施2,明月桥施1,市公,之田,江居(5),","scope":"浙江省-杭州市-江干区-杭州市江干区农居建设管理中心、杭州市江干区艮山东路北区块开发建设指挥部办公室、浙江之田汽车有限公司、浙江元通森美汽车有限公司、杭州市公共交通集团有限公司","startTime":"2020-01-02 09:40:00","stopDate":"2020-01-02 16:20:00","orgNo":"3340101","typeCode":"计划停电","poweroffArea":"110kV彭埠变:朝阳971线-物产后段;朝阳971线-市交后段;朝阳971线-之田后段;朝阳971线-明月桥施后段;朝阳971线-江居(5)后段","poweroffReason":"(低压停电信息) 原停电结束时间为2020-01-02 17:30:00,为减少客户停电时间,加快工作进度,提前送电,现变更停电结束时间为2020-01-02 16:20:00","powerTime":"2020-01-02 15:43:59","powerComm":"已送电","subsNo":"","lineNo":"","tgNo":"","tgName":null,"infoStatus":"1","orgName":"浙江杭州电力客户服务中心","typeName":null,"infoStatusName":null,"dateDay":null,"orgNos":null,"nowTime":null,"countyName":null,"streetName":null,"villageName":null,"roadName":null,"communityName":null,"tranName":null,"sdLineName":null,"cityCode":"3340101","cityName":"浙江杭州电力客户服务中心","provinceCode":null,"stopTime":"2020-01-02 16:20:00","powerType":"全部","powerOffArea":"110kV彭埠变:朝阳971线-物产后段;朝阳971线-市交后段;朝阳971线-之田后段;朝阳971线-明月桥施后段;朝阳971线-江居(5)后段","powerOffReason":"(低压停电信息) 原停电结束时间为2020-01-02 17:30:00,为减少客户停电时间,加快工作进度,提前送电,现变更停电结束时间为2020-01-02 16:20:00","powerOffId":"2019122431020196"},{"poweroffId":2019122431020195,"sgpoweroffId":null,"subsName":"","lineName":"10kV枫树H797线","pubTranName":"杭州沙田控股股份有限公司3#专变（6120853398）,舒亚科技（6120842648）II段6#专变,杭州首港科技有限公司3#专变（6120859231）,4#变压器,舒亚科技（6120842648）II段8#专变,杭州首港科技有限公司2#专变（6120859233）,未来之城13号公变,6#变压器,天元城5号公变,未来之城11号公变,向往创景路灯,未来之城12号公变,地下空间Ⅱ段（6120880045）02#专变,地下空间Ⅱ段（6120880045）06#专变,葛巷村公建配套房2号公变,6#变压器,舒亚科技（6120842648）II段4#专变,未来之城9号公变,2#,杭州沙田控股股份有限公司4#专变（6120853398）,舒亚科技（6120842648）II段2#专变,天元城7号公变,8#变压器,未来之城14号公变,葛巷村公建配套房3号公变,未来之城10号公变,2#变压器,葛巷村公建配套房1-1号公变,2#变压器,2#,地下空间Ⅱ段（6120880045）08#专变,向往景兴路灯,天元城8号公变,2#,地下空间Ⅱ段（6120880045）04#专变,舒亚科技（6120842649）II段4#专变,葛巷村公建配套房1-2号公变,4#变压器,舒亚科技（6120844720）II段2#专变,舒亚科技（6120842649）II段2#专变,天元城6号公变,杭州首港科技有限公司4#专变（6120859231）,2#变压器,","scope":"浙江省-杭州市-余杭区-仓前街道-苕溪行政村-苕溪自然村,仓前街道-吴山前行政村(吴山前自然村,上山头自然村),仓前街道-葛巷行政村(海曙路,葛巷自然村),仓前街道-永乐行政村(永乐自然村,姚家门自然村),仓前街道-朱庙行政村(朱庙前自然村,时代未来之城,绿汀路);仓前街道-葛巷行政村(杭州余杭葛巷股份经济合作社,杭州宝力康华置业有限公司),仓前街道-朱庙行政村(杭州舒亚科技有限公司,宁波奥克斯物业服务有限公司杭州分公司),仓前街道-太炎社区(杭州舒亚科技有限公司,浙江丽晶物业管理有限责任公司,广州市宁骏物业管理有限公司杭州分公司,杭州沙田控股股份有限公司,杭州未来科技城建设有限公司),仓前街道(杭州未来科技城建设有限公司,灵源行政村-杭州首港科技有限公司,杭州首港科技有限公司)","startTime":"2019-12-24 13:44:29","stopDate":"2019-12-24 15:44:29","orgNo":"3340140","typeCode":"电网故障停限电","poweroffArea":"110kV仓前变:枫树H797线","poweroffReason":"高压开关跳闸","powerTime":"2019-12-24 15:00:00","powerComm":"已送电","subsNo":"","lineNo":"","tgNo":"","tgName":null,"infoStatus":"1","orgName":"国网浙江杭州市余杭区供电有限公司","typeName":null,"infoStatusName":null,"dateDay":null,"orgNos":null,"nowTime":null,"countyName":null,"streetName":null,"villageName":null,"roadName":null,"communityName":null,"tranName":null,"sdLineName":null,"cityCode":"3340140","cityName":"国网浙江杭州市余杭区供电有限公司","provinceCode":null,"stopTime":"2019-12-24 15:44:29","powerType":"全部","powerOffArea":"110kV仓前变:枫树H797线","powerOffReason":"高压开关跳闸","powerOffId":"2019122431020195"},{"poweroffId":2019122431020194,"sgpoweroffId":null,"subsName":"","lineName":"10kV龙潭H791线","pubTranName":"地铁集团（6120830746）7#变,地铁集团（6120830746）5#变,富44西高配3#,地铁集团（6120830746）6#变,富44西高配8#,绿城1号基建,地铁集团（6120830746）2#变,绿城3号基建,1#变压器,富44西高配1#,地铁集团（6120830746）8#变,2#变压器,富44西高配4#,富44西高配2#,地铁集团（6120830746）3#变,1#变压器,富44西高配6#,富44西高配7#,绿城4号基建,地铁集团（6120830746）1#变,1#变压器,1#变压器,富44西高配5#,地铁集团（6120830746）4#变,绿城2号基建,","scope":"浙江省-杭州市-余杭区-仓前街道-葛巷行政村-中铁十一局集团城市轨道工程有限公司,仓前街道-朱庙行政村(浙江省大成建设集团有限公司,中铁十一局集团城市轨道工程有限公司,浙江富力房地产开发有限公司,杭州绿城交投锦溪置业有限公司)","startTime":"2019-12-24 13:44:22","stopDate":"2019-12-24 15:00:00","orgNo":"3340140","typeCode":"电网故障停限电","poweroffArea":"110kV仓前变:龙潭H791线","poweroffReason":"高压开关跳闸 原停电结束时间为2019-12-24 15:44:22,为减少客户停电时间,加快工作进度,提前送电,现变更停电结束时间为2019-12-24 15:00:00","powerTime":"2019-12-24 14:15:00","powerComm":"已送电","subsNo":"","lineNo":"","tgNo":"","tgName":null,"infoStatus":"1","orgName":"国网浙江杭州市余杭区供电有限公司","typeName":null,"infoStatusName":null,"dateDay":null,"orgNos":null,"nowTime":null,"countyName":null,"streetName":null,"villageName":null,"roadName":null,"communityName":null,"tranName":null,"sdLineName":null,"cityCode":"3340140","cityName":"国网浙江杭州市余杭区供电有限公司","provinceCode":null,"stopTime":"2019-12-24 15:00:00","powerType":"全部","powerOffArea":"110kV仓前变:龙潭H791线","powerOffReason":"高压开关跳闸 原停电结束时间为2019-12-24 15:44:22,为减少客户停电时间,加快工作进度,提前送电,现变更停电结束时间为2019-12-24 15:00:00","powerOffId":"2019122431020194"},{"poweroffId":2019122431020193,"sgpoweroffId":null,"subsName":"","lineName":"10kV泉北H781线","pubTranName":"天长充电桩,景生木业2号,杭州亚太化工有限公司,科凯实业,和欣科技,天长通信,东庆橡胶1#,财通充电桩,天盈金属,天创净水基建,恒华食品,羽丰居室,理康塑料2#,景生木业1号,浩川科技,顺豪橡胶,1＃,英菲汽车3,和欣科技变压器,财通实业,东庆橡胶2#,理康塑料1#,","scope":"浙江省-杭州市-余杭区-仓前街道-朱庙行政村(杭州东庆橡胶有限公司,杭州财通实业科技有限公司,浙江顺豪新材料有限公司,杭州恒力通印务有限公司,杭州理康塑料薄膜有限公司,杭州菲英汽车零部件有限公司,万马联合新能源投资有限公司,国网浙江电动汽车服务有限公司),仓前街道-太炎社区(杭州创翔电气有限公司,杭州天长通信设备有限公司,杭州天盈金属制品有限公司,杭州恒华食品有限公司,杭州景生木业机械有限公司,杭州天创环境科技股份有限公司,杭州和欣科技有限公司,浙江浩川科技有限公司,杭州亚太化工有限公司)","startTime":"2019-12-24 13:43:52","stopDate":"2019-12-24 15:43:52","orgNo":"3340140","typeCode":"电网故障停限电","poweroffArea":"110kV仓前变:泉北H781线","poweroffReason":"高压开关跳闸","powerTime":"2019-12-24 15:15:00","powerComm":"已送电","subsNo":"","lineNo":"","tgNo":"","tgName":null,"infoStatus":"1","orgName":"国网浙江杭州市余杭区供电有限公司","typeName":null,"infoStatusName":null,"dateDay":null,"orgNos":null,"nowTime":null,"countyName":null,"streetName":null,"villageName":null,"roadName":null,"communityName":null,"tranName":null,"sdLineName":null,"cityCode":"3340140","cityName":"国网浙江杭州市余杭区供电有限公司","provinceCode":null,"stopTime":"2019-12-24 15:43:52","powerType":"全部","powerOffArea":"110kV仓前变:泉北H781线","powerOffReason":"高压开关跳闸","powerOffId":"2019122431020193"},{"poweroffId":2019122431020192,"sgpoweroffId":null,"subsName":"","lineName":"10kV永胜H790线","pubTranName":"仓溢绿苑13#公变,仓溢绿苑4#专变,仓溢绿苑25#公变,仓溢绿苑2#专变,仓溢绿苑14#公变,仓前中心幼儿园,仓溢绿苑16#公变,仓溢绿苑(8),仓溢绿苑6#专变,5#,仓溢绿苑(7),仓溢绿苑15#公变,仓溢绿苑26#公变,","scope":"浙江省-杭州市-余杭区-仓前街道-朱庙行政村-绿汀路;浙江省-杭州市-余杭区-仓前街道-太炎社区-杭州仓溢物业管理有限公司,仓前街道-朱庙行政村(杭州仓溢物业管理有限公司,杭州市余杭区仓前中心幼儿园)","startTime":"2019-12-24 13:43:41","stopDate":"2019-12-24 15:43:41","orgNo":"3340140","typeCode":"电网故障停限电","poweroffArea":"110kV仓前变:永胜H790线","poweroffReason":"高压开关跳闸","powerTime":"2019-12-24 15:00:00","powerComm":"已送电","subsNo":"","lineNo":"","tgNo":"","tgName":null,"infoStatus":"1","orgName":"国网浙江杭州市余杭区供电有限公司","typeName":null,"infoStatusName":null,"dateDay":null,"orgNos":null,"nowTime":null,"countyName":null,"streetName":null,"villageName":null,"roadName":null,"communityName":null,"tranName":null,"sdLineName":null,"cityCode":"3340140","cityName":"国网浙江杭州市余杭区供电有限公司","provinceCode":null,"stopTime":"2019-12-24 15:43:41","powerType":"全部","powerOffArea":"110kV仓前变:永胜H790线","powerOffReason":"高压开关跳闸","powerOffId":"2019122431020192"},{"poweroffId":2019122431020191,"sgpoweroffId":null,"subsName":"","lineName":"10kV文理H786线","pubTranName":"13#,29#,39#,35#,15#,25#,1#,31#,7#,45#,17#,43#,27#,37#,19#,47#,3#,23#,41#,33#,5#,11#,21#,9#,","scope":"浙江省-杭州市-余杭区-仓前街道-太炎社区-杭州师范大学","startTime":"2019-12-24 13:43:48","stopDate":"2019-12-24 15:43:48","orgNo":"3340140","typeCode":"电网故障停限电","poweroffArea":"110kV仓前变:文理H786线","poweroffReason":"高压开关跳闸","powerTime":"2019-12-24 15:00:00","powerComm":"已送电","subsNo":"","lineNo":"","tgNo":"","tgName":null,"infoStatus":"1","orgName":"国网浙江杭州市余杭区供电有限公司","typeName":null,"infoStatusName":null,"dateDay":null,"orgNos":null,"nowTime":null,"countyName":null,"streetName":null,"villageName":null,"roadName":null,"communityName":null,"tranName":null,"sdLineName":null,"cityCode":"3340140","cityName":"国网浙江杭州市余杭区供电有限公司","provinceCode":null,"stopTime":"2019-12-24 15:43:48","powerType":"全部","powerOffArea":"110kV仓前变:文理H786线","powerOffReason":"高压开关跳闸","powerOffId":"2019122431020191"},{"poweroffId":2019122431020189,"sgpoweroffId":null,"subsName":"","lineName":"10kV仓兴H789线","pubTranName":"杭州宝力康华置业有限公司9#专变（6120853462）,杭州宝力康华置业有限公司14#专变（6120853462）,仓前镇东2#公变,杭州宝力康华置业有限公司11#专变（6120853462）,钱神花苑1#公变,西站10安置基建,钱神花苑2#公变,仓前新马路2号公变,济华贸易（6120849160）II段2号专变,梦想小镇农居一期基建1#,杭州宝力康华置业有限公司13#专变（6120853462）,4#变压器,昌源清苑8号公变,杭州宝力康华置业有限公司8#专变（6120853462）,3#变压器,梦想小镇农居一期基建3#,2#,梦想小镇农居一期基建2#,钱神花苑3#公变,乾仓居,2#变压器,仓前人才公寓,仓前镇东1#公变,仓前新马路公变,杭州宝力康华置业有限公司12#专变（6120853462）,仓前中心幼儿园2,1#变压器,昌源清苑9号公变,西站13安置基建,5#变压器,仓前集镇陆家塘北,梦想小镇农居二期基建,2#变压器,昌源清苑10号公变,仓前学校路,1#变压器,杭州宝力康华置业有限公司10#专变（6120853462）,智中电子,昌源清苑7号公变,2#变压器,","scope":"浙江省-杭州市-余杭区-仓前街道-灵源行政村(仓前集镇太炎花苑,灵源自然村,城西桥自然村),仓前街道(太炎社区-仓兴街,葛巷行政村-葛巷自然村,灵源社区-仓兴街,永乐行政村-永乐自然村);仓前街道-灵源行政村(杭州市余杭区仓前街道中心学校,杭州市西站枢纽开发有限公司,杭州昌源物业服务有限公司,杭州余杭仓前古街综合保护开发有限公司,杭州市余杭区仓前街道社区卫生服务中心,浙江荣达建设有限公司,杭州市余杭区人民政府仓前街道办事处,中国中元国际工程有限公司),仓前街道-太炎社区(杭州智中电子有限公司,杭州市余杭区仓前中学,杭州济华贸易有限公司),仓前街道(杭州宝力康华置业有限公司,杭州通达集团有限公司,杭州市余杭区人民政府仓前街道办事处)","startTime":"2019-12-24 13:43:10","stopDate":"2019-12-24 15:43:10","orgNo":"3340140","typeCode":"电网故障停限电","poweroffArea":"110kV仓前变:仓兴H789线","poweroffReason":"高压开关跳闸","powerTime":"2019-12-24 15:00:00","powerComm":"已送电","subsNo":"","lineNo":"","tgNo":"","tgName":null,"infoStatus":"1","orgName":"国网浙江杭州市余杭区供电有限公司","typeName":null,"infoStatusName":null,"dateDay":null,"orgNos":null,"nowTime":null,"countyName":null,"streetName":null,"villageName":null,"roadName":null,"communityName":null,"tranName":null,"sdLineName":null,"cityCode":"3340140","cityName":"国网浙江杭州市余杭区供电有限公司","provinceCode":null,"stopTime":"2019-12-24 15:43:10","powerType":"全部","powerOffArea":"110kV仓前变:仓兴H789线","powerOffReason":"高压开关跳闸","powerOffId":"2019122431020189"},{"poweroffId":2019122431020188,"sgpoweroffId":null,"subsName":"","lineName":"10kV世导H780线","pubTranName":"2#,世导服饰2#,1＃,天扬机械,2＃,3#变压器,佳和纸业,2#变压器,8#变,新坐标汽车2#,2#,仓工路灯,6#变,4#变压器,1#变压器,2#变压器,百居易地板2#,世导服饰1#,港龙制衣,百居易（6111051035）2#专变,1#,永达兰,1#,强诚燃料变,","scope":"浙江省-杭州市-余杭区-仓前街道-太炎社区(杭州永达蓝制衣有限公司,浙江绿晶生物科技股份有限公司,杭州余杭仓前工业发展有限公司,普昂(杭州)医疗科技有限公司,杭州天扬机械有限公司,杭州百居易地板制造有限公司,浙江绿慷尔养老产业发展股份有限公司,浙江世导服饰有限公司,深圳市科技园物业集团有限公司杭州分公司,杭州取一企业管理有限公司),仓前街道(朱庙行政村-浙江海创企业管理有限公司,葛巷行政村-杭州强诚燃料有限公司,灵源行政村-墨非天时布业(杭州)有限公司,仓前工业园区-杭州新坐标科技股份有限公司)","startTime":"2019-12-24 13:43:11","stopDate":"2019-12-24 14:43:00","orgNo":"3340140","typeCode":"电网故障停限电","poweroffArea":"110kV仓前变:世导H780线","poweroffReason":"高压开关跳闸 原停电结束时间为2019-12-24 15:43:11,为减少客户停电时间,加快工作进度,提前送电,现变更停电结束时间为2019-12-24 14:43:00","powerTime":"2019-12-24 14:00:30","powerComm":"已送电","subsNo":"","lineNo":"","tgNo":"","tgName":null,"infoStatus":"1","orgName":"国网浙江杭州市余杭区供电有限公司","typeName":null,"infoStatusName":null,"dateDay":null,"orgNos":null,"nowTime":null,"countyName":null,"streetName":null,"villageName":null,"roadName":null,"communityName":null,"tranName":null,"sdLineName":null,"cityCode":"3340140","cityName":"国网浙江杭州市余杭区供电有限公司","provinceCode":null,"stopTime":"2019-12-24 14:43:00","powerType":"全部","powerOffArea":"110kV仓前变:世导H780线","powerOffReason":"高压开关跳闸 原停电结束时间为2019-12-24 15:43:11,为减少客户停电时间,加快工作进度,提前送电,现变更停电结束时间为2019-12-24 14:43:00","powerOffId":"2019122431020188"},{"poweroffId":2019122431020187,"sgpoweroffId":null,"subsName":"","lineName":"10kV世导H780线","pubTranName":"强诚燃料变,百居易地板2#,1#变压器,6#变,仓工路灯,3#变压器,天扬机械,4#变压器,2#,2＃,新坐标汽车2#,8#变,世导服饰1#,2#变压器,永达兰,世导服饰2#,1#,港龙制衣,佳和纸业,1#,2#,1＃,2#变压器,百居易（6111051035）2#专变,","scope":"浙江省-杭州市-余杭区-仓前街道-太炎社区(杭州永达蓝制衣有限公司,浙江绿晶生物科技股份有限公司,杭州余杭仓前工业发展有限公司,普昂(杭州)医疗科技有限公司,杭州天扬机械有限公司,杭州百居易地板制造有限公司,浙江绿慷尔养老产业发展股份有限公司,浙江世导服饰有限公司,深圳市科技园物业集团有限公司杭州分公司,杭州取一企业管理有限公司),仓前街道(朱庙行政村-浙江海创企业管理有限公司,葛巷行政村-杭州强诚燃料有限公司,灵源行政村-墨非天时布业(杭州)有限公司,仓前工业园区-杭州新坐标科技股份有限公司)","startTime":"2019-12-24 13:42:57","stopDate":"2019-12-24 15:42:57","orgNo":"3340140","typeCode":"电网故障停限电","poweroffArea":"110kV仓前变:世导H780线","poweroffReason":"高压开关跳闸","powerTime":"2019-12-24 15:00:00","powerComm":"已送电","subsNo":"","lineNo":"","tgNo":"","tgName":null,"infoStatus":"1","orgName":"国网浙江杭州市余杭区供电有限公司","typeName":null,"infoStatusName":null,"dateDay":null,"orgNos":null,"nowTime":null,"countyName":null,"streetName":null,"villageName":null,"roadName":null,"communityName":null,"tranName":null,"sdLineName":null,"cityCode":"3340140","cityName":"国网浙江杭州市余杭区供电有限公司","provinceCode":null,"stopTime":"2019-12-24 15:42:57","powerType":"全部","powerOffArea":"110kV仓前变:世导H780线","powerOffReason":"高压开关跳闸","powerOffId":"2019122431020187"}],"pageModel":{"pageNow":658,"totalCount":17789,"totalPage":1779,"tableRows":0,"pageCount":10,"beginCount":6570},"isExperi":"1"}