{"message":"","today":"2020-06-15","seleList":[{"poweroffId":2019122331020351,"sgpoweroffId":null,"subsName":"","lineName":"10kV龙门D787线","pubTranName":"环联村8号新畈桥头公变,龙门一村4号六村畈蒋坞公变,环联村3#环四球场公变,龙门一村2号龙五龙兴桥公变,龙门七村3号龙一村东公变,真佳溪村15#杭千边边三公变,杭州富阳万悦宾馆有限公司,杭州爱宇实业有限公司,富阳江南丝绸印染厂1#变,富阳市吉祥电子器材有限公司,杭州敏晨锅炉压力容器设备有限公司1#,龙门一村7号四边山公变,杭州富阳三星文体厂1#变,龙门一村6号龙四环桥头公变,龙门七村2号龙一后溪公变,富阳市龙门冶炼有限公司,富阳鹿山机械厂,环联村1号环四桥南公变,龙门七村1号龙一前溪公变,龙门七村7号大村菜场公变,富阳市龙门镇纸制品厂,环联村11号新畈方井公变,环联村2号环四朱马车公变,真佳溪村2#汤青山公变,富阳新隆石材有限公司,真佳溪村12号杭千边公变,徐向阳.,富阳龙门龙二纸制品有限公司1#变,龙门一村8号六村畈孙家塘公变,富阳市燕鑫物资经营部(2),杭州富阳亨力家具有限公司,龙门一村5号龙四中沃畈公变,龙门一村9号黄金坞公变,龙门七村8号龙一官地公变,真佳溪村14#杭千边边二公变,富阳市龙门加油站有限公司,","scope":"浙江省-杭州市-富阳区-龙门镇-龙门七村行政村(菜场自然村,后溪自然村,村东自然村,前溪自然村,龙门村自然村),龙门镇-龙门一村行政村(沈坞自然村,六村畈自然村,龙兴桥自然村,四边山自然村),场口镇-真佳溪行政村(红溪自然村,后溪自然村,真佳溪自然村),环山乡-环联行政村(环四桥南自然村,朱马车自然村,新畈自然村,环四球场自然村),上官乡-四堡行政村-四堡自然村,环山乡-环山工业园区行政村-环一园区自然村;龙门镇-龙门一村行政村(徐向阳,杭州富阳江南丝绸印染厂,杭州富阳新隆石材有限公司,杭州富阳得鑫冶炼有限公司,杭州富阳鹿山机械厂,杭州敏晨锅炉压力容器设备有限公司),场口镇-真佳溪行政村(杭州富阳万悦宾馆有限公司,富阳市吉祥电子器材有限公司),上官乡-四堡行政村(杭州富阳亨力家具有限公司,杭州富阳三星文体厂),环山乡-环联行政村(富阳市燕鑫物资经营部,杭州爱宇实业有限公司),龙门镇(龙门五村行政村-富阳市龙门镇纸制品厂,龙门七村行政村-杭州富阳龙门加油站有限公司,龙门三村行政村-杭州富阳龙门龙二纸制品有限公司)","startTime":"2019-12-23 22:00:00","stopDate":"2019-12-23 22:30:56","orgNo":"3340170","typeCode":"电网故障停限电","poweroffArea":"110kV王洲变:龙门D787线-龙门D7871开关后段","poweroffReason":"高压开关跳闸","powerTime":"2019-12-23 22:15:19","powerComm":"已送电","subsNo":"","lineNo":"","tgNo":"","tgName":null,"infoStatus":"1","orgName":"国网浙江杭州市富阳区供电公司","typeName":null,"infoStatusName":null,"dateDay":null,"orgNos":null,"nowTime":null,"countyName":null,"streetName":null,"villageName":null,"roadName":null,"communityName":null,"tranName":null,"sdLineName":null,"cityCode":"3340170","cityName":"国网浙江杭州市富阳区供电公司","provinceCode":null,"stopTime":"2019-12-23 22:30:56","powerType":"全部","powerOffArea":"110kV王洲变:龙门D787线-龙门D7871开关后段","powerOffReason":"高压开关跳闸","powerOffId":"2019122331020351"},{"poweroffId":2019122331020350,"sgpoweroffId":null,"subsName":"","lineName":"10kV觉陇8794线","pubTranName":"龙路,","scope":"浙江省-杭州市-西湖区-西湖街道-杭州市路灯管理所","startTime":"2019-12-23 21:52:33","stopDate":"2019-12-23 23:00:58","orgNo":"3340101","typeCode":"电网故障停限电","poweroffArea":"110kV花港变:觉陇8794线龙路配变","poweroffReason":"高压开关跳闸 原停电结束时间为2019-12-23 23:52:58,为减少客户停电时间,加快工作进度,提前送电,现变更停电结束时间为2019-12-23 23:00:58","powerTime":"2019-12-23 22:25:12","powerComm":"已送电","subsNo":"","lineNo":"","tgNo":"","tgName":null,"infoStatus":"1","orgName":"浙江杭州电力客户服务中心","typeName":null,"infoStatusName":null,"dateDay":null,"orgNos":null,"nowTime":null,"countyName":null,"streetName":null,"villageName":null,"roadName":null,"communityName":null,"tranName":null,"sdLineName":null,"cityCode":"3340101","cityName":"浙江杭州电力客户服务中心","provinceCode":null,"stopTime":"2019-12-23 23:00:58","powerType":"全部","powerOffArea":"110kV花港变:觉陇8794线龙路配变","powerOffReason":"高压开关跳闸 原停电结束时间为2019-12-23 23:52:58,为减少客户停电时间,加快工作进度,提前送电,现变更停电结束时间为2019-12-23 23:00:58","powerOffId":"2019122331020350"},{"poweroffId":2019122331020339,"sgpoweroffId":null,"subsName":"","lineName":"10kV安溪H404线","pubTranName":"安溪村羊后山公变,康铭华庭2#公变,安溪村羊后山公变,康铭华庭1#公变,安溪茶场,电信,南山林场,安溪村康门2号公变,安溪村康门1号公变,","scope":"浙江省-杭州市-余杭区-良渚街道-安溪行政村(安溪自然村,上溪自然村),良渚街道(新桥社区-古运河路,良渚文化村社区-东西大道,康铭华庭社区-安溪自然村);浙江省-杭州市-余杭区-良渚街道-良渚行政村-余杭市南山林场,良渚街道-安溪行政村(安溪乡茶场,中国电信股份有限公司杭州余杭区分公司)","startTime":"2019-12-23 20:28:20","stopDate":"2019-12-23 22:28:20","orgNo":"3340140","typeCode":"电网故障停限电","poweroffArea":"35kV良渚变:安溪H404线-安溪H404线康门分线开关后段","poweroffReason":"高压开关跳闸","powerTime":"2019-12-23 22:13:00","powerComm":"已送电","subsNo":"","lineNo":"","tgNo":"","tgName":null,"infoStatus":"1","orgName":"国网浙江杭州市余杭区供电有限公司","typeName":null,"infoStatusName":null,"dateDay":null,"orgNos":null,"nowTime":null,"countyName":null,"streetName":null,"villageName":null,"roadName":null,"communityName":null,"tranName":null,"sdLineName":null,"cityCode":"3340140","cityName":"国网浙江杭州市余杭区供电有限公司","provinceCode":null,"stopTime":"2019-12-23 22:28:20","powerType":"全部","powerOffArea":"35kV良渚变:安溪H404线-安溪H404线康门分线开关后段","powerOffReason":"高压开关跳闸","powerOffId":"2019122331020339"},{"poweroffId":2019122331020338,"sgpoweroffId":null,"subsName":"","lineName":"10kV专亚9186线","pubTranName":"东部湾2#,城建（11）,中建施,伟业施,堤加,东部湾3#,东部湾1#,城建（10）,","scope":"浙江省-杭州市-杭州市经济技术开发区-白杨街道-中天建设集团有限公司,白杨街道(中国石化销售股份有限公司浙江杭州石油分公司,杭州东部湾总部基地建设有限公司),下沙街道(杭州经济技术开发区城市建设发展中心,)","startTime":"2019-12-23 20:26:00","stopDate":"2019-12-23 23:26:00","orgNo":"3340101","typeCode":"电网故障停限电","poweroffArea":"110kV新港变:专亚9186线堤塘分线开关后段","poweroffReason":"高压开关跳闸 原停电结束时间为2019-12-23 22:26:00,因由于施工现场环境比较复杂，存在不确定因素，因此预估施工时间不足,现变更停电结束时间为2019-12-23 23:26:00","powerTime":"2019-12-23 22:55:28","powerComm":"已送电","subsNo":"","lineNo":"","tgNo":"","tgName":null,"infoStatus":"1","orgName":"浙江杭州电力客户服务中心","typeName":null,"infoStatusName":null,"dateDay":null,"orgNos":null,"nowTime":null,"countyName":null,"streetName":null,"villageName":null,"roadName":null,"communityName":null,"tranName":null,"sdLineName":null,"cityCode":"3340101","cityName":"浙江杭州电力客户服务中心","provinceCode":null,"stopTime":"2019-12-23 23:26:00","powerType":"全部","powerOffArea":"110kV新港变:专亚9186线堤塘分线开关后段","powerOffReason":"高压开关跳闸 原停电结束时间为2019-12-23 22:26:00,因由于施工现场环境比较复杂，存在不确定因素，因此预估施工时间不足,现变更停电结束时间为2019-12-23 23:26:00","powerOffId":"2019122331020338"},{"poweroffId":2019122331020336,"sgpoweroffId":null,"subsName":"","lineName":"10kV陡门H775线","pubTranName":"下陡门村朱扬畈西公变,","scope":"浙江省-杭州市-余杭区-余杭街道-下陡门行政村(下陡门自然村,港罕自然村)","startTime":"2019-12-23 20:16:00","stopDate":"2019-12-23 21:49:00","orgNo":"3340140","typeCode":"电网故障停限电","poweroffArea":"35kV长岗临时变:陡门H775线下陡门村朱扬畈西公变配变","poweroffReason":"高压开关跳闸","powerTime":"2019-12-23 21:01:15","powerComm":"已送电","subsNo":"","lineNo":"","tgNo":"","tgName":null,"infoStatus":"1","orgName":"国网浙江杭州市余杭区供电有限公司","typeName":null,"infoStatusName":null,"dateDay":null,"orgNos":null,"nowTime":null,"countyName":null,"streetName":null,"villageName":null,"roadName":null,"communityName":null,"tranName":null,"sdLineName":null,"cityCode":"3340140","cityName":"国网浙江杭州市余杭区供电有限公司","provinceCode":null,"stopTime":"2019-12-23 21:49:00","powerType":"全部","powerOffArea":"35kV长岗临时变:陡门H775线下陡门村朱扬畈西公变配变","powerOffReason":"高压开关跳闸","powerOffId":"2019122331020336"},{"poweroffId":2019122331020334,"sgpoweroffId":null,"subsName":"","lineName":"10kV精诚T208线","pubTranName":"祥和路新区3号公变,","scope":"浙江省-杭州市-桐庐县-横村镇-城东行政村(祥和路,徐家埠自然村,双湖自然村)，横村镇祥和路408号，横村镇详河路382号后面一带","startTime":"2019-12-23 20:07:39","stopDate":"2019-12-23 23:07:39","orgNo":"3340150","typeCode":"电网故障停限电","poweroffArea":"110kV方埠变:精诚T208线-祥和路新区3号公变后段","poweroffReason":"高压开关跳闸","powerTime":"2019-12-23 22:57:08","powerComm":"已送电","subsNo":"","lineNo":"","tgNo":"","tgName":null,"infoStatus":"1","orgName":"国网浙江桐庐县供电公司","typeName":null,"infoStatusName":null,"dateDay":null,"orgNos":null,"nowTime":null,"countyName":null,"streetName":null,"villageName":null,"roadName":null,"communityName":null,"tranName":null,"sdLineName":null,"cityCode":"3340150","cityName":"国网浙江桐庐县供电公司","provinceCode":null,"stopTime":"2019-12-23 23:07:39","powerType":"全部","powerOffArea":"110kV方埠变:精诚T208线-祥和路新区3号公变后段","powerOffReason":"高压开关跳闸","powerOffId":"2019122331020334"},{"poweroffId":2019122331020331,"sgpoweroffId":null,"subsName":"","lineName":"10kV红友A696线","pubTranName":"瓜沥镇机场安置区4#变,","scope":"浙江省-杭州市-萧山区-瓜沥镇-城中社区(塘北中路,塘北中路北巷,塘北中路南巷,3组,永福路,友谊路)、城中社区2组、17组、2组22号、3组、瓜沥镇城中社区东片一带","startTime":"2019-12-23 19:45:15","stopDate":"2019-12-23 23:58:15","orgNo":"3340130","typeCode":"电网故障停限电","poweroffArea":"110kV白川变:红友A696线-瓜沥镇机场安置区4#变台区低压开关","poweroffReason":"(低压停电信息)低压漏电保护器短路故障 原停电结束时间为2019-12-23 22:30:15,因抢修工作难度大原因,现变更停电结束时间为2019-12-23 23:58:15","powerTime":"2019-12-23 23:30:05","powerComm":"已送电","subsNo":"","lineNo":"","tgNo":"","tgName":null,"infoStatus":"1","orgName":"国网浙江杭州市萧山区供电有限公司","typeName":null,"infoStatusName":null,"dateDay":null,"orgNos":null,"nowTime":null,"countyName":null,"streetName":null,"villageName":null,"roadName":null,"communityName":null,"tranName":null,"sdLineName":null,"cityCode":"3340130","cityName":"国网浙江杭州市萧山区供电有限公司","provinceCode":null,"stopTime":"2019-12-23 23:58:15","powerType":"全部","powerOffArea":"110kV白川变:红友A696线-瓜沥镇机场安置区4#变台区低压开关","powerOffReason":"(低压停电信息)低压漏电保护器短路故障 原停电结束时间为2019-12-23 22:30:15,因抢修工作难度大原因,现变更停电结束时间为2019-12-23 23:58:15","powerOffId":"2019122331020331"},{"poweroffId":2019122331020330,"sgpoweroffId":null,"subsName":"","lineName":"10kV良加H362线","pubTranName":"东莲村木桥头2号公变,","scope":"浙江省-杭州市-余杭区(良渚街道-东莲行政村-屠家坝自然村,仁和街道-獐山社区-东西大道)","startTime":"2019-12-23 19:20:05","stopDate":"2019-12-23 21:20:05","orgNo":"3340140","typeCode":"电网故障停限电","poweroffArea":"110kV学里变:良加H362线-东莲村木桥头2号公变后段","poweroffReason":"高压开关跳闸","powerTime":"2019-12-23 20:50:54","powerComm":"已送电","subsNo":"","lineNo":"","tgNo":"","tgName":null,"infoStatus":"1","orgName":"国网浙江杭州市余杭区供电有限公司","typeName":null,"infoStatusName":null,"dateDay":null,"orgNos":null,"nowTime":null,"countyName":null,"streetName":null,"villageName":null,"roadName":null,"communityName":null,"tranName":null,"sdLineName":null,"cityCode":"3340140","cityName":"国网浙江杭州市余杭区供电有限公司","provinceCode":null,"stopTime":"2019-12-23 21:20:05","powerType":"全部","powerOffArea":"110kV学里变:良加H362线-东莲村木桥头2号公变后段","powerOffReason":"高压开关跳闸","powerOffId":"2019122331020330"},{"poweroffId":2019122331020325,"sgpoweroffId":null,"subsName":"","lineName":"10kV南斗H370线","pubTranName":"大陆村南斗门2号公变,大陆村南斗门公变,","scope":"浙江省-杭州市-余杭区-良渚街道-大陆行政村-冯家桥自然村","startTime":"2019-12-23 18:36:35","stopDate":"2019-12-23 20:36:35","orgNo":"3340140","typeCode":"电网故障停限电","poweroffArea":"110kV学里变:南斗H370线-南斗H3703开关后段","poweroffReason":"高压开关跳闸","powerTime":"2019-12-23 20:17:45","powerComm":"已送电","subsNo":"","lineNo":"","tgNo":"","tgName":null,"infoStatus":"1","orgName":"国网浙江杭州市余杭区供电有限公司","typeName":null,"infoStatusName":null,"dateDay":null,"orgNos":null,"nowTime":null,"countyName":null,"streetName":null,"villageName":null,"roadName":null,"communityName":null,"tranName":null,"sdLineName":null,"cityCode":"3340140","cityName":"国网浙江杭州市余杭区供电有限公司","provinceCode":null,"stopTime":"2019-12-23 20:36:35","powerType":"全部","powerOffArea":"110kV学里变:南斗H370线-南斗H3703开关后段","powerOffReason":"高压开关跳闸","powerOffId":"2019122331020325"},{"poweroffId":2019122331020324,"sgpoweroffId":null,"subsName":"","lineName":"10kV凤凰Y323线","pubTranName":"梓洲村上梓洲新村台区,","scope":"浙江省-杭州市-建德市-乾潭镇-姚村行政村-方家山自然村,乾潭镇-梓洲行政村(上梓洲新村自然村,上梓洲自然村)一带用户。","startTime":"2019-12-23 18:22:00","stopDate":"2019-12-23 20:30:00","orgNo":"3340180","typeCode":"电网故障停限电","poweroffArea":"35kV三都变:凤凰Y323线-梓洲村上梓洲新村台区后段","poweroffReason":"(低压停电信息)低压开关跳闸","powerTime":"2019-12-23 20:07:00","powerComm":"已送电","subsNo":"","lineNo":"","tgNo":"","tgName":null,"infoStatus":"1","orgName":"国网浙江建德市供电有限公司","typeName":null,"infoStatusName":null,"dateDay":null,"orgNos":null,"nowTime":null,"countyName":null,"streetName":null,"villageName":null,"roadName":null,"communityName":null,"tranName":null,"sdLineName":null,"cityCode":"3340180","cityName":"国网浙江建德市供电有限公司","provinceCode":null,"stopTime":"2019-12-23 20:30:00","powerType":"全部","powerOffArea":"35kV三都变:凤凰Y323线-梓洲村上梓洲新村台区后段","powerOffReason":"(低压停电信息)低压开关跳闸","powerOffId":"2019122331020324"}],"pageModel":{"pageNow":661,"totalCount":17789,"totalPage":1779,"tableRows":0,"pageCount":10,"beginCount":6600},"isExperi":"1"}