{"message":"","today":"2020-06-15","seleList":[{"poweroffId":2019122331020246,"sgpoweroffId":null,"subsName":"","lineName":"10kV古经8513线","pubTranName":"荡股经7#,荡股经4#,杭州南都研发大楼有限公司4#,荡股经8#,园区(6),杭州南都研发大楼有限公司3#,综能施1#变,1,荡股经1#,综能施2#变,2,荡股经6#,荡股经3#,综能施4#变,荡股经2#,综能施3#变,荡股经5#,","scope":"浙江省-杭州市-西湖区-古荡街道-古墩社区(杭州钱江制冷集团有限公司,杭州裕兴置业有限公司,杭州南都研发大楼有限公司),古荡街道-莲花社区(杭州中宙物业管理有限公司,浙江浙能综合能源技术研发有限公司)","startTime":"2019-12-23 14:17:56","stopDate":"2019-12-23 15:10:56","orgNo":"3340101","typeCode":"电网故障停限电","poweroffArea":"110kV文三变:古经8513线","poweroffReason":"高压开关跳闸 原停电结束时间为2019-12-23 20:17:56,为减少客户停电时间,加快工作进度,提前送电,现变更停电结束时间为2019-12-23 15:10:56","powerTime":"2019-12-23 14:37:36","powerComm":"已送电","subsNo":"","lineNo":"","tgNo":"","tgName":null,"infoStatus":"1","orgName":"浙江杭州电力客户服务中心","typeName":null,"infoStatusName":null,"dateDay":null,"orgNos":null,"nowTime":null,"countyName":null,"streetName":null,"villageName":null,"roadName":null,"communityName":null,"tranName":null,"sdLineName":null,"cityCode":"3340101","cityName":"浙江杭州电力客户服务中心","provinceCode":null,"stopTime":"2019-12-23 15:10:56","powerType":"全部","powerOffArea":"110kV文三变:古经8513线","powerOffReason":"高压开关跳闸 原停电结束时间为2019-12-23 20:17:56,为减少客户停电时间,加快工作进度,提前送电,现变更停电结束时间为2019-12-23 15:10:56","powerOffId":"2019122331020246"},{"poweroffId":2019122331020238,"sgpoweroffId":null,"subsName":"","lineName":"10kV留思H880线","pubTranName":"泰峰村李家公变,","scope":"浙江省杭州市余杭区中泰街道：泰峰村留思村、泰峰村思古山、泰峰村姚家、泰峰村李家、泰峰村徐家庄、泰峰村紫荆山一带","startTime":"2020-01-05 08:40:00","stopDate":"2020-01-05 18:30:00","orgNo":"3340140","typeCode":"计划停电","poweroffArea":"110kV中泰变:留思H880线-李家分线跌落式熔断器后段","poweroffReason":"计划工作","powerTime":"2020-01-05 17:42:12","powerComm":"已送电","subsNo":"","lineNo":"","tgNo":"","tgName":null,"infoStatus":"1","orgName":"国网浙江杭州市余杭区供电有限公司","typeName":null,"infoStatusName":null,"dateDay":null,"orgNos":null,"nowTime":null,"countyName":null,"streetName":null,"villageName":null,"roadName":null,"communityName":null,"tranName":null,"sdLineName":null,"cityCode":"3340140","cityName":"国网浙江杭州市余杭区供电有限公司","provinceCode":null,"stopTime":"2020-01-05 18:30:00","powerType":"全部","powerOffArea":"110kV中泰变:留思H880线-李家分线跌落式熔断器后段","powerOffReason":"计划工作","powerOffId":"2019122331020238"},{"poweroffId":2019122331020237,"sgpoweroffId":null,"subsName":"","lineName":"10kV潘镇H543线","pubTranName":"杭州聚幸帽业有限公司6110116220,潘板集镇愈家埝小区公变,小古城村朱山公变,小古城村水磨里公变,","scope":"浙江省杭州市余杭区径山镇：杭州聚幸帽业有限公司、小古城村水磨里、小古城村朱山一带","startTime":"2020-01-05 09:10:00","stopDate":"2020-01-05 14:40:00","orgNo":"3340140","typeCode":"计划停电","poweroffArea":"110kV潘板变:城丰开关站潘镇H543线朱山H5434分线","poweroffReason":"计划工作 原停电结束时间为2020-01-05 14:10:00,因计划变更原因,现变更停电结束时间为2020-01-05 14:40:00","powerTime":"2020-01-05 14:22:16","powerComm":"已送电","subsNo":"","lineNo":"","tgNo":"","tgName":null,"infoStatus":"1","orgName":"国网浙江杭州市余杭区供电有限公司","typeName":null,"infoStatusName":null,"dateDay":null,"orgNos":null,"nowTime":null,"countyName":null,"streetName":null,"villageName":null,"roadName":null,"communityName":null,"tranName":null,"sdLineName":null,"cityCode":"3340140","cityName":"国网浙江杭州市余杭区供电有限公司","provinceCode":null,"stopTime":"2020-01-05 14:40:00","powerType":"全部","powerOffArea":"110kV潘板变:城丰开关站潘镇H543线朱山H5434分线","powerOffReason":"计划工作 原停电结束时间为2020-01-05 14:10:00,因计划变更原因,现变更停电结束时间为2020-01-05 14:40:00","powerOffId":"2019122331020237"},{"poweroffId":2019122331020236,"sgpoweroffId":null,"subsName":"","lineName":"10kV陶春H558线","pubTranName":"前溪村百步公变,","scope":"浙江省杭州市余杭区径山镇：前溪村百步一带","startTime":"2020-01-04 08:40:00","stopDate":"2020-01-04 12:00:00","orgNo":"3340140","typeCode":"计划停电","poweroffArea":"110kV潘板变:陶春H558线百步分线 原停电结束时间为2020-01-04 13:40:00,为减少客户停电时间,加快工作进度,提前送电,现变更停电结束时间为2020-01-04 12:00:00","poweroffReason":"计划工作 原停电结束时间为2020-01-04 13:40:00,为减少客户停电时间,加快工作进度,提前送电,现变更停电结束时间为2020-01-04 12:00:00","powerTime":"2020-01-04 11:33:47","powerComm":"已送电","subsNo":"","lineNo":"","tgNo":"","tgName":null,"infoStatus":"1","orgName":"国网浙江杭州市余杭区供电有限公司","typeName":null,"infoStatusName":null,"dateDay":null,"orgNos":null,"nowTime":null,"countyName":null,"streetName":null,"villageName":null,"roadName":null,"communityName":null,"tranName":null,"sdLineName":null,"cityCode":"3340140","cityName":"国网浙江杭州市余杭区供电有限公司","provinceCode":null,"stopTime":"2020-01-04 12:00:00","powerType":"全部","powerOffArea":"110kV潘板变:陶春H558线百步分线 原停电结束时间为2020-01-04 13:40:00,为减少客户停电时间,加快工作进度,提前送电,现变更停电结束时间为2020-01-04 12:00:00","powerOffReason":"计划工作 原停电结束时间为2020-01-04 13:40:00,为减少客户停电时间,加快工作进度,提前送电,现变更停电结束时间为2020-01-04 12:00:00","powerOffId":"2019122331020236"},{"poweroffId":2019122331020234,"sgpoweroffId":null,"subsName":"","lineName":"10kV杨池H268线","pubTranName":"湖滨管理处,杭长高速基建,","scope":"浙江省杭州市余杭区瓶窑镇：浙江杭长高速公路有限公司、杭州西湖风景名胜区(杭州市园林文物局)湖滨管理处一带","startTime":"2020-01-04 09:10:00","stopDate":"2020-01-04 15:00:00","orgNo":"3340140","typeCode":"计划停电","poweroffArea":"110kV彭公变:杨池H268线杭长高速分线 原停电结束时间为2020-01-04 13:10:00,因天气原因,现变更停电结束时间为2020-01-04 15:00:00","poweroffReason":"计划工作 原停电结束时间为2020-01-04 13:10:00,因天气原因,现变更停电结束时间为2020-01-04 15:00:00","powerTime":"2020-01-04 14:26:35","powerComm":"已送电","subsNo":"","lineNo":"","tgNo":"","tgName":null,"infoStatus":"1","orgName":"国网浙江杭州市余杭区供电有限公司","typeName":null,"infoStatusName":null,"dateDay":null,"orgNos":null,"nowTime":null,"countyName":null,"streetName":null,"villageName":null,"roadName":null,"communityName":null,"tranName":null,"sdLineName":null,"cityCode":"3340140","cityName":"国网浙江杭州市余杭区供电有限公司","provinceCode":null,"stopTime":"2020-01-04 15:00:00","powerType":"全部","powerOffArea":"110kV彭公变:杨池H268线杭长高速分线 原停电结束时间为2020-01-04 13:10:00,因天气原因,现变更停电结束时间为2020-01-04 15:00:00","powerOffReason":"计划工作 原停电结束时间为2020-01-04 13:10:00,因天气原因,现变更停电结束时间为2020-01-04 15:00:00","powerOffId":"2019122331020234"},{"poweroffId":2019122331020233,"sgpoweroffId":null,"subsName":"","lineName":"10kV杨池H268线","pubTranName":"浩元泵业2#,浩元泵业1#,三星化妆品厂,","scope":"浙江省杭州市余杭区瓶窑镇：杭州鹤见南方泵业有限公司、杭州三星化妆品包装有限公司一带","startTime":"2020-01-04 09:10:00","stopDate":"2020-01-04 15:00:00","orgNo":"3340140","typeCode":"计划停电","poweroffArea":"110kV彭公变:杨池H268线三星化妆品厂分线 原停电结束时间为2020-01-04 12:10:00,因天气原因,现变更停电结束时间为2020-01-04 15:00:00","poweroffReason":"计划工作 原停电结束时间为2020-01-04 12:10:00,因天气原因,现变更停电结束时间为2020-01-04 15:00:00","powerTime":"2020-01-04 14:26:14","powerComm":"已送电","subsNo":"","lineNo":"","tgNo":"","tgName":null,"infoStatus":"1","orgName":"国网浙江杭州市余杭区供电有限公司","typeName":null,"infoStatusName":null,"dateDay":null,"orgNos":null,"nowTime":null,"countyName":null,"streetName":null,"villageName":null,"roadName":null,"communityName":null,"tranName":null,"sdLineName":null,"cityCode":"3340140","cityName":"国网浙江杭州市余杭区供电有限公司","provinceCode":null,"stopTime":"2020-01-04 15:00:00","powerType":"全部","powerOffArea":"110kV彭公变:杨池H268线三星化妆品厂分线 原停电结束时间为2020-01-04 12:10:00,因天气原因,现变更停电结束时间为2020-01-04 15:00:00","powerOffReason":"计划工作 原停电结束时间为2020-01-04 12:10:00,因天气原因,现变更停电结束时间为2020-01-04 15:00:00","powerOffId":"2019122331020233"},{"poweroffId":2019122331020231,"sgpoweroffId":null,"subsName":"","lineName":"10kV杨池H268线","pubTranName":"径林茶业,","scope":"浙江省杭州市余杭区瓶窑镇：杭州径林茶业有限公司一带","startTime":"2020-01-04 09:10:00","stopDate":"2020-01-04 15:00:00","orgNo":"3340140","typeCode":"计划停电","poweroffArea":"110kV彭公变:杨池H268线径林茶叶分线 原停电结束时间为2020-01-04 12:10:00,因天气原因,现变更停电结束时间为2020-01-04 15:00:00","poweroffReason":"计划工作 原停电结束时间为2020-01-04 12:10:00,因天气原因,现变更停电结束时间为2020-01-04 15:00:00","powerTime":"2020-01-04 14:26:59","powerComm":"已送电","subsNo":"","lineNo":"","tgNo":"","tgName":null,"infoStatus":"1","orgName":"国网浙江杭州市余杭区供电有限公司","typeName":null,"infoStatusName":null,"dateDay":null,"orgNos":null,"nowTime":null,"countyName":null,"streetName":null,"villageName":null,"roadName":null,"communityName":null,"tranName":null,"sdLineName":null,"cityCode":"3340140","cityName":"国网浙江杭州市余杭区供电有限公司","provinceCode":null,"stopTime":"2020-01-04 15:00:00","powerType":"全部","powerOffArea":"110kV彭公变:杨池H268线径林茶叶分线 原停电结束时间为2020-01-04 12:10:00,因天气原因,现变更停电结束时间为2020-01-04 15:00:00","powerOffReason":"计划工作 原停电结束时间为2020-01-04 12:10:00,因天气原因,现变更停电结束时间为2020-01-04 15:00:00","powerOffId":"2019122331020231"},{"poweroffId":2019122331020226,"sgpoweroffId":null,"subsName":"","lineName":"10kV沿山G113线","pubTranName":"啤酒厂营业房公变,","scope":"浙江省杭州市余杭区南苑街道：啤酒厂营业房一带","startTime":"2020-01-03 08:30:00","stopDate":"2020-01-03 17:00:00","orgNo":"3340140","typeCode":"计划停电","poweroffArea":"沿山G113线啤酒厂营业房公变分线改接至科技开关站交通G106线待用G18线。","poweroffReason":"沿山G113线啤酒厂营业房公变分线改接至科技开关站交通G106线待用G18线。","powerTime":"2020-01-03 15:55:22","powerComm":"已送电","subsNo":"","lineNo":"","tgNo":"","tgName":null,"infoStatus":"1","orgName":"国网浙江杭州市余杭区供电有限公司","typeName":null,"infoStatusName":null,"dateDay":null,"orgNos":null,"nowTime":null,"countyName":null,"streetName":null,"villageName":null,"roadName":null,"communityName":null,"tranName":null,"sdLineName":null,"cityCode":"3340140","cityName":"国网浙江杭州市余杭区供电有限公司","provinceCode":null,"stopTime":"2020-01-03 17:00:00","powerType":"全部","powerOffArea":"沿山G113线啤酒厂营业房公变分线改接至科技开关站交通G106线待用G18线。","powerOffReason":"沿山G113线啤酒厂营业房公变分线改接至科技开关站交通G106线待用G18线。","powerOffId":"2019122331020226"},{"poweroffId":2019122331020223,"sgpoweroffId":null,"subsName":"","lineName":"10kV庙湾H289线","pubTranName":"连具塘村虞家塘,连具塘村谢家斗公变,","scope":"浙江省杭州市余杭区仓前街道：连具塘村虞家塘、谢家斗一带","startTime":"2020-01-03 09:30:00","stopDate":"2020-01-03 16:00:00","orgNo":"3340140","typeCode":"计划停电","poweroffArea":"庙湾H289线虞家塘分线原停电结束时间为2020-01-03 16:30:00,为减少客户停电时间,加快工作进度,提前送电,现变更停电结束时间为2020-01-03 16:00:00","poweroffReason":"业扩工程 原停电结束时间为2020-01-03 16:30:00,为减少客户停电时间,加快工作进度,提前送电,现变更停电结束时间为2020-01-03 16:00:00","powerTime":"2020-01-03 15:07:08","powerComm":"已送电","subsNo":"","lineNo":"","tgNo":"","tgName":null,"infoStatus":"1","orgName":"国网浙江杭州市余杭区供电有限公司","typeName":null,"infoStatusName":null,"dateDay":null,"orgNos":null,"nowTime":null,"countyName":null,"streetName":null,"villageName":null,"roadName":null,"communityName":null,"tranName":null,"sdLineName":null,"cityCode":"3340140","cityName":"国网浙江杭州市余杭区供电有限公司","provinceCode":null,"stopTime":"2020-01-03 16:00:00","powerType":"全部","powerOffArea":"庙湾H289线虞家塘分线原停电结束时间为2020-01-03 16:30:00,为减少客户停电时间,加快工作进度,提前送电,现变更停电结束时间为2020-01-03 16:00:00","powerOffReason":"业扩工程 原停电结束时间为2020-01-03 16:30:00,为减少客户停电时间,加快工作进度,提前送电,现变更停电结束时间为2020-01-03 16:00:00","powerOffId":"2019122331020223"},{"poweroffId":2019122331020222,"sgpoweroffId":null,"subsName":"","lineName":"10kV杨池H268线","pubTranName":"浙江鼎盛交通建设有限公司6120674238,","scope":"浙江省杭州市余杭区瓶窑镇：浙江鼎盛交通建设有限公司一带","startTime":"2020-01-03 09:40:00","stopDate":"2020-01-03 15:40:00","orgNo":"3340140","typeCode":"计划停电","poweroffArea":"110kV彭公变：杨池H268线鼎盛交通用户开关","poweroffReason":"计划工作","powerTime":"2020-01-03 15:23:16","powerComm":"已送电","subsNo":"","lineNo":"","tgNo":"","tgName":null,"infoStatus":"1","orgName":"国网浙江杭州市余杭区供电有限公司","typeName":null,"infoStatusName":null,"dateDay":null,"orgNos":null,"nowTime":null,"countyName":null,"streetName":null,"villageName":null,"roadName":null,"communityName":null,"tranName":null,"sdLineName":null,"cityCode":"3340140","cityName":"国网浙江杭州市余杭区供电有限公司","provinceCode":null,"stopTime":"2020-01-03 15:40:00","powerType":"全部","powerOffArea":"110kV彭公变：杨池H268线鼎盛交通用户开关","powerOffReason":"计划工作","powerOffId":"2019122331020222"}],"pageModel":{"pageNow":663,"totalCount":17789,"totalPage":1779,"tableRows":0,"pageCount":10,"beginCount":6620},"isExperi":"1"}