{"message":"","today":"2020-06-15","seleList":[{"poweroffId":2019122231020150,"sgpoweroffId":null,"subsName":"","lineName":"10kV陈坞V763线","pubTranName":"浙江新广发置业有限公司2#,浙江新广发置业有限公司1#,","scope":"浙江省-杭州市-临安市-锦北街道-潘山行政村-浙江新广发置业有限公司一带","startTime":"2019-12-31 08:30:00","stopDate":"2019-12-31 17:20:00","orgNo":"3340160","typeCode":"计划停电","poweroffArea":"110kV科创变:停陈坞V763线牛坊站新广发1#基建变分支线开关","poweroffReason":"线路迁改","powerTime":"2019-12-31 17:10:36","powerComm":"已送电","subsNo":"","lineNo":"","tgNo":"","tgName":null,"infoStatus":"1","orgName":"国网浙江临安市供电公司","typeName":null,"infoStatusName":null,"dateDay":null,"orgNos":null,"nowTime":null,"countyName":null,"streetName":null,"villageName":null,"roadName":null,"communityName":null,"tranName":null,"sdLineName":null,"cityCode":"3340160","cityName":"国网浙江临安市供电公司","provinceCode":null,"stopTime":"2019-12-31 17:20:00","powerType":"全部","powerOffArea":"110kV科创变:停陈坞V763线牛坊站新广发1#基建变分支线开关","powerOffReason":"线路迁改","powerOffId":"2019122231020150"},{"poweroffId":2019122231020149,"sgpoweroffId":null,"subsName":"","lineName":"10kV笑岭V750线","pubTranName":"临安西子房地产开发有限公司（基建）,","scope":"浙江省-杭州市-临安市-锦北街道-民主行政村-杭州临安西子房地产开发有限公司一带","startTime":"2019-12-30 08:30:00","stopDate":"2019-12-30 14:30:00","orgNo":"3340160","typeCode":"计划停电","poweroffArea":"110kV科创变:停笑岭V750线科南分线16#杆西子房产基建变支线令克以后","poweroffReason":"用户新上配变","powerTime":"2019-12-30 14:20:09","powerComm":"已送电","subsNo":"","lineNo":"","tgNo":"","tgName":null,"infoStatus":"1","orgName":"国网浙江临安市供电公司","typeName":null,"infoStatusName":null,"dateDay":null,"orgNos":null,"nowTime":null,"countyName":null,"streetName":null,"villageName":null,"roadName":null,"communityName":null,"tranName":null,"sdLineName":null,"cityCode":"3340160","cityName":"国网浙江临安市供电公司","provinceCode":null,"stopTime":"2019-12-30 14:30:00","powerType":"全部","powerOffArea":"110kV科创变:停笑岭V750线科南分线16#杆西子房产基建变支线令克以后","powerOffReason":"用户新上配变","powerOffId":"2019122231020149"},{"poweroffId":2019122231020148,"sgpoweroffId":null,"subsName":"","lineName":"10kV花戏V551线","pubTranName":"杭州兆远五金机械有限公司1#,","scope":"浙江省-杭州市-临安市-板桥镇-杭州兆远五金机械有限公司一带","startTime":"2019-12-30 08:30:00","stopDate":"2019-12-30 11:30:00","orgNo":"3340160","typeCode":"计划停电","poweroffArea":"110kV板桥变:停花戏V551线花戏分线2#杆杭州兆远五金机械有限公司支线令克","poweroffReason":"拆旧线工作","powerTime":"2019-12-30 11:20:03","powerComm":"已送电","subsNo":"","lineNo":"","tgNo":"","tgName":null,"infoStatus":"1","orgName":"国网浙江临安市供电公司","typeName":null,"infoStatusName":null,"dateDay":null,"orgNos":null,"nowTime":null,"countyName":null,"streetName":null,"villageName":null,"roadName":null,"communityName":null,"tranName":null,"sdLineName":null,"cityCode":"3340160","cityName":"国网浙江临安市供电公司","provinceCode":null,"stopTime":"2019-12-30 11:30:00","powerType":"全部","powerOffArea":"110kV板桥变:停花戏V551线花戏分线2#杆杭州兆远五金机械有限公司支线令克","powerOffReason":"拆旧线工作","powerOffId":"2019122231020148"},{"poweroffId":2019122231020139,"sgpoweroffId":null,"subsName":"","lineName":"10kV莲塘H301线","pubTranName":"1＃,苕溪村马家村,亿盛园林,飞羽针织,秀才桥泵站,吴山前画狮桥北公变,1#变压器,羊锅村屠宰场,贝恒制冷,苕溪秀才桥公变,吴山新街2号公变,沙河头排,苕溪股份合作社,连具塘垃圾站,轻工机械,苕溪龙腰公变,贝恒制冷,杭州汉特建材有限公司,杭州金盛印铁涂料有限公司,仓前老人公寓,中交3号,野山实业,苕溪村马家村2号公变,吴山新街3号公变,永鑫纸业,苕溪村西岸公变,吴山新街1号公变,于家坝排,吴山前卫生院基建,","scope":"浙江省-杭州市-余杭区-仓前街道-吴山前行政村(吴山前自然村,寡山前自然村,山背后自然村),仓前街道-苕溪行政村(马家自然村,苕溪自然村,网具自然村,西岸自然村,凌村营自然村,北岸自然村,秀才桥自然村),仓前街道(灵源行政村-上徐桥自然村,太炎社区-仓兴街);仓前街道(杭州余杭苕溪股份经济合作社,杭州贝恒制冷科技有限公司,杭州野山实业有限公司,杭州飞羽针织有限公司,于家坝,浙江钱潮控股集团股份有限公司,杭州永鑫纸业有限公司,杭州汉特建材有限公司,杭州苕溪屠宰有限公司,杭州余杭仓前苕溪股份经济合作社,杭州余杭仓前轻工机械制造有限公司,杭州市余杭区元墅仓前老人公寓,杭州金盛印铁涂料有限公司,中交第二航务工程局有限公司余杭分公司)","startTime":"2019-12-22 15:22:00","stopDate":"2019-12-22 18:22:00","orgNo":"3340140","typeCode":"电网故障停限电","poweroffArea":"110kV柏庙变:莲塘H301线H30113开关后段","poweroffReason":"高压开关跳闸 原停电结束时间为2019-12-22 19:22:00,为减少客户停电时间,加快工作进度,提前送电,现变更停电结束时间为2019-12-22 18:22:00","powerTime":"2019-12-22 17:59:00","powerComm":"已送电","subsNo":"","lineNo":"","tgNo":"","tgName":null,"infoStatus":"1","orgName":"国网浙江杭州市余杭区供电有限公司","typeName":null,"infoStatusName":null,"dateDay":null,"orgNos":null,"nowTime":null,"countyName":null,"streetName":null,"villageName":null,"roadName":null,"communityName":null,"tranName":null,"sdLineName":null,"cityCode":"3340140","cityName":"国网浙江杭州市余杭区供电有限公司","provinceCode":null,"stopTime":"2019-12-22 18:22:00","powerType":"全部","powerOffArea":"110kV柏庙变:莲塘H301线H30113开关后段","powerOffReason":"高压开关跳闸 原停电结束时间为2019-12-22 19:22:00,为减少客户停电时间,加快工作进度,提前送电,现变更停电结束时间为2019-12-22 18:22:00","powerOffId":"2019122231020139"},{"poweroffId":2019122231020123,"sgpoweroffId":null,"subsName":"","lineName":"10kV闲镇H682线","pubTranName":"杭州万宇润滑油有限公司,清水输水3#基建变,清水输水2#基建变,明日康建设,清水输水1#基建变,","scope":"浙江省-杭州市-余杭区-闲林街道-联荣行政村(杭州万宇润滑油有限公司,杭州市水务集团有限公司,杭州明日康建设有限公司)","startTime":"2019-12-22 14:06:00","stopDate":"2019-12-22 18:00:00","orgNo":"3340140","typeCode":"电网故障停限电","poweroffArea":"110kV闲林变:闲镇H682线-怡源建材分线12号杆开关后段","poweroffReason":"高压开关跳闸 原停电结束时间为2019-12-22 16:50:00,因现场环境复杂原因,现变更停电结束时间为2019-12-22 18:00:00","powerTime":"2019-12-22 17:51:00","powerComm":"已送电","subsNo":"","lineNo":"","tgNo":"","tgName":null,"infoStatus":"1","orgName":"国网浙江杭州市余杭区供电有限公司","typeName":null,"infoStatusName":null,"dateDay":null,"orgNos":null,"nowTime":null,"countyName":null,"streetName":null,"villageName":null,"roadName":null,"communityName":null,"tranName":null,"sdLineName":null,"cityCode":"3340140","cityName":"国网浙江杭州市余杭区供电有限公司","provinceCode":null,"stopTime":"2019-12-22 18:00:00","powerType":"全部","powerOffArea":"110kV闲林变:闲镇H682线-怡源建材分线12号杆开关后段","powerOffReason":"高压开关跳闸 原停电结束时间为2019-12-22 16:50:00,因现场环境复杂原因,现变更停电结束时间为2019-12-22 18:00:00","powerOffId":"2019122231020123"},{"poweroffId":2019122231020110,"sgpoweroffId":null,"subsName":"","lineName":"10kV龙安G049线","pubTranName":"龙安村五组东变,","scope":"浙江省-杭州市-余杭区-东湖街道-经济开发区-龙安社区,临平街道(龙安行政村-龙安自然村,龙安社区-龙安自然村)","startTime":"2019-12-22 12:37:00","stopDate":"2019-12-22 16:00:00","orgNo":"3340140","typeCode":"电网故障停限电","poweroffArea":"110kV五杭变:龙安G049线-龙安村五组东变后段","poweroffReason":"高压开关跳闸 原停电结束时间为2019-12-22 15:00:00,因现场情况复杂原因,现变更停电结束时间为2019-12-22 16:00:00","powerTime":"2019-12-22 15:50:22","powerComm":"已送电","subsNo":"","lineNo":"","tgNo":"","tgName":null,"infoStatus":"1","orgName":"国网浙江杭州市余杭区供电有限公司","typeName":null,"infoStatusName":null,"dateDay":null,"orgNos":null,"nowTime":null,"countyName":null,"streetName":null,"villageName":null,"roadName":null,"communityName":null,"tranName":null,"sdLineName":null,"cityCode":"3340140","cityName":"国网浙江杭州市余杭区供电有限公司","provinceCode":null,"stopTime":"2019-12-22 16:00:00","powerType":"全部","powerOffArea":"110kV五杭变:龙安G049线-龙安村五组东变后段","powerOffReason":"高压开关跳闸 原停电结束时间为2019-12-22 15:00:00,因现场情况复杂原因,现变更停电结束时间为2019-12-22 16:00:00","powerOffId":"2019122231020110"},{"poweroffId":2019122231020103,"sgpoweroffId":null,"subsName":"","lineName":"10kV田湾G265线","pubTranName":"双陈村钮家塘东公变,杭州竺辰建筑工程有限公司612068733401#专变,杭州煜琳建筑机械有限公司,多层公寓建设管理中心变压器,杭州三小龙热处理有限公司612085324901#专变,双陈村钮家塘2#公变,双陈村西斗南公变,杭州震远丝绸有限公司,勾仁大道4#路灯箱变,双陈村鱼家坝公变,杭州众人丝绸科技有限公司,中交第二航务工程局有限公司余杭分公司612084997601#专变,双陈村姚家坝公变,杭州万全金属软管有限公司,杭州欣意机械有限公司,双陈村陈家角东公变,双陈村陈家角南公变,双陈村西斗公变,双陈村陈家角西公变,双陈村西斗南2号公变,双陈村陈家角公变,双陈村钮家塘西公变,杭州金鸿福丝绸有限公司,双陈村西斗2号公变,杭州金鸿福丝绸有限公司611030469301#专变,双陈村姚家坝北公变,多层公寓建设管理中心变压器2,","scope":"浙江省-杭州市-余杭区-仁和街道-双陈行政村(陈家角自然村,鱼家坝自然村,姚家坝自然村,穆家坝自然村,陈家坝自然村,东斗自然村,钮家塘自然村,陈家角东斗自然村,陈家角西斗自然村,西斗自然村,计家坝自然村,陈家洋自然村),仁和街道(云会行政村-西南山自然村,花园行政村-章桥自然村);仁和街道(杭州市余杭区云禾幼儿园,中交第二航务工程局有限公司余杭分公司,杭州市余杭区人民政府仁和街道办事处,杭州万全金属软管有限公司,杭州金鸿福丝绸有限公司,杭州欣意机械有限公司,杭州煜琳精密钣金有限公司,杭州众人丝绸科技有限公司,杭州恩玮物业管理有限公司,杭州竺辰建筑工程有限公司,杭州三小龙热处理有限公司)","startTime":"2019-12-22 11:39:00","stopDate":"2019-12-22 13:39:00","orgNo":"3340140","typeCode":"电网故障停限电","poweroffArea":"110kV仁镇变:田湾G265线田湾G2653开关后段","poweroffReason":"高压开关跳闸","powerTime":"2019-12-22 13:32:00","powerComm":"已送电","subsNo":"","lineNo":"","tgNo":"","tgName":null,"infoStatus":"1","orgName":"国网浙江杭州市余杭区供电有限公司","typeName":null,"infoStatusName":null,"dateDay":null,"orgNos":null,"nowTime":null,"countyName":null,"streetName":null,"villageName":null,"roadName":null,"communityName":null,"tranName":null,"sdLineName":null,"cityCode":"3340140","cityName":"国网浙江杭州市余杭区供电有限公司","provinceCode":null,"stopTime":"2019-12-22 13:39:00","powerType":"全部","powerOffArea":"110kV仁镇变:田湾G265线田湾G2653开关后段","powerOffReason":"高压开关跳闸","powerOffId":"2019122231020103"},{"poweroffId":2019122231020094,"sgpoweroffId":null,"subsName":"","lineName":"10kV姚家T243线","pubTranName":"姚家村2号公变,","scope":"浙江省-杭州市-桐庐县-江南镇-金茂行政村-姚家自然村","startTime":"2019-12-22 11:03:14","stopDate":"2019-12-22 12:10:14","orgNo":"3340150","typeCode":"电网故障停限电","poweroffArea":"110kV石阜变:姚家T243线-姚家村2号公变后段","poweroffReason":"高压开关跳闸","powerTime":"2019-12-22 12:00:40","powerComm":"已送电","subsNo":"","lineNo":"","tgNo":"","tgName":null,"infoStatus":"1","orgName":"国网浙江桐庐县供电公司","typeName":null,"infoStatusName":null,"dateDay":null,"orgNos":null,"nowTime":null,"countyName":null,"streetName":null,"villageName":null,"roadName":null,"communityName":null,"tranName":null,"sdLineName":null,"cityCode":"3340150","cityName":"国网浙江桐庐县供电公司","provinceCode":null,"stopTime":"2019-12-22 12:10:14","powerType":"全部","powerOffArea":"110kV石阜变:姚家T243线-姚家村2号公变后段","powerOffReason":"高压开关跳闸","powerOffId":"2019122231020094"},{"poweroffId":2019122231020066,"sgpoweroffId":null,"subsName":"","lineName":"10kV萧中A604线","pubTranName":"车家埭社区1#公变,","scope":"浙江省-杭州市-萧山区-城厢街道-车家埭社区(拱秀路,通惠南路)一带","startTime":"2019-12-22 09:23:46","stopDate":"2019-12-22 11:30:00","orgNo":"3340130","typeCode":"电网故障停限电","poweroffArea":"110kV城东变:萧中A604线-车家埭社区1#公变台区低压开关","poweroffReason":"（低压停电信息）低压漏电保护器短路故障","powerTime":"2019-12-22 10:35:00","powerComm":"已送电","subsNo":"","lineNo":"","tgNo":"","tgName":null,"infoStatus":"1","orgName":"国网浙江杭州市萧山区供电有限公司","typeName":null,"infoStatusName":null,"dateDay":null,"orgNos":null,"nowTime":null,"countyName":null,"streetName":null,"villageName":null,"roadName":null,"communityName":null,"tranName":null,"sdLineName":null,"cityCode":"3340130","cityName":"国网浙江杭州市萧山区供电有限公司","provinceCode":null,"stopTime":"2019-12-22 11:30:00","powerType":"全部","powerOffArea":"110kV城东变:萧中A604线-车家埭社区1#公变台区低压开关","powerOffReason":"（低压停电信息）低压漏电保护器短路故障","powerOffId":"2019122231020066"},{"poweroffId":2019122231020053,"sgpoweroffId":null,"subsName":"","lineName":"10kV戴村C484线","pubTranName":"下门村11#变,众联村5#变,下门村10#变,中石化碧辟（浙江）石油有限公司杭州分公司,杭州华林机械有限公司,众联村9#变,众联村11#变,杭州双鸟柴油机有限公司,众联村12#变,众联村10#变,众联村4#变,众联村8#变,杭州长虹路桥工程有限公司,杭州启明星生物营养有限公司,众联村13#变,众联村6#变,杭州德鸿重型包装材料有限公司,众联村7#变,杭州启明星羽毛有限公司,","scope":"浙江省-杭州市-萧山区-河上镇-下门行政村-白堰自然村,河上镇-众联行政村(泉水自然村,塘村坂自然村,塘村自然村,众利自然村,甑山坞自然村,泉水坞自然村,联合自然村);河上镇-众联行政村(杭州华林机械有限公司,杭州长虹路桥工程有限公司),河上镇-大桥行政村(杭州德鸿重型包装材料有限公司,杭州萧山城区投资开发有限公司,杭州启明星生物营养有限公司),河上镇(下门行政村-中石化碧辟（浙江）石油有限公司杭州分公司,溪头行政村-杭州启明星羽毛有限公司)一带","startTime":"2019-12-22 08:59:15","stopDate":"2019-12-22 11:20:15","orgNo":"3340130","typeCode":"电网故障停限电","poweroffArea":"35kV河上变:戴村C484线后段","poweroffReason":"高压开关跳闸 原停电结束时间为2019-12-22 11:59:15,为减少客户停电时间,加快工作进度,提前送电,现变更停电结束时间为2019-12-22 11:20:15","powerTime":"2019-12-22 10:33:03","powerComm":"已送电","subsNo":"","lineNo":"","tgNo":"","tgName":null,"infoStatus":"1","orgName":"国网浙江杭州市萧山区供电有限公司","typeName":null,"infoStatusName":null,"dateDay":null,"orgNos":null,"nowTime":null,"countyName":null,"streetName":null,"villageName":null,"roadName":null,"communityName":null,"tranName":null,"sdLineName":null,"cityCode":"3340130","cityName":"国网浙江杭州市萧山区供电有限公司","provinceCode":null,"stopTime":"2019-12-22 11:20:15","powerType":"全部","powerOffArea":"35kV河上变:戴村C484线后段","powerOffReason":"高压开关跳闸 原停电结束时间为2019-12-22 11:59:15,为减少客户停电时间,加快工作进度,提前送电,现变更停电结束时间为2019-12-22 11:20:15","powerOffId":"2019122231020053"}],"pageModel":{"pageNow":668,"totalCount":17789,"totalPage":1779,"tableRows":0,"pageCount":10,"beginCount":6670},"isExperi":"1"}