{"message":"","today":"2020-06-15","seleList":[{"poweroffId":2019122131020077,"sgpoweroffId":null,"subsName":"","lineName":"10kV宝地H609线","pubTranName":"金星农居点基建6#变,金星农居点基建3#变,金星农居点基建1#变,余杭街道建管中心金星农居点8#基建变,金星农居点5#基建变,余杭街道建管中心金星农居点7#基建变,金星农居点基建2#变,金星农居点基建4#变,中交二航杆上变,","scope":"浙江省-杭州市-余杭区-余杭街道(杭州市余杭区余杭街道农民多层公寓建设管理中心,中交第二航务工程局有限公司余杭分公司)","startTime":"2019-12-21 09:50:00","stopDate":"2019-12-21 12:21:00","orgNo":"3340140","typeCode":"电网故障停限电","poweroffArea":"110kV桃源变:宝地H609线余杭农居分线开关后段","poweroffReason":"高压开关跳闸","powerTime":"2019-12-21 11:45:00","powerComm":"已送电","subsNo":"","lineNo":"","tgNo":"","tgName":null,"infoStatus":"1","orgName":"国网浙江杭州市余杭区供电有限公司","typeName":null,"infoStatusName":null,"dateDay":null,"orgNos":null,"nowTime":null,"countyName":null,"streetName":null,"villageName":null,"roadName":null,"communityName":null,"tranName":null,"sdLineName":null,"cityCode":"3340140","cityName":"国网浙江杭州市余杭区供电有限公司","provinceCode":null,"stopTime":"2019-12-21 12:21:00","powerType":"全部","powerOffArea":"110kV桃源变:宝地H609线余杭农居分线开关后段","powerOffReason":"高压开关跳闸","powerOffId":"2019122131020077"},{"poweroffId":2019122131020076,"sgpoweroffId":null,"subsName":"","lineName":"10kV道红6412线","pubTranName":"叶青苑,","scope":"浙江省-杭州市-拱墅区-米市巷街道-大塘巷社区(叶青兜路,叶青苑小区),米市巷街道(红石桥社区-叶青兜路,红石板社区-叶青兜路)","startTime":"2019-12-21 09:48:31","stopDate":"2019-12-21 12:48:31","orgNo":"3340101","typeCode":"电网故障停限电","poweroffArea":"110kV武林变:道红6412线-叶青苑变","poweroffReason":"(低压停电信息)低压开关跳闸 原停电结束时间为2019-12-21 13:48:31,为减少客户停电时间,加快工作进度,提前送电,现变更停电结束时间为2019-12-21 12:48:31","powerTime":"2019-12-21 12:20:13","powerComm":"已送电","subsNo":"","lineNo":"","tgNo":"","tgName":null,"infoStatus":"1","orgName":"浙江杭州电力客户服务中心","typeName":null,"infoStatusName":null,"dateDay":null,"orgNos":null,"nowTime":null,"countyName":null,"streetName":null,"villageName":null,"roadName":null,"communityName":null,"tranName":null,"sdLineName":null,"cityCode":"3340101","cityName":"浙江杭州电力客户服务中心","provinceCode":null,"stopTime":"2019-12-21 12:48:31","powerType":"全部","powerOffArea":"110kV武林变:道红6412线-叶青苑变","powerOffReason":"(低压停电信息)低压开关跳闸 原停电结束时间为2019-12-21 13:48:31,为减少客户停电时间,加快工作进度,提前送电,现变更停电结束时间为2019-12-21 12:48:31","powerOffId":"2019122131020076"},{"poweroffId":2019122131020059,"sgpoweroffId":null,"subsName":"","lineName":"10kV朝阳G111线","pubTranName":"变压器,中都广场1号公变,中都广场2号公变,中都广场3号公变,中都广场5号公变,中都广场4号公变,中都商场（二）(主供配变),中都广场公变,中都商场（二）(主供配变),","scope":"浙江省-杭州市-余杭区-临平街道-工农新村社区(中都街,北大街),东湖街道-桂芳桥社区(中都街,朝阳东路,史家埭路),临平街道(西大街社区-北大街,星火社区-邱山大街);临平街道-杭州舒翎物业有限公司","startTime":"2019-12-21 08:50:00","stopDate":"2019-12-21 15:30:00","orgNo":"3340140","typeCode":"电网故障停限电","poweroffArea":"110kV临平变:朝阳G111线中都开关站中都开关站朝中G1111线后段","poweroffReason":"高压开关跳闸 原停电结束时间为2019-12-21 17:30:00,为减少客户停电时间,加快工作进度,提前送电,现变更停电结束时间为2019-12-21 15:30:00","powerTime":"2019-12-21 14:45:00","powerComm":"已送电","subsNo":"","lineNo":"","tgNo":"","tgName":null,"infoStatus":"1","orgName":"国网浙江杭州市余杭区供电有限公司","typeName":null,"infoStatusName":null,"dateDay":null,"orgNos":null,"nowTime":null,"countyName":null,"streetName":null,"villageName":null,"roadName":null,"communityName":null,"tranName":null,"sdLineName":null,"cityCode":"3340140","cityName":"国网浙江杭州市余杭区供电有限公司","provinceCode":null,"stopTime":"2019-12-21 15:30:00","powerType":"全部","powerOffArea":"110kV临平变:朝阳G111线中都开关站中都开关站朝中G1111线后段","powerOffReason":"高压开关跳闸 原停电结束时间为2019-12-21 17:30:00,为减少客户停电时间,加快工作进度,提前送电,现变更停电结束时间为2019-12-21 15:30:00","powerOffId":"2019122131020059"},{"poweroffId":2019122131020047,"sgpoweroffId":null,"subsName":"","lineName":"10kV雪水T281线","pubTranName":"外松山村1号公变,","scope":"浙江省-杭州市-桐庐县-新合乡-新四行政村-外松山自然村-新合村","startTime":"2019-12-21 08:17:50","stopDate":"2019-12-21 11:17:50","orgNo":"3340150","typeCode":"电网故障停限电","poweroffArea":"35kV新合变:雪水T281线-外松山村1号公变后段","poweroffReason":"(低压停电信息)低压开关跳闸","powerTime":"2019-12-21 10:55:22","powerComm":"已送电","subsNo":"","lineNo":"","tgNo":"","tgName":null,"infoStatus":"1","orgName":"国网浙江桐庐县供电公司","typeName":null,"infoStatusName":null,"dateDay":null,"orgNos":null,"nowTime":null,"countyName":null,"streetName":null,"villageName":null,"roadName":null,"communityName":null,"tranName":null,"sdLineName":null,"cityCode":"3340150","cityName":"国网浙江桐庐县供电公司","provinceCode":null,"stopTime":"2019-12-21 11:17:50","powerType":"全部","powerOffArea":"35kV新合变:雪水T281线-外松山村1号公变后段","powerOffReason":"(低压停电信息)低压开关跳闸","powerOffId":"2019122131020047"},{"poweroffId":2019122131020035,"sgpoweroffId":null,"subsName":"","lineName":"10kV拱秀A587线","pubTranName":"回澜南园3#公变,","scope":"浙江省-杭州市-萧山区-城厢街道-回澜南苑社区-回澜南苑、回澜南园、回澜南园小区、回澜南苑小区、回澜小区一带","startTime":"2019-12-21 07:56:33","stopDate":"2019-12-21 10:30:33","orgNo":"3340130","typeCode":"电网故障停限电","poweroffArea":"110kV城东变:拱秀A587线-回澜南园3#公变台区低压开关","poweroffReason":"（低压停电信息）低压电缆烧故障 因难度加大原因,现变更停电结束时间为2019-12-21 12:56:33 原停电结束时间为2019-12-21 12:56:33,因加快工作进度,提前送电,现变更停电结束时间为2019-12-21 10:30:33","powerTime":"2019-12-21 09:49:45","powerComm":"已送电","subsNo":"","lineNo":"","tgNo":"","tgName":null,"infoStatus":"1","orgName":"国网浙江杭州市萧山区供电有限公司","typeName":null,"infoStatusName":null,"dateDay":null,"orgNos":null,"nowTime":null,"countyName":null,"streetName":null,"villageName":null,"roadName":null,"communityName":null,"tranName":null,"sdLineName":null,"cityCode":"3340130","cityName":"国网浙江杭州市萧山区供电有限公司","provinceCode":null,"stopTime":"2019-12-21 10:30:33","powerType":"全部","powerOffArea":"110kV城东变:拱秀A587线-回澜南园3#公变台区低压开关","powerOffReason":"（低压停电信息）低压电缆烧故障 因难度加大原因,现变更停电结束时间为2019-12-21 12:56:33 原停电结束时间为2019-12-21 12:56:33,因加快工作进度,提前送电,现变更停电结束时间为2019-12-21 10:30:33","powerOffId":"2019122131020035"},{"poweroffId":2019122131020031,"sgpoweroffId":null,"subsName":"","lineName":"10kV万市D338线","pubTranName":"田源村11#黄地里公变变压器间隔配电变压器,田源村7#钟家公变,田源村8#石元里公变,田源村10#汪家公变,田源村4#回坞公变,","scope":"浙江省-杭州市-富阳区-万市镇-万市行政村(龙丘变自然村,田畈自然村,朱村自然村),万市镇-田源行政村(石元自然村,钟家自然村,钱家自然村,汪家自然村,黄山上自然村,落宅坞自然村,石源自然村,童家桥自然村,回坞自然村,四公坞自然村,落宅自然村,田畈自然村,黄地里自然村,潘家自然村,田源自然村)","startTime":"2019-12-21 08:10:00","stopDate":"2019-12-21 09:30:00","orgNo":"3340170","typeCode":"电网故障停限电","poweroffArea":"110kV万市变:万市D338线","poweroffReason":"高压开关跳闸，原停电结束时间为2019-12-21 08:50:00,因现场抢修难度大,现变更停电结束时间为2019-12-21 09:30:00","powerTime":"2019-12-21 09:22:25","powerComm":"已送电","subsNo":"","lineNo":"","tgNo":"","tgName":null,"infoStatus":"1","orgName":"国网浙江杭州市富阳区供电公司","typeName":null,"infoStatusName":null,"dateDay":null,"orgNos":null,"nowTime":null,"countyName":null,"streetName":null,"villageName":null,"roadName":null,"communityName":null,"tranName":null,"sdLineName":null,"cityCode":"3340170","cityName":"国网浙江杭州市富阳区供电公司","provinceCode":null,"stopTime":"2019-12-21 09:30:00","powerType":"全部","powerOffArea":"110kV万市变:万市D338线","powerOffReason":"高压开关跳闸，原停电结束时间为2019-12-21 08:50:00,因现场抢修难度大,现变更停电结束时间为2019-12-21 09:30:00","powerOffId":"2019122131020031"},{"poweroffId":2019122131020026,"sgpoweroffId":null,"subsName":"","lineName":"10kV万市D338线","pubTranName":"田源村9#钱家公变,田源村3#童家桥公变,","scope":"浙江省-杭州市-富阳区-万市镇-田源行政村(钱家自然村,石元自然村,钟家自然村,汪家自然村,落宅自然村,湾里自然村,回坞自然村,落宅坞自然村,四公坞自然村,童家桥自然村,田畈自然村,落宅户自然村)","startTime":"2019-12-21 07:40:00","stopDate":"2019-12-21 08:10:00","orgNo":"3340170","typeCode":"电网故障停限电","poweroffArea":"110kV万市变:万市D338线","poweroffReason":"高压开关跳闸","powerTime":"2019-12-21 08:01:43","powerComm":"已送电","subsNo":"","lineNo":"","tgNo":"","tgName":null,"infoStatus":"1","orgName":"国网浙江杭州市富阳区供电公司","typeName":null,"infoStatusName":null,"dateDay":null,"orgNos":null,"nowTime":null,"countyName":null,"streetName":null,"villageName":null,"roadName":null,"communityName":null,"tranName":null,"sdLineName":null,"cityCode":"3340170","cityName":"国网浙江杭州市富阳区供电公司","provinceCode":null,"stopTime":"2019-12-21 08:10:00","powerType":"全部","powerOffArea":"110kV万市变:万市D338线","powerOffReason":"高压开关跳闸","powerOffId":"2019122131020026"},{"poweroffId":2019122131020012,"sgpoweroffId":null,"subsName":"","lineName":"10kV春联T394线","pubTranName":"大脉1号公变,","scope":"浙江省-杭州市-桐庐县-城南街道-金东行政村-大脉自然村","startTime":"2019-12-21 06:54:27","stopDate":"2019-12-21 08:54:27","orgNo":"3340150","typeCode":"电网故障停限电","poweroffArea":"110kV迎春变:春联T394线-大脉1号公变后段","poweroffReason":"(低压停电信息)低压开关跳闸","powerTime":"2019-12-21 08:30:40","powerComm":"已送电","subsNo":"","lineNo":"","tgNo":"","tgName":null,"infoStatus":"1","orgName":"国网浙江桐庐县供电公司","typeName":null,"infoStatusName":null,"dateDay":null,"orgNos":null,"nowTime":null,"countyName":null,"streetName":null,"villageName":null,"roadName":null,"communityName":null,"tranName":null,"sdLineName":null,"cityCode":"3340150","cityName":"国网浙江桐庐县供电公司","provinceCode":null,"stopTime":"2019-12-21 08:54:27","powerType":"全部","powerOffArea":"110kV迎春变:春联T394线-大脉1号公变后段","powerOffReason":"(低压停电信息)低压开关跳闸","powerOffId":"2019122131020012"},{"poweroffId":2019122131020010,"sgpoweroffId":null,"subsName":"","lineName":"10kV千家Y408线","pubTranName":"溪沿村无合头台区,","scope":"浙江省-杭州市-建德市-航头镇-灵栖行政村-灵栖自然村,航头镇-溪沿行政村 洪村畈自然村,溪沿自然村一带用户","startTime":"2019-12-21 05:37:00","stopDate":"2019-12-21 07:00:00","orgNo":"3340180","typeCode":"电网故障停限电","poweroffArea":"110kV航头变:千家Y408线-溪沿村无合头台区后段","poweroffReason":"(低压停电信息)低压开关跳闸 原停电结束时间为2019-12-21 08:00:00,为减少客户停电时间,加快工作进度,提前送电,现变更停电结束时间为2019-12-21 07:00:00","powerTime":"2019-12-21 06:41:00","powerComm":"已送电","subsNo":"","lineNo":"","tgNo":"","tgName":null,"infoStatus":"1","orgName":"国网浙江建德市供电有限公司","typeName":null,"infoStatusName":null,"dateDay":null,"orgNos":null,"nowTime":null,"countyName":null,"streetName":null,"villageName":null,"roadName":null,"communityName":null,"tranName":null,"sdLineName":null,"cityCode":"3340180","cityName":"国网浙江建德市供电有限公司","provinceCode":null,"stopTime":"2019-12-21 07:00:00","powerType":"全部","powerOffArea":"110kV航头变:千家Y408线-溪沿村无合头台区后段","powerOffReason":"(低压停电信息)低压开关跳闸 原停电结束时间为2019-12-21 08:00:00,为减少客户停电时间,加快工作进度,提前送电,现变更停电结束时间为2019-12-21 07:00:00","powerOffId":"2019122131020010"},{"poweroffId":2019122131020004,"sgpoweroffId":null,"subsName":"","lineName":"10kV包家D831线","pubTranName":"程坟村7#新区公变,富阳市路灯安装维修管理所,富阳市路灯安装维修管理所,浙江日昌升建材有限公司1#,富阳南方红豆杉生物科技有限公司,程坟村6#青昌岭公变,杭州富阳水务有限公司1#变,杭州富阳新桐建材有限公司2#变,杭州富阳新桐建材有限公司1#变,富阳市新桐乡陆家坞砂场,浙江日昌升建材有限公司2#,变压器,","scope":"浙江省-杭州市-富阳区-新桐乡-程浦行政村-程坟自然村;新桐乡(杭州富阳新桐建材有限公司,杭州富阳城市照明工程有限公司,浙江日昌升建材有限公司,杭州富阳南方红豆杉生物科技有限公司,杭州富阳水务有限公司)","startTime":"2019-12-21 01:22:00","stopDate":"2019-12-21 03:33:00","orgNo":"3340170","typeCode":"电网故障停限电","poweroffArea":"110kV新桐变:包家D831线包家D8311开关后段","poweroffReason":"高压开关跳闸 原停电结束时间为2019-12-21 04:22:00,为减少客户停电时间,加快工作进度,提前送电,现变更停电结束时间为2019-12-21 03:33:00","powerTime":"2019-12-21 03:10:42","powerComm":"已送电","subsNo":"","lineNo":"","tgNo":"","tgName":null,"infoStatus":"1","orgName":"国网浙江杭州市富阳区供电公司","typeName":null,"infoStatusName":null,"dateDay":null,"orgNos":null,"nowTime":null,"countyName":null,"streetName":null,"villageName":null,"roadName":null,"communityName":null,"tranName":null,"sdLineName":null,"cityCode":"3340170","cityName":"国网浙江杭州市富阳区供电公司","provinceCode":null,"stopTime":"2019-12-21 03:33:00","powerType":"全部","powerOffArea":"110kV新桐变:包家D831线包家D8311开关后段","powerOffReason":"高压开关跳闸 原停电结束时间为2019-12-21 04:22:00,为减少客户停电时间,加快工作进度,提前送电,现变更停电结束时间为2019-12-21 03:33:00","powerOffId":"2019122131020004"}],"pageModel":{"pageNow":671,"totalCount":17789,"totalPage":1779,"tableRows":0,"pageCount":10,"beginCount":6700},"isExperi":"1"}