{"message":"","today":"2020-06-15","seleList":[{"poweroffId":2019122031020288,"sgpoweroffId":null,"subsName":"","lineName":"10kV悦墅D987线","pubTranName":"金桥村15#金家桥4公变,","scope":"浙江省-杭州市-富阳区-富春街道-金秋社区(文居街,公望街)一带","startTime":"2020-01-04 08:00:00","stopDate":"2020-01-04 16:50:00","orgNo":"3340170","typeCode":"计划停电","poweroffArea":"110kV育才变:悦墅D987线-金桥村15#金家桥4公变后段","poweroffReason":"(低压停电信息)青云2019年东山村4#桥头公变等低压台区改造工程更换落户线54处，搭接等工作","powerTime":"2020-01-04 16:30:20","powerComm":"已送电","subsNo":"","lineNo":"","tgNo":"","tgName":null,"infoStatus":"1","orgName":"国网浙江杭州市富阳区供电公司","typeName":null,"infoStatusName":null,"dateDay":null,"orgNos":null,"nowTime":null,"countyName":null,"streetName":null,"villageName":null,"roadName":null,"communityName":null,"tranName":null,"sdLineName":null,"cityCode":"3340170","cityName":"国网浙江杭州市富阳区供电公司","provinceCode":null,"stopTime":"2020-01-04 16:50:00","powerType":"全部","powerOffArea":"110kV育才变:悦墅D987线-金桥村15#金家桥4公变后段","powerOffReason":"(低压停电信息)青云2019年东山村4#桥头公变等低压台区改造工程更换落户线54处，搭接等工作","powerOffId":"2019122031020288"},{"poweroffId":2019122031020286,"sgpoweroffId":null,"subsName":"","lineName":"10kV咸康D208线","pubTranName":"横山下7号横山下公变,","scope":"浙江省-杭州市-富阳区-富春街道-青云桥行政村(油树坞自然村,横山下自然村,铁坞口自然村)","startTime":"2020-01-04 08:30:00","stopDate":"2020-01-04 16:40:00","orgNo":"3340170","typeCode":"计划停电","poweroffArea":"35kV大青变:咸康D208线-横山下7号横山下后段","poweroffReason":"(低压停电信息)配合青云桥村横山下1#横山下公变停电","powerTime":"2020-01-04 16:26:13","powerComm":"已送电","subsNo":"","lineNo":"","tgNo":"","tgName":null,"infoStatus":"1","orgName":"国网浙江杭州市富阳区供电公司","typeName":null,"infoStatusName":null,"dateDay":null,"orgNos":null,"nowTime":null,"countyName":null,"streetName":null,"villageName":null,"roadName":null,"communityName":null,"tranName":null,"sdLineName":null,"cityCode":"3340170","cityName":"国网浙江杭州市富阳区供电公司","provinceCode":null,"stopTime":"2020-01-04 16:40:00","powerType":"全部","powerOffArea":"35kV大青变:咸康D208线-横山下7号横山下后段","powerOffReason":"(低压停电信息)配合青云桥村横山下1#横山下公变停电","powerOffId":"2019122031020286"},{"poweroffId":2019122031020284,"sgpoweroffId":null,"subsName":"","lineName":"10kV坪西R321线","pubTranName":"石夫岭公变,","scope":"浙江省-杭州市-淳安县-千岛湖镇-新城社区-丰家山路,千岛湖镇-马路行政村(云村自然村,马路自然村,里三村自然村),千岛湖镇-云村行政村(石夫岭自然村,里三自然村)","startTime":"2019-12-24 08:00:00","stopDate":"2019-12-24 14:00:00","orgNo":"3340190","typeCode":"临时停电","poweroffArea":"110kV坪山变:坪西R321线-石夫岭0823线负荷开关后段","poweroffReason":"石夫岭公变支线电缆拆拔穿入新做管道","powerTime":"2019-12-24 13:21:35","powerComm":"已送电","subsNo":"","lineNo":"","tgNo":"","tgName":null,"infoStatus":"1","orgName":"国网浙江淳安县供电有限公司","typeName":null,"infoStatusName":null,"dateDay":null,"orgNos":null,"nowTime":null,"countyName":null,"streetName":null,"villageName":null,"roadName":null,"communityName":null,"tranName":null,"sdLineName":null,"cityCode":"3340190","cityName":"国网浙江淳安县供电有限公司","provinceCode":null,"stopTime":"2019-12-24 14:00:00","powerType":"全部","powerOffArea":"110kV坪山变:坪西R321线-石夫岭0823线负荷开关后段","powerOffReason":"石夫岭公变支线电缆拆拔穿入新做管道","powerOffId":"2019122031020284"},{"poweroffId":2019122031020278,"sgpoweroffId":null,"subsName":"","lineName":"10kV咸康D208线","pubTranName":"横山下1#横山下公变,","scope":"浙江省-杭州市-富阳区-富春街道-青云桥行政村(横山下自然村,油树坞自然村,冷水塘自然村,铁坞口自然村)","startTime":"2020-01-04 08:30:00","stopDate":"2020-01-04 16:40:00","orgNo":"3340170","typeCode":"计划停电","poweroffArea":"35kV大青变:咸康D208线-横山下1#横山下后段","poweroffReason":"(低压停电信息)电缆搭接、架设导线、接户线搭接等工作","powerTime":"2020-01-04 16:25:59","powerComm":"已送电","subsNo":"","lineNo":"","tgNo":"","tgName":null,"infoStatus":"1","orgName":"国网浙江杭州市富阳区供电公司","typeName":null,"infoStatusName":null,"dateDay":null,"orgNos":null,"nowTime":null,"countyName":null,"streetName":null,"villageName":null,"roadName":null,"communityName":null,"tranName":null,"sdLineName":null,"cityCode":"3340170","cityName":"国网浙江杭州市富阳区供电公司","provinceCode":null,"stopTime":"2020-01-04 16:40:00","powerType":"全部","powerOffArea":"35kV大青变:咸康D208线-横山下1#横山下后段","powerOffReason":"(低压停电信息)电缆搭接、架设导线、接户线搭接等工作","powerOffId":"2019122031020278"},{"poweroffId":2019122031020273,"sgpoweroffId":null,"subsName":"","lineName":"10kV彭埠8128线","pubTranName":"伏三,","scope":"浙江省杭州市江干区濮家东村小区","startTime":"2019-12-26 12:40:00","stopDate":"2019-12-26 14:30:00","orgNo":"3340101","typeCode":"临时停电","poweroffArea":"220kV运河变:彭埠8128线-华万站伏东81687线-伏东81687线11#杆7182开关","poweroffReason":"10kV伏东81687线前段修树、10kV伏东81687线17#杆带电拆除十字引线 原停电结束时间为2019-12-26 17:30:00,为减少客户停电时间,加快工作进度,提前送电,现变更停电结束时间为2019-12-26 14:30:00","powerTime":"2019-12-26 13:59:59","powerComm":"已送电","subsNo":"","lineNo":"","tgNo":"","tgName":null,"infoStatus":"1","orgName":"浙江杭州电力客户服务中心","typeName":null,"infoStatusName":null,"dateDay":null,"orgNos":null,"nowTime":null,"countyName":null,"streetName":null,"villageName":null,"roadName":null,"communityName":null,"tranName":null,"sdLineName":null,"cityCode":"3340101","cityName":"浙江杭州电力客户服务中心","provinceCode":null,"stopTime":"2019-12-26 14:30:00","powerType":"全部","powerOffArea":"220kV运河变:彭埠8128线-华万站伏东81687线-伏东81687线11#杆7182开关","powerOffReason":"10kV伏东81687线前段修树、10kV伏东81687线17#杆带电拆除十字引线 原停电结束时间为2019-12-26 17:30:00,为减少客户停电时间,加快工作进度,提前送电,现变更停电结束时间为2019-12-26 14:30:00","powerOffId":"2019122031020273"},{"poweroffId":2019122031020272,"sgpoweroffId":null,"subsName":"","lineName":"10kV丁坝JZ01线","pubTranName":"共建村7#变,","scope":"浙江省-杭州市-萧山区-新湾街道(建华行政村-建华自然村,共建行政村-共建自然村)","startTime":"2020-01-03 09:00:00","stopDate":"2020-01-03 17:30:00","orgNo":"3340120","typeCode":"计划停电","poweroffArea":"35kV新湾变:丁坝JZ01线-共建村7#变后段","poweroffReason":"(低压停电信息)共建村7#变台区低压上改下等工作","powerTime":"2020-01-03 16:30:33","powerComm":"已送电","subsNo":"","lineNo":"","tgNo":"","tgName":null,"infoStatus":"1","orgName":"国网浙江杭州市钱塘新区供电公司","typeName":null,"infoStatusName":null,"dateDay":null,"orgNos":null,"nowTime":null,"countyName":null,"streetName":null,"villageName":null,"roadName":null,"communityName":null,"tranName":null,"sdLineName":null,"cityCode":"3340120","cityName":"国网浙江杭州市钱塘新区供电公司","provinceCode":null,"stopTime":"2020-01-03 17:30:00","powerType":"全部","powerOffArea":"35kV新湾变:丁坝JZ01线-共建村7#变后段","powerOffReason":"(低压停电信息)共建村7#变台区低压上改下等工作","powerOffId":"2019122031020272"},{"poweroffId":2019122031020271,"sgpoweroffId":null,"subsName":"","lineName":"10kV新阳D841线","pubTranName":"新岭村4#钟家公变,","scope":"浙江省杭州市富阳区渌渚镇新岭行政村钟家自然村一带","startTime":"2020-01-03 16:30:00","stopDate":"2020-01-03 17:00:00","orgNo":"3340170","typeCode":"计划停电","poweroffArea":"110kV新桐变:新阳D841线19#杆新阳分线54#杆新岭村4#钟家公变","poweroffReason":"配合新岭村4#钟家公变0.4kV发电机接线拆除","powerTime":"2020-01-03 16:41:36","powerComm":"已送电","subsNo":"","lineNo":"","tgNo":"","tgName":null,"infoStatus":"1","orgName":"国网浙江杭州市富阳区供电公司","typeName":null,"infoStatusName":null,"dateDay":null,"orgNos":null,"nowTime":null,"countyName":null,"streetName":null,"villageName":null,"roadName":null,"communityName":null,"tranName":null,"sdLineName":null,"cityCode":"3340170","cityName":"国网浙江杭州市富阳区供电公司","provinceCode":null,"stopTime":"2020-01-03 17:00:00","powerType":"全部","powerOffArea":"110kV新桐变:新阳D841线19#杆新阳分线54#杆新岭村4#钟家公变","powerOffReason":"配合新岭村4#钟家公变0.4kV发电机接线拆除","powerOffId":"2019122031020271"},{"poweroffId":2019122031020270,"sgpoweroffId":null,"subsName":"","lineName":"10kV下沙976线","pubTranName":"前进街道二配变,","scope":"浙江省-杭州市-萧山区-新湾街道(共建行政村-梅林自然村,三新行政村-新湾自然村),前进街道-前进街道社区,临江街道-萧东行政村-东梅自然村","startTime":"2020-01-02 09:00:00","stopDate":"2020-01-02 16:30:00","orgNo":"3340120","typeCode":"计划停电","poweroffArea":"110kV前进变:下沙976线-前进街道2配线后段","poweroffReason":"(低压停电信息)前进街道2#变低压电缆更换等工作 原停电结束时间为2020-01-02 17:30:00,为减少客户停电时间,加快工作进度,提前送电,现变更停电结束时间为2020-01-02 16:30:00","powerTime":"2020-01-02 15:50:12","powerComm":"已送电","subsNo":"","lineNo":"","tgNo":"","tgName":null,"infoStatus":"1","orgName":"国网浙江杭州市钱塘新区供电公司","typeName":null,"infoStatusName":null,"dateDay":null,"orgNos":null,"nowTime":null,"countyName":null,"streetName":null,"villageName":null,"roadName":null,"communityName":null,"tranName":null,"sdLineName":null,"cityCode":"3340120","cityName":"国网浙江杭州市钱塘新区供电公司","provinceCode":null,"stopTime":"2020-01-02 16:30:00","powerType":"全部","powerOffArea":"110kV前进变:下沙976线-前进街道2配线后段","powerOffReason":"(低压停电信息)前进街道2#变低压电缆更换等工作 原停电结束时间为2020-01-02 17:30:00,为减少客户停电时间,加快工作进度,提前送电,现变更停电结束时间为2020-01-02 16:30:00","powerOffId":"2019122031020270"},{"poweroffId":2019122031020269,"sgpoweroffId":null,"subsName":"","lineName":"10kV育才D812线","pubTranName":"富阳市电力建设集团有限公司五洲汽车分公司,","scope":"浙江省-杭州市-富阳区-富春街道-后周社区-浙江容大电力工程有限公司综合服务分公司","startTime":"2020-01-03 08:20:00","stopDate":"2020-01-03 15:15:00","orgNo":"3340170","typeCode":"计划停电","poweroffArea":"110kV容大变:育才D812线-富阳市电力建设集团有限公司五洲汽车分公司后段","poweroffReason":"配合客户内部检修","powerTime":"2020-01-03 15:05:19","powerComm":"已送电","subsNo":"","lineNo":"","tgNo":"","tgName":null,"infoStatus":"1","orgName":"国网浙江杭州市富阳区供电公司","typeName":null,"infoStatusName":null,"dateDay":null,"orgNos":null,"nowTime":null,"countyName":null,"streetName":null,"villageName":null,"roadName":null,"communityName":null,"tranName":null,"sdLineName":null,"cityCode":"3340170","cityName":"国网浙江杭州市富阳区供电公司","provinceCode":null,"stopTime":"2020-01-03 15:15:00","powerType":"全部","powerOffArea":"110kV容大变:育才D812线-富阳市电力建设集团有限公司五洲汽车分公司后段","powerOffReason":"配合客户内部检修","powerOffId":"2019122031020269"},{"poweroffId":2019122031020268,"sgpoweroffId":null,"subsName":"","lineName":"10kV新阳D841线","pubTranName":"新岭村4#钟家公变,","scope":"浙江省杭州市富阳区渌渚镇新岭行政村钟家自然村一带","startTime":"2020-01-03 08:30:00","stopDate":"2020-01-03 09:30:00","orgNo":"3340170","typeCode":"计划停电","poweroffArea":"110kV新桐变:新阳D841线19#杆新阳分线54#杆新岭村4#钟家公变","poweroffReason":"配合新岭村4#钟家公变0.4kV发电机接入 原停电结束时间为2020-01-03 09:00:00,因政策原因,现变更停电结束时间为2020-01-03 09:30:00","powerTime":"2020-01-03 09:19:48","powerComm":"已送电","subsNo":"","lineNo":"","tgNo":"","tgName":null,"infoStatus":"1","orgName":"国网浙江杭州市富阳区供电公司","typeName":null,"infoStatusName":null,"dateDay":null,"orgNos":null,"nowTime":null,"countyName":null,"streetName":null,"villageName":null,"roadName":null,"communityName":null,"tranName":null,"sdLineName":null,"cityCode":"3340170","cityName":"国网浙江杭州市富阳区供电公司","provinceCode":null,"stopTime":"2020-01-03 09:30:00","powerType":"全部","powerOffArea":"110kV新桐变:新阳D841线19#杆新阳分线54#杆新岭村4#钟家公变","powerOffReason":"配合新岭村4#钟家公变0.4kV发电机接入 原停电结束时间为2020-01-03 09:00:00,因政策原因,现变更停电结束时间为2020-01-03 09:30:00","powerOffId":"2019122031020268"}],"pageModel":{"pageNow":675,"totalCount":17789,"totalPage":1779,"tableRows":0,"pageCount":10,"beginCount":6740},"isExperi":"1"}