{"message":"","today":"2020-06-15","seleList":[{"poweroffId":2019122031020175,"sgpoweroffId":null,"subsName":"","lineName":"10kV绍鲁V502线","pubTranName":"杭州临安金叶灭蚊制品有限公司,10kV光明村[畔山村]公变,","scope":"浙江省-杭州市-临安市-於潜镇-畔山村、杭州临安金叶灭蚊制品有限公司一带","startTime":"2020-01-02 08:40:00","stopDate":"2020-01-02 13:20:00","orgNo":"3340160","typeCode":"计划停电","poweroffArea":"绍鲁V502线107#杆畔山分线","poweroffReason":"杭州临安於潜10千伏绍鲁V502线等线路改造工程（高后线）改造：杭州临安於潜美丽公路（高后线）：绍鲁V502线畔山分线2#杆移位、拉线制作。","powerTime":"2020-01-02 13:10:04","powerComm":"已送电","subsNo":"","lineNo":"","tgNo":"","tgName":null,"infoStatus":"1","orgName":"国网浙江临安市供电公司","typeName":null,"infoStatusName":null,"dateDay":null,"orgNos":null,"nowTime":null,"countyName":null,"streetName":null,"villageName":null,"roadName":null,"communityName":null,"tranName":null,"sdLineName":null,"cityCode":"3340160","cityName":"国网浙江临安市供电公司","provinceCode":null,"stopTime":"2020-01-02 13:20:00","powerType":"全部","powerOffArea":"绍鲁V502线107#杆畔山分线","powerOffReason":"杭州临安於潜10千伏绍鲁V502线等线路改造工程（高后线）改造：杭州临安於潜美丽公路（高后线）：绍鲁V502线畔山分线2#杆移位、拉线制作。","powerOffId":"2019122031020175"},{"poweroffId":2019122031020174,"sgpoweroffId":null,"subsName":"","lineName":"10kV绍鲁V502线","pubTranName":"临安百花通信电缆有限公司,","scope":"浙江省-杭州市-临安市-於潜镇-临安百花通信电缆有限公司一带","startTime":"2020-01-02 08:10:00","stopDate":"2020-01-02 12:50:00","orgNo":"3340160","typeCode":"计划停电","poweroffArea":"绍鲁V502线97#杆华邦分线","poweroffReason":"杭州临安於潜10千伏绍鲁V502线等线路改造工程（高后线）改造：杭州临安於潜美丽公路（高后线）：绍鲁V502线华邦分线2#杆调杆。","powerTime":"2020-01-02 12:40:13","powerComm":"已送电","subsNo":"","lineNo":"","tgNo":"","tgName":null,"infoStatus":"1","orgName":"国网浙江临安市供电公司","typeName":null,"infoStatusName":null,"dateDay":null,"orgNos":null,"nowTime":null,"countyName":null,"streetName":null,"villageName":null,"roadName":null,"communityName":null,"tranName":null,"sdLineName":null,"cityCode":"3340160","cityName":"国网浙江临安市供电公司","provinceCode":null,"stopTime":"2020-01-02 12:50:00","powerType":"全部","powerOffArea":"绍鲁V502线97#杆华邦分线","powerOffReason":"杭州临安於潜10千伏绍鲁V502线等线路改造工程（高后线）改造：杭州临安於潜美丽公路（高后线）：绍鲁V502线华邦分线2#杆调杆。","powerOffId":"2019122031020174"},{"poweroffId":2019122031020173,"sgpoweroffId":null,"subsName":"","lineName":"10kV乐平V239线","pubTranName":"临安诺华制衣有限公司,临安三信粘扣带有限公司,10kV乐平村[粮站边]公变,临安泰华机械设备有限公司001,中国电信股份有限公司临安分公司,10kV乐平村[长乐街]公变,10kV乐平村[六管塘]公变,临安市乐平丝绸印染有限公司2#,1#,","scope":"浙江省-杭州市-临安市-潜川镇-粮站边、六管塘、中国电信股份有限公司临安分公司、临安三信粘扣带有限公司、杭州临安青蓝冰水服饰有限公司、长乐街、临安泰华机械设备有限公司、临安诺华制衣有限公司一带","startTime":"2019-12-30 08:30:00","stopDate":"2019-12-30 17:00:00","orgNo":"3340160","typeCode":"计划停电","poweroffArea":"乐平V239线七坑分线32#杆粮站边支线、乐平V239线乐平邮电所分线","poweroffReason":"杭州临安於潜10千伏乐平V239线、里伍V237线与分水变线路联络:1、乐平V239线七坑分线粮站边支线4#-16#杆调横担、调导线，5#杆安装分段开关，6#杆安装发电车忖专用开关，粮站边支线延伸至30#杆16#杆搭头。","powerTime":"2019-12-30 16:46:17","powerComm":"已送电","subsNo":"","lineNo":"","tgNo":"","tgName":null,"infoStatus":"1","orgName":"国网浙江临安市供电公司","typeName":null,"infoStatusName":null,"dateDay":null,"orgNos":null,"nowTime":null,"countyName":null,"streetName":null,"villageName":null,"roadName":null,"communityName":null,"tranName":null,"sdLineName":null,"cityCode":"3340160","cityName":"国网浙江临安市供电公司","provinceCode":null,"stopTime":"2019-12-30 17:00:00","powerType":"全部","powerOffArea":"乐平V239线七坑分线32#杆粮站边支线、乐平V239线乐平邮电所分线","powerOffReason":"杭州临安於潜10千伏乐平V239线、里伍V237线与分水变线路联络:1、乐平V239线七坑分线粮站边支线4#-16#杆调横担、调导线，5#杆安装分段开关，6#杆安装发电车忖专用开关，粮站边支线延伸至30#杆16#杆搭头。","powerOffId":"2019122031020173"},{"poweroffId":2019122031020172,"sgpoweroffId":null,"subsName":"","lineName":"10kV乐平V239线","pubTranName":"10kV乐平村[乐平村]公变,","scope":"浙江省-杭州市-临安市-潜川镇-乐平村一带","startTime":"2019-12-30 08:20:00","stopDate":"2019-12-30 16:40:00","orgNo":"3340160","typeCode":"计划停电","poweroffArea":"乐平V239线七坑分线28#杆乐平村支线1#杆乐平村（乐平村）公变低压","poweroffReason":"配合杭州临安於潜10千伏乐平V239线、里伍V237线与分水变线路联络工作","powerTime":"2019-12-30 16:30:48","powerComm":"已送电","subsNo":"","lineNo":"","tgNo":"","tgName":null,"infoStatus":"1","orgName":"国网浙江临安市供电公司","typeName":null,"infoStatusName":null,"dateDay":null,"orgNos":null,"nowTime":null,"countyName":null,"streetName":null,"villageName":null,"roadName":null,"communityName":null,"tranName":null,"sdLineName":null,"cityCode":"3340160","cityName":"国网浙江临安市供电公司","provinceCode":null,"stopTime":"2019-12-30 16:40:00","powerType":"全部","powerOffArea":"乐平V239线七坑分线28#杆乐平村支线1#杆乐平村（乐平村）公变低压","powerOffReason":"配合杭州临安於潜10千伏乐平V239线、里伍V237线与分水变线路联络工作","powerOffId":"2019122031020172"},{"poweroffId":2019122031020171,"sgpoweroffId":null,"subsName":"","lineName":"10kV绍鲁V502线","pubTranName":"10kV光明村[敖干百花潭]公变,","scope":"浙江省-杭州市-临安市-於潜镇-敖干百花潭一带","startTime":"2019-12-30 08:20:00","stopDate":"2019-12-30 16:10:00","orgNo":"3340160","typeCode":"计划停电","poweroffArea":"绍鲁V502线百花潭分线3#杆光明村（敖干百花潭）公变低压","poweroffReason":"光明村低压线路改造：10kV光明村（敖干百花潭）公变低压百花潭1000线2#-5#杆、山边3000线5#-14#杆调杆、调导线，接户线调换","powerTime":"2019-12-30 16:00:19","powerComm":"已送电","subsNo":"","lineNo":"","tgNo":"","tgName":null,"infoStatus":"1","orgName":"国网浙江临安市供电公司","typeName":null,"infoStatusName":null,"dateDay":null,"orgNos":null,"nowTime":null,"countyName":null,"streetName":null,"villageName":null,"roadName":null,"communityName":null,"tranName":null,"sdLineName":null,"cityCode":"3340160","cityName":"国网浙江临安市供电公司","provinceCode":null,"stopTime":"2019-12-30 16:10:00","powerType":"全部","powerOffArea":"绍鲁V502线百花潭分线3#杆光明村（敖干百花潭）公变低压","powerOffReason":"光明村低压线路改造：10kV光明村（敖干百花潭）公变低压百花潭1000线2#-5#杆、山边3000线5#-14#杆调杆、调导线，接户线调换","powerOffId":"2019122031020171"},{"poweroffId":2019122031020170,"sgpoweroffId":null,"subsName":"","lineName":"10kV富源V509线","pubTranName":"10kV横鑫村[小昔楼家]公变,10kV横鑫村[小昔横坞口]公变,10kV横鑫村[小昔塔岭]公变,","scope":"浙江省-杭州市-临安市-於潜镇-小昔横坞口、小昔楼家、小昔塔岭一带","startTime":"2019-12-30 08:10:00","stopDate":"2019-12-30 17:30:00","orgNo":"3340160","typeCode":"计划停电","poweroffArea":"富源V509线横岭分线26#杆小昔支线","poweroffReason":"1、富源V509线30#新装分线开关1台，横岭分线小昔支线改接至30#杆，小昔支线1-14#线路移位原停电结束时间为2019-12-30 15:50:00,因天气原因,现变更停电结束时间为2019-12-30 17:30:00","powerTime":"2019-12-30 16:52:38","powerComm":"已送电","subsNo":"","lineNo":"","tgNo":"","tgName":null,"infoStatus":"1","orgName":"国网浙江临安市供电公司","typeName":null,"infoStatusName":null,"dateDay":null,"orgNos":null,"nowTime":null,"countyName":null,"streetName":null,"villageName":null,"roadName":null,"communityName":null,"tranName":null,"sdLineName":null,"cityCode":"3340160","cityName":"国网浙江临安市供电公司","provinceCode":null,"stopTime":"2019-12-30 17:30:00","powerType":"全部","powerOffArea":"富源V509线横岭分线26#杆小昔支线","powerOffReason":"1、富源V509线30#新装分线开关1台，横岭分线小昔支线改接至30#杆，小昔支线1-14#线路移位原停电结束时间为2019-12-30 15:50:00,因天气原因,现变更停电结束时间为2019-12-30 17:30:00","powerOffId":"2019122031020170"},{"poweroffId":2019122031020169,"sgpoweroffId":null,"subsName":"","lineName":"10kV下埠V503线","pubTranName":"杭州市临安区国瑞健康产业投资有限公司1#,10kV观山村[甲子双溪口]公变,10kV观山村[大坞口]公变,浙江天目山酒业有限公司,10kV观山村[酒厂宿舍]公变,","scope":"浙江省-杭州市-临安市-於潜镇-大坞口、甲子双溪口、酒厂宿舍、杭州临安区国瑞健康产业投资有限公司、浙江天目山酒业有限公司一带","startTime":"2019-12-28 08:20:00","stopDate":"2019-12-28 17:00:00","orgNo":"3340160","typeCode":"计划停电","poweroffArea":"下埠V503线55#杆甲子双溪口分线","poweroffReason":"甲子山大桥电力迁改02项：下埠V503线甲子双溪口分线1-03#杆移位，10KV观山村（酒厂宿舍）公变移位、低压线路移位。","powerTime":"2019-12-28 16:50:12","powerComm":"已送电","subsNo":"","lineNo":"","tgNo":"","tgName":null,"infoStatus":"1","orgName":"国网浙江临安市供电公司","typeName":null,"infoStatusName":null,"dateDay":null,"orgNos":null,"nowTime":null,"countyName":null,"streetName":null,"villageName":null,"roadName":null,"communityName":null,"tranName":null,"sdLineName":null,"cityCode":"3340160","cityName":"国网浙江临安市供电公司","provinceCode":null,"stopTime":"2019-12-28 17:00:00","powerType":"全部","powerOffArea":"下埠V503线55#杆甲子双溪口分线","powerOffReason":"甲子山大桥电力迁改02项：下埠V503线甲子双溪口分线1-03#杆移位，10KV观山村（酒厂宿舍）公变移位、低压线路移位。","powerOffId":"2019122031020169"},{"poweroffId":2019122031020151,"sgpoweroffId":null,"subsName":"","lineName":"10kV潮树8545线","pubTranName":"金色家园七变,","scope":"浙江省杭州市上城区金色家园7幢1、2单元照明，7幢3、4单元公建备供，7幢1、2单元公建主供附近一带。","startTime":"2020-01-03 09:30:00","stopDate":"2020-01-03 11:30:00","orgNo":"3340101","typeCode":"计划停电","poweroffArea":"220kV候潮变:潮树8545线-金园变七线后段","poweroffReason":"金色家园七变CT及二次接线整改 原停电结束时间为2020-01-03 17:30:00,为减少客户停电时间,加快工作进度,提前送电,现变更停电结束时间为2020-01-03 11:30:00","powerTime":"2020-01-03 10:44:59","powerComm":"已送电","subsNo":"","lineNo":"","tgNo":"","tgName":null,"infoStatus":"1","orgName":"浙江杭州电力客户服务中心","typeName":null,"infoStatusName":null,"dateDay":null,"orgNos":null,"nowTime":null,"countyName":null,"streetName":null,"villageName":null,"roadName":null,"communityName":null,"tranName":null,"sdLineName":null,"cityCode":"3340101","cityName":"浙江杭州电力客户服务中心","provinceCode":null,"stopTime":"2020-01-03 11:30:00","powerType":"全部","powerOffArea":"220kV候潮变:潮树8545线-金园变七线后段","powerOffReason":"金色家园七变CT及二次接线整改 原停电结束时间为2020-01-03 17:30:00,为减少客户停电时间,加快工作进度,提前送电,现变更停电结束时间为2020-01-03 11:30:00","powerOffId":"2019122031020151"},{"poweroffId":2019122031020149,"sgpoweroffId":null,"subsName":"","lineName":"10kV九溪6804线","pubTranName":"许村里变,","scope":"浙江省杭州市西湖区九溪徐村132—170、198—200号附近一带。","startTime":"2020-01-02 09:30:00","stopDate":"2020-01-02 13:20:00","orgNo":"3340101","typeCode":"计划停电","poweroffArea":"110kV复兴变:九溪6804线-村里一线后段","poweroffReason":"许村里变CT及二次接线整改 原停电结束时间为2020-01-02 17:30:00,为减少客户停电时间,加快工作进度,提前送电,现变更停电结束时间为2020-01-02 13:20:00","powerTime":"2020-01-02 12:26:57","powerComm":"已送电","subsNo":"","lineNo":"","tgNo":"","tgName":null,"infoStatus":"1","orgName":"浙江杭州电力客户服务中心","typeName":null,"infoStatusName":null,"dateDay":null,"orgNos":null,"nowTime":null,"countyName":null,"streetName":null,"villageName":null,"roadName":null,"communityName":null,"tranName":null,"sdLineName":null,"cityCode":"3340101","cityName":"浙江杭州电力客户服务中心","provinceCode":null,"stopTime":"2020-01-02 13:20:00","powerType":"全部","powerOffArea":"110kV复兴变:九溪6804线-村里一线后段","powerOffReason":"许村里变CT及二次接线整改 原停电结束时间为2020-01-02 17:30:00,为减少客户停电时间,加快工作进度,提前送电,现变更停电结束时间为2020-01-02 13:20:00","powerOffId":"2019122031020149"},{"poweroffId":2019122031020143,"sgpoweroffId":null,"subsName":"","lineName":"10kV西站D823线","pubTranName":"三根桥4#公变,","scope":"浙江省-杭州市-富阳区-富春街道-金秋社区(文居街,凤浦西路)一带","startTime":"2020-01-03 08:00:00","stopDate":"2020-01-03 12:50:00","orgNo":"3340170","typeCode":"计划停电","poweroffArea":"110kV容大变:西站D823线-三根桥4#公变后段","poweroffReason":"(低压停电信息)青云2019年东山村4#桥头公变等低压台区改造工程更换落户线16处，搭接等工作","powerTime":"2020-01-03 12:40:18","powerComm":"已送电","subsNo":"","lineNo":"","tgNo":"","tgName":null,"infoStatus":"1","orgName":"国网浙江杭州市富阳区供电公司","typeName":null,"infoStatusName":null,"dateDay":null,"orgNos":null,"nowTime":null,"countyName":null,"streetName":null,"villageName":null,"roadName":null,"communityName":null,"tranName":null,"sdLineName":null,"cityCode":"3340170","cityName":"国网浙江杭州市富阳区供电公司","provinceCode":null,"stopTime":"2020-01-03 12:50:00","powerType":"全部","powerOffArea":"110kV容大变:西站D823线-三根桥4#公变后段","powerOffReason":"(低压停电信息)青云2019年东山村4#桥头公变等低压台区改造工程更换落户线16处，搭接等工作","powerOffId":"2019122031020143"}],"pageModel":{"pageNow":678,"totalCount":17789,"totalPage":1779,"tableRows":0,"pageCount":10,"beginCount":6770},"isExperi":"1"}