{"message":"","today":"2020-06-15","seleList":[{"poweroffId":2019122031020120,"sgpoweroffId":null,"subsName":"","lineName":"10kV胥口D712线","pubTranName":"家天下玻业,","scope":"浙江省杭州市富阳区新登镇家天下玻业厂一带","startTime":"2020-01-02 06:40:00","stopDate":"2020-01-02 07:00:00","orgNo":"3340170","typeCode":"计划停电","poweroffArea":"110kV松溪变:胥口712线104#杆胥灵联线20#杆家天下玻业分线","poweroffReason":"配合用户内部检修","powerTime":"2020-01-02 06:52:18","powerComm":"已送电","subsNo":"","lineNo":"","tgNo":"","tgName":null,"infoStatus":"1","orgName":"国网浙江杭州市富阳区供电公司","typeName":null,"infoStatusName":null,"dateDay":null,"orgNos":null,"nowTime":null,"countyName":null,"streetName":null,"villageName":null,"roadName":null,"communityName":null,"tranName":null,"sdLineName":null,"cityCode":"3340170","cityName":"国网浙江杭州市富阳区供电公司","provinceCode":null,"stopTime":"2020-01-02 07:00:00","powerType":"全部","powerOffArea":"110kV松溪变:胥口712线104#杆胥灵联线20#杆家天下玻业分线","powerOffReason":"配合用户内部检修","powerOffId":"2019122031020120"},{"poweroffId":2019122031020100,"sgpoweroffId":null,"subsName":"","lineName":"10kV潮鸣8178线","pubTranName":"兴和一变,","scope":"浙江省-杭州市-下城区-潮鸣街道-小天竺社区(刀茅巷,兴和公寓)","startTime":"2019-12-20 09:10:00","stopDate":"2019-12-20 11:20:00","orgNo":"3340101","typeCode":"电网故障停限电","poweroffArea":"110kV横河变:潮鸣8178线兴和一变兴和一变配变","poweroffReason":"高压开关跳闸 原停电结束时间为2019-12-20 13:10:00,为减少客户停电时间,加快工作进度,提前送电,现变更停电结束时间为2019-12-20 11:20:00","powerTime":"2019-12-20 10:41:30","powerComm":"已送电","subsNo":"","lineNo":"","tgNo":"","tgName":null,"infoStatus":"1","orgName":"浙江杭州电力客户服务中心","typeName":null,"infoStatusName":null,"dateDay":null,"orgNos":null,"nowTime":null,"countyName":null,"streetName":null,"villageName":null,"roadName":null,"communityName":null,"tranName":null,"sdLineName":null,"cityCode":"3340101","cityName":"浙江杭州电力客户服务中心","provinceCode":null,"stopTime":"2019-12-20 11:20:00","powerType":"全部","powerOffArea":"110kV横河变:潮鸣8178线兴和一变兴和一变配变","powerOffReason":"高压开关跳闸 原停电结束时间为2019-12-20 13:10:00,为减少客户停电时间,加快工作进度,提前送电,现变更停电结束时间为2019-12-20 11:20:00","powerOffId":"2019122031020100"},{"poweroffId":2019122031020098,"sgpoweroffId":null,"subsName":"","lineName":"10kV潮鸣8178线","pubTranName":"回四,","scope":"浙江省-杭州市-下城区-潮鸣街道-小天竺社区-回龙庙前","startTime":"2019-12-20 09:33:00","stopDate":"2019-12-20 11:10:00","orgNo":"3340101","typeCode":"电网故障停限电","poweroffArea":"110kV横河变:潮鸣8178线回四配变","poweroffReason":"高压开关跳闸 原停电结束时间为2019-12-20 13:33:00,为减少客户停电时间,加快工作进度,提前送电,现变更停电结束时间为2019-12-20 11:10:00","powerTime":"2019-12-20 10:38:25","powerComm":"已送电","subsNo":"","lineNo":"","tgNo":"","tgName":null,"infoStatus":"1","orgName":"浙江杭州电力客户服务中心","typeName":null,"infoStatusName":null,"dateDay":null,"orgNos":null,"nowTime":null,"countyName":null,"streetName":null,"villageName":null,"roadName":null,"communityName":null,"tranName":null,"sdLineName":null,"cityCode":"3340101","cityName":"浙江杭州电力客户服务中心","provinceCode":null,"stopTime":"2019-12-20 11:10:00","powerType":"全部","powerOffArea":"110kV横河变:潮鸣8178线回四配变","powerOffReason":"高压开关跳闸 原停电结束时间为2019-12-20 13:33:00,为减少客户停电时间,加快工作进度,提前送电,现变更停电结束时间为2019-12-20 11:10:00","powerOffId":"2019122031020098"},{"poweroffId":2019122031020085,"sgpoweroffId":null,"subsName":"","lineName":"10kV胜达C623线","pubTranName":"新华村51#变,","scope":"浙江省-杭州市-萧山区-宁围镇、宁围街道-新华行政村-新华自然村等一带","startTime":"2019-12-20 09:27:25","stopDate":"2019-12-20 12:30:25","orgNo":"3340130","typeCode":"电网故障停限电","poweroffArea":"110kV新街变:胜达C623线-新华村51#变台区低压开关","poweroffReason":"（低压停电信息）低压漏电保护器短路故障","powerTime":"2019-12-20 11:36:17","powerComm":"已送电","subsNo":"","lineNo":"","tgNo":"","tgName":null,"infoStatus":"1","orgName":"国网浙江杭州市萧山区供电有限公司","typeName":null,"infoStatusName":null,"dateDay":null,"orgNos":null,"nowTime":null,"countyName":null,"streetName":null,"villageName":null,"roadName":null,"communityName":null,"tranName":null,"sdLineName":null,"cityCode":"3340130","cityName":"国网浙江杭州市萧山区供电有限公司","provinceCode":null,"stopTime":"2019-12-20 12:30:25","powerType":"全部","powerOffArea":"110kV新街变:胜达C623线-新华村51#变台区低压开关","powerOffReason":"（低压停电信息）低压漏电保护器短路故障","powerOffId":"2019122031020085"},{"poweroffId":2019122031020056,"sgpoweroffId":null,"subsName":"","lineName":"10kV春江T103线","pubTranName":"桐君路1号公变,","scope":"浙江省-杭州市-桐庐县-桐君街道-南门社区(桐君街道,开元街,太平路,南门弄)","startTime":"2019-12-20 08:44:07","stopDate":"2019-12-20 11:44:07","orgNo":"3340150","typeCode":"电网故障停限电","poweroffArea":"110kV桐庐变:春江T103线-桐君路1号公变后段","poweroffReason":"(低压停电信息)低压开关跳闸","powerTime":"2019-12-20 11:17:06","powerComm":"已送电","subsNo":"","lineNo":"","tgNo":"","tgName":null,"infoStatus":"1","orgName":"国网浙江桐庐县供电公司","typeName":null,"infoStatusName":null,"dateDay":null,"orgNos":null,"nowTime":null,"countyName":null,"streetName":null,"villageName":null,"roadName":null,"communityName":null,"tranName":null,"sdLineName":null,"cityCode":"3340150","cityName":"国网浙江桐庐县供电公司","provinceCode":null,"stopTime":"2019-12-20 11:44:07","powerType":"全部","powerOffArea":"110kV桐庐变:春江T103线-桐君路1号公变后段","powerOffReason":"(低压停电信息)低压开关跳闸","powerOffId":"2019122031020056"},{"poweroffId":2019122031020030,"sgpoweroffId":null,"subsName":"","lineName":"10kV岩坞T311线","pubTranName":"岩坞口1号公变,","scope":"浙江省-杭州市-桐庐县-城南街道-东兴行政村(岩坞口自然村,蒋陆家自然村)","startTime":"2019-12-20 08:10:36","stopDate":"2019-12-20 11:10:36","orgNo":"3340150","typeCode":"电网故障停限电","poweroffArea":"110kV洋洲变:岩坞T311线-岩坞口1号公变后段","poweroffReason":"(低压停电信息)低压开关跳闸","powerTime":"2019-12-20 10:56:25","powerComm":"已送电","subsNo":"","lineNo":"","tgNo":"","tgName":null,"infoStatus":"1","orgName":"国网浙江桐庐县供电公司","typeName":null,"infoStatusName":null,"dateDay":null,"orgNos":null,"nowTime":null,"countyName":null,"streetName":null,"villageName":null,"roadName":null,"communityName":null,"tranName":null,"sdLineName":null,"cityCode":"3340150","cityName":"国网浙江桐庐县供电公司","provinceCode":null,"stopTime":"2019-12-20 11:10:36","powerType":"全部","powerOffArea":"110kV洋洲变:岩坞T311线-岩坞口1号公变后段","powerOffReason":"(低压停电信息)低压开关跳闸","powerOffId":"2019122031020030"},{"poweroffId":2019122031020022,"sgpoweroffId":null,"subsName":"","lineName":"10kV孙蔡Y130线","pubTranName":"骑龙村画坞台区,浙江省水电建筑基础工程有限公司,骑龙村水车基台区,骑龙村画坞口台区,","scope":"浙江省-杭州市-建德市-乾潭镇-骑龙行政村(上徐桥自然村,画坞自然村);乾潭镇-上海建工（浙江）水利水电建设有限公司一带用户。","startTime":"2019-12-20 08:00:00","stopDate":"2019-12-20 15:00:00","orgNo":"3340180","typeCode":"电网故障停限电","poweroffArea":"110kV乾潭变:孙蔡Y130线孙蔡Y1304开关后段","poweroffReason":"高压开关跳闸 原停电结束时间为2019-12-20 17:30:00,为减少客户停电时间,加快工作进度,提前送电,现变更停电结束时间为2019-12-20 15:00:00","powerTime":"2019-12-20 14:32:00","powerComm":"已送电","subsNo":"","lineNo":"","tgNo":"","tgName":null,"infoStatus":"1","orgName":"国网浙江建德市供电有限公司","typeName":null,"infoStatusName":null,"dateDay":null,"orgNos":null,"nowTime":null,"countyName":null,"streetName":null,"villageName":null,"roadName":null,"communityName":null,"tranName":null,"sdLineName":null,"cityCode":"3340180","cityName":"国网浙江建德市供电有限公司","provinceCode":null,"stopTime":"2019-12-20 15:00:00","powerType":"全部","powerOffArea":"110kV乾潭变:孙蔡Y130线孙蔡Y1304开关后段","powerOffReason":"高压开关跳闸 原停电结束时间为2019-12-20 17:30:00,为减少客户停电时间,加快工作进度,提前送电,现变更停电结束时间为2019-12-20 15:00:00","powerOffId":"2019122031020022"},{"poweroffId":2019122031020005,"sgpoweroffId":null,"subsName":"","lineName":"10kV天井T450线","pubTranName":"大联股份合作社,","scope":"浙江省-杭州市-桐庐县-城南街道-下杭社区-桐庐嘉尚商务宾馆有限公司，盛江路1273号，春江路一带","startTime":"2019-12-20 06:44:23","stopDate":"2019-12-20 09:44:23","orgNo":"3340150","typeCode":"电网故障停限电","poweroffArea":"110kV下杭变:天井T450线-大联F0223开关后段","poweroffReason":"高压开关跳闸","powerTime":"2019-12-20 09:17:47","powerComm":"已送电","subsNo":"","lineNo":"","tgNo":"","tgName":null,"infoStatus":"1","orgName":"国网浙江桐庐县供电公司","typeName":null,"infoStatusName":null,"dateDay":null,"orgNos":null,"nowTime":null,"countyName":null,"streetName":null,"villageName":null,"roadName":null,"communityName":null,"tranName":null,"sdLineName":null,"cityCode":"3340150","cityName":"国网浙江桐庐县供电公司","provinceCode":null,"stopTime":"2019-12-20 09:44:23","powerType":"全部","powerOffArea":"110kV下杭变:天井T450线-大联F0223开关后段","powerOffReason":"高压开关跳闸","powerOffId":"2019122031020005"},{"poweroffId":2019122031020004,"sgpoweroffId":null,"subsName":"","lineName":"10kV拱秀A587线","pubTranName":"回澜南园3#公变,","scope":"浙江省-杭州市-萧山区-城厢街道-回澜南苑社区-回澜路，回澜南园小区、回澜南园12幢、回澜南园13幢一带","startTime":"2019-12-20 06:05:00","stopDate":"2019-12-20 12:30:00","orgNo":"3340130","typeCode":"电网故障停限电","poweroffArea":"110kV城东变:拱秀A587线-回澜南园3#公变台区低压开关","poweroffReason":"（低压停电信息）低压电缆挖断 原停电结束时间为2019-12-20 15:00:00,为减少客户停电时间,加快工作进度,提前送电,现变更停电结束时间为2019-12-20 12:30:00","powerTime":"2019-12-20 11:58:44","powerComm":"已送电","subsNo":"","lineNo":"","tgNo":"","tgName":null,"infoStatus":"1","orgName":"国网浙江杭州市萧山区供电有限公司","typeName":null,"infoStatusName":null,"dateDay":null,"orgNos":null,"nowTime":null,"countyName":null,"streetName":null,"villageName":null,"roadName":null,"communityName":null,"tranName":null,"sdLineName":null,"cityCode":"3340130","cityName":"国网浙江杭州市萧山区供电有限公司","provinceCode":null,"stopTime":"2019-12-20 12:30:00","powerType":"全部","powerOffArea":"110kV城东变:拱秀A587线-回澜南园3#公变台区低压开关","powerOffReason":"（低压停电信息）低压电缆挖断 原停电结束时间为2019-12-20 15:00:00,为减少客户停电时间,加快工作进度,提前送电,现变更停电结束时间为2019-12-20 12:30:00","powerOffId":"2019122031020004"},{"poweroffId":2019122031020002,"sgpoweroffId":null,"subsName":"","lineName":"10kV拔山D942线","pubTranName":"牌楼村3号牌楼公变,牌楼村2号牌楼公变,","scope":"浙江省-杭州市-富阳区-富春街道-杨清庙行政村(杨清庙自然村,牌楼自然村)","startTime":"2019-12-20 04:46:36","stopDate":"2019-12-20 05:30:36","orgNo":"3340170","typeCode":"电网故障停限电","poweroffArea":"110kV育才变:拔山D942线首端，牌楼村3号牌楼公变，牌楼村2号牌楼公变之间","poweroffReason":"高压开关跳闸","powerTime":"2019-12-20 05:14:27","powerComm":"已送电","subsNo":"","lineNo":"","tgNo":"","tgName":null,"infoStatus":"1","orgName":"国网浙江杭州市富阳区供电公司","typeName":null,"infoStatusName":null,"dateDay":null,"orgNos":null,"nowTime":null,"countyName":null,"streetName":null,"villageName":null,"roadName":null,"communityName":null,"tranName":null,"sdLineName":null,"cityCode":"3340170","cityName":"国网浙江杭州市富阳区供电公司","provinceCode":null,"stopTime":"2019-12-20 05:30:36","powerType":"全部","powerOffArea":"110kV育才变:拔山D942线首端，牌楼村3号牌楼公变，牌楼村2号牌楼公变之间","powerOffReason":"高压开关跳闸","powerOffId":"2019122031020002"}],"pageModel":{"pageNow":680,"totalCount":17789,"totalPage":1779,"tableRows":0,"pageCount":10,"beginCount":6790},"isExperi":"1"}