{"message":"","today":"2020-06-15","seleList":[{"poweroffId":2019121931020356,"sgpoweroffId":null,"subsName":"","lineName":"10kV贤德D333线","pubTranName":"贤德村1#麻列湾公变,贤德村2#太见坞公变,大溪村3#中堂畈公变,","scope":"浙江省-杭州市-富阳区-洞桥镇-大溪行政村(中堂畈自然村,中塘畈自然村,大溪自然村,文河自然村,岭脚跟自然村,东畈自然村),洞桥镇-贤德行政村(中塘寺自然村,叶家自然村,麻立湾自然村,俞家自然村,大源坞自然村,农居点自然村,仁阮自然村,太宰坞自然村,贤德自然村,宜桥头自然村,杨家自然村,石头湾自然村,槐花坞自然村,黄家自然村,下施家自然村),洞桥镇(查口行政村-徐家自然村,三溪行政村-枫林自然村)","startTime":"2019-12-19 17:03:01","stopDate":"2019-12-19 18:30:01","orgNo":"3340170","typeCode":"电网故障停限电","poweroffArea":"110kV万市变:贤德D333线首端，贤德村2#太见坞公变，大溪村3#中堂畈公变，贤德村1#麻列湾公变之间","poweroffReason":"高压开关跳闸","powerTime":"2019-12-19 17:54:12","powerComm":"已送电","subsNo":"","lineNo":"","tgNo":"","tgName":null,"infoStatus":"1","orgName":"国网浙江杭州市富阳区供电公司","typeName":null,"infoStatusName":null,"dateDay":null,"orgNos":null,"nowTime":null,"countyName":null,"streetName":null,"villageName":null,"roadName":null,"communityName":null,"tranName":null,"sdLineName":null,"cityCode":"3340170","cityName":"国网浙江杭州市富阳区供电公司","provinceCode":null,"stopTime":"2019-12-19 18:30:01","powerType":"全部","powerOffArea":"110kV万市变:贤德D333线首端，贤德村2#太见坞公变，大溪村3#中堂畈公变，贤德村1#麻列湾公变之间","powerOffReason":"高压开关跳闸","powerOffId":"2019121931020356"},{"poweroffId":2019121931020340,"sgpoweroffId":null,"subsName":"","lineName":"10kV麻园Y205线","pubTranName":"林业205015公变,","scope":"浙江省-杭州市-建德市-新安江街道-府西社区(普山路,新安路,府西路,拱新路),新安江街道(沧滩社区-环城北路,罗桐社区-环城北路)一带用户。","startTime":"2019-12-19 16:20:00","stopDate":"2019-12-19 18:00:00","orgNo":"3340180","typeCode":"电网故障停限电","poweroffArea":"110kV白沙变:麻园Y205线-林业205015公变后段","poweroffReason":"(低压停电信息)低压开关跳闸","powerTime":"2019-12-19 17:03:00","powerComm":"已送电（实际是一户无电）","subsNo":"","lineNo":"","tgNo":"","tgName":null,"infoStatus":"1","orgName":"国网浙江建德市供电有限公司","typeName":null,"infoStatusName":null,"dateDay":null,"orgNos":null,"nowTime":null,"countyName":null,"streetName":null,"villageName":null,"roadName":null,"communityName":null,"tranName":null,"sdLineName":null,"cityCode":"3340180","cityName":"国网浙江建德市供电有限公司","provinceCode":null,"stopTime":"2019-12-19 18:00:00","powerType":"全部","powerOffArea":"110kV白沙变:麻园Y205线-林业205015公变后段","powerOffReason":"(低压停电信息)低压开关跳闸","powerOffId":"2019121931020340"},{"poweroffId":2019121931020335,"sgpoweroffId":null,"subsName":"","lineName":"10kV贤德D333线","pubTranName":"贤德村6#大年坞公变,","scope":"浙江省-杭州市-富阳区-洞桥镇-贤德行政村(大年坞自然村,仁阮自然村,俞家自然村,杨家自然村,叶家自然村,农居点自然村,麻立湾自然村,太宰坞自然村,大源坞自然村)","startTime":"2019-12-19 16:23:59","stopDate":"2019-12-19 18:23:59","orgNo":"3340170","typeCode":"电网故障停限电","poweroffArea":"110kV万市变:贤德D333线-贤德村6#大年坞公变后段","poweroffReason":"高压开关跳闸","powerTime":"2019-12-19 17:54:04","powerComm":"已送电","subsNo":"","lineNo":"","tgNo":"","tgName":null,"infoStatus":"1","orgName":"国网浙江杭州市富阳区供电公司","typeName":null,"infoStatusName":null,"dateDay":null,"orgNos":null,"nowTime":null,"countyName":null,"streetName":null,"villageName":null,"roadName":null,"communityName":null,"tranName":null,"sdLineName":null,"cityCode":"3340170","cityName":"国网浙江杭州市富阳区供电公司","provinceCode":null,"stopTime":"2019-12-19 18:23:59","powerType":"全部","powerOffArea":"110kV万市变:贤德D333线-贤德村6#大年坞公变后段","powerOffReason":"高压开关跳闸","powerOffId":"2019121931020335"},{"poweroffId":2019121931020324,"sgpoweroffId":null,"subsName":"","lineName":"10kV家东T565线","pubTranName":"桐庐县职业技术学校,桐庐县凤川镇新农村镇村建设有限公司,","scope":"浙江省-杭州市-桐庐县-凤川街道(翙岗行政村-桐庐经济开发区建设投资发展有限公司,园林行政村-桐庐县职业技术学校)","startTime":"2020-01-03 08:30:00","stopDate":"2020-01-03 12:30:00","orgNo":"3340150","typeCode":"计划停电","poweroffArea":"110kV旺家变:家东T565线-镇村F7014开关后段","poweroffReason":"消缺处理工作。","powerTime":"2020-01-03 12:26:58","powerComm":"已送电","subsNo":"","lineNo":"","tgNo":"","tgName":null,"infoStatus":"1","orgName":"国网浙江桐庐县供电公司","typeName":null,"infoStatusName":null,"dateDay":null,"orgNos":null,"nowTime":null,"countyName":null,"streetName":null,"villageName":null,"roadName":null,"communityName":null,"tranName":null,"sdLineName":null,"cityCode":"3340150","cityName":"国网浙江桐庐县供电公司","provinceCode":null,"stopTime":"2020-01-03 12:30:00","powerType":"全部","powerOffArea":"110kV旺家变:家东T565线-镇村F7014开关后段","powerOffReason":"消缺处理工作。","powerOffId":"2019121931020324"},{"poweroffId":2019121931020318,"sgpoweroffId":null,"subsName":"","lineName":"10kV长岭R177线","pubTranName":"管家村竹坞公变,长川口村胜利公变,威坪所长川村大会堂公变,","scope":"浙江省-杭州市-淳安县-王阜乡(长川行政村-胜利自然村,管家行政村-竹坞自然村,马山行政村-隐坑自然村)","startTime":"2019-12-20 08:00:00","stopDate":"2019-12-20 15:00:00","orgNo":"3340190","typeCode":"临时停电","poweroffArea":"110kV虹桥变:长岭R177线-竹坞支线跌落式熔断器后段","poweroffReason":"竹坞支线0号杆熔丝具换开关 原停电结束时间为2019-12-20 14:00:00,因XXX原因,现变更停电结束时间为2019-12-20 15:00:00","powerTime":"2019-12-20 14:03:33","powerComm":"已送电","subsNo":"","lineNo":"","tgNo":"","tgName":null,"infoStatus":"1","orgName":"国网浙江淳安县供电有限公司","typeName":null,"infoStatusName":null,"dateDay":null,"orgNos":null,"nowTime":null,"countyName":null,"streetName":null,"villageName":null,"roadName":null,"communityName":null,"tranName":null,"sdLineName":null,"cityCode":"3340190","cityName":"国网浙江淳安县供电有限公司","provinceCode":null,"stopTime":"2019-12-20 15:00:00","powerType":"全部","powerOffArea":"110kV虹桥变:长岭R177线-竹坞支线跌落式熔断器后段","powerOffReason":"竹坞支线0号杆熔丝具换开关 原停电结束时间为2019-12-20 14:00:00,因XXX原因,现变更停电结束时间为2019-12-20 15:00:00","powerOffId":"2019121931020318"},{"poweroffId":2019121931020315,"sgpoweroffId":null,"subsName":"","lineName":"10kV东山V153线","pubTranName":"夏禹桥村[海家水库]公变,周江震,临安森伟电缆有限公司1#,临安易行电缆材料厂,杭州华昊铝箔有限公司1#,临安鸿成电讯材料有限公司1#,临安万士达涂料有限公司1#,陈海华,","scope":"浙江省杭州市临安区玲珑街道夏禹桥行政村海家坞自然村;夏禹桥行政村(杭州森伟电缆有限公司,杭州临安万士达涂料有限公司,周江震,陈海华,杭州鸿成科技有限公司,临安易行电缆材料厂)一带","startTime":"2019-12-28 17:00:00","stopDate":"2019-12-28 17:30:00","orgNo":"3340160","typeCode":"计划停电","poweroffArea":"110kV夏禹变:东山V153线-双丰橡塑分线开关后段","poweroffReason":"发电车撤出","powerTime":"2019-12-28 17:20:40","powerComm":"已送电","subsNo":"","lineNo":"","tgNo":"","tgName":null,"infoStatus":"1","orgName":"国网浙江临安市供电公司","typeName":null,"infoStatusName":null,"dateDay":null,"orgNos":null,"nowTime":null,"countyName":null,"streetName":null,"villageName":null,"roadName":null,"communityName":null,"tranName":null,"sdLineName":null,"cityCode":"3340160","cityName":"国网浙江临安市供电公司","provinceCode":null,"stopTime":"2019-12-28 17:30:00","powerType":"全部","powerOffArea":"110kV夏禹变:东山V153线-双丰橡塑分线开关后段","powerOffReason":"发电车撤出","powerOffId":"2019121931020315"},{"poweroffId":2019121931020314,"sgpoweroffId":null,"subsName":"","lineName":"10kV东山V153线","pubTranName":"杭州华迪电缆有限公司,临安市康乐泉太阳能热水器厂,","scope":"浙江省杭州市临安区玲珑街道夏禹桥行政村(杭州华迪电缆有限公司,临安市康乐泉太阳能热水器厂)一带","startTime":"2019-12-28 08:40:00","stopDate":"2019-12-28 17:30:00","orgNo":"3340160","typeCode":"计划停电","poweroffArea":"110kV夏禹变:东山V153线首端，1533开关，1534开关，双丰橡塑分线开关之间","poweroffReason":"线路移位","powerTime":"2019-12-28 17:20:30","powerComm":"已送电","subsNo":"","lineNo":"","tgNo":"","tgName":null,"infoStatus":"1","orgName":"国网浙江临安市供电公司","typeName":null,"infoStatusName":null,"dateDay":null,"orgNos":null,"nowTime":null,"countyName":null,"streetName":null,"villageName":null,"roadName":null,"communityName":null,"tranName":null,"sdLineName":null,"cityCode":"3340160","cityName":"国网浙江临安市供电公司","provinceCode":null,"stopTime":"2019-12-28 17:30:00","powerType":"全部","powerOffArea":"110kV夏禹变:东山V153线首端，1533开关，1534开关，双丰橡塑分线开关之间","powerOffReason":"线路移位","powerOffId":"2019121931020314"},{"poweroffId":2019121931020313,"sgpoweroffId":null,"subsName":"","lineName":"10kV东山V153线","pubTranName":"夏禹桥村[海家坞]公变,","scope":"浙江省杭州市临安区玲珑街道夏禹桥行政村(海家坞自然村,夏禹桥自然村)一带","startTime":"2019-12-28 07:30:00","stopDate":"2019-12-28 17:30:00","orgNo":"3340160","typeCode":"计划停电","poweroffArea":"110kV夏禹变:东山V153线-夏禹桥村[海家坞]公变后段","poweroffReason":"线路移位","powerTime":"2019-12-28 17:20:21","powerComm":"已送电","subsNo":"","lineNo":"","tgNo":"","tgName":null,"infoStatus":"1","orgName":"国网浙江临安市供电公司","typeName":null,"infoStatusName":null,"dateDay":null,"orgNos":null,"nowTime":null,"countyName":null,"streetName":null,"villageName":null,"roadName":null,"communityName":null,"tranName":null,"sdLineName":null,"cityCode":"3340160","cityName":"国网浙江临安市供电公司","provinceCode":null,"stopTime":"2019-12-28 17:30:00","powerType":"全部","powerOffArea":"110kV夏禹变:东山V153线-夏禹桥村[海家坞]公变后段","powerOffReason":"线路移位","powerOffId":"2019121931020313"},{"poweroffId":2019121931020312,"sgpoweroffId":null,"subsName":"","lineName":"10kV庆仙V853线","pubTranName":"1#,杭州盘龙塑业有限公司,杭州临安东胜碎石有限公司2#,杭州临安东胜碎石有限公司1#,浙江东卓线缆有限公司,","scope":"浙江省杭州市临安区玲珑街道夏禹桥行政村(杭州临安东胜碎石有限公司,浙江东卓线缆有限公司,临安锦玲线缆有限公司,杭州日顺塑业有限公司)一带","startTime":"2019-12-28 17:00:00","stopDate":"2019-12-28 17:30:00","orgNo":"3340160","typeCode":"计划停电","poweroffArea":"110kV夏禹变:庆仙V853线-东卓线缆分线1#开关后段","poweroffReason":"发电车撤出","powerTime":"2019-12-28 17:20:11","powerComm":"已送电","subsNo":"","lineNo":"","tgNo":"","tgName":null,"infoStatus":"1","orgName":"国网浙江临安市供电公司","typeName":null,"infoStatusName":null,"dateDay":null,"orgNos":null,"nowTime":null,"countyName":null,"streetName":null,"villageName":null,"roadName":null,"communityName":null,"tranName":null,"sdLineName":null,"cityCode":"3340160","cityName":"国网浙江临安市供电公司","provinceCode":null,"stopTime":"2019-12-28 17:30:00","powerType":"全部","powerOffArea":"110kV夏禹变:庆仙V853线-东卓线缆分线1#开关后段","powerOffReason":"发电车撤出","powerOffId":"2019121931020312"},{"poweroffId":2019121931020311,"sgpoweroffId":null,"subsName":"","lineName":"10kV庆仙V853线","pubTranName":"杭州盘龙塑业有限公司,杭州临安东胜碎石有限公司2#,1#,浙江东卓线缆有限公司,杭州临安东胜碎石有限公司1#,","scope":"浙江省杭州市临安区玲珑街道玲珑街道夏禹桥行政村(杭州临安东胜碎石有限公司,浙江东卓线缆有限公司,临安锦玲线缆有限公司,杭州日顺塑业有限公司)一带","startTime":"2019-12-28 07:50:00","stopDate":"2019-12-28 08:10:00","orgNo":"3340160","typeCode":"计划停电","poweroffArea":"110kV夏禹变:庆仙V853线-东卓线缆分线1#开关后段","poweroffReason":"发电车接入","powerTime":"2019-12-28 08:00:19","powerComm":"已送电","subsNo":"","lineNo":"","tgNo":"","tgName":null,"infoStatus":"1","orgName":"国网浙江临安市供电公司","typeName":null,"infoStatusName":null,"dateDay":null,"orgNos":null,"nowTime":null,"countyName":null,"streetName":null,"villageName":null,"roadName":null,"communityName":null,"tranName":null,"sdLineName":null,"cityCode":"3340160","cityName":"国网浙江临安市供电公司","provinceCode":null,"stopTime":"2019-12-28 08:10:00","powerType":"全部","powerOffArea":"110kV夏禹变:庆仙V853线-东卓线缆分线1#开关后段","powerOffReason":"发电车接入","powerOffId":"2019121931020311"}],"pageModel":{"pageNow":683,"totalCount":17789,"totalPage":1779,"tableRows":0,"pageCount":10,"beginCount":6820},"isExperi":"1"}