{"message":"","today":"2020-06-15","seleList":[{"poweroffId":2020053031020057,"sgpoweroffId":null,"subsName":"","lineName":"10kV东桦6325线","pubTranName":"水文,构件,白茅湖,轮渡,军码,华安,后江三,绕高,杭交施,老沙,路桥施,白茅,排涝,白茅三,船厂(二),排涝,汽渡,白茅二,新渡埠,老村,老沙二,左中右七,","scope":"浙江省-杭州市-西湖区-转塘街道-石龙山社区-石龙山村道,双浦镇(老沙行政村-村道,新浦沿行政村-新浦沿,湖埠行政村-湖埠村道,下羊行政村-下杨村道,兰溪口行政村-兰溪口村道,三阳行政村-三阳村道,外张行政村-外张村道,东江嘴行政村-东江嘴村道,新沙社区-新沙村道,袁家浦社区-袁浦街,杭富行政村-杭富村道);双浦镇-外张行政村(杭州华安电热器具有限公司,杭州天罡五金工具厂,杭州市市政设施发展中心,浙江省水文局,浙江左中右电动汽车服务有限公司),双浦镇(新渡埠排涝站,杭州市西湖区排灌设施管理服务站,东江嘴行政村-东风大队（袁浦东江嘴村）,杭州国益路桥经营管理有限公司,之江轮渡有限公司)","startTime":"2020-05-30 06:31:35","stopDate":"2020-05-30 09:20:35","orgNo":"3340101","typeCode":"电网故障停限电","poweroffArea":"110kV转塘变:东桦6325线","poweroffReason":"高压开关跳闸 原停电结束时间为2020-05-30 10:31:35,为减少客户停电时间,加快工作进度,提前送电,现变更停电结束时间为2020-05-30 09:20:35","powerTime":"2020-05-30 08:25:19","powerComm":"已送电","subsNo":"","lineNo":"","tgNo":"","tgName":null,"infoStatus":"1","orgName":"浙江杭州电力客户服务中心","typeName":null,"infoStatusName":null,"dateDay":null,"orgNos":null,"nowTime":null,"countyName":null,"streetName":null,"villageName":null,"roadName":null,"communityName":null,"tranName":null,"sdLineName":null,"cityCode":"3340101","cityName":"浙江杭州电力客户服务中心","provinceCode":null,"stopTime":"2020-05-30 09:20:35","powerType":"全部","powerOffArea":"110kV转塘变:东桦6325线","powerOffReason":"高压开关跳闸 原停电结束时间为2020-05-30 10:31:35,为减少客户停电时间,加快工作进度,提前送电,现变更停电结束时间为2020-05-30 09:20:35","powerOffId":"2020053031020057"},{"poweroffId":2020053031020044,"sgpoweroffId":null,"subsName":"","lineName":"10kV萧崇C819线","pubTranName":"自来水公司2#,金家埭社区2#公变,金家埭社区5#公变,金家埭社区4#公变,","scope":"浙江省-杭州市-萧山区-蜀山街道-金家埭社区(金家埭自然村,崇化路);城厢街道-杭州萧山供水有限公司一带","startTime":"2020-05-30 06:02:00","stopDate":"2020-05-30 07:10:00","orgNo":"3340130","typeCode":"电网故障停限电","poweroffArea":"110kV萧山变:萧崇C819线黄家分支开桥南分支开关后段","poweroffReason":"高压熔断器短路故障 原停电结束时间为2020-05-30 09:02:00,为减少客户停电时间,加快工作进度,提前送电,现变更停电结束时间为2020-05-30 07:10:00","powerTime":"2020-05-30 06:21:51","powerComm":"已送电","subsNo":"","lineNo":"","tgNo":"","tgName":null,"infoStatus":"1","orgName":"国网浙江杭州市萧山区供电有限公司","typeName":null,"infoStatusName":null,"dateDay":null,"orgNos":null,"nowTime":null,"countyName":null,"streetName":null,"villageName":null,"roadName":null,"communityName":null,"tranName":null,"sdLineName":null,"cityCode":"3340130","cityName":"国网浙江杭州市萧山区供电有限公司","provinceCode":null,"stopTime":"2020-05-30 07:10:00","powerType":"全部","powerOffArea":"110kV萧山变:萧崇C819线黄家分支开桥南分支开关后段","powerOffReason":"高压熔断器短路故障 原停电结束时间为2020-05-30 09:02:00,为减少客户停电时间,加快工作进度,提前送电,现变更停电结束时间为2020-05-30 07:10:00","powerOffId":"2020053031020044"},{"poweroffId":2020053031020041,"sgpoweroffId":null,"subsName":"","lineName":"10kV凤潭Y340线","pubTranName":"乾潭村东源台区,乾潭村北坝台区,乾潭村坪滩台区,浙江建德富春江国家森林公园旅游有限公司,安仁村荻州台区,安仁村高坪台区,长棋坞,韩家坞,乾潭村七星坞台区,王岩村王家台区,浙江建德富春江国家森林公园旅游有限公司,乾潭村练上台区,乾潭村西源台区,","scope":"浙江省-杭州市-建德市-乾潭镇-乾潭行政村(东源自然村,北坝自然村,七星坞自然村,江南坞自然村),乾潭镇-王岩行政村(杨家自然村,王家自然村),乾潭镇-安仁行政村(荻州自然村,高山坪自然村);乾潭镇(建德市建德林场,建德市江南秘境旅游发展有限公司)","startTime":"2020-05-30 05:54:00","stopDate":"2020-05-30 09:10:00","orgNo":"3340180","typeCode":"电网故障停限电","poweroffArea":"110kV钦堂变:凤潭Y340线长坑支线1#杆开关后段","poweroffReason":"高压开关跳闸 原停电结束时间为2020-05-30 13:00:00,为减少客户停电时间,加快工作进度,提前送电,现变更停电结束时间为2020-05-30 09:10:00","powerTime":"2020-05-30 08:27:33","powerComm":"已送电","subsNo":"","lineNo":"","tgNo":"","tgName":null,"infoStatus":"1","orgName":"国网浙江建德市供电有限公司","typeName":null,"infoStatusName":null,"dateDay":null,"orgNos":null,"nowTime":null,"countyName":null,"streetName":null,"villageName":null,"roadName":null,"communityName":null,"tranName":null,"sdLineName":null,"cityCode":"3340180","cityName":"国网浙江建德市供电有限公司","provinceCode":null,"stopTime":"2020-05-30 09:10:00","powerType":"全部","powerOffArea":"110kV钦堂变:凤潭Y340线长坑支线1#杆开关后段","powerOffReason":"高压开关跳闸 原停电结束时间为2020-05-30 13:00:00,为减少客户停电时间,加快工作进度,提前送电,现变更停电结束时间为2020-05-30 09:10:00","powerOffId":"2020053031020041"},{"poweroffId":2020053031020038,"sgpoweroffId":null,"subsName":"","lineName":"10kV南兴A804线","pubTranName":"南翔村17#变,","scope":"浙江省-杭州市-萧山区-南阳街道-南翔行政村(万丰自然村,南翔自然村)等","startTime":"2020-05-30 05:02:55","stopDate":"2020-05-30 16:58:55","orgNo":"3340130","typeCode":"电网故障停限电","poweroffArea":"110kV黎明变:南兴A804线-南翔村17#变后段","poweroffReason":"(低压停电信息)低压开关跳闸 原停电结束时间为2020-05-30 12:58:55,因工作强度大的原因,延迟送电,现变更停电结束时间为2020-05-30 16:58:55","powerTime":"2020-05-30 16:01:50","powerComm":"已送电","subsNo":"","lineNo":"","tgNo":"","tgName":null,"infoStatus":"1","orgName":"国网浙江杭州市萧山区供电有限公司","typeName":null,"infoStatusName":null,"dateDay":null,"orgNos":null,"nowTime":null,"countyName":null,"streetName":null,"villageName":null,"roadName":null,"communityName":null,"tranName":null,"sdLineName":null,"cityCode":"3340130","cityName":"国网浙江杭州市萧山区供电有限公司","provinceCode":null,"stopTime":"2020-05-30 16:58:55","powerType":"全部","powerOffArea":"110kV黎明变:南兴A804线-南翔村17#变后段","powerOffReason":"(低压停电信息)低压开关跳闸 原停电结束时间为2020-05-30 12:58:55,因工作强度大的原因,延迟送电,现变更停电结束时间为2020-05-30 16:58:55","powerOffId":"2020053031020038"},{"poweroffId":2020053031020037,"sgpoweroffId":null,"subsName":"","lineName":"10kV周袁6594线","pubTranName":"农业,敬老院,五间,利夏,浦东,小叔房农,焊接,珏虎,浦中三,袁家浦农四,袁家浦农五,","scope":"浙江省-杭州市-西湖区-双浦镇-小叔房行政村(小叔房村道,小叔房),双浦镇-袁家浦社区(袁浦街,袁家浦);双浦镇(杭州利亚工贸有限公司,杭州市西湖区双浦镇袁浦农村五保供养服务中心,杭州钰虎机电设备有限公司,杭州市国土资源局西湖分局第三管理所,杭州西湖焊接设备有限公司)","startTime":"2020-05-30 05:02:00","stopDate":"2020-05-30 09:02:00","orgNo":"3340101","typeCode":"电网故障停限电","poweroffArea":"110kV周浦变:周袁6594线1080后段","poweroffReason":"高压开关跳闸 原停电结束时间为2020-05-30 11:02:00,为减少客户停电时间,加快工作进度,提前送电,现变更停电结束时间为2020-05-30 09:02:00","powerTime":"2020-05-30 08:32:29","powerComm":"已送电","subsNo":"","lineNo":"","tgNo":"","tgName":null,"infoStatus":"1","orgName":"浙江杭州电力客户服务中心","typeName":null,"infoStatusName":null,"dateDay":null,"orgNos":null,"nowTime":null,"countyName":null,"streetName":null,"villageName":null,"roadName":null,"communityName":null,"tranName":null,"sdLineName":null,"cityCode":"3340101","cityName":"浙江杭州电力客户服务中心","provinceCode":null,"stopTime":"2020-05-30 09:02:00","powerType":"全部","powerOffArea":"110kV周浦变:周袁6594线1080后段","powerOffReason":"高压开关跳闸 原停电结束时间为2020-05-30 11:02:00,为减少客户停电时间,加快工作进度,提前送电,现变更停电结束时间为2020-05-30 09:02:00","powerOffId":"2020053031020037"},{"poweroffId":2020053031020034,"sgpoweroffId":null,"subsName":"","lineName":"10kV周袁6594线","pubTranName":"浦东二,","scope":"浙江省-杭州市-西湖区-双浦镇-小叔房行政村-小叔房村道","startTime":"2020-05-30 05:00:00","stopDate":"2020-05-30 09:20:00","orgNo":"3340101","typeCode":"电网故障停限电","poweroffArea":"110kV周浦变:周袁6594线浦东二配变","poweroffReason":"高压开关跳闸 原停电结束时间为2020-05-30 11:00:00,为减少客户停电时间,加快工作进度,提前送电,现变更停电结束时间为2020-05-30 09:20:00","powerTime":"2020-05-30 08:30:46","powerComm":"已送电","subsNo":"","lineNo":"","tgNo":"","tgName":null,"infoStatus":"1","orgName":"浙江杭州电力客户服务中心","typeName":null,"infoStatusName":null,"dateDay":null,"orgNos":null,"nowTime":null,"countyName":null,"streetName":null,"villageName":null,"roadName":null,"communityName":null,"tranName":null,"sdLineName":null,"cityCode":"3340101","cityName":"浙江杭州电力客户服务中心","provinceCode":null,"stopTime":"2020-05-30 09:20:00","powerType":"全部","powerOffArea":"110kV周浦变:周袁6594线浦东二配变","powerOffReason":"高压开关跳闸 原停电结束时间为2020-05-30 11:00:00,为减少客户停电时间,加快工作进度,提前送电,现变更停电结束时间为2020-05-30 09:20:00","powerOffId":"2020053031020034"},{"poweroffId":2020053031020033,"sgpoweroffId":null,"subsName":"","lineName":"10kV周袁6594线","pubTranName":"浦东,五间,宏达制钉,","scope":"浙江省-杭州市-西湖区-双浦镇-小叔房行政村(小叔房村道,小叔房);双浦镇-杭州雄魁塑胶科技有限公司","startTime":"2020-05-30 04:57:00","stopDate":"2020-05-30 09:20:00","orgNo":"3340101","typeCode":"电网故障停限电","poweroffArea":"110kV周浦变:周袁6594线1055后段","poweroffReason":"高压开关跳闸 原停电结束时间为2020-05-30 10:57:00,为减少客户停电时间,加快工作进度,提前送电,现变更停电结束时间为2020-05-30 09:20:00","powerTime":"2020-05-30 08:32:00","powerComm":"已送电","subsNo":"","lineNo":"","tgNo":"","tgName":null,"infoStatus":"1","orgName":"浙江杭州电力客户服务中心","typeName":null,"infoStatusName":null,"dateDay":null,"orgNos":null,"nowTime":null,"countyName":null,"streetName":null,"villageName":null,"roadName":null,"communityName":null,"tranName":null,"sdLineName":null,"cityCode":"3340101","cityName":"浙江杭州电力客户服务中心","provinceCode":null,"stopTime":"2020-05-30 09:20:00","powerType":"全部","powerOffArea":"110kV周浦变:周袁6594线1055后段","powerOffReason":"高压开关跳闸 原停电结束时间为2020-05-30 10:57:00,为减少客户停电时间,加快工作进度,提前送电,现变更停电结束时间为2020-05-30 09:20:00","powerOffId":"2020053031020033"},{"poweroffId":2020053031020032,"sgpoweroffId":null,"subsName":"","lineName":"10kV东桦6325线","pubTranName":"华安,白茅湖,东清三,后江,郑家,江养,白茅,白茅三,许家,打鸟陈,岚欣,汽渡,万乐,许家二,水文,东赵二,东江嘴五,后江二,杭港,新渡埠,排涝,东清二,东小,后塘屋二,旧黄浦,构件,黄家二,白茅湖,东清,船厂(二),后江三,浦沙施,海舟,军码,后江四,东江嘴八,老盘头二,新盘头二,老燃泵,杭交施,胜利二,后塘屋,排涝,2#变,天池灯,华家,赵家五,老沙二,老村,郑家二,东江嘴四,1#变,外张三,左中右七,后塘屋三,胜利三,新盘头,东江赵,胜利,白茅二,五桥,旧黄浦二,老盘头,轮渡,绕高,华家二,黄家,老沙,","scope":"浙江省-杭州市-西湖区-转塘街道(石龙山社区-石龙山村道,美院社区-320国道,桕联社区-桕联村道),双浦镇(东江嘴行政村-东江嘴村道,外张行政村-外张村道,老沙行政村-村道,新浦沿行政村-新浦沿,湖埠行政村-湖埠村道,下羊行政村-下杨村道,兰溪口行政村-兰溪口村道,三阳行政村-三阳村道,吴家行政村-吴家村道,麦岭沙社区-麦岭沙村道,小叔房行政村-小叔房村道,新沙社区-新沙村道,袁家浦社区-袁浦街,杭富行政村-杭富村道,龙池行政村-龙池村道);浙江省-杭州市-西湖区-转塘街道-龙王沙社区-杭州市路灯管理所,双浦镇-东江嘴行政村(杭州江洲养殖有限公司,东风大队（袁浦东江嘴村）,杭州国益路桥经营管理有限公司,浙江海舟船舶制造有限公司,杭州龙港水产养殖有限公司,杭州万乐电力器材有限公司),双浦镇-外张行政村(杭州华安电热器具有限公司,杭州天罡五金工具厂,杭州市市政设施发展中心,浙江省水文局,浙江左中右电动汽车服务有限公司,杭州天然气有限公司),双浦镇(新渡埠排涝站,杭州市双浦镇人民政府,杭州市西湖区排灌设施管理服务站,杭州国益路桥经营管理有限公司,之江轮渡有限公司,杭州市河道管理总站)","startTime":"2020-05-30 04:50:00","stopDate":"2020-05-30 07:30:00","orgNo":"3340101","typeCode":"电网故障停限电","poweroffArea":"110kV转塘变:东桦6325线1085后段","poweroffReason":"高压开关跳闸 原停电结束时间为2020-05-30 08:50:00,为减少客户停电时间,加快工作进度,提前送电,现变更停电结束时间为2020-05-30 07:30:00","powerTime":"2020-05-30 06:41:44","powerComm":"已送电","subsNo":"","lineNo":"","tgNo":"","tgName":null,"infoStatus":"1","orgName":"浙江杭州电力客户服务中心","typeName":null,"infoStatusName":null,"dateDay":null,"orgNos":null,"nowTime":null,"countyName":null,"streetName":null,"villageName":null,"roadName":null,"communityName":null,"tranName":null,"sdLineName":null,"cityCode":"3340101","cityName":"浙江杭州电力客户服务中心","provinceCode":null,"stopTime":"2020-05-30 07:30:00","powerType":"全部","powerOffArea":"110kV转塘变:东桦6325线1085后段","powerOffReason":"高压开关跳闸 原停电结束时间为2020-05-30 08:50:00,为减少客户停电时间,加快工作进度,提前送电,现变更停电结束时间为2020-05-30 07:30:00","powerOffId":"2020053031020032"},{"poweroffId":2020053031020027,"sgpoweroffId":null,"subsName":"","lineName":"10kV萧崇C819线","pubTranName":"金家埭社区4#公变,","scope":"浙江省-杭州市-萧山区-蜀山街道-金家埭社区-金家埭自然村一带","startTime":"2020-05-30 04:01:00","stopDate":"2020-05-30 05:30:00","orgNo":"3340130","typeCode":"电网故障停限电","poweroffArea":"110kV萧山变:萧崇C819线金家埭村配变开关后段","poweroffReason":"高压跌落式熔断器短路故障 原停电结束时间为2020-05-30 07:01:00,为减少客户停电时间,加快工作进度,提前送电,现变更停电结束时间为2020-05-30 05:30:00","powerTime":"2020-05-30 04:49:48","powerComm":"已送电","subsNo":"","lineNo":"","tgNo":"","tgName":null,"infoStatus":"1","orgName":"国网浙江杭州市萧山区供电有限公司","typeName":null,"infoStatusName":null,"dateDay":null,"orgNos":null,"nowTime":null,"countyName":null,"streetName":null,"villageName":null,"roadName":null,"communityName":null,"tranName":null,"sdLineName":null,"cityCode":"3340130","cityName":"国网浙江杭州市萧山区供电有限公司","provinceCode":null,"stopTime":"2020-05-30 05:30:00","powerType":"全部","powerOffArea":"110kV萧山变:萧崇C819线金家埭村配变开关后段","powerOffReason":"高压跌落式熔断器短路故障 原停电结束时间为2020-05-30 07:01:00,为减少客户停电时间,加快工作进度,提前送电,现变更停电结束时间为2020-05-30 05:30:00","powerOffId":"2020053031020027"},{"poweroffId":2020053031020024,"sgpoweroffId":null,"subsName":"","lineName":"10kV婴港7309线","pubTranName":"三新(3),","scope":"浙江省-杭州市-拱墅区-小河街道-董家新村社区-莫干山路","startTime":"2020-05-30 03:11:13","stopDate":"2020-05-30 11:11:13","orgNo":"3340101","typeCode":"电网故障停限电","poweroffArea":"220kV登云变:婴港7309线-娑余73093线后段","poweroffReason":"高压开关跳闸 原停电结束时间为2020-05-30 08:11:13,因施工现场环境比较复杂，存在不确定因素，因此预估施工时间不足原因,延迟送电,现变更停电结束时间为2020-05-30 11:11:13","powerTime":"2020-05-30 10:42:22","powerComm":"已送电","subsNo":"","lineNo":"","tgNo":"","tgName":null,"infoStatus":"1","orgName":"浙江杭州电力客户服务中心","typeName":null,"infoStatusName":null,"dateDay":null,"orgNos":null,"nowTime":null,"countyName":null,"streetName":null,"villageName":null,"roadName":null,"communityName":null,"tranName":null,"sdLineName":null,"cityCode":"3340101","cityName":"浙江杭州电力客户服务中心","provinceCode":null,"stopTime":"2020-05-30 11:11:13","powerType":"全部","powerOffArea":"220kV登云变:婴港7309线-娑余73093线后段","powerOffReason":"高压开关跳闸 原停电结束时间为2020-05-30 08:11:13,因施工现场环境比较复杂，存在不确定因素，因此预估施工时间不足原因,延迟送电,现变更停电结束时间为2020-05-30 11:11:13","powerOffId":"2020053031020024"}],"pageModel":{"pageNow":68,"totalCount":17786,"totalPage":1779,"tableRows":0,"pageCount":10,"beginCount":670},"isExperi":"1"}