{"message":"","today":"2020-06-15","seleList":[{"poweroffId":2020061431020264,"sgpoweroffId":null,"subsName":"","lineName":"10kV维城G118线","pubTranName":"梧桐蓝山8号公变,杭州市余杭区临平第三幼儿园61209149782#变压器,约克郡18号公变,杭州余杭公交场站管理有限公司,梧桐蓝山7号公变,风华苑8号公变,康城9号公变,1,梧桐蓝山18号公变,梧桐蓝山10号公变,环卫所,康城10号公变,绿城物业服务集团有限公司余杭分公司2#,梧桐蓝山9号公变,康城国际A区3号公变,约克郡16号公变,康城国际A区4号公变,城建西安立交路灯变,康城7号公变,康城5号公变,梧桐蓝山17号公变,梧桐蓝山4#专变,西安东升公变,约克郡14号公变,约克郡15号公变,I段专变,约克郡20号公变,约克郡11号公变,余杭区疾病预防控制中心2#,杭州市余杭区临平第三幼儿园61209149781#变压器,康城8号公变,约克郡19号公变,风华苑5号公变,良熟农居点公变,梧桐蓝山20号公变,城建商务楼II段2#专变,风华苑7号公变,约克郡12号公变,康城国际A区2号公变,梧桐蓝山19号公变,梧桐蓝山2#专变,杭州理想四维物业管理有限公司2#,约克郡17号公变,城建商务楼II段1#专变,2#,风华苑6号公变,康城11号公变,康城6号公变,4#,康城国际A区1号公变,货物运输配载中心,康城12号公变,约克郡13号公变,梧桐蓝山6#专变,杭州溢盈制衣,","scope":"浙江省-杭州市-余杭区-乔司街道-良熟行政村-良熟,南苑街道-西安社区(西安,世纪大道,人民大道南侧,红枫南路,世纪大道西),南苑街道-水景社区(水景,梧桐蓝山花苑小区,世纪大道西),南苑街道(新丰社区-新丰,新城社区-世纪大道,康城社区-康城国际花园小区);浙江省-杭州市-余杭区-乔司街道-良熟行政村-杭州市余杭区机关事务管理局,南苑街道-保障桥社区(杭州力拓机械有限公司,杭州市余杭区临平第三幼儿园),南苑街道-西安社区(杭州市余杭区城市管理综合行政执法局,绿城物业服务集团有限公司杭州第六分公司,杭州市余杭区临平环境卫生管理所,杭州市余杭区临平第一中学,杭州理想四维物业管理有限公司),南苑街道(苏家社区-杭州余杭货物运输配载服务中心,时代社区-余杭区疾病预防控制中心,新城社区-杭州余杭公交场站管理有限公司)","startTime":"2020-06-14 18:39:50","stopDate":"2020-06-14 20:39:50","orgNo":"3340140","typeCode":"电网故障停限电","poweroffArea":"110kV临平变:维城G118线","poweroffReason":"高压开关跳闸","powerTime":"2020-06-14 20:36:45","powerComm":"已送电","subsNo":"","lineNo":"","tgNo":"","tgName":null,"infoStatus":"1","orgName":"国网浙江杭州市余杭区供电有限公司","typeName":null,"infoStatusName":null,"dateDay":null,"orgNos":null,"nowTime":null,"countyName":null,"streetName":null,"villageName":null,"roadName":null,"communityName":null,"tranName":null,"sdLineName":null,"cityCode":"3340140","cityName":"国网浙江杭州市余杭区供电有限公司","provinceCode":null,"stopTime":"2020-06-14 20:39:50","powerType":"全部","powerOffArea":"110kV临平变:维城G118线","powerOffReason":"高压开关跳闸","powerOffId":"2020061431020264"},{"poweroffId":2020061431020223,"sgpoweroffId":null,"subsName":"","lineName":"10kV利民D241线","pubTranName":"浙江省第一水电建设集团股份有限公司 1#,杭州富阳水利建设投资有限公司 1#,小沙村7号公园公变,小沙村2号南公变,杭州富阳水利建设投资有限公司 2#,","scope":"浙江省-杭州市-富阳区-东洲街道-富春江行政村-小沙自然村;东洲街道-富春江行政村(杭州富阳水利建设投资有限公司,浙江省第一水电建设集团股份有限公司)","startTime":"2020-06-14 16:38:37","stopDate":"2020-06-14 18:38:37","orgNo":"3340170","typeCode":"电网故障停限电","poweroffArea":"110kV白鹤变:利民D241线-煤场分线后段","poweroffReason":"高压开关跳闸","powerTime":"2020-06-14 18:10:03","powerComm":"已送电","subsNo":"","lineNo":"","tgNo":"","tgName":null,"infoStatus":"1","orgName":"国网浙江杭州市富阳区供电公司","typeName":null,"infoStatusName":null,"dateDay":null,"orgNos":null,"nowTime":null,"countyName":null,"streetName":null,"villageName":null,"roadName":null,"communityName":null,"tranName":null,"sdLineName":null,"cityCode":"3340170","cityName":"国网浙江杭州市富阳区供电公司","provinceCode":null,"stopTime":"2020-06-14 18:38:37","powerType":"全部","powerOffArea":"110kV白鹤变:利民D241线-煤场分线后段","powerOffReason":"高压开关跳闸","powerOffId":"2020061431020223"},{"poweroffId":2020061431020176,"sgpoweroffId":null,"subsName":"","lineName":"10kV永科H843线","pubTranName":"浙一医院1#基建变,浙一医院6#基建变,浙一医院2#基建变,浙一医院4#基建变,朱庙村杨清桥公变,","scope":"浙江省-杭州市-余杭区-仓前街道-朱庙行政村-朱庙前自然村;仓前街道-浙江大学医学院附属第一医院","startTime":"2020-06-14 14:40:00","stopDate":"2020-06-14 16:34:00","orgNo":"3340140","typeCode":"电网故障停限电","poweroffArea":"110kV永乐变:永科H843线杨桥环网站杨邵7871线后段","poweroffReason":"高压开关跳闸","powerTime":"2020-06-14 15:47:48","powerComm":"已送电","subsNo":"","lineNo":"","tgNo":"","tgName":null,"infoStatus":"1","orgName":"国网浙江杭州市余杭区供电有限公司","typeName":null,"infoStatusName":null,"dateDay":null,"orgNos":null,"nowTime":null,"countyName":null,"streetName":null,"villageName":null,"roadName":null,"communityName":null,"tranName":null,"sdLineName":null,"cityCode":"3340140","cityName":"国网浙江杭州市余杭区供电有限公司","provinceCode":null,"stopTime":"2020-06-14 16:34:00","powerType":"全部","powerOffArea":"110kV永乐变:永科H843线杨桥环网站杨邵7871线后段","powerOffReason":"高压开关跳闸","powerOffId":"2020061431020176"},{"poweroffId":2020061431020173,"sgpoweroffId":null,"subsName":"","lineName":"10kV宝地H609线","pubTranName":"杭临轨道凤新路站基建3#变,盐业公司,梅家桥2-2号公变,梅家桥1-2号公变,星望置业3#基建变,腾达建设集团股份有限公司（6120917319）5#专变,上仓路路灯变,嘉合基建变,金星农居点基建2#变,城西粮贸公变,环境卫生管理站（6120068086）2#专变,中铁新上基建变1#,金沙公寓公变,腾达建设集团股份有限公司（6120917319）6#专变,梅家桥4-1号公变,深川控股基建变,港郦置业基建1#变,地铁5号线金星站基建2#变,港郦置业基建2#变,华坞村杨家山公变,中交二航箱式变2,瑞城房产,梅家桥3-2公变,梅家桥3-2号公变,伊莱阁,余杭中学(1),杭州余杭交通广告有限公司,杭临轨道凤新路站基建1#,金星股份合作社,华坞村姚家公变,腾达建设集团股份有限公司（6120917319）3#专变,余杭自来水厂,凤新东路路灯变,金星农居点基建6#变,腾达建设集团股份有限公司（6120917319）2#专变,金星农居点基建1#变,第二幼儿园,星达置业基建变,欣龙华府2号公变,欣龙华府1号公变,杭州未来科技城建设有限公司,15省道6#路灯变,华坞村龙安桥公变,梅家桥2-1公变,中铁新上基建变2#,凤凰小学城东校区,余杭中心卫生院,余杭国税,环境卫生管理站（6120068086）1#专变,瑞城花园(3)临时,瑞城花园(1)临时,梅家桥3-1号公变,余杭中学(2),金星农居点基建3#变,梅家桥2-2公变,1#,中交二航杆上变,星望置业2#基建变,杭州余杭区余杭街道冯梅仙水泥制品厂,金星农居点5#基建变,金沙公寓2号公变,珠美鞋业,金星农居点基建4#变,法院基建变,梅家桥3-1公变,腾达建设集团股份有限公司（6120917319）1#专变,凤凰小学（城东校区）,金星村姚家畈公变,梅家桥2-1号公变,人工智能小镇宿舍用电,梅家桥1-1号公变,中石油,余杭镇政府,梅家桥4-2号公变,中石油供能站公变,余杭街道建管中心金星农居点7#基建变,余杭街道建管中心金星农居点8#基建变,凯超机械,金斯敦酒店2#,瑞城花园(2)临时,桃源变所用,隧道杨家山,亲和力餐饮,宝塔村月荷池公变,腾达建设集团股份有限公司（6120917319）4#专变,杭州迪电新能源科技有限公司（6120910487）1#专变,欣龙华府3号公变,","scope":"浙江省-杭州市-余杭区-余杭街道-上文山社区-东西大道,余杭街道-宝塔行政村(狮山路,宝塔自然村),余杭街道-华坞行政村(东西大道,华坞自然村),余杭街道-金星行政村(文一西路,梅家桥自然村,中心路),余杭街道-凤联社区(荆余路,城南路,凤新路);仓前街道(杭州瑞成房地产开发有限公司,杭州未来科技城建设有限公司),余杭街道(杭州伊莱阁家饰有限公司,杭州市余杭区余杭街道农民多层公寓建设管理中心,杭州港郦置业有限公司,中交第二航务工程局有限公司余杭分公司,浙江省隧道工程集团有限公司,杭州余杭区余杭街道冯梅仙水泥制品厂,杭州市余杭中学,杭州丰鑫酒店管理有限公司,杭州久久超市有限公司,杭州市余杭区余杭镇社区卫生服务中心,杭州市盐业有限公司余杭分公司,杭州中油石油天然气销售有限公司,杭州保孚汽车部件制造有限公司,杭州凯超机械设备有限公司,杭州市余杭区余杭镇人民政府,杭州余杭未来科技城供排水有限公司,国家税务总局杭州市余杭区税务局,杭州余杭金星股份经济合作社,杭州市余杭区公路管理处,杭州市余杭区苕溪幼儿园,余杭供电局,中铁隧道局集团有限公司市政工程公司,杭州余杭交通广告有限公司,中铁十一局集团城市轨道工程有限公司,浙江星望置业有限公司,浙江星达置业有限公司,杭州财源土石方工程有限公司,杭州市余杭区人民法院,杭州市余杭区人民政府余杭街道办事处,杭州嘉合置业有限公司,杭州市余杭区凤凰小学,杭州市余杭区余杭街道环境卫生管理站,杭州人工智能小镇科技发展有限公司,杭州未来科技城建设有限公司,杭州迪电新能源科技有限公司,深川控股集团有限公司)","startTime":"2020-06-14 14:33:00","stopDate":"2020-06-14 16:24:00","orgNo":"3340140","typeCode":"电网故障停限电","poweroffArea":"110kV桃源变:宝地H609线宝地H609线开关后段","poweroffReason":"高压开关跳闸","powerTime":"2020-06-14 16:22:07","powerComm":"已送电","subsNo":"","lineNo":"","tgNo":"","tgName":null,"infoStatus":"1","orgName":"国网浙江杭州市余杭区供电有限公司","typeName":null,"infoStatusName":null,"dateDay":null,"orgNos":null,"nowTime":null,"countyName":null,"streetName":null,"villageName":null,"roadName":null,"communityName":null,"tranName":null,"sdLineName":null,"cityCode":"3340140","cityName":"国网浙江杭州市余杭区供电有限公司","provinceCode":null,"stopTime":"2020-06-14 16:24:00","powerType":"全部","powerOffArea":"110kV桃源变:宝地H609线宝地H609线开关后段","powerOffReason":"高压开关跳闸","powerOffId":"2020061431020173"},{"poweroffId":2020061431020172,"sgpoweroffId":null,"subsName":"","lineName":"10kV临界G932线","pubTranName":"华融兴业投资有限公司2#,富瑞司纺织61200209242#,华融兴业投资有限公司3#,正瑞电子,新洲路路灯变,伟雅植绒新增315kVA干变,富瑞司纺织1,伟雅植绒原有315配变,喜得宝（南厂）,华融兴业3,华融兴业,华融兴业投资有限公司1#,华融兴业2,","scope":"浙江省-杭州市-余杭区-东湖街道-经济开发区-万陈社区-杭州余杭生物医药科技服务有限公司,东湖街道-红丰社区(华融兴业投资有限公司,杭州伟雅植绒有限公司),东湖街道-红旗社区(浙江喜得宝丝绸科技有限公司,杭州正瑞电子有限公司),东湖街道(胡桥行政村-杭州富瑞司纺织有限公司,工农社区-杭州余杭经济开发建设有限公司)","startTime":"2020-06-14 14:28:44","stopDate":"2020-06-14 16:28:44","orgNo":"3340140","typeCode":"电网故障停限电","poweroffArea":"110kV亭趾变:临界G932线-富瑞司纺织分线开关后段","poweroffReason":"高压开关跳闸","powerTime":"2020-06-14 15:47:23","powerComm":"已送电","subsNo":"","lineNo":"","tgNo":"","tgName":null,"infoStatus":"1","orgName":"国网浙江杭州市余杭区供电有限公司","typeName":null,"infoStatusName":null,"dateDay":null,"orgNos":null,"nowTime":null,"countyName":null,"streetName":null,"villageName":null,"roadName":null,"communityName":null,"tranName":null,"sdLineName":null,"cityCode":"3340140","cityName":"国网浙江杭州市余杭区供电有限公司","provinceCode":null,"stopTime":"2020-06-14 16:28:44","powerType":"全部","powerOffArea":"110kV亭趾变:临界G932线-富瑞司纺织分线开关后段","powerOffReason":"高压开关跳闸","powerOffId":"2020061431020172"},{"poweroffId":2020061431020168,"sgpoweroffId":null,"subsName":"","lineName":"10kV龟山G867线","pubTranName":"锦兴房地产开发（杭州）有限公司612069307703#专变,泉漳变所用公变,锦兴房地产开发（杭州）有限公司612069307502#专变,港北村光明公变,锦兴房地产开发（杭州）有限公司612069307301#专变,","scope":"浙江省-杭州市-余杭区-塘栖镇-港北行政村-港北村;浙江省-杭州市-余杭区-塘栖镇-朱家角行政村-锦兴房地产开发（杭州）有限公司","startTime":"2020-06-14 14:08:17","stopDate":"2020-06-14 16:08:17","orgNo":"3340140","typeCode":"电网故障停限电","poweroffArea":"110kV漳河变:龟山G867线-基建分线开关后段","poweroffReason":"高压开关跳闸","powerTime":"2020-06-14 15:28:00","powerComm":"已送电","subsNo":"","lineNo":"","tgNo":"","tgName":null,"infoStatus":"1","orgName":"国网浙江杭州市余杭区供电有限公司","typeName":null,"infoStatusName":null,"dateDay":null,"orgNos":null,"nowTime":null,"countyName":null,"streetName":null,"villageName":null,"roadName":null,"communityName":null,"tranName":null,"sdLineName":null,"cityCode":"3340140","cityName":"国网浙江杭州市余杭区供电有限公司","provinceCode":null,"stopTime":"2020-06-14 16:08:17","powerType":"全部","powerOffArea":"110kV漳河变:龟山G867线-基建分线开关后段","powerOffReason":"高压开关跳闸","powerOffId":"2020061431020168"},{"poweroffId":2020061431020163,"sgpoweroffId":null,"subsName":"","lineName":"10kV陈米G352线","pubTranName":"冠重机械1#,杭州高德菲斯科技有限公司2#,东风村下港公变,1#,杭州精工机械有限公司,东风村三星2号公变,威仕达机电（6120259982））2#变,东风村三星公变,冠重机械2#,东风村吴家斗公变,杭州余杭九龙股份经济合作社,2#,奉口村奉东公变,杭州威浩实业有限公司,威浩实业（6120393641）1#变,东风村永和坝公变,东风村周介坝2号公变,搏路尚新能源（6120912479）2#变,奉口村徐家角公变,奉口村南埭公变,杭州华达喷射真空设备有限公司612029418901#专变,奉口村北埭公变,东风村周介坝公变,威仕达机电（6120259982））1#变,搏路尚新能源（6120912479）1#变,杭州高德菲斯科技有限公司1#,威浩实业（6120393641）2#变,奉口村树东村公变,建达标识,东风村俞家门南公变,奉口村奉口北公变,","scope":"浙江省-杭州市-余杭区-仁和街道-奉口行政村(徐家角自然村,朱家角自然村,奉口自然村,獐湾自然村,北埭自然村,南埭自然村,奉口村树东村自然村,树东村自然村),仁和街道-东风行政村(东风村,下港自然村,余家门自然村,仲家塘自然村,吴家斗自然村,吴介斗路自然村,木桥头自然村,拥护坝自然村,范家塘自然村,永和坝自然村,张家塘自然村,张家舍自然村,管家塘自然村,三星自然村,潘家角自然村,华士角自然村,马家塘自然村,塘湾自然村,马介塘自然村,小坝儿自然村,周介坝自然村),仁和街道-洛阳行政村(洛阳桥自然村,顺水桥自然村,南庄桥自然村),仁和街道(獐山社区-和旺街,双陈行政村-计家坝自然村);浙江省-杭州市-余杭区-仁和街道-九龙行政村-浙江恒泽生态农业科技有限公司,仁和街道-东风行政村(杭州建达标识系统工程有限公司,杭州精诚三和定时器实业有限公司,杭州米格电机有限公司,杭州仁和先进制造业投资有限公司),仁和街道-奉口行政村(杭州冠重矿山机械有限公司,杭州精工机械有限公司,杭州威浩实业有限公司),仁和街道-洛阳行政村(杭州威仕达机电科技有限公司,杭州华达喷射真空设备有限公司)","startTime":"2020-06-14 13:51:00","stopDate":"2020-06-14 20:40:00","orgNo":"3340140","typeCode":"电网故障停限电","poweroffArea":"110kV洛山变:陈米G352线","poweroffReason":"高压开关跳闸 原停电结束时间为2020-06-14 19:51:00,因现场故障情况复杂,现变更停电结束时间为2020-06-14 20:40:00","powerTime":"2020-06-14 20:03:35","powerComm":"已送电","subsNo":"","lineNo":"","tgNo":"","tgName":null,"infoStatus":"1","orgName":"国网浙江杭州市余杭区供电有限公司","typeName":null,"infoStatusName":null,"dateDay":null,"orgNos":null,"nowTime":null,"countyName":null,"streetName":null,"villageName":null,"roadName":null,"communityName":null,"tranName":null,"sdLineName":null,"cityCode":"3340140","cityName":"国网浙江杭州市余杭区供电有限公司","provinceCode":null,"stopTime":"2020-06-14 20:40:00","powerType":"全部","powerOffArea":"110kV洛山变:陈米G352线","powerOffReason":"高压开关跳闸 原停电结束时间为2020-06-14 19:51:00,因现场故障情况复杂,现变更停电结束时间为2020-06-14 20:40:00","powerOffId":"2020061431020163"},{"poweroffId":2020061431020157,"sgpoweroffId":null,"subsName":"","lineName":"10kV环塘A601线","pubTranName":"金家浜社区6#变,","scope":"浙江省-杭州市-萧山区-新塘街道-金家浜社区-金家浜自然村","startTime":"2020-06-14 14:00:28","stopDate":"2020-06-14 15:10:28","orgNo":"3340130","typeCode":"电网故障停限电","poweroffArea":"110kV城东变:环塘A601线-金家浜社区6#变后段","poweroffReason":"(低压停电信息)紧急消缺 原停电结束时间为2020-06-14 16:00:28,为减少客户停电时间,加快工作进度,提前送电,现变更停电结束时间为2020-06-14 15:10:28","powerTime":"2020-06-14 14:33:42","powerComm":"已送电","subsNo":"","lineNo":"","tgNo":"","tgName":null,"infoStatus":"1","orgName":"国网浙江杭州市萧山区供电有限公司","typeName":null,"infoStatusName":null,"dateDay":null,"orgNos":null,"nowTime":null,"countyName":null,"streetName":null,"villageName":null,"roadName":null,"communityName":null,"tranName":null,"sdLineName":null,"cityCode":"3340130","cityName":"国网浙江杭州市萧山区供电有限公司","provinceCode":null,"stopTime":"2020-06-14 15:10:28","powerType":"全部","powerOffArea":"110kV城东变:环塘A601线-金家浜社区6#变后段","powerOffReason":"(低压停电信息)紧急消缺 原停电结束时间为2020-06-14 16:00:28,为减少客户停电时间,加快工作进度,提前送电,现变更停电结束时间为2020-06-14 15:10:28","powerOffId":"2020061431020157"},{"poweroffId":2020061431020145,"sgpoweroffId":null,"subsName":"","lineName":"10kV新克C688线","pubTranName":"钱塘东南家园7#公变,","scope":"浙江省-杭州市-萧山区-新街镇、新街街道-盛中行政村-香樟路、融创东南海、钱塘东南家园16幢1单元1-10层等","startTime":"2020-06-14 13:21:50","stopDate":"2020-06-14 21:57:50","orgNo":"3340130","typeCode":"电网故障停限电","poweroffArea":"110kV新街变:新克C688线-钱塘东南家园7#公变台区低压开关","poweroffReason":"（低压停电信息）低压漏电保护器短路故障 原停电结束时间为2020-06-14 23:30:50,为减少客户停电时间,加快工作进度,提前送电,现变更停电结束时间为2020-06-14 21:57:50","powerTime":"2020-06-14 21:02:32","powerComm":"已送电","subsNo":"","lineNo":"","tgNo":"","tgName":null,"infoStatus":"1","orgName":"国网浙江杭州市萧山区供电有限公司","typeName":null,"infoStatusName":null,"dateDay":null,"orgNos":null,"nowTime":null,"countyName":null,"streetName":null,"villageName":null,"roadName":null,"communityName":null,"tranName":null,"sdLineName":null,"cityCode":"3340130","cityName":"国网浙江杭州市萧山区供电有限公司","provinceCode":null,"stopTime":"2020-06-14 21:57:50","powerType":"全部","powerOffArea":"110kV新街变:新克C688线-钱塘东南家园7#公变台区低压开关","powerOffReason":"（低压停电信息）低压漏电保护器短路故障 原停电结束时间为2020-06-14 23:30:50,为减少客户停电时间,加快工作进度,提前送电,现变更停电结束时间为2020-06-14 21:57:50","powerOffId":"2020061431020145"},{"poweroffId":2020061431020117,"sgpoweroffId":null,"subsName":"","lineName":"10kV浦东D198线","pubTranName":"浙江科扬智能科技有限公司,杭州华博消防设备有限公司1#变,浙江亚裕消防科技有限公司6620229253-1#变,","scope":"浙江省-杭州市-富阳区-大源镇(亭山行政村-杭州华博消防设备有限公司,大源行政村-杭州永恒防火卷帘有限公司,浙江消安防火门制造有限公司富阳分公司)","startTime":"2020-06-14 11:15:14","stopDate":"2020-06-14 12:15:14","orgNo":"3340170","typeCode":"电网故障停限电","poweroffArea":"110kV大源变:浦东D198线-科扬支线跌落式熔断器后段","poweroffReason":"高压开关跳闸 原停电结束时间为2020-06-14 14:00:14,为减少客户停电时间,加快工作进度,提前送电,现变更停电结束时间为2020-06-14 12:15:14","powerTime":"2020-06-14 11:31:28","powerComm":"已送电","subsNo":"","lineNo":"","tgNo":"","tgName":null,"infoStatus":"1","orgName":"国网浙江杭州市富阳区供电公司","typeName":null,"infoStatusName":null,"dateDay":null,"orgNos":null,"nowTime":null,"countyName":null,"streetName":null,"villageName":null,"roadName":null,"communityName":null,"tranName":null,"sdLineName":null,"cityCode":"3340170","cityName":"国网浙江杭州市富阳区供电公司","provinceCode":null,"stopTime":"2020-06-14 12:15:14","powerType":"全部","powerOffArea":"110kV大源变:浦东D198线-科扬支线跌落式熔断器后段","powerOffReason":"高压开关跳闸 原停电结束时间为2020-06-14 14:00:14,为减少客户停电时间,加快工作进度,提前送电,现变更停电结束时间为2020-06-14 12:15:14","powerOffId":"2020061431020117"}],"pageModel":{"pageNow":6,"totalCount":17786,"totalPage":1779,"tableRows":0,"pageCount":10,"beginCount":50},"isExperi":"1"}