{"message":"","today":"2020-06-15","seleList":[{"poweroffId":2019121831020165,"sgpoweroffId":null,"subsName":"","lineName":"10kV爱华C752线","pubTranName":"镇中村7#变,镇中村6#变,杭州荣春制衣有限公司,杭州尤金传动设备有限公司,奥展实业有限公司,镇中村4#变,镇中村8#变,镇中村10#变,镇中村2#变,杭州萧山党湾松森五金配件商行变压器间隔配电变压器,杭州艺河服饰有限公司,杭州科光金属制品有限公司,镇中村3#变,镇中村12#变,镇中村5#变,","scope":"浙江省-杭州市-萧山区-党湾镇-镇中行政村、镇中自然村,爱华路,新农村,镇中路、杭州科光金属制品有限公司,党湾镇-镇中行政村、杭州尤金传动设备有限公司,杭州荣春制衣有限公司,杭州艺河服饰有限公司,奥展实业有限公司,杭州萧山党湾松森五金配件商行、镇中村、党湾镇镇中行政村镇中自然村960号一带","startTime":"2019-12-18 11:55:49","stopDate":"2019-12-18 14:25:49","orgNo":"3340130","typeCode":"电网故障停限电","poweroffArea":"35kV党湾变:爱华C752线-爱华C7521开关后段","poweroffReason":"高压柱上断路器短路故障 原停电结束时间为2019-12-18 14:30:49,为减少客户停电时间,加快工作进度,提前送电,现变更停电结束时间为2019-12-18 14:25:49","powerTime":"2019-12-18 13:35:19","powerComm":"已送电","subsNo":"","lineNo":"","tgNo":"","tgName":null,"infoStatus":"1","orgName":"国网浙江杭州市萧山区供电有限公司","typeName":null,"infoStatusName":null,"dateDay":null,"orgNos":null,"nowTime":null,"countyName":null,"streetName":null,"villageName":null,"roadName":null,"communityName":null,"tranName":null,"sdLineName":null,"cityCode":"3340130","cityName":"国网浙江杭州市萧山区供电有限公司","provinceCode":null,"stopTime":"2019-12-18 14:25:49","powerType":"全部","powerOffArea":"35kV党湾变:爱华C752线-爱华C7521开关后段","powerOffReason":"高压柱上断路器短路故障 原停电结束时间为2019-12-18 14:30:49,为减少客户停电时间,加快工作进度,提前送电,现变更停电结束时间为2019-12-18 14:25:49","powerOffId":"2019121831020165"},{"poweroffId":2019121831020164,"sgpoweroffId":null,"subsName":"","lineName":"10kV六一D651线","pubTranName":"永丰村赵家墩2#上灵桥公变,","scope":"浙江省-杭州市-富阳区-灵桥镇-永丰行政村-赵家墩自然村","startTime":"2019-12-18 11:53:25","stopDate":"2019-12-18 12:53:25","orgNo":"3340170","typeCode":"电网故障停限电","poweroffArea":"110kV灵桥变:六一D651线-永丰村赵家墩2#上灵桥公变后段","poweroffReason":"高压开关跳闸","powerTime":"2019-12-18 12:24:58","powerComm":"已送电","subsNo":"","lineNo":"","tgNo":"","tgName":null,"infoStatus":"1","orgName":"国网浙江杭州市富阳区供电公司","typeName":null,"infoStatusName":null,"dateDay":null,"orgNos":null,"nowTime":null,"countyName":null,"streetName":null,"villageName":null,"roadName":null,"communityName":null,"tranName":null,"sdLineName":null,"cityCode":"3340170","cityName":"国网浙江杭州市富阳区供电公司","provinceCode":null,"stopTime":"2019-12-18 12:53:25","powerType":"全部","powerOffArea":"110kV灵桥变:六一D651线-永丰村赵家墩2#上灵桥公变后段","powerOffReason":"高压开关跳闸","powerOffId":"2019121831020164"},{"poweroffId":2019121831020140,"sgpoweroffId":null,"subsName":"","lineName":"10kV万乐7006线","pubTranName":"杭州迅驰房地产开发有限公司61208253351#变压器,杭州迅驰房地产开发有限公司61208253371#变压器,杭州迅驰房地产开发有限公司61208253361#变压器,","scope":"浙江省-杭州市-余杭区-星桥街道-杭州迅驰房地产开发有限公司","startTime":"2019-12-18 10:27:00","stopDate":"2019-12-18 12:27:00","orgNo":"3340140","typeCode":"电网故障停限电","poweroffArea":"110kV锦唐变:万乐7006线迅驰房产基建分线开关后段","poweroffReason":"高压开关跳闸","powerTime":"2019-12-18 11:58:00","powerComm":"已送电","subsNo":"","lineNo":"","tgNo":"","tgName":null,"infoStatus":"1","orgName":"国网浙江杭州市余杭区供电有限公司","typeName":null,"infoStatusName":null,"dateDay":null,"orgNos":null,"nowTime":null,"countyName":null,"streetName":null,"villageName":null,"roadName":null,"communityName":null,"tranName":null,"sdLineName":null,"cityCode":"3340140","cityName":"国网浙江杭州市余杭区供电有限公司","provinceCode":null,"stopTime":"2019-12-18 12:27:00","powerType":"全部","powerOffArea":"110kV锦唐变:万乐7006线迅驰房产基建分线开关后段","powerOffReason":"高压开关跳闸","powerOffId":"2019121831020140"},{"poweroffId":2019121831020139,"sgpoweroffId":null,"subsName":"","lineName":"10kV潮鸣8178线","pubTranName":"回四,","scope":"浙江省杭州市下城区潮鸣街道小天竺社区回龙庙前四弄","startTime":"2019-12-18 10:28:01","stopDate":"2019-12-18 19:30:01","orgNo":"3340101","typeCode":"电网故障停限电","poweroffArea":"110kV横河变:潮鸣8178线-回四后段","poweroffReason":"(低压停电信息)低压开关跳闸 原停电结束时间为2019-12-18 16:28:01,由于施工现场环境比较复杂，存在不确定因素，现变更停电结束时间为2019-12-18 19:30:01","powerTime":"2019-12-18 18:34:23","powerComm":"已送电","subsNo":"","lineNo":"","tgNo":"","tgName":null,"infoStatus":"1","orgName":"浙江杭州电力客户服务中心","typeName":null,"infoStatusName":null,"dateDay":null,"orgNos":null,"nowTime":null,"countyName":null,"streetName":null,"villageName":null,"roadName":null,"communityName":null,"tranName":null,"sdLineName":null,"cityCode":"3340101","cityName":"浙江杭州电力客户服务中心","provinceCode":null,"stopTime":"2019-12-18 19:30:01","powerType":"全部","powerOffArea":"110kV横河变:潮鸣8178线-回四后段","powerOffReason":"(低压停电信息)低压开关跳闸 原停电结束时间为2019-12-18 16:28:01,由于施工现场环境比较复杂，存在不确定因素，现变更停电结束时间为2019-12-18 19:30:01","powerOffId":"2019121831020139"},{"poweroffId":2019121831020138,"sgpoweroffId":null,"subsName":"","lineName":"10kV大庄D791线","pubTranName":"富阳市场口人民医院,","scope":"浙江省-杭州市-富阳区-场口镇-场口行政村-富阳区场口人民医院","startTime":"2019-12-20 09:00:00","stopDate":"2019-12-20 16:00:00","orgNo":"3340170","typeCode":"临时停电","poweroffArea":"110kV王洲变:大庄D791线-医院分线开关后段","poweroffReason":"更换电缆一根，电缆终端制作两套 原停电结束时间为2019-12-20 15:00:00,因工作复杂原因,现变更停电结束时间为2019-12-20 16:00:00","powerTime":"2019-12-20 15:51:41","powerComm":"已送电","subsNo":"","lineNo":"","tgNo":"","tgName":null,"infoStatus":"1","orgName":"国网浙江杭州市富阳区供电公司","typeName":null,"infoStatusName":null,"dateDay":null,"orgNos":null,"nowTime":null,"countyName":null,"streetName":null,"villageName":null,"roadName":null,"communityName":null,"tranName":null,"sdLineName":null,"cityCode":"3340170","cityName":"国网浙江杭州市富阳区供电公司","provinceCode":null,"stopTime":"2019-12-20 16:00:00","powerType":"全部","powerOffArea":"110kV王洲变:大庄D791线-医院分线开关后段","powerOffReason":"更换电缆一根，电缆终端制作两套 原停电结束时间为2019-12-20 15:00:00,因工作复杂原因,现变更停电结束时间为2019-12-20 16:00:00","powerOffId":"2019121831020138"},{"poweroffId":2019121831020125,"sgpoweroffId":null,"subsName":"","lineName":"10kV东联A490线","pubTranName":"五六二村11#变,","scope":"浙江省-杭州市-萧山区-益农镇五六二行政村-五六二自然村,益农行政村-五六二自然村、五六二村一带","startTime":"2019-12-18 10:05:38","stopDate":"2019-12-18 15:00:38","orgNo":"3340130","typeCode":"电网故障停限电","poweroffArea":"110kV群围变:东联A490线-五六二村11#变台区低压开关","poweroffReason":"(低压停电信息)低压架空导线断线故障 原停电结束时间为2019-12-18 18:00:38,为减少客户停电时间,加快工作进度,提前送电,现变更停电结束时间为2019-12-18 15:00:38","powerTime":"2019-12-18 14:13:55","powerComm":"已送电","subsNo":"","lineNo":"","tgNo":"","tgName":null,"infoStatus":"1","orgName":"国网浙江杭州市萧山区供电有限公司","typeName":null,"infoStatusName":null,"dateDay":null,"orgNos":null,"nowTime":null,"countyName":null,"streetName":null,"villageName":null,"roadName":null,"communityName":null,"tranName":null,"sdLineName":null,"cityCode":"3340130","cityName":"国网浙江杭州市萧山区供电有限公司","provinceCode":null,"stopTime":"2019-12-18 15:00:38","powerType":"全部","powerOffArea":"110kV群围变:东联A490线-五六二村11#变台区低压开关","powerOffReason":"(低压停电信息)低压架空导线断线故障 原停电结束时间为2019-12-18 18:00:38,为减少客户停电时间,加快工作进度,提前送电,现变更停电结束时间为2019-12-18 15:00:38","powerOffId":"2019121831020125"},{"poweroffId":2019121831020124,"sgpoweroffId":null,"subsName":"","lineName":"10kV里伍V237线","pubTranName":"10kV乐平村[金岗坞]公变,","scope":"浙江省-杭州市-临安市-潜川镇-乐平行政村-双干自然村","startTime":"2019-12-18 10:05:00","stopDate":"2019-12-18 10:30:00","orgNo":"3340160","typeCode":"电网故障停限电","poweroffArea":"35kV潜川变:里伍V237线10kV乐平村[金岗坞]公变配变","poweroffReason":"高压开关跳闸 原停电结束时间为2019-12-18 12:02:00,为减少客户停电时间,加快工作进度,提前送电,现变更停电结束时间为2019-12-18 10:30:00","powerTime":"2019-12-18 10:15:30","powerComm":"已送电","subsNo":"","lineNo":"","tgNo":"","tgName":null,"infoStatus":"1","orgName":"国网浙江临安市供电公司","typeName":null,"infoStatusName":null,"dateDay":null,"orgNos":null,"nowTime":null,"countyName":null,"streetName":null,"villageName":null,"roadName":null,"communityName":null,"tranName":null,"sdLineName":null,"cityCode":"3340160","cityName":"国网浙江临安市供电公司","provinceCode":null,"stopTime":"2019-12-18 10:30:00","powerType":"全部","powerOffArea":"35kV潜川变:里伍V237线10kV乐平村[金岗坞]公变配变","powerOffReason":"高压开关跳闸 原停电结束时间为2019-12-18 12:02:00,为减少客户停电时间,加快工作进度,提前送电,现变更停电结束时间为2019-12-18 10:30:00","powerOffId":"2019121831020124"},{"poweroffId":2019121831020112,"sgpoweroffId":null,"subsName":"","lineName":"10kV西贸8461线","pubTranName":"温情九变,温情三变,温情七变,","scope":"浙江省-杭州市-滨江区-西兴街道-西陵社区-西兴路","startTime":"2019-12-18 09:57:47","stopDate":"2019-12-18 11:10:47","orgNo":"3340101","typeCode":"电网故障停限电","poweroffArea":"220kV兴南变:西贸8461线-温情三线后段","poweroffReason":"高压开关跳闸 原停电结束时间为2019-12-18 15:57:47,为减少客户停电时间,加快工作进度,提前送电,现变更停电结束时间为2019-12-18 11:10:47","powerTime":"2019-12-18 10:28:47","powerComm":"已送电","subsNo":"","lineNo":"","tgNo":"","tgName":null,"infoStatus":"1","orgName":"浙江杭州电力客户服务中心","typeName":null,"infoStatusName":null,"dateDay":null,"orgNos":null,"nowTime":null,"countyName":null,"streetName":null,"villageName":null,"roadName":null,"communityName":null,"tranName":null,"sdLineName":null,"cityCode":"3340101","cityName":"浙江杭州电力客户服务中心","provinceCode":null,"stopTime":"2019-12-18 11:10:47","powerType":"全部","powerOffArea":"220kV兴南变:西贸8461线-温情三线后段","powerOffReason":"高压开关跳闸 原停电结束时间为2019-12-18 15:57:47,为减少客户停电时间,加快工作进度,提前送电,现变更停电结束时间为2019-12-18 11:10:47","powerOffId":"2019121831020112"},{"poweroffId":2019121831020111,"sgpoweroffId":null,"subsName":"","lineName":"10kV育华8052线","pubTranName":"万福里四,万福里二,紫立,如苑二,蒋六灯,如苑四,","scope":"浙江省-杭州市-西湖区-蒋村街道-蒋村花园社区(晴川街,崇仁路);蒋村街道(杭州市路灯管理所,杭州市城市照明发展中心)","startTime":"2019-12-18 09:56:00","stopDate":"2019-12-18 10:50:00","orgNo":"3340101","typeCode":"电网故障停限电","poweroffArea":"110kV紫荆变:育华8052线西佳站建佳80522线后段","poweroffReason":"高压开关跳闸 原停电结束时间为2019-12-18 12:05:00,为减少客户停电时间,加快工作进度,提前送电,现变更停电结束时间为2019-12-18 10:50:00","powerTime":"2019-12-18 10:18:15","powerComm":"已送电","subsNo":"","lineNo":"","tgNo":"","tgName":null,"infoStatus":"1","orgName":"浙江杭州电力客户服务中心","typeName":null,"infoStatusName":null,"dateDay":null,"orgNos":null,"nowTime":null,"countyName":null,"streetName":null,"villageName":null,"roadName":null,"communityName":null,"tranName":null,"sdLineName":null,"cityCode":"3340101","cityName":"浙江杭州电力客户服务中心","provinceCode":null,"stopTime":"2019-12-18 10:50:00","powerType":"全部","powerOffArea":"110kV紫荆变:育华8052线西佳站建佳80522线后段","powerOffReason":"高压开关跳闸 原停电结束时间为2019-12-18 12:05:00,为减少客户停电时间,加快工作进度,提前送电,现变更停电结束时间为2019-12-18 10:50:00","powerOffId":"2019121831020111"},{"poweroffId":2019121831020093,"sgpoweroffId":null,"subsName":"","lineName":"10kV滨文8385线","pubTranName":"镇前二,龙宿,王家二,镇前,化工,庙河,","scope":"浙江省-杭州市-滨江区-浦沿街道(浦联社区-浦联路,新浦社区-新浦路)","startTime":"2019-12-18 09:32:00","stopDate":"2019-12-18 10:40:00","orgNo":"3340101","typeCode":"电网故障停限电","poweroffArea":"110kV新生变:滨文8385线10千伏镇前9524线浦镇站镇前分线开关后段","poweroffReason":"高压开关跳闸 原停电结束时间为2019-12-18 15:32:00,为减少客户停电时间,加快工作进度,提前送电,现变更停电结束时间为2019-12-18 10:40:00","powerTime":"2019-12-18 10:02:49","powerComm":"已送电","subsNo":"","lineNo":"","tgNo":"","tgName":null,"infoStatus":"1","orgName":"浙江杭州电力客户服务中心","typeName":null,"infoStatusName":null,"dateDay":null,"orgNos":null,"nowTime":null,"countyName":null,"streetName":null,"villageName":null,"roadName":null,"communityName":null,"tranName":null,"sdLineName":null,"cityCode":"3340101","cityName":"浙江杭州电力客户服务中心","provinceCode":null,"stopTime":"2019-12-18 10:40:00","powerType":"全部","powerOffArea":"110kV新生变:滨文8385线10千伏镇前9524线浦镇站镇前分线开关后段","powerOffReason":"高压开关跳闸 原停电结束时间为2019-12-18 15:32:00,为减少客户停电时间,加快工作进度,提前送电,现变更停电结束时间为2019-12-18 10:40:00","powerOffId":"2019121831020093"}],"pageModel":{"pageNow":688,"totalCount":17789,"totalPage":1779,"tableRows":0,"pageCount":10,"beginCount":6870},"isExperi":"1"}