{"message":"","today":"2020-06-15","seleList":[{"poweroffId":2019121831020087,"sgpoweroffId":null,"subsName":"","lineName":"10kV青峰T146线","pubTranName":"中一1号公变,","scope":"浙江省-杭州市-桐庐县-钟山乡-中一行政村(龙康坞自然村,前旺坞自然村,店边自然村)","startTime":"2019-12-18 09:28:17","stopDate":"2019-12-18 17:28:17","orgNo":"3340150","typeCode":"电网故障停限电","poweroffArea":"35kV钟山变:青峰T146线-中一1号公变后段","poweroffReason":"高压开关跳闸","powerTime":"2019-12-18 17:21:19","powerComm":"已送电","subsNo":"","lineNo":"","tgNo":"","tgName":null,"infoStatus":"1","orgName":"国网浙江桐庐县供电公司","typeName":null,"infoStatusName":null,"dateDay":null,"orgNos":null,"nowTime":null,"countyName":null,"streetName":null,"villageName":null,"roadName":null,"communityName":null,"tranName":null,"sdLineName":null,"cityCode":"3340150","cityName":"国网浙江桐庐县供电公司","provinceCode":null,"stopTime":"2019-12-18 17:28:17","powerType":"全部","powerOffArea":"35kV钟山变:青峰T146线-中一1号公变后段","powerOffReason":"高压开关跳闸","powerOffId":"2019121831020087"},{"poweroffId":2019121831020084,"sgpoweroffId":null,"subsName":"","lineName":"10kV唐村R173线","pubTranName":"新桥公变,","scope":"浙江省-杭州市-淳安县-威坪镇-唐村行政村(唐一自然村,唐三自然村)","startTime":"2019-12-18 09:12:24","stopDate":"2019-12-18 11:12:24","orgNo":"3340190","typeCode":"电网故障停限电","poweroffArea":"110kV虹桥变:唐村R173线-新桥公变后段","poweroffReason":"高压开关跳闸","powerTime":"2019-12-18 10:51:44","powerComm":"已送电","subsNo":"","lineNo":"","tgNo":"","tgName":null,"infoStatus":"1","orgName":"国网浙江淳安县供电有限公司","typeName":null,"infoStatusName":null,"dateDay":null,"orgNos":null,"nowTime":null,"countyName":null,"streetName":null,"villageName":null,"roadName":null,"communityName":null,"tranName":null,"sdLineName":null,"cityCode":"3340190","cityName":"国网浙江淳安县供电有限公司","provinceCode":null,"stopTime":"2019-12-18 11:12:24","powerType":"全部","powerOffArea":"110kV虹桥变:唐村R173线-新桥公变后段","powerOffReason":"高压开关跳闸","powerOffId":"2019121831020084"},{"poweroffId":2019121831020072,"sgpoweroffId":null,"subsName":"","lineName":"10kV肖邦D360线","pubTranName":"肖邦16号变,","scope":"浙江省-杭州市-富阳区-富春街道-鹿山社区-文教路","startTime":"2019-12-18 08:58:34","stopDate":"2019-12-18 09:58:34","orgNo":"3340170","typeCode":"电网故障停限电","poweroffArea":"110kV富鹿变:肖邦D360线-肖邦16号变后段","poweroffReason":"高压开关跳闸","powerTime":"2019-12-18 09:46:13","powerComm":"已送电","subsNo":"","lineNo":"","tgNo":"","tgName":null,"infoStatus":"1","orgName":"国网浙江杭州市富阳区供电公司","typeName":null,"infoStatusName":null,"dateDay":null,"orgNos":null,"nowTime":null,"countyName":null,"streetName":null,"villageName":null,"roadName":null,"communityName":null,"tranName":null,"sdLineName":null,"cityCode":"3340170","cityName":"国网浙江杭州市富阳区供电公司","provinceCode":null,"stopTime":"2019-12-18 09:58:34","powerType":"全部","powerOffArea":"110kV富鹿变:肖邦D360线-肖邦16号变后段","powerOffReason":"高压开关跳闸","powerOffId":"2019121831020072"},{"poweroffId":2019121831020070,"sgpoweroffId":null,"subsName":"","lineName":"10kV水和H526线","pubTranName":"瓶窑社区山斗公变,骏峰投资I段（6120875615）01#专变,瓶窑社区山弄公变,瓶窑社区山弄2号公变,凤都村政充电公变,瓶窑中心幼儿园,杭州红金鱼酒店用品有限公司6111037452,瓶窑总工会,1#变压器,瓶窑镇政府（花园路路灯）6120305575,瓶窑中学,浙江荣辉建设有限公司6120874679,","scope":"浙江省-杭州市-余杭区-瓶窑镇-凤都行政村-中自然村,瓶窑镇-瓶窑行政村(山斗自然村,乌子斗门自然村),瓶窑镇-瓶窑社区(凤凰大道,羊城路,山湾里);瓶窑镇-凤都行政村(杭州红金鱼酒店用品有限公司,杭州市余杭区瓶窑镇第一中学,杭州恒骏实业有限公司),瓶窑镇-瓶窑社区(杭州市余杭区瓶窑镇第二幼儿园,杭州骏峰投资有限公司,杭州市余杭区瓶窑镇人民政府),瓶窑镇(瓶窑行政村-杭州市余杭区总工会,崇化行政村-浙江荣辉建设有限公司)","startTime":"2019-12-18 08:55:41","stopDate":"2019-12-18 12:30:00","orgNo":"3340140","typeCode":"电网故障停限电","poweroffArea":"110kV凤山变:水和H526线-水和开关站水乐H5263线后段","poweroffReason":"高压开关跳闸 原停电结束时间为2019-12-18 10:30:41,因现场情况复杂原因,现变更停电结束时间为2019-12-18 12:30:00","powerTime":"2019-12-18 11:59:00","powerComm":"已送电","subsNo":"","lineNo":"","tgNo":"","tgName":null,"infoStatus":"1","orgName":"国网浙江杭州市余杭区供电有限公司","typeName":null,"infoStatusName":null,"dateDay":null,"orgNos":null,"nowTime":null,"countyName":null,"streetName":null,"villageName":null,"roadName":null,"communityName":null,"tranName":null,"sdLineName":null,"cityCode":"3340140","cityName":"国网浙江杭州市余杭区供电有限公司","provinceCode":null,"stopTime":"2019-12-18 12:30:00","powerType":"全部","powerOffArea":"110kV凤山变:水和H526线-水和开关站水乐H5263线后段","powerOffReason":"高压开关跳闸 原停电结束时间为2019-12-18 10:30:41,因现场情况复杂原因,现变更停电结束时间为2019-12-18 12:30:00","powerOffId":"2019121831020070"},{"poweroffId":2019121831020063,"sgpoweroffId":null,"subsName":"","lineName":"10kV爱华C752线","pubTranName":"镇中村4#变,","scope":"浙江省-杭州市-萧山区-党湾镇-镇中行政村-镇中自然村、镇中村一带","startTime":"2019-12-18 08:49:47","stopDate":"2019-12-18 14:25:47","orgNo":"3340130","typeCode":"电网故障停限电","poweroffArea":"35kV党湾变:爱华C752线-镇中村4#变台区低压开关","poweroffReason":"(低压停电信息)低压熔断器短路故障 原停电结束时间为2019-12-18 17:00:47,为减少客户停电时间,加快工作进度,提前送电,现变更停电结束时间为2019-12-18 14:25:47","powerTime":"2019-12-18 13:32:59","powerComm":"已送电","subsNo":"","lineNo":"","tgNo":"","tgName":null,"infoStatus":"1","orgName":"国网浙江杭州市萧山区供电有限公司","typeName":null,"infoStatusName":null,"dateDay":null,"orgNos":null,"nowTime":null,"countyName":null,"streetName":null,"villageName":null,"roadName":null,"communityName":null,"tranName":null,"sdLineName":null,"cityCode":"3340130","cityName":"国网浙江杭州市萧山区供电有限公司","provinceCode":null,"stopTime":"2019-12-18 14:25:47","powerType":"全部","powerOffArea":"35kV党湾变:爱华C752线-镇中村4#变台区低压开关","powerOffReason":"(低压停电信息)低压熔断器短路故障 原停电结束时间为2019-12-18 17:00:47,为减少客户停电时间,加快工作进度,提前送电,现变更停电结束时间为2019-12-18 14:25:47","powerOffId":"2019121831020063"},{"poweroffId":2019121831020055,"sgpoweroffId":null,"subsName":"","lineName":"10kV丁山G866线","pubTranName":"杭州博贝过滤机有限公司,超丁村小丁山公变,超山金属配件,超山村早山河公变,超丁村张家埭大队公变,超丁村陈店村公变,超丁村洋口公变,蓬坞农居点公变,超丁金属拉丝厂,洪肖圩机埠,国龙文体,超山村蓬坞公变,杭州中岛实业有限公司,超丁村田下村公变,杭州余杭超丁股份经济合作社,超丁村丁山桥公变,","scope":"浙江省-杭州市-余杭区-塘栖镇-超丁行政村-超丁村,塘栖镇-超山行政村(超山村,望梅路);塘栖镇(杭州汤禾实业有限公司,杭州鸿胜金属配件有限公司,杭州市余杭区塘栖镇超丁村村民委员会,杭州泰麒工贸有限公司,杭州余杭超丁股份经济合作社,杭州万良绝缘材料有限公司,杭州十鼎塑料制品有限公司)","startTime":"2019-12-18 08:42:00","stopDate":"2019-12-18 11:28:00","orgNo":"3340140","typeCode":"电网故障停限电","poweroffArea":"110kV漳河变:丁山G866线早山开关站早山分支箱分线后段","poweroffReason":"高压开关跳闸","powerTime":"2019-12-18 10:59:00","powerComm":"已送电","subsNo":"","lineNo":"","tgNo":"","tgName":null,"infoStatus":"1","orgName":"国网浙江杭州市余杭区供电有限公司","typeName":null,"infoStatusName":null,"dateDay":null,"orgNos":null,"nowTime":null,"countyName":null,"streetName":null,"villageName":null,"roadName":null,"communityName":null,"tranName":null,"sdLineName":null,"cityCode":"3340140","cityName":"国网浙江杭州市余杭区供电有限公司","provinceCode":null,"stopTime":"2019-12-18 11:28:00","powerType":"全部","powerOffArea":"110kV漳河变:丁山G866线早山开关站早山分支箱分线后段","powerOffReason":"高压开关跳闸","powerOffId":"2019121831020055"},{"poweroffId":2019121831020047,"sgpoweroffId":null,"subsName":"","lineName":"10kV石墓D217线","pubTranName":"郜村宋家塘1#黄溪洋公变,","scope":"浙江省-杭州市-富阳区-银湖街道-郜村行政村(郜村自然村,宋家塘自然村)","startTime":"2019-12-18 08:25:31","stopDate":"2019-12-18 13:00:00","orgNo":"3340170","typeCode":"电网故障停限电","poweroffArea":"110kV银湖变:石墓D217线-郜村宋家塘1#黄溪洋公变后段","poweroffReason":"(低压停电信息)低压开关跳闸 原停电结束时间为2019-12-18 14:00:00,为减少客户停电时间,加快工作进度,提前送电,现变更停电结束时间为2019-12-18 13:00:00","powerTime":"2019-12-18 12:33:16","powerComm":"已送电","subsNo":"","lineNo":"","tgNo":"","tgName":null,"infoStatus":"1","orgName":"国网浙江杭州市富阳区供电公司","typeName":null,"infoStatusName":null,"dateDay":null,"orgNos":null,"nowTime":null,"countyName":null,"streetName":null,"villageName":null,"roadName":null,"communityName":null,"tranName":null,"sdLineName":null,"cityCode":"3340170","cityName":"国网浙江杭州市富阳区供电公司","provinceCode":null,"stopTime":"2019-12-18 13:00:00","powerType":"全部","powerOffArea":"110kV银湖变:石墓D217线-郜村宋家塘1#黄溪洋公变后段","powerOffReason":"(低压停电信息)低压开关跳闸 原停电结束时间为2019-12-18 14:00:00,为减少客户停电时间,加快工作进度,提前送电,现变更停电结束时间为2019-12-18 13:00:00","powerOffId":"2019121831020047"},{"poweroffId":2019121831020046,"sgpoweroffId":null,"subsName":"","lineName":"10kV益农462线","pubTranName":"共和村8#变,","scope":"浙江省-杭州市-萧山区-新湾街道-共和行政村-共和自然村、共和村、共和行政村新龙村一带","startTime":"2019-12-18 08:22:00","stopDate":"2019-12-18 11:30:00","orgNo":"3340120","typeCode":"电网故障停限电","poweroffArea":"35kV新湾变:益农462线共和村8#变配变","poweroffReason":"(低压停电信息)低压开关跳闸 原停电结束时间为2019-12-18 10:20:00,因更换开关原因,现变更停电结束时间为2019-12-18 11:30:00","powerTime":"2019-12-18 10:34:18","powerComm":"已送电","subsNo":"","lineNo":"","tgNo":"","tgName":null,"infoStatus":"1","orgName":"国网浙江杭州市钱塘新区供电公司","typeName":null,"infoStatusName":null,"dateDay":null,"orgNos":null,"nowTime":null,"countyName":null,"streetName":null,"villageName":null,"roadName":null,"communityName":null,"tranName":null,"sdLineName":null,"cityCode":"3340120","cityName":"国网浙江杭州市钱塘新区供电公司","provinceCode":null,"stopTime":"2019-12-18 11:30:00","powerType":"全部","powerOffArea":"35kV新湾变:益农462线共和村8#变配变","powerOffReason":"(低压停电信息)低压开关跳闸 原停电结束时间为2019-12-18 10:20:00,因更换开关原因,现变更停电结束时间为2019-12-18 11:30:00","powerOffId":"2019121831020046"},{"poweroffId":2019121831020027,"sgpoweroffId":null,"subsName":"","lineName":"10kV东山Y132线","pubTranName":"乾一村芝峰台区,","scope":"浙江省-杭州市-建德市-乾潭镇-乾一行政村-芝峰自然村一带用户","startTime":"2019-12-18 07:31:00","stopDate":"2019-12-18 13:30:00","orgNo":"3340180","typeCode":"电网故障停限电","poweroffArea":"110kV乾潭变:东山Y132线-乾一村芝峰台区后段","poweroffReason":"(低压停电信息)低压开关跳闸 原停电结束时间为2019-12-18 17:30:00,为减少客户停电时间,加快工作进度,提前送电,现变更停电结束时间为2019-12-18 13:30:00","powerTime":"2019-12-18 12:57:27","powerComm":"已送电","subsNo":"","lineNo":"","tgNo":"","tgName":null,"infoStatus":"1","orgName":"国网浙江建德市供电有限公司","typeName":null,"infoStatusName":null,"dateDay":null,"orgNos":null,"nowTime":null,"countyName":null,"streetName":null,"villageName":null,"roadName":null,"communityName":null,"tranName":null,"sdLineName":null,"cityCode":"3340180","cityName":"国网浙江建德市供电有限公司","provinceCode":null,"stopTime":"2019-12-18 13:30:00","powerType":"全部","powerOffArea":"110kV乾潭变:东山Y132线-乾一村芝峰台区后段","powerOffReason":"(低压停电信息)低压开关跳闸 原停电结束时间为2019-12-18 17:30:00,为减少客户停电时间,加快工作进度,提前送电,现变更停电结束时间为2019-12-18 13:30:00","powerOffId":"2019121831020027"},{"poweroffId":2019121831020013,"sgpoweroffId":null,"subsName":"","lineName":"10kV三溪D337线","pubTranName":"三溪村16#二房里公变,三溪村14#对山公变,三溪村17号枫林公变,三溪村8#九房里公变,三溪村5#西坎坞公变,三溪村9#小山上公变,三溪村10#羊坞变公变,三溪村7#三房里公变,三溪村6#大塔地公变,三溪村11#郎家坞公变,","scope":"浙江省-杭州市-富阳区-洞桥镇-三溪行政村(小山上自然村,牧家坞自然村,羊坞里自然村,枫林自然村)","startTime":"2019-12-18 02:47:57","stopDate":"2019-12-18 04:17:57","orgNo":"3340170","typeCode":"电网故障停限电","poweroffArea":"110kV万市变:三溪D337线-三溪村17号枫林公变后段;三溪D337线-三溪村16#二房里公变后段;三溪D337线-三溪村14#对山公变后段;三溪D337线-三溪村11#郎家坞公变后段;三溪D337线-三溪村5#西坎坞公变后段;三溪D337线-三溪村10#羊坞变公变后段;三溪D337线-三溪村9#小山上公变后段;三溪D337线-三溪村8#九房里公变后段;三溪D337线-三溪村6#大塔地公变后段;三溪D337线-三溪村7#三房里公变后段","poweroffReason":"高压开关跳闸","powerTime":"2019-12-18 04:00:28","powerComm":"已送电","subsNo":"","lineNo":"","tgNo":"","tgName":null,"infoStatus":"1","orgName":"国网浙江杭州市富阳区供电公司","typeName":null,"infoStatusName":null,"dateDay":null,"orgNos":null,"nowTime":null,"countyName":null,"streetName":null,"villageName":null,"roadName":null,"communityName":null,"tranName":null,"sdLineName":null,"cityCode":"3340170","cityName":"国网浙江杭州市富阳区供电公司","provinceCode":null,"stopTime":"2019-12-18 04:17:57","powerType":"全部","powerOffArea":"110kV万市变:三溪D337线-三溪村17号枫林公变后段;三溪D337线-三溪村16#二房里公变后段;三溪D337线-三溪村14#对山公变后段;三溪D337线-三溪村11#郎家坞公变后段;三溪D337线-三溪村5#西坎坞公变后段;三溪D337线-三溪村10#羊坞变公变后段;三溪D337线-三溪村9#小山上公变后段;三溪D337线-三溪村8#九房里公变后段;三溪D337线-三溪村6#大塔地公变后段;三溪D337线-三溪村7#三房里公变后段","powerOffReason":"高压开关跳闸","powerOffId":"2019121831020013"}],"pageModel":{"pageNow":689,"totalCount":17789,"totalPage":1779,"tableRows":0,"pageCount":10,"beginCount":6880},"isExperi":"1"}