{"message":"","today":"2020-06-15","seleList":[{"poweroffId":2019121631020104,"sgpoweroffId":null,"subsName":"","lineName":"10kV富源V509线","pubTranName":"10kV横鑫村[小昔塔岭]公变,","scope":"浙江省-杭州市-临安市-於潜镇-小昔塔岭一带","startTime":"2019-12-25 08:20:00","stopDate":"2019-12-25 15:40:00","orgNo":"3340160","typeCode":"计划停电","poweroffArea":"停富源V509线小昔支线塔岭分支线1#杆横鑫村[小昔塔岭]公变低压","poweroffReason":"临金高速公路临安段电力迁改: (1)富源V509线小昔塔岭分支线1#杆横鑫村[小昔塔岭]公变低压小昔坞口1000线1#-12#杆农用线拆除，2#-9#杆调杆、调导线、负荷割接，马泥潭3000线2#-6#杆拆导线。","powerTime":"2019-12-25 15:30:12","powerComm":"已送电","subsNo":"","lineNo":"","tgNo":"","tgName":null,"infoStatus":"1","orgName":"国网浙江临安市供电公司","typeName":null,"infoStatusName":null,"dateDay":null,"orgNos":null,"nowTime":null,"countyName":null,"streetName":null,"villageName":null,"roadName":null,"communityName":null,"tranName":null,"sdLineName":null,"cityCode":"3340160","cityName":"国网浙江临安市供电公司","provinceCode":null,"stopTime":"2019-12-25 15:40:00","powerType":"全部","powerOffArea":"停富源V509线小昔支线塔岭分支线1#杆横鑫村[小昔塔岭]公变低压","powerOffReason":"临金高速公路临安段电力迁改: (1)富源V509线小昔塔岭分支线1#杆横鑫村[小昔塔岭]公变低压小昔坞口1000线1#-12#杆农用线拆除，2#-9#杆调杆、调导线、负荷割接，马泥潭3000线2#-6#杆拆导线。","powerOffId":"2019121631020104"},{"poweroffId":2019121631020101,"sgpoweroffId":null,"subsName":"","lineName":"10kV沈家V185线","pubTranName":"杭州临安远大工具有限公司,10kV铜山村[上铜山]公变,杭州临安远大工具有限公司1#,临安市於潜铜山畲族砖瓦厂,临安中晟玻璃制品有限公司,临安富玛斯五金工具有限公司1#,临安法强五金工具有限公司,临安富玛斯五金工具有限公司,临安浙西五金工具厂1#,杭州临安龙鑫光伏材料有限公司,临安浙西五金工具厂2#,杭州临安远大工具有限公司2#,10kV枫树岭村[沈家村]公变,","scope":"浙江省-杭州市-临安市-於潜镇-临安欧迈克动力设备有限公司、杭州临安远大工具有限公司、沈家村、临安富玛斯五金工具有限公司、上铜山、临安浙西五金工具厂、临安法强五金工具有限公司、临安市於潜铜山畲族砖瓦厂、临安中晟玻璃制品有限公司、临安富玛斯五金工具有限公司一带","startTime":"2019-12-24 17:30:00","stopDate":"2019-12-24 19:30:00","orgNo":"3340160","typeCode":"计划停电","poweroffArea":"沈家V185线34#杆园区沈家分线开关至2+1#杆开关后段","poweroffReason":"杭州临安於潜10千伏双庙V253线等分支线改造03项：沈家V185线园区沈家分线9#杆发电车电缆拆头 原停电结束时间为2019-12-24 18:00:00,因天气原因,现变更停电结束时间为2019-12-24 19:30:00","powerTime":"2019-12-24 19:20:22","powerComm":"已送电","subsNo":"","lineNo":"","tgNo":"","tgName":null,"infoStatus":"1","orgName":"国网浙江临安市供电公司","typeName":null,"infoStatusName":null,"dateDay":null,"orgNos":null,"nowTime":null,"countyName":null,"streetName":null,"villageName":null,"roadName":null,"communityName":null,"tranName":null,"sdLineName":null,"cityCode":"3340160","cityName":"国网浙江临安市供电公司","provinceCode":null,"stopTime":"2019-12-24 19:30:00","powerType":"全部","powerOffArea":"沈家V185线34#杆园区沈家分线开关至2+1#杆开关后段","powerOffReason":"杭州临安於潜10千伏双庙V253线等分支线改造03项：沈家V185线园区沈家分线9#杆发电车电缆拆头 原停电结束时间为2019-12-24 18:00:00,因天气原因,现变更停电结束时间为2019-12-24 19:30:00","powerOffId":"2019121631020101"},{"poweroffId":2019121631020100,"sgpoweroffId":null,"subsName":"","lineName":"10kV双庙V253线","pubTranName":"临安凯达五金工具厂,临安市浙能天然气有限公司,临安市兴旺电镀有限公司1#,临安市兴旺电镀有限公司2#,临安市兴旺电镀有限公司3#,","scope":"浙江省-杭州市-临安市-太阳镇-临安凯达五金工具厂、临安市兴旺电镀有限公司、临安市浙能天然气有限公司一带","startTime":"2019-12-24 08:20:00","stopDate":"2019-12-24 19:30:00","orgNo":"3340160","typeCode":"计划停电","poweroffArea":"双庙V253线1#天然气分线开关、沈家V185线34#杆园区沈家分线1-2#杆、沈家V185线25#杆天山包装分线","poweroffReason":"原停电结束时间为2019-12-24 17:30:00,因天气原因,现变更停电结束时间为2019-12-24 19:30:00","powerTime":"2019-12-24 19:20:32","powerComm":"已送电","subsNo":"","lineNo":"","tgNo":"","tgName":null,"infoStatus":"1","orgName":"国网浙江临安市供电公司","typeName":null,"infoStatusName":null,"dateDay":null,"orgNos":null,"nowTime":null,"countyName":null,"streetName":null,"villageName":null,"roadName":null,"communityName":null,"tranName":null,"sdLineName":null,"cityCode":"3340160","cityName":"国网浙江临安市供电公司","provinceCode":null,"stopTime":"2019-12-24 19:30:00","powerType":"全部","powerOffArea":"双庙V253线1#天然气分线开关、沈家V185线34#杆园区沈家分线1-2#杆、沈家V185线25#杆天山包装分线","powerOffReason":"原停电结束时间为2019-12-24 17:30:00,因天气原因,现变更停电结束时间为2019-12-24 19:30:00","powerOffId":"2019121631020100"},{"poweroffId":2019121631020099,"sgpoweroffId":null,"subsName":"","lineName":"10kV沈家V185线","pubTranName":"临安振发工具有限公司台区315#,临安市盛鹏工具有限公司,临安宏昌纺织有限公司,临安振发工具有限公司台区250#,杭州临安友合纺织有限公司,10kV枫树岭村[王家]公变,杭州天山医药包装有限公司,杭州天山医药包装有限公司,杭州天山医药玻璃有限公司,","scope":"浙江省-杭州市-临安市-太阳镇-王家、临安振发工具有限公司、临安市盛鹏工具有限公司、杭州天山医药玻璃有限公司、临安宏昌纺织有限公司、杭州临安友合纺织有限公司、杭州天山医药包装有限公司一带","startTime":"2019-12-24 08:20:00","stopDate":"2019-12-24 19:30:00","orgNo":"3340160","typeCode":"计划停电","poweroffArea":"双庙V253线1#天然气分线开关、沈家V185线34#杆园区沈家分线1-2#杆、沈家V185线25#杆天山包装分线","poweroffReason":"杭州临安於潜10千伏双庙V253线等分支线改造02项：1、太阳变待用V181线、待用V251线间隔电缆敷设、两侧搭头；原停电结束时间为2019-12-24 17:30:00,因天气原因,现变更停电结束时间为2019-12-24 19:30:00","powerTime":"2019-12-24 19:20:08","powerComm":"已送电","subsNo":"","lineNo":"","tgNo":"","tgName":null,"infoStatus":"1","orgName":"国网浙江临安市供电公司","typeName":null,"infoStatusName":null,"dateDay":null,"orgNos":null,"nowTime":null,"countyName":null,"streetName":null,"villageName":null,"roadName":null,"communityName":null,"tranName":null,"sdLineName":null,"cityCode":"3340160","cityName":"国网浙江临安市供电公司","provinceCode":null,"stopTime":"2019-12-24 19:30:00","powerType":"全部","powerOffArea":"双庙V253线1#天然气分线开关、沈家V185线34#杆园区沈家分线1-2#杆、沈家V185线25#杆天山包装分线","powerOffReason":"杭州临安於潜10千伏双庙V253线等分支线改造02项：1、太阳变待用V181线、待用V251线间隔电缆敷设、两侧搭头；原停电结束时间为2019-12-24 17:30:00,因天气原因,现变更停电结束时间为2019-12-24 19:30:00","powerOffId":"2019121631020099"},{"poweroffId":2019121631020098,"sgpoweroffId":null,"subsName":"","lineName":"10kV富源V509线","pubTranName":"10kV横鑫村[正坞罗鼓园]公变,","scope":"浙江省-杭州市-临安市-於潜镇-正坞罗鼓园一带","startTime":"2019-12-24 08:20:00","stopDate":"2019-12-24 15:40:00","orgNo":"3340160","typeCode":"计划停电","poweroffArea":"富源V509线横岭分线罗鼓园支线5#杆横鑫村[正坞罗鼓园]公变低压","poweroffReason":"临金高速公路临安段电力迁改: 1、富源V509线罗鼓园支线5#杆横鑫村[正坞罗鼓园]公变低压对面1000线1#-9#杆拆线，7#杆以后负荷割接至3000线新架线路上，下村2000线1#-4#杆调线、4#-15#杆线路拆除","powerTime":"2019-12-24 15:30:12","powerComm":"已送电","subsNo":"","lineNo":"","tgNo":"","tgName":null,"infoStatus":"1","orgName":"国网浙江临安市供电公司","typeName":null,"infoStatusName":null,"dateDay":null,"orgNos":null,"nowTime":null,"countyName":null,"streetName":null,"villageName":null,"roadName":null,"communityName":null,"tranName":null,"sdLineName":null,"cityCode":"3340160","cityName":"国网浙江临安市供电公司","provinceCode":null,"stopTime":"2019-12-24 15:40:00","powerType":"全部","powerOffArea":"富源V509线横岭分线罗鼓园支线5#杆横鑫村[正坞罗鼓园]公变低压","powerOffReason":"临金高速公路临安段电力迁改: 1、富源V509线罗鼓园支线5#杆横鑫村[正坞罗鼓园]公变低压对面1000线1#-9#杆拆线，7#杆以后负荷割接至3000线新架线路上，下村2000线1#-4#杆调线、4#-15#杆线路拆除","powerOffId":"2019121631020098"},{"poweroffId":2019121631020097,"sgpoweroffId":null,"subsName":"","lineName":"10kV沈家V185线","pubTranName":"临安市於潜铜山畲族砖瓦厂,临安法强五金工具有限公司,杭州临安远大工具有限公司2#,杭州临安远大工具有限公司1#,杭州临安龙鑫光伏材料有限公司,10kV枫树岭村[沈家村]公变,临安浙西五金工具厂2#,临安富玛斯五金工具有限公司,临安富玛斯五金工具有限公司1#,10kV铜山村[上铜山]公变,临安浙西五金工具厂1#,杭州临安远大工具有限公司,临安中晟玻璃制品有限公司,","scope":"浙江省-杭州市-临安市-於潜镇-临安欧迈克动力设备有限公司、杭州临安远大工具有限公司、沈家村、临安富玛斯五金工具有限公司、上铜山、临安浙西五金工具厂、临安法强五金工具有限公司、临安市於潜铜山畲族砖瓦厂、临安中晟玻璃制品有限公司、临安富玛斯五金工具有限公司一带","startTime":"2019-12-24 08:30:00","stopDate":"2019-12-24 09:00:00","orgNo":"3340160","typeCode":"计划停电","poweroffArea":"沈家V185线34#杆园区沈家分线开关至2+1#杆开关后段","poweroffReason":"杭州临安於潜10千伏双庙V253线等分支线改造01项：沈家V185线园区沈家分线9#杆发电车电缆搭接","powerTime":"2019-12-24 08:50:10","powerComm":"已送电","subsNo":"","lineNo":"","tgNo":"","tgName":null,"infoStatus":"1","orgName":"国网浙江临安市供电公司","typeName":null,"infoStatusName":null,"dateDay":null,"orgNos":null,"nowTime":null,"countyName":null,"streetName":null,"villageName":null,"roadName":null,"communityName":null,"tranName":null,"sdLineName":null,"cityCode":"3340160","cityName":"国网浙江临安市供电公司","provinceCode":null,"stopTime":"2019-12-24 09:00:00","powerType":"全部","powerOffArea":"沈家V185线34#杆园区沈家分线开关至2+1#杆开关后段","powerOffReason":"杭州临安於潜10千伏双庙V253线等分支线改造01项：沈家V185线园区沈家分线9#杆发电车电缆搭接","powerOffId":"2019121631020097"},{"poweroffId":2019121631020088,"sgpoweroffId":null,"subsName":"","lineName":"10kV柯家V330线","pubTranName":"杭州市临安区国瑞置业有限公司1#,杭州临安宏业建设工程有限公司1#,杭州市临安区国瑞置业有限公司3#,杭州市临安区国瑞置业有限公司4#,杭州市临安区国瑞置业有限公司1#,杭州市临安区国瑞置业有限公司6#,杭州市临安区国瑞置业有限公司2#,杭州市临安区国瑞置业有限公司5#,","scope":"浙江省杭州市临安区锦南街道柯家行政村杭州市临安区国瑞置业有限公司,杭州临安宏业建设工程有限公司一带","startTime":"2019-12-24 08:30:00","stopDate":"2019-12-24 11:30:00","orgNo":"3340160","typeCode":"计划停电","poweroffArea":"110kV锦南变:柯家V330线","poweroffReason":"用户接入","powerTime":"2019-12-24 11:20:13","powerComm":"已送电","subsNo":"","lineNo":"","tgNo":"","tgName":null,"infoStatus":"1","orgName":"国网浙江临安市供电公司","typeName":null,"infoStatusName":null,"dateDay":null,"orgNos":null,"nowTime":null,"countyName":null,"streetName":null,"villageName":null,"roadName":null,"communityName":null,"tranName":null,"sdLineName":null,"cityCode":"3340160","cityName":"国网浙江临安市供电公司","provinceCode":null,"stopTime":"2019-12-24 11:30:00","powerType":"全部","powerOffArea":"110kV锦南变:柯家V330线","powerOffReason":"用户接入","powerOffId":"2019121631020088"},{"poweroffId":2019121631020078,"sgpoweroffId":null,"subsName":"","lineName":"10kV蒋村8344线","pubTranName":"虾龙塘（2）,","scope":"浙江省-杭州市-西湖区-三墩镇-三坝社区-古墩路","startTime":"2019-12-16 10:02:00","stopDate":"2019-12-16 11:20:00","orgNo":"3340101","typeCode":"电网故障停限电","poweroffArea":"110kV祥符变:蒋村8344线虾龙塘（2）配变","poweroffReason":"高压开关跳闸 原停电结束时间为2019-12-16 12:02:00,为减少客户停电时间,加快工作进度,提前送电,现变更停电结束时间为2019-12-16 11:20:00","powerTime":"2019-12-16 10:32:40","powerComm":"已送电","subsNo":"","lineNo":"","tgNo":"","tgName":null,"infoStatus":"1","orgName":"浙江杭州电力客户服务中心","typeName":null,"infoStatusName":null,"dateDay":null,"orgNos":null,"nowTime":null,"countyName":null,"streetName":null,"villageName":null,"roadName":null,"communityName":null,"tranName":null,"sdLineName":null,"cityCode":"3340101","cityName":"浙江杭州电力客户服务中心","provinceCode":null,"stopTime":"2019-12-16 11:20:00","powerType":"全部","powerOffArea":"110kV祥符变:蒋村8344线虾龙塘（2）配变","powerOffReason":"高压开关跳闸 原停电结束时间为2019-12-16 12:02:00,为减少客户停电时间,加快工作进度,提前送电,现变更停电结束时间为2019-12-16 11:20:00","powerOffId":"2019121631020078"},{"poweroffId":2019121631020075,"sgpoweroffId":null,"subsName":"","lineName":"10kV冠沿9525线","pubTranName":"遗址施2#,沿江公园施2#,横塘三,遗址施1#,工业遗址1#,沿江公园施1#,道路施(1),工业遗址2#,浦横,横塘二,森翔,横塘一,","scope":"浙江省-杭州市-滨江区-西兴街道(西陵社区-固陵路,马湖社区-马湖路),浦沿街道(新生社区-新生路,杨家墩社区-浦沿路);浦沿街道(新生社区-杭州森翔市政工程有限公司,浦联社区-杭州高新技术产业开发区(滨江)智慧新天地建设指挥部,杭州高新技术产业开发区(滨江)智慧新天地建设指挥部)","startTime":"2019-12-16 09:58:07","stopDate":"2019-12-16 12:20:07","orgNo":"3340101","typeCode":"电网故障停限电","poweroffArea":"110kV冠山变:冠沿9525线-横三分线后段","poweroffReason":"高压开关跳闸 原停电结束时间为2019-12-16 14:58:07,为减少客户停电时间,加快工作进度,提前送电,现变更停电结束时间为2019-12-16 12:20:07","powerTime":"2019-12-16 11:54:35","powerComm":"已送电","subsNo":"","lineNo":"","tgNo":"","tgName":null,"infoStatus":"1","orgName":"浙江杭州电力客户服务中心","typeName":null,"infoStatusName":null,"dateDay":null,"orgNos":null,"nowTime":null,"countyName":null,"streetName":null,"villageName":null,"roadName":null,"communityName":null,"tranName":null,"sdLineName":null,"cityCode":"3340101","cityName":"浙江杭州电力客户服务中心","provinceCode":null,"stopTime":"2019-12-16 12:20:07","powerType":"全部","powerOffArea":"110kV冠山变:冠沿9525线-横三分线后段","powerOffReason":"高压开关跳闸 原停电结束时间为2019-12-16 14:58:07,为减少客户停电时间,加快工作进度,提前送电,现变更停电结束时间为2019-12-16 12:20:07","powerOffId":"2019121631020075"},{"poweroffId":2019121631020074,"sgpoweroffId":null,"subsName":"","lineName":"10kV北江D426线","pubTranName":"民联村4号青果沙公变,","scope":"浙江省-杭州市-富阳区-东洲街道-民联行政村-民联自然村","startTime":"2019-12-16 09:57:43","stopDate":"2019-12-16 10:57:43","orgNo":"3340170","typeCode":"电网故障停限电","poweroffArea":"110kV东洲变:北江D426线-民联村4号青果沙公变后段","poweroffReason":"(低压停电信息)低压开关跳闸","powerTime":"2019-12-16 10:26:49","powerComm":"已送电","subsNo":"","lineNo":"","tgNo":"","tgName":null,"infoStatus":"1","orgName":"国网浙江杭州市富阳区供电公司","typeName":null,"infoStatusName":null,"dateDay":null,"orgNos":null,"nowTime":null,"countyName":null,"streetName":null,"villageName":null,"roadName":null,"communityName":null,"tranName":null,"sdLineName":null,"cityCode":"3340170","cityName":"国网浙江杭州市富阳区供电公司","provinceCode":null,"stopTime":"2019-12-16 10:57:43","powerType":"全部","powerOffArea":"110kV东洲变:北江D426线-民联村4号青果沙公变后段","powerOffReason":"(低压停电信息)低压开关跳闸","powerOffId":"2019121631020074"}],"pageModel":{"pageNow":699,"totalCount":17789,"totalPage":1779,"tableRows":0,"pageCount":10,"beginCount":6980},"isExperi":"1"}