{"message":"","today":"2020-06-15","seleList":[{"poweroffId":2019121531020184,"sgpoweroffId":null,"subsName":"","lineName":"10kV千家D297线","pubTranName":"大畈村1#塔坞公变,","scope":"浙江省-杭州市-富阳区-银湖街道-大地行政村(芳地自然村,马家坞自然村,大地自然村,塔坞自然村,大畈自然村)","startTime":"2019-12-15 19:51:55","stopDate":"2019-12-15 20:51:55","orgNo":"3340170","typeCode":"电网故障停限电","poweroffArea":"35kV新义变:千家D297线-大畈村1#塔坞公变后段","poweroffReason":"高压开关跳闸 原停电结束时间为2019-12-15 21:51:55,为减少客户停电时间,加快工作进度,提前送电,现变更停电结束时间为2019-12-15 20:51:55","powerTime":"2019-12-15 20:26:31","powerComm":"已送电","subsNo":"","lineNo":"","tgNo":"","tgName":null,"infoStatus":"1","orgName":"国网浙江杭州市富阳区供电公司","typeName":null,"infoStatusName":null,"dateDay":null,"orgNos":null,"nowTime":null,"countyName":null,"streetName":null,"villageName":null,"roadName":null,"communityName":null,"tranName":null,"sdLineName":null,"cityCode":"3340170","cityName":"国网浙江杭州市富阳区供电公司","provinceCode":null,"stopTime":"2019-12-15 20:51:55","powerType":"全部","powerOffArea":"35kV新义变:千家D297线-大畈村1#塔坞公变后段","powerOffReason":"高压开关跳闸 原停电结束时间为2019-12-15 21:51:55,为减少客户停电时间,加快工作进度,提前送电,现变更停电结束时间为2019-12-15 20:51:55","powerOffId":"2019121531020184"},{"poweroffId":2019121531020180,"sgpoweroffId":null,"subsName":"","lineName":"10kV千家D297线","pubTranName":"大畈村1#塔坞公变,","scope":"浙江省-杭州市-富阳区-银湖街道-大地行政村(芳地自然村,马家坞自然村,大地自然村,塔坞自然村,大畈自然村)","startTime":"2019-12-15 19:20:00","stopDate":"2019-12-15 21:20:00","orgNo":"3340170","typeCode":"电网故障停限电","poweroffArea":"35kV新义变:千家D297线大畈村1#塔坞公变配变","poweroffReason":"高压开关跳闸","powerTime":"2019-12-15 20:20:50","powerComm":"已送电","subsNo":"","lineNo":"","tgNo":"","tgName":null,"infoStatus":"1","orgName":"国网浙江杭州市富阳区供电公司","typeName":null,"infoStatusName":null,"dateDay":null,"orgNos":null,"nowTime":null,"countyName":null,"streetName":null,"villageName":null,"roadName":null,"communityName":null,"tranName":null,"sdLineName":null,"cityCode":"3340170","cityName":"国网浙江杭州市富阳区供电公司","provinceCode":null,"stopTime":"2019-12-15 21:20:00","powerType":"全部","powerOffArea":"35kV新义变:千家D297线大畈村1#塔坞公变配变","powerOffReason":"高压开关跳闸","powerOffId":"2019121531020180"},{"poweroffId":2019121531020171,"sgpoweroffId":null,"subsName":"","lineName":"10kV东昌Y444线","pubTranName":"寿昌集镇金汇公变,","scope":"浙江省-杭州市-建德市-寿昌镇-东门行政村-东郭路,寿昌镇-东昌社区(东昌北路,中山路)金汇小区一带用户。","startTime":"2019-12-15 17:38:00","stopDate":"2019-12-15 20:00:00","orgNo":"3340180","typeCode":"电网故障停限电","poweroffArea":"110kV家蓬变:东昌Y444线-寿昌集镇金汇公变后段","poweroffReason":"(低压停电信息)低压开关跳闸","powerTime":"2019-12-15 19:12:00","powerComm":"已送电","subsNo":"","lineNo":"","tgNo":"","tgName":null,"infoStatus":"1","orgName":"国网浙江建德市供电有限公司","typeName":null,"infoStatusName":null,"dateDay":null,"orgNos":null,"nowTime":null,"countyName":null,"streetName":null,"villageName":null,"roadName":null,"communityName":null,"tranName":null,"sdLineName":null,"cityCode":"3340180","cityName":"国网浙江建德市供电有限公司","provinceCode":null,"stopTime":"2019-12-15 20:00:00","powerType":"全部","powerOffArea":"110kV家蓬变:东昌Y444线-寿昌集镇金汇公变后段","powerOffReason":"(低压停电信息)低压开关跳闸","powerOffId":"2019121531020171"},{"poweroffId":2019121531020167,"sgpoweroffId":null,"subsName":"","lineName":"10kV星光G116线","pubTranName":"华清2号公变,华清3号公变,第二监狱II段（6110231015）02号专变,杭州市余杭区机关事务服务中心61208442921#变压器,华清4B-2号公变,华清4B-1号公变,华清1号公变,杭州市余杭区机关事务服务中心61208442911#变压器,丁山农居点1号公变,城建处上塘河1#景观变,","scope":"浙江省-杭州市-余杭区-临平街道-丁山社区(丁山,安平路);南苑街道-杭州市余杭区城市管理局,临平街道(杭州市余杭区机关事务服务中心,杭州钱江工贸有限责任公司)","startTime":"2019-12-15 17:16:00","stopDate":"2019-12-15 18:16:00","orgNo":"3340140","typeCode":"电网故障停限电","poweroffArea":"110kV临平变:星光G116线华清环网站清幢联线后段","poweroffReason":"高压开关跳闸 原停电结束时间为2019-12-15 20:16:00,为减少客户停电时间,加快工作进度,提前送电,现变更停电结束时间为2019-12-15 18:16:00","powerTime":"2019-12-15 17:51:12","powerComm":"已送电","subsNo":"","lineNo":"","tgNo":"","tgName":null,"infoStatus":"1","orgName":"国网浙江杭州市余杭区供电有限公司","typeName":null,"infoStatusName":null,"dateDay":null,"orgNos":null,"nowTime":null,"countyName":null,"streetName":null,"villageName":null,"roadName":null,"communityName":null,"tranName":null,"sdLineName":null,"cityCode":"3340140","cityName":"国网浙江杭州市余杭区供电有限公司","provinceCode":null,"stopTime":"2019-12-15 18:16:00","powerType":"全部","powerOffArea":"110kV临平变:星光G116线华清环网站清幢联线后段","powerOffReason":"高压开关跳闸 原停电结束时间为2019-12-15 20:16:00,为减少客户停电时间,加快工作进度,提前送电,现变更停电结束时间为2019-12-15 18:16:00","powerOffId":"2019121531020167"},{"poweroffId":2019121531020166,"sgpoweroffId":null,"subsName":"","lineName":"10kV景福H541线","pubTranName":"小古城村杨家畈1号公变,小古城村横坑5组公变,杭州径山神龙茶业有限公司6110116019,小古城村钱家滩村公变,东巨实业6110116223,小古城村杨家畈2号公变,小古城村侯家公变,杭州茶叶试验场6110119011,庆宏印刷制品,杭州茶叶试验场6110119023,杭州大麓茶业有限公司6110116221,小古城村赤子弄公变,潘板集镇老中学公变,小古城村横坑6组公变,","scope":"浙江省-杭州市-余杭区-径山镇-小古城行政村(小古城自然村,枉坑自然村,钱家滩自然村,赤子异自然村,上房自然村,杨家畈自然村,西边山自然村,杨府山自然村),径山镇(径山行政村-径山自然村,潘坂桥行政村-感塘村);瓶窑镇-杭州茶叶试验场,径山镇(杭州径山神龙茶业有限公司,杭州大麓茶业有限公司,杭州庆宏印刷制品有限公司,杭州东巨实业有限公司)","startTime":"2019-12-15 17:05:00","stopDate":"2019-12-15 20:05:00","orgNo":"3340140","typeCode":"电网故障停限电","poweroffArea":"110kV潘板变:景福H541线景福总分线21#杆分段开关后段","poweroffReason":"高压开关跳闸","powerTime":"2019-12-15 19:26:00","powerComm":"已送电","subsNo":"","lineNo":"","tgNo":"","tgName":null,"infoStatus":"1","orgName":"国网浙江杭州市余杭区供电有限公司","typeName":null,"infoStatusName":null,"dateDay":null,"orgNos":null,"nowTime":null,"countyName":null,"streetName":null,"villageName":null,"roadName":null,"communityName":null,"tranName":null,"sdLineName":null,"cityCode":"3340140","cityName":"国网浙江杭州市余杭区供电有限公司","provinceCode":null,"stopTime":"2019-12-15 20:05:00","powerType":"全部","powerOffArea":"110kV潘板变:景福H541线景福总分线21#杆分段开关后段","powerOffReason":"高压开关跳闸","powerOffId":"2019121531020166"},{"poweroffId":2019121531020157,"sgpoweroffId":null,"subsName":"","lineName":"10kV长钢6159线","pubTranName":"晶都十九变,","scope":"浙江省-杭州市-滨江区-长河街道-晶都社区(南岸晶都小区,滨康路)","startTime":"2019-12-15 15:39:00","stopDate":"2019-12-15 16:40:00","orgNo":"3340101","typeCode":"电网故障停限电","poweroffArea":"110kV长河变:长钢6159线晶都十九变配变","poweroffReason":"高压开关跳闸 原停电结束时间为2019-12-15 21:39:00,为减少客户停电时间,加快工作进度,提前送电,现变更停电结束时间为2019-12-15 16:40:00","powerTime":"2019-12-15 16:07:54","powerComm":"已送电","subsNo":"","lineNo":"","tgNo":"","tgName":null,"infoStatus":"1","orgName":"浙江杭州电力客户服务中心","typeName":null,"infoStatusName":null,"dateDay":null,"orgNos":null,"nowTime":null,"countyName":null,"streetName":null,"villageName":null,"roadName":null,"communityName":null,"tranName":null,"sdLineName":null,"cityCode":"3340101","cityName":"浙江杭州电力客户服务中心","provinceCode":null,"stopTime":"2019-12-15 16:40:00","powerType":"全部","powerOffArea":"110kV长河变:长钢6159线晶都十九变配变","powerOffReason":"高压开关跳闸 原停电结束时间为2019-12-15 21:39:00,为减少客户停电时间,加快工作进度,提前送电,现变更停电结束时间为2019-12-15 16:40:00","powerOffId":"2019121531020157"},{"poweroffId":2019121531020156,"sgpoweroffId":null,"subsName":"","lineName":"20kV青年B234线","pubTranName":"6#,七甲闸1#变,2#变,1#变,2#,4#,","scope":"浙江省-杭州市-萧山区-宁围镇-宁围街道-滨江区-西兴街道-水电社区-杭州奥体博览中心滨江建设指挥部,宁围街道(利一行政村-杭州奥体博览中心萧山建设投资有限公司,钱江世纪城社区-杭州奥体博览中心萧山建设投资有限公司)等一带","startTime":"2019-12-15 15:26:17","stopDate":"2019-12-15 18:02:17","orgNo":"3340130","typeCode":"电网故障停限电","poweroffArea":"110kV奥体变:青年B234线","poweroffReason":"高压柱上断路器短路故障 原停电结束时间为2019-12-15 19:32:17,为减少客户停电时间,加快工作进度,提前送电,现变更停电结束时间为2019-12-15 18:02:17","powerTime":"2019-12-15 17:09:33","powerComm":"已送电","subsNo":"","lineNo":"","tgNo":"","tgName":null,"infoStatus":"1","orgName":"国网浙江杭州市萧山区供电有限公司","typeName":null,"infoStatusName":null,"dateDay":null,"orgNos":null,"nowTime":null,"countyName":null,"streetName":null,"villageName":null,"roadName":null,"communityName":null,"tranName":null,"sdLineName":null,"cityCode":"3340130","cityName":"国网浙江杭州市萧山区供电有限公司","provinceCode":null,"stopTime":"2019-12-15 18:02:17","powerType":"全部","powerOffArea":"110kV奥体变:青年B234线","powerOffReason":"高压柱上断路器短路故障 原停电结束时间为2019-12-15 19:32:17,为减少客户停电时间,加快工作进度,提前送电,现变更停电结束时间为2019-12-15 18:02:17","powerOffId":"2019121531020156"},{"poweroffId":2019121531020154,"sgpoweroffId":null,"subsName":"","lineName":"10kV阳光D816线","pubTranName":"1#变压器,诚品7号公变,诚品1号公变,诚品5号公变,诚品3号公变,","scope":"浙江省-杭州市-富阳区-富春街道-巨利社区(金苑路727号,富春诚品公寓,金苑路);富春街道-中天美好生活服务集团有限公司","startTime":"2019-12-15 15:30:00","stopDate":"2019-12-15 17:23:00","orgNo":"3340170","typeCode":"电网故障停限电","poweroffArea":"110kV容大变:阳光D816线富春诚品开关站阳诚D8163线开关后段","poweroffReason":"高压开关跳闸","powerTime":"2019-12-15 16:33:49","powerComm":"已送电","subsNo":"","lineNo":"","tgNo":"","tgName":null,"infoStatus":"1","orgName":"国网浙江杭州市富阳区供电公司","typeName":null,"infoStatusName":null,"dateDay":null,"orgNos":null,"nowTime":null,"countyName":null,"streetName":null,"villageName":null,"roadName":null,"communityName":null,"tranName":null,"sdLineName":null,"cityCode":"3340170","cityName":"国网浙江杭州市富阳区供电公司","provinceCode":null,"stopTime":"2019-12-15 17:23:00","powerType":"全部","powerOffArea":"110kV容大变:阳光D816线富春诚品开关站阳诚D8163线开关后段","powerOffReason":"高压开关跳闸","powerOffId":"2019121531020154"},{"poweroffId":2019121531020153,"sgpoweroffId":null,"subsName":"","lineName":"10kV育才D812线","pubTranName":"凤凰小区3#公变,","scope":"浙江省-杭州市-富阳区-富春街道-金桥社区-金凤路","startTime":"2019-12-15 14:32:00","stopDate":"2019-12-15 17:32:00","orgNo":"3340170","typeCode":"电网故障停限电","poweroffArea":"110kV容大变:育才D812线凤凰小区3#公变配变","poweroffReason":"高压开关跳闸 原停电结束时间为2019-12-15 16:32:00,因抢修难度大原因,现变更停电结束时间为2019-12-15 17:32:00","powerTime":"2019-12-15 16:45:18","powerComm":"已送电","subsNo":"","lineNo":"","tgNo":"","tgName":null,"infoStatus":"1","orgName":"国网浙江杭州市富阳区供电公司","typeName":null,"infoStatusName":null,"dateDay":null,"orgNos":null,"nowTime":null,"countyName":null,"streetName":null,"villageName":null,"roadName":null,"communityName":null,"tranName":null,"sdLineName":null,"cityCode":"3340170","cityName":"国网浙江杭州市富阳区供电公司","provinceCode":null,"stopTime":"2019-12-15 17:32:00","powerType":"全部","powerOffArea":"110kV容大变:育才D812线凤凰小区3#公变配变","powerOffReason":"高压开关跳闸 原停电结束时间为2019-12-15 16:32:00,因抢修难度大原因,现变更停电结束时间为2019-12-15 17:32:00","powerOffId":"2019121531020153"},{"poweroffId":2019121531020152,"sgpoweroffId":null,"subsName":"","lineName":"10kV望寓D807线","pubTranName":"杭州钧顺房地产开发有限公司2#变,","scope":"浙江省-杭州市-富阳区-富春街道-浙江德扬商业管理有限公司","startTime":"2019-12-15 15:03:00","stopDate":"2019-12-15 17:03:00","orgNo":"3340170","typeCode":"电网故障停限电","poweroffArea":"110kV容大变:望寓D807线杭州钧顺房地产开发有限公司配变","poweroffReason":"高压开关跳闸","powerTime":"2019-12-15 16:36:36","powerComm":"已送电","subsNo":"","lineNo":"","tgNo":"","tgName":null,"infoStatus":"1","orgName":"国网浙江杭州市富阳区供电公司","typeName":null,"infoStatusName":null,"dateDay":null,"orgNos":null,"nowTime":null,"countyName":null,"streetName":null,"villageName":null,"roadName":null,"communityName":null,"tranName":null,"sdLineName":null,"cityCode":"3340170","cityName":"国网浙江杭州市富阳区供电公司","provinceCode":null,"stopTime":"2019-12-15 17:03:00","powerType":"全部","powerOffArea":"110kV容大变:望寓D807线杭州钧顺房地产开发有限公司配变","powerOffReason":"高压开关跳闸","powerOffId":"2019121531020152"}],"pageModel":{"pageNow":701,"totalCount":17789,"totalPage":1779,"tableRows":0,"pageCount":10,"beginCount":7000},"isExperi":"1"}