{"message":"","today":"2020-06-15","seleList":[{"poweroffId":2019121531020077,"sgpoweroffId":null,"subsName":"","lineName":"10kV悦墅D987线","pubTranName":"金桥村19#第四联2公变,富阳市社会福利中心2#,五爱村,金汇之星5号公变,富阳市路灯安装维修管理所,如画府7号公变,金桥村金家桥5号公变,如画府5号公变,2#变压器,3#,7#变,金汇之星3号公变,悦墅5号公变,1#变压器,如画府3号公变,金汇之星6号公变,杭州锦庭房地产开发有限公司3#基建变,金桥村15#金家桥4公变,悦墅11号公变,金桥村30号金家桥6公变,金汇之星1号公变,富阳宝龙房地产开发有限公司,如画府13号公变,浙江清源房地产开发有限公司1#变,杭州全达建设工程有限公司1#基建变,金桥变电所公变,杭州景翔置业有限公司 1#基建变,金桥村28#第四联7公变,金桥村27#金家桥3公变,杭州富阳城市建设投资集团有限公司1#变,富阳市人民政府富春街道办事处,杭州锦庭房地产开发有限公司2#基建变,路港集团有限公司,金汇之星8号公变,如画府9号公变,新关村,小墅7#公变,杭州锦坤房地产开发有限公司1#变,悦墅7号公变,金桥村31号金家桥7公变,杭州锦庭房地产开发有限公司1#基建变,盐业公司,杭州锦坤房地产开发有限公司1#变,杭州富阳城市建设投资集团有限公司1#变,富阳市水务有限公司,富阳市社会福利中心1#,悦墅13号公变,杭州锦坤房地产开发有限公司1#变,杭州富阳城市建设投资集团有限公司1#变,杭州景翔置业有限公司 1#基建变,小墅1#公变,悦墅1号公变,金汇之星10号公变,2#,杭州富阳城市建设投资集团有限公司1#变,如画府11号公变,悦墅3号公变,小墅9#公变,金桥村32号金家桥中公变,杭州富阳城市建设投资集团有限公司7#变,富阳宝龙房地产开发有限公司,金桥村16#金家桥2公变,杭州景翔置业有限公司 2#基建变,杭州富阳城市建设投资集团有限公司1#变,1#,悦墅9号公变,金桥村29号第四联8公变,小墅3#公变,金桥村26#第四联6公变,金桥村25#第四联5公变,富阳宝龙房地产开发有限公司,新关旭光勤俭红星,1#,金桥村23#第四联3公变,杭州富阳城市建设投资集团有限公司1#变,杭州富阳公路发展有限公司1#变,杭州富阳城市建设投资集团有限公司1#变,金桥村24#第四联4公变,如画府1号公变,杭州富阳瑞宸房地产有限公司2#变,金桥村8#金家桥公变,小墅5#公变,","scope":"浙江省-杭州市-富阳区-富春街道-金家桥社区(文居街,永兴路259号,凤浦路,西环北路,永兴路),富春街道-金桥社区(文居街,公望街,金苑路,金浦路,公园西路,金浦路388号,三号渠南侧道路(暂名)),富春街道-金秋社区(文居街,公园西路,公望街,文豪路,文豪西路,金浦路413号,金苑路,金城路,凤浦西路,金桥村,第四年,育才西路),富春街道(后周社区-文兴路,金苑社区-大家小墅);富春街道(新关旭光勤俭红星,杭州市盐业有限公司富阳分公司,黄本礼,杭州锦坤房地产开发有限公司,中天建设集团有限公司,杭州富阳公路发展有限公司,杭州景翔置业有限公司,杭州市富阳区青少年宫,杭州市富阳区富春街道金桥股份经济合作社,杭州嘉汇置业有限公司,杭州富阳瑞宸房地产有限公司,杭州富阳水务有限公司,杭州富阳城市照明工程有限公司,杭州富阳富春加油站有限公司,杭州市富阳区社会福利中心,富阳市人民政府富春街道办事处)","startTime":"2019-12-15 10:06:00","stopDate":"2019-12-15 12:40:00","orgNo":"3340170","typeCode":"电网故障停限电","poweroffArea":"110kV育才变:悦墅D987线如画开关站悦墅D987线后段","poweroffReason":"高压开关跳闸 原停电结束时间为2019-12-15 14:06:00,为减少客户停电时间,加快工作进度,提前送电,现变更停电结束时间为2019-12-15 12:40:00","powerTime":"2019-12-15 12:26:44","powerComm":"已送电","subsNo":"","lineNo":"","tgNo":"","tgName":null,"infoStatus":"1","orgName":"国网浙江杭州市富阳区供电公司","typeName":null,"infoStatusName":null,"dateDay":null,"orgNos":null,"nowTime":null,"countyName":null,"streetName":null,"villageName":null,"roadName":null,"communityName":null,"tranName":null,"sdLineName":null,"cityCode":"3340170","cityName":"国网浙江杭州市富阳区供电公司","provinceCode":null,"stopTime":"2019-12-15 12:40:00","powerType":"全部","powerOffArea":"110kV育才变:悦墅D987线如画开关站悦墅D987线后段","powerOffReason":"高压开关跳闸 原停电结束时间为2019-12-15 14:06:00,为减少客户停电时间,加快工作进度,提前送电,现变更停电结束时间为2019-12-15 12:40:00","powerOffId":"2019121531020077"},{"poweroffId":2019121531020074,"sgpoweroffId":null,"subsName":"","lineName":"10kV周家G292线","pubTranName":"塘北村郁家斗公变,塘南姚家坝村镇政府,塘北村火长港公变,汇益机械变,","scope":"浙江省-杭州市-余杭区-塘栖镇-塘北行政村-塘北村;塘栖镇(姚家埭行政村-塘南姚家坝村镇政府,塘北行政村-杭州汇益机械有限公司)","startTime":"2019-12-15 10:50:00","stopDate":"2019-12-15 15:00:00","orgNo":"3340140","typeCode":"电网故障停限电","poweroffArea":"110kV渔桥变:周家G292线-周家G2925开关后段","poweroffReason":"高压开关跳闸","powerTime":"2019-12-15 14:57:27","powerComm":"已送电","subsNo":"","lineNo":"","tgNo":"","tgName":null,"infoStatus":"1","orgName":"国网浙江杭州市余杭区供电有限公司","typeName":null,"infoStatusName":null,"dateDay":null,"orgNos":null,"nowTime":null,"countyName":null,"streetName":null,"villageName":null,"roadName":null,"communityName":null,"tranName":null,"sdLineName":null,"cityCode":"3340140","cityName":"国网浙江杭州市余杭区供电有限公司","provinceCode":null,"stopTime":"2019-12-15 15:00:00","powerType":"全部","powerOffArea":"110kV渔桥变:周家G292线-周家G2925开关后段","powerOffReason":"高压开关跳闸","powerOffId":"2019121531020074"},{"poweroffId":2019121531020069,"sgpoweroffId":null,"subsName":"","lineName":"10kV庆田8018线","pubTranName":"农园一变,农生2,华农二变,华农五变,农生,华农六变,浙大华家池校区生活区1,华农三变,华农四变,华农一变,华电,","scope":"浙江省-杭州市-江干区-凯旋街道-华家池社区(凯旋路,杭州,凤起东路69-1号),凯旋街道-景芳社区(景芳路,东农大路),凯旋街道-景华社区(凯旋路,东城印象公寓),凯旋街道(景湖社区-新塘路,金秋花园社区-凤起东路69-1号),采荷街道-芙蓉社区-凯旋路;凯旋街道(浙江苏宁易购商贸有限公司,浙江大学)","startTime":"2019-12-15 09:34:00","stopDate":"2019-12-15 15:00:00","orgNo":"3340101","typeCode":"电网故障停限电","poweroffArea":"110kV庆春变:庆田8018线景北站神农分线后段","poweroffReason":"高压开关跳闸 原停电结束时间为2019-12-15 11:34:00,由于施工现场环境比较复杂，存在不确定因素，因此预估施工时间不足，现变更停电结束时间为2019-12-15 15:00:00","powerTime":"2019-12-15 14:05:05","powerComm":"已送电","subsNo":"","lineNo":"","tgNo":"","tgName":null,"infoStatus":"1","orgName":"浙江杭州电力客户服务中心","typeName":null,"infoStatusName":null,"dateDay":null,"orgNos":null,"nowTime":null,"countyName":null,"streetName":null,"villageName":null,"roadName":null,"communityName":null,"tranName":null,"sdLineName":null,"cityCode":"3340101","cityName":"浙江杭州电力客户服务中心","provinceCode":null,"stopTime":"2019-12-15 15:00:00","powerType":"全部","powerOffArea":"110kV庆春变:庆田8018线景北站神农分线后段","powerOffReason":"高压开关跳闸 原停电结束时间为2019-12-15 11:34:00,由于施工现场环境比较复杂，存在不确定因素，因此预估施工时间不足，现变更停电结束时间为2019-12-15 15:00:00","powerOffId":"2019121531020069"},{"poweroffId":2019121531020065,"sgpoweroffId":null,"subsName":"","lineName":"10kV长盘D722线","pubTranName":"湘河村5#联山陈家坞公变,湘河村3#村里公变,湘溪村7#石门金家公变,湘溪村4#石佛程家公变,富阳市新登镇湘溪村经济合作社,枫瑞村8#菖卜松家坞公变,湘溪村9#石门新村公变,湘溪村1#仙坎公变,和山村2#高畈里公变,湘河村7#脚踏坞口公变,枫瑞村1#麻车里公变,富阳市枫瑞织布厂,和山村4#埠头公变,和山村3#大沅坞公变,湘溪村2号下崔家公变,湘河村1#榧树下公变,湘河村8号久仰坪公变,富阳市三阳芦荟实验有限公司,湘河村6号联山殿后山公变,富阳鑫达新能源有限公司,湘溪村8#石门裘家公变,枫瑞村6#菖蒲袁家公变,枫瑞村7#菖蒲俞家公变,和山村1号岱山公变,湘溪村6#石门王家公变,富阳市新登镇金凤竹木制品厂,和山村6号安坞口公变,湘溪村10#幼儿园公变,湘河村2#桥弯头公变,湘溪村3号上崔家公变,湘河村4#湘联郎家坞公变,湘溪村11#农居点公变,富阳市新登镇湘溪轧石厂,","scope":"浙江省-杭州市-富阳区-新登镇-湘溪行政村(考坎坞自然村,塔坞自然村,上金家自然村,下金家自然村,裘家自然村,仙源自然村,汤家凸自然村,石岭自然村,崔家自然村,王家自然村,石佛自然村,汪家园自然村,农居点自然村,七房头自然村),洞桥镇-枫瑞行政村(菖蒲俞家自然村,枫瑞自然村,巨龙自然村,菖蒲袁家自然村,大坞自然村,大乐村朱家自然村,堪下自然村,佳坞里自然村,骆坞口自然村,麻车里自然村),新登镇-湘河行政村(汪家山自然村,湘溪桥头自然村,榧树底下自然村,连山自然村,湘连自然村,村里自然村,石湾里自然村,脚踏坞自然村),新登镇-和山行政村(朱家坞自然村,埠头自然村,陆家自然村,大源坞口自然村,陈家自然村,岱山自然村),新登镇(仙里行政村-徐家自然村,马弓行政村-马弓坞自然村);洞桥镇-杭州富阳枫瑞织布厂,新登镇(富阳市新登镇湘溪轧石厂,杭州富阳鑫达新能源有限公司,富阳市新登镇湘溪村经济合作社,富阳市三阳芦荟实验有限公司,杭州富阳区新登镇金凤竹木制品厂)","startTime":"2019-12-15 09:15:00","stopDate":"2019-12-15 11:15:00","orgNo":"3340170","typeCode":"电网故障停限电","poweroffArea":"110kV松溪变:长盘D722线长盘D7223开关后段","poweroffReason":"高压开关跳闸","powerTime":"2019-12-15 10:57:47","powerComm":"已送电","subsNo":"","lineNo":"","tgNo":"","tgName":null,"infoStatus":"1","orgName":"国网浙江杭州市富阳区供电公司","typeName":null,"infoStatusName":null,"dateDay":null,"orgNos":null,"nowTime":null,"countyName":null,"streetName":null,"villageName":null,"roadName":null,"communityName":null,"tranName":null,"sdLineName":null,"cityCode":"3340170","cityName":"国网浙江杭州市富阳区供电公司","provinceCode":null,"stopTime":"2019-12-15 11:15:00","powerType":"全部","powerOffArea":"110kV松溪变:长盘D722线长盘D7223开关后段","powerOffReason":"高压开关跳闸","powerOffId":"2019121531020065"},{"poweroffId":2019121531020064,"sgpoweroffId":null,"subsName":"","lineName":"10kV十月D225线","pubTranName":"筱岭村1#中村公变,","scope":"浙江省-杭州市-富阳区-银湖街道-坑西行政村-筱岭自然村","startTime":"2019-12-15 09:15:43","stopDate":"2019-12-15 10:15:43","orgNo":"3340170","typeCode":"电网故障停限电","poweroffArea":"110kV银湖变:十月D225线-筱岭村1#中村公变后段","poweroffReason":"高压开关跳闸","powerTime":"2019-12-15 10:00:12","powerComm":"已送电","subsNo":"","lineNo":"","tgNo":"","tgName":null,"infoStatus":"1","orgName":"国网浙江杭州市富阳区供电公司","typeName":null,"infoStatusName":null,"dateDay":null,"orgNos":null,"nowTime":null,"countyName":null,"streetName":null,"villageName":null,"roadName":null,"communityName":null,"tranName":null,"sdLineName":null,"cityCode":"3340170","cityName":"国网浙江杭州市富阳区供电公司","provinceCode":null,"stopTime":"2019-12-15 10:15:43","powerType":"全部","powerOffArea":"110kV银湖变:十月D225线-筱岭村1#中村公变后段","powerOffReason":"高压开关跳闸","powerOffId":"2019121531020064"},{"poweroffId":2019121531020058,"sgpoweroffId":null,"subsName":"","lineName":"10kV连琪H290线","pubTranName":"连具塘村莫家头公变,","scope":"浙江省-杭州市-余杭区-仓前街道-连具塘行政村(莫家头自然村,连具塘自然村)","startTime":"2019-12-15 09:00:09","stopDate":"2019-12-15 12:00:09","orgNo":"3340140","typeCode":"电网故障停限电","poweroffArea":"110kV柏庙变:连琪H290线-连具塘村莫家头公变后段","poweroffReason":"高压开关跳闸","powerTime":"2019-12-15 11:54:51","powerComm":"已送电","subsNo":"","lineNo":"","tgNo":"","tgName":null,"infoStatus":"1","orgName":"国网浙江杭州市余杭区供电有限公司","typeName":null,"infoStatusName":null,"dateDay":null,"orgNos":null,"nowTime":null,"countyName":null,"streetName":null,"villageName":null,"roadName":null,"communityName":null,"tranName":null,"sdLineName":null,"cityCode":"3340140","cityName":"国网浙江杭州市余杭区供电有限公司","provinceCode":null,"stopTime":"2019-12-15 12:00:09","powerType":"全部","powerOffArea":"110kV柏庙变:连琪H290线-连具塘村莫家头公变后段","powerOffReason":"高压开关跳闸","powerOffId":"2019121531020058"},{"poweroffId":2019121531020045,"sgpoweroffId":null,"subsName":"","lineName":"10kV陈园C841线","pubTranName":"陈家园村16#变,","scope":"浙江省-杭州市-萧山区-新街镇-新街街道-陈家园行政村-陈家园自然村等一带","startTime":"2019-12-15 08:24:42","stopDate":"2019-12-15 18:01:42","orgNo":"3340130","typeCode":"电网故障停限电","poweroffArea":"110kV罗山变:陈园C841线-陈家园村16#变台区低压开关","poweroffReason":"(低压停电信息)低压漏电保护器短路故障","powerTime":"2019-12-15 17:02:26","powerComm":"已送电","subsNo":"","lineNo":"","tgNo":"","tgName":null,"infoStatus":"1","orgName":"国网浙江杭州市萧山区供电有限公司","typeName":null,"infoStatusName":null,"dateDay":null,"orgNos":null,"nowTime":null,"countyName":null,"streetName":null,"villageName":null,"roadName":null,"communityName":null,"tranName":null,"sdLineName":null,"cityCode":"3340130","cityName":"国网浙江杭州市萧山区供电有限公司","provinceCode":null,"stopTime":"2019-12-15 18:01:42","powerType":"全部","powerOffArea":"110kV罗山变:陈园C841线-陈家园村16#变台区低压开关","powerOffReason":"(低压停电信息)低压漏电保护器短路故障","powerOffId":"2019121531020045"},{"poweroffId":2019121531020033,"sgpoweroffId":null,"subsName":"","lineName":"10kV洋溪Y100线","pubTranName":"白沙社区立交桥3号公变,","scope":"浙江省-杭州市-建德市-新安江街道-白沙社区-新衢路一带用户","startTime":"2019-12-15 07:30:00","stopDate":"2019-12-15 12:30:00","orgNo":"3340180","typeCode":"电网故障停限电","poweroffArea":"110kV新安江变:洋溪Y100线立交桥3#公变配变","poweroffReason":"高压开关跳闸","powerTime":"2019-12-15 12:29:00","powerComm":"已送电","subsNo":"","lineNo":"","tgNo":"","tgName":null,"infoStatus":"1","orgName":"国网浙江建德市供电有限公司","typeName":null,"infoStatusName":null,"dateDay":null,"orgNos":null,"nowTime":null,"countyName":null,"streetName":null,"villageName":null,"roadName":null,"communityName":null,"tranName":null,"sdLineName":null,"cityCode":"3340180","cityName":"国网浙江建德市供电有限公司","provinceCode":null,"stopTime":"2019-12-15 12:30:00","powerType":"全部","powerOffArea":"110kV新安江变:洋溪Y100线立交桥3#公变配变","powerOffReason":"高压开关跳闸","powerOffId":"2019121531020033"},{"poweroffId":2019121531020031,"sgpoweroffId":null,"subsName":"","lineName":"10kV艮南6466线","pubTranName":"化机(停),铁服,城河,","scope":"浙江省-杭州市-下城区-潮鸣街道-体东社区-艮山路,彭埠镇-新塘社区(艮山西路),凯旋街道(景华社区-城河)","startTime":"2019-12-15 07:34:00","stopDate":"2019-12-15 09:04:00","orgNo":"3340101","typeCode":"电网故障停限电","poweroffArea":"110kV五福变:艮南6466线铁服分线","poweroffReason":"高压开关跳闸 原停电结束时间为2019-12-15 09:34:00,为减少客户停电时间,加快工作进度,提前送电,现变更停电结束时间为2019-12-15 09:04:00","powerTime":"2019-12-15 08:07:17","powerComm":"已送电","subsNo":"","lineNo":"","tgNo":"","tgName":null,"infoStatus":"1","orgName":"浙江杭州电力客户服务中心","typeName":null,"infoStatusName":null,"dateDay":null,"orgNos":null,"nowTime":null,"countyName":null,"streetName":null,"villageName":null,"roadName":null,"communityName":null,"tranName":null,"sdLineName":null,"cityCode":"3340101","cityName":"浙江杭州电力客户服务中心","provinceCode":null,"stopTime":"2019-12-15 09:04:00","powerType":"全部","powerOffArea":"110kV五福变:艮南6466线铁服分线","powerOffReason":"高压开关跳闸 原停电结束时间为2019-12-15 09:34:00,为减少客户停电时间,加快工作进度,提前送电,现变更停电结束时间为2019-12-15 09:04:00","powerOffId":"2019121531020031"},{"poweroffId":2019121531020026,"sgpoweroffId":null,"subsName":"","lineName":"10kV陈米G352线","pubTranName":"奉口村北埭公变,奉口村南埭公变,","scope":"浙江省-杭州市-余杭区-仁和街道-奉口行政村(奉口自然村,徐家角自然村,南埭自然村,北埭自然村)","startTime":"2019-12-15 07:06:00","stopDate":"2019-12-15 09:30:00","orgNo":"3340140","typeCode":"电网故障停限电","poweroffArea":"110kV洛山变:陈米G352线奉口分线开关后段","poweroffReason":"高压开关跳闸","powerTime":"2019-12-15 08:40:00","powerComm":"已送电","subsNo":"","lineNo":"","tgNo":"","tgName":null,"infoStatus":"1","orgName":"国网浙江杭州市余杭区供电有限公司","typeName":null,"infoStatusName":null,"dateDay":null,"orgNos":null,"nowTime":null,"countyName":null,"streetName":null,"villageName":null,"roadName":null,"communityName":null,"tranName":null,"sdLineName":null,"cityCode":"3340140","cityName":"国网浙江杭州市余杭区供电有限公司","provinceCode":null,"stopTime":"2019-12-15 09:30:00","powerType":"全部","powerOffArea":"110kV洛山变:陈米G352线奉口分线开关后段","powerOffReason":"高压开关跳闸","powerOffId":"2019121531020026"}],"pageModel":{"pageNow":705,"totalCount":17789,"totalPage":1779,"tableRows":0,"pageCount":10,"beginCount":7040},"isExperi":"1"}