{"message":"","today":"2020-06-15","seleList":[{"poweroffId":2019121531020003,"sgpoweroffId":null,"subsName":"","lineName":"10kV新东Y107线","pubTranName":"春江明月12#公变,香溢6#公变变压器,香溢4#公变变压器,春江明月7#公变,春江明月4#公变,建德市香溢房地产开发公司专变1#,春江明月11#公变,香溢2#公变变压器,春江明月14#公变,春江明月8#公变,春江明月3#公变,","scope":"浙江省-杭州市-建德市-新安江街道-溪头社区-严州大道,新安江街道-新安社区 江滨中路,凤凰山路 ;新安江街道-建德郡原物业服务有限公司一带用户","startTime":"2019-12-15 03:00:00","stopDate":"2019-12-15 05:00:00","orgNo":"3340180","typeCode":"电网故障停限电","poweroffArea":"110kV新安江变:新东Y107线绿城开关站12#柜闸刀后段","poweroffReason":"高压开关跳闸 原停电结束时间为2019-12-15 07:00:00,为减少客户停电时间,加快工作进度,提前送电,现变更停电结束时间为2019-12-15 05:00:00","powerTime":"2019-12-15 04:19:45","powerComm":"已送电","subsNo":"","lineNo":"","tgNo":"","tgName":null,"infoStatus":"1","orgName":"国网浙江建德市供电有限公司","typeName":null,"infoStatusName":null,"dateDay":null,"orgNos":null,"nowTime":null,"countyName":null,"streetName":null,"villageName":null,"roadName":null,"communityName":null,"tranName":null,"sdLineName":null,"cityCode":"3340180","cityName":"国网浙江建德市供电有限公司","provinceCode":null,"stopTime":"2019-12-15 05:00:00","powerType":"全部","powerOffArea":"110kV新安江变:新东Y107线绿城开关站12#柜闸刀后段","powerOffReason":"高压开关跳闸 原停电结束时间为2019-12-15 07:00:00,为减少客户停电时间,加快工作进度,提前送电,现变更停电结束时间为2019-12-15 05:00:00","powerOffId":"2019121531020003"},{"poweroffId":2019121531020002,"sgpoweroffId":null,"subsName":"","lineName":"10kV新安Y115线","pubTranName":"玉兰花园1号公变,春江明月13#公变,香溢5#公变变压器,玉兰花园5号公变,桥东幼儿园1#变,浙江新安化工集团股份有限公司3#,春江明月2#公变,春江明月10#公变,春江明月1#公变,香溢3#公变变压器,春江明月6#公变,浙江新安化工集团股份有限公司2#变,建德市香溢房地产开发有限公司专变2#,浙江新安化工集团股份有限公司4#,浙江新安化工集团股份有限公司1#变,2#变,香溢1#公变变压器,南山府邸1号公变,春江明月9#公变,玉兰花园3号公变,春江明月5#公变,","scope":"浙江省-杭州市-建德市-新安江街道-溪头社区-严州大道,新安江街道-新安社区 江滨中路,严州支路,灵栖路,溪头路,雾江路玉兰花园；;新安江街道 建德郡原物业服务有限公司,浙江新安化工集团股份有限公司,建德市新安江中心幼儿园,建德市新安江置业有限公司，新安江街道南山路1号新安雷迪森酒店 一带用户","startTime":"2019-12-15 02:55:00","stopDate":"2019-12-15 05:20:00","orgNo":"3340180","typeCode":"电网故障停限电","poweroffArea":"110kV新安江变:新安Y115线世通开关站2#柜闸刀后段","poweroffReason":"挖机挖断电缆 原停电结束时间为2019-12-15 07:00:00,为减少客户停电时间,加快工作进度,提前送电,现变更停电结束时间为2019-12-15 05:20:00","powerTime":"2019-12-15 04:41:46","powerComm":"已送电","subsNo":"","lineNo":"","tgNo":"","tgName":null,"infoStatus":"1","orgName":"国网浙江建德市供电有限公司","typeName":null,"infoStatusName":null,"dateDay":null,"orgNos":null,"nowTime":null,"countyName":null,"streetName":null,"villageName":null,"roadName":null,"communityName":null,"tranName":null,"sdLineName":null,"cityCode":"3340180","cityName":"国网浙江建德市供电有限公司","provinceCode":null,"stopTime":"2019-12-15 05:20:00","powerType":"全部","powerOffArea":"110kV新安江变:新安Y115线世通开关站2#柜闸刀后段","powerOffReason":"挖机挖断电缆 原停电结束时间为2019-12-15 07:00:00,为减少客户停电时间,加快工作进度,提前送电,现变更停电结束时间为2019-12-15 05:20:00","powerOffId":"2019121531020002"},{"poweroffId":2019121431020160,"sgpoweroffId":null,"subsName":"","lineName":"10kV前裘0973线","pubTranName":"丰乐村1#变,","scope":"浙江省-杭州市-萧山区-前进街道临江行政村-丰乐自然村一带","startTime":"2019-12-14 21:06:37","stopDate":"2019-12-14 23:55:37","orgNo":"3340120","typeCode":"电网故障停限电","poweroffArea":"110kV前进变:前裘0973线-丰乐村1#变后段","poweroffReason":"(低压停电信息)低压开关跳闸 原停电结束时间为2019-12-14 23:58:37,为减少客户停电时间,加快工作进度,提前送电,现变更停电结束时间为2019-12-14 23:55:37","powerTime":"2019-12-14 23:12:24","powerComm":"已送电","subsNo":"","lineNo":"","tgNo":"","tgName":null,"infoStatus":"1","orgName":"国网浙江杭州市钱塘新区供电公司","typeName":null,"infoStatusName":null,"dateDay":null,"orgNos":null,"nowTime":null,"countyName":null,"streetName":null,"villageName":null,"roadName":null,"communityName":null,"tranName":null,"sdLineName":null,"cityCode":"3340120","cityName":"国网浙江杭州市钱塘新区供电公司","provinceCode":null,"stopTime":"2019-12-14 23:55:37","powerType":"全部","powerOffArea":"110kV前进变:前裘0973线-丰乐村1#变后段","powerOffReason":"(低压停电信息)低压开关跳闸 原停电结束时间为2019-12-14 23:58:37,为减少客户停电时间,加快工作进度,提前送电,现变更停电结束时间为2019-12-14 23:55:37","powerOffId":"2019121431020160"},{"poweroffId":2019121431020158,"sgpoweroffId":null,"subsName":"","lineName":"10kV小岭T104线","pubTranName":"小岭路3号公变,","scope":"浙江省-杭州市-桐庐县-桐君街道-金鑫社区-小岭路,桐君街道-迎宾社区(柯家湾,小岭路)小岭路170号2单元401室","startTime":"2019-12-14 20:11:39","stopDate":"2019-12-14 21:46:39","orgNo":"3340150","typeCode":"电网故障停限电","poweroffArea":"110kV桐庐变:小岭T104线-小岭路3号公变后段","poweroffReason":"高压开关跳闸","powerTime":"2019-12-14 21:30:33","powerComm":"已送电","subsNo":"","lineNo":"","tgNo":"","tgName":null,"infoStatus":"1","orgName":"国网浙江桐庐县供电公司","typeName":null,"infoStatusName":null,"dateDay":null,"orgNos":null,"nowTime":null,"countyName":null,"streetName":null,"villageName":null,"roadName":null,"communityName":null,"tranName":null,"sdLineName":null,"cityCode":"3340150","cityName":"国网浙江桐庐县供电公司","provinceCode":null,"stopTime":"2019-12-14 21:46:39","powerType":"全部","powerOffArea":"110kV桐庐变:小岭T104线-小岭路3号公变后段","powerOffReason":"高压开关跳闸","powerOffId":"2019121431020158"},{"poweroffId":2019121431020155,"sgpoweroffId":null,"subsName":"","lineName":"10kV下沙976线","pubTranName":"路灯箱变,农港农副产品,三通道南接线4#,江东开发建设投资1#,路灯箱变,路灯箱变,三通道南接线2#,江东开发建设投资2#,三通道南接线5#,三通道南接线1#,三通道南接线7#,三通道南接线3#,路灯箱变,路灯箱变,路灯箱变,三通道南接线6#,","scope":"浙江省-杭州市-萧山区-前进街道-临江行政村-杭州农港农副产品有限公司,前进街道-前进工业园区(杭州三通道南工程有限公司,杭州经济技术开发区前进工业园区开发建设指挥部,杭州前铭房地产开发有限公司)、前进街道长征村、新峰村、长征行政村、新峰行政村、三丰村、前锋村、前进街道临江行政村、临江村、前进街道临江行政村、新湾临江村新峰十组11号一带","startTime":"2019-12-14 20:00:12","stopDate":"2019-12-15 02:30:12","orgNo":"3340120","typeCode":"电网故障停限电","poweroffArea":"110kV前进变:下沙976线-下沙976线34#开关刀闸后段","poweroffReason":"高压开关跳闸 原停电结束时间为2019-12-14 23:50:12,因现场抢修难度大的原因,现变更停电结束时间为2019-12-15 02:30:12","powerTime":"2019-12-15 01:42:27","powerComm":"已送电","subsNo":"","lineNo":"","tgNo":"","tgName":null,"infoStatus":"1","orgName":"国网浙江杭州市钱塘新区供电公司","typeName":null,"infoStatusName":null,"dateDay":null,"orgNos":null,"nowTime":null,"countyName":null,"streetName":null,"villageName":null,"roadName":null,"communityName":null,"tranName":null,"sdLineName":null,"cityCode":"3340120","cityName":"国网浙江杭州市钱塘新区供电公司","provinceCode":null,"stopTime":"2019-12-15 02:30:12","powerType":"全部","powerOffArea":"110kV前进变:下沙976线-下沙976线34#开关刀闸后段","powerOffReason":"高压开关跳闸 原停电结束时间为2019-12-14 23:50:12,因现场抢修难度大的原因,现变更停电结束时间为2019-12-15 02:30:12","powerOffId":"2019121431020155"},{"poweroffId":2019121431020153,"sgpoweroffId":null,"subsName":"","lineName":"10kV芝厦T190线","pubTranName":"芝厦4号公变,","scope":"浙江省-杭州市-桐庐县-富春江镇-芝厦行政村-芝厦自然村","startTime":"2019-12-14 18:46:52","stopDate":"2019-12-14 21:46:52","orgNo":"3340150","typeCode":"电网故障停限电","poweroffArea":"110kV外董变:芝厦T190线-芝厦4号公变后段","poweroffReason":"高压开关跳闸","powerTime":"2019-12-14 21:30:27","powerComm":"已送电","subsNo":"","lineNo":"","tgNo":"","tgName":null,"infoStatus":"1","orgName":"国网浙江桐庐县供电公司","typeName":null,"infoStatusName":null,"dateDay":null,"orgNos":null,"nowTime":null,"countyName":null,"streetName":null,"villageName":null,"roadName":null,"communityName":null,"tranName":null,"sdLineName":null,"cityCode":"3340150","cityName":"国网浙江桐庐县供电公司","provinceCode":null,"stopTime":"2019-12-14 21:46:52","powerType":"全部","powerOffArea":"110kV外董变:芝厦T190线-芝厦4号公变后段","powerOffReason":"高压开关跳闸","powerOffId":"2019121431020153"},{"poweroffId":2019121431020146,"sgpoweroffId":null,"subsName":"","lineName":"10kV东庄H374线","pubTranName":"七贤桥村七贤桥头公变,","scope":"浙江省-杭州市-余杭区-良渚街道-良渚行政村-104国道,良渚街道-七贤桥行政村(石马斗自然村,七贤桥自然村,七贤路,大陆街道)","startTime":"2019-12-14 17:13:00","stopDate":"2019-12-14 19:13:00","orgNo":"3340140","typeCode":"电网故障停限电","poweroffArea":"110kV学里变:东庄H374线-七贤桥村七贤桥头公变后段","poweroffReason":"(低压停电信息)低压开关跳闸","powerTime":"2019-12-14 18:38:00","powerComm":"已送电","subsNo":"","lineNo":"","tgNo":"","tgName":null,"infoStatus":"1","orgName":"国网浙江杭州市余杭区供电有限公司","typeName":null,"infoStatusName":null,"dateDay":null,"orgNos":null,"nowTime":null,"countyName":null,"streetName":null,"villageName":null,"roadName":null,"communityName":null,"tranName":null,"sdLineName":null,"cityCode":"3340140","cityName":"国网浙江杭州市余杭区供电有限公司","provinceCode":null,"stopTime":"2019-12-14 19:13:00","powerType":"全部","powerOffArea":"110kV学里变:东庄H374线-七贤桥村七贤桥头公变后段","powerOffReason":"(低压停电信息)低压开关跳闸","powerOffId":"2019121431020146"},{"poweroffId":2019121431020145,"sgpoweroffId":null,"subsName":"","lineName":"10kV东山G252线","pubTranName":"永立工贸,","scope":"浙江省-杭州市-余杭区-仁和街道-栅庄桥行政村-杭州永立工贸有限公司","startTime":"2019-12-14 17:10:00","stopDate":"2019-12-14 19:10:00","orgNo":"3340140","typeCode":"电网故障停限电","poweroffArea":"110kV仁镇变:东山G252线-永立工贸分线开关后段","poweroffReason":"高压开关跳闸","powerTime":"2019-12-14 18:15:00","powerComm":"已送电","subsNo":"","lineNo":"","tgNo":"","tgName":null,"infoStatus":"1","orgName":"国网浙江杭州市余杭区供电有限公司","typeName":null,"infoStatusName":null,"dateDay":null,"orgNos":null,"nowTime":null,"countyName":null,"streetName":null,"villageName":null,"roadName":null,"communityName":null,"tranName":null,"sdLineName":null,"cityCode":"3340140","cityName":"国网浙江杭州市余杭区供电有限公司","provinceCode":null,"stopTime":"2019-12-14 19:10:00","powerType":"全部","powerOffArea":"110kV仁镇变:东山G252线-永立工贸分线开关后段","powerOffReason":"高压开关跳闸","powerOffId":"2019121431020145"},{"poweroffId":2019121431020135,"sgpoweroffId":null,"subsName":"","lineName":"10kV河建0349线","pubTranName":"建一村9#变,","scope":"浙江省-杭州市-萧山区-河庄街道-建一行政村-建一自然村、建一村一带","startTime":"2019-12-14 15:11:00","stopDate":"2019-12-14 17:11:00","orgNo":"3340120","typeCode":"电网故障停限电","poweroffArea":"110kV河庄变:河建0349线建一9#变后段","poweroffReason":"(低压停电信息)低压开关跳闸","powerTime":"2019-12-14 16:16:26","powerComm":"已送电","subsNo":"","lineNo":"","tgNo":"","tgName":null,"infoStatus":"1","orgName":"国网浙江杭州市钱塘新区供电公司","typeName":null,"infoStatusName":null,"dateDay":null,"orgNos":null,"nowTime":null,"countyName":null,"streetName":null,"villageName":null,"roadName":null,"communityName":null,"tranName":null,"sdLineName":null,"cityCode":"3340120","cityName":"国网浙江杭州市钱塘新区供电公司","provinceCode":null,"stopTime":"2019-12-14 17:11:00","powerType":"全部","powerOffArea":"110kV河庄变:河建0349线建一9#变后段","powerOffReason":"(低压停电信息)低压开关跳闸","powerOffId":"2019121431020135"},{"poweroffId":2019121431020133,"sgpoweroffId":null,"subsName":"","lineName":"10kV河建0349线","pubTranName":"民主村2#变,","scope":"浙江省-杭州市-萧山区-河庄街道-民主行政村-民主自然村、民主村一带","startTime":"2019-12-14 15:11:00","stopDate":"2019-12-14 17:11:00","orgNo":"3340120","typeCode":"电网故障停限电","poweroffArea":"110kV河庄变:河建0349线民主2#变后段","poweroffReason":"(低压停电信息)低压开关跳闸","powerTime":"2019-12-14 16:17:31","powerComm":"已送电","subsNo":"","lineNo":"","tgNo":"","tgName":null,"infoStatus":"1","orgName":"国网浙江杭州市钱塘新区供电公司","typeName":null,"infoStatusName":null,"dateDay":null,"orgNos":null,"nowTime":null,"countyName":null,"streetName":null,"villageName":null,"roadName":null,"communityName":null,"tranName":null,"sdLineName":null,"cityCode":"3340120","cityName":"国网浙江杭州市钱塘新区供电公司","provinceCode":null,"stopTime":"2019-12-14 17:11:00","powerType":"全部","powerOffArea":"110kV河庄变:河建0349线民主2#变后段","powerOffReason":"(低压停电信息)低压开关跳闸","powerOffId":"2019121431020133"}],"pageModel":{"pageNow":706,"totalCount":17789,"totalPage":1779,"tableRows":0,"pageCount":10,"beginCount":7050},"isExperi":"1"}