{"message":"","today":"2020-06-15","seleList":[{"poweroffId":2019121331020315,"sgpoweroffId":null,"subsName":"","lineName":"10kV唐村R173线","pubTranName":"长岭村横川公变,威坪所长岭村阴面公变,","scope":"浙江省-杭州市-淳安县-威坪镇(西山行政村-西山自然村,长岭行政村-横川自然村)","startTime":"2019-12-16 08:00:00","stopDate":"2019-12-16 12:00:00","orgNo":"3340190","typeCode":"临时停电","poweroffArea":"110kV虹桥变:唐村R173线-横川村支线跌落式熔断器后段","poweroffReason":"横川村支线1号杆直线改耐张,0号至1号杆电缆搭接.带电班配合","powerTime":"2019-12-16 11:22:54","powerComm":"已送电","subsNo":"","lineNo":"","tgNo":"","tgName":null,"infoStatus":"1","orgName":"国网浙江淳安县供电有限公司","typeName":null,"infoStatusName":null,"dateDay":null,"orgNos":null,"nowTime":null,"countyName":null,"streetName":null,"villageName":null,"roadName":null,"communityName":null,"tranName":null,"sdLineName":null,"cityCode":"3340190","cityName":"国网浙江淳安县供电有限公司","provinceCode":null,"stopTime":"2019-12-16 12:00:00","powerType":"全部","powerOffArea":"110kV虹桥变:唐村R173线-横川村支线跌落式熔断器后段","powerOffReason":"横川村支线1号杆直线改耐张,0号至1号杆电缆搭接.带电班配合","powerOffId":"2019121331020315"},{"poweroffId":2019121331020314,"sgpoweroffId":null,"subsName":"","lineName":"10kV太阳V124线","pubTranName":"10kV方元村[方元黄泥墩]公变,","scope":"浙江省-杭州市-临安市-於潜镇-黄泥墩一带","startTime":"2019-12-23 08:20:00","stopDate":"2019-12-23 15:40:00","orgNo":"3340160","typeCode":"计划停电","poweroffArea":"停太阳V124线黄泥墩分线1#杆方元村[黄泥墩]公变低压","poweroffReason":"临金高速公路临安段电力迁改: (1)太阳V124线黄泥墩分线1#杆方元村[黄泥墩]公变低压后山2100线1#-5#杆调杆,架线、接户线改接、低压割接 (2)配合新出10KV方元、铜山线[C61#-C70#杆]架线","powerTime":"2019-12-23 15:30:08","powerComm":"已送电","subsNo":"","lineNo":"","tgNo":"","tgName":null,"infoStatus":"1","orgName":"国网浙江临安市供电公司","typeName":null,"infoStatusName":null,"dateDay":null,"orgNos":null,"nowTime":null,"countyName":null,"streetName":null,"villageName":null,"roadName":null,"communityName":null,"tranName":null,"sdLineName":null,"cityCode":"3340160","cityName":"国网浙江临安市供电公司","provinceCode":null,"stopTime":"2019-12-23 15:40:00","powerType":"全部","powerOffArea":"停太阳V124线黄泥墩分线1#杆方元村[黄泥墩]公变低压","powerOffReason":"临金高速公路临安段电力迁改: (1)太阳V124线黄泥墩分线1#杆方元村[黄泥墩]公变低压后山2100线1#-5#杆调杆,架线、接户线改接、低压割接 (2)配合新出10KV方元、铜山线[C61#-C70#杆]架线","powerOffId":"2019121331020314"},{"poweroffId":2019121331020312,"sgpoweroffId":null,"subsName":"","lineName":"10kV吴山H795线","pubTranName":"吴山前汤家村公变,","scope":"浙江省-杭州市-余杭区-仓前街道-吴山前行政村(汤家自然村,吴山前自然村,新伟自然村)","startTime":"2019-12-13 14:26:26","stopDate":"2019-12-13 15:30:00","orgNo":"3340140","typeCode":"电网故障停限电","poweroffArea":"110kV仓前变:吴山H795线-吴山前汤家村公变后段","poweroffReason":"高压开关跳闸","powerTime":"2019-12-13 14:50:00","powerComm":"已送电","subsNo":"","lineNo":"","tgNo":"","tgName":null,"infoStatus":"1","orgName":"国网浙江杭州市余杭区供电有限公司","typeName":null,"infoStatusName":null,"dateDay":null,"orgNos":null,"nowTime":null,"countyName":null,"streetName":null,"villageName":null,"roadName":null,"communityName":null,"tranName":null,"sdLineName":null,"cityCode":"3340140","cityName":"国网浙江杭州市余杭区供电有限公司","provinceCode":null,"stopTime":"2019-12-13 15:30:00","powerType":"全部","powerOffArea":"110kV仓前变:吴山H795线-吴山前汤家村公变后段","powerOffReason":"高压开关跳闸","powerOffId":"2019121331020312"},{"poweroffId":2019121331020307,"sgpoweroffId":null,"subsName":"","lineName":"10kV木桥D422线","pubTranName":"后江沙2号东公变,","scope":"浙江省-杭州市-富阳区-东洲街道-富春江行政村-后江沙自然村","startTime":"2019-12-24 08:30:00","stopDate":"2019-12-24 12:40:00","orgNo":"3340170","typeCode":"计划停电","poweroffArea":"110kV东洲变:木桥D422线-后江沙2号东公变低压开关后段","poweroffReason":"(低压停电信息)迎东2020年迎东地区0.4kV配电线路缺陷处理电杆移位1支、导线拆装、接户线等工作","powerTime":"2019-12-24 12:30:17","powerComm":"已送电","subsNo":"","lineNo":"","tgNo":"","tgName":null,"infoStatus":"1","orgName":"国网浙江杭州市富阳区供电公司","typeName":null,"infoStatusName":null,"dateDay":null,"orgNos":null,"nowTime":null,"countyName":null,"streetName":null,"villageName":null,"roadName":null,"communityName":null,"tranName":null,"sdLineName":null,"cityCode":"3340170","cityName":"国网浙江杭州市富阳区供电公司","provinceCode":null,"stopTime":"2019-12-24 12:40:00","powerType":"全部","powerOffArea":"110kV东洲变:木桥D422线-后江沙2号东公变低压开关后段","powerOffReason":"(低压停电信息)迎东2020年迎东地区0.4kV配电线路缺陷处理电杆移位1支、导线拆装、接户线等工作","powerOffId":"2019121331020307"},{"poweroffId":2019121331020304,"sgpoweroffId":null,"subsName":"","lineName":"10kV秋北G301线","pubTranName":"杭州余杭运河综合保护开发建设有限公司1#变,长桥1#公变,广济4#公变,煤球厂公变,杭州余杭运河综合保护开发建设有限公司3#变,广济5#公变,","scope":"浙江省杭州市余杭区塘栖镇：煤球厂、长桥、广济公寓、杭州余杭运河综合保护开发建设有限公司一带","startTime":"2019-12-25 08:20:00","stopDate":"2019-12-25 15:20:00","orgNo":"3340140","typeCode":"计划停电","poweroffArea":"110kV西苑变:秋北G301线运动开关站I段运致G3011线-致和开关站I段运致G3011线","poweroffReason":"杭州余杭城市开发建设有限公司小城镇整治秋北G301线上改下工程：运动开关站II段新出3回电缆分别与杭州余杭运河综合保护开发建设有限公司原有电缆对接、长桥1#公变原有电缆对接和广济5#公变的原有电缆对接。3.运动开关站I段新出1回电缆与原致和开关站电缆对接","powerTime":"2019-12-25 15:19:00","powerComm":"已送电","subsNo":"","lineNo":"","tgNo":"","tgName":null,"infoStatus":"1","orgName":"国网浙江杭州市余杭区供电有限公司","typeName":null,"infoStatusName":null,"dateDay":null,"orgNos":null,"nowTime":null,"countyName":null,"streetName":null,"villageName":null,"roadName":null,"communityName":null,"tranName":null,"sdLineName":null,"cityCode":"3340140","cityName":"国网浙江杭州市余杭区供电有限公司","provinceCode":null,"stopTime":"2019-12-25 15:20:00","powerType":"全部","powerOffArea":"110kV西苑变:秋北G301线运动开关站I段运致G3011线-致和开关站I段运致G3011线","powerOffReason":"杭州余杭城市开发建设有限公司小城镇整治秋北G301线上改下工程：运动开关站II段新出3回电缆分别与杭州余杭运河综合保护开发建设有限公司原有电缆对接、长桥1#公变原有电缆对接和广济5#公变的原有电缆对接。3.运动开关站I段新出1回电缆与原致和开关站电缆对接","powerOffId":"2019121331020304"},{"poweroffId":2019121331020303,"sgpoweroffId":null,"subsName":"","lineName":"10kV木桥D422线","pubTranName":"何埭村3#西公变,","scope":"浙江省-杭州市-富阳区-东洲街道-何埭行政村-何埭自然村","startTime":"2019-12-23 08:00:00","stopDate":"2019-12-23 13:50:00","orgNo":"3340170","typeCode":"计划停电","poweroffArea":"110kV东洲变:木桥D422线-何埭村3#西公变低压开关后段","poweroffReason":"(低压停电信息)2019年迎东地区0.4kV配电线路缺陷处理工程拔立杆各1支等工作 原停电结束时间为2019-12-23 11:50:00,因工作难度大原因,现变更停电结束时间为2019-12-23 13:50:00","powerTime":"2019-12-23 13:35:59","powerComm":"已送电","subsNo":"","lineNo":"","tgNo":"","tgName":null,"infoStatus":"1","orgName":"国网浙江杭州市富阳区供电公司","typeName":null,"infoStatusName":null,"dateDay":null,"orgNos":null,"nowTime":null,"countyName":null,"streetName":null,"villageName":null,"roadName":null,"communityName":null,"tranName":null,"sdLineName":null,"cityCode":"3340170","cityName":"国网浙江杭州市富阳区供电公司","provinceCode":null,"stopTime":"2019-12-23 13:50:00","powerType":"全部","powerOffArea":"110kV东洲变:木桥D422线-何埭村3#西公变低压开关后段","powerOffReason":"(低压停电信息)2019年迎东地区0.4kV配电线路缺陷处理工程拔立杆各1支等工作 原停电结束时间为2019-12-23 11:50:00,因工作难度大原因,现变更停电结束时间为2019-12-23 13:50:00","powerOffId":"2019121331020303"},{"poweroffId":2019121331020299,"sgpoweroffId":null,"subsName":"","lineName":"10kV南安D336线","pubTranName":"何务村3#煤矿公变,","scope":"浙江省杭州市富阳区万市镇何务行政村煤矿自然村一带","startTime":"2019-12-23 08:20:00","stopDate":"2019-12-23 13:50:00","orgNo":"3340170","typeCode":"计划停电","poweroffArea":"110kV万市变:南安D336线236号杆何务分线46号杆后段","poweroffReason":"236号杆何务分线46号杆后段石井坞支线1号杆至2号杆中间吊车新立15米杆1基、安装横担、新装杆上变一套、吊车配合施工、安装杆上农用表计表箱、搭接、何务分线50号杆开耐张、更换横担1付、拆除导线1档、拆配电屏1组、变压器一台、拆旧等工作。（旁站监理）","powerTime":"2019-12-23 13:36:28","powerComm":"已送电","subsNo":"","lineNo":"","tgNo":"","tgName":null,"infoStatus":"1","orgName":"国网浙江杭州市富阳区供电公司","typeName":null,"infoStatusName":null,"dateDay":null,"orgNos":null,"nowTime":null,"countyName":null,"streetName":null,"villageName":null,"roadName":null,"communityName":null,"tranName":null,"sdLineName":null,"cityCode":"3340170","cityName":"国网浙江杭州市富阳区供电公司","provinceCode":null,"stopTime":"2019-12-23 13:50:00","powerType":"全部","powerOffArea":"110kV万市变:南安D336线236号杆何务分线46号杆后段","powerOffReason":"236号杆何务分线46号杆后段石井坞支线1号杆至2号杆中间吊车新立15米杆1基、安装横担、新装杆上变一套、吊车配合施工、安装杆上农用表计表箱、搭接、何务分线50号杆开耐张、更换横担1付、拆除导线1档、拆配电屏1组、变压器一台、拆旧等工作。（旁站监理）","powerOffId":"2019121331020299"},{"poweroffId":2019121331020298,"sgpoweroffId":null,"subsName":"","lineName":"10kV秋北G301线","pubTranName":"杭州市余杭区塘栖镇人民政府,园满桥公变,","scope":"浙江省杭州市余杭区塘栖镇：圆满桥、杭州市余杭区市场开发服务中心一带","startTime":"2019-12-24 08:20:00","stopDate":"2019-12-24 17:30:00","orgNo":"3340140","typeCode":"计划停电","poweroffArea":"110kV西苑变:秋北G301线运动开关站I段运致G3011线-运致G30111开关-运致G30110开关","poweroffReason":"杭州余杭城市开发建设有限公司小城镇整治秋北G301线上改下工程：.在原运动开关站II段土建预留位置新做运动开关站II段，西苑变沿新出1回电缆至新建运动开关站II段，运动开关站II段新出1回电缆至张家G222线中学分线","powerTime":"2019-12-24 16:43:16","powerComm":"已送电","subsNo":"","lineNo":"","tgNo":"","tgName":null,"infoStatus":"1","orgName":"国网浙江杭州市余杭区供电有限公司","typeName":null,"infoStatusName":null,"dateDay":null,"orgNos":null,"nowTime":null,"countyName":null,"streetName":null,"villageName":null,"roadName":null,"communityName":null,"tranName":null,"sdLineName":null,"cityCode":"3340140","cityName":"国网浙江杭州市余杭区供电有限公司","provinceCode":null,"stopTime":"2019-12-24 17:30:00","powerType":"全部","powerOffArea":"110kV西苑变:秋北G301线运动开关站I段运致G3011线-运致G30111开关-运致G30110开关","powerOffReason":"杭州余杭城市开发建设有限公司小城镇整治秋北G301线上改下工程：.在原运动开关站II段土建预留位置新做运动开关站II段，西苑变沿新出1回电缆至新建运动开关站II段，运动开关站II段新出1回电缆至张家G222线中学分线","powerOffId":"2019121331020298"},{"poweroffId":2019121331020295,"sgpoweroffId":null,"subsName":"","lineName":"10kV航坞C473线","pubTranName":"瓜沥镇机场安置区19#变,","scope":"浙江省-杭州市-萧山区-瓜沥镇-城中社区塘北中路北巷,塘北中路南巷,东灵北路一带","startTime":"2019-12-13 14:10:57","stopDate":"2019-12-13 15:20:57","orgNo":"3340130","typeCode":"电网故障停限电","poweroffArea":"35kV塘头变:航坞C473线-瓜沥镇机场安置区19#变台区低压开关","poweroffReason":"(低压停电信息)低压漏电保护器短路故障 原停电结束时间为2019-12-13 16:05:57,为减少客户停电时间,加快工作进度,提前送电,现变更停电结束时间为2019-12-13 15:20:57","powerTime":"2019-12-13 14:30:16","powerComm":"已送电","subsNo":"","lineNo":"","tgNo":"","tgName":null,"infoStatus":"1","orgName":"国网浙江杭州市萧山区供电有限公司","typeName":null,"infoStatusName":null,"dateDay":null,"orgNos":null,"nowTime":null,"countyName":null,"streetName":null,"villageName":null,"roadName":null,"communityName":null,"tranName":null,"sdLineName":null,"cityCode":"3340130","cityName":"国网浙江杭州市萧山区供电有限公司","provinceCode":null,"stopTime":"2019-12-13 15:20:57","powerType":"全部","powerOffArea":"35kV塘头变:航坞C473线-瓜沥镇机场安置区19#变台区低压开关","powerOffReason":"(低压停电信息)低压漏电保护器短路故障 原停电结束时间为2019-12-13 16:05:57,为减少客户停电时间,加快工作进度,提前送电,现变更停电结束时间为2019-12-13 15:20:57","powerOffId":"2019121331020295"},{"poweroffId":2019121331020291,"sgpoweroffId":null,"subsName":"","lineName":"10kV南安D336线","pubTranName":"何务村4#石井坞公变,","scope":"浙江省杭州市富阳区万市镇何务行政村石井坞自然村一带","startTime":"2019-12-23 07:50:00","stopDate":"2019-12-23 09:00:00","orgNo":"3340170","typeCode":"计划停电","poweroffArea":"110kV万市变:南安D336线236号杆何务分线何务村4#石井坞公变","poweroffReason":"配合何务村4#石井坞公变0.4kV发电机接入 原停电结束时间为2019-12-23 08:20:00,因政策原因,现变更停电结束时间为2019-12-23 09:00:00","powerTime":"2019-12-23 08:56:50","powerComm":"已送电","subsNo":"","lineNo":"","tgNo":"","tgName":null,"infoStatus":"1","orgName":"国网浙江杭州市富阳区供电公司","typeName":null,"infoStatusName":null,"dateDay":null,"orgNos":null,"nowTime":null,"countyName":null,"streetName":null,"villageName":null,"roadName":null,"communityName":null,"tranName":null,"sdLineName":null,"cityCode":"3340170","cityName":"国网浙江杭州市富阳区供电公司","provinceCode":null,"stopTime":"2019-12-23 09:00:00","powerType":"全部","powerOffArea":"110kV万市变:南安D336线236号杆何务分线何务村4#石井坞公变","powerOffReason":"配合何务村4#石井坞公变0.4kV发电机接入 原停电结束时间为2019-12-23 08:20:00,因政策原因,现变更停电结束时间为2019-12-23 09:00:00","powerOffId":"2019121331020291"}],"pageModel":{"pageNow":711,"totalCount":17789,"totalPage":1779,"tableRows":0,"pageCount":10,"beginCount":7100},"isExperi":"1"}