{"message":"","today":"2020-06-15","seleList":[{"poweroffId":2019121331020265,"sgpoweroffId":null,"subsName":"","lineName":"10kV五联D264线","pubTranName":"长春村6#上坞小庙坞公变,","scope":"浙江省-杭州市-富阳区-常绿镇-长春行政村-上坞畈自然村一带","startTime":"2019-12-23 08:30:00","stopDate":"2019-12-23 09:15:00","orgNo":"3340170","typeCode":"计划停电","poweroffArea":"35kV盛村变:五联D264线-长春村6#上坞小庙坞公变熔断器后段","poweroffReason":"场口2019年10kV五联D264线线路改造工程：五联D264线43#杆上坞分线33#杆长春村6#上坞小庙坞公变：1、拆除长春村6#上坞小庙坞公变至配电屏进线侧电缆1根；2、自备电源搭接至配电屏接入电缆1根等工作。","powerTime":"2019-12-23 09:13:08","powerComm":"已送电","subsNo":"","lineNo":"","tgNo":"","tgName":null,"infoStatus":"1","orgName":"国网浙江杭州市富阳区供电公司","typeName":null,"infoStatusName":null,"dateDay":null,"orgNos":null,"nowTime":null,"countyName":null,"streetName":null,"villageName":null,"roadName":null,"communityName":null,"tranName":null,"sdLineName":null,"cityCode":"3340170","cityName":"国网浙江杭州市富阳区供电公司","provinceCode":null,"stopTime":"2019-12-23 09:15:00","powerType":"全部","powerOffArea":"35kV盛村变:五联D264线-长春村6#上坞小庙坞公变熔断器后段","powerOffReason":"场口2019年10kV五联D264线线路改造工程：五联D264线43#杆上坞分线33#杆长春村6#上坞小庙坞公变：1、拆除长春村6#上坞小庙坞公变至配电屏进线侧电缆1根；2、自备电源搭接至配电屏接入电缆1根等工作。","powerOffId":"2019121331020265"},{"poweroffId":2019121331020263,"sgpoweroffId":null,"subsName":"","lineName":"10kV万市D338线","pubTranName":"田源村3#童家桥公变,","scope":"浙江省杭州市富阳区洞桥镇田源村童家桥自然村一带","startTime":"2019-12-24 08:30:00","stopDate":"2019-12-24 16:30:00","orgNo":"3340170","typeCode":"计划停电","poweroffArea":"110kV万市变:万市D338线-田源村3#童家桥公变低压开关后段","poweroffReason":"(低压停电信息)洞桥镇田源村线路迁改工程：田源村3#童家桥公变移位低压割接等工作","powerTime":"2019-12-24 16:20:13","powerComm":"已送电","subsNo":"","lineNo":"","tgNo":"","tgName":null,"infoStatus":"1","orgName":"国网浙江杭州市富阳区供电公司","typeName":null,"infoStatusName":null,"dateDay":null,"orgNos":null,"nowTime":null,"countyName":null,"streetName":null,"villageName":null,"roadName":null,"communityName":null,"tranName":null,"sdLineName":null,"cityCode":"3340170","cityName":"国网浙江杭州市富阳区供电公司","provinceCode":null,"stopTime":"2019-12-24 16:30:00","powerType":"全部","powerOffArea":"110kV万市变:万市D338线-田源村3#童家桥公变低压开关后段","powerOffReason":"(低压停电信息)洞桥镇田源村线路迁改工程：田源村3#童家桥公变移位低压割接等工作","powerOffId":"2019121331020263"},{"poweroffId":2019121331020262,"sgpoweroffId":null,"subsName":"","lineName":"10kV怡合199线","pubTranName":"石笔头1号公变,","scope":"浙江省-杭州市-桐庐县-分水镇-高联行政村-石壁头自然村","startTime":"2019-12-23 08:30:00","stopDate":"2019-12-23 12:30:00","orgNo":"3340150","typeCode":"计划停电","poweroffArea":"35kV合村变:怡合199线-石笔头F9551令克后段","poweroffReason":"石壁头支线4号更换瓷瓶、双横档及导线调整工作","powerTime":"2019-12-23 12:02:08","powerComm":"已送电","subsNo":"","lineNo":"","tgNo":"","tgName":null,"infoStatus":"1","orgName":"国网浙江桐庐县供电公司","typeName":null,"infoStatusName":null,"dateDay":null,"orgNos":null,"nowTime":null,"countyName":null,"streetName":null,"villageName":null,"roadName":null,"communityName":null,"tranName":null,"sdLineName":null,"cityCode":"3340150","cityName":"国网浙江桐庐县供电公司","provinceCode":null,"stopTime":"2019-12-23 12:30:00","powerType":"全部","powerOffArea":"35kV合村变:怡合199线-石笔头F9551令克后段","powerOffReason":"石壁头支线4号更换瓷瓶、双横档及导线调整工作","powerOffId":"2019121331020262"},{"poweroffId":2019121331020260,"sgpoweroffId":null,"subsName":"","lineName":"10kV南安D336线","pubTranName":"何务村3#煤矿公变,","scope":"浙江省杭州市富阳区万市镇何务行政村煤矿自然村一带","startTime":"2019-12-23 14:00:00","stopDate":"2019-12-23 18:50:00","orgNo":"3340170","typeCode":"计划停电","poweroffArea":"110kV万市变:南安D336线-何务村3#煤矿公变低压开关后段","poweroffReason":"(低压停电信息)杆上电缆搭接、制作电缆头、JP柜内电缆搭接、安装杆上农用表箱2只、原村西01线2#杆开耐张、架JKLYJ-120*4*1档、拆JKLYJ-120*4*3档、导线搭接、吊车拔除旧杆2基、拆旧等工作。（旁站监理）","powerTime":"2019-12-23 18:19:34","powerComm":"已送电","subsNo":"","lineNo":"","tgNo":"","tgName":null,"infoStatus":"1","orgName":"国网浙江杭州市富阳区供电公司","typeName":null,"infoStatusName":null,"dateDay":null,"orgNos":null,"nowTime":null,"countyName":null,"streetName":null,"villageName":null,"roadName":null,"communityName":null,"tranName":null,"sdLineName":null,"cityCode":"3340170","cityName":"国网浙江杭州市富阳区供电公司","provinceCode":null,"stopTime":"2019-12-23 18:50:00","powerType":"全部","powerOffArea":"110kV万市变:南安D336线-何务村3#煤矿公变低压开关后段","powerOffReason":"(低压停电信息)杆上电缆搭接、制作电缆头、JP柜内电缆搭接、安装杆上农用表箱2只、原村西01线2#杆开耐张、架JKLYJ-120*4*1档、拆JKLYJ-120*4*3档、导线搭接、吊车拔除旧杆2基、拆旧等工作。（旁站监理）","powerOffId":"2019121331020260"},{"poweroffId":2019121331020258,"sgpoweroffId":null,"subsName":"","lineName":"10kV兰庄D604线","pubTranName":"稠溪村春一4#车茶坞公变,","scope":"浙江省杭州市富阳区大源镇稠溪村车茶坞自然村一带","startTime":"2019-12-23 08:30:00","stopDate":"2019-12-23 16:40:00","orgNo":"3340170","typeCode":"计划停电","poweroffArea":"35kV溪东变:兰庄D604线-稠溪村春一4#车茶坞公变低压开关后段","poweroffReason":"(低压停电信息)江南2019年建华村4#村东公变等台区0.4kV线路改造工程安装横担、拆装导线、接户线搭接等工作","powerTime":"2019-12-23 16:25:13","powerComm":"已送电","subsNo":"","lineNo":"","tgNo":"","tgName":null,"infoStatus":"1","orgName":"国网浙江杭州市富阳区供电公司","typeName":null,"infoStatusName":null,"dateDay":null,"orgNos":null,"nowTime":null,"countyName":null,"streetName":null,"villageName":null,"roadName":null,"communityName":null,"tranName":null,"sdLineName":null,"cityCode":"3340170","cityName":"国网浙江杭州市富阳区供电公司","provinceCode":null,"stopTime":"2019-12-23 16:40:00","powerType":"全部","powerOffArea":"35kV溪东变:兰庄D604线-稠溪村春一4#车茶坞公变低压开关后段","powerOffReason":"(低压停电信息)江南2019年建华村4#村东公变等台区0.4kV线路改造工程安装横担、拆装导线、接户线搭接等工作","powerOffId":"2019121331020258"},{"poweroffId":2019121331020252,"sgpoweroffId":null,"subsName":"","lineName":"10kV三溪D337线","pubTranName":"三溪村1#鲍家畈公变,","scope":"浙江省杭州市富阳区洞桥镇三溪行政村鲍家畈自然村一带","startTime":"2019-12-23 08:00:00","stopDate":"2019-12-23 14:00:00","orgNo":"3340170","typeCode":"计划停电","poweroffArea":"110kV万市变:三溪D337线-三溪村1#鲍家畈公变低压开关后段","poweroffReason":"(低压停电信息)鲍家畈01线导线移位JKLYJ-70*4*1档、安装拉线1支、安装落户线BS-JKLYJ-2*25*40米、BS-JKLYJ—4*35*50米、拆装表计表箱6只","powerTime":"2019-12-23 13:45:09","powerComm":"已送电","subsNo":"","lineNo":"","tgNo":"","tgName":null,"infoStatus":"1","orgName":"国网浙江杭州市富阳区供电公司","typeName":null,"infoStatusName":null,"dateDay":null,"orgNos":null,"nowTime":null,"countyName":null,"streetName":null,"villageName":null,"roadName":null,"communityName":null,"tranName":null,"sdLineName":null,"cityCode":"3340170","cityName":"国网浙江杭州市富阳区供电公司","provinceCode":null,"stopTime":"2019-12-23 14:00:00","powerType":"全部","powerOffArea":"110kV万市变:三溪D337线-三溪村1#鲍家畈公变低压开关后段","powerOffReason":"(低压停电信息)鲍家畈01线导线移位JKLYJ-70*4*1档、安装拉线1支、安装落户线BS-JKLYJ-2*25*40米、BS-JKLYJ—4*35*50米、拆装表计表箱6只","powerOffId":"2019121331020252"},{"poweroffId":2019121331020243,"sgpoweroffId":null,"subsName":"","lineName":"10kV半电8847线","pubTranName":"瓜东4,","scope":"浙江省杭州市拱墅区瓜山东苑125-292号附近","startTime":"2019-12-23 09:30:00","stopDate":"2019-12-23 13:30:00","orgNo":"3340101","typeCode":"计划停电","poweroffArea":"110kV拱宸变:半电8847线-瓜居站瓜居三线、10#间隔、瓜居二线；瓜东二站瓜东一线、3#间隔、瓜居三线；瓜东一站瓜东一线","poweroffReason":"1、瓜东一线瓜东一站-瓜东（2）电缆拆除，2、瓜居三线从瓜居站2#间隔改接至瓜居站10#间隔 原停电结束时间为2019-12-23 17:30:00,为减少客户停电时间,加快工作进度,提前送电,现变更停电结束时间为2019-12-23 13:30:00","powerTime":"2019-12-23 12:46:59","powerComm":"已送电","subsNo":"","lineNo":"","tgNo":"","tgName":null,"infoStatus":"1","orgName":"浙江杭州电力客户服务中心","typeName":null,"infoStatusName":null,"dateDay":null,"orgNos":null,"nowTime":null,"countyName":null,"streetName":null,"villageName":null,"roadName":null,"communityName":null,"tranName":null,"sdLineName":null,"cityCode":"3340101","cityName":"浙江杭州电力客户服务中心","provinceCode":null,"stopTime":"2019-12-23 13:30:00","powerType":"全部","powerOffArea":"110kV拱宸变:半电8847线-瓜居站瓜居三线、10#间隔、瓜居二线；瓜东二站瓜东一线、3#间隔、瓜居三线；瓜东一站瓜东一线","powerOffReason":"1、瓜东一线瓜东一站-瓜东（2）电缆拆除，2、瓜居三线从瓜居站2#间隔改接至瓜居站10#间隔 原停电结束时间为2019-12-23 17:30:00,为减少客户停电时间,加快工作进度,提前送电,现变更停电结束时间为2019-12-23 13:30:00","powerOffId":"2019121331020243"},{"poweroffId":2019121331020233,"sgpoweroffId":null,"subsName":"","lineName":"10kV怡合199线","pubTranName":"大溪1号公变,","scope":"浙江省-杭州市-桐庐县-合村乡-高凉亭行政村-大溪自然村","startTime":"2019-12-23 13:30:00","stopDate":"2019-12-23 17:30:00","orgNo":"3340150","typeCode":"计划停电","poweroffArea":"35kV合村变:怡合199线-大溪F9656后段","poweroffReason":"大溪1号公变变压器增容工作","powerTime":"2019-12-23 17:00:46","powerComm":"已送电","subsNo":"","lineNo":"","tgNo":"","tgName":null,"infoStatus":"1","orgName":"国网浙江桐庐县供电公司","typeName":null,"infoStatusName":null,"dateDay":null,"orgNos":null,"nowTime":null,"countyName":null,"streetName":null,"villageName":null,"roadName":null,"communityName":null,"tranName":null,"sdLineName":null,"cityCode":"3340150","cityName":"国网浙江桐庐县供电公司","provinceCode":null,"stopTime":"2019-12-23 17:30:00","powerType":"全部","powerOffArea":"35kV合村变:怡合199线-大溪F9656后段","powerOffReason":"大溪1号公变变压器增容工作","powerOffId":"2019121331020233"},{"poweroffId":2019121331020206,"sgpoweroffId":null,"subsName":"","lineName":"10kV八字A150线","pubTranName":"东桥村3#变,","scope":"浙江省-杭州市-萧山区-靖江街道-东桥行政村-东桥自然村、东桥村一带","startTime":"2019-12-13 11:55:01","stopDate":"2019-12-13 15:00:01","orgNo":"3340130","typeCode":"电网故障停限电","poweroffArea":"220kV甘露变:八字A150线-东桥村3#变台区低压开关","poweroffReason":"(低压停电信息)低压架空导线断线故障","powerTime":"2019-12-13 14:26:47","powerComm":"已送电","subsNo":"","lineNo":"","tgNo":"","tgName":null,"infoStatus":"1","orgName":"国网浙江杭州市萧山区供电有限公司","typeName":null,"infoStatusName":null,"dateDay":null,"orgNos":null,"nowTime":null,"countyName":null,"streetName":null,"villageName":null,"roadName":null,"communityName":null,"tranName":null,"sdLineName":null,"cityCode":"3340130","cityName":"国网浙江杭州市萧山区供电有限公司","provinceCode":null,"stopTime":"2019-12-13 15:00:01","powerType":"全部","powerOffArea":"220kV甘露变:八字A150线-东桥村3#变台区低压开关","powerOffReason":"(低压停电信息)低压架空导线断线故障","powerOffId":"2019121331020206"},{"poweroffId":2019121331020192,"sgpoweroffId":null,"subsName":"","lineName":"10kV新桥V311线","pubTranName":"新桥上许村,","scope":"浙江省-杭州市-临安市-岛石镇-上许村上许一带。","startTime":"2019-12-24 07:40:00","stopDate":"2019-12-24 16:50:00","orgNo":"3340160","typeCode":"计划停电","poweroffArea":"35kV岛石变:新桥V311线-上许分线新桥上许村配变。","poweroffReason":"低压改造","powerTime":"2019-12-24 16:40:13","powerComm":"已送电","subsNo":"","lineNo":"","tgNo":"","tgName":null,"infoStatus":"1","orgName":"国网浙江临安市供电公司","typeName":null,"infoStatusName":null,"dateDay":null,"orgNos":null,"nowTime":null,"countyName":null,"streetName":null,"villageName":null,"roadName":null,"communityName":null,"tranName":null,"sdLineName":null,"cityCode":"3340160","cityName":"国网浙江临安市供电公司","provinceCode":null,"stopTime":"2019-12-24 16:50:00","powerType":"全部","powerOffArea":"35kV岛石变:新桥V311线-上许分线新桥上许村配变。","powerOffReason":"低压改造","powerOffId":"2019121331020192"}],"pageModel":{"pageNow":713,"totalCount":17789,"totalPage":1779,"tableRows":0,"pageCount":10,"beginCount":7120},"isExperi":"1"}