{"message":"","today":"2020-06-15","seleList":[{"poweroffId":2020052931020891,"sgpoweroffId":null,"subsName":"","lineName":"10kV交通D364线","pubTranName":"秋丰村3号秋丰公变,","scope":"浙江省-杭州市-富阳区-富春街道-金桥社区-横凉亭路,富春街道-秋丰行政村(横凉亭路,秋丰自然村)","startTime":"2020-06-11 09:00:00","stopDate":"2020-06-11 12:30:00","orgNo":"3340170","typeCode":"计划停电","poweroffArea":"110kV富鹿变:交通D364线-秋丰村3号秋丰公变后段","poweroffReason":"富阳320国道至富阳大桥连接线鹿山（大盘山）隧道电力迁改工程：交通D364线40#杆木材分线线路拆线一档等工作","powerTime":"2020-06-11 12:10:51","powerComm":"已送电","subsNo":"","lineNo":"","tgNo":"","tgName":null,"infoStatus":"1","orgName":"国网浙江杭州市富阳区供电公司","typeName":null,"infoStatusName":null,"dateDay":null,"orgNos":null,"nowTime":null,"countyName":null,"streetName":null,"villageName":null,"roadName":null,"communityName":null,"tranName":null,"sdLineName":null,"cityCode":"3340170","cityName":"国网浙江杭州市富阳区供电公司","provinceCode":null,"stopTime":"2020-06-11 12:30:00","powerType":"全部","powerOffArea":"110kV富鹿变:交通D364线-秋丰村3号秋丰公变后段","powerOffReason":"富阳320国道至富阳大桥连接线鹿山（大盘山）隧道电力迁改工程：交通D364线40#杆木材分线线路拆线一档等工作","powerOffId":"2020052931020891"},{"poweroffId":2020052931020890,"sgpoweroffId":null,"subsName":"","lineName":"10kV咸康D208线","pubTranName":"春建村下高3号公变,下高村2号下高公变,上高村10#公变,下高村1号巧溪公变,","scope":"浙江省-杭州市-富阳区-春建乡-春建行政村(上高自然村,蟠山垄自然村,下高自然村,巧溪自然村)","startTime":"2020-06-11 09:00:00","stopDate":"2020-06-11 16:00:00","orgNo":"3340170","typeCode":"计划停电","poweroffArea":"35kV大青变:咸康D208线首端，下高村1号巧溪公变，春建村下高3号公变，下高村2号下高公变，上高村10#公变之间","poweroffReason":"青云2020年大青变10kV间隔整理：原咸康D208线咸康D208B线63#杆后段负荷割接至下俞D203线等工作原停电结束时间为2020-06-11 15:30:00,因现场故障情况复杂,现变更停电结束时间为2020-06-11 16:00:00","powerTime":"2020-06-11 15:50:04","powerComm":"已送电","subsNo":"","lineNo":"","tgNo":"","tgName":null,"infoStatus":"1","orgName":"国网浙江杭州市富阳区供电公司","typeName":null,"infoStatusName":null,"dateDay":null,"orgNos":null,"nowTime":null,"countyName":null,"streetName":null,"villageName":null,"roadName":null,"communityName":null,"tranName":null,"sdLineName":null,"cityCode":"3340170","cityName":"国网浙江杭州市富阳区供电公司","provinceCode":null,"stopTime":"2020-06-11 16:00:00","powerType":"全部","powerOffArea":"35kV大青变:咸康D208线首端，下高村1号巧溪公变，春建村下高3号公变，下高村2号下高公变，上高村10#公变之间","powerOffReason":"青云2020年大青变10kV间隔整理：原咸康D208线咸康D208B线63#杆后段负荷割接至下俞D203线等工作原停电结束时间为2020-06-11 15:30:00,因现场故障情况复杂,现变更停电结束时间为2020-06-11 16:00:00","powerOffId":"2020052931020890"},{"poweroffId":2020052931020889,"sgpoweroffId":null,"subsName":"","lineName":"10kV交通D364线","pubTranName":"上海宝冶集团有限公司1#变,","scope":"浙江省-杭州市-富阳区-富春街道-金桥社区-上海宝冶集团有限公司","startTime":"2020-06-11 08:20:00","stopDate":"2020-06-11 12:30:00","orgNo":"3340170","typeCode":"计划停电","poweroffArea":"110kV富鹿变:交通D364线-上海宝冶集团有限公司后段","poweroffReason":"客户内部检修","powerTime":"2020-06-11 12:11:07","powerComm":"已送电","subsNo":"","lineNo":"","tgNo":"","tgName":null,"infoStatus":"1","orgName":"国网浙江杭州市富阳区供电公司","typeName":null,"infoStatusName":null,"dateDay":null,"orgNos":null,"nowTime":null,"countyName":null,"streetName":null,"villageName":null,"roadName":null,"communityName":null,"tranName":null,"sdLineName":null,"cityCode":"3340170","cityName":"国网浙江杭州市富阳区供电公司","provinceCode":null,"stopTime":"2020-06-11 12:30:00","powerType":"全部","powerOffArea":"110kV富鹿变:交通D364线-上海宝冶集团有限公司后段","powerOffReason":"客户内部检修","powerOffId":"2020052931020889"},{"poweroffId":2020052931020888,"sgpoweroffId":null,"subsName":"","lineName":"10kV咸康D208线","pubTranName":"下高村3#上高公变,上高村11号公变,","scope":"浙江省-杭州市-富阳区-春建乡-春建行政村-上高自然村","startTime":"2020-06-11 15:35:00","stopDate":"2020-06-11 16:45:00","orgNo":"3340170","typeCode":"计划停电","poweroffArea":"35kV大青变:咸康D208线-上高村11号公变后段;咸康D208线-下高村3#上高公变后段","poweroffReason":"青云2020年大青变10kV间隔整理：上高11号公变、下高村3#上高公变变压器0.4kv出线电缆恢复原停电结束时间为2020-06-11 16:15:00,因现场故障情况复杂,现变更停电结束时间为2020-06-11 16:45:00","powerTime":"2020-06-11 15:50:31","powerComm":"已送电","subsNo":"","lineNo":"","tgNo":"","tgName":null,"infoStatus":"1","orgName":"国网浙江杭州市富阳区供电公司","typeName":null,"infoStatusName":null,"dateDay":null,"orgNos":null,"nowTime":null,"countyName":null,"streetName":null,"villageName":null,"roadName":null,"communityName":null,"tranName":null,"sdLineName":null,"cityCode":"3340170","cityName":"国网浙江杭州市富阳区供电公司","provinceCode":null,"stopTime":"2020-06-11 16:45:00","powerType":"全部","powerOffArea":"35kV大青变:咸康D208线-上高村11号公变后段;咸康D208线-下高村3#上高公变后段","powerOffReason":"青云2020年大青变10kV间隔整理：上高11号公变、下高村3#上高公变变压器0.4kv出线电缆恢复原停电结束时间为2020-06-11 16:15:00,因现场故障情况复杂,现变更停电结束时间为2020-06-11 16:45:00","powerOffId":"2020052931020888"},{"poweroffId":2020052931020887,"sgpoweroffId":null,"subsName":"","lineName":"10kV灵桥D167线","pubTranName":"杭州海乐电器有限公司,","scope":"浙江省-杭州市-富阳区-大源镇-亭山行政村-杭州海乐电器有限公司一带","startTime":"2020-06-11 08:45:00","stopDate":"2020-06-11 16:30:00","orgNo":"3340170","typeCode":"计划停电","poweroffArea":"110kV大源变:灵桥D167线-杭州海乐电器有限公司开关后段","poweroffReason":"江南2020年运维大修工程：灵桥D167线开关柜状态指示器地刀位置显示异常消缺","powerTime":"2020-06-11 16:08:20","powerComm":"已送电","subsNo":"","lineNo":"","tgNo":"","tgName":null,"infoStatus":"1","orgName":"国网浙江杭州市富阳区供电公司","typeName":null,"infoStatusName":null,"dateDay":null,"orgNos":null,"nowTime":null,"countyName":null,"streetName":null,"villageName":null,"roadName":null,"communityName":null,"tranName":null,"sdLineName":null,"cityCode":"3340170","cityName":"国网浙江杭州市富阳区供电公司","provinceCode":null,"stopTime":"2020-06-11 16:30:00","powerType":"全部","powerOffArea":"110kV大源变:灵桥D167线-杭州海乐电器有限公司开关后段","powerOffReason":"江南2020年运维大修工程：灵桥D167线开关柜状态指示器地刀位置显示异常消缺","powerOffId":"2020052931020887"},{"poweroffId":2020052931020886,"sgpoweroffId":null,"subsName":"","lineName":"10kV咸康D208线","pubTranName":"上高村11号公变,下高村3#上高公变,","scope":"浙江省-杭州市-富阳区-春建乡-春建行政村(上高自然村,下高自然村)","startTime":"2020-06-11 08:15:00","stopDate":"2020-06-11 08:55:00","orgNo":"3340170","typeCode":"计划停电","poweroffArea":"35kV大青变:咸康D208线首端，上高村11号公变，下高村3#上高公变之间","poweroffReason":"青云2020年大青变10kV间隔整理及咸康D208等线路网架优化工程：上高11号公变、下高村3#上高公变变压器0.4kv出线电缆改接至0.4kV发电车T接箱","powerTime":"2020-06-11 08:45:06","powerComm":"已送电","subsNo":"","lineNo":"","tgNo":"","tgName":null,"infoStatus":"1","orgName":"国网浙江杭州市富阳区供电公司","typeName":null,"infoStatusName":null,"dateDay":null,"orgNos":null,"nowTime":null,"countyName":null,"streetName":null,"villageName":null,"roadName":null,"communityName":null,"tranName":null,"sdLineName":null,"cityCode":"3340170","cityName":"国网浙江杭州市富阳区供电公司","provinceCode":null,"stopTime":"2020-06-11 08:55:00","powerType":"全部","powerOffArea":"35kV大青变:咸康D208线首端，上高村11号公变，下高村3#上高公变之间","powerOffReason":"青云2020年大青变10kV间隔整理及咸康D208等线路网架优化工程：上高11号公变、下高村3#上高公变变压器0.4kv出线电缆改接至0.4kV发电车T接箱","powerOffId":"2020052931020886"},{"poweroffId":2020052931020885,"sgpoweroffId":null,"subsName":"","lineName":"10kV上官D265线","pubTranName":"大盛村5号上官新农村公变,","scope":"浙江省-杭州市-富阳区-上官乡-大盛行政村(上官自然村,盛村自然村)一带","startTime":"2020-06-10 14:00:00","stopDate":"2020-06-10 16:30:00","orgNo":"3340170","typeCode":"计划停电","poweroffArea":"35kV盛村变:上官D265线-大盛村5#上官新农村公变后段","poweroffReason":"大盛村10千伏5#新农村公变移位工程：上官D265线19#杆黄土岭分线1#杆大盛村5#上官新农村公变移位工作。","powerTime":"2020-06-10 16:20:36","powerComm":"已送电","subsNo":"","lineNo":"","tgNo":"","tgName":null,"infoStatus":"1","orgName":"国网浙江杭州市富阳区供电公司","typeName":null,"infoStatusName":null,"dateDay":null,"orgNos":null,"nowTime":null,"countyName":null,"streetName":null,"villageName":null,"roadName":null,"communityName":null,"tranName":null,"sdLineName":null,"cityCode":"3340170","cityName":"国网浙江杭州市富阳区供电公司","provinceCode":null,"stopTime":"2020-06-10 16:30:00","powerType":"全部","powerOffArea":"35kV盛村变:上官D265线-大盛村5#上官新农村公变后段","powerOffReason":"大盛村10千伏5#新农村公变移位工程：上官D265线19#杆黄土岭分线1#杆大盛村5#上官新农村公变移位工作。","powerOffId":"2020052931020885"},{"poweroffId":2020052931020879,"sgpoweroffId":null,"subsName":"","lineName":"10kV义和A55线","pubTranName":"火星村1#变,","scope":"浙江省-杭州市-萧山区-义蓬街道-火星行政村-火星自然村","startTime":"2020-06-12 09:00:00","stopDate":"2020-06-12 16:30:00","orgNo":"3340120","typeCode":"计划停电","poweroffArea":"110kV白浪变:义和A55线-火星村1#变后段","poweroffReason":"(低压停电信息)火星村1#变部分用户割接至新设火星村11#变等工作 原停电结束时间为2020-06-12 17:30:00,为减少客户停电时间,加快工作进度,提前送电,现变更停电结束时间为2020-06-12 16:30:00","powerTime":"2020-06-12 16:07:58","powerComm":"已送电","subsNo":"","lineNo":"","tgNo":"","tgName":null,"infoStatus":"1","orgName":"国网浙江杭州市钱塘新区供电公司","typeName":null,"infoStatusName":null,"dateDay":null,"orgNos":null,"nowTime":null,"countyName":null,"streetName":null,"villageName":null,"roadName":null,"communityName":null,"tranName":null,"sdLineName":null,"cityCode":"3340120","cityName":"国网浙江杭州市钱塘新区供电公司","provinceCode":null,"stopTime":"2020-06-12 16:30:00","powerType":"全部","powerOffArea":"110kV白浪变:义和A55线-火星村1#变后段","powerOffReason":"(低压停电信息)火星村1#变部分用户割接至新设火星村11#变等工作 原停电结束时间为2020-06-12 17:30:00,为减少客户停电时间,加快工作进度,提前送电,现变更停电结束时间为2020-06-12 16:30:00","powerOffId":"2020052931020879"},{"poweroffId":2020052931020872,"sgpoweroffId":null,"subsName":"","lineName":"10kV钱印0509线","pubTranName":"闸北村12#变,闸北村15#变,新东村2#变,新东村1#变,新围小学01#,瓜沥东恩,阳力农业,江东村十二配变,江东村十五配变,1#,新东村3#变,公交一变,围中村1#变,江东村13#变,闸北村经济联合社,江东市政,江东村新东8#变,新围初中,","scope":"浙江省-杭州市-萧山区-河庄街道(江东行政村-江东自然村,闸北行政村-闸北自然村,围中行政村-围中自然村);河庄街道-江东行政村(杭州阳力农业有限公司,杭州大江东投资开发有限公司),河庄街道-闸北行政村(萧山区新围小学,杭州市萧山区河庄街道闸北村经济联合社),河庄街道(新围行政村-瓜力镇东恩村垦种,江东开发区园区-杭州江东市政公用事业服务有限公司,围中行政村-萧山区新围初级中学,群欢行政村-中电建路桥集团(杭州)大江东投资发展有限公司)","startTime":"2020-06-09 16:00:00","stopDate":"2020-06-09 16:30:00","orgNo":"3340120","typeCode":"计划停电","poweroffArea":"35kV永丰变:钱印0509线","poweroffReason":"10kV钱印509线配合施工倒负荷工作 原停电结束时间为2020-06-08 19:30:00,因现场故障情况复杂,现变更停电结束时间为2020-06-09 16:30:00","powerTime":"2020-06-09 16:05:20","powerComm":"已送电","subsNo":"","lineNo":"","tgNo":"","tgName":null,"infoStatus":"1","orgName":"国网浙江杭州市钱塘新区供电公司","typeName":null,"infoStatusName":null,"dateDay":null,"orgNos":null,"nowTime":null,"countyName":null,"streetName":null,"villageName":null,"roadName":null,"communityName":null,"tranName":null,"sdLineName":null,"cityCode":"3340120","cityName":"国网浙江杭州市钱塘新区供电公司","provinceCode":null,"stopTime":"2020-06-09 16:30:00","powerType":"全部","powerOffArea":"35kV永丰变:钱印0509线","powerOffReason":"10kV钱印509线配合施工倒负荷工作 原停电结束时间为2020-06-08 19:30:00,因现场故障情况复杂,现变更停电结束时间为2020-06-09 16:30:00","powerOffId":"2020052931020872"},{"poweroffId":2020052931020871,"sgpoweroffId":null,"subsName":"","lineName":"10kV新创502线","pubTranName":"翎翔纺织01,闸北村3#变,孝贤塑业,文伟村4#变,朗鑫实业,江东市政,文伟村1#变,钱潮公路工程,文伟村8#变,文伟村9#变,爱丽达服饰,启聪纺织,闸北村7#变,翎翔纺织02,汇杰有机硅,亮达服饰绣品,文伟村2#变,奇观制衣厂,汇杰有机硅2#,江东机械厂,新围麻站,翎翔纺织3,盛璐纺织,盛铭绣品,","scope":"浙江省-杭州市-萧山区-河庄街道(文伟行政村-文伟自然村,闸北行政村-闸北自然村);河庄街道-闸北行政村(浙江汇杰有机硅股份有限公司,杭州奇观制衣有限公司,杭州江东机械设备有限公司,杭州太明金属制品有限公司,杭州盛铭绣品有限公司,杭州泛美工贸有限公司,杭州云迪绣品有限公司,杭州博江科技有限公司,杭州萧山孝贤塑业有限公司,杭州宝璐嬴绣品有限公司,杭州绣齐绣品有限公司),河庄街道(文伟行政村-杭州朗鑫实业有限公司,江东开发区园区-杭州江东市政公用事业服务有限公司,同一行政村-杭州翎翔纺织有限公司)","startTime":"2020-06-09 16:00:00","stopDate":"2020-06-09 16:30:00","orgNo":"3340120","typeCode":"计划停电","poweroffArea":"35kV永丰变:新创502线","poweroffReason":"10kV新创502线负荷倒回 原停电结束时间为2020-06-08 19:00:00,因现场故障情况复杂,现变更停电结束时间为2020-06-09 16:30:00","powerTime":"2020-06-09 16:18:22","powerComm":"已送电","subsNo":"","lineNo":"","tgNo":"","tgName":null,"infoStatus":"1","orgName":"国网浙江杭州市钱塘新区供电公司","typeName":null,"infoStatusName":null,"dateDay":null,"orgNos":null,"nowTime":null,"countyName":null,"streetName":null,"villageName":null,"roadName":null,"communityName":null,"tranName":null,"sdLineName":null,"cityCode":"3340120","cityName":"国网浙江杭州市钱塘新区供电公司","provinceCode":null,"stopTime":"2020-06-09 16:30:00","powerType":"全部","powerOffArea":"35kV永丰变:新创502线","powerOffReason":"10kV新创502线负荷倒回 原停电结束时间为2020-06-08 19:00:00,因现场故障情况复杂,现变更停电结束时间为2020-06-09 16:30:00","powerOffId":"2020052931020871"}],"pageModel":{"pageNow":71,"totalCount":17786,"totalPage":1779,"tableRows":0,"pageCount":10,"beginCount":700},"isExperi":"1"}