{"message":"","today":"2020-06-15","seleList":[{"poweroffId":2019121331020158,"sgpoweroffId":null,"subsName":"","lineName":"10kV龙坞6328线","pubTranName":"宋家(一),","scope":"浙江省杭州市西湖区转塘镇大清社区宋家2号至6号一带","startTime":"2019-12-25 13:30:00","stopDate":"2019-12-25 14:30:00","orgNo":"3340101","typeCode":"计划停电","poweroffArea":"110kV转塘变:龙坞6328线-宋家(一)后段","poweroffReason":"(低压停电信息)3.转塘街道大清社区宋家6号表计增容（8KW增容到24KW） 原停电结束时间为2019-12-25 15:00:00,为减少客户停电时间,加快工作进度,提前送电,现变更停电结束时间为2019-12-25 14:30:00","powerTime":"2019-12-25 13:52:59","powerComm":"已送电","subsNo":"","lineNo":"","tgNo":"","tgName":null,"infoStatus":"1","orgName":"浙江杭州电力客户服务中心","typeName":null,"infoStatusName":null,"dateDay":null,"orgNos":null,"nowTime":null,"countyName":null,"streetName":null,"villageName":null,"roadName":null,"communityName":null,"tranName":null,"sdLineName":null,"cityCode":"3340101","cityName":"浙江杭州电力客户服务中心","provinceCode":null,"stopTime":"2019-12-25 14:30:00","powerType":"全部","powerOffArea":"110kV转塘变:龙坞6328线-宋家(一)后段","powerOffReason":"(低压停电信息)3.转塘街道大清社区宋家6号表计增容（8KW增容到24KW） 原停电结束时间为2019-12-25 15:00:00,为减少客户停电时间,加快工作进度,提前送电,现变更停电结束时间为2019-12-25 14:30:00","powerOffId":"2019121331020158"},{"poweroffId":2019121331020156,"sgpoweroffId":null,"subsName":"","lineName":"10kV梅灵6307线","pubTranName":"梅家坞农居点变,","scope":"浙江省杭州市西湖区梅灵南路梅家坞新村7号至17号一带","startTime":"2019-12-25 09:30:00","stopDate":"2019-12-25 10:30:00","orgNo":"3340101","typeCode":"计划停电","poweroffArea":"110kV转塘变:梅灵6307线-梅家坞农居点变后段","poweroffReason":"(低压停电信息)1.梅灵南路梅家坞新村15号表计增容(8KW增容到12KW) 原停电结束时间为2019-12-25 15:00:00,为减少客户停电时间,加快工作进度,提前送电,现变更停电结束时间为2019-12-25 10:30:00","powerTime":"2019-12-25 09:45:59","powerComm":"已送电","subsNo":"","lineNo":"","tgNo":"","tgName":null,"infoStatus":"1","orgName":"浙江杭州电力客户服务中心","typeName":null,"infoStatusName":null,"dateDay":null,"orgNos":null,"nowTime":null,"countyName":null,"streetName":null,"villageName":null,"roadName":null,"communityName":null,"tranName":null,"sdLineName":null,"cityCode":"3340101","cityName":"浙江杭州电力客户服务中心","provinceCode":null,"stopTime":"2019-12-25 10:30:00","powerType":"全部","powerOffArea":"110kV转塘变:梅灵6307线-梅家坞农居点变后段","powerOffReason":"(低压停电信息)1.梅灵南路梅家坞新村15号表计增容(8KW增容到12KW) 原停电结束时间为2019-12-25 15:00:00,为减少客户停电时间,加快工作进度,提前送电,现变更停电结束时间为2019-12-25 10:30:00","powerOffId":"2019121331020156"},{"poweroffId":2019121331020154,"sgpoweroffId":null,"subsName":"","lineName":"10kV留泗8856线","pubTranName":"洪门一,","scope":"浙江省杭州市西湖区留泗路东穆坞外村一带部分用户","startTime":"2019-12-25 12:30:00","stopDate":"2019-12-25 14:00:00","orgNo":"3340101","typeCode":"计划停电","poweroffArea":"110kV留下变:留泗8856线-洪门一后段","poweroffReason":"(低压停电信息)2.留泗路东穆坞外村77号、107号表计增容（8KW增容到12KW） 原停电结束时间为2019-12-25 15:00:00,为减少客户停电时间,加快工作进度,提前送电,现变更停电结束时间为2019-12-25 14:00:00","powerTime":"2019-12-25 13:05:59","powerComm":"已送电","subsNo":"","lineNo":"","tgNo":"","tgName":null,"infoStatus":"1","orgName":"浙江杭州电力客户服务中心","typeName":null,"infoStatusName":null,"dateDay":null,"orgNos":null,"nowTime":null,"countyName":null,"streetName":null,"villageName":null,"roadName":null,"communityName":null,"tranName":null,"sdLineName":null,"cityCode":"3340101","cityName":"浙江杭州电力客户服务中心","provinceCode":null,"stopTime":"2019-12-25 14:00:00","powerType":"全部","powerOffArea":"110kV留下变:留泗8856线-洪门一后段","powerOffReason":"(低压停电信息)2.留泗路东穆坞外村77号、107号表计增容（8KW增容到12KW） 原停电结束时间为2019-12-25 15:00:00,为减少客户停电时间,加快工作进度,提前送电,现变更停电结束时间为2019-12-25 14:00:00","powerOffId":"2019121331020154"},{"poweroffId":2019121331020153,"sgpoweroffId":null,"subsName":"","lineName":"10kV良坞6314线","pubTranName":"白鸟畈,","scope":"浙江省杭州市西湖区转塘镇白鸟畈一带","startTime":"2019-12-24 09:30:00","stopDate":"2019-12-24 16:00:00","orgNo":"3340101","typeCode":"计划停电","poweroffArea":"110kV转塘变:良坞6314线-白鸟畈后段","poweroffReason":"I.杭州之江城市建设投资集团有限公司枫桦路电缆迁改工程白鸟畈分线部分电缆移位等 原停电结束时间为2019-12-24 17:00:00,为减少客户停电时间,加快工作进度,提前送电,现变更停电结束时间为2019-12-24 16:00:00","powerTime":"2019-12-24 15:20:16","powerComm":"已送电","subsNo":"","lineNo":"","tgNo":"","tgName":null,"infoStatus":"1","orgName":"浙江杭州电力客户服务中心","typeName":null,"infoStatusName":null,"dateDay":null,"orgNos":null,"nowTime":null,"countyName":null,"streetName":null,"villageName":null,"roadName":null,"communityName":null,"tranName":null,"sdLineName":null,"cityCode":"3340101","cityName":"浙江杭州电力客户服务中心","provinceCode":null,"stopTime":"2019-12-24 16:00:00","powerType":"全部","powerOffArea":"110kV转塘变:良坞6314线-白鸟畈后段","powerOffReason":"I.杭州之江城市建设投资集团有限公司枫桦路电缆迁改工程白鸟畈分线部分电缆移位等 原停电结束时间为2019-12-24 17:00:00,为减少客户停电时间,加快工作进度,提前送电,现变更停电结束时间为2019-12-24 16:00:00","powerOffId":"2019121331020153"},{"poweroffId":2019121331020148,"sgpoweroffId":null,"subsName":"","lineName":"10kV凌家6309线","pubTranName":"恒置施二,碧波灯,角棚二,恒置施,珊瑚沙三,枫提施二,文景路,","scope":"浙江省杭州市西湖区转塘镇珊瑚沙村一带部分用户、枫桦路与碧波路东侧一带部分用户","startTime":"2019-12-24 08:30:00","stopDate":"2019-12-24 20:00:00","orgNo":"3340101","typeCode":"计划停电","poweroffArea":"110kV转塘变:凌家6309线首端，珊瑚沙三，角棚二，文景路，恒置施，恒置施二，枫提施二，碧波灯之间","poweroffReason":"1.杭州之江城市建设投资集团有限公司枫桦路电缆迁改工程PD2018-12-009-QX 枫桦站II段移位 原停电结束时间为2019-12-24 17:00:00,因计划调整原因,现变更停电结束时间为2019-12-24 20:00:00","powerTime":"2019-12-24 19:01:20","powerComm":"已送电","subsNo":"","lineNo":"","tgNo":"","tgName":null,"infoStatus":"1","orgName":"浙江杭州电力客户服务中心","typeName":null,"infoStatusName":null,"dateDay":null,"orgNos":null,"nowTime":null,"countyName":null,"streetName":null,"villageName":null,"roadName":null,"communityName":null,"tranName":null,"sdLineName":null,"cityCode":"3340101","cityName":"浙江杭州电力客户服务中心","provinceCode":null,"stopTime":"2019-12-24 20:00:00","powerType":"全部","powerOffArea":"110kV转塘变:凌家6309线首端，珊瑚沙三，角棚二，文景路，恒置施，恒置施二，枫提施二，碧波灯之间","powerOffReason":"1.杭州之江城市建设投资集团有限公司枫桦路电缆迁改工程PD2018-12-009-QX 枫桦站II段移位 原停电结束时间为2019-12-24 17:00:00,因计划调整原因,现变更停电结束时间为2019-12-24 20:00:00","powerOffId":"2019121331020148"},{"poweroffId":2019121331020146,"sgpoweroffId":null,"subsName":"","lineName":"10kV良坞6314线","pubTranName":"升龙施四,白鸟畈二,升龙施三,升龙施一,升龙施二,","scope":"浙江省杭州市西湖区转塘镇白鸟畈村一带部分用户","startTime":"2019-12-23 08:30:00","stopDate":"2019-12-23 22:00:00","orgNo":"3340101","typeCode":"计划停电","poweroffArea":"110kV转塘变:良坞6314线-白鸟畈二后段;良坞6314线-升龙施一后段;良坞6314线-升龙施三后段;良坞6314线-升龙施二后段;良坞6314线-升龙施四后段","poweroffReason":"1.杭州之江城市建设投资集团有限公司枫桦路电缆迁改工程PD2018-12-009-QX 枫桦站I段移位 原停电结束时间为2019-12-23 17:00:00,因计划调整原因,现变更停电结束时间为2019-12-23 22:00:00","powerTime":"2019-12-23 21:09:31","powerComm":"已送电","subsNo":"","lineNo":"","tgNo":"","tgName":null,"infoStatus":"1","orgName":"浙江杭州电力客户服务中心","typeName":null,"infoStatusName":null,"dateDay":null,"orgNos":null,"nowTime":null,"countyName":null,"streetName":null,"villageName":null,"roadName":null,"communityName":null,"tranName":null,"sdLineName":null,"cityCode":"3340101","cityName":"浙江杭州电力客户服务中心","provinceCode":null,"stopTime":"2019-12-23 22:00:00","powerType":"全部","powerOffArea":"110kV转塘变:良坞6314线-白鸟畈二后段;良坞6314线-升龙施一后段;良坞6314线-升龙施三后段;良坞6314线-升龙施二后段;良坞6314线-升龙施四后段","powerOffReason":"1.杭州之江城市建设投资集团有限公司枫桦路电缆迁改工程PD2018-12-009-QX 枫桦站I段移位 原停电结束时间为2019-12-23 17:00:00,因计划调整原因,现变更停电结束时间为2019-12-23 22:00:00","powerOffId":"2019121331020146"},{"poweroffId":2019121331020142,"sgpoweroffId":null,"subsName":"","lineName":"10kV西宿8889线","pubTranName":"安乐二,留幼,安乐三,青中二,安乐,青中,梅园变,","scope":"浙江省杭州市西湖区留下西溪梅园、安乐新村、留下街安乐街一带","startTime":"2019-12-23 09:30:00","stopDate":"2019-12-23 14:30:00","orgNo":"3340101","typeCode":"计划停电","poweroffArea":"110kV留下变:西宿8889线-留幼后段;西宿8889线-青中开关后段;西宿8889线-青中二后段;西宿8889线-安乐后段;西宿8889线-安乐二后段;西宿8889线-安乐三后段;西宿8889线-梅园变后段","poweroffReason":"西梅站青中分线树线矛盾消缺修树、青中分线开关更换、变压器更换等工作 原停电结束时间为2019-12-23 17:00:00,为减少客户停电时间,加快工作进度,提前送电,现变更停电结束时间为2019-12-23 14:30:00","powerTime":"2019-12-23 13:34:50","powerComm":"已送电","subsNo":"","lineNo":"","tgNo":"","tgName":null,"infoStatus":"1","orgName":"浙江杭州电力客户服务中心","typeName":null,"infoStatusName":null,"dateDay":null,"orgNos":null,"nowTime":null,"countyName":null,"streetName":null,"villageName":null,"roadName":null,"communityName":null,"tranName":null,"sdLineName":null,"cityCode":"3340101","cityName":"浙江杭州电力客户服务中心","provinceCode":null,"stopTime":"2019-12-23 14:30:00","powerType":"全部","powerOffArea":"110kV留下变:西宿8889线-留幼后段;西宿8889线-青中开关后段;西宿8889线-青中二后段;西宿8889线-安乐后段;西宿8889线-安乐二后段;西宿8889线-安乐三后段;西宿8889线-梅园变后段","powerOffReason":"西梅站青中分线树线矛盾消缺修树、青中分线开关更换、变压器更换等工作 原停电结束时间为2019-12-23 17:00:00,为减少客户停电时间,加快工作进度,提前送电,现变更停电结束时间为2019-12-23 14:30:00","powerOffId":"2019121331020142"},{"poweroffId":2019121331020126,"sgpoweroffId":null,"subsName":"","lineName":"10kV鼎凯A475线","pubTranName":"银洋纺织,甘露村10#变,杭州萧山鸿涛纺织有限公司,东桥村4#变,银洋纺织,甘露村14#变,金峰纺织(1315078443),银洋进出口,祎华纺织,东桥村17#变,东桥村15#变,东桥村7#变,","scope":"浙江省-杭州市-萧山区-靖江街道东桥行政村-东桥自然村,甘露行政村-甘露自然村、浙江省-杭州市-萧山区-靖江街道-甘露行政村-杭州金峰纺织有限公司,靖江街道-东桥行政村(杭州祎华纺织有限公司,杭州铭创纺织有限公司,杭州萧山鸿涛纺织有限公司,杭州铭盛天玑纺织有限公司、东桥村、甘露村一带","startTime":"2019-12-13 10:00:54","stopDate":"2019-12-13 11:50:54","orgNo":"3340130","typeCode":"电网故障停限电","poweroffArea":"110kV幸福变:鼎凯A475线-鼎凯A475线张金分线开关后段","poweroffReason":"高压柱上断路器短路故障 原停电结束时间为2019-12-13 13:01:54,为减少客户停电时间,加快工作进度,提前送电,现变更停电结束时间为2019-12-13 11:50:54","powerTime":"2019-12-13 11:01:41","powerComm":"已送电","subsNo":"","lineNo":"","tgNo":"","tgName":null,"infoStatus":"1","orgName":"国网浙江杭州市萧山区供电有限公司","typeName":null,"infoStatusName":null,"dateDay":null,"orgNos":null,"nowTime":null,"countyName":null,"streetName":null,"villageName":null,"roadName":null,"communityName":null,"tranName":null,"sdLineName":null,"cityCode":"3340130","cityName":"国网浙江杭州市萧山区供电有限公司","provinceCode":null,"stopTime":"2019-12-13 11:50:54","powerType":"全部","powerOffArea":"110kV幸福变:鼎凯A475线-鼎凯A475线张金分线开关后段","powerOffReason":"高压柱上断路器短路故障 原停电结束时间为2019-12-13 13:01:54,为减少客户停电时间,加快工作进度,提前送电,现变更停电结束时间为2019-12-13 11:50:54","powerOffId":"2019121331020126"},{"poweroffId":2019121331020124,"sgpoweroffId":null,"subsName":"","lineName":"10kV汇技A494线","pubTranName":"东村村5#变,","scope":"浙江省-杭州市-萧山区-益农镇-东村行政村-东村自然村、益农镇东村行政村9组17号B03杆一带","startTime":"2019-12-13 09:55:29","stopDate":"2019-12-13 14:30:29","orgNo":"3340130","typeCode":"电网故障停限电","poweroffArea":"110kV群围变:汇技A494线-东村村5#变台区低压开关","poweroffReason":"(低压停电信息)低压架空导线断线故障 原停电结束时间为2019-12-13 17:30:29,为减少客户停电时间,加快工作进度,提前送电,现变更停电结束时间为2019-12-13 14:30:29","powerTime":"2019-12-13 13:35:06","powerComm":"已送电","subsNo":"","lineNo":"","tgNo":"","tgName":null,"infoStatus":"1","orgName":"国网浙江杭州市萧山区供电有限公司","typeName":null,"infoStatusName":null,"dateDay":null,"orgNos":null,"nowTime":null,"countyName":null,"streetName":null,"villageName":null,"roadName":null,"communityName":null,"tranName":null,"sdLineName":null,"cityCode":"3340130","cityName":"国网浙江杭州市萧山区供电有限公司","provinceCode":null,"stopTime":"2019-12-13 14:30:29","powerType":"全部","powerOffArea":"110kV群围变:汇技A494线-东村村5#变台区低压开关","powerOffReason":"(低压停电信息)低压架空导线断线故障 原停电结束时间为2019-12-13 17:30:29,为减少客户停电时间,加快工作进度,提前送电,现变更停电结束时间为2019-12-13 14:30:29","powerOffId":"2019121331020124"},{"poweroffId":2019121331020116,"sgpoweroffId":null,"subsName":"","lineName":"10kV龙门D787线","pubTranName":"龙门七村8号龙一官地公变,","scope":"浙江省-杭州市-富阳区(龙门镇-龙门七村行政村-龙门村自然村,上官乡-四堡行政村-四堡自然村)一带","startTime":"2019-12-24 08:30:00","stopDate":"2019-12-24 15:30:00","orgNo":"3340170","typeCode":"计划停电","poweroffArea":"110kV王洲变:龙门D787线-龙门七村8号龙一官地公变后段","poweroffReason":"(低压停电信息)配合停电：场口2019年10kV洋沙村4#大塔村口公变等台区增容布点工程：龙门七村8#龙一官地公变01出线拆除低压出线电缆1根，拆除导线1档等工作；龙门D787线181#杆新布点安装真空开关1台，低压电缆上杆搭接等工作。","powerTime":"2019-12-24 15:19:30","powerComm":"已送电","subsNo":"","lineNo":"","tgNo":"","tgName":null,"infoStatus":"1","orgName":"国网浙江杭州市富阳区供电公司","typeName":null,"infoStatusName":null,"dateDay":null,"orgNos":null,"nowTime":null,"countyName":null,"streetName":null,"villageName":null,"roadName":null,"communityName":null,"tranName":null,"sdLineName":null,"cityCode":"3340170","cityName":"国网浙江杭州市富阳区供电公司","provinceCode":null,"stopTime":"2019-12-24 15:30:00","powerType":"全部","powerOffArea":"110kV王洲变:龙门D787线-龙门七村8号龙一官地公变后段","powerOffReason":"(低压停电信息)配合停电：场口2019年10kV洋沙村4#大塔村口公变等台区增容布点工程：龙门七村8#龙一官地公变01出线拆除低压出线电缆1根，拆除导线1档等工作；龙门D787线181#杆新布点安装真空开关1台，低压电缆上杆搭接等工作。","powerOffId":"2019121331020116"}],"pageModel":{"pageNow":715,"totalCount":17789,"totalPage":1779,"tableRows":0,"pageCount":10,"beginCount":7140},"isExperi":"1"}