{"message":"","today":"2020-06-15","seleList":[{"poweroffId":2020052931020870,"sgpoweroffId":null,"subsName":"","lineName":"10kV河欣0503线","pubTranName":"同一村7#变,","scope":"浙江省-杭州市-萧山区-河庄街道-同一行政村-同一自然村","startTime":"2020-06-08 09:30:00","stopDate":"2020-06-08 16:30:00","orgNo":"3340120","typeCode":"计划停电","poweroffArea":"35kV永丰变:河欣0503线-同一村7#变低压后段","poweroffReason":"(低压停电信息)同一村7#变低压割接至新设同一村23#变等工作 原停电结束时间为2020-06-08 17:30:00,为减少客户停电时间,加快工作进度,提前送电,现变更停电结束时间为2020-06-08 16:30:00","powerTime":"2020-06-08 16:07:21","powerComm":"已送电","subsNo":"","lineNo":"","tgNo":"","tgName":null,"infoStatus":"1","orgName":"国网浙江杭州市钱塘新区供电公司","typeName":null,"infoStatusName":null,"dateDay":null,"orgNos":null,"nowTime":null,"countyName":null,"streetName":null,"villageName":null,"roadName":null,"communityName":null,"tranName":null,"sdLineName":null,"cityCode":"3340120","cityName":"国网浙江杭州市钱塘新区供电公司","provinceCode":null,"stopTime":"2020-06-08 16:30:00","powerType":"全部","powerOffArea":"35kV永丰变:河欣0503线-同一村7#变低压后段","powerOffReason":"(低压停电信息)同一村7#变低压割接至新设同一村23#变等工作 原停电结束时间为2020-06-08 17:30:00,为减少客户停电时间,加快工作进度,提前送电,现变更停电结束时间为2020-06-08 16:30:00","powerOffId":"2020052931020870"},{"poweroffId":2020052931020869,"sgpoweroffId":null,"subsName":"","lineName":"10kV新创502线","pubTranName":"文伟村1#变,闸北村7#变,奇观制衣厂,爱丽达服饰,盛铭绣品,翎翔纺织02,文伟村4#变,文伟村2#变,江东市政,闸北村3#变,朗鑫实业,亮达服饰绣品,盛璐纺织,江东机械厂,启聪纺织,翎翔纺织01,汇杰有机硅,汇杰有机硅2#,钱潮公路工程,文伟村8#变,孝贤塑业,翎翔纺织3,新围麻站,文伟村9#变,","scope":"浙江省-杭州市-萧山区-河庄街道(文伟行政村-文伟自然村,闸北行政村-闸北自然村);河庄街道-闸北行政村(浙江汇杰有机硅股份有限公司,杭州奇观制衣有限公司,杭州江东机械设备有限公司,杭州太明金属制品有限公司,杭州盛铭绣品有限公司,杭州泛美工贸有限公司,杭州云迪绣品有限公司,杭州博江科技有限公司,杭州萧山孝贤塑业有限公司,杭州宝璐嬴绣品有限公司,杭州绣齐绣品有限公司),河庄街道(文伟行政村-杭州朗鑫实业有限公司,江东开发区园区-杭州江东市政公用事业服务有限公司,同一行政村-杭州翎翔纺织有限公司)","startTime":"2020-06-08 08:45:00","stopDate":"2020-06-08 09:30:00","orgNo":"3340120","typeCode":"计划停电","poweroffArea":"35kV永丰变:新创502线","poweroffReason":"10kV新创502线配合施工倒负荷工作","powerTime":"2020-06-08 09:04:43","powerComm":"已送电","subsNo":"","lineNo":"","tgNo":"","tgName":null,"infoStatus":"1","orgName":"国网浙江杭州市钱塘新区供电公司","typeName":null,"infoStatusName":null,"dateDay":null,"orgNos":null,"nowTime":null,"countyName":null,"streetName":null,"villageName":null,"roadName":null,"communityName":null,"tranName":null,"sdLineName":null,"cityCode":"3340120","cityName":"国网浙江杭州市钱塘新区供电公司","provinceCode":null,"stopTime":"2020-06-08 09:30:00","powerType":"全部","powerOffArea":"35kV永丰变:新创502线","powerOffReason":"10kV新创502线配合施工倒负荷工作","powerOffId":"2020052931020869"},{"poweroffId":2020052931020868,"sgpoweroffId":null,"subsName":"","lineName":"10kV钱印0509线","pubTranName":"江东村13#变,闸北村12#变,新围初中,新围小学01#,围中村1#变,瓜沥东恩,江东市政,闸北村15#变,阳力农业,江东村十二配变,1#,江东村十五配变,闸北村经济联合社,新东村2#变,江东村新东8#变,新东村3#变,新东村1#变,公交一变,","scope":"浙江省-杭州市-萧山区-河庄街道(江东行政村-江东自然村,闸北行政村-闸北自然村,围中行政村-围中自然村);河庄街道-江东行政村(杭州阳力农业有限公司,杭州大江东投资开发有限公司),河庄街道-闸北行政村(萧山区新围小学,杭州市萧山区河庄街道闸北村经济联合社),河庄街道(新围行政村-瓜力镇东恩村垦种,江东开发区园区-杭州江东市政公用事业服务有限公司,围中行政村-萧山区新围初级中学,群欢行政村-中电建路桥集团(杭州)大江东投资发展有限公司)","startTime":"2020-06-08 08:45:00","stopDate":"2020-06-08 09:30:00","orgNo":"3340120","typeCode":"计划停电","poweroffArea":"35kV永丰变:钱印0509线","poweroffReason":"10kV钱印509线配合施工倒负荷工作","powerTime":"2020-06-08 09:22:19","powerComm":"已送电","subsNo":"","lineNo":"","tgNo":"","tgName":null,"infoStatus":"1","orgName":"国网浙江杭州市钱塘新区供电公司","typeName":null,"infoStatusName":null,"dateDay":null,"orgNos":null,"nowTime":null,"countyName":null,"streetName":null,"villageName":null,"roadName":null,"communityName":null,"tranName":null,"sdLineName":null,"cityCode":"3340120","cityName":"国网浙江杭州市钱塘新区供电公司","provinceCode":null,"stopTime":"2020-06-08 09:30:00","powerType":"全部","powerOffArea":"35kV永丰变:钱印0509线","powerOffReason":"10kV钱印509线配合施工倒负荷工作","powerOffId":"2020052931020868"},{"poweroffId":2020052931020865,"sgpoweroffId":null,"subsName":"","lineName":"10kV炼铜D405线","pubTranName":"浙江富冶集团有限公司,","scope":"浙江省-杭州市-富阳区-鹿山街道-谢家溪行政村-浙江富冶集团有限公司","startTime":"2020-06-14 08:30:00","stopDate":"2020-06-14 17:30:00","orgNo":"3340170","typeCode":"计划停电","poweroffArea":"110kV长春变:炼铜D405线-浙江富冶集团有限公司后段","poweroffReason":"青云2020年缺陷处理工程：10kV炼铜D405线8-10#杆更换导线等工作","powerTime":"2020-06-14 16:39:51","powerComm":"已送电","subsNo":"","lineNo":"","tgNo":"","tgName":null,"infoStatus":"1","orgName":"国网浙江杭州市富阳区供电公司","typeName":null,"infoStatusName":null,"dateDay":null,"orgNos":null,"nowTime":null,"countyName":null,"streetName":null,"villageName":null,"roadName":null,"communityName":null,"tranName":null,"sdLineName":null,"cityCode":"3340170","cityName":"国网浙江杭州市富阳区供电公司","provinceCode":null,"stopTime":"2020-06-14 17:30:00","powerType":"全部","powerOffArea":"110kV长春变:炼铜D405线-浙江富冶集团有限公司后段","powerOffReason":"青云2020年缺陷处理工程：10kV炼铜D405线8-10#杆更换导线等工作","powerOffId":"2020052931020865"},{"poweroffId":2020052931020864,"sgpoweroffId":null,"subsName":"","lineName":"10kV黄家G387线","pubTranName":"东塘村东方红公变,","scope":"浙江省-杭州市-余杭区-仁和街道-东塘行政村(东方红自然村,栅口角自然村,张家塘,仲墅自然村,西洋圩自然村,东塘街道电管站自然村,周介角自然村,南桥头自然村,张家塘自然村,周家角自然村)","startTime":"2020-05-29 18:25:00","stopDate":"2020-05-29 20:18:00","orgNo":"3340140","typeCode":"电网故障停限电","poweroffArea":"110kV东塘变:黄家G387线东塘村东方红公变配变","poweroffReason":"高压开关跳闸","powerTime":"2020-05-29 19:33:00","powerComm":"已送电","subsNo":"","lineNo":"","tgNo":"","tgName":null,"infoStatus":"1","orgName":"国网浙江杭州市余杭区供电有限公司","typeName":null,"infoStatusName":null,"dateDay":null,"orgNos":null,"nowTime":null,"countyName":null,"streetName":null,"villageName":null,"roadName":null,"communityName":null,"tranName":null,"sdLineName":null,"cityCode":"3340140","cityName":"国网浙江杭州市余杭区供电有限公司","provinceCode":null,"stopTime":"2020-05-29 20:18:00","powerType":"全部","powerOffArea":"110kV东塘变:黄家G387线东塘村东方红公变配变","powerOffReason":"高压开关跳闸","powerOffId":"2020052931020864"},{"poweroffId":2020052931020863,"sgpoweroffId":null,"subsName":"","lineName":"10kV黄家G387线","pubTranName":"东塘村南桥头公变,","scope":"浙江省-杭州市-余杭区-仁和街道-东塘行政村(栅口角自然村,仲墅自然村,张家塘自然村,南桥头自然村,北桥头自然村)","startTime":"2020-05-29 18:18:00","stopDate":"2020-05-29 20:18:00","orgNo":"3340140","typeCode":"电网故障停限电","poweroffArea":"110kV东塘变:黄家G387线东塘村南桥头公变配变","poweroffReason":"高压开关跳闸","powerTime":"2020-05-29 19:33:00","powerComm":"已送电","subsNo":"","lineNo":"","tgNo":"","tgName":null,"infoStatus":"1","orgName":"国网浙江杭州市余杭区供电有限公司","typeName":null,"infoStatusName":null,"dateDay":null,"orgNos":null,"nowTime":null,"countyName":null,"streetName":null,"villageName":null,"roadName":null,"communityName":null,"tranName":null,"sdLineName":null,"cityCode":"3340140","cityName":"国网浙江杭州市余杭区供电有限公司","provinceCode":null,"stopTime":"2020-05-29 20:18:00","powerType":"全部","powerOffArea":"110kV东塘变:黄家G387线东塘村南桥头公变配变","powerOffReason":"高压开关跳闸","powerOffId":"2020052931020863"},{"poweroffId":2020052931020862,"sgpoweroffId":null,"subsName":"","lineName":"10kV咸康D208线","pubTranName":"1#,下俞村4号周家桥公变,下高村3#上高公变,赔销坞3号沿青坞公变,下俞村6#公变,秋联村3号秋联公变,江南春建设集团有限公司变压器4,富阳金鑫矿业有限公司,云二村1#石毛坞公变,富阳市上台门铅锌矿,浙江江南春建设集团有限公司变压器,铁坎村1#塔石坞公变,上俞村5号公园公变,上俞村2#道士坞公变,杭州艾诺流体控制仪表有限公司1#变,铁坎村5#横坞公变1,富阳金鑫矿业有限公司,下俞村3号关角上公变,徐家坞1号杜家公变,铁坎村3号铁坎公变,富阳市春建乡俞华丰木制品厂1#变,云二村4#栗树坞公变,铁坎村2#杨家庙公变,云二村3号吴家滩公变,尖山村2号尖山2公变,1#,下俞村5#周家桥公变,江南春建设集团有限公司变压器4,上高村10#公变,富阳金鑫矿业有限公司,赔销坞1#坞口公变变压器,下俞村2#梓栲坞公变,铁坎村6#大毛坞2公变,富阳金鑫矿业2#公变,富阳金鑫矿业有限公司3#变,下俞村1号下俞公变,云二村2号云二公变,秋联村2#梓腰坞公变1,富阳精密制造厂2#,云二村6号公变,1#,杭州富阳金鑫矿业有限公司,杭州市富阳区春建乡人民政府1#变,尖山村1#尖山1公变,富阳市高桥镇铜山塑料粒子厂,富阳市上俞铅锌厂,江南春建设集团有限公司变压器3,下高村2号下高公变,徐家坞3号徐家坞公变,上俞矿山(一),上高村11号公变,富阳市恒达工具厂,春建村下高4号公变,咸康村尖山村1号公变,赔销坞5号东仗坞公变,咸康村陈家坞1号公变,上俞村3#白洋畈公变,江南春建设集团有限公司变压器3,富阳市榔槿坞铁矿有限公司,下俞村8号合坞口公变,富阳市上俞铅锌厂,春建村下高3号公变,下高村1号巧溪公变,春建村秋联1#秋联公变,赔销坞2#赔销坞公变,浙江江南春建设集团有限公司变压器,富阳市君悦工艺品有限公司,下俞村7号百丈坞公变,春建村云二5#公变,富阳精密制造厂1#,徐家坞2号五一公变,江南春建设集团有限公司变压器4,上俞村1号上俞公变,上俞村4#章家坞公变,赔销坞4号赔销坞公变,铁坎村4号大毛坞公变,富阳选矿厂,","scope":"浙江省-杭州市-富阳区-富春街道-下高村、春建村、上高村、上俞村、云二村、秋联村、铁坎村、徐家坞村、下俞村、上俞村、赔销坞村、尖山村、咸康村陈家坞自然村、咸康村尖山坞自然村一带","startTime":"2020-06-08 20:30:00","stopDate":"2020-06-08 21:10:00","orgNo":"3340170","typeCode":"计划停电","poweroffArea":"35kV大青变:咸康D208线-富阳金鑫矿业进线后段;咸康D208线-江南春建设集团有限公司熔断器4后段;咸康D208线-咸千D208M开关后段;咸康D208线-饮水分线后段","poweroffReason":"短时倒负荷停电 原停电结束时间为2020-06-08 20:50:00,因现场故障情况复杂,现变更停电结束时间为2020-06-08 21:10:00","powerTime":"2020-06-08 20:59:02","powerComm":"已送电","subsNo":"","lineNo":"","tgNo":"","tgName":null,"infoStatus":"1","orgName":"国网浙江杭州市富阳区供电公司","typeName":null,"infoStatusName":null,"dateDay":null,"orgNos":null,"nowTime":null,"countyName":null,"streetName":null,"villageName":null,"roadName":null,"communityName":null,"tranName":null,"sdLineName":null,"cityCode":"3340170","cityName":"国网浙江杭州市富阳区供电公司","provinceCode":null,"stopTime":"2020-06-08 21:10:00","powerType":"全部","powerOffArea":"35kV大青变:咸康D208线-富阳金鑫矿业进线后段;咸康D208线-江南春建设集团有限公司熔断器4后段;咸康D208线-咸千D208M开关后段;咸康D208线-饮水分线后段","powerOffReason":"短时倒负荷停电 原停电结束时间为2020-06-08 20:50:00,因现场故障情况复杂,现变更停电结束时间为2020-06-08 21:10:00","powerOffId":"2020052931020862"},{"poweroffId":2020052931020861,"sgpoweroffId":null,"subsName":"","lineName":"10kV咸康D208线","pubTranName":"下高村1号巧溪公变,云二村3号吴家滩公变,富阳金鑫矿业2#公变,徐家坞2号五一公变,富阳市高桥镇铜山塑料粒子厂,徐家坞1号杜家公变,云二村4#栗树坞公变,铁坎村1#塔石坞公变,富阳金鑫矿业有限公司3#变,下高村2号下高公变,下俞村5#周家桥公变,富阳金鑫矿业有限公司,富阳选矿厂,富阳金鑫矿业有限公司,赔销坞1#坞口公变变压器,1#,上俞村3#白洋畈公变,下俞村2#梓栲坞公变,杭州艾诺流体控制仪表有限公司1#变,春建村云二5#公变,春建村秋联1#秋联公变,江南春建设集团有限公司变压器3,下俞村3号关角上公变,富阳市上台门铅锌矿,铁坎村5#横坞公变1,上俞矿山(一),云二村2号云二公变,下俞村6#公变,铁坎村4号大毛坞公变,富阳市恒达工具厂,上高村11号公变,杭州市富阳区春建乡人民政府1#变,秋联村3号秋联公变,上俞村1号上俞公变,上俞村4#章家坞公变,徐家坞3号徐家坞公变,下高村3#上高公变,赔销坞4号赔销坞公变,富阳市君悦工艺品有限公司,铁坎村3号铁坎公变,咸康村陈家坞1号公变,富阳金鑫矿业有限公司,上俞村2#道士坞公变,浙江江南春建设集团有限公司变压器,富阳精密制造厂1#,秋联村2#梓腰坞公变1,富阳市上俞铅锌厂,富阳市春建乡俞华丰木制品厂1#变,上俞村5号公园公变,江南春建设集团有限公司变压器4,上高村10#公变,赔销坞5号东仗坞公变,赔销坞3号沿青坞公变,下俞村8号合坞口公变,下俞村7号百丈坞公变,1#,尖山村2号尖山2公变,云二村1#石毛坞公变,下俞村4号周家桥公变,富阳市榔槿坞铁矿有限公司,富阳精密制造厂2#,杭州富阳金鑫矿业有限公司,赔销坞2#赔销坞公变,下俞村1号下俞公变,1#,铁坎村2#杨家庙公变,春建村下高3号公变,春建村下高4号公变,尖山村1#尖山1公变,咸康村尖山村1号公变,富阳市上俞铅锌厂,云二村6号公变,铁坎村6#大毛坞2公变,","scope":"浙江省-杭州市-富阳区-富春街道-下高村、春建村、上高村、上俞村、云二村、秋联村、铁坎村、徐家坞村、下俞村、上俞村、赔销坞村、尖山村、咸康村陈家坞自然村、咸康村尖山坞自然村一带","startTime":"2020-06-08 08:40:00","stopDate":"2020-06-08 09:00:00","orgNo":"3340170","typeCode":"计划停电","poweroffArea":"35kV大青变:咸康D208线-咸千D208M开关后段;咸康D208线-富阳金鑫矿业进线后段","poweroffReason":"短时倒负荷停电","powerTime":"2020-06-08 08:55:31","powerComm":"已送电","subsNo":"","lineNo":"","tgNo":"","tgName":null,"infoStatus":"1","orgName":"国网浙江杭州市富阳区供电公司","typeName":null,"infoStatusName":null,"dateDay":null,"orgNos":null,"nowTime":null,"countyName":null,"streetName":null,"villageName":null,"roadName":null,"communityName":null,"tranName":null,"sdLineName":null,"cityCode":"3340170","cityName":"国网浙江杭州市富阳区供电公司","provinceCode":null,"stopTime":"2020-06-08 09:00:00","powerType":"全部","powerOffArea":"35kV大青变:咸康D208线-咸千D208M开关后段;咸康D208线-富阳金鑫矿业进线后段","powerOffReason":"短时倒负荷停电","powerOffId":"2020052931020861"},{"poweroffId":2020052931020860,"sgpoweroffId":null,"subsName":"","lineName":"10kV西凤8321线","pubTranName":"01,海通证券专变,","scope":"浙江省-杭州市-下城区-武林街道(安吉社区-浙江五环物业管理有限公司,环西社区-浙江物产实业控股(集团)有限公司)","startTime":"2020-05-29 18:15:33","stopDate":"2020-05-30 01:15:33","orgNo":"3340101","typeCode":"电网故障停限电","poweroffArea":"110kV昭庆变:西凤8321线建院分线","poweroffReason":"高压开关跳闸 原停电结束时间为2020-05-30 08:15:33,为减少客户停电时间,加快工作进度,提前送电,现变更停电结束时间为2020-05-30 01:15:33","powerTime":"2020-05-30 00:39:09","powerComm":"已送电","subsNo":"","lineNo":"","tgNo":"","tgName":null,"infoStatus":"1","orgName":"浙江杭州电力客户服务中心","typeName":null,"infoStatusName":null,"dateDay":null,"orgNos":null,"nowTime":null,"countyName":null,"streetName":null,"villageName":null,"roadName":null,"communityName":null,"tranName":null,"sdLineName":null,"cityCode":"3340101","cityName":"浙江杭州电力客户服务中心","provinceCode":null,"stopTime":"2020-05-30 01:15:33","powerType":"全部","powerOffArea":"110kV昭庆变:西凤8321线建院分线","powerOffReason":"高压开关跳闸 原停电结束时间为2020-05-30 08:15:33,为减少客户停电时间,加快工作进度,提前送电,现变更停电结束时间为2020-05-30 01:15:33","powerOffId":"2020052931020860"},{"poweroffId":2020052931020857,"sgpoweroffId":null,"subsName":"","lineName":"10kV河建0349线","pubTranName":"新和村5#变,","scope":"浙江省-杭州市-萧山区-河庄街道-新和行政村-新和自然村","startTime":"2020-06-01 09:30:00","stopDate":"2020-06-01 15:30:00","orgNo":"3340120","typeCode":"临时停电","poweroffArea":"110kV河庄变:河建0349线-新和村5#变后段","poweroffReason":"(低压停电信息)新放导线跨越新和村5#变低压（国通） 原停电结束时间为2020-06-01 17:30:00,为减少客户停电时间,加快工作进度,提前送电,现变更停电结束时间为2020-06-01 15:30:00","powerTime":"2020-06-01 14:41:39","powerComm":"已送电","subsNo":"","lineNo":"","tgNo":"","tgName":null,"infoStatus":"1","orgName":"国网浙江杭州市钱塘新区供电公司","typeName":null,"infoStatusName":null,"dateDay":null,"orgNos":null,"nowTime":null,"countyName":null,"streetName":null,"villageName":null,"roadName":null,"communityName":null,"tranName":null,"sdLineName":null,"cityCode":"3340120","cityName":"国网浙江杭州市钱塘新区供电公司","provinceCode":null,"stopTime":"2020-06-01 15:30:00","powerType":"全部","powerOffArea":"110kV河庄变:河建0349线-新和村5#变后段","powerOffReason":"(低压停电信息)新放导线跨越新和村5#变低压（国通） 原停电结束时间为2020-06-01 17:30:00,为减少客户停电时间,加快工作进度,提前送电,现变更停电结束时间为2020-06-01 15:30:00","powerOffId":"2020052931020857"}],"pageModel":{"pageNow":72,"totalCount":17786,"totalPage":1779,"tableRows":0,"pageCount":10,"beginCount":710},"isExperi":"1"}