{"message":"","today":"2020-06-15","seleList":[{"poweroffId":2019121131020081,"sgpoweroffId":null,"subsName":"","lineName":"10kV城中T273线","pubTranName":"灯具市场1号公变,","scope":"浙江省-杭州市-桐庐县-城南街道-中杭社区-春江路","startTime":"2019-12-11 09:43:17","stopDate":"2019-12-11 11:30:30","orgNo":"3340150","typeCode":"电网故障停限电","poweroffArea":"35kV三合变:城中T273线-灯具市场1号公变后段","poweroffReason":"高压开关跳闸","powerTime":"2019-12-11 11:04:14","powerComm":"已送电","subsNo":"","lineNo":"","tgNo":"","tgName":null,"infoStatus":"1","orgName":"国网浙江桐庐县供电公司","typeName":null,"infoStatusName":null,"dateDay":null,"orgNos":null,"nowTime":null,"countyName":null,"streetName":null,"villageName":null,"roadName":null,"communityName":null,"tranName":null,"sdLineName":null,"cityCode":"3340150","cityName":"国网浙江桐庐县供电公司","provinceCode":null,"stopTime":"2019-12-11 11:30:30","powerType":"全部","powerOffArea":"35kV三合变:城中T273线-灯具市场1号公变后段","powerOffReason":"高压开关跳闸","powerOffId":"2019121131020081"},{"poweroffId":2019121131020067,"sgpoweroffId":null,"subsName":"","lineName":"10kV定坊A268线","pubTranName":"步行街3#变,","scope":"浙江省-杭州市-萧山区-义桥镇(义桥行政村-时代大道,杨岐社区-时代大道)等一带","startTime":"2019-12-11 09:16:44","stopDate":"2019-12-11 12:30:44","orgNo":"3340130","typeCode":"电网故障停限电","poweroffArea":"110kV定山变:定坊A268线-步行街3#变台区低压开关","poweroffReason":"(低压停电信息)低压电缆故障 原停电结束时间为2019-12-11 17:30:44,为减少客户停电时间,加快工作进度,提前送电,现变更停电结束时间为2019-12-11 12:30:44","powerTime":"2019-12-11 12:01:34","powerComm":"已送电","subsNo":"","lineNo":"","tgNo":"","tgName":null,"infoStatus":"1","orgName":"国网浙江杭州市萧山区供电有限公司","typeName":null,"infoStatusName":null,"dateDay":null,"orgNos":null,"nowTime":null,"countyName":null,"streetName":null,"villageName":null,"roadName":null,"communityName":null,"tranName":null,"sdLineName":null,"cityCode":"3340130","cityName":"国网浙江杭州市萧山区供电有限公司","provinceCode":null,"stopTime":"2019-12-11 12:30:44","powerType":"全部","powerOffArea":"110kV定山变:定坊A268线-步行街3#变台区低压开关","powerOffReason":"(低压停电信息)低压电缆故障 原停电结束时间为2019-12-11 17:30:44,为减少客户停电时间,加快工作进度,提前送电,现变更停电结束时间为2019-12-11 12:30:44","powerOffId":"2019121131020067"},{"poweroffId":2019121131020065,"sgpoweroffId":null,"subsName":"","lineName":"10kV大兆D605线","pubTranName":"三支村1#三支公变,","scope":"浙江省-杭州市-富阳区-大源镇-三岭行政村-三支自然村","startTime":"2019-12-11 09:17:21","stopDate":"2019-12-11 10:25:21","orgNo":"3340170","typeCode":"电网故障停限电","poweroffArea":"35kV溪东变:大兆D605线-三支村1#三支公变后段","poweroffReason":"高压开关跳闸","powerTime":"2019-12-11 10:05:24","powerComm":"已送电","subsNo":"","lineNo":"","tgNo":"","tgName":null,"infoStatus":"1","orgName":"国网浙江杭州市富阳区供电公司","typeName":null,"infoStatusName":null,"dateDay":null,"orgNos":null,"nowTime":null,"countyName":null,"streetName":null,"villageName":null,"roadName":null,"communityName":null,"tranName":null,"sdLineName":null,"cityCode":"3340170","cityName":"国网浙江杭州市富阳区供电公司","provinceCode":null,"stopTime":"2019-12-11 10:25:21","powerType":"全部","powerOffArea":"35kV溪东变:大兆D605线-三支村1#三支公变后段","powerOffReason":"高压开关跳闸","powerOffId":"2019121131020065"},{"poweroffId":2019121131020062,"sgpoweroffId":null,"subsName":"","lineName":"10kV江堤D355线","pubTranName":"回春路4#公变,","scope":"浙江省-杭州市-富阳区-富春街道-春晖社区(迎春路,回春路)","startTime":"2019-12-11 09:14:02","stopDate":"2019-12-11 11:40:02","orgNo":"3340170","typeCode":"电网故障停限电","poweroffArea":"110kV富鹿变:江堤D355线-回春路4#公变后段","poweroffReason":"高压开关跳闸 原停电结束时间为2019-12-11 11:14:02,因工作难度大原因,现变更停电结束时间为2019-12-11 11:40:02","powerTime":"2019-12-11 11:10:21","powerComm":"已送电","subsNo":"","lineNo":"","tgNo":"","tgName":null,"infoStatus":"1","orgName":"国网浙江杭州市富阳区供电公司","typeName":null,"infoStatusName":null,"dateDay":null,"orgNos":null,"nowTime":null,"countyName":null,"streetName":null,"villageName":null,"roadName":null,"communityName":null,"tranName":null,"sdLineName":null,"cityCode":"3340170","cityName":"国网浙江杭州市富阳区供电公司","provinceCode":null,"stopTime":"2019-12-11 11:40:02","powerType":"全部","powerOffArea":"110kV富鹿变:江堤D355线-回春路4#公变后段","powerOffReason":"高压开关跳闸 原停电结束时间为2019-12-11 11:14:02,因工作难度大原因,现变更停电结束时间为2019-12-11 11:40:02","powerOffId":"2019121131020062"},{"poweroffId":2019121131020056,"sgpoweroffId":null,"subsName":"","lineName":"10kV窈口D381线","pubTranName":"上臧村4#双坝公变,","scope":"浙江省-杭州市-富阳区-湖源乡-上臧行政村-路西自然村","startTime":"2019-12-11 08:59:40","stopDate":"2019-12-11 12:00:40","orgNo":"3340170","typeCode":"电网故障停限电","poweroffArea":"35kV湖源变:窈口D381线-双坝分线后段","poweroffReason":"高压开关跳闸 原停电结束时间为2019-12-11 12:30:40,为减少客户停电时间,加快工作进度,提前送电,现变更停电结束时间为2019-12-11 12:00:40","powerTime":"2019-12-11 11:41:44","powerComm":"已送电","subsNo":"","lineNo":"","tgNo":"","tgName":null,"infoStatus":"1","orgName":"国网浙江杭州市富阳区供电公司","typeName":null,"infoStatusName":null,"dateDay":null,"orgNos":null,"nowTime":null,"countyName":null,"streetName":null,"villageName":null,"roadName":null,"communityName":null,"tranName":null,"sdLineName":null,"cityCode":"3340170","cityName":"国网浙江杭州市富阳区供电公司","provinceCode":null,"stopTime":"2019-12-11 12:00:40","powerType":"全部","powerOffArea":"35kV湖源变:窈口D381线-双坝分线后段","powerOffReason":"高压开关跳闸 原停电结束时间为2019-12-11 12:30:40,为减少客户停电时间,加快工作进度,提前送电,现变更停电结束时间为2019-12-11 12:00:40","powerOffId":"2019121131020056"},{"poweroffId":2019121131020029,"sgpoweroffId":null,"subsName":"","lineName":"10kV雪湾C242线","pubTranName":"楼塔集镇6#变,","scope":"浙江省-杭州市-萧山区-楼塔镇-楼家塔行政村(月凤弄,钱塘西弄,集镇公变,上祠弄,横街,楼三自然村,明弄,横水坑,日新弄,楼二自然村,后溪弄,义仓弄),楼塔镇-楼英行政村(楼四自然村,后溪弄)等一带","startTime":"2019-12-11 08:13:52","stopDate":"2019-12-11 18:00:52","orgNo":"3340130","typeCode":"电网故障停限电","poweroffArea":"35kV楼塔变:雪湾C242线-楼塔集镇6#变台区低压开关","poweroffReason":"(低压停电信息)低压架空线断线故障 原停电结束时间为2019-12-11 19:00:52,为减少客户停电时间,加快工作进度,提前送电,现变更停电结束时间为2019-12-11 18:00:52","powerTime":"2019-12-11 17:15:50","powerComm":"已送电","subsNo":"","lineNo":"","tgNo":"","tgName":null,"infoStatus":"1","orgName":"国网浙江杭州市萧山区供电有限公司","typeName":null,"infoStatusName":null,"dateDay":null,"orgNos":null,"nowTime":null,"countyName":null,"streetName":null,"villageName":null,"roadName":null,"communityName":null,"tranName":null,"sdLineName":null,"cityCode":"3340130","cityName":"国网浙江杭州市萧山区供电有限公司","provinceCode":null,"stopTime":"2019-12-11 18:00:52","powerType":"全部","powerOffArea":"35kV楼塔变:雪湾C242线-楼塔集镇6#变台区低压开关","powerOffReason":"(低压停电信息)低压架空线断线故障 原停电结束时间为2019-12-11 19:00:52,为减少客户停电时间,加快工作进度,提前送电,现变更停电结束时间为2019-12-11 18:00:52","powerOffId":"2019121131020029"},{"poweroffId":2019121131020027,"sgpoweroffId":null,"subsName":"","lineName":"10kV雪湾C242线","pubTranName":"楼家塔6#变,","scope":"浙江省-杭州市-萧山区-楼塔镇-楼家塔行政村-楼三自然村等一带","startTime":"2019-12-11 08:10:50","stopDate":"2019-12-11 18:00:50","orgNo":"3340130","typeCode":"电网故障停限电","poweroffArea":"35kV楼塔变:雪湾C242线-楼家塔6#变台区低压开关","poweroffReason":"(低压停电信息)低压架空线断线故障 原停电结束时间为2019-12-11 19:00:50,为减少客户停电时间,加快工作进度,提前送电,现变更停电结束时间为2019-12-11 18:00:50","powerTime":"2019-12-11 17:19:05","powerComm":"已送电","subsNo":"","lineNo":"","tgNo":"","tgName":null,"infoStatus":"1","orgName":"国网浙江杭州市萧山区供电有限公司","typeName":null,"infoStatusName":null,"dateDay":null,"orgNos":null,"nowTime":null,"countyName":null,"streetName":null,"villageName":null,"roadName":null,"communityName":null,"tranName":null,"sdLineName":null,"cityCode":"3340130","cityName":"国网浙江杭州市萧山区供电有限公司","provinceCode":null,"stopTime":"2019-12-11 18:00:50","powerType":"全部","powerOffArea":"35kV楼塔变:雪湾C242线-楼家塔6#变台区低压开关","powerOffReason":"(低压停电信息)低压架空线断线故障 原停电结束时间为2019-12-11 19:00:50,为减少客户停电时间,加快工作进度,提前送电,现变更停电结束时间为2019-12-11 18:00:50","powerOffId":"2019121131020027"},{"poweroffId":2019121131020022,"sgpoweroffId":null,"subsName":"","lineName":"10kV陈园C841线","pubTranName":"陈家园村11#变,","scope":"浙江省-杭州市-萧山区-新街镇-新街街道-陈家园行政村-陈家园自然村等一带","startTime":"2019-12-11 08:00:39","stopDate":"2019-12-11 18:00:39","orgNo":"3340130","typeCode":"电网故障停限电","poweroffArea":"110kV罗山变:陈园C841线-陈家园村11#变台区低压开关","poweroffReason":"(低压停电信息)低压漏电保护器短路故障","powerTime":"2019-12-11 17:11:07","powerComm":"已送电","subsNo":"","lineNo":"","tgNo":"","tgName":null,"infoStatus":"1","orgName":"国网浙江杭州市萧山区供电有限公司","typeName":null,"infoStatusName":null,"dateDay":null,"orgNos":null,"nowTime":null,"countyName":null,"streetName":null,"villageName":null,"roadName":null,"communityName":null,"tranName":null,"sdLineName":null,"cityCode":"3340130","cityName":"国网浙江杭州市萧山区供电有限公司","provinceCode":null,"stopTime":"2019-12-11 18:00:39","powerType":"全部","powerOffArea":"110kV罗山变:陈园C841线-陈家园村11#变台区低压开关","powerOffReason":"(低压停电信息)低压漏电保护器短路故障","powerOffId":"2019121131020022"},{"poweroffId":2019121131020021,"sgpoweroffId":null,"subsName":"","lineName":"10kV旅游A640线","pubTranName":"1#,2#,7#,港海建设,5#,钱江新村2#公变,浙江珍诚物流有限公司2#,三阳安居房（物业）2,1#,2#,浙江珍诚物流有限公司2#变压器,三阳安居房（商业）,3#,1#,钱江农场3#公变,钱江新村4#公变,4#,2#变,9#,钱盛商厦2#公变,5#,浙江珍诚物流有限公司1#变压器,3#,钱江农场5#公变,","scope":"浙江省-杭州市-萧山区-宁围镇、宁围街道、经济技术开发区-钱江社区(钱农东路,学知路);浙江省-杭州市-萧山区-新街街道-新塘头行政村-浙江旅游职业学院,经济技术开发区-钱江社区(杭州港海建设有限公司,浙江珍诚物流有限公司,杭州萧山三阳安居房开发中心,浙江卓越物业服务有限公司),宁围街道-顺坝行政村(杭州萧山科技城投资开发有限公司,浙江建设职业技术学院)等一带","startTime":"2019-12-11 07:55:05","stopDate":"2019-12-11 11:20:05","orgNo":"3340130","typeCode":"电网故障停限电","poweroffArea":"110kV传化变:旅游A640线","poweroffReason":"高压柱上断路器短路故障 原停电结束时间为2019-12-11 12:30:05,为减少客户停电时间,加快工作进度,提前送电,现变更停电结束时间为2019-12-11 11:20:05","powerTime":"2019-12-11 10:26:17","powerComm":"已送电","subsNo":"","lineNo":"","tgNo":"","tgName":null,"infoStatus":"1","orgName":"国网浙江杭州市萧山区供电有限公司","typeName":null,"infoStatusName":null,"dateDay":null,"orgNos":null,"nowTime":null,"countyName":null,"streetName":null,"villageName":null,"roadName":null,"communityName":null,"tranName":null,"sdLineName":null,"cityCode":"3340130","cityName":"国网浙江杭州市萧山区供电有限公司","provinceCode":null,"stopTime":"2019-12-11 11:20:05","powerType":"全部","powerOffArea":"110kV传化变:旅游A640线","powerOffReason":"高压柱上断路器短路故障 原停电结束时间为2019-12-11 12:30:05,为减少客户停电时间,加快工作进度,提前送电,现变更停电结束时间为2019-12-11 11:20:05","powerOffId":"2019121131020021"},{"poweroffId":2019121031020315,"sgpoweroffId":null,"subsName":"","lineName":"10kV义府A50线","pubTranName":"义蓬安置小区14#变,义蓬安置小区15#变,义蓬安置小区10#变,义蓬安置小区7#变,义蓬安置小区11#变,义蓬安置小区16#变,义蓬安置小区6#变,义蓬安置小区5#变,","scope":"浙江省-杭州市-萧山区-义蓬街道-义蓬行政村-义蓬自然村","startTime":"2019-12-19 09:00:00","stopDate":"2019-12-19 16:50:00","orgNo":"3340120","typeCode":"计划停电","poweroffArea":"110kV白浪变:义府A50线-文和四线后段","poweroffReason":"10kV义置十六站备用3#间隔与发电车侧搭头 原停电结束时间为2019-12-19 17:30:00,为减少客户停电时间,加快工作进度,提前送电,现变更停电结束时间为2019-12-19 16:50:00","powerTime":"2019-12-19 16:21:21","powerComm":"已送电","subsNo":"","lineNo":"","tgNo":"","tgName":null,"infoStatus":"1","orgName":"国网浙江杭州市钱塘新区供电公司","typeName":null,"infoStatusName":null,"dateDay":null,"orgNos":null,"nowTime":null,"countyName":null,"streetName":null,"villageName":null,"roadName":null,"communityName":null,"tranName":null,"sdLineName":null,"cityCode":"3340120","cityName":"国网浙江杭州市钱塘新区供电公司","provinceCode":null,"stopTime":"2019-12-19 16:50:00","powerType":"全部","powerOffArea":"110kV白浪变:义府A50线-文和四线后段","powerOffReason":"10kV义置十六站备用3#间隔与发电车侧搭头 原停电结束时间为2019-12-19 17:30:00,为减少客户停电时间,加快工作进度,提前送电,现变更停电结束时间为2019-12-19 16:50:00","powerOffId":"2019121031020315"}],"pageModel":{"pageNow":724,"totalCount":17789,"totalPage":1779,"tableRows":0,"pageCount":10,"beginCount":7230},"isExperi":"1"}