{"message":"","today":"2020-06-15","seleList":[{"poweroffId":2019121031020314,"sgpoweroffId":null,"subsName":"","lineName":"10kV义府A50线","pubTranName":"义蓬村益民9#变,文和公寓2#变,文和公寓1#变,","scope":"浙江省-杭州市-萧山区-义蓬街道(义和社区-义府大街,义蓬行政村-义蓬自然村)","startTime":"2019-12-18 09:00:00","stopDate":"2019-12-18 17:30:00","orgNo":"3340120","typeCode":"计划停电","poweroffArea":"110kV白浪变:义府A50线-文和三线后段","poweroffReason":"10kV文和站3#间隔文和三线割接至9#间隔","powerTime":"2019-12-18 16:45:07","powerComm":"已送电","subsNo":"","lineNo":"","tgNo":"","tgName":null,"infoStatus":"1","orgName":"国网浙江杭州市钱塘新区供电公司","typeName":null,"infoStatusName":null,"dateDay":null,"orgNos":null,"nowTime":null,"countyName":null,"streetName":null,"villageName":null,"roadName":null,"communityName":null,"tranName":null,"sdLineName":null,"cityCode":"3340120","cityName":"国网浙江杭州市钱塘新区供电公司","provinceCode":null,"stopTime":"2019-12-18 17:30:00","powerType":"全部","powerOffArea":"110kV白浪变:义府A50线-文和三线后段","powerOffReason":"10kV文和站3#间隔文和三线割接至9#间隔","powerOffId":"2019121031020314"},{"poweroffId":2019121031020279,"sgpoweroffId":null,"subsName":"","lineName":"10kV山岛9528线","pubTranName":"岛春四变,","scope":"浙江省-杭州市-滨江区-浦沿街道-滨文社区-滨文路，浙江省杭州市滨江区浦沿街道长岛之春小区7幢1.2单元住户","startTime":"2019-12-25 09:30:00","stopDate":"2019-12-25 11:30:00","orgNo":"3340101","typeCode":"计划停电","poweroffArea":"110kV冠山变:山岛9528线-岛春四变后段B4-4低压空开","poweroffReason":"(低压停电信息)非居新装","powerTime":"2019-12-25 10:43:07","powerComm":"已送电","subsNo":"","lineNo":"","tgNo":"","tgName":null,"infoStatus":"1","orgName":"浙江杭州电力客户服务中心","typeName":null,"infoStatusName":null,"dateDay":null,"orgNos":null,"nowTime":null,"countyName":null,"streetName":null,"villageName":null,"roadName":null,"communityName":null,"tranName":null,"sdLineName":null,"cityCode":"3340101","cityName":"浙江杭州电力客户服务中心","provinceCode":null,"stopTime":"2019-12-25 11:30:00","powerType":"全部","powerOffArea":"110kV冠山变:山岛9528线-岛春四变后段B4-4低压空开","powerOffReason":"(低压停电信息)非居新装","powerOffId":"2019121031020279"},{"poweroffId":2019121031020278,"sgpoweroffId":null,"subsName":"","lineName":"10kV江楼6286线","pubTranName":"塘景三变,","scope":"浙江省-杭州市-滨江区-浦沿街道-之江社区-伟业路，浙江省杭州市滨江区浦沿街道钱塘景苑小区5幢1.2单元住户","startTime":"2019-12-24 13:30:00","stopDate":"2019-12-24 16:30:00","orgNo":"3340101","typeCode":"计划停电","poweroffArea":"110kV之江变:江楼6286线-塘景三变后段B3-4低压空开","poweroffReason":"(低压停电信息)非居新装","powerTime":"2019-12-24 15:32:59","powerComm":"已送电","subsNo":"","lineNo":"","tgNo":"","tgName":null,"infoStatus":"1","orgName":"浙江杭州电力客户服务中心","typeName":null,"infoStatusName":null,"dateDay":null,"orgNos":null,"nowTime":null,"countyName":null,"streetName":null,"villageName":null,"roadName":null,"communityName":null,"tranName":null,"sdLineName":null,"cityCode":"3340101","cityName":"浙江杭州电力客户服务中心","provinceCode":null,"stopTime":"2019-12-24 16:30:00","powerType":"全部","powerOffArea":"110kV之江变:江楼6286线-塘景三变后段B3-4低压空开","powerOffReason":"(低压停电信息)非居新装","powerOffId":"2019121031020278"},{"poweroffId":2019121031020277,"sgpoweroffId":null,"subsName":"","lineName":"10kV六和8373线","pubTranName":"钱江湾一变,","scope":"浙江省-杭州市-滨江区-浦沿街道-六和社区-东信大道，浙江省杭州市滨江区浦沿街道钱江湾花园小区38幢1.2.3.4.5单元住户。","startTime":"2019-12-24 09:30:00","stopDate":"2019-12-24 11:30:00","orgNo":"3340101","typeCode":"计划停电","poweroffArea":"110kV新生变:六和8373线-钱江湾一变后段B1-1低压空开","poweroffReason":"(低压停电信息)非居新装","powerTime":"2019-12-24 10:33:22","powerComm":"已送电","subsNo":"","lineNo":"","tgNo":"","tgName":null,"infoStatus":"1","orgName":"浙江杭州电力客户服务中心","typeName":null,"infoStatusName":null,"dateDay":null,"orgNos":null,"nowTime":null,"countyName":null,"streetName":null,"villageName":null,"roadName":null,"communityName":null,"tranName":null,"sdLineName":null,"cityCode":"3340101","cityName":"浙江杭州电力客户服务中心","provinceCode":null,"stopTime":"2019-12-24 11:30:00","powerType":"全部","powerOffArea":"110kV新生变:六和8373线-钱江湾一变后段B1-1低压空开","powerOffReason":"(低压停电信息)非居新装","powerOffId":"2019121031020277"},{"poweroffId":2019121031020275,"sgpoweroffId":null,"subsName":"","lineName":"10kV迎春8109线","pubTranName":"迎春十二变,","scope":"浙江省-杭州市-滨江区-西兴街道-迎春片区-迎春路，浙江省杭州市滨江区西兴街道迎春小区20号楼商铺，杭州银行。","startTime":"2019-12-23 09:30:00","stopDate":"2019-12-23 11:30:00","orgNo":"3340101","typeCode":"计划停电","poweroffArea":"110kV西兴变:迎春8109线-迎春十二变后段B12-4低压空开","poweroffReason":"(低压停电信息)非居新装","powerTime":"2019-12-23 10:44:13","powerComm":"已送电","subsNo":"","lineNo":"","tgNo":"","tgName":null,"infoStatus":"1","orgName":"浙江杭州电力客户服务中心","typeName":null,"infoStatusName":null,"dateDay":null,"orgNos":null,"nowTime":null,"countyName":null,"streetName":null,"villageName":null,"roadName":null,"communityName":null,"tranName":null,"sdLineName":null,"cityCode":"3340101","cityName":"浙江杭州电力客户服务中心","provinceCode":null,"stopTime":"2019-12-23 11:30:00","powerType":"全部","powerOffArea":"110kV西兴变:迎春8109线-迎春十二变后段B12-4低压空开","powerOffReason":"(低压停电信息)非居新装","powerOffId":"2019121031020275"},{"poweroffId":2019121031020271,"sgpoweroffId":null,"subsName":"","lineName":"10kV冠洞9535线","pubTranName":"楼下虞,楼下虞三,楼下虞二,","scope":"浙江省-杭州市-滨江区-浦沿街道楼下虞一带。","startTime":"2019-12-19 09:30:00","stopDate":"2019-12-19 16:00:00","orgNo":"3340101","typeCode":"计划停电","poweroffArea":"110kV冠山变:冠洞9535线-楼下虞三后段;冠洞9535线-楼下虞二后段;冠洞9535线-楼下虞后段","poweroffReason":"通附分线电缆改接 原停电结束时间为2019-12-19 18:00:00,为减少客户停电时间,加快工作进度,提前送电,现变更停电结束时间为2019-12-19 16:00:00","powerTime":"2019-12-19 15:09:59","powerComm":"已送电","subsNo":"","lineNo":"","tgNo":"","tgName":null,"infoStatus":"1","orgName":"浙江杭州电力客户服务中心","typeName":null,"infoStatusName":null,"dateDay":null,"orgNos":null,"nowTime":null,"countyName":null,"streetName":null,"villageName":null,"roadName":null,"communityName":null,"tranName":null,"sdLineName":null,"cityCode":"3340101","cityName":"浙江杭州电力客户服务中心","provinceCode":null,"stopTime":"2019-12-19 16:00:00","powerType":"全部","powerOffArea":"110kV冠山变:冠洞9535线-楼下虞三后段;冠洞9535线-楼下虞二后段;冠洞9535线-楼下虞后段","powerOffReason":"通附分线电缆改接 原停电结束时间为2019-12-19 18:00:00,为减少客户停电时间,加快工作进度,提前送电,现变更停电结束时间为2019-12-19 16:00:00","powerOffId":"2019121031020271"},{"poweroffId":2019121031020269,"sgpoweroffId":null,"subsName":"","lineName":"10kV兴隆951线","pubTranName":"牛中学施2,牛中学施1,彭水,友通,","scope":"浙江省-杭州市-江干区(误彭埠镇-浙江友通汽车有限公司,误九堡镇-彭埠镇自来水站,彭埠街道-杭州通达集团有限公司)","startTime":"2019-12-10 16:28:00","stopDate":"2019-12-10 17:30:00","orgNo":"3340101","typeCode":"电网故障停限电","poweroffArea":"110kV彭埠变:兴隆951线兴隆(4)分线出线开关后段","poweroffReason":"高压开关跳闸 原停电结束时间为2019-12-10 18:28:00,为减少客户停电时间,加快工作进度,提前送电,现变更停电结束时间为2019-12-10 17:30:00","powerTime":"2019-12-10 16:56:28","powerComm":"已送电","subsNo":"","lineNo":"","tgNo":"","tgName":null,"infoStatus":"1","orgName":"浙江杭州电力客户服务中心","typeName":null,"infoStatusName":null,"dateDay":null,"orgNos":null,"nowTime":null,"countyName":null,"streetName":null,"villageName":null,"roadName":null,"communityName":null,"tranName":null,"sdLineName":null,"cityCode":"3340101","cityName":"浙江杭州电力客户服务中心","provinceCode":null,"stopTime":"2019-12-10 17:30:00","powerType":"全部","powerOffArea":"110kV彭埠变:兴隆951线兴隆(4)分线出线开关后段","powerOffReason":"高压开关跳闸 原停电结束时间为2019-12-10 18:28:00,为减少客户停电时间,加快工作进度,提前送电,现变更停电结束时间为2019-12-10 17:30:00","powerOffId":"2019121031020269"},{"poweroffId":2019121031020240,"sgpoweroffId":null,"subsName":"","lineName":"10kV西河G879线","pubTranName":"李家桥村凌家坝公变,杭州金展科技有限公司,杭州红伟丝绸有限公司,李家桥村李家桥公变,","scope":"浙江省杭州市余杭区东湖街道：李家桥村李家桥、杭州金展科技有限公司、杭州红伟丝绸有限公司，李家乔村凌家坝一带","startTime":"2019-12-19 08:00:00","stopDate":"2019-12-19 16:00:00","orgNo":"3340140","typeCode":"计划停电","poweroffArea":"110kV漳河变:西河G879线-杨家河变分线开关后段;西河G879线-筑西G2152线50#杆开关后段","poweroffReason":"58#杆至64#杆移位、拆除导线7档、移用导线1档、新放导线3档、调换导线1档","powerTime":"2019-12-19 15:35:26","powerComm":"已送电","subsNo":"","lineNo":"","tgNo":"","tgName":null,"infoStatus":"1","orgName":"国网浙江杭州市余杭区供电有限公司","typeName":null,"infoStatusName":null,"dateDay":null,"orgNos":null,"nowTime":null,"countyName":null,"streetName":null,"villageName":null,"roadName":null,"communityName":null,"tranName":null,"sdLineName":null,"cityCode":"3340140","cityName":"国网浙江杭州市余杭区供电有限公司","provinceCode":null,"stopTime":"2019-12-19 16:00:00","powerType":"全部","powerOffArea":"110kV漳河变:西河G879线-杨家河变分线开关后段;西河G879线-筑西G2152线50#杆开关后段","powerOffReason":"58#杆至64#杆移位、拆除导线7档、移用导线1档、新放导线3档、调换导线1档","powerOffId":"2019121031020240"},{"poweroffId":2019121031020239,"sgpoweroffId":null,"subsName":"","lineName":"10kV长征G032线","pubTranName":"松元化纤,双桥村李家坝西公变,运河镇双桥村李家坝东公变,双桥村戴家里公变,运河镇双桥村李家坝公变,双桥村李家坝桥头公变,双桥村李家坝东2号公变,运河镇双桥村梁字湾东公变,杭州亿展新材料有限公司400配变,森润无纺布科技400变,","scope":"浙江省杭州市余杭区运河街道：双桥村李家坝、戴家里、梁字湾、松元化纤、亿展纺织品、长征五金厂一带","startTime":"2019-12-17 08:00:00","stopDate":"2019-12-17 16:00:00","orgNo":"3340140","typeCode":"临时停电","poweroffArea":"110kV五杭变:长征G032线-李家坝分线开关后段;长征G032线-双桥村李家坝东公变跌落式熔断器后段;长征G032线-双桥村李家坝东2号跌落式熔断器后段;长征G032线-亿展纺织品分线开关后段;长征G032线-杭州森润无纺布有限公司后段","poweroffReason":"1号-9号杆导线拆除，新放导线1档，五杭变长征G032线变电所侧电缆拆除，新电缆制作、试验、搭接工作；京运开关站电缆井处长征G032线电缆对接，至长征G032线9号杆上杆；","powerTime":"2019-12-17 15:57:40","powerComm":"已送电","subsNo":"","lineNo":"","tgNo":"","tgName":null,"infoStatus":"1","orgName":"国网浙江杭州市余杭区供电有限公司","typeName":null,"infoStatusName":null,"dateDay":null,"orgNos":null,"nowTime":null,"countyName":null,"streetName":null,"villageName":null,"roadName":null,"communityName":null,"tranName":null,"sdLineName":null,"cityCode":"3340140","cityName":"国网浙江杭州市余杭区供电有限公司","provinceCode":null,"stopTime":"2019-12-17 16:00:00","powerType":"全部","powerOffArea":"110kV五杭变:长征G032线-李家坝分线开关后段;长征G032线-双桥村李家坝东公变跌落式熔断器后段;长征G032线-双桥村李家坝东2号跌落式熔断器后段;长征G032线-亿展纺织品分线开关后段;长征G032线-杭州森润无纺布有限公司后段","powerOffReason":"1号-9号杆导线拆除，新放导线1档，五杭变长征G032线变电所侧电缆拆除，新电缆制作、试验、搭接工作；京运开关站电缆井处长征G032线电缆对接，至长征G032线9号杆上杆；","powerOffId":"2019121031020239"},{"poweroffId":2019121031020235,"sgpoweroffId":null,"subsName":"","lineName":"10kV六围296线","pubTranName":"明朗垦种,1#,靖江镇人民政府,河庄镇民主村（围垦）,义蓬仓北村（围垦）,水丰养殖,靖江五垦（二）,","scope":"浙江省-杭州市-萧山区-围垦垦区(义蓬镇仓北村(围垦),靖江镇五垦种,瓜沥镇明朗村(围垦七工段),杭州水丰养殖有限公司,杭州萧山钱江出口养殖实业有限公司,杭州市萧山区靖江镇人民政府(围垦用电),萧山区河庄镇民主村（围垦用电）)","startTime":"2019-12-10 15:09:00","stopDate":"2019-12-10 17:09:00","orgNo":"3340120","typeCode":"电网故障停限电","poweroffArea":"110kV启江变:六围296线六围296线160#开关后段","poweroffReason":"高压开关跳闸","powerTime":"2019-12-10 16:12:05","powerComm":"已送电","subsNo":"","lineNo":"","tgNo":"","tgName":null,"infoStatus":"1","orgName":"国网浙江杭州市钱塘新区供电公司","typeName":null,"infoStatusName":null,"dateDay":null,"orgNos":null,"nowTime":null,"countyName":null,"streetName":null,"villageName":null,"roadName":null,"communityName":null,"tranName":null,"sdLineName":null,"cityCode":"3340120","cityName":"国网浙江杭州市钱塘新区供电公司","provinceCode":null,"stopTime":"2019-12-10 17:09:00","powerType":"全部","powerOffArea":"110kV启江变:六围296线六围296线160#开关后段","powerOffReason":"高压开关跳闸","powerOffId":"2019121031020235"}],"pageModel":{"pageNow":725,"totalCount":17789,"totalPage":1779,"tableRows":0,"pageCount":10,"beginCount":7240},"isExperi":"1"}