{"message":"","today":"2020-06-15","seleList":[{"poweroffId":2019121031020097,"sgpoweroffId":null,"subsName":"","lineName":"10kV府杰9711线","pubTranName":"2#,1#,4#,3#,1#,","scope":"浙江省-杭州市-滨江区-西兴街道-共联社区-杭州高新技术产业开发区资产经营有限公司","startTime":"2019-12-18 09:50:00","stopDate":"2019-12-18 17:30:00","orgNo":"3340101","typeCode":"计划停电","poweroffArea":"110kV府前变:府杰9711线-孵化一线后段;府杰9711线-孵照一线开关后段","poweroffReason":"孵化一线改接","powerTime":"2019-12-18 17:23:38","powerComm":"已送电","subsNo":"","lineNo":"","tgNo":"","tgName":null,"infoStatus":"1","orgName":"浙江杭州电力客户服务中心","typeName":null,"infoStatusName":null,"dateDay":null,"orgNos":null,"nowTime":null,"countyName":null,"streetName":null,"villageName":null,"roadName":null,"communityName":null,"tranName":null,"sdLineName":null,"cityCode":"3340101","cityName":"浙江杭州电力客户服务中心","provinceCode":null,"stopTime":"2019-12-18 17:30:00","powerType":"全部","powerOffArea":"110kV府前变:府杰9711线-孵化一线后段;府杰9711线-孵照一线开关后段","powerOffReason":"孵化一线改接","powerOffId":"2019121031020097"},{"poweroffId":2019121031020094,"sgpoweroffId":null,"subsName":"","lineName":"10kV沿江C619线","pubTranName":"沿江村19#变,","scope":"浙江省-杭州市-萧山区-新街镇-新街街道-沿江行政村-沿江自然村等一带","startTime":"2019-12-10 09:50:58","stopDate":"2019-12-10 11:00:58","orgNo":"3340130","typeCode":"电网故障停限电","poweroffArea":"110kV新街变:沿江C619线-沿江村19#变台区低压开关","poweroffReason":"(低压停电信息)低压漏电保护器短路故障 原停电结束时间为2019-12-10 12:30:58,为减少客户停电时间,加快工作进度,提前送电,现变更停电结束时间为2019-12-10 11:00:58","powerTime":"2019-12-10 10:20:03","powerComm":"已送电","subsNo":"","lineNo":"","tgNo":"","tgName":null,"infoStatus":"1","orgName":"国网浙江杭州市萧山区供电有限公司","typeName":null,"infoStatusName":null,"dateDay":null,"orgNos":null,"nowTime":null,"countyName":null,"streetName":null,"villageName":null,"roadName":null,"communityName":null,"tranName":null,"sdLineName":null,"cityCode":"3340130","cityName":"国网浙江杭州市萧山区供电有限公司","provinceCode":null,"stopTime":"2019-12-10 11:00:58","powerType":"全部","powerOffArea":"110kV新街变:沿江C619线-沿江村19#变台区低压开关","powerOffReason":"(低压停电信息)低压漏电保护器短路故障 原停电结束时间为2019-12-10 12:30:58,为减少客户停电时间,加快工作进度,提前送电,现变更停电结束时间为2019-12-10 11:00:58","powerOffId":"2019121031020094"},{"poweroffId":2019121031020093,"sgpoweroffId":null,"subsName":"","lineName":"10kV金谷8004线","pubTranName":"武宿二变,","scope":"浙江省-杭州市-江干区-凯旋街道-南肖埠社区(杭州,凤起东路)","startTime":"2019-12-10 09:45:00","stopDate":"2019-12-10 14:45:00","orgNo":"3340101","typeCode":"电网故障停限电","poweroffArea":"110kV庆春变:金谷8004线武宿二变配变","poweroffReason":"高压开关跳闸 原停电结束时间为2019-12-10 11:45:00,因预估施工时间不足原因,现变更停电结束时间为2019-12-10 14:45:00","powerTime":"2019-12-10 13:51:21","powerComm":"已送电","subsNo":"","lineNo":"","tgNo":"","tgName":null,"infoStatus":"1","orgName":"浙江杭州电力客户服务中心","typeName":null,"infoStatusName":null,"dateDay":null,"orgNos":null,"nowTime":null,"countyName":null,"streetName":null,"villageName":null,"roadName":null,"communityName":null,"tranName":null,"sdLineName":null,"cityCode":"3340101","cityName":"浙江杭州电力客户服务中心","provinceCode":null,"stopTime":"2019-12-10 14:45:00","powerType":"全部","powerOffArea":"110kV庆春变:金谷8004线武宿二变配变","powerOffReason":"高压开关跳闸 原停电结束时间为2019-12-10 11:45:00,因预估施工时间不足原因,现变更停电结束时间为2019-12-10 14:45:00","powerOffId":"2019121031020093"},{"poweroffId":2019121031020092,"sgpoweroffId":null,"subsName":"","lineName":"10kV金谷8004线","pubTranName":"武宿一变,","scope":"浙江省-杭州市-江干区-凯旋街道-南肖埠社区(凤起东路,杭州)","startTime":"2019-12-10 09:45:00","stopDate":"2019-12-10 14:30:00","orgNo":"3340101","typeCode":"电网故障停限电","poweroffArea":"110kV庆春变:金谷8004线武宿一变配变","poweroffReason":"高压开关跳闸 原停电结束时间为2019-12-10 11:45:00,因预估施工时间不足原因,现变更停电结束时间为2019-12-10 14:30:00","powerTime":"2019-12-10 13:51:36","powerComm":"已送电","subsNo":"","lineNo":"","tgNo":"","tgName":null,"infoStatus":"1","orgName":"浙江杭州电力客户服务中心","typeName":null,"infoStatusName":null,"dateDay":null,"orgNos":null,"nowTime":null,"countyName":null,"streetName":null,"villageName":null,"roadName":null,"communityName":null,"tranName":null,"sdLineName":null,"cityCode":"3340101","cityName":"浙江杭州电力客户服务中心","provinceCode":null,"stopTime":"2019-12-10 14:30:00","powerType":"全部","powerOffArea":"110kV庆春变:金谷8004线武宿一变配变","powerOffReason":"高压开关跳闸 原停电结束时间为2019-12-10 11:45:00,因预估施工时间不足原因,现变更停电结束时间为2019-12-10 14:30:00","powerOffId":"2019121031020092"},{"poweroffId":2019121031020078,"sgpoweroffId":null,"subsName":"","lineName":"10kV得力C448线","pubTranName":"崇化19#公变,","scope":"浙江省-杭州市-萧山区-城厢街道-崇化社区-人民路崇化小区一带","startTime":"2019-12-10 09:17:58","stopDate":"2019-12-10 11:00:58","orgNo":"3340130","typeCode":"电网故障停限电","poweroffArea":"110kV萧山变:得力C448线-崇化19#公变台区低压开关","poweroffReason":"（低压停电信息）低压漏电保护器短路故障","powerTime":"2019-12-10 10:12:26","powerComm":"已送电","subsNo":"","lineNo":"","tgNo":"","tgName":null,"infoStatus":"1","orgName":"国网浙江杭州市萧山区供电有限公司","typeName":null,"infoStatusName":null,"dateDay":null,"orgNos":null,"nowTime":null,"countyName":null,"streetName":null,"villageName":null,"roadName":null,"communityName":null,"tranName":null,"sdLineName":null,"cityCode":"3340130","cityName":"国网浙江杭州市萧山区供电有限公司","provinceCode":null,"stopTime":"2019-12-10 11:00:58","powerType":"全部","powerOffArea":"110kV萧山变:得力C448线-崇化19#公变台区低压开关","powerOffReason":"（低压停电信息）低压漏电保护器短路故障","powerOffId":"2019121031020078"},{"poweroffId":2019121031020076,"sgpoweroffId":null,"subsName":"","lineName":"10kV斗门9362线","pubTranName":"物华三,","scope":"浙江省-杭州市-西湖区-古荡街道-文华社区-西斗门路","startTime":"2019-12-10 09:16:00","stopDate":"2019-12-10 10:45:00","orgNo":"3340101","typeCode":"电网故障停限电","poweroffArea":"110kV余塘变:斗门9362线物华三配变","poweroffReason":"高压开关跳闸 原停电结束时间为2019-12-10 11:16:00,为减少客户停电时间,加快工作进度,提前送电,现变更停电结束时间为2019-12-10 10:45:00","powerTime":"2019-12-10 10:11:44","powerComm":"已送电","subsNo":"","lineNo":"","tgNo":"","tgName":null,"infoStatus":"1","orgName":"浙江杭州电力客户服务中心","typeName":null,"infoStatusName":null,"dateDay":null,"orgNos":null,"nowTime":null,"countyName":null,"streetName":null,"villageName":null,"roadName":null,"communityName":null,"tranName":null,"sdLineName":null,"cityCode":"3340101","cityName":"浙江杭州电力客户服务中心","provinceCode":null,"stopTime":"2019-12-10 10:45:00","powerType":"全部","powerOffArea":"110kV余塘变:斗门9362线物华三配变","powerOffReason":"高压开关跳闸 原停电结束时间为2019-12-10 11:16:00,为减少客户停电时间,加快工作进度,提前送电,现变更停电结束时间为2019-12-10 10:45:00","powerOffId":"2019121031020076"},{"poweroffId":2019121031020068,"sgpoweroffId":null,"subsName":"","lineName":"10kV文秋376线","pubTranName":"范园（三）,","scope":"浙江省-杭州市江干区-闸弄口街道-天城社区天城苑小区一带","startTime":"2019-12-10 09:00:05","stopDate":"2019-12-10 10:40:05","orgNo":"3340101","typeCode":"电网故障停限电","poweroffArea":"35kV新塘变:文秋376线-范园（三）后段","poweroffReason":"(低压停电信息)低压开关跳闸 原停电结束时间为2019-12-10 12:00:05,为减少客户停电时间,加快工作进度,提前送电,现变更停电结束时间为2019-12-10 10:40:05","powerTime":"2019-12-10 09:57:46","powerComm":"已送电","subsNo":"","lineNo":"","tgNo":"","tgName":null,"infoStatus":"1","orgName":"浙江杭州电力客户服务中心","typeName":null,"infoStatusName":null,"dateDay":null,"orgNos":null,"nowTime":null,"countyName":null,"streetName":null,"villageName":null,"roadName":null,"communityName":null,"tranName":null,"sdLineName":null,"cityCode":"3340101","cityName":"浙江杭州电力客户服务中心","provinceCode":null,"stopTime":"2019-12-10 10:40:05","powerType":"全部","powerOffArea":"35kV新塘变:文秋376线-范园（三）后段","powerOffReason":"(低压停电信息)低压开关跳闸 原停电结束时间为2019-12-10 12:00:05,为减少客户停电时间,加快工作进度,提前送电,现变更停电结束时间为2019-12-10 10:40:05","powerOffId":"2019121031020068"},{"poweroffId":2019121031020067,"sgpoweroffId":null,"subsName":"","lineName":"10kV宫前D603线","pubTranName":"蒋家村蒋家5#五圣堂公变,","scope":"浙江省-杭州市-富阳区-大源镇(蒋家行政村-蒋家自然村,稠溪行政村-春一自然村,亭山行政村-东升自然村)","startTime":"2019-12-10 09:02:12","stopDate":"2019-12-10 10:02:12","orgNo":"3340170","typeCode":"电网故障停限电","poweroffArea":"35kV溪东变:宫前D603线-蒋家村蒋家5#五圣堂公变后段","poweroffReason":"(低压停电信息)低压开关跳闸","powerTime":"2019-12-10 09:21:19","powerComm":"已送电","subsNo":"","lineNo":"","tgNo":"","tgName":null,"infoStatus":"1","orgName":"国网浙江杭州市富阳区供电公司","typeName":null,"infoStatusName":null,"dateDay":null,"orgNos":null,"nowTime":null,"countyName":null,"streetName":null,"villageName":null,"roadName":null,"communityName":null,"tranName":null,"sdLineName":null,"cityCode":"3340170","cityName":"国网浙江杭州市富阳区供电公司","provinceCode":null,"stopTime":"2019-12-10 10:02:12","powerType":"全部","powerOffArea":"35kV溪东变:宫前D603线-蒋家村蒋家5#五圣堂公变后段","powerOffReason":"(低压停电信息)低压开关跳闸","powerOffId":"2019121031020067"},{"poweroffId":2019121031020064,"sgpoweroffId":null,"subsName":"","lineName":"10kV得力C448线","pubTranName":"崇化18#公变,","scope":"浙江省-杭州市-萧山区-城厢街道-崇化社区-人民路崇化小区一带","startTime":"2019-12-10 09:00:23","stopDate":"2019-12-10 11:00:23","orgNo":"3340130","typeCode":"电网故障停限电","poweroffArea":"110kV萧山变:得力C448线-崇化18#公变台区低压开关","poweroffReason":"(低压停电信息)低压漏电保护器短路故障","powerTime":"2019-12-10 10:12:47","powerComm":"已送电","subsNo":"","lineNo":"","tgNo":"","tgName":null,"infoStatus":"1","orgName":"国网浙江杭州市萧山区供电有限公司","typeName":null,"infoStatusName":null,"dateDay":null,"orgNos":null,"nowTime":null,"countyName":null,"streetName":null,"villageName":null,"roadName":null,"communityName":null,"tranName":null,"sdLineName":null,"cityCode":"3340130","cityName":"国网浙江杭州市萧山区供电有限公司","provinceCode":null,"stopTime":"2019-12-10 11:00:23","powerType":"全部","powerOffArea":"110kV萧山变:得力C448线-崇化18#公变台区低压开关","powerOffReason":"(低压停电信息)低压漏电保护器短路故障","powerOffId":"2019121031020064"},{"poweroffId":2019121031020047,"sgpoweroffId":null,"subsName":"","lineName":"10kV下包Y768线","pubTranName":"罗村村大珠台区,罗村村大横坞台区,罗村村周家坞口台区,罗村村关山脚台区,罗村村外蓬台区,罗村村汪活源台区,罗村村天井源台区,罗村村浪源台区,","scope":"浙江省-杭州市-建德市-乾潭镇-罗村行政村 关山脚自然村,大横坞自然村,天井源自然村,外蓬自然村,汪活源自然村,大珠自然村,枫坞口自然村,浪源自然村,周家坞口自然村 一带用户","startTime":"2019-12-10 08:30:00","stopDate":"2019-12-10 15:00:00","orgNo":"3340180","typeCode":"电网故障停限电","poweroffArea":"110kV乾潭变:下包Y768线浪源支线13#杆真空开关后段","poweroffReason":"下包Y768线浪源支线更换导线","powerTime":"2019-12-10 14:27:53","powerComm":"已送电","subsNo":"","lineNo":"","tgNo":"","tgName":null,"infoStatus":"1","orgName":"国网浙江建德市供电有限公司","typeName":null,"infoStatusName":null,"dateDay":null,"orgNos":null,"nowTime":null,"countyName":null,"streetName":null,"villageName":null,"roadName":null,"communityName":null,"tranName":null,"sdLineName":null,"cityCode":"3340180","cityName":"国网浙江建德市供电有限公司","provinceCode":null,"stopTime":"2019-12-10 15:00:00","powerType":"全部","powerOffArea":"110kV乾潭变:下包Y768线浪源支线13#杆真空开关后段","powerOffReason":"下包Y768线浪源支线更换导线","powerOffId":"2019121031020047"}],"pageModel":{"pageNow":727,"totalCount":17789,"totalPage":1779,"tableRows":0,"pageCount":10,"beginCount":7260},"isExperi":"1"}