{"message":"","today":"2020-06-15","seleList":[{"poweroffId":2019120831020165,"sgpoweroffId":null,"subsName":"","lineName":"10kV建蓝A298线","pubTranName":"新湾十八配变,","scope":"浙江省-杭州市-萧山区-新湾街道(新北桥社区一自然村,共和行政村-共和自然村,三新行政村-新湾自然村)","startTime":"2019-12-17 10:30:00","stopDate":"2019-12-17 14:45:00","orgNo":"3340120","typeCode":"计划停电","poweroffArea":"110kV建湾变:建蓝A298线-新湾十八配变后段","poweroffReason":"新湾十八配变新出电缆至分接箱，电缆试验搭头等工作 原停电结束时间为2019-12-17 17:30:00,为减少客户停电时间,加快工作进度,提前送电,现变更停电结束时间为2019-12-17 14:45:00","powerTime":"2019-12-17 14:23:42","powerComm":"已送电","subsNo":"","lineNo":"","tgNo":"","tgName":null,"infoStatus":"1","orgName":"国网浙江杭州市钱塘新区供电公司","typeName":null,"infoStatusName":null,"dateDay":null,"orgNos":null,"nowTime":null,"countyName":null,"streetName":null,"villageName":null,"roadName":null,"communityName":null,"tranName":null,"sdLineName":null,"cityCode":"3340120","cityName":"国网浙江杭州市钱塘新区供电公司","provinceCode":null,"stopTime":"2019-12-17 14:45:00","powerType":"全部","powerOffArea":"110kV建湾变:建蓝A298线-新湾十八配变后段","powerOffReason":"新湾十八配变新出电缆至分接箱，电缆试验搭头等工作 原停电结束时间为2019-12-17 17:30:00,为减少客户停电时间,加快工作进度,提前送电,现变更停电结束时间为2019-12-17 14:45:00","powerOffId":"2019120831020165"},{"poweroffId":2019120831020164,"sgpoweroffId":null,"subsName":"","lineName":"10kV长厅056线","pubTranName":"省围垦造地开发公司,瓜沥永联垦种,省围垦造地开发公司,东亚水产,瓜沥镇永联村,省水利厅,东亚水产,吉天农业,吉天农业,省围垦造地开发公司,省围垦造地开发公司,海港建设（四)01#,省水利综合开发一场,省围垦造地开发公司,同济科技,吉天农业,吉天农业,震宇布业,","scope":"浙江省-杭州市-萧山区-围垦垦区-十三工段片区-杭州港海建设有限公司,围垦垦区-萧山5.2万亩垦区(萧山区坎山镇三岔陆村,萧山区瓜沥镇永联村(围垦用电)),围垦垦区-十七工段片区(浙江吉天农业开发有限公司,浙江省水利围垦综合开发一场,杭州萧山东亚水产有限公司,浙江省围垦造地开发公司萧山分公司,浙江同济科技职业学院),围垦垦区-十二工段片区(浙江省围垦造地开发公司萧山分公司,浙江省水利围垦综合开发一场,浙江吉天农业开发有限公司,浙江水利水电学院,萧山区瓜沥镇永联村村民委员会)","startTime":"2019-12-17 09:00:00","stopDate":"2019-12-17 16:15:00","orgNo":"3340120","typeCode":"计划停电","poweroffArea":"110kV长征变:长厅056线首端，长厅056线20#开关，长厅056线43/39#开关之间","poweroffReason":"长厅056线分支线绝缘化改造及加装智能开关等工作 原停电结束时间为2019-12-17 17:30:00,为减少客户停电时间,加快工作进度,提前送电,现变更停电结束时间为2019-12-17 16:15:00","powerTime":"2019-12-17 15:50:48","powerComm":"已送电","subsNo":"","lineNo":"","tgNo":"","tgName":null,"infoStatus":"1","orgName":"国网浙江杭州市钱塘新区供电公司","typeName":null,"infoStatusName":null,"dateDay":null,"orgNos":null,"nowTime":null,"countyName":null,"streetName":null,"villageName":null,"roadName":null,"communityName":null,"tranName":null,"sdLineName":null,"cityCode":"3340120","cityName":"国网浙江杭州市钱塘新区供电公司","provinceCode":null,"stopTime":"2019-12-17 16:15:00","powerType":"全部","powerOffArea":"110kV长征变:长厅056线首端，长厅056线20#开关，长厅056线43/39#开关之间","powerOffReason":"长厅056线分支线绝缘化改造及加装智能开关等工作 原停电结束时间为2019-12-17 17:30:00,为减少客户停电时间,加快工作进度,提前送电,现变更停电结束时间为2019-12-17 16:15:00","powerOffId":"2019120831020164"},{"poweroffId":2019120831020158,"sgpoweroffId":null,"subsName":"","lineName":"10kV四围A492线","pubTranName":"三围村1#变,","scope":"浙江省-杭州市-萧山区-益农镇-三围行政村-三围自然村一带","startTime":"2019-12-08 14:27:59","stopDate":"2019-12-08 17:05:59","orgNo":"3340130","typeCode":"电网故障停限电","poweroffArea":"110kV群围变:四围A492线-三围村1#变台区低压开关","poweroffReason":"（低压停电信息）低压漏电保护器短路故障 原停电结束时间为2019-12-08 18:40:59,为减少客户停电时间,加快工作进度,提前送电,现变更停电结束时间为2019-12-08 17:05:59","powerTime":"2019-12-08 16:10:41","powerComm":"已送电","subsNo":"","lineNo":"","tgNo":"","tgName":null,"infoStatus":"1","orgName":"国网浙江杭州市萧山区供电有限公司","typeName":null,"infoStatusName":null,"dateDay":null,"orgNos":null,"nowTime":null,"countyName":null,"streetName":null,"villageName":null,"roadName":null,"communityName":null,"tranName":null,"sdLineName":null,"cityCode":"3340130","cityName":"国网浙江杭州市萧山区供电有限公司","provinceCode":null,"stopTime":"2019-12-08 17:05:59","powerType":"全部","powerOffArea":"110kV群围变:四围A492线-三围村1#变台区低压开关","powerOffReason":"（低压停电信息）低压漏电保护器短路故障 原停电结束时间为2019-12-08 18:40:59,为减少客户停电时间,加快工作进度,提前送电,现变更停电结束时间为2019-12-08 17:05:59","powerOffId":"2019120831020158"},{"poweroffId":2019120831020143,"sgpoweroffId":null,"subsName":"","lineName":"10kV石墓D217线","pubTranName":"勤丰村1#陆家山外公变,","scope":"浙江省-杭州市-富阳区-银湖街道-勤丰行政村(勤丰自然村,陆家山自然村)","startTime":"2019-12-08 14:04:55","stopDate":"2019-12-08 15:04:55","orgNo":"3340170","typeCode":"电网故障停限电","poweroffArea":"110kV银湖变:石墓D217线-勤丰村1#陆家山外公变后段","poweroffReason":"(低压停电信息)低压开关跳闸","powerTime":"2019-12-08 14:57:21","powerComm":"已送电","subsNo":"","lineNo":"","tgNo":"","tgName":null,"infoStatus":"1","orgName":"国网浙江杭州市富阳区供电公司","typeName":null,"infoStatusName":null,"dateDay":null,"orgNos":null,"nowTime":null,"countyName":null,"streetName":null,"villageName":null,"roadName":null,"communityName":null,"tranName":null,"sdLineName":null,"cityCode":"3340170","cityName":"国网浙江杭州市富阳区供电公司","provinceCode":null,"stopTime":"2019-12-08 15:04:55","powerType":"全部","powerOffArea":"110kV银湖变:石墓D217线-勤丰村1#陆家山外公变后段","powerOffReason":"(低压停电信息)低压开关跳闸","powerOffId":"2019120831020143"},{"poweroffId":2019120831020142,"sgpoweroffId":null,"subsName":"","lineName":"10kV祥里V155线","pubTranName":"东山村[庆仙]公变,","scope":"浙江省杭州市临安区玲珑街道东山行政村(庆仙自然村,东山自然村)一带","startTime":"2019-12-20 08:00:00","stopDate":"2019-12-20 14:00:00","orgNo":"3340160","typeCode":"计划停电","poweroffArea":"110kV夏禹变:祥里V155线-东山村[庆仙]公变后段","poweroffReason":"线路移位","powerTime":"2019-12-20 13:42:33","powerComm":"已送电","subsNo":"","lineNo":"","tgNo":"","tgName":null,"infoStatus":"1","orgName":"国网浙江临安市供电公司","typeName":null,"infoStatusName":null,"dateDay":null,"orgNos":null,"nowTime":null,"countyName":null,"streetName":null,"villageName":null,"roadName":null,"communityName":null,"tranName":null,"sdLineName":null,"cityCode":"3340160","cityName":"国网浙江临安市供电公司","provinceCode":null,"stopTime":"2019-12-20 14:00:00","powerType":"全部","powerOffArea":"110kV夏禹变:祥里V155线-东山村[庆仙]公变后段","powerOffReason":"线路移位","powerOffId":"2019120831020142"},{"poweroffId":2019120831020141,"sgpoweroffId":null,"subsName":"","lineName":"10kV庆仙V853线","pubTranName":"临安市金佳塑料厂,","scope":"浙江省杭州市临安区玲珑街道东山行政村临安市金佳塑料厂一带","startTime":"2019-12-20 08:00:00","stopDate":"2019-12-20 14:00:00","orgNo":"3340160","typeCode":"计划停电","poweroffArea":"110kV夏禹变:庆仙V853线-板坞支线05#后段","poweroffReason":"线路移位","powerTime":"2019-12-20 13:42:43","powerComm":"已送电","subsNo":"","lineNo":"","tgNo":"","tgName":null,"infoStatus":"1","orgName":"国网浙江临安市供电公司","typeName":null,"infoStatusName":null,"dateDay":null,"orgNos":null,"nowTime":null,"countyName":null,"streetName":null,"villageName":null,"roadName":null,"communityName":null,"tranName":null,"sdLineName":null,"cityCode":"3340160","cityName":"国网浙江临安市供电公司","provinceCode":null,"stopTime":"2019-12-20 14:00:00","powerType":"全部","powerOffArea":"110kV夏禹变:庆仙V853线-板坞支线05#后段","powerOffReason":"线路移位","powerOffId":"2019120831020141"},{"poweroffId":2019120831020133,"sgpoweroffId":null,"subsName":"","lineName":"10kV里畈V580线","pubTranName":"白沙村[平顶山],白沙村[市岭],","scope":"浙江省杭州市临安区太湖源镇白沙行政村白沙自然村市岭、平顶山一带","startTime":"2019-12-17 08:30:00","stopDate":"2019-12-17 16:00:00","orgNo":"3340160","typeCode":"计划停电","poweroffArea":"110kV杨岭变:里畈V580线-白沙分线143#后段","poweroffReason":"线路改造","powerTime":"2019-12-17 15:50:04","powerComm":"已送电","subsNo":"","lineNo":"","tgNo":"","tgName":null,"infoStatus":"1","orgName":"国网浙江临安市供电公司","typeName":null,"infoStatusName":null,"dateDay":null,"orgNos":null,"nowTime":null,"countyName":null,"streetName":null,"villageName":null,"roadName":null,"communityName":null,"tranName":null,"sdLineName":null,"cityCode":"3340160","cityName":"国网浙江临安市供电公司","provinceCode":null,"stopTime":"2019-12-17 16:00:00","powerType":"全部","powerOffArea":"110kV杨岭变:里畈V580线-白沙分线143#后段","powerOffReason":"线路改造","powerOffId":"2019120831020133"},{"poweroffId":2019120831020126,"sgpoweroffId":null,"subsName":"","lineName":"10kV笼山D252线","pubTranName":"新民村3#小坞坑公变配变,","scope":"浙江省-杭州市-富阳区-富春街道-新民行政村-新民小坞坑自然村","startTime":"2019-12-16 08:20:00","stopDate":"2019-12-16 16:40:00","orgNo":"3340170","typeCode":"计划停电","poweroffArea":"110kV白鹤变:笼山D252线-新民村3#小坞坑公变配变低压开关后段","poweroffReason":"(低压停电信息)对0.4KV7#，18#，60号进行表箱更换等工作","powerTime":"2019-12-16 16:26:52","powerComm":"已送电","subsNo":"","lineNo":"","tgNo":"","tgName":null,"infoStatus":"1","orgName":"国网浙江杭州市富阳区供电公司","typeName":null,"infoStatusName":null,"dateDay":null,"orgNos":null,"nowTime":null,"countyName":null,"streetName":null,"villageName":null,"roadName":null,"communityName":null,"tranName":null,"sdLineName":null,"cityCode":"3340170","cityName":"国网浙江杭州市富阳区供电公司","provinceCode":null,"stopTime":"2019-12-16 16:40:00","powerType":"全部","powerOffArea":"110kV白鹤变:笼山D252线-新民村3#小坞坑公变配变低压开关后段","powerOffReason":"(低压停电信息)对0.4KV7#，18#，60号进行表箱更换等工作","powerOffId":"2019120831020126"},{"poweroffId":2019120831020124,"sgpoweroffId":null,"subsName":"","lineName":"10kV港城A815线","pubTranName":"杭州市萧山区人民政府南阳街道办事处,沈氏铝业(1321022628),岩峰村13#变,杭州成邦沥青混凝土有限公司,岩峰村8#变,岩峰村14#变,","scope":"浙江省-杭州市-萧山区-南阳街道-岩峰行政村-岩峰自然村;浙江省-杭州市-萧山区-南阳街道-龙虎行政村-杭州成邦沥青混凝土有限公司,南阳街道-岩峰行政村(杭州沈士铝业有限公司,杭州市萧山区人民政府南阳街道办事处)一带","startTime":"2019-12-08 14:00:28","stopDate":"2019-12-08 16:42:28","orgNo":"3340130","typeCode":"电网故障停限电","poweroffArea":"110kV黎明变:港城A815线-河岩351线岩峰村分线开关后段","poweroffReason":"高压柱上断路器短路故障 原停电结束时间为2019-12-08 17:00:28,为减少客户停电时间,加快工作进度,提前送电,现变更停电结束时间为2019-12-08 16:42:28","powerTime":"2019-12-08 15:45:54","powerComm":"已送电","subsNo":"","lineNo":"","tgNo":"","tgName":null,"infoStatus":"1","orgName":"国网浙江杭州市萧山区供电有限公司","typeName":null,"infoStatusName":null,"dateDay":null,"orgNos":null,"nowTime":null,"countyName":null,"streetName":null,"villageName":null,"roadName":null,"communityName":null,"tranName":null,"sdLineName":null,"cityCode":"3340130","cityName":"国网浙江杭州市萧山区供电有限公司","provinceCode":null,"stopTime":"2019-12-08 16:42:28","powerType":"全部","powerOffArea":"110kV黎明变:港城A815线-河岩351线岩峰村分线开关后段","powerOffReason":"高压柱上断路器短路故障 原停电结束时间为2019-12-08 17:00:28,为减少客户停电时间,加快工作进度,提前送电,现变更停电结束时间为2019-12-08 16:42:28","powerOffId":"2019120831020124"},{"poweroffId":2019120831020099,"sgpoweroffId":null,"subsName":"","lineName":"10kV高天6797线","pubTranName":"土管,","scope":"浙江省-杭州市-西湖区-古荡街道-华星社区-西湖区土管局","startTime":"2019-12-08 11:32:12","stopDate":"2019-12-08 18:30:12","orgNo":"3340101","typeCode":"电网故障停限电","poweroffArea":"110kV高技变:高天6797线-土管分线后段","poweroffReason":"高压开关跳闸 原停电结束时间为2019-12-08 13:32:12,因现场施工较为复杂原因,现变更停电结束时间为2019-12-08 18:30:12","powerTime":"2019-12-08 17:41:53","powerComm":"已送电","subsNo":"","lineNo":"","tgNo":"","tgName":null,"infoStatus":"1","orgName":"浙江杭州电力客户服务中心","typeName":null,"infoStatusName":null,"dateDay":null,"orgNos":null,"nowTime":null,"countyName":null,"streetName":null,"villageName":null,"roadName":null,"communityName":null,"tranName":null,"sdLineName":null,"cityCode":"3340101","cityName":"浙江杭州电力客户服务中心","provinceCode":null,"stopTime":"2019-12-08 18:30:12","powerType":"全部","powerOffArea":"110kV高技变:高天6797线-土管分线后段","powerOffReason":"高压开关跳闸 原停电结束时间为2019-12-08 13:32:12,因现场施工较为复杂原因,现变更停电结束时间为2019-12-08 18:30:12","powerOffId":"2019120831020099"}],"pageModel":{"pageNow":733,"totalCount":17789,"totalPage":1779,"tableRows":0,"pageCount":10,"beginCount":7320},"isExperi":"1"}