{"message":"","today":"2020-06-15","seleList":[{"poweroffId":2020052931020856,"sgpoweroffId":null,"subsName":"","lineName":"10kV咸康D208线","pubTranName":"中铁十二局集团有限公司2#变,","scope":"浙江省-杭州市-富阳区-富春街道-西邮行政村-中铁十二局集团有限公司","startTime":"2020-06-08 06:50:00","stopDate":"2020-06-08 20:30:00","orgNo":"3340170","typeCode":"计划停电","poweroffArea":"35kV大青变:咸康D208线-中铁十二局集团有限公司2#变后段","poweroffReason":"青云2020年大青变10kV间隔整理及咸康D208等线路网架优化工程：客户内部检修 原停电结束时间为2020-06-08 18:00:00,因现场故障情况复杂,现变更停电结束时间为2020-06-08 20:30:00","powerTime":"2020-06-08 20:20:42","powerComm":"已送电","subsNo":"","lineNo":"","tgNo":"","tgName":null,"infoStatus":"1","orgName":"国网浙江杭州市富阳区供电公司","typeName":null,"infoStatusName":null,"dateDay":null,"orgNos":null,"nowTime":null,"countyName":null,"streetName":null,"villageName":null,"roadName":null,"communityName":null,"tranName":null,"sdLineName":null,"cityCode":"3340170","cityName":"国网浙江杭州市富阳区供电公司","provinceCode":null,"stopTime":"2020-06-08 20:30:00","powerType":"全部","powerOffArea":"35kV大青变:咸康D208线-中铁十二局集团有限公司2#变后段","powerOffReason":"青云2020年大青变10kV间隔整理及咸康D208等线路网架优化工程：客户内部检修 原停电结束时间为2020-06-08 18:00:00,因现场故障情况复杂,现变更停电结束时间为2020-06-08 20:30:00","powerOffId":"2020052931020856"},{"poweroffId":2020052931020836,"sgpoweroffId":null,"subsName":"","lineName":"10kV咸康D208线","pubTranName":"栗元村4号田畈公变,","scope":"浙江省-杭州市-富阳区-富春街道-执中亭行政村-栗园自然村","startTime":"2020-06-08 18:05:00","stopDate":"2020-06-08 20:00:00","orgNo":"3340170","typeCode":"计划停电","poweroffArea":"35kV大青变:咸康D208线-栗元村4号田畈公变后段","poweroffReason":"青云2020年大青变10kV间隔整理及咸康D208等线路网架优化工程：栗元村4#田畈公变变压器0.4kv出线电缆恢复 原停电结束时间为2020-06-08 18:45:00,因现场故障情况复杂,现变更停电结束时间为2020-06-08 20:00:00","powerTime":"2020-06-08 19:50:13","powerComm":"已送电","subsNo":"","lineNo":"","tgNo":"","tgName":null,"infoStatus":"1","orgName":"国网浙江杭州市富阳区供电公司","typeName":null,"infoStatusName":null,"dateDay":null,"orgNos":null,"nowTime":null,"countyName":null,"streetName":null,"villageName":null,"roadName":null,"communityName":null,"tranName":null,"sdLineName":null,"cityCode":"3340170","cityName":"国网浙江杭州市富阳区供电公司","provinceCode":null,"stopTime":"2020-06-08 20:00:00","powerType":"全部","powerOffArea":"35kV大青变:咸康D208线-栗元村4号田畈公变后段","powerOffReason":"青云2020年大青变10kV间隔整理及咸康D208等线路网架优化工程：栗元村4#田畈公变变压器0.4kv出线电缆恢复 原停电结束时间为2020-06-08 18:45:00,因现场故障情况复杂,现变更停电结束时间为2020-06-08 20:00:00","powerOffId":"2020052931020836"},{"poweroffId":2020052931020833,"sgpoweroffId":null,"subsName":"","lineName":"10kV深澳T251线","pubTranName":"西坞村1号公变,","scope":"浙江省-杭州市-桐庐县-江南镇-青源行政村(青源自然村,西坞自然村)","startTime":"2020-06-12 08:30:00","stopDate":"2020-06-12 13:30:00","orgNo":"3340150","typeCode":"计划停电","poweroffArea":"110kV石阜变:深澳T251线-西坞村1号公变10kV跌落式熔断器后段","poweroffReason":"杭州桐庐江南西坞村等台区配变及线路改造工程","powerTime":"2020-06-12 13:18:36","powerComm":"已送电","subsNo":"","lineNo":"","tgNo":"","tgName":null,"infoStatus":"1","orgName":"国网浙江桐庐县供电公司","typeName":null,"infoStatusName":null,"dateDay":null,"orgNos":null,"nowTime":null,"countyName":null,"streetName":null,"villageName":null,"roadName":null,"communityName":null,"tranName":null,"sdLineName":null,"cityCode":"3340150","cityName":"国网浙江桐庐县供电公司","provinceCode":null,"stopTime":"2020-06-12 13:30:00","powerType":"全部","powerOffArea":"110kV石阜变:深澳T251线-西坞村1号公变10kV跌落式熔断器后段","powerOffReason":"杭州桐庐江南西坞村等台区配变及线路改造工程","powerOffId":"2020052931020833"},{"poweroffId":2020052931020832,"sgpoweroffId":null,"subsName":"","lineName":"10kV咸康D208线","pubTranName":"中铁十二局集团有限公司17#变,","scope":"浙江省-杭州市-富阳区-富春街道-执中亭行政村-中铁十二局集团有限公司","startTime":"2020-06-08 07:50:00","stopDate":"2020-06-08 20:30:00","orgNo":"3340170","typeCode":"计划停电","poweroffArea":"35kV大青变:咸康D208线-中铁十二局开关后段","poweroffReason":"客户内部检修 原停电结束时间为2020-06-08 18:00:00,因现场故障情况复杂,现变更停电结束时间为2020-06-08 20:30:00","powerTime":"2020-06-08 20:22:27","powerComm":"已送电","subsNo":"","lineNo":"","tgNo":"","tgName":null,"infoStatus":"1","orgName":"国网浙江杭州市富阳区供电公司","typeName":null,"infoStatusName":null,"dateDay":null,"orgNos":null,"nowTime":null,"countyName":null,"streetName":null,"villageName":null,"roadName":null,"communityName":null,"tranName":null,"sdLineName":null,"cityCode":"3340170","cityName":"国网浙江杭州市富阳区供电公司","provinceCode":null,"stopTime":"2020-06-08 20:30:00","powerType":"全部","powerOffArea":"35kV大青变:咸康D208线-中铁十二局开关后段","powerOffReason":"客户内部检修 原停电结束时间为2020-06-08 18:00:00,因现场故障情况复杂,现变更停电结束时间为2020-06-08 20:30:00","powerOffId":"2020052931020832"},{"poweroffId":2020052931020831,"sgpoweroffId":null,"subsName":"","lineName":"10kV凤鸣T252线","pubTranName":"笑山坞村1号公变,","scope":"浙江省-杭州市-桐庐县-江南镇-华丰行政村(笑山坞自然村,荷村自然村)","startTime":"2020-06-09 08:30:00","stopDate":"2020-06-09 13:30:00","orgNo":"3340150","typeCode":"计划停电","poweroffArea":"110kV石阜变:凤鸣T252线-笑山F4015后段","poweroffReason":"杭州桐庐江南西坞村等台区配变及线路改造工程","powerTime":"2020-06-09 13:01:21","powerComm":"已送电","subsNo":"","lineNo":"","tgNo":"","tgName":null,"infoStatus":"1","orgName":"国网浙江桐庐县供电公司","typeName":null,"infoStatusName":null,"dateDay":null,"orgNos":null,"nowTime":null,"countyName":null,"streetName":null,"villageName":null,"roadName":null,"communityName":null,"tranName":null,"sdLineName":null,"cityCode":"3340150","cityName":"国网浙江桐庐县供电公司","provinceCode":null,"stopTime":"2020-06-09 13:30:00","powerType":"全部","powerOffArea":"110kV石阜变:凤鸣T252线-笑山F4015后段","powerOffReason":"杭州桐庐江南西坞村等台区配变及线路改造工程","powerOffId":"2020052931020831"},{"poweroffId":2020052931020827,"sgpoweroffId":null,"subsName":"","lineName":"10kV咸康D208线","pubTranName":"富阳清水湾生态农业开发有限公司,","scope":"浙江省-杭州市-富阳区-富春街道-西邮行政村-杭州富阳清水湾生态农业开发有限公司","startTime":"2020-06-08 07:10:00","stopDate":"2020-06-08 20:30:00","orgNo":"3340170","typeCode":"计划停电","poweroffArea":"35kV大青变:咸康D208线-富阳清水湾生态农业开发有限公司后段","poweroffReason":"客户内部检修 原停电结束时间为2020-06-08 18:00:00,因现场故障情况复杂,现变更停电结束时间为2020-06-08 20:30:00","powerTime":"2020-06-08 20:23:00","powerComm":"已送电","subsNo":"","lineNo":"","tgNo":"","tgName":null,"infoStatus":"1","orgName":"国网浙江杭州市富阳区供电公司","typeName":null,"infoStatusName":null,"dateDay":null,"orgNos":null,"nowTime":null,"countyName":null,"streetName":null,"villageName":null,"roadName":null,"communityName":null,"tranName":null,"sdLineName":null,"cityCode":"3340170","cityName":"国网浙江杭州市富阳区供电公司","provinceCode":null,"stopTime":"2020-06-08 20:30:00","powerType":"全部","powerOffArea":"35kV大青变:咸康D208线-富阳清水湾生态农业开发有限公司后段","powerOffReason":"客户内部检修 原停电结束时间为2020-06-08 18:00:00,因现场故障情况复杂,现变更停电结束时间为2020-06-08 20:30:00","powerOffId":"2020052931020827"},{"poweroffId":2020052931020825,"sgpoweroffId":null,"subsName":"","lineName":"10kV咸康D208线","pubTranName":"杭州和宇食品有限公司2#变,杭州和宇食品有限公司1#变,","scope":"浙江省-杭州市-富阳区-富春街道-西邮行政村-杭州和宇食品有限公司","startTime":"2020-06-08 06:30:00","stopDate":"2020-06-08 20:30:00","orgNo":"3340170","typeCode":"计划停电","poweroffArea":"35kV大青变:咸康D208线-杭州和宇食品有限公司后段","poweroffReason":"客户迁改配合停电 原停电结束时间为2020-06-08 18:00:00,因现场故障情况复杂,现变更停电结束时间为2020-06-08 20:30:00","powerTime":"2020-06-08 20:21:40","powerComm":"已送电","subsNo":"","lineNo":"","tgNo":"","tgName":null,"infoStatus":"1","orgName":"国网浙江杭州市富阳区供电公司","typeName":null,"infoStatusName":null,"dateDay":null,"orgNos":null,"nowTime":null,"countyName":null,"streetName":null,"villageName":null,"roadName":null,"communityName":null,"tranName":null,"sdLineName":null,"cityCode":"3340170","cityName":"国网浙江杭州市富阳区供电公司","provinceCode":null,"stopTime":"2020-06-08 20:30:00","powerType":"全部","powerOffArea":"35kV大青变:咸康D208线-杭州和宇食品有限公司后段","powerOffReason":"客户迁改配合停电 原停电结束时间为2020-06-08 18:00:00,因现场故障情况复杂,现变更停电结束时间为2020-06-08 20:30:00","powerOffId":"2020052931020825"},{"poweroffId":2020052931020823,"sgpoweroffId":null,"subsName":"","lineName":"10kV咸康D208线","pubTranName":"富阳强盛钢带弹簧有限公司,","scope":"浙江省-杭州市-富阳区-春建乡-春建行政村-杭州富阳强盛钢带弹簧有限公司","startTime":"2020-06-08 05:50:00","stopDate":"2020-06-08 20:30:00","orgNo":"3340170","typeCode":"计划停电","poweroffArea":"35kV大青变:咸康D208线-富阳强盛钢带弹簧有限公司后段","poweroffReason":"青云2020年大青变10kV间隔整理及咸康D208等线路网架优化工程：客户迁改配合停电 原停电结束时间为2020-06-08 18:00:00,因现场故障情况复杂,现变更停电结束时间为2020-06-08 20:30:00","powerTime":"2020-06-08 20:20:59","powerComm":"已送电","subsNo":"","lineNo":"","tgNo":"","tgName":null,"infoStatus":"1","orgName":"国网浙江杭州市富阳区供电公司","typeName":null,"infoStatusName":null,"dateDay":null,"orgNos":null,"nowTime":null,"countyName":null,"streetName":null,"villageName":null,"roadName":null,"communityName":null,"tranName":null,"sdLineName":null,"cityCode":"3340170","cityName":"国网浙江杭州市富阳区供电公司","provinceCode":null,"stopTime":"2020-06-08 20:30:00","powerType":"全部","powerOffArea":"35kV大青变:咸康D208线-富阳强盛钢带弹簧有限公司后段","powerOffReason":"青云2020年大青变10kV间隔整理及咸康D208等线路网架优化工程：客户迁改配合停电 原停电结束时间为2020-06-08 18:00:00,因现场故障情况复杂,现变更停电结束时间为2020-06-08 20:30:00","powerOffId":"2020052931020823"},{"poweroffId":2020052931020822,"sgpoweroffId":null,"subsName":"","lineName":"10kV咸康D208线","pubTranName":"富阳市青云自控仪表设备厂1#变,","scope":"浙江省-杭州市-富阳区-春建乡-春建行政村-杭州富阳青云自控仪表设备厂","startTime":"2020-06-08 06:10:00","stopDate":"2020-06-08 20:30:00","orgNo":"3340170","typeCode":"计划停电","poweroffArea":"35kV大青变:咸康D208线-杭州富阳青云自控仪表设备厂后段","poweroffReason":"青云2020年大青变10kV间隔整理及咸康D208等线路网架优化工程：客户迁改配合停电 原停电结束时间为2020-06-08 18:00:00,因现场故障情况复杂,现变更停电结束时间为2020-06-08 20:30:00","powerTime":"2020-06-08 20:21:56","powerComm":"已送电","subsNo":"","lineNo":"","tgNo":"","tgName":null,"infoStatus":"1","orgName":"国网浙江杭州市富阳区供电公司","typeName":null,"infoStatusName":null,"dateDay":null,"orgNos":null,"nowTime":null,"countyName":null,"streetName":null,"villageName":null,"roadName":null,"communityName":null,"tranName":null,"sdLineName":null,"cityCode":"3340170","cityName":"国网浙江杭州市富阳区供电公司","provinceCode":null,"stopTime":"2020-06-08 20:30:00","powerType":"全部","powerOffArea":"35kV大青变:咸康D208线-杭州富阳青云自控仪表设备厂后段","powerOffReason":"青云2020年大青变10kV间隔整理及咸康D208等线路网架优化工程：客户迁改配合停电 原停电结束时间为2020-06-08 18:00:00,因现场故障情况复杂,现变更停电结束时间为2020-06-08 20:30:00","powerOffId":"2020052931020822"},{"poweroffId":2020052931020817,"sgpoweroffId":null,"subsName":"","lineName":"10kV咸康D208线","pubTranName":"杭州西游生态农业开发有限公司,","scope":"浙江省-杭州市-富阳区-富春街道-西邮行政村-杭州西游生态农业开发有限公司","startTime":"2020-06-08 07:30:00","stopDate":"2020-06-08 20:30:00","orgNo":"3340170","typeCode":"计划停电","poweroffArea":"35kV大青变:咸康D208线-杭州西游生态农业开发有限公司后段","poweroffReason":"青云2020年大青变10kV间隔整理及咸康D208等线路网架优化工程：客户内部检修 原停电结束时间为2020-06-08 18:00:00,因现场故障情况复杂,现变更停电结束时间为2020-06-08 20:30:00","powerTime":"2020-06-08 20:21:09","powerComm":"已送电","subsNo":"","lineNo":"","tgNo":"","tgName":null,"infoStatus":"1","orgName":"国网浙江杭州市富阳区供电公司","typeName":null,"infoStatusName":null,"dateDay":null,"orgNos":null,"nowTime":null,"countyName":null,"streetName":null,"villageName":null,"roadName":null,"communityName":null,"tranName":null,"sdLineName":null,"cityCode":"3340170","cityName":"国网浙江杭州市富阳区供电公司","provinceCode":null,"stopTime":"2020-06-08 20:30:00","powerType":"全部","powerOffArea":"35kV大青变:咸康D208线-杭州西游生态农业开发有限公司后段","powerOffReason":"青云2020年大青变10kV间隔整理及咸康D208等线路网架优化工程：客户内部检修 原停电结束时间为2020-06-08 18:00:00,因现场故障情况复杂,现变更停电结束时间为2020-06-08 20:30:00","powerOffId":"2020052931020817"}],"pageModel":{"pageNow":73,"totalCount":17786,"totalPage":1779,"tableRows":0,"pageCount":10,"beginCount":720},"isExperi":"1"}