{"message":"","today":"2020-06-15","seleList":[{"poweroffId":2019120831020091,"sgpoweroffId":null,"subsName":"","lineName":"10kV拔山D942线","pubTranName":"富阳防水材料厂,富阳市宏阳门窗安装有限公司,富阳市新建通信器材有限公司,富阳市永安防雷设备厂,新春村14号高畈公变,杭州丰创电机制造有限公司,","scope":"浙江省-杭州市-富阳区-富春街道-杨清庙行政村(高畈自然村,杨清庙自然村,新春自然村);富春街道-杨清庙行政村(杭州富阳防水材料厂,杭州富阳新建通信器材有限公司,富阳市宏阳门窗安装有限公司,杭州丰创电机制造有限公司,杭州富阳永安防雷设备厂)","startTime":"2019-12-08 11:20:27","stopDate":"2019-12-08 12:20:27","orgNo":"3340170","typeCode":"电网故障停限电","poweroffArea":"110kV育才变:拔山D942线-防水材料分线开关后段","poweroffReason":"高压开关跳闸 原停电结束时间为2019-12-08 13:20:27,为减少客户停电时间,加快工作进度,提前送电,现变更停电结束时间为2019-12-08 12:20:27","powerTime":"2019-12-08 12:00:07","powerComm":"已送电","subsNo":"","lineNo":"","tgNo":"","tgName":null,"infoStatus":"1","orgName":"国网浙江杭州市富阳区供电公司","typeName":null,"infoStatusName":null,"dateDay":null,"orgNos":null,"nowTime":null,"countyName":null,"streetName":null,"villageName":null,"roadName":null,"communityName":null,"tranName":null,"sdLineName":null,"cityCode":"3340170","cityName":"国网浙江杭州市富阳区供电公司","provinceCode":null,"stopTime":"2019-12-08 12:20:27","powerType":"全部","powerOffArea":"110kV育才变:拔山D942线-防水材料分线开关后段","powerOffReason":"高压开关跳闸 原停电结束时间为2019-12-08 13:20:27,为减少客户停电时间,加快工作进度,提前送电,现变更停电结束时间为2019-12-08 12:20:27","powerOffId":"2019120831020091"},{"poweroffId":2019120831020068,"sgpoweroffId":null,"subsName":"","lineName":"10kV新阳D841线","pubTranName":"新岭村新阳2#杨家公变,浦中村杜邵2#邵家公变,新岭村新阳1#慕下孙家公变,新岭村叶家2#桥头公变,浦中村施家1#徐家公变,浦中村杜邵1#杜家公变,新岭村4#钟家公变,新岭村叶家1#公变,浦中村施家2#公变,浦中村杜邵3#公变,新浦村二联2号凌家公变,新岭村叶家3#坎头坞公变,新岭村幕下3#公变,","scope":"浙江省-杭州市-富阳区-渌渚镇-新浦行政村-二联凌家自然村,渌渚镇-新岭行政村(新阳杨家自然村,叶家自然村,新阳钟家自然村,新阳幕下自然村,叶家桥头自然村,新阳孙家自然村,叶家坎头坞自然村),渌渚镇-浦中行政村(邵家里自然村,施家里自然村,施家外自然村,邵家外自然村,杜家自然村)","startTime":"2019-12-08 10:04:10","stopDate":"2019-12-08 12:04:10","orgNo":"3340170","typeCode":"电网故障停限电","poweroffArea":"110kV新桐变:新阳D841线-新阳D841线开关后段","poweroffReason":"高压开关跳闸","powerTime":"2019-12-08 11:11:57","powerComm":"已送电","subsNo":"","lineNo":"","tgNo":"","tgName":null,"infoStatus":"1","orgName":"国网浙江杭州市富阳区供电公司","typeName":null,"infoStatusName":null,"dateDay":null,"orgNos":null,"nowTime":null,"countyName":null,"streetName":null,"villageName":null,"roadName":null,"communityName":null,"tranName":null,"sdLineName":null,"cityCode":"3340170","cityName":"国网浙江杭州市富阳区供电公司","provinceCode":null,"stopTime":"2019-12-08 12:04:10","powerType":"全部","powerOffArea":"110kV新桐变:新阳D841线-新阳D841线开关后段","powerOffReason":"高压开关跳闸","powerOffId":"2019120831020068"},{"poweroffId":2019120831020067,"sgpoweroffId":null,"subsName":"","lineName":"10kV高天6797线","pubTranName":"残联,新亚,土管,地震二,红豆,北绸,地震一,","scope":"浙江省-杭州市-西湖区-西溪街道-文天社区-天目山路;古荡街道(杭州新亚电感器件有限公司,西湖区土管局,杭州豆制食品有限公司,省地震局杭州培训中心,杭州亚太汽车刮水器有限公司)","startTime":"2019-12-08 09:55:00","stopDate":"2019-12-08 11:05:00","orgNo":"3340101","typeCode":"电网故障停限电","poweroffArea":"110kV高技变:高天6797线地中一站地中一线后段","poweroffReason":"高压开关跳闸 原停电结束时间为2019-12-08 11:55:00,为减少客户停电时间,加快工作进度,提前送电,现变更停电结束时间为2019-12-08 11:05:00","powerTime":"2019-12-08 10:19:28","powerComm":"已送电","subsNo":"","lineNo":"","tgNo":"","tgName":null,"infoStatus":"1","orgName":"浙江杭州电力客户服务中心","typeName":null,"infoStatusName":null,"dateDay":null,"orgNos":null,"nowTime":null,"countyName":null,"streetName":null,"villageName":null,"roadName":null,"communityName":null,"tranName":null,"sdLineName":null,"cityCode":"3340101","cityName":"浙江杭州电力客户服务中心","provinceCode":null,"stopTime":"2019-12-08 11:05:00","powerType":"全部","powerOffArea":"110kV高技变:高天6797线地中一站地中一线后段","powerOffReason":"高压开关跳闸 原停电结束时间为2019-12-08 11:55:00,为减少客户停电时间,加快工作进度,提前送电,现变更停电结束时间为2019-12-08 11:05:00","powerOffId":"2019120831020067"},{"poweroffId":2019120831020066,"sgpoweroffId":null,"subsName":"","lineName":"10kV高天6797线","pubTranName":"北绸,新亚,地震一,红豆,残联,土管,","scope":"浙江省-杭州市-西湖区-西溪街道-文天社区-天目山路;古荡街道-古荡社区(杭州豆制食品有限公司,省地震局杭州培训中心,杭州亚太汽车刮水器有限公司),古荡街道-华星社区(杭州新亚电感器件有限公司,西湖区土管局)","startTime":"2019-12-08 10:03:01","stopDate":"2019-12-08 12:10:01","orgNo":"3340101","typeCode":"电网故障停限电","poweroffArea":"110kV高技变:高天6797线-古翠一线后段","poweroffReason":"高压开关跳闸 原停电结束时间为2019-12-08 16:00:01,为减少客户停电时间,加快工作进度,提前送电,现变更停电结束时间为2019-12-08 12:10:01","powerTime":"2019-12-08 11:32:18","powerComm":"已送电","subsNo":"","lineNo":"","tgNo":"","tgName":null,"infoStatus":"1","orgName":"浙江杭州电力客户服务中心","typeName":null,"infoStatusName":null,"dateDay":null,"orgNos":null,"nowTime":null,"countyName":null,"streetName":null,"villageName":null,"roadName":null,"communityName":null,"tranName":null,"sdLineName":null,"cityCode":"3340101","cityName":"浙江杭州电力客户服务中心","provinceCode":null,"stopTime":"2019-12-08 12:10:01","powerType":"全部","powerOffArea":"110kV高技变:高天6797线-古翠一线后段","powerOffReason":"高压开关跳闸 原停电结束时间为2019-12-08 16:00:01,为减少客户停电时间,加快工作进度,提前送电,现变更停电结束时间为2019-12-08 12:10:01","powerOffId":"2019120831020066"},{"poweroffId":2019120831020061,"sgpoweroffId":null,"subsName":"","lineName":"10kV陌前9714线","pubTranName":"茂府八变,","scope":"浙江省杭州市滨江区西兴街道襄七房社区滨盛路金茂府小区","startTime":"2019-12-08 09:32:00","stopDate":"2019-12-08 11:00:00","orgNo":"3340101","typeCode":"电网故障停限电","poweroffArea":"110kV府前变:陌前9714线茂府八变配变","poweroffReason":"高压开关跳闸 原停电结束时间为2019-12-08 11:32:00,为减少客户停电时间,加快工作进度,提前送电,现变更停电结束时间为2019-12-08 11:00:00","powerTime":"2019-12-08 10:14:15","powerComm":"已送电","subsNo":"","lineNo":"","tgNo":"","tgName":null,"infoStatus":"1","orgName":"浙江杭州电力客户服务中心","typeName":null,"infoStatusName":null,"dateDay":null,"orgNos":null,"nowTime":null,"countyName":null,"streetName":null,"villageName":null,"roadName":null,"communityName":null,"tranName":null,"sdLineName":null,"cityCode":"3340101","cityName":"浙江杭州电力客户服务中心","provinceCode":null,"stopTime":"2019-12-08 11:00:00","powerType":"全部","powerOffArea":"110kV府前变:陌前9714线茂府八变配变","powerOffReason":"高压开关跳闸 原停电结束时间为2019-12-08 11:32:00,为减少客户停电时间,加快工作进度,提前送电,现变更停电结束时间为2019-12-08 11:00:00","powerOffId":"2019120831020061"},{"poweroffId":2019120831020060,"sgpoweroffId":null,"subsName":"","lineName":"10kV阡府9713线","pubTranName":"茂府七变,","scope":"浙江省-杭州市-滨江区-西兴街道-襄七房社区-滨盛金茂府小区","startTime":"2019-12-08 09:32:00","stopDate":"2019-12-08 11:00:00","orgNo":"3340101","typeCode":"电网故障停限电","poweroffArea":"110kV府前变:阡府9713线茂府七变配变","poweroffReason":"高压开关跳闸 原停电结束时间为2019-12-08 11:32:00,为减少客户停电时间,加快工作进度,提前送电,现变更停电结束时间为2019-12-08 11:00:00","powerTime":"2019-12-08 10:09:37","powerComm":"已送电","subsNo":"","lineNo":"","tgNo":"","tgName":null,"infoStatus":"1","orgName":"浙江杭州电力客户服务中心","typeName":null,"infoStatusName":null,"dateDay":null,"orgNos":null,"nowTime":null,"countyName":null,"streetName":null,"villageName":null,"roadName":null,"communityName":null,"tranName":null,"sdLineName":null,"cityCode":"3340101","cityName":"浙江杭州电力客户服务中心","provinceCode":null,"stopTime":"2019-12-08 11:00:00","powerType":"全部","powerOffArea":"110kV府前变:阡府9713线茂府七变配变","powerOffReason":"高压开关跳闸 原停电结束时间为2019-12-08 11:32:00,为减少客户停电时间,加快工作进度,提前送电,现变更停电结束时间为2019-12-08 11:00:00","powerOffId":"2019120831020060"},{"poweroffId":2019120831020056,"sgpoweroffId":null,"subsName":"","lineName":"10kV百丈H563线","pubTranName":"百丈街道市场公变,","scope":"浙江省-杭州市-余杭区-百丈镇-百丈行政村-百丈自然村","startTime":"2019-12-08 09:24:00","stopDate":"2019-12-08 11:24:00","orgNo":"3340140","typeCode":"电网故障停限电","poweroffArea":"35kV黄湖变:百丈H563线-百丈街道市场公变后段","poweroffReason":"高压开关跳闸","powerTime":"2019-12-08 10:27:00","powerComm":"已送电","subsNo":"","lineNo":"","tgNo":"","tgName":null,"infoStatus":"1","orgName":"国网浙江杭州市余杭区供电有限公司","typeName":null,"infoStatusName":null,"dateDay":null,"orgNos":null,"nowTime":null,"countyName":null,"streetName":null,"villageName":null,"roadName":null,"communityName":null,"tranName":null,"sdLineName":null,"cityCode":"3340140","cityName":"国网浙江杭州市余杭区供电有限公司","provinceCode":null,"stopTime":"2019-12-08 11:24:00","powerType":"全部","powerOffArea":"35kV黄湖变:百丈H563线-百丈街道市场公变后段","powerOffReason":"高压开关跳闸","powerOffId":"2019120831020056"},{"poweroffId":2019120831020054,"sgpoweroffId":null,"subsName":"","lineName":"10kV新安9683线","pubTranName":"水上运动中心,西湖游船,电力调度,","scope":"浙江省-杭州市-西湖区-古荡街道(杭州市水上运动中心,国网浙江省电力公司信息通信分公司,杭州市西湖游船有限公司)","startTime":"2019-12-08 09:18:55","stopDate":"2019-12-08 12:00:55","orgNo":"3340101","typeCode":"电网故障停限电","poweroffArea":"220kV古荡变:新安9683线中煤气站中煤支线后段","poweroffReason":"高压开关跳闸 原停电结束时间为2019-12-08 11:18:55,因现场施工较为复杂原因,现变更停电结束时间为2019-12-08 12:00:55","powerTime":"2019-12-08 11:28:27","powerComm":"已送电","subsNo":"","lineNo":"","tgNo":"","tgName":null,"infoStatus":"1","orgName":"浙江杭州电力客户服务中心","typeName":null,"infoStatusName":null,"dateDay":null,"orgNos":null,"nowTime":null,"countyName":null,"streetName":null,"villageName":null,"roadName":null,"communityName":null,"tranName":null,"sdLineName":null,"cityCode":"3340101","cityName":"浙江杭州电力客户服务中心","provinceCode":null,"stopTime":"2019-12-08 12:00:55","powerType":"全部","powerOffArea":"220kV古荡变:新安9683线中煤气站中煤支线后段","powerOffReason":"高压开关跳闸 原停电结束时间为2019-12-08 11:18:55,因现场施工较为复杂原因,现变更停电结束时间为2019-12-08 12:00:55","powerOffId":"2019120831020054"},{"poweroffId":2019120831020046,"sgpoweroffId":null,"subsName":"","lineName":"10kV中侨T315线","pubTranName":"富春华庭2号公变,桐庐经济开发区管理委员会,中国移动通信集团浙江有限公司桐庐分公司,金久城市花园2#专变,金义1号公变,富春华庭1号公变,浙江中置房地产开发有限公司,凤嘉毛纺,桐庐县市政园林建设管理处,棕榈地科技专变,1#,下杭垃圾中转站,中侨公寓1号公变,富春华庭4号公变,富春华庭3号公变,杭州海庐箱包有限公司(宿舍)1#,浙江坤兴建设有限公司,香樟花园2#专变,梅林污水路灯变,桐药1号公变,桐庐碧于天保健品有限公司变压器,杭州索德医疗设备有限公司,立山宿舍变,桐庐龙腾物业管理有限公司,梅溪公寓1号公变,梅林溪1号公变,","scope":"浙江省-杭州市-桐庐县-城南街道-梅林社区(春江东路,梅林路,桑园路,瑶琳路);城南街道-上洋洲行政村(杭州碧于天保健品有限公司,杭州凤嘉纺织有限公司(宿舍),杭州索德医疗设备有限公司,桐庐德安居老年公寓,桐庐万诚物业管理有限公司,浙江立山国际置业有限公司),城南街道-梅林社区(桐庐县富春科技建设投资有限公司,浙江立鹏建设有限公司桐庐分公司,浙江中置房地产开发有限公司(基建),桐庐县市政园林建设管理处,浙江福腾物业服务有限公司,浙江兴腾物业管理有限公司,桐庐县市政园林建设管理处(梅林溪路灯)),城南街道-下杭社区(杭州棕榈地科技开发有限公司,杭州海庐箱包有限公司,桐庐县环境卫生管理处,中国移动通信集团浙江有限公司桐庐分公司)，江南镇宅西金浦路，梅林路美凯国际寓所","startTime":"2019-12-08 09:05:32","stopDate":"2019-12-08 16:00:42","orgNo":"3340150","typeCode":"电网故障停限电","poweroffArea":"110kV洋洲变:中侨T315线-中侨6131后段","poweroffReason":"高压开关跳闸 原停电结束时间为2019-12-08 12:00:51,因天气原因,现变更停电结束时间为2019-12-08 16:00:42","powerTime":"2019-12-08 15:41:01","powerComm":"已送电","subsNo":"","lineNo":"","tgNo":"","tgName":null,"infoStatus":"1","orgName":"国网浙江桐庐县供电公司","typeName":null,"infoStatusName":null,"dateDay":null,"orgNos":null,"nowTime":null,"countyName":null,"streetName":null,"villageName":null,"roadName":null,"communityName":null,"tranName":null,"sdLineName":null,"cityCode":"3340150","cityName":"国网浙江桐庐县供电公司","provinceCode":null,"stopTime":"2019-12-08 16:00:42","powerType":"全部","powerOffArea":"110kV洋洲变:中侨T315线-中侨6131后段","powerOffReason":"高压开关跳闸 原停电结束时间为2019-12-08 12:00:51,因天气原因,现变更停电结束时间为2019-12-08 16:00:42","powerOffId":"2019120831020046"},{"poweroffId":2019120831020037,"sgpoweroffId":null,"subsName":"","lineName":"10kV马谷C956线","pubTranName":"杭州三辉热处理有限公司1#,杭州杭湖建筑石材有限公司1#,杭州通和机械铸造有限公司,杭州杭湖建筑石材有限公司2#,杭州维博机械有限公司,杭州三辉热处理有限公司2#,","scope":"浙江省-杭州市-萧山区-戴村镇-三头行政村-杭州杭湖建筑石材有限公司,戴村镇-半山行政村(杭州通和机械铸造有限公司,杭州维博机械有限公司,杭州三辉热处理有限公司)等一带","startTime":"2019-12-08 08:41:44","stopDate":"2019-12-08 12:00:44","orgNo":"3340130","typeCode":"电网故障停限电","poweroffArea":"110kV永兴变:马谷C956线-马谷C956线李家坞分线开关后段","poweroffReason":"紧急缺陷处理","powerTime":"2019-12-08 11:20:18","powerComm":"已送电","subsNo":"","lineNo":"","tgNo":"","tgName":null,"infoStatus":"1","orgName":"国网浙江杭州市萧山区供电有限公司","typeName":null,"infoStatusName":null,"dateDay":null,"orgNos":null,"nowTime":null,"countyName":null,"streetName":null,"villageName":null,"roadName":null,"communityName":null,"tranName":null,"sdLineName":null,"cityCode":"3340130","cityName":"国网浙江杭州市萧山区供电有限公司","provinceCode":null,"stopTime":"2019-12-08 12:00:44","powerType":"全部","powerOffArea":"110kV永兴变:马谷C956线-马谷C956线李家坞分线开关后段","powerOffReason":"紧急缺陷处理","powerOffId":"2019120831020037"}],"pageModel":{"pageNow":734,"totalCount":17789,"totalPage":1779,"tableRows":0,"pageCount":10,"beginCount":7330},"isExperi":"1"}