{"message":"","today":"2020-06-15","seleList":[{"poweroffId":2019120731020206,"sgpoweroffId":null,"subsName":"","lineName":"10kV大源Y686线","pubTranName":"朝阳村庙边台区,","scope":"浙江省-杭州市-建德市-大同镇-朝阳行政村-庙边自然村一带用户。","startTime":"2019-12-07 18:28:00","stopDate":"2019-12-07 20:00:00","orgNo":"3340180","typeCode":"电网故障停限电","poweroffArea":"110kV大同变:大源Y686线-朝阳村庙边台区后段","poweroffReason":"(低压停电信息)低压开关跳闸","powerTime":"2019-12-07 19:35:00","powerComm":"已送电","subsNo":"","lineNo":"","tgNo":"","tgName":null,"infoStatus":"1","orgName":"国网浙江建德市供电有限公司","typeName":null,"infoStatusName":null,"dateDay":null,"orgNos":null,"nowTime":null,"countyName":null,"streetName":null,"villageName":null,"roadName":null,"communityName":null,"tranName":null,"sdLineName":null,"cityCode":"3340180","cityName":"国网浙江建德市供电有限公司","provinceCode":null,"stopTime":"2019-12-07 20:00:00","powerType":"全部","powerOffArea":"110kV大同变:大源Y686线-朝阳村庙边台区后段","powerOffReason":"(低压停电信息)低压开关跳闸","powerOffId":"2019120731020206"},{"poweroffId":2019120731020190,"sgpoweroffId":null,"subsName":"","lineName":"10kV钱部C542线","pubTranName":"盈一村24#变,远东自行车,鸿达立交泵房,万向初中,盈一村21#变,杭州市萧山区排水管理处,盈一村14#变,盈一村17#变,盈一村23#变,盈一村22#变,","scope":"浙江省-杭州市-萧山区-宁围镇-宁围街道(盈一行政村-盈一自然村,新安行政村-新安自然村,新中行政村-新中自然村,丰北行政村-鸿宁路);宁围街道-盈一行政村(杭州萧山宁围盈二股份经济联合社,杭州市萧山区市政绿化养护保障中心,萧山区万向初级中学,杭州萧山污水处理有限公司)等一带","startTime":"2019-12-07 16:41:10","stopDate":"2019-12-07 21:30:10","orgNo":"3340130","typeCode":"电网故障停限电","poweroffArea":"35kV钱江变:钱部C542线","poweroffReason":"高压柱上断路器短路故障","powerTime":"2019-12-07 20:33:17","powerComm":"已送电","subsNo":"","lineNo":"","tgNo":"","tgName":null,"infoStatus":"1","orgName":"国网浙江杭州市萧山区供电有限公司","typeName":null,"infoStatusName":null,"dateDay":null,"orgNos":null,"nowTime":null,"countyName":null,"streetName":null,"villageName":null,"roadName":null,"communityName":null,"tranName":null,"sdLineName":null,"cityCode":"3340130","cityName":"国网浙江杭州市萧山区供电有限公司","provinceCode":null,"stopTime":"2019-12-07 21:30:10","powerType":"全部","powerOffArea":"35kV钱江变:钱部C542线","powerOffReason":"高压柱上断路器短路故障","powerOffId":"2019120731020190"},{"poweroffId":2019120731020186,"sgpoweroffId":null,"subsName":"","lineName":"10kV圣堂H509线","pubTranName":"良辰美苑2号公变,瓶窑中学II段02#专变,大观山安置点基建（6120877659）01#专变,良辰美苑1号公变,交通项目(南山新城路灯)6120700568,南山村相公庙1号公变,瓶窑镇政府（南山新城2号基建）6120348590,鼎盛控股集团有限公司6120842582基建变,良辰美苑9号公变,大观山村良辰美苑6号公变,大观山村良辰美苑4号公变,北湖小学基建,浙江博时市政园林建设有限公司6120842642基建变,大观山村良辰美苑5号公变,外窑村安置点（6120876938）02#专变,澄清排涝2,大观山安置点基建（6120877659）02#专变,澄清排涝1,教育资产（港渠路路灯）6120890405,北湖中心小学（6120880435）01#专变,南山村李王堂公变,大观山村良辰美苑7号公变,良辰美苑10号公变,良辰美苑11号公变,南山大桥路灯6120601658,外窑村安置点（6120876938）01#专变,大观山村良辰美苑8号公变,南山新城基建2#变,大观山村良辰美苑3号公变,良辰美苑12号公变,基础设施612064451601#专变,气象局612062971701#专变,","scope":"浙江省-杭州市-余杭区-瓶窑镇-大观山行政村(良辰美苑,凤溪路,华兴路),瓶窑镇-南山行政村(李王堂自然村,上塘湾自然村,相公庙自然村,南山自然村);瓶窑镇-南山行政村(杭州市余杭区瓶窑镇人民政府,杭州余杭区交通项目管理有限公司,鼎盛控股集团有限公司,浙江博时市政园林建设有限公司,杭州市余杭区瓶窑镇第一幼儿园,杭州市余杭区气象局),瓶窑镇(长命行政村-杭州市余杭区瓶窑镇人民政府,瓶窑行政村-杭州市余杭区瓶窑镇人民政府,华兴社区-杭州市余杭区瓶窑镇人民政府,张堰行政村-杭州市余杭区瓶窑镇北湖中心小学,里窑社区-杭州市瓶窑中学)","startTime":"2019-12-07 16:22:54","stopDate":"2019-12-07 17:20:54","orgNo":"3340140","typeCode":"电网故障停限电","poweroffArea":"35kV瓶镇变:圣堂H509线-澄清排涝分线开关后段","poweroffReason":"高压开关跳闸","powerTime":"2019-12-07 16:53:00","powerComm":"已送电","subsNo":"","lineNo":"","tgNo":"","tgName":null,"infoStatus":"1","orgName":"国网浙江杭州市余杭区供电有限公司","typeName":null,"infoStatusName":null,"dateDay":null,"orgNos":null,"nowTime":null,"countyName":null,"streetName":null,"villageName":null,"roadName":null,"communityName":null,"tranName":null,"sdLineName":null,"cityCode":"3340140","cityName":"国网浙江杭州市余杭区供电有限公司","provinceCode":null,"stopTime":"2019-12-07 17:20:54","powerType":"全部","powerOffArea":"35kV瓶镇变:圣堂H509线-澄清排涝分线开关后段","powerOffReason":"高压开关跳闸","powerOffId":"2019120731020186"},{"poweroffId":2019120731020180,"sgpoweroffId":null,"subsName":"","lineName":"10kV拔山D942线","pubTranName":"新联村2号大青坞公变,","scope":"浙江省-杭州市-富阳区-富春街道-拔山行政村(栗柴坞自然村,大青坞自然村,平山上自然村)","startTime":"2019-12-07 15:40:00","stopDate":"2019-12-07 16:40:00","orgNo":"3340170","typeCode":"电网故障停限电","poweroffArea":"110kV育才变:拔山D942线新联村2号大青坞公变配变","poweroffReason":"高压开关跳闸","powerTime":"2019-12-07 15:57:12","powerComm":"已送电","subsNo":"","lineNo":"","tgNo":"","tgName":null,"infoStatus":"1","orgName":"国网浙江杭州市富阳区供电公司","typeName":null,"infoStatusName":null,"dateDay":null,"orgNos":null,"nowTime":null,"countyName":null,"streetName":null,"villageName":null,"roadName":null,"communityName":null,"tranName":null,"sdLineName":null,"cityCode":"3340170","cityName":"国网浙江杭州市富阳区供电公司","provinceCode":null,"stopTime":"2019-12-07 16:40:00","powerType":"全部","powerOffArea":"110kV育才变:拔山D942线新联村2号大青坞公变配变","powerOffReason":"高压开关跳闸","powerOffId":"2019120731020180"},{"poweroffId":2019120731020177,"sgpoweroffId":null,"subsName":"","lineName":"10kV拔山D942线","pubTranName":"新联村1#栗柴坞1公变,新联村6#寺背后公变,新联村4#平山上公变,新联村平山上3号公变,富阳市兴泰包装厂,拔山村新联11号寺背后公变,拔山村新联12号栗柴坞公变,新联村14号栗柴坞公变,新联村5#栗柴坞2公变,新联村12号骑龙里公变,新联村9号平山上2公变,","scope":"浙江省-杭州市-富阳区-富春街道-拔山行政村-杭州富阳兴泰包装厂","startTime":"2019-12-07 15:40:00","stopDate":"2019-12-07 16:00:00","orgNo":"3340170","typeCode":"电网故障停限电","poweroffArea":"110kV育才变:拔山D942线-富阳市兴泰包装厂后段;拔山D942线首端，新联村平山上3号公变，新联村4#平山上公变，新联村6#寺背后公变，拔山村新联11号寺背后公变，新联村9号平山上2公变，新联村12号骑龙里公变，新联村14号栗柴坞公变，新联村1#栗柴坞1公变，新联村5#栗柴坞2公变，拔山村新联12号栗柴坞公变之间","poweroffReason":"高压开关跳闸","powerTime":"2019-12-07 15:55:30","powerComm":"已送电","subsNo":"","lineNo":"","tgNo":"","tgName":null,"infoStatus":"1","orgName":"国网浙江杭州市富阳区供电公司","typeName":null,"infoStatusName":null,"dateDay":null,"orgNos":null,"nowTime":null,"countyName":null,"streetName":null,"villageName":null,"roadName":null,"communityName":null,"tranName":null,"sdLineName":null,"cityCode":"3340170","cityName":"国网浙江杭州市富阳区供电公司","provinceCode":null,"stopTime":"2019-12-07 16:00:00","powerType":"全部","powerOffArea":"110kV育才变:拔山D942线-富阳市兴泰包装厂后段;拔山D942线首端，新联村平山上3号公变，新联村4#平山上公变，新联村6#寺背后公变，拔山村新联11号寺背后公变，新联村9号平山上2公变，新联村12号骑龙里公变，新联村14号栗柴坞公变，新联村1#栗柴坞1公变，新联村5#栗柴坞2公变，拔山村新联12号栗柴坞公变之间","powerOffReason":"高压开关跳闸","powerOffId":"2019120731020177"},{"poweroffId":2019120731020172,"sgpoweroffId":null,"subsName":"","lineName":"10kV杨家T106线","pubTranName":"金色港湾小区2号公变,","scope":"浙江省-杭州市-桐庐县-桐君街道-浮桥埠行政村-桥北路（金色港湾小区）","startTime":"2019-12-07 15:17:16","stopDate":"2019-12-07 18:00:16","orgNo":"3340150","typeCode":"电网故障停限电","poweroffArea":"110kV桐庐变:杨家T106线-金色港湾小区2号公变后段","poweroffReason":"(低压停电信息)低压开关跳闸","powerTime":"2019-12-07 17:45:30","powerComm":"已送电","subsNo":"","lineNo":"","tgNo":"","tgName":null,"infoStatus":"1","orgName":"国网浙江桐庐县供电公司","typeName":null,"infoStatusName":null,"dateDay":null,"orgNos":null,"nowTime":null,"countyName":null,"streetName":null,"villageName":null,"roadName":null,"communityName":null,"tranName":null,"sdLineName":null,"cityCode":"3340150","cityName":"国网浙江桐庐县供电公司","provinceCode":null,"stopTime":"2019-12-07 18:00:16","powerType":"全部","powerOffArea":"110kV桐庐变:杨家T106线-金色港湾小区2号公变后段","powerOffReason":"(低压停电信息)低压开关跳闸","powerOffId":"2019120731020172"},{"poweroffId":2019120731020162,"sgpoweroffId":null,"subsName":"","lineName":"10kV德北C140线","pubTranName":"斯迈步达线业(1321017303),杭州信南塑业有限公司变压器,艾尔杰纺织厂,杭州垒鑫包装制品有限公司,协谊村13#变,协谊村11#变,协谊村2#变,菲达鞋业(1315078605),协谊村5#变,协谊村4#变,英特塑料电器(1315087296),杭州市萧山区人民政府靖江街道办事处,萧山东片污水处理(1315081462),协谊村12#变,协谊村3#变,","scope":"浙江省-杭州市-萧山区-靖江街道-协谊行政村-协谊自然村;浙江省-杭州市-萧山区-靖江街道-花神庙社区-杭州市萧山区人民政府靖江街道办事处,靖江街道-协谊行政村(杭州贝耀纺织有限公司,杭州美特塑料电器有限公司,杭州信南塑业有限公司,杭州萧山污水处理有限公司,杭州菲达鞋业有限公司,杭州艾尔杰纺织厂,杭州垒鑫包装制品有限公司)一带","startTime":"2019-12-07 14:52:53","stopDate":"2019-12-07 17:05:53","orgNo":"3340130","typeCode":"电网故障停限电","poweroffArea":"110kV梅西变:德北C140线-德北C1401开关(自)后段","poweroffReason":"高压开关跳闸 原停电结束时间为2019-12-07 18:52:53,为减少客户停电时间,加快工作进度,提前送电,现变更停电结束时间为2019-12-07 17:05:53","powerTime":"2019-12-07 16:15:58","powerComm":"已送电","subsNo":"","lineNo":"","tgNo":"","tgName":null,"infoStatus":"1","orgName":"国网浙江杭州市萧山区供电有限公司","typeName":null,"infoStatusName":null,"dateDay":null,"orgNos":null,"nowTime":null,"countyName":null,"streetName":null,"villageName":null,"roadName":null,"communityName":null,"tranName":null,"sdLineName":null,"cityCode":"3340130","cityName":"国网浙江杭州市萧山区供电有限公司","provinceCode":null,"stopTime":"2019-12-07 17:05:53","powerType":"全部","powerOffArea":"110kV梅西变:德北C140线-德北C1401开关(自)后段","powerOffReason":"高压开关跳闸 原停电结束时间为2019-12-07 18:52:53,为减少客户停电时间,加快工作进度,提前送电,现变更停电结束时间为2019-12-07 17:05:53","powerOffId":"2019120731020162"},{"poweroffId":2019120731020159,"sgpoweroffId":null,"subsName":"","lineName":"10kV怡合199线","pubTranName":"枫树坞2号公变,枫树坞1号公变,","scope":"浙江省-杭州市-桐庐县-分水镇-百岁坊行政村-枫树坞自然村","startTime":"2019-12-07 14:40:00","stopDate":"2019-12-07 16:40:00","orgNo":"3340150","typeCode":"电网故障停限电","poweroffArea":"35kV合村变:怡合199线枫树坞F9615后段","poweroffReason":"(低压停电信息)低压开关跳闸","powerTime":"2019-12-07 16:11:55","powerComm":"已送电","subsNo":"","lineNo":"","tgNo":"","tgName":null,"infoStatus":"1","orgName":"国网浙江桐庐县供电公司","typeName":null,"infoStatusName":null,"dateDay":null,"orgNos":null,"nowTime":null,"countyName":null,"streetName":null,"villageName":null,"roadName":null,"communityName":null,"tranName":null,"sdLineName":null,"cityCode":"3340150","cityName":"国网浙江桐庐县供电公司","provinceCode":null,"stopTime":"2019-12-07 16:40:00","powerType":"全部","powerOffArea":"35kV合村变:怡合199线枫树坞F9615后段","powerOffReason":"(低压停电信息)低压开关跳闸","powerOffId":"2019120731020159"},{"poweroffId":2019120731020151,"sgpoweroffId":null,"subsName":"","lineName":"10kV凤凰D586线","pubTranName":"长山村2#凤凰山公变,","scope":"浙江省-杭州市-富阳区-银湖街道-观前行政村(长山凤凰山自然村,周公坞自然村,大长山自然村,长山自然村,凤凰山脚自然村,观前自然村),银湖街道(郜村行政村-宋家塘自然村,高桥行政村-高桥自然村)","startTime":"2019-12-07 14:18:17","stopDate":"2019-12-07 16:18:17","orgNo":"3340170","typeCode":"电网故障停限电","poweroffArea":"110kV高桥变:凤凰D586线-长山村2#凤凰山公变后段","poweroffReason":"高压开关跳闸","powerTime":"2019-12-07 15:56:42","powerComm":"已送电","subsNo":"","lineNo":"","tgNo":"","tgName":null,"infoStatus":"1","orgName":"国网浙江杭州市富阳区供电公司","typeName":null,"infoStatusName":null,"dateDay":null,"orgNos":null,"nowTime":null,"countyName":null,"streetName":null,"villageName":null,"roadName":null,"communityName":null,"tranName":null,"sdLineName":null,"cityCode":"3340170","cityName":"国网浙江杭州市富阳区供电公司","provinceCode":null,"stopTime":"2019-12-07 16:18:17","powerType":"全部","powerOffArea":"110kV高桥变:凤凰D586线-长山村2#凤凰山公变后段","powerOffReason":"高压开关跳闸","powerOffId":"2019120731020151"},{"poweroffId":2019120731020146,"sgpoweroffId":null,"subsName":"","lineName":"10kV香积8574线","pubTranName":"河道整治2#,南泵,河道整治1#,南八苑1#,十一中1#,运河香施1#,南六苑1#,车库2#,运河香施2#,南四苑(二),吉寓(二),检察1#,南八苑2#,十一中2#,杭钢(一),运河香施4#,钢宿二,检察2#,南八苑(3),南九苑1#,南九苑2#,南六苑(二),南四苑(一),南六苑2#,运河香施3#,车库1#,","scope":"浙江省-杭州市-拱墅区-大关街道-香积社区(大关南四苑小区,香积寺路,德苑路,大关南六苑小区,香积公寓),大关街道-南苑社区(香积寺路,德苑路,大关南八苑小区,大关南九苑小区),大关街道(大关南四苑社区-大关路,西苑第一社区-大关苑西路),小河街道-小河社区-小河路,上塘街道-拱宸社区-德苑路;大关街道(杭州华隆综合服务有限公司,杭州市路桥集团股份有限公司,杭州市运河综合保护开发建设集团有限责任公司),上塘街道(杭州市城市管理局,杭州市水务集团有限公司供水泵站分公司,浙江省杭州第十一中学)","startTime":"2019-12-07 13:24:00","stopDate":"2019-12-07 14:44:00","orgNo":"3340101","typeCode":"电网故障停限电","poweroffArea":"220kV霞湾变:香积8574线建华站香积8574线后段","poweroffReason":"高压开关跳闸 原停电结束时间为2019-12-07 15:24:00,为减少客户停电时间,加快工作进度,提前送电,现变更停电结束时间为2019-12-07 14:44:00","powerTime":"2019-12-07 14:03:14","powerComm":"已送电","subsNo":"","lineNo":"","tgNo":"","tgName":null,"infoStatus":"1","orgName":"浙江杭州电力客户服务中心","typeName":null,"infoStatusName":null,"dateDay":null,"orgNos":null,"nowTime":null,"countyName":null,"streetName":null,"villageName":null,"roadName":null,"communityName":null,"tranName":null,"sdLineName":null,"cityCode":"3340101","cityName":"浙江杭州电力客户服务中心","provinceCode":null,"stopTime":"2019-12-07 14:44:00","powerType":"全部","powerOffArea":"220kV霞湾变:香积8574线建华站香积8574线后段","powerOffReason":"高压开关跳闸 原停电结束时间为2019-12-07 15:24:00,为减少客户停电时间,加快工作进度,提前送电,现变更停电结束时间为2019-12-07 14:44:00","powerOffId":"2019120731020146"}],"pageModel":{"pageNow":736,"totalCount":17789,"totalPage":1779,"tableRows":0,"pageCount":10,"beginCount":7350},"isExperi":"1"}