{"message":"","today":"2020-06-15","seleList":[{"poweroffId":2019120631020563,"sgpoweroffId":null,"subsName":"","lineName":"10kV龙门D787线","pubTranName":"环联村3#环四球场公变,","scope":"浙江省-杭州市-富阳区-环山乡-环联行政村(环四桥南自然村,环四球场自然村)一带","startTime":"2019-12-16 08:30:00","stopDate":"2019-12-16 11:10:00","orgNo":"3340170","typeCode":"计划停电","poweroffArea":"110kV王洲变:龙门D787线-环联村3号环四球场公变后段","poweroffReason":"(低压停电信息)环联村3#环四球场公变公变漏电保护器轮换","powerTime":"2019-12-16 11:02:00","powerComm":"已送电","subsNo":"","lineNo":"","tgNo":"","tgName":null,"infoStatus":"1","orgName":"国网浙江杭州市富阳区供电公司","typeName":null,"infoStatusName":null,"dateDay":null,"orgNos":null,"nowTime":null,"countyName":null,"streetName":null,"villageName":null,"roadName":null,"communityName":null,"tranName":null,"sdLineName":null,"cityCode":"3340170","cityName":"国网浙江杭州市富阳区供电公司","provinceCode":null,"stopTime":"2019-12-16 11:10:00","powerType":"全部","powerOffArea":"110kV王洲变:龙门D787线-环联村3号环四球场公变后段","powerOffReason":"(低压停电信息)环联村3#环四球场公变公变漏电保护器轮换","powerOffId":"2019120631020563"},{"poweroffId":2019120631020562,"sgpoweroffId":null,"subsName":"","lineName":"10kV下商8957线","pubTranName":"德东(三),","scope":"浙江省杭州市下城区杭锅新,1-3、6-12,16-20幢、岳帅里144-148号附近","startTime":"2019-12-19 09:00:00","stopDate":"2019-12-19 14:50:00","orgNo":"3340101","typeCode":"计划停电","poweroffArea":"110kV东新变:下商8957线-下商站锅宿分线","poweroffReason":"锅宿分线消缺，锅宿分线2#杆拆除，锅宿分线进线电缆改接至3号杆电缆搭头 原停电结束时间为2019-12-19 17:30:00,为减少客户停电时间,加快工作进度,提前送电,现变更停电结束时间为2019-12-19 14:50:00","powerTime":"2019-12-19 14:01:59","powerComm":"已送电","subsNo":"","lineNo":"","tgNo":"","tgName":null,"infoStatus":"1","orgName":"浙江杭州电力客户服务中心","typeName":null,"infoStatusName":null,"dateDay":null,"orgNos":null,"nowTime":null,"countyName":null,"streetName":null,"villageName":null,"roadName":null,"communityName":null,"tranName":null,"sdLineName":null,"cityCode":"3340101","cityName":"浙江杭州电力客户服务中心","provinceCode":null,"stopTime":"2019-12-19 14:50:00","powerType":"全部","powerOffArea":"110kV东新变:下商8957线-下商站锅宿分线","powerOffReason":"锅宿分线消缺，锅宿分线2#杆拆除，锅宿分线进线电缆改接至3号杆电缆搭头 原停电结束时间为2019-12-19 17:30:00,为减少客户停电时间,加快工作进度,提前送电,现变更停电结束时间为2019-12-19 14:50:00","powerOffId":"2019120631020562"},{"poweroffId":2019120631020554,"sgpoweroffId":null,"subsName":"","lineName":"10kV绕东H764线","pubTranName":"文一路6#路灯,","scope":"浙江省杭州市余杭区五常街道：文一西路6号路灯一带","startTime":"2019-12-17 09:30:27","stopDate":"2019-12-17 14:00:00","orgNo":"3340140","typeCode":"计划停电","poweroffArea":"110kV五常变:绕东H764线-文一路6#分线开关后段原停电结束时间为2019-12-17 16:30:45,为减少客户停电时间,加快工作进度,提前送电,现变更停电结束时间为2019-12-17 14:00:00","poweroffReason":"浙江省杭州市余杭区五常街道：文一西路6号路灯一带 原停电结束时间为2019-12-17 16:30:45,为减少客户停电时间,加快工作进度,提前送电,现变更停电结束时间为2019-12-17 14:00:00","powerTime":"2019-12-17 13:44:50","powerComm":"已送电","subsNo":"","lineNo":"","tgNo":"","tgName":null,"infoStatus":"1","orgName":"国网浙江杭州市余杭区供电有限公司","typeName":null,"infoStatusName":null,"dateDay":null,"orgNos":null,"nowTime":null,"countyName":null,"streetName":null,"villageName":null,"roadName":null,"communityName":null,"tranName":null,"sdLineName":null,"cityCode":"3340140","cityName":"国网浙江杭州市余杭区供电有限公司","provinceCode":null,"stopTime":"2019-12-17 14:00:00","powerType":"全部","powerOffArea":"110kV五常变:绕东H764线-文一路6#分线开关后段原停电结束时间为2019-12-17 16:30:45,为减少客户停电时间,加快工作进度,提前送电,现变更停电结束时间为2019-12-17 14:00:00","powerOffReason":"浙江省杭州市余杭区五常街道：文一西路6号路灯一带 原停电结束时间为2019-12-17 16:30:45,为减少客户停电时间,加快工作进度,提前送电,现变更停电结束时间为2019-12-17 14:00:00","powerOffId":"2019120631020554"},{"poweroffId":2019120631020550,"sgpoweroffId":null,"subsName":"","lineName":"10kV绕东H764线","pubTranName":"水建中心1号基建,","scope":"浙江省杭州市余杭区五常街道：水建中心建设工地一带","startTime":"2019-12-16 09:30:11","stopDate":"2019-12-16 20:00:59","orgNo":"3340140","typeCode":"计划停电","poweroffArea":"1绕东H764线水建中心1号基建分线","poweroffReason":"绕东H764线水建中心1号基建分线 原停电结束时间为2019-12-16 17:30:59,因施工受阻原因,现变更停电结束时间为2019-12-16 20:00:59","powerTime":"2019-12-16 19:28:13","powerComm":"已送电","subsNo":"","lineNo":"","tgNo":"","tgName":null,"infoStatus":"1","orgName":"国网浙江杭州市余杭区供电有限公司","typeName":null,"infoStatusName":null,"dateDay":null,"orgNos":null,"nowTime":null,"countyName":null,"streetName":null,"villageName":null,"roadName":null,"communityName":null,"tranName":null,"sdLineName":null,"cityCode":"3340140","cityName":"国网浙江杭州市余杭区供电有限公司","provinceCode":null,"stopTime":"2019-12-16 20:00:59","powerType":"全部","powerOffArea":"1绕东H764线水建中心1号基建分线","powerOffReason":"绕东H764线水建中心1号基建分线 原停电结束时间为2019-12-16 17:30:59,因施工受阻原因,现变更停电结束时间为2019-12-16 20:00:59","powerOffId":"2019120631020550"},{"poweroffId":2019120631020549,"sgpoweroffId":null,"subsName":"","lineName":"10kV横塘V173线","pubTranName":"藻溪供电营业所,","scope":"浙江省-杭州市-临安市-天目山镇-藻溪行政村-浙江恒力电力承装有限公司一带","startTime":"2019-12-18 08:00:00","stopDate":"2019-12-18 23:50:00","orgNo":"3340160","typeCode":"计划停电","poweroffArea":"停35kV藻溪变:横塘V173线1#杆浙江恒力承装有限公司令克","poweroffReason":"改造","powerTime":"2019-12-18 23:40:49","powerComm":"已送电","subsNo":"","lineNo":"","tgNo":"","tgName":null,"infoStatus":"1","orgName":"国网浙江临安市供电公司","typeName":null,"infoStatusName":null,"dateDay":null,"orgNos":null,"nowTime":null,"countyName":null,"streetName":null,"villageName":null,"roadName":null,"communityName":null,"tranName":null,"sdLineName":null,"cityCode":"3340160","cityName":"国网浙江临安市供电公司","provinceCode":null,"stopTime":"2019-12-18 23:50:00","powerType":"全部","powerOffArea":"停35kV藻溪变:横塘V173线1#杆浙江恒力承装有限公司令克","powerOffReason":"改造","powerOffId":"2019120631020549"},{"poweroffId":2019120631020548,"sgpoweroffId":null,"subsName":"","lineName":"10kV横塘V173线","pubTranName":"浙江省交通投资集团实业发展有限公司临安服务区,","scope":"浙江省-杭州市-临安市-天目山镇-横塘行政村-浙江省交通投资集团实业发展有限公司临安服务区一带","startTime":"2019-12-17 08:30:00","stopDate":"2019-12-17 17:00:00","orgNo":"3340160","typeCode":"计划停电","poweroffArea":"停35kV藻溪变横塘V173线服务区分线7#杆浙江省交通投资集团实业发展有限公司临安服务区令克","poweroffReason":"业扩","powerTime":"2019-12-17 16:50:27","powerComm":"已送电","subsNo":"","lineNo":"","tgNo":"","tgName":null,"infoStatus":"1","orgName":"国网浙江临安市供电公司","typeName":null,"infoStatusName":null,"dateDay":null,"orgNos":null,"nowTime":null,"countyName":null,"streetName":null,"villageName":null,"roadName":null,"communityName":null,"tranName":null,"sdLineName":null,"cityCode":"3340160","cityName":"国网浙江临安市供电公司","provinceCode":null,"stopTime":"2019-12-17 17:00:00","powerType":"全部","powerOffArea":"停35kV藻溪变横塘V173线服务区分线7#杆浙江省交通投资集团实业发展有限公司临安服务区令克","powerOffReason":"业扩","powerOffId":"2019120631020548"},{"poweroffId":2019120631020517,"sgpoweroffId":null,"subsName":"","lineName":"10kV夏峰R169线","pubTranName":"当畈公变,","scope":"浙江省-杭州市-淳安县-枫树岭镇-枫树岭行政村-当畈自然村","startTime":"2019-12-18 08:30:00","stopDate":"2019-12-18 14:30:00","orgNo":"3340190","typeCode":"计划停电","poweroffArea":"35kV大市变:夏峰R169线-当畈支线0号杆跌落式熔断器后段","poweroffReason":"带电剪搭夏峰R169线当畈支线o杆熔丝具上引线当畈配变增容","powerTime":"2019-12-18 14:07:31","powerComm":"已送电","subsNo":"","lineNo":"","tgNo":"","tgName":null,"infoStatus":"1","orgName":"国网浙江淳安县供电有限公司","typeName":null,"infoStatusName":null,"dateDay":null,"orgNos":null,"nowTime":null,"countyName":null,"streetName":null,"villageName":null,"roadName":null,"communityName":null,"tranName":null,"sdLineName":null,"cityCode":"3340190","cityName":"国网浙江淳安县供电有限公司","provinceCode":null,"stopTime":"2019-12-18 14:30:00","powerType":"全部","powerOffArea":"35kV大市变:夏峰R169线-当畈支线0号杆跌落式熔断器后段","powerOffReason":"带电剪搭夏峰R169线当畈支线o杆熔丝具上引线当畈配变增容","powerOffId":"2019120631020517"},{"poweroffId":2019120631020499,"sgpoweroffId":null,"subsName":"","lineName":"10kV畔湖V329线","pubTranName":"江桥路2＃公变,江桥路3＃公变,诚和公寓,嘉禾公寓公变,","scope":"浙江省-杭州市-临安市-锦城街道-诚和公寓，嘉禾公寓，江桥路（钱王街至石镜街）一带。","startTime":"2019-12-20 08:15:00","stopDate":"2019-12-20 17:30:00","orgNo":"3340160","typeCode":"计划停电","poweroffArea":"110kV锦南变:畔湖V329线诚和站江桥路分线开关后段","poweroffReason":"杭州临安10千伏水岸V363线等网架优化工程: (1)畔湖V329线执诚3293线[诚和站]G4柜江桥路分线原电缆拆头,与来自畔湖V329线[1#开闭所]G3柜新电缆插拔头制作，试验和搭头工作","powerTime":"2019-12-20 17:20:33","powerComm":"已送电","subsNo":"","lineNo":"","tgNo":"","tgName":null,"infoStatus":"1","orgName":"国网浙江临安市供电公司","typeName":null,"infoStatusName":null,"dateDay":null,"orgNos":null,"nowTime":null,"countyName":null,"streetName":null,"villageName":null,"roadName":null,"communityName":null,"tranName":null,"sdLineName":null,"cityCode":"3340160","cityName":"国网浙江临安市供电公司","provinceCode":null,"stopTime":"2019-12-20 17:30:00","powerType":"全部","powerOffArea":"110kV锦南变:畔湖V329线诚和站江桥路分线开关后段","powerOffReason":"杭州临安10千伏水岸V363线等网架优化工程: (1)畔湖V329线执诚3293线[诚和站]G4柜江桥路分线原电缆拆头,与来自畔湖V329线[1#开闭所]G3柜新电缆插拔头制作，试验和搭头工作","powerOffId":"2019120631020499"},{"poweroffId":2019120631020498,"sgpoweroffId":null,"subsName":"","lineName":"10kV溪里R124线","pubTranName":"毛竹源2#,石林镇茶园村毛竹源1#公变,","scope":"浙江省-杭州市-淳安县-石林镇-茶园行政村(毛竹源一自然村,毛竹源二自然村,茶园自然村)","startTime":"2019-12-19 08:30:00","stopDate":"2019-12-19 11:30:00","orgNo":"3340190","typeCode":"计划停电","poweroffArea":"35kV淡竹变:溪里R124线-毛竹源支线2+1号杆开关后段","poweroffReason":"1.溪里R124线毛竹源支线5号至6号杆临时电缆拆除2.毛竹源支线8号杆高桩拉制作","powerTime":"2019-12-19 11:22:47","powerComm":"已送电","subsNo":"","lineNo":"","tgNo":"","tgName":null,"infoStatus":"1","orgName":"国网浙江淳安县供电有限公司","typeName":null,"infoStatusName":null,"dateDay":null,"orgNos":null,"nowTime":null,"countyName":null,"streetName":null,"villageName":null,"roadName":null,"communityName":null,"tranName":null,"sdLineName":null,"cityCode":"3340190","cityName":"国网浙江淳安县供电有限公司","provinceCode":null,"stopTime":"2019-12-19 11:30:00","powerType":"全部","powerOffArea":"35kV淡竹变:溪里R124线-毛竹源支线2+1号杆开关后段","powerOffReason":"1.溪里R124线毛竹源支线5号至6号杆临时电缆拆除2.毛竹源支线8号杆高桩拉制作","powerOffId":"2019120631020498"},{"poweroffId":2019120631020497,"sgpoweroffId":null,"subsName":"","lineName":"10kV锦西V201线","pubTranName":"苕溪北路5号坝,","scope":"浙江省-杭州市-临安市-锦北街道-杭州市临安区城市建设投资集团有限公司一带","startTime":"2019-12-20 08:15:00","stopDate":"2019-12-20 13:30:00","orgNo":"3340160","typeCode":"计划停电","poweroffArea":"110kV锦城变:锦西V201线华府站临安市城建发展有限公司（5#坝）分线开关后段","poweroffReason":"锦西V201线华府站G5备用间隔新出电缆，新上临安市城建发展有限公司（5#坝）160KVA美变调换","powerTime":"2019-12-20 13:20:11","powerComm":"已送电","subsNo":"","lineNo":"","tgNo":"","tgName":null,"infoStatus":"1","orgName":"国网浙江临安市供电公司","typeName":null,"infoStatusName":null,"dateDay":null,"orgNos":null,"nowTime":null,"countyName":null,"streetName":null,"villageName":null,"roadName":null,"communityName":null,"tranName":null,"sdLineName":null,"cityCode":"3340160","cityName":"国网浙江临安市供电公司","provinceCode":null,"stopTime":"2019-12-20 13:30:00","powerType":"全部","powerOffArea":"110kV锦城变:锦西V201线华府站临安市城建发展有限公司（5#坝）分线开关后段","powerOffReason":"锦西V201线华府站G5备用间隔新出电缆，新上临安市城建发展有限公司（5#坝）160KVA美变调换","powerOffId":"2019120631020497"}],"pageModel":{"pageNow":741,"totalCount":17789,"totalPage":1779,"tableRows":0,"pageCount":10,"beginCount":7400},"isExperi":"1"}