{"message":"","today":"2020-06-15","seleList":[{"poweroffId":2019120631020496,"sgpoweroffId":null,"subsName":"","lineName":"10kV锦桥V119线","pubTranName":"临安红太阳物业管理有限公司,浙江满江红律师事务所,江桥路公变,","scope":"浙江省-杭州市-临安市-锦城街道-浙江满江红律师事务所,临安红太阳物业管理有限公司，江桥路（城中街至钱王街）一带。","startTime":"2019-12-19 08:30:00","stopDate":"2019-12-19 17:00:00","orgNo":"3340160","typeCode":"计划停电","poweroffArea":"110kV临安变:锦桥V119线和谐站江桥分线开关后段","poweroffReason":"杭州临安10千伏水岸V363线等网架优化工程: (1)锦桥V119线联和1196线[联运站]--[和谐站]侧电缆拆头,拆敷改接至新上K3[**站]G3柜电缆插拔头制作，试验和搭头工作。","powerTime":"2019-12-19 16:50:12","powerComm":"已送电","subsNo":"","lineNo":"","tgNo":"","tgName":null,"infoStatus":"1","orgName":"国网浙江临安市供电公司","typeName":null,"infoStatusName":null,"dateDay":null,"orgNos":null,"nowTime":null,"countyName":null,"streetName":null,"villageName":null,"roadName":null,"communityName":null,"tranName":null,"sdLineName":null,"cityCode":"3340160","cityName":"国网浙江临安市供电公司","provinceCode":null,"stopTime":"2019-12-19 17:00:00","powerType":"全部","powerOffArea":"110kV临安变:锦桥V119线和谐站江桥分线开关后段","powerOffReason":"杭州临安10千伏水岸V363线等网架优化工程: (1)锦桥V119线联和1196线[联运站]--[和谐站]侧电缆拆头,拆敷改接至新上K3[**站]G3柜电缆插拔头制作，试验和搭头工作。","powerOffId":"2019120631020496"},{"poweroffId":2019120631020495,"sgpoweroffId":null,"subsName":"","lineName":"10kV锦桥V119线","pubTranName":"紫景苑2＃公变,阳光苑公变,","scope":"浙江省-杭州市-临安市-锦城街道-阳光苑，紫景苑一带。","startTime":"2019-12-18 08:40:00","stopDate":"2019-12-18 14:30:00","orgNo":"3340160","typeCode":"计划停电","poweroffArea":"110kV临安变:锦桥V119线江桥分线4#杆阳光苑公变开关后段","poweroffReason":"国土V361线02项:杭州临安10千伏水岸V363线等网架优化工程: (1)国土V361线老嘉3617线[老车站]3617开关--[嘉和站]3617开关两侧电缆拆头,拆敷改接至新上K2[**站]电缆插拔头制作，试验和搭头工作","powerTime":"2019-12-18 14:00:53","powerComm":"已送电","subsNo":"","lineNo":"","tgNo":"","tgName":null,"infoStatus":"1","orgName":"国网浙江临安市供电公司","typeName":null,"infoStatusName":null,"dateDay":null,"orgNos":null,"nowTime":null,"countyName":null,"streetName":null,"villageName":null,"roadName":null,"communityName":null,"tranName":null,"sdLineName":null,"cityCode":"3340160","cityName":"国网浙江临安市供电公司","provinceCode":null,"stopTime":"2019-12-18 14:30:00","powerType":"全部","powerOffArea":"110kV临安变:锦桥V119线江桥分线4#杆阳光苑公变开关后段","powerOffReason":"国土V361线02项:杭州临安10千伏水岸V363线等网架优化工程: (1)国土V361线老嘉3617线[老车站]3617开关--[嘉和站]3617开关两侧电缆拆头,拆敷改接至新上K2[**站]电缆插拔头制作，试验和搭头工作","powerOffId":"2019120631020495"},{"poweroffId":2019120631020494,"sgpoweroffId":null,"subsName":"","lineName":"10kV上甘V114线","pubTranName":"锦南公变,锦南新村4#公变,锦南1#公变,","scope":"浙江省-杭州市-临安市-锦城街道-锦南新村，锦湖弄一带。","startTime":"2019-12-17 09:00:00","stopDate":"2019-12-17 17:00:00","orgNo":"3340160","typeCode":"计划停电","poweroffArea":"110kV临安变:上甘V114线20#杆汽车附件厂分线开关后段","poweroffReason":"上甘V114线02项:杭州临安10千伏水岸V363线等网架优化工程: (1)上甘V114线锦南新村支线6#杆高低压线路开耐张做拉线,6#-7#杆高低压线路拆旧线,拔旧杆工作。","powerTime":"2019-12-17 16:50:13","powerComm":"已送电","subsNo":"","lineNo":"","tgNo":"","tgName":null,"infoStatus":"1","orgName":"国网浙江临安市供电公司","typeName":null,"infoStatusName":null,"dateDay":null,"orgNos":null,"nowTime":null,"countyName":null,"streetName":null,"villageName":null,"roadName":null,"communityName":null,"tranName":null,"sdLineName":null,"cityCode":"3340160","cityName":"国网浙江临安市供电公司","provinceCode":null,"stopTime":"2019-12-17 17:00:00","powerType":"全部","powerOffArea":"110kV临安变:上甘V114线20#杆汽车附件厂分线开关后段","powerOffReason":"上甘V114线02项:杭州临安10千伏水岸V363线等网架优化工程: (1)上甘V114线锦南新村支线6#杆高低压线路开耐张做拉线,6#-7#杆高低压线路拆旧线,拔旧杆工作。","powerOffId":"2019120631020494"},{"poweroffId":2019120631020493,"sgpoweroffId":null,"subsName":"","lineName":"10kV休闲V108线","pubTranName":"杭州骏锦实业发展有限公司1#,杭州骏锦实业发展有限公司1#,杭州骏锦实业发展有限公司1#,","scope":"浙江省-杭州市-临安市-锦城街道-杭州骏锦实业发展有限公司一带。","startTime":"2019-12-17 08:15:00","stopDate":"2019-12-17 14:30:00","orgNo":"3340160","typeCode":"计划停电","poweroffArea":"110kV临安变:休闲108线创新站俊锦实业发展投资分线开关后段","poweroffReason":"杭州骏锦实业有限公司基建变移位","powerTime":"2019-12-17 14:20:09","powerComm":"已送电","subsNo":"","lineNo":"","tgNo":"","tgName":null,"infoStatus":"1","orgName":"国网浙江临安市供电公司","typeName":null,"infoStatusName":null,"dateDay":null,"orgNos":null,"nowTime":null,"countyName":null,"streetName":null,"villageName":null,"roadName":null,"communityName":null,"tranName":null,"sdLineName":null,"cityCode":"3340160","cityName":"国网浙江临安市供电公司","provinceCode":null,"stopTime":"2019-12-17 14:30:00","powerType":"全部","powerOffArea":"110kV临安变:休闲108线创新站俊锦实业发展投资分线开关后段","powerOffReason":"杭州骏锦实业有限公司基建变移位","powerOffId":"2019120631020493"},{"poweroffId":2019120631020492,"sgpoweroffId":null,"subsName":"","lineName":"10kV锦桥V119线","pubTranName":"城南市场2＃公变,","scope":"浙江省-杭州市-临安市-锦城街道-城南市场一带。","startTime":"2019-12-16 09:00:00","stopDate":"2019-12-16 15:00:00","orgNo":"3340160","typeCode":"计划停电","poweroffArea":"110kV临安变:锦桥V119线江桥分线6#杆城南市场开关后段","poweroffReason":"锦桥V119线03项:杭州临安10千伏水岸V363线等网架优化工程: (1)原锦桥V119线江桥路分线6#杆城南市场[高配]进线电缆中间接头制作, 改接至[K5-天龙站]G4柜剧院V321线新上[K5-天龙站]G4柜电缆插拔头制作,试验和搭头工作。","powerTime":"2019-12-16 14:50:23","powerComm":"已送电","subsNo":"","lineNo":"","tgNo":"","tgName":null,"infoStatus":"1","orgName":"国网浙江临安市供电公司","typeName":null,"infoStatusName":null,"dateDay":null,"orgNos":null,"nowTime":null,"countyName":null,"streetName":null,"villageName":null,"roadName":null,"communityName":null,"tranName":null,"sdLineName":null,"cityCode":"3340160","cityName":"国网浙江临安市供电公司","provinceCode":null,"stopTime":"2019-12-16 15:00:00","powerType":"全部","powerOffArea":"110kV临安变:锦桥V119线江桥分线6#杆城南市场开关后段","powerOffReason":"锦桥V119线03项:杭州临安10千伏水岸V363线等网架优化工程: (1)原锦桥V119线江桥路分线6#杆城南市场[高配]进线电缆中间接头制作, 改接至[K5-天龙站]G4柜剧院V321线新上[K5-天龙站]G4柜电缆插拔头制作,试验和搭头工作。","powerOffId":"2019120631020492"},{"poweroffId":2019120631020490,"sgpoweroffId":null,"subsName":"","lineName":"10kV钱王V326线","pubTranName":"临安市食品有限责任公司,","scope":"浙江省-杭州市-临安市-锦城街道-临安市食品有限责任公司一带。","startTime":"2019-12-16 09:00:00","stopDate":"2019-12-16 15:00:00","orgNo":"3340160","typeCode":"计划停电","poweroffArea":"110kV锦南变:钱王V326线21#杆临安市食品有限责任公司开关后段","poweroffReason":"锦桥V119线03项:杭州临安10千伏水岸V363线等网架优化工程: (1)原锦桥V119线江桥路分线6#杆城南市场[高配]进线电缆中间接头制作, 改接至[K5-天龙站]G4柜剧院V321线新上[K5-天龙站]G4柜电缆插拔头制作,试验和搭头工作","powerTime":"2019-12-16 14:50:25","powerComm":"已送电","subsNo":"","lineNo":"","tgNo":"","tgName":null,"infoStatus":"1","orgName":"国网浙江临安市供电公司","typeName":null,"infoStatusName":null,"dateDay":null,"orgNos":null,"nowTime":null,"countyName":null,"streetName":null,"villageName":null,"roadName":null,"communityName":null,"tranName":null,"sdLineName":null,"cityCode":"3340160","cityName":"国网浙江临安市供电公司","provinceCode":null,"stopTime":"2019-12-16 15:00:00","powerType":"全部","powerOffArea":"110kV锦南变:钱王V326线21#杆临安市食品有限责任公司开关后段","powerOffReason":"锦桥V119线03项:杭州临安10千伏水岸V363线等网架优化工程: (1)原锦桥V119线江桥路分线6#杆城南市场[高配]进线电缆中间接头制作, 改接至[K5-天龙站]G4柜剧院V321线新上[K5-天龙站]G4柜电缆插拔头制作,试验和搭头工作","powerOffId":"2019120631020490"},{"poweroffId":2019120631020487,"sgpoweroffId":null,"subsName":"","lineName":"10kV登隆7314线","pubTranName":"阮家(4),","scope":"无","startTime":"2019-12-18 09:30:00","stopDate":"2019-12-18 14:30:00","orgNo":"3340101","typeCode":"计划停电","poweroffArea":"220kV登云变:登隆7314线-阮家(4)后段","poweroffReason":"杭州地铁5号线莫干山路站10kV电力回迁工程（城北送变电） 天蓝83433线电缆迁改 熔接头一套原停电结束时间为2019-12-18 17:30:00,为减少客户停电时间,加快工作进度,提前送电,现变更停电结束时间为2019-12-18 14:30:00","powerTime":"2019-12-18 13:33:59","powerComm":"已送电","subsNo":"","lineNo":"","tgNo":"","tgName":null,"infoStatus":"1","orgName":"浙江杭州电力客户服务中心","typeName":null,"infoStatusName":null,"dateDay":null,"orgNos":null,"nowTime":null,"countyName":null,"streetName":null,"villageName":null,"roadName":null,"communityName":null,"tranName":null,"sdLineName":null,"cityCode":"3340101","cityName":"浙江杭州电力客户服务中心","provinceCode":null,"stopTime":"2019-12-18 14:30:00","powerType":"全部","powerOffArea":"220kV登云变:登隆7314线-阮家(4)后段","powerOffReason":"杭州地铁5号线莫干山路站10kV电力回迁工程（城北送变电） 天蓝83433线电缆迁改 熔接头一套原停电结束时间为2019-12-18 17:30:00,为减少客户停电时间,加快工作进度,提前送电,现变更停电结束时间为2019-12-18 14:30:00","powerOffId":"2019120631020487"},{"poweroffId":2019120631020479,"sgpoweroffId":null,"subsName":"","lineName":"10kV远公8769线","pubTranName":"元创,","scope":"浙江省杭州市拱墅区长乐路元创配变接入的用户","startTime":"2019-12-18 09:30:00","stopDate":"2019-12-18 14:30:00","orgNo":"3340101","typeCode":"计划停电","poweroffArea":"110kV大关变:远公8769线-谷创分线（元谷站-元创分站），元创分站元创配变、3#间隔，新元谷站9#间隔","poweroffReason":"文化发布中心10Kv元谷站迁改工程（城北电气承装） 元创分站改接至新元谷站9#间隔 原停电结束时间为2019-12-18 13:30:00,因工程量大原因,现变更停电结束时间为2019-12-18 14:30:00","powerTime":"2019-12-18 14:09:02","powerComm":"已送电","subsNo":"","lineNo":"","tgNo":"","tgName":null,"infoStatus":"1","orgName":"浙江杭州电力客户服务中心","typeName":null,"infoStatusName":null,"dateDay":null,"orgNos":null,"nowTime":null,"countyName":null,"streetName":null,"villageName":null,"roadName":null,"communityName":null,"tranName":null,"sdLineName":null,"cityCode":"3340101","cityName":"浙江杭州电力客户服务中心","provinceCode":null,"stopTime":"2019-12-18 14:30:00","powerType":"全部","powerOffArea":"110kV大关变:远公8769线-谷创分线（元谷站-元创分站），元创分站元创配变、3#间隔，新元谷站9#间隔","powerOffReason":"文化发布中心10Kv元谷站迁改工程（城北电气承装） 元创分站改接至新元谷站9#间隔 原停电结束时间为2019-12-18 13:30:00,因工程量大原因,现变更停电结束时间为2019-12-18 14:30:00","powerOffId":"2019120631020479"},{"poweroffId":2019120631020455,"sgpoweroffId":null,"subsName":"","lineName":"10kV浮桥T116线","pubTranName":"桐庐博瑞塑料制品有限公司,桐庐运输公司,桐庐城市建设投资有限公司,","scope":"浙江省-杭州市-桐庐县-桐君街道-浮桥埠行政村(桐庐运输公司,桐庐博瑞塑料制品有限公司,桐庐县市政园林建设管理处)","startTime":"2019-12-17 08:15:00","stopDate":"2019-12-17 14:30:00","orgNo":"3340150","typeCode":"计划停电","poweroffArea":"110kV桐庐变:浮桥T116线-通用F3148开关后段","poweroffReason":"杭州桐庐桐君浮桥埠村等台区配变及低压线路改造工程 原停电结束时间2019年12月17日 12:30:00，变更停电结束时间：2019年12月17日 14:30:00，原因：工作安排需要延期","powerTime":"2019-12-17 14:11:43","powerComm":"已送电","subsNo":"","lineNo":"","tgNo":"","tgName":null,"infoStatus":"1","orgName":"国网浙江桐庐县供电公司","typeName":null,"infoStatusName":null,"dateDay":null,"orgNos":null,"nowTime":null,"countyName":null,"streetName":null,"villageName":null,"roadName":null,"communityName":null,"tranName":null,"sdLineName":null,"cityCode":"3340150","cityName":"国网浙江桐庐县供电公司","provinceCode":null,"stopTime":"2019-12-17 14:30:00","powerType":"全部","powerOffArea":"110kV桐庐变:浮桥T116线-通用F3148开关后段","powerOffReason":"杭州桐庐桐君浮桥埠村等台区配变及低压线路改造工程 原停电结束时间2019年12月17日 12:30:00，变更停电结束时间：2019年12月17日 14:30:00，原因：工作安排需要延期","powerOffId":"2019120631020455"},{"poweroffId":2019120631020439,"sgpoweroffId":null,"subsName":"","lineName":"10kV风禾9611线","pubTranName":"田绿(一),","scope":"浙江省杭州市拱墅区朗诗田园绿郡1-6幢附近，南京朗诗物业管理有限公司（双路用户停单侧）","startTime":"2019-12-17 09:00:00","stopDate":"2019-12-17 19:30:00","orgNo":"3340101","typeCode":"计划停电","poweroffArea":"110kV华丰变:风禾9611线-依绿9611A线（绿郡站-依锦站）、田绿一线（绿郡站-田绿一站）、田绿三线（绿郡站-田绿三站）、绿山9611B线（绿郡站-山墅站）、绿郡站空调一线","poweroffReason":"圣都公寓等小区老旧设备更换一期工程1、绿郡站I段换柜。2.电缆拆、搭头试验等工作 原停电结束时间为2019-12-17 17:30:00,因工作量大原因,现变更停电结束时间为2019-12-17 19:30:00","powerTime":"2019-12-17 18:56:22","powerComm":"已送电","subsNo":"","lineNo":"","tgNo":"","tgName":null,"infoStatus":"1","orgName":"浙江杭州电力客户服务中心","typeName":null,"infoStatusName":null,"dateDay":null,"orgNos":null,"nowTime":null,"countyName":null,"streetName":null,"villageName":null,"roadName":null,"communityName":null,"tranName":null,"sdLineName":null,"cityCode":"3340101","cityName":"浙江杭州电力客户服务中心","provinceCode":null,"stopTime":"2019-12-17 19:30:00","powerType":"全部","powerOffArea":"110kV华丰变:风禾9611线-依绿9611A线（绿郡站-依锦站）、田绿一线（绿郡站-田绿一站）、田绿三线（绿郡站-田绿三站）、绿山9611B线（绿郡站-山墅站）、绿郡站空调一线","powerOffReason":"圣都公寓等小区老旧设备更换一期工程1、绿郡站I段换柜。2.电缆拆、搭头试验等工作 原停电结束时间为2019-12-17 17:30:00,因工作量大原因,现变更停电结束时间为2019-12-17 19:30:00","powerOffId":"2019120631020439"}],"pageModel":{"pageNow":742,"totalCount":17789,"totalPage":1779,"tableRows":0,"pageCount":10,"beginCount":7410},"isExperi":"1"}