{"message":"","today":"2020-06-15","seleList":[{"poweroffId":2020052931020798,"sgpoweroffId":null,"subsName":"","lineName":"10kV灵埠D621线","pubTranName":"灵桥镇人民政府（胜建闸排涝站）,灵桥村,富阳华达货运码头有限公司,灵桥村黄泥沙5号上台门公变,浙江裕众建设集团有限公司1号基建变,灵桥村胜利3#码头公变,","scope":"浙江省-杭州市-富阳区-灵桥镇-灵桥行政村(观坞自然村,灵桥自然村,黄泥沙自然村,胜利自然村)一带;灵桥镇-灵桥行政村(灵桥村,杭州富阳华达货运码头有限公司,浙江裕众建设集团有限公司,灵桥镇人民政府（胜建闸排涝站）)一带","startTime":"2020-06-08 17:30:00","stopDate":"2020-06-08 18:30:00","orgNo":"3340170","typeCode":"计划停电","poweroffArea":"110kV灵桥变:灵埠D621线-灵埠D6214开关后段","poweroffReason":"短时停电倒负荷","powerTime":"2020-06-08 18:20:12","powerComm":"已送电","subsNo":"","lineNo":"","tgNo":"","tgName":null,"infoStatus":"1","orgName":"国网浙江杭州市富阳区供电公司","typeName":null,"infoStatusName":null,"dateDay":null,"orgNos":null,"nowTime":null,"countyName":null,"streetName":null,"villageName":null,"roadName":null,"communityName":null,"tranName":null,"sdLineName":null,"cityCode":"3340170","cityName":"国网浙江杭州市富阳区供电公司","provinceCode":null,"stopTime":"2020-06-08 18:30:00","powerType":"全部","powerOffArea":"110kV灵桥变:灵埠D621线-灵埠D6214开关后段","powerOffReason":"短时停电倒负荷","powerOffId":"2020052931020798"},{"poweroffId":2020052931020771,"sgpoweroffId":null,"subsName":"","lineName":"10kV灵埠D621线","pubTranName":"浙江裕众建设集团有限公司1号基建变,灵桥村黄泥沙5号上台门公变,灵桥村胜利3#码头公变,富阳华达货运码头有限公司,灵桥村,灵桥镇人民政府（胜建闸排涝站）,","scope":"浙江省-杭州市-富阳区-灵桥镇-灵桥行政村(观坞自然村,灵桥自然村,黄泥沙自然村,胜利自然村)一带;灵桥镇-灵桥行政村(灵桥村,杭州富阳华达货运码头有限公司,浙江裕众建设集团有限公司,灵桥镇人民政府（胜建闸排涝站）)一带","startTime":"2020-06-08 06:30:00","stopDate":"2020-06-08 07:30:00","orgNo":"3340170","typeCode":"计划停电","poweroffArea":"110kV灵桥变:灵埠D621线-灵埠D6214开关后段","poweroffReason":"短时停电倒负荷","powerTime":"2020-06-08 07:22:39","powerComm":"已送电","subsNo":"","lineNo":"","tgNo":"","tgName":null,"infoStatus":"1","orgName":"国网浙江杭州市富阳区供电公司","typeName":null,"infoStatusName":null,"dateDay":null,"orgNos":null,"nowTime":null,"countyName":null,"streetName":null,"villageName":null,"roadName":null,"communityName":null,"tranName":null,"sdLineName":null,"cityCode":"3340170","cityName":"国网浙江杭州市富阳区供电公司","provinceCode":null,"stopTime":"2020-06-08 07:30:00","powerType":"全部","powerOffArea":"110kV灵桥变:灵埠D621线-灵埠D6214开关后段","powerOffReason":"短时停电倒负荷","powerOffId":"2020052931020771"},{"poweroffId":2020052931020760,"sgpoweroffId":null,"subsName":"","lineName":"10kV缤星9710线","pubTranName":"缤纷八变,","scope":"浙江省-杭州市-滨江区-西兴街道(水电社区-丹枫路,星民社区-星民村)浙江省杭州市滨江区缤纷小区8-1幢商场、9幢、10幢、12幢、13幢及11号住宅","startTime":"2020-06-09 09:30:00","stopDate":"2020-06-09 17:00:00","orgNo":"3340101","typeCode":"计划停电","poweroffArea":"110kV府前变:缤星9710线-缤纷八变后段","poweroffReason":"(低压停电信息)杭州市滨江区西兴街道办事处缤纷西苑、缤纷小区、滨安小区、滨康二苑加装电梯线路迁改工程（一期）","powerTime":"2020-06-09 16:26:44","powerComm":"已送电","subsNo":"","lineNo":"","tgNo":"","tgName":null,"infoStatus":"1","orgName":"浙江杭州电力客户服务中心","typeName":null,"infoStatusName":null,"dateDay":null,"orgNos":null,"nowTime":null,"countyName":null,"streetName":null,"villageName":null,"roadName":null,"communityName":null,"tranName":null,"sdLineName":null,"cityCode":"3340101","cityName":"浙江杭州电力客户服务中心","provinceCode":null,"stopTime":"2020-06-09 17:00:00","powerType":"全部","powerOffArea":"110kV府前变:缤星9710线-缤纷八变后段","powerOffReason":"(低压停电信息)杭州市滨江区西兴街道办事处缤纷西苑、缤纷小区、滨安小区、滨康二苑加装电梯线路迁改工程（一期）","powerOffId":"2020052931020760"},{"poweroffId":2020052931020748,"sgpoweroffId":null,"subsName":"","lineName":"10kV兴旺D558线","pubTranName":"巨利村7号赵家埠公变,","scope":"浙江省-杭州市-富阳区-富春街道-巨利社区-赵家埠93号、95号一带","startTime":"2020-06-02 08:50:00","stopDate":"2020-06-02 12:00:00","orgNo":"3340170","typeCode":"临时停电","poweroffArea":"110kV春江变:兴旺D558线-巨利村7号赵家埠公变后段","poweroffReason":"(低压停电信息)巨利村7#赵家埠公变2#开关1#出线赵家埠93号（赵关兴6611851637、6611851638）三相表2只、赵家埠95号（赵伟年6611851632、赵关兴6615097206）三相表2只，电缆搭接工作。","powerTime":"2020-06-02 11:50:29","powerComm":"已送电","subsNo":"","lineNo":"","tgNo":"","tgName":null,"infoStatus":"1","orgName":"国网浙江杭州市富阳区供电公司","typeName":null,"infoStatusName":null,"dateDay":null,"orgNos":null,"nowTime":null,"countyName":null,"streetName":null,"villageName":null,"roadName":null,"communityName":null,"tranName":null,"sdLineName":null,"cityCode":"3340170","cityName":"国网浙江杭州市富阳区供电公司","provinceCode":null,"stopTime":"2020-06-02 12:00:00","powerType":"全部","powerOffArea":"110kV春江变:兴旺D558线-巨利村7号赵家埠公变后段","powerOffReason":"(低压停电信息)巨利村7#赵家埠公变2#开关1#出线赵家埠93号（赵关兴6611851637、6611851638）三相表2只、赵家埠95号（赵伟年6611851632、赵关兴6615097206）三相表2只，电缆搭接工作。","powerOffId":"2020052931020748"},{"poweroffId":2020052931020746,"sgpoweroffId":null,"subsName":"","lineName":"10kV育才D812线","pubTranName":"前周路4号公变,","scope":"浙江省-杭州市-富阳区-富春街道-后周社区-孙权路132-5一带","startTime":"2020-06-01 08:50:00","stopDate":"2020-06-01 11:30:00","orgNo":"3340170","typeCode":"临时停电","poweroffArea":"110kV容大变:育才D812线-前周路4号公变后段","poweroffReason":"(低压停电信息)前周路4#公变2#开关1#出线孙权路132-5（周满儿6611042735）三相表1只及电缆搭接工作。","powerTime":"2020-06-01 11:14:48","powerComm":"已送电","subsNo":"","lineNo":"","tgNo":"","tgName":null,"infoStatus":"1","orgName":"国网浙江杭州市富阳区供电公司","typeName":null,"infoStatusName":null,"dateDay":null,"orgNos":null,"nowTime":null,"countyName":null,"streetName":null,"villageName":null,"roadName":null,"communityName":null,"tranName":null,"sdLineName":null,"cityCode":"3340170","cityName":"国网浙江杭州市富阳区供电公司","provinceCode":null,"stopTime":"2020-06-01 11:30:00","powerType":"全部","powerOffArea":"110kV容大变:育才D812线-前周路4号公变后段","powerOffReason":"(低压停电信息)前周路4#公变2#开关1#出线孙权路132-5（周满儿6611042735）三相表1只及电缆搭接工作。","powerOffId":"2020052931020746"},{"poweroffId":2020052931020745,"sgpoweroffId":null,"subsName":"","lineName":"10kV咸康D208线","pubTranName":"华家埭3号胡回垅公变,西邮村华家埭6#公变,","scope":"浙江省-杭州市-富阳区-富春街道-西邮行政村(华家埭自然村,下寨自然村,湖回垄自然村)","startTime":"2020-06-08 09:00:00","stopDate":"2020-06-08 20:30:00","orgNo":"3340170","typeCode":"计划停电","poweroffArea":"35kV大青变:咸康D208线-西邮村华家埭6#公变后段;咸康D208线-华家埭3#胡回垅公变后段","poweroffReason":"青云2020年大青变10kV间隔整理及咸康D208等线路网架优化工程 原停电结束时间为2020-06-08 18:00:00,因现场故障情况复杂,现变更停电结束时间为2020-06-08 20:30:00","powerTime":"2020-06-08 20:20:28","powerComm":"已送电","subsNo":"","lineNo":"","tgNo":"","tgName":null,"infoStatus":"1","orgName":"国网浙江杭州市富阳区供电公司","typeName":null,"infoStatusName":null,"dateDay":null,"orgNos":null,"nowTime":null,"countyName":null,"streetName":null,"villageName":null,"roadName":null,"communityName":null,"tranName":null,"sdLineName":null,"cityCode":"3340170","cityName":"国网浙江杭州市富阳区供电公司","provinceCode":null,"stopTime":"2020-06-08 20:30:00","powerType":"全部","powerOffArea":"35kV大青变:咸康D208线-西邮村华家埭6#公变后段;咸康D208线-华家埭3#胡回垅公变后段","powerOffReason":"青云2020年大青变10kV间隔整理及咸康D208等线路网架优化工程 原停电结束时间为2020-06-08 18:00:00,因现场故障情况复杂,现变更停电结束时间为2020-06-08 20:30:00","powerOffId":"2020052931020745"},{"poweroffId":2020052931020739,"sgpoweroffId":null,"subsName":"","lineName":"10kV九溪6804线","pubTranName":"溪车变,许村里变,许家埠变,九溪自行车会所,","scope":"浙江省-杭州市-西湖区-西湖街道-九溪村社区(九溪路,九溪徐村,徐村),西湖街道-九溪社区(九溪路,徐村);浙江省-杭州市-西湖区-西湖街道-九溪社区-杭州骏盛实业有限公司","startTime":"2020-05-29 16:49:39","stopDate":"2020-05-30 02:49:39","orgNo":"3340101","typeCode":"电网故障停限电","poweroffArea":"110kV复兴变:九溪6804线-溪九8046线后段","poweroffReason":"高压开关跳闸 原停电结束时间为2020-05-30 07:49:39,为减少客户停电时间,加快工作进度,提前送电,现变更停电结束时间为2020-05-30 02:49:39","powerTime":"2020-05-30 01:50:59","powerComm":"已送电","subsNo":"","lineNo":"","tgNo":"","tgName":null,"infoStatus":"1","orgName":"浙江杭州电力客户服务中心","typeName":null,"infoStatusName":null,"dateDay":null,"orgNos":null,"nowTime":null,"countyName":null,"streetName":null,"villageName":null,"roadName":null,"communityName":null,"tranName":null,"sdLineName":null,"cityCode":"3340101","cityName":"浙江杭州电力客户服务中心","provinceCode":null,"stopTime":"2020-05-30 02:49:39","powerType":"全部","powerOffArea":"110kV复兴变:九溪6804线-溪九8046线后段","powerOffReason":"高压开关跳闸 原停电结束时间为2020-05-30 07:49:39,为减少客户停电时间,加快工作进度,提前送电,现变更停电结束时间为2020-05-30 02:49:39","powerOffId":"2020052931020739"},{"poweroffId":2020052931020736,"sgpoweroffId":null,"subsName":"","lineName":"10kV咸康D208线","pubTranName":"栗元村4号田畈公变,","scope":"浙江省-杭州市-富阳区-富春街道-执中亭行政村-栗园自然村","startTime":"2020-06-08 08:15:00","stopDate":"2020-06-08 08:55:00","orgNo":"3340170","typeCode":"计划停电","poweroffArea":"35kV大青变:咸康D208线-栗元村4号田畈公变后段","poweroffReason":"青云2020年大青变10kV间隔整理及咸康D208等线路网架优化工程：栗元村4#田畈公变变压器0.4kv出线电缆改接至0.4kV发电机T接箱","powerTime":"2020-06-08 08:50:00","powerComm":"已送电","subsNo":"","lineNo":"","tgNo":"","tgName":null,"infoStatus":"1","orgName":"国网浙江杭州市富阳区供电公司","typeName":null,"infoStatusName":null,"dateDay":null,"orgNos":null,"nowTime":null,"countyName":null,"streetName":null,"villageName":null,"roadName":null,"communityName":null,"tranName":null,"sdLineName":null,"cityCode":"3340170","cityName":"国网浙江杭州市富阳区供电公司","provinceCode":null,"stopTime":"2020-06-08 08:55:00","powerType":"全部","powerOffArea":"35kV大青变:咸康D208线-栗元村4号田畈公变后段","powerOffReason":"青云2020年大青变10kV间隔整理及咸康D208等线路网架优化工程：栗元村4#田畈公变变压器0.4kv出线电缆改接至0.4kV发电机T接箱","powerOffId":"2020052931020736"},{"poweroffId":2020052931020734,"sgpoweroffId":null,"subsName":"","lineName":"10kV门口V295线","pubTranName":"10kV白鹤村[白鹤桥头]公变,","scope":"浙江省-杭州市-临安市-天目山镇白鹤村白鹤桥头一带","startTime":"2020-06-11 14:00:00","stopDate":"2020-06-11 16:00:00","orgNo":"3340160","typeCode":"计划停电","poweroffArea":"35kV西天目变门口V295线10kV白鹤村白鹤桥头公变乡政府2000线路边1000线低压闸刀","poweroffReason":"(低压停电信息)低压割接","powerTime":"2020-06-11 15:50:15","powerComm":"已送电","subsNo":"","lineNo":"","tgNo":"","tgName":null,"infoStatus":"1","orgName":"国网浙江临安市供电公司","typeName":null,"infoStatusName":null,"dateDay":null,"orgNos":null,"nowTime":null,"countyName":null,"streetName":null,"villageName":null,"roadName":null,"communityName":null,"tranName":null,"sdLineName":null,"cityCode":"3340160","cityName":"国网浙江临安市供电公司","provinceCode":null,"stopTime":"2020-06-11 16:00:00","powerType":"全部","powerOffArea":"35kV西天目变门口V295线10kV白鹤村白鹤桥头公变乡政府2000线路边1000线低压闸刀","powerOffReason":"(低压停电信息)低压割接","powerOffId":"2020052931020734"},{"poweroffId":2020052931020733,"sgpoweroffId":null,"subsName":"","lineName":"10kV严家V175线","pubTranName":"10kV杲村村[杲村金家]公变,","scope":"浙江省-杭州市-临安市-天目山镇-杲村行政村-杲村金家一带","startTime":"2020-06-11 07:30:00","stopDate":"2020-06-11 11:30:00","orgNo":"3340160","typeCode":"计划停电","poweroffArea":"35kV藻溪变严家V175线10kV杲村村杲村金家公变佳坞2000线闸刀","poweroffReason":"(低压停电信息)低压割接","powerTime":"2020-06-11 11:20:12","powerComm":"已送电","subsNo":"","lineNo":"","tgNo":"","tgName":null,"infoStatus":"1","orgName":"国网浙江临安市供电公司","typeName":null,"infoStatusName":null,"dateDay":null,"orgNos":null,"nowTime":null,"countyName":null,"streetName":null,"villageName":null,"roadName":null,"communityName":null,"tranName":null,"sdLineName":null,"cityCode":"3340160","cityName":"国网浙江临安市供电公司","provinceCode":null,"stopTime":"2020-06-11 11:30:00","powerType":"全部","powerOffArea":"35kV藻溪变严家V175线10kV杲村村杲村金家公变佳坞2000线闸刀","powerOffReason":"(低压停电信息)低压割接","powerOffId":"2020052931020733"}],"pageModel":{"pageNow":74,"totalCount":17786,"totalPage":1779,"tableRows":0,"pageCount":10,"beginCount":730},"isExperi":"1"}