{"message":"","today":"2020-06-15","seleList":[{"poweroffId":2019120631020399,"sgpoweroffId":null,"subsName":"","lineName":"10kV羊山H530线","pubTranName":"华兴社区凤溪路2号公变,","scope":"浙江省杭州市余杭区瓶窑镇：华兴社区凤溪路一带","startTime":"2019-12-16 08:40:00","stopDate":"2019-12-16 16:40:00","orgNo":"3340140","typeCode":"计划停电","poweroffArea":"羊山H530线华兴社区凤溪路2号公变","poweroffReason":"计划工作","powerTime":"2019-12-16 16:02:56","powerComm":"已送电","subsNo":"","lineNo":"","tgNo":"","tgName":null,"infoStatus":"1","orgName":"国网浙江杭州市余杭区供电有限公司","typeName":null,"infoStatusName":null,"dateDay":null,"orgNos":null,"nowTime":null,"countyName":null,"streetName":null,"villageName":null,"roadName":null,"communityName":null,"tranName":null,"sdLineName":null,"cityCode":"3340140","cityName":"国网浙江杭州市余杭区供电有限公司","provinceCode":null,"stopTime":"2019-12-16 16:40:00","powerType":"全部","powerOffArea":"羊山H530线华兴社区凤溪路2号公变","powerOffReason":"计划工作","powerOffId":"2019120631020399"},{"poweroffId":2019120631020397,"sgpoweroffId":null,"subsName":"","lineName":"10kV东塘G260线","pubTranName":"东风村华士角2号公变,","scope":"浙江省杭州市余杭区仁和街道：东风村华士角一带","startTime":"2019-12-17 08:00:00","stopDate":"2019-12-17 16:00:00","orgNo":"3340140","typeCode":"计划停电","poweroffArea":"110kV仁镇变:东塘G260线东风村华士角2号公变","poweroffReason":"(低压停电信息)2019年杭州余杭仁和0.4千伏万兆线东风村公变改造工程；东塘G260线华士角2#变低压台区；新放240平方低压电缆2根、新放低压120平方导线5档及接户线搭接5户工作","powerTime":"2019-12-17 15:21:19","powerComm":"已送电","subsNo":"","lineNo":"","tgNo":"","tgName":null,"infoStatus":"1","orgName":"国网浙江杭州市余杭区供电有限公司","typeName":null,"infoStatusName":null,"dateDay":null,"orgNos":null,"nowTime":null,"countyName":null,"streetName":null,"villageName":null,"roadName":null,"communityName":null,"tranName":null,"sdLineName":null,"cityCode":"3340140","cityName":"国网浙江杭州市余杭区供电有限公司","provinceCode":null,"stopTime":"2019-12-17 16:00:00","powerType":"全部","powerOffArea":"110kV仁镇变:东塘G260线东风村华士角2号公变","powerOffReason":"(低压停电信息)2019年杭州余杭仁和0.4千伏万兆线东风村公变改造工程；东塘G260线华士角2#变低压台区；新放240平方低压电缆2根、新放低压120平方导线5档及接户线搭接5户工作","powerOffId":"2019120631020397"},{"poweroffId":2019120631020395,"sgpoweroffId":null,"subsName":"","lineName":"10kV泊恩H620线","pubTranName":"杭州西溪山庄房地产开发有限公司,杭州西溪山庄房地产开发有限公司,西溪山庄7#基建变,西溪山庄8#基建变,杭州西溪山庄房地产开发有限公司,杭州西溪山庄房地产开发有限公司,杭州西溪山庄房地产开发有限公司,","scope":"浙江省杭州市余杭区余杭街道：西溪山庄基建工地一带","startTime":"2019-12-18 08:40:00","stopDate":"2019-12-18 16:30:00","orgNo":"3340140","typeCode":"计划停电","poweroffArea":"110kV桃源变:泊恩H620线-西溪山庄基建分支箱分线开关后段","poweroffReason":"计划工作 原停电结束时间为2019-12-18 11:30:00,因天气原因,现变更停电结束时间为2019-12-18 16:30:00","powerTime":"2019-12-18 16:05:08","powerComm":"已送电","subsNo":"","lineNo":"","tgNo":"","tgName":null,"infoStatus":"1","orgName":"国网浙江杭州市余杭区供电有限公司","typeName":null,"infoStatusName":null,"dateDay":null,"orgNos":null,"nowTime":null,"countyName":null,"streetName":null,"villageName":null,"roadName":null,"communityName":null,"tranName":null,"sdLineName":null,"cityCode":"3340140","cityName":"国网浙江杭州市余杭区供电有限公司","provinceCode":null,"stopTime":"2019-12-18 16:30:00","powerType":"全部","powerOffArea":"110kV桃源变:泊恩H620线-西溪山庄基建分支箱分线开关后段","powerOffReason":"计划工作 原停电结束时间为2019-12-18 11:30:00,因天气原因,现变更停电结束时间为2019-12-18 16:30:00","powerOffId":"2019120631020395"},{"poweroffId":2019120631020379,"sgpoweroffId":null,"subsName":"","lineName":"10kV临港G351线","pubTranName":"东风村岳山前东公变,","scope":"浙江省杭州市余杭区仁和街道东风村岳山前一带","startTime":"2019-12-19 08:30:00","stopDate":"2019-12-19 16:30:00","orgNo":"3340140","typeCode":"计划停电","poweroffArea":"110kV洛山变:临港G351线东风村岳山前东公变","poweroffReason":"(低压停电信息)2019年杭州余杭仁和0.4千伏万兆线东风村公变改造工程；临港G351线岳山2#变低压台区；新放240平方低压电缆1根及接户线搭接17户及移表工作；","powerTime":"2019-12-19 15:42:10","powerComm":"已送电","subsNo":"","lineNo":"","tgNo":"","tgName":null,"infoStatus":"1","orgName":"国网浙江杭州市余杭区供电有限公司","typeName":null,"infoStatusName":null,"dateDay":null,"orgNos":null,"nowTime":null,"countyName":null,"streetName":null,"villageName":null,"roadName":null,"communityName":null,"tranName":null,"sdLineName":null,"cityCode":"3340140","cityName":"国网浙江杭州市余杭区供电有限公司","provinceCode":null,"stopTime":"2019-12-19 16:30:00","powerType":"全部","powerOffArea":"110kV洛山变:临港G351线东风村岳山前东公变","powerOffReason":"(低压停电信息)2019年杭州余杭仁和0.4千伏万兆线东风村公变改造工程；临港G351线岳山2#变低压台区；新放240平方低压电缆1根及接户线搭接17户及移表工作；","powerOffId":"2019120631020379"},{"poweroffId":2019120631020378,"sgpoweroffId":null,"subsName":"","lineName":"10kV西山G257线","pubTranName":"花园村胡金坝北公变,","scope":"浙江省杭州市余杭区仁和街道：花园村胡金坝一带","startTime":"2019-12-19 09:00:00","stopDate":"2019-12-19 16:30:00","orgNo":"3340140","typeCode":"计划停电","poweroffArea":"110kV仁镇变:西山G257线花园村胡金坝北公变","poweroffReason":"(低压停电信息)2019年杭州余杭仁和0.4千伏黄家线东塘村公变改造工程；西山G257线胡金坝北变低压台区；调换240平方低压电缆2根，调换横担及落户线搭接工作。","powerTime":"2019-12-19 15:43:00","powerComm":"已送电","subsNo":"","lineNo":"","tgNo":"","tgName":null,"infoStatus":"1","orgName":"国网浙江杭州市余杭区供电有限公司","typeName":null,"infoStatusName":null,"dateDay":null,"orgNos":null,"nowTime":null,"countyName":null,"streetName":null,"villageName":null,"roadName":null,"communityName":null,"tranName":null,"sdLineName":null,"cityCode":"3340140","cityName":"国网浙江杭州市余杭区供电有限公司","provinceCode":null,"stopTime":"2019-12-19 16:30:00","powerType":"全部","powerOffArea":"110kV仁镇变:西山G257线花园村胡金坝北公变","powerOffReason":"(低压停电信息)2019年杭州余杭仁和0.4千伏黄家线东塘村公变改造工程；西山G257线胡金坝北变低压台区；调换240平方低压电缆2根，调换横担及落户线搭接工作。","powerOffId":"2019120631020378"},{"poweroffId":2019120631020362,"sgpoweroffId":null,"subsName":"","lineName":"10kV北郊G107线","pubTranName":"杭州市余杭区机关事务管理局,丘山大街2号公变,","scope":"浙江省杭州市余杭区南苑街道：丘山大街农贸市场、杭州市余杭区机关事务管理局 （总工会）一带","startTime":"2019-12-20 08:30:00","stopDate":"2019-12-20 13:30:00","orgNo":"3340140","typeCode":"计划停电","poweroffArea":"110kV临平变:农贸开关站北郊G107线农贸分支箱分线。","poweroffReason":"丘山大街2号箱变美变调换 原停电结束时间为2019-12-20 17:00:00,为减少客户停电时间,加快工作进度,提前送电,现变更停电结束时间为2019-12-20 13:30:00","powerTime":"2019-12-20 12:40:58","powerComm":"已送电","subsNo":"","lineNo":"","tgNo":"","tgName":null,"infoStatus":"1","orgName":"国网浙江杭州市余杭区供电有限公司","typeName":null,"infoStatusName":null,"dateDay":null,"orgNos":null,"nowTime":null,"countyName":null,"streetName":null,"villageName":null,"roadName":null,"communityName":null,"tranName":null,"sdLineName":null,"cityCode":"3340140","cityName":"国网浙江杭州市余杭区供电有限公司","provinceCode":null,"stopTime":"2019-12-20 13:30:00","powerType":"全部","powerOffArea":"110kV临平变:农贸开关站北郊G107线农贸分支箱分线。","powerOffReason":"丘山大街2号箱变美变调换 原停电结束时间为2019-12-20 17:00:00,为减少客户停电时间,加快工作进度,提前送电,现变更停电结束时间为2019-12-20 13:30:00","powerOffId":"2019120631020362"},{"poweroffId":2019120631020359,"sgpoweroffId":null,"subsName":"","lineName":"10kV塘埠H257线","pubTranName":"政府4号路灯变6120841574,义门亭,","scope":"浙江省杭州市余杭区瓶窑镇：浙江神华储运有限公司杭州义门亭加油站、瓶窑镇政府（4号路灯）一带","startTime":"2019-12-16 09:00:03","stopDate":"2019-12-16 16:00:00","orgNo":"3340140","typeCode":"临时停电","poweroffArea":"塘埠H257线樱花开关站樱琴H2573线-樱琴H25731开关之间","poweroffReason":"计划工作","powerTime":"2019-12-16 15:41:32","powerComm":"已送电","subsNo":"","lineNo":"","tgNo":"","tgName":null,"infoStatus":"1","orgName":"国网浙江杭州市余杭区供电有限公司","typeName":null,"infoStatusName":null,"dateDay":null,"orgNos":null,"nowTime":null,"countyName":null,"streetName":null,"villageName":null,"roadName":null,"communityName":null,"tranName":null,"sdLineName":null,"cityCode":"3340140","cityName":"国网浙江杭州市余杭区供电有限公司","provinceCode":null,"stopTime":"2019-12-16 16:00:00","powerType":"全部","powerOffArea":"塘埠H257线樱花开关站樱琴H2573线-樱琴H25731开关之间","powerOffReason":"计划工作","powerOffId":"2019120631020359"},{"poweroffId":2019120631020338,"sgpoweroffId":null,"subsName":"","lineName":"10kV长板8585线","pubTranName":"远大(一),","scope":"浙江省杭州市拱墅区远大花园小区","startTime":"2019-12-16 09:00:00","stopDate":"2019-12-16 15:00:00","orgNo":"3340101","typeCode":"计划停电","poweroffArea":"220kV霞湾变:长板8585线-远产站远大三线、远大一线","poweroffReason":"远产站远大三线消缺 原停电结束时间为2019-12-16 17:30:00,为减少客户停电时间,加快工作进度,提前送电,现变更停电结束时间为2019-12-16 15:00:00","powerTime":"2019-12-16 14:15:59","powerComm":"已送电","subsNo":"","lineNo":"","tgNo":"","tgName":null,"infoStatus":"1","orgName":"浙江杭州电力客户服务中心","typeName":null,"infoStatusName":null,"dateDay":null,"orgNos":null,"nowTime":null,"countyName":null,"streetName":null,"villageName":null,"roadName":null,"communityName":null,"tranName":null,"sdLineName":null,"cityCode":"3340101","cityName":"浙江杭州电力客户服务中心","provinceCode":null,"stopTime":"2019-12-16 15:00:00","powerType":"全部","powerOffArea":"220kV霞湾变:长板8585线-远产站远大三线、远大一线","powerOffReason":"远产站远大三线消缺 原停电结束时间为2019-12-16 17:30:00,为减少客户停电时间,加快工作进度,提前送电,现变更停电结束时间为2019-12-16 15:00:00","powerOffId":"2019120631020338"},{"poweroffId":2019120631020331,"sgpoweroffId":null,"subsName":"","lineName":"10kV潮鸣8178线","pubTranName":"兴和一变,兴和三变,兴和二变,","scope":"浙江省杭州市下城区兴和公寓5、6、9、10幢附近一带。杭州市下城区兴和公寓13幢-15幢附近一带。杭州市下城区刀茅巷79号、农贸、消防、商场附近一带。","startTime":"2019-12-20 09:30:00","stopDate":"2019-12-20 14:30:00","orgNo":"3340101","typeCode":"计划停电","poweroffArea":"110kV横河变:潮鸣8178线-兴和三变后段","poweroffReason":"杭州市下城区人民政府潮鸣街道办事处游泳巷（回龙庙前）美丽小巷改善工程电力上改下工程PD2019-07-012-QN 兴合三变进线电缆改接 原停电结束时间为17:30:00,为减少客户停电时间,加快工作进度,提前送电,现变更停电结束时间为14:30:00","powerTime":"2019-12-20 14:00:59","powerComm":"已送电","subsNo":"","lineNo":"","tgNo":"","tgName":null,"infoStatus":"1","orgName":"浙江杭州电力客户服务中心","typeName":null,"infoStatusName":null,"dateDay":null,"orgNos":null,"nowTime":null,"countyName":null,"streetName":null,"villageName":null,"roadName":null,"communityName":null,"tranName":null,"sdLineName":null,"cityCode":"3340101","cityName":"浙江杭州电力客户服务中心","provinceCode":null,"stopTime":"2019-12-20 14:30:00","powerType":"全部","powerOffArea":"110kV横河变:潮鸣8178线-兴和三变后段","powerOffReason":"杭州市下城区人民政府潮鸣街道办事处游泳巷（回龙庙前）美丽小巷改善工程电力上改下工程PD2019-07-012-QN 兴合三变进线电缆改接 原停电结束时间为17:30:00,为减少客户停电时间,加快工作进度,提前送电,现变更停电结束时间为14:30:00","powerOffId":"2019120631020331"},{"poweroffId":2019120631020330,"sgpoweroffId":null,"subsName":"","lineName":"10kV潮鸣8178线","pubTranName":"回龙,回四,","scope":"浙江省杭州市下城区回龙庙前、游泳巷附近一带。杭州市下城区回龙庙前36号、42号、回龙庙前1弄附近一带。","startTime":"2019-12-19 09:40:00","stopDate":"2019-12-19 15:30:00","orgNo":"3340101","typeCode":"计划停电","poweroffArea":"110kV横河变:潮鸣8178线-回龙后段;潮鸣8178线-回四后段","poweroffReason":"杭州市下城区人民政府潮鸣街道办事处游泳巷（回龙庙前）美丽小巷改善工程电力上改下工程PD2019-07-012-QN 原停电结束时间为17:30:00,为减少客户停电时间,加快工作进度,提前送电,现变更停电结束时间为15:30:00","powerTime":"2019-12-19 14:56:59","powerComm":"已送电","subsNo":"","lineNo":"","tgNo":"","tgName":null,"infoStatus":"1","orgName":"浙江杭州电力客户服务中心","typeName":null,"infoStatusName":null,"dateDay":null,"orgNos":null,"nowTime":null,"countyName":null,"streetName":null,"villageName":null,"roadName":null,"communityName":null,"tranName":null,"sdLineName":null,"cityCode":"3340101","cityName":"浙江杭州电力客户服务中心","provinceCode":null,"stopTime":"2019-12-19 15:30:00","powerType":"全部","powerOffArea":"110kV横河变:潮鸣8178线-回龙后段;潮鸣8178线-回四后段","powerOffReason":"杭州市下城区人民政府潮鸣街道办事处游泳巷（回龙庙前）美丽小巷改善工程电力上改下工程PD2019-07-012-QN 原停电结束时间为17:30:00,为减少客户停电时间,加快工作进度,提前送电,现变更停电结束时间为15:30:00","powerOffId":"2019120631020330"}],"pageModel":{"pageNow":744,"totalCount":17789,"totalPage":1779,"tableRows":0,"pageCount":10,"beginCount":7430},"isExperi":"1"}