{"message":"","today":"2020-06-15","seleList":[{"poweroffId":2019120531020353,"sgpoweroffId":null,"subsName":"","lineName":"10kV普农7119线","pubTranName":"","scope":"浙江省杭州市江干区保利城市果岭部分充电桩","startTime":"2019-12-19 09:30:00","stopDate":"2019-12-19 13:00:00","orgNo":"3340101","typeCode":"计划停电","poweroffArea":"110kV牛田变:普农7119线-梧桐（七）变B7-18后段","poweroffReason":"(低压停电信息)彭埠街道保利梧桐语负一层268号车位低压居民新装 原停电结束时间为2019-12-19 13:30:00,为减少客户停电时间,加快工作进度,提前送电,现变更停电结束时间为2019-12-19 13:00:00","powerTime":"2019-12-19 12:21:59","powerComm":"已送电","subsNo":"","lineNo":"","tgNo":"","tgName":null,"infoStatus":"1","orgName":"浙江杭州电力客户服务中心","typeName":null,"infoStatusName":null,"dateDay":null,"orgNos":null,"nowTime":null,"countyName":null,"streetName":null,"villageName":null,"roadName":null,"communityName":null,"tranName":null,"sdLineName":null,"cityCode":"3340101","cityName":"浙江杭州电力客户服务中心","provinceCode":null,"stopTime":"2019-12-19 13:00:00","powerType":"全部","powerOffArea":"110kV牛田变:普农7119线-梧桐（七）变B7-18后段","powerOffReason":"(低压停电信息)彭埠街道保利梧桐语负一层268号车位低压居民新装 原停电结束时间为2019-12-19 13:30:00,为减少客户停电时间,加快工作进度,提前送电,现变更停电结束时间为2019-12-19 13:00:00","powerOffId":"2019120531020353"},{"poweroffId":2019120531020352,"sgpoweroffId":null,"subsName":"","lineName":"10kV牛红7129线","pubTranName":"","scope":"浙江省杭州市江干区保利城市果岭部分充电桩","startTime":"2019-12-19 13:30:00","stopDate":"2019-12-19 16:00:00","orgNo":"3340101","typeCode":"计划停电","poweroffArea":"110kV牛田变:牛红7129线首端，东壹一站壹变一线东壹（一）变B1-8低压开关","poweroffReason":"(低压停电信息)彭埠镇红五月社区九和路世茂茂悦府10幢601车位号F31低压居民新装 原停电结束时间为2019-12-19 17:00:00,为减少客户停电时间,加快工作进度,提前送电,现变更停电结束时间为2019-12-19 16:00:00","powerTime":"2019-12-19 15:08:10","powerComm":"已送电","subsNo":"","lineNo":"","tgNo":"","tgName":null,"infoStatus":"1","orgName":"浙江杭州电力客户服务中心","typeName":null,"infoStatusName":null,"dateDay":null,"orgNos":null,"nowTime":null,"countyName":null,"streetName":null,"villageName":null,"roadName":null,"communityName":null,"tranName":null,"sdLineName":null,"cityCode":"3340101","cityName":"浙江杭州电力客户服务中心","provinceCode":null,"stopTime":"2019-12-19 16:00:00","powerType":"全部","powerOffArea":"110kV牛田变:牛红7129线首端，东壹一站壹变一线东壹（一）变B1-8低压开关","powerOffReason":"(低压停电信息)彭埠镇红五月社区九和路世茂茂悦府10幢601车位号F31低压居民新装 原停电结束时间为2019-12-19 17:00:00,为减少客户停电时间,加快工作进度,提前送电,现变更停电结束时间为2019-12-19 16:00:00","powerOffId":"2019120531020352"},{"poweroffId":2019120531020351,"sgpoweroffId":null,"subsName":"","lineName":"10kV沙农8225线","pubTranName":"","scope":"浙江省杭州市江干区和达城御观邸部分充电桩","startTime":"2019-12-18 09:30:00","stopDate":"2019-12-18 11:30:00","orgNo":"3340101","typeCode":"计划停电","poweroffArea":"110kV高教变:沙农8225线首端，和达御观邸509号车位，玉观邸地下111车位，玉观邸地下车库104号车位，玉观邸74号车位，玉观邸小区地下车库18号车位，御观邸小区371车位，玉观邸271车位，御观邸6幢1801室地下车库213号车位之间","poweroffReason":"(低压停电信息)下沙街道和达城御观邸5幢2单元2001车位号286低压居民新装 原停电结束时间为2019-12-18 13:30:00,为减少客户停电时间,加快工作进度,提前送电,现变更停电结束时间为2019-12-18 11:30:00","powerTime":"2019-12-18 10:54:59","powerComm":"已送电","subsNo":"","lineNo":"","tgNo":"","tgName":null,"infoStatus":"1","orgName":"浙江杭州电力客户服务中心","typeName":null,"infoStatusName":null,"dateDay":null,"orgNos":null,"nowTime":null,"countyName":null,"streetName":null,"villageName":null,"roadName":null,"communityName":null,"tranName":null,"sdLineName":null,"cityCode":"3340101","cityName":"浙江杭州电力客户服务中心","provinceCode":null,"stopTime":"2019-12-18 11:30:00","powerType":"全部","powerOffArea":"110kV高教变:沙农8225线首端，和达御观邸509号车位，玉观邸地下111车位，玉观邸地下车库104号车位，玉观邸74号车位，玉观邸小区地下车库18号车位，御观邸小区371车位，玉观邸271车位，御观邸6幢1801室地下车库213号车位之间","powerOffReason":"(低压停电信息)下沙街道和达城御观邸5幢2单元2001车位号286低压居民新装 原停电结束时间为2019-12-18 13:30:00,为减少客户停电时间,加快工作进度,提前送电,现变更停电结束时间为2019-12-18 11:30:00","powerOffId":"2019120531020351"},{"poweroffId":2019120531020350,"sgpoweroffId":null,"subsName":"","lineName":"10kV海城7169线","pubTranName":"","scope":"浙江省杭州市江干区野风海天城部分充电桩","startTime":"2019-12-18 13:30:00","stopDate":"2019-12-18 16:00:00","orgNo":"3340101","typeCode":"计划停电","poweroffArea":"110kV沿江变:海城7169线-滟山七站滟变七线滟山(七)变B15-6低压开关","poweroffReason":"(低压停电信息)下沙街道江干区下沙街道野风海天城地下车位F195号低压居民新装 原停电结束时间为2019-12-18 17:00:00,为减少客户停电时间,加快工作进度,提前送电,现变更停电结束时间为2019-12-18 16:00:00","powerTime":"2019-12-18 15:03:50","powerComm":"已送电","subsNo":"","lineNo":"","tgNo":"","tgName":null,"infoStatus":"1","orgName":"浙江杭州电力客户服务中心","typeName":null,"infoStatusName":null,"dateDay":null,"orgNos":null,"nowTime":null,"countyName":null,"streetName":null,"villageName":null,"roadName":null,"communityName":null,"tranName":null,"sdLineName":null,"cityCode":"3340101","cityName":"浙江杭州电力客户服务中心","provinceCode":null,"stopTime":"2019-12-18 16:00:00","powerType":"全部","powerOffArea":"110kV沿江变:海城7169线-滟山七站滟变七线滟山(七)变B15-6低压开关","powerOffReason":"(低压停电信息)下沙街道江干区下沙街道野风海天城地下车位F195号低压居民新装 原停电结束时间为2019-12-18 17:00:00,为减少客户停电时间,加快工作进度,提前送电,现变更停电结束时间为2019-12-18 16:00:00","powerOffId":"2019120531020350"},{"poweroffId":2019120531020349,"sgpoweroffId":null,"subsName":"","lineName":"10kV德早9489线","pubTranName":"滟山(七)变,","scope":"浙江省-杭州市-杭州市经济技术开发区-下沙街道-滟澜社区-上沙路","startTime":"2019-12-18 13:30:00","stopDate":"2019-12-18 16:00:00","orgNo":"3340101","typeCode":"计划停电","poweroffArea":"110kV上沙变:德早9489线-滟山(七)变后段;德早9489线-滟山(七)变B7-6低压开关","poweroffReason":"(低压停电信息)江干区下沙街道龙湖滟澜园茗轩地下车库1-0196低压居民新装 原停电结束时间为2019-12-18 17:00:00,为减少客户停电时间,加快工作进度,提前送电,现变更停电结束时间为2019-12-18 16:00:00","powerTime":"2019-12-18 15:03:54","powerComm":"已送电","subsNo":"","lineNo":"","tgNo":"","tgName":null,"infoStatus":"1","orgName":"浙江杭州电力客户服务中心","typeName":null,"infoStatusName":null,"dateDay":null,"orgNos":null,"nowTime":null,"countyName":null,"streetName":null,"villageName":null,"roadName":null,"communityName":null,"tranName":null,"sdLineName":null,"cityCode":"3340101","cityName":"浙江杭州电力客户服务中心","provinceCode":null,"stopTime":"2019-12-18 16:00:00","powerType":"全部","powerOffArea":"110kV上沙变:德早9489线-滟山(七)变后段;德早9489线-滟山(七)变B7-6低压开关","powerOffReason":"(低压停电信息)江干区下沙街道龙湖滟澜园茗轩地下车库1-0196低压居民新装 原停电结束时间为2019-12-18 17:00:00,为减少客户停电时间,加快工作进度,提前送电,现变更停电结束时间为2019-12-18 16:00:00","powerOffId":"2019120531020349"},{"poweroffId":2019120531020348,"sgpoweroffId":null,"subsName":"","lineName":"10kV秉信8228线","pubTranName":"","scope":"浙江省杭州市江干区恒盛公寓5号楼底商全停","startTime":"2019-12-18 09:30:00","stopDate":"2019-12-18 11:30:00","orgNo":"3340101","typeCode":"计划停电","poweroffArea":"110kV高教变:秉信8228线-元恒(六)变B6-2电缆分支箱后段","poweroffReason":"(低压停电信息)江干区下沙街道恒盛公寓垃圾房低压非居民新装 原停电结束时间为2019-12-18 13:30:00,为减少客户停电时间,加快工作进度,提前送电,现变更停电结束时间为2019-12-18 11:30:00","powerTime":"2019-12-18 10:54:59","powerComm":"已送电","subsNo":"","lineNo":"","tgNo":"","tgName":null,"infoStatus":"1","orgName":"浙江杭州电力客户服务中心","typeName":null,"infoStatusName":null,"dateDay":null,"orgNos":null,"nowTime":null,"countyName":null,"streetName":null,"villageName":null,"roadName":null,"communityName":null,"tranName":null,"sdLineName":null,"cityCode":"3340101","cityName":"浙江杭州电力客户服务中心","provinceCode":null,"stopTime":"2019-12-18 11:30:00","powerType":"全部","powerOffArea":"110kV高教变:秉信8228线-元恒(六)变B6-2电缆分支箱后段","powerOffReason":"(低压停电信息)江干区下沙街道恒盛公寓垃圾房低压非居民新装 原停电结束时间为2019-12-18 13:30:00,为减少客户停电时间,加快工作进度,提前送电,现变更停电结束时间为2019-12-18 11:30:00","powerOffId":"2019120531020348"},{"poweroffId":2019120531020347,"sgpoweroffId":null,"subsName":"","lineName":"10kV宁塘9732线","pubTranName":"","scope":"浙江省杭州市江干区钱江华府10幢人防区用电主供、11幢人防区用电主供、3幢楼1单元公共用电备供、3幢楼2单元公共用电备供","startTime":"2019-12-17 09:35:00","stopDate":"2019-12-17 11:30:00","orgNo":"3340101","typeCode":"计划停电","poweroffArea":"110kV下宁变:宁塘9732线首端，钱府（四）变B4-3、B4-4低压开关","poweroffReason":"(低压停电信息)钱江华府3幢1单元1203室充电桩电源接入 原停电结束时间为2019-12-17 12:00:00,为减少客户停电时间,加快工作进度,提前送电,现变更停电结束时间为2019-12-17 11:30:00","powerTime":"2019-12-17 10:58:59","powerComm":"已送电","subsNo":"","lineNo":"","tgNo":"","tgName":null,"infoStatus":"1","orgName":"浙江杭州电力客户服务中心","typeName":null,"infoStatusName":null,"dateDay":null,"orgNos":null,"nowTime":null,"countyName":null,"streetName":null,"villageName":null,"roadName":null,"communityName":null,"tranName":null,"sdLineName":null,"cityCode":"3340101","cityName":"浙江杭州电力客户服务中心","provinceCode":null,"stopTime":"2019-12-17 11:30:00","powerType":"全部","powerOffArea":"110kV下宁变:宁塘9732线首端，钱府（四）变B4-3、B4-4低压开关","powerOffReason":"(低压停电信息)钱江华府3幢1单元1203室充电桩电源接入 原停电结束时间为2019-12-17 12:00:00,为减少客户停电时间,加快工作进度,提前送电,现变更停电结束时间为2019-12-17 11:30:00","powerOffId":"2019120531020347"},{"poweroffId":2019120531020346,"sgpoweroffId":null,"subsName":"","lineName":"10kV沙早9480线","pubTranName":"澜轩(十四),","scope":"浙江省-杭州市-杭州市经济技术开发区-下沙街道-滟澜社区-上沙路","startTime":"2019-12-16 13:00:00","stopDate":"2019-12-16 16:00:00","orgNo":"3340101","typeCode":"计划停电","poweroffArea":"110kV上沙变:沙早9480线-澜轩(十四)后段","poweroffReason":"(低压停电信息)2019年杭州下沙低压业扩配套三期工程（宏迅1811HZ1801Z118A0000000）龙湖滟澜山二期15幢2205室车位号C-299充电桩电源接入","powerTime":"2019-12-16 15:01:56","powerComm":"已送电","subsNo":"","lineNo":"","tgNo":"","tgName":null,"infoStatus":"1","orgName":"浙江杭州电力客户服务中心","typeName":null,"infoStatusName":null,"dateDay":null,"orgNos":null,"nowTime":null,"countyName":null,"streetName":null,"villageName":null,"roadName":null,"communityName":null,"tranName":null,"sdLineName":null,"cityCode":"3340101","cityName":"浙江杭州电力客户服务中心","provinceCode":null,"stopTime":"2019-12-16 16:00:00","powerType":"全部","powerOffArea":"110kV上沙变:沙早9480线-澜轩(十四)后段","powerOffReason":"(低压停电信息)2019年杭州下沙低压业扩配套三期工程（宏迅1811HZ1801Z118A0000000）龙湖滟澜山二期15幢2205室车位号C-299充电桩电源接入","powerOffId":"2019120531020346"},{"poweroffId":2019120531020344,"sgpoweroffId":null,"subsName":"","lineName":"10kV林辉9593线","pubTranName":"","scope":"浙江省杭州市江干区汇澜公寓十三幢2单元双路主供（计量间）、十三幢1单元双路主供（计量间）、十四幢2单元双路主供（计量间）","startTime":"2019-12-16 09:40:00","stopDate":"2019-12-16 12:00:00","orgNo":"3340101","typeCode":"计划停电","poweroffArea":"110kV学林变:林辉9593线首端，汇澜（二）变B2-3、B2-4低压开关","poweroffReason":"(低压停电信息)2019年杭州下沙低压业扩配套三期工程（宏迅1811HZ1801Z118A0000000）汇澜二变门口14幢地下车库充电桩电源接入","powerTime":"2019-12-16 11:05:37","powerComm":"已送电","subsNo":"","lineNo":"","tgNo":"","tgName":null,"infoStatus":"1","orgName":"浙江杭州电力客户服务中心","typeName":null,"infoStatusName":null,"dateDay":null,"orgNos":null,"nowTime":null,"countyName":null,"streetName":null,"villageName":null,"roadName":null,"communityName":null,"tranName":null,"sdLineName":null,"cityCode":"3340101","cityName":"浙江杭州电力客户服务中心","provinceCode":null,"stopTime":"2019-12-16 12:00:00","powerType":"全部","powerOffArea":"110kV学林变:林辉9593线首端，汇澜（二）变B2-3、B2-4低压开关","powerOffReason":"(低压停电信息)2019年杭州下沙低压业扩配套三期工程（宏迅1811HZ1801Z118A0000000）汇澜二变门口14幢地下车库充电桩电源接入","powerOffId":"2019120531020344"},{"poweroffId":2019120531020343,"sgpoweroffId":null,"subsName":"","lineName":"10kV松综9071线","pubTranName":"栋梁,默沙东制药公司3,默沙东制药公司3,默沙东制药公司,天云,沙石(2),环境施,环境施2,华晟,联合,农垦路施,外海2,德全,默沙东制药公司3,松下电化1,外海,中凯,天燃气,钢厂,杭特,交工,近牛,松下电化3,","scope":"浙江省-杭州市-杭州市经济技术开发区-白杨街道-白杨社区(杭州杭路市政工程有限公司,杭州经济技术开发区城市建设发展中心),误白杨街道-误白杨社区(浙江省天然气开发有限公司,杭州欣康水处理设备有限公司,松下家电(中国)有限公司,杭州钢铁集团公司农场,杭州外海物流有限公司,杭州默沙东制药有限公司),误下沙街道-误下沙社区(杭州近江奶牛养殖有限公司,杭州华悦沥青混凝土有限公司,杭州德全建材有限公司),误九堡镇-误九堡社区(杭州栋梁储运有限公司,杭州杭特管业有限公司,杭州市江干区三卫砂石供应站),误九堡镇-误九塘社区-杭州市江干区华晟气体供应站,误白杨街道-元成社区-杭州市环境集团有限公司","startTime":"2019-12-16 09:00:00","stopDate":"2019-12-16 12:30:00","orgNo":"3340101","typeCode":"计划停电","poweroffArea":"110kV松合变:松综9071线（松合变-松综站（自））","poweroffReason":"(低压停电信息)松合变松综9071线电缆屏蔽层接地线消缺 原停电结束时间为2019-12-16 11:30:00,因工作量大原因,现变更停电结束时间为2019-12-16 12:30:00","powerTime":"2019-12-16 12:02:59","powerComm":"已送电","subsNo":"","lineNo":"","tgNo":"","tgName":null,"infoStatus":"1","orgName":"浙江杭州电力客户服务中心","typeName":null,"infoStatusName":null,"dateDay":null,"orgNos":null,"nowTime":null,"countyName":null,"streetName":null,"villageName":null,"roadName":null,"communityName":null,"tranName":null,"sdLineName":null,"cityCode":"3340101","cityName":"浙江杭州电力客户服务中心","provinceCode":null,"stopTime":"2019-12-16 12:30:00","powerType":"全部","powerOffArea":"110kV松合变:松综9071线（松合变-松综站（自））","powerOffReason":"(低压停电信息)松合变松综9071线电缆屏蔽层接地线消缺 原停电结束时间为2019-12-16 11:30:00,因工作量大原因,现变更停电结束时间为2019-12-16 12:30:00","powerOffId":"2019120531020343"}],"pageModel":{"pageNow":750,"totalCount":17789,"totalPage":1779,"tableRows":0,"pageCount":10,"beginCount":7490},"isExperi":"1"}