{"message":"","today":"2020-06-15","seleList":[{"poweroffId":2019120531020275,"sgpoweroffId":null,"subsName":"","lineName":"10kV南苑V565线","pubTranName":"国瑞大厦3号公变,","scope":"浙江省-杭州市-临安市-锦城街道-锦桥社区-钱王街","startTime":"2019-12-05 15:57:00","stopDate":"2019-12-05 17:15:00","orgNo":"3340160","typeCode":"电网故障停限电","poweroffArea":"110kV锦南变:南苑V565线国瑞大厦3号公变配变","poweroffReason":"高压开关跳闸","powerTime":"2019-12-05 16:42:11","powerComm":"已送电","subsNo":"","lineNo":"","tgNo":"","tgName":null,"infoStatus":"1","orgName":"国网浙江临安市供电公司","typeName":null,"infoStatusName":null,"dateDay":null,"orgNos":null,"nowTime":null,"countyName":null,"streetName":null,"villageName":null,"roadName":null,"communityName":null,"tranName":null,"sdLineName":null,"cityCode":"3340160","cityName":"国网浙江临安市供电公司","provinceCode":null,"stopTime":"2019-12-05 17:15:00","powerType":"全部","powerOffArea":"110kV锦南变:南苑V565线国瑞大厦3号公变配变","powerOffReason":"高压开关跳闸","powerOffId":"2019120531020275"},{"poweroffId":2019120531020243,"sgpoweroffId":null,"subsName":"","lineName":"10kV城四A617线","pubTranName":"徐家河公寓公变,","scope":"浙江省-杭州市-萧山区-城厢街道(商城社区-通惠路,育才东苑社区-通惠路,徐家河社区-通惠中路)，徐家河公寓一带","startTime":"2019-12-05 15:19:08","stopDate":"2019-12-05 16:19:08","orgNo":"3340130","typeCode":"电网故障停限电","poweroffArea":"110kV城东变:城四A617线-徐家河公寓公变后段","poweroffReason":"（低压停电信息）低压漏电保护器短路故障","powerTime":"2019-12-05 15:52:52","powerComm":"已送电","subsNo":"","lineNo":"","tgNo":"","tgName":null,"infoStatus":"1","orgName":"国网浙江杭州市萧山区供电有限公司","typeName":null,"infoStatusName":null,"dateDay":null,"orgNos":null,"nowTime":null,"countyName":null,"streetName":null,"villageName":null,"roadName":null,"communityName":null,"tranName":null,"sdLineName":null,"cityCode":"3340130","cityName":"国网浙江杭州市萧山区供电有限公司","provinceCode":null,"stopTime":"2019-12-05 16:19:08","powerType":"全部","powerOffArea":"110kV城东变:城四A617线-徐家河公寓公变后段","powerOffReason":"（低压停电信息）低压漏电保护器短路故障","powerOffId":"2019120531020243"},{"poweroffId":2019120531020241,"sgpoweroffId":null,"subsName":"","lineName":"10kV新春D938线","pubTranName":"新春村4#沈石岭公变,","scope":"浙江省-杭州市-富阳区-富春街道-杨清庙行政村(沈石岭自然村,杨清庙自然村,新春自然村)","startTime":"2019-12-05 15:20:58","stopDate":"2019-12-05 16:40:58","orgNo":"3340170","typeCode":"电网故障停限电","poweroffArea":"110kV育才变:新春D938线-新春村4#沈石岭公变后段","poweroffReason":"高压开关跳闸 原停电结束时间为2019-12-05 16:20:42,因政策原因,现变更停电结束时间为2019-12-05 16:40:42","powerTime":"2019-12-05 16:22:56","powerComm":"已送电","subsNo":"","lineNo":"","tgNo":"","tgName":null,"infoStatus":"1","orgName":"国网浙江杭州市富阳区供电公司","typeName":null,"infoStatusName":null,"dateDay":null,"orgNos":null,"nowTime":null,"countyName":null,"streetName":null,"villageName":null,"roadName":null,"communityName":null,"tranName":null,"sdLineName":null,"cityCode":"3340170","cityName":"国网浙江杭州市富阳区供电公司","provinceCode":null,"stopTime":"2019-12-05 16:40:58","powerType":"全部","powerOffArea":"110kV育才变:新春D938线-新春村4#沈石岭公变后段","powerOffReason":"高压开关跳闸 原停电结束时间为2019-12-05 16:20:42,因政策原因,现变更停电结束时间为2019-12-05 16:40:42","powerOffId":"2019120531020241"},{"poweroffId":2019120531020240,"sgpoweroffId":null,"subsName":"","lineName":"10kV新春D938线","pubTranName":"新春村15号沈石岭公变,新春村10#沈石岭2公变,","scope":"浙江省-杭州市-富阳区-富春街道-杨清庙行政村(沈石岭自然村,新春自然村)","startTime":"2019-12-05 15:20:16","stopDate":"2019-12-05 16:40:16","orgNo":"3340170","typeCode":"电网故障停限电","poweroffArea":"110kV育才变:新春D938线-新春D938线沈石岭支线开关后段","poweroffReason":"高压开关跳闸 原停电结束时间为2019-12-05 16:20:42,因政策原因,现变更停电结束时间为2019-12-05 16:40:42","powerTime":"2019-12-05 16:22:48","powerComm":"已送电","subsNo":"","lineNo":"","tgNo":"","tgName":null,"infoStatus":"1","orgName":"国网浙江杭州市富阳区供电公司","typeName":null,"infoStatusName":null,"dateDay":null,"orgNos":null,"nowTime":null,"countyName":null,"streetName":null,"villageName":null,"roadName":null,"communityName":null,"tranName":null,"sdLineName":null,"cityCode":"3340170","cityName":"国网浙江杭州市富阳区供电公司","provinceCode":null,"stopTime":"2019-12-05 16:40:16","powerType":"全部","powerOffArea":"110kV育才变:新春D938线-新春D938线沈石岭支线开关后段","powerOffReason":"高压开关跳闸 原停电结束时间为2019-12-05 16:20:42,因政策原因,现变更停电结束时间为2019-12-05 16:40:42","powerOffId":"2019120531020240"},{"poweroffId":2019120531020239,"sgpoweroffId":null,"subsName":"","lineName":"10kV新春D938线","pubTranName":"新春村8#铁铺里公变,","scope":"浙江省-杭州市-富阳区-富春街道-杨清庙行政村(铁浦里自然村,杨清庙自然村,新春自然村)","startTime":"2019-12-05 15:20:39","stopDate":"2019-12-05 16:40:39","orgNo":"3340170","typeCode":"电网故障停限电","poweroffArea":"110kV育才变:新春D938线-新春村8#铁铺里公变后段","poweroffReason":"高压开关跳闸 原停电结束时间为2019-12-05 16:20:42,因政策原因,现变更停电结束时间为2019-12-05 16:40:42","powerTime":"2019-12-05 16:22:41","powerComm":"已送电","subsNo":"","lineNo":"","tgNo":"","tgName":null,"infoStatus":"1","orgName":"国网浙江杭州市富阳区供电公司","typeName":null,"infoStatusName":null,"dateDay":null,"orgNos":null,"nowTime":null,"countyName":null,"streetName":null,"villageName":null,"roadName":null,"communityName":null,"tranName":null,"sdLineName":null,"cityCode":"3340170","cityName":"国网浙江杭州市富阳区供电公司","provinceCode":null,"stopTime":"2019-12-05 16:40:39","powerType":"全部","powerOffArea":"110kV育才变:新春D938线-新春村8#铁铺里公变后段","powerOffReason":"高压开关跳闸 原停电结束时间为2019-12-05 16:20:42,因政策原因,现变更停电结束时间为2019-12-05 16:40:42","powerOffId":"2019120531020239"},{"poweroffId":2019120531020238,"sgpoweroffId":null,"subsName":"","lineName":"10kV新春D938线","pubTranName":"新春村7#后山岭2公变,","scope":"浙江省-杭州市-富阳区-富春街道-杨清庙行政村(新春自然村,后山岭自然村)","startTime":"2019-12-05 15:20:42","stopDate":"2019-12-05 16:40:42","orgNo":"3340170","typeCode":"电网故障停限电","poweroffArea":"110kV育才变:新春D938线-新春村7#后山岭2公变后段","poweroffReason":"高压开关跳闸 原停电结束时间为2019-12-05 16:20:42,因政策原因,现变更停电结束时间为2019-12-05 16:40:42","powerTime":"2019-12-05 16:22:33","powerComm":"已送电","subsNo":"","lineNo":"","tgNo":"","tgName":null,"infoStatus":"1","orgName":"国网浙江杭州市富阳区供电公司","typeName":null,"infoStatusName":null,"dateDay":null,"orgNos":null,"nowTime":null,"countyName":null,"streetName":null,"villageName":null,"roadName":null,"communityName":null,"tranName":null,"sdLineName":null,"cityCode":"3340170","cityName":"国网浙江杭州市富阳区供电公司","provinceCode":null,"stopTime":"2019-12-05 16:40:42","powerType":"全部","powerOffArea":"110kV育才变:新春D938线-新春村7#后山岭2公变后段","powerOffReason":"高压开关跳闸 原停电结束时间为2019-12-05 16:20:42,因政策原因,现变更停电结束时间为2019-12-05 16:40:42","powerOffId":"2019120531020238"},{"poweroffId":2019120531020209,"sgpoweroffId":null,"subsName":"","lineName":"10kV徐七T338线","pubTranName":"陈家边1号公变,","scope":"浙江省-杭州市-桐庐县-莪山畲族乡-塘联行政村(塘下自然村,落山岭自然村)，畲族乡桐钟路123号一带","startTime":"2019-12-05 14:38:38","stopDate":"2019-12-05 16:38:38","orgNo":"3340150","typeCode":"电网故障停限电","poweroffArea":"110kV横村变:徐七T338线-陈家边1号公变后段","poweroffReason":"(低压停电信息)低压开关跳闸","powerTime":"2019-12-05 16:10:13","powerComm":"已送电","subsNo":"","lineNo":"","tgNo":"","tgName":null,"infoStatus":"1","orgName":"国网浙江桐庐县供电公司","typeName":null,"infoStatusName":null,"dateDay":null,"orgNos":null,"nowTime":null,"countyName":null,"streetName":null,"villageName":null,"roadName":null,"communityName":null,"tranName":null,"sdLineName":null,"cityCode":"3340150","cityName":"国网浙江桐庐县供电公司","provinceCode":null,"stopTime":"2019-12-05 16:38:38","powerType":"全部","powerOffArea":"110kV横村变:徐七T338线-陈家边1号公变后段","powerOffReason":"(低压停电信息)低压开关跳闸","powerOffId":"2019120531020209"},{"poweroffId":2019120531020207,"sgpoweroffId":null,"subsName":"","lineName":"10kV庙坞D830线","pubTranName":"包家淇1号下樟坞公变,","scope":"浙江省-杭州市-富阳区(新桐乡-新桐行政村-包家淇自然村,鹿山街道-蒋家行政村-蒋家自然村)","startTime":"2019-12-05 14:33:30","stopDate":"2019-12-05 16:33:30","orgNo":"3340170","typeCode":"电网故障停限电","poweroffArea":"110kV新桐变:庙坞D830线-包家淇1号下樟坞公变后段","poweroffReason":"高压开关跳闸 原停电结束时间为2019-12-05 15:33:30,因政策原因,现变更停电结束时间为2019-12-05 16:33:30","powerTime":"2019-12-05 15:35:12","powerComm":"已送电","subsNo":"","lineNo":"","tgNo":"","tgName":null,"infoStatus":"1","orgName":"国网浙江杭州市富阳区供电公司","typeName":null,"infoStatusName":null,"dateDay":null,"orgNos":null,"nowTime":null,"countyName":null,"streetName":null,"villageName":null,"roadName":null,"communityName":null,"tranName":null,"sdLineName":null,"cityCode":"3340170","cityName":"国网浙江杭州市富阳区供电公司","provinceCode":null,"stopTime":"2019-12-05 16:33:30","powerType":"全部","powerOffArea":"110kV新桐变:庙坞D830线-包家淇1号下樟坞公变后段","powerOffReason":"高压开关跳闸 原停电结束时间为2019-12-05 15:33:30,因政策原因,现变更停电结束时间为2019-12-05 16:33:30","powerOffId":"2019120531020207"},{"poweroffId":2019120531020205,"sgpoweroffId":null,"subsName":"","lineName":"10kV目野G920线","pubTranName":"中铁四局61206763091#变压器,余杭城市建设集团有限公司3#变压器,余杭城市建设集团有限公司1#变压器,","scope":"浙江省-杭州市-余杭区(乔司街道-杭州余杭城市建设集团有限公司,南苑街道-中铁四局集团第二工程有限公司)","startTime":"2019-12-05 14:26:00","stopDate":"2019-12-05 16:30:00","orgNo":"3340140","typeCode":"电网故障停限电","poweroffArea":"110kV庙港变:目野G920线北港开关站8号出线负荷开关后段","poweroffReason":"高压开关跳闸 原停电结束时间为2019-12-05 17:26:00,为减少客户停电时间,加快工作进度,提前送电,现变更停电结束时间为2019-12-05 16:30:00","powerTime":"2019-12-05 15:55:00","powerComm":"已送电","subsNo":"","lineNo":"","tgNo":"","tgName":null,"infoStatus":"1","orgName":"国网浙江杭州市余杭区供电有限公司","typeName":null,"infoStatusName":null,"dateDay":null,"orgNos":null,"nowTime":null,"countyName":null,"streetName":null,"villageName":null,"roadName":null,"communityName":null,"tranName":null,"sdLineName":null,"cityCode":"3340140","cityName":"国网浙江杭州市余杭区供电有限公司","provinceCode":null,"stopTime":"2019-12-05 16:30:00","powerType":"全部","powerOffArea":"110kV庙港变:目野G920线北港开关站8号出线负荷开关后段","powerOffReason":"高压开关跳闸 原停电结束时间为2019-12-05 17:26:00,为减少客户停电时间,加快工作进度,提前送电,现变更停电结束时间为2019-12-05 16:30:00","powerOffId":"2019120531020205"},{"poweroffId":2019120531020188,"sgpoweroffId":null,"subsName":"","lineName":"10kV上杭T274线","pubTranName":"春江西路1号公变,","scope":"浙江省-杭州市-桐庐县-城南街道-上杭社区-春江路","startTime":"2019-12-05 14:05:57","stopDate":"2019-12-05 14:42:57","orgNo":"3340150","typeCode":"电网故障停限电","poweroffArea":"35kV三合变:上杭T274线-春江西路1号公变后段","poweroffReason":"(低压停电信息)低压开关跳闸","powerTime":"2019-12-05 14:30:37","powerComm":"已送电","subsNo":"","lineNo":"","tgNo":"","tgName":null,"infoStatus":"1","orgName":"国网浙江桐庐县供电公司","typeName":null,"infoStatusName":null,"dateDay":null,"orgNos":null,"nowTime":null,"countyName":null,"streetName":null,"villageName":null,"roadName":null,"communityName":null,"tranName":null,"sdLineName":null,"cityCode":"3340150","cityName":"国网浙江桐庐县供电公司","provinceCode":null,"stopTime":"2019-12-05 14:42:57","powerType":"全部","powerOffArea":"35kV三合变:上杭T274线-春江西路1号公变后段","powerOffReason":"(低压停电信息)低压开关跳闸","powerOffId":"2019120531020188"}],"pageModel":{"pageNow":752,"totalCount":17789,"totalPage":1779,"tableRows":0,"pageCount":10,"beginCount":7510},"isExperi":"1"}