{"message":"","today":"2020-06-15","seleList":[{"poweroffId":2020052931020731,"sgpoweroffId":null,"subsName":"","lineName":"10kV建国V170线","pubTranName":"10kV严家村[严家大岭上]公变,","scope":"浙江省-杭州市-临安市-天目山镇-严家行政村-严家大岭上一带","startTime":"2020-06-10 14:00:00","stopDate":"2020-06-10 16:30:00","orgNo":"3340160","typeCode":"计划停电","poweroffArea":"35kV藻溪变建国V170线10kV严家村严家大岭上公变岭上2000线闸刀","poweroffReason":"(低压停电信息)低压割接","powerTime":"2020-06-10 16:20:05","powerComm":"已送电","subsNo":"","lineNo":"","tgNo":"","tgName":null,"infoStatus":"1","orgName":"国网浙江临安市供电公司","typeName":null,"infoStatusName":null,"dateDay":null,"orgNos":null,"nowTime":null,"countyName":null,"streetName":null,"villageName":null,"roadName":null,"communityName":null,"tranName":null,"sdLineName":null,"cityCode":"3340160","cityName":"国网浙江临安市供电公司","provinceCode":null,"stopTime":"2020-06-10 16:30:00","powerType":"全部","powerOffArea":"35kV藻溪变建国V170线10kV严家村严家大岭上公变岭上2000线闸刀","powerOffReason":"(低压停电信息)低压割接","powerOffId":"2020052931020731"},{"poweroffId":2020052931020729,"sgpoweroffId":null,"subsName":"","lineName":"10kV严家V175线","pubTranName":"10kV横塘村[甫上二]公变,","scope":"浙江省-杭州市-临安市-天目山镇-横塘行政村甫上一带","startTime":"2020-06-10 07:30:00","stopDate":"2020-06-10 12:30:00","orgNo":"3340160","typeCode":"计划停电","poweroffArea":"35kV藻溪变严家V175线10kV横塘村甫上二公变大坟山1000线青山弄2000线低压闸刀","poweroffReason":"(低压停电信息)低压割接 原停电结束时间为2020-06-10 12:00:00,因现场天气原因延期,现变更停电结束时间为2020-06-10 12:30:00","powerTime":"2020-06-10 11:50:49","powerComm":"已送电","subsNo":"","lineNo":"","tgNo":"","tgName":null,"infoStatus":"1","orgName":"国网浙江临安市供电公司","typeName":null,"infoStatusName":null,"dateDay":null,"orgNos":null,"nowTime":null,"countyName":null,"streetName":null,"villageName":null,"roadName":null,"communityName":null,"tranName":null,"sdLineName":null,"cityCode":"3340160","cityName":"国网浙江临安市供电公司","provinceCode":null,"stopTime":"2020-06-10 12:30:00","powerType":"全部","powerOffArea":"35kV藻溪变严家V175线10kV横塘村甫上二公变大坟山1000线青山弄2000线低压闸刀","powerOffReason":"(低压停电信息)低压割接 原停电结束时间为2020-06-10 12:00:00,因现场天气原因延期,现变更停电结束时间为2020-06-10 12:30:00","powerOffId":"2020052931020729"},{"poweroffId":2020052931020709,"sgpoweroffId":null,"subsName":"","lineName":"10kV胜利D622线","pubTranName":"浙江铁越建设有限公司1号基建变,","scope":"浙江省-杭州市-富阳区-灵桥镇-灵桥行政村-浙江铁越建设有限公司一带","startTime":"2020-06-08 05:30:00","stopDate":"2020-06-08 17:30:00","orgNo":"3340170","typeCode":"计划停电","poweroffArea":"110kV灵桥变:胜利D622线-铁越建设分线开关后段","poweroffReason":"灵桥安置小区（BC区块）电力迁改工程：浙江铁越建设有限公司1号基建变用户内部检修","powerTime":"2020-06-08 17:08:25","powerComm":"已送电","subsNo":"","lineNo":"","tgNo":"","tgName":null,"infoStatus":"1","orgName":"国网浙江杭州市富阳区供电公司","typeName":null,"infoStatusName":null,"dateDay":null,"orgNos":null,"nowTime":null,"countyName":null,"streetName":null,"villageName":null,"roadName":null,"communityName":null,"tranName":null,"sdLineName":null,"cityCode":"3340170","cityName":"国网浙江杭州市富阳区供电公司","provinceCode":null,"stopTime":"2020-06-08 17:30:00","powerType":"全部","powerOffArea":"110kV灵桥变:胜利D622线-铁越建设分线开关后段","powerOffReason":"灵桥安置小区（BC区块）电力迁改工程：浙江铁越建设有限公司1号基建变用户内部检修","powerOffId":"2020052931020709"},{"poweroffId":2020052931020708,"sgpoweroffId":null,"subsName":"","lineName":"10kV孩儿8324线","pubTranName":"杭州豪盛大酒店,下城公安分局,","scope":"浙江省-杭州市-下城区-武林街道-凤麟社区，下城公安分局双路单侧，浙江省杭州市下城区杭州豪盛大酒店","startTime":"2020-06-09 09:30:00","stopDate":"2020-06-09 13:30:00","orgNo":"3340101","typeCode":"计划停电","poweroffArea":"110kV昭庆变:孩儿8324线-公消二线后段","poweroffReason":"10kV广福站6#间隔公消二线T接 原停电结束时间为2020-06-09 17:00:00,为减少客户停电时间,加快工作进度,提前送电,现变更停电结束时间为2020-06-09 13:30:00","powerTime":"2020-06-09 12:40:59","powerComm":"已送电","subsNo":"","lineNo":"","tgNo":"","tgName":null,"infoStatus":"1","orgName":"浙江杭州电力客户服务中心","typeName":null,"infoStatusName":null,"dateDay":null,"orgNos":null,"nowTime":null,"countyName":null,"streetName":null,"villageName":null,"roadName":null,"communityName":null,"tranName":null,"sdLineName":null,"cityCode":"3340101","cityName":"浙江杭州电力客户服务中心","provinceCode":null,"stopTime":"2020-06-09 13:30:00","powerType":"全部","powerOffArea":"110kV昭庆变:孩儿8324线-公消二线后段","powerOffReason":"10kV广福站6#间隔公消二线T接 原停电结束时间为2020-06-09 17:00:00,为减少客户停电时间,加快工作进度,提前送电,现变更停电结束时间为2020-06-09 13:30:00","powerOffId":"2020052931020708"},{"poweroffId":2020052931020704,"sgpoweroffId":null,"subsName":"","lineName":"10kV爱华C752线","pubTranName":"杭州尤金传动设备有限公司,镇中村8#变,镇中村7#变,镇中村5#变,世安桥村10#变,镇中村12#变,镇中村6#变,世安桥村9#变,镇中村3#变,镇中村10#变,杭州艺河服饰有限公司,镇中村4#变,世安桥村7#变,镇中村2#变,杭州荣春制衣有限公司,杭州萧山党湾松森五金配件商行变压器间隔配电变压器,杭州科光金属制品有限公司,浙江中邦能源科技有限公司,世安桥村8#变,奥展实业有限公司,","scope":"浙江省-杭州市-萧山区-瓜沥镇-世安桥行政村(车安路,新农村自然村,世安桥自然村,八世路),党湾镇-镇中行政村(镇中自然村,爱华路,镇中路,新农村);瓜沥镇-杭州科光金属制品有限公司,党湾镇(杭州尤金传动设备有限公司,杭州荣春制衣有限公司,杭州艺河服饰有限公司,奥展实业有限公司,杭州萧山党湾松森五金配件商行,浙江中邦能源科技有限公司)","startTime":"2020-05-29 16:28:00","stopDate":"2020-05-29 17:45:55","orgNo":"3340130","typeCode":"电网故障停限电","poweroffArea":"35kV党湾变:爱华C752线爱华C7521开关后段","poweroffReason":"高压开关跳闸 原停电结束时间为2020-05-29 16:32:55,因工作难度大原因,延迟送电,现变更停电结束时间为2020-05-29 17:45:55","powerTime":"2020-05-29 16:51:06","powerComm":"已送电","subsNo":"","lineNo":"","tgNo":"","tgName":null,"infoStatus":"1","orgName":"国网浙江杭州市萧山区供电有限公司","typeName":null,"infoStatusName":null,"dateDay":null,"orgNos":null,"nowTime":null,"countyName":null,"streetName":null,"villageName":null,"roadName":null,"communityName":null,"tranName":null,"sdLineName":null,"cityCode":"3340130","cityName":"国网浙江杭州市萧山区供电有限公司","provinceCode":null,"stopTime":"2020-05-29 17:45:55","powerType":"全部","powerOffArea":"35kV党湾变:爱华C752线爱华C7521开关后段","powerOffReason":"高压开关跳闸 原停电结束时间为2020-05-29 16:32:55,因工作难度大原因,延迟送电,现变更停电结束时间为2020-05-29 17:45:55","powerOffId":"2020052931020704"},{"poweroffId":2020052931020699,"sgpoweroffId":null,"subsName":"","lineName":"10kV胜利D622线","pubTranName":"浙江奔腾市政园林建设工程有限公司1#变,","scope":"浙江省-杭州市-富阳区-灵桥镇-灵桥行政村-浙江奔腾市政园林建设工程有限公司一带","startTime":"2020-06-08 05:50:00","stopDate":"2020-06-08 17:30:00","orgNo":"3340170","typeCode":"计划停电","poweroffArea":"110kV灵桥变:胜利D622线-灵桥安置C区分线开关后段","poweroffReason":"灵桥安置小区（BC区块）电力迁改工程：胜利D622线12#杆、灵埠D621线12#杆—胜利D622线27#杆、灵埠D621线31#杆导线移位","powerTime":"2020-06-08 17:08:36","powerComm":"已送电","subsNo":"","lineNo":"","tgNo":"","tgName":null,"infoStatus":"1","orgName":"国网浙江杭州市富阳区供电公司","typeName":null,"infoStatusName":null,"dateDay":null,"orgNos":null,"nowTime":null,"countyName":null,"streetName":null,"villageName":null,"roadName":null,"communityName":null,"tranName":null,"sdLineName":null,"cityCode":"3340170","cityName":"国网浙江杭州市富阳区供电公司","provinceCode":null,"stopTime":"2020-06-08 17:30:00","powerType":"全部","powerOffArea":"110kV灵桥变:胜利D622线-灵桥安置C区分线开关后段","powerOffReason":"灵桥安置小区（BC区块）电力迁改工程：胜利D622线12#杆、灵埠D621线12#杆—胜利D622线27#杆、灵埠D621线31#杆导线移位","powerOffId":"2020052931020699"},{"poweroffId":2020052931020683,"sgpoweroffId":null,"subsName":"","lineName":"10kV九溪6804线","pubTranName":"西湖引水工程泵房4#,白塔六变,西湖引水工程泵房1#,浙江大学,之江输水管廊施一3#,渔政变,4#变压器,白塔十二变,浙江大学,7#变压器,园林4变,牙海二变,许村里变,九车变,复兴路南复路口泵房,2,西湖引水工程泵房3#,塔下变,杭州市玉皇山南综合整治工程指挥部,白塔十四变,玉皇指挥部2#,白塔二变,白塔十八变,2#变压器,5#变压器,5#变压器,1#变压器,杭州市玉皇山南综合整治工程指挥部,3#变压器,亚飞施,园林3变,白塔十变,西湖引水工程泵房,白塔十六变,市政河道养护所,江挥施一,园林2变,之江输水管廊施一1#,许家埠变,园林建设,6#变压器,白塔四变,历纪专变,2#,浙江大学4,市政河道养护所,西湖引水工程泵房2#,玉皇指挥部1#,6#变压器,浙江大学,上河变,白塔八变,华大基因,六和变,官家山变,园林1变,溪车变,杭州园文局钱江管理处,之江输水管廊施一2#,周王,1,九溪自行车会所,01,","scope":"浙江省-杭州市-上城区-南星街道-白塔岭社区-白塔人家兰巷、白塔人家兰巷(,白塔人家),西湖街道-九溪村社区(杭州市革命烈士纪念馆,之江路,九溪路,九溪徐村,徐村),南星街道-水澄桥社区(周王庙前后,闸口外尼龙山,复兴路与之江路交叉口,象牙海岸名墅),南星街道(玉皇山社区-之江路,复兴街社区-复兴里街,美政桥社区-美政路);南星街道(杭州市上城区河道建设工程指挥部,杭州市排水有限公司,杭州市革命烈士纪念馆,杭州市市政设施发展中心,杭州市玉皇山南综合整治工程指挥部,南都物业服务集团股份有限公司,浙江大学,西湖引水工程泵房,杭州新开元籍田大酒店有限公司,杭州西湖风景名胜区(杭州市园林文物局)钱江管理处,杭州市上城区城市管理局,杭州市玉皇山南基金小镇管理委员会,杭州泰悦置业有限公司),西湖街道(杭州骏盛实业有限公司,杭州西湖风景名胜区(杭州市园林文物局)钱江管理处,杭州市城市基础设施建设发展中心)","startTime":"2020-05-29 16:18:00","stopDate":"2020-05-29 18:00:00","orgNo":"3340101","typeCode":"电网故障停限电","poweroffArea":"110kV复兴变:九溪6804线九溪6804线开关后段","poweroffReason":"高压开关跳闸 原停电结束时间为2020-05-29 18:18:00,为减少客户停电时间,加快工作进度,提前送电,现变更停电结束时间为2020-05-29 18:00:00","powerTime":"2020-05-29 17:06:04","powerComm":"已送电","subsNo":"","lineNo":"","tgNo":"","tgName":null,"infoStatus":"1","orgName":"浙江杭州电力客户服务中心","typeName":null,"infoStatusName":null,"dateDay":null,"orgNos":null,"nowTime":null,"countyName":null,"streetName":null,"villageName":null,"roadName":null,"communityName":null,"tranName":null,"sdLineName":null,"cityCode":"3340101","cityName":"浙江杭州电力客户服务中心","provinceCode":null,"stopTime":"2020-05-29 18:00:00","powerType":"全部","powerOffArea":"110kV复兴变:九溪6804线九溪6804线开关后段","powerOffReason":"高压开关跳闸 原停电结束时间为2020-05-29 18:18:00,为减少客户停电时间,加快工作进度,提前送电,现变更停电结束时间为2020-05-29 18:00:00","powerOffId":"2020052931020683"},{"poweroffId":2020052931020676,"sgpoweroffId":null,"subsName":"","lineName":"10kV觉陇8794线","pubTranName":"1,4#,1#,上满觉陇变,3#,陆嘴一变,龙路,吉隧专变双路内部一,下满变,1,1#,园林文物局钱管处二,御茶变,烟树变,陆嘴二变,龙井村委会,鸡笼一变,岭龙变,杭州市自来水总公司,狮峰变,井村变,屏风,龙茶变,上海屏风疗养院三分院,嫦娥变,九龙变,吴刚变,双村专变,满觉陇酒店,井杨变,翁家变,路灯箱变,市园林文物局钱江管理处,奔月变,鸡笼二变,翁山茶村变,尊茂变,广电,吉隧专变双路内部二,辛馆,满陇桂雨变,钱江管理处,老龙井,民航疗养2#,鸡笼三变,月兔变,1,2#,国兴建设集团,龙九变,变压器,草堂变,钱屏变,电信,狮峰龙井变,村民变,变压器,民航疗养1#,梅溪变,","scope":"浙江省-杭州市-西湖区-西湖街道-满觉陇村社区(四眼井,上满觉陇,水乐洞,满觉陇路,杨家山,下满觉陇),西湖街道-翁家山村社区(翁家山村,翁家山,乾龙路),西湖街道-九溪村社区(九溪路,屏风山下,乾隆路,九龙苑),西湖街道-龙井村社区(龙井路,龙井村,龙井,下满觉陇),西湖街道-双峰村社区(外鸡笼山,里鸡笼山,鸡龙山,双峰村,双峰新村,龙井村),西湖街道-九溪社区(九溪路,九溪,五云路),西湖街道-灵隐社区(龙井路,龙井,杨梅岭,乾龙路),西湖区-西湖街道-茅家埠村社区-龙井村);灵隐街道-中国电信股份有限公司杭州分公司,西湖街道(杭州市路灯管理所,农业合作社,浙江西湖老龙井御茶园有限公司,中国茶叶博物馆,浙江荪壁山房酒店有限公司,杭州龙井草堂餐饮有限公司,杭州智瑞投资有限公司,杭州屏风山投资管理有限公司,屏风山工人疗养院,上海屏风疗养院三分院,杭州西湖风景名胜区(杭州市园林文物局)灵隐管理处(杭州花圃),杭州市水务集团有限公司供水泵站分公司,东方航空杭州疗养院,杭州市市政设施发展中心,杭州西湖风景名胜区(杭州市园林文物局)钱江管理处,杭州满觉陇酒店有限公司,浙江广播电视集团,尊茂酒店控股有限公司杭州分公司,杭州市西湖街道满觉陇村下满觉陇村民领导小组,杭州西湖龙井茶叶有限公司,杭州合景投资管理有限公司,)","startTime":"2020-05-29 16:13:00","stopDate":"2020-05-29 18:00:00","orgNo":"3340101","typeCode":"电网故障停限电","poweroffArea":"110kV花港变:觉陇8794线觉陇8794线开关后段","poweroffReason":"高压开关跳闸 原停电结束时间为2020-05-29 18:13:00,为减少客户停电时间,加快工作进度,提前送电,现变更停电结束时间为2020-05-29 18:00:00","powerTime":"2020-05-29 17:05:13","powerComm":"已送电","subsNo":"","lineNo":"","tgNo":"","tgName":null,"infoStatus":"1","orgName":"浙江杭州电力客户服务中心","typeName":null,"infoStatusName":null,"dateDay":null,"orgNos":null,"nowTime":null,"countyName":null,"streetName":null,"villageName":null,"roadName":null,"communityName":null,"tranName":null,"sdLineName":null,"cityCode":"3340101","cityName":"浙江杭州电力客户服务中心","provinceCode":null,"stopTime":"2020-05-29 18:00:00","powerType":"全部","powerOffArea":"110kV花港变:觉陇8794线觉陇8794线开关后段","powerOffReason":"高压开关跳闸 原停电结束时间为2020-05-29 18:13:00,为减少客户停电时间,加快工作进度,提前送电,现变更停电结束时间为2020-05-29 18:00:00","powerOffId":"2020052931020676"},{"poweroffId":2020052931020659,"sgpoweroffId":null,"subsName":"","lineName":"10kV胜利D622线","pubTranName":"杭州富阳玉林制动材料厂,","scope":"浙江省-杭州市-富阳区-灵桥镇-灵桥行政村-杭州富阳玉林制动材料厂一带","startTime":"2020-06-08 06:10:00","stopDate":"2020-06-08 17:30:00","orgNo":"3340170","typeCode":"计划停电","poweroffArea":"110kV灵桥变:胜利D622线-杭州富阳玉林制动材料厂开关后段","poweroffReason":"配合用户内部检修","powerTime":"2020-06-08 17:08:14","powerComm":"已送电","subsNo":"","lineNo":"","tgNo":"","tgName":null,"infoStatus":"1","orgName":"国网浙江杭州市富阳区供电公司","typeName":null,"infoStatusName":null,"dateDay":null,"orgNos":null,"nowTime":null,"countyName":null,"streetName":null,"villageName":null,"roadName":null,"communityName":null,"tranName":null,"sdLineName":null,"cityCode":"3340170","cityName":"国网浙江杭州市富阳区供电公司","provinceCode":null,"stopTime":"2020-06-08 17:30:00","powerType":"全部","powerOffArea":"110kV灵桥变:胜利D622线-杭州富阳玉林制动材料厂开关后段","powerOffReason":"配合用户内部检修","powerOffId":"2020052931020659"},{"poweroffId":2020052931020656,"sgpoweroffId":null,"subsName":"","lineName":"10kV岭源T191线","pubTranName":"麻溪1号公变,","scope":"浙江省-杭州市-桐庐县-合村乡-岭源行政村-探汉岭脚自然村","startTime":"2020-06-09 09:00:00","stopDate":"2020-06-09 13:00:00","orgNo":"3340150","typeCode":"计划停电","poweroffArea":"35kV合村变:岭源T191线-麻溪F9679后段","poweroffReason":"杭州桐庐合村张家1号等台区配变及线路改造工程","powerTime":"2020-06-09 12:40:54","powerComm":"已送电","subsNo":"","lineNo":"","tgNo":"","tgName":null,"infoStatus":"1","orgName":"国网浙江桐庐县供电公司","typeName":null,"infoStatusName":null,"dateDay":null,"orgNos":null,"nowTime":null,"countyName":null,"streetName":null,"villageName":null,"roadName":null,"communityName":null,"tranName":null,"sdLineName":null,"cityCode":"3340150","cityName":"国网浙江桐庐县供电公司","provinceCode":null,"stopTime":"2020-06-09 13:00:00","powerType":"全部","powerOffArea":"35kV合村变:岭源T191线-麻溪F9679后段","powerOffReason":"杭州桐庐合村张家1号等台区配变及线路改造工程","powerOffId":"2020052931020656"}],"pageModel":{"pageNow":75,"totalCount":17786,"totalPage":1779,"tableRows":0,"pageCount":10,"beginCount":740},"isExperi":"1"}