{"message":"","today":"2020-06-15","seleList":[{"poweroffId":2019120431020222,"sgpoweroffId":null,"subsName":"","lineName":"10kV贤德D333线","pubTranName":"大溪村12#大坞毛山公变,","scope":"浙江省-杭州市-富阳区-洞桥镇-大溪行政村(大坞方家自然村,堰头自然村,何家自然村,毛山上自然村,俞家山自然村,大坞何家自然村)","startTime":"2019-12-04 13:08:21","stopDate":"2019-12-04 14:08:21","orgNo":"3340170","typeCode":"电网故障停限电","poweroffArea":"110kV万市变:贤德D333线-大溪村12#大坞毛山公变后段","poweroffReason":"(低压停电信息)低压开关跳闸","powerTime":"2019-12-04 13:58:42","powerComm":"已送电","subsNo":"","lineNo":"","tgNo":"","tgName":null,"infoStatus":"1","orgName":"国网浙江杭州市富阳区供电公司","typeName":null,"infoStatusName":null,"dateDay":null,"orgNos":null,"nowTime":null,"countyName":null,"streetName":null,"villageName":null,"roadName":null,"communityName":null,"tranName":null,"sdLineName":null,"cityCode":"3340170","cityName":"国网浙江杭州市富阳区供电公司","provinceCode":null,"stopTime":"2019-12-04 14:08:21","powerType":"全部","powerOffArea":"110kV万市变:贤德D333线-大溪村12#大坞毛山公变后段","powerOffReason":"(低压停电信息)低压开关跳闸","powerOffId":"2019120431020222"},{"poweroffId":2019120431020218,"sgpoweroffId":null,"subsName":"","lineName":"10kV香格H521线","pubTranName":"豪悦实业612002740201#专变,海达金属612001517301#专变,瓶窑镇政府（凤凰大道）6120611913,","scope":"浙江省-杭州市-余杭区-瓶窑镇(杭州市余杭区瓶窑镇人民政府,杭州宏雅印刷有限公司,杭州豪悦护理用品股份有限公司)","startTime":"2019-12-04 12:55:00","stopDate":"2019-12-04 15:00:00","orgNo":"3340140","typeCode":"电网故障停限电","poweroffArea":"110kV凤山变:香格H521线兴利投资分线开关后段","poweroffReason":"高压开关跳闸","powerTime":"2019-12-04 14:39:00","powerComm":"已送电","subsNo":"","lineNo":"","tgNo":"","tgName":null,"infoStatus":"1","orgName":"国网浙江杭州市余杭区供电有限公司","typeName":null,"infoStatusName":null,"dateDay":null,"orgNos":null,"nowTime":null,"countyName":null,"streetName":null,"villageName":null,"roadName":null,"communityName":null,"tranName":null,"sdLineName":null,"cityCode":"3340140","cityName":"国网浙江杭州市余杭区供电有限公司","provinceCode":null,"stopTime":"2019-12-04 15:00:00","powerType":"全部","powerOffArea":"110kV凤山变:香格H521线兴利投资分线开关后段","powerOffReason":"高压开关跳闸","powerOffId":"2019120431020218"},{"poweroffId":2019120431020216,"sgpoweroffId":null,"subsName":"","lineName":"10kV彭家D342线","pubTranName":"众源村3#骆家公变,","scope":"浙江省-杭州市-富阳区-万市镇-众缘行政村(了岸坞自然村,坞口自然村,对山骆家自然村,骆家自然村,徐家自然村)","startTime":"2019-12-04 12:55:06","stopDate":"2019-12-04 13:55:06","orgNo":"3340170","typeCode":"电网故障停限电","poweroffArea":"110kV万市变:彭家D342线-众源村3#骆家公变后段","poweroffReason":"(低压停电信息)低压开关跳闸","powerTime":"2019-12-04 13:29:36","powerComm":"已送电","subsNo":"","lineNo":"","tgNo":"","tgName":null,"infoStatus":"1","orgName":"国网浙江杭州市富阳区供电公司","typeName":null,"infoStatusName":null,"dateDay":null,"orgNos":null,"nowTime":null,"countyName":null,"streetName":null,"villageName":null,"roadName":null,"communityName":null,"tranName":null,"sdLineName":null,"cityCode":"3340170","cityName":"国网浙江杭州市富阳区供电公司","provinceCode":null,"stopTime":"2019-12-04 13:55:06","powerType":"全部","powerOffArea":"110kV万市变:彭家D342线-众源村3#骆家公变后段","powerOffReason":"(低压停电信息)低压开关跳闸","powerOffId":"2019120431020216"},{"poweroffId":2019120431020215,"sgpoweroffId":null,"subsName":"","lineName":"10kV水南D357线","pubTranName":"望江花园2#公变,","scope":"浙江省-杭州市-富阳区-富春街道-城西社区(桂花西路,戴家弄)","startTime":"2019-12-04 12:56:16","stopDate":"2019-12-04 13:56:16","orgNo":"3340170","typeCode":"电网故障停限电","poweroffArea":"110kV富鹿变:水南D357线-望江花园2#公变后段","poweroffReason":"(低压停电信息)低压开关跳闸","powerTime":"2019-12-04 13:47:04","powerComm":"已送电","subsNo":"","lineNo":"","tgNo":"","tgName":null,"infoStatus":"1","orgName":"国网浙江杭州市富阳区供电公司","typeName":null,"infoStatusName":null,"dateDay":null,"orgNos":null,"nowTime":null,"countyName":null,"streetName":null,"villageName":null,"roadName":null,"communityName":null,"tranName":null,"sdLineName":null,"cityCode":"3340170","cityName":"国网浙江杭州市富阳区供电公司","provinceCode":null,"stopTime":"2019-12-04 13:56:16","powerType":"全部","powerOffArea":"110kV富鹿变:水南D357线-望江花园2#公变后段","powerOffReason":"(低压停电信息)低压开关跳闸","powerOffId":"2019120431020215"},{"poweroffId":2019120431020214,"sgpoweroffId":null,"subsName":"","lineName":"10kV阳光C107线","pubTranName":"育才西苑6#公变,","scope":"浙江省-杭州市-萧山区-城厢街道-育才东苑社区-育才路,城厢街道-燕子河社区(育才路,北干山南路)育才西苑27幢、育才西苑30幢2单元、育才西苑29幢1单元一带","startTime":"2019-12-04 12:50:27","stopDate":"2019-12-04 15:00:00","orgNo":"3340130","typeCode":"电网故障停限电","poweroffArea":"110kV丽都变:阳光C107线-育才西苑6#公变台区低压开关","poweroffReason":"（低压停电信息）低压断路器短路故障","powerTime":"2019-12-04 14:49:15","powerComm":"已送电","subsNo":"","lineNo":"","tgNo":"","tgName":null,"infoStatus":"1","orgName":"国网浙江杭州市萧山区供电有限公司","typeName":null,"infoStatusName":null,"dateDay":null,"orgNos":null,"nowTime":null,"countyName":null,"streetName":null,"villageName":null,"roadName":null,"communityName":null,"tranName":null,"sdLineName":null,"cityCode":"3340130","cityName":"国网浙江杭州市萧山区供电有限公司","provinceCode":null,"stopTime":"2019-12-04 15:00:00","powerType":"全部","powerOffArea":"110kV丽都变:阳光C107线-育才西苑6#公变台区低压开关","powerOffReason":"（低压停电信息）低压断路器短路故障","powerOffId":"2019120431020214"},{"poweroffId":2019120431020211,"sgpoweroffId":null,"subsName":"","lineName":"10kV洪庄D292线","pubTranName":"洪庄村2#公变,洪庄村9号横坞公变,洪庄村桐树坞公变,洪庄村7#集镇公变,洪庄村武林岔桐坞公变,富阳强盛钢带弹簧有限公司,洪庄村9#集镇公变,洪庄村集镇15号村委口公变,洪庄村10号小桥头公变,中天路桥有限公司4#变,洪庄村17号集镇东公变,中天路桥有限公司2#变,杜墓村3#村口公变,新生村邵村5#上畈头公变,中天路桥有限公司1#变,中天路桥有限公司7#变,杭州优纳摩擦材料有限公司,新生村邵村3号下畈头公变,杜墓村4号东边山公变,新生村邵村4#纸坊坞公变,洪庄村11#岔口公变,杜墓村2号下公变,洪庄村6号杨家畈公变,杭州通用弹簧有限公司1#变,浙江正大空分设备有限公司1#变,洪庄村8号水坞公变,浙江浙通管业有限公司,虎尾坞3号前边坞公变,浙江浙通管业有限公司1#变,中天路桥有限公司5#变,杭州富春弹簧有限公司,虎尾坞村2#里公变,富阳市新源塑料厂,新生村7号邵村桥头公变,杭州优纳摩擦材料有限公司,富阳市高桥镇富新五金机械厂,中天路桥有限公司1#变,新生村大根里6#里公变,虎尾坞1号公变,富阳振宇包装印刷有限公司,新生村邵村8号麻花坞公变,杭州兴发弹簧有限公司,富阳威斯特交通科技有限公司,新生村大根里2#村口公变,中天路桥有限公司3#变,杜墓弹簧厂,桐岭坞村2#大柯坞公变,颜家坞1号村口公变,杭州富阳宏伟锅炉辅机有限公司,富阳市大众弹簧厂,洪庄村1#金沙里公变,杭州优纳摩擦材料有限公司1#变,杜墓村5号横岭公变,杜墓村1号上公变,中天路桥有限公司6#变,","scope":"浙江省-杭州市-富阳区-银湖街道-新生行政村(虎尾坞自然村,大根里自然村,紫芳坞自然村,邵村自然村,下畈头自然村,上畈头自然村),银湖街道-杜墓行政村(铜岭坞自然村,杜墓自然村,颜公坞自然村,羊角里自然村),银湖街道-洪庄行政村(洪庄自然村,金沙里自然村,富洪新村自然村,杨家畈自然村,武林自然村,横坞自然村,下洪庄自然村,岔口自然村),银湖街道(虎尾坞行政村-虎尾坞自然村,金竺行政村-双浒自然村,上陈行政村-上陈自然村,高桥行政村-舒姑垟自然村);银湖街道(杭州富阳强盛钢带弹簧有限公司,杭州富阳大众弹簧厂,杭州富阳新源塑料厂,浙江正大空分设备有限公司,杭州富阳昊源金属材料有限公司,杭州富舟汽车配件有限公司,杭州富阳区银湖街道富新五金机械厂,中天路桥有限公司,杭州富阳宏伟锅炉辅机有限公司,杭州富春弹簧有限公司,浙江浙通管业有限公司,杭州兴发弹簧有限公司,杭州新海陆管业有限公司,杭州通用弹簧有限公司)","startTime":"2019-12-04 12:40:00","stopDate":"2019-12-04 13:40:00","orgNo":"3340170","typeCode":"电网故障停限电","poweroffArea":"35kV新义变:洪庄D292线洪庄D2921开关后段","poweroffReason":"高压开关跳闸 原停电结束时间为2019-12-04 14:40:00,为减少客户停电时间,加快工作进度,提前送电,现变更停电结束时间为2019-12-04 13:40:00","powerTime":"2019-12-04 13:25:51","powerComm":"已送电","subsNo":"","lineNo":"","tgNo":"","tgName":null,"infoStatus":"1","orgName":"国网浙江杭州市富阳区供电公司","typeName":null,"infoStatusName":null,"dateDay":null,"orgNos":null,"nowTime":null,"countyName":null,"streetName":null,"villageName":null,"roadName":null,"communityName":null,"tranName":null,"sdLineName":null,"cityCode":"3340170","cityName":"国网浙江杭州市富阳区供电公司","provinceCode":null,"stopTime":"2019-12-04 13:40:00","powerType":"全部","powerOffArea":"35kV新义变:洪庄D292线洪庄D2921开关后段","powerOffReason":"高压开关跳闸 原停电结束时间为2019-12-04 14:40:00,为减少客户停电时间,加快工作进度,提前送电,现变更停电结束时间为2019-12-04 13:40:00","powerOffId":"2019120431020211"},{"poweroffId":2019120431020203,"sgpoweroffId":null,"subsName":"","lineName":"10kV贤德D333线","pubTranName":"文村村3#中华公变,","scope":"浙江省-杭州市-富阳区-洞桥镇-洞桥行政村-文村自然村,洞桥镇-文村行政村(中华自然村,缪家自然村,对山自然村,文村自然村,王母岭自然村,赤水坞自然村,石亭子自然村)","startTime":"2019-12-04 12:09:08","stopDate":"2019-12-04 13:09:08","orgNo":"3340170","typeCode":"电网故障停限电","poweroffArea":"110kV万市变:贤德D333线-文村村3#中华公变后段","poweroffReason":"(低压停电信息)低压开关跳闸","powerTime":"2019-12-04 12:57:40","powerComm":"已送电","subsNo":"","lineNo":"","tgNo":"","tgName":null,"infoStatus":"1","orgName":"国网浙江杭州市富阳区供电公司","typeName":null,"infoStatusName":null,"dateDay":null,"orgNos":null,"nowTime":null,"countyName":null,"streetName":null,"villageName":null,"roadName":null,"communityName":null,"tranName":null,"sdLineName":null,"cityCode":"3340170","cityName":"国网浙江杭州市富阳区供电公司","provinceCode":null,"stopTime":"2019-12-04 13:09:08","powerType":"全部","powerOffArea":"110kV万市变:贤德D333线-文村村3#中华公变后段","powerOffReason":"(低压停电信息)低压开关跳闸","powerOffId":"2019120431020203"},{"poweroffId":2019120431020201,"sgpoweroffId":null,"subsName":"","lineName":"10kV万泉D738线","pubTranName":"昌东村众甫7#大塘畈公变,","scope":"浙江省-杭州市-富阳区-新登镇-上山行政村-上山自然村,新登镇-昌东行政村(昌东自然村,众甫自然村)","startTime":"2019-12-04 12:04:19","stopDate":"2019-12-04 13:04:19","orgNo":"3340170","typeCode":"电网故障停限电","poweroffArea":"110kV松溪变:万泉D738线-昌东村众甫7#大塘畈公变后段","poweroffReason":"高压开关跳闸 原停电结束时间为2019-12-04 14:04:19,为减少客户停电时间,加快工作进度,提前送电,现变更停电结束时间为2019-12-04 13:04:19","powerTime":"2019-12-04 12:22:26","powerComm":"已送电","subsNo":"","lineNo":"","tgNo":"","tgName":null,"infoStatus":"1","orgName":"国网浙江杭州市富阳区供电公司","typeName":null,"infoStatusName":null,"dateDay":null,"orgNos":null,"nowTime":null,"countyName":null,"streetName":null,"villageName":null,"roadName":null,"communityName":null,"tranName":null,"sdLineName":null,"cityCode":"3340170","cityName":"国网浙江杭州市富阳区供电公司","provinceCode":null,"stopTime":"2019-12-04 13:04:19","powerType":"全部","powerOffArea":"110kV松溪变:万泉D738线-昌东村众甫7#大塘畈公变后段","powerOffReason":"高压开关跳闸 原停电结束时间为2019-12-04 14:04:19,为减少客户停电时间,加快工作进度,提前送电,现变更停电结束时间为2019-12-04 13:04:19","powerOffId":"2019120431020201"},{"poweroffId":2019120431020197,"sgpoweroffId":null,"subsName":"","lineName":"10kV信义6883线","pubTranName":"凌房,湖嘉五,","scope":"浙江省-杭州市-拱墅区-小河街道-娑婆桥社区-湖墅北路;湖墅街道-杭州随和物业管理有限公司","startTime":"2019-12-04 11:32:00","stopDate":"2019-12-04 12:30:00","orgNo":"3340101","typeCode":"电网故障停限电","poweroffArea":"110kV文化变:信义6883线湖嘉三站湖嘉三线后段","poweroffReason":"高压开关跳闸 原停电结束时间为2019-12-04 13:32:00,为减少客户停电时间,加快工作进度,提前送电,现变更停电结束时间为2019-12-04 12:30:00","powerTime":"2019-12-04 11:50:30","powerComm":"已送电","subsNo":"","lineNo":"","tgNo":"","tgName":null,"infoStatus":"1","orgName":"浙江杭州电力客户服务中心","typeName":null,"infoStatusName":null,"dateDay":null,"orgNos":null,"nowTime":null,"countyName":null,"streetName":null,"villageName":null,"roadName":null,"communityName":null,"tranName":null,"sdLineName":null,"cityCode":"3340101","cityName":"浙江杭州电力客户服务中心","provinceCode":null,"stopTime":"2019-12-04 12:30:00","powerType":"全部","powerOffArea":"110kV文化变:信义6883线湖嘉三站湖嘉三线后段","powerOffReason":"高压开关跳闸 原停电结束时间为2019-12-04 13:32:00,为减少客户停电时间,加快工作进度,提前送电,现变更停电结束时间为2019-12-04 12:30:00","powerOffId":"2019120431020197"},{"poweroffId":2019120431020187,"sgpoweroffId":null,"subsName":"","lineName":"10kV上游G066线","pubTranName":"长运物流（双路常供）2#,乔司东检查站变压器,三角村经联社1#,杭州远程服饰有限公司,","scope":"浙江省-杭州市-余杭区-乔司街道-乔司行政村-浙江长运物流股份有限公司,乔司街道-三角行政村(杭州市公安局,杭州远程服饰有限公司,杭州摩迪实业有限公司)","startTime":"2019-12-04 11:07:52","stopDate":"2019-12-04 17:30:00","orgNo":"3340140","typeCode":"电网故障停限电","poweroffArea":"110kV外乔变:上游G066线","poweroffReason":"高压开关跳闸","powerTime":"2019-12-04 17:05:00","powerComm":"已送电","subsNo":"","lineNo":"","tgNo":"","tgName":null,"infoStatus":"1","orgName":"国网浙江杭州市余杭区供电有限公司","typeName":null,"infoStatusName":null,"dateDay":null,"orgNos":null,"nowTime":null,"countyName":null,"streetName":null,"villageName":null,"roadName":null,"communityName":null,"tranName":null,"sdLineName":null,"cityCode":"3340140","cityName":"国网浙江杭州市余杭区供电有限公司","provinceCode":null,"stopTime":"2019-12-04 17:30:00","powerType":"全部","powerOffArea":"110kV外乔变:上游G066线","powerOffReason":"高压开关跳闸","powerOffId":"2019120431020187"}],"pageModel":{"pageNow":758,"totalCount":17789,"totalPage":1779,"tableRows":0,"pageCount":10,"beginCount":7570},"isExperi":"1"}