{"message":"","today":"2020-06-15","seleList":[{"poweroffId":2019120431020186,"sgpoweroffId":null,"subsName":"","lineName":"10kV大通G056线","pubTranName":"青盈皮艺,美娜线业,浙江劳武工具有限公司,双和环境乔莫西路变61207172241#,长运物流（双路常供）1#,东三2组2号公变,","scope":"浙江省-杭州市-余杭区-乔司街道-三角行政村(新凉亭自然村,十二堡自然村);乔司街道-三角行政村(杭州宇色时装有限公司,浙江元通卡通汽车有限公司,浙江劳武工具有限公司),乔司镇-浙江双和环境建设有限公司,乔司街道-乔司行政村-浙江长运物流股份有限公司","startTime":"2019-12-04 11:07:01","stopDate":"2019-12-04 17:30:00","orgNo":"3340140","typeCode":"电网故障停限电","poweroffArea":"110kV外乔变:大通G056线","poweroffReason":"高压开关跳闸","powerTime":"2019-12-04 17:00:00","powerComm":"已送电","subsNo":"","lineNo":"","tgNo":"","tgName":null,"infoStatus":"1","orgName":"国网浙江杭州市余杭区供电有限公司","typeName":null,"infoStatusName":null,"dateDay":null,"orgNos":null,"nowTime":null,"countyName":null,"streetName":null,"villageName":null,"roadName":null,"communityName":null,"tranName":null,"sdLineName":null,"cityCode":"3340140","cityName":"国网浙江杭州市余杭区供电有限公司","provinceCode":null,"stopTime":"2019-12-04 17:30:00","powerType":"全部","powerOffArea":"110kV外乔变:大通G056线","powerOffReason":"高压开关跳闸","powerOffId":"2019120431020186"},{"poweroffId":2019120431020175,"sgpoweroffId":null,"subsName":"","lineName":"10kV连琪H290线","pubTranName":"连具塘村莫家头公变,中交1号基建,","scope":"浙江省-杭州市-余杭区-仓前街道-连具塘行政村(连具塘自然村,莫家头自然村);浙江省-杭州市-余杭区-仓前街道-连具塘行政村-中交第二航务工程局有限公司余杭分公司","startTime":"2019-12-04 10:42:00","stopDate":"2019-12-04 13:00:00","orgNo":"3340140","typeCode":"电网故障停限电","poweroffArea":"110kV柏庙变:连琪H290线首端，H2903X开关，良加H3620开关之间","poweroffReason":"高压开关跳闸","powerTime":"2019-12-04 12:35:00","powerComm":"已送电","subsNo":"","lineNo":"","tgNo":"","tgName":null,"infoStatus":"1","orgName":"国网浙江杭州市余杭区供电有限公司","typeName":null,"infoStatusName":null,"dateDay":null,"orgNos":null,"nowTime":null,"countyName":null,"streetName":null,"villageName":null,"roadName":null,"communityName":null,"tranName":null,"sdLineName":null,"cityCode":"3340140","cityName":"国网浙江杭州市余杭区供电有限公司","provinceCode":null,"stopTime":"2019-12-04 13:00:00","powerType":"全部","powerOffArea":"110kV柏庙变:连琪H290线首端，H2903X开关，良加H3620开关之间","powerOffReason":"高压开关跳闸","powerOffId":"2019120431020175"},{"poweroffId":2019120431020171,"sgpoweroffId":null,"subsName":"","lineName":"10kV大树D219线","pubTranName":"中秋村4#宋殿路东公变,","scope":"浙江省-杭州市-富阳区-银湖街道-受降行政村(中秋自然村,宋殿自然村)","startTime":"2019-12-04 10:41:01","stopDate":"2019-12-04 11:41:01","orgNo":"3340170","typeCode":"电网故障停限电","poweroffArea":"110kV银湖变:大树D219线-中秋村4#宋殿路东公变后段","poweroffReason":"(低压停电信息)低压开关跳闸","powerTime":"2019-12-04 12:12:07","powerComm":"已送电","subsNo":"","lineNo":"","tgNo":"","tgName":null,"infoStatus":"1","orgName":"国网浙江杭州市富阳区供电公司","typeName":null,"infoStatusName":null,"dateDay":null,"orgNos":null,"nowTime":null,"countyName":null,"streetName":null,"villageName":null,"roadName":null,"communityName":null,"tranName":null,"sdLineName":null,"cityCode":"3340170","cityName":"国网浙江杭州市富阳区供电公司","provinceCode":null,"stopTime":"2019-12-04 11:41:01","powerType":"全部","powerOffArea":"110kV银湖变:大树D219线-中秋村4#宋殿路东公变后段","powerOffReason":"(低压停电信息)低压开关跳闸","powerOffId":"2019120431020171"},{"poweroffId":2019120431020160,"sgpoweroffId":null,"subsName":"","lineName":"10kV九龙D215线","pubTranName":"富阳市受降农机服务部,受降村受降溪1#公变,","scope":"浙江省-杭州市-富阳区-银湖街道-受降行政村(中秋自然村龙溪南路,上宋自然村);银湖街道-富阳市受降农机服务部","startTime":"2019-12-04 10:27:28","stopDate":"2019-12-04 12:19:00","orgNo":"3340170","typeCode":"电网故障停限电","poweroffArea":"110kV银湖变:九龙D215线九龙一号开关站九龙T接三线后段","poweroffReason":"高压开关跳闸","powerTime":"2019-12-04 12:00:17","powerComm":"已送电","subsNo":"","lineNo":"","tgNo":"","tgName":null,"infoStatus":"1","orgName":"国网浙江杭州市富阳区供电公司","typeName":null,"infoStatusName":null,"dateDay":null,"orgNos":null,"nowTime":null,"countyName":null,"streetName":null,"villageName":null,"roadName":null,"communityName":null,"tranName":null,"sdLineName":null,"cityCode":"3340170","cityName":"国网浙江杭州市富阳区供电公司","provinceCode":null,"stopTime":"2019-12-04 12:19:00","powerType":"全部","powerOffArea":"110kV银湖变:九龙D215线九龙一号开关站九龙T接三线后段","powerOffReason":"高压开关跳闸","powerOffId":"2019120431020160"},{"poweroffId":2019120431020159,"sgpoweroffId":null,"subsName":"","lineName":"10kV杭塑544线","pubTranName":"草坝(2),","scope":"浙江省-杭州市-拱墅区-米市巷街道-半道红社区(湖墅南路,草坝巷,密渡桥路,文晖路),天水街道-环北新村社区-环城北路,潮鸣街道-潮鸣社区-环城北路","startTime":"2019-12-04 10:11:00","stopDate":"2019-12-04 11:33:00","orgNo":"3340101","typeCode":"电网故障停限电","poweroffArea":"110kV武林变:杭塑544线草坝(2)配变","poweroffReason":"高压开关跳闸 原停电结束时间为2019-12-04 12:11:00,为减少客户停电时间,加快工作进度,提前送电,现变更停电结束时间为2019-12-04 11:33:00","powerTime":"2019-12-04 10:55:01","powerComm":"已送电","subsNo":"","lineNo":"","tgNo":"","tgName":null,"infoStatus":"1","orgName":"浙江杭州电力客户服务中心","typeName":null,"infoStatusName":null,"dateDay":null,"orgNos":null,"nowTime":null,"countyName":null,"streetName":null,"villageName":null,"roadName":null,"communityName":null,"tranName":null,"sdLineName":null,"cityCode":"3340101","cityName":"浙江杭州电力客户服务中心","provinceCode":null,"stopTime":"2019-12-04 11:33:00","powerType":"全部","powerOffArea":"110kV武林变:杭塑544线草坝(2)配变","powerOffReason":"高压开关跳闸 原停电结束时间为2019-12-04 12:11:00,为减少客户停电时间,加快工作进度,提前送电,现变更停电结束时间为2019-12-04 11:33:00","powerOffId":"2019120431020159"},{"poweroffId":2019120431020157,"sgpoweroffId":null,"subsName":"","lineName":"10kV九龙D215线","pubTranName":"杭州宝冶城市建设发展有限公司1#变,杭州宝冶城市建设发展有限公司3#变,杭州宝冶城市建设发展有限公司4#变,杭州宝冶城市建设发展有限公司2#变,富阳市兴发五金有限公司,1#,杭州富阳抱华楼国画研究院,","scope":"浙江省-杭州市-富阳区-银湖街道(杭州新亚低温科技有限公司,杭州富阳抱华楼国画研究院,杭州富阳兴发五金有限公司,杭州宝冶城市建设发展有限公司)","startTime":"2019-12-04 10:20:00","stopDate":"2019-12-04 12:20:00","orgNo":"3340170","typeCode":"电网故障停限电","poweroffArea":"110kV银湖变:九龙D215线九龙二号开关站九一D2151线开关后段","poweroffReason":"高压开关跳闸","powerTime":"2019-12-04 12:00:29","powerComm":"已送电","subsNo":"","lineNo":"","tgNo":"","tgName":null,"infoStatus":"1","orgName":"国网浙江杭州市富阳区供电公司","typeName":null,"infoStatusName":null,"dateDay":null,"orgNos":null,"nowTime":null,"countyName":null,"streetName":null,"villageName":null,"roadName":null,"communityName":null,"tranName":null,"sdLineName":null,"cityCode":"3340170","cityName":"国网浙江杭州市富阳区供电公司","provinceCode":null,"stopTime":"2019-12-04 12:20:00","powerType":"全部","powerOffArea":"110kV银湖变:九龙D215线九龙二号开关站九一D2151线开关后段","powerOffReason":"高压开关跳闸","powerOffId":"2019120431020157"},{"poweroffId":2019120431020156,"sgpoweroffId":null,"subsName":"","lineName":"10kV杭塑544线","pubTranName":"坤和4#,坤和1#,水上巴士,乡企,城投客轮1#,坤和4#,坤和5#,新祥利1#,坤和2#,城投客轮2#,新祥利2#,坤和3#,","scope":"浙江省-杭州市-西湖区-西溪街道-浙江广播电视集团,天水街道(浙江省经贸后勤服务中心,杭州市水上公共观光巴士有限公司,杭州大厦有限公司,杭州市城市建设投资集团有限公司)","startTime":"2019-12-04 10:10:00","stopDate":"2019-12-04 11:30:00","orgNo":"3340101","typeCode":"电网故障停限电","poweroffArea":"110kV武林变:杭塑544线客轮站谊轮544A线后段","poweroffReason":"高压开关跳闸 原停电结束时间为2019-12-04 12:10:00,为减少客户停电时间,加快工作进度,提前送电,现变更停电结束时间为2019-12-04 11:30:00","powerTime":"2019-12-04 10:53:53","powerComm":"已送电","subsNo":"","lineNo":"","tgNo":"","tgName":null,"infoStatus":"1","orgName":"浙江杭州电力客户服务中心","typeName":null,"infoStatusName":null,"dateDay":null,"orgNos":null,"nowTime":null,"countyName":null,"streetName":null,"villageName":null,"roadName":null,"communityName":null,"tranName":null,"sdLineName":null,"cityCode":"3340101","cityName":"浙江杭州电力客户服务中心","provinceCode":null,"stopTime":"2019-12-04 11:30:00","powerType":"全部","powerOffArea":"110kV武林变:杭塑544线客轮站谊轮544A线后段","powerOffReason":"高压开关跳闸 原停电结束时间为2019-12-04 12:10:00,为减少客户停电时间,加快工作进度,提前送电,现变更停电结束时间为2019-12-04 11:30:00","powerOffId":"2019120431020156"},{"poweroffId":2019120431020152,"sgpoweroffId":null,"subsName":"","lineName":"10kV石门V353线","pubTranName":"虹桥村水涛庄公变,水涛庄移民,杭州临安禾强电器有限公司,窑田畈村,临安亚星照明电器有限公司,高虹新德村,林家塘草山岗配变,石门汪家坞村,龙上村（狗坞坑）,汪家坞电站,临安市康亮照明电器有限公司,中国电信股份有限公司临安分公司,杭州睿兔家具有限公司1#,石门电站1#,石门冷坞顶村,临安余临照明电器厂,汪家坞[安置区]配变,石门木公山村,大山村西山公变,指云山配变,阳光制氧公司,水涛庄长湾,木公山{下村},虹桥村（大庙）,石门乡龙上村,石门电站（站用电）50,龙上五队,里石门2#变,临安盛阳明管厂,石门乡石路村,杭州临安建强泡沫有限公司,临安亚光照明有限公司,石门龙头舍村,临安大得玻璃制品有限公司,盘舍队,杭州裕隆食品有限公司,临安华易照明电器有限公司,临安思远木粉有限公司,临安欧邦照明电器有限公司,草山坞,临安市立新照明电器有限公司,临安横畈三废治理设备厂,银丰岭,临安欧阳电子有限公司,黄泥塘公变,石门村,临安邦辉照明电器有限公司,里石门,高虹拜节(紫钗坞),临安市水涛庄水库电站（厂用）,王水根,高虹拜节钗坞自然村,大坪公变,杭州临安自来水有限公司,青菊屋配变,临安欧邦照明电器有限公司1#,水涛庄村(大林寺),高虹大王山配变,黄仙湾,高虹拜节村,鱼岭脚,石门乡大山村,新德2#变,临安亚星照明电器有限公司,临安亚光照明有限公司,龙头 电站,杭州临安禾强电器有限公司,石门林家塘村,龙上村（上村）,临安市明珠竹木粉有限公司,临安徐康照明电器有限公司,杭州锦航电器有限公司,临安市高虹镇龙头电站有限公司,孝村高山大队,平阳队,林家塘水涧坑,","scope":"浙江省-杭州市-临安市-青山湖街道-庆北行政村(临北自然村,回里自然村),青山湖街道-孝村行政村(孝村自然村,窑田畈自然村),高虹镇-大山行政村(大山自然村,龙头舍自然村,林家塘自然村,石路自然村),高虹镇-高乐行政村(拜节自然村,新德自然村,高乐自然村),高虹镇-龙上行政村(木公山自然村,龙上自然村,冷坞顶自然村),高虹镇-虹桥行政村(虹桥自然村,水涛庄自然村),高虹镇-石门行政村(石门自然村,汪家坞自然村),高虹镇(活山行政村-泥马自然村,长溪行政村-长青自然村);高虹镇(临安市石门水电站（所用电）,临安市高虹镇龙头电站有限公司,中国电信股份有限公司临安分公司,临安横畈三废治理设备厂,杭州临安建强泡沫包装有限公司,杭州临安和瑞包装材料有限公司,临安市伟康木粉有限公司,临安亚星照明电器有限公司,杭州瑞普森照明科技有限公司,临安市明珠竹木粉有限公司,汪家坞电站,临安欧阳电子有限公司,杭州临安禾强电器有限公司,石门电站,临安大得玻璃制品有限公司,临安红星电子有限公司,杭州临安亮亮包装用品有限公司,临安市水涛庄水库管理处,龙头电站,杭州裕隆食品有限公司,临安盛阳明管厂,杭州临安亿鹏电子科技有限公司,临安华易照明电器有限公司,临安市思远木粉有限公司,杭州临安自来水有限公司,王水根,杭州宸宇照明电器有限公司,)","startTime":"2019-12-04 10:20:00","stopDate":"2019-12-04 11:57:00","orgNo":"3340160","typeCode":"电网故障停限电","poweroffArea":"110kV高虹变:石门V353线大王山分线1#杆开关后段","poweroffReason":"高压开关跳闸","powerTime":"2019-12-04 11:44:32","powerComm":"已送电","subsNo":"","lineNo":"","tgNo":"","tgName":null,"infoStatus":"1","orgName":"国网浙江临安市供电公司","typeName":null,"infoStatusName":null,"dateDay":null,"orgNos":null,"nowTime":null,"countyName":null,"streetName":null,"villageName":null,"roadName":null,"communityName":null,"tranName":null,"sdLineName":null,"cityCode":"3340160","cityName":"国网浙江临安市供电公司","provinceCode":null,"stopTime":"2019-12-04 11:57:00","powerType":"全部","powerOffArea":"110kV高虹变:石门V353线大王山分线1#杆开关后段","powerOffReason":"高压开关跳闸","powerOffId":"2019120431020152"},{"poweroffId":2019120431020149,"sgpoweroffId":null,"subsName":"","lineName":"10kV杭塑544线","pubTranName":"草坝(2),城投客轮1#,新祥利2#,水上巴士,联谊2#,杭州丽园世嘉物业管理有限公司,乡企,武排二2#,新祥利1#,城投客轮2#,武排二1#,市政,","scope":"浙江省-杭州市-拱墅区-米市巷街道-半道红社区(湖墅南路,草坝巷,密渡桥路,文晖路),天水街道-环北新村社区-环城北路,潮鸣街道-潮鸣社区-环城北路;浙江省-杭州市-西湖区-西溪街道-文天社区-浙江广播电视集团,天水街道-环北新村社区(浙江省经贸后勤服务中心,杭州市市政工程集团有限公司,杭州市水上公共观光巴士有限公司,杭州市排水有限公司,杭州市城市建设投资集团有限公司),米市巷街道(半道红社区-纳德酒店股份有限公司,米市社区-杭州雷迪森物业管理有限公司)","startTime":"2019-12-04 10:12:53","stopDate":"2019-12-04 14:30:53","orgNo":"3340101","typeCode":"电网故障停限电","poweroffArea":"110kV武林变:杭塑544线","poweroffReason":"高压开关跳闸 原停电结束时间为2019-12-04 16:12:53,为减少客户停电时间,加快工作进度,提前送电,现变更停电结束时间为2019-12-04 14:30:53","powerTime":"2019-12-04 14:00:20","powerComm":"已送电","subsNo":"","lineNo":"","tgNo":"","tgName":null,"infoStatus":"1","orgName":"浙江杭州电力客户服务中心","typeName":null,"infoStatusName":null,"dateDay":null,"orgNos":null,"nowTime":null,"countyName":null,"streetName":null,"villageName":null,"roadName":null,"communityName":null,"tranName":null,"sdLineName":null,"cityCode":"3340101","cityName":"浙江杭州电力客户服务中心","provinceCode":null,"stopTime":"2019-12-04 14:30:53","powerType":"全部","powerOffArea":"110kV武林变:杭塑544线","powerOffReason":"高压开关跳闸 原停电结束时间为2019-12-04 16:12:53,为减少客户停电时间,加快工作进度,提前送电,现变更停电结束时间为2019-12-04 14:30:53","powerOffId":"2019120431020149"},{"poweroffId":2019120431020148,"sgpoweroffId":null,"subsName":"","lineName":"10kV南村H304线","pubTranName":"凤都村中村1号公变,","scope":"浙江省-杭州市-余杭区-瓶窑镇-凤都行政村(北自然村中自然村,中自然村)","startTime":"2019-12-04 10:12:00","stopDate":"2019-12-04 11:00:00","orgNo":"3340140","typeCode":"电网故障停限电","poweroffArea":"110kV柏庙变:南村H304线-中村后段","poweroffReason":"高压开关跳闸","powerTime":"2019-12-04 10:46:00","powerComm":"已送电","subsNo":"","lineNo":"","tgNo":"","tgName":null,"infoStatus":"1","orgName":"国网浙江杭州市余杭区供电有限公司","typeName":null,"infoStatusName":null,"dateDay":null,"orgNos":null,"nowTime":null,"countyName":null,"streetName":null,"villageName":null,"roadName":null,"communityName":null,"tranName":null,"sdLineName":null,"cityCode":"3340140","cityName":"国网浙江杭州市余杭区供电有限公司","provinceCode":null,"stopTime":"2019-12-04 11:00:00","powerType":"全部","powerOffArea":"110kV柏庙变:南村H304线-中村后段","powerOffReason":"高压开关跳闸","powerOffId":"2019120431020148"}],"pageModel":{"pageNow":759,"totalCount":17789,"totalPage":1779,"tableRows":0,"pageCount":10,"beginCount":7580},"isExperi":"1"}