{"message":"","today":"2020-06-15","seleList":[{"poweroffId":2019120331020334,"sgpoweroffId":null,"subsName":"","lineName":"10kV阳光C107线","pubTranName":"育才西苑6#公变,","scope":"浙江省-杭州市-萧山区-城厢街道-育才东苑社区-育才路,城厢街道-燕子河社区(北干山南路,育才路)育才西苑27—2号3单元一带","startTime":"2019-12-03 18:00:59","stopDate":"2019-12-03 21:30:00","orgNo":"3340130","typeCode":"电网故障停限电","poweroffArea":"110kV丽都变:阳光C107线-育才西苑6#公变后段","poweroffReason":"(低压停电信息)低压电缆被挖断 因现场电缆抢修难度较大原因,现变更停电结束时间为2019-12-03 22:30:00 为减少客户停电时间,加快工作进度,提前送电,现变更停电结束时间为2019-12-03 21:30:00","powerTime":"2019-12-03 20:34:56","powerComm":"已送电","subsNo":"","lineNo":"","tgNo":"","tgName":null,"infoStatus":"1","orgName":"国网浙江杭州市萧山区供电有限公司","typeName":null,"infoStatusName":null,"dateDay":null,"orgNos":null,"nowTime":null,"countyName":null,"streetName":null,"villageName":null,"roadName":null,"communityName":null,"tranName":null,"sdLineName":null,"cityCode":"3340130","cityName":"国网浙江杭州市萧山区供电有限公司","provinceCode":null,"stopTime":"2019-12-03 21:30:00","powerType":"全部","powerOffArea":"110kV丽都变:阳光C107线-育才西苑6#公变后段","powerOffReason":"(低压停电信息)低压电缆被挖断 因现场电缆抢修难度较大原因,现变更停电结束时间为2019-12-03 22:30:00 为减少客户停电时间,加快工作进度,提前送电,现变更停电结束时间为2019-12-03 21:30:00","powerOffId":"2019120331020334"},{"poweroffId":2019120331020333,"sgpoweroffId":null,"subsName":"","lineName":"10kV来前A440线","pubTranName":"姚家畈村4#变,","scope":"浙江省-杭州市-萧山区-蜀山街道-章潘桥行政村(姚家畈自然村,犁头金自然村)","startTime":"2019-12-11 08:30:00","stopDate":"2019-12-11 15:30:00","orgNo":"3340130","typeCode":"计划停电","poweroffArea":"110kV来苏变:来前A440线-姚家畈村4#变后段","poweroffReason":"姚家畈村4#变变压器更换","powerTime":"2019-12-11 15:00:02","powerComm":"已送电","subsNo":"","lineNo":"","tgNo":"","tgName":null,"infoStatus":"1","orgName":"国网浙江杭州市萧山区供电有限公司","typeName":null,"infoStatusName":null,"dateDay":null,"orgNos":null,"nowTime":null,"countyName":null,"streetName":null,"villageName":null,"roadName":null,"communityName":null,"tranName":null,"sdLineName":null,"cityCode":"3340130","cityName":"国网浙江杭州市萧山区供电有限公司","provinceCode":null,"stopTime":"2019-12-11 15:30:00","powerType":"全部","powerOffArea":"110kV来苏变:来前A440线-姚家畈村4#变后段","powerOffReason":"姚家畈村4#变变压器更换","powerOffId":"2019120331020333"},{"poweroffId":2019120331020277,"sgpoweroffId":null,"subsName":"","lineName":"10kV鲍家D285线","pubTranName":"永昌村何云3#蒋家公变,","scope":"浙江省-杭州市-富阳区-永昌镇-唐昌行政村-唐昌自然村,永昌镇-永昌行政村(何云自然村,永昌自然村,永桥自然村)","startTime":"2019-12-03 15:33:46","stopDate":"2019-12-03 16:33:46","orgNo":"3340170","typeCode":"电网故障停限电","poweroffArea":"110kV清泉变:鲍家D285线-何云村3#蒋家公变后段","poweroffReason":"高压开关跳闸","powerTime":"2019-12-03 16:15:08","powerComm":"已送电","subsNo":"","lineNo":"","tgNo":"","tgName":null,"infoStatus":"1","orgName":"国网浙江杭州市富阳区供电公司","typeName":null,"infoStatusName":null,"dateDay":null,"orgNos":null,"nowTime":null,"countyName":null,"streetName":null,"villageName":null,"roadName":null,"communityName":null,"tranName":null,"sdLineName":null,"cityCode":"3340170","cityName":"国网浙江杭州市富阳区供电公司","provinceCode":null,"stopTime":"2019-12-03 16:33:46","powerType":"全部","powerOffArea":"110kV清泉变:鲍家D285线-何云村3#蒋家公变后段","powerOffReason":"高压开关跳闸","powerOffId":"2019120331020277"},{"poweroffId":2019120331020271,"sgpoweroffId":null,"subsName":"","lineName":"10kV生态C253线","pubTranName":"天乐云都7#公变,天乐云都3#公变,天乐云都2#公变,天乐云都5#公变,天乐云都13#公变,杭州中嘉物业管理有限公司1号专变,天乐云都18#公变,天乐云都临水苑1#公变,天乐云都10#公变,天乐云都8#公变,天乐云都聆风苑1#公变,天乐云都16#公变,天乐云都17#公变,天乐云都11#公变,天乐云都20#公变,天乐云都9#公变,天乐云都19#公变,天乐云都1#公变,杭州市萧山区公路管理处专变,天乐云都聆风苑2#公变,杭州生态园有限公司,杭州生态园有限公司,天乐云都4#公变,天乐云都6#公变,天乐云都14#公变,天乐云都21#公变,天乐云都12#公变,","scope":"浙江省-杭州市-萧山区-所前镇-越王行政村(天乐云都,东山夏自然村),所前镇-天乐社区(天乐云都,杭州生态园);所前镇(传芳行政村-杭州市萧山区公路管理处,越山行政村-杭州生态园有限公司,越王行政村-杭州生态园有限公司,天乐社区-杭州中嘉物业管理有限公司),所前镇杭州生态园,所前镇李家行政村一带","startTime":"2019-12-03 15:08:08","stopDate":"2019-12-03 19:00:08","orgNo":"3340130","typeCode":"电网故障停限电","poweroffArea":"110kV所前变:生态C253线-生态C2534开关后段","poweroffReason":"外力破坏引起高压住上断路器短路故障 原停电结束时间为2019-12-03 20:00:08,为减少客户停电时间,加快工作进度,提前送电,现变更停电结束时间为2019-12-03 19:00:08","powerTime":"2019-12-03 18:10:11","powerComm":"已送电","subsNo":"","lineNo":"","tgNo":"","tgName":null,"infoStatus":"1","orgName":"国网浙江杭州市萧山区供电有限公司","typeName":null,"infoStatusName":null,"dateDay":null,"orgNos":null,"nowTime":null,"countyName":null,"streetName":null,"villageName":null,"roadName":null,"communityName":null,"tranName":null,"sdLineName":null,"cityCode":"3340130","cityName":"国网浙江杭州市萧山区供电有限公司","provinceCode":null,"stopTime":"2019-12-03 19:00:08","powerType":"全部","powerOffArea":"110kV所前变:生态C253线-生态C2534开关后段","powerOffReason":"外力破坏引起高压住上断路器短路故障 原停电结束时间为2019-12-03 20:00:08,为减少客户停电时间,加快工作进度,提前送电,现变更停电结束时间为2019-12-03 19:00:08","powerOffId":"2019120331020271"},{"poweroffId":2019120331020240,"sgpoweroffId":null,"subsName":"","lineName":"10kV木桥D422线","pubTranName":"红旗村1#南奄公变,","scope":"浙江省-杭州市-富阳区-东洲街道-红旗行政村-红旗自然村","startTime":"2019-12-03 14:34:05","stopDate":"2019-12-03 15:34:05","orgNo":"3340170","typeCode":"电网故障停限电","poweroffArea":"110kV东洲变:木桥D422线-红旗村1#南奄公变后段","poweroffReason":"高压开关跳闸","powerTime":"2019-12-03 15:15:18","powerComm":"已送电","subsNo":"","lineNo":"","tgNo":"","tgName":null,"infoStatus":"1","orgName":"国网浙江杭州市富阳区供电公司","typeName":null,"infoStatusName":null,"dateDay":null,"orgNos":null,"nowTime":null,"countyName":null,"streetName":null,"villageName":null,"roadName":null,"communityName":null,"tranName":null,"sdLineName":null,"cityCode":"3340170","cityName":"国网浙江杭州市富阳区供电公司","provinceCode":null,"stopTime":"2019-12-03 15:34:05","powerType":"全部","powerOffArea":"110kV东洲变:木桥D422线-红旗村1#南奄公变后段","powerOffReason":"高压开关跳闸","powerOffId":"2019120331020240"},{"poweroffId":2019120331020225,"sgpoweroffId":null,"subsName":"","lineName":"10kV富源D674线","pubTranName":"富源村3#新区公变,","scope":"浙江省-杭州市-富阳区-春江街道-临江行政村-富源自然村","startTime":"2019-12-03 14:01:58","stopDate":"2019-12-03 15:01:58","orgNo":"3340170","typeCode":"电网故障停限电","poweroffArea":"110kV临江变:富源D674线-富源村3#新区公变后段","poweroffReason":"(低压停电信息)低压开关跳闸","powerTime":"2019-12-03 14:32:44","powerComm":"已送电","subsNo":"","lineNo":"","tgNo":"","tgName":null,"infoStatus":"1","orgName":"国网浙江杭州市富阳区供电公司","typeName":null,"infoStatusName":null,"dateDay":null,"orgNos":null,"nowTime":null,"countyName":null,"streetName":null,"villageName":null,"roadName":null,"communityName":null,"tranName":null,"sdLineName":null,"cityCode":"3340170","cityName":"国网浙江杭州市富阳区供电公司","provinceCode":null,"stopTime":"2019-12-03 15:01:58","powerType":"全部","powerOffArea":"110kV临江变:富源D674线-富源村3#新区公变后段","powerOffReason":"(低压停电信息)低压开关跳闸","powerOffId":"2019120331020225"},{"poweroffId":2019120331020223,"sgpoweroffId":null,"subsName":"","lineName":"10kV张家D421线","pubTranName":"张家村7号五边房公变,","scope":"浙江省-杭州市-富阳区-东洲街道-张家行政村-张家自然村","startTime":"2019-12-03 13:54:35","stopDate":"2019-12-03 14:54:35","orgNo":"3340170","typeCode":"电网故障停限电","poweroffArea":"110kV东洲变:张家D421线-张家村7号五边房公变后段","poweroffReason":"(低压停电信息)低压开关跳闸","powerTime":"2019-12-03 14:35:16","powerComm":"已送电","subsNo":"","lineNo":"","tgNo":"","tgName":null,"infoStatus":"1","orgName":"国网浙江杭州市富阳区供电公司","typeName":null,"infoStatusName":null,"dateDay":null,"orgNos":null,"nowTime":null,"countyName":null,"streetName":null,"villageName":null,"roadName":null,"communityName":null,"tranName":null,"sdLineName":null,"cityCode":"3340170","cityName":"国网浙江杭州市富阳区供电公司","provinceCode":null,"stopTime":"2019-12-03 14:54:35","powerType":"全部","powerOffArea":"110kV东洲变:张家D421线-张家村7号五边房公变后段","powerOffReason":"(低压停电信息)低压开关跳闸","powerOffId":"2019120331020223"},{"poweroffId":2019120331020222,"sgpoweroffId":null,"subsName":"","lineName":"10kV机前9700线","pubTranName":"湘苑二十二变,","scope":"浙江省-杭州市-滨江区-西兴街道-协同社区-湘云雅苑小区，浙江省杭州市滨江区西兴街道湘云雅苑小区5幢商铺","startTime":"2019-12-12 09:30:00","stopDate":"2019-12-12 11:20:00","orgNo":"3340101","typeCode":"计划停电","poweroffArea":"110kV府前变:机前9700线-湘苑二十二变后段B22-4","poweroffReason":"(低压停电信息)非居新装 原停电结束时间为2019-12-12 12:00:00,为减少客户停电时间,加快工作进度,提前送电,现变更停电结束时间为2019-12-12 11:20:00","powerTime":"2019-12-12 10:24:59","powerComm":"已送电","subsNo":"","lineNo":"","tgNo":"","tgName":null,"infoStatus":"1","orgName":"浙江杭州电力客户服务中心","typeName":null,"infoStatusName":null,"dateDay":null,"orgNos":null,"nowTime":null,"countyName":null,"streetName":null,"villageName":null,"roadName":null,"communityName":null,"tranName":null,"sdLineName":null,"cityCode":"3340101","cityName":"浙江杭州电力客户服务中心","provinceCode":null,"stopTime":"2019-12-12 11:20:00","powerType":"全部","powerOffArea":"110kV府前变:机前9700线-湘苑二十二变后段B22-4","powerOffReason":"(低压停电信息)非居新装 原停电结束时间为2019-12-12 12:00:00,为减少客户停电时间,加快工作进度,提前送电,现变更停电结束时间为2019-12-12 11:20:00","powerOffId":"2019120331020222"},{"poweroffId":2019120331020221,"sgpoweroffId":null,"subsName":"","lineName":"10kV碧水8376线","pubTranName":"华龙三变,","scope":"浙江省-杭州市-滨江区-浦沿街道-之江社区(西环路,南环路)，浙江省杭州市滨江区浦沿街道碧水豪园小区40.41幢公共计量。","startTime":"2019-12-12 13:30:00","stopDate":"2019-12-12 16:30:00","orgNo":"3340101","typeCode":"计划停电","poweroffArea":"110kV新生变:碧水8376线-华龙三变后段低压空开","poweroffReason":"(低压停电信息)低压空开 原停电结束时间为2019-12-12 12:00:00,因用户原因,现变更停电结束时间为2019-12-12 16:30:00","powerTime":"2019-12-12 15:50:42","powerComm":"已送电","subsNo":"","lineNo":"","tgNo":"","tgName":null,"infoStatus":"1","orgName":"浙江杭州电力客户服务中心","typeName":null,"infoStatusName":null,"dateDay":null,"orgNos":null,"nowTime":null,"countyName":null,"streetName":null,"villageName":null,"roadName":null,"communityName":null,"tranName":null,"sdLineName":null,"cityCode":"3340101","cityName":"浙江杭州电力客户服务中心","provinceCode":null,"stopTime":"2019-12-12 16:30:00","powerType":"全部","powerOffArea":"110kV新生变:碧水8376线-华龙三变后段低压空开","powerOffReason":"(低压停电信息)低压空开 原停电结束时间为2019-12-12 12:00:00,因用户原因,现变更停电结束时间为2019-12-12 16:30:00","powerOffId":"2019120331020221"},{"poweroffId":2019120331020208,"sgpoweroffId":null,"subsName":"","lineName":"10kV东农6477线","pubTranName":"景二二变,","scope":"浙江省-杭州市-江干区-凯旋街道-景昙社区-新塘路 景芳二区","startTime":"2019-12-03 13:28:27","stopDate":"2019-12-03 16:28:27","orgNo":"3340101","typeCode":"电网故障停限电","poweroffArea":"110kV五福变:东农6477线-景二二变后段","poweroffReason":"(低压停电信息)低压开关跳闸","powerTime":"2019-12-03 15:36:25","powerComm":"已送电","subsNo":"","lineNo":"","tgNo":"","tgName":null,"infoStatus":"1","orgName":"浙江杭州电力客户服务中心","typeName":null,"infoStatusName":null,"dateDay":null,"orgNos":null,"nowTime":null,"countyName":null,"streetName":null,"villageName":null,"roadName":null,"communityName":null,"tranName":null,"sdLineName":null,"cityCode":"3340101","cityName":"浙江杭州电力客户服务中心","provinceCode":null,"stopTime":"2019-12-03 16:28:27","powerType":"全部","powerOffArea":"110kV五福变:东农6477线-景二二变后段","powerOffReason":"(低压停电信息)低压开关跳闸","powerOffId":"2019120331020208"}],"pageModel":{"pageNow":763,"totalCount":17789,"totalPage":1779,"tableRows":0,"pageCount":10,"beginCount":7620},"isExperi":"1"}