{"message":"","today":"2020-06-15","seleList":[{"poweroffId":2019120231020339,"sgpoweroffId":null,"subsName":"","lineName":"10kV黄家G387线","pubTranName":"南庄湾泵站,洛阳村南庄桥公变,","scope":"浙江省杭州市余杭区仁和街道：洛阳村南庄桥、南庄湾泵站一带","startTime":"2019-12-09 08:20:00","stopDate":"2019-12-09 16:20:00","orgNo":"3340140","typeCode":"临时停电","poweroffArea":"110kV东塘变:黄家G387线南庄桥分线","poweroffReason":"浙江贝利建设集团有限公司介入系统工程：南庄桥分线5-8号杆调换导线。5#杆新装真空开关1台，新放电缆一根工作","powerTime":"2019-12-09 15:29:00","powerComm":"已送电","subsNo":"","lineNo":"","tgNo":"","tgName":null,"infoStatus":"1","orgName":"国网浙江杭州市余杭区供电有限公司","typeName":null,"infoStatusName":null,"dateDay":null,"orgNos":null,"nowTime":null,"countyName":null,"streetName":null,"villageName":null,"roadName":null,"communityName":null,"tranName":null,"sdLineName":null,"cityCode":"3340140","cityName":"国网浙江杭州市余杭区供电有限公司","provinceCode":null,"stopTime":"2019-12-09 16:20:00","powerType":"全部","powerOffArea":"110kV东塘变:黄家G387线南庄桥分线","powerOffReason":"浙江贝利建设集团有限公司介入系统工程：南庄桥分线5-8号杆调换导线。5#杆新装真空开关1台，新放电缆一根工作","powerOffId":"2019120231020339"},{"poweroffId":2019120231020338,"sgpoweroffId":null,"subsName":"","lineName":"10kV秧田G379线","pubTranName":"葛墩村秧田湾公变,","scope":"浙江省杭州市余杭区仁和街道：葛墩村秧田湾一带","startTime":"2019-12-07 08:20:00","stopDate":"2019-12-07 16:30:00","orgNo":"3340140","typeCode":"临时停电","poweroffArea":"110kV东塘变:秧田G379线葛墩村秧田湾公变","poweroffReason":"杭州余杭仁和街道四号农村路迁改工程：葛墩村秧田湾公变移位（带电作业配合）","powerTime":"2019-12-07 16:18:01","powerComm":"已送电","subsNo":"","lineNo":"","tgNo":"","tgName":null,"infoStatus":"1","orgName":"国网浙江杭州市余杭区供电有限公司","typeName":null,"infoStatusName":null,"dateDay":null,"orgNos":null,"nowTime":null,"countyName":null,"streetName":null,"villageName":null,"roadName":null,"communityName":null,"tranName":null,"sdLineName":null,"cityCode":"3340140","cityName":"国网浙江杭州市余杭区供电有限公司","provinceCode":null,"stopTime":"2019-12-07 16:30:00","powerType":"全部","powerOffArea":"110kV东塘变:秧田G379线葛墩村秧田湾公变","powerOffReason":"杭州余杭仁和街道四号农村路迁改工程：葛墩村秧田湾公变移位（带电作业配合）","powerOffId":"2019120231020338"},{"poweroffId":2019120231020313,"sgpoweroffId":null,"subsName":"","lineName":"10kV石门H566线","pubTranName":"清波村里洞口公变,","scope":"浙江省-杭州市-余杭区-黄湖镇-清波行政村-清波自然村","startTime":"2019-12-02 15:17:45","stopDate":"2019-12-02 16:00:00","orgNo":"3340140","typeCode":"电网故障停限电","poweroffArea":"35kV黄湖变:石门H566线-洞口2后段","poweroffReason":"高压开关跳闸","powerTime":"2019-12-02 15:52:00","powerComm":"已送电","subsNo":"","lineNo":"","tgNo":"","tgName":null,"infoStatus":"1","orgName":"国网浙江杭州市余杭区供电有限公司","typeName":null,"infoStatusName":null,"dateDay":null,"orgNos":null,"nowTime":null,"countyName":null,"streetName":null,"villageName":null,"roadName":null,"communityName":null,"tranName":null,"sdLineName":null,"cityCode":"3340140","cityName":"国网浙江杭州市余杭区供电有限公司","provinceCode":null,"stopTime":"2019-12-02 16:00:00","powerType":"全部","powerOffArea":"35kV黄湖变:石门H566线-洞口2后段","powerOffReason":"高压开关跳闸","powerOffId":"2019120231020313"},{"poweroffId":2019120231020305,"sgpoweroffId":null,"subsName":"","lineName":"10kV临戴C650线","pubTranName":"杭州双丰五金标准件有限公司,塘郎孙4#变,杭州萧山临浦镇萧腾贸易商行(1321435642),杭州金贝机械厂,杭州钱塔涂料玻璃有限公司,杭州双丰五金标准件有限公司,通一村2#变,杭州萧山澳飞丝工艺有限公司,杭州广和机械有限公司,杭州为家美小家电有限公司,杭州永信纺织有限公司变压器,通一村1#变,塘郎孙7#变,杭州英华工艺品有限公司,杭州永信纺织有限公司2#,钱塔涂料玻璃有限公司2#变压器,通一村3#变,杭州恩慈抛光材料有限公司配电变压器,","scope":"浙江省-杭州市-萧山区-临浦镇-通一行政村-上戴自然村,临浦镇-塘郎孙行政村(杨家弄自然村,塘郎孙自然村);临浦镇-塘郎孙行政村(杭州恩慈抛光材料有限公司,杭州双丰五金标准件有限公司,杭州华贵食品有限公司),临浦镇-通二行政村(杭州钱塔涂料玻璃有限公司,杭州为家美小家电有限公司),临浦镇-通一行政村(杭州英华工艺品有限公司,杭州金贝机械厂,杭州永信纺织有限公司,杭州萧山澳飞丝工艺有限公司,杭州双绣线业有限公司,杭州广和机械有限公司)等一带","startTime":"2019-12-02 15:02:38","stopDate":"2019-12-02 16:30:38","orgNo":"3340130","typeCode":"电网故障停限电","poweroffArea":"110kV临浦变:临戴C650线开关后段","poweroffReason":"高压开关跳闸 原停电结束时间为2019-12-02 17:30:38,为减少客户停电时间,加快工作进度,提前送电,现变更停电结束时间为2019-12-02 16:30:38","powerTime":"2019-12-02 15:43:02","powerComm":"已送电","subsNo":"","lineNo":"","tgNo":"","tgName":null,"infoStatus":"1","orgName":"国网浙江杭州市萧山区供电有限公司","typeName":null,"infoStatusName":null,"dateDay":null,"orgNos":null,"nowTime":null,"countyName":null,"streetName":null,"villageName":null,"roadName":null,"communityName":null,"tranName":null,"sdLineName":null,"cityCode":"3340130","cityName":"国网浙江杭州市萧山区供电有限公司","provinceCode":null,"stopTime":"2019-12-02 16:30:38","powerType":"全部","powerOffArea":"110kV临浦变:临戴C650线开关后段","powerOffReason":"高压开关跳闸 原停电结束时间为2019-12-02 17:30:38,为减少客户停电时间,加快工作进度,提前送电,现变更停电结束时间为2019-12-02 16:30:38","powerOffId":"2019120231020305"},{"poweroffId":2019120231020283,"sgpoweroffId":null,"subsName":"","lineName":"10kV仓兴H789线","pubTranName":"仓前集镇陆家塘北,","scope":"浙江省杭州市余杭区仓前街道：灵源村陆家塘北一带","startTime":"2019-12-13 08:30:00","stopDate":"2019-12-13 14:10:00","orgNo":"3340140","typeCode":"计划停电","poweroffArea":"110kV仓前变:仓兴H789线-仓前集镇陆家塘北后段","poweroffReason":"(低压停电信息)灵源村陆家塘北变拆线3档。 原停电结束时间为2019-12-13 16:30:00,为减少客户停电时间,加快工作进度,提前送电,现变更停电结束时间为2019-12-13 14:10:00","powerTime":"2019-12-13 13:45:18","powerComm":"已送电","subsNo":"","lineNo":"","tgNo":"","tgName":null,"infoStatus":"1","orgName":"国网浙江杭州市余杭区供电有限公司","typeName":null,"infoStatusName":null,"dateDay":null,"orgNos":null,"nowTime":null,"countyName":null,"streetName":null,"villageName":null,"roadName":null,"communityName":null,"tranName":null,"sdLineName":null,"cityCode":"3340140","cityName":"国网浙江杭州市余杭区供电有限公司","provinceCode":null,"stopTime":"2019-12-13 14:10:00","powerType":"全部","powerOffArea":"110kV仓前变:仓兴H789线-仓前集镇陆家塘北后段","powerOffReason":"(低压停电信息)灵源村陆家塘北变拆线3档。 原停电结束时间为2019-12-13 16:30:00,为减少客户停电时间,加快工作进度,提前送电,现变更停电结束时间为2019-12-13 14:10:00","powerOffId":"2019120231020283"},{"poweroffId":2019120231020277,"sgpoweroffId":null,"subsName":"","lineName":"10kV泰峰H883线","pubTranName":"泰山水泥厂新(1),百基水泥3#,超德斯1#,盛翔化工,","scope":"浙江省杭州市余杭区中泰街道：同绿实业、百基水泥厂、力盾水泥厂、超德斯厂一带","startTime":"2019-12-13 09:30:00","stopDate":"2019-12-13 19:00:00","orgNo":"3340140","typeCode":"计划停电","poweroffArea":"110kV中泰变:泰峰H883线-盛翔化工分线开关后段;泰峰H883线-百基水泥分线开关后段;泰峰H883线-泰山水泥厂新后段;泰峰H883线-超德斯用户开关后段","poweroffReason":"计划工作 原停电结束时间为2019-12-13 18:00:00,因工作难度原因,现变更停电结束时间为2019-12-13 19:00:00","powerTime":"2019-12-13 18:56:19","powerComm":"已送电","subsNo":"","lineNo":"","tgNo":"","tgName":null,"infoStatus":"1","orgName":"国网浙江杭州市余杭区供电有限公司","typeName":null,"infoStatusName":null,"dateDay":null,"orgNos":null,"nowTime":null,"countyName":null,"streetName":null,"villageName":null,"roadName":null,"communityName":null,"tranName":null,"sdLineName":null,"cityCode":"3340140","cityName":"国网浙江杭州市余杭区供电有限公司","provinceCode":null,"stopTime":"2019-12-13 19:00:00","powerType":"全部","powerOffArea":"110kV中泰变:泰峰H883线-盛翔化工分线开关后段;泰峰H883线-百基水泥分线开关后段;泰峰H883线-泰山水泥厂新后段;泰峰H883线-超德斯用户开关后段","powerOffReason":"计划工作 原停电结束时间为2019-12-13 18:00:00,因工作难度原因,现变更停电结束时间为2019-12-13 19:00:00","powerOffId":"2019120231020277"},{"poweroffId":2019120231020276,"sgpoweroffId":null,"subsName":"","lineName":"10kV博镇G962线","pubTranName":"佳网制丝,杭州余杭纺织机械厂,","scope":"浙江省杭州市余杭区运河街道：万博纺机机械、盛全捷机械有限公司一带","startTime":"2019-12-13 08:00:00","stopDate":"2019-12-13 16:00:00","orgNo":"3340140","typeCode":"计划停电","poweroffArea":"110kV博陆变:博镇G962线-纺机厂分线开关后段","poweroffReason":"纺机厂分线割接至天顺开关站II段博镇G962线待用G18间隔；新电缆制作、试验、搭接工作","powerTime":"2019-12-13 15:49:26","powerComm":"已送电","subsNo":"","lineNo":"","tgNo":"","tgName":null,"infoStatus":"1","orgName":"国网浙江杭州市余杭区供电有限公司","typeName":null,"infoStatusName":null,"dateDay":null,"orgNos":null,"nowTime":null,"countyName":null,"streetName":null,"villageName":null,"roadName":null,"communityName":null,"tranName":null,"sdLineName":null,"cityCode":"3340140","cityName":"国网浙江杭州市余杭区供电有限公司","provinceCode":null,"stopTime":"2019-12-13 16:00:00","powerType":"全部","powerOffArea":"110kV博陆变:博镇G962线-纺机厂分线开关后段","powerOffReason":"纺机厂分线割接至天顺开关站II段博镇G962线待用G18间隔；新电缆制作、试验、搭接工作","powerOffId":"2019120231020276"},{"poweroffId":2019120231020274,"sgpoweroffId":null,"subsName":"","lineName":"10kV泰峰H883线","pubTranName":"江峰市政材料,余杭勤奋纸箱厂,杭州热电工程有限公司,","scope":"浙江省杭州市余杭区中泰街道：泰峰村同和亭、泰峰村袁家头、泰峰村南涧加工场、泰峰村礼堂、中泰杭州热电厂、勤奋纸箱厂、江峰市政材料厂一带","startTime":"2019-12-12 07:30:00","stopDate":"2019-12-12 18:00:00","orgNo":"3340140","typeCode":"计划停电","poweroffArea":"110kV中泰变:泰峰H883线-江峰市政材料分线开关后段;泰峰H883线-袁家头(2)后段;泰峰H883线-勤奋纸箱分线开关后段;泰峰H883线-杭州热电厂后段;泰峰H883线-同和亭分线开关后段","poweroffReason":"计划工作","powerTime":"2019-12-12 17:03:45","powerComm":"已送电","subsNo":"","lineNo":"","tgNo":"","tgName":null,"infoStatus":"1","orgName":"国网浙江杭州市余杭区供电有限公司","typeName":null,"infoStatusName":null,"dateDay":null,"orgNos":null,"nowTime":null,"countyName":null,"streetName":null,"villageName":null,"roadName":null,"communityName":null,"tranName":null,"sdLineName":null,"cityCode":"3340140","cityName":"国网浙江杭州市余杭区供电有限公司","provinceCode":null,"stopTime":"2019-12-12 18:00:00","powerType":"全部","powerOffArea":"110kV中泰变:泰峰H883线-江峰市政材料分线开关后段;泰峰H883线-袁家头(2)后段;泰峰H883线-勤奋纸箱分线开关后段;泰峰H883线-杭州热电厂后段;泰峰H883线-同和亭分线开关后段","powerOffReason":"计划工作","powerOffId":"2019120231020274"},{"poweroffId":2019120231020273,"sgpoweroffId":null,"subsName":"","lineName":"10kV博镇G962线","pubTranName":"运河镇博陆街道二号公变,博陆街道4号公变,博陆街道3号公变,运河镇博陆街道长子港公变,盛彩风管2,盛彩风管,运河镇博陆村北西桥公变,","scope":"浙江省杭州市余杭区运河街道：博陆街道4号、长子港、博陆街道2号、北西桥、博陆街道3号、盛彩凤管一带","startTime":"2019-12-12 08:00:00","stopDate":"2019-12-12 15:00:00","orgNo":"3340140","typeCode":"计划停电","poweroffArea":"110kV博陆变:博镇G962线-1#电缆分支箱分线开关后段;博镇G962线-博陆街道3号公变后段;博镇G962线-盛彩凤管分线开关后段;博镇G962线-博陆街道4号公变开关后段","poweroffReason":"计划工作 原停电结束时间为2019-12-12 16:00:00,为减少客户停电时间,加快工作进度,提前送电,现变更停电结束时间为2019-12-12 15:00:00","powerTime":"2019-12-12 14:33:08","powerComm":"已送电","subsNo":"","lineNo":"","tgNo":"","tgName":null,"infoStatus":"1","orgName":"国网浙江杭州市余杭区供电有限公司","typeName":null,"infoStatusName":null,"dateDay":null,"orgNos":null,"nowTime":null,"countyName":null,"streetName":null,"villageName":null,"roadName":null,"communityName":null,"tranName":null,"sdLineName":null,"cityCode":"3340140","cityName":"国网浙江杭州市余杭区供电有限公司","provinceCode":null,"stopTime":"2019-12-12 15:00:00","powerType":"全部","powerOffArea":"110kV博陆变:博镇G962线-1#电缆分支箱分线开关后段;博镇G962线-博陆街道3号公变后段;博镇G962线-盛彩凤管分线开关后段;博镇G962线-博陆街道4号公变开关后段","powerOffReason":"计划工作 原停电结束时间为2019-12-12 16:00:00,为减少客户停电时间,加快工作进度,提前送电,现变更停电结束时间为2019-12-12 15:00:00","powerOffId":"2019120231020273"},{"poweroffId":2019120231020272,"sgpoweroffId":null,"subsName":"","lineName":"10kV云会H408线","pubTranName":"良渚村朱家坝1号公变,良渚村朱家坝2号公变,建华预制厂,官塘砂矿,","scope":"浙江省杭州市余杭区良渚街道：良渚朱家坝村一带","startTime":"2019-12-12 08:40:00","stopDate":"2019-12-12 14:00:00","orgNo":"3340140","typeCode":"计划停电","poweroffArea":"35kV良渚变:云会H408线-朱家坝1分线开关后段","poweroffReason":"云会H408线朱家坝总分线良渚村朱家坝1号公变增容400kVA杆上变;原朱家坝变拆除、拆除导线4档、低压线路割接.原停电结束时间为2019-12-12 15:40:00,因施工力量加强，提前送电,现变更停电结束时间为2019-12-12 14:00:00","powerTime":"2019-12-12 13:23:42","powerComm":"已送电","subsNo":"","lineNo":"","tgNo":"","tgName":null,"infoStatus":"1","orgName":"国网浙江杭州市余杭区供电有限公司","typeName":null,"infoStatusName":null,"dateDay":null,"orgNos":null,"nowTime":null,"countyName":null,"streetName":null,"villageName":null,"roadName":null,"communityName":null,"tranName":null,"sdLineName":null,"cityCode":"3340140","cityName":"国网浙江杭州市余杭区供电有限公司","provinceCode":null,"stopTime":"2019-12-12 14:00:00","powerType":"全部","powerOffArea":"35kV良渚变:云会H408线-朱家坝1分线开关后段","powerOffReason":"云会H408线朱家坝总分线良渚村朱家坝1号公变增容400kVA杆上变;原朱家坝变拆除、拆除导线4档、低压线路割接.原停电结束时间为2019-12-12 15:40:00,因施工力量加强，提前送电,现变更停电结束时间为2019-12-12 14:00:00","powerOffId":"2019120231020272"}],"pageModel":{"pageNow":768,"totalCount":17789,"totalPage":1779,"tableRows":0,"pageCount":10,"beginCount":7670},"isExperi":"1"}