{"message":"","today":"2020-06-15","seleList":[{"poweroffId":2019120131020159,"sgpoweroffId":null,"subsName":"","lineName":"10kV刘东9951线","pubTranName":"肖水闸,官塘桥二,翁家头,镓谷施1#变,青联,","scope":"浙江省-杭州市-西湖区-蒋村街道-蒋村社区-文二西路;三墩镇-双桥行政村(杭州青联印刷有限公司,杭州市三墩镇人民政府,杭州镓谷科技有限公司)","startTime":"2019-12-01 18:40:34","stopDate":"2019-12-01 20:40:34","orgNo":"3340101","typeCode":"电网故障停限电","poweroffArea":"110kV墩北变:刘东9951线-翁家头,肖水闸,官塘桥二,镓谷施1#变,青联后段","poweroffReason":"高压开关跳闸","powerTime":"2019-12-01 20:06:32","powerComm":"已送电","subsNo":"","lineNo":"","tgNo":"","tgName":null,"infoStatus":"1","orgName":"浙江杭州电力客户服务中心","typeName":null,"infoStatusName":null,"dateDay":null,"orgNos":null,"nowTime":null,"countyName":null,"streetName":null,"villageName":null,"roadName":null,"communityName":null,"tranName":null,"sdLineName":null,"cityCode":"3340101","cityName":"浙江杭州电力客户服务中心","provinceCode":null,"stopTime":"2019-12-01 20:40:34","powerType":"全部","powerOffArea":"110kV墩北变:刘东9951线-翁家头,肖水闸,官塘桥二,镓谷施1#变,青联后段","powerOffReason":"高压开关跳闸","powerOffId":"2019120131020159"},{"poweroffId":2019120131020153,"sgpoweroffId":null,"subsName":"","lineName":"10kV中区8944线","pubTranName":"现茗（十二）,快公（6）,酒店2#,风景（二）,现茗（四）,酒店4#,现茗（二）,现雅(十一),现茗（六）,现茗（八）,风景（四）,酒店3#,会所(二),现茗（十四）,酒店5#,现商双路内部二,现雅(八),风景（六）,酒店6#,现雅(九),现茗（十）,风景（十）,现雅(七),现雅(十),现雅(十二),酒店1#,风景（八）,","scope":"浙江省-杭州市-下城区-文晖街道-现代城社区(潮王路,绍兴路);浙江省-杭州市-下城区-文晖街道-现代城社区-浙江野风物业服务有限公司,文晖街道-打铁关社区(杭州市公共交通集团有限公司,浙江野风物业服务有限公司)","startTime":"2019-12-01 17:48:51","stopDate":"2019-12-01 20:30:51","orgNo":"3340101","typeCode":"电网故障停限电","poweroffArea":"110kV东新变:中区8944线","poweroffReason":"高压开关跳闸 原停电结束时间为2019-12-01 22:48:51,为减少客户停电时间,加快工作进度,提前送电,现变更停电结束时间为2019-12-01 20:30:51","powerTime":"2019-12-01 20:02:29","powerComm":"已送电","subsNo":"","lineNo":"","tgNo":"","tgName":null,"infoStatus":"1","orgName":"浙江杭州电力客户服务中心","typeName":null,"infoStatusName":null,"dateDay":null,"orgNos":null,"nowTime":null,"countyName":null,"streetName":null,"villageName":null,"roadName":null,"communityName":null,"tranName":null,"sdLineName":null,"cityCode":"3340101","cityName":"浙江杭州电力客户服务中心","provinceCode":null,"stopTime":"2019-12-01 20:30:51","powerType":"全部","powerOffArea":"110kV东新变:中区8944线","powerOffReason":"高压开关跳闸 原停电结束时间为2019-12-01 22:48:51,为减少客户停电时间,加快工作进度,提前送电,现变更停电结束时间为2019-12-01 20:30:51","powerOffId":"2019120131020153"},{"poweroffId":2019120131020150,"sgpoweroffId":null,"subsName":"","lineName":"10kV惠围A128线","pubTranName":"新建机械,三阳房地产5#,顺丰家园10#公变,宁牧村20#变,沈氏轴承,爱迪尔,顺丰家园4#公变,伟钢实业,三阳房地产4#,三阳房地产2#,顺丰家园9#公变,顺丰家园11#公变,中亚万向节,新中村11#变,杭州萧山交通投资集团基础设施建设指挥部变压器,和泰机电工业有限公司,银丰投资,宽炬精密,浙江大学医学院附属妇产科医院1#,上海铁路局杭州站,宁牧村6#变,浙江大学医学院附属妇产科医院2#,中亚汽配,杭州萧山交通投资集团基础设施建设指挥部,硕业轴承,宁牧村24#变,顺丰家园2#公变,沈氏,丰盛大厦1#公变,顺丰家园8#公变,万峰汽车,顺丰家园3#公变,新中村15#变,顺丰家园1#公变,顺丰家园12#公变,三阳房地产3#,顺丰家园7#公变,杭州萧山国际机场高速公路建设开发有限公司,新安村22#变,金凯纺织2#,三阳房地产1#,三阳房地产7#,顺丰家园5#公变,幸福时代公寓（万丰置业）变压器间隔配电变压器,三阳房地产6#,新中村4#变,顺丰家园6#公变,","scope":"浙江省-杭州市-萧山区-宁围镇-宁围街道-丰东行政村(文明路,市心北路),宁围街道(宁牧行政村-宁牧自然村,新中行政村-新中自然村,新安行政村-新安自然村);浙江省-杭州市-萧山区-经济技术开发区-市北社区-杭州和泰机电工业有限公司,宁围街道-宁牧行政村(杭州伟刚实业有限公司,杭州新建机械有限公司,杭州万峰汽车轴承有限公司,杭州萧山中亚汽配有限公司,杭州中亚万向节有限公司,杭州沈氏轴承有限公司,杭州硕业轴承有限公司,杭州金凯纺织实业有限公司,杭州爱迪尔文体用品厂,杭州宽炬精密轴承有限公司),宁围街道-新安行政村(杭州萧山国际机场高速公路建设开发有限公司,杭州市萧山区市政绿化养护保障中心),宁围街道(二桥行政村-中国铁路上海局集团有限公司杭州站,丰东行政村-杭州银丰投资有限公司,新中行政村-杭州萧山钱江世纪城开发建设有限责任公司,钱江世纪城社区-浙江大学医学院附属妇产科医院、浙江省杭州市萧山区振宁路981号顺风家园5号楼、浙江省杭州市萧山区宁围街道宁牧行政村宁牧自然村、浙江省杭州市萧山区宁围街道金鸡路与季仁路交叉口等一带","startTime":"2019-12-01 17:25:28","stopDate":"2019-12-01 21:33:28","orgNo":"3340130","typeCode":"电网故障停限电","poweroffArea":"110kV惠兴变:惠围A128线","poweroffReason":"高压柱上断路器短路故障","powerTime":"2019-12-01 20:34:25","powerComm":"已送电","subsNo":"","lineNo":"","tgNo":"","tgName":null,"infoStatus":"1","orgName":"国网浙江杭州市萧山区供电有限公司","typeName":null,"infoStatusName":null,"dateDay":null,"orgNos":null,"nowTime":null,"countyName":null,"streetName":null,"villageName":null,"roadName":null,"communityName":null,"tranName":null,"sdLineName":null,"cityCode":"3340130","cityName":"国网浙江杭州市萧山区供电有限公司","provinceCode":null,"stopTime":"2019-12-01 21:33:28","powerType":"全部","powerOffArea":"110kV惠兴变:惠围A128线","powerOffReason":"高压柱上断路器短路故障","powerOffId":"2019120131020150"},{"poweroffId":2019120131020136,"sgpoweroffId":null,"subsName":"","lineName":"10kV建国V170线","pubTranName":"10kV周云村周云水库公变,10kV周云村[里周万]公变,10kV周云村[外周万]公变,10kV周云村[泮家山]公变,藻溪中学,","scope":"浙江省-杭州市-临安市-天目山镇-交口行政村-交口自然村,天目山镇-周云行政村(周云自然村,周冕自然村,落云自然村);天目山镇-杭州市临安区天目山镇藻溪小学","startTime":"2019-12-01 15:24:59","stopDate":"2019-12-01 16:10:00","orgNo":"3340160","typeCode":"电网故障停限电","poweroffArea":"35kV藻溪变:建国V170线周万支线开关后段","poweroffReason":"高压开关跳闸 原停电结束时间为2019-12-01 17:00:00,为减少客户停电时间,加快工作进度,提前送电,现变更停电结束时间为2019-12-01 16:10:00","powerTime":"2019-12-01 15:55:12","powerComm":"已送电","subsNo":"","lineNo":"","tgNo":"","tgName":null,"infoStatus":"1","orgName":"国网浙江临安市供电公司","typeName":null,"infoStatusName":null,"dateDay":null,"orgNos":null,"nowTime":null,"countyName":null,"streetName":null,"villageName":null,"roadName":null,"communityName":null,"tranName":null,"sdLineName":null,"cityCode":"3340160","cityName":"国网浙江临安市供电公司","provinceCode":null,"stopTime":"2019-12-01 16:10:00","powerType":"全部","powerOffArea":"35kV藻溪变:建国V170线周万支线开关后段","powerOffReason":"高压开关跳闸 原停电结束时间为2019-12-01 17:00:00,为减少客户停电时间,加快工作进度,提前送电,现变更停电结束时间为2019-12-01 16:10:00","powerOffId":"2019120131020136"},{"poweroffId":2019120131020124,"sgpoweroffId":null,"subsName":"","lineName":"10kV海云8130线","pubTranName":"树园二变,兰园3#,利兹公寓二变,杭州海华物业管理有限公司,1#,嘉业海华专变2#,泛洋房产专变双路内部一,兰园四变,杭州怡华物业管理有限公司,兰园(六)变,宝善宾馆,宝善宾馆,建根变,兰园5#,兰园(八)变,河滨公寓三变,河滨公寓四变,杭州河滨乐购生活购物有限公司,阳光都市二变,东河春晓二变,杭州怡华物业管理有限公司,泛洋房产专变双路内部二,河滨公寓二变,嘉业海华专变1#,杭州河滨乐购生活购物有限公司,2#变压器,兰园1#,兰园6#,3,兰园二变,2,海华宝善二变,广宇集团股份有限公司,杭州河滨乐购生活购物有限公司,杭州河滨乐购生活购物有限公司,轻变,杭州怡华物业管理有限公司,杭州怡华物业管理有限公司,利兹公寓四变,广宇集团股份有限公司,树园三变,嘉业海华二变,","scope":"浙江省-杭州市-下城区-潮鸣街道-艮山门社区(环城北路,建国北路,宝善公寓,兰园),潮鸣街道-所巷社区(体育场路,河滨公寓小区,树园小区),潮鸣街道-体东社区(建国北路,兰园,环城东路,利兹城市公寓,莫衙营),天水街道(延安新村社区-体育场路,环北新村社区-环城北路),(下城区-长庆街道-王马社区-建国北路355号);天水街道-绿城物业服务集团有限公司杭州第一分公司,潮鸣街道(杭州点石物业管理有限公司,轻工业杭州机电设计研究院有限公司,浙江国金企业管理有限公司,浙江怡华物业服务有限公司,杭州海华物业管理有限公司,杭州宝善宾馆有限责任公司,浙江野风物业服务有限公司)","startTime":"2019-12-01 13:19:00","stopDate":"2019-12-01 15:30:00","orgNo":"3340101","typeCode":"电网故障停限电","poweroffArea":"220kV运河变:海云8130线","poweroffReason":"高压开关跳闸 原停电结束时间为2019-12-01 18:19:00,为减少客户停电时间,加快工作进度,提前送电,现变更停电结束时间为2019-12-01 15:30:00","powerTime":"2019-12-01 14:56:10","powerComm":"已送电","subsNo":"","lineNo":"","tgNo":"","tgName":null,"infoStatus":"1","orgName":"浙江杭州电力客户服务中心","typeName":null,"infoStatusName":null,"dateDay":null,"orgNos":null,"nowTime":null,"countyName":null,"streetName":null,"villageName":null,"roadName":null,"communityName":null,"tranName":null,"sdLineName":null,"cityCode":"3340101","cityName":"浙江杭州电力客户服务中心","provinceCode":null,"stopTime":"2019-12-01 15:30:00","powerType":"全部","powerOffArea":"220kV运河变:海云8130线","powerOffReason":"高压开关跳闸 原停电结束时间为2019-12-01 18:19:00,为减少客户停电时间,加快工作进度,提前送电,现变更停电结束时间为2019-12-01 15:30:00","powerOffId":"2019120131020124"},{"poweroffId":2019120131020115,"sgpoweroffId":null,"subsName":"","lineName":"10kV塘埠H257线","pubTranName":"塘埠村枉山头2号公变,","scope":"浙江省-杭州市-余杭区-瓶窑镇-塘埠行政村(塘埠自然村,枉山头自然村,横山组)","startTime":"2019-12-01 12:37:57","stopDate":"2019-12-01 14:37:57","orgNo":"3340140","typeCode":"电网故障停限电","poweroffArea":"110kV彭公变:塘埠H257线-塘埠村枉山头2号公变后段","poweroffReason":"高压开关跳闸","powerTime":"2019-12-01 13:54:35","powerComm":"已送电","subsNo":"","lineNo":"","tgNo":"","tgName":null,"infoStatus":"1","orgName":"国网浙江杭州市余杭区供电有限公司","typeName":null,"infoStatusName":null,"dateDay":null,"orgNos":null,"nowTime":null,"countyName":null,"streetName":null,"villageName":null,"roadName":null,"communityName":null,"tranName":null,"sdLineName":null,"cityCode":"3340140","cityName":"国网浙江杭州市余杭区供电有限公司","provinceCode":null,"stopTime":"2019-12-01 14:37:57","powerType":"全部","powerOffArea":"110kV彭公变:塘埠H257线-塘埠村枉山头2号公变后段","powerOffReason":"高压开关跳闸","powerOffId":"2019120131020115"},{"poweroffId":2019120131020090,"sgpoweroffId":null,"subsName":"","lineName":"10kV锦华T331线","pubTranName":"横村电影院1号公变,","scope":"浙江省-杭州市-桐庐县-横村镇-独山社区-横江路,横村镇-横村行政村(横江路,许家桥头,独山路,横富路,横村自然村)","startTime":"2019-12-01 10:12:38","stopDate":"2019-12-01 17:12:38","orgNo":"3340150","typeCode":"电网故障停限电","poweroffArea":"110kV横村变:锦华T331线-横村电影院1号公变后段","poweroffReason":"(低压停电信息)低压开关跳闸","powerTime":"2019-12-01 17:01:23","powerComm":"已送电","subsNo":"","lineNo":"","tgNo":"","tgName":null,"infoStatus":"1","orgName":"国网浙江桐庐县供电公司","typeName":null,"infoStatusName":null,"dateDay":null,"orgNos":null,"nowTime":null,"countyName":null,"streetName":null,"villageName":null,"roadName":null,"communityName":null,"tranName":null,"sdLineName":null,"cityCode":"3340150","cityName":"国网浙江桐庐县供电公司","provinceCode":null,"stopTime":"2019-12-01 17:12:38","powerType":"全部","powerOffArea":"110kV横村变:锦华T331线-横村电影院1号公变后段","powerOffReason":"(低压停电信息)低压开关跳闸","powerOffId":"2019120131020090"},{"poweroffId":2019120131020066,"sgpoweroffId":null,"subsName":"","lineName":"10kV石门H566线","pubTranName":"赐壁村垃圾场公变,","scope":"浙江省-杭州市-余杭区-黄湖镇-赐壁行政村(赐壁自然村,赐璧自然村)","startTime":"2019-12-01 09:07:57","stopDate":"2019-12-01 11:07:57","orgNo":"3340140","typeCode":"电网故障停限电","poweroffArea":"35kV黄湖变:石门H566线-赐壁村垃圾场公变后段","poweroffReason":"高压开关跳闸","powerTime":"2019-12-01 10:50:40","powerComm":"已送电","subsNo":"","lineNo":"","tgNo":"","tgName":null,"infoStatus":"1","orgName":"国网浙江杭州市余杭区供电有限公司","typeName":null,"infoStatusName":null,"dateDay":null,"orgNos":null,"nowTime":null,"countyName":null,"streetName":null,"villageName":null,"roadName":null,"communityName":null,"tranName":null,"sdLineName":null,"cityCode":"3340140","cityName":"国网浙江杭州市余杭区供电有限公司","provinceCode":null,"stopTime":"2019-12-01 11:07:57","powerType":"全部","powerOffArea":"35kV黄湖变:石门H566线-赐壁村垃圾场公变后段","powerOffReason":"高压开关跳闸","powerOffId":"2019120131020066"},{"poweroffId":2019120131020062,"sgpoweroffId":null,"subsName":"","lineName":"10kV东八D469线","pubTranName":"富泰化纤1#,富阳市东洲街道杭新船舶修造厂,杭州君鼎马赛克有限公司,浙江大华智联有限公司,1#,富阳子周实业有限公司,紫铜村16号村委路公变,浙江大华智联有限公司3#变,浙江华创视讯科技有限公司 1#,富阳市东洲街道紫铜村村民委员会,浙江大华智联有限公司2变,紫铜村6#西公变,紫铜村15号塘边公变,浙江汇通船务有限公司1#变,杭州富阳振兴电器阀门厂1#变,浙江绿飞诗日用品有限公司,紫铜村8号村委公变,杭州科朗斯精密机械有限公司,富阳市中大彩印有限公司,杭州驰程贸易有限公司,紫铜村9号新农居点公变变压器,中建三局第一建设工程有限责任公司 1#,紫铜村11号杭千公变,紫铜村4#铜钿沙东公变,杭州杭千高速公路发展有限公司,浙江华创视讯科技有限公司 2#,杭州祥和实业有限公司1#变,紫铜村7号铜钿沙上公变,杭州富阳城市建设投资集团有限公司1#变,紫铜村17号村委后公变,杭州富阳城市建设投资集团有限公司2#变,紫铜村10号公变,富阳市交通发展投资集团有限公司,1#,富泰化纤2#,紫铜村3#铜钿沙西公变,紫铜村13号村委路公变,杭州市富阳区东洲街道紫铜村村民委员1#变,杭州顺安实业有限公司,紫铜村2号紫沙东公变,浙江大华智联有限公司,2号变压器,杭州固迅机械制造有限公司1#变,浙江大华智联有限公司变压器,紫铜村14号铜钿沙公变,杭州富阳宏利实业有限公司,浙江环宇建设集团有限公司2#变,紫铜村5#埠头公变,浙江大华智联有限公司1#变,杭州天陶实业有限公司,杭州市港航管理局,紫铜村12号八号路公变,浙江环宇建设集团有限公司1#变,紫铜村1#紫沙西公变,富阳市东洲街道中心幼儿园,","scope":"浙江省-杭州市-富阳区-东洲街道(紫铜行政村-紫铜自然村,民联行政村-民联自然村);东洲街道-东洲工业园区(浙江绿飞诗日用品有限公司,浙江中烟工业有限责任公司,杭州泰富纺织化纤有限公司,杭州富阳中大彩印有限公司,杭州富阳宏利实业有限公司,杭州怀邦物资有限公司,杭州金兴实业有限公司,富阳市东洲街道中心幼儿园,浙江环宇建设集团有限公司),东洲街道-学校沙行政村(杭州市富阳区人民政府东洲街道办事处,杭州市港航管理局),东洲街道-紫铜行政村(杭州君鼎马赛克有限公司,杭州驰程贸易有限公司,杭州祥和实业有限公司,杭州杭千高速公路发展有限公司,杭州子周实业有限公司,富阳市东洲街道紫铜村村民委员会,杭州富阳开发区基础设施建设有限公司,杭州市富阳区东洲街道紫铜村村民委员会,浙江大华智联有限公司),东洲街道-东洲行政村(新际电子元件(杭州)有限公司,浙江华创视讯科技有限公司),东洲街道(民联行政村-杭州富阳振兴电器阀门厂,杭州固迅机械制造有限公司,浙江汇通船务有限公司)","startTime":"2019-12-01 08:54:48","stopDate":"2019-12-01 10:54:48","orgNo":"3340170","typeCode":"电网故障停限电","poweroffArea":"110kV东洲变:东八D469线-东八D469线开关后段","poweroffReason":"高压开关跳闸","powerTime":"2019-12-01 10:04:08","powerComm":"已送电","subsNo":"","lineNo":"","tgNo":"","tgName":null,"infoStatus":"1","orgName":"国网浙江杭州市富阳区供电公司","typeName":null,"infoStatusName":null,"dateDay":null,"orgNos":null,"nowTime":null,"countyName":null,"streetName":null,"villageName":null,"roadName":null,"communityName":null,"tranName":null,"sdLineName":null,"cityCode":"3340170","cityName":"国网浙江杭州市富阳区供电公司","provinceCode":null,"stopTime":"2019-12-01 10:54:48","powerType":"全部","powerOffArea":"110kV东洲变:东八D469线-东八D469线开关后段","powerOffReason":"高压开关跳闸","powerOffId":"2019120131020062"},{"poweroffId":2019120131020052,"sgpoweroffId":null,"subsName":"","lineName":"10kV东八D469线","pubTranName":"浙江大华智联有限公司3#变,浙江大华智联有限公司1#变,浙江大华智联有限公司2变,","scope":"浙江省-杭州市-富阳区-东洲街道-浙江大华智联有限公司","startTime":"2019-12-01 08:37:00","stopDate":"2019-12-01 10:37:00","orgNo":"3340170","typeCode":"电网故障停限电","poweroffArea":"110kV东洲变:东八D469线浙江大华智联有限公司浙江大华智联有限公司配变","poweroffReason":"高压开关跳闸","powerTime":"2019-12-01 09:44:34","powerComm":"已送电","subsNo":"","lineNo":"","tgNo":"","tgName":null,"infoStatus":"1","orgName":"国网浙江杭州市富阳区供电公司","typeName":null,"infoStatusName":null,"dateDay":null,"orgNos":null,"nowTime":null,"countyName":null,"streetName":null,"villageName":null,"roadName":null,"communityName":null,"tranName":null,"sdLineName":null,"cityCode":"3340170","cityName":"国网浙江杭州市富阳区供电公司","provinceCode":null,"stopTime":"2019-12-01 10:37:00","powerType":"全部","powerOffArea":"110kV东洲变:东八D469线浙江大华智联有限公司浙江大华智联有限公司配变","powerOffReason":"高压开关跳闸","powerOffId":"2019120131020052"}],"pageModel":{"pageNow":772,"totalCount":17789,"totalPage":1779,"tableRows":0,"pageCount":10,"beginCount":7710},"isExperi":"1"}