{"message":"","today":"2020-06-15","seleList":[{"poweroffId":2019120131020026,"sgpoweroffId":null,"subsName":"","lineName":"10kV通桥8568线","pubTranName":"2#变压器,5#,4#,1#,2#,1#变压器,双峰变,永昌,1#,5#,永昌二,3#,1#,望江泵站,7#,6#,3#,4#,杭州市城市土地发展有限公司,3#,路灯变专变,2#,1#,4#,给水,1#,2#,2#,","scope":"浙江省-杭州市-上城区-紫阳街道-彩霞岭社区(永昌坝宿舍,江城路,永昌坝铁路宿,抽分厂铁路宿,抽分厂路),浙江省-杭州市-上城区-紫阳街道-海潮社区-杭州市路灯管理所,紫阳街道-北落马营社区(中国铁路上海局集团有限公司杭州供电段,中国铁路上海局集团有限公司杭州房建公寓段),紫阳街道-甬江社区(浙江银力建设集团有限公司,杭州市佛教协会),望江街道(大通桥社区-杭州市市政设施发展中心,始版桥社区-杭州市路灯管理所,中铁十四局集团建筑工程有限公司,清泰门社区-龙元建设集团股份有限公司,徐家埠社区-杭州国成建设工程有限公司)","startTime":"2019-12-01 07:05:24","stopDate":"2019-12-01 13:05:24","orgNo":"3340101","typeCode":"电网故障停限电","poweroffArea":"220kV候潮变:通桥8568线","poweroffReason":"高压开关跳闸","powerTime":"2019-12-01 12:34:26","powerComm":"已送电","subsNo":"","lineNo":"","tgNo":"","tgName":null,"infoStatus":"1","orgName":"浙江杭州电力客户服务中心","typeName":null,"infoStatusName":null,"dateDay":null,"orgNos":null,"nowTime":null,"countyName":null,"streetName":null,"villageName":null,"roadName":null,"communityName":null,"tranName":null,"sdLineName":null,"cityCode":"3340101","cityName":"浙江杭州电力客户服务中心","provinceCode":null,"stopTime":"2019-12-01 13:05:24","powerType":"全部","powerOffArea":"220kV候潮变:通桥8568线","powerOffReason":"高压开关跳闸","powerOffId":"2019120131020026"},{"poweroffId":2019120131020024,"sgpoweroffId":null,"subsName":"","lineName":"10kV小岭T104线","pubTranName":"圆通小区1号公变,","scope":"浙江省-杭州市-桐庐县-桐君街道-圆通社区,圆通路,","startTime":"2019-12-01 06:52:02","stopDate":"2019-12-01 08:52:02","orgNo":"3340150","typeCode":"电网故障停限电","poweroffArea":"110kV桐庐变:小岭T104线-圆通小区1号公变后段","poweroffReason":"(低压停电信息)低压开关跳闸","powerTime":"2019-12-01 08:32:41","powerComm":"已送电","subsNo":"","lineNo":"","tgNo":"","tgName":null,"infoStatus":"1","orgName":"国网浙江桐庐县供电公司","typeName":null,"infoStatusName":null,"dateDay":null,"orgNos":null,"nowTime":null,"countyName":null,"streetName":null,"villageName":null,"roadName":null,"communityName":null,"tranName":null,"sdLineName":null,"cityCode":"3340150","cityName":"国网浙江桐庐县供电公司","provinceCode":null,"stopTime":"2019-12-01 08:52:02","powerType":"全部","powerOffArea":"110kV桐庐变:小岭T104线-圆通小区1号公变后段","powerOffReason":"(低压停电信息)低压开关跳闸","powerOffId":"2019120131020024"},{"poweroffId":2019120131020020,"sgpoweroffId":null,"subsName":"","lineName":"10kV家东T565线","pubTranName":"凤镇村1号公变,桐庐县职业技术学校,凤岗村1号公变,桐庐县凤川镇纳尼亚农庄,风川电信所,江南名都1#专变,石桥村3号公变,桐庐县凤川初级中学,桐庐县凤川小学,桐庐华纳丝针纺服饰有限公司,凤川医院,城东2号公变,梅山村2号公变,凤川移民村3号公变,华纳丝,石桥村1号公变,江南名都2#专变,桐庐县凤川镇新农村镇村建设有限公司,凤岗村3号公变,凤川移民村2号公变,桐庐县人民政府凤川街道办事处,桐庐佳业工具有限公司,凤新村2号公变,桐庐南方特种气体有限公司,凤岗村2号公变,江南名都1号公变,中国邮政集团公司浙江桐庐县分公司,凤川移民村1号公变,杭州杭千高速公路发展有限公司,桐庐黎明五金液压件厂,桐庐县凤川镇新农村镇村建设有限公司,桐庐三翔针织有限公司,凤新村1号公变,石桥村4号公变,凤岗村5号公变,江南名都3号公变,美庐2号公变,杭州极东木工机械有限公司,凤岗村6号公变,美庐1号公变,桐庐县凤川镇新农村镇村建设有限公司,凤镇村2号公变,石桥村2号公变,江南名都2号公变,桐庐洲济医疗器械有限公司,肖岭二级电站,凤新村3号公变,","scope":"浙江省-杭州市-桐庐县-凤川街道-翙岗行政村(移民自然村,凤川大道,城东公路,凤镇自然村,凤岗自然村,石桥自然村,梅山自然村,凤新自然村,环镇北路,环镇东路),城南街道-新建行政村-新建自然村,凤川街道-柴埠行政村-柴埠自然村;凤川街道(桐庐县江南灌区工程管理处,桐庐华纳丝针纺服饰有限公司,桐庐经济开发区建设投资发展有限公司,中国电信股份有限公司桐庐分公司,桐庐县凤川镇纳尼亚农庄,桐庐南方特种气体有限公司,桐庐县人民政府凤川街道办事处,桐庐黎明五金液压件厂,桐庐华正印花科技有限公司,中国邮政集团公司浙江省桐庐县分公司,桐庐县凤川镇新农村镇村建设有限公司,桐庐县凤川初级中学,桐庐永达包装材料有限公司,桐庐县凤川街道社区卫生服务中心,桐庐佳业工具有限公司,桐庐洲济医疗器械有限公司,桐庐亿蔬印刷厂,桐庐县凤川小学,杭州杭千高速公路发展有限公司,桐庐民安物业管理有限公司,桐庐县职业技术学校)","startTime":"2019-12-01 05:47:00","stopDate":"2019-12-01 08:10:00","orgNo":"3340150","typeCode":"电网故障停限电","poweroffArea":"110kV旺家变:家东T565线三源T5652开关后段","poweroffReason":"(低压停电信息)低压开关跳闸","powerTime":"2019-12-01 07:40:36","powerComm":"已送电","subsNo":"","lineNo":"","tgNo":"","tgName":null,"infoStatus":"1","orgName":"国网浙江桐庐县供电公司","typeName":null,"infoStatusName":null,"dateDay":null,"orgNos":null,"nowTime":null,"countyName":null,"streetName":null,"villageName":null,"roadName":null,"communityName":null,"tranName":null,"sdLineName":null,"cityCode":"3340150","cityName":"国网浙江桐庐县供电公司","provinceCode":null,"stopTime":"2019-12-01 08:10:00","powerType":"全部","powerOffArea":"110kV旺家变:家东T565线三源T5652开关后段","powerOffReason":"(低压停电信息)低压开关跳闸","powerOffId":"2019120131020020"},{"poweroffId":2019120131020016,"sgpoweroffId":null,"subsName":"","lineName":"10kV灵栖Y174线","pubTranName":"灵栖村商家台区,南屏村兴屏台区,1#,灵栖村毛家台区,田畈村黄荡山台区,曹源村江家台区,南屏村南山台区,建德市通诚塑胶助剂厂,田畈村田畈村台区,灵栖村大畈台区,杭州新安江旅业发展有限公司,灵栖村后溪台区,南屏村赖家台区,1#,公曹二级电站2#,灵栖村中央坞台区,灵栖村棉花地台区,航景村堨头台区,建德市云峰碳酸钙有限公司3#变,建德市航头罗源石粉厂,航景村东田畈台区,灵栖村上坑头台区,南屏村上官山台区,公曹二级电站1#,灵栖村下官山台区,灵栖村灵栖台区,建德市云峰碳酸钙有限公司1#变,灵栖村下坞口台区,建德市新安江气动元件有限公司,灵栖村寺坑头台区,灵栖村青山脚台区,灵栖村东坞里台区,灵栖村旗形台区,曹源村曹源台区,曹源村草坑台区,建德市云峰碳酸钙业有限公司2#,公曹一级电站,灵栖村青龙山台区,曹源村公曹台区,曹源村富豪岭台区,曹源村源口台区,南屏村下村头台区,曹源村水坞坑台区,建德市石屏乡翁氏烫钻工艺品厂,建德市兴隆钙粉有限公司1#,灵栖村南山脚台区,建德市倚天微生物有机肥料有限公司,建德市兴隆钙粉有限公司2#,","scope":"浙江省-杭州市-建德市-航头镇-田畈村行政村(田畈村自然村,黄荡山自然村),航头镇-曹源行政村(公曹自然村,水坞坑自然村,赤坞口自然村,富豪岭自然村,夏家自然村,源口自然村,尖坞自然村,西山自然村,江家畈自然村,关帝庙自然村,江家自然村,草坑自然村),航头镇-航景行政村(堨头自然村,合头自然村),航头镇-南屏行政村(南山脚自然村,兴屏自然村,上官山自然村,赖家自然村,南山自然村,郑家自然村),航头镇-灵栖行政村(寺坑头自然村,商家自然村,棉花地自然村,青山脚自然村,灵栖自然村,灵栖街,毛家自然村,下坞口自然村,大畈自然村,下官山自然村,东坞自然村,中央坞自然村,水碓边自然村,岭脚底自然村,后溪自然村,南山脚自然村);航头镇(建德市石屏乡公曹水电站,浙江云峰纳米科技有限公司,建德市新安旅游投资有限公司,建德市通诚塑胶助剂厂,建德市倚天微生物有机肥料有限公司,建德市新安江气动元件有限公司,建德市兴隆钙粉有限公司,建德市石屏乡翁氏烫钻工艺品厂,建德市航头陶塑原料厂)一带用户。","startTime":"2019-12-01 04:44:00","stopDate":"2019-12-01 06:30:00","orgNo":"3340180","typeCode":"电网故障停限电","poweroffArea":"110kV航头变:灵栖Y174线灵栖Y1741开关后段","poweroffReason":"高压开关跳闸 原停电结束时间为2019-12-01 07:00:00,为减少客户停电时间,加快工作进度,提前送电,现变更停电结束时间为2019-12-01 06:30:00","powerTime":"2019-12-01 05:38:00","powerComm":"已送电","subsNo":"","lineNo":"","tgNo":"","tgName":null,"infoStatus":"1","orgName":"国网浙江建德市供电有限公司","typeName":null,"infoStatusName":null,"dateDay":null,"orgNos":null,"nowTime":null,"countyName":null,"streetName":null,"villageName":null,"roadName":null,"communityName":null,"tranName":null,"sdLineName":null,"cityCode":"3340180","cityName":"国网浙江建德市供电有限公司","provinceCode":null,"stopTime":"2019-12-01 06:30:00","powerType":"全部","powerOffArea":"110kV航头变:灵栖Y174线灵栖Y1741开关后段","powerOffReason":"高压开关跳闸 原停电结束时间为2019-12-01 07:00:00,为减少客户停电时间,加快工作进度,提前送电,现变更停电结束时间为2019-12-01 06:30:00","powerOffId":"2019120131020016"},{"poweroffId":2019120131020015,"sgpoweroffId":null,"subsName":"","lineName":"10kV新叶Y341线","pubTranName":"新叶村儒坞山台区,杭州新宏凯管业科技有限公司,李村叶畈深台区,汪山村小林家台区,金桥村田坑台区,李村紫石塘台区配电变压器,汪山村小岭脚台区,李村岳家台区,上吴方村红坞山台区,新叶村后诸坞台区,新叶村儒源台区,新叶村新叶台区,新叶村新村台区,新叶村荷叶岗台区,李村白山后台区,樟宅坞台区,檀村九平河台区,建德市大慈岩镇葆元家庭农场配电变压器,大慈岩村大湾里台区,建德市建林养殖有限公司,李村西畈台区,大慈岩村大坞台区,新叶村木莲桥台区,上吴方村小塘边台区,李村塘底畈台区,1#,新叶村诸坞台区,建德市大慈岩松岗坞电站2#,三元村漫塘台区,大慈岩村乌龙庙台区,三元村麻车岗台区,李村景塘岗台区,檀村湖塘台区,九里坑二级电站专变2#,汪山村石柱里台区,浙江省杭州市建德市大慈岩镇檀村铁路道口1#变,檀村童宅坞台区,新叶村风塘坞台区,三元村火炉山台区,新叶电站专变,上吴方村上吴方台区,1#,新叶村杨梅湾台区,建德市大慈岩松岗坞电站1#,新叶村三石田台区,檀村龙头台区,九里坑水厂配变,1#,三元村下金刘台区,李村金岗台区,1#,汪山村赤姑坪台区,杭州盛达树脂制品有限公司,檀村东山台区,三元村毛里坞台区配变,新叶村祠堂边台区,汪山村汪山台区,李村下汪畈台区,","scope":"浙江省-杭州市-建德市-大慈岩镇-大慈岩行政村(大坞自然村,排塘自然村,大湾里自然村),大慈岩镇-上吴方行政村(小塘边自然村,上吴方自然村,李村自然村),大慈岩镇-汪山行政村(汪山自然村,赤姑坪自然村,石柱里自然村),大慈岩镇-檀村行政村(檀村自然村,九平河自然村,湖塘自然村,童宅坞自然村,龙头自然村,樟宅坞自然村,东山自然村),大慈岩镇-三元行政村(火炉山自然村,漫塘自然村,麻车岗自然村,下金刘自然村),大慈岩镇-新叶行政村(凤塘坞自然村,新叶自然村,诸坞自然村,儒源自然村,三石田自然村,儒坞山自然村,新村自然村,祠堂边自然村,后诸坞自然村),大慈岩镇-李村行政村(西畈自然村,赤姑坪自然村,李村自然村,岳家自然村,下汪畈自然村,白山后自然村,景塘岗自然村,金岗自然村),大慈岩镇-里叶行政村-里叶自然村,寿昌镇-金桥行政村-田坑自然村;大慈岩镇(建德市大慈岩松岗坞电站,杭州新宏凯管业科技有限公司,建德恒发织造有限公司,建德市大慈岩九里坑电站,建德市建林养殖有限公司,建德市檀村镇新叶电厂,建德市清源水务有限公司,浙江葆元牧业有限公司,建德市大慈岩镇人民政府)一带用户。","startTime":"2019-12-01 04:45:00","stopDate":"2019-12-01 06:40:00","orgNo":"3340180","typeCode":"电网故障停限电","poweroffArea":"110kV慈岩变:新叶Y341线新叶Y3411开关后段","poweroffReason":"高压开关跳闸 原停电结束时间为2019-12-01 07:00:00,为减少客户停电时间,加快工作进度,提前送电,现变更停电结束时间为2019-12-01 06:40:00","powerTime":"2019-12-01 05:44:00","powerComm":"已送电","subsNo":"","lineNo":"","tgNo":"","tgName":null,"infoStatus":"1","orgName":"国网浙江建德市供电有限公司","typeName":null,"infoStatusName":null,"dateDay":null,"orgNos":null,"nowTime":null,"countyName":null,"streetName":null,"villageName":null,"roadName":null,"communityName":null,"tranName":null,"sdLineName":null,"cityCode":"3340180","cityName":"国网浙江建德市供电有限公司","provinceCode":null,"stopTime":"2019-12-01 06:40:00","powerType":"全部","powerOffArea":"110kV慈岩变:新叶Y341线新叶Y3411开关后段","powerOffReason":"高压开关跳闸 原停电结束时间为2019-12-01 07:00:00,为减少客户停电时间,加快工作进度,提前送电,现变更停电结束时间为2019-12-01 06:40:00","powerOffId":"2019120131020015"},{"poweroffId":2019113031020195,"sgpoweroffId":null,"subsName":"","lineName":"10kV贾家G112线","pubTranName":"万乐5组2号公变,万乐社区居民委员会,万乐4组公变,万乐3组3号公变,万乐4组2号公变,万乐3组4#公变,万乐村委,万乐3组2号公变,万乐3组公变,品味橱柜,万乐5组公变,","scope":"浙江省-杭州市-余杭区-星桥街道-贾家社区-贾家,星桥街道-万乐社区(卜家桥自然村,万乐,杨家自然村);乔司街道-杭州余杭品味橱柜有限公司,星桥街道(杭州余杭万乐股份经济合作社,杭州运成包装有限公司)","startTime":"2019-11-30 23:04:00","stopDate":"2019-12-01 01:20:00","orgNo":"3340140","typeCode":"电网故障停限电","poweroffArea":"110kV临平变:贾家G112线贾家3组分线开关后段","poweroffReason":"高压开关跳闸 原停电结束时间为2019-12-01 07:00:00,为减少客户停电时间,加快工作进度,提前送电,现变更停电结束时间为2019-12-01 01:20:00","powerTime":"2019-12-01 00:58:37","powerComm":"已送电","subsNo":"","lineNo":"","tgNo":"","tgName":null,"infoStatus":"1","orgName":"国网浙江杭州市余杭区供电有限公司","typeName":null,"infoStatusName":null,"dateDay":null,"orgNos":null,"nowTime":null,"countyName":null,"streetName":null,"villageName":null,"roadName":null,"communityName":null,"tranName":null,"sdLineName":null,"cityCode":"3340140","cityName":"国网浙江杭州市余杭区供电有限公司","provinceCode":null,"stopTime":"2019-12-01 01:20:00","powerType":"全部","powerOffArea":"110kV临平变:贾家G112线贾家3组分线开关后段","powerOffReason":"高压开关跳闸 原停电结束时间为2019-12-01 07:00:00,为减少客户停电时间,加快工作进度,提前送电,现变更停电结束时间为2019-12-01 01:20:00","powerOffId":"2019113031020195"},{"poweroffId":2019113031020194,"sgpoweroffId":null,"subsName":"","lineName":"10kV庆田8018线","pubTranName":"华农四变,华农二变,华电,农生2,华农三变,农生,浙大华家池校区生活区1,华农六变,植疫,华农五变,华农一变,农园一变,勿忘农集团有限公司,","scope":"浙江省-杭州市-江干区-凯旋街道-华家池社区(凯旋路,凤起东路),凯旋街道-景芳社区(东农大路,景芳路),凯旋街道-景华社区(凯旋路,东城印象公寓),凯旋街道(景湖社区-新塘路,金秋花园社区-凤起东路);浙江省-杭州市-江干区-采荷街道-常青苑社区-勿忘农集团有限公司,凯旋街道-景苑社区(浙江苏宁易购商贸有限公司,浙江省植物保护检疫总站),凯旋街道(华家池社区-浙江大学,金兰池社区-浙江大学)","startTime":"2019-11-30 22:57:36","stopDate":"2019-12-01 03:35:36","orgNo":"3340101","typeCode":"电网故障停限电","poweroffArea":"110kV庆春变:庆田8018线-神农分线","poweroffReason":"高压开关跳闸 原停电结束时间为2019-12-01 07:57:36,为减少客户停电时间,加快工作进度,提前送电,现变更停电结束时间为2019-12-01 03:35:36","powerTime":"2019-12-01 02:50:41","powerComm":"已送电","subsNo":"","lineNo":"","tgNo":"","tgName":null,"infoStatus":"1","orgName":"浙江杭州电力客户服务中心","typeName":null,"infoStatusName":null,"dateDay":null,"orgNos":null,"nowTime":null,"countyName":null,"streetName":null,"villageName":null,"roadName":null,"communityName":null,"tranName":null,"sdLineName":null,"cityCode":"3340101","cityName":"浙江杭州电力客户服务中心","provinceCode":null,"stopTime":"2019-12-01 03:35:36","powerType":"全部","powerOffArea":"110kV庆春变:庆田8018线-神农分线","powerOffReason":"高压开关跳闸 原停电结束时间为2019-12-01 07:57:36,为减少客户停电时间,加快工作进度,提前送电,现变更停电结束时间为2019-12-01 03:35:36","powerOffId":"2019113031020194"},{"poweroffId":2019113031020174,"sgpoweroffId":null,"subsName":"","lineName":"10kV洋绛D782线","pubTranName":"瓜桥埠村3号长塘公变,","scope":"浙江省-杭州市-富阳区-场口镇-瓜桥埠行政村-瓜桥埠自然村一带","startTime":"2019-12-14 14:30:00","stopDate":"2019-12-14 16:30:00","orgNo":"3340170","typeCode":"计划停电","poweroffArea":"110kV王洲变:洋绛D782线-瓜桥埠村3#长塘公变后段","poweroffReason":"洋绛D782线洋绛一号开关站3#间隔洋二D7822线97#杆瓜桥长塘分线2#杆瓜桥埠村3#长塘公变拆除T接箱电缆并搭接于变压器等工作。原停电开始时间2019-12-14 16:00:00因政策原因提前至2019-12-14 14:30:00","powerTime":"2019-12-14 16:11:29","powerComm":"已送电","subsNo":"","lineNo":"","tgNo":"","tgName":null,"infoStatus":"1","orgName":"国网浙江杭州市富阳区供电公司","typeName":null,"infoStatusName":null,"dateDay":null,"orgNos":null,"nowTime":null,"countyName":null,"streetName":null,"villageName":null,"roadName":null,"communityName":null,"tranName":null,"sdLineName":null,"cityCode":"3340170","cityName":"国网浙江杭州市富阳区供电公司","provinceCode":null,"stopTime":"2019-12-14 16:30:00","powerType":"全部","powerOffArea":"110kV王洲变:洋绛D782线-瓜桥埠村3#长塘公变后段","powerOffReason":"洋绛D782线洋绛一号开关站3#间隔洋二D7822线97#杆瓜桥长塘分线2#杆瓜桥埠村3#长塘公变拆除T接箱电缆并搭接于变压器等工作。原停电开始时间2019-12-14 16:00:00因政策原因提前至2019-12-14 14:30:00","powerOffId":"2019113031020174"},{"poweroffId":2019113031020173,"sgpoweroffId":null,"subsName":"","lineName":"10kV洋绛D782线","pubTranName":"联群村1号祠堂公变,","scope":"浙江省-杭州市-富阳区-场口镇-联群行政村-联群自然村一带","startTime":"2019-12-14 08:30:00","stopDate":"2019-12-14 16:30:00","orgNo":"3340170","typeCode":"计划停电","poweroffArea":"110kV王洲变:洋绛D782线洋绛一号开关站3#间隔洋二D7822线43#杆后段","poweroffReason":"洋绛D782线洋绛一号开关站3#间隔洋二D7822线63#杆-102#杆之间：1、更换电杆2支；2、更换导线29档；3、更换真空开关1台，安装真空开关2台，拆除跌落式开关2组，线路改接等工作。","powerTime":"2019-12-14 16:11:10","powerComm":"已送电","subsNo":"","lineNo":"","tgNo":"","tgName":null,"infoStatus":"1","orgName":"国网浙江杭州市富阳区供电公司","typeName":null,"infoStatusName":null,"dateDay":null,"orgNos":null,"nowTime":null,"countyName":null,"streetName":null,"villageName":null,"roadName":null,"communityName":null,"tranName":null,"sdLineName":null,"cityCode":"3340170","cityName":"国网浙江杭州市富阳区供电公司","provinceCode":null,"stopTime":"2019-12-14 16:30:00","powerType":"全部","powerOffArea":"110kV王洲变:洋绛D782线洋绛一号开关站3#间隔洋二D7822线43#杆后段","powerOffReason":"洋绛D782线洋绛一号开关站3#间隔洋二D7822线63#杆-102#杆之间：1、更换电杆2支；2、更换导线29档；3、更换真空开关1台，安装真空开关2台，拆除跌落式开关2组，线路改接等工作。","powerOffId":"2019113031020173"},{"poweroffId":2019113031020172,"sgpoweroffId":null,"subsName":"","lineName":"10kV洋绛D782线","pubTranName":"联群村3号大路供销社公变,洋沙村5#大塔村东公变,洋沙村3#鱼塘公变,洋沙村2号教会公变,联群村4号大路渔塘公变,洋沙村4号大塔村口公变,洋沙村1#中间公变,","scope":"浙江省-杭州市-富阳区-场口镇-洋沙行政村(大塔里自然村,洋沙自然村),场口镇-联群行政村(金家自然村,联群自然村,大路自然村)","startTime":"2019-12-14 15:47:00","stopDate":"2019-12-14 16:30:00","orgNo":"3340170","typeCode":"计划停电","poweroffArea":"110kV王洲变:洋绛D782线-洋沙分线后段","poweroffReason":"拆除洋绛D782线洋绛一号开关站3#间隔洋二D7822线63#杆洋沙分线2#杆备用电源电缆头等工作。原计划开始时间2019-12-14 16:00:00因政策原因提前至2019-12-14 15:47:00","powerTime":"2019-12-14 16:11:56","powerComm":"已送电","subsNo":"","lineNo":"","tgNo":"","tgName":null,"infoStatus":"1","orgName":"国网浙江杭州市富阳区供电公司","typeName":null,"infoStatusName":null,"dateDay":null,"orgNos":null,"nowTime":null,"countyName":null,"streetName":null,"villageName":null,"roadName":null,"communityName":null,"tranName":null,"sdLineName":null,"cityCode":"3340170","cityName":"国网浙江杭州市富阳区供电公司","provinceCode":null,"stopTime":"2019-12-14 16:30:00","powerType":"全部","powerOffArea":"110kV王洲变:洋绛D782线-洋沙分线后段","powerOffReason":"拆除洋绛D782线洋绛一号开关站3#间隔洋二D7822线63#杆洋沙分线2#杆备用电源电缆头等工作。原计划开始时间2019-12-14 16:00:00因政策原因提前至2019-12-14 15:47:00","powerOffId":"2019113031020172"}],"pageModel":{"pageNow":773,"totalCount":17789,"totalPage":1779,"tableRows":0,"pageCount":10,"beginCount":7720},"isExperi":"1"}