{"message":"","today":"2020-06-15","seleList":[{"poweroffId":2020052931020579,"sgpoweroffId":null,"subsName":"","lineName":"10kV余南H992线","pubTranName":"凤凰南湖农居2-1号公变,凤凰南湖农居2-2号公变,","scope":"浙江省-杭州市-余杭区-余杭街道(凤联社区-城西路,凤凰山行政村-城南路)","startTime":"2020-05-29 15:39:00","stopDate":"2020-05-29 17:11:00","orgNo":"3340140","typeCode":"电网故障停限电","poweroffArea":"110kV余杭临时变:余南H992线凤凰南湖农居公变凤凰南湖农居公变2#配变","poweroffReason":"高压开关跳闸","powerTime":"2020-05-29 16:20:53","powerComm":"已送电","subsNo":"","lineNo":"","tgNo":"","tgName":null,"infoStatus":"1","orgName":"国网浙江杭州市余杭区供电有限公司","typeName":null,"infoStatusName":null,"dateDay":null,"orgNos":null,"nowTime":null,"countyName":null,"streetName":null,"villageName":null,"roadName":null,"communityName":null,"tranName":null,"sdLineName":null,"cityCode":"3340140","cityName":"国网浙江杭州市余杭区供电有限公司","provinceCode":null,"stopTime":"2020-05-29 17:11:00","powerType":"全部","powerOffArea":"110kV余杭临时变:余南H992线凤凰南湖农居公变凤凰南湖农居公变2#配变","powerOffReason":"高压开关跳闸","powerOffId":"2020052931020579"},{"poweroffId":2020052931020576,"sgpoweroffId":null,"subsName":"","lineName":"10kV余南H992线","pubTranName":"城西2号公变,","scope":"浙江省-杭州市-余杭区-余杭街道-南安社区-城西路","startTime":"2020-05-29 15:33:00","stopDate":"2020-05-29 17:11:00","orgNo":"3340140","typeCode":"电网故障停限电","poweroffArea":"110kV余杭临时变:余南H992线城西2号公变配变","poweroffReason":"高压开关跳闸","powerTime":"2020-05-29 16:20:31","powerComm":"已送电","subsNo":"","lineNo":"","tgNo":"","tgName":null,"infoStatus":"1","orgName":"国网浙江杭州市余杭区供电有限公司","typeName":null,"infoStatusName":null,"dateDay":null,"orgNos":null,"nowTime":null,"countyName":null,"streetName":null,"villageName":null,"roadName":null,"communityName":null,"tranName":null,"sdLineName":null,"cityCode":"3340140","cityName":"国网浙江杭州市余杭区供电有限公司","provinceCode":null,"stopTime":"2020-05-29 17:11:00","powerType":"全部","powerOffArea":"110kV余杭临时变:余南H992线城西2号公变配变","powerOffReason":"高压开关跳闸","powerOffId":"2020052931020576"},{"poweroffId":2020052931020574,"sgpoweroffId":null,"subsName":"","lineName":"10kV浪坪R209线","pubTranName":"滨江4#公变,","scope":"浙江省-杭州市-淳安县-千岛湖镇-江滨社区-新安西路,千岛湖镇-望湖社区(环湖北路,滨江度假村)","startTime":"2020-06-12 08:00:00","stopDate":"2020-06-12 18:30:00","orgNo":"3340190","typeCode":"计划停电","poweroffArea":"110kV淳安变:浪坪R209线-滨江3#公变出线开关后段","poweroffReason":"滨江4号公变更换","powerTime":"2020-06-12 17:30:39","powerComm":"已送电","subsNo":"","lineNo":"","tgNo":"","tgName":null,"infoStatus":"1","orgName":"国网浙江淳安县供电有限公司","typeName":null,"infoStatusName":null,"dateDay":null,"orgNos":null,"nowTime":null,"countyName":null,"streetName":null,"villageName":null,"roadName":null,"communityName":null,"tranName":null,"sdLineName":null,"cityCode":"3340190","cityName":"国网浙江淳安县供电有限公司","provinceCode":null,"stopTime":"2020-06-12 18:30:00","powerType":"全部","powerOffArea":"110kV淳安变:浪坪R209线-滨江3#公变出线开关后段","powerOffReason":"滨江4号公变更换","powerOffId":"2020052931020574"},{"poweroffId":2020052931020509,"sgpoweroffId":null,"subsName":"","lineName":"10kV盛世H813线","pubTranName":"荆山村石岭脚底,加油站,","scope":"浙江省-杭州市-余杭区-五常街道：荆山村加油站、石岭脚底一带","startTime":"2020-06-12 09:30:00","stopDate":"2020-06-12 17:30:00","orgNo":"3340140","typeCode":"计划停电","poweroffArea":"盛世H813线石岭脚底分线","poweroffReason":"配网工程（2020杭州余杭科技城配变台区改造工程）：盛世H813线石岭脚分线3#杆石岭脚底变增量至400KVA调换令克及计量箱。","powerTime":"2020-06-12 16:30:17","powerComm":"已送电","subsNo":"","lineNo":"","tgNo":"","tgName":null,"infoStatus":"1","orgName":"国网浙江杭州市余杭区供电有限公司","typeName":null,"infoStatusName":null,"dateDay":null,"orgNos":null,"nowTime":null,"countyName":null,"streetName":null,"villageName":null,"roadName":null,"communityName":null,"tranName":null,"sdLineName":null,"cityCode":"3340140","cityName":"国网浙江杭州市余杭区供电有限公司","provinceCode":null,"stopTime":"2020-06-12 17:30:00","powerType":"全部","powerOffArea":"盛世H813线石岭脚底分线","powerOffReason":"配网工程（2020杭州余杭科技城配变台区改造工程）：盛世H813线石岭脚分线3#杆石岭脚底变增量至400KVA调换令克及计量箱。","powerOffId":"2020052931020509"},{"poweroffId":2020052931020492,"sgpoweroffId":null,"subsName":"","lineName":"10kV胡林H538线","pubTranName":"长命股份611110285801#专变,长命村郑村公变,正威建材,长命村港东村公变,","scope":"浙江省-杭州市-余杭区-瓶窑镇：长命村港东村、长命村郑村、杭州余杭长命股份经济合作社一带","startTime":"2020-06-12 08:30:00","stopDate":"2020-06-12 17:30:00","orgNo":"3340140","typeCode":"计划停电","poweroffArea":"110kV凤山变:胡林H538线港东村分线","poweroffReason":"计划工作 原停电结束时间为2020-06-12 16:30:00,因现场故障情况复杂,现变更停电结束时间为2020-06-12 17:30:00","powerTime":"2020-06-12 16:33:56","powerComm":"已送电","subsNo":"","lineNo":"","tgNo":"","tgName":null,"infoStatus":"1","orgName":"国网浙江杭州市余杭区供电有限公司","typeName":null,"infoStatusName":null,"dateDay":null,"orgNos":null,"nowTime":null,"countyName":null,"streetName":null,"villageName":null,"roadName":null,"communityName":null,"tranName":null,"sdLineName":null,"cityCode":"3340140","cityName":"国网浙江杭州市余杭区供电有限公司","provinceCode":null,"stopTime":"2020-06-12 17:30:00","powerType":"全部","powerOffArea":"110kV凤山变:胡林H538线港东村分线","powerOffReason":"计划工作 原停电结束时间为2020-06-12 16:30:00,因现场故障情况复杂,现变更停电结束时间为2020-06-12 17:30:00","powerOffId":"2020052931020492"},{"poweroffId":2020052931020491,"sgpoweroffId":null,"subsName":"","lineName":"10kV联荣H681线","pubTranName":"荆山村天井坞南,荆山村天井坞中公变,天井坞南2#变,","scope":"浙江省-杭州市-余杭区-五常街道：荆山村天井坞南中、天井坞南、天井坞南2号一带","startTime":"2020-06-11 09:30:00","stopDate":"2020-06-11 17:30:00","orgNo":"3340140","typeCode":"计划停电","poweroffArea":"联荣H681线天井坞分线","poweroffReason":"配网工程（2020杭州余杭科技城配变台区改造工程）：天马H815线天井坞中分线2#杆天井坞中公变增量至400KVA调换令克及计量箱、新立15米电杆一基。","powerTime":"2020-06-11 16:31:55","powerComm":"已送电","subsNo":"","lineNo":"","tgNo":"","tgName":null,"infoStatus":"1","orgName":"国网浙江杭州市余杭区供电有限公司","typeName":null,"infoStatusName":null,"dateDay":null,"orgNos":null,"nowTime":null,"countyName":null,"streetName":null,"villageName":null,"roadName":null,"communityName":null,"tranName":null,"sdLineName":null,"cityCode":"3340140","cityName":"国网浙江杭州市余杭区供电有限公司","provinceCode":null,"stopTime":"2020-06-11 17:30:00","powerType":"全部","powerOffArea":"联荣H681线天井坞分线","powerOffReason":"配网工程（2020杭州余杭科技城配变台区改造工程）：天马H815线天井坞中分线2#杆天井坞中公变增量至400KVA调换令克及计量箱、新立15米电杆一基。","powerOffId":"2020052931020491"},{"poweroffId":2020052931020490,"sgpoweroffId":null,"subsName":"","lineName":"10kV西河G879线","pubTranName":"杭州奥诺斯汽配有限公司,杭州高升特种铸造有限公司,杭州正堂针织有限公司,恒越铸造2#,恒越铸造1#,","scope":"浙江省-杭州市-余杭区-东湖街道：杭州恒越铸造有限公司、杭州奥诺斯汽配有限公司、杭州高升特种铸造有限公司、杭州腾鹿针织有限公司一带","startTime":"2020-06-11 08:40:00","stopDate":"2020-06-11 16:40:00","orgNo":"3340140","typeCode":"计划停电","poweroffArea":"110kV漳河变:西河G879线-正堂分线开关后段","poweroffReason":"配网工程（2020年杭州余杭公司东湖10kV铁铺G990线等配电线路整治工程：正堂分线调换15米电杆6基、3*70导线6档）","powerTime":"2020-06-11 16:09:58","powerComm":"已送电","subsNo":"","lineNo":"","tgNo":"","tgName":null,"infoStatus":"1","orgName":"国网浙江杭州市余杭区供电有限公司","typeName":null,"infoStatusName":null,"dateDay":null,"orgNos":null,"nowTime":null,"countyName":null,"streetName":null,"villageName":null,"roadName":null,"communityName":null,"tranName":null,"sdLineName":null,"cityCode":"3340140","cityName":"国网浙江杭州市余杭区供电有限公司","provinceCode":null,"stopTime":"2020-06-11 16:40:00","powerType":"全部","powerOffArea":"110kV漳河变:西河G879线-正堂分线开关后段","powerOffReason":"配网工程（2020年杭州余杭公司东湖10kV铁铺G990线等配电线路整治工程：正堂分线调换15米电杆6基、3*70导线6档）","powerOffId":"2020052931020490"},{"poweroffId":2020052931020489,"sgpoweroffId":null,"subsName":"","lineName":"10kV圣堂H509线","pubTranName":"粮食仓储,满元农业（6120683566）02#专变,南山村枉山公变,满元农业（6120683566）01#专变,","scope":"浙江省-杭州市-余杭区-瓶窑镇：南山村枉山、杭州余杭区粮食收储有限责任公司、杭州满元农业科技有限公司一带","startTime":"2020-06-11 08:30:00","stopDate":"2020-06-11 18:00:00","orgNo":"3340140","typeCode":"计划停电","poweroffArea":"35kV瓶镇变:圣堂H509线三院分线","poweroffReason":"计划工作 原停电结束时间为2020-06-11 15:30:00,因大雨影响施工进度,现变更停电结束时间为2020-06-11 18:00:00","powerTime":"2020-06-11 17:49:14","powerComm":"已送电","subsNo":"","lineNo":"","tgNo":"","tgName":null,"infoStatus":"1","orgName":"国网浙江杭州市余杭区供电有限公司","typeName":null,"infoStatusName":null,"dateDay":null,"orgNos":null,"nowTime":null,"countyName":null,"streetName":null,"villageName":null,"roadName":null,"communityName":null,"tranName":null,"sdLineName":null,"cityCode":"3340140","cityName":"国网浙江杭州市余杭区供电有限公司","provinceCode":null,"stopTime":"2020-06-11 18:00:00","powerType":"全部","powerOffArea":"35kV瓶镇变:圣堂H509线三院分线","powerOffReason":"计划工作 原停电结束时间为2020-06-11 15:30:00,因大雨影响施工进度,现变更停电结束时间为2020-06-11 18:00:00","powerOffId":"2020052931020489"},{"poweroffId":2020052931020483,"sgpoweroffId":null,"subsName":"","lineName":"10kV祥三8359线","pubTranName":"三雅七,","scope":"浙江省-杭州市-西湖区-三墩镇-三坝社区-三坝雅苑5幢、6幢、9幢一带用户及商铺","startTime":"2020-06-05 09:30:00","stopDate":"2020-06-05 17:30:00","orgNo":"3340101","typeCode":"临时停电","poweroffArea":"110kV祥符变:祥三8359线-三雅七后段","poweroffReason":"(低压停电信息)三坝雅苑小区三坝站网架优化工程/1811HZ1800XF05A0000000三雅七站低压改造","powerTime":"2020-06-05 16:35:38","powerComm":"已送电","subsNo":"","lineNo":"","tgNo":"","tgName":null,"infoStatus":"1","orgName":"浙江杭州电力客户服务中心","typeName":null,"infoStatusName":null,"dateDay":null,"orgNos":null,"nowTime":null,"countyName":null,"streetName":null,"villageName":null,"roadName":null,"communityName":null,"tranName":null,"sdLineName":null,"cityCode":"3340101","cityName":"浙江杭州电力客户服务中心","provinceCode":null,"stopTime":"2020-06-05 17:30:00","powerType":"全部","powerOffArea":"110kV祥符变:祥三8359线-三雅七后段","powerOffReason":"(低压停电信息)三坝雅苑小区三坝站网架优化工程/1811HZ1800XF05A0000000三雅七站低压改造","powerOffId":"2020052931020483"},{"poweroffId":2020052931020481,"sgpoweroffId":null,"subsName":"","lineName":"10kV珠山D523线","pubTranName":"杭州市富阳区大源中学1#变,","scope":"浙江省-杭州市-富阳区-大源镇-亭山行政村-杭州市富阳区大源中学","startTime":"2020-05-30 15:00:00","stopDate":"2020-05-31 08:00:00","orgNo":"3340170","typeCode":"临时停电","poweroffArea":"110kV大源变:珠山D523线-大源中学开关后段","poweroffReason":"江南2020年高压业扩配套工程：10kV珠山D523线三中分线17#杆大源中学支线大源中学配电房改造","powerTime":"2020-05-31 07:51:11","powerComm":"已送电","subsNo":"","lineNo":"","tgNo":"","tgName":null,"infoStatus":"1","orgName":"国网浙江杭州市富阳区供电公司","typeName":null,"infoStatusName":null,"dateDay":null,"orgNos":null,"nowTime":null,"countyName":null,"streetName":null,"villageName":null,"roadName":null,"communityName":null,"tranName":null,"sdLineName":null,"cityCode":"3340170","cityName":"国网浙江杭州市富阳区供电公司","provinceCode":null,"stopTime":"2020-05-31 08:00:00","powerType":"全部","powerOffArea":"110kV大源变:珠山D523线-大源中学开关后段","powerOffReason":"江南2020年高压业扩配套工程：10kV珠山D523线三中分线17#杆大源中学支线大源中学配电房改造","powerOffId":"2020052931020481"}],"pageModel":{"pageNow":77,"totalCount":17786,"totalPage":1779,"tableRows":0,"pageCount":10,"beginCount":760},"isExperi":"1"}