{"message":"","today":"2020-06-15","seleList":[{"poweroffId":2019113031020171,"sgpoweroffId":null,"subsName":"","lineName":"10kV洋绛D782线","pubTranName":"联群村2号加工厂公变,","scope":"浙江省-杭州市-富阳区-场口镇-联群行政村-联群自然村","startTime":"2019-12-14 15:00:00","stopDate":"2019-12-14 16:30:00","orgNo":"3340170","typeCode":"计划停电","poweroffArea":"110kV王洲变:洋绛D782线-联群村2号加工厂公变开关后段","poweroffReason":"绛D782线洋绛一号开关站3#间隔洋二D7822线70#杆联群分线9#杆联群村2#加工厂公变拆除T接箱电缆并搭接于变压器等工作。原停电开始时间2019-12-14 16:00:00因政策原因提前至2019-12-14 15:00:00","powerTime":"2019-12-14 16:11:20","powerComm":"已送电","subsNo":"","lineNo":"","tgNo":"","tgName":null,"infoStatus":"1","orgName":"国网浙江杭州市富阳区供电公司","typeName":null,"infoStatusName":null,"dateDay":null,"orgNos":null,"nowTime":null,"countyName":null,"streetName":null,"villageName":null,"roadName":null,"communityName":null,"tranName":null,"sdLineName":null,"cityCode":"3340170","cityName":"国网浙江杭州市富阳区供电公司","provinceCode":null,"stopTime":"2019-12-14 16:30:00","powerType":"全部","powerOffArea":"110kV王洲变:洋绛D782线-联群村2号加工厂公变开关后段","powerOffReason":"绛D782线洋绛一号开关站3#间隔洋二D7822线70#杆联群分线9#杆联群村2#加工厂公变拆除T接箱电缆并搭接于变压器等工作。原停电开始时间2019-12-14 16:00:00因政策原因提前至2019-12-14 15:00:00","powerOffId":"2019113031020171"},{"poweroffId":2019113031020170,"sgpoweroffId":null,"subsName":"","lineName":"10kV洋绛D782线","pubTranName":"瓜桥埠村5号华家村北公变,","scope":"浙江省-杭州市-富阳区-场口镇-瓜桥埠行政村-华家自然村","startTime":"2019-12-14 14:30:00","stopDate":"2019-12-14 16:30:00","orgNo":"3340170","typeCode":"计划停电","poweroffArea":"110kV王洲变:洋绛D782线-瓜桥埠村5#华家村北公变后段","poweroffReason":"洋绛D782线洋绛一号开关站3#间隔洋二D7822线79#杆华家村北分线9#杆瓜桥埠村5#华家村北公变拆除T接箱电缆并搭接于变压器等工作。原停电开始时间2019-12-14 16:00:00因政策原因提前至2019-12-14 14:30:00","powerTime":"2019-12-14 16:11:47","powerComm":"已送电","subsNo":"","lineNo":"","tgNo":"","tgName":null,"infoStatus":"1","orgName":"国网浙江杭州市富阳区供电公司","typeName":null,"infoStatusName":null,"dateDay":null,"orgNos":null,"nowTime":null,"countyName":null,"streetName":null,"villageName":null,"roadName":null,"communityName":null,"tranName":null,"sdLineName":null,"cityCode":"3340170","cityName":"国网浙江杭州市富阳区供电公司","provinceCode":null,"stopTime":"2019-12-14 16:30:00","powerType":"全部","powerOffArea":"110kV王洲变:洋绛D782线-瓜桥埠村5#华家村北公变后段","powerOffReason":"洋绛D782线洋绛一号开关站3#间隔洋二D7822线79#杆华家村北分线9#杆瓜桥埠村5#华家村北公变拆除T接箱电缆并搭接于变压器等工作。原停电开始时间2019-12-14 16:00:00因政策原因提前至2019-12-14 14:30:00","powerOffId":"2019113031020170"},{"poweroffId":2019113031020168,"sgpoweroffId":null,"subsName":"","lineName":"10kV洋绛D782线","pubTranName":"杭州风铃养老服务有限公司,","scope":"浙江省-杭州市-富阳区-场口镇-联群行政村-杭州风铃养老服务有限公司","startTime":"2019-12-14 15:50:00","stopDate":"2019-12-14 16:30:00","orgNo":"3340170","typeCode":"计划停电","poweroffArea":"110kV王洲变:洋绛D782线-风铃养老分线后段","poweroffReason":"配合洋绛D782线43#杆后段工作停电。原计划停电开始时间是2019-12-14 08:15:00，现因政策原因变更至2019-12-14 15:50:00","powerTime":"2019-12-14 16:04:39","powerComm":"已送电","subsNo":"","lineNo":"","tgNo":"","tgName":null,"infoStatus":"1","orgName":"国网浙江杭州市富阳区供电公司","typeName":null,"infoStatusName":null,"dateDay":null,"orgNos":null,"nowTime":null,"countyName":null,"streetName":null,"villageName":null,"roadName":null,"communityName":null,"tranName":null,"sdLineName":null,"cityCode":"3340170","cityName":"国网浙江杭州市富阳区供电公司","provinceCode":null,"stopTime":"2019-12-14 16:30:00","powerType":"全部","powerOffArea":"110kV王洲变:洋绛D782线-风铃养老分线后段","powerOffReason":"配合洋绛D782线43#杆后段工作停电。原计划停电开始时间是2019-12-14 08:15:00，现因政策原因变更至2019-12-14 15:50:00","powerOffId":"2019113031020168"},{"poweroffId":2019113031020167,"sgpoweroffId":null,"subsName":"","lineName":"10kV洋绛D782线","pubTranName":"上沙村5号村东公变,","scope":"浙江省-杭州市-富阳区-场口镇-上沙行政村-上沙自然村","startTime":"2019-12-14 16:00:00","stopDate":"2019-12-14 16:30:00","orgNo":"3340170","typeCode":"计划停电","poweroffArea":"110kV王洲变:洋绛D782线-上沙村5号村东公变后段","poweroffReason":"洋绛D782线洋绛一号开关站3#间隔洋二D7822线96#杆上沙村东分线上沙村5#村东公变拆除T接箱电缆并搭接于变压器等工作。","powerTime":"2019-12-14 16:10:46","powerComm":"已送电","subsNo":"","lineNo":"","tgNo":"","tgName":null,"infoStatus":"1","orgName":"国网浙江杭州市富阳区供电公司","typeName":null,"infoStatusName":null,"dateDay":null,"orgNos":null,"nowTime":null,"countyName":null,"streetName":null,"villageName":null,"roadName":null,"communityName":null,"tranName":null,"sdLineName":null,"cityCode":"3340170","cityName":"国网浙江杭州市富阳区供电公司","provinceCode":null,"stopTime":"2019-12-14 16:30:00","powerType":"全部","powerOffArea":"110kV王洲变:洋绛D782线-上沙村5号村东公变后段","powerOffReason":"洋绛D782线洋绛一号开关站3#间隔洋二D7822线96#杆上沙村东分线上沙村5#村东公变拆除T接箱电缆并搭接于变压器等工作。","powerOffId":"2019113031020167"},{"poweroffId":2019113031020166,"sgpoweroffId":null,"subsName":"","lineName":"10kV洋绛D782线","pubTranName":"杭州市富阳区场口镇人民政府#王洲幼儿园基建变,","scope":"浙江省-杭州市-富阳区-场口镇-联群行政村-杭州市富阳区场口镇人民政府一带","startTime":"2019-12-14 15:50:00","stopDate":"2019-12-14 16:30:00","orgNo":"3340170","typeCode":"计划停电","poweroffArea":"110kV王洲变:洋绛D782线-杭州市场口镇人民政府后段","poweroffReason":"配合洋绛D782线43#杆后段工作停电。原计划停电开始时间是2019-12-14 07:45:00，现因政策原因变更至2019-12-14 15:50:00","powerTime":"2019-12-14 16:04:51","powerComm":"已送电","subsNo":"","lineNo":"","tgNo":"","tgName":null,"infoStatus":"1","orgName":"国网浙江杭州市富阳区供电公司","typeName":null,"infoStatusName":null,"dateDay":null,"orgNos":null,"nowTime":null,"countyName":null,"streetName":null,"villageName":null,"roadName":null,"communityName":null,"tranName":null,"sdLineName":null,"cityCode":"3340170","cityName":"国网浙江杭州市富阳区供电公司","provinceCode":null,"stopTime":"2019-12-14 16:30:00","powerType":"全部","powerOffArea":"110kV王洲变:洋绛D782线-杭州市场口镇人民政府后段","powerOffReason":"配合洋绛D782线43#杆后段工作停电。原计划停电开始时间是2019-12-14 07:45:00，现因政策原因变更至2019-12-14 15:50:00","powerOffId":"2019113031020166"},{"poweroffId":2019113031020165,"sgpoweroffId":null,"subsName":"","lineName":"10kV洋绛D782线","pubTranName":"联群村3号大路供销社公变,洋沙村1#中间公变,洋沙村2号教会公变,洋沙村5#大塔村东公变,洋沙村3#鱼塘公变,联群村4号大路渔塘公变,洋沙村4号大塔村口公变,","scope":"浙江省-杭州市-富阳区-场口镇-洋沙行政村(大塔里自然村,洋沙自然村),场口镇-联群行政村(金家自然村,联群自然村,大路自然村)一带","startTime":"2019-12-14 08:30:00","stopDate":"2019-12-14 09:15:00","orgNo":"3340170","typeCode":"计划停电","poweroffArea":"110kV王洲变:洋绛D782线-洋沙分线后段","poweroffReason":"备用电源电缆头搭接至洋绛D782线洋绛一号开关站3#间隔洋二D7822线63#杆洋沙分线2#杆等工作。","powerTime":"2019-12-14 08:59:48","powerComm":"已送电","subsNo":"","lineNo":"","tgNo":"","tgName":null,"infoStatus":"1","orgName":"国网浙江杭州市富阳区供电公司","typeName":null,"infoStatusName":null,"dateDay":null,"orgNos":null,"nowTime":null,"countyName":null,"streetName":null,"villageName":null,"roadName":null,"communityName":null,"tranName":null,"sdLineName":null,"cityCode":"3340170","cityName":"国网浙江杭州市富阳区供电公司","provinceCode":null,"stopTime":"2019-12-14 09:15:00","powerType":"全部","powerOffArea":"110kV王洲变:洋绛D782线-洋沙分线后段","powerOffReason":"备用电源电缆头搭接至洋绛D782线洋绛一号开关站3#间隔洋二D7822线63#杆洋沙分线2#杆等工作。","powerOffId":"2019113031020165"},{"poweroffId":2019113031020164,"sgpoweroffId":null,"subsName":"","lineName":"10kV洋绛D782线","pubTranName":"瓜桥埠村3号长塘公变,","scope":"浙江省-杭州市-富阳区-场口镇-瓜桥埠行政村-瓜桥埠自然村一带","startTime":"2019-12-14 08:30:00","stopDate":"2019-12-14 09:15:00","orgNo":"3340170","typeCode":"计划停电","poweroffArea":"110kV王洲变:洋绛D782线-瓜桥埠村3#长塘公变后段","poweroffReason":"洋绛D782线洋绛一号开关站3#间隔洋二D7822线97#杆瓜桥长塘分线2#杆瓜桥埠村3#长塘公变拆除低压电缆并搭接于T接箱出线侧等工作。","powerTime":"2019-12-14 08:59:07","powerComm":"已送电","subsNo":"","lineNo":"","tgNo":"","tgName":null,"infoStatus":"1","orgName":"国网浙江杭州市富阳区供电公司","typeName":null,"infoStatusName":null,"dateDay":null,"orgNos":null,"nowTime":null,"countyName":null,"streetName":null,"villageName":null,"roadName":null,"communityName":null,"tranName":null,"sdLineName":null,"cityCode":"3340170","cityName":"国网浙江杭州市富阳区供电公司","provinceCode":null,"stopTime":"2019-12-14 09:15:00","powerType":"全部","powerOffArea":"110kV王洲变:洋绛D782线-瓜桥埠村3#长塘公变后段","powerOffReason":"洋绛D782线洋绛一号开关站3#间隔洋二D7822线97#杆瓜桥长塘分线2#杆瓜桥埠村3#长塘公变拆除低压电缆并搭接于T接箱出线侧等工作。","powerOffId":"2019113031020164"},{"poweroffId":2019113031020163,"sgpoweroffId":null,"subsName":"","lineName":"10kV洋绛D782线","pubTranName":"瓜桥埠村5号华家村北公变,","scope":"浙江省-杭州市-富阳区-场口镇-瓜桥埠行政村-华家自然村","startTime":"2019-12-14 08:30:00","stopDate":"2019-12-14 09:15:00","orgNo":"3340170","typeCode":"计划停电","poweroffArea":"110kV王洲变:洋绛D782线-瓜桥埠村5#华家村北公变后段","poweroffReason":"洋绛D782线洋绛一号开关站3#间隔洋二D7822线79#杆华家村北分线9#杆瓜桥埠村5#华家村北公变拆除低压电缆并搭接于T接箱出线侧等工作。","powerTime":"2019-12-14 08:59:14","powerComm":"已送电","subsNo":"","lineNo":"","tgNo":"","tgName":null,"infoStatus":"1","orgName":"国网浙江杭州市富阳区供电公司","typeName":null,"infoStatusName":null,"dateDay":null,"orgNos":null,"nowTime":null,"countyName":null,"streetName":null,"villageName":null,"roadName":null,"communityName":null,"tranName":null,"sdLineName":null,"cityCode":"3340170","cityName":"国网浙江杭州市富阳区供电公司","provinceCode":null,"stopTime":"2019-12-14 09:15:00","powerType":"全部","powerOffArea":"110kV王洲变:洋绛D782线-瓜桥埠村5#华家村北公变后段","powerOffReason":"洋绛D782线洋绛一号开关站3#间隔洋二D7822线79#杆华家村北分线9#杆瓜桥埠村5#华家村北公变拆除低压电缆并搭接于T接箱出线侧等工作。","powerOffId":"2019113031020163"},{"poweroffId":2019113031020161,"sgpoweroffId":null,"subsName":"","lineName":"10kV洋绛D782线","pubTranName":"联群村2号加工厂公变,","scope":"浙江省-杭州市-富阳区-场口镇-联群行政村-联群自然村一带","startTime":"2019-12-14 08:30:00","stopDate":"2019-12-14 09:15:00","orgNo":"3340170","typeCode":"计划停电","poweroffArea":"110kV王洲变:洋绛D782线-联群村2号加工厂公变开关后段","poweroffReason":"洋绛D782线洋绛一号开关站3#间隔洋二D7822线70#杆联群分线9#杆联群村2#加工厂公变拆除低压电缆并搭接于T接箱出线侧等工作。","powerTime":"2019-12-14 08:58:59","powerComm":"已送电","subsNo":"","lineNo":"","tgNo":"","tgName":null,"infoStatus":"1","orgName":"国网浙江杭州市富阳区供电公司","typeName":null,"infoStatusName":null,"dateDay":null,"orgNos":null,"nowTime":null,"countyName":null,"streetName":null,"villageName":null,"roadName":null,"communityName":null,"tranName":null,"sdLineName":null,"cityCode":"3340170","cityName":"国网浙江杭州市富阳区供电公司","provinceCode":null,"stopTime":"2019-12-14 09:15:00","powerType":"全部","powerOffArea":"110kV王洲变:洋绛D782线-联群村2号加工厂公变开关后段","powerOffReason":"洋绛D782线洋绛一号开关站3#间隔洋二D7822线70#杆联群分线9#杆联群村2#加工厂公变拆除低压电缆并搭接于T接箱出线侧等工作。","powerOffId":"2019113031020161"},{"poweroffId":2019113031020160,"sgpoweroffId":null,"subsName":"","lineName":"10kV洋绛D782线","pubTranName":"上沙村5号村东公变,","scope":"浙江省-杭州市-富阳区-场口镇-上沙行政村-上沙自然村一带","startTime":"2019-12-14 08:30:00","stopDate":"2019-12-14 09:15:00","orgNo":"3340170","typeCode":"计划停电","poweroffArea":"110kV王洲变:洋绛D782线-上沙村5号村东公变后段","poweroffReason":"洋绛D782线洋绛一号开关站3#间隔洋二D7822线96#杆上沙村东分线上沙村5#村东公变拆除低压电缆并搭接于T接箱出线侧等工作。","powerTime":"2019-12-14 08:58:47","powerComm":"已送电","subsNo":"","lineNo":"","tgNo":"","tgName":null,"infoStatus":"1","orgName":"国网浙江杭州市富阳区供电公司","typeName":null,"infoStatusName":null,"dateDay":null,"orgNos":null,"nowTime":null,"countyName":null,"streetName":null,"villageName":null,"roadName":null,"communityName":null,"tranName":null,"sdLineName":null,"cityCode":"3340170","cityName":"国网浙江杭州市富阳区供电公司","provinceCode":null,"stopTime":"2019-12-14 09:15:00","powerType":"全部","powerOffArea":"110kV王洲变:洋绛D782线-上沙村5号村东公变后段","powerOffReason":"洋绛D782线洋绛一号开关站3#间隔洋二D7822线96#杆上沙村东分线上沙村5#村东公变拆除低压电缆并搭接于T接箱出线侧等工作。","powerOffId":"2019113031020160"}],"pageModel":{"pageNow":774,"totalCount":17789,"totalPage":1779,"tableRows":0,"pageCount":10,"beginCount":7730},"isExperi":"1"}