{"message":"","today":"2020-06-15","seleList":[{"poweroffId":2019113031020159,"sgpoweroffId":null,"subsName":"","lineName":"10kV青江D784线","pubTranName":"马山村2#闻家马山公变,","scope":"浙江省-杭州市-富阳区-场口镇-马山行政村-闻家自然村一带","startTime":"2019-12-11 13:00:00","stopDate":"2019-12-11 15:30:00","orgNo":"3340170","typeCode":"计划停电","poweroffArea":"110kV王洲变:诸佳D794线-马山村2#闻家马山公变后段","poweroffReason":"青江D784线12#杆闻家分线4#杆闻家村东支线10#杆马山村2#闻家马山公变：1、马山村2#闻家马山公变至配电屏进线侧接入电缆1根，制作电缆头、搭接；2、拆除自备电源至配电屏电缆1根；3、更换终端、互感器等工作。","powerTime":"2019-12-11 15:15:18","powerComm":"已送电","subsNo":"","lineNo":"","tgNo":"","tgName":null,"infoStatus":"1","orgName":"国网浙江杭州市富阳区供电公司","typeName":null,"infoStatusName":null,"dateDay":null,"orgNos":null,"nowTime":null,"countyName":null,"streetName":null,"villageName":null,"roadName":null,"communityName":null,"tranName":null,"sdLineName":null,"cityCode":"3340170","cityName":"国网浙江杭州市富阳区供电公司","provinceCode":null,"stopTime":"2019-12-11 15:30:00","powerType":"全部","powerOffArea":"110kV王洲变:诸佳D794线-马山村2#闻家马山公变后段","powerOffReason":"青江D784线12#杆闻家分线4#杆闻家村东支线10#杆马山村2#闻家马山公变：1、马山村2#闻家马山公变至配电屏进线侧接入电缆1根，制作电缆头、搭接；2、拆除自备电源至配电屏电缆1根；3、更换终端、互感器等工作。","powerOffId":"2019113031020159"},{"poweroffId":2019113031020158,"sgpoweroffId":null,"subsName":"","lineName":"10kV青江D784线","pubTranName":"马山村2#闻家马山公变,","scope":"浙江省-杭州市-富阳区-场口镇-马山行政村-闻家自然村一带","startTime":"2019-12-11 08:30:00","stopDate":"2019-12-11 09:15:00","orgNo":"3340170","typeCode":"计划停电","poweroffArea":"110kV王洲变:青江D784线-马山村2#闻家马山公变后段","poweroffReason":"青江D784线12#杆闻家分线4#杆闻家村东支线10#杆马山村2#闻家马山公变：1、拆除马山村2#闻家马山公变至配电屏进线侧电缆1根；2、自备电源搭接至配电屏接入电缆1根等工作。","powerTime":"2019-12-11 09:05:19","powerComm":"已送电","subsNo":"","lineNo":"","tgNo":"","tgName":null,"infoStatus":"1","orgName":"国网浙江杭州市富阳区供电公司","typeName":null,"infoStatusName":null,"dateDay":null,"orgNos":null,"nowTime":null,"countyName":null,"streetName":null,"villageName":null,"roadName":null,"communityName":null,"tranName":null,"sdLineName":null,"cityCode":"3340170","cityName":"国网浙江杭州市富阳区供电公司","provinceCode":null,"stopTime":"2019-12-11 09:15:00","powerType":"全部","powerOffArea":"110kV王洲变:青江D784线-马山村2#闻家马山公变后段","powerOffReason":"青江D784线12#杆闻家分线4#杆闻家村东支线10#杆马山村2#闻家马山公变：1、拆除马山村2#闻家马山公变至配电屏进线侧电缆1根；2、自备电源搭接至配电屏接入电缆1根等工作。","powerOffId":"2019113031020158"},{"poweroffId":2019113031020157,"sgpoweroffId":null,"subsName":"","lineName":"10kV洋绛D782线","pubTranName":"杭州市富阳区场口镇人民政府1#变,","scope":"浙江省-杭州市-富阳区-场口镇-红星行政村-杭州市富阳区场口镇人民政府一带","startTime":"2019-12-09 08:15:00","stopDate":"2019-12-09 11:00:00","orgNo":"3340170","typeCode":"计划停电","poweroffArea":"110kV王洲变:洋绛D782线洋绛一号开关站3#间隔洋二D7822线14#杆红星分线12#杆红星农灌支线8#杆红星排涝支线杭州市富阳区场口镇人民政府1#变","poweroffReason":"配合洋绛D782线洋绛一号开关站3#间隔洋二D7822线14#杆红星分线12#杆红星农灌支线工作停电。","powerTime":"2019-12-09 10:50:08","powerComm":"已送电","subsNo":"","lineNo":"","tgNo":"","tgName":null,"infoStatus":"1","orgName":"国网浙江杭州市富阳区供电公司","typeName":null,"infoStatusName":null,"dateDay":null,"orgNos":null,"nowTime":null,"countyName":null,"streetName":null,"villageName":null,"roadName":null,"communityName":null,"tranName":null,"sdLineName":null,"cityCode":"3340170","cityName":"国网浙江杭州市富阳区供电公司","provinceCode":null,"stopTime":"2019-12-09 11:00:00","powerType":"全部","powerOffArea":"110kV王洲变:洋绛D782线洋绛一号开关站3#间隔洋二D7822线14#杆红星分线12#杆红星农灌支线8#杆红星排涝支线杭州市富阳区场口镇人民政府1#变","powerOffReason":"配合洋绛D782线洋绛一号开关站3#间隔洋二D7822线14#杆红星分线12#杆红星农灌支线工作停电。","powerOffId":"2019113031020157"},{"poweroffId":2019113031020155,"sgpoweroffId":null,"subsName":"","lineName":"10kV洋绛D782线","pubTranName":"红星农灌,","scope":"浙江省-杭州市-富阳区-场口镇-红星行政村-杭州市富阳区场口镇红星村股份经济合作社","startTime":"2019-12-09 08:30:00","stopDate":"2019-12-09 11:00:00","orgNo":"3340170","typeCode":"计划停电","poweroffArea":"110kV王洲变:洋绛D782线-红星农灌后段","poweroffReason":"洋绛D782线洋绛一号开关站3#间隔洋二D7822线14#杆红星分线12#杆红星农灌支线9#杆真空开关搭头、断开耐张搭头等工作。","powerTime":"2019-12-09 10:50:17","powerComm":"已送电","subsNo":"","lineNo":"","tgNo":"","tgName":null,"infoStatus":"1","orgName":"国网浙江杭州市富阳区供电公司","typeName":null,"infoStatusName":null,"dateDay":null,"orgNos":null,"nowTime":null,"countyName":null,"streetName":null,"villageName":null,"roadName":null,"communityName":null,"tranName":null,"sdLineName":null,"cityCode":"3340170","cityName":"国网浙江杭州市富阳区供电公司","provinceCode":null,"stopTime":"2019-12-09 11:00:00","powerType":"全部","powerOffArea":"110kV王洲变:洋绛D782线-红星农灌后段","powerOffReason":"洋绛D782线洋绛一号开关站3#间隔洋二D7822线14#杆红星分线12#杆红星农灌支线9#杆真空开关搭头、断开耐张搭头等工作。","powerOffId":"2019113031020155"},{"poweroffId":2019113031020150,"sgpoweroffId":null,"subsName":"","lineName":"10kV华诚C951线","pubTranName":"三头村4#变,","scope":"浙江省-杭州市-萧山区-戴村镇-三头行政村(大湖头自然村,墙头自然村,凌桥自然村),浙江省杭州市萧山区戴村镇三头村,浙江省杭州市萧山区戴村镇三头村等一带","startTime":"2019-11-30 19:24:03","stopDate":"2019-11-30 21:00:03","orgNo":"3340130","typeCode":"电网故障停限电","poweroffArea":"110kV永兴变:华诚C951线-三头村4#变台区低压开关","poweroffReason":"(低压停电信息)低压熔断器短路故障 原停电结束时间为2019-11-30 21:37:03,为减少客户停电时间,加快工作进度,提前送电,现变更停电结束时间为2019-11-30 21:00:03","powerTime":"2019-11-30 20:22:38","powerComm":"已送电","subsNo":"","lineNo":"","tgNo":"","tgName":null,"infoStatus":"1","orgName":"国网浙江杭州市萧山区供电有限公司","typeName":null,"infoStatusName":null,"dateDay":null,"orgNos":null,"nowTime":null,"countyName":null,"streetName":null,"villageName":null,"roadName":null,"communityName":null,"tranName":null,"sdLineName":null,"cityCode":"3340130","cityName":"国网浙江杭州市萧山区供电有限公司","provinceCode":null,"stopTime":"2019-11-30 21:00:03","powerType":"全部","powerOffArea":"110kV永兴变:华诚C951线-三头村4#变台区低压开关","powerOffReason":"(低压停电信息)低压熔断器短路故障 原停电结束时间为2019-11-30 21:37:03,为减少客户停电时间,加快工作进度,提前送电,现变更停电结束时间为2019-11-30 21:00:03","powerOffId":"2019113031020150"},{"poweroffId":2019113031020149,"sgpoweroffId":null,"subsName":"","lineName":"10kV桥鼎9845线","pubTranName":"三村(4-1)组,","scope":"浙江省-杭州市-江干区-九堡镇-三村村社区-三村村6区","startTime":"2019-11-30 19:19:09","stopDate":"2019-11-30 22:19:09","orgNo":"3340101","typeCode":"电网故障停限电","poweroffArea":"110kV笕桥变:桥鼎9845线-三村(4-1)组变","poweroffReason":"(低压停电信息)低压开关跳闸 原停电结束时间为2019-11-30 21:19:09,因施工现场环境比较复杂，存在不确定因素原因,现变更停电结束时间为2019-11-30 22:19:09","powerTime":"2019-11-30 21:20:41","powerComm":"已送电","subsNo":"","lineNo":"","tgNo":"","tgName":null,"infoStatus":"1","orgName":"浙江杭州电力客户服务中心","typeName":null,"infoStatusName":null,"dateDay":null,"orgNos":null,"nowTime":null,"countyName":null,"streetName":null,"villageName":null,"roadName":null,"communityName":null,"tranName":null,"sdLineName":null,"cityCode":"3340101","cityName":"浙江杭州电力客户服务中心","provinceCode":null,"stopTime":"2019-11-30 22:19:09","powerType":"全部","powerOffArea":"110kV笕桥变:桥鼎9845线-三村(4-1)组变","powerOffReason":"(低压停电信息)低压开关跳闸 原停电结束时间为2019-11-30 21:19:09,因施工现场环境比较复杂，存在不确定因素原因,现变更停电结束时间为2019-11-30 22:19:09","powerOffId":"2019113031020149"},{"poweroffId":2019113031020146,"sgpoweroffId":null,"subsName":"","lineName":"10kV中侨T315线","pubTranName":"上洋洲6号公变,","scope":"浙江省-杭州市-桐庐县-城南街道-上洋洲行政村(春江东路,上洋洲自然村),","startTime":"2019-11-30 19:02:47","stopDate":"2019-11-30 21:02:47","orgNo":"3340150","typeCode":"电网故障停限电","poweroffArea":"110kV洋洲变:中侨T315线-上洋洲6号公变后段","poweroffReason":"(低压停电信息)低压开关跳闸","powerTime":"2019-11-30 20:33:16","powerComm":"已送电","subsNo":"","lineNo":"","tgNo":"","tgName":null,"infoStatus":"1","orgName":"国网浙江桐庐县供电公司","typeName":null,"infoStatusName":null,"dateDay":null,"orgNos":null,"nowTime":null,"countyName":null,"streetName":null,"villageName":null,"roadName":null,"communityName":null,"tranName":null,"sdLineName":null,"cityCode":"3340150","cityName":"国网浙江桐庐县供电公司","provinceCode":null,"stopTime":"2019-11-30 21:02:47","powerType":"全部","powerOffArea":"110kV洋洲变:中侨T315线-上洋洲6号公变后段","powerOffReason":"(低压停电信息)低压开关跳闸","powerOffId":"2019113031020146"},{"poweroffId":2019113031020130,"sgpoweroffId":null,"subsName":"","lineName":"10kV智天8388线","pubTranName":"七甲三,滨中2#,二连,新生村,七甲六,滨文1#,沙虞三,兴达,村委五,沙虞四,排涝,之桥,新生过渡1#,高创施3#,公交,高创施2#,沙沈一,大陈庙三,沙沈二,外曹三,沙虞一,滨文2#,浦农贸1#,村委三,搪瓷,八甲五,高创施1#,新技施,大陈庙,地铁施2#,教育施1#,教育施2#,八甲一,浦农贸2#,新生过渡6#,新村,沙虞二,大陈庙二,新幼,佳园,滨中1#,新生过渡4#,教育施3#,陈庙,八甲四,教育施4#,新生过渡5#,高创施4#,新生过渡2#,新生过渡3#,滨文路,村委四,地铁施1#,沙虞五,村委六,","scope":"浙江省-杭州市-滨江区-浦沿街道-新生社区(新生路,滨文路,沙浪虞,沙浪沈,八甲,陆家坛,新生村,来家里);长河街道-新生社区(杭州之江大桥开发有限公司,中铁四局集团有限公司城市轨道交通工程分公司),浦沿街道-新生社区-六和社区(杭州兴达有色金属材料厂,杭州迪琼五金工具厂,杭州市公共交通集团有限公司,杭州高新技术产业开发总公司,滨江区钱塘山水幼儿园浙新分园,杭州市滨文小学,杭州高新技术产业开发区(滨江)智慧新天地建设指挥部,杭州高新科技创业服务有限公司,杭州滨江城建发展有限公司),浦沿街道(浦联社区-杭州市滨江区城市管理局,杭州市滨江区教育局,杭州市滨江区人民政府浦沿街道办事处)","startTime":"2019-11-30 17:29:39","stopDate":"2019-11-30 20:40:39","orgNo":"3340101","typeCode":"电网故障停限电","poweroffArea":"110kV新生变:智天8388线","poweroffReason":"高压开关跳闸 原停电结束时间为2019-11-30 23:29:39,为减少客户停电时间,加快工作进度,提前送电,现变更停电结束时间为2019-11-30 20:40:39","powerTime":"2019-11-30 20:04:32","powerComm":"已送电","subsNo":"","lineNo":"","tgNo":"","tgName":null,"infoStatus":"1","orgName":"浙江杭州电力客户服务中心","typeName":null,"infoStatusName":null,"dateDay":null,"orgNos":null,"nowTime":null,"countyName":null,"streetName":null,"villageName":null,"roadName":null,"communityName":null,"tranName":null,"sdLineName":null,"cityCode":"3340101","cityName":"浙江杭州电力客户服务中心","provinceCode":null,"stopTime":"2019-11-30 20:40:39","powerType":"全部","powerOffArea":"110kV新生变:智天8388线","powerOffReason":"高压开关跳闸 原停电结束时间为2019-11-30 23:29:39,为减少客户停电时间,加快工作进度,提前送电,现变更停电结束时间为2019-11-30 20:40:39","powerOffId":"2019113031020130"},{"poweroffId":2019113031020127,"sgpoweroffId":null,"subsName":"","lineName":"10kV窄溪T257线","pubTranName":"金浦路1号公变,","scope":"浙江省-杭州市-桐庐县-江南镇-窄溪行政村(鼓楼街,金浦路,窄溪镇,市场路,富前路)","startTime":"2019-11-30 17:20:33","stopDate":"2019-11-30 19:20:33","orgNo":"3340150","typeCode":"电网故障停限电","poweroffArea":"110kV石阜变:窄溪T257线-金浦路1号公变后段","poweroffReason":"(低压停电信息)低压开关跳闸","powerTime":"2019-11-30 18:51:01","powerComm":"已送电","subsNo":"","lineNo":"","tgNo":"","tgName":null,"infoStatus":"1","orgName":"国网浙江桐庐县供电公司","typeName":null,"infoStatusName":null,"dateDay":null,"orgNos":null,"nowTime":null,"countyName":null,"streetName":null,"villageName":null,"roadName":null,"communityName":null,"tranName":null,"sdLineName":null,"cityCode":"3340150","cityName":"国网浙江桐庐县供电公司","provinceCode":null,"stopTime":"2019-11-30 19:20:33","powerType":"全部","powerOffArea":"110kV石阜变:窄溪T257线-金浦路1号公变后段","powerOffReason":"(低压停电信息)低压开关跳闸","powerOffId":"2019113031020127"},{"poweroffId":2019113031020118,"sgpoweroffId":null,"subsName":"","lineName":"10kV紫东A787线","pubTranName":"河上镇紫霞村6#变,杭州万迪服饰有限公司,璇山下1#变,紫东村5#变,东太生态,紫东村1#变,雄华机械,璇山下纺织,杭州萧山张贤机械配件厂,河上镇紫霞村5#变,紫东电镀厂,丰达包装,大桥建材厂,发达机械,河上镇紫霞村7#变,众联村14#变,紫东村8#变,紫东村3#变,紫东村10#变,杭州市萧山区河上镇人民政府2#1#变压器,璇山下3#变,河上镇紫霞村9#变,紫东村4#变,杭州市萧山区河上镇人民政府2#2#变压器,紫东村2#变,璇山下5#变,璇山下2#变,璇山下4#变,萧山区林场(吾岭茶场),璇山下6#变,","scope":"浙江省-杭州市-萧山区-河上镇-众联行政村-联合自然村,河上镇-璇山下行政村(璇山下自然村,桃花坞自然村),河上镇-紫霞行政村(韩家自然村,强农自然村,翔农自然村,欢乐自然村,麻园自然村),河上镇-紫东行政村(紫东自然村,孙桥头自然村,胡家自然村);浙江省-杭州市-萧山区-河上镇-紫霞行政村-杭州万迪服饰有限公司,河上镇-璇山下行政村(杭州市萧山区林场,杭州璇山下纺织有限公司),河上镇-众联行政村(杭州市萧山区河上镇人民政府,杭州东太生态养殖有限公司),河上镇-紫东行政村(杭州雄华机械有限公司,杭州萧山丰达包装材料厂,杭州萧山张贤机械配件厂),河上镇-大桥行政村(杭州萧山大桥建材有限公司,杭州紫东五金厂)等一带","startTime":"2019-11-30 16:42:55","stopDate":"2019-11-30 18:42:55","orgNo":"3340130","typeCode":"电网故障停限电","poweroffArea":"110kV大西变:紫东A787线-紫东A787线开关后段","poweroffReason":"高压开关跳闸","powerTime":"2019-11-30 17:45:37","powerComm":"已送电","subsNo":"","lineNo":"","tgNo":"","tgName":null,"infoStatus":"1","orgName":"国网浙江杭州市萧山区供电有限公司","typeName":null,"infoStatusName":null,"dateDay":null,"orgNos":null,"nowTime":null,"countyName":null,"streetName":null,"villageName":null,"roadName":null,"communityName":null,"tranName":null,"sdLineName":null,"cityCode":"3340130","cityName":"国网浙江杭州市萧山区供电有限公司","provinceCode":null,"stopTime":"2019-11-30 18:42:55","powerType":"全部","powerOffArea":"110kV大西变:紫东A787线-紫东A787线开关后段","powerOffReason":"高压开关跳闸","powerOffId":"2019113031020118"}],"pageModel":{"pageNow":775,"totalCount":17789,"totalPage":1779,"tableRows":0,"pageCount":10,"beginCount":7740},"isExperi":"1"}