{"message":"","today":"2020-06-15","seleList":[{"poweroffId":2019112931020776,"sgpoweroffId":null,"subsName":"","lineName":"10kV桥头V410线","pubTranName":"青山斜阳村（1）,桥头村2,青山桥头村1#,杨家村变,临安炜业建材有限公司,青山斜阳村（2）,斜阳轧石变,斜阳3#公变,白纸槽公变,","scope":"浙江省-杭州市-临安市-青山湖街道-研口行政村-研口自然村,青山湖街道-青南行政村(斜阳自然村,杨家自然村,桥头自然村);青山湖街道-杭州临安炜业建材有限公司一带","startTime":"2019-11-29 17:23:00","stopDate":"2019-11-29 19:23:00","orgNo":"3340160","typeCode":"电网故障停限电","poweroffArea":"110kV石泉变:桥头V410线4103开关后段","poweroffReason":"高压开关跳闸","powerTime":"2019-11-29 19:00:26","powerComm":"已送电","subsNo":"","lineNo":"","tgNo":"","tgName":null,"infoStatus":"1","orgName":"国网浙江临安市供电公司","typeName":null,"infoStatusName":null,"dateDay":null,"orgNos":null,"nowTime":null,"countyName":null,"streetName":null,"villageName":null,"roadName":null,"communityName":null,"tranName":null,"sdLineName":null,"cityCode":"3340160","cityName":"国网浙江临安市供电公司","provinceCode":null,"stopTime":"2019-11-29 19:23:00","powerType":"全部","powerOffArea":"110kV石泉变:桥头V410线4103开关后段","powerOffReason":"高压开关跳闸","powerOffId":"2019112931020776"},{"poweroffId":2019112931020740,"sgpoweroffId":null,"subsName":"","lineName":"10kV上甘V114线","pubTranName":"锦南1#公变,","scope":"浙江省-杭州市-临安市-锦城街道-锦桥社区—锦湖弄附近一带","startTime":"2019-12-14 07:50:00","stopDate":"2019-12-14 13:30:00","orgNo":"3340160","typeCode":"计划停电","poweroffArea":"110kV临安变:上甘V114线-锦南1#公变低压总闸刀后段","poweroffReason":"(低压停电信息)接户线调换","powerTime":"2019-12-14 13:20:26","powerComm":"已送电","subsNo":"","lineNo":"","tgNo":"","tgName":null,"infoStatus":"1","orgName":"国网浙江临安市供电公司","typeName":null,"infoStatusName":null,"dateDay":null,"orgNos":null,"nowTime":null,"countyName":null,"streetName":null,"villageName":null,"roadName":null,"communityName":null,"tranName":null,"sdLineName":null,"cityCode":"3340160","cityName":"国网浙江临安市供电公司","provinceCode":null,"stopTime":"2019-12-14 13:30:00","powerType":"全部","powerOffArea":"110kV临安变:上甘V114线-锦南1#公变低压总闸刀后段","powerOffReason":"(低压停电信息)接户线调换","powerOffId":"2019112931020740"},{"poweroffId":2019112931020736,"sgpoweroffId":null,"subsName":"","lineName":"10kV汤山D910线","pubTranName":"杭州博大门业工程有限公司,","scope":"浙江省-杭州市-富阳区-里山镇-里山行政村-杭州博大门业工程有限公司一带","startTime":"2019-12-12 07:20:00","stopDate":"2019-12-12 12:30:00","orgNo":"3340170","typeCode":"计划停电","poweroffArea":"110kV里渔变:汤山D910线-汤山D9102开关后段","poweroffReason":"配合用户内部检修","powerTime":"2019-12-12 12:21:52","powerComm":"已送电","subsNo":"","lineNo":"","tgNo":"","tgName":null,"infoStatus":"1","orgName":"国网浙江杭州市富阳区供电公司","typeName":null,"infoStatusName":null,"dateDay":null,"orgNos":null,"nowTime":null,"countyName":null,"streetName":null,"villageName":null,"roadName":null,"communityName":null,"tranName":null,"sdLineName":null,"cityCode":"3340170","cityName":"国网浙江杭州市富阳区供电公司","provinceCode":null,"stopTime":"2019-12-12 12:30:00","powerType":"全部","powerOffArea":"110kV里渔变:汤山D910线-汤山D9102开关后段","powerOffReason":"配合用户内部检修","powerOffId":"2019112931020736"},{"poweroffId":2019112931020735,"sgpoweroffId":null,"subsName":"","lineName":"10kV汤山D910线","pubTranName":"杭州滨和机械制造有限公司,","scope":"浙江省-杭州市-富阳区-里山镇-里山行政村-杭州滨和机械制造有限公司一带","startTime":"2019-12-12 07:40:00","stopDate":"2019-12-12 12:30:00","orgNo":"3340170","typeCode":"计划停电","poweroffArea":"110kV里渔变:汤山D910线-汤山D9102开关后段","poweroffReason":"配合用户内部检修","powerTime":"2019-12-12 12:21:41","powerComm":"已送电","subsNo":"","lineNo":"","tgNo":"","tgName":null,"infoStatus":"1","orgName":"国网浙江杭州市富阳区供电公司","typeName":null,"infoStatusName":null,"dateDay":null,"orgNos":null,"nowTime":null,"countyName":null,"streetName":null,"villageName":null,"roadName":null,"communityName":null,"tranName":null,"sdLineName":null,"cityCode":"3340170","cityName":"国网浙江杭州市富阳区供电公司","provinceCode":null,"stopTime":"2019-12-12 12:30:00","powerType":"全部","powerOffArea":"110kV里渔变:汤山D910线-汤山D9102开关后段","powerOffReason":"配合用户内部检修","powerOffId":"2019112931020735"},{"poweroffId":2019112931020734,"sgpoweroffId":null,"subsName":"","lineName":"10kV城北D580线","pubTranName":"东海石油大厦公变,富阳市安信物业管理有限公司,","scope":"浙江省-杭州市-富阳区-富春街道-城东社区-东海石油大厦","startTime":"2019-12-10 08:45:00","stopDate":"2019-12-10 18:00:00","orgNo":"3340170","typeCode":"计划停电","poweroffArea":"110kV春江变:城北D580线-富阳市安信物业管理有限公司后段;城北D580线-东海石油大厦公变后段;城北D580线首端，东海石油大厦公变，富阳市安信物业管理有限公司之间","poweroffReason":"文居街道路拓宽迁改工程：10kV城北D580线城北一号开关站4#间隔城北T接一线电缆敷设、制作、试验、搭接等工作原停电结束时间为2019-12-10 14:45:00,因政策原因,现变更停电结束时间为2019-12-10 18:00:00","powerTime":"2019-12-10 17:50:54","powerComm":"已送电","subsNo":"","lineNo":"","tgNo":"","tgName":null,"infoStatus":"1","orgName":"国网浙江杭州市富阳区供电公司","typeName":null,"infoStatusName":null,"dateDay":null,"orgNos":null,"nowTime":null,"countyName":null,"streetName":null,"villageName":null,"roadName":null,"communityName":null,"tranName":null,"sdLineName":null,"cityCode":"3340170","cityName":"国网浙江杭州市富阳区供电公司","provinceCode":null,"stopTime":"2019-12-10 18:00:00","powerType":"全部","powerOffArea":"110kV春江变:城北D580线-富阳市安信物业管理有限公司后段;城北D580线-东海石油大厦公变后段;城北D580线首端，东海石油大厦公变，富阳市安信物业管理有限公司之间","powerOffReason":"文居街道路拓宽迁改工程：10kV城北D580线城北一号开关站4#间隔城北T接一线电缆敷设、制作、试验、搭接等工作原停电结束时间为2019-12-10 14:45:00,因政策原因,现变更停电结束时间为2019-12-10 18:00:00","powerOffId":"2019112931020734"},{"poweroffId":2019112931020716,"sgpoweroffId":null,"subsName":"","lineName":"10kV百丈H563线","pubTranName":"仙岩村九东山二组公变,","scope":"浙江省-杭州市-余杭区-百丈镇-仙岩村九东山二组一带","startTime":"2019-12-06 08:30:00","stopDate":"2019-12-06 16:30:00","orgNo":"3340140","typeCode":"临时停电","poweroffArea":"35kV黄湖变:百丈H563线-仙岩村九东山二组公变低压闸刀后段","poweroffReason":"(低压停电信息)计划停电","powerTime":"2019-12-06 16:13:33","powerComm":"已送电","subsNo":"","lineNo":"","tgNo":"","tgName":null,"infoStatus":"1","orgName":"国网浙江杭州市余杭区供电有限公司","typeName":null,"infoStatusName":null,"dateDay":null,"orgNos":null,"nowTime":null,"countyName":null,"streetName":null,"villageName":null,"roadName":null,"communityName":null,"tranName":null,"sdLineName":null,"cityCode":"3340140","cityName":"国网浙江杭州市余杭区供电有限公司","provinceCode":null,"stopTime":"2019-12-06 16:30:00","powerType":"全部","powerOffArea":"35kV黄湖变:百丈H563线-仙岩村九东山二组公变低压闸刀后段","powerOffReason":"(低压停电信息)计划停电","powerOffId":"2019112931020716"},{"poweroffId":2019112931020715,"sgpoweroffId":null,"subsName":"","lineName":"10kV城东Y209线","pubTranName":"万宇公变,","scope":"浙江省-杭州市-建德市-新安江街道 明珠社区 万宇大厦，广场公寓小区1幢、2幢、3幢、4幢及周边车库、营业房，新安明珠小区门口停车场一带用户。","startTime":"2019-12-07 08:30:00","stopDate":"2019-12-07 11:30:00","orgNo":"3340180","typeCode":"计划停电","poweroffArea":"110kV白沙变:城东Y209线-万宇公变后段","poweroffReason":"(低压停电信息)万宇公变低压总闸更换","powerTime":"2019-12-07 11:02:00","powerComm":"已送电","subsNo":"","lineNo":"","tgNo":"","tgName":null,"infoStatus":"1","orgName":"国网浙江建德市供电有限公司","typeName":null,"infoStatusName":null,"dateDay":null,"orgNos":null,"nowTime":null,"countyName":null,"streetName":null,"villageName":null,"roadName":null,"communityName":null,"tranName":null,"sdLineName":null,"cityCode":"3340180","cityName":"国网浙江建德市供电有限公司","provinceCode":null,"stopTime":"2019-12-07 11:30:00","powerType":"全部","powerOffArea":"110kV白沙变:城东Y209线-万宇公变后段","powerOffReason":"(低压停电信息)万宇公变低压总闸更换","powerOffId":"2019112931020715"},{"poweroffId":2019112931020704,"sgpoweroffId":null,"subsName":"","lineName":"10kV锦春V204线","pubTranName":"尚城国际2#公变,临安兴盛置业有限公司,临安市国联置业有限公司2,临安市国联置业有限公司2,临安市青少年活动中心1#,","scope":"浙江省-杭州市-临安市-锦城街道-锦潭社区-临安市国联置业有限公司、临安市青少年活动中心、尚城国际、临安兴盛置业有限公司一带。","startTime":"2019-12-12 08:30:00","stopDate":"2019-12-12 16:30:00","orgNo":"3340160","typeCode":"计划停电","poweroffArea":"110kV锦城变:锦春V204线-临安地上物业管理分线开关后段;锦春V204线-尚城锦福分线开关后段;锦春V204线-青少年活动中心1#分线开关后段","poweroffReason":"杭州市临安区交通物业开发管理有限公司广场项目周边电力线迁改工程（南面）含土建工程： 锦春V204线青海站尚城锦福支线电缆移位，中间接头制作、电缆头制作、试验、搭头 锦春V204线青海站临安市青少年活动中心1#电缆移位","powerTime":"2019-12-12 16:20:22","powerComm":"已送电","subsNo":"","lineNo":"","tgNo":"","tgName":null,"infoStatus":"1","orgName":"国网浙江临安市供电公司","typeName":null,"infoStatusName":null,"dateDay":null,"orgNos":null,"nowTime":null,"countyName":null,"streetName":null,"villageName":null,"roadName":null,"communityName":null,"tranName":null,"sdLineName":null,"cityCode":"3340160","cityName":"国网浙江临安市供电公司","provinceCode":null,"stopTime":"2019-12-12 16:30:00","powerType":"全部","powerOffArea":"110kV锦城变:锦春V204线-临安地上物业管理分线开关后段;锦春V204线-尚城锦福分线开关后段;锦春V204线-青少年活动中心1#分线开关后段","powerOffReason":"杭州市临安区交通物业开发管理有限公司广场项目周边电力线迁改工程（南面）含土建工程： 锦春V204线青海站尚城锦福支线电缆移位，中间接头制作、电缆头制作、试验、搭头 锦春V204线青海站临安市青少年活动中心1#电缆移位","powerOffId":"2019112931020704"},{"poweroffId":2019112931020702,"sgpoweroffId":null,"subsName":"","lineName":"10kV大横V543线","pubTranName":"三口上钱村连蕊坞,","scope":"浙江省-杭州市-临安市-板桥镇三口上钱村连蕊坞一带","startTime":"2019-12-11 08:20:00","stopDate":"2019-12-11 12:50:00","orgNo":"3340160","typeCode":"计划停电","poweroffArea":"110kV板桥变:停大横V543线横岭脚分线37#杆连蕊坞配变支线令克","poweroffReason":"配变增容","powerTime":"2019-12-11 12:40:14","powerComm":"已送电","subsNo":"","lineNo":"","tgNo":"","tgName":null,"infoStatus":"1","orgName":"国网浙江临安市供电公司","typeName":null,"infoStatusName":null,"dateDay":null,"orgNos":null,"nowTime":null,"countyName":null,"streetName":null,"villageName":null,"roadName":null,"communityName":null,"tranName":null,"sdLineName":null,"cityCode":"3340160","cityName":"国网浙江临安市供电公司","provinceCode":null,"stopTime":"2019-12-11 12:50:00","powerType":"全部","powerOffArea":"110kV板桥变:停大横V543线横岭脚分线37#杆连蕊坞配变支线令克","powerOffReason":"配变增容","powerOffId":"2019112931020702"},{"poweroffId":2019112931020699,"sgpoweroffId":null,"subsName":"","lineName":"10kV市地V620线","pubTranName":"横畈塘楼郜村配变,横畈塘楼村,下塘楼村,中冷机电200#,杭州临安王成石料加工厂,杭州中冷机电有限公司,郜村2#变,杭州临安王成石料加工厂,杭州中冷机电有限公司,","scope":"浙江省-杭州市-临安市-青山湖街道-郜村2，杭州临安王成石料加工厂，杭州临安王成石料加工厂，横畈塘楼郜村，横畈塘楼村，下塘楼村，杭州中冷机电有限公司一带","startTime":"2019-12-10 08:30:00","stopDate":"2019-12-10 16:10:00","orgNo":"3340160","typeCode":"计划停电","poweroffArea":"110kV雅观变:(1)停市地V620线市观6202线13#杆平山农场分线开关; (2)停市地V620线市观6202线10#杆吉星仪表机械分线开关","poweroffReason":"分支线改造","powerTime":"2019-12-10 15:57:39","powerComm":"已送电","subsNo":"","lineNo":"","tgNo":"","tgName":null,"infoStatus":"1","orgName":"国网浙江临安市供电公司","typeName":null,"infoStatusName":null,"dateDay":null,"orgNos":null,"nowTime":null,"countyName":null,"streetName":null,"villageName":null,"roadName":null,"communityName":null,"tranName":null,"sdLineName":null,"cityCode":"3340160","cityName":"国网浙江临安市供电公司","provinceCode":null,"stopTime":"2019-12-10 16:10:00","powerType":"全部","powerOffArea":"110kV雅观变:(1)停市地V620线市观6202线13#杆平山农场分线开关; (2)停市地V620线市观6202线10#杆吉星仪表机械分线开关","powerOffReason":"分支线改造","powerOffId":"2019112931020699"}],"pageModel":{"pageNow":777,"totalCount":17789,"totalPage":1779,"tableRows":0,"pageCount":10,"beginCount":7760},"isExperi":"1"}