{"message":"","today":"2020-06-15","seleList":[{"poweroffId":2019112931020693,"sgpoweroffId":null,"subsName":"","lineName":"10kV珺府V822线","pubTranName":"中天珺府3#变,中天珺府4#变,中天珺府2#变,中天珺府1#变,","scope":"浙江省-杭州市-临安市-青山湖街道-青山行政村中天珺府小区一带","startTime":"2019-12-10 08:30:00","stopDate":"2019-12-10 12:30:00","orgNo":"3340160","typeCode":"计划停电","poweroffArea":"110kV胜联变:珺府V822线中天郡府开闭所G3间隔开关； 2、停珺府V822线中天郡府开闭所G4间隔开关； 3、停科技V792线中天郡府公共开闭所G3间隔开关； 4、停珺府V822线中天郡府开闭所中天珺府1#变高配G1间隔开关； 5、停珺府V822线中天郡府开闭所中天珺府4#变高配G4间隔开关","poweroffReason":"用户割接","powerTime":"2019-12-10 12:20:18","powerComm":"已送电","subsNo":"","lineNo":"","tgNo":"","tgName":null,"infoStatus":"1","orgName":"国网浙江临安市供电公司","typeName":null,"infoStatusName":null,"dateDay":null,"orgNos":null,"nowTime":null,"countyName":null,"streetName":null,"villageName":null,"roadName":null,"communityName":null,"tranName":null,"sdLineName":null,"cityCode":"3340160","cityName":"国网浙江临安市供电公司","provinceCode":null,"stopTime":"2019-12-10 12:30:00","powerType":"全部","powerOffArea":"110kV胜联变:珺府V822线中天郡府开闭所G3间隔开关； 2、停珺府V822线中天郡府开闭所G4间隔开关； 3、停科技V792线中天郡府公共开闭所G3间隔开关； 4、停珺府V822线中天郡府开闭所中天珺府1#变高配G1间隔开关； 5、停珺府V822线中天郡府开闭所中天珺府4#变高配G4间隔开关","powerOffReason":"用户割接","powerOffId":"2019112931020693"},{"poweroffId":2019112931020686,"sgpoweroffId":null,"subsName":"","lineName":"10kV安阳R162线","pubTranName":"朱家公变,","scope":"浙江省-杭州市-淳安县-大墅镇-栗月坪行政村-朱家自然村","startTime":"2019-12-10 13:30:00","stopDate":"2019-12-10 15:30:00","orgNo":"3340190","typeCode":"计划停电","poweroffArea":"35kV大市变:安阳R162线-朱家支线04号杆开关后段","poweroffReason":"朱家支线6号杆至7号杆导线复位及电缆拆除220KV交跨原停电结束时间为2019-12-11 10:00:00,为减少客户停电时间,加快工作进度,提前送电,现变更停电结束时间为2019-12-10","powerTime":"2019-12-10 15:04:10","powerComm":"已送电","subsNo":"","lineNo":"","tgNo":"","tgName":null,"infoStatus":"1","orgName":"国网浙江淳安县供电有限公司","typeName":null,"infoStatusName":null,"dateDay":null,"orgNos":null,"nowTime":null,"countyName":null,"streetName":null,"villageName":null,"roadName":null,"communityName":null,"tranName":null,"sdLineName":null,"cityCode":"3340190","cityName":"国网浙江淳安县供电有限公司","provinceCode":null,"stopTime":"2019-12-10 15:30:00","powerType":"全部","powerOffArea":"35kV大市变:安阳R162线-朱家支线04号杆开关后段","powerOffReason":"朱家支线6号杆至7号杆导线复位及电缆拆除220KV交跨原停电结束时间为2019-12-11 10:00:00,为减少客户停电时间,加快工作进度,提前送电,现变更停电结束时间为2019-12-10","powerOffId":"2019112931020686"},{"poweroffId":2019112931020685,"sgpoweroffId":null,"subsName":"","lineName":"10kV夏峰R169线","pubTranName":"岭平公变,下姜村充电站公变,","scope":"浙江省-杭州市-淳安县-枫树岭镇-下姜行政村-下姜自然村","startTime":"2019-12-10 07:00:00","stopDate":"2019-12-10 09:00:00","orgNo":"3340190","typeCode":"计划停电","poweroffArea":"35kV大市变:夏峰R169线首端，夏峰R169线29号杆开关，夏峰R169线47号开关之间","poweroffReason":"下姜人家支线复位,夏峰R169线30号杆至33号杆复位220KV交跨","powerTime":"2019-12-10 08:41:19","powerComm":"已送电","subsNo":"","lineNo":"","tgNo":"","tgName":null,"infoStatus":"1","orgName":"国网浙江淳安县供电有限公司","typeName":null,"infoStatusName":null,"dateDay":null,"orgNos":null,"nowTime":null,"countyName":null,"streetName":null,"villageName":null,"roadName":null,"communityName":null,"tranName":null,"sdLineName":null,"cityCode":"3340190","cityName":"国网浙江淳安县供电有限公司","provinceCode":null,"stopTime":"2019-12-10 09:00:00","powerType":"全部","powerOffArea":"35kV大市变:夏峰R169线首端，夏峰R169线29号杆开关，夏峰R169线47号开关之间","powerOffReason":"下姜人家支线复位,夏峰R169线30号杆至33号杆复位220KV交跨","powerOffId":"2019112931020685"},{"poweroffId":2019112931020683,"sgpoweroffId":null,"subsName":"","lineName":"10kV春江T103线","pubTranName":"农金大厦1号公变,","scope":"浙江省-杭州市-桐庐县-桐君街道-南门社区(江滨四弄,开元街,桐君路,南门弄)","startTime":"2019-12-11 08:00:00","stopDate":"2019-12-11 11:00:00","orgNo":"3340150","typeCode":"计划停电","poweroffArea":"110kV桐庐变:春江T103线-农金大厦1号公变10kV跌落式熔断器后段","poweroffReason":"杭州桐庐桐君旧县村等台区配变及低压线路改造工程 原停电开始时间为2019-12-11 08:30:00,因客户要求原因,现变更停电开始时间为2019-12-11 08:00:00","powerTime":"2019-12-11 10:39:24","powerComm":"已送电","subsNo":"","lineNo":"","tgNo":"","tgName":null,"infoStatus":"1","orgName":"国网浙江桐庐县供电公司","typeName":null,"infoStatusName":null,"dateDay":null,"orgNos":null,"nowTime":null,"countyName":null,"streetName":null,"villageName":null,"roadName":null,"communityName":null,"tranName":null,"sdLineName":null,"cityCode":"3340150","cityName":"国网浙江桐庐县供电公司","provinceCode":null,"stopTime":"2019-12-11 11:00:00","powerType":"全部","powerOffArea":"110kV桐庐变:春江T103线-农金大厦1号公变10kV跌落式熔断器后段","powerOffReason":"杭州桐庐桐君旧县村等台区配变及低压线路改造工程 原停电开始时间为2019-12-11 08:30:00,因客户要求原因,现变更停电开始时间为2019-12-11 08:00:00","powerOffId":"2019112931020683"},{"poweroffId":2019112931020680,"sgpoweroffId":null,"subsName":"","lineName":"10kV春江T103线","pubTranName":"老人民医院1号公变,","scope":"浙江省-杭州市-桐庐县-桐君街道-南门社区(南门弄,江滨四弄,桐君路,保安三弄,迎春路,开元街,保安二弄)","startTime":"2019-12-11 08:00:00","stopDate":"2019-12-11 11:00:00","orgNo":"3340150","typeCode":"计划停电","poweroffArea":"110kV桐庐变:春江T103线-老人民医院1号公变10kV跌落式熔断器后段","poweroffReason":"杭州桐庐桐君旧县村等台区配变及低压线路改造工程","powerTime":"2019-12-11 10:42:36","powerComm":"已送电","subsNo":"","lineNo":"","tgNo":"","tgName":null,"infoStatus":"1","orgName":"国网浙江桐庐县供电公司","typeName":null,"infoStatusName":null,"dateDay":null,"orgNos":null,"nowTime":null,"countyName":null,"streetName":null,"villageName":null,"roadName":null,"communityName":null,"tranName":null,"sdLineName":null,"cityCode":"3340150","cityName":"国网浙江桐庐县供电公司","provinceCode":null,"stopTime":"2019-12-11 11:00:00","powerType":"全部","powerOffArea":"110kV桐庐变:春江T103线-老人民医院1号公变10kV跌落式熔断器后段","powerOffReason":"杭州桐庐桐君旧县村等台区配变及低压线路改造工程","powerOffId":"2019112931020680"},{"poweroffId":2019112931020679,"sgpoweroffId":null,"subsName":"","lineName":"10kV春江T103线","pubTranName":"新世纪1号公变,","scope":"浙江省-杭州市-桐庐县-桐君街道-南门社区-开元街","startTime":"2019-12-11 11:45:00","stopDate":"2019-12-11 15:00:00","orgNo":"3340150","typeCode":"计划停电","poweroffArea":"110kV桐庐变:春江T103线-新世纪1号公变10kV跌落式熔断器后段","poweroffReason":"杭州桐庐桐君旧县村等台区配变及低压线路改造工程 原停电开始时间为2019-12-11 12:00:00,因客户要求,现变更停电开始时间为2019-12-11 11:45:00","powerTime":"2019-12-11 14:33:54","powerComm":"已送电","subsNo":"","lineNo":"","tgNo":"","tgName":null,"infoStatus":"1","orgName":"国网浙江桐庐县供电公司","typeName":null,"infoStatusName":null,"dateDay":null,"orgNos":null,"nowTime":null,"countyName":null,"streetName":null,"villageName":null,"roadName":null,"communityName":null,"tranName":null,"sdLineName":null,"cityCode":"3340150","cityName":"国网浙江桐庐县供电公司","provinceCode":null,"stopTime":"2019-12-11 15:00:00","powerType":"全部","powerOffArea":"110kV桐庐变:春江T103线-新世纪1号公变10kV跌落式熔断器后段","powerOffReason":"杭州桐庐桐君旧县村等台区配变及低压线路改造工程 原停电开始时间为2019-12-11 12:00:00,因客户要求,现变更停电开始时间为2019-12-11 11:45:00","powerOffId":"2019112931020679"},{"poweroffId":2019112931020678,"sgpoweroffId":null,"subsName":"","lineName":"10kV春江T103线","pubTranName":"农金大厦2号公变,","scope":"浙江省-杭州市-桐庐县-桐君街道-南门社区(开元街,桐君路,南门弄)","startTime":"2019-12-11 08:00:00","stopDate":"2019-12-11 11:00:00","orgNo":"3340150","typeCode":"计划停电","poweroffArea":"110kV桐庐变:春江T103线-农金大厦2号公变10kV跌落式熔断器后段","poweroffReason":"杭州桐庐桐君旧县村等台区配变及低压线路改造工程 原停电开始时间为2019-12-11 08:30:00,因客户要求原因,现变更停电开始时间为2019-12-11 08:00:00","powerTime":"2019-12-11 10:38:52","powerComm":"已送电","subsNo":"","lineNo":"","tgNo":"","tgName":null,"infoStatus":"1","orgName":"国网浙江桐庐县供电公司","typeName":null,"infoStatusName":null,"dateDay":null,"orgNos":null,"nowTime":null,"countyName":null,"streetName":null,"villageName":null,"roadName":null,"communityName":null,"tranName":null,"sdLineName":null,"cityCode":"3340150","cityName":"国网浙江桐庐县供电公司","provinceCode":null,"stopTime":"2019-12-11 11:00:00","powerType":"全部","powerOffArea":"110kV桐庐变:春江T103线-农金大厦2号公变10kV跌落式熔断器后段","powerOffReason":"杭州桐庐桐君旧县村等台区配变及低压线路改造工程 原停电开始时间为2019-12-11 08:30:00,因客户要求原因,现变更停电开始时间为2019-12-11 08:00:00","powerOffId":"2019112931020678"},{"poweroffId":2019112931020677,"sgpoweroffId":null,"subsName":"","lineName":"10kV春江T103线","pubTranName":"桐君路2号公变,","scope":"浙江省-杭州市-桐庐县-桐君街道-迎春社区-桐君路,桐君街道-南门社区(安全弄,南门弄,桐君路,石明弄,太平路)","startTime":"2019-12-11 15:00:00","stopDate":"2019-12-11 17:00:00","orgNo":"3340150","typeCode":"计划停电","poweroffArea":"110kV桐庐变:春江T103线-桐君路2号公变10kV跌落式熔断器后段","poweroffReason":"杭州桐庐桐君旧县村等台区配变及低压线路改造工程","powerTime":"2019-12-11 16:32:43","powerComm":"已送电","subsNo":"","lineNo":"","tgNo":"","tgName":null,"infoStatus":"1","orgName":"国网浙江桐庐县供电公司","typeName":null,"infoStatusName":null,"dateDay":null,"orgNos":null,"nowTime":null,"countyName":null,"streetName":null,"villageName":null,"roadName":null,"communityName":null,"tranName":null,"sdLineName":null,"cityCode":"3340150","cityName":"国网浙江桐庐县供电公司","provinceCode":null,"stopTime":"2019-12-11 17:00:00","powerType":"全部","powerOffArea":"110kV桐庐变:春江T103线-桐君路2号公变10kV跌落式熔断器后段","powerOffReason":"杭州桐庐桐君旧县村等台区配变及低压线路改造工程","powerOffId":"2019112931020677"},{"poweroffId":2019112931020675,"sgpoweroffId":null,"subsName":"","lineName":"10kV天通T118线","pubTranName":"桐建公司1号公变,君政弄2号公变,君政弄1号公变,方金华专变(营业),桐庐丛鼎房地产开发有限公司,","scope":"浙江省-杭州市-桐庐县-桐君街道-南门社区-迎春路,桐君街道-东门社区(体育场路,学田路),桐君街道-迎春社区(学田路,迎春街,体育场路,迎春路,富春路,广场路,君政弄);浙江省-杭州市-桐庐县-桐君街道-迎春社区-方金华(营业)","startTime":"2019-12-12 06:30:00","stopDate":"2019-12-12 10:00:00","orgNo":"3340150","typeCode":"计划停电","poweroffArea":"110kV桐庐变:天通T118线-建行F9700线后段","poweroffReason":"桐君所消缺工作君政弄 原停电开始时间为2019-12-12 07:30:00,因客户要求，提前停电，,现变更停电开始时间为2019-12-12 06:30:00","powerTime":"2019-12-12 09:17:20","powerComm":"已送电","subsNo":"","lineNo":"","tgNo":"","tgName":null,"infoStatus":"1","orgName":"国网浙江桐庐县供电公司","typeName":null,"infoStatusName":null,"dateDay":null,"orgNos":null,"nowTime":null,"countyName":null,"streetName":null,"villageName":null,"roadName":null,"communityName":null,"tranName":null,"sdLineName":null,"cityCode":"3340150","cityName":"国网浙江桐庐县供电公司","provinceCode":null,"stopTime":"2019-12-12 10:00:00","powerType":"全部","powerOffArea":"110kV桐庐变:天通T118线-建行F9700线后段","powerOffReason":"桐君所消缺工作君政弄 原停电开始时间为2019-12-12 07:30:00,因客户要求，提前停电，,现变更停电开始时间为2019-12-12 06:30:00","powerOffId":"2019112931020675"},{"poweroffId":2019112931020674,"sgpoweroffId":null,"subsName":"","lineName":"10kV旧县T225线","pubTranName":"杭州初里酒店管理有限公司,洪儒村4号公变,洪儒村大山湾1号公变,","scope":"浙江省-杭州市-桐庐县-旧县街道-洪儒行政村(大山自然村,冷坑自然村);浙江省-杭州市-桐庐县-旧县街道-洪儒行政村-杭州初里酒店管理有限公司","startTime":"2019-12-13 08:30:00","stopDate":"2019-12-13 12:00:00","orgNo":"3340150","typeCode":"计划停电","poweroffArea":"35kV西武变:旧县T225线-大山F3296后段","poweroffReason":"桐君所消缺工作旧县大山湾","powerTime":"2019-12-13 11:41:29","powerComm":"已送电","subsNo":"","lineNo":"","tgNo":"","tgName":null,"infoStatus":"1","orgName":"国网浙江桐庐县供电公司","typeName":null,"infoStatusName":null,"dateDay":null,"orgNos":null,"nowTime":null,"countyName":null,"streetName":null,"villageName":null,"roadName":null,"communityName":null,"tranName":null,"sdLineName":null,"cityCode":"3340150","cityName":"国网浙江桐庐县供电公司","provinceCode":null,"stopTime":"2019-12-13 12:00:00","powerType":"全部","powerOffArea":"35kV西武变:旧县T225线-大山F3296后段","powerOffReason":"桐君所消缺工作旧县大山湾","powerOffId":"2019112931020674"}],"pageModel":{"pageNow":778,"totalCount":17789,"totalPage":1779,"tableRows":0,"pageCount":10,"beginCount":7770},"isExperi":"1"}