{"message":"","today":"2020-06-15","seleList":[{"poweroffId":2019112931020668,"sgpoweroffId":null,"subsName":"","lineName":"10kV金谷8004线","pubTranName":"武宿一变,武宿二变,","scope":"浙江省杭州市江干区北景东苑12幢、13幢、15幢附近一带。杭州市江干区北景东苑16幢、17幢附近一带。","startTime":"2019-12-10 09:30:00","stopDate":"2019-12-10 14:00:00","orgNo":"3340101","typeCode":"计划停电","poweroffArea":"110kV庆春变:金谷8004线-武宿二变一变进线后段","poweroffReason":"北景军宿站武宿二变一变进线电缆消缺 原停电结束时间为2019-12-10 17:30:00,为减少客户停电时间,加快工作进度,提前送电,现变更停电结束时间为2019-12-10 14:00:00","powerTime":"2019-12-10 13:35:59","powerComm":"已送电","subsNo":"","lineNo":"","tgNo":"","tgName":null,"infoStatus":"1","orgName":"浙江杭州电力客户服务中心","typeName":null,"infoStatusName":null,"dateDay":null,"orgNos":null,"nowTime":null,"countyName":null,"streetName":null,"villageName":null,"roadName":null,"communityName":null,"tranName":null,"sdLineName":null,"cityCode":"3340101","cityName":"浙江杭州电力客户服务中心","provinceCode":null,"stopTime":"2019-12-10 14:00:00","powerType":"全部","powerOffArea":"110kV庆春变:金谷8004线-武宿二变一变进线后段","powerOffReason":"北景军宿站武宿二变一变进线电缆消缺 原停电结束时间为2019-12-10 17:30:00,为减少客户停电时间,加快工作进度,提前送电,现变更停电结束时间为2019-12-10 14:00:00","powerOffId":"2019112931020668"},{"poweroffId":2019112931020665,"sgpoweroffId":null,"subsName":"","lineName":"10kV田宾8009线","pubTranName":"华景北苑四变,华景北苑三变,","scope":"浙江省杭州市江干区华景北苑小区附近一带。杭州市江干区华景北苑26幢1、2单元， 25幢1、2、3单元，22幢1、2、3单元，24幢1、2、3、4单元，20幢1、2、3单元附近一带。","startTime":"2019-12-06 09:30:00","stopDate":"2019-12-06 12:00:00","orgNo":"3340101","typeCode":"临时停电","poweroffArea":"110kV庆春变:田宾8009线-华北三线后段","poweroffReason":"华景北苑四变CT及二次接线整改。原停电结束时间为2019-12-06 17:30:00,为减少客户停电时间,加快工作进度,提前送电,现变更停电结束时间为2019-12-06 12:00:00","powerTime":"2019-12-06 11:11:07","powerComm":"已送电","subsNo":"","lineNo":"","tgNo":"","tgName":null,"infoStatus":"1","orgName":"浙江杭州电力客户服务中心","typeName":null,"infoStatusName":null,"dateDay":null,"orgNos":null,"nowTime":null,"countyName":null,"streetName":null,"villageName":null,"roadName":null,"communityName":null,"tranName":null,"sdLineName":null,"cityCode":"3340101","cityName":"浙江杭州电力客户服务中心","provinceCode":null,"stopTime":"2019-12-06 12:00:00","powerType":"全部","powerOffArea":"110kV庆春变:田宾8009线-华北三线后段","powerOffReason":"华景北苑四变CT及二次接线整改。原停电结束时间为2019-12-06 17:30:00,为减少客户停电时间,加快工作进度,提前送电,现变更停电结束时间为2019-12-06 12:00:00","powerOffId":"2019112931020665"},{"poweroffId":2019112931020663,"sgpoweroffId":null,"subsName":"","lineName":"10kV主场6722线","pubTranName":"绿城物业服务集团有限公司杭州第四分公司,1#,","scope":"浙江省杭州市西湖区黄体中心、港湖房产附近一带","startTime":"2019-12-06 09:30:00","stopDate":"2019-12-06 16:00:00","orgNo":"3340101","typeCode":"临时停电","poweroffArea":"110kV黄体变:主场6722线-港湖二线后段","poweroffReason":"绿园站13#间隔港湖二线，新设中田大厦二站11#间隔.原停电结束时间为2019-12-06 17:30:00,为减少客户停电时间,加快工作进度,提前送电,现变更停电结束时间为2019-12-06 16:00:00","powerTime":"2019-12-06 15:13:59","powerComm":"已送电","subsNo":"","lineNo":"","tgNo":"","tgName":null,"infoStatus":"1","orgName":"浙江杭州电力客户服务中心","typeName":null,"infoStatusName":null,"dateDay":null,"orgNos":null,"nowTime":null,"countyName":null,"streetName":null,"villageName":null,"roadName":null,"communityName":null,"tranName":null,"sdLineName":null,"cityCode":"3340101","cityName":"浙江杭州电力客户服务中心","provinceCode":null,"stopTime":"2019-12-06 16:00:00","powerType":"全部","powerOffArea":"110kV黄体变:主场6722线-港湖二线后段","powerOffReason":"绿园站13#间隔港湖二线，新设中田大厦二站11#间隔.原停电结束时间为2019-12-06 17:30:00,为减少客户停电时间,加快工作进度,提前送电,现变更停电结束时间为2019-12-06 16:00:00","powerOffId":"2019112931020663"},{"poweroffId":2019112931020661,"sgpoweroffId":null,"subsName":"","lineName":"10kV头营8141线","pubTranName":"嘉业海华一变,嘉业海华专变1#,","scope":"浙江省杭州市下城区宝善桥嘉业海华1幢附近一带。杭州市下城区嘉业海华大厦附近一带","startTime":"2019-12-04 09:30:00","stopDate":"2019-12-04 15:30:00","orgNo":"3340101","typeCode":"临时停电","poweroffArea":"220kV运河变:头营8141线-嘉海一线后段","poweroffReason":"地铁5号线宝善桥站二期10kV电力管线临时迁改工程CZ2019-07-045-YNQQ 。原停电结束时间为2019-12-04 17:30:00,为减少客户停电时间,加快工作进度,提前送电,现变更停电结束时间为2019-12-04 15:30:00","powerTime":"2019-12-04 14:38:59","powerComm":"已送电","subsNo":"","lineNo":"","tgNo":"","tgName":null,"infoStatus":"1","orgName":"浙江杭州电力客户服务中心","typeName":null,"infoStatusName":null,"dateDay":null,"orgNos":null,"nowTime":null,"countyName":null,"streetName":null,"villageName":null,"roadName":null,"communityName":null,"tranName":null,"sdLineName":null,"cityCode":"3340101","cityName":"浙江杭州电力客户服务中心","provinceCode":null,"stopTime":"2019-12-04 15:30:00","powerType":"全部","powerOffArea":"220kV运河变:头营8141线-嘉海一线后段","powerOffReason":"地铁5号线宝善桥站二期10kV电力管线临时迁改工程CZ2019-07-045-YNQQ 。原停电结束时间为2019-12-04 17:30:00,为减少客户停电时间,加快工作进度,提前送电,现变更停电结束时间为2019-12-04 15:30:00","powerOffId":"2019112931020661"},{"poweroffId":2019112931020655,"sgpoweroffId":null,"subsName":"","lineName":"10kV财殿8901线","pubTranName":"庆路,博物,庆宅,","scope":"浙江省杭州市西湖区天目山路古荡桥17号、18号、20号附近一带。杭州市西湖区天目山路庆路一带","startTime":"2019-12-03 10:40:00","stopDate":"2019-12-03 16:00:00","orgNo":"3340101","typeCode":"临时停电","poweroffArea":"110kV丰潭变:财殿8901线-庆宅支线后段","poweroffReason":"浙江省博物馆,天目山路提升改造，用户专变需要移位至馆内，新换一根进线电缆，专变名：博物。原停电结束时间为2019-12-03 17:30:00,为减少客户停电时间,加快工作进度,提前送电,现变更停电结束时间为2019-12-03 16:00:00","powerTime":"2019-12-03 15:30:51","powerComm":"已送电","subsNo":"","lineNo":"","tgNo":"","tgName":null,"infoStatus":"1","orgName":"浙江杭州电力客户服务中心","typeName":null,"infoStatusName":null,"dateDay":null,"orgNos":null,"nowTime":null,"countyName":null,"streetName":null,"villageName":null,"roadName":null,"communityName":null,"tranName":null,"sdLineName":null,"cityCode":"3340101","cityName":"浙江杭州电力客户服务中心","provinceCode":null,"stopTime":"2019-12-03 16:00:00","powerType":"全部","powerOffArea":"110kV丰潭变:财殿8901线-庆宅支线后段","powerOffReason":"浙江省博物馆,天目山路提升改造，用户专变需要移位至馆内，新换一根进线电缆，专变名：博物。原停电结束时间为2019-12-03 17:30:00,为减少客户停电时间,加快工作进度,提前送电,现变更停电结束时间为2019-12-03 16:00:00","powerOffId":"2019112931020655"},{"poweroffId":2019112931020654,"sgpoweroffId":null,"subsName":"","lineName":"10kV海云8130线","pubTranName":"泛洋房产专变双路内部一,","scope":"浙江省杭州市上城区宝善桥泛洋房产附近一带","startTime":"2019-12-02 09:30:00","stopDate":"2019-12-02 17:00:00","orgNo":"3340101","typeCode":"临时停电","poweroffArea":"220kV运河变:海云8130线-泛洋二线后段","poweroffReason":"地铁5号线宝善桥站二期10kV电力管线临时迁改工程（城源） 泛洋二线电缆迁改，原停电结束时间为2019-12-02 17:30:00,为减少客户停电时间,加快工作进度,提前送电,现变更停电结束时间为2019-12-02 17:00:00","powerTime":"2019-12-02 16:02:39","powerComm":"已送电","subsNo":"","lineNo":"","tgNo":"","tgName":null,"infoStatus":"1","orgName":"浙江杭州电力客户服务中心","typeName":null,"infoStatusName":null,"dateDay":null,"orgNos":null,"nowTime":null,"countyName":null,"streetName":null,"villageName":null,"roadName":null,"communityName":null,"tranName":null,"sdLineName":null,"cityCode":"3340101","cityName":"浙江杭州电力客户服务中心","provinceCode":null,"stopTime":"2019-12-02 17:00:00","powerType":"全部","powerOffArea":"220kV运河变:海云8130线-泛洋二线后段","powerOffReason":"地铁5号线宝善桥站二期10kV电力管线临时迁改工程（城源） 泛洋二线电缆迁改，原停电结束时间为2019-12-02 17:30:00,为减少客户停电时间,加快工作进度,提前送电,现变更停电结束时间为2019-12-02 17:00:00","powerOffId":"2019112931020654"},{"poweroffId":2019112931020640,"sgpoweroffId":null,"subsName":"","lineName":"10kV上官D265线","pubTranName":"剡溪村2#徐村老桥公变,","scope":"浙江省-杭州市-富阳区-上官乡-剡溪行政村-徐村自然村一带","startTime":"2019-12-15 08:00:00","stopDate":"2019-12-15 16:40:00","orgNo":"3340170","typeCode":"计划停电","poweroffArea":"35kV盛村变:上官D265线-剡溪村2号徐村老桥公变后段","poweroffReason":"(低压停电信息)剡溪村2#徐村老桥公变更换表箱、更换接户线等工作","powerTime":"2019-12-15 16:25:09","powerComm":"已送电","subsNo":"","lineNo":"","tgNo":"","tgName":null,"infoStatus":"1","orgName":"国网浙江杭州市富阳区供电公司","typeName":null,"infoStatusName":null,"dateDay":null,"orgNos":null,"nowTime":null,"countyName":null,"streetName":null,"villageName":null,"roadName":null,"communityName":null,"tranName":null,"sdLineName":null,"cityCode":"3340170","cityName":"国网浙江杭州市富阳区供电公司","provinceCode":null,"stopTime":"2019-12-15 16:40:00","powerType":"全部","powerOffArea":"35kV盛村变:上官D265线-剡溪村2号徐村老桥公变后段","powerOffReason":"(低压停电信息)剡溪村2#徐村老桥公变更换表箱、更换接户线等工作","powerOffId":"2019112931020640"},{"poweroffId":2019112931020637,"sgpoweroffId":null,"subsName":"","lineName":"10kV迎东D572线","pubTranName":"东山村1#新农村公变,","scope":"浙江省-杭州市-富阳区-富春街道-东山社区(东兴路,丰收路)","startTime":"2019-12-14 08:00:00","stopDate":"2019-12-14 16:50:00","orgNo":"3340170","typeCode":"计划停电","poweroffArea":"110kV春江变:迎东D572线-东山村1#新农村后段","poweroffReason":"(低压停电信息)青云2019年东山村4#桥头公变等低压台区改造工程更换落户线51处，搭接等工作","powerTime":"2019-12-14 16:20:08","powerComm":"已送电","subsNo":"","lineNo":"","tgNo":"","tgName":null,"infoStatus":"1","orgName":"国网浙江杭州市富阳区供电公司","typeName":null,"infoStatusName":null,"dateDay":null,"orgNos":null,"nowTime":null,"countyName":null,"streetName":null,"villageName":null,"roadName":null,"communityName":null,"tranName":null,"sdLineName":null,"cityCode":"3340170","cityName":"国网浙江杭州市富阳区供电公司","provinceCode":null,"stopTime":"2019-12-14 16:50:00","powerType":"全部","powerOffArea":"110kV春江变:迎东D572线-东山村1#新农村后段","powerOffReason":"(低压停电信息)青云2019年东山村4#桥头公变等低压台区改造工程更换落户线51处，搭接等工作","powerOffId":"2019112931020637"},{"poweroffId":2019112931020635,"sgpoweroffId":null,"subsName":"","lineName":"10kV上官D265线","pubTranName":"剡溪村8#徐村密坞公变,","scope":"浙江省-杭州市-富阳区-上官乡-剡溪行政村(密坞自然村,徐村自然村)一带","startTime":"2019-12-14 08:00:00","stopDate":"2019-12-14 16:40:00","orgNo":"3340170","typeCode":"计划停电","poweroffArea":"35kV盛村变:上官D265线-剡溪村8号徐村密坞公变后段","poweroffReason":"(低压停电信息)剡溪村8#徐村密坞公变更换表箱、更换接户线等工作","powerTime":"2019-12-14 16:19:55","powerComm":"已送电","subsNo":"","lineNo":"","tgNo":"","tgName":null,"infoStatus":"1","orgName":"国网浙江杭州市富阳区供电公司","typeName":null,"infoStatusName":null,"dateDay":null,"orgNos":null,"nowTime":null,"countyName":null,"streetName":null,"villageName":null,"roadName":null,"communityName":null,"tranName":null,"sdLineName":null,"cityCode":"3340170","cityName":"国网浙江杭州市富阳区供电公司","provinceCode":null,"stopTime":"2019-12-14 16:40:00","powerType":"全部","powerOffArea":"35kV盛村变:上官D265线-剡溪村8号徐村密坞公变后段","powerOffReason":"(低压停电信息)剡溪村8#徐村密坞公变更换表箱、更换接户线等工作","powerOffId":"2019112931020635"},{"poweroffId":2019112931020632,"sgpoweroffId":null,"subsName":"","lineName":"10kV联高D380线","pubTranName":"灵桥村灵桥18#灵礼路公变,","scope":"浙江省-杭州市-富阳区-灵桥镇-灵桥行政村-灵桥自然村-灵礼路一带","startTime":"2019-12-14 12:40:00","stopDate":"2019-12-14 15:30:00","orgNo":"3340170","typeCode":"计划停电","poweroffArea":"110kV永春变:联高D380线-灵桥村灵桥18号灵礼路低压开关后段","poweroffReason":"(低压停电信息)杭州富阳灵桥镇灵桥村整村搬迁电力迁改工程拆除旧导线17档，拆除出线电缆2路，新装拉线1组等工作。","powerTime":"2019-12-14 15:06:23","powerComm":"已送电","subsNo":"","lineNo":"","tgNo":"","tgName":null,"infoStatus":"1","orgName":"国网浙江杭州市富阳区供电公司","typeName":null,"infoStatusName":null,"dateDay":null,"orgNos":null,"nowTime":null,"countyName":null,"streetName":null,"villageName":null,"roadName":null,"communityName":null,"tranName":null,"sdLineName":null,"cityCode":"3340170","cityName":"国网浙江杭州市富阳区供电公司","provinceCode":null,"stopTime":"2019-12-14 15:30:00","powerType":"全部","powerOffArea":"110kV永春变:联高D380线-灵桥村灵桥18号灵礼路低压开关后段","powerOffReason":"(低压停电信息)杭州富阳灵桥镇灵桥村整村搬迁电力迁改工程拆除旧导线17档，拆除出线电缆2路，新装拉线1组等工作。","powerOffId":"2019112931020632"}],"pageModel":{"pageNow":779,"totalCount":17789,"totalPage":1779,"tableRows":0,"pageCount":10,"beginCount":7780},"isExperi":"1"}