{"message":"","today":"2020-06-15","seleList":[{"poweroffId":2019112931020629,"sgpoweroffId":null,"subsName":"","lineName":"10kV十月D225线","pubTranName":"沈家坞6#骆家岭公变,","scope":"浙江省-杭州市-富阳区-银湖街道-沈家坞行政村(骆家岭自然村,沈家坞自然村)","startTime":"2019-12-14 08:00:00","stopDate":"2019-12-14 13:30:00","orgNo":"3340170","typeCode":"计划停电","poweroffArea":"110kV银湖变:十月D225线-沈家坞6#骆家岭公变低压开关后段","poweroffReason":"(低压停电信息)迎东2019年峡岭村3#周家坛公变等配电线路及设备大修工程拆装导线2档，新装出线电缆1路，搭接等工作。","powerTime":"2019-12-14 13:00:55","powerComm":"已送电","subsNo":"","lineNo":"","tgNo":"","tgName":null,"infoStatus":"1","orgName":"国网浙江杭州市富阳区供电公司","typeName":null,"infoStatusName":null,"dateDay":null,"orgNos":null,"nowTime":null,"countyName":null,"streetName":null,"villageName":null,"roadName":null,"communityName":null,"tranName":null,"sdLineName":null,"cityCode":"3340170","cityName":"国网浙江杭州市富阳区供电公司","provinceCode":null,"stopTime":"2019-12-14 13:30:00","powerType":"全部","powerOffArea":"110kV银湖变:十月D225线-沈家坞6#骆家岭公变低压开关后段","powerOffReason":"(低压停电信息)迎东2019年峡岭村3#周家坛公变等配电线路及设备大修工程拆装导线2档，新装出线电缆1路，搭接等工作。","powerOffId":"2019112931020629"},{"poweroffId":2019112931020626,"sgpoweroffId":null,"subsName":"","lineName":"10kV联观D389线","pubTranName":"灵桥村灵桥20号村委公变,","scope":"浙江省-杭州市-富阳区-灵桥镇-灵桥行政村-灵桥自然村村委大楼一带","startTime":"2019-12-14 08:00:00","stopDate":"2019-12-14 11:30:00","orgNo":"3340170","typeCode":"计划停电","poweroffArea":"110kV永春变:联观D389线-灵桥村灵桥20号村委低压开关后段","poweroffReason":"(低压停电信息)杭州富阳灵桥镇灵桥村整村搬迁电力迁改工程拆除旧导线5档，等工作。","powerTime":"2019-12-14 11:04:18","powerComm":"已送电","subsNo":"","lineNo":"","tgNo":"","tgName":null,"infoStatus":"1","orgName":"国网浙江杭州市富阳区供电公司","typeName":null,"infoStatusName":null,"dateDay":null,"orgNos":null,"nowTime":null,"countyName":null,"streetName":null,"villageName":null,"roadName":null,"communityName":null,"tranName":null,"sdLineName":null,"cityCode":"3340170","cityName":"国网浙江杭州市富阳区供电公司","provinceCode":null,"stopTime":"2019-12-14 11:30:00","powerType":"全部","powerOffArea":"110kV永春变:联观D389线-灵桥村灵桥20号村委低压开关后段","powerOffReason":"(低压停电信息)杭州富阳灵桥镇灵桥村整村搬迁电力迁改工程拆除旧导线5档，等工作。","powerOffId":"2019112931020626"},{"poweroffId":2019112931020624,"sgpoweroffId":null,"subsName":"","lineName":"10kV东村D501线","pubTranName":"东风村2号下公变,","scope":"浙江省杭州市富阳区常安镇东风村一带","startTime":"2019-12-13 08:40:00","stopDate":"2019-12-13 16:30:00","orgNo":"3340170","typeCode":"计划停电","poweroffArea":"110kV常安变:东村D501线-东风村2号下公变低压开关后段","poweroffReason":"(低压停电信息)装横担、做拉线、架线、拆旧、接户线改接等工作","powerTime":"2019-12-13 16:20:11","powerComm":"已送电","subsNo":"","lineNo":"","tgNo":"","tgName":null,"infoStatus":"1","orgName":"国网浙江杭州市富阳区供电公司","typeName":null,"infoStatusName":null,"dateDay":null,"orgNos":null,"nowTime":null,"countyName":null,"streetName":null,"villageName":null,"roadName":null,"communityName":null,"tranName":null,"sdLineName":null,"cityCode":"3340170","cityName":"国网浙江杭州市富阳区供电公司","provinceCode":null,"stopTime":"2019-12-13 16:30:00","powerType":"全部","powerOffArea":"110kV常安变:东村D501线-东风村2号下公变低压开关后段","powerOffReason":"(低压停电信息)装横担、做拉线、架线、拆旧、接户线改接等工作","powerOffId":"2019112931020624"},{"poweroffId":2019112931020622,"sgpoweroffId":null,"subsName":"","lineName":"10kV金浦D818线","pubTranName":"中国电信股份有限公司富阳分公司2#变,","scope":"浙江省-杭州市-富阳区-富春街道-金桥社区-中国电信股份有限公司富阳分公司","startTime":"2019-12-14 08:30:00","stopDate":"2019-12-14 16:30:00","orgNo":"3340170","typeCode":"计划停电","poweroffArea":"110kV容大变:金浦D818线-中国电信股份有限公司富阳分公司后段","poweroffReason":"富阳区金桥北路市政综合管廊工程二期永久电力迁改工程:10kV电信支线电缆改接","powerTime":"2019-12-14 16:10:55","powerComm":"已送电","subsNo":"","lineNo":"","tgNo":"","tgName":null,"infoStatus":"1","orgName":"国网浙江杭州市富阳区供电公司","typeName":null,"infoStatusName":null,"dateDay":null,"orgNos":null,"nowTime":null,"countyName":null,"streetName":null,"villageName":null,"roadName":null,"communityName":null,"tranName":null,"sdLineName":null,"cityCode":"3340170","cityName":"国网浙江杭州市富阳区供电公司","provinceCode":null,"stopTime":"2019-12-14 16:30:00","powerType":"全部","powerOffArea":"110kV容大变:金浦D818线-中国电信股份有限公司富阳分公司后段","powerOffReason":"富阳区金桥北路市政综合管廊工程二期永久电力迁改工程:10kV电信支线电缆改接","powerOffId":"2019112931020622"},{"poweroffId":2019112931020621,"sgpoweroffId":null,"subsName":"","lineName":"10kV复贸D815线","pubTranName":"富阳东方茂投资管理有限公司2#,2#变,2#变,2#变,","scope":"浙江省-杭州市-富阳区-富春街道-金桥社区-富阳复润置业有限公司、东方茂开元名都大酒店","startTime":"2019-12-12 08:30:00","stopDate":"2019-12-12 17:50:00","orgNo":"3340170","typeCode":"计划停电","poweroffArea":"110kV容大变:复贸D815线-杭州富阳东方茂投资管理有限公司2#后段;复贸D815线-富阳东方茂投资管理有限公司2#后段;复贸D815线-杭州富阳东方茂投资管理有限公司2#后段;复贸D815线-杭州富阳东方茂投资管理有限公司2#后段;复贸D815线-杭州富阳东方茂投资管理有限公司2#后段;复贸D815线首端，富阳东方茂投资管理有限公司2#，杭州富阳东方茂投资管理有限公司2#，杭州富阳东方茂投资管理有限公司2#之间","poweroffReason":"富阳区金桥北路市政综合管廊工程二期永久电力迁改工程:10kV复贸D815线电缆改接 原停电结束时间为2019-12-12 17:00:00,因工作复杂原因,现变更停电结束时间为2019-12-12 17:50:00","powerTime":"2019-12-12 17:31:48","powerComm":"已送电","subsNo":"","lineNo":"","tgNo":"","tgName":null,"infoStatus":"1","orgName":"国网浙江杭州市富阳区供电公司","typeName":null,"infoStatusName":null,"dateDay":null,"orgNos":null,"nowTime":null,"countyName":null,"streetName":null,"villageName":null,"roadName":null,"communityName":null,"tranName":null,"sdLineName":null,"cityCode":"3340170","cityName":"国网浙江杭州市富阳区供电公司","provinceCode":null,"stopTime":"2019-12-12 17:50:00","powerType":"全部","powerOffArea":"110kV容大变:复贸D815线-杭州富阳东方茂投资管理有限公司2#后段;复贸D815线-富阳东方茂投资管理有限公司2#后段;复贸D815线-杭州富阳东方茂投资管理有限公司2#后段;复贸D815线-杭州富阳东方茂投资管理有限公司2#后段;复贸D815线-杭州富阳东方茂投资管理有限公司2#后段;复贸D815线首端，富阳东方茂投资管理有限公司2#，杭州富阳东方茂投资管理有限公司2#，杭州富阳东方茂投资管理有限公司2#之间","powerOffReason":"富阳区金桥北路市政综合管廊工程二期永久电力迁改工程:10kV复贸D815线电缆改接 原停电结束时间为2019-12-12 17:00:00,因工作复杂原因,现变更停电结束时间为2019-12-12 17:50:00","powerOffId":"2019112931020621"},{"poweroffId":2019112931020615,"sgpoweroffId":null,"subsName":"","lineName":"10kV枫岭H887线","pubTranName":"双联村里村公变,枫岭村李家坞2号公变,枫岭村李家坞公变,枫岭村岑山弄公变,枫岭村张坞公变,枫岭村大石块公变,","scope":"浙江省-杭州市-余杭区-中泰街道(枫岭行政村-枫岭自然村,岑岭行政村-岑岭自然村)","startTime":"2019-11-29 14:54:00","stopDate":"2019-11-29 16:40:00","orgNo":"3340140","typeCode":"电网故障停限电","poweroffArea":"110kV中泰变:枫岭H887线李家坞分线开关后段","poweroffReason":"高压开关跳闸","powerTime":"2019-11-29 15:59:00","powerComm":"已送电","subsNo":"","lineNo":"","tgNo":"","tgName":null,"infoStatus":"1","orgName":"国网浙江杭州市余杭区供电有限公司","typeName":null,"infoStatusName":null,"dateDay":null,"orgNos":null,"nowTime":null,"countyName":null,"streetName":null,"villageName":null,"roadName":null,"communityName":null,"tranName":null,"sdLineName":null,"cityCode":"3340140","cityName":"国网浙江杭州市余杭区供电有限公司","provinceCode":null,"stopTime":"2019-11-29 16:40:00","powerType":"全部","powerOffArea":"110kV中泰变:枫岭H887线李家坞分线开关后段","powerOffReason":"高压开关跳闸","powerOffId":"2019112931020615"},{"poweroffId":2019112931020611,"sgpoweroffId":null,"subsName":"","lineName":"10kV财富D801线","pubTranName":"中国电信股份有限公司富阳分公司4#变,中国电信股份有限公司富阳分公司3#变,中国电信股份有限公司富阳分公司1#变,","scope":"浙江省-杭州市-富阳区-富春街道-金桥社区-中国电信股份有限公司富阳分公司","startTime":"2019-12-12 08:45:00","stopDate":"2019-12-12 17:00:00","orgNo":"3340170","typeCode":"计划停电","poweroffArea":"110kV容大变:财富D801线-中国电信股份有限公司富阳分公司后段","poweroffReason":"富阳区金桥北路市政综合管廊工程二期永久电力迁改工程:10kV电信分线电缆改接 原停电结束时间为2019-12-12 16:00:00,因工作复杂原因,现变更停电结束时间为2019-12-12 17:00:00","powerTime":"2019-12-12 16:57:49","powerComm":"已送电","subsNo":"","lineNo":"","tgNo":"","tgName":null,"infoStatus":"1","orgName":"国网浙江杭州市富阳区供电公司","typeName":null,"infoStatusName":null,"dateDay":null,"orgNos":null,"nowTime":null,"countyName":null,"streetName":null,"villageName":null,"roadName":null,"communityName":null,"tranName":null,"sdLineName":null,"cityCode":"3340170","cityName":"国网浙江杭州市富阳区供电公司","provinceCode":null,"stopTime":"2019-12-12 17:00:00","powerType":"全部","powerOffArea":"110kV容大变:财富D801线-中国电信股份有限公司富阳分公司后段","powerOffReason":"富阳区金桥北路市政综合管廊工程二期永久电力迁改工程:10kV电信分线电缆改接 原停电结束时间为2019-12-12 16:00:00,因工作复杂原因,现变更停电结束时间为2019-12-12 17:00:00","powerOffId":"2019112931020611"},{"poweroffId":2019112931020607,"sgpoweroffId":null,"subsName":"","lineName":"10kV巨利D557线","pubTranName":"新兴铸管(浙江)铜业有限公司,","scope":"浙江省-杭州市-富阳区-富春街道-城东社区-新兴铸管(浙江)铜业有限公司","startTime":"2019-12-12 08:45:00","stopDate":"2019-12-12 16:00:00","orgNo":"3340170","typeCode":"计划停电","poweroffArea":"110kV春江变:巨利D557线-新兴铸管(浙江)铜业有限公司后段;巨利D557线-新兴路2号公变后段","poweroffReason":"文居街道路拓宽迁改工程：10kV巨利D557线后拔一号开关站4#间隔金鼎线电缆敷设、制作、试验、搭接等工作","powerTime":"2019-12-12 15:21:46","powerComm":"已送电","subsNo":"","lineNo":"","tgNo":"","tgName":null,"infoStatus":"1","orgName":"国网浙江杭州市富阳区供电公司","typeName":null,"infoStatusName":null,"dateDay":null,"orgNos":null,"nowTime":null,"countyName":null,"streetName":null,"villageName":null,"roadName":null,"communityName":null,"tranName":null,"sdLineName":null,"cityCode":"3340170","cityName":"国网浙江杭州市富阳区供电公司","provinceCode":null,"stopTime":"2019-12-12 16:00:00","powerType":"全部","powerOffArea":"110kV春江变:巨利D557线-新兴铸管(浙江)铜业有限公司后段;巨利D557线-新兴路2号公变后段","powerOffReason":"文居街道路拓宽迁改工程：10kV巨利D557线后拔一号开关站4#间隔金鼎线电缆敷设、制作、试验、搭接等工作","powerOffId":"2019112931020607"},{"poweroffId":2019112931020606,"sgpoweroffId":null,"subsName":"","lineName":"10kV大桥D192线","pubTranName":"杭州富阳江南新城物业管理有限公司1#变,","scope":"浙江省-杭州市-富阳区-大源镇-杭州富春湾新城资产运营管理有限公司一带","startTime":"2019-12-12 08:00:00","stopDate":"2019-12-12 15:30:00","orgNo":"3340170","typeCode":"计划停电","poweroffArea":"110kV大源变:大桥D192线-杭州富阳江南新城物业管理有限公司开关后段","poweroffReason":"春江幼儿园电力迁改工程：建设下埠支线14#杆—18#杆导线移位，拆除旧导线4档，拆除旧杆3支，线路拆、搭头等工作。","powerTime":"2019-12-12 15:19:41","powerComm":"已送电","subsNo":"","lineNo":"","tgNo":"","tgName":null,"infoStatus":"1","orgName":"国网浙江杭州市富阳区供电公司","typeName":null,"infoStatusName":null,"dateDay":null,"orgNos":null,"nowTime":null,"countyName":null,"streetName":null,"villageName":null,"roadName":null,"communityName":null,"tranName":null,"sdLineName":null,"cityCode":"3340170","cityName":"国网浙江杭州市富阳区供电公司","provinceCode":null,"stopTime":"2019-12-12 15:30:00","powerType":"全部","powerOffArea":"110kV大源变:大桥D192线-杭州富阳江南新城物业管理有限公司开关后段","powerOffReason":"春江幼儿园电力迁改工程：建设下埠支线14#杆—18#杆导线移位，拆除旧导线4档，拆除旧杆3支，线路拆、搭头等工作。","powerOffId":"2019112931020606"},{"poweroffId":2019112931020605,"sgpoweroffId":null,"subsName":"","lineName":"10kV锦中V641线","pubTranName":"临安市国联置业有限公司1,临安市国联置业有限公司1,临安市青少年活动中心2#,尚城国际1#公变,临安兴盛置业有限公司,","scope":"浙江省-杭州市-临安市-锦城街道-锦潭社区-临安市国联置业有限公司、临安市青少年活动中心、临安兴盛置业有限公司、尚城国际一带。","startTime":"2019-12-11 08:30:00","stopDate":"2019-12-11 16:30:00","orgNo":"3340160","typeCode":"计划停电","poweroffArea":"110kV锦城变:锦中V641线青草站尚城西瓜支线开关改检修 锦中V641线青草站临安市青少年活动中心2#电缆开关改检修 锦中V641线青草站临安地上物业管理有限公司电缆开关改检修。","poweroffReason":"杭州市临安区交通物业开发管理有限公司广场项目周边电力线迁改工程（南面）含土建工程： 锦中V641线青草站尚城西瓜支线电缆移位，中间接头制作、电缆头制作、试验、搭头。 锦中V641线青草站临安市青少年活动中心2#电缆电缆移位","powerTime":"2019-12-11 16:20:14","powerComm":"已送电","subsNo":"","lineNo":"","tgNo":"","tgName":null,"infoStatus":"1","orgName":"国网浙江临安市供电公司","typeName":null,"infoStatusName":null,"dateDay":null,"orgNos":null,"nowTime":null,"countyName":null,"streetName":null,"villageName":null,"roadName":null,"communityName":null,"tranName":null,"sdLineName":null,"cityCode":"3340160","cityName":"国网浙江临安市供电公司","provinceCode":null,"stopTime":"2019-12-11 16:30:00","powerType":"全部","powerOffArea":"110kV锦城变:锦中V641线青草站尚城西瓜支线开关改检修 锦中V641线青草站临安市青少年活动中心2#电缆开关改检修 锦中V641线青草站临安地上物业管理有限公司电缆开关改检修。","powerOffReason":"杭州市临安区交通物业开发管理有限公司广场项目周边电力线迁改工程（南面）含土建工程： 锦中V641线青草站尚城西瓜支线电缆移位，中间接头制作、电缆头制作、试验、搭头。 锦中V641线青草站临安市青少年活动中心2#电缆电缆移位","powerOffId":"2019112931020605"}],"pageModel":{"pageNow":780,"totalCount":17789,"totalPage":1779,"tableRows":0,"pageCount":10,"beginCount":7790},"isExperi":"1"}