{"message":"","today":"2020-06-15","seleList":[{"poweroffId":2019112931020603,"sgpoweroffId":null,"subsName":"","lineName":"10kV马溪V102线","pubTranName":"碧桂苑二区3＃,碧桂苑二区2＃,","scope":"浙江省-杭州市-临安市-锦北街道-马溪社区-碧桂苑二区一带。","startTime":"2019-12-10 08:45:00","stopDate":"2019-12-10 16:00:00","orgNo":"3340160","typeCode":"计划停电","poweroffArea":"110kV临安变:停马溪V102线碧桂苑二期[开闭所]G2柜碧桂苑小区二期[2#.3#公变]出线开关以后","poweroffReason":"马溪V102线碧桂苑小区二期[2#.3#公变]由美变调换630KVA欧变和低压出线电缆拆搭工作","powerTime":"2019-12-10 15:50:09","powerComm":"已送电","subsNo":"","lineNo":"","tgNo":"","tgName":null,"infoStatus":"1","orgName":"国网浙江临安市供电公司","typeName":null,"infoStatusName":null,"dateDay":null,"orgNos":null,"nowTime":null,"countyName":null,"streetName":null,"villageName":null,"roadName":null,"communityName":null,"tranName":null,"sdLineName":null,"cityCode":"3340160","cityName":"国网浙江临安市供电公司","provinceCode":null,"stopTime":"2019-12-10 16:00:00","powerType":"全部","powerOffArea":"110kV临安变:停马溪V102线碧桂苑二期[开闭所]G2柜碧桂苑小区二期[2#.3#公变]出线开关以后","powerOffReason":"马溪V102线碧桂苑小区二期[2#.3#公变]由美变调换630KVA欧变和低压出线电缆拆搭工作","powerOffId":"2019112931020603"},{"poweroffId":2019112931020602,"sgpoweroffId":null,"subsName":"","lineName":"10kV马溪V102线","pubTranName":"碧桂苑一区6#公变,","scope":"浙江省-杭州市-临安市-锦北街道-马溪社区-碧桂苑一区一带。","startTime":"2019-12-10 08:25:00","stopDate":"2019-12-10 15:00:00","orgNo":"3340160","typeCode":"计划停电","poweroffArea":"110kV临安变:停马溪V102线碧桂苑一区分线4#公变环网柜碧桂苑小区一期6#公变支线开关以后","poweroffReason":"马溪V102线碧桂苑一区分线[6#公变]由美变调换630KVA欧变和低压出线电缆拆搭工作","powerTime":"2019-12-10 14:50:17","powerComm":"已送电","subsNo":"","lineNo":"","tgNo":"","tgName":null,"infoStatus":"1","orgName":"国网浙江临安市供电公司","typeName":null,"infoStatusName":null,"dateDay":null,"orgNos":null,"nowTime":null,"countyName":null,"streetName":null,"villageName":null,"roadName":null,"communityName":null,"tranName":null,"sdLineName":null,"cityCode":"3340160","cityName":"国网浙江临安市供电公司","provinceCode":null,"stopTime":"2019-12-10 15:00:00","powerType":"全部","powerOffArea":"110kV临安变:停马溪V102线碧桂苑一区分线4#公变环网柜碧桂苑小区一期6#公变支线开关以后","powerOffReason":"马溪V102线碧桂苑一区分线[6#公变]由美变调换630KVA欧变和低压出线电缆拆搭工作","powerOffId":"2019112931020602"},{"poweroffId":2019112931020599,"sgpoweroffId":null,"subsName":"","lineName":"10kV陶春H558线","pubTranName":"求是村农居点公变,","scope":"浙江省-杭州市-余杭区-径山镇-径山行政村-径山自然村,径山镇-求是行政村(求是农居点一带)","startTime":"2019-12-11 08:00:00","stopDate":"2019-12-11 12:30:00","orgNo":"3340140","typeCode":"计划停电","poweroffArea":"110kV潘板变:陶春H558线-求是村农居点公变后段","poweroffReason":"(低压停电信息)低压工作计划 原停电结束时间为2019-12-11 16:30:00,为减少客户停电时间,加快工作进度,提前送电,现变更停电结束时间为2019-12-11 12:30:00","powerTime":"2019-12-11 12:25:32","powerComm":"已送电","subsNo":"","lineNo":"","tgNo":"","tgName":null,"infoStatus":"1","orgName":"国网浙江杭州市余杭区供电有限公司","typeName":null,"infoStatusName":null,"dateDay":null,"orgNos":null,"nowTime":null,"countyName":null,"streetName":null,"villageName":null,"roadName":null,"communityName":null,"tranName":null,"sdLineName":null,"cityCode":"3340140","cityName":"国网浙江杭州市余杭区供电有限公司","provinceCode":null,"stopTime":"2019-12-11 12:30:00","powerType":"全部","powerOffArea":"110kV潘板变:陶春H558线-求是村农居点公变后段","powerOffReason":"(低压停电信息)低压工作计划 原停电结束时间为2019-12-11 16:30:00,为减少客户停电时间,加快工作进度,提前送电,现变更停电结束时间为2019-12-11 12:30:00","powerOffId":"2019112931020599"},{"poweroffId":2019112931020589,"sgpoweroffId":null,"subsName":"","lineName":"10kV枫岭H887线","pubTranName":"枫岭村李家坞2号公变,枫岭村张坞公变,双联村里村公变,枫岭村李家坞公变,枫岭村大石块公变,","scope":"浙江省-杭州市-余杭区-中泰街道(枫岭行政村-枫岭自然村,岑岭行政村-岑岭自然村)","startTime":"2019-11-29 15:04:00","stopDate":"2019-11-29 16:20:00","orgNo":"3340140","typeCode":"电网故障停限电","poweroffArea":"110kV中泰变:枫岭H887线首端，李家坞分线开关，岑山弄分线开关之间","poweroffReason":"高压开关跳闸","powerTime":"2019-11-29 16:00:00","powerComm":"已送电","subsNo":"","lineNo":"","tgNo":"","tgName":null,"infoStatus":"1","orgName":"国网浙江杭州市余杭区供电有限公司","typeName":null,"infoStatusName":null,"dateDay":null,"orgNos":null,"nowTime":null,"countyName":null,"streetName":null,"villageName":null,"roadName":null,"communityName":null,"tranName":null,"sdLineName":null,"cityCode":"3340140","cityName":"国网浙江杭州市余杭区供电有限公司","provinceCode":null,"stopTime":"2019-11-29 16:20:00","powerType":"全部","powerOffArea":"110kV中泰变:枫岭H887线首端，李家坞分线开关，岑山弄分线开关之间","powerOffReason":"高压开关跳闸","powerOffId":"2019112931020589"},{"poweroffId":2019112931020587,"sgpoweroffId":null,"subsName":"","lineName":"10kV郎碧V594线","pubTranName":"杭州锦源装饰材料有限公司1#,杭州锦源装饰材料有限公司2#,","scope":"浙江省杭州市临安区锦城街道横街行政村杭州锦源装饰材料有限公司一带","startTime":"2019-12-10 08:30:00","stopDate":"2019-12-10 17:00:00","orgNo":"3340160","typeCode":"计划停电","poweroffArea":"110kV杨岭变:郎碧V594线-临安锦源装饰材料公司支线2#开关后段","poweroffReason":"用户接入","powerTime":"2019-12-10 16:50:14","powerComm":"已送电","subsNo":"","lineNo":"","tgNo":"","tgName":null,"infoStatus":"1","orgName":"国网浙江临安市供电公司","typeName":null,"infoStatusName":null,"dateDay":null,"orgNos":null,"nowTime":null,"countyName":null,"streetName":null,"villageName":null,"roadName":null,"communityName":null,"tranName":null,"sdLineName":null,"cityCode":"3340160","cityName":"国网浙江临安市供电公司","provinceCode":null,"stopTime":"2019-12-10 17:00:00","powerType":"全部","powerOffArea":"110kV杨岭变:郎碧V594线-临安锦源装饰材料公司支线2#开关后段","powerOffReason":"用户接入","powerOffId":"2019112931020587"},{"poweroffId":2019112931020585,"sgpoweroffId":null,"subsName":"","lineName":"10kV里畈V580线","pubTranName":"白沙村[市岭],","scope":"浙江省杭州市临安区太湖源镇白沙行政村白沙自然村市岭一带","startTime":"2019-12-09 08:30:00","stopDate":"2019-12-09 15:00:00","orgNo":"3340160","typeCode":"计划停电","poweroffArea":"110kV杨岭变:里畈V580线-白沙村[市岭]后段","poweroffReason":"线路改造","powerTime":"2019-12-09 14:50:13","powerComm":"已送电","subsNo":"","lineNo":"","tgNo":"","tgName":null,"infoStatus":"1","orgName":"国网浙江临安市供电公司","typeName":null,"infoStatusName":null,"dateDay":null,"orgNos":null,"nowTime":null,"countyName":null,"streetName":null,"villageName":null,"roadName":null,"communityName":null,"tranName":null,"sdLineName":null,"cityCode":"3340160","cityName":"国网浙江临安市供电公司","provinceCode":null,"stopTime":"2019-12-09 15:00:00","powerType":"全部","powerOffArea":"110kV杨岭变:里畈V580线-白沙村[市岭]后段","powerOffReason":"线路改造","powerOffId":"2019112931020585"},{"poweroffId":2019112931020584,"sgpoweroffId":null,"subsName":"","lineName":"10kV上坊R165线","pubTranName":"半坞坑公变,","scope":"浙江省-杭州市-淳安县-大墅镇-老岭行政村-半坞坑自然村","startTime":"2019-11-30 08:30:00","stopDate":"2019-11-30 13:00:00","orgNo":"3340190","typeCode":"临时停电","poweroffArea":"35kV大市变:上坊R165线-半坞坑公变跌落式熔断器后段","poweroffReason":"上坊R165线230号杆引流线搭接,半坞坑支线0号杆引流线断接加装熔丝具 原停电结束时间为2019-11-30 12:30:00,因XXX原因,现变更停电结束时间为2019-11-30 13:00:00","powerTime":"2019-11-30 12:42:47","powerComm":"已送电","subsNo":"","lineNo":"","tgNo":"","tgName":null,"infoStatus":"1","orgName":"国网浙江淳安县供电有限公司","typeName":null,"infoStatusName":null,"dateDay":null,"orgNos":null,"nowTime":null,"countyName":null,"streetName":null,"villageName":null,"roadName":null,"communityName":null,"tranName":null,"sdLineName":null,"cityCode":"3340190","cityName":"国网浙江淳安县供电有限公司","provinceCode":null,"stopTime":"2019-11-30 13:00:00","powerType":"全部","powerOffArea":"35kV大市变:上坊R165线-半坞坑公变跌落式熔断器后段","powerOffReason":"上坊R165线230号杆引流线搭接,半坞坑支线0号杆引流线断接加装熔丝具 原停电结束时间为2019-11-30 12:30:00,因XXX原因,现变更停电结束时间为2019-11-30 13:00:00","powerOffId":"2019112931020584"},{"poweroffId":2019112931020579,"sgpoweroffId":null,"subsName":"","lineName":"10kV灯塔8404线","pubTranName":"长德1#,","scope":"浙江省杭州市下城区长德公寓小区","startTime":"2019-12-11 09:00:00","stopDate":"2019-12-11 13:00:00","orgNo":"3340101","typeCode":"计划停电","poweroffArea":"110kV长木变:灯塔8404线-灵寓四站长德分线，德弄站11#间隔","poweroffReason":"10kV灵寓四线等线路迁改工程（丰安）长德1#、长德2#改接至新设德弄站II段 原停电结束时间为2019-12-11 12:30:00,因工程量大原因,现变更停电结束时间为2019-12-11 13:00:00","powerTime":"2019-12-11 12:02:25","powerComm":"已送电","subsNo":"","lineNo":"","tgNo":"","tgName":null,"infoStatus":"1","orgName":"浙江杭州电力客户服务中心","typeName":null,"infoStatusName":null,"dateDay":null,"orgNos":null,"nowTime":null,"countyName":null,"streetName":null,"villageName":null,"roadName":null,"communityName":null,"tranName":null,"sdLineName":null,"cityCode":"3340101","cityName":"浙江杭州电力客户服务中心","provinceCode":null,"stopTime":"2019-12-11 13:00:00","powerType":"全部","powerOffArea":"110kV长木变:灯塔8404线-灵寓四站长德分线，德弄站11#间隔","powerOffReason":"10kV灵寓四线等线路迁改工程（丰安）长德1#、长德2#改接至新设德弄站II段 原停电结束时间为2019-12-11 12:30:00,因工程量大原因,现变更停电结束时间为2019-12-11 13:00:00","powerOffId":"2019112931020579"},{"poweroffId":2019112931020577,"sgpoweroffId":null,"subsName":"","lineName":"10kV新联C039线","pubTranName":"临浦镇政府-快速通道-新港路灯,","scope":"浙江省-杭州市-萧山区-临浦镇-新港行政村-杭州市萧山区临浦镇人民政府","startTime":"2019-12-11 08:30:00","stopDate":"2019-12-11 19:00:00","orgNo":"3340130","typeCode":"计划停电","poweroffArea":"35kV浦南临时变:新联C039线-公路管理处（新港村）跌落式熔断器后段","poweroffReason":"新联C039线44/06#杆开耐张与临浦变的新出线路搭头，临浦人民政府路灯路令克落火线调整 原停电结束时间为2019-12-11 20:30:00,为减少客户停电时间,加快工作进度,提前送电,现变更停电结束时间为2019-12-11 19:00:00","powerTime":"2019-12-11 18:28:24","powerComm":"已送电","subsNo":"","lineNo":"","tgNo":"","tgName":null,"infoStatus":"1","orgName":"国网浙江杭州市萧山区供电有限公司","typeName":null,"infoStatusName":null,"dateDay":null,"orgNos":null,"nowTime":null,"countyName":null,"streetName":null,"villageName":null,"roadName":null,"communityName":null,"tranName":null,"sdLineName":null,"cityCode":"3340130","cityName":"国网浙江杭州市萧山区供电有限公司","provinceCode":null,"stopTime":"2019-12-11 19:00:00","powerType":"全部","powerOffArea":"35kV浦南临时变:新联C039线-公路管理处（新港村）跌落式熔断器后段","powerOffReason":"新联C039线44/06#杆开耐张与临浦变的新出线路搭头，临浦人民政府路灯路令克落火线调整 原停电结束时间为2019-12-11 20:30:00,为减少客户停电时间,加快工作进度,提前送电,现变更停电结束时间为2019-12-11 19:00:00","powerOffId":"2019112931020577"},{"poweroffId":2019112931020575,"sgpoweroffId":null,"subsName":"","lineName":"10kV临一C640线","pubTranName":"柏山陈7#变,","scope":"浙江省-杭州市-萧山区-临浦镇-柏山陈社区-柏山陈自然村","startTime":"2019-12-09 08:30:00","stopDate":"2019-12-09 15:30:00","orgNo":"3340130","typeCode":"计划停电","poweroffArea":"110kV临浦变:临一C640线-柏山陈7#变后段","poweroffReason":"临一C640线临一开13/A05柏山陈7#变下250上400kVA，低压线路改接等工作","powerTime":"2019-12-09 14:41:04","powerComm":"已送电","subsNo":"","lineNo":"","tgNo":"","tgName":null,"infoStatus":"1","orgName":"国网浙江杭州市萧山区供电有限公司","typeName":null,"infoStatusName":null,"dateDay":null,"orgNos":null,"nowTime":null,"countyName":null,"streetName":null,"villageName":null,"roadName":null,"communityName":null,"tranName":null,"sdLineName":null,"cityCode":"3340130","cityName":"国网浙江杭州市萧山区供电有限公司","provinceCode":null,"stopTime":"2019-12-09 15:30:00","powerType":"全部","powerOffArea":"110kV临浦变:临一C640线-柏山陈7#变后段","powerOffReason":"临一C640线临一开13/A05柏山陈7#变下250上400kVA，低压线路改接等工作","powerOffId":"2019112931020575"}],"pageModel":{"pageNow":781,"totalCount":17789,"totalPage":1779,"tableRows":0,"pageCount":10,"beginCount":7800},"isExperi":"1"}