{"message":"","today":"2020-06-15","seleList":[{"poweroffId":2019112931020521,"sgpoweroffId":null,"subsName":"","lineName":"10kV百亩V184线","pubTranName":"10kV太源村[班竹坞村里]公变,10kV太源村[班竹坞村外]公变,10kV太源村[班竹坞茶叶坪]公变,","scope":"浙江省-杭州市-临安市-太阳镇-班竹坞村外、班竹坞村里、班竹坞茶叶坪一带","startTime":"2019-12-12 08:10:00","stopDate":"2019-12-12 16:50:00","orgNo":"3340160","typeCode":"计划停电","poweroffArea":"百亩V184线班竹坞分线53#杆后段","poweroffReason":"临安於潜10千伏百亩V252线改造：百亩V184线百亩V184线班竹坞分线90#-119#杆调导线","powerTime":"2019-12-12 16:20:31","powerComm":"已送电","subsNo":"","lineNo":"","tgNo":"","tgName":null,"infoStatus":"1","orgName":"国网浙江临安市供电公司","typeName":null,"infoStatusName":null,"dateDay":null,"orgNos":null,"nowTime":null,"countyName":null,"streetName":null,"villageName":null,"roadName":null,"communityName":null,"tranName":null,"sdLineName":null,"cityCode":"3340160","cityName":"国网浙江临安市供电公司","provinceCode":null,"stopTime":"2019-12-12 16:50:00","powerType":"全部","powerOffArea":"百亩V184线班竹坞分线53#杆后段","powerOffReason":"临安於潜10千伏百亩V252线改造：百亩V184线百亩V184线班竹坞分线90#-119#杆调导线","powerOffId":"2019112931020521"},{"poweroffId":2019112931020518,"sgpoweroffId":null,"subsName":"","lineName":"10kV罗山T377线","pubTranName":"乐明前山1号公变,","scope":"浙江省-杭州市-桐庐县-百江镇-乐明行政村(中塘坞自然村,前山自然村)","startTime":"2019-12-10 09:00:00","stopDate":"2019-12-10 15:00:00","orgNo":"3340150","typeCode":"计划停电","poweroffArea":"110kV百江变:罗山T377线-乐明前山1号公变后段","poweroffReason":"乐明前山1号公变配变增容工作","powerTime":"2019-12-10 14:51:11","powerComm":"已送电","subsNo":"","lineNo":"","tgNo":"","tgName":null,"infoStatus":"1","orgName":"国网浙江桐庐县供电公司","typeName":null,"infoStatusName":null,"dateDay":null,"orgNos":null,"nowTime":null,"countyName":null,"streetName":null,"villageName":null,"roadName":null,"communityName":null,"tranName":null,"sdLineName":null,"cityCode":"3340150","cityName":"国网浙江桐庐县供电公司","provinceCode":null,"stopTime":"2019-12-10 15:00:00","powerType":"全部","powerOffArea":"110kV百江变:罗山T377线-乐明前山1号公变后段","powerOffReason":"乐明前山1号公变配变增容工作","powerOffId":"2019112931020518"},{"poweroffId":2019112931020516,"sgpoweroffId":null,"subsName":"","lineName":"10kV北门V507线","pubTranName":"10kV民幸村[供电所老宿舍]公变,","scope":"浙江省-杭州市-临安市-於潜镇-供电所老宿舍一带","startTime":"2019-12-11 09:00:00","stopDate":"2019-12-11 15:10:00","orgNo":"3340160","typeCode":"计划停电","poweroffArea":"农於5072线30#杆10KV民幸村（供电所老宿舍）公变低压","poweroffReason":"配合农於5072线27#杆装分段开关","powerTime":"2019-12-11 15:00:08","powerComm":"已送电","subsNo":"","lineNo":"","tgNo":"","tgName":null,"infoStatus":"1","orgName":"国网浙江临安市供电公司","typeName":null,"infoStatusName":null,"dateDay":null,"orgNos":null,"nowTime":null,"countyName":null,"streetName":null,"villageName":null,"roadName":null,"communityName":null,"tranName":null,"sdLineName":null,"cityCode":"3340160","cityName":"国网浙江临安市供电公司","provinceCode":null,"stopTime":"2019-12-11 15:10:00","powerType":"全部","powerOffArea":"农於5072线30#杆10KV民幸村（供电所老宿舍）公变低压","powerOffReason":"配合农於5072线27#杆装分段开关","powerOffId":"2019112931020516"},{"poweroffId":2019112931020515,"sgpoweroffId":null,"subsName":"","lineName":"10kV太阳V124线","pubTranName":"10kV铜山村[铜山村]公变,杭州临安金顺管业有限公司,","scope":"浙江省-杭州市-临安市-於潜镇-铜山村、杭州临安金顺管业有限公司一带","startTime":"2019-12-11 08:10:00","stopDate":"2019-12-11 11:50:00","orgNo":"3340160","typeCode":"计划停电","poweroffArea":"太阳V124线下铜山分线更楼支线2#杆中铜山分支线","poweroffReason":"太阳V124线下铜山分线更楼支线中铜山分支线配合太阳变新宜中线、扶善线120-130#杆架","powerTime":"2019-12-11 11:40:17","powerComm":"已送电","subsNo":"","lineNo":"","tgNo":"","tgName":null,"infoStatus":"1","orgName":"国网浙江临安市供电公司","typeName":null,"infoStatusName":null,"dateDay":null,"orgNos":null,"nowTime":null,"countyName":null,"streetName":null,"villageName":null,"roadName":null,"communityName":null,"tranName":null,"sdLineName":null,"cityCode":"3340160","cityName":"国网浙江临安市供电公司","provinceCode":null,"stopTime":"2019-12-11 11:50:00","powerType":"全部","powerOffArea":"太阳V124线下铜山分线更楼支线2#杆中铜山分支线","powerOffReason":"太阳V124线下铜山分线更楼支线中铜山分支线配合太阳变新宜中线、扶善线120-130#杆架","powerOffId":"2019112931020515"},{"poweroffId":2019112931020514,"sgpoweroffId":null,"subsName":"","lineName":"10kV绍鲁V502线","pubTranName":"杭州迪佳纺织有限公司,10kV光明村[畔山村上畔]公变,","scope":"浙江省-杭州市-临安市-於潜镇-畔山村上畔、杭州迪佳纺织有限公司一带","startTime":"2019-12-10 08:10:00","stopDate":"2019-12-10 15:20:00","orgNo":"3340160","typeCode":"计划停电","poweroffArea":"绍鲁V502线康坞分线6#杆上畔支线","poweroffReason":"杭州临安於潜0.4千伏光明村低压线路改造：绍鲁V502线康坞分线上畔支线2#杆调杆、10KV光明村（畔山村上畔）公变变压器拆装、JP柜调换，低压出线电缆、导线、落户线调换","powerTime":"2019-12-10 15:10:10","powerComm":"已送电","subsNo":"","lineNo":"","tgNo":"","tgName":null,"infoStatus":"1","orgName":"国网浙江临安市供电公司","typeName":null,"infoStatusName":null,"dateDay":null,"orgNos":null,"nowTime":null,"countyName":null,"streetName":null,"villageName":null,"roadName":null,"communityName":null,"tranName":null,"sdLineName":null,"cityCode":"3340160","cityName":"国网浙江临安市供电公司","provinceCode":null,"stopTime":"2019-12-10 15:20:00","powerType":"全部","powerOffArea":"绍鲁V502线康坞分线6#杆上畔支线","powerOffReason":"杭州临安於潜0.4千伏光明村低压线路改造：绍鲁V502线康坞分线上畔支线2#杆调杆、10KV光明村（畔山村上畔）公变变压器拆装、JP柜调换，低压出线电缆、导线、落户线调换","powerOffId":"2019112931020514"},{"poweroffId":2019112931020513,"sgpoweroffId":null,"subsName":"","lineName":"10kV潜阳V504线","pubTranName":"10kV后渚村[青石桥]公变,","scope":"浙江省-杭州市-临安市-於潜镇-青石桥一带","startTime":"2019-12-10 07:50:00","stopDate":"2019-12-10 11:10:00","orgNo":"3340160","typeCode":"计划停电","poweroffArea":"潜阳V504线56#杆10KV后诸村（青石桥）公变低压","poweroffReason":"配合潜阳V504线51#杆装分段开关","powerTime":"2019-12-10 11:00:13","powerComm":"已送电","subsNo":"","lineNo":"","tgNo":"","tgName":null,"infoStatus":"1","orgName":"国网浙江临安市供电公司","typeName":null,"infoStatusName":null,"dateDay":null,"orgNos":null,"nowTime":null,"countyName":null,"streetName":null,"villageName":null,"roadName":null,"communityName":null,"tranName":null,"sdLineName":null,"cityCode":"3340160","cityName":"国网浙江临安市供电公司","provinceCode":null,"stopTime":"2019-12-10 11:10:00","powerType":"全部","powerOffArea":"潜阳V504线56#杆10KV后诸村（青石桥）公变低压","powerOffReason":"配合潜阳V504线51#杆装分段开关","powerOffId":"2019112931020513"},{"poweroffId":2019112931020510,"sgpoweroffId":null,"subsName":"","lineName":"10kV富源V509线","pubTranName":"10kV昔口村[昔口钱家]公变,","scope":"浙江省-杭州市-临安市-於潜镇-昔口钱家一带","startTime":"2019-12-09 08:20:00","stopDate":"2019-12-09 11:00:00","orgNo":"3340160","typeCode":"计划停电","poweroffArea":"10KV昔口村[昔口钱家]公变低压","poweroffReason":"10KV昔口村[昔口钱家]公变路边3000线、下矿4000线拆除","powerTime":"2019-12-09 10:50:16","powerComm":"已送电","subsNo":"","lineNo":"","tgNo":"","tgName":null,"infoStatus":"1","orgName":"国网浙江临安市供电公司","typeName":null,"infoStatusName":null,"dateDay":null,"orgNos":null,"nowTime":null,"countyName":null,"streetName":null,"villageName":null,"roadName":null,"communityName":null,"tranName":null,"sdLineName":null,"cityCode":"3340160","cityName":"国网浙江临安市供电公司","provinceCode":null,"stopTime":"2019-12-09 11:00:00","powerType":"全部","powerOffArea":"10KV昔口村[昔口钱家]公变低压","powerOffReason":"10KV昔口村[昔口钱家]公变路边3000线、下矿4000线拆除","powerOffId":"2019112931020510"},{"poweroffId":2019112931020502,"sgpoweroffId":null,"subsName":"","lineName":"10kV三鑫G063线","pubTranName":"九乔保障房吴家61208353453#变,九乔保障吴家61208353524#变,九乔保障吴家61208353575#变,杭州中油石油天然气销售有限公司,","scope":"浙江省杭州市余杭区乔司街道：城建吴家安置房、加油站一带","startTime":"2019-12-09 08:30:00","stopDate":"2019-12-09 16:30:00","orgNo":"3340140","typeCode":"计划停电","poweroffArea":"110kV外乔变:外乔变三鑫G0631开关-永玄开关站三鑫G063线。","poweroffReason":"外乔变三鑫G063线高明开关站和永玄开关站退出运行，新立20#杆电缆下杆至乔贸开关站II段杭海G198线待用G11线。 原停电结束时间为2019-12-09 15:30:00,因现场施工环境复杂,现变更停电结束时间为2019-12-09 16:30:00","powerTime":"2019-12-09 15:46:35","powerComm":"已送电","subsNo":"","lineNo":"","tgNo":"","tgName":null,"infoStatus":"1","orgName":"国网浙江杭州市余杭区供电有限公司","typeName":null,"infoStatusName":null,"dateDay":null,"orgNos":null,"nowTime":null,"countyName":null,"streetName":null,"villageName":null,"roadName":null,"communityName":null,"tranName":null,"sdLineName":null,"cityCode":"3340140","cityName":"国网浙江杭州市余杭区供电有限公司","provinceCode":null,"stopTime":"2019-12-09 16:30:00","powerType":"全部","powerOffArea":"110kV外乔变:外乔变三鑫G0631开关-永玄开关站三鑫G063线。","powerOffReason":"外乔变三鑫G063线高明开关站和永玄开关站退出运行，新立20#杆电缆下杆至乔贸开关站II段杭海G198线待用G11线。 原停电结束时间为2019-12-09 15:30:00,因现场施工环境复杂,现变更停电结束时间为2019-12-09 16:30:00","powerOffId":"2019112931020502"},{"poweroffId":2019112931020497,"sgpoweroffId":null,"subsName":"","lineName":"10kV牌头H562线","pubTranName":"王位山村打石湾公变,","scope":"浙江省杭州市余杭区黄湖镇：王位山村打石湾一带","startTime":"2019-12-09 09:10:00","stopDate":"2019-12-09 15:10:00","orgNo":"3340140","typeCode":"计划停电","poweroffArea":"35kV黄湖变:牌头H562线-独山分线10号杆开关后段","poweroffReason":"计划工作","powerTime":"2019-12-09 14:36:04","powerComm":"已送电","subsNo":"","lineNo":"","tgNo":"","tgName":null,"infoStatus":"1","orgName":"国网浙江杭州市余杭区供电有限公司","typeName":null,"infoStatusName":null,"dateDay":null,"orgNos":null,"nowTime":null,"countyName":null,"streetName":null,"villageName":null,"roadName":null,"communityName":null,"tranName":null,"sdLineName":null,"cityCode":"3340140","cityName":"国网浙江杭州市余杭区供电有限公司","provinceCode":null,"stopTime":"2019-12-09 15:10:00","powerType":"全部","powerOffArea":"35kV黄湖变:牌头H562线-独山分线10号杆开关后段","powerOffReason":"计划工作","powerOffId":"2019112931020497"},{"poweroffId":2019112931020495,"sgpoweroffId":null,"subsName":"","lineName":"10kV牌头H562线","pubTranName":"王位山村黄泥头公变,王位山村上打石湾公变,","scope":"浙江省杭州市余杭区黄湖镇：王位山村上打石湾、王位山村黄泥头一带","startTime":"2019-12-09 09:00:00","stopDate":"2019-12-09 14:40:00","orgNo":"3340140","typeCode":"计划停电","poweroffArea":"35kV黄湖变:牌头H562线上打石湾分线开关后段","poweroffReason":"计划工作","powerTime":"2019-12-09 14:35:27","powerComm":"已送电","subsNo":"","lineNo":"","tgNo":"","tgName":null,"infoStatus":"1","orgName":"国网浙江杭州市余杭区供电有限公司","typeName":null,"infoStatusName":null,"dateDay":null,"orgNos":null,"nowTime":null,"countyName":null,"streetName":null,"villageName":null,"roadName":null,"communityName":null,"tranName":null,"sdLineName":null,"cityCode":"3340140","cityName":"国网浙江杭州市余杭区供电有限公司","provinceCode":null,"stopTime":"2019-12-09 14:40:00","powerType":"全部","powerOffArea":"35kV黄湖变:牌头H562线上打石湾分线开关后段","powerOffReason":"计划工作","powerOffId":"2019112931020495"}],"pageModel":{"pageNow":783,"totalCount":17789,"totalPage":1779,"tableRows":0,"pageCount":10,"beginCount":7820},"isExperi":"1"}