{"message":"","today":"2020-06-15","seleList":[{"poweroffId":2020052931020476,"sgpoweroffId":null,"subsName":"","lineName":"10kV联胜G909线","pubTranName":"浙江交工宏途交通建设有限公司（6120922124）04号专变,浙江交工宏途交通建设有限公司（6120922124）01号专变,浙江交工宏途交通建设有限公司（6120922124）02号专变,联胜6组（竹鸡塘）公变,浙江交工宏途交通建设有限公司（6120922124）03号专变,","scope":"浙江省-杭州市-余杭区-南苑街道：联胜6组、浙江交工宏途交通建设一带","startTime":"2020-06-09 08:30:00","stopDate":"2020-06-09 18:00:00","orgNo":"3340140","typeCode":"计划停电","poweroffArea":"联胜G909线龙华制衣分线8#杆后段（带电作业配合）","poweroffReason":"计划工作 原停电结束时间为2020-06-09 17:00:00,因现场故障情况复杂,现变更停电结束时间为2020-06-09 18:00:00","powerTime":"2020-06-09 17:27:38","powerComm":"已送电","subsNo":"","lineNo":"","tgNo":"","tgName":null,"infoStatus":"1","orgName":"国网浙江杭州市余杭区供电有限公司","typeName":null,"infoStatusName":null,"dateDay":null,"orgNos":null,"nowTime":null,"countyName":null,"streetName":null,"villageName":null,"roadName":null,"communityName":null,"tranName":null,"sdLineName":null,"cityCode":"3340140","cityName":"国网浙江杭州市余杭区供电有限公司","provinceCode":null,"stopTime":"2020-06-09 18:00:00","powerType":"全部","powerOffArea":"联胜G909线龙华制衣分线8#杆后段（带电作业配合）","powerOffReason":"计划工作 原停电结束时间为2020-06-09 17:00:00,因现场故障情况复杂,现变更停电结束时间为2020-06-09 18:00:00","powerOffId":"2020052931020476"},{"poweroffId":2020052931020470,"sgpoweroffId":null,"subsName":"","lineName":"10kV大吉H476线","pubTranName":"金家渡南苑东2号公变,金家渡股份经济合作社,金家渡南苑西2号公变,金家渡南苑西1号公变,金家渡南苑西3号公变,金家渡南苑东1号公变,配变,","scope":"浙江省-杭州市-余杭区-良渚街道：金家渡南苑","startTime":"2020-06-11 10:30:00","stopDate":"2020-06-11 18:00:00","orgNo":"3340140","typeCode":"计划停电","poweroffArea":"110kV金渡变:大吉H476线-金家渡农居点用户开关后段","poweroffReason":"金家渡南苑东1号、西1号老旧美变调换工作 原停电结束时间为2020-06-11 16:30:00,因天气原因,现变更停电结束时间为2020-06-11 18:00:00","powerTime":"2020-06-11 17:56:44","powerComm":"已送电","subsNo":"","lineNo":"","tgNo":"","tgName":null,"infoStatus":"1","orgName":"国网浙江杭州市余杭区供电有限公司","typeName":null,"infoStatusName":null,"dateDay":null,"orgNos":null,"nowTime":null,"countyName":null,"streetName":null,"villageName":null,"roadName":null,"communityName":null,"tranName":null,"sdLineName":null,"cityCode":"3340140","cityName":"国网浙江杭州市余杭区供电有限公司","provinceCode":null,"stopTime":"2020-06-11 18:00:00","powerType":"全部","powerOffArea":"110kV金渡变:大吉H476线-金家渡农居点用户开关后段","powerOffReason":"金家渡南苑东1号、西1号老旧美变调换工作 原停电结束时间为2020-06-11 16:30:00,因天气原因,现变更停电结束时间为2020-06-11 18:00:00","powerOffId":"2020052931020470"},{"poweroffId":2020052931020469,"sgpoweroffId":null,"subsName":"","lineName":"10kV紫荆H873线","pubTranName":"中铁四局集团第二工程有限公司（200320592503）2#专变,紫荆村沈家坞公变,交工路桥二绕三标1#基建,交工路桥二绕三标5#基建变,","scope":"浙江省-杭州市-余杭区-中泰街道：紫荆村沈家坞、二绕三标基建工地、湖杭高铁沈家坞基建工地一带","startTime":"2020-06-08 08:40:00","stopDate":"2020-06-08 18:30:00","orgNo":"3340140","typeCode":"计划停电","poweroffArea":"110kV中泰变:紫荆H873线-朝家分线开关后段","poweroffReason":"计划工作 原停电结束时间为2020-06-08 17:30:00,因现场故障情况复杂,现变更停电结束时间为2020-06-08 18:30:00","powerTime":"2020-06-08 18:13:19","powerComm":"已送电","subsNo":"","lineNo":"","tgNo":"","tgName":null,"infoStatus":"1","orgName":"国网浙江杭州市余杭区供电有限公司","typeName":null,"infoStatusName":null,"dateDay":null,"orgNos":null,"nowTime":null,"countyName":null,"streetName":null,"villageName":null,"roadName":null,"communityName":null,"tranName":null,"sdLineName":null,"cityCode":"3340140","cityName":"国网浙江杭州市余杭区供电有限公司","provinceCode":null,"stopTime":"2020-06-08 18:30:00","powerType":"全部","powerOffArea":"110kV中泰变:紫荆H873线-朝家分线开关后段","powerOffReason":"计划工作 原停电结束时间为2020-06-08 17:30:00,因现场故障情况复杂,现变更停电结束时间为2020-06-08 18:30:00","powerOffId":"2020052931020469"},{"poweroffId":2020052931020468,"sgpoweroffId":null,"subsName":"","lineName":"10kV星公G076线","pubTranName":"星桥街道办事处路灯变,汀州学校I段台区01号专变,","scope":"浙江省-杭州市-余杭区-星桥街道：星桥街道办事处路灯bian、教育资产一带","startTime":"2020-06-08 09:30:00","stopDate":"2020-06-08 15:00:00","orgNo":"3340140","typeCode":"计划停电","poweroffArea":"星公G0761开关-公园开关站星公G076线","poweroffReason":"计划工作 原停电结束时间为2020-06-08 14:00:00,因现场故障情况复杂,现变更停电结束时间为2020-06-08 15:00:00","powerTime":"2020-06-08 14:39:27","powerComm":"已送电","subsNo":"","lineNo":"","tgNo":"","tgName":null,"infoStatus":"1","orgName":"国网浙江杭州市余杭区供电有限公司","typeName":null,"infoStatusName":null,"dateDay":null,"orgNos":null,"nowTime":null,"countyName":null,"streetName":null,"villageName":null,"roadName":null,"communityName":null,"tranName":null,"sdLineName":null,"cityCode":"3340140","cityName":"国网浙江杭州市余杭区供电有限公司","provinceCode":null,"stopTime":"2020-06-08 15:00:00","powerType":"全部","powerOffArea":"星公G0761开关-公园开关站星公G076线","powerOffReason":"计划工作 原停电结束时间为2020-06-08 14:00:00,因现场故障情况复杂,现变更停电结束时间为2020-06-08 15:00:00","powerOffId":"2020052931020468"},{"poweroffId":2020052931020466,"sgpoweroffId":null,"subsName":"","lineName":"10kV岳驻A363线","pubTranName":"福裕钢材,三浦村11#变,龙发管业,三浦村8#变,荣欣家具（1315067695）,三浦村4#变,荣欣家具,三浦村6#变,三浦村9#变,三浦村5#变,中吉净水,三浦村7#变,普泰密封管件,矿山机械,杭州萧山浦阳江建设开发有限公司,三浦村3#变,征欣家具,杭州谢诚利复合材料有限公司,三浦村1#变,冠和塑胶有限公司250kva变压器,杭州萧南通信器材有限公司,三浦村12#变,三浦村2#变,杭州红泽管业有限公司,杭州普泰密封管件有限公司,杭州恒诺通讯器材有限公司,杭州神马机械有限公司1#,三浦村10#变,华辉机械,杭州市萧山区进化镇人民政府（新江岭机埠）2#,杭州市萧山区进化镇人民政府（新江岭机埠）1#,杭州神马机械有限公司2#,荣欣家具,杭州龙发管业有限公司,","scope":"浙江省-杭州市-萧山区-进化镇-涂川行政村-涂川自然村,进化镇-三浦行政村(泗化自然村,钟家坞自然村,邵家塔自然村,邵家坞自然村);浦阳镇-杭州福裕钢材有限公司,进化镇(杭州征欣家具有限公司,杭州神马机械有限公司,杭州萧山矿山机械厂,浙江荣欣家具有限公司,杭州中吉净水材料有限公司,杭州龙发管业有限公司,杭州见昂贸易有限公司,杭州华辉机械厂,杭州红泽管业有限公司,杭州萧南通信器材有限公司,杭州恒诺通讯器材有限公司,杭州市萧山区进化镇人民政府,浙江百富建设集团有限公司,杭州佳民织造有限公司,杭州谢诚利复合材料有限公司)等","startTime":"2020-05-29 14:34:00","stopDate":"2020-05-29 16:40:00","orgNo":"3340130","typeCode":"电网故障停限电","poweroffArea":"110kV进化变:岳驻A363线岳驻A3633开关后段","poweroffReason":"高压柱上断路器跳闸 原停电结束时间为2020-05-29 17:34:00,为减少客户停电时间,加快工作进度,提前送电,现变更停电结束时间为2020-05-29 16:40:00","powerTime":"2020-05-29 15:43:44","powerComm":"已送电","subsNo":"","lineNo":"","tgNo":"","tgName":null,"infoStatus":"1","orgName":"国网浙江杭州市萧山区供电有限公司","typeName":null,"infoStatusName":null,"dateDay":null,"orgNos":null,"nowTime":null,"countyName":null,"streetName":null,"villageName":null,"roadName":null,"communityName":null,"tranName":null,"sdLineName":null,"cityCode":"3340130","cityName":"国网浙江杭州市萧山区供电有限公司","provinceCode":null,"stopTime":"2020-05-29 16:40:00","powerType":"全部","powerOffArea":"110kV进化变:岳驻A363线岳驻A3633开关后段","powerOffReason":"高压柱上断路器跳闸 原停电结束时间为2020-05-29 17:34:00,为减少客户停电时间,加快工作进度,提前送电,现变更停电结束时间为2020-05-29 16:40:00","powerOffId":"2020052931020466"},{"poweroffId":2020052931020464,"sgpoweroffId":null,"subsName":"","lineName":"10kV经管G175线","pubTranName":"杭州华数传媒电视网络有限公司,杭州荣文利工艺品有限公司,杭州兴新印染有限公司（南）400配变,","scope":"浙江省-杭州市-余杭区-东湖街道：兴新印染、荣文利工艺品厂一带","startTime":"2020-06-08 08:40:00","stopDate":"2020-06-08 14:20:00","orgNo":"3340140","typeCode":"计划停电","poweroffArea":"110kV丘山变:经管G175线首端，经管G1753开关，经管G1750开关之间","poweroffReason":"业扩工程（杭州兴新机械制造有限公司经管G175线28号杆-29号杆移位工程：经管G175线28#杆移位及拆除开关1台及电缆、29#杆拆除电杆1基、开关及电缆、3#杆调换开关1台）","powerTime":"2020-06-08 13:36:36","powerComm":"已送电","subsNo":"","lineNo":"","tgNo":"","tgName":null,"infoStatus":"1","orgName":"国网浙江杭州市余杭区供电有限公司","typeName":null,"infoStatusName":null,"dateDay":null,"orgNos":null,"nowTime":null,"countyName":null,"streetName":null,"villageName":null,"roadName":null,"communityName":null,"tranName":null,"sdLineName":null,"cityCode":"3340140","cityName":"国网浙江杭州市余杭区供电有限公司","provinceCode":null,"stopTime":"2020-06-08 14:20:00","powerType":"全部","powerOffArea":"110kV丘山变:经管G175线首端，经管G1753开关，经管G1750开关之间","powerOffReason":"业扩工程（杭州兴新机械制造有限公司经管G175线28号杆-29号杆移位工程：经管G175线28#杆移位及拆除开关1台及电缆、29#杆拆除电杆1基、开关及电缆、3#杆调换开关1台）","powerOffId":"2020052931020464"},{"poweroffId":2020052931020462,"sgpoweroffId":null,"subsName":"","lineName":"10kV四联D961线","pubTranName":"四联村3号金子垅公变,","scope":"浙江省-杭州市-富阳区-银湖街道-四联村一带","startTime":"2020-06-10 15:30:00","stopDate":"2020-06-10 16:30:00","orgNo":"3340170","typeCode":"计划停电","poweroffArea":"110kV九龙变:四联D961线-四联村3号金子垅公变后段","poweroffReason":"四联村3号金子垅公变由0.4kV发电机改接至变压器","powerTime":"2020-06-10 16:20:22","powerComm":"已送电","subsNo":"","lineNo":"","tgNo":"","tgName":null,"infoStatus":"1","orgName":"国网浙江杭州市富阳区供电公司","typeName":null,"infoStatusName":null,"dateDay":null,"orgNos":null,"nowTime":null,"countyName":null,"streetName":null,"villageName":null,"roadName":null,"communityName":null,"tranName":null,"sdLineName":null,"cityCode":"3340170","cityName":"国网浙江杭州市富阳区供电公司","provinceCode":null,"stopTime":"2020-06-10 16:30:00","powerType":"全部","powerOffArea":"110kV九龙变:四联D961线-四联村3号金子垅公变后段","powerOffReason":"四联村3号金子垅公变由0.4kV发电机改接至变压器","powerOffId":"2020052931020462"},{"poweroffId":2020052931020458,"sgpoweroffId":null,"subsName":"","lineName":"10kV四联D961线","pubTranName":"四联村9号菜场公变,","scope":"浙江省-杭州市-富阳区-银湖街道-四联村一带","startTime":"2020-06-10 15:30:00","stopDate":"2020-06-10 16:30:00","orgNo":"3340170","typeCode":"计划停电","poweroffArea":"110kV九龙变:四联D961线-四联村9号菜场公变后段","poweroffReason":"四联村9号菜场公变由0.4kV发电机改接至变压器","powerTime":"2020-06-10 16:20:12","powerComm":"已送电","subsNo":"","lineNo":"","tgNo":"","tgName":null,"infoStatus":"1","orgName":"国网浙江杭州市富阳区供电公司","typeName":null,"infoStatusName":null,"dateDay":null,"orgNos":null,"nowTime":null,"countyName":null,"streetName":null,"villageName":null,"roadName":null,"communityName":null,"tranName":null,"sdLineName":null,"cityCode":"3340170","cityName":"国网浙江杭州市富阳区供电公司","provinceCode":null,"stopTime":"2020-06-10 16:30:00","powerType":"全部","powerOffArea":"110kV九龙变:四联D961线-四联村9号菜场公变后段","powerOffReason":"四联村9号菜场公变由0.4kV发电机改接至变压器","powerOffId":"2020052931020458"},{"poweroffId":2020052931020457,"sgpoweroffId":null,"subsName":"","lineName":"10kV大横V543线","pubTranName":"杭州临安板桥集镇污水处理厂大横1#,","scope":"浙江省-杭州市-临安市-板桥镇-灵溪行政村-临安市板桥集镇污水处理厂","startTime":"2020-06-07 07:30:00","stopDate":"2020-06-07 18:30:00","orgNo":"3340160","typeCode":"计划停电","poweroffArea":"110kV板桥变:大横V543线变电所至46+1#杆5438开关之间","poweroffReason":"线路改造工程","powerTime":"2020-06-07 18:20:59","powerComm":"已送电","subsNo":"","lineNo":"","tgNo":"","tgName":null,"infoStatus":"1","orgName":"国网浙江临安市供电公司","typeName":null,"infoStatusName":null,"dateDay":null,"orgNos":null,"nowTime":null,"countyName":null,"streetName":null,"villageName":null,"roadName":null,"communityName":null,"tranName":null,"sdLineName":null,"cityCode":"3340160","cityName":"国网浙江临安市供电公司","provinceCode":null,"stopTime":"2020-06-07 18:30:00","powerType":"全部","powerOffArea":"110kV板桥变:大横V543线变电所至46+1#杆5438开关之间","powerOffReason":"线路改造工程","powerOffId":"2020052931020457"},{"poweroffId":2020052931020453,"sgpoweroffId":null,"subsName":"","lineName":"10kV祝家V553线","pubTranName":"紫龙坞公变,杭州临安板桥集镇污水处理厂祝家1#,横溪村紫龙坞,临安佰昕衬布材料有限公司,","scope":"浙江省-杭州市-临安市-板桥镇-灵溪行政村临安市板桥集镇污水处理厂，临安佰昕衬布材料有限公司，横溪村紫龙坞，紫龙坞","startTime":"2020-06-07 07:30:00","stopDate":"2020-06-07 18:30:00","orgNo":"3340160","typeCode":"计划停电","poweroffArea":"110kV板桥变:祝家V553线变电所至46+1#杆5534开关之间","poweroffReason":"线路改造工程","powerTime":"2020-06-07 18:20:47","powerComm":"已送电","subsNo":"","lineNo":"","tgNo":"","tgName":null,"infoStatus":"1","orgName":"国网浙江临安市供电公司","typeName":null,"infoStatusName":null,"dateDay":null,"orgNos":null,"nowTime":null,"countyName":null,"streetName":null,"villageName":null,"roadName":null,"communityName":null,"tranName":null,"sdLineName":null,"cityCode":"3340160","cityName":"国网浙江临安市供电公司","provinceCode":null,"stopTime":"2020-06-07 18:30:00","powerType":"全部","powerOffArea":"110kV板桥变:祝家V553线变电所至46+1#杆5534开关之间","powerOffReason":"线路改造工程","powerOffId":"2020052931020453"}],"pageModel":{"pageNow":78,"totalCount":17786,"totalPage":1779,"tableRows":0,"pageCount":10,"beginCount":770},"isExperi":"1"}