{"message":"","today":"2020-06-15","seleList":[{"poweroffId":2020061431020088,"sgpoweroffId":null,"subsName":"","lineName":"10kV云会H408线","pubTranName":"良渚村烘丁桥公变,良渚村仰家塘2号公变,东美展览,良渚村谢安舍公变,良渚村烘丁桥2号公变,仰家塘村干家塘公变,收费站,","scope":"浙江省-杭州市-余杭区-良渚街道-良渚行政村-仰家塘自然村;良渚街道-良渚行政村(杭州市余杭区公路养护与应急保障中心,杭州凯迪纺织制品有限公司)","startTime":"2020-06-14 10:27:00","stopDate":"2020-06-14 14:27:00","orgNo":"3340140","typeCode":"电网故障停限电","poweroffArea":"35kV良渚变:云会H408线-许家H410线德雅包装分线开关后段","poweroffReason":"高压开关跳闸 原停电结束时间为2020-06-14 12:27:00,因现场故障情况复杂,现变更停电结束时间为2020-06-14 14:27:00","powerTime":"2020-06-14 13:50:00","powerComm":"已送电","subsNo":"","lineNo":"","tgNo":"","tgName":null,"infoStatus":"1","orgName":"国网浙江杭州市余杭区供电有限公司","typeName":null,"infoStatusName":null,"dateDay":null,"orgNos":null,"nowTime":null,"countyName":null,"streetName":null,"villageName":null,"roadName":null,"communityName":null,"tranName":null,"sdLineName":null,"cityCode":"3340140","cityName":"国网浙江杭州市余杭区供电有限公司","provinceCode":null,"stopTime":"2020-06-14 14:27:00","powerType":"全部","powerOffArea":"35kV良渚变:云会H408线-许家H410线德雅包装分线开关后段","powerOffReason":"高压开关跳闸 原停电结束时间为2020-06-14 12:27:00,因现场故障情况复杂,现变更停电结束时间为2020-06-14 14:27:00","powerOffId":"2020061431020088"},{"poweroffId":2020061431020064,"sgpoweroffId":null,"subsName":"","lineName":"10kV东风C981线","pubTranName":"戴村镇东风村3#变,","scope":"浙江省-杭州市-萧山区-戴村镇-东风行政村-何童埠自然村、浙江省杭州市萧山区戴村镇东风村等","startTime":"2020-06-14 09:10:06","stopDate":"2020-06-14 11:15:06","orgNo":"3340130","typeCode":"电网故障停限电","poweroffArea":"110kV永兴变:东风C981线-戴村镇东风村3#变台区低压开关","poweroffReason":"(低压停电信息)低压电缆被外力破坏","powerTime":"2020-06-14 10:29:29","powerComm":"已送电","subsNo":"","lineNo":"","tgNo":"","tgName":null,"infoStatus":"1","orgName":"国网浙江杭州市萧山区供电有限公司","typeName":null,"infoStatusName":null,"dateDay":null,"orgNos":null,"nowTime":null,"countyName":null,"streetName":null,"villageName":null,"roadName":null,"communityName":null,"tranName":null,"sdLineName":null,"cityCode":"3340130","cityName":"国网浙江杭州市萧山区供电有限公司","provinceCode":null,"stopTime":"2020-06-14 11:15:06","powerType":"全部","powerOffArea":"110kV永兴变:东风C981线-戴村镇东风村3#变台区低压开关","powerOffReason":"(低压停电信息)低压电缆被外力破坏","powerOffId":"2020061431020064"},{"poweroffId":2020061431020018,"sgpoweroffId":null,"subsName":"","lineName":"10kV陈园C841线","pubTranName":"新塘头村1#变,","scope":"浙江省-杭州市-萧山区-新街镇、新街街道-新塘头行政村-新塘头自然村等","startTime":"2020-06-14 06:48:43","stopDate":"2020-06-14 11:55:43","orgNo":"3340130","typeCode":"电网故障停限电","poweroffArea":"110kV罗山变:陈园C841线-新塘头村1#变台区低压开关","poweroffReason":"（低压停电信息）低压漏电保护器短路故障","powerTime":"2020-06-14 11:45:05","powerComm":"已送电","subsNo":"","lineNo":"","tgNo":"","tgName":null,"infoStatus":"1","orgName":"国网浙江杭州市萧山区供电有限公司","typeName":null,"infoStatusName":null,"dateDay":null,"orgNos":null,"nowTime":null,"countyName":null,"streetName":null,"villageName":null,"roadName":null,"communityName":null,"tranName":null,"sdLineName":null,"cityCode":"3340130","cityName":"国网浙江杭州市萧山区供电有限公司","provinceCode":null,"stopTime":"2020-06-14 11:55:43","powerType":"全部","powerOffArea":"110kV罗山变:陈园C841线-新塘头村1#变台区低压开关","powerOffReason":"（低压停电信息）低压漏电保护器短路故障","powerOffId":"2020061431020018"},{"poweroffId":2020061431020013,"sgpoweroffId":null,"subsName":"","lineName":"10kV云会H408线","pubTranName":"良渚村烘丁桥2号公变,良渚村仰家塘2号公变,收费站,东美展览,仰家塘村干家塘公变,良渚村谢安舍公变,良渚村烘丁桥公变,","scope":"浙江省-杭州市-余杭区-良渚街道-良渚行政村-仰家塘自然村;良渚街道(杭州市余杭区公路养护与应急保障中心,杭州凯迪纺织制品有限公司)","startTime":"2020-06-14 05:20:00","stopDate":"2020-06-14 07:20:00","orgNo":"3340140","typeCode":"电网故障停限电","poweroffArea":"35kV良渚变:云会H408线许家H410线德雅包装分线开关后段","poweroffReason":"高压开关跳闸","powerTime":"2020-06-14 06:45:39","powerComm":"已送电","subsNo":"","lineNo":"","tgNo":"","tgName":null,"infoStatus":"1","orgName":"国网浙江杭州市余杭区供电有限公司","typeName":null,"infoStatusName":null,"dateDay":null,"orgNos":null,"nowTime":null,"countyName":null,"streetName":null,"villageName":null,"roadName":null,"communityName":null,"tranName":null,"sdLineName":null,"cityCode":"3340140","cityName":"国网浙江杭州市余杭区供电有限公司","provinceCode":null,"stopTime":"2020-06-14 07:20:00","powerType":"全部","powerOffArea":"35kV良渚变:云会H408线许家H410线德雅包装分线开关后段","powerOffReason":"高压开关跳闸","powerOffId":"2020061431020013"},{"poweroffId":2020061331020293,"sgpoweroffId":null,"subsName":"","lineName":"10kV宏欣A157线","pubTranName":"大西村16#变,","scope":"浙江省-杭州市-萧山区-党湾镇-大西行政村-大西自然村等","startTime":"2020-06-13 21:22:22","stopDate":"2020-06-13 22:50:22","orgNo":"3340130","typeCode":"电网故障停限电","poweroffArea":"220kV甘露变:宏欣A157线-大西村16#变台区低压开关","poweroffReason":"(低压停电信息)低压熔断器消缺 原停电结束时间为2020-06-13 23:49:22,为减少客户停电时间,加快工作进度,提前送电,现变更停电结束时间为2020-06-13 22:50:22","powerTime":"2020-06-13 22:15:06","powerComm":"已送电","subsNo":"","lineNo":"","tgNo":"","tgName":null,"infoStatus":"1","orgName":"国网浙江杭州市萧山区供电有限公司","typeName":null,"infoStatusName":null,"dateDay":null,"orgNos":null,"nowTime":null,"countyName":null,"streetName":null,"villageName":null,"roadName":null,"communityName":null,"tranName":null,"sdLineName":null,"cityCode":"3340130","cityName":"国网浙江杭州市萧山区供电有限公司","provinceCode":null,"stopTime":"2020-06-13 22:50:22","powerType":"全部","powerOffArea":"220kV甘露变:宏欣A157线-大西村16#变台区低压开关","powerOffReason":"(低压停电信息)低压熔断器消缺 原停电结束时间为2020-06-13 23:49:22,为减少客户停电时间,加快工作进度,提前送电,现变更停电结束时间为2020-06-13 22:50:22","powerOffId":"2020061331020293"},{"poweroffId":2020061331020258,"sgpoweroffId":null,"subsName":"","lineName":"10kV沃华T320线","pubTranName":"董家1号公变,","scope":"浙江省-杭州市-桐庐县-城南街道-东兴行政村-尹家自然村,城南街道-滩头行政村(董家自然村,滩头自然村,马家自然村)","startTime":"2020-06-13 20:20:45","stopDate":"2020-06-13 22:20:45","orgNo":"3340150","typeCode":"电网故障停限电","poweroffArea":"110kV洋洲变:沃华T320线-董家1号公变后段","poweroffReason":"(低压停电信息)低压开关跳闸","powerTime":"2020-06-13 22:14:37","powerComm":"已送电","subsNo":"","lineNo":"","tgNo":"","tgName":null,"infoStatus":"1","orgName":"国网浙江桐庐县供电公司","typeName":null,"infoStatusName":null,"dateDay":null,"orgNos":null,"nowTime":null,"countyName":null,"streetName":null,"villageName":null,"roadName":null,"communityName":null,"tranName":null,"sdLineName":null,"cityCode":"3340150","cityName":"国网浙江桐庐县供电公司","provinceCode":null,"stopTime":"2020-06-13 22:20:45","powerType":"全部","powerOffArea":"110kV洋洲变:沃华T320线-董家1号公变后段","powerOffReason":"(低压停电信息)低压开关跳闸","powerOffId":"2020061331020258"},{"poweroffId":2020061331020230,"sgpoweroffId":null,"subsName":"","lineName":"10kV安置A698线","pubTranName":"航坞A区2#公变,俱乐部公变,明朗公变,航坞A区1#公变,","scope":"浙江省-杭州市-萧山区-瓜沥镇-塘头社区-商贸公寓,瓜沥镇-明朗行政村(小桥头横弄,小桥头直弄,航坞小区,商贸街,17组明朗路,人民路,小桥头路,明朗路,明朗自然村,东灵路),瓜沥镇-航坞社区(东灵路,商贸路,商贸公寓,商贸街,航坞路,航坞小区)、浙江省杭州市萧山区瓜沥镇航坞社区商贸公寓1幢2单元202室等","startTime":"2020-06-13 17:19:00","stopDate":"2020-06-13 18:45:00","orgNo":"3340130","typeCode":"电网故障停限电","poweroffArea":"110kV白川变:安置A698线於家开俱乐部分线后段","poweroffReason":"高压柱上断路器跳闸 原停电结束时间为2020-06-13 19:05:00,为减少客户停电时间,加快工作进度,提前送电,现变更停电结束时间为2020-06-13 18:45:00","powerTime":"2020-06-13 18:10:05","powerComm":"已送电","subsNo":"","lineNo":"","tgNo":"","tgName":null,"infoStatus":"1","orgName":"国网浙江杭州市萧山区供电有限公司","typeName":null,"infoStatusName":null,"dateDay":null,"orgNos":null,"nowTime":null,"countyName":null,"streetName":null,"villageName":null,"roadName":null,"communityName":null,"tranName":null,"sdLineName":null,"cityCode":"3340130","cityName":"国网浙江杭州市萧山区供电有限公司","provinceCode":null,"stopTime":"2020-06-13 18:45:00","powerType":"全部","powerOffArea":"110kV白川变:安置A698线於家开俱乐部分线后段","powerOffReason":"高压柱上断路器跳闸 原停电结束时间为2020-06-13 19:05:00,为减少客户停电时间,加快工作进度,提前送电,现变更停电结束时间为2020-06-13 18:45:00","powerOffId":"2020061331020230"},{"poweroffId":2020061331020222,"sgpoweroffId":null,"subsName":"","lineName":"10kV秀峰T186线","pubTranName":"沙湾3号公变,","scope":"浙江省-杭州市-桐庐县-富春江镇(严陵行政村-蒋家埠自然村,七里泷行政村-沙湾自然村)","startTime":"2020-06-13 16:35:36","stopDate":"2020-06-13 18:35:36","orgNo":"3340150","typeCode":"电网故障停限电","poweroffArea":"110kV外董变:秀峰T186线-沙湾3号公变后段","poweroffReason":"(低压停电信息)低压开关跳闸","powerTime":"2020-06-13 18:20:14","powerComm":"已送电","subsNo":"","lineNo":"","tgNo":"","tgName":null,"infoStatus":"1","orgName":"国网浙江桐庐县供电公司","typeName":null,"infoStatusName":null,"dateDay":null,"orgNos":null,"nowTime":null,"countyName":null,"streetName":null,"villageName":null,"roadName":null,"communityName":null,"tranName":null,"sdLineName":null,"cityCode":"3340150","cityName":"国网浙江桐庐县供电公司","provinceCode":null,"stopTime":"2020-06-13 18:35:36","powerType":"全部","powerOffArea":"110kV外董变:秀峰T186线-沙湾3号公变后段","powerOffReason":"(低压停电信息)低压开关跳闸","powerOffId":"2020061331020222"},{"poweroffId":2020061331020209,"sgpoweroffId":null,"subsName":"","lineName":"10kV白洋Y221线","pubTranName":"和风苑1#公变,","scope":"浙江省-杭州市-建德市-洋溪街道(洋安行政村-和风苑小区,洋安社区-洋安新城)","startTime":"2020-06-13 15:53:00","stopDate":"2020-06-13 16:50:00","orgNo":"3340180","typeCode":"电网故障停限电","poweroffArea":"110kV白沙变:白洋Y221线和风苑1#公变配变","poweroffReason":"(低压停电信息)低压开关跳闸","powerTime":"2020-06-13 16:14:00","powerComm":"已送电","subsNo":"","lineNo":"","tgNo":"","tgName":null,"infoStatus":"1","orgName":"国网浙江建德市供电有限公司","typeName":null,"infoStatusName":null,"dateDay":null,"orgNos":null,"nowTime":null,"countyName":null,"streetName":null,"villageName":null,"roadName":null,"communityName":null,"tranName":null,"sdLineName":null,"cityCode":"3340180","cityName":"国网浙江建德市供电有限公司","provinceCode":null,"stopTime":"2020-06-13 16:50:00","powerType":"全部","powerOffArea":"110kV白沙变:白洋Y221线和风苑1#公变配变","powerOffReason":"(低压停电信息)低压开关跳闸","powerOffId":"2020061331020209"},{"poweroffId":2020061331020155,"sgpoweroffId":null,"subsName":"","lineName":"10kV惠三A113线","pubTranName":"大成名座4#公变,大成名座SZ4#变1#,大成名座5#公变,大成名座1#公变,大成名座SZ4#变2#,大成名座3#公变,大成名座6#公变,一方房地产1#,2#,大成名座2#公变,一方房地产2#,大成名座1#,","scope":"浙江省-杭州市-萧山区-宁围镇、宁围街道-经济技术开发区-市北社区-市心北路;经济技术开发区-广东中奥物业管理有限公司萧山分公司等","startTime":"2020-06-13 13:37:00","stopDate":"2020-06-13 16:37:00","orgNo":"3340130","typeCode":"电网故障停限电","poweroffArea":"110kV惠兴变:惠三A113线大成开惠成分线后段","poweroffReason":"高压开关跳闸","powerTime":"2020-06-13 15:40:23","powerComm":"已送电","subsNo":"","lineNo":"","tgNo":"","tgName":null,"infoStatus":"1","orgName":"国网浙江杭州市萧山区供电有限公司","typeName":null,"infoStatusName":null,"dateDay":null,"orgNos":null,"nowTime":null,"countyName":null,"streetName":null,"villageName":null,"roadName":null,"communityName":null,"tranName":null,"sdLineName":null,"cityCode":"3340130","cityName":"国网浙江杭州市萧山区供电有限公司","provinceCode":null,"stopTime":"2020-06-13 16:37:00","powerType":"全部","powerOffArea":"110kV惠兴变:惠三A113线大成开惠成分线后段","powerOffReason":"高压开关跳闸","powerOffId":"2020061331020155"}],"pageModel":{"pageNow":7,"totalCount":17786,"totalPage":1779,"tableRows":0,"pageCount":10,"beginCount":60},"isExperi":"1"}