{"message":"","today":"2020-06-15","seleList":[{"poweroffId":2019112931020437,"sgpoweroffId":null,"subsName":"","lineName":"10kV灵山D143线","pubTranName":"九二村2#何家坞公变,","scope":"浙江省杭州市富阳区新登镇九二行政村何家坞自然村一带","startTime":"2019-12-09 07:50:00","stopDate":"2019-12-09 16:30:00","orgNo":"3340170","typeCode":"计划停电","poweroffArea":"110kV新登变:灵山D143线-九二村2#何家坞公变低压开关后段","poweroffReason":"(低压停电信息)拆除拆除VLV-4*120*3路、JKLYJ-120*4*2档、移位JKLYJ-120*4*1档、电缆头搭接YJV*4*150*3路、安装横担1付、更换表箱20只","powerTime":"2019-12-09 16:20:09","powerComm":"已送电","subsNo":"","lineNo":"","tgNo":"","tgName":null,"infoStatus":"1","orgName":"国网浙江杭州市富阳区供电公司","typeName":null,"infoStatusName":null,"dateDay":null,"orgNos":null,"nowTime":null,"countyName":null,"streetName":null,"villageName":null,"roadName":null,"communityName":null,"tranName":null,"sdLineName":null,"cityCode":"3340170","cityName":"国网浙江杭州市富阳区供电公司","provinceCode":null,"stopTime":"2019-12-09 16:30:00","powerType":"全部","powerOffArea":"110kV新登变:灵山D143线-九二村2#何家坞公变低压开关后段","powerOffReason":"(低压停电信息)拆除拆除VLV-4*120*3路、JKLYJ-120*4*2档、移位JKLYJ-120*4*1档、电缆头搭接YJV*4*150*3路、安装横担1付、更换表箱20只","powerOffId":"2019112931020437"},{"poweroffId":2019112931020435,"sgpoweroffId":null,"subsName":"","lineName":"10kV中秋D223线","pubTranName":"大山脚村3号野坞公变,","scope":"浙江省-杭州市-富阳区-银湖街道-银湖行政村-祝家村自然村,银湖街道-新常行政村(大山脚野坞口自然村,大山脚自然村,大山脚野坞里自然村)","startTime":"2019-12-13 08:00:00","stopDate":"2019-12-13 14:30:00","orgNo":"3340170","typeCode":"计划停电","poweroffArea":"110kV银湖变:中秋D223线-大山脚村3号野坞公变低压开关后段","poweroffReason":"(低压停电信息)迎东2019年峡岭村3#周家坛公变等配电线路及设备大修工程更换出线电缆2路，搭接等工作。 原停电结束时间为2019-12-13 13:30:00,因政策原因,现变更停电结束时间为2019-12-13 14:30:00","powerTime":"2019-12-13 14:20:17","powerComm":"已送电","subsNo":"","lineNo":"","tgNo":"","tgName":null,"infoStatus":"1","orgName":"国网浙江杭州市富阳区供电公司","typeName":null,"infoStatusName":null,"dateDay":null,"orgNos":null,"nowTime":null,"countyName":null,"streetName":null,"villageName":null,"roadName":null,"communityName":null,"tranName":null,"sdLineName":null,"cityCode":"3340170","cityName":"国网浙江杭州市富阳区供电公司","provinceCode":null,"stopTime":"2019-12-13 14:30:00","powerType":"全部","powerOffArea":"110kV银湖变:中秋D223线-大山脚村3号野坞公变低压开关后段","powerOffReason":"(低压停电信息)迎东2019年峡岭村3#周家坛公变等配电线路及设备大修工程更换出线电缆2路，搭接等工作。 原停电结束时间为2019-12-13 13:30:00,因政策原因,现变更停电结束时间为2019-12-13 14:30:00","powerOffId":"2019112931020435"},{"poweroffId":2019112931020434,"sgpoweroffId":null,"subsName":"","lineName":"10kV十月D225线","pubTranName":"筱岭村3号下村公变,","scope":"浙江省-杭州市-富阳区-银湖街道-坑西行政村-筱岭自然村","startTime":"2019-12-12 08:00:00","stopDate":"2019-12-12 15:00:00","orgNo":"3340170","typeCode":"计划停电","poweroffArea":"110kV银湖变:十月D225线-筱岭村3号下村公变低压开关后段","poweroffReason":"(低压停电信息)迎东2019年峡岭村3#周家坛公变等配电线路及设备大修工程拆装导线1档，新装进户电缆1路，吊车拔杆人工运杆5根，搭接等工作。","powerTime":"2019-12-12 14:51:43","powerComm":"已送电","subsNo":"","lineNo":"","tgNo":"","tgName":null,"infoStatus":"1","orgName":"国网浙江杭州市富阳区供电公司","typeName":null,"infoStatusName":null,"dateDay":null,"orgNos":null,"nowTime":null,"countyName":null,"streetName":null,"villageName":null,"roadName":null,"communityName":null,"tranName":null,"sdLineName":null,"cityCode":"3340170","cityName":"国网浙江杭州市富阳区供电公司","provinceCode":null,"stopTime":"2019-12-12 15:00:00","powerType":"全部","powerOffArea":"110kV银湖变:十月D225线-筱岭村3号下村公变低压开关后段","powerOffReason":"(低压停电信息)迎东2019年峡岭村3#周家坛公变等配电线路及设备大修工程拆装导线1档，新装进户电缆1路，吊车拔杆人工运杆5根，搭接等工作。","powerOffId":"2019112931020434"},{"poweroffId":2019112931020433,"sgpoweroffId":null,"subsName":"","lineName":"10kV上陈D295线","pubTranName":"泗洲村10号学校二公变,","scope":"浙江省-杭州市-富阳区-银湖街道-泗洲行政村-泗洲自然村","startTime":"2019-12-11 08:00:00","stopDate":"2019-12-11 17:00:00","orgNo":"3340170","typeCode":"计划停电","poweroffArea":"35kV新义变:上陈D295线-泗洲村10号学校二公变低压开关后段","poweroffReason":"(低压停电信息)迎东2019年峡岭村3#周家坛公变等配电线路及设备大修工程拆旧线6档，拆架导线1档，新架导线9档，搭接等工作。","powerTime":"2019-12-11 16:35:27","powerComm":"已送电","subsNo":"","lineNo":"","tgNo":"","tgName":null,"infoStatus":"1","orgName":"国网浙江杭州市富阳区供电公司","typeName":null,"infoStatusName":null,"dateDay":null,"orgNos":null,"nowTime":null,"countyName":null,"streetName":null,"villageName":null,"roadName":null,"communityName":null,"tranName":null,"sdLineName":null,"cityCode":"3340170","cityName":"国网浙江杭州市富阳区供电公司","provinceCode":null,"stopTime":"2019-12-11 17:00:00","powerType":"全部","powerOffArea":"35kV新义变:上陈D295线-泗洲村10号学校二公变低压开关后段","powerOffReason":"(低压停电信息)迎东2019年峡岭村3#周家坛公变等配电线路及设备大修工程拆旧线6档，拆架导线1档，新架导线9档，搭接等工作。","powerOffId":"2019112931020433"},{"poweroffId":2019112931020431,"sgpoweroffId":null,"subsName":"","lineName":"10kV中秋D223线","pubTranName":"集镇5号七里路公变,","scope":"浙江省-杭州市-富阳区-银湖街道-受降行政村(七里路自然村,中秋自然村),银湖街道-新常行政村(虎啸杏自然村,七地上自然村,虎啸杏自然村上宋街,大山脚自然村)","startTime":"2019-12-10 08:00:00","stopDate":"2019-12-10 16:30:00","orgNo":"3340170","typeCode":"计划停电","poweroffArea":"110kV银湖变:中秋D223线-集镇5号七里路公变低压开关后段","poweroffReason":"(低压停电信息)迎东2019年峡岭村3#周家坛公变等配电线路及设备大修工程更换导线4档、更换接户线15处、新装接户电缆1路、搭接等工作。","powerTime":"2019-12-10 16:10:46","powerComm":"已送电","subsNo":"","lineNo":"","tgNo":"","tgName":null,"infoStatus":"1","orgName":"国网浙江杭州市富阳区供电公司","typeName":null,"infoStatusName":null,"dateDay":null,"orgNos":null,"nowTime":null,"countyName":null,"streetName":null,"villageName":null,"roadName":null,"communityName":null,"tranName":null,"sdLineName":null,"cityCode":"3340170","cityName":"国网浙江杭州市富阳区供电公司","provinceCode":null,"stopTime":"2019-12-10 16:30:00","powerType":"全部","powerOffArea":"110kV银湖变:中秋D223线-集镇5号七里路公变低压开关后段","powerOffReason":"(低压停电信息)迎东2019年峡岭村3#周家坛公变等配电线路及设备大修工程更换导线4档、更换接户线15处、新装接户电缆1路、搭接等工作。","powerOffId":"2019112931020431"},{"poweroffId":2019112931020428,"sgpoweroffId":null,"subsName":"","lineName":"10kV宫前D603线","pubTranName":"东前村溪东1#溪东公变,","scope":"浙江省杭州市富阳区大源镇东前村溪东自然村一带","startTime":"2019-12-09 08:30:00","stopDate":"2019-12-09 16:40:00","orgNo":"3340170","typeCode":"计划停电","poweroffArea":"35kV溪东变:宫前D603线-东前村溪东1#溪东公变低压开关后段","poweroffReason":"(低压停电信息)大源过镇连接线拓宽-配电线路迁改(临时)工程安装横担、新架导线、吊车拨立杆、接户线搭接等工作","powerTime":"2019-12-09 16:30:09","powerComm":"已送电","subsNo":"","lineNo":"","tgNo":"","tgName":null,"infoStatus":"1","orgName":"国网浙江杭州市富阳区供电公司","typeName":null,"infoStatusName":null,"dateDay":null,"orgNos":null,"nowTime":null,"countyName":null,"streetName":null,"villageName":null,"roadName":null,"communityName":null,"tranName":null,"sdLineName":null,"cityCode":"3340170","cityName":"国网浙江杭州市富阳区供电公司","provinceCode":null,"stopTime":"2019-12-09 16:40:00","powerType":"全部","powerOffArea":"35kV溪东变:宫前D603线-东前村溪东1#溪东公变低压开关后段","powerOffReason":"(低压停电信息)大源过镇连接线拓宽-配电线路迁改(临时)工程安装横担、新架导线、吊车拨立杆、接户线搭接等工作","powerOffId":"2019112931020428"},{"poweroffId":2019112931020427,"sgpoweroffId":null,"subsName":"","lineName":"10kV环联D788线","pubTranName":"环三村1#村中公变,","scope":"浙江省-杭州市-富阳区-环山乡(环一行政村-环一村中自然村,环三行政村-环三村中自然村)一带","startTime":"2019-12-09 08:30:00","stopDate":"2019-12-09 11:10:00","orgNo":"3340170","typeCode":"计划停电","poweroffArea":"110kV王洲变:环联D788线-环三村1号村中公变后段","poweroffReason":"(低压停电信息)环三村1#村中公变漏电保护器轮换","powerTime":"2019-12-09 10:56:35","powerComm":"已送电","subsNo":"","lineNo":"","tgNo":"","tgName":null,"infoStatus":"1","orgName":"国网浙江杭州市富阳区供电公司","typeName":null,"infoStatusName":null,"dateDay":null,"orgNos":null,"nowTime":null,"countyName":null,"streetName":null,"villageName":null,"roadName":null,"communityName":null,"tranName":null,"sdLineName":null,"cityCode":"3340170","cityName":"国网浙江杭州市富阳区供电公司","provinceCode":null,"stopTime":"2019-12-09 11:10:00","powerType":"全部","powerOffArea":"110kV王洲变:环联D788线-环三村1号村中公变后段","powerOffReason":"(低压停电信息)环三村1#村中公变漏电保护器轮换","powerOffId":"2019112931020427"},{"poweroffId":2019112931020416,"sgpoweroffId":null,"subsName":"","lineName":"10kV郭村R132线","pubTranName":"银峰村银峰二公变,","scope":"浙江省-杭州市-淳安县-姜家镇-银峰行政村(银峰一自然村,银峰二自然村)","startTime":"2019-12-13 07:30:00","stopDate":"2019-12-13 09:30:00","orgNo":"3340190","typeCode":"计划停电","poweroffArea":"110kV姜家变:郭村R132线-银峰二支线跌落式熔断器后段","poweroffReason":"郭村R132线银峰二支线驰度调整","powerTime":"2019-12-13 08:51:47","powerComm":"已送电","subsNo":"","lineNo":"","tgNo":"","tgName":null,"infoStatus":"1","orgName":"国网浙江淳安县供电有限公司","typeName":null,"infoStatusName":null,"dateDay":null,"orgNos":null,"nowTime":null,"countyName":null,"streetName":null,"villageName":null,"roadName":null,"communityName":null,"tranName":null,"sdLineName":null,"cityCode":"3340190","cityName":"国网浙江淳安县供电有限公司","provinceCode":null,"stopTime":"2019-12-13 09:30:00","powerType":"全部","powerOffArea":"110kV姜家变:郭村R132线-银峰二支线跌落式熔断器后段","powerOffReason":"郭村R132线银峰二支线驰度调整","powerOffId":"2019112931020416"},{"poweroffId":2019112931020415,"sgpoweroffId":null,"subsName":"","lineName":"10kV屏门R182线","pubTranName":"淳安县屏门乡金陵村村民委员会配变,临岐金陵村驮坪里公变,临岐金陵村双坪公变,临岐金陵村水竹坪公变,","scope":"浙江省-杭州市-淳安县-屏门乡-金陵行政村(水竹坪自然村,双坪自然村,金陵自然村,驮坪里自然村);浙江省-杭州市-淳安县-屏门乡-金陵行政村-淳安县屏门乡金陵村村民委员会","startTime":"2019-12-11 09:00:00","stopDate":"2019-12-11 12:00:00","orgNo":"3340190","typeCode":"计划停电","poweroffArea":"35kV临岐变:屏门R182线-双坪支线01号杆开关后段","poweroffReason":"10KV屏门R182线双坪支线2-3号杆导线更换","powerTime":"2019-12-11 11:11:20","powerComm":"已送电","subsNo":"","lineNo":"","tgNo":"","tgName":null,"infoStatus":"1","orgName":"国网浙江淳安县供电有限公司","typeName":null,"infoStatusName":null,"dateDay":null,"orgNos":null,"nowTime":null,"countyName":null,"streetName":null,"villageName":null,"roadName":null,"communityName":null,"tranName":null,"sdLineName":null,"cityCode":"3340190","cityName":"国网浙江淳安县供电有限公司","provinceCode":null,"stopTime":"2019-12-11 12:00:00","powerType":"全部","powerOffArea":"35kV临岐变:屏门R182线-双坪支线01号杆开关后段","powerOffReason":"10KV屏门R182线双坪支线2-3号杆导线更换","powerOffId":"2019112931020415"},{"poweroffId":2019112931020414,"sgpoweroffId":null,"subsName":"","lineName":"10kV秋源R188线","pubTranName":"临岐范村村西村公变,","scope":"浙江省-杭州市-淳安县-临岐镇-范村行政村(范村自然村,西村自然村)","startTime":"2019-12-10 07:30:00","stopDate":"2019-12-10 14:30:00","orgNo":"3340190","typeCode":"计划停电","poweroffArea":"35kV临岐变:秋源R188线-西村配变跌落式熔断器后段","poweroffReason":"1.10kV秋源R188线西村支线01-06#杆导线架设2.10kV秋源R188线新上马路坞配变安装3.10kV秋源R188线西村配变增容","powerTime":"2019-12-10 13:47:39","powerComm":"已送电","subsNo":"","lineNo":"","tgNo":"","tgName":null,"infoStatus":"1","orgName":"国网浙江淳安县供电有限公司","typeName":null,"infoStatusName":null,"dateDay":null,"orgNos":null,"nowTime":null,"countyName":null,"streetName":null,"villageName":null,"roadName":null,"communityName":null,"tranName":null,"sdLineName":null,"cityCode":"3340190","cityName":"国网浙江淳安县供电有限公司","provinceCode":null,"stopTime":"2019-12-10 14:30:00","powerType":"全部","powerOffArea":"35kV临岐变:秋源R188线-西村配变跌落式熔断器后段","powerOffReason":"1.10kV秋源R188线西村支线01-06#杆导线架设2.10kV秋源R188线新上马路坞配变安装3.10kV秋源R188线西村配变增容","powerOffId":"2019112931020414"}],"pageModel":{"pageNow":786,"totalCount":17789,"totalPage":1779,"tableRows":0,"pageCount":10,"beginCount":7850},"isExperi":"1"}