{"message":"","today":"2020-06-15","seleList":[{"poweroffId":2019112931020413,"sgpoweroffId":null,"subsName":"","lineName":"10kV蚕宣9118线","pubTranName":"宣家（4-3）农,","scope":"浙江省江干区宣家埠二区51-59号、一区194号附近","startTime":"2019-12-09 09:30:00","stopDate":"2019-12-09 12:30:00","orgNo":"3340101","typeCode":"计划停电","poweroffArea":"110kV蚕桑变:蚕宣9118线-宣家（4-3）农低压","poweroffReason":"(低压停电信息)杭州市区2018年城北区块10千伏公变增容布点及低压台区改造项目八期工程（宏迅） 原停电结束时间为2019-12-09 17:30:00,为减少客户停电时间,加快工作进度,提前送电,现变更停电结束时间为2019-12-09 12:30:00","powerTime":"2019-12-09 12:00:59","powerComm":"已送电","subsNo":"","lineNo":"","tgNo":"","tgName":null,"infoStatus":"1","orgName":"浙江杭州电力客户服务中心","typeName":null,"infoStatusName":null,"dateDay":null,"orgNos":null,"nowTime":null,"countyName":null,"streetName":null,"villageName":null,"roadName":null,"communityName":null,"tranName":null,"sdLineName":null,"cityCode":"3340101","cityName":"浙江杭州电力客户服务中心","provinceCode":null,"stopTime":"2019-12-09 12:30:00","powerType":"全部","powerOffArea":"110kV蚕桑变:蚕宣9118线-宣家（4-3）农低压","powerOffReason":"(低压停电信息)杭州市区2018年城北区块10千伏公变增容布点及低压台区改造项目八期工程（宏迅） 原停电结束时间为2019-12-09 17:30:00,为减少客户停电时间,加快工作进度,提前送电,现变更停电结束时间为2019-12-09 12:30:00","powerOffId":"2019112931020413"},{"poweroffId":2019112931020395,"sgpoweroffId":null,"subsName":"","lineName":"10kV长浜8407线","pubTranName":"草庵(11)农,","scope":"浙江省杭州市下城区蚕庙里1、2号楼附近","startTime":"2019-12-06 09:00:00","stopDate":"2019-12-06 10:30:00","orgNo":"3340101","typeCode":"临时停电","poweroffArea":"110kV长木变:长浜8407线-草庵十一农高压开关","poweroffReason":"东新街道中诸葛路蚕庙里1号楼东边表计新装 原停电结束时间为2019-12-06 17:30:00,为减少客户停电时间,加快工作进度,提前送电,现变更停电结束时间为2019-12-06 10:30:00","powerTime":"2019-12-06 09:42:24","powerComm":"已送电","subsNo":"","lineNo":"","tgNo":"","tgName":null,"infoStatus":"1","orgName":"浙江杭州电力客户服务中心","typeName":null,"infoStatusName":null,"dateDay":null,"orgNos":null,"nowTime":null,"countyName":null,"streetName":null,"villageName":null,"roadName":null,"communityName":null,"tranName":null,"sdLineName":null,"cityCode":"3340101","cityName":"浙江杭州电力客户服务中心","provinceCode":null,"stopTime":"2019-12-06 10:30:00","powerType":"全部","powerOffArea":"110kV长木变:长浜8407线-草庵十一农高压开关","powerOffReason":"东新街道中诸葛路蚕庙里1号楼东边表计新装 原停电结束时间为2019-12-06 17:30:00,为减少客户停电时间,加快工作进度,提前送电,现变更停电结束时间为2019-12-06 10:30:00","powerOffId":"2019112931020395"},{"poweroffId":2019112931020389,"sgpoweroffId":null,"subsName":"","lineName":"10kV蟹坟8575线","pubTranName":"珠埠里（2）,","scope":"浙江省杭州市下城区长德弄珠埠里43-89号附近","startTime":"2019-12-05 09:00:00","stopDate":"2019-12-05 12:00:00","orgNo":"3340101","typeCode":"临时停电","poweroffArea":"220kV霞湾变:蟹坟8575线-珠埠里二变高压开关（无低压总开）","poweroffReason":"长德弄开元商贸职业学校西边桥北表计新装 原停电结束时间为2019-12-05 17:30:00,为减少客户停电时间,加快工作进度,提前送电,现变更停电结束时间为2019-12-05 12:00:00","powerTime":"2019-12-05 11:15:59","powerComm":"已送电","subsNo":"","lineNo":"","tgNo":"","tgName":null,"infoStatus":"1","orgName":"浙江杭州电力客户服务中心","typeName":null,"infoStatusName":null,"dateDay":null,"orgNos":null,"nowTime":null,"countyName":null,"streetName":null,"villageName":null,"roadName":null,"communityName":null,"tranName":null,"sdLineName":null,"cityCode":"3340101","cityName":"浙江杭州电力客户服务中心","provinceCode":null,"stopTime":"2019-12-05 12:00:00","powerType":"全部","powerOffArea":"220kV霞湾变:蟹坟8575线-珠埠里二变高压开关（无低压总开）","powerOffReason":"长德弄开元商贸职业学校西边桥北表计新装 原停电结束时间为2019-12-05 17:30:00,为减少客户停电时间,加快工作进度,提前送电,现变更停电结束时间为2019-12-05 12:00:00","powerOffId":"2019112931020389"},{"poweroffId":2019112931020388,"sgpoweroffId":null,"subsName":"","lineName":"10kV满桂8793线","pubTranName":"石屋变,","scope":"浙江省杭州市西湖区下满觉陇路10号钱江管理处、下满觉陇路2号至16号附近一带、下满觉陇路26号至58号附近一带、下满觉陇路五老峰隧道口南侧附近一带","startTime":"2019-12-03 09:30:00","stopDate":"2019-12-03 14:40:00","orgNo":"3340101","typeCode":"临时停电","poweroffArea":"110kV花港变:满桂8793线-石变一线后段","poweroffReason":"浙江省杭州市西湖区西湖街道下满觉陇14号对面石屋变西一Ｔ接箱左侧草坪内。原停电结束时间为2019-12-03 17:30:00,为减少客户停电时间,加快工作进度,提前送电,现变更停电结束时间为2019-12-03 14:40:00","powerTime":"2019-12-03 13:48:59","powerComm":"已送电","subsNo":"","lineNo":"","tgNo":"","tgName":null,"infoStatus":"1","orgName":"浙江杭州电力客户服务中心","typeName":null,"infoStatusName":null,"dateDay":null,"orgNos":null,"nowTime":null,"countyName":null,"streetName":null,"villageName":null,"roadName":null,"communityName":null,"tranName":null,"sdLineName":null,"cityCode":"3340101","cityName":"浙江杭州电力客户服务中心","provinceCode":null,"stopTime":"2019-12-03 14:40:00","powerType":"全部","powerOffArea":"110kV花港变:满桂8793线-石变一线后段","powerOffReason":"浙江省杭州市西湖区西湖街道下满觉陇14号对面石屋变西一Ｔ接箱左侧草坪内。原停电结束时间为2019-12-03 17:30:00,为减少客户停电时间,加快工作进度,提前送电,现变更停电结束时间为2019-12-03 14:40:00","powerOffId":"2019112931020388"},{"poweroffId":2019112931020386,"sgpoweroffId":null,"subsName":"","lineName":"10kV亭子V190线","pubTranName":"临石公变1#,幸福家园(1),浙江临安汉丰电线有限公司,临安华顺包装材料有限公司,茅草湾,临石公变2号配变,临安岳山热处理厂,杭州杭氧和院房产开发有限公司,","scope":"浙江省-杭州市-临安市-青山湖街道-蒋杨行政村(蒋杨自然村,岳山自然村),青山湖街道(坎头行政村-坎头自然村,研口行政村-研口自然村);青山湖街道(临安华顺包装材料有限公司,浙江临安汉丰电有限公司)","startTime":"2019-11-29 13:09:00","stopDate":"2019-11-29 14:35:00","orgNo":"3340160","typeCode":"电网故障停限电","poweroffArea":"110kV青山变:亭子V190线毛草湾分线开关后段","poweroffReason":"高压开关跳闸 原停电结束时间为2019-11-29 17:00:00,为减少客户停电时间,加快工作进度,提前送电,现变更停电结束时间为2019-11-29 14:35:00","powerTime":"2019-11-29 14:22:22","powerComm":"已送电","subsNo":"","lineNo":"","tgNo":"","tgName":null,"infoStatus":"1","orgName":"国网浙江临安市供电公司","typeName":null,"infoStatusName":null,"dateDay":null,"orgNos":null,"nowTime":null,"countyName":null,"streetName":null,"villageName":null,"roadName":null,"communityName":null,"tranName":null,"sdLineName":null,"cityCode":"3340160","cityName":"国网浙江临安市供电公司","provinceCode":null,"stopTime":"2019-11-29 14:35:00","powerType":"全部","powerOffArea":"110kV青山变:亭子V190线毛草湾分线开关后段","powerOffReason":"高压开关跳闸 原停电结束时间为2019-11-29 17:00:00,为减少客户停电时间,加快工作进度,提前送电,现变更停电结束时间为2019-11-29 14:35:00","powerOffId":"2019112931020386"},{"poweroffId":2019112931020385,"sgpoweroffId":null,"subsName":"","lineName":"10kV洋绛D782线","pubTranName":"杭州市富阳区场口镇人民政府（鸿丰排涝）1#变,鸿丰村,","scope":"浙江省-杭州市-富阳区-场口镇(鸿丰村,杭州市富阳区场口镇人民政府)","startTime":"2019-11-29 13:04:00","stopDate":"2019-11-29 14:04:00","orgNo":"3340170","typeCode":"电网故障停限电","poweroffArea":"110kV王洲变:洋绛D782线鸿丰排涝支线后段","poweroffReason":"高压开关跳闸 原停电结束时间为2019-11-29 15:04:00,为减少客户停电时间,加快工作进度,提前送电,现变更停电结束时间为2019-11-29 14:04:00","powerTime":"2019-11-29 13:45:37","powerComm":"已送电","subsNo":"","lineNo":"","tgNo":"","tgName":null,"infoStatus":"1","orgName":"国网浙江杭州市富阳区供电公司","typeName":null,"infoStatusName":null,"dateDay":null,"orgNos":null,"nowTime":null,"countyName":null,"streetName":null,"villageName":null,"roadName":null,"communityName":null,"tranName":null,"sdLineName":null,"cityCode":"3340170","cityName":"国网浙江杭州市富阳区供电公司","provinceCode":null,"stopTime":"2019-11-29 14:04:00","powerType":"全部","powerOffArea":"110kV王洲变:洋绛D782线鸿丰排涝支线后段","powerOffReason":"高压开关跳闸 原停电结束时间为2019-11-29 15:04:00,为减少客户停电时间,加快工作进度,提前送电,现变更停电结束时间为2019-11-29 14:04:00","powerOffId":"2019112931020385"},{"poweroffId":2019112931020383,"sgpoweroffId":null,"subsName":"","lineName":"10kV西许C212线","pubTranName":"杭州辉聚汽车玻璃升降器制造有限公司,杭州萧山大地油脂有限公司,杭州新塘琉璃瓦厂,奇杰减速机,杭州求实物资有限公司,1#,杭州理和织物整理有限公司,登峰集团萧山久久交通设施有限公司,杭州建丰纸业有限公司,杭州建锋纸业有限公司,","scope":"浙江省-杭州市-萧山区-新塘街道-西许行政村(杭州萧山新塘街道西许村经济联合社,杭州辉聚汽车零部件有限公司,浙江久久交通设施有限公司,杭州民泰中药饮片有限公司,杭州奇杰减速机有限公司,杭州建锋纸业有限公司,杭州理和织物整理有限公司,杭州求实物资有限公司,杭州利炳化工贸易有限公司)","startTime":"2019-11-29 13:30:18","stopDate":"2019-11-29 14:30:18","orgNo":"3340130","typeCode":"电网故障停限电","poweroffArea":"110kV霞江变:西许C212线-西许C212线东发电子分线开关后段","poweroffReason":"外力破坏引起西许C212线高压架空线冒火故障","powerTime":"2019-11-29 14:28:21","powerComm":"已送电","subsNo":"","lineNo":"","tgNo":"","tgName":null,"infoStatus":"1","orgName":"国网浙江杭州市萧山区供电有限公司","typeName":null,"infoStatusName":null,"dateDay":null,"orgNos":null,"nowTime":null,"countyName":null,"streetName":null,"villageName":null,"roadName":null,"communityName":null,"tranName":null,"sdLineName":null,"cityCode":"3340130","cityName":"国网浙江杭州市萧山区供电有限公司","provinceCode":null,"stopTime":"2019-11-29 14:30:18","powerType":"全部","powerOffArea":"110kV霞江变:西许C212线-西许C212线东发电子分线开关后段","powerOffReason":"外力破坏引起西许C212线高压架空线冒火故障","powerOffId":"2019112931020383"},{"poweroffId":2019112931020380,"sgpoweroffId":null,"subsName":"","lineName":"10kV洋绛D782线","pubTranName":"杭州市富阳区场口镇人民政府1#变,红星农灌,","scope":"浙江省-杭州市-富阳区-场口镇-红星行政村(杭州市富阳区场口镇红星村股份经济合作社,杭州市富阳区场口镇人民政府)","startTime":"2019-11-29 13:03:21","stopDate":"2019-11-29 14:03:21","orgNo":"3340170","typeCode":"电网故障停限电","poweroffArea":"110kV王洲变:洋绛D782线-红星农灌支线后段","poweroffReason":"高压开关跳闸 原停电结束时间为2019-11-29 15:03:21,为减少客户停电时间,加快工作进度,提前送电,现变更停电结束时间为2019-11-29 14:03:21","powerTime":"2019-11-29 13:45:15","powerComm":"已送电","subsNo":"","lineNo":"","tgNo":"","tgName":null,"infoStatus":"1","orgName":"国网浙江杭州市富阳区供电公司","typeName":null,"infoStatusName":null,"dateDay":null,"orgNos":null,"nowTime":null,"countyName":null,"streetName":null,"villageName":null,"roadName":null,"communityName":null,"tranName":null,"sdLineName":null,"cityCode":"3340170","cityName":"国网浙江杭州市富阳区供电公司","provinceCode":null,"stopTime":"2019-11-29 14:03:21","powerType":"全部","powerOffArea":"110kV王洲变:洋绛D782线-红星农灌支线后段","powerOffReason":"高压开关跳闸 原停电结束时间为2019-11-29 15:03:21,为减少客户停电时间,加快工作进度,提前送电,现变更停电结束时间为2019-11-29 14:03:21","powerOffId":"2019112931020380"},{"poweroffId":2019112931020378,"sgpoweroffId":null,"subsName":"","lineName":"10kV陶春H558线","pubTranName":"前溪村陈坝畈公变,姚家排1,前溪村杨家村公变,前溪村李家村公变,浙江鼎盛交通建设有限公司6120816094,中森金属拉丝厂（速森电缆）,杭州余杭太平山股份经济合作社（军马场）6110116043,前溪村袁家公变,杭州余杭农林径山经营有限公司（蚕种场2）6111002533,前溪村招家堰公变,前溪村陈其畈公变,杭州余杭农林径山经营有限公司（天宝蚕种）6110118072,","scope":"浙江省-杭州市-余杭区-径山镇-径山行政村-径山自然村,径山镇-前溪行政村(前溪自然村,袁家桥自然村,陈基畈自然村,李上自然村,百步自然村,景子畈自然村,秦家墩自然村,陈家头自然村,王家墩自然村,崇阳庙自然村);径山镇(杭州余杭农林径山经营有限公司,杭州余杭太平山股份经济合作社,浙江鼎盛交通建设有限公司,杭州速森线缆材料有限公司,杭州余杭前溪股份经济合作社)","startTime":"2019-11-29 12:59:00","stopDate":"2019-11-29 15:30:00","orgNo":"3340140","typeCode":"电网故障停限电","poweroffArea":"110kV潘板变:陶春H558线李家村分线开关后段","poweroffReason":"高压开关跳闸","powerTime":"2019-11-29 14:37:00","powerComm":"已送电","subsNo":"","lineNo":"","tgNo":"","tgName":null,"infoStatus":"1","orgName":"国网浙江杭州市余杭区供电有限公司","typeName":null,"infoStatusName":null,"dateDay":null,"orgNos":null,"nowTime":null,"countyName":null,"streetName":null,"villageName":null,"roadName":null,"communityName":null,"tranName":null,"sdLineName":null,"cityCode":"3340140","cityName":"国网浙江杭州市余杭区供电有限公司","provinceCode":null,"stopTime":"2019-11-29 15:30:00","powerType":"全部","powerOffArea":"110kV潘板变:陶春H558线李家村分线开关后段","powerOffReason":"高压开关跳闸","powerOffId":"2019112931020378"},{"poweroffId":2019112931020372,"sgpoweroffId":null,"subsName":"","lineName":"10kV石码Y163线","pubTranName":"黄岙村饶家台区,黄岙村马家台区,黄岙村清塘坞台区,","scope":"浙江省-杭州市-建德市-更楼街道-黄岙行政村清塘坞自然村,马家自然村,饶家自然村一带用户。","startTime":"2019-11-29 12:55:00","stopDate":"2019-11-29 14:10:00","orgNo":"3340180","typeCode":"电网故障停限电","poweroffArea":"110kV更楼变:石码Y163线马家支线0#杆令克后段","poweroffReason":"高压开关跳闸","powerTime":"2019-11-29 13:34:00","powerComm":"已送电","subsNo":"","lineNo":"","tgNo":"","tgName":null,"infoStatus":"1","orgName":"国网浙江建德市供电有限公司","typeName":null,"infoStatusName":null,"dateDay":null,"orgNos":null,"nowTime":null,"countyName":null,"streetName":null,"villageName":null,"roadName":null,"communityName":null,"tranName":null,"sdLineName":null,"cityCode":"3340180","cityName":"国网浙江建德市供电有限公司","provinceCode":null,"stopTime":"2019-11-29 14:10:00","powerType":"全部","powerOffArea":"110kV更楼变:石码Y163线马家支线0#杆令克后段","powerOffReason":"高压开关跳闸","powerOffId":"2019112931020372"}],"pageModel":{"pageNow":787,"totalCount":17789,"totalPage":1779,"tableRows":0,"pageCount":10,"beginCount":7860},"isExperi":"1"}