{"message":"","today":"2020-06-15","seleList":[{"poweroffId":2019112931020267,"sgpoweroffId":null,"subsName":"","lineName":"10kV蓝顿8520线","pubTranName":"紫金（六）,紫金（五）,","scope":"浙江省杭州市西湖区紫金公寓小区1幢、4幢、5幢、9幢、10幢、13幢、16幢、20幢一带","startTime":"2019-12-13 09:00:00","stopDate":"2019-12-13 14:00:00","orgNo":"3340101","typeCode":"计划停电","poweroffArea":"110kV文三变:蓝顿8520线首端，紫金（五），紫金（六）之间","poweroffReason":"紫金小区等低压T接箱更换工程/1811HZ18010601A0000000紫金（五）变低压改造 原停电结束时间为2019-12-13 17:00:00,为减少客户停电时间,加快工作进度,提前送电,现变更停电结束时间为2019-12-13 14:00:00","powerTime":"2019-12-13 13:18:59","powerComm":"已送电","subsNo":"","lineNo":"","tgNo":"","tgName":null,"infoStatus":"1","orgName":"浙江杭州电力客户服务中心","typeName":null,"infoStatusName":null,"dateDay":null,"orgNos":null,"nowTime":null,"countyName":null,"streetName":null,"villageName":null,"roadName":null,"communityName":null,"tranName":null,"sdLineName":null,"cityCode":"3340101","cityName":"浙江杭州电力客户服务中心","provinceCode":null,"stopTime":"2019-12-13 14:00:00","powerType":"全部","powerOffArea":"110kV文三变:蓝顿8520线首端，紫金（五），紫金（六）之间","powerOffReason":"紫金小区等低压T接箱更换工程/1811HZ18010601A0000000紫金（五）变低压改造 原停电结束时间为2019-12-13 17:00:00,为减少客户停电时间,加快工作进度,提前送电,现变更停电结束时间为2019-12-13 14:00:00","powerOffId":"2019112931020267"},{"poweroffId":2019112931020266,"sgpoweroffId":null,"subsName":"","lineName":"10kV蓝顿8520线","pubTranName":"紫金（四）,","scope":"浙江省杭州市西湖区紫金公寓小区14幢、17幢、21幢一带","startTime":"2019-12-12 09:00:00","stopDate":"2019-12-12 14:00:00","orgNo":"3340101","typeCode":"计划停电","poweroffArea":"110kV文三变:蓝顿8520线-紫金（四）后段","poweroffReason":"紫金小区等低压T接箱更换工程/1811HZ18010601A0000000紫金四变低压改造 原停电结束时间为2019-12-12 17:00:00,为减少客户停电时间,加快工作进度,提前送电,现变更停电结束时间为2019-12-12 14:00:00","powerTime":"2019-12-12 13:11:59","powerComm":"已送电","subsNo":"","lineNo":"","tgNo":"","tgName":null,"infoStatus":"1","orgName":"浙江杭州电力客户服务中心","typeName":null,"infoStatusName":null,"dateDay":null,"orgNos":null,"nowTime":null,"countyName":null,"streetName":null,"villageName":null,"roadName":null,"communityName":null,"tranName":null,"sdLineName":null,"cityCode":"3340101","cityName":"浙江杭州电力客户服务中心","provinceCode":null,"stopTime":"2019-12-12 14:00:00","powerType":"全部","powerOffArea":"110kV文三变:蓝顿8520线-紫金（四）后段","powerOffReason":"紫金小区等低压T接箱更换工程/1811HZ18010601A0000000紫金四变低压改造 原停电结束时间为2019-12-12 17:00:00,为减少客户停电时间,加快工作进度,提前送电,现变更停电结束时间为2019-12-12 14:00:00","powerOffId":"2019112931020266"},{"poweroffId":2019112931020262,"sgpoweroffId":null,"subsName":"","lineName":"10kV袁沙6603线","pubTranName":"枫路施,之投施五,路灯箱变,绍兴沙(3),","scope":"浙江省杭州市西湖区转塘镇绍兴沙村一带","startTime":"2019-12-11 09:30:00","stopDate":"2019-12-11 16:30:00","orgNo":"3340101","typeCode":"计划停电","poweroffArea":"110kV周浦变:袁沙6603线-绍兴沙(3)开关后段","poweroffReason":"杭州市地铁集团有限责任公司杭富线一号隧道10KV电力管线迁改二期工程梧桐分线改接 原停电结束时间为2019-12-11 17:00:00,为减少客户停电时间,加快工作进度,提前送电,现变更停电结束时间为2019-12-11 16:30:00","powerTime":"2019-12-11 15:44:43","powerComm":"已送电","subsNo":"","lineNo":"","tgNo":"","tgName":null,"infoStatus":"1","orgName":"浙江杭州电力客户服务中心","typeName":null,"infoStatusName":null,"dateDay":null,"orgNos":null,"nowTime":null,"countyName":null,"streetName":null,"villageName":null,"roadName":null,"communityName":null,"tranName":null,"sdLineName":null,"cityCode":"3340101","cityName":"浙江杭州电力客户服务中心","provinceCode":null,"stopTime":"2019-12-11 16:30:00","powerType":"全部","powerOffArea":"110kV周浦变:袁沙6603线-绍兴沙(3)开关后段","powerOffReason":"杭州市地铁集团有限责任公司杭富线一号隧道10KV电力管线迁改二期工程梧桐分线改接 原停电结束时间为2019-12-11 17:00:00,为减少客户停电时间,加快工作进度,提前送电,现变更停电结束时间为2019-12-11 16:30:00","powerOffId":"2019112931020262"},{"poweroffId":2019112931020259,"sgpoweroffId":null,"subsName":"","lineName":"10kV袁沙6603线","pubTranName":"狮子头(2),","scope":"浙江省杭州市西湖区转塘镇狮子口村一带","startTime":"2019-12-10 09:30:00","stopDate":"2019-12-10 15:00:00","orgNo":"3340101","typeCode":"计划停电","poweroffArea":"110kV周浦变:袁沙6603线-狮子头(2)后段","poweroffReason":"杭州市地铁集团有限责任公司杭富线一号隧道10KV电力管线迁改二期工程狮头分线改接 原停电结束时间为2019-12-10 17:00,为减少客户停电时间,加快工作进度,提前送电,现变更停电结束时间为2019-12-10 15:00","powerTime":"2019-12-10 14:24:59","powerComm":"已送电","subsNo":"","lineNo":"","tgNo":"","tgName":null,"infoStatus":"1","orgName":"浙江杭州电力客户服务中心","typeName":null,"infoStatusName":null,"dateDay":null,"orgNos":null,"nowTime":null,"countyName":null,"streetName":null,"villageName":null,"roadName":null,"communityName":null,"tranName":null,"sdLineName":null,"cityCode":"3340101","cityName":"浙江杭州电力客户服务中心","provinceCode":null,"stopTime":"2019-12-10 15:00:00","powerType":"全部","powerOffArea":"110kV周浦变:袁沙6603线-狮子头(2)后段","powerOffReason":"杭州市地铁集团有限责任公司杭富线一号隧道10KV电力管线迁改二期工程狮头分线改接 原停电结束时间为2019-12-10 17:00,为减少客户停电时间,加快工作进度,提前送电,现变更停电结束时间为2019-12-10 15:00","powerOffId":"2019112931020259"},{"poweroffId":2019112931020258,"sgpoweroffId":null,"subsName":"","lineName":"10kV大岭8867线","pubTranName":"外桐(三),","scope":"浙江省杭州市西湖区外桐坞73号、76号、86号、87号、村委办公楼、公房、老年室一带","startTime":"2019-12-09 12:30:00","stopDate":"2019-12-09 14:00:00","orgNo":"3340101","typeCode":"计划停电","poweroffArea":"110kV留下变:大岭8867线-外桐(三)后段","poweroffReason":"(低压停电信息)2.转塘街道外桐坞社区村道外桐坞村委边公厕表计新装 原停电结束时间为2019-12-09 15:00:00,为减少客户停电时间,加快工作进度,提前送电,现变更停电结束时间为2019-12-09 14:00:00","powerTime":"2019-12-09 13:38:59","powerComm":"已送电","subsNo":"","lineNo":"","tgNo":"","tgName":null,"infoStatus":"1","orgName":"浙江杭州电力客户服务中心","typeName":null,"infoStatusName":null,"dateDay":null,"orgNos":null,"nowTime":null,"countyName":null,"streetName":null,"villageName":null,"roadName":null,"communityName":null,"tranName":null,"sdLineName":null,"cityCode":"3340101","cityName":"浙江杭州电力客户服务中心","provinceCode":null,"stopTime":"2019-12-09 14:00:00","powerType":"全部","powerOffArea":"110kV留下变:大岭8867线-外桐(三)后段","powerOffReason":"(低压停电信息)2.转塘街道外桐坞社区村道外桐坞村委边公厕表计新装 原停电结束时间为2019-12-09 15:00:00,为减少客户停电时间,加快工作进度,提前送电,现变更停电结束时间为2019-12-09 14:00:00","powerOffId":"2019112931020258"},{"poweroffId":2019112931020257,"sgpoweroffId":null,"subsName":"","lineName":"10kV大岭8867线","pubTranName":"外桐(一),","scope":"浙江省杭州市西湖区外桐坞顺家湾1号至6号、18号一带","startTime":"2019-12-09 09:30:00","stopDate":"2019-12-09 10:30:00","orgNo":"3340101","typeCode":"计划停电","poweroffArea":"110kV留下变:大岭8867线-外桐(一)后段","poweroffReason":"(低压停电信息)1.转塘街道外桐坞社区村道顺家湾公厕表计新装（金阳寿15067160345） 原停电结束时间为2019-12-09 15:00:00,为减少客户停电时间,加快工作进度,提前送电,现变更停电结束时间为2019-12-09 10:30:00","powerTime":"2019-12-09 10:10:59","powerComm":"已送电","subsNo":"","lineNo":"","tgNo":"","tgName":null,"infoStatus":"1","orgName":"浙江杭州电力客户服务中心","typeName":null,"infoStatusName":null,"dateDay":null,"orgNos":null,"nowTime":null,"countyName":null,"streetName":null,"villageName":null,"roadName":null,"communityName":null,"tranName":null,"sdLineName":null,"cityCode":"3340101","cityName":"浙江杭州电力客户服务中心","provinceCode":null,"stopTime":"2019-12-09 10:30:00","powerType":"全部","powerOffArea":"110kV留下变:大岭8867线-外桐(一)后段","powerOffReason":"(低压停电信息)1.转塘街道外桐坞社区村道顺家湾公厕表计新装（金阳寿15067160345） 原停电结束时间为2019-12-09 15:00:00,为减少客户停电时间,加快工作进度,提前送电,现变更停电结束时间为2019-12-09 10:30:00","powerOffId":"2019112931020257"},{"poweroffId":2019112931020255,"sgpoweroffId":null,"subsName":"","lineName":"10kV大岭8867线","pubTranName":"外桐(五),","scope":"浙江省杭州市西湖区外桐坞84号、103号、泵站东、水务公司、村委（云上堂）一带","startTime":"2019-12-09 13:30:00","stopDate":"2019-12-09 15:00:00","orgNo":"3340101","typeCode":"计划停电","poweroffArea":"110kV留下变:大岭8867线-外桐(五)后段","poweroffReason":"(低压停电信息)3.转塘街道外桐坞社区村道新农居点公厕表计新装","powerTime":"2019-12-09 14:01:59","powerComm":"已送电","subsNo":"","lineNo":"","tgNo":"","tgName":null,"infoStatus":"1","orgName":"浙江杭州电力客户服务中心","typeName":null,"infoStatusName":null,"dateDay":null,"orgNos":null,"nowTime":null,"countyName":null,"streetName":null,"villageName":null,"roadName":null,"communityName":null,"tranName":null,"sdLineName":null,"cityCode":"3340101","cityName":"浙江杭州电力客户服务中心","provinceCode":null,"stopTime":"2019-12-09 15:00:00","powerType":"全部","powerOffArea":"110kV留下变:大岭8867线-外桐(五)后段","powerOffReason":"(低压停电信息)3.转塘街道外桐坞社区村道新农居点公厕表计新装","powerOffId":"2019112931020255"},{"poweroffId":2019112931020247,"sgpoweroffId":null,"subsName":"","lineName":"10kV玫溪H822线","pubTranName":"华丰村茹家桥,","scope":"浙江省-杭州市-余杭区-闲林街道-华丰行政村(华丰自然村,茹家桥南自然村,干家埭自然村,茹家桥北自然村),闲林街道(何母桥行政村-何母桥自然村,民丰行政村-民丰自然村)","startTime":"2019-11-29 10:32:42","stopDate":"2019-11-29 14:32:42","orgNo":"3340140","typeCode":"电网故障停限电","poweroffArea":"110kV油车变:玫溪H822线-茹家桥分线开关后段","poweroffReason":"高压开关跳闸","powerTime":"2019-11-29 13:45:41","powerComm":"已送电","subsNo":"","lineNo":"","tgNo":"","tgName":null,"infoStatus":"1","orgName":"国网浙江杭州市余杭区供电有限公司","typeName":null,"infoStatusName":null,"dateDay":null,"orgNos":null,"nowTime":null,"countyName":null,"streetName":null,"villageName":null,"roadName":null,"communityName":null,"tranName":null,"sdLineName":null,"cityCode":"3340140","cityName":"国网浙江杭州市余杭区供电有限公司","provinceCode":null,"stopTime":"2019-11-29 14:32:42","powerType":"全部","powerOffArea":"110kV油车变:玫溪H822线-茹家桥分线开关后段","powerOffReason":"高压开关跳闸","powerOffId":"2019112931020247"},{"poweroffId":2019112931020244,"sgpoweroffId":null,"subsName":"","lineName":"10kV三鑫T277线","pubTranName":"东毛村1号公变,","scope":"浙江省-杭州市-桐庐县-凤川街道-大源行政村-东毛自然村","startTime":"2019-12-13 08:30:00","stopDate":"2019-12-13 12:30:00","orgNo":"3340150","typeCode":"计划停电","poweroffArea":"110kV石阜变:三鑫T277线-东毛F7095令克后段","poweroffReason":"东毛村1号公变安装三相不平衡电流调节装置工作","powerTime":"2019-12-13 12:19:30","powerComm":"已送电","subsNo":"","lineNo":"","tgNo":"","tgName":null,"infoStatus":"1","orgName":"国网浙江桐庐县供电公司","typeName":null,"infoStatusName":null,"dateDay":null,"orgNos":null,"nowTime":null,"countyName":null,"streetName":null,"villageName":null,"roadName":null,"communityName":null,"tranName":null,"sdLineName":null,"cityCode":"3340150","cityName":"国网浙江桐庐县供电公司","provinceCode":null,"stopTime":"2019-12-13 12:30:00","powerType":"全部","powerOffArea":"110kV石阜变:三鑫T277线-东毛F7095令克后段","powerOffReason":"东毛村1号公变安装三相不平衡电流调节装置工作","powerOffId":"2019112931020244"},{"poweroffId":2019112931020243,"sgpoweroffId":null,"subsName":"","lineName":"10kV三鑫T277线","pubTranName":"上店村2号公变,","scope":"浙江省-杭州市-桐庐县-凤川街道-外源行政村-上店自然村","startTime":"2019-12-11 08:30:00","stopDate":"2019-12-11 12:30:00","orgNo":"3340150","typeCode":"计划停电","poweroffArea":"110kV石阜变:三鑫T277线-上店F7077令克后段","poweroffReason":"上店村2号公变安装三相不平衡电流调节装置工作","powerTime":"2019-12-11 12:02:02","powerComm":"已送电","subsNo":"","lineNo":"","tgNo":"","tgName":null,"infoStatus":"1","orgName":"国网浙江桐庐县供电公司","typeName":null,"infoStatusName":null,"dateDay":null,"orgNos":null,"nowTime":null,"countyName":null,"streetName":null,"villageName":null,"roadName":null,"communityName":null,"tranName":null,"sdLineName":null,"cityCode":"3340150","cityName":"国网浙江桐庐县供电公司","provinceCode":null,"stopTime":"2019-12-11 12:30:00","powerType":"全部","powerOffArea":"110kV石阜变:三鑫T277线-上店F7077令克后段","powerOffReason":"上店村2号公变安装三相不平衡电流调节装置工作","powerOffId":"2019112931020243"}],"pageModel":{"pageNow":789,"totalCount":17789,"totalPage":1779,"tableRows":0,"pageCount":10,"beginCount":7880},"isExperi":"1"}