{"message":"","today":"2020-06-15","seleList":[{"poweroffId":2019112731020311,"sgpoweroffId":null,"subsName":"","lineName":"10kV靖渭A337线","pubTranName":"靖一村12#变,","scope":"浙江省-杭州市-萧山区-瓜沥镇-靖一行政村-靖一自然村","startTime":"2019-12-05 08:30:00","stopDate":"2019-12-05 14:30:00","orgNo":"3340130","typeCode":"计划停电","poweroffArea":"110kV靖江变:靖渭A337线-靖一村12#变后段","poweroffReason":"靖渭A337线04/11#杆靖一村12#变下200kVA上400kVA，更换跌落式保险器开关1套、低压综合配电柜（带电作业配合）","powerTime":"2019-12-05 14:04:36","powerComm":"已送电","subsNo":"","lineNo":"","tgNo":"","tgName":null,"infoStatus":"1","orgName":"国网浙江杭州市萧山区供电有限公司","typeName":null,"infoStatusName":null,"dateDay":null,"orgNos":null,"nowTime":null,"countyName":null,"streetName":null,"villageName":null,"roadName":null,"communityName":null,"tranName":null,"sdLineName":null,"cityCode":"3340130","cityName":"国网浙江杭州市萧山区供电有限公司","provinceCode":null,"stopTime":"2019-12-05 14:30:00","powerType":"全部","powerOffArea":"110kV靖江变:靖渭A337线-靖一村12#变后段","powerOffReason":"靖渭A337线04/11#杆靖一村12#变下200kVA上400kVA，更换跌落式保险器开关1套、低压综合配电柜（带电作业配合）","powerOffId":"2019112731020311"},{"poweroffId":2019112731020310,"sgpoweroffId":null,"subsName":"","lineName":"10kV靖渭A337线","pubTranName":"靖一村9#变,","scope":"浙江省-杭州市-萧山区-瓜沥镇-靖一行政村-靖一自然村","startTime":"2019-12-05 08:30:00","stopDate":"2019-12-05 14:30:00","orgNo":"3340130","typeCode":"计划停电","poweroffArea":"110kV靖江变:靖渭A337线-靖一村9#变后段","poweroffReason":"靖渭A337线32/A05#杆靖一村9#200kVA上400kVA，更换跌落式保险器开关1套、低压综合配电柜（带电作业配合）","powerTime":"2019-12-05 13:59:03","powerComm":"已送电","subsNo":"","lineNo":"","tgNo":"","tgName":null,"infoStatus":"1","orgName":"国网浙江杭州市萧山区供电有限公司","typeName":null,"infoStatusName":null,"dateDay":null,"orgNos":null,"nowTime":null,"countyName":null,"streetName":null,"villageName":null,"roadName":null,"communityName":null,"tranName":null,"sdLineName":null,"cityCode":"3340130","cityName":"国网浙江杭州市萧山区供电有限公司","provinceCode":null,"stopTime":"2019-12-05 14:30:00","powerType":"全部","powerOffArea":"110kV靖江变:靖渭A337线-靖一村9#变后段","powerOffReason":"靖渭A337线32/A05#杆靖一村9#200kVA上400kVA，更换跌落式保险器开关1套、低压综合配电柜（带电作业配合）","powerOffId":"2019112731020310"},{"poweroffId":2019112731020308,"sgpoweroffId":null,"subsName":"","lineName":"10kV靖渭A337线","pubTranName":"靖一村6#变,","scope":"浙江省-杭州市-萧山区-瓜沥镇-靖一行政村-靖一自然村","startTime":"2019-12-05 08:30:00","stopDate":"2019-12-05 14:30:00","orgNo":"3340130","typeCode":"计划停电","poweroffArea":"110kV靖江变:靖渭A337线-靖一村6#变后段","poweroffReason":"靖渭A337线12#杆靖一村6#变下250kVA上400kVA，更换跌落式保险器开关1套、低压综合配电柜（带电作业配合）","powerTime":"2019-12-05 14:06:30","powerComm":"已送电","subsNo":"","lineNo":"","tgNo":"","tgName":null,"infoStatus":"1","orgName":"国网浙江杭州市萧山区供电有限公司","typeName":null,"infoStatusName":null,"dateDay":null,"orgNos":null,"nowTime":null,"countyName":null,"streetName":null,"villageName":null,"roadName":null,"communityName":null,"tranName":null,"sdLineName":null,"cityCode":"3340130","cityName":"国网浙江杭州市萧山区供电有限公司","provinceCode":null,"stopTime":"2019-12-05 14:30:00","powerType":"全部","powerOffArea":"110kV靖江变:靖渭A337线-靖一村6#变后段","powerOffReason":"靖渭A337线12#杆靖一村6#变下250kVA上400kVA，更换跌落式保险器开关1套、低压综合配电柜（带电作业配合）","powerOffId":"2019112731020308"},{"poweroffId":2019112731020297,"sgpoweroffId":null,"subsName":"","lineName":"10kV联益G958线","pubTranName":"水厂总泵2#,金兔旅游用品,运河镇兴旺村杨家墩新区南公变,农业综合开发办,杭州涌运金属回收有限公司,水务公司基建变（亭趾）,也万加和,运河镇兴旺村北田头南公变,运河镇兴旺村北兴公变,水厂总泵2#,杭州康宁丝绸有限公司,奥赛德布艺2#,亭趾前方桥泵站,杨家墩排涝,杭州余杭都杭织造有限公司,水厂总泵1#,运河镇兴旺村北田头北2号公变,运河街道兴旺农居点3#变压器,奥赛德布艺1#,浙江杭州余杭农村商业银行股份有限公司运河支行,众聚园纺织（6110206069）1#变,运河镇兴旺村北田头北公变,运河镇兴旺村杨家墩新区北,温州大都市建设开发有限公司,运河镇兴旺村杨家墩腾桥公变,杭州奥赛德布艺有限公司（6110206055）03号专变,杭州海发纺织植绒有限公司,运河镇兴旺村杨家墩新区3号公变,兴旺村北兴2号公变,杭州圣艾侬壁布有限公司,运河镇兴旺村金家角南公变,运河镇运河供电营业所公变,运河镇亭趾村前方桥公变,兴旺村金家角2号公变,","scope":"浙江省-杭州市-余杭区-运河街道-兴旺行政村(兴旺自然村,杨家墩,杨介墩,联新路,杨家墩自然村,兴旺,北田头自然村),运河街道-亭趾行政村(亭趾自然村,前方桥自然村,亭趾),运河街道-亭趾社区-日辉路,东湖街道-红丰社区-东湖北路;塘栖镇-丁河庞家墩村杨家墩,运河街道(亭趾前方桥泵站,杭州向东机械制造有限公司,农业综合开发办,杭州海发纺织植绒有限公司,杭州义千实业有限公司,杭州余杭制水有限公司,杭州余杭区运河镇亭趾妙庆冲板场,杭州奥赛德布艺有限公司,杭州康宁丝绸有限公司,温州大都市建设开发有限公司余杭分公司,浙江杭州余杭农村商业银行股份有限公司,杭州市余杭区人民政府运河街道办事处,杭州众聚园纺织有限公司,杭州圣艾侬壁布有限公司,杭州涌运金属回收有限公司)","startTime":"2019-11-27 16:16:00","stopDate":"2019-11-27 20:16:00","orgNo":"3340140","typeCode":"电网故障停限电","poweroffArea":"110kV博陆变:联益G958线联益G9581开关后段","poweroffReason":"高压开关跳闸 原停电结束时间为2019-11-27 18:16:00,因现场环境复杂原因,现变更停电结束时间为2019-11-27 20:16:00","powerTime":"2019-11-27 19:21:11","powerComm":"已送电","subsNo":"","lineNo":"","tgNo":"","tgName":null,"infoStatus":"1","orgName":"国网浙江杭州市余杭区供电有限公司","typeName":null,"infoStatusName":null,"dateDay":null,"orgNos":null,"nowTime":null,"countyName":null,"streetName":null,"villageName":null,"roadName":null,"communityName":null,"tranName":null,"sdLineName":null,"cityCode":"3340140","cityName":"国网浙江杭州市余杭区供电有限公司","provinceCode":null,"stopTime":"2019-11-27 20:16:00","powerType":"全部","powerOffArea":"110kV博陆变:联益G958线联益G9581开关后段","powerOffReason":"高压开关跳闸 原停电结束时间为2019-11-27 18:16:00,因现场环境复杂原因,现变更停电结束时间为2019-11-27 20:16:00","powerOffId":"2019112731020297"},{"poweroffId":2019112731020288,"sgpoweroffId":null,"subsName":"","lineName":"10kV大市T141线","pubTranName":"丰坞1号公变,大市1号公变,寺坞电站,桐庐云溪上文化传播有限公司变压器,桐庐科特化工有限公司变压器,桐庐利达水电有限公司,长丘田1号公变,桐庐乐之野酒店管理有限公司变压器,直坑1号公变,龙家山1号公变,桐庐县横村镇龙峰养殖场,桐庐静林酒店管理有限公司变压器,桐庐钟山蜜梨专业合作社,桐庐科特化工有限公司,钟山寺坞水库,大市2号公变,大市3号公变,桐庐中大石材有限责任公司,静林寺1号公变,","scope":"浙江省-杭州市-桐庐县-横村镇-白云行政村-丰坞,钟山乡-大市行政村(长丘田自然村,静林寺自然村,大市自然村,坞里自然村,龙家山自然村,烂田坞自然村,直坑自然村);浙江省-杭州市-桐庐县-横村镇-白云行政村-桐庐县横村镇龙峰养殖场,钟山乡-大市行政村(桐庐钟山蜜梨专业合作社,桐庐中大立荣石材有限公司,桐庐科特化工有限公司,桐庐利达水电有限公司,钟山寺坞水库,桐庐云溪上文化传播有限公司,桐庐乐之野酒店管理有限公司)","startTime":"2019-11-27 15:55:23","stopDate":"2019-11-27 17:40:23","orgNo":"3340150","typeCode":"电网故障停限电","poweroffArea":"35kV钟山变:大市T141线-大市T1419开关后段","poweroffReason":"高压开关跳闸 原停电结束时间为2019-11-27 22:00:23,为减少客户停电时间,加快工作进度,提前送电,现变更停电结束时间为2019-11-27 17:40:23","powerTime":"2019-11-27 17:23:20","powerComm":"已送电","subsNo":"","lineNo":"","tgNo":"","tgName":null,"infoStatus":"1","orgName":"国网浙江桐庐县供电公司","typeName":null,"infoStatusName":null,"dateDay":null,"orgNos":null,"nowTime":null,"countyName":null,"streetName":null,"villageName":null,"roadName":null,"communityName":null,"tranName":null,"sdLineName":null,"cityCode":"3340150","cityName":"国网浙江桐庐县供电公司","provinceCode":null,"stopTime":"2019-11-27 17:40:23","powerType":"全部","powerOffArea":"35kV钟山变:大市T141线-大市T1419开关后段","powerOffReason":"高压开关跳闸 原停电结束时间为2019-11-27 22:00:23,为减少客户停电时间,加快工作进度,提前送电,现变更停电结束时间为2019-11-27 17:40:23","powerOffId":"2019112731020288"},{"poweroffId":2019112731020285,"sgpoweroffId":null,"subsName":"","lineName":"10kV寿镇Y183线","pubTranName":"寿昌集镇东昌北路公变,","scope":"浙江省-杭州市-建德市-寿昌镇-望江社区湖心巷40号-A-东昌社区 东昌北路西湖山背4号，东盛公寓2幢一带用户","startTime":"2019-11-27 15:34:00","stopDate":"2019-11-27 17:00:00","orgNo":"3340180","typeCode":"电网故障停限电","poweroffArea":"35kV河南里变:寿镇Y183线-寿昌集镇东昌北路公变后段","poweroffReason":"(低压停电信息)低压开关跳闸 原停电结束时间为2019-11-27 18:00:00,为减少客户停电时间,加快工作进度,提前送电,现变更停电结束时间为2019-11-27 17:00:00","powerTime":"2019-11-27 16:25:19","powerComm":"已送电","subsNo":"","lineNo":"","tgNo":"","tgName":null,"infoStatus":"1","orgName":"国网浙江建德市供电有限公司","typeName":null,"infoStatusName":null,"dateDay":null,"orgNos":null,"nowTime":null,"countyName":null,"streetName":null,"villageName":null,"roadName":null,"communityName":null,"tranName":null,"sdLineName":null,"cityCode":"3340180","cityName":"国网浙江建德市供电有限公司","provinceCode":null,"stopTime":"2019-11-27 17:00:00","powerType":"全部","powerOffArea":"35kV河南里变:寿镇Y183线-寿昌集镇东昌北路公变后段","powerOffReason":"(低压停电信息)低压开关跳闸 原停电结束时间为2019-11-27 18:00:00,为减少客户停电时间,加快工作进度,提前送电,现变更停电结束时间为2019-11-27 17:00:00","powerOffId":"2019112731020285"},{"poweroffId":2019112731020236,"sgpoweroffId":null,"subsName":"","lineName":"10kV南丰C699线","pubTranName":"杭州德信锦玉置业有限公司1#变,南丰小区2#变,杭州德信锦玉置业有限公司2#变,南丰村6#变,南丰村4#变,南丰村15#变,南丰村10#变,","scope":"浙江省-杭州市-萧山区-南阳街道-南丰行政村(南丰自然村,南丰大道);浙江省-杭州市-萧山区-南阳街道-南丰行政村-杭州德信锦玉置业有限公司一带","startTime":"2019-11-27 14:15:46","stopDate":"2019-11-27 17:40:46","orgNo":"3340130","typeCode":"电网故障停限电","poweroffArea":"35kV赭山变:南丰C699线-南丰C6993开关后段","poweroffReason":"高压柱上断路器短路故障 原停电结束时间为2019-11-27 17:20:46,因抢修工作难度大的原因,现变更停电结束时间为2019-11-27 17:40:46","powerTime":"2019-11-27 17:15:17","powerComm":"已送电","subsNo":"","lineNo":"","tgNo":"","tgName":null,"infoStatus":"1","orgName":"国网浙江杭州市萧山区供电有限公司","typeName":null,"infoStatusName":null,"dateDay":null,"orgNos":null,"nowTime":null,"countyName":null,"streetName":null,"villageName":null,"roadName":null,"communityName":null,"tranName":null,"sdLineName":null,"cityCode":"3340130","cityName":"国网浙江杭州市萧山区供电有限公司","provinceCode":null,"stopTime":"2019-11-27 17:40:46","powerType":"全部","powerOffArea":"35kV赭山变:南丰C699线-南丰C6993开关后段","powerOffReason":"高压柱上断路器短路故障 原停电结束时间为2019-11-27 17:20:46,因抢修工作难度大的原因,现变更停电结束时间为2019-11-27 17:40:46","powerOffId":"2019112731020236"},{"poweroffId":2019112731020230,"sgpoweroffId":null,"subsName":"","lineName":"10kV永民A819线","pubTranName":"1#变,远大村13#变,远大村14#变,远大村3#变,南翔村12#变,南阳赭红小区3#变,长远电镀厂,1#变,中铁三局集团有限公司,1#,东风村1#变,远大村7#变,南阳赭红小区6#变,南阳赭红小区9#变,南阳赭红小区12#变,南阳赭红小区15#变,南阳赭红小区8#变,伊舒蒙卫浴,1#变,南阳赭红小区2#变,远大村10#变,长远电镀厂(1315077218),东风村10#变,东风村8#变,南阳赭红小区10#变,南阳赭红小区14#变,杭州海鑫伞业有限公司,杭州双莎印刷厂,东风村3#变,南阳赭红小区4#变,南阳赭红小区7#变,沙田制冰,君朋地毯,南阳赭红小区1#变,东风村2#变,远大村5#变,南阳赭红小区5#变,远大村2#变,远大村8#变,南阳赭红小区13#变,南阳赭红小区11#变,","scope":"浙江省-杭州市-萧山区-南阳街道-南翔行政村(南翔自然村,南阳自然村),南阳街道-远大行政村(长远自然村,远大自然村,南围自然村),南阳街道-东风行政村(东风自然村,向阳路),南阳街道(赭东行政村-经四路,红山行政村-经四路);南阳街道-远大行政村(杭州沙田制冰有限公司,杭州萧山长远电镀灯饰有限公司,普特拉克实业（杭州）有限公司,杭州市萧山区人民政府南阳街道办事处),南阳街道-东风行政村、杭州君朋地毯材料有限公司,杭州伊舒蒙卫浴有限公司,杭州市萧山区南阳街道社区卫生服务中心,杭州勤诚塑料包装材料有限公司,中铁三局集团有限公司、南阳街道-赭山社区(杭州海鑫伞业有限公司,杭州双莎印刷厂一带","startTime":"2019-11-27 14:15:39","stopDate":"2019-11-27 17:20:39","orgNo":"3340130","typeCode":"电网故障停限电","poweroffArea":"110kV黎明变:永民A819线-南赭A8192开关后段","poweroffReason":"高压柱上断路器短路故障","powerTime":"2019-11-27 16:46:34","powerComm":"已送电","subsNo":"","lineNo":"","tgNo":"","tgName":null,"infoStatus":"1","orgName":"国网浙江杭州市萧山区供电有限公司","typeName":null,"infoStatusName":null,"dateDay":null,"orgNos":null,"nowTime":null,"countyName":null,"streetName":null,"villageName":null,"roadName":null,"communityName":null,"tranName":null,"sdLineName":null,"cityCode":"3340130","cityName":"国网浙江杭州市萧山区供电有限公司","provinceCode":null,"stopTime":"2019-11-27 17:20:39","powerType":"全部","powerOffArea":"110kV黎明变:永民A819线-南赭A8192开关后段","powerOffReason":"高压柱上断路器短路故障","powerOffId":"2019112731020230"},{"poweroffId":2019112731020221,"sgpoweroffId":null,"subsName":"","lineName":"10kV栋山D410线","pubTranName":"晖山村2号水竹坑公变,","scope":"浙江省-杭州市-富阳区-鹿山街道-南山行政村(水竹坑自然村,晖山自然村)","startTime":"2019-11-27 13:36:57","stopDate":"2019-11-27 14:36:57","orgNo":"3340170","typeCode":"电网故障停限电","poweroffArea":"110kV长春变:栋山D410线-晖山村2#水竹坑公变后段","poweroffReason":"(低压停电信息)低压开关跳闸","powerTime":"2019-11-27 14:17:38","powerComm":"已送电","subsNo":"","lineNo":"","tgNo":"","tgName":null,"infoStatus":"1","orgName":"国网浙江杭州市富阳区供电公司","typeName":null,"infoStatusName":null,"dateDay":null,"orgNos":null,"nowTime":null,"countyName":null,"streetName":null,"villageName":null,"roadName":null,"communityName":null,"tranName":null,"sdLineName":null,"cityCode":"3340170","cityName":"国网浙江杭州市富阳区供电公司","provinceCode":null,"stopTime":"2019-11-27 14:36:57","powerType":"全部","powerOffArea":"110kV长春变:栋山D410线-晖山村2#水竹坑公变后段","powerOffReason":"(低压停电信息)低压开关跳闸","powerOffId":"2019112731020221"},{"poweroffId":2019112731020211,"sgpoweroffId":null,"subsName":"","lineName":"10kV蔡家D893线","pubTranName":"新华村新华4#村西公变,","scope":"浙江省-杭州市-富阳区-灵桥镇-新华行政村(倪家滩自然村,新华自然村)","startTime":"2019-11-27 13:22:30","stopDate":"2019-11-27 15:22:30","orgNo":"3340170","typeCode":"电网故障停限电","poweroffArea":"110kV永春变:蔡家D893线-新华村新华4#村西公变开关后段","poweroffReason":"高压开关跳闸","powerTime":"2019-11-27 14:25:26","powerComm":"已送电","subsNo":"","lineNo":"","tgNo":"","tgName":null,"infoStatus":"1","orgName":"国网浙江杭州市富阳区供电公司","typeName":null,"infoStatusName":null,"dateDay":null,"orgNos":null,"nowTime":null,"countyName":null,"streetName":null,"villageName":null,"roadName":null,"communityName":null,"tranName":null,"sdLineName":null,"cityCode":"3340170","cityName":"国网浙江杭州市富阳区供电公司","provinceCode":null,"stopTime":"2019-11-27 15:22:30","powerType":"全部","powerOffArea":"110kV永春变:蔡家D893线-新华村新华4#村西公变开关后段","powerOffReason":"高压开关跳闸","powerOffId":"2019112731020211"}],"pageModel":{"pageNow":797,"totalCount":17789,"totalPage":1779,"tableRows":0,"pageCount":10,"beginCount":7960},"isExperi":"1"}