{"message":"","today":"2020-06-15","seleList":[{"poweroffId":2019112731020043,"sgpoweroffId":null,"subsName":"","lineName":"10kV彭家D342线","pubTranName":"何家村4#新桥头公变,","scope":"浙江省-杭州市-富阳区-万市镇-何家行政村(新桥头自然村,何家自然村,潘家自然村,张家自然村,全家庄自然村)","startTime":"2019-11-27 08:42:36","stopDate":"2019-11-27 09:42:44","orgNo":"3340170","typeCode":"电网故障停限电","poweroffArea":"110kV万市变:彭家D342线-何家村4#新桥头公变后段","poweroffReason":"高压开关跳闸，原停电结束时间为2019-11-27 08:42:44,因天气原因,现变更停电结束时间为2019-11-27 09:42:44","powerTime":"2019-11-27 09:30:11","powerComm":"已送电","subsNo":"","lineNo":"","tgNo":"","tgName":null,"infoStatus":"1","orgName":"国网浙江杭州市富阳区供电公司","typeName":null,"infoStatusName":null,"dateDay":null,"orgNos":null,"nowTime":null,"countyName":null,"streetName":null,"villageName":null,"roadName":null,"communityName":null,"tranName":null,"sdLineName":null,"cityCode":"3340170","cityName":"国网浙江杭州市富阳区供电公司","provinceCode":null,"stopTime":"2019-11-27 09:42:44","powerType":"全部","powerOffArea":"110kV万市变:彭家D342线-何家村4#新桥头公变后段","powerOffReason":"高压开关跳闸，原停电结束时间为2019-11-27 08:42:44,因天气原因,现变更停电结束时间为2019-11-27 09:42:44","powerOffId":"2019112731020043"},{"poweroffId":2019112731020021,"sgpoweroffId":null,"subsName":"","lineName":"10kV陈园C841线","pubTranName":"陈家园村15#变,","scope":"浙江省-杭州市-萧山区-新街镇、新街街道-陈家园行政村-陈家园自然村等一带","startTime":"2019-11-27 08:03:51","stopDate":"2019-11-27 13:15:51","orgNo":"3340130","typeCode":"电网故障停限电","poweroffArea":"110kV罗山变:陈园C841线-陈家园村15#变台区低压开关","poweroffReason":"（低压停电信息）低压漏电保护器短路故障 原停电结束时间为2019-11-27 18:02:51,为减少客户停电时间,加快工作进度,提前送电,现变更停电结束时间为2019-11-27 13:15:51","powerTime":"2019-11-27 12:36:30","powerComm":"已送电","subsNo":"","lineNo":"","tgNo":"","tgName":null,"infoStatus":"1","orgName":"国网浙江杭州市萧山区供电有限公司","typeName":null,"infoStatusName":null,"dateDay":null,"orgNos":null,"nowTime":null,"countyName":null,"streetName":null,"villageName":null,"roadName":null,"communityName":null,"tranName":null,"sdLineName":null,"cityCode":"3340130","cityName":"国网浙江杭州市萧山区供电有限公司","provinceCode":null,"stopTime":"2019-11-27 13:15:51","powerType":"全部","powerOffArea":"110kV罗山变:陈园C841线-陈家园村15#变台区低压开关","powerOffReason":"（低压停电信息）低压漏电保护器短路故障 原停电结束时间为2019-11-27 18:02:51,为减少客户停电时间,加快工作进度,提前送电,现变更停电结束时间为2019-11-27 13:15:51","powerOffId":"2019112731020021"},{"poweroffId":2019112731020019,"sgpoweroffId":null,"subsName":"","lineName":"10kV东安D140线","pubTranName":"恒鑫贤明府8#变,","scope":"浙江省-杭州市-富阳区-新登镇-南津行政村-贤明路","startTime":"2019-11-27 07:02:00","stopDate":"2019-11-27 12:00:00","orgNo":"3340170","typeCode":"电网故障停限电","poweroffArea":"110kV新登变:东安D140线恒鑫贤明府8#变配变","poweroffReason":"高压开关跳闸，原停电结束时间为2019-11-27 09:02:00,因现场抢修难度大原因,现变更停电结束时间为2019-11-27 12:00:00","powerTime":"2019-11-27 11:13:38","powerComm":"已送电","subsNo":"","lineNo":"","tgNo":"","tgName":null,"infoStatus":"1","orgName":"国网浙江杭州市富阳区供电公司","typeName":null,"infoStatusName":null,"dateDay":null,"orgNos":null,"nowTime":null,"countyName":null,"streetName":null,"villageName":null,"roadName":null,"communityName":null,"tranName":null,"sdLineName":null,"cityCode":"3340170","cityName":"国网浙江杭州市富阳区供电公司","provinceCode":null,"stopTime":"2019-11-27 12:00:00","powerType":"全部","powerOffArea":"110kV新登变:东安D140线恒鑫贤明府8#变配变","powerOffReason":"高压开关跳闸，原停电结束时间为2019-11-27 09:02:00,因现场抢修难度大原因,现变更停电结束时间为2019-11-27 12:00:00","powerOffId":"2019112731020019"},{"poweroffId":2019112731020018,"sgpoweroffId":null,"subsName":"","lineName":"10kV贤德D333线","pubTranName":"贤德村11#赤山坞公变,","scope":"浙江省-杭州市-富阳区-洞桥镇-贤德行政村(何村坞自然村,吕公自然村,农居点自然村,罗家坞自然村,宜桥头自然村,中塘寺自然村,黄家自然村)","startTime":"2019-11-27 07:50:53","stopDate":"2019-11-27 09:50:53","orgNo":"3340170","typeCode":"电网故障停限电","poweroffArea":"110kV万市变:贤德D333线-贤德村11#赤山坞公变后段","poweroffReason":"高压开关跳闸","powerTime":"2019-11-27 08:52:51","powerComm":"已送电","subsNo":"","lineNo":"","tgNo":"","tgName":null,"infoStatus":"1","orgName":"国网浙江杭州市富阳区供电公司","typeName":null,"infoStatusName":null,"dateDay":null,"orgNos":null,"nowTime":null,"countyName":null,"streetName":null,"villageName":null,"roadName":null,"communityName":null,"tranName":null,"sdLineName":null,"cityCode":"3340170","cityName":"国网浙江杭州市富阳区供电公司","provinceCode":null,"stopTime":"2019-11-27 09:50:53","powerType":"全部","powerOffArea":"110kV万市变:贤德D333线-贤德村11#赤山坞公变后段","powerOffReason":"高压开关跳闸","powerOffId":"2019112731020018"},{"poweroffId":2019112731020017,"sgpoweroffId":null,"subsName":"","lineName":"10kV东安D140线","pubTranName":"银河小区1#公变,东安雅苑2#公变,南北双溪天城3#公变,杭州富阳凯旋门大酒店,恒鑫贤明府3#变,东安路1号桃园公变,恒鑫贤明府4#变,城东1#公变,天豪登云大厦1#变,恒鑫贤明府6#变,伟业包装,南北双溪天城9#公变,恒鑫贤明府5#变,恒鑫贤明府1#变,恒鑫贤明府7#变,双塔村4#电管站变,爱的涂装,恒鑫贤明府2#变,南北双溪天城2#公变,南北双溪天城1#公变,恒鑫贤明府8#变,南北双溪天城6#公变,富阳长城包装有限公司,南北双溪天城4#公变,东安雅苑1#公变,城东3#公变,富阳长城包装有限公司,富阳市万全包装印刷厂,兴隆管业2#变,兴隆管业1#变,南北双溪天城7#公变,神州合金,南北双溪天城5#公变,青云桥1#公变,东安路2#金腾公变,南北双溪天城10#公变,1#,城东2#公变,南北双溪天城8#公变,","scope":"浙江省-杭州市-富阳区-新登镇-南津行政村(贤明路,罗隐路,葛溪南路),新登镇-双塔行政村(双塔自然村,何家湾自然村,过岸滩自然村),新登镇-登云社区(秉贤街,新兴街),新登镇-东安社区(翠苑路,葛溪东路,登城南路,东安路,房产公司,金城路,新兴路三弄,登云南路,新兴街,登云路,城东,新兴路,东门路,城东二弄,新城街,登城路,青铭路,水泥厂,登云北路,城东一弄,新街,新兴东路);新登镇(杭州富阳长城包装有限公司,杭州富阳凯旋门大酒店,杭州富阳伟业包装有限公司,杭州富阳万全包装印刷厂,杭州富阳香雪海宾馆,杭州富阳神舟合金耐磨材料厂,杭州富阳恒丰物业管理有限公司,浙江兴隆管业有限公司)","startTime":"2019-11-27 07:42:00","stopDate":"2019-11-27 12:00:00","orgNo":"3340170","typeCode":"电网故障停限电","poweroffArea":"110kV新登变:东安D140线东安D1402开关后段","poweroffReason":"高压开关跳闸，原停电结束时间为2019-11-27 09:42:00,因现场抢修难度大原因,现变更停电结束时间为2019-11-27 12:00:00","powerTime":"2019-11-27 11:13:50","powerComm":"已送电","subsNo":"","lineNo":"","tgNo":"","tgName":null,"infoStatus":"1","orgName":"国网浙江杭州市富阳区供电公司","typeName":null,"infoStatusName":null,"dateDay":null,"orgNos":null,"nowTime":null,"countyName":null,"streetName":null,"villageName":null,"roadName":null,"communityName":null,"tranName":null,"sdLineName":null,"cityCode":"3340170","cityName":"国网浙江杭州市富阳区供电公司","provinceCode":null,"stopTime":"2019-11-27 12:00:00","powerType":"全部","powerOffArea":"110kV新登变:东安D140线东安D1402开关后段","powerOffReason":"高压开关跳闸，原停电结束时间为2019-11-27 09:42:00,因现场抢修难度大原因,现变更停电结束时间为2019-11-27 12:00:00","powerOffId":"2019112731020017"},{"poweroffId":2019112731020009,"sgpoweroffId":null,"subsName":"","lineName":"10kV朝阳G111线","pubTranName":"中都商场（二）(主供配变),中都广场5号公变,中都广场4号公变,中都商场（二）(主供配变),中都广场1号公变,中都广场3号公变,中都广场公变,变压器,中都广场2号公变,中都商场（一）(备供配变),","scope":"浙江省-杭州市-余杭区-临平街道-工农新村社区(中都街,北大街),东湖街道-桂芳桥社区(中都街,朝阳东路,史家埭路),临平街道(西大街社区-北大街,星火社区-邱山大街);临平街道-杭州舒翎物业有限公司","startTime":"2019-11-27 07:00:00","stopDate":"2019-11-27 17:00:00","orgNo":"3340140","typeCode":"电网故障停限电","poweroffArea":"110kV临平变:朝阳G111线中都开关站朝中1111线后段","poweroffReason":"高压开关跳闸 原停电结束时间为2019-11-27 09:51:00,因现场情况复杂原因,现变更停电结束时间为2019-11-27 17:00:00","powerTime":"2019-11-27 16:02:19","powerComm":"已送电","subsNo":"","lineNo":"","tgNo":"","tgName":null,"infoStatus":"1","orgName":"国网浙江杭州市余杭区供电有限公司","typeName":null,"infoStatusName":null,"dateDay":null,"orgNos":null,"nowTime":null,"countyName":null,"streetName":null,"villageName":null,"roadName":null,"communityName":null,"tranName":null,"sdLineName":null,"cityCode":"3340140","cityName":"国网浙江杭州市余杭区供电有限公司","provinceCode":null,"stopTime":"2019-11-27 17:00:00","powerType":"全部","powerOffArea":"110kV临平变:朝阳G111线中都开关站朝中1111线后段","powerOffReason":"高压开关跳闸 原停电结束时间为2019-11-27 09:51:00,因现场情况复杂原因,现变更停电结束时间为2019-11-27 17:00:00","powerOffId":"2019112731020009"},{"poweroffId":2019112631020312,"sgpoweroffId":null,"subsName":"","lineName":"10kV标工161线","pubTranName":"长河,","scope":"浙江省-杭州市-滨江区-长河街道(天官社区-天官路,长河社区-长河,长二社区-长二,长一社区-长一)浙江省杭州市滨江区长河街道杰佳宾馆，彩虹池浴场。","startTime":"2019-12-04 09:30:00","stopDate":"2019-12-04 11:30:00","orgNo":"3340101","typeCode":"计划停电","poweroffArea":"110kV长河变:标工161线-长河后段","poweroffReason":"(低压停电信息)（低压停电信息）非居新装","powerTime":"2019-12-04 11:09:48","powerComm":"已送电","subsNo":"","lineNo":"","tgNo":"","tgName":null,"infoStatus":"1","orgName":"浙江杭州电力客户服务中心","typeName":null,"infoStatusName":null,"dateDay":null,"orgNos":null,"nowTime":null,"countyName":null,"streetName":null,"villageName":null,"roadName":null,"communityName":null,"tranName":null,"sdLineName":null,"cityCode":"3340101","cityName":"浙江杭州电力客户服务中心","provinceCode":null,"stopTime":"2019-12-04 11:30:00","powerType":"全部","powerOffArea":"110kV长河变:标工161线-长河后段","powerOffReason":"(低压停电信息)（低压停电信息）非居新装","powerOffId":"2019112631020312"},{"poweroffId":2019112631020310,"sgpoweroffId":null,"subsName":"","lineName":"10kV塔山V232线","pubTranName":"杭州奥丰消防设备有限公司1#,临安市华刚金属制品有限公司,中国电信股份有限公司临安分公司,临安市塔山金属镀层厂,10kV牧亭村[上埠头]公变,临安市卓潮紧固件有限公司,临安裕杰木业有限公司,临安市天目电力配件有限公司,10kV牧亭村[邮政边]公变,10kV牧亭村[学校边]公变,","scope":"浙江省-杭州市-临安市-潜川镇-牧亭行政村(新梅自然村,牧亭自然村,麻黄自然村);潜川镇(中国电信股份有限公司临安分公司,杭州卓潮紧固件有限公司,临安裕杰木业有限公司,临安市华刚金属制品有限公司,杭州临安天目电力配件有限公司,杭州临安区塔山金属镀层厂,)一带","startTime":"2019-11-26 18:35:00","stopDate":"2019-11-26 20:35:00","orgNo":"3340160","typeCode":"电网故障停限电","poweroffArea":"35kV潜川变:塔山V232线塔山分线开关后段","poweroffReason":"高压开关跳闸","powerTime":"2019-11-26 19:42:04","powerComm":"已送电","subsNo":"","lineNo":"","tgNo":"","tgName":null,"infoStatus":"1","orgName":"国网浙江临安市供电公司","typeName":null,"infoStatusName":null,"dateDay":null,"orgNos":null,"nowTime":null,"countyName":null,"streetName":null,"villageName":null,"roadName":null,"communityName":null,"tranName":null,"sdLineName":null,"cityCode":"3340160","cityName":"国网浙江临安市供电公司","provinceCode":null,"stopTime":"2019-11-26 20:35:00","powerType":"全部","powerOffArea":"35kV潜川变:塔山V232线塔山分线开关后段","powerOffReason":"高压开关跳闸","powerOffId":"2019112631020310"},{"poweroffId":2019112631020306,"sgpoweroffId":null,"subsName":"","lineName":"10kV霞江C227线","pubTranName":"霞江村14#变,霞江村20#变,","scope":"浙江省-杭州市-萧山区-新塘街道-霞江行政村(畈里徐自然村,霞江自然村,叶家桥自然村)","startTime":"2019-12-04 08:30:00","stopDate":"2019-12-04 16:30:00","orgNo":"3340130","typeCode":"计划停电","poweroffArea":"110kV霞江变:霞江C227线首端，霞江村20#变，霞江村14#变","poweroffReason":"(低压停电信息)霞江村20#变新出低压出线电缆，与霞江村14#变低压割接","powerTime":"2019-12-04 15:51:28","powerComm":"已送电","subsNo":"","lineNo":"","tgNo":"","tgName":null,"infoStatus":"1","orgName":"国网浙江杭州市萧山区供电有限公司","typeName":null,"infoStatusName":null,"dateDay":null,"orgNos":null,"nowTime":null,"countyName":null,"streetName":null,"villageName":null,"roadName":null,"communityName":null,"tranName":null,"sdLineName":null,"cityCode":"3340130","cityName":"国网浙江杭州市萧山区供电有限公司","provinceCode":null,"stopTime":"2019-12-04 16:30:00","powerType":"全部","powerOffArea":"110kV霞江变:霞江C227线首端，霞江村20#变，霞江村14#变","powerOffReason":"(低压停电信息)霞江村20#变新出低压出线电缆，与霞江村14#变低压割接","powerOffId":"2019112631020306"},{"poweroffId":2019112631020298,"sgpoweroffId":null,"subsName":"","lineName":"10kV管委9653线","pubTranName":"","scope":"浙江省杭州市下沙街道高沙社区湖左岸小区8幢商铺，5幢备供，3幢备供","startTime":"2019-12-03 09:30:00","stopDate":"2019-12-03 12:30:00","orgNo":"3340101","typeCode":"计划停电","poweroffArea":"110kV教北变:管委9653线首端，名城(七)5#动力备供，名城(七)3#动力备供，名城(七)8#楼商铺T之间","poweroffReason":"(低压停电信息)下沙街道高沙社区湖左岸小区8幢102非居增容 原停电结束时间为2019-12-03 14:30:00,为减少客户停电时间,加快工作进度,提前送电,现变更停电结束时间为2019-12-03 12:30:00","powerTime":"2019-12-03 11:56:31","powerComm":"已送电","subsNo":"","lineNo":"","tgNo":"","tgName":null,"infoStatus":"1","orgName":"浙江杭州电力客户服务中心","typeName":null,"infoStatusName":null,"dateDay":null,"orgNos":null,"nowTime":null,"countyName":null,"streetName":null,"villageName":null,"roadName":null,"communityName":null,"tranName":null,"sdLineName":null,"cityCode":"3340101","cityName":"浙江杭州电力客户服务中心","provinceCode":null,"stopTime":"2019-12-03 12:30:00","powerType":"全部","powerOffArea":"110kV教北变:管委9653线首端，名城(七)5#动力备供，名城(七)3#动力备供，名城(七)8#楼商铺T之间","powerOffReason":"(低压停电信息)下沙街道高沙社区湖左岸小区8幢102非居增容 原停电结束时间为2019-12-03 14:30:00,为减少客户停电时间,加快工作进度,提前送电,现变更停电结束时间为2019-12-03 12:30:00","powerOffId":"2019112631020298"}],"pageModel":{"pageNow":800,"totalCount":17789,"totalPage":1779,"tableRows":0,"pageCount":10,"beginCount":7990},"isExperi":"1"}