{"message":"","today":"2020-06-15","seleList":[{"poweroffId":2020052931020433,"sgpoweroffId":null,"subsName":"","lineName":"10kV白云H884线","pubTranName":"中桥村茶凉公变,","scope":"浙江省-杭州市-余杭区-中泰街道-中桥行政村-中桥自然村","startTime":"2020-05-29 14:20:00","stopDate":"2020-05-29 16:20:00","orgNo":"3340140","typeCode":"电网故障停限电","poweroffArea":"110kV中泰变:白云H884线茶凉配变","poweroffReason":"高压开关跳闸","powerTime":"2020-05-29 15:24:13","powerComm":"已送电","subsNo":"","lineNo":"","tgNo":"","tgName":null,"infoStatus":"1","orgName":"国网浙江杭州市余杭区供电有限公司","typeName":null,"infoStatusName":null,"dateDay":null,"orgNos":null,"nowTime":null,"countyName":null,"streetName":null,"villageName":null,"roadName":null,"communityName":null,"tranName":null,"sdLineName":null,"cityCode":"3340140","cityName":"国网浙江杭州市余杭区供电有限公司","provinceCode":null,"stopTime":"2020-05-29 16:20:00","powerType":"全部","powerOffArea":"110kV中泰变:白云H884线茶凉配变","powerOffReason":"高压开关跳闸","powerOffId":"2020052931020433"},{"poweroffId":2020052931020429,"sgpoweroffId":null,"subsName":"","lineName":"10kV西坞D257线","pubTranName":"中天路桥有限公司 1#,杭州富阳交通发展投资集团有限公司1#变,洪庄村12#赤坑坞公变,千家村3#村北公变,富阳宇通电子器材厂,浙江野马湾娃娃鱼生态养殖有限公司,千家村1#村中公变,千家村6号西山公变,富阳市锅炉部件厂,千家村东4#公变,2#,中铁十二局集团有限公司 1#,中天路桥有限公司 1#,1#,千家村5#西坞口公变,西坞村2号班竹湾公变,富阳鹳山音响配件厂,中铁十二局集团有限公司 1#,中铁十二局集团有限公司 2#,西坞村1号村中公变,洪庄村3#上洪庄公变,2#,中天路桥有限公司10#变,千家村西坞口小坞公变,洪庄村4#洪石坞公变,杭州富阳顺达制氧机备配件有限公司,千家村2#村口公变1,","scope":"浙江省-杭州市-富阳区-银湖街道-洪庄村一带","startTime":"2020-06-09 20:45:00","stopDate":"2020-06-09 21:15:00","orgNo":"3340170","typeCode":"计划停电","poweroffArea":"35kV新义变:西坞D257线-西坞D2571开关后段","poweroffReason":"配合新义变全停负荷倒回短时停电","powerTime":"2020-06-09 21:02:04","powerComm":"已送电","subsNo":"","lineNo":"","tgNo":"","tgName":null,"infoStatus":"1","orgName":"国网浙江杭州市富阳区供电公司","typeName":null,"infoStatusName":null,"dateDay":null,"orgNos":null,"nowTime":null,"countyName":null,"streetName":null,"villageName":null,"roadName":null,"communityName":null,"tranName":null,"sdLineName":null,"cityCode":"3340170","cityName":"国网浙江杭州市富阳区供电公司","provinceCode":null,"stopTime":"2020-06-09 21:15:00","powerType":"全部","powerOffArea":"35kV新义变:西坞D257线-西坞D2571开关后段","powerOffReason":"配合新义变全停负荷倒回短时停电","powerOffId":"2020052931020429"},{"poweroffId":2020052931020428,"sgpoweroffId":null,"subsName":"","lineName":"10kV岛石V168线","pubTranName":"龙山村(叉口),","scope":"浙江省-杭州市-临安市-岛石镇-呼日村龙山叉口","startTime":"2020-06-09 08:10:00","stopDate":"2020-06-09 09:40:00","orgNo":"3340160","typeCode":"计划停电","poweroffArea":"35kV岛石变:岛石V168线-龙山村(叉口)配变","poweroffReason":"杭州临安昌化岛石10千伏龙山村等台区增容布点工程 原停电结束时间为2020-06-09 12:50:00,为减少客户停电时间,加快工作进度,提前送电,现变更停电结束时间为2020-06-09 09:40:00","powerTime":"2020-06-09 09:06:53","powerComm":"已送电","subsNo":"","lineNo":"","tgNo":"","tgName":null,"infoStatus":"1","orgName":"国网浙江临安市供电公司","typeName":null,"infoStatusName":null,"dateDay":null,"orgNos":null,"nowTime":null,"countyName":null,"streetName":null,"villageName":null,"roadName":null,"communityName":null,"tranName":null,"sdLineName":null,"cityCode":"3340160","cityName":"国网浙江临安市供电公司","provinceCode":null,"stopTime":"2020-06-09 09:40:00","powerType":"全部","powerOffArea":"35kV岛石变:岛石V168线-龙山村(叉口)配变","powerOffReason":"杭州临安昌化岛石10千伏龙山村等台区增容布点工程 原停电结束时间为2020-06-09 12:50:00,为减少客户停电时间,加快工作进度,提前送电,现变更停电结束时间为2020-06-09 09:40:00","powerOffId":"2020052931020428"},{"poweroffId":2020052931020423,"sgpoweroffId":null,"subsName":"","lineName":"10kV中山V132线","pubTranName":"后荣村.刘家,后营村陈家畈,","scope":"浙江省-杭州市-临安市-昌化镇-后营村陈家畈,刘家。","startTime":"2020-06-08 12:40:00","stopDate":"2020-06-08 17:20:00","orgNo":"3340160","typeCode":"计划停电","poweroffArea":"110kV昌化变:中山V132线首端，后荣村.刘家配变、后营村陈家畈配变","poweroffReason":"(低压停电信息)","powerTime":"2020-06-08 17:10:02","powerComm":"已送电","subsNo":"","lineNo":"","tgNo":"","tgName":null,"infoStatus":"1","orgName":"国网浙江临安市供电公司","typeName":null,"infoStatusName":null,"dateDay":null,"orgNos":null,"nowTime":null,"countyName":null,"streetName":null,"villageName":null,"roadName":null,"communityName":null,"tranName":null,"sdLineName":null,"cityCode":"3340160","cityName":"国网浙江临安市供电公司","provinceCode":null,"stopTime":"2020-06-08 17:20:00","powerType":"全部","powerOffArea":"110kV昌化变:中山V132线首端，后荣村.刘家配变、后营村陈家畈配变","powerOffReason":"(低压停电信息)","powerOffId":"2020052931020423"},{"poweroffId":2020052931020422,"sgpoweroffId":null,"subsName":"","lineName":"10kV星海D296线","pubTranName":"杭州富阳交通发展投资集团有限公司1#变,杭州中德纸业有限公司1#变,杭州广丰纸业有限公司2#,","scope":"浙江省-杭州市-富阳区-银湖街道-洪庄村一带","startTime":"2020-06-09 20:45:00","stopDate":"2020-06-09 21:15:00","orgNo":"3340170","typeCode":"计划停电","poweroffArea":"35kV新义变:星海D296线","poweroffReason":"配合新义变全停负荷倒回短时停电","powerTime":"2020-06-09 21:02:21","powerComm":"已送电","subsNo":"","lineNo":"","tgNo":"","tgName":null,"infoStatus":"1","orgName":"国网浙江杭州市富阳区供电公司","typeName":null,"infoStatusName":null,"dateDay":null,"orgNos":null,"nowTime":null,"countyName":null,"streetName":null,"villageName":null,"roadName":null,"communityName":null,"tranName":null,"sdLineName":null,"cityCode":"3340170","cityName":"国网浙江杭州市富阳区供电公司","provinceCode":null,"stopTime":"2020-06-09 21:15:00","powerType":"全部","powerOffArea":"35kV新义变:星海D296线","powerOffReason":"配合新义变全停负荷倒回短时停电","powerOffId":"2020052931020422"},{"poweroffId":2020052931020413,"sgpoweroffId":null,"subsName":"","lineName":"10kV千家D297线","pubTranName":"浙江交工集团股份有限公司 1#,富阳市芳地金属电镀厂,富阳市富芳玻璃磨砂有限公司,杭州富阳富春涂装有限公司2#,大畈村1#塔坞公变,大地村1#军地西公变,富阳市纸箱总厂,杭州鑫磊矿业有限公司,富阳市纸箱总厂,浙江交工集团股份有限公司基建变1#,杭州富阳富春涂装有限公司1#,杭州鑫磊矿业有限公司,芳地村1#马家坞公变,大畈村2号公变,杭州富阳富翔化工有限公司,浙江交工集团股份有限公司1#变,中天路桥有限公司 1#,大畈村3#前山公变,芳地村3号公变,芳地村2#军地公变,芳地村5号上操场公变,浙江交工集团股份有限公司2#,浙江交工集团股份有限公司 1#,富阳市春建乡咸康村村民委员会,富阳市路灯电气安装队,芳地村4#环桥头公变,","scope":"浙江省-杭州市-富阳区-银湖街道-杜墓村一带","startTime":"2020-06-09 20:30:00","stopDate":"2020-06-09 21:00:00","orgNo":"3340170","typeCode":"计划停电","poweroffArea":"35kV新义变:千家D297线-千家D2971开关后段","poweroffReason":"配合新义变全停负荷倒回短时停电","powerTime":"2020-06-09 20:56:35","powerComm":"已送电","subsNo":"","lineNo":"","tgNo":"","tgName":null,"infoStatus":"1","orgName":"国网浙江杭州市富阳区供电公司","typeName":null,"infoStatusName":null,"dateDay":null,"orgNos":null,"nowTime":null,"countyName":null,"streetName":null,"villageName":null,"roadName":null,"communityName":null,"tranName":null,"sdLineName":null,"cityCode":"3340170","cityName":"国网浙江杭州市富阳区供电公司","provinceCode":null,"stopTime":"2020-06-09 21:00:00","powerType":"全部","powerOffArea":"35kV新义变:千家D297线-千家D2971开关后段","powerOffReason":"配合新义变全停负荷倒回短时停电","powerOffId":"2020052931020413"},{"poweroffId":2020052931020412,"sgpoweroffId":null,"subsName":"","lineName":"10kV导岭D298线","pubTranName":"双浒村2号上浒公变,杭州富阳建明铸件厂1#变,浙江奔腾市政园林建设工程有限公司2#变,金竺村14号杭派东公变,金竺村3#下浒公变,杭州仁通建设有限公司 2#,中铁十二局集团有限公司1#变,杭州富阳飞特光电科技有限公司,浙江奔腾市政园林建设工程有限公司1#变,金竺村13号杭派西公变,杭州市富阳区银湖街道金竺村股份经济合作社 1#,金竺村导岭2号下公变,中铁十二局集团有限公司 1#,金竺村导岭1号上公变,金竺村1#东坞口公变,富阳市强力弹簧厂,富阳中远包装厂,桐岭坞1#公变,富阳环通电力器材有限公司 1#,金竺村导岭3号上公变,杭州联嘉沥青砼有限公司1#变,喻家湾1号村口公变,富阳达富热能设备有限公司,中铁十二局集团有限公司 1#,喻家湾3#郭家湾公变,金竺村6#郭家湾公变,喻家湾2#洞山公变,金竺村4#喻家坞公变,金竺村5号下浒自然村公变,富阳市导岭新新湖笔厂,杭州仁通建设有限公司 1#,","scope":"浙江省-杭州市-富阳区-银湖街道-杜墓村一带","startTime":"2020-06-09 20:30:00","stopDate":"2020-06-09 21:00:00","orgNo":"3340170","typeCode":"计划停电","poweroffArea":"35kV新义变:导岭D298线-导岭D2981开关后段","poweroffReason":"配合新义变全停负荷倒回短时停电","powerTime":"2020-06-09 20:51:58","powerComm":"已送电","subsNo":"","lineNo":"","tgNo":"","tgName":null,"infoStatus":"1","orgName":"国网浙江杭州市富阳区供电公司","typeName":null,"infoStatusName":null,"dateDay":null,"orgNos":null,"nowTime":null,"countyName":null,"streetName":null,"villageName":null,"roadName":null,"communityName":null,"tranName":null,"sdLineName":null,"cityCode":"3340170","cityName":"国网浙江杭州市富阳区供电公司","provinceCode":null,"stopTime":"2020-06-09 21:00:00","powerType":"全部","powerOffArea":"35kV新义变:导岭D298线-导岭D2981开关后段","powerOffReason":"配合新义变全停负荷倒回短时停电","powerOffId":"2020052931020412"},{"poweroffId":2020052931020410,"sgpoweroffId":null,"subsName":"","lineName":"10kV洪庄D292线","pubTranName":"杜墓村4号东边山公变,新生村邵村3号下畈头公变,虎尾坞村2#里公变,中铁十二局集团有限公司 1#,杭州优纳摩擦材料有限公司1#变,杭州富阳宏伟锅炉辅机有限公司,新生村7号邵村桥头公变,新生村邵村8号麻花坞公变,杜墓村1号上公变,中天路桥有限公司1#变,富阳市新源塑料厂,杜墓村5号横岭公变,洪庄村9#集镇公变,中天路桥有限公司3#变,洪庄村2#公变,洪庄村7#集镇公变,杭州兴发弹簧有限公司,浙江浙通管业有限公司1#变,浙江正大空分设备有限公司1#变,洪庄村9号横坞公变,杜墓村3#村口公变,富阳市高桥镇富新五金机械厂,新生村大根里2#村口公变,新生村邵村4#纸坊坞公变,洪庄村18号杨家畈花海公变,洪庄村1#金沙里公变,富阳振宇包装印刷有限公司,浙江浙通管业有限公司,洪庄村11#岔口公变,杜墓村2号下公变,洪庄村10号小桥头公变,新生村邵村5#上畈头公变,桐岭坞村2#大柯坞公变,杭州富春弹簧有限公司,杭州通用弹簧有限公司1#变,洪庄村武林岔桐坞公变,颜家坞1号村口公变,洪庄村6号杨家畈公变,新生村大根里6#里公变,中铁十二局集团有限公司 1#,洪庄村8号水坞公变,洪庄村集镇15号村委口公变,富阳强盛钢带弹簧有限公司,富阳市大众弹簧厂,洪庄村17号集镇东公变,富阳威斯特交通科技有限公司,中天路桥有限公司6#变,洪庄村桐树坞公变,虎尾坞3号前边坞公变,虎尾坞1号公变,","scope":"浙江省-杭州市-富阳区-银湖街道-杜墓村一带","startTime":"2020-06-09 20:30:00","stopDate":"2020-06-09 21:00:00","orgNo":"3340170","typeCode":"计划停电","poweroffArea":"35kV新义变:洪庄D292线-洪庄D2921开关后段","poweroffReason":"配合新义变全停负荷倒回短时停电","powerTime":"2020-06-09 20:56:23","powerComm":"已送电","subsNo":"","lineNo":"","tgNo":"","tgName":null,"infoStatus":"1","orgName":"国网浙江杭州市富阳区供电公司","typeName":null,"infoStatusName":null,"dateDay":null,"orgNos":null,"nowTime":null,"countyName":null,"streetName":null,"villageName":null,"roadName":null,"communityName":null,"tranName":null,"sdLineName":null,"cityCode":"3340170","cityName":"国网浙江杭州市富阳区供电公司","provinceCode":null,"stopTime":"2020-06-09 21:00:00","powerType":"全部","powerOffArea":"35kV新义变:洪庄D292线-洪庄D2921开关后段","powerOffReason":"配合新义变全停负荷倒回短时停电","powerOffId":"2020052931020410"},{"poweroffId":2020052931020396,"sgpoweroffId":null,"subsName":"","lineName":"10kV拔山D942线","pubTranName":"杨清庙村牌楼1#牌楼公变,","scope":"浙江省-杭州市-富阳区-富春街道-杨清庙行政村-牌楼自然村","startTime":"2020-06-13 07:30:00","stopDate":"2020-06-13 16:50:00","orgNo":"3340170","typeCode":"计划停电","poweroffArea":"110kV育才变:拔山D942线-杨清庙村牌楼1#牌楼后段","poweroffReason":"(低压停电信息)铁坎村2#杨家庙公变等低压线路改造工程照明1#线架设kV120*4*1档，更换落户线3处，拆除kV120*4-39米、横档3块，拉线1组，BS-2*25-40米，照明3#线拆架1kV70*4*5档，更换落户线1处、搭接，拆除等工作","powerTime":"2020-06-13 16:34:39","powerComm":"已送电","subsNo":"","lineNo":"","tgNo":"","tgName":null,"infoStatus":"1","orgName":"国网浙江杭州市富阳区供电公司","typeName":null,"infoStatusName":null,"dateDay":null,"orgNos":null,"nowTime":null,"countyName":null,"streetName":null,"villageName":null,"roadName":null,"communityName":null,"tranName":null,"sdLineName":null,"cityCode":"3340170","cityName":"国网浙江杭州市富阳区供电公司","provinceCode":null,"stopTime":"2020-06-13 16:50:00","powerType":"全部","powerOffArea":"110kV育才变:拔山D942线-杨清庙村牌楼1#牌楼后段","powerOffReason":"(低压停电信息)铁坎村2#杨家庙公变等低压线路改造工程照明1#线架设kV120*4*1档，更换落户线3处，拆除kV120*4-39米、横档3块，拉线1组，BS-2*25-40米，照明3#线拆架1kV70*4*5档，更换落户线1处、搭接，拆除等工作","powerOffId":"2020052931020396"},{"poweroffId":2020052931020394,"sgpoweroffId":null,"subsName":"","lineName":"10kV沪瑞D620线","pubTranName":"上沙村3#大包家公变,","scope":"浙江省-杭州市-富阳区-场口镇-上沙行政村-上沙自然村一带","startTime":"2020-06-12 08:30:00","stopDate":"2020-06-12 15:10:00","orgNo":"3340170","typeCode":"计划停电","poweroffArea":"110kV鸿丰变:沪瑞D620线-上沙村3#大包家公变低压出线后段","poweroffReason":"(低压停电信息)更换出线电缆2路、杆上搭接等工作；","powerTime":"2020-06-12 15:00:43","powerComm":"已送电","subsNo":"","lineNo":"","tgNo":"","tgName":null,"infoStatus":"1","orgName":"国网浙江杭州市富阳区供电公司","typeName":null,"infoStatusName":null,"dateDay":null,"orgNos":null,"nowTime":null,"countyName":null,"streetName":null,"villageName":null,"roadName":null,"communityName":null,"tranName":null,"sdLineName":null,"cityCode":"3340170","cityName":"国网浙江杭州市富阳区供电公司","provinceCode":null,"stopTime":"2020-06-12 15:10:00","powerType":"全部","powerOffArea":"110kV鸿丰变:沪瑞D620线-上沙村3#大包家公变低压出线后段","powerOffReason":"(低压停电信息)更换出线电缆2路、杆上搭接等工作；","powerOffId":"2020052931020394"}],"pageModel":{"pageNow":80,"totalCount":17786,"totalPage":1779,"tableRows":0,"pageCount":10,"beginCount":790},"isExperi":"1"}