{"message":"","today":"2020-06-15","seleList":[{"poweroffId":2019112631020077,"sgpoweroffId":null,"subsName":"","lineName":"10kV凤凰D586线","pubTranName":"长山村8#车子坞东公变,","scope":"浙江省-杭州市-富阳区-银湖街道-观前行政村(大长山自然村,长山自然村)","startTime":"2019-11-26 09:35:06","stopDate":"2019-11-26 10:35:06","orgNo":"3340170","typeCode":"电网故障停限电","poweroffArea":"110kV高桥变:凤凰D586线-长山村8#车子坞东公变后段","poweroffReason":"(低压停电信息)低压开关跳闸","powerTime":"2019-11-26 10:21:21","powerComm":"已送电","subsNo":"","lineNo":"","tgNo":"","tgName":null,"infoStatus":"1","orgName":"国网浙江杭州市富阳区供电公司","typeName":null,"infoStatusName":null,"dateDay":null,"orgNos":null,"nowTime":null,"countyName":null,"streetName":null,"villageName":null,"roadName":null,"communityName":null,"tranName":null,"sdLineName":null,"cityCode":"3340170","cityName":"国网浙江杭州市富阳区供电公司","provinceCode":null,"stopTime":"2019-11-26 10:35:06","powerType":"全部","powerOffArea":"110kV高桥变:凤凰D586线-长山村8#车子坞东公变后段","powerOffReason":"(低压停电信息)低压开关跳闸","powerOffId":"2019112631020077"},{"poweroffId":2019112631020070,"sgpoweroffId":null,"subsName":"","lineName":"10kV石墓D217线","pubTranName":"勤乐村上郜3号安头蓬公变,","scope":"浙江省-杭州市-富阳区-银湖街道-勤乐行政村(安头蓬自然村,上郜自然村)","startTime":"2019-11-26 09:21:46","stopDate":"2019-11-26 10:21:46","orgNo":"3340170","typeCode":"电网故障停限电","poweroffArea":"110kV银湖变:石墓D217线-勤乐村上郜3号安头蓬公变后段","poweroffReason":"(低压停电信息)低压开关跳闸","powerTime":"2019-11-26 10:01:25","powerComm":"已送电","subsNo":"","lineNo":"","tgNo":"","tgName":null,"infoStatus":"1","orgName":"国网浙江杭州市富阳区供电公司","typeName":null,"infoStatusName":null,"dateDay":null,"orgNos":null,"nowTime":null,"countyName":null,"streetName":null,"villageName":null,"roadName":null,"communityName":null,"tranName":null,"sdLineName":null,"cityCode":"3340170","cityName":"国网浙江杭州市富阳区供电公司","provinceCode":null,"stopTime":"2019-11-26 10:21:46","powerType":"全部","powerOffArea":"110kV银湖变:石墓D217线-勤乐村上郜3号安头蓬公变后段","powerOffReason":"(低压停电信息)低压开关跳闸","powerOffId":"2019112631020070"},{"poweroffId":2019112631020064,"sgpoweroffId":null,"subsName":"","lineName":"10kV九龙D215线","pubTranName":"受降村受降溪1#公变,","scope":"浙江省-杭州市-富阳区-银湖街道-受降行政村(中秋自然村龙溪南路,中秋自然村,上宋自然村)","startTime":"2019-11-26 09:16:17","stopDate":"2019-11-26 11:16:17","orgNo":"3340170","typeCode":"电网故障停限电","poweroffArea":"110kV银湖变:九龙D215线-受降村受降溪1#公变后段","poweroffReason":"高压开关跳闸","powerTime":"2019-11-26 11:00:49","powerComm":"已送电","subsNo":"","lineNo":"","tgNo":"","tgName":null,"infoStatus":"1","orgName":"国网浙江杭州市富阳区供电公司","typeName":null,"infoStatusName":null,"dateDay":null,"orgNos":null,"nowTime":null,"countyName":null,"streetName":null,"villageName":null,"roadName":null,"communityName":null,"tranName":null,"sdLineName":null,"cityCode":"3340170","cityName":"国网浙江杭州市富阳区供电公司","provinceCode":null,"stopTime":"2019-11-26 11:16:17","powerType":"全部","powerOffArea":"110kV银湖变:九龙D215线-受降村受降溪1#公变后段","powerOffReason":"高压开关跳闸","powerOffId":"2019112631020064"},{"poweroffId":2019112631020063,"sgpoweroffId":null,"subsName":"","lineName":"10kV渔山D913线","pubTranName":"富阳旭光金属制品厂,富阳市中岭钢窗厂,旭光村3#横山头公变,勤俭村3#村中公变,葛村4#支路口北公变,葛村1#路上公变,旭光村1#村中公变,旭光村4#桥头公变,曙光村2#老虎山脚公变,曙光村3#石孔里公变,曙光村1#村中公变,旭光村5#新区公变,葛村2#路下公变,墅溪村林峰3#大爿山公变,富阳雅菲农林开发有限公司变压器,勤俭村1号村中公变,旭光村2号公路公变,旭光村6号风车坞公变,葛村5号水坑沿公变,勤俭村2号厅上门公变,墅溪村林峰1号寺坞岭岗公变,葛村3#支路口公变,勤俭村5号林道公变,杭州富阳门窗有限公司,曙光村4#中岭栋公变,","scope":"浙江省-杭州市-富阳区-渔山乡-五岭行政村-曙光自然村,渔山乡-大葛行政村(勤俭自然村,勤建自然村,葛村自然村,旭光自然村),渔山乡-渔山行政村(曙光自然村,黎明自然村),渔山乡-墅溪行政村(林峰自然村,林峰新村自然村);渔山乡(杭州富阳门窗有限公司,杭州富阳旭光金属制品厂,富阳市中岭钢窗厂,富阳雅菲农林开发有限公司)","startTime":"2019-11-26 08:45:00","stopDate":"2019-11-26 10:45:00","orgNo":"3340170","typeCode":"电网故障停限电","poweroffArea":"110kV里渔变:渔山D913线渔山D913I开关后段","poweroffReason":"高压开关跳闸","powerTime":"2019-11-26 10:30:15","powerComm":"已送电","subsNo":"","lineNo":"","tgNo":"","tgName":null,"infoStatus":"1","orgName":"国网浙江杭州市富阳区供电公司","typeName":null,"infoStatusName":null,"dateDay":null,"orgNos":null,"nowTime":null,"countyName":null,"streetName":null,"villageName":null,"roadName":null,"communityName":null,"tranName":null,"sdLineName":null,"cityCode":"3340170","cityName":"国网浙江杭州市富阳区供电公司","provinceCode":null,"stopTime":"2019-11-26 10:45:00","powerType":"全部","powerOffArea":"110kV里渔变:渔山D913线渔山D913I开关后段","powerOffReason":"高压开关跳闸","powerOffId":"2019112631020063"},{"poweroffId":2019112631020049,"sgpoweroffId":null,"subsName":"","lineName":"10kV南安D336线","pubTranName":"何务村1#下何公变,","scope":"浙江省-杭州市-富阳区-万市镇-何务行政村(下何务自然村,叶家自然村)","startTime":"2019-11-26 08:39:25","stopDate":"2019-11-26 09:39:25","orgNo":"3340170","typeCode":"电网故障停限电","poweroffArea":"110kV万市变:南安D336线-何务村1#下何公变后段","poweroffReason":"高压开关跳闸","powerTime":"2019-11-26 09:15:30","powerComm":"已送电","subsNo":"","lineNo":"","tgNo":"","tgName":null,"infoStatus":"1","orgName":"国网浙江杭州市富阳区供电公司","typeName":null,"infoStatusName":null,"dateDay":null,"orgNos":null,"nowTime":null,"countyName":null,"streetName":null,"villageName":null,"roadName":null,"communityName":null,"tranName":null,"sdLineName":null,"cityCode":"3340170","cityName":"国网浙江杭州市富阳区供电公司","provinceCode":null,"stopTime":"2019-11-26 09:39:25","powerType":"全部","powerOffArea":"110kV万市变:南安D336线-何务村1#下何公变后段","powerOffReason":"高压开关跳闸","powerOffId":"2019112631020049"},{"poweroffId":2019112631020025,"sgpoweroffId":null,"subsName":"","lineName":"10kV里叶Y348线","pubTranName":"里叶村里叶台区,","scope":"浙江省-杭州市-建德市-大慈岩镇-里叶行政村-里叶自然村","startTime":"2019-11-26 08:03:00","stopDate":"2019-11-26 12:00:00","orgNo":"3340180","typeCode":"电网故障停限电","poweroffArea":"110kV慈岩变:里叶Y348线里叶村里叶台区配变","poweroffReason":"(低压停电信息)低压开关跳闸","powerTime":"2019-11-26 11:23:00","powerComm":"已送电","subsNo":"","lineNo":"","tgNo":"","tgName":null,"infoStatus":"1","orgName":"国网浙江建德市供电有限公司","typeName":null,"infoStatusName":null,"dateDay":null,"orgNos":null,"nowTime":null,"countyName":null,"streetName":null,"villageName":null,"roadName":null,"communityName":null,"tranName":null,"sdLineName":null,"cityCode":"3340180","cityName":"国网浙江建德市供电有限公司","provinceCode":null,"stopTime":"2019-11-26 12:00:00","powerType":"全部","powerOffArea":"110kV慈岩变:里叶Y348线里叶村里叶台区配变","powerOffReason":"(低压停电信息)低压开关跳闸","powerOffId":"2019112631020025"},{"poweroffId":2019112631020024,"sgpoweroffId":null,"subsName":"","lineName":"10kV陈园C841线","pubTranName":"陈家园村14#变,","scope":"浙江省-杭州市-萧山区-新街镇-新街街道-陈家园行政村-陈家园自然村等一带","startTime":"2019-11-26 08:05:27","stopDate":"2019-11-26 18:05:27","orgNo":"3340130","typeCode":"电网故障停限电","poweroffArea":"110kV罗山变:陈园C841线-陈家园村14#变台区低压开关","poweroffReason":"(低压停电信息)低压漏电保护器短路故障","powerTime":"2019-11-26 17:18:41","powerComm":"已送电","subsNo":"","lineNo":"","tgNo":"","tgName":null,"infoStatus":"1","orgName":"国网浙江杭州市萧山区供电有限公司","typeName":null,"infoStatusName":null,"dateDay":null,"orgNos":null,"nowTime":null,"countyName":null,"streetName":null,"villageName":null,"roadName":null,"communityName":null,"tranName":null,"sdLineName":null,"cityCode":"3340130","cityName":"国网浙江杭州市萧山区供电有限公司","provinceCode":null,"stopTime":"2019-11-26 18:05:27","powerType":"全部","powerOffArea":"110kV罗山变:陈园C841线-陈家园村14#变台区低压开关","powerOffReason":"(低压停电信息)低压漏电保护器短路故障","powerOffId":"2019112631020024"},{"poweroffId":2019112631020007,"sgpoweroffId":null,"subsName":"","lineName":"10kV严州Y303线","pubTranName":"龙泉村王金桥台区,","scope":"浙江省-杭州市-建德市-梅城镇(龙泉行政村-碧溪坞自然村,总府社区-碧溪坞自然村)","startTime":"2019-11-26 07:05:00","stopDate":"2019-11-26 17:20:00","orgNo":"3340180","typeCode":"电网故障停限电","poweroffArea":"110kV梅城变:严州Y303线龙泉村王金桥台区配变","poweroffReason":"(低压停电信息)低压开关跳闸","powerTime":"2019-11-26 16:30:00","powerComm":"已送电","subsNo":"","lineNo":"","tgNo":"","tgName":null,"infoStatus":"1","orgName":"国网浙江建德市供电有限公司","typeName":null,"infoStatusName":null,"dateDay":null,"orgNos":null,"nowTime":null,"countyName":null,"streetName":null,"villageName":null,"roadName":null,"communityName":null,"tranName":null,"sdLineName":null,"cityCode":"3340180","cityName":"国网浙江建德市供电有限公司","provinceCode":null,"stopTime":"2019-11-26 17:20:00","powerType":"全部","powerOffArea":"110kV梅城变:严州Y303线龙泉村王金桥台区配变","powerOffReason":"(低压停电信息)低压开关跳闸","powerOffId":"2019112631020007"},{"poweroffId":2019112631020004,"sgpoweroffId":null,"subsName":"","lineName":"10kV洋绛D782线","pubTranName":"洋沙村1#中间公变,瓜桥埠村5号华家村北公变,联群村3号大路供销社公变,杭州市富阳区场口镇人民政府#王洲幼儿园基建变,联群村2号加工厂公变,瓜桥埠村3号长塘公变,洋沙村5#大塔村东公变,联群村4号大路渔塘公变,洋沙村3#鱼塘公变,洋沙村2号教会公变,上沙村5号村东公变,上沙村4#村口公变2,联群村1号祠堂公变,联群农用,杭州风铃养老服务有限公司,洋沙村4号大塔村口公变,","scope":"浙江省-杭州市-富阳区-场口镇-上沙行政村-上沙自然村,场口镇-瓜桥埠行政村(华家自然村,瓜桥埠自然村),场口镇-联群行政村(联群自然村,大路自然村,金家自然村),场口镇-洋沙行政村(大塔里自然村,洋沙自然村);场口镇(联群农用,杭州市富阳区场口镇人民政府,杭州风铃养老服务有限公司)","startTime":"2019-11-26 06:28:00","stopDate":"2019-11-26 08:28:00","orgNo":"3340170","typeCode":"电网故障停限电","poweroffArea":"110kV王洲变:洋绛D782线洋绛D7826开关后段","poweroffReason":"高压开关跳闸","powerTime":"2019-11-26 07:30:43","powerComm":"已送电","subsNo":"","lineNo":"","tgNo":"","tgName":null,"infoStatus":"1","orgName":"国网浙江杭州市富阳区供电公司","typeName":null,"infoStatusName":null,"dateDay":null,"orgNos":null,"nowTime":null,"countyName":null,"streetName":null,"villageName":null,"roadName":null,"communityName":null,"tranName":null,"sdLineName":null,"cityCode":"3340170","cityName":"国网浙江杭州市富阳区供电公司","provinceCode":null,"stopTime":"2019-11-26 08:28:00","powerType":"全部","powerOffArea":"110kV王洲变:洋绛D782线洋绛D7826开关后段","powerOffReason":"高压开关跳闸","powerOffId":"2019112631020004"},{"poweroffId":2019112531020433,"sgpoweroffId":null,"subsName":"","lineName":"10kV霞江C227线","pubTranName":"霞江村16#变,","scope":"浙江省-杭州市-萧山区-新塘街道-霞江行政村(下浦许自然村,霞江自然村)","startTime":"2019-12-03 08:30:00","stopDate":"2019-12-03 15:30:00","orgNo":"3340130","typeCode":"计划停电","poweroffArea":"110kV霞江变:霞江C227线-霞江村16#变后段","poweroffReason":"(低压停电信息)霞江村16#变更换出线电缆","powerTime":"2019-12-03 15:08:39","powerComm":"已送电","subsNo":"","lineNo":"","tgNo":"","tgName":null,"infoStatus":"1","orgName":"国网浙江杭州市萧山区供电有限公司","typeName":null,"infoStatusName":null,"dateDay":null,"orgNos":null,"nowTime":null,"countyName":null,"streetName":null,"villageName":null,"roadName":null,"communityName":null,"tranName":null,"sdLineName":null,"cityCode":"3340130","cityName":"国网浙江杭州市萧山区供电有限公司","provinceCode":null,"stopTime":"2019-12-03 15:30:00","powerType":"全部","powerOffArea":"110kV霞江变:霞江C227线-霞江村16#变后段","powerOffReason":"(低压停电信息)霞江村16#变更换出线电缆","powerOffId":"2019112531020433"}],"pageModel":{"pageNow":804,"totalCount":17789,"totalPage":1779,"tableRows":0,"pageCount":10,"beginCount":8030},"isExperi":"1"}