{"message":"","today":"2020-06-15","seleList":[{"poweroffId":2019112531020111,"sgpoweroffId":null,"subsName":"","lineName":"10kV纷民9704线","pubTranName":"缤纷一变,","scope":"浙江省-杭州市-滨江区-西兴街道-水电社区-丹枫路-缤纷小区","startTime":"2019-11-25 09:26:40","stopDate":"2019-11-25 16:30:40","orgNo":"3340101","typeCode":"电网故障停限电","poweroffArea":"110kV府前变:纷民9704线-缤纷一变后段","poweroffReason":"(低压停电信息)低压开关跳闸","powerTime":"2019-11-25 15:35:46","powerComm":"已送电","subsNo":"","lineNo":"","tgNo":"","tgName":null,"infoStatus":"1","orgName":"浙江杭州电力客户服务中心","typeName":null,"infoStatusName":null,"dateDay":null,"orgNos":null,"nowTime":null,"countyName":null,"streetName":null,"villageName":null,"roadName":null,"communityName":null,"tranName":null,"sdLineName":null,"cityCode":"3340101","cityName":"浙江杭州电力客户服务中心","provinceCode":null,"stopTime":"2019-11-25 16:30:40","powerType":"全部","powerOffArea":"110kV府前变:纷民9704线-缤纷一变后段","powerOffReason":"(低压停电信息)低压开关跳闸","powerOffId":"2019112531020111"},{"poweroffId":2019112531020095,"sgpoweroffId":null,"subsName":"","lineName":"10kV交通D364线","pubTranName":"秋丰村49号湖南山公变,秋丰村53号湖南山公变,","scope":"浙江省-杭州市-富阳区-富春街道-秋丰行政村-秋丰自然村","startTime":"2019-11-25 08:43:00","stopDate":"2019-11-25 10:43:00","orgNo":"3340170","typeCode":"电网故障停限电","poweroffArea":"110kV富鹿变:交通D364线秋丰村49号湖南山公变配变","poweroffReason":"高压开关跳闸","powerTime":"2019-11-25 10:30:16","powerComm":"已送电","subsNo":"","lineNo":"","tgNo":"","tgName":null,"infoStatus":"1","orgName":"国网浙江杭州市富阳区供电公司","typeName":null,"infoStatusName":null,"dateDay":null,"orgNos":null,"nowTime":null,"countyName":null,"streetName":null,"villageName":null,"roadName":null,"communityName":null,"tranName":null,"sdLineName":null,"cityCode":"3340170","cityName":"国网浙江杭州市富阳区供电公司","provinceCode":null,"stopTime":"2019-11-25 10:43:00","powerType":"全部","powerOffArea":"110kV富鹿变:交通D364线秋丰村49号湖南山公变配变","powerOffReason":"高压开关跳闸","powerOffId":"2019112531020095"},{"poweroffId":2019112531020094,"sgpoweroffId":null,"subsName":"","lineName":"10kV赐壁H267线","pubTranName":"奇鹤村奇坑村1号公变,","scope":"浙江省-杭州市-余杭区-瓶窑镇-奇鹤行政村(骑坑外村,奇坑自然村)","startTime":"2019-11-25 08:59:09","stopDate":"2019-11-25 10:59:09","orgNo":"3340140","typeCode":"电网故障停限电","poweroffArea":"110kV彭公变:赐壁H267线-奇鹤村奇坑村1号公变后段","poweroffReason":"高压开关跳闸","powerTime":"2019-11-25 10:38:00","powerComm":"已送电","subsNo":"","lineNo":"","tgNo":"","tgName":null,"infoStatus":"1","orgName":"国网浙江杭州市余杭区供电有限公司","typeName":null,"infoStatusName":null,"dateDay":null,"orgNos":null,"nowTime":null,"countyName":null,"streetName":null,"villageName":null,"roadName":null,"communityName":null,"tranName":null,"sdLineName":null,"cityCode":"3340140","cityName":"国网浙江杭州市余杭区供电有限公司","provinceCode":null,"stopTime":"2019-11-25 10:59:09","powerType":"全部","powerOffArea":"110kV彭公变:赐壁H267线-奇鹤村奇坑村1号公变后段","powerOffReason":"高压开关跳闸","powerOffId":"2019112531020094"},{"poweroffId":2019112531020092,"sgpoweroffId":null,"subsName":"","lineName":"10kV悦墅D987线","pubTranName":"6#,","scope":"浙江省-杭州市-富阳区-富春街道-金秋社区-杭州市富阳区富春街道金桥股份经济合作社一带","startTime":"2019-12-06 08:45:00","stopDate":"2019-12-06 13:30:00","orgNo":"3340170","typeCode":"计划停电","poweroffArea":"110kV育才变:悦墅D987线-6#后段","poweroffReason":"文豪路（八小-西环路）工程线路迁改工程：城市花园支线电缆割接至新上开关站Ⅱ段11#间隔备用线","powerTime":"2019-12-06 13:19:58","powerComm":"已送电","subsNo":"","lineNo":"","tgNo":"","tgName":null,"infoStatus":"1","orgName":"国网浙江杭州市富阳区供电公司","typeName":null,"infoStatusName":null,"dateDay":null,"orgNos":null,"nowTime":null,"countyName":null,"streetName":null,"villageName":null,"roadName":null,"communityName":null,"tranName":null,"sdLineName":null,"cityCode":"3340170","cityName":"国网浙江杭州市富阳区供电公司","provinceCode":null,"stopTime":"2019-12-06 13:30:00","powerType":"全部","powerOffArea":"110kV育才变:悦墅D987线-6#后段","powerOffReason":"文豪路（八小-西环路）工程线路迁改工程：城市花园支线电缆割接至新上开关站Ⅱ段11#间隔备用线","powerOffId":"2019112531020092"},{"poweroffId":2019112531020082,"sgpoweroffId":null,"subsName":"","lineName":"10kV天钟D434线","pubTranName":"太平村3#超市公变,","scope":"浙江省-杭州市-富阳区-春江街道-太平行政村-太平自然村","startTime":"2019-11-25 08:44:20","stopDate":"2019-11-25 09:44:20","orgNo":"3340170","typeCode":"电网故障停限电","poweroffArea":"110kV天钟变:天钟D434线-太平村3#超市公变后段","poweroffReason":"高压开关跳闸","powerTime":"2019-11-25 09:29:37","powerComm":"已送电","subsNo":"","lineNo":"","tgNo":"","tgName":null,"infoStatus":"1","orgName":"国网浙江杭州市富阳区供电公司","typeName":null,"infoStatusName":null,"dateDay":null,"orgNos":null,"nowTime":null,"countyName":null,"streetName":null,"villageName":null,"roadName":null,"communityName":null,"tranName":null,"sdLineName":null,"cityCode":"3340170","cityName":"国网浙江杭州市富阳区供电公司","provinceCode":null,"stopTime":"2019-11-25 09:44:20","powerType":"全部","powerOffArea":"110kV天钟变:天钟D434线-太平村3#超市公变后段","powerOffReason":"高压开关跳闸","powerOffId":"2019112531020082"},{"poweroffId":2019112531020075,"sgpoweroffId":null,"subsName":"","lineName":"10kV大市T141线","pubTranName":"长丘田1号公变,","scope":"浙江省-杭州市-桐庐县-钟山乡-大市行政村-长丘田自然村","startTime":"2019-11-25 08:36:27","stopDate":"2019-11-25 17:30:27","orgNo":"3340150","typeCode":"电网故障停限电","poweroffArea":"35kV钟山变:大市T141线-长丘田1号公变后段","poweroffReason":"高压开关跳闸","powerTime":"2019-11-25 17:12:24","powerComm":"已送电","subsNo":"","lineNo":"","tgNo":"","tgName":null,"infoStatus":"1","orgName":"国网浙江桐庐县供电公司","typeName":null,"infoStatusName":null,"dateDay":null,"orgNos":null,"nowTime":null,"countyName":null,"streetName":null,"villageName":null,"roadName":null,"communityName":null,"tranName":null,"sdLineName":null,"cityCode":"3340150","cityName":"国网浙江桐庐县供电公司","provinceCode":null,"stopTime":"2019-11-25 17:30:27","powerType":"全部","powerOffArea":"35kV钟山变:大市T141线-长丘田1号公变后段","powerOffReason":"高压开关跳闸","powerOffId":"2019112531020075"},{"poweroffId":2019112531020069,"sgpoweroffId":null,"subsName":"","lineName":"10kV高家Y732线","pubTranName":"丰和村两板桥台区,","scope":"浙江省-杭州市-建德市-下涯镇-丰和行政村-孙家自然村一带用户。","startTime":"2019-11-25 08:12:00","stopDate":"2019-11-25 14:30:00","orgNo":"3340180","typeCode":"电网故障停限电","poweroffArea":"110kV马目变:高家Y732线丰和村两板桥台区配变","poweroffReason":"高压开关跳闸 原停电结束时间为2019-11-25 14:00:00,因施工现场环境比较复杂，存在不确定因素原因,现变更停电结束时间为2019-11-25 14:30:00","powerTime":"2019-11-25 14:08:00","powerComm":"已送电","subsNo":"","lineNo":"","tgNo":"","tgName":null,"infoStatus":"1","orgName":"国网浙江建德市供电有限公司","typeName":null,"infoStatusName":null,"dateDay":null,"orgNos":null,"nowTime":null,"countyName":null,"streetName":null,"villageName":null,"roadName":null,"communityName":null,"tranName":null,"sdLineName":null,"cityCode":"3340180","cityName":"国网浙江建德市供电有限公司","provinceCode":null,"stopTime":"2019-11-25 14:30:00","powerType":"全部","powerOffArea":"110kV马目变:高家Y732线丰和村两板桥台区配变","powerOffReason":"高压开关跳闸 原停电结束时间为2019-11-25 14:00:00,因施工现场环境比较复杂，存在不确定因素原因,现变更停电结束时间为2019-11-25 14:30:00","powerOffId":"2019112531020069"},{"poweroffId":2019112531020059,"sgpoweroffId":null,"subsName":"","lineName":"10kV北落6343线","pubTranName":"北落二,落马营变,","scope":"浙江省-杭州市-上城区-紫阳街道-北落马营社区(候潮路,北落马营新村,直河头)","startTime":"2019-11-25 07:44:12","stopDate":"2019-11-25 12:30:12","orgNo":"3340101","typeCode":"电网故障停限电","poweroffArea":"110kV滨江变:北落6343线-北落二分线","poweroffReason":"高压开关跳闸 原停电结束时间为2019-11-25 09:44:12,因施工现场环境比较复杂原因,现变更停电结束时间为2019-11-25 12:30:12","powerTime":"2019-11-25 11:44:44","powerComm":"已送电","subsNo":"","lineNo":"","tgNo":"","tgName":null,"infoStatus":"1","orgName":"浙江杭州电力客户服务中心","typeName":null,"infoStatusName":null,"dateDay":null,"orgNos":null,"nowTime":null,"countyName":null,"streetName":null,"villageName":null,"roadName":null,"communityName":null,"tranName":null,"sdLineName":null,"cityCode":"3340101","cityName":"浙江杭州电力客户服务中心","provinceCode":null,"stopTime":"2019-11-25 12:30:12","powerType":"全部","powerOffArea":"110kV滨江变:北落6343线-北落二分线","powerOffReason":"高压开关跳闸 原停电结束时间为2019-11-25 09:44:12,因施工现场环境比较复杂原因,现变更停电结束时间为2019-11-25 12:30:12","powerOffId":"2019112531020059"},{"poweroffId":2019112531020052,"sgpoweroffId":null,"subsName":"","lineName":"10kV杭商7078线","pubTranName":"影路,","scope":"浙江省-杭州市-西湖区-翠苑街道-九莲社区(影业路,教工路)","startTime":"2019-11-25 07:34:34","stopDate":"2019-11-25 09:34:34","orgNo":"3340101","typeCode":"电网故障停限电","poweroffArea":"110kV隐秀变:杭商7078线-影路后段","poweroffReason":"高压开关跳闸","powerTime":"2019-11-25 08:52:43","powerComm":"已送电","subsNo":"","lineNo":"","tgNo":"","tgName":null,"infoStatus":"1","orgName":"浙江杭州电力客户服务中心","typeName":null,"infoStatusName":null,"dateDay":null,"orgNos":null,"nowTime":null,"countyName":null,"streetName":null,"villageName":null,"roadName":null,"communityName":null,"tranName":null,"sdLineName":null,"cityCode":"3340101","cityName":"浙江杭州电力客户服务中心","provinceCode":null,"stopTime":"2019-11-25 09:34:34","powerType":"全部","powerOffArea":"110kV隐秀变:杭商7078线-影路后段","powerOffReason":"高压开关跳闸","powerOffId":"2019112531020052"},{"poweroffId":2019112531020050,"sgpoweroffId":null,"subsName":"","lineName":"10kV建北D326线","pubTranName":"建安8号公变,建安2号公变,建安4号公变,建安11号公变,建安6号公变,","scope":"浙江省-杭州市-富阳区-春江街道-建设行政村-建设自然村","startTime":"2019-11-25 07:01:00","stopDate":"2019-11-25 08:30:46","orgNo":"3340170","typeCode":"电网故障停限电","poweroffArea":"110kV建设变:建北D326线建安开关站建锦D3268线开关后段","poweroffReason":"高压开关跳闸","powerTime":"2019-11-25 07:50:22","powerComm":"已送电","subsNo":"","lineNo":"","tgNo":"","tgName":null,"infoStatus":"1","orgName":"国网浙江杭州市富阳区供电公司","typeName":null,"infoStatusName":null,"dateDay":null,"orgNos":null,"nowTime":null,"countyName":null,"streetName":null,"villageName":null,"roadName":null,"communityName":null,"tranName":null,"sdLineName":null,"cityCode":"3340170","cityName":"国网浙江杭州市富阳区供电公司","provinceCode":null,"stopTime":"2019-11-25 08:30:46","powerType":"全部","powerOffArea":"110kV建设变:建北D326线建安开关站建锦D3268线开关后段","powerOffReason":"高压开关跳闸","powerOffId":"2019112531020050"}],"pageModel":{"pageNow":807,"totalCount":17789,"totalPage":1779,"tableRows":0,"pageCount":10,"beginCount":8060},"isExperi":"1"}