{"message":"","today":"2020-06-15","seleList":[{"poweroffId":2019112431020069,"sgpoweroffId":null,"subsName":"","lineName":"10kV道圩G961线","pubTranName":"运河镇亭趾村里塘河东公变,","scope":"浙江省-杭州市-余杭区-运河街道-亭趾社区-亭趾,运河街道-亭趾行政村(亭趾,亭趾自然村,里塘河自然村,亭趾社区)一带","startTime":"2019-11-24 10:10:00","stopDate":"2019-11-24 12:10:00","orgNo":"3340140","typeCode":"电网故障停限电","poweroffArea":"110kV博陆变:道圩G961线-运河镇亭趾村里塘河东公变后段","poweroffReason":"(低压停电信息)低压开关跳闸 道圩G961线-运河镇亭趾村里塘河东公变后段低压拉线故障","powerTime":"2019-11-24 11:47:00","powerComm":"已送电","subsNo":"","lineNo":"","tgNo":"","tgName":null,"infoStatus":"1","orgName":"国网浙江杭州市余杭区供电有限公司","typeName":null,"infoStatusName":null,"dateDay":null,"orgNos":null,"nowTime":null,"countyName":null,"streetName":null,"villageName":null,"roadName":null,"communityName":null,"tranName":null,"sdLineName":null,"cityCode":"3340140","cityName":"国网浙江杭州市余杭区供电有限公司","provinceCode":null,"stopTime":"2019-11-24 12:10:00","powerType":"全部","powerOffArea":"110kV博陆变:道圩G961线-运河镇亭趾村里塘河东公变后段","powerOffReason":"(低压停电信息)低压开关跳闸 道圩G961线-运河镇亭趾村里塘河东公变后段低压拉线故障","powerOffId":"2019112431020069"},{"poweroffId":2019112431020067,"sgpoweroffId":null,"subsName":"","lineName":"10kV东山G252线","pubTranName":"栅庄桥村魏家塘2#公变,","scope":"浙江省-杭州市-余杭区-仁和街道-栅庄桥行政村-魏家塘自然村","startTime":"2019-11-24 10:03:00","stopDate":"2019-11-24 12:05:00","orgNo":"3340140","typeCode":"电网故障停限电","poweroffArea":"110kV仁镇变:东山G252线-栅庄桥村魏家塘2#公变后段","poweroffReason":"高压开关跳闸 原停电结束时间为2019-11-24 13:30:00,为减少客户停电时间,加快工作进度,提前送电,现变更停电结束时间为2019-11-24 12:05:00","powerTime":"2019-11-24 11:46:00","powerComm":"已送电","subsNo":"","lineNo":"","tgNo":"","tgName":null,"infoStatus":"1","orgName":"国网浙江杭州市余杭区供电有限公司","typeName":null,"infoStatusName":null,"dateDay":null,"orgNos":null,"nowTime":null,"countyName":null,"streetName":null,"villageName":null,"roadName":null,"communityName":null,"tranName":null,"sdLineName":null,"cityCode":"3340140","cityName":"国网浙江杭州市余杭区供电有限公司","provinceCode":null,"stopTime":"2019-11-24 12:05:00","powerType":"全部","powerOffArea":"110kV仁镇变:东山G252线-栅庄桥村魏家塘2#公变后段","powerOffReason":"高压开关跳闸 原停电结束时间为2019-11-24 13:30:00,为减少客户停电时间,加快工作进度,提前送电,现变更停电结束时间为2019-11-24 12:05:00","powerOffId":"2019112431020067"},{"poweroffId":2019112431020060,"sgpoweroffId":null,"subsName":"","lineName":"10kV裴家C284线","pubTranName":"黄山村32#变,","scope":"浙江省-杭州市-萧山区-闻堰镇-长安行政村-王家里自然村,闻堰镇-黄山行政村(樟树新自然村,畈里孙自然村,华家潭自然村,桥南自然村,樟树自然村)一带","startTime":"2019-11-24 09:35:02","stopDate":"2019-11-24 11:10:02","orgNo":"3340130","typeCode":"电网故障停限电","poweroffArea":"110kV三江变:裴家C284线-黄山村32#变后段","poweroffReason":"（低压停电信息）低压漏电保护器短路故障 原停电结束时间为2019-11-24 13:44:02,为减少客户停电时间,加快工作进度,提前送电,现变更停电结束时间为2019-11-24 11:10:02","powerTime":"2019-11-24 10:25:07","powerComm":"已送电","subsNo":"","lineNo":"","tgNo":"","tgName":null,"infoStatus":"1","orgName":"国网浙江杭州市萧山区供电有限公司","typeName":null,"infoStatusName":null,"dateDay":null,"orgNos":null,"nowTime":null,"countyName":null,"streetName":null,"villageName":null,"roadName":null,"communityName":null,"tranName":null,"sdLineName":null,"cityCode":"3340130","cityName":"国网浙江杭州市萧山区供电有限公司","provinceCode":null,"stopTime":"2019-11-24 11:10:02","powerType":"全部","powerOffArea":"110kV三江变:裴家C284线-黄山村32#变后段","powerOffReason":"（低压停电信息）低压漏电保护器短路故障 原停电结束时间为2019-11-24 13:44:02,为减少客户停电时间,加快工作进度,提前送电,现变更停电结束时间为2019-11-24 11:10:02","powerOffId":"2019112431020060"},{"poweroffId":2019112431020059,"sgpoweroffId":null,"subsName":"","lineName":"10kV闲牛H718线","pubTranName":"孙家坞村毛草桥,","scope":"浙江省-杭州市-余杭区-闲林街道(孙家坞社区-闲孙路,孙家坞行政村-许家头自然村)","startTime":"2019-11-24 09:41:00","stopDate":"2019-11-24 11:41:00","orgNo":"3340140","typeCode":"电网故障停限电","poweroffArea":"110kV闲林变:闲牛H718线-孙家坞村毛草桥后段","poweroffReason":"高压开关跳闸","powerTime":"2019-11-24 10:51:00","powerComm":"已送电","subsNo":"","lineNo":"","tgNo":"","tgName":null,"infoStatus":"1","orgName":"国网浙江杭州市余杭区供电有限公司","typeName":null,"infoStatusName":null,"dateDay":null,"orgNos":null,"nowTime":null,"countyName":null,"streetName":null,"villageName":null,"roadName":null,"communityName":null,"tranName":null,"sdLineName":null,"cityCode":"3340140","cityName":"国网浙江杭州市余杭区供电有限公司","provinceCode":null,"stopTime":"2019-11-24 11:41:00","powerType":"全部","powerOffArea":"110kV闲林变:闲牛H718线-孙家坞村毛草桥后段","powerOffReason":"高压开关跳闸","powerOffId":"2019112431020059"},{"poweroffId":2019112431020047,"sgpoweroffId":null,"subsName":"","lineName":"10kV临一C640线","pubTranName":"谭家埭1#变,","scope":"浙江省-杭州市-萧山区-临浦镇-谭家埭社区-谭家埭自然村等一带","startTime":"2019-11-24 09:24:21","stopDate":"2019-11-24 11:00:21","orgNo":"3340130","typeCode":"电网故障停限电","poweroffArea":"110kV临浦变:临一C640线-谭家埭1#变台区低压开关","poweroffReason":"(低压停电信息)低压开关跳闸","powerTime":"2019-11-24 10:04:47","powerComm":"已送电","subsNo":"","lineNo":"","tgNo":"","tgName":null,"infoStatus":"1","orgName":"国网浙江杭州市萧山区供电有限公司","typeName":null,"infoStatusName":null,"dateDay":null,"orgNos":null,"nowTime":null,"countyName":null,"streetName":null,"villageName":null,"roadName":null,"communityName":null,"tranName":null,"sdLineName":null,"cityCode":"3340130","cityName":"国网浙江杭州市萧山区供电有限公司","provinceCode":null,"stopTime":"2019-11-24 11:00:21","powerType":"全部","powerOffArea":"110kV临浦变:临一C640线-谭家埭1#变台区低压开关","powerOffReason":"(低压停电信息)低压开关跳闸","powerOffId":"2019112431020047"},{"poweroffId":2019112431020041,"sgpoweroffId":null,"subsName":"","lineName":"10kV环联D788线","pubTranName":"环联村5号陆墓沙田畈公变,","scope":"浙江省-杭州市-富阳区-环山乡-环联行政村-陆墓自然村","startTime":"2019-11-24 09:14:55","stopDate":"2019-11-24 10:14:55","orgNo":"3340170","typeCode":"电网故障停限电","poweroffArea":"110kV王洲变:环联D788线-环联村5号陆墓沙田畈公变后段","poweroffReason":"高压开关跳闸","powerTime":"2019-11-24 09:44:58","powerComm":"已送电","subsNo":"","lineNo":"","tgNo":"","tgName":null,"infoStatus":"1","orgName":"国网浙江杭州市富阳区供电公司","typeName":null,"infoStatusName":null,"dateDay":null,"orgNos":null,"nowTime":null,"countyName":null,"streetName":null,"villageName":null,"roadName":null,"communityName":null,"tranName":null,"sdLineName":null,"cityCode":"3340170","cityName":"国网浙江杭州市富阳区供电公司","provinceCode":null,"stopTime":"2019-11-24 10:14:55","powerType":"全部","powerOffArea":"110kV王洲变:环联D788线-环联村5号陆墓沙田畈公变后段","powerOffReason":"高压开关跳闸","powerOffId":"2019112431020041"},{"poweroffId":2019112431020037,"sgpoweroffId":null,"subsName":"","lineName":"10kV步桥D937线","pubTranName":"步桥村1#羊埠场公变,浙江胜大空分设备有限公司,富阳市渔山乡五爱村1,富阳市富春街道春华村经济合作社,富阳市渔山乡五岭村村民委员会,富阳市皇天畈水利管理处,步桥村6号羊埠场2号公变,","scope":"浙江省-杭州市-富阳区-富春街道-金桥社区-金秋大道,富春街道-三桥行政村(马岭上自然村,赵家桥自然村,杨埠场自然村);富春街道(富阳市富春街道春华村经济合作社,杭州市富阳区渔山乡五岭村村民委员会,富阳市渔山乡五爱村,浙江胜大空分设备有限公司,杭州市富阳区皇天畈水利管理处)","startTime":"2019-11-24 08:59:00","stopDate":"2019-11-24 16:00:00","orgNo":"3340170","typeCode":"电网故障停限电","poweroffArea":"110kV育才变:步桥D937线丰钢分线22#杆开关断路器后段","poweroffReason":"高压开关跳闸 原停电结束时间为2019-11-24 10:59:00,因抢修难度大原因,现变更停电结束时间为2019-11-24 16:00:00","powerTime":"2019-11-24 15:44:21","powerComm":"已送电","subsNo":"","lineNo":"","tgNo":"","tgName":null,"infoStatus":"1","orgName":"国网浙江杭州市富阳区供电公司","typeName":null,"infoStatusName":null,"dateDay":null,"orgNos":null,"nowTime":null,"countyName":null,"streetName":null,"villageName":null,"roadName":null,"communityName":null,"tranName":null,"sdLineName":null,"cityCode":"3340170","cityName":"国网浙江杭州市富阳区供电公司","provinceCode":null,"stopTime":"2019-11-24 16:00:00","powerType":"全部","powerOffArea":"110kV育才变:步桥D937线丰钢分线22#杆开关断路器后段","powerOffReason":"高压开关跳闸 原停电结束时间为2019-11-24 10:59:00,因抢修难度大原因,现变更停电结束时间为2019-11-24 16:00:00","powerOffId":"2019112431020037"},{"poweroffId":2019112431020036,"sgpoweroffId":null,"subsName":"","lineName":"10kV科迪A500线","pubTranName":"三围村8#变,杭州金鼎实业有限公司,三围村14#变,群围村8#变,","scope":"浙江省-杭州市-萧山区-益农镇(三围行政村-三围自然村,群围行政村-群围自然村);浙江省-杭州市-萧山区-益农镇-群围行政村、三围村、群围村、杭州金鼎实业有限公司一带","startTime":"2019-11-24 08:55:54","stopDate":"2019-11-24 12:15:54","orgNo":"3340130","typeCode":"电网故障停限电","poweroffArea":"110kV群围变:科迪A500线-科迪A500线金鼎分线开关（自）后段","poweroffReason":"高压柱上断路器短路故障 原停电结束时间为2019-11-24 10:50:54,因抢修工作难度大的原因,现变更停电结束时间为2019-11-24 12:15:54","powerTime":"2019-11-24 11:18:27","powerComm":"已送电","subsNo":"","lineNo":"","tgNo":"","tgName":null,"infoStatus":"1","orgName":"国网浙江杭州市萧山区供电有限公司","typeName":null,"infoStatusName":null,"dateDay":null,"orgNos":null,"nowTime":null,"countyName":null,"streetName":null,"villageName":null,"roadName":null,"communityName":null,"tranName":null,"sdLineName":null,"cityCode":"3340130","cityName":"国网浙江杭州市萧山区供电有限公司","provinceCode":null,"stopTime":"2019-11-24 12:15:54","powerType":"全部","powerOffArea":"110kV群围变:科迪A500线-科迪A500线金鼎分线开关（自）后段","powerOffReason":"高压柱上断路器短路故障 原停电结束时间为2019-11-24 10:50:54,因抢修工作难度大的原因,现变更停电结束时间为2019-11-24 12:15:54","powerOffId":"2019112431020036"},{"poweroffId":2019112431020029,"sgpoweroffId":null,"subsName":"","lineName":"10kV柴家A536线","pubTranName":"浦一村4#变,","scope":"浙江省-杭州市-萧山区-浦阳镇-浦一行政村-汪家埭自然村等一带","startTime":"2019-11-24 08:36:48","stopDate":"2019-11-24 11:00:48","orgNo":"3340130","typeCode":"电网故障停限电","poweroffArea":"110kV浦阳变:柴家A536线-浦一村4#变台区低压开关","poweroffReason":"(低压停电信息)低压架空导线断线故障","powerTime":"2019-11-24 10:35:24","powerComm":"已送电","subsNo":"","lineNo":"","tgNo":"","tgName":null,"infoStatus":"1","orgName":"国网浙江杭州市萧山区供电有限公司","typeName":null,"infoStatusName":null,"dateDay":null,"orgNos":null,"nowTime":null,"countyName":null,"streetName":null,"villageName":null,"roadName":null,"communityName":null,"tranName":null,"sdLineName":null,"cityCode":"3340130","cityName":"国网浙江杭州市萧山区供电有限公司","provinceCode":null,"stopTime":"2019-11-24 11:00:48","powerType":"全部","powerOffArea":"110kV浦阳变:柴家A536线-浦一村4#变台区低压开关","powerOffReason":"(低压停电信息)低压架空导线断线故障","powerOffId":"2019112431020029"},{"poweroffId":2019112431020028,"sgpoweroffId":null,"subsName":"","lineName":"10kV东影A667线","pubTranName":"新北村20#变,","scope":"浙江省-杭州市-萧山区-宁围镇-宁围街道-二桥行政村-新北自然村、新北村、二桥村等一带","startTime":"2019-11-24 08:30:33","stopDate":"2019-11-24 15:16:33","orgNo":"3340130","typeCode":"电网故障停限电","poweroffArea":"110kV东霖变:东影A667线-新北村20#变台区低压开关","poweroffReason":"(低压停电信息)低压漏电保护器短路故障 原停电结束时间为2019-11-24 17:25:33,为减少客户停电时间,加快工作进度,提前送电,现变更停电结束时间为2019-11-24 15:16:33","powerTime":"2019-11-24 14:21:40","powerComm":"已送电","subsNo":"","lineNo":"","tgNo":"","tgName":null,"infoStatus":"1","orgName":"国网浙江杭州市萧山区供电有限公司","typeName":null,"infoStatusName":null,"dateDay":null,"orgNos":null,"nowTime":null,"countyName":null,"streetName":null,"villageName":null,"roadName":null,"communityName":null,"tranName":null,"sdLineName":null,"cityCode":"3340130","cityName":"国网浙江杭州市萧山区供电有限公司","provinceCode":null,"stopTime":"2019-11-24 15:16:33","powerType":"全部","powerOffArea":"110kV东霖变:东影A667线-新北村20#变台区低压开关","powerOffReason":"(低压停电信息)低压漏电保护器短路故障 原停电结束时间为2019-11-24 17:25:33,为减少客户停电时间,加快工作进度,提前送电,现变更停电结束时间为2019-11-24 15:16:33","powerOffId":"2019112431020028"}],"pageModel":{"pageNow":811,"totalCount":17789,"totalPage":1779,"tableRows":0,"pageCount":10,"beginCount":8100},"isExperi":"1"}