{"message":"","today":"2020-06-15","seleList":[{"poweroffId":2019112431020027,"sgpoweroffId":null,"subsName":"","lineName":"10kV隔河G381线","pubTranName":"永泰村阮家港公变,","scope":"浙江省-杭州市-余杭区-仁和街道-永泰行政村(劳家洋自然村,阮家港自然村)","startTime":"2019-11-24 08:26:39","stopDate":"2019-11-24 12:26:39","orgNo":"3340140","typeCode":"电网故障停限电","poweroffArea":"110kV东塘变:隔河G381线-永泰村阮家港公变后段","poweroffReason":"高压开关跳闸","powerTime":"2019-11-24 12:12:00","powerComm":"已送电","subsNo":"","lineNo":"","tgNo":"","tgName":null,"infoStatus":"1","orgName":"国网浙江杭州市余杭区供电有限公司","typeName":null,"infoStatusName":null,"dateDay":null,"orgNos":null,"nowTime":null,"countyName":null,"streetName":null,"villageName":null,"roadName":null,"communityName":null,"tranName":null,"sdLineName":null,"cityCode":"3340140","cityName":"国网浙江杭州市余杭区供电有限公司","provinceCode":null,"stopTime":"2019-11-24 12:26:39","powerType":"全部","powerOffArea":"110kV东塘变:隔河G381线-永泰村阮家港公变后段","powerOffReason":"高压开关跳闸","powerOffId":"2019112431020027"},{"poweroffId":2019112431020023,"sgpoweroffId":null,"subsName":"","lineName":"10kV松溪D132线","pubTranName":"杭州富阳压滤机厂,杭州富阳科环新能源有限公司,富阳市创意制衣有限公司,富阳恒升工贸有限公司,杭州富阳区新城干燥设备厂,乘庄村1#乘家庄公变,富阳市南津塑料机械配件厂,杭州富纯实业有限公司1#变,乘庄村7号乘家庄厅前公变,富阳华氏泡塑模具制造有限公司1#变,杭州富阳压滤机厂,杭州富阳海天制冷电器厂,杭州富阳迈瑞恩工艺品有限公司,","scope":"浙江省-杭州市-富阳区-新登镇-乘庄行政村(王家水碓头自然村,郑家庄自然村,观音坎叶家自然村,金城北路,马家山头自然村,庄泽自然村,观音坎喻家自然村,杜墓山自然村,观音坎袁家自然村,牧场自然村),新登镇(长兰行政村-上陈家自然村,湘河行政村-连山自然村);新登镇(杭州富阳南津塑料机械配件厂,杭州富阳区新城干燥设备厂,杭州富阳压滤机厂,杭州富阳华氏泡塑模具制造有限公司,杭州富阳海天制冷电器厂,杭州富阳迈瑞恩工艺品有限公司,杭州富阳恒升工贸有限公司,杭州富阳创宏服装有限公司,杭州富阳科环新能源有限公司,杭州富纯实业有限公司)","startTime":"2019-11-24 08:15:49","stopDate":"2019-11-24 10:07:57","orgNo":"3340170","typeCode":"电网故障停限电","poweroffArea":"110kV新登变:松溪D132线乘庄1#杆开关后段","poweroffReason":"高压开关跳闸","powerTime":"2019-11-24 09:18:46","powerComm":"已送电","subsNo":"","lineNo":"","tgNo":"","tgName":null,"infoStatus":"1","orgName":"国网浙江杭州市富阳区供电公司","typeName":null,"infoStatusName":null,"dateDay":null,"orgNos":null,"nowTime":null,"countyName":null,"streetName":null,"villageName":null,"roadName":null,"communityName":null,"tranName":null,"sdLineName":null,"cityCode":"3340170","cityName":"国网浙江杭州市富阳区供电公司","provinceCode":null,"stopTime":"2019-11-24 10:07:57","powerType":"全部","powerOffArea":"110kV新登变:松溪D132线乘庄1#杆开关后段","powerOffReason":"高压开关跳闸","powerOffId":"2019112431020023"},{"poweroffId":2019112431020021,"sgpoweroffId":null,"subsName":"","lineName":"10kV永街D732线","pubTranName":"永昌村永桥10号二尊殿公变,","scope":"浙江省-杭州市-富阳区-永昌镇-永昌行政村(永昌自然村,永桥自然村)","startTime":"2019-11-24 08:04:28","stopDate":"2019-11-24 09:45:28","orgNo":"3340170","typeCode":"电网故障停限电","poweroffArea":"110kV松溪变:永街D732线-永昌村永桥10号二尊殿公变后段","poweroffReason":"设备线夹断裂导致高压开关跳闸","powerTime":"2019-11-24 09:23:54","powerComm":"已送电","subsNo":"","lineNo":"","tgNo":"","tgName":null,"infoStatus":"1","orgName":"国网浙江杭州市富阳区供电公司","typeName":null,"infoStatusName":null,"dateDay":null,"orgNos":null,"nowTime":null,"countyName":null,"streetName":null,"villageName":null,"roadName":null,"communityName":null,"tranName":null,"sdLineName":null,"cityCode":"3340170","cityName":"国网浙江杭州市富阳区供电公司","provinceCode":null,"stopTime":"2019-11-24 09:45:28","powerType":"全部","powerOffArea":"110kV松溪变:永街D732线-永昌村永桥10号二尊殿公变后段","powerOffReason":"设备线夹断裂导致高压开关跳闸","powerOffId":"2019112431020021"},{"poweroffId":2019112431020020,"sgpoweroffId":null,"subsName":"","lineName":"10kV江城937线","pubTranName":"客运变,","scope":"浙江省-杭州市-上城区-望江街道-兴隆社区-东宝路","startTime":"2019-11-24 08:01:42","stopDate":"2019-11-24 15:01:42","orgNo":"3340101","typeCode":"电网故障停限电","poweroffArea":"110kV秋涛变:江城937线-客运后段","poweroffReason":"高压开关跳闸 原停电结束时间为2019-11-24 14:01:42,由于施工现场环境比较复杂，存在不确定因素，因此预估施工时间不足，延迟送电了,现变更停电结束时间为2019-11-24 15:01:42","powerTime":"2019-11-24 14:42:30","powerComm":"已送电","subsNo":"","lineNo":"","tgNo":"","tgName":null,"infoStatus":"1","orgName":"浙江杭州电力客户服务中心","typeName":null,"infoStatusName":null,"dateDay":null,"orgNos":null,"nowTime":null,"countyName":null,"streetName":null,"villageName":null,"roadName":null,"communityName":null,"tranName":null,"sdLineName":null,"cityCode":"3340101","cityName":"浙江杭州电力客户服务中心","provinceCode":null,"stopTime":"2019-11-24 15:01:42","powerType":"全部","powerOffArea":"110kV秋涛变:江城937线-客运后段","powerOffReason":"高压开关跳闸 原停电结束时间为2019-11-24 14:01:42,由于施工现场环境比较复杂，存在不确定因素，因此预估施工时间不足，延迟送电了,现变更停电结束时间为2019-11-24 15:01:42","powerOffId":"2019112431020020"},{"poweroffId":2019112431020015,"sgpoweroffId":null,"subsName":"","lineName":"10kV陡门H775线","pubTranName":"仙宅村新岭组公变,太平洋塑料,仙宅村马家公变,仙宅村新岭大路公变,仙宅村菱湖口公变,仙宅村林坞新村公变,仙宅村钟家桥公变,","scope":"浙江省-杭州市-余杭区-余杭街道-仙宅行政村(新岭自然村,仙宅自然村);浙江省-杭州市-余杭区-余杭街道-仙宅行政村-杭州太平洋塑料建材有限公司","startTime":"2019-11-24 07:21:47","stopDate":"2019-11-24 09:21:47","orgNo":"3340140","typeCode":"电网故障停限电","poweroffArea":"35kV长岗临时变:陡门H775线-新岭分线开关后段","poweroffReason":"高压开关跳闸","powerTime":"2019-11-24 08:22:12","powerComm":"已送电","subsNo":"","lineNo":"","tgNo":"","tgName":null,"infoStatus":"1","orgName":"国网浙江杭州市余杭区供电有限公司","typeName":null,"infoStatusName":null,"dateDay":null,"orgNos":null,"nowTime":null,"countyName":null,"streetName":null,"villageName":null,"roadName":null,"communityName":null,"tranName":null,"sdLineName":null,"cityCode":"3340140","cityName":"国网浙江杭州市余杭区供电有限公司","provinceCode":null,"stopTime":"2019-11-24 09:21:47","powerType":"全部","powerOffArea":"35kV长岗临时变:陡门H775线-新岭分线开关后段","powerOffReason":"高压开关跳闸","powerOffId":"2019112431020015"},{"poweroffId":2019112431020008,"sgpoweroffId":null,"subsName":"","lineName":"10kV江城937线","pubTranName":"始板东村变,","scope":"浙江省-杭州市-上城区-望江街道-始版桥社区-海潮路","startTime":"2019-11-24 04:26:21","stopDate":"2019-11-24 06:00:23","orgNo":"3340101","typeCode":"电网故障停限电","poweroffArea":"110kV秋涛变:江城937线始板东村变配变","poweroffReason":"高压开关跳闸 原停电结束时间为2019-11-24 09:26:23,为减少客户停电时间,加快工作进度,提前送电,现变更停电结束时间为2019-11-24 06:00:23","powerTime":"2019-11-24 05:22:28","powerComm":"已送电","subsNo":"","lineNo":"","tgNo":"","tgName":null,"infoStatus":"1","orgName":"浙江杭州电力客户服务中心","typeName":null,"infoStatusName":null,"dateDay":null,"orgNos":null,"nowTime":null,"countyName":null,"streetName":null,"villageName":null,"roadName":null,"communityName":null,"tranName":null,"sdLineName":null,"cityCode":"3340101","cityName":"浙江杭州电力客户服务中心","provinceCode":null,"stopTime":"2019-11-24 06:00:23","powerType":"全部","powerOffArea":"110kV秋涛变:江城937线始板东村变配变","powerOffReason":"高压开关跳闸 原停电结束时间为2019-11-24 09:26:23,为减少客户停电时间,加快工作进度,提前送电,现变更停电结束时间为2019-11-24 06:00:23","powerOffId":"2019112431020008"},{"poweroffId":2019112431020007,"sgpoweroffId":null,"subsName":"","lineName":"10kV彭家D342线","pubTranName":"众源村7#傅家公变,","scope":"浙江省-杭州市-富阳区-万市镇-众缘行政村(钟家自然村,傅家自然村)","startTime":"2019-11-24 03:31:28","stopDate":"2019-11-24 04:30:00","orgNo":"3340170","typeCode":"电网故障停限电","poweroffArea":"110kV万市变:彭家D342线-众源村7#傅家公变后段","poweroffReason":"高压开关跳闸 原停电结束时间为2019-11-24 05:30:00,为减少客户停电时间,加快工作进度,提前送电,现变更停电结束时间为2019-11-24 04:30:00","powerTime":"2019-11-24 04:13:11","powerComm":"已送电","subsNo":"","lineNo":"","tgNo":"","tgName":null,"infoStatus":"1","orgName":"国网浙江杭州市富阳区供电公司","typeName":null,"infoStatusName":null,"dateDay":null,"orgNos":null,"nowTime":null,"countyName":null,"streetName":null,"villageName":null,"roadName":null,"communityName":null,"tranName":null,"sdLineName":null,"cityCode":"3340170","cityName":"国网浙江杭州市富阳区供电公司","provinceCode":null,"stopTime":"2019-11-24 04:30:00","powerType":"全部","powerOffArea":"110kV万市变:彭家D342线-众源村7#傅家公变后段","powerOffReason":"高压开关跳闸 原停电结束时间为2019-11-24 05:30:00,为减少客户停电时间,加快工作进度,提前送电,现变更停电结束时间为2019-11-24 04:30:00","powerOffId":"2019112431020007"},{"poweroffId":2019112431020006,"sgpoweroffId":null,"subsName":"","lineName":"10kV方家D201线","pubTranName":"柳溪村4号欢坞外公变,富阳市三昌建筑石料厂,柳溪村3号欢坞里公变,富阳柳青石料有限公司,富阳市大成建材有限公司,富阳拓赢建材有限公司,","scope":"浙江省-杭州市-富阳区-富春街道-方家井行政村(方家井自然村,欢坞岭自然村,欢坞里自然村,柳溪自然村,欢坞外自然村);富春街道-方家井行政村(富阳市三昌建筑石料厂,杭州富阳大成建材有限公司,杭州富阳柳青石料有限公司,杭州富阳拓赢建材有限公司)","startTime":"2019-11-24 03:28:45","stopDate":"2019-11-24 04:35:45","orgNo":"3340170","typeCode":"电网故障停限电","poweroffArea":"35kV大青变:方家D201线-欢坞分线后段","poweroffReason":"高压开关跳闸","powerTime":"2019-11-24 04:14:31","powerComm":"已送电","subsNo":"","lineNo":"","tgNo":"","tgName":null,"infoStatus":"1","orgName":"国网浙江杭州市富阳区供电公司","typeName":null,"infoStatusName":null,"dateDay":null,"orgNos":null,"nowTime":null,"countyName":null,"streetName":null,"villageName":null,"roadName":null,"communityName":null,"tranName":null,"sdLineName":null,"cityCode":"3340170","cityName":"国网浙江杭州市富阳区供电公司","provinceCode":null,"stopTime":"2019-11-24 04:35:45","powerType":"全部","powerOffArea":"35kV大青变:方家D201线-欢坞分线后段","powerOffReason":"高压开关跳闸","powerOffId":"2019112431020006"},{"poweroffId":2019112331020199,"sgpoweroffId":null,"subsName":"","lineName":"10kV锦祺A203线","pubTranName":"变压器,杭州华华实业有限公司,杭州赢耐博得科技有限公司,德利服饰1#,杭州碧悦置业有限公司,杭州碧悦置业有限公司,德利服饰2#,杭州赢耐博得科技有限公司2#变压器,湘南村8#变,变压器,杭州宏骏汽车零部件有限公司,杭州建国机电有限公司,","scope":"浙江省-杭州市-萧山区-义桥镇-湘南行政村(峡山头自然村,牌轩下自然村);义桥镇-湘南行政村(杭州赢耐博得科技有限公司,杭州华华实业有限公司,杭州宏骏汽车零部件有限公司),义桥镇(民丰行政村-德利服饰实业(杭州)有限公司,罗峰社区-杭州建国机电有限公司)，浙江省杭州市萧山区义桥镇民丰行政村，浙江省杭州市萧山区义桥湘南村牌轩片4号，义桥湘南排揎村，义桥湘南排宣村等一带","startTime":"2019-11-23 21:34:16","stopDate":"2019-11-23 23:53:16","orgNo":"3340130","typeCode":"电网故障停限电","poweroffArea":"110kV群建变:锦祺A203线-锦祺A2031开关后段","poweroffReason":"高压开关跳闸","powerTime":"2019-11-23 23:01:49","powerComm":"已送电","subsNo":"","lineNo":"","tgNo":"","tgName":null,"infoStatus":"1","orgName":"国网浙江杭州市萧山区供电有限公司","typeName":null,"infoStatusName":null,"dateDay":null,"orgNos":null,"nowTime":null,"countyName":null,"streetName":null,"villageName":null,"roadName":null,"communityName":null,"tranName":null,"sdLineName":null,"cityCode":"3340130","cityName":"国网浙江杭州市萧山区供电有限公司","provinceCode":null,"stopTime":"2019-11-23 23:53:16","powerType":"全部","powerOffArea":"110kV群建变:锦祺A203线-锦祺A2031开关后段","powerOffReason":"高压开关跳闸","powerOffId":"2019112331020199"},{"poweroffId":2019112331020191,"sgpoweroffId":null,"subsName":"","lineName":"10kV交通D364线","pubTranName":"秋丰村湖南山10号配电变压器,","scope":"浙江省-杭州市-富阳区-富春街道-秋丰行政村-秋丰自然村","startTime":"2019-11-23 21:16:59","stopDate":"2019-11-24 16:00:59","orgNo":"3340170","typeCode":"电网故障停限电","poweroffArea":"110kV富鹿变:交通D364线-秋丰村湖南山10号配电变压器后段","poweroffReason":"(低压停电信息)因外力破坏导致低压导线断线， 原停电结束时间为2019-11-24 07:16:59,因施工复杂原因,现变更停电结束时间为2019-11-24 16:00:59","powerTime":"2019-11-24 15:33:48","powerComm":"已送电","subsNo":"","lineNo":"","tgNo":"","tgName":null,"infoStatus":"1","orgName":"国网浙江杭州市富阳区供电公司","typeName":null,"infoStatusName":null,"dateDay":null,"orgNos":null,"nowTime":null,"countyName":null,"streetName":null,"villageName":null,"roadName":null,"communityName":null,"tranName":null,"sdLineName":null,"cityCode":"3340170","cityName":"国网浙江杭州市富阳区供电公司","provinceCode":null,"stopTime":"2019-11-24 16:00:59","powerType":"全部","powerOffArea":"110kV富鹿变:交通D364线-秋丰村湖南山10号配电变压器后段","powerOffReason":"(低压停电信息)因外力破坏导致低压导线断线， 原停电结束时间为2019-11-24 07:16:59,因施工复杂原因,现变更停电结束时间为2019-11-24 16:00:59","powerOffId":"2019112331020191"}],"pageModel":{"pageNow":812,"totalCount":17789,"totalPage":1779,"tableRows":0,"pageCount":10,"beginCount":8110},"isExperi":"1"}