{"message":"","today":"2020-06-15","seleList":[{"poweroffId":2019112331020162,"sgpoweroffId":null,"subsName":"","lineName":"10kV洋艺T342线","pubTranName":"桐庐永安物业管理有限公司,桐城府8号公变,桐庐永安物业管理有限公司,美凯西姆1号公变,桐城府6号公变,桐城府14号公变,凯全实业酒店1#专变,桐城府12号公变,美凯西姆2号公变,尚洋雅苑1号公变,1#,桐城府9号公变,紫郡花苑3号公变,紫郡花苑1号公变,1#,美凯西姆3号公变,尚洋雅苑6号公变,桐城府1号公变,尚洋雅苑3号公变,桐庐张氏中医医院有限公司,杭州铭城物业管理有限公司桐庐分公司,1#,尚洋雅苑4号公变,浙江兴腾物业管理有限公司,2#,桑园安置1号公变,桐城府3号公变,美凯西姆4号公变,","scope":"浙江省-杭州市-桐庐县-城南街道-梅林社区(梅林路,阆苑路,桑园路,春江东路),城南街道(下杭社区-云栖路,桑园行政村-梅林路);城南街道(桐庐龙腾物业管理有限公司,桐庐张氏中医医院有限公司,桐庐永安物业管理有限公司,浙江兴腾物业管理有限公司,浙江万川物业服务有限公司,杭州凯全实业有限公司,桐庐尚扬物业管理有限公司,)","startTime":"2019-11-23 16:12:27","stopDate":"2019-11-23 20:12:27","orgNo":"3340150","typeCode":"电网故障停限电","poweroffArea":"110kV洋洲变:洋艺T342线中艺开关站中艺T303线后段","poweroffReason":"(低压停电信息)低压开关跳闸","powerTime":"2019-11-23 20:02:31","powerComm":"已送电","subsNo":"","lineNo":"","tgNo":"","tgName":null,"infoStatus":"1","orgName":"国网浙江桐庐县供电公司","typeName":null,"infoStatusName":null,"dateDay":null,"orgNos":null,"nowTime":null,"countyName":null,"streetName":null,"villageName":null,"roadName":null,"communityName":null,"tranName":null,"sdLineName":null,"cityCode":"3340150","cityName":"国网浙江桐庐县供电公司","provinceCode":null,"stopTime":"2019-11-23 20:12:27","powerType":"全部","powerOffArea":"110kV洋洲变:洋艺T342线中艺开关站中艺T303线后段","powerOffReason":"(低压停电信息)低压开关跳闸","powerOffId":"2019112331020162"},{"poweroffId":2019112331020161,"sgpoweroffId":null,"subsName":"","lineName":"10kV白洋Y221线","pubTranName":"金塘小区3#公变,和风苑7#公变,鸡毛坞隧道100050专变,石灰岭隧道100051专变,中华人民共和国杭州出入境检验检疫局1#专变,新安悦府3号公变,建德市妇幼保健院1#变压器,建德市行政审批服务管理办公室1#变压器,和颂苑4#公变,窑山顶7#柜进口100046专变,南萍公寓3#公变,金塘小区1#公变,洋安家园1#公变台区,东坞隧道100052专变,洋安家园5#公变台区,和颂苑2#公变,新安悦府13号公变,洋安村马家公变台区,江城嘉苑5#公变变压器,窑山顶8#柜进口100045专变,杭州和谐置业有限公司,新安悦府9号公变,新安悦府1号公变,窑山顶6#柜进口100047专变,窑山顶5#柜进口100048专变,新安悦府11号公变,杭州和谐置业有限公司1#专变,南萍公寓1#公变,建德万固房地产开发有限公司,新安悦府5号公变,江城嘉苑3#公变变压器,和颂苑6#公变,和风苑3#公变,和风苑1#公变,新安悦府7号公变,金塘5#公变,1#,1#变,建德市洋安幼儿园,南萍公寓2#公变,杭州和谐置业有限公司1#专变,江城嘉苑1#公变变压器,洋安家园3#公变台区,和风苑5#公变,设岭隧道100049专变,建德市妇幼保健院1#变,","scope":"浙江省-杭州市-建德市-洋溪街道-洋安行政村 洋安家园小区,西三路,上洋安自然村,和风苑小区,马家自然村,金塘小区,洋安自然村,和颂苑小区 ,洋溪街道-洋安社区(洋安新城,荷映路);洋溪街道 建德市妇幼保健院,建德市行政审批服务管理办公室,建德市洋安幼儿园,建德市洋安中心学校,杭州龙大洋安房地产有限公司,杭州杭千高速公路发展有限公司,杭州和谐置业有限公司,中华人民共和国杭州出入境检验检疫局一带用户","startTime":"2019-11-23 16:12:09","stopDate":"2019-11-23 18:00:00","orgNo":"3340180","typeCode":"电网故障停限电","poweroffArea":"110kV白沙变:白洋Y221线华庭开关站华江Y2211线负荷开关后段","poweroffReason":"高压开关跳闸 原停电结束时间为2019-11-23 19:00:00,为减少客户停电时间,加快工作进度,提前送电,现变更停电结束时间为2019-11-23 18:00:00","powerTime":"2019-11-23 17:12:48","powerComm":"已送电","subsNo":"","lineNo":"","tgNo":"","tgName":null,"infoStatus":"1","orgName":"国网浙江建德市供电有限公司","typeName":null,"infoStatusName":null,"dateDay":null,"orgNos":null,"nowTime":null,"countyName":null,"streetName":null,"villageName":null,"roadName":null,"communityName":null,"tranName":null,"sdLineName":null,"cityCode":"3340180","cityName":"国网浙江建德市供电有限公司","provinceCode":null,"stopTime":"2019-11-23 18:00:00","powerType":"全部","powerOffArea":"110kV白沙变:白洋Y221线华庭开关站华江Y2211线负荷开关后段","powerOffReason":"高压开关跳闸 原停电结束时间为2019-11-23 19:00:00,为减少客户停电时间,加快工作进度,提前送电,现变更停电结束时间为2019-11-23 18:00:00","powerOffId":"2019112331020161"},{"poweroffId":2019112331020160,"sgpoweroffId":null,"subsName":"","lineName":"10kV城中T273线","pubTranName":"桐庐超凡物业管理有限公司,","scope":"浙江省-杭州市-桐庐县-城南街道-桐庐超凡物业管理有限公司","startTime":"2019-11-23 16:12:09","stopDate":"2019-11-23 20:12:09","orgNo":"3340150","typeCode":"电网故障停限电","poweroffArea":"35kV三合变:城中T273线励置用户站业专0104线配变","poweroffReason":"(低压停电信息)低压开关跳闸","powerTime":"2019-11-23 20:01:30","powerComm":"已送电","subsNo":"","lineNo":"","tgNo":"","tgName":null,"infoStatus":"1","orgName":"国网浙江桐庐县供电公司","typeName":null,"infoStatusName":null,"dateDay":null,"orgNos":null,"nowTime":null,"countyName":null,"streetName":null,"villageName":null,"roadName":null,"communityName":null,"tranName":null,"sdLineName":null,"cityCode":"3340150","cityName":"国网浙江桐庐县供电公司","provinceCode":null,"stopTime":"2019-11-23 20:12:09","powerType":"全部","powerOffArea":"35kV三合变:城中T273线励置用户站业专0104线配变","powerOffReason":"(低压停电信息)低压开关跳闸","powerOffId":"2019112331020160"},{"poweroffId":2019112331020159,"sgpoweroffId":null,"subsName":"","lineName":"10kV洋抖G383线","pubTranName":"杭州伊丝梵艺术服饰有限公司611106403101#专变,杭州渝博塑胶包装有限公司,杭州中佳服装有限公司,杭州天聚隆电机有限公司612000244601#专变,杭州晨力压滤机制造有限公司,杭州合创服饰有限公司,杭州恒佳金属制品有限公司,杭州邦美展览器材有限公司,杭州凡诺装饰材料有限公司,杭州西子复合衬有限公司,","scope":"浙江省-杭州市-余杭区-仁和街道-新桥行政村(杭州恒佳金属制品有限公司,杭州邦美展览器材有限公司,杭州中佳服装有限公司,杭州西子复合衬有限公司,杭州凡诺装饰材料有限公司,杭州晨力压滤机制造有限公司,杭州伊丝梵艺术服饰有限公司,杭州天聚隆电机有限公司)","startTime":"2019-11-23 16:09:00","stopDate":"2019-11-23 20:20:00","orgNo":"3340140","typeCode":"电网故障停限电","poweroffArea":"110kV东塘变:洋抖G383线-洋抖G3833开关后段","poweroffReason":"高压开关跳闸 原停电结束时间为2019-11-23 22:00:00,为减少客户停电时间,加快工作进度,提前送电,现变更停电结束时间为2019-11-23 20:20:00","powerTime":"2019-11-23 19:37:00","powerComm":"已送电","subsNo":"","lineNo":"","tgNo":"","tgName":null,"infoStatus":"1","orgName":"国网浙江杭州市余杭区供电有限公司","typeName":null,"infoStatusName":null,"dateDay":null,"orgNos":null,"nowTime":null,"countyName":null,"streetName":null,"villageName":null,"roadName":null,"communityName":null,"tranName":null,"sdLineName":null,"cityCode":"3340140","cityName":"国网浙江杭州市余杭区供电有限公司","provinceCode":null,"stopTime":"2019-11-23 20:20:00","powerType":"全部","powerOffArea":"110kV东塘变:洋抖G383线-洋抖G3833开关后段","powerOffReason":"高压开关跳闸 原停电结束时间为2019-11-23 22:00:00,为减少客户停电时间,加快工作进度,提前送电,现变更停电结束时间为2019-11-23 20:20:00","powerOffId":"2019112331020159"},{"poweroffId":2019112331020142,"sgpoweroffId":null,"subsName":"","lineName":"20kV瑞方J070线","pubTranName":"艾美依01#,艾美依03#,杭州新程汽车零部件有限公司项目1#,群建布厂01#,费列罗食品2#,4,艾美依02#,杭州新程汽车零部件有限公司2#,杭州富嘉汽车01#,费列罗07,费列罗食品1#,费列罗食品3#,开氏石化1#,","scope":"浙江省-杭州市-萧山区-河庄街道-江东开发区园区(费列罗食品(杭州)有限公司,杭州萧山河庄群建布厂,杭州艾美依航空制造装备有限公司,杭州富嘉汽车部件有限公司),经济技术开发区-江东工业园区-开氏石化股份有限公司,河庄街道-杭州新程汽车零部件有限公司、大江东开发区、青六路、江东一路8058号一带","startTime":"2019-11-23 14:05:46","stopDate":"2019-11-23 16:50:46","orgNo":"3340120","typeCode":"电网故障停限电","poweroffArea":"110kV群欣变:瑞方J070线","poweroffReason":"高压开关跳闸 原停电结束时间为2019-11-23 17:05:46,为减少客户停电时间,加快工作进度,提前送电,现变更停电结束时间为2019-11-23 16:50:46","powerTime":"2019-11-23 15:58:28","powerComm":"已送电","subsNo":"","lineNo":"","tgNo":"","tgName":null,"infoStatus":"1","orgName":"国网浙江杭州市钱塘新区供电公司","typeName":null,"infoStatusName":null,"dateDay":null,"orgNos":null,"nowTime":null,"countyName":null,"streetName":null,"villageName":null,"roadName":null,"communityName":null,"tranName":null,"sdLineName":null,"cityCode":"3340120","cityName":"国网浙江杭州市钱塘新区供电公司","provinceCode":null,"stopTime":"2019-11-23 16:50:46","powerType":"全部","powerOffArea":"110kV群欣变:瑞方J070线","powerOffReason":"高压开关跳闸 原停电结束时间为2019-11-23 17:05:46,为减少客户停电时间,加快工作进度,提前送电,现变更停电结束时间为2019-11-23 16:50:46","powerOffId":"2019112331020142"},{"poweroffId":2019112331020135,"sgpoweroffId":null,"subsName":"","lineName":"10kV紫荆H873线","pubTranName":"新泰村扇子山公变,","scope":"浙江省-杭州市-余杭区-中泰街道-新泰行政村-新泰自然村","startTime":"2019-11-23 14:15:00","stopDate":"2019-11-23 15:30:00","orgNo":"3340140","typeCode":"电网故障停限电","poweroffArea":"110kV中泰变:紫荆H873线-扇子山分线开关后段","poweroffReason":"高压开关跳闸","powerTime":"2019-11-23 14:52:00","powerComm":"已送电","subsNo":"","lineNo":"","tgNo":"","tgName":null,"infoStatus":"1","orgName":"国网浙江杭州市余杭区供电有限公司","typeName":null,"infoStatusName":null,"dateDay":null,"orgNos":null,"nowTime":null,"countyName":null,"streetName":null,"villageName":null,"roadName":null,"communityName":null,"tranName":null,"sdLineName":null,"cityCode":"3340140","cityName":"国网浙江杭州市余杭区供电有限公司","provinceCode":null,"stopTime":"2019-11-23 15:30:00","powerType":"全部","powerOffArea":"110kV中泰变:紫荆H873线-扇子山分线开关后段","powerOffReason":"高压开关跳闸","powerOffId":"2019112331020135"},{"poweroffId":2019112331020107,"sgpoweroffId":null,"subsName":"","lineName":"10kV新白A41线","pubTranName":"新湾村5#变,","scope":"浙江省-杭州市-萧山区-新湾街道-三新行政村-新湾自然村、三新村、新湾村一带","startTime":"2019-11-23 13:11:52","stopDate":"2019-11-23 14:45:52","orgNo":"3340120","typeCode":"电网故障停限电","poweroffArea":"110kV白浪变:新白A41线-新湾村5#变后段","poweroffReason":"(低压停电信息)低压开关跳闸","powerTime":"2019-11-23 14:15:29","powerComm":"已送电","subsNo":"","lineNo":"","tgNo":"","tgName":null,"infoStatus":"1","orgName":"国网浙江杭州市钱塘新区供电公司","typeName":null,"infoStatusName":null,"dateDay":null,"orgNos":null,"nowTime":null,"countyName":null,"streetName":null,"villageName":null,"roadName":null,"communityName":null,"tranName":null,"sdLineName":null,"cityCode":"3340120","cityName":"国网浙江杭州市钱塘新区供电公司","provinceCode":null,"stopTime":"2019-11-23 14:45:52","powerType":"全部","powerOffArea":"110kV白浪变:新白A41线-新湾村5#变后段","powerOffReason":"(低压停电信息)低压开关跳闸","powerOffId":"2019112331020107"},{"poweroffId":2019112331020102,"sgpoweroffId":null,"subsName":"","lineName":"10kV贤德D333线","pubTranName":"大溪村14#藏马突公变,","scope":"浙江省-杭州市-富阳区-洞桥镇-大溪行政村(大溪自然村,里井坞自然村,大坞何家自然村,俞家山自然村,大坞方家自然村,岭脚跟自然村,毛山上自然村,堰头自然村,岭落坞自然村,何家自然村)","startTime":"2019-11-23 12:43:36","stopDate":"2019-11-23 13:43:36","orgNo":"3340170","typeCode":"电网故障停限电","poweroffArea":"110kV万市变:贤德D333线-大溪村14#藏马突公变后段","poweroffReason":"高压开关跳闸 原停电结束时间为2019-11-23 14:43:36,为减少客户停电时间,加快工作进度,提前送电,现变更停电结束时间为2019-11-23 13:43:36","powerTime":"2019-11-23 13:23:01","powerComm":"已送电","subsNo":"","lineNo":"","tgNo":"","tgName":null,"infoStatus":"1","orgName":"国网浙江杭州市富阳区供电公司","typeName":null,"infoStatusName":null,"dateDay":null,"orgNos":null,"nowTime":null,"countyName":null,"streetName":null,"villageName":null,"roadName":null,"communityName":null,"tranName":null,"sdLineName":null,"cityCode":"3340170","cityName":"国网浙江杭州市富阳区供电公司","provinceCode":null,"stopTime":"2019-11-23 13:43:36","powerType":"全部","powerOffArea":"110kV万市变:贤德D333线-大溪村14#藏马突公变后段","powerOffReason":"高压开关跳闸 原停电结束时间为2019-11-23 14:43:36,为减少客户停电时间,加快工作进度,提前送电,现变更停电结束时间为2019-11-23 13:43:36","powerOffId":"2019112331020102"},{"poweroffId":2019112331020089,"sgpoweroffId":null,"subsName":"","lineName":"10kV北湖H504线","pubTranName":"南山村下水淇公变,政南电气,南山排涝,西安寺村石塘山2号公变,杭州市余杭区瓶窑镇南山村村民委员会6120049932,配变,石濑村毛山桥1号公变,104国道路灯612063525502#专变,","scope":"浙江省-杭州市-余杭区-瓶窑镇-西安寺行政村-石塘山自然村,瓶窑镇-石濑行政村(大湾组,石濑村,胡家村,毛山桥自然村),瓶窑镇-南山行政村(下山渠自然村,南山自然村);瓶窑镇(南山行政村-杭州市余杭区瓶窑镇南山村村民委员会,华兴社区-杭州余杭区交通项目管理有限公司,西安寺行政村-杭州市余杭区瓶窑镇人民政府)","startTime":"2019-11-23 12:06:00","stopDate":"2019-11-23 13:06:00","orgNo":"3340140","typeCode":"电网故障停限电","poweroffArea":"35kV瓶镇变:北湖H504线-北湖H504线下水淇分线后段","poweroffReason":"高压开关跳闸","powerTime":"","powerComm":"","subsNo":"","lineNo":"","tgNo":"","tgName":null,"infoStatus":"1","orgName":"国网浙江杭州市余杭区供电有限公司","typeName":null,"infoStatusName":null,"dateDay":null,"orgNos":null,"nowTime":null,"countyName":null,"streetName":null,"villageName":null,"roadName":null,"communityName":null,"tranName":null,"sdLineName":null,"cityCode":"3340140","cityName":"国网浙江杭州市余杭区供电有限公司","provinceCode":null,"stopTime":"2019-11-23 13:06:00","powerType":"未送电","powerOffArea":"35kV瓶镇变:北湖H504线-北湖H504线下水淇分线后段","powerOffReason":"高压开关跳闸","powerOffId":"2019112331020089"},{"poweroffId":2019112331020083,"sgpoweroffId":null,"subsName":"","lineName":"20kV丰三B203线","pubTranName":"丰北家园3#公变,变压器,祥腾房地产（物业）3#,2,丰北家园1#公变,中广物业3#,中广物业2#,变压器,中广物业4#,中广物业7#,时代奥城3#公变,杭州蓝海房地产开发有限公司3#,利二花苑7#公变,时代奥城幼儿园,变压器,1,利二花苑6#公变,变压器,祥腾房产G3#公变,1,时代奥城物业专变1#,3,时代奥城11#公变,绿地控股集团杭州双塔置业有限公司2#,时代奥城13#公变,利二花苑2#公变,丰北家园5#公变,丰北家园4#公变,时代奥城9#公变,丰北家园8#公变,利二花苑5#公变,变压器,时代奥城5#公变,2,中广物业5#,中广物业1#,祥腾房地产（物业）,丰北家园物业变2#,丰北家园7#公变,绿地控股集团杭州双塔置业有限公司5#,时代奥城物业专变5#,杭州蓝海房地产开发有限公司1#,丰北家园物业变2#,绿地控股集团杭州双塔置业有限公司3#,杭州萧文置业有限公司2#变压器,绿地控股集团杭州双塔置业有限公司1#,时代奥城物业专变3#,杭州蓝海房地产开发有限公司2#,中广物业6#,变压器1,钱江世纪城管理委员会变压器,祥腾房产G2#公变,利二花苑1#公变,利二花苑3#公变,丰北家园2#公变,旭海置业,变压器2,祥腾房产G1#公变,时代奥城7#公变,利二花苑4#公变,钱江世纪城派出所1#,时代奥城1#公变,利二花苑WZ5#变,丰北家园物业变2#,世纪城7#路灯变,杭州萧文置业有限公司1#变压器,丰北家园物业变2#,绿地控股集团杭州双塔置业有限公司4#,丰北家园6#公变,","scope":"浙江省-杭州市-萧山区-宁围镇、宁围街道-丰北行政村(民和路,金鸡路,利丰路),宁围街道(利二行政村-金鸡路,利一行政村-华奥巷);宁围街道-钱江世纪城社区(杭州市公安局萧山区分局,杭州旭海置业有限公司),宁围街道-丰北行政村(浙江开元物业管理股份有限公司萧山钱江世纪城分公司,杭州中广物业管理服务股份有限公司,杭州德宏物业服务有限公司,杭州市萧山钱江世纪城管理委员会,杭州萧文置业有限公司,杭州高达物业服务有限公司),宁围街道-利二行政村(浙江卓越物业服务有限公司,杭州市萧山钱江世纪城管理委员会),宁围街道(新安行政村-绿地控股集团杭州双塔置业有限公司,利一行政村-杭州融御置业有限公司)等一带","startTime":"2019-11-23 11:10:58","stopDate":"2019-11-23 15:10:58","orgNo":"3340130","typeCode":"电网故障停限电","poweroffArea":"110kV顺丰变:丰三B203线","poweroffReason":"高压柱上断路器短路故障","powerTime":"","powerComm":"","subsNo":"","lineNo":"","tgNo":"","tgName":null,"infoStatus":"1","orgName":"国网浙江杭州市萧山区供电有限公司","typeName":null,"infoStatusName":null,"dateDay":null,"orgNos":null,"nowTime":null,"countyName":null,"streetName":null,"villageName":null,"roadName":null,"communityName":null,"tranName":null,"sdLineName":null,"cityCode":"3340130","cityName":"国网浙江杭州市萧山区供电有限公司","provinceCode":null,"stopTime":"2019-11-23 15:10:58","powerType":"未送电","powerOffArea":"110kV顺丰变:丰三B203线","powerOffReason":"高压柱上断路器短路故障","powerOffId":"2019112331020083"}],"pageModel":{"pageNow":813,"totalCount":17789,"totalPage":1779,"tableRows":0,"pageCount":10,"beginCount":8120},"isExperi":"1"}