{"message":"","today":"2020-06-15","seleList":[{"poweroffId":2020052931020393,"sgpoweroffId":null,"subsName":"","lineName":"10kV宫前D603线","pubTranName":"蒋家村14#东坑水库公变,","scope":"浙江省-杭州市-富阳区-大源镇-蒋家行政村-蒋家自然村一带","startTime":"2020-06-11 08:30:00","stopDate":"2020-06-11 12:40:00","orgNo":"3340170","typeCode":"计划停电","poweroffArea":"35kV溪东变:宫前D603线-蒋家村14#东坑水库公变低压开关后段","poweroffReason":"(低压停电信息)人工运12米杆一支、挖电杆、拉线洞各一个、拆装表箱一只、集束线二档、做拉线一组、吊车立杆、搭接等工作。","powerTime":"2020-06-11 12:13:26","powerComm":"已送电","subsNo":"","lineNo":"","tgNo":"","tgName":null,"infoStatus":"1","orgName":"国网浙江杭州市富阳区供电公司","typeName":null,"infoStatusName":null,"dateDay":null,"orgNos":null,"nowTime":null,"countyName":null,"streetName":null,"villageName":null,"roadName":null,"communityName":null,"tranName":null,"sdLineName":null,"cityCode":"3340170","cityName":"国网浙江杭州市富阳区供电公司","provinceCode":null,"stopTime":"2020-06-11 12:40:00","powerType":"全部","powerOffArea":"35kV溪东变:宫前D603线-蒋家村14#东坑水库公变低压开关后段","powerOffReason":"(低压停电信息)人工运12米杆一支、挖电杆、拉线洞各一个、拆装表箱一只、集束线二档、做拉线一组、吊车立杆、搭接等工作。","powerOffId":"2020052931020393"},{"poweroffId":2020052931020392,"sgpoweroffId":null,"subsName":"","lineName":"10kV大庄D791线","pubTranName":"场口村2号上街公变,","scope":"浙江省-杭州市-富阳区-场口镇-场口行政村-场口自然村一带","startTime":"2020-06-11 08:30:00","stopDate":"2020-06-11 12:00:00","orgNo":"3340170","typeCode":"计划停电","poweroffArea":"110kV王洲变:大庄D791线-场口村2号上街公变低压出线后段","poweroffReason":"(低压停电信息)场口2020年青江新区1#公变等台区增容布点工程：场口村2#上街公变1#开关1#出线14#杆-16#杆之间新立电杆1支，拆除电杆1支，导线拆移2档等工作。","powerTime":"2020-06-11 11:40:21","powerComm":"已送电","subsNo":"","lineNo":"","tgNo":"","tgName":null,"infoStatus":"1","orgName":"国网浙江杭州市富阳区供电公司","typeName":null,"infoStatusName":null,"dateDay":null,"orgNos":null,"nowTime":null,"countyName":null,"streetName":null,"villageName":null,"roadName":null,"communityName":null,"tranName":null,"sdLineName":null,"cityCode":"3340170","cityName":"国网浙江杭州市富阳区供电公司","provinceCode":null,"stopTime":"2020-06-11 12:00:00","powerType":"全部","powerOffArea":"110kV王洲变:大庄D791线-场口村2号上街公变低压出线后段","powerOffReason":"(低压停电信息)场口2020年青江新区1#公变等台区增容布点工程：场口村2#上街公变1#开关1#出线14#杆-16#杆之间新立电杆1支，拆除电杆1支，导线拆移2档等工作。","powerOffId":"2020052931020392"},{"poweroffId":2020052931020391,"sgpoweroffId":null,"subsName":"","lineName":"10kV潘塘D521线","pubTranName":"永庆新区3#公变,","scope":"浙江省-杭州市-富阳区-大源镇-亭山行政村-永庆村一带","startTime":"2020-06-10 08:00:00","stopDate":"2020-06-10 11:30:00","orgNo":"3340170","typeCode":"计划停电","poweroffArea":"110kV大源变:潘塘D521线-永庆新区3#公变低压开关后段","poweroffReason":"(低压停电信息)江南2020年业扩配套工程：配合带电作业拔杆2支停电。","powerTime":"2020-06-10 11:20:41","powerComm":"已送电","subsNo":"","lineNo":"","tgNo":"","tgName":null,"infoStatus":"1","orgName":"国网浙江杭州市富阳区供电公司","typeName":null,"infoStatusName":null,"dateDay":null,"orgNos":null,"nowTime":null,"countyName":null,"streetName":null,"villageName":null,"roadName":null,"communityName":null,"tranName":null,"sdLineName":null,"cityCode":"3340170","cityName":"国网浙江杭州市富阳区供电公司","provinceCode":null,"stopTime":"2020-06-10 11:30:00","powerType":"全部","powerOffArea":"110kV大源变:潘塘D521线-永庆新区3#公变低压开关后段","powerOffReason":"(低压停电信息)江南2020年业扩配套工程：配合带电作业拔杆2支停电。","powerOffId":"2020052931020391"},{"poweroffId":2020052931020390,"sgpoweroffId":null,"subsName":"","lineName":"10kV潭山D711线","pubTranName":"胥口集镇1#公变,","scope":"浙江省-杭州市-富阳区-胥口镇-胥口行政村-胥口自然村","startTime":"2020-06-08 07:40:00","stopDate":"2020-06-08 16:30:00","orgNo":"3340170","typeCode":"计划停电","poweroffArea":"110kV松溪变:潭山D711线-胥口集镇1#公变台区低压开关后段","poweroffReason":"(低压停电信息)照明01线、照明02线敷设出线电缆、架设导线JKLYJ-120*4*2档、拆除BS-JKLYJ-4*35*1档、更换落户线BS-JKLYJ-4*35*100米、BS-JKLYJ-2*25*4户、导线搭接","powerTime":"2020-06-08 16:12:11","powerComm":"已送电","subsNo":"","lineNo":"","tgNo":"","tgName":null,"infoStatus":"1","orgName":"国网浙江杭州市富阳区供电公司","typeName":null,"infoStatusName":null,"dateDay":null,"orgNos":null,"nowTime":null,"countyName":null,"streetName":null,"villageName":null,"roadName":null,"communityName":null,"tranName":null,"sdLineName":null,"cityCode":"3340170","cityName":"国网浙江杭州市富阳区供电公司","provinceCode":null,"stopTime":"2020-06-08 16:30:00","powerType":"全部","powerOffArea":"110kV松溪变:潭山D711线-胥口集镇1#公变台区低压开关后段","powerOffReason":"(低压停电信息)照明01线、照明02线敷设出线电缆、架设导线JKLYJ-120*4*2档、拆除BS-JKLYJ-4*35*1档、更换落户线BS-JKLYJ-4*35*100米、BS-JKLYJ-2*25*4户、导线搭接","powerOffId":"2020052931020390"},{"poweroffId":2020052931020388,"sgpoweroffId":null,"subsName":"","lineName":"10kV沙田8121线","pubTranName":"焦家(2),","scope":"浙江省-杭州市-下城区-文晖街道-建国北路800、802、804、806、808、810，文晖路80号1-5单元","startTime":"2020-06-08 09:00:00","stopDate":"2020-06-08 15:20:00","orgNo":"3340101","typeCode":"计划停电","poweroffArea":"220kV运河变:沙田8121线-领打81212线（领地站-打铁站）；领地站焦家(2)分线","poweroffReason":"杭州地铁机场快线文晖路风井10kV电力一期迁改工程（城北送变电）CZ2019-11-034-YBQC 原停电结束时间为2020-06-08 17:30:00,为减少客户停电时间,加快工作进度,提前送电,现变更停电结束时间为2020-06-08 15:20:00","powerTime":"2020-06-08 14:32:33","powerComm":"已送电","subsNo":"","lineNo":"","tgNo":"","tgName":null,"infoStatus":"1","orgName":"浙江杭州电力客户服务中心","typeName":null,"infoStatusName":null,"dateDay":null,"orgNos":null,"nowTime":null,"countyName":null,"streetName":null,"villageName":null,"roadName":null,"communityName":null,"tranName":null,"sdLineName":null,"cityCode":"3340101","cityName":"浙江杭州电力客户服务中心","provinceCode":null,"stopTime":"2020-06-08 15:20:00","powerType":"全部","powerOffArea":"220kV运河变:沙田8121线-领打81212线（领地站-打铁站）；领地站焦家(2)分线","powerOffReason":"杭州地铁机场快线文晖路风井10kV电力一期迁改工程（城北送变电）CZ2019-11-034-YBQC 原停电结束时间为2020-06-08 17:30:00,为减少客户停电时间,加快工作进度,提前送电,现变更停电结束时间为2020-06-08 15:20:00","powerOffId":"2020052931020388"},{"poweroffId":2020052931020381,"sgpoweroffId":null,"subsName":"","lineName":"10kV新华6442线","pubTranName":"横燕变,","scope":"浙江省-杭州市-下城区-长庆街道-新华坊社区(新华路),长庆街道-王马社区(横燕子弄,遥祥寺巷)","startTime":"2020-05-29 13:13:32","stopDate":"2020-05-29 15:43:32","orgNo":"3340101","typeCode":"电网故障停限电","poweroffArea":"110kV新华变:新华6442线-横燕变后段","poweroffReason":"(低压停电信息)低压开关跳闸 原停电结束时间为2020-05-29 16:43:32,为减少客户停电时间,加快工作进度,提前送电,现变更停电结束时间为2020-05-29 15:43:32","powerTime":"2020-05-29 15:18:00","powerComm":"已送电","subsNo":"","lineNo":"","tgNo":"","tgName":null,"infoStatus":"1","orgName":"浙江杭州电力客户服务中心","typeName":null,"infoStatusName":null,"dateDay":null,"orgNos":null,"nowTime":null,"countyName":null,"streetName":null,"villageName":null,"roadName":null,"communityName":null,"tranName":null,"sdLineName":null,"cityCode":"3340101","cityName":"浙江杭州电力客户服务中心","provinceCode":null,"stopTime":"2020-05-29 15:43:32","powerType":"全部","powerOffArea":"110kV新华变:新华6442线-横燕变后段","powerOffReason":"(低压停电信息)低压开关跳闸 原停电结束时间为2020-05-29 16:43:32,为减少客户停电时间,加快工作进度,提前送电,现变更停电结束时间为2020-05-29 15:43:32","powerOffId":"2020052931020381"},{"poweroffId":2020052931020379,"sgpoweroffId":null,"subsName":"","lineName":"10kV赵家C455线","pubTranName":"赵家墩村2#变,","scope":"浙江省-杭州市-萧山区-蜀山街道-赵家墩行政村(赵家墩自然村,桥头余自然村)","startTime":"2020-05-29 13:12:13","stopDate":"2020-05-29 14:30:13","orgNo":"3340130","typeCode":"电网故障停限电","poweroffArea":"110kV萧山变:赵家C455线-赵家墩村2#变后段","poweroffReason":"(低压停电信息)低压架空线断线 原停电结束时间为2020-05-29 15:30:13,为减少客户停电时间,加快工作进度,提前送电,现变更停电结束时间为2020-05-29 14:30:13","powerTime":"2020-05-29 13:45:40","powerComm":"已送电","subsNo":"","lineNo":"","tgNo":"","tgName":null,"infoStatus":"1","orgName":"国网浙江杭州市萧山区供电有限公司","typeName":null,"infoStatusName":null,"dateDay":null,"orgNos":null,"nowTime":null,"countyName":null,"streetName":null,"villageName":null,"roadName":null,"communityName":null,"tranName":null,"sdLineName":null,"cityCode":"3340130","cityName":"国网浙江杭州市萧山区供电有限公司","provinceCode":null,"stopTime":"2020-05-29 14:30:13","powerType":"全部","powerOffArea":"110kV萧山变:赵家C455线-赵家墩村2#变后段","powerOffReason":"(低压停电信息)低压架空线断线 原停电结束时间为2020-05-29 15:30:13,为减少客户停电时间,加快工作进度,提前送电,现变更停电结束时间为2020-05-29 14:30:13","powerOffId":"2020052931020379"},{"poweroffId":2020052931020375,"sgpoweroffId":null,"subsName":"","lineName":"10kV迎广T388线","pubTranName":"平阳山1号公变,","scope":"浙江省-杭州市-桐庐县-城南街道-中杭社区-云栖中路,城南街道-下杭社区(云栖路,大联路,平阳山自然村)","startTime":"2020-05-29 13:08:08","stopDate":"2020-05-29 15:30:08","orgNo":"3340150","typeCode":"电网故障停限电","poweroffArea":"110kV迎春变:迎广T388线-平阳山1号公变后段","poweroffReason":"(低压停电信息)低压开关跳闸","powerTime":"2020-05-29 15:14:21","powerComm":"已送电","subsNo":"","lineNo":"","tgNo":"","tgName":null,"infoStatus":"1","orgName":"国网浙江桐庐县供电公司","typeName":null,"infoStatusName":null,"dateDay":null,"orgNos":null,"nowTime":null,"countyName":null,"streetName":null,"villageName":null,"roadName":null,"communityName":null,"tranName":null,"sdLineName":null,"cityCode":"3340150","cityName":"国网浙江桐庐县供电公司","provinceCode":null,"stopTime":"2020-05-29 15:30:08","powerType":"全部","powerOffArea":"110kV迎春变:迎广T388线-平阳山1号公变后段","powerOffReason":"(低压停电信息)低压开关跳闸","powerOffId":"2020052931020375"},{"poweroffId":2020052931020362,"sgpoweroffId":null,"subsName":"","lineName":"10kV站用T176线","pubTranName":"桥东周王坞2号公变,桥东周王坞3号公变,","scope":"浙江省-杭州市-桐庐县-分水镇-桥东行政村(周王坞自然村,桥东自然村)","startTime":"2020-06-11 08:30:00","stopDate":"2020-06-11 15:00:00","orgNo":"3340150","typeCode":"计划停电","poweroffArea":"110kV分水变:站用T176线-周坞F4333智能开关后段","poweroffReason":"杭州桐庐分水周王坞等台区配变及线路改造工程 原停电开始时间为2020-06-11 9:00:00,因天气原因,现变更停电开始时间为2020-06-11 8:30:00","powerTime":"2020-06-11 14:45:52","powerComm":"已送电","subsNo":"","lineNo":"","tgNo":"","tgName":null,"infoStatus":"1","orgName":"国网浙江桐庐县供电公司","typeName":null,"infoStatusName":null,"dateDay":null,"orgNos":null,"nowTime":null,"countyName":null,"streetName":null,"villageName":null,"roadName":null,"communityName":null,"tranName":null,"sdLineName":null,"cityCode":"3340150","cityName":"国网浙江桐庐县供电公司","provinceCode":null,"stopTime":"2020-06-11 15:00:00","powerType":"全部","powerOffArea":"110kV分水变:站用T176线-周坞F4333智能开关后段","powerOffReason":"杭州桐庐分水周王坞等台区配变及线路改造工程 原停电开始时间为2020-06-11 9:00:00,因天气原因,现变更停电开始时间为2020-06-11 8:30:00","powerOffId":"2020052931020362"},{"poweroffId":2020052931020361,"sgpoweroffId":null,"subsName":"","lineName":"10kV站用T176线","pubTranName":"分水镇建设投资开发有限公司（保安路口）,","scope":"浙江省-杭州市-桐庐县-分水镇-桥东行政村-桐庐县分水镇建设投资开发有限公司路灯","startTime":"2020-06-11 08:00:00","stopDate":"2020-06-11 09:00:00","orgNo":"3340150","typeCode":"计划停电","poweroffArea":"110kV分水变:站用T176线-分水镇建设投资开发有限公司后段","poweroffReason":"杭州桐庐分水周王坞等台区配变及线路改造工程","powerTime":"2020-06-11 08:40:02","powerComm":"已送电","subsNo":"","lineNo":"","tgNo":"","tgName":null,"infoStatus":"1","orgName":"国网浙江桐庐县供电公司","typeName":null,"infoStatusName":null,"dateDay":null,"orgNos":null,"nowTime":null,"countyName":null,"streetName":null,"villageName":null,"roadName":null,"communityName":null,"tranName":null,"sdLineName":null,"cityCode":"3340150","cityName":"国网浙江桐庐县供电公司","provinceCode":null,"stopTime":"2020-06-11 09:00:00","powerType":"全部","powerOffArea":"110kV分水变:站用T176线-分水镇建设投资开发有限公司后段","powerOffReason":"杭州桐庐分水周王坞等台区配变及线路改造工程","powerOffId":"2020052931020361"}],"pageModel":{"pageNow":81,"totalCount":17786,"totalPage":1779,"tableRows":0,"pageCount":10,"beginCount":800},"isExperi":"1"}