{"message":"","today":"2020-06-15","seleList":[{"poweroffId":2019112231020643,"sgpoweroffId":null,"subsName":"","lineName":"10kV儒桥T438线","pubTranName":"大路罗卜湾1号公变,大路王家坞1号公变,","scope":"浙江省-杭州市-桐庐县-分水镇-大路行政村-刘家自然村","startTime":"2019-12-03 08:00:00","stopDate":"2019-12-03 14:00:00","orgNo":"3340150","typeCode":"计划停电","poweroffArea":"110kV天英变:儒桥T438线-刘家F4828令克后段","poweroffReason":"10KV儒桥T438线汪家支线15至18#杆线路移位工程","powerTime":"2019-12-03 13:31:33","powerComm":"已送电","subsNo":"","lineNo":"","tgNo":"","tgName":null,"infoStatus":"1","orgName":"国网浙江桐庐县供电公司","typeName":null,"infoStatusName":null,"dateDay":null,"orgNos":null,"nowTime":null,"countyName":null,"streetName":null,"villageName":null,"roadName":null,"communityName":null,"tranName":null,"sdLineName":null,"cityCode":"3340150","cityName":"国网浙江桐庐县供电公司","provinceCode":null,"stopTime":"2019-12-03 14:00:00","powerType":"全部","powerOffArea":"110kV天英变:儒桥T438线-刘家F4828令克后段","powerOffReason":"10KV儒桥T438线汪家支线15至18#杆线路移位工程","powerOffId":"2019112231020643"},{"poweroffId":2019112231020640,"sgpoweroffId":null,"subsName":"","lineName":"10kV窄溪T257线","pubTranName":"锦绣江南小区1号公变,","scope":"浙江省-杭州市-桐庐县-江南镇-窄溪行政村-窄石路","startTime":"2019-12-05 09:00:00","stopDate":"2019-12-05 13:00:00","orgNo":"3340150","typeCode":"计划停电","poweroffArea":"110kV石阜变:窄溪T257线-锦绣F5218开关后段","poweroffReason":"杭州桐庐江南镇窄石路10千伏金浦764线等小城镇环境综合整治项目","powerTime":"2019-12-05 12:30:57","powerComm":"已送电","subsNo":"","lineNo":"","tgNo":"","tgName":null,"infoStatus":"1","orgName":"国网浙江桐庐县供电公司","typeName":null,"infoStatusName":null,"dateDay":null,"orgNos":null,"nowTime":null,"countyName":null,"streetName":null,"villageName":null,"roadName":null,"communityName":null,"tranName":null,"sdLineName":null,"cityCode":"3340150","cityName":"国网浙江桐庐县供电公司","provinceCode":null,"stopTime":"2019-12-05 13:00:00","powerType":"全部","powerOffArea":"110kV石阜变:窄溪T257线-锦绣F5218开关后段","powerOffReason":"杭州桐庐江南镇窄石路10千伏金浦764线等小城镇环境综合整治项目","powerOffId":"2019112231020640"},{"poweroffId":2019112231020639,"sgpoweroffId":null,"subsName":"","lineName":"10kV窄溪T257线","pubTranName":"锦绣江南小区1号公变,","scope":"浙江省-杭州市-桐庐县-江南镇-窄溪行政村-窄石路","startTime":"2019-12-05 09:00:00","stopDate":"2019-12-05 13:00:00","orgNo":"3340150","typeCode":"计划停电","poweroffArea":"110kV石阜变:窄溪T257线-锦绣F5218开关后段","poweroffReason":"杭州桐庐江南镇窄石路10千伏金浦764线等小城镇环境综合整治项目","powerTime":"2019-12-05 12:30:43","powerComm":"已送电","subsNo":"","lineNo":"","tgNo":"","tgName":null,"infoStatus":"1","orgName":"国网浙江桐庐县供电公司","typeName":null,"infoStatusName":null,"dateDay":null,"orgNos":null,"nowTime":null,"countyName":null,"streetName":null,"villageName":null,"roadName":null,"communityName":null,"tranName":null,"sdLineName":null,"cityCode":"3340150","cityName":"国网浙江桐庐县供电公司","provinceCode":null,"stopTime":"2019-12-05 13:00:00","powerType":"全部","powerOffArea":"110kV石阜变:窄溪T257线-锦绣F5218开关后段","powerOffReason":"杭州桐庐江南镇窄石路10千伏金浦764线等小城镇环境综合整治项目","powerOffId":"2019112231020639"},{"poweroffId":2019112231020637,"sgpoweroffId":null,"subsName":"","lineName":"10kV张江6884线","pubTranName":"娑婆(二),","scope":"浙江省杭州市拱墅区娑婆新村10-14、29幢附近一带，浙江省杭州市拱墅区湖墅嘉苑附近一带（短时倒负荷）","startTime":"2019-12-06 09:00:00","stopDate":"2019-12-06 17:30:00","orgNo":"3340101","typeCode":"计划停电","poweroffArea":"110kV文化变:张江6884线-哑弄站娑婆（2）分线、哑弄站4#间隔，康弄7109C线（哑弄站-康家站）、哑弄站港航二线、湖嘉四线（哑弄站-湖嘉三站）、湖嘉二线（哑弄站-湖嘉一站）、贾弄68844线（哑弄站-贾弄站）、双路用户港航（用检配合）","poweroffReason":"10kV明纸站、普金站、青广站换柜工程（CZ2018-05-093-WGPD）（城北送变电） 原停电结束时间为2019-12-06 12:00:00,因工程量大原因,现变更停电结束时间为2019-12-06 17:30:00","powerTime":"2019-12-06 17:24:27","powerComm":"已送电","subsNo":"","lineNo":"","tgNo":"","tgName":null,"infoStatus":"1","orgName":"浙江杭州电力客户服务中心","typeName":null,"infoStatusName":null,"dateDay":null,"orgNos":null,"nowTime":null,"countyName":null,"streetName":null,"villageName":null,"roadName":null,"communityName":null,"tranName":null,"sdLineName":null,"cityCode":"3340101","cityName":"浙江杭州电力客户服务中心","provinceCode":null,"stopTime":"2019-12-06 17:30:00","powerType":"全部","powerOffArea":"110kV文化变:张江6884线-哑弄站娑婆（2）分线、哑弄站4#间隔，康弄7109C线（哑弄站-康家站）、哑弄站港航二线、湖嘉四线（哑弄站-湖嘉三站）、湖嘉二线（哑弄站-湖嘉一站）、贾弄68844线（哑弄站-贾弄站）、双路用户港航（用检配合）","powerOffReason":"10kV明纸站、普金站、青广站换柜工程（CZ2018-05-093-WGPD）（城北送变电） 原停电结束时间为2019-12-06 12:00:00,因工程量大原因,现变更停电结束时间为2019-12-06 17:30:00","powerOffId":"2019112231020637"},{"poweroffId":2019112231020635,"sgpoweroffId":null,"subsName":"","lineName":"10kV窄溪T257线","pubTranName":"桐庐县公安局江南派出所,","scope":"浙江省-杭州市-桐庐县-江南镇-桐庐县公安局江南派出所","startTime":"2019-12-04 08:00:00","stopDate":"2019-12-04 13:00:00","orgNo":"3340150","typeCode":"计划停电","poweroffArea":"110kV石阜变:窄溪T257线-派出所F9981线后段","poweroffReason":"杭州桐庐江南镇窄石路10千伏金浦764线等小城镇环境综合整治项目","powerTime":"2019-12-04 12:50:42","powerComm":"已送电","subsNo":"","lineNo":"","tgNo":"","tgName":null,"infoStatus":"1","orgName":"国网浙江桐庐县供电公司","typeName":null,"infoStatusName":null,"dateDay":null,"orgNos":null,"nowTime":null,"countyName":null,"streetName":null,"villageName":null,"roadName":null,"communityName":null,"tranName":null,"sdLineName":null,"cityCode":"3340150","cityName":"国网浙江桐庐县供电公司","provinceCode":null,"stopTime":"2019-12-04 13:00:00","powerType":"全部","powerOffArea":"110kV石阜变:窄溪T257线-派出所F9981线后段","powerOffReason":"杭州桐庐江南镇窄石路10千伏金浦764线等小城镇环境综合整治项目","powerOffId":"2019112231020635"},{"poweroffId":2019112231020633,"sgpoweroffId":null,"subsName":"","lineName":"10kV窄溪T257线","pubTranName":"桐庐县公安局江南派出所,","scope":"浙江省-杭州市-桐庐县-江南镇-桐庐县公安局江南派出所","startTime":"2019-12-04 08:00:00","stopDate":"2019-12-04 13:00:00","orgNo":"3340150","typeCode":"计划停电","poweroffArea":"110kV石阜变:窄溪T257线-所前环网站派出所4462线间隔","poweroffReason":"杭州桐庐江南镇窄石路10千伏金浦764线等小城镇环境综合整治项目","powerTime":"2019-12-04 12:49:03","powerComm":"已送电","subsNo":"","lineNo":"","tgNo":"","tgName":null,"infoStatus":"1","orgName":"国网浙江桐庐县供电公司","typeName":null,"infoStatusName":null,"dateDay":null,"orgNos":null,"nowTime":null,"countyName":null,"streetName":null,"villageName":null,"roadName":null,"communityName":null,"tranName":null,"sdLineName":null,"cityCode":"3340150","cityName":"国网浙江桐庐县供电公司","provinceCode":null,"stopTime":"2019-12-04 13:00:00","powerType":"全部","powerOffArea":"110kV石阜变:窄溪T257线-所前环网站派出所4462线间隔","powerOffReason":"杭州桐庐江南镇窄石路10千伏金浦764线等小城镇环境综合整治项目","powerOffId":"2019112231020633"},{"poweroffId":2019112231020620,"sgpoweroffId":null,"subsName":"","lineName":"10kV金明G343线","pubTranName":"石桥村钱家斗公变,","scope":"浙江省杭州市余杭区良渚街道：石桥村钱家斗一带","startTime":"2019-12-04 09:10:00","stopDate":"2019-12-04 12:40:00","orgNo":"3340140","typeCode":"计划停电","poweroffArea":"110kV洛山变:金明G343线-钱家斗后段","poweroffReason":"金明G343线钱家斗分线新放导线1档、拆旧，钱家斗公变割接至尖斗里分线26号杆开关后段。","powerTime":"2019-12-04 12:03:11","powerComm":"已送电","subsNo":"","lineNo":"","tgNo":"","tgName":null,"infoStatus":"1","orgName":"国网浙江杭州市余杭区供电有限公司","typeName":null,"infoStatusName":null,"dateDay":null,"orgNos":null,"nowTime":null,"countyName":null,"streetName":null,"villageName":null,"roadName":null,"communityName":null,"tranName":null,"sdLineName":null,"cityCode":"3340140","cityName":"国网浙江杭州市余杭区供电有限公司","provinceCode":null,"stopTime":"2019-12-04 12:40:00","powerType":"全部","powerOffArea":"110kV洛山变:金明G343线-钱家斗后段","powerOffReason":"金明G343线钱家斗分线新放导线1档、拆旧，钱家斗公变割接至尖斗里分线26号杆开关后段。","powerOffId":"2019112231020620"},{"poweroffId":2019112231020619,"sgpoweroffId":null,"subsName":"","lineName":"10kV美树H579线","pubTranName":"美树5#公变,美树6#公变,","scope":"浙江省杭州市余杭区良渚街道：美树小区5、美树小区6一带","startTime":"2019-12-03 09:00:00","stopDate":"2019-12-03 23:30:00","orgNo":"3340140","typeCode":"计划停电","poweroffArea":"110kV南庄变:美树H579线-美树3＃站联线后段","poweroffReason":"美树开关站I段老旧开关柜调换，拼柜自动化改造工作。 原停电结束时间为2019-12-03 16:30:00,因施工力量不足原因,现变更停电结束时间为2019-12-03 23:30:00","powerTime":"2019-12-03 22:50:14","powerComm":"已送电","subsNo":"","lineNo":"","tgNo":"","tgName":null,"infoStatus":"1","orgName":"国网浙江杭州市余杭区供电有限公司","typeName":null,"infoStatusName":null,"dateDay":null,"orgNos":null,"nowTime":null,"countyName":null,"streetName":null,"villageName":null,"roadName":null,"communityName":null,"tranName":null,"sdLineName":null,"cityCode":"3340140","cityName":"国网浙江杭州市余杭区供电有限公司","provinceCode":null,"stopTime":"2019-12-03 23:30:00","powerType":"全部","powerOffArea":"110kV南庄变:美树H579线-美树3＃站联线后段","powerOffReason":"美树开关站I段老旧开关柜调换，拼柜自动化改造工作。 原停电结束时间为2019-12-03 16:30:00,因施工力量不足原因,现变更停电结束时间为2019-12-03 23:30:00","powerOffId":"2019112231020619"},{"poweroffId":2019112231020617,"sgpoweroffId":null,"subsName":"","lineName":"10kV美树H579线","pubTranName":"南庄兜(6120892790)05#专变,杭州伦望贸易有限公司,南庄兜(6120892790)06#专变,南庄兜(6120892790)03#专变,南庄兜(6120892790)07#专变,南庄兜(6120892790)04#专变,南庄兜(6120892790)02#专变,南庄兜(6120892790)01#专变,润祥实业,","scope":"浙江省杭州市余杭区良渚街道：润祥实业、伦望贸易、贝怡灯具一带","startTime":"2019-12-06 08:40:00","stopDate":"2019-12-06 09:40:00","orgNo":"3340140","typeCode":"计划停电","poweroffArea":"110kV南庄变:美树H579线-美树H579线贝怡灯具分线开关后段","poweroffReason":"美树H579线贝怡灯具分线拉线抬高工作。","powerTime":"2019-12-06 09:32:49","powerComm":"已送电","subsNo":"","lineNo":"","tgNo":"","tgName":null,"infoStatus":"1","orgName":"国网浙江杭州市余杭区供电有限公司","typeName":null,"infoStatusName":null,"dateDay":null,"orgNos":null,"nowTime":null,"countyName":null,"streetName":null,"villageName":null,"roadName":null,"communityName":null,"tranName":null,"sdLineName":null,"cityCode":"3340140","cityName":"国网浙江杭州市余杭区供电有限公司","provinceCode":null,"stopTime":"2019-12-06 09:40:00","powerType":"全部","powerOffArea":"110kV南庄变:美树H579线-美树H579线贝怡灯具分线开关后段","powerOffReason":"美树H579线贝怡灯具分线拉线抬高工作。","powerOffId":"2019112231020617"},{"poweroffId":2019112231020616,"sgpoweroffId":null,"subsName":"","lineName":"10kV许家H410线","pubTranName":"良渚村李家塘公变,新源畜禽2,良渚塑胶2,良渚村鱼桥头公变,良渚村仰家塘公变,良渚村殷家桥公变,中国电信,良渚村鱼桥头2号公变,良渚塑胶1,新源畜禽1,良渚村闻家塘公变,东西大道3#路灯变,","scope":"浙江省杭州市余杭区良渚街道：良渚塑胶1长、良渚塑胶2长、闻家塘村、新源畜禽1长、殷家桥村、新源畜禽2长、鱼桥头村、仰家塘、李家塘村、中国电信店、东西大道路灯一带","startTime":"2019-12-05 08:40:00","stopDate":"2019-12-05 15:40:00","orgNo":"3340140","typeCode":"计划停电","poweroffArea":"35kV良渚变:许家H410线-仰家塘总分线28#杆开关后段","poweroffReason":"许家H410线仰家塘总分线28-64#杆换线，39号杆后段负荷割接至纤石H402线38#杆艺建分线。","powerTime":"2019-12-05 15:27:38","powerComm":"已送电","subsNo":"","lineNo":"","tgNo":"","tgName":null,"infoStatus":"1","orgName":"国网浙江杭州市余杭区供电有限公司","typeName":null,"infoStatusName":null,"dateDay":null,"orgNos":null,"nowTime":null,"countyName":null,"streetName":null,"villageName":null,"roadName":null,"communityName":null,"tranName":null,"sdLineName":null,"cityCode":"3340140","cityName":"国网浙江杭州市余杭区供电有限公司","provinceCode":null,"stopTime":"2019-12-05 15:40:00","powerType":"全部","powerOffArea":"35kV良渚变:许家H410线-仰家塘总分线28#杆开关后段","powerOffReason":"许家H410线仰家塘总分线28-64#杆换线，39号杆后段负荷割接至纤石H402线38#杆艺建分线。","powerOffId":"2019112231020616"}],"pageModel":{"pageNow":815,"totalCount":17789,"totalPage":1779,"tableRows":0,"pageCount":10,"beginCount":8140},"isExperi":"1"}