{"message":"","today":"2020-06-15","seleList":[{"poweroffId":2019112231020513,"sgpoweroffId":null,"subsName":"","lineName":"10kV水亭6356线","pubTranName":"南板一变,","scope":"杭州市上城区南班巷公安厅住宅6-14幢附近一带。","startTime":"2019-11-25 09:30:00","stopDate":"2019-11-25 17:30:00","orgNo":"3340101","typeCode":"临时停电","poweroffArea":"110kV滨江变:水亭6356线-南板一线后段","poweroffReason":"南板一变美变换欧变","powerTime":"","powerComm":"","subsNo":"","lineNo":"","tgNo":"","tgName":null,"infoStatus":"1","orgName":"浙江杭州电力客户服务中心","typeName":null,"infoStatusName":null,"dateDay":null,"orgNos":null,"nowTime":null,"countyName":null,"streetName":null,"villageName":null,"roadName":null,"communityName":null,"tranName":null,"sdLineName":null,"cityCode":"3340101","cityName":"浙江杭州电力客户服务中心","provinceCode":null,"stopTime":"2019-11-25 17:30:00","powerType":"未送电","powerOffArea":"110kV滨江变:水亭6356线-南板一线后段","powerOffReason":"南板一变美变换欧变","powerOffId":"2019112231020513"},{"poweroffId":2019112231020512,"sgpoweroffId":null,"subsName":"","lineName":"10kV宫前D603线","pubTranName":"蒋家村蒋家1#玻纤公变,","scope":"浙江省-杭州市-富阳区-大源镇-蒋家村一带","startTime":"2019-12-05 07:00:00","stopDate":"2019-12-05 08:00:00","orgNo":"3340170","typeCode":"计划停电","poweroffArea":"35kV溪东变:宫前D603线-蒋家村蒋家1#玻纤公变开关后段","poweroffReason":"短时停电配合蒋家村蒋家1#玻纤公变低压负荷转供至0.4kV发电机","powerTime":"2019-12-05 07:50:37","powerComm":"已送电","subsNo":"","lineNo":"","tgNo":"","tgName":null,"infoStatus":"1","orgName":"国网浙江杭州市富阳区供电公司","typeName":null,"infoStatusName":null,"dateDay":null,"orgNos":null,"nowTime":null,"countyName":null,"streetName":null,"villageName":null,"roadName":null,"communityName":null,"tranName":null,"sdLineName":null,"cityCode":"3340170","cityName":"国网浙江杭州市富阳区供电公司","provinceCode":null,"stopTime":"2019-12-05 08:00:00","powerType":"全部","powerOffArea":"35kV溪东变:宫前D603线-蒋家村蒋家1#玻纤公变开关后段","powerOffReason":"短时停电配合蒋家村蒋家1#玻纤公变低压负荷转供至0.4kV发电机","powerOffId":"2019112231020512"},{"poweroffId":2019112231020511,"sgpoweroffId":null,"subsName":"","lineName":"10kV宫前D603线","pubTranName":"蒋家村2#桥头公变,","scope":"浙江省-杭州市-富阳区-大源镇-蒋家村一带","startTime":"2019-12-05 07:00:00","stopDate":"2019-12-05 08:00:00","orgNo":"3340170","typeCode":"计划停电","poweroffArea":"35kV溪东变:宫前D603线-蒋家村2#桥头公变开关后段","poweroffReason":"短时停电配合蒋家村2#桥头公变低压负荷转供至0.4kV发电机","powerTime":"2019-12-05 07:50:26","powerComm":"已送电","subsNo":"","lineNo":"","tgNo":"","tgName":null,"infoStatus":"1","orgName":"国网浙江杭州市富阳区供电公司","typeName":null,"infoStatusName":null,"dateDay":null,"orgNos":null,"nowTime":null,"countyName":null,"streetName":null,"villageName":null,"roadName":null,"communityName":null,"tranName":null,"sdLineName":null,"cityCode":"3340170","cityName":"国网浙江杭州市富阳区供电公司","provinceCode":null,"stopTime":"2019-12-05 08:00:00","powerType":"全部","powerOffArea":"35kV溪东变:宫前D603线-蒋家村2#桥头公变开关后段","powerOffReason":"短时停电配合蒋家村2#桥头公变低压负荷转供至0.4kV发电机","powerOffId":"2019112231020511"},{"poweroffId":2019112231020510,"sgpoweroffId":null,"subsName":"","lineName":"10kV横槎D386线","pubTranName":"横槎村6号横坑公变,","scope":"浙江省-杭州市-富阳区-常安镇-横槎行政村-横坑自然村","startTime":"2019-11-22 14:51:26","stopDate":"2019-11-22 15:44:00","orgNo":"3340170","typeCode":"电网故障停限电","poweroffArea":"35kV湖源变:横槎D386线横槎村6号横坑公变配变","poweroffReason":"高压开关跳闸","powerTime":"2019-11-22 15:06:56","powerComm":"已送电","subsNo":"","lineNo":"","tgNo":"","tgName":null,"infoStatus":"1","orgName":"国网浙江杭州市富阳区供电公司","typeName":null,"infoStatusName":null,"dateDay":null,"orgNos":null,"nowTime":null,"countyName":null,"streetName":null,"villageName":null,"roadName":null,"communityName":null,"tranName":null,"sdLineName":null,"cityCode":"3340170","cityName":"国网浙江杭州市富阳区供电公司","provinceCode":null,"stopTime":"2019-11-22 15:44:00","powerType":"全部","powerOffArea":"35kV湖源变:横槎D386线横槎村6号横坑公变配变","powerOffReason":"高压开关跳闸","powerOffId":"2019112231020510"},{"poweroffId":2019112231020509,"sgpoweroffId":null,"subsName":"","lineName":"10kV周扬7017线","pubTranName":"天星苑5号公变,","scope":"浙江省杭州市余杭区星桥街道：天星苑一带","startTime":"2019-12-06 08:30:00","stopDate":"2019-12-06 17:00:00","orgNo":"3340140","typeCode":"计划停电","poweroffArea":"110kV锦唐变:天星3#站周扬7017线天星苑5#公变分线。","poweroffReason":"天星3#站周扬7017线天星苑5#公变调换。 原停电结束时间为2019-12-04 17:00:00,因施工单位施工力量调整原因,现变更停电结束时间为2019-12-06 17:00:00","powerTime":"2019-12-06 16:30:11","powerComm":"已送电","subsNo":"","lineNo":"","tgNo":"","tgName":null,"infoStatus":"1","orgName":"国网浙江杭州市余杭区供电有限公司","typeName":null,"infoStatusName":null,"dateDay":null,"orgNos":null,"nowTime":null,"countyName":null,"streetName":null,"villageName":null,"roadName":null,"communityName":null,"tranName":null,"sdLineName":null,"cityCode":"3340140","cityName":"国网浙江杭州市余杭区供电有限公司","provinceCode":null,"stopTime":"2019-12-06 17:00:00","powerType":"全部","powerOffArea":"110kV锦唐变:天星3#站周扬7017线天星苑5#公变分线。","powerOffReason":"天星3#站周扬7017线天星苑5#公变调换。 原停电结束时间为2019-12-04 17:00:00,因施工单位施工力量调整原因,现变更停电结束时间为2019-12-06 17:00:00","powerOffId":"2019112231020509"},{"poweroffId":2019112231020508,"sgpoweroffId":null,"subsName":"","lineName":"10kV三鑫G063线","pubTranName":"顺龙投资,高明玻璃（6111003845）01号专变,乔司6组2号公变,","scope":"浙江省杭州市余杭区乔司街道：顺龙投资、乔司6组、高明玻璃一带","startTime":"2019-12-04 08:30:00","stopDate":"2019-12-04 17:00:00","orgNo":"3340140","typeCode":"计划停电","poweroffArea":"110kV外乔变:高明开关站三鑫G063线顺龙分支箱分线、高明玻璃分线","poweroffReason":"高明开关站三鑫G063线顺龙分支箱分线、高明玻璃分线改接至迎鑫开关站鑫园G057线。","powerTime":"2019-12-04 16:45:06","powerComm":"已送电","subsNo":"","lineNo":"","tgNo":"","tgName":null,"infoStatus":"1","orgName":"国网浙江杭州市余杭区供电有限公司","typeName":null,"infoStatusName":null,"dateDay":null,"orgNos":null,"nowTime":null,"countyName":null,"streetName":null,"villageName":null,"roadName":null,"communityName":null,"tranName":null,"sdLineName":null,"cityCode":"3340140","cityName":"国网浙江杭州市余杭区供电有限公司","provinceCode":null,"stopTime":"2019-12-04 17:00:00","powerType":"全部","powerOffArea":"110kV外乔变:高明开关站三鑫G063线顺龙分支箱分线、高明玻璃分线","powerOffReason":"高明开关站三鑫G063线顺龙分支箱分线、高明玻璃分线改接至迎鑫开关站鑫园G057线。","powerOffId":"2019112231020508"},{"poweroffId":2019112231020507,"sgpoweroffId":null,"subsName":"","lineName":"10kV大井G009线","pubTranName":"乔基时装1#,","scope":"浙江省杭州市余杭区乔司街道：乔基时装一带","startTime":"2019-12-04 08:30:00","stopDate":"2019-12-04 17:00:00","orgNo":"3340140","typeCode":"计划停电","poweroffArea":"110kV外乔变:高明开关站大井009线乔基时装分线。","poweroffReason":"高明开关站大井009线乔基时装分线改接至迎鑫开关站鑫园G057线待用G15线。","powerTime":"2019-12-04 16:44:42","powerComm":"已送电","subsNo":"","lineNo":"","tgNo":"","tgName":null,"infoStatus":"1","orgName":"国网浙江杭州市余杭区供电有限公司","typeName":null,"infoStatusName":null,"dateDay":null,"orgNos":null,"nowTime":null,"countyName":null,"streetName":null,"villageName":null,"roadName":null,"communityName":null,"tranName":null,"sdLineName":null,"cityCode":"3340140","cityName":"国网浙江杭州市余杭区供电有限公司","provinceCode":null,"stopTime":"2019-12-04 17:00:00","powerType":"全部","powerOffArea":"110kV外乔变:高明开关站大井009线乔基时装分线。","powerOffReason":"高明开关站大井009线乔基时装分线改接至迎鑫开关站鑫园G057线待用G15线。","powerOffId":"2019112231020507"},{"poweroffId":2019112231020506,"sgpoweroffId":null,"subsName":"","lineName":"10kV景福H541线","pubTranName":"小古城村侯家公变,","scope":"浙江省杭州市余杭区径山镇：小古城村侯家一带","startTime":"2019-12-04 08:40:00","stopDate":"2019-12-04 12:00:00","orgNo":"3340140","typeCode":"计划停电","poweroffArea":"110kV潘板变:景福H541线候家分线","poweroffReason":"计划工作 原停电结束时间为2019-12-04 16:40:00,为减少客户停电时间,加快工作进度,提前送电,现变更停电结束时间为2019-12-04 12:00:00","powerTime":"2019-12-04 11:14:59","powerComm":"已送电","subsNo":"","lineNo":"","tgNo":"","tgName":null,"infoStatus":"1","orgName":"国网浙江杭州市余杭区供电有限公司","typeName":null,"infoStatusName":null,"dateDay":null,"orgNos":null,"nowTime":null,"countyName":null,"streetName":null,"villageName":null,"roadName":null,"communityName":null,"tranName":null,"sdLineName":null,"cityCode":"3340140","cityName":"国网浙江杭州市余杭区供电有限公司","provinceCode":null,"stopTime":"2019-12-04 12:00:00","powerType":"全部","powerOffArea":"110kV潘板变:景福H541线候家分线","powerOffReason":"计划工作 原停电结束时间为2019-12-04 16:40:00,为减少客户停电时间,加快工作进度,提前送电,现变更停电结束时间为2019-12-04 12:00:00","powerOffId":"2019112231020506"},{"poweroffId":2019112231020505,"sgpoweroffId":null,"subsName":"","lineName":"10kV美程G764线","pubTranName":"仓库区公变,杭州旺旺食品有限公司,","scope":"浙江省杭州市余杭区东湖街道：超峰西路仓库区、旺旺宿舍、开发区别墅一带","startTime":"2019-12-04 08:00:00","stopDate":"2019-12-04 16:00:00","orgNo":"3340140","typeCode":"计划停电","poweroffArea":"110kV金家变:美程G764线-星火北路分线开关后段","poweroffReason":"拆除星火北路分线2#杆至10#杆导线7档，2#杆至4#杆低压倒2档，开发区别墅分线2#杆新装开关1台","powerTime":"2019-12-04 15:12:05","powerComm":"已送电","subsNo":"","lineNo":"","tgNo":"","tgName":null,"infoStatus":"1","orgName":"国网浙江杭州市余杭区供电有限公司","typeName":null,"infoStatusName":null,"dateDay":null,"orgNos":null,"nowTime":null,"countyName":null,"streetName":null,"villageName":null,"roadName":null,"communityName":null,"tranName":null,"sdLineName":null,"cityCode":"3340140","cityName":"国网浙江杭州市余杭区供电有限公司","provinceCode":null,"stopTime":"2019-12-04 16:00:00","powerType":"全部","powerOffArea":"110kV金家变:美程G764线-星火北路分线开关后段","powerOffReason":"拆除星火北路分线2#杆至10#杆导线7档，2#杆至4#杆低压倒2档，开发区别墅分线2#杆新装开关1台","powerOffId":"2019112231020505"},{"poweroffId":2019112231020504,"sgpoweroffId":null,"subsName":"","lineName":"10kV乐泉H840线","pubTranName":"仓前二小1号基建,仓前二小2号基建,","scope":"浙江省杭州市余杭区仓前街道：仓前二小建设工地一带","startTime":"2019-12-04 09:30:00","stopDate":"2019-12-04 13:30:00","orgNo":"3340140","typeCode":"计划停电","poweroffArea":"乐泉H840线乌龙桥西分线24号杆开关","poweroffReason":"线路消缺：乌龙桥西分线26-31号杆之间线路拆除工作","powerTime":"2019-12-04 13:00:48","powerComm":"已送电","subsNo":"","lineNo":"","tgNo":"","tgName":null,"infoStatus":"1","orgName":"国网浙江杭州市余杭区供电有限公司","typeName":null,"infoStatusName":null,"dateDay":null,"orgNos":null,"nowTime":null,"countyName":null,"streetName":null,"villageName":null,"roadName":null,"communityName":null,"tranName":null,"sdLineName":null,"cityCode":"3340140","cityName":"国网浙江杭州市余杭区供电有限公司","provinceCode":null,"stopTime":"2019-12-04 13:30:00","powerType":"全部","powerOffArea":"乐泉H840线乌龙桥西分线24号杆开关","powerOffReason":"线路消缺：乌龙桥西分线26-31号杆之间线路拆除工作","powerOffId":"2019112231020504"}],"pageModel":{"pageNow":819,"totalCount":17789,"totalPage":1779,"tableRows":0,"pageCount":10,"beginCount":8180},"isExperi":"1"}