{"message":"","today":"2020-06-15","seleList":[{"poweroffId":2019112231020408,"sgpoweroffId":null,"subsName":"","lineName":"10kV新建D262线","pubTranName":"骆村2号汪家坞公变,","scope":"浙江省-杭州市-富阳区-大源镇-骆村一带","startTime":"2019-12-02 08:30:00","stopDate":"2019-12-02 15:30:00","orgNo":"3340170","typeCode":"计划停电","poweroffArea":"35kV盛村变:新建D262线-骆村2#汪家坞分线跌落式熔断器后段","poweroffReason":"骆村2#汪家坞公变移位工程：新放JKLYJ-10-70导线1档，骆村2#汪家坞公变移位，新立12米杆1支，新放低压导线1档，线路拆、搭头等工作。","powerTime":"2019-12-02 15:20:14","powerComm":"已送电","subsNo":"","lineNo":"","tgNo":"","tgName":null,"infoStatus":"1","orgName":"国网浙江杭州市富阳区供电公司","typeName":null,"infoStatusName":null,"dateDay":null,"orgNos":null,"nowTime":null,"countyName":null,"streetName":null,"villageName":null,"roadName":null,"communityName":null,"tranName":null,"sdLineName":null,"cityCode":"3340170","cityName":"国网浙江杭州市富阳区供电公司","provinceCode":null,"stopTime":"2019-12-02 15:30:00","powerType":"全部","powerOffArea":"35kV盛村变:新建D262线-骆村2#汪家坞分线跌落式熔断器后段","powerOffReason":"骆村2#汪家坞公变移位工程：新放JKLYJ-10-70导线1档，骆村2#汪家坞公变移位，新立12米杆1支，新放低压导线1档，线路拆、搭头等工作。","powerOffId":"2019112231020408"},{"poweroffId":2019112231020407,"sgpoweroffId":null,"subsName":"","lineName":"10kV东升D165线","pubTranName":"亭山村7号庙山岭公变,","scope":"浙江省-杭州市-富阳区-大源镇-亭山村一带","startTime":"2019-12-02 08:00:00","stopDate":"2019-12-02 14:30:00","orgNo":"3340170","typeCode":"计划停电","poweroffArea":"110kV大源变:东升D165线-四季分线开关后段","poweroffReason":"亭山村7#庙山岭公变移位工程：亭山村7#庙山岭公变移位，拆除旧导线6档，新放JKLYJ-10-150导线1档，线路拆、搭头等工作。","powerTime":"2019-12-02 14:20:27","powerComm":"已送电","subsNo":"","lineNo":"","tgNo":"","tgName":null,"infoStatus":"1","orgName":"国网浙江杭州市富阳区供电公司","typeName":null,"infoStatusName":null,"dateDay":null,"orgNos":null,"nowTime":null,"countyName":null,"streetName":null,"villageName":null,"roadName":null,"communityName":null,"tranName":null,"sdLineName":null,"cityCode":"3340170","cityName":"国网浙江杭州市富阳区供电公司","provinceCode":null,"stopTime":"2019-12-02 14:30:00","powerType":"全部","powerOffArea":"110kV大源变:东升D165线-四季分线开关后段","powerOffReason":"亭山村7#庙山岭公变移位工程：亭山村7#庙山岭公变移位，拆除旧导线6档，新放JKLYJ-10-150导线1档，线路拆、搭头等工作。","powerOffId":"2019112231020407"},{"poweroffId":2019112231020399,"sgpoweroffId":null,"subsName":"","lineName":"10kV张家D421线","pubTranName":"陆家浦2#后埭路公变,","scope":"浙江省-杭州市-富阳区-东洲街道(陆家浦行政村-陆家浦自然村,)","startTime":"2019-12-06 08:20:00","stopDate":"2019-12-06 16:40:00","orgNo":"3340170","typeCode":"计划停电","poweroffArea":"110kV东洲变:张家D421线-陆家浦2#后埭路公变台区低压开关后段","poweroffReason":"(低压停电信息)对0.4KV陆家浦2#后埭路公变1#-01线，2#-02线陆家浦村进行表箱更换等工作","powerTime":"2019-12-06 16:30:01","powerComm":"已送电","subsNo":"","lineNo":"","tgNo":"","tgName":null,"infoStatus":"1","orgName":"国网浙江杭州市富阳区供电公司","typeName":null,"infoStatusName":null,"dateDay":null,"orgNos":null,"nowTime":null,"countyName":null,"streetName":null,"villageName":null,"roadName":null,"communityName":null,"tranName":null,"sdLineName":null,"cityCode":"3340170","cityName":"国网浙江杭州市富阳区供电公司","provinceCode":null,"stopTime":"2019-12-06 16:40:00","powerType":"全部","powerOffArea":"110kV东洲变:张家D421线-陆家浦2#后埭路公变台区低压开关后段","powerOffReason":"(低压停电信息)对0.4KV陆家浦2#后埭路公变1#-01线，2#-02线陆家浦村进行表箱更换等工作","powerOffId":"2019112231020399"},{"poweroffId":2019112231020398,"sgpoweroffId":null,"subsName":"","lineName":"10kV后山D833线","pubTranName":"下际村1#村口公变,","scope":"浙江省-杭州市-富阳区-新桐乡-新桐行政村-下际自然村","startTime":"2019-12-06 08:30:00","stopDate":"2019-12-06 16:40:00","orgNo":"3340170","typeCode":"计划停电","poweroffArea":"110kV新桐变:后山D833线-下际村1#村口公变后段","poweroffReason":"(低压停电信息)下际村1#村口公变线路移位工程新放3档BS-JKLYJ-4×70、拆装2档JKLYJ-4×120、 原停电开始时间为2019-12-06 08:30:00,因政策原因,现变更停电结束时间为2019-12-06 08:30:00","powerTime":"2019-12-06 16:30:11","powerComm":"已送电","subsNo":"","lineNo":"","tgNo":"","tgName":null,"infoStatus":"1","orgName":"国网浙江杭州市富阳区供电公司","typeName":null,"infoStatusName":null,"dateDay":null,"orgNos":null,"nowTime":null,"countyName":null,"streetName":null,"villageName":null,"roadName":null,"communityName":null,"tranName":null,"sdLineName":null,"cityCode":"3340170","cityName":"国网浙江杭州市富阳区供电公司","provinceCode":null,"stopTime":"2019-12-06 16:40:00","powerType":"全部","powerOffArea":"110kV新桐变:后山D833线-下际村1#村口公变后段","powerOffReason":"(低压停电信息)下际村1#村口公变线路移位工程新放3档BS-JKLYJ-4×70、拆装2档JKLYJ-4×120、 原停电开始时间为2019-12-06 08:30:00,因政策原因,现变更停电结束时间为2019-12-06 08:30:00","powerOffId":"2019112231020398"},{"poweroffId":2019112231020397,"sgpoweroffId":null,"subsName":"","lineName":"10kV张家D421线","pubTranName":"陆家浦5#湖塘公变,","scope":"浙江省-杭州市-富阳区-东洲街道-陆家浦行政村-陆家浦自然村","startTime":"2019-12-05 08:20:00","stopDate":"2019-12-05 16:40:00","orgNo":"3340170","typeCode":"计划停电","poweroffArea":"110kV东洲变:张家D421线-陆家浦5#湖塘公变台区低压开关后段","poweroffReason":"(低压停电信息)对0.4KV陆家浦5#湖塘公变1#-01线，2#-02线陆家浦村进行表箱更换等工作","powerTime":"2019-12-05 16:23:15","powerComm":"已送电","subsNo":"","lineNo":"","tgNo":"","tgName":null,"infoStatus":"1","orgName":"国网浙江杭州市富阳区供电公司","typeName":null,"infoStatusName":null,"dateDay":null,"orgNos":null,"nowTime":null,"countyName":null,"streetName":null,"villageName":null,"roadName":null,"communityName":null,"tranName":null,"sdLineName":null,"cityCode":"3340170","cityName":"国网浙江杭州市富阳区供电公司","provinceCode":null,"stopTime":"2019-12-05 16:40:00","powerType":"全部","powerOffArea":"110kV东洲变:张家D421线-陆家浦5#湖塘公变台区低压开关后段","powerOffReason":"(低压停电信息)对0.4KV陆家浦5#湖塘公变1#-01线，2#-02线陆家浦村进行表箱更换等工作","powerOffId":"2019112231020397"},{"poweroffId":2019112231020395,"sgpoweroffId":null,"subsName":"","lineName":"10kV利民D241线","pubTranName":"小沙村1#北公变,","scope":"浙江省-杭州市-富阳区-东洲街道-富春江行政村-小沙自然村","startTime":"2019-12-05 09:00:00","stopDate":"2019-12-05 17:30:00","orgNo":"3340170","typeCode":"计划停电","poweroffArea":"110kV白鹤变:利民D241线-小沙村1#北公变台区低压开关后段","poweroffReason":"(低压停电信息)亚运场馆及北之江综合整治工程PPP项目利民D241线线路迁改工程：小沙村1#北公变低压线路改接工作 原停电结束时间为2019-12-05 16:30:00,因政策原因,现变更停电结束时间为2019-12-05 17:30:00","powerTime":"2019-12-05 17:15:49","powerComm":"已送电","subsNo":"","lineNo":"","tgNo":"","tgName":null,"infoStatus":"1","orgName":"国网浙江杭州市富阳区供电公司","typeName":null,"infoStatusName":null,"dateDay":null,"orgNos":null,"nowTime":null,"countyName":null,"streetName":null,"villageName":null,"roadName":null,"communityName":null,"tranName":null,"sdLineName":null,"cityCode":"3340170","cityName":"国网浙江杭州市富阳区供电公司","provinceCode":null,"stopTime":"2019-12-05 17:30:00","powerType":"全部","powerOffArea":"110kV白鹤变:利民D241线-小沙村1#北公变台区低压开关后段","powerOffReason":"(低压停电信息)亚运场馆及北之江综合整治工程PPP项目利民D241线线路迁改工程：小沙村1#北公变低压线路改接工作 原停电结束时间为2019-12-05 16:30:00,因政策原因,现变更停电结束时间为2019-12-05 17:30:00","powerOffId":"2019112231020395"},{"poweroffId":2019112231020394,"sgpoweroffId":null,"subsName":"","lineName":"10kV宫前D603线","pubTranName":"东方村2号杨子坊公变,","scope":"浙江省杭州市富阳区大源镇蒋家村杨子坊自然村一带","startTime":"2019-12-05 08:00:00","stopDate":"2019-12-05 15:30:00","orgNo":"3340170","typeCode":"计划停电","poweroffArea":"35kV溪东变:宫前D603线-东方村2号杨子坊公变低压开关后段","poweroffReason":"(低压停电信息)大源镇过镇线电力迁改工程配合停电。（0.4kV1#线、2#线低压出线停电）","powerTime":"2019-12-05 15:20:59","powerComm":"已送电","subsNo":"","lineNo":"","tgNo":"","tgName":null,"infoStatus":"1","orgName":"国网浙江杭州市富阳区供电公司","typeName":null,"infoStatusName":null,"dateDay":null,"orgNos":null,"nowTime":null,"countyName":null,"streetName":null,"villageName":null,"roadName":null,"communityName":null,"tranName":null,"sdLineName":null,"cityCode":"3340170","cityName":"国网浙江杭州市富阳区供电公司","provinceCode":null,"stopTime":"2019-12-05 15:30:00","powerType":"全部","powerOffArea":"35kV溪东变:宫前D603线-东方村2号杨子坊公变低压开关后段","powerOffReason":"(低压停电信息)大源镇过镇线电力迁改工程配合停电。（0.4kV1#线、2#线低压出线停电）","powerOffId":"2019112231020394"},{"poweroffId":2019112231020393,"sgpoweroffId":null,"subsName":"","lineName":"10kV西站D823线","pubTranName":"三根桥10号公变,","scope":"浙江省-杭州市-富阳区-富春街道-金秋社区-凤浦西路","startTime":"2019-12-05 08:00:00","stopDate":"2019-12-05 12:00:00","orgNo":"3340170","typeCode":"计划停电","poweroffArea":"110kV容大变:西站D823线-三根桥10号后段","poweroffReason":"(低压停电信息)青云2019年东山村4#桥头公变等低压台区改造工程更换落户线18处，搭接等工作","powerTime":"2019-12-05 11:44:58","powerComm":"已送电","subsNo":"","lineNo":"","tgNo":"","tgName":null,"infoStatus":"1","orgName":"国网浙江杭州市富阳区供电公司","typeName":null,"infoStatusName":null,"dateDay":null,"orgNos":null,"nowTime":null,"countyName":null,"streetName":null,"villageName":null,"roadName":null,"communityName":null,"tranName":null,"sdLineName":null,"cityCode":"3340170","cityName":"国网浙江杭州市富阳区供电公司","provinceCode":null,"stopTime":"2019-12-05 12:00:00","powerType":"全部","powerOffArea":"110kV容大变:西站D823线-三根桥10号后段","powerOffReason":"(低压停电信息)青云2019年东山村4#桥头公变等低压台区改造工程更换落户线18处，搭接等工作","powerOffId":"2019112231020393"},{"poweroffId":2019112231020392,"sgpoweroffId":null,"subsName":"","lineName":"10kV西站D823线","pubTranName":"三根桥6#公变1,","scope":"浙江省-杭州市-富阳区-富春街道-金秋社区(凤浦路,凤浦西路,文居街)","startTime":"2019-12-04 12:30:00","stopDate":"2019-12-04 16:50:00","orgNo":"3340170","typeCode":"计划停电","poweroffArea":"110kV容大变:西站D823线-三根桥后段","poweroffReason":"(低压停电信息)青云2019年东山村4#桥头公变等低压台区改造工程更换落户线17处，搭接等工作","powerTime":"2019-12-04 16:37:59","powerComm":"已送电","subsNo":"","lineNo":"","tgNo":"","tgName":null,"infoStatus":"1","orgName":"国网浙江杭州市富阳区供电公司","typeName":null,"infoStatusName":null,"dateDay":null,"orgNos":null,"nowTime":null,"countyName":null,"streetName":null,"villageName":null,"roadName":null,"communityName":null,"tranName":null,"sdLineName":null,"cityCode":"3340170","cityName":"国网浙江杭州市富阳区供电公司","provinceCode":null,"stopTime":"2019-12-04 16:50:00","powerType":"全部","powerOffArea":"110kV容大变:西站D823线-三根桥后段","powerOffReason":"(低压停电信息)青云2019年东山村4#桥头公变等低压台区改造工程更换落户线17处，搭接等工作","powerOffId":"2019112231020392"},{"poweroffId":2019112231020389,"sgpoweroffId":null,"subsName":"","lineName":"10kV西站D823线","pubTranName":"三根桥8号公变,","scope":"浙江省-杭州市-富阳区-富春街道-金秋社区(凤浦西路,凤浦路358号,凤浦路)","startTime":"2019-12-04 08:00:00","stopDate":"2019-12-04 12:00:00","orgNo":"3340170","typeCode":"计划停电","poweroffArea":"110kV容大变:西站D823线-三根桥8号后段","poweroffReason":"(低压停电信息)青云2019年东山村4#桥头公变等低压台区改造工程更换落户线22处，搭接等工作","powerTime":"2019-12-04 11:45:36","powerComm":"已送电","subsNo":"","lineNo":"","tgNo":"","tgName":null,"infoStatus":"1","orgName":"国网浙江杭州市富阳区供电公司","typeName":null,"infoStatusName":null,"dateDay":null,"orgNos":null,"nowTime":null,"countyName":null,"streetName":null,"villageName":null,"roadName":null,"communityName":null,"tranName":null,"sdLineName":null,"cityCode":"3340170","cityName":"国网浙江杭州市富阳区供电公司","provinceCode":null,"stopTime":"2019-12-04 12:00:00","powerType":"全部","powerOffArea":"110kV容大变:西站D823线-三根桥8号后段","powerOffReason":"(低压停电信息)青云2019年东山村4#桥头公变等低压台区改造工程更换落户线22处，搭接等工作","powerOffId":"2019112231020389"}],"pageModel":{"pageNow":824,"totalCount":17789,"totalPage":1779,"tableRows":0,"pageCount":10,"beginCount":8230},"isExperi":"1"}