{"message":"","today":"2020-06-15","seleList":[{"poweroffId":2019112231020284,"sgpoweroffId":null,"subsName":"","lineName":"10kV园北D945线","pubTranName":"观前村长山湖后头公变,","scope":"浙江省-杭州市-富阳区-银湖街道-观前行政村-长山自然村","startTime":"2019-12-05 08:00:00","stopDate":"2019-12-05 17:00:00","orgNo":"3340170","typeCode":"计划停电","poweroffArea":"110kV育才变:园北D945线-观前村长山湖后头公变低压开关后段","poweroffReason":"(低压停电信息)迎东2019年峡岭村3#周家坛公变等配电线路及设备大修工程新架JKLYJ4*120*3档，新装出线电缆1路，更换接户线26处，搭接等工作。","powerTime":"2019-12-05 16:40:03","powerComm":"已送电","subsNo":"","lineNo":"","tgNo":"","tgName":null,"infoStatus":"1","orgName":"国网浙江杭州市富阳区供电公司","typeName":null,"infoStatusName":null,"dateDay":null,"orgNos":null,"nowTime":null,"countyName":null,"streetName":null,"villageName":null,"roadName":null,"communityName":null,"tranName":null,"sdLineName":null,"cityCode":"3340170","cityName":"国网浙江杭州市富阳区供电公司","provinceCode":null,"stopTime":"2019-12-05 17:00:00","powerType":"全部","powerOffArea":"110kV育才变:园北D945线-观前村长山湖后头公变低压开关后段","powerOffReason":"(低压停电信息)迎东2019年峡岭村3#周家坛公变等配电线路及设备大修工程新架JKLYJ4*120*3档，新装出线电缆1路，更换接户线26处，搭接等工作。","powerOffId":"2019112231020284"},{"poweroffId":2019112231020283,"sgpoweroffId":null,"subsName":"","lineName":"10kV石墓D217线","pubTranName":"上大庄村11号下横溪洋公变,","scope":"浙江省-杭州市-富阳区-银湖街道-大庄行政村(上大庄自然村,横溪洋自然村)","startTime":"2019-12-06 08:00:00","stopDate":"2019-12-06 12:30:00","orgNo":"3340170","typeCode":"计划停电","poweroffArea":"110kV银湖变:石墓D217线-上大庄村11号下横溪洋公变低压开关后段","poweroffReason":"(低压停电信息)迎东2019年峡岭村3#周家坛公变等配电线路及设备大修工程新装高拉2组，等工作。","powerTime":"2019-12-06 12:20:09","powerComm":"已送电","subsNo":"","lineNo":"","tgNo":"","tgName":null,"infoStatus":"1","orgName":"国网浙江杭州市富阳区供电公司","typeName":null,"infoStatusName":null,"dateDay":null,"orgNos":null,"nowTime":null,"countyName":null,"streetName":null,"villageName":null,"roadName":null,"communityName":null,"tranName":null,"sdLineName":null,"cityCode":"3340170","cityName":"国网浙江杭州市富阳区供电公司","provinceCode":null,"stopTime":"2019-12-06 12:30:00","powerType":"全部","powerOffArea":"110kV银湖变:石墓D217线-上大庄村11号下横溪洋公变低压开关后段","powerOffReason":"(低压停电信息)迎东2019年峡岭村3#周家坛公变等配电线路及设备大修工程新装高拉2组，等工作。","powerOffId":"2019112231020283"},{"poweroffId":2019112231020281,"sgpoweroffId":null,"subsName":"","lineName":"10kV白泥D226线","pubTranName":"唐家坞1号祝家湾公变,","scope":"浙江省-杭州市-富阳区-银湖街道-唐家坞行政村(溪下自然村,祝家湾自然村,唐家坞自然村)","startTime":"2019-12-06 08:00:00","stopDate":"2019-12-06 11:00:00","orgNo":"3340170","typeCode":"计划停电","poweroffArea":"110kV银湖变:白泥D226线-唐家坞1号祝家湾公变低压开关后段","poweroffReason":"(低压停电信息)迎东2019年峡岭村3#周家坛公变等配电线路及设备大修工程吊车立杆1根，新架导线1档，接户线搭接等工作。","powerTime":"2019-12-06 10:50:03","powerComm":"已送电","subsNo":"","lineNo":"","tgNo":"","tgName":null,"infoStatus":"1","orgName":"国网浙江杭州市富阳区供电公司","typeName":null,"infoStatusName":null,"dateDay":null,"orgNos":null,"nowTime":null,"countyName":null,"streetName":null,"villageName":null,"roadName":null,"communityName":null,"tranName":null,"sdLineName":null,"cityCode":"3340170","cityName":"国网浙江杭州市富阳区供电公司","provinceCode":null,"stopTime":"2019-12-06 11:00:00","powerType":"全部","powerOffArea":"110kV银湖变:白泥D226线-唐家坞1号祝家湾公变低压开关后段","powerOffReason":"(低压停电信息)迎东2019年峡岭村3#周家坛公变等配电线路及设备大修工程吊车立杆1根，新架导线1档，接户线搭接等工作。","powerOffId":"2019112231020281"},{"poweroffId":2019112231020280,"sgpoweroffId":null,"subsName":"","lineName":"10kV石墓D217线","pubTranName":"上大庄村15号下横溪洋公变,","scope":"浙江省-杭州市-富阳区-银湖街道-大庄行政村(横溪洋自然村,上大庄自然村)","startTime":"2019-12-06 08:00:00","stopDate":"2019-12-06 13:00:00","orgNo":"3340170","typeCode":"计划停电","poweroffArea":"110kV银湖变:石墓D217线-上大庄村15号下横溪洋公变低压开关后段","poweroffReason":"(低压停电信息)迎东2019年峡岭村3#周家坛公变等配电线路及设备大修工程吊车立杆1根，拆旧更换JKLYJ4*70*1档，拆装JKLYJ4*120*1档，搭接等工作。","powerTime":"2019-12-06 12:44:04","powerComm":"已送电","subsNo":"","lineNo":"","tgNo":"","tgName":null,"infoStatus":"1","orgName":"国网浙江杭州市富阳区供电公司","typeName":null,"infoStatusName":null,"dateDay":null,"orgNos":null,"nowTime":null,"countyName":null,"streetName":null,"villageName":null,"roadName":null,"communityName":null,"tranName":null,"sdLineName":null,"cityCode":"3340170","cityName":"国网浙江杭州市富阳区供电公司","provinceCode":null,"stopTime":"2019-12-06 13:00:00","powerType":"全部","powerOffArea":"110kV银湖变:石墓D217线-上大庄村15号下横溪洋公变低压开关后段","powerOffReason":"(低压停电信息)迎东2019年峡岭村3#周家坛公变等配电线路及设备大修工程吊车立杆1根，拆旧更换JKLYJ4*70*1档，拆装JKLYJ4*120*1档，搭接等工作。","powerOffId":"2019112231020280"},{"poweroffId":2019112231020279,"sgpoweroffId":null,"subsName":"","lineName":"10kV石墓D217线","pubTranName":"上大庄村4#横溪洋公变,","scope":"浙江省-杭州市-富阳区-银湖街道-大庄行政村(上大庄自然村,大庄自然村,横溪洋自然村)","startTime":"2019-12-02 08:00:00","stopDate":"2019-12-02 17:00:00","orgNo":"3340170","typeCode":"计划停电","poweroffArea":"110kV银湖变:石墓D217线-上大庄村4#横溪洋公变低压开关后段","poweroffReason":"(低压停电信息)迎东2019年峡岭村3#周家坛公变等配电线路及设备大修工程更换导线7档、吊车立杆1根、接户线搭接等工作。","powerTime":"2019-12-02 16:50:15","powerComm":"已送电","subsNo":"","lineNo":"","tgNo":"","tgName":null,"infoStatus":"1","orgName":"国网浙江杭州市富阳区供电公司","typeName":null,"infoStatusName":null,"dateDay":null,"orgNos":null,"nowTime":null,"countyName":null,"streetName":null,"villageName":null,"roadName":null,"communityName":null,"tranName":null,"sdLineName":null,"cityCode":"3340170","cityName":"国网浙江杭州市富阳区供电公司","provinceCode":null,"stopTime":"2019-12-02 17:00:00","powerType":"全部","powerOffArea":"110kV银湖变:石墓D217线-上大庄村4#横溪洋公变低压开关后段","powerOffReason":"(低压停电信息)迎东2019年峡岭村3#周家坛公变等配电线路及设备大修工程更换导线7档、吊车立杆1根、接户线搭接等工作。","powerOffId":"2019112231020279"},{"poweroffId":2019112231020277,"sgpoweroffId":null,"subsName":"","lineName":"10kV洪庄D292线","pubTranName":"杜墓村3#村口公变,","scope":"浙江省-杭州市-富阳区-银湖街道-杜墓行政村(羊角里自然村,杜墓自然村)","startTime":"2019-12-02 08:40:00","stopDate":"2019-12-02 16:40:00","orgNo":"3340170","typeCode":"计划停电","poweroffArea":"35kV新义变:洪庄D292线-杜墓村3#村口公变低压开关后段","poweroffReason":"(低压停电信息)四好农村公路扩建低压线路移位工程吊车拔立杆1支、导线拆装2档、新装横担1组、进户线更换1处、搭接等工作","powerTime":"2019-12-02 16:30:10","powerComm":"已送电","subsNo":"","lineNo":"","tgNo":"","tgName":null,"infoStatus":"1","orgName":"国网浙江杭州市富阳区供电公司","typeName":null,"infoStatusName":null,"dateDay":null,"orgNos":null,"nowTime":null,"countyName":null,"streetName":null,"villageName":null,"roadName":null,"communityName":null,"tranName":null,"sdLineName":null,"cityCode":"3340170","cityName":"国网浙江杭州市富阳区供电公司","provinceCode":null,"stopTime":"2019-12-02 16:40:00","powerType":"全部","powerOffArea":"35kV新义变:洪庄D292线-杜墓村3#村口公变低压开关后段","powerOffReason":"(低压停电信息)四好农村公路扩建低压线路移位工程吊车拔立杆1支、导线拆装2档、新装横担1组、进户线更换1处、搭接等工作","powerOffId":"2019112231020277"},{"poweroffId":2019112231020276,"sgpoweroffId":null,"subsName":"","lineName":"10kV胥口D712线","pubTranName":"棠棣村6#大坞公变,","scope":"浙江省杭州市富阳区胥口镇棠棣行政村大坞自然村一带","startTime":"2019-12-02 07:50:00","stopDate":"2019-12-02 16:30:00","orgNo":"3340170","typeCode":"计划停电","poweroffArea":"110kV松溪变:胥口D712线-棠棣村6#大坞公变低压开关后段","poweroffReason":"(低压停电信息)下坞02线拆除JKLWJ-120*4*9档、架设JKLWJ-120*4*9档、安装横担、拉线、更换落户线BS-JKLYJ-2*25*6户、导线落户线搭接","powerTime":"2019-12-02 16:20:10","powerComm":"已送电","subsNo":"","lineNo":"","tgNo":"","tgName":null,"infoStatus":"1","orgName":"国网浙江杭州市富阳区供电公司","typeName":null,"infoStatusName":null,"dateDay":null,"orgNos":null,"nowTime":null,"countyName":null,"streetName":null,"villageName":null,"roadName":null,"communityName":null,"tranName":null,"sdLineName":null,"cityCode":"3340170","cityName":"国网浙江杭州市富阳区供电公司","provinceCode":null,"stopTime":"2019-12-02 16:30:00","powerType":"全部","powerOffArea":"110kV松溪变:胥口D712线-棠棣村6#大坞公变低压开关后段","powerOffReason":"(低压停电信息)下坞02线拆除JKLWJ-120*4*9档、架设JKLWJ-120*4*9档、安装横担、拉线、更换落户线BS-JKLYJ-2*25*6户、导线落户线搭接","powerOffId":"2019112231020276"},{"poweroffId":2019112231020273,"sgpoweroffId":null,"subsName":"","lineName":"10kV导岭D298线","pubTranName":"桐岭坞1#公变,","scope":"浙江省-杭州市-富阳区-银湖街道-杜墓行政村-铜岭坞自然村","startTime":"2019-12-02 08:40:00","stopDate":"2019-12-02 15:40:00","orgNo":"3340170","typeCode":"计划停电","poweroffArea":"35kV新义变:导岭D298线-桐岭坞1#公变低压开关后段","poweroffReason":"(低压停电信息)四好农村公路扩建低压线路移位工程吊车拔除1支新立1支、导线拆装2档、新装横担1组、进户线更换1处、搭接等工作","powerTime":"2019-12-02 15:30:10","powerComm":"已送电","subsNo":"","lineNo":"","tgNo":"","tgName":null,"infoStatus":"1","orgName":"国网浙江杭州市富阳区供电公司","typeName":null,"infoStatusName":null,"dateDay":null,"orgNos":null,"nowTime":null,"countyName":null,"streetName":null,"villageName":null,"roadName":null,"communityName":null,"tranName":null,"sdLineName":null,"cityCode":"3340170","cityName":"国网浙江杭州市富阳区供电公司","provinceCode":null,"stopTime":"2019-12-02 15:40:00","powerType":"全部","powerOffArea":"35kV新义变:导岭D298线-桐岭坞1#公变低压开关后段","powerOffReason":"(低压停电信息)四好农村公路扩建低压线路移位工程吊车拔除1支新立1支、导线拆装2档、新装横担1组、进户线更换1处、搭接等工作","powerOffId":"2019112231020273"},{"poweroffId":2019112231020271,"sgpoweroffId":null,"subsName":"","lineName":"10kV双林D786线","pubTranName":"真佳溪村1#后溪桥头公变,","scope":"浙江省杭州市富阳区场口镇真佳溪行政村红溪自然村一带","startTime":"2019-12-02 08:30:00","stopDate":"2019-12-02 14:30:00","orgNo":"3340170","typeCode":"计划停电","poweroffArea":"110kV王洲变:双林D786线-真佳溪村1#后溪桥头公变低压出线后段","poweroffReason":"(低压停电信息)场口2019年缺陷处理工程：真佳溪村1#后溪桥头公变3#出线2#杆-4#杆之间电杆拆移1支，导线拆移2档，下火线搭接等工作。","powerTime":"2019-12-02 14:30:00","powerComm":"已送电","subsNo":"","lineNo":"","tgNo":"","tgName":null,"infoStatus":"1","orgName":"国网浙江杭州市富阳区供电公司","typeName":null,"infoStatusName":null,"dateDay":null,"orgNos":null,"nowTime":null,"countyName":null,"streetName":null,"villageName":null,"roadName":null,"communityName":null,"tranName":null,"sdLineName":null,"cityCode":"3340170","cityName":"国网浙江杭州市富阳区供电公司","provinceCode":null,"stopTime":"2019-12-02 14:30:00","powerType":"全部","powerOffArea":"110kV王洲变:双林D786线-真佳溪村1#后溪桥头公变低压出线后段","powerOffReason":"(低压停电信息)场口2019年缺陷处理工程：真佳溪村1#后溪桥头公变3#出线2#杆-4#杆之间电杆拆移1支，导线拆移2档，下火线搭接等工作。","powerOffId":"2019112231020271"},{"poweroffId":2019112231020259,"sgpoweroffId":null,"subsName":"","lineName":"10kV皇印D392线","pubTranName":"新兴车料2#,洞桥村14#井山新村公变,洞桥村16#十房里公变,洞桥村7#沈家公变,洞桥村13#石剪口公变,杭州蓝锋铝业有限公司变压器,洞桥村8#龙王坎公变,洞桥村6#凌家公变,1#,2#,洞桥村5#旗山公变,","scope":"浙江省-杭州市-富阳区-洞桥镇-洞桥行政村(塘湾里自然村,二茶棵自然村,沈家自然村,洞桥自然村,于家自然村,凌家自然村,旗山自然村,马家自然村,上林自然村,沈家西自然村,徐家自然村,景山自然村,十房里自然村),万市镇-万市行政村-西门路自然村,洞桥镇-里仁行政村-章母何家自然村;洞桥镇-洞桥行政村(浙江容大电力工程有限公司,杭州新兴车料有限公司)","startTime":"2019-11-22 11:59:33","stopDate":"2019-11-22 12:59:33","orgNo":"3340170","typeCode":"电网故障停限电","poweroffArea":"110kV万市变:皇印D392线-上林分线2号杆开关后段","poweroffReason":"高压开关跳闸","powerTime":"2019-11-22 12:34:03","powerComm":"已送电","subsNo":"","lineNo":"","tgNo":"","tgName":null,"infoStatus":"1","orgName":"国网浙江杭州市富阳区供电公司","typeName":null,"infoStatusName":null,"dateDay":null,"orgNos":null,"nowTime":null,"countyName":null,"streetName":null,"villageName":null,"roadName":null,"communityName":null,"tranName":null,"sdLineName":null,"cityCode":"3340170","cityName":"国网浙江杭州市富阳区供电公司","provinceCode":null,"stopTime":"2019-11-22 12:59:33","powerType":"全部","powerOffArea":"110kV万市变:皇印D392线-上林分线2号杆开关后段","powerOffReason":"高压开关跳闸","powerOffId":"2019112231020259"}],"pageModel":{"pageNow":828,"totalCount":17789,"totalPage":1779,"tableRows":0,"pageCount":10,"beginCount":8270},"isExperi":"1"}