{"message":"","today":"2020-06-15","seleList":[{"poweroffId":2019112231020207,"sgpoweroffId":null,"subsName":"","lineName":"10kV荆雪8042线","pubTranName":"曲水苑二,","scope":"浙江省杭州市西湖区西溪花园曲水苑16幢一带","startTime":"2019-12-02 09:00:00","stopDate":"2019-12-02 10:30:00","orgNo":"3340101","typeCode":"计划停电","poweroffArea":"110kV紫荆变:荆雪8042线-曲水苑二后段","poweroffReason":"(低压停电信息)1.西溪花园曲水苑16-202室表计增容（8KW增容到16KW） 原停电结束时间为2019-12-02 12:00:00,为减少客户停电时间,加快工作进度,提前送电,现变更停电结束时间为2019-12-02 10:30:00","powerTime":"2019-12-02 09:38:31","powerComm":"已送电","subsNo":"","lineNo":"","tgNo":"","tgName":null,"infoStatus":"1","orgName":"浙江杭州电力客户服务中心","typeName":null,"infoStatusName":null,"dateDay":null,"orgNos":null,"nowTime":null,"countyName":null,"streetName":null,"villageName":null,"roadName":null,"communityName":null,"tranName":null,"sdLineName":null,"cityCode":"3340101","cityName":"浙江杭州电力客户服务中心","provinceCode":null,"stopTime":"2019-12-02 10:30:00","powerType":"全部","powerOffArea":"110kV紫荆变:荆雪8042线-曲水苑二后段","powerOffReason":"(低压停电信息)1.西溪花园曲水苑16-202室表计增容（8KW增容到16KW） 原停电结束时间为2019-12-02 12:00:00,为减少客户停电时间,加快工作进度,提前送电,现变更停电结束时间为2019-12-02 10:30:00","powerOffId":"2019112231020207"},{"poweroffId":2019112231020199,"sgpoweroffId":null,"subsName":"","lineName":"10kV胥口D712线","pubTranName":"高联村6#高山公变,","scope":"浙江省-杭州市-富阳区-胥口镇-高联行政村(石畈自然村,高山自然村)","startTime":"2019-11-22 10:59:00","stopDate":"2019-11-22 11:59:00","orgNo":"3340170","typeCode":"电网故障停限电","poweroffArea":"110kV松溪变:胥口D712线高联村6#高山公变配变","poweroffReason":"高压开关跳闸","powerTime":"2019-11-22 11:47:16","powerComm":"已送电","subsNo":"","lineNo":"","tgNo":"","tgName":null,"infoStatus":"1","orgName":"国网浙江杭州市富阳区供电公司","typeName":null,"infoStatusName":null,"dateDay":null,"orgNos":null,"nowTime":null,"countyName":null,"streetName":null,"villageName":null,"roadName":null,"communityName":null,"tranName":null,"sdLineName":null,"cityCode":"3340170","cityName":"国网浙江杭州市富阳区供电公司","provinceCode":null,"stopTime":"2019-11-22 11:59:00","powerType":"全部","powerOffArea":"110kV松溪变:胥口D712线高联村6#高山公变配变","powerOffReason":"高压开关跳闸","powerOffId":"2019112231020199"},{"poweroffId":2019112231020196,"sgpoweroffId":null,"subsName":"","lineName":"10kV华兴H537线","pubTranName":"华兴社区凤溪路4号公变,华兴社区凤山公变,华兴社区凤西2号公变,华联超市,华兴社区凤西公变,","scope":"浙江省-杭州市-余杭区-瓶窑镇-大观山行政村(凤山自然村,凤溪路),瓶窑镇-新窑社区(凤溪路,新窑路),瓶窑镇-华兴社区(新窑路,凤溪路,华兴路,东兴路),瓶窑镇(长命行政村-方家桥自然村,石濑行政村-翁家自然村);浙江省-杭州市-余杭区-瓶窑镇-华兴社区-杭州高迪机械有限公司","startTime":"2019-11-22 11:00:00","stopDate":"2019-11-22 13:00:00","orgNo":"3340140","typeCode":"电网故障停限电","poweroffArea":"110kV凤山变:华兴H537线-凤山变分线开关后段","poweroffReason":"高压开关跳闸","powerTime":"2019-11-22 12:08:00","powerComm":"已送电","subsNo":"","lineNo":"","tgNo":"","tgName":null,"infoStatus":"1","orgName":"国网浙江杭州市余杭区供电有限公司","typeName":null,"infoStatusName":null,"dateDay":null,"orgNos":null,"nowTime":null,"countyName":null,"streetName":null,"villageName":null,"roadName":null,"communityName":null,"tranName":null,"sdLineName":null,"cityCode":"3340140","cityName":"国网浙江杭州市余杭区供电有限公司","provinceCode":null,"stopTime":"2019-11-22 13:00:00","powerType":"全部","powerOffArea":"110kV凤山变:华兴H537线-凤山变分线开关后段","powerOffReason":"高压开关跳闸","powerOffId":"2019112231020196"},{"poweroffId":2019112231020177,"sgpoweroffId":null,"subsName":"","lineName":"10kV鹤里V256线","pubTranName":"10kV横路村[炮台]公变,","scope":"浙江省-杭州市-临安市-太阳镇-炮台一带","startTime":"2019-12-05 08:30:00","stopDate":"2019-12-05 12:40:00","orgNo":"3340160","typeCode":"计划停电","poweroffArea":"横路村（炮台）配变低压","poweroffReason":"临金高速一期电力迁改[横路中学变低压线]： (1)横路V128线炮台支线1#杆炮台配变中学低压1000线2#--4#杆拆线","powerTime":"2019-12-05 12:30:19","powerComm":"已送电","subsNo":"","lineNo":"","tgNo":"","tgName":null,"infoStatus":"1","orgName":"国网浙江临安市供电公司","typeName":null,"infoStatusName":null,"dateDay":null,"orgNos":null,"nowTime":null,"countyName":null,"streetName":null,"villageName":null,"roadName":null,"communityName":null,"tranName":null,"sdLineName":null,"cityCode":"3340160","cityName":"国网浙江临安市供电公司","provinceCode":null,"stopTime":"2019-12-05 12:40:00","powerType":"全部","powerOffArea":"横路村（炮台）配变低压","powerOffReason":"临金高速一期电力迁改[横路中学变低压线]： (1)横路V128线炮台支线1#杆炮台配变中学低压1000线2#--4#杆拆线","powerOffId":"2019112231020177"},{"poweroffId":2019112231020176,"sgpoweroffId":null,"subsName":"","lineName":"10kV鹤里V256线","pubTranName":"10kV横路村[横路中学]公变,","scope":"浙江省-杭州市-临安市-太阳镇-横路中学一带","startTime":"2019-12-05 08:30:00","stopDate":"2019-12-05 12:40:00","orgNo":"3340160","typeCode":"计划停电","poweroffArea":"10KV横路村（横路中学）配变低压","poweroffReason":"临金高速一期电力迁改[横路中学变低压线]： (1)鹤里V256线横路中学分支线3#杆横路中学配变低压1000线5#--7#杆拆线，","powerTime":"2019-12-05 12:30:12","powerComm":"已送电","subsNo":"","lineNo":"","tgNo":"","tgName":null,"infoStatus":"1","orgName":"国网浙江临安市供电公司","typeName":null,"infoStatusName":null,"dateDay":null,"orgNos":null,"nowTime":null,"countyName":null,"streetName":null,"villageName":null,"roadName":null,"communityName":null,"tranName":null,"sdLineName":null,"cityCode":"3340160","cityName":"国网浙江临安市供电公司","provinceCode":null,"stopTime":"2019-12-05 12:40:00","powerType":"全部","powerOffArea":"10KV横路村（横路中学）配变低压","powerOffReason":"临金高速一期电力迁改[横路中学变低压线]： (1)鹤里V256线横路中学分支线3#杆横路中学配变低压1000线5#--7#杆拆线，","powerOffId":"2019112231020176"},{"poweroffId":2019112231020175,"sgpoweroffId":null,"subsName":"","lineName":"10kV百亩V184线","pubTranName":"10kV太源村[班竹坞村里]公变,10kV太源村[班竹坞茶叶坪]公变,10kV太源村[班竹坞村外]公变,","scope":"浙江省-杭州市-临安市-太阳镇-班竹坞村外、班竹坞村里、班竹坞茶叶坪一带","startTime":"2019-12-04 08:30:00","stopDate":"2019-12-04 17:00:00","orgNo":"3340160","typeCode":"计划停电","poweroffArea":"百亩V184线班竹坞分线45#杆后段","poweroffReason":"百亩线改造：百亩V184线班竹坞分线45#-95#杆调导线、47#、57#、59#、60#、66#、67#、77#、78#杆移位","powerTime":"2019-12-04 16:47:12","powerComm":"已送电","subsNo":"","lineNo":"","tgNo":"","tgName":null,"infoStatus":"1","orgName":"国网浙江临安市供电公司","typeName":null,"infoStatusName":null,"dateDay":null,"orgNos":null,"nowTime":null,"countyName":null,"streetName":null,"villageName":null,"roadName":null,"communityName":null,"tranName":null,"sdLineName":null,"cityCode":"3340160","cityName":"国网浙江临安市供电公司","provinceCode":null,"stopTime":"2019-12-04 17:00:00","powerType":"全部","powerOffArea":"百亩V184线班竹坞分线45#杆后段","powerOffReason":"百亩线改造：百亩V184线班竹坞分线45#-95#杆调导线、47#、57#、59#、60#、66#、67#、77#、78#杆移位","powerOffId":"2019112231020175"},{"poweroffId":2019112231020174,"sgpoweroffId":null,"subsName":"","lineName":"10kV潜阳V504线","pubTranName":"临安市於潜自来水有限公司,10kV后渚村[二牧里]公变,10kV观山村[甲子山岸头]公变,10kv观山村[甲子]公变,","scope":"浙江省-杭州市-临安市-於潜镇-甲子、二牧里、临安市於潜自来水有限公司、甲子山岸头一带","startTime":"2019-12-03 08:10:00","stopDate":"2019-12-03 16:30:00","orgNo":"3340160","typeCode":"计划停电","poweroffArea":"潜阳V504线64#杆自来水厂分线","poweroffReason":"临安於潜10千伏北门V507线与纸厂V120线新增联络（01）项：1、潜阳V504线自来水厂分线1#-3#杆移位、割接至下埠V503线 2、临金高速迁改施工：自来水厂分线堰头支线1#-8#杆单改双","powerTime":"2019-12-03 15:38:13","powerComm":"已送电","subsNo":"","lineNo":"","tgNo":"","tgName":null,"infoStatus":"1","orgName":"国网浙江临安市供电公司","typeName":null,"infoStatusName":null,"dateDay":null,"orgNos":null,"nowTime":null,"countyName":null,"streetName":null,"villageName":null,"roadName":null,"communityName":null,"tranName":null,"sdLineName":null,"cityCode":"3340160","cityName":"国网浙江临安市供电公司","provinceCode":null,"stopTime":"2019-12-03 16:30:00","powerType":"全部","powerOffArea":"潜阳V504线64#杆自来水厂分线","powerOffReason":"临安於潜10千伏北门V507线与纸厂V120线新增联络（01）项：1、潜阳V504线自来水厂分线1#-3#杆移位、割接至下埠V503线 2、临金高速迁改施工：自来水厂分线堰头支线1#-8#杆单改双","powerOffId":"2019112231020174"},{"poweroffId":2019112231020168,"sgpoweroffId":null,"subsName":"","lineName":"10kV鹤里V256线","pubTranName":"临安伟梦工具有限公司,10kV谢家桥村[大石桥]公变,10kV大溪坞村[上七里]公变,10kV大溪坞村[大溪村]公变,10kV鹤里村[茅翁山]公变,临安市昌化公路段,10kV鹤里村[木灵坞]公变,10kV大溪坞村[寺坑]公变,10kV横路村[炮台]公变,临安市横路乡鹤岭轧石厂,10kV横路村[后干前村]公变,10kV横路村[二队]公变,10kV桃源溪村[桃树岭王家]公变,10kV大溪坞村[上七里毛竹岭]公变,10kV寨村村[小学]公变,10kV横路村[横路中学]公变,10kV横路村[鹤岭]公变,10kV大溪坞村[小坞口]公变,10kV谢家桥村[上全]公变,10kV上太阳村[朱柏坞企业]公变,临安铁桥工具有限公司,临安铁桥工具有限公司1#,10kV桃源溪村[湖田]公变,10kV寨村村[平公山桥头]公变,临安市奥远五金工具有限公司,10kV鹤里村[鹤里樊村]公变,临安市橡胶厂,叶承群,10kV横路村[横路村]公变,10kV横路村[廊桥]公变,临安太阳纱管厂,10kV寨村村[燕塘周家]公变,10kV寨村村[石岭头]公变,10kV上太阳村[朱柏坞村]公变,10kV上太阳村[上太阳企业]公变,10kV登村村[千秋关口]公变,临安市永锦五金工具有限公司,10kV武村村[武村八队]公变,10kV大溪坞村[大溪中畈]公变,临安市桃园机械铸造厂,临安市太阳镇桃源溪股份经济合作社1#,10kV寨村村[敬老院]公变,10kV登村村[马家畈]公变,10kV武村村[武村高桥头]公变,临安市宁阳照明电器有限公司,临安呈祥工具有限公司,10kV桃源溪村[朱相坞村]公变,浙江省临安市太阳萤石矿1#,10kV寨村村[燕塘杨家]公变,10kV武村村[狮子潭]公变,10kV桃源溪村[盛村]公变,临安市立荣五金工具厂,10kV桃源溪村[岭后]公变,10kV桃源溪村[桃树岭村]公变,龙皇(太阳)电站,10kV登村村[登村林场]公变,10kV大溪坞村[七里杨树坞]公变,10kV登村村[牌坊坞口]公变,10kV寨村村[燕塘沈家]公变,10kV横路村[后干]公变,杭州临安诚信电子器材厂,10kV寨村村[平公山]公变,10kV上太阳村[朱柏坞黄泥坪]公变,10kV桃源溪村[朱相坞里]公变,10kV上太阳村[大街]公变,太阳镇自来水厂,10kV登村村[登村]公变,10kV上太阳村[上太阳村]公变,10kV寨村村[寨村]公变,10kV上太阳村[上王家]公变,10kV谢家桥村[谢家桥]公变,10kV武村村[武村西川坞]公变,10kV大溪坞村[七里墙园]公变,10kV横路村[鹤岭口庄坞]公变,10kV桃源溪村[朱相坞饶家]公变,10kV上太阳村[里家]公变,10kV鹤里村[鹤里]公变,临安市龙皇水电有限公司,10kV横路村[鹤岭云雾]公变,10kV登村村[张家]公变,10kV大溪坞村[黄泥岭]公变,临安东方滑动轴承有限公司,10kV横路村[大庙]公变,10kV大溪坞村[寺坑庵]公变,10kV鹤里村[朱后]公变,10kV横路村[陈杆]公变,10kV谢家桥村[章家]公变,临安市公安局,10kV桃源溪村[桃树岭龙台山]公变,","scope":"浙江省-杭州市-临安市-於潜镇-上太阳企业、上太阳村、上王家、大街、朱柏坞企业、朱柏坞村、朱柏坞黄泥坪、里家、七里墙园、七里杨树坞、上七里、上七里毛竹岭、大溪中畈、大溪村、寺坑、寺坑庵、小坞口、黄泥岭、寨村、小学、平公山、平公山桥头、敬老院、燕塘周家、燕塘杨家、燕塘沈家、石岭头、岭后、朱相坞村、朱相坞里、朱相坞饶家、桃树岭村、桃树岭王家、桃树岭龙台山、湖田、盛村、二队、后干、后干前村、大庙、廊桥、横路中学、横路村、炮台、陈杆、鹤岭、鹤岭云雾、鹤岭口庄坞、武村八队、武村西川坞、武村高桥头、狮子潭、千秋关口、张家、牌坊坞口、登村、登村林场、马家畈、上全、大石桥头、章家、谢家桥、木灵坞、朱后、茅翁山、鹤里、鹤里樊村、临安东方滑动轴承有限公司、临安伟梦工具有限公司、临安呈祥工具有限公司、临安太阳纱管厂、临安太阳莹石矿、临安市公安局、临安市太阳镇桃源溪股份经济合作社、临安市奥远五金工具有限公司、临安市宁阳照明电器有限公司、临安市昌化公路段、临安市桃园机械铸造厂、临安市橡胶厂、临安市永锦五金工具有限公司、临安市立荣五金工具厂、临安市龙皇水电有限公司、临安祝伟石料有限公司、临安铁桥工具有限公司、叶承群、太阳镇自来水厂、杭州临安诚信电子器材厂、龙皇(太阳)电站一带","startTime":"2019-11-30 19:30:00","stopDate":"2019-11-30 20:00:00","orgNo":"3340160","typeCode":"计划停电","poweroffArea":"35kV太阳变:鹤里V256线","poweroffReason":"配合太阳变增容","powerTime":"2019-11-30 19:50:15","powerComm":"已送电","subsNo":"","lineNo":"","tgNo":"","tgName":null,"infoStatus":"1","orgName":"国网浙江临安市供电公司","typeName":null,"infoStatusName":null,"dateDay":null,"orgNos":null,"nowTime":null,"countyName":null,"streetName":null,"villageName":null,"roadName":null,"communityName":null,"tranName":null,"sdLineName":null,"cityCode":"3340160","cityName":"国网浙江临安市供电公司","provinceCode":null,"stopTime":"2019-11-30 20:00:00","powerType":"全部","powerOffArea":"35kV太阳变:鹤里V256线","powerOffReason":"配合太阳变增容","powerOffId":"2019112231020168"},{"poweroffId":2019112231020166,"sgpoweroffId":null,"subsName":"","lineName":"10kV双庙V253线","pubTranName":"临安恒达印制电路板厂1#,10kV太阳村[高拔蒋家]公变,临安兆华五金工具厂,10kV景村村[景村企业]公变,10kV大地村[周家苦竹]公变,临安市永坤机械有限公司,10kV大地村[周家村]公变,10kV太阳村[高拔梨坞口]公变,临安市兴旺电镀有限公司3#,10kV大地村[马腿村]公变,杭州临安钱王鸵鸟养殖有限公司,临安市浙能天然气有限公司,杭州鸣梁消防科技有限公司,10kV景村村[徐家村]公变,10kV景村村[徐家龙潭畈]公变,10k10kV浪山村[诸家村]公变,10kV双庙村[朱伊李家坞]公变,10kV景村村[景村村]公变,10kV上庄村[下庄]公变,10kV景村村[徐家企业]公变,临安荣腾工具有限公司,10kV浪山村[浪山四门头]公变,10kV双庙村[双庙村]公变,临安浪山董公家庭农场,10kV浪山村[杨家坞青顶山]公变,10kV双庙村[朱伊外]公变,金山环保集团温州投资有限公司临安分公司1#,10kV浪山村[杨家坞村]公变,10kV太阳村[高拔扶善]公变,10kV太阳村[毛竹坪村]公变,10kV上庄村[文庄]公变,10kV锦坑桥村[青石门]公变,临安荣腾工具有限公司,杭州天山医药玻璃有限公司,临安市继生有机肥料有限公司1#,10kV大地村[周家桥头]公变,临安中晟玻璃制品有限公司,10kV双庙村[盛家]公变,10kV双庙村[观音村]公变,临安同友五金工具有限公司,10kV上庄村[中庄]公变,10kV上庄村[朱夏坞]公变,10kV上庄村[横坞口]公变,10kV大地村[大地企业]公变,10kV景村村[徐家桥头]公变,杭州临安枫林家庭农场,10kV浪山村[兰田坞]公变,临安神舟工具有限公司,临安市兴旺电镀有限公司2#,10kv双庙村【干溪头】公变,临安凯达五金工具厂,临安市博远彩印包装有限公司,临安市兴旺电镀有限公司1#,10kV大地村[大地]公变,10kV浪山村[浪山企业]公变,10kV上庄村[上庄村坞口]公变,10kV景村村[水踏畈]公变,临安煜成工具有限公司,临安湘阳围巾厂,10kV太阳村[高拔杨春畈]公变,10kV浪山村[浪山村]公变,10kV太阳村[毛竹坪新村]公变,临安荣达五金工具厂,临安市田园建材有限公司,10kV太阳村[高拔村]公变,10kV双庙村[朱伊里]公变,临安市春跃养殖有限公司,10kV上庄村[上庄村马家坞]公变,10kV双庙村[陶家]公变,","scope":"浙江省-杭州市-临安市-太阳镇-上庄村坞口、上庄村马家坞、下庄、中庄、文庄、朱夏坞、横坞口、双庙村、干溪头、朱伊外、朱伊李家坞、朱伊里、盛家、观音村、陶家、周家村、周家桥头、周家苦竹、大地、大地企业、马腿村、毛竹坪新村、毛竹坪村、高拔扶善、高拔村、高拔杨春畈、高拔梨坞口、高拔蒋家、徐家企业、徐家村、徐家桥头、徐家龙潭畈、景村企业、景村村、水踏畈、兰田坞、杨家坞村、杨家坞青顶山、浪山企业、浪山四门头、浪山村、诸家村、青石门、临安中晟玻璃制品有限公司、临安兆华五金工具厂、临安凯达五金工具厂、临安同友五金工具有限公司、临安市兴旺电镀有限公司、临安市博远彩印包装有限公司、临安市春跃养殖有限公司、临安市永坤机械有限公司、临安市浙能天然气有限公司、临安市田园建材有限公司、临安市继生有机肥料有限公司、临安恒达印制电路板厂、临安浪山董公家庭农场、临安湘阳围巾厂、临安煜成工具有限公司、临安神舟工具有限公司、临安荣腾工具有限公司、临安荣达五金工具厂、天山医药玻璃有限公司、杭州临安枫林家庭农场、杭州临安钱王鸵鸟养殖有限公司、杭州天山医药玻璃有限公司、金山环保集团温州投资有限公司临安分公司一带","startTime":"2019-11-30 19:00:00","stopDate":"2019-11-30 19:30:00","orgNo":"3340160","typeCode":"计划停电","poweroffArea":"35kV太阳变:双庙V253线","poweroffReason":"配合太阳变增容","powerTime":"2019-11-30 19:20:49","powerComm":"已送电","subsNo":"","lineNo":"","tgNo":"","tgName":null,"infoStatus":"1","orgName":"国网浙江临安市供电公司","typeName":null,"infoStatusName":null,"dateDay":null,"orgNos":null,"nowTime":null,"countyName":null,"streetName":null,"villageName":null,"roadName":null,"communityName":null,"tranName":null,"sdLineName":null,"cityCode":"3340160","cityName":"国网浙江临安市供电公司","provinceCode":null,"stopTime":"2019-11-30 19:30:00","powerType":"全部","powerOffArea":"35kV太阳变:双庙V253线","powerOffReason":"配合太阳变增容","powerOffId":"2019112231020166"},{"poweroffId":2019112231020154,"sgpoweroffId":null,"subsName":"","lineName":"10kV石门H566线","pubTranName":"清波村里洞口公变,","scope":"浙江省-杭州市-余杭区-黄湖镇-清波行政村-清波自然村","startTime":"2019-11-22 10:28:00","stopDate":"2019-11-22 14:00:00","orgNo":"3340140","typeCode":"电网故障停限电","poweroffArea":"35kV黄湖变:石门H566线清波村里洞口公变配变","poweroffReason":"高压开关跳闸","powerTime":"2019-11-22 13:11:00","powerComm":"已送电","subsNo":"","lineNo":"","tgNo":"","tgName":null,"infoStatus":"1","orgName":"国网浙江杭州市余杭区供电有限公司","typeName":null,"infoStatusName":null,"dateDay":null,"orgNos":null,"nowTime":null,"countyName":null,"streetName":null,"villageName":null,"roadName":null,"communityName":null,"tranName":null,"sdLineName":null,"cityCode":"3340140","cityName":"国网浙江杭州市余杭区供电有限公司","provinceCode":null,"stopTime":"2019-11-22 14:00:00","powerType":"全部","powerOffArea":"35kV黄湖变:石门H566线清波村里洞口公变配变","powerOffReason":"高压开关跳闸","powerOffId":"2019112231020154"}],"pageModel":{"pageNow":830,"totalCount":17789,"totalPage":1779,"tableRows":0,"pageCount":10,"beginCount":8290},"isExperi":"1"}