{"message":"","today":"2020-06-15","seleList":[{"poweroffId":2019112231020145,"sgpoweroffId":null,"subsName":"","lineName":"10kV鱼跳V471线","pubTranName":"柘林村,大峡谷村柘林许家,柘林徐家,柘林水电站厂用变,大峡谷（柘林）电站,浙西大峡谷旅游开发有限公司,大峡谷村柘林胡家,","scope":"浙江省-杭州市-临安市-龙岗镇-大峡谷村柘林,柘林徐家，杭州浙西大峡谷旅游有限公司一带。","startTime":"2019-12-05 08:00:00","stopDate":"2019-12-05 16:00:00","orgNo":"3340160","typeCode":"计划停电","poweroffArea":"110kV龙岗变:鱼跳V471线-柘林分线开关后段","poweroffReason":"分支线改造","powerTime":"2019-12-05 15:50:08","powerComm":"已送电","subsNo":"","lineNo":"","tgNo":"","tgName":null,"infoStatus":"1","orgName":"国网浙江临安市供电公司","typeName":null,"infoStatusName":null,"dateDay":null,"orgNos":null,"nowTime":null,"countyName":null,"streetName":null,"villageName":null,"roadName":null,"communityName":null,"tranName":null,"sdLineName":null,"cityCode":"3340160","cityName":"国网浙江临安市供电公司","provinceCode":null,"stopTime":"2019-12-05 16:00:00","powerType":"全部","powerOffArea":"110kV龙岗变:鱼跳V471线-柘林分线开关后段","powerOffReason":"分支线改造","powerOffId":"2019112231020145"},{"poweroffId":2019112231020144,"sgpoweroffId":null,"subsName":"","lineName":"10kV仁里V312线","pubTranName":"大坦村(大园),大坦村(东川),临安市裕康食品厂,仁里村二百户,","scope":"浙江省-杭州市-临安市-岛石镇-仁里村大坦、东川、二百户、裕康食口厂一带。","startTime":"2019-12-03 13:00:00","stopDate":"2019-12-03 17:00:00","orgNo":"3340160","typeCode":"计划停电","poweroffArea":"35kV岛石变:仁里V312线-东川分线开关后段","poweroffReason":"分线改造","powerTime":"2019-12-03 16:50:19","powerComm":"已送电","subsNo":"","lineNo":"","tgNo":"","tgName":null,"infoStatus":"1","orgName":"国网浙江临安市供电公司","typeName":null,"infoStatusName":null,"dateDay":null,"orgNos":null,"nowTime":null,"countyName":null,"streetName":null,"villageName":null,"roadName":null,"communityName":null,"tranName":null,"sdLineName":null,"cityCode":"3340160","cityName":"国网浙江临安市供电公司","provinceCode":null,"stopTime":"2019-12-03 17:00:00","powerType":"全部","powerOffArea":"35kV岛石变:仁里V312线-东川分线开关后段","powerOffReason":"分线改造","powerOffId":"2019112231020144"},{"poweroffId":2019112231020123,"sgpoweroffId":null,"subsName":"","lineName":"10kV滨北D369线","pubTranName":"茂华公变,富春公寓公变,小寺弄1#公变,人和园1#公变,宜家弄公变,周家弄2#公变,富阳市公安局,小寺弄3#公变,小寺弄5#公变,小寺弄2#公变,富阳百合商厦有限公司,人和园2#公变,宜家弄2#公变,周家弄3#公变,周家弄1#公变,","scope":"浙江省-杭州市-富阳区-富春街道-恩波社区(后河西路,富春街,大寺弄),富春街道-鹳山社区(桂花西路,桂花路,市心路,周家弄,后河西路,富春路,大寺弄,小寺弄,春江路,富春街,宜家弄,达夫路),富春街道(镬子山社区-达夫路,城东社区-富春街);富春街道(杭州市公安局富阳区分局,富阳百合商厦有限公司)","startTime":"2019-11-22 09:47:56","stopDate":"2019-11-22 11:20:00","orgNo":"3340170","typeCode":"电网故障停限电","poweroffArea":"110kV富鹿变:滨北D369线万方开关站滨北369线后段","poweroffReason":"高压开关跳闸 原停电结束时间为2019-11-22 11:44:00,为减少客户停电时间,加快工作进度,提前送电,现变更停电结束时间为2019-11-22 11:20:00","powerTime":"2019-11-22 10:36:44","powerComm":"已送电","subsNo":"","lineNo":"","tgNo":"","tgName":null,"infoStatus":"1","orgName":"国网浙江杭州市富阳区供电公司","typeName":null,"infoStatusName":null,"dateDay":null,"orgNos":null,"nowTime":null,"countyName":null,"streetName":null,"villageName":null,"roadName":null,"communityName":null,"tranName":null,"sdLineName":null,"cityCode":"3340170","cityName":"国网浙江杭州市富阳区供电公司","provinceCode":null,"stopTime":"2019-11-22 11:20:00","powerType":"全部","powerOffArea":"110kV富鹿变:滨北D369线万方开关站滨北369线后段","powerOffReason":"高压开关跳闸 原停电结束时间为2019-11-22 11:44:00,为减少客户停电时间,加快工作进度,提前送电,现变更停电结束时间为2019-11-22 11:20:00","powerOffId":"2019112231020123"},{"poweroffId":2019112231020122,"sgpoweroffId":null,"subsName":"","lineName":"10kV北环6272线","pubTranName":"国嘉三变,","scope":"浙江省-杭州市-滨江区-浦沿街道-滨盛社区-滨盛路","startTime":"2019-11-22 09:44:56","stopDate":"2019-11-22 12:44:56","orgNo":"3340101","typeCode":"电网故障停限电","poweroffArea":"110kV之江变:北环6272线-国嘉三变后段","poweroffReason":"(低压停电信息)低压开关跳闸","powerTime":"2019-11-22 11:52:12","powerComm":"已送电","subsNo":"","lineNo":"","tgNo":"","tgName":null,"infoStatus":"1","orgName":"浙江杭州电力客户服务中心","typeName":null,"infoStatusName":null,"dateDay":null,"orgNos":null,"nowTime":null,"countyName":null,"streetName":null,"villageName":null,"roadName":null,"communityName":null,"tranName":null,"sdLineName":null,"cityCode":"3340101","cityName":"浙江杭州电力客户服务中心","provinceCode":null,"stopTime":"2019-11-22 12:44:56","powerType":"全部","powerOffArea":"110kV之江变:北环6272线-国嘉三变后段","powerOffReason":"(低压停电信息)低压开关跳闸","powerOffId":"2019112231020122"},{"poweroffId":2019112231020096,"sgpoweroffId":null,"subsName":"","lineName":"10kV利民D241线","pubTranName":"华士沙3#东公变,","scope":"浙江省-杭州市-富阳区-东洲街道-东洲行政村(华士沙自然村,华墅沙自然村)","startTime":"2019-11-22 09:14:39","stopDate":"2019-11-22 11:14:39","orgNo":"3340170","typeCode":"电网故障停限电","poweroffArea":"110kV白鹤变:利民D241线-华士沙3#东公变后段","poweroffReason":"(低压停电信息)低压开关跳闸","powerTime":"2019-11-22 10:20:17","powerComm":"已送电","subsNo":"","lineNo":"","tgNo":"","tgName":null,"infoStatus":"1","orgName":"国网浙江杭州市富阳区供电公司","typeName":null,"infoStatusName":null,"dateDay":null,"orgNos":null,"nowTime":null,"countyName":null,"streetName":null,"villageName":null,"roadName":null,"communityName":null,"tranName":null,"sdLineName":null,"cityCode":"3340170","cityName":"国网浙江杭州市富阳区供电公司","provinceCode":null,"stopTime":"2019-11-22 11:14:39","powerType":"全部","powerOffArea":"110kV白鹤变:利民D241线-华士沙3#东公变后段","powerOffReason":"(低压停电信息)低压开关跳闸","powerOffId":"2019112231020096"},{"poweroffId":2019112231020075,"sgpoweroffId":null,"subsName":"","lineName":"10kV永和D821线","pubTranName":"蒋家桥1#公变,","scope":"浙江省-杭州市-富阳区-富春街道-后周社区-蒋家桥路","startTime":"2019-11-22 08:55:58","stopDate":"2019-11-22 09:30:58","orgNo":"3340170","typeCode":"电网故障停限电","poweroffArea":"110kV容大变:永和D821线-蒋家桥1#公变后段","poweroffReason":"(低压停电信息)低压开关跳闸","powerTime":"2019-11-22 09:15:27","powerComm":"已送电","subsNo":"","lineNo":"","tgNo":"","tgName":null,"infoStatus":"1","orgName":"国网浙江杭州市富阳区供电公司","typeName":null,"infoStatusName":null,"dateDay":null,"orgNos":null,"nowTime":null,"countyName":null,"streetName":null,"villageName":null,"roadName":null,"communityName":null,"tranName":null,"sdLineName":null,"cityCode":"3340170","cityName":"国网浙江杭州市富阳区供电公司","provinceCode":null,"stopTime":"2019-11-22 09:30:58","powerType":"全部","powerOffArea":"110kV容大变:永和D821线-蒋家桥1#公变后段","powerOffReason":"(低压停电信息)低压开关跳闸","powerOffId":"2019112231020075"},{"poweroffId":2019112231020062,"sgpoweroffId":null,"subsName":"","lineName":"10kV大通C215线","pubTranName":"前塘社区8#变,塘里陈社区4#变,杭州市公安局萧山区分局交通警察大队,杭州萧列家食品有限公司,塘里陈社区5#变,杭州萧山保安服务有限公司变压器,1#变,前塘社区10#变,伟成物业2#,杭州瑞格特绣品有限公司,杭州金丝源时装有限公司,杭州萧山新塘街道一都孙村经济合作社,中铁三局集团有限公司杭长,杭州恒镕印刷包装有限公司,杭州唯可曼家居布艺有限公司,2#变,变压器,杭州市公安局萧山分局,一都孙村2#变,塘里陈社区2#变,杭州市萧山区市政园林公用事业管理局,杭州飞鹿摩擦材料有限公司,新塘新超羽绒制品加工厂,杭州市萧山区市政园林公用事业管理处,一都孙村5#变,城厢供热,中铁三局集团有限公司杭长,一都孙村1#变,杭州萧山污水处理有限公司变压器,新塘信用社,","scope":"浙江省-杭州市-萧山区-新塘街道-一都孙行政村(一都孙自然村,曹家埭自然村,童家桥自然村),新塘街道-塘里陈社区(塘里陈自然村,新螺路),新塘街道-前塘社区(姚家桥自然村,里街河自然村);新塘街道-一都孙行政村(杭州萧山城市安防保安服务有限公司,杭州飞鹿摩擦材料有限公司,杭州瑞格特绣品有限公司,杭州萧山新塘街道一都孙村经济合作社,杭州萧山汉潮家禽有限公司,杭州萧列家食品有限公司,杭州市萧山区市政绿化养护保障中心),新塘街道-畈里童社区(杭州萧山污水处理有限公司,杭州唯可曼家居布艺有限公司),新塘街道-塘里陈社区(杭州市萧山区市政绿化养护保障中心,中铁三局集团有限公司杭长铁路客运浙江段项目经理部,杭州市公安局萧山区分局交通警察大队,杭州建宇制衣有限公司),新塘街道(琴山下社区-杭州华元拆房有限公司,紫霞行政村-浙江萧山农村商业银行股份有限公司,杭州恒镕印刷包装有限公司,五联行政村-杭州市萧山区人民政府新塘街道办事处,半爿街社区-杭州萧山城厢供热有限公司,西许行政村-杭州金丝源时装有限公司,商城社区-杭州伟成物业服务有限公司)，浙江省杭州市萧山区新塘街道南秀路2538号，浙江省杭州市萧山区新塘街道新罗路860号移动营业厅，浙江省杭州市萧山区新塘街道虎山路南面到头金丝源一带","startTime":"2019-11-22 08:20:22","stopDate":"2019-11-22 10:30:22","orgNo":"3340130","typeCode":"电网故障停限电","poweroffArea":"110kV霞江变:大通C215线通塘C2151开关后段","poweroffReason":"外力破坏引起大通C215线高压柱上断路器短路跳闸 原停电结束时间为2019-11-22 11:00:22,为减少客户停电时间,加快工作进度,提前送电,现变更停电结束时间为2019-11-22 10:30:22","powerTime":"2019-11-22 09:50:15","powerComm":"已送电","subsNo":"","lineNo":"","tgNo":"","tgName":null,"infoStatus":"1","orgName":"国网浙江杭州市萧山区供电有限公司","typeName":null,"infoStatusName":null,"dateDay":null,"orgNos":null,"nowTime":null,"countyName":null,"streetName":null,"villageName":null,"roadName":null,"communityName":null,"tranName":null,"sdLineName":null,"cityCode":"3340130","cityName":"国网浙江杭州市萧山区供电有限公司","provinceCode":null,"stopTime":"2019-11-22 10:30:22","powerType":"全部","powerOffArea":"110kV霞江变:大通C215线通塘C2151开关后段","powerOffReason":"外力破坏引起大通C215线高压柱上断路器短路跳闸 原停电结束时间为2019-11-22 11:00:22,为减少客户停电时间,加快工作进度,提前送电,现变更停电结束时间为2019-11-22 10:30:22","powerOffId":"2019112231020062"},{"poweroffId":2019112231020061,"sgpoweroffId":null,"subsName":"","lineName":"10kV华丹9619线","pubTranName":"月林（一）,竹邻（七),菊香（三）,月桂（四）,月桂（五）,公交站,枫林（三）,月林（七）,菊香（一）,北苑（四）,月桂（二）,北荆园广场1#,菊香（五）,竹邻（三）,下城区园林管理所,月桂（三）,枫林（一）,莲趣（三）,北苑（七）,竹邻（一）,北荆园广场3#,莲趣（一）,回园泵,菊香（七）,月桂（一）,北苑1,北苑（三）,月林（三）,月林（五）,北荆园广场2#,北荆园广场4#,菊香（九）,北苑（五）,枫林（五）,竹邻（五）,","scope":"浙江省-杭州市-下城区-长庆街道-王马社区-东新路,石桥街道-北景园社区(回龙路,东新路,紫荆商街,永清路,永祥街),石桥街道-景安社区(永清路,回龙路,东新路),石桥街道-永丰社区(永波街,东新路),石桥街道(景荣社区-东新路,石桥社区-东新路);石桥街道(杭州市石桥经济合作社,杭州市下城区市政园林管理所),文晖街道-杭州市公共交通集团有限公司,东新街道-杭州市排水有限公司","startTime":"2019-11-22 08:46:59","stopDate":"2019-11-22 09:35:00","orgNo":"3340101","typeCode":"电网故障停限电","poweroffArea":"110kV华丰变:华丹9619线北荆站丹北84373线后段","poweroffReason":"高压开关跳闸 原停电结束时间为2019-11-22 10:46:00,为减少客户停电时间,加快工作进度,提前送电,现变更停电结束时间为2019-11-22 09:35:00","powerTime":"2019-11-22 09:13:10","powerComm":"已送电","subsNo":"","lineNo":"","tgNo":"","tgName":null,"infoStatus":"1","orgName":"浙江杭州电力客户服务中心","typeName":null,"infoStatusName":null,"dateDay":null,"orgNos":null,"nowTime":null,"countyName":null,"streetName":null,"villageName":null,"roadName":null,"communityName":null,"tranName":null,"sdLineName":null,"cityCode":"3340101","cityName":"浙江杭州电力客户服务中心","provinceCode":null,"stopTime":"2019-11-22 09:35:00","powerType":"全部","powerOffArea":"110kV华丰变:华丹9619线北荆站丹北84373线后段","powerOffReason":"高压开关跳闸 原停电结束时间为2019-11-22 10:46:00,为减少客户停电时间,加快工作进度,提前送电,现变更停电结束时间为2019-11-22 09:35:00","powerOffId":"2019112231020061"},{"poweroffId":2019112231020046,"sgpoweroffId":null,"subsName":"","lineName":"10kV丹枫9629线","pubTranName":"北苑（二）,竹邻（四）,枫林（四）,月林（四）,枫林（二）,丹苑（二）,竹邻（六）,丹苑（六）,北荆苑中学,市基(1),月林（二）,莲趣（六）,莲趣（二）,菊香（六）,丹苑（四）,月桂（六）,月桂（七）,月林（六）,菊香（八）,北荆园广场2#,北苑（四）,北泵,菊香（四）,莲趣（四）,菊香（二）,月林（八）,竹邻（二）,北荆园广场1#,石办,","scope":"浙江省-杭州市-下城区-石桥街道-北景园社区(永清路,紫荆商街,东新路,回龙路,永祥街,竹清路,杭玻路),石桥街道-景荣社区(东新路,北景园都市枫林),石桥街道-景安社区(回龙路,杭玻路),石桥街道-永丰社区(永波街,永祥街);浙江省-杭州市-江干区-笕桥镇-草庄社区-杭州城东假日酒店有限公司,石桥街道-北景园社区(杭州市石桥经济合作社,杭州市排水有限公司),石桥街道(石桥社区-杭州市景成实验学校,)","startTime":"2019-11-22 08:31:49","stopDate":"2019-11-22 09:31:49","orgNo":"3340101","typeCode":"电网故障停限电","poweroffArea":"110kV华丰变:丹枫9629线","poweroffReason":"高压开关跳闸 原停电结束时间为2019-11-22 12:31:49,为减少客户停电时间,加快工作进度,提前送电,现变更停电结束时间为2019-11-22 09:31:49","powerTime":"2019-11-22 08:58:19","powerComm":"已送电","subsNo":"","lineNo":"","tgNo":"","tgName":null,"infoStatus":"1","orgName":"浙江杭州电力客户服务中心","typeName":null,"infoStatusName":null,"dateDay":null,"orgNos":null,"nowTime":null,"countyName":null,"streetName":null,"villageName":null,"roadName":null,"communityName":null,"tranName":null,"sdLineName":null,"cityCode":"3340101","cityName":"浙江杭州电力客户服务中心","provinceCode":null,"stopTime":"2019-11-22 09:31:49","powerType":"全部","powerOffArea":"110kV华丰变:丹枫9629线","powerOffReason":"高压开关跳闸 原停电结束时间为2019-11-22 12:31:49,为减少客户停电时间,加快工作进度,提前送电,现变更停电结束时间为2019-11-22 09:31:49","powerOffId":"2019112231020046"},{"poweroffId":2019112231020041,"sgpoweroffId":null,"subsName":"","lineName":"10kV建华D852线","pubTranName":"建华村1#村中公变,","scope":"浙江省-杭州市-富阳区-春江街道-山建行政村-建华自然村","startTime":"2019-11-22 08:30:19","stopDate":"2019-11-22 09:30:19","orgNo":"3340170","typeCode":"电网故障停限电","poweroffArea":"110kV华共变:建华D852线-建华村1#村中公变后段","poweroffReason":"(低压停电信息)低压开关跳闸","powerTime":"2019-11-22 08:47:53","powerComm":"已送电","subsNo":"","lineNo":"","tgNo":"","tgName":null,"infoStatus":"1","orgName":"国网浙江杭州市富阳区供电公司","typeName":null,"infoStatusName":null,"dateDay":null,"orgNos":null,"nowTime":null,"countyName":null,"streetName":null,"villageName":null,"roadName":null,"communityName":null,"tranName":null,"sdLineName":null,"cityCode":"3340170","cityName":"国网浙江杭州市富阳区供电公司","provinceCode":null,"stopTime":"2019-11-22 09:30:19","powerType":"全部","powerOffArea":"110kV华共变:建华D852线-建华村1#村中公变后段","powerOffReason":"(低压停电信息)低压开关跳闸","powerOffId":"2019112231020041"}],"pageModel":{"pageNow":831,"totalCount":17789,"totalPage":1779,"tableRows":0,"pageCount":10,"beginCount":8300},"isExperi":"1"}