{"message":"","today":"2020-06-15","seleList":[{"poweroffId":2019112131020279,"sgpoweroffId":null,"subsName":"","lineName":"10kV江楼6286线","pubTranName":"港湾一变,","scope":"浙江省-杭州市-滨江区-浦沿街道-之江社区-伟业路，浙江省杭州市滨江区银色港湾小区B1配电间，8号楼商铺1，8号楼商铺2，13号楼商铺，B1计量间备供1，2","startTime":"2019-12-06 09:30:00","stopDate":"2019-12-06 11:30:00","orgNo":"3340101","typeCode":"计划停电","poweroffArea":"110kV之江变:江楼6286线-港湾一变后段3号.4号刀闸","poweroffReason":"(低压停电信息)非居增容","powerTime":"2019-12-06 10:38:12","powerComm":"已送电","subsNo":"","lineNo":"","tgNo":"","tgName":null,"infoStatus":"1","orgName":"浙江杭州电力客户服务中心","typeName":null,"infoStatusName":null,"dateDay":null,"orgNos":null,"nowTime":null,"countyName":null,"streetName":null,"villageName":null,"roadName":null,"communityName":null,"tranName":null,"sdLineName":null,"cityCode":"3340101","cityName":"浙江杭州电力客户服务中心","provinceCode":null,"stopTime":"2019-12-06 11:30:00","powerType":"全部","powerOffArea":"110kV之江变:江楼6286线-港湾一变后段3号.4号刀闸","powerOffReason":"(低压停电信息)非居增容","powerOffId":"2019112131020279"},{"poweroffId":2019112131020275,"sgpoweroffId":null,"subsName":"","lineName":"10kV三鑫T277线","pubTranName":"三源村1号公变,","scope":"浙江省-杭州市-桐庐县-凤川街道-外源行政村-三源路","startTime":"2019-12-03 08:30:00","stopDate":"2019-12-03 12:30:00","orgNo":"3340150","typeCode":"计划停电","poweroffArea":"110kV石阜变:三鑫T277线-三源F7079令克后段","poweroffReason":"三源村1号公变安装三相不平衡电流调节装置工作","powerTime":"2019-12-03 12:00:40","powerComm":"已送电","subsNo":"","lineNo":"","tgNo":"","tgName":null,"infoStatus":"1","orgName":"国网浙江桐庐县供电公司","typeName":null,"infoStatusName":null,"dateDay":null,"orgNos":null,"nowTime":null,"countyName":null,"streetName":null,"villageName":null,"roadName":null,"communityName":null,"tranName":null,"sdLineName":null,"cityCode":"3340150","cityName":"国网浙江桐庐县供电公司","provinceCode":null,"stopTime":"2019-12-03 12:30:00","powerType":"全部","powerOffArea":"110kV石阜变:三鑫T277线-三源F7079令克后段","powerOffReason":"三源村1号公变安装三相不平衡电流调节装置工作","powerOffId":"2019112131020275"},{"poweroffId":2019112131020239,"sgpoweroffId":null,"subsName":"","lineName":"10kV城四A617线","pubTranName":"3#变压器,商城幼儿园,徐家河社区1#公变,杭州市萧山区人民防空办公室,1#,杭州萧山万丰五金机电市场,人民政府北干街道办事处,3#,2#,萧山区气象局,徐家河公寓公变,馨星大厦2#公变,1#变压器,馨星大厦1#公变,丽华公寓公变,1#,杭州市萧山区总工会,特来电1#变压器,市政园林公用事业管理处,伟达建设工程,1#,特来电2#变压器,站前商贸广场公变,杭州萧山城市建设投资集团有限公司,2#变压器,1#,杭州叁益酒店有限公司2#,3#,污水处理,#1,杭州萧山城区投资开发有限公司,杭州美景物业管理有限公司3#,变压器,2#,4#,杭州马克置业有限公司#1主变,金马公寓公变,市政园林管理,变压器,杭州叁益酒店有限公司1#,金马公寓2#公变,杭州马克置业有限公司#3主变,安怡商务酒店,1#变压器,杭州美景物业管理有限公司2#,市政园林管理处4#,柳桥安置小区（3#配变）,杭州美景物业管理有限公司1#,浙江明日房地产有限公司1#,","scope":"浙江省-杭州市-萧山区-城厢街道-育才东苑社区(通惠路,通惠中路),北干街道-柳桥社区(馨星大厦,站前路),新塘街道(商城社区-通惠路,站前路-站前商贸广场),城厢街道(商城社区-通惠路,徐家河社区-通惠中路,燕子河社区-通惠中路);浙江省-杭州市-萧山区-北干街道-畈里张社区-杭州市萧山区人民政府北干街道办事处,城厢街道-燕子河社区(杭州枫景假日酒店有限公司,杭州市萧山区人民防空办公室,中共杭州市萧山区委老干部局,杭州市萧山区档案局),北干街道-塘湾行政村(杭州市萧山区市政绿化养护保障中心,杭州天开市政园林工程有限公司市政分公司),城厢街道-徐家河社区(杭州萧山城区投资开发有限公司,杭州市萧山区市政绿化养护保障中心,杭州安怡商务酒店有限公司,杭州萧山污水处理有限公司,杭州天钰房地产开发有限公司),北干街道-柳桥社区(杭州萧山万丰五金机电市场,杭州市萧山区人民政府北干街道办事处,杭州萧山联华物业管理有限公司,杭州萧山城市建设投资集团有限公司,杭州市萧山区气象局,浙江正泰新能源开发有限公司,杭州特来电新能源有限公司,萧山出入境检验检疫局,杭州晟合建设发展有限公司,杭州马克置业有限公司,杭州鹏浩置业有限公司),新塘街道(下畈朱社区-杭州瑞博房地产开发有限公司,半爿街社区-杭州市萧山区商业城商城幼儿园),城厢街道(育才东苑社区-杭州市萧山区总工会,回澜北苑社区-杭州萧山城区投资开发有限公司,商城社区-杭州红宝石传媒有限公司)、商业城机电市场、金马名仕园、金马公寓、馨星大厦一带","startTime":"2019-11-21 14:13:26","stopDate":"2019-11-21 16:30:26","orgNo":"3340130","typeCode":"电网故障停限电","poweroffArea":"110kV城东变:城四A617线后段","poweroffReason":"因外力破坏导致高压电缆被挖断 原停电结束时间为2019-11-21 18:00:26,为减少客户停电时间,加快工作进度,提前送电,现变更停电结束时间为2019-11-21 16:30:26","powerTime":"2019-11-21 15:48:32","powerComm":"已送电","subsNo":"","lineNo":"","tgNo":"","tgName":null,"infoStatus":"1","orgName":"国网浙江杭州市萧山区供电有限公司","typeName":null,"infoStatusName":null,"dateDay":null,"orgNos":null,"nowTime":null,"countyName":null,"streetName":null,"villageName":null,"roadName":null,"communityName":null,"tranName":null,"sdLineName":null,"cityCode":"3340130","cityName":"国网浙江杭州市萧山区供电有限公司","provinceCode":null,"stopTime":"2019-11-21 16:30:26","powerType":"全部","powerOffArea":"110kV城东变:城四A617线后段","powerOffReason":"因外力破坏导致高压电缆被挖断 原停电结束时间为2019-11-21 18:00:26,为减少客户停电时间,加快工作进度,提前送电,现变更停电结束时间为2019-11-21 16:30:26","powerOffId":"2019112131020239"},{"poweroffId":2019112131020229,"sgpoweroffId":null,"subsName":"","lineName":"10kV蔡家D893线","pubTranName":"利民村方家村2#溪边公变,","scope":"浙江省-杭州市-富阳区-灵桥镇-利民行政村-方家村自然村","startTime":"2019-11-21 13:30:37","stopDate":"2019-11-21 14:30:37","orgNo":"3340170","typeCode":"电网故障停限电","poweroffArea":"110kV永春变:蔡家D893线-利民村方家村2#溪边公变后段","poweroffReason":"高压开关跳闸","powerTime":"2019-11-21 14:09:38","powerComm":"已送电","subsNo":"","lineNo":"","tgNo":"","tgName":null,"infoStatus":"1","orgName":"国网浙江杭州市富阳区供电公司","typeName":null,"infoStatusName":null,"dateDay":null,"orgNos":null,"nowTime":null,"countyName":null,"streetName":null,"villageName":null,"roadName":null,"communityName":null,"tranName":null,"sdLineName":null,"cityCode":"3340170","cityName":"国网浙江杭州市富阳区供电公司","provinceCode":null,"stopTime":"2019-11-21 14:30:37","powerType":"全部","powerOffArea":"110kV永春变:蔡家D893线-利民村方家村2#溪边公变后段","powerOffReason":"高压开关跳闸","powerOffId":"2019112131020229"},{"poweroffId":2019112131020222,"sgpoweroffId":null,"subsName":"","lineName":"10kV丁家G372线","pubTranName":"东塘村得胜村公变,","scope":"浙江省-杭州市-余杭区-仁和街道-东塘行政村(王家塘自然村,邵家塘自然村,得胜村自然村,塘梗儿,丁家角自然村,丁家抖自然村,小环桥自然村)","startTime":"2019-11-21 13:15:06","stopDate":"2019-11-21 16:40:00","orgNo":"3340140","typeCode":"电网故障停限电","poweroffArea":"110kV东塘变:丁家G372线-东塘村得胜村公变后段","poweroffReason":"高压开关跳闸 原停电结束时间为2019-11-21 15:15:06,因现场情况复杂原因,现变更停电结束时间为2019-11-21 16:40:00","powerTime":"2019-11-21 15:56:00","powerComm":"已送电","subsNo":"","lineNo":"","tgNo":"","tgName":null,"infoStatus":"1","orgName":"国网浙江杭州市余杭区供电有限公司","typeName":null,"infoStatusName":null,"dateDay":null,"orgNos":null,"nowTime":null,"countyName":null,"streetName":null,"villageName":null,"roadName":null,"communityName":null,"tranName":null,"sdLineName":null,"cityCode":"3340140","cityName":"国网浙江杭州市余杭区供电有限公司","provinceCode":null,"stopTime":"2019-11-21 16:40:00","powerType":"全部","powerOffArea":"110kV东塘变:丁家G372线-东塘村得胜村公变后段","powerOffReason":"高压开关跳闸 原停电结束时间为2019-11-21 15:15:06,因现场情况复杂原因,现变更停电结束时间为2019-11-21 16:40:00","powerOffId":"2019112131020222"},{"poweroffId":2019112131020161,"sgpoweroffId":null,"subsName":"","lineName":"10kV灵山D143线","pubTranName":"秉贤新村7号公变变压器,","scope":"浙江省-杭州市-富阳区-新登镇-秉贤行政村-秉贤新村","startTime":"2019-11-21 10:43:24","stopDate":"2019-11-21 11:34:24","orgNo":"3340170","typeCode":"电网故障停限电","poweroffArea":"110kV新登变:灵山D143线-秉贤新村7号公变变压器后段","poweroffReason":"高压开关跳闸","powerTime":"2019-11-21 11:15:50","powerComm":"已送电","subsNo":"","lineNo":"","tgNo":"","tgName":null,"infoStatus":"1","orgName":"国网浙江杭州市富阳区供电公司","typeName":null,"infoStatusName":null,"dateDay":null,"orgNos":null,"nowTime":null,"countyName":null,"streetName":null,"villageName":null,"roadName":null,"communityName":null,"tranName":null,"sdLineName":null,"cityCode":"3340170","cityName":"国网浙江杭州市富阳区供电公司","provinceCode":null,"stopTime":"2019-11-21 11:34:24","powerType":"全部","powerOffArea":"110kV新登变:灵山D143线-秉贤新村7号公变变压器后段","powerOffReason":"高压开关跳闸","powerOffId":"2019112131020161"},{"poweroffId":2019112131020154,"sgpoweroffId":null,"subsName":"","lineName":"10kV碳宾6873线","pubTranName":"日晖(5),","scope":"浙江省-杭州市-西湖区-西溪街道-石灰桥社区-莫干山路","startTime":"2019-11-21 10:20:52","stopDate":"2019-11-21 12:25:52","orgNo":"3340101","typeCode":"电网故障停限电","poweroffArea":"110kV文化变:碳宾6873线-日晖(5)后段","poweroffReason":"高压开关跳闸 原停电结束时间为2019-11-21 16:20:52,为减少客户停电时间,加快工作进度,提前送电,现变更停电结束时间为2019-11-21 12:25:52","powerTime":"2019-11-21 11:47:35","powerComm":"已送电","subsNo":"","lineNo":"","tgNo":"","tgName":null,"infoStatus":"1","orgName":"浙江杭州电力客户服务中心","typeName":null,"infoStatusName":null,"dateDay":null,"orgNos":null,"nowTime":null,"countyName":null,"streetName":null,"villageName":null,"roadName":null,"communityName":null,"tranName":null,"sdLineName":null,"cityCode":"3340101","cityName":"浙江杭州电力客户服务中心","provinceCode":null,"stopTime":"2019-11-21 12:25:52","powerType":"全部","powerOffArea":"110kV文化变:碳宾6873线-日晖(5)后段","powerOffReason":"高压开关跳闸 原停电结束时间为2019-11-21 16:20:52,为减少客户停电时间,加快工作进度,提前送电,现变更停电结束时间为2019-11-21 12:25:52","powerOffId":"2019112131020154"},{"poweroffId":2019112131020065,"sgpoweroffId":null,"subsName":"","lineName":"10kV北象A739线","pubTranName":"石英厂宿舍公变,","scope":"浙江省-杭州市-萧山区-北干街道-北干二苑社区-永久路","startTime":"2019-11-27 08:30:00","stopDate":"2019-11-27 10:30:00","orgNo":"3340130","typeCode":"临时停电","poweroffArea":"110kV北干变:北象A739线-石英厂宿舍公后段","poweroffReason":"石英厂宿舍公变改接至新立电杆 原停电结束时间为2019-11-27 16:30:00,为减少客户停电时间,加快工作进度,提前送电,现变更停电结束时间为2019-11-27 10:30:00","powerTime":"2019-11-27 09:38:23","powerComm":"已送电","subsNo":"","lineNo":"","tgNo":"","tgName":null,"infoStatus":"1","orgName":"国网浙江杭州市萧山区供电有限公司","typeName":null,"infoStatusName":null,"dateDay":null,"orgNos":null,"nowTime":null,"countyName":null,"streetName":null,"villageName":null,"roadName":null,"communityName":null,"tranName":null,"sdLineName":null,"cityCode":"3340130","cityName":"国网浙江杭州市萧山区供电有限公司","provinceCode":null,"stopTime":"2019-11-27 10:30:00","powerType":"全部","powerOffArea":"110kV北干变:北象A739线-石英厂宿舍公后段","powerOffReason":"石英厂宿舍公变改接至新立电杆 原停电结束时间为2019-11-27 16:30:00,为减少客户停电时间,加快工作进度,提前送电,现变更停电结束时间为2019-11-27 10:30:00","powerOffId":"2019112131020065"},{"poweroffId":2019112131020046,"sgpoweroffId":null,"subsName":"","lineName":"10kV芝厦T190线","pubTranName":"芝厦6号公变,","scope":"浙江省-杭州市-桐庐县-富春江镇-芝厦行政村-芝厦自然村","startTime":"2019-11-21 08:38:05","stopDate":"2019-11-21 10:00:05","orgNo":"3340150","typeCode":"电网故障停限电","poweroffArea":"110kV外董变:芝厦T190线-芝厦6号公变后段","poweroffReason":"(低压停电信息)低压开关跳闸","powerTime":"2019-11-21 09:30:30","powerComm":"已送电","subsNo":"","lineNo":"","tgNo":"","tgName":null,"infoStatus":"1","orgName":"国网浙江桐庐县供电公司","typeName":null,"infoStatusName":null,"dateDay":null,"orgNos":null,"nowTime":null,"countyName":null,"streetName":null,"villageName":null,"roadName":null,"communityName":null,"tranName":null,"sdLineName":null,"cityCode":"3340150","cityName":"国网浙江桐庐县供电公司","provinceCode":null,"stopTime":"2019-11-21 10:00:05","powerType":"全部","powerOffArea":"110kV外董变:芝厦T190线-芝厦6号公变后段","powerOffReason":"(低压停电信息)低压开关跳闸","powerOffId":"2019112131020046"},{"poweroffId":2019112131020040,"sgpoweroffId":null,"subsName":"","lineName":"10kV建华D852线","pubTranName":"山建村2#村中公变,","scope":"浙江省-杭州市-富阳区-春江街道-山建行政村-山建自然村","startTime":"2019-11-21 08:28:54","stopDate":"2019-11-21 09:28:54","orgNo":"3340170","typeCode":"电网故障停限电","poweroffArea":"110kV华共变:建华D852线-山建村2#村中公变后段","poweroffReason":"高压开关跳闸","powerTime":"2019-11-21 09:15:15","powerComm":"已送电","subsNo":"","lineNo":"","tgNo":"","tgName":null,"infoStatus":"1","orgName":"国网浙江杭州市富阳区供电公司","typeName":null,"infoStatusName":null,"dateDay":null,"orgNos":null,"nowTime":null,"countyName":null,"streetName":null,"villageName":null,"roadName":null,"communityName":null,"tranName":null,"sdLineName":null,"cityCode":"3340170","cityName":"国网浙江杭州市富阳区供电公司","provinceCode":null,"stopTime":"2019-11-21 09:28:54","powerType":"全部","powerOffArea":"110kV华共变:建华D852线-山建村2#村中公变后段","powerOffReason":"高压开关跳闸","powerOffId":"2019112131020040"}],"pageModel":{"pageNow":834,"totalCount":17789,"totalPage":1779,"tableRows":0,"pageCount":10,"beginCount":8330},"isExperi":"1"}