{"message":"","today":"2020-06-15","seleList":[{"poweroffId":2019112031020044,"sgpoweroffId":null,"subsName":"","lineName":"10kV方宅R174线","pubTranName":"联合村联合配变,","scope":"浙江省-杭州市-淳安县-威坪镇-联合行政村(联合自然村,联合村)","startTime":"2019-11-25 08:00:00","stopDate":"2019-11-25 16:00:00","orgNo":"3340190","typeCode":"临时停电","poweroffArea":"110kV虹桥变:方宅R174线-联合村1#配变支线跌落式熔断器后段","poweroffReason":"联合村电缆进、出线电缆更换","powerTime":"","powerComm":"","subsNo":"","lineNo":"","tgNo":"","tgName":null,"infoStatus":"1","orgName":"国网浙江淳安县供电有限公司","typeName":null,"infoStatusName":null,"dateDay":null,"orgNos":null,"nowTime":null,"countyName":null,"streetName":null,"villageName":null,"roadName":null,"communityName":null,"tranName":null,"sdLineName":null,"cityCode":"3340190","cityName":"国网浙江淳安县供电有限公司","provinceCode":null,"stopTime":"2019-11-25 16:00:00","powerType":"未送电","powerOffArea":"110kV虹桥变:方宅R174线-联合村1#配变支线跌落式熔断器后段","powerOffReason":"联合村电缆进、出线电缆更换","powerOffId":"2019112031020044"},{"poweroffId":2019112031020035,"sgpoweroffId":null,"subsName":"","lineName":"10kV陈园C841线","pubTranName":"陈家园村10#变,","scope":"浙江省-杭州市-萧山区-新街镇-新街街道-陈家园行政村-陈家园自然村等一带","startTime":"2019-11-20 08:02:32","stopDate":"2019-11-20 18:02:32","orgNo":"3340130","typeCode":"电网故障停限电","poweroffArea":"110kV罗山变:陈园C841线-陈家园村10#变台区低压开关","poweroffReason":"(低压停电信息)低压漏电保护器短路故障","powerTime":"2019-11-20 17:08:01","powerComm":"已送电","subsNo":"","lineNo":"","tgNo":"","tgName":null,"infoStatus":"1","orgName":"国网浙江杭州市萧山区供电有限公司","typeName":null,"infoStatusName":null,"dateDay":null,"orgNos":null,"nowTime":null,"countyName":null,"streetName":null,"villageName":null,"roadName":null,"communityName":null,"tranName":null,"sdLineName":null,"cityCode":"3340130","cityName":"国网浙江杭州市萧山区供电有限公司","provinceCode":null,"stopTime":"2019-11-20 18:02:32","powerType":"全部","powerOffArea":"110kV罗山变:陈园C841线-陈家园村10#变台区低压开关","powerOffReason":"(低压停电信息)低压漏电保护器短路故障","powerOffId":"2019112031020035"},{"poweroffId":2019112031020010,"sgpoweroffId":null,"subsName":"","lineName":"10kV胥口D712线","pubTranName":"灵苑村2#徐家坞公变,佛鲁村7#童家园公变,元村4#洋桥头公变,佛鲁村2#石灰厂公变,棠棣村1#汪家公变,棠棣村6#大坞公变,胥口村7#村委旁公变,方圆塑机1#变,富阳市胥口镇新宇石材厂,棠棣村4#朱家坞公变变压器,金慈村3号恢塘公变,佛鲁村5#菜田湾公变,灵苑村1#灵安公变,长垅村5#牌坊垅公变,长垅村1#涨地上公变,胥口村3#信用社公变,高联村2号白亭子公变,平畈村8#高凸上公变,胥口村6#联建房公变,富阳美丽华洁具有限公司1#,灵苑村3号前山公变,家天下玻业,富阳瑞丰新能源有限公司,长垅村8号涨地上公路边公变变压器,高联村3#雷公里公变,盛创实业,富阳美丽华洁具有限公司2#,高联村6#高山公变,神宇五金,棠棣村5#桥头公变,高联村4#石畈公变,富阳市万基机械有限公司,浙江高瑞实业有限公司,杭州市富阳区胥口镇人民政府1#变,杭州冠思五金制造有限公司,富阳东顺钢结构有限公司,富阳美丽华洁具有限公司,佛鲁村6#陆家公变,杭州永基混凝土,长垅村2#谢家公变,富阳市胥口镇人民政府,杭州富阳神怡工艺品有限公司,永兴机械厂,顶鑫建材2#变,高坪石材1#变,长垅村3#马坞垅公变,高联村9#徐家公变,平畈村3#潘家公变,佛鲁村1#勇家公变,胥口村2#马家山公变,佛鲁村8#荷花塘公变,海正药业1#,平畈村7#井坞里公变,胥口村5#徐家山公变变压器,顶鑫建材1#变,高联村1#刘家公变,佛鲁村4#灵山公变,里坞村6#水坞公变,高联村7#小垄坎公变,棠棣村3#下板公变,平畈村6#对过公变,棠棣村2#七树湾公变,元村村6#村委边公变,里坞村4#杨家公变,杭新水泥制品,平畈村2#黄岭上公变,海正药业2#,平畈村5#华家公变,平畈村4#王家公变,元村11#农居点公变,中国电信股份有限公司富阳分公司（胥口机房）,高联村10#新桥头公变,长垅村4#陈家公变,长垅村6#倪家弄公变,高联村5#黄泥岭公变,新长垅村7#雪岭头公变,胥口集镇2#公变,棠棣村7#麻投垅公变,浙江宏途管业有限公司,平畈村1#新安岭公变,高联村8#田家公变,佛鲁村3#方家桥公变,胥口村1号刘家坟头公变,棠棣村8#木桥头公变,","scope":"浙江省-杭州市-富阳区-胥口镇-佛鲁行政村(陆家山自然村,童家园自然村,灵山自然村,菜田湾自然村,方家桥自然村,陆家自然村,石灰厂自然村,勇家自然村,荷花塘自然村),胥口镇-胥口行政村(胥口自然村,刘家坟头自然村,马家山自然村,泥塍头自然村,信用社自然村),胥口镇-高联行政村(高山自然村,小垄坎自然村,新桥头自然村,雷公里自然村,石畈自然村,徐家自然村,黄泥岭自然村,刘家自然村,白亭子自然村,周家自然村,田家自然村),胥口镇-里坞行政村(杨家自然村,水坞自然村),胥口镇-灵苑行政村(灵苑自然村,徐家坞自然村,灵安自然村,前山自然村),新登镇-元村行政村(潭山头自然村,元村自然村,外滩自然村,阴山自然村,大塔地自然村),胥口镇-棠棣行政村(朱家坞自然村,汪家自然村,七树湾自然村,下板自然村,大坞自然村,新桥头自然村,麻头垅自然村),新登镇-长垄行政村(柿山上自然村,涨地上自然村,渔池寺自然村,胡家自然村,谢家自然村,谢家垄自然村,岙子里自然村,小长垄自然村,牌坊垄自然村,梅树坞自然村,马坞垄自然村,麻栗树下自然村,畈洋里自然村,白虎岭自然村,泥家垄自然村,雪岭头自然村),胥口镇-平畈行政村(黄岭上自然村,高凸上自然村,新安岭自然村,王家自然村,华家自然村,潘家自然村,对过自然村,井坞里自然村),胥口镇(金慈行政村-灰塘自然村,上练行政村-洗马潭自然村);浙江省-杭州市-富阳区-胥口镇-金慈行政村-杭州冠思五金制造有限公司,胥口镇-灵苑行政村(杭州富阳鸿杰电器有限公司,杭州富阳区胥口镇新宇石材厂,杭州盛创实业有限公司,杭州富阳东顺钢结构有限公司),新登镇-元村行政村(杭州富阳家天下玻业有限公司,杭州富阳瑞丰新能源有限公司,杭州富阳美丽华洁具有限公司,杭州富阳方恒塑机有限公司),胥口镇-佛鲁行政村(杭州建豪环保设备有限公司,杭州富阳区胥口镇新力石材厂,杭州富阳高坪石材有限公司),胥口镇-胥口行政村(中国电信股份有限公司富阳分公司,富阳市胥口镇人民政府),胥口镇-棠棣行政村(杭州天骄电缆科技股份有限公司,杭州永基混凝土有限公司,杭州神宇五金工艺有限公司,海正药业（杭州）有限公司,杭州方圆塑机股份有限公司,杭州市富阳区胥口镇人民政府),胥口镇-平畈行政村(浙江高瑞实业有限公司,杭州顶鑫建材有限公司)","startTime":"2019-11-20 03:38:16","stopDate":"2019-11-20 07:38:16","orgNo":"3340170","typeCode":"电网故障停限电","poweroffArea":"110kV松溪变:胥口D712线","poweroffReason":"高压开关跳闸","powerTime":"2019-11-20 06:52:55","powerComm":"已送电","subsNo":"","lineNo":"","tgNo":"","tgName":null,"infoStatus":"1","orgName":"国网浙江杭州市富阳区供电公司","typeName":null,"infoStatusName":null,"dateDay":null,"orgNos":null,"nowTime":null,"countyName":null,"streetName":null,"villageName":null,"roadName":null,"communityName":null,"tranName":null,"sdLineName":null,"cityCode":"3340170","cityName":"国网浙江杭州市富阳区供电公司","provinceCode":null,"stopTime":"2019-11-20 07:38:16","powerType":"全部","powerOffArea":"110kV松溪变:胥口D712线","powerOffReason":"高压开关跳闸","powerOffId":"2019112031020010"},{"poweroffId":2019112031020009,"sgpoweroffId":null,"subsName":"","lineName":"10kV上练D713线","pubTranName":"富阳市凯鑫冲压件厂,上练村1#小溪口公变,新崤村2#闻家公变,下练村4#碧东坞公变,查岭村4#叠子山公变,查岭村5#西珠潭公变,下练村3#白家公变,下练村2#梅岭公变,江汇实业1#变,下练村9号白家新区公变,富阳富春桃源风景旅游开发有限公司,杭州富阳钱潮建材有限公司,新崤村8#官塘公变,上练合作社1#变,白氏科技2#变,富阳林峰塑胶制品厂,杭州金竺机械有限公司,上练村8#冷水坑公变,富阳市超宝油漆有限公司,新崤村3#弯子里公变,杭州海富植物有限公司,胥口村4#泥塍头公变,下练村5#闻家桥公变,新崤村6#蒋家公变,海富植物1#变,新崤村9#山脚跟公变,新崤村4号畈里公变,海正药业(杭州)有限公司,新崤村1号赵家公变,富阳市岩石岭水库管理处,里坞村5#石塘公变,富阳市葛仙洞旅游开发有限公司,上练村3号接马头公变,杭州东仪纸业有限公司,里坞村8#新水库公变变压器间隔配电变压器,富阳步达水处理设备有限公司,上练村4#洗马潭公变,查岭村3#新马路公变,里坞村7#塘下公变,康洁餐具2#变,里坞村3#范家公变,康洁餐具1#变,大钟纺织1#变,里坞村1#留下公变,新崤村7#外坞石公变,顶宏包装印刷1#变,富阳市岩石岭水库管理处,里坞村2号殿山公变,查岭村1#大岭公变,白氏科技1#变,里坞村11号陈山坞公变,城投基建1#变,下练村8号村东公变,下练村6号虎山脚公变,海正办公楼,里坞村9号留下后山公变,钱潮临时变,查岭村2#堰坝头公变,上练村2#章家公变,查岭村6#农居点公变,新崤村5#横溪公变,下练村7#白家东公变,下练村1#三义祠公变,","scope":"浙江省-杭州市-富阳区-胥口镇-棠棣行政村-汪家自然村,胥口镇-下练行政村(碧东坞自然村,白家自然村,闻家桥自然村,三义祠自然村,虎山脚自然村,梅岭自然村,凌家山自然村),胥口镇-胥口行政村(马家山自然村,泥塍头自然村,胥口自然村),胥口镇-新崤行政村(弯子里自然村,蒋家自然村,官塘自然村,畈里自然村,闻家自然村,横溪自然村,胡家山自然村,外坞石自然村,赵家自然村,山脚跟自然村),胥口镇-里坞行政村(殿山自然村,塘下自然村,范家自然村,杨家自然村,留下自然村,石塘自然村,水坞自然村),胥口镇-查岭行政村(碟子山自然村,新马路自然村,堰坝头自然村,查岭自然村,大岭自然村,西珠潭自然村),胥口镇-上练行政村(冷水坑自然村,小溪口自然村,章家自然村,洗马潭自然村,接马头自然村);胥口镇(杭州市富阳区岩石岭水库管理处,富阳市凯鑫冲压件厂,杭州富阳葛仙洞旅游开发有限公司,杭州富阳超宝油漆有限公司,海正药业(杭州)有限公司,杭州胥口南方水泥有限公司,杭州东仪纸业有限公司,杭州步达水处理设备有限公司,杭州富阳新登城镇建设投资集团有限公司,杭州佳皓包装有限公司,杭州富阳富春桃源风景旅游开发有限公司,杭州沁瑞包装有限公司,杭州金竺机械有限公司,杭州海富植物有限公司,杭州顶宏包装印刷有限公司,杭州富阳康洁餐具消毒有限公司,杭州富阳江汇实业有限公司)","startTime":"2019-11-20 02:10:00","stopDate":"2019-11-20 03:30:00","orgNo":"3340170","typeCode":"电网故障停限电","poweroffArea":"110kV松溪变:上练D713线上练D7136开关后段","poweroffReason":"高压开关跳闸","powerTime":"2019-11-20 03:26:08","powerComm":"已送电","subsNo":"","lineNo":"","tgNo":"","tgName":null,"infoStatus":"1","orgName":"国网浙江杭州市富阳区供电公司","typeName":null,"infoStatusName":null,"dateDay":null,"orgNos":null,"nowTime":null,"countyName":null,"streetName":null,"villageName":null,"roadName":null,"communityName":null,"tranName":null,"sdLineName":null,"cityCode":"3340170","cityName":"国网浙江杭州市富阳区供电公司","provinceCode":null,"stopTime":"2019-11-20 03:30:00","powerType":"全部","powerOffArea":"110kV松溪变:上练D713线上练D7136开关后段","powerOffReason":"高压开关跳闸","powerOffId":"2019112031020009"},{"poweroffId":2019112031020008,"sgpoweroffId":null,"subsName":"","lineName":"10kV胥口D712线","pubTranName":"元村村6#村委边公变,高联村3#雷公里公变,高联村7#小垄坎公变,顶鑫建材1#变,平畈村4#王家公变,平畈村1#新安岭公变,长垅村4#陈家公变,杭州冠思五金制造有限公司,棠棣村7#麻投垅公变,胥口村3#信用社公变,长垅村8号涨地上公路边公变变压器,佛鲁村5#菜田湾公变,高联村2号白亭子公变,佛鲁村8#荷花塘公变,平畈村5#华家公变,浙江高瑞实业有限公司,棠棣村5#桥头公变,顶鑫建材2#变,富阳市万基机械有限公司,胥口村5#徐家山公变变压器,佛鲁村3#方家桥公变,佛鲁村4#灵山公变,棠棣村2#七树湾公变,中国电信股份有限公司富阳分公司（胥口机房）,盛创实业,高联村9#徐家公变,富阳美丽华洁具有限公司2#,胥口集镇2#公变,海正药业2#,高坪石材1#变,佛鲁村1#勇家公变,灵苑村2#徐家坞公变,家天下玻业,平畈村7#井坞里公变,富阳美丽华洁具有限公司,棠棣村3#下板公变,永兴机械厂,棠棣村6#大坞公变,神宇五金,长垅村3#马坞垅公变,胥口村2#马家山公变,富阳瑞丰新能源有限公司,胥口村6#联建房公变,高联村10#新桥头公变,长垅村1#涨地上公变,杭新水泥制品,金慈村3号恢塘公变,长垅村2#谢家公变,高联村8#田家公变,平畈村8#高凸上公变,元村11#农居点公变,富阳市胥口镇新宇石材厂,平畈村6#对过公变,平畈村3#潘家公变,浙江宏途管业有限公司,长垅村6#倪家弄公变,杭州富阳神怡工艺品有限公司,灵苑村1#灵安公变,棠棣村8#木桥头公变,杭州永基混凝土,高联村6#高山公变,佛鲁村6#陆家公变,高联村4#石畈公变,里坞村6#水坞公变,富阳东顺钢结构有限公司,棠棣村4#朱家坞公变变压器,棠棣村1#汪家公变,富阳市胥口镇人民政府,海正药业1#,杭州市富阳区胥口镇人民政府1#变,平畈村2#黄岭上公变,长垅村5#牌坊垅公变,元村4#洋桥头公变,新长垅村7#雪岭头公变,胥口村1号刘家坟头公变,佛鲁村7#童家园公变,佛鲁村2#石灰厂公变,高联村1#刘家公变,高联村5#黄泥岭公变,灵苑村3号前山公变,胥口村7#村委旁公变,里坞村4#杨家公变,富阳美丽华洁具有限公司1#,方圆塑机1#变,","scope":"浙江省-杭州市-富阳区-胥口镇-佛鲁行政村(陆家山自然村,童家园自然村,灵山自然村,菜田湾自然村,方家桥自然村,陆家自然村,石灰厂自然村,勇家自然村,荷花塘自然村),胥口镇-胥口行政村(胥口自然村,刘家坟头自然村,马家山自然村,泥塍头自然村,信用社自然村),胥口镇-高联行政村(高山自然村,小垄坎自然村,新桥头自然村,雷公里自然村,石畈自然村,徐家自然村,黄泥岭自然村,刘家自然村,白亭子自然村,周家自然村,田家自然村),胥口镇-里坞行政村(杨家自然村,水坞自然村),胥口镇-灵苑行政村(灵苑自然村,徐家坞自然村,灵安自然村,前山自然村),新登镇-元村行政村(潭山头自然村,元村自然村,外滩自然村,阴山自然村,大塔地自然村),胥口镇-棠棣行政村(朱家坞自然村,汪家自然村,七树湾自然村,下板自然村,大坞自然村,新桥头自然村,麻头垅自然村),新登镇-长垄行政村(柿山上自然村,涨地上自然村,渔池寺自然村,胡家自然村,谢家自然村,谢家垄自然村,岙子里自然村,小长垄自然村,牌坊垄自然村,梅树坞自然村,马坞垄自然村,麻栗树下自然村,畈洋里自然村,白虎岭自然村,泥家垄自然村,雪岭头自然村),胥口镇-平畈行政村(黄岭上自然村,高凸上自然村,新安岭自然村,王家自然村,华家自然村,潘家自然村,对过自然村,井坞里自然村),胥口镇(金慈行政村-灰塘自然村,上练行政村-洗马潭自然村);胥口镇(杭州天骄电缆科技股份有限公司,杭州富阳鸿杰电器有限公司,杭州冠思五金制造有限公司,中国电信股份有限公司富阳分公司,杭州富阳区胥口镇新宇石材厂,杭州盛创实业有限公司,杭州建豪环保设备有限公司,杭州永基混凝土有限公司,杭州神宇五金工艺有限公司,海正药业（杭州）有限公司,杭州富阳区胥口镇新力石材厂,浙江高瑞实业有限公司,杭州富阳东顺钢结构有限公司,富阳市胥口镇人民政府,杭州方圆塑机股份有限公司,杭州富阳高坪石材有限公司,杭州顶鑫建材有限公司,杭州市富阳区胥口镇人民政府),新登镇(杭州富阳家天下玻业有限公司,杭州富阳瑞丰新能源有限公司,杭州富阳美丽华洁具有限公司,杭州富阳方恒塑机有限公司)","startTime":"2019-11-20 02:17:00","stopDate":"2019-11-20 03:20:00","orgNo":"3340170","typeCode":"电网故障停限电","poweroffArea":"110kV松溪变:胥口D712线胥口D7124开关后段","poweroffReason":"高压开关跳闸","powerTime":"2019-11-20 03:19:14","powerComm":"已送电","subsNo":"","lineNo":"","tgNo":"","tgName":null,"infoStatus":"1","orgName":"国网浙江杭州市富阳区供电公司","typeName":null,"infoStatusName":null,"dateDay":null,"orgNos":null,"nowTime":null,"countyName":null,"streetName":null,"villageName":null,"roadName":null,"communityName":null,"tranName":null,"sdLineName":null,"cityCode":"3340170","cityName":"国网浙江杭州市富阳区供电公司","provinceCode":null,"stopTime":"2019-11-20 03:20:00","powerType":"全部","powerOffArea":"110kV松溪变:胥口D712线胥口D7124开关后段","powerOffReason":"高压开关跳闸","powerOffId":"2019112031020008"},{"poweroffId":2019112031020007,"sgpoweroffId":null,"subsName":"","lineName":"10kV松园D719线","pubTranName":"松溪家园平山苑3#公变,松溪家园平山苑5#公变,松溪家园平山苑4#公变,松溪家园藻山苑3#变,松溪家园藻山苑6#变,松溪家园藻山苑4#变,松溪家园平山苑2#公变,松溪家园平山苑11#公变,松溪家园平山苑1#公变,松溪家园藻山苑5#变,松溪家园桥头苑3#公变,松溪家园藻山苑2#变,松溪家园藻山苑1#变,松溪家园桥头苑2#公变,松溪家园桥头苑4#公变,松溪家园平山苑6#公变,松溪家园桥头苑1#公变,","scope":"浙江省-杭州市-富阳区-新登镇-松溪行政村(松溪自然村,松溪家园自然村)","startTime":"2019-11-20 02:41:00","stopDate":"2019-11-20 03:13:00","orgNo":"3340170","typeCode":"电网故障停限电","poweroffArea":"110kV松溪变:松园D719线松溪家园开关站松园D7192线后段","poweroffReason":"高压开关跳闸 原停电结束时间为2019-11-20 03:00:00,因现场抢修难度大原因,现变更停电结束时间为2019-11-20 03:13:00","powerTime":"2019-11-20 03:11:49","powerComm":"已送电","subsNo":"","lineNo":"","tgNo":"","tgName":null,"infoStatus":"1","orgName":"国网浙江杭州市富阳区供电公司","typeName":null,"infoStatusName":null,"dateDay":null,"orgNos":null,"nowTime":null,"countyName":null,"streetName":null,"villageName":null,"roadName":null,"communityName":null,"tranName":null,"sdLineName":null,"cityCode":"3340170","cityName":"国网浙江杭州市富阳区供电公司","provinceCode":null,"stopTime":"2019-11-20 03:13:00","powerType":"全部","powerOffArea":"110kV松溪变:松园D719线松溪家园开关站松园D7192线后段","powerOffReason":"高压开关跳闸 原停电结束时间为2019-11-20 03:00:00,因现场抢修难度大原因,现变更停电结束时间为2019-11-20 03:13:00","powerOffId":"2019112031020007"},{"poweroffId":2019112031020006,"sgpoweroffId":null,"subsName":"","lineName":"10kV潭山D711线","pubTranName":"富阳市新登镇奔月针织厂,元村8号三山石桥头公变,富阳三丰橡塑鞋业有限公司1#变,杭州富阳新登城镇建设投资集团有限公司1#变,横山复合材料,富阳龙兴混凝土有限公司,官塘村外官7号水库公变,富阳永达水泥制品有限公司,官塘村官塘6#小官塘公变,路灯管理所,胥口集镇1#公变,元村13号大塔地西站公变变压器,1#,杭州富阳南方燃气有限公司,葛溪村2号七板徐家公变,杭州市富阳区新登镇中学,金慈村4#石牛山公变,金慈村1#上金慈公变,杭州市公安消防支队富阳区大队1#,富蒙生态1#变,元村5#小溪口公变,杭州富阳富隆有机肥有限公司1#变,富春五金,杭州富阳龙源鞋业有限公司1#变,金慈村5#潘家公变,葛溪村1#七板袁家公变,贤明塔泡塑1#变,杭州富阳恒鑫房地产有限公司1#变,葛溪村3#七板桥公变,杭州富阳区新登镇塔山水泥预制构件厂1#变,元村3#潭山三山口公变,海正药业,富阳市新登镇曹奎废品收购部,南方焊管厂,金慈村6#假山头公变,路灯管理所,富阳新登东恒大理石厂,元村1号潭山头公变,杭州富阳成旭自动化设备有限公司,元村7#阴山上公变,官塘村外官2号戚家坞公变,杭州市公安消防支队富阳区大队,元村9#三山公路边公变,金慈村2#下金慈公变,官塘村外官1#殿边公变,杭州旭丰胶管有限公司,元村2#潭山大塔地公变,富阳市新城石粉厂,元村12号三山火山上公变,","scope":"浙江省-杭州市-富阳区-新登镇-元村行政村(潭山头自然村,大塔地自然村,三山自然村,元村自然村,阴山自然村),胥口镇-金慈行政村(下金慈自然村,程家自然村,灰塘自然村,假山头自然村,上金慈自然村,石牛山自然村,潘家自然村),胥口镇-葛溪行政村(七板自然村,葛溪自然村),新登镇-官塘行政村(官塘自然村,外官自然村,小官塘自然村),胥口镇(棠棣行政村-汪家自然村,胥口行政村-胥口自然村),新登镇(松溪行政村-松溪自然村,长垄行政村-涨地上自然村,长兰行政村-上陈家自然村,塔山行政村-城北自然村);胥口镇(杭州富阳新登城镇建设投资集团有限公司,海正药业(杭州)有限公司,杭州富阳富蒙生态农业开发有限公司),新登镇(杭州富阳三丰橡塑鞋业有限公司,杭州富阳南方燃气有限公司,杭州富阳成旭自动化设备有限公司,杭州富阳龙兴混凝土有限公司,杭州富阳城市照明工程有限公司,杭州市富阳区新登镇中学,杭州富阳区新登镇东恒天然大理石厂,杭州富阳恒鑫房地产有限公司,杭州旭丰胶管有限公司,杭州富阳区新登镇奔月针织厂,杭州富春五金制品有限公司,杭州富阳南光焊管厂,杭州富阳横山复合材料有限公司,杭州川野食品有限公司,富阳市新城石粉厂,杭州富阳永达水泥制品有限公司,富阳市新登镇曹奎废品收购部,杭州市公安消防支队富阳区大队,杭州富阳贤明塔泡塑机械有限公司,杭州富阳龙源鞋业有限公司,杭州宫泰钢网有限公司,杭州富阳富隆有机肥有限公司)","startTime":"2019-11-20 02:42:00","stopDate":"2019-11-20 03:13:00","orgNo":"3340170","typeCode":"电网故障停限电","poweroffArea":"110kV松溪变:潭山D711线潭山D7112开关后段","poweroffReason":"高压开关跳闸 原停电结束时间为2019-11-20 03:00:00,因抢修难度大原因,现变更停电结束时间为2019-11-20 03:13:00","powerTime":"2019-11-20 03:11:33","powerComm":"已送电","subsNo":"","lineNo":"","tgNo":"","tgName":null,"infoStatus":"1","orgName":"国网浙江杭州市富阳区供电公司","typeName":null,"infoStatusName":null,"dateDay":null,"orgNos":null,"nowTime":null,"countyName":null,"streetName":null,"villageName":null,"roadName":null,"communityName":null,"tranName":null,"sdLineName":null,"cityCode":"3340170","cityName":"国网浙江杭州市富阳区供电公司","provinceCode":null,"stopTime":"2019-11-20 03:13:00","powerType":"全部","powerOffArea":"110kV松溪变:潭山D711线潭山D7112开关后段","powerOffReason":"高压开关跳闸 原停电结束时间为2019-11-20 03:00:00,因抢修难度大原因,现变更停电结束时间为2019-11-20 03:13:00","powerOffId":"2019112031020006"},{"poweroffId":2019111931020337,"sgpoweroffId":null,"subsName":"","lineName":"10kV德胜G226线","pubTranName":"宏鸣家纺1#,宏鸣家纺2#,塘家埭村塘家埭公变,杭州美德华家电设备有限公司,路灯箱变,","scope":"浙江省-杭州市-余杭区-塘栖镇-唐家埭行政村-唐家埭村;塘栖镇(杭州宏鸣家纺有限公司,杭州美德华家电设备有限公司,杭州市余杭区塘栖镇人民政府(路灯）)","startTime":"2019-11-19 22:21:00","stopDate":"2019-11-20 05:21:00","orgNo":"3340140","typeCode":"电网故障停限电","poweroffArea":"110kV宏畔变:德胜G226线塘家埭分线开关后段","poweroffReason":"高压开关跳闸 原停电结束时间为2019-11-20 00:21:00,因遇突发情况原因,现变更停电结束时间为2019-11-20 05:21:00","powerTime":"2019-11-20 04:57:08","powerComm":"已送电","subsNo":"","lineNo":"","tgNo":"","tgName":null,"infoStatus":"1","orgName":"国网浙江杭州市余杭区供电有限公司","typeName":null,"infoStatusName":null,"dateDay":null,"orgNos":null,"nowTime":null,"countyName":null,"streetName":null,"villageName":null,"roadName":null,"communityName":null,"tranName":null,"sdLineName":null,"cityCode":"3340140","cityName":"国网浙江杭州市余杭区供电有限公司","provinceCode":null,"stopTime":"2019-11-20 05:21:00","powerType":"全部","powerOffArea":"110kV宏畔变:德胜G226线塘家埭分线开关后段","powerOffReason":"高压开关跳闸 原停电结束时间为2019-11-20 00:21:00,因遇突发情况原因,现变更停电结束时间为2019-11-20 05:21:00","powerOffId":"2019111931020337"},{"poweroffId":2019111931020334,"sgpoweroffId":null,"subsName":"","lineName":"10kV郜溪V585线","pubTranName":"青云村[青云岭],","scope":"浙江省-杭州市-临安市-太湖源镇-青云行政村-青云自然村","startTime":"2019-11-19 21:53:00","stopDate":"2019-11-19 23:10:00","orgNo":"3340160","typeCode":"电网故障停限电","poweroffArea":"110kV杨岭变:郜溪V585线青云村[青云岭]配变","poweroffReason":"高压开关跳闸","powerTime":"2019-11-19 22:15:38","powerComm":"已送电","subsNo":"","lineNo":"","tgNo":"","tgName":null,"infoStatus":"1","orgName":"国网浙江临安市供电公司","typeName":null,"infoStatusName":null,"dateDay":null,"orgNos":null,"nowTime":null,"countyName":null,"streetName":null,"villageName":null,"roadName":null,"communityName":null,"tranName":null,"sdLineName":null,"cityCode":"3340160","cityName":"国网浙江临安市供电公司","provinceCode":null,"stopTime":"2019-11-19 23:10:00","powerType":"全部","powerOffArea":"110kV杨岭变:郜溪V585线青云村[青云岭]配变","powerOffReason":"高压开关跳闸","powerOffId":"2019111931020334"},{"poweroffId":2019111931020333,"sgpoweroffId":null,"subsName":"","lineName":"10kV郜溪V585线","pubTranName":"青云村[郜坞],","scope":"浙江省-杭州市-临安市-太湖源镇-青云行政村-青云自然村","startTime":"2019-11-19 21:53:00","stopDate":"2019-11-19 23:10:00","orgNo":"3340160","typeCode":"电网故障停限电","poweroffArea":"110kV杨岭变:郜溪V585线青云村[郜坞]青云村[郜坞]配变","poweroffReason":"高压开关跳闸","powerTime":"2019-11-19 22:15:15","powerComm":"已送电","subsNo":"","lineNo":"","tgNo":"","tgName":null,"infoStatus":"1","orgName":"国网浙江临安市供电公司","typeName":null,"infoStatusName":null,"dateDay":null,"orgNos":null,"nowTime":null,"countyName":null,"streetName":null,"villageName":null,"roadName":null,"communityName":null,"tranName":null,"sdLineName":null,"cityCode":"3340160","cityName":"国网浙江临安市供电公司","provinceCode":null,"stopTime":"2019-11-19 23:10:00","powerType":"全部","powerOffArea":"110kV杨岭变:郜溪V585线青云村[郜坞]青云村[郜坞]配变","powerOffReason":"高压开关跳闸","powerOffId":"2019111931020333"}],"pageModel":{"pageNow":838,"totalCount":17789,"totalPage":1779,"tableRows":0,"pageCount":10,"beginCount":8370},"isExperi":"1"}