{"message":"","today":"2020-06-15","seleList":[{"poweroffId":2019111931020180,"sgpoweroffId":null,"subsName":"","lineName":"10kV宅里T330线","pubTranName":"翠坪1号公变,","scope":"浙江省-杭州市-桐庐县-瑶琳镇-潘联行政村-翠坪自然村","startTime":"2019-11-19 13:03:00","stopDate":"2019-11-19 15:03:00","orgNo":"3340150","typeCode":"电网故障停限电","poweroffArea":"110kV横村变:宅里T330线翠坪1号公变配变","poweroffReason":"高压开关跳闸","powerTime":"2019-11-19 14:37:16","powerComm":"已送电","subsNo":"","lineNo":"","tgNo":"","tgName":null,"infoStatus":"1","orgName":"国网浙江桐庐县供电公司","typeName":null,"infoStatusName":null,"dateDay":null,"orgNos":null,"nowTime":null,"countyName":null,"streetName":null,"villageName":null,"roadName":null,"communityName":null,"tranName":null,"sdLineName":null,"cityCode":"3340150","cityName":"国网浙江桐庐县供电公司","provinceCode":null,"stopTime":"2019-11-19 15:03:00","powerType":"全部","powerOffArea":"110kV横村变:宅里T330线翠坪1号公变配变","powerOffReason":"高压开关跳闸","powerOffId":"2019111931020180"},{"poweroffId":2019111931020168,"sgpoweroffId":null,"subsName":"","lineName":"10kV三溪D337线","pubTranName":"金泉纸业,大溪村1#青台上公变,大溪村15#塘坞里公变,三溪村10#羊坞变公变,鑫鹿链罩厂,三溪村2#西年坞公变,袁家村1#高庆岭公变,大溪村13#俞家山目坞口公变,三溪村5#西坎坞公变,洞桥镇宏翔塑料制品厂,袁家村6#深坞口公变,洞桥政府1#变,袁家村4#白坞口公变,富阳贝宏电器有限公司,永顺工贸1#变,石羊村1#泮家公变,三溪村4#大院里公变,大乐村4号江江坞公变,杭州富阳永兴包装厂,大溪村10#郎家村公变,大溪村4#俞家山公变,袁家村3#村委前公变,枫瑞村2#大红家公变,杭州富阳永兴包装厂,大溪村7#泮畈公变,大乐村3#健坞公变,三溪村12#磨盘山公变,三溪村3#沙帽山公变,富阳市永恒电镀厂,袁家村8#团圆里公变,修改成中国电信股份有限公司富阳分公司（万市俞家山）,大乐村1#章家公变,袁家村9#童家公变1,三溪村6#大塔地公变,中国石化销售有限公司浙江杭州石油分公司,大溪村8#东畈公变,枫瑞村5#大兰公变,富阳洞桥镇旦锋生态养殖场,大乐村2#朱家公变,大溪村16#炎田坞公变,三溪村13#上门前公变,袁家村5#七坞口公变,三溪村14#对山公变,袁家村2#章坎坞公变,欧拓普生物技术,三溪村1#鲍家畈公变,永顺工贸2#变,大溪村9#沈家公变,三溪村11#郎家坞公变,枫瑞村4#金家公变,三溪村15#农居点公变,三溪村17号枫林公变,","scope":"浙江省-杭州市-富阳区-洞桥镇-枫瑞行政村(骆坞口自然村,菖蒲俞家自然村,枫瑞自然村,菖蒲袁家自然村,大兰自然村,麻车里自然村),洞桥镇-石羊行政村(石羊坞自然村,潘家自然村,西石岭自然村,杨家自然村),洞桥镇-大溪行政村(塘坞里自然村,郎家自然村,潘畈自然村,文河自然村,文河东畈自然村,东畈自然村,俞家山自然村,岭脚跟自然村,文河郎家自然村,沙帽山自然村,山里垅自然村,大坞何家自然村,沈家自然村,文河沈家自然村,垅里沈家自然村,唐坞里自然村,中堂畈自然村,毛山上自然村,何家自然村,堰头自然村,姚宅自然村),洞桥镇-大乐行政村(章家自然村,俭坞自然村,大乐坞自然村,虎石坞口自然村,里云洞坞自然村,朱家自然村,健坞里自然村,章家金竹坞自然村,大青山坞口自然村,半坞自然村,章家迈家坞树华门前自然村),洞桥镇-三溪行政村(西坑坞自然村,雷山自然村,磨盘山自然村,高子坞自然村,门前坞自然村,三溪袁家自然村,对山自然村,枫林自然村,三房里自然村,九房里自然村,潘坞口自然村,三溪自然村,大园里自然村,小山上自然村,黄宅自然村,二房里自然村,土福湾自然村,大青坞自然村,大塔地自然村,沙帽山自然村,西年坞自然村,西云路自然村,牧家坞自然村,鲍家畈自然村,纱帽山自然村,羊坞里自然村,三溪路自然村),洞桥镇-袁家行政村(袁家自然村,查坑坞自然村,高村岭自然村,上山坞口自然村,深坞口自然村,紫房里自然村,三溪袁家自然村),洞桥镇(洞桥行政村-大乐村朱家自然村,查口行政村-徐家自然村);洞桥镇-大溪行政村(中国电信股份有限公司富阳分公司,杭州欧拓普生物技术有限公司,杭州鑫鹿链罩有限公司,富阳洞桥镇旦锋生态养殖场,杭州市富阳区洞桥镇人民政府),洞桥镇-三溪行政村(杭州富阳贝宏电器有限公司,富阳市洞桥镇宏翔塑料制品厂,中国石化销售股份有限公司浙江杭州石油分公司),洞桥镇(石羊行政村-杭州富阳永恒电镀厂,大乐行政村-杭州富阳金源纸业有限公司,洞桥行政村-杭州富阳永顺工贸有限公司)","startTime":"2019-11-19 12:04:44","stopDate":"2019-11-19 14:04:44","orgNo":"3340170","typeCode":"电网故障停限电","poweroffArea":"110kV万市变:三溪D337线首端，三溪村16#杆二房里公变开关，小山上分线，三溪村7#三房里，三溪村8#九房里，三溪村10#羊坞变公变之间","poweroffReason":"高压开关跳闸","powerTime":"2019-11-19 13:20:22","powerComm":"已送电","subsNo":"","lineNo":"","tgNo":"","tgName":null,"infoStatus":"1","orgName":"国网浙江杭州市富阳区供电公司","typeName":null,"infoStatusName":null,"dateDay":null,"orgNos":null,"nowTime":null,"countyName":null,"streetName":null,"villageName":null,"roadName":null,"communityName":null,"tranName":null,"sdLineName":null,"cityCode":"3340170","cityName":"国网浙江杭州市富阳区供电公司","provinceCode":null,"stopTime":"2019-11-19 14:04:44","powerType":"全部","powerOffArea":"110kV万市变:三溪D337线首端，三溪村16#杆二房里公变开关，小山上分线，三溪村7#三房里，三溪村8#九房里，三溪村10#羊坞变公变之间","powerOffReason":"高压开关跳闸","powerOffId":"2019111931020168"},{"poweroffId":2019111931020161,"sgpoweroffId":null,"subsName":"","lineName":"10kV徐坑Y774线","pubTranName":"岭源村斗里台区,","scope":"浙江省-杭州市-建德市-杨村桥镇-岭源行政村 岭脚自然村,里和自然村,外源自然村,斗里自然村一带用户","startTime":"2019-11-19 11:08:00","stopDate":"2019-11-19 12:30:00","orgNo":"3340180","typeCode":"电网故障停限电","poweroffArea":"110kV乾潭变:徐坑Y774线岭源村斗里台区配变","poweroffReason":"高压熔丝烧毁 原停电结束时间为2019-11-19 13:30:00,为减少客户停电时间,加快工作进度,提前送电,现变更停电结束时间为2019-11-19 12:30:00","powerTime":"2019-11-19 12:08:00","powerComm":"已送电","subsNo":"","lineNo":"","tgNo":"","tgName":null,"infoStatus":"1","orgName":"国网浙江建德市供电有限公司","typeName":null,"infoStatusName":null,"dateDay":null,"orgNos":null,"nowTime":null,"countyName":null,"streetName":null,"villageName":null,"roadName":null,"communityName":null,"tranName":null,"sdLineName":null,"cityCode":"3340180","cityName":"国网浙江建德市供电有限公司","provinceCode":null,"stopTime":"2019-11-19 12:30:00","powerType":"全部","powerOffArea":"110kV乾潭变:徐坑Y774线岭源村斗里台区配变","powerOffReason":"高压熔丝烧毁 原停电结束时间为2019-11-19 13:30:00,为减少客户停电时间,加快工作进度,提前送电,现变更停电结束时间为2019-11-19 12:30:00","powerOffId":"2019111931020161"},{"poweroffId":2019111931020113,"sgpoweroffId":null,"subsName":"","lineName":"10kV陆桥H788线","pubTranName":"万景村石道地公变,","scope":"浙江省-杭州市-余杭区-闲林街道-何母桥行政村-高教路,闲林街道-万景行政村(南自然村潭自然村,南星桥自然村,万景自然村,盛家地自然村,石道地自然村)","startTime":"2019-11-19 10:11:11","stopDate":"2019-11-19 14:00:00","orgNo":"3340140","typeCode":"电网故障停限电","poweroffArea":"110kV仓前变:陆桥H788线-万景村石道地公变后段","poweroffReason":"高压开关跳闸","powerTime":"2019-11-19 13:08:20","powerComm":"已送电","subsNo":"","lineNo":"","tgNo":"","tgName":null,"infoStatus":"1","orgName":"国网浙江杭州市余杭区供电有限公司","typeName":null,"infoStatusName":null,"dateDay":null,"orgNos":null,"nowTime":null,"countyName":null,"streetName":null,"villageName":null,"roadName":null,"communityName":null,"tranName":null,"sdLineName":null,"cityCode":"3340140","cityName":"国网浙江杭州市余杭区供电有限公司","provinceCode":null,"stopTime":"2019-11-19 14:00:00","powerType":"全部","powerOffArea":"110kV仓前变:陆桥H788线-万景村石道地公变后段","powerOffReason":"高压开关跳闸","powerOffId":"2019111931020113"},{"poweroffId":2019111931020094,"sgpoweroffId":null,"subsName":"","lineName":"10kV春江T103线","pubTranName":"桐君路1号公变,","scope":"浙江省-杭州市-桐庐县-桐君街道-南门社区(桐君路15幢，17幢)","startTime":"2019-11-19 09:27:56","stopDate":"2019-11-19 11:27:56","orgNo":"3340150","typeCode":"电网故障停限电","poweroffArea":"110kV桐庐变:春江T103线-桐君路1号公变后段","poweroffReason":"(低压停电信息)低压开关跳闸","powerTime":"2019-11-19 11:11:29","powerComm":"已送电","subsNo":"","lineNo":"","tgNo":"","tgName":null,"infoStatus":"1","orgName":"国网浙江桐庐县供电公司","typeName":null,"infoStatusName":null,"dateDay":null,"orgNos":null,"nowTime":null,"countyName":null,"streetName":null,"villageName":null,"roadName":null,"communityName":null,"tranName":null,"sdLineName":null,"cityCode":"3340150","cityName":"国网浙江桐庐县供电公司","provinceCode":null,"stopTime":"2019-11-19 11:27:56","powerType":"全部","powerOffArea":"110kV桐庐变:春江T103线-桐君路1号公变后段","powerOffReason":"(低压停电信息)低压开关跳闸","powerOffId":"2019111931020094"},{"poweroffId":2019111931020092,"sgpoweroffId":null,"subsName":"","lineName":"10kV春联T394线","pubTranName":"岩下2号公变,","scope":"浙江省-杭州市-桐庐县-城南街道-金牛行政村(岩下自然村,童家自然村)","startTime":"2019-11-19 09:22:54","stopDate":"2019-11-19 10:35:54","orgNo":"3340150","typeCode":"电网故障停限电","poweroffArea":"110kV迎春变:春联T394线-岩下2号公变后段","poweroffReason":"(低压停电信息)低压开关跳闸","powerTime":"2019-11-19 10:29:12","powerComm":"已送电","subsNo":"","lineNo":"","tgNo":"","tgName":null,"infoStatus":"1","orgName":"国网浙江桐庐县供电公司","typeName":null,"infoStatusName":null,"dateDay":null,"orgNos":null,"nowTime":null,"countyName":null,"streetName":null,"villageName":null,"roadName":null,"communityName":null,"tranName":null,"sdLineName":null,"cityCode":"3340150","cityName":"国网浙江桐庐县供电公司","provinceCode":null,"stopTime":"2019-11-19 10:35:54","powerType":"全部","powerOffArea":"110kV迎春变:春联T394线-岩下2号公变后段","powerOffReason":"(低压停电信息)低压开关跳闸","powerOffId":"2019111931020092"},{"poweroffId":2019111931020090,"sgpoweroffId":null,"subsName":"","lineName":"10kV后周D554线","pubTranName":"振兴路1#公变1,","scope":"浙江省-杭州市-富阳区-富春街道(后周社区-振兴路,戴家墩社区-振兴路)","startTime":"2019-11-19 09:21:56","stopDate":"2019-11-19 11:21:56","orgNo":"3340170","typeCode":"电网故障停限电","poweroffArea":"110kV春江变:后周D554线-振兴路1#公变后段","poweroffReason":"高压开关跳闸","powerTime":"2019-11-19 10:37:40","powerComm":"已送电","subsNo":"","lineNo":"","tgNo":"","tgName":null,"infoStatus":"1","orgName":"国网浙江杭州市富阳区供电公司","typeName":null,"infoStatusName":null,"dateDay":null,"orgNos":null,"nowTime":null,"countyName":null,"streetName":null,"villageName":null,"roadName":null,"communityName":null,"tranName":null,"sdLineName":null,"cityCode":"3340170","cityName":"国网浙江杭州市富阳区供电公司","provinceCode":null,"stopTime":"2019-11-19 11:21:56","powerType":"全部","powerOffArea":"110kV春江变:后周D554线-振兴路1#公变后段","powerOffReason":"高压开关跳闸","powerOffId":"2019111931020090"},{"poweroffId":2019111931020070,"sgpoweroffId":null,"subsName":"","lineName":"10kV新建D262线","pubTranName":"秦骆村3#大月门公变,","scope":"浙江省-杭州市-富阳区-大源镇(骆村行政村-秦骆自然村,勤功行政村-勤功自然村)","startTime":"2019-11-19 08:58:14","stopDate":"2019-11-19 09:58:14","orgNo":"3340170","typeCode":"电网故障停限电","poweroffArea":"35kV盛村变:新建D262线-秦骆村3#大月门公变后段","poweroffReason":"(低压停电信息)低压开关跳闸","powerTime":"2019-11-19 09:26:47","powerComm":"已送电","subsNo":"","lineNo":"","tgNo":"","tgName":null,"infoStatus":"1","orgName":"国网浙江杭州市富阳区供电公司","typeName":null,"infoStatusName":null,"dateDay":null,"orgNos":null,"nowTime":null,"countyName":null,"streetName":null,"villageName":null,"roadName":null,"communityName":null,"tranName":null,"sdLineName":null,"cityCode":"3340170","cityName":"国网浙江杭州市富阳区供电公司","provinceCode":null,"stopTime":"2019-11-19 09:58:14","powerType":"全部","powerOffArea":"35kV盛村变:新建D262线-秦骆村3#大月门公变后段","powerOffReason":"(低压停电信息)低压开关跳闸","powerOffId":"2019111931020070"},{"poweroffId":2019111931020066,"sgpoweroffId":null,"subsName":"","lineName":"10kV常绿D268线","pubTranName":"黄弹村2号中央村公变,","scope":"浙江省-杭州市-富阳区-常绿镇-黄弹行政村-池头坞自然村","startTime":"2019-11-19 08:55:04","stopDate":"2019-11-19 15:30:00","orgNo":"3340170","typeCode":"电网故障停限电","poweroffArea":"35kV盛村变:常绿D268线黄弹村2号中央村公变配变","poweroffReason":"高压开关跳闸","powerTime":"2019-11-19 15:20:31","powerComm":"已送电","subsNo":"","lineNo":"","tgNo":"","tgName":null,"infoStatus":"1","orgName":"国网浙江杭州市富阳区供电公司","typeName":null,"infoStatusName":null,"dateDay":null,"orgNos":null,"nowTime":null,"countyName":null,"streetName":null,"villageName":null,"roadName":null,"communityName":null,"tranName":null,"sdLineName":null,"cityCode":"3340170","cityName":"国网浙江杭州市富阳区供电公司","provinceCode":null,"stopTime":"2019-11-19 15:30:00","powerType":"全部","powerOffArea":"35kV盛村变:常绿D268线黄弹村2号中央村公变配变","powerOffReason":"高压开关跳闸","powerOffId":"2019111931020066"},{"poweroffId":2019111931020031,"sgpoweroffId":null,"subsName":"","lineName":"10kV竹园H712线","pubTranName":"竹园村竹园公变,竹园村上舍圩公变,竹园建材,竹园村千家公变,竹园村大洋圩公变,竹园村红胜对家公变,竹园村里山坞公变,竹园村桃园公变,竹园村前村公变,竹园村梅岭公变,竹园村红胜公变,竹园村树弄公变,孙鸣华建材,临余公路6#路灯,竹园村顾家公变,舟枕石矿,钱江制冷,竹园村鲍家公变,云雾阁正式变,竹园生态农业,竹园村官塘公变,竹园村小弄公变,竹园村竹园村委公变,竹园村白坟三组公变,检票站,竹园村红元公变,竹园村林家公变,竹园村石矿公变,竹园村南山公变,鼎盛交通二绕二标3#变,舟桥建材,竹园村六组公变,竹园村红光公变,增生链条,竹园村徐家组公变,竹园村踏子弄公变,交工（竹园村）,竹园村费家公变,","scope":"浙江省-杭州市-余杭区-余杭街道-仙宅行政村-仙宅自然村,余杭街道-竹园行政村(竹园自然村,鲍家自然村,徐家自然村);浙江省-杭州市-余杭区-余杭街道-华坞行政村-杭州旺山建材有限公司,余杭街道-竹园行政村(杭州市余杭区收费管理所,杭州余杭竹园生态农业有限公司,杭州正生链传动有限公司,杭州竹园建材厂,杭州钱江农业科技有限公司,杭州余杭创新投资有限公司,杭州余杭区余杭镇孙鸿华建材经营部,杭州舟桥建材有限公司,浙江鼎盛交通建设有限公司,杭州云雾阁生态农业开发有限公司,浙江交工路桥建设有限公司)","startTime":"2019-11-19 08:10:11","stopDate":"2019-11-19 10:10:11","orgNo":"3340140","typeCode":"电网故障停限电","poweroffArea":"110kV余杭变:竹园H712线","poweroffReason":"高压开关跳闸","powerTime":"2019-11-19 09:56:18","powerComm":"已送电","subsNo":"","lineNo":"","tgNo":"","tgName":null,"infoStatus":"1","orgName":"国网浙江杭州市余杭区供电有限公司","typeName":null,"infoStatusName":null,"dateDay":null,"orgNos":null,"nowTime":null,"countyName":null,"streetName":null,"villageName":null,"roadName":null,"communityName":null,"tranName":null,"sdLineName":null,"cityCode":"3340140","cityName":"国网浙江杭州市余杭区供电有限公司","provinceCode":null,"stopTime":"2019-11-19 10:10:11","powerType":"全部","powerOffArea":"110kV余杭变:竹园H712线","powerOffReason":"高压开关跳闸","powerOffId":"2019111931020031"}],"pageModel":{"pageNow":840,"totalCount":17789,"totalPage":1779,"tableRows":0,"pageCount":10,"beginCount":8390},"isExperi":"1"}