{"message":"","today":"2020-06-15","seleList":[{"poweroffId":2019111931020030,"sgpoweroffId":null,"subsName":"","lineName":"10kV里深D345线","pubTranName":"里仁村12#槐阴树下公变,","scope":"浙江省-杭州市-富阳区-洞桥镇-石羊行政村-潘家自然村,洞桥镇-里仁行政村(农居点自然村,何家自然村,堪下自然村,槐树下自然村,新灶上自然村,槐荫自然村)","startTime":"2019-11-19 08:09:24","stopDate":"2019-11-19 15:09:24","orgNo":"3340170","typeCode":"电网故障停限电","poweroffArea":"110kV万市变:里深D345线-里仁村12#槐阴树下公变后段","poweroffReason":"(低压停电信息)低压开关跳闸，原停电结束时间为2019-11-19 17:09:24,为减少客户停电时间,加快工作进度,提前送电,现变更停电结束时间为2019-11-19 15:09:24","powerTime":"2019-11-19 14:51:51","powerComm":"已送电","subsNo":"","lineNo":"","tgNo":"","tgName":null,"infoStatus":"1","orgName":"国网浙江杭州市富阳区供电公司","typeName":null,"infoStatusName":null,"dateDay":null,"orgNos":null,"nowTime":null,"countyName":null,"streetName":null,"villageName":null,"roadName":null,"communityName":null,"tranName":null,"sdLineName":null,"cityCode":"3340170","cityName":"国网浙江杭州市富阳区供电公司","provinceCode":null,"stopTime":"2019-11-19 15:09:24","powerType":"全部","powerOffArea":"110kV万市变:里深D345线-里仁村12#槐阴树下公变后段","powerOffReason":"(低压停电信息)低压开关跳闸，原停电结束时间为2019-11-19 17:09:24,为减少客户停电时间,加快工作进度,提前送电,现变更停电结束时间为2019-11-19 15:09:24","powerOffId":"2019111931020030"},{"poweroffId":2019111931020029,"sgpoweroffId":null,"subsName":"","lineName":"10kV三溪D337线","pubTranName":"三溪村6#大塔地公变,","scope":"浙江省-杭州市-富阳区-洞桥镇-三溪行政村(西坑坞自然村,二房里自然村,大塔地自然村,雷山自然村,牧家坞自然村,鲍家畈自然村,黄宅自然村,门前坞自然村,大园里自然村)","startTime":"2019-11-19 08:06:44","stopDate":"2019-11-19 16:06:44","orgNo":"3340170","typeCode":"电网故障停限电","poweroffArea":"110kV万市变:三溪D337线-三溪村大塔地后段","poweroffReason":"高压开关跳闸","powerTime":"2019-11-19 15:13:31","powerComm":"已送电","subsNo":"","lineNo":"","tgNo":"","tgName":null,"infoStatus":"1","orgName":"国网浙江杭州市富阳区供电公司","typeName":null,"infoStatusName":null,"dateDay":null,"orgNos":null,"nowTime":null,"countyName":null,"streetName":null,"villageName":null,"roadName":null,"communityName":null,"tranName":null,"sdLineName":null,"cityCode":"3340170","cityName":"国网浙江杭州市富阳区供电公司","provinceCode":null,"stopTime":"2019-11-19 16:06:44","powerType":"全部","powerOffArea":"110kV万市变:三溪D337线-三溪村大塔地后段","powerOffReason":"高压开关跳闸","powerOffId":"2019111931020029"},{"poweroffId":2019111931020026,"sgpoweroffId":null,"subsName":"","lineName":"10kV旧县T225线","pubTranName":"合岭村潘头湾1号公变,","scope":"浙江省-杭州市-桐庐县-旧县街道-合岭行政村(潘头湾、大岭头自然村,合岭自然村,陈家坞自然村)","startTime":"2019-11-19 07:55:06","stopDate":"2019-11-19 16:00:06","orgNo":"3340150","typeCode":"电网故障停限电","poweroffArea":"35kV西武变:旧县T225线-合岭村潘头湾1号公变后段","poweroffReason":"(低压停电信息)低压开关跳闸","powerTime":"2019-11-19 15:41:42","powerComm":"已送电","subsNo":"","lineNo":"","tgNo":"","tgName":null,"infoStatus":"1","orgName":"国网浙江桐庐县供电公司","typeName":null,"infoStatusName":null,"dateDay":null,"orgNos":null,"nowTime":null,"countyName":null,"streetName":null,"villageName":null,"roadName":null,"communityName":null,"tranName":null,"sdLineName":null,"cityCode":"3340150","cityName":"国网浙江桐庐县供电公司","provinceCode":null,"stopTime":"2019-11-19 16:00:06","powerType":"全部","powerOffArea":"35kV西武变:旧县T225线-合岭村潘头湾1号公变后段","powerOffReason":"(低压停电信息)低压开关跳闸","powerOffId":"2019111931020026"},{"poweroffId":2019111831020368,"sgpoweroffId":null,"subsName":"","lineName":"10kV歌舞T142线","pubTranName":"田坞畈1号公变,","scope":"浙江省-杭州市-桐庐县-钟山乡-高峰行政村-田坞畈自然村","startTime":"2019-11-18 22:19:31","stopDate":"2019-11-19 02:00:38","orgNo":"3340150","typeCode":"电网故障停限电","poweroffArea":"35kV钟山变:歌舞T142线-田坞畈1号公变后段","poweroffReason":"低压开关跳闸 原停电结束时间为2019-11-19 00:30:38,因材料未到位原因,现变更停电结束时间为2019-11-19 02:00:38","powerTime":"2019-11-19 01:43:23","powerComm":"已送电","subsNo":"","lineNo":"","tgNo":"","tgName":null,"infoStatus":"1","orgName":"国网浙江桐庐县供电公司","typeName":null,"infoStatusName":null,"dateDay":null,"orgNos":null,"nowTime":null,"countyName":null,"streetName":null,"villageName":null,"roadName":null,"communityName":null,"tranName":null,"sdLineName":null,"cityCode":"3340150","cityName":"国网浙江桐庐县供电公司","provinceCode":null,"stopTime":"2019-11-19 02:00:38","powerType":"全部","powerOffArea":"35kV钟山变:歌舞T142线-田坞畈1号公变后段","powerOffReason":"低压开关跳闸 原停电结束时间为2019-11-19 00:30:38,因材料未到位原因,现变更停电结束时间为2019-11-19 02:00:38","powerOffId":"2019111831020368"},{"poweroffId":2019111831020367,"sgpoweroffId":null,"subsName":"","lineName":"10kV歌舞T142线","pubTranName":"高塘岭1号公变,","scope":"浙江省-杭州市-桐庐县-钟山乡-高峰行政村-高塘岭脚自然村","startTime":"2019-11-18 22:16:21","stopDate":"2019-11-19 02:00:29","orgNo":"3340150","typeCode":"电网故障停限电","poweroffArea":"35kV钟山变:歌舞T142线-高塘岭1号公变后段","poweroffReason":"低压开关跳闸 原停电结束时间为2019-11-19 00:30:29,因材料未到位原因,现变更停电结束时间为2019-11-19 02:00:29","powerTime":"2019-11-19 01:40:20","powerComm":"已送电","subsNo":"","lineNo":"","tgNo":"","tgName":null,"infoStatus":"1","orgName":"国网浙江桐庐县供电公司","typeName":null,"infoStatusName":null,"dateDay":null,"orgNos":null,"nowTime":null,"countyName":null,"streetName":null,"villageName":null,"roadName":null,"communityName":null,"tranName":null,"sdLineName":null,"cityCode":"3340150","cityName":"国网浙江桐庐县供电公司","provinceCode":null,"stopTime":"2019-11-19 02:00:29","powerType":"全部","powerOffArea":"35kV钟山变:歌舞T142线-高塘岭1号公变后段","powerOffReason":"低压开关跳闸 原停电结束时间为2019-11-19 00:30:29,因材料未到位原因,现变更停电结束时间为2019-11-19 02:00:29","powerOffId":"2019111831020367"},{"poweroffId":2019111831020354,"sgpoweroffId":null,"subsName":"","lineName":"10kV大塘D797线","pubTranName":"华丰村外江打水,场口排涝站,","scope":"浙江省-杭州市-富阳区-场口镇-华丰行政村(华丰村外江打水,场口排涝站)","startTime":"2019-11-18 18:14:59","stopDate":"2019-11-18 20:14:59","orgNo":"3340170","typeCode":"电网故障停限电","poweroffArea":"110kV王洲变:大塘D797线首端，场口排涝站，华丰村外江打水之间","poweroffReason":"高压开关跳闸","powerTime":"2019-11-18 19:25:25","powerComm":"已送电","subsNo":"","lineNo":"","tgNo":"","tgName":null,"infoStatus":"1","orgName":"国网浙江杭州市富阳区供电公司","typeName":null,"infoStatusName":null,"dateDay":null,"orgNos":null,"nowTime":null,"countyName":null,"streetName":null,"villageName":null,"roadName":null,"communityName":null,"tranName":null,"sdLineName":null,"cityCode":"3340170","cityName":"国网浙江杭州市富阳区供电公司","provinceCode":null,"stopTime":"2019-11-18 20:14:59","powerType":"全部","powerOffArea":"110kV王洲变:大塘D797线首端，场口排涝站，华丰村外江打水之间","powerOffReason":"高压开关跳闸","powerOffId":"2019111831020354"},{"poweroffId":2019111831020350,"sgpoweroffId":null,"subsName":"","lineName":"10kV科技V792线","pubTranName":"锦福家园06#,杭州杭临轨道交通有限公司5#,锦福家园05#,锦福家园07#,杭州大华青山湖房地产开发有限公司1#,锦福家园03#,杭州大华青山湖房地产开发有限公司1#,杭州大华青山湖房地产开发有限公司1#,临安市供电局路灯管理所,锦福家园04#,锦福家园02#,杭州大华青山湖房地产开发有限公司1#,杭州大华青山湖房地产开发有限公司1#,锦福家园01#,锦福家园08#,","scope":"浙江省-杭州市-临安市(锦北街道-民主行政村-民主自然村,青山湖街道-民主行政村-民主自然村);青山湖街道-杭州大华青山湖房地产开发有限公司,锦北街道(中铁一局集团第五工程有限公司,杭州大华青山湖房地产开发有限公司)","startTime":"2019-11-18 17:55:00","stopDate":"2019-11-18 19:55:00","orgNo":"3340160","typeCode":"电网故障停限电","poweroffArea":"110kV胜联变:科技V792线黄岭站黄岭站7923开关后段","poweroffReason":"高压开关跳闸","powerTime":"2019-11-18 19:16:38","powerComm":"已送电","subsNo":"","lineNo":"","tgNo":"","tgName":null,"infoStatus":"1","orgName":"国网浙江临安市供电公司","typeName":null,"infoStatusName":null,"dateDay":null,"orgNos":null,"nowTime":null,"countyName":null,"streetName":null,"villageName":null,"roadName":null,"communityName":null,"tranName":null,"sdLineName":null,"cityCode":"3340160","cityName":"国网浙江临安市供电公司","provinceCode":null,"stopTime":"2019-11-18 19:55:00","powerType":"全部","powerOffArea":"110kV胜联变:科技V792线黄岭站黄岭站7923开关后段","powerOffReason":"高压开关跳闸","powerOffId":"2019111831020350"},{"poweroffId":2019111831020344,"sgpoweroffId":null,"subsName":"","lineName":"10kV红坞T117线","pubTranName":"对门山1号公变,桐庐滨江建设有限公司桐君街道分公司,宋建平（生活专变）,杨梅山3号公变,杭州桐庐圆通文化旅游发展有限公司,变压器,蓝色春江2号专变,圆通路1号公变,塔坞路3号公变,桐庐嘉益贸易有限公司,杭州桐君堂医药药材有限公司,南门食品厂,儿童公园1号公变,桐庐富鑫塑料制品有限公司,桐庐县市政园林建设管理处,中国民用航空华东地区空中交通管理局浙江分局,车把厂1号公变,杭州红成物业管理有限公司,中国人寿保险股份有限公司桐庐县支公司,塔坞路1号公变,富春居3号公变,桐庐县圆通小学,正大1号公变,桐庐滨江建设有限公司桐君街道分公司,桐庐圆德中医医院有限公司,红楼花园2号公变,桐庐县公安消防大队,杭州红成物业管理有限公司,桐庐人和针织有限公司,杨梅山2号公变,杨梅山1号公变,桐庐县气象局,富春居2号公变,红楼花园1号公变,","scope":"浙江省-杭州市-桐庐县-桐君街道-浮桥埠行政村(徐家自然村,五桂山自然村,上高岭自然村,公司自然村),桐君街道-浪苑行政村(高山自然村,对门自然村,白桥头自然村,荣店自然村),旧县街道-洪儒行政村(濮家台自然村,娘岭坞自然村,冷坑自然村,大山自然村),桐君街道-麻蓬行政村(仇岭坞自然村,尖山自然村,湖田塘自然村,吴家坞自然村),桐君街道-迎宾社区(公园山路,富春路,劳动路,对门山一弄,对门山三弄,对门山二弄),桐君街道-金鑫社区(富春路,建设弄),桐君街道-迎春社区(迎春街,学田路,邮电路,开元街,广场路,富春路),桐君街道-南门社区(迎春街,开元街,富春路,桐君路,江滨四弄),桐君街道-洋塘社区(洋塘自然村,建设弄,洋塘路),桐君街道-圆通社区(安乐路,富春路,杨梅山一弄,杨梅山二弄,公园山路,塔坞路,圆通路,南门弄),桐君街道(梅蓉行政村-陈家自然村,东门社区-康乐路,君山行政村-梓芳坞自然村),旧县街道(旧县行政村-旧县自然村,四联行政村-盛家边自然村,母岭行政村-郭工塘自然村);浙江省-杭州市-桐庐县-桐君街道-迎春社区-桐庐县市政园林建设管理处,桐君街道-迎宾社区(桐庐县圆通小学,桐庐县公安消防大队,宋建平(生活专)),桐君街道-南门社区(桐庐人和针织有限公司,浙江华太物业服务有限公司,南门食品厂),桐君街道-圆通社区(桐君堂药业有限公司,杭州桐庐圆通文化旅游发展有限公司,中国民用航空华东地区空中交通管理局浙江分局,桐庐县桐君街道恩丰模具加工厂,陈向军(宿舍),杭州红成物业管理有限公司,桐庐和家置业有限公司,杭州联华华商集团有限公司桐庐富春路店,桐庐县气象局,中国人寿保险股份有限公司杭州市分公司,桐庐圆德中医医院有限公司)，圆通社区富春路,鑫鑫小区,杨梅山一弄","startTime":"2019-11-18 17:23:44","stopDate":"2019-11-18 22:30:44","orgNo":"3340150","typeCode":"电网故障停限电","poweroffArea":"110kV桐庐变:红坞T117线","poweroffReason":"高压开关跳闸","powerTime":"2019-11-18 22:10:29","powerComm":"已送电","subsNo":"","lineNo":"","tgNo":"","tgName":null,"infoStatus":"1","orgName":"国网浙江桐庐县供电公司","typeName":null,"infoStatusName":null,"dateDay":null,"orgNos":null,"nowTime":null,"countyName":null,"streetName":null,"villageName":null,"roadName":null,"communityName":null,"tranName":null,"sdLineName":null,"cityCode":"3340150","cityName":"国网浙江桐庐县供电公司","provinceCode":null,"stopTime":"2019-11-18 22:30:44","powerType":"全部","powerOffArea":"110kV桐庐变:红坞T117线","powerOffReason":"高压开关跳闸","powerOffId":"2019111831020344"},{"poweroffId":2019111831020336,"sgpoweroffId":null,"subsName":"","lineName":"10kV旧县T225线","pubTranName":"上联村4号公变,","scope":"浙江省-杭州市-桐庐县-旧县街道-旧县行政村-上联自然村","startTime":"2019-11-18 16:51:50","stopDate":"2019-11-18 18:00:50","orgNo":"3340150","typeCode":"电网故障停限电","poweroffArea":"35kV西武变:旧县T225线-上联村4号公变后段","poweroffReason":"(低压停电信息)低压开关跳闸","powerTime":"2019-11-18 17:41:13","powerComm":"已送电","subsNo":"","lineNo":"","tgNo":"","tgName":null,"infoStatus":"1","orgName":"国网浙江桐庐县供电公司","typeName":null,"infoStatusName":null,"dateDay":null,"orgNos":null,"nowTime":null,"countyName":null,"streetName":null,"villageName":null,"roadName":null,"communityName":null,"tranName":null,"sdLineName":null,"cityCode":"3340150","cityName":"国网浙江桐庐县供电公司","provinceCode":null,"stopTime":"2019-11-18 18:00:50","powerType":"全部","powerOffArea":"35kV西武变:旧县T225线-上联村4号公变后段","powerOffReason":"(低压停电信息)低压开关跳闸","powerOffId":"2019111831020336"},{"poweroffId":2019111831020327,"sgpoweroffId":null,"subsName":"","lineName":"10kV吴宅T147线","pubTranName":"杨家山1号公变,合丰1号公变,","scope":"浙江省-杭州市-桐庐县-钟山乡-钟山行政村(包家山自然村,杨家山自然村)","startTime":"2019-11-18 16:33:17","stopDate":"2019-11-18 19:33:17","orgNo":"3340150","typeCode":"电网故障停限电","poweroffArea":"35kV钟山变:吴宅T147线-合丰1号公变后段","poweroffReason":"高压开关跳闸","powerTime":"2019-11-18 19:10:21","powerComm":"已送电","subsNo":"","lineNo":"","tgNo":"","tgName":null,"infoStatus":"1","orgName":"国网浙江桐庐县供电公司","typeName":null,"infoStatusName":null,"dateDay":null,"orgNos":null,"nowTime":null,"countyName":null,"streetName":null,"villageName":null,"roadName":null,"communityName":null,"tranName":null,"sdLineName":null,"cityCode":"3340150","cityName":"国网浙江桐庐县供电公司","provinceCode":null,"stopTime":"2019-11-18 19:33:17","powerType":"全部","powerOffArea":"35kV钟山变:吴宅T147线-合丰1号公变后段","powerOffReason":"高压开关跳闸","powerOffId":"2019111831020327"}],"pageModel":{"pageNow":841,"totalCount":17789,"totalPage":1779,"tableRows":0,"pageCount":10,"beginCount":8400},"isExperi":"1"}