{"message":"","today":"2020-06-15","seleList":[{"poweroffId":2019111831020318,"sgpoweroffId":null,"subsName":"","lineName":"10kV云会H408线","pubTranName":"良渚村宦塘2号公变,","scope":"浙江省-杭州市-余杭区-良渚街道-良渚行政村-仰家塘自然村","startTime":"2019-11-18 16:13:00","stopDate":"2019-11-18 18:13:00","orgNo":"3340140","typeCode":"电网故障停限电","poweroffArea":"35kV良渚变:云会H408线-良渚村宦塘2号公变后段","poweroffReason":"高压开关跳闸","powerTime":"2019-11-18 17:15:00","powerComm":"已送电","subsNo":"","lineNo":"","tgNo":"","tgName":null,"infoStatus":"1","orgName":"国网浙江杭州市余杭区供电有限公司","typeName":null,"infoStatusName":null,"dateDay":null,"orgNos":null,"nowTime":null,"countyName":null,"streetName":null,"villageName":null,"roadName":null,"communityName":null,"tranName":null,"sdLineName":null,"cityCode":"3340140","cityName":"国网浙江杭州市余杭区供电有限公司","provinceCode":null,"stopTime":"2019-11-18 18:13:00","powerType":"全部","powerOffArea":"35kV良渚变:云会H408线-良渚村宦塘2号公变后段","powerOffReason":"高压开关跳闸","powerOffId":"2019111831020318"},{"poweroffId":2019111831020297,"sgpoweroffId":null,"subsName":"","lineName":"10kV横山V381线","pubTranName":"余村安置小区1公变,余村安置小区3#公变,余村安置小区2#公变,","scope":"浙江省杭州市临安区锦城街道余村居委会余村安置小区一带","startTime":"2019-11-26 09:30:00","stopDate":"2019-11-26 16:30:00","orgNo":"3340160","typeCode":"计划停电","poweroffArea":"35kV渔村变:横山V381线-余村安置小区支线开关后段","poweroffReason":"新上用户","powerTime":"","powerComm":"","subsNo":"","lineNo":"","tgNo":"","tgName":null,"infoStatus":"1","orgName":"国网浙江临安市供电公司","typeName":null,"infoStatusName":null,"dateDay":null,"orgNos":null,"nowTime":null,"countyName":null,"streetName":null,"villageName":null,"roadName":null,"communityName":null,"tranName":null,"sdLineName":null,"cityCode":"3340160","cityName":"国网浙江临安市供电公司","provinceCode":null,"stopTime":"2019-11-26 16:30:00","powerType":"未送电","powerOffArea":"35kV渔村变:横山V381线-余村安置小区支线开关后段","powerOffReason":"新上用户","powerOffId":"2019111831020297"},{"poweroffId":2019111831020284,"sgpoweroffId":null,"subsName":"","lineName":"10kV镇海A715线","pubTranName":"永联村镇海2#变,","scope":"浙江省-杭州市-萧山区-瓜沥镇-永联行政村-镇海自然村、永联行政村镇海22组40号、瓜沥镇永联村一带","startTime":"2019-11-18 14:50:59","stopDate":"2019-11-18 16:30:59","orgNo":"3340130","typeCode":"电网故障停限电","poweroffArea":"110kV白川变:镇海A715线-永联村镇海2#变台区低压开关","poweroffReason":"(低压停电信息) 低压熔断器短路故障","powerTime":"2019-11-18 15:52:15","powerComm":"已送电","subsNo":"","lineNo":"","tgNo":"","tgName":null,"infoStatus":"1","orgName":"国网浙江杭州市萧山区供电有限公司","typeName":null,"infoStatusName":null,"dateDay":null,"orgNos":null,"nowTime":null,"countyName":null,"streetName":null,"villageName":null,"roadName":null,"communityName":null,"tranName":null,"sdLineName":null,"cityCode":"3340130","cityName":"国网浙江杭州市萧山区供电有限公司","provinceCode":null,"stopTime":"2019-11-18 16:30:59","powerType":"全部","powerOffArea":"110kV白川变:镇海A715线-永联村镇海2#变台区低压开关","powerOffReason":"(低压停电信息) 低压熔断器短路故障","powerOffId":"2019111831020284"},{"poweroffId":2019111831020283,"sgpoweroffId":null,"subsName":"","lineName":"10kV拱康7376线","pubTranName":"工大工程8,工大工程3,独城村,工大工程7,工大工程4,工大工程2,工大工程1,工大工程5,独闸,工大工程6,独城(1-1)农,","scope":"浙江省-杭州市-拱墅区(上塘街道-皋亭社区-沈半路,康桥街道-独城社区-康桥路);康桥街道-独城社区(杭州祖玛房地产营销有限公司,杭州市拱墅区城市河道保护管理中心,浙江工业大学工程设计集团有限公司)","startTime":"2019-11-18 15:10:35","stopDate":"2019-11-18 16:10:35","orgNo":"3340101","typeCode":"电网故障停限电","poweroffArea":"220kV金昌变:拱康7376线-独村分线后段","poweroffReason":"高压开关跳闸 原停电结束时间为2019-11-18 17:10:35,为减少客户停电时间,加快工作进度,提前送电,现变更停电结束时间为2019-11-18 16:10:35","powerTime":"2019-11-18 15:38:01","powerComm":"已送电","subsNo":"","lineNo":"","tgNo":"","tgName":null,"infoStatus":"1","orgName":"浙江杭州电力客户服务中心","typeName":null,"infoStatusName":null,"dateDay":null,"orgNos":null,"nowTime":null,"countyName":null,"streetName":null,"villageName":null,"roadName":null,"communityName":null,"tranName":null,"sdLineName":null,"cityCode":"3340101","cityName":"浙江杭州电力客户服务中心","provinceCode":null,"stopTime":"2019-11-18 16:10:35","powerType":"全部","powerOffArea":"220kV金昌变:拱康7376线-独村分线后段","powerOffReason":"高压开关跳闸 原停电结束时间为2019-11-18 17:10:35,为减少客户停电时间,加快工作进度,提前送电,现变更停电结束时间为2019-11-18 16:10:35","powerOffId":"2019111831020283"},{"poweroffId":2019111831020275,"sgpoweroffId":null,"subsName":"","lineName":"10kV古新521线","pubTranName":"天巢花园,","scope":"浙江省-杭州市-下城区-天水街道-环北新村社区体育场路400号（天巢花苑）一带","startTime":"2019-11-18 14:54:03","stopDate":"2019-11-18 17:00:03","orgNo":"3340101","typeCode":"电网故障停限电","poweroffArea":"110kV武林变:古新521线-天巢花园变后段","poweroffReason":"(低压停电信息)低压开关跳闸 原停电结束时间为2019-11-18 18:54:03,为减少客户停电时间,加快工作进度,提前送电,现变更停电结束时间为2019-11-18 17:00:03","powerTime":"2019-11-18 16:16:18","powerComm":"已送电","subsNo":"","lineNo":"","tgNo":"","tgName":null,"infoStatus":"1","orgName":"浙江杭州电力客户服务中心","typeName":null,"infoStatusName":null,"dateDay":null,"orgNos":null,"nowTime":null,"countyName":null,"streetName":null,"villageName":null,"roadName":null,"communityName":null,"tranName":null,"sdLineName":null,"cityCode":"3340101","cityName":"浙江杭州电力客户服务中心","provinceCode":null,"stopTime":"2019-11-18 17:00:03","powerType":"全部","powerOffArea":"110kV武林变:古新521线-天巢花园变后段","powerOffReason":"(低压停电信息)低压开关跳闸 原停电结束时间为2019-11-18 18:54:03,为减少客户停电时间,加快工作进度,提前送电,现变更停电结束时间为2019-11-18 17:00:03","powerOffId":"2019111831020275"},{"poweroffId":2019111831020252,"sgpoweroffId":null,"subsName":"","lineName":"10kV春联T394线","pubTranName":"岩下2号公变,","scope":"浙江省-杭州市-桐庐县-城南街道-金牛行政村(童家自然村,岩下自然村)","startTime":"2019-11-18 13:46:17","stopDate":"2019-11-18 17:46:17","orgNo":"3340150","typeCode":"电网故障停限电","poweroffArea":"110kV迎春变:春联T394线-岩下2号公变后段","poweroffReason":"(低压停电信息)低压开关跳闸 原停电结束时间为2019-11-18 15:46:17,因材料未到位原因,现变更停电结束时间为2019-11-18 17:46:17","powerTime":"2019-11-18 17:29:30","powerComm":"已送电","subsNo":"","lineNo":"","tgNo":"","tgName":null,"infoStatus":"1","orgName":"国网浙江桐庐县供电公司","typeName":null,"infoStatusName":null,"dateDay":null,"orgNos":null,"nowTime":null,"countyName":null,"streetName":null,"villageName":null,"roadName":null,"communityName":null,"tranName":null,"sdLineName":null,"cityCode":"3340150","cityName":"国网浙江桐庐县供电公司","provinceCode":null,"stopTime":"2019-11-18 17:46:17","powerType":"全部","powerOffArea":"110kV迎春变:春联T394线-岩下2号公变后段","powerOffReason":"(低压停电信息)低压开关跳闸 原停电结束时间为2019-11-18 15:46:17,因材料未到位原因,现变更停电结束时间为2019-11-18 17:46:17","powerOffId":"2019111831020252"},{"poweroffId":2019111831020249,"sgpoweroffId":null,"subsName":"","lineName":"10kV团结A471线","pubTranName":"曙光村15#变,","scope":"浙江省-杭州市-萧山区-党湾镇-曙光行政村-曙光自然村","startTime":"2019-11-26 08:30:00","stopDate":"2019-11-26 16:30:00","orgNo":"3340130","typeCode":"计划停电","poweroffArea":"110kV幸福变:团结A471线-曙光村15#变后段","poweroffReason":"团结A471线48/47/01#杆曙光村15#变台区移位至48/47#杆，拔9m/1支、12m/1支，拆线1档，更换跌落式保险器开关1套","powerTime":"","powerComm":"","subsNo":"","lineNo":"","tgNo":"","tgName":null,"infoStatus":"1","orgName":"国网浙江杭州市萧山区供电有限公司","typeName":null,"infoStatusName":null,"dateDay":null,"orgNos":null,"nowTime":null,"countyName":null,"streetName":null,"villageName":null,"roadName":null,"communityName":null,"tranName":null,"sdLineName":null,"cityCode":"3340130","cityName":"国网浙江杭州市萧山区供电有限公司","provinceCode":null,"stopTime":"2019-11-26 16:30:00","powerType":"未送电","powerOffArea":"110kV幸福变:团结A471线-曙光村15#变后段","powerOffReason":"团结A471线48/47/01#杆曙光村15#变台区移位至48/47#杆，拔9m/1支、12m/1支，拆线1档，更换跌落式保险器开关1套","powerOffId":"2019111831020249"},{"poweroffId":2019111831020237,"sgpoweroffId":null,"subsName":"","lineName":"10kV歌舞T142线","pubTranName":"歌舞1号公变,","scope":"浙江省-杭州市-桐庐县-钟山乡-歌舞行政村-歌舞自然村","startTime":"2019-11-27 13:00:00","stopDate":"2019-11-27 16:00:00","orgNo":"3340150","typeCode":"计划停电","poweroffArea":"35kV钟山变:歌舞T142线-宋家F2139令克后段","poweroffReason":"三相不平衡装置安装","powerTime":"2019-11-27 15:52:06","powerComm":"已送电","subsNo":"","lineNo":"","tgNo":"","tgName":null,"infoStatus":"1","orgName":"国网浙江桐庐县供电公司","typeName":null,"infoStatusName":null,"dateDay":null,"orgNos":null,"nowTime":null,"countyName":null,"streetName":null,"villageName":null,"roadName":null,"communityName":null,"tranName":null,"sdLineName":null,"cityCode":"3340150","cityName":"国网浙江桐庐县供电公司","provinceCode":null,"stopTime":"2019-11-27 16:00:00","powerType":"全部","powerOffArea":"35kV钟山变:歌舞T142线-宋家F2139令克后段","powerOffReason":"三相不平衡装置安装","powerOffId":"2019111831020237"},{"poweroffId":2019111831020236,"sgpoweroffId":null,"subsName":"","lineName":"10kV大市T141线","pubTranName":"城下1号公变,","scope":"浙江省-杭州市-桐庐县-钟山乡-城下行政村-城下自然村","startTime":"2019-11-27 08:00:00","stopDate":"2019-11-27 11:00:00","orgNo":"3340150","typeCode":"计划停电","poweroffArea":"35kV钟山变:大市T141线-城下F2009后段","poweroffReason":"三相不平衡装置安装","powerTime":"2019-11-27 10:51:25","powerComm":"已送电","subsNo":"","lineNo":"","tgNo":"","tgName":null,"infoStatus":"1","orgName":"国网浙江桐庐县供电公司","typeName":null,"infoStatusName":null,"dateDay":null,"orgNos":null,"nowTime":null,"countyName":null,"streetName":null,"villageName":null,"roadName":null,"communityName":null,"tranName":null,"sdLineName":null,"cityCode":"3340150","cityName":"国网浙江桐庐县供电公司","provinceCode":null,"stopTime":"2019-11-27 11:00:00","powerType":"全部","powerOffArea":"35kV钟山变:大市T141线-城下F2009后段","powerOffReason":"三相不平衡装置安装","powerOffId":"2019111831020236"},{"poweroffId":2019111831020235,"sgpoweroffId":null,"subsName":"","lineName":"10kV瓷厂C405线","pubTranName":"畈里张村3#公变,","scope":"浙江省-杭州市-萧山区-北干街道-工人路社区-工人路,北干街道-畈里张社区(工人路,山阴路)、城北畈里张村、山阴路教工宿舍、山阴路733号一带","startTime":"2019-11-18 12:59:13","stopDate":"2019-11-18 14:30:00","orgNo":"3340130","typeCode":"电网故障停限电","poweroffArea":"110kV湘湖变:瓷厂C405线-畈里张村3#公变后段","poweroffReason":"(低压停电信息)低压断路器坏","powerTime":"2019-11-18 13:32:19","powerComm":"已送电","subsNo":"","lineNo":"","tgNo":"","tgName":null,"infoStatus":"1","orgName":"国网浙江杭州市萧山区供电有限公司","typeName":null,"infoStatusName":null,"dateDay":null,"orgNos":null,"nowTime":null,"countyName":null,"streetName":null,"villageName":null,"roadName":null,"communityName":null,"tranName":null,"sdLineName":null,"cityCode":"3340130","cityName":"国网浙江杭州市萧山区供电有限公司","provinceCode":null,"stopTime":"2019-11-18 14:30:00","powerType":"全部","powerOffArea":"110kV湘湖变:瓷厂C405线-畈里张村3#公变后段","powerOffReason":"(低压停电信息)低压断路器坏","powerOffId":"2019111831020235"}],"pageModel":{"pageNow":842,"totalCount":17789,"totalPage":1779,"tableRows":0,"pageCount":10,"beginCount":8410},"isExperi":"1"}