{"message":"","today":"2020-06-15","seleList":[{"poweroffId":2019111631020159,"sgpoweroffId":null,"subsName":"","lineName":"10kV锦秀V402线","pubTranName":"高源村[高山深坞]公变,高源村[高山小庙]公变,高源村[布基坪]公变,高源村[牛头湾]公变,陈拥军,高源村[瓦窑坪]公变,高源村[钟家山]公变,高源村[田亩头]公变,高源村[方山]公变,","scope":"浙江省-杭州市-临安市-玲珑街道-高源行政村(深坞里自然村,高源自然村,高山自然村,瓦窑坪自然村,田亩头自然村,方山自然村,牛头湾自然村)、姚家村一带","startTime":"2019-11-16 20:52:00","stopDate":"2019-11-16 22:00:00","orgNo":"3340160","typeCode":"电网故障停限电","poweroffArea":"110kV秀水变:锦秀V402线高山村分支线32#开关后段","poweroffReason":"高压开关跳闸 原停电结束时间为2019-11-16 22:52:00,为减少客户停电时间,加快工作进度,提前送电,现变更停电结束时间为2019-11-16 22:00:00","powerTime":"2019-11-16 21:44:27","powerComm":"已送电","subsNo":"","lineNo":"","tgNo":"","tgName":null,"infoStatus":"1","orgName":"国网浙江临安市供电公司","typeName":null,"infoStatusName":null,"dateDay":null,"orgNos":null,"nowTime":null,"countyName":null,"streetName":null,"villageName":null,"roadName":null,"communityName":null,"tranName":null,"sdLineName":null,"cityCode":"3340160","cityName":"国网浙江临安市供电公司","provinceCode":null,"stopTime":"2019-11-16 22:00:00","powerType":"全部","powerOffArea":"110kV秀水变:锦秀V402线高山村分支线32#开关后段","powerOffReason":"高压开关跳闸 原停电结束时间为2019-11-16 22:52:00,为减少客户停电时间,加快工作进度,提前送电,现变更停电结束时间为2019-11-16 22:00:00","powerOffId":"2019111631020159"},{"poweroffId":2019111631020146,"sgpoweroffId":null,"subsName":"","lineName":"10kV马源T179线","pubTranName":"东溪铁路坑3号公变,","scope":"浙江省-杭州市-桐庐县-分水镇-东溪行政村(吴家山自然村,铁路坑自然村,沈家畈自然村,前坑坞自然村,张家山自然村,柘坞自然村,东溪自然村,前湾自然村)","startTime":"2019-11-16 17:42:02","stopDate":"2019-11-16 19:42:02","orgNo":"3340150","typeCode":"电网故障停限电","poweroffArea":"110kV分水变:马源T179线-东溪铁路坑3号公变后段","poweroffReason":"(低压停电信息)低压开关跳闸","powerTime":"2019-11-16 19:30:03","powerComm":"已送电","subsNo":"","lineNo":"","tgNo":"","tgName":null,"infoStatus":"1","orgName":"国网浙江桐庐县供电公司","typeName":null,"infoStatusName":null,"dateDay":null,"orgNos":null,"nowTime":null,"countyName":null,"streetName":null,"villageName":null,"roadName":null,"communityName":null,"tranName":null,"sdLineName":null,"cityCode":"3340150","cityName":"国网浙江桐庐县供电公司","provinceCode":null,"stopTime":"2019-11-16 19:42:02","powerType":"全部","powerOffArea":"110kV分水变:马源T179线-东溪铁路坑3号公变后段","powerOffReason":"(低压停电信息)低压开关跳闸","powerOffId":"2019111631020146"},{"poweroffId":2019111631020144,"sgpoweroffId":null,"subsName":"","lineName":"10kV意向V617线","pubTranName":"安村安置小区,临安云帆照明电器有限公司,临安三阳灯管厂,华中桥,杭州市临安区交通投资发展有限公司1#,临安森裕竹粉有限公司,杭州临安九通电子有限公司,临安市莲花山光明寺,嘉兴市中路建设工程有限公司,小岗山公变,青石2#变,临安市新都表面精饰有限公司1#,临安市路灯管理所1#,临安市路灯管理所1#,塘下白果树布点,安村塘下华街头,临安市新都表面精饰有限公司2#,安村,杭州东慧工贸有限公司,安村沃山脚变,","scope":"浙江省-杭州市-临安市-青山湖街道-雅观行政村-雅观自然村,青山湖街道-安村行政村(安村自然村,塘下自然村),青山湖街道-庆南行政村(横畈自然村,横南自然村);高虹镇-临安市路灯管理所,青山湖街道(,杭州临安正鑫包装用品有限公司,临安市莲花山光明寺,杭州东慧工贸有限公司,杭州海若照明电器有限公司,临安利森竹木粉有限公司,临安市新都表面精饰有限公司)一带","startTime":"2019-11-16 17:06:00","stopDate":"2019-11-16 18:40:00","orgNo":"3340160","typeCode":"电网故障停限电","poweroffArea":"110kV雅观变:意向V617线6173开关后段","poweroffReason":"高压开关跳闸 原停电结束时间为2019-11-16 20:00:00,为减少客户停电时间,加快工作进度,提前送电,现变更停电结束时间为2019-11-16 18:40:00","powerTime":"2019-11-16 18:24:31","powerComm":"已送电","subsNo":"","lineNo":"","tgNo":"","tgName":null,"infoStatus":"1","orgName":"国网浙江临安市供电公司","typeName":null,"infoStatusName":null,"dateDay":null,"orgNos":null,"nowTime":null,"countyName":null,"streetName":null,"villageName":null,"roadName":null,"communityName":null,"tranName":null,"sdLineName":null,"cityCode":"3340160","cityName":"国网浙江临安市供电公司","provinceCode":null,"stopTime":"2019-11-16 18:40:00","powerType":"全部","powerOffArea":"110kV雅观变:意向V617线6173开关后段","powerOffReason":"高压开关跳闸 原停电结束时间为2019-11-16 20:00:00,为减少客户停电时间,加快工作进度,提前送电,现变更停电结束时间为2019-11-16 18:40:00","powerOffId":"2019111631020144"},{"poweroffId":2019111631020129,"sgpoweroffId":null,"subsName":"","lineName":"10kV格流374线","pubTranName":"皋塘（4-1）农,皋塘(4)农,包装(1),皋塘(1-1)农,新东站,铁投（87）,彭宅,上光,江检2#,包装(2),皋塘(2-1)农,皋塘（1）农,皋居委,皋东,彭蔬,格流,三公司,1,","scope":"浙江省-杭州市-江干区-彭埠镇(皋塘社区-新塘路,新风社区-新风路);彭埠镇-皋塘社区(杭州市城东新城建设投资有限公司,杭州市江干区彭埠街道彭埠社区居民委员会,省长城建设集团股份有限公司,杭州市江干区道路建设整治中心,杭州市江干区彭埠镇皋塘社区居民委员会),彭埠镇(彭埠社区-杭州彭埠蔬菜有限公司,新塘社区-中移铁通有限公司杭州分公司,新风社区-杭州市江干区彭埠街道皋塘社区居民委员会)","startTime":"2019-11-16 15:50:26","stopDate":"2019-11-16 18:10:26","orgNo":"3340101","typeCode":"电网故障停限电","poweroffArea":"35kV新塘变:格流374线","poweroffReason":"高压开关跳闸 原停电结束时间为2019-11-16 22:50:26,为减少客户停电时间,加快工作进度,提前送电,现变更停电结束时间为2019-11-16 18:10:26","powerTime":"2019-11-16 17:33:48","powerComm":"已送电","subsNo":"","lineNo":"","tgNo":"","tgName":null,"infoStatus":"1","orgName":"浙江杭州电力客户服务中心","typeName":null,"infoStatusName":null,"dateDay":null,"orgNos":null,"nowTime":null,"countyName":null,"streetName":null,"villageName":null,"roadName":null,"communityName":null,"tranName":null,"sdLineName":null,"cityCode":"3340101","cityName":"浙江杭州电力客户服务中心","provinceCode":null,"stopTime":"2019-11-16 18:10:26","powerType":"全部","powerOffArea":"35kV新塘变:格流374线","powerOffReason":"高压开关跳闸 原停电结束时间为2019-11-16 22:50:26,为减少客户停电时间,加快工作进度,提前送电,现变更停电结束时间为2019-11-16 18:10:26","powerOffId":"2019111631020129"},{"poweroffId":2019111631020128,"sgpoweroffId":null,"subsName":"","lineName":"10kV长恒G165线","pubTranName":"城佳公寓公变,","scope":"浙江省-杭州市-余杭区-东湖街道-梅堰社区-梅堰,东湖街道-桂芳桥社区(朝阳东路,史家埭路)","startTime":"2019-11-16 15:50:00","stopDate":"2019-11-16 20:30:00","orgNo":"3340140","typeCode":"电网故障停限电","poweroffArea":"110kV丘山变:长恒G165线-城佳公寓公变后段","poweroffReason":"高压开关跳闸 原停电结束时间为2019-11-16 21:50:00,为减少客户停电时间,加快工作进度,提前送电,现变更停电结束时间为2019-11-16 20:30:00","powerTime":"2019-11-16 19:40:00","powerComm":"已送电","subsNo":"","lineNo":"","tgNo":"","tgName":null,"infoStatus":"1","orgName":"国网浙江杭州市余杭区供电有限公司","typeName":null,"infoStatusName":null,"dateDay":null,"orgNos":null,"nowTime":null,"countyName":null,"streetName":null,"villageName":null,"roadName":null,"communityName":null,"tranName":null,"sdLineName":null,"cityCode":"3340140","cityName":"国网浙江杭州市余杭区供电有限公司","provinceCode":null,"stopTime":"2019-11-16 20:30:00","powerType":"全部","powerOffArea":"110kV丘山变:长恒G165线-城佳公寓公变后段","powerOffReason":"高压开关跳闸 原停电结束时间为2019-11-16 21:50:00,为减少客户停电时间,加快工作进度,提前送电,现变更停电结束时间为2019-11-16 20:30:00","powerOffId":"2019111631020128"},{"poweroffId":2019111631020126,"sgpoweroffId":null,"subsName":"","lineName":"10kV安溪H404线","pubTranName":"杭州市余杭区人民政府良渚街道办事处,安溪村石岭村公变,","scope":"浙江省-杭州市-余杭区-良渚街道-安溪行政村-石岭自然村;良渚街道-杭州市余杭区人民政府良渚街道办事处","startTime":"2019-11-16 15:28:00","stopDate":"2019-11-16 17:28:00","orgNo":"3340140","typeCode":"电网故障停限电","poweroffArea":"35kV良渚变:安溪H404线石岭村分线1号杆开关后段","poweroffReason":"高压开关跳闸","powerTime":"2019-11-16 16:48:00","powerComm":"已送电","subsNo":"","lineNo":"","tgNo":"","tgName":null,"infoStatus":"1","orgName":"国网浙江杭州市余杭区供电有限公司","typeName":null,"infoStatusName":null,"dateDay":null,"orgNos":null,"nowTime":null,"countyName":null,"streetName":null,"villageName":null,"roadName":null,"communityName":null,"tranName":null,"sdLineName":null,"cityCode":"3340140","cityName":"国网浙江杭州市余杭区供电有限公司","provinceCode":null,"stopTime":"2019-11-16 17:28:00","powerType":"全部","powerOffArea":"35kV良渚变:安溪H404线石岭村分线1号杆开关后段","powerOffReason":"高压开关跳闸","powerOffId":"2019111631020126"},{"poweroffId":2019111631020124,"sgpoweroffId":null,"subsName":"","lineName":"10kV章村D382线","pubTranName":"新一村1号溪边公变,新一村2号章村公变,","scope":"浙江省-杭州市-富阳区-湖源乡-新一行政村-小章村自然村","startTime":"2019-11-16 15:17:17","stopDate":"2019-11-16 16:17:17","orgNo":"3340170","typeCode":"电网故障停限电","poweroffArea":"35kV湖源变:章村D382线首端，新一村2号章村公变，新一村1号溪边公变之间","poweroffReason":"高压开关跳闸 原停电结束时间为2019-11-16 17:17:17,为减少客户停电时间,加快工作进度,提前送电,现变更停电结束时间为2019-11-16 16:17:17","powerTime":"2019-11-16 16:01:48","powerComm":"已送电","subsNo":"","lineNo":"","tgNo":"","tgName":null,"infoStatus":"1","orgName":"国网浙江杭州市富阳区供电公司","typeName":null,"infoStatusName":null,"dateDay":null,"orgNos":null,"nowTime":null,"countyName":null,"streetName":null,"villageName":null,"roadName":null,"communityName":null,"tranName":null,"sdLineName":null,"cityCode":"3340170","cityName":"国网浙江杭州市富阳区供电公司","provinceCode":null,"stopTime":"2019-11-16 16:17:17","powerType":"全部","powerOffArea":"35kV湖源变:章村D382线首端，新一村2号章村公变，新一村1号溪边公变之间","powerOffReason":"高压开关跳闸 原停电结束时间为2019-11-16 17:17:17,为减少客户停电时间,加快工作进度,提前送电,现变更停电结束时间为2019-11-16 16:17:17","powerOffId":"2019111631020124"},{"poweroffId":2019111631020116,"sgpoweroffId":null,"subsName":"","lineName":"10kV棋盘H293线","pubTranName":"新湖基建3,杭州新湖美丽洲置业有限公司6120017015,新湖基建变3,新湖基建2,","scope":"浙江省-杭州市-余杭区-良渚街道-良港行政村-杭州新湖美丽洲置业有限公司","startTime":"2019-11-16 14:07:00","stopDate":"2019-11-16 16:20:00","orgNo":"3340140","typeCode":"电网故障停限电","poweroffArea":"110kV柏庙变:棋盘H293线-新湖分支箱后段","poweroffReason":"高压开关跳闸 原停电结束时间为2019-11-16 17:07:00,为减少客户停电时间,加快工作进度,提前送电,现变更停电结束时间为2019-11-16 16:20:00","powerTime":"2019-11-16 15:38:00","powerComm":"已送电","subsNo":"","lineNo":"","tgNo":"","tgName":null,"infoStatus":"1","orgName":"国网浙江杭州市余杭区供电有限公司","typeName":null,"infoStatusName":null,"dateDay":null,"orgNos":null,"nowTime":null,"countyName":null,"streetName":null,"villageName":null,"roadName":null,"communityName":null,"tranName":null,"sdLineName":null,"cityCode":"3340140","cityName":"国网浙江杭州市余杭区供电有限公司","provinceCode":null,"stopTime":"2019-11-16 16:20:00","powerType":"全部","powerOffArea":"110kV柏庙变:棋盘H293线-新湖分支箱后段","powerOffReason":"高压开关跳闸 原停电结束时间为2019-11-16 17:07:00,为减少客户停电时间,加快工作进度,提前送电,现变更停电结束时间为2019-11-16 16:20:00","powerOffId":"2019111631020116"},{"poweroffId":2019111631020109,"sgpoweroffId":null,"subsName":"","lineName":"10kV鸿新C920线","pubTranName":"盛中村24#变,","scope":"浙江省-杭州市-萧山区-新街镇-新街街道-盛中村-盛中行政村-盛中自然村等一带","startTime":"2019-11-16 13:35:02","stopDate":"2019-11-16 16:40:02","orgNo":"3340130","typeCode":"电网故障停限电","poweroffArea":"110kV鸿达变:鸿新C920线-盛中村24#变台区低压开关","poweroffReason":"(低压停电信息)低压漏电保护器短路故障","powerTime":"2019-11-16 15:43:38","powerComm":"已送电","subsNo":"","lineNo":"","tgNo":"","tgName":null,"infoStatus":"1","orgName":"国网浙江杭州市萧山区供电有限公司","typeName":null,"infoStatusName":null,"dateDay":null,"orgNos":null,"nowTime":null,"countyName":null,"streetName":null,"villageName":null,"roadName":null,"communityName":null,"tranName":null,"sdLineName":null,"cityCode":"3340130","cityName":"国网浙江杭州市萧山区供电有限公司","provinceCode":null,"stopTime":"2019-11-16 16:40:02","powerType":"全部","powerOffArea":"110kV鸿达变:鸿新C920线-盛中村24#变台区低压开关","powerOffReason":"(低压停电信息)低压漏电保护器短路故障","powerOffId":"2019111631020109"},{"poweroffId":2019111631020108,"sgpoweroffId":null,"subsName":"","lineName":"10kV机经8718线","pubTranName":"","scope":"浙江省江干区运新花苑三区5幢西单元主供，5幢西单元照明","startTime":"2019-11-27 10:00:00","stopDate":"2019-11-27 11:30:00","orgNo":"3340101","typeCode":"计划停电","poweroffArea":"110kV剧院变:机经8718线-府专（十二）5#西单元住宅后段","poweroffReason":"(低压停电信息)运新花苑三区5幢2单元501更换表前段子排（用检，赵春泉，662181） 原停电结束时间为2019-11-27 14:30:00,为减少客户停电时间,加快工作进度,提前送电,现变更停电结束时间为2019-11-27 11:30:00","powerTime":"2019-11-27 10:42:59","powerComm":"已送电","subsNo":"","lineNo":"","tgNo":"","tgName":null,"infoStatus":"1","orgName":"浙江杭州电力客户服务中心","typeName":null,"infoStatusName":null,"dateDay":null,"orgNos":null,"nowTime":null,"countyName":null,"streetName":null,"villageName":null,"roadName":null,"communityName":null,"tranName":null,"sdLineName":null,"cityCode":"3340101","cityName":"浙江杭州电力客户服务中心","provinceCode":null,"stopTime":"2019-11-27 11:30:00","powerType":"全部","powerOffArea":"110kV剧院变:机经8718线-府专（十二）5#西单元住宅后段","powerOffReason":"(低压停电信息)运新花苑三区5幢2单元501更换表前段子排（用检，赵春泉，662181） 原停电结束时间为2019-11-27 14:30:00,为减少客户停电时间,加快工作进度,提前送电,现变更停电结束时间为2019-11-27 11:30:00","powerOffId":"2019111631020108"}],"pageModel":{"pageNow":848,"totalCount":17789,"totalPage":1779,"tableRows":0,"pageCount":10,"beginCount":8470},"isExperi":"1"}