{"message":"","today":"2020-06-15","seleList":[{"poweroffId":2019111631020103,"sgpoweroffId":null,"subsName":"","lineName":"10kV林蓝9566线","pubTranName":"","scope":"浙江省杭州市江干区白杨街道东海柠檬郡白杨路11幢1、2单元","startTime":"2019-11-26 09:30:00","stopDate":"2019-11-26 14:00:00","orgNo":"3340101","typeCode":"计划停电","poweroffArea":"110kV学林变:林蓝9566线-波水（六）B6-4低压开关","poweroffReason":"(低压停电信息)浙江省杭州市杭州市江干区白杨街道下沙多蓝水岸蓝波苑1-D-26 低压居民充电桩新装","powerTime":"","powerComm":"","subsNo":"","lineNo":"","tgNo":"","tgName":null,"infoStatus":"1","orgName":"浙江杭州电力客户服务中心","typeName":null,"infoStatusName":null,"dateDay":null,"orgNos":null,"nowTime":null,"countyName":null,"streetName":null,"villageName":null,"roadName":null,"communityName":null,"tranName":null,"sdLineName":null,"cityCode":"3340101","cityName":"浙江杭州电力客户服务中心","provinceCode":null,"stopTime":"2019-11-26 14:00:00","powerType":"未送电","powerOffArea":"110kV学林变:林蓝9566线-波水（六）B6-4低压开关","powerOffReason":"(低压停电信息)浙江省杭州市杭州市江干区白杨街道下沙多蓝水岸蓝波苑1-D-26 低压居民充电桩新装","powerOffId":"2019111631020103"},{"poweroffId":2019111631020102,"sgpoweroffId":null,"subsName":"","lineName":"10kV高和8218线","pubTranName":"未名苑二,","scope":"浙江省-杭州市-江干区-误白杨街道-误月雅苑社区-白杨街东海柠檬郡白杨路18幢楼及附住房","startTime":"2019-11-26 09:30:00","stopDate":"2019-11-26 14:00:00","orgNo":"3340101","typeCode":"计划停电","poweroffArea":"110kV高教变:高和8218线-未名苑二B2-2低压开关","poweroffReason":"(低压停电信息)浙江省杭州市江干区白杨街道东海柠檬郡白杨路39号、43号、47号 低压非居民新装","powerTime":"","powerComm":"","subsNo":"","lineNo":"","tgNo":"","tgName":null,"infoStatus":"1","orgName":"浙江杭州电力客户服务中心","typeName":null,"infoStatusName":null,"dateDay":null,"orgNos":null,"nowTime":null,"countyName":null,"streetName":null,"villageName":null,"roadName":null,"communityName":null,"tranName":null,"sdLineName":null,"cityCode":"3340101","cityName":"浙江杭州电力客户服务中心","provinceCode":null,"stopTime":"2019-11-26 14:00:00","powerType":"未送电","powerOffArea":"110kV高教变:高和8218线-未名苑二B2-2低压开关","powerOffReason":"(低压停电信息)浙江省杭州市江干区白杨街道东海柠檬郡白杨路39号、43号、47号 低压非居民新装","powerOffId":"2019111631020102"},{"poweroffId":2019111631020101,"sgpoweroffId":null,"subsName":"","lineName":"10kV草岭Y713线","pubTranName":"3#,建德市金通五金电器有限公司,建德市鹏帆电器有限公司,建德市国有粮食收储有限公司,建德市气象局,建德市正新工具制造有限公司,杭州全彩塑业有限公司,葛家村老公社台区,建德市三弟兄农业开发有限公司1#志变,杭州伟鑫金属表面工程有限公司,建德市梅城镇华意来料加工点1#,建德市艾格电器有限公司,建德市通汇仪表厂1#,1#,建德市万家电器电缆有限公司,越洋（杭州）机电有限公司新安江分公司配电变压器,葛家村石头湾台区,建德市友联电器有限公司,1#变,建德市磊嘉电子有限公司,建德市五星金属表面处理厂1#,杭州尚深工业科技有限公司1#变,建德市伟达电器工具有限责任公司,建德市智科电子有限公司,建德市诚达电器工具厂,杭州奥宇金属制品有限公司,建德市康易清洁用品有限公司,1#,1#,建德市忠达线带厂,2#变,建德市三弟兄农业开发有限公司2#专变,杭州卡尔实业有限公司,","scope":"浙江省-杭州市-建德市-梅城镇-城南工业园区 锦峰路,望城路,梅城镇-葛家行政村 毛草岭自然村,岭脚自然村,望城路,姚家塘自然村,朱家塘自然村,葛家埠自然村;梅城镇杭州俊仁电器工具有限公司,建德市三弟兄农业开发有限公司,建德市五星金属表面处理厂,越洋机电有限公司新安江分公司,建德市国有粮食收储有限公司,杭州建德至美机电有限公司,杭州卡尔实业有限公司,杭州仕缘石材装饰工程有限公司,杭州尚深工业科技有限公司,建德市智科电子有限公司,建德市通汇仪表厂,杭州奥宇金属制品有限公司,建德市伟达电器工具有限责任公司,建德市友联电器有限公司,建德市万家电器有限公司,建德市锦鸿家纺有限公司,建德市康易清洁用品有限公司,浙江中展有机硅有限公司,杭州全彩塑业有限公司,建德市艾格电器有限公司,建德市正新工具制造有限公司,建德市气象局,杭州万家创新电子有限公司,杭州伟鑫金属表面工程有限公司,建德市金通五金电器有限公司 一带用户","startTime":"2019-11-16 13:08:00","stopDate":"2019-11-16 15:30:00","orgNo":"3340180","typeCode":"电网故障停限电","poweroffArea":"110kV南峰变:草岭Y713线草岭Y713线01#开关后段","poweroffReason":"高压开关跳闸 原停电结束时间为2019-11-16 17:00:00,为减少客户停电时间,加快工作进度,提前送电,现变更停电结束时间为2019-11-16 15:30:00","powerTime":"2019-11-16 14:51:00","powerComm":"已送电","subsNo":"","lineNo":"","tgNo":"","tgName":null,"infoStatus":"1","orgName":"国网浙江建德市供电有限公司","typeName":null,"infoStatusName":null,"dateDay":null,"orgNos":null,"nowTime":null,"countyName":null,"streetName":null,"villageName":null,"roadName":null,"communityName":null,"tranName":null,"sdLineName":null,"cityCode":"3340180","cityName":"国网浙江建德市供电有限公司","provinceCode":null,"stopTime":"2019-11-16 15:30:00","powerType":"全部","powerOffArea":"110kV南峰变:草岭Y713线草岭Y713线01#开关后段","powerOffReason":"高压开关跳闸 原停电结束时间为2019-11-16 17:00:00,为减少客户停电时间,加快工作进度,提前送电,现变更停电结束时间为2019-11-16 15:30:00","powerOffId":"2019111631020101"},{"poweroffId":2019111631020083,"sgpoweroffId":null,"subsName":"","lineName":"10kV上杭T274线","pubTranName":"春江西路1号公变,","scope":"浙江省-杭州市-桐庐县-城南街道-上杭社区-春江路、春江西路58号一带。","startTime":"2019-11-16 10:56:05","stopDate":"2019-11-16 16:56:05","orgNo":"3340150","typeCode":"电网故障停限电","poweroffArea":"35kV三合变:上杭T274线-春江西路1号公变后段","poweroffReason":"高压开关跳闸","powerTime":"2019-11-16 16:47:32","powerComm":"已送电","subsNo":"","lineNo":"","tgNo":"","tgName":null,"infoStatus":"1","orgName":"国网浙江桐庐县供电公司","typeName":null,"infoStatusName":null,"dateDay":null,"orgNos":null,"nowTime":null,"countyName":null,"streetName":null,"villageName":null,"roadName":null,"communityName":null,"tranName":null,"sdLineName":null,"cityCode":"3340150","cityName":"国网浙江桐庐县供电公司","provinceCode":null,"stopTime":"2019-11-16 16:56:05","powerType":"全部","powerOffArea":"35kV三合变:上杭T274线-春江西路1号公变后段","powerOffReason":"高压开关跳闸","powerOffId":"2019111631020083"},{"poweroffId":2019111631020081,"sgpoweroffId":null,"subsName":"","lineName":"10kV运佳H599线","pubTranName":"运河村长桥头公变,","scope":"浙江省-杭州市-余杭区-良渚街道-运河行政村-郁宅自然村","startTime":"2019-11-16 10:50:00","stopDate":"2019-11-16 13:00:00","orgNo":"3340140","typeCode":"电网故障停限电","poweroffArea":"110kV南庄变:运佳H599线-运河村长桥头公变后段","poweroffReason":"高压开关跳闸","powerTime":"2019-11-16 12:13:00","powerComm":"已送电","subsNo":"","lineNo":"","tgNo":"","tgName":null,"infoStatus":"1","orgName":"国网浙江杭州市余杭区供电有限公司","typeName":null,"infoStatusName":null,"dateDay":null,"orgNos":null,"nowTime":null,"countyName":null,"streetName":null,"villageName":null,"roadName":null,"communityName":null,"tranName":null,"sdLineName":null,"cityCode":"3340140","cityName":"国网浙江杭州市余杭区供电有限公司","provinceCode":null,"stopTime":"2019-11-16 13:00:00","powerType":"全部","powerOffArea":"110kV南庄变:运佳H599线-运河村长桥头公变后段","powerOffReason":"高压开关跳闸","powerOffId":"2019111631020081"},{"poweroffId":2019111631020069,"sgpoweroffId":null,"subsName":"","lineName":"10kV杨家T106线","pubTranName":"浮桥埠村9号公变,","scope":"浙江省-杭州市-桐庐县-桐君街道-浮桥埠行政村(浮桥埠自然村,五桂山自然村,桥北路,上高岭自然村)","startTime":"2019-11-16 10:06:13","stopDate":"2019-11-16 17:06:13","orgNo":"3340150","typeCode":"电网故障停限电","poweroffArea":"110kV桐庐变:杨家T106线-浮桥埠村9号公变后段","poweroffReason":"高压开关跳闸","powerTime":"2019-11-16 16:51:07","powerComm":"已送电","subsNo":"","lineNo":"","tgNo":"","tgName":null,"infoStatus":"1","orgName":"国网浙江桐庐县供电公司","typeName":null,"infoStatusName":null,"dateDay":null,"orgNos":null,"nowTime":null,"countyName":null,"streetName":null,"villageName":null,"roadName":null,"communityName":null,"tranName":null,"sdLineName":null,"cityCode":"3340150","cityName":"国网浙江桐庐县供电公司","provinceCode":null,"stopTime":"2019-11-16 17:06:13","powerType":"全部","powerOffArea":"110kV桐庐变:杨家T106线-浮桥埠村9号公变后段","powerOffReason":"高压开关跳闸","powerOffId":"2019111631020069"},{"poweroffId":2019111631020068,"sgpoweroffId":null,"subsName":"","lineName":"10kV杨家T106线","pubTranName":"浮桥埠村9号公变,","scope":"浙江省-杭州市-桐庐县-桐君街道-浮桥埠行政村(浮桥埠自然村,五桂山自然村,桥北路,上高岭自然村)","startTime":"2019-11-16 10:03:00","stopDate":"2019-11-16 17:03:00","orgNo":"3340150","typeCode":"电网故障停限电","poweroffArea":"110kV桐庐变:杨家T106线-浮桥埠村9号公变后段","poweroffReason":"高压开关跳闸","powerTime":"2019-11-16 16:50:03","powerComm":"已送电","subsNo":"","lineNo":"","tgNo":"","tgName":null,"infoStatus":"1","orgName":"国网浙江桐庐县供电公司","typeName":null,"infoStatusName":null,"dateDay":null,"orgNos":null,"nowTime":null,"countyName":null,"streetName":null,"villageName":null,"roadName":null,"communityName":null,"tranName":null,"sdLineName":null,"cityCode":"3340150","cityName":"国网浙江桐庐县供电公司","provinceCode":null,"stopTime":"2019-11-16 17:03:00","powerType":"全部","powerOffArea":"110kV桐庐变:杨家T106线-浮桥埠村9号公变后段","powerOffReason":"高压开关跳闸","powerOffId":"2019111631020068"},{"poweroffId":2019111631020064,"sgpoweroffId":null,"subsName":"","lineName":"10kV新镇C620线","pubTranName":"双圩村18#变,","scope":"浙江省-杭州市-萧山区-新街镇-新街街道-双圩行政村-双圩自然村等一带","startTime":"2019-11-16 09:44:22","stopDate":"2019-11-16 12:44:22","orgNo":"3340130","typeCode":"电网故障停限电","poweroffArea":"110kV新街变:新镇C620线-双圩村18#变台区低压开关","poweroffReason":"(低压停电信息)低压漏电保护器短路故障","powerTime":"2019-11-16 11:48:01","powerComm":"已送电","subsNo":"","lineNo":"","tgNo":"","tgName":null,"infoStatus":"1","orgName":"国网浙江杭州市萧山区供电有限公司","typeName":null,"infoStatusName":null,"dateDay":null,"orgNos":null,"nowTime":null,"countyName":null,"streetName":null,"villageName":null,"roadName":null,"communityName":null,"tranName":null,"sdLineName":null,"cityCode":"3340130","cityName":"国网浙江杭州市萧山区供电有限公司","provinceCode":null,"stopTime":"2019-11-16 12:44:22","powerType":"全部","powerOffArea":"110kV新街变:新镇C620线-双圩村18#变台区低压开关","powerOffReason":"(低压停电信息)低压漏电保护器短路故障","powerOffId":"2019111631020064"},{"poweroffId":2019111631020055,"sgpoweroffId":null,"subsName":"","lineName":"10kV银乔C832线","pubTranName":"元沙村5#变,","scope":"浙江省-杭州市-萧山区-新街镇-新街街道、元沙村、盈中村、(元沙行政村-元沙自然村,盈中行政村-盈中自然村)等一带","startTime":"2019-11-16 09:19:47","stopDate":"2019-11-16 12:19:47","orgNo":"3340130","typeCode":"电网故障停限电","poweroffArea":"110kV罗山变:银乔C832线-元沙村5#变台区低压开关","poweroffReason":"(低压停电信息)低压漏电保护器短路故障","powerTime":"2019-11-16 11:53:10","powerComm":"已送电","subsNo":"","lineNo":"","tgNo":"","tgName":null,"infoStatus":"1","orgName":"国网浙江杭州市萧山区供电有限公司","typeName":null,"infoStatusName":null,"dateDay":null,"orgNos":null,"nowTime":null,"countyName":null,"streetName":null,"villageName":null,"roadName":null,"communityName":null,"tranName":null,"sdLineName":null,"cityCode":"3340130","cityName":"国网浙江杭州市萧山区供电有限公司","provinceCode":null,"stopTime":"2019-11-16 12:19:47","powerType":"全部","powerOffArea":"110kV罗山变:银乔C832线-元沙村5#变台区低压开关","powerOffReason":"(低压停电信息)低压漏电保护器短路故障","powerOffId":"2019111631020055"},{"poweroffId":2019111631020043,"sgpoweroffId":null,"subsName":"","lineName":"10kV白泥D226线","pubTranName":"浙江省第一水电建设集团股份有限公司,浙江省第一水电建设集团股份有限公司,唐家坞11#下凉亭公变,勤乐村水坞1号上公变,富阳双全粉末涂料厂,杭州澳邦建材科技有限公司1#变,杭州富阳电信器材有限公司,富阳九龙混凝土有限公司2#变,唐家坞4号桥上公变,唐家坞9#蜻蜓坞公变,富阳富春江节能抗磨材料厂1#变,杭州月桂袜业有限公司,杭州富阳电信器材有限公司,勤乐村石墓5#梓树岭东公变,富阳富春江节能抗磨材料厂1#变,杭州喜鹊投资有限公司1#变,勤乐村水坞2#上公变,勤乐村委6#公变,上大庄村10号上横溪洋公变,杭州易原建材有限公司,杭州康生医疗器械有限公司,唐家坞6#前山公变,浙江省第一水电建设集团股份有限公司,唐家坞7#下唐里公变,杭州洁惠管业有限公司,唐家坞1号祝家湾公变,浙江省第一水电建设集团股份有限公司上大庄自然村路旁1#基建变,富阳市永恒涂装有限公司,浙江万能通信器材集团有限公司 1#,杭州云森生态农业发展有限公司2#,杭州富阳天鸿通信器材有限公司银湖分公司,富阳九龙混凝土有限公司,唐家坞5#钱家坞外公变,杭州洁惠管业有限公司,杭州云森生态农业发展有限公司1#,唐家坞2#高塘坎公变,唐家坞3号溪下公变,富阳华市橡塑制品厂,唐家坞12号溪下公变,勤乐村石墓2#梓树岭公变,富阳高桥热电镀厂,唐家坞10号黄泥地公变,浙江省富阳利江消防器材厂,唐家坞8#下唐外公变,杭州月桂袜业有限公司1#变,浙江省第一水电建设集团股份有限公司,杭州富阳永恒涂装有限公司1#变,","scope":"浙江省-杭州市-富阳区-银湖街道-高桥行政村-高桥自然村,银湖街道-唐家坞行政村(唐家坞自然村,路下自然村,下唐自然村,溪下自然村,祝家湾自然村,路上自然村,高塘坎自然村,蜻蜓坞自然村,黄泥地自然村),银湖街道-大庄行政村(横溪洋自然村,上大庄自然村),银湖街道-勤乐行政村(蚌壳山自然村,梓树岭自然村,石墓自然村,水坞自然村);银湖街道-唐家坞行政村(杭州富阳华市橡塑制品厂,浙江省富阳利江消防器材厂,杭州澳邦建材科技有限公司,杭州富阳天鸿通信器材有限公司银湖分公司,杭州富阳高桥热电镀厂,杭州富阳富春江节能抗磨材料厂),银湖街道-大庄行政村(浙江省第一水电建设集团股份有限公司,杭州洁惠管业有限公司),银湖街道-坑西行政村(杭州富阳易原道路设施有限公司,浙江万能通信器材集团有限公司,杭州富阳永恒涂装有限公司),银湖街道-勤乐行政村(杭州康生医疗器械有限公司,富阳双全粉末涂料厂,杭州云森生态农业发展有限公司水坞山庄,浙江万能通信器材集团有限公司),银湖街道(高桥行政村-杭州月桂袜业有限公司,沈家坞行政村-杭州富阳九龙混凝土有限公司,杭州喜鹊投资有限公司)","startTime":"2019-11-16 08:49:04","stopDate":"2019-11-16 09:49:04","orgNo":"3340170","typeCode":"电网故障停限电","poweroffArea":"110kV银湖变:白泥D226线-白泥D2261开关后段","poweroffReason":"高压开关跳闸","powerTime":"2019-11-16 09:17:38","powerComm":"已送电","subsNo":"","lineNo":"","tgNo":"","tgName":null,"infoStatus":"1","orgName":"国网浙江杭州市富阳区供电公司","typeName":null,"infoStatusName":null,"dateDay":null,"orgNos":null,"nowTime":null,"countyName":null,"streetName":null,"villageName":null,"roadName":null,"communityName":null,"tranName":null,"sdLineName":null,"cityCode":"3340170","cityName":"国网浙江杭州市富阳区供电公司","provinceCode":null,"stopTime":"2019-11-16 09:49:04","powerType":"全部","powerOffArea":"110kV银湖变:白泥D226线-白泥D2261开关后段","powerOffReason":"高压开关跳闸","powerOffId":"2019111631020043"}],"pageModel":{"pageNow":849,"totalCount":17789,"totalPage":1779,"tableRows":0,"pageCount":10,"beginCount":8480},"isExperi":"1"}