{"message":"","today":"2020-06-15","seleList":[{"poweroffId":2019111631020041,"sgpoweroffId":null,"subsName":"","lineName":"10kV十月D225线","pubTranName":"沈家坞4#小沈家坞公变,筱岭村4#村口公变,杭州迪坤市政建设有限公司,浙江永耀文化旅游发展有限公司1#变,沈家坞6#骆家岭公变,峡岭村1#公变,沈家坞村7#外小沈家坞公变,沈家坞村10号里村上公变,富阳市高桥镇进祥石粉经营部,杭州富阳志康科技有限公司 1#,杭州凌正建设工程有限公司1#变,杭州瑞儒科技有限公司1#变,沈家坞5#里村公变1,筱岭村2#火巴山公变,坑西村4#外坑西公变,坑西村筱岭横路头5#公变,沈家坞村9#里村口公变,杭州市富阳区天水教育培训学校1#变,峡岭村3号周家坛公变,筱岭村1#中村公变,沈家坞3#夏家岭公变,浙江华新交通工程有限公司,坑西村峡岭5号夕阳坞口公变,坑西村3号里坑西公变,杭州垚金锌业有限公司,富阳高桥峡岭混凝土制品厂,坑西村2#公变,沈家坞2#外村公变,坑西村1#集镇公变,杭州凌正建设工程有限公司2#变,峡岭村2#夕阳坞公变,富阳市新建水泥机械有限公司,沈家坞1号坑东公变,杭州顺茂实业有限公司,杭州舜仁沥青砼工程有限公司,沈家坞7#骆家岭顶公变,杭州市富阳区天水教育培训学校2#变,沈家坞部队,杭州权峰环保建材有限公司1#变,筱岭村3号下村公变,杭州蚕种场,坑西村峡岭4号峡岭顶公变,沈家坞11号外村泥鳅岗公变,","scope":"浙江省-杭州市-富阳区-银湖街道-沈家坞行政村(外沈家坞自然村,沈家坞自然村,里沈家坞自然村,骆家岭自然村,筱岭自然村,坑东自然村),银湖街道-坑西行政村(坑西自然村,峡岭自然村,筱岭自然村,里坑西自然村,外坑西自然村,周家谭自然村),银湖街道(金竺行政村-上浒自然村,高桥行政村-高桥自然村);浙江省-杭州市-富阳区-银湖街道-杭州权峰环保建材有限公司,银湖街道-沈家坞行政村(浙江华新交通工程有限公司,杭州垚金锌业有限公司,富阳市高桥镇进祥石粉经营部,杭州市富阳区天水教育培训学校,杭州顺茂实业有限公司,杭州富阳舒力科技有限公司,杭州瑞儒科技有限公司),银湖街道-坑西行政村(沈家坞部队,杭州迪坤市政建设有限公司,杭州市蚕桑技术推广总站,杭州凌正建设工程有限公司,杭州舜仁沥青砼工程有限公司,杭州富阳新建机械有限公司,富阳高桥峡岭混凝土制品厂,浙江永耀文化旅游发展有限公司)","startTime":"2019-11-16 08:47:21","stopDate":"2019-11-16 09:47:21","orgNo":"3340170","typeCode":"电网故障停限电","poweroffArea":"110kV银湖变:十月D225线-十月D2251开关后段","poweroffReason":"高压开关跳闸","powerTime":"2019-11-16 09:17:18","powerComm":"已送电","subsNo":"","lineNo":"","tgNo":"","tgName":null,"infoStatus":"1","orgName":"国网浙江杭州市富阳区供电公司","typeName":null,"infoStatusName":null,"dateDay":null,"orgNos":null,"nowTime":null,"countyName":null,"streetName":null,"villageName":null,"roadName":null,"communityName":null,"tranName":null,"sdLineName":null,"cityCode":"3340170","cityName":"国网浙江杭州市富阳区供电公司","provinceCode":null,"stopTime":"2019-11-16 09:47:21","powerType":"全部","powerOffArea":"110kV银湖变:十月D225线-十月D2251开关后段","powerOffReason":"高压开关跳闸","powerOffId":"2019111631020041"},{"poweroffId":2019111631020013,"sgpoweroffId":null,"subsName":"","lineName":"10kV陶春H558线","pubTranName":"倪家排,潘板陶村桥村（大草畈）6110116048,姚家排1,老虎墩,求是村陶村桥公变,杭州余杭求是股份经济合作社（排涝）6120812436,求是村陶村桥中村公变,前溪村陈坝畈公变,杭州余杭农林径山经营有限公司（蚕种场2）6111002533,中森金属拉丝厂（速森电缆）,杭州余杭农林径山经营有限公司（天宝蚕种）6110118072,求是村苏家头公变,前溪村招家堰公变,前溪村袁家公变,前溪村杨家村公变,前溪村陈其畈公变,前溪村倪家头公变,陶春排,杭州余杭太平山股份经济合作社（军马场）6110116043,浙江鼎盛交通建设有限公司6120816094,径山镇政府（罗家头排）6110103030,前溪村李家村公变,求是村陶村桥下村公变,求是村陶村桥上村公变,求是村罗介头公变,求是村喻家头公变,","scope":"浙江省-杭州市-余杭区-径山镇-前溪行政村(前溪自然村,袁家桥自然村,李上自然村,陈基畈自然村,景子畈自然村,百步自然村,倪家头自然村,陈家头自然村,秦家墩自然村,王家墩自然村,崇阳庙自然村),径山镇-求是行政村(陶桥自然村,求是自然村,罗家头自然村,下自然村,上自然村,下东组自然村),径山镇(径山行政村-径山自然村,潘坂桥行政村-潘坂桥自然村);径山镇(杭州余杭农林径山经营有限公司,杭州余杭太平山股份经济合作社,潘板陶村桥村,杭州市余杭区径山镇人民政府,杭州余杭求是股份经济合作社,浙江鼎盛交通建设有限公司,径山镇政府,杭州速森材料有限公司,杭州余杭前溪股份经济合作社,潘板排涝站)一带","startTime":"2019-11-16 06:59:00","stopDate":"2019-11-16 09:24:00","orgNo":"3340140","typeCode":"电网故障停限电","poweroffArea":"110kV潘板变:陶春H558线陶春H558线倪家头分线开关后段","poweroffReason":"高压开关跳闸","powerTime":"2019-11-16 08:49:00","powerComm":"已送电","subsNo":"","lineNo":"","tgNo":"","tgName":null,"infoStatus":"1","orgName":"国网浙江杭州市余杭区供电有限公司","typeName":null,"infoStatusName":null,"dateDay":null,"orgNos":null,"nowTime":null,"countyName":null,"streetName":null,"villageName":null,"roadName":null,"communityName":null,"tranName":null,"sdLineName":null,"cityCode":"3340140","cityName":"国网浙江杭州市余杭区供电有限公司","provinceCode":null,"stopTime":"2019-11-16 09:24:00","powerType":"全部","powerOffArea":"110kV潘板变:陶春H558线陶春H558线倪家头分线开关后段","powerOffReason":"高压开关跳闸","powerOffId":"2019111631020013"},{"poweroffId":2019111631020012,"sgpoweroffId":null,"subsName":"","lineName":"10kV十月D225线","pubTranName":"坑西村2#公变,","scope":"浙江省-杭州市-富阳区-银湖街道-坑西行政村-坑西自然村","startTime":"2019-11-16 07:03:54","stopDate":"2019-11-16 09:03:54","orgNo":"3340170","typeCode":"电网故障停限电","poweroffArea":"110kV银湖变:十月D225线-坑西村2#公变后段","poweroffReason":"高压开关跳闸","powerTime":"2019-11-16 08:38:39","powerComm":"已送电","subsNo":"","lineNo":"","tgNo":"","tgName":null,"infoStatus":"1","orgName":"国网浙江杭州市富阳区供电公司","typeName":null,"infoStatusName":null,"dateDay":null,"orgNos":null,"nowTime":null,"countyName":null,"streetName":null,"villageName":null,"roadName":null,"communityName":null,"tranName":null,"sdLineName":null,"cityCode":"3340170","cityName":"国网浙江杭州市富阳区供电公司","provinceCode":null,"stopTime":"2019-11-16 09:03:54","powerType":"全部","powerOffArea":"110kV银湖变:十月D225线-坑西村2#公变后段","powerOffReason":"高压开关跳闸","powerOffId":"2019111631020012"},{"poweroffId":2019111631020011,"sgpoweroffId":null,"subsName":"","lineName":"10kV贤德D333线","pubTranName":"贤德村7#施家公变,文村村5#天井山公变,大溪村5#姚宅公变,查口村4#袁家公变,文村村8#巨龙赤水坞公变,贤德村11#赤山坞公变,贤德村14号俞家公变,贤德村15#农居点公变,神火仪表机床厂,大溪村2#堰头公变,贤德村5#黄家公变,文村村3#中华公变,查口村10#西坞里公变,文村9#石亭子公变,富阳市华强纸业有限公司,贤德村12#罗家坞公变,新马工具,小洪五金厂,查口村7#桥头坞公变,文村村4#高路山公变,文村村14#翁村头公变,文村村6#巨龙郎家公变,贤德村1#麻列湾公变,大溪村14#藏马突公变,贤德村4号叶家公变,贤德村6#大年坞公变,贤德村3#槐花坞公变,查口村9#文昌阁公变,文村村13#民宿公变,文村村10#大磨弯公变,文村村7#巨龙剪家坞公变,查口村6#太阳坞公变,查口村8#告坞公变,文村村1#红母岭公变,贤德村13#吕公公变,查口村2#徐家公变,查口村1号俞家公变,杭州青少年活动中心3#变,贤德村8#兰青殿公变,开兴绝缘件厂,查口村5号黄泥凸公变,富常流量1#变,杭州青少年活动中心1#变,贤德村10#何村坞公变,文村村12#塘尖坞公变,大溪村3#中堂畈公变,贤德村9#宜桥头公变,贤德村2#太见坞公变,大溪村12#大坞毛山公变,富阳文达机械配件厂,大溪村11#大坞何家公变,查口村3#黄家公变,杭州青少年活动中心4#变,大溪村6#岭脚跟公变,杭州青少年活动中心2#变,文村2#文村公变,文村村11#对山公变,","scope":"浙江省-杭州市-富阳区-洞桥镇-三溪行政村-枫林自然村,洞桥镇-查口行政村(石门坞自然村,查口自然村,黄家自然村,俞家自然村,黄泥凸自然村,徐家自然村,袁家自然村,查源自然村,告坞自然村,外石门坞自然村,里石门坞自然村,太阳坞自然村,上车畈自然村,巧坑自然村,深坞里自然村,下徐家自然村,农居点自然村),洞桥镇-大溪行政村(大坞何家自然村,岭落坞自然村,毛山上自然村,方家自然村,大坞方家自然村,堰头自然村,姚宅自然村,俞家山自然村,大坞自然村,岭脚跟自然村,里井坞自然村,何家自然村,大溪自然村,中堂畈自然村,中塘畈自然村,文河自然村,东畈自然村,潘畈自然村),洞桥镇-洞桥行政村(文村自然村,范家自然村),洞桥镇-文村行政村(文村自然村,赤水坞自然村,巨龙自然村,石亭子自然村,高陈家自然村,缪家自然村,高路山自然村,中华自然村,红母岭自然村,王母岭自然村,对山自然村,翁村自然村),洞桥镇-贤德行政村(黄家自然村,吕公自然村,中塘寺自然村,农居点自然村,罗家坞自然村,麻立湾自然村,何村坞自然村,大源坞自然村,叶家自然村,吕公岩自然村,俞家自然村,杨家自然村,贤德自然村,宜桥头自然村,太宰坞自然村,仁阮自然村,下施家自然村,槐花坞自然村,大年坞自然村,石头湾自然村,黄泥凸自然村,兰青殿自然村);洞桥镇(富阳市华强纸业有限公司,浙江神火机床有限公司,杭州富阳小洪五金热处理有限公司,杭州富阳文达机械配件厂,杭州富阳新马工具有限公司,杭州(国际)青少年洞桥营地,杭州富阳开兴绝缘材料有限公司,杭州富阳富常流量仪表厂)","startTime":"2019-11-16 06:46:26","stopDate":"2019-11-16 09:01:00","orgNo":"3340170","typeCode":"电网故障停限电","poweroffArea":"110kV万市变:贤德D333线贤德3333开关后段","poweroffReason":"高压开关跳闸 原停电结束时间为2019-11-16 08:01:00,因施工困难原因,现变更停电结束时间为2019-11-16 09:01:00","powerTime":"2019-11-16 08:33:39","powerComm":"已送电","subsNo":"","lineNo":"","tgNo":"","tgName":null,"infoStatus":"1","orgName":"国网浙江杭州市富阳区供电公司","typeName":null,"infoStatusName":null,"dateDay":null,"orgNos":null,"nowTime":null,"countyName":null,"streetName":null,"villageName":null,"roadName":null,"communityName":null,"tranName":null,"sdLineName":null,"cityCode":"3340170","cityName":"国网浙江杭州市富阳区供电公司","provinceCode":null,"stopTime":"2019-11-16 09:01:00","powerType":"全部","powerOffArea":"110kV万市变:贤德D333线贤德3333开关后段","powerOffReason":"高压开关跳闸 原停电结束时间为2019-11-16 08:01:00,因施工困难原因,现变更停电结束时间为2019-11-16 09:01:00","powerOffId":"2019111631020011"},{"poweroffId":2019111531020685,"sgpoweroffId":null,"subsName":"","lineName":"10kV店基V401线","pubTranName":"雅园村[兴禹街]公变,","scope":"浙江省-杭州市-临安市-玲珑街道-雅园行政村(兴禹街,孙家头自然村,店基头自然村)","startTime":"2019-11-15 17:55:00","stopDate":"2019-11-15 19:23:00","orgNo":"3340160","typeCode":"电网故障停限电","poweroffArea":"110kV秀水变:店基V401线雅园村[兴禹街]公变配变","poweroffReason":"高压开关跳闸","powerTime":"2019-11-15 18:39:37","powerComm":"已送电","subsNo":"","lineNo":"","tgNo":"","tgName":null,"infoStatus":"1","orgName":"国网浙江临安市供电公司","typeName":null,"infoStatusName":null,"dateDay":null,"orgNos":null,"nowTime":null,"countyName":null,"streetName":null,"villageName":null,"roadName":null,"communityName":null,"tranName":null,"sdLineName":null,"cityCode":"3340160","cityName":"国网浙江临安市供电公司","provinceCode":null,"stopTime":"2019-11-15 19:23:00","powerType":"全部","powerOffArea":"110kV秀水变:店基V401线雅园村[兴禹街]公变配变","powerOffReason":"高压开关跳闸","powerOffId":"2019111531020685"},{"poweroffId":2019111531020675,"sgpoweroffId":null,"subsName":"","lineName":"10kV高坎V150线","pubTranName":"夏禹桥村[夏禹桥]公变,杭州临安金盛泰箔带有限公司,杭州市临安区玲珑元墅颐养院1#,","scope":"浙江省-杭州市-临安市-玲珑街道-夏禹桥行政村(夏禹桥自然村,冯家头自然村);玲珑街道(杭州临安金盛泰箔带有限公司,)","startTime":"2019-11-15 17:44:00","stopDate":"2019-11-15 19:23:00","orgNo":"3340160","typeCode":"电网故障停限电","poweroffArea":"110kV夏禹变:高坎V150线1501开关后段","poweroffReason":"高压开关跳闸","powerTime":"2019-11-15 18:38:51","powerComm":"已送电","subsNo":"","lineNo":"","tgNo":"","tgName":null,"infoStatus":"1","orgName":"国网浙江临安市供电公司","typeName":null,"infoStatusName":null,"dateDay":null,"orgNos":null,"nowTime":null,"countyName":null,"streetName":null,"villageName":null,"roadName":null,"communityName":null,"tranName":null,"sdLineName":null,"cityCode":"3340160","cityName":"国网浙江临安市供电公司","provinceCode":null,"stopTime":"2019-11-15 19:23:00","powerType":"全部","powerOffArea":"110kV夏禹变:高坎V150线1501开关后段","powerOffReason":"高压开关跳闸","powerOffId":"2019111531020675"},{"poweroffId":2019111531020625,"sgpoweroffId":null,"subsName":"","lineName":"10kV天星D441线","pubTranName":"4#变,","scope":"浙江省-杭州市-富阳区-春江街道-山建行政村-杭州三星纸业有限公司一带","startTime":"2019-11-28 06:30:00","stopDate":"2019-11-28 23:00:00","orgNo":"3340170","typeCode":"计划停电","poweroffArea":"110kV天钟变:天星D441线-杭州三星纸业有限公司站内开关后段","poweroffReason":"配合110kV天钟变#1主变、10kVI段母线停电检修","powerTime":"2019-11-28 22:22:13","powerComm":"已送电","subsNo":"","lineNo":"","tgNo":"","tgName":null,"infoStatus":"1","orgName":"国网浙江杭州市富阳区供电公司","typeName":null,"infoStatusName":null,"dateDay":null,"orgNos":null,"nowTime":null,"countyName":null,"streetName":null,"villageName":null,"roadName":null,"communityName":null,"tranName":null,"sdLineName":null,"cityCode":"3340170","cityName":"国网浙江杭州市富阳区供电公司","provinceCode":null,"stopTime":"2019-11-28 23:00:00","powerType":"全部","powerOffArea":"110kV天钟变:天星D441线-杭州三星纸业有限公司站内开关后段","powerOffReason":"配合110kV天钟变#1主变、10kVI段母线停电检修","powerOffId":"2019111531020625"},{"poweroffId":2019111531020623,"sgpoweroffId":null,"subsName":"","lineName":"10kV天亨D440线","pubTranName":"4#变,","scope":"浙江省-杭州市-富阳区-春江街道-临江行政村-杭州富亨纸业有限公司一带","startTime":"2019-11-28 06:30:00","stopDate":"2019-11-28 23:00:00","orgNo":"3340170","typeCode":"计划停电","poweroffArea":"110kV天钟变:天亨D440线-杭州富亨纸业有限公司站内开关后段","poweroffReason":"配合110kV天钟变#1主变、10kVI段母线停电检修","powerTime":"2019-11-28 22:22:02","powerComm":"已送电","subsNo":"","lineNo":"","tgNo":"","tgName":null,"infoStatus":"1","orgName":"国网浙江杭州市富阳区供电公司","typeName":null,"infoStatusName":null,"dateDay":null,"orgNos":null,"nowTime":null,"countyName":null,"streetName":null,"villageName":null,"roadName":null,"communityName":null,"tranName":null,"sdLineName":null,"cityCode":"3340170","cityName":"国网浙江杭州市富阳区供电公司","provinceCode":null,"stopTime":"2019-11-28 23:00:00","powerType":"全部","powerOffArea":"110kV天钟变:天亨D440线-杭州富亨纸业有限公司站内开关后段","powerOffReason":"配合110kV天钟变#1主变、10kVI段母线停电检修","powerOffId":"2019111531020623"},{"poweroffId":2019111531020622,"sgpoweroffId":null,"subsName":"","lineName":"10kV广源D891线","pubTranName":"杭州富阳江南新城物业管理有限公司1号变,","scope":"浙江省-杭州市-富阳区-灵桥镇-杭州富阳江南新城物业管理有限公司一带","startTime":"2019-11-25 07:00:00","stopDate":"2019-11-25 14:30:00","orgNo":"3340170","typeCode":"计划停电","poweroffArea":"110kV永春变:广源D891线-杭州富阳江南新城物业管理有限公司用户侧开关后段","poweroffReason":"配合用户内部检修","powerTime":"","powerComm":"","subsNo":"","lineNo":"","tgNo":"","tgName":null,"infoStatus":"1","orgName":"国网浙江杭州市富阳区供电公司","typeName":null,"infoStatusName":null,"dateDay":null,"orgNos":null,"nowTime":null,"countyName":null,"streetName":null,"villageName":null,"roadName":null,"communityName":null,"tranName":null,"sdLineName":null,"cityCode":"3340170","cityName":"国网浙江杭州市富阳区供电公司","provinceCode":null,"stopTime":"2019-11-25 14:30:00","powerType":"未送电","powerOffArea":"110kV永春变:广源D891线-杭州富阳江南新城物业管理有限公司用户侧开关后段","powerOffReason":"配合用户内部检修","powerOffId":"2019111531020622"},{"poweroffId":2019111531020617,"sgpoweroffId":null,"subsName":"","lineName":"10kV水和H526线","pubTranName":"瓶窑总工会,","scope":"浙江省杭州市余杭区瓶窑镇：杭州市余杭区总工会一带","startTime":"2019-11-28 09:10:00","stopDate":"2019-11-28 14:10:00","orgNo":"3340140","typeCode":"计划停电","poweroffArea":"110kV凤山变:水和H526线瓶窑总工会分线2号杆开关后段","poweroffReason":"计划工作 原停电结束时间为2019-11-28 16:40:00,为减少客户停电时间,加快工作进度,提前送电,现变更停电结束时间为2019-11-28 14:10:00","powerTime":"2019-11-28 13:52:51","powerComm":"已送电","subsNo":"","lineNo":"","tgNo":"","tgName":null,"infoStatus":"1","orgName":"国网浙江杭州市余杭区供电有限公司","typeName":null,"infoStatusName":null,"dateDay":null,"orgNos":null,"nowTime":null,"countyName":null,"streetName":null,"villageName":null,"roadName":null,"communityName":null,"tranName":null,"sdLineName":null,"cityCode":"3340140","cityName":"国网浙江杭州市余杭区供电有限公司","provinceCode":null,"stopTime":"2019-11-28 14:10:00","powerType":"全部","powerOffArea":"110kV凤山变:水和H526线瓶窑总工会分线2号杆开关后段","powerOffReason":"计划工作 原停电结束时间为2019-11-28 16:40:00,为减少客户停电时间,加快工作进度,提前送电,现变更停电结束时间为2019-11-28 14:10:00","powerOffId":"2019111531020617"}],"pageModel":{"pageNow":850,"totalCount":17789,"totalPage":1779,"tableRows":0,"pageCount":10,"beginCount":8490},"isExperi":"1"}