{"message":"","today":"2020-06-15","seleList":[{"poweroffId":2019111531020615,"sgpoweroffId":null,"subsName":"","lineName":"10kV精工H529线","pubTranName":"华兴社区桃园4号公变,华兴社区桃园6号公变,华兴社区桃园5号公变,华兴社区桃园2号公变,华兴社区桃园1号公变,华兴社区桃园7号公变,华兴社区桃园3号公变,","scope":"浙江省杭州市余杭区瓶窑镇：华兴社区桃园一带","startTime":"2019-11-27 08:40:00","stopDate":"2019-11-27 16:30:00","orgNo":"3340140","typeCode":"计划停电","poweroffArea":"110kV凤山变:精精工H529线桃园分线1号杆真空开关后段","poweroffReason":"计划工作 原停电结束时间为2019-11-27 13:40:00,因下雨影响施工进度原因,现变更停电结束时间为2019-11-27 16:30:00","powerTime":"2019-11-27 16:06:04","powerComm":"已送电","subsNo":"","lineNo":"","tgNo":"","tgName":null,"infoStatus":"1","orgName":"国网浙江杭州市余杭区供电有限公司","typeName":null,"infoStatusName":null,"dateDay":null,"orgNos":null,"nowTime":null,"countyName":null,"streetName":null,"villageName":null,"roadName":null,"communityName":null,"tranName":null,"sdLineName":null,"cityCode":"3340140","cityName":"国网浙江杭州市余杭区供电有限公司","provinceCode":null,"stopTime":"2019-11-27 16:30:00","powerType":"全部","powerOffArea":"110kV凤山变:精精工H529线桃园分线1号杆真空开关后段","powerOffReason":"计划工作 原停电结束时间为2019-11-27 13:40:00,因下雨影响施工进度原因,现变更停电结束时间为2019-11-27 16:30:00","powerOffId":"2019111531020615"},{"poweroffId":2019111531020601,"sgpoweroffId":null,"subsName":"","lineName":"10kV立新D124线","pubTranName":"茶店弄1#公变,","scope":"浙江省-杭州市-富阳区-新登镇-惠来社区(工厂路,叶家弄),新登镇(共和行政村-共和北路,塔山行政村-工厂路)","startTime":"2019-11-15 16:31:00","stopDate":"2019-11-15 20:31:00","orgNo":"3340170","typeCode":"电网故障停限电","poweroffArea":"110kV新登变:立新D124线茶店弄1#公变配变","poweroffReason":"高压开关跳闸","powerTime":"2019-11-15 19:38:37","powerComm":"已送电","subsNo":"","lineNo":"","tgNo":"","tgName":null,"infoStatus":"1","orgName":"国网浙江杭州市富阳区供电公司","typeName":null,"infoStatusName":null,"dateDay":null,"orgNos":null,"nowTime":null,"countyName":null,"streetName":null,"villageName":null,"roadName":null,"communityName":null,"tranName":null,"sdLineName":null,"cityCode":"3340170","cityName":"国网浙江杭州市富阳区供电公司","provinceCode":null,"stopTime":"2019-11-15 20:31:00","powerType":"全部","powerOffArea":"110kV新登变:立新D124线茶店弄1#公变配变","powerOffReason":"高压开关跳闸","powerOffId":"2019111531020601"},{"poweroffId":2019111531020595,"sgpoweroffId":null,"subsName":"","lineName":"10kV雨荷G792线","pubTranName":"乾元村假山前,","scope":"浙江省杭州市余杭区运河街道：乾元村假山前一带","startTime":"2019-12-01 08:00:00","stopDate":"2019-12-01 12:00:00","orgNo":"3340140","typeCode":"计划停电","poweroffArea":"110kV建富变:庄湾G817线-贾山前后段","poweroffReason":"乾元村假山前公变调换计量箱、调换电缆1根 原停电结束时间为2019-12-01 14:00:00,为减少客户停电时间,加快工作进度,提前送电,现变更停电结束时间为2019-12-01 12:00:00","powerTime":"2019-12-01 11:45:00","powerComm":"已送电","subsNo":"","lineNo":"","tgNo":"","tgName":null,"infoStatus":"1","orgName":"国网浙江杭州市余杭区供电有限公司","typeName":null,"infoStatusName":null,"dateDay":null,"orgNos":null,"nowTime":null,"countyName":null,"streetName":null,"villageName":null,"roadName":null,"communityName":null,"tranName":null,"sdLineName":null,"cityCode":"3340140","cityName":"国网浙江杭州市余杭区供电有限公司","provinceCode":null,"stopTime":"2019-12-01 12:00:00","powerType":"全部","powerOffArea":"110kV建富变:庄湾G817线-贾山前后段","powerOffReason":"乾元村假山前公变调换计量箱、调换电缆1根 原停电结束时间为2019-12-01 14:00:00,为减少客户停电时间,加快工作进度,提前送电,现变更停电结束时间为2019-12-01 12:00:00","powerOffId":"2019111531020595"},{"poweroffId":2019111531020592,"sgpoweroffId":null,"subsName":"","lineName":"10kV家河G933线","pubTranName":"工农村王家埭公变,","scope":"浙江省杭州市余杭区运河街道：王家埭一带","startTime":"2019-12-01 08:00:00","stopDate":"2019-12-01 11:00:00","orgNo":"3340140","typeCode":"计划停电","poweroffArea":"110kV亭趾变:家河G933线-王家埭后段","poweroffReason":"工农村王家埭公变调换计量箱 原停电结束时间为2019-12-01 12:00:00,为减少客户停电时间,加快工作进度,提前送电,现变更停电结束时间为2019-12-01 11:00:00","powerTime":"2019-12-01 10:30:00","powerComm":"已送电","subsNo":"","lineNo":"","tgNo":"","tgName":null,"infoStatus":"1","orgName":"国网浙江杭州市余杭区供电有限公司","typeName":null,"infoStatusName":null,"dateDay":null,"orgNos":null,"nowTime":null,"countyName":null,"streetName":null,"villageName":null,"roadName":null,"communityName":null,"tranName":null,"sdLineName":null,"cityCode":"3340140","cityName":"国网浙江杭州市余杭区供电有限公司","provinceCode":null,"stopTime":"2019-12-01 11:00:00","powerType":"全部","powerOffArea":"110kV亭趾变:家河G933线-王家埭后段","powerOffReason":"工农村王家埭公变调换计量箱 原停电结束时间为2019-12-01 12:00:00,为减少客户停电时间,加快工作进度,提前送电,现变更停电结束时间为2019-12-01 11:00:00","powerOffId":"2019111531020592"},{"poweroffId":2019111531020590,"sgpoweroffId":null,"subsName":"","lineName":"10kV美程G764线","pubTranName":"荷花小区2#公变,","scope":"浙江省杭州市余杭区东湖街道：荷花小区一带","startTime":"2019-11-27 08:00:00","stopDate":"2019-11-27 12:00:00","orgNo":"3340140","typeCode":"计划停电","poweroffArea":"110kV金家变:美程G764线-荷花小区二号后段","poweroffReason":"荷花小区二号公变调换计量箱","powerTime":"2019-11-27 11:15:00","powerComm":"已送电","subsNo":"","lineNo":"","tgNo":"","tgName":null,"infoStatus":"1","orgName":"国网浙江杭州市余杭区供电有限公司","typeName":null,"infoStatusName":null,"dateDay":null,"orgNos":null,"nowTime":null,"countyName":null,"streetName":null,"villageName":null,"roadName":null,"communityName":null,"tranName":null,"sdLineName":null,"cityCode":"3340140","cityName":"国网浙江杭州市余杭区供电有限公司","provinceCode":null,"stopTime":"2019-11-27 12:00:00","powerType":"全部","powerOffArea":"110kV金家变:美程G764线-荷花小区二号后段","powerOffReason":"荷花小区二号公变调换计量箱","powerOffId":"2019111531020590"},{"poweroffId":2019111531020583,"sgpoweroffId":null,"subsName":"","lineName":"10kV万兴D675线","pubTranName":"新联村4#园区公变,","scope":"浙江省-杭州市-富阳区-春江街道-新联村一带","startTime":"2019-11-27 00:05:00","stopDate":"2019-11-27 01:05:00","orgNo":"3340170","typeCode":"计划停电","poweroffArea":"110kV临江变:万兴D675线-新联村4#园区公变开关后段","poweroffReason":"低压负荷转供，原开始时间为2019-11-26 23:00:00,因政策原因,现变更开始时间为2019-11-27 00:05:00。原停电结束时间为2019-11-26 23:59:00,因政策原因,现变更结束时间为2019-11-27 01:05:00","powerTime":"2019-11-27 00:52:16","powerComm":"已送电","subsNo":"","lineNo":"","tgNo":"","tgName":null,"infoStatus":"1","orgName":"国网浙江杭州市富阳区供电公司","typeName":null,"infoStatusName":null,"dateDay":null,"orgNos":null,"nowTime":null,"countyName":null,"streetName":null,"villageName":null,"roadName":null,"communityName":null,"tranName":null,"sdLineName":null,"cityCode":"3340170","cityName":"国网浙江杭州市富阳区供电公司","provinceCode":null,"stopTime":"2019-11-27 01:05:00","powerType":"全部","powerOffArea":"110kV临江变:万兴D675线-新联村4#园区公变开关后段","powerOffReason":"低压负荷转供，原开始时间为2019-11-26 23:00:00,因政策原因,现变更开始时间为2019-11-27 00:05:00。原停电结束时间为2019-11-26 23:59:00,因政策原因,现变更结束时间为2019-11-27 01:05:00","powerOffId":"2019111531020583"},{"poweroffId":2019111531020582,"sgpoweroffId":null,"subsName":"","lineName":"10kV万兴D675线","pubTranName":"华共村2#上沈家公变,","scope":"浙江省-杭州市-富阳区-春江街道-华共村一带","startTime":"2019-11-27 00:05:00","stopDate":"2019-11-27 01:05:00","orgNo":"3340170","typeCode":"计划停电","poweroffArea":"110kV临江变:万兴D675线-华共村2#上沈家公变开关后段","poweroffReason":"低压负荷转供 ，原开始时间为2019-11-26 23:00:00,因政策原因,现变更开始时间为2019-11-27 00:05:00。原结束时间为2019-11-26 23:59:00,因政策原因,现变更结束时间为2019-11-27 01:05:00","powerTime":"2019-11-27 00:51:57","powerComm":"已送电","subsNo":"","lineNo":"","tgNo":"","tgName":null,"infoStatus":"1","orgName":"国网浙江杭州市富阳区供电公司","typeName":null,"infoStatusName":null,"dateDay":null,"orgNos":null,"nowTime":null,"countyName":null,"streetName":null,"villageName":null,"roadName":null,"communityName":null,"tranName":null,"sdLineName":null,"cityCode":"3340170","cityName":"国网浙江杭州市富阳区供电公司","provinceCode":null,"stopTime":"2019-11-27 01:05:00","powerType":"全部","powerOffArea":"110kV临江变:万兴D675线-华共村2#上沈家公变开关后段","powerOffReason":"低压负荷转供 ，原开始时间为2019-11-26 23:00:00,因政策原因,现变更开始时间为2019-11-27 00:05:00。原结束时间为2019-11-26 23:59:00,因政策原因,现变更结束时间为2019-11-27 01:05:00","powerOffId":"2019111531020582"},{"poweroffId":2019111531020580,"sgpoweroffId":null,"subsName":"","lineName":"10kV浙明D682线","pubTranName":"浙江万众纸业有限公司1#,","scope":"浙江省-杭州市-富阳区-春江街道-山建行政村-浙江万众纸业有限公司一带","startTime":"2019-11-26 06:30:00","stopDate":"2019-11-26 23:00:00","orgNo":"3340170","typeCode":"计划停电","poweroffArea":"110kV临江变:浙明D682线-浙江万众纸业有限公司站内开关后段","poweroffReason":"配合110kV临江变#1主变、10kVI段母线停电检修","powerTime":"","powerComm":"","subsNo":"","lineNo":"","tgNo":"","tgName":null,"infoStatus":"1","orgName":"国网浙江杭州市富阳区供电公司","typeName":null,"infoStatusName":null,"dateDay":null,"orgNos":null,"nowTime":null,"countyName":null,"streetName":null,"villageName":null,"roadName":null,"communityName":null,"tranName":null,"sdLineName":null,"cityCode":"3340170","cityName":"国网浙江杭州市富阳区供电公司","provinceCode":null,"stopTime":"2019-11-26 23:00:00","powerType":"未送电","powerOffArea":"110kV临江变:浙明D682线-浙江万众纸业有限公司站内开关后段","powerOffReason":"配合110kV临江变#1主变、10kVI段母线停电检修","powerOffId":"2019111531020580"},{"poweroffId":2019111531020577,"sgpoweroffId":null,"subsName":"","lineName":"10kV天地D681线","pubTranName":"3#变,1#变,","scope":"浙江省-杭州市-富阳区-春江街道-临江行政村-杭州富阳天地造纸实业有限公司一带","startTime":"2019-11-26 06:30:00","stopDate":"2019-11-26 23:00:00","orgNo":"3340170","typeCode":"计划停电","poweroffArea":"110kV临江变:天地D681线-富阳天地造纸实业10kV进线后段;天地D681线-杭州富阳天地造纸实业有限公司站内开关后段","poweroffReason":"配合110kV临江变#1主变、10kVI段母线停电检修","powerTime":"2019-11-26 22:46:54","powerComm":"已送电","subsNo":"","lineNo":"","tgNo":"","tgName":null,"infoStatus":"1","orgName":"国网浙江杭州市富阳区供电公司","typeName":null,"infoStatusName":null,"dateDay":null,"orgNos":null,"nowTime":null,"countyName":null,"streetName":null,"villageName":null,"roadName":null,"communityName":null,"tranName":null,"sdLineName":null,"cityCode":"3340170","cityName":"国网浙江杭州市富阳区供电公司","provinceCode":null,"stopTime":"2019-11-26 23:00:00","powerType":"全部","powerOffArea":"110kV临江变:天地D681线-富阳天地造纸实业10kV进线后段;天地D681线-杭州富阳天地造纸实业有限公司站内开关后段","powerOffReason":"配合110kV临江变#1主变、10kVI段母线停电检修","powerOffId":"2019111531020577"},{"poweroffId":2019111531020576,"sgpoweroffId":null,"subsName":"","lineName":"10kV盈泰D679线","pubTranName":"3#变,","scope":"浙江省-杭州市-富阳区-春江街道-临江行政村-杭州富阳盈泰纸业有限公司一带","startTime":"2019-11-26 06:30:00","stopDate":"2019-11-26 23:00:00","orgNo":"3340170","typeCode":"计划停电","poweroffArea":"110kV临江变:盈泰D679线-杭州富阳盈泰纸业有限公司站内开关后段","poweroffReason":"配合110kV临江变#1主变、10kVI段母线停电检修","powerTime":"","powerComm":"","subsNo":"","lineNo":"","tgNo":"","tgName":null,"infoStatus":"1","orgName":"国网浙江杭州市富阳区供电公司","typeName":null,"infoStatusName":null,"dateDay":null,"orgNos":null,"nowTime":null,"countyName":null,"streetName":null,"villageName":null,"roadName":null,"communityName":null,"tranName":null,"sdLineName":null,"cityCode":"3340170","cityName":"国网浙江杭州市富阳区供电公司","provinceCode":null,"stopTime":"2019-11-26 23:00:00","powerType":"未送电","powerOffArea":"110kV临江变:盈泰D679线-杭州富阳盈泰纸业有限公司站内开关后段","powerOffReason":"配合110kV临江变#1主变、10kVI段母线停电检修","powerOffId":"2019111531020576"}],"pageModel":{"pageNow":851,"totalCount":17789,"totalPage":1779,"tableRows":0,"pageCount":10,"beginCount":8500},"isExperi":"1"}