{"message":"","today":"2020-06-15","seleList":[{"poweroffId":2019111531020531,"sgpoweroffId":null,"subsName":"","lineName":"10kV马啸V262线","pubTranName":"湖门村同山下门,","scope":"浙江省-杭州市-临安市-清凉峰镇-湖门村同山下门一带。","startTime":"2019-11-27 12:30:00","stopDate":"2019-11-27 15:30:00","orgNo":"3340160","typeCode":"计划停电","poweroffArea":"35kV颊口变:马啸V262线-湖门村同山下门配变","poweroffReason":"低压改造","powerTime":"2019-11-27 15:20:09","powerComm":"已送电","subsNo":"","lineNo":"","tgNo":"","tgName":null,"infoStatus":"1","orgName":"国网浙江临安市供电公司","typeName":null,"infoStatusName":null,"dateDay":null,"orgNos":null,"nowTime":null,"countyName":null,"streetName":null,"villageName":null,"roadName":null,"communityName":null,"tranName":null,"sdLineName":null,"cityCode":"3340160","cityName":"国网浙江临安市供电公司","provinceCode":null,"stopTime":"2019-11-27 15:30:00","powerType":"全部","powerOffArea":"35kV颊口变:马啸V262线-湖门村同山下门配变","powerOffReason":"低压改造","powerOffId":"2019111531020531"},{"poweroffId":2019111531020529,"sgpoweroffId":null,"subsName":"","lineName":"10kV马啸V262线","pubTranName":"湖门村坑口,","scope":"浙江省-杭州市-临安市-清凉峰镇-湖门村坑口一带。","startTime":"2019-11-27 08:00:00","stopDate":"2019-11-27 11:00:00","orgNo":"3340160","typeCode":"计划停电","poweroffArea":"35kV颊口变:马啸V262线-湖门村坑口配变","poweroffReason":"低压改造","powerTime":"2019-11-27 10:50:11","powerComm":"已送电","subsNo":"","lineNo":"","tgNo":"","tgName":null,"infoStatus":"1","orgName":"国网浙江临安市供电公司","typeName":null,"infoStatusName":null,"dateDay":null,"orgNos":null,"nowTime":null,"countyName":null,"streetName":null,"villageName":null,"roadName":null,"communityName":null,"tranName":null,"sdLineName":null,"cityCode":"3340160","cityName":"国网浙江临安市供电公司","provinceCode":null,"stopTime":"2019-11-27 11:00:00","powerType":"全部","powerOffArea":"35kV颊口变:马啸V262线-湖门村坑口配变","powerOffReason":"低压改造","powerOffId":"2019111531020529"},{"poweroffId":2019111531020528,"sgpoweroffId":null,"subsName":"","lineName":"10kV仁里V312线","pubTranName":"新川村(塘坞),","scope":"浙江省-杭州市-临安市-岛石镇-山川村新川一带。","startTime":"2019-11-26 09:00:00","stopDate":"2019-11-26 17:00:00","orgNo":"3340160","typeCode":"计划停电","poweroffArea":"35kV岛石变:仁里V312线-新川村(塘坞)配变","poweroffReason":"低压改造","powerTime":"","powerComm":"","subsNo":"","lineNo":"","tgNo":"","tgName":null,"infoStatus":"1","orgName":"国网浙江临安市供电公司","typeName":null,"infoStatusName":null,"dateDay":null,"orgNos":null,"nowTime":null,"countyName":null,"streetName":null,"villageName":null,"roadName":null,"communityName":null,"tranName":null,"sdLineName":null,"cityCode":"3340160","cityName":"国网浙江临安市供电公司","provinceCode":null,"stopTime":"2019-11-26 17:00:00","powerType":"未送电","powerOffArea":"35kV岛石变:仁里V312线-新川村(塘坞)配变","powerOffReason":"低压改造","powerOffId":"2019111531020528"},{"poweroffId":2019111531020524,"sgpoweroffId":null,"subsName":"","lineName":"10kV顺溪V261线","pubTranName":"颊口村桥西,","scope":"浙江省-杭州市-临安市-清凉峰镇-颊口村桥西一带。","startTime":"2019-11-25 08:00:00","stopDate":"2019-11-25 12:00:00","orgNo":"3340160","typeCode":"计划停电","poweroffArea":"35kV颊口变:顺溪V261线-颊口村桥西配变","poweroffReason":"低压改造","powerTime":"","powerComm":"","subsNo":"","lineNo":"","tgNo":"","tgName":null,"infoStatus":"1","orgName":"国网浙江临安市供电公司","typeName":null,"infoStatusName":null,"dateDay":null,"orgNos":null,"nowTime":null,"countyName":null,"streetName":null,"villageName":null,"roadName":null,"communityName":null,"tranName":null,"sdLineName":null,"cityCode":"3340160","cityName":"国网浙江临安市供电公司","provinceCode":null,"stopTime":"2019-11-25 12:00:00","powerType":"未送电","powerOffArea":"35kV颊口变:顺溪V261线-颊口村桥西配变","powerOffReason":"低压改造","powerOffId":"2019111531020524"},{"poweroffId":2019111531020521,"sgpoweroffId":null,"subsName":"","lineName":"10kV新桥V311线","pubTranName":"下川村(欠岭山),临安市宝润矿业投资有限公司,临安市宝润矿业投资有限公司,","scope":"浙江省-杭州市-临安市-岛石镇-大山川村下川、杭州临安宝润矿业投资有限公司一带。","startTime":"2019-11-25 09:00:00","stopDate":"2019-11-25 17:00:00","orgNo":"3340160","typeCode":"计划停电","poweroffArea":"35kV岛石变:新桥V311线-新桥311线欠岭山分线后段","poweroffReason":"分支线改造","powerTime":"","powerComm":"","subsNo":"","lineNo":"","tgNo":"","tgName":null,"infoStatus":"1","orgName":"国网浙江临安市供电公司","typeName":null,"infoStatusName":null,"dateDay":null,"orgNos":null,"nowTime":null,"countyName":null,"streetName":null,"villageName":null,"roadName":null,"communityName":null,"tranName":null,"sdLineName":null,"cityCode":"3340160","cityName":"国网浙江临安市供电公司","provinceCode":null,"stopTime":"2019-11-25 17:00:00","powerType":"未送电","powerOffArea":"35kV岛石变:新桥V311线-新桥311线欠岭山分线后段","powerOffReason":"分支线改造","powerOffId":"2019111531020521"},{"poweroffId":2019111531020513,"sgpoweroffId":null,"subsName":"","lineName":"10kV张里G288线","pubTranName":"孤林村石界河公变,","scope":"浙江省杭州市余杭区东湖街道：孤林村石界河一带","startTime":"2019-11-25 08:00:00","stopDate":"2019-11-25 12:00:00","orgNo":"3340140","typeCode":"计划停电","poweroffArea":"110kV渔桥变:张里G288线-石界河后段","poweroffReason":"孤林村石界河公变调换计量箱","powerTime":"","powerComm":"","subsNo":"","lineNo":"","tgNo":"","tgName":null,"infoStatus":"1","orgName":"国网浙江杭州市余杭区供电有限公司","typeName":null,"infoStatusName":null,"dateDay":null,"orgNos":null,"nowTime":null,"countyName":null,"streetName":null,"villageName":null,"roadName":null,"communityName":null,"tranName":null,"sdLineName":null,"cityCode":"3340140","cityName":"国网浙江杭州市余杭区供电有限公司","provinceCode":null,"stopTime":"2019-11-25 12:00:00","powerType":"未送电","powerOffArea":"110kV渔桥变:张里G288线-石界河后段","powerOffReason":"孤林村石界河公变调换计量箱","powerOffId":"2019111531020513"},{"poweroffId":2019111531020500,"sgpoweroffId":null,"subsName":"","lineName":"10kV潭山D711线","pubTranName":"金慈村1#上金慈公变,","scope":"浙江省杭州市富阳区胥口镇金慈行政村上金慈自然村一带","startTime":"2019-11-26 08:20:00","stopDate":"2019-11-26 13:00:00","orgNo":"3340170","typeCode":"计划停电","poweroffArea":"110kV松溪变:潭山D711线-金慈村1#上金慈公变低压开关后段","poweroffReason":"(低压停电信息)小溪边03线农用21#杆后段安装横担2付、拉线3组、抱箍1付、线路移位1处、架BS-JKLYJ-4*35*2档、拆拉线2组、拆JKLYJ-70*4*1档、导线搭接2处、拆旧等工作。","powerTime":"","powerComm":"","subsNo":"","lineNo":"","tgNo":"","tgName":null,"infoStatus":"1","orgName":"国网浙江杭州市富阳区供电公司","typeName":null,"infoStatusName":null,"dateDay":null,"orgNos":null,"nowTime":null,"countyName":null,"streetName":null,"villageName":null,"roadName":null,"communityName":null,"tranName":null,"sdLineName":null,"cityCode":"3340170","cityName":"国网浙江杭州市富阳区供电公司","provinceCode":null,"stopTime":"2019-11-26 13:00:00","powerType":"未送电","powerOffArea":"110kV松溪变:潭山D711线-金慈村1#上金慈公变低压开关后段","powerOffReason":"(低压停电信息)小溪边03线农用21#杆后段安装横担2付、拉线3组、抱箍1付、线路移位1处、架BS-JKLYJ-4*35*2档、拆拉线2组、拆JKLYJ-70*4*1档、导线搭接2处、拆旧等工作。","powerOffId":"2019111531020500"},{"poweroffId":2019111531020498,"sgpoweroffId":null,"subsName":"","lineName":"10kV新民D232线","pubTranName":"浙江胜耀光电科技有限公司,","scope":"浙江省杭州市富阳区东洲街道胜耀光电科技有限公司一带","startTime":"2019-11-28 09:40:00","stopDate":"2019-11-28 16:30:00","orgNo":"3340170","typeCode":"计划停电","poweroffArea":"110kV白鹤变:新民D232线-浙江胜耀光电科技有限公司后段","poweroffReason":"迎东2019年新义变10千伏三普D294线负荷分流及改造工程：筷厂支线3#-4#杆拆线1档，拔杆1基，新立3+1#杆，拉线制作等工作","powerTime":"2019-11-28 16:20:47","powerComm":"已送电","subsNo":"","lineNo":"","tgNo":"","tgName":null,"infoStatus":"1","orgName":"国网浙江杭州市富阳区供电公司","typeName":null,"infoStatusName":null,"dateDay":null,"orgNos":null,"nowTime":null,"countyName":null,"streetName":null,"villageName":null,"roadName":null,"communityName":null,"tranName":null,"sdLineName":null,"cityCode":"3340170","cityName":"国网浙江杭州市富阳区供电公司","provinceCode":null,"stopTime":"2019-11-28 16:30:00","powerType":"全部","powerOffArea":"110kV白鹤变:新民D232线-浙江胜耀光电科技有限公司后段","powerOffReason":"迎东2019年新义变10千伏三普D294线负荷分流及改造工程：筷厂支线3#-4#杆拆线1档，拔杆1基，新立3+1#杆，拉线制作等工作","powerOffId":"2019111531020498"},{"poweroffId":2019111531020494,"sgpoweroffId":null,"subsName":"","lineName":"10kV新民D232线","pubTranName":"杭州斯维尔电器有限公司,","scope":"浙江省杭州市富阳区东洲街道斯维尔电器有限公司一带","startTime":"2019-11-28 09:20:00","stopDate":"2019-11-28 16:30:00","orgNo":"3340170","typeCode":"计划停电","poweroffArea":"110kV白鹤变:新民D232线-杭州斯维尔电器有限公司后段","poweroffReason":"配合客户内部检修","powerTime":"2019-11-28 16:20:20","powerComm":"已送电","subsNo":"","lineNo":"","tgNo":"","tgName":null,"infoStatus":"1","orgName":"国网浙江杭州市富阳区供电公司","typeName":null,"infoStatusName":null,"dateDay":null,"orgNos":null,"nowTime":null,"countyName":null,"streetName":null,"villageName":null,"roadName":null,"communityName":null,"tranName":null,"sdLineName":null,"cityCode":"3340170","cityName":"国网浙江杭州市富阳区供电公司","provinceCode":null,"stopTime":"2019-11-28 16:30:00","powerType":"全部","powerOffArea":"110kV白鹤变:新民D232线-杭州斯维尔电器有限公司后段","powerOffReason":"配合客户内部检修","powerOffId":"2019111531020494"},{"poweroffId":2019111531020492,"sgpoweroffId":null,"subsName":"","lineName":"10kV新民D232线","pubTranName":"杭州富阳永通物业管理有限公司 1#,","scope":"浙江省杭州市富阳区东洲街道永通物业管理有限公司一带","startTime":"2019-11-28 09:00:00","stopDate":"2019-11-28 16:30:00","orgNo":"3340170","typeCode":"计划停电","poweroffArea":"110kV白鹤变:新民D232线-杭州富阳永通物业管理有限公司后段","poweroffReason":"配合客户内部检修","powerTime":"2019-11-28 16:20:12","powerComm":"已送电","subsNo":"","lineNo":"","tgNo":"","tgName":null,"infoStatus":"1","orgName":"国网浙江杭州市富阳区供电公司","typeName":null,"infoStatusName":null,"dateDay":null,"orgNos":null,"nowTime":null,"countyName":null,"streetName":null,"villageName":null,"roadName":null,"communityName":null,"tranName":null,"sdLineName":null,"cityCode":"3340170","cityName":"国网浙江杭州市富阳区供电公司","provinceCode":null,"stopTime":"2019-11-28 16:30:00","powerType":"全部","powerOffArea":"110kV白鹤变:新民D232线-杭州富阳永通物业管理有限公司后段","powerOffReason":"配合客户内部检修","powerOffId":"2019111531020492"}],"pageModel":{"pageNow":854,"totalCount":17789,"totalPage":1779,"tableRows":0,"pageCount":10,"beginCount":8530},"isExperi":"1"}