{"message":"","today":"2020-06-15","seleList":[{"poweroffId":2019111531020395,"sgpoweroffId":null,"subsName":"","lineName":"10kV图山D502线","pubTranName":"上图山村1#双家边公变,","scope":"浙江省杭州市富阳区场口镇上图山行政村一带","startTime":"2019-11-26 08:30:00","stopDate":"2019-11-26 16:40:00","orgNo":"3340170","typeCode":"计划停电","poweroffArea":"110kV常安变:图山D502线-上图山村1#双家边公变低压出线后段","poweroffReason":"(低压停电信息)装横担、做拉线、架线、拆旧、线路改接、更换出线电缆等工作","powerTime":"","powerComm":"","subsNo":"","lineNo":"","tgNo":"","tgName":null,"infoStatus":"1","orgName":"国网浙江杭州市富阳区供电公司","typeName":null,"infoStatusName":null,"dateDay":null,"orgNos":null,"nowTime":null,"countyName":null,"streetName":null,"villageName":null,"roadName":null,"communityName":null,"tranName":null,"sdLineName":null,"cityCode":"3340170","cityName":"国网浙江杭州市富阳区供电公司","provinceCode":null,"stopTime":"2019-11-26 16:40:00","powerType":"未送电","powerOffArea":"110kV常安变:图山D502线-上图山村1#双家边公变低压出线后段","powerOffReason":"(低压停电信息)装横担、做拉线、架线、拆旧、线路改接、更换出线电缆等工作","powerOffId":"2019111531020395"},{"poweroffId":2019111531020393,"sgpoweroffId":null,"subsName":"","lineName":"10kV大树D219线","pubTranName":"高桥村舒姑洋2号村委口公变,","scope":"浙江省-杭州市-富阳区-银湖街道(郜村行政村-郜村自然村,高桥行政村-舒姑垟自然村)","startTime":"2019-11-26 08:00:00","stopDate":"2019-11-26 16:30:00","orgNo":"3340170","typeCode":"计划停电","poweroffArea":"110kV银湖变:大树D219线-高桥村舒姑洋2号村委口公变低压开关后段","poweroffReason":"(低压停电信息)更换导线3档，更换接户线25处，搭接等工作。 （迎东2019年峡岭村3#周家坛公变等配电线路及设备大修工程）","powerTime":"","powerComm":"","subsNo":"","lineNo":"","tgNo":"","tgName":null,"infoStatus":"1","orgName":"国网浙江杭州市富阳区供电公司","typeName":null,"infoStatusName":null,"dateDay":null,"orgNos":null,"nowTime":null,"countyName":null,"streetName":null,"villageName":null,"roadName":null,"communityName":null,"tranName":null,"sdLineName":null,"cityCode":"3340170","cityName":"国网浙江杭州市富阳区供电公司","provinceCode":null,"stopTime":"2019-11-26 16:30:00","powerType":"未送电","powerOffArea":"110kV银湖变:大树D219线-高桥村舒姑洋2号村委口公变低压开关后段","powerOffReason":"(低压停电信息)更换导线3档，更换接户线25处，搭接等工作。 （迎东2019年峡岭村3#周家坛公变等配电线路及设备大修工程）","powerOffId":"2019111531020393"},{"poweroffId":2019111531020391,"sgpoweroffId":null,"subsName":"","lineName":"10kV保安T182线","pubTranName":"富源张家坞1号公变,","scope":"浙江省-杭州市-桐庐县-分水镇-富源行政村(张家坞自然村,富家自然村)","startTime":"2019-11-15 14:35:00","stopDate":"2019-11-15 16:35:00","orgNo":"3340150","typeCode":"电网故障停限电","poweroffArea":"110kV分水变:保安T182线富源张家坞1号公变配变","poweroffReason":"高压开关跳闸","powerTime":"2019-11-15 16:21:10","powerComm":"已送电","subsNo":"","lineNo":"","tgNo":"","tgName":null,"infoStatus":"1","orgName":"国网浙江桐庐县供电公司","typeName":null,"infoStatusName":null,"dateDay":null,"orgNos":null,"nowTime":null,"countyName":null,"streetName":null,"villageName":null,"roadName":null,"communityName":null,"tranName":null,"sdLineName":null,"cityCode":"3340150","cityName":"国网浙江桐庐县供电公司","provinceCode":null,"stopTime":"2019-11-15 16:35:00","powerType":"全部","powerOffArea":"110kV分水变:保安T182线富源张家坞1号公变配变","powerOffReason":"高压开关跳闸","powerOffId":"2019111531020391"},{"poweroffId":2019111531020390,"sgpoweroffId":null,"subsName":"","lineName":"10kV十月D225线","pubTranName":"坑西村1#集镇公变,","scope":"浙江省-杭州市-富阳区-银湖街道-坑西行政村-坑西自然村","startTime":"2019-11-25 08:00:00","stopDate":"2019-11-25 16:30:00","orgNo":"3340170","typeCode":"计划停电","poweroffArea":"110kV银湖变:十月D225线-坑西村1#集镇公变低压开关后段","poweroffReason":"(低压停电信息)吊车立杆6根，拆旧新架JKLYJ4*120*5档，表箱移位更换进户电缆3处，搭接等工作。 （迎东2019年峡岭村3#周家坛公变等配电线路及设备大修工程）","powerTime":"","powerComm":"","subsNo":"","lineNo":"","tgNo":"","tgName":null,"infoStatus":"1","orgName":"国网浙江杭州市富阳区供电公司","typeName":null,"infoStatusName":null,"dateDay":null,"orgNos":null,"nowTime":null,"countyName":null,"streetName":null,"villageName":null,"roadName":null,"communityName":null,"tranName":null,"sdLineName":null,"cityCode":"3340170","cityName":"国网浙江杭州市富阳区供电公司","provinceCode":null,"stopTime":"2019-11-25 16:30:00","powerType":"未送电","powerOffArea":"110kV银湖变:十月D225线-坑西村1#集镇公变低压开关后段","powerOffReason":"(低压停电信息)吊车立杆6根，拆旧新架JKLYJ4*120*5档，表箱移位更换进户电缆3处，搭接等工作。 （迎东2019年峡岭村3#周家坛公变等配电线路及设备大修工程）","powerOffId":"2019111531020390"},{"poweroffId":2019111531020385,"sgpoweroffId":null,"subsName":"","lineName":"10kV盛村D266线","pubTranName":"富阳市上官盛达体育用品厂,","scope":"浙江省-杭州市-富阳区-上官乡-大盛行政村-杭州富阳上官盛达体育用品厂","startTime":"2019-12-01 08:30:00","stopDate":"2019-12-01 16:30:00","orgNo":"3340170","typeCode":"计划停电","poweroffArea":"35kV盛村变:盛村D266线-富阳市上官盛达体育用品厂后段","poweroffReason":"配合盛村D266线（0#杆-2#杆）、临时开关室（二）盛村D266线间隔、盛村D266线2#杆盛村泻清坞分线工作停电。","powerTime":"2019-12-01 16:07:22","powerComm":"已送电","subsNo":"","lineNo":"","tgNo":"","tgName":null,"infoStatus":"1","orgName":"国网浙江杭州市富阳区供电公司","typeName":null,"infoStatusName":null,"dateDay":null,"orgNos":null,"nowTime":null,"countyName":null,"streetName":null,"villageName":null,"roadName":null,"communityName":null,"tranName":null,"sdLineName":null,"cityCode":"3340170","cityName":"国网浙江杭州市富阳区供电公司","provinceCode":null,"stopTime":"2019-12-01 16:30:00","powerType":"全部","powerOffArea":"35kV盛村变:盛村D266线-富阳市上官盛达体育用品厂后段","powerOffReason":"配合盛村D266线（0#杆-2#杆）、临时开关室（二）盛村D266线间隔、盛村D266线2#杆盛村泻清坞分线工作停电。","powerOffId":"2019111531020385"},{"poweroffId":2019111531020384,"sgpoweroffId":null,"subsName":"","lineName":"10kV保安T182线","pubTranName":"富源老坞1号公变,","scope":"浙江省-杭州市-桐庐县-分水镇-富源行政村(富家自然村,张家坞自然村,老坞自然村)","startTime":"2019-11-15 14:34:36","stopDate":"2019-11-15 16:34:36","orgNo":"3340150","typeCode":"电网故障停限电","poweroffArea":"110kV分水变:保安T182线-富源老坞1号公变后段","poweroffReason":"高压开关跳闸","powerTime":"2019-11-15 16:20:54","powerComm":"已送电","subsNo":"","lineNo":"","tgNo":"","tgName":null,"infoStatus":"1","orgName":"国网浙江桐庐县供电公司","typeName":null,"infoStatusName":null,"dateDay":null,"orgNos":null,"nowTime":null,"countyName":null,"streetName":null,"villageName":null,"roadName":null,"communityName":null,"tranName":null,"sdLineName":null,"cityCode":"3340150","cityName":"国网浙江桐庐县供电公司","provinceCode":null,"stopTime":"2019-11-15 16:34:36","powerType":"全部","powerOffArea":"110kV分水变:保安T182线-富源老坞1号公变后段","powerOffReason":"高压开关跳闸","powerOffId":"2019111531020384"},{"poweroffId":2019111531020382,"sgpoweroffId":null,"subsName":"","lineName":"10kV盛村D266线","pubTranName":"大盛村2号盛村泻清坞公变,","scope":"浙江省-杭州市-富阳区-上官乡-大盛行政村一带","startTime":"2019-12-01 08:30:00","stopDate":"2019-12-01 16:30:00","orgNo":"3340170","typeCode":"计划停电","poweroffArea":"35kV盛村变:盛村D266线-大盛村2号盛村泻清坞公变后段","poweroffReason":"35kV盛村变10kV配电装置及综合自动化改造工程：临时开关室（二）盛村D266线间隔-2#杆之间电缆拆除1根，拆除导线4档，真空开关1台，配变2台等工作；盛村D266线制作户内终端1个、户外终端1个，户内电缆头搭接，架设导线1档等工作。","powerTime":"2019-12-01 16:06:16","powerComm":"已送电","subsNo":"","lineNo":"","tgNo":"","tgName":null,"infoStatus":"1","orgName":"国网浙江杭州市富阳区供电公司","typeName":null,"infoStatusName":null,"dateDay":null,"orgNos":null,"nowTime":null,"countyName":null,"streetName":null,"villageName":null,"roadName":null,"communityName":null,"tranName":null,"sdLineName":null,"cityCode":"3340170","cityName":"国网浙江杭州市富阳区供电公司","provinceCode":null,"stopTime":"2019-12-01 16:30:00","powerType":"全部","powerOffArea":"35kV盛村变:盛村D266线-大盛村2号盛村泻清坞公变后段","powerOffReason":"35kV盛村变10kV配电装置及综合自动化改造工程：临时开关室（二）盛村D266线间隔-2#杆之间电缆拆除1根，拆除导线4档，真空开关1台，配变2台等工作；盛村D266线制作户内终端1个、户外终端1个，户内电缆头搭接，架设导线1档等工作。","powerOffId":"2019111531020382"},{"poweroffId":2019111531020377,"sgpoweroffId":null,"subsName":"","lineName":"10kV沪瑞D620线","pubTranName":"瓜桥埠村6号前金公变,","scope":"浙江省-杭州市-富阳区-场口镇-瓜桥埠行政村-前金自然村一带","startTime":"2019-11-26 12:50:00","stopDate":"2019-11-26 15:30:00","orgNo":"3340170","typeCode":"计划停电","poweroffArea":"110kV鸿丰变:沪瑞D620线-瓜桥埠村6号前金公变后段","poweroffReason":"沪瑞D620线22#杆前金分线8#杆瓜桥埠村6#前金公变：1、搭接瓜桥埠村6#前金公变至配电屏进线侧电缆头；2、拆除自备电源至配电屏电缆；3、安装终端、互感器等工作。","powerTime":"","powerComm":"","subsNo":"","lineNo":"","tgNo":"","tgName":null,"infoStatus":"1","orgName":"国网浙江杭州市富阳区供电公司","typeName":null,"infoStatusName":null,"dateDay":null,"orgNos":null,"nowTime":null,"countyName":null,"streetName":null,"villageName":null,"roadName":null,"communityName":null,"tranName":null,"sdLineName":null,"cityCode":"3340170","cityName":"国网浙江杭州市富阳区供电公司","provinceCode":null,"stopTime":"2019-11-26 15:30:00","powerType":"未送电","powerOffArea":"110kV鸿丰变:沪瑞D620线-瓜桥埠村6号前金公变后段","powerOffReason":"沪瑞D620线22#杆前金分线8#杆瓜桥埠村6#前金公变：1、搭接瓜桥埠村6#前金公变至配电屏进线侧电缆头；2、拆除自备电源至配电屏电缆；3、安装终端、互感器等工作。","powerOffId":"2019111531020377"},{"poweroffId":2019111531020375,"sgpoweroffId":null,"subsName":"","lineName":"10kV沪瑞D620线","pubTranName":"瓜桥埠村6号前金公变,","scope":"浙江省-杭州市-富阳区-场口镇-瓜桥埠行政村-前金自然村一带","startTime":"2019-11-26 08:30:00","stopDate":"2019-11-26 09:15:00","orgNo":"3340170","typeCode":"计划停电","poweroffArea":"110kV鸿丰变:沪瑞D620线-瓜桥埠村6号前金公变后段","poweroffReason":"沪瑞D620线22#杆前金分线8#杆瓜桥埠村6#前金公变：1、拆除瓜桥埠村6#前金公变至配电屏进线侧电缆头；2、自备电源电缆头搭接至配电屏等工作。","powerTime":"","powerComm":"","subsNo":"","lineNo":"","tgNo":"","tgName":null,"infoStatus":"1","orgName":"国网浙江杭州市富阳区供电公司","typeName":null,"infoStatusName":null,"dateDay":null,"orgNos":null,"nowTime":null,"countyName":null,"streetName":null,"villageName":null,"roadName":null,"communityName":null,"tranName":null,"sdLineName":null,"cityCode":"3340170","cityName":"国网浙江杭州市富阳区供电公司","provinceCode":null,"stopTime":"2019-11-26 09:15:00","powerType":"未送电","powerOffArea":"110kV鸿丰变:沪瑞D620线-瓜桥埠村6号前金公变后段","powerOffReason":"沪瑞D620线22#杆前金分线8#杆瓜桥埠村6#前金公变：1、拆除瓜桥埠村6#前金公变至配电屏进线侧电缆头；2、自备电源电缆头搭接至配电屏等工作。","powerOffId":"2019111531020375"},{"poweroffId":2019111531020367,"sgpoweroffId":null,"subsName":"","lineName":"10kV草庵8580线","pubTranName":"歌山,","scope":"浙江省杭州市下城区长木新村17-26号、德胜路80号附近","startTime":"2019-11-26 09:00:00","stopDate":"2019-11-26 17:30:00","orgNo":"3340101","typeCode":"计划停电","poweroffArea":"220kV霞湾变:草庵8580线-歌山变高压开关（无低压总开）","poweroffReason":"(低压停电信息)东新街道德胜路80号市府机关修理厂东边桥北表计新装","powerTime":"","powerComm":"","subsNo":"","lineNo":"","tgNo":"","tgName":null,"infoStatus":"1","orgName":"浙江杭州电力客户服务中心","typeName":null,"infoStatusName":null,"dateDay":null,"orgNos":null,"nowTime":null,"countyName":null,"streetName":null,"villageName":null,"roadName":null,"communityName":null,"tranName":null,"sdLineName":null,"cityCode":"3340101","cityName":"浙江杭州电力客户服务中心","provinceCode":null,"stopTime":"2019-11-26 17:30:00","powerType":"未送电","powerOffArea":"220kV霞湾变:草庵8580线-歌山变高压开关（无低压总开）","powerOffReason":"(低压停电信息)东新街道德胜路80号市府机关修理厂东边桥北表计新装","powerOffId":"2019111531020367"}],"pageModel":{"pageNow":857,"totalCount":17789,"totalPage":1779,"tableRows":0,"pageCount":10,"beginCount":8560},"isExperi":"1"}