{"message":"","today":"2020-06-15","seleList":[{"poweroffId":2019111531020248,"sgpoweroffId":null,"subsName":"","lineName":"10kV鹤里V256线","pubTranName":"10kV鹤里村[朱后]公变,10kV武村村[武村西川坞]公变,10kV鹤里村[鹤里]公变,10kV鹤里村[鹤里樊村]公变,10kV武村村[武村八队]公变,10kV武村村[狮子潭]公变,10kV武村村[武村高桥头]公变,","scope":"浙江省-杭州市-临安市-太阳镇-鹤里、鹤里樊村、朱后、武村高桥头、武村西川坞、狮子潭、武村八队一带","startTime":"2019-11-27 08:10:00","stopDate":"2019-11-27 12:50:00","orgNo":"3340160","typeCode":"计划停电","poweroffArea":"鹤里V256线341#杆武村分线开关","poweroffReason":"鹤里V256线武村分线1#杆移位，鹤里支线1#杆鹤里村（鹤里）公变低压马安山1000线8#、13#-15#杆移位","powerTime":"2019-11-27 12:40:10","powerComm":"已送电","subsNo":"","lineNo":"","tgNo":"","tgName":null,"infoStatus":"1","orgName":"国网浙江临安市供电公司","typeName":null,"infoStatusName":null,"dateDay":null,"orgNos":null,"nowTime":null,"countyName":null,"streetName":null,"villageName":null,"roadName":null,"communityName":null,"tranName":null,"sdLineName":null,"cityCode":"3340160","cityName":"国网浙江临安市供电公司","provinceCode":null,"stopTime":"2019-11-27 12:50:00","powerType":"全部","powerOffArea":"鹤里V256线341#杆武村分线开关","powerOffReason":"鹤里V256线武村分线1#杆移位，鹤里支线1#杆鹤里村（鹤里）公变低压马安山1000线8#、13#-15#杆移位","powerOffId":"2019111531020248"},{"poweroffId":2019111531020247,"sgpoweroffId":null,"subsName":"","lineName":"10kV邓家Y161线","pubTranName":"洪宅村东坞台区,","scope":"浙江省-杭州市-建德市-更楼街道-洪宅行政村 洪宅自然村,东坞自然村一带用户","startTime":"2019-11-15 11:15:22","stopDate":"2019-11-15 18:00:00","orgNo":"3340180","typeCode":"电网故障停限电","poweroffArea":"110kV更楼变:邓家Y161线-洪宅村东坞台区后段","poweroffReason":"(低压停电信息)低压开关跳闸 原停电结束时间为2019-11-15 16:30:00,因村民阻扰施工现场原因,现变更停电结束时间为2019-11-15 18:00:00","powerTime":"2019-11-15 17:31:00","powerComm":"已送电","subsNo":"","lineNo":"","tgNo":"","tgName":null,"infoStatus":"1","orgName":"国网浙江建德市供电有限公司","typeName":null,"infoStatusName":null,"dateDay":null,"orgNos":null,"nowTime":null,"countyName":null,"streetName":null,"villageName":null,"roadName":null,"communityName":null,"tranName":null,"sdLineName":null,"cityCode":"3340180","cityName":"国网浙江建德市供电有限公司","provinceCode":null,"stopTime":"2019-11-15 18:00:00","powerType":"全部","powerOffArea":"110kV更楼变:邓家Y161线-洪宅村东坞台区后段","powerOffReason":"(低压停电信息)低压开关跳闸 原停电结束时间为2019-11-15 16:30:00,因村民阻扰施工现场原因,现变更停电结束时间为2019-11-15 18:00:00","powerOffId":"2019111531020247"},{"poweroffId":2019111531020245,"sgpoweroffId":null,"subsName":"","lineName":"10kV城后V512线","pubTranName":"临安宏峰市政工程有限公司,","scope":"浙江省-杭州市-临安市-潜川镇-临安宏峰市政工程有限公司一带","startTime":"2019-11-26 08:00:00","stopDate":"2019-11-26 18:00:00","orgNo":"3340160","typeCode":"计划停电","poweroffArea":"城后V512线溪口站溪口分支线","poweroffReason":"1、塔山临时变星奥V515线新出电缆、电缆头制作、试验，两侧电缆搭头、（进入变电所）。 2、城后V512线、牧亭V511线100+1新立钢管杆，100+1-101#导线拆除","powerTime":"","powerComm":"","subsNo":"","lineNo":"","tgNo":"","tgName":null,"infoStatus":"1","orgName":"国网浙江临安市供电公司","typeName":null,"infoStatusName":null,"dateDay":null,"orgNos":null,"nowTime":null,"countyName":null,"streetName":null,"villageName":null,"roadName":null,"communityName":null,"tranName":null,"sdLineName":null,"cityCode":"3340160","cityName":"国网浙江临安市供电公司","provinceCode":null,"stopTime":"2019-11-26 18:00:00","powerType":"未送电","powerOffArea":"城后V512线溪口站溪口分支线","powerOffReason":"1、塔山临时变星奥V515线新出电缆、电缆头制作、试验，两侧电缆搭头、（进入变电所）。 2、城后V512线、牧亭V511线100+1新立钢管杆，100+1-101#导线拆除","powerOffId":"2019111531020245"},{"poweroffId":2019111531020243,"sgpoweroffId":null,"subsName":"","lineName":"10kV塔山V232线","pubTranName":"吴建强,","scope":"浙江省-杭州市-临安市-潜川镇-吴建强一带","startTime":"2019-11-26 07:00:00","stopDate":"2019-11-26 18:00:00","orgNo":"3340160","typeCode":"计划停电","poweroffArea":"塔山V232线52#杆吴建强分线","poweroffReason":"1、塔山临时变星奥V515线新出电缆、电缆头制作、试验，两侧电缆搭头、（进入变电所）。 2、城后V512线、牧亭V511线100+1新立钢管杆，100+1-101#导线拆除","powerTime":"","powerComm":"","subsNo":"","lineNo":"","tgNo":"","tgName":null,"infoStatus":"1","orgName":"国网浙江临安市供电公司","typeName":null,"infoStatusName":null,"dateDay":null,"orgNos":null,"nowTime":null,"countyName":null,"streetName":null,"villageName":null,"roadName":null,"communityName":null,"tranName":null,"sdLineName":null,"cityCode":"3340160","cityName":"国网浙江临安市供电公司","provinceCode":null,"stopTime":"2019-11-26 18:00:00","powerType":"未送电","powerOffArea":"塔山V232线52#杆吴建强分线","powerOffReason":"1、塔山临时变星奥V515线新出电缆、电缆头制作、试验，两侧电缆搭头、（进入变电所）。 2、城后V512线、牧亭V511线100+1新立钢管杆，100+1-101#导线拆除","powerOffId":"2019111531020243"},{"poweroffId":2019111531020241,"sgpoweroffId":null,"subsName":"","lineName":"10kV牧亭V511线","pubTranName":"汉阳（杭州）电缆有限公司,浙江信豪科技有限公司,临安市振宇吸水材料有限公司400,临安晨达特种纸业有限公司,临安晨达特种纸业有限公司,杭州美虹喷涂材料有限公司,杭州翃鼎建材有限公司,临安晨达特种纸业有限公司1#,临安晨达特种纸业有限公司,临安市振宇吸水材料有限公司1000,杭州明圣塑料制品有限公司1#,杭州潜阳科技有限公司1#,","scope":"浙江省-杭州市-临安市-於潜镇-杭州潜阳科技有限公司、杭州翃鼎建材有限公司、杭州美虹喷涂材料有限公司、浙江信豪科技有限公司、临安市振宇吸水材料有限公司、杭州明圣塑料制品有限公司、汉阳（杭州）电缆有限公司、临安晨达特种纸业有限公司一带","startTime":"2019-11-26 08:00:00","stopDate":"2019-11-26 18:00:00","orgNo":"3340160","typeCode":"计划停电","poweroffArea":"牧亭V511线98#杆后段","poweroffReason":"1、塔山临时变星奥V515线新出电缆、电缆头制作、试验，两侧电缆搭头、（进入变电所）。 2、城后V512线、牧亭V511线100+1新立钢管杆，100+1-101#导线拆除","powerTime":"","powerComm":"","subsNo":"","lineNo":"","tgNo":"","tgName":null,"infoStatus":"1","orgName":"国网浙江临安市供电公司","typeName":null,"infoStatusName":null,"dateDay":null,"orgNos":null,"nowTime":null,"countyName":null,"streetName":null,"villageName":null,"roadName":null,"communityName":null,"tranName":null,"sdLineName":null,"cityCode":"3340160","cityName":"国网浙江临安市供电公司","provinceCode":null,"stopTime":"2019-11-26 18:00:00","powerType":"未送电","powerOffArea":"牧亭V511线98#杆后段","powerOffReason":"1、塔山临时变星奥V515线新出电缆、电缆头制作、试验，两侧电缆搭头、（进入变电所）。 2、城后V512线、牧亭V511线100+1新立钢管杆，100+1-101#导线拆除","powerOffId":"2019111531020241"},{"poweroffId":2019111531020240,"sgpoweroffId":null,"subsName":"","lineName":"10kV塔山V232线","pubTranName":"10kV牧亭村[新梅上]公变,","scope":"浙江省-杭州市-临安市-潜川镇-新梅上一带","startTime":"2019-11-26 08:50:00","stopDate":"2019-11-26 16:30:00","orgNo":"3340160","typeCode":"计划停电","poweroffArea":"牧亭村（新梅上）公变低压","poweroffReason":"配合逸逸平台线路割接","powerTime":"","powerComm":"","subsNo":"","lineNo":"","tgNo":"","tgName":null,"infoStatus":"1","orgName":"国网浙江临安市供电公司","typeName":null,"infoStatusName":null,"dateDay":null,"orgNos":null,"nowTime":null,"countyName":null,"streetName":null,"villageName":null,"roadName":null,"communityName":null,"tranName":null,"sdLineName":null,"cityCode":"3340160","cityName":"国网浙江临安市供电公司","provinceCode":null,"stopTime":"2019-11-26 16:30:00","powerType":"未送电","powerOffArea":"牧亭村（新梅上）公变低压","powerOffReason":"配合逸逸平台线路割接","powerOffId":"2019111531020240"},{"poweroffId":2019111531020239,"sgpoweroffId":null,"subsName":"","lineName":"10kV城后V512线","pubTranName":"10kV逸逸村[逸村制炭厂]公变,","scope":"浙江省-杭州市-临安市-於潜镇-逸村制炭厂一带","startTime":"2019-11-26 08:50:00","stopDate":"2019-11-26 16:30:00","orgNo":"3340160","typeCode":"计划停电","poweroffArea":"逸逸村（逸村制炭厂）公变低压","poweroffReason":"配合逸逸平台线路割接","powerTime":"","powerComm":"","subsNo":"","lineNo":"","tgNo":"","tgName":null,"infoStatus":"1","orgName":"国网浙江临安市供电公司","typeName":null,"infoStatusName":null,"dateDay":null,"orgNos":null,"nowTime":null,"countyName":null,"streetName":null,"villageName":null,"roadName":null,"communityName":null,"tranName":null,"sdLineName":null,"cityCode":"3340160","cityName":"国网浙江临安市供电公司","provinceCode":null,"stopTime":"2019-11-26 16:30:00","powerType":"未送电","powerOffArea":"逸逸村（逸村制炭厂）公变低压","powerOffReason":"配合逸逸平台线路割接","powerOffId":"2019111531020239"},{"poweroffId":2019111531020238,"sgpoweroffId":null,"subsName":"","lineName":"10kV堰口V126线","pubTranName":"临安市堰口观新水电站1#,10kV堰口村[观新村]公变,10kV堰口村[观新粮站]公变,钱鸿（逸村）电站,10kV逸逸村[逸村吴家]公变,","scope":"浙江省-杭州市-临安市-於潜镇-钱鸿（逸村）电站、逸村吴家、观新粮站、临安市堰口观新水电站、观新村一带","startTime":"2019-11-25 16:00:00","stopDate":"2019-11-25 16:30:00","orgNo":"3340160","typeCode":"计划停电","poweroffArea":"堰口V126线116#后段","poweroffReason":"配合倒方式","powerTime":"","powerComm":"","subsNo":"","lineNo":"","tgNo":"","tgName":null,"infoStatus":"1","orgName":"国网浙江临安市供电公司","typeName":null,"infoStatusName":null,"dateDay":null,"orgNos":null,"nowTime":null,"countyName":null,"streetName":null,"villageName":null,"roadName":null,"communityName":null,"tranName":null,"sdLineName":null,"cityCode":"3340160","cityName":"国网浙江临安市供电公司","provinceCode":null,"stopTime":"2019-11-25 16:30:00","powerType":"未送电","powerOffArea":"堰口V126线116#后段","powerOffReason":"配合倒方式","powerOffId":"2019111531020238"},{"poweroffId":2019111531020236,"sgpoweroffId":null,"subsName":"","lineName":"10kV牧亭V511线","pubTranName":"临安市金洲纸业有限公司1,临安市金洲纸业有限公司2,","scope":"浙江省-杭州市-临安市-於潜镇-浙江省临安市金洲纸业有限公司一带","startTime":"2019-11-25 07:50:00","stopDate":"2019-11-25 15:00:00","orgNo":"3340160","typeCode":"计划停电","poweroffArea":"牧亭V511线117#杆5114开关后段","poweroffReason":"堰口线改造（01）项：1、紫水V505线107#新出金洲分线，堰口V126线107#杆新出中民分线。牧亭V511线119#后段、枫树湾分线割接到紫水V505线107#金洲分线、城后V512线119#后段、瑞晶分线割接到堰口V126线107#杆中民分线。","powerTime":"","powerComm":"","subsNo":"","lineNo":"","tgNo":"","tgName":null,"infoStatus":"1","orgName":"国网浙江临安市供电公司","typeName":null,"infoStatusName":null,"dateDay":null,"orgNos":null,"nowTime":null,"countyName":null,"streetName":null,"villageName":null,"roadName":null,"communityName":null,"tranName":null,"sdLineName":null,"cityCode":"3340160","cityName":"国网浙江临安市供电公司","provinceCode":null,"stopTime":"2019-11-25 15:00:00","powerType":"未送电","powerOffArea":"牧亭V511线117#杆5114开关后段","powerOffReason":"堰口线改造（01）项：1、紫水V505线107#新出金洲分线，堰口V126线107#杆新出中民分线。牧亭V511线119#后段、枫树湾分线割接到紫水V505线107#金洲分线、城后V512线119#后段、瑞晶分线割接到堰口V126线107#杆中民分线。","powerOffId":"2019111531020236"},{"poweroffId":2019111531020235,"sgpoweroffId":null,"subsName":"","lineName":"10kV扶西V698线","pubTranName":"临安市於潜城镇建设开发有限公司,","scope":"浙江省-杭州市-临安市-於潜镇-临安市於潜城镇建设开发有限公司一带","startTime":"2019-11-25 07:50:00","stopDate":"2019-11-25 15:00:00","orgNo":"3340160","typeCode":"计划停电","poweroffArea":"扶西V698线116#杆城镇建设分线","poweroffReason":"堰口线改造（01）项：1、紫水V505线107#新出金洲分线，堰口V126线107#杆新出中民分线。牧亭V511线119#后段、枫树湾分线割接到紫水V505线107#金洲分线、城后V512线119#后段、瑞晶分线割接到堰口V126线107#杆中民分线。","powerTime":"","powerComm":"","subsNo":"","lineNo":"","tgNo":"","tgName":null,"infoStatus":"1","orgName":"国网浙江临安市供电公司","typeName":null,"infoStatusName":null,"dateDay":null,"orgNos":null,"nowTime":null,"countyName":null,"streetName":null,"villageName":null,"roadName":null,"communityName":null,"tranName":null,"sdLineName":null,"cityCode":"3340160","cityName":"国网浙江临安市供电公司","provinceCode":null,"stopTime":"2019-11-25 15:00:00","powerType":"未送电","powerOffArea":"扶西V698线116#杆城镇建设分线","powerOffReason":"堰口线改造（01）项：1、紫水V505线107#新出金洲分线，堰口V126线107#杆新出中民分线。牧亭V511线119#后段、枫树湾分线割接到紫水V505线107#金洲分线、城后V512线119#后段、瑞晶分线割接到堰口V126线107#杆中民分线。","powerOffId":"2019111531020235"}],"pageModel":{"pageNow":861,"totalCount":17789,"totalPage":1779,"tableRows":0,"pageCount":10,"beginCount":8600},"isExperi":"1"}