{"message":"","today":"2020-06-15","seleList":[{"poweroffId":2019111531020233,"sgpoweroffId":null,"subsName":"","lineName":"10kV城后V512线","pubTranName":"临安维特热能有限公司400#,临安维特热能有限公司800#,杭州临安中民筑友智造科技有限公司1#,","scope":"浙江省-杭州市-临安市-於潜镇-临安维特热能有限公司、杭州临安中民筑友智造科技有限公司一带","startTime":"2019-11-25 07:50:00","stopDate":"2019-11-25 15:00:00","orgNo":"3340160","typeCode":"计划停电","poweroffArea":"城后V512线117#杆5124开关后段","poweroffReason":"堰口线改造（01）项：1、紫水V505线107#新出金洲分线，堰口V126线107#杆新出中民分线。牧亭V511线119#后段、枫树湾分线割接到紫水V505线107#金洲分线、城后V512线119#后段、瑞晶分线割接到堰口V126线107#杆中民分线。","powerTime":"","powerComm":"","subsNo":"","lineNo":"","tgNo":"","tgName":null,"infoStatus":"1","orgName":"国网浙江临安市供电公司","typeName":null,"infoStatusName":null,"dateDay":null,"orgNos":null,"nowTime":null,"countyName":null,"streetName":null,"villageName":null,"roadName":null,"communityName":null,"tranName":null,"sdLineName":null,"cityCode":"3340160","cityName":"国网浙江临安市供电公司","provinceCode":null,"stopTime":"2019-11-25 15:00:00","powerType":"未送电","powerOffArea":"城后V512线117#杆5124开关后段","powerOffReason":"堰口线改造（01）项：1、紫水V505线107#新出金洲分线，堰口V126线107#杆新出中民分线。牧亭V511线119#后段、枫树湾分线割接到紫水V505线107#金洲分线、城后V512线119#后段、瑞晶分线割接到堰口V126线107#杆中民分线。","powerOffId":"2019111531020233"},{"poweroffId":2019111531020225,"sgpoweroffId":null,"subsName":"","lineName":"10kV新博G031线","pubTranName":"宏杰搪瓷厂2#,塘栖金属压延,博陆村双桥路公变,运河镇博陆街道一号公变,宏杰搪瓷厂1#,","scope":"浙江省杭州市余杭区运河街道：恒达瓶业、宏杰搪瓷厂、双桥路、运河镇博陆街道一号一带","startTime":"2019-11-26 08:00:00","stopDate":"2019-11-26 16:00:00","orgNo":"3340140","typeCode":"计划停电","poweroffArea":"110kV五杭变:新博G031线-塘栖金属压延后段;新博G031线-宏杰搪瓷厂分线开关后段;新博G031线-博陆电管站（一）分线开关后段;新博G031线-双桥路变负荷开关后段","poweroffReason":"计划工作","powerTime":"","powerComm":"","subsNo":"","lineNo":"","tgNo":"","tgName":null,"infoStatus":"1","orgName":"国网浙江杭州市余杭区供电有限公司","typeName":null,"infoStatusName":null,"dateDay":null,"orgNos":null,"nowTime":null,"countyName":null,"streetName":null,"villageName":null,"roadName":null,"communityName":null,"tranName":null,"sdLineName":null,"cityCode":"3340140","cityName":"国网浙江杭州市余杭区供电有限公司","provinceCode":null,"stopTime":"2019-11-26 16:00:00","powerType":"未送电","powerOffArea":"110kV五杭变:新博G031线-塘栖金属压延后段;新博G031线-宏杰搪瓷厂分线开关后段;新博G031线-博陆电管站（一）分线开关后段;新博G031线-双桥路变负荷开关后段","powerOffReason":"计划工作","powerOffId":"2019111531020225"},{"poweroffId":2019111531020223,"sgpoweroffId":null,"subsName":"","lineName":"10kV博镇G962线","pubTranName":"中海油销售杭州有限公司（煤库）,","scope":"浙江省杭州市余杭区运河街道：博陆煤库一带","startTime":"2019-11-26 08:00:00","stopDate":"2019-11-26 16:00:00","orgNo":"3340140","typeCode":"计划停电","poweroffArea":"110kV博陆变:博镇G962线-煤库分线开关后段","poweroffReason":"博陆煤库分线割接至天顺开关站I段博镇G962线待用G08间隔；新电缆制作、试验、搭接工作","powerTime":"","powerComm":"","subsNo":"","lineNo":"","tgNo":"","tgName":null,"infoStatus":"1","orgName":"国网浙江杭州市余杭区供电有限公司","typeName":null,"infoStatusName":null,"dateDay":null,"orgNos":null,"nowTime":null,"countyName":null,"streetName":null,"villageName":null,"roadName":null,"communityName":null,"tranName":null,"sdLineName":null,"cityCode":"3340140","cityName":"国网浙江杭州市余杭区供电有限公司","provinceCode":null,"stopTime":"2019-11-26 16:00:00","powerType":"未送电","powerOffArea":"110kV博陆变:博镇G962线-煤库分线开关后段","powerOffReason":"博陆煤库分线割接至天顺开关站I段博镇G962线待用G08间隔；新电缆制作、试验、搭接工作","powerOffId":"2019111531020223"},{"poweroffId":2019111531020195,"sgpoweroffId":null,"subsName":"","lineName":"10kV中光D555线","pubTranName":"东山村2#东山西公变,","scope":"浙江省-杭州市-富阳区-富春街道-东山社区(东兴路,东山三路,东山二路,东山四路,东山路)","startTime":"2019-12-01 07:30:00","stopDate":"2019-12-01 16:50:00","orgNo":"3340170","typeCode":"计划停电","poweroffArea":"110kV春江变:中光D555线-东山村2#东山西后段","poweroffReason":"(低压停电信息)青云2019年东山村4#桥头公变等低压台区改造工程更换落户线32处，搭接等工作","powerTime":"2019-12-01 16:37:05","powerComm":"已送电","subsNo":"","lineNo":"","tgNo":"","tgName":null,"infoStatus":"1","orgName":"国网浙江杭州市富阳区供电公司","typeName":null,"infoStatusName":null,"dateDay":null,"orgNos":null,"nowTime":null,"countyName":null,"streetName":null,"villageName":null,"roadName":null,"communityName":null,"tranName":null,"sdLineName":null,"cityCode":"3340170","cityName":"国网浙江杭州市富阳区供电公司","provinceCode":null,"stopTime":"2019-12-01 16:50:00","powerType":"全部","powerOffArea":"110kV春江变:中光D555线-东山村2#东山西后段","powerOffReason":"(低压停电信息)青云2019年东山村4#桥头公变等低压台区改造工程更换落户线32处，搭接等工作","powerOffId":"2019111531020195"},{"poweroffId":2019111531020194,"sgpoweroffId":null,"subsName":"","lineName":"10kV中光D555线","pubTranName":"东山村4#桥头公变,","scope":"浙江省-杭州市-富阳区-富春街道-东山社区(东山二路,东山路,东山三路,东山一路)","startTime":"2019-11-30 07:30:00","stopDate":"2019-11-30 16:50:00","orgNo":"3340170","typeCode":"计划停电","poweroffArea":"110kV春江变:中光D555线-东山村4#桥头后段","poweroffReason":"(低压停电信息)青云2019年东山村4#桥头公变等低压台区改造工程更换落户线40处，搭接等工作","powerTime":"2019-11-30 16:35:07","powerComm":"已送电","subsNo":"","lineNo":"","tgNo":"","tgName":null,"infoStatus":"1","orgName":"国网浙江杭州市富阳区供电公司","typeName":null,"infoStatusName":null,"dateDay":null,"orgNos":null,"nowTime":null,"countyName":null,"streetName":null,"villageName":null,"roadName":null,"communityName":null,"tranName":null,"sdLineName":null,"cityCode":"3340170","cityName":"国网浙江杭州市富阳区供电公司","provinceCode":null,"stopTime":"2019-11-30 16:50:00","powerType":"全部","powerOffArea":"110kV春江变:中光D555线-东山村4#桥头后段","powerOffReason":"(低压停电信息)青云2019年东山村4#桥头公变等低压台区改造工程更换落户线40处，搭接等工作","powerOffId":"2019111531020194"},{"poweroffId":2019111531020193,"sgpoweroffId":null,"subsName":"","lineName":"10kV潭山D711线","pubTranName":"富春五金,","scope":"浙江省杭州市富阳区新登镇杭州富春五金制品有限公司一带","startTime":"2019-11-26 08:30:00","stopDate":"2019-11-26 16:30:00","orgNo":"3340170","typeCode":"计划停电","poweroffArea":"110kV松溪变:潭山D711线104#杆潭高联线23#杆（带电作业）、胥口D712线104#杆胥灵联线23#杆富春五金分线（带电作业）、胥灵一号开关站1#间隔、潭高一号开关站1#间隔","poweroffReason":"新兴西路电力线路改造工程：潭高联线、胥灵联线25#杆后段导线拆除、拉线制作、旧杆拔除等工作","powerTime":"","powerComm":"","subsNo":"","lineNo":"","tgNo":"","tgName":null,"infoStatus":"1","orgName":"国网浙江杭州市富阳区供电公司","typeName":null,"infoStatusName":null,"dateDay":null,"orgNos":null,"nowTime":null,"countyName":null,"streetName":null,"villageName":null,"roadName":null,"communityName":null,"tranName":null,"sdLineName":null,"cityCode":"3340170","cityName":"国网浙江杭州市富阳区供电公司","provinceCode":null,"stopTime":"2019-11-26 16:30:00","powerType":"未送电","powerOffArea":"110kV松溪变:潭山D711线104#杆潭高联线23#杆（带电作业）、胥口D712线104#杆胥灵联线23#杆富春五金分线（带电作业）、胥灵一号开关站1#间隔、潭高一号开关站1#间隔","powerOffReason":"新兴西路电力线路改造工程：潭高联线、胥灵联线25#杆后段导线拆除、拉线制作、旧杆拔除等工作","powerOffId":"2019111531020193"},{"poweroffId":2019111531020192,"sgpoweroffId":null,"subsName":"","lineName":"10kV渌渚D133线","pubTranName":"百前村2#沃口公变,","scope":"浙江省-杭州市-富阳区-渌渚镇-百前行政村-沃口自然村","startTime":"2019-11-15 10:55:58","stopDate":"2019-11-15 13:00:58","orgNo":"3340170","typeCode":"电网故障停限电","poweroffArea":"110kV新登变:渌渚D133线-百前村2#沃口公变后段","poweroffReason":"高压开关跳闸","powerTime":"2019-11-15 12:16:59","powerComm":"已送电","subsNo":"","lineNo":"","tgNo":"","tgName":null,"infoStatus":"1","orgName":"国网浙江杭州市富阳区供电公司","typeName":null,"infoStatusName":null,"dateDay":null,"orgNos":null,"nowTime":null,"countyName":null,"streetName":null,"villageName":null,"roadName":null,"communityName":null,"tranName":null,"sdLineName":null,"cityCode":"3340170","cityName":"国网浙江杭州市富阳区供电公司","provinceCode":null,"stopTime":"2019-11-15 13:00:58","powerType":"全部","powerOffArea":"110kV新登变:渌渚D133线-百前村2#沃口公变后段","powerOffReason":"高压开关跳闸","powerOffId":"2019111531020192"},{"poweroffId":2019111531020191,"sgpoweroffId":null,"subsName":"","lineName":"10kV胥口D712线","pubTranName":"棠棣村2#七树湾公变,灵苑村2#徐家坞公变,神宇五金,","scope":"浙江省-杭州市-富阳区-胥口镇-杭州神宇五金工艺有限公司、棠棣村、灵苑村一带","startTime":"2019-11-28 08:30:00","stopDate":"2019-11-28 09:00:00","orgNo":"3340170","typeCode":"计划停电","poweroffArea":"110kV松溪变:胥口D712线189#杆胥上联线20#杆恢塘支线8#杆七树湾支线1#杆后段","poweroffReason":"配合七树湾支线10kV发电车接线接入","powerTime":"2019-11-28 08:50:45","powerComm":"已送电","subsNo":"","lineNo":"","tgNo":"","tgName":null,"infoStatus":"1","orgName":"国网浙江杭州市富阳区供电公司","typeName":null,"infoStatusName":null,"dateDay":null,"orgNos":null,"nowTime":null,"countyName":null,"streetName":null,"villageName":null,"roadName":null,"communityName":null,"tranName":null,"sdLineName":null,"cityCode":"3340170","cityName":"国网浙江杭州市富阳区供电公司","provinceCode":null,"stopTime":"2019-11-28 09:00:00","powerType":"全部","powerOffArea":"110kV松溪变:胥口D712线189#杆胥上联线20#杆恢塘支线8#杆七树湾支线1#杆后段","powerOffReason":"配合七树湾支线10kV发电车接线接入","powerOffId":"2019111531020191"},{"poweroffId":2019111531020189,"sgpoweroffId":null,"subsName":"","lineName":"10kV胥口D712线","pubTranName":"金慈村3号恢塘公变,","scope":"浙江省-杭州市-富阳区-胥口镇-金慈行政村一带","startTime":"2019-11-28 08:30:00","stopDate":"2019-11-28 09:30:00","orgNo":"3340170","typeCode":"计划停电","poweroffArea":"110kV松溪变:胥口D712线189#杆胥上联线20#杆恢塘支线15#杆金慈村3号恢塘公变","poweroffReason":"配合金慈村3号恢塘公变0.4kV发电机接入原计划开始时间2019-11-28 09:00:00因政策原因提前至2019-11-28 08:30:00","powerTime":"2019-11-28 09:20:18","powerComm":"已送电","subsNo":"","lineNo":"","tgNo":"","tgName":null,"infoStatus":"1","orgName":"国网浙江杭州市富阳区供电公司","typeName":null,"infoStatusName":null,"dateDay":null,"orgNos":null,"nowTime":null,"countyName":null,"streetName":null,"villageName":null,"roadName":null,"communityName":null,"tranName":null,"sdLineName":null,"cityCode":"3340170","cityName":"国网浙江杭州市富阳区供电公司","provinceCode":null,"stopTime":"2019-11-28 09:30:00","powerType":"全部","powerOffArea":"110kV松溪变:胥口D712线189#杆胥上联线20#杆恢塘支线15#杆金慈村3号恢塘公变","powerOffReason":"配合金慈村3号恢塘公变0.4kV发电机接入原计划开始时间2019-11-28 09:00:00因政策原因提前至2019-11-28 08:30:00","powerOffId":"2019111531020189"},{"poweroffId":2019111531020188,"sgpoweroffId":null,"subsName":"","lineName":"10kV胥口D712线","pubTranName":"棠棣村8#木桥头公变,","scope":"浙江省-杭州市-富阳区-胥口镇-棠棣行政村-朱家坞自然村、木桥头自然村一带","startTime":"2019-11-28 08:30:00","stopDate":"2019-11-28 09:30:00","orgNo":"3340170","typeCode":"计划停电","poweroffArea":"110kV松溪变:胥口D712线189#杆胥上联线20#杆恢塘支线14#杆木桥头支线1#杆棠棣村8号木桥头公变","poweroffReason":"配合棠棣村8号木桥头公变0.4kV发电机接入原计划开始时间2019-11-28 09:00:00因政策原因提前至2019-11-28 08:30:00","powerTime":"2019-11-28 09:20:31","powerComm":"已送电","subsNo":"","lineNo":"","tgNo":"","tgName":null,"infoStatus":"1","orgName":"国网浙江杭州市富阳区供电公司","typeName":null,"infoStatusName":null,"dateDay":null,"orgNos":null,"nowTime":null,"countyName":null,"streetName":null,"villageName":null,"roadName":null,"communityName":null,"tranName":null,"sdLineName":null,"cityCode":"3340170","cityName":"国网浙江杭州市富阳区供电公司","provinceCode":null,"stopTime":"2019-11-28 09:30:00","powerType":"全部","powerOffArea":"110kV松溪变:胥口D712线189#杆胥上联线20#杆恢塘支线14#杆木桥头支线1#杆棠棣村8号木桥头公变","powerOffReason":"配合棠棣村8号木桥头公变0.4kV发电机接入原计划开始时间2019-11-28 09:00:00因政策原因提前至2019-11-28 08:30:00","powerOffId":"2019111531020188"}],"pageModel":{"pageNow":862,"totalCount":17789,"totalPage":1779,"tableRows":0,"pageCount":10,"beginCount":8610},"isExperi":"1"}