{"message":"","today":"2020-06-15","seleList":[{"poweroffId":2019111531020173,"sgpoweroffId":null,"subsName":"","lineName":"10kV胥口D712线","pubTranName":"棠棣村4#朱家坞公变变压器,","scope":"浙江省-杭州市-富阳区-胥口镇-棠棣行政村-朱家坞自然村、木桥头自然村一带","startTime":"2019-11-28 09:00:00","stopDate":"2019-11-28 16:30:00","orgNo":"3340170","typeCode":"计划停电","poweroffArea":"110kV松溪变:胥口D712线189#杆胥上联线20#杆恢塘支线7#杆后段","poweroffReason":"新登2019年10kV上练D713线等线路改造工程：恢塘支线10#杆-13#杆导线拆除、8#杆-12#杆弧垂调整及恒泰机械支线开关拆装、导线调换等工作","powerTime":"2019-11-28 16:20:55","powerComm":"已送电","subsNo":"","lineNo":"","tgNo":"","tgName":null,"infoStatus":"1","orgName":"国网浙江杭州市富阳区供电公司","typeName":null,"infoStatusName":null,"dateDay":null,"orgNos":null,"nowTime":null,"countyName":null,"streetName":null,"villageName":null,"roadName":null,"communityName":null,"tranName":null,"sdLineName":null,"cityCode":"3340170","cityName":"国网浙江杭州市富阳区供电公司","provinceCode":null,"stopTime":"2019-11-28 16:30:00","powerType":"全部","powerOffArea":"110kV松溪变:胥口D712线189#杆胥上联线20#杆恢塘支线7#杆后段","powerOffReason":"新登2019年10kV上练D713线等线路改造工程：恢塘支线10#杆-13#杆导线拆除、8#杆-12#杆弧垂调整及恒泰机械支线开关拆装、导线调换等工作","powerOffId":"2019111531020173"},{"poweroffId":2019111531020171,"sgpoweroffId":null,"subsName":"","lineName":"10kV沿河8904线","pubTranName":"荷花八变,","scope":"浙江省杭州市西湖区荷花苑126号、127号、134号至137号一带","startTime":"2019-11-26 12:30:00","stopDate":"2019-11-26 17:30:00","orgNo":"3340101","typeCode":"计划停电","poweroffArea":"110kV丰潭变:沿河8904线-荷花八变后段","poweroffReason":"(低压停电信息)2.荷花苑135号、136号、137号等表箱改造","powerTime":"","powerComm":"","subsNo":"","lineNo":"","tgNo":"","tgName":null,"infoStatus":"1","orgName":"浙江杭州电力客户服务中心","typeName":null,"infoStatusName":null,"dateDay":null,"orgNos":null,"nowTime":null,"countyName":null,"streetName":null,"villageName":null,"roadName":null,"communityName":null,"tranName":null,"sdLineName":null,"cityCode":"3340101","cityName":"浙江杭州电力客户服务中心","provinceCode":null,"stopTime":"2019-11-26 17:30:00","powerType":"未送电","powerOffArea":"110kV丰潭变:沿河8904线-荷花八变后段","powerOffReason":"(低压停电信息)2.荷花苑135号、136号、137号等表箱改造","powerOffId":"2019111531020171"},{"poweroffId":2019111531020169,"sgpoweroffId":null,"subsName":"","lineName":"10kV蓝顿8520线","pubTranName":"紫金（三）,紫金（二）,","scope":"浙江省杭州市西湖区紫金公寓小区2幢、3幢、6幢、7幢、11幢、12幢附近一带用户","startTime":"2019-11-26 09:00:00","stopDate":"2019-11-26 17:30:00","orgNo":"3340101","typeCode":"计划停电","poweroffArea":"110kV文三变:蓝顿8520线首端，紫金（三），紫金（二）之间","poweroffReason":"紫金小区美变更换工程（华西）紫金（二）、紫金（三）美变更换","powerTime":"","powerComm":"","subsNo":"","lineNo":"","tgNo":"","tgName":null,"infoStatus":"1","orgName":"浙江杭州电力客户服务中心","typeName":null,"infoStatusName":null,"dateDay":null,"orgNos":null,"nowTime":null,"countyName":null,"streetName":null,"villageName":null,"roadName":null,"communityName":null,"tranName":null,"sdLineName":null,"cityCode":"3340101","cityName":"浙江杭州电力客户服务中心","provinceCode":null,"stopTime":"2019-11-26 17:30:00","powerType":"未送电","powerOffArea":"110kV文三变:蓝顿8520线首端，紫金（三），紫金（二）之间","powerOffReason":"紫金小区美变更换工程（华西）紫金（二）、紫金（三）美变更换","powerOffId":"2019111531020169"},{"poweroffId":2019111531020168,"sgpoweroffId":null,"subsName":"","lineName":"10kV永盛D406线","pubTranName":"浙江飞鱼实业有限公司,","scope":"浙江省-杭州市-富阳区-鹿山街道-鹿山工业园区-浙江飞鱼实业有限公司","startTime":"2019-11-29 09:00:00","stopDate":"2019-11-29 13:00:00","orgNo":"3340170","typeCode":"计划停电","poweroffArea":"110kV长春变:永盛D406线-浙江飞鱼实业有限公司后段","poweroffReason":"青云2019年缺陷处理工程：10kV永盛D406线10#杆飞鱼分线缺陷处理，原飞鱼分线分段刀闸更换为真空开关等工作","powerTime":"2019-11-29 12:45:03","powerComm":"已送电","subsNo":"","lineNo":"","tgNo":"","tgName":null,"infoStatus":"1","orgName":"国网浙江杭州市富阳区供电公司","typeName":null,"infoStatusName":null,"dateDay":null,"orgNos":null,"nowTime":null,"countyName":null,"streetName":null,"villageName":null,"roadName":null,"communityName":null,"tranName":null,"sdLineName":null,"cityCode":"3340170","cityName":"国网浙江杭州市富阳区供电公司","provinceCode":null,"stopTime":"2019-11-29 13:00:00","powerType":"全部","powerOffArea":"110kV长春变:永盛D406线-浙江飞鱼实业有限公司后段","powerOffReason":"青云2019年缺陷处理工程：10kV永盛D406线10#杆飞鱼分线缺陷处理，原飞鱼分线分段刀闸更换为真空开关等工作","powerOffId":"2019111531020168"},{"poweroffId":2019111531020167,"sgpoweroffId":null,"subsName":"","lineName":"10kV沿河8904线","pubTranName":"荷花六变,","scope":"浙江省杭州市西湖区荷花苑122号至125号、130号、131号一带","startTime":"2019-11-26 09:00:00","stopDate":"2019-11-26 15:00:00","orgNo":"3340101","typeCode":"计划停电","poweroffArea":"110kV丰潭变:沿河8904线-荷花六变后段","poweroffReason":"(低压停电信息)1.荷花苑130号、131号表箱改造","powerTime":"","powerComm":"","subsNo":"","lineNo":"","tgNo":"","tgName":null,"infoStatus":"1","orgName":"浙江杭州电力客户服务中心","typeName":null,"infoStatusName":null,"dateDay":null,"orgNos":null,"nowTime":null,"countyName":null,"streetName":null,"villageName":null,"roadName":null,"communityName":null,"tranName":null,"sdLineName":null,"cityCode":"3340101","cityName":"浙江杭州电力客户服务中心","provinceCode":null,"stopTime":"2019-11-26 15:00:00","powerType":"未送电","powerOffArea":"110kV丰潭变:沿河8904线-荷花六变后段","powerOffReason":"(低压停电信息)1.荷花苑130号、131号表箱改造","powerOffId":"2019111531020167"},{"poweroffId":2019111531020166,"sgpoweroffId":null,"subsName":"","lineName":"10kV西荡8917线","pubTranName":"荷花一变,","scope":"浙江省杭州市西湖区荷花苑61号至64号、87号、88号、环卫服务中心一带","startTime":"2019-11-25 12:30:00","stopDate":"2019-11-25 17:00:00","orgNo":"3340101","typeCode":"计划停电","poweroffArea":"110kV丰潭变:西荡8917线-荷花一变后段","poweroffReason":"(低压停电信息)2.荷花苑61号、62号、87号、88号表箱改造","powerTime":"","powerComm":"","subsNo":"","lineNo":"","tgNo":"","tgName":null,"infoStatus":"1","orgName":"浙江杭州电力客户服务中心","typeName":null,"infoStatusName":null,"dateDay":null,"orgNos":null,"nowTime":null,"countyName":null,"streetName":null,"villageName":null,"roadName":null,"communityName":null,"tranName":null,"sdLineName":null,"cityCode":"3340101","cityName":"浙江杭州电力客户服务中心","provinceCode":null,"stopTime":"2019-11-25 17:00:00","powerType":"未送电","powerOffArea":"110kV丰潭变:西荡8917线-荷花一变后段","powerOffReason":"(低压停电信息)2.荷花苑61号、62号、87号、88号表箱改造","powerOffId":"2019111531020166"},{"poweroffId":2019111531020165,"sgpoweroffId":null,"subsName":"","lineName":"10kV大岭8867线","pubTranName":"外桐(四),","scope":"浙江省杭州市西湖区转塘街道外桐坞村79号、92号、95号、123号、125号、127号、130号一带","startTime":"2019-11-27 13:30:00","stopDate":"2019-11-27 15:00:00","orgNo":"3340101","typeCode":"计划停电","poweroffArea":"110kV留下变:大岭8867线-外桐(四)后段","poweroffReason":"(低压停电信息)3.转塘街道外桐坞行政村127号表计增容（8KW增容到12KW) 原停电结束时间为2019-11-25 15:00:00,因计划调整原因,现变更停电结束时间为2019-11-27 15:00:00","powerTime":"2019-11-27 14:02:47","powerComm":"已送电","subsNo":"","lineNo":"","tgNo":"","tgName":null,"infoStatus":"1","orgName":"浙江杭州电力客户服务中心","typeName":null,"infoStatusName":null,"dateDay":null,"orgNos":null,"nowTime":null,"countyName":null,"streetName":null,"villageName":null,"roadName":null,"communityName":null,"tranName":null,"sdLineName":null,"cityCode":"3340101","cityName":"浙江杭州电力客户服务中心","provinceCode":null,"stopTime":"2019-11-27 15:00:00","powerType":"全部","powerOffArea":"110kV留下变:大岭8867线-外桐(四)后段","powerOffReason":"(低压停电信息)3.转塘街道外桐坞行政村127号表计增容（8KW增容到12KW) 原停电结束时间为2019-11-25 15:00:00,因计划调整原因,现变更停电结束时间为2019-11-27 15:00:00","powerOffId":"2019111531020165"},{"poweroffId":2019111531020164,"sgpoweroffId":null,"subsName":"","lineName":"10kV贤德D333线","pubTranName":"文村村5#天井山公变,","scope":"浙江省-杭州市-富阳区-洞桥镇-文村行政村-天井山自然村一带","startTime":"2019-11-30 08:30:00","stopDate":"2019-11-30 19:30:00","orgNo":"3340170","typeCode":"计划停电","poweroffArea":"110kV万市变:贤德D333线294#杆天井山分线","poweroffReason":"新登2019年10kV高山支线等线路改造工程：13#杆至17#杆电杆调换铁塔、架线、搭接等工作 原停电结束时间为2019-11-30 20:30:00,为减少客户停电时间,加快工作进度,提前送电,现变更停电结束时间为2019-11-30 19:30:00","powerTime":"2019-11-30 19:10:06","powerComm":"已送电","subsNo":"","lineNo":"","tgNo":"","tgName":null,"infoStatus":"1","orgName":"国网浙江杭州市富阳区供电公司","typeName":null,"infoStatusName":null,"dateDay":null,"orgNos":null,"nowTime":null,"countyName":null,"streetName":null,"villageName":null,"roadName":null,"communityName":null,"tranName":null,"sdLineName":null,"cityCode":"3340170","cityName":"国网浙江杭州市富阳区供电公司","provinceCode":null,"stopTime":"2019-11-30 19:30:00","powerType":"全部","powerOffArea":"110kV万市变:贤德D333线294#杆天井山分线","powerOffReason":"新登2019年10kV高山支线等线路改造工程：13#杆至17#杆电杆调换铁塔、架线、搭接等工作 原停电结束时间为2019-11-30 20:30:00,为减少客户停电时间,加快工作进度,提前送电,现变更停电结束时间为2019-11-30 19:30:00","powerOffId":"2019111531020164"},{"poweroffId":2019111531020161,"sgpoweroffId":null,"subsName":"","lineName":"10kV外桐8879线","pubTranName":"里坞一变,","scope":"浙江省杭州市西湖区转塘街道桐坞村路东80号、83号、84号一带","startTime":"2019-11-27 12:30:00","stopDate":"2019-11-27 14:00:00","orgNo":"3340101","typeCode":"计划停电","poweroffArea":"110kV留下变:外桐8879线-里坞一变后段","poweroffReason":"(低压停电信息)2.转塘街道桐坞行政村路东83号表计移表 原停电结束时间为2019-11-27 15:00:00,为减少客户停电时间,加快工作进度,提前送电,现变更停电结束时间为2019-11-27 14:00:00","powerTime":"2019-11-27 13:05:58","powerComm":"已送电","subsNo":"","lineNo":"","tgNo":"","tgName":null,"infoStatus":"1","orgName":"浙江杭州电力客户服务中心","typeName":null,"infoStatusName":null,"dateDay":null,"orgNos":null,"nowTime":null,"countyName":null,"streetName":null,"villageName":null,"roadName":null,"communityName":null,"tranName":null,"sdLineName":null,"cityCode":"3340101","cityName":"浙江杭州电力客户服务中心","provinceCode":null,"stopTime":"2019-11-27 14:00:00","powerType":"全部","powerOffArea":"110kV留下变:外桐8879线-里坞一变后段","powerOffReason":"(低压停电信息)2.转塘街道桐坞行政村路东83号表计移表 原停电结束时间为2019-11-27 15:00:00,为减少客户停电时间,加快工作进度,提前送电,现变更停电结束时间为2019-11-27 14:00:00","powerOffId":"2019111531020161"},{"poweroffId":2019111531020159,"sgpoweroffId":null,"subsName":"","lineName":"10kV沿河8904线","pubTranName":"荷花二变,","scope":"浙江省杭州市西湖区荷花苑213号至218号一带","startTime":"2019-11-25 09:00:00","stopDate":"2019-11-25 15:00:00","orgNo":"3340101","typeCode":"计划停电","poweroffArea":"110kV丰潭变:沿河8904线-荷花二变后段","poweroffReason":"(低压停电信息)1.荷花苑213号、215号、216号表箱改造","powerTime":"","powerComm":"","subsNo":"","lineNo":"","tgNo":"","tgName":null,"infoStatus":"1","orgName":"浙江杭州电力客户服务中心","typeName":null,"infoStatusName":null,"dateDay":null,"orgNos":null,"nowTime":null,"countyName":null,"streetName":null,"villageName":null,"roadName":null,"communityName":null,"tranName":null,"sdLineName":null,"cityCode":"3340101","cityName":"浙江杭州电力客户服务中心","provinceCode":null,"stopTime":"2019-11-25 15:00:00","powerType":"未送电","powerOffArea":"110kV丰潭变:沿河8904线-荷花二变后段","powerOffReason":"(低压停电信息)1.荷花苑213号、215号、216号表箱改造","powerOffId":"2019111531020159"}],"pageModel":{"pageNow":864,"totalCount":17789,"totalPage":1779,"tableRows":0,"pageCount":10,"beginCount":8630},"isExperi":"1"}