{"message":"","today":"2020-06-15","seleList":[{"poweroffId":2019111531020139,"sgpoweroffId":null,"subsName":"","lineName":"10kV秋丰D985线","pubTranName":"秋丰村孙家弄9号公变,","scope":"浙江省-杭州市-富阳区-富春街道-秋丰行政村-秋丰自然村","startTime":"2019-11-26 07:30:00","stopDate":"2019-11-26 12:10:00","orgNo":"3340170","typeCode":"计划停电","poweroffArea":"110kV育才变:秋丰D985线-秋丰村孙家弄9号后段","poweroffReason":"(低压停电信息)青云2019年东山村4#桥头公变等低压台区改造工程更换落户线17处，搭接等工作","powerTime":"","powerComm":"","subsNo":"","lineNo":"","tgNo":"","tgName":null,"infoStatus":"1","orgName":"国网浙江杭州市富阳区供电公司","typeName":null,"infoStatusName":null,"dateDay":null,"orgNos":null,"nowTime":null,"countyName":null,"streetName":null,"villageName":null,"roadName":null,"communityName":null,"tranName":null,"sdLineName":null,"cityCode":"3340170","cityName":"国网浙江杭州市富阳区供电公司","provinceCode":null,"stopTime":"2019-11-26 12:10:00","powerType":"未送电","powerOffArea":"110kV育才变:秋丰D985线-秋丰村孙家弄9号后段","powerOffReason":"(低压停电信息)青云2019年东山村4#桥头公变等低压台区改造工程更换落户线17处，搭接等工作","powerOffId":"2019111531020139"},{"poweroffId":2019111531020138,"sgpoweroffId":null,"subsName":"","lineName":"10kV朝阳G111线","pubTranName":"千禧苑公变,大红鹰超市,市人民银行（主供）,","scope":"浙江省杭州市余杭区南苑街道：千禧苑一带","startTime":"2019-11-30 08:30:00","stopDate":"2019-11-30 17:00:00","orgNo":"3340140","typeCode":"计划停电","poweroffArea":"110kV临平变:百福环网站朝阳G111线千禧分线。","poweroffReason":"百福环网站朝阳G111线千禧分线人民银行配电房改造。","powerTime":"2019-11-30 16:03:00","powerComm":"已送电","subsNo":"","lineNo":"","tgNo":"","tgName":null,"infoStatus":"1","orgName":"国网浙江杭州市余杭区供电有限公司","typeName":null,"infoStatusName":null,"dateDay":null,"orgNos":null,"nowTime":null,"countyName":null,"streetName":null,"villageName":null,"roadName":null,"communityName":null,"tranName":null,"sdLineName":null,"cityCode":"3340140","cityName":"国网浙江杭州市余杭区供电有限公司","provinceCode":null,"stopTime":"2019-11-30 17:00:00","powerType":"全部","powerOffArea":"110kV临平变:百福环网站朝阳G111线千禧分线。","powerOffReason":"百福环网站朝阳G111线千禧分线人民银行配电房改造。","powerOffId":"2019111531020138"},{"poweroffId":2019111531020137,"sgpoweroffId":null,"subsName":"","lineName":"10kV秋丰D985线","pubTranName":"秋丰村石塔上5号公变,","scope":"浙江省-杭州市-富阳区-富春街道-秋丰行政村-秋丰自然村","startTime":"2019-11-25 12:30:00","stopDate":"2019-11-25 16:50:00","orgNo":"3340170","typeCode":"计划停电","poweroffArea":"110kV育才变:秋丰D985线-秋丰村石塔上5号后段","poweroffReason":"(低压停电信息)青云2019年东山村4#桥头公变等低压台区改造工程更换落户线18处，搭接等工作","powerTime":"","powerComm":"","subsNo":"","lineNo":"","tgNo":"","tgName":null,"infoStatus":"1","orgName":"国网浙江杭州市富阳区供电公司","typeName":null,"infoStatusName":null,"dateDay":null,"orgNos":null,"nowTime":null,"countyName":null,"streetName":null,"villageName":null,"roadName":null,"communityName":null,"tranName":null,"sdLineName":null,"cityCode":"3340170","cityName":"国网浙江杭州市富阳区供电公司","provinceCode":null,"stopTime":"2019-11-25 16:50:00","powerType":"未送电","powerOffArea":"110kV育才变:秋丰D985线-秋丰村石塔上5号后段","powerOffReason":"(低压停电信息)青云2019年东山村4#桥头公变等低压台区改造工程更换落户线18处，搭接等工作","powerOffId":"2019111531020137"},{"poweroffId":2019111531020136,"sgpoweroffId":null,"subsName":"","lineName":"10kV荆余H623线","pubTranName":"瑞城休闲中心1#,瑞城休闲中心2#,","scope":"浙江省杭州市余杭区仓前街道：瑞城休闲中心一带","startTime":"2019-11-27 09:30:00","stopDate":"2019-11-27 14:50:00","orgNo":"3340140","typeCode":"计划停电","poweroffArea":"瑞城开关站荆余H623线瑞城休闲中心分线原停电结束时间为2019-11-27 14:30:00,因雨原因,现变更停电结束时间为2019-11-27 14:50:00","poweroffReason":"配网工程 原停电结束时间为2019-11-27 14:30:00,因雨原因,现变更停电结束时间为2019-11-27 14:50:00","powerTime":"2019-11-27 14:42:41","powerComm":"已送电","subsNo":"","lineNo":"","tgNo":"","tgName":null,"infoStatus":"1","orgName":"国网浙江杭州市余杭区供电有限公司","typeName":null,"infoStatusName":null,"dateDay":null,"orgNos":null,"nowTime":null,"countyName":null,"streetName":null,"villageName":null,"roadName":null,"communityName":null,"tranName":null,"sdLineName":null,"cityCode":"3340140","cityName":"国网浙江杭州市余杭区供电有限公司","provinceCode":null,"stopTime":"2019-11-27 14:50:00","powerType":"全部","powerOffArea":"瑞城开关站荆余H623线瑞城休闲中心分线原停电结束时间为2019-11-27 14:30:00,因雨原因,现变更停电结束时间为2019-11-27 14:50:00","powerOffReason":"配网工程 原停电结束时间为2019-11-27 14:30:00,因雨原因,现变更停电结束时间为2019-11-27 14:50:00","powerOffId":"2019111531020136"},{"poweroffId":2019111531020135,"sgpoweroffId":null,"subsName":"","lineName":"10kV荷庄D763线","pubTranName":"外沙村2#村中公变,","scope":"浙江省-杭州市-富阳区-灵桥镇-外沙行政村-外沙自然村一带","startTime":"2019-11-25 08:15:00","stopDate":"2019-11-25 16:40:00","orgNo":"3340170","typeCode":"计划停电","poweroffArea":"110kV春联变:荷庄D763线-外沙村2号村中低压开关后段","poweroffReason":"(低压停电信息)安装横担、拆装导线、接户线搭接等工作","powerTime":"","powerComm":"","subsNo":"","lineNo":"","tgNo":"","tgName":null,"infoStatus":"1","orgName":"国网浙江杭州市富阳区供电公司","typeName":null,"infoStatusName":null,"dateDay":null,"orgNos":null,"nowTime":null,"countyName":null,"streetName":null,"villageName":null,"roadName":null,"communityName":null,"tranName":null,"sdLineName":null,"cityCode":"3340170","cityName":"国网浙江杭州市富阳区供电公司","provinceCode":null,"stopTime":"2019-11-25 16:40:00","powerType":"未送电","powerOffArea":"110kV春联变:荷庄D763线-外沙村2号村中低压开关后段","powerOffReason":"(低压停电信息)安装横担、拆装导线、接户线搭接等工作","powerOffId":"2019111531020135"},{"poweroffId":2019111531020134,"sgpoweroffId":null,"subsName":"","lineName":"10kV乔中G902线","pubTranName":"杭州余杭区保障房建设有限公司61208637421#变压器,杭州余杭区保障房建设有限公司61208637391#变压器,杭州余杭区保障房建设有限公司61208637371#变压器,","scope":"浙江省杭州市余杭区乔司街道：保障房建设基建变一带","startTime":"2019-11-27 08:30:00","stopDate":"2019-11-27 16:00:00","orgNo":"3340140","typeCode":"计划停电","poweroffArea":"110kV庙港变:洪塘开关站乔中G902线保障建设分线。","poweroffReason":"洪塘开关站乔中G902线保障建设分线改接至宜家开关站花漫G013线待用G14线。 原停电结束时间为2019-11-27 17:00:00,为减少客户停电时间,加快工作进度,提前送电,现变更停电结束时间为2019-11-27 16:00:00","powerTime":"2019-11-27 15:03:56","powerComm":"已送电","subsNo":"","lineNo":"","tgNo":"","tgName":null,"infoStatus":"1","orgName":"国网浙江杭州市余杭区供电有限公司","typeName":null,"infoStatusName":null,"dateDay":null,"orgNos":null,"nowTime":null,"countyName":null,"streetName":null,"villageName":null,"roadName":null,"communityName":null,"tranName":null,"sdLineName":null,"cityCode":"3340140","cityName":"国网浙江杭州市余杭区供电有限公司","provinceCode":null,"stopTime":"2019-11-27 16:00:00","powerType":"全部","powerOffArea":"110kV庙港变:洪塘开关站乔中G902线保障建设分线。","powerOffReason":"洪塘开关站乔中G902线保障建设分线改接至宜家开关站花漫G013线待用G14线。 原停电结束时间为2019-11-27 17:00:00,为减少客户停电时间,加快工作进度,提前送电,现变更停电结束时间为2019-11-27 16:00:00","powerOffId":"2019111531020134"},{"poweroffId":2019111531020133,"sgpoweroffId":null,"subsName":"","lineName":"10kV龙门D787线","pubTranName":"龙门七村8号龙一官地公变,","scope":"浙江省-杭州市-富阳区(龙门镇-龙门七村行政村-龙门村自然村,上官乡-四堡行政村-四堡自然村)一带","startTime":"2019-11-25 08:30:00","stopDate":"2019-11-25 15:30:00","orgNo":"3340170","typeCode":"计划停电","poweroffArea":"110kV王洲变:龙门D787线-龙门七村8#龙一官地公变熔断器后段","poweroffReason":"(低压停电信息)洋沙村4#大塔村口公变等台区增容布点工程：龙门七村8#龙一官地公变01出线拆除低压出线电缆1根，拆除导线1档等工作；龙门D787线181#杆新布点安装真空开关1台，低压电缆上杆搭接等工作。龙门七村8#龙一官地公变配合停电","powerTime":"","powerComm":"","subsNo":"","lineNo":"","tgNo":"","tgName":null,"infoStatus":"1","orgName":"国网浙江杭州市富阳区供电公司","typeName":null,"infoStatusName":null,"dateDay":null,"orgNos":null,"nowTime":null,"countyName":null,"streetName":null,"villageName":null,"roadName":null,"communityName":null,"tranName":null,"sdLineName":null,"cityCode":"3340170","cityName":"国网浙江杭州市富阳区供电公司","provinceCode":null,"stopTime":"2019-11-25 15:30:00","powerType":"未送电","powerOffArea":"110kV王洲变:龙门D787线-龙门七村8#龙一官地公变熔断器后段","powerOffReason":"(低压停电信息)洋沙村4#大塔村口公变等台区增容布点工程：龙门七村8#龙一官地公变01出线拆除低压出线电缆1根，拆除导线1档等工作；龙门D787线181#杆新布点安装真空开关1台，低压电缆上杆搭接等工作。龙门七村8#龙一官地公变配合停电","powerOffId":"2019111531020133"},{"poweroffId":2019111531020131,"sgpoweroffId":null,"subsName":"","lineName":"10kV荆余H623线","pubTranName":"瑞城幼儿园高配,","scope":"浙江省杭州市余杭区仓前街道：瑞城幼儿园一带","startTime":"2019-11-27 13:00:00","stopDate":"2019-11-27 16:30:00","orgNo":"3340140","typeCode":"计划停电","poweroffArea":"瑞城开关站荆余H623线瑞城幼儿园分线","poweroffReason":"配网工程（2019年杭州余杭科技城地区10千伏环网柜更换工程）：瑞城幼儿园分线改接至瑞城开关站Ⅱ段18号间隔","powerTime":"2019-11-27 16:01:42","powerComm":"已送电","subsNo":"","lineNo":"","tgNo":"","tgName":null,"infoStatus":"1","orgName":"国网浙江杭州市余杭区供电有限公司","typeName":null,"infoStatusName":null,"dateDay":null,"orgNos":null,"nowTime":null,"countyName":null,"streetName":null,"villageName":null,"roadName":null,"communityName":null,"tranName":null,"sdLineName":null,"cityCode":"3340140","cityName":"国网浙江杭州市余杭区供电有限公司","provinceCode":null,"stopTime":"2019-11-27 16:30:00","powerType":"全部","powerOffArea":"瑞城开关站荆余H623线瑞城幼儿园分线","powerOffReason":"配网工程（2019年杭州余杭科技城地区10千伏环网柜更换工程）：瑞城幼儿园分线改接至瑞城开关站Ⅱ段18号间隔","powerOffId":"2019111531020131"},{"poweroffId":2019111531020130,"sgpoweroffId":null,"subsName":"","lineName":"10kV窄溪T257线","pubTranName":"窄溪自来水厂,","scope":"浙江省-杭州市-桐庐县-江南镇-窄溪行政村-窄溪自来水厂","startTime":"2019-11-22 09:00:00","stopDate":"2019-11-22 14:00:00","orgNo":"3340150","typeCode":"临时停电","poweroffArea":"110kV石阜变:窄溪T257线-古城F5219令克后段","poweroffReason":"湖杭高铁用户工程","powerTime":"2019-11-22 13:53:01","powerComm":"已送电","subsNo":"","lineNo":"","tgNo":"","tgName":null,"infoStatus":"1","orgName":"国网浙江桐庐县供电公司","typeName":null,"infoStatusName":null,"dateDay":null,"orgNos":null,"nowTime":null,"countyName":null,"streetName":null,"villageName":null,"roadName":null,"communityName":null,"tranName":null,"sdLineName":null,"cityCode":"3340150","cityName":"国网浙江桐庐县供电公司","provinceCode":null,"stopTime":"2019-11-22 14:00:00","powerType":"全部","powerOffArea":"110kV石阜变:窄溪T257线-古城F5219令克后段","powerOffReason":"湖杭高铁用户工程","powerOffId":"2019111531020130"},{"poweroffId":2019111531020129,"sgpoweroffId":null,"subsName":"","lineName":"10kV东升D165线","pubTranName":"大源镇16#商贸公变,","scope":"浙江省杭州市富阳区大源镇大源镇中心小学一带","startTime":"2019-11-25 08:00:00","stopDate":"2019-11-25 13:30:00","orgNo":"3340170","typeCode":"计划停电","poweroffArea":"110kV大源变:东升D165线-大源镇16#商贸公变低压开关后段","poweroffReason":"(低压停电信息)大源镇中心小学配变工程：新上保险丝开关1组，电缆上杆搭头等工作。（2路0.4kV低压出线配合停电）","powerTime":"","powerComm":"","subsNo":"","lineNo":"","tgNo":"","tgName":null,"infoStatus":"1","orgName":"国网浙江杭州市富阳区供电公司","typeName":null,"infoStatusName":null,"dateDay":null,"orgNos":null,"nowTime":null,"countyName":null,"streetName":null,"villageName":null,"roadName":null,"communityName":null,"tranName":null,"sdLineName":null,"cityCode":"3340170","cityName":"国网浙江杭州市富阳区供电公司","provinceCode":null,"stopTime":"2019-11-25 13:30:00","powerType":"未送电","powerOffArea":"110kV大源变:东升D165线-大源镇16#商贸公变低压开关后段","powerOffReason":"(低压停电信息)大源镇中心小学配变工程：新上保险丝开关1组，电缆上杆搭头等工作。（2路0.4kV低压出线配合停电）","powerOffId":"2019111531020129"}],"pageModel":{"pageNow":866,"totalCount":17789,"totalPage":1779,"tableRows":0,"pageCount":10,"beginCount":8650},"isExperi":"1"}