{"message":"","today":"2020-06-15","seleList":[{"poweroffId":2019111531020128,"sgpoweroffId":null,"subsName":"","lineName":"10kV秋丰D985线","pubTranName":"秋丰村64号石塔上公变,","scope":"浙江省-杭州市-富阳区-富春街道-秋丰行政村-秋丰自然村","startTime":"2019-11-25 07:30:00","stopDate":"2019-11-25 11:50:00","orgNo":"3340170","typeCode":"计划停电","poweroffArea":"110kV育才变:秋丰D985线-秋丰村64号石塔上后段","poweroffReason":"(低压停电信息)青云2019年东山村4#桥头公变等低压台区改造工程更换落户线14处，搭接等工作","powerTime":"","powerComm":"","subsNo":"","lineNo":"","tgNo":"","tgName":null,"infoStatus":"1","orgName":"国网浙江杭州市富阳区供电公司","typeName":null,"infoStatusName":null,"dateDay":null,"orgNos":null,"nowTime":null,"countyName":null,"streetName":null,"villageName":null,"roadName":null,"communityName":null,"tranName":null,"sdLineName":null,"cityCode":"3340170","cityName":"国网浙江杭州市富阳区供电公司","provinceCode":null,"stopTime":"2019-11-25 11:50:00","powerType":"未送电","powerOffArea":"110kV育才变:秋丰D985线-秋丰村64号石塔上后段","powerOffReason":"(低压停电信息)青云2019年东山村4#桥头公变等低压台区改造工程更换落户线14处，搭接等工作","powerOffId":"2019111531020128"},{"poweroffId":2019111531020125,"sgpoweroffId":null,"subsName":"","lineName":"10kV乔中G902线","pubTranName":"乔农路路灯变,水厂宿舍,双和环境61207081171#变压器,共和8组公变,","scope":"浙江省杭州市余杭区乔司街道：共和8组、水厂宿舍、乔农路路灯bian、双和环境项目部基建bian一带","startTime":"2019-11-26 08:30:00","stopDate":"2019-11-26 15:30:00","orgNo":"3340140","typeCode":"计划停电","poweroffArea":"110kV庙港变:乔安开关站乔中G902线共和8组分线。","poweroffReason":"乔安开关站乔中G902线共和8组分线改接至南迎开关站逸景G065线待用G14线。","powerTime":"","powerComm":"","subsNo":"","lineNo":"","tgNo":"","tgName":null,"infoStatus":"1","orgName":"国网浙江杭州市余杭区供电有限公司","typeName":null,"infoStatusName":null,"dateDay":null,"orgNos":null,"nowTime":null,"countyName":null,"streetName":null,"villageName":null,"roadName":null,"communityName":null,"tranName":null,"sdLineName":null,"cityCode":"3340140","cityName":"国网浙江杭州市余杭区供电有限公司","provinceCode":null,"stopTime":"2019-11-26 15:30:00","powerType":"未送电","powerOffArea":"110kV庙港变:乔安开关站乔中G902线共和8组分线。","powerOffReason":"乔安开关站乔中G902线共和8组分线改接至南迎开关站逸景G065线待用G14线。","powerOffId":"2019111531020125"},{"poweroffId":2019111531020123,"sgpoweroffId":null,"subsName":"","lineName":"10kV海常H643线","pubTranName":"仓六4号基建,仓六工棚,杭州未来科技城建设有限公司,仓六3号基建,仓六1号基建,","scope":"浙江省杭州市余杭区仓前街道：杭州未来科技城建设有限公司、振丰建设工地一带","startTime":"2019-11-26 09:30:00","stopDate":"2019-11-26 13:30:00","orgNo":"3340140","typeCode":"计划停电","poweroffArea":"圣仓H6435线（圣殿开关站Ⅰ段-仓溢开关站Ⅰ段）","poweroffReason":"业扩工程（鼎创财富中心10kV进线工程）：圣仓H6435线2号杆、殿溢H6535线2号杆各增加联络开关1台","powerTime":"","powerComm":"","subsNo":"","lineNo":"","tgNo":"","tgName":null,"infoStatus":"1","orgName":"国网浙江杭州市余杭区供电有限公司","typeName":null,"infoStatusName":null,"dateDay":null,"orgNos":null,"nowTime":null,"countyName":null,"streetName":null,"villageName":null,"roadName":null,"communityName":null,"tranName":null,"sdLineName":null,"cityCode":"3340140","cityName":"国网浙江杭州市余杭区供电有限公司","provinceCode":null,"stopTime":"2019-11-26 13:30:00","powerType":"未送电","powerOffArea":"圣仓H6435线（圣殿开关站Ⅰ段-仓溢开关站Ⅰ段）","powerOffReason":"业扩工程（鼎创财富中心10kV进线工程）：圣仓H6435线2号杆、殿溢H6535线2号杆各增加联络开关1台","powerOffId":"2019111531020123"},{"poweroffId":2019111531020121,"sgpoweroffId":null,"subsName":"","lineName":"10kV杨家G293线","pubTranName":"海玄标牌,广丰五金,塘北泵站,杭州余杭塘北股份经济合作社,塘北村小家河公变,塘北村大塘湾公变,塘北村塘北村公变,杭州市余杭区塘栖镇塘南中心小学612087988601#专变,杭州超博装饰材料有限公司,塘北村毛家埭公变,杭州金利丝业有限公司,塘北村郑家埭六组公变,","scope":"浙江省-杭州市-余杭区-塘栖镇-塘北行政村-塘北村;塘栖镇-塘北行政村(杭州海玄标牌有限公司,杭州财达机械有限公司,杭州余杭塘北股份经济合作社,杭州金利丝业有限公司),塘栖镇(西界河行政村-杭州金利丝业有限公司,李家桥行政村-杭州市余杭区塘栖镇塘南中心小学)","startTime":"2019-11-15 10:06:00","stopDate":"2019-11-15 12:06:00","orgNo":"3340140","typeCode":"电网故障停限电","poweroffArea":"110kV渔桥变:杨家G293线-景林村分线11号杆开关后段","poweroffReason":"高压开关跳闸","powerTime":"2019-11-15 11:35:00","powerComm":"已送电","subsNo":"","lineNo":"","tgNo":"","tgName":null,"infoStatus":"1","orgName":"国网浙江杭州市余杭区供电有限公司","typeName":null,"infoStatusName":null,"dateDay":null,"orgNos":null,"nowTime":null,"countyName":null,"streetName":null,"villageName":null,"roadName":null,"communityName":null,"tranName":null,"sdLineName":null,"cityCode":"3340140","cityName":"国网浙江杭州市余杭区供电有限公司","provinceCode":null,"stopTime":"2019-11-15 12:06:00","powerType":"全部","powerOffArea":"110kV渔桥变:杨家G293线-景林村分线11号杆开关后段","powerOffReason":"高压开关跳闸","powerOffId":"2019111531020121"},{"poweroffId":2019111531020120,"sgpoweroffId":null,"subsName":"","lineName":"10kV前染963线","pubTranName":"新峰村7#变,长征村2#变,新峰村5#变,新峰村4#变,新峰村12#变,新峰村11#变,金匀盛汽车配件1#,新峰村10#变,前充二配变,经济技术开发区,临江安置小区1#变,长征村7#变,长征村8#变,长征村3#变,新峰村6#变,长征村9#变,农二场,新峰村8#变,前充一配变,新峰村9#变,新峰村15#变,新峰村13#变,镪鑫机械,新峰村14#变,新峰村1#变,前进织布厂,金匀盛汽车配件2#,新峰村3#变,","scope":"浙江省-杭州市-萧山区-前进街道-前进街道社区前进自然村,前进街道,前进街道-三丰行政村(山海自然村,海丰自然村),前进街道-临江行政村(长征自然村,新峰自然村)前峰行政村-杭州萧山前进织布厂,前进街道-临江行政村(杭州经济技术开发区前进工业园区开发建设指挥部,杭州镪鑫机械配件厂),临江街道农二场-农二场,临江工业园区-杭州金匀盛科技有限公司,田径街道长征卫生室一带","startTime":"2019-11-15 09:44:47","stopDate":"2019-11-15 14:30:47","orgNo":"3340120","typeCode":"电网故障停限电","poweroffArea":"110kV前进变:前染963线","poweroffReason":"高压开关跳闸 原停电结束时间为2019-11-15 14:00:47,因需更换开关故障原因,现变更停电结束时间为2019-11-15 14:30:47","powerTime":"2019-11-15 13:49:04","powerComm":"已送电","subsNo":"","lineNo":"","tgNo":"","tgName":null,"infoStatus":"1","orgName":"国网浙江杭州市钱塘新区供电公司","typeName":null,"infoStatusName":null,"dateDay":null,"orgNos":null,"nowTime":null,"countyName":null,"streetName":null,"villageName":null,"roadName":null,"communityName":null,"tranName":null,"sdLineName":null,"cityCode":"3340120","cityName":"国网浙江杭州市钱塘新区供电公司","provinceCode":null,"stopTime":"2019-11-15 14:30:47","powerType":"全部","powerOffArea":"110kV前进变:前染963线","powerOffReason":"高压开关跳闸 原停电结束时间为2019-11-15 14:00:47,因需更换开关故障原因,现变更停电结束时间为2019-11-15 14:30:47","powerOffId":"2019111531020120"},{"poweroffId":2019111531020110,"sgpoweroffId":null,"subsName":"","lineName":"10kV八丈8590线","pubTranName":"丈村二,","scope":"浙江省-杭州市-拱墅区-大关街道-香积社区-大关南一苑小区10幢附近一带","startTime":"2019-11-15 09:41:54","stopDate":"2019-11-15 12:41:54","orgNo":"3340101","typeCode":"电网故障停限电","poweroffArea":"220kV霞湾变:八丈8590线-丈村二变","poweroffReason":"(低压停电信息)低压开关跳闸","powerTime":"2019-11-15 11:52:11","powerComm":"已送电","subsNo":"","lineNo":"","tgNo":"","tgName":null,"infoStatus":"1","orgName":"浙江杭州电力客户服务中心","typeName":null,"infoStatusName":null,"dateDay":null,"orgNos":null,"nowTime":null,"countyName":null,"streetName":null,"villageName":null,"roadName":null,"communityName":null,"tranName":null,"sdLineName":null,"cityCode":"3340101","cityName":"浙江杭州电力客户服务中心","provinceCode":null,"stopTime":"2019-11-15 12:41:54","powerType":"全部","powerOffArea":"220kV霞湾变:八丈8590线-丈村二变","powerOffReason":"(低压停电信息)低压开关跳闸","powerOffId":"2019111531020110"},{"poweroffId":2019111531020107,"sgpoweroffId":null,"subsName":"","lineName":"10kV高水164线","pubTranName":"姚村孙家边4号公变,","scope":"浙江省-杭州市-桐庐县-瑶琳镇(东琳行政村-东华自然村,姚村行政村-皇瑶路)","startTime":"2019-11-28 13:00:00","stopDate":"2019-11-28 16:00:00","orgNo":"3340150","typeCode":"计划停电","poweroffArea":"35kV瑶琳变:高水164线-孙家边F6116令克后段","poweroffReason":"安装三相不平衡装置、电缆敷设及搭接工作","powerTime":"2019-11-28 15:51:16","powerComm":"已送电","subsNo":"","lineNo":"","tgNo":"","tgName":null,"infoStatus":"1","orgName":"国网浙江桐庐县供电公司","typeName":null,"infoStatusName":null,"dateDay":null,"orgNos":null,"nowTime":null,"countyName":null,"streetName":null,"villageName":null,"roadName":null,"communityName":null,"tranName":null,"sdLineName":null,"cityCode":"3340150","cityName":"国网浙江桐庐县供电公司","provinceCode":null,"stopTime":"2019-11-28 16:00:00","powerType":"全部","powerOffArea":"35kV瑶琳变:高水164线-孙家边F6116令克后段","powerOffReason":"安装三相不平衡装置、电缆敷设及搭接工作","powerOffId":"2019111531020107"},{"poweroffId":2019111531020106,"sgpoweroffId":null,"subsName":"","lineName":"10kV百岁T168线","pubTranName":"瑶琳大山1号公变,","scope":"浙江省-杭州市-桐庐县-瑶琳镇-大山行政村-俞毕","startTime":"2019-11-28 08:00:00","stopDate":"2019-11-28 12:00:00","orgNo":"3340150","typeCode":"计划停电","poweroffArea":"35kV瑶琳变:百岁T168线-大山F6213令克后段","poweroffReason":"安装三相不平衡装置、电缆敷设及搭接工作","powerTime":"2019-11-28 11:40:30","powerComm":"已送电","subsNo":"","lineNo":"","tgNo":"","tgName":null,"infoStatus":"1","orgName":"国网浙江桐庐县供电公司","typeName":null,"infoStatusName":null,"dateDay":null,"orgNos":null,"nowTime":null,"countyName":null,"streetName":null,"villageName":null,"roadName":null,"communityName":null,"tranName":null,"sdLineName":null,"cityCode":"3340150","cityName":"国网浙江桐庐县供电公司","provinceCode":null,"stopTime":"2019-11-28 12:00:00","powerType":"全部","powerOffArea":"35kV瑶琳变:百岁T168线-大山F6213令克后段","powerOffReason":"安装三相不平衡装置、电缆敷设及搭接工作","powerOffId":"2019111531020106"},{"poweroffId":2019111531020105,"sgpoweroffId":null,"subsName":"","lineName":"10kV高水164线","pubTranName":"石青文园4号公变,","scope":"浙江省-杭州市-桐庐县-瑶琳镇-高翔行政村-石青自然村","startTime":"2019-11-28 08:00:00","stopDate":"2019-11-28 11:00:00","orgNo":"3340150","typeCode":"计划停电","poweroffArea":"35kV瑶琳变:高水164线-文园F6282后段","poweroffReason":"安装三相不平衡装置、电缆敷设及搭接工作","powerTime":"2019-11-28 10:46:12","powerComm":"已送电","subsNo":"","lineNo":"","tgNo":"","tgName":null,"infoStatus":"1","orgName":"国网浙江桐庐县供电公司","typeName":null,"infoStatusName":null,"dateDay":null,"orgNos":null,"nowTime":null,"countyName":null,"streetName":null,"villageName":null,"roadName":null,"communityName":null,"tranName":null,"sdLineName":null,"cityCode":"3340150","cityName":"国网浙江桐庐县供电公司","provinceCode":null,"stopTime":"2019-11-28 11:00:00","powerType":"全部","powerOffArea":"35kV瑶琳变:高水164线-文园F6282后段","powerOffReason":"安装三相不平衡装置、电缆敷设及搭接工作","powerOffId":"2019111531020105"},{"poweroffId":2019111531020095,"sgpoweroffId":null,"subsName":"","lineName":"10kV世龙8649线","pubTranName":"黄龙雅苑四变,","scope":"浙江省-杭州市-西湖区-灵隐街道-黄龙社区(跑马场路,西溪路)","startTime":"2019-11-15 09:24:12","stopDate":"2019-11-15 13:34:12","orgNo":"3340101","typeCode":"电网故障停限电","poweroffArea":"220kV庆丰变:世龙8649线-黄龙雅苑四变后段","poweroffReason":"(低压停电信息)低压开关跳闸 原停电结束时间为2019-11-15 17:24:12,为减少客户停电时间,加快工作进度,提前送电,现变更停电结束时间为2019-11-15 13:34:12","powerTime":"2019-11-15 12:58:17","powerComm":"已送电","subsNo":"","lineNo":"","tgNo":"","tgName":null,"infoStatus":"1","orgName":"浙江杭州电力客户服务中心","typeName":null,"infoStatusName":null,"dateDay":null,"orgNos":null,"nowTime":null,"countyName":null,"streetName":null,"villageName":null,"roadName":null,"communityName":null,"tranName":null,"sdLineName":null,"cityCode":"3340101","cityName":"浙江杭州电力客户服务中心","provinceCode":null,"stopTime":"2019-11-15 13:34:12","powerType":"全部","powerOffArea":"220kV庆丰变:世龙8649线-黄龙雅苑四变后段","powerOffReason":"(低压停电信息)低压开关跳闸 原停电结束时间为2019-11-15 17:24:12,为减少客户停电时间,加快工作进度,提前送电,现变更停电结束时间为2019-11-15 13:34:12","powerOffId":"2019111531020095"}],"pageModel":{"pageNow":867,"totalCount":17789,"totalPage":1779,"tableRows":0,"pageCount":10,"beginCount":8660},"isExperi":"1"}