{"message":"","today":"2020-06-15","seleList":[{"poweroffId":2019111531020080,"sgpoweroffId":null,"subsName":"","lineName":"10kV马丁7287线","pubTranName":"十五间二,","scope":"浙江省-杭州市-滨江区-浦沿街道-山二村社区-十五间头","startTime":"2019-11-15 09:18:24","stopDate":"2019-11-15 10:18:24","orgNo":"3340101","typeCode":"电网故障停限电","poweroffArea":"110kV白马变:马丁7287线-十五间二变","poweroffReason":"高压开关跳闸 原停电结束时间为2019-11-15 11:18:24,为减少客户停电时间,加快工作进度,提前送电,现变更停电结束时间为2019-11-15 10:18:24","powerTime":"2019-11-15 09:49:50","powerComm":"已送电","subsNo":"","lineNo":"","tgNo":"","tgName":null,"infoStatus":"1","orgName":"浙江杭州电力客户服务中心","typeName":null,"infoStatusName":null,"dateDay":null,"orgNos":null,"nowTime":null,"countyName":null,"streetName":null,"villageName":null,"roadName":null,"communityName":null,"tranName":null,"sdLineName":null,"cityCode":"3340101","cityName":"浙江杭州电力客户服务中心","provinceCode":null,"stopTime":"2019-11-15 10:18:24","powerType":"全部","powerOffArea":"110kV白马变:马丁7287线-十五间二变","powerOffReason":"高压开关跳闸 原停电结束时间为2019-11-15 11:18:24,为减少客户停电时间,加快工作进度,提前送电,现变更停电结束时间为2019-11-15 10:18:24","powerOffId":"2019111531020080"},{"poweroffId":2019111531020075,"sgpoweroffId":null,"subsName":"","lineName":"10kV南联C701线","pubTranName":"永宁尔集团1#,浙通金属有限公司,中亚精细化工(1316046164),杭州萧山二垦酒业有限公司变压器,浙江手心制药有限公司1#,","scope":"浙江省-杭州市-萧山区-南阳街道-远大行政村(杭州萧山二垦酒业有限公司,浙江手心制药有限公司),南阳街道(横蓬行政村-中亚精细化工(杭州)有限公司,龙虎行政村-永宁尔集团股份有限公司,坞里行政村-杭州浙通金属材料有限公司)","startTime":"2019-11-22 07:30:00","stopDate":"2019-11-22 12:30:00","orgNo":"3340130","typeCode":"临时停电","poweroffArea":"35kV赭山变:南联C701线-南联C7011开关后段","poweroffReason":"南丰L004线南丰开G12间隔新放电缆至南联C701线01#杆新装开关下端","powerTime":"2019-11-22 11:38:01","powerComm":"已送电","subsNo":"","lineNo":"","tgNo":"","tgName":null,"infoStatus":"1","orgName":"国网浙江杭州市萧山区供电有限公司","typeName":null,"infoStatusName":null,"dateDay":null,"orgNos":null,"nowTime":null,"countyName":null,"streetName":null,"villageName":null,"roadName":null,"communityName":null,"tranName":null,"sdLineName":null,"cityCode":"3340130","cityName":"国网浙江杭州市萧山区供电有限公司","provinceCode":null,"stopTime":"2019-11-22 12:30:00","powerType":"全部","powerOffArea":"35kV赭山变:南联C701线-南联C7011开关后段","powerOffReason":"南丰L004线南丰开G12间隔新放电缆至南联C701线01#杆新装开关下端","powerOffId":"2019111531020075"},{"poweroffId":2019111531020061,"sgpoweroffId":null,"subsName":"","lineName":"10kV付娄C207线","pubTranName":"桥南沈村7#变,","scope":"浙江省-杭州市-萧山区-新塘街道-桥南沈行政村(河北王自然村,坝里朱自然村,沈家汇自然村,桥南沈自然村)","startTime":"2019-11-15 09:00:30","stopDate":"2019-11-15 11:30:30","orgNo":"3340130","typeCode":"电网故障停限电","poweroffArea":"110kV霞江变:付娄C207线-桥南沈村7#变后段","poweroffReason":"（低压停电信息）低压漏电保护器短路故障","powerTime":"2019-11-15 10:41:12","powerComm":"已送电","subsNo":"","lineNo":"","tgNo":"","tgName":null,"infoStatus":"1","orgName":"国网浙江杭州市萧山区供电有限公司","typeName":null,"infoStatusName":null,"dateDay":null,"orgNos":null,"nowTime":null,"countyName":null,"streetName":null,"villageName":null,"roadName":null,"communityName":null,"tranName":null,"sdLineName":null,"cityCode":"3340130","cityName":"国网浙江杭州市萧山区供电有限公司","provinceCode":null,"stopTime":"2019-11-15 11:30:30","powerType":"全部","powerOffArea":"110kV霞江变:付娄C207线-桥南沈村7#变后段","powerOffReason":"（低压停电信息）低压漏电保护器短路故障","powerOffId":"2019111531020061"},{"poweroffId":2019111531020041,"sgpoweroffId":null,"subsName":"","lineName":"10kV贤德D333线","pubTranName":"查口村5号黄泥凸公变,","scope":"浙江省-杭州市-富阳区-洞桥镇-查口行政村(俞家自然村,上车畈自然村,徐家自然村)","startTime":"2019-11-15 08:37:17","stopDate":"2019-11-15 12:00:00","orgNo":"3340170","typeCode":"电网故障停限电","poweroffArea":"110kV万市变:贤德D333线-查口村5号黄泥凸公变后段","poweroffReason":"高压开关跳闸","powerTime":"2019-11-15 11:41:26","powerComm":"已送电","subsNo":"","lineNo":"","tgNo":"","tgName":null,"infoStatus":"1","orgName":"国网浙江杭州市富阳区供电公司","typeName":null,"infoStatusName":null,"dateDay":null,"orgNos":null,"nowTime":null,"countyName":null,"streetName":null,"villageName":null,"roadName":null,"communityName":null,"tranName":null,"sdLineName":null,"cityCode":"3340170","cityName":"国网浙江杭州市富阳区供电公司","provinceCode":null,"stopTime":"2019-11-15 12:00:00","powerType":"全部","powerOffArea":"110kV万市变:贤德D333线-查口村5号黄泥凸公变后段","powerOffReason":"高压开关跳闸","powerOffId":"2019111531020041"},{"poweroffId":2019111531020038,"sgpoweroffId":null,"subsName":"","lineName":"10kV严家V175线","pubTranName":"10kV横塘村[甫上城坑口]公变,10kV横塘村[甫上城坑]公变,","scope":"浙江省-杭州市-临安市-天目山镇-甫上城坑,甫上城坑口一带","startTime":"2019-11-25 08:10:00","stopDate":"2019-11-25 17:30:00","orgNo":"3340160","typeCode":"计划停电","poweroffArea":"停35kV藻溪变严家V175线126#杆城坑分线开关","poweroffReason":"改造","powerTime":"","powerComm":"","subsNo":"","lineNo":"","tgNo":"","tgName":null,"infoStatus":"1","orgName":"国网浙江临安市供电公司","typeName":null,"infoStatusName":null,"dateDay":null,"orgNos":null,"nowTime":null,"countyName":null,"streetName":null,"villageName":null,"roadName":null,"communityName":null,"tranName":null,"sdLineName":null,"cityCode":"3340160","cityName":"国网浙江临安市供电公司","provinceCode":null,"stopTime":"2019-11-25 17:30:00","powerType":"未送电","powerOffArea":"停35kV藻溪变严家V175线126#杆城坑分线开关","powerOffReason":"改造","powerOffId":"2019111531020038"},{"poweroffId":2019111531020024,"sgpoweroffId":null,"subsName":"","lineName":"10kV陈家C327线","pubTranName":"陈家园村9#变,","scope":"浙江省-杭州市-萧山区-新街镇、新街街道-陈家园行政村-陈家园自然村等一带","startTime":"2019-11-15 07:52:11","stopDate":"2019-11-15 18:05:11","orgNo":"3340130","typeCode":"电网故障停限电","poweroffArea":"110kV沿塘变:陈家C327线-陈家园村9#变台区低压开关","poweroffReason":"（低压停电信息）低压漏电保护器短路故障","powerTime":"2019-11-15 17:06:21","powerComm":"已送电","subsNo":"","lineNo":"","tgNo":"","tgName":null,"infoStatus":"1","orgName":"国网浙江杭州市萧山区供电有限公司","typeName":null,"infoStatusName":null,"dateDay":null,"orgNos":null,"nowTime":null,"countyName":null,"streetName":null,"villageName":null,"roadName":null,"communityName":null,"tranName":null,"sdLineName":null,"cityCode":"3340130","cityName":"国网浙江杭州市萧山区供电有限公司","provinceCode":null,"stopTime":"2019-11-15 18:05:11","powerType":"全部","powerOffArea":"110kV沿塘变:陈家C327线-陈家园村9#变台区低压开关","powerOffReason":"（低压停电信息）低压漏电保护器短路故障","powerOffId":"2019111531020024"},{"poweroffId":2019111531020014,"sgpoweroffId":null,"subsName":"","lineName":"10kV南津D138线","pubTranName":"桃花岭村1#高山公变,","scope":"浙江省-杭州市-富阳区-渌渚镇-桃花岭行政村-高山自然村","startTime":"2019-11-15 07:26:16","stopDate":"2019-11-15 08:00:16","orgNo":"3340170","typeCode":"电网故障停限电","poweroffArea":"110kV新登变:南津D138线-桃花岭村1#高山公变后段","poweroffReason":"高压开关跳闸","powerTime":"2019-11-15 07:43:51","powerComm":"已送电","subsNo":"","lineNo":"","tgNo":"","tgName":null,"infoStatus":"1","orgName":"国网浙江杭州市富阳区供电公司","typeName":null,"infoStatusName":null,"dateDay":null,"orgNos":null,"nowTime":null,"countyName":null,"streetName":null,"villageName":null,"roadName":null,"communityName":null,"tranName":null,"sdLineName":null,"cityCode":"3340170","cityName":"国网浙江杭州市富阳区供电公司","provinceCode":null,"stopTime":"2019-11-15 08:00:16","powerType":"全部","powerOffArea":"110kV新登变:南津D138线-桃花岭村1#高山公变后段","powerOffReason":"高压开关跳闸","powerOffId":"2019111531020014"},{"poweroffId":2019111431020309,"sgpoweroffId":null,"subsName":"","lineName":"10kV排塘Y185线","pubTranName":"永嘉桥村文山台区,","scope":"浙江省-杭州市-建德市-寿昌镇-永嘉桥行政村-坟山自然村,寿昌镇-河南里行政村(河南里自然村,溪南路)一带用户。","startTime":"2019-11-14 21:03:00","stopDate":"2019-11-14 23:00:00","orgNo":"3340180","typeCode":"电网故障停限电","poweroffArea":"35kV河南里变:排塘Y185线-永嘉桥村文山台区后段","poweroffReason":"(低压停电信息)低压开关跳闸","powerTime":"2019-11-14 22:24:00","powerComm":"已送电（实际是一户无电）","subsNo":"","lineNo":"","tgNo":"","tgName":null,"infoStatus":"1","orgName":"国网浙江建德市供电有限公司","typeName":null,"infoStatusName":null,"dateDay":null,"orgNos":null,"nowTime":null,"countyName":null,"streetName":null,"villageName":null,"roadName":null,"communityName":null,"tranName":null,"sdLineName":null,"cityCode":"3340180","cityName":"国网浙江建德市供电有限公司","provinceCode":null,"stopTime":"2019-11-14 23:00:00","powerType":"全部","powerOffArea":"35kV河南里变:排塘Y185线-永嘉桥村文山台区后段","powerOffReason":"(低压停电信息)低压开关跳闸","powerOffId":"2019111431020309"},{"poweroffId":2019111431020291,"sgpoweroffId":null,"subsName":"","lineName":"10kV西荡8917线","pubTranName":"荷花五变,","scope":"浙江省杭州市西湖区荷花苑146号至156号、162号至167号一带","startTime":"2019-11-22 10:00:00","stopDate":"2019-11-22 16:00:00","orgNo":"3340101","typeCode":"计划停电","poweroffArea":"110kV丰潭变:西荡8917线-荷花五变后段","poweroffReason":"(低压停电信息)2.荷花苑152号、164号、185号等表箱改造 原停电结束时间为2019-11-22 15:00:00,因计划调整原因,现变更停电结束时间为2019-11-22 16:00:00","powerTime":"2019-11-22 15:26:38","powerComm":"已送电","subsNo":"","lineNo":"","tgNo":"","tgName":null,"infoStatus":"1","orgName":"浙江杭州电力客户服务中心","typeName":null,"infoStatusName":null,"dateDay":null,"orgNos":null,"nowTime":null,"countyName":null,"streetName":null,"villageName":null,"roadName":null,"communityName":null,"tranName":null,"sdLineName":null,"cityCode":"3340101","cityName":"浙江杭州电力客户服务中心","provinceCode":null,"stopTime":"2019-11-22 16:00:00","powerType":"全部","powerOffArea":"110kV丰潭变:西荡8917线-荷花五变后段","powerOffReason":"(低压停电信息)2.荷花苑152号、164号、185号等表箱改造 原停电结束时间为2019-11-22 15:00:00,因计划调整原因,现变更停电结束时间为2019-11-22 16:00:00","powerOffId":"2019111431020291"},{"poweroffId":2019111431020290,"sgpoweroffId":null,"subsName":"","lineName":"10kV外桐8879线","pubTranName":"大岭四,","scope":"浙江省杭州市西湖区转塘街道大清社区大清社区大岭隧道口一带","startTime":"2019-11-22 12:00:00","stopDate":"2019-11-22 13:30:00","orgNo":"3340101","typeCode":"计划停电","poweroffArea":"110kV留下变:外桐8879线-大岭四后段","poweroffReason":"(低压停电信息)3.转塘街道大清社区大岭隧道口表计新装 原停电结束时间为2019-11-22 15:00:00,为减少客户停电时间,加快工作进度,提前送电,现变更停电结束时间为2019-11-22 13:30:00","powerTime":"2019-11-22 12:59:59","powerComm":"已送电","subsNo":"","lineNo":"","tgNo":"","tgName":null,"infoStatus":"1","orgName":"浙江杭州电力客户服务中心","typeName":null,"infoStatusName":null,"dateDay":null,"orgNos":null,"nowTime":null,"countyName":null,"streetName":null,"villageName":null,"roadName":null,"communityName":null,"tranName":null,"sdLineName":null,"cityCode":"3340101","cityName":"浙江杭州电力客户服务中心","provinceCode":null,"stopTime":"2019-11-22 13:30:00","powerType":"全部","powerOffArea":"110kV留下变:外桐8879线-大岭四后段","powerOffReason":"(低压停电信息)3.转塘街道大清社区大岭隧道口表计新装 原停电结束时间为2019-11-22 15:00:00,为减少客户停电时间,加快工作进度,提前送电,现变更停电结束时间为2019-11-22 13:30:00","powerOffId":"2019111431020290"}],"pageModel":{"pageNow":868,"totalCount":17789,"totalPage":1779,"tableRows":0,"pageCount":10,"beginCount":8670},"isExperi":"1"}