{"message":"","today":"2020-06-15","seleList":[{"poweroffId":2019111331020153,"sgpoweroffId":null,"subsName":"","lineName":"10kV绕东H764线","pubTranName":"五常农居1#公变,五常农居2#公变,闸站变,文一路6#路灯,水建中心1号基建,五常收费站,五常村农居点,余杭创新投资配变,访溪路灯,","scope":"浙江省-杭州市-余杭区-五常街道(五常社区-五常大道,永福社区-溪望路,五常行政村-何家坝自然村);五常街道-五常社区(杭州市余杭区城市管理综合行政执法局,杭州余杭区闲林镇五常村,杭州国益路桥经营管理有限公司,杭州余杭创新投资有限公司,杭州未来科技城建设有限公司),仓前街道-太炎社区-杭州未来科技城建设有限公司,五常街道-文一社区-杭州三阳建设工程有限公司","startTime":"2019-11-13 11:23:37","stopDate":"2019-11-13 12:30:37","orgNo":"3340140","typeCode":"电网故障停限电","poweroffArea":"110kV五常变:绕东H764线首端，绕东H7641开关，洪园开关站绕东H764线之间","poweroffReason":"高压开关跳闸","powerTime":"2019-11-13 11:55:49","powerComm":"已送电","subsNo":"","lineNo":"","tgNo":"","tgName":null,"infoStatus":"1","orgName":"国网浙江杭州市余杭区供电有限公司","typeName":null,"infoStatusName":null,"dateDay":null,"orgNos":null,"nowTime":null,"countyName":null,"streetName":null,"villageName":null,"roadName":null,"communityName":null,"tranName":null,"sdLineName":null,"cityCode":"3340140","cityName":"国网浙江杭州市余杭区供电有限公司","provinceCode":null,"stopTime":"2019-11-13 12:30:37","powerType":"全部","powerOffArea":"110kV五常变:绕东H764线首端，绕东H7641开关，洪园开关站绕东H764线之间","powerOffReason":"高压开关跳闸","powerOffId":"2019111331020153"},{"poweroffId":2019111331020128,"sgpoweroffId":null,"subsName":"","lineName":"10kV腾龙9545线","pubTranName":"白院四变,","scope":"浙江省-杭州市-滨江区-长河街道-山一村社区-天马路，白马湖和院14幢1单元2单元住户。","startTime":"2019-11-28 10:13:00","stopDate":"2019-11-28 11:30:00","orgNo":"3340101","typeCode":"计划停电","poweroffArea":"110kV冠山变:腾龙9545线-白院四变后段低压","poweroffReason":"(低压停电信息)低压工作","powerTime":"2019-11-28 11:21:59","powerComm":"已送电","subsNo":"","lineNo":"","tgNo":"","tgName":null,"infoStatus":"1","orgName":"浙江杭州电力客户服务中心","typeName":null,"infoStatusName":null,"dateDay":null,"orgNos":null,"nowTime":null,"countyName":null,"streetName":null,"villageName":null,"roadName":null,"communityName":null,"tranName":null,"sdLineName":null,"cityCode":"3340101","cityName":"浙江杭州电力客户服务中心","provinceCode":null,"stopTime":"2019-11-28 11:30:00","powerType":"全部","powerOffArea":"110kV冠山变:腾龙9545线-白院四变后段低压","powerOffReason":"(低压停电信息)低压工作","powerOffId":"2019111331020128"},{"poweroffId":2019111331020127,"sgpoweroffId":null,"subsName":"","lineName":"10kV标工161线","pubTranName":"郎庭一变,","scope":"浙江省-杭州市-滨江区-长河街道-白马湖社区-滨文路，朗庭公馆2号楼3.5.7.9.11层住户，2号楼商铺。","startTime":"2019-11-27 09:21:00","stopDate":"2019-11-27 11:30:00","orgNo":"3340101","typeCode":"计划停电","poweroffArea":"110kV长河变:标工161线-郎庭一变后段低压","poweroffReason":"(低压停电信息)低压工作","powerTime":"2019-11-27 10:46:44","powerComm":"已送电","subsNo":"","lineNo":"","tgNo":"","tgName":null,"infoStatus":"1","orgName":"浙江杭州电力客户服务中心","typeName":null,"infoStatusName":null,"dateDay":null,"orgNos":null,"nowTime":null,"countyName":null,"streetName":null,"villageName":null,"roadName":null,"communityName":null,"tranName":null,"sdLineName":null,"cityCode":"3340101","cityName":"浙江杭州电力客户服务中心","provinceCode":null,"stopTime":"2019-11-27 11:30:00","powerType":"全部","powerOffArea":"110kV长河变:标工161线-郎庭一变后段低压","powerOffReason":"(低压停电信息)低压工作","powerOffId":"2019111331020127"},{"poweroffId":2019111331020116,"sgpoweroffId":null,"subsName":"","lineName":"10kV东开A330线","pubTranName":"开源村5#变,杭州银海灯具厂,东方村3#变,东方村2#变,1#变,长沙单木桥五金厂,杭州剑晟纺织服饰有限公司,众安村7#变,开源村4#变,杭州萧山明珠护杠厂,开源村8#变,杭州盛友线业有限公司,杭州萧山惠明化纤织造有限公司,杭州萧山瓜沥东方锦纶线厂,瓜沥沈文焕布厂,杭州瑞康布业有限公司,开源村1#变,","scope":"浙江省-杭州市-萧山区-瓜沥镇-开源行政村(开源自然村,官街路),瓜沥镇(众安行政村-众安自然村,东方行政村-东方自然村);瓜沥镇-东方行政村(杭州银海灯具厂,萧山瓜沥东方沈文焕布厂,杭州萧山惠明化纤织造有限公司,杭州萧山瓜沥东方锦纶线厂,杭州萧山明珠护杠厂),瓜沥镇-开源行政村(杭州兴党绣品有限公司,杭州开源蔬菜食品有限公司,杭州盛友线业有限公司),瓜沥镇(单木桥行政村-长沙单木桥五金厂,党山行政村-杭州炬亿家纺有限公司)一带","startTime":"2019-11-13 09:50:38","stopDate":"2019-11-13 13:10:38","orgNo":"3340130","typeCode":"电网故障停限电","poweroffArea":"110kV靖江变:东开A330线-东开A3302开关（自）后段","poweroffReason":"高压柱上断路器短路故障 原停电结束时间为2019-11-13 13:40:38,为减少客户停电时间,加快工作进度,提前送电,现变更停电结束时间为2019-11-13 13:10:38","powerTime":"2019-11-13 12:33:57","powerComm":"已送电","subsNo":"","lineNo":"","tgNo":"","tgName":null,"infoStatus":"1","orgName":"国网浙江杭州市萧山区供电有限公司","typeName":null,"infoStatusName":null,"dateDay":null,"orgNos":null,"nowTime":null,"countyName":null,"streetName":null,"villageName":null,"roadName":null,"communityName":null,"tranName":null,"sdLineName":null,"cityCode":"3340130","cityName":"国网浙江杭州市萧山区供电有限公司","provinceCode":null,"stopTime":"2019-11-13 13:10:38","powerType":"全部","powerOffArea":"110kV靖江变:东开A330线-东开A3302开关（自）后段","powerOffReason":"高压柱上断路器短路故障 原停电结束时间为2019-11-13 13:40:38,为减少客户停电时间,加快工作进度,提前送电,现变更停电结束时间为2019-11-13 13:10:38","powerOffId":"2019111331020116"},{"poweroffId":2019111331020113,"sgpoweroffId":null,"subsName":"","lineName":"10kV单木C664线","pubTranName":"杭州萧山党山开源小木布厂,开源村9#变,1#变,杭州信鑫经编织造有限公司,开源村2#变,杭州峰城化纤有限公司变压器,杭州董氏纺织有限公司,党山开源第八化纤厂,杭州美域高实业有限公司,开源村6#变,杭州琪琪包装制品厂变压器,杭州满堂化纤有限公司,杭州利良针织有限公司,萧山党山开源恩祥布厂,杭州国祥纺织有限公司,杭州绿美洁具有限公司,杭州双女实业有限公司,开源村3#变,开源村7#变,","scope":"浙江省-杭州市-萧山区-瓜沥镇-开源行政村(开源自然村,官街路);浙江省-杭州市-萧山区-瓜沥镇-党山行政村-杭州利良针织有限公司,瓜沥镇-开源行政村(杭州国祥纺织有限公司,杭州美域高实业有限公司,杭州董氏纺织有限公司,杭州双女实业有限公司,杭州满堂化纤有限公司,杭州盛友线业有限公司,党山开源第八化纤厂,杭州信鑫经编织造有限公司,杭州萧山党山开源小木布厂,萧山党山开源恩祥布厂,杭州党峰化纤有限公司,杭州峰城化纤有限公司,杭州琪琪包装制品厂)一带","startTime":"2019-11-13 09:50:12","stopDate":"2019-11-13 13:10:12","orgNo":"3340130","typeCode":"电网故障停限电","poweroffArea":"35kV长沙变:单木C664线-单木C6643开关后段","poweroffReason":"高压柱上断路器短路故障 原停电结束时间为2019-11-13 13:40:12,为减少客户停电时间,加快工作进度,提前送电,现变更停电结束时间为2019-11-13 13:10:12","powerTime":"2019-11-13 12:27:23","powerComm":"已送电","subsNo":"","lineNo":"","tgNo":"","tgName":null,"infoStatus":"1","orgName":"国网浙江杭州市萧山区供电有限公司","typeName":null,"infoStatusName":null,"dateDay":null,"orgNos":null,"nowTime":null,"countyName":null,"streetName":null,"villageName":null,"roadName":null,"communityName":null,"tranName":null,"sdLineName":null,"cityCode":"3340130","cityName":"国网浙江杭州市萧山区供电有限公司","provinceCode":null,"stopTime":"2019-11-13 13:10:12","powerType":"全部","powerOffArea":"35kV长沙变:单木C664线-单木C6643开关后段","powerOffReason":"高压柱上断路器短路故障 原停电结束时间为2019-11-13 13:40:12,为减少客户停电时间,加快工作进度,提前送电,现变更停电结束时间为2019-11-13 13:10:12","powerOffId":"2019111331020113"},{"poweroffId":2019111331020103,"sgpoweroffId":null,"subsName":"","lineName":"10kV渡济T184线","pubTranName":"俞赵4号公变,","scope":"浙江省-杭州市-桐庐县-富春江镇-俞赵行政村(俞赵自然村,俞家自然村)","startTime":"2019-11-13 09:40:19","stopDate":"2019-11-13 11:00:19","orgNo":"3340150","typeCode":"电网故障停限电","poweroffArea":"110kV外董变:渡济T184线-俞赵4号公变后段","poweroffReason":"(低压停电信息)低压开关跳闸","powerTime":"2019-11-13 10:30:12","powerComm":"已送电","subsNo":"","lineNo":"","tgNo":"","tgName":null,"infoStatus":"1","orgName":"国网浙江桐庐县供电公司","typeName":null,"infoStatusName":null,"dateDay":null,"orgNos":null,"nowTime":null,"countyName":null,"streetName":null,"villageName":null,"roadName":null,"communityName":null,"tranName":null,"sdLineName":null,"cityCode":"3340150","cityName":"国网浙江桐庐县供电公司","provinceCode":null,"stopTime":"2019-11-13 11:00:19","powerType":"全部","powerOffArea":"110kV外董变:渡济T184线-俞赵4号公变后段","powerOffReason":"(低压停电信息)低压开关跳闸","powerOffId":"2019111331020103"},{"poweroffId":2019111331020099,"sgpoweroffId":null,"subsName":"","lineName":"10kV泗溪H569线","pubTranName":"溪口村反山机埠公变,","scope":"浙江省-杭州市-余杭区-百丈镇-溪口村反山机埠一带","startTime":"2019-11-22 08:30:00","stopDate":"2019-11-22 16:30:00","orgNo":"3340140","typeCode":"计划停电","poweroffArea":"35kV黄湖变:泗溪H569线-溪口村反山机埠公变低压闸刀后段","poweroffReason":"(低压停电信息)计划停电","powerTime":"2019-11-22 16:21:26","powerComm":"已送电","subsNo":"","lineNo":"","tgNo":"","tgName":null,"infoStatus":"1","orgName":"国网浙江杭州市余杭区供电有限公司","typeName":null,"infoStatusName":null,"dateDay":null,"orgNos":null,"nowTime":null,"countyName":null,"streetName":null,"villageName":null,"roadName":null,"communityName":null,"tranName":null,"sdLineName":null,"cityCode":"3340140","cityName":"国网浙江杭州市余杭区供电有限公司","provinceCode":null,"stopTime":"2019-11-22 16:30:00","powerType":"全部","powerOffArea":"35kV黄湖变:泗溪H569线-溪口村反山机埠公变低压闸刀后段","powerOffReason":"(低压停电信息)计划停电","powerOffId":"2019111331020099"},{"poweroffId":2019111331020090,"sgpoweroffId":null,"subsName":"","lineName":"10kV雪水T281线","pubTranName":"旧庄村1号公变,","scope":"浙江省-杭州市-桐庐县-新合乡-新四行政村-旧庄自然村","startTime":"2019-11-13 09:19:10","stopDate":"2019-11-13 11:19:10","orgNo":"3340150","typeCode":"电网故障停限电","poweroffArea":"35kV新合变:雪水T281线-旧庄村1号公变后段","poweroffReason":"(低压停电信息)低压开关跳闸","powerTime":"2019-11-13 10:55:39","powerComm":"已送电","subsNo":"","lineNo":"","tgNo":"","tgName":null,"infoStatus":"1","orgName":"国网浙江桐庐县供电公司","typeName":null,"infoStatusName":null,"dateDay":null,"orgNos":null,"nowTime":null,"countyName":null,"streetName":null,"villageName":null,"roadName":null,"communityName":null,"tranName":null,"sdLineName":null,"cityCode":"3340150","cityName":"国网浙江桐庐县供电公司","provinceCode":null,"stopTime":"2019-11-13 11:19:10","powerType":"全部","powerOffArea":"35kV新合变:雪水T281线-旧庄村1号公变后段","powerOffReason":"(低压停电信息)低压开关跳闸","powerOffId":"2019111331020090"},{"poweroffId":2019111331020083,"sgpoweroffId":null,"subsName":"","lineName":"10kV北湖H504线","pubTranName":"西安寺村扁担山公变,","scope":"浙江省-杭州市-余杭区-瓶窑镇-西安寺行政村-扁担山自然村","startTime":"2019-11-13 09:10:44","stopDate":"2019-11-13 10:10:44","orgNo":"3340140","typeCode":"电网故障停限电","poweroffArea":"35kV瓶镇变:北湖H504线-西安寺村扁担山公变后段","poweroffReason":"高压开关跳闸","powerTime":"2019-11-13 09:30:25","powerComm":"已送电","subsNo":"","lineNo":"","tgNo":"","tgName":null,"infoStatus":"1","orgName":"国网浙江杭州市余杭区供电有限公司","typeName":null,"infoStatusName":null,"dateDay":null,"orgNos":null,"nowTime":null,"countyName":null,"streetName":null,"villageName":null,"roadName":null,"communityName":null,"tranName":null,"sdLineName":null,"cityCode":"3340140","cityName":"国网浙江杭州市余杭区供电有限公司","provinceCode":null,"stopTime":"2019-11-13 10:10:44","powerType":"全部","powerOffArea":"35kV瓶镇变:北湖H504线-西安寺村扁担山公变后段","powerOffReason":"高压开关跳闸","powerOffId":"2019111331020083"},{"poweroffId":2019111331020056,"sgpoweroffId":null,"subsName":"","lineName":"10kV麻滩G228线","pubTranName":"莫家桥村清水公变,莫家桥村清水港机埠公变,杭州伊霖纺织品有限公司611030404701#专变,杭州余杭区塘栖车家埭荣春机械配件加工厂611030405501#专变,佳利铁粉厂,京达机电,莫家桥村长坝公变,莫家桥村西华埭公变,莫家桥村清水西公变,莫家桥村河西岸公变,莫家桥村姚家后头公变,","scope":"浙江省-杭州市-余杭区-塘栖镇-莫家桥行政村-莫家桥村;塘栖镇-莫家桥行政村(朱松宝,杭州佳利金属科技有限公司,杭州伊霖纺织品有限公司,杭州余杭区塘栖车家埭荣春机械配件加工厂)","startTime":"2019-11-13 08:23:28","stopDate":"2019-11-13 10:30:28","orgNo":"3340140","typeCode":"电网故障停限电","poweroffArea":"110kV宏畔变:麻滩G228线首端，麻滩G2281开关，麻滩G2283开关之间","poweroffReason":"高压开关跳闸 原停电结束时间为2019-11-13 14:23:28,为减少客户停电时间,加快工作进度,提前送电,现变更停电结束时间为2019-11-13 10:30:28","powerTime":"2019-11-13 10:10:11","powerComm":"已送电","subsNo":"","lineNo":"","tgNo":"","tgName":null,"infoStatus":"1","orgName":"国网浙江杭州市余杭区供电有限公司","typeName":null,"infoStatusName":null,"dateDay":null,"orgNos":null,"nowTime":null,"countyName":null,"streetName":null,"villageName":null,"roadName":null,"communityName":null,"tranName":null,"sdLineName":null,"cityCode":"3340140","cityName":"国网浙江杭州市余杭区供电有限公司","provinceCode":null,"stopTime":"2019-11-13 10:30:28","powerType":"全部","powerOffArea":"110kV宏畔变:麻滩G228线首端，麻滩G2281开关，麻滩G2283开关之间","powerOffReason":"高压开关跳闸 原停电结束时间为2019-11-13 14:23:28,为减少客户停电时间,加快工作进度,提前送电,现变更停电结束时间为2019-11-13 10:30:28","powerOffId":"2019111331020056"}],"pageModel":{"pageNow":874,"totalCount":17789,"totalPage":1779,"tableRows":0,"pageCount":10,"beginCount":8730},"isExperi":"1"}