{"message":"","today":"2020-06-15","seleList":[{"poweroffId":2019111331020050,"sgpoweroffId":null,"subsName":"","lineName":"10kV凌村H570线","pubTranName":"太平山村施家坞公变,","scope":"浙江省-杭州市-余杭区-鸬鸟镇-山沟沟行政村-山沟沟自然村,鸬鸟镇-太平山行政村(施家坞自然村,太平山自然村)","startTime":"2019-11-13 08:13:00","stopDate":"2019-11-13 10:13:00","orgNo":"3340140","typeCode":"电网故障停限电","poweroffArea":"35kV黄湖变:凌村H570线太平山村施家坞公变配变","poweroffReason":"高压开关跳闸","powerTime":"2019-11-13 09:16:30","powerComm":"已送电","subsNo":"","lineNo":"","tgNo":"","tgName":null,"infoStatus":"1","orgName":"国网浙江杭州市余杭区供电有限公司","typeName":null,"infoStatusName":null,"dateDay":null,"orgNos":null,"nowTime":null,"countyName":null,"streetName":null,"villageName":null,"roadName":null,"communityName":null,"tranName":null,"sdLineName":null,"cityCode":"3340140","cityName":"国网浙江杭州市余杭区供电有限公司","provinceCode":null,"stopTime":"2019-11-13 10:13:00","powerType":"全部","powerOffArea":"35kV黄湖变:凌村H570线太平山村施家坞公变配变","powerOffReason":"高压开关跳闸","powerOffId":"2019111331020050"},{"poweroffId":2019111331020046,"sgpoweroffId":null,"subsName":"","lineName":"10kV陈园C841线","pubTranName":"陈家园村6#变,","scope":"浙江省-杭州市-萧山区-新街镇-新街街道-陈家园行政村-陈家园自然村等一带","startTime":"2019-11-13 08:08:53","stopDate":"2019-11-13 18:08:53","orgNo":"3340130","typeCode":"电网故障停限电","poweroffArea":"110kV罗山变:陈园C841线-陈家园村6#变台区低压开关","poweroffReason":"(低压停电信息)低压漏电保护器短路故障","powerTime":"2019-11-13 17:17:29","powerComm":"已送电","subsNo":"","lineNo":"","tgNo":"","tgName":null,"infoStatus":"1","orgName":"国网浙江杭州市萧山区供电有限公司","typeName":null,"infoStatusName":null,"dateDay":null,"orgNos":null,"nowTime":null,"countyName":null,"streetName":null,"villageName":null,"roadName":null,"communityName":null,"tranName":null,"sdLineName":null,"cityCode":"3340130","cityName":"国网浙江杭州市萧山区供电有限公司","provinceCode":null,"stopTime":"2019-11-13 18:08:53","powerType":"全部","powerOffArea":"110kV罗山变:陈园C841线-陈家园村6#变台区低压开关","powerOffReason":"(低压停电信息)低压漏电保护器短路故障","powerOffId":"2019111331020046"},{"poweroffId":2019111331020036,"sgpoweroffId":null,"subsName":"","lineName":"10kV城中T273线","pubTranName":"灯具市场1号公变,","scope":"浙江省-杭州市-桐庐县-城南街道-中杭社区-春江路777号灯具市场一带","startTime":"2019-11-13 07:44:32","stopDate":"2019-11-13 10:44:32","orgNo":"3340150","typeCode":"电网故障停限电","poweroffArea":"35kV三合变:城中T273线-灯具市场1号公变后段","poweroffReason":"(低压停电信息)低压开关跳闸","powerTime":"2019-11-13 10:29:38","powerComm":"已送电","subsNo":"","lineNo":"","tgNo":"","tgName":null,"infoStatus":"1","orgName":"国网浙江桐庐县供电公司","typeName":null,"infoStatusName":null,"dateDay":null,"orgNos":null,"nowTime":null,"countyName":null,"streetName":null,"villageName":null,"roadName":null,"communityName":null,"tranName":null,"sdLineName":null,"cityCode":"3340150","cityName":"国网浙江桐庐县供电公司","provinceCode":null,"stopTime":"2019-11-13 10:44:32","powerType":"全部","powerOffArea":"35kV三合变:城中T273线-灯具市场1号公变后段","powerOffReason":"(低压停电信息)低压开关跳闸","powerOffId":"2019111331020036"},{"poweroffId":2019111331020031,"sgpoweroffId":null,"subsName":"","lineName":"10kV天通T118线","pubTranName":"君政弄2号公变,","scope":"浙江省-杭州市-桐庐县-桐君街道-东门社区(体育场路,学田路),桐君街道-迎春社区(学田路,迎春街,体育场路,迎春路)","startTime":"2019-11-13 07:29:29","stopDate":"2019-11-13 17:00:29","orgNo":"3340150","typeCode":"电网故障停限电","poweroffArea":"110kV桐庐变:天通T118线-君政弄2号公变后段","poweroffReason":"(低压停电信息)低压开关跳闸","powerTime":"2019-11-13 16:30:34","powerComm":"已送电","subsNo":"","lineNo":"","tgNo":"","tgName":null,"infoStatus":"1","orgName":"国网浙江桐庐县供电公司","typeName":null,"infoStatusName":null,"dateDay":null,"orgNos":null,"nowTime":null,"countyName":null,"streetName":null,"villageName":null,"roadName":null,"communityName":null,"tranName":null,"sdLineName":null,"cityCode":"3340150","cityName":"国网浙江桐庐县供电公司","provinceCode":null,"stopTime":"2019-11-13 17:00:29","powerType":"全部","powerOffArea":"110kV桐庐变:天通T118线-君政弄2号公变后段","powerOffReason":"(低压停电信息)低压开关跳闸","powerOffId":"2019111331020031"},{"poweroffId":2019111331020025,"sgpoweroffId":null,"subsName":"","lineName":"10kV西庄G238线","pubTranName":"鸭兰村郭家塘2号公变,千亩墩机埠,三航运输崇贤分公司,西河村庄斗公变,鸭兰村老教堂变,西河村西庄2号公变,杭州兴良米业有限公司612068244301#专变,杭州兴良米业有限公司,杭州余杭叙永建材有限公司,杭州市余杭区崇贤二小友谊校区612087763801#专变,鸭兰村支部变,鸭兰村村委变,西河村农居点公变,三家村杨家塘公变,鸭兰村赵家门变,西河村西南华公变,鸭兰村平径西2号公变,西河村红天堂公变,鸭兰村赵家塘变,中交二航（1#变）,杭州市余杭区崇贤鸭兰村基督教堂612015085901#专变,西河村西庄公变,鸭兰村郭家塘变,鸭兰村平径西变,宏畔白河头村红一机埠,鸭兰村木桥头变,西河村西河公变,鸭兰村老教堂2号公变,西河村西墙门公变,金波塑胶,鸭兰村新教堂北变,杭州恒强货物中转有限公司,硕惠塑业变压器,鸭兰村外八年变,西河村墙门头公变,","scope":"浙江省-杭州市-余杭区-崇贤街道-北庄行政村-塘康路,崇贤街道-鸭兰行政村(塘康路,西鸭兰自然村,东鸭兰自然村,外八年自然村,洪字圩自然村,鸭兰村,北鸭兰自然村,西木桥头自然村,木桥头自然村,赵家塘自然村,沈家塘自然村),崇贤街道-三家行政村(塘康路,杨家埭自然村),塘栖镇-西河行政村(西河村,红天堂),塘栖镇(三星行政村-三星村,莫家桥行政村-莫家桥村,宏磻行政村-宏磻村);崇贤街道(崇贤镇平泾村,杭州三航建材有限公司,杭州硕惠塑业有限公司,杭州金波塑胶有限公司,杭州市余杭区崇贤鸭兰村基督教堂,杭州市余杭区崇贤二小友谊校区),塘栖镇(宏畔白河头村红一机埠,杭州兴良米业有限公司,中交第二航务工程局有限公司余杭分公司,杭州恒强货物中转有限公司,杭州余杭叙永建材有限公司)","startTime":"2019-11-13 07:13:00","stopDate":"2019-11-13 10:13:00","orgNo":"3340140","typeCode":"电网故障停限电","poweroffArea":"110kV宏畔变:西庄G238线红天堂分线开关后段","poweroffReason":"高压开关跳闸","powerTime":"2019-11-13 10:09:05","powerComm":"已送电","subsNo":"","lineNo":"","tgNo":"","tgName":null,"infoStatus":"1","orgName":"国网浙江杭州市余杭区供电有限公司","typeName":null,"infoStatusName":null,"dateDay":null,"orgNos":null,"nowTime":null,"countyName":null,"streetName":null,"villageName":null,"roadName":null,"communityName":null,"tranName":null,"sdLineName":null,"cityCode":"3340140","cityName":"国网浙江杭州市余杭区供电有限公司","provinceCode":null,"stopTime":"2019-11-13 10:13:00","powerType":"全部","powerOffArea":"110kV宏畔变:西庄G238线红天堂分线开关后段","powerOffReason":"高压开关跳闸","powerOffId":"2019111331020025"},{"poweroffId":2019111331020018,"sgpoweroffId":null,"subsName":"","lineName":"10kV隔河G381线","pubTranName":"永胜村庄头公变,永胜村南邓公变,","scope":"浙江省-杭州市-余杭区-仁和街道-永胜行政村(邓家埭自然村,南邓自然村,邓家塘自然村,庄头,桩头自然村)","startTime":"2019-11-13 06:14:17","stopDate":"2019-11-13 09:10:00","orgNo":"3340140","typeCode":"电网故障停限电","poweroffArea":"110kV东塘变:隔河G381线南邓分线开关后段","poweroffReason":"高压开关跳闸","powerTime":"2019-11-13 08:46:58","powerComm":"已送电","subsNo":"","lineNo":"","tgNo":"","tgName":null,"infoStatus":"1","orgName":"国网浙江杭州市余杭区供电有限公司","typeName":null,"infoStatusName":null,"dateDay":null,"orgNos":null,"nowTime":null,"countyName":null,"streetName":null,"villageName":null,"roadName":null,"communityName":null,"tranName":null,"sdLineName":null,"cityCode":"3340140","cityName":"国网浙江杭州市余杭区供电有限公司","provinceCode":null,"stopTime":"2019-11-13 09:10:00","powerType":"全部","powerOffArea":"110kV东塘变:隔河G381线南邓分线开关后段","powerOffReason":"高压开关跳闸","powerOffId":"2019111331020018"},{"poweroffId":2019111331020017,"sgpoweroffId":null,"subsName":"","lineName":"10kV城中T273线","pubTranName":"江南市场1号公变,","scope":"浙江省-杭州市-桐庐县-城南街道-下杭社区-瑶琳路,城南街道-中杭社区(新市路37号)一带","startTime":"2019-11-13 06:01:54","stopDate":"2019-11-13 09:01:54","orgNo":"3340150","typeCode":"电网故障停限电","poweroffArea":"35kV三合变:城中T273线-江南市场1号公变后段","poweroffReason":"(低压停电信息)低压开关跳闸","powerTime":"2019-11-13 08:57:06","powerComm":"已送电","subsNo":"","lineNo":"","tgNo":"","tgName":null,"infoStatus":"1","orgName":"国网浙江桐庐县供电公司","typeName":null,"infoStatusName":null,"dateDay":null,"orgNos":null,"nowTime":null,"countyName":null,"streetName":null,"villageName":null,"roadName":null,"communityName":null,"tranName":null,"sdLineName":null,"cityCode":"3340150","cityName":"国网浙江桐庐县供电公司","provinceCode":null,"stopTime":"2019-11-13 09:01:54","powerType":"全部","powerOffArea":"35kV三合变:城中T273线-江南市场1号公变后段","powerOffReason":"(低压停电信息)低压开关跳闸","powerOffId":"2019111331020017"},{"poweroffId":2019111331020013,"sgpoweroffId":null,"subsName":"","lineName":"10kV皇天7015线","pubTranName":"望云房施3,半山隧道2#,柯皮,市话,玻宿四,航油(2)1#,1,宏昌,广灯(2),康运,捷胜汽车3,半山隧道1#,市话2,虎灯,固体,城土南济2,地下(7),望云房施2,半岛施(2),首开润泰1#,首开润泰2#,半山森林公园2#,半山森林公园1#,沥青,地下(8),捷胜汽车2,首开润泰3#,半岛施(1),玻宿一配变,玻宿二配变,虎山停车2#,玻宿六,锦山二,公交,望云房施4,电联,光灯(2),城土南济1,田园,肿宿,虎山停车1#,拱墅开泰3,拱墅开泰2,虎山(2),秋灯,望云房施1,地下(2),捷胜汽车1,田小,","scope":"浙江省-杭州市-拱墅区-半山街道-半山社区-半山路,半山街道-田园社区(田园公寓,半山路,宁和弄,广济路,建工路,山前横路);半山街道-田园社区(杭州市公共交通集团有限公司,中国电信股份有限公司杭州分公司,杭州市路灯管理所,杭州市市政设施发展中心,杭州市区田园地块开发建设指挥部,杭州市拱墅区半山颐养院,杭州上海世界外国语中学),半山街道-半山社区(杭州捷胜行汽车销售服务有限公司,中国移动通信集团浙江有限公司杭州分公司,杭州市路灯管理所,杭州市环境集团有限公司,杭州市城市土地发展有限公司),半山街道-龙山社区(杭州半山半岛置业有限公司,杭州市路灯管理所),半山街道-石塘社区(杭州市环境集团有限公司,杭州之江度假区双流三渣供应站,杭州市路桥集团股份有限公司),半山街道(夏意社区-中国航油集团浙江石油有限公司,杭州首开润泰置业有限公司,杭州望云房地产开发有限公司)","startTime":"2019-11-13 03:24:28","stopDate":"2019-11-13 08:24:28","orgNo":"3340101","typeCode":"电网故障停限电","poweroffArea":"110kV锦唐变:皇天7015线","poweroffReason":"高压开关跳闸 原停电结束时间为2019-11-13 05:24:28,因存在不确定因素原因,现变更停电结束时间为2019-11-13 08:24:28","powerTime":"2019-11-13 07:54:18","powerComm":"已送电","subsNo":"","lineNo":"","tgNo":"","tgName":null,"infoStatus":"1","orgName":"浙江杭州电力客户服务中心","typeName":null,"infoStatusName":null,"dateDay":null,"orgNos":null,"nowTime":null,"countyName":null,"streetName":null,"villageName":null,"roadName":null,"communityName":null,"tranName":null,"sdLineName":null,"cityCode":"3340101","cityName":"浙江杭州电力客户服务中心","provinceCode":null,"stopTime":"2019-11-13 08:24:28","powerType":"全部","powerOffArea":"110kV锦唐变:皇天7015线","powerOffReason":"高压开关跳闸 原停电结束时间为2019-11-13 05:24:28,因存在不确定因素原因,现变更停电结束时间为2019-11-13 08:24:28","powerOffId":"2019111331020013"},{"poweroffId":2019111331020011,"sgpoweroffId":null,"subsName":"","lineName":"10kV如意A326线","pubTranName":"运西村7#变,运西村8#变,2#变,运西村3#变,运西村4#变,杭州昌杰机械有限公司,杭州志帛花边有限公司变压器,杭州萧山鸿达染整有限公司3#,杭州萧山鸿达染整有限公司2#,运西村2#变,杭州萧山瓜沥永新捻丝加工厂,运西村13#变,运西村6#变,运西村9#变,杭州萧山项云林废旧物资回收站,杭州萧山鸿达染整有限公司1#,运西村10#变,","scope":"浙江省-杭州市-萧山区-瓜沥镇-运西行政村-运西自然村;浙江省-杭州市-萧山区-瓜沥镇-运东行政村-杭州市萧山区瓜沥镇人民政府,瓜沥镇-运西行政村(杭州志帛花边有限公司,杭州萧山瓜沥永新捻丝加工厂,杭州萧山项云林废旧物资回收站,杭州萧山鸿达染整有限公司,杭州昌杰机械有限公司)一带","startTime":"2019-11-13 01:40:00","stopDate":"2019-11-13 03:58:00","orgNo":"3340130","typeCode":"电网故障停限电","poweroffArea":"110kV靖江变:如意A326线-如意A3261开关后段","poweroffReason":"高压柱上断路器短路故障 原停电结束时间为2019-11-13 07:48:00,为减少客户停电时间,加快工作进度,提前送电,现变更停电结束时间为2019-11-13 03:58:00","powerTime":"2019-11-13 03:05:54","powerComm":"已送电","subsNo":"","lineNo":"","tgNo":"","tgName":null,"infoStatus":"1","orgName":"国网浙江杭州市萧山区供电有限公司","typeName":null,"infoStatusName":null,"dateDay":null,"orgNos":null,"nowTime":null,"countyName":null,"streetName":null,"villageName":null,"roadName":null,"communityName":null,"tranName":null,"sdLineName":null,"cityCode":"3340130","cityName":"国网浙江杭州市萧山区供电有限公司","provinceCode":null,"stopTime":"2019-11-13 03:58:00","powerType":"全部","powerOffArea":"110kV靖江变:如意A326线-如意A3261开关后段","powerOffReason":"高压柱上断路器短路故障 原停电结束时间为2019-11-13 07:48:00,为减少客户停电时间,加快工作进度,提前送电,现变更停电结束时间为2019-11-13 03:58:00","powerOffId":"2019111331020011"},{"poweroffId":2019111231020301,"sgpoweroffId":null,"subsName":"","lineName":"10kV铭元7029线","pubTranName":"枫景（十二）,云亭四,枫景（十）,云亭六,枫景（十八）,枫景（二）,枫景（六）,枫景（十四）,华天二变,铭专2#,云亭二,长白幼儿2#,枫景（八）,华天四变,枫景（二十）,中铁白马2#,枫景（四）,华天六变,枫景（十六）,中铁白马1#,","scope":"浙江省-杭州市-江干区-丁桥镇-北城枫景园社区(长睦路,北城枫景园小区),丁兰街道-华亭社区(华鹤街,白马庄街,长睦路,云亭公寓),丁桥镇-丁桥社区(白马庄路,华鹤街,长睦路,华天苑);浙江省-杭州市-江干区-丁桥镇-长睦社区-杭州城市土地资产经营管理有限公司,丁兰街道-三义社区(杭州市丁蕙第二幼儿园,中铁二局集团有限公司)","startTime":"2019-11-12 22:17:54","stopDate":"2019-11-13 01:17:54","orgNo":"3340101","typeCode":"电网故障停限电","poweroffArea":"110kV锦唐变:铭元7029线","poweroffReason":"高压开关跳闸 原停电结束时间为2019-11-13 08:17:54,为减少客户停电时间,加快工作进度,提前送电,现变更停电结束时间为2019-11-13 01:17:54","powerTime":"2019-11-13 00:24:30","powerComm":"已送电","subsNo":"","lineNo":"","tgNo":"","tgName":null,"infoStatus":"1","orgName":"浙江杭州电力客户服务中心","typeName":null,"infoStatusName":null,"dateDay":null,"orgNos":null,"nowTime":null,"countyName":null,"streetName":null,"villageName":null,"roadName":null,"communityName":null,"tranName":null,"sdLineName":null,"cityCode":"3340101","cityName":"浙江杭州电力客户服务中心","provinceCode":null,"stopTime":"2019-11-13 01:17:54","powerType":"全部","powerOffArea":"110kV锦唐变:铭元7029线","powerOffReason":"高压开关跳闸 原停电结束时间为2019-11-13 08:17:54,为减少客户停电时间,加快工作进度,提前送电,现变更停电结束时间为2019-11-13 01:17:54","powerOffId":"2019111231020301"}],"pageModel":{"pageNow":875,"totalCount":17789,"totalPage":1779,"tableRows":0,"pageCount":10,"beginCount":8740},"isExperi":"1"}