{"message":"","today":"2020-06-15","seleList":[{"poweroffId":2019111231020289,"sgpoweroffId":null,"subsName":"","lineName":"10kV景芳6467线","pubTranName":"武宿二变,东南肖埠变II,东南肖埠变I,武宿一变,","scope":"浙江省-杭州市-江干区-凯旋街道-金秋花园社区(凤起东路),凯旋街道-南肖埠社区(凤起东路,双菱路,南肖埠小区,北景东苑),凯旋街道(景华社区-青春都市公寓小区,景苑社区-凤起东路)","startTime":"2019-11-12 17:55:07","stopDate":"2019-11-13 02:00:00","orgNo":"3340101","typeCode":"电网故障停限电","poweroffArea":"110kV五福变:景芳6467线-武宿一变后段","poweroffReason":"高压开关跳闸 原停电结束时间为2019-11-12 22:55:07,因施工现场环境比较复杂原因,现变更停电结束时间为2019-11-13 02:00:00","powerTime":"2019-11-13 01:07:57","powerComm":"已送电","subsNo":"","lineNo":"","tgNo":"","tgName":null,"infoStatus":"1","orgName":"浙江杭州电力客户服务中心","typeName":null,"infoStatusName":null,"dateDay":null,"orgNos":null,"nowTime":null,"countyName":null,"streetName":null,"villageName":null,"roadName":null,"communityName":null,"tranName":null,"sdLineName":null,"cityCode":"3340101","cityName":"浙江杭州电力客户服务中心","provinceCode":null,"stopTime":"2019-11-13 02:00:00","powerType":"全部","powerOffArea":"110kV五福变:景芳6467线-武宿一变后段","powerOffReason":"高压开关跳闸 原停电结束时间为2019-11-12 22:55:07,因施工现场环境比较复杂原因,现变更停电结束时间为2019-11-13 02:00:00","powerOffId":"2019111231020289"},{"poweroffId":2019111231020235,"sgpoweroffId":null,"subsName":"","lineName":"10kV雷达C705线","pubTranName":"空中交通(1315082048),坞里村4#变,1#变,水晶卫浴,坞里村7#变,","scope":"浙江省-杭州市-萧山区-南阳街道-坞里行政村(美狮西路,坞里自然村,阳城路,美圣路);浙江省-杭州市-萧山区-南阳街道-赭山社区-中国民用航空华东地区空中交通管理局浙江分局,南阳街道-坞里行政村(杭州水晶卫浴有限公司,杭州红阳废旧金属物资回收有限公司)","startTime":"2019-11-20 07:30:00","stopDate":"2019-11-20 13:30:00","orgNo":"3340130","typeCode":"计划停电","poweroffArea":"35kV赭山变:雷达C705线-雷达C705线雷达分线开关后段","poweroffReason":"雷赭L002线雷达开G12间隔新放电缆至雷达C705线01/01#杆新装开关下端，雷达线出线电缆拆除（雷达龙虎环提前报投后，转供雷达线主线负荷，将雷达线01#杆开关拉开后带电剪上引线）","powerTime":"2019-11-20 13:27:05","powerComm":"已送电","subsNo":"","lineNo":"","tgNo":"","tgName":null,"infoStatus":"1","orgName":"国网浙江杭州市萧山区供电有限公司","typeName":null,"infoStatusName":null,"dateDay":null,"orgNos":null,"nowTime":null,"countyName":null,"streetName":null,"villageName":null,"roadName":null,"communityName":null,"tranName":null,"sdLineName":null,"cityCode":"3340130","cityName":"国网浙江杭州市萧山区供电有限公司","provinceCode":null,"stopTime":"2019-11-20 13:30:00","powerType":"全部","powerOffArea":"35kV赭山变:雷达C705线-雷达C705线雷达分线开关后段","powerOffReason":"雷赭L002线雷达开G12间隔新放电缆至雷达C705线01/01#杆新装开关下端，雷达线出线电缆拆除（雷达龙虎环提前报投后，转供雷达线主线负荷，将雷达线01#杆开关拉开后带电剪上引线）","powerOffId":"2019111231020235"},{"poweroffId":2019111231020213,"sgpoweroffId":null,"subsName":"","lineName":"10kV贤德D333线","pubTranName":"石羊村5#杨家公变,","scope":"浙江省-杭州市-富阳区-洞桥镇-三溪行政村-土福湾自然村,洞桥镇-石羊行政村(徐家自然村,石羊坞自然村,杨家自然村,石羊自然村)","startTime":"2019-11-12 15:02:37","stopDate":"2019-11-12 17:02:37","orgNo":"3340170","typeCode":"电网故障停限电","poweroffArea":"110kV万市变:贤德D333线-石羊村5#杨家公变后段","poweroffReason":"高压开关跳闸","powerTime":"2019-11-12 16:52:15","powerComm":"已送电","subsNo":"","lineNo":"","tgNo":"","tgName":null,"infoStatus":"1","orgName":"国网浙江杭州市富阳区供电公司","typeName":null,"infoStatusName":null,"dateDay":null,"orgNos":null,"nowTime":null,"countyName":null,"streetName":null,"villageName":null,"roadName":null,"communityName":null,"tranName":null,"sdLineName":null,"cityCode":"3340170","cityName":"国网浙江杭州市富阳区供电公司","provinceCode":null,"stopTime":"2019-11-12 17:02:37","powerType":"全部","powerOffArea":"110kV万市变:贤德D333线-石羊村5#杨家公变后段","powerOffReason":"高压开关跳闸","powerOffId":"2019111231020213"},{"poweroffId":2019111231020199,"sgpoweroffId":null,"subsName":"","lineName":"10kV立太H431线","pubTranName":"2#,","scope":"浙江省-杭州市-余杭区-良渚街道-七贤桥行政村-杭州余杭中石化交通能源有限公司","startTime":"2019-11-12 14:25:00","stopDate":"2019-11-12 15:15:00","orgNo":"3340140","typeCode":"电网故障停限电","poweroffArea":"110kV勾庄变:立太H431线-中石化交通能源分线开关后段","poweroffReason":"高压开关跳闸","powerTime":"2019-11-12 15:05:00","powerComm":"已送电","subsNo":"","lineNo":"","tgNo":"","tgName":null,"infoStatus":"1","orgName":"国网浙江杭州市余杭区供电有限公司","typeName":null,"infoStatusName":null,"dateDay":null,"orgNos":null,"nowTime":null,"countyName":null,"streetName":null,"villageName":null,"roadName":null,"communityName":null,"tranName":null,"sdLineName":null,"cityCode":"3340140","cityName":"国网浙江杭州市余杭区供电有限公司","provinceCode":null,"stopTime":"2019-11-12 15:15:00","powerType":"全部","powerOffArea":"110kV勾庄变:立太H431线-中石化交通能源分线开关后段","powerOffReason":"高压开关跳闸","powerOffId":"2019111231020199"},{"poweroffId":2019111231020198,"sgpoweroffId":null,"subsName":"","lineName":"10kV剧太8701线","pubTranName":"堡南一变,","scope":"浙江省-杭州市-江干区-四季青街道-三堡社区(三堡家园,钱江路与景耀巷交叉口,太平门直街)","startTime":"2019-11-12 14:23:31","stopDate":"2019-11-12 15:06:31","orgNo":"3340101","typeCode":"电网故障停限电","poweroffArea":"110kV剧院变:剧太8701线-堡南一变后段","poweroffReason":"(低压停电信息)低压开关跳闸 原停电结束时间为2019-11-12 17:23:31,为减少客户停电时间,加快工作进度,提前送电,现变更停电结束时间为2019-11-12 15:06:31","powerTime":"2019-11-12 15:01:04","powerComm":"已送电","subsNo":"","lineNo":"","tgNo":"","tgName":null,"infoStatus":"1","orgName":"浙江杭州电力客户服务中心","typeName":null,"infoStatusName":null,"dateDay":null,"orgNos":null,"nowTime":null,"countyName":null,"streetName":null,"villageName":null,"roadName":null,"communityName":null,"tranName":null,"sdLineName":null,"cityCode":"3340101","cityName":"浙江杭州电力客户服务中心","provinceCode":null,"stopTime":"2019-11-12 15:06:31","powerType":"全部","powerOffArea":"110kV剧院变:剧太8701线-堡南一变后段","powerOffReason":"(低压停电信息)低压开关跳闸 原停电结束时间为2019-11-12 17:23:31,为减少客户停电时间,加快工作进度,提前送电,现变更停电结束时间为2019-11-12 15:06:31","powerOffId":"2019111231020198"},{"poweroffId":2019111231020155,"sgpoweroffId":null,"subsName":"","lineName":"10kV洋塘T101线","pubTranName":"洋塘嘉苑1号公变,","scope":"浙江省-杭州市-桐庐县-桐君街道-洋塘社区-洋塘路（洋塘嘉苑一带）","startTime":"2019-11-12 12:35:39","stopDate":"2019-11-12 15:30:39","orgNo":"3340150","typeCode":"电网故障停限电","poweroffArea":"110kV桐庐变:洋塘T101线-洋塘嘉苑1号公变后段","poweroffReason":"高压开关跳闸","powerTime":"2019-11-12 15:21:26","powerComm":"已送电","subsNo":"","lineNo":"","tgNo":"","tgName":null,"infoStatus":"1","orgName":"国网浙江桐庐县供电公司","typeName":null,"infoStatusName":null,"dateDay":null,"orgNos":null,"nowTime":null,"countyName":null,"streetName":null,"villageName":null,"roadName":null,"communityName":null,"tranName":null,"sdLineName":null,"cityCode":"3340150","cityName":"国网浙江桐庐县供电公司","provinceCode":null,"stopTime":"2019-11-12 15:30:39","powerType":"全部","powerOffArea":"110kV桐庐变:洋塘T101线-洋塘嘉苑1号公变后段","powerOffReason":"高压开关跳闸","powerOffId":"2019111231020155"},{"poweroffId":2019111231020152,"sgpoweroffId":null,"subsName":"","lineName":"10kV东吴C234线","pubTranName":"管村村19#变,萧山公路段,杭州纱艺投资管理有限公司,楼家塔13#变,梦雨饰品,管村村16#变,","scope":"浙江省-杭州市-萧山区-楼塔镇-管村行政村-东山吴自然村,楼塔镇-楼家塔行政村(楼三自然村,独山新区,楼二自然村),楼塔镇-楼英行政村(楼四自然村,楼二自然村);浙江省-杭州市-萧山区-楼塔镇-岩上行政村-杭州纱艺投资管理有限公司,楼塔镇-楼家塔行政村(杭州市萧山区公路管理处,杭州梦雨饰品有限公司)一带","startTime":"2019-11-12 12:07:08","stopDate":"2019-11-12 14:07:08","orgNo":"3340130","typeCode":"电网故障停限电","poweroffArea":"35kV楼塔变:东吴C234线-东吴C234线楼英开东山吴一号分线开关后段","poweroffReason":"高压柱上断路器短路故障","powerTime":"2019-11-12 13:26:22","powerComm":"已送电","subsNo":"","lineNo":"","tgNo":"","tgName":null,"infoStatus":"1","orgName":"国网浙江杭州市萧山区供电有限公司","typeName":null,"infoStatusName":null,"dateDay":null,"orgNos":null,"nowTime":null,"countyName":null,"streetName":null,"villageName":null,"roadName":null,"communityName":null,"tranName":null,"sdLineName":null,"cityCode":"3340130","cityName":"国网浙江杭州市萧山区供电有限公司","provinceCode":null,"stopTime":"2019-11-12 14:07:08","powerType":"全部","powerOffArea":"35kV楼塔变:东吴C234线-东吴C234线楼英开东山吴一号分线开关后段","powerOffReason":"高压柱上断路器短路故障","powerOffId":"2019111231020152"},{"poweroffId":2019111231020150,"sgpoweroffId":null,"subsName":"","lineName":"10kV东村D501线","pubTranName":"大田村4号民主公变,","scope":"浙江省-杭州市-富阳区-常安镇(大田行政村-六石坎自然村,东风行政村-东风自然村)","startTime":"2019-11-12 11:57:49","stopDate":"2019-11-12 12:57:49","orgNo":"3340170","typeCode":"电网故障停限电","poweroffArea":"110kV常安变:东村D501线-大田村4号民主公变后段","poweroffReason":"高压开关跳闸","powerTime":"2019-11-12 12:08:05","powerComm":"已送电","subsNo":"","lineNo":"","tgNo":"","tgName":null,"infoStatus":"1","orgName":"国网浙江杭州市富阳区供电公司","typeName":null,"infoStatusName":null,"dateDay":null,"orgNos":null,"nowTime":null,"countyName":null,"streetName":null,"villageName":null,"roadName":null,"communityName":null,"tranName":null,"sdLineName":null,"cityCode":"3340170","cityName":"国网浙江杭州市富阳区供电公司","provinceCode":null,"stopTime":"2019-11-12 12:57:49","powerType":"全部","powerOffArea":"110kV常安变:东村D501线-大田村4号民主公变后段","powerOffReason":"高压开关跳闸","powerOffId":"2019111231020150"},{"poweroffId":2019111231020090,"sgpoweroffId":null,"subsName":"","lineName":"10kV新安Y115线","pubTranName":"春江明月5#公变,","scope":"浙江省-杭州市-建德市-新安江街道-新安社区-江滨中路，春江明月小区等一带用户，","startTime":"2019-11-12 09:50:00","stopDate":"2019-11-12 11:30:00","orgNo":"3340180","typeCode":"电网故障停限电","poweroffArea":"110kV新安江变:新安Y115线-春江明月5#公变后段","poweroffReason":"(低压停电信息)低压开关跳闸 原停电结束时间为2019-11-12 12:00:00,为减少客户停电时间,加快工作进度,提前送电,现变更停电结束时间为2019-11-12 11:30:00","powerTime":"2019-11-12 10:56:00","powerComm":"已送电（未涉及多户无电，实际为单户无电，用户表前空开接触不良）","subsNo":"","lineNo":"","tgNo":"","tgName":null,"infoStatus":"1","orgName":"国网浙江建德市供电有限公司","typeName":null,"infoStatusName":null,"dateDay":null,"orgNos":null,"nowTime":null,"countyName":null,"streetName":null,"villageName":null,"roadName":null,"communityName":null,"tranName":null,"sdLineName":null,"cityCode":"3340180","cityName":"国网浙江建德市供电有限公司","provinceCode":null,"stopTime":"2019-11-12 11:30:00","powerType":"全部","powerOffArea":"110kV新安江变:新安Y115线-春江明月5#公变后段","powerOffReason":"(低压停电信息)低压开关跳闸 原停电结束时间为2019-11-12 12:00:00,为减少客户停电时间,加快工作进度,提前送电,现变更停电结束时间为2019-11-12 11:30:00","powerOffId":"2019111231020090"},{"poweroffId":2019111231020087,"sgpoweroffId":null,"subsName":"","lineName":"10kV何家D717线","pubTranName":"2#变,永昌村何云2#何家公变,富阳市永昌镇惠荣纸制品加工厂,变压器,杭州富宇杰纸业有限公司,杭州富阳立新纸业有限公司,富宇杰纸业,浙江富阳永大钢业有限公司1#变,永大钢业,3#变,永昌村何云1#许家公变,富阳市东亚化工厂,永昌村何云5#云山脚公变,富宇杰纸业,包秦村包秦2#农居点公变,","scope":"浙江省-杭州市-富阳区-永昌镇-永昌行政村-何云自然村,新登镇-包秦行政村(包秦自然村,大贝自然村);永昌镇(富阳市永昌镇惠荣纸制品加工厂,杭州富宇杰纸业有限公司,杭州富阳丰驰化工有限公司,杭州富阳佳辉建材有限公司,杭州亿邦容器设备制造有限公司,杭州富阳立新纸业有限公司)","startTime":"2019-11-12 09:54:49","stopDate":"2019-11-12 11:54:49","orgNo":"3340170","typeCode":"电网故障停限电","poweroffArea":"110kV松溪变:何家D717线何家D7172开关后段","poweroffReason":"高压开关跳闸","powerTime":"2019-11-12 11:03:36","powerComm":"已送电","subsNo":"","lineNo":"","tgNo":"","tgName":null,"infoStatus":"1","orgName":"国网浙江杭州市富阳区供电公司","typeName":null,"infoStatusName":null,"dateDay":null,"orgNos":null,"nowTime":null,"countyName":null,"streetName":null,"villageName":null,"roadName":null,"communityName":null,"tranName":null,"sdLineName":null,"cityCode":"3340170","cityName":"国网浙江杭州市富阳区供电公司","provinceCode":null,"stopTime":"2019-11-12 11:54:49","powerType":"全部","powerOffArea":"110kV松溪变:何家D717线何家D7172开关后段","powerOffReason":"高压开关跳闸","powerOffId":"2019111231020087"}],"pageModel":{"pageNow":876,"totalCount":17789,"totalPage":1779,"tableRows":0,"pageCount":10,"beginCount":8750},"isExperi":"1"}