{"message":"","today":"2020-06-15","seleList":[{"poweroffId":2019111231020080,"sgpoweroffId":null,"subsName":"","lineName":"10kV里湖T424线","pubTranName":"天英1号公变,","scope":"浙江省-杭州市-桐庐县-分水镇-天英行政村(中度自然村,天英自然村,看牛畈自然村)天英村三园村委","startTime":"2019-11-12 09:39:42","stopDate":"2019-11-12 17:00:42","orgNo":"3340150","typeCode":"电网故障停限电","poweroffArea":"110kV天英变:里湖T424线-天英1号公变后段","poweroffReason":"高压开关跳闸","powerTime":"2019-11-12 16:52:20","powerComm":"已送电","subsNo":"","lineNo":"","tgNo":"","tgName":null,"infoStatus":"1","orgName":"国网浙江桐庐县供电公司","typeName":null,"infoStatusName":null,"dateDay":null,"orgNos":null,"nowTime":null,"countyName":null,"streetName":null,"villageName":null,"roadName":null,"communityName":null,"tranName":null,"sdLineName":null,"cityCode":"3340150","cityName":"国网浙江桐庐县供电公司","provinceCode":null,"stopTime":"2019-11-12 17:00:42","powerType":"全部","powerOffArea":"110kV天英变:里湖T424线-天英1号公变后段","powerOffReason":"高压开关跳闸","powerOffId":"2019111231020080"},{"poweroffId":2019111231020067,"sgpoweroffId":null,"subsName":"","lineName":"10kV合强192线","pubTranName":"陈村1号公变,","scope":"浙江省-杭州市-桐庐县-合村乡-后溪行政村-陈村自然村","startTime":"2019-11-20 13:00:00","stopDate":"2019-11-20 17:00:00","orgNo":"3340150","typeCode":"计划停电","poweroffArea":"35kV合村变:合强192线-陈村F9536令克后段","poweroffReason":"陈村1号公变公变安装金具，三相不平衡装置及搭接","powerTime":"2019-11-20 16:43:00","powerComm":"已送电","subsNo":"","lineNo":"","tgNo":"","tgName":null,"infoStatus":"1","orgName":"国网浙江桐庐县供电公司","typeName":null,"infoStatusName":null,"dateDay":null,"orgNos":null,"nowTime":null,"countyName":null,"streetName":null,"villageName":null,"roadName":null,"communityName":null,"tranName":null,"sdLineName":null,"cityCode":"3340150","cityName":"国网浙江桐庐县供电公司","provinceCode":null,"stopTime":"2019-11-20 17:00:00","powerType":"全部","powerOffArea":"35kV合村变:合强192线-陈村F9536令克后段","powerOffReason":"陈村1号公变公变安装金具，三相不平衡装置及搭接","powerOffId":"2019111231020067"},{"poweroffId":2019111231020051,"sgpoweroffId":null,"subsName":"","lineName":"10kV城南H621线","pubTranName":"凤新路灯变,美食街,余杭镇一中,","scope":"浙江省-杭州市-余杭区-余杭街道(杭州市余杭区太炎中学,杭州凤都物业管理有限公司,杭州市余杭区余杭镇人民政府)","startTime":"2019-11-12 08:49:00","stopDate":"2019-11-12 09:30:00","orgNo":"3340140","typeCode":"电网故障停限电","poweroffArea":"110kV桃源变:城南H621线圆乡开关站新镇中分支箱分线后段","poweroffReason":"高压开关跳闸 原停电结束时间为2019-11-12 12:30:00,为减少客户停电时间,加快工作进度,提前送电,现变更停电结束时间为2019-11-12 09:30:00","powerTime":"2019-11-12 09:06:00","powerComm":"已送电","subsNo":"","lineNo":"","tgNo":"","tgName":null,"infoStatus":"1","orgName":"国网浙江杭州市余杭区供电有限公司","typeName":null,"infoStatusName":null,"dateDay":null,"orgNos":null,"nowTime":null,"countyName":null,"streetName":null,"villageName":null,"roadName":null,"communityName":null,"tranName":null,"sdLineName":null,"cityCode":"3340140","cityName":"国网浙江杭州市余杭区供电有限公司","provinceCode":null,"stopTime":"2019-11-12 09:30:00","powerType":"全部","powerOffArea":"110kV桃源变:城南H621线圆乡开关站新镇中分支箱分线后段","powerOffReason":"高压开关跳闸 原停电结束时间为2019-11-12 12:30:00,为减少客户停电时间,加快工作进度,提前送电,现变更停电结束时间为2019-11-12 09:30:00","powerOffId":"2019111231020051"},{"poweroffId":2019111231020049,"sgpoweroffId":null,"subsName":"","lineName":"10kV工房6585线","pubTranName":"华城(三),","scope":"浙江省-杭州市-杭州市经济技术开发区-白杨街道(白杨社区-学源街1273号,云水社区-学正街865)阳光花城华景苑2幢1单元及1单元商铺","startTime":"2019-11-19 09:23:00","stopDate":"2019-11-19 11:00:00","orgNo":"3340101","typeCode":"计划停电","poweroffArea":"110kV下沙变:工房6585线-华城(三)B3-1 2号楼井道始端箱总开","poweroffReason":"(低压停电信息)阳光花城华景苑2幢1单元4楼表箱插拔模块更换 原停电结束时间为2019-11-19 14:30:00,为减少客户停电时间,加快工作进度,提前送电,现变更停电结束时间为2019-11-19 11:00:00","powerTime":"2019-11-19 10:24:59","powerComm":"已送电","subsNo":"","lineNo":"","tgNo":"","tgName":null,"infoStatus":"1","orgName":"浙江杭州电力客户服务中心","typeName":null,"infoStatusName":null,"dateDay":null,"orgNos":null,"nowTime":null,"countyName":null,"streetName":null,"villageName":null,"roadName":null,"communityName":null,"tranName":null,"sdLineName":null,"cityCode":"3340101","cityName":"浙江杭州电力客户服务中心","provinceCode":null,"stopTime":"2019-11-19 11:00:00","powerType":"全部","powerOffArea":"110kV下沙变:工房6585线-华城(三)B3-1 2号楼井道始端箱总开","powerOffReason":"(低压停电信息)阳光花城华景苑2幢1单元4楼表箱插拔模块更换 原停电结束时间为2019-11-19 14:30:00,为减少客户停电时间,加快工作进度,提前送电,现变更停电结束时间为2019-11-19 11:00:00","powerOffId":"2019111231020049"},{"poweroffId":2019111231020047,"sgpoweroffId":null,"subsName":"","lineName":"10kV庙湾H289线","pubTranName":"连具塘村闻家台门,苕溪村石墙2号公变,苕溪村九莲池北公变,苕溪村大船埠头公变,苕溪村小涧公变,连具塘村吴潭村,苕溪村小桥,连具塘村小木桥公变,连具塘村冯家村,彭氏布业,苕溪村小涧北公变,京泰鞋业,连具塘村高池塘,苕溪村闻家斗2号公变,连具塘村鲁家桥南公变,永乐众兴桥公变,永乐村锡家坝,连具塘村庙湾里,永乐村西蔡庙公变,苕溪村石墙,永乐村张家田畈公变,鸦雀斗变,连具塘村小庙村公变,连具塘村徐家村,永乐村唐家桥公变,苕溪村沙河桥东公变,连具塘村鲁家桥北,苕溪村沙河桥公变,金成家禽,苕溪村沈家桥,连具塘村鲁家桥南2号公变,苕溪村张家斗公变,苕溪村九莲池2号公变,连具塘村彭家村公变,苕溪村沈家公变,连具塘村蒋家斗,苕溪村宇家塘公变,苕溪村九莲池公变,中交6号基建,苕溪村小桥头公变,连具塘村陈家埭,苕溪村凌村营,连具塘村丁家2号公变,苕溪村沈家桥2号公变,苕溪后进桥,钟村沙河头公变,连具塘村王家桥公变,杭州伟龙制冷设备有限公司,苕溪村盘桥公变,苕溪村前家埠公变,苕溪村金家竹桥,连具塘村应家,永乐村竹园蓬2号公变,刀毛弄,苕溪村凌村营2号公变,苕溪村闻家斗,永乐村竹园蓬公变,苕溪村唐家头公变,连具塘村丁家公变,","scope":"浙江省-杭州市-余杭区-仓前街道-连具塘行政村(小庙村,陡门自然村,冯家自然村,冯家村,徐家自然村,连具塘自然村,庙湾里,陈家埭自然村,塌桥头,雅雀斗自然村,沙河头自然村,西腰陡门自然村,木杓斗自然村,吴潭村,王家桥自然村,小木桥自然村,徐家角自然村,应家自然村,彭家村,闻家斗自然村,丁家自然村),仓前街道-永乐行政村(永乐自然村,张家田畈自然村,西蔡庙自然村,唐家桥自然村,俞家桥自然村,姚家门自然村,通义桥自然村,王家桥自然村),仓前街道-苕溪行政村(张家斗自然村,凌村营自然村,苕溪自然村,九连池自然村,网具自然村,石墙里自然村,荷叶岭自然村,竹桥头自然村,沙河头自然村,唐家头自然村,大船埠头自然村,沈家自然村,沈家桥自然村,闻家斗自然村,小涧自然村,扒桥头自然村,刀茅弄自然村,后金桥自然村,小桥头自然村,童家桥自然村),仓前街道(吴山前行政村-吴山前自然村,灵源行政村-灵源自然村,高桥行政村-沈家村自然村);仓前街道(杭州伟龙制冷设备有限公司,杭州坤越机械制造有限公司,杭州余杭京泰制鞋有限公司,杭州余杭月光塑料厂,中交第二航务工程局有限公司余杭分公司)","startTime":"2019-11-12 08:40:00","stopDate":"2019-11-12 10:29:00","orgNo":"3340140","typeCode":"电网故障停限电","poweroffArea":"110kV柏庙变:庙湾H289线H28912开关后段","poweroffReason":"高压开关跳闸 原停电结束时间为2019-11-12 12:29:00,为减少客户停电时间,加快工作进度,提前送电,现变更停电结束时间为2019-11-12 10:29:00","powerTime":"2019-11-12 09:52:00","powerComm":"已送电","subsNo":"","lineNo":"","tgNo":"","tgName":null,"infoStatus":"1","orgName":"国网浙江杭州市余杭区供电有限公司","typeName":null,"infoStatusName":null,"dateDay":null,"orgNos":null,"nowTime":null,"countyName":null,"streetName":null,"villageName":null,"roadName":null,"communityName":null,"tranName":null,"sdLineName":null,"cityCode":"3340140","cityName":"国网浙江杭州市余杭区供电有限公司","provinceCode":null,"stopTime":"2019-11-12 10:29:00","powerType":"全部","powerOffArea":"110kV柏庙变:庙湾H289线H28912开关后段","powerOffReason":"高压开关跳闸 原停电结束时间为2019-11-12 12:29:00,为减少客户停电时间,加快工作进度,提前送电,现变更停电结束时间为2019-11-12 10:29:00","powerOffId":"2019111231020047"},{"poweroffId":2019111231020046,"sgpoweroffId":null,"subsName":"","lineName":"10kV双义253线","pubTranName":"奚家村2号公变,","scope":"浙江省-杭州市-桐庐县-江南镇-珠山行政村-奚家自然村","startTime":"2019-11-12 08:40:19","stopDate":"2019-11-12 10:40:19","orgNo":"3340150","typeCode":"电网故障停限电","poweroffArea":"110kV石阜变:双义253线-奚家村2号公变后段","poweroffReason":"高压开关跳闸","powerTime":"2019-11-12 10:30:17","powerComm":"已送电","subsNo":"","lineNo":"","tgNo":"","tgName":null,"infoStatus":"1","orgName":"国网浙江桐庐县供电公司","typeName":null,"infoStatusName":null,"dateDay":null,"orgNos":null,"nowTime":null,"countyName":null,"streetName":null,"villageName":null,"roadName":null,"communityName":null,"tranName":null,"sdLineName":null,"cityCode":"3340150","cityName":"国网浙江桐庐县供电公司","provinceCode":null,"stopTime":"2019-11-12 10:40:19","powerType":"全部","powerOffArea":"110kV石阜变:双义253线-奚家村2号公变后段","powerOffReason":"高压开关跳闸","powerOffId":"2019111231020046"},{"poweroffId":2019111231020043,"sgpoweroffId":null,"subsName":"","lineName":"10kV蔡家D893线","pubTranName":"陈村3号村中公变,","scope":"浙江省-杭州市-富阳区-灵桥镇(新华行政村-新华自然村,陈村行政村-陈村自然村)","startTime":"2019-11-12 08:38:36","stopDate":"2019-11-12 10:08:36","orgNo":"3340170","typeCode":"电网故障停限电","poweroffArea":"110kV永春变:蔡家D893线-陈村3号村中公变后段","poweroffReason":"高压开关跳闸","powerTime":"2019-11-12 09:50:41","powerComm":"已送电","subsNo":"","lineNo":"","tgNo":"","tgName":null,"infoStatus":"1","orgName":"国网浙江杭州市富阳区供电公司","typeName":null,"infoStatusName":null,"dateDay":null,"orgNos":null,"nowTime":null,"countyName":null,"streetName":null,"villageName":null,"roadName":null,"communityName":null,"tranName":null,"sdLineName":null,"cityCode":"3340170","cityName":"国网浙江杭州市富阳区供电公司","provinceCode":null,"stopTime":"2019-11-12 10:08:36","powerType":"全部","powerOffArea":"110kV永春变:蔡家D893线-陈村3号村中公变后段","powerOffReason":"高压开关跳闸","powerOffId":"2019111231020043"},{"poweroffId":2019111231020037,"sgpoweroffId":null,"subsName":"","lineName":"10kV梓树D973线","pubTranName":"杭州富阳航诚玻璃有限公司1#变,十月村2#平洋公变,杭州梅家坞新新茶叶有限公司,十月村7号上张二公变,十月村6#高坞里公变,上大庄村2#周家公变,杭州盈动达精密机械有限公司,上大庄村3#白纸槽公变,十月村3号高坞公变,受降镇十月村5#上张公变,上大庄村12号白纸槽公变,浙江金鑫管桩有限公司,大庄村9号周家东公变,上大庄村5号白纸槽公变,大庄村14号东坞公变,大庄村8号高坞口公变,十月村1#下张公变,杭州大众钢结构有限公司,上大庄1#村委公变,上大庄村13号徐家公变,大庄村6#白纸槽东坞公变,","scope":"浙江省-杭州市-富阳区-银湖街道-大庄行政村(大庄自然村,潘家自然村,上大庄自然村,徐家自然村,十月自然村,高坞里自然村,平垟自然村,白纸槽自然村,横溪洋自然村,秧田坎自然村,曹家自然村,张家自然村);银湖街道(浙江金鑫管桩有限公司,杭州盈动达精密机械有限公司,杭州大众钢结构有限公司,杭州梅家坞新新茶叶有限公司,杭州富阳航诚玻璃有限公司)","startTime":"2019-11-12 08:24:00","stopDate":"2019-11-12 09:24:00","orgNo":"3340170","typeCode":"电网故障停限电","poweroffArea":"110kV九龙变:梓树D973线上大庄分线1号杆开关后段","poweroffReason":"高压开关跳闸 原停电结束时间为2019-11-12 10:24:00,为减少客户停电时间,加快工作进度,提前送电,现变更停电结束时间为2019-11-12 09:24:00","powerTime":"2019-11-12 09:01:45","powerComm":"已送电","subsNo":"","lineNo":"","tgNo":"","tgName":null,"infoStatus":"1","orgName":"国网浙江杭州市富阳区供电公司","typeName":null,"infoStatusName":null,"dateDay":null,"orgNos":null,"nowTime":null,"countyName":null,"streetName":null,"villageName":null,"roadName":null,"communityName":null,"tranName":null,"sdLineName":null,"cityCode":"3340170","cityName":"国网浙江杭州市富阳区供电公司","provinceCode":null,"stopTime":"2019-11-12 09:24:00","powerType":"全部","powerOffArea":"110kV九龙变:梓树D973线上大庄分线1号杆开关后段","powerOffReason":"高压开关跳闸 原停电结束时间为2019-11-12 10:24:00,为减少客户停电时间,加快工作进度,提前送电,现变更停电结束时间为2019-11-12 09:24:00","powerOffId":"2019111231020037"},{"poweroffId":2019111231020023,"sgpoweroffId":null,"subsName":"","lineName":"10kV新化Y108线","pubTranName":"白沙社区三和公变,","scope":"浙江省-杭州市-建德市-新安江街道-白沙社区华隆东路,白沙路,三和路一带用户。","startTime":"2019-11-12 07:45:00","stopDate":"2019-11-12 10:00:00","orgNo":"3340180","typeCode":"电网故障停限电","poweroffArea":"110kV新安江变:新化Y108线-白沙社区三和公变后段","poweroffReason":"(低压停电信息)低压熔芯烧毁故障","powerTime":"2019-11-12 09:19:31","powerComm":"已送电","subsNo":"","lineNo":"","tgNo":"","tgName":null,"infoStatus":"1","orgName":"国网浙江建德市供电有限公司","typeName":null,"infoStatusName":null,"dateDay":null,"orgNos":null,"nowTime":null,"countyName":null,"streetName":null,"villageName":null,"roadName":null,"communityName":null,"tranName":null,"sdLineName":null,"cityCode":"3340180","cityName":"国网浙江建德市供电有限公司","provinceCode":null,"stopTime":"2019-11-12 10:00:00","powerType":"全部","powerOffArea":"110kV新安江变:新化Y108线-白沙社区三和公变后段","powerOffReason":"(低压停电信息)低压熔芯烧毁故障","powerOffId":"2019111231020023"},{"poweroffId":2019111231020022,"sgpoweroffId":null,"subsName":"","lineName":"10kV陈园C841线","pubTranName":"陈家园村5#变,","scope":"浙江省-杭州市-萧山区-新街镇、新街街道-陈家园行政村-陈家园自然村等一带","startTime":"2019-11-12 07:52:13","stopDate":"2019-11-12 18:15:13","orgNo":"3340130","typeCode":"电网故障停限电","poweroffArea":"110kV罗山变:陈园C841线-陈家园村5#变台区低压开关","poweroffReason":"（低压停电信息）低压漏电保护器短路故障","powerTime":"2019-11-12 17:17:41","powerComm":"已送电","subsNo":"","lineNo":"","tgNo":"","tgName":null,"infoStatus":"1","orgName":"国网浙江杭州市萧山区供电有限公司","typeName":null,"infoStatusName":null,"dateDay":null,"orgNos":null,"nowTime":null,"countyName":null,"streetName":null,"villageName":null,"roadName":null,"communityName":null,"tranName":null,"sdLineName":null,"cityCode":"3340130","cityName":"国网浙江杭州市萧山区供电有限公司","provinceCode":null,"stopTime":"2019-11-12 18:15:13","powerType":"全部","powerOffArea":"110kV罗山变:陈园C841线-陈家园村5#变台区低压开关","powerOffReason":"（低压停电信息）低压漏电保护器短路故障","powerOffId":"2019111231020022"}],"pageModel":{"pageNow":877,"totalCount":17789,"totalPage":1779,"tableRows":0,"pageCount":10,"beginCount":8760},"isExperi":"1"}