{"message":"","today":"2020-06-15","seleList":[{"poweroffId":2019111231020014,"sgpoweroffId":null,"subsName":"","lineName":"10kV芝厦T190线","pubTranName":"大竹垅2号公变,","scope":"浙江省-杭州市-桐庐县-富春江镇-芝厦行政村(大竹垅自然村,芝厦自然村)","startTime":"2019-11-12 07:32:24","stopDate":"2019-11-12 17:00:00","orgNo":"3340150","typeCode":"电网故障停限电","poweroffArea":"110kV外董变:芝厦T190线-大竹垅2号公变后段","poweroffReason":"(低压停电信息)低压开关跳闸","powerTime":"2019-11-12 16:51:22","powerComm":"已送电","subsNo":"","lineNo":"","tgNo":"","tgName":null,"infoStatus":"1","orgName":"国网浙江桐庐县供电公司","typeName":null,"infoStatusName":null,"dateDay":null,"orgNos":null,"nowTime":null,"countyName":null,"streetName":null,"villageName":null,"roadName":null,"communityName":null,"tranName":null,"sdLineName":null,"cityCode":"3340150","cityName":"国网浙江桐庐县供电公司","provinceCode":null,"stopTime":"2019-11-12 17:00:00","powerType":"全部","powerOffArea":"110kV外董变:芝厦T190线-大竹垅2号公变后段","powerOffReason":"(低压停电信息)低压开关跳闸","powerOffId":"2019111231020014"},{"poweroffId":2019111231020004,"sgpoweroffId":null,"subsName":"","lineName":"10kV潘塘H435线","pubTranName":"箱变,必优特,","scope":"浙江省-杭州市-余杭区-良渚街道(杭州悦达金属材料有限公司,杭州良寓酒店管理有限公司)","startTime":"2019-11-12 06:05:00","stopDate":"2019-11-12 08:05:00","orgNo":"3340140","typeCode":"电网故障停限电","poweroffArea":"110kV勾庄变:潘塘H435线潘塘H435线必优特变开关后段","poweroffReason":"高压开关跳闸","powerTime":"2019-11-12 07:42:00","powerComm":"已送电","subsNo":"","lineNo":"","tgNo":"","tgName":null,"infoStatus":"1","orgName":"国网浙江杭州市余杭区供电有限公司","typeName":null,"infoStatusName":null,"dateDay":null,"orgNos":null,"nowTime":null,"countyName":null,"streetName":null,"villageName":null,"roadName":null,"communityName":null,"tranName":null,"sdLineName":null,"cityCode":"3340140","cityName":"国网浙江杭州市余杭区供电有限公司","provinceCode":null,"stopTime":"2019-11-12 08:05:00","powerType":"全部","powerOffArea":"110kV勾庄变:潘塘H435线潘塘H435线必优特变开关后段","powerOffReason":"高压开关跳闸","powerOffId":"2019111231020004"},{"poweroffId":2019111131020248,"sgpoweroffId":null,"subsName":"","lineName":"10kV庙坞D830线","pubTranName":"庙坞口2#潘家公变,庙坞口3号山里公变,","scope":"浙江省-杭州市-富阳区-新桐乡-新中行政村(庙坞口自然村,田坞里自然村)","startTime":"2019-11-11 17:21:48","stopDate":"2019-11-11 19:00:48","orgNo":"3340170","typeCode":"电网故障停限电","poweroffArea":"110kV新桐变:庙坞D830线-庙坞口3号山里公变后段;庙坞D830线-庙坞口2#潘家公变后段","poweroffReason":"高压开关跳闸 原停电结束时间为2019-11-11 19:21:48,为减少客户停电时间,加快工作进度,提前送电,现变更停电结束时间为2019-11-11 19:00:48","powerTime":"2019-11-11 18:06:55","powerComm":"已送电","subsNo":"","lineNo":"","tgNo":"","tgName":null,"infoStatus":"1","orgName":"国网浙江杭州市富阳区供电公司","typeName":null,"infoStatusName":null,"dateDay":null,"orgNos":null,"nowTime":null,"countyName":null,"streetName":null,"villageName":null,"roadName":null,"communityName":null,"tranName":null,"sdLineName":null,"cityCode":"3340170","cityName":"国网浙江杭州市富阳区供电公司","provinceCode":null,"stopTime":"2019-11-11 19:00:48","powerType":"全部","powerOffArea":"110kV新桐变:庙坞D830线-庙坞口3号山里公变后段;庙坞D830线-庙坞口2#潘家公变后段","powerOffReason":"高压开关跳闸 原停电结束时间为2019-11-11 19:21:48,为减少客户停电时间,加快工作进度,提前送电,现变更停电结束时间为2019-11-11 19:00:48","powerOffId":"2019111131020248"},{"poweroffId":2019111131020238,"sgpoweroffId":null,"subsName":"","lineName":"10kV站用T176线","pubTranName":"小源石塘1号公变,小源塔岭2号公变,小源塔岭3号公变,小源塔岭1号公变,","scope":"浙江省-杭州市-桐庐县-分水镇-保安行政村-保安自然村,分水镇-小源行政村(塔岭自然村,陈家自然村,塔联自然村)","startTime":"2019-11-11 17:03:00","stopDate":"2019-11-11 20:56:00","orgNo":"3340150","typeCode":"电网故障停限电","poweroffArea":"110kV分水变:站用T176线塔岭F4938令克后段","poweroffReason":"高压开关跳闸","powerTime":"2019-11-11 20:40:18","powerComm":"已送电","subsNo":"","lineNo":"","tgNo":"","tgName":null,"infoStatus":"1","orgName":"国网浙江桐庐县供电公司","typeName":null,"infoStatusName":null,"dateDay":null,"orgNos":null,"nowTime":null,"countyName":null,"streetName":null,"villageName":null,"roadName":null,"communityName":null,"tranName":null,"sdLineName":null,"cityCode":"3340150","cityName":"国网浙江桐庐县供电公司","provinceCode":null,"stopTime":"2019-11-11 20:56:00","powerType":"全部","powerOffArea":"110kV分水变:站用T176线塔岭F4938令克后段","powerOffReason":"高压开关跳闸","powerOffId":"2019111131020238"},{"poweroffId":2019111131020234,"sgpoweroffId":null,"subsName":"","lineName":"10kV航空Y447线","pubTranName":"杭州风姿物语纸业有限公司,","scope":"浙江省-杭州市-建德市-寿昌镇 横山社区 杭州风姿物语纸业有限公司。","startTime":"2019-11-20 07:30:00","stopDate":"2019-11-20 09:30:00","orgNo":"3340180","typeCode":"计划停电","poweroffArea":"110kV家蓬变:航空Y447线-风姿物语21112线断路器后段","poweroffReason":"航空小镇博览馆青少年科普中心新上专变工程","powerTime":"2019-11-20 09:04:00","powerComm":"已送电","subsNo":"","lineNo":"","tgNo":"","tgName":null,"infoStatus":"1","orgName":"国网浙江建德市供电有限公司","typeName":null,"infoStatusName":null,"dateDay":null,"orgNos":null,"nowTime":null,"countyName":null,"streetName":null,"villageName":null,"roadName":null,"communityName":null,"tranName":null,"sdLineName":null,"cityCode":"3340180","cityName":"国网浙江建德市供电有限公司","provinceCode":null,"stopTime":"2019-11-20 09:30:00","powerType":"全部","powerOffArea":"110kV家蓬变:航空Y447线-风姿物语21112线断路器后段","powerOffReason":"航空小镇博览馆青少年科普中心新上专变工程","powerOffId":"2019111131020234"},{"poweroffId":2019111131020232,"sgpoweroffId":null,"subsName":"","lineName":"10kV沙体Y201线","pubTranName":"建德市体育局1#,建德市体育局2#,1#变,","scope":"浙江省-杭州市-建德市-新安江街道 明珠社区建德市体育局、建德市新安城市照明管理有限公司，溪头社区建德市新安旅游投资有限公司。","startTime":"2019-11-19 07:30:00","stopDate":"2019-11-19 11:00:00","orgNo":"3340180","typeCode":"计划停电","poweroffArea":"110kV白沙变:沙体Y201线-体育06114线断路器后段","poweroffReason":"锦华环网单元体委06013线原电缆头拆除","powerTime":"2019-11-19 10:52:00","powerComm":"已送电","subsNo":"","lineNo":"","tgNo":"","tgName":null,"infoStatus":"1","orgName":"国网浙江建德市供电有限公司","typeName":null,"infoStatusName":null,"dateDay":null,"orgNos":null,"nowTime":null,"countyName":null,"streetName":null,"villageName":null,"roadName":null,"communityName":null,"tranName":null,"sdLineName":null,"cityCode":"3340180","cityName":"国网浙江建德市供电有限公司","provinceCode":null,"stopTime":"2019-11-19 11:00:00","powerType":"全部","powerOffArea":"110kV白沙变:沙体Y201线-体育06114线断路器后段","powerOffReason":"锦华环网单元体委06013线原电缆头拆除","powerOffId":"2019111131020232"},{"poweroffId":2019111131020226,"sgpoweroffId":null,"subsName":"","lineName":"10kV天万G011线","pubTranName":"钱塘13组（陈家塘）公变,","scope":"浙江省杭州市余杭区南苑街道：钱塘13组（陈家塘）一带","startTime":"2019-11-21 08:30:00","stopDate":"2019-11-21 17:30:00","orgNo":"3340140","typeCode":"计划停电","poweroffArea":"110kV外乔变:天万G011线-钱塘13组（陈家塘）公变","poweroffReason":"(低压停电信息)业扩工程（南苑街道办事处2019年南苑街道四好农村路建设项目强电杆线迁改工程）。原停电结束时间为2019-11-21 16:30:00,因现场情况复杂，无法按时完成相关工作原因,现变更停电结束时间为2019-11-21 17:30:00","powerTime":"2019-11-21 16:37:07","powerComm":"已送电","subsNo":"","lineNo":"","tgNo":"","tgName":null,"infoStatus":"1","orgName":"国网浙江杭州市余杭区供电有限公司","typeName":null,"infoStatusName":null,"dateDay":null,"orgNos":null,"nowTime":null,"countyName":null,"streetName":null,"villageName":null,"roadName":null,"communityName":null,"tranName":null,"sdLineName":null,"cityCode":"3340140","cityName":"国网浙江杭州市余杭区供电有限公司","provinceCode":null,"stopTime":"2019-11-21 17:30:00","powerType":"全部","powerOffArea":"110kV外乔变:天万G011线-钱塘13组（陈家塘）公变","powerOffReason":"(低压停电信息)业扩工程（南苑街道办事处2019年南苑街道四好农村路建设项目强电杆线迁改工程）。原停电结束时间为2019-11-21 16:30:00,因现场情况复杂，无法按时完成相关工作原因,现变更停电结束时间为2019-11-21 17:30:00","powerOffId":"2019111131020226"},{"poweroffId":2019111131020225,"sgpoweroffId":null,"subsName":"","lineName":"10kV天万G011线","pubTranName":"钱塘13组4号公变,","scope":"浙江省杭州市余杭区南苑街道:钱塘13组一带","startTime":"2019-11-19 08:30:00","stopDate":"2019-11-19 16:30:00","orgNo":"3340140","typeCode":"计划停电","poweroffArea":"110kV外乔变:天万G011线-钱塘13组4号公变","poweroffReason":"(低压停电信息)业扩工程（杭州市余杭区人民政府南苑街道办事处2019年南苑街道四好农村路建设项目强电杆线迁改工程）：电杆移位2基、新放4*120导线1档、调换BS-4*120导线4档","powerTime":"2019-11-19 15:33:02","powerComm":"已送电","subsNo":"","lineNo":"","tgNo":"","tgName":null,"infoStatus":"1","orgName":"国网浙江杭州市余杭区供电有限公司","typeName":null,"infoStatusName":null,"dateDay":null,"orgNos":null,"nowTime":null,"countyName":null,"streetName":null,"villageName":null,"roadName":null,"communityName":null,"tranName":null,"sdLineName":null,"cityCode":"3340140","cityName":"国网浙江杭州市余杭区供电有限公司","provinceCode":null,"stopTime":"2019-11-19 16:30:00","powerType":"全部","powerOffArea":"110kV外乔变:天万G011线-钱塘13组4号公变","powerOffReason":"(低压停电信息)业扩工程（杭州市余杭区人民政府南苑街道办事处2019年南苑街道四好农村路建设项目强电杆线迁改工程）：电杆移位2基、新放4*120导线1档、调换BS-4*120导线4档","powerOffId":"2019111131020225"},{"poweroffId":2019111131020208,"sgpoweroffId":null,"subsName":"","lineName":"10kV弄口8082线","pubTranName":"草村一局,","scope":"浙江省-杭州市-下城区-文晖街道-胜利社区-中国建筑一局(集团)有限公司浙江分公司","startTime":"2019-11-11 15:45:58","stopDate":"2019-11-11 19:45:58","orgNo":"3340101","typeCode":"电网故障停限电","poweroffArea":"110kV东站变:弄口8082线-草一分线后段","poweroffReason":"高压开关跳闸","powerTime":"2019-11-11 19:05:12","powerComm":"已送电","subsNo":"","lineNo":"","tgNo":"","tgName":null,"infoStatus":"1","orgName":"浙江杭州电力客户服务中心","typeName":null,"infoStatusName":null,"dateDay":null,"orgNos":null,"nowTime":null,"countyName":null,"streetName":null,"villageName":null,"roadName":null,"communityName":null,"tranName":null,"sdLineName":null,"cityCode":"3340101","cityName":"浙江杭州电力客户服务中心","provinceCode":null,"stopTime":"2019-11-11 19:45:58","powerType":"全部","powerOffArea":"110kV东站变:弄口8082线-草一分线后段","powerOffReason":"高压开关跳闸","powerOffId":"2019111131020208"},{"poweroffId":2019111131020180,"sgpoweroffId":null,"subsName":"","lineName":"10kV湾西A470线","pubTranName":"裕民村9#变,裕民村11#变,杭州盈中纺织有限公司,裕民村8#变,","scope":"浙江省-杭州市-萧山区-党湾镇-裕民行政村、裕民二路,裕民三路,裕民自然村,裕民四路、浙江省-杭州市-萧山区-党湾镇-裕民行政村-杭州盈中纺织有限公司、裕民村一带","startTime":"2019-11-11 14:15:26","stopDate":"2019-11-11 15:40:26","orgNo":"3340130","typeCode":"电网故障停限电","poweroffArea":"110kV幸福变:湾西A470线-湾西A470线盈中分线开关(自)后段","poweroffReason":"高压柱上断路器短路故障 原停电结束时间: 2019-11-11 17:30:26,变更停电结束时间: 2019-11-11 15:40:26。由于抢修工作提前完成,故需要提前送电。","powerTime":"2019-11-11 14:55:42","powerComm":"已送电","subsNo":"","lineNo":"","tgNo":"","tgName":null,"infoStatus":"1","orgName":"国网浙江杭州市萧山区供电有限公司","typeName":null,"infoStatusName":null,"dateDay":null,"orgNos":null,"nowTime":null,"countyName":null,"streetName":null,"villageName":null,"roadName":null,"communityName":null,"tranName":null,"sdLineName":null,"cityCode":"3340130","cityName":"国网浙江杭州市萧山区供电有限公司","provinceCode":null,"stopTime":"2019-11-11 15:40:26","powerType":"全部","powerOffArea":"110kV幸福变:湾西A470线-湾西A470线盈中分线开关(自)后段","powerOffReason":"高压柱上断路器短路故障 原停电结束时间: 2019-11-11 17:30:26,变更停电结束时间: 2019-11-11 15:40:26。由于抢修工作提前完成,故需要提前送电。","powerOffId":"2019111131020180"}],"pageModel":{"pageNow":878,"totalCount":17789,"totalPage":1779,"tableRows":0,"pageCount":10,"beginCount":8770},"isExperi":"1"}