{"message":"","today":"2020-06-15","seleList":[{"poweroffId":2019111131020162,"sgpoweroffId":null,"subsName":"","lineName":"10kV陆桥H788线","pubTranName":"万景村梧桐庙公变,","scope":"浙江省-杭州市-余杭区-闲林街道-万景行政村(后桥头自然村,万景自然村)","startTime":"2019-11-11 13:23:48","stopDate":"2019-11-11 16:23:48","orgNo":"3340140","typeCode":"电网故障停限电","poweroffArea":"110kV仓前变:陆桥H788线-万景村梧桐庙公变后段","poweroffReason":"高压开关跳闸","powerTime":"2019-11-11 16:20:00","powerComm":"已送电","subsNo":"","lineNo":"","tgNo":"","tgName":null,"infoStatus":"1","orgName":"国网浙江杭州市余杭区供电有限公司","typeName":null,"infoStatusName":null,"dateDay":null,"orgNos":null,"nowTime":null,"countyName":null,"streetName":null,"villageName":null,"roadName":null,"communityName":null,"tranName":null,"sdLineName":null,"cityCode":"3340140","cityName":"国网浙江杭州市余杭区供电有限公司","provinceCode":null,"stopTime":"2019-11-11 16:23:48","powerType":"全部","powerOffArea":"110kV仓前变:陆桥H788线-万景村梧桐庙公变后段","powerOffReason":"高压开关跳闸","powerOffId":"2019111131020162"},{"poweroffId":2019111131020158,"sgpoweroffId":null,"subsName":"","lineName":"10kV丽二C119线","pubTranName":"四季花城茶花园3#公变,","scope":"浙江省-杭州市-萧山区-新塘街道-四季花城社区-南秀路，四季花城茶花园，四季花城茶花苑一带","startTime":"2019-11-11 13:16:43","stopDate":"2019-11-11 14:16:43","orgNo":"3340130","typeCode":"电网故障停限电","poweroffArea":"110kV丽都变:丽二C119线-四季花城茶花园3#公变后段","poweroffReason":"低压开关跳闸","powerTime":"2019-11-11 14:12:41","powerComm":"已送电","subsNo":"","lineNo":"","tgNo":"","tgName":null,"infoStatus":"1","orgName":"国网浙江杭州市萧山区供电有限公司","typeName":null,"infoStatusName":null,"dateDay":null,"orgNos":null,"nowTime":null,"countyName":null,"streetName":null,"villageName":null,"roadName":null,"communityName":null,"tranName":null,"sdLineName":null,"cityCode":"3340130","cityName":"国网浙江杭州市萧山区供电有限公司","provinceCode":null,"stopTime":"2019-11-11 14:16:43","powerType":"全部","powerOffArea":"110kV丽都变:丽二C119线-四季花城茶花园3#公变后段","powerOffReason":"低压开关跳闸","powerOffId":"2019111131020158"},{"poweroffId":2019111131020153,"sgpoweroffId":null,"subsName":"","lineName":"10kV庆丰A459线","pubTranName":"杭州亿利钢铁有限公司2#,庆丰村11#变,2#,镇中村17#变,1#,4#,杭州萧山庆丰化纤有限公司,杭州鼎炉机械有限公司,庆丰村8#变,2#变,1#变,3#,庆丰村10#变,","scope":"浙江省-杭州市-萧山区-党湾镇-镇中行政村-镇中自然村,党湾镇-庆丰行政村、庆丰自然村,新农村、浙江省-杭州市-萧山区-党湾镇-卫东桥社区-浙江宝盛建设集团有限公司,党湾镇-庆丰行政村、杭州萧山庆丰化纤有限公司,杭州亿利钢铁有限公司,杭州鼎炉机械有限公司一带","startTime":"2019-11-11 12:50:16","stopDate":"2019-11-11 14:50:16","orgNo":"3340130","typeCode":"电网故障停限电","poweroffArea":"110kV幸福变:庆丰A459线-庆丰A459线庆丰分线开关后段","poweroffReason":"高压柱上断路器短路故障 原停电结束时间: 2019-11-11 16:55:16,变更停电结束时间: 2019-11-11 14:50:16。由于抢修工作提前完成,故需要提前送电。","powerTime":"2019-11-11 14:05:17","powerComm":"已送电","subsNo":"","lineNo":"","tgNo":"","tgName":null,"infoStatus":"1","orgName":"国网浙江杭州市萧山区供电有限公司","typeName":null,"infoStatusName":null,"dateDay":null,"orgNos":null,"nowTime":null,"countyName":null,"streetName":null,"villageName":null,"roadName":null,"communityName":null,"tranName":null,"sdLineName":null,"cityCode":"3340130","cityName":"国网浙江杭州市萧山区供电有限公司","provinceCode":null,"stopTime":"2019-11-11 14:50:16","powerType":"全部","powerOffArea":"110kV幸福变:庆丰A459线-庆丰A459线庆丰分线开关后段","powerOffReason":"高压柱上断路器短路故障 原停电结束时间: 2019-11-11 16:55:16,变更停电结束时间: 2019-11-11 14:50:16。由于抢修工作提前完成,故需要提前送电。","powerOffId":"2019111131020153"},{"poweroffId":2019111131020149,"sgpoweroffId":null,"subsName":"","lineName":"10kV红塔T108线","pubTranName":"外贸大楼1号公变,","scope":"浙江省-杭州市-桐庐县-桐君街道-圆通社区-富春路","startTime":"2019-11-11 12:48:53","stopDate":"2019-11-11 14:30:00","orgNo":"3340150","typeCode":"电网故障停限电","poweroffArea":"110kV桐庐变:红塔T108线-外贸大楼1号公变后段","poweroffReason":"(低压停电信息)低压开关跳闸","powerTime":"2019-11-11 14:20:17","powerComm":"已送电","subsNo":"","lineNo":"","tgNo":"","tgName":null,"infoStatus":"1","orgName":"国网浙江桐庐县供电公司","typeName":null,"infoStatusName":null,"dateDay":null,"orgNos":null,"nowTime":null,"countyName":null,"streetName":null,"villageName":null,"roadName":null,"communityName":null,"tranName":null,"sdLineName":null,"cityCode":"3340150","cityName":"国网浙江桐庐县供电公司","provinceCode":null,"stopTime":"2019-11-11 14:30:00","powerType":"全部","powerOffArea":"110kV桐庐变:红塔T108线-外贸大楼1号公变后段","powerOffReason":"(低压停电信息)低压开关跳闸","powerOffId":"2019111131020149"},{"poweroffId":2019111131020148,"sgpoweroffId":null,"subsName":"","lineName":"10kV芝厦T190线","pubTranName":"芝厦4号公变,","scope":"浙江省-杭州市-桐庐县-富春江镇-芝厦行政村-芝厦自然村","startTime":"2019-11-11 12:46:59","stopDate":"2019-11-11 16:00:00","orgNo":"3340150","typeCode":"电网故障停限电","poweroffArea":"110kV外董变:芝厦T190线-芝厦4号公变后段","poweroffReason":"(低压停电信息)低压开关跳闸","powerTime":"2019-11-11 15:50:15","powerComm":"已送电","subsNo":"","lineNo":"","tgNo":"","tgName":null,"infoStatus":"1","orgName":"国网浙江桐庐县供电公司","typeName":null,"infoStatusName":null,"dateDay":null,"orgNos":null,"nowTime":null,"countyName":null,"streetName":null,"villageName":null,"roadName":null,"communityName":null,"tranName":null,"sdLineName":null,"cityCode":"3340150","cityName":"国网浙江桐庐县供电公司","provinceCode":null,"stopTime":"2019-11-11 16:00:00","powerType":"全部","powerOffArea":"110kV外董变:芝厦T190线-芝厦4号公变后段","powerOffReason":"(低压停电信息)低压开关跳闸","powerOffId":"2019111131020148"},{"poweroffId":2019111131020119,"sgpoweroffId":null,"subsName":"","lineName":"10kV金鑫T114线","pubTranName":"金鑫小区1号公变,","scope":"浙江省-杭州市-桐庐县-桐君街道-金鑫社区(富春路486号,建设弄)","startTime":"2019-11-11 10:48:25","stopDate":"2019-11-11 12:48:25","orgNo":"3340150","typeCode":"电网故障停限电","poweroffArea":"110kV桐庐变:金鑫T114线-金鑫小区1号公变后段","poweroffReason":"(低压停电信息)低压开关跳闸","powerTime":"2019-11-11 12:30:30","powerComm":"已送电","subsNo":"","lineNo":"","tgNo":"","tgName":null,"infoStatus":"1","orgName":"国网浙江桐庐县供电公司","typeName":null,"infoStatusName":null,"dateDay":null,"orgNos":null,"nowTime":null,"countyName":null,"streetName":null,"villageName":null,"roadName":null,"communityName":null,"tranName":null,"sdLineName":null,"cityCode":"3340150","cityName":"国网浙江桐庐县供电公司","provinceCode":null,"stopTime":"2019-11-11 12:48:25","powerType":"全部","powerOffArea":"110kV桐庐变:金鑫T114线-金鑫小区1号公变后段","powerOffReason":"(低压停电信息)低压开关跳闸","powerOffId":"2019111131020119"},{"poweroffId":2019111131020110,"sgpoweroffId":null,"subsName":"","lineName":"10kV渔山D913线","pubTranName":"五一村3#操场公变,","scope":"浙江省-杭州市-富阳区-渔山乡-渔山行政村-五一自然村-篮球场一带","startTime":"2019-11-22 08:15:00","stopDate":"2019-11-22 13:15:00","orgNo":"3340170","typeCode":"计划停电","poweroffArea":"110kV里渔变:渔山D913线-五一村3号操场后段","poweroffReason":"(低压停电信息)江南2019年山建村5#新区公变等台区低压线路改造工程安装横担、拆装、新架导线、接户线搭接等工作","powerTime":"2019-11-22 13:00:20","powerComm":"已送电","subsNo":"","lineNo":"","tgNo":"","tgName":null,"infoStatus":"1","orgName":"国网浙江杭州市富阳区供电公司","typeName":null,"infoStatusName":null,"dateDay":null,"orgNos":null,"nowTime":null,"countyName":null,"streetName":null,"villageName":null,"roadName":null,"communityName":null,"tranName":null,"sdLineName":null,"cityCode":"3340170","cityName":"国网浙江杭州市富阳区供电公司","provinceCode":null,"stopTime":"2019-11-22 13:15:00","powerType":"全部","powerOffArea":"110kV里渔变:渔山D913线-五一村3号操场后段","powerOffReason":"(低压停电信息)江南2019年山建村5#新区公变等台区低压线路改造工程安装横担、拆装、新架导线、接户线搭接等工作","powerOffId":"2019111131020110"},{"poweroffId":2019111131020084,"sgpoweroffId":null,"subsName":"","lineName":"10kV二桥C551线","pubTranName":"盈二村2#变,","scope":"浙江省-杭州市-萧山区-宁围镇、宁围街道-盈二行政村-盈二自然村等一带","startTime":"2019-11-11 09:37:33","stopDate":"2019-11-11 14:37:33","orgNo":"3340130","typeCode":"电网故障停限电","poweroffArea":"35kV钱江变:二桥C551线-盈二村2#变台区低压开关","poweroffReason":"（低压停电信息）低压漏电保护器短路故障","powerTime":"2019-11-11 14:08:15","powerComm":"已送电","subsNo":"","lineNo":"","tgNo":"","tgName":null,"infoStatus":"1","orgName":"国网浙江杭州市萧山区供电有限公司","typeName":null,"infoStatusName":null,"dateDay":null,"orgNos":null,"nowTime":null,"countyName":null,"streetName":null,"villageName":null,"roadName":null,"communityName":null,"tranName":null,"sdLineName":null,"cityCode":"3340130","cityName":"国网浙江杭州市萧山区供电有限公司","provinceCode":null,"stopTime":"2019-11-11 14:37:33","powerType":"全部","powerOffArea":"35kV钱江变:二桥C551线-盈二村2#变台区低压开关","powerOffReason":"（低压停电信息）低压漏电保护器短路故障","powerOffId":"2019111131020084"},{"poweroffId":2019111131020078,"sgpoweroffId":null,"subsName":"","lineName":"10kV莲塘H301线","pubTranName":"连具塘村徐家桥公变,","scope":"浙江省-杭州市-余杭区-仓前街道-连具塘行政村(徐家桥自然村,大木桥自然村,连具塘自然村)","startTime":"2019-11-11 09:25:40","stopDate":"2019-11-11 11:25:40","orgNo":"3340140","typeCode":"电网故障停限电","poweroffArea":"110kV柏庙变:莲塘H301线-连具塘村徐家桥公变后段","poweroffReason":"高压开关跳闸","powerTime":"2019-11-11 11:12:00","powerComm":"已送电","subsNo":"","lineNo":"","tgNo":"","tgName":null,"infoStatus":"1","orgName":"国网浙江杭州市余杭区供电有限公司","typeName":null,"infoStatusName":null,"dateDay":null,"orgNos":null,"nowTime":null,"countyName":null,"streetName":null,"villageName":null,"roadName":null,"communityName":null,"tranName":null,"sdLineName":null,"cityCode":"3340140","cityName":"国网浙江杭州市余杭区供电有限公司","provinceCode":null,"stopTime":"2019-11-11 11:25:40","powerType":"全部","powerOffArea":"110kV柏庙变:莲塘H301线-连具塘村徐家桥公变后段","powerOffReason":"高压开关跳闸","powerOffId":"2019111131020078"},{"poweroffId":2019111131020065,"sgpoweroffId":null,"subsName":"","lineName":"10kV新建D262线","pubTranName":"勤功村2号岭脚跟公变,","scope":"浙江省-杭州市-富阳区-大源镇(亭山行政村-东升自然村,勤功行政村-勤功自然村)","startTime":"2019-11-11 09:16:36","stopDate":"2019-11-11 10:16:36","orgNo":"3340170","typeCode":"电网故障停限电","poweroffArea":"35kV盛村变:新建D262线-勤功村2号岭脚跟公变后段","poweroffReason":"(低压停电信息)低压开关跳闸","powerTime":"2019-11-11 09:27:48","powerComm":"已送电","subsNo":"","lineNo":"","tgNo":"","tgName":null,"infoStatus":"1","orgName":"国网浙江杭州市富阳区供电公司","typeName":null,"infoStatusName":null,"dateDay":null,"orgNos":null,"nowTime":null,"countyName":null,"streetName":null,"villageName":null,"roadName":null,"communityName":null,"tranName":null,"sdLineName":null,"cityCode":"3340170","cityName":"国网浙江杭州市富阳区供电公司","provinceCode":null,"stopTime":"2019-11-11 10:16:36","powerType":"全部","powerOffArea":"35kV盛村变:新建D262线-勤功村2号岭脚跟公变后段","powerOffReason":"(低压停电信息)低压开关跳闸","powerOffId":"2019111131020065"}],"pageModel":{"pageNow":879,"totalCount":17789,"totalPage":1779,"tableRows":0,"pageCount":10,"beginCount":8780},"isExperi":"1"}