{"message":"","today":"2020-06-15","seleList":[{"poweroffId":2020052831020336,"sgpoweroffId":null,"subsName":"","lineName":"10kV大店Y171线","pubTranName":"航头村关公塘台区,建德市晶彩玻璃工艺品厂250KVA,建德市建伟矿业有限公司专变1#,建德市倚天农业发展有限公司,建德市建伟矿业有限公司专变2#,航头村窄岭坞台区,","scope":"浙江省-杭州市-建德市-航头镇-航头行政村(白眉山脚自然村,航新自然村,航头自然村);航头镇(建德市养耕堂农业旅游开发有限公司,建德市晶彩玻璃工艺品厂,建德市建伟矿业有限公司)","startTime":"2020-05-28 16:29:00","stopDate":"2020-05-28 18:29:00","orgNo":"3340180","typeCode":"电网故障停限电","poweroffArea":"110kV航头变:大店Y171线晨星建材支线0#杆开关后段","poweroffReason":"高压开关跳闸","powerTime":"2020-05-28 17:55:18","powerComm":"已送电","subsNo":"","lineNo":"","tgNo":"","tgName":null,"infoStatus":"1","orgName":"国网浙江建德市供电有限公司","typeName":null,"infoStatusName":null,"dateDay":null,"orgNos":null,"nowTime":null,"countyName":null,"streetName":null,"villageName":null,"roadName":null,"communityName":null,"tranName":null,"sdLineName":null,"cityCode":"3340180","cityName":"国网浙江建德市供电有限公司","provinceCode":null,"stopTime":"2020-05-28 18:29:00","powerType":"全部","powerOffArea":"110kV航头变:大店Y171线晨星建材支线0#杆开关后段","powerOffReason":"高压开关跳闸","powerOffId":"2020052831020336"},{"poweroffId":2020052831020239,"sgpoweroffId":null,"subsName":"","lineName":"10kV永富C980线","pubTranName":"永富村19#变,","scope":"浙江省-杭州市-萧山区-戴村镇-永富行政村(积堰山自然村,建民自然村)等","startTime":"2020-05-28 15:00:26","stopDate":"2020-05-28 16:33:26","orgNo":"3340130","typeCode":"电网故障停限电","poweroffArea":"110kV永兴变:永富C980线-永富村19#变台区低压开关","poweroffReason":"（低压停电信息）低压漏电保护器跳闸","powerTime":"2020-05-28 15:42:58","powerComm":"已送电","subsNo":"","lineNo":"","tgNo":"","tgName":null,"infoStatus":"1","orgName":"国网浙江杭州市萧山区供电有限公司","typeName":null,"infoStatusName":null,"dateDay":null,"orgNos":null,"nowTime":null,"countyName":null,"streetName":null,"villageName":null,"roadName":null,"communityName":null,"tranName":null,"sdLineName":null,"cityCode":"3340130","cityName":"国网浙江杭州市萧山区供电有限公司","provinceCode":null,"stopTime":"2020-05-28 16:33:26","powerType":"全部","powerOffArea":"110kV永兴变:永富C980线-永富村19#变台区低压开关","powerOffReason":"（低压停电信息）低压漏电保护器跳闸","powerOffId":"2020052831020239"},{"poweroffId":2020052831020238,"sgpoweroffId":null,"subsName":"","lineName":"10kV秋月D552线","pubTranName":"望月弄1#公变,","scope":"浙江省-杭州市-富阳区-富春街道-秋月社区(孙权路,秋月路,望月弄,苋浦西路)","startTime":"2020-05-28 15:00:47","stopDate":"2020-05-28 16:00:47","orgNo":"3340170","typeCode":"电网故障停限电","poweroffArea":"110kV春江变:秋月D552线-望月弄1#公变后段","poweroffReason":"(低压停电信息)低压开关跳闸","powerTime":"2020-05-28 15:20:11","powerComm":"已送电","subsNo":"","lineNo":"","tgNo":"","tgName":null,"infoStatus":"1","orgName":"国网浙江杭州市富阳区供电公司","typeName":null,"infoStatusName":null,"dateDay":null,"orgNos":null,"nowTime":null,"countyName":null,"streetName":null,"villageName":null,"roadName":null,"communityName":null,"tranName":null,"sdLineName":null,"cityCode":"3340170","cityName":"国网浙江杭州市富阳区供电公司","provinceCode":null,"stopTime":"2020-05-28 16:00:47","powerType":"全部","powerOffArea":"110kV春江变:秋月D552线-望月弄1#公变后段","powerOffReason":"(低压停电信息)低压开关跳闸","powerOffId":"2020052831020238"},{"poweroffId":2020052831020226,"sgpoweroffId":null,"subsName":"","lineName":"10kV梅灵6307线","pubTranName":"西九变,污水专变,西湖花园,","scope":"浙江省-杭州市-西湖区-转塘街道-五云梦湖社区(之江路,五云中路);浙江省-杭州市-西湖区-转塘街道-珊瑚沙社区-杭州市排水有限公司","startTime":"2020-05-28 14:45:51","stopDate":"2020-05-29 08:45:51","orgNo":"3340101","typeCode":"电网故障停限电","poweroffArea":"110kV转塘变:梅灵6307线-污水一线后段","poweroffReason":"高压开关跳闸 原停电结束时间为2020-05-28 17:45:51,因现场情况较为复杂原因,延迟送电,现变更停电结束时间为2020-05-29 08:45:51","powerTime":"2020-05-29 07:50:22","powerComm":"已送电","subsNo":"","lineNo":"","tgNo":"","tgName":null,"infoStatus":"1","orgName":"浙江杭州电力客户服务中心","typeName":null,"infoStatusName":null,"dateDay":null,"orgNos":null,"nowTime":null,"countyName":null,"streetName":null,"villageName":null,"roadName":null,"communityName":null,"tranName":null,"sdLineName":null,"cityCode":"3340101","cityName":"浙江杭州电力客户服务中心","provinceCode":null,"stopTime":"2020-05-29 08:45:51","powerType":"全部","powerOffArea":"110kV转塘变:梅灵6307线-污水一线后段","powerOffReason":"高压开关跳闸 原停电结束时间为2020-05-28 17:45:51,因现场情况较为复杂原因,延迟送电,现变更停电结束时间为2020-05-29 08:45:51","powerOffId":"2020052831020226"},{"poweroffId":2020052831020214,"sgpoweroffId":null,"subsName":"","lineName":"10kV万泉D738线","pubTranName":"昌东村众甫6#顺坞里公变,","scope":"浙江省-杭州市-富阳区-新登镇-昌东行政村-众甫自然村一带","startTime":"2020-05-30 12:00:00","stopDate":"2020-05-30 17:00:00","orgNo":"3340170","typeCode":"临时停电","poweroffArea":"110kV松溪变:万泉D738线-昌东村众甫6#顺坞里公变后段","poweroffReason":"计量箱更换等工作","powerTime":"2020-05-30 16:39:50","powerComm":"已送电","subsNo":"","lineNo":"","tgNo":"","tgName":null,"infoStatus":"1","orgName":"国网浙江杭州市富阳区供电公司","typeName":null,"infoStatusName":null,"dateDay":null,"orgNos":null,"nowTime":null,"countyName":null,"streetName":null,"villageName":null,"roadName":null,"communityName":null,"tranName":null,"sdLineName":null,"cityCode":"3340170","cityName":"国网浙江杭州市富阳区供电公司","provinceCode":null,"stopTime":"2020-05-30 17:00:00","powerType":"全部","powerOffArea":"110kV松溪变:万泉D738线-昌东村众甫6#顺坞里公变后段","powerOffReason":"计量箱更换等工作","powerOffId":"2020052831020214"},{"poweroffId":2020052831020205,"sgpoweroffId":null,"subsName":"","lineName":"10kV御街843线","pubTranName":"西电,1#变压器,","scope":"浙江省-杭州市-上城区-湖滨街道西湖电子集团有限公司，浙江省杭州市上城区中国工商银行股份有限公司浙江省分行营业部双路单侧","startTime":"2020-06-01 09:30:00","stopDate":"2020-06-01 14:00:00","orgNo":"3340101","typeCode":"临时停电","poweroffArea":"110kV涌金变:御街843线-财税二线后段","poweroffReason":"求是6723线（黄体变-1191开关）10kV电力迁改一期工程。原停电结束时间为2020-06-01 17:00:00,为减少客户停电时间,加快工作进度,提前送电,现变更停电结束时间为2020-06-01 14:00:00","powerTime":"2020-06-01 13:25:59","powerComm":"已送电","subsNo":"","lineNo":"","tgNo":"","tgName":null,"infoStatus":"1","orgName":"浙江杭州电力客户服务中心","typeName":null,"infoStatusName":null,"dateDay":null,"orgNos":null,"nowTime":null,"countyName":null,"streetName":null,"villageName":null,"roadName":null,"communityName":null,"tranName":null,"sdLineName":null,"cityCode":"3340101","cityName":"浙江杭州电力客户服务中心","provinceCode":null,"stopTime":"2020-06-01 14:00:00","powerType":"全部","powerOffArea":"110kV涌金变:御街843线-财税二线后段","powerOffReason":"求是6723线（黄体变-1191开关）10kV电力迁改一期工程。原停电结束时间为2020-06-01 17:00:00,为减少客户停电时间,加快工作进度,提前送电,现变更停电结束时间为2020-06-01 14:00:00","powerOffId":"2020052831020205"},{"poweroffId":2020052831020204,"sgpoweroffId":null,"subsName":"","lineName":"10kV严家A877线","pubTranName":"广宁小区2#公变,","scope":"浙江省-杭州市-萧山区-蜀山街道-广宁社区-蜀山路","startTime":"2020-05-28 14:03:00","stopDate":"2020-05-28 16:03:00","orgNo":"3340130","typeCode":"电网故障停限电","poweroffArea":"110kV姚江变:严家A877线广宁小区2#公变配变","poweroffReason":"高压开关跳闸","powerTime":"2020-05-28 15:07:16","powerComm":"已送电","subsNo":"","lineNo":"","tgNo":"","tgName":null,"infoStatus":"1","orgName":"国网浙江杭州市萧山区供电有限公司","typeName":null,"infoStatusName":null,"dateDay":null,"orgNos":null,"nowTime":null,"countyName":null,"streetName":null,"villageName":null,"roadName":null,"communityName":null,"tranName":null,"sdLineName":null,"cityCode":"3340130","cityName":"国网浙江杭州市萧山区供电有限公司","provinceCode":null,"stopTime":"2020-05-28 16:03:00","powerType":"全部","powerOffArea":"110kV姚江变:严家A877线广宁小区2#公变配变","powerOffReason":"高压开关跳闸","powerOffId":"2020052831020204"},{"poweroffId":2020052831020201,"sgpoweroffId":null,"subsName":"","lineName":"10kV下包Y768线","pubTranName":"邵家村桩头畈台区,幸福村乌丰坞台区,邵家村陈家畈台区,邵家村胥岭台区,建德市罗村水力发电站,罗村村大横坞台区,罗村村周家坞口台区,下包村上章台区,建德市罗村水库林场,邵家村邵家台区,幸福村罗村台区,幸福村高峰台区,罗村三级电站,云上旅店1#专变,下包村章家台区,罗村村大珠台区,邵家村胥岭脚台区,罗村村浪源台区,罗村村沃坞口台区,邵家村杨田山台区,罗村村汪活源台区,罗村村天井源台区,罗村村枫坞口脚台区,罗村村外蓬台区,邵家村银珠畈台区,罗村村关山脚台区,罗村村郎财坞台区,邵家村下吴台区,罗村村田包台区,1#变,罗村村狮峰台区,罗村村枫坞口台区,幸福村瑞坑台区,","scope":"浙江省-杭州市-建德市-乾潭镇-幸福行政村(罗村自然村,高峰自然村,瑞坑自然村),乾潭镇-罗村行政村(关山脚自然村,郎财坞自然村,田包自然村,枫坞口自然村,沃坞口自然村,大横坞自然村,天井源自然村,外蓬自然村,汪活源自然村,大珠自然村,浪源自然村,狮峰自然村,枫坞口脚自然村,周家坞口自然村),乾潭镇-邵家行政村(下吴自然村,胥岭自然村,桩头畈自然村,邵家自然村,杨田山自然村,陈家畈自然村),(桐庐县-钟山乡-歌舞行政村-歌舞自然村,建德市-乾潭镇-下包村行政村-章家自然村);乾潭镇(建德市罗村水库林场,建德云上旅店有限公司,罗村三级电站,建德市罗村水力发电有限公司)","startTime":"2020-05-28 13:55:00","stopDate":"2020-05-28 16:00:00","orgNo":"3340180","typeCode":"电网故障停限电","poweroffArea":"110kV乾潭变:下包Y768线下包Y7683开关后段","poweroffReason":"高压开关跳闸","powerTime":"2020-05-28 15:20:00","powerComm":"已送电","subsNo":"","lineNo":"","tgNo":"","tgName":null,"infoStatus":"1","orgName":"国网浙江建德市供电有限公司","typeName":null,"infoStatusName":null,"dateDay":null,"orgNos":null,"nowTime":null,"countyName":null,"streetName":null,"villageName":null,"roadName":null,"communityName":null,"tranName":null,"sdLineName":null,"cityCode":"3340180","cityName":"国网浙江建德市供电有限公司","provinceCode":null,"stopTime":"2020-05-28 16:00:00","powerType":"全部","powerOffArea":"110kV乾潭变:下包Y768线下包Y7683开关后段","powerOffReason":"高压开关跳闸","powerOffId":"2020052831020201"},{"poweroffId":2020052831020194,"sgpoweroffId":null,"subsName":"","lineName":"10kV界业H380线","pubTranName":"杜甫村顺船头3号公变,","scope":"浙江省-杭州市-余杭区-良渚街道(杜甫行政村-杜甫自然村,良渚文化村社区-东西大道)","startTime":"2020-05-28 13:50:22","stopDate":"2020-05-28 15:50:22","orgNo":"3340140","typeCode":"电网故障停限电","poweroffArea":"110kV学里变:界业H380线-杜甫村顺船头3号公变后段","poweroffReason":"高压开关跳闸","powerTime":"2020-05-28 15:30:40","powerComm":"已送电","subsNo":"","lineNo":"","tgNo":"","tgName":null,"infoStatus":"1","orgName":"国网浙江杭州市余杭区供电有限公司","typeName":null,"infoStatusName":null,"dateDay":null,"orgNos":null,"nowTime":null,"countyName":null,"streetName":null,"villageName":null,"roadName":null,"communityName":null,"tranName":null,"sdLineName":null,"cityCode":"3340140","cityName":"国网浙江杭州市余杭区供电有限公司","provinceCode":null,"stopTime":"2020-05-28 15:50:22","powerType":"全部","powerOffArea":"110kV学里变:界业H380线-杜甫村顺船头3号公变后段","powerOffReason":"高压开关跳闸","powerOffId":"2020052831020194"},{"poweroffId":2020052831020176,"sgpoweroffId":null,"subsName":"","lineName":"10kV邱东H761线","pubTranName":"1#变压器,","scope":"浙江省-杭州市-余杭区-五常街道-文一社区-杭州市市政工程集团有限公司","startTime":"2020-05-28 13:04:04","stopDate":"2020-05-28 14:30:04","orgNo":"3340140","typeCode":"电网故障停限电","poweroffArea":"110kV五常变:邱东H761线-车辆段4分线开关后段","poweroffReason":"高压开关跳闸","powerTime":"2020-05-28 14:08:50","powerComm":"已送电","subsNo":"","lineNo":"","tgNo":"","tgName":null,"infoStatus":"1","orgName":"国网浙江杭州市余杭区供电有限公司","typeName":null,"infoStatusName":null,"dateDay":null,"orgNos":null,"nowTime":null,"countyName":null,"streetName":null,"villageName":null,"roadName":null,"communityName":null,"tranName":null,"sdLineName":null,"cityCode":"3340140","cityName":"国网浙江杭州市余杭区供电有限公司","provinceCode":null,"stopTime":"2020-05-28 14:30:04","powerType":"全部","powerOffArea":"110kV五常变:邱东H761线-车辆段4分线开关后段","powerOffReason":"高压开关跳闸","powerOffId":"2020052831020176"}],"pageModel":{"pageNow":88,"totalCount":17786,"totalPage":1779,"tableRows":0,"pageCount":10,"beginCount":870},"isExperi":"1"}