{"message":"","today":"2020-06-15","seleList":[{"poweroffId":2020061331020148,"sgpoweroffId":null,"subsName":"","lineName":"10kV永胜H790线","pubTranName":"仓溢绿苑25#公变,","scope":"浙江省-杭州市-余杭区-仓前街道-朱庙行政村-绿汀路","startTime":"2020-06-13 13:17:00","stopDate":"2020-06-13 15:17:00","orgNo":"3340140","typeCode":"电网故障停限电","poweroffArea":"110kV仓前变:永胜H790线仓溢绿苑25B配变","poweroffReason":"高压开关跳闸","powerTime":"2020-06-13 14:38:23","powerComm":"已送电","subsNo":"","lineNo":"","tgNo":"","tgName":null,"infoStatus":"1","orgName":"国网浙江杭州市余杭区供电有限公司","typeName":null,"infoStatusName":null,"dateDay":null,"orgNos":null,"nowTime":null,"countyName":null,"streetName":null,"villageName":null,"roadName":null,"communityName":null,"tranName":null,"sdLineName":null,"cityCode":"3340140","cityName":"国网浙江杭州市余杭区供电有限公司","provinceCode":null,"stopTime":"2020-06-13 15:17:00","powerType":"全部","powerOffArea":"110kV仓前变:永胜H790线仓溢绿苑25B配变","powerOffReason":"高压开关跳闸","powerOffId":"2020061331020148"},{"poweroffId":2020061331020121,"sgpoweroffId":null,"subsName":"","lineName":"10kV云石C954线","pubTranName":"青山村4#变,球冠实业(渡假山庄),杭州萧山春潇农业开发有限公司,戴村镇人民政府,顾家溪5#变,青山村7#变,青山村1#变,杭州佳锦织造厂,青山村5#变,方溪村7#变,电信萧山公司（云石）,骆家舍3#变,杭州鼎绣工艺品有限公司,顾家溪2#变,青山村3#变,柯佳伞件厂,顾家溪4#变,辉煌卫生用品2#,姜宇热缩,顾家溪3#变,沈村4#变,方溪村6#变,骆家舍5#变,浙伟实业,沈村3#变,沈村6#变,方溪村4#变,骆家舍2#变,方溪村5#变,青山村6#变,尖山下5#变,方溪村8#变,沈村1#变,枫桥村4#变,方溪村9#变,浙江九龙厨具集团有限公司,枫桥村3#变,萧山区戴村镇云石中心小学,家家实业,方溪村2#变,尖山下2#变,尖山下6#变,骆家舍4#变,枫桥村2#变,方溪村1#变,方溪村10#变,尖山下3#变,方溪村3#变,枫桥村5#变,尖山下4#变,杭州亿达五金有限公司,辉煌卫生用品1#,青山村14#变,顾家溪1#变,枫桥村1#变,青山村13#变,尖山下1#变,杭州萧山云峰涂料厂,沈村7#变,特种建材,青山村2#变,强达塑胶,骆家舍6#变,","scope":"浙江省-杭州市-萧山区-戴村镇-沈村行政村-沈村自然村,戴村镇-顾家溪行政村(平山自然村,勤工自然村),戴村镇-骆家舍行政村(骆村自然村,船山自然村,下骆家舍自然村,上骆家舍自然村),戴村镇-尖山下行政村(尖山下自然村,洪潭桥自然村,长爿田自然村,上门自然村),戴村镇-方溪行政村(顶山自然村,增丰自然村,征山自然村),戴村镇-枫桥行政村(响石桥自然村,枫树自然村),戴村镇-青山行政村(明堂自然村,狮山自然村,南坞自然村,石牛山自然村);浙江省-杭州市-萧山区-戴村镇-顾家溪行政村-杭州亿达五金有限公司,戴村镇-尖山下行政村(杭州浙伟实业有限公司,杭州萧山姜字热缩制品厂,杭州辉煌卫生用品有限公司),戴村镇-方溪行政村(杭州萧山戴村镇柯佳伞件厂,杭州佳锦织造厂),戴村镇-枫桥行政村(杭州萧山云峰涂料厂,中国电信股份有限公司杭州萧山区分公司),戴村镇-青山行政村(浙江华东轻钢建材有限公司,杭州强达塑胶五金厂,萧山区戴村镇云石中心小学,杭州鼎绣工艺品有限公司,杭州云石生态休闲旅游开发有限公司,浙江九龙厨具集团有限公司),戴村镇-沈村行政村(杭州家家实业有限公司,杭州银泰农旅投资发展有限公司,杭州市萧山区戴村镇人民政府)等","startTime":"2020-06-13 11:14:07","stopDate":"2020-06-13 12:10:07","orgNo":"3340130","typeCode":"电网故障停限电","poweroffArea":"110kV永兴变:云石C954线开关后段","poweroffReason":"高压柱上断路器跳闸 原停电结束时间为2020-06-13 13:14:07,为减少客户停电时间,加快工作进度,提前送电,现变更停电结束时间为2020-06-13 12:10:07","powerTime":"2020-06-13 11:31:31","powerComm":"已送电","subsNo":"","lineNo":"","tgNo":"","tgName":null,"infoStatus":"1","orgName":"国网浙江杭州市萧山区供电有限公司","typeName":null,"infoStatusName":null,"dateDay":null,"orgNos":null,"nowTime":null,"countyName":null,"streetName":null,"villageName":null,"roadName":null,"communityName":null,"tranName":null,"sdLineName":null,"cityCode":"3340130","cityName":"国网浙江杭州市萧山区供电有限公司","provinceCode":null,"stopTime":"2020-06-13 12:10:07","powerType":"全部","powerOffArea":"110kV永兴变:云石C954线开关后段","powerOffReason":"高压柱上断路器跳闸 原停电结束时间为2020-06-13 13:14:07,为减少客户停电时间,加快工作进度,提前送电,现变更停电结束时间为2020-06-13 12:10:07","powerOffId":"2020061331020121"},{"poweroffId":2020061331020113,"sgpoweroffId":null,"subsName":"","lineName":"10kV周袁6594线","pubTranName":"焊接,农业,喜来宝,浦东,五间,","scope":"浙江省-杭州市-西湖区-双浦镇-小叔房行政村(小叔房村道,小叔房);双浦镇(,杭州市国土资源局西湖分局第三管理所,杭州西湖焊接设备有限公司)","startTime":"2020-06-13 10:45:00","stopDate":"2020-06-13 12:45:00","orgNo":"3340101","typeCode":"电网故障停限电","poweroffArea":"110kV周浦变:周袁6594线1055后段","poweroffReason":"高压开关跳闸 原停电结束时间为2020-06-13 13:45:00,为减少客户停电时间,加快工作进度,提前送电,现变更停电结束时间为2020-06-13 12:45:00","powerTime":"2020-06-13 12:08:04","powerComm":"已送电","subsNo":"","lineNo":"","tgNo":"","tgName":null,"infoStatus":"1","orgName":"浙江杭州电力客户服务中心","typeName":null,"infoStatusName":null,"dateDay":null,"orgNos":null,"nowTime":null,"countyName":null,"streetName":null,"villageName":null,"roadName":null,"communityName":null,"tranName":null,"sdLineName":null,"cityCode":"3340101","cityName":"浙江杭州电力客户服务中心","provinceCode":null,"stopTime":"2020-06-13 12:45:00","powerType":"全部","powerOffArea":"110kV周浦变:周袁6594线1055后段","powerOffReason":"高压开关跳闸 原停电结束时间为2020-06-13 13:45:00,为减少客户停电时间,加快工作进度,提前送电,现变更停电结束时间为2020-06-13 12:45:00","powerOffId":"2020061331020113"},{"poweroffId":2020061331020112,"sgpoweroffId":null,"subsName":"","lineName":"10kV周袁6594线","pubTranName":"五间,浦东二,珏虎,浦中三,浦东,宏达制钉,敬老院,小叔房农,袁家浦农四,袁家浦农五,","scope":"浙江省-杭州市-西湖区-双浦镇-小叔房行政村(小叔房村道,小叔房),双浦镇-袁家浦社区(袁浦街,袁家浦);浙江省-杭州市-西湖区-双浦镇-袁家浦社区-杭州雄魁塑胶科技有限公司,双浦镇-小叔房行政村(杭州市西湖区双浦镇袁浦农村五保供养服务中心,杭州钰虎机电设备有限公司)","startTime":"2020-06-13 10:44:00","stopDate":"2020-06-13 12:44:00","orgNo":"3340101","typeCode":"电网故障停限电","poweroffArea":"110kV周浦变:周袁6594线1080后段","poweroffReason":"高压开关跳闸 原停电结束时间为2020-06-13 13:44:00,为减少客户停电时间,加快工作进度,提前送电,现变更停电结束时间为2020-06-13 12:44:00","powerTime":"2020-06-13 12:08:17","powerComm":"已送电","subsNo":"","lineNo":"","tgNo":"","tgName":null,"infoStatus":"1","orgName":"浙江杭州电力客户服务中心","typeName":null,"infoStatusName":null,"dateDay":null,"orgNos":null,"nowTime":null,"countyName":null,"streetName":null,"villageName":null,"roadName":null,"communityName":null,"tranName":null,"sdLineName":null,"cityCode":"3340101","cityName":"浙江杭州电力客户服务中心","provinceCode":null,"stopTime":"2020-06-13 12:44:00","powerType":"全部","powerOffArea":"110kV周浦变:周袁6594线1080后段","powerOffReason":"高压开关跳闸 原停电结束时间为2020-06-13 13:44:00,为减少客户停电时间,加快工作进度,提前送电,现变更停电结束时间为2020-06-13 12:44:00","powerOffId":"2020061331020112"},{"poweroffId":2020061331020093,"sgpoweroffId":null,"subsName":"","lineName":"10kV祥和T209线","pubTranName":"汇锦公馆1号公变,","scope":"浙江省-杭州市-桐庐县-横村镇-城东行政村-市场路-汇锦公馆小区","startTime":"2020-06-13 10:11:04","stopDate":"2020-06-13 11:30:04","orgNo":"3340150","typeCode":"电网故障停限电","poweroffArea":"110kV方埠变:祥和T209线-汇锦公馆1号公变后段","poweroffReason":"(低压停电信息)低压开关跳闸","powerTime":"2020-06-13 11:10:15","powerComm":"已送电","subsNo":"","lineNo":"","tgNo":"","tgName":null,"infoStatus":"1","orgName":"国网浙江桐庐县供电公司","typeName":null,"infoStatusName":null,"dateDay":null,"orgNos":null,"nowTime":null,"countyName":null,"streetName":null,"villageName":null,"roadName":null,"communityName":null,"tranName":null,"sdLineName":null,"cityCode":"3340150","cityName":"国网浙江桐庐县供电公司","provinceCode":null,"stopTime":"2020-06-13 11:30:04","powerType":"全部","powerOffArea":"110kV方埠变:祥和T209线-汇锦公馆1号公变后段","powerOffReason":"(低压停电信息)低压开关跳闸","powerOffId":"2020061331020093"},{"poweroffId":2020061331020091,"sgpoweroffId":null,"subsName":"","lineName":"10kV马谷C956线","pubTranName":"青山村10#变,青山村12#变,杭州杭湖建筑石材有限公司2#,虹路包装,青山村11#变,半山村11#变,沈村11#变,青山村9#变,杭州业新钢结构有限公司,半山村8#变,半山村9#变,沈村5#变,半山村2#变,半山村4#变,杭州萧山锦琪热缩塑料厂,杭州杭湖建筑石材有限公司,星云丝织工贸有限公司,杭州萧山德亿达粉末冶金厂,浙江凯普顿厨房设备有限公司,杭州聚旺新能源科技有限公司,杭州三辉热处理有限公司1#,杭州欧浪实业有限公司,半山村12#变,杭州杭湖建筑石材有限公司1#,杭州三辉热处理有限公司2#,沈村9#变,杭州维博机械有限公司,沈村8#变,半山村1#变,半山村6#变,半山村3#变,半山村7#变,杭州永先热处理有限公司,半山村10#变,青山村16#变,沈村10#变,杭州业新钢结构有限公司,杭州桑田汽车配件有限公司,杭州宏士机械有限公司,","scope":"浙江省-杭州市-萧山区-戴村镇-半山行政村(东厢头自然村,凌山自然村,丁村自然村,李家坞自然村,夏家溪自然村,杨树下自然村,后宅自然村),戴村镇-青山行政村(石牛山自然村,明堂自然村),戴村镇-沈村行政村(沈村自然村,汪家山下自然村);戴村镇(杭州聚旺新能源科技有限公司,杭州永先热处理有限公司,杭州欧浪实业有限公司,杭州业新钢结构有限公司,杭州桑田汽车配件有限公司,杭州杭湖建筑石材有限公司,杭州宏士机械有限公司,杭州萧山德亿达粉末冶金厂,杭州维博机械有限公司,浙江凯普顿厨房设备有限公司,杭州虹路包装彩印有限公司,杭州三辉热处理有限公司,杭州萧山昌达机械配件厂)等","startTime":"2020-06-13 10:06:00","stopDate":"2020-06-13 13:15:00","orgNo":"3340130","typeCode":"电网故障停限电","poweroffArea":"110kV永兴变:马谷C956线谷口C9562开关后段","poweroffReason":"高压柱上断路器跳闸 原停电结束时间为2020-06-13 14:00:00,为减少客户停电时间,加快工作进度,提前送电,现变更停电结束时间为2020-06-13 13:15:00","powerTime":"2020-06-13 12:33:34","powerComm":"已送电","subsNo":"","lineNo":"","tgNo":"","tgName":null,"infoStatus":"1","orgName":"国网浙江杭州市萧山区供电有限公司","typeName":null,"infoStatusName":null,"dateDay":null,"orgNos":null,"nowTime":null,"countyName":null,"streetName":null,"villageName":null,"roadName":null,"communityName":null,"tranName":null,"sdLineName":null,"cityCode":"3340130","cityName":"国网浙江杭州市萧山区供电有限公司","provinceCode":null,"stopTime":"2020-06-13 13:15:00","powerType":"全部","powerOffArea":"110kV永兴变:马谷C956线谷口C9562开关后段","powerOffReason":"高压柱上断路器跳闸 原停电结束时间为2020-06-13 14:00:00,为减少客户停电时间,加快工作进度,提前送电,现变更停电结束时间为2020-06-13 13:15:00","powerOffId":"2020061331020091"},{"poweroffId":2020061331020059,"sgpoweroffId":null,"subsName":"","lineName":"10kV巨星D926线","pubTranName":"曙星村2#大坞公变,","scope":"浙江省-杭州市-富阳区-渔山乡(墅溪行政村-曙星自然村,渔山行政村-三元自然村)","startTime":"2020-06-13 08:15:00","stopDate":"2020-06-13 16:15:00","orgNo":"3340170","typeCode":"电网故障停限电","poweroffArea":"110kV里渔变:巨星D926线-曙星村2#大坞公变后段","poweroffReason":"(低压停电信息)低压开关跳闸","powerTime":"2020-06-13 16:00:33","powerComm":"已送电","subsNo":"","lineNo":"","tgNo":"","tgName":null,"infoStatus":"1","orgName":"国网浙江杭州市富阳区供电公司","typeName":null,"infoStatusName":null,"dateDay":null,"orgNos":null,"nowTime":null,"countyName":null,"streetName":null,"villageName":null,"roadName":null,"communityName":null,"tranName":null,"sdLineName":null,"cityCode":"3340170","cityName":"国网浙江杭州市富阳区供电公司","provinceCode":null,"stopTime":"2020-06-13 16:15:00","powerType":"全部","powerOffArea":"110kV里渔变:巨星D926线-曙星村2#大坞公变后段","powerOffReason":"(低压停电信息)低压开关跳闸","powerOffId":"2020061331020059"},{"poweroffId":2020061331020057,"sgpoweroffId":null,"subsName":"","lineName":"10kV石墓D217线","pubTranName":"勤丰村6号北渠南公变,杭州百斯特门窗有限公司1#变,勤丰村3#黄泥山公变,杭州绿城银湖置业有限公司2#,勤丰村4号和尚庄公变,杭州富阳华仪仪表有限公司1#变,杭州富阳章诚机械制造有限公司1#变,杭州百斯特门窗有限公司2#变,勤丰村白龙寺2#戴家坞公变,杭州绿城银湖置业有限公司 1#,杭州富阳长江发电机有限公司,杭州绿城银湖置业有限公司 1#,勤丰村白龙寺1#村口公变,浙江交工集团股份有限公司2#变,杭州华晨工贸有限公司,浙江交工集团股份有限公司1#变,勤丰村8号和尚庄公变,","scope":"浙江省-杭州市-富阳区-银湖街道-勤丰行政村(勤丰自然村,和尚庄自然村,黄泥山自然村,白龙寺自然村),银湖街道-高桥行政村-高桥自然村,富春街道-勤丰行政村-勤丰村;银湖街道(杭州富阳长江发电机有限公司,杭州绿城银湖置业有限公司,杭州梦亮包装制品有限公司,杭州富阳章诚机械制造有限公司,浙江交工集团股份有限公司,杭州百斯特门窗有限公司,杭州富阳华仪仪表有限公司)","startTime":"2020-06-13 07:49:55","stopDate":"2020-06-13 08:49:55","orgNo":"3340170","typeCode":"电网故障停限电","poweroffArea":"110kV银湖变:石墓D217线石墓D2175开关后段","poweroffReason":"高压开关跳闸 原停电结束时间为2020-06-13 09:49:55,为减少客户停电时间,加快工作进度,提前送电,现变更停电结束时间为2020-06-13 08:49:55","powerTime":"2020-06-13 08:22:26","powerComm":"已送电","subsNo":"","lineNo":"","tgNo":"","tgName":null,"infoStatus":"1","orgName":"国网浙江杭州市富阳区供电公司","typeName":null,"infoStatusName":null,"dateDay":null,"orgNos":null,"nowTime":null,"countyName":null,"streetName":null,"villageName":null,"roadName":null,"communityName":null,"tranName":null,"sdLineName":null,"cityCode":"3340170","cityName":"国网浙江杭州市富阳区供电公司","provinceCode":null,"stopTime":"2020-06-13 08:49:55","powerType":"全部","powerOffArea":"110kV银湖变:石墓D217线石墓D2175开关后段","powerOffReason":"高压开关跳闸 原停电结束时间为2020-06-13 09:49:55,为减少客户停电时间,加快工作进度,提前送电,现变更停电结束时间为2020-06-13 08:49:55","powerOffId":"2020061331020057"},{"poweroffId":2020061331020056,"sgpoweroffId":null,"subsName":"","lineName":"10kV麻车Y312线","pubTranName":"青源村石磊块台区,","scope":"浙江省-杭州市-建德市-大洋镇-青源行政村(石垒块自然村,西山自然村)","startTime":"2020-06-13 07:47:00","stopDate":"2020-06-13 09:00:00","orgNo":"3340180","typeCode":"电网故障停限电","poweroffArea":"35kV大洋变:麻车Y312线青源村石磊块台区配变","poweroffReason":"高压开关跳闸 原停电结束时间为2020-06-13 10:00:00,为减少客户停电时间,加快工作进度,提前送电,现变更停电结束时间为2020-06-13 09:00:00","powerTime":"2020-06-13 08:24:00","powerComm":"已送电","subsNo":"","lineNo":"","tgNo":"","tgName":null,"infoStatus":"1","orgName":"国网浙江建德市供电有限公司","typeName":null,"infoStatusName":null,"dateDay":null,"orgNos":null,"nowTime":null,"countyName":null,"streetName":null,"villageName":null,"roadName":null,"communityName":null,"tranName":null,"sdLineName":null,"cityCode":"3340180","cityName":"国网浙江建德市供电有限公司","provinceCode":null,"stopTime":"2020-06-13 09:00:00","powerType":"全部","powerOffArea":"35kV大洋变:麻车Y312线青源村石磊块台区配变","powerOffReason":"高压开关跳闸 原停电结束时间为2020-06-13 10:00:00,为减少客户停电时间,加快工作进度,提前送电,现变更停电结束时间为2020-06-13 09:00:00","powerOffId":"2020061331020056"},{"poweroffId":2020061331020032,"sgpoweroffId":null,"subsName":"","lineName":"10kV北南A120线","pubTranName":"兴议村9#公变,","scope":"浙江省-杭州市-萧山区-北干街道-兴议行政村-建设二路","startTime":"2020-06-13 06:46:00","stopDate":"2020-06-13 08:46:00","orgNo":"3340130","typeCode":"电网故障停限电","poweroffArea":"110kV惠兴变:北南A120线兴议村9#公变配变","poweroffReason":"高压开关跳闸","powerTime":"2020-06-13 08:15:55","powerComm":"已送电","subsNo":"","lineNo":"","tgNo":"","tgName":null,"infoStatus":"1","orgName":"国网浙江杭州市萧山区供电有限公司","typeName":null,"infoStatusName":null,"dateDay":null,"orgNos":null,"nowTime":null,"countyName":null,"streetName":null,"villageName":null,"roadName":null,"communityName":null,"tranName":null,"sdLineName":null,"cityCode":"3340130","cityName":"国网浙江杭州市萧山区供电有限公司","provinceCode":null,"stopTime":"2020-06-13 08:46:00","powerType":"全部","powerOffArea":"110kV惠兴变:北南A120线兴议村9#公变配变","powerOffReason":"高压开关跳闸","powerOffId":"2020061331020032"}],"pageModel":{"pageNow":8,"totalCount":17786,"totalPage":1779,"tableRows":0,"pageCount":10,"beginCount":70},"isExperi":"1"}