{"message":"","today":"2020-06-15","seleList":[{"poweroffId":2019110931020073,"sgpoweroffId":null,"subsName":"","lineName":"10kV柴家G150线","pubTranName":"柴家坞村河北2#公变,","scope":"浙江省杭州市余杭区塘栖镇：柴家坞村河北一带","startTime":"2019-11-22 08:20:00","stopDate":"2019-11-22 15:20:00","orgNo":"3340140","typeCode":"计划停电","poweroffArea":"35kV南山变:柴家G150线河北2#公变分线","poweroffReason":"杭州余杭塘栖镇人民政府四好农村公路高低压杆线迁移工程：柴家G150线河北分线河北2#变移位工作。","powerTime":"2019-11-22 15:06:18","powerComm":"已送电","subsNo":"","lineNo":"","tgNo":"","tgName":null,"infoStatus":"1","orgName":"国网浙江杭州市余杭区供电有限公司","typeName":null,"infoStatusName":null,"dateDay":null,"orgNos":null,"nowTime":null,"countyName":null,"streetName":null,"villageName":null,"roadName":null,"communityName":null,"tranName":null,"sdLineName":null,"cityCode":"3340140","cityName":"国网浙江杭州市余杭区供电有限公司","provinceCode":null,"stopTime":"2019-11-22 15:20:00","powerType":"全部","powerOffArea":"35kV南山变:柴家G150线河北2#公变分线","powerOffReason":"杭州余杭塘栖镇人民政府四好农村公路高低压杆线迁移工程：柴家G150线河北分线河北2#变移位工作。","powerOffId":"2019110931020073"},{"poweroffId":2019110931020072,"sgpoweroffId":null,"subsName":"","lineName":"10kV中尚G127线","pubTranName":"中尚橄榄树1-1号公变,","scope":"浙江省杭州市余杭区崇贤街道：中尚橄榄树小区一带","startTime":"2019-11-21 08:20:00","stopDate":"2019-11-21 15:00:00","orgNo":"3340140","typeCode":"计划停电","poweroffArea":"35kV沾桥变:中尚G127线中尚橄榄树1号站中尚橄榄树1-1号公变分线","poweroffReason":"2019年杭州余杭塘栖10千伏中尚线橄榄树公变改造工程：橄榄开关站I段中尚橄榄树1号站中尚橄榄树1-1#公变增量至630kVA工作","powerTime":"2019-11-21 14:31:16","powerComm":"已送电","subsNo":"","lineNo":"","tgNo":"","tgName":null,"infoStatus":"1","orgName":"国网浙江杭州市余杭区供电有限公司","typeName":null,"infoStatusName":null,"dateDay":null,"orgNos":null,"nowTime":null,"countyName":null,"streetName":null,"villageName":null,"roadName":null,"communityName":null,"tranName":null,"sdLineName":null,"cityCode":"3340140","cityName":"国网浙江杭州市余杭区供电有限公司","provinceCode":null,"stopTime":"2019-11-21 15:00:00","powerType":"全部","powerOffArea":"35kV沾桥变:中尚G127线中尚橄榄树1号站中尚橄榄树1-1号公变分线","powerOffReason":"2019年杭州余杭塘栖10千伏中尚线橄榄树公变改造工程：橄榄开关站I段中尚橄榄树1号站中尚橄榄树1-1#公变增量至630kVA工作","powerOffId":"2019110931020072"},{"poweroffId":2019110931020071,"sgpoweroffId":null,"subsName":"","lineName":"10kV正强G223线","pubTranName":"1#升压变,1#,2#升压变,","scope":"浙江省杭州市余杭区仁和街道：杭州欣顺美实业有限公司、国家电投集团桑尼（杭州余杭）光伏发电有限公司一带","startTime":"2019-11-29 08:20:00","stopDate":"2019-11-29 16:30:00","orgNo":"3340140","typeCode":"计划停电","poweroffArea":"110kV宏畔变:正强G223线正强G2231开关-正强G2232开关","poweroffReason":"杭州余杭大运河建设有限公司道路拓宽宇龙G237线、汇鑫G239线上改下工程：新立15米电杆4基，12米电杆1基，真空开关2台，新放电缆工作","powerTime":"2019-11-29 16:17:21","powerComm":"已送电","subsNo":"","lineNo":"","tgNo":"","tgName":null,"infoStatus":"1","orgName":"国网浙江杭州市余杭区供电有限公司","typeName":null,"infoStatusName":null,"dateDay":null,"orgNos":null,"nowTime":null,"countyName":null,"streetName":null,"villageName":null,"roadName":null,"communityName":null,"tranName":null,"sdLineName":null,"cityCode":"3340140","cityName":"国网浙江杭州市余杭区供电有限公司","provinceCode":null,"stopTime":"2019-11-29 16:30:00","powerType":"全部","powerOffArea":"110kV宏畔变:正强G223线正强G2231开关-正强G2232开关","powerOffReason":"杭州余杭大运河建设有限公司道路拓宽宇龙G237线、汇鑫G239线上改下工程：新立15米电杆4基，12米电杆1基，真空开关2台，新放电缆工作","powerOffId":"2019110931020071"},{"poweroffId":2019110931020070,"sgpoweroffId":null,"subsName":"","lineName":"10kV裕达G225线","pubTranName":"杭州余杭区人民政府仁和街道办事处,","scope":"浙江省杭州市余杭区仁和街道：杭州余杭区人民政府仁和街道办事处一带","startTime":"2019-11-29 08:20:00","stopDate":"2019-11-29 16:30:00","orgNo":"3340140","typeCode":"计划停电","poweroffArea":"110kV宏畔变:裕达G225线裕达G2251开关-裕达G2252开关","poweroffReason":"杭州余杭大运河建设有限公司道路拓宽宇龙G237线、汇鑫G239线上改下工程：新立15米电杆4基，12米电杆1基、JKLYJ-10-150导线420米，真空开关2台（其中1台拆装），新放YJV22-3*300电缆730米工作。","powerTime":"2019-11-29 16:17:45","powerComm":"已送电","subsNo":"","lineNo":"","tgNo":"","tgName":null,"infoStatus":"1","orgName":"国网浙江杭州市余杭区供电有限公司","typeName":null,"infoStatusName":null,"dateDay":null,"orgNos":null,"nowTime":null,"countyName":null,"streetName":null,"villageName":null,"roadName":null,"communityName":null,"tranName":null,"sdLineName":null,"cityCode":"3340140","cityName":"国网浙江杭州市余杭区供电有限公司","provinceCode":null,"stopTime":"2019-11-29 16:30:00","powerType":"全部","powerOffArea":"110kV宏畔变:裕达G225线裕达G2251开关-裕达G2252开关","powerOffReason":"杭州余杭大运河建设有限公司道路拓宽宇龙G237线、汇鑫G239线上改下工程：新立15米电杆4基，12米电杆1基、JKLYJ-10-150导线420米，真空开关2台（其中1台拆装），新放YJV22-3*300电缆730米工作。","powerOffId":"2019110931020070"},{"poweroffId":2019110931020069,"sgpoweroffId":null,"subsName":"","lineName":"10kV汇鑫G239线","pubTranName":"杭州塘栖金属压延有限公司3,杭州塘栖金属压延有限公司1,杭州塘栖金属压延有限公司2,精灵发条,杭州余杭宏美厨房配件有限公司,浙江省交通投资集团有限公司申嘉湖杭分公司,塘家埭村曹家湾公变,唐家埭村网船墩公变,杭州塘栖金属压延有限公司4,杭州塘栖金属压延有限公司5,","scope":"浙江省杭州市余杭区塘栖镇：塘家埭村曹家湾、唐家埭村网船墩、浙江申嘉湖杭高速公路有限公司、杭州余杭宏美厨房配件有限公司、杭州余杭精灵发条有限公司、杭州塘栖金属压延有限公司一带","startTime":"2019-11-29 08:20:00","stopDate":"2019-11-29 17:00:00","orgNo":"3340140","typeCode":"计划停电","poweroffArea":"110kV宏畔变:汇鑫G239线汇鑫G2391开关-汇鑫G2392开关","poweroffReason":"杭州余杭大运河建设有限公司道路拓宽宇龙G237线、汇鑫G239线上改下工程：新立15米电杆4基，12米电杆1基，真空开关2台（其中1台拆装）等工作。","powerTime":"2019-11-29 16:29:57","powerComm":"已送电","subsNo":"","lineNo":"","tgNo":"","tgName":null,"infoStatus":"1","orgName":"国网浙江杭州市余杭区供电有限公司","typeName":null,"infoStatusName":null,"dateDay":null,"orgNos":null,"nowTime":null,"countyName":null,"streetName":null,"villageName":null,"roadName":null,"communityName":null,"tranName":null,"sdLineName":null,"cityCode":"3340140","cityName":"国网浙江杭州市余杭区供电有限公司","provinceCode":null,"stopTime":"2019-11-29 17:00:00","powerType":"全部","powerOffArea":"110kV宏畔变:汇鑫G239线汇鑫G2391开关-汇鑫G2392开关","powerOffReason":"杭州余杭大运河建设有限公司道路拓宽宇龙G237线、汇鑫G239线上改下工程：新立15米电杆4基，12米电杆1基，真空开关2台（其中1台拆装）等工作。","powerOffId":"2019110931020069"},{"poweroffId":2019110931020058,"sgpoweroffId":null,"subsName":"","lineName":"10kV银乔C832线","pubTranName":"元沙村9#变,","scope":"浙江省-杭州市-萧山区-新街镇-新街街道-元沙行政村-元沙自然村、元沙村等一带","startTime":"2019-11-09 09:01:23","stopDate":"2019-11-09 11:55:23","orgNo":"3340130","typeCode":"电网故障停限电","poweroffArea":"110kV罗山变:银乔C832线-元沙村9#变台区低压开关","poweroffReason":"(低压停电信息)低压漏电保护器短路故障","powerTime":"2019-11-09 11:32:22","powerComm":"已送电","subsNo":"","lineNo":"","tgNo":"","tgName":null,"infoStatus":"1","orgName":"国网浙江杭州市萧山区供电有限公司","typeName":null,"infoStatusName":null,"dateDay":null,"orgNos":null,"nowTime":null,"countyName":null,"streetName":null,"villageName":null,"roadName":null,"communityName":null,"tranName":null,"sdLineName":null,"cityCode":"3340130","cityName":"国网浙江杭州市萧山区供电有限公司","provinceCode":null,"stopTime":"2019-11-09 11:55:23","powerType":"全部","powerOffArea":"110kV罗山变:银乔C832线-元沙村9#变台区低压开关","powerOffReason":"(低压停电信息)低压漏电保护器短路故障","powerOffId":"2019110931020058"},{"poweroffId":2019110931020053,"sgpoweroffId":null,"subsName":"","lineName":"10kV安山A526线","pubTranName":"双金鞋业,中浦鞋业,安山村3#变,源利管业,杭州欧楷鞋业有限公司,径游村11#变,杭州萧山浦阳塑胶绝缘材料厂,丰伟鞋业,双佳纸业,径游村15#变,径游村17#变,安山村2#变,径游村14#变,径游村9#变,安山村1#变,径游村10#变,安山村10#变,","scope":"浙江省-杭州市-萧山区-浦阳镇-径游行政村(后朱自然村,径游自然村,张家山下自然村),浦阳镇-安山行政村(曹家湾自然村,前朱自然村,渔池头自然村);浙江省-杭州市-萧山区-浦阳镇-径游行政村-杭州源利管业有限公司,浦阳镇-安山行政村(杭州欧楷鞋业有限公司,杭州华运汽车配件有限公司,杭州中浦鞋业有限公司,杭州丰伟鞋业有限公司,杭州双佳纸盒包装厂,杭州萧山浦阳塑胶绝缘材料厂)等一带","startTime":"2019-11-09 08:57:12","stopDate":"2019-11-09 11:30:12","orgNo":"3340130","typeCode":"电网故障停限电","poweroffArea":"110kV浦阳变:安山A526线-安山A5261开关后段","poweroffReason":"高压开关跳闸 原停电结束时间为2019-11-09 10:57:12,因抢修现场抢修难度大原因,现变更停电结束时间为2019-11-09 11:30:12","powerTime":"2019-11-09 10:48:26","powerComm":"已送电","subsNo":"","lineNo":"","tgNo":"","tgName":null,"infoStatus":"1","orgName":"国网浙江杭州市萧山区供电有限公司","typeName":null,"infoStatusName":null,"dateDay":null,"orgNos":null,"nowTime":null,"countyName":null,"streetName":null,"villageName":null,"roadName":null,"communityName":null,"tranName":null,"sdLineName":null,"cityCode":"3340130","cityName":"国网浙江杭州市萧山区供电有限公司","provinceCode":null,"stopTime":"2019-11-09 11:30:12","powerType":"全部","powerOffArea":"110kV浦阳变:安山A526线-安山A5261开关后段","powerOffReason":"高压开关跳闸 原停电结束时间为2019-11-09 10:57:12,因抢修现场抢修难度大原因,现变更停电结束时间为2019-11-09 11:30:12","powerOffId":"2019110931020053"},{"poweroffId":2019110931020052,"sgpoweroffId":null,"subsName":"","lineName":"10kV江曹A525线","pubTranName":"曹坞村4#变,安山村8#变,安山村7#变,江西俞7#变,江西俞4#变,忠民海绵复合材料厂,江西俞10#变,安山村9#变,安山村4#变,江西俞9#变,江西俞8#变,江西俞3#变,曹坞村2#变,曹坞村3#变,恒胜鞋业,江西俞13#变,曹坞村8#变,姚鲍坞机埠,曹坞村1#变,江西俞6#变,安山村6#变,曹坞村7#变,曹坞村6#变,金利浦制衣,康富工艺鞋厂,杭州萧山江海工艺品有限公司,曹坞村5#变,江西俞5#变,","scope":"浙江省-杭州市-萧山区-浦阳镇-江西俞行政村(江西俞自然村,曹家埭自然村,吕家自然村,曹家湾),浦阳镇-安山行政村(曹家湾自然村,前朱自然村,渔池头自然村,安山头自然村),浦阳镇-曹坞行政村(下曹坞自然村,上曹坞自然村);浙江省-杭州市-萧山区-浦阳镇-安山行政村-杭州恒胜鞋业有限公司,浦阳镇-江西俞行政村(杭州萧山江海实业有限公司,杭州萧山忠民海绵复合材料厂),浦阳镇-曹坞行政村(姚鲍坞机埠,杭州康富鞋业有限公司,杭州绿饮管材有限公司)等一带","startTime":"2019-11-09 08:53:57","stopDate":"2019-11-09 10:53:57","orgNo":"3340130","typeCode":"电网故障停限电","poweroffArea":"110kV浦阳变:江曹A525线-江曹A5252开关后段","poweroffReason":"高压开关跳闸","powerTime":"2019-11-09 10:28:35","powerComm":"已送电","subsNo":"","lineNo":"","tgNo":"","tgName":null,"infoStatus":"1","orgName":"国网浙江杭州市萧山区供电有限公司","typeName":null,"infoStatusName":null,"dateDay":null,"orgNos":null,"nowTime":null,"countyName":null,"streetName":null,"villageName":null,"roadName":null,"communityName":null,"tranName":null,"sdLineName":null,"cityCode":"3340130","cityName":"国网浙江杭州市萧山区供电有限公司","provinceCode":null,"stopTime":"2019-11-09 10:53:57","powerType":"全部","powerOffArea":"110kV浦阳变:江曹A525线-江曹A5252开关后段","powerOffReason":"高压开关跳闸","powerOffId":"2019110931020052"},{"poweroffId":2019110931020026,"sgpoweroffId":null,"subsName":"","lineName":"10kV石镇H871线","pubTranName":"岑岭村元宝山公变,岑岭村郭家茶厂公变,石鸽农机变,岑岭农居点公变,水塔村庙山公变,岑岭村煤球山公变,岑岭村郭家茶厂2号公变,岑岭村余里头公变,水塔村一组公变,余杭水务新上基变,粮食收储,","scope":"浙江省-杭州市-余杭区-中泰街道-岑岭行政村-岑岭自然村,中泰街道-石鸽社区(中泰路,杭泰路);中泰街道(杭州林伟工贸有限公司,杭州余杭区粮食收储有限责任公司,杭州市余杭区人民政府中泰街道办事处)","startTime":"2019-11-09 06:56:00","stopDate":"2019-11-09 08:30:00","orgNo":"3340140","typeCode":"电网故障停限电","poweroffArea":"110kV中泰变:石镇H871线余里头分线6#杆开关后段","poweroffReason":"高压开关跳闸","powerTime":"2019-11-09 07:53:39","powerComm":"已送电","subsNo":"","lineNo":"","tgNo":"","tgName":null,"infoStatus":"1","orgName":"国网浙江杭州市余杭区供电有限公司","typeName":null,"infoStatusName":null,"dateDay":null,"orgNos":null,"nowTime":null,"countyName":null,"streetName":null,"villageName":null,"roadName":null,"communityName":null,"tranName":null,"sdLineName":null,"cityCode":"3340140","cityName":"国网浙江杭州市余杭区供电有限公司","provinceCode":null,"stopTime":"2019-11-09 08:30:00","powerType":"全部","powerOffArea":"110kV中泰变:石镇H871线余里头分线6#杆开关后段","powerOffReason":"高压开关跳闸","powerOffId":"2019110931020026"},{"poweroffId":2019110931020012,"sgpoweroffId":null,"subsName":"","lineName":"10kV丰园D629线","pubTranName":"浙江富春山居集团有限公司,浙江琛盛新材料科技有限公司1#变,浙江合大太阳能科技有限公司2#,杭州万禾电力科技有限公司1#变,杭州圣欧光电科技有限公司2#,杭州瑞都造纸机械有限公司,世源科技工程有限公司3#变,杭州拜思妥思实业有限公司2#变,富阳康华制药机械有限公司,杭州聚科空分设备制造有限公司,杭州瑞隆实业有限公司,杭州圣欧光电科技有限公司1#,浙江合大太阳能科技有限公司1#,杭州巨骐信息科技股份有限公司1#变,杭州拜思妥思实业有限公司1#变,","scope":"浙江省-杭州市-富阳区-场口镇(杭州瑞隆实业有限公司,杭州聚科空分设备制造有限公司,世源科技工程有限公司,杭州拜思妥思实业有限公司,杭州巨骐信息科技股份有限公司,杭州瑞都造纸机械有限公司,杭州富阳康华制药机械有限公司,浙江富春山居集团有限公司,浙江合大太阳能科技有限公司,杭州万禾电力科技有限公司,杭州圣欧光电科技有限公司,杭州圣昊管道有限公司)","startTime":"2019-11-09 06:05:00","stopDate":"2019-11-09 08:30:00","orgNo":"3340170","typeCode":"电网故障停限电","poweroffArea":"110kV鸿丰变:丰园D629线丰园D6293开关后段","poweroffReason":"高压开关跳闸","powerTime":"2019-11-09 07:56:25","powerComm":"已送电","subsNo":"","lineNo":"","tgNo":"","tgName":null,"infoStatus":"1","orgName":"国网浙江杭州市富阳区供电公司","typeName":null,"infoStatusName":null,"dateDay":null,"orgNos":null,"nowTime":null,"countyName":null,"streetName":null,"villageName":null,"roadName":null,"communityName":null,"tranName":null,"sdLineName":null,"cityCode":"3340170","cityName":"国网浙江杭州市富阳区供电公司","provinceCode":null,"stopTime":"2019-11-09 08:30:00","powerType":"全部","powerOffArea":"110kV鸿丰变:丰园D629线丰园D6293开关后段","powerOffReason":"高压开关跳闸","powerOffId":"2019110931020012"}],"pageModel":{"pageNow":884,"totalCount":17789,"totalPage":1779,"tableRows":0,"pageCount":10,"beginCount":8830},"isExperi":"1"}