{"message":"","today":"2020-06-15","seleList":[{"poweroffId":2019110931020005,"sgpoweroffId":null,"subsName":"","lineName":"10kV速达9429线","pubTranName":"皋南(2),西文地施2,省机1#变,皋南(1),地铁长浜4,地铁长滨3,西文地施1,城中沈施4,城中沈施1,地铁长滨2,风情小镇,皋南(3),地铁长浜5,地铁长滨1,城中沈施3,省机1#变,春城,","scope":"浙江省-杭州市-拱墅区-上塘街道-皋亭社区(沈半路280号东侧,沈半路,皋亭村);浙江省-杭州市-拱墅区-大关街道-宏润建设集团股份有限公司,上塘街道-皋亭社区(浙江元通大厦有限公司,杭州传文投资管理有限公司),上塘街道(杭州市拱墅区城中村改造指挥部上塘分指挥部,善贤社区-杭州市地铁集团有限责任公司)","startTime":"2019-11-09 02:25:19","stopDate":"2019-11-09 05:00:19","orgNo":"3340101","typeCode":"电网故障停限电","poweroffArea":"110kV石桥变:速达9429线","poweroffReason":"高压开关跳闸 原停电结束时间为2019-11-09 04:25:19,因施工现场环境比较复杂，存在不确定因素，因此预估施工时间不足原因,现变更停电结束时间为2019-11-09 07:25:19","powerTime":"2019-11-09 04:21:36","powerComm":"已送电","subsNo":"","lineNo":"","tgNo":"","tgName":null,"infoStatus":"1","orgName":"浙江杭州电力客户服务中心","typeName":null,"infoStatusName":null,"dateDay":null,"orgNos":null,"nowTime":null,"countyName":null,"streetName":null,"villageName":null,"roadName":null,"communityName":null,"tranName":null,"sdLineName":null,"cityCode":"3340101","cityName":"浙江杭州电力客户服务中心","provinceCode":null,"stopTime":"2019-11-09 05:00:19","powerType":"全部","powerOffArea":"110kV石桥变:速达9429线","powerOffReason":"高压开关跳闸 原停电结束时间为2019-11-09 04:25:19,因施工现场环境比较复杂，存在不确定因素，因此预估施工时间不足原因,现变更停电结束时间为2019-11-09 07:25:19","powerOffId":"2019110931020005"},{"poweroffId":2019110831020743,"sgpoweroffId":null,"subsName":"","lineName":"10kV赭东A807线","pubTranName":"红山村17#变,杭州市萧山区人民政府南阳街道办事处,翔风铝业,赭东村7#变,红山村8#变,永利村2#变,震宇金属家具(1315086597),红山村10#变,杭州龙德信机械有限公司,赭东村18#变,赭东村11#变,杭州阳成塑胶厂变压器间隔配电变压器,赭东村16#变,东风村6#变,红山村18#变,红山村9#变,东风村11#变,永利村8#变,赭东村10#变,圣茂塑胶,红山村16#变,赭东村19#变,华凌轴承(1315077224),赭东村14#变,赭东村12#变,1#变,永利村4#变,卫锋管业(1315078082),红山村14#变,赭东村6#变,金星塑粉(1315080956),桐乡市交通工程有限公司,红山村5#变,1#变,赭东村20#变,赭东村8#变,盛宏绣花厂(1315078607),东风村7#变,1,东风村5#变,赭东村17#变,红山村15#变,红山村7#变,红山村6#变,","scope":"浙江省-杭州市-萧山区-南阳街道-南翔行政村(万丰自然村,南阳自然村),南阳街道-赭东行政村(赭东自然村,经四路),南阳街道(红山行政村-红山自然村,东风行政村-东风自然村,永利行政村-永利自然村);浙江省-杭州市-萧山区-南阳街道-横蓬行政村-杭州华凌轴承有限公司,南阳街道-赭东行政村(萧山市南阳金星浸塑粉厂,杭州卫锋管业有限公司,杭州翔凤铝业有限公司,杭州圣茂塑胶有限公司,杭州市萧山区人民政府南阳街道办事处,杭州明缘塑料制品有限公司),南阳街道-红山行政村(杭州阳成塑胶厂,杭州诚盈针织有限公司,杭州龙德信机械有限公司,杭州震宇金属家具有限公司,杭州可淋普包装科技有限公司,桐乡市交通工程有限公司,杭州市萧山区公路管理处)、左山村、南翔村8组、左东新农村、红山村新农村7排、万丰村、杭州南阳造纸厂、万丰村12组61号、南阳街道赭东村9组18号、南阳赭东村7组19号门口马路上、南阳街道红山自然村11组5户、南阳街道红山义南横路、南阳街道红山行政村三组水泥厂东、南洋镇红山村3组21号一带","startTime":"2019-11-08 18:40:49","stopDate":"2019-11-08 21:50:49","orgNo":"3340130","typeCode":"电网故障停限电","poweroffArea":"110kV黎明变:赭东A807线-南隆A8073开关后段","poweroffReason":"高压柱上断路器短路故障 原停电结束时间为2019-11-08 22:20:49,为减少客户停电时间,加快工作进度,提前送电,现变更停电结束时间为2019-11-08 21:50:49","powerTime":"2019-11-08 21:11:22","powerComm":"已送电","subsNo":"","lineNo":"","tgNo":"","tgName":null,"infoStatus":"1","orgName":"国网浙江杭州市萧山区供电有限公司","typeName":null,"infoStatusName":null,"dateDay":null,"orgNos":null,"nowTime":null,"countyName":null,"streetName":null,"villageName":null,"roadName":null,"communityName":null,"tranName":null,"sdLineName":null,"cityCode":"3340130","cityName":"国网浙江杭州市萧山区供电有限公司","provinceCode":null,"stopTime":"2019-11-08 21:50:49","powerType":"全部","powerOffArea":"110kV黎明变:赭东A807线-南隆A8073开关后段","powerOffReason":"高压柱上断路器短路故障 原停电结束时间为2019-11-08 22:20:49,为减少客户停电时间,加快工作进度,提前送电,现变更停电结束时间为2019-11-08 21:50:49","powerOffId":"2019110831020743"},{"poweroffId":2019110831020742,"sgpoweroffId":null,"subsName":"","lineName":"10kV卞家H519线","pubTranName":"长命村卞家塘1号公变,","scope":"浙江省-杭州市-余杭区-瓶窑镇-长命行政村(高家自然村,卞家塘自然村)","startTime":"2019-11-22 08:30:00","stopDate":"2019-11-22 14:40:00","orgNo":"3340140","typeCode":"计划停电","poweroffArea":"110kV凤山变:卞家H519线-卞家塘一带","poweroffReason":"(低压停电信息)计划工作 原停电结束时间为2019-11-22 17:00:00,为减少客户停电时间,加快工作进度,提前送电,现变更停电结束时间为2019-11-22 14:40:00","powerTime":"2019-11-22 14:24:10","powerComm":"已送电","subsNo":"","lineNo":"","tgNo":"","tgName":null,"infoStatus":"1","orgName":"国网浙江杭州市余杭区供电有限公司","typeName":null,"infoStatusName":null,"dateDay":null,"orgNos":null,"nowTime":null,"countyName":null,"streetName":null,"villageName":null,"roadName":null,"communityName":null,"tranName":null,"sdLineName":null,"cityCode":"3340140","cityName":"国网浙江杭州市余杭区供电有限公司","provinceCode":null,"stopTime":"2019-11-22 14:40:00","powerType":"全部","powerOffArea":"110kV凤山变:卞家H519线-卞家塘一带","powerOffReason":"(低压停电信息)计划工作 原停电结束时间为2019-11-22 17:00:00,为减少客户停电时间,加快工作进度,提前送电,现变更停电结束时间为2019-11-22 14:40:00","powerOffId":"2019110831020742"},{"poweroffId":2019110831020732,"sgpoweroffId":null,"subsName":"","lineName":"10kV桥头V410线","pubTranName":"斜阳3#公变,青山斜阳村（2）,斜阳轧石变,白纸槽公变,","scope":"浙江省-杭州市-临安市-青山湖街道青山斜阳村（2），斜阳村3，白纸槽，斜阳轧石村一带","startTime":"2019-11-22 08:15:00","stopDate":"2019-11-22 08:45:00","orgNo":"3340160","typeCode":"计划停电","poweroffArea":"110kV石泉变:桥头V410线-斜阳分线29#开关后段","poweroffReason":"线路改造","powerTime":"2019-11-22 08:35:15","powerComm":"已送电","subsNo":"","lineNo":"","tgNo":"","tgName":null,"infoStatus":"1","orgName":"国网浙江临安市供电公司","typeName":null,"infoStatusName":null,"dateDay":null,"orgNos":null,"nowTime":null,"countyName":null,"streetName":null,"villageName":null,"roadName":null,"communityName":null,"tranName":null,"sdLineName":null,"cityCode":"3340160","cityName":"国网浙江临安市供电公司","provinceCode":null,"stopTime":"2019-11-22 08:45:00","powerType":"全部","powerOffArea":"110kV石泉变:桥头V410线-斜阳分线29#开关后段","powerOffReason":"线路改造","powerOffId":"2019110831020732"},{"poweroffId":2019110831020727,"sgpoweroffId":null,"subsName":"","lineName":"10kV三联V616线","pubTranName":"浙江青山湖可研创新基地投资有限公司（泉口公交站）,","scope":"浙江省-杭州市-临安市-青山湖街道-泉口行政村杭州市临安公共交通有限公司一带","startTime":"2019-11-20 08:30:00","stopDate":"2019-11-20 14:00:00","orgNo":"3340160","typeCode":"计划停电","poweroffArea":"110kV雅观变:停三联V616线泉口分线16#杆杭州市临安公共交通有限公司开关以后","poweroffReason":"线路改造","powerTime":"2019-11-20 13:50:12","powerComm":"已送电","subsNo":"","lineNo":"","tgNo":"","tgName":null,"infoStatus":"1","orgName":"国网浙江临安市供电公司","typeName":null,"infoStatusName":null,"dateDay":null,"orgNos":null,"nowTime":null,"countyName":null,"streetName":null,"villageName":null,"roadName":null,"communityName":null,"tranName":null,"sdLineName":null,"cityCode":"3340160","cityName":"国网浙江临安市供电公司","provinceCode":null,"stopTime":"2019-11-20 14:00:00","powerType":"全部","powerOffArea":"110kV雅观变:停三联V616线泉口分线16#杆杭州市临安公共交通有限公司开关以后","powerOffReason":"线路改造","powerOffId":"2019110831020727"},{"poweroffId":2019110831020726,"sgpoweroffId":null,"subsName":"","lineName":"10kV石门V353线","pubTranName":"高虹拜节村,","scope":"浙江省-杭州市-临安市-高虹镇-高乐行政村-拜节自然村一带","startTime":"2019-11-21 08:10:00","stopDate":"2019-11-21 16:00:00","orgNo":"3340160","typeCode":"计划停电","poweroffArea":"110kV高虹变:停石门V353线石门分线38#杆拜节村支线令克以后","poweroffReason":"线路改造","powerTime":"2019-11-21 15:10:17","powerComm":"已送电","subsNo":"","lineNo":"","tgNo":"","tgName":null,"infoStatus":"1","orgName":"国网浙江临安市供电公司","typeName":null,"infoStatusName":null,"dateDay":null,"orgNos":null,"nowTime":null,"countyName":null,"streetName":null,"villageName":null,"roadName":null,"communityName":null,"tranName":null,"sdLineName":null,"cityCode":"3340160","cityName":"国网浙江临安市供电公司","provinceCode":null,"stopTime":"2019-11-21 16:00:00","powerType":"全部","powerOffArea":"110kV高虹变:停石门V353线石门分线38#杆拜节村支线令克以后","powerOffReason":"线路改造","powerOffId":"2019110831020726"},{"poweroffId":2019110831020725,"sgpoweroffId":null,"subsName":"","lineName":"10kV桥头V410线","pubTranName":"桥头村2,杨家村变,青山桥头村1#,临安炜业建材有限公司,青山斜阳村（1）,","scope":"浙江省-杭州市-临安市-青山湖街道青山桥头村，青山斜阳村（1），杨家村，临安炜业建材有限公司一带","startTime":"2019-11-22 08:15:00","stopDate":"2019-11-22 17:40:00","orgNo":"3340160","typeCode":"计划停电","poweroffArea":"110kV石泉变:1、停桥头V410线44#杆4103--斜阳V221线58#杆221A开关之间； 2、停桥头V410线斜阳分线29#杆开关以后。","poweroffReason":"线路改造","powerTime":"2019-11-22 17:30:23","powerComm":"已送电","subsNo":"","lineNo":"","tgNo":"","tgName":null,"infoStatus":"1","orgName":"国网浙江临安市供电公司","typeName":null,"infoStatusName":null,"dateDay":null,"orgNos":null,"nowTime":null,"countyName":null,"streetName":null,"villageName":null,"roadName":null,"communityName":null,"tranName":null,"sdLineName":null,"cityCode":"3340160","cityName":"国网浙江临安市供电公司","provinceCode":null,"stopTime":"2019-11-22 17:40:00","powerType":"全部","powerOffArea":"110kV石泉变:1、停桥头V410线44#杆4103--斜阳V221线58#杆221A开关之间； 2、停桥头V410线斜阳分线29#杆开关以后。","powerOffReason":"线路改造","powerOffId":"2019110831020725"},{"poweroffId":2019110831020695,"sgpoweroffId":null,"subsName":"","lineName":"10kV毛家C196线","pubTranName":"明华村4#变,","scope":"浙江省-杭州市-萧山区-衙前镇-明华行政村(原料市场,明华自然村,衙前路)一带，浙江省杭州市萧山区衙前镇明华小区","startTime":"2019-11-08 17:18:45","stopDate":"2019-11-08 19:00:45","orgNo":"3340130","typeCode":"电网故障停限电","poweroffArea":"110kV翔凤变:毛家C196线-明华村4#变后段","poweroffReason":"（低压停电信息）低压漏电保护器短路故障","powerTime":"2019-11-08 18:35:43","powerComm":"已送电","subsNo":"","lineNo":"","tgNo":"","tgName":null,"infoStatus":"1","orgName":"国网浙江杭州市萧山区供电有限公司","typeName":null,"infoStatusName":null,"dateDay":null,"orgNos":null,"nowTime":null,"countyName":null,"streetName":null,"villageName":null,"roadName":null,"communityName":null,"tranName":null,"sdLineName":null,"cityCode":"3340130","cityName":"国网浙江杭州市萧山区供电有限公司","provinceCode":null,"stopTime":"2019-11-08 19:00:45","powerType":"全部","powerOffArea":"110kV翔凤变:毛家C196线-明华村4#变后段","powerOffReason":"（低压停电信息）低压漏电保护器短路故障","powerOffId":"2019110831020695"},{"poweroffId":2019110831020682,"sgpoweroffId":null,"subsName":"","lineName":"10kV城镇R109线","pubTranName":"新华苑公变,炉峰路1#变315kVA,炉峰路5号公变配电变压器,淳安县广播电视台配变,排岭南路7#公变315kVA,炉峰路2#公变,如意巷公变,建兰中学配变,浙江省淳安广播转播台配变,炉峰路3#公变,","scope":"浙江省-杭州市-淳安县-千岛湖镇-新北社区-新安北路,千岛湖镇-火炉尖社区(炉峰路,排岭南路,如意巷,新安西路,知林巷),千岛湖镇-施家塘社区(知丰路,骑龙巷,知林巷,排岭南路);浙江省-杭州市-淳安县-千岛湖镇-施家塘社区-淳安县广播电视台,千岛湖镇-火炉尖社区(浙江省淳安广播转播台,淳安县教育资产管理中心)","startTime":"2019-11-09 08:00:00","stopDate":"2019-11-09 12:30:00","orgNo":"3340190","typeCode":"临时停电","poweroffArea":"110kV千岛湖变:城镇R109线首端，南骑R109线2号杆开关，南骑R109线7号杆开关之间","poweroffReason":"上改下","powerTime":"2019-11-09 11:50:47","powerComm":"现场工作已完成已送电","subsNo":"","lineNo":"","tgNo":"","tgName":null,"infoStatus":"1","orgName":"国网浙江淳安县供电有限公司","typeName":null,"infoStatusName":null,"dateDay":null,"orgNos":null,"nowTime":null,"countyName":null,"streetName":null,"villageName":null,"roadName":null,"communityName":null,"tranName":null,"sdLineName":null,"cityCode":"3340190","cityName":"国网浙江淳安县供电有限公司","provinceCode":null,"stopTime":"2019-11-09 12:30:00","powerType":"全部","powerOffArea":"110kV千岛湖变:城镇R109线首端，南骑R109线2号杆开关，南骑R109线7号杆开关之间","powerOffReason":"上改下","powerOffId":"2019110831020682"},{"poweroffId":2019110831020681,"sgpoweroffId":null,"subsName":"","lineName":"10kV城镇R109线","pubTranName":"初阳小区2号公变,排岭南路5#,排岭南路6#公变,初阳小区1号公变,行岗路3号公变,","scope":"浙江省-杭州市-淳安县-千岛湖镇-施家塘社区-排岭南路,千岛湖镇-火炉尖社区(排岭南路,炉峰路)","startTime":"2019-11-10 08:00:00","stopDate":"2019-11-10 14:30:00","orgNo":"3340190","typeCode":"临时停电","poweroffArea":"110kV千岛湖变:城镇R109线-排岭南路5#后段;城镇R109线-排岭南路6#公变后段;城镇R109线-初阳小区2号公变后段;城镇R109线-行岗路3号公变后段;城镇R109线-初阳小区1号公变后段","poweroffReason":"上改下 原停电结束时间为2019-11-10 12:30:00,因XXX原因,现变更停电结束时间为2019-11-10 14:30:00","powerTime":"2019-11-10 13:44:36","powerComm":"已送电","subsNo":"","lineNo":"","tgNo":"","tgName":null,"infoStatus":"1","orgName":"国网浙江淳安县供电有限公司","typeName":null,"infoStatusName":null,"dateDay":null,"orgNos":null,"nowTime":null,"countyName":null,"streetName":null,"villageName":null,"roadName":null,"communityName":null,"tranName":null,"sdLineName":null,"cityCode":"3340190","cityName":"国网浙江淳安县供电有限公司","provinceCode":null,"stopTime":"2019-11-10 14:30:00","powerType":"全部","powerOffArea":"110kV千岛湖变:城镇R109线-排岭南路5#后段;城镇R109线-排岭南路6#公变后段;城镇R109线-初阳小区2号公变后段;城镇R109线-行岗路3号公变后段;城镇R109线-初阳小区1号公变后段","powerOffReason":"上改下 原停电结束时间为2019-11-10 12:30:00,因XXX原因,现变更停电结束时间为2019-11-10 14:30:00","powerOffId":"2019110831020681"}],"pageModel":{"pageNow":885,"totalCount":17789,"totalPage":1779,"tableRows":0,"pageCount":10,"beginCount":8840},"isExperi":"1"}