{"message":"","today":"2020-06-15","seleList":[{"poweroffId":2019110831020591,"sgpoweroffId":null,"subsName":"","lineName":"10kV百岁T168线","pubTranName":"方吴大溪口7号公变,方吴村移民边3号公变,","scope":"浙江省-杭州市-桐庐县-瑶琳镇-永安行政村(方吴自然村,上王家自然村)","startTime":"2019-11-19 08:00:00","stopDate":"2019-11-19 16:00:00","orgNo":"3340150","typeCode":"计划停电","poweroffArea":"35kV瑶琳变:百岁T168线-移民边F6092令克后段","poweroffReason":"杭州桐庐瑶琳冷坞161线金义分线等线路改造工程","powerTime":"2019-11-19 15:41:25","powerComm":"已送电","subsNo":"","lineNo":"","tgNo":"","tgName":null,"infoStatus":"1","orgName":"国网浙江桐庐县供电公司","typeName":null,"infoStatusName":null,"dateDay":null,"orgNos":null,"nowTime":null,"countyName":null,"streetName":null,"villageName":null,"roadName":null,"communityName":null,"tranName":null,"sdLineName":null,"cityCode":"3340150","cityName":"国网浙江桐庐县供电公司","provinceCode":null,"stopTime":"2019-11-19 16:00:00","powerType":"全部","powerOffArea":"35kV瑶琳变:百岁T168线-移民边F6092令克后段","powerOffReason":"杭州桐庐瑶琳冷坞161线金义分线等线路改造工程","powerOffId":"2019110831020591"},{"poweroffId":2019110831020587,"sgpoweroffId":null,"subsName":"","lineName":"10kV坑口282线","pubTranName":"桐庐东星食品厂,桐庐亚华制尺有限公司,杭州中鑫电子配件有限公司,桐庐孔惠纺织有限公司,","scope":"浙江省-杭州市-桐庐县-新合乡-新民行政村-杭州中鑫电子配件有限公司,新合乡-新合行政村(桐庐孔惠纺织有限公司,桐庐东星食品厂,桐庐亚华制尺有限公司)","startTime":"2019-11-20 10:00:00","stopDate":"2019-11-20 15:30:00","orgNo":"3340150","typeCode":"计划停电","poweroffArea":"35kV新合变:坑口282线-亚华F7316开关后段","poweroffReason":"裸导线调换工作","powerTime":"2019-11-20 15:11:24","powerComm":"已送电","subsNo":"","lineNo":"","tgNo":"","tgName":null,"infoStatus":"1","orgName":"国网浙江桐庐县供电公司","typeName":null,"infoStatusName":null,"dateDay":null,"orgNos":null,"nowTime":null,"countyName":null,"streetName":null,"villageName":null,"roadName":null,"communityName":null,"tranName":null,"sdLineName":null,"cityCode":"3340150","cityName":"国网浙江桐庐县供电公司","provinceCode":null,"stopTime":"2019-11-20 15:30:00","powerType":"全部","powerOffArea":"35kV新合变:坑口282线-亚华F7316开关后段","powerOffReason":"裸导线调换工作","powerOffId":"2019110831020587"},{"poweroffId":2019110831020582,"sgpoweroffId":null,"subsName":"","lineName":"10kV园北D945线","pubTranName":"长山村4号湖后头公变,","scope":"浙江省-杭州市-富阳区-银湖街道-观前行政村(大长山自然村,周公坞自然村,长山自然村,湖后头自然村)","startTime":"2019-11-23 08:00:00","stopDate":"2019-11-23 16:30:00","orgNo":"3340170","typeCode":"计划停电","poweroffArea":"110kV育才变:园北D945线-长山村4号湖后头公变低压开关后段","poweroffReason":"(低压停电信息)更换导线4档，更换接户线15处，搭接等工作。 （迎东2019年峡岭村3#周家坛公变等配电线路及设备大修工程）","powerTime":"","powerComm":"","subsNo":"","lineNo":"","tgNo":"","tgName":null,"infoStatus":"1","orgName":"国网浙江杭州市富阳区供电公司","typeName":null,"infoStatusName":null,"dateDay":null,"orgNos":null,"nowTime":null,"countyName":null,"streetName":null,"villageName":null,"roadName":null,"communityName":null,"tranName":null,"sdLineName":null,"cityCode":"3340170","cityName":"国网浙江杭州市富阳区供电公司","provinceCode":null,"stopTime":"2019-11-23 16:30:00","powerType":"未送电","powerOffArea":"110kV育才变:园北D945线-长山村4号湖后头公变低压开关后段","powerOffReason":"(低压停电信息)更换导线4档，更换接户线15处，搭接等工作。 （迎东2019年峡岭村3#周家坛公变等配电线路及设备大修工程）","powerOffId":"2019110831020582"},{"poweroffId":2019110831020581,"sgpoweroffId":null,"subsName":"","lineName":"10kV交通D364线","pubTranName":"秋丰村24#孙家弄2#公变,","scope":"浙江省-杭州市-富阳区-富春街道-秋丰行政村-秋丰自然村","startTime":"2019-11-23 07:30:00","stopDate":"2019-11-23 16:50:00","orgNo":"3340170","typeCode":"计划停电","poweroffArea":"110kV富鹿变:交通D364线-秋丰村24#孙家弄后段","poweroffReason":"(低压停电信息)青云2019年东山村4#桥头公变等低压台区改造工程更换落户线35处，搭接等工作","powerTime":"","powerComm":"","subsNo":"","lineNo":"","tgNo":"","tgName":null,"infoStatus":"1","orgName":"国网浙江杭州市富阳区供电公司","typeName":null,"infoStatusName":null,"dateDay":null,"orgNos":null,"nowTime":null,"countyName":null,"streetName":null,"villageName":null,"roadName":null,"communityName":null,"tranName":null,"sdLineName":null,"cityCode":"3340170","cityName":"国网浙江杭州市富阳区供电公司","provinceCode":null,"stopTime":"2019-11-23 16:50:00","powerType":"未送电","powerOffArea":"110kV富鹿变:交通D364线-秋丰村24#孙家弄后段","powerOffReason":"(低压停电信息)青云2019年东山村4#桥头公变等低压台区改造工程更换落户线35处，搭接等工作","powerOffId":"2019110831020581"},{"poweroffId":2019110831020579,"sgpoweroffId":null,"subsName":"","lineName":"10kV立太H431线","pubTranName":"杜甫村严家抖公变,杜甫村沈家桥公变,浙江万里建设工程有限公司,杭州良渚新城城建投资有限公司,","scope":"浙江省杭州市余杭区良渚街道：严家抖村、沈家桥村、浙江万里建设、良渚新城一带","startTime":"2019-11-15 09:00:00","stopDate":"2019-11-15 16:30:00","orgNo":"3340140","typeCode":"临时停电","poweroffArea":"110kV勾庄变:立太H431线-沈家桥分线后段","poweroffReason":"章村开关站调换老旧开关柜工作。","powerTime":"2019-11-15 16:29:59","powerComm":"已送电","subsNo":"","lineNo":"","tgNo":"","tgName":null,"infoStatus":"1","orgName":"国网浙江杭州市余杭区供电有限公司","typeName":null,"infoStatusName":null,"dateDay":null,"orgNos":null,"nowTime":null,"countyName":null,"streetName":null,"villageName":null,"roadName":null,"communityName":null,"tranName":null,"sdLineName":null,"cityCode":"3340140","cityName":"国网浙江杭州市余杭区供电有限公司","provinceCode":null,"stopTime":"2019-11-15 16:30:00","powerType":"全部","powerOffArea":"110kV勾庄变:立太H431线-沈家桥分线后段","powerOffReason":"章村开关站调换老旧开关柜工作。","powerOffId":"2019110831020579"},{"poweroffId":2019110831020577,"sgpoweroffId":null,"subsName":"","lineName":"10kV春江949线","pubTranName":"望指,","scope":"浙江省杭州市上城区富路、长城建设集团、省机关后勤经济发展中心、钱设指挥部","startTime":"2019-11-14 08:30:00","stopDate":"2019-11-14 18:30:00","orgNo":"3340101","typeCode":"临时停电","poweroffArea":"110kV秋涛变:春江949线首端，后勤二线，长建二线，富路二线之间","poweroffReason":"望江路过江隧道江北段10KV电力管线回迁工程PD2019-07-024-QN 望富站II段移位，电缆改接，电缆施工、试验及搭头 原停电结束时间为2019-11-14 17:30:00,因工作量原因,现变更停电结束时间为2019-11-14 18:30:00","powerTime":"2019-11-14 18:12:04","powerComm":"已送电","subsNo":"","lineNo":"","tgNo":"","tgName":null,"infoStatus":"1","orgName":"浙江杭州电力客户服务中心","typeName":null,"infoStatusName":null,"dateDay":null,"orgNos":null,"nowTime":null,"countyName":null,"streetName":null,"villageName":null,"roadName":null,"communityName":null,"tranName":null,"sdLineName":null,"cityCode":"3340101","cityName":"浙江杭州电力客户服务中心","provinceCode":null,"stopTime":"2019-11-14 18:30:00","powerType":"全部","powerOffArea":"110kV秋涛变:春江949线首端，后勤二线，长建二线，富路二线之间","powerOffReason":"望江路过江隧道江北段10KV电力管线回迁工程PD2019-07-024-QN 望富站II段移位，电缆改接，电缆施工、试验及搭头 原停电结束时间为2019-11-14 17:30:00,因工作量原因,现变更停电结束时间为2019-11-14 18:30:00","powerOffId":"2019110831020577"},{"poweroffId":2019110831020568,"sgpoweroffId":null,"subsName":"","lineName":"10kV江滨939线","pubTranName":"01,望指,检疫一变,检疫三变,03,省检验检疫局会所,02,02,","scope":"浙江省杭州市上城区长城建设集团、省机关后勤经济发展中心、钱设指挥部","startTime":"2019-11-15 09:50:00","stopDate":"2019-11-15 18:30:00","orgNo":"3340101","typeCode":"临时停电","poweroffArea":"110kV秋涛变:江滨939线首端，长建一线，富路分线，后勤一线之间","poweroffReason":"望江路过江隧道江北段10KV电力管线回迁工程PD2019-07-024-QN 望富站I段移位，电缆施工、试验及搭头等 原停电结束时间为2019-11-15 17:30:00,因工作量大原因,现变更停电结束时间为2019-11-15 18:30:00","powerTime":"2019-11-15 17:33:01","powerComm":"已送电","subsNo":"","lineNo":"","tgNo":"","tgName":null,"infoStatus":"1","orgName":"浙江杭州电力客户服务中心","typeName":null,"infoStatusName":null,"dateDay":null,"orgNos":null,"nowTime":null,"countyName":null,"streetName":null,"villageName":null,"roadName":null,"communityName":null,"tranName":null,"sdLineName":null,"cityCode":"3340101","cityName":"浙江杭州电力客户服务中心","provinceCode":null,"stopTime":"2019-11-15 18:30:00","powerType":"全部","powerOffArea":"110kV秋涛变:江滨939线首端，长建一线，富路分线，后勤一线之间","powerOffReason":"望江路过江隧道江北段10KV电力管线回迁工程PD2019-07-024-QN 望富站I段移位，电缆施工、试验及搭头等 原停电结束时间为2019-11-15 17:30:00,因工作量大原因,现变更停电结束时间为2019-11-15 18:30:00","powerOffId":"2019110831020568"},{"poweroffId":2019110831020565,"sgpoweroffId":null,"subsName":"","lineName":"10kV锦临G755线","pubTranName":"荷花小区6#公变,","scope":"浙江省杭州市余杭区临平街道：荷花小区一带","startTime":"2019-11-22 08:00:00","stopDate":"2019-11-22 12:00:00","orgNo":"3340140","typeCode":"计划停电","poweroffArea":"110kV金家变:锦临G755线-荷花小区六号后段","poweroffReason":"荷花小区6#公变调换计量箱","powerTime":"2019-11-22 11:35:00","powerComm":"已送电","subsNo":"","lineNo":"","tgNo":"","tgName":null,"infoStatus":"1","orgName":"国网浙江杭州市余杭区供电有限公司","typeName":null,"infoStatusName":null,"dateDay":null,"orgNos":null,"nowTime":null,"countyName":null,"streetName":null,"villageName":null,"roadName":null,"communityName":null,"tranName":null,"sdLineName":null,"cityCode":"3340140","cityName":"国网浙江杭州市余杭区供电有限公司","provinceCode":null,"stopTime":"2019-11-22 12:00:00","powerType":"全部","powerOffArea":"110kV金家变:锦临G755线-荷花小区六号后段","powerOffReason":"荷花小区6#公变调换计量箱","powerOffId":"2019110831020565"},{"poweroffId":2019110831020548,"sgpoweroffId":null,"subsName":"","lineName":"10kV常绿D268线","pubTranName":"黄弹村6号外庄公变,","scope":"浙江省-杭州市-富阳区-常绿镇-黄弹行政村(外黄弹自然村,里黄弹自然村)一带","startTime":"2019-11-18 08:45:00","stopDate":"2019-11-18 13:30:00","orgNo":"3340170","typeCode":"计划停电","poweroffArea":"35kV盛村变:常绿D268线-黄弹村6号外庄公变后段","poweroffReason":"常绿D268线25#杆大章村分线15#杆黄弹支线96#杆黄弹村6#外庄公变拆除低压电缆并搭接于T接箱出线侧等工作。原停电结束时间为2019-11-18 10:45:00,因天气原因,现变更停电结束时间为2019-11-18 13:30:00","powerTime":"2019-11-18 13:20:16","powerComm":"已送电","subsNo":"","lineNo":"","tgNo":"","tgName":null,"infoStatus":"1","orgName":"国网浙江杭州市富阳区供电公司","typeName":null,"infoStatusName":null,"dateDay":null,"orgNos":null,"nowTime":null,"countyName":null,"streetName":null,"villageName":null,"roadName":null,"communityName":null,"tranName":null,"sdLineName":null,"cityCode":"3340170","cityName":"国网浙江杭州市富阳区供电公司","provinceCode":null,"stopTime":"2019-11-18 13:30:00","powerType":"全部","powerOffArea":"35kV盛村变:常绿D268线-黄弹村6号外庄公变后段","powerOffReason":"常绿D268线25#杆大章村分线15#杆黄弹支线96#杆黄弹村6#外庄公变拆除低压电缆并搭接于T接箱出线侧等工作。原停电结束时间为2019-11-18 10:45:00,因天气原因,现变更停电结束时间为2019-11-18 13:30:00","powerOffId":"2019110831020548"},{"poweroffId":2019110831020538,"sgpoweroffId":null,"subsName":"","lineName":"10kV常绿D268线","pubTranName":"黄弹村6号外庄公变,","scope":"浙江省-杭州市-富阳区-常绿镇-黄弹行政村(外黄弹自然村,里黄弹自然村)一带","startTime":"2019-11-18 15:20:00","stopDate":"2019-11-18 16:00:00","orgNo":"3340170","typeCode":"计划停电","poweroffArea":"35kV盛村变:常绿D268线-黄弹村6号外庄公变后段","poweroffReason":"常绿D268线25#杆大章村分线15#杆黄弹支线96#杆黄弹村6#外庄公变拆除T接箱电缆并搭接于变压器等工作。","powerTime":"2019-11-18 15:50:36","powerComm":"已送电","subsNo":"","lineNo":"","tgNo":"","tgName":null,"infoStatus":"1","orgName":"国网浙江杭州市富阳区供电公司","typeName":null,"infoStatusName":null,"dateDay":null,"orgNos":null,"nowTime":null,"countyName":null,"streetName":null,"villageName":null,"roadName":null,"communityName":null,"tranName":null,"sdLineName":null,"cityCode":"3340170","cityName":"国网浙江杭州市富阳区供电公司","provinceCode":null,"stopTime":"2019-11-18 16:00:00","powerType":"全部","powerOffArea":"35kV盛村变:常绿D268线-黄弹村6号外庄公变后段","powerOffReason":"常绿D268线25#杆大章村分线15#杆黄弹支线96#杆黄弹村6#外庄公变拆除T接箱电缆并搭接于变压器等工作。","powerOffId":"2019110831020538"}],"pageModel":{"pageNow":887,"totalCount":17789,"totalPage":1779,"tableRows":0,"pageCount":10,"beginCount":8860},"isExperi":"1"}