{"message":"","today":"2020-06-15","seleList":[{"poweroffId":2019110831020500,"sgpoweroffId":null,"subsName":"","lineName":"10kV永和D821线","pubTranName":"周景樟,","scope":"浙江省-杭州市-富阳区-富春街道-后周社区-春秋北路280号","startTime":"2019-11-19 08:45:00","stopDate":"2019-11-19 16:00:00","orgNo":"3340170","typeCode":"计划停电","poweroffArea":"110kV容大变:永和D821线-周景樟后段","poweroffReason":"青云2019年10kV状元D417线电站分线等线路改造工程：富乐分线3#杆周景樟更换跌落式开关一组，3#杆后段拆除等工作","powerTime":"2019-11-19 15:50:18","powerComm":"已送电","subsNo":"","lineNo":"","tgNo":"","tgName":null,"infoStatus":"1","orgName":"国网浙江杭州市富阳区供电公司","typeName":null,"infoStatusName":null,"dateDay":null,"orgNos":null,"nowTime":null,"countyName":null,"streetName":null,"villageName":null,"roadName":null,"communityName":null,"tranName":null,"sdLineName":null,"cityCode":"3340170","cityName":"国网浙江杭州市富阳区供电公司","provinceCode":null,"stopTime":"2019-11-19 16:00:00","powerType":"全部","powerOffArea":"110kV容大变:永和D821线-周景樟后段","powerOffReason":"青云2019年10kV状元D417线电站分线等线路改造工程：富乐分线3#杆周景樟更换跌落式开关一组，3#杆后段拆除等工作","powerOffId":"2019110831020500"},{"poweroffId":2019110831020499,"sgpoweroffId":null,"subsName":"","lineName":"10kV星河G814线","pubTranName":"运河镇章家河村罗梗坝2号,","scope":"浙江省杭州市余杭区经济开发区：章家河村罗梗坝一带","startTime":"2019-11-20 08:00:00","stopDate":"2019-11-20 12:00:00","orgNo":"3340140","typeCode":"计划停电","poweroffArea":"110kV建富变:星河G814线-王家河后段","poweroffReason":"运河镇章家河村罗梗坝2号公变调换计量箱","powerTime":"2019-11-20 11:35:00","powerComm":"已送电","subsNo":"","lineNo":"","tgNo":"","tgName":null,"infoStatus":"1","orgName":"国网浙江杭州市余杭区供电有限公司","typeName":null,"infoStatusName":null,"dateDay":null,"orgNos":null,"nowTime":null,"countyName":null,"streetName":null,"villageName":null,"roadName":null,"communityName":null,"tranName":null,"sdLineName":null,"cityCode":"3340140","cityName":"国网浙江杭州市余杭区供电有限公司","provinceCode":null,"stopTime":"2019-11-20 12:00:00","powerType":"全部","powerOffArea":"110kV建富变:星河G814线-王家河后段","powerOffReason":"运河镇章家河村罗梗坝2号公变调换计量箱","powerOffId":"2019110831020499"},{"poweroffId":2019110831020498,"sgpoweroffId":null,"subsName":"","lineName":"10kV永和D821线","pubTranName":"富阳市天星广告有限公司,","scope":"浙江省-杭州市-富阳区-富春街道-后周社区-杭州富阳天星广告有限公司","startTime":"2019-11-19 08:20:00","stopDate":"2019-11-19 16:00:00","orgNo":"3340170","typeCode":"计划停电","poweroffArea":"110kV容大变:永和D821线-富阳市天星广告有限公司后段","poweroffReason":"配合客户内部检修","powerTime":"2019-11-19 15:50:29","powerComm":"已送电","subsNo":"","lineNo":"","tgNo":"","tgName":null,"infoStatus":"1","orgName":"国网浙江杭州市富阳区供电公司","typeName":null,"infoStatusName":null,"dateDay":null,"orgNos":null,"nowTime":null,"countyName":null,"streetName":null,"villageName":null,"roadName":null,"communityName":null,"tranName":null,"sdLineName":null,"cityCode":"3340170","cityName":"国网浙江杭州市富阳区供电公司","provinceCode":null,"stopTime":"2019-11-19 16:00:00","powerType":"全部","powerOffArea":"110kV容大变:永和D821线-富阳市天星广告有限公司后段","powerOffReason":"配合客户内部检修","powerOffId":"2019110831020498"},{"poweroffId":2019110831020497,"sgpoweroffId":null,"subsName":"","lineName":"10kV施家D970线","pubTranName":"杭州鑫磊矿业有限公司,","scope":"浙江省-杭州市-富阳区-银湖街道-东坞山村-鑫磊矿业有限公司一带","startTime":"2019-11-19 09:00:00","stopDate":"2019-11-19 16:30:00","orgNo":"3340170","typeCode":"计划停电","poweroffArea":"110kV九龙变:施家D970线-杭州鑫磊矿业有限公司后段","poweroffReason":"配合客户内部检修","powerTime":"2019-11-19 16:20:18","powerComm":"已送电","subsNo":"","lineNo":"","tgNo":"","tgName":null,"infoStatus":"1","orgName":"国网浙江杭州市富阳区供电公司","typeName":null,"infoStatusName":null,"dateDay":null,"orgNos":null,"nowTime":null,"countyName":null,"streetName":null,"villageName":null,"roadName":null,"communityName":null,"tranName":null,"sdLineName":null,"cityCode":"3340170","cityName":"国网浙江杭州市富阳区供电公司","provinceCode":null,"stopTime":"2019-11-19 16:30:00","powerType":"全部","powerOffArea":"110kV九龙变:施家D970线-杭州鑫磊矿业有限公司后段","powerOffReason":"配合客户内部检修","powerOffId":"2019110831020497"},{"poweroffId":2019110831020495,"sgpoweroffId":null,"subsName":"","lineName":"10kV施家D970线","pubTranName":"东坞山村5#周家公变,","scope":"浙江省杭州市富阳区银湖街道东坞山村一带","startTime":"2019-11-19 15:30:00","stopDate":"2019-11-19 16:30:00","orgNo":"3340170","typeCode":"计划停电","poweroffArea":"110kV九龙变:施家D970线-东坞山村5#周家公变后段","poweroffReason":"东坞山村5#周家公变低压由变压器改接至0.4kV发电机","powerTime":"2019-11-19 16:20:28","powerComm":"已送电","subsNo":"","lineNo":"","tgNo":"","tgName":null,"infoStatus":"1","orgName":"国网浙江杭州市富阳区供电公司","typeName":null,"infoStatusName":null,"dateDay":null,"orgNos":null,"nowTime":null,"countyName":null,"streetName":null,"villageName":null,"roadName":null,"communityName":null,"tranName":null,"sdLineName":null,"cityCode":"3340170","cityName":"国网浙江杭州市富阳区供电公司","provinceCode":null,"stopTime":"2019-11-19 16:30:00","powerType":"全部","powerOffArea":"110kV九龙变:施家D970线-东坞山村5#周家公变后段","powerOffReason":"东坞山村5#周家公变低压由变压器改接至0.4kV发电机","powerOffId":"2019110831020495"},{"poweroffId":2019110831020493,"sgpoweroffId":null,"subsName":"","lineName":"10kV图山D502线","pubTranName":"白石胶村2号村边公变,","scope":"浙江省-杭州市-富阳区-场口镇-白石胶行政村-白石胶自然村一带","startTime":"2019-11-20 08:30:00","stopDate":"2019-11-20 09:15:00","orgNo":"3340170","typeCode":"计划停电","poweroffArea":"110kV常安变:图山D502线-白石胶村2号村边公变后段","poweroffReason":"图山D502线130#杆白石胶分线21#杆溪边支线1#杆白石胶村2#村边公变拆除低压电缆并搭接于T接箱出线侧等工作。","powerTime":"2019-11-20 09:02:11","powerComm":"已送电","subsNo":"","lineNo":"","tgNo":"","tgName":null,"infoStatus":"1","orgName":"国网浙江杭州市富阳区供电公司","typeName":null,"infoStatusName":null,"dateDay":null,"orgNos":null,"nowTime":null,"countyName":null,"streetName":null,"villageName":null,"roadName":null,"communityName":null,"tranName":null,"sdLineName":null,"cityCode":"3340170","cityName":"国网浙江杭州市富阳区供电公司","provinceCode":null,"stopTime":"2019-11-20 09:15:00","powerType":"全部","powerOffArea":"110kV常安变:图山D502线-白石胶村2号村边公变后段","powerOffReason":"图山D502线130#杆白石胶分线21#杆溪边支线1#杆白石胶村2#村边公变拆除低压电缆并搭接于T接箱出线侧等工作。","powerOffId":"2019110831020493"},{"poweroffId":2019110831020492,"sgpoweroffId":null,"subsName":"","lineName":"10kV富文R123线","pubTranName":"富文乡富文村石川1队公变,","scope":"浙江省-杭州市-淳安县-富文乡-富文行政村(石川一队自然村,富文畈自然村,石头埠自然村)","startTime":"2019-11-17 08:30:00","stopDate":"2019-11-17 10:35:00","orgNo":"3340190","typeCode":"计划停电","poweroffArea":"35kV淡竹变:富文R123线-石川1队配变跌落式熔断器后段","poweroffReason":"石川1队配变房消缺,电缆头套安装","powerTime":"2019-11-17 10:28:40","powerComm":"已送电","subsNo":"","lineNo":"","tgNo":"","tgName":null,"infoStatus":"1","orgName":"国网浙江淳安县供电有限公司","typeName":null,"infoStatusName":null,"dateDay":null,"orgNos":null,"nowTime":null,"countyName":null,"streetName":null,"villageName":null,"roadName":null,"communityName":null,"tranName":null,"sdLineName":null,"cityCode":"3340190","cityName":"国网浙江淳安县供电有限公司","provinceCode":null,"stopTime":"2019-11-17 10:35:00","powerType":"全部","powerOffArea":"35kV淡竹变:富文R123线-石川1队配变跌落式熔断器后段","powerOffReason":"石川1队配变房消缺,电缆头套安装","powerOffId":"2019110831020492"},{"poweroffId":2019110831020491,"sgpoweroffId":null,"subsName":"","lineName":"10kV富文R123线","pubTranName":"富文乡富文村朱村公变,","scope":"浙江省-杭州市-淳安县-富文乡-富文行政村(富文自然村,朱村自然村)","startTime":"2019-11-17 14:30:00","stopDate":"2019-11-17 16:35:00","orgNo":"3340190","typeCode":"计划停电","poweroffArea":"35kV淡竹变:富文R123线-朱村配变跌落式熔断器后段","poweroffReason":"朱村台区配变房消缺,电缆头套安装","powerTime":"2019-11-17 15:45:33","powerComm":"已送电","subsNo":"","lineNo":"","tgNo":"","tgName":null,"infoStatus":"1","orgName":"国网浙江淳安县供电有限公司","typeName":null,"infoStatusName":null,"dateDay":null,"orgNos":null,"nowTime":null,"countyName":null,"streetName":null,"villageName":null,"roadName":null,"communityName":null,"tranName":null,"sdLineName":null,"cityCode":"3340190","cityName":"国网浙江淳安县供电有限公司","provinceCode":null,"stopTime":"2019-11-17 16:35:00","powerType":"全部","powerOffArea":"35kV淡竹变:富文R123线-朱村配变跌落式熔断器后段","powerOffReason":"朱村台区配变房消缺,电缆头套安装","powerOffId":"2019110831020491"},{"poweroffId":2019110831020490,"sgpoweroffId":null,"subsName":"","lineName":"10kV图山D502线","pubTranName":"白石胶村2号村边公变,","scope":"浙江省-杭州市-富阳区-场口镇-白石胶行政村-白石胶自然村一带","startTime":"2019-11-20 14:50:00","stopDate":"2019-11-20 16:00:00","orgNo":"3340170","typeCode":"计划停电","poweroffArea":"110kV常安变:图山D502线-白石胶村2号村边公变后段","poweroffReason":"图山D502线130#杆白石胶分线21#杆溪边支线1#杆白石胶村2#村边公变拆除T接箱电缆并搭接于变压器等工作。 原停电结束时间为2019-11-20 15:30:00,因政策原因,现变更停电结束时间为2019-11-20 16:00:00","powerTime":"2019-11-20 15:40:19","powerComm":"已送电","subsNo":"","lineNo":"","tgNo":"","tgName":null,"infoStatus":"1","orgName":"国网浙江杭州市富阳区供电公司","typeName":null,"infoStatusName":null,"dateDay":null,"orgNos":null,"nowTime":null,"countyName":null,"streetName":null,"villageName":null,"roadName":null,"communityName":null,"tranName":null,"sdLineName":null,"cityCode":"3340170","cityName":"国网浙江杭州市富阳区供电公司","provinceCode":null,"stopTime":"2019-11-20 16:00:00","powerType":"全部","powerOffArea":"110kV常安变:图山D502线-白石胶村2号村边公变后段","powerOffReason":"图山D502线130#杆白石胶分线21#杆溪边支线1#杆白石胶村2#村边公变拆除T接箱电缆并搭接于变压器等工作。 原停电结束时间为2019-11-20 15:30:00,因政策原因,现变更停电结束时间为2019-11-20 16:00:00","powerOffId":"2019110831020490"},{"poweroffId":2019110831020487,"sgpoweroffId":null,"subsName":"","lineName":"10kV安阳R162线","pubTranName":"胡家公变,","scope":"浙江省-杭州市-淳安县-大墅镇-凤山行政村-胡家自然村","startTime":"2019-11-18 08:00:00","stopDate":"2019-11-18 14:00:00","orgNo":"3340190","typeCode":"计划停电","poweroffArea":"35kV大市变:安阳R162线-胡家支线0号杆熔丝后段","poweroffReason":"安阳R162线胡家公变改接至胡家村支线4号杆,胡家公变增容","powerTime":"2019-11-18 13:42:43","powerComm":"已送电","subsNo":"","lineNo":"","tgNo":"","tgName":null,"infoStatus":"1","orgName":"国网浙江淳安县供电有限公司","typeName":null,"infoStatusName":null,"dateDay":null,"orgNos":null,"nowTime":null,"countyName":null,"streetName":null,"villageName":null,"roadName":null,"communityName":null,"tranName":null,"sdLineName":null,"cityCode":"3340190","cityName":"国网浙江淳安县供电有限公司","provinceCode":null,"stopTime":"2019-11-18 14:00:00","powerType":"全部","powerOffArea":"35kV大市变:安阳R162线-胡家支线0号杆熔丝后段","powerOffReason":"安阳R162线胡家公变改接至胡家村支线4号杆,胡家公变增容","powerOffId":"2019110831020487"}],"pageModel":{"pageNow":889,"totalCount":17789,"totalPage":1779,"tableRows":0,"pageCount":10,"beginCount":8880},"isExperi":"1"}