{"message":"","today":"2020-06-15","seleList":[{"poweroffId":2020052831020168,"sgpoweroffId":null,"subsName":"","lineName":"10kV郜溪V585线","pubTranName":"杭州神通交通工程有限公司,临安渊达布艺织造有限公司,杭州科佳塑化有限公司,杭州艾尔柯制冷剂科技有限公司1#,杭州科佳塑化有限公司,杭州斯曼特建材科技有限公司,青云村[王泥岗],杭州临安镇农农业开发有限公司1#,杭州鑫乐装饰材料有限公司2#,万马电子医疗有限公司,临安欧乐电器有限公司1#,临安利安玻璃钢有限公司1#,万马电子医疗有限公司,青云村[郜坞],临安富迪斯电器有限公司1#,青云村[青云岭],杭州奥裕节能科技有限公司2#,临安全盛电缆材料有限公司,杭州临安李伟装饰材料有限公司1#,临安天朗照明科技有限公司配电变压器,杭州蓝盛电子材料有限公司1#,和欢新材料(杭州)有限公司计1#,杭州惠尔线缆有限公司,杭州奥裕节能科技有限公司1#,杭州惠尔线缆有限公司1#,青云村[工业园区],太湖源供电营业所,杭州蓝盛电子材料有限公司2#,杭州科佳塑化有限公司3,杭州爱博装饰材料有限公司1#,","scope":"浙江省-杭州市-临安区-太湖源镇-青云行政村-青云自然村;太湖源镇-青云行政村(国网浙江临安市供电公司(玲珑供电所太湖源站),杭州奥裕节能科技有限公司,杭州爱博装饰材料有限公司,杭州惠尔线缆有限公司,杭州临安欧乐电器有限公司,临安渊达布艺织造有限公司,万马科技股份有限公司,杭州神通交通工程有限公司,杭州利安新材料技术有限公司,临安全盛电缆材料有限公司,杭州斯曼特建材科技有限公司,杭州科佳新材料股份有限公司,临安天朗照明科技有限公司,杭州临安李伟装饰材料有限公司,杭州临安富迪斯电器有限公司,杭州蓝盛电子材料有限公司,和欢新材料(杭州)有限公司),太湖源镇(杭州临安镇农农业开发有限公司,浪口行政村-杭州艾尔柯制冷剂科技有限公司)一带","startTime":"2020-06-07 06:00:00","stopDate":"2020-06-07 06:30:00","orgNo":"3340160","typeCode":"计划停电","poweroffArea":"110kV杨岭变:郜溪V585线","poweroffReason":"发电车接入工作。","powerTime":"2020-06-07 06:20:16","powerComm":"已送电","subsNo":"","lineNo":"","tgNo":"","tgName":null,"infoStatus":"1","orgName":"国网浙江临安市供电公司","typeName":null,"infoStatusName":null,"dateDay":null,"orgNos":null,"nowTime":null,"countyName":null,"streetName":null,"villageName":null,"roadName":null,"communityName":null,"tranName":null,"sdLineName":null,"cityCode":"3340160","cityName":"国网浙江临安市供电公司","provinceCode":null,"stopTime":"2020-06-07 06:30:00","powerType":"全部","powerOffArea":"110kV杨岭变:郜溪V585线","powerOffReason":"发电车接入工作。","powerOffId":"2020052831020168"},{"poweroffId":2020052831020167,"sgpoweroffId":null,"subsName":"","lineName":"10kV浪口V730线","pubTranName":"杭州临安海华服饰有限公司,临安腾飞玻璃钢金属设备厂1#,青云村[礼堂边],临安金顺达织造有限公司2,临安渊达布艺织造有限公司1#,杭州临安聚源纸品包装有限公司1#,临安市剑冬纸制品厂配电变压器,青云村[郜溪桥2#]配电变压器,浙江锦顺实业有限公司,杭州盈邦线缆有限公司,杭州博思特装饰材料有限公司2#,杭州博思特装饰材料有限公司,临安渊达布艺织造有限公司,临安仕鑫经纬丝织厂,临安华盖市政设施有限公司,浙江锦顺实业有限公司2#,临安金顺达织造有限公司,青云村[老街],杭州临安恒通纺织有限公司,杭州临安恒通纺织有限公司1#,临安市太湖源镇青云中心小学,青云村[董家],青云村青溪街配电变压器,浪口村[倒畈],杭州昌达纺织科技有限公司2#,杭州临安雪祥塑料粒子有限公司,青云村[电管站],青云村[郜溪桥],临安华宇橡塑有限公司,杭州临安鸿日有机硅材料有限公司1#,","scope":"浙江省-杭州市-临安区-太湖源镇-浪口行政村-浪口自然村,太湖源镇-青云行政村(青云自然村,水口自然村);太湖源镇-杨桥行政村(杭州昌达纺织科技有限公司,杭州临安恒通纺织有限公司,杭州临安海华服饰有限公司,临安金顺达织造有限公司,临安渊达布艺织造有限公司,杭州博思特装饰材料有限公司),太湖源镇-青云行政村(杭州华宇橡塑实业有限公司,杭州临安雪祥塑料粒子有限公司,临安仕鑫经纬丝织厂,杭州临安华盖市政设施有限公司,临安市太湖源镇青云中心小学,临安市博创纸制品厂),太湖源镇-浪口行政村(浙江锦顺实业股份有限公司,杭州全富金属制品厂),太湖源镇(临安腾飞玻璃钢金属设备厂,杭州临安聚源纸品包装有限公司)一带","startTime":"2020-06-07 06:00:00","stopDate":"2020-06-07 06:30:00","orgNo":"3340160","typeCode":"计划停电","poweroffArea":"110kV杨岭变:浪口V730线","poweroffReason":"发电车接入工作。","powerTime":"2020-06-07 06:20:05","powerComm":"已送电","subsNo":"","lineNo":"","tgNo":"","tgName":null,"infoStatus":"1","orgName":"国网浙江临安市供电公司","typeName":null,"infoStatusName":null,"dateDay":null,"orgNos":null,"nowTime":null,"countyName":null,"streetName":null,"villageName":null,"roadName":null,"communityName":null,"tranName":null,"sdLineName":null,"cityCode":"3340160","cityName":"国网浙江临安市供电公司","provinceCode":null,"stopTime":"2020-06-07 06:30:00","powerType":"全部","powerOffArea":"110kV杨岭变:浪口V730线","powerOffReason":"发电车接入工作。","powerOffId":"2020052831020167"},{"poweroffId":2020052831020166,"sgpoweroffId":null,"subsName":"","lineName":"10kV上东V494线","pubTranName":"临安洁凯照明电器有限公司,","scope":"浙江省-杭州市-临安区-锦北街道-金马行政村-临安洁凯照明电器有限公司一带","startTime":"2020-06-02 08:00:00","stopDate":"2020-06-02 15:20:00","orgNo":"3340160","typeCode":"临时停电","poweroffArea":"110kV平山变:上东V494线-临安洁凯照明电器分线2#后段","poweroffReason":"网架线路工程。 原停电结束时间为2020-06-02 17:00:00,为减少客户停电时间,加快工作进度,提前送电,现变更停电结束时间为2020-06-02 15:20:00","powerTime":"2020-06-02 14:33:43","powerComm":"已送电","subsNo":"","lineNo":"","tgNo":"","tgName":null,"infoStatus":"1","orgName":"国网浙江临安市供电公司","typeName":null,"infoStatusName":null,"dateDay":null,"orgNos":null,"nowTime":null,"countyName":null,"streetName":null,"villageName":null,"roadName":null,"communityName":null,"tranName":null,"sdLineName":null,"cityCode":"3340160","cityName":"国网浙江临安市供电公司","provinceCode":null,"stopTime":"2020-06-02 15:20:00","powerType":"全部","powerOffArea":"110kV平山变:上东V494线-临安洁凯照明电器分线2#后段","powerOffReason":"网架线路工程。 原停电结束时间为2020-06-02 17:00:00,为减少客户停电时间,加快工作进度,提前送电,现变更停电结束时间为2020-06-02 15:20:00","powerOffId":"2020052831020166"},{"poweroffId":2020052831020161,"sgpoweroffId":null,"subsName":"","lineName":"10kV梅灵6307线","pubTranName":"梅村三变,梅村六变,外渡桥一变,小牙坞变,军区茶厂专变1#,水业施（6）,茶科,云溪蝶谷一变,小牙坞农居点变,污水专变,杭州玫瑰园度假村有限公司酒店分公司,梅村二变,杭州市路灯管理所,西湖花苑南一变,梵村花园二变,之管充,景卫,梅家坞变,云溪蝶谷三变,云栖,水厂专变1,军区茶厂专变2#,云溪蝶谷五变,梵宅一变,梅家坞农居点变,梅竺度假村专变,茶科,郑宅,西湖花苑南二变,西湖花园,军茶,云栖度假酒店I,群伦,杭州华庭云栖度假酒店有限公司1#,梅村五变,梅村一变,梅村七变,之江度假开发区管委会专变1#,九树公寓(一),杭州市五云山疗养院,之江度假开发区管委会专变2#,之遂施1,梅新,杭州玫瑰园度假村有限公司酒店分公司,西九变,梵村花园三变,杭州市五云山疗养院,之遂施2,梅村四变,茶科,云溪蝶谷七变,梵村花园一变,","scope":"浙江省-杭州市-西湖区-西湖街道-梅家坞村社区(梅灵南路,梅家坞),转塘街道-五云梦湖社区(之江路,五云中路,之江路138号),转塘街道(梵村社区-梅灵南路,良户社区-良户村道,大诸桥社区-之江路,转塘社区-五云中路,珊瑚沙社区-枫桦路),西湖街道-梵村行政村-梅灵南路,灵隐街道-梅家坞社区-梅灵南路;西湖街道(杭州梅家坞股份经济合作社,杭州梅竺度假村有限公司,杭州市五云山疗养院,杭州之江发展总公司,杭州市城市基础设施建设发展中心),转塘街道(杭州西湖风景名胜区(杭州市园林文物局)钱江管理处,杭州市水务控股集团有限公司,杭州市排水有限公司,杭州市水务集团有限公司供水泵站分公司,杭州市路灯管理所,杭州玫瑰园度假村有限公司酒店分公司,中国农业科学院茶叶研究所,杭州华庭云栖度假酒店有限公司,)","startTime":"2020-05-28 12:33:00","stopDate":"2020-05-28 15:33:00","orgNo":"3340101","typeCode":"电网故障停限电","poweroffArea":"110kV转塘变:梅灵6307线开关后段","poweroffReason":"高压开关跳闸 原停电结束时间为2020-05-28 16:33:00,为减少客户停电时间,加快工作进度,提前送电,现变更停电结束时间为2020-05-28 15:33:00","powerTime":"2020-05-28 14:45:28","powerComm":"已送电","subsNo":"","lineNo":"","tgNo":"","tgName":null,"infoStatus":"1","orgName":"浙江杭州电力客户服务中心","typeName":null,"infoStatusName":null,"dateDay":null,"orgNos":null,"nowTime":null,"countyName":null,"streetName":null,"villageName":null,"roadName":null,"communityName":null,"tranName":null,"sdLineName":null,"cityCode":"3340101","cityName":"浙江杭州电力客户服务中心","provinceCode":null,"stopTime":"2020-05-28 15:33:00","powerType":"全部","powerOffArea":"110kV转塘变:梅灵6307线开关后段","powerOffReason":"高压开关跳闸 原停电结束时间为2020-05-28 16:33:00,为减少客户停电时间,加快工作进度,提前送电,现变更停电结束时间为2020-05-28 15:33:00","powerOffId":"2020052831020161"},{"poweroffId":2020052831020131,"sgpoweroffId":null,"subsName":"","lineName":"10kV云石C954线","pubTranName":"青山村7#变,骆家舍5#变,方溪村6#变,青山村13#变,姜宇热缩,骆家舍2#变,杭州亿达五金有限公司,辉煌卫生用品2#,沈村6#变,青山村2#变,辉煌卫生用品1#,骆家舍3#变,尖山下3#变,青山村5#变,顾家溪3#变,青山村6#变,枫桥村2#变,柯佳伞件厂,尖山下2#变,方溪村5#变,方溪村8#变,方溪村3#变,沈村1#变,枫桥村5#变,骆家舍6#变,顾家溪1#变,青山村14#变,方溪村7#变,顾家溪2#变,尖山下4#变,沈村3#变,浙伟实业,方溪村2#变,杭州佳锦织造厂,沈村4#变,电信萧山公司（云石）,青山村3#变,青山村1#变,枫桥村4#变,方溪村9#变,枫桥村3#变,顾家溪4#变,枫桥村1#变,家家实业,球冠实业(渡假山庄),浙江九龙厨具集团有限公司,顾家溪5#变,萧山区戴村镇云石中心小学,杭州萧山云峰涂料厂,方溪村1#变,方溪村4#变,强达塑胶,青山村4#变,尖山下1#变,方溪村10#变,尖山下5#变,特种建材,骆家舍4#变,尖山下6#变,杭州鼎绣工艺品有限公司,","scope":"浙江省-杭州市-萧山区-戴村镇-沈村行政村-沈村自然村,戴村镇-顾家溪行政村(平山自然村,勤工自然村),戴村镇-骆家舍行政村(下骆家舍自然村,骆村自然村,船山自然村,上骆家舍自然村),戴村镇-尖山下行政村(尖山下自然村,洪潭桥自然村,长爿田自然村,上门自然村),戴村镇-方溪行政村(增丰自然村,顶山自然村,征山自然村),戴村镇-枫桥行政村(响石桥自然村,枫树自然村),戴村镇-青山行政村(明堂自然村,狮山自然村,南坞自然村,石牛山自然村);戴村镇(杭州浙伟实业有限公司,杭州萧山姜字热缩制品厂,杭州家家实业有限公司,浙江华东轻钢建材有限公司,杭州萧山云峰涂料厂,中国电信股份有限公司杭州萧山区分公司,杭州强达塑胶五金厂,杭州辉煌卫生用品有限公司,杭州萧山戴村镇柯佳伞件厂,萧山区戴村镇云石中心小学,杭州鼎绣工艺品有限公司,杭州云石生态休闲旅游开发有限公司,杭州亿达五金有限公司,杭州佳锦织造厂,浙江九龙厨具集团有限公司)等","startTime":"2020-05-28 10:54:00","stopDate":"2020-05-28 12:30:00","orgNo":"3340130","typeCode":"电网故障停限电","poweroffArea":"110kV永兴变:云石C954线云石C954线云石II段分线开关后段","poweroffReason":"高压架空线路断线 原停电结束时间为2020-05-28 13:54:00,为减少客户停电时间,加快工作进度,提前送电,现变更停电结束时间为2020-05-28 12:30:00","powerTime":"2020-05-28 11:44:42","powerComm":"已送电","subsNo":"","lineNo":"","tgNo":"","tgName":null,"infoStatus":"1","orgName":"国网浙江杭州市萧山区供电有限公司","typeName":null,"infoStatusName":null,"dateDay":null,"orgNos":null,"nowTime":null,"countyName":null,"streetName":null,"villageName":null,"roadName":null,"communityName":null,"tranName":null,"sdLineName":null,"cityCode":"3340130","cityName":"国网浙江杭州市萧山区供电有限公司","provinceCode":null,"stopTime":"2020-05-28 12:30:00","powerType":"全部","powerOffArea":"110kV永兴变:云石C954线云石C954线云石II段分线开关后段","powerOffReason":"高压架空线路断线 原停电结束时间为2020-05-28 13:54:00,为减少客户停电时间,加快工作进度,提前送电,现变更停电结束时间为2020-05-28 12:30:00","powerOffId":"2020052831020131"},{"poweroffId":2020052831020130,"sgpoweroffId":null,"subsName":"","lineName":"10kV云石C954线","pubTranName":"顾家溪1#变,方溪村2#变,尖山下3#变,强达塑胶,方溪村8#变,辉煌卫生用品1#,顾家溪5#变,青山村6#变,青山村5#变,辉煌卫生用品2#,姜宇热缩,青山村1#变,青山村14#变,枫桥村1#变,骆家舍2#变,青山村7#变,杭州鼎绣工艺品有限公司,球冠实业(渡假山庄),青山村13#变,沈村6#变,骆家舍6#变,青山村2#变,尖山下2#变,沈村4#变,特种建材,顾家溪4#变,尖山下1#变,戴村镇人民政府,柯佳伞件厂,方溪村3#变,方溪村6#变,骆家舍4#变,杭州萧山春潇农业开发有限公司,尖山下4#变,骆家舍3#变,枫桥村3#变,沈村1#变,青山村3#变,沈村3#变,浙伟实业,枫桥村2#变,顾家溪3#变,方溪村7#变,方溪村9#变,尖山下5#变,方溪村5#变,方溪村1#变,杭州萧山云峰涂料厂,枫桥村5#变,尖山下6#变,家家实业,青山村4#变,方溪村10#变,电信萧山公司（云石）,方溪村4#变,枫桥村4#变,浙江九龙厨具集团有限公司,沈村7#变,骆家舍5#变,顾家溪2#变,萧山区戴村镇云石中心小学,杭州亿达五金有限公司,杭州佳锦织造厂,","scope":"浙江省-杭州市-萧山区-戴村镇-沈村行政村-沈村自然村,戴村镇-顾家溪行政村(平山自然村,勤工自然村),戴村镇-骆家舍行政村(下骆家舍自然村,骆村自然村,船山自然村,上骆家舍自然村),戴村镇-尖山下行政村(尖山下自然村,洪潭桥自然村,长爿田自然村,上门自然村),戴村镇-方溪行政村(增丰自然村,顶山自然村,征山自然村),戴村镇-枫桥行政村(响石桥自然村,枫树自然村),戴村镇-青山行政村(明堂自然村,狮山自然村,南坞自然村,石牛山自然村);浙江省-杭州市-萧山区-戴村镇-顾家溪行政村-杭州亿达五金有限公司,戴村镇-尖山下行政村(杭州浙伟实业有限公司,杭州萧山姜字热缩制品厂,杭州辉煌卫生用品有限公司),戴村镇-方溪行政村(杭州萧山戴村镇柯佳伞件厂,杭州佳锦织造厂),戴村镇-枫桥行政村(杭州萧山云峰涂料厂,中国电信股份有限公司杭州萧山区分公司),戴村镇-青山行政村(浙江华东轻钢建材有限公司,杭州强达塑胶五金厂,萧山区戴村镇云石中心小学,杭州鼎绣工艺品有限公司,杭州云石生态休闲旅游开发有限公司,浙江九龙厨具集团有限公司),戴村镇-沈村行政村(杭州家家实业有限公司,杭州银泰农旅投资发展有限公司,杭州市萧山区戴村镇人民政府)等","startTime":"2020-05-28 10:57:23","stopDate":"2020-05-28 12:30:23","orgNo":"3340130","typeCode":"电网故障停限电","poweroffArea":"110kV永兴变:云石C954线开关后段","poweroffReason":"高压架空线路断线 原停电结束时间为2020-05-28 13:57:23,为减少客户停电时间,加快工作进度,提前送电,现变更停电结束时间为2020-05-28 12:30:23","powerTime":"2020-05-28 11:41:33","powerComm":"已送电","subsNo":"","lineNo":"","tgNo":"","tgName":null,"infoStatus":"1","orgName":"国网浙江杭州市萧山区供电有限公司","typeName":null,"infoStatusName":null,"dateDay":null,"orgNos":null,"nowTime":null,"countyName":null,"streetName":null,"villageName":null,"roadName":null,"communityName":null,"tranName":null,"sdLineName":null,"cityCode":"3340130","cityName":"国网浙江杭州市萧山区供电有限公司","provinceCode":null,"stopTime":"2020-05-28 12:30:23","powerType":"全部","powerOffArea":"110kV永兴变:云石C954线开关后段","powerOffReason":"高压架空线路断线 原停电结束时间为2020-05-28 13:57:23,为减少客户停电时间,加快工作进度,提前送电,现变更停电结束时间为2020-05-28 12:30:23","powerOffId":"2020052831020130"},{"poweroffId":2020052831020124,"sgpoweroffId":null,"subsName":"","lineName":"10kV荣达A495线","pubTranName":"杭州萧山亚发轻纺有限公司,杭州欣海卫浴有限公司,杭州萧山天乐纺织有限公司,杭州汉龙金刚石工具有限公司,1#变,群益村2#变,杭州欣海卫浴有限公司,杭州杭邦塑胶有限公司3#,杭州萧山荣达化纤有限公司,众力村7#变,杭州天众纺织有限公司,杭州杭邦塑胶有限公司2#,杭州杭邦塑胶有限公司1#变压器间隔,杭州萧山成翔纺织有限公司,杭州萧山荣达化纤有限公司,杭州萧山荣达化纤有限公司,杭州天朗洁具有限公司,","scope":"浙江省-杭州市-萧山区-瓜沥镇-群益行政村-群益自然村,益农镇-众力行政村-众力自然村;瓜沥镇(杭州天朗洁具有限公司,杭州杭邦塑胶有限公司,杭州斯亚卫浴有限公司),益农镇(杭州欣海卫浴有限公司,杭州萧山成翔纺织有限公司,杭州萧山亚发轻纺有限公司,杭州萧山荣达化纤有限公司,杭州天众纺织有限公司,杭州萧山天乐纺织有限公司,杭州汉龙金刚石工具有限公司)","startTime":"2020-05-28 10:35:00","stopDate":"2020-05-28 12:35:00","orgNo":"3340130","typeCode":"电网故障停限电","poweroffArea":"110kV群围变:荣达A495线荣达A4953开关后段","poweroffReason":"高压开关跳闸","powerTime":"2020-05-28 11:38:35","powerComm":"已送电","subsNo":"","lineNo":"","tgNo":"","tgName":null,"infoStatus":"1","orgName":"国网浙江杭州市萧山区供电有限公司","typeName":null,"infoStatusName":null,"dateDay":null,"orgNos":null,"nowTime":null,"countyName":null,"streetName":null,"villageName":null,"roadName":null,"communityName":null,"tranName":null,"sdLineName":null,"cityCode":"3340130","cityName":"国网浙江杭州市萧山区供电有限公司","provinceCode":null,"stopTime":"2020-05-28 12:35:00","powerType":"全部","powerOffArea":"110kV群围变:荣达A495线荣达A4953开关后段","powerOffReason":"高压开关跳闸","powerOffId":"2020052831020124"},{"poweroffId":2020052831020103,"sgpoweroffId":null,"subsName":"","lineName":"10kV东兴D560线","pubTranName":"天时11#公变,","scope":"浙江省-杭州市-富阳区-富春街道-虎山社区(东兴路,东兴路187号),富春街道(东兴社区-东兴路,东山社区-东兴路)","startTime":"2020-05-28 09:43:32","stopDate":"2020-05-28 12:00:00","orgNo":"3340170","typeCode":"电网故障停限电","poweroffArea":"110kV春江变:东兴D560线-天时11#公变后段","poweroffReason":"(低压停电信息)低压开关跳闸","powerTime":"2020-05-28 11:51:25","powerComm":"已送电","subsNo":"","lineNo":"","tgNo":"","tgName":null,"infoStatus":"1","orgName":"国网浙江杭州市富阳区供电公司","typeName":null,"infoStatusName":null,"dateDay":null,"orgNos":null,"nowTime":null,"countyName":null,"streetName":null,"villageName":null,"roadName":null,"communityName":null,"tranName":null,"sdLineName":null,"cityCode":"3340170","cityName":"国网浙江杭州市富阳区供电公司","provinceCode":null,"stopTime":"2020-05-28 12:00:00","powerType":"全部","powerOffArea":"110kV春江变:东兴D560线-天时11#公变后段","powerOffReason":"(低压停电信息)低压开关跳闸","powerOffId":"2020052831020103"},{"poweroffId":2020052831020088,"sgpoweroffId":null,"subsName":"","lineName":"10kV夏山C258线","pubTranName":"山联村11#变,","scope":"浙江省-杭州市-萧山区-所前镇-山联行政村(夏山埭自然村,池头沈自然村,赵坞自然村)","startTime":"2020-05-28 08:59:00","stopDate":"2020-05-28 15:30:00","orgNo":"3340130","typeCode":"电网故障停限电","poweroffArea":"110kV所前变:夏山C258线山联村11#变配变","poweroffReason":"高压开关跳闸 原停电结束时间为2020-05-28 16:30:00,为减少客户停电时间,加快工作进度,提前送电,现变更停电结束时间为2020-05-28 15:30:00","powerTime":"2020-05-28 14:34:39","powerComm":"已送电","subsNo":"","lineNo":"","tgNo":"","tgName":null,"infoStatus":"1","orgName":"国网浙江杭州市萧山区供电有限公司","typeName":null,"infoStatusName":null,"dateDay":null,"orgNos":null,"nowTime":null,"countyName":null,"streetName":null,"villageName":null,"roadName":null,"communityName":null,"tranName":null,"sdLineName":null,"cityCode":"3340130","cityName":"国网浙江杭州市萧山区供电有限公司","provinceCode":null,"stopTime":"2020-05-28 15:30:00","powerType":"全部","powerOffArea":"110kV所前变:夏山C258线山联村11#变配变","powerOffReason":"高压开关跳闸 原停电结束时间为2020-05-28 16:30:00,为减少客户停电时间,加快工作进度,提前送电,现变更停电结束时间为2020-05-28 15:30:00","powerOffId":"2020052831020088"},{"poweroffId":2020052831020084,"sgpoweroffId":null,"subsName":"","lineName":"10kV灵栖Y174线","pubTranName":"南屏村上官山台区,","scope":"浙江省-杭州市-建德市-航头镇-南屏行政村(兴屏自然村,赖家自然村,上官山自然村)","startTime":"2020-05-28 08:59:00","stopDate":"2020-05-28 10:00:00","orgNo":"3340180","typeCode":"电网故障停限电","poweroffArea":"110kV航头变:灵栖Y174线南屏村上官山台区配变","poweroffReason":"(低压停电信息)低压开关跳闸 原停电结束时间为2020-05-28 10:59:00,为减少客户停电时间,加快工作进度,提前送电,现变更停电结束时间为2020-05-28 10:00:00","powerTime":"2020-05-28 09:19:24","powerComm":"已送电","subsNo":"","lineNo":"","tgNo":"","tgName":null,"infoStatus":"1","orgName":"国网浙江建德市供电有限公司","typeName":null,"infoStatusName":null,"dateDay":null,"orgNos":null,"nowTime":null,"countyName":null,"streetName":null,"villageName":null,"roadName":null,"communityName":null,"tranName":null,"sdLineName":null,"cityCode":"3340180","cityName":"国网浙江建德市供电有限公司","provinceCode":null,"stopTime":"2020-05-28 10:00:00","powerType":"全部","powerOffArea":"110kV航头变:灵栖Y174线南屏村上官山台区配变","powerOffReason":"(低压停电信息)低压开关跳闸 原停电结束时间为2020-05-28 10:59:00,为减少客户停电时间,加快工作进度,提前送电,现变更停电结束时间为2020-05-28 10:00:00","powerOffId":"2020052831020084"}],"pageModel":{"pageNow":89,"totalCount":17786,"totalPage":1779,"tableRows":0,"pageCount":10,"beginCount":880},"isExperi":"1"}