{"message":"","today":"2020-06-15","seleList":[{"poweroffId":2019110831020404,"sgpoweroffId":null,"subsName":"","lineName":"10kV横塘V173线","pubTranName":"10kV横塘村[麻泥]公变,","scope":"浙江省-杭州市-临安市-天目山镇-横塘行政村麻泥一带","startTime":"2019-11-21 08:00:00","stopDate":"2019-11-21 15:00:00","orgNo":"3340160","typeCode":"计划停电","poweroffArea":"停35kV藻溪变横塘V173线85#杆麻泥分线令克","poweroffReason":"改造","powerTime":"2019-11-21 14:50:11","powerComm":"已送电","subsNo":"","lineNo":"","tgNo":"","tgName":null,"infoStatus":"1","orgName":"国网浙江临安市供电公司","typeName":null,"infoStatusName":null,"dateDay":null,"orgNos":null,"nowTime":null,"countyName":null,"streetName":null,"villageName":null,"roadName":null,"communityName":null,"tranName":null,"sdLineName":null,"cityCode":"3340160","cityName":"国网浙江临安市供电公司","provinceCode":null,"stopTime":"2019-11-21 15:00:00","powerType":"全部","powerOffArea":"停35kV藻溪变横塘V173线85#杆麻泥分线令克","powerOffReason":"改造","powerOffId":"2019110831020404"},{"poweroffId":2019110831020402,"sgpoweroffId":null,"subsName":"","lineName":"10kV常绿D268线","pubTranName":"大章村5号村南铜坞公变,","scope":"浙江省-杭州市-富阳区-常绿镇-大章村行政村(钟家畈自然村,前田畈自然村,桐坞自然村)一带","startTime":"2019-11-19 08:50:00","stopDate":"2019-11-19 16:40:00","orgNo":"3340170","typeCode":"计划停电","poweroffArea":"35kV盛村变:常绿D268线-大章村5号村南铜坞公变后段","poweroffReason":"(低压停电信息)大章村5#村南铜坞公变人工挖洞、运杆、吊车立杆、拔杆、线路及接户线该接、三相动力表计和照明拆移等工作","powerTime":"2019-11-19 16:30:13","powerComm":"已送电","subsNo":"","lineNo":"","tgNo":"","tgName":null,"infoStatus":"1","orgName":"国网浙江杭州市富阳区供电公司","typeName":null,"infoStatusName":null,"dateDay":null,"orgNos":null,"nowTime":null,"countyName":null,"streetName":null,"villageName":null,"roadName":null,"communityName":null,"tranName":null,"sdLineName":null,"cityCode":"3340170","cityName":"国网浙江杭州市富阳区供电公司","provinceCode":null,"stopTime":"2019-11-19 16:40:00","powerType":"全部","powerOffArea":"35kV盛村变:常绿D268线-大章村5号村南铜坞公变后段","powerOffReason":"(低压停电信息)大章村5#村南铜坞公变人工挖洞、运杆、吊车立杆、拔杆、线路及接户线该接、三相动力表计和照明拆移等工作","powerOffId":"2019110831020402"},{"poweroffId":2019110831020400,"sgpoweroffId":null,"subsName":"","lineName":"10kV秋丰D985线","pubTranName":"秋丰村23#石塔上新区3公变,","scope":"浙江省-杭州市-富阳区-富春街道-秋丰行政村-秋丰自然村","startTime":"2019-11-19 13:10:00","stopDate":"2019-11-19 16:50:00","orgNo":"3340170","typeCode":"计划停电","poweroffArea":"110kV育才变:秋丰D985线-秋丰村23#石塔上新区后段","poweroffReason":"(低压停电信息)青云2019年东山村4#桥头公变等低压台区改造工程更换落户线9处，搭接等工作","powerTime":"2019-11-19 16:34:25","powerComm":"已送电","subsNo":"","lineNo":"","tgNo":"","tgName":null,"infoStatus":"1","orgName":"国网浙江杭州市富阳区供电公司","typeName":null,"infoStatusName":null,"dateDay":null,"orgNos":null,"nowTime":null,"countyName":null,"streetName":null,"villageName":null,"roadName":null,"communityName":null,"tranName":null,"sdLineName":null,"cityCode":"3340170","cityName":"国网浙江杭州市富阳区供电公司","provinceCode":null,"stopTime":"2019-11-19 16:50:00","powerType":"全部","powerOffArea":"110kV育才变:秋丰D985线-秋丰村23#石塔上新区后段","powerOffReason":"(低压停电信息)青云2019年东山村4#桥头公变等低压台区改造工程更换落户线9处，搭接等工作","powerOffId":"2019110831020400"},{"poweroffId":2019110831020396,"sgpoweroffId":null,"subsName":"","lineName":"10kV俞赵T121线","pubTranName":"上泗2号公变,","scope":"浙江省-杭州市-桐庐县-富春江镇-上四行政村-上四自然村","startTime":"2019-11-08 14:25:25","stopDate":"2019-11-08 16:30:25","orgNo":"3340150","typeCode":"电网故障停限电","poweroffArea":"110kV外董变:俞赵T121线-上泗2号公变后段","poweroffReason":"高压开关跳闸","powerTime":"2019-11-08 16:20:56","powerComm":"已送电","subsNo":"","lineNo":"","tgNo":"","tgName":null,"infoStatus":"1","orgName":"国网浙江桐庐县供电公司","typeName":null,"infoStatusName":null,"dateDay":null,"orgNos":null,"nowTime":null,"countyName":null,"streetName":null,"villageName":null,"roadName":null,"communityName":null,"tranName":null,"sdLineName":null,"cityCode":"3340150","cityName":"国网浙江桐庐县供电公司","provinceCode":null,"stopTime":"2019-11-08 16:30:25","powerType":"全部","powerOffArea":"110kV外董变:俞赵T121线-上泗2号公变后段","powerOffReason":"高压开关跳闸","powerOffId":"2019110831020396"},{"poweroffId":2019110831020390,"sgpoweroffId":null,"subsName":"","lineName":"10kV昌东D701线","pubTranName":"昌东村昌东7号金家公变,","scope":"浙江省杭州市富阳区新登镇昌东行政村金家自然村一带","startTime":"2019-11-20 07:50:00","stopDate":"2019-11-20 11:30:00","orgNo":"3340170","typeCode":"计划停电","poweroffArea":"110kV松溪变:昌东D701线-昌东村昌东7号金家公变低压开关后段","poweroffReason":"(低压停电信息)01线10-1#杆电杆移位10米1支、安装横担1付","powerTime":"2019-11-20 11:01:23","powerComm":"已送电","subsNo":"","lineNo":"","tgNo":"","tgName":null,"infoStatus":"1","orgName":"国网浙江杭州市富阳区供电公司","typeName":null,"infoStatusName":null,"dateDay":null,"orgNos":null,"nowTime":null,"countyName":null,"streetName":null,"villageName":null,"roadName":null,"communityName":null,"tranName":null,"sdLineName":null,"cityCode":"3340170","cityName":"国网浙江杭州市富阳区供电公司","provinceCode":null,"stopTime":"2019-11-20 11:30:00","powerType":"全部","powerOffArea":"110kV松溪变:昌东D701线-昌东村昌东7号金家公变低压开关后段","powerOffReason":"(低压停电信息)01线10-1#杆电杆移位10米1支、安装横担1付","powerOffId":"2019110831020390"},{"poweroffId":2019110831020389,"sgpoweroffId":null,"subsName":"","lineName":"10kV乐泉H840线","pubTranName":"永乐村王家公变,","scope":"浙江省杭州市余杭区仓前街道：永乐王家一带","startTime":"2019-11-22 09:30:00","stopDate":"2019-11-22 17:30:00","orgNo":"3340140","typeCode":"计划停电","poweroffArea":"乐泉H840线王家分线","poweroffReason":"线路消缺：乐泉H840线王家分线1-4号杆线路改道工作（带电作业配合拆搭头）","powerTime":"2019-11-22 16:59:05","powerComm":"已送电","subsNo":"","lineNo":"","tgNo":"","tgName":null,"infoStatus":"1","orgName":"国网浙江杭州市余杭区供电有限公司","typeName":null,"infoStatusName":null,"dateDay":null,"orgNos":null,"nowTime":null,"countyName":null,"streetName":null,"villageName":null,"roadName":null,"communityName":null,"tranName":null,"sdLineName":null,"cityCode":"3340140","cityName":"国网浙江杭州市余杭区供电有限公司","provinceCode":null,"stopTime":"2019-11-22 17:30:00","powerType":"全部","powerOffArea":"乐泉H840线王家分线","powerOffReason":"线路消缺：乐泉H840线王家分线1-4号杆线路改道工作（带电作业配合拆搭头）","powerOffId":"2019110831020389"},{"poweroffId":2019110831020380,"sgpoweroffId":null,"subsName":"","lineName":"10kV滨北D369线","pubTranName":"周家弄1#公变,","scope":"浙江省-杭州市-富阳区-富春街道-鹳山社区(后河西路,桂花路,周家弄,大寺弄)一带","startTime":"2019-11-20 08:30:00","stopDate":"2019-11-20 12:30:00","orgNo":"3340170","typeCode":"计划停电","poweroffArea":"110kV富鹿变:滨北D369线-周家弄1#公变后段","poweroffReason":"(低压停电信息)富阳区精品街区二期（桂花路迁改）工程：周家弄1#公变1#开关1#低压出线线路改造等工作。","powerTime":"2019-11-20 12:00:11","powerComm":"已送电","subsNo":"","lineNo":"","tgNo":"","tgName":null,"infoStatus":"1","orgName":"国网浙江杭州市富阳区供电公司","typeName":null,"infoStatusName":null,"dateDay":null,"orgNos":null,"nowTime":null,"countyName":null,"streetName":null,"villageName":null,"roadName":null,"communityName":null,"tranName":null,"sdLineName":null,"cityCode":"3340170","cityName":"国网浙江杭州市富阳区供电公司","provinceCode":null,"stopTime":"2019-11-20 12:30:00","powerType":"全部","powerOffArea":"110kV富鹿变:滨北D369线-周家弄1#公变后段","powerOffReason":"(低压停电信息)富阳区精品街区二期（桂花路迁改）工程：周家弄1#公变1#开关1#低压出线线路改造等工作。","powerOffId":"2019110831020380"},{"poweroffId":2019110831020374,"sgpoweroffId":null,"subsName":"","lineName":"10kV建华D852线","pubTranName":"山建村3#老区公变,","scope":"浙江省杭州市富阳区春江街道山建村一带","startTime":"2019-11-20 08:15:00","stopDate":"2019-11-20 16:40:00","orgNo":"3340170","typeCode":"计划停电","poweroffArea":"110kV华共变:建华D852线-山建村3#老区公变低压开关后段","poweroffReason":"(低压停电信息)江南2019年山建村5#新区公变等台区低压线路改造工程安装横担、拆装、新架导线、接户线搭接等工作","powerTime":"2019-11-20 16:30:10","powerComm":"已送电","subsNo":"","lineNo":"","tgNo":"","tgName":null,"infoStatus":"1","orgName":"国网浙江杭州市富阳区供电公司","typeName":null,"infoStatusName":null,"dateDay":null,"orgNos":null,"nowTime":null,"countyName":null,"streetName":null,"villageName":null,"roadName":null,"communityName":null,"tranName":null,"sdLineName":null,"cityCode":"3340170","cityName":"国网浙江杭州市富阳区供电公司","provinceCode":null,"stopTime":"2019-11-20 16:40:00","powerType":"全部","powerOffArea":"110kV华共变:建华D852线-山建村3#老区公变低压开关后段","powerOffReason":"(低压停电信息)江南2019年山建村5#新区公变等台区低压线路改造工程安装横担、拆装、新架导线、接户线搭接等工作","powerOffId":"2019110831020374"},{"poweroffId":2019110831020368,"sgpoweroffId":null,"subsName":"","lineName":"10kV大厦G654线","pubTranName":"中建一局集团建设发展有限公司,杭州市余杭区第五人民医院1#,江苏雷威建设工程有限公司（6110217143）03号专变,信用联社(双路常供)2#,南泵站,博物馆（双路常供）1#,杭州市余杭区第五人民医院2#,5#,江苏雷威建设工程有限公司（6110217143）02号专变,","scope":"浙江省杭州市余杭区南苑街道：中建一局基建变、南泵站一带","startTime":"2019-11-22 08:30:00","stopDate":"2019-11-22 16:30:00","orgNo":"3340140","typeCode":"计划停电","poweroffArea":"110kV南苑变:广和开关站大厦G654线信联1#分支箱分线。","poweroffReason":"广和开关站大厦G654线信联1#分支箱分线信联1#分支箱用户割接至博物开关站II段丽景G646线。原停电结束时间为2019-11-22 17:00:00,为减少客户停电时间,加快工作进度,提前送电,现变更停电结束时间为2019-11-22 16:30:00","powerTime":"2019-11-22 15:33:00","powerComm":"已送电","subsNo":"","lineNo":"","tgNo":"","tgName":null,"infoStatus":"1","orgName":"国网浙江杭州市余杭区供电有限公司","typeName":null,"infoStatusName":null,"dateDay":null,"orgNos":null,"nowTime":null,"countyName":null,"streetName":null,"villageName":null,"roadName":null,"communityName":null,"tranName":null,"sdLineName":null,"cityCode":"3340140","cityName":"国网浙江杭州市余杭区供电有限公司","provinceCode":null,"stopTime":"2019-11-22 16:30:00","powerType":"全部","powerOffArea":"110kV南苑变:广和开关站大厦G654线信联1#分支箱分线。","powerOffReason":"广和开关站大厦G654线信联1#分支箱分线信联1#分支箱用户割接至博物开关站II段丽景G646线。原停电结束时间为2019-11-22 17:00:00,为减少客户停电时间,加快工作进度,提前送电,现变更停电结束时间为2019-11-22 16:30:00","powerOffId":"2019110831020368"},{"poweroffId":2019110831020367,"sgpoweroffId":null,"subsName":"","lineName":"10kV交通D364线","pubTranName":"秋丰村孙家弄4#公变,","scope":"浙江省-杭州市-富阳区-富春街道-秋丰行政村-秋丰自然村","startTime":"2019-11-20 07:30:00","stopDate":"2019-11-20 16:50:00","orgNo":"3340170","typeCode":"计划停电","poweroffArea":"110kV富鹿变:交通D364线-秋丰村孙家弄后段","poweroffReason":"(低压停电信息)青云2019年东山村4#桥头公变等低压台区改造工程更换落户线38处，搭接等工作","powerTime":"2019-11-20 16:30:21","powerComm":"已送电","subsNo":"","lineNo":"","tgNo":"","tgName":null,"infoStatus":"1","orgName":"国网浙江杭州市富阳区供电公司","typeName":null,"infoStatusName":null,"dateDay":null,"orgNos":null,"nowTime":null,"countyName":null,"streetName":null,"villageName":null,"roadName":null,"communityName":null,"tranName":null,"sdLineName":null,"cityCode":"3340170","cityName":"国网浙江杭州市富阳区供电公司","provinceCode":null,"stopTime":"2019-11-20 16:50:00","powerType":"全部","powerOffArea":"110kV富鹿变:交通D364线-秋丰村孙家弄后段","powerOffReason":"(低压停电信息)青云2019年东山村4#桥头公变等低压台区改造工程更换落户线38处，搭接等工作","powerOffId":"2019110831020367"}],"pageModel":{"pageNow":894,"totalCount":17789,"totalPage":1779,"tableRows":0,"pageCount":10,"beginCount":8930},"isExperi":"1"}