{"message":"","today":"2020-06-15","seleList":[{"poweroffId":2019110831020366,"sgpoweroffId":null,"subsName":"","lineName":"10kV灵山D143线","pubTranName":"九二村2#何家坞公变,","scope":"浙江省杭州市富阳区新登镇九二行政村何家坞自然村一带","startTime":"2019-11-20 12:30:00","stopDate":"2019-11-20 17:00:00","orgNo":"3340170","typeCode":"计划停电","poweroffArea":"110kV新登变:灵山D143线-九二村2#何家坞公变低压开关后段","poweroffReason":"(低压停电信息)鲍家岭04线、深塘坞01线、何家坞02线拆除出线电缆VLV-4*120三路、敷设出线电缆YJV-4*150三路、何家坞02线拆除JKLYJ-120*4*1档、架设JKLYJ-120*4*1档电缆搭接、导线搭接","powerTime":"2019-11-20 16:30:30","powerComm":"已送电","subsNo":"","lineNo":"","tgNo":"","tgName":null,"infoStatus":"1","orgName":"国网浙江杭州市富阳区供电公司","typeName":null,"infoStatusName":null,"dateDay":null,"orgNos":null,"nowTime":null,"countyName":null,"streetName":null,"villageName":null,"roadName":null,"communityName":null,"tranName":null,"sdLineName":null,"cityCode":"3340170","cityName":"国网浙江杭州市富阳区供电公司","provinceCode":null,"stopTime":"2019-11-20 17:00:00","powerType":"全部","powerOffArea":"110kV新登变:灵山D143线-九二村2#何家坞公变低压开关后段","powerOffReason":"(低压停电信息)鲍家岭04线、深塘坞01线、何家坞02线拆除出线电缆VLV-4*120三路、敷设出线电缆YJV-4*150三路、何家坞02线拆除JKLYJ-120*4*1档、架设JKLYJ-120*4*1档电缆搭接、导线搭接","powerOffId":"2019110831020366"},{"poweroffId":2019110831020363,"sgpoweroffId":null,"subsName":"","lineName":"10kV新阳D841线","pubTranName":"新浦村二联2号凌家公变,","scope":"浙江省杭州市富阳区渌渚镇新浦行政村二联凌家自然村一带","startTime":"2019-11-23 08:00:00","stopDate":"2019-11-23 17:00:00","orgNo":"3340170","typeCode":"计划停电","poweroffArea":"110kV新桐变:新阳D841线-新浦村二联2号凌家公变低压开关后段","poweroffReason":"(低压停电信息)安装出线电缆YJV22-4*95*20米一路、架设BS-JKLYJ-4*70*5档、搭接5处等工作。 原停电结束时间为2019-11-20 17:00:00,因政策原因,现变更停电结束时间为2019-11-23 17:00:00","powerTime":"","powerComm":"","subsNo":"","lineNo":"","tgNo":"","tgName":null,"infoStatus":"1","orgName":"国网浙江杭州市富阳区供电公司","typeName":null,"infoStatusName":null,"dateDay":null,"orgNos":null,"nowTime":null,"countyName":null,"streetName":null,"villageName":null,"roadName":null,"communityName":null,"tranName":null,"sdLineName":null,"cityCode":"3340170","cityName":"国网浙江杭州市富阳区供电公司","provinceCode":null,"stopTime":"2019-11-23 17:00:00","powerType":"未送电","powerOffArea":"110kV新桐变:新阳D841线-新浦村二联2号凌家公变低压开关后段","powerOffReason":"(低压停电信息)安装出线电缆YJV22-4*95*20米一路、架设BS-JKLYJ-4*70*5档、搭接5处等工作。 原停电结束时间为2019-11-20 17:00:00,因政策原因,现变更停电结束时间为2019-11-23 17:00:00","powerOffId":"2019110831020363"},{"poweroffId":2019110831020360,"sgpoweroffId":null,"subsName":"","lineName":"10kV交通D364线","pubTranName":"秋丰村55号孙家弄公变,","scope":"浙江省-杭州市-富阳区-富春街道-秋丰行政村-秋丰自然村","startTime":"2019-11-21 07:30:00","stopDate":"2019-11-21 12:00:00","orgNo":"3340170","typeCode":"计划停电","poweroffArea":"110kV富鹿变:交通D364线-秋丰村55号孙家弄后段","poweroffReason":"(低压停电信息)青云2019年东山村4#桥头公变等低压台区改造工程更换落户线13处，搭接等工作","powerTime":"2019-11-21 11:45:14","powerComm":"已送电","subsNo":"","lineNo":"","tgNo":"","tgName":null,"infoStatus":"1","orgName":"国网浙江杭州市富阳区供电公司","typeName":null,"infoStatusName":null,"dateDay":null,"orgNos":null,"nowTime":null,"countyName":null,"streetName":null,"villageName":null,"roadName":null,"communityName":null,"tranName":null,"sdLineName":null,"cityCode":"3340170","cityName":"国网浙江杭州市富阳区供电公司","provinceCode":null,"stopTime":"2019-11-21 12:00:00","powerType":"全部","powerOffArea":"110kV富鹿变:交通D364线-秋丰村55号孙家弄后段","powerOffReason":"(低压停电信息)青云2019年东山村4#桥头公变等低压台区改造工程更换落户线13处，搭接等工作","powerOffId":"2019110831020360"},{"poweroffId":2019110831020357,"sgpoweroffId":null,"subsName":"","lineName":"10kV园北D945线","pubTranName":"长山村4号湖后头公变,","scope":"浙江省-杭州市-富阳区-银湖街道-观前行政村(周公坞自然村,长山自然村,湖后头自然村,大长山自然村)","startTime":"2019-11-21 08:00:00","stopDate":"2019-11-21 16:30:00","orgNo":"3340170","typeCode":"计划停电","poweroffArea":"110kV育才变:园北D945线-长山村4号湖后头公变低压开关后段","poweroffReason":"(低压停电信息)更换导线3档，更换接户线27处，搭接等工作。（迎东2019年峡岭村3#周家坛公变等配电线路及设备大修工程）","powerTime":"2019-11-21 16:15:15","powerComm":"已送电","subsNo":"","lineNo":"","tgNo":"","tgName":null,"infoStatus":"1","orgName":"国网浙江杭州市富阳区供电公司","typeName":null,"infoStatusName":null,"dateDay":null,"orgNos":null,"nowTime":null,"countyName":null,"streetName":null,"villageName":null,"roadName":null,"communityName":null,"tranName":null,"sdLineName":null,"cityCode":"3340170","cityName":"国网浙江杭州市富阳区供电公司","provinceCode":null,"stopTime":"2019-11-21 16:30:00","powerType":"全部","powerOffArea":"110kV育才变:园北D945线-长山村4号湖后头公变低压开关后段","powerOffReason":"(低压停电信息)更换导线3档，更换接户线27处，搭接等工作。（迎东2019年峡岭村3#周家坛公变等配电线路及设备大修工程）","powerOffId":"2019110831020357"},{"poweroffId":2019110831020354,"sgpoweroffId":null,"subsName":"","lineName":"10kV夕照930线","pubTranName":"塘三变,","scope":"浙江省杭州市上城区常青幼儿园、夕照社区活动中心、北二居委会、西二居委会、夕照新村31、32、33、41、42幢附近一带。","startTime":"2019-11-22 09:30:00","stopDate":"2019-11-22 11:30:00","orgNo":"3340101","typeCode":"计划停电","poweroffArea":"110kV秋涛变:夕照930线-塘三变线后段","poweroffReason":"浙江省杭州市江干区采荷街道夕照新村41-7号 低压非居民新装 原停电结束时间为2019-11-22 17:30:00,为减少客户停电时间,加快工作进度,提前送电,现变更停电结束时间为2019-11-22 11:30:00","powerTime":"2019-11-22 10:47:59","powerComm":"已送电","subsNo":"","lineNo":"","tgNo":"","tgName":null,"infoStatus":"1","orgName":"浙江杭州电力客户服务中心","typeName":null,"infoStatusName":null,"dateDay":null,"orgNos":null,"nowTime":null,"countyName":null,"streetName":null,"villageName":null,"roadName":null,"communityName":null,"tranName":null,"sdLineName":null,"cityCode":"3340101","cityName":"浙江杭州电力客户服务中心","provinceCode":null,"stopTime":"2019-11-22 11:30:00","powerType":"全部","powerOffArea":"110kV秋涛变:夕照930线-塘三变线后段","powerOffReason":"浙江省杭州市江干区采荷街道夕照新村41-7号 低压非居民新装 原停电结束时间为2019-11-22 17:30:00,为减少客户停电时间,加快工作进度,提前送电,现变更停电结束时间为2019-11-22 11:30:00","powerOffId":"2019110831020354"},{"poweroffId":2019110831020352,"sgpoweroffId":null,"subsName":"","lineName":"10kV湘岭D714线","pubTranName":"官塘村外官5号弯里公变,","scope":"浙江省杭州市富阳区新登镇官塘行政村弯里自然村一带","startTime":"2019-11-21 07:50:00","stopDate":"2019-11-21 16:30:00","orgNo":"3340170","typeCode":"计划停电","poweroffArea":"110kV松溪变:湘岭D714线-官塘村外官5号弯里公变低压开关后段","poweroffReason":"(低压停电信息)照明01线架设导线JKLYJ-70*4*10档、拆除JKLYJ-70*4*10档、安装横担10付、拉线2支、拆除旧横担、拉线、人工拔杆10支、人工运杆10支","powerTime":"2019-11-21 16:15:29","powerComm":"已送电","subsNo":"","lineNo":"","tgNo":"","tgName":null,"infoStatus":"1","orgName":"国网浙江杭州市富阳区供电公司","typeName":null,"infoStatusName":null,"dateDay":null,"orgNos":null,"nowTime":null,"countyName":null,"streetName":null,"villageName":null,"roadName":null,"communityName":null,"tranName":null,"sdLineName":null,"cityCode":"3340170","cityName":"国网浙江杭州市富阳区供电公司","provinceCode":null,"stopTime":"2019-11-21 16:30:00","powerType":"全部","powerOffArea":"110kV松溪变:湘岭D714线-官塘村外官5号弯里公变低压开关后段","powerOffReason":"(低压停电信息)照明01线架设导线JKLYJ-70*4*10档、拆除JKLYJ-70*4*10档、安装横担10付、拉线2支、拆除旧横担、拉线、人工拔杆10支、人工运杆10支","powerOffId":"2019110831020352"},{"poweroffId":2019110831020350,"sgpoweroffId":null,"subsName":"","lineName":"10kV交通D364线","pubTranName":"秋丰村61号孙家弄公变,","scope":"浙江省-杭州市-富阳区-富春街道-秋丰行政村-秋丰自然村","startTime":"2019-11-21 12:30:00","stopDate":"2019-11-21 16:50:00","orgNo":"3340170","typeCode":"计划停电","poweroffArea":"110kV富鹿变:交通D364线-秋丰村61号孙家弄后段","poweroffReason":"(低压停电信息)青云2019年东山村4#桥头公变等低压台区改造工程更换落户线17处，搭接等工作","powerTime":"2019-11-21 16:30:12","powerComm":"已送电","subsNo":"","lineNo":"","tgNo":"","tgName":null,"infoStatus":"1","orgName":"国网浙江杭州市富阳区供电公司","typeName":null,"infoStatusName":null,"dateDay":null,"orgNos":null,"nowTime":null,"countyName":null,"streetName":null,"villageName":null,"roadName":null,"communityName":null,"tranName":null,"sdLineName":null,"cityCode":"3340170","cityName":"国网浙江杭州市富阳区供电公司","provinceCode":null,"stopTime":"2019-11-21 16:50:00","powerType":"全部","powerOffArea":"110kV富鹿变:交通D364线-秋丰村61号孙家弄后段","powerOffReason":"(低压停电信息)青云2019年东山村4#桥头公变等低压台区改造工程更换落户线17处，搭接等工作","powerOffId":"2019110831020350"},{"poweroffId":2019110831020349,"sgpoweroffId":null,"subsName":"","lineName":"10kV交通D364线","pubTranName":"秋丰村24#孙家弄2#公变,","scope":"浙江省-杭州市-富阳区-富春街道-秋丰行政村-秋丰自然村","startTime":"2019-11-22 07:30:00","stopDate":"2019-11-22 13:20:00","orgNo":"3340170","typeCode":"计划停电","poweroffArea":"110kV富鹿变:交通D364线-秋丰村24#孙家弄后段","poweroffReason":"(低压停电信息)青云2019年东山村4#桥头公变等低压台区改造工程更换落户线20处，搭接等工作","powerTime":"2019-11-22 13:06:38","powerComm":"已送电","subsNo":"","lineNo":"","tgNo":"","tgName":null,"infoStatus":"1","orgName":"国网浙江杭州市富阳区供电公司","typeName":null,"infoStatusName":null,"dateDay":null,"orgNos":null,"nowTime":null,"countyName":null,"streetName":null,"villageName":null,"roadName":null,"communityName":null,"tranName":null,"sdLineName":null,"cityCode":"3340170","cityName":"国网浙江杭州市富阳区供电公司","provinceCode":null,"stopTime":"2019-11-22 13:20:00","powerType":"全部","powerOffArea":"110kV富鹿变:交通D364线-秋丰村24#孙家弄后段","powerOffReason":"(低压停电信息)青云2019年东山村4#桥头公变等低压台区改造工程更换落户线20处，搭接等工作","powerOffId":"2019110831020349"},{"poweroffId":2019110831020347,"sgpoweroffId":null,"subsName":"","lineName":"10kV十月D225线","pubTranName":"沈家坞1号坑东公变,","scope":"浙江省-杭州市-富阳区-银湖街道-沈家坞行政村(沈家坞自然村,筱岭自然村,坑东自然村,外沈家坞自然村)","startTime":"2019-11-22 08:00:00","stopDate":"2019-11-22 13:30:00","orgNo":"3340170","typeCode":"计划停电","poweroffArea":"110kV银湖变:十月D225线-沈家坞1号坑东公变低压开关后段","poweroffReason":"(低压停电信息)拔旧电杆1根，新装水平拉线1组，新架BS4*35*1档，更换接户线5处，搭接等工作。 （迎东2019年峡岭村3#周家坛公变等配电线路及设备大修工程）","powerTime":"2019-11-22 13:15:14","powerComm":"已送电","subsNo":"","lineNo":"","tgNo":"","tgName":null,"infoStatus":"1","orgName":"国网浙江杭州市富阳区供电公司","typeName":null,"infoStatusName":null,"dateDay":null,"orgNos":null,"nowTime":null,"countyName":null,"streetName":null,"villageName":null,"roadName":null,"communityName":null,"tranName":null,"sdLineName":null,"cityCode":"3340170","cityName":"国网浙江杭州市富阳区供电公司","provinceCode":null,"stopTime":"2019-11-22 13:30:00","powerType":"全部","powerOffArea":"110kV银湖变:十月D225线-沈家坞1号坑东公变低压开关后段","powerOffReason":"(低压停电信息)拔旧电杆1根，新装水平拉线1组，新架BS4*35*1档，更换接户线5处，搭接等工作。 （迎东2019年峡岭村3#周家坛公变等配电线路及设备大修工程）","powerOffId":"2019110831020347"},{"poweroffId":2019110831020345,"sgpoweroffId":null,"subsName":"","lineName":"10kV湘岭D714线","pubTranName":"官塘村外官3#落家亭公变,","scope":"浙江省杭州市富阳区新登镇官塘行政村骆家亭自然村一带","startTime":"2019-11-22 07:50:00","stopDate":"2019-11-22 16:30:00","orgNo":"3340170","typeCode":"计划停电","poweroffArea":"110kV松溪变:湘岭D714线-官塘村外官3#落家亭公变低压开关后段","poweroffReason":"(低压停电信息)照明01线架设导线JKLYJ-70*4*5档、拆除JKLYJ-70*4*8档、安装横担6付、拉线3支、拆除旧横担、拉线、人工拔杆10支、人工运杆10支","powerTime":"2019-11-22 16:15:19","powerComm":"已送电","subsNo":"","lineNo":"","tgNo":"","tgName":null,"infoStatus":"1","orgName":"国网浙江杭州市富阳区供电公司","typeName":null,"infoStatusName":null,"dateDay":null,"orgNos":null,"nowTime":null,"countyName":null,"streetName":null,"villageName":null,"roadName":null,"communityName":null,"tranName":null,"sdLineName":null,"cityCode":"3340170","cityName":"国网浙江杭州市富阳区供电公司","provinceCode":null,"stopTime":"2019-11-22 16:30:00","powerType":"全部","powerOffArea":"110kV松溪变:湘岭D714线-官塘村外官3#落家亭公变低压开关后段","powerOffReason":"(低压停电信息)照明01线架设导线JKLYJ-70*4*5档、拆除JKLYJ-70*4*8档、安装横担6付、拉线3支、拆除旧横担、拉线、人工拔杆10支、人工运杆10支","powerOffId":"2019110831020345"}],"pageModel":{"pageNow":895,"totalCount":17789,"totalPage":1779,"tableRows":0,"pageCount":10,"beginCount":8940},"isExperi":"1"}