{"message":"","today":"2020-06-15","seleList":[{"poweroffId":2019110831020342,"sgpoweroffId":null,"subsName":"","lineName":"10kV上官D265线","pubTranName":"剡溪村3#睦村乡政府公变,","scope":"浙江省-杭州市-富阳区-上官乡-剡溪行政村-睦村自然村一带","startTime":"2019-11-22 08:40:00","stopDate":"2019-11-22 16:40:00","orgNo":"3340170","typeCode":"计划停电","poweroffArea":"35kV盛村变:上官D265线-剡溪村3#睦村乡政府公变后段","poweroffReason":"(低压停电信息)剡溪村3#睦村乡政府公变打E架、放接户线、及接户线改接等工作","powerTime":"2019-11-22 16:25:13","powerComm":"已送电","subsNo":"","lineNo":"","tgNo":"","tgName":null,"infoStatus":"1","orgName":"国网浙江杭州市富阳区供电公司","typeName":null,"infoStatusName":null,"dateDay":null,"orgNos":null,"nowTime":null,"countyName":null,"streetName":null,"villageName":null,"roadName":null,"communityName":null,"tranName":null,"sdLineName":null,"cityCode":"3340170","cityName":"国网浙江杭州市富阳区供电公司","provinceCode":null,"stopTime":"2019-11-22 16:40:00","powerType":"全部","powerOffArea":"35kV盛村变:上官D265线-剡溪村3#睦村乡政府公变后段","powerOffReason":"(低压停电信息)剡溪村3#睦村乡政府公变打E架、放接户线、及接户线改接等工作","powerOffId":"2019110831020342"},{"poweroffId":2019110831020341,"sgpoweroffId":null,"subsName":"","lineName":"10kV三溪D337线","pubTranName":"三溪村6#大塔地公变,","scope":"浙江省杭州市富阳区洞桥镇三溪行政村大塔地自然村一带","startTime":"2019-11-18 07:50:00","stopDate":"2019-11-18 16:30:00","orgNo":"3340170","typeCode":"计划停电","poweroffArea":"110kV万市变:三溪D337线-三溪村6#大塔地公变低压开关后段","poweroffReason":"(低压停电信息)大塔地01线、大塔地02线、大塔地03线、架设导线架JKLYJ-120*4*10档、JKLYJ-70*4*5档、拆除导线JKLYJ-120*4*8档、JKLYJ-70*4*4档、安装横担、拉线、拆除旧横担、拉线、导线搭接","powerTime":"2019-11-18 16:20:29","powerComm":"已送电","subsNo":"","lineNo":"","tgNo":"","tgName":null,"infoStatus":"1","orgName":"国网浙江杭州市富阳区供电公司","typeName":null,"infoStatusName":null,"dateDay":null,"orgNos":null,"nowTime":null,"countyName":null,"streetName":null,"villageName":null,"roadName":null,"communityName":null,"tranName":null,"sdLineName":null,"cityCode":"3340170","cityName":"国网浙江杭州市富阳区供电公司","provinceCode":null,"stopTime":"2019-11-18 16:30:00","powerType":"全部","powerOffArea":"110kV万市变:三溪D337线-三溪村6#大塔地公变低压开关后段","powerOffReason":"(低压停电信息)大塔地01线、大塔地02线、大塔地03线、架设导线架JKLYJ-120*4*10档、JKLYJ-70*4*5档、拆除导线JKLYJ-120*4*8档、JKLYJ-70*4*4档、安装横担、拉线、拆除旧横担、拉线、导线搭接","powerOffId":"2019110831020341"},{"poweroffId":2019110831020313,"sgpoweroffId":null,"subsName":"","lineName":"10kV新座8508线","pubTranName":"庆杭物资1#,1,金欣,金桂,文村,城乡(一),云桂,蓝顿(一),丹桂,蓝顿南1#,蓝顿(三),2,","scope":"浙江省-杭州市-西湖区-古荡街道-莲花社区-古墩路97号,文新街道-桂花园社区(文三西路,金丹路,古墩路),古荡街道-古墩社区(古墩路,古墩路97号),古荡街道-嘉荷社区(古墩路,古墩路97号,古墩路83号);文新街道-沁雅社区-杭州桑梓物业有限公司,古荡街道-莲花社区-杭州蓝戴物业管理有限公司","startTime":"2019-11-08 13:41:12","stopDate":"2019-11-08 14:25:12","orgNo":"3340101","typeCode":"电网故障停限电","poweroffArea":"110kV文三变:新座8508线","poweroffReason":"高压开关跳闸 原停电结束时间为2019-11-08 19:41:12,为减少客户停电时间,加快工作进度,提前送电,现变更停电结束时间为2019-11-08 14:25:12","powerTime":"2019-11-08 13:56:50","powerComm":"已送电","subsNo":"","lineNo":"","tgNo":"","tgName":null,"infoStatus":"1","orgName":"浙江杭州电力客户服务中心","typeName":null,"infoStatusName":null,"dateDay":null,"orgNos":null,"nowTime":null,"countyName":null,"streetName":null,"villageName":null,"roadName":null,"communityName":null,"tranName":null,"sdLineName":null,"cityCode":"3340101","cityName":"浙江杭州电力客户服务中心","provinceCode":null,"stopTime":"2019-11-08 14:25:12","powerType":"全部","powerOffArea":"110kV文三变:新座8508线","powerOffReason":"高压开关跳闸 原停电结束时间为2019-11-08 19:41:12,为减少客户停电时间,加快工作进度,提前送电,现变更停电结束时间为2019-11-08 14:25:12","powerOffId":"2019110831020313"},{"poweroffId":2019110831020306,"sgpoweroffId":null,"subsName":"","lineName":"10kV里湖T424线","pubTranName":"里湖化纤织造厂,里湖溪边1号公变,桐庐星晨纸业有限公司,桐庐鸿星制笔有限公司,","scope":"浙江省-杭州市-桐庐县-分水镇-里湖行政村(虹桥自然村,里湖自然村,溪边自然村);分水镇-里湖行政村(桐庐星晨纸业有限公司,桐庐鸿星制笔有限公司,分水里湖化纤织造厂)","startTime":"2019-11-18 08:00:00","stopDate":"2019-11-18 12:00:00","orgNo":"3340150","typeCode":"计划停电","poweroffArea":"110kV天英变:里湖T424线-里溪F4152后段","poweroffReason":"杭州桐庐分水城西园区1号等台区配变及低压线路改造工程","powerTime":"2019-11-18 11:43:37","powerComm":"已送电","subsNo":"","lineNo":"","tgNo":"","tgName":null,"infoStatus":"1","orgName":"国网浙江桐庐县供电公司","typeName":null,"infoStatusName":null,"dateDay":null,"orgNos":null,"nowTime":null,"countyName":null,"streetName":null,"villageName":null,"roadName":null,"communityName":null,"tranName":null,"sdLineName":null,"cityCode":"3340150","cityName":"国网浙江桐庐县供电公司","provinceCode":null,"stopTime":"2019-11-18 12:00:00","powerType":"全部","powerOffArea":"110kV天英变:里湖T424线-里溪F4152后段","powerOffReason":"杭州桐庐分水城西园区1号等台区配变及低压线路改造工程","powerOffId":"2019110831020306"},{"poweroffId":2019110831020305,"sgpoweroffId":null,"subsName":"","lineName":"10kV站用T176线","pubTranName":"保安义林1号公变,","scope":"浙江省-杭州市-桐庐县-分水镇-保安行政村-义林自然村","startTime":"2019-11-19 08:00:00","stopDate":"2019-11-19 12:00:00","orgNo":"3340150","typeCode":"计划停电","poweroffArea":"110kV分水变:站用T176线-义林F4924令克后段","poweroffReason":"杭州桐庐分水滨江公寓1号等台区配变及低压线路改造工程","powerTime":"2019-11-19 11:35:56","powerComm":"已送电","subsNo":"","lineNo":"","tgNo":"","tgName":null,"infoStatus":"1","orgName":"国网浙江桐庐县供电公司","typeName":null,"infoStatusName":null,"dateDay":null,"orgNos":null,"nowTime":null,"countyName":null,"streetName":null,"villageName":null,"roadName":null,"communityName":null,"tranName":null,"sdLineName":null,"cityCode":"3340150","cityName":"国网浙江桐庐县供电公司","provinceCode":null,"stopTime":"2019-11-19 12:00:00","powerType":"全部","powerOffArea":"110kV分水变:站用T176线-义林F4924令克后段","powerOffReason":"杭州桐庐分水滨江公寓1号等台区配变及低压线路改造工程","powerOffId":"2019110831020305"},{"poweroffId":2019110831020304,"sgpoweroffId":null,"subsName":"","lineName":"10kV东溪T171线","pubTranName":"东溪供销社1号公变,","scope":"浙江省-杭州市-桐庐县-分水镇-塘源行政村-塘源自然村,分水镇-东溪行政村(张家山自然村,柏山自然村,东溪自然村,吴家山自然村,新安自然村,沈家畈自然村,新淳东路,铁路坑自然村)","startTime":"2019-11-19 13:00:00","stopDate":"2019-11-19 17:00:00","orgNo":"3340150","typeCode":"计划停电","poweroffArea":"110kV分水变:东溪T171线-销社3441负荷开关后段","poweroffReason":"杭州桐庐分水滨江公寓1号等台区配变及低压线路改造工程","powerTime":"2019-11-19 16:34:32","powerComm":"已送电","subsNo":"","lineNo":"","tgNo":"","tgName":null,"infoStatus":"1","orgName":"国网浙江桐庐县供电公司","typeName":null,"infoStatusName":null,"dateDay":null,"orgNos":null,"nowTime":null,"countyName":null,"streetName":null,"villageName":null,"roadName":null,"communityName":null,"tranName":null,"sdLineName":null,"cityCode":"3340150","cityName":"国网浙江桐庐县供电公司","provinceCode":null,"stopTime":"2019-11-19 17:00:00","powerType":"全部","powerOffArea":"110kV分水变:东溪T171线-销社3441负荷开关后段","powerOffReason":"杭州桐庐分水滨江公寓1号等台区配变及低压线路改造工程","powerOffId":"2019110831020304"},{"poweroffId":2019110831020303,"sgpoweroffId":null,"subsName":"","lineName":"10kV城北T174线","pubTranName":"广电1号公变,","scope":"浙江省-杭州市-桐庐县-分水镇-城西行政村-新淳路,分水镇-武盛行政村(东梓坞自然村,玉泉自然村,武盛自然村,广电路,新淳路),分水镇-玉华社区(广电路,新淳路,玉泉路,院士路)","startTime":"2019-11-20 07:30:00","stopDate":"2019-11-20 11:30:00","orgNo":"3340150","typeCode":"计划停电","poweroffArea":"110kV分水变:城北T174线-广公3434线后段","poweroffReason":"杭州桐庐分水滨江公寓1号等台区配变及低压线路改造工程","powerTime":"2019-11-20 11:12:12","powerComm":"已送电","subsNo":"","lineNo":"","tgNo":"","tgName":null,"infoStatus":"1","orgName":"国网浙江桐庐县供电公司","typeName":null,"infoStatusName":null,"dateDay":null,"orgNos":null,"nowTime":null,"countyName":null,"streetName":null,"villageName":null,"roadName":null,"communityName":null,"tranName":null,"sdLineName":null,"cityCode":"3340150","cityName":"国网浙江桐庐县供电公司","provinceCode":null,"stopTime":"2019-11-20 11:30:00","powerType":"全部","powerOffArea":"110kV分水变:城北T174线-广公3434线后段","powerOffReason":"杭州桐庐分水滨江公寓1号等台区配变及低压线路改造工程","powerOffId":"2019110831020303"},{"poweroffId":2019110831020301,"sgpoweroffId":null,"subsName":"","lineName":"10kV里湖T424线","pubTranName":"天英2号公变,","scope":"浙江省-杭州市-桐庐县-分水镇-天英行政村(中度自然村,天英自然村)","startTime":"2019-11-20 08:00:00","stopDate":"2019-11-20 12:00:00","orgNo":"3340150","typeCode":"计划停电","poweroffArea":"110kV天英变:里湖T424线-天中F4105令克后段","poweroffReason":"杭州桐庐分水城西园区1号等台区配变及低压线路改造工程","powerTime":"2019-11-20 11:41:46","powerComm":"已送电","subsNo":"","lineNo":"","tgNo":"","tgName":null,"infoStatus":"1","orgName":"国网浙江桐庐县供电公司","typeName":null,"infoStatusName":null,"dateDay":null,"orgNos":null,"nowTime":null,"countyName":null,"streetName":null,"villageName":null,"roadName":null,"communityName":null,"tranName":null,"sdLineName":null,"cityCode":"3340150","cityName":"国网浙江桐庐县供电公司","provinceCode":null,"stopTime":"2019-11-20 12:00:00","powerType":"全部","powerOffArea":"110kV天英变:里湖T424线-天中F4105令克后段","powerOffReason":"杭州桐庐分水城西园区1号等台区配变及低压线路改造工程","powerOffId":"2019110831020301"},{"poweroffId":2019110831020291,"sgpoweroffId":null,"subsName":"","lineName":"10kV城后V512线","pubTranName":"10kV逸逸村[逸村制炭厂]公变,","scope":"浙江省-杭州市-临安市-於潜镇-逸村制炭厂一带","startTime":"2019-11-19 08:50:00","stopDate":"2019-11-19 16:10:00","orgNo":"3340160","typeCode":"计划停电","poweroffArea":"城后V512线96#杆逸逸村（逸村制炭厂）公变低压","poweroffReason":"配合城后V512线、牧亭V511线98#杆带电作业","powerTime":"2019-11-19 15:59:54","powerComm":"已送电","subsNo":"","lineNo":"","tgNo":"","tgName":null,"infoStatus":"1","orgName":"国网浙江临安市供电公司","typeName":null,"infoStatusName":null,"dateDay":null,"orgNos":null,"nowTime":null,"countyName":null,"streetName":null,"villageName":null,"roadName":null,"communityName":null,"tranName":null,"sdLineName":null,"cityCode":"3340160","cityName":"国网浙江临安市供电公司","provinceCode":null,"stopTime":"2019-11-19 16:10:00","powerType":"全部","powerOffArea":"城后V512线96#杆逸逸村（逸村制炭厂）公变低压","powerOffReason":"配合城后V512线、牧亭V511线98#杆带电作业","powerOffId":"2019110831020291"},{"poweroffId":2019110831020290,"sgpoweroffId":null,"subsName":"","lineName":"10kV横路V128线","pubTranName":"10kV凌口桥村[桥北凌口]公变,","scope":"浙江省-杭州市-临安市-於潜镇-桥北凌口一带","startTime":"2019-11-20 08:20:00","stopDate":"2019-11-20 15:40:00","orgNo":"3340160","typeCode":"计划停电","poweroffArea":"横路V128线凌口桥村（桥北凌口）公变低压","poweroffReason":"下埠V503线、横路V128线后段改造：配合新55#-62#杆耐张段调横担、架线","powerTime":"2019-11-20 15:30:11","powerComm":"已送电","subsNo":"","lineNo":"","tgNo":"","tgName":null,"infoStatus":"1","orgName":"国网浙江临安市供电公司","typeName":null,"infoStatusName":null,"dateDay":null,"orgNos":null,"nowTime":null,"countyName":null,"streetName":null,"villageName":null,"roadName":null,"communityName":null,"tranName":null,"sdLineName":null,"cityCode":"3340160","cityName":"国网浙江临安市供电公司","provinceCode":null,"stopTime":"2019-11-20 15:40:00","powerType":"全部","powerOffArea":"横路V128线凌口桥村（桥北凌口）公变低压","powerOffReason":"下埠V503线、横路V128线后段改造：配合新55#-62#杆耐张段调横担、架线","powerOffId":"2019110831020290"}],"pageModel":{"pageNow":896,"totalCount":17789,"totalPage":1779,"tableRows":0,"pageCount":10,"beginCount":8950},"isExperi":"1"}