{"message":"","today":"2020-06-15","seleList":[{"poweroffId":2019110831020165,"sgpoweroffId":null,"subsName":"","lineName":"10kV梅灵6307线","pubTranName":"梅村四变,","scope":"浙江省杭州市西湖区梅灵南路梅家坞282号至297号一带","startTime":"2019-11-18 10:10:00","stopDate":"2019-11-18 12:00:00","orgNo":"3340101","typeCode":"计划停电","poweroffArea":"110kV转塘变:梅灵6307线-梅村四变后段","poweroffReason":"(低压停电信息)1.梅家坞村梅灵南路梅家坞294号表计增容 原停电结束时间为2019-11-18 15:00:00,为减少客户停电时间,加快工作进度,提前送电,现变更停电结束时间为2019-11-18 12:00:00","powerTime":"2019-11-18 11:11:22","powerComm":"已送电","subsNo":"","lineNo":"","tgNo":"","tgName":null,"infoStatus":"1","orgName":"浙江杭州电力客户服务中心","typeName":null,"infoStatusName":null,"dateDay":null,"orgNos":null,"nowTime":null,"countyName":null,"streetName":null,"villageName":null,"roadName":null,"communityName":null,"tranName":null,"sdLineName":null,"cityCode":"3340101","cityName":"浙江杭州电力客户服务中心","provinceCode":null,"stopTime":"2019-11-18 12:00:00","powerType":"全部","powerOffArea":"110kV转塘变:梅灵6307线-梅村四变后段","powerOffReason":"(低压停电信息)1.梅家坞村梅灵南路梅家坞294号表计增容 原停电结束时间为2019-11-18 15:00:00,为减少客户停电时间,加快工作进度,提前送电,现变更停电结束时间为2019-11-18 12:00:00","powerOffId":"2019110831020165"},{"poweroffId":2019110831020164,"sgpoweroffId":null,"subsName":"","lineName":"10kV朝六6089线","pubTranName":"朝六（1）,","scope":"浙江省杭州市下城区朝晖六区58,59幢附近一带","startTime":"2019-11-20 09:30:00","stopDate":"2019-11-20 16:00:00","orgNo":"3340101","typeCode":"计划停电","poweroffArea":"110kV朝晖变:朝六6089线-朝六（1）低压","poweroffReason":"(低压停电信息)朝六（1）低压配合用户修树;原停电结束时间为2019-11-20 17:30:00,为减少客户停电时间,加快工作进度,提前送电,现变更停电结束时间为2019-11-20 16:00:00","powerTime":"2019-11-20 15:22:59","powerComm":"已送电","subsNo":"","lineNo":"","tgNo":"","tgName":null,"infoStatus":"1","orgName":"浙江杭州电力客户服务中心","typeName":null,"infoStatusName":null,"dateDay":null,"orgNos":null,"nowTime":null,"countyName":null,"streetName":null,"villageName":null,"roadName":null,"communityName":null,"tranName":null,"sdLineName":null,"cityCode":"3340101","cityName":"浙江杭州电力客户服务中心","provinceCode":null,"stopTime":"2019-11-20 16:00:00","powerType":"全部","powerOffArea":"110kV朝晖变:朝六6089线-朝六（1）低压","powerOffReason":"(低压停电信息)朝六（1）低压配合用户修树;原停电结束时间为2019-11-20 17:30:00,为减少客户停电时间,加快工作进度,提前送电,现变更停电结束时间为2019-11-20 16:00:00","powerOffId":"2019110831020164"},{"poweroffId":2019110831020155,"sgpoweroffId":null,"subsName":"","lineName":"10kV新座8508线","pubTranName":"文村,","scope":"浙江省杭州市西湖区文化新村1幢至12幢附近一带用户","startTime":"2019-11-15 13:00:00","stopDate":"2019-11-15 15:00:00","orgNo":"3340101","typeCode":"计划停电","poweroffArea":"110kV文三变:新座8508线-文村后段","poweroffReason":"(低压停电信息)3.文化新村8幢L移表（沈志洋15068828986）","powerTime":"2019-11-15 14:01:59","powerComm":"已送电","subsNo":"","lineNo":"","tgNo":"","tgName":null,"infoStatus":"1","orgName":"浙江杭州电力客户服务中心","typeName":null,"infoStatusName":null,"dateDay":null,"orgNos":null,"nowTime":null,"countyName":null,"streetName":null,"villageName":null,"roadName":null,"communityName":null,"tranName":null,"sdLineName":null,"cityCode":"3340101","cityName":"浙江杭州电力客户服务中心","provinceCode":null,"stopTime":"2019-11-15 15:00:00","powerType":"全部","powerOffArea":"110kV文三变:新座8508线-文村后段","powerOffReason":"(低压停电信息)3.文化新村8幢L移表（沈志洋15068828986）","powerOffId":"2019110831020155"},{"poweroffId":2019110831020150,"sgpoweroffId":null,"subsName":"","lineName":"10kV朝六6089线","pubTranName":"六小区（五）,","scope":"浙江省杭州市下城区朝晖六区55-57幢附近一带","startTime":"2019-11-18 09:16:00","stopDate":"2019-11-18 17:30:00","orgNo":"3340101","typeCode":"计划停电","poweroffArea":"110kV朝晖变:朝六6089线-六小区（五）低压","poweroffReason":"(低压停电信息)六小区（五）配合用户修树","powerTime":"2019-11-18 17:00:43","powerComm":"已送电","subsNo":"","lineNo":"","tgNo":"","tgName":null,"infoStatus":"1","orgName":"浙江杭州电力客户服务中心","typeName":null,"infoStatusName":null,"dateDay":null,"orgNos":null,"nowTime":null,"countyName":null,"streetName":null,"villageName":null,"roadName":null,"communityName":null,"tranName":null,"sdLineName":null,"cityCode":"3340101","cityName":"浙江杭州电力客户服务中心","provinceCode":null,"stopTime":"2019-11-18 17:30:00","powerType":"全部","powerOffArea":"110kV朝晖变:朝六6089线-六小区（五）低压","powerOffReason":"(低压停电信息)六小区（五）配合用户修树","powerOffId":"2019110831020150"},{"poweroffId":2019110831020146,"sgpoweroffId":null,"subsName":"","lineName":"10kV紫桂8040线","pubTranName":"桂花(二),","scope":"浙江省杭州市西湖区桂花城春晓苑7幢附近一带用户","startTime":"2019-11-15 10:00:00","stopDate":"2019-11-15 11:20:00","orgNo":"3340101","typeCode":"临时停电","poweroffArea":"110kV紫荆变:紫桂8040线-桂花(二)后段","poweroffReason":"(低压停电信息)2.桂花城春晓苑8幢401室C57-07表计新装 原停电结束时间为2019-11-15 12:00:00,为减少客户停电时间,加快工作进度,提前送电,现变更停电结束时间为2019-11-15 11:20:00","powerTime":"2019-11-15 10:29:58","powerComm":"已送电","subsNo":"","lineNo":"","tgNo":"","tgName":null,"infoStatus":"1","orgName":"浙江杭州电力客户服务中心","typeName":null,"infoStatusName":null,"dateDay":null,"orgNos":null,"nowTime":null,"countyName":null,"streetName":null,"villageName":null,"roadName":null,"communityName":null,"tranName":null,"sdLineName":null,"cityCode":"3340101","cityName":"浙江杭州电力客户服务中心","provinceCode":null,"stopTime":"2019-11-15 11:20:00","powerType":"全部","powerOffArea":"110kV紫荆变:紫桂8040线-桂花(二)后段","powerOffReason":"(低压停电信息)2.桂花城春晓苑8幢401室C57-07表计新装 原停电结束时间为2019-11-15 12:00:00,为减少客户停电时间,加快工作进度,提前送电,现变更停电结束时间为2019-11-15 11:20:00","powerOffId":"2019110831020146"},{"poweroffId":2019110831020144,"sgpoweroffId":null,"subsName":"","lineName":"10kV洪岭V302线","pubTranName":"赤坑村灰岭脚,童家村范村,二联村高桥头,北京同仁堂浙江中药材有限公司,西川村何家,东川村方家,赤坑村中前,童家村赤坑坞口,考坑村,洪岭赤坑源头,西川村张家,童家村上官,二联村青坑口,考坑菜坑岭脚,二联村罗家,","scope":"浙江省-杭州市-临安市-湍口镇-洪岭方家、二联村青坑口,考坑,罗家,高桥头,菜坑岭脚、童家村中前,张家,赤坑源头,灰岭脚,赤坑坞口,童家,何家,范村自然村、北京同仁堂浙江中药材有限公司一带。","startTime":"2019-11-19 09:00:00","stopDate":"2019-11-19 11:00:00","orgNo":"3340160","typeCode":"计划停电","poweroffArea":"35kV湍口变:洪岭V302线-3023开关后段","poweroffReason":"缺陷处理","powerTime":"2019-11-19 10:50:15","powerComm":"已送电","subsNo":"","lineNo":"","tgNo":"","tgName":null,"infoStatus":"1","orgName":"国网浙江临安市供电公司","typeName":null,"infoStatusName":null,"dateDay":null,"orgNos":null,"nowTime":null,"countyName":null,"streetName":null,"villageName":null,"roadName":null,"communityName":null,"tranName":null,"sdLineName":null,"cityCode":"3340160","cityName":"国网浙江临安市供电公司","provinceCode":null,"stopTime":"2019-11-19 11:00:00","powerType":"全部","powerOffArea":"35kV湍口变:洪岭V302线-3023开关后段","powerOffReason":"缺陷处理","powerOffId":"2019110831020144"},{"poweroffId":2019110831020142,"sgpoweroffId":null,"subsName":"","lineName":"10kV顺溪V261线","pubTranName":"杨溪村义干,","scope":"浙江省-杭州市-临安市-清凉峰镇-杨溪村义干一带。","startTime":"2019-11-21 08:00:00","stopDate":"2019-11-21 11:00:00","orgNo":"3340160","typeCode":"计划停电","poweroffArea":"35kV颊口变:顺溪V261线-杨溪村义干后段","poweroffReason":"低压改造","powerTime":"2019-11-21 10:49:38","powerComm":"已送电","subsNo":"","lineNo":"","tgNo":"","tgName":null,"infoStatus":"1","orgName":"国网浙江临安市供电公司","typeName":null,"infoStatusName":null,"dateDay":null,"orgNos":null,"nowTime":null,"countyName":null,"streetName":null,"villageName":null,"roadName":null,"communityName":null,"tranName":null,"sdLineName":null,"cityCode":"3340160","cityName":"国网浙江临安市供电公司","provinceCode":null,"stopTime":"2019-11-21 11:00:00","powerType":"全部","powerOffArea":"35kV颊口变:顺溪V261线-杨溪村义干后段","powerOffReason":"低压改造","powerOffId":"2019110831020142"},{"poweroffId":2019110831020141,"sgpoweroffId":null,"subsName":"","lineName":"10kV顺溪V261线","pubTranName":"白果村大明山西坑,","scope":"浙江省-杭州市-临安市-清凉峰镇-大明山西坑一带。","startTime":"2019-11-21 12:30:00","stopDate":"2019-11-21 15:30:00","orgNo":"3340160","typeCode":"计划停电","poweroffArea":"35kV颊口变:顺溪V261线-白果村大明山西坑配变","poweroffReason":"低压改造","powerTime":"2019-11-21 15:20:13","powerComm":"已送电","subsNo":"","lineNo":"","tgNo":"","tgName":null,"infoStatus":"1","orgName":"国网浙江临安市供电公司","typeName":null,"infoStatusName":null,"dateDay":null,"orgNos":null,"nowTime":null,"countyName":null,"streetName":null,"villageName":null,"roadName":null,"communityName":null,"tranName":null,"sdLineName":null,"cityCode":"3340160","cityName":"国网浙江临安市供电公司","provinceCode":null,"stopTime":"2019-11-21 15:30:00","powerType":"全部","powerOffArea":"35kV颊口变:顺溪V261线-白果村大明山西坑配变","powerOffReason":"低压改造","powerOffId":"2019110831020141"},{"poweroffId":2019110831020140,"sgpoweroffId":null,"subsName":"","lineName":"10kV相岛V832线","pubTranName":"望湖村张姚,下山村,望湖村韩家,","scope":"浙江省-杭州市-临安市-龙岗镇-望湖村下山,茶园一带。","startTime":"2019-11-21 08:00:00","stopDate":"2019-11-21 16:00:00","orgNo":"3340160","typeCode":"计划停电","poweroffArea":"35kV相见变:相岛V832线-望湖村韩家分线开关后段","poweroffReason":"分支线改造","powerTime":"2019-11-21 15:50:14","powerComm":"已送电","subsNo":"","lineNo":"","tgNo":"","tgName":null,"infoStatus":"1","orgName":"国网浙江临安市供电公司","typeName":null,"infoStatusName":null,"dateDay":null,"orgNos":null,"nowTime":null,"countyName":null,"streetName":null,"villageName":null,"roadName":null,"communityName":null,"tranName":null,"sdLineName":null,"cityCode":"3340160","cityName":"国网浙江临安市供电公司","provinceCode":null,"stopTime":"2019-11-21 16:00:00","powerType":"全部","powerOffArea":"35kV相见变:相岛V832线-望湖村韩家分线开关后段","powerOffReason":"分支线改造","powerOffId":"2019110831020140"},{"poweroffId":2019110831020137,"sgpoweroffId":null,"subsName":"","lineName":"10kV马啸V262线","pubTranName":"湖门村吴家,","scope":"浙江省-杭州市-临安市-清凉峰镇-湖门村吴家一带。","startTime":"2019-11-22 08:00:00","stopDate":"2019-11-22 11:00:00","orgNo":"3340160","typeCode":"计划停电","poweroffArea":"35kV颊口变:马啸V262线-湖门村吴家配变","poweroffReason":"低压改造","powerTime":"2019-11-22 10:50:20","powerComm":"已送电","subsNo":"","lineNo":"","tgNo":"","tgName":null,"infoStatus":"1","orgName":"国网浙江临安市供电公司","typeName":null,"infoStatusName":null,"dateDay":null,"orgNos":null,"nowTime":null,"countyName":null,"streetName":null,"villageName":null,"roadName":null,"communityName":null,"tranName":null,"sdLineName":null,"cityCode":"3340160","cityName":"国网浙江临安市供电公司","provinceCode":null,"stopTime":"2019-11-22 11:00:00","powerType":"全部","powerOffArea":"35kV颊口变:马啸V262线-湖门村吴家配变","powerOffReason":"低压改造","powerOffId":"2019110831020137"}],"pageModel":{"pageNow":899,"totalCount":17789,"totalPage":1779,"tableRows":0,"pageCount":10,"beginCount":8980},"isExperi":"1"}