{"message":"","today":"2020-06-15","seleList":[{"poweroffId":2019110631020257,"sgpoweroffId":null,"subsName":"","lineName":"10kV中康7205线","pubTranName":"桥西九,","scope":"浙江省-杭州市-拱墅区-康桥街道-吴家墩社区-康桥路","startTime":"2019-11-06 15:26:25","stopDate":"2019-11-06 16:26:25","orgNo":"3340101","typeCode":"电网故障停限电","poweroffArea":"110kV康桥变:中康7205线-桥西九后段","poweroffReason":"(低压停电信息)低压开关跳闸 原停电结束时间为2019-11-06 17:26:25,为减少客户停电时间,加快工作进度,提前送电,现变更停电结束时间为2019-11-06 16:26:25","powerTime":"2019-11-06 15:41:29","powerComm":"已送电","subsNo":"","lineNo":"","tgNo":"","tgName":null,"infoStatus":"1","orgName":"浙江杭州电力客户服务中心","typeName":null,"infoStatusName":null,"dateDay":null,"orgNos":null,"nowTime":null,"countyName":null,"streetName":null,"villageName":null,"roadName":null,"communityName":null,"tranName":null,"sdLineName":null,"cityCode":"3340101","cityName":"浙江杭州电力客户服务中心","provinceCode":null,"stopTime":"2019-11-06 16:26:25","powerType":"全部","powerOffArea":"110kV康桥变:中康7205线-桥西九后段","powerOffReason":"(低压停电信息)低压开关跳闸 原停电结束时间为2019-11-06 17:26:25,为减少客户停电时间,加快工作进度,提前送电,现变更停电结束时间为2019-11-06 16:26:25","powerOffId":"2019110631020257"},{"poweroffId":2019110631020256,"sgpoweroffId":null,"subsName":"","lineName":"10kV金顶6874线","pubTranName":"文一(1),","scope":"浙江省-杭州市-西湖区-西溪街道(石灰桥社区-莫干山路,白荡海社区-莫干山路)","startTime":"2019-11-06 15:23:57","stopDate":"2019-11-06 16:30:57","orgNo":"3340101","typeCode":"电网故障停限电","poweroffArea":"110kV文化变:金顶6874线-文一(1)","poweroffReason":"(低压停电信息)低压开关跳闸 原停电结束时间为2019-11-06 17:23:57,为减少客户停电时间,加快工作进度,提前送电,现变更停电结束时间为2019-11-06 16:30:57","powerTime":"2019-11-06 15:40:38","powerComm":"已送电","subsNo":"","lineNo":"","tgNo":"","tgName":null,"infoStatus":"1","orgName":"浙江杭州电力客户服务中心","typeName":null,"infoStatusName":null,"dateDay":null,"orgNos":null,"nowTime":null,"countyName":null,"streetName":null,"villageName":null,"roadName":null,"communityName":null,"tranName":null,"sdLineName":null,"cityCode":"3340101","cityName":"浙江杭州电力客户服务中心","provinceCode":null,"stopTime":"2019-11-06 16:30:57","powerType":"全部","powerOffArea":"110kV文化变:金顶6874线-文一(1)","powerOffReason":"(低压停电信息)低压开关跳闸 原停电结束时间为2019-11-06 17:23:57,为减少客户停电时间,加快工作进度,提前送电,现变更停电结束时间为2019-11-06 16:30:57","powerOffId":"2019110631020256"},{"poweroffId":2019110631020250,"sgpoweroffId":null,"subsName":"","lineName":"10kV九年H372线","pubTranName":"杭州保欣置业有限公司,杭州保欣置业有限公司,中国美术学院,杜甫村杜甫桥公变,杜甫村顾家塘公变,国网浙江省电力有限公司杭州供电公司,杭州良渚文化城投资有限公司,中国美术学院,路灯变,杭州保欣置业有限公司,杭州市余杭区人民政府良渚街道办事处,中国美术学院,杭州市余杭区交通重点工程建设管理处,中国美术学院,排污处理厂,杭州保欣置业有限公司,杭州保欣置业有限公司,江西中浩建设工程有限公司,杭州保欣置业有限公司,中国美术学院,杜甫村龙舌嘴公变,中交第二航务工程局有限公司余杭分公司,七贤桥村顺船头2号公变,浙江荣辉建设有限公司,中国美术学院,湖南万和建筑工程有限公司,杭州保欣置业有限公司,杜甫村下史村公变,","scope":"浙江省-杭州市-余杭区-良渚街道-西塘河行政村(丁公自然村,中潘塘自然村,邱家斗自然村),良渚街道-七贤桥行政村(七贤桥自然村,大陆街道,九曲桥自然村),良渚街道-良渚行政村(仰家塘自然村,吴家埭自然村),良渚街道-石桥行政村(石桥自然村,朱家荡自然村),良渚街道-荀山行政村(马家角自然村,荀山自然村,杨自然村),良渚街道(杜甫行政村-杜甫自然村,安溪街道地块-安溪街道,崇福社区-顾家埠村,港南行政村-后河自然村,杜城行政村-前山自然村,安溪行政村-中溪自然村,勾庄行政村-沈港塘自然村,蔚蓝郡社区-新104国道,良渚文化村社区-风情大道);浙江省-杭州市-余杭区-良渚街道-亲亲家园社区-杭州保欣置业有限公司,良渚街道-良渚文化村社区(浙江荣辉建设有限公司,江西中浩建设工程有限公司,中国美术学院,杭州良渚文化城投资有限公司),良渚街道-七贤桥行政村(杭州余杭城西净水有限公司,杭州市余杭区人民政府良渚街道办事处),良渚街道-杜甫行政村(中交第二航务工程局有限公司余杭分公司,国网浙江省电力有限公司杭州供电公司,杭州市余杭区公路管理处,湖南万和建筑工程有限公司,杭州市余杭区人民政府良渚街道办事处,中国美术学院)","startTime":"2019-11-06 15:13:00","stopDate":"2019-11-06 16:30:00","orgNo":"3340140","typeCode":"电网故障停限电","poweroffArea":"110kV学里变:九年H372线","poweroffReason":"高压开关跳闸 原停电结束时间为2019-11-06 18:00:00,为减少客户停电时间,加快工作进度,提前送电,现变更停电结束时间为2019-11-06 16:30:00","powerTime":"2019-11-06 15:57:00","powerComm":"已送电","subsNo":"","lineNo":"","tgNo":"","tgName":null,"infoStatus":"1","orgName":"国网浙江杭州市余杭区供电有限公司","typeName":null,"infoStatusName":null,"dateDay":null,"orgNos":null,"nowTime":null,"countyName":null,"streetName":null,"villageName":null,"roadName":null,"communityName":null,"tranName":null,"sdLineName":null,"cityCode":"3340140","cityName":"国网浙江杭州市余杭区供电有限公司","provinceCode":null,"stopTime":"2019-11-06 16:30:00","powerType":"全部","powerOffArea":"110kV学里变:九年H372线","powerOffReason":"高压开关跳闸 原停电结束时间为2019-11-06 18:00:00,为减少客户停电时间,加快工作进度,提前送电,现变更停电结束时间为2019-11-06 16:30:00","powerOffId":"2019110631020250"},{"poweroffId":2019110631020202,"sgpoweroffId":null,"subsName":"","lineName":"10kV湖畔8038线","pubTranName":"政新（二）,春天（二）,湖北（二）1#,科研内部双路二3#,塘河建设,湖北（四）,湖北（二）2#,环卫,幼儿园,科研内部双路二2#,变压器2,会馆(2),科研内部双路二1#,华小,湖畔（一）,湖畔（三）,汇鑫(二),春天（四）,","scope":"浙江省-杭州市-西湖区-文新街道-阳光社区-文一西路,文新街道-湖畔社区(文一西路,古墩路,文幼巷);浙江省-杭州市-西湖区-文新街道-竞舟社区-杭州市文华小学,文新街道-湖畔社区(杭州市西湖区文新学前教育集团(总园),杭州市西湖区文新环境卫生管理所,杭州市西湖区倚天饭店,杭州市地铁集团有限责任公司),古荡街道-文华社区(杭州高新技术产业开发区资产经营有限公司,杭州市排水有限公司)","startTime":"2019-11-06 14:22:09","stopDate":"2019-11-06 15:45:09","orgNo":"3340101","typeCode":"电网故障停限电","poweroffArea":"110kV紫荆变:湖畔8038线","poweroffReason":"高压开关跳闸 原停电结束时间为2019-11-06 18:22:09,为减少客户停电时间,加快工作进度,提前送电,现变更停电结束时间为2019-11-06 15:45:09","powerTime":"2019-11-06 15:07:35","powerComm":"已送电","subsNo":"","lineNo":"","tgNo":"","tgName":null,"infoStatus":"1","orgName":"浙江杭州电力客户服务中心","typeName":null,"infoStatusName":null,"dateDay":null,"orgNos":null,"nowTime":null,"countyName":null,"streetName":null,"villageName":null,"roadName":null,"communityName":null,"tranName":null,"sdLineName":null,"cityCode":"3340101","cityName":"浙江杭州电力客户服务中心","provinceCode":null,"stopTime":"2019-11-06 15:45:09","powerType":"全部","powerOffArea":"110kV紫荆变:湖畔8038线","powerOffReason":"高压开关跳闸 原停电结束时间为2019-11-06 18:22:09,为减少客户停电时间,加快工作进度,提前送电,现变更停电结束时间为2019-11-06 15:45:09","powerOffId":"2019110631020202"},{"poweroffId":2019110631020199,"sgpoweroffId":null,"subsName":"","lineName":"10kV东门D121线","pubTranName":"登城北路3号大东门公变,","scope":"浙江省-杭州市-富阳区-新登镇-东安社区(登城路,新城东街,登城北路,登云北路,大东门),新登镇(古城社区-共和街,惠来社区-新城街)","startTime":"2019-11-06 14:10:35","stopDate":"2019-11-06 15:10:35","orgNo":"3340170","typeCode":"电网故障停限电","poweroffArea":"110kV新登变:东门D121线-登城北路3号大东门公变后段","poweroffReason":"(低压停电信息)低压开关跳闸","powerTime":"2019-11-06 14:15:08","powerComm":"已送电","subsNo":"","lineNo":"","tgNo":"","tgName":null,"infoStatus":"1","orgName":"国网浙江杭州市富阳区供电公司","typeName":null,"infoStatusName":null,"dateDay":null,"orgNos":null,"nowTime":null,"countyName":null,"streetName":null,"villageName":null,"roadName":null,"communityName":null,"tranName":null,"sdLineName":null,"cityCode":"3340170","cityName":"国网浙江杭州市富阳区供电公司","provinceCode":null,"stopTime":"2019-11-06 15:10:35","powerType":"全部","powerOffArea":"110kV新登变:东门D121线-登城北路3号大东门公变后段","powerOffReason":"(低压停电信息)低压开关跳闸","powerOffId":"2019110631020199"},{"poweroffId":2019110631020193,"sgpoweroffId":null,"subsName":"","lineName":"10kV容临D804线","pubTranName":"丁香7#公变,","scope":"浙江省-杭州市-富阳区-富春街道-后周社区-金桥北路,富春街道-凤浦社区(文教北路,文昌路,金桥北路)","startTime":"2019-11-06 14:03:02","stopDate":"2019-11-06 14:30:02","orgNo":"3340170","typeCode":"电网故障停限电","poweroffArea":"110kV容大变:容临D804线-丁香7#公变后段","poweroffReason":"高压开关跳闸","powerTime":"2019-11-06 14:08:23","powerComm":"已送电","subsNo":"","lineNo":"","tgNo":"","tgName":null,"infoStatus":"1","orgName":"国网浙江杭州市富阳区供电公司","typeName":null,"infoStatusName":null,"dateDay":null,"orgNos":null,"nowTime":null,"countyName":null,"streetName":null,"villageName":null,"roadName":null,"communityName":null,"tranName":null,"sdLineName":null,"cityCode":"3340170","cityName":"国网浙江杭州市富阳区供电公司","provinceCode":null,"stopTime":"2019-11-06 14:30:02","powerType":"全部","powerOffArea":"110kV容大变:容临D804线-丁香7#公变后段","powerOffReason":"高压开关跳闸","powerOffId":"2019110631020193"},{"poweroffId":2019110631020188,"sgpoweroffId":null,"subsName":"","lineName":"10kV凤凰D586线","pubTranName":"长山村10号村委口2公变,富阳市荣业印刷有限公司,长山村5号车子坞公变,富阳市高桥镇长山五金配件厂,长山村7号施家公变,长山村9号村委口公变,长山村1号公变,长山村3号小长山公变,长山村2#凤凰山公变,长山村8#车子坞东公变,","scope":"浙江省-杭州市-富阳区-银湖街道-观前行政村(长山自然村,大长山自然村,长山凤凰山自然村,周公坞自然村,凤凰山脚自然村,观前自然村,车子坞自然村),银湖街道(郜村行政村-宋家塘自然村,高桥行政村-高桥自然村);银湖街道(杭州顾安仪表配件厂,杭州富阳荣业印刷有限公司)","startTime":"2019-11-06 13:56:18","stopDate":"2019-11-06 17:00:00","orgNo":"3340170","typeCode":"电网故障停限电","poweroffArea":"110kV高桥变:凤凰D586线凤凰D5861开关后段","poweroffReason":"高压开关跳闸 原停电结束时间为2019-11-06 17:49:00,为减少客户停电时间,加快工作进度,提前送电,现变更停电结束时间为2019-11-06 17:00:00","powerTime":"2019-11-06 16:27:16","powerComm":"已送电","subsNo":"","lineNo":"","tgNo":"","tgName":null,"infoStatus":"1","orgName":"国网浙江杭州市富阳区供电公司","typeName":null,"infoStatusName":null,"dateDay":null,"orgNos":null,"nowTime":null,"countyName":null,"streetName":null,"villageName":null,"roadName":null,"communityName":null,"tranName":null,"sdLineName":null,"cityCode":"3340170","cityName":"国网浙江杭州市富阳区供电公司","provinceCode":null,"stopTime":"2019-11-06 17:00:00","powerType":"全部","powerOffArea":"110kV高桥变:凤凰D586线凤凰D5861开关后段","powerOffReason":"高压开关跳闸 原停电结束时间为2019-11-06 17:49:00,为减少客户停电时间,加快工作进度,提前送电,现变更停电结束时间为2019-11-06 17:00:00","powerOffId":"2019110631020188"},{"poweroffId":2019110631020187,"sgpoweroffId":null,"subsName":"","lineName":"10kV陵上Y133线","pubTranName":"罗村新村台区,罗村新村2号公变,乾潭镇梓姚新村台区,","scope":"浙江省-杭州市-建德市-乾潭镇-罗村行政村 罗村新村自然村,浪源自然村),乾潭镇(大畈行政村-连塘自然村,姚村行政村-莲塘蓬自然村一带用户。","startTime":"2019-11-06 13:48:00","stopDate":"2019-11-06 15:00:00","orgNo":"3340180","typeCode":"电网故障停限电","poweroffArea":"110kV乾潭变:陵上Y133线罗村新村支线0#杆开关后段","poweroffReason":"挖机碰线导致高压线路断线 原停电结束时间为2019-11-06 16:00:00,为减少客户停电时间,加快工作进度,提前送电,现变更停电结束时间为2019-11-06 15:00:00","powerTime":"2019-11-06 14:33:00","powerComm":"已送电","subsNo":"","lineNo":"","tgNo":"","tgName":null,"infoStatus":"1","orgName":"国网浙江建德市供电有限公司","typeName":null,"infoStatusName":null,"dateDay":null,"orgNos":null,"nowTime":null,"countyName":null,"streetName":null,"villageName":null,"roadName":null,"communityName":null,"tranName":null,"sdLineName":null,"cityCode":"3340180","cityName":"国网浙江建德市供电有限公司","provinceCode":null,"stopTime":"2019-11-06 15:00:00","powerType":"全部","powerOffArea":"110kV乾潭变:陵上Y133线罗村新村支线0#杆开关后段","powerOffReason":"挖机碰线导致高压线路断线 原停电结束时间为2019-11-06 16:00:00,为减少客户停电时间,加快工作进度,提前送电,现变更停电结束时间为2019-11-06 15:00:00","powerOffId":"2019110631020187"},{"poweroffId":2019110631020179,"sgpoweroffId":null,"subsName":"","lineName":"10kV后周D554线","pubTranName":"振兴路9号公变,","scope":"浙江省-杭州市-富阳区-富春街道-后周社区(春秋北路,振兴路)","startTime":"2019-11-06 13:40:23","stopDate":"2019-11-06 16:10:23","orgNo":"3340170","typeCode":"电网故障停限电","poweroffArea":"110kV春江变:后周D554线-振兴路9号公变后段","poweroffReason":"(低压停电信息)低压开关跳闸","powerTime":"2019-11-06 15:52:44","powerComm":"已送电","subsNo":"","lineNo":"","tgNo":"","tgName":null,"infoStatus":"1","orgName":"国网浙江杭州市富阳区供电公司","typeName":null,"infoStatusName":null,"dateDay":null,"orgNos":null,"nowTime":null,"countyName":null,"streetName":null,"villageName":null,"roadName":null,"communityName":null,"tranName":null,"sdLineName":null,"cityCode":"3340170","cityName":"国网浙江杭州市富阳区供电公司","provinceCode":null,"stopTime":"2019-11-06 16:10:23","powerType":"全部","powerOffArea":"110kV春江变:后周D554线-振兴路9号公变后段","powerOffReason":"(低压停电信息)低压开关跳闸","powerOffId":"2019110631020179"},{"poweroffId":2019110631020152,"sgpoweroffId":null,"subsName":"","lineName":"10kV梓树D973线","pubTranName":"上大庄村13号徐家公变,","scope":"浙江省-杭州市-富阳区-银湖街道-大庄行政村(上大庄自然村,潘家自然村,徐家自然村)","startTime":"2019-11-06 11:27:36","stopDate":"2019-11-06 14:00:00","orgNo":"3340170","typeCode":"电网故障停限电","poweroffArea":"110kV九龙变:梓树D973线-上大庄村13号徐家公变后段","poweroffReason":"高压开关跳闸","powerTime":"2019-11-06 13:02:26","powerComm":"已送电","subsNo":"","lineNo":"","tgNo":"","tgName":null,"infoStatus":"1","orgName":"国网浙江杭州市富阳区供电公司","typeName":null,"infoStatusName":null,"dateDay":null,"orgNos":null,"nowTime":null,"countyName":null,"streetName":null,"villageName":null,"roadName":null,"communityName":null,"tranName":null,"sdLineName":null,"cityCode":"3340170","cityName":"国网浙江杭州市富阳区供电公司","provinceCode":null,"stopTime":"2019-11-06 14:00:00","powerType":"全部","powerOffArea":"110kV九龙变:梓树D973线-上大庄村13号徐家公变后段","powerOffReason":"高压开关跳闸","powerOffId":"2019110631020152"}],"pageModel":{"pageNow":904,"totalCount":17789,"totalPage":1779,"tableRows":0,"pageCount":10,"beginCount":9030},"isExperi":"1"}