{"message":"","today":"2020-06-15","seleList":[{"poweroffId":2019110531020171,"sgpoweroffId":null,"subsName":"","lineName":"10kV马源T179线","pubTranName":"1#专变,兴棋笔业,东溪制沙1#专变,杭州汉奇文具有限公司1#变,2#专变,杭州益友金属制品有限公司,垃圾压缩站,桐庐格鲁新型建材有限公司,杭州冠华王食品有限公司1#变,桐庐县分水镇建设投次开发有限公司,1#变,雅多家具,百特文具,桐庐分水小城市开发建设有限公司1#基建变,晓红水泥,杭州益友金属制品有限公司,东溪制砂2#专变,东溪龙潭埠1号公变,","scope":"浙江省-杭州市-桐庐县-分水镇-东溪行政村(前湾自然村,东溪自然村,创业路);分水镇(杭州益友金属制品有限公司,桐庐东溪制砂有限公司,分水镇人民政府垃圾压缩站,桐庐百特文化用品有限公司,桐庐兴棋笔业有限公司,桐庐县分水镇人民政府路灯,杭州怡合新材料有限公司,分水晓红水泥制品厂,桐庐分水小城市开发建设有限公司基建,杭州冠华王食品有限公司,杭州汉奇文具有限公司,杭州荣正家具有限公司,桐庐鸿锦文具有限公司,桐庐分水小城市开发建设有限公司)","startTime":"2019-11-05 14:45:00","stopDate":"2019-11-05 16:37:00","orgNo":"3340150","typeCode":"电网故障停限电","poweroffArea":"110kV分水变:马源T179线马源4122智能开关1后段","poweroffReason":"高压开关跳闸","powerTime":"2019-11-05 16:20:06","powerComm":"已送电","subsNo":"","lineNo":"","tgNo":"","tgName":null,"infoStatus":"1","orgName":"国网浙江桐庐县供电公司","typeName":null,"infoStatusName":null,"dateDay":null,"orgNos":null,"nowTime":null,"countyName":null,"streetName":null,"villageName":null,"roadName":null,"communityName":null,"tranName":null,"sdLineName":null,"cityCode":"3340150","cityName":"国网浙江桐庐县供电公司","provinceCode":null,"stopTime":"2019-11-05 16:37:00","powerType":"全部","powerOffArea":"110kV分水变:马源T179线马源4122智能开关1后段","powerOffReason":"高压开关跳闸","powerOffId":"2019110531020171"},{"poweroffId":2019110531020158,"sgpoweroffId":null,"subsName":"","lineName":"10kV新塘G939线","pubTranName":"新塘村村委2#变,","scope":"浙江省杭州市余杭区东湖街道：新塘村村委一带","startTime":"2019-11-15 12:30:00","stopDate":"2019-11-15 15:00:00","orgNo":"3340140","typeCode":"计划停电","poweroffArea":"110kV亭趾变:新塘G939线-新塘村委（二）公变跌落式熔断器后段 原停电结束时间为2019-11-15 17:00:00,为减少客户停电时间,加快工作进度,提前送电,现变更停电结束时间为2019-11-15 15:00:00","poweroffReason":"新塘村委二公变调换计量箱 原停电结束时间为2019-11-15 17:00:00,为减少客户停电时间,加快工作进度,提前送电,现变更停电结束时间为2019-11-15 15:00:00","powerTime":"2019-11-15 14:50:00","powerComm":"已送电","subsNo":"","lineNo":"","tgNo":"","tgName":null,"infoStatus":"1","orgName":"国网浙江杭州市余杭区供电有限公司","typeName":null,"infoStatusName":null,"dateDay":null,"orgNos":null,"nowTime":null,"countyName":null,"streetName":null,"villageName":null,"roadName":null,"communityName":null,"tranName":null,"sdLineName":null,"cityCode":"3340140","cityName":"国网浙江杭州市余杭区供电有限公司","provinceCode":null,"stopTime":"2019-11-15 15:00:00","powerType":"全部","powerOffArea":"110kV亭趾变:新塘G939线-新塘村委（二）公变跌落式熔断器后段 原停电结束时间为2019-11-15 17:00:00,为减少客户停电时间,加快工作进度,提前送电,现变更停电结束时间为2019-11-15 15:00:00","powerOffReason":"新塘村委二公变调换计量箱 原停电结束时间为2019-11-15 17:00:00,为减少客户停电时间,加快工作进度,提前送电,现变更停电结束时间为2019-11-15 15:00:00","powerOffId":"2019110531020158"},{"poweroffId":2019110531020157,"sgpoweroffId":null,"subsName":"","lineName":"10kV冷水H513线","pubTranName":"杭州野麦林生态农业有限公司,窑北村凉亭公变,","scope":"浙江省杭州市余杭区瓶窑镇：窑北村凉亭、杭州野麦林生态农业有限公司一带","startTime":"2019-11-11 08:40:00","stopDate":"2019-11-11 10:00:00","orgNo":"3340140","typeCode":"临时停电","poweroffArea":"冷水H513线野麦林分线12号杆开关后段 原停电结束时间为2019-11-11 11:40:00,为减少客户停电时间,加快工作进度,提前送电,现变更停电结束时间为2019-11-11 10:00:00","poweroffReason":"计划工作 原停电结束时间为2019-11-11 11:40:00,为减少客户停电时间,加快工作进度,提前送电,现变更停电结束时间为2019-11-11 10:00:00","powerTime":"2019-11-11 09:47:02","powerComm":"已送电","subsNo":"","lineNo":"","tgNo":"","tgName":null,"infoStatus":"1","orgName":"国网浙江杭州市余杭区供电有限公司","typeName":null,"infoStatusName":null,"dateDay":null,"orgNos":null,"nowTime":null,"countyName":null,"streetName":null,"villageName":null,"roadName":null,"communityName":null,"tranName":null,"sdLineName":null,"cityCode":"3340140","cityName":"国网浙江杭州市余杭区供电有限公司","provinceCode":null,"stopTime":"2019-11-11 10:00:00","powerType":"全部","powerOffArea":"冷水H513线野麦林分线12号杆开关后段 原停电结束时间为2019-11-11 11:40:00,为减少客户停电时间,加快工作进度,提前送电,现变更停电结束时间为2019-11-11 10:00:00","powerOffReason":"计划工作 原停电结束时间为2019-11-11 11:40:00,为减少客户停电时间,加快工作进度,提前送电,现变更停电结束时间为2019-11-11 10:00:00","powerOffId":"2019110531020157"},{"poweroffId":2019110531020156,"sgpoweroffId":null,"subsName":"","lineName":"10kV分政T425线","pubTranName":"东门雅苑1号公变,","scope":"浙江省-杭州市-桐庐县-分水镇-武盛行政村-院士路东门雅苑一带。","startTime":"2019-11-05 13:59:27","stopDate":"2019-11-05 15:59:27","orgNo":"3340150","typeCode":"电网故障停限电","poweroffArea":"110kV天英变:分政T425线-东门雅苑1号公变后段","poweroffReason":"(低压停电信息)低压开关跳闸","powerTime":"2019-11-05 15:37:59","powerComm":"已送电","subsNo":"","lineNo":"","tgNo":"","tgName":null,"infoStatus":"1","orgName":"国网浙江桐庐县供电公司","typeName":null,"infoStatusName":null,"dateDay":null,"orgNos":null,"nowTime":null,"countyName":null,"streetName":null,"villageName":null,"roadName":null,"communityName":null,"tranName":null,"sdLineName":null,"cityCode":"3340150","cityName":"国网浙江桐庐县供电公司","provinceCode":null,"stopTime":"2019-11-05 15:59:27","powerType":"全部","powerOffArea":"110kV天英变:分政T425线-东门雅苑1号公变后段","powerOffReason":"(低压停电信息)低压开关跳闸","powerOffId":"2019110531020156"},{"poweroffId":2019110531020153,"sgpoweroffId":null,"subsName":"","lineName":"10kV高岭Y802线","pubTranName":"友谊村红丘塘台区,昴畈村桥头边台区,建德市汇金塑胶材料厂,建德市华益塑料材料有限公司,莲花村中薛台区,友谊村蛇坑台区,建德市洋溪街道桑园砂石料站,建德市中中石粉厂1#,洋溪街道友谊村经济合作社,友谊村下田台区,友谊村屋基畈台区,浙江广川建设有限公司 （红丘塘）临变变压器,1#,配水二标莲花溪施工变1#临变,建德市广天三峰矿业有限公司,浙江广川建设有限公司(洋坞口砂石加工系统)变压器,建德市新安江街道葛坞方解石矿,杭州新安江旅业发展有限公司,莲花村里薛台区,友谊村庵前台区,友谊村高岭台区,莲花村吴家台区,建德市豪丰木业制品厂,昴畈村东山台区,建德中房旅业发展有限公司,友谊村芳村台区,莲花村小岭后台区,建德市莲花橡塑材料厂,莲花村外薛台区,友谊村巧山台区,建德市三创工艺品有限公司,","scope":"浙江省-杭州市-建德市-下涯镇-春秋行政村-苏家自然村,洋溪街道-友谊行政村(蛇坑自然村,红丘塘自然村,下田自然村,屋基畈自然村,巧山自然村,高岭自然村,芳村自然村,庵前自然村),莲花镇-莲花行政村(外薛自然村,吴家自然村,薛上自然村,小岭后自然村),莲花镇-昴畈行政村(东山自然村,桥头边自然村,昴畈自然村);新安江街道(建德中房旅业发展有限公司,建德市新安旅游投资有限公司,建德市新安江街道葛坞方解石矿),洋溪街道(,浙江广川建设有限公司,建德市莲花橡塑材料厂,建德市华益塑料材料有限公司,建德市广天三峰矿业有限公司,建德市中中塑胶有限公司,建德市洋溪街道桑园砂石料站,建德市三创工艺品有限公司),莲花镇(浙江广川建设有限公司,建德市汇金塑胶材料厂,建德市豪丰木业制品厂,建德市莲农生物有机肥有限公司)一带用户。","startTime":"2019-11-05 13:46:00","stopDate":"2019-11-05 20:30:00","orgNo":"3340180","typeCode":"电网故障停限电","poweroffArea":"35kV莲花变:高岭Y802线高岭802线02#开关后段","poweroffReason":"高压开关跳闸 原停电结束时间为2019-11-05 16:00:00,因施工环境比较复杂且存在不确定因素原因,现变更停电结束时间为2019-11-05 20:30:00","powerTime":"2019-11-05 20:23:00","powerComm":"已送电","subsNo":"","lineNo":"","tgNo":"","tgName":null,"infoStatus":"1","orgName":"国网浙江建德市供电有限公司","typeName":null,"infoStatusName":null,"dateDay":null,"orgNos":null,"nowTime":null,"countyName":null,"streetName":null,"villageName":null,"roadName":null,"communityName":null,"tranName":null,"sdLineName":null,"cityCode":"3340180","cityName":"国网浙江建德市供电有限公司","provinceCode":null,"stopTime":"2019-11-05 20:30:00","powerType":"全部","powerOffArea":"35kV莲花变:高岭Y802线高岭802线02#开关后段","powerOffReason":"高压开关跳闸 原停电结束时间为2019-11-05 16:00:00,因施工环境比较复杂且存在不确定因素原因,现变更停电结束时间为2019-11-05 20:30:00","powerOffId":"2019110531020153"},{"poweroffId":2019110531020137,"sgpoweroffId":null,"subsName":"","lineName":"10kV竹径H535线","pubTranName":"泛利实业,基督教堂,健身院,杭州百尔欣节能材料有限公司,和悦工贸,戒毒所II段（6120882369）02#专变,和悦工贸2,1#,联顺筑养,杭州科明机械有限公司,佳雨冷冻6120880341,长命村石西2号公变,鸿能实业6120826781专变,四达机械611101559201#专变,三尔再生资源,瓶窑镇政府（城隍大道路灯）6111037456,三龙门窗,6120431507,杭州利富豪机电设备有限公司6110108292,2#,圣威服饰,枫林纺织(吴氏包装),宝航机械,杭州余杭振华日化玻璃有限公司,1#,2#,配变,长明金属6120879489,凤都村城皇山公变,利富豪空调3,杭州华迪汽车配件,力丹家具,","scope":"浙江省-杭州市-余杭区-瓶窑镇-长命行政村-石西自然村,瓶窑镇-凤都行政村(城皇山自然村,凤都自然村,马山自然村,观山路);瓶窑镇(杭州市余杭区瓶窑镇人民政府,杭州利富豪机电设备有限公司,杭州博大生物技术有限公司,杭州宝航机械有限公司,杭州市余杭区瓶窑长命基督教堂,杭州清也洗涤科技有限公司,杭州利富豪科技股份有限公司,杭州力丹家具有限公司,杭州百尔欣节能材料有限公司,杭州佐翰科技有限公司,杭州兴润机械有限公司,杭州和悦工艺品有限公司,杭州大地海洋环保股份有限公司,杭州余杭长明金属管件有限公司,杭州华迪汽车仪表有限公司,杭州余杭振华日化玻璃有限公司,杭州泛利实业有限公司,杭州凯博展示有限公司,杭州市余杭区新东方烹饪学校,杭州贵翔装饰有限公司,杭州协宇建材有限公司,杭州四达机械电子有限公司,杭州长明实业有限公司,浙江省余杭强制隔离戒毒所,杭州佳雨冷冻食品有限公司)","startTime":"2019-11-05 13:10:00","stopDate":"2019-11-05 15:10:00","orgNo":"3340140","typeCode":"电网故障停限电","poweroffArea":"110kV凤山变:竹径H535线竹径H5353开关后段","poweroffReason":"高压开关跳闸","powerTime":"2019-11-05 14:57:00","powerComm":"已送电","subsNo":"","lineNo":"","tgNo":"","tgName":null,"infoStatus":"1","orgName":"国网浙江杭州市余杭区供电有限公司","typeName":null,"infoStatusName":null,"dateDay":null,"orgNos":null,"nowTime":null,"countyName":null,"streetName":null,"villageName":null,"roadName":null,"communityName":null,"tranName":null,"sdLineName":null,"cityCode":"3340140","cityName":"国网浙江杭州市余杭区供电有限公司","provinceCode":null,"stopTime":"2019-11-05 15:10:00","powerType":"全部","powerOffArea":"110kV凤山变:竹径H535线竹径H5353开关后段","powerOffReason":"高压开关跳闸","powerOffId":"2019110531020137"},{"poweroffId":2019110531020136,"sgpoweroffId":null,"subsName":"","lineName":"10kV里畈V580线","pubTranName":"白沙村[阳山坞外],临目村[横渡污水厂],白沙村[龙须安],临安市天目龙水业有限公司,白沙村[阳山坞清水潭],临目村[神龙川],白沙村[屋峰],白沙村[东瓜地],白沙村[平岗]公变,白沙村[七堰坛],临目村[里横渡],临安杨岭电站有限公司,白沙村[陈家山],白沙村[太子瀑],白沙村[赵家坞],里畈一级电站,白沙村[凉亭],白沙分线升压变,临目村[横渡新村],白沙村[市岭],临目村[董家山脚],临安杨岭电站有限公司,白沙村[白沙],杭州临安自来水有限公司,临目村[平地里],白沙村[丁家坞],临目村[董家山],白沙村[阳山坞里],白沙村[平顶山],临安杨岭电站有限公司,临安杨岭电站有限公司,临目村[夏家坪],白沙村[龙须山],临目村[里横渡桥头],白沙村[陈家坪],白沙村[龙须沟],里畈村[炭山坞],临目村[外横渡],白沙村[里丁家],白沙村[清明山],白沙村[黄泥弄],白沙村[水竹坞],白沙村[旧坞],里畈一级电站,临安杨岭电站有限公司,白沙村[太子庙],白沙村[大竹地],临安杨岭电站有限公司,","scope":"浙江省杭州市临安区太湖源镇白沙行政村(太子庙自然村,白沙自然村,龙须山自然村),临目行政村横渡自然村,里畈行政村溪里自然村);白沙行政村临安市天目龙水业有限公司,金岫行政村(杭州临安杨岭电站有限公司,临安杨岭电站有限公司,杭州临安自来水有限公司),里畈行政村(临安杨岭电站有限公司,里畈一级电站)一带","startTime":"2019-11-13 05:20:00","stopDate":"2019-11-13 05:40:00","orgNo":"3340160","typeCode":"计划停电","poweroffArea":"110kV杨岭变:里畈V580线","poweroffReason":"发电车接入","powerTime":"2019-11-13 05:30:41","powerComm":"已送电","subsNo":"","lineNo":"","tgNo":"","tgName":null,"infoStatus":"1","orgName":"国网浙江临安市供电公司","typeName":null,"infoStatusName":null,"dateDay":null,"orgNos":null,"nowTime":null,"countyName":null,"streetName":null,"villageName":null,"roadName":null,"communityName":null,"tranName":null,"sdLineName":null,"cityCode":"3340160","cityName":"国网浙江临安市供电公司","provinceCode":null,"stopTime":"2019-11-13 05:40:00","powerType":"全部","powerOffArea":"110kV杨岭变:里畈V580线","powerOffReason":"发电车接入","powerOffId":"2019110531020136"},{"poweroffId":2019110531020108,"sgpoweroffId":null,"subsName":"","lineName":"10kV凌村H570线","pubTranName":"山沟沟村宋村公变,","scope":"浙江省-杭州市-余杭区-鸬鸟镇-山沟沟村宋村一带","startTime":"2019-11-15 08:30:00","stopDate":"2019-11-15 16:30:00","orgNo":"3340140","typeCode":"计划停电","poweroffArea":"35kV黄湖变:凌村H570线-山沟沟村宋村公变低压闸刀后段","poweroffReason":"(低压停电信息)计划停电","powerTime":"2019-11-15 15:38:19","powerComm":"已送电","subsNo":"","lineNo":"","tgNo":"","tgName":null,"infoStatus":"1","orgName":"国网浙江杭州市余杭区供电有限公司","typeName":null,"infoStatusName":null,"dateDay":null,"orgNos":null,"nowTime":null,"countyName":null,"streetName":null,"villageName":null,"roadName":null,"communityName":null,"tranName":null,"sdLineName":null,"cityCode":"3340140","cityName":"国网浙江杭州市余杭区供电有限公司","provinceCode":null,"stopTime":"2019-11-15 16:30:00","powerType":"全部","powerOffArea":"35kV黄湖变:凌村H570线-山沟沟村宋村公变低压闸刀后段","powerOffReason":"(低压停电信息)计划停电","powerOffId":"2019110531020108"},{"poweroffId":2019110531020054,"sgpoweroffId":null,"subsName":"","lineName":"10kV富湾T401线","pubTranName":"中联俞家1号公变,","scope":"浙江省-杭州市-桐庐县-城南街道(春江行政村-周家自然村,金溪行政村-中联自然村)","startTime":"2019-11-05 08:45:00","stopDate":"2019-11-05 10:45:00","orgNo":"3340150","typeCode":"电网故障停限电","poweroffArea":"110kV枫塘变:富湾T401线中联俞家1号公变配变","poweroffReason":"(低压停电信息)低压开关跳闸","powerTime":"2019-11-05 10:15:10","powerComm":"已送电","subsNo":"","lineNo":"","tgNo":"","tgName":null,"infoStatus":"1","orgName":"国网浙江桐庐县供电公司","typeName":null,"infoStatusName":null,"dateDay":null,"orgNos":null,"nowTime":null,"countyName":null,"streetName":null,"villageName":null,"roadName":null,"communityName":null,"tranName":null,"sdLineName":null,"cityCode":"3340150","cityName":"国网浙江桐庐县供电公司","provinceCode":null,"stopTime":"2019-11-05 10:45:00","powerType":"全部","powerOffArea":"110kV枫塘变:富湾T401线中联俞家1号公变配变","powerOffReason":"(低压停电信息)低压开关跳闸","powerOffId":"2019110531020054"},{"poweroffId":2019110531020023,"sgpoweroffId":null,"subsName":"","lineName":"10kV陈家C327线","pubTranName":"陈家园村1#变,","scope":"浙江省-杭州市-萧山区-新街镇-新街街道-陈家园行政村-陈家园自然村等一带","startTime":"2019-11-05 07:48:48","stopDate":"2019-11-05 18:00:48","orgNo":"3340130","typeCode":"电网故障停限电","poweroffArea":"110kV沿塘变:陈家C327线-陈家园村1#变台区低压开关","poweroffReason":"(低压停电信息)低压漏电保护器短路故障","powerTime":"2019-11-05 17:03:47","powerComm":"已送电","subsNo":"","lineNo":"","tgNo":"","tgName":null,"infoStatus":"1","orgName":"国网浙江杭州市萧山区供电有限公司","typeName":null,"infoStatusName":null,"dateDay":null,"orgNos":null,"nowTime":null,"countyName":null,"streetName":null,"villageName":null,"roadName":null,"communityName":null,"tranName":null,"sdLineName":null,"cityCode":"3340130","cityName":"国网浙江杭州市萧山区供电有限公司","provinceCode":null,"stopTime":"2019-11-05 18:00:48","powerType":"全部","powerOffArea":"110kV沿塘变:陈家C327线-陈家园村1#变台区低压开关","powerOffReason":"(低压停电信息)低压漏电保护器短路故障","powerOffId":"2019110531020023"}],"pageModel":{"pageNow":907,"totalCount":17789,"totalPage":1779,"tableRows":0,"pageCount":10,"beginCount":9060},"isExperi":"1"}