{"message":"","today":"2020-06-15","seleList":[{"poweroffId":2019110431020238,"sgpoweroffId":null,"subsName":"","lineName":"10kV河动7267线","pubTranName":"鸿雁五变,","scope":"浙江省-杭州市-滨江区-长河街道-白马湖社区-江虹南路，浙江省杭州市滨江区鸿雁苑9号楼商铺","startTime":"2019-11-20 09:30:00","stopDate":"2019-11-20 11:30:00","orgNo":"3340101","typeCode":"计划停电","poweroffArea":"110kV白马变:河动7267线-鸿雁五变后段B5-7低压","poweroffReason":"(低压停电信息)非居新装","powerTime":"2019-11-20 11:17:17","powerComm":"已送电","subsNo":"","lineNo":"","tgNo":"","tgName":null,"infoStatus":"1","orgName":"浙江杭州电力客户服务中心","typeName":null,"infoStatusName":null,"dateDay":null,"orgNos":null,"nowTime":null,"countyName":null,"streetName":null,"villageName":null,"roadName":null,"communityName":null,"tranName":null,"sdLineName":null,"cityCode":"3340101","cityName":"浙江杭州电力客户服务中心","provinceCode":null,"stopTime":"2019-11-20 11:30:00","powerType":"全部","powerOffArea":"110kV白马变:河动7267线-鸿雁五变后段B5-7低压","powerOffReason":"(低压停电信息)非居新装","powerOffId":"2019110431020238"},{"poweroffId":2019110431020237,"sgpoweroffId":null,"subsName":"","lineName":"10kV碧水8376线","pubTranName":"华龙九变,","scope":"浙江省-杭州市-滨江区-浦沿街道-之江社区-西环路，浙江省杭州市滨江区碧水豪园5幢1-6单元居民照明","startTime":"2019-11-19 09:27:00","stopDate":"2019-11-19 11:30:00","orgNo":"3340101","typeCode":"计划停电","poweroffArea":"110kV新生变:碧水8376线-华龙九变后段B9-7低压","poweroffReason":"(低压停电信息)充电桩工作","powerTime":"2019-11-19 10:32:15","powerComm":"已送电","subsNo":"","lineNo":"","tgNo":"","tgName":null,"infoStatus":"1","orgName":"浙江杭州电力客户服务中心","typeName":null,"infoStatusName":null,"dateDay":null,"orgNos":null,"nowTime":null,"countyName":null,"streetName":null,"villageName":null,"roadName":null,"communityName":null,"tranName":null,"sdLineName":null,"cityCode":"3340101","cityName":"浙江杭州电力客户服务中心","provinceCode":null,"stopTime":"2019-11-19 11:30:00","powerType":"全部","powerOffArea":"110kV新生变:碧水8376线-华龙九变后段B9-7低压","powerOffReason":"(低压停电信息)充电桩工作","powerOffId":"2019110431020237"},{"poweroffId":2019110431020231,"sgpoweroffId":null,"subsName":"","lineName":"10kV南园7234线","pubTranName":"豪西三变,","scope":"浙江省-杭州市-滨江区-长河街道-月明社区-月明路，浙江省杭州市滨江区江南豪园11号楼19-26居民照明，11号楼主供，12号楼备供，2个充电桩用户。","startTime":"2019-11-18 09:38:00","stopDate":"2019-11-18 11:30:00","orgNo":"3340101","typeCode":"计划停电","poweroffArea":"110kV江虹变:南园7234线-豪西三变后段B3-6低压","poweroffReason":"（低压停电信息）充电桩工作","powerTime":"2019-11-18 10:37:59","powerComm":"已送电","subsNo":"","lineNo":"","tgNo":"","tgName":null,"infoStatus":"1","orgName":"浙江杭州电力客户服务中心","typeName":null,"infoStatusName":null,"dateDay":null,"orgNos":null,"nowTime":null,"countyName":null,"streetName":null,"villageName":null,"roadName":null,"communityName":null,"tranName":null,"sdLineName":null,"cityCode":"3340101","cityName":"浙江杭州电力客户服务中心","provinceCode":null,"stopTime":"2019-11-18 11:30:00","powerType":"全部","powerOffArea":"110kV江虹变:南园7234线-豪西三变后段B3-6低压","powerOffReason":"（低压停电信息）充电桩工作","powerOffId":"2019110431020231"},{"poweroffId":2019110431020223,"sgpoweroffId":null,"subsName":"","lineName":"10kV新塘G939线","pubTranName":"塘湾村过军桥公变,","scope":"浙江省杭州市余杭区东湖街道：塘湾村过军桥一带","startTime":"2019-11-15 08:00:00","stopDate":"2019-11-15 11:30:00","orgNo":"3340140","typeCode":"计划停电","poweroffArea":"110kV亭趾变:新塘G939线-塘湾村过军桥公变跌落式熔断器后段 原停电结束时间为2019-11-15 12:00:00,为减少客户停电时间,加快工作进度,提前送电,现变更停电结束时间为2019-11-15 11:30:00","poweroffReason":"塘湾二（过军桥）公变调换计量箱 原停电结束时间为2019-11-15 12:00:00,为减少客户停电时间,加快工作进度,提前送电,现变更停电结束时间为2019-11-15 11:30:00","powerTime":"2019-11-15 10:45:00","powerComm":"已送电","subsNo":"","lineNo":"","tgNo":"","tgName":null,"infoStatus":"1","orgName":"国网浙江杭州市余杭区供电有限公司","typeName":null,"infoStatusName":null,"dateDay":null,"orgNos":null,"nowTime":null,"countyName":null,"streetName":null,"villageName":null,"roadName":null,"communityName":null,"tranName":null,"sdLineName":null,"cityCode":"3340140","cityName":"国网浙江杭州市余杭区供电有限公司","provinceCode":null,"stopTime":"2019-11-15 11:30:00","powerType":"全部","powerOffArea":"110kV亭趾变:新塘G939线-塘湾村过军桥公变跌落式熔断器后段 原停电结束时间为2019-11-15 12:00:00,为减少客户停电时间,加快工作进度,提前送电,现变更停电结束时间为2019-11-15 11:30:00","powerOffReason":"塘湾二（过军桥）公变调换计量箱 原停电结束时间为2019-11-15 12:00:00,为减少客户停电时间,加快工作进度,提前送电,现变更停电结束时间为2019-11-15 11:30:00","powerOffId":"2019110431020223"},{"poweroffId":2019110431020221,"sgpoweroffId":null,"subsName":"","lineName":"10kV屯里G077线","pubTranName":"屯里村跳家桥,","scope":"浙江省杭州市余杭区东湖街道：屯里村跳家桥一带","startTime":"2019-11-13 08:00:00","stopDate":"2019-11-13 12:00:00","orgNo":"3340140","typeCode":"计划停电","poweroffArea":"110kV星桥变:屯里G077线-跳家后段","poweroffReason":"屯里村跳家桥公变调换计量箱","powerTime":"2019-11-13 11:10:00","powerComm":"已送电","subsNo":"","lineNo":"","tgNo":"","tgName":null,"infoStatus":"1","orgName":"国网浙江杭州市余杭区供电有限公司","typeName":null,"infoStatusName":null,"dateDay":null,"orgNos":null,"nowTime":null,"countyName":null,"streetName":null,"villageName":null,"roadName":null,"communityName":null,"tranName":null,"sdLineName":null,"cityCode":"3340140","cityName":"国网浙江杭州市余杭区供电有限公司","provinceCode":null,"stopTime":"2019-11-13 12:00:00","powerType":"全部","powerOffArea":"110kV星桥变:屯里G077线-跳家后段","powerOffReason":"屯里村跳家桥公变调换计量箱","powerOffId":"2019110431020221"},{"poweroffId":2019110431020219,"sgpoweroffId":null,"subsName":"","lineName":"10kV屯里G077线","pubTranName":"屯里村9组,","scope":"浙江省杭州市余杭区临平街道：屯里村9组一带","startTime":"2019-11-13 12:30:00","stopDate":"2019-11-13 17:00:00","orgNo":"3340140","typeCode":"计划停电","poweroffArea":"110kV星桥变:屯里G077线-屯里9组后段","poweroffReason":"屯里9组公变调换计量箱","powerTime":"2019-11-13 16:10:00","powerComm":"已送电","subsNo":"","lineNo":"","tgNo":"","tgName":null,"infoStatus":"1","orgName":"国网浙江杭州市余杭区供电有限公司","typeName":null,"infoStatusName":null,"dateDay":null,"orgNos":null,"nowTime":null,"countyName":null,"streetName":null,"villageName":null,"roadName":null,"communityName":null,"tranName":null,"sdLineName":null,"cityCode":"3340140","cityName":"国网浙江杭州市余杭区供电有限公司","provinceCode":null,"stopTime":"2019-11-13 17:00:00","powerType":"全部","powerOffArea":"110kV星桥变:屯里G077线-屯里9组后段","powerOffReason":"屯里9组公变调换计量箱","powerOffId":"2019110431020219"},{"poweroffId":2019110431020199,"sgpoweroffId":null,"subsName":"","lineName":"10kV三江6285线","pubTranName":"长寓七变,长寓六变,","scope":"浙江省-杭州市-滨江区-长河街道-江三社区(长江小区,滨康路)","startTime":"2019-11-04 14:07:38","stopDate":"2019-11-04 16:45:38","orgNo":"3340101","typeCode":"电网故障停限电","poweroffArea":"110kV之江变:三江6285线-长寓七变后段","poweroffReason":"(低压停电信息)低压开关跳闸 原停电结束时间为2019-11-04 18:07:38,为减少客户停电时间,加快工作进度,提前送电,现变更停电结束时间为2019-11-04 16:45:38","powerTime":"2019-11-04 16:04:01","powerComm":"已送电","subsNo":"","lineNo":"","tgNo":"","tgName":null,"infoStatus":"1","orgName":"浙江杭州电力客户服务中心","typeName":null,"infoStatusName":null,"dateDay":null,"orgNos":null,"nowTime":null,"countyName":null,"streetName":null,"villageName":null,"roadName":null,"communityName":null,"tranName":null,"sdLineName":null,"cityCode":"3340101","cityName":"浙江杭州电力客户服务中心","provinceCode":null,"stopTime":"2019-11-04 16:45:38","powerType":"全部","powerOffArea":"110kV之江变:三江6285线-长寓七变后段","powerOffReason":"(低压停电信息)低压开关跳闸 原停电结束时间为2019-11-04 18:07:38,为减少客户停电时间,加快工作进度,提前送电,现变更停电结束时间为2019-11-04 16:45:38","powerOffId":"2019110431020199"},{"poweroffId":2019110431020181,"sgpoweroffId":null,"subsName":"","lineName":"10kV断桥H760线","pubTranName":"1#,荆丰村长流,五常幼儿园基建,五常老年公寓,","scope":"浙江省-杭州市-余杭区-五常街道-荆丰社区(西坝路,荆长路);五常街道(杭州市余杭区五常街道中心幼儿园,杭州市余杭区人民政府五常街道办事处)","startTime":"2019-11-04 13:17:00","stopDate":"2019-11-04 15:17:00","orgNo":"3340140","typeCode":"电网故障停限电","poweroffArea":"110kV五常变:断桥H760线九胜开关站3#备用后段","poweroffReason":"高压开关跳闸","powerTime":"2019-11-04 14:40:00","powerComm":"已送电","subsNo":"","lineNo":"","tgNo":"","tgName":null,"infoStatus":"1","orgName":"国网浙江杭州市余杭区供电有限公司","typeName":null,"infoStatusName":null,"dateDay":null,"orgNos":null,"nowTime":null,"countyName":null,"streetName":null,"villageName":null,"roadName":null,"communityName":null,"tranName":null,"sdLineName":null,"cityCode":"3340140","cityName":"国网浙江杭州市余杭区供电有限公司","provinceCode":null,"stopTime":"2019-11-04 15:17:00","powerType":"全部","powerOffArea":"110kV五常变:断桥H760线九胜开关站3#备用后段","powerOffReason":"高压开关跳闸","powerOffId":"2019110431020181"},{"poweroffId":2019110431020179,"sgpoweroffId":null,"subsName":"","lineName":"10kV宏波A301线","pubTranName":"前峰村3#变,","scope":"浙江省-杭州市-萧山区-前进街道(三丰行政村-三丰自然村,前峰行政村-前峰自然村)、宇祥房产、城东和平桥围垦用电","startTime":"2019-11-11 09:00:00","stopDate":"2019-11-11 16:00:00","orgNo":"3340120","typeCode":"计划停电","poweroffArea":"110kV建湾变:宏波A301线-青年分线01#杆开关后段","poweroffReason":"10KV宏波A301线青年分线前峰3#变台区移位、配电柜更换等工作。 原停电结束时间为2019-11-11 15:30:00,因工作量较大原因,现变更停电结束时间为2019-11-11 16:00:00","powerTime":"2019-11-11 15:43:36","powerComm":"已送电","subsNo":"","lineNo":"","tgNo":"","tgName":null,"infoStatus":"1","orgName":"国网浙江杭州市钱塘新区供电公司","typeName":null,"infoStatusName":null,"dateDay":null,"orgNos":null,"nowTime":null,"countyName":null,"streetName":null,"villageName":null,"roadName":null,"communityName":null,"tranName":null,"sdLineName":null,"cityCode":"3340120","cityName":"国网浙江杭州市钱塘新区供电公司","provinceCode":null,"stopTime":"2019-11-11 16:00:00","powerType":"全部","powerOffArea":"110kV建湾变:宏波A301线-青年分线01#杆开关后段","powerOffReason":"10KV宏波A301线青年分线前峰3#变台区移位、配电柜更换等工作。 原停电结束时间为2019-11-11 15:30:00,因工作量较大原因,现变更停电结束时间为2019-11-11 16:00:00","powerOffId":"2019110431020179"},{"poweroffId":2019110431020177,"sgpoweroffId":null,"subsName":"","lineName":"10kV南围065线","pubTranName":"东江宁围,东江宁围,志荣水产,","scope":"浙江省-杭州市-萧山区-围垦垦区-十二工段片区-杭州萧山宁围志荣水产专业合作社,围垦垦区-十三工段片区(东江宁围垦种,东江宁围垦(宁牧垦))","startTime":"2019-11-14 11:20:00","stopDate":"2019-11-14 18:00:00","orgNo":"3340120","typeCode":"计划停电","poweroffArea":"110kV长征变:南围065线-37/19#杆分支后段","poweroffReason":"10KV南围065线37-19#杆至37-19-05#杆换线 原停电结束时间为2019-11-14 17:00:00,因工作原因,现变更停电结束时间为2019-11-14 18:00:00","powerTime":"2019-11-14 17:38:54","powerComm":"已送电","subsNo":"","lineNo":"","tgNo":"","tgName":null,"infoStatus":"1","orgName":"国网浙江杭州市钱塘新区供电公司","typeName":null,"infoStatusName":null,"dateDay":null,"orgNos":null,"nowTime":null,"countyName":null,"streetName":null,"villageName":null,"roadName":null,"communityName":null,"tranName":null,"sdLineName":null,"cityCode":"3340120","cityName":"国网浙江杭州市钱塘新区供电公司","provinceCode":null,"stopTime":"2019-11-14 18:00:00","powerType":"全部","powerOffArea":"110kV长征变:南围065线-37/19#杆分支后段","powerOffReason":"10KV南围065线37-19#杆至37-19-05#杆换线 原停电结束时间为2019-11-14 17:00:00,因工作原因,现变更停电结束时间为2019-11-14 18:00:00","powerOffId":"2019110431020177"}],"pageModel":{"pageNow":909,"totalCount":17789,"totalPage":1779,"tableRows":0,"pageCount":10,"beginCount":9080},"isExperi":"1"}