{"message":"","today":"2020-06-15","seleList":[{"poweroffId":2019110331020089,"sgpoweroffId":null,"subsName":"","lineName":"10kV佛日G081线","pubTranName":"浙江天勤建设有限公司61208105271#变压器,大地环保3#,大地环保1#,围垦石矿,大地维康,星桥金属加工厂,汤家老村委变,汤加公寓专变II段1#专变,大地环保2#,杭州余杭渣土处置有限公司61208681801#变压器,星桥幼儿园1＃变,杭州市余杭区广播电视台,固废专用路南路灯变,和兴茶叶,杭州大地环保有限公司II段1#专变,浙江天勤建设有限公司61208105281#变压器,银鸿环保科技,皋亭山电视台2#,国营南山林场,汤家3组（江家塘）公变,银芳副食品厂基建,汤家8组2号（佛日坞）公变,汤家村委公变,","scope":"浙江省-杭州市-余杭区-南苑街道-新丰社区-雪海路,星桥街道-汤家社区(汤家,星都路),东湖街道-梅堰社区(梅堰路,红丰路);星桥街道-汤家社区(杭州余杭广播电视有限公司,杭州无线数字电视股份有限公司,杭州余杭汤家股份经济合作社,杭州立佳环境服务有限公司,杭州余杭渣土处置有限公司,杭州余杭星桥金属加工厂,杭州余杭和顺茶叶贸易商行,市围垦石矿,杭州市余杭区市政绿化河道监管中心,杭州市余杭区星桥街道农民多层公寓建设管理中心,杭州市余杭区国营南山林场,杭州市余杭区星桥中心幼儿园,浙江天勤建设有限公司)","startTime":"2019-11-03 13:50:00","stopDate":"2019-11-03 16:00:00","orgNo":"3340140","typeCode":"电网故障停限电","poweroffArea":"110kV星桥变:佛日G081线首端，佛日G0811开关，佛日G0812开关之间","poweroffReason":"高压开关跳闸","powerTime":"2019-11-03 15:30:00","powerComm":"已送电","subsNo":"","lineNo":"","tgNo":"","tgName":null,"infoStatus":"1","orgName":"国网浙江杭州市余杭区供电有限公司","typeName":null,"infoStatusName":null,"dateDay":null,"orgNos":null,"nowTime":null,"countyName":null,"streetName":null,"villageName":null,"roadName":null,"communityName":null,"tranName":null,"sdLineName":null,"cityCode":"3340140","cityName":"国网浙江杭州市余杭区供电有限公司","provinceCode":null,"stopTime":"2019-11-03 16:00:00","powerType":"全部","powerOffArea":"110kV星桥变:佛日G081线首端，佛日G0811开关，佛日G0812开关之间","powerOffReason":"高压开关跳闸","powerOffId":"2019110331020089"},{"poweroffId":2019110331020087,"sgpoweroffId":null,"subsName":"","lineName":"10kV站用T176线","pubTranName":"小源塔岭3号公变,","scope":"浙江省-杭州市-桐庐县-分水镇-小源行政村-塔岭自然村","startTime":"2019-11-03 13:46:45","stopDate":"2019-11-03 16:16:45","orgNo":"3340150","typeCode":"电网故障停限电","poweroffArea":"110kV分水变:站用T176线-小源塔岭3号公变后段","poweroffReason":"(低压停电信息)低压开关跳闸","powerTime":"2019-11-03 16:00:35","powerComm":"已送电","subsNo":"","lineNo":"","tgNo":"","tgName":null,"infoStatus":"1","orgName":"国网浙江桐庐县供电公司","typeName":null,"infoStatusName":null,"dateDay":null,"orgNos":null,"nowTime":null,"countyName":null,"streetName":null,"villageName":null,"roadName":null,"communityName":null,"tranName":null,"sdLineName":null,"cityCode":"3340150","cityName":"国网浙江桐庐县供电公司","provinceCode":null,"stopTime":"2019-11-03 16:16:45","powerType":"全部","powerOffArea":"110kV分水变:站用T176线-小源塔岭3号公变后段","powerOffReason":"(低压停电信息)低压开关跳闸","powerOffId":"2019110331020087"},{"poweroffId":2019110331020072,"sgpoweroffId":null,"subsName":"","lineName":"10kV森禾H647线","pubTranName":"浙江省建工集团有限责任公司,欧港置业7#基建间隔配电变压器,中快1号基建,欧港置业,欧港置业,浙江省建工集团有限责任公司,欧港置业,中快2号基建,杭州舒亚科技有限公司,爱力领富工棚,未来科技城路灯地埋变,1#,中快3号基建,浙江省建工集团有限责任公司,","scope":"浙江省-杭州市-余杭区-五常街道-杭州爱力领富科技股份有限公司,仓前街道(杭州舒亚科技有限公司,杭州未来科技城建设有限公司,杭州市地铁集团有限责任公司,浙江省建工集团有限责任公司,杭州欧港置业有限公司,中铁一局集团第五工程有限公司)","startTime":"2019-11-03 11:48:02","stopDate":"2019-11-03 15:00:00","orgNo":"3340140","typeCode":"电网故障停限电","poweroffArea":"110kV永福变:森禾H647线红旗环网站红旗排分线后段","poweroffReason":"高压开关跳闸 原停电结束时间为2019-11-03 13:48:00,因现场情况复杂，施工难度大原因,现变更停电结束时间为2019-11-03 15:00:00","powerTime":"2019-11-03 14:35:00","powerComm":"已送电","subsNo":"","lineNo":"","tgNo":"","tgName":null,"infoStatus":"1","orgName":"国网浙江杭州市余杭区供电有限公司","typeName":null,"infoStatusName":null,"dateDay":null,"orgNos":null,"nowTime":null,"countyName":null,"streetName":null,"villageName":null,"roadName":null,"communityName":null,"tranName":null,"sdLineName":null,"cityCode":"3340140","cityName":"国网浙江杭州市余杭区供电有限公司","provinceCode":null,"stopTime":"2019-11-03 15:00:00","powerType":"全部","powerOffArea":"110kV永福变:森禾H647线红旗环网站红旗排分线后段","powerOffReason":"高压开关跳闸 原停电结束时间为2019-11-03 13:48:00,因现场情况复杂，施工难度大原因,现变更停电结束时间为2019-11-03 15:00:00","powerOffId":"2019110331020072"},{"poweroffId":2019110331020071,"sgpoweroffId":null,"subsName":"","lineName":"10kV梓树D973线","pubTranName":"上大庄村13号徐家公变,","scope":"浙江省-杭州市-富阳区-银湖街道-大庄行政村(上大庄自然村,徐家自然村,潘家自然村)","startTime":"2019-11-03 11:45:00","stopDate":"2019-11-03 13:45:00","orgNo":"3340170","typeCode":"电网故障停限电","poweroffArea":"110kV九龙变:梓树D973线上大庄村13号徐家公变配变","poweroffReason":"高压开关跳闸","powerTime":"2019-11-03 13:32:17","powerComm":"已送电","subsNo":"","lineNo":"","tgNo":"","tgName":null,"infoStatus":"1","orgName":"国网浙江杭州市富阳区供电公司","typeName":null,"infoStatusName":null,"dateDay":null,"orgNos":null,"nowTime":null,"countyName":null,"streetName":null,"villageName":null,"roadName":null,"communityName":null,"tranName":null,"sdLineName":null,"cityCode":"3340170","cityName":"国网浙江杭州市富阳区供电公司","provinceCode":null,"stopTime":"2019-11-03 13:45:00","powerType":"全部","powerOffArea":"110kV九龙变:梓树D973线上大庄村13号徐家公变配变","powerOffReason":"高压开关跳闸","powerOffId":"2019110331020071"},{"poweroffId":2019110331020062,"sgpoweroffId":null,"subsName":"","lineName":"10kV佛日G081线","pubTranName":"汤家3组（江家塘）公变,和兴茶叶,汤家8组2号（佛日坞）公变,","scope":"浙江省-杭州市-余杭区-南苑街道-新丰社区-雪海路,星桥街道-汤家社区(汤家,星都路),东湖街道-梅堰社区(梅堰路,红丰路);星桥街道-杭州余杭和顺茶叶贸易商行","startTime":"2019-11-03 10:59:00","stopDate":"2019-11-03 12:59:00","orgNo":"3340140","typeCode":"电网故障停限电","poweroffArea":"110kV星桥变:佛日G081线汤家8组2#分线开关后段","poweroffReason":"高压开关跳闸","powerTime":"2019-11-03 12:15:00","powerComm":"已送电","subsNo":"","lineNo":"","tgNo":"","tgName":null,"infoStatus":"1","orgName":"国网浙江杭州市余杭区供电有限公司","typeName":null,"infoStatusName":null,"dateDay":null,"orgNos":null,"nowTime":null,"countyName":null,"streetName":null,"villageName":null,"roadName":null,"communityName":null,"tranName":null,"sdLineName":null,"cityCode":"3340140","cityName":"国网浙江杭州市余杭区供电有限公司","provinceCode":null,"stopTime":"2019-11-03 12:59:00","powerType":"全部","powerOffArea":"110kV星桥变:佛日G081线汤家8组2#分线开关后段","powerOffReason":"高压开关跳闸","powerOffId":"2019110331020062"},{"poweroffId":2019110331020060,"sgpoweroffId":null,"subsName":"","lineName":"10kV店基V401线","pubTranName":"杭州富磊新型墙体有限公司2#,杭州富磊新型墙体有限公司1#,临安市供电局路灯管理所,杭州临安安昌预制构件有限公司,","scope":"浙江省杭州市临安区玲珑街道玲珑行政村(杭州临安天顺预制构件有限公司,临安市路灯管理所,杭州临安恒元建材有限公司)一带","startTime":"2019-11-15 08:20:00","stopDate":"2019-11-15 16:30:00","orgNo":"3340160","typeCode":"计划停电","poweroffArea":"110kV秀水变:店基V401线首端，玲一站4012开关，4016开关之间","poweroffReason":"电缆更换","powerTime":"2019-11-15 16:18:59","powerComm":"已送电","subsNo":"","lineNo":"","tgNo":"","tgName":null,"infoStatus":"1","orgName":"国网浙江临安市供电公司","typeName":null,"infoStatusName":null,"dateDay":null,"orgNos":null,"nowTime":null,"countyName":null,"streetName":null,"villageName":null,"roadName":null,"communityName":null,"tranName":null,"sdLineName":null,"cityCode":"3340160","cityName":"国网浙江临安市供电公司","provinceCode":null,"stopTime":"2019-11-15 16:30:00","powerType":"全部","powerOffArea":"110kV秀水变:店基V401线首端，玲一站4012开关，4016开关之间","powerOffReason":"电缆更换","powerOffId":"2019110331020060"},{"poweroffId":2019110331020059,"sgpoweroffId":null,"subsName":"","lineName":"10kV杨桥V720线","pubTranName":"金岫村[金岫],","scope":"浙江省杭州市临安区太湖源镇金岫行政村(金岫自然村,施家自然村)一带","startTime":"2019-11-15 08:00:00","stopDate":"2019-11-15 13:00:00","orgNo":"3340160","typeCode":"计划停电","poweroffArea":"110kV杨岭变:杨桥V720线-金岫村[金岫]后段","poweroffReason":"低压改造","powerTime":"2019-11-15 12:50:06","powerComm":"已送电","subsNo":"","lineNo":"","tgNo":"","tgName":null,"infoStatus":"1","orgName":"国网浙江临安市供电公司","typeName":null,"infoStatusName":null,"dateDay":null,"orgNos":null,"nowTime":null,"countyName":null,"streetName":null,"villageName":null,"roadName":null,"communityName":null,"tranName":null,"sdLineName":null,"cityCode":"3340160","cityName":"国网浙江临安市供电公司","provinceCode":null,"stopTime":"2019-11-15 13:00:00","powerType":"全部","powerOffArea":"110kV杨岭变:杨桥V720线-金岫村[金岫]后段","powerOffReason":"低压改造","powerOffId":"2019110331020059"},{"poweroffId":2019110331020058,"sgpoweroffId":null,"subsName":"","lineName":"10kV王子V874线","pubTranName":"浙江盛龙装饰材料有限公司2#,浙江盛龙装饰材料有限公司,","scope":"浙江省杭州市临安区锦南街道卦畈行政村浙江盛龙装饰材料有限公司一带","startTime":"2019-11-14 08:00:00","stopDate":"2019-11-14 13:00:00","orgNo":"3340160","typeCode":"计划停电","poweroffArea":"110kV杨岱变:王子V874线-盛龙装饰支线开关后段","poweroffReason":"线路移位","powerTime":"2019-11-14 12:50:07","powerComm":"已送电","subsNo":"","lineNo":"","tgNo":"","tgName":null,"infoStatus":"1","orgName":"国网浙江临安市供电公司","typeName":null,"infoStatusName":null,"dateDay":null,"orgNos":null,"nowTime":null,"countyName":null,"streetName":null,"villageName":null,"roadName":null,"communityName":null,"tranName":null,"sdLineName":null,"cityCode":"3340160","cityName":"国网浙江临安市供电公司","provinceCode":null,"stopTime":"2019-11-14 13:00:00","powerType":"全部","powerOffArea":"110kV杨岱变:王子V874线-盛龙装饰支线开关后段","powerOffReason":"线路移位","powerOffId":"2019110331020058"},{"poweroffId":2019110331020057,"sgpoweroffId":null,"subsName":"","lineName":"10kV郎碧V594线","pubTranName":"新溪村[大礼堂]公变,新溪村[大礼堂2#]公变,临安远大橡塑制品厂,临安锦新塑料化工有限公司,杭州临安康锐科技有限公司,","scope":"浙江省杭州市临安区锦城街道新溪桥行政村大礼堂，新溪桥行政村（临安远大橡塑制品厂、杭州临安康锐科技有限公司、临安锦新塑料化工有限公司）一带","startTime":"2019-11-14 08:00:00","stopDate":"2019-11-14 15:30:00","orgNo":"3340160","typeCode":"计划停电","poweroffArea":"110kV杨岭变:郎碧V594线-远大令克后段;郎碧V594线-朗碧594线138#后段;郎碧V594线-大礼堂2#公变分线令克后段;郎碧V594线-朗碧594线137#后段","poweroffReason":"线路改造","powerTime":"2019-11-14 15:20:15","powerComm":"已送电","subsNo":"","lineNo":"","tgNo":"","tgName":null,"infoStatus":"1","orgName":"国网浙江临安市供电公司","typeName":null,"infoStatusName":null,"dateDay":null,"orgNos":null,"nowTime":null,"countyName":null,"streetName":null,"villageName":null,"roadName":null,"communityName":null,"tranName":null,"sdLineName":null,"cityCode":"3340160","cityName":"国网浙江临安市供电公司","provinceCode":null,"stopTime":"2019-11-14 15:30:00","powerType":"全部","powerOffArea":"110kV杨岭变:郎碧V594线-远大令克后段;郎碧V594线-朗碧594线138#后段;郎碧V594线-大礼堂2#公变分线令克后段;郎碧V594线-朗碧594线137#后段","powerOffReason":"线路改造","powerOffId":"2019110331020057"},{"poweroffId":2019110331020054,"sgpoweroffId":null,"subsName":"","lineName":"10kV郎碧V594线","pubTranName":"新溪村[后山]公变,","scope":"浙江省杭州市临安区锦城街道新溪桥行政村(新溪自然村,新溪桥自然村)一带","startTime":"2019-11-12 08:00:00","stopDate":"2019-11-12 12:00:00","orgNo":"3340160","typeCode":"计划停电","poweroffArea":"110kV杨岭变:郎碧V594线-新溪村[后山]公变后段","poweroffReason":"配合停电","powerTime":"2019-11-12 11:50:23","powerComm":"已送电","subsNo":"","lineNo":"","tgNo":"","tgName":null,"infoStatus":"1","orgName":"国网浙江临安市供电公司","typeName":null,"infoStatusName":null,"dateDay":null,"orgNos":null,"nowTime":null,"countyName":null,"streetName":null,"villageName":null,"roadName":null,"communityName":null,"tranName":null,"sdLineName":null,"cityCode":"3340160","cityName":"国网浙江临安市供电公司","provinceCode":null,"stopTime":"2019-11-12 12:00:00","powerType":"全部","powerOffArea":"110kV杨岭变:郎碧V594线-新溪村[后山]公变后段","powerOffReason":"配合停电","powerOffId":"2019110331020054"}],"pageModel":{"pageNow":913,"totalCount":17789,"totalPage":1779,"tableRows":0,"pageCount":10,"beginCount":9120},"isExperi":"1"}