{"message":"","today":"2020-06-15","seleList":[{"poweroffId":2019110331020052,"sgpoweroffId":null,"subsName":"","lineName":"10kV石镜V323线","pubTranName":"兰锦村[村中]公变,","scope":"浙江省杭州市临安区锦南街道兰锦行政村(锦溪南路兰巾桥边,兰锦自然村)一带","startTime":"2019-11-11 08:00:00","stopDate":"2019-11-11 12:00:00","orgNo":"3340160","typeCode":"计划停电","poweroffArea":"110kV锦南变:石镜V323线-兰锦村[村中]公变后段","poweroffReason":"配合停电","powerTime":"2019-11-11 11:49:35","powerComm":"已送电","subsNo":"","lineNo":"","tgNo":"","tgName":null,"infoStatus":"1","orgName":"国网浙江临安市供电公司","typeName":null,"infoStatusName":null,"dateDay":null,"orgNos":null,"nowTime":null,"countyName":null,"streetName":null,"villageName":null,"roadName":null,"communityName":null,"tranName":null,"sdLineName":null,"cityCode":"3340160","cityName":"国网浙江临安市供电公司","provinceCode":null,"stopTime":"2019-11-11 12:00:00","powerType":"全部","powerOffArea":"110kV锦南变:石镜V323线-兰锦村[村中]公变后段","powerOffReason":"配合停电","powerOffId":"2019110331020052"},{"poweroffId":2019110331020044,"sgpoweroffId":null,"subsName":"","lineName":"10kV绍兴6063线","pubTranName":"四区(3),","scope":"浙江省-杭州市-下城区-朝晖街道-老房地社区-朝晖四区23幢,24幢,33幢,34幢附近一带","startTime":"2019-11-03 09:51:33","stopDate":"2019-11-03 11:51:33","orgNo":"3340101","typeCode":"电网故障停限电","poweroffArea":"110kV朝晖变:绍兴6063线-四区(3)变","poweroffReason":"(低压停电信息)低压开关跳闸","powerTime":"2019-11-03 11:16:52","powerComm":"已送电","subsNo":"","lineNo":"","tgNo":"","tgName":null,"infoStatus":"1","orgName":"浙江杭州电力客户服务中心","typeName":null,"infoStatusName":null,"dateDay":null,"orgNos":null,"nowTime":null,"countyName":null,"streetName":null,"villageName":null,"roadName":null,"communityName":null,"tranName":null,"sdLineName":null,"cityCode":"3340101","cityName":"浙江杭州电力客户服务中心","provinceCode":null,"stopTime":"2019-11-03 11:51:33","powerType":"全部","powerOffArea":"110kV朝晖变:绍兴6063线-四区(3)变","powerOffReason":"(低压停电信息)低压开关跳闸","powerOffId":"2019110331020044"},{"poweroffId":2019110331020043,"sgpoweroffId":null,"subsName":"","lineName":"10kV上官D265线","pubTranName":"剡溪村1#徐村工业园区公变,","scope":"浙江省-杭州市-富阳区-上官乡-剡溪行政村-徐村自然村","startTime":"2019-11-03 09:52:57","stopDate":"2019-11-03 10:52:57","orgNo":"3340170","typeCode":"电网故障停限电","poweroffArea":"35kV盛村变:上官D265线-剡溪村1#徐村工业园区公变后段","poweroffReason":"高压开关跳闸","powerTime":"2019-11-03 10:24:19","powerComm":"已送电","subsNo":"","lineNo":"","tgNo":"","tgName":null,"infoStatus":"1","orgName":"国网浙江杭州市富阳区供电公司","typeName":null,"infoStatusName":null,"dateDay":null,"orgNos":null,"nowTime":null,"countyName":null,"streetName":null,"villageName":null,"roadName":null,"communityName":null,"tranName":null,"sdLineName":null,"cityCode":"3340170","cityName":"国网浙江杭州市富阳区供电公司","provinceCode":null,"stopTime":"2019-11-03 10:52:57","powerType":"全部","powerOffArea":"35kV盛村变:上官D265线-剡溪村1#徐村工业园区公变后段","powerOffReason":"高压开关跳闸","powerOffId":"2019110331020043"},{"poweroffId":2019110331020042,"sgpoweroffId":null,"subsName":"","lineName":"10kV拱秀A587线","pubTranName":"回澜南园7#公变,","scope":"浙江省-杭州市-萧山区-城厢街道-回澜南苑社区(拱秀路,回澜路)回澜南园5幢、回澜南园2幢、3幢、4幢、6幢、回澜南园一带","startTime":"2019-11-03 09:33:55","stopDate":"2019-11-03 11:20:00","orgNo":"3340130","typeCode":"电网故障停限电","poweroffArea":"110kV城东变:拱秀A587线-回澜南园7#公变后段","poweroffReason":"(低压停电信息)低压电缆挖断 原停电结束时间为2019-11-03 14:30:00,为减少客户停电时间,加快工作进度,提前送电,现变更停电结束时间为2019-11-03 11:20:00","powerTime":"2019-11-03 10:29:28","powerComm":"已送电","subsNo":"","lineNo":"","tgNo":"","tgName":null,"infoStatus":"1","orgName":"国网浙江杭州市萧山区供电有限公司","typeName":null,"infoStatusName":null,"dateDay":null,"orgNos":null,"nowTime":null,"countyName":null,"streetName":null,"villageName":null,"roadName":null,"communityName":null,"tranName":null,"sdLineName":null,"cityCode":"3340130","cityName":"国网浙江杭州市萧山区供电有限公司","provinceCode":null,"stopTime":"2019-11-03 11:20:00","powerType":"全部","powerOffArea":"110kV城东变:拱秀A587线-回澜南园7#公变后段","powerOffReason":"(低压停电信息)低压电缆挖断 原停电结束时间为2019-11-03 14:30:00,为减少客户停电时间,加快工作进度,提前送电,现变更停电结束时间为2019-11-03 11:20:00","powerOffId":"2019110331020042"},{"poweroffId":2019110331020024,"sgpoweroffId":null,"subsName":"","lineName":"10kV知章A253线","pubTranName":"知章村史家桥4#变,博圣玻璃,知章村沿山1#变,知章村华汇2#变,杭州万宏汽车齿圈公司,杭州信可富机械有限公司配电变压器,杭州之江塑料材料包装有限公司,杭州市萧山区公路管理处,杭州萧山昌宇五金机械有限公司,杭州自立汽车底盘部件有限公司,杭州众晓机械厂,城南热处理,知章村沿山5#变,知章村沿山2#变,知章村华汇1#变,知章村华汇3#变,杭州瑞虎机电制造1#,亚太机电,杭州萧山佳佳工具有限公司,杭州萧山三得机械有限公司,杭州中杰工具有限公司,变压器,杭州金桥机械厂,杭州硕丰机械有限公司,杭州恒煌塑胶制品有限公司,萧山蜀山华汇石料厂,知章村史家桥1#变,知章村沿山9#变,知章村沿山3#变,知章村史家桥3#变,知章村沿山10#变,知章村华汇4#变,知章村史家桥2#变,杭州自立汽车底盘部件有限公司,杭州汇隆百货有限公司,知章村沿山6#变,湖东村10#变,知章村沿山7#变,杭州金炯机械制造有限公司,立新五金,杭州明爵科技有限公司,杭州固江机械制造有限公司,知章村沿山8#变,杭州瑞虎机电制造2#,","scope":"浙江省-杭州市-萧山区-蜀山街道-黄家章行政村-前章自然村,蜀山街道-湖东行政村(塘下施自然村,沈家坞自然村,岑头田自然村),蜀山街道-知章行政村(华汇自然村,沿山自然村,史家桥自然村);蜀山街道-知章行政村(杭州金桥机械厂,杭州自立汽车底盘部件有限公司,杭州萧山佳佳工具有限公司,杭州汇隆百货有限公司,杭州恒煌塑胶制品有限公司,杭州萧山蜀山华汇石料厂,杭州万宏汽车齿圈有限公司,杭州萧山昌宇五金机械有限公司,杭州中杰工具有限公司,杭州萧山三得机械有限公司,杭州之江塑料包装材料有限公司,杭州正荣涂装有限公司,杭州众晓机械厂,杭州硕丰机械有限公司,浙江亚太机电股份有限公司,杭州金炯机械制造有限公司,杭州明爵科技有限公司,杭州立全鑫摩擦材料有限公司,杭州瑞虎机电制造有限公司,杭州固江机械制造有限公司,杭州博圣玻璃有限公司,杭州信可富机械有限公司),蜀山街道(黄家章行政村-杭州市萧山区公路管理处,沙里吴行政村-浙江亚太机电股份有限公司)一带","startTime":"2019-11-03 08:28:37","stopDate":"2019-11-03 12:00:37","orgNo":"3340130","typeCode":"电网故障停限电","poweroffArea":"110kV定山变:知章A253线-知章A2531开关后段","poweroffReason":"外力破坏引起高压住上开关故障 原停电结束时间为2019-11-03 12:29:37,为减少客户停电时间,加快工作进度,提前送电,现变更停电结束时间为2019-11-03 12:00:37","powerTime":"2019-11-03 11:20:21","powerComm":"已送电","subsNo":"","lineNo":"","tgNo":"","tgName":null,"infoStatus":"1","orgName":"国网浙江杭州市萧山区供电有限公司","typeName":null,"infoStatusName":null,"dateDay":null,"orgNos":null,"nowTime":null,"countyName":null,"streetName":null,"villageName":null,"roadName":null,"communityName":null,"tranName":null,"sdLineName":null,"cityCode":"3340130","cityName":"国网浙江杭州市萧山区供电有限公司","provinceCode":null,"stopTime":"2019-11-03 12:00:37","powerType":"全部","powerOffArea":"110kV定山变:知章A253线-知章A2531开关后段","powerOffReason":"外力破坏引起高压住上开关故障 原停电结束时间为2019-11-03 12:29:37,为减少客户停电时间,加快工作进度,提前送电,现变更停电结束时间为2019-11-03 12:00:37","powerOffId":"2019110331020024"},{"poweroffId":2019110331020014,"sgpoweroffId":null,"subsName":"","lineName":"10kV罗山T377线","pubTranName":"苎坑上村1号公变,","scope":"浙江省-杭州市-桐庐县-百江镇-苎坑行政村(后珠畈自然村,苎坑上村自然村)","startTime":"2019-11-03 07:55:54","stopDate":"2019-11-03 09:55:54","orgNo":"3340150","typeCode":"电网故障停限电","poweroffArea":"110kV百江变:罗山T377线-苎坑上村1号公变后段","poweroffReason":"(低压停电信息)低压开关跳闸","powerTime":"2019-11-03 09:40:43","powerComm":"已送电","subsNo":"","lineNo":"","tgNo":"","tgName":null,"infoStatus":"1","orgName":"国网浙江桐庐县供电公司","typeName":null,"infoStatusName":null,"dateDay":null,"orgNos":null,"nowTime":null,"countyName":null,"streetName":null,"villageName":null,"roadName":null,"communityName":null,"tranName":null,"sdLineName":null,"cityCode":"3340150","cityName":"国网浙江桐庐县供电公司","provinceCode":null,"stopTime":"2019-11-03 09:55:54","powerType":"全部","powerOffArea":"110kV百江变:罗山T377线-苎坑上村1号公变后段","powerOffReason":"(低压停电信息)低压开关跳闸","powerOffId":"2019110331020014"},{"poweroffId":2019110331020006,"sgpoweroffId":null,"subsName":"","lineName":"10kV黄家G387线","pubTranName":"山虎机械,杭州余杭松颜杭白菊专业合作社,渔港家园公变,杭州余杭区隆基精密铸造厂,一韦涂料,杭州山虎机械有限公司,","scope":"浙江省-杭州市-余杭区-仁和街道-獐山社区(渔港家园,渔港嘉园);仁和街道(杭州余杭区隆基精密铸造厂,杭州一韦涂料化学有限公司,杭州山虎机械有限公司,杭州余杭松颜杭白菊专业合作社)","startTime":"2019-11-03 06:35:00","stopDate":"2019-11-03 08:35:00","orgNo":"3340140","typeCode":"电网故障停限电","poweroffArea":"110kV东塘变:黄家G387线水产分线开关后段","poweroffReason":"高压开关跳闸","powerTime":"2019-11-03 08:15:00","powerComm":"已送电","subsNo":"","lineNo":"","tgNo":"","tgName":null,"infoStatus":"1","orgName":"国网浙江杭州市余杭区供电有限公司","typeName":null,"infoStatusName":null,"dateDay":null,"orgNos":null,"nowTime":null,"countyName":null,"streetName":null,"villageName":null,"roadName":null,"communityName":null,"tranName":null,"sdLineName":null,"cityCode":"3340140","cityName":"国网浙江杭州市余杭区供电有限公司","provinceCode":null,"stopTime":"2019-11-03 08:35:00","powerType":"全部","powerOffArea":"110kV东塘变:黄家G387线水产分线开关后段","powerOffReason":"高压开关跳闸","powerOffId":"2019110331020006"},{"poweroffId":2019110331020004,"sgpoweroffId":null,"subsName":"","lineName":"10kV千家D297线","pubTranName":"浙江交工集团股份有限公司基建变1#,杭州鑫磊矿业有限公司,浙江交工集团股份有限公司1#变,浙江交工集团股份有限公司 1#,大畈村1#塔坞公变,杭州鑫磊矿业有限公司,浙江交工集团股份有限公司 1#,浙江交工集团股份有限公司 1#,浙江交工集团股份有限公司 1#,浙江交工集团股份有限公司2#,","scope":"浙江省-杭州市-富阳区-银湖街道-大地行政村(塔坞自然村,大地自然村,大畈自然村,芳地自然村,马家坞自然村);银湖街道-大地行政村(浙江交工集团股份有限公司,杭州鑫磊矿业有限公司)","startTime":"2019-11-03 04:48:11","stopDate":"2019-11-03 07:00:00","orgNo":"3340170","typeCode":"电网故障停限电","poweroffArea":"35kV新义变:千家D297线-塔坞分线后段","poweroffReason":"高压开关跳闸 原停电结束时间为2019-11-03 06:00:00,因现场抢修难度大原因,现变更停电结束时间为2019-11-03 07:00:00","powerTime":"2019-11-03 06:45:39","powerComm":"已送电","subsNo":"","lineNo":"","tgNo":"","tgName":null,"infoStatus":"1","orgName":"国网浙江杭州市富阳区供电公司","typeName":null,"infoStatusName":null,"dateDay":null,"orgNos":null,"nowTime":null,"countyName":null,"streetName":null,"villageName":null,"roadName":null,"communityName":null,"tranName":null,"sdLineName":null,"cityCode":"3340170","cityName":"国网浙江杭州市富阳区供电公司","provinceCode":null,"stopTime":"2019-11-03 07:00:00","powerType":"全部","powerOffArea":"35kV新义变:千家D297线-塔坞分线后段","powerOffReason":"高压开关跳闸 原停电结束时间为2019-11-03 06:00:00,因现场抢修难度大原因,现变更停电结束时间为2019-11-03 07:00:00","powerOffId":"2019110331020004"},{"poweroffId":2019110331020003,"sgpoweroffId":null,"subsName":"","lineName":"10kV绍兴6063线","pubTranName":"四区(3),","scope":"浙江省-杭州市-下城区-朝晖街道-朝晖四区-老房地社区-新市街","startTime":"2019-11-03 03:14:32","stopDate":"2019-11-03 06:30:32","orgNo":"3340101","typeCode":"电网故障停限电","poweroffArea":"110kV朝晖变:绍兴6063线-四区(3)后段","poweroffReason":"高压开关跳闸 原停电结束时间为2019-11-03 09:14:32,为减少客户停电时间,加快工作进度,提前送电,现变更停电结束时间为2019-11-03 06:30:32","powerTime":"2019-11-03 05:15:40","powerComm":"已送电","subsNo":"","lineNo":"","tgNo":"","tgName":null,"infoStatus":"1","orgName":"浙江杭州电力客户服务中心","typeName":null,"infoStatusName":null,"dateDay":null,"orgNos":null,"nowTime":null,"countyName":null,"streetName":null,"villageName":null,"roadName":null,"communityName":null,"tranName":null,"sdLineName":null,"cityCode":"3340101","cityName":"浙江杭州电力客户服务中心","provinceCode":null,"stopTime":"2019-11-03 06:30:32","powerType":"全部","powerOffArea":"110kV朝晖变:绍兴6063线-四区(3)后段","powerOffReason":"高压开关跳闸 原停电结束时间为2019-11-03 09:14:32,为减少客户停电时间,加快工作进度,提前送电,现变更停电结束时间为2019-11-03 06:30:32","powerOffId":"2019110331020003"},{"poweroffId":2019110331020002,"sgpoweroffId":null,"subsName":"","lineName":"10kV郭村Y801线","pubTranName":"昴畈村昴畈台区,","scope":"浙江省-杭州市-建德市-莲花镇-昴畈行政村-昴畈自然村，金三日有限公司一带用户。","startTime":"2019-11-03 02:52:00","stopDate":"2019-11-03 06:00:00","orgNo":"3340180","typeCode":"电网故障停限电","poweroffArea":"35kV莲花变:郭村Y801线-昴畈村昴畈台区后段","poweroffReason":"(低压停电信息)低压开关跳闸","powerTime":"2019-11-03 06:00:00","powerComm":"已送电","subsNo":"","lineNo":"","tgNo":"","tgName":null,"infoStatus":"1","orgName":"国网浙江建德市供电有限公司","typeName":null,"infoStatusName":null,"dateDay":null,"orgNos":null,"nowTime":null,"countyName":null,"streetName":null,"villageName":null,"roadName":null,"communityName":null,"tranName":null,"sdLineName":null,"cityCode":"3340180","cityName":"国网浙江建德市供电有限公司","provinceCode":null,"stopTime":"2019-11-03 06:00:00","powerType":"全部","powerOffArea":"35kV莲花变:郭村Y801线-昴畈村昴畈台区后段","powerOffReason":"(低压停电信息)低压开关跳闸","powerOffId":"2019110331020002"}],"pageModel":{"pageNow":914,"totalCount":17789,"totalPage":1779,"tableRows":0,"pageCount":10,"beginCount":9130},"isExperi":"1"}