{"message":"","today":"2020-06-15","seleList":[{"poweroffId":2019110131020506,"sgpoweroffId":null,"subsName":"","lineName":"10kV泗化A348线","pubTranName":"杭州易维特电器有限公司,","scope":"浙江省-杭州市-萧山区-进化镇-欢潭行政村-杭州易维特电器有限公司","startTime":"2019-11-14 08:30:00","stopDate":"2019-11-14 13:00:00","orgNo":"3340130","typeCode":"计划停电","poweroffArea":"110kV进化变:泗化A348线-坊潭A348线欢潭工业分线开关后段","poweroffReason":"泗化A348线祝坊开坊潭A348线电缆缺陷处理。 原停电结束时间为2019-11-14 14:30:00,为减少客户停电时间,加快工作进度,提前送电,现变更停电结束时间为2019-11-14 13:00:00","powerTime":"2019-11-14 12:11:33","powerComm":"已送电","subsNo":"","lineNo":"","tgNo":"","tgName":null,"infoStatus":"1","orgName":"国网浙江杭州市萧山区供电有限公司","typeName":null,"infoStatusName":null,"dateDay":null,"orgNos":null,"nowTime":null,"countyName":null,"streetName":null,"villageName":null,"roadName":null,"communityName":null,"tranName":null,"sdLineName":null,"cityCode":"3340130","cityName":"国网浙江杭州市萧山区供电有限公司","provinceCode":null,"stopTime":"2019-11-14 13:00:00","powerType":"全部","powerOffArea":"110kV进化变:泗化A348线-坊潭A348线欢潭工业分线开关后段","powerOffReason":"泗化A348线祝坊开坊潭A348线电缆缺陷处理。 原停电结束时间为2019-11-14 14:30:00,为减少客户停电时间,加快工作进度,提前送电,现变更停电结束时间为2019-11-14 13:00:00","powerOffId":"2019110131020506"},{"poweroffId":2019110131020505,"sgpoweroffId":null,"subsName":"","lineName":"10kV贤德D333线","pubTranName":"文村村5#天井山公变,","scope":"浙江省杭州市富阳区洞桥镇文村行政村天井山自然村一带","startTime":"2019-11-15 16:30:00","stopDate":"2019-11-15 17:30:00","orgNo":"3340170","typeCode":"计划停电","poweroffArea":"110kV万市变:贤德D333线294#杆天井山分线","poweroffReason":"文村村5#天井山公变低压由发电机改接至变压器","powerTime":"2019-11-15 17:21:06","powerComm":"已送电","subsNo":"","lineNo":"","tgNo":"","tgName":null,"infoStatus":"1","orgName":"国网浙江杭州市富阳区供电公司","typeName":null,"infoStatusName":null,"dateDay":null,"orgNos":null,"nowTime":null,"countyName":null,"streetName":null,"villageName":null,"roadName":null,"communityName":null,"tranName":null,"sdLineName":null,"cityCode":"3340170","cityName":"国网浙江杭州市富阳区供电公司","provinceCode":null,"stopTime":"2019-11-15 17:30:00","powerType":"全部","powerOffArea":"110kV万市变:贤德D333线294#杆天井山分线","powerOffReason":"文村村5#天井山公变低压由发电机改接至变压器","powerOffId":"2019110131020505"},{"poweroffId":2019110131020503,"sgpoweroffId":null,"subsName":"","lineName":"10kV永富C980线","pubTranName":"永富村6#变,","scope":"浙江省-杭州市-萧山区-戴村镇-永富行政村(积堰山自然村,建民自然村)","startTime":"2019-11-15 08:30:00","stopDate":"2019-11-15 16:00:00","orgNo":"3340130","typeCode":"计划停电","poweroffArea":"110kV永兴变:永富C980线-永富村6#变后段","poweroffReason":"配合永富村10#变移位，永富村6#变停电","powerTime":"2019-11-15 15:24:09","powerComm":"已送电","subsNo":"","lineNo":"","tgNo":"","tgName":null,"infoStatus":"1","orgName":"国网浙江杭州市萧山区供电有限公司","typeName":null,"infoStatusName":null,"dateDay":null,"orgNos":null,"nowTime":null,"countyName":null,"streetName":null,"villageName":null,"roadName":null,"communityName":null,"tranName":null,"sdLineName":null,"cityCode":"3340130","cityName":"国网浙江杭州市萧山区供电有限公司","provinceCode":null,"stopTime":"2019-11-15 16:00:00","powerType":"全部","powerOffArea":"110kV永兴变:永富C980线-永富村6#变后段","powerOffReason":"配合永富村10#变移位，永富村6#变停电","powerOffId":"2019110131020503"},{"poweroffId":2019110131020500,"sgpoweroffId":null,"subsName":"","lineName":"10kV永富C980线","pubTranName":"永富村10#变,","scope":"浙江省-杭州市-萧山区-戴村镇-永富行政村(大东坞自然村,小东坞自然村,积堰山自然村,建民自然村)","startTime":"2019-11-15 08:30:00","stopDate":"2019-11-15 16:00:00","orgNo":"3340130","typeCode":"计划停电","poweroffArea":"110kV永兴变:永富C980线-永富村10#变后段","poweroffReason":"永富村10#变移位，低压新放等工作。","powerTime":"2019-11-15 15:23:25","powerComm":"已送电","subsNo":"","lineNo":"","tgNo":"","tgName":null,"infoStatus":"1","orgName":"国网浙江杭州市萧山区供电有限公司","typeName":null,"infoStatusName":null,"dateDay":null,"orgNos":null,"nowTime":null,"countyName":null,"streetName":null,"villageName":null,"roadName":null,"communityName":null,"tranName":null,"sdLineName":null,"cityCode":"3340130","cityName":"国网浙江杭州市萧山区供电有限公司","provinceCode":null,"stopTime":"2019-11-15 16:00:00","powerType":"全部","powerOffArea":"110kV永兴变:永富C980线-永富村10#变后段","powerOffReason":"永富村10#变移位，低压新放等工作。","powerOffId":"2019110131020500"},{"poweroffId":2019110131020498,"sgpoweroffId":null,"subsName":"","lineName":"10kV悦墅D987线","pubTranName":"金桥村25#第四联5公变,","scope":"浙江省-杭州市-富阳区-富春街道-金秋社区(公望街,文居街)","startTime":"2019-11-15 16:00:00","stopDate":"2019-11-15 16:20:00","orgNo":"3340170","typeCode":"计划停电","poweroffArea":"110kV育才变:悦墅D987线-金桥村25#第四联5公变后段","poweroffReason":"配合低压改接短时停电","powerTime":"2019-11-15 16:13:33","powerComm":"已送电","subsNo":"","lineNo":"","tgNo":"","tgName":null,"infoStatus":"1","orgName":"国网浙江杭州市富阳区供电公司","typeName":null,"infoStatusName":null,"dateDay":null,"orgNos":null,"nowTime":null,"countyName":null,"streetName":null,"villageName":null,"roadName":null,"communityName":null,"tranName":null,"sdLineName":null,"cityCode":"3340170","cityName":"国网浙江杭州市富阳区供电公司","provinceCode":null,"stopTime":"2019-11-15 16:20:00","powerType":"全部","powerOffArea":"110kV育才变:悦墅D987线-金桥村25#第四联5公变后段","powerOffReason":"配合低压改接短时停电","powerOffId":"2019110131020498"},{"poweroffId":2019110131020495,"sgpoweroffId":null,"subsName":"","lineName":"10kV悦墅D987线","pubTranName":"杭州景翔置业有限公司 1#基建变,","scope":"浙江省-杭州市-富阳区-富春街道-金秋社区-杭州景翔置业有限公司","startTime":"2019-11-15 08:30:00","stopDate":"2019-11-15 16:00:00","orgNo":"3340170","typeCode":"计划停电","poweroffArea":"110kV育才变:悦墅D987线-杭州景翔置业有限公司进线开关后段","poweroffReason":"配合用户内部检修停电","powerTime":"2019-11-15 15:51:06","powerComm":"已送电","subsNo":"","lineNo":"","tgNo":"","tgName":null,"infoStatus":"1","orgName":"国网浙江杭州市富阳区供电公司","typeName":null,"infoStatusName":null,"dateDay":null,"orgNos":null,"nowTime":null,"countyName":null,"streetName":null,"villageName":null,"roadName":null,"communityName":null,"tranName":null,"sdLineName":null,"cityCode":"3340170","cityName":"国网浙江杭州市富阳区供电公司","provinceCode":null,"stopTime":"2019-11-15 16:00:00","powerType":"全部","powerOffArea":"110kV育才变:悦墅D987线-杭州景翔置业有限公司进线开关后段","powerOffReason":"配合用户内部检修停电","powerOffId":"2019110131020495"},{"poweroffId":2019110131020494,"sgpoweroffId":null,"subsName":"","lineName":"10kV悦墅D987线","pubTranName":"金桥村25#第四联5公变,","scope":"浙江省-杭州市-富阳区-富春街道-金秋社区(公望街,文居街)","startTime":"2019-11-15 08:30:00","stopDate":"2019-11-15 10:50:00","orgNo":"3340170","typeCode":"计划停电","poweroffArea":"110kV育才变:悦墅D987线-金桥村25#第四联5公变后段","poweroffReason":"配合低压改接短时停电，原停电结束时间为2019-11-15 08:50:00,因政策原因,现变更停电结束时间为2019-11-15 10:50:00","powerTime":"2019-11-15 10:35:30","powerComm":"已送电","subsNo":"","lineNo":"","tgNo":"","tgName":null,"infoStatus":"1","orgName":"国网浙江杭州市富阳区供电公司","typeName":null,"infoStatusName":null,"dateDay":null,"orgNos":null,"nowTime":null,"countyName":null,"streetName":null,"villageName":null,"roadName":null,"communityName":null,"tranName":null,"sdLineName":null,"cityCode":"3340170","cityName":"国网浙江杭州市富阳区供电公司","provinceCode":null,"stopTime":"2019-11-15 10:50:00","powerType":"全部","powerOffArea":"110kV育才变:悦墅D987线-金桥村25#第四联5公变后段","powerOffReason":"配合低压改接短时停电，原停电结束时间为2019-11-15 08:50:00,因政策原因,现变更停电结束时间为2019-11-15 10:50:00","powerOffId":"2019110131020494"},{"poweroffId":2019110131020490,"sgpoweroffId":null,"subsName":"","lineName":"10kV悦墅D987线","pubTranName":"杭州景翔置业有限公司 2#基建变,","scope":"浙江省-杭州市-富阳区-富春街道-金秋社区-杭州景翔置业有限公司","startTime":"2019-11-15 08:15:00","stopDate":"2019-11-15 16:00:00","orgNo":"3340170","typeCode":"计划停电","poweroffArea":"110kV育才变:悦墅D987线-杭州景翔置业有限公司进线开关后段","poweroffReason":"配合用户内部检修停电","powerTime":"2019-11-15 15:50:05","powerComm":"已送电","subsNo":"","lineNo":"","tgNo":"","tgName":null,"infoStatus":"1","orgName":"国网浙江杭州市富阳区供电公司","typeName":null,"infoStatusName":null,"dateDay":null,"orgNos":null,"nowTime":null,"countyName":null,"streetName":null,"villageName":null,"roadName":null,"communityName":null,"tranName":null,"sdLineName":null,"cityCode":"3340170","cityName":"国网浙江杭州市富阳区供电公司","provinceCode":null,"stopTime":"2019-11-15 16:00:00","powerType":"全部","powerOffArea":"110kV育才变:悦墅D987线-杭州景翔置业有限公司进线开关后段","powerOffReason":"配合用户内部检修停电","powerOffId":"2019110131020490"},{"poweroffId":2019110131020487,"sgpoweroffId":null,"subsName":"","lineName":"10kV悦墅D987线","pubTranName":"杭州景翔置业有限公司 1#基建变,","scope":"浙江省-杭州市-富阳区-富春街道-金秋社区-杭州景翔置业有限公司","startTime":"2019-11-15 08:00:00","stopDate":"2019-11-15 16:00:00","orgNo":"3340170","typeCode":"计划停电","poweroffArea":"110kV育才变:悦墅D987线-杭州景翔置业有限公司进线开关后段","poweroffReason":"配合用户内部检修停电","powerTime":"2019-11-15 15:50:56","powerComm":"已送电","subsNo":"","lineNo":"","tgNo":"","tgName":null,"infoStatus":"1","orgName":"国网浙江杭州市富阳区供电公司","typeName":null,"infoStatusName":null,"dateDay":null,"orgNos":null,"nowTime":null,"countyName":null,"streetName":null,"villageName":null,"roadName":null,"communityName":null,"tranName":null,"sdLineName":null,"cityCode":"3340170","cityName":"国网浙江杭州市富阳区供电公司","provinceCode":null,"stopTime":"2019-11-15 16:00:00","powerType":"全部","powerOffArea":"110kV育才变:悦墅D987线-杭州景翔置业有限公司进线开关后段","powerOffReason":"配合用户内部检修停电","powerOffId":"2019110131020487"},{"poweroffId":2019110131020480,"sgpoweroffId":null,"subsName":"","lineName":"10kV昌东D701线","pubTranName":"昌东村万泉2号上村公变,","scope":"浙江省-杭州市-富阳区-新登镇-昌东行政村(万泉自然村,昌东自然村)","startTime":"2019-11-01 14:35:34","stopDate":"2019-11-01 16:00:00","orgNo":"3340170","typeCode":"电网故障停限电","poweroffArea":"110kV松溪变:昌东D701线-昌东村万泉2号上村公变后段","poweroffReason":"(低压停电信息)低压开关跳闸","powerTime":"2019-11-01 15:45:47","powerComm":"已送电","subsNo":"","lineNo":"","tgNo":"","tgName":null,"infoStatus":"1","orgName":"国网浙江杭州市富阳区供电公司","typeName":null,"infoStatusName":null,"dateDay":null,"orgNos":null,"nowTime":null,"countyName":null,"streetName":null,"villageName":null,"roadName":null,"communityName":null,"tranName":null,"sdLineName":null,"cityCode":"3340170","cityName":"国网浙江杭州市富阳区供电公司","provinceCode":null,"stopTime":"2019-11-01 16:00:00","powerType":"全部","powerOffArea":"110kV松溪变:昌东D701线-昌东村万泉2号上村公变后段","powerOffReason":"(低压停电信息)低压开关跳闸","powerOffId":"2019110131020480"}],"pageModel":{"pageNow":922,"totalCount":17789,"totalPage":1779,"tableRows":0,"pageCount":10,"beginCount":9210},"isExperi":"1"}