{"message":"","today":"2020-06-15","seleList":[{"poweroffId":2019110131020417,"sgpoweroffId":null,"subsName":"","lineName":"10kV贤德D333线","pubTranName":"洞桥村9#于家公变,","scope":"浙江省杭州市富阳区洞桥镇洞桥行政村于家自然村一带","startTime":"2019-11-12 08:00:00","stopDate":"2019-11-12 16:30:00","orgNo":"3340170","typeCode":"计划停电","poweroffArea":"110kV万市变:贤德D333线-洞桥村9#于家公变低压开关后段","poweroffReason":"(低压停电信息)03线更换照明表箱40只、动力表箱3只等工作。","powerTime":"2019-11-12 16:20:39","powerComm":"已送电","subsNo":"","lineNo":"","tgNo":"","tgName":null,"infoStatus":"1","orgName":"国网浙江杭州市富阳区供电公司","typeName":null,"infoStatusName":null,"dateDay":null,"orgNos":null,"nowTime":null,"countyName":null,"streetName":null,"villageName":null,"roadName":null,"communityName":null,"tranName":null,"sdLineName":null,"cityCode":"3340170","cityName":"国网浙江杭州市富阳区供电公司","provinceCode":null,"stopTime":"2019-11-12 16:30:00","powerType":"全部","powerOffArea":"110kV万市变:贤德D333线-洞桥村9#于家公变低压开关后段","powerOffReason":"(低压停电信息)03线更换照明表箱40只、动力表箱3只等工作。","powerOffId":"2019110131020417"},{"poweroffId":2019110131020416,"sgpoweroffId":null,"subsName":"","lineName":"10kV万泉D738线","pubTranName":"昌东村众甫7#大塘畈公变,","scope":"浙江省杭州市富阳区新登镇昌东行政村大塘畈自然村一带","startTime":"2019-11-12 07:50:00","stopDate":"2019-11-12 16:30:00","orgNo":"3340170","typeCode":"计划停电","poweroffArea":"110kV松溪变:万泉D738线-昌东村众甫7#大塘畈公变低压开关后段","poweroffReason":"(低压停电信息)大塘畈02线、更换接户线12户、安装墙架12户","powerTime":"2019-11-12 16:20:23","powerComm":"已送电","subsNo":"","lineNo":"","tgNo":"","tgName":null,"infoStatus":"1","orgName":"国网浙江杭州市富阳区供电公司","typeName":null,"infoStatusName":null,"dateDay":null,"orgNos":null,"nowTime":null,"countyName":null,"streetName":null,"villageName":null,"roadName":null,"communityName":null,"tranName":null,"sdLineName":null,"cityCode":"3340170","cityName":"国网浙江杭州市富阳区供电公司","provinceCode":null,"stopTime":"2019-11-12 16:30:00","powerType":"全部","powerOffArea":"110kV松溪变:万泉D738线-昌东村众甫7#大塘畈公变低压开关后段","powerOffReason":"(低压停电信息)大塘畈02线、更换接户线12户、安装墙架12户","powerOffId":"2019110131020416"},{"poweroffId":2019110131020411,"sgpoweroffId":null,"subsName":"","lineName":"10kV横下D204线","pubTranName":"富阳市富春汇金纳米矿业有限公司,","scope":"浙江省-杭州市-富阳区-富春街道-青云桥行政村-杭州富阳富春汇金纳米矿业有限公司","startTime":"2019-11-11 08:45:00","stopDate":"2019-11-11 16:00:00","orgNo":"3340170","typeCode":"计划停电","poweroffArea":"35kV大青变:横下D204线-富阳市富春汇金纳米矿业有限公司后段;横下D204线-汇金纳米支线后段","poweroffReason":"横山下支线1#杆至9#杆线路移位工程：横山下支线1#杆至9#杆线路移位，其中拆除导线9档，拆除电杆8基，新立电杆5基，新放导线4挡，80kVA杆上变移位及低压电缆改接等工作。","powerTime":"2019-11-11 15:50:09","powerComm":"已送电","subsNo":"","lineNo":"","tgNo":"","tgName":null,"infoStatus":"1","orgName":"国网浙江杭州市富阳区供电公司","typeName":null,"infoStatusName":null,"dateDay":null,"orgNos":null,"nowTime":null,"countyName":null,"streetName":null,"villageName":null,"roadName":null,"communityName":null,"tranName":null,"sdLineName":null,"cityCode":"3340170","cityName":"国网浙江杭州市富阳区供电公司","provinceCode":null,"stopTime":"2019-11-11 16:00:00","powerType":"全部","powerOffArea":"35kV大青变:横下D204线-富阳市富春汇金纳米矿业有限公司后段;横下D204线-汇金纳米支线后段","powerOffReason":"横山下支线1#杆至9#杆线路移位工程：横山下支线1#杆至9#杆线路移位，其中拆除导线9档，拆除电杆8基，新立电杆5基，新放导线4挡，80kVA杆上变移位及低压电缆改接等工作。","powerOffId":"2019110131020411"},{"poweroffId":2019110131020394,"sgpoweroffId":null,"subsName":"","lineName":"10kV天万G011线","pubTranName":"钱塘12组（浜岸上）1号公变,","scope":"浙江省杭州市余杭区南苑街道：钱塘12组一带","startTime":"2019-11-13 08:30:00","stopDate":"2019-11-13 16:40:00","orgNo":"3340140","typeCode":"计划停电","poweroffArea":"110kV外乔变:天万G011线-钱塘12组（浜岸上）1号公变","poweroffReason":"(低压停电信息)业扩工程（杭州市余杭区人民政府南苑街道办事处2019年南苑街道四好农村路建设项目强电杆线迁改工程）：调换导线6档、电杆1基、拆高拉1组、新装拉线1组","powerTime":"2019-11-13 15:43:29","powerComm":"已送电","subsNo":"","lineNo":"","tgNo":"","tgName":null,"infoStatus":"1","orgName":"国网浙江杭州市余杭区供电有限公司","typeName":null,"infoStatusName":null,"dateDay":null,"orgNos":null,"nowTime":null,"countyName":null,"streetName":null,"villageName":null,"roadName":null,"communityName":null,"tranName":null,"sdLineName":null,"cityCode":"3340140","cityName":"国网浙江杭州市余杭区供电有限公司","provinceCode":null,"stopTime":"2019-11-13 16:40:00","powerType":"全部","powerOffArea":"110kV外乔变:天万G011线-钱塘12组（浜岸上）1号公变","powerOffReason":"(低压停电信息)业扩工程（杭州市余杭区人民政府南苑街道办事处2019年南苑街道四好农村路建设项目强电杆线迁改工程）：调换导线6档、电杆1基、拆高拉1组、新装拉线1组","powerOffId":"2019110131020394"},{"poweroffId":2019110131020393,"sgpoweroffId":null,"subsName":"","lineName":"10kV天万G011线","pubTranName":"钱塘12组5号公变,","scope":"浙江省杭州市余杭区南苑街道：钱塘12组一带","startTime":"2019-11-13 08:30:00","stopDate":"2019-11-13 16:40:00","orgNo":"3340140","typeCode":"计划停电","poweroffArea":"110kV外乔变:天万G011线-钱塘12组5号公变","poweroffReason":"(低压停电信息)业扩工程（杭州市余杭区人民政府南苑街道办事处2019年南苑街道四好农村路建设项目强电杆线迁改工程）：调换导线6档、电杆1基、拆高拉1组、新装拉线1组","powerTime":"2019-11-13 15:43:14","powerComm":"已送电","subsNo":"","lineNo":"","tgNo":"","tgName":null,"infoStatus":"1","orgName":"国网浙江杭州市余杭区供电有限公司","typeName":null,"infoStatusName":null,"dateDay":null,"orgNos":null,"nowTime":null,"countyName":null,"streetName":null,"villageName":null,"roadName":null,"communityName":null,"tranName":null,"sdLineName":null,"cityCode":"3340140","cityName":"国网浙江杭州市余杭区供电有限公司","provinceCode":null,"stopTime":"2019-11-13 16:40:00","powerType":"全部","powerOffArea":"110kV外乔变:天万G011线-钱塘12组5号公变","powerOffReason":"(低压停电信息)业扩工程（杭州市余杭区人民政府南苑街道办事处2019年南苑街道四好农村路建设项目强电杆线迁改工程）：调换导线6档、电杆1基、拆高拉1组、新装拉线1组","powerOffId":"2019110131020393"},{"poweroffId":2019110131020392,"sgpoweroffId":null,"subsName":"","lineName":"10kV天万G011线","pubTranName":"钱塘13组3号公变,","scope":"浙江省杭州市余杭区南苑街道：钱塘13组一带","startTime":"2019-11-12 08:30:00","stopDate":"2019-11-12 17:30:00","orgNo":"3340140","typeCode":"计划停电","poweroffArea":"110kV外乔变:天万G011线-钱塘13组3号公变后段","poweroffReason":"（低压停电信息）业扩工程 原停电结束时间为2019-11-12 17:10:00,因现场情况复杂，无法按时完成相关工作原因,现变更停电结束时间为2019-11-12 17:30:00","powerTime":"2019-11-12 17:22:00","powerComm":"已送电","subsNo":"","lineNo":"","tgNo":"","tgName":null,"infoStatus":"1","orgName":"国网浙江杭州市余杭区供电有限公司","typeName":null,"infoStatusName":null,"dateDay":null,"orgNos":null,"nowTime":null,"countyName":null,"streetName":null,"villageName":null,"roadName":null,"communityName":null,"tranName":null,"sdLineName":null,"cityCode":"3340140","cityName":"国网浙江杭州市余杭区供电有限公司","provinceCode":null,"stopTime":"2019-11-12 17:30:00","powerType":"全部","powerOffArea":"110kV外乔变:天万G011线-钱塘13组3号公变后段","powerOffReason":"（低压停电信息）业扩工程 原停电结束时间为2019-11-12 17:10:00,因现场情况复杂，无法按时完成相关工作原因,现变更停电结束时间为2019-11-12 17:30:00","powerOffId":"2019110131020392"},{"poweroffId":2019110131020388,"sgpoweroffId":null,"subsName":"","lineName":"10kV天万G011线","pubTranName":"钱塘13组(陈家塘)2号公变,","scope":"浙江省杭州市余杭区南苑街道：钱塘社区13组一带","startTime":"2019-11-12 08:30:00","stopDate":"2019-11-12 17:30:00","orgNo":"3340140","typeCode":"计划停电","poweroffArea":"110kV外乔变:天万G011线-钱塘13组(陈家塘)2号公变","poweroffReason":"(低压停电信息)业扩工程：新立12米电杆2基、调换BS-120导线2档、做高拉1组、普通拉2组 原停电结束时间为2019-11-12 17:10:00,因现场情况复杂，无法按时完成相关工作原因,现变更停电结束时间为2019-11-12 17:30:00","powerTime":"2019-11-12 17:22:00","powerComm":"已送电","subsNo":"","lineNo":"","tgNo":"","tgName":null,"infoStatus":"1","orgName":"国网浙江杭州市余杭区供电有限公司","typeName":null,"infoStatusName":null,"dateDay":null,"orgNos":null,"nowTime":null,"countyName":null,"streetName":null,"villageName":null,"roadName":null,"communityName":null,"tranName":null,"sdLineName":null,"cityCode":"3340140","cityName":"国网浙江杭州市余杭区供电有限公司","provinceCode":null,"stopTime":"2019-11-12 17:30:00","powerType":"全部","powerOffArea":"110kV外乔变:天万G011线-钱塘13组(陈家塘)2号公变","powerOffReason":"(低压停电信息)业扩工程：新立12米电杆2基、调换BS-120导线2档、做高拉1组、普通拉2组 原停电结束时间为2019-11-12 17:10:00,因现场情况复杂，无法按时完成相关工作原因,现变更停电结束时间为2019-11-12 17:30:00","powerOffId":"2019110131020388"},{"poweroffId":2019110131020386,"sgpoweroffId":null,"subsName":"","lineName":"10kV缸桥H732线","pubTranName":"里项村委,","scope":"浙江省杭州市余杭闲林街道：西溪源行政村村委一带","startTime":"2019-11-13 08:30:00","stopDate":"2019-11-13 11:15:00","orgNo":"3340140","typeCode":"计划停电","poweroffArea":"110kV闲林变:缸桥H732线-里项村委后段","poweroffReason":"(低压停电信息)业扩：里项H735线里项村委变空开负荷改接。原停电结束时间为2019-11-13 16:00:00,为减少客户停电时间,加快工作进度,提前送电,现变更停电结束时间为2019-11-13 11:15:00","powerTime":"2019-11-13 11:05:29","powerComm":"已送电","subsNo":"","lineNo":"","tgNo":"","tgName":null,"infoStatus":"1","orgName":"国网浙江杭州市余杭区供电有限公司","typeName":null,"infoStatusName":null,"dateDay":null,"orgNos":null,"nowTime":null,"countyName":null,"streetName":null,"villageName":null,"roadName":null,"communityName":null,"tranName":null,"sdLineName":null,"cityCode":"3340140","cityName":"国网浙江杭州市余杭区供电有限公司","provinceCode":null,"stopTime":"2019-11-13 11:15:00","powerType":"全部","powerOffArea":"110kV闲林变:缸桥H732线-里项村委后段","powerOffReason":"(低压停电信息)业扩：里项H735线里项村委变空开负荷改接。原停电结束时间为2019-11-13 16:00:00,为减少客户停电时间,加快工作进度,提前送电,现变更停电结束时间为2019-11-13 11:15:00","powerOffId":"2019110131020386"},{"poweroffId":2019110131020383,"sgpoweroffId":null,"subsName":"","lineName":"10kV天万G011线","pubTranName":"钱塘12组4号公变,","scope":"浙江省杭州市余杭区南苑街道：钱塘社区12组一带","startTime":"2019-11-14 08:30:00","stopDate":"2019-11-14 16:40:00","orgNo":"3340140","typeCode":"计划停电","poweroffArea":"110kV外乔变:天万G011线-钱塘12组4号公变","poweroffReason":"(低压停电信息)业扩工程（杭州市余杭区人民政府南苑街道办事处2019年南苑街道四好农村路建设项目强电杆线迁改工程）：电杆移位2基、落户线搭接11对","powerTime":"2019-11-14 16:33:53","powerComm":"已送电","subsNo":"","lineNo":"","tgNo":"","tgName":null,"infoStatus":"1","orgName":"国网浙江杭州市余杭区供电有限公司","typeName":null,"infoStatusName":null,"dateDay":null,"orgNos":null,"nowTime":null,"countyName":null,"streetName":null,"villageName":null,"roadName":null,"communityName":null,"tranName":null,"sdLineName":null,"cityCode":"3340140","cityName":"国网浙江杭州市余杭区供电有限公司","provinceCode":null,"stopTime":"2019-11-14 16:40:00","powerType":"全部","powerOffArea":"110kV外乔变:天万G011线-钱塘12组4号公变","powerOffReason":"(低压停电信息)业扩工程（杭州市余杭区人民政府南苑街道办事处2019年南苑街道四好农村路建设项目强电杆线迁改工程）：电杆移位2基、落户线搭接11对","powerOffId":"2019110131020383"},{"poweroffId":2019110131020374,"sgpoweroffId":null,"subsName":"","lineName":"10kV丽景G646线","pubTranName":"新城都市丽景10号箱公变,新城都市丽景9号箱公变,新城都市丽景8号箱公变,新城都市丽景11号箱公变,","scope":"浙江省杭州市余杭区南苑街道：新城都市丽景一带","startTime":"2019-11-13 08:30:00","stopDate":"2019-11-13 15:30:00","orgNo":"3340140","typeCode":"计划停电","poweroffArea":"110kV南苑变:丽景开关站丽景G646线丽景南区分线","poweroffReason":"新城都市丽景8#箱变、新城都市丽景9#箱变美变调换。 原停电结束时间为2019-11-13 17:00:00,为减少客户停电时间,加快工作进度,提前送电,现变更停电结束时间为2019-11-13 15:30:00","powerTime":"2019-11-13 14:44:25","powerComm":"已送电","subsNo":"","lineNo":"","tgNo":"","tgName":null,"infoStatus":"1","orgName":"国网浙江杭州市余杭区供电有限公司","typeName":null,"infoStatusName":null,"dateDay":null,"orgNos":null,"nowTime":null,"countyName":null,"streetName":null,"villageName":null,"roadName":null,"communityName":null,"tranName":null,"sdLineName":null,"cityCode":"3340140","cityName":"国网浙江杭州市余杭区供电有限公司","provinceCode":null,"stopTime":"2019-11-13 15:30:00","powerType":"全部","powerOffArea":"110kV南苑变:丽景开关站丽景G646线丽景南区分线","powerOffReason":"新城都市丽景8#箱变、新城都市丽景9#箱变美变调换。 原停电结束时间为2019-11-13 17:00:00,为减少客户停电时间,加快工作进度,提前送电,现变更停电结束时间为2019-11-13 15:30:00","powerOffId":"2019110131020374"}],"pageModel":{"pageNow":924,"totalCount":17789,"totalPage":1779,"tableRows":0,"pageCount":10,"beginCount":9230},"isExperi":"1"}