{"message":"","today":"2020-06-15","seleList":[{"poweroffId":2019110131020371,"sgpoweroffId":null,"subsName":"","lineName":"10kV高坪D134线","pubTranName":"南津村8#电管站公变,","scope":"浙江省杭州市富阳区新登镇南津行政村电管站路一带","startTime":"2019-11-11 08:30:00","stopDate":"2019-11-11 14:30:00","orgNo":"3340170","typeCode":"计划停电","poweroffArea":"110kV新登变:10KV高坪D134线28#杆南津村8#电管站公变","poweroffReason":"10KV高坪D134线28#杆南津村8#电管站公变拆装进线电缆头YJV-4*240一路、更换配电屏、拆除出线电缆VLV-4*120一路、拆除出线电缆VLV-4*35一路、敷设出线电缆YJV-4*150一路、VLV-4*35一路、安装动力表2只","powerTime":"2019-11-11 14:13:38","powerComm":"已送电","subsNo":"","lineNo":"","tgNo":"","tgName":null,"infoStatus":"1","orgName":"国网浙江杭州市富阳区供电公司","typeName":null,"infoStatusName":null,"dateDay":null,"orgNos":null,"nowTime":null,"countyName":null,"streetName":null,"villageName":null,"roadName":null,"communityName":null,"tranName":null,"sdLineName":null,"cityCode":"3340170","cityName":"国网浙江杭州市富阳区供电公司","provinceCode":null,"stopTime":"2019-11-11 14:30:00","powerType":"全部","powerOffArea":"110kV新登变:10KV高坪D134线28#杆南津村8#电管站公变","powerOffReason":"10KV高坪D134线28#杆南津村8#电管站公变拆装进线电缆头YJV-4*240一路、更换配电屏、拆除出线电缆VLV-4*120一路、拆除出线电缆VLV-4*35一路、敷设出线电缆YJV-4*150一路、VLV-4*35一路、安装动力表2只","powerOffId":"2019110131020371"},{"poweroffId":2019110131020369,"sgpoweroffId":null,"subsName":"","lineName":"10kV共和G911线","pubTranName":"乔司卫生院,乔司新街16组公变,乔司新街16组2号公变,","scope":"浙江省杭州市余杭区乔司街道：乔司新街16组、乔司卫生院一带","startTime":"2019-11-15 08:30:00","stopDate":"2019-11-15 17:00:00","orgNo":"3340140","typeCode":"计划停电","poweroffArea":"110kV庙港变:乔安开关站共和G911线乔庆分线-保庆环网站共和G911线乔庆分线。","poweroffReason":"保庆环网站共和G911线乔司卫生院分线改接至永乔环网站桃安G053线待用G05线。","powerTime":"2019-11-15 16:25:02","powerComm":"已送电","subsNo":"","lineNo":"","tgNo":"","tgName":null,"infoStatus":"1","orgName":"国网浙江杭州市余杭区供电有限公司","typeName":null,"infoStatusName":null,"dateDay":null,"orgNos":null,"nowTime":null,"countyName":null,"streetName":null,"villageName":null,"roadName":null,"communityName":null,"tranName":null,"sdLineName":null,"cityCode":"3340140","cityName":"国网浙江杭州市余杭区供电有限公司","provinceCode":null,"stopTime":"2019-11-15 17:00:00","powerType":"全部","powerOffArea":"110kV庙港变:乔安开关站共和G911线乔庆分线-保庆环网站共和G911线乔庆分线。","powerOffReason":"保庆环网站共和G911线乔司卫生院分线改接至永乔环网站桃安G053线待用G05线。","powerOffId":"2019110131020369"},{"poweroffId":2019110131020367,"sgpoweroffId":null,"subsName":"","lineName":"10kV大井G009线","pubTranName":"诚欣丰行工贸,求精电子,新管氏服饰3#,新管氏服饰1#,特种化纤,春尧绿化工程,新管氏服饰2#,","scope":"浙江省杭州市余杭区乔司街道：春尧绿化、宇汇塑业、特种化纤、求精电子、新管氏服饰一带","startTime":"2019-11-16 08:30:00","stopDate":"2019-11-16 12:00:00","orgNo":"3340140","typeCode":"计划停电","poweroffArea":"110kV外乔变:高明开关站大井G009线宇汇分支箱分线。","poweroffReason":"外乔变大井G009线宇汇分支箱分线宇汇分支箱春尧绿化、宇汇塑业电缆拆头工作。 原停电结束时间为2019-11-11 11:30:00,因工作计划变更,现变更停电结束时间为2019-11-16 12:00:00","powerTime":"2019-11-16 11:51:00","powerComm":"已送电","subsNo":"","lineNo":"","tgNo":"","tgName":null,"infoStatus":"1","orgName":"国网浙江杭州市余杭区供电有限公司","typeName":null,"infoStatusName":null,"dateDay":null,"orgNos":null,"nowTime":null,"countyName":null,"streetName":null,"villageName":null,"roadName":null,"communityName":null,"tranName":null,"sdLineName":null,"cityCode":"3340140","cityName":"国网浙江杭州市余杭区供电有限公司","provinceCode":null,"stopTime":"2019-11-16 12:00:00","powerType":"全部","powerOffArea":"110kV外乔变:高明开关站大井G009线宇汇分支箱分线。","powerOffReason":"外乔变大井G009线宇汇分支箱分线宇汇分支箱春尧绿化、宇汇塑业电缆拆头工作。 原停电结束时间为2019-11-11 11:30:00,因工作计划变更,现变更停电结束时间为2019-11-16 12:00:00","powerOffId":"2019110131020367"},{"poweroffId":2019110131020366,"sgpoweroffId":null,"subsName":"","lineName":"10kV贤德D333线","pubTranName":"洞桥村11#朱家弄公变,","scope":"浙江省杭州市富阳区洞桥镇洞桥行政村朱家自然村一带","startTime":"2019-11-11 08:00:00","stopDate":"2019-11-11 16:30:00","orgNo":"3340170","typeCode":"计划停电","poweroffArea":"110kV万市变:贤德D333线-洞桥村11#朱家弄公变低压开关后段","poweroffReason":"(低压停电信息)朱家弄01线、朱家弄02线更换照明表箱72只、动力表箱9只等工作。","powerTime":"2019-11-11 16:22:28","powerComm":"已送电","subsNo":"","lineNo":"","tgNo":"","tgName":null,"infoStatus":"1","orgName":"国网浙江杭州市富阳区供电公司","typeName":null,"infoStatusName":null,"dateDay":null,"orgNos":null,"nowTime":null,"countyName":null,"streetName":null,"villageName":null,"roadName":null,"communityName":null,"tranName":null,"sdLineName":null,"cityCode":"3340170","cityName":"国网浙江杭州市富阳区供电公司","provinceCode":null,"stopTime":"2019-11-11 16:30:00","powerType":"全部","powerOffArea":"110kV万市变:贤德D333线-洞桥村11#朱家弄公变低压开关后段","powerOffReason":"(低压停电信息)朱家弄01线、朱家弄02线更换照明表箱72只、动力表箱9只等工作。","powerOffId":"2019110131020366"},{"poweroffId":2019110131020362,"sgpoweroffId":null,"subsName":"","lineName":"10kV西关T177线","pubTranName":"滨江公寓1号公变,","scope":"浙江省-杭州市-桐庐县-分水镇-玉华社区-玉华路,分水镇-分江社区(东门路,分江路)","startTime":"2019-11-14 13:00:00","stopDate":"2019-11-14 17:00:00","orgNo":"3340150","typeCode":"计划停电","poweroffArea":"110kV分水变:西关T177线-滨江F4401令克后段","poweroffReason":"杭州桐庐分水滨江公寓1号等台区配变及低压线路改造工程","powerTime":"2019-11-14 16:42:32","powerComm":"已送电","subsNo":"","lineNo":"","tgNo":"","tgName":null,"infoStatus":"1","orgName":"国网浙江桐庐县供电公司","typeName":null,"infoStatusName":null,"dateDay":null,"orgNos":null,"nowTime":null,"countyName":null,"streetName":null,"villageName":null,"roadName":null,"communityName":null,"tranName":null,"sdLineName":null,"cityCode":"3340150","cityName":"国网浙江桐庐县供电公司","provinceCode":null,"stopTime":"2019-11-14 17:00:00","powerType":"全部","powerOffArea":"110kV分水变:西关T177线-滨江F4401令克后段","powerOffReason":"杭州桐庐分水滨江公寓1号等台区配变及低压线路改造工程","powerOffId":"2019110131020362"},{"poweroffId":2019110131020361,"sgpoweroffId":null,"subsName":"","lineName":"10kV儒桥T438线","pubTranName":"塘源1号公变,","scope":"浙江省-杭州市-桐庐县-分水镇(塘源行政村-塘源自然村,天英行政村-天英自然村)","startTime":"2019-11-14 08:00:00","stopDate":"2019-11-14 12:00:00","orgNo":"3340150","typeCode":"计划停电","poweroffArea":"110kV天英变:儒桥T438线-塘源F4122令克后段","poweroffReason":"杭州桐庐分水滨江公寓1号等台区配变及低压线路改造工程","powerTime":"2019-11-14 11:41:59","powerComm":"已送电","subsNo":"","lineNo":"","tgNo":"","tgName":null,"infoStatus":"1","orgName":"国网浙江桐庐县供电公司","typeName":null,"infoStatusName":null,"dateDay":null,"orgNos":null,"nowTime":null,"countyName":null,"streetName":null,"villageName":null,"roadName":null,"communityName":null,"tranName":null,"sdLineName":null,"cityCode":"3340150","cityName":"国网浙江桐庐县供电公司","provinceCode":null,"stopTime":"2019-11-14 12:00:00","powerType":"全部","powerOffArea":"110kV天英变:儒桥T438线-塘源F4122令克后段","powerOffReason":"杭州桐庐分水滨江公寓1号等台区配变及低压线路改造工程","powerOffId":"2019110131020361"},{"poweroffId":2019110131020360,"sgpoweroffId":null,"subsName":"","lineName":"10kV城北T174线","pubTranName":"武盛骏马1号公变,","scope":"浙江省-杭州市-桐庐县-分水镇-武盛行政村(武盛自然村,玉华路,玉泉自然村),分水镇-玉华社区(广电路,玉华路)","startTime":"2019-11-13 13:00:00","stopDate":"2019-11-13 17:00:00","orgNo":"3340150","typeCode":"计划停电","poweroffArea":"110kV分水变:城北T174线-骏马F4500令克后段","poweroffReason":"杭州桐庐分水滨江公寓1号等台区配变及低压线路改造工程","powerTime":"2019-11-13 16:31:34","powerComm":"已送电","subsNo":"","lineNo":"","tgNo":"","tgName":null,"infoStatus":"1","orgName":"国网浙江桐庐县供电公司","typeName":null,"infoStatusName":null,"dateDay":null,"orgNos":null,"nowTime":null,"countyName":null,"streetName":null,"villageName":null,"roadName":null,"communityName":null,"tranName":null,"sdLineName":null,"cityCode":"3340150","cityName":"国网浙江桐庐县供电公司","provinceCode":null,"stopTime":"2019-11-13 17:00:00","powerType":"全部","powerOffArea":"110kV分水变:城北T174线-骏马F4500令克后段","powerOffReason":"杭州桐庐分水滨江公寓1号等台区配变及低压线路改造工程","powerOffId":"2019110131020360"},{"poweroffId":2019110131020359,"sgpoweroffId":null,"subsName":"","lineName":"10kV保安T182线","pubTranName":"徐桥1号公变,","scope":"浙江省-杭州市-桐庐县-分水镇-徐桥行政村-板桥自然村","startTime":"2019-11-11 08:00:00","stopDate":"2019-11-11 12:00:00","orgNo":"3340150","typeCode":"计划停电","poweroffArea":"110kV分水变:保安T182线-板桥F4954令克后段","poweroffReason":"杭州桐庐分水城西园区1号等台区配变及低压线路改造工程","powerTime":"2019-11-11 11:30:06","powerComm":"已送电","subsNo":"","lineNo":"","tgNo":"","tgName":null,"infoStatus":"1","orgName":"国网浙江桐庐县供电公司","typeName":null,"infoStatusName":null,"dateDay":null,"orgNos":null,"nowTime":null,"countyName":null,"streetName":null,"villageName":null,"roadName":null,"communityName":null,"tranName":null,"sdLineName":null,"cityCode":"3340150","cityName":"国网浙江桐庐县供电公司","provinceCode":null,"stopTime":"2019-11-11 12:00:00","powerType":"全部","powerOffArea":"110kV分水变:保安T182线-板桥F4954令克后段","powerOffReason":"杭州桐庐分水城西园区1号等台区配变及低压线路改造工程","powerOffId":"2019110131020359"},{"poweroffId":2019110131020355,"sgpoweroffId":null,"subsName":"","lineName":"10kV仙宅H777线","pubTranName":"仙宅村林坞中村公变,","scope":"浙江省-杭州市-余杭区-余杭街道-仙宅行政村-新岭自然村","startTime":"2019-11-01 13:32:14","stopDate":"2019-11-01 16:32:14","orgNo":"3340140","typeCode":"电网故障停限电","poweroffArea":"35kV长岗临时变:仙宅H777线-仙宅村林坞中村公变后段","poweroffReason":"高压开关跳闸","powerTime":"2019-11-01 16:22:00","powerComm":"已送电","subsNo":"","lineNo":"","tgNo":"","tgName":null,"infoStatus":"1","orgName":"国网浙江杭州市余杭区供电有限公司","typeName":null,"infoStatusName":null,"dateDay":null,"orgNos":null,"nowTime":null,"countyName":null,"streetName":null,"villageName":null,"roadName":null,"communityName":null,"tranName":null,"sdLineName":null,"cityCode":"3340140","cityName":"国网浙江杭州市余杭区供电有限公司","provinceCode":null,"stopTime":"2019-11-01 16:32:14","powerType":"全部","powerOffArea":"35kV长岗临时变:仙宅H777线-仙宅村林坞中村公变后段","powerOffReason":"高压开关跳闸","powerOffId":"2019110131020355"},{"poweroffId":2019110131020347,"sgpoweroffId":null,"subsName":"","lineName":"10kV缸儿754线","pubTranName":"消防纺织品公司专变,中国电信股份有限公司杭州分公司2,中国电信股份有限公司杭州分公司1,银嘉房地产2,","scope":"浙江省杭州市上城区中河路银嘉房地产、人民银行、消防纺织品公司、水漾桥电讯分局、金卡结算中心有限公司附近一带","startTime":"2019-11-14 08:30:00","stopDate":"2019-11-14 18:30:00","orgNo":"3340101","typeCode":"计划停电","poweroffArea":"110kV中心变:缸儿754线-市行二线后段;缸儿754线-银嘉二线后段","poweroffReason":"杭州市城南片区缸儿巷小区盔头站换柜工程（城源1811HZ1800WR03A0000000）盔头站II段更换 原停电结束时间为2019-11-14 17:30:00,因工作量大原因,现变更停电结束时间为2019-11-14 18:30:00","powerTime":"2019-11-14 18:17:41","powerComm":"已送电","subsNo":"","lineNo":"","tgNo":"","tgName":null,"infoStatus":"1","orgName":"浙江杭州电力客户服务中心","typeName":null,"infoStatusName":null,"dateDay":null,"orgNos":null,"nowTime":null,"countyName":null,"streetName":null,"villageName":null,"roadName":null,"communityName":null,"tranName":null,"sdLineName":null,"cityCode":"3340101","cityName":"浙江杭州电力客户服务中心","provinceCode":null,"stopTime":"2019-11-14 18:30:00","powerType":"全部","powerOffArea":"110kV中心变:缸儿754线-市行二线后段;缸儿754线-银嘉二线后段","powerOffReason":"杭州市城南片区缸儿巷小区盔头站换柜工程（城源1811HZ1800WR03A0000000）盔头站II段更换 原停电结束时间为2019-11-14 17:30:00,因工作量大原因,现变更停电结束时间为2019-11-14 18:30:00","powerOffId":"2019110131020347"}],"pageModel":{"pageNow":925,"totalCount":17789,"totalPage":1779,"tableRows":0,"pageCount":10,"beginCount":9240},"isExperi":"1"}