{"message":"","today":"2020-06-15","seleList":[{"poweroffId":2019110131020293,"sgpoweroffId":null,"subsName":"","lineName":"10kV芦岭V130线","pubTranName":"圣苗公变,","scope":"浙江省-杭州市-临安市-昌化镇圣庙路一带。","startTime":"2019-11-15 08:00:00","stopDate":"2019-11-15 15:00:00","orgNo":"3340160","typeCode":"计划停电","poweroffArea":"110kV昌化变:芦岭V130线-芦岭130线圣庙公变配变","poweroffReason":"缺陷处理","powerTime":"2019-11-15 14:50:17","powerComm":"已送电","subsNo":"","lineNo":"","tgNo":"","tgName":null,"infoStatus":"1","orgName":"国网浙江临安市供电公司","typeName":null,"infoStatusName":null,"dateDay":null,"orgNos":null,"nowTime":null,"countyName":null,"streetName":null,"villageName":null,"roadName":null,"communityName":null,"tranName":null,"sdLineName":null,"cityCode":"3340160","cityName":"国网浙江临安市供电公司","provinceCode":null,"stopTime":"2019-11-15 15:00:00","powerType":"全部","powerOffArea":"110kV昌化变:芦岭V130线-芦岭130线圣庙公变配变","powerOffReason":"缺陷处理","powerOffId":"2019110131020293"},{"poweroffId":2019110131020292,"sgpoweroffId":null,"subsName":"","lineName":"10kV宏福D214线","pubTranName":"受降村受降溪2#公变,","scope":"浙江省-杭州市-富阳区-银湖街道-银湖行政村-祝家村自然村,银湖街道-受降行政村(中秋自然村龙溪北路,中秋自然村,上宋自然村,龙溪南路,受降自然村)","startTime":"2019-11-14 13:00:00","stopDate":"2019-11-14 16:30:00","orgNo":"3340170","typeCode":"计划停电","poweroffArea":"110kV银湖变:宏福D214线-受降村受降溪2#公变低压开关后段","poweroffReason":"(低压停电信息)拆接户线40处等工作","powerTime":"2019-11-14 16:16:36","powerComm":"已送电","subsNo":"","lineNo":"","tgNo":"","tgName":null,"infoStatus":"1","orgName":"国网浙江杭州市富阳区供电公司","typeName":null,"infoStatusName":null,"dateDay":null,"orgNos":null,"nowTime":null,"countyName":null,"streetName":null,"villageName":null,"roadName":null,"communityName":null,"tranName":null,"sdLineName":null,"cityCode":"3340170","cityName":"国网浙江杭州市富阳区供电公司","provinceCode":null,"stopTime":"2019-11-14 16:30:00","powerType":"全部","powerOffArea":"110kV银湖变:宏福D214线-受降村受降溪2#公变低压开关后段","powerOffReason":"(低压停电信息)拆接户线40处等工作","powerOffId":"2019110131020292"},{"poweroffId":2019110131020291,"sgpoweroffId":null,"subsName":"","lineName":"10kV大树D219线","pubTranName":"中秋村3#孙家弄公变2,","scope":"浙江省-杭州市-富阳区-银湖街道-受降行政村(中秋自然村,孙家垄自然村)","startTime":"2019-11-14 08:50:00","stopDate":"2019-11-14 12:10:00","orgNo":"3340170","typeCode":"计划停电","poweroffArea":"110kV银湖变:大树D219线-中秋村3#孙家弄公变低压开关后段","poweroffReason":"(低压停电信息)拆接户线60处等工作","powerTime":"2019-11-14 11:55:19","powerComm":"已送电","subsNo":"","lineNo":"","tgNo":"","tgName":null,"infoStatus":"1","orgName":"国网浙江杭州市富阳区供电公司","typeName":null,"infoStatusName":null,"dateDay":null,"orgNos":null,"nowTime":null,"countyName":null,"streetName":null,"villageName":null,"roadName":null,"communityName":null,"tranName":null,"sdLineName":null,"cityCode":"3340170","cityName":"国网浙江杭州市富阳区供电公司","provinceCode":null,"stopTime":"2019-11-14 12:10:00","powerType":"全部","powerOffArea":"110kV银湖变:大树D219线-中秋村3#孙家弄公变低压开关后段","powerOffReason":"(低压停电信息)拆接户线60处等工作","powerOffId":"2019110131020291"},{"poweroffId":2019110131020290,"sgpoweroffId":null,"subsName":"","lineName":"10kV宫前D603线","pubTranName":"东前村溪东1#溪东公变,","scope":"浙江省杭州市富阳区大源镇东前村溪东自然村一带","startTime":"2019-11-14 08:00:00","stopDate":"2019-11-14 16:40:00","orgNo":"3340170","typeCode":"计划停电","poweroffArea":"35kV溪东变:宫前D603线-东前村溪东1#溪东公变低压开关后段","poweroffReason":"(低压停电信息)大源过镇连接线拓宽-配电线路迁改(临时)工程安装横担、拆装、新架导线、接户线搭接等工作","powerTime":"2019-11-14 16:27:04","powerComm":"已送电","subsNo":"","lineNo":"","tgNo":"","tgName":null,"infoStatus":"1","orgName":"国网浙江杭州市富阳区供电公司","typeName":null,"infoStatusName":null,"dateDay":null,"orgNos":null,"nowTime":null,"countyName":null,"streetName":null,"villageName":null,"roadName":null,"communityName":null,"tranName":null,"sdLineName":null,"cityCode":"3340170","cityName":"国网浙江杭州市富阳区供电公司","provinceCode":null,"stopTime":"2019-11-14 16:40:00","powerType":"全部","powerOffArea":"35kV溪东变:宫前D603线-东前村溪东1#溪东公变低压开关后段","powerOffReason":"(低压停电信息)大源过镇连接线拓宽-配电线路迁改(临时)工程安装横担、拆装、新架导线、接户线搭接等工作","powerOffId":"2019110131020290"},{"poweroffId":2019110131020289,"sgpoweroffId":null,"subsName":"","lineName":"10kV顺溪V261线","pubTranName":"白果村大明山,","scope":"浙江省-杭州市-临安市-清凉峰镇-白果村大明山一带。","startTime":"2019-11-14 08:00:00","stopDate":"2019-11-14 11:30:00","orgNo":"3340160","typeCode":"计划停电","poweroffArea":"35kV颊口变:顺溪V261线-白果村大明山配变后段","poweroffReason":"美丽公路","powerTime":"2019-11-14 11:20:24","powerComm":"已送电","subsNo":"","lineNo":"","tgNo":"","tgName":null,"infoStatus":"1","orgName":"国网浙江临安市供电公司","typeName":null,"infoStatusName":null,"dateDay":null,"orgNos":null,"nowTime":null,"countyName":null,"streetName":null,"villageName":null,"roadName":null,"communityName":null,"tranName":null,"sdLineName":null,"cityCode":"3340160","cityName":"国网浙江临安市供电公司","provinceCode":null,"stopTime":"2019-11-14 11:30:00","powerType":"全部","powerOffArea":"35kV颊口变:顺溪V261线-白果村大明山配变后段","powerOffReason":"美丽公路","powerOffId":"2019110131020289"},{"poweroffId":2019110131020288,"sgpoweroffId":null,"subsName":"","lineName":"10kV大树D219线","pubTranName":"舒姑洋12号桥上南公变,","scope":"浙江省-杭州市-富阳区-银湖街道-高桥行政村-舒姑垟自然村","startTime":"2019-11-14 08:00:00","stopDate":"2019-11-14 16:30:00","orgNo":"3340170","typeCode":"计划停电","poweroffArea":"110kV银湖变:大树D219线-舒姑洋12号桥上南公变低压开关后段","poweroffReason":"(低压停电信息)更换接户线31处，搭接等工作。 （迎东2019年峡岭村3#周家坛公变等配电线路及设备大修工程）","powerTime":"2019-11-14 16:17:16","powerComm":"已送电","subsNo":"","lineNo":"","tgNo":"","tgName":null,"infoStatus":"1","orgName":"国网浙江杭州市富阳区供电公司","typeName":null,"infoStatusName":null,"dateDay":null,"orgNos":null,"nowTime":null,"countyName":null,"streetName":null,"villageName":null,"roadName":null,"communityName":null,"tranName":null,"sdLineName":null,"cityCode":"3340170","cityName":"国网浙江杭州市富阳区供电公司","provinceCode":null,"stopTime":"2019-11-14 16:30:00","powerType":"全部","powerOffArea":"110kV银湖变:大树D219线-舒姑洋12号桥上南公变低压开关后段","powerOffReason":"(低压停电信息)更换接户线31处，搭接等工作。 （迎东2019年峡岭村3#周家坛公变等配电线路及设备大修工程）","powerOffId":"2019110131020288"},{"poweroffId":2019110131020287,"sgpoweroffId":null,"subsName":"","lineName":"10kV岛石V168线","pubTranName":"小川村(小坞口),","scope":"浙江省-杭州市-临安市-岛石镇-新二村小川一带。","startTime":"2019-11-12 12:30:00","stopDate":"2019-11-12 17:00:00","orgNo":"3340160","typeCode":"计划停电","poweroffArea":"35kV岛石变:岛石V168线-小川村(小坞口)后段","poweroffReason":"低压改造","powerTime":"2019-11-12 16:50:09","powerComm":"已送电","subsNo":"","lineNo":"","tgNo":"","tgName":null,"infoStatus":"1","orgName":"国网浙江临安市供电公司","typeName":null,"infoStatusName":null,"dateDay":null,"orgNos":null,"nowTime":null,"countyName":null,"streetName":null,"villageName":null,"roadName":null,"communityName":null,"tranName":null,"sdLineName":null,"cityCode":"3340160","cityName":"国网浙江临安市供电公司","provinceCode":null,"stopTime":"2019-11-12 17:00:00","powerType":"全部","powerOffArea":"35kV岛石变:岛石V168线-小川村(小坞口)后段","powerOffReason":"低压改造","powerOffId":"2019110131020287"},{"poweroffId":2019110131020285,"sgpoweroffId":null,"subsName":"","lineName":"10kV南津D138线","pubTranName":"桃花岭村1#桃花岭公变,","scope":"浙江省杭州市富阳区新登镇桃花岭行政村桃花岭自然村一带","startTime":"2019-11-14 07:50:00","stopDate":"2019-11-14 16:30:00","orgNo":"3340170","typeCode":"计划停电","poweroffArea":"110kV新登变:南津D138线-桃花岭村1#桃花岭公变低压开关后段","poweroffReason":"(低压停电信息)照明01线、照明02线架设导线JKLYJ-120*4*4档、拆装JKLYJ-120*4*13档、更换落户线BS-JKLYJ-2*25*10户、BS-JKLYJ-4*35*100米、安装横担、拉线、拆除旧横担、拉线、导线搭接","powerTime":"2019-11-14 16:16:57","powerComm":"已送电","subsNo":"","lineNo":"","tgNo":"","tgName":null,"infoStatus":"1","orgName":"国网浙江杭州市富阳区供电公司","typeName":null,"infoStatusName":null,"dateDay":null,"orgNos":null,"nowTime":null,"countyName":null,"streetName":null,"villageName":null,"roadName":null,"communityName":null,"tranName":null,"sdLineName":null,"cityCode":"3340170","cityName":"国网浙江杭州市富阳区供电公司","provinceCode":null,"stopTime":"2019-11-14 16:30:00","powerType":"全部","powerOffArea":"110kV新登变:南津D138线-桃花岭村1#桃花岭公变低压开关后段","powerOffReason":"(低压停电信息)照明01线、照明02线架设导线JKLYJ-120*4*4档、拆装JKLYJ-120*4*13档、更换落户线BS-JKLYJ-2*25*10户、BS-JKLYJ-4*35*100米、安装横担、拉线、拆除旧横担、拉线、导线搭接","powerOffId":"2019110131020285"},{"poweroffId":2019110131020281,"sgpoweroffId":null,"subsName":"","lineName":"10kV岛石V168线","pubTranName":"桐坞村,","scope":"浙江省-杭州市-临安市-岛石镇-新二村桐坞一带。","startTime":"2019-11-12 07:30:00","stopDate":"2019-11-12 12:00:00","orgNo":"3340160","typeCode":"计划停电","poweroffArea":"35kV岛石变:岛石V168线-小川分线37#后段","poweroffReason":"低压改造","powerTime":"2019-11-12 11:50:28","powerComm":"已送电","subsNo":"","lineNo":"","tgNo":"","tgName":null,"infoStatus":"1","orgName":"国网浙江临安市供电公司","typeName":null,"infoStatusName":null,"dateDay":null,"orgNos":null,"nowTime":null,"countyName":null,"streetName":null,"villageName":null,"roadName":null,"communityName":null,"tranName":null,"sdLineName":null,"cityCode":"3340160","cityName":"国网浙江临安市供电公司","provinceCode":null,"stopTime":"2019-11-12 12:00:00","powerType":"全部","powerOffArea":"35kV岛石变:岛石V168线-小川分线37#后段","powerOffReason":"低压改造","powerOffId":"2019110131020281"},{"poweroffId":2019110131020279,"sgpoweroffId":null,"subsName":"","lineName":"10kV大树D219线","pubTranName":"中秋村4#宋殿路东公变,","scope":"浙江省-杭州市-富阳区-银湖街道-受降行政村(中秋自然村,宋殿自然村)","startTime":"2019-11-13 08:50:00","stopDate":"2019-11-13 16:30:00","orgNo":"3340170","typeCode":"计划停电","poweroffArea":"110kV银湖变:大树D219线-中秋村4#宋殿路东公变低压开关后段","poweroffReason":"(低压停电信息)拆接户线100处等工作","powerTime":"2019-11-13 16:11:33","powerComm":"已送电","subsNo":"","lineNo":"","tgNo":"","tgName":null,"infoStatus":"1","orgName":"国网浙江杭州市富阳区供电公司","typeName":null,"infoStatusName":null,"dateDay":null,"orgNos":null,"nowTime":null,"countyName":null,"streetName":null,"villageName":null,"roadName":null,"communityName":null,"tranName":null,"sdLineName":null,"cityCode":"3340170","cityName":"国网浙江杭州市富阳区供电公司","provinceCode":null,"stopTime":"2019-11-13 16:30:00","powerType":"全部","powerOffArea":"110kV银湖变:大树D219线-中秋村4#宋殿路东公变低压开关后段","powerOffReason":"(低压停电信息)拆接户线100处等工作","powerOffId":"2019110131020279"}],"pageModel":{"pageNow":927,"totalCount":17789,"totalPage":1779,"tableRows":0,"pageCount":10,"beginCount":9260},"isExperi":"1"}