{"message":"","today":"2020-06-15","seleList":[{"poweroffId":2019110131020273,"sgpoweroffId":null,"subsName":"","lineName":"10kV相岛V832线","pubTranName":"中梅村,国石村中梅,中国电信有限公司临安分公司,国石村汪家,","scope":"浙江省-杭州市-临安市-龙岗镇-国石村中梅,汪家一带。","startTime":"2019-11-11 08:00:00","stopDate":"2019-11-11 12:00:00","orgNo":"3340160","typeCode":"计划停电","poweroffArea":"35kV相见变:相岛V832线-147#杆至168#杆","poweroffReason":"政府工程杆线移位","powerTime":"2019-11-11 11:50:09","powerComm":"已送电","subsNo":"","lineNo":"","tgNo":"","tgName":null,"infoStatus":"1","orgName":"国网浙江临安市供电公司","typeName":null,"infoStatusName":null,"dateDay":null,"orgNos":null,"nowTime":null,"countyName":null,"streetName":null,"villageName":null,"roadName":null,"communityName":null,"tranName":null,"sdLineName":null,"cityCode":"3340160","cityName":"国网浙江临安市供电公司","provinceCode":null,"stopTime":"2019-11-11 12:00:00","powerType":"全部","powerOffArea":"35kV相见变:相岛V832线-147#杆至168#杆","powerOffReason":"政府工程杆线移位","powerOffId":"2019110131020273"},{"poweroffId":2019110131020267,"sgpoweroffId":null,"subsName":"","lineName":"10kV洪岭V302线","pubTranName":"韩家村小岭,潘家村外潘家,潘家村里潘家,临安市洪岭军建石矿,韩家村,临安市潘庄砩石矿,军建村,","scope":"浙江省-杭州市-临安市-湍口镇-雪山村小岭,军建,韩家,里潘家,外潘家,潘庄，洪岭军建石矿,临安市潘庄砩石矿一带。","startTime":"2019-11-11 09:00:00","stopDate":"2019-11-11 17:00:00","orgNo":"3340160","typeCode":"计划停电","poweroffArea":"35kV湍口变:洪岭V302线-韩家分线开关后段","poweroffReason":"高压分支线改造工程","powerTime":"2019-11-11 16:51:17","powerComm":"已送电","subsNo":"","lineNo":"","tgNo":"","tgName":null,"infoStatus":"1","orgName":"国网浙江临安市供电公司","typeName":null,"infoStatusName":null,"dateDay":null,"orgNos":null,"nowTime":null,"countyName":null,"streetName":null,"villageName":null,"roadName":null,"communityName":null,"tranName":null,"sdLineName":null,"cityCode":"3340160","cityName":"国网浙江临安市供电公司","provinceCode":null,"stopTime":"2019-11-11 17:00:00","powerType":"全部","powerOffArea":"35kV湍口变:洪岭V302线-韩家分线开关后段","powerOffReason":"高压分支线改造工程","powerOffId":"2019110131020267"},{"poweroffId":2019110131020261,"sgpoweroffId":null,"subsName":"","lineName":"10kV御街843线","pubTranName":"汤团变,","scope":"浙江省杭州市上城区中山中路380号，光复路164—172号、182—186号附近一带。","startTime":"2019-11-04 09:30:00","stopDate":"2019-11-04 14:00:00","orgNo":"3340101","typeCode":"临时停电","poweroffArea":"110kV涌金变:御街843线-汤变一线后段","poweroffReason":"浙江省杭州市上城区湖滨街道岳王路社区光复路156号（低压非居增容） 原停电结束时间为2019-11-04 17:30:00,为减少客户停电时间,加快工作进度,提前送电,现变更停电结束时间为2019-11-04 14:00:00","powerTime":"2019-11-04 13:02:59","powerComm":"已送电","subsNo":"","lineNo":"","tgNo":"","tgName":null,"infoStatus":"1","orgName":"浙江杭州电力客户服务中心","typeName":null,"infoStatusName":null,"dateDay":null,"orgNos":null,"nowTime":null,"countyName":null,"streetName":null,"villageName":null,"roadName":null,"communityName":null,"tranName":null,"sdLineName":null,"cityCode":"3340101","cityName":"浙江杭州电力客户服务中心","provinceCode":null,"stopTime":"2019-11-04 14:00:00","powerType":"全部","powerOffArea":"110kV涌金变:御街843线-汤变一线后段","powerOffReason":"浙江省杭州市上城区湖滨街道岳王路社区光复路156号（低压非居增容） 原停电结束时间为2019-11-04 17:30:00,为减少客户停电时间,加快工作进度,提前送电,现变更停电结束时间为2019-11-04 14:00:00","powerOffId":"2019110131020261"},{"poweroffId":2019110131020259,"sgpoweroffId":null,"subsName":"","lineName":"10kV沈家D212线","pubTranName":"高桥村17号新集镇东公变1,","scope":"浙江省-杭州市-富阳区-银湖街道-高桥行政村(高桥自然村,舒姑垟自然村)","startTime":"2019-11-13 08:00:00","stopDate":"2019-11-13 16:30:00","orgNo":"3340170","typeCode":"计划停电","poweroffArea":"110kV银湖变:沈家D212线-高桥村17号新集镇东公变低压开关后段","poweroffReason":"(低压停电信息)更换多位表箱进户电缆10处，搭接等工作。 （迎东2019年峡岭村3#周家坛公变等配电线路及设备大修工程）","powerTime":"2019-11-13 16:12:35","powerComm":"已送电","subsNo":"","lineNo":"","tgNo":"","tgName":null,"infoStatus":"1","orgName":"国网浙江杭州市富阳区供电公司","typeName":null,"infoStatusName":null,"dateDay":null,"orgNos":null,"nowTime":null,"countyName":null,"streetName":null,"villageName":null,"roadName":null,"communityName":null,"tranName":null,"sdLineName":null,"cityCode":"3340170","cityName":"国网浙江杭州市富阳区供电公司","provinceCode":null,"stopTime":"2019-11-13 16:30:00","powerType":"全部","powerOffArea":"110kV银湖变:沈家D212线-高桥村17号新集镇东公变低压开关后段","powerOffReason":"(低压停电信息)更换多位表箱进户电缆10处，搭接等工作。 （迎东2019年峡岭村3#周家坛公变等配电线路及设备大修工程）","powerOffId":"2019110131020259"},{"poweroffId":2019110131020251,"sgpoweroffId":null,"subsName":"","lineName":"10kV绍兴6063线","pubTranName":"朝二(2),","scope":"浙江省-杭州市-下城区-朝晖街道-玉公桥社区-文晖路-朝晖二区9幢，20幢一带","startTime":"2019-11-01 10:55:04","stopDate":"2019-11-01 14:20:04","orgNo":"3340101","typeCode":"电网故障停限电","poweroffArea":"110kV朝晖变:绍兴6063线-朝二(2)后段","poweroffReason":"(低压停电信息)低压开关跳闸 原停电结束时间为2019-11-01 16:55:04,为减少客户停电时间,加快工作进度,提前送电,现变更停电结束时间为2019-11-01 14:20:04","powerTime":"2019-11-01 13:32:59","powerComm":"已送电","subsNo":"","lineNo":"","tgNo":"","tgName":null,"infoStatus":"1","orgName":"浙江杭州电力客户服务中心","typeName":null,"infoStatusName":null,"dateDay":null,"orgNos":null,"nowTime":null,"countyName":null,"streetName":null,"villageName":null,"roadName":null,"communityName":null,"tranName":null,"sdLineName":null,"cityCode":"3340101","cityName":"浙江杭州电力客户服务中心","provinceCode":null,"stopTime":"2019-11-01 14:20:04","powerType":"全部","powerOffArea":"110kV朝晖变:绍兴6063线-朝二(2)后段","powerOffReason":"(低压停电信息)低压开关跳闸 原停电结束时间为2019-11-01 16:55:04,为减少客户停电时间,加快工作进度,提前送电,现变更停电结束时间为2019-11-01 14:20:04","powerOffId":"2019110131020251"},{"poweroffId":2019110131020237,"sgpoweroffId":null,"subsName":"","lineName":"10kV宋殿D221线","pubTranName":"中秋村2#宋殿公变,","scope":"浙江省-杭州市-富阳区-银湖街道-受降行政村(宋殿自然村,中秋自然村)","startTime":"2019-11-12 08:50:00","stopDate":"2019-11-12 16:30:00","orgNo":"3340170","typeCode":"计划停电","poweroffArea":"110kV银湖变:宋殿D221线-中秋村2#宋殿公变低压开关后段","poweroffReason":"(低压停电信息)拆接户线70处，拆沿墙架设25档等工作","powerTime":"2019-11-12 16:20:13","powerComm":"已送电","subsNo":"","lineNo":"","tgNo":"","tgName":null,"infoStatus":"1","orgName":"国网浙江杭州市富阳区供电公司","typeName":null,"infoStatusName":null,"dateDay":null,"orgNos":null,"nowTime":null,"countyName":null,"streetName":null,"villageName":null,"roadName":null,"communityName":null,"tranName":null,"sdLineName":null,"cityCode":"3340170","cityName":"国网浙江杭州市富阳区供电公司","provinceCode":null,"stopTime":"2019-11-12 16:30:00","powerType":"全部","powerOffArea":"110kV银湖变:宋殿D221线-中秋村2#宋殿公变低压开关后段","powerOffReason":"(低压停电信息)拆接户线70处，拆沿墙架设25档等工作","powerOffId":"2019110131020237"},{"poweroffId":2019110131020235,"sgpoweroffId":null,"subsName":"","lineName":"10kV绍鲁V502线","pubTranName":"10kV光明村[畔山村前山]公变,","scope":"浙江省-杭州市-临安市-於潜镇-畔山村前山一带","startTime":"2019-11-15 08:30:00","stopDate":"2019-11-15 14:50:00","orgNo":"3340160","typeCode":"计划停电","poweroffArea":"绍鲁V502线前山分线1#杆","poweroffReason":"绍鲁V502线前山分线7#杆10KV光明村（畔山村前山）公变配电房改杆上式、低压电缆调换","powerTime":"2019-11-15 14:40:19","powerComm":"已送电","subsNo":"","lineNo":"","tgNo":"","tgName":null,"infoStatus":"1","orgName":"国网浙江临安市供电公司","typeName":null,"infoStatusName":null,"dateDay":null,"orgNos":null,"nowTime":null,"countyName":null,"streetName":null,"villageName":null,"roadName":null,"communityName":null,"tranName":null,"sdLineName":null,"cityCode":"3340160","cityName":"国网浙江临安市供电公司","provinceCode":null,"stopTime":"2019-11-15 14:50:00","powerType":"全部","powerOffArea":"绍鲁V502线前山分线1#杆","powerOffReason":"绍鲁V502线前山分线7#杆10KV光明村（畔山村前山）公变配电房改杆上式、低压电缆调换","powerOffId":"2019110131020235"},{"poweroffId":2019110131020234,"sgpoweroffId":null,"subsName":"","lineName":"10kV乐平V239线","pubTranName":"10kV乐平村[粮站边]公变,","scope":"浙江省-杭州市-临安市-潜川镇-粮站边一带","startTime":"2019-11-15 08:20:00","stopDate":"2019-11-15 16:40:00","orgNo":"3340160","typeCode":"计划停电","poweroffArea":"乐平V239线七坑分线粮站边支线16#杆10KV乐平村（粮站边）公变低压","poweroffReason":"杭州临安於潜10千伏乐平V239线、里伍V237线与分水变线路联络：乐平V239线七坑分线粮站边支线延伸段17-23#杆立杆、架线","powerTime":"2019-11-15 16:29:35","powerComm":"已送电","subsNo":"","lineNo":"","tgNo":"","tgName":null,"infoStatus":"1","orgName":"国网浙江临安市供电公司","typeName":null,"infoStatusName":null,"dateDay":null,"orgNos":null,"nowTime":null,"countyName":null,"streetName":null,"villageName":null,"roadName":null,"communityName":null,"tranName":null,"sdLineName":null,"cityCode":"3340160","cityName":"国网浙江临安市供电公司","provinceCode":null,"stopTime":"2019-11-15 16:40:00","powerType":"全部","powerOffArea":"乐平V239线七坑分线粮站边支线16#杆10KV乐平村（粮站边）公变低压","powerOffReason":"杭州临安於潜10千伏乐平V239线、里伍V237线与分水变线路联络：乐平V239线七坑分线粮站边支线延伸段17-23#杆立杆、架线","powerOffId":"2019110131020234"},{"poweroffId":2019110131020233,"sgpoweroffId":null,"subsName":"","lineName":"10kV蒋家D408线","pubTranName":"杭州广安汽车电器有限公司,","scope":"浙江省-杭州市-富阳区-鹿山街道-鹿山工业园区-杭州广安汽车电器有限公司","startTime":"2019-11-12 08:30:00","stopDate":"2019-11-12 16:00:00","orgNo":"3340170","typeCode":"计划停电","poweroffArea":"110kV长春变:蒋家D408线-广安汽车支线后段","poweroffReason":"城投公司线路移位工程：10kV蒋家D408线、集镇D407线6#杆后段新立1#杆1基，安装真空开关两台；10kV蒋家D408线、集镇D407线出线电缆开断，开断处至新立1#杆线路拆除，开断处制作中间接头2处，电缆敷设搭接至新立1#杆等工作。","powerTime":"2019-11-12 15:50:07","powerComm":"已送电","subsNo":"","lineNo":"","tgNo":"","tgName":null,"infoStatus":"1","orgName":"国网浙江杭州市富阳区供电公司","typeName":null,"infoStatusName":null,"dateDay":null,"orgNos":null,"nowTime":null,"countyName":null,"streetName":null,"villageName":null,"roadName":null,"communityName":null,"tranName":null,"sdLineName":null,"cityCode":"3340170","cityName":"国网浙江杭州市富阳区供电公司","provinceCode":null,"stopTime":"2019-11-12 16:00:00","powerType":"全部","powerOffArea":"110kV长春变:蒋家D408线-广安汽车支线后段","powerOffReason":"城投公司线路移位工程：10kV蒋家D408线、集镇D407线6#杆后段新立1#杆1基，安装真空开关两台；10kV蒋家D408线、集镇D407线出线电缆开断，开断处至新立1#杆线路拆除，开断处制作中间接头2处，电缆敷设搭接至新立1#杆等工作。","powerOffId":"2019110131020233"},{"poweroffId":2019110131020232,"sgpoweroffId":null,"subsName":"","lineName":"10kV横路V128线","pubTranName":"10kV百园村[牛上村]公变,","scope":"浙江省-杭州市-临安市-於潜镇-牛上村一带","startTime":"2019-11-15 08:20:00","stopDate":"2019-11-15 15:40:00","orgNo":"3340160","typeCode":"计划停电","poweroffArea":"横路V128线160#杆10KV百园村（牛上村）公变低压","poweroffReason":"临安於潜10千伏下埠V503线、横路V128线同杆双回后段线路改造：配合新线路119#-133#杆架线","powerTime":"2019-11-15 15:30:14","powerComm":"已送电","subsNo":"","lineNo":"","tgNo":"","tgName":null,"infoStatus":"1","orgName":"国网浙江临安市供电公司","typeName":null,"infoStatusName":null,"dateDay":null,"orgNos":null,"nowTime":null,"countyName":null,"streetName":null,"villageName":null,"roadName":null,"communityName":null,"tranName":null,"sdLineName":null,"cityCode":"3340160","cityName":"国网浙江临安市供电公司","provinceCode":null,"stopTime":"2019-11-15 15:40:00","powerType":"全部","powerOffArea":"横路V128线160#杆10KV百园村（牛上村）公变低压","powerOffReason":"临安於潜10千伏下埠V503线、横路V128线同杆双回后段线路改造：配合新线路119#-133#杆架线","powerOffId":"2019110131020232"}],"pageModel":{"pageNow":928,"totalCount":17789,"totalPage":1779,"tableRows":0,"pageCount":10,"beginCount":9270},"isExperi":"1"}