{"message":"","today":"2020-06-15","seleList":[{"poweroffId":2019110131020231,"sgpoweroffId":null,"subsName":"","lineName":"10kV横路V128线","pubTranName":"临金高速公路临安段建设指挥部1#变,","scope":"浙江省-杭州市-临安市-於潜镇-临金高速公路临安段基建指挥部一带","startTime":"2019-11-15 08:10:00","stopDate":"2019-11-15 15:50:00","orgNo":"3340160","typeCode":"计划停电","poweroffArea":"横路V128线161#杆临金高速百园基建变分线","poweroffReason":"临安於潜10千伏下埠V503线、横路V128线同杆双回后段线路改造：配合新线路119#-133#杆架线","powerTime":"2019-11-15 15:40:24","powerComm":"已送电","subsNo":"","lineNo":"","tgNo":"","tgName":null,"infoStatus":"1","orgName":"国网浙江临安市供电公司","typeName":null,"infoStatusName":null,"dateDay":null,"orgNos":null,"nowTime":null,"countyName":null,"streetName":null,"villageName":null,"roadName":null,"communityName":null,"tranName":null,"sdLineName":null,"cityCode":"3340160","cityName":"国网浙江临安市供电公司","provinceCode":null,"stopTime":"2019-11-15 15:50:00","powerType":"全部","powerOffArea":"横路V128线161#杆临金高速百园基建变分线","powerOffReason":"临安於潜10千伏下埠V503线、横路V128线同杆双回后段线路改造：配合新线路119#-133#杆架线","powerOffId":"2019110131020231"},{"poweroffId":2019110131020229,"sgpoweroffId":null,"subsName":"","lineName":"10kV塔山V232线","pubTranName":"杭州奥丰消防设备有限公司1#,临安市华刚金属制品有限公司,中国电信股份有限公司临安分公司,10kV牧亭村[邮政边]公变,临安市卓潮紧固件有限公司,临安市塔山金属镀层厂,临安裕杰木业有限公司,临安市天目电力配件有限公司,10kV牧亭村[学校边]公变,","scope":"浙江省-杭州市-临安市-潜川镇-邮政边、中国电信股份有限公司临安分公司、学校边、临安市塔山金属镀层厂、临安市天目电力配件有限公司、杭州奥丰消防设备有限公司、临安市华刚金属制品有限公司、临安市卓潮紧固件有限公司、临安裕杰木业有限公司一带","startTime":"2019-11-13 08:20:00","stopDate":"2019-11-13 13:50:00","orgNo":"3340160","typeCode":"计划停电","poweroffArea":"塔山V232线58#杆塔山分线开关","poweroffReason":"杭州临安於潜10千伏塔山V232线等线路改造：塔山V232线58#杆塔山分线1-8#、华刚支线1-5#杆改造（塔山分线华刚支线改造更名为华刚分线1-16#杆），牧亭村（上埠头）新布点搭头，低压割接","powerTime":"2019-11-13 13:40:20","powerComm":"已送电","subsNo":"","lineNo":"","tgNo":"","tgName":null,"infoStatus":"1","orgName":"国网浙江临安市供电公司","typeName":null,"infoStatusName":null,"dateDay":null,"orgNos":null,"nowTime":null,"countyName":null,"streetName":null,"villageName":null,"roadName":null,"communityName":null,"tranName":null,"sdLineName":null,"cityCode":"3340160","cityName":"国网浙江临安市供电公司","provinceCode":null,"stopTime":"2019-11-13 13:50:00","powerType":"全部","powerOffArea":"塔山V232线58#杆塔山分线开关","powerOffReason":"杭州临安於潜10千伏塔山V232线等线路改造：塔山V232线58#杆塔山分线1-8#、华刚支线1-5#杆改造（塔山分线华刚支线改造更名为华刚分线1-16#杆），牧亭村（上埠头）新布点搭头，低压割接","powerOffId":"2019110131020229"},{"poweroffId":2019110131020228,"sgpoweroffId":null,"subsName":"","lineName":"10kV塔山V232线","pubTranName":"10kV牧亭村[学校边]公变,","scope":"浙江省-杭州市-临安市-潜川镇-学校边一带","startTime":"2019-11-13 08:20:00","stopDate":"2019-11-13 13:50:00","orgNo":"3340160","typeCode":"计划停电","poweroffArea":"塔山分线1#杆10KV牧亭村（学校变）公变低压","poweroffReason":"杭州临安於潜10千伏塔山V232线等线路改造：塔山V232线58#杆塔山分线1#杆线路搭头，华刚支线1#-5#杆调导线，牧亭村（上埠头）新布点搭头，低压割接","powerTime":"2019-11-13 13:41:04","powerComm":"已送电","subsNo":"","lineNo":"","tgNo":"","tgName":null,"infoStatus":"1","orgName":"国网浙江临安市供电公司","typeName":null,"infoStatusName":null,"dateDay":null,"orgNos":null,"nowTime":null,"countyName":null,"streetName":null,"villageName":null,"roadName":null,"communityName":null,"tranName":null,"sdLineName":null,"cityCode":"3340160","cityName":"国网浙江临安市供电公司","provinceCode":null,"stopTime":"2019-11-13 13:50:00","powerType":"全部","powerOffArea":"塔山分线1#杆10KV牧亭村（学校变）公变低压","powerOffReason":"杭州临安於潜10千伏塔山V232线等线路改造：塔山V232线58#杆塔山分线1#杆线路搭头，华刚支线1#-5#杆调导线，牧亭村（上埠头）新布点搭头，低压割接","powerOffId":"2019110131020228"},{"poweroffId":2019110131020226,"sgpoweroffId":null,"subsName":"","lineName":"10kV广源D891线","pubTranName":"杭州金山仪表阀业有限公司,","scope":"浙江省-杭州市-富阳区-灵桥镇-杭州金山仪表阀业有限公司一带","startTime":"2019-11-12 08:00:00","stopDate":"2019-11-12 17:30:00","orgNo":"3340170","typeCode":"计划停电","poweroffArea":"110kV永春变:广源D891线-杭州金山仪表阀业有限公司开关后段","poweroffReason":"杭州富春湾新城资产运营管理有限公司配电工程：新装250KVA配变1台，低压配电屏1套，新放YJV22-10-3*70电缆1根，拆除原配变1台，线路拆、搭头等工作。","powerTime":"2019-11-12 17:22:05","powerComm":"已送电","subsNo":"","lineNo":"","tgNo":"","tgName":null,"infoStatus":"1","orgName":"国网浙江杭州市富阳区供电公司","typeName":null,"infoStatusName":null,"dateDay":null,"orgNos":null,"nowTime":null,"countyName":null,"streetName":null,"villageName":null,"roadName":null,"communityName":null,"tranName":null,"sdLineName":null,"cityCode":"3340170","cityName":"国网浙江杭州市富阳区供电公司","provinceCode":null,"stopTime":"2019-11-12 17:30:00","powerType":"全部","powerOffArea":"110kV永春变:广源D891线-杭州金山仪表阀业有限公司开关后段","powerOffReason":"杭州富春湾新城资产运营管理有限公司配电工程：新装250KVA配变1台，低压配电屏1套，新放YJV22-10-3*70电缆1根，拆除原配变1台，线路拆、搭头等工作。","powerOffId":"2019110131020226"},{"poweroffId":2019110131020222,"sgpoweroffId":null,"subsName":"","lineName":"10kV沈家D212线","pubTranName":"高桥村17号新集镇东公变1,","scope":"浙江省-杭州市-富阳区-银湖街道-高桥行政村(高桥自然村,舒姑垟自然村)","startTime":"2019-11-12 08:00:00","stopDate":"2019-11-12 16:30:00","orgNo":"3340170","typeCode":"计划停电","poweroffArea":"110kV银湖变:沈家D212线-高桥村17号新集镇东公变低压开关后段","poweroffReason":"(低压停电信息)更换多位表箱进户电缆12处，搭接等工作。 （迎东2019年峡岭村3#周家坛公变等配电线路及设备大修工程）","powerTime":"2019-11-12 16:20:31","powerComm":"已送电","subsNo":"","lineNo":"","tgNo":"","tgName":null,"infoStatus":"1","orgName":"国网浙江杭州市富阳区供电公司","typeName":null,"infoStatusName":null,"dateDay":null,"orgNos":null,"nowTime":null,"countyName":null,"streetName":null,"villageName":null,"roadName":null,"communityName":null,"tranName":null,"sdLineName":null,"cityCode":"3340170","cityName":"国网浙江杭州市富阳区供电公司","provinceCode":null,"stopTime":"2019-11-12 16:30:00","powerType":"全部","powerOffArea":"110kV银湖变:沈家D212线-高桥村17号新集镇东公变低压开关后段","powerOffReason":"(低压停电信息)更换多位表箱进户电缆12处，搭接等工作。 （迎东2019年峡岭村3#周家坛公变等配电线路及设备大修工程）","powerOffId":"2019110131020222"},{"poweroffId":2019110131020212,"sgpoweroffId":null,"subsName":"","lineName":"10kV高桥D220线","pubTranName":"舒姑洋11号工贸2公变,","scope":"浙江省-杭州市-富阳区-银湖街道-郜村行政村-郜村自然村,银湖街道-高桥行政村(高尔夫路,舒姑垟自然村)","startTime":"2019-11-17 12:40:00","stopDate":"2019-11-17 17:00:00","orgNo":"3340170","typeCode":"计划停电","poweroffArea":"110kV银湖变:高桥D220线-舒姑洋11号工贸2公变低压开关后段","poweroffReason":"(低压停电信息)新架导线2档，新装出线电缆1路，搭接等工作。 （迎东2019年沈家坞9#里村口公变等低压台区改造工程），原停电时间为2019-11-11因政策原因,现变更停电时间为2019-11-17","powerTime":"2019-11-17 16:59:25","powerComm":"已送电","subsNo":"","lineNo":"","tgNo":"","tgName":null,"infoStatus":"1","orgName":"国网浙江杭州市富阳区供电公司","typeName":null,"infoStatusName":null,"dateDay":null,"orgNos":null,"nowTime":null,"countyName":null,"streetName":null,"villageName":null,"roadName":null,"communityName":null,"tranName":null,"sdLineName":null,"cityCode":"3340170","cityName":"国网浙江杭州市富阳区供电公司","provinceCode":null,"stopTime":"2019-11-17 17:00:00","powerType":"全部","powerOffArea":"110kV银湖变:高桥D220线-舒姑洋11号工贸2公变低压开关后段","powerOffReason":"(低压停电信息)新架导线2档，新装出线电缆1路，搭接等工作。 （迎东2019年沈家坞9#里村口公变等低压台区改造工程），原停电时间为2019-11-11因政策原因,现变更停电时间为2019-11-17","powerOffId":"2019110131020212"},{"poweroffId":2019110131020211,"sgpoweroffId":null,"subsName":"","lineName":"10kV上陈D295线","pubTranName":"上陈村5#作毛坞外公变,","scope":"浙江省-杭州市-富阳区-银湖街道-高桥行政村-上陈自然村,银湖街道-上陈行政村(作毛坞自然村,上陈自然村)","startTime":"2019-11-11 13:30:00","stopDate":"2019-11-11 16:40:00","orgNo":"3340170","typeCode":"计划停电","poweroffArea":"35kV新义变:上陈D295线-上陈村5#作毛坞外公变低压开关后段","poweroffReason":"(低压停电信息)迎东2019年缺陷处理工程吊车拔立电杆1支、导线拆装1档、按装拉线1组、搭接、等工作","powerTime":"2019-11-11 16:32:19","powerComm":"已送电","subsNo":"","lineNo":"","tgNo":"","tgName":null,"infoStatus":"1","orgName":"国网浙江杭州市富阳区供电公司","typeName":null,"infoStatusName":null,"dateDay":null,"orgNos":null,"nowTime":null,"countyName":null,"streetName":null,"villageName":null,"roadName":null,"communityName":null,"tranName":null,"sdLineName":null,"cityCode":"3340170","cityName":"国网浙江杭州市富阳区供电公司","provinceCode":null,"stopTime":"2019-11-11 16:40:00","powerType":"全部","powerOffArea":"35kV新义变:上陈D295线-上陈村5#作毛坞外公变低压开关后段","powerOffReason":"(低压停电信息)迎东2019年缺陷处理工程吊车拔立电杆1支、导线拆装1档、按装拉线1组、搭接、等工作","powerOffId":"2019110131020211"},{"poweroffId":2019110131020209,"sgpoweroffId":null,"subsName":"","lineName":"10kV渔山D913线","pubTranName":"葛村1#路上公变,","scope":"浙江省-杭州市-富阳区-渔山乡-大葛行政村-葛村自然村一带","startTime":"2019-11-11 08:00:00","stopDate":"2019-11-11 16:40:00","orgNo":"3340170","typeCode":"计划停电","poweroffArea":"110kV里渔变:渔山D913线-葛村1号路上低压开关后段","poweroffReason":"(低压停电信息)葛村1#路上公变低压线路移位工程安装横担、拉线、人工运杆、吊车立杆、拆装导线、接户线搭接等工作","powerTime":"2019-11-11 16:30:37","powerComm":"已送电","subsNo":"","lineNo":"","tgNo":"","tgName":null,"infoStatus":"1","orgName":"国网浙江杭州市富阳区供电公司","typeName":null,"infoStatusName":null,"dateDay":null,"orgNos":null,"nowTime":null,"countyName":null,"streetName":null,"villageName":null,"roadName":null,"communityName":null,"tranName":null,"sdLineName":null,"cityCode":"3340170","cityName":"国网浙江杭州市富阳区供电公司","provinceCode":null,"stopTime":"2019-11-11 16:40:00","powerType":"全部","powerOffArea":"110kV里渔变:渔山D913线-葛村1号路上低压开关后段","powerOffReason":"(低压停电信息)葛村1#路上公变低压线路移位工程安装横担、拉线、人工运杆、吊车立杆、拆装导线、接户线搭接等工作","powerOffId":"2019110131020209"},{"poweroffId":2019110131020206,"sgpoweroffId":null,"subsName":"","lineName":"10kV中秋D223线","pubTranName":"集镇3号陈坑坞公变,","scope":"浙江省-杭州市-富阳区-银湖街道(新常行政村-大山脚自然村,受降行政村-中秋自然村)","startTime":"2019-11-11 13:00:00","stopDate":"2019-11-11 16:30:00","orgNo":"3340170","typeCode":"计划停电","poweroffArea":"110kV银湖变:中秋D223线-集镇3号陈坑坞公变低压开关后段","poweroffReason":"(低压停电信息)拆接户线40处等工作","powerTime":"2019-11-11 16:23:50","powerComm":"已送电","subsNo":"","lineNo":"","tgNo":"","tgName":null,"infoStatus":"1","orgName":"国网浙江杭州市富阳区供电公司","typeName":null,"infoStatusName":null,"dateDay":null,"orgNos":null,"nowTime":null,"countyName":null,"streetName":null,"villageName":null,"roadName":null,"communityName":null,"tranName":null,"sdLineName":null,"cityCode":"3340170","cityName":"国网浙江杭州市富阳区供电公司","provinceCode":null,"stopTime":"2019-11-11 16:30:00","powerType":"全部","powerOffArea":"110kV银湖变:中秋D223线-集镇3号陈坑坞公变低压开关后段","powerOffReason":"(低压停电信息)拆接户线40处等工作","powerOffId":"2019110131020206"},{"poweroffId":2019110131020198,"sgpoweroffId":null,"subsName":"","lineName":"10kV中秋D223线","pubTranName":"集镇1#供电所公变,","scope":"浙江省-杭州市-富阳区-银湖街道-受降行政村(中秋自然村政秋弄,中秋自然村中秋路,中秋自然村红波路,中秋自然村通政路)","startTime":"2019-11-11 08:50:00","stopDate":"2019-11-11 12:10:00","orgNo":"3340170","typeCode":"计划停电","poweroffArea":"110kV银湖变:中秋D223线-集镇1#供电所公变低压开关后段","poweroffReason":"(低压停电信息)拆接户线60处等工作","powerTime":"2019-11-11 12:00:21","powerComm":"已送电","subsNo":"","lineNo":"","tgNo":"","tgName":null,"infoStatus":"1","orgName":"国网浙江杭州市富阳区供电公司","typeName":null,"infoStatusName":null,"dateDay":null,"orgNos":null,"nowTime":null,"countyName":null,"streetName":null,"villageName":null,"roadName":null,"communityName":null,"tranName":null,"sdLineName":null,"cityCode":"3340170","cityName":"国网浙江杭州市富阳区供电公司","provinceCode":null,"stopTime":"2019-11-11 12:10:00","powerType":"全部","powerOffArea":"110kV银湖变:中秋D223线-集镇1#供电所公变低压开关后段","powerOffReason":"(低压停电信息)拆接户线60处等工作","powerOffId":"2019110131020198"}],"pageModel":{"pageNow":929,"totalCount":17789,"totalPage":1779,"tableRows":0,"pageCount":10,"beginCount":9280},"isExperi":"1"}