{"message":"","today":"2020-06-15","seleList":[{"poweroffId":2019110131020195,"sgpoweroffId":null,"subsName":"","lineName":"10kV梓树D973线","pubTranName":"大庄村6#白纸槽东坞公变,","scope":"浙江省-杭州市-富阳区-银湖街道-大庄行政村(横溪洋自然村,上大庄自然村,白纸槽自然村)","startTime":"2019-11-11 08:00:00","stopDate":"2019-11-11 11:30:00","orgNo":"3340170","typeCode":"计划停电","poweroffArea":"110kV九龙变:梓树D973线-大庄村6#白纸槽东坞公变低压开关后段","poweroffReason":"(低压停电信息)更换接户线3处，搭接等工作。 （迎东2019年沈家坞9#里村口公变等低压台区改造工程）","powerTime":"2019-11-11 11:20:08","powerComm":"已送电","subsNo":"","lineNo":"","tgNo":"","tgName":null,"infoStatus":"1","orgName":"国网浙江杭州市富阳区供电公司","typeName":null,"infoStatusName":null,"dateDay":null,"orgNos":null,"nowTime":null,"countyName":null,"streetName":null,"villageName":null,"roadName":null,"communityName":null,"tranName":null,"sdLineName":null,"cityCode":"3340170","cityName":"国网浙江杭州市富阳区供电公司","provinceCode":null,"stopTime":"2019-11-11 11:30:00","powerType":"全部","powerOffArea":"110kV九龙变:梓树D973线-大庄村6#白纸槽东坞公变低压开关后段","powerOffReason":"(低压停电信息)更换接户线3处，搭接等工作。 （迎东2019年沈家坞9#里村口公变等低压台区改造工程）","powerOffId":"2019110131020195"},{"poweroffId":2019110131020193,"sgpoweroffId":null,"subsName":"","lineName":"10kV白泥D226线","pubTranName":"唐家坞11#下凉亭公变,","scope":"浙江省-杭州市-富阳区-银湖街道-唐家坞行政村-唐家坞自然村","startTime":"2019-11-11 08:00:00","stopDate":"2019-11-11 13:00:00","orgNo":"3340170","typeCode":"计划停电","poweroffArea":"110kV银湖变:白泥D226线-唐家坞11#下凉亭公变低压开关后段","poweroffReason":"(低压停电信息)更换进户电缆1路，更换导线1档，更换表箱1只，搭接等工作。 （迎东2019年峡岭村3#周家坛公变等配电线路及设备大修工程）","powerTime":"2019-11-11 12:51:25","powerComm":"已送电","subsNo":"","lineNo":"","tgNo":"","tgName":null,"infoStatus":"1","orgName":"国网浙江杭州市富阳区供电公司","typeName":null,"infoStatusName":null,"dateDay":null,"orgNos":null,"nowTime":null,"countyName":null,"streetName":null,"villageName":null,"roadName":null,"communityName":null,"tranName":null,"sdLineName":null,"cityCode":"3340170","cityName":"国网浙江杭州市富阳区供电公司","provinceCode":null,"stopTime":"2019-11-11 13:00:00","powerType":"全部","powerOffArea":"110kV银湖变:白泥D226线-唐家坞11#下凉亭公变低压开关后段","powerOffReason":"(低压停电信息)更换进户电缆1路，更换导线1档，更换表箱1只，搭接等工作。 （迎东2019年峡岭村3#周家坛公变等配电线路及设备大修工程）","powerOffId":"2019110131020193"},{"poweroffId":2019110131020192,"sgpoweroffId":null,"subsName":"","lineName":"10kV中秋D223线","pubTranName":"受降集镇2号供电所公变,","scope":"浙江省-杭州市-富阳区-银湖街道-新常行政村-虎啸杏自然村七里路,银湖街道-受降行政村(中秋自然村,中秋自然村政秋弄,中秋自然村红波路,中秋自然村通政路)","startTime":"2019-11-15 13:00:00","stopDate":"2019-11-15 16:30:00","orgNo":"3340170","typeCode":"计划停电","poweroffArea":"110kV银湖变:中秋D223线-受降集镇2号供电所公变低压开关后段","poweroffReason":"(低压停电信息)拆接户线30处等工作","powerTime":"2019-11-15 16:20:43","powerComm":"已送电","subsNo":"","lineNo":"","tgNo":"","tgName":null,"infoStatus":"1","orgName":"国网浙江杭州市富阳区供电公司","typeName":null,"infoStatusName":null,"dateDay":null,"orgNos":null,"nowTime":null,"countyName":null,"streetName":null,"villageName":null,"roadName":null,"communityName":null,"tranName":null,"sdLineName":null,"cityCode":"3340170","cityName":"国网浙江杭州市富阳区供电公司","provinceCode":null,"stopTime":"2019-11-15 16:30:00","powerType":"全部","powerOffArea":"110kV银湖变:中秋D223线-受降集镇2号供电所公变低压开关后段","powerOffReason":"(低压停电信息)拆接户线30处等工作","powerOffId":"2019110131020192"},{"poweroffId":2019110131020190,"sgpoweroffId":null,"subsName":"","lineName":"10kV大树D219线","pubTranName":"受降村8号孙家弄里公变,","scope":"浙江省-杭州市-富阳区-银湖街道-受降行政村(中秋自然村,孙家垄自然村,受降自然村)","startTime":"2019-11-15 08:50:00","stopDate":"2019-11-15 12:10:00","orgNo":"3340170","typeCode":"计划停电","poweroffArea":"110kV银湖变:大树D219线-受降村8号孙家弄里公变低压开关后段","poweroffReason":"(低压停电信息)拆接户线80处等工作","powerTime":"2019-11-15 12:00:11","powerComm":"已送电","subsNo":"","lineNo":"","tgNo":"","tgName":null,"infoStatus":"1","orgName":"国网浙江杭州市富阳区供电公司","typeName":null,"infoStatusName":null,"dateDay":null,"orgNos":null,"nowTime":null,"countyName":null,"streetName":null,"villageName":null,"roadName":null,"communityName":null,"tranName":null,"sdLineName":null,"cityCode":"3340170","cityName":"国网浙江杭州市富阳区供电公司","provinceCode":null,"stopTime":"2019-11-15 12:10:00","powerType":"全部","powerOffArea":"110kV银湖变:大树D219线-受降村8号孙家弄里公变低压开关后段","powerOffReason":"(低压停电信息)拆接户线80处等工作","powerOffId":"2019110131020190"},{"poweroffId":2019110131020187,"sgpoweroffId":null,"subsName":"","lineName":"10kV大树D219线","pubTranName":"舒姑洋村1#桥上公变,","scope":"浙江省-杭州市-富阳区-银湖街道-高桥行政村-舒姑垟自然村","startTime":"2019-11-15 08:00:00","stopDate":"2019-11-15 16:30:00","orgNo":"3340170","typeCode":"计划停电","poweroffArea":"110kV银湖变:大树D219线-舒姑洋村1#桥上公变低压开关后段","poweroffReason":"(低压停电信息)更换导线3档，更换接户线35处，搭接等工作。 （迎东2019年峡岭村3#周家坛公变等配电线路及设备大修工程）","powerTime":"2019-11-15 16:20:05","powerComm":"已送电","subsNo":"","lineNo":"","tgNo":"","tgName":null,"infoStatus":"1","orgName":"国网浙江杭州市富阳区供电公司","typeName":null,"infoStatusName":null,"dateDay":null,"orgNos":null,"nowTime":null,"countyName":null,"streetName":null,"villageName":null,"roadName":null,"communityName":null,"tranName":null,"sdLineName":null,"cityCode":"3340170","cityName":"国网浙江杭州市富阳区供电公司","provinceCode":null,"stopTime":"2019-11-15 16:30:00","powerType":"全部","powerOffArea":"110kV银湖变:大树D219线-舒姑洋村1#桥上公变低压开关后段","powerOffReason":"(低压停电信息)更换导线3档，更换接户线35处，搭接等工作。 （迎东2019年峡岭村3#周家坛公变等配电线路及设备大修工程）","powerOffId":"2019110131020187"},{"poweroffId":2019110131020186,"sgpoweroffId":null,"subsName":"","lineName":"10kV新关D601线","pubTranName":"新关村4号大竹园公变,","scope":"浙江省杭州市富阳区大源镇新关村大竹园自然村一带","startTime":"2019-11-15 08:00:00","stopDate":"2019-11-15 16:40:00","orgNo":"3340170","typeCode":"计划停电","poweroffArea":"35kV溪东变:新关D601线-新关村4号大竹园公变低压开关后段","poweroffReason":"(低压停电信息)大源过镇连接线拓宽-配电线路迁改(临时)工程安装横担、拉线、拆装导线、接户线搭接等工作","powerTime":"2019-11-15 16:30:29","powerComm":"已送电","subsNo":"","lineNo":"","tgNo":"","tgName":null,"infoStatus":"1","orgName":"国网浙江杭州市富阳区供电公司","typeName":null,"infoStatusName":null,"dateDay":null,"orgNos":null,"nowTime":null,"countyName":null,"streetName":null,"villageName":null,"roadName":null,"communityName":null,"tranName":null,"sdLineName":null,"cityCode":"3340170","cityName":"国网浙江杭州市富阳区供电公司","provinceCode":null,"stopTime":"2019-11-15 16:40:00","powerType":"全部","powerOffArea":"35kV溪东变:新关D601线-新关村4号大竹园公变低压开关后段","powerOffReason":"(低压停电信息)大源过镇连接线拓宽-配电线路迁改(临时)工程安装横担、拉线、拆装导线、接户线搭接等工作","powerOffId":"2019110131020186"},{"poweroffId":2019110131020180,"sgpoweroffId":null,"subsName":"","lineName":"10kV天万G011线","pubTranName":"钱塘13组6号公变,","scope":"浙江省杭州市余杭区南苑街道：钱塘社区13组6号公变一带","startTime":"2019-11-08 08:30:00","stopDate":"2019-11-08 16:45:00","orgNo":"3340140","typeCode":"临时停电","poweroffArea":"110kV外乔变:天万G011线钱塘13组6号公变","poweroffReason":"(低压停电信息)配网工程（2019年余杭公司南苑供电所0.4kV藕花洲小区公变配电线路整治工程）：新出电缆1根、新立电杆7基、调换落户线12对、新放导线6档","powerTime":"2019-11-08 15:53:10","powerComm":"已送电","subsNo":"","lineNo":"","tgNo":"","tgName":null,"infoStatus":"1","orgName":"国网浙江杭州市余杭区供电有限公司","typeName":null,"infoStatusName":null,"dateDay":null,"orgNos":null,"nowTime":null,"countyName":null,"streetName":null,"villageName":null,"roadName":null,"communityName":null,"tranName":null,"sdLineName":null,"cityCode":"3340140","cityName":"国网浙江杭州市余杭区供电有限公司","provinceCode":null,"stopTime":"2019-11-08 16:45:00","powerType":"全部","powerOffArea":"110kV外乔变:天万G011线钱塘13组6号公变","powerOffReason":"(低压停电信息)配网工程（2019年余杭公司南苑供电所0.4kV藕花洲小区公变配电线路整治工程）：新出电缆1根、新立电杆7基、调换落户线12对、新放导线6档","powerOffId":"2019110131020180"},{"poweroffId":2019110131020175,"sgpoweroffId":null,"subsName":"","lineName":"10kV南津D138线","pubTranName":"桃花岭村1#桃花岭公变,","scope":"浙江省杭州市富阳区新登镇桃花岭行政村桃花岭自然村一带","startTime":"2019-11-15 07:50:00","stopDate":"2019-11-15 16:30:00","orgNo":"3340170","typeCode":"计划停电","poweroffArea":"110kV新登变:南津D138线-桃花岭村1#桃花岭公变低压开关后段","poweroffReason":"(低压停电信息)照明01线、照明02线架设导线JKLYJ-120*4*4档、拆装JKLYJ-120*4*11档、更换落户线BS-JKLYJ-2*25*10户、BS-JKLYJ-4*35*100米、安装横担、拉线、拆除旧横担、拉线、导线搭接","powerTime":"2019-11-15 16:20:14","powerComm":"已送电","subsNo":"","lineNo":"","tgNo":"","tgName":null,"infoStatus":"1","orgName":"国网浙江杭州市富阳区供电公司","typeName":null,"infoStatusName":null,"dateDay":null,"orgNos":null,"nowTime":null,"countyName":null,"streetName":null,"villageName":null,"roadName":null,"communityName":null,"tranName":null,"sdLineName":null,"cityCode":"3340170","cityName":"国网浙江杭州市富阳区供电公司","provinceCode":null,"stopTime":"2019-11-15 16:30:00","powerType":"全部","powerOffArea":"110kV新登变:南津D138线-桃花岭村1#桃花岭公变低压开关后段","powerOffReason":"(低压停电信息)照明01线、照明02线架设导线JKLYJ-120*4*4档、拆装JKLYJ-120*4*11档、更换落户线BS-JKLYJ-2*25*10户、BS-JKLYJ-4*35*100米、安装横担、拉线、拆除旧横担、拉线、导线搭接","powerOffId":"2019110131020175"},{"poweroffId":2019110131020174,"sgpoweroffId":null,"subsName":"","lineName":"10kV交通D364线","pubTranName":"秋丰村湖南山13号公变,","scope":"浙江省-杭州市-富阳区-富春街道-秋丰行政村-秋丰自然村","startTime":"2019-11-15 07:30:00","stopDate":"2019-11-15 16:50:00","orgNo":"3340170","typeCode":"计划停电","poweroffArea":"110kV富鹿变:交通D364线-秋丰村湖南山13号后段","poweroffReason":"(低压停电信息)青云2019年东山村4#桥头公变等低压台区改造工程更换落户线18处，搭接等工作","powerTime":"2019-11-15 16:40:06","powerComm":"已送电","subsNo":"","lineNo":"","tgNo":"","tgName":null,"infoStatus":"1","orgName":"国网浙江杭州市富阳区供电公司","typeName":null,"infoStatusName":null,"dateDay":null,"orgNos":null,"nowTime":null,"countyName":null,"streetName":null,"villageName":null,"roadName":null,"communityName":null,"tranName":null,"sdLineName":null,"cityCode":"3340170","cityName":"国网浙江杭州市富阳区供电公司","provinceCode":null,"stopTime":"2019-11-15 16:50:00","powerType":"全部","powerOffArea":"110kV富鹿变:交通D364线-秋丰村湖南山13号后段","powerOffReason":"(低压停电信息)青云2019年东山村4#桥头公变等低压台区改造工程更换落户线18处，搭接等工作","powerOffId":"2019110131020174"},{"poweroffId":2019110131020172,"sgpoweroffId":null,"subsName":"","lineName":"10kV秋丰D985线","pubTranName":"秋丰村石塔上3号公变,","scope":"浙江省-杭州市-富阳区-富春街道-秋丰行政村-秋丰自然村","startTime":"2019-11-14 07:30:00","stopDate":"2019-11-14 16:50:00","orgNo":"3340170","typeCode":"计划停电","poweroffArea":"110kV育才变:秋丰D985线-秋丰村石塔上后段","poweroffReason":"(低压停电信息)青云2019年东山村4#桥头公变等低压台区改造工程更换落户线24处，搭接等工作","powerTime":"2019-11-14 16:33:46","powerComm":"已送电","subsNo":"","lineNo":"","tgNo":"","tgName":null,"infoStatus":"1","orgName":"国网浙江杭州市富阳区供电公司","typeName":null,"infoStatusName":null,"dateDay":null,"orgNos":null,"nowTime":null,"countyName":null,"streetName":null,"villageName":null,"roadName":null,"communityName":null,"tranName":null,"sdLineName":null,"cityCode":"3340170","cityName":"国网浙江杭州市富阳区供电公司","provinceCode":null,"stopTime":"2019-11-14 16:50:00","powerType":"全部","powerOffArea":"110kV育才变:秋丰D985线-秋丰村石塔上后段","powerOffReason":"(低压停电信息)青云2019年东山村4#桥头公变等低压台区改造工程更换落户线24处，搭接等工作","powerOffId":"2019110131020172"}],"pageModel":{"pageNow":930,"totalCount":17789,"totalPage":1779,"tableRows":0,"pageCount":10,"beginCount":9290},"isExperi":"1"}