{"message":"","today":"2020-06-15","seleList":[{"poweroffId":2019110131020169,"sgpoweroffId":null,"subsName":"","lineName":"10kV灵桥D167线","pubTranName":"董家桥村董家桥2#桥西公变,","scope":"浙江省-杭州市-富阳区-灵桥镇-董家桥行政村-董家桥自然村一带","startTime":"2019-11-13 09:00:00","stopDate":"2019-11-13 12:00:00","orgNo":"3340170","typeCode":"计划停电","poweroffArea":"110kV大源变:灵桥D167线-董家桥村董家桥2号桥西1号开关后段","poweroffReason":"(低压停电信息)董家桥村董家2#桥西公变1#线3#杆计量装置张杜平表计移位工作","powerTime":"2019-11-13 11:45:07","powerComm":"已送电","subsNo":"","lineNo":"","tgNo":"","tgName":null,"infoStatus":"1","orgName":"国网浙江杭州市富阳区供电公司","typeName":null,"infoStatusName":null,"dateDay":null,"orgNos":null,"nowTime":null,"countyName":null,"streetName":null,"villageName":null,"roadName":null,"communityName":null,"tranName":null,"sdLineName":null,"cityCode":"3340170","cityName":"国网浙江杭州市富阳区供电公司","provinceCode":null,"stopTime":"2019-11-13 12:00:00","powerType":"全部","powerOffArea":"110kV大源变:灵桥D167线-董家桥村董家桥2号桥西1号开关后段","powerOffReason":"(低压停电信息)董家桥村董家2#桥西公变1#线3#杆计量装置张杜平表计移位工作","powerOffId":"2019110131020169"},{"poweroffId":2019110131020168,"sgpoweroffId":null,"subsName":"","lineName":"10kV滨北D369线","pubTranName":"周家弄1#公变,","scope":"浙江省-杭州市-富阳区-富春街道-鹳山社区(桂花路,大寺弄,后河西路,周家弄)一带","startTime":"2019-11-17 08:30:00","stopDate":"2019-11-17 16:30:00","orgNo":"3340170","typeCode":"计划停电","poweroffArea":"110kV富鹿变:滨北D369线-周家弄1#公变后段","poweroffReason":"(低压停电信息)富阳区精品街区二期（桂花路迁改）工程：周家弄1#公变2#开关低压出线线路改接等工作。 原停电结束时间为2019-11-13 16:30:00,因政策原因,现变更停电结束时间为2019-11-17 16:30:00","powerTime":"2019-11-17 16:18:23","powerComm":"已送电","subsNo":"","lineNo":"","tgNo":"","tgName":null,"infoStatus":"1","orgName":"国网浙江杭州市富阳区供电公司","typeName":null,"infoStatusName":null,"dateDay":null,"orgNos":null,"nowTime":null,"countyName":null,"streetName":null,"villageName":null,"roadName":null,"communityName":null,"tranName":null,"sdLineName":null,"cityCode":"3340170","cityName":"国网浙江杭州市富阳区供电公司","provinceCode":null,"stopTime":"2019-11-17 16:30:00","powerType":"全部","powerOffArea":"110kV富鹿变:滨北D369线-周家弄1#公变后段","powerOffReason":"(低压停电信息)富阳区精品街区二期（桂花路迁改）工程：周家弄1#公变2#开关低压出线线路改接等工作。 原停电结束时间为2019-11-13 16:30:00,因政策原因,现变更停电结束时间为2019-11-17 16:30:00","powerOffId":"2019110131020168"},{"poweroffId":2019110131020163,"sgpoweroffId":null,"subsName":"","lineName":"10kV万常G055线","pubTranName":"高地农居点3号公变,","scope":"浙江省-杭州市-余杭区-南苑街道-高地社区-高地","startTime":"2019-11-01 09:58:00","stopDate":"2019-11-01 11:11:00","orgNo":"3340140","typeCode":"电网故障停限电","poweroffArea":"110kV外乔变:万常G055线高地农居点3号公变配变","poweroffReason":"高压开关跳闸","powerTime":"2019-11-01 10:30:00","powerComm":"已送电","subsNo":"","lineNo":"","tgNo":"","tgName":null,"infoStatus":"1","orgName":"国网浙江杭州市余杭区供电有限公司","typeName":null,"infoStatusName":null,"dateDay":null,"orgNos":null,"nowTime":null,"countyName":null,"streetName":null,"villageName":null,"roadName":null,"communityName":null,"tranName":null,"sdLineName":null,"cityCode":"3340140","cityName":"国网浙江杭州市余杭区供电有限公司","provinceCode":null,"stopTime":"2019-11-01 11:11:00","powerType":"全部","powerOffArea":"110kV外乔变:万常G055线高地农居点3号公变配变","powerOffReason":"高压开关跳闸","powerOffId":"2019110131020163"},{"poweroffId":2019110131020160,"sgpoweroffId":null,"subsName":"","lineName":"10kV公平8608线","pubTranName":"慧南(五),慧南(七),","scope":"浙江省杭州市西湖区慧仁家园南区文慧苑1幢、2幢、4幢、5幢、7幢1单元、7幢2单元附近一带用户","startTime":"2019-11-13 09:00:00","stopDate":"2019-11-13 14:40:00","orgNo":"3340101","typeCode":"计划停电","poweroffArea":"110kV谢村变:公平8608线-慧南(七)后段;公平8608线-慧南(五)后段","poweroffReason":"慧南五站、慧南七站柜体更换等消缺工作 原停电结束时间为2019-11-13 17:00:00,为减少客户停电时间,加快工作进度,提前送电,现变更停电结束时间为2019-11-13 14:40:00","powerTime":"2019-11-13 13:54:59","powerComm":"已送电","subsNo":"","lineNo":"","tgNo":"","tgName":null,"infoStatus":"1","orgName":"浙江杭州电力客户服务中心","typeName":null,"infoStatusName":null,"dateDay":null,"orgNos":null,"nowTime":null,"countyName":null,"streetName":null,"villageName":null,"roadName":null,"communityName":null,"tranName":null,"sdLineName":null,"cityCode":"3340101","cityName":"浙江杭州电力客户服务中心","provinceCode":null,"stopTime":"2019-11-13 14:40:00","powerType":"全部","powerOffArea":"110kV谢村变:公平8608线-慧南(七)后段;公平8608线-慧南(五)后段","powerOffReason":"慧南五站、慧南七站柜体更换等消缺工作 原停电结束时间为2019-11-13 17:00:00,为减少客户停电时间,加快工作进度,提前送电,现变更停电结束时间为2019-11-13 14:40:00","powerOffId":"2019110131020160"},{"poweroffId":2019110131020158,"sgpoweroffId":null,"subsName":"","lineName":"10kV秋丰D985线","pubTranName":"秋丰村石塔上2号公变,","scope":"浙江省-杭州市-富阳区-富春街道-秋丰行政村-秋丰自然村","startTime":"2019-11-13 07:30:00","stopDate":"2019-11-13 16:50:00","orgNo":"3340170","typeCode":"计划停电","poweroffArea":"110kV育才变:秋丰D985线-秋丰村石塔上后段","poweroffReason":"(低压停电信息)青云2019年东山村4#桥头公变等低压台区改造工程更换落户线25处，搭接等工作","powerTime":"2019-11-13 16:35:10","powerComm":"已送电","subsNo":"","lineNo":"","tgNo":"","tgName":null,"infoStatus":"1","orgName":"国网浙江杭州市富阳区供电公司","typeName":null,"infoStatusName":null,"dateDay":null,"orgNos":null,"nowTime":null,"countyName":null,"streetName":null,"villageName":null,"roadName":null,"communityName":null,"tranName":null,"sdLineName":null,"cityCode":"3340170","cityName":"国网浙江杭州市富阳区供电公司","provinceCode":null,"stopTime":"2019-11-13 16:50:00","powerType":"全部","powerOffArea":"110kV育才变:秋丰D985线-秋丰村石塔上后段","powerOffReason":"(低压停电信息)青云2019年东山村4#桥头公变等低压台区改造工程更换落户线25处，搭接等工作","powerOffId":"2019110131020158"},{"poweroffId":2019110131020157,"sgpoweroffId":null,"subsName":"","lineName":"10kV盛村D266线","pubTranName":"深里村9号新塘头公变,","scope":"浙江省-杭州市-富阳区-上官乡-深里行政村-深里自然村一带","startTime":"2019-11-12 08:30:00","stopDate":"2019-11-12 13:30:00","orgNo":"3340170","typeCode":"计划停电","poweroffArea":"35kV盛村变:盛村D266线-深里村9号新塘头公变后段","poweroffReason":"(低压停电信息)场口2019年10kV常绿D268线黄弹分线线路改造工程：配合盛村D266线30#杆后段停电工作。","powerTime":"2019-11-12 12:59:55","powerComm":"已送电","subsNo":"","lineNo":"","tgNo":"","tgName":null,"infoStatus":"1","orgName":"国网浙江杭州市富阳区供电公司","typeName":null,"infoStatusName":null,"dateDay":null,"orgNos":null,"nowTime":null,"countyName":null,"streetName":null,"villageName":null,"roadName":null,"communityName":null,"tranName":null,"sdLineName":null,"cityCode":"3340170","cityName":"国网浙江杭州市富阳区供电公司","provinceCode":null,"stopTime":"2019-11-12 13:30:00","powerType":"全部","powerOffArea":"35kV盛村变:盛村D266线-深里村9号新塘头公变后段","powerOffReason":"(低压停电信息)场口2019年10kV常绿D268线黄弹分线线路改造工程：配合盛村D266线30#杆后段停电工作。","powerOffId":"2019110131020157"},{"poweroffId":2019110131020154,"sgpoweroffId":null,"subsName":"","lineName":"10kV交通D364线","pubTranName":"秋丰村57号湖南山公变,","scope":"浙江省-杭州市-富阳区-富春街道-秋丰行政村-秋丰自然村","startTime":"2019-11-12 07:30:00","stopDate":"2019-11-12 16:50:00","orgNo":"3340170","typeCode":"计划停电","poweroffArea":"110kV富鹿变:交通D364线-秋丰村57号湖南山后段","poweroffReason":"(低压停电信息)青云2019年东山村4#桥头公变等低压台区改造工程更换落户线19处，搭接等工作","powerTime":"2019-11-12 16:22:05","powerComm":"已送电","subsNo":"","lineNo":"","tgNo":"","tgName":null,"infoStatus":"1","orgName":"国网浙江杭州市富阳区供电公司","typeName":null,"infoStatusName":null,"dateDay":null,"orgNos":null,"nowTime":null,"countyName":null,"streetName":null,"villageName":null,"roadName":null,"communityName":null,"tranName":null,"sdLineName":null,"cityCode":"3340170","cityName":"国网浙江杭州市富阳区供电公司","provinceCode":null,"stopTime":"2019-11-12 16:50:00","powerType":"全部","powerOffArea":"110kV富鹿变:交通D364线-秋丰村57号湖南山后段","powerOffReason":"(低压停电信息)青云2019年东山村4#桥头公变等低压台区改造工程更换落户线19处，搭接等工作","powerOffId":"2019110131020154"},{"poweroffId":2019110131020152,"sgpoweroffId":null,"subsName":"","lineName":"10kV交通D364线","pubTranName":"秋丰村11#湖南山2公变,","scope":"浙江省-杭州市-富阳区-富春街道-秋丰行政村-秋丰自然村","startTime":"2019-11-11 07:30:00","stopDate":"2019-11-11 16:50:00","orgNo":"3340170","typeCode":"计划停电","poweroffArea":"110kV富鹿变:交通D364线-秋丰村11#湖南山后段","poweroffReason":"(低压停电信息)青云2019年东山村4#桥头公变等低压台区改造工程拆旧，架设1kV120*4*1档，更换落户线26处，搭接等工作","powerTime":"2019-11-11 16:41:40","powerComm":"已送电","subsNo":"","lineNo":"","tgNo":"","tgName":null,"infoStatus":"1","orgName":"国网浙江杭州市富阳区供电公司","typeName":null,"infoStatusName":null,"dateDay":null,"orgNos":null,"nowTime":null,"countyName":null,"streetName":null,"villageName":null,"roadName":null,"communityName":null,"tranName":null,"sdLineName":null,"cityCode":"3340170","cityName":"国网浙江杭州市富阳区供电公司","provinceCode":null,"stopTime":"2019-11-11 16:50:00","powerType":"全部","powerOffArea":"110kV富鹿变:交通D364线-秋丰村11#湖南山后段","powerOffReason":"(低压停电信息)青云2019年东山村4#桥头公变等低压台区改造工程拆旧，架设1kV120*4*1档，更换落户线26处，搭接等工作","powerOffId":"2019110131020152"},{"poweroffId":2019110131020132,"sgpoweroffId":null,"subsName":"","lineName":"10kV幼小9166线","pubTranName":"沈家移动,沈家弄五,","scope":"浙江省杭州市西湖区沈家弄村沈家弄支路西南侧至唐家山脚附近一带用户","startTime":"2019-11-12 09:30:00","stopDate":"2019-11-12 14:40:00","orgNo":"3340101","typeCode":"计划停电","poweroffArea":"110kV象山变:幼小9166线-沈家移动后段;幼小9166线-沈家弄五后段","poweroffReason":"横桥站沈家弄一分线树线矛盾消缺等工作 原停电结束时间为2019-11-12 17:00:00,为减少客户停电时间,加快工作进度,提前送电,现变更停电结束时间为2019-11-12 14:40:00","powerTime":"2019-11-12 13:53:59","powerComm":"已送电","subsNo":"","lineNo":"","tgNo":"","tgName":null,"infoStatus":"1","orgName":"浙江杭州电力客户服务中心","typeName":null,"infoStatusName":null,"dateDay":null,"orgNos":null,"nowTime":null,"countyName":null,"streetName":null,"villageName":null,"roadName":null,"communityName":null,"tranName":null,"sdLineName":null,"cityCode":"3340101","cityName":"浙江杭州电力客户服务中心","provinceCode":null,"stopTime":"2019-11-12 14:40:00","powerType":"全部","powerOffArea":"110kV象山变:幼小9166线-沈家移动后段;幼小9166线-沈家弄五后段","powerOffReason":"横桥站沈家弄一分线树线矛盾消缺等工作 原停电结束时间为2019-11-12 17:00:00,为减少客户停电时间,加快工作进度,提前送电,现变更停电结束时间为2019-11-12 14:40:00","powerOffId":"2019110131020132"},{"poweroffId":2019110131020099,"sgpoweroffId":null,"subsName":"","lineName":"10kV农校H413线","pubTranName":"良渚村沈家门公变,","scope":"浙江省-杭州市-余杭区-良渚街道-良渚村沈家门一带","startTime":"2019-11-15 08:30:00","stopDate":"2019-11-15 11:30:00","orgNo":"3340140","typeCode":"计划停电","poweroffArea":"35kV良渚变:农校H413线-良渚村沈家门公变","poweroffReason":"(低压停电信息)农校H413线良渚村沈家门公变线路消缺 原停电结束时间为2019-11-15 13:10:00,为减少客户停电时间,加快工作进度,提前送电,现变更停电结束时间为2019-11-15 11:30:00","powerTime":"2019-11-15 11:09:00","powerComm":"已送电","subsNo":"","lineNo":"","tgNo":"","tgName":null,"infoStatus":"1","orgName":"国网浙江杭州市余杭区供电有限公司","typeName":null,"infoStatusName":null,"dateDay":null,"orgNos":null,"nowTime":null,"countyName":null,"streetName":null,"villageName":null,"roadName":null,"communityName":null,"tranName":null,"sdLineName":null,"cityCode":"3340140","cityName":"国网浙江杭州市余杭区供电有限公司","provinceCode":null,"stopTime":"2019-11-15 11:30:00","powerType":"全部","powerOffArea":"35kV良渚变:农校H413线-良渚村沈家门公变","powerOffReason":"(低压停电信息)农校H413线良渚村沈家门公变线路消缺 原停电结束时间为2019-11-15 13:10:00,为减少客户停电时间,加快工作进度,提前送电,现变更停电结束时间为2019-11-15 11:30:00","powerOffId":"2019110131020099"}],"pageModel":{"pageNow":931,"totalCount":17789,"totalPage":1779,"tableRows":0,"pageCount":10,"beginCount":9300},"isExperi":"1"}