{"message":"","today":"2020-06-15","seleList":[{"poweroffId":2019103131020192,"sgpoweroffId":null,"subsName":"","lineName":"10kV钱农C681线","pubTranName":"同兴村3#变,","scope":"浙江省-杭州市-萧山区-新街镇-新街街道-同兴行政村-同兴自然村、同兴村9组、浙江省杭州市萧山区新街街道同兴行政村同兴自然村9组、浙江省杭州市萧山区新街街道同兴行政村同兴自然村9组599号、盛中行政村-盛中自然村,新街街道-同兴行政村(同兴自然村,海塘路)、同兴行政村(杭州宝兴钢管租赁有限公司,杭州凯佳花边有限公司,杭州保斯特自行车制造有限公司,杭州永星塑料包装有限公司),新街街道(盛东行政村-杭州萧山住宅钢窗厂,长山头行政村-杭州弹簧垫圈有限公司)等一带","startTime":"2019-10-31 19:18:14","stopDate":"2019-10-31 22:55:14","orgNo":"3340130","typeCode":"电网故障停限电","poweroffArea":"110kV新街变:钱农C681线-同兴3#变台区低压开关","poweroffReason":"(低压停电信息)低压漏电保护器短路故障 原停电结束时间：2019-10-31 23:59:14，变更停电结束时间：2019-10-31 22:55:14，由于增派人员，抢修工作提前完成，故需要提前送电。","powerTime":"2019-10-31 22:01:58","powerComm":"已送电","subsNo":"","lineNo":"","tgNo":"","tgName":null,"infoStatus":"1","orgName":"国网浙江杭州市萧山区供电有限公司","typeName":null,"infoStatusName":null,"dateDay":null,"orgNos":null,"nowTime":null,"countyName":null,"streetName":null,"villageName":null,"roadName":null,"communityName":null,"tranName":null,"sdLineName":null,"cityCode":"3340130","cityName":"国网浙江杭州市萧山区供电有限公司","provinceCode":null,"stopTime":"2019-10-31 22:55:14","powerType":"全部","powerOffArea":"110kV新街变:钱农C681线-同兴3#变台区低压开关","powerOffReason":"(低压停电信息)低压漏电保护器短路故障 原停电结束时间：2019-10-31 23:59:14，变更停电结束时间：2019-10-31 22:55:14，由于增派人员，抢修工作提前完成，故需要提前送电。","powerOffId":"2019103131020192"},{"poweroffId":2019103131020179,"sgpoweroffId":null,"subsName":"","lineName":"10kV西园R118线","pubTranName":"明珠花园5#公变,明珠花园6#公变,","scope":"浙江省-杭州市-淳安县-千岛湖镇-望湖社区-新安东路","startTime":"2019-11-01 08:00:00","stopDate":"2019-11-01 11:00:00","orgNo":"3340190","typeCode":"临时停电","poweroffArea":"110kV淳安变:西园R118线-明珠5-6号公变0293负荷开关后段","poweroffReason":"明珠花园5号6号公变终端更换 原停电结束时间为2019-11-01 10:00:00,因XXX原因,现变更停电结束时间为2019-11-01 11:00:00","powerTime":"2019-11-01 10:56:37","powerComm":"已送电","subsNo":"","lineNo":"","tgNo":"","tgName":null,"infoStatus":"1","orgName":"国网浙江淳安县供电有限公司","typeName":null,"infoStatusName":null,"dateDay":null,"orgNos":null,"nowTime":null,"countyName":null,"streetName":null,"villageName":null,"roadName":null,"communityName":null,"tranName":null,"sdLineName":null,"cityCode":"3340190","cityName":"国网浙江淳安县供电有限公司","provinceCode":null,"stopTime":"2019-11-01 11:00:00","powerType":"全部","powerOffArea":"110kV淳安变:西园R118线-明珠5-6号公变0293负荷开关后段","powerOffReason":"明珠花园5号6号公变终端更换 原停电结束时间为2019-11-01 10:00:00,因XXX原因,现变更停电结束时间为2019-11-01 11:00:00","powerOffId":"2019103131020179"},{"poweroffId":2019103131020178,"sgpoweroffId":null,"subsName":"","lineName":"10kV竹园H712线","pubTranName":"竹园村树弄公变,","scope":"浙江省-杭州市-余杭区-余杭街道-竹园行政村-竹园自然村","startTime":"2019-10-31 16:50:00","stopDate":"2019-10-31 18:00:00","orgNo":"3340140","typeCode":"电网故障停限电","poweroffArea":"110kV余杭变:竹园H712线-竹园村树弄公变后段","poweroffReason":"高压开关跳闸","powerTime":"2019-10-31 17:50:00","powerComm":"已送电","subsNo":"","lineNo":"","tgNo":"","tgName":null,"infoStatus":"1","orgName":"国网浙江杭州市余杭区供电有限公司","typeName":null,"infoStatusName":null,"dateDay":null,"orgNos":null,"nowTime":null,"countyName":null,"streetName":null,"villageName":null,"roadName":null,"communityName":null,"tranName":null,"sdLineName":null,"cityCode":"3340140","cityName":"国网浙江杭州市余杭区供电有限公司","provinceCode":null,"stopTime":"2019-10-31 18:00:00","powerType":"全部","powerOffArea":"110kV余杭变:竹园H712线-竹园村树弄公变后段","powerOffReason":"高压开关跳闸","powerOffId":"2019103131020178"},{"poweroffId":2019103131020166,"sgpoweroffId":null,"subsName":"","lineName":"10kV越三A019线","pubTranName":"金色钱塘10#公变,金色钱塘15#公变,变压器,金色钱塘9#公变,金色钱塘12#公变,变压器,金色钱塘8#公变,金色钱塘14#公变,金色钱塘13#公变,金色钱塘11#公变,浙江金帝物业服务有限公司2#,浙江金帝物业服务有限公司5,","scope":"浙江省-杭州市-萧山区-北干街道-金风社区-风情大道;北干街道-金风社区(浙江金帝物业服务有限公司,广东中奥物业管理有限公司萧山分公司)","startTime":"2019-11-14 08:30:00","stopDate":"2019-11-14 13:30:00","orgNo":"3340130","typeCode":"计划停电","poweroffArea":"110kV越王变:越三A006线-越钱分线后段","poweroffReason":"越钱开G13迁改至新越钱开G12间隔，电缆敷设试验搭接","powerTime":"2019-11-14 12:31:19","powerComm":"已送电","subsNo":"","lineNo":"","tgNo":"","tgName":null,"infoStatus":"1","orgName":"国网浙江杭州市萧山区供电有限公司","typeName":null,"infoStatusName":null,"dateDay":null,"orgNos":null,"nowTime":null,"countyName":null,"streetName":null,"villageName":null,"roadName":null,"communityName":null,"tranName":null,"sdLineName":null,"cityCode":"3340130","cityName":"国网浙江杭州市萧山区供电有限公司","provinceCode":null,"stopTime":"2019-11-14 13:30:00","powerType":"全部","powerOffArea":"110kV越王变:越三A006线-越钱分线后段","powerOffReason":"越钱开G13迁改至新越钱开G12间隔，电缆敷设试验搭接","powerOffId":"2019103131020166"},{"poweroffId":2019103131020143,"sgpoweroffId":null,"subsName":"","lineName":"10kV龙虎C704线","pubTranName":"永利村6#变,","scope":"浙江省-杭州市-萧山区-南阳街道-永利行政村-永利自然村","startTime":"2019-11-09 09:30:00","stopDate":"2019-11-09 15:05:00","orgNo":"3340130","typeCode":"计划停电","poweroffArea":"35kV赭山变:龙虎C704线-永利村6#变跌落式熔断器后段","poweroffReason":"龙虎C704线61#-61/04#杆线路上改下（需带电作业配合） 原停电结束时间为2019-11-09 17:30:00,为减少客户停电时间,加快工作进度,提前送电,现变更停电结束时间为2019-11-09 15:05:00","powerTime":"2019-11-09 14:13:08","powerComm":"已送电","subsNo":"","lineNo":"","tgNo":"","tgName":null,"infoStatus":"1","orgName":"国网浙江杭州市萧山区供电有限公司","typeName":null,"infoStatusName":null,"dateDay":null,"orgNos":null,"nowTime":null,"countyName":null,"streetName":null,"villageName":null,"roadName":null,"communityName":null,"tranName":null,"sdLineName":null,"cityCode":"3340130","cityName":"国网浙江杭州市萧山区供电有限公司","provinceCode":null,"stopTime":"2019-11-09 15:05:00","powerType":"全部","powerOffArea":"35kV赭山变:龙虎C704线-永利村6#变跌落式熔断器后段","powerOffReason":"龙虎C704线61#-61/04#杆线路上改下（需带电作业配合） 原停电结束时间为2019-11-09 17:30:00,为减少客户停电时间,加快工作进度,提前送电,现变更停电结束时间为2019-11-09 15:05:00","powerOffId":"2019103131020143"},{"poweroffId":2019103131020142,"sgpoweroffId":null,"subsName":"","lineName":"10kV团结A471线","pubTranName":"曙光村16#变,","scope":"浙江省-杭州市-萧山区-党湾镇-曙光行政村-曙光自然村","startTime":"2019-11-08 08:30:00","stopDate":"2019-11-08 16:30:00","orgNo":"3340130","typeCode":"计划停电","poweroffArea":"110kV幸福变:团结A471线-曙光村16#变后段","poweroffReason":"团结A471线48/59/01#杆曙光村14#变台区移位至48/59#杆，拔9m/1支、12m/1支，拆线1档，更换跌落式保险器开关1套、低压综合配电柜1台","powerTime":"2019-11-08 15:34:20","powerComm":"已送电","subsNo":"","lineNo":"","tgNo":"","tgName":null,"infoStatus":"1","orgName":"国网浙江杭州市萧山区供电有限公司","typeName":null,"infoStatusName":null,"dateDay":null,"orgNos":null,"nowTime":null,"countyName":null,"streetName":null,"villageName":null,"roadName":null,"communityName":null,"tranName":null,"sdLineName":null,"cityCode":"3340130","cityName":"国网浙江杭州市萧山区供电有限公司","provinceCode":null,"stopTime":"2019-11-08 16:30:00","powerType":"全部","powerOffArea":"110kV幸福变:团结A471线-曙光村16#变后段","powerOffReason":"团结A471线48/59/01#杆曙光村14#变台区移位至48/59#杆，拔9m/1支、12m/1支，拆线1档，更换跌落式保险器开关1套、低压综合配电柜1台","powerOffId":"2019103131020142"},{"poweroffId":2019103131020141,"sgpoweroffId":null,"subsName":"","lineName":"10kV顺和C929线","pubTranName":"党山村5#变,","scope":"浙江省-杭州市-萧山区-瓜沥镇-党山行政村(王三房自然村,里湖弄,南大房自然村,里湖横路,党山自然村),瓜沥镇-南大房社区(王三房自然村,南大房自然村,里湖弄自然村)","startTime":"2019-11-08 08:00:00","stopDate":"2019-11-08 16:00:00","orgNo":"3340130","typeCode":"计划停电","poweroffArea":"110kV党山变:顺和C929线-党山村5#变后段","poweroffReason":"党山村5#变架线、接户、装表、拆旧","powerTime":"2019-11-08 15:41:06","powerComm":"已送电","subsNo":"","lineNo":"","tgNo":"","tgName":null,"infoStatus":"1","orgName":"国网浙江杭州市萧山区供电有限公司","typeName":null,"infoStatusName":null,"dateDay":null,"orgNos":null,"nowTime":null,"countyName":null,"streetName":null,"villageName":null,"roadName":null,"communityName":null,"tranName":null,"sdLineName":null,"cityCode":"3340130","cityName":"国网浙江杭州市萧山区供电有限公司","provinceCode":null,"stopTime":"2019-11-08 16:00:00","powerType":"全部","powerOffArea":"110kV党山变:顺和C929线-党山村5#变后段","powerOffReason":"党山村5#变架线、接户、装表、拆旧","powerOffId":"2019103131020141"},{"poweroffId":2019103131020132,"sgpoweroffId":null,"subsName":"","lineName":"10kV三鑫G063线","pubTranName":"乔司6组2号公变,顺龙投资,","scope":"浙江省-杭州市-余杭区-乔司街道-乔司社区(乔莫西路,北街);浙江省-杭州市-余杭区-乔司街道-乔司行政村-杭州顺龙置业有限公司","startTime":"2019-10-31 14:50:00","stopDate":"2019-10-31 16:00:00","orgNo":"3340140","typeCode":"电网故障停限电","poweroffArea":"110kV外乔变:三鑫G063线-顺龙分支箱分线后段","poweroffReason":"高压开关跳闸","powerTime":"2019-10-31 15:38:00","powerComm":"已送电","subsNo":"","lineNo":"","tgNo":"","tgName":null,"infoStatus":"1","orgName":"国网浙江杭州市余杭区供电有限公司","typeName":null,"infoStatusName":null,"dateDay":null,"orgNos":null,"nowTime":null,"countyName":null,"streetName":null,"villageName":null,"roadName":null,"communityName":null,"tranName":null,"sdLineName":null,"cityCode":"3340140","cityName":"国网浙江杭州市余杭区供电有限公司","provinceCode":null,"stopTime":"2019-10-31 16:00:00","powerType":"全部","powerOffArea":"110kV外乔变:三鑫G063线-顺龙分支箱分线后段","powerOffReason":"高压开关跳闸","powerOffId":"2019103131020132"},{"poweroffId":2019103131020117,"sgpoweroffId":null,"subsName":"","lineName":"10kV新华A662线","pubTranName":"明辉花园2#公变,明辉花园1#公变,新华村3#变,新华村31#变,萧山新世纪市场园区开发有限公司,原野汽配,原野汽配,建材市场5#,建材市场2#,建材市场1#,明辉花园7#公变,汽车市场1#,康达汽车,广元,建材市场4#,明辉花园4#公变,明辉花园5#公变,原野汽配,汽车市场3#,明辉花园6#公变,明辉花园3#公变,1#主变,新华村24#变,原野汽配,市政园林18#,汽车市场2#,建材市场3#,","scope":"浙江省-杭州市-萧山区-宁围镇-宁围街道-新华行政村(新华自然村,建设四路);浙江省-杭州市-萧山区-经济技术开发区-市北社区-浙江世纪建材装饰市场管理有限公司,宁围街道-新华行政村(杭州萧山新世纪市场园区开发有限公司,杭州萧山江宁汽车轴承保持器厂,杭州广元汽车有限公司,浙江江铃汽车销售服务有限公司萧山分公司,杭州市萧山区市政绿化养护保障中心,杭州原野汽配五金市场有限公司)、浙江省杭州市萧山区宁围镇明辉花园、浙江省杭州市萧山区宁围街道新华行政村、浙江省杭州市萧山区汽车城（新华村对面）、浙江省杭州市萧山区通惠北路原野汽配城等一带","startTime":"2019-10-31 13:51:58","stopDate":"2019-11-01 07:18:58","orgNo":"3340130","typeCode":"电网故障停限电","poweroffArea":"110kV东霖变:新华A662线-新华A662线开关后段","poweroffReason":"高压柱上断路器短路故障 原停电结束时间：2019-11-01 09:34:58，变更停电结束时间：2019-11-01 07:18:58，由于增派人员，抢修工作提前完成，故需要提前送电。","powerTime":"2019-11-01 06:31:06","powerComm":"已送电","subsNo":"","lineNo":"","tgNo":"","tgName":null,"infoStatus":"1","orgName":"国网浙江杭州市萧山区供电有限公司","typeName":null,"infoStatusName":null,"dateDay":null,"orgNos":null,"nowTime":null,"countyName":null,"streetName":null,"villageName":null,"roadName":null,"communityName":null,"tranName":null,"sdLineName":null,"cityCode":"3340130","cityName":"国网浙江杭州市萧山区供电有限公司","provinceCode":null,"stopTime":"2019-11-01 07:18:58","powerType":"全部","powerOffArea":"110kV东霖变:新华A662线-新华A662线开关后段","powerOffReason":"高压柱上断路器短路故障 原停电结束时间：2019-11-01 09:34:58，变更停电结束时间：2019-11-01 07:18:58，由于增派人员，抢修工作提前完成，故需要提前送电。","powerOffId":"2019103131020117"},{"poweroffId":2019103131020111,"sgpoweroffId":null,"subsName":"","lineName":"10kV陶春H558线","pubTranName":"前溪村前溪公变,","scope":"浙江省-杭州市-余杭区-径山镇-径山行政村-径山自然村,径山镇-前溪行政村(袁家桥自然村,前上自然村,姜吴自然村,前溪自然村)","startTime":"2019-10-31 14:00:00","stopDate":"2019-10-31 16:00:00","orgNo":"3340140","typeCode":"电网故障停限电","poweroffArea":"110kV潘板变:陶春H558线-前溪村前溪公变后段","poweroffReason":"高压开关跳闸","powerTime":"2019-10-31 15:48:00","powerComm":"已送电","subsNo":"","lineNo":"","tgNo":"","tgName":null,"infoStatus":"1","orgName":"国网浙江杭州市余杭区供电有限公司","typeName":null,"infoStatusName":null,"dateDay":null,"orgNos":null,"nowTime":null,"countyName":null,"streetName":null,"villageName":null,"roadName":null,"communityName":null,"tranName":null,"sdLineName":null,"cityCode":"3340140","cityName":"国网浙江杭州市余杭区供电有限公司","provinceCode":null,"stopTime":"2019-10-31 16:00:00","powerType":"全部","powerOffArea":"110kV潘板变:陶春H558线-前溪村前溪公变后段","powerOffReason":"高压开关跳闸","powerOffId":"2019103131020111"}],"pageModel":{"pageNow":933,"totalCount":17789,"totalPage":1779,"tableRows":0,"pageCount":10,"beginCount":9320},"isExperi":"1"}