{"message":"","today":"2020-06-16","seleList":[{"poweroffId":2019103031020072,"sgpoweroffId":null,"subsName":"","lineName":"10kV左邻9107线","pubTranName":"亿龙(1)(2)2#,印象(一),印象(十三),印象(二十一),九院(九),右舍(一),洲芳(五),九院(五),洲芳(三),印象(三),九院(十一),城市基础(1)(2)2,印象(十七),亿龙置业1#,右舍(三),印象(九),印象(十五),洲芳(一),九院(一),印象(十一),洲芳(七),右舍(七),右舍(五),公交,九院(七),印象(七),印象(五),印象(十九),九院(三),","scope":"浙江省-杭州市-江干区-九堡镇-红苹果社区(仁爱路,杭乔路,九乔街,九月庭院小区,泊林印象公寓小区),九堡镇-兴安社区(金堡街18号,金堡街,左邻右舍小区,九洲芳园),九堡街道-牛田社区-九环路与九源路交叉口,九堡镇-九堡村社区-杭海路;浙江省-杭州市-江干区-下沙街道-下沙社区-杭州国美物业管理有限公司,九堡镇-九堡社区(杭州市公共交通集团有限公司,杭州市市政设施发展中心)","startTime":"2019-10-30 09:33:27","stopDate":"2019-10-30 10:53:27","orgNo":"3340101","typeCode":"电网故障停限电","poweroffArea":"110kV蚕桑变:左邻9107线","poweroffReason":"高压开关跳闸 原停电结束时间为2019-10-30 13:33:27,为减少客户停电时间,加快工作进度,提前送电,现变更停电结束时间为2019-10-30 10:53:27","powerTime":"2019-10-30 10:04:25","powerComm":"已送电","subsNo":"","lineNo":"","tgNo":"","tgName":null,"infoStatus":"1","orgName":"浙江杭州电力客户服务中心","typeName":null,"infoStatusName":null,"dateDay":null,"orgNos":null,"nowTime":null,"countyName":null,"streetName":null,"villageName":null,"roadName":null,"communityName":null,"tranName":null,"sdLineName":null,"cityCode":"3340101","cityName":"浙江杭州电力客户服务中心","provinceCode":null,"stopTime":"2019-10-30 10:53:27","powerType":"全部","powerOffArea":"110kV蚕桑变:左邻9107线","powerOffReason":"高压开关跳闸 原停电结束时间为2019-10-30 13:33:27,为减少客户停电时间,加快工作进度,提前送电,现变更停电结束时间为2019-10-30 10:53:27","powerOffId":"2019103031020072"},{"poweroffId":2019103031020063,"sgpoweroffId":null,"subsName":"","lineName":"10kV金苑D808线","pubTranName":"农民城2#公变,杭州市富阳区渔山乡大葛村股份经济合作社 1#变,富阳市渔山乡大葛村经济合作社,香溢1#公变,杭州富阳金诚房地产开发有限公司2#变,杭州富阳金诚房地产开发有限公司4#变,文雅6号公变,香溢6#公变,杭州富阳公共交通有限公司1#变,文雅7号公变,文雅3号公变,富阳市工贸资产经营投资集团有限公司,杭州嘉汇建设有限公司1#,文雅5号公变,杭州市富阳区渔山乡大葛村股份经济合作社 2#变,文雅1号公变,杭州景帆置业有限公司1#变,富阳市路灯安装维修管理所柱上变压器,杭州富阳金诚房地产开发有限公司3#变,杭州嘉汇建设有限公司2#,香溢4#公变,香溢5#公变,泰源房产1#公变,富阳市工贸资产经营投资集团有限公司,富阳市渔山乡大葛村经济合作社,杭州富阳城建集团城市基础设施建设有限公司1#变,文雅4号公变,香溢3#公变,杭州富阳金诚房地产开发有限公司1#变,1#变压器,杭州富阳中庆房地产发展有限公司 生活区1#变,杭州景帆置业有限公司1#变,文雅2号公变,香溢2#公变,","scope":"浙江省-杭州市-富阳区-富春街道-金桥社区(金苑路,金城路,金平路,横凉亭路,文居街681号,金浦路,文居街,永兴路),富春街道-金秋社区(金苑路,永兴路);富春街道(杭州富阳城市照明工程有限公司,杭州景帆置业有限公司,杭州富阳中庆房地产发展有限公司,杭州市富阳公共交通有限公司,杭州富阳城建集团城市基础设施建设有限公司,杭州富阳金诚房地产开发有限公司,)","startTime":"2019-10-30 09:06:00","stopDate":"2019-10-30 11:06:00","orgNo":"3340170","typeCode":"电网故障停限电","poweroffArea":"110kV容大变:金苑D808线金苑D8081开关后段","poweroffReason":"高压开关跳闸","powerTime":"2019-10-30 10:11:04","powerComm":"已送电","subsNo":"","lineNo":"","tgNo":"","tgName":null,"infoStatus":"1","orgName":"国网浙江杭州市富阳区供电公司","typeName":null,"infoStatusName":null,"dateDay":null,"orgNos":null,"nowTime":null,"countyName":null,"streetName":null,"villageName":null,"roadName":null,"communityName":null,"tranName":null,"sdLineName":null,"cityCode":"3340170","cityName":"国网浙江杭州市富阳区供电公司","provinceCode":null,"stopTime":"2019-10-30 11:06:00","powerType":"全部","powerOffArea":"110kV容大变:金苑D808线金苑D8081开关后段","powerOffReason":"高压开关跳闸","powerOffId":"2019103031020063"},{"poweroffId":2019103031020061,"sgpoweroffId":null,"subsName":"","lineName":"10kV西站D823线","pubTranName":"三根桥9号公变,浙江水和建设有限公司1#变,中信1#公变,幸福家园3#公变,秋丰村上俞墩4#公变,幸福家园2#公变,三根桥10号公变,2#基建变,富阳市行政服务中心1#变,秋丰村21#上俞墩3公变,杭州富阳中庆房地产发展有限公司3#基建变,杭州富阳金诚房地产开发有限公司2#基建变,浙江龙大地产有限公司1#,金桥村14#三根桥2公变,幸福家园1#公变,三根桥6#公变1,富阳市行政服务中心2#变,杭州富阳中庆房地产发展有限公司1#变,杭州富阳金诚房地产开发有限公司1#基建变,中医骨伤科医院2#变,国信1#公变,三根桥8号公变,三根桥4#公变,金桥村7#章家庙公变,富阳瑞宸房地产有限公司,秋丰村12号上俞墩公变,幸福家园4#公变,2#变压器,三根桥7号公变,金桥村21#三根桥3公变,富阳瑞宸房地产有限公司1,浙江奔腾市政园林建设工程有限公司三根桥1#基建变,幸福家园5#公变,杭州富阳中庆房地产发展有限公司1#变,幸福家园6#公变,三根桥5#公变,金桥村9号三根桥公变,1#,","scope":"浙江省-杭州市-富阳区-富春街道-秋丰行政村-秋丰自然村,富春街道-金桥社区(横凉亭路,金苑路,金城路,金浦路,金平路,凤浦西路),富春街道-金秋社区(文居街,凤浦西路,凤浦路,永兴路,公望街,凤浦路358号,金苑路,三根桥6幢13号);富春街道(杭州富阳中庆房地产发展有限公司,浙江奔腾市政园林建设工程有限公司,浙江水和建设有限公司,杭州市富阳中医骨伤医院,杭州景帆置业有限公司,杭州市富阳区农业农村局)","startTime":"2019-10-30 09:04:00","stopDate":"2019-10-30 11:04:00","orgNo":"3340170","typeCode":"电网故障停限电","poweroffArea":"110kV容大变:西站D823线西站D8231开关后段","poweroffReason":"高压开关跳闸","powerTime":"2019-10-30 10:10:47","powerComm":"已送电","subsNo":"","lineNo":"","tgNo":"","tgName":null,"infoStatus":"1","orgName":"国网浙江杭州市富阳区供电公司","typeName":null,"infoStatusName":null,"dateDay":null,"orgNos":null,"nowTime":null,"countyName":null,"streetName":null,"villageName":null,"roadName":null,"communityName":null,"tranName":null,"sdLineName":null,"cityCode":"3340170","cityName":"国网浙江杭州市富阳区供电公司","provinceCode":null,"stopTime":"2019-10-30 11:04:00","powerType":"全部","powerOffArea":"110kV容大变:西站D823线西站D8231开关后段","powerOffReason":"高压开关跳闸","powerOffId":"2019103031020061"},{"poweroffId":2019103031020042,"sgpoweroffId":null,"subsName":"","lineName":"10kV东湖G170线","pubTranName":"振兴东路,同得仕400,浙江华励时装有限公司（华明时装（二））,华励服装（二）,理工科技,恒博标牌厂,同得仕（二）,","scope":"浙江省-杭州市-余杭区-东湖街道(杭州恒博标牌有限公司,杭州茵锦科技有限公司,浙江理工科技发展有限公司,同得仕（杭州）时装有限公司)","startTime":"2019-10-30 08:19:00","stopDate":"2019-10-30 10:07:00","orgNo":"3340140","typeCode":"电网故障停限电","poweroffArea":"110kV丘山变:东湖G170线樱花分线开关后段","poweroffReason":"高压开关跳闸","powerTime":"2019-10-30 09:09:25","powerComm":"已送电","subsNo":"","lineNo":"","tgNo":"","tgName":null,"infoStatus":"1","orgName":"国网浙江杭州市余杭区供电有限公司","typeName":null,"infoStatusName":null,"dateDay":null,"orgNos":null,"nowTime":null,"countyName":null,"streetName":null,"villageName":null,"roadName":null,"communityName":null,"tranName":null,"sdLineName":null,"cityCode":"3340140","cityName":"国网浙江杭州市余杭区供电有限公司","provinceCode":null,"stopTime":"2019-10-30 10:07:00","powerType":"全部","powerOffArea":"110kV丘山变:东湖G170线樱花分线开关后段","powerOffReason":"高压开关跳闸","powerOffId":"2019103031020042"},{"poweroffId":2019103031020026,"sgpoweroffId":null,"subsName":"","lineName":"10kV胥口D712线","pubTranName":"棠棣村5#桥头公变,平畈村8#高凸上公变,富阳市万基机械有限公司,佛鲁村3#方家桥公变,平畈村4#王家公变,方圆塑机1#变,平畈村3#潘家公变,高联村9#徐家公变,高联村5#黄泥岭公变,杭州冠思五金制造有限公司,高坪石材1#变,高联村8#田家公变,棠棣村2#七树湾公变,高联村2号白亭子公变,佛鲁村6#陆家公变,海正药业2#,顶鑫建材2#变,盛创实业,棠棣村3#下板公变,顶鑫建材1#变,佛鲁村7#童家园公变,里坞村6#水坞公变,里坞村4#杨家公变,棠棣村6#大坞公变,杭州富阳神怡工艺品有限公司,灵苑村1#灵安公变,佛鲁村8#荷花塘公变,高联村3#雷公里公变,高联村7#小垄坎公变,平畈村6#对过公变,棠棣村1#汪家公变,高联村1#刘家公变,棠棣村7#麻投垅公变,平畈村5#华家公变,高联村10#新桥头公变,灵苑村3号前山公变,富阳东顺钢结构有限公司,平畈村7#井坞里公变,佛鲁村1#勇家公变,海正药业1#,平畈村2#黄岭上公变,永兴机械厂,杭州市富阳区胥口镇人民政府1#变,杭新水泥制品,浙江宏途管业有限公司,灵苑村2#徐家坞公变,高联村4#石畈公变,高联村6#高山公变,杭州永基混凝土,浙江高瑞实业有限公司,金慈村3号恢塘公变,佛鲁村5#菜田湾公变,佛鲁村2#石灰厂公变,平畈村1#新安岭公变,佛鲁村4#灵山公变,神宇五金,富阳市胥口镇新宇石材厂,棠棣村4#朱家坞公变变压器,棠棣村8#木桥头公变,","scope":"浙江省-杭州市-富阳区-胥口镇-佛鲁行政村(陆家山自然村,菜田湾自然村,童家园自然村,灵山自然村,方家桥自然村,陆家自然村,石灰厂自然村,勇家自然村,荷花塘自然村),胥口镇-胥口行政村(胥口自然村,信用社自然村),胥口镇-高联行政村(小垄坎自然村,高山自然村,雷公里自然村,新桥头自然村,石畈自然村,徐家自然村,黄泥岭自然村,白亭子自然村,刘家自然村,周家自然村,田家自然村),胥口镇-里坞行政村(杨家自然村,水坞自然村),胥口镇-灵苑行政村(灵苑自然村,徐家坞自然村,灵安自然村,前山自然村),胥口镇-棠棣行政村(七树湾自然村,朱家坞自然村,汪家自然村,下板自然村,大坞自然村,新桥头自然村,麻头垅自然村),胥口镇-平畈行政村(新安岭自然村,高凸上自然村,黄岭上自然村,华家自然村,王家自然村,对过自然村,井坞里自然村,潘家自然村),胥口镇(金慈行政村-灰塘自然村,上练行政村-洗马潭自然村);胥口镇(杭州天骄电缆科技股份有限公司,杭州富阳鸿杰电器有限公司,杭州冠思五金制造有限公司,杭州富阳区胥口镇新宇石材厂,杭州盛创实业有限公司,杭州建豪环保设备有限公司,杭州永基混凝土有限公司,杭州神宇五金工艺有限公司,海正药业（杭州）有限公司,杭州富阳区胥口镇新力石材厂,浙江高瑞实业有限公司,杭州富阳东顺钢结构有限公司,杭州方圆塑机股份有限公司,杭州富阳高坪石材有限公司,杭州顶鑫建材有限公司,杭州市富阳区胥口镇人民政府)","startTime":"2019-10-30 07:37:00","stopDate":"2019-10-30 08:37:00","orgNo":"3340170","typeCode":"电网故障停限电","poweroffArea":"110kV松溪变:胥口D712线胥口D712A开关后段","poweroffReason":"高压开关跳闸 原停电结束时间为2019-10-30 09:37:00,为减少客户停电时间,加快工作进度,提前送电,现变更停电结束时间为2019-10-30 08:37:00","powerTime":"2019-10-30 08:23:35","powerComm":"已送电","subsNo":"","lineNo":"","tgNo":"","tgName":null,"infoStatus":"1","orgName":"国网浙江杭州市富阳区供电公司","typeName":null,"infoStatusName":null,"dateDay":null,"orgNos":null,"nowTime":null,"countyName":null,"streetName":null,"villageName":null,"roadName":null,"communityName":null,"tranName":null,"sdLineName":null,"cityCode":"3340170","cityName":"国网浙江杭州市富阳区供电公司","provinceCode":null,"stopTime":"2019-10-30 08:37:00","powerType":"全部","powerOffArea":"110kV松溪变:胥口D712线胥口D712A开关后段","powerOffReason":"高压开关跳闸 原停电结束时间为2019-10-30 09:37:00,为减少客户停电时间,加快工作进度,提前送电,现变更停电结束时间为2019-10-30 08:37:00","powerOffId":"2019103031020026"},{"poweroffId":2019103031020022,"sgpoweroffId":null,"subsName":"","lineName":"10kV联盟T370线","pubTranName":"联盟桥头1号公变,","scope":"浙江省-杭州市-桐庐县-百江镇(联盟行政村-联盟桥头自然村,小京行政村-六坑外自然村)","startTime":"2019-10-30 07:33:04","stopDate":"2019-10-30 12:00:04","orgNo":"3340150","typeCode":"电网故障停限电","poweroffArea":"110kV百江变:联盟T370线-联盟桥头F9008令克后段","poweroffReason":"高压开关跳闸","powerTime":"2019-10-30 11:35:28","powerComm":"已送电","subsNo":"","lineNo":"","tgNo":"","tgName":null,"infoStatus":"1","orgName":"国网浙江桐庐县供电公司","typeName":null,"infoStatusName":null,"dateDay":null,"orgNos":null,"nowTime":null,"countyName":null,"streetName":null,"villageName":null,"roadName":null,"communityName":null,"tranName":null,"sdLineName":null,"cityCode":"3340150","cityName":"国网浙江桐庐县供电公司","provinceCode":null,"stopTime":"2019-10-30 12:00:04","powerType":"全部","powerOffArea":"110kV百江变:联盟T370线-联盟桥头F9008令克后段","powerOffReason":"高压开关跳闸","powerOffId":"2019103031020022"},{"poweroffId":2019103031020010,"sgpoweroffId":null,"subsName":"","lineName":"10kV惠五A110线","pubTranName":"莱茵传奇园1#公变,","scope":"浙江省-杭州市-萧山区-北干街道-明星社区-建设一路莱茵传奇园小区、莱茵传奇园3幢、莱茵传奇园5幢一带","startTime":"2019-10-30 07:00:17","stopDate":"2019-10-30 12:00:00","orgNo":"3340130","typeCode":"电网故障停限电","poweroffArea":"110kV惠兴变:惠五A110线-莱茵传奇园1#公变开关后段","poweroffReason":"高压开关跳闸","powerTime":"2019-10-30 11:56:04","powerComm":"已送电","subsNo":"","lineNo":"","tgNo":"","tgName":null,"infoStatus":"1","orgName":"国网浙江杭州市萧山区供电有限公司","typeName":null,"infoStatusName":null,"dateDay":null,"orgNos":null,"nowTime":null,"countyName":null,"streetName":null,"villageName":null,"roadName":null,"communityName":null,"tranName":null,"sdLineName":null,"cityCode":"3340130","cityName":"国网浙江杭州市萧山区供电有限公司","provinceCode":null,"stopTime":"2019-10-30 12:00:00","powerType":"全部","powerOffArea":"110kV惠兴变:惠五A110线-莱茵传奇园1#公变开关后段","powerOffReason":"高压开关跳闸","powerOffId":"2019103031020010"},{"poweroffId":2019103031020008,"sgpoweroffId":null,"subsName":"","lineName":"10kV环保H606线","pubTranName":"凤凰村凤凰岭公变,凤凰村张家公变,丽湖房产基建3#,假日之约1号公变,金阳化工,02省道路灯(6),丽湖房产基建1#,能源加油站,凤凰村石矿公变,星慧电器,丽湖房产基建2#,阿宝物流,瑞达交通,","scope":"浙江省-杭州市-余杭区-余杭街道-凤凰山行政村(凤凰山自然村,城南路,张家自然村),余杭街道-凤联社区(凤凰自然村,禹航路);余杭街道(杭州余杭杭石交通能源有限责任公司,杭州阿宝物流有限公司,杭州余杭瑞达交通工程有限公司,金阳化工有限公司,杭州星慧电器有限公司,杭州市余杭区城市管理综合行政执法局,杭州丽湖房地产开发有限公司)","startTime":"2019-10-30 06:49:00","stopDate":"2019-10-30 12:30:00","orgNo":"3340140","typeCode":"电网故障停限电","poweroffArea":"110kV桃源变:环保H606线凤凰岭分线开关后段","poweroffReason":"高压开关跳闸 原停电结束时间为2019-10-30 09:36:00,因现场情况复杂原因,现变更停电结束时间为2019-10-30 12:30:00","powerTime":"2019-10-30 11:58:22","powerComm":"已送电","subsNo":"","lineNo":"","tgNo":"","tgName":null,"infoStatus":"1","orgName":"国网浙江杭州市余杭区供电有限公司","typeName":null,"infoStatusName":null,"dateDay":null,"orgNos":null,"nowTime":null,"countyName":null,"streetName":null,"villageName":null,"roadName":null,"communityName":null,"tranName":null,"sdLineName":null,"cityCode":"3340140","cityName":"国网浙江杭州市余杭区供电有限公司","provinceCode":null,"stopTime":"2019-10-30 12:30:00","powerType":"全部","powerOffArea":"110kV桃源变:环保H606线凤凰岭分线开关后段","powerOffReason":"高压开关跳闸 原停电结束时间为2019-10-30 09:36:00,因现场情况复杂原因,现变更停电结束时间为2019-10-30 12:30:00","powerOffId":"2019103031020008"},{"poweroffId":2019102931020280,"sgpoweroffId":null,"subsName":"","lineName":"10kV咸康D208线","pubTranName":"春建村秋联1#秋联公变,","scope":"浙江省-杭州市-富阳区-春建乡-春建行政村(秋联自然村,春建自然村)","startTime":"2019-10-29 21:08:50","stopDate":"2019-10-29 23:08:50","orgNo":"3340170","typeCode":"电网故障停限电","poweroffArea":"35kV大青变:咸康D208线-春建村秋联1#秋联公变后段","poweroffReason":"高压开关跳闸","powerTime":"2019-10-29 22:25:55","powerComm":"已送电","subsNo":"","lineNo":"","tgNo":"","tgName":null,"infoStatus":"1","orgName":"国网浙江杭州市富阳区供电公司","typeName":null,"infoStatusName":null,"dateDay":null,"orgNos":null,"nowTime":null,"countyName":null,"streetName":null,"villageName":null,"roadName":null,"communityName":null,"tranName":null,"sdLineName":null,"cityCode":"3340170","cityName":"国网浙江杭州市富阳区供电公司","provinceCode":null,"stopTime":"2019-10-29 23:08:50","powerType":"全部","powerOffArea":"35kV大青变:咸康D208线-春建村秋联1#秋联公变后段","powerOffReason":"高压开关跳闸","powerOffId":"2019102931020280"},{"poweroffId":2019102931020268,"sgpoweroffId":null,"subsName":"","lineName":"10kV紫荆H873线","pubTranName":"新泰村幸福机埠公变,新泰村轧石场公变,","scope":"浙江省-杭州市-余杭区-中泰街道-新泰行政村-新泰自然村","startTime":"2019-10-29 18:21:00","stopDate":"2019-10-29 21:00:00","orgNo":"3340140","typeCode":"电网故障停限电","poweroffArea":"110kV中泰变:紫荆H873线幸福机埠分线开关后段","poweroffReason":"高压开关跳闸 原停电结束时间为2019-10-29 22:21:00,为减少客户停电时间,加快工作进度,提前送电,现变更停电结束时间为2019-10-29 21:00:00","powerTime":"2019-10-29 20:15:00","powerComm":"已送电","subsNo":"","lineNo":"","tgNo":"","tgName":null,"infoStatus":"1","orgName":"国网浙江杭州市余杭区供电有限公司","typeName":null,"infoStatusName":null,"dateDay":null,"orgNos":null,"nowTime":null,"countyName":null,"streetName":null,"villageName":null,"roadName":null,"communityName":null,"tranName":null,"sdLineName":null,"cityCode":"3340140","cityName":"国网浙江杭州市余杭区供电有限公司","provinceCode":null,"stopTime":"2019-10-29 21:00:00","powerType":"全部","powerOffArea":"110kV中泰变:紫荆H873线幸福机埠分线开关后段","powerOffReason":"高压开关跳闸 原停电结束时间为2019-10-29 22:21:00,为减少客户停电时间,加快工作进度,提前送电,现变更停电结束时间为2019-10-29 21:00:00","powerOffId":"2019102931020268"}],"pageModel":{"pageNow":937,"totalCount":17789,"totalPage":1779,"tableRows":0,"pageCount":10,"beginCount":9360},"isExperi":"1"}