{"message":"","today":"2020-06-16","seleList":[{"poweroffId":2019102931020266,"sgpoweroffId":null,"subsName":"","lineName":"10kV联中T204线","pubTranName":"桐庐南源置业有限公司（商住楼）1号公,徐家埠公寓5号公变,景秀年华2号公变,桐庐姚外公食品有限公司,桐庐县横村镇人民政府（污水提升泵站）,桐庐县方埠初级中学变压器,桐庐华艺针织有限公司（2）,景秀广场2号公变,徐家埠公寓1号公变,近江家园2号公变,景秀年华1号公变,近江家园1号公变,景秀年华3号公变,近江家园4号公变,桐庐县横村镇人民政府（提升泵站深畈）,景秀广场3号公变,横政路1号公变,桐庐县方埠标牌印刷厂,近江家园3号公变,浙江中南建设集团有限公司桐庐第一分公司变压器,浙江中南建设集团有限公司变压器,浙江同益物业服务有限公司桐庐横村分公司,徐家埠公寓4号公变,阳光景园1号公变,桐庐县横村幼儿园教育集团,景秀广场1号公变,桐庐狮子山建材有限公司,徐家埠公寓3号公变,徐家埠公寓2号公变,景秀嘉苑2号公变,桐庐县横村镇人民政府（镇综合文体中心）,景秀嘉苑1号公变,","scope":"浙江省-杭州市-桐庐县-横村镇-城东行政村(双湖自然村,横政路,徐家埠自然村,桐千路,市场路,市心路,商贸街,北环路,祥和路),横村镇(柳茂行政村-柳茂自然村,九岭行政村-葛家自然村);浙江省-杭州市-桐庐县-横村镇-横村行政村-桐庐县横村镇人民政府（提升泵站深畈）,横村镇-城东行政村(桐庐县横村镇人民政府（污水提升泵站）,桐庐狮子山建材有限公司,桐庐县横村镇人民政府(镇综合文体中心),桐庐县横村幼儿园教育集团,桐庐县方埠标牌印刷厂,桐庐姚外公食品有限公司,浙江中南建设集团有限公司桐庐第一分公司,桐庐县方埠初级中学,浙江杭宣高速公路有限公司,浙江同益物业服务有限公司桐庐横村分公司,桐庐华艺针织有限公司)","startTime":"2019-10-29 17:42:59","stopDate":"2019-10-29 19:40:59","orgNo":"3340150","typeCode":"电网故障停限电","poweroffArea":"110kV方埠变:联中T204线","poweroffReason":"高压开关跳闸","powerTime":"2019-10-29 19:20:28","powerComm":"已送电","subsNo":"","lineNo":"","tgNo":"","tgName":null,"infoStatus":"1","orgName":"国网浙江桐庐县供电公司","typeName":null,"infoStatusName":null,"dateDay":null,"orgNos":null,"nowTime":null,"countyName":null,"streetName":null,"villageName":null,"roadName":null,"communityName":null,"tranName":null,"sdLineName":null,"cityCode":"3340150","cityName":"国网浙江桐庐县供电公司","provinceCode":null,"stopTime":"2019-10-29 19:40:59","powerType":"全部","powerOffArea":"110kV方埠变:联中T204线","powerOffReason":"高压开关跳闸","powerOffId":"2019102931020266"},{"poweroffId":2019102931020260,"sgpoweroffId":null,"subsName":"","lineName":"10kV大坑T206线","pubTranName":"祥和家园3号公变,桐庐县横村镇人民政府,北环路小区1号公变,祥和家园2号公变,横村镇政府,浙江同益物业服务有限公司桐庐横村分公司,北环路小区2号公变,祥和二期1号公变,祥和家园1号公变,桐庐广晟置业有限公司,祥和二期2号公变,","scope":"浙江省-杭州市-桐庐县-横村镇-城东行政村(市场路,北环路,市心路);横村镇-城东行政村(横村镇政府,桐庐广晟置业有限公司,桐庐县横村镇人民政府,浙江同益物业服务有限公司桐庐横村分公司),祥和家园小区,北环路小区一带.","startTime":"2019-10-29 17:29:38","stopDate":"2019-10-29 19:40:38","orgNo":"3340150","typeCode":"电网故障停限电","poweroffArea":"110kV方埠变:大坑T206线","poweroffReason":"高压开关跳闸","powerTime":"2019-10-29 19:20:12","powerComm":"已送电","subsNo":"","lineNo":"","tgNo":"","tgName":null,"infoStatus":"1","orgName":"国网浙江桐庐县供电公司","typeName":null,"infoStatusName":null,"dateDay":null,"orgNos":null,"nowTime":null,"countyName":null,"streetName":null,"villageName":null,"roadName":null,"communityName":null,"tranName":null,"sdLineName":null,"cityCode":"3340150","cityName":"国网浙江桐庐县供电公司","provinceCode":null,"stopTime":"2019-10-29 19:40:38","powerType":"全部","powerOffArea":"110kV方埠变:大坑T206线","powerOffReason":"高压开关跳闸","powerOffId":"2019102931020260"},{"poweroffId":2019102931020259,"sgpoweroffId":null,"subsName":"","lineName":"10kV千家Y408线","pubTranName":"大店口村卜家台区,","scope":"浙江省-杭州市-建德市-航头镇 千源行政村-千家自然村,大店口行政村-卜家自然村一带用户。","startTime":"2019-10-29 17:22:00","stopDate":"2019-10-29 19:00:00","orgNo":"3340180","typeCode":"电网故障停限电","poweroffArea":"110kV航头变:千家Y408线-大店口村卜家台区后段","poweroffReason":"(低压停电信息)低压开关跳闸 原停电结束时间为2019-10-29 20:00:00,为减少客户停电时间,加快工作进度,提前送电,现变更停电结束时间为2019-10-29 19:00:00","powerTime":"2019-10-29 18:21:00","powerComm":"已送电","subsNo":"","lineNo":"","tgNo":"","tgName":null,"infoStatus":"1","orgName":"国网浙江建德市供电有限公司","typeName":null,"infoStatusName":null,"dateDay":null,"orgNos":null,"nowTime":null,"countyName":null,"streetName":null,"villageName":null,"roadName":null,"communityName":null,"tranName":null,"sdLineName":null,"cityCode":"3340180","cityName":"国网浙江建德市供电有限公司","provinceCode":null,"stopTime":"2019-10-29 19:00:00","powerType":"全部","powerOffArea":"110kV航头变:千家Y408线-大店口村卜家台区后段","powerOffReason":"(低压停电信息)低压开关跳闸 原停电结束时间为2019-10-29 20:00:00,为减少客户停电时间,加快工作进度,提前送电,现变更停电结束时间为2019-10-29 19:00:00","powerOffId":"2019102931020259"},{"poweroffId":2019102931020256,"sgpoweroffId":null,"subsName":"","lineName":"10kV新北A387线","pubTranName":"鼎立机械,新北村22#变,天宝汽车,亿邦钢构,创赢实业,新北村5#变,思恩实业,恒泰物业管理2#,庆源金属,新北村18#变,盈峰塑料厂,市政园林21#,大力神起重,钱江电声,新北村1#变,新北村21#变,新安村8#变,恒泰物业管理1#,排水管理,金恒服饰,杭州喜连连建材有限公司,新北村17#变,新北村2#变,晨锋服饰,杭州鸿达绣艺纺织品有限公司,中惠服饰,托福电器,新北村9#变,上平公路,市政园林公用事业管理处（通北路景观带）,林丰汽车,杭州鸿达绣艺纺织品有限公司,中球冠,新北村11#变,康宝轴承,永鑫防盗,杭州萧山物资再生利用有限公司,","scope":"浙江省-杭州市-萧山区-宁围镇-宁围街道-二桥行政村(新北自然村,宁北自然村),宁围街道(宁牧行政村-宁牧自然村,宁新行政村-宁新自然村,新安行政村-新安自然村);浙江省-杭州市-萧山区-宁围街道-宁税社区-杭州市萧山区市政绿化养护保障中心,宁围街道-二桥行政村(大力神建设有限公司,杭州晨锋服饰有限公司,杭州萧山中惠服饰有限公司,浙江亿邦钢构制造有限公司,杭州康宝轴承机械有限公司,杭州萧山钱江电声器材有限公司,杭州萧山鼎立机械有限公司,杭州天宝汽车零部件有限公司,杭州萧山庆源金属制品有限公司,杭州思恩实业有限公司),宁围街道-宁新行政村(中球冠集团杭州石化有限公司,杭州萧山恒悦酒店管理有限公司),宁围街道-新安行政村(杭州鸿达绣艺纺织品有限公司,杭州盈峰塑料制品厂,杭州金恒服饰有限公司,杭州喜连连建材有限公司,杭州市萧山区市政绿化养护保障中心,杭州托福电器配件有限公司,浙江上平公路工程有限公司,杭州日美开开电子科技有限公司,杭州萧山污水处理有限公司,杭州林丰汽车配件厂,杭州萧山物资再生利用有限公司)、浙江省杭州市萧山区宁围街道乔元路18号二桥村、浙江省杭州市萧山区宁围街道二桥村5组等一带","startTime":"2019-10-29 17:24:11","stopDate":"2019-10-29 19:30:48","orgNo":"3340130","typeCode":"电网故障停限电","poweroffArea":"110kV顺坝变:新北A387线","poweroffReason":"高压柱上断路器短路故障 原停电结束时间为2019-10-29 20:30:48,为减少客户停电时间,加快工作进度,提前送电,现变更停电结束时间为2019-10-29 19:30:48","powerTime":"2019-10-29 18:36:33","powerComm":"已送电","subsNo":"","lineNo":"","tgNo":"","tgName":null,"infoStatus":"1","orgName":"国网浙江杭州市萧山区供电有限公司","typeName":null,"infoStatusName":null,"dateDay":null,"orgNos":null,"nowTime":null,"countyName":null,"streetName":null,"villageName":null,"roadName":null,"communityName":null,"tranName":null,"sdLineName":null,"cityCode":"3340130","cityName":"国网浙江杭州市萧山区供电有限公司","provinceCode":null,"stopTime":"2019-10-29 19:30:48","powerType":"全部","powerOffArea":"110kV顺坝变:新北A387线","powerOffReason":"高压柱上断路器短路故障 原停电结束时间为2019-10-29 20:30:48,为减少客户停电时间,加快工作进度,提前送电,现变更停电结束时间为2019-10-29 19:30:48","powerOffId":"2019102931020256"},{"poweroffId":2019102931020238,"sgpoweroffId":null,"subsName":"","lineName":"10kV春建D202线","pubTranName":"大唐下唐4#公变,","scope":"浙江省-杭州市-富阳区-春建乡-大唐行政村(下唐自然村,牌楼自然村,上唐自然村)一带","startTime":"2019-11-07 13:40:00","stopDate":"2019-11-07 17:00:00","orgNo":"3340170","typeCode":"计划停电","poweroffArea":"35kV大青变:春建D202线-大唐下唐4#公变后段","poweroffReason":"下唐村4号公变变压器低压出线电缆恢复，原停电结束时间为2019-11-07 14:20:00,因现场抢修难度大,现变更停电结束时间为2019-11-07 17:00:00","powerTime":"2019-11-07 16:51:14","powerComm":"已送电","subsNo":"","lineNo":"","tgNo":"","tgName":null,"infoStatus":"1","orgName":"国网浙江杭州市富阳区供电公司","typeName":null,"infoStatusName":null,"dateDay":null,"orgNos":null,"nowTime":null,"countyName":null,"streetName":null,"villageName":null,"roadName":null,"communityName":null,"tranName":null,"sdLineName":null,"cityCode":"3340170","cityName":"国网浙江杭州市富阳区供电公司","provinceCode":null,"stopTime":"2019-11-07 17:00:00","powerType":"全部","powerOffArea":"35kV大青变:春建D202线-大唐下唐4#公变后段","powerOffReason":"下唐村4号公变变压器低压出线电缆恢复，原停电结束时间为2019-11-07 14:20:00,因现场抢修难度大,现变更停电结束时间为2019-11-07 17:00:00","powerOffId":"2019102931020238"},{"poweroffId":2019102931020237,"sgpoweroffId":null,"subsName":"","lineName":"10kV春建D202线","pubTranName":"大唐下唐4#公变,","scope":"浙江省-杭州市-富阳区-春建乡-大唐行政村(下唐自然村,牌楼自然村,上唐自然村)一带","startTime":"2019-11-07 07:40:00","stopDate":"2019-11-07 09:00:00","orgNo":"3340170","typeCode":"计划停电","poweroffArea":"35kV大青变:春建D202线-大唐下唐4#公变后段","poweroffReason":"下唐村4号公变变压器低压出线电缆改接至发电机T接箱 原停电结束时间为2019-11-07 08:20:00,因现场施工难度大原因,现变更停电结束时间为2019-11-07 09:00:00","powerTime":"2019-11-07 08:51:10","powerComm":"已送电","subsNo":"","lineNo":"","tgNo":"","tgName":null,"infoStatus":"1","orgName":"国网浙江杭州市富阳区供电公司","typeName":null,"infoStatusName":null,"dateDay":null,"orgNos":null,"nowTime":null,"countyName":null,"streetName":null,"villageName":null,"roadName":null,"communityName":null,"tranName":null,"sdLineName":null,"cityCode":"3340170","cityName":"国网浙江杭州市富阳区供电公司","provinceCode":null,"stopTime":"2019-11-07 09:00:00","powerType":"全部","powerOffArea":"35kV大青变:春建D202线-大唐下唐4#公变后段","powerOffReason":"下唐村4号公变变压器低压出线电缆改接至发电机T接箱 原停电结束时间为2019-11-07 08:20:00,因现场施工难度大原因,现变更停电结束时间为2019-11-07 09:00:00","powerOffId":"2019102931020237"},{"poweroffId":2019102931020233,"sgpoweroffId":null,"subsName":"","lineName":"10kV多瑙A395线","pubTranName":"万通管业,中国移动4#,1#,1#,3#,2#,杭州铁路工务段,1#,杭州钱塘江灌区,2#,1#,自祥铸造,2#,3#,3#,2#,1#,钱塘江灌区管理处,2#,3#,杭甬高速,","scope":"浙江省-杭州市-萧山区-宁围镇-宁围街道-二桥行政村(中国移动通信集团浙江有限公司萧山分公司,杭州市萧山区钱塘江灌区管理处,上海铁路局杭州工务段,杭州万通管业有限公司,浙江沪杭甬高速公路股份有限公司杭州管理处,浙江交工集团股份有限公司),经济技术开发区-钱江社区-杭州萧山宁围二桥沙场,宁围街道-丰北行政村-杭州市萧山钱江世纪城管理委员会、浙江省杭州市萧山区宁围街道丰二行政村飞虹路等一带","startTime":"2019-10-29 16:00:56","stopDate":"2019-10-29 18:00:56","orgNo":"3340130","typeCode":"电网故障停限电","poweroffArea":"110kV顺坝变:多瑙A395线","poweroffReason":"高压柱上断路器短路故障 原停电结束时间为2019-10-29 19:00:56,为减少客户停电时间,加快工作进度,提前送电,现变更停电结束时间为2019-10-29 18:00:56","powerTime":"2019-10-29 17:08:45","powerComm":"已送电","subsNo":"","lineNo":"","tgNo":"","tgName":null,"infoStatus":"1","orgName":"国网浙江杭州市萧山区供电有限公司","typeName":null,"infoStatusName":null,"dateDay":null,"orgNos":null,"nowTime":null,"countyName":null,"streetName":null,"villageName":null,"roadName":null,"communityName":null,"tranName":null,"sdLineName":null,"cityCode":"3340130","cityName":"国网浙江杭州市萧山区供电有限公司","provinceCode":null,"stopTime":"2019-10-29 18:00:56","powerType":"全部","powerOffArea":"110kV顺坝变:多瑙A395线","powerOffReason":"高压柱上断路器短路故障 原停电结束时间为2019-10-29 19:00:56,为减少客户停电时间,加快工作进度,提前送电,现变更停电结束时间为2019-10-29 18:00:56","powerOffId":"2019102931020233"},{"poweroffId":2019102931020213,"sgpoweroffId":null,"subsName":"","lineName":"10kV丝化C377线","pubTranName":"红山农场五分场6#变,","scope":"浙江省-杭州市-萧山区-新街镇-新街街道-红山农场-同德社区(北锋路,五分场)、浙江省杭州市萧山区红山农场同德社区等一带","startTime":"2019-10-29 15:25:47","stopDate":"2019-10-29 17:00:47","orgNo":"3340130","typeCode":"电网故障停限电","poweroffArea":"110kV红山变:丝化C377线-红山农场五分场6#变台区低压开关","poweroffReason":"(低压停电信息)低压漏电保护器短路故障 原停电结束时间为2019-10-29 17:30:47,为减少客户停电时间,加快工作进度,提前送电,现变更停电结束时间为2019-10-29 17:00:47","powerTime":"2019-10-29 16:14:05","powerComm":"已送电","subsNo":"","lineNo":"","tgNo":"","tgName":null,"infoStatus":"1","orgName":"国网浙江杭州市萧山区供电有限公司","typeName":null,"infoStatusName":null,"dateDay":null,"orgNos":null,"nowTime":null,"countyName":null,"streetName":null,"villageName":null,"roadName":null,"communityName":null,"tranName":null,"sdLineName":null,"cityCode":"3340130","cityName":"国网浙江杭州市萧山区供电有限公司","provinceCode":null,"stopTime":"2019-10-29 17:00:47","powerType":"全部","powerOffArea":"110kV红山变:丝化C377线-红山农场五分场6#变台区低压开关","powerOffReason":"(低压停电信息)低压漏电保护器短路故障 原停电结束时间为2019-10-29 17:30:47,为减少客户停电时间,加快工作进度,提前送电,现变更停电结束时间为2019-10-29 17:00:47","powerOffId":"2019102931020213"},{"poweroffId":2019102931020206,"sgpoweroffId":null,"subsName":"","lineName":"10kV白泥D226线","pubTranName":"唐家坞8#下唐外公变,","scope":"浙江省-杭州市-富阳区-银湖街道-唐家坞行政村(唐家坞自然村,下唐自然村)","startTime":"2019-10-29 15:23:11","stopDate":"2019-10-29 16:23:11","orgNo":"3340170","typeCode":"电网故障停限电","poweroffArea":"110kV银湖变:白泥D226线-唐家坞8#下唐外公变后段","poweroffReason":"(低压停电信息)低压开关跳闸","powerTime":"2019-10-29 16:15:33","powerComm":"已送电","subsNo":"","lineNo":"","tgNo":"","tgName":null,"infoStatus":"1","orgName":"国网浙江杭州市富阳区供电公司","typeName":null,"infoStatusName":null,"dateDay":null,"orgNos":null,"nowTime":null,"countyName":null,"streetName":null,"villageName":null,"roadName":null,"communityName":null,"tranName":null,"sdLineName":null,"cityCode":"3340170","cityName":"国网浙江杭州市富阳区供电公司","provinceCode":null,"stopTime":"2019-10-29 16:23:11","powerType":"全部","powerOffArea":"110kV银湖变:白泥D226线-唐家坞8#下唐外公变后段","powerOffReason":"(低压停电信息)低压开关跳闸","powerOffId":"2019102931020206"},{"poweroffId":2019102931020197,"sgpoweroffId":null,"subsName":"","lineName":"10kV迪青A396线","pubTranName":"杭州惠亚农业科技有限公司,天成通风,杭州渊景农业开发有限公司,樱道机械,创业物业,杭州海塘机械,志达沙场,志航汽车,顺坝村17#变,国泰,杭州正方实业公司,正方商品混凝土,程杰车业,江南大地,京奥新科技,文春机械,徐祥水产,利磊建筑,巨星蓄电池,乐天有机肥,杭州惠亚农业科技有限公司,江干区庆飞沙场,京奥新科技,宇葳机械,杭州海塘机械,杭州迪青生态农庄有限公司,璐易砂石场,亦能生物科技,九堡杨公社区,杭州顺昊餐饮有限公司,1#变,建科水泥,万华轴承,渊景农业,顺坝村1#变,八堡畜牧,京奥新科技1#,华信自行车架有限公司,顺坝村7#变,杭州文春机械有限公司,杭州惠亚农科技有限公司,京奥新科技2#,广业建筑机械,","scope":"浙江省-杭州市-萧山区-宁围镇-宁围街道-顺坝行政村-顺坝自然村;经济技术开发区-钱江社区(杭州萧山宁围镇璐易砂石服务部,传化智联股份有限公司,浙江传化江南大地发展有限公司,杭州萧山钱江农场庆飞砂石场,杭州樱道机械有限公司,杭州正方商品混凝土搅拌厂,杭州正方实业集团有限公司),宁围街道-顺坝行政村(杭州万华轴承有限公司,杭州市江干区九堡镇杨公社区居民委员会,杭州迪青生态农庄有限公司,杭州江干区八堡畜牧养殖场,杭州亦能生物科技有限公司,杭州嘉誉物流有限公司,杭州萧山城投资产经营开发有限公司,杭州渊景农业开发有限公司,杭州京奥新科技开发有限公司,杭州顺昊餐饮有限公司,杭州八桥农产品有限公司,杭州惠亚农业科技有限公司),宁围街道-二桥行政村-杭州萧山宁围志达砂石场,新街街道-江南行政村-杭州建科水泥助剂有限公司等一带","startTime":"2019-10-29 15:09:46","stopDate":"2019-10-29 17:45:46","orgNo":"3340130","typeCode":"电网故障停限电","poweroffArea":"110kV顺坝变:迪青A396线-迪青A3961开关后段","poweroffReason":"高压柱上断路器短路故障 原停电结束时间为2019-10-29 19:00:46,为减少客户停电时间,加快工作进度,提前送电,现变更停电结束时间为2019-10-29 17:45:46","powerTime":"2019-10-29 16:53:09","powerComm":"已送电","subsNo":"","lineNo":"","tgNo":"","tgName":null,"infoStatus":"1","orgName":"国网浙江杭州市萧山区供电有限公司","typeName":null,"infoStatusName":null,"dateDay":null,"orgNos":null,"nowTime":null,"countyName":null,"streetName":null,"villageName":null,"roadName":null,"communityName":null,"tranName":null,"sdLineName":null,"cityCode":"3340130","cityName":"国网浙江杭州市萧山区供电有限公司","provinceCode":null,"stopTime":"2019-10-29 17:45:46","powerType":"全部","powerOffArea":"110kV顺坝变:迪青A396线-迪青A3961开关后段","powerOffReason":"高压柱上断路器短路故障 原停电结束时间为2019-10-29 19:00:46,为减少客户停电时间,加快工作进度,提前送电,现变更停电结束时间为2019-10-29 17:45:46","powerOffId":"2019102931020197"}],"pageModel":{"pageNow":938,"totalCount":17789,"totalPage":1779,"tableRows":0,"pageCount":10,"beginCount":9370},"isExperi":"1"}