{"message":"","today":"2020-06-16","seleList":[{"poweroffId":2019102931020189,"sgpoweroffId":null,"subsName":"","lineName":"10kV水阁C233线","pubTranName":"楼家塔7#变,楼家塔1#变,浙江交工集团股份有限公司,服装八厂,楼英村7#变,雀山岭6#变,岩下村9#变,雀山岭8#变,楼塔集镇7#变,岩下村12#变,杭州宝元鞋业有限公司,雀山岭5#变,杭州双宇塑料五金有限公司,杭天布艺,大黄岭1#变,楼塔集镇4#变,杭州市萧山区楼塔镇人民政府,飞球减速机（1315068708）,杭州萧南纺织有限公司,大黄岭4#变,岩下村4#变,雀山岭7#变,岩下村11#变,雀山岭2#变,杭州萧山艾毅五金制品厂,华力包装,大黄岭5#变,岩山中心小学,楼家塔10#变,大黄岭8#变,雀山岭1#变,1#,嘉琪包装,雀山岭3#变,恒力工艺,大黄岭6#变,大黄岭9#变,大黄岭2#变,楼家塔3#变,电工器材,岩下村10#变,东楼生物,大黄岭13#变,大黄岭3#变,大黄岭14#变,雀山岭4#变,康达机械,杭州培焕纱线花边有限公司,变压器,大黄岭10#变,大黄岭7#变,风动工具,楼家塔11#变,大黄岭11#变,大黄岭12#变,","scope":"浙江省-杭州市-萧山区-楼塔镇-岩上行政村-前畈自然村,楼塔镇-雀山岭行政村(徐家店自然村,集体自建房,儒坞自然村,直坞自然村),楼塔镇-楼家塔行政村(楼三自然村,楼二自然村,殿山湾自然村,溪口路,洲口路,下溪滩自然村,集镇公变,横街,学古弄,杭涛弄,松涛弄,钱塘西弄,仁德弄,新民弄,协和里,义仓园,五厅弄,新尼弄,后厅弄,义厅弄,花厅弄,钱塘东弄),楼塔镇-大黄岭行政村(水阁自然村,水阁里自然村,斜爿坞自然村,夏坞自然村,王岭自然村,王岭脚自然村,水阁),楼塔镇-楼英行政村(溪口路,楼四自然村,楼英自然村,楼一自然村,下溪滩,集镇公变),楼塔镇-岩山行政村(岩门自然村,岩下自然村);浙江省-杭州市-萧山区-楼塔镇-管村行政村-杭州市萧山区楼塔镇人民政府,楼塔镇-雀山岭行政村(杭州萧山楼塔康达机械五金厂,杭州岩山电工器材有限公司,杭州萧山服装八厂,杭州双宇塑料五金有限公司,杭州萧山艾毅五金制品厂),楼塔镇-楼家塔行政村(杭州萧山神风工具厂,杭州正德农业开发有限公司,杭州宝元鞋业有限公司),楼塔镇-大黄岭行政村(杭州京萧五金装饰有限公司,浙江交工集团股份有限公司,杭州萧南纺织有限公司),楼塔镇-岩山行政村(杭州飞球减速机有限公司,杭州东楼生物营养有限公司,杭州培焕纱线花边有限公司,杭州萧山恒力工艺品厂,杭州萧山华力包装有限公司,萧山区楼塔镇岩山中心小学,杭州嘉琪包装有限公司)等一带","startTime":"2019-10-29 14:50:34","stopDate":"2019-10-29 16:30:34","orgNo":"3340130","typeCode":"电网故障停限电","poweroffArea":"35kV楼塔变:水阁C233线开关后段","poweroffReason":"高压开关跳闸","powerTime":"2019-10-29 15:32:36","powerComm":"已送电","subsNo":"","lineNo":"","tgNo":"","tgName":null,"infoStatus":"1","orgName":"国网浙江杭州市萧山区供电有限公司","typeName":null,"infoStatusName":null,"dateDay":null,"orgNos":null,"nowTime":null,"countyName":null,"streetName":null,"villageName":null,"roadName":null,"communityName":null,"tranName":null,"sdLineName":null,"cityCode":"3340130","cityName":"国网浙江杭州市萧山区供电有限公司","provinceCode":null,"stopTime":"2019-10-29 16:30:34","powerType":"全部","powerOffArea":"35kV楼塔变:水阁C233线开关后段","powerOffReason":"高压开关跳闸","powerOffId":"2019102931020189"},{"poweroffId":2019102931020182,"sgpoweroffId":null,"subsName":"","lineName":"10kV广电C114线","pubTranName":"南市花园5#公变,","scope":"浙江省-杭州市-萧山区-城厢街道-南市社区-拱秀路","startTime":"2019-11-08 08:30:00","stopDate":"2019-11-08 15:00:00","orgNo":"3340130","typeCode":"计划停电","poweroffArea":"110kV丽都变:广电C114线-南园分支开备用四线后段","poweroffReason":"南市花园5#变拆除PGL柜4面，新上GGD柜4面 原停电结束时间为2019-11-08 16:30:00,为减少客户停电时间,加快工作进度,提前送电,现变更停电结束时间为2019-11-08 15:00:00","powerTime":"2019-11-08 14:27:32","powerComm":"已送电","subsNo":"","lineNo":"","tgNo":"","tgName":null,"infoStatus":"1","orgName":"国网浙江杭州市萧山区供电有限公司","typeName":null,"infoStatusName":null,"dateDay":null,"orgNos":null,"nowTime":null,"countyName":null,"streetName":null,"villageName":null,"roadName":null,"communityName":null,"tranName":null,"sdLineName":null,"cityCode":"3340130","cityName":"国网浙江杭州市萧山区供电有限公司","provinceCode":null,"stopTime":"2019-11-08 15:00:00","powerType":"全部","powerOffArea":"110kV丽都变:广电C114线-南园分支开备用四线后段","powerOffReason":"南市花园5#变拆除PGL柜4面，新上GGD柜4面 原停电结束时间为2019-11-08 16:30:00,为减少客户停电时间,加快工作进度,提前送电,现变更停电结束时间为2019-11-08 15:00:00","powerOffId":"2019102931020182"},{"poweroffId":2019102931020181,"sgpoweroffId":null,"subsName":"","lineName":"10kV广电C114线","pubTranName":"南市花园4#公变,","scope":"浙江省-杭州市-萧山区-城厢街道-南市社区-拱秀路","startTime":"2019-11-07 08:30:00","stopDate":"2019-11-07 15:30:00","orgNo":"3340130","typeCode":"计划停电","poweroffArea":"110kV丽都变:广电C114线-南花分支开备用四线后段","poweroffReason":"南市花园4#变拆除PGL柜4面，新上GGD柜4面 原停电结束时间：2019-11-07 16:30:00,，变更停电结束时间：2019-11-07 15:30:00，变更停电结束时间原因：由于增派人员，计划工作提前结束，故需要提前送电。","powerTime":"2019-11-07 14:37:07","powerComm":"已送电","subsNo":"","lineNo":"","tgNo":"","tgName":null,"infoStatus":"1","orgName":"国网浙江杭州市萧山区供电有限公司","typeName":null,"infoStatusName":null,"dateDay":null,"orgNos":null,"nowTime":null,"countyName":null,"streetName":null,"villageName":null,"roadName":null,"communityName":null,"tranName":null,"sdLineName":null,"cityCode":"3340130","cityName":"国网浙江杭州市萧山区供电有限公司","provinceCode":null,"stopTime":"2019-11-07 15:30:00","powerType":"全部","powerOffArea":"110kV丽都变:广电C114线-南花分支开备用四线后段","powerOffReason":"南市花园4#变拆除PGL柜4面，新上GGD柜4面 原停电结束时间：2019-11-07 16:30:00,，变更停电结束时间：2019-11-07 15:30:00，变更停电结束时间原因：由于增派人员，计划工作提前结束，故需要提前送电。","powerOffId":"2019102931020181"},{"poweroffId":2019102931020180,"sgpoweroffId":null,"subsName":"","lineName":"10kV广电C114线","pubTranName":"南市花园2#公变,","scope":"浙江省-杭州市-萧山区-城厢街道-南市社区-拱秀路","startTime":"2019-11-06 08:30:00","stopDate":"2019-11-06 16:30:00","orgNo":"3340130","typeCode":"计划停电","poweroffArea":"110kV丽都变:广电C114线-南园分支开南市花园2#公变后段","poweroffReason":"南市花园2#变拆除PGL柜4面，新上GGD柜4面","powerTime":"2019-11-06 16:15:08","powerComm":"已送电","subsNo":"","lineNo":"","tgNo":"","tgName":null,"infoStatus":"1","orgName":"国网浙江杭州市萧山区供电有限公司","typeName":null,"infoStatusName":null,"dateDay":null,"orgNos":null,"nowTime":null,"countyName":null,"streetName":null,"villageName":null,"roadName":null,"communityName":null,"tranName":null,"sdLineName":null,"cityCode":"3340130","cityName":"国网浙江杭州市萧山区供电有限公司","provinceCode":null,"stopTime":"2019-11-06 16:30:00","powerType":"全部","powerOffArea":"110kV丽都变:广电C114线-南园分支开南市花园2#公变后段","powerOffReason":"南市花园2#变拆除PGL柜4面，新上GGD柜4面","powerOffId":"2019102931020180"},{"poweroffId":2019102931020179,"sgpoweroffId":null,"subsName":"","lineName":"10kV越三A006线","pubTranName":"金色钱塘2#公变,金色钱塘6#公变,浙江金帝物业服务有限公司,金色钱塘4#公变,金色钱塘7#公变,金色钱塘5#公变,变压器,金色钱塘金色钱塘3#变电所3-Z3#,金色钱塘3#公变,金色钱塘1#公变,","scope":"浙江省-杭州市-萧山区-北干街道-金风社区-风情大道;浙江省-杭州市-萧山区-北干街道-金风社区-广东中奥物业管理有限公司萧山分公司","startTime":"2019-11-06 08:30:00","stopDate":"2019-11-06 13:30:00","orgNo":"3340130","typeCode":"计划停电","poweroffArea":"110kV越王变:越三A006线-越塘分线后段","poweroffReason":"越塘开G13迁改至新越塘开G12间隔，电缆敷设试验搭接","powerTime":"2019-11-06 13:04:19","powerComm":"已送电","subsNo":"","lineNo":"","tgNo":"","tgName":null,"infoStatus":"1","orgName":"国网浙江杭州市萧山区供电有限公司","typeName":null,"infoStatusName":null,"dateDay":null,"orgNos":null,"nowTime":null,"countyName":null,"streetName":null,"villageName":null,"roadName":null,"communityName":null,"tranName":null,"sdLineName":null,"cityCode":"3340130","cityName":"国网浙江杭州市萧山区供电有限公司","provinceCode":null,"stopTime":"2019-11-06 13:30:00","powerType":"全部","powerOffArea":"110kV越王变:越三A006线-越塘分线后段","powerOffReason":"越塘开G13迁改至新越塘开G12间隔，电缆敷设试验搭接","powerOffId":"2019102931020179"},{"poweroffId":2019102931020178,"sgpoweroffId":null,"subsName":"","lineName":"10kV环联D788线","pubTranName":"环联村12#回龙桥公变,","scope":"浙江省-杭州市-富阳区-环山乡-环联行政村(环四桥南自然村,环四球场自然村,朱马车自然村)","startTime":"2019-10-29 14:41:13","stopDate":"2019-10-29 16:15:13","orgNo":"3340170","typeCode":"电网故障停限电","poweroffArea":"110kV王洲变:环联D788线-环联村12#回龙桥公变后段","poweroffReason":"高压开关跳闸","powerTime":"2019-10-29 15:16:12","powerComm":"已送电","subsNo":"","lineNo":"","tgNo":"","tgName":null,"infoStatus":"1","orgName":"国网浙江杭州市富阳区供电公司","typeName":null,"infoStatusName":null,"dateDay":null,"orgNos":null,"nowTime":null,"countyName":null,"streetName":null,"villageName":null,"roadName":null,"communityName":null,"tranName":null,"sdLineName":null,"cityCode":"3340170","cityName":"国网浙江杭州市富阳区供电公司","provinceCode":null,"stopTime":"2019-10-29 16:15:13","powerType":"全部","powerOffArea":"110kV王洲变:环联D788线-环联村12#回龙桥公变后段","powerOffReason":"高压开关跳闸","powerOffId":"2019102931020178"},{"poweroffId":2019102931020160,"sgpoweroffId":null,"subsName":"","lineName":"10kV高远6777线","pubTranName":"古区(9),","scope":"浙江省-杭州市-西湖区-古荡街道(古墩社区-古墩路,古荡东区社区-文三西路)一带","startTime":"2019-10-29 14:12:34","stopDate":"2019-10-29 19:12:34","orgNo":"3340101","typeCode":"电网故障停限电","poweroffArea":"110kV高技变:高远6777线-古区(9)后段","poweroffReason":"高压开关跳闸","powerTime":"2019-10-29 18:25:31","powerComm":"已送电","subsNo":"","lineNo":"","tgNo":"","tgName":null,"infoStatus":"1","orgName":"浙江杭州电力客户服务中心","typeName":null,"infoStatusName":null,"dateDay":null,"orgNos":null,"nowTime":null,"countyName":null,"streetName":null,"villageName":null,"roadName":null,"communityName":null,"tranName":null,"sdLineName":null,"cityCode":"3340101","cityName":"浙江杭州电力客户服务中心","provinceCode":null,"stopTime":"2019-10-29 19:12:34","powerType":"全部","powerOffArea":"110kV高技变:高远6777线-古区(9)后段","powerOffReason":"高压开关跳闸","powerOffId":"2019102931020160"},{"poweroffId":2019102931020140,"sgpoweroffId":null,"subsName":"","lineName":"10kV溪塔H849线","pubTranName":"洪桐村丁家公变,","scope":"浙江省-杭州市-余杭区-余杭街道-洪桐行政村-洪桐自然村","startTime":"2019-10-29 13:40:00","stopDate":"2019-10-29 15:00:00","orgNo":"3340140","typeCode":"电网故障停限电","poweroffArea":"110kV永乐变:溪塔H849线-洪桐丁家后段","poweroffReason":"高压开关跳闸","powerTime":"2019-10-29 14:05:00","powerComm":"已送电","subsNo":"","lineNo":"","tgNo":"","tgName":null,"infoStatus":"1","orgName":"国网浙江杭州市余杭区供电有限公司","typeName":null,"infoStatusName":null,"dateDay":null,"orgNos":null,"nowTime":null,"countyName":null,"streetName":null,"villageName":null,"roadName":null,"communityName":null,"tranName":null,"sdLineName":null,"cityCode":"3340140","cityName":"国网浙江杭州市余杭区供电有限公司","provinceCode":null,"stopTime":"2019-10-29 15:00:00","powerType":"全部","powerOffArea":"110kV永乐变:溪塔H849线-洪桐丁家后段","powerOffReason":"高压开关跳闸","powerOffId":"2019102931020140"},{"poweroffId":2019102931020131,"sgpoweroffId":null,"subsName":"","lineName":"10kV胥口D712线","pubTranName":"长垅村1#涨地上公变,长垅村5#牌坊垅公变,长垅村2#谢家公变,长垅村4#陈家公变,新长垅村7#雪岭头公变,长垅村6#倪家弄公变,长垅村3#马坞垅公变,","scope":"浙江省-杭州市-富阳区-新登镇-长垄行政村(涨地上自然村,谢家自然村,渔池寺自然村,胡家自然村,谢家垄自然村,柿山上自然村,小长垄自然村,岙子里自然村,牌坊垄自然村,梅树坞自然村,马坞垄自然村,畈洋里自然村,麻栗树下自然村,泥家垄自然村,白虎岭自然村,雪岭头自然村)","startTime":"2019-10-29 13:06:26","stopDate":"2019-10-29 14:40:26","orgNo":"3340170","typeCode":"电网故障停限电","poweroffArea":"110kV松溪变:胥口D712线-长垅分线2#杆开关后段","poweroffReason":"高压开关跳闸","powerTime":"2019-10-29 13:45:43","powerComm":"已送电","subsNo":"","lineNo":"","tgNo":"","tgName":null,"infoStatus":"1","orgName":"国网浙江杭州市富阳区供电公司","typeName":null,"infoStatusName":null,"dateDay":null,"orgNos":null,"nowTime":null,"countyName":null,"streetName":null,"villageName":null,"roadName":null,"communityName":null,"tranName":null,"sdLineName":null,"cityCode":"3340170","cityName":"国网浙江杭州市富阳区供电公司","provinceCode":null,"stopTime":"2019-10-29 14:40:26","powerType":"全部","powerOffArea":"110kV松溪变:胥口D712线-长垅分线2#杆开关后段","powerOffReason":"高压开关跳闸","powerOffId":"2019102931020131"},{"poweroffId":2019102931020121,"sgpoweroffId":null,"subsName":"","lineName":"10kV鸿泰9751线","pubTranName":"浜河(4)农,","scope":"浙江省-杭州市-江干区(笕桥镇-浜河社区-浜河路,)一带","startTime":"2019-10-29 12:29:55","stopDate":"2019-10-29 13:29:55","orgNo":"3340101","typeCode":"电网故障停限电","poweroffArea":"110kV下宁变:鸿泰9751线-浜河(4)农后段","poweroffReason":"(低压停电信息)低压开关跳闸 原停电结束时间为2019-10-29 14:29:55,为减少客户停电时间,加快工作进度,提前送电,现变更停电结束时间为2019-10-29 13:29:55","powerTime":"2019-10-29 12:53:59","powerComm":"已送电","subsNo":"","lineNo":"","tgNo":"","tgName":null,"infoStatus":"1","orgName":"浙江杭州电力客户服务中心","typeName":null,"infoStatusName":null,"dateDay":null,"orgNos":null,"nowTime":null,"countyName":null,"streetName":null,"villageName":null,"roadName":null,"communityName":null,"tranName":null,"sdLineName":null,"cityCode":"3340101","cityName":"浙江杭州电力客户服务中心","provinceCode":null,"stopTime":"2019-10-29 13:29:55","powerType":"全部","powerOffArea":"110kV下宁变:鸿泰9751线-浜河(4)农后段","powerOffReason":"(低压停电信息)低压开关跳闸 原停电结束时间为2019-10-29 14:29:55,为减少客户停电时间,加快工作进度,提前送电,现变更停电结束时间为2019-10-29 13:29:55","powerOffId":"2019102931020121"}],"pageModel":{"pageNow":939,"totalCount":17789,"totalPage":1779,"tableRows":0,"pageCount":10,"beginCount":9380},"isExperi":"1"}