{"message":"","today":"2020-06-16","seleList":[{"poweroffId":2019102831020314,"sgpoweroffId":null,"subsName":"","lineName":"10kV仁塘G841线","pubTranName":"北庄村何家塘东变,北庄村任家塘变,","scope":"浙江省杭州市余杭区崇贤街道：北庄村任家塘、北庄村何家塘东一带","startTime":"2019-11-07 08:20:00","stopDate":"2019-11-07 14:20:00","orgNo":"3340140","typeCode":"计划停电","poweroffArea":"110kV北庄变:仁塘G841线任家塘分线","poweroffReason":"杭州余杭塘栖镇人民政府四好农村公路高低压杆线迁移工程：北庄村任家塘分线3号杆子移位，及低压线路移位","powerTime":"2019-11-07 14:17:43","powerComm":"已送电","subsNo":"","lineNo":"","tgNo":"","tgName":null,"infoStatus":"1","orgName":"国网浙江杭州市余杭区供电有限公司","typeName":null,"infoStatusName":null,"dateDay":null,"orgNos":null,"nowTime":null,"countyName":null,"streetName":null,"villageName":null,"roadName":null,"communityName":null,"tranName":null,"sdLineName":null,"cityCode":"3340140","cityName":"国网浙江杭州市余杭区供电有限公司","provinceCode":null,"stopTime":"2019-11-07 14:20:00","powerType":"全部","powerOffArea":"110kV北庄变:仁塘G841线任家塘分线","powerOffReason":"杭州余杭塘栖镇人民政府四好农村公路高低压杆线迁移工程：北庄村任家塘分线3号杆子移位，及低压线路移位","powerOffId":"2019102831020314"},{"poweroffId":2019102831020313,"sgpoweroffId":null,"subsName":"","lineName":"10kV临港G351线","pubTranName":"东风村岳山公变,","scope":"浙江省杭州市余杭区仁和街道：东风村山前一带","startTime":"2019-11-06 08:20:00","stopDate":"2019-11-06 14:20:00","orgNo":"3340140","typeCode":"计划停电","poweroffArea":"110kV洛山变:临港G351线岳山1号公变分线","poweroffReason":"2019年杭州余杭仁和0.4千伏东山线东风村公变改造工程：山湾G3354线岳山前1#变新放120导线5档，落户线搭接12户，新上240电缆1根","powerTime":"2019-11-06 13:53:28","powerComm":"已送电","subsNo":"","lineNo":"","tgNo":"","tgName":null,"infoStatus":"1","orgName":"国网浙江杭州市余杭区供电有限公司","typeName":null,"infoStatusName":null,"dateDay":null,"orgNos":null,"nowTime":null,"countyName":null,"streetName":null,"villageName":null,"roadName":null,"communityName":null,"tranName":null,"sdLineName":null,"cityCode":"3340140","cityName":"国网浙江杭州市余杭区供电有限公司","provinceCode":null,"stopTime":"2019-11-06 14:20:00","powerType":"全部","powerOffArea":"110kV洛山变:临港G351线岳山1号公变分线","powerOffReason":"2019年杭州余杭仁和0.4千伏东山线东风村公变改造工程：山湾G3354线岳山前1#变新放120导线5档，落户线搭接12户，新上240电缆1根","powerOffId":"2019102831020313"},{"poweroffId":2019102831020312,"sgpoweroffId":null,"subsName":"","lineName":"10kV洋绛D782线","pubTranName":"杭州风铃养老服务有限公司,新元村3号元旦村口公变,红星村6#回龙庙公变,联群村1号祠堂公变,杭州富阳区场口镇东磊宾馆1#变,红星村3#三排公变,上沙村5号村东公变,红星村2号畈里公变,鸿丰村2号桑园公变,联群村2号加工厂公变,洋沙村1#中间公变,联群村4号大路渔塘公变,鸿丰村4#村南公变,联群农用,洋沙村2号教会公变,上沙村4#村口公变2,富阳市路灯安装维修管理所1#变,红星村4#渔场公变,杭州中亚新材料科技有限公司,洋沙村3#鱼塘公变,杭州市富阳区场口镇人民政府1#变,鸿丰村3号村口公变,杭州市富阳区场口镇人民政府#王洲幼儿园基建变,瓜桥埠村5号华家村北公变,红星农灌,鸿丰村,富阳市红星通讯器材有限公司,新元村2#三堡公变,杭州三国王洲商贸有限公司变压器,新元村4#村委公变,新元村1号新安公路边公变,杭州市富阳区场口镇人民政府（鸿丰排涝）1#变,瓜桥埠村3号长塘公变,联群村5号金家公变,联群村3号大路供销社公变,鸿丰村1号孙家路公变,富阳场口五金电镀厂,富阳市场口新区建设有限公司,杭州市富阳区场口镇人民政府（农产品中心）1#,洋沙村5#大塔村东公变,红星村1#二排公变3,红星村5号北塘公变,洋沙村4号大塔村口公变,","scope":"浙江省-杭州市-富阳区-场口镇-瓜桥埠行政村(华家自然村,瓜桥埠自然村),场口镇-联群行政村(金家自然村,联群自然村,大路自然村),场口镇-洋沙行政村(大塔里自然村,洋沙自然村),场口镇-新元行政村(元旦自然村,新安自然村),场口镇(鸿丰行政村-鸿丰自然村,红星行政村-红星自然村,场口行政村-场口自然村,上沙行政村-上沙自然村,百丈畈行政村-甘浦自然村);场口镇(富阳场口五金电镀厂,杭州中亚新材料科技有限公司,鸿丰村,杭州市富阳区场口镇红星村股份经济合作社,富阳市场口新区建设有限公司,联群农用,杭州市富阳区场口镇人民政府,富阳市红星通讯器材有限公司,杭州三国王洲商贸有限公司,杭州富阳区场口镇东磊宾馆,杭州富阳城市照明工程有限公司,杭州风铃养老服务有限公司)","startTime":"2019-10-28 16:30:00","stopDate":"2019-10-28 20:30:00","orgNo":"3340170","typeCode":"电网故障停限电","poweroffArea":"110kV王洲变:洋绛D782线洋绛一号开关站洋绛D782线开关后段","poweroffReason":"高压开关跳闸 原停电结束时间为2019-10-28 18:30:00,因抢修难度较大原因,现变更停电结束时间为2019-10-28 20:30:00","powerTime":"2019-10-28 20:01:01","powerComm":"已送电","subsNo":"","lineNo":"","tgNo":"","tgName":null,"infoStatus":"1","orgName":"国网浙江杭州市富阳区供电公司","typeName":null,"infoStatusName":null,"dateDay":null,"orgNos":null,"nowTime":null,"countyName":null,"streetName":null,"villageName":null,"roadName":null,"communityName":null,"tranName":null,"sdLineName":null,"cityCode":"3340170","cityName":"国网浙江杭州市富阳区供电公司","provinceCode":null,"stopTime":"2019-10-28 20:30:00","powerType":"全部","powerOffArea":"110kV王洲变:洋绛D782线洋绛一号开关站洋绛D782线开关后段","powerOffReason":"高压开关跳闸 原停电结束时间为2019-10-28 18:30:00,因抢修难度较大原因,现变更停电结束时间为2019-10-28 20:30:00","powerOffId":"2019102831020312"},{"poweroffId":2019102831020293,"sgpoweroffId":null,"subsName":"","lineName":"10kV沈家D212线","pubTranName":"大树下村1#村委公变,","scope":"浙江省-杭州市-富阳区-银湖街道-受降行政村-大树下自然村","startTime":"2019-11-06 08:50:00","stopDate":"2019-11-06 16:30:00","orgNo":"3340170","typeCode":"计划停电","poweroffArea":"110kV银湖变:沈家D212线-大树下村1#村委公变低压开关后段","poweroffReason":"(低压停电信息)杭州市富阳区受降村拆迁区块电力迁改工程拆接户线110处等工作","powerTime":"2019-11-06 16:16:21","powerComm":"已送电","subsNo":"","lineNo":"","tgNo":"","tgName":null,"infoStatus":"1","orgName":"国网浙江杭州市富阳区供电公司","typeName":null,"infoStatusName":null,"dateDay":null,"orgNos":null,"nowTime":null,"countyName":null,"streetName":null,"villageName":null,"roadName":null,"communityName":null,"tranName":null,"sdLineName":null,"cityCode":"3340170","cityName":"国网浙江杭州市富阳区供电公司","provinceCode":null,"stopTime":"2019-11-06 16:30:00","powerType":"全部","powerOffArea":"110kV银湖变:沈家D212线-大树下村1#村委公变低压开关后段","powerOffReason":"(低压停电信息)杭州市富阳区受降村拆迁区块电力迁改工程拆接户线110处等工作","powerOffId":"2019102831020293"},{"poweroffId":2019102831020290,"sgpoweroffId":null,"subsName":"","lineName":"10kV咸康D208线","pubTranName":"云二村4#栗树坞公变,","scope":"浙江省-杭州市-富阳区-春建乡-春建行政村(云二自然村,栗树坞自然村)","startTime":"2019-11-08 07:30:00","stopDate":"2019-11-08 16:50:00","orgNo":"3340170","typeCode":"计划停电","poweroffArea":"35kV大青变:咸康D208线-云二村4#栗树坞后段","poweroffReason":"(低压停电信息)青云2019年蒋家村12#林场公变等低压台区改造工程拆旧，架设11kV120*4*7档，更换落户线32处，搭接等工作","powerTime":"2019-11-08 16:38:05","powerComm":"已送电","subsNo":"","lineNo":"","tgNo":"","tgName":null,"infoStatus":"1","orgName":"国网浙江杭州市富阳区供电公司","typeName":null,"infoStatusName":null,"dateDay":null,"orgNos":null,"nowTime":null,"countyName":null,"streetName":null,"villageName":null,"roadName":null,"communityName":null,"tranName":null,"sdLineName":null,"cityCode":"3340170","cityName":"国网浙江杭州市富阳区供电公司","provinceCode":null,"stopTime":"2019-11-08 16:50:00","powerType":"全部","powerOffArea":"35kV大青变:咸康D208线-云二村4#栗树坞后段","powerOffReason":"(低压停电信息)青云2019年蒋家村12#林场公变等低压台区改造工程拆旧，架设11kV120*4*7档，更换落户线32处，搭接等工作","powerOffId":"2019102831020290"},{"poweroffId":2019102831020289,"sgpoweroffId":null,"subsName":"","lineName":"10kV沈家D212线","pubTranName":"大树下村4#黄沙畈公变,","scope":"浙江省-杭州市-富阳区-银湖街道-受降行政村(黄沙畈自然村,大树下自然村)","startTime":"2019-11-08 08:50:00","stopDate":"2019-11-08 16:30:00","orgNo":"3340170","typeCode":"计划停电","poweroffArea":"110kV银湖变:沈家D212线-大树下村4#黄沙畈公变低压开关后段","poweroffReason":"(低压停电信息)杭州市富阳区受降村拆迁区块电力迁改工程拆接户线110处等工作","powerTime":"2019-11-08 16:20:37","powerComm":"已送电","subsNo":"","lineNo":"","tgNo":"","tgName":null,"infoStatus":"1","orgName":"国网浙江杭州市富阳区供电公司","typeName":null,"infoStatusName":null,"dateDay":null,"orgNos":null,"nowTime":null,"countyName":null,"streetName":null,"villageName":null,"roadName":null,"communityName":null,"tranName":null,"sdLineName":null,"cityCode":"3340170","cityName":"国网浙江杭州市富阳区供电公司","provinceCode":null,"stopTime":"2019-11-08 16:30:00","powerType":"全部","powerOffArea":"110kV银湖变:沈家D212线-大树下村4#黄沙畈公变低压开关后段","powerOffReason":"(低压停电信息)杭州市富阳区受降村拆迁区块电力迁改工程拆接户线110处等工作","powerOffId":"2019102831020289"},{"poweroffId":2019102831020288,"sgpoweroffId":null,"subsName":"","lineName":"10kV沈家D212线","pubTranName":"受降大树下村5号塘溪堰公变,","scope":"浙江省-杭州市-富阳区-银湖街道-银湖行政村-祝家村自然村,银湖街道-受降行政村(大树下自然村,甘口自然村)","startTime":"2019-11-07 08:50:00","stopDate":"2019-11-07 16:30:00","orgNo":"3340170","typeCode":"计划停电","poweroffArea":"110kV银湖变:沈家D212线-受降大树下村5号塘溪堰公变低压开关后段","poweroffReason":"(低压停电信息)杭州市富阳区受降村拆迁区块电力迁改工程拆接户线120处等工作","powerTime":"2019-11-07 16:21:45","powerComm":"已送电","subsNo":"","lineNo":"","tgNo":"","tgName":null,"infoStatus":"1","orgName":"国网浙江杭州市富阳区供电公司","typeName":null,"infoStatusName":null,"dateDay":null,"orgNos":null,"nowTime":null,"countyName":null,"streetName":null,"villageName":null,"roadName":null,"communityName":null,"tranName":null,"sdLineName":null,"cityCode":"3340170","cityName":"国网浙江杭州市富阳区供电公司","provinceCode":null,"stopTime":"2019-11-07 16:30:00","powerType":"全部","powerOffArea":"110kV银湖变:沈家D212线-受降大树下村5号塘溪堰公变低压开关后段","powerOffReason":"(低压停电信息)杭州市富阳区受降村拆迁区块电力迁改工程拆接户线120处等工作","powerOffId":"2019102831020288"},{"poweroffId":2019102831020287,"sgpoweroffId":null,"subsName":"","lineName":"10kV灵山D143线","pubTranName":"半山村11号桥岭青坞里公变,","scope":"浙江省杭州市富阳区新登镇半山行政村青坞里自然村、桥岭江桥自然村一带","startTime":"2019-11-10 08:30:00","stopDate":"2019-11-10 16:30:00","orgNo":"3340170","typeCode":"计划停电","poweroffArea":"110kV新登变:灵山D143线170#杆半山分线9#杆青河里支线","poweroffReason":"青河里支线4#杆-17#杆导线、杆子拆除、4#杆-17#杆新架导线等工作","powerTime":"2019-11-10 16:19:59","powerComm":"已送电","subsNo":"","lineNo":"","tgNo":"","tgName":null,"infoStatus":"1","orgName":"国网浙江杭州市富阳区供电公司","typeName":null,"infoStatusName":null,"dateDay":null,"orgNos":null,"nowTime":null,"countyName":null,"streetName":null,"villageName":null,"roadName":null,"communityName":null,"tranName":null,"sdLineName":null,"cityCode":"3340170","cityName":"国网浙江杭州市富阳区供电公司","provinceCode":null,"stopTime":"2019-11-10 16:30:00","powerType":"全部","powerOffArea":"110kV新登变:灵山D143线170#杆半山分线9#杆青河里支线","powerOffReason":"青河里支线4#杆-17#杆导线、杆子拆除、4#杆-17#杆新架导线等工作","powerOffId":"2019102831020287"},{"poweroffId":2019102831020284,"sgpoweroffId":null,"subsName":"","lineName":"10kV杭千D427线","pubTranName":"东洲运动休闲建设1#变压器,","scope":"浙江省杭州市富阳区东洲街道东洲运动休闲新城建设投资有限公司一带","startTime":"2019-11-07 09:10:00","stopDate":"2019-11-07 17:00:00","orgNo":"3340170","typeCode":"计划停电","poweroffArea":"110kV东洲变:杭千D427线-东洲运动休闲建设1#熔断器后段","poweroffReason":"配合客户内部检修，原停电结束时间为2019-11-07 16:30:00,因现场抢修难度大,现变更停电结束时间为2019-11-07 17:00:00","powerTime":"2019-11-07 16:53:16","powerComm":"已送电","subsNo":"","lineNo":"","tgNo":"","tgName":null,"infoStatus":"1","orgName":"国网浙江杭州市富阳区供电公司","typeName":null,"infoStatusName":null,"dateDay":null,"orgNos":null,"nowTime":null,"countyName":null,"streetName":null,"villageName":null,"roadName":null,"communityName":null,"tranName":null,"sdLineName":null,"cityCode":"3340170","cityName":"国网浙江杭州市富阳区供电公司","provinceCode":null,"stopTime":"2019-11-07 17:00:00","powerType":"全部","powerOffArea":"110kV东洲变:杭千D427线-东洲运动休闲建设1#熔断器后段","powerOffReason":"配合客户内部检修，原停电结束时间为2019-11-07 16:30:00,因现场抢修难度大,现变更停电结束时间为2019-11-07 17:00:00","powerOffId":"2019102831020284"},{"poweroffId":2019102831020282,"sgpoweroffId":null,"subsName":"","lineName":"10kV杭千D427线","pubTranName":"杭州杭千高速公路发展有限公司,","scope":"浙江省杭州市富阳区东洲街道杭州杭千高速公路发展有限公司一带","startTime":"2019-11-07 08:50:00","stopDate":"2019-11-07 17:00:00","orgNo":"3340170","typeCode":"计划停电","poweroffArea":"110kV东洲变:杭千D427线-杭州杭千高速公路发展有限公司后段","poweroffReason":"配合客户内部检修，原停电结束时间为2019-11-07 16:30:00,因现场抢修难度大,现变更停电结束时间为2019-11-07 17:00:00","powerTime":"2019-11-07 16:53:04","powerComm":"已送电","subsNo":"","lineNo":"","tgNo":"","tgName":null,"infoStatus":"1","orgName":"国网浙江杭州市富阳区供电公司","typeName":null,"infoStatusName":null,"dateDay":null,"orgNos":null,"nowTime":null,"countyName":null,"streetName":null,"villageName":null,"roadName":null,"communityName":null,"tranName":null,"sdLineName":null,"cityCode":"3340170","cityName":"国网浙江杭州市富阳区供电公司","provinceCode":null,"stopTime":"2019-11-07 17:00:00","powerType":"全部","powerOffArea":"110kV东洲变:杭千D427线-杭州杭千高速公路发展有限公司后段","powerOffReason":"配合客户内部检修，原停电结束时间为2019-11-07 16:30:00,因现场抢修难度大,现变更停电结束时间为2019-11-07 17:00:00","powerOffId":"2019102831020282"}],"pageModel":{"pageNow":942,"totalCount":17789,"totalPage":1779,"tableRows":0,"pageCount":10,"beginCount":9410},"isExperi":"1"}