{"message":"","today":"2020-06-16","seleList":[{"poweroffId":2019102731020223,"sgpoweroffId":null,"subsName":"","lineName":"10kV月弦V747线","pubTranName":"青山民主舍门前公变,","scope":"浙江省-杭州市-临安市-锦北街道青山民主舍门前一带","startTime":"2019-11-07 08:50:00","stopDate":"2019-11-07 12:50:00","orgNo":"3340160","typeCode":"计划停电","poweroffArea":"110kV科创变:停月弦V747线山居站青山民主舍门前公变分线开关","poweroffReason":"线路割接","powerTime":"2019-11-07 12:45:27","powerComm":"已送电","subsNo":"","lineNo":"","tgNo":"","tgName":null,"infoStatus":"1","orgName":"国网浙江临安市供电公司","typeName":null,"infoStatusName":null,"dateDay":null,"orgNos":null,"nowTime":null,"countyName":null,"streetName":null,"villageName":null,"roadName":null,"communityName":null,"tranName":null,"sdLineName":null,"cityCode":"3340160","cityName":"国网浙江临安市供电公司","provinceCode":null,"stopTime":"2019-11-07 12:50:00","powerType":"全部","powerOffArea":"110kV科创变:停月弦V747线山居站青山民主舍门前公变分线开关","powerOffReason":"线路割接","powerOffId":"2019102731020223"},{"poweroffId":2019102731020222,"sgpoweroffId":null,"subsName":"","lineName":"10kV月弦V747线","pubTranName":"杭州杭临轨道交通有限公司7#,","scope":"浙江省-杭州市-临安市-锦北街道-民主行政村城际铁路高架段7号基建一带","startTime":"2019-11-07 08:00:00","stopDate":"2019-11-07 12:00:00","orgNo":"3340160","typeCode":"计划停电","poweroffArea":"110kV科创变:停月弦V747线山居站至笑岭城铁分线开关","poweroffReason":"线路割接","powerTime":"2019-11-07 11:50:15","powerComm":"已送电","subsNo":"","lineNo":"","tgNo":"","tgName":null,"infoStatus":"1","orgName":"国网浙江临安市供电公司","typeName":null,"infoStatusName":null,"dateDay":null,"orgNos":null,"nowTime":null,"countyName":null,"streetName":null,"villageName":null,"roadName":null,"communityName":null,"tranName":null,"sdLineName":null,"cityCode":"3340160","cityName":"国网浙江临安市供电公司","provinceCode":null,"stopTime":"2019-11-07 12:00:00","powerType":"全部","powerOffArea":"110kV科创变:停月弦V747线山居站至笑岭城铁分线开关","powerOffReason":"线路割接","powerOffId":"2019102731020222"},{"poweroffId":2019102731020221,"sgpoweroffId":null,"subsName":"","lineName":"10kV科技V792线","pubTranName":"民主村老虎山公变,","scope":"浙江省-杭州市-临安市-青山湖街道民主村老虎山一带","startTime":"2019-11-06 12:30:00","stopDate":"2019-11-06 16:30:00","orgNo":"3340160","typeCode":"计划停电","poweroffArea":"110kV胜联变:停科技V792线青岭站至民主村老虎山分线开关","poweroffReason":"线路割接","powerTime":"2019-11-06 16:20:10","powerComm":"已送电","subsNo":"","lineNo":"","tgNo":"","tgName":null,"infoStatus":"1","orgName":"国网浙江临安市供电公司","typeName":null,"infoStatusName":null,"dateDay":null,"orgNos":null,"nowTime":null,"countyName":null,"streetName":null,"villageName":null,"roadName":null,"communityName":null,"tranName":null,"sdLineName":null,"cityCode":"3340160","cityName":"国网浙江临安市供电公司","provinceCode":null,"stopTime":"2019-11-06 16:30:00","powerType":"全部","powerOffArea":"110kV胜联变:停科技V792线青岭站至民主村老虎山分线开关","powerOffReason":"线路割接","powerOffId":"2019102731020221"},{"poweroffId":2019102731020220,"sgpoweroffId":null,"subsName":"","lineName":"10kV科技V792线","pubTranName":"杭州青山湖石化有限公司,","scope":"浙江省-杭州市-临安市-锦北街道-民主行政村-杭州青山湖石化有限公司一带","startTime":"2019-11-06 13:30:00","stopDate":"2019-11-06 16:20:00","orgNo":"3340160","typeCode":"计划停电","poweroffArea":"110kV胜联变:停科技V792线青岭站青山湖石化分线开关","poweroffReason":"线路割接","powerTime":"2019-11-06 16:10:12","powerComm":"已送电","subsNo":"","lineNo":"","tgNo":"","tgName":null,"infoStatus":"1","orgName":"国网浙江临安市供电公司","typeName":null,"infoStatusName":null,"dateDay":null,"orgNos":null,"nowTime":null,"countyName":null,"streetName":null,"villageName":null,"roadName":null,"communityName":null,"tranName":null,"sdLineName":null,"cityCode":"3340160","cityName":"国网浙江临安市供电公司","provinceCode":null,"stopTime":"2019-11-06 16:20:00","powerType":"全部","powerOffArea":"110kV胜联变:停科技V792线青岭站青山湖石化分线开关","powerOffReason":"线路割接","powerOffId":"2019102731020220"},{"poweroffId":2019102731020219,"sgpoweroffId":null,"subsName":"","lineName":"10kV科技V792线","pubTranName":"浙江临安锦绣钱塘房地产开发有限公司(会所二号),","scope":"浙江省-杭州市-临安市-锦北街道-民主行政村-浙江临安锦绣钱塘房地产开发有限公司(会所二号)一带","startTime":"2019-11-06 12:00:00","stopDate":"2019-11-06 13:30:00","orgNo":"3340160","typeCode":"计划停电","poweroffArea":"110kV胜联变:停科技V792线钱塘站锦绣钱塘分线锦绣钱塘开闭所会所2#支线开关","poweroffReason":"线路割接","powerTime":"2019-11-06 13:20:56","powerComm":"已送电","subsNo":"","lineNo":"","tgNo":"","tgName":null,"infoStatus":"1","orgName":"国网浙江临安市供电公司","typeName":null,"infoStatusName":null,"dateDay":null,"orgNos":null,"nowTime":null,"countyName":null,"streetName":null,"villageName":null,"roadName":null,"communityName":null,"tranName":null,"sdLineName":null,"cityCode":"3340160","cityName":"国网浙江临安市供电公司","provinceCode":null,"stopTime":"2019-11-06 13:30:00","powerType":"全部","powerOffArea":"110kV胜联变:停科技V792线钱塘站锦绣钱塘分线锦绣钱塘开闭所会所2#支线开关","powerOffReason":"线路割接","powerOffId":"2019102731020219"},{"poweroffId":2019102731020218,"sgpoweroffId":null,"subsName":"","lineName":"10kV科技V792线","pubTranName":"锦绣钱塘11#,锦绣钱塘9#变,锦绣钱塘28#变,锦绣钱塘25#变,锦绣钱塘29#变,锦绣钱塘20#变,锦绣钱塘5#变,锦绣钱塘16#,锦绣钱塘27#变,锦绣钱塘1＃变,锦绣钱塘4＃变,锦绣钱塘2#变,锦绣钱塘17#,浙江临安锦绣钱塘房地产开发有限公司(会所一号),浙江锦绣钱塘房地产开发有限公司1#,锦绣钱塘21＃变,锦绣钱塘23＃变,锦绣钱塘12#,锦绣钱塘26#变,锦绣钱塘10#变,锦绣钱塘6#变,锦绣钱塘3#变,锦绣钱塘13#,锦绣钱塘7#变,锦绣钱塘14#,锦绣钱塘19#变,浙江临安锦绣钱塘房地产开发有限公司（1）,锦绣钱塘18#,锦绣钱塘8#变,锦绣钱塘22＃变,锦绣钱塘24＃变,锦绣钱塘15#,","scope":"浙江省-杭州市-临安市-锦北街道-民主行政村-民主自然村,青山湖街道浙江临安锦绣钱塘房地产开发有限公司；锦绣钱塘小区一带","startTime":"2019-11-06 12:00:00","stopDate":"2019-11-06 12:30:00","orgNo":"3340160","typeCode":"计划停电","poweroffArea":"110kV胜联变:1、停科技V792线钱塘站锦绣钱塘分线开关； 2、停科瑰V772线51#杆空载分线开关； 3、停科技V792线锦绣钱塘开闭所进线开关","poweroffReason":"线路割接","powerTime":"2019-11-06 12:20:03","powerComm":"已送电","subsNo":"","lineNo":"","tgNo":"","tgName":null,"infoStatus":"1","orgName":"国网浙江临安市供电公司","typeName":null,"infoStatusName":null,"dateDay":null,"orgNos":null,"nowTime":null,"countyName":null,"streetName":null,"villageName":null,"roadName":null,"communityName":null,"tranName":null,"sdLineName":null,"cityCode":"3340160","cityName":"国网浙江临安市供电公司","provinceCode":null,"stopTime":"2019-11-06 12:30:00","powerType":"全部","powerOffArea":"110kV胜联变:1、停科技V792线钱塘站锦绣钱塘分线开关； 2、停科瑰V772线51#杆空载分线开关； 3、停科技V792线锦绣钱塘开闭所进线开关","powerOffReason":"线路割接","powerOffId":"2019102731020218"},{"poweroffId":2019102731020217,"sgpoweroffId":null,"subsName":"","lineName":"10kV科技V792线","pubTranName":"临安西子房地产开发有限公司1#,","scope":"浙江省-杭州市-临安市-锦北街道-民主行政村-杭州临安西子房地产开发有限公司一带","startTime":"2019-11-06 08:00:00","stopDate":"2019-11-06 12:00:00","orgNo":"3340160","typeCode":"计划停电","poweroffArea":"110kV胜联变:停科技V792线钱塘站笑岭西子分线开关","poweroffReason":"线路改造","powerTime":"2019-11-06 11:50:29","powerComm":"已送电","subsNo":"","lineNo":"","tgNo":"","tgName":null,"infoStatus":"1","orgName":"国网浙江临安市供电公司","typeName":null,"infoStatusName":null,"dateDay":null,"orgNos":null,"nowTime":null,"countyName":null,"streetName":null,"villageName":null,"roadName":null,"communityName":null,"tranName":null,"sdLineName":null,"cityCode":"3340160","cityName":"国网浙江临安市供电公司","provinceCode":null,"stopTime":"2019-11-06 12:00:00","powerType":"全部","powerOffArea":"110kV胜联变:停科技V792线钱塘站笑岭西子分线开关","powerOffReason":"线路改造","powerOffId":"2019102731020217"},{"poweroffId":2019102731020216,"sgpoweroffId":null,"subsName":"","lineName":"10kV科技V792线","pubTranName":"浙江临安锦绣钱塘房地产开发有限公司(会所二号),","scope":"浙江省-杭州市-临安市-锦北街道-民主行政村浙江临安锦绣钱塘房地产开发有限公司（会所2）一带","startTime":"2019-11-06 07:40:00","stopDate":"2019-11-06 09:00:00","orgNo":"3340160","typeCode":"计划停电","poweroffArea":"110kV胜联变:停科技V792线钱塘站锦绣钱塘分线锦绣钱塘开闭所会所2#支线开关","poweroffReason":"线路改造","powerTime":"2019-11-06 08:50:27","powerComm":"已送电","subsNo":"","lineNo":"","tgNo":"","tgName":null,"infoStatus":"1","orgName":"国网浙江临安市供电公司","typeName":null,"infoStatusName":null,"dateDay":null,"orgNos":null,"nowTime":null,"countyName":null,"streetName":null,"villageName":null,"roadName":null,"communityName":null,"tranName":null,"sdLineName":null,"cityCode":"3340160","cityName":"国网浙江临安市供电公司","provinceCode":null,"stopTime":"2019-11-06 09:00:00","powerType":"全部","powerOffArea":"110kV胜联变:停科技V792线钱塘站锦绣钱塘分线锦绣钱塘开闭所会所2#支线开关","powerOffReason":"线路改造","powerOffId":"2019102731020216"},{"poweroffId":2019102731020214,"sgpoweroffId":null,"subsName":"","lineName":"10kV科技V792线","pubTranName":"锦绣钱塘21＃变,浙江锦绣钱塘房地产开发有限公司1#,锦绣钱塘10#变,锦绣钱塘17#,锦绣钱塘26#变,锦绣钱塘28#变,锦绣钱塘15#,锦绣钱塘5#变,锦绣钱塘25#变,锦绣钱塘14#,锦绣钱塘23＃变,锦绣钱塘8#变,锦绣钱塘9#变,锦绣钱塘3#变,锦绣钱塘11#,锦绣钱塘13#,锦绣钱塘20#变,锦绣钱塘29#变,锦绣钱塘22＃变,锦绣钱塘18#,锦绣钱塘1＃变,锦绣钱塘7#变,锦绣钱塘12#,锦绣钱塘4＃变,锦绣钱塘24＃变,锦绣钱塘2#变,锦绣钱塘16#,浙江临安锦绣钱塘房地产开发有限公司（1）,浙江临安锦绣钱塘房地产开发有限公司(会所一号),锦绣钱塘19#变,锦绣钱塘6#变,锦绣钱塘27#变,","scope":"浙江省-杭州市-临安市-锦北街道-民主行政村-民主自然村,青山湖街道浙江临安锦绣钱塘房地产开发有限公司，锦绣钱塘小区一带","startTime":"2019-11-06 08:30:00","stopDate":"2019-11-06 09:00:00","orgNo":"3340160","typeCode":"计划停电","poweroffArea":"110kV胜联变:1、停科技V792线钱塘站锦绣钱塘分线开关； 2、停科瑰V772线51#杆空载分线开关； 3、停科技V792线锦绣钱塘开闭所进线开关","poweroffReason":"线路割接","powerTime":"2019-11-06 08:50:31","powerComm":"已送电","subsNo":"","lineNo":"","tgNo":"","tgName":null,"infoStatus":"1","orgName":"国网浙江临安市供电公司","typeName":null,"infoStatusName":null,"dateDay":null,"orgNos":null,"nowTime":null,"countyName":null,"streetName":null,"villageName":null,"roadName":null,"communityName":null,"tranName":null,"sdLineName":null,"cityCode":"3340160","cityName":"国网浙江临安市供电公司","provinceCode":null,"stopTime":"2019-11-06 09:00:00","powerType":"全部","powerOffArea":"110kV胜联变:1、停科技V792线钱塘站锦绣钱塘分线开关； 2、停科瑰V772线51#杆空载分线开关； 3、停科技V792线锦绣钱塘开闭所进线开关","powerOffReason":"线路割接","powerOffId":"2019102731020214"},{"poweroffId":2019102731020212,"sgpoweroffId":null,"subsName":"","lineName":"10kV皋村378线","pubTranName":"杭州广仁医院有限公司,新艮一变,市政新塘八号泵站,01,市政新塘八号泵站,皋塘(10-2)农,新艮二变,皋塘（12-3）农,杭州市工业房产公司,皋塘（10-3）农,皋塘（12-2）农,新三,02,皋塘(10)农,","scope":"浙江省-杭州市-江干区-彭埠镇-皋塘社区-新塘路,闸弄口街道-闸弄口社区-艮山西路;彭埠镇-皋塘社区(杭州广仁医院有限公司,杭州星际物业管理有限公司),彭埠镇-新塘社区-杭州东站服装市场,闸弄口街道-闻皇庙社区-杭州市排水有限公司","startTime":"2019-10-27 21:51:27","stopDate":"2019-10-28 02:00:00","orgNo":"3340101","typeCode":"电网故障停限电","poweroffArea":"35kV新塘变:皋村378线","poweroffReason":"高压开关跳闸 原停电结束时间为2019-10-28 08:00:00,为减少客户停电时间,加快工作进度,提前送电,现变更停电结束时间为2019-10-28 02:00:00","powerTime":"2019-10-28 01:02:07","powerComm":"已送电","subsNo":"","lineNo":"","tgNo":"","tgName":null,"infoStatus":"1","orgName":"浙江杭州电力客户服务中心","typeName":null,"infoStatusName":null,"dateDay":null,"orgNos":null,"nowTime":null,"countyName":null,"streetName":null,"villageName":null,"roadName":null,"communityName":null,"tranName":null,"sdLineName":null,"cityCode":"3340101","cityName":"浙江杭州电力客户服务中心","provinceCode":null,"stopTime":"2019-10-28 02:00:00","powerType":"全部","powerOffArea":"35kV新塘变:皋村378线","powerOffReason":"高压开关跳闸 原停电结束时间为2019-10-28 08:00:00,为减少客户停电时间,加快工作进度,提前送电,现变更停电结束时间为2019-10-28 02:00:00","powerOffId":"2019102731020212"}],"pageModel":{"pageNow":946,"totalCount":17789,"totalPage":1779,"tableRows":0,"pageCount":10,"beginCount":9450},"isExperi":"1"}