{"message":"","today":"2020-06-16","seleList":[{"poweroffId":2019102731020210,"sgpoweroffId":null,"subsName":"","lineName":"10kV艮路380线","pubTranName":"皋村农,畜产,复开,东华,市政新塘八号泵站,杭州市工业房产公司,皋塘(9)农,皋塘(9-2)农,城建（10）,杭州市市政设施监管中心,皋塘(8-1)农,市政新塘八号泵站,皋塘（9-3）农,","scope":"浙江省-杭州市-江干区-彭埠镇-皋塘社区(新塘路,艮山西路);浙江省-杭州市-江干区-闸弄口街道-闻皇庙社区-杭州市排水有限公司,彭埠镇-皋塘社区(杭州城北电气承装公司,杭州市市政设施发展中心,杭州星际物业管理有限公司)","startTime":"2019-10-27 21:49:22","stopDate":"2019-10-28 02:00:00","orgNo":"3340101","typeCode":"电网故障停限电","poweroffArea":"35kV新塘变:艮路380线","poweroffReason":"高压开关跳闸 原停电结束时间为2019-10-28 08:00:00,为减少客户停电时间,加快工作进度,提前送电,现变更停电结束时间为2019-10-28 02:00:00","powerTime":"2019-10-28 01:01:47","powerComm":"已送电","subsNo":"","lineNo":"","tgNo":"","tgName":null,"infoStatus":"1","orgName":"浙江杭州电力客户服务中心","typeName":null,"infoStatusName":null,"dateDay":null,"orgNos":null,"nowTime":null,"countyName":null,"streetName":null,"villageName":null,"roadName":null,"communityName":null,"tranName":null,"sdLineName":null,"cityCode":"3340101","cityName":"浙江杭州电力客户服务中心","provinceCode":null,"stopTime":"2019-10-28 02:00:00","powerType":"全部","powerOffArea":"35kV新塘变:艮路380线","powerOffReason":"高压开关跳闸 原停电结束时间为2019-10-28 08:00:00,为减少客户停电时间,加快工作进度,提前送电,现变更停电结束时间为2019-10-28 02:00:00","powerOffId":"2019102731020210"},{"poweroffId":2019102731020209,"sgpoweroffId":null,"subsName":"","lineName":"10kV石门C162线","pubTranName":"同鑫建材,富春村11#变,富春村8#变,桑园机埠,杭州市萧山区义桥镇人民政府,富春村14#变,东方船舶,富春村1#变,富春村6#变,富春村3#变,富春村7#变,富春村5#变,富春村13#变,元宝沙机埠002,富春村15#变,富春村12#变,","scope":"浙江省-杭州市-萧山区-义桥镇-富春行政村(石门沙自然村,富春自然村,四姑湾自然村,传雅沙自然村);义桥镇-富春行政村(杭州市萧山区义桥镇人民政府,杭州市萧山区义桥镇农业办公室,杭州萧山义桥镇同鑫新型建材厂,杭州东江嘴股份经济合作社,杭州东方船舶修造有限公司)，浙江省杭州市萧山区义桥镇富春行政村一带","startTime":"2019-10-27 21:36:17","stopDate":"2019-10-27 23:40:17","orgNo":"3340130","typeCode":"电网故障停限电","poweroffArea":"110kV许贤变:石门C162线-石门C162线富春分线开关后段","poweroffReason":"外力破坏引起高压电杆断杆故障","powerTime":"2019-10-27 23:04:40","powerComm":"已送电","subsNo":"","lineNo":"","tgNo":"","tgName":null,"infoStatus":"1","orgName":"国网浙江杭州市萧山区供电有限公司","typeName":null,"infoStatusName":null,"dateDay":null,"orgNos":null,"nowTime":null,"countyName":null,"streetName":null,"villageName":null,"roadName":null,"communityName":null,"tranName":null,"sdLineName":null,"cityCode":"3340130","cityName":"国网浙江杭州市萧山区供电有限公司","provinceCode":null,"stopTime":"2019-10-27 23:40:17","powerType":"全部","powerOffArea":"110kV许贤变:石门C162线-石门C162线富春分线开关后段","powerOffReason":"外力破坏引起高压电杆断杆故障","powerOffId":"2019102731020209"},{"poweroffId":2019102731020207,"sgpoweroffId":null,"subsName":"","lineName":"10kV盐场A289线","pubTranName":"南沙村盐场2#变,","scope":"浙江省-杭州市-萧山区-义蓬街道-江盛社区-仓创、头蓬街道南沙村、盐场、义蓬街道南沙行政村、盐场、小泗埠头村一带","startTime":"2019-10-27 21:10:39","stopDate":"2019-10-27 22:40:39","orgNo":"3340120","typeCode":"电网故障停限电","poweroffArea":"110kV建湾变:盐场A289线-南沙盐场2#变台区低压开关","poweroffReason":"(低压停电信息)低压开关跳闸","powerTime":"2019-10-27 21:48:05","powerComm":"已送电","subsNo":"","lineNo":"","tgNo":"","tgName":null,"infoStatus":"1","orgName":"国网浙江杭州市钱塘新区供电公司","typeName":null,"infoStatusName":null,"dateDay":null,"orgNos":null,"nowTime":null,"countyName":null,"streetName":null,"villageName":null,"roadName":null,"communityName":null,"tranName":null,"sdLineName":null,"cityCode":"3340120","cityName":"国网浙江杭州市钱塘新区供电公司","provinceCode":null,"stopTime":"2019-10-27 22:40:39","powerType":"全部","powerOffArea":"110kV建湾变:盐场A289线-南沙盐场2#变台区低压开关","powerOffReason":"(低压停电信息)低压开关跳闸","powerOffId":"2019102731020207"},{"poweroffId":2019102731020195,"sgpoweroffId":null,"subsName":"","lineName":"10kV凤凰Y323线","pubTranName":"东方村下姜台区,东方村汤家坞台区,东方村上姜台区,","scope":"浙江省-杭州市-建德市-三都镇-东方行政村 下姜自然村,上姜自然村,汤家坞自然村一带用户","startTime":"2019-10-27 19:40:00","stopDate":"2019-10-27 23:59:00","orgNo":"3340180","typeCode":"电网故障停限电","poweroffArea":"35kV三都变:凤凰Y323线上姜支线26#杆真空开关后段","poweroffReason":"高压开关跳闸 原停电结束时间为2019-10-27 23:00:00,因现场环境复杂原因,现变更停电结束时间为2019-10-27 23:59:00","powerTime":"2019-10-27 23:50:00","powerComm":"已送电","subsNo":"","lineNo":"","tgNo":"","tgName":null,"infoStatus":"1","orgName":"国网浙江建德市供电有限公司","typeName":null,"infoStatusName":null,"dateDay":null,"orgNos":null,"nowTime":null,"countyName":null,"streetName":null,"villageName":null,"roadName":null,"communityName":null,"tranName":null,"sdLineName":null,"cityCode":"3340180","cityName":"国网浙江建德市供电有限公司","provinceCode":null,"stopTime":"2019-10-27 23:59:00","powerType":"全部","powerOffArea":"35kV三都变:凤凰Y323线上姜支线26#杆真空开关后段","powerOffReason":"高压开关跳闸 原停电结束时间为2019-10-27 23:00:00,因现场环境复杂原因,现变更停电结束时间为2019-10-27 23:59:00","powerOffId":"2019102731020195"},{"poweroffId":2019102731020189,"sgpoweroffId":null,"subsName":"","lineName":"10kV桥东Y234线","pubTranName":"聚龙1#公变,","scope":"浙江省-杭州市-建德市-新安江街道-新安社区-灵栖路聚龙大厦一带用户","startTime":"2019-10-27 19:09:00","stopDate":"2019-10-27 22:00:00","orgNo":"3340180","typeCode":"电网故障停限电","poweroffArea":"110kV白沙变:桥东Y234线-聚龙1#公变后段","poweroffReason":"(低压停电信息)低压开关跳闸 原停电结束时间为2019-10-27 21:00:00,因现场环境复杂原因,现变更停电结束时间为2019-10-27 22:00:00","powerTime":"2019-10-27 21:23:00","powerComm":"已送电","subsNo":"","lineNo":"","tgNo":"","tgName":null,"infoStatus":"1","orgName":"国网浙江建德市供电有限公司","typeName":null,"infoStatusName":null,"dateDay":null,"orgNos":null,"nowTime":null,"countyName":null,"streetName":null,"villageName":null,"roadName":null,"communityName":null,"tranName":null,"sdLineName":null,"cityCode":"3340180","cityName":"国网浙江建德市供电有限公司","provinceCode":null,"stopTime":"2019-10-27 22:00:00","powerType":"全部","powerOffArea":"110kV白沙变:桥东Y234线-聚龙1#公变后段","powerOffReason":"(低压停电信息)低压开关跳闸 原停电结束时间为2019-10-27 21:00:00,因现场环境复杂原因,现变更停电结束时间为2019-10-27 22:00:00","powerOffId":"2019102731020189"},{"poweroffId":2019102731020181,"sgpoweroffId":null,"subsName":"","lineName":"10kV凤鸣252线","pubTranName":"石泉村2号公变,","scope":"浙江省-杭州市-桐庐县-江南镇-石泉行政村-石泉自然村","startTime":"2019-10-27 18:26:37","stopDate":"2019-10-27 20:26:37","orgNo":"3340150","typeCode":"电网故障停限电","poweroffArea":"110kV石阜变:凤鸣252线-石泉村2号公变后段","poweroffReason":"(低压停电信息)低压开关跳闸","powerTime":"2019-10-27 19:51:34","powerComm":"已送电","subsNo":"","lineNo":"","tgNo":"","tgName":null,"infoStatus":"1","orgName":"国网浙江桐庐县供电公司","typeName":null,"infoStatusName":null,"dateDay":null,"orgNos":null,"nowTime":null,"countyName":null,"streetName":null,"villageName":null,"roadName":null,"communityName":null,"tranName":null,"sdLineName":null,"cityCode":"3340150","cityName":"国网浙江桐庐县供电公司","provinceCode":null,"stopTime":"2019-10-27 20:26:37","powerType":"全部","powerOffArea":"110kV石阜变:凤鸣252线-石泉村2号公变后段","powerOffReason":"(低压停电信息)低压开关跳闸","powerOffId":"2019102731020181"},{"poweroffId":2019102731020170,"sgpoweroffId":null,"subsName":"","lineName":"10kV道古G994线","pubTranName":"星桥街道办事处,丁山凉亭,泰格电子630kVA配变,丁山6组（方兴村）公变,澳利斯橡塑变2#,横山2组（安家潭）公变,飞达电子照明1#,博宏纱线,丁山3组（涧河口）公变,王莹机械,丽娜服饰,飞达电子照明2#,星罗彩钢板,澳利斯橡塑变1#,海源汽修,宣杭铁路1#基建变,杭州余杭城市建设集团有限公司61208261091#变压器,横山2组（安家潭）2号公变,城建铁路400,中宏2#基建,丁山4组（涧河口）公变,旺旺仓库,永南电瓶车,美力生彩印,","scope":"浙江省-杭州市-余杭区-星桥街道-枉山社区-枉山,临平街道-丁山社区(丁山,方兴渡自然村);星桥街道(杭州博宏纱线有限公司,杭州余杭丽娜服饰有限公司,杭州永南电瓶车厂,杭州星罗彩钢板活动房有限公司,杭州王莹机械有限公司,杭州海源汽车修理有限公司,杭州市余杭区人民政府星桥街道办事处,杭州澳利斯橡塑保温材料有限公司,杭州泰格电子电器有限公司,杭州美力生彩印有限公司,杭州飞达电子照明有限公司,),临平街道(杭州余杭丁山股份经济合作社,杭州旺旺食品有限公司)一带","startTime":"2019-10-27 17:29:00","stopDate":"2019-10-27 19:29:00","orgNo":"3340140","typeCode":"电网故障停限电","poweroffArea":"110kV茅山变:道古G994线道古开关站丁山分线后段","poweroffReason":"高压开关跳闸","powerTime":"2019-10-27 18:41:20","powerComm":"已送电","subsNo":"","lineNo":"","tgNo":"","tgName":null,"infoStatus":"1","orgName":"国网浙江杭州市余杭区供电有限公司","typeName":null,"infoStatusName":null,"dateDay":null,"orgNos":null,"nowTime":null,"countyName":null,"streetName":null,"villageName":null,"roadName":null,"communityName":null,"tranName":null,"sdLineName":null,"cityCode":"3340140","cityName":"国网浙江杭州市余杭区供电有限公司","provinceCode":null,"stopTime":"2019-10-27 19:29:00","powerType":"全部","powerOffArea":"110kV茅山变:道古G994线道古开关站丁山分线后段","powerOffReason":"高压开关跳闸","powerOffId":"2019102731020170"},{"poweroffId":2019102731020164,"sgpoweroffId":null,"subsName":"","lineName":"10kV华电8595线","pubTranName":"七小区（五）1#,朝七（9）,朝七(11),朝七(12),朝七(2),朝七(1),","scope":"浙江省-杭州市-拱墅区-米市巷街道-夹城巷社区-长板巷,朝晖街道-塘南社区(潮王路,朝晖七区小区)","startTime":"2019-10-27 16:55:01","stopDate":"2019-10-27 18:00:01","orgNo":"3340101","typeCode":"电网故障停限电","poweroffArea":"220kV霞湾变:华电8595线-朝七分线后段","poweroffReason":"高压开关跳闸 原停电结束时间为2019-10-27 22:55:01,为减少客户停电时间,加快工作进度,提前送电,现变更停电结束时间为2019-10-27 18:00:01","powerTime":"2019-10-27 17:32:00","powerComm":"已送电","subsNo":"","lineNo":"","tgNo":"","tgName":null,"infoStatus":"1","orgName":"浙江杭州电力客户服务中心","typeName":null,"infoStatusName":null,"dateDay":null,"orgNos":null,"nowTime":null,"countyName":null,"streetName":null,"villageName":null,"roadName":null,"communityName":null,"tranName":null,"sdLineName":null,"cityCode":"3340101","cityName":"浙江杭州电力客户服务中心","provinceCode":null,"stopTime":"2019-10-27 18:00:01","powerType":"全部","powerOffArea":"220kV霞湾变:华电8595线-朝七分线后段","powerOffReason":"高压开关跳闸 原停电结束时间为2019-10-27 22:55:01,为减少客户停电时间,加快工作进度,提前送电,现变更停电结束时间为2019-10-27 18:00:01","powerOffId":"2019102731020164"},{"poweroffId":2019102731020150,"sgpoweroffId":null,"subsName":"","lineName":"10kV杨岱V391线","pubTranName":"杭州杭临轨道交通有限公司1#,杭州杭临轨道交通有限公司1#,杭州杭临轨道交通有限公司1#,杭州杭临轨道交通有限公司1#,","scope":"浙江省杭州市临安区玲珑街道玲珑行政村腾达建设集团股份有限公司一带","startTime":"2019-11-08 08:00:00","stopDate":"2019-11-08 12:30:00","orgNo":"3340160","typeCode":"计划停电","poweroffArea":"110kV秀水变:杨岱V391线-铁路分线开关后段","poweroffReason":"用户割接","powerTime":"2019-11-08 12:20:07","powerComm":"已送电","subsNo":"","lineNo":"","tgNo":"","tgName":null,"infoStatus":"1","orgName":"国网浙江临安市供电公司","typeName":null,"infoStatusName":null,"dateDay":null,"orgNos":null,"nowTime":null,"countyName":null,"streetName":null,"villageName":null,"roadName":null,"communityName":null,"tranName":null,"sdLineName":null,"cityCode":"3340160","cityName":"国网浙江临安市供电公司","provinceCode":null,"stopTime":"2019-11-08 12:30:00","powerType":"全部","powerOffArea":"110kV秀水变:杨岱V391线-铁路分线开关后段","powerOffReason":"用户割接","powerOffId":"2019102731020150"},{"poweroffId":2019102731020149,"sgpoweroffId":null,"subsName":"","lineName":"10kV横街V593线","pubTranName":"钱皇铺村[七里弄口]公变,","scope":"浙江省杭州市临安区锦城街道钱王铺行政村(钱王铺自然村,金头自然村)一带","startTime":"2019-11-07 08:00:00","stopDate":"2019-11-07 16:00:00","orgNo":"3340160","typeCode":"计划停电","poweroffArea":"110kV杨岭变:横街V593线-钱皇铺村[七里弄口]公变后段","poweroffReason":"低压改造","powerTime":"2019-11-07 15:49:43","powerComm":"已送电","subsNo":"","lineNo":"","tgNo":"","tgName":null,"infoStatus":"1","orgName":"国网浙江临安市供电公司","typeName":null,"infoStatusName":null,"dateDay":null,"orgNos":null,"nowTime":null,"countyName":null,"streetName":null,"villageName":null,"roadName":null,"communityName":null,"tranName":null,"sdLineName":null,"cityCode":"3340160","cityName":"国网浙江临安市供电公司","provinceCode":null,"stopTime":"2019-11-07 16:00:00","powerType":"全部","powerOffArea":"110kV杨岭变:横街V593线-钱皇铺村[七里弄口]公变后段","powerOffReason":"低压改造","powerOffId":"2019102731020149"}],"pageModel":{"pageNow":947,"totalCount":17789,"totalPage":1779,"tableRows":0,"pageCount":10,"beginCount":9460},"isExperi":"1"}