{"message":"","today":"2020-06-15","seleList":[{"poweroffId":2020052731020109,"sgpoweroffId":null,"subsName":"","lineName":"10kV树西G262线","pubTranName":"栅庄桥村街道3号公变,","scope":"浙江省-杭州市-余杭区-仁和街道-洛阳行政村-余山自然村,仁和街道-栅庄桥行政村(木克桥自然村,栅庄桥自然村,南车自然村)","startTime":"2020-05-27 09:46:00","stopDate":"2020-05-27 11:46:00","orgNo":"3340140","typeCode":"电网故障停限电","poweroffArea":"110kV仁镇变:树西G262线栅庄桥村街道3号公变配变","poweroffReason":"高压开关跳闸","powerTime":"2020-05-27 10:47:00","powerComm":"已送电","subsNo":"","lineNo":"","tgNo":"","tgName":null,"infoStatus":"1","orgName":"国网浙江杭州市余杭区供电有限公司","typeName":null,"infoStatusName":null,"dateDay":null,"orgNos":null,"nowTime":null,"countyName":null,"streetName":null,"villageName":null,"roadName":null,"communityName":null,"tranName":null,"sdLineName":null,"cityCode":"3340140","cityName":"国网浙江杭州市余杭区供电有限公司","provinceCode":null,"stopTime":"2020-05-27 11:46:00","powerType":"全部","powerOffArea":"110kV仁镇变:树西G262线栅庄桥村街道3号公变配变","powerOffReason":"高压开关跳闸","powerOffId":"2020052731020109"},{"poweroffId":2020052731020108,"sgpoweroffId":null,"subsName":"","lineName":"10kV东桦6325线","pubTranName":"白茅,","scope":"浙江省-杭州市-西湖区-双浦镇-老沙行政村，老沙社区老沙村。","startTime":"2020-05-27 09:42:00","stopDate":"2020-05-27 10:42:00","orgNo":"3340101","typeCode":"电网故障停限电","poweroffArea":"110kV转塘变:东桦6325线白茅配变","poweroffReason":"高压开关跳闸 原停电结束时间为2020-05-27 11:42:00,为减少客户停电时间,加快工作进度,提前送电,现变更停电结束时间为2020-05-27 10:42:00","powerTime":"2020-05-27 10:02:20","powerComm":"已送电","subsNo":"","lineNo":"","tgNo":"","tgName":null,"infoStatus":"1","orgName":"浙江杭州电力客户服务中心","typeName":null,"infoStatusName":null,"dateDay":null,"orgNos":null,"nowTime":null,"countyName":null,"streetName":null,"villageName":null,"roadName":null,"communityName":null,"tranName":null,"sdLineName":null,"cityCode":"3340101","cityName":"浙江杭州电力客户服务中心","provinceCode":null,"stopTime":"2020-05-27 10:42:00","powerType":"全部","powerOffArea":"110kV转塘变:东桦6325线白茅配变","powerOffReason":"高压开关跳闸 原停电结束时间为2020-05-27 11:42:00,为减少客户停电时间,加快工作进度,提前送电,现变更停电结束时间为2020-05-27 10:42:00","powerOffId":"2020052731020108"},{"poweroffId":2020052731020105,"sgpoweroffId":null,"subsName":"","lineName":"10kV莲塘H301线","pubTranName":"苕溪村马家村2号公变,苕溪村马家村,苕溪村西岸公变,","scope":"浙江省-杭州市-余杭区-仓前街道-永乐行政村-永乐自然村,仓前街道-苕溪行政村(马家自然村,苕溪自然村,网具自然村,西岸自然村,凌村营自然村)","startTime":"2020-05-27 09:39:00","stopDate":"2020-05-27 11:39:00","orgNo":"3340140","typeCode":"电网故障停限电","poweroffArea":"110kV柏庙变:莲塘H301线H30114开关后段","poweroffReason":"高压开关跳闸","powerTime":"2020-05-27 11:20:51","powerComm":"已送电","subsNo":"","lineNo":"","tgNo":"","tgName":null,"infoStatus":"1","orgName":"国网浙江杭州市余杭区供电有限公司","typeName":null,"infoStatusName":null,"dateDay":null,"orgNos":null,"nowTime":null,"countyName":null,"streetName":null,"villageName":null,"roadName":null,"communityName":null,"tranName":null,"sdLineName":null,"cityCode":"3340140","cityName":"国网浙江杭州市余杭区供电有限公司","provinceCode":null,"stopTime":"2020-05-27 11:39:00","powerType":"全部","powerOffArea":"110kV柏庙变:莲塘H301线H30114开关后段","powerOffReason":"高压开关跳闸","powerOffId":"2020052731020105"},{"poweroffId":2020052731020104,"sgpoweroffId":null,"subsName":"","lineName":"10kV树西G262线","pubTranName":"栅庄桥村桥头1#公变,","scope":"浙江省-杭州市-余杭区-仁和街道-栅庄桥行政村(魏家塘自然村,杨家兜自然村,栅庄桥自然村)","startTime":"2020-05-27 09:38:00","stopDate":"2020-05-27 11:38:00","orgNo":"3340140","typeCode":"电网故障停限电","poweroffArea":"110kV仁镇变:树西G262线栅庄桥村桥头1#公变配变","poweroffReason":"高压开关跳闸","powerTime":"2020-05-27 10:46:00","powerComm":"已送电","subsNo":"","lineNo":"","tgNo":"","tgName":null,"infoStatus":"1","orgName":"国网浙江杭州市余杭区供电有限公司","typeName":null,"infoStatusName":null,"dateDay":null,"orgNos":null,"nowTime":null,"countyName":null,"streetName":null,"villageName":null,"roadName":null,"communityName":null,"tranName":null,"sdLineName":null,"cityCode":"3340140","cityName":"国网浙江杭州市余杭区供电有限公司","provinceCode":null,"stopTime":"2020-05-27 11:38:00","powerType":"全部","powerOffArea":"110kV仁镇变:树西G262线栅庄桥村桥头1#公变配变","powerOffReason":"高压开关跳闸","powerOffId":"2020052731020104"},{"poweroffId":2020052731020094,"sgpoweroffId":null,"subsName":"","lineName":"10kV兴盛G887线","pubTranName":"朱家角农居点20-2#公变,朱家角农居点12#公变,康宁和府5#公变,朱家角农居点13#公变,朱家角农居点15-2#公变,朱家角农居点11#公变,康宁和府6#公变,2#,朱家角农居点20-1#公变,朱家角农居点16-2#公变,康宁和府8#公变,朱家角农居点14#公变,康宁和府7#公变,朱家角农居点19-2#公变,2#,朱家角农居点15-1#公变,朱家角农居点16-1#公变,朱家角农居点19-1#公变,朱家角农居点10#公变,朱家角农居点21#公变,","scope":"浙江省-杭州市-余杭区-塘栖镇-钱江经济开发区社区(兴起路,望梅路,兴元路,兴盛路),塘栖镇-朱家角行政村(兴起路,望梅路);东湖街道-杭州开景置业有限公司,钱江经济开发区-杭州星城物业服务有限公司","startTime":"2020-05-27 09:23:00","stopDate":"2020-05-27 11:23:00","orgNo":"3340140","typeCode":"电网故障停限电","poweroffArea":"110kV漳河变:兴盛G887线康盛环网站起丽联线后段","poweroffReason":"高压开关跳闸","powerTime":"2020-05-27 11:12:00","powerComm":"已送电","subsNo":"","lineNo":"","tgNo":"","tgName":null,"infoStatus":"1","orgName":"国网浙江杭州市余杭区供电有限公司","typeName":null,"infoStatusName":null,"dateDay":null,"orgNos":null,"nowTime":null,"countyName":null,"streetName":null,"villageName":null,"roadName":null,"communityName":null,"tranName":null,"sdLineName":null,"cityCode":"3340140","cityName":"国网浙江杭州市余杭区供电有限公司","provinceCode":null,"stopTime":"2020-05-27 11:23:00","powerType":"全部","powerOffArea":"110kV漳河变:兴盛G887线康盛环网站起丽联线后段","powerOffReason":"高压开关跳闸","powerOffId":"2020052731020094"},{"poweroffId":2020052731020093,"sgpoweroffId":null,"subsName":"","lineName":"10kV长阳9791线","pubTranName":"水曲苑三变,","scope":"浙江省-杭州市-拱墅区-祥符街道水曲苑1幢1单元、水曲苑1幢2单元、水曲苑1幢3单元、水曲苑1幢4单元及6-20号商铺一带","startTime":"2020-06-04 09:00:00","stopDate":"2020-06-04 12:00:00","orgNo":"3340101","typeCode":"计划停电","poweroffArea":"110kV红旗变:长阳9791线-水曲苑三变后段","poweroffReason":"(低压停电信息)都市水乡小区水曲苑2幢底层商铺4-18号表计增容","powerTime":"2020-06-04 11:04:33","powerComm":"已送电","subsNo":"","lineNo":"","tgNo":"","tgName":null,"infoStatus":"1","orgName":"浙江杭州电力客户服务中心","typeName":null,"infoStatusName":null,"dateDay":null,"orgNos":null,"nowTime":null,"countyName":null,"streetName":null,"villageName":null,"roadName":null,"communityName":null,"tranName":null,"sdLineName":null,"cityCode":"3340101","cityName":"浙江杭州电力客户服务中心","provinceCode":null,"stopTime":"2020-06-04 12:00:00","powerType":"全部","powerOffArea":"110kV红旗变:长阳9791线-水曲苑三变后段","powerOffReason":"(低压停电信息)都市水乡小区水曲苑2幢底层商铺4-18号表计增容","powerOffId":"2020052731020093"},{"poweroffId":2020052731020092,"sgpoweroffId":null,"subsName":"","lineName":"10kV政新8037线","pubTranName":"政新（一）2#,","scope":"浙江省-杭州市-西湖区-文新街道-湖畔社区-政新花园6幢1单元、6幢2单元一带","startTime":"2020-06-04 09:00:00","stopDate":"2020-06-04 12:00:00","orgNo":"3340101","typeCode":"计划停电","poweroffArea":"110kV紫荆变:政新8037线-政新（一）2#后段","poweroffReason":"(低压停电信息)政新花园5幢101室表计增容","powerTime":"2020-06-04 11:03:15","powerComm":"已送电","subsNo":"","lineNo":"","tgNo":"","tgName":null,"infoStatus":"1","orgName":"浙江杭州电力客户服务中心","typeName":null,"infoStatusName":null,"dateDay":null,"orgNos":null,"nowTime":null,"countyName":null,"streetName":null,"villageName":null,"roadName":null,"communityName":null,"tranName":null,"sdLineName":null,"cityCode":"3340101","cityName":"浙江杭州电力客户服务中心","provinceCode":null,"stopTime":"2020-06-04 12:00:00","powerType":"全部","powerOffArea":"110kV紫荆变:政新8037线-政新（一）2#后段","powerOffReason":"(低压停电信息)政新花园5幢101室表计增容","powerOffId":"2020052731020092"},{"poweroffId":2020052731020085,"sgpoweroffId":null,"subsName":"","lineName":"10kV汇德C781线","pubTranName":"北干一苑9#公变,","scope":"浙江省-杭州市-萧山区-北干街道-华达社区-永久路，北干一苑等","startTime":"2020-05-27 09:06:20","stopDate":"2020-05-27 11:00:00","orgNo":"3340130","typeCode":"电网故障停限电","poweroffArea":"110kV通惠变:汇德C781线-北干一苑9#公变后段","poweroffReason":"高压开关跳闸 原停电结束时间为2020-05-27 13:06:20,为减少客户停电时间,加快工作进度,提前送电,现变更停电结束时间为2020-05-27 11:00:00","powerTime":"2020-05-27 10:10:12","powerComm":"已送电","subsNo":"","lineNo":"","tgNo":"","tgName":null,"infoStatus":"1","orgName":"国网浙江杭州市萧山区供电有限公司","typeName":null,"infoStatusName":null,"dateDay":null,"orgNos":null,"nowTime":null,"countyName":null,"streetName":null,"villageName":null,"roadName":null,"communityName":null,"tranName":null,"sdLineName":null,"cityCode":"3340130","cityName":"国网浙江杭州市萧山区供电有限公司","provinceCode":null,"stopTime":"2020-05-27 11:00:00","powerType":"全部","powerOffArea":"110kV通惠变:汇德C781线-北干一苑9#公变后段","powerOffReason":"高压开关跳闸 原停电结束时间为2020-05-27 13:06:20,为减少客户停电时间,加快工作进度,提前送电,现变更停电结束时间为2020-05-27 11:00:00","powerOffId":"2020052731020085"},{"poweroffId":2020052731020074,"sgpoweroffId":null,"subsName":"","lineName":"10kV彭家D342线","pubTranName":"彭家村9#高白塘公变,","scope":"浙江省-杭州市-富阳区-万市镇-白石行政村-唐家桥自然村,万市镇-彭家行政村(东叙自然村,渚源坞自然村,高白塘自然村,汤家坞自然村,彭家自然村)","startTime":"2020-05-27 08:50:10","stopDate":"2020-05-27 11:12:10","orgNo":"3340170","typeCode":"电网故障停限电","poweroffArea":"110kV万市变:彭家D342线-彭家村9#高白塘公变后段","poweroffReason":"高压开关跳闸","powerTime":"2020-05-27 10:33:29","powerComm":"已送电","subsNo":"","lineNo":"","tgNo":"","tgName":null,"infoStatus":"1","orgName":"国网浙江杭州市富阳区供电公司","typeName":null,"infoStatusName":null,"dateDay":null,"orgNos":null,"nowTime":null,"countyName":null,"streetName":null,"villageName":null,"roadName":null,"communityName":null,"tranName":null,"sdLineName":null,"cityCode":"3340170","cityName":"国网浙江杭州市富阳区供电公司","provinceCode":null,"stopTime":"2020-05-27 11:12:10","powerType":"全部","powerOffArea":"110kV万市变:彭家D342线-彭家村9#高白塘公变后段","powerOffReason":"高压开关跳闸","powerOffId":"2020052731020074"},{"poweroffId":2020052731020071,"sgpoweroffId":null,"subsName":"","lineName":"10kV和平C209线","pubTranName":"杭州萧山地铁投资开发有限公司1,杭州万特水泥制品有限公司,杭州萧山正大钢管有限公司,浙江太平洋钢结构有限公司,变压器,杭州锦和实业有限公司,#1主变,和平桥村10#变,朱家坛村11#变,江苏省交通工程变压器,浙江鼎充新能源科技有限公司1#,杭州峻伟机械有限公司,姑娘桥村1#变,朱家坛村9#变,浙江圣大建设集团有限公司,朱家坛村15#变,杭州萧山地铁投资开发有限公司2,变压器,朱家坛村4#变,杭州银发物资工贸有限公司,朱家坛村7#变,上海铁路局宁波车务段,朱家坛村8#变,江苏省交通工程#1主变,朱家坛村13#变,潇磊机械,杭绍城际轨道交通2#变,#4主变,三星小学,朱家坛村10#变,朱家坛村12#变,杭州萧山地铁投资开发有限公司4,杭绍城际轨道交通1#变,杭州萧山地铁投资开发有限公司3,变压器,杭州鑫地广告有限公司,杭州润潮羽绒制品有限公司变压器,变压器,朱家坛村1#变,浙江东翔实业有限公司变压器,杭州凯莱机械制造有限公司,朱家坛村2#变,朱家坛村3#变,","scope":"浙江省-杭州市-萧山区-新塘街道-朱家坛行政村(后朱自然村,朱家坛自然村,前朱自然村,庙东金自然村,前河西自然村),新塘街道(姑娘桥行政村-姑娘桥自然村,五联行政村-五联自然村);新街街道-绍兴市柯桥区杭绍城际轨道交通建设投资有限公司,新塘街道(浙江万羽羽绒服饰有限公司,杭州峻伟机械有限公司,中国铁路上海局集团有限公司宁波车务段,杭州凯莱机械制造有限公司,杭州锦和实业有限公司,浙江圣大建设集团有限公司,杭州萧山新正大钢铁贸易有限公司,杭州烽凯实业有限公司,杭州潇磊机械有限公司,杭州银发物资工贸有限公司,浙江太平洋电器(连锁)有限公司,萧山区凤标小学,杭州传化汇通公路港物流有限公司,杭州班芙羽绒制品有限公司,杭州润潮羽绒制品有限公司,江苏省交通工程集团有限公司,杭州萧山污水处理有限公司,杭州佳俊新能源科技有限公司,杭州萧山地铁投资开发有限公司,浙江万特水泥制品有限公司)，新塘街道朱家坛村等","startTime":"2020-05-27 08:33:00","stopDate":"2020-05-27 11:33:00","orgNo":"3340130","typeCode":"电网故障停限电","poweroffArea":"110kV霞江变:和平C209线和一开和平C209线后段","poweroffReason":"高压柱上断路器跳闸 变更停电地理区域和停电原因","powerTime":"2020-05-27 11:00:44","powerComm":"已送电","subsNo":"","lineNo":"","tgNo":"","tgName":null,"infoStatus":"1","orgName":"国网浙江杭州市萧山区供电有限公司","typeName":null,"infoStatusName":null,"dateDay":null,"orgNos":null,"nowTime":null,"countyName":null,"streetName":null,"villageName":null,"roadName":null,"communityName":null,"tranName":null,"sdLineName":null,"cityCode":"3340130","cityName":"国网浙江杭州市萧山区供电有限公司","provinceCode":null,"stopTime":"2020-05-27 11:33:00","powerType":"全部","powerOffArea":"110kV霞江变:和平C209线和一开和平C209线后段","powerOffReason":"高压柱上断路器跳闸 变更停电地理区域和停电原因","powerOffId":"2020052731020071"}],"pageModel":{"pageNow":95,"totalCount":17786,"totalPage":1779,"tableRows":0,"pageCount":10,"beginCount":940},"isExperi":"1"}