{"message":"","today":"2020-06-16","seleList":[{"poweroffId":2019102731020148,"sgpoweroffId":null,"subsName":"","lineName":"10kV洪家V400线","pubTranName":"临安市供电局路灯管理所,","scope":"浙江省杭州市临安区玲珑街道东山行政村临安市路灯管理所一带","startTime":"2019-11-06 13:00:00","stopDate":"2019-11-06 16:30:00","orgNo":"3340160","typeCode":"计划停电","poweroffArea":"110kV秀水变:洪家V400线-路灯管理所后段","poweroffReason":"用户割接","powerTime":"2019-11-06 15:41:57","powerComm":"已送电","subsNo":"","lineNo":"","tgNo":"","tgName":null,"infoStatus":"1","orgName":"国网浙江临安市供电公司","typeName":null,"infoStatusName":null,"dateDay":null,"orgNos":null,"nowTime":null,"countyName":null,"streetName":null,"villageName":null,"roadName":null,"communityName":null,"tranName":null,"sdLineName":null,"cityCode":"3340160","cityName":"国网浙江临安市供电公司","provinceCode":null,"stopTime":"2019-11-06 16:30:00","powerType":"全部","powerOffArea":"110kV秀水变:洪家V400线-路灯管理所后段","powerOffReason":"用户割接","powerOffId":"2019102731020148"},{"poweroffId":2019102731020147,"sgpoweroffId":null,"subsName":"","lineName":"10kV洪家V400线","pubTranName":"临安中正电子有限公司,","scope":"浙江省杭州市临安区玲珑街道东山行政村临安锦洲电子有限公司一带","startTime":"2019-11-06 10:20:00","stopDate":"2019-11-06 13:00:00","orgNo":"3340160","typeCode":"计划停电","poweroffArea":"110kV秀水变:洪家V400线-洪家400线02#后段","poweroffReason":"用户割接","powerTime":"2019-11-06 12:50:09","powerComm":"已送电","subsNo":"","lineNo":"","tgNo":"","tgName":null,"infoStatus":"1","orgName":"国网浙江临安市供电公司","typeName":null,"infoStatusName":null,"dateDay":null,"orgNos":null,"nowTime":null,"countyName":null,"streetName":null,"villageName":null,"roadName":null,"communityName":null,"tranName":null,"sdLineName":null,"cityCode":"3340160","cityName":"国网浙江临安市供电公司","provinceCode":null,"stopTime":"2019-11-06 13:00:00","powerType":"全部","powerOffArea":"110kV秀水变:洪家V400线-洪家400线02#后段","powerOffReason":"用户割接","powerOffId":"2019102731020147"},{"poweroffId":2019102731020146,"sgpoweroffId":null,"subsName":"","lineName":"10kV杨岱V391线","pubTranName":"杭州恒信电气有限公司塑业分公司1#,","scope":"浙江省杭州市临安区玲珑街道玲珑行政村杭州电力设备制造有限公司临安恒信成套电气制造分公司一带","startTime":"2019-11-06 07:30:00","stopDate":"2019-11-06 10:10:00","orgNo":"3340160","typeCode":"计划停电","poweroffArea":"110kV秀水变:杨岱V391线-杭州恒信电气塑业分公司分线开关后段","poweroffReason":"用户割接","powerTime":"2019-11-06 10:00:20","powerComm":"已送电","subsNo":"","lineNo":"","tgNo":"","tgName":null,"infoStatus":"1","orgName":"国网浙江临安市供电公司","typeName":null,"infoStatusName":null,"dateDay":null,"orgNos":null,"nowTime":null,"countyName":null,"streetName":null,"villageName":null,"roadName":null,"communityName":null,"tranName":null,"sdLineName":null,"cityCode":"3340160","cityName":"国网浙江临安市供电公司","provinceCode":null,"stopTime":"2019-11-06 10:10:00","powerType":"全部","powerOffArea":"110kV秀水变:杨岱V391线-杭州恒信电气塑业分公司分线开关后段","powerOffReason":"用户割接","powerOffId":"2019102731020146"},{"poweroffId":2019102731020143,"sgpoweroffId":null,"subsName":"","lineName":"10kV石门H566线","pubTranName":"赐壁村猪坞山头公变,","scope":"浙江省-杭州市-余杭区-黄湖镇-清波行政村竹坞山自然村,赐壁村猪坞山头一带","startTime":"2019-10-27 15:45:38","stopDate":"2019-10-27 17:30:00","orgNo":"3340140","typeCode":"电网故障停限电","poweroffArea":"35kV黄湖变:石门H566线-赐壁村猪坞山头公变后段","poweroffReason":"高压开关跳闸","powerTime":"2019-10-27 16:36:23","powerComm":"已送电","subsNo":"","lineNo":"","tgNo":"","tgName":null,"infoStatus":"1","orgName":"国网浙江杭州市余杭区供电有限公司","typeName":null,"infoStatusName":null,"dateDay":null,"orgNos":null,"nowTime":null,"countyName":null,"streetName":null,"villageName":null,"roadName":null,"communityName":null,"tranName":null,"sdLineName":null,"cityCode":"3340140","cityName":"国网浙江杭州市余杭区供电有限公司","provinceCode":null,"stopTime":"2019-10-27 17:30:00","powerType":"全部","powerOffArea":"35kV黄湖变:石门H566线-赐壁村猪坞山头公变后段","powerOffReason":"高压开关跳闸","powerOffId":"2019102731020143"},{"poweroffId":2019102731020113,"sgpoweroffId":null,"subsName":"","lineName":"10kV信馆7087线","pubTranName":"保经,保亭（4）,","scope":"浙江省-杭州市-西湖区-翠苑街道-保亭社区(保亭巷,教工路),翠苑街道(九莲社区-教工路,花园社区-教工路),杭州保亭股份经济合作社","startTime":"2019-10-27 12:34:05","stopDate":"2019-10-27 16:15:05","orgNo":"3340101","typeCode":"电网故障停限电","poweroffArea":"110kV隐秀变:信馆7087线-保亭分线","poweroffReason":"高压开关跳闸 原停电结束时间为2019-10-27 16:34:05,为减少客户停电时间,加快工作进度,提前送电,现变更停电结束时间为2019-10-27 16:15:05","powerTime":"2019-10-27 15:28:25","powerComm":"已送电","subsNo":"","lineNo":"","tgNo":"","tgName":null,"infoStatus":"1","orgName":"浙江杭州电力客户服务中心","typeName":null,"infoStatusName":null,"dateDay":null,"orgNos":null,"nowTime":null,"countyName":null,"streetName":null,"villageName":null,"roadName":null,"communityName":null,"tranName":null,"sdLineName":null,"cityCode":"3340101","cityName":"浙江杭州电力客户服务中心","provinceCode":null,"stopTime":"2019-10-27 16:15:05","powerType":"全部","powerOffArea":"110kV隐秀变:信馆7087线-保亭分线","powerOffReason":"高压开关跳闸 原停电结束时间为2019-10-27 16:34:05,为减少客户停电时间,加快工作进度,提前送电,现变更停电结束时间为2019-10-27 16:15:05","powerOffId":"2019102731020113"},{"poweroffId":2019102731020112,"sgpoweroffId":null,"subsName":"","lineName":"10kV银湖V383线","pubTranName":"中都青山湖畔小区1#公变,林泉流韵小区3#公变,林泉流韵小区6#公变,森林湖山庄小区3#公变,临安市城市建设投资集团有限公司1#,郡原列岛小区5#公变,浙江民泰商业银行股份有限公司1#,浙江宏顺房地产开发有限公司,中都青山湖畔小区4#公变,中都青山湖畔小区2#公变,泥山湾拆迁安置小区6#公变,林泉流韵小区2#公变,泥山湾安置小区1#公变,杭州临安湖景绿道建设有限公司1#,林泉流韵小区7#公变,浙江宏顺房地产开发有限公司,浙江省国土资源管理干部培训中心,森林湖山庄小区2#公变,泥山湾拆迁安置小区4#公变,泥山湾拆迁安置小区5#公变,浙江民泰商业银行股份有限公司1#,宏顺房地产开发公司3,林泉流韵小区4#公变,曼陀花园小区1#公变,中都青山湖畔小区3#公变,泥山湾拆迁安置小区7#公变,水岸风华[太和府]5#公变,泥山湾安置小区2#公变,临安市基础设施投资发展有限公司1#,青山湖圣园（杭州）置业有限公司,泥山湾安置小区3#公变,临安城市污水处理有限公司,浙江临安中都置业有限公司,森林湖山庄小区1#公变,杭州临安环湖绿道建设有限公司1#,路灯管理所路灯变,林泉流韵小区1#公变,林泉流韵小区5#公变,青山湖圣园(杭州)置业有限公司1#,泥山湾村[村中]公变,杭州临安环湖绿道建设有限公司1#,赵恩,浙江中都物业管理有限公司临安分公司,中都青山湖畔小区6#公变,临安和顺磁通电子有限公司,","scope":"浙江省-杭州市-临安市-锦城街道-文昌阁社区-圣园路,锦城街道-泥山湾行政村(泥山湾自然村,圣园路);锦城街道(青山湖圣园(杭州)置业有限公司,浙江临安中都置业有限公司,临安市路灯管理所,浙江宏顺房地产开发有限公司,临安和顺磁通电子有限公司,浙江省国土资源管理干部培训中心,浙江民泰商业银行股份有限公司,杭州临安排水有限公司,杭州临安星欣物业有限公司,临安市城市建设投资集团有限公司,杭州临安青山湖绿道经营管理有限公司)","startTime":"2019-10-27 12:29:53","stopDate":"2019-10-27 14:19:00","orgNo":"3340160","typeCode":"电网故障停限电","poweroffArea":"35kV渔村变:银湖V383线祥阳站祥阳站3831开关后段","poweroffReason":"高压开关跳闸","powerTime":"2019-10-27 13:51:24","powerComm":"已送电","subsNo":"","lineNo":"","tgNo":"","tgName":null,"infoStatus":"1","orgName":"国网浙江临安市供电公司","typeName":null,"infoStatusName":null,"dateDay":null,"orgNos":null,"nowTime":null,"countyName":null,"streetName":null,"villageName":null,"roadName":null,"communityName":null,"tranName":null,"sdLineName":null,"cityCode":"3340160","cityName":"国网浙江临安市供电公司","provinceCode":null,"stopTime":"2019-10-27 14:19:00","powerType":"全部","powerOffArea":"35kV渔村变:银湖V383线祥阳站祥阳站3831开关后段","powerOffReason":"高压开关跳闸","powerOffId":"2019102731020112"},{"poweroffId":2019102731020105,"sgpoweroffId":null,"subsName":"","lineName":"10kV秋丰D985线","pubTranName":"秋丰村6号孙家弄2公变,","scope":"浙江省-杭州市-富阳区-富春街道(金桥社区-横凉亭路,秋丰行政村-秋丰自然村)","startTime":"2019-10-27 11:15:00","stopDate":"2019-10-27 12:15:00","orgNo":"3340170","typeCode":"电网故障停限电","poweroffArea":"110kV育才变:秋丰D985线秋丰村6号孙家弄2公变配变","poweroffReason":"高压开关跳闸 原停电结束时间为2019-10-27 13:15:00,为减少客户停电时间,加快工作进度,提前送电,现变更停电结束时间为2019-10-27 12:15:00","powerTime":"2019-10-27 11:42:01","powerComm":"已送电","subsNo":"","lineNo":"","tgNo":"","tgName":null,"infoStatus":"1","orgName":"国网浙江杭州市富阳区供电公司","typeName":null,"infoStatusName":null,"dateDay":null,"orgNos":null,"nowTime":null,"countyName":null,"streetName":null,"villageName":null,"roadName":null,"communityName":null,"tranName":null,"sdLineName":null,"cityCode":"3340170","cityName":"国网浙江杭州市富阳区供电公司","provinceCode":null,"stopTime":"2019-10-27 12:15:00","powerType":"全部","powerOffArea":"110kV育才变:秋丰D985线秋丰村6号孙家弄2公变配变","powerOffReason":"高压开关跳闸 原停电结束时间为2019-10-27 13:15:00,为减少客户停电时间,加快工作进度,提前送电,现变更停电结束时间为2019-10-27 12:15:00","powerOffId":"2019102731020105"},{"poweroffId":2019102731020081,"sgpoweroffId":null,"subsName":"","lineName":"10kV民族T148线","pubTranName":"黄家山1号公变,","scope":"浙江省-杭州市-桐庐县-莪山畲族乡-中门民族行政村(黄家山自然村,中门莪溪自然村)","startTime":"2019-10-27 09:13:54","stopDate":"2019-10-27 11:13:54","orgNo":"3340150","typeCode":"电网故障停限电","poweroffArea":"35kV钟山变:民族T148线-黄家山1号公变后段","poweroffReason":"高压开关跳闸","powerTime":"2019-10-27 10:58:54","powerComm":"已送电","subsNo":"","lineNo":"","tgNo":"","tgName":null,"infoStatus":"1","orgName":"国网浙江桐庐县供电公司","typeName":null,"infoStatusName":null,"dateDay":null,"orgNos":null,"nowTime":null,"countyName":null,"streetName":null,"villageName":null,"roadName":null,"communityName":null,"tranName":null,"sdLineName":null,"cityCode":"3340150","cityName":"国网浙江桐庐县供电公司","provinceCode":null,"stopTime":"2019-10-27 11:13:54","powerType":"全部","powerOffArea":"35kV钟山变:民族T148线-黄家山1号公变后段","powerOffReason":"高压开关跳闸","powerOffId":"2019102731020081"},{"poweroffId":2019102731020078,"sgpoweroffId":null,"subsName":"","lineName":"10kV卫家G302线","pubTranName":"丁山河村河南墩公变,","scope":"浙江省杭州市余杭区塘栖镇：丁山河村河南墩一带","startTime":"2019-11-05 08:20:00","stopDate":"2019-11-05 14:20:00","orgNo":"3340140","typeCode":"计划停电","poweroffArea":"110kV西苑变:卫家G302线丁山河村河南墩公变令克开关","poweroffReason":"2019年余杭公司塘栖龙光桥台区等0.4kV配电线路整治工程；卫家G302线河南墩低压台区；更换杆上计量箱1台，更换300平方铜线，移位10米电杆1基，移位导线1档，做拉线工作；","powerTime":"2019-11-05 14:19:41","powerComm":"已送电","subsNo":"","lineNo":"","tgNo":"","tgName":null,"infoStatus":"1","orgName":"国网浙江杭州市余杭区供电有限公司","typeName":null,"infoStatusName":null,"dateDay":null,"orgNos":null,"nowTime":null,"countyName":null,"streetName":null,"villageName":null,"roadName":null,"communityName":null,"tranName":null,"sdLineName":null,"cityCode":"3340140","cityName":"国网浙江杭州市余杭区供电有限公司","provinceCode":null,"stopTime":"2019-11-05 14:20:00","powerType":"全部","powerOffArea":"110kV西苑变:卫家G302线丁山河村河南墩公变令克开关","powerOffReason":"2019年余杭公司塘栖龙光桥台区等0.4kV配电线路整治工程；卫家G302线河南墩低压台区；更换杆上计量箱1台，更换300平方铜线，移位10米电杆1基，移位导线1档，做拉线工作；","powerOffId":"2019102731020078"},{"poweroffId":2019102731020075,"sgpoweroffId":null,"subsName":"","lineName":"10kV德胜G226线","pubTranName":"宏鸣家纺2#,宏鸣家纺1#,杭州美德华家电设备有限公司,路灯箱变,塘家埭村塘家埭公变,","scope":"浙江省杭州市余杭区塘栖镇：塘家埭村塘家埭、杭州市余杭区塘栖镇人民政府、杭州宏鸣家纺有限公司、杭州美德华家电设备有限公司一带","startTime":"2019-11-05 08:20:00","stopDate":"2019-11-05 14:20:00","orgNo":"3340140","typeCode":"计划停电","poweroffArea":"110kV宏畔变:德胜G226线塘家埭分线","poweroffReason":"2019年杭州余杭塘栖10千伏西庄线改造工程：调换导线工作；","powerTime":"2019-11-05 13:24:38","powerComm":"已送电","subsNo":"","lineNo":"","tgNo":"","tgName":null,"infoStatus":"1","orgName":"国网浙江杭州市余杭区供电有限公司","typeName":null,"infoStatusName":null,"dateDay":null,"orgNos":null,"nowTime":null,"countyName":null,"streetName":null,"villageName":null,"roadName":null,"communityName":null,"tranName":null,"sdLineName":null,"cityCode":"3340140","cityName":"国网浙江杭州市余杭区供电有限公司","provinceCode":null,"stopTime":"2019-11-05 14:20:00","powerType":"全部","powerOffArea":"110kV宏畔变:德胜G226线塘家埭分线","powerOffReason":"2019年杭州余杭塘栖10千伏西庄线改造工程：调换导线工作；","powerOffId":"2019102731020075"}],"pageModel":{"pageNow":948,"totalCount":17789,"totalPage":1779,"tableRows":0,"pageCount":10,"beginCount":9470},"isExperi":"1"}