{"message":"","today":"2020-06-16","seleList":[{"poweroffId":2019102631020147,"sgpoweroffId":null,"subsName":"","lineName":"10kV湘岭D714线","pubTranName":"富阳市自立造纸厂,天柱石料厂,潘堰村4#沈家方家坟公变,潘堰村3#沈家樟树下公变,潘堰村12#沈家农居点公变,","scope":"浙江省-杭州市-富阳区-新登镇-潘堰行政村(沈家自然村,炉头自然村);新登镇(杭州言志机械制造有限公司,杭州富阳天柱建筑石料有限公司)","startTime":"2019-10-26 19:27:00","stopDate":"2019-10-26 21:27:00","orgNo":"3340170","typeCode":"电网故障停限电","poweroffArea":"110kV松溪变:湘岭D714线沈家分线后段","poweroffReason":"高压开关跳闸","powerTime":"2019-10-26 20:28:33","powerComm":"已送电","subsNo":"","lineNo":"","tgNo":"","tgName":null,"infoStatus":"1","orgName":"国网浙江杭州市富阳区供电公司","typeName":null,"infoStatusName":null,"dateDay":null,"orgNos":null,"nowTime":null,"countyName":null,"streetName":null,"villageName":null,"roadName":null,"communityName":null,"tranName":null,"sdLineName":null,"cityCode":"3340170","cityName":"国网浙江杭州市富阳区供电公司","provinceCode":null,"stopTime":"2019-10-26 21:27:00","powerType":"全部","powerOffArea":"110kV松溪变:湘岭D714线沈家分线后段","powerOffReason":"高压开关跳闸","powerOffId":"2019102631020147"},{"poweroffId":2019102631020144,"sgpoweroffId":null,"subsName":"","lineName":"10kV上练D713线","pubTranName":"里坞村5#石塘公变,","scope":"浙江省-杭州市-富阳区-胥口镇-里坞行政村(石塘自然村,水坞自然村)","startTime":"2019-10-26 19:21:44","stopDate":"2019-10-26 21:21:44","orgNo":"3340170","typeCode":"电网故障停限电","poweroffArea":"110kV松溪变:上练D713线-里坞村5#石塘公变后段","poweroffReason":"高压开关跳闸","powerTime":"2019-10-26 20:53:55","powerComm":"已送电","subsNo":"","lineNo":"","tgNo":"","tgName":null,"infoStatus":"1","orgName":"国网浙江杭州市富阳区供电公司","typeName":null,"infoStatusName":null,"dateDay":null,"orgNos":null,"nowTime":null,"countyName":null,"streetName":null,"villageName":null,"roadName":null,"communityName":null,"tranName":null,"sdLineName":null,"cityCode":"3340170","cityName":"国网浙江杭州市富阳区供电公司","provinceCode":null,"stopTime":"2019-10-26 21:21:44","powerType":"全部","powerOffArea":"110kV松溪变:上练D713线-里坞村5#石塘公变后段","powerOffReason":"高压开关跳闸","powerOffId":"2019102631020144"},{"poweroffId":2019102631020136,"sgpoweroffId":null,"subsName":"","lineName":"10kV排塘Y185线","pubTranName":"永嘉桥村永嘉桥台区,","scope":"浙江省-杭州市-建德市-寿昌镇-永嘉桥行政村 毛坞自然村,翁家自然村,永嘉桥自然村,三里亭自然村一带用户","startTime":"2019-10-26 17:45:00","stopDate":"2019-10-26 19:00:00","orgNo":"3340180","typeCode":"电网故障停限电","poweroffArea":"35kV河南里变:排塘Y185线-永嘉桥村永嘉桥台区后段","poweroffReason":"(低压停电信息)低压开关跳闸 原停电结束时间为2019-10-26 20:00:00,为减少客户停电时间,加快工作进度,提前送电,现变更停电结束时间为2019-10-26 19:00:00","powerTime":"2019-10-26 18:21:08","powerComm":"已送电","subsNo":"","lineNo":"","tgNo":"","tgName":null,"infoStatus":"1","orgName":"国网浙江建德市供电有限公司","typeName":null,"infoStatusName":null,"dateDay":null,"orgNos":null,"nowTime":null,"countyName":null,"streetName":null,"villageName":null,"roadName":null,"communityName":null,"tranName":null,"sdLineName":null,"cityCode":"3340180","cityName":"国网浙江建德市供电有限公司","provinceCode":null,"stopTime":"2019-10-26 19:00:00","powerType":"全部","powerOffArea":"35kV河南里变:排塘Y185线-永嘉桥村永嘉桥台区后段","powerOffReason":"(低压停电信息)低压开关跳闸 原停电结束时间为2019-10-26 20:00:00,为减少客户停电时间,加快工作进度,提前送电,现变更停电结束时间为2019-10-26 19:00:00","powerOffId":"2019102631020136"},{"poweroffId":2019102631020125,"sgpoweroffId":null,"subsName":"","lineName":"10kV信馆7087线","pubTranName":"德寓1#,党住一,芯宇（一）,双子(一),信馆十一,信馆九,芯宇（九）,芯宇（十一）,国资(一),溪畔三变,溪畔二变,信馆三,溪畔一变,芯宇（三）,芯宇（七）,信馆五,信馆十五,信馆七,信馆十三,信馆一,芯宇（五）,","scope":"浙江省-杭州市-西湖区-翠苑街道-花园社区-教工路,西溪街道-白荡海社区(文一路,城市芯宇),西溪街道-溪畔社区(教工路,文一路),翠苑街道-保亭社区(教工路,文一路,学院路),翠苑街道-翠苑社区(学院路,翠柏路)","startTime":"2019-10-26 16:38:02","stopDate":"2019-10-26 18:00:00","orgNo":"3340101","typeCode":"电网故障停限电","poweroffArea":"110kV隐秀变:信馆7087线","poweroffReason":"高压开关跳闸 原停电结束时间为2019-10-26 22:00:02,为减少客户停电时间,加快工作进度,提前送电,现变更停电结束时间为2019-10-26 18:00:00","powerTime":"2019-10-26 17:17:18","powerComm":"已送电","subsNo":"","lineNo":"","tgNo":"","tgName":null,"infoStatus":"1","orgName":"浙江杭州电力客户服务中心","typeName":null,"infoStatusName":null,"dateDay":null,"orgNos":null,"nowTime":null,"countyName":null,"streetName":null,"villageName":null,"roadName":null,"communityName":null,"tranName":null,"sdLineName":null,"cityCode":"3340101","cityName":"浙江杭州电力客户服务中心","provinceCode":null,"stopTime":"2019-10-26 18:00:00","powerType":"全部","powerOffArea":"110kV隐秀变:信馆7087线","powerOffReason":"高压开关跳闸 原停电结束时间为2019-10-26 22:00:02,为减少客户停电时间,加快工作进度,提前送电,现变更停电结束时间为2019-10-26 18:00:00","powerOffId":"2019102631020125"},{"poweroffId":2019102631020122,"sgpoweroffId":null,"subsName":"","lineName":"10kV祝家V553线","pubTranName":"板桥村伏虎山配变,上板桥豆川口,","scope":"浙江省-杭州市-临安市-板桥镇板桥村伏虎山，上板桥豆川口一带","startTime":"2019-11-04 09:10:00","stopDate":"2019-11-04 17:00:00","orgNo":"3340160","typeCode":"计划停电","poweroffArea":"110kV板桥变:1、停大横V543线46+1#杆开关至76#杆5432开关之间； 2、停祝家V553线46+1#杆开关至76#杆5532开关之间； 3、停大横V543线珠西分线16号杆开关","poweroffReason":"线路改造","powerTime":"2019-11-04 16:50:22","powerComm":"已送电","subsNo":"","lineNo":"","tgNo":"","tgName":null,"infoStatus":"1","orgName":"国网浙江临安市供电公司","typeName":null,"infoStatusName":null,"dateDay":null,"orgNos":null,"nowTime":null,"countyName":null,"streetName":null,"villageName":null,"roadName":null,"communityName":null,"tranName":null,"sdLineName":null,"cityCode":"3340160","cityName":"国网浙江临安市供电公司","provinceCode":null,"stopTime":"2019-11-04 17:00:00","powerType":"全部","powerOffArea":"110kV板桥变:1、停大横V543线46+1#杆开关至76#杆5432开关之间； 2、停祝家V553线46+1#杆开关至76#杆5532开关之间； 3、停大横V543线珠西分线16号杆开关","powerOffReason":"线路改造","powerOffId":"2019102631020122"},{"poweroffId":2019102631020121,"sgpoweroffId":null,"subsName":"","lineName":"10kV大横V543线","pubTranName":"杭州锦海农业科技有限公司1#,杭州锦海农业科技有限公司1#,潘喜华,","scope":"浙江省-杭州市-临安市-板桥镇杭州锦海农业科技有限公司，徐洁一带","startTime":"2019-11-04 07:10:00","stopDate":"2019-11-04 17:00:00","orgNo":"3340160","typeCode":"计划停电","poweroffArea":"110kV板桥变:大横V543线-珠西分线令克后段","poweroffReason":"线路改造","powerTime":"2019-11-04 16:50:10","powerComm":"已送电","subsNo":"","lineNo":"","tgNo":"","tgName":null,"infoStatus":"1","orgName":"国网浙江临安市供电公司","typeName":null,"infoStatusName":null,"dateDay":null,"orgNos":null,"nowTime":null,"countyName":null,"streetName":null,"villageName":null,"roadName":null,"communityName":null,"tranName":null,"sdLineName":null,"cityCode":"3340160","cityName":"国网浙江临安市供电公司","provinceCode":null,"stopTime":"2019-11-04 17:00:00","powerType":"全部","powerOffArea":"110kV板桥变:大横V543线-珠西分线令克后段","powerOffReason":"线路改造","powerOffId":"2019102631020121"},{"poweroffId":2019102631020120,"sgpoweroffId":null,"subsName":"","lineName":"10kV大横V543线","pubTranName":"临安鑫栋布鞋厂,临安大和包装材料厂,珠西张家头,珠西村罗家头,珠西村外珠西,临安恒立机械有限公司2#,珠西下坞岭配变,临安恒立机械有限公司1#,","scope":"浙江省-杭州市-临安市-板桥镇珠西张家头，珠西下坞岭，杭州临安恒立机械有限公司，珠西村罗家头，临安鑫栋布鞋厂，珠西村外珠西，临安红卫竹制品加工厂一带","startTime":"2019-11-04 07:10:00","stopDate":"2019-11-04 08:50:00","orgNo":"3340160","typeCode":"计划停电","poweroffArea":"110kV板桥变:1、停大横V543线46+1#杆开关至76#杆5432开关之间； 2、停祝家V553线46+1#杆开关至76#杆5532开关之间； 3、停大横V543线珠西分线16号杆开关","poweroffReason":"线路改造","powerTime":"2019-11-04 08:41:11","powerComm":"已送电","subsNo":"","lineNo":"","tgNo":"","tgName":null,"infoStatus":"1","orgName":"国网浙江临安市供电公司","typeName":null,"infoStatusName":null,"dateDay":null,"orgNos":null,"nowTime":null,"countyName":null,"streetName":null,"villageName":null,"roadName":null,"communityName":null,"tranName":null,"sdLineName":null,"cityCode":"3340160","cityName":"国网浙江临安市供电公司","provinceCode":null,"stopTime":"2019-11-04 08:50:00","powerType":"全部","powerOffArea":"110kV板桥变:1、停大横V543线46+1#杆开关至76#杆5432开关之间； 2、停祝家V553线46+1#杆开关至76#杆5532开关之间； 3、停大横V543线珠西分线16号杆开关","powerOffReason":"线路改造","powerOffId":"2019102631020120"},{"poweroffId":2019102631020119,"sgpoweroffId":null,"subsName":"","lineName":"10kV三口V552线","pubTranName":"三口车站配变,三口电管站,","scope":"浙江省-杭州市-临安市-板桥镇三口车站，三口电管站1号一带","startTime":"2019-11-05 08:10:00","stopDate":"2019-11-05 16:00:00","orgNo":"3340160","typeCode":"计划停电","poweroffArea":"110kV板桥变:1、停三口V552线三口电管站分线4#杆三口电管站1#配变低压总刀闸 2、停三口V552线三口车站变分线1#杆三口车站配变低压总刀闸","poweroffReason":"低压线路改造","powerTime":"2019-11-05 15:50:06","powerComm":"已送电","subsNo":"","lineNo":"","tgNo":"","tgName":null,"infoStatus":"1","orgName":"国网浙江临安市供电公司","typeName":null,"infoStatusName":null,"dateDay":null,"orgNos":null,"nowTime":null,"countyName":null,"streetName":null,"villageName":null,"roadName":null,"communityName":null,"tranName":null,"sdLineName":null,"cityCode":"3340160","cityName":"国网浙江临安市供电公司","provinceCode":null,"stopTime":"2019-11-05 16:00:00","powerType":"全部","powerOffArea":"110kV板桥变:1、停三口V552线三口电管站分线4#杆三口电管站1#配变低压总刀闸 2、停三口V552线三口车站变分线1#杆三口车站配变低压总刀闸","powerOffReason":"低压线路改造","powerOffId":"2019102631020119"},{"poweroffId":2019102631020117,"sgpoweroffId":null,"subsName":"","lineName":"10kV金峰R253线","pubTranName":"淳安县路灯管理所龙山岛路灯专变,中国移动通信集团浙江有限公司配变淳安分公司配变,","scope":"浙江省-杭州市-淳安县-千岛湖镇(淳安县路灯管理所,中国移动通信集团浙江有限公司淳安分公司)","startTime":"2019-10-26 11:37:00","stopDate":"2019-10-27 11:59:59","orgNo":"3340190","typeCode":"电网故障停限电","poweroffArea":"35kV城北变:金峰R253线中国移动淳安分公司配变跌落式熔断器后段","poweroffReason":"高压开关跳闸 原停电结束时间为2019-10-26 13:37:00,因XXX原因,现变更停电结束时间为2019-10-27 11:59:59","powerTime":"2019-10-27 11:52:42","powerComm":"已送电","subsNo":"","lineNo":"","tgNo":"","tgName":null,"infoStatus":"1","orgName":"国网浙江淳安县供电有限公司","typeName":null,"infoStatusName":null,"dateDay":null,"orgNos":null,"nowTime":null,"countyName":null,"streetName":null,"villageName":null,"roadName":null,"communityName":null,"tranName":null,"sdLineName":null,"cityCode":"3340190","cityName":"国网浙江淳安县供电有限公司","provinceCode":null,"stopTime":"2019-10-27 11:59:59","powerType":"全部","powerOffArea":"35kV城北变:金峰R253线中国移动淳安分公司配变跌落式熔断器后段","powerOffReason":"高压开关跳闸 原停电结束时间为2019-10-26 13:37:00,因XXX原因,现变更停电结束时间为2019-10-27 11:59:59","powerOffId":"2019102631020117"},{"poweroffId":2019102631020115,"sgpoweroffId":null,"subsName":"","lineName":"10kV桦树H684线","pubTranName":"原水输水3#基建变,水利水电4号基建变,中国水利水电第十三工程局有限公司,灵溪皇坟轧石矿,桦树村洪家凉亭,杭州市闲林水库管理,中国水利水电第十三工程局有限公司,闲林水厂工棚,灵溪村王街,杭州市闲林水库管理处,桦树村江家头,蓝山金属微丝,里项村里大毛坞,省军区53分队,里长子坞变,万丈山隧道路灯,西溪源村夏家头公变,杭州市闲林水库管理,杭州市千岛湖原水股份有限公司（6120893612）3#专变,桦树村竺坞,桦树村竺坞2号公变,云栖村长岭,午潮山农场,中国水利水电第十三工程局有限公司,埠源农业,原水输水1#基建变,闲祝公路二标（2）,东和工棚,五潮山农庄,桦树村里桐村,杭州浩博旅游开发有限公司,瓦窑弄公变,桦树污水泵站,怡源建材,云栖村洋王畈,闲林五金制造,杭州市水务控股集团有限公司,闲林水库3#,水务公司2号基建,杭州市千岛湖原水股份有限公司（6120893612）1#专变,31121部队营房,原水输水2#基建变,皇坟山路口,长子坞,桦树村章家门,云栖村,杭州市闲林水库管理,云栖村张家口,73681部队,坤泰园林基建,里项村龙庆寺,闲林路灯,杭州市千岛湖原水股份有限公司（6120893612）2#专变,里山村里山桥,里山村大毛坞公变,万丈山隧道路灯,原水输水4号基建变,杭州市水务控股集团有限公司,","scope":"浙江省-杭州市-余杭区-闲林街道-桦树行政村(桐自然村,外长子坞自然村,桦树自然村,竺坞自然村,洪家凉亭自然村,里长子坞自然村),闲林街道-里项行政村(里项自然村,里山桥自然村,丁家自然村,大毛坞自然村,童家自然村,龙庆寺自然村),闲林街道-云栖行政村(灵溪自然村,云栖自然村,胡家店自然村,长岭自然村,寺前自然村,胡家岭自然村),闲林街道(方家山社区-社区,西溪源行政村-里山桥,何母桥行政村-何母桥自然村,北山社区-闲林东路);闲林街道-里项行政村(杭州埠源农业开发有限公司,陈冬根,杭州市闲林水库管理处,杭州市水务控股集团有限公司,杭州水务原水有限公司,浙江舟山广宇建设有限公司,杭州余杭区闲林街道午潮山家庭农场),闲林街道-云栖行政村(杭州怡源新型建材有限公司,中国人民解放军31121部队),闲林街道-华丰社区(杭州蓝山金属微丝有限公司,中国人民解放军31121部队43分队,浙江省军区53分队,杭州市余杭区公路管理处,杭州余杭区闲林镇午朝山农庄,杭州市余杭区人民政府闲林街道办事处,杭州余杭区闲林镇大华白云石粉厂),闲林街道(桦树行政村-中国电建市政建设集团有限公司,联荣行政村-杭州市余杭区人民政府闲林街道办事处,宁波坤泰园林建设有限责任公司,杭州市千岛湖原水股份有限公司)","startTime":"2019-10-26 16:05:44","stopDate":"2019-10-27 09:05:44","orgNo":"3340140","typeCode":"电网故障停限电","poweroffArea":"110kV闲林变:桦树H684线","poweroffReason":"高压开关跳闸 原停电结束时间为2019-10-26 18:05:44,因突发情况原因,现变更停电结束时间为2019-10-27 09:05:44","powerTime":"2019-10-27 08:20:03","powerComm":"已送电","subsNo":"","lineNo":"","tgNo":"","tgName":null,"infoStatus":"1","orgName":"国网浙江杭州市余杭区供电有限公司","typeName":null,"infoStatusName":null,"dateDay":null,"orgNos":null,"nowTime":null,"countyName":null,"streetName":null,"villageName":null,"roadName":null,"communityName":null,"tranName":null,"sdLineName":null,"cityCode":"3340140","cityName":"国网浙江杭州市余杭区供电有限公司","provinceCode":null,"stopTime":"2019-10-27 09:05:44","powerType":"全部","powerOffArea":"110kV闲林变:桦树H684线","powerOffReason":"高压开关跳闸 原停电结束时间为2019-10-26 18:05:44,因突发情况原因,现变更停电结束时间为2019-10-27 09:05:44","powerOffId":"2019102631020115"}],"pageModel":{"pageNow":950,"totalCount":17789,"totalPage":1779,"tableRows":0,"pageCount":10,"beginCount":9490},"isExperi":"1"}