{"message":"","today":"2020-06-16","seleList":[{"poweroffId":2019102531020591,"sgpoweroffId":null,"subsName":"","lineName":"10kV东村D501线","pubTranName":"董家村1号董家公变,","scope":"浙江省杭州市富阳区常安镇董家村一带","startTime":"2019-11-04 08:30:00","stopDate":"2019-11-04 16:40:00","orgNo":"3340170","typeCode":"计划停电","poweroffArea":"110kV常安变:东村D501线-董家村1号董家公变低压开关后段","poweroffReason":"(低压停电信息)人工立杆、装横担、做拉线、架线、拆旧、线路改接等工作","powerTime":"2019-11-04 16:10:20","powerComm":"已送电","subsNo":"","lineNo":"","tgNo":"","tgName":null,"infoStatus":"1","orgName":"国网浙江杭州市富阳区供电公司","typeName":null,"infoStatusName":null,"dateDay":null,"orgNos":null,"nowTime":null,"countyName":null,"streetName":null,"villageName":null,"roadName":null,"communityName":null,"tranName":null,"sdLineName":null,"cityCode":"3340170","cityName":"国网浙江杭州市富阳区供电公司","provinceCode":null,"stopTime":"2019-11-04 16:40:00","powerType":"全部","powerOffArea":"110kV常安变:东村D501线-董家村1号董家公变低压开关后段","powerOffReason":"(低压停电信息)人工立杆、装横担、做拉线、架线、拆旧、线路改接等工作","powerOffId":"2019102531020591"},{"poweroffId":2019102531020590,"sgpoweroffId":null,"subsName":"","lineName":"10kV宏波A301线","pubTranName":"肖山第二农垦场,农二场（3~4队）,临江市政,农二场（宿舍北）,临江市政(临),","scope":"浙江省-杭州市-萧山区-临江街道-临江工业园区(杭州临江投资发展有限公司,杭州市萧山区人民政府临江街道办事处),临江街道-农一场(萧山市第二农垦场水电管理站,肖山第二农垦场)","startTime":"2019-11-08 09:00:00","stopDate":"2019-11-08 17:00:00","orgNo":"3340120","typeCode":"计划停电","poweroffArea":"110kV建湾变:宏波A301线-宏染A301A线市政分线16#开关后段","poweroffReason":"10kV宏染A301A线市政分线25#杆至30#杆、38#杆至44#杆加杆，38#杆至45#杆导线更换，新装开关等工作","powerTime":"2019-11-08 16:01:27","powerComm":"已送电","subsNo":"","lineNo":"","tgNo":"","tgName":null,"infoStatus":"1","orgName":"国网浙江杭州市钱塘新区供电公司","typeName":null,"infoStatusName":null,"dateDay":null,"orgNos":null,"nowTime":null,"countyName":null,"streetName":null,"villageName":null,"roadName":null,"communityName":null,"tranName":null,"sdLineName":null,"cityCode":"3340120","cityName":"国网浙江杭州市钱塘新区供电公司","provinceCode":null,"stopTime":"2019-11-08 17:00:00","powerType":"全部","powerOffArea":"110kV建湾变:宏波A301线-宏染A301A线市政分线16#开关后段","powerOffReason":"10kV宏染A301A线市政分线25#杆至30#杆、38#杆至44#杆加杆，38#杆至45#杆导线更换，新装开关等工作","powerOffId":"2019102531020590"},{"poweroffId":2019102531020587,"sgpoweroffId":null,"subsName":"","lineName":"10kV前染963线","pubTranName":"长征村2#变,","scope":"浙江省-杭州市-萧山区-前进街道-临江行政村-长征自然村","startTime":"2019-11-06 09:15:00","stopDate":"2019-11-06 15:00:00","orgNo":"3340120","typeCode":"计划停电","poweroffArea":"110kV前进变:前染963线-37#杆分支线后段","poweroffReason":"10KV前染963线37#杆带电拆头，10KV前染963线37#至37-01#杆导线更换工作 原停电结束时间为2019-11-06 17:30:00,为减少客户停电时间,加快工作进度,提前送电,现变更停电结束时间为2019-11-06 15:00:00","powerTime":"2019-11-06 14:09:33","powerComm":"已送电","subsNo":"","lineNo":"","tgNo":"","tgName":null,"infoStatus":"1","orgName":"国网浙江杭州市钱塘新区供电公司","typeName":null,"infoStatusName":null,"dateDay":null,"orgNos":null,"nowTime":null,"countyName":null,"streetName":null,"villageName":null,"roadName":null,"communityName":null,"tranName":null,"sdLineName":null,"cityCode":"3340120","cityName":"国网浙江杭州市钱塘新区供电公司","provinceCode":null,"stopTime":"2019-11-06 15:00:00","powerType":"全部","powerOffArea":"110kV前进变:前染963线-37#杆分支线后段","powerOffReason":"10KV前染963线37#杆带电拆头，10KV前染963线37#至37-01#杆导线更换工作 原停电结束时间为2019-11-06 17:30:00,为减少客户停电时间,加快工作进度,提前送电,现变更停电结束时间为2019-11-06 15:00:00","powerOffId":"2019102531020587"},{"poweroffId":2019102531020586,"sgpoweroffId":null,"subsName":"","lineName":"10kV廿围0061线","pubTranName":"围垦水利开发一场,龙翔公司,围垦综合开发一场,围垦造地开发（一）,省围垦造地开发公司,瓜沥镇大义村（一）,省围垦造地开发公司,萧围工程队,","scope":"浙江省-杭州市-萧山区-围垦垦区-十七工段片区(浙江省围垦造地开发公司萧山分公司,浙江水利水电学院,浙江省水利围垦综合开发一场(唐风昌),浙江省水利围垦综合开发一场,杭州大江东产业集聚区水利工程管理所),围垦垦区(萧山5.2万亩垦区-萧山区瓜沥镇大义村（围垦用电）,十二工段片区-浙江省围垦造地开发公司萧山分公司,十八工段片区-杭州萧山龙翔养殖有限责任公司)","startTime":"2019-11-06 09:00:00","stopDate":"2019-11-06 16:00:00","orgNo":"3340120","typeCode":"计划停电","poweroffArea":"110kV长征变:廿围0061线首端，2863，2864之间","poweroffReason":"10kV廿围061线81-01#杆至81-04#杆，99-01#杆至99-05#杆，113-01#杆至113-02#杆，119-01#杆间换线工作","powerTime":"2019-11-06 15:55:00","powerComm":"已送电","subsNo":"","lineNo":"","tgNo":"","tgName":null,"infoStatus":"1","orgName":"国网浙江杭州市钱塘新区供电公司","typeName":null,"infoStatusName":null,"dateDay":null,"orgNos":null,"nowTime":null,"countyName":null,"streetName":null,"villageName":null,"roadName":null,"communityName":null,"tranName":null,"sdLineName":null,"cityCode":"3340120","cityName":"国网浙江杭州市钱塘新区供电公司","provinceCode":null,"stopTime":"2019-11-06 16:00:00","powerType":"全部","powerOffArea":"110kV长征变:廿围0061线首端，2863，2864之间","powerOffReason":"10kV廿围061线81-01#杆至81-04#杆，99-01#杆至99-05#杆，113-01#杆至113-02#杆，119-01#杆间换线工作","powerOffId":"2019102531020586"},{"poweroffId":2019102531020585,"sgpoweroffId":null,"subsName":"","lineName":"10kV春风A302线","pubTranName":"南沙村春风4#变,","scope":"浙江省-杭州市-萧山区-义蓬街道-南沙行政村-南沙自然村","startTime":"2019-11-06 09:00:00","stopDate":"2019-11-06 16:00:00","orgNo":"3340120","typeCode":"计划停电","poweroffArea":"110kV建湾变:春风A302线-69#杆后段","poweroffReason":"10kV春风A302线69#杆带电新装开关，69#杆至69/01#杆导线更换等工作 原停电结束时间为2019-11-06 17:00:00,为减少客户停电时间,加快工作进度,提前送电,现变更停电结束时间为2019-11-06 16:00:00","powerTime":"2019-11-06 15:11:18","powerComm":"已送电","subsNo":"","lineNo":"","tgNo":"","tgName":null,"infoStatus":"1","orgName":"国网浙江杭州市钱塘新区供电公司","typeName":null,"infoStatusName":null,"dateDay":null,"orgNos":null,"nowTime":null,"countyName":null,"streetName":null,"villageName":null,"roadName":null,"communityName":null,"tranName":null,"sdLineName":null,"cityCode":"3340120","cityName":"国网浙江杭州市钱塘新区供电公司","provinceCode":null,"stopTime":"2019-11-06 16:00:00","powerType":"全部","powerOffArea":"110kV建湾变:春风A302线-69#杆后段","powerOffReason":"10kV春风A302线69#杆带电新装开关，69#杆至69/01#杆导线更换等工作 原停电结束时间为2019-11-06 17:00:00,为减少客户停电时间,加快工作进度,提前送电,现变更停电结束时间为2019-11-06 16:00:00","powerOffId":"2019102531020585"},{"poweroffId":2019102531020583,"sgpoweroffId":null,"subsName":"","lineName":"10kV义和A55线","pubTranName":"1#,火星村1#变,火星村2#变,2#,","scope":"浙江省-杭州市-萧山区-义蓬街道-火星行政村-火星自然村,东联仓储有限公司","startTime":"2019-11-11 09:00:00","stopDate":"2019-11-11 15:30:00","orgNo":"3340120","typeCode":"计划停电","poweroffArea":"110kV白浪变:义和A55线-2344开关-2346开关","poweroffReason":"10KV新白A41线76#杆-80#杆（义和A55线43-47#杆）双回路上改下 原停电结束时间为2019-11-05 15:30:00,因XXX原因,现变更停电结束时间为2019-11-11 15:30:00","powerTime":"2019-11-11 15:19:15","powerComm":"已送电","subsNo":"","lineNo":"","tgNo":"","tgName":null,"infoStatus":"1","orgName":"国网浙江杭州市钱塘新区供电公司","typeName":null,"infoStatusName":null,"dateDay":null,"orgNos":null,"nowTime":null,"countyName":null,"streetName":null,"villageName":null,"roadName":null,"communityName":null,"tranName":null,"sdLineName":null,"cityCode":"3340120","cityName":"国网浙江杭州市钱塘新区供电公司","provinceCode":null,"stopTime":"2019-11-11 15:30:00","powerType":"全部","powerOffArea":"110kV白浪变:义和A55线-2344开关-2346开关","powerOffReason":"10KV新白A41线76#杆-80#杆（义和A55线43-47#杆）双回路上改下 原停电结束时间为2019-11-05 15:30:00,因XXX原因,现变更停电结束时间为2019-11-11 15:30:00","powerOffId":"2019102531020583"},{"poweroffId":2019102531020578,"sgpoweroffId":null,"subsName":"","lineName":"10kV近江D428线","pubTranName":"富阳市佳诚木业有限公司,浙江近江集团公司1#变,富阳吉欣金属家具有限公司,杭州精瑞彩印包装有限公司,杭州迪邦涂料有限公司,浙江中烟工业有限责任公司,浙江近江集团公司1#变,杭州近江塑料制品有限公司,杭州近江大东印务有限公司,马奇隆鞋材（杭州）有限公司1#,杭州杭佳塑料制品有限公司,浙江伊沃克家私有限公司,浙江中烟工业有限责任公司1#,杭州倍卓电器有限公司,富阳荣翔鞋材有限公司,富阳市东星太阳能配件有限公司,","scope":"浙江省杭州市富阳区东洲街道东桥路近江集团工业基地一带","startTime":"2019-11-06 09:00:00","stopDate":"2019-11-06 09:10:00","orgNo":"3340170","typeCode":"计划停电","poweroffArea":"110kV东洲变:近江D428线","poweroffReason":"10kV发电车倒负荷短时停电","powerTime":"2019-11-06 09:09:16","powerComm":"已送电","subsNo":"","lineNo":"","tgNo":"","tgName":null,"infoStatus":"1","orgName":"国网浙江杭州市富阳区供电公司","typeName":null,"infoStatusName":null,"dateDay":null,"orgNos":null,"nowTime":null,"countyName":null,"streetName":null,"villageName":null,"roadName":null,"communityName":null,"tranName":null,"sdLineName":null,"cityCode":"3340170","cityName":"国网浙江杭州市富阳区供电公司","provinceCode":null,"stopTime":"2019-11-06 09:10:00","powerType":"全部","powerOffArea":"110kV东洲变:近江D428线","powerOffReason":"10kV发电车倒负荷短时停电","powerOffId":"2019102531020578"},{"poweroffId":2019102531020549,"sgpoweroffId":null,"subsName":"","lineName":"10kV春建D202线","pubTranName":"浙江交工集团股份有限公司（下唐1#）变,","scope":"浙江省-杭州市-富阳区-春建乡-大唐行政村-浙江交工集团股份有限公司","startTime":"2019-11-07 08:00:00","stopDate":"2019-11-07 17:00:00","orgNo":"3340170","typeCode":"计划停电","poweroffArea":"35kV大青变:春建D202线-交工二支线开关后段","poweroffReason":"配合客户内部检修，原停电结束时间为2019-11-07 14:30:00,因现场抢修难度大,现变更停电结束时间为2019-11-07 17:00:00","powerTime":"2019-11-07 16:50:18","powerComm":"已送电","subsNo":"","lineNo":"","tgNo":"","tgName":null,"infoStatus":"1","orgName":"国网浙江杭州市富阳区供电公司","typeName":null,"infoStatusName":null,"dateDay":null,"orgNos":null,"nowTime":null,"countyName":null,"streetName":null,"villageName":null,"roadName":null,"communityName":null,"tranName":null,"sdLineName":null,"cityCode":"3340170","cityName":"国网浙江杭州市富阳区供电公司","provinceCode":null,"stopTime":"2019-11-07 17:00:00","powerType":"全部","powerOffArea":"35kV大青变:春建D202线-交工二支线开关后段","powerOffReason":"配合客户内部检修，原停电结束时间为2019-11-07 14:30:00,因现场抢修难度大,现变更停电结束时间为2019-11-07 17:00:00","powerOffId":"2019102531020549"},{"poweroffId":2019102531020546,"sgpoweroffId":null,"subsName":"","lineName":"10kV春建D202线","pubTranName":"浙江交工集团股份有限公司1#变,","scope":"浙江省-杭州市-富阳区-春建乡-大唐行政村-浙江交工集团股份有限公司","startTime":"2019-11-07 07:00:00","stopDate":"2019-11-07 17:00:00","orgNo":"3340170","typeCode":"计划停电","poweroffArea":"35kV大青变:春建D202线-交工二支线开关后段","poweroffReason":"配合客户内部检修，原停电结束时间为2019-11-07 14:30:00,因现场抢修难度大,现变更停电结束时间为2019-11-07 17:00:00","powerTime":"2019-11-07 16:50:33","powerComm":"已送电","subsNo":"","lineNo":"","tgNo":"","tgName":null,"infoStatus":"1","orgName":"国网浙江杭州市富阳区供电公司","typeName":null,"infoStatusName":null,"dateDay":null,"orgNos":null,"nowTime":null,"countyName":null,"streetName":null,"villageName":null,"roadName":null,"communityName":null,"tranName":null,"sdLineName":null,"cityCode":"3340170","cityName":"国网浙江杭州市富阳区供电公司","provinceCode":null,"stopTime":"2019-11-07 17:00:00","powerType":"全部","powerOffArea":"35kV大青变:春建D202线-交工二支线开关后段","powerOffReason":"配合客户内部检修，原停电结束时间为2019-11-07 14:30:00,因现场抢修难度大,现变更停电结束时间为2019-11-07 17:00:00","powerOffId":"2019102531020546"},{"poweroffId":2019102531020544,"sgpoweroffId":null,"subsName":"","lineName":"10kV春建D202线","pubTranName":"浙江交工集团股份有限公司18#变,","scope":"浙江省-杭州市-富阳区-春建乡-大唐行政村-浙江交工集团股份有限公司","startTime":"2019-11-07 07:30:00","stopDate":"2019-11-07 17:00:00","orgNo":"3340170","typeCode":"计划停电","poweroffArea":"35kV大青变:春建D202线-交工二支线开关后段","poweroffReason":"配合客户内部检修，原停电结束时间为2019-11-07 14:30:00,因现场抢修难度大,现变更停电结束时间为2019-11-07 17:00:00","powerTime":"2019-11-07 16:50:48","powerComm":"已送电","subsNo":"","lineNo":"","tgNo":"","tgName":null,"infoStatus":"1","orgName":"国网浙江杭州市富阳区供电公司","typeName":null,"infoStatusName":null,"dateDay":null,"orgNos":null,"nowTime":null,"countyName":null,"streetName":null,"villageName":null,"roadName":null,"communityName":null,"tranName":null,"sdLineName":null,"cityCode":"3340170","cityName":"国网浙江杭州市富阳区供电公司","provinceCode":null,"stopTime":"2019-11-07 17:00:00","powerType":"全部","powerOffArea":"35kV大青变:春建D202线-交工二支线开关后段","powerOffReason":"配合客户内部检修，原停电结束时间为2019-11-07 14:30:00,因现场抢修难度大,现变更停电结束时间为2019-11-07 17:00:00","powerOffId":"2019102531020544"}],"pageModel":{"pageNow":953,"totalCount":17789,"totalPage":1779,"tableRows":0,"pageCount":10,"beginCount":9520},"isExperi":"1"}