{"message":"","today":"2020-06-16","seleList":[{"poweroffId":2019102531020542,"sgpoweroffId":null,"subsName":"","lineName":"10kV春建D202线","pubTranName":"下唐村2#牌楼公变,下唐村5号公变,","scope":"浙江省-杭州市-富阳区-春建乡-大唐行政村(牌楼自然村,下唐自然村,上唐自然村)","startTime":"2019-11-07 08:30:00","stopDate":"2019-11-07 17:00:00","orgNo":"3340170","typeCode":"计划停电","poweroffArea":"35kV大青变:春建D202线首端，下唐村5号公变，下唐村2#牌楼公变之间","poweroffReason":"青云2019年10千伏新联分线等线路改造工程：10kV下唐支线22#杆至35#杆线路改接等工作，原停电结束时间为2019-11-07 14:30:00,因现场抢修难度大,现变更停电结束时间为2019-11-07 17:00:00","powerTime":"2019-11-07 16:51:45","powerComm":"已送电","subsNo":"","lineNo":"","tgNo":"","tgName":null,"infoStatus":"1","orgName":"国网浙江杭州市富阳区供电公司","typeName":null,"infoStatusName":null,"dateDay":null,"orgNos":null,"nowTime":null,"countyName":null,"streetName":null,"villageName":null,"roadName":null,"communityName":null,"tranName":null,"sdLineName":null,"cityCode":"3340170","cityName":"国网浙江杭州市富阳区供电公司","provinceCode":null,"stopTime":"2019-11-07 17:00:00","powerType":"全部","powerOffArea":"35kV大青变:春建D202线首端，下唐村5号公变，下唐村2#牌楼公变之间","powerOffReason":"青云2019年10千伏新联分线等线路改造工程：10kV下唐支线22#杆至35#杆线路改接等工作，原停电结束时间为2019-11-07 14:30:00,因现场抢修难度大,现变更停电结束时间为2019-11-07 17:00:00","powerOffId":"2019102531020542"},{"poweroffId":2019102531020540,"sgpoweroffId":null,"subsName":"","lineName":"10kV汤家D418线","pubTranName":"三山上里联合机埠,","scope":"浙江省-杭州市-富阳区-鹿山街道-汤家埠行政村-杭州市富阳区鹿山街道汤家埠村股份经济合作社","startTime":"2019-11-08 07:40:00","stopDate":"2019-11-08 17:00:00","orgNo":"3340170","typeCode":"计划停电","poweroffArea":"110kV长春变:汤家D418线-砂石站支线后段;汤家D418线-三山上里联合机埠后段","poweroffReason":"配合客户内部检修，原停电结束时间为2019-11-08 16:00:00,因政策原因,现变更停电结束时间为2019-11-08 17:00:00","powerTime":"2019-11-08 16:52:03","powerComm":"已送电","subsNo":"","lineNo":"","tgNo":"","tgName":null,"infoStatus":"1","orgName":"国网浙江杭州市富阳区供电公司","typeName":null,"infoStatusName":null,"dateDay":null,"orgNos":null,"nowTime":null,"countyName":null,"streetName":null,"villageName":null,"roadName":null,"communityName":null,"tranName":null,"sdLineName":null,"cityCode":"3340170","cityName":"国网浙江杭州市富阳区供电公司","provinceCode":null,"stopTime":"2019-11-08 17:00:00","powerType":"全部","powerOffArea":"110kV长春变:汤家D418线-砂石站支线后段;汤家D418线-三山上里联合机埠后段","powerOffReason":"配合客户内部检修，原停电结束时间为2019-11-08 16:00:00,因政策原因,现变更停电结束时间为2019-11-08 17:00:00","powerOffId":"2019102531020540"},{"poweroffId":2019102531020539,"sgpoweroffId":null,"subsName":"","lineName":"10kV春建D202线","pubTranName":"下唐村3#下唐2公变,下唐村8号下唐公变,","scope":"浙江省-杭州市-富阳区-春建乡-大唐行政村(牌楼自然村,上唐自然村,下唐自然村)","startTime":"2019-11-07 13:40:00","stopDate":"2019-11-07 17:00:00","orgNo":"3340170","typeCode":"计划停电","poweroffArea":"35kV大青变:春建D202线首端，下唐村8号下唐公变，下唐村3#下唐2公变之间","poweroffReason":"下唐村8号公变、下唐村3#下唐2公变变压器低压出线电缆恢复，原停电结束时间为2019-11-07 14:20:00,因现场抢修难度大,现变更停电结束时间为2019-11-07 17:00:00","powerTime":"2019-11-07 16:52:01","powerComm":"已送电","subsNo":"","lineNo":"","tgNo":"","tgName":null,"infoStatus":"1","orgName":"国网浙江杭州市富阳区供电公司","typeName":null,"infoStatusName":null,"dateDay":null,"orgNos":null,"nowTime":null,"countyName":null,"streetName":null,"villageName":null,"roadName":null,"communityName":null,"tranName":null,"sdLineName":null,"cityCode":"3340170","cityName":"国网浙江杭州市富阳区供电公司","provinceCode":null,"stopTime":"2019-11-07 17:00:00","powerType":"全部","powerOffArea":"35kV大青变:春建D202线首端，下唐村8号下唐公变，下唐村3#下唐2公变之间","powerOffReason":"下唐村8号公变、下唐村3#下唐2公变变压器低压出线电缆恢复，原停电结束时间为2019-11-07 14:20:00,因现场抢修难度大,现变更停电结束时间为2019-11-07 17:00:00","powerOffId":"2019102531020539"},{"poweroffId":2019102531020534,"sgpoweroffId":null,"subsName":"","lineName":"10kV汤家D418线","pubTranName":"富阳市路灯安装维修管理所1#变,","scope":"浙江省-杭州市-富阳区-鹿山街道-陆家行政村-杭州富阳城市照明工程有限公司","startTime":"2019-11-08 07:20:00","stopDate":"2019-11-08 17:00:00","orgNo":"3340170","typeCode":"计划停电","poweroffArea":"110kV长春变:汤家D418线-富阳市路灯安装维修管理所后段","poweroffReason":"配合客户内部检修，原停电结束时间为2019-11-08 16:00:00,因政策原因,现变更停电结束时间为2019-11-08 17:00:00","powerTime":"2019-11-08 16:51:30","powerComm":"已送电","subsNo":"","lineNo":"","tgNo":"","tgName":null,"infoStatus":"1","orgName":"国网浙江杭州市富阳区供电公司","typeName":null,"infoStatusName":null,"dateDay":null,"orgNos":null,"nowTime":null,"countyName":null,"streetName":null,"villageName":null,"roadName":null,"communityName":null,"tranName":null,"sdLineName":null,"cityCode":"3340170","cityName":"国网浙江杭州市富阳区供电公司","provinceCode":null,"stopTime":"2019-11-08 17:00:00","powerType":"全部","powerOffArea":"110kV长春变:汤家D418线-富阳市路灯安装维修管理所后段","powerOffReason":"配合客户内部检修，原停电结束时间为2019-11-08 16:00:00,因政策原因,现变更停电结束时间为2019-11-08 17:00:00","powerOffId":"2019102531020534"},{"poweroffId":2019102531020533,"sgpoweroffId":null,"subsName":"","lineName":"10kV春建D202线","pubTranName":"下唐村8号下唐公变,下唐村3#下唐2公变,","scope":"浙江省-杭州市-富阳区-春建乡-大唐行政村(牌楼自然村,上唐自然村,下唐自然村)","startTime":"2019-11-07 07:40:00","stopDate":"2019-11-07 09:00:00","orgNo":"3340170","typeCode":"计划停电","poweroffArea":"35kV大青变:春建D202线首端，下唐村3#下唐2公变，下唐村8号下唐公变之间","poweroffReason":"下唐村8号公变、下唐村3#下唐2公变变压器低压出线电缆改接至发电车T接箱 原停电结束时间为2019-11-07 08:20:00,因现场施工难度大原因,现变更停电结束时间为2019-11-07 09:00:00","powerTime":"2019-11-07 08:51:21","powerComm":"已送电","subsNo":"","lineNo":"","tgNo":"","tgName":null,"infoStatus":"1","orgName":"国网浙江杭州市富阳区供电公司","typeName":null,"infoStatusName":null,"dateDay":null,"orgNos":null,"nowTime":null,"countyName":null,"streetName":null,"villageName":null,"roadName":null,"communityName":null,"tranName":null,"sdLineName":null,"cityCode":"3340170","cityName":"国网浙江杭州市富阳区供电公司","provinceCode":null,"stopTime":"2019-11-07 09:00:00","powerType":"全部","powerOffArea":"35kV大青变:春建D202线首端，下唐村3#下唐2公变，下唐村8号下唐公变之间","powerOffReason":"下唐村8号公变、下唐村3#下唐2公变变压器低压出线电缆改接至发电车T接箱 原停电结束时间为2019-11-07 08:20:00,因现场施工难度大原因,现变更停电结束时间为2019-11-07 09:00:00","powerOffId":"2019102531020533"},{"poweroffId":2019102531020531,"sgpoweroffId":null,"subsName":"","lineName":"10kV蒋家D408线","pubTranName":"杭州富阳工贸资产经营投资集团有限公司1#变,","scope":"浙江省-杭州市-富阳区-鹿山街道-蒋家行政村-杭州富阳工贸资产经营投资集团有限公司","startTime":"2019-11-04 08:45:00","stopDate":"2019-11-04 16:00:00","orgNo":"3340170","typeCode":"计划停电","poweroffArea":"110kV长春变:蒋家D408线-杭州富阳工贸资产经营投资集团有限公司后段;蒋家D408线-浙江金鑫管桩有限公司后段","poweroffReason":"鹿山便民服务中心工贸资产箱变移位工程：工贸支线1#杆工贸资产配变移位等工作。","powerTime":"2019-11-04 15:40:30","powerComm":"已送电","subsNo":"","lineNo":"","tgNo":"","tgName":null,"infoStatus":"1","orgName":"国网浙江杭州市富阳区供电公司","typeName":null,"infoStatusName":null,"dateDay":null,"orgNos":null,"nowTime":null,"countyName":null,"streetName":null,"villageName":null,"roadName":null,"communityName":null,"tranName":null,"sdLineName":null,"cityCode":"3340170","cityName":"国网浙江杭州市富阳区供电公司","provinceCode":null,"stopTime":"2019-11-04 16:00:00","powerType":"全部","powerOffArea":"110kV长春变:蒋家D408线-杭州富阳工贸资产经营投资集团有限公司后段;蒋家D408线-浙江金鑫管桩有限公司后段","powerOffReason":"鹿山便民服务中心工贸资产箱变移位工程：工贸支线1#杆工贸资产配变移位等工作。","powerOffId":"2019102531020531"},{"poweroffId":2019102531020529,"sgpoweroffId":null,"subsName":"","lineName":"10kV胥口D712线","pubTranName":"元村4#洋桥头公变,","scope":"浙江省杭州市富阳区新登镇元村行政村洋桥头自然村一带","startTime":"2019-11-06 07:40:00","stopDate":"2019-11-06 16:30:00","orgNo":"3340170","typeCode":"计划停电","poweroffArea":"110kV松溪变:胥口D712线-元村4#洋桥头公变低压开关后段","poweroffReason":"(低压停电信息)小溪口03线、桥头01线、落户线搭接、更换横担16付、拉线3付、导线搭接、架设BS-JKLYJ-4*35*3档、BLV-2*10*2档","powerTime":"2019-11-06 16:16:08","powerComm":"已送电","subsNo":"","lineNo":"","tgNo":"","tgName":null,"infoStatus":"1","orgName":"国网浙江杭州市富阳区供电公司","typeName":null,"infoStatusName":null,"dateDay":null,"orgNos":null,"nowTime":null,"countyName":null,"streetName":null,"villageName":null,"roadName":null,"communityName":null,"tranName":null,"sdLineName":null,"cityCode":"3340170","cityName":"国网浙江杭州市富阳区供电公司","provinceCode":null,"stopTime":"2019-11-06 16:30:00","powerType":"全部","powerOffArea":"110kV松溪变:胥口D712线-元村4#洋桥头公变低压开关后段","powerOffReason":"(低压停电信息)小溪口03线、桥头01线、落户线搭接、更换横担16付、拉线3付、导线搭接、架设BS-JKLYJ-4*35*3档、BLV-2*10*2档","powerOffId":"2019102531020529"},{"poweroffId":2019102531020520,"sgpoweroffId":null,"subsName":"","lineName":"10kV桐君T112线","pubTranName":"桐庐县市政园林建设管理处,印刷厂宿舍1号公变,","scope":"浙江省-杭州市-桐庐县-桐君街道-迎宾社区(对门山路,富春路,对门山三弄,对门山四弄),桐君街道(圆通社区-富春路,金鑫社区-富春路,浮桥埠行政村-大湾里自然村);浙江省-杭州市-桐庐县-桐君街道-圆通社区-桐庐县市政园林建设管理处","startTime":"2019-11-06 08:00:00","stopDate":"2019-11-06 11:00:00","orgNo":"3340150","typeCode":"计划停电","poweroffArea":"110kV桐庐变:桐君T112线-联华开关站门山F9215线后段","poweroffReason":"桐君供电所环网站消缺","powerTime":"2019-11-06 10:50:28","powerComm":"已送电","subsNo":"","lineNo":"","tgNo":"","tgName":null,"infoStatus":"1","orgName":"国网浙江桐庐县供电公司","typeName":null,"infoStatusName":null,"dateDay":null,"orgNos":null,"nowTime":null,"countyName":null,"streetName":null,"villageName":null,"roadName":null,"communityName":null,"tranName":null,"sdLineName":null,"cityCode":"3340150","cityName":"国网浙江桐庐县供电公司","provinceCode":null,"stopTime":"2019-11-06 11:00:00","powerType":"全部","powerOffArea":"110kV桐庐变:桐君T112线-联华开关站门山F9215线后段","powerOffReason":"桐君供电所环网站消缺","powerOffId":"2019102531020520"},{"poweroffId":2019102531020519,"sgpoweroffId":null,"subsName":"","lineName":"10kV桐君T112线","pubTranName":"县社险办,桐庐宜居酒店有限公司,","scope":"浙江省-杭州市-桐庐县-桐君街道(圆通社区-杨一平专变,迎宾社区-桐庐宜居酒店有限公司)","startTime":"2019-11-06 08:00:00","stopDate":"2019-11-06 12:00:00","orgNo":"3340150","typeCode":"计划停电","poweroffArea":"110kV桐庐变:桐君T112线-联华开关站社办F9216线后段","poweroffReason":"杨一平专变增容工程","powerTime":"2019-11-06 11:51:45","powerComm":"已送电","subsNo":"","lineNo":"","tgNo":"","tgName":null,"infoStatus":"1","orgName":"国网浙江桐庐县供电公司","typeName":null,"infoStatusName":null,"dateDay":null,"orgNos":null,"nowTime":null,"countyName":null,"streetName":null,"villageName":null,"roadName":null,"communityName":null,"tranName":null,"sdLineName":null,"cityCode":"3340150","cityName":"国网浙江桐庐县供电公司","provinceCode":null,"stopTime":"2019-11-06 12:00:00","powerType":"全部","powerOffArea":"110kV桐庐变:桐君T112线-联华开关站社办F9216线后段","powerOffReason":"杨一平专变增容工程","powerOffId":"2019102531020519"},{"poweroffId":2019102531020512,"sgpoweroffId":null,"subsName":"","lineName":"10kV富华D230线","pubTranName":"杭州伽利列光学仪器有限公司,","scope":"浙江省杭州市富阳区银湖街道盛彤快件服务有限公司一带","startTime":"2019-11-08 14:00:00","stopDate":"2019-11-08 18:00:00","orgNo":"3340170","typeCode":"计划停电","poweroffArea":"110kV银湖变:富华D230线-杭州伽利列光学仪器有限公司后段","poweroffReason":"银湖36号地块迁改工程：富华D230线伽利列分线改接至新富D584线新桥二号开关站Ⅰ段5#间隔，电缆敷设、制作、试验、搭接等工作","powerTime":"2019-11-08 17:16:32","powerComm":"已送电","subsNo":"","lineNo":"","tgNo":"","tgName":null,"infoStatus":"1","orgName":"国网浙江杭州市富阳区供电公司","typeName":null,"infoStatusName":null,"dateDay":null,"orgNos":null,"nowTime":null,"countyName":null,"streetName":null,"villageName":null,"roadName":null,"communityName":null,"tranName":null,"sdLineName":null,"cityCode":"3340170","cityName":"国网浙江杭州市富阳区供电公司","provinceCode":null,"stopTime":"2019-11-08 18:00:00","powerType":"全部","powerOffArea":"110kV银湖变:富华D230线-杭州伽利列光学仪器有限公司后段","powerOffReason":"银湖36号地块迁改工程：富华D230线伽利列分线改接至新富D584线新桥二号开关站Ⅰ段5#间隔，电缆敷设、制作、试验、搭接等工作","powerOffId":"2019102531020512"}],"pageModel":{"pageNow":954,"totalCount":17789,"totalPage":1779,"tableRows":0,"pageCount":10,"beginCount":9530},"isExperi":"1"}