{"message":"","today":"2020-06-16","seleList":[{"poweroffId":2019102531020472,"sgpoweroffId":null,"subsName":"","lineName":"10kV富华D230线","pubTranName":"富阳市宏立机械制造有限公司,","scope":"浙江省杭州市富阳区银湖街道宏立机械制造有限公司一带","startTime":"2019-11-09 09:00:00","stopDate":"2019-11-09 17:30:00","orgNo":"3340170","typeCode":"计划停电","poweroffArea":"110kV银湖变:富华D230线-宏立机械制造有限公司后段","poweroffReason":"银湖36号地块迁改工程：富华D230线电缆改接至新富D584线新桥四号开关站Ⅱ段8#间隔，富华D230线宏立机械分线改接至新富D584线新桥四号开关站Ⅰ段3#间隔，富华D230线裕达食品分线改接至新富D584线新桥二号开关站Ⅰ段6#间隔等工作","powerTime":"2019-11-09 17:03:15","powerComm":"已送电","subsNo":"","lineNo":"","tgNo":"","tgName":null,"infoStatus":"1","orgName":"国网浙江杭州市富阳区供电公司","typeName":null,"infoStatusName":null,"dateDay":null,"orgNos":null,"nowTime":null,"countyName":null,"streetName":null,"villageName":null,"roadName":null,"communityName":null,"tranName":null,"sdLineName":null,"cityCode":"3340170","cityName":"国网浙江杭州市富阳区供电公司","provinceCode":null,"stopTime":"2019-11-09 17:30:00","powerType":"全部","powerOffArea":"110kV银湖变:富华D230线-宏立机械制造有限公司后段","powerOffReason":"银湖36号地块迁改工程：富华D230线电缆改接至新富D584线新桥四号开关站Ⅱ段8#间隔，富华D230线宏立机械分线改接至新富D584线新桥四号开关站Ⅰ段3#间隔，富华D230线裕达食品分线改接至新富D584线新桥二号开关站Ⅰ段6#间隔等工作","powerOffId":"2019102531020472"},{"poweroffId":2019102531020471,"sgpoweroffId":null,"subsName":"","lineName":"10kV庆寺8322线","pubTranName":"庆寺变,02,浙江省老年活动中心,铁开,1,省府广场路灯专变,浙江省老年活动中心,","scope":"浙江省-杭州市-西湖区-西湖街道-双峰村社区-双峰新村,北山街道(宝石社区-城河下,上保社区-城河下);浙江省-杭州市-西湖区-北山街道-宝石社区-浙江省联谊俱乐部,武林街道-环西社区(杭州地方铁路开发有限公司,浙江物产实业控股(集团)有限公司),北山街道-金祝社区(杭州市路灯管理所,浙江省老年活动中心)","startTime":"2019-10-25 15:55:56","stopDate":"2019-10-25 17:00:59","orgNo":"3340101","typeCode":"电网故障停限电","poweroffArea":"110kV昭庆变:庆寺8322线","poweroffReason":"高压开关跳闸 原停电结束时间为2019-10-25 23:59:59,为减少客户停电时间,加快工作进度,提前送电,现变更停电结束时间为2019-10-25 17:00:59","powerTime":"2019-10-25 16:06:22","powerComm":"已送电","subsNo":"","lineNo":"","tgNo":"","tgName":null,"infoStatus":"1","orgName":"浙江杭州电力客户服务中心","typeName":null,"infoStatusName":null,"dateDay":null,"orgNos":null,"nowTime":null,"countyName":null,"streetName":null,"villageName":null,"roadName":null,"communityName":null,"tranName":null,"sdLineName":null,"cityCode":"3340101","cityName":"浙江杭州电力客户服务中心","provinceCode":null,"stopTime":"2019-10-25 17:00:59","powerType":"全部","powerOffArea":"110kV昭庆变:庆寺8322线","powerOffReason":"高压开关跳闸 原停电结束时间为2019-10-25 23:59:59,为减少客户停电时间,加快工作进度,提前送电,现变更停电结束时间为2019-10-25 17:00:59","powerOffId":"2019102531020471"},{"poweroffId":2019102531020469,"sgpoweroffId":null,"subsName":"","lineName":"10kV五联D264线","pubTranName":"长佳村10#黄岭里河坞公变,长佳村8#白石松毛山公变,长佳村7#白石中央村公变,长佳村9号黄岭山顶公变,长佳村6#白石石子头公变,","scope":"浙江省-杭州市-富阳区-常绿镇-长佳行政村(石子头自然村,长佳坞自然村,白石坞自然村,黄岭脚自然村,里何坞自然村)","startTime":"2019-11-08 08:45:00","stopDate":"2019-11-08 10:30:00","orgNo":"3340170","typeCode":"计划停电","poweroffArea":"35kV盛村变:五联D264线-黄岭分线25#杆后段","poweroffReason":"备用电源电缆头搭接至五联D264线37#杆黄岭分线48#杆等工作。原停电结束时间为2019-11-08 09:30:00,因政策原因,现变更停电结束时间为2019-11-08 10:30:00","powerTime":"2019-11-08 10:20:14","powerComm":"已送电","subsNo":"","lineNo":"","tgNo":"","tgName":null,"infoStatus":"1","orgName":"国网浙江杭州市富阳区供电公司","typeName":null,"infoStatusName":null,"dateDay":null,"orgNos":null,"nowTime":null,"countyName":null,"streetName":null,"villageName":null,"roadName":null,"communityName":null,"tranName":null,"sdLineName":null,"cityCode":"3340170","cityName":"国网浙江杭州市富阳区供电公司","provinceCode":null,"stopTime":"2019-11-08 10:30:00","powerType":"全部","powerOffArea":"35kV盛村变:五联D264线-黄岭分线25#杆后段","powerOffReason":"备用电源电缆头搭接至五联D264线37#杆黄岭分线48#杆等工作。原停电结束时间为2019-11-08 09:30:00,因政策原因,现变更停电结束时间为2019-11-08 10:30:00","powerOffId":"2019102531020469"},{"poweroffId":2019102531020465,"sgpoweroffId":null,"subsName":"","lineName":"10kV商城V376线","pubTranName":"杭州伊斯特服装有限公司,","scope":"浙江省-杭州市-临安市-锦城街道-锦潭社区-杭州伊斯特服装有限公司一带。","startTime":"2019-11-04 08:50:00","stopDate":"2019-11-04 11:30:00","orgNo":"3340160","typeCode":"计划停电","poweroffArea":"110kV玲珑变:商城V376线-杭州伊斯特服装有限公司后段","poweroffReason":"配合用户停电","powerTime":"2019-11-04 11:20:22","powerComm":"已送电","subsNo":"","lineNo":"","tgNo":"","tgName":null,"infoStatus":"1","orgName":"国网浙江临安市供电公司","typeName":null,"infoStatusName":null,"dateDay":null,"orgNos":null,"nowTime":null,"countyName":null,"streetName":null,"villageName":null,"roadName":null,"communityName":null,"tranName":null,"sdLineName":null,"cityCode":"3340160","cityName":"国网浙江临安市供电公司","provinceCode":null,"stopTime":"2019-11-04 11:30:00","powerType":"全部","powerOffArea":"110kV玲珑变:商城V376线-杭州伊斯特服装有限公司后段","powerOffReason":"配合用户停电","powerOffId":"2019102531020465"},{"poweroffId":2019102531020463,"sgpoweroffId":null,"subsName":"","lineName":"10kV五联D264线","pubTranName":"长佳村1#麻田垅公变,","scope":"浙江省-杭州市-富阳区-常绿镇-长佳行政村(麻田垅自然村,长佳坞自然村)一带","startTime":"2019-11-08 08:45:00","stopDate":"2019-11-08 10:30:00","orgNo":"3340170","typeCode":"计划停电","poweroffArea":"35kV盛村变:五联D264线-长佳村1#麻田垅公变后段","poweroffReason":"五联D264线37#杆黄岭分线9#杆麻田垅支线1#杆长佳村1#麻田垅公变拆除低压电缆并搭接于T接箱出线侧等工作。原停电结束时间为2019-11-08 09:30:00,因政策原因,现变更停电结束时间为2019-11-08 10:30:00","powerTime":"2019-11-08 10:20:26","powerComm":"已送电","subsNo":"","lineNo":"","tgNo":"","tgName":null,"infoStatus":"1","orgName":"国网浙江杭州市富阳区供电公司","typeName":null,"infoStatusName":null,"dateDay":null,"orgNos":null,"nowTime":null,"countyName":null,"streetName":null,"villageName":null,"roadName":null,"communityName":null,"tranName":null,"sdLineName":null,"cityCode":"3340170","cityName":"国网浙江杭州市富阳区供电公司","provinceCode":null,"stopTime":"2019-11-08 10:30:00","powerType":"全部","powerOffArea":"35kV盛村变:五联D264线-长佳村1#麻田垅公变后段","powerOffReason":"五联D264线37#杆黄岭分线9#杆麻田垅支线1#杆长佳村1#麻田垅公变拆除低压电缆并搭接于T接箱出线侧等工作。原停电结束时间为2019-11-08 09:30:00,因政策原因,现变更停电结束时间为2019-11-08 10:30:00","powerOffId":"2019102531020463"},{"poweroffId":2019102531020461,"sgpoweroffId":null,"subsName":"","lineName":"10kV五联D264线","pubTranName":"长佳村5#上半村公变,长佳村4号村委公变,长佳村3#中央村公变,","scope":"浙江省-杭州市-富阳区-常绿镇-长佳行政村(长佳坞自然村,义坞自然村,姚家岭脚自然村,白石坞自然村)一带","startTime":"2019-11-08 08:45:00","stopDate":"2019-11-08 10:30:00","orgNo":"3340170","typeCode":"计划停电","poweroffArea":"35kV盛村变:五联D264线-长佳支线后段","poweroffReason":"备用电源电缆头搭接至五联D264线37#杆黄岭分线16#杆长佳支线1#杆等工作。原停电结束时间为2019-11-08 09:30:00,因政策原因,现变更停电结束时间为2019-11-08 10:30:00","powerTime":"2019-11-08 10:20:40","powerComm":"已送电","subsNo":"","lineNo":"","tgNo":"","tgName":null,"infoStatus":"1","orgName":"国网浙江杭州市富阳区供电公司","typeName":null,"infoStatusName":null,"dateDay":null,"orgNos":null,"nowTime":null,"countyName":null,"streetName":null,"villageName":null,"roadName":null,"communityName":null,"tranName":null,"sdLineName":null,"cityCode":"3340170","cityName":"国网浙江杭州市富阳区供电公司","provinceCode":null,"stopTime":"2019-11-08 10:30:00","powerType":"全部","powerOffArea":"35kV盛村变:五联D264线-长佳支线后段","powerOffReason":"备用电源电缆头搭接至五联D264线37#杆黄岭分线16#杆长佳支线1#杆等工作。原停电结束时间为2019-11-08 09:30:00,因政策原因,现变更停电结束时间为2019-11-08 10:30:00","powerOffId":"2019102531020461"},{"poweroffId":2019102531020459,"sgpoweroffId":null,"subsName":"","lineName":"10kV四维G849线","pubTranName":"拱康路2#路灯变,","scope":"浙江省杭州市余杭区崇贤街道：杭州余杭城市建设集团一带","startTime":"2019-11-03 08:20:00","stopDate":"2019-11-03 16:30:00","orgNo":"3340140","typeCode":"计划停电","poweroffArea":"35kV独山变:四维G849线四维G8492开关-维金开关站II段四维G849线","poweroffReason":"中交航务第二工程局独山G137线消缺工程：配合维金开关站I段更换","powerTime":"2019-11-03 16:22:41","powerComm":"已送电","subsNo":"","lineNo":"","tgNo":"","tgName":null,"infoStatus":"1","orgName":"国网浙江杭州市余杭区供电有限公司","typeName":null,"infoStatusName":null,"dateDay":null,"orgNos":null,"nowTime":null,"countyName":null,"streetName":null,"villageName":null,"roadName":null,"communityName":null,"tranName":null,"sdLineName":null,"cityCode":"3340140","cityName":"国网浙江杭州市余杭区供电有限公司","provinceCode":null,"stopTime":"2019-11-03 16:30:00","powerType":"全部","powerOffArea":"35kV独山变:四维G849线四维G8492开关-维金开关站II段四维G849线","powerOffReason":"中交航务第二工程局独山G137线消缺工程：配合维金开关站I段更换","powerOffId":"2019102531020459"},{"poweroffId":2019102531020456,"sgpoweroffId":null,"subsName":"","lineName":"10kV东村D501线","pubTranName":"东村坞1号村中公变,","scope":"浙江省-杭州市-富阳区-常安镇-东村坞行政村-东村坞自然村一带","startTime":"2019-11-06 08:30:00","stopDate":"2019-11-06 15:30:00","orgNo":"3340170","typeCode":"计划停电","poweroffArea":"110kV常安变:东村D501线-东村坞1号村中公变后段","poweroffReason":"东村D501线82#杆东村坞分线10#杆东村坞1#村中公变原200kVA配变增容至400kVA配变1台，更换低压电缆、配变附件、终端、互感器等工作。","powerTime":"2019-11-06 14:40:11","powerComm":"已送电","subsNo":"","lineNo":"","tgNo":"","tgName":null,"infoStatus":"1","orgName":"国网浙江杭州市富阳区供电公司","typeName":null,"infoStatusName":null,"dateDay":null,"orgNos":null,"nowTime":null,"countyName":null,"streetName":null,"villageName":null,"roadName":null,"communityName":null,"tranName":null,"sdLineName":null,"cityCode":"3340170","cityName":"国网浙江杭州市富阳区供电公司","provinceCode":null,"stopTime":"2019-11-06 15:30:00","powerType":"全部","powerOffArea":"110kV常安变:东村D501线-东村坞1号村中公变后段","powerOffReason":"东村D501线82#杆东村坞分线10#杆东村坞1#村中公变原200kVA配变增容至400kVA配变1台，更换低压电缆、配变附件、终端、互感器等工作。","powerOffId":"2019102531020456"},{"poweroffId":2019102531020455,"sgpoweroffId":null,"subsName":"","lineName":"10kV杭千D427线","pubTranName":"学校沙4#后徐沙公变,","scope":"浙江省杭州市富阳区东洲街道后徐沙村一带","startTime":"2019-11-07 09:30:00","stopDate":"2019-11-07 17:00:00","orgNo":"3340170","typeCode":"计划停电","poweroffArea":"110kV东洲变:杭千D427线-学校沙4#后徐沙公变后段","poweroffReason":"杭千高速东洲互通迁改工程：东桥一号开关站移位，电缆敷设、制作、试验、搭接等工作，原停电结束时间为2019-11-07 16:30:00,因现场抢修难度大,现变更停电结束时间为2019-11-07 17:00:00","powerTime":"2019-11-07 16:53:27","powerComm":"已送电","subsNo":"","lineNo":"","tgNo":"","tgName":null,"infoStatus":"1","orgName":"国网浙江杭州市富阳区供电公司","typeName":null,"infoStatusName":null,"dateDay":null,"orgNos":null,"nowTime":null,"countyName":null,"streetName":null,"villageName":null,"roadName":null,"communityName":null,"tranName":null,"sdLineName":null,"cityCode":"3340170","cityName":"国网浙江杭州市富阳区供电公司","provinceCode":null,"stopTime":"2019-11-07 17:00:00","powerType":"全部","powerOffArea":"110kV东洲变:杭千D427线-学校沙4#后徐沙公变后段","powerOffReason":"杭千高速东洲互通迁改工程：东桥一号开关站移位，电缆敷设、制作、试验、搭接等工作，原停电结束时间为2019-11-07 16:30:00,因现场抢修难度大,现变更停电结束时间为2019-11-07 17:00:00","powerOffId":"2019102531020455"},{"poweroffId":2019102531020454,"sgpoweroffId":null,"subsName":"","lineName":"10kV大坝D244线","pubTranName":"新民村2#大坞坑北公变,","scope":"浙江省杭州市富阳区东洲街道大坞坑村一带","startTime":"2019-11-07 09:00:00","stopDate":"2019-11-07 13:00:00","orgNo":"3340170","typeCode":"计划停电","poweroffArea":"110kV白鹤变:大坝D244线-新民村2#大坞坑北进线熔断器后段","poweroffReason":"迎东2019年配电缺陷处理工程：新民村2#大坞坑北公变由400kVA增容至630kVA，终端及互感器更换等工作","powerTime":"2019-11-07 12:50:14","powerComm":"已送电","subsNo":"","lineNo":"","tgNo":"","tgName":null,"infoStatus":"1","orgName":"国网浙江杭州市富阳区供电公司","typeName":null,"infoStatusName":null,"dateDay":null,"orgNos":null,"nowTime":null,"countyName":null,"streetName":null,"villageName":null,"roadName":null,"communityName":null,"tranName":null,"sdLineName":null,"cityCode":"3340170","cityName":"国网浙江杭州市富阳区供电公司","provinceCode":null,"stopTime":"2019-11-07 13:00:00","powerType":"全部","powerOffArea":"110kV白鹤变:大坝D244线-新民村2#大坞坑北进线熔断器后段","powerOffReason":"迎东2019年配电缺陷处理工程：新民村2#大坞坑北公变由400kVA增容至630kVA，终端及互感器更换等工作","powerOffId":"2019102531020454"}],"pageModel":{"pageNow":956,"totalCount":17789,"totalPage":1779,"tableRows":0,"pageCount":10,"beginCount":9550},"isExperi":"1"}