{"message":"","today":"2020-06-16","seleList":[{"poweroffId":2019102531020303,"sgpoweroffId":null,"subsName":"","lineName":"10kV金源R258线","pubTranName":"朱峰二级电站,下江村,安上村,朱家村朱家公变,百罗,孙家山,","scope":"浙江省-杭州市-淳安县-金峰乡-锦溪行政村(下江自然村,孙家山自然村),金峰乡(百照行政村-百罗自然村,朱家行政村-朱家自然村,安上行政村-安上自然村);浙江省-杭州市-淳安县-金峰乡-锦溪行政村-淳安县朱峰二级水力发电有限公司","startTime":"2019-11-08 08:00:00","stopDate":"2019-11-08 12:30:00","orgNo":"3340190","typeCode":"计划停电","poweroffArea":"35kV城北变:金源R258线-安上支线65号杆开关后段","poweroffReason":"安上支线98杆直线改耐张,新上安上配变台区配变投产送电","powerTime":"2019-11-08 12:00:13","powerComm":"已送电","subsNo":"","lineNo":"","tgNo":"","tgName":null,"infoStatus":"1","orgName":"国网浙江淳安县供电有限公司","typeName":null,"infoStatusName":null,"dateDay":null,"orgNos":null,"nowTime":null,"countyName":null,"streetName":null,"villageName":null,"roadName":null,"communityName":null,"tranName":null,"sdLineName":null,"cityCode":"3340190","cityName":"国网浙江淳安县供电有限公司","provinceCode":null,"stopTime":"2019-11-08 12:30:00","powerType":"全部","powerOffArea":"35kV城北变:金源R258线-安上支线65号杆开关后段","powerOffReason":"安上支线98杆直线改耐张,新上安上配变台区配变投产送电","powerOffId":"2019102531020303"},{"poweroffId":2019102531020302,"sgpoweroffId":null,"subsName":"","lineName":"10kV绕东H764线","pubTranName":"访溪路站基建,访溪路站基建,","scope":"浙江省杭州市余杭区五常街道：地铁3号线访溪路站建设工地一带","startTime":"2019-11-06 09:30:00","stopDate":"2019-11-06 12:30:00","orgNo":"3340140","typeCode":"计划停电","poweroffArea":"塘湾开关站绕东H764线访溪路站基建分线","poweroffReason":"业扩工程（地铁3号线访溪路站盾构施工接电工程）：塘湾开关站访溪路站基建分线改接至塘湾开关站待用G03号间隔","powerTime":"2019-11-06 12:25:38","powerComm":"已送电","subsNo":"","lineNo":"","tgNo":"","tgName":null,"infoStatus":"1","orgName":"国网浙江杭州市余杭区供电有限公司","typeName":null,"infoStatusName":null,"dateDay":null,"orgNos":null,"nowTime":null,"countyName":null,"streetName":null,"villageName":null,"roadName":null,"communityName":null,"tranName":null,"sdLineName":null,"cityCode":"3340140","cityName":"国网浙江杭州市余杭区供电有限公司","provinceCode":null,"stopTime":"2019-11-06 12:30:00","powerType":"全部","powerOffArea":"塘湾开关站绕东H764线访溪路站基建分线","powerOffReason":"业扩工程（地铁3号线访溪路站盾构施工接电工程）：塘湾开关站访溪路站基建分线改接至塘湾开关站待用G03号间隔","powerOffId":"2019102531020302"},{"poweroffId":2019102531020301,"sgpoweroffId":null,"subsName":"","lineName":"10kV广福H767线","pubTranName":"浙江大华房地产开发有限公司,杭州市西溪国家湿地公园三期工程建设指挥部,","scope":"浙江省杭州市余杭区五常街道：荆长大道路灯一带","startTime":"2019-11-06 08:50:00","stopDate":"2019-11-06 12:20:00","orgNo":"3340140","typeCode":"计划停电","poweroffArea":"南河开关站广福H767线南河分支箱分线原停电结束时间为2019-11-06 16:30:00,为减少客户停电时间,加快工作进度,提前送电,现变更停电结束时间为2019-11-06 12:20:00","poweroffReason":"业扩工程（西溪风情基建线路拆除工作） 原停电结束时间为2019-11-06 16:30:00,为减少客户停电时间,加快工作进度,提前送电,现变更停电结束时间为2019-11-06 12:20:00","powerTime":"2019-11-06 11:43:35","powerComm":"已送电","subsNo":"","lineNo":"","tgNo":"","tgName":null,"infoStatus":"1","orgName":"国网浙江杭州市余杭区供电有限公司","typeName":null,"infoStatusName":null,"dateDay":null,"orgNos":null,"nowTime":null,"countyName":null,"streetName":null,"villageName":null,"roadName":null,"communityName":null,"tranName":null,"sdLineName":null,"cityCode":"3340140","cityName":"国网浙江杭州市余杭区供电有限公司","provinceCode":null,"stopTime":"2019-11-06 12:20:00","powerType":"全部","powerOffArea":"南河开关站广福H767线南河分支箱分线原停电结束时间为2019-11-06 16:30:00,为减少客户停电时间,加快工作进度,提前送电,现变更停电结束时间为2019-11-06 12:20:00","powerOffReason":"业扩工程（西溪风情基建线路拆除工作） 原停电结束时间为2019-11-06 16:30:00,为减少客户停电时间,加快工作进度,提前送电,现变更停电结束时间为2019-11-06 12:20:00","powerOffId":"2019102531020301"},{"poweroffId":2019102531020300,"sgpoweroffId":null,"subsName":"","lineName":"10kV南市H740线","pubTranName":"闲邮(2)公变,闲林邮电,医院公变,万胜房产2,闲邮公变,南市1#公变,","scope":"浙江省杭州市余杭区闲林街道：万胜房产建设工地、闲林老街医院、邮电所一带","startTime":"2019-11-06 08:40:00","stopDate":"2019-11-06 16:40:00","orgNo":"3340140","typeCode":"计划停电","poweroffArea":"闲中开关站南市H740线南市分线","poweroffReason":"业扩工程（重基公司南市分线迁改工程）：闲中开关站南市H740线南市分线电缆移位，新立15米电杆两基，新放导线两档，南市分线学校畈、闲邮、闲邮2号公变台区拆除工作","powerTime":"2019-11-06 16:15:30","powerComm":"已送电","subsNo":"","lineNo":"","tgNo":"","tgName":null,"infoStatus":"1","orgName":"国网浙江杭州市余杭区供电有限公司","typeName":null,"infoStatusName":null,"dateDay":null,"orgNos":null,"nowTime":null,"countyName":null,"streetName":null,"villageName":null,"roadName":null,"communityName":null,"tranName":null,"sdLineName":null,"cityCode":"3340140","cityName":"国网浙江杭州市余杭区供电有限公司","provinceCode":null,"stopTime":"2019-11-06 16:40:00","powerType":"全部","powerOffArea":"闲中开关站南市H740线南市分线","powerOffReason":"业扩工程（重基公司南市分线迁改工程）：闲中开关站南市H740线南市分线电缆移位，新立15米电杆两基，新放导线两档，南市分线学校畈、闲邮、闲邮2号公变台区拆除工作","powerOffId":"2019102531020300"},{"poweroffId":2019102531020299,"sgpoweroffId":null,"subsName":"","lineName":"10kV绕东H764线","pubTranName":"杭州天然气,西溪国家湿地公园,湿地路灯(1),","scope":"浙江省杭州市余杭区五常街道：西溪湿地路灯、西溪湿地房产基地、杭州天然气公司一带","startTime":"2019-11-06 13:00:00","stopDate":"2019-11-06 17:00:00","orgNo":"3340140","typeCode":"计划停电","poweroffArea":"塘湾开关站绕东H764线燃气分支箱分线","poweroffReason":"业扩工程（地铁3号线访溪路站盾构施工接电工程）：塘湾开关站燃气分支箱分线改接至塘湾开关站待用G02号间隔","powerTime":"2019-11-06 16:04:43","powerComm":"已送电","subsNo":"","lineNo":"","tgNo":"","tgName":null,"infoStatus":"1","orgName":"国网浙江杭州市余杭区供电有限公司","typeName":null,"infoStatusName":null,"dateDay":null,"orgNos":null,"nowTime":null,"countyName":null,"streetName":null,"villageName":null,"roadName":null,"communityName":null,"tranName":null,"sdLineName":null,"cityCode":"3340140","cityName":"国网浙江杭州市余杭区供电有限公司","provinceCode":null,"stopTime":"2019-11-06 17:00:00","powerType":"全部","powerOffArea":"塘湾开关站绕东H764线燃气分支箱分线","powerOffReason":"业扩工程（地铁3号线访溪路站盾构施工接电工程）：塘湾开关站燃气分支箱分线改接至塘湾开关站待用G02号间隔","powerOffId":"2019102531020299"},{"poweroffId":2019102531020298,"sgpoweroffId":null,"subsName":"","lineName":"10kV翁梅G060线","pubTranName":"万常10组3号公变,","scope":"浙江省杭州市余杭区南苑街道：万常10组一带","startTime":"2019-11-07 08:30:00","stopDate":"2019-11-07 14:30:00","orgNo":"3340140","typeCode":"计划停电","poweroffArea":"110kV外乔变:汤万开关站翁梅G060线万常10组分线。","poweroffReason":"汤万开关站翁梅G060线万常10组分线拆除万常10组变、10组2#变、10组4#变。 原停电结束时间为2019-11-07 17:00:00,为减少客户停电时间,加快工作进度,提前送电,现变更停电结束时间为2019-11-07 14:30:00","powerTime":"2019-11-07 13:39:35","powerComm":"已送电","subsNo":"","lineNo":"","tgNo":"","tgName":null,"infoStatus":"1","orgName":"国网浙江杭州市余杭区供电有限公司","typeName":null,"infoStatusName":null,"dateDay":null,"orgNos":null,"nowTime":null,"countyName":null,"streetName":null,"villageName":null,"roadName":null,"communityName":null,"tranName":null,"sdLineName":null,"cityCode":"3340140","cityName":"国网浙江杭州市余杭区供电有限公司","provinceCode":null,"stopTime":"2019-11-07 14:30:00","powerType":"全部","powerOffArea":"110kV外乔变:汤万开关站翁梅G060线万常10组分线。","powerOffReason":"汤万开关站翁梅G060线万常10组分线拆除万常10组变、10组2#变、10组4#变。 原停电结束时间为2019-11-07 17:00:00,为减少客户停电时间,加快工作进度,提前送电,现变更停电结束时间为2019-11-07 14:30:00","powerOffId":"2019102531020298"},{"poweroffId":2019102531020297,"sgpoweroffId":null,"subsName":"","lineName":"10kV秋丰D985线","pubTranName":"秋丰村22#石塔上新区2公变,","scope":"浙江省-杭州市-富阳区-富春街道-秋丰行政村-秋丰自然村","startTime":"2019-11-10 08:30:00","stopDate":"2019-11-10 16:00:00","orgNo":"3340170","typeCode":"计划停电","poweroffArea":"110kV育才变:秋丰D985线-秋丰村22#石塔上新区后段","poweroffReason":"(低压停电信息)青云2019年秋丰村63号孙家弄公变等地埋变配套工程：秋丰村22#石塔上新区2公变01、02线出线线路改接等工作。","powerTime":"2019-11-10 16:00:00","powerComm":"已送电","subsNo":"","lineNo":"","tgNo":"","tgName":null,"infoStatus":"1","orgName":"国网浙江杭州市富阳区供电公司","typeName":null,"infoStatusName":null,"dateDay":null,"orgNos":null,"nowTime":null,"countyName":null,"streetName":null,"villageName":null,"roadName":null,"communityName":null,"tranName":null,"sdLineName":null,"cityCode":"3340170","cityName":"国网浙江杭州市富阳区供电公司","provinceCode":null,"stopTime":"2019-11-10 16:00:00","powerType":"全部","powerOffArea":"110kV育才变:秋丰D985线-秋丰村22#石塔上新区后段","powerOffReason":"(低压停电信息)青云2019年秋丰村63号孙家弄公变等地埋变配套工程：秋丰村22#石塔上新区2公变01、02线出线线路改接等工作。","powerOffId":"2019102531020297"},{"poweroffId":2019102531020296,"sgpoweroffId":null,"subsName":"","lineName":"10kV秋丰D985线","pubTranName":"秋丰村石塔上5号公变,","scope":"浙江省-杭州市-富阳区-富春街道-秋丰行政村-秋丰自然村","startTime":"2019-11-09 07:30:00","stopDate":"2019-11-09 16:50:00","orgNo":"3340170","typeCode":"计划停电","poweroffArea":"110kV育才变:秋丰D985线-秋丰村石塔上后段","poweroffReason":"(低压停电信息)青云2019年东山村4#桥头公变等低压台区改造工程吊车立杆，拆旧，敷墙架设1kV120*4-125米，更换落户线18处，搭接等工作","powerTime":"2019-11-09 16:35:29","powerComm":"已送电","subsNo":"","lineNo":"","tgNo":"","tgName":null,"infoStatus":"1","orgName":"国网浙江杭州市富阳区供电公司","typeName":null,"infoStatusName":null,"dateDay":null,"orgNos":null,"nowTime":null,"countyName":null,"streetName":null,"villageName":null,"roadName":null,"communityName":null,"tranName":null,"sdLineName":null,"cityCode":"3340170","cityName":"国网浙江杭州市富阳区供电公司","provinceCode":null,"stopTime":"2019-11-09 16:50:00","powerType":"全部","powerOffArea":"110kV育才变:秋丰D985线-秋丰村石塔上后段","powerOffReason":"(低压停电信息)青云2019年东山村4#桥头公变等低压台区改造工程吊车立杆，拆旧，敷墙架设1kV120*4-125米，更换落户线18处，搭接等工作","powerOffId":"2019102531020296"},{"poweroffId":2019102531020293,"sgpoweroffId":null,"subsName":"","lineName":"10kV咸康D208线","pubTranName":"上俞村5号公园公变,","scope":"浙江省-杭州市-富阳区-春建乡-咸康行政村-上俞自然村","startTime":"2019-11-08 08:30:00","stopDate":"2019-11-08 17:20:00","orgNo":"3340170","typeCode":"计划停电","poweroffArea":"35kV大青变:咸康D208线-上俞村5号公园后段","poweroffReason":"(低压停电信息)青云2019年铁坎村5#横坞公变等低压台区改造工程进户线搭接20处+进表，架线等工作","powerTime":"2019-11-08 17:12:13","powerComm":"已送电","subsNo":"","lineNo":"","tgNo":"","tgName":null,"infoStatus":"1","orgName":"国网浙江杭州市富阳区供电公司","typeName":null,"infoStatusName":null,"dateDay":null,"orgNos":null,"nowTime":null,"countyName":null,"streetName":null,"villageName":null,"roadName":null,"communityName":null,"tranName":null,"sdLineName":null,"cityCode":"3340170","cityName":"国网浙江杭州市富阳区供电公司","provinceCode":null,"stopTime":"2019-11-08 17:20:00","powerType":"全部","powerOffArea":"35kV大青变:咸康D208线-上俞村5号公园后段","powerOffReason":"(低压停电信息)青云2019年铁坎村5#横坞公变等低压台区改造工程进户线搭接20处+进表，架线等工作","powerOffId":"2019102531020293"},{"poweroffId":2019102531020291,"sgpoweroffId":null,"subsName":"","lineName":"10kV农场T389线","pubTranName":"荣正充电1号公变,桐庐县市政园林建设管理处(荣正广场路灯),","scope":"浙江省-杭州市-桐庐县-城南街道-下杭社区-迎春南路;浙江省-杭州市-桐庐县-城南街道-中杭社区-桐庐县市政园林建设管理处(荣正广场路灯)","startTime":"2019-11-08 08:30:00","stopDate":"2019-11-08 14:30:00","orgNo":"3340150","typeCode":"计划停电","poweroffArea":"110kV迎春变:农场T389线-立交0451线间隔负荷开关后段","poweroffReason":"新建桐庐县全域旅游服务中心停车场公共充电站","powerTime":"2019-11-08 14:19:23","powerComm":"已送电","subsNo":"","lineNo":"","tgNo":"","tgName":null,"infoStatus":"1","orgName":"国网浙江桐庐县供电公司","typeName":null,"infoStatusName":null,"dateDay":null,"orgNos":null,"nowTime":null,"countyName":null,"streetName":null,"villageName":null,"roadName":null,"communityName":null,"tranName":null,"sdLineName":null,"cityCode":"3340150","cityName":"国网浙江桐庐县供电公司","provinceCode":null,"stopTime":"2019-11-08 14:30:00","powerType":"全部","powerOffArea":"110kV迎春变:农场T389线-立交0451线间隔负荷开关后段","powerOffReason":"新建桐庐县全域旅游服务中心停车场公共充电站","powerOffId":"2019102531020291"}],"pageModel":{"pageNow":961,"totalCount":17789,"totalPage":1779,"tableRows":0,"pageCount":10,"beginCount":9600},"isExperi":"1"}