{"message":"","today":"2020-06-16","seleList":[{"poweroffId":2019102531020289,"sgpoweroffId":null,"subsName":"","lineName":"10kV三溪D337线","pubTranName":"袁家村6#深坞口公变,","scope":"浙江省杭州市富阳区洞桥镇袁家行政村深坞口自然村一带","startTime":"2019-11-08 07:50:00","stopDate":"2019-11-08 16:30:00","orgNo":"3340170","typeCode":"计划停电","poweroffArea":"110kV万市变:三溪D337线-袁家村6#深坞口公变低压开关后段","poweroffReason":"(低压停电信息)上山坞01线拆装JKLYJ-120*4*2档、拆除JKLYJ-120*4*5档、架设JKLYJ-120*4*5档、安装横担、拉线、导线搭接","powerTime":"2019-11-08 16:20:55","powerComm":"已送电","subsNo":"","lineNo":"","tgNo":"","tgName":null,"infoStatus":"1","orgName":"国网浙江杭州市富阳区供电公司","typeName":null,"infoStatusName":null,"dateDay":null,"orgNos":null,"nowTime":null,"countyName":null,"streetName":null,"villageName":null,"roadName":null,"communityName":null,"tranName":null,"sdLineName":null,"cityCode":"3340170","cityName":"国网浙江杭州市富阳区供电公司","provinceCode":null,"stopTime":"2019-11-08 16:30:00","powerType":"全部","powerOffArea":"110kV万市变:三溪D337线-袁家村6#深坞口公变低压开关后段","powerOffReason":"(低压停电信息)上山坞01线拆装JKLYJ-120*4*2档、拆除JKLYJ-120*4*5档、架设JKLYJ-120*4*5档、安装横担、拉线、导线搭接","powerOffId":"2019102531020289"},{"poweroffId":2019102531020287,"sgpoweroffId":null,"subsName":"","lineName":"10kV潭山D711线","pubTranName":"金慈村6#假山头公变,","scope":"浙江省杭州市富阳区胥口镇金慈行政村假山头自然村一带","startTime":"2019-11-08 08:00:00","stopDate":"2019-11-08 13:00:00","orgNo":"3340170","typeCode":"计划停电","poweroffArea":"110kV松溪变:潭山D711线-金慈村6#假山头公变低压开关后段","poweroffReason":"(低压停电信息)田畈02线7-1#杆移位、吊车新立12米杆1基、拔除旧杆1基、安装横担1付、水平拉线1组、拆横担1付、水平拉线1组、线路调整、更换接户线1户、搭接、拆旧等工作。","powerTime":"2019-11-08 12:50:49","powerComm":"已送电","subsNo":"","lineNo":"","tgNo":"","tgName":null,"infoStatus":"1","orgName":"国网浙江杭州市富阳区供电公司","typeName":null,"infoStatusName":null,"dateDay":null,"orgNos":null,"nowTime":null,"countyName":null,"streetName":null,"villageName":null,"roadName":null,"communityName":null,"tranName":null,"sdLineName":null,"cityCode":"3340170","cityName":"国网浙江杭州市富阳区供电公司","provinceCode":null,"stopTime":"2019-11-08 13:00:00","powerType":"全部","powerOffArea":"110kV松溪变:潭山D711线-金慈村6#假山头公变低压开关后段","powerOffReason":"(低压停电信息)田畈02线7-1#杆移位、吊车新立12米杆1基、拔除旧杆1基、安装横担1付、水平拉线1组、拆横担1付、水平拉线1组、线路调整、更换接户线1户、搭接、拆旧等工作。","powerOffId":"2019102531020287"},{"poweroffId":2019102531020285,"sgpoweroffId":null,"subsName":"","lineName":"10kV后山D833线","pubTranName":"小桐洲3#村北公变,","scope":"浙江省-杭州市-富阳区-新桐乡-小桐洲行政村(车站路,康福路,小桐洲自然村)","startTime":"2019-11-07 07:30:00","stopDate":"2019-11-07 16:50:00","orgNo":"3340170","typeCode":"计划停电","poweroffArea":"110kV新桐变:后山D833线-小桐洲3号村北公变后段","poweroffReason":"(低压停电信息)2019年青云地区0.4kV配电线路缺陷处理工程拆旧，架设1kV120*4*4档，架设1kV70*4*1档，架设BS4*35*2档，拆架1kV70*4*4档，更换落户线4处，拆装低压出绽电缆1根搭接等工作","powerTime":"2019-11-07 16:40:14","powerComm":"已送电","subsNo":"","lineNo":"","tgNo":"","tgName":null,"infoStatus":"1","orgName":"国网浙江杭州市富阳区供电公司","typeName":null,"infoStatusName":null,"dateDay":null,"orgNos":null,"nowTime":null,"countyName":null,"streetName":null,"villageName":null,"roadName":null,"communityName":null,"tranName":null,"sdLineName":null,"cityCode":"3340170","cityName":"国网浙江杭州市富阳区供电公司","provinceCode":null,"stopTime":"2019-11-07 16:50:00","powerType":"全部","powerOffArea":"110kV新桐变:后山D833线-小桐洲3号村北公变后段","powerOffReason":"(低压停电信息)2019年青云地区0.4kV配电线路缺陷处理工程拆旧，架设1kV120*4*4档，架设1kV70*4*1档，架设BS4*35*2档，拆架1kV70*4*4档，更换落户线4处，拆装低压出绽电缆1根搭接等工作","powerOffId":"2019102531020285"},{"poweroffId":2019102531020284,"sgpoweroffId":null,"subsName":"","lineName":"10kV江馆D351线","pubTranName":"鹿山村10#文教西路公变,","scope":"浙江省-杭州市-富阳区-富春街道-鹿山社区(鹿山路,文教路,文教北路,西堤南路)","startTime":"2019-10-25 14:03:09","stopDate":"2019-10-25 15:03:09","orgNo":"3340170","typeCode":"电网故障停限电","poweroffArea":"110kV富鹿变:江馆D351线-鹿山村10#文教西路公变后段","poweroffReason":"高压开关跳闸","powerTime":"2019-10-25 14:37:04","powerComm":"已送电","subsNo":"","lineNo":"","tgNo":"","tgName":null,"infoStatus":"1","orgName":"国网浙江杭州市富阳区供电公司","typeName":null,"infoStatusName":null,"dateDay":null,"orgNos":null,"nowTime":null,"countyName":null,"streetName":null,"villageName":null,"roadName":null,"communityName":null,"tranName":null,"sdLineName":null,"cityCode":"3340170","cityName":"国网浙江杭州市富阳区供电公司","provinceCode":null,"stopTime":"2019-10-25 15:03:09","powerType":"全部","powerOffArea":"110kV富鹿变:江馆D351线-鹿山村10#文教西路公变后段","powerOffReason":"高压开关跳闸","powerOffId":"2019102531020284"},{"poweroffId":2019102531020283,"sgpoweroffId":null,"subsName":"","lineName":"10kV三溪D337线","pubTranName":"袁家村8#团圆里公变,","scope":"浙江省杭州市富阳区洞桥镇袁家行政村团圆里自然村一带","startTime":"2019-11-07 07:50:00","stopDate":"2019-11-07 16:30:00","orgNo":"3340170","typeCode":"计划停电","poweroffArea":"110kV万市变:三溪D337线-袁家村8#团圆里公变低压开关后段","poweroffReason":"(低压停电信息)稻坞里01线拆除JKLYJ-120*4*9档、架设JKLYJ-120*4*9档、更换落户线、安装横担、拉线、导线搭接","powerTime":"2019-11-07 16:21:03","powerComm":"已送电","subsNo":"","lineNo":"","tgNo":"","tgName":null,"infoStatus":"1","orgName":"国网浙江杭州市富阳区供电公司","typeName":null,"infoStatusName":null,"dateDay":null,"orgNos":null,"nowTime":null,"countyName":null,"streetName":null,"villageName":null,"roadName":null,"communityName":null,"tranName":null,"sdLineName":null,"cityCode":"3340170","cityName":"国网浙江杭州市富阳区供电公司","provinceCode":null,"stopTime":"2019-11-07 16:30:00","powerType":"全部","powerOffArea":"110kV万市变:三溪D337线-袁家村8#团圆里公变低压开关后段","powerOffReason":"(低压停电信息)稻坞里01线拆除JKLYJ-120*4*9档、架设JKLYJ-120*4*9档、更换落户线、安装横担、拉线、导线搭接","powerOffId":"2019102531020283"},{"poweroffId":2019102531020282,"sgpoweroffId":null,"subsName":"","lineName":"10kV大坝D244线","pubTranName":"新民村2#大坞坑北公变,","scope":"浙江省-杭州市-富阳区-富春街道-新民行政村-新民自然村","startTime":"2019-11-07 08:10:00","stopDate":"2019-11-07 16:30:00","orgNo":"3340170","typeCode":"计划停电","poweroffArea":"110kV白鹤变:大坝D244线-新民村2#大坞坑北公变台区低压开关后段","poweroffReason":"(低压停电信息)迎东2019年缺陷处理工程拆除电缆2路、新架导线1档、搭接、等工作","powerTime":"2019-11-07 16:21:23","powerComm":"已送电","subsNo":"","lineNo":"","tgNo":"","tgName":null,"infoStatus":"1","orgName":"国网浙江杭州市富阳区供电公司","typeName":null,"infoStatusName":null,"dateDay":null,"orgNos":null,"nowTime":null,"countyName":null,"streetName":null,"villageName":null,"roadName":null,"communityName":null,"tranName":null,"sdLineName":null,"cityCode":"3340170","cityName":"国网浙江杭州市富阳区供电公司","provinceCode":null,"stopTime":"2019-11-07 16:30:00","powerType":"全部","powerOffArea":"110kV白鹤变:大坝D244线-新民村2#大坞坑北公变台区低压开关后段","powerOffReason":"(低压停电信息)迎东2019年缺陷处理工程拆除电缆2路、新架导线1档、搭接、等工作","powerOffId":"2019102531020282"},{"poweroffId":2019102531020281,"sgpoweroffId":null,"subsName":"","lineName":"10kV兴旺D558线","pubTranName":"巨利村10#赵家埠欧式公变,","scope":"浙江省-杭州市-富阳区-富春街道-巨利社区(公望街,巨利路,北环路)","startTime":"2019-11-07 08:30:00","stopDate":"2019-11-07 16:00:00","orgNo":"3340170","typeCode":"计划停电","poweroffArea":"110kV春江变:城北D580线-巨利村10#赵家埠欧式后段","poweroffReason":"(低压停电信息)城投公司16号地块线路迁改工程：巨利村10#赵家埠欧式公变4#出线5#杆至7#杆上改下等工作。","powerTime":"2019-11-07 15:51:21","powerComm":"已送电","subsNo":"","lineNo":"","tgNo":"","tgName":null,"infoStatus":"1","orgName":"国网浙江杭州市富阳区供电公司","typeName":null,"infoStatusName":null,"dateDay":null,"orgNos":null,"nowTime":null,"countyName":null,"streetName":null,"villageName":null,"roadName":null,"communityName":null,"tranName":null,"sdLineName":null,"cityCode":"3340170","cityName":"国网浙江杭州市富阳区供电公司","provinceCode":null,"stopTime":"2019-11-07 16:00:00","powerType":"全部","powerOffArea":"110kV春江变:城北D580线-巨利村10#赵家埠欧式后段","powerOffReason":"(低压停电信息)城投公司16号地块线路迁改工程：巨利村10#赵家埠欧式公变4#出线5#杆至7#杆上改下等工作。","powerOffId":"2019102531020281"},{"poweroffId":2019102531020279,"sgpoweroffId":null,"subsName":"","lineName":"10kV秋丰D985线","pubTranName":"秋丰村石塔上5号公变,秋丰村石塔上12号公变,","scope":"浙江省-杭州市-富阳区-富春街道-秋丰行政村-秋丰自然村","startTime":"2019-11-07 08:30:00","stopDate":"2019-11-07 16:00:00","orgNo":"3340170","typeCode":"计划停电","poweroffArea":"110kV育才变:秋丰D985线首端，秋丰村石塔上5号公变，秋丰村石塔上12号公变之间","poweroffReason":"(低压停电信息)青云2019年秋丰村63号孙家弄公变等地埋变配套工程：秋丰村石塔上12号公变02#出线及秋丰石塔上5号公变03#出线线路改接等工作。","powerTime":"2019-11-07 15:51:54","powerComm":"已送电","subsNo":"","lineNo":"","tgNo":"","tgName":null,"infoStatus":"1","orgName":"国网浙江杭州市富阳区供电公司","typeName":null,"infoStatusName":null,"dateDay":null,"orgNos":null,"nowTime":null,"countyName":null,"streetName":null,"villageName":null,"roadName":null,"communityName":null,"tranName":null,"sdLineName":null,"cityCode":"3340170","cityName":"国网浙江杭州市富阳区供电公司","provinceCode":null,"stopTime":"2019-11-07 16:00:00","powerType":"全部","powerOffArea":"110kV育才变:秋丰D985线首端，秋丰村石塔上5号公变，秋丰村石塔上12号公变之间","powerOffReason":"(低压停电信息)青云2019年秋丰村63号孙家弄公变等地埋变配套工程：秋丰村石塔上12号公变02#出线及秋丰石塔上5号公变03#出线线路改接等工作。","powerOffId":"2019102531020279"},{"poweroffId":2019102531020277,"sgpoweroffId":null,"subsName":"","lineName":"10kV潭山D711线","pubTranName":"金慈村1#上金慈公变,","scope":"浙江省杭州市富阳区胥口镇金慈行政村上金慈自然村一带","startTime":"2019-11-06 08:00:00","stopDate":"2019-11-06 17:30:00","orgNo":"3340170","typeCode":"计划停电","poweroffArea":"110kV松溪变:潭山D711线-金慈村1#上金慈公变低压开关后段","poweroffReason":"(低压停电信息)猪场02线6#杆后段安装横担5付、拉线3组、架JKLYJ-120*4*6档、拆JKLYJ-120*4*6档、线路移位1处、导线搭接5处、更换接户线3户、安装支架、拆旧、搭接等工作.","powerTime":"2019-11-06 17:15:22","powerComm":"已送电","subsNo":"","lineNo":"","tgNo":"","tgName":null,"infoStatus":"1","orgName":"国网浙江杭州市富阳区供电公司","typeName":null,"infoStatusName":null,"dateDay":null,"orgNos":null,"nowTime":null,"countyName":null,"streetName":null,"villageName":null,"roadName":null,"communityName":null,"tranName":null,"sdLineName":null,"cityCode":"3340170","cityName":"国网浙江杭州市富阳区供电公司","provinceCode":null,"stopTime":"2019-11-06 17:30:00","powerType":"全部","powerOffArea":"110kV松溪变:潭山D711线-金慈村1#上金慈公变低压开关后段","powerOffReason":"(低压停电信息)猪场02线6#杆后段安装横担5付、拉线3组、架JKLYJ-120*4*6档、拆JKLYJ-120*4*6档、线路移位1处、导线搭接5处、更换接户线3户、安装支架、拆旧、搭接等工作.","powerOffId":"2019102531020277"},{"poweroffId":2019102531020274,"sgpoweroffId":null,"subsName":"","lineName":"10kV后山D833线","pubTranName":"小桐洲2#办事处公变,","scope":"浙江省-杭州市-富阳区-新桐乡-小桐洲行政村(小桐洲自然村,文教路,村心路,市场路,村前路,石板路)","startTime":"2019-11-06 12:50:00","stopDate":"2019-11-06 16:50:00","orgNo":"3340170","typeCode":"计划停电","poweroffArea":"110kV新桐变:后山D833线-小桐洲2号办事处公变后段","poweroffReason":"(低压停电信息)2019年青云地区0.4kV配电线路缺陷处理工程拆旧，拆装导线2档，搭接等工作","powerTime":"2019-11-06 16:41:36","powerComm":"已送电","subsNo":"","lineNo":"","tgNo":"","tgName":null,"infoStatus":"1","orgName":"国网浙江杭州市富阳区供电公司","typeName":null,"infoStatusName":null,"dateDay":null,"orgNos":null,"nowTime":null,"countyName":null,"streetName":null,"villageName":null,"roadName":null,"communityName":null,"tranName":null,"sdLineName":null,"cityCode":"3340170","cityName":"国网浙江杭州市富阳区供电公司","provinceCode":null,"stopTime":"2019-11-06 16:50:00","powerType":"全部","powerOffArea":"110kV新桐变:后山D833线-小桐洲2号办事处公变后段","powerOffReason":"(低压停电信息)2019年青云地区0.4kV配电线路缺陷处理工程拆旧，拆装导线2档，搭接等工作","powerOffId":"2019102531020274"}],"pageModel":{"pageNow":962,"totalCount":17789,"totalPage":1779,"tableRows":0,"pageCount":10,"beginCount":9610},"isExperi":"1"}