{"message":"","today":"2020-06-16","seleList":[{"poweroffId":2019102531020230,"sgpoweroffId":null,"subsName":"","lineName":"10kV富湾T401线","pubTranName":"周家4号公变,桐庐富春高级中学1变压器间隔配电变压器,","scope":"浙江省-杭州市-桐庐县-城南街道-春江行政村(春江自然村,周家自然村);浙江省-杭州市-桐庐县-城南街道-春江行政村-浙江省桐庐富春高级中学","startTime":"2019-11-03 08:30:00","stopDate":"2019-11-03 15:00:00","orgNo":"3340150","typeCode":"计划停电","poweroffArea":"110kV枫塘变:富湾T401线-富春F0733开关后段","poweroffReason":"用户工程 原停电结束时间为2019-11-03 13:30:00,因工作安排原因,现变更停电结束时间为2019-11-03 15:00:00","powerTime":"2019-11-03 14:50:58","powerComm":"已送电","subsNo":"","lineNo":"","tgNo":"","tgName":null,"infoStatus":"1","orgName":"国网浙江桐庐县供电公司","typeName":null,"infoStatusName":null,"dateDay":null,"orgNos":null,"nowTime":null,"countyName":null,"streetName":null,"villageName":null,"roadName":null,"communityName":null,"tranName":null,"sdLineName":null,"cityCode":"3340150","cityName":"国网浙江桐庐县供电公司","provinceCode":null,"stopTime":"2019-11-03 15:00:00","powerType":"全部","powerOffArea":"110kV枫塘变:富湾T401线-富春F0733开关后段","powerOffReason":"用户工程 原停电结束时间为2019-11-03 13:30:00,因工作安排原因,现变更停电结束时间为2019-11-03 15:00:00","powerOffId":"2019102531020230"},{"poweroffId":2019102531020229,"sgpoweroffId":null,"subsName":"","lineName":"10kV桦树H684线","pubTranName":"瓦窑弄公变,","scope":"浙江省杭州市余杭区闲林街道桦树村一带","startTime":"2019-10-25 12:40:57","stopDate":"2019-10-25 16:10:57","orgNo":"3340140","typeCode":"电网故障停限电","poweroffArea":"110kV闲林变:桦树H684线-瓦窑弄公变后段","poweroffReason":"高压开关跳闸","powerTime":"2019-10-25 16:09:00","powerComm":"已送电","subsNo":"","lineNo":"","tgNo":"","tgName":null,"infoStatus":"1","orgName":"国网浙江杭州市余杭区供电有限公司","typeName":null,"infoStatusName":null,"dateDay":null,"orgNos":null,"nowTime":null,"countyName":null,"streetName":null,"villageName":null,"roadName":null,"communityName":null,"tranName":null,"sdLineName":null,"cityCode":"3340140","cityName":"国网浙江杭州市余杭区供电有限公司","provinceCode":null,"stopTime":"2019-10-25 16:10:57","powerType":"全部","powerOffArea":"110kV闲林变:桦树H684线-瓦窑弄公变后段","powerOffReason":"高压开关跳闸","powerOffId":"2019102531020229"},{"poweroffId":2019102531020228,"sgpoweroffId":null,"subsName":"","lineName":"10kV蚕宣9118线","pubTranName":"宣家(3-4)农,宣家(3)农,","scope":"浙江省杭州市江干区宣家埠一区118-200号附近、天惠保健品有限公司、杭州绿波工贸有限公司","startTime":"2019-11-05 14:00:00","stopDate":"2019-11-05 18:30:00","orgNo":"3340101","typeCode":"计划停电","poweroffArea":"110kV蚕桑变:蚕宣9118线-宣家(3-4)农后段;蚕宣9118线-宣家(3)农后段、蚕宣9118线4#杆，K1站3#间隔","poweroffReason":"沪杭甬高速公路杭州市区段改建工程10kV蚕宣9118线迁改工程（宏迅）蚕宣9118线4#杆带电拆头 原停电结束时间为2019-11-05 17:30:00,因工程量大原因,现变更停电结束时间为2019-11-05 18:30:00","powerTime":"2019-11-05 17:55:30","powerComm":"已送电","subsNo":"","lineNo":"","tgNo":"","tgName":null,"infoStatus":"1","orgName":"浙江杭州电力客户服务中心","typeName":null,"infoStatusName":null,"dateDay":null,"orgNos":null,"nowTime":null,"countyName":null,"streetName":null,"villageName":null,"roadName":null,"communityName":null,"tranName":null,"sdLineName":null,"cityCode":"3340101","cityName":"浙江杭州电力客户服务中心","provinceCode":null,"stopTime":"2019-11-05 18:30:00","powerType":"全部","powerOffArea":"110kV蚕桑变:蚕宣9118线-宣家(3-4)农后段;蚕宣9118线-宣家(3)农后段、蚕宣9118线4#杆，K1站3#间隔","powerOffReason":"沪杭甬高速公路杭州市区段改建工程10kV蚕宣9118线迁改工程（宏迅）蚕宣9118线4#杆带电拆头 原停电结束时间为2019-11-05 17:30:00,因工程量大原因,现变更停电结束时间为2019-11-05 18:30:00","powerOffId":"2019102531020228"},{"poweroffId":2019102531020227,"sgpoweroffId":null,"subsName":"","lineName":"10kV环汽6530线","pubTranName":"胜利新村变,","scope":"浙江省杭州市西湖区胜利新村13—16幢、22幢、23幢附近一带。","startTime":"2019-11-07 09:40:00","stopDate":"2019-11-07 14:30:00","orgNo":"3340101","typeCode":"计划停电","poweroffArea":"110kV武林变:环汽6530线-胜村一线后段","poweroffReason":"地铁3号线武林门站10kV电力管线迁改工程（国通）CZ2018-03-009-YNQQ 胜村一线电缆迁改 原停电结束时间为17:30:00,为减少客户停电时间,加快工作进度,提前送电,现变更停电结束时间为14:30:00","powerTime":"2019-11-07 13:32:59","powerComm":"已送电","subsNo":"","lineNo":"","tgNo":"","tgName":null,"infoStatus":"1","orgName":"浙江杭州电力客户服务中心","typeName":null,"infoStatusName":null,"dateDay":null,"orgNos":null,"nowTime":null,"countyName":null,"streetName":null,"villageName":null,"roadName":null,"communityName":null,"tranName":null,"sdLineName":null,"cityCode":"3340101","cityName":"浙江杭州电力客户服务中心","provinceCode":null,"stopTime":"2019-11-07 14:30:00","powerType":"全部","powerOffArea":"110kV武林变:环汽6530线-胜村一线后段","powerOffReason":"地铁3号线武林门站10kV电力管线迁改工程（国通）CZ2018-03-009-YNQQ 胜村一线电缆迁改 原停电结束时间为17:30:00,为减少客户停电时间,加快工作进度,提前送电,现变更停电结束时间为14:30:00","powerOffId":"2019102531020227"},{"poweroffId":2019102531020226,"sgpoweroffId":null,"subsName":"","lineName":"10kV光明6484线","pubTranName":"杭州市钱江新城建设指挥部1,","scope":"浙江省杭州市江干区钱新指公司","startTime":"2019-11-06 09:30:00","stopDate":"2019-11-06 11:30:00","orgNo":"3340101","typeCode":"计划停电","poweroffArea":"110kV五福变:光明6484线-钱新指施三线后段","poweroffReason":"钱江六院小区三叉站换柜工程（古荡1811HZ1800WS05A0000000）三叉站II段更换 原停电结束时间为2019-11-06 17:00:00,为减少客户停电时间,加快工作进度,提前送电,现变更停电结束时间为2019-11-06 11:30:00","powerTime":"2019-11-06 10:52:59","powerComm":"已送电","subsNo":"","lineNo":"","tgNo":"","tgName":null,"infoStatus":"1","orgName":"浙江杭州电力客户服务中心","typeName":null,"infoStatusName":null,"dateDay":null,"orgNos":null,"nowTime":null,"countyName":null,"streetName":null,"villageName":null,"roadName":null,"communityName":null,"tranName":null,"sdLineName":null,"cityCode":"3340101","cityName":"浙江杭州电力客户服务中心","provinceCode":null,"stopTime":"2019-11-06 11:30:00","powerType":"全部","powerOffArea":"110kV五福变:光明6484线-钱新指施三线后段","powerOffReason":"钱江六院小区三叉站换柜工程（古荡1811HZ1800WS05A0000000）三叉站II段更换 原停电结束时间为2019-11-06 17:00:00,为减少客户停电时间,加快工作进度,提前送电,现变更停电结束时间为2019-11-06 11:30:00","powerOffId":"2019102531020226"},{"poweroffId":2019102531020225,"sgpoweroffId":null,"subsName":"","lineName":"10kV武教8325线","pubTranName":"教场,教东变,","scope":"浙江省杭州市下城区武林路57号、82号、86号、88号、133号、141号、193号附近一带。杭州市下城区环城西路教场路口附近，教场路1至30号附近，临安路5号附近，建德路7至15号附近，环城西路、教场路、建德路、武林路附近一带","startTime":"2019-10-30 09:30:00","stopDate":"2019-10-30 13:30:00","orgNo":"3340101","typeCode":"临时停电","poweroffArea":"110kV昭庆变:武教8325线-教变一线后段;武教8325线-教场后段","poweroffReason":"教场变重载，低压负荷割接 原停电结束时间为2019-10-30 17:30:00,为减少客户停电时间,加快工作进度,提前送电,现变更停电结束时间为2019-10-30 13:30:00","powerTime":"2019-10-30 12:40:59","powerComm":"已送电","subsNo":"","lineNo":"","tgNo":"","tgName":null,"infoStatus":"1","orgName":"浙江杭州电力客户服务中心","typeName":null,"infoStatusName":null,"dateDay":null,"orgNos":null,"nowTime":null,"countyName":null,"streetName":null,"villageName":null,"roadName":null,"communityName":null,"tranName":null,"sdLineName":null,"cityCode":"3340101","cityName":"浙江杭州电力客户服务中心","provinceCode":null,"stopTime":"2019-10-30 13:30:00","powerType":"全部","powerOffArea":"110kV昭庆变:武教8325线-教变一线后段;武教8325线-教场后段","powerOffReason":"教场变重载，低压负荷割接 原停电结束时间为2019-10-30 17:30:00,为减少客户停电时间,加快工作进度,提前送电,现变更停电结束时间为2019-10-30 13:30:00","powerOffId":"2019102531020225"},{"poweroffId":2019102531020221,"sgpoweroffId":null,"subsName":"","lineName":"10kV松溪V122线","pubTranName":"10kV九里村[顶山长湾]公变,","scope":"浙江省-杭州市-临安市-天目山镇九里村顶山长湾一带","startTime":"2019-11-07 08:00:00","stopDate":"2019-11-07 17:00:00","orgNo":"3340160","typeCode":"计划停电","poweroffArea":"停110kV於潜变松溪V122线10kV九里村[顶山长湾]公变低压闸刀","poweroffReason":"改造","powerTime":"2019-11-07 16:24:10","powerComm":"已送电","subsNo":"","lineNo":"","tgNo":"","tgName":null,"infoStatus":"1","orgName":"国网浙江临安市供电公司","typeName":null,"infoStatusName":null,"dateDay":null,"orgNos":null,"nowTime":null,"countyName":null,"streetName":null,"villageName":null,"roadName":null,"communityName":null,"tranName":null,"sdLineName":null,"cityCode":"3340160","cityName":"国网浙江临安市供电公司","provinceCode":null,"stopTime":"2019-11-07 17:00:00","powerType":"全部","powerOffArea":"停110kV於潜变松溪V122线10kV九里村[顶山长湾]公变低压闸刀","powerOffReason":"改造","powerOffId":"2019102531020221"},{"poweroffId":2019102531020205,"sgpoweroffId":null,"subsName":"","lineName":"10kV松溪V122线","pubTranName":"临安市南天目山千佛寺,10kV九里村[顶山茶山坞]公变,","scope":"浙江省-杭州市-临安市-天目山镇-九里行政村顶山茶山坞,临安市南天目山千佛寺一带","startTime":"2019-11-07 08:00:00","stopDate":"2019-11-07 17:00:00","orgNo":"3340160","typeCode":"计划停电","poweroffArea":"停110kV於潜变松溪V122线顶山分线茶山坞支线1#杆开关","poweroffReason":"改造","powerTime":"2019-11-07 16:24:27","powerComm":"已送电","subsNo":"","lineNo":"","tgNo":"","tgName":null,"infoStatus":"1","orgName":"国网浙江临安市供电公司","typeName":null,"infoStatusName":null,"dateDay":null,"orgNos":null,"nowTime":null,"countyName":null,"streetName":null,"villageName":null,"roadName":null,"communityName":null,"tranName":null,"sdLineName":null,"cityCode":"3340160","cityName":"国网浙江临安市供电公司","provinceCode":null,"stopTime":"2019-11-07 17:00:00","powerType":"全部","powerOffArea":"停110kV於潜变松溪V122线顶山分线茶山坞支线1#杆开关","powerOffReason":"改造","powerOffId":"2019102531020205"},{"poweroffId":2019102531020202,"sgpoweroffId":null,"subsName":"","lineName":"10kV横塘V173线","pubTranName":"10kV横塘村[麻泥]公变,","scope":"浙江省-杭州市-临安市-天目山镇-横塘行政村麻泥一带","startTime":"2019-11-05 08:00:00","stopDate":"2019-11-05 15:30:00","orgNo":"3340160","typeCode":"计划停电","poweroffArea":"停35kV藻溪变横塘V173线85#杆麻泥分线令克","poweroffReason":"改造","powerTime":"2019-11-05 15:20:35","powerComm":"已送电","subsNo":"","lineNo":"","tgNo":"","tgName":null,"infoStatus":"1","orgName":"国网浙江临安市供电公司","typeName":null,"infoStatusName":null,"dateDay":null,"orgNos":null,"nowTime":null,"countyName":null,"streetName":null,"villageName":null,"roadName":null,"communityName":null,"tranName":null,"sdLineName":null,"cityCode":"3340160","cityName":"国网浙江临安市供电公司","provinceCode":null,"stopTime":"2019-11-05 15:30:00","powerType":"全部","powerOffArea":"停35kV藻溪变横塘V173线85#杆麻泥分线令克","powerOffReason":"改造","powerOffId":"2019102531020202"},{"poweroffId":2019102531020192,"sgpoweroffId":null,"subsName":"","lineName":"10kV岛石V168线","pubTranName":"姚家村,","scope":"浙江省-杭州市-临安市-岛石镇-银坑村姚家一带。","startTime":"2019-11-05 08:00:00","stopDate":"2019-11-05 12:00:00","orgNo":"3340160","typeCode":"计划停电","poweroffArea":"35kV岛石变:岛石V168线-姚家村配变","poweroffReason":"低压改造","powerTime":"2019-11-05 11:50:23","powerComm":"已送电","subsNo":"","lineNo":"","tgNo":"","tgName":null,"infoStatus":"1","orgName":"国网浙江临安市供电公司","typeName":null,"infoStatusName":null,"dateDay":null,"orgNos":null,"nowTime":null,"countyName":null,"streetName":null,"villageName":null,"roadName":null,"communityName":null,"tranName":null,"sdLineName":null,"cityCode":"3340160","cityName":"国网浙江临安市供电公司","provinceCode":null,"stopTime":"2019-11-05 12:00:00","powerType":"全部","powerOffArea":"35kV岛石变:岛石V168线-姚家村配变","powerOffReason":"低压改造","powerOffId":"2019102531020192"}],"pageModel":{"pageNow":964,"totalCount":17789,"totalPage":1779,"tableRows":0,"pageCount":10,"beginCount":9630},"isExperi":"1"}