{"message":"","today":"2020-06-16","seleList":[{"poweroffId":2019102531020104,"sgpoweroffId":null,"subsName":"","lineName":"10kV前兴A491线","pubTranName":"官一村6#变,","scope":"浙江省-杭州市-萧山区-瓜沥镇-官一行政村-官一自然村一带","startTime":"2019-10-25 10:00:46","stopDate":"2019-10-25 16:00:46","orgNo":"3340130","typeCode":"电网故障停限电","poweroffArea":"110kV群围变:前兴A491线-官一村6#变台区低压开关","poweroffReason":"(低压停电信息) 低压漏电保护器短路故障 原停电结束时间: 2019-10-25 17:00:46,变更停电结束时间: 2019-10-25 16:00:46。由于抢修工作提前完成,故需要提前送电","powerTime":"2019-10-25 15:06:17","powerComm":"已送电","subsNo":"","lineNo":"","tgNo":"","tgName":null,"infoStatus":"1","orgName":"国网浙江杭州市萧山区供电有限公司","typeName":null,"infoStatusName":null,"dateDay":null,"orgNos":null,"nowTime":null,"countyName":null,"streetName":null,"villageName":null,"roadName":null,"communityName":null,"tranName":null,"sdLineName":null,"cityCode":"3340130","cityName":"国网浙江杭州市萧山区供电有限公司","provinceCode":null,"stopTime":"2019-10-25 16:00:46","powerType":"全部","powerOffArea":"110kV群围变:前兴A491线-官一村6#变台区低压开关","powerOffReason":"(低压停电信息) 低压漏电保护器短路故障 原停电结束时间: 2019-10-25 17:00:46,变更停电结束时间: 2019-10-25 16:00:46。由于抢修工作提前完成,故需要提前送电","powerOffId":"2019102531020104"},{"poweroffId":2019102531020102,"sgpoweroffId":null,"subsName":"","lineName":"10kV上埠8865线","pubTranName":"小村三,","scope":"浙江省杭州市西湖区小和山新村小和新苑四区1#-20#、五区17#-20#、25#-28#、33#-36#、六区1#-44#用户及附近一带","startTime":"2019-11-07 09:30:00","stopDate":"2019-11-07 15:30:00","orgNo":"3340101","typeCode":"计划停电","poweroffArea":"110kV留下变:上埠8865线-小村三后段","poweroffReason":"小和山新村公变增容布点工程/1811HZ1800WJ02A0000000（大达）小村三低压改造 原停电结束时间为2019-11-07 17:00:00,为减少客户停电时间,加快工作进度,提前送电,现变更停电结束时间为2019-11-07 15:30:00","powerTime":"2019-11-07 14:42:55","powerComm":"已送电","subsNo":"","lineNo":"","tgNo":"","tgName":null,"infoStatus":"1","orgName":"浙江杭州电力客户服务中心","typeName":null,"infoStatusName":null,"dateDay":null,"orgNos":null,"nowTime":null,"countyName":null,"streetName":null,"villageName":null,"roadName":null,"communityName":null,"tranName":null,"sdLineName":null,"cityCode":"3340101","cityName":"浙江杭州电力客户服务中心","provinceCode":null,"stopTime":"2019-11-07 15:30:00","powerType":"全部","powerOffArea":"110kV留下变:上埠8865线-小村三后段","powerOffReason":"小和山新村公变增容布点工程/1811HZ1800WJ02A0000000（大达）小村三低压改造 原停电结束时间为2019-11-07 17:00:00,为减少客户停电时间,加快工作进度,提前送电,现变更停电结束时间为2019-11-07 15:30:00","powerOffId":"2019102531020102"},{"poweroffId":2019102531020093,"sgpoweroffId":null,"subsName":"","lineName":"10kV双庙V253线","pubTranName":"10kV太阳村[毛竹坪村]公变,","scope":"浙江省-杭州市-临安市-太阳镇-毛竹坪村一带","startTime":"2019-11-08 08:10:00","stopDate":"2019-11-08 16:50:00","orgNo":"3340160","typeCode":"计划停电","poweroffArea":"双庙V253线浪山分线11#杆毛竹坪支线","poweroffReason":"杭州临安於潜10千伏双庙V253线等分支线改造：双庙V253线里杨家坞分线浪山支线毛竹坪分支线5#-33#杆立杆、架线","powerTime":"2019-11-08 16:20:27","powerComm":"已送电","subsNo":"","lineNo":"","tgNo":"","tgName":null,"infoStatus":"1","orgName":"国网浙江临安市供电公司","typeName":null,"infoStatusName":null,"dateDay":null,"orgNos":null,"nowTime":null,"countyName":null,"streetName":null,"villageName":null,"roadName":null,"communityName":null,"tranName":null,"sdLineName":null,"cityCode":"3340160","cityName":"国网浙江临安市供电公司","provinceCode":null,"stopTime":"2019-11-08 16:50:00","powerType":"全部","powerOffArea":"双庙V253线浪山分线11#杆毛竹坪支线","powerOffReason":"杭州临安於潜10千伏双庙V253线等分支线改造：双庙V253线里杨家坞分线浪山支线毛竹坪分支线5#-33#杆立杆、架线","powerOffId":"2019102531020093"},{"poweroffId":2019102531020092,"sgpoweroffId":null,"subsName":"","lineName":"10kV金岭9142线","pubTranName":"村口,","scope":"浙江省杭州市西湖区转塘村口村，村口公变附近一带部分用户","startTime":"2019-11-04 09:30:00","stopDate":"2019-11-04 15:00:00","orgNo":"3340101","typeCode":"计划停电","poweroffArea":"110kV象山变:金岭9142线-村口后段","poweroffReason":"杭州市地铁集团有限责任公司杭富线三号（一期）隧道10KV电力管线迁改工程（城源）村口分线电缆移位，电缆施工、试验及搭头等 原停电结束时间为 17:00:00,为减少客户停电时间,加快工作进度,提前送电,现变更停电结束时间为 15:00:00","powerTime":"2019-11-04 14:10:59","powerComm":"已送电","subsNo":"","lineNo":"","tgNo":"","tgName":null,"infoStatus":"1","orgName":"浙江杭州电力客户服务中心","typeName":null,"infoStatusName":null,"dateDay":null,"orgNos":null,"nowTime":null,"countyName":null,"streetName":null,"villageName":null,"roadName":null,"communityName":null,"tranName":null,"sdLineName":null,"cityCode":"3340101","cityName":"浙江杭州电力客户服务中心","provinceCode":null,"stopTime":"2019-11-04 15:00:00","powerType":"全部","powerOffArea":"110kV象山变:金岭9142线-村口后段","powerOffReason":"杭州市地铁集团有限责任公司杭富线三号（一期）隧道10KV电力管线迁改工程（城源）村口分线电缆移位，电缆施工、试验及搭头等 原停电结束时间为 17:00:00,为减少客户停电时间,加快工作进度,提前送电,现变更停电结束时间为 15:00:00","powerOffId":"2019102531020092"},{"poweroffId":2019102531020091,"sgpoweroffId":null,"subsName":"","lineName":"10kV下埠V503线","pubTranName":"临安永锋工具有限公司,杭州铭洲房地产开发有限公司1#,","scope":"浙江省-杭州市-临安市-於潜镇-杭州铭洲房地产开发有限公司一带","startTime":"2019-11-06 08:10:00","stopDate":"2019-11-06 15:50:00","orgNo":"3340160","typeCode":"计划停电","poweroffArea":"下埠V503线泥鳅岭分线5#杆永锋工具支线","poweroffReason":"下埠V503线泥鳅岭分线永锋工具支线1#杆杭州铭洲房产开发有限公司基建变移位（拓扑关系不变）","powerTime":"2019-11-06 15:40:18","powerComm":"已送电","subsNo":"","lineNo":"","tgNo":"","tgName":null,"infoStatus":"1","orgName":"国网浙江临安市供电公司","typeName":null,"infoStatusName":null,"dateDay":null,"orgNos":null,"nowTime":null,"countyName":null,"streetName":null,"villageName":null,"roadName":null,"communityName":null,"tranName":null,"sdLineName":null,"cityCode":"3340160","cityName":"国网浙江临安市供电公司","provinceCode":null,"stopTime":"2019-11-06 15:50:00","powerType":"全部","powerOffArea":"下埠V503线泥鳅岭分线5#杆永锋工具支线","powerOffReason":"下埠V503线泥鳅岭分线永锋工具支线1#杆杭州铭洲房产开发有限公司基建变移位（拓扑关系不变）","powerOffId":"2019102531020091"},{"poweroffId":2019102531020090,"sgpoweroffId":null,"subsName":"","lineName":"10kV杏花V508线","pubTranName":"临安市潜阳房地产开发有限公司1#,10kV下埠村[下埠村委]公变,10kV下埠村[法庭南]公变,","scope":"浙江省-杭州市-临安市-於潜镇-法庭南、下埠村委、临安市潜阳房地产开发有限公司一带","startTime":"2019-11-05 08:10:00","stopDate":"2019-11-05 11:10:00","orgNo":"3340160","typeCode":"计划停电","poweroffArea":"杏花V508线何家站杏花路分线","poweroffReason":"杏花金座新上（01项）：杏花V508线杏花站潜阳房产支线拆除，杏花金座开闭所支线电缆头制作、试验及搭头，临安潜阳房地产开发有限公司基建变拆除，杏花金座新上630KVA配变、杏花金座充电桩新上200KVA专变通电","powerTime":"2019-11-05 11:00:12","powerComm":"已送电","subsNo":"","lineNo":"","tgNo":"","tgName":null,"infoStatus":"1","orgName":"国网浙江临安市供电公司","typeName":null,"infoStatusName":null,"dateDay":null,"orgNos":null,"nowTime":null,"countyName":null,"streetName":null,"villageName":null,"roadName":null,"communityName":null,"tranName":null,"sdLineName":null,"cityCode":"3340160","cityName":"国网浙江临安市供电公司","provinceCode":null,"stopTime":"2019-11-05 11:10:00","powerType":"全部","powerOffArea":"杏花V508线何家站杏花路分线","powerOffReason":"杏花金座新上（01项）：杏花V508线杏花站潜阳房产支线拆除，杏花金座开闭所支线电缆头制作、试验及搭头，临安潜阳房地产开发有限公司基建变拆除，杏花金座新上630KVA配变、杏花金座充电桩新上200KVA专变通电","powerOffId":"2019102531020090"},{"poweroffId":2019102531020085,"sgpoweroffId":null,"subsName":"","lineName":"10kV高新G375线","pubTranName":"平宅村小学北公变,平宅村大下路北公变,麦尚食品（6120167698）2#变,杭州大地之春农业开发有限公司,杭州大地之春农业开发有限公司,杭州大地之春农业开发有限公司,平宅村西坝儿公变,平宅村东下路公变,平宅村仁介路公变,平宅村仁介路南公变,杭州梁运储运有限公司,平宅村东下路南公变,中国联合网络通信有限公司杭州市分公司,杭州宇杭石油储运有限公司,平宅村对丰墩公变,平宅村大下路东公变,麦尚食品（6120167698）1#变,浙江新迪稼园农业有限公司,东麻中排涝站,平宅村西坝儿南公变,平宅村大下路公变,平宅村小学公变,","scope":"浙江省-杭州市-余杭区-仁和街道-平宅行政村(大下路自然村,大雅路,平宅村,仁介路自然村,西岸墩自然村,平宅街自然村,平宅桥自然村,东下路自然村,元下圩自然村,花元圩自然村,小学,仁嘉路,仁加路南自然村,西坝儿自然村,石道地自然村,东雅路自然村,丝网埭自然村,对丰墩自然村),仁和街道(东塘行政村-南桥头自然村,九龙行政村-缪家里自然村,葛墩行政村-占桥头自然村);仁和街道(仁和镇东麻中排捞站,中国铁塔股份有限公司杭州市分公司,杭州宇杭石油储运有限公司,杭州大地之春农业开发有限公司,浙江新迪稼园农业有限公司,杭州梁运储运有限公司,浙江麦尚食品有限公司)","startTime":"2019-10-25 09:46:00","stopDate":"2019-10-25 11:46:00","orgNo":"3340140","typeCode":"电网故障停限电","poweroffArea":"110kV东塘变:高新G375线高新G3752开关后段","poweroffReason":"高压开关跳闸","powerTime":"2019-10-25 10:54:00","powerComm":"已送电","subsNo":"","lineNo":"","tgNo":"","tgName":null,"infoStatus":"1","orgName":"国网浙江杭州市余杭区供电有限公司","typeName":null,"infoStatusName":null,"dateDay":null,"orgNos":null,"nowTime":null,"countyName":null,"streetName":null,"villageName":null,"roadName":null,"communityName":null,"tranName":null,"sdLineName":null,"cityCode":"3340140","cityName":"国网浙江杭州市余杭区供电有限公司","provinceCode":null,"stopTime":"2019-10-25 11:46:00","powerType":"全部","powerOffArea":"110kV东塘变:高新G375线高新G3752开关后段","powerOffReason":"高压开关跳闸","powerOffId":"2019102531020085"},{"poweroffId":2019102531020083,"sgpoweroffId":null,"subsName":"","lineName":"10kV长阳9791线","pubTranName":"涟苑(一),","scope":"浙江省杭州市西湖区都市水乡水涟苑8幢、9幢、10幢、11幢、12幢附近一带用户及商铺","startTime":"2019-11-04 09:10:00","stopDate":"2019-11-04 15:00:00","orgNo":"3340101","typeCode":"临时停电","poweroffArea":"110kV红旗变:长阳9791线-涟苑(一)后段","poweroffReason":"2019年杭州市区陆家圩社区水涟苑公变低压台区改造工程 1811HZ1801Z107A0000000 涟苑(一)变低压改造 原停电结束时间为17:00:00,为减少客户停电时间,加快工作进度,提前送电,现变更停电结束时间为 15:00:00","powerTime":"2019-11-04 14:10:59","powerComm":"已送电","subsNo":"","lineNo":"","tgNo":"","tgName":null,"infoStatus":"1","orgName":"浙江杭州电力客户服务中心","typeName":null,"infoStatusName":null,"dateDay":null,"orgNos":null,"nowTime":null,"countyName":null,"streetName":null,"villageName":null,"roadName":null,"communityName":null,"tranName":null,"sdLineName":null,"cityCode":"3340101","cityName":"浙江杭州电力客户服务中心","provinceCode":null,"stopTime":"2019-11-04 15:00:00","powerType":"全部","powerOffArea":"110kV红旗变:长阳9791线-涟苑(一)后段","powerOffReason":"2019年杭州市区陆家圩社区水涟苑公变低压台区改造工程 1811HZ1801Z107A0000000 涟苑(一)变低压改造 原停电结束时间为17:00:00,为减少客户停电时间,加快工作进度,提前送电,现变更停电结束时间为 15:00:00","powerOffId":"2019102531020083"},{"poweroffId":2019102531020073,"sgpoweroffId":null,"subsName":"","lineName":"10kV西文8427线","pubTranName":"灯村,","scope":"浙江省-杭州市-下城区-东新街道-灯塔社区(颜三路,灯塔新村小区,再行路)","startTime":"2019-10-25 09:30:47","stopDate":"2019-10-25 16:30:47","orgNo":"3340101","typeCode":"电网故障停限电","poweroffArea":"110kV长木变:西文8427线-灯村后段","poweroffReason":"(低压停电信息)低压开关跳闸","powerTime":"2019-10-25 15:34:21","powerComm":"已送电","subsNo":"","lineNo":"","tgNo":"","tgName":null,"infoStatus":"1","orgName":"浙江杭州电力客户服务中心","typeName":null,"infoStatusName":null,"dateDay":null,"orgNos":null,"nowTime":null,"countyName":null,"streetName":null,"villageName":null,"roadName":null,"communityName":null,"tranName":null,"sdLineName":null,"cityCode":"3340101","cityName":"浙江杭州电力客户服务中心","provinceCode":null,"stopTime":"2019-10-25 16:30:47","powerType":"全部","powerOffArea":"110kV长木变:西文8427线-灯村后段","powerOffReason":"(低压停电信息)低压开关跳闸","powerOffId":"2019102531020073"},{"poweroffId":2019102531020071,"sgpoweroffId":null,"subsName":"","lineName":"10kV洪庄D292线","pubTranName":"杜墓村5号横岭公变,","scope":"浙江省-杭州市-富阳区-银湖街道-杜墓行政村-杜墓自然村","startTime":"2019-10-25 09:31:58","stopDate":"2019-10-25 10:31:58","orgNo":"3340170","typeCode":"电网故障停限电","poweroffArea":"35kV新义变:洪庄D292线-杜墓村5号横岭公变后段","poweroffReason":"高压开关跳闸","powerTime":"2019-10-25 10:08:47","powerComm":"已送电","subsNo":"","lineNo":"","tgNo":"","tgName":null,"infoStatus":"1","orgName":"国网浙江杭州市富阳区供电公司","typeName":null,"infoStatusName":null,"dateDay":null,"orgNos":null,"nowTime":null,"countyName":null,"streetName":null,"villageName":null,"roadName":null,"communityName":null,"tranName":null,"sdLineName":null,"cityCode":"3340170","cityName":"国网浙江杭州市富阳区供电公司","provinceCode":null,"stopTime":"2019-10-25 10:31:58","powerType":"全部","powerOffArea":"35kV新义变:洪庄D292线-杜墓村5号横岭公变后段","powerOffReason":"高压开关跳闸","powerOffId":"2019102531020071"}],"pageModel":{"pageNow":966,"totalCount":17789,"totalPage":1779,"tableRows":0,"pageCount":10,"beginCount":9650},"isExperi":"1"}