{"message":"","today":"2020-06-16","seleList":[{"poweroffId":2019102431020093,"sgpoweroffId":null,"subsName":"","lineName":"10kV龙潭T270线","pubTranName":"海威滨江9号公变,","scope":"浙江省-杭州市-桐庐县-城南街道-上杭社区(滨江小区）","startTime":"2019-10-24 10:42:25","stopDate":"2019-10-24 11:42:25","orgNo":"3340150","typeCode":"电网故障停限电","poweroffArea":"35kV三合变:龙潭T270线-海威滨江9号公变后段","poweroffReason":"(低压停电信息)低压开关跳闸","powerTime":"2019-10-24 11:26:57","powerComm":"已送电","subsNo":"","lineNo":"","tgNo":"","tgName":null,"infoStatus":"1","orgName":"国网浙江桐庐县供电公司","typeName":null,"infoStatusName":null,"dateDay":null,"orgNos":null,"nowTime":null,"countyName":null,"streetName":null,"villageName":null,"roadName":null,"communityName":null,"tranName":null,"sdLineName":null,"cityCode":"3340150","cityName":"国网浙江桐庐县供电公司","provinceCode":null,"stopTime":"2019-10-24 11:42:25","powerType":"全部","powerOffArea":"35kV三合变:龙潭T270线-海威滨江9号公变后段","powerOffReason":"(低压停电信息)低压开关跳闸","powerOffId":"2019102431020093"},{"poweroffId":2019102431020075,"sgpoweroffId":null,"subsName":"","lineName":"10kV潘镇H543线","pubTranName":"杭州荣顺畜产品有限公司6110116080,杭州余杭泮板五金厂6110116081,杭州盛昌五金材料有限公司6110116074,杭州茶叶试验场6110119010,小古城村西边山公变,小古城村愈家堰加工场公变,杭宏电力612070452001#专变,杭州雅光照明电器有限公司6110116208,","scope":"浙江省-杭州市-余杭区-径山镇-小古城行政村(水磨里自然村,西边山自然村,小古城自然村,杨家畈自然村);瓶窑镇-杭州茶叶试验场,径山镇(杭州盛昌五金材料有限公司,杭州雅光照明电器有限公司,杭州荣顺畜产品有限公司,杭州余杭泮板五金厂,杭州杭宏电力承装有限公司)","startTime":"2019-10-24 09:57:00","stopDate":"2019-10-24 12:57:00","orgNo":"3340140","typeCode":"电网故障停限电","poweroffArea":"110kV潘板变:潘镇H543线城丰开关站俞家埝分线后段","poweroffReason":"高压开关跳闸","powerTime":"2019-10-24 12:34:00","powerComm":"已送电","subsNo":"","lineNo":"","tgNo":"","tgName":null,"infoStatus":"1","orgName":"国网浙江杭州市余杭区供电有限公司","typeName":null,"infoStatusName":null,"dateDay":null,"orgNos":null,"nowTime":null,"countyName":null,"streetName":null,"villageName":null,"roadName":null,"communityName":null,"tranName":null,"sdLineName":null,"cityCode":"3340140","cityName":"国网浙江杭州市余杭区供电有限公司","provinceCode":null,"stopTime":"2019-10-24 12:57:00","powerType":"全部","powerOffArea":"110kV潘板变:潘镇H543线城丰开关站俞家埝分线后段","powerOffReason":"高压开关跳闸","powerOffId":"2019102431020075"},{"poweroffId":2019102431020070,"sgpoweroffId":null,"subsName":"","lineName":"10kV洪庄D292线","pubTranName":"洪庄村7#集镇公变,","scope":"浙江省-杭州市-富阳区-银湖街道-洪庄行政村(富洪新村自然村,洪庄自然村)","startTime":"2019-10-24 09:51:52","stopDate":"2019-10-24 11:00:00","orgNo":"3340170","typeCode":"电网故障停限电","poweroffArea":"35kV新义变:洪庄D292线-洪庄村7#集镇公变后段","poweroffReason":"(低压停电信息)低压开关跳闸","powerTime":"2019-10-24 10:42:00","powerComm":"已送电","subsNo":"","lineNo":"","tgNo":"","tgName":null,"infoStatus":"1","orgName":"国网浙江杭州市富阳区供电公司","typeName":null,"infoStatusName":null,"dateDay":null,"orgNos":null,"nowTime":null,"countyName":null,"streetName":null,"villageName":null,"roadName":null,"communityName":null,"tranName":null,"sdLineName":null,"cityCode":"3340170","cityName":"国网浙江杭州市富阳区供电公司","provinceCode":null,"stopTime":"2019-10-24 11:00:00","powerType":"全部","powerOffArea":"35kV新义变:洪庄D292线-洪庄村7#集镇公变后段","powerOffReason":"(低压停电信息)低压开关跳闸","powerOffId":"2019102431020070"},{"poweroffId":2019102431020047,"sgpoweroffId":null,"subsName":"","lineName":"10kV萧百C111线","pubTranName":"潘水北苑1#公变,南都物业管理公司,潘水北苑6#公变,中房二公变,潘水北苑3#公变,潘水北苑5#公变,潘水北苑7#公变,潘水北苑10#公变,体育中心1#,杭州市萧山区社会保障管理中心,市南公变,1#变压器,潘水北苑4#公变,潘水北苑2#公变,体育中心2#,潘水北苑9#公变,潘水北苑11#公变,直石板弄公变,华通大厦,地铁集团配电变压器,幼儿园公变,会计公变,蔡家弄公变,体育中心3#,杭州元中物业管理有限公司,潘水北苑8#公变,","scope":"浙江省-杭州市-萧山区-城厢街道-南门江社区(潘水路,萧然南路),城厢街道-潘水社区(杭州萧山地铁投资开发有限公司,杭州萧山城市新能源汽车服务有限公司),南门江社区，南欣公寓，南峰公寓，南门江小区，潘水路一带","startTime":"2019-10-24 09:02:34","stopDate":"2019-10-24 19:02:52","orgNo":"3340130","typeCode":"电网故障停限电","poweroffArea":"110kV丽都变:萧百C111线","poweroffReason":"高压开关跳闸 原停电结束时间为2019-10-24 17:02:52,因抢修难度增大原因,现变更停电结束时间为2019-10-24 19:02:52","powerTime":"2019-10-24 18:16:56","powerComm":"已送电","subsNo":"","lineNo":"","tgNo":"","tgName":null,"infoStatus":"1","orgName":"国网浙江杭州市萧山区供电有限公司","typeName":null,"infoStatusName":null,"dateDay":null,"orgNos":null,"nowTime":null,"countyName":null,"streetName":null,"villageName":null,"roadName":null,"communityName":null,"tranName":null,"sdLineName":null,"cityCode":"3340130","cityName":"国网浙江杭州市萧山区供电有限公司","provinceCode":null,"stopTime":"2019-10-24 19:02:52","powerType":"全部","powerOffArea":"110kV丽都变:萧百C111线","powerOffReason":"高压开关跳闸 原停电结束时间为2019-10-24 17:02:52,因抢修难度增大原因,现变更停电结束时间为2019-10-24 19:02:52","powerOffId":"2019102431020047"},{"poweroffId":2019102431020042,"sgpoweroffId":null,"subsName":"","lineName":"10kV万泉D738线","pubTranName":"澳海澜庭7号公变,","scope":"浙江省-杭州市-富阳区-新登镇-昌东行政村-昌东自然村","startTime":"2019-10-24 08:50:58","stopDate":"2019-10-24 11:00:00","orgNo":"3340170","typeCode":"电网故障停限电","poweroffArea":"110kV松溪变:万泉D738线-澳海澜庭7号公变后段","poweroffReason":"高压开关跳闸","powerTime":"2019-10-24 10:45:30","powerComm":"已送电","subsNo":"","lineNo":"","tgNo":"","tgName":null,"infoStatus":"1","orgName":"国网浙江杭州市富阳区供电公司","typeName":null,"infoStatusName":null,"dateDay":null,"orgNos":null,"nowTime":null,"countyName":null,"streetName":null,"villageName":null,"roadName":null,"communityName":null,"tranName":null,"sdLineName":null,"cityCode":"3340170","cityName":"国网浙江杭州市富阳区供电公司","provinceCode":null,"stopTime":"2019-10-24 11:00:00","powerType":"全部","powerOffArea":"110kV松溪变:万泉D738线-澳海澜庭7号公变后段","powerOffReason":"高压开关跳闸","powerOffId":"2019102431020042"},{"poweroffId":2019102431020028,"sgpoweroffId":null,"subsName":"","lineName":"10kV三峰A213线","pubTranName":"大庄村2#变,三峰村6#变,三峰村1#变,白鹿塘7#变,三峰村8#变,杭州前程混凝土有限公司,2#,杭州市萧山区临浦镇人民政府（路灯油车桥）,三峰村3#变,杭州宜品房地产开发有限公司,王村村8#变,变压器,白鹿塘8#变,杭州市萧山区临浦镇人民政府（路灯鲁家坞）,临浦镇政府-快速通道-三峰路灯,白鹿塘5#变,大庄村9#变,杭州宜品房地产开发有限公司,大庄村4#变,三峰村7#变,三峰村4#变,萧东明紧固件有限公司,1#,三峰村9#变,杭州顺发工艺品有限公司,杭州萧山顺达汽车修理有限公司,白鹿塘9#变,白鹿塘1#变,杭州高卡粉料有限公司2#,杭州萧山钱江冲压件有限公司（东曹线）,杭州大中亿实业有限公司,三峰村5#变,白鹿塘13#变,白鹿塘10#变,杭州山水蓄电池有限公司,杭州百路纸品有限公司,大庄村7#变,杭州华杰石业有限公司1#,白鹿塘3#变,杭州三品塑胶有限公司变压器,杭州高卡粉料有限公司1#,临一村7#变,杭州萧都新型建材有限公司,三峰村12#变,大庄村3#变,杭州市萧山区公路管理处（袄庄陈）,白鹿塘4#变,杭州临江船舶设备制造有限公司,三峰村11#变,白鹿塘11#变,杭州宜品房地产开发有限公司,大庄村8#变,大庄村5#变,大庄村6#变,三峰村10#变,白鹿塘2#变,萧山发电厂,王村村7#变,杭州兴阳拉丝模厂,3号变,大庄村1#变,","scope":"浙江省-杭州市-萧山区-临浦镇-白鹿塘行政村(鲁家坞自然村,白鹿塘自然村,外邱家坞自然村,邱家坞自然村),临浦镇-王村行政村(张家自然村,王自然村,五庄自然村),临浦镇-大庄行政村(大庄桥自然村,西庄自然村,湖池头自然村,九间头自然村,高家坞自然村,前王自然村),临浦镇-临一行政村(下桥自然村,上桥自然村,从塘自然村),临浦镇-三峰行政村(后山坞自然村,周家湖自然村,下头坞自然村,庞家池自然村);义桥镇(杭州大中亿实业有限公司,杭州萧山钱江冲压件有限公司,杭州山水蓄电池有限公司),临浦镇(杭州三品塑胶有限公司,杭州市萧山区公路管理处,杭州顺发工艺品有限公司,杭州华杰石业有限公司,杭州萧都新型建材有限公司,浙江浙能电力股份有限公司萧山发电厂,杭州高卡粉料有限公司,杭州东明紧固件有限公司,杭州展起刷业有限公司,杭州前程混凝土有限公司,杭州市萧山区临浦镇人民政府,杭州坚锋商品混凝土有限公司,杭州临江船舶设备制造有限公司,杭州兴阳拉丝模厂,杭州萧山顺达汽车修理有限公司,杭州宜品房地产开发有限公司,杭州市萧山区第二高级中学)，浙江省杭州市萧山区临浦镇三峰行政村等一带","startTime":"2019-10-24 08:14:00","stopDate":"2019-10-24 11:14:00","orgNo":"3340130","typeCode":"电网故障停限电","poweroffArea":"110kV群建变:三峰A213线三峰A2131开关后段","poweroffReason":"高压开关跳闸","powerTime":"2019-10-24 10:23:54","powerComm":"已送电","subsNo":"","lineNo":"","tgNo":"","tgName":null,"infoStatus":"1","orgName":"国网浙江杭州市萧山区供电有限公司","typeName":null,"infoStatusName":null,"dateDay":null,"orgNos":null,"nowTime":null,"countyName":null,"streetName":null,"villageName":null,"roadName":null,"communityName":null,"tranName":null,"sdLineName":null,"cityCode":"3340130","cityName":"国网浙江杭州市萧山区供电有限公司","provinceCode":null,"stopTime":"2019-10-24 11:14:00","powerType":"全部","powerOffArea":"110kV群建变:三峰A213线三峰A2131开关后段","powerOffReason":"高压开关跳闸","powerOffId":"2019102431020028"},{"poweroffId":2019102431020026,"sgpoweroffId":null,"subsName":"","lineName":"10kV长安C281线","pubTranName":"黄山村40#变,","scope":"浙江省-杭州市-萧山区-闻堰镇-黄山行政村-黄山新自然村","startTime":"2019-10-24 08:30:47","stopDate":"2019-10-24 14:30:47","orgNo":"3340130","typeCode":"电网故障停限电","poweroffArea":"110kV三江变:长安C281线-黄山村40#变后段","poweroffReason":"（低压停电信息）低压漏电保护器短路故障。原停电结束时间为2019-10-24 16:30:47,为减少客户停电时间,加快工作进度,提前送电,现变更停电结束时间为2019-10-24 14:30:47","powerTime":"2019-10-24 13:43:28","powerComm":"已送电","subsNo":"","lineNo":"","tgNo":"","tgName":null,"infoStatus":"1","orgName":"国网浙江杭州市萧山区供电有限公司","typeName":null,"infoStatusName":null,"dateDay":null,"orgNos":null,"nowTime":null,"countyName":null,"streetName":null,"villageName":null,"roadName":null,"communityName":null,"tranName":null,"sdLineName":null,"cityCode":"3340130","cityName":"国网浙江杭州市萧山区供电有限公司","provinceCode":null,"stopTime":"2019-10-24 14:30:47","powerType":"全部","powerOffArea":"110kV三江变:长安C281线-黄山村40#变后段","powerOffReason":"（低压停电信息）低压漏电保护器短路故障。原停电结束时间为2019-10-24 16:30:47,为减少客户停电时间,加快工作进度,提前送电,现变更停电结束时间为2019-10-24 14:30:47","powerOffId":"2019102431020026"},{"poweroffId":2019102431020025,"sgpoweroffId":null,"subsName":"","lineName":"10kV科尔C625线","pubTranName":"市政园林管理处,和平桥村5#变,和平桥村4#变,杭州鼎盛寝具包装,翔旺生化,朱家坛村6#变,江苏省交通工程集团有限公司,杭州萧山城区建设有限公司3#配电变压器,萧山公路段,浙江万翔寝具制品,城北拼线,娄下陈村5#变,变压器,加油站,地铁5号线一期工程土建施工SG5-2标段项目经理部,杭州世帛时尚家纺有限公司,杭州纳成土石方有限公司,杭州德嘉服饰,杭州名扬模架有限公司,杭州三星羽绒制品有限公司,朱家坛村5#变,杭州威胜建设工程有限公司站内变压器配电变压器,杭州禄发机械站内变压器配电变压器,万翔寝具制品2#,杭州市公安局,杭州萧山城区建设有限公司5#配电变压器,杭州萧山城区建设有限公司1#配电变压器,晶隆丽制线厂,杭州萧山城区建设有限公司4#配电变压器,名扬模架1#,万翔寝具制品1#,中国石化杭州萧山万丰石油有限公司,杭州萧山城区建设有限公司6#配电变压器,杭州萧山城区建设有限公司2#配电变压器,","scope":"浙江省-杭州市-萧山区-新塘街道-朱家坛行政村(朱家坛自然村,后朱自然村,前河西自然村),新塘街道(和平桥行政村-莫家港自然村,娄下陈行政村-娄下陈自然村);浙江省-杭州市-萧山区-新塘街道-娄下陈行政村-江苏省交通工程集团有限公司,新塘街道-和平桥行政村(杭州萧山地铁投资开发有限公司,杭州纳成市政工程有限公司,浙江三星羽绒股份有限公司,中国石化杭州萧山万丰石油有限公司,杭州萧山浙石加油站有限公司,杭州市萧山区市政绿化养护保障中心,杭州威胜建设工程有限公司,杭州市公安局),新塘街道-朱家坛行政村(杭州德嘉服饰有限公司,杭州禄发机械有限公司,杭州超尔切削工具有限公司,杭州晶隆丽制线厂,杭州萧山翔旺生化有限公司,杭州鼎盛寝具包装有限公司),新塘街道-姑娘桥行政村(中铁三局集团有限公司杭州地铁5号线一期工程土建施工SG5-22标段项目经理部,杭州市萧山区公路管理处),新塘街道-五联行政村(浙江久工精密机械有限公司,杭州世昌农业开发有限公司,杭州元字达精密机械有限公司,浙江万翔寝具制品有限公司,杭州纳成市政工程有限公司)一带，浙江省杭州市萧山区新塘街道朱家坛行政村264号，浙江省杭州市萧山区新塘街道武联村工业园浙江万翔勤桔制品有限公司，浙江省杭州市萧山区新塘街道五联行政村陈端路827号，浙江省杭州市萧山区东瑞西路，浙江省杭州市萧山区新塘街道和平桥行政村","startTime":"2019-10-24 08:00:17","stopDate":"2019-10-24 10:10:17","orgNo":"3340130","typeCode":"电网故障停限电","poweroffArea":"110kV新街变:科尔C625线-科尔C625线开关后段","poweroffReason":"外力破坏引起科尔C625线高压柱上断路器短路故障","powerTime":"2019-10-24 09:20:05","powerComm":"已送电","subsNo":"","lineNo":"","tgNo":"","tgName":null,"infoStatus":"1","orgName":"国网浙江杭州市萧山区供电有限公司","typeName":null,"infoStatusName":null,"dateDay":null,"orgNos":null,"nowTime":null,"countyName":null,"streetName":null,"villageName":null,"roadName":null,"communityName":null,"tranName":null,"sdLineName":null,"cityCode":"3340130","cityName":"国网浙江杭州市萧山区供电有限公司","provinceCode":null,"stopTime":"2019-10-24 10:10:17","powerType":"全部","powerOffArea":"110kV新街变:科尔C625线-科尔C625线开关后段","powerOffReason":"外力破坏引起科尔C625线高压柱上断路器短路故障","powerOffId":"2019102431020025"},{"poweroffId":2019102431020014,"sgpoweroffId":null,"subsName":"","lineName":"10kV前源Y322线","pubTranName":"寿峰村彭坑台区,前源村张家台区,寿峰村西塘台区,前源村洪坞口台区,前源村桥边台区,寿峰村里陈台区,前源村刘家桥台区,前源村八亩丘台区,前源村樟岩台区,羊峨村里坞塘台区,羊峨村岭背台区,三都村西畈台区,1#,羊峨村里中垅台区,寿峰村里钱台区,绿源村树下台区,马宅村杜塘台区,马宅村下姚家台区,三都村塘坞台区,前源村上塘台区,前源村大坪台区,樟岩电站专变1#,前源村樊家台区,羊峨村外蒋坞台区变压器,马宅村姚家台区,羊峨村羊峨台区,绿源村水下台区,马宅村榨溪坞台区,前源村刘家台区,前源村九龙湾台区,三都村樟周台区,樟岩电站专变2#,马宅村血岭坞台区,长坛电站专变,马宅村上姚村台区,马宅村后山台区,绿源村里叶台区,马宅村马宅台区,前源村张家源台区,前源村八亩排台区,羊峨村庄坞口台区变压器,前源村下龙潭台区,胜华电站专变,绿源村落坞台区,前源村周家山台区,羊峨村外权坞台区,绿源村阳边台区,绿源村里周台区,羊峨村尖竹山台区,羊娥电站专变,绿源村长潭台区,前源村胜华台区,绿源村方坞台区,","scope":"浙江省-杭州市-建德市-三都镇-三都行政村 樟周自然村,西畈自然村,塘坞自然村 ,三都镇-羊峨行政村 里坞塘自然村,尖竹山自然村,羊峨自然村,岭背自然村,外权坞自然村,里中垅自然村,庄坞口自然村,外蒋坞自然村 ,三都镇-绿源行政村 里叶自然村,阳边自然村,水下自然村,落坞自然村,长潭自然村,里周自然村,树下自然村,方坞自然村 ,三都镇-寿峰行政村 里陈自然村,西塘自然村,彭坑自然村,里钱自然村 ,三都镇-马宅行政村 血岭坞自然村,马宅自然村,上姚村自然村,杜塘自然村,后山自然村,榨溪坞自然村,下姚家自然村,姚家自然村 ,三都镇-前源行政村 樟岩自然村,周家山自然村,樊家自然村,刘家自然村,八亩排自然村,洪坞口自然村,九龙湾自然村,张家自然村,上塘自然村,八亩丘自然村,胜华自然村,刘家桥自然村,下龙潭自然村,大坪自然村,张家源自然村,桥边自然村 ;三都镇 建德市三都镇羊峨电站,建德市三都镇胜华电站,建德市三都镇长潭电站,建德市樟岩水电开发有限公司 一带用户","startTime":"2019-10-24 07:39:00","stopDate":"2019-10-24 09:00:00","orgNo":"3340180","typeCode":"电网故障停限电","poweroffArea":"35kV三都变:前源Y322线前源Y322线开关后段","poweroffReason":"高压开关跳闸 原停电结束时间为2019-10-24 11:00:00,为减少客户停电时间,加快工作进度,提前送电,现变更停电结束时间为2019-10-24 09:00:00","powerTime":"2019-10-24 08:35:00","powerComm":"已送电","subsNo":"","lineNo":"","tgNo":"","tgName":null,"infoStatus":"1","orgName":"国网浙江建德市供电有限公司","typeName":null,"infoStatusName":null,"dateDay":null,"orgNos":null,"nowTime":null,"countyName":null,"streetName":null,"villageName":null,"roadName":null,"communityName":null,"tranName":null,"sdLineName":null,"cityCode":"3340180","cityName":"国网浙江建德市供电有限公司","provinceCode":null,"stopTime":"2019-10-24 09:00:00","powerType":"全部","powerOffArea":"35kV三都变:前源Y322线前源Y322线开关后段","powerOffReason":"高压开关跳闸 原停电结束时间为2019-10-24 11:00:00,为减少客户停电时间,加快工作进度,提前送电,现变更停电结束时间为2019-10-24 09:00:00","powerOffId":"2019102431020014"},{"poweroffId":2019102331020257,"sgpoweroffId":null,"subsName":"","lineName":"10kV大坑T206线","pubTranName":"祥和家园1号公变,","scope":"浙江省-杭州市-桐庐县-横村镇-城东行政村-市场路（祥和家园）一带","startTime":"2019-10-23 20:44:17","stopDate":"2019-10-23 22:44:17","orgNo":"3340150","typeCode":"电网故障停限电","poweroffArea":"110kV方埠变:大坑T206线-祥和家园1号公变后段","poweroffReason":"(低压停电信息)低压开关跳闸","powerTime":"2019-10-23 22:13:41","powerComm":"已送电","subsNo":"","lineNo":"","tgNo":"","tgName":null,"infoStatus":"1","orgName":"国网浙江桐庐县供电公司","typeName":null,"infoStatusName":null,"dateDay":null,"orgNos":null,"nowTime":null,"countyName":null,"streetName":null,"villageName":null,"roadName":null,"communityName":null,"tranName":null,"sdLineName":null,"cityCode":"3340150","cityName":"国网浙江桐庐县供电公司","provinceCode":null,"stopTime":"2019-10-23 22:44:17","powerType":"全部","powerOffArea":"110kV方埠变:大坑T206线-祥和家园1号公变后段","powerOffReason":"(低压停电信息)低压开关跳闸","powerOffId":"2019102331020257"}],"pageModel":{"pageNow":968,"totalCount":17789,"totalPage":1779,"tableRows":0,"pageCount":10,"beginCount":9670},"isExperi":"1"}