{"message":"","today":"2020-06-16","seleList":[{"poweroffId":2019102231020194,"sgpoweroffId":null,"subsName":"","lineName":"10kV昌西V142线","pubTranName":"杭州品其全塑料包装有限公司,龙岗林川村（二）,双石村,临安市杨树水力发电有限公司(厂用电),新溪村周家,杨树电站,东坞村,临安双石水力发电有限公司(厂用电),杭州临安塘源水电开发有限公司,东坞村（二）,许联村下许,临安杭临童昌绿色食品有限公司,群干村,群干2#变,西坞村,浙江省交通投资集团实业发展有限公司龙岗服务区,新溪坑村,无他村（五）,临安市腾胜摩擦材料有限公司,无他电站2#变,沃村姚家,毛山村,林川村（百丈坞）,10kV林川村[杭向]公变,毛山电站(厂用变),林坑村(林川4#变),临安市龙岗沃坞奶牛养殖场,双石电站,10kV林川村徽向公变,龙岗上许（二）,临安市昌西新型墙体材料有限公司,东坞村(三),杭州宏临科技有限公司,杭州市临安区龙岗镇郡沃股份经济合作社,林川村,无他电站2#变,杭州上许塑料制品有限公司,沃村,毛山电站,新溪电站,临安市龙岗圳派曲木家私厂,龙岗西坞村（二）,杨树村黄泥岗,林坑村(西坞3#变),杭州临安振兴食品炒货有限公司,杭州临安塘源水电开发有限公司(厂用电),上许村,沃村2#变(凸上),杭州临安冠峰传感器有限公司,新溪变(二),新溪村集聚区,新溪坑村.塘源,","scope":"浙江省-杭州市-临安市-龙岗镇-新溪新村行政村(新溪自然村,许联自然村,塘源自然村),龙岗镇-百丈行政村(杨树自然村,双石自然村,毛山自然村),龙岗镇-林坑行政村(林川自然村,西坞自然村,东坞自然村),龙岗镇-郡沃行政村(沃村自然村,群干自然村),龙岗镇(五星行政村-上坪自然村,龙井桥行政村-龙井桥自然村,汤家湾行政村-前山下自然村,无他行政村-无他自然村,东塔行政村-浮桥自然村,相见行政村-相见自然村);龙岗镇(杭州品其全塑料包装有限公司,杭州临安严氏炒货食品厂,毛山电站(厂用电),临安市杨树水力发电有限公司(厂用电),杭州双石水力发电有限公司,杭州临安塘源水电开发有限公司(厂用电),杭州临安振兴食品炒货有限公司,临安市毛山水力电站,临安市新溪水电有限公司,杭州临安塘源水电开发有限公司,临安市杨树水力发电有限公司,临安市昌西新型墙体材料有限公司,杭州临安无他水电站,浙江省商业集团有限公司龙岗服务区,杭州临安冠峰传感器有限公司,杭州上许塑料制品有限公司,临安杭临童昌绿色食品有限公司,杭州临安沃坞奶牛养殖场,杭州宏临科技有限公司)","startTime":"2019-10-22 15:51:06","stopDate":"2019-10-22 18:34:00","orgNo":"3340160","typeCode":"电网故障停限电","poweroffArea":"110kV龙岗变:昌西V142线1421开关后段","poweroffReason":"高压开关跳闸","powerTime":"2019-10-22 17:38:36","powerComm":"已送电","subsNo":"","lineNo":"","tgNo":"","tgName":null,"infoStatus":"1","orgName":"国网浙江临安市供电公司","typeName":null,"infoStatusName":null,"dateDay":null,"orgNos":null,"nowTime":null,"countyName":null,"streetName":null,"villageName":null,"roadName":null,"communityName":null,"tranName":null,"sdLineName":null,"cityCode":"3340160","cityName":"国网浙江临安市供电公司","provinceCode":null,"stopTime":"2019-10-22 18:34:00","powerType":"全部","powerOffArea":"110kV龙岗变:昌西V142线1421开关后段","powerOffReason":"高压开关跳闸","powerOffId":"2019102231020194"},{"poweroffId":2019102231020193,"sgpoweroffId":null,"subsName":"","lineName":"10kV瑶山T172线","pubTranName":"东溪柏山4号公变,","scope":"浙江省-杭州市-桐庐县-分水镇-东溪行政村-柏山自然村,分水镇-三合行政村(三合自然村,石家自然村)","startTime":"2019-10-22 15:45:00","stopDate":"2019-10-22 17:45:00","orgNo":"3340150","typeCode":"电网故障停限电","poweroffArea":"110kV分水变:瑶山T172线东溪柏山4号公变配变","poweroffReason":"(低压停电信息)低压开关跳闸","powerTime":"2019-10-22 17:01:42","powerComm":"已送电","subsNo":"","lineNo":"","tgNo":"","tgName":null,"infoStatus":"1","orgName":"国网浙江桐庐县供电公司","typeName":null,"infoStatusName":null,"dateDay":null,"orgNos":null,"nowTime":null,"countyName":null,"streetName":null,"villageName":null,"roadName":null,"communityName":null,"tranName":null,"sdLineName":null,"cityCode":"3340150","cityName":"国网浙江桐庐县供电公司","provinceCode":null,"stopTime":"2019-10-22 17:45:00","powerType":"全部","powerOffArea":"110kV分水变:瑶山T172线东溪柏山4号公变配变","powerOffReason":"(低压停电信息)低压开关跳闸","powerOffId":"2019102231020193"},{"poweroffId":2019102231020163,"sgpoweroffId":null,"subsName":"","lineName":"10kV后扬H414线","pubTranName":"长命村青狮头公变,","scope":"浙江省-杭州市-余杭区-瓶窑镇-长命行政村(青狮斗自然村,胡林老自然村)","startTime":"2019-10-31 08:30:00","stopDate":"2019-10-31 16:30:00","orgNo":"3340140","typeCode":"计划停电","poweroffArea":"35kV良渚变:后扬H414线-青狮头一带","poweroffReason":"(低压停电信息)计划工作","powerTime":"2019-10-31 15:40:50","powerComm":"已送电","subsNo":"","lineNo":"","tgNo":"","tgName":null,"infoStatus":"1","orgName":"国网浙江杭州市余杭区供电有限公司","typeName":null,"infoStatusName":null,"dateDay":null,"orgNos":null,"nowTime":null,"countyName":null,"streetName":null,"villageName":null,"roadName":null,"communityName":null,"tranName":null,"sdLineName":null,"cityCode":"3340140","cityName":"国网浙江杭州市余杭区供电有限公司","provinceCode":null,"stopTime":"2019-10-31 16:30:00","powerType":"全部","powerOffArea":"35kV良渚变:后扬H414线-青狮头一带","powerOffReason":"(低压停电信息)计划工作","powerOffId":"2019102231020163"},{"poweroffId":2019102231020156,"sgpoweroffId":null,"subsName":"","lineName":"10kV五科G015线","pubTranName":"钱塘5组（十五堡）2号公变,","scope":"浙江省-杭州市-余杭区-南苑街道-钱塘社区(十五堡自然村)","startTime":"2019-10-22 14:10:00","stopDate":"2019-10-22 17:00:00","orgNo":"3340140","typeCode":"电网故障停限电","poweroffArea":"110kV外乔变:新万G195线-钱塘5组（十五堡）2号公变后段","poweroffReason":"高压开关跳闸 原停电结束时间为2019-10-22 18:00:00,为减少客户停电时间,加快工作进度,提前送电,现变更停电结束时间为2019-10-22 17:00:00","powerTime":"2019-10-22 16:07:00","powerComm":"已送电","subsNo":"","lineNo":"","tgNo":"","tgName":null,"infoStatus":"1","orgName":"国网浙江杭州市余杭区供电有限公司","typeName":null,"infoStatusName":null,"dateDay":null,"orgNos":null,"nowTime":null,"countyName":null,"streetName":null,"villageName":null,"roadName":null,"communityName":null,"tranName":null,"sdLineName":null,"cityCode":"3340140","cityName":"国网浙江杭州市余杭区供电有限公司","provinceCode":null,"stopTime":"2019-10-22 17:00:00","powerType":"全部","powerOffArea":"110kV外乔变:新万G195线-钱塘5组（十五堡）2号公变后段","powerOffReason":"高压开关跳闸 原停电结束时间为2019-10-22 18:00:00,为减少客户停电时间,加快工作进度,提前送电,现变更停电结束时间为2019-10-22 17:00:00","powerOffId":"2019102231020156"},{"poweroffId":2019102231020150,"sgpoweroffId":null,"subsName":"","lineName":"10kV俞家D843线","pubTranName":"后山边1号村西公变,","scope":"浙江省-杭州市-富阳区-新桐乡-春渚行政村-后山边自然村","startTime":"2019-10-22 13:39:56","stopDate":"2019-10-22 16:00:00","orgNo":"3340170","typeCode":"电网故障停限电","poweroffArea":"110kV新桐变:俞家D843线-后山边1号村西公变后段","poweroffReason":"(低压停电信息)低压开关跳闸","powerTime":"2019-10-22 15:02:34","powerComm":"已送电","subsNo":"","lineNo":"","tgNo":"","tgName":null,"infoStatus":"1","orgName":"国网浙江杭州市富阳区供电公司","typeName":null,"infoStatusName":null,"dateDay":null,"orgNos":null,"nowTime":null,"countyName":null,"streetName":null,"villageName":null,"roadName":null,"communityName":null,"tranName":null,"sdLineName":null,"cityCode":"3340170","cityName":"国网浙江杭州市富阳区供电公司","provinceCode":null,"stopTime":"2019-10-22 16:00:00","powerType":"全部","powerOffArea":"110kV新桐变:俞家D843线-后山边1号村西公变后段","powerOffReason":"(低压停电信息)低压开关跳闸","powerOffId":"2019102231020150"},{"poweroffId":2019102231020115,"sgpoweroffId":null,"subsName":"","lineName":"10kV城南T173线","pubTranName":"武盛东关1号公变,武盛东关1号公变,","scope":"浙江省-杭州市-桐庐县-分水镇（金都公寓)","startTime":"2019-10-22 11:11:31","stopDate":"2019-10-22 13:33:31","orgNo":"3340150","typeCode":"电网故障停限电","poweroffArea":"110kV分水变:城南T173线-武盛东关1号公变后段;城南T173线-武盛东关1号公变后段","poweroffReason":"(低压停电信息)低压开关跳闸","powerTime":"2019-10-22 13:21:55","powerComm":"已送电","subsNo":"","lineNo":"","tgNo":"","tgName":null,"infoStatus":"1","orgName":"国网浙江桐庐县供电公司","typeName":null,"infoStatusName":null,"dateDay":null,"orgNos":null,"nowTime":null,"countyName":null,"streetName":null,"villageName":null,"roadName":null,"communityName":null,"tranName":null,"sdLineName":null,"cityCode":"3340150","cityName":"国网浙江桐庐县供电公司","provinceCode":null,"stopTime":"2019-10-22 13:33:31","powerType":"全部","powerOffArea":"110kV分水变:城南T173线-武盛东关1号公变后段;城南T173线-武盛东关1号公变后段","powerOffReason":"(低压停电信息)低压开关跳闸","powerOffId":"2019102231020115"},{"poweroffId":2019102231020102,"sgpoweroffId":null,"subsName":"","lineName":"10kV江馆D351线","pubTranName":"鹿山村13#西提南路2公变,","scope":"浙江省-杭州市-富阳区-富春街道-鹿山社区(鹿山路,文教路)","startTime":"2019-10-22 10:34:43","stopDate":"2019-10-22 11:35:00","orgNo":"3340170","typeCode":"电网故障停限电","poweroffArea":"110kV富鹿变:江馆D351线-鹿山村13#西提南路2公变后段","poweroffReason":"(低压停电信息)低压开关跳闸","powerTime":"2019-10-22 11:17:54","powerComm":"已送电","subsNo":"","lineNo":"","tgNo":"","tgName":null,"infoStatus":"1","orgName":"国网浙江杭州市富阳区供电公司","typeName":null,"infoStatusName":null,"dateDay":null,"orgNos":null,"nowTime":null,"countyName":null,"streetName":null,"villageName":null,"roadName":null,"communityName":null,"tranName":null,"sdLineName":null,"cityCode":"3340170","cityName":"国网浙江杭州市富阳区供电公司","provinceCode":null,"stopTime":"2019-10-22 11:35:00","powerType":"全部","powerOffArea":"110kV富鹿变:江馆D351线-鹿山村13#西提南路2公变后段","powerOffReason":"(低压停电信息)低压开关跳闸","powerOffId":"2019102231020102"},{"poweroffId":2019102231020046,"sgpoweroffId":null,"subsName":"","lineName":"10kV滨防9005线","pubTranName":"风钱六变,","scope":"浙江省-杭州市-滨江区-长河街道-月明社区-月明路，浙江省杭州市滨江区风雅钱塘9幢4单元住户。","startTime":"2019-11-07 09:30:00","stopDate":"2019-11-07 11:30:00","orgNo":"3340101","typeCode":"计划停电","poweroffArea":"110kV江一变:滨防9005线-风钱六变后段","poweroffReason":"(低压停电信息)居民增容","powerTime":"2019-11-07 10:41:26","powerComm":"已送电","subsNo":"","lineNo":"","tgNo":"","tgName":null,"infoStatus":"1","orgName":"浙江杭州电力客户服务中心","typeName":null,"infoStatusName":null,"dateDay":null,"orgNos":null,"nowTime":null,"countyName":null,"streetName":null,"villageName":null,"roadName":null,"communityName":null,"tranName":null,"sdLineName":null,"cityCode":"3340101","cityName":"浙江杭州电力客户服务中心","provinceCode":null,"stopTime":"2019-11-07 11:30:00","powerType":"全部","powerOffArea":"110kV江一变:滨防9005线-风钱六变后段","powerOffReason":"(低压停电信息)居民增容","powerOffId":"2019102231020046"},{"poweroffId":2019102231020042,"sgpoweroffId":null,"subsName":"","lineName":"10kV包家Y131线","pubTranName":"万龙村长垅岗台区,","scope":"浙江省-杭州市-建德市-乾潭镇-万龙行政村 后山湾自然村,大路上自然村 长龙岗自然村一带用户。","startTime":"2019-10-22 08:05:00","stopDate":"2019-10-22 09:30:00","orgNo":"3340180","typeCode":"电网故障停限电","poweroffArea":"110kV乾潭变:包家Y131线-万龙村长垅岗台区后段","poweroffReason":"(低压停电信息)低压开关跳闸","powerTime":"2019-10-22 08:49:00","powerComm":"已送电","subsNo":"","lineNo":"","tgNo":"","tgName":null,"infoStatus":"1","orgName":"国网浙江建德市供电有限公司","typeName":null,"infoStatusName":null,"dateDay":null,"orgNos":null,"nowTime":null,"countyName":null,"streetName":null,"villageName":null,"roadName":null,"communityName":null,"tranName":null,"sdLineName":null,"cityCode":"3340180","cityName":"国网浙江建德市供电有限公司","provinceCode":null,"stopTime":"2019-10-22 09:30:00","powerType":"全部","powerOffArea":"110kV乾潭变:包家Y131线-万龙村长垅岗台区后段","powerOffReason":"(低压停电信息)低压开关跳闸","powerOffId":"2019102231020042"},{"poweroffId":2019102231020019,"sgpoweroffId":null,"subsName":"","lineName":"10kV芝厦T190线","pubTranName":"里董1号公变,","scope":"浙江省-杭州市-桐庐县-富春江镇-里董行政村-里董自然村","startTime":"2019-10-22 07:02:23","stopDate":"2019-10-22 17:20:23","orgNo":"3340150","typeCode":"电网故障停限电","poweroffArea":"110kV外董变:芝厦T190线-里董1号公变后段","poweroffReason":"(低压停电信息)低压开关跳闸","powerTime":"2019-10-22 17:00:30","powerComm":"已送电","subsNo":"","lineNo":"","tgNo":"","tgName":null,"infoStatus":"1","orgName":"国网浙江桐庐县供电公司","typeName":null,"infoStatusName":null,"dateDay":null,"orgNos":null,"nowTime":null,"countyName":null,"streetName":null,"villageName":null,"roadName":null,"communityName":null,"tranName":null,"sdLineName":null,"cityCode":"3340150","cityName":"国网浙江桐庐县供电公司","provinceCode":null,"stopTime":"2019-10-22 17:20:23","powerType":"全部","powerOffArea":"110kV外董变:芝厦T190线-里董1号公变后段","powerOffReason":"(低压停电信息)低压开关跳闸","powerOffId":"2019102231020019"}],"pageModel":{"pageNow":972,"totalCount":17789,"totalPage":1779,"tableRows":0,"pageCount":10,"beginCount":9710},"isExperi":"1"}