{"message":"","today":"2020-06-15","seleList":[{"poweroffId":2020061331020031,"sgpoweroffId":null,"subsName":"","lineName":"10kV北南A120线","pubTranName":"长龙领航城7#公变,","scope":"浙江省-杭州市-萧山区-北干街道-信息港社区-建设四路","startTime":"2020-06-13 06:46:00","stopDate":"2020-06-13 08:46:00","orgNo":"3340130","typeCode":"电网故障停限电","poweroffArea":"110kV惠兴变:北南A120线长龙领航城7#公变配变","poweroffReason":"高压开关跳闸","powerTime":"2020-06-13 07:48:38","powerComm":"已送电","subsNo":"","lineNo":"","tgNo":"","tgName":null,"infoStatus":"1","orgName":"国网浙江杭州市萧山区供电有限公司","typeName":null,"infoStatusName":null,"dateDay":null,"orgNos":null,"nowTime":null,"countyName":null,"streetName":null,"villageName":null,"roadName":null,"communityName":null,"tranName":null,"sdLineName":null,"cityCode":"3340130","cityName":"国网浙江杭州市萧山区供电有限公司","provinceCode":null,"stopTime":"2020-06-13 08:46:00","powerType":"全部","powerOffArea":"110kV惠兴变:北南A120线长龙领航城7#公变配变","powerOffReason":"高压开关跳闸","powerOffId":"2020061331020031"},{"poweroffId":2020061331020010,"sgpoweroffId":null,"subsName":"","lineName":"10kV石濑H548线","pubTranName":"精密模具,国光旅游6120015234,国光毛巾,杭州银泉茶业有限公司(6111046119)02#专变,杭州银泉茶业有限公司(6111046119)01#专变,","scope":"浙江省-杭州市-余杭区-径山镇-小古城行政村-杭州国光旅游用品有限公司,径山镇-潘坂桥行政村(杭州精益机械模具有限公司,杭州国光旅游用品有限公司,杭州银泉茶业有限公司)","startTime":"2020-06-13 05:35:47","stopDate":"2020-06-13 08:35:47","orgNo":"3340140","typeCode":"电网故障停限电","poweroffArea":"110kV潘板变:石濑H548线-大舍开关站待用G15间隔后段","poweroffReason":"高压开关跳闸","powerTime":"2020-06-13 08:06:00","powerComm":"已送电","subsNo":"","lineNo":"","tgNo":"","tgName":null,"infoStatus":"1","orgName":"国网浙江杭州市余杭区供电有限公司","typeName":null,"infoStatusName":null,"dateDay":null,"orgNos":null,"nowTime":null,"countyName":null,"streetName":null,"villageName":null,"roadName":null,"communityName":null,"tranName":null,"sdLineName":null,"cityCode":"3340140","cityName":"国网浙江杭州市余杭区供电有限公司","provinceCode":null,"stopTime":"2020-06-13 08:35:47","powerType":"全部","powerOffArea":"110kV潘板变:石濑H548线-大舍开关站待用G15间隔后段","powerOffReason":"高压开关跳闸","powerOffId":"2020061331020010"},{"poweroffId":2020061331020008,"sgpoweroffId":null,"subsName":"","lineName":"10kV潘镇H543线","pubTranName":"杭州茶叶试验场6110119010,海伦铸钢2,余杭供电局,潘板集镇锦城街西公变,杭州余杭泮板五金厂6110116081,小古城村朱山公变,杭州聚幸帽业有限公司6110116220,杭州余杭区粮食收储有限责任公司良渚分公司6110116018,渝家念泵站,潘板桥村龙皇塘公变,三星玻璃1#,小古城村愈家堰加工场公变,海伦铸钢1,三星玻璃3#,三星玻璃,小古城村西边山公变,潘板集镇俞家埝小区变,三星玻璃4#,潘板集镇商贸公变,径山旅游6120550778,潘板集镇锦城街东公变,潘板桥村吴山桥公变,杭宏电力612070452001#专变,杭州盛昌五金材料有限公司6110116074,杭州荣顺畜产品有限公司6110116080,翠古苑2号公变,潘板集镇帽厂公变,翠古苑1号公变,三星玻璃,小古城村水磨里公变,三星玻璃,","scope":"浙江省-杭州市-余杭区-径山镇-求是行政村-求是自然村,径山镇-小古城行政村(水磨里自然村,小古城自然村,西边山自然村,杨家畈自然村,芝山自然村),径山镇-潘坂桥行政村(集镇,潘坂桥自然村,感塘自然村,吴山自然村,翠谷苑小区,小古城村,俞家堰村,龙皇路,感塘村),径山镇-桥头社区(锦城街,商贸路);瓶窑镇(杭州茶叶试验场有限公司,余杭供电局),径山镇(杭州盛昌五金材料有限公司,杭州聚幸帽业有限公司,杭州余杭区粮食收储有限责任公司余杭分公司,杭州荣顺畜产品有限公司,杭州余杭泮板五金厂,杭州余杭城西净水有限公司,杭州三星工艺玻璃有限公司,杭州海伦铸钢有限公司,杭州余杭径山旅游度假有限公司,杭州杭宏电力承装有限公司)","startTime":"2020-06-13 05:07:00","stopDate":"2020-06-13 09:07:00","orgNo":"3340140","typeCode":"电网故障停限电","poweroffArea":"110kV潘板变:潘镇H543线潘镇H543线开关后段","poweroffReason":"高压开关跳闸","powerTime":"2020-06-13 08:27:00","powerComm":"已送电","subsNo":"","lineNo":"","tgNo":"","tgName":null,"infoStatus":"1","orgName":"国网浙江杭州市余杭区供电有限公司","typeName":null,"infoStatusName":null,"dateDay":null,"orgNos":null,"nowTime":null,"countyName":null,"streetName":null,"villageName":null,"roadName":null,"communityName":null,"tranName":null,"sdLineName":null,"cityCode":"3340140","cityName":"国网浙江杭州市余杭区供电有限公司","provinceCode":null,"stopTime":"2020-06-13 09:07:00","powerType":"全部","powerOffArea":"110kV潘板变:潘镇H543线潘镇H543线开关后段","powerOffReason":"高压开关跳闸","powerOffId":"2020061331020008"},{"poweroffId":2020061331020005,"sgpoweroffId":null,"subsName":"","lineName":"10kV山三A144线","pubTranName":"杭州新丝路布业有限公司,长联村16#变,1#变,杭州美兰卫浴洁具有限公司,杭州新丝路布业有限公司变压器2#间隔配电变压器,中国电信股份有限公司杭州萧山区分公司（长沙）,1#电机,","scope":"浙江省-杭州市-萧山区-瓜沥镇-长联行政村(长沙路,长沙自然村),瓜沥镇-解放行政村(解放自然村,长沙路);瓜沥镇(杭州萧山腾飞布业有限公司,中国电信股份有限公司杭州萧山区分公司,杭州新丝路布业有限公司,杭州富士迪装饰材料有限公司)","startTime":"2020-06-13 01:56:00","stopDate":"2020-06-13 04:30:00","orgNo":"3340130","typeCode":"电网故障停限电","poweroffArea":"220kV甘露变:山三A144线山三A1443开关后段","poweroffReason":"高压开关跳闸 原停电结束时间为2020-06-13 07:56:00,为减少客户停电时间,加快工作进度,提前送电,现变更停电结束时间为2020-06-13 04:30:00","powerTime":"2020-06-13 03:43:43","powerComm":"已送电","subsNo":"","lineNo":"","tgNo":"","tgName":null,"infoStatus":"1","orgName":"国网浙江杭州市萧山区供电有限公司","typeName":null,"infoStatusName":null,"dateDay":null,"orgNos":null,"nowTime":null,"countyName":null,"streetName":null,"villageName":null,"roadName":null,"communityName":null,"tranName":null,"sdLineName":null,"cityCode":"3340130","cityName":"国网浙江杭州市萧山区供电有限公司","provinceCode":null,"stopTime":"2020-06-13 04:30:00","powerType":"全部","powerOffArea":"220kV甘露变:山三A144线山三A1443开关后段","powerOffReason":"高压开关跳闸 原停电结束时间为2020-06-13 07:56:00,为减少客户停电时间,加快工作进度,提前送电,现变更停电结束时间为2020-06-13 04:30:00","powerOffId":"2020061331020005"},{"poweroffId":2020061231020881,"sgpoweroffId":null,"subsName":"","lineName":"10kV霞飞C224线","pubTranName":"付娄村5#变,","scope":"浙江省-杭州市-萧山区-新塘街道-傅楼行政村(傅家畈自然村,河南娄自然村,河北楼自然村)，新塘街道福楼村河北楼1号等","startTime":"2020-06-12 21:24:00","stopDate":"2020-06-13 00:30:00","orgNo":"3340130","typeCode":"电网故障停限电","poweroffArea":"110kV霞江变:霞飞C224线付娄村5#变","poweroffReason":"油浸式变压器故障 变更停电地理区域和停电结束时间和停电原因原停电结束时间为2020-06-13 01:50:00,为减少客户停电时间,加快工作进度,提前送电,现变更停电结束时间为2020-06-13 00:30:00","powerTime":"2020-06-12 23:42:27","powerComm":"已送电","subsNo":"","lineNo":"","tgNo":"","tgName":null,"infoStatus":"1","orgName":"国网浙江杭州市萧山区供电有限公司","typeName":null,"infoStatusName":null,"dateDay":null,"orgNos":null,"nowTime":null,"countyName":null,"streetName":null,"villageName":null,"roadName":null,"communityName":null,"tranName":null,"sdLineName":null,"cityCode":"3340130","cityName":"国网浙江杭州市萧山区供电有限公司","provinceCode":null,"stopTime":"2020-06-13 00:30:00","powerType":"全部","powerOffArea":"110kV霞江变:霞飞C224线付娄村5#变","powerOffReason":"油浸式变压器故障 变更停电地理区域和停电结束时间和停电原因原停电结束时间为2020-06-13 01:50:00,为减少客户停电时间,加快工作进度,提前送电,现变更停电结束时间为2020-06-13 00:30:00","powerOffId":"2020061231020881"},{"poweroffId":2020061231020880,"sgpoweroffId":null,"subsName":"","lineName":"10kV白路T316线","pubTranName":"桑园村4号公变,","scope":"浙江省-杭州市-桐庐县-城南街道-桑园行政村(梅林路,桑园里自然村)","startTime":"2020-06-12 21:25:54","stopDate":"2020-06-12 23:25:54","orgNo":"3340150","typeCode":"电网故障停限电","poweroffArea":"110kV洋洲变:白路T316线-桑园村4号公变后段","poweroffReason":"(低压停电信息)低压开关跳闸","powerTime":"2020-06-12 23:10:29","powerComm":"已送电","subsNo":"","lineNo":"","tgNo":"","tgName":null,"infoStatus":"1","orgName":"国网浙江桐庐县供电公司","typeName":null,"infoStatusName":null,"dateDay":null,"orgNos":null,"nowTime":null,"countyName":null,"streetName":null,"villageName":null,"roadName":null,"communityName":null,"tranName":null,"sdLineName":null,"cityCode":"3340150","cityName":"国网浙江桐庐县供电公司","provinceCode":null,"stopTime":"2020-06-12 23:25:54","powerType":"全部","powerOffArea":"110kV洋洲变:白路T316线-桑园村4号公变后段","powerOffReason":"(低压停电信息)低压开关跳闸","powerOffId":"2020061231020880"},{"poweroffId":2020061231020849,"sgpoweroffId":null,"subsName":"","lineName":"10kV求是6723线","pubTranName":"院士一变,院士二变,","scope":"浙江省-杭州市-西湖区-灵隐街道-浙大求是社区-浙大路求是村19幢、20幢、34幢、46幢、求是村小房子商铺附近。杭州市西湖区求是村18幢、32幢、33幢、45幢附近","startTime":"2020-06-15 09:30:00","stopDate":"2020-06-15 14:30:00","orgNo":"3340101","typeCode":"临时停电","poweroffArea":"110kV黄体变:求是6723线-院士二变线后段;求是6723线-院士一变线后段","poweroffReason":"（4106-沙泉站）\"10千伏求是723线院士一变配变2-1#杆开关，浙求站9#间隔。原停电结束时间为2020-06-15 17:00:00,为减少客户停电时间,加快工作进度,提前送电,现变更停电结束时间为2020-06-15 14:30:00","powerTime":"2020-06-15 13:52:59","powerComm":"已送电","subsNo":"","lineNo":"","tgNo":"","tgName":null,"infoStatus":"1","orgName":"浙江杭州电力客户服务中心","typeName":null,"infoStatusName":null,"dateDay":null,"orgNos":null,"nowTime":null,"countyName":null,"streetName":null,"villageName":null,"roadName":null,"communityName":null,"tranName":null,"sdLineName":null,"cityCode":"3340101","cityName":"浙江杭州电力客户服务中心","provinceCode":null,"stopTime":"2020-06-15 14:30:00","powerType":"全部","powerOffArea":"110kV黄体变:求是6723线-院士二变线后段;求是6723线-院士一变线后段","powerOffReason":"（4106-沙泉站）\"10千伏求是723线院士一变配变2-1#杆开关，浙求站9#间隔。原停电结束时间为2020-06-15 17:00:00,为减少客户停电时间,加快工作进度,提前送电,现变更停电结束时间为2020-06-15 14:30:00","powerOffId":"2020061231020849"},{"poweroffId":2020061231020830,"sgpoweroffId":null,"subsName":"","lineName":"10kV杜于T334线","pubTranName":"龙伏村1号公变,","scope":"浙江省-杭州市-桐庐县-横村镇-龙伏行政村-龙伏自然村","startTime":"2020-06-12 18:42:36","stopDate":"2020-06-12 20:42:36","orgNo":"3340150","typeCode":"电网故障停限电","poweroffArea":"110kV横村变:杜于T334线-龙伏村1号公变后段","poweroffReason":"(低压停电信息)低压开关跳闸","powerTime":"2020-06-12 20:31:42","powerComm":"已送电","subsNo":"","lineNo":"","tgNo":"","tgName":null,"infoStatus":"1","orgName":"国网浙江桐庐县供电公司","typeName":null,"infoStatusName":null,"dateDay":null,"orgNos":null,"nowTime":null,"countyName":null,"streetName":null,"villageName":null,"roadName":null,"communityName":null,"tranName":null,"sdLineName":null,"cityCode":"3340150","cityName":"国网浙江桐庐县供电公司","provinceCode":null,"stopTime":"2020-06-12 20:42:36","powerType":"全部","powerOffArea":"110kV横村变:杜于T334线-龙伏村1号公变后段","powerOffReason":"(低压停电信息)低压开关跳闸","powerOffId":"2020061231020830"},{"poweroffId":2020061231020765,"sgpoweroffId":null,"subsName":"","lineName":"10kV石门V353线","pubTranName":"龙头 电站,高虹拜节钗坞自然村,大坪公变,青菊屋配变,盘舍队,汪家坞电站,草山坞,水涛庄村(大林寺),杭州裕隆食品有限公司,虹桥村水涛庄公变,临安亚星照明电器有限公司,黄泥塘公变,杭州临安禾强电器有限公司,高虹拜节(紫钗坞),临安华易照明电器有限公司,石门乡石路村,王水根,鱼岭脚,水涛庄长湾,高虹新德村,临安市立新照明电器有限公司,石门村2#变,石门汪家坞村,石门村,临安欧阳电子有限公司,临安市高虹镇龙头电站有限公司,孝村高山大队,临安市明珠竹木粉有限公司,龙上村（上村）,高虹大王山配变,石门乡大山村,临安大得玻璃制品有限公司,水涛庄2#配变,石门龙头舍村,杭州临安禾强电器有限公司,临安亚星照明电器有限公司,临安思远木粉有限公司,平阳队,临安市水涛庄水库电站（厂用）,临安市康亮照明电器有限公司,石门电站1#,里石门,虹桥桥头公变,银丰岭,石门木公山村,新德2#变,石门乡龙上村,临安横畈三废治理设备厂,临安余临照明电器厂,木公山{下村},杭州睿兔家具有限公司1#,汪家坞[安置区]配变,黄仙湾,大山村西山公变,石门林家塘村,虹桥桥头2#变,林家塘草山岗配变,杭州锦航电器有限公司,虹桥村（大庙）,高虹拜节村,里石门2#变,水涛庄移民,龙上五队,临安邦辉照明电器有限公司,中国电信股份有限公司临安分公司,石门电站（站用电）50,杭州临安自来水有限公司,杭州临安建强泡沫有限公司,临安欧邦照明电器有限公司1#,指云山配变,临安盛阳明管厂,龙上村（狗坞坑）,石门冷坞顶村,窑田畈村,林家塘水涧坑,","scope":"浙江省-杭州市-临安市-青山湖街道-庆北行政村-临北自然村,青山湖街道-孝村行政村(窑田畈自然村,孝村自然村),高虹镇-大山行政村(龙头舍自然村,大山自然村,林家塘自然村,石路自然村),高虹镇-高乐行政村(拜节自然村,新德自然村,高乐自然村),高虹镇-龙上行政村(木公山自然村,龙上自然村,冷坞顶自然村),高虹镇-虹桥行政村(虹桥自然村,水涛庄自然村),高虹镇-石门行政村(石门自然村,汪家坞自然村);高虹镇(临安市石门水电站（所用电）,临安市高虹镇龙头电站有限公司,中国电信股份有限公司临安分公司,临安横畈三废治理设备厂,杭州临安建强泡沫包装有限公司,杭州临安和瑞包装材料有限公司,临安市伟康木粉有限公司,临安亚星照明电器有限公司,杭州瑞普森照明科技有限公司,临安市明珠竹木粉有限公司,汪家坞电站,临安欧阳电子有限公司,杭州临安禾强电器有限公司,石门电站,临安大得玻璃制品有限公司,临安红星电子有限公司,杭州临安亮亮包装用品有限公司,临安市水涛庄水库管理处,龙头电站,杭州裕隆食品有限公司,临安盛阳明管厂,杭州临安亿鹏电子科技有限公司,临安华易照明电器有限公司,临安市思远木粉有限公司,杭州临安自来水有限公司,王水根,杭州宸宇照明电器有限公司,杭州睿兔家具有限公司)","startTime":"2020-06-12 17:18:21","stopDate":"2020-06-12 19:18:21","orgNo":"3340160","typeCode":"电网故障停限电","poweroffArea":"110kV高虹变:石门V353线石门V353线开关后段","poweroffReason":"高压开关跳闸","powerTime":"2020-06-12 18:41:17","powerComm":"已送电","subsNo":"","lineNo":"","tgNo":"","tgName":null,"infoStatus":"1","orgName":"国网浙江临安市供电公司","typeName":null,"infoStatusName":null,"dateDay":null,"orgNos":null,"nowTime":null,"countyName":null,"streetName":null,"villageName":null,"roadName":null,"communityName":null,"tranName":null,"sdLineName":null,"cityCode":"3340160","cityName":"国网浙江临安市供电公司","provinceCode":null,"stopTime":"2020-06-12 19:18:21","powerType":"全部","powerOffArea":"110kV高虹变:石门V353线石门V353线开关后段","powerOffReason":"高压开关跳闸","powerOffId":"2020061231020765"},{"poweroffId":2020061231020764,"sgpoweroffId":null,"subsName":"","lineName":"10kV千洪V121线","pubTranName":"10kV泗洲村[泗州杨家]公变,10kV谢家村[枫岭]公变,10kV杨洪村[桃树湾]公变,10kV朱湾村[朱湾十亩地]公变,10kV泗洲村[泗州朱家]公变,10kV杨洪村[杨洪杨家]公变,10kV泗洲村[泗州学校口]公变,10kV泗洲村[泗州产坞]公变,10kV杨洪村[眉山坞]公变,10kV谢家村[谢家西边]公变,10kV千茂村[上平渡]公变,10kV杨洪村[杨洪双溪口]公变,千洪电站,10kV朱湾村[朱湾村]公变,10kV泗洲村[凤亭]公变,10kV千茂村[乌浪口]公变,杭州临安浮玉堂纸业有限公司,杭州千佛纸业有限公司,10kV泗洲村[泗州葡萄山]公变,杭州千茂机械配件有限公司1#,10kV谢家村[谢家自然村]公变,10kV朱湾村[里西桥]公变,10kV泗洲村[泗州荷家]公变,杭州市临安区於潜中学2#,10kV谢家村[谢家凌口]公变,10kV千茂村[乌浪村]公变,临安金月纸品厂,10kV杨洪村[杨洪阮家]公变,10kV谢家村[松毛坞]公变,杭州天禾园艺有限公司,10kV泗洲村[泗州中心]公变,10kV千茂村[下平渡]公变,10kV朱湾村[西桥]公变,10kV朱湾村[朱湾中心]公变,10kV千茂村[潘家]公变,於潜供电营业所,10kV千茂村[乌浪百角村]公变,10kV千茂村[平渡]公变,10kV杨洪村[甘溪]公变,10kV泗洲村[俞家]公变,10kV杨洪村[杨洪黄家]公变,10kV朱湾村[东坪]公变,","scope":"浙江省-杭州市-临安市-於潜镇-朱湾行政村(朱湾自然村,西桥自然村,东平自然村),於潜镇-杨洪行政村(杨洪自然村,双溪口自然村,阮家自然村,桃树湾自然村),於潜镇-千茂行政村(潘家自然村,乌浪自然村,平渡自然村,千茂自然村),於潜镇-泗洲行政村(凤亭自然村,泗洲自然村,上洲自然村),於潜镇(谢家行政村-谢家自然村,自由行政村-自由自然村);於潜镇(国网浙江临安市供电公司(於潜供电所),杭州临安浮玉堂纸业有限公司,杭州万富园艺有限公司,临安丰陵水电有限公司,杭州千佛纸业有限公司,临安金月纸品厂,杭州千茂机械配件有限公司,杭州市临安区於潜中学)","startTime":"2020-06-12 17:19:00","stopDate":"2020-06-12 18:44:00","orgNo":"3340160","typeCode":"电网故障停限电","poweroffArea":"110kV於潜变:千洪V121线千洪V121线开关后段","poweroffReason":"高压开关跳闸 原停电结束时间为2020-06-12 20:19:00,为减少客户停电时间,加快工作进度,提前送电,现变更停电结束时间为2020-06-12 18:44:00","powerTime":"2020-06-12 18:12:23","powerComm":"已送电","subsNo":"","lineNo":"","tgNo":"","tgName":null,"infoStatus":"1","orgName":"国网浙江临安市供电公司","typeName":null,"infoStatusName":null,"dateDay":null,"orgNos":null,"nowTime":null,"countyName":null,"streetName":null,"villageName":null,"roadName":null,"communityName":null,"tranName":null,"sdLineName":null,"cityCode":"3340160","cityName":"国网浙江临安市供电公司","provinceCode":null,"stopTime":"2020-06-12 18:44:00","powerType":"全部","powerOffArea":"110kV於潜变:千洪V121线千洪V121线开关后段","powerOffReason":"高压开关跳闸 原停电结束时间为2020-06-12 20:19:00,为减少客户停电时间,加快工作进度,提前送电,现变更停电结束时间为2020-06-12 18:44:00","powerOffId":"2020061231020764"}],"pageModel":{"pageNow":9,"totalCount":17786,"totalPage":1779,"tableRows":0,"pageCount":10,"beginCount":80},"isExperi":"1"}