{"message":"","today":"2020-06-15","seleList":[{"poweroffId":2019061413000104,"sgpoweroffId":null,"subsName":"","lineName":"10kV北大冉线524","pubTranName":"客户投资_亨信家园公用1,金盾小区公用1,邮政局公用,毛纺厂公用,天祥园公用,地税南公用,露露花园公用,清馨园二期公用,交警公用1,东方佳苑公用,幼儿园公用,通讯公司公用,亨信家园公用2,金盾小区公用2,清馨园公用,交警公用2,地税北公用,","scope":"【影响街道/乡镇】清苑镇 【高危重要客户】无 【影响客户】邮政局、通讯公司、东方佳苑、露露花园、交警、亨信家园、毛纺厂、教育城、天祥园、地税局楼、金盾小区、清馨园、二幼","startTime":"2019-06-23 06:00:00","stopDate":"2019-06-23 20:00:00","orgNo":"1340618","typeCode":"计划停电","poweroffArea":"【分支停电】停毛纺厂公用,客户投资_亨信家园公用1,金盾小区公用1,邮政局公用,天祥园公用,地税南公用,露露花园公用,清馨园二期公用,交警公用1,东方佳苑公用,幼儿园公用,通讯公司公用,地税北公用,亨信家园公用2,金盾小区公用2,清馨园公用,交警公用2","poweroffReason":"【停电原因】由于煤改电工程导致１１０ＫＶ阮庄变电站１０ＫＶ北大冉线５２４线路主干６２号杆至７９号杆停电 【变更送电】无 【发布渠道】保定市清苑区电视台（２０１９年０６月１５日１９时至２０１９年０６月２２日２０时之间）屏幕上方滚动","powerTime":"2019-06-23 19:47:45","powerComm":"李海娟通知已送电","subsNo":"","lineNo":"","tgNo":"","tgName":null,"infoStatus":"1","orgName":"国网清苑县供电公司","typeName":null,"infoStatusName":null,"dateDay":null,"orgNos":null,"nowTime":null,"countyName":null,"streetName":null,"villageName":null,"roadName":null,"communityName":null,"tranName":null,"sdLineName":null,"cityCode":"1340618","cityName":"国网清苑县供电公司","provinceCode":null,"stopTime":"2019-06-23 20:00:00","powerType":"全部","powerOffArea":"【分支停电】停毛纺厂公用,客户投资_亨信家园公用1,金盾小区公用1,邮政局公用,天祥园公用,地税南公用,露露花园公用,清馨园二期公用,交警公用1,东方佳苑公用,幼儿园公用,通讯公司公用,地税北公用,亨信家园公用2,金盾小区公用2,清馨园公用,交警公用2","powerOffReason":"【停电原因】由于煤改电工程导致１１０ＫＶ阮庄变电站１０ＫＶ北大冉线５２４线路主干６２号杆至７９号杆停电 【变更送电】无 【发布渠道】保定市清苑区电视台（２０１９年０６月１５日１９时至２０１９年０６月２２日２０时之间）屏幕上方滚动","powerOffId":"2019061413000104"},{"poweroffId":2019061413000072,"sgpoweroffId":null,"subsName":"","lineName":"10kV开发区线523","pubTranName":"旭升一号华庭公用2,保定融达电子设备有限公司,保衡路灯,烟草公用,1南三村内5,1南三村内7,南四村村委会,仁和家园,1南三村内3,保定乾达电气有限公司,国网河北电动有限公司4,0387507970-保定鸿祥汽车内饰件制造有限公司-专变-45325982-保定飓风蓄电池有限公司,南大冉三村幼儿园,职教中心,饲料院公用,铁厂路灯,2南三村外2,0599627493-旭升一号华庭小区-专变-126616651-旭升一号华庭小区,0681375813-清苑县中信房地产开发有限公司-专变-221713849-清苑县中信房地产开发有限公司,南冉东南,1南四村内19区,热力公司公用,1南四村内13,1南三村内2,保定市清苑区九号唱吧,旭升一号华庭公用3,中行路灯,美嘉力家具公司,三期公用,清苑县兴荣新型建筑材料厂,1南四村内14,1南三村内1,清苑县兴荣新型建筑材料制造有限公司,职教中心1,河北中莱房地产开发有限公司,职教中心2,职教中心4,1南三村内12,保定市清苑区银华纺织厂,职教中心3,北京涮肉店,河北清苑石油分公司,吴振清,旭升一号华庭公用6,1南三村内11,富强园公用,河北晨旭投资有限公司,保定市清苑区人民医院,河北立中有色金属集团有限公司,1南三村内14,保定乾达电器有限公司,0387507534-清苑县住房和城乡建设局-专变-174112436-三期红绿灯,旭升一号华庭公用1,县联社公用,清苑镇政府公用,泰祥花园公用1,圣泰花园,2南三村外3【纯农排变】,旭升一号华庭公用4,雅舍岚庭住宅小区,客户投资_1南三村内4,清苑县华沃机电实训有限公司,三站北路灯,游泳池,清苑县金达纺织有限公司,清苑县职业技术教育中心2,1南四村内2,旭升一号华庭公用5,粮局公用,法院公用,广电公用,1南四村圣泰花园1,中行公用,1南三村内6,保定清苑茂盛木器厂综合楼,镇中公用,京石高速保定服务区,保定市清苑区华龙通讯器材经销部,信合宾馆,河北烟草保定分公司,三站南路灯,杨爱军,1南三村内9,村南毛纺厂,三期公用2,清苑县隆泰纺织厂,泰祥花园公用2,1西福村内6,0672744455-保定市柠檬商贸有限公司-专变-215966850-保定市柠檬商贸有限公司,1南三村内10,中国共产党保定市清苑区纪律检查委员会,保定大成房地产开发有限公司,1南三村内8,齐二月,1南四村圣泰花园2,清苑县安康鸭业有限公司,清苑县文教印刷厂,互感器公用,1南三村内13,清苑县广悦房地产开发有限公司,工商行公用,中心社公用,保定市清苑区胡桃餐厅,兰江加油站,","scope":"【影响街道/乡镇】清苑镇 【高危重要客户】无 【影响客户】广电、富强园、南大冉三村、南四村、法院、县联社、烟草、粮局、互感器、清苑镇、工商行楼、中心社楼、中行、农贸市场三期、天桥东、泰祥花园、镇中、职教中心、饲料厂、热力公司、西福村、圣泰花园、旭升一号华庭","startTime":"2019-06-23 06:00:00","stopDate":"2019-06-23 17:30:00","orgNo":"1340618","typeCode":"计划停电","poweroffArea":"【全线路停电】停县联社公用,清苑镇政府公用,粮局公用,法院公用,保定清苑茂盛木器厂综合楼,热力公司公用,1南四村内13,1南三村内2,保定市清苑区九号唱吧,旭升一号华庭公用3,中行路灯,美嘉力家具公司,三期公用,清苑县兴荣新型建筑材料厂,1南四村内14,1南三村内1,清苑县兴荣新型建筑材料制造有限公司,职教中心1,河北中莱房地产开发有限公司,职教中心2,职教中心4,1南三村内12,保定市清苑区银华纺织厂,职教中心3,广电公用,1南四村圣泰花园1,中行公用,1南三村内6,旭升一号华庭公用6,1南三村内11,富强园公用,河北晨旭投资有限公司,保定市清苑区人民医院,河北立中有色金属集团有限公司,泰祥花园公用1,圣泰花园,2南三村外3【纯农排变】,旭升一号华庭公用4,雅舍岚庭住宅小区,客户投资_1南三村内4,清苑县华沃机电实训有限公司,1南三村内5,1南三村内7,南四村村委会,仁和家园,1南三村内3,保定乾达电气有限公司,国网河北电动有限公司4,0387507970-保定鸿祥汽车内饰件制造有限公司-专变-45325982-保定飓风蓄电池有限公司,南大冉三村幼儿园,1南四村内19区,旭升一号华庭公用2,保定融达电子设备有限公司,保衡路灯,烟草公用,职教中心,饲料院公用,铁厂路灯,2南三村外2,0599627493-旭升一号华庭小区-专变-126616651-旭升一号华庭小区,0681375813-清苑县中信房地产开发有限公司-专变-221713849-清苑县中信房地产开发有限公司,南冉东南,1南三村内14,保定乾达电器有限公司,0387507534-清苑县住房和城乡建设局-专变-174112436-三期红绿灯,旭升一号华庭公用1,清苑县安康鸭业有限公司,清苑县文教印刷厂,互感器公用,1南三村内13,清苑县广悦房地产开发有限公司,工商行公用,中心社公用,保定市清苑区胡桃餐厅,兰江加油站,北京涮肉店,河北清苑石油分公司,吴振清,1南四村内2,旭升一号华庭公用5,村南毛纺厂,三期公用2,清苑县隆泰纺织厂,泰祥花园公用2,1西福村内6,0672744455-保定市柠檬商贸有限公司-专变-215966850-保定市柠檬商贸有限公司,1南三村内10,中国共产党保定市清苑区纪律检查委员会,保定大成房地产开发有限公司,1南三村内8,齐二月,1南四村圣泰花园2,三站北路灯,游泳池,清苑县金达纺织有限公司,清苑县职业技术教育中心2,镇中公用,京石高速保定服务区,保定市清苑区华龙通讯器材经销部,信合宾馆,河北烟草保定分公司,三站南路灯,杨爱军,1南三村内9","poweroffReason":"【停电原因】由于煤改电工程导致１１０ＫＶ中冉变电站１０ＫＶ开发区线５２３线路全线停电 【变更送电】因计划工作进度加快原因，送电时间由２０：００变更为１７：３０ 【发布渠道】保定市清苑区电视台（０６月１５日１９时至０６月２２日２０时之间）屏幕上方滚动","powerTime":"2019-06-23 16:56:45","powerComm":"崔媛媛通知已送电","subsNo":"","lineNo":"","tgNo":"","tgName":null,"infoStatus":"1","orgName":"国网清苑县供电公司","typeName":null,"infoStatusName":null,"dateDay":null,"orgNos":null,"nowTime":null,"countyName":null,"streetName":null,"villageName":null,"roadName":null,"communityName":null,"tranName":null,"sdLineName":null,"cityCode":"1340618","cityName":"国网清苑县供电公司","provinceCode":null,"stopTime":"2019-06-23 17:30:00","powerType":"全部","powerOffArea":"【全线路停电】停县联社公用,清苑镇政府公用,粮局公用,法院公用,保定清苑茂盛木器厂综合楼,热力公司公用,1南四村内13,1南三村内2,保定市清苑区九号唱吧,旭升一号华庭公用3,中行路灯,美嘉力家具公司,三期公用,清苑县兴荣新型建筑材料厂,1南四村内14,1南三村内1,清苑县兴荣新型建筑材料制造有限公司,职教中心1,河北中莱房地产开发有限公司,职教中心2,职教中心4,1南三村内12,保定市清苑区银华纺织厂,职教中心3,广电公用,1南四村圣泰花园1,中行公用,1南三村内6,旭升一号华庭公用6,1南三村内11,富强园公用,河北晨旭投资有限公司,保定市清苑区人民医院,河北立中有色金属集团有限公司,泰祥花园公用1,圣泰花园,2南三村外3【纯农排变】,旭升一号华庭公用4,雅舍岚庭住宅小区,客户投资_1南三村内4,清苑县华沃机电实训有限公司,1南三村内5,1南三村内7,南四村村委会,仁和家园,1南三村内3,保定乾达电气有限公司,国网河北电动有限公司4,0387507970-保定鸿祥汽车内饰件制造有限公司-专变-45325982-保定飓风蓄电池有限公司,南大冉三村幼儿园,1南四村内19区,旭升一号华庭公用2,保定融达电子设备有限公司,保衡路灯,烟草公用,职教中心,饲料院公用,铁厂路灯,2南三村外2,0599627493-旭升一号华庭小区-专变-126616651-旭升一号华庭小区,0681375813-清苑县中信房地产开发有限公司-专变-221713849-清苑县中信房地产开发有限公司,南冉东南,1南三村内14,保定乾达电器有限公司,0387507534-清苑县住房和城乡建设局-专变-174112436-三期红绿灯,旭升一号华庭公用1,清苑县安康鸭业有限公司,清苑县文教印刷厂,互感器公用,1南三村内13,清苑县广悦房地产开发有限公司,工商行公用,中心社公用,保定市清苑区胡桃餐厅,兰江加油站,北京涮肉店,河北清苑石油分公司,吴振清,1南四村内2,旭升一号华庭公用5,村南毛纺厂,三期公用2,清苑县隆泰纺织厂,泰祥花园公用2,1西福村内6,0672744455-保定市柠檬商贸有限公司-专变-215966850-保定市柠檬商贸有限公司,1南三村内10,中国共产党保定市清苑区纪律检查委员会,保定大成房地产开发有限公司,1南三村内8,齐二月,1南四村圣泰花园2,三站北路灯,游泳池,清苑县金达纺织有限公司,清苑县职业技术教育中心2,镇中公用,京石高速保定服务区,保定市清苑区华龙通讯器材经销部,信合宾馆,河北烟草保定分公司,三站南路灯,杨爱军,1南三村内9","powerOffReason":"【停电原因】由于煤改电工程导致１１０ＫＶ中冉变电站１０ＫＶ开发区线５２３线路全线停电 【变更送电】因计划工作进度加快原因，送电时间由２０：００变更为１７：３０ 【发布渠道】保定市清苑区电视台（０６月１５日１９时至０６月２２日２０时之间）屏幕上方滚动","powerOffId":"2019061413000072"},{"poweroffId":2019061313000374,"sgpoweroffId":null,"subsName":"","lineName":"10kV519石板线","pubTranName":"南关南公用照明2台区,","scope":"【影响街道/乡镇】南城区【高危重要客户】无【影响客户】南关朝阳小区及东、西侧","startTime":"2019-06-27 05:00:00","stopDate":"2019-06-27 16:00:00","orgNo":"1340610","typeCode":"计划停电","poweroffArea":"【分支停电】停南关南公用照明2台区","poweroffReason":"【停电原因】由于更换配变导致１１０ＫＶ定县变电站１０ＫＶ５１９石板线路主干２５号杆１１２号隔离开关以下线路停电 【变更送电】因抢修进度加快原因，送电时间由１７：００变更为１６：００ 【发布渠道】河北省定州市定州日报第三版（２０１９年０６月１４日）","powerTime":"2019-06-27 15:34:59","powerComm":"已送电","subsNo":"","lineNo":"","tgNo":"","tgName":null,"infoStatus":"1","orgName":"国网定州市供电公司","typeName":null,"infoStatusName":null,"dateDay":null,"orgNos":null,"nowTime":null,"countyName":null,"streetName":null,"villageName":null,"roadName":null,"communityName":null,"tranName":null,"sdLineName":null,"cityCode":"1340610","cityName":"国网定州市供电公司","provinceCode":null,"stopTime":"2019-06-27 16:00:00","powerType":"全部","powerOffArea":"【分支停电】停南关南公用照明2台区","powerOffReason":"【停电原因】由于更换配变导致１１０ＫＶ定县变电站１０ＫＶ５１９石板线路主干２５号杆１１２号隔离开关以下线路停电 【变更送电】因抢修进度加快原因，送电时间由１７：００变更为１６：００ 【发布渠道】河北省定州市定州日报第三版（２０１９年０６月１４日）","powerOffId":"2019061313000374"},{"poweroffId":2019061313000360,"sgpoweroffId":null,"subsName":"","lineName":"10kV551阳暮线","pubTranName":"东阳暮公用照明7台区,东阳暮公用农业14台区【纯农排变】,西阳暮公用照明7台区,西阳暮公用农业14台区【纯农排变】,西阳暮村养牛场,东阳暮公用照明2台区(2),东阳暮公用照明9台区,东阳暮公用照明11台区1,东阳暮公用照明5台区,东阳暮公用农业6台区【纯农排变】,东阳暮公用农业16台区【纯农排变】,西阳暮公用照明3台区(2),西阳暮公用农业17台区【纯农排变】,东阳暮公用照明3台区,东阳暮公用照明8台区,东阳暮公用农业5台区【纯农排变】,东阳暮公用农业15台区【纯农排变】,东阳暮公用照明4台区,西阳暮公用农业16台区【纯农排变】,西阳暮公用照明1台区(4),东阳暮公用农业19台区【纯农排变】,西阳暮公用照明6台区,东阳暮公用农业9台区【纯农排变】,东阳暮公用农业8台区【纯农排变】,东阳暮公用农业7台区【纯农排变】,西阳暮公用照明9台区,东阳暮公用农业20台区【纯农排变】,东阳暮公用照明10台区,西阳暮公用农业12台区【纯农排变】,东阳暮公用农业4台区【纯农排变】,东阳暮公用照明1台区(1),西阳暮公用农业15台区【纯农排变】,西阳暮公用照明8台区,东阳暮公用农业12台区【纯农排变】,东阳暮公用农业1台区【纯农排变】,东阳暮公用农业3台区【纯农排变】,东阳暮公用农业10台区【纯农排变】,0387407065-定州市邢邑镇东阳暮社区村民委员会-专变-45258631-定州市邢邑镇东阳暮社区村委会,0650441387-定州市邢邑镇西阳暮村村民委员会-专变-174567406-定州市邢邑镇西阳暮村村民委员会北三变压器,西阳暮公用照明4台区(1),西阳暮公用照明5台区(5),西阳暮公用照明2台区(3),东阳暮公用农业13台区【纯农排变】,东阳暮公用农业2台区【纯农排变】,东阳暮公用农业11台区【纯农排变】,东阳暮公用农业17台区【纯农排变】,","scope":"【影响街道/乡镇】邢邑镇【高危重要客户】无【影响客户】东阳暮、西阳暮","startTime":"2019-06-29 04:00:00","stopDate":"2019-06-29 10:30:00","orgNo":"1340610","typeCode":"计划停电","poweroffArea":"【分支停电】停东阳暮公用农业17台区【纯农排变】,西阳暮公用照明1台区(4),东阳暮公用农业19台区【纯农排变】,西阳暮公用照明6台区,东阳暮公用农业9台区【纯农排变】,东阳暮公用农业8台区【纯农排变】,东阳暮公用农业7台区【纯农排变】,西阳暮公用照明9台区,东阳暮公用农业20台区【纯农排变】,东阳暮公用照明10台区,西阳暮公用农业12台区【纯农排变】,东阳暮公用农业4台区【纯农排变】,东阳暮公用照明1台区(1),西阳暮公用农业15台区【纯农排变】,西阳暮公用照明8台区,东阳暮公用农业12台区【纯农排变】,东阳暮公用农业1台区【纯农排变】,东阳暮公用农业3台区【纯农排变】,东阳暮公用农业10台区【纯农排变】,0387407065-定州市邢邑镇东阳暮社区村民委员会-专变-45258631-定州市邢邑镇东阳暮社区村委会,0650441387-定州市邢邑镇西阳暮村村民委员会-专变-174567406-定州市邢邑镇西阳暮村村民委员会北三变压器,西阳暮公用照明4台区(1),西阳暮公用照明5台区(5),西阳暮公用照明2台区(3),东阳暮公用农业13台区【纯农排变】,东阳暮公用农业2台区【纯农排变】,东阳暮公用农业11台区【纯农排变】,西阳暮公用农业14台区【纯农排变】,东阳暮公用照明7台区,东阳暮公用农业14台区【纯农排变】,西阳暮公用照明7台区,西阳暮村养牛场,东阳暮公用照明2台区(2),东阳暮公用照明9台区,东阳暮公用照明11台区1,东阳暮公用照明5台区,东阳暮公用农业6台区【纯农排变】,东阳暮公用农业16台区【纯农排变】,西阳暮公用照明3台区(2),西阳暮公用农业17台区【纯农排变】,东阳暮公用照明3台区,东阳暮公用照明8台区,东阳暮公用农业5台区【纯农排变】,东阳暮公用农业15台区【纯农排变】,东阳暮公用照明4台区,西阳暮公用农业16台区【纯农排变】","poweroffReason":"【停电原因】由于更换导线导致１１０ＫＶ庞村变电站１０ＫＶ５５１阳暮线路主干７４号杆０３号断路器以下线路停电 【变更送电】因抢修进度加快原因，送电时间由１１：００变更为１０：３０ 【发布渠道】河北省定州市定州日报第三版（２０１９年０６月１４日）","powerTime":"2019-06-29 09:45:00","powerComm":"维护停电原因","subsNo":"","lineNo":"","tgNo":"","tgName":null,"infoStatus":"1","orgName":"国网定州市供电公司","typeName":null,"infoStatusName":null,"dateDay":null,"orgNos":null,"nowTime":null,"countyName":null,"streetName":null,"villageName":null,"roadName":null,"communityName":null,"tranName":null,"sdLineName":null,"cityCode":"1340610","cityName":"国网定州市供电公司","provinceCode":null,"stopTime":"2019-06-29 10:30:00","powerType":"全部","powerOffArea":"【分支停电】停东阳暮公用农业17台区【纯农排变】,西阳暮公用照明1台区(4),东阳暮公用农业19台区【纯农排变】,西阳暮公用照明6台区,东阳暮公用农业9台区【纯农排变】,东阳暮公用农业8台区【纯农排变】,东阳暮公用农业7台区【纯农排变】,西阳暮公用照明9台区,东阳暮公用农业20台区【纯农排变】,东阳暮公用照明10台区,西阳暮公用农业12台区【纯农排变】,东阳暮公用农业4台区【纯农排变】,东阳暮公用照明1台区(1),西阳暮公用农业15台区【纯农排变】,西阳暮公用照明8台区,东阳暮公用农业12台区【纯农排变】,东阳暮公用农业1台区【纯农排变】,东阳暮公用农业3台区【纯农排变】,东阳暮公用农业10台区【纯农排变】,0387407065-定州市邢邑镇东阳暮社区村民委员会-专变-45258631-定州市邢邑镇东阳暮社区村委会,0650441387-定州市邢邑镇西阳暮村村民委员会-专变-174567406-定州市邢邑镇西阳暮村村民委员会北三变压器,西阳暮公用照明4台区(1),西阳暮公用照明5台区(5),西阳暮公用照明2台区(3),东阳暮公用农业13台区【纯农排变】,东阳暮公用农业2台区【纯农排变】,东阳暮公用农业11台区【纯农排变】,西阳暮公用农业14台区【纯农排变】,东阳暮公用照明7台区,东阳暮公用农业14台区【纯农排变】,西阳暮公用照明7台区,西阳暮村养牛场,东阳暮公用照明2台区(2),东阳暮公用照明9台区,东阳暮公用照明11台区1,东阳暮公用照明5台区,东阳暮公用农业6台区【纯农排变】,东阳暮公用农业16台区【纯农排变】,西阳暮公用照明3台区(2),西阳暮公用农业17台区【纯农排变】,东阳暮公用照明3台区,东阳暮公用照明8台区,东阳暮公用农业5台区【纯农排变】,东阳暮公用农业15台区【纯农排变】,东阳暮公用照明4台区,西阳暮公用农业16台区【纯农排变】","powerOffReason":"【停电原因】由于更换导线导致１１０ＫＶ庞村变电站１０ＫＶ５５１阳暮线路主干７４号杆０３号断路器以下线路停电 【变更送电】因抢修进度加快原因，送电时间由１１：００变更为１０：３０ 【发布渠道】河北省定州市定州日报第三版（２０１９年０６月１４日）","powerOffId":"2019061313000360"},{"poweroffId":2019061313000346,"sgpoweroffId":null,"subsName":"","lineName":"10kV568车寄线","pubTranName":"新城屯公用照明4台区,殡仪馆,新城屯村公用照明1台区,新城屯村公用照明2台区,新城屯公用农业1台区,定州市叮咛店镇新城屯村民委员会变压器,新城屯公用农业2台区,新城屯公用农业3台区,新城屯公用照明3台区,","scope":"【影响街道/乡镇】叮咛店镇【高危重要客户】无【影响客户】新城屯、殡仪馆","startTime":"2019-06-26 05:50:00","stopDate":"2019-06-26 17:00:00","orgNo":"1340610","typeCode":"计划停电","poweroffArea":"【分支停电】停殡仪馆,新城屯公用照明4台区,新城屯村公用照明1台区,新城屯村公用照明2台区,新城屯公用农业1台区,定州市叮咛店镇新城屯村民委员会变压器,新城屯公用农业2台区,新城屯公用农业3台区,新城屯公用照明3台区","poweroffReason":"【停电原因】由于更换导线导致１１０ＫＶ叮咛店变电站１０ＫＶ５６８车寄线路主干４６号杆０１号断路器以下线路停电 【变更送电】无 【发布渠道】河北省定州市定州日报第三版（２０１９年０６月１４日）","powerTime":"2019-06-26 16:01:14","powerComm":"已送电","subsNo":"","lineNo":"","tgNo":"","tgName":null,"infoStatus":"1","orgName":"国网定州市供电公司","typeName":null,"infoStatusName":null,"dateDay":null,"orgNos":null,"nowTime":null,"countyName":null,"streetName":null,"villageName":null,"roadName":null,"communityName":null,"tranName":null,"sdLineName":null,"cityCode":"1340610","cityName":"国网定州市供电公司","provinceCode":null,"stopTime":"2019-06-26 17:00:00","powerType":"全部","powerOffArea":"【分支停电】停殡仪馆,新城屯公用照明4台区,新城屯村公用照明1台区,新城屯村公用照明2台区,新城屯公用农业1台区,定州市叮咛店镇新城屯村民委员会变压器,新城屯公用农业2台区,新城屯公用农业3台区,新城屯公用照明3台区","powerOffReason":"【停电原因】由于更换导线导致１１０ＫＶ叮咛店变电站１０ＫＶ５６８车寄线路主干４６号杆０１号断路器以下线路停电 【变更送电】无 【发布渠道】河北省定州市定州日报第三版（２０１９年０６月１４日）","powerOffId":"2019061313000346"},{"poweroffId":2019061313000337,"sgpoweroffId":null,"subsName":"","lineName":"周任516","pubTranName":"凌云册村13#,凌云册村12#,新庄村1#,解村3#,周任村5#,太平庄村10#,凌云册村5#,凌云册村2#,凌云册村7#,解村14#,解村8#,凌云册乡政府,太平庄村5#,解村4#,太平庄村8#,凌云册村8#,解村12#,新庄村2#,太平庄村9#,周任村6#,解村5#,周任村7#,凌云册村6#,凌云册村3#,新庄村4#,周任村8#,凌云册村4#,太平庄村7#,","scope":"【影响街道/乡镇】凌云册乡【高危重要客户】无【影响客户】太平庄村、辛庄村、凌云册村、解村、周任村","startTime":"2019-06-28 05:00:00","stopDate":"2019-06-29 01:00:00","orgNo":"1340625","typeCode":"计划停电","poweroffArea":"【全线路停电】停太平庄村5#,凌云册村8#,解村4#,新庄村2#,解村5#,凌云册村4#,太平庄村9#,凌云册村3#,解村14#,周任村8#,周任村5#,凌云册村5#,新庄村4#,太平庄村7#,凌云册村13#,凌云册村2#,凌云册村6#,太平庄村8#,解村12#,太平庄村10#,凌云册村7#,新庄村1#,周任村7#,周任村6#,解村8#,凌云册村12#,凌云册乡政府,解村3#","poweroffReason":"【停电原因】由于变电站主变安装启动导致３５ＫＶ凌云册变电站周任５１６线路全线停电【变更送电】因工作量大未彻底完成原因，送电时间由２３:５９变更为０１:００【发布渠道】保定市易县电视台（０６月１４日００：００时至０６月２７日２４：００时之间）屏幕下方滚动","powerTime":"2019-06-29 01:00:00","powerComm":"已送电","subsNo":"","lineNo":"","tgNo":"","tgName":null,"infoStatus":"1","orgName":"国网易县供电公司","typeName":null,"infoStatusName":null,"dateDay":null,"orgNos":null,"nowTime":null,"countyName":null,"streetName":null,"villageName":null,"roadName":null,"communityName":null,"tranName":null,"sdLineName":null,"cityCode":"1340625","cityName":"国网易县供电公司","provinceCode":null,"stopTime":"2019-06-29 01:00:00","powerType":"全部","powerOffArea":"【全线路停电】停太平庄村5#,凌云册村8#,解村4#,新庄村2#,解村5#,凌云册村4#,太平庄村9#,凌云册村3#,解村14#,周任村8#,周任村5#,凌云册村5#,新庄村4#,太平庄村7#,凌云册村13#,凌云册村2#,凌云册村6#,太平庄村8#,解村12#,太平庄村10#,凌云册村7#,新庄村1#,周任村7#,周任村6#,解村8#,凌云册村12#,凌云册乡政府,解村3#","powerOffReason":"【停电原因】由于变电站主变安装启动导致３５ＫＶ凌云册变电站周任５１６线路全线停电【变更送电】因工作量大未彻底完成原因，送电时间由２３:５９变更为０１:００【发布渠道】保定市易县电视台（０６月１４日００：００时至０６月２７日２４：００时之间）屏幕下方滚动","powerOffId":"2019061313000337"},{"poweroffId":2019061313000326,"sgpoweroffId":null,"subsName":"","lineName":"舍龙城515","pubTranName":"西韩村3#,西韩村1#【纯农排变】,易县金谷园大酒店,南韩村3#【纯农排变】,南韩村4#【纯农排变】,凌云册村1#,北韩村3#,北韩村5#,西韩村2#【纯农排变】,易县南山石场变压器,东韩村4#,东韩村5#,太平庄面粉厂,北韩村2#,凌云册村10#,南韩村2#,南韩村(吴顺平石子厂),北韩村6#,北韩村4#【纯农排变】,南韩村5#,太平庄村1#,北韩村7#,北韩村1#【纯农排变】,","scope":"【影响街道/乡镇】凌云册乡【高危重要客户】无【影响客户】太平庄村、凌云册村、北韩村、西韩村、东韩村、南韩村","startTime":"2019-06-28 05:00:00","stopDate":"2019-06-29 01:00:00","orgNo":"1340625","typeCode":"计划停电","poweroffArea":"【全线路停电】停北韩村3#,南韩村5#,凌云册村10#,东韩村4#,北韩村6#,东韩村5#,易县南山石场变压器,北韩村2#,南韩村3#【纯农排变】,南韩村2#,南韩村(吴顺平石子厂),北韩村4#【纯农排变】,西韩村2#【纯农排变】,凌云册村1#,北韩村7#,西韩村1#【纯农排变】,太平庄面粉厂,太平庄村1#,西韩村3#,南韩村4#【纯农排变】,北韩村1#【纯农排变】,易县金谷园大酒店,北韩村5#","poweroffReason":"【停电原因】由于变电站主变安装启动导致３５ＫＶ凌云册变电站舍龙城５１５线路全线停电【变更送电】因工作量大未彻底完成原因，送电时间由２３:５９变更为０１:００【发布渠道】保定市易县电视台（０６月１４日００：００时至０６月２７日２４：００时之间）屏幕下方滚动","powerTime":"2019-06-29 01:00:00","powerComm":"已送电","subsNo":"","lineNo":"","tgNo":"","tgName":null,"infoStatus":"1","orgName":"国网易县供电公司","typeName":null,"infoStatusName":null,"dateDay":null,"orgNos":null,"nowTime":null,"countyName":null,"streetName":null,"villageName":null,"roadName":null,"communityName":null,"tranName":null,"sdLineName":null,"cityCode":"1340625","cityName":"国网易县供电公司","provinceCode":null,"stopTime":"2019-06-29 01:00:00","powerType":"全部","powerOffArea":"【全线路停电】停北韩村3#,南韩村5#,凌云册村10#,东韩村4#,北韩村6#,东韩村5#,易县南山石场变压器,北韩村2#,南韩村3#【纯农排变】,南韩村2#,南韩村(吴顺平石子厂),北韩村4#【纯农排变】,西韩村2#【纯农排变】,凌云册村1#,北韩村7#,西韩村1#【纯农排变】,太平庄面粉厂,太平庄村1#,西韩村3#,南韩村4#【纯农排变】,北韩村1#【纯农排变】,易县金谷园大酒店,北韩村5#","powerOffReason":"【停电原因】由于变电站主变安装启动导致３５ＫＶ凌云册变电站舍龙城５１５线路全线停电【变更送电】因工作量大未彻底完成原因，送电时间由２３:５９变更为０１:００【发布渠道】保定市易县电视台（０６月１４日００：００时至０６月２７日２４：００时之间）屏幕下方滚动","powerOffId":"2019061313000326"},{"poweroffId":2019061313000317,"sgpoweroffId":null,"subsName":"","lineName":"10kV516留春线","pubTranName":"西留春公用照明9台区,西留春庄面粉厂,西留春村公用农业9台区【纯农排变】,邵村沙河东,西留春公用照明5台区,西留春纺织配件厂,邵村方田,东留春公用照明11台区,西留春村公用农业4台区【纯农排变】,西留春村公用照明13台区,西留春村公用农业13台区【纯农排变】,邵村村西边,定州市万沣面粉厂变压器,邵村公用照明4台区,邵村堤上河北,邵村堤上河西,邵村堤上河东,邵村公路中,邵村西北,邵村堤上河西北,邵村堤上河东北,西留春村公用农业2台区【纯农排变】,西留春公用照明3台区,邵村公用照明2台区,定州市东留春乡北邵村村集体股份合作社变压器,邵村公用照明6台区,邵村猪场,邵村沙河,定州市东留春乡邵村村民委员会,邵村村南2,西留春公用照明11台区,西留春村公用照明4台区,邵村公用照明1台区,邵村公用照明10台区,邵村西南,西留春村公用农业11台区【纯农排变】,西留春公用照明8台区,西留春村公用照明1台区,西留春公用照明6台区,西留春村公用农业12台区【纯农排变】,西留春公用照明7台区,邵村村东,西留春公用照明12台区,邵村公路东,定州市东留春乡邵村村民委员会村西,邵村村西,西留春村公用农业3台区【纯农排变】,西留春村公用农业8台区【纯农排变】,定州市邵村富鑫养猪场变压器,西留春村公用农业10台区【纯农排变】,西留春村公用照明2台区,吴静农场变压器,邵村西南口,邵村公用照明9台区,邵村公用照明5台区,邵村村南,邵村公路南,邵村公用照明3台区,定州市邵村王勇养猪场变压器,西留春村公用农业1台区【纯农排变】,东留春公用农业13台区【纯农排变】,邵村正西,西留春村公用农业6台区【纯农排变】,","scope":"【影响街道/乡镇】东留春乡【高危重要客户】无【影响客户】西留春村、邵村、东留春、西留春万沣面粉厂、定州市恒发纺织机械配件厂、王勇猪场、富鑫养猪场、吴静砖厂","startTime":"2019-06-28 07:30:00","stopDate":"2019-06-28 13:00:00","orgNo":"1340610","typeCode":"计划停电","poweroffArea":"【分支停电】停西留春村公用农业9台区【纯农排变】,西留春公用照明9台区,西留春庄面粉厂,邵村沙河东,西留春公用照明5台区,西留春纺织配件厂,邵村方田,东留春公用照明11台区,西留春村公用农业4台区【纯农排变】,西留春村公用照明13台区,西留春村公用农业13台区【纯农排变】,邵村村西边,定州市万沣面粉厂变压器,邵村公用照明4台区,邵村堤上河北,邵村堤上河西,邵村堤上河东,邵村公路中,邵村西北,邵村堤上河西北,邵村堤上河东北,西留春村公用农业2台区【纯农排变】,西留春公用照明3台区,邵村公用照明2台区,定州市东留春乡北邵村村集体股份合作社变压器,邵村公用照明6台区,邵村猪场,邵村沙河,定州市东留春乡邵村村民委员会,邵村村南2,西留春公用照明6台区,西留春村公用农业12台区【纯农排变】,西留春公用照明7台区,邵村村东,西留春公用照明12台区,邵村公路东,定州市东留春乡邵村村民委员会村西,邵村村西,西留春村公用农业3台区【纯农排变】,西留春村公用农业8台区【纯农排变】,定州市邵村富鑫养猪场变压器,西留春村公用农业10台区【纯农排变】,西留春村公用照明2台区,吴静农场变压器,邵村西南口,邵村公用照明9台区,邵村公用照明5台区,邵村村南,邵村公路南,邵村公用照明3台区,定州市邵村王勇养猪场变压器,西留春村公用农业1台区【纯农排变】,东留春公用农业13台区【纯农排变】,邵村正西,西留春村公用农业6台区【纯农排变】,西留春公用照明11台区,西留春村公用照明4台区,邵村公用照明1台区,邵村公用照明10台区,邵村西南,西留春村公用农业11台区【纯农排变】,西留春公用照明8台区,西留春村公用照明1台区","poweroffReason":"【停电原因】由于新架导线、高压引线接引导致３５ＫＶ刘良庄变电站１０ＫＶ５１６留春线路主干９６号杆０１号断路器以下线路停电 【变更送电】无 【发布渠道】河北省定州市定州日报第三版（２０１９年０６月１４日）","powerTime":"2019-06-28 12:37:58","powerComm":"已送电","subsNo":"","lineNo":"","tgNo":"","tgName":null,"infoStatus":"1","orgName":"国网定州市供电公司","typeName":null,"infoStatusName":null,"dateDay":null,"orgNos":null,"nowTime":null,"countyName":null,"streetName":null,"villageName":null,"roadName":null,"communityName":null,"tranName":null,"sdLineName":null,"cityCode":"1340610","cityName":"国网定州市供电公司","provinceCode":null,"stopTime":"2019-06-28 13:00:00","powerType":"全部","powerOffArea":"【分支停电】停西留春村公用农业9台区【纯农排变】,西留春公用照明9台区,西留春庄面粉厂,邵村沙河东,西留春公用照明5台区,西留春纺织配件厂,邵村方田,东留春公用照明11台区,西留春村公用农业4台区【纯农排变】,西留春村公用照明13台区,西留春村公用农业13台区【纯农排变】,邵村村西边,定州市万沣面粉厂变压器,邵村公用照明4台区,邵村堤上河北,邵村堤上河西,邵村堤上河东,邵村公路中,邵村西北,邵村堤上河西北,邵村堤上河东北,西留春村公用农业2台区【纯农排变】,西留春公用照明3台区,邵村公用照明2台区,定州市东留春乡北邵村村集体股份合作社变压器,邵村公用照明6台区,邵村猪场,邵村沙河,定州市东留春乡邵村村民委员会,邵村村南2,西留春公用照明6台区,西留春村公用农业12台区【纯农排变】,西留春公用照明7台区,邵村村东,西留春公用照明12台区,邵村公路东,定州市东留春乡邵村村民委员会村西,邵村村西,西留春村公用农业3台区【纯农排变】,西留春村公用农业8台区【纯农排变】,定州市邵村富鑫养猪场变压器,西留春村公用农业10台区【纯农排变】,西留春村公用照明2台区,吴静农场变压器,邵村西南口,邵村公用照明9台区,邵村公用照明5台区,邵村村南,邵村公路南,邵村公用照明3台区,定州市邵村王勇养猪场变压器,西留春村公用农业1台区【纯农排变】,东留春公用农业13台区【纯农排变】,邵村正西,西留春村公用农业6台区【纯农排变】,西留春公用照明11台区,西留春村公用照明4台区,邵村公用照明1台区,邵村公用照明10台区,邵村西南,西留春村公用农业11台区【纯农排变】,西留春公用照明8台区,西留春村公用照明1台区","powerOffReason":"【停电原因】由于新架导线、高压引线接引导致３５ＫＶ刘良庄变电站１０ＫＶ５１６留春线路主干９６号杆０１号断路器以下线路停电 【变更送电】无 【发布渠道】河北省定州市定州日报第三版（２０１９年０６月１４日）","powerOffId":"2019061313000317"},{"poweroffId":2019061313000306,"sgpoweroffId":null,"subsName":"","lineName":"东邵514","pubTranName":"东邵中村7#,大方19号变压器,大巨村16#,东邵新村1#,涞山村2#,东邵东村7#变压器,贾庄村6号,大方17号变压器,黄山村10#,大巨村3#,大方村7#,大巨村8#,大方村1#,东邵东村3#,东邵新村2#,东邵新村5#,贾庄村3号,东邵新6号,大方村16#,黄山村8#,大方村15#,大巨村11#,黄山村5#,黄山村6#,大方村14#,大方村11#,黄山村4#,大巨19号变压器,东邵中村4#,大巨村15#,涞山村1号变压器,东邵中村8#,东邵东村8#变压器,东邵中村9#,大方村8#,大巨村14#,黄山村2#,大方18号变压器,黄山村7#,新庄村7#,黄山村3号变压器,大方村北12#,大方村2#,大方村9#,大方村10#,黄山村9#,涞山村6#,东韩村3#,大巨村1#,涞山村4#,东邵东村5#,东邵新7号,大巨村4#,黄山村1#,大巨村17#,东邵东村4#,涞山村8#,东邵新村3号,贾庄村4号,贾庄村7号,涞山村3#,东邵中村5#,东邵东村2#,东邵中村1#,大巨村13#,大巨村12#,东韩村1#,东邵中村6#,大巨村10#,客户投资_大巨村2#,新庄村5#,东韩村2#,新庄村6#,涞山12#变压器,东邵中村2#,东邵东村6#,大巨村18#,涞山村7#,贾庄村5号,东邵新村4#,","scope":"【影响街道/乡镇】凌云册乡【高危重要客户】无【影响客户】大方村、黄山村、大巨村、东邵东、东邵中、东邵新、新庄、贾庄村、东韩村、涞山村","startTime":"2019-06-28 05:00:00","stopDate":"2019-06-29 01:00:00","orgNo":"1340625","typeCode":"计划停电","poweroffArea":"【全线路停电】停大方村7#,大巨村8#,大方村1#,黄山村2#,大方18号变压器,黄山村7#,大方村16#,黄山村8#,大方村15#,大巨村11#,黄山村5#,黄山村6#,大方村14#,大方村11#,黄山村4#,大方村8#,大方19号变压器,大方17号变压器,黄山村10#,黄山村3号变压器,黄山村1#,大方村北12#,大方村2#,大方村9#,大方村10#,黄山村9#,涞山村6#,东韩村3#,大巨村1#,涞山村4#,东邵新村4#,大巨村3#,东邵中村8#,东邵东村8#变压器,东邵中村9#,大巨村12#,东韩村1#,大巨村10#,客户投资_大巨村2#,新庄村5#,大巨村16#,东邵新村1#,涞山村2#,东邵东村3#,东邵新村2#,东邵东村5#,东邵新7号,大巨村4#,大巨村17#,东邵东村4#,新庄村7#,涞山村8#,东邵新村3号,贾庄村4号,贾庄村7号,东韩村2#,贾庄村3号,东邵新6号,涞山12#变压器,东邵中村2#,东邵东村6#,大巨村18#,涞山村7#,贾庄村5号,大巨村14#,东邵东村7#变压器,贾庄村6号,新庄村6#,大巨村13#,大巨19号变压器,东邵中村4#,涞山村1号变压器,东邵中村7#,涞山村3#,东邵中村5#,东邵东村2#,东邵中村6#,大巨村15#,东邵中村1#,东邵新村5#","poweroffReason":"【停电原因】由于变电站新主变安装启动导致３５ＫＶ凌云册变电站东邵５１４线路全线停电【变更送电】因工作量大未彻底完成原因，送电时间由２３：５９变更为０１：００【发布渠道】保定市易县电视台（０６月１４日００：００时至０６月２７日２４：００时之间）屏幕下方滚动","powerTime":"2019-06-29 01:00:00","powerComm":"已送电","subsNo":"","lineNo":"","tgNo":"","tgName":null,"infoStatus":"1","orgName":"国网易县供电公司","typeName":null,"infoStatusName":null,"dateDay":null,"orgNos":null,"nowTime":null,"countyName":null,"streetName":null,"villageName":null,"roadName":null,"communityName":null,"tranName":null,"sdLineName":null,"cityCode":"1340625","cityName":"国网易县供电公司","provinceCode":null,"stopTime":"2019-06-29 01:00:00","powerType":"全部","powerOffArea":"【全线路停电】停大方村7#,大巨村8#,大方村1#,黄山村2#,大方18号变压器,黄山村7#,大方村16#,黄山村8#,大方村15#,大巨村11#,黄山村5#,黄山村6#,大方村14#,大方村11#,黄山村4#,大方村8#,大方19号变压器,大方17号变压器,黄山村10#,黄山村3号变压器,黄山村1#,大方村北12#,大方村2#,大方村9#,大方村10#,黄山村9#,涞山村6#,东韩村3#,大巨村1#,涞山村4#,东邵新村4#,大巨村3#,东邵中村8#,东邵东村8#变压器,东邵中村9#,大巨村12#,东韩村1#,大巨村10#,客户投资_大巨村2#,新庄村5#,大巨村16#,东邵新村1#,涞山村2#,东邵东村3#,东邵新村2#,东邵东村5#,东邵新7号,大巨村4#,大巨村17#,东邵东村4#,新庄村7#,涞山村8#,东邵新村3号,贾庄村4号,贾庄村7号,东韩村2#,贾庄村3号,东邵新6号,涞山12#变压器,东邵中村2#,东邵东村6#,大巨村18#,涞山村7#,贾庄村5号,大巨村14#,东邵东村7#变压器,贾庄村6号,新庄村6#,大巨村13#,大巨19号变压器,东邵中村4#,涞山村1号变压器,东邵中村7#,涞山村3#,东邵中村5#,东邵东村2#,东邵中村6#,大巨村15#,东邵中村1#,东邵新村5#","powerOffReason":"【停电原因】由于变电站新主变安装启动导致３５ＫＶ凌云册变电站东邵５１４线路全线停电【变更送电】因工作量大未彻底完成原因，送电时间由２３：５９变更为０１：００【发布渠道】保定市易县电视台（０６月１４日００：００时至０６月２７日２４：００时之间）屏幕下方滚动","powerOffId":"2019061313000306"},{"poweroffId":2019061313000200,"sgpoweroffId":null,"subsName":"","lineName":"10kV利民路站568线路.","pubTranName":"0557249411-保定市南市区南大园乡南刘各庄村村民委员会-1#专变,0557249411-保定市南市区南大园乡南刘各庄村村民委员会-2#专变,","scope":"【影响街道/乡镇】南大园乡 【高危重要客户】无 【影响客户】南刘各庄","startTime":"2019-06-19 09:00:00","stopDate":"2019-06-19 12:00:00","orgNo":"13406","typeCode":"临时停电","poweroffArea":"【分支停电】停0557249411-保定市南市区南大园乡南刘各庄村村民委员会-1#专变,0557249411-保定市南市区南大园乡南刘各庄村村民委员会-2#专变","poweroffReason":"【停电原因】由于供电设备临时检修导致１０ＫＶ利民路变电站５６８线路朝阳南大街ＨＫ－０８环网柜３＃间隔开关以下停电【变更送电】无【发布渠道】保定市保定有线电视台（０６月１７日２０时１５分至２１时４５分之间）屏幕上滚动","powerTime":"2019-06-19 11:31:13","powerComm":"已送电","subsNo":"","lineNo":"","tgNo":"","tgName":null,"infoStatus":"1","orgName":"保定供电公司","typeName":null,"infoStatusName":null,"dateDay":null,"orgNos":null,"nowTime":null,"countyName":null,"streetName":null,"villageName":null,"roadName":null,"communityName":null,"tranName":null,"sdLineName":null,"cityCode":"13406","cityName":"保定供电公司","provinceCode":null,"stopTime":"2019-06-19 12:00:00","powerType":"全部","powerOffArea":"【分支停电】停0557249411-保定市南市区南大园乡南刘各庄村村民委员会-1#专变,0557249411-保定市南市区南大园乡南刘各庄村村民委员会-2#专变","powerOffReason":"【停电原因】由于供电设备临时检修导致１０ＫＶ利民路变电站５６８线路朝阳南大街ＨＫ－０８环网柜３＃间隔开关以下停电【变更送电】无【发布渠道】保定市保定有线电视台（０６月１７日２０时１５分至２１时４５分之间）屏幕上滚动","powerOffId":"2019061313000200"}],"pageModel":{"pageNow":942,"totalCount":10973,"totalPage":1098,"tableRows":0,"pageCount":10,"beginCount":9410},"isExperi":"1"}