{"message":"","today":"2020-06-15","seleList":[{"poweroffId":2019061213000372,"sgpoweroffId":null,"subsName":"","lineName":"染厂线516","pubTranName":"孙建强,段洪刚,齐国建,宋占辉,王连军,三丰面粉厂(1),南街综合,赵通6#综合,高阳县新杰棉织厂,韩兴辰,贾雷江,赵通9#新增综合,三丰面粉厂(2),高阳县庆贺毛纺厂,文化城,河北瑞春纺织有限公司,客户投资_高阳县龙泉花园小区三区叁号综合箱变配变配电变压器,文浩纺织品有限公,赵万军,中石化高阳分公司变压器,赵通5#综合,于闷,建华吹塑厂,西庄村东拔丝厂,客户投资_高阳县龙泉花园小区三区肆号综合箱变配变配电变压器,孙建华,客户投资_龙泉花园2出线配电变压器,董法会,佳棉纺织品公司,洪克新,","scope":"【影响街道/乡镇】高阳镇、城关镇 【高危重要客户】无 【影响客户】赵通村西、赵通村西南、龙泉花园西北","startTime":"2019-06-28 06:00:00","stopDate":"2019-06-28 08:40:00","orgNo":"1340613","typeCode":"计划停电","poweroffArea":"【分支停电】停孙建强,齐国建,宋占辉,王连军,三丰面粉厂(1),南街综合,赵通6#综合,高阳县新杰棉织厂,韩兴辰,三丰面粉厂(2),高阳县庆贺毛纺厂,文化城,河北瑞春纺织有限公司,客户投资_高阳县龙泉花园小区三区叁号综合箱变配变配电变压器,文浩纺织品有限公,赵万军,中石化高阳分公司变压器,赵通5#综合,于闷,建华吹塑厂,客户投资_高阳县龙泉花园小区三区肆号综合箱变配变配电变压器,孙建华,贾雷江,赵通9#新增综合,客户投资_龙泉花园2出线配电变压器,董法会,佳棉纺织品公司,洪克新,段洪刚","poweroffReason":"【停电原因】由于增容导致１１０ＫＶ沙窝变电站染厂５１６线路主线５２号杆５２号开关以下停电【变更送电】因抢修进度加快原因，送电时间由１２：００变更为８：４０【发布渠道】高阳县电视台（６月１３日１９时至２１时之间）屏幕下方滚动播出","powerTime":"2019-06-28 08:28:54","powerComm":"已送电","subsNo":"","lineNo":"","tgNo":"","tgName":null,"infoStatus":"1","orgName":"国网高阳县供电公司","typeName":null,"infoStatusName":null,"dateDay":null,"orgNos":null,"nowTime":null,"countyName":null,"streetName":null,"villageName":null,"roadName":null,"communityName":null,"tranName":null,"sdLineName":null,"cityCode":"1340613","cityName":"国网高阳县供电公司","provinceCode":null,"stopTime":"2019-06-28 08:40:00","powerType":"全部","powerOffArea":"【分支停电】停孙建强,齐国建,宋占辉,王连军,三丰面粉厂(1),南街综合,赵通6#综合,高阳县新杰棉织厂,韩兴辰,三丰面粉厂(2),高阳县庆贺毛纺厂,文化城,河北瑞春纺织有限公司,客户投资_高阳县龙泉花园小区三区叁号综合箱变配变配电变压器,文浩纺织品有限公,赵万军,中石化高阳分公司变压器,赵通5#综合,于闷,建华吹塑厂,客户投资_高阳县龙泉花园小区三区肆号综合箱变配变配电变压器,孙建华,贾雷江,赵通9#新增综合,客户投资_龙泉花园2出线配电变压器,董法会,佳棉纺织品公司,洪克新,段洪刚","powerOffReason":"【停电原因】由于增容导致１１０ＫＶ沙窝变电站染厂５１６线路主线５２号杆５２号开关以下停电【变更送电】因抢修进度加快原因，送电时间由１２：００变更为８：４０【发布渠道】高阳县电视台（６月１３日１９时至２１时之间）屏幕下方滚动播出","powerOffId":"2019061213000372"},{"poweroffId":2019061113000179,"sgpoweroffId":null,"subsName":"","lineName":"热电516线","pubTranName":"东环路2#,易县龙烁供热有限责任公司高压电动机2号,花园小区1#,易县龙烁供热有限责任公司高压电动机1号,工商局1配电变压器,易县龙烁供热有限责任公司2000KVA,易县城区居民管理处东环路居民委员会变压器,花园小区2#,0589303442-易县龙烁供热有限责任公司-专变-125429260-易县龙烁供热有限责任公司变压器,林业局直供,东环路1#,东环路5#,0564097935-易县天泰房地产开发有限公司-专变-118550416-天泰房地产变压器,东环路7#村北,东环路居委会变压器,","scope":"【影响街道/乡镇】东环路、城管处【高危重要客户】无【影响客户】工商局、林业局、花园小区","startTime":"2019-06-19 02:00:00","stopDate":"2019-06-19 14:00:00","orgNo":"1340625","typeCode":"临时停电","poweroffArea":"【全线路停电】停花园小区2#,0564097935-易县天泰房地产开发有限公司-专变-118550416-天泰房地产变压器 ,易县龙烁供热有限责任公司高压电动机1号,易县龙烁供热有限责任公司2000KVA,林业局直供,东环路居委会变压器,易县龙烁供热有限责任公司高压电动机2号,花园小区1#,0589303442-易县龙烁供热有限责任公司-专变-125429260-易县龙烁供热有限责任公司变压器,东环路5#,东环路7#村北,东环路2#,易县城区居民管理处东环路居民委员会变压器,东环路1#,工商局1配电变压器","poweroffReason":"【停电原因】由于线路检修导致１１０ＫＶ易县变电站热电５１６线路全线停电【变更送电】因工作进度加快原因，送电时间由１８：００变更为１４：００【发布渠道】通过９５５９８发布","powerTime":"2019-06-19 13:08:31","powerComm":"已送电","subsNo":"","lineNo":"","tgNo":"","tgName":null,"infoStatus":"1","orgName":"国网易县供电公司","typeName":null,"infoStatusName":null,"dateDay":null,"orgNos":null,"nowTime":null,"countyName":null,"streetName":null,"villageName":null,"roadName":null,"communityName":null,"tranName":null,"sdLineName":null,"cityCode":"1340625","cityName":"国网易县供电公司","provinceCode":null,"stopTime":"2019-06-19 14:00:00","powerType":"全部","powerOffArea":"【全线路停电】停花园小区2#,0564097935-易县天泰房地产开发有限公司-专变-118550416-天泰房地产变压器 ,易县龙烁供热有限责任公司高压电动机1号,易县龙烁供热有限责任公司2000KVA,林业局直供,东环路居委会变压器,易县龙烁供热有限责任公司高压电动机2号,花园小区1#,0589303442-易县龙烁供热有限责任公司-专变-125429260-易县龙烁供热有限责任公司变压器,东环路5#,东环路7#村北,东环路2#,易县城区居民管理处东环路居民委员会变压器,东环路1#,工商局1配电变压器","powerOffReason":"【停电原因】由于线路检修导致１１０ＫＶ易县变电站热电５１６线路全线停电【变更送电】因工作进度加快原因，送电时间由１８：００变更为１４：００【发布渠道】通过９５５９８发布","powerOffId":"2019061113000179"},{"poweroffId":2019061113000178,"sgpoweroffId":null,"subsName":"","lineName":"泰元街线515","pubTranName":"泰元街直供1#,教育局家属楼,易县明军圣达房地产开发有限公司变压器,丁街1#,易县鸿华房地产开发有限公司,电厂楼直供,木器厂直供,0660325824-易县铸成房地产开发有限公司-专变-194541910-易县铸成房地产开发有限公司400KVA,易县第一小学,易县教育局630KVA-1号,易县教育局变压器,泰元街直供2#,畜牧局直供,龙烁供热80kva-一中宿舍楼,东环路6#,鸿华小区1配电变压器,团结路3#,安各庄水库家属院,沃美超市变压器,易县明军圣达房地产开发有限公司（领尚城）A-2000KVA,石庄村董华变压器,东环路3#,河北易县中学变压器,王敬变压器,易县中学(南),移动公司总部315,易县教育局630KVA-3号,易县天泰房地产开发有限公司变压器,团结路2#,长安路蔡海连80,易县教育局-630KVA-2号,丁街4#,易县明军圣达房地产开发有限公司（领尚城）B-2000KVA,一中直供,易县龙烁供热有限责任公司变压器,电视台,","scope":"【影响街道/乡镇】易州镇【高危重要客户】无【影响客户】东关新村、领尚城小区、亚澜家苑、锦芳园家属楼、教育局家属楼","startTime":"2019-06-19 02:00:00","stopDate":"2019-06-19 14:00:00","orgNo":"1340625","typeCode":"临时停电","poweroffArea":"【全线路停电】停一中直供,丁街4#,易县教育局630KVA-1号,泰元街直供1#,教育局家属楼,易县明军圣达房地产开发有限公司变压器,丁街1#,易县鸿华房地产开发有限公司,电厂楼直供,木器厂直供,0660325824-易县铸成房地产开发有限公司-专变-194541910-易县铸成房地产开发有限公司400KVA,易县第一小学,易县教育局变压器,河北易县中学变压器,王敬变压器,易县中学(南),移动公司总部315,易县教育局630KVA-3号,易县天泰房地产开发有限公司变压器,团结路2#,易县明军圣达房地产开发有限公司（领尚城）B-2000KVA,泰元街直供2#,畜牧局直供,龙烁供热80kva-一中宿舍楼,东环路6#,鸿华小区1配电变压器,团结路3#,安各庄水库家属院,沃美超市变压器,易县明军圣达房地产开发有限公司（领尚城）A-2000KVA,石庄村董华变压器,东环路3#,易县龙烁供热有限责任公司变压器,电视台,长安路蔡海连80,易县教育局-630KVA-2号","poweroffReason":"【停电原因】由于线路检修导致１１０ＫＶ易县站泰元街５１５线路全线停电【变更送电】因工作进度加快原因，送电时间由１８：００变更为１４：００【发布渠道】通过９５５９８发布","powerTime":"2019-06-19 13:09:22","powerComm":"已送电","subsNo":"","lineNo":"","tgNo":"","tgName":null,"infoStatus":"1","orgName":"国网易县供电公司","typeName":null,"infoStatusName":null,"dateDay":null,"orgNos":null,"nowTime":null,"countyName":null,"streetName":null,"villageName":null,"roadName":null,"communityName":null,"tranName":null,"sdLineName":null,"cityCode":"1340625","cityName":"国网易县供电公司","provinceCode":null,"stopTime":"2019-06-19 14:00:00","powerType":"全部","powerOffArea":"【全线路停电】停一中直供,丁街4#,易县教育局630KVA-1号,泰元街直供1#,教育局家属楼,易县明军圣达房地产开发有限公司变压器,丁街1#,易县鸿华房地产开发有限公司,电厂楼直供,木器厂直供,0660325824-易县铸成房地产开发有限公司-专变-194541910-易县铸成房地产开发有限公司400KVA,易县第一小学,易县教育局变压器,河北易县中学变压器,王敬变压器,易县中学(南),移动公司总部315,易县教育局630KVA-3号,易县天泰房地产开发有限公司变压器,团结路2#,易县明军圣达房地产开发有限公司（领尚城）B-2000KVA,泰元街直供2#,畜牧局直供,龙烁供热80kva-一中宿舍楼,东环路6#,鸿华小区1配电变压器,团结路3#,安各庄水库家属院,沃美超市变压器,易县明军圣达房地产开发有限公司（领尚城）A-2000KVA,石庄村董华变压器,东环路3#,易县龙烁供热有限责任公司变压器,电视台,长安路蔡海连80,易县教育局-630KVA-2号","powerOffReason":"【停电原因】由于线路检修导致１１０ＫＶ易县站泰元街５１５线路全线停电【变更送电】因工作进度加快原因，送电时间由１８：００变更为１４：００【发布渠道】通过９５５９８发布","powerOffId":"2019061113000178"},{"poweroffId":2019061113000047,"sgpoweroffId":null,"subsName":"","lineName":"工业园563","pubTranName":"李立民,河北祥宏箱包配件制造有限公司变压器,汽贸城5小区,露易豪丹皮具有限公司变台,0589934228-贯士威-专变-125501301-变压器,0549631983-保定互赢物业服务有限公司-专变-127156794-变压器1,变压器500,保定白沟新城慈仁中医院变压器,变压器,保定永猛商贸有限公司变压器,保定白沟新城崔文箱包配件厂变压器,保定白沟新城玲勇日用百货商行,保定白沟新城旺百伦物业服务有限公司变压器,马春友,仙迪皮具厂,侯大午,保定牧森箱包制造有限公司,张志兴,赵建辉,杨书江变压器,高碑店市白沟永兴革业有限责任公司变压器,张军变压器,久鼎鑫电气变台,庞大力变压器,梁国兴变台,王秋生变台,时艳清1,于振,王洪峰,昊明皮革200,五一路公变,张利民,洪峰工业有限公司变台,王路政,王新学,路灯,高文宝变压器,郎景亮,卡迪兰变压器,保定途洒箱包制造有限公司,宋章平100,回顺民,昊明皮革,保定白沟新城圣乾箱包配件加工厂变压器,尤铁冀,张春来,京白路3号公变,杨文革,王建国,高恩晋,西江环保变压器,市政路灯变台2,焦桂玲,变压器400,","scope":"【影响街道/乡镇】白沟镇、五一东路、兴盛大街 【高危重要客户】无 【影响客户】工业园区、名典苑小区、白沟盛泰罗箱包制品有限公司、恒益物业、鑫纳箱包制造有限公司、铭磊加油站、雄皓箱包、静超织绳厂、互赢物业、布拉诺塑胶制造有限公司、河北西江环保科技有限公司、白沟吉忠热力有限责任公司、姜德强、杨书江、贯士威、梦思旅箱包制品厂、白沟爱神箱包、中国铁塔股份有限公司保定市分公司、保定开拓精密仪器制造有限责任公司、高文宝、中拓河北乳胶科技发展有限公司、赵建辉、谭文远、杨文革、河北达辉皮革制品有限公司、王新学、张志兴、空中鸟皮具有限公司、马春友、尤铁冀改宋秀实业、侯大午、广顺箱包工业、宋章平、焦桂玲、张利民、高恩晋、河北昊明人造皮革有限公司、善泽物业、保定奥宝特皮具工贸有限公司、汽贸城５小区、王建国、白沟春彩皮具厂、保定烁格织带有限公司、卡迪兰皮具有限公司、张军、白沟永兴革业有限责任公司、梁国兴、白沟市政公司路灯、保定市洪峰工业有限公司、崔文、保定白沟俊曦箱包加工厂、哈密袋鼠皮具有限公司、保定白沟新城川冀酒店","startTime":"2019-06-20 06:00:00","stopDate":"2019-06-20 08:30:00","orgNo":"1340612","typeCode":"计划停电","poweroffArea":"【全线路停电】停五一路公变,露易豪丹皮具有限公司变台,0589934228-贯士威-专变-125501301-变压器,0549631983-保定互赢物业服务有限公司-专变-127156794-变压器1,变压器500,保定白沟新城慈仁中医院变压器,变压器,保定永猛商贸有限公司变压器,保定白沟新城崔文箱包配件厂变压器,保定白沟新城玲勇日用百货商行,保定白沟新城旺百伦物业服务有限公司变压器,昊明皮革200,仙迪皮具厂,侯大午,保定牧森箱包制造有限公司,张志兴,杨书江变压器,高碑店市白沟永兴革业有限责任公司变压器,张军变压器,久鼎鑫电气变台,梁国兴变台,王秋生变台,时艳清1,于振,王洪峰,西江环保变压器,市政路灯变台2,焦桂玲,变压器400,庞大力变压器,赵建辉,马春友,汽贸城5小区,李立民,回顺民,尤铁冀,保定途洒箱包制造有限公司,宋章平100,昊明皮革,河北祥宏箱包配件制造有限公司变压器,张利民,洪峰工业有限公司变台,王路政,王新学,路灯,高文宝变压器,郎景亮,卡迪兰变压器,保定白沟新城圣乾箱包配件加工厂变压器,张春来,京白路3号公变,杨文革,王建国,高恩晋","poweroffReason":"【停电原因】由于换线导致１１０ＫＶ南留变电站１０ＫＶ工业园５６３线路全线停电 【变更送电】因工作进度加快原因，送电时间由１９：００变更为０８：３０ 【发布渠道】高碑店市高碑店电视台（６月１２日０８时至６月１９日１８时之间）屏幕上方滚动","powerTime":"2019-06-20 07:59:33","powerComm":"已送电","subsNo":"","lineNo":"","tgNo":"","tgName":null,"infoStatus":"1","orgName":"国网高碑店市供电公司","typeName":null,"infoStatusName":null,"dateDay":null,"orgNos":null,"nowTime":null,"countyName":null,"streetName":null,"villageName":null,"roadName":null,"communityName":null,"tranName":null,"sdLineName":null,"cityCode":"1340612","cityName":"国网高碑店市供电公司","provinceCode":null,"stopTime":"2019-06-20 08:30:00","powerType":"全部","powerOffArea":"【全线路停电】停五一路公变,露易豪丹皮具有限公司变台,0589934228-贯士威-专变-125501301-变压器,0549631983-保定互赢物业服务有限公司-专变-127156794-变压器1,变压器500,保定白沟新城慈仁中医院变压器,变压器,保定永猛商贸有限公司变压器,保定白沟新城崔文箱包配件厂变压器,保定白沟新城玲勇日用百货商行,保定白沟新城旺百伦物业服务有限公司变压器,昊明皮革200,仙迪皮具厂,侯大午,保定牧森箱包制造有限公司,张志兴,杨书江变压器,高碑店市白沟永兴革业有限责任公司变压器,张军变压器,久鼎鑫电气变台,梁国兴变台,王秋生变台,时艳清1,于振,王洪峰,西江环保变压器,市政路灯变台2,焦桂玲,变压器400,庞大力变压器,赵建辉,马春友,汽贸城5小区,李立民,回顺民,尤铁冀,保定途洒箱包制造有限公司,宋章平100,昊明皮革,河北祥宏箱包配件制造有限公司变压器,张利民,洪峰工业有限公司变台,王路政,王新学,路灯,高文宝变压器,郎景亮,卡迪兰变压器,保定白沟新城圣乾箱包配件加工厂变压器,张春来,京白路3号公变,杨文革,王建国,高恩晋","powerOffReason":"【停电原因】由于换线导致１１０ＫＶ南留变电站１０ＫＶ工业园５６３线路全线停电 【变更送电】因工作进度加快原因，送电时间由１９：００变更为０８：３０ 【发布渠道】高碑店市高碑店电视台（６月１２日０８时至６月１９日１８时之间）屏幕上方滚动","powerOffId":"2019061113000047"},{"poweroffId":2019061013000072,"sgpoweroffId":null,"subsName":"","lineName":"10kV利民路站564线路","pubTranName":"C268柱上变压器,","scope":"【影响街道/乡镇】南大园乡 【高危重要客户】无 【影响客户】黄庄村","startTime":"2019-06-23 07:00:00","stopDate":"2019-06-23 16:00:00","orgNo":"13406","typeCode":"计划停电","poweroffArea":"【单台区停电】停C268柱上变压器","poweroffReason":"【停电原因】由于供电设备临时检修导致１０ＫＶ利民变电站５６４线路Ｃ２６８公变台区停电【变更送电】因工作正在处理中，送电时间由１５：００变更为１６：００【发布渠道】保定市保定有线电视台（６月１５日２０时３０分至２１时３０分之间）屏幕上滚动","powerTime":"2019-06-23 15:36:31","powerComm":"已送电","subsNo":"","lineNo":"","tgNo":"","tgName":null,"infoStatus":"1","orgName":"保定供电公司","typeName":null,"infoStatusName":null,"dateDay":null,"orgNos":null,"nowTime":null,"countyName":null,"streetName":null,"villageName":null,"roadName":null,"communityName":null,"tranName":null,"sdLineName":null,"cityCode":"13406","cityName":"保定供电公司","provinceCode":null,"stopTime":"2019-06-23 16:00:00","powerType":"全部","powerOffArea":"【单台区停电】停C268柱上变压器","powerOffReason":"【停电原因】由于供电设备临时检修导致１０ＫＶ利民变电站５６４线路Ｃ２６８公变台区停电【变更送电】因工作正在处理中，送电时间由１５：００变更为１６：００【发布渠道】保定市保定有线电视台（６月１５日２０时３０分至２１时３０分之间）屏幕上滚动","powerOffId":"2019061013000072"},{"poweroffId":2019061013000055,"sgpoweroffId":null,"subsName":"","lineName":"10kV利民路站531线路","pubTranName":"B481柱上变压器,B030柱上变压器,","scope":"【影响街道/乡镇】利民路 【高危重要客户】无 【影响客户】轧花厂宿舍、刘各庄村、制桶厂宿舍、西大印刷厂、康信房地产、地区棉麻","startTime":"2019-06-18 07:00:00","stopDate":"2019-06-18 15:00:00","orgNo":"13406","typeCode":"临时停电","poweroffArea":"【分支停电】停B481柱上变压器,B030柱上变压器","poweroffReason":"【停电原因】由于供电设备临时检修导致１０ＫＶ利民路变电站５３１线路５６号杆分支开关以下停电【变更送电】无【发布渠道】保定市保定有限电视台（６月１６日２０时１５分至２１时４５分之间）屏幕上滚动","powerTime":"2019-06-18 14:41:02","powerComm":"已送电","subsNo":"","lineNo":"","tgNo":"","tgName":null,"infoStatus":"1","orgName":"保定供电公司","typeName":null,"infoStatusName":null,"dateDay":null,"orgNos":null,"nowTime":null,"countyName":null,"streetName":null,"villageName":null,"roadName":null,"communityName":null,"tranName":null,"sdLineName":null,"cityCode":"13406","cityName":"保定供电公司","provinceCode":null,"stopTime":"2019-06-18 15:00:00","powerType":"全部","powerOffArea":"【分支停电】停B481柱上变压器,B030柱上变压器","powerOffReason":"【停电原因】由于供电设备临时检修导致１０ＫＶ利民路变电站５３１线路５６号杆分支开关以下停电【变更送电】无【发布渠道】保定市保定有限电视台（６月１６日２０时１５分至２１时４５分之间）屏幕上滚动","powerOffId":"2019061013000055"},{"poweroffId":2019060913000110,"sgpoweroffId":null,"subsName":"","lineName":"孙庄线528","pubTranName":"彤霞村路边农5号配变【纯农排变】,长城机械,望都县锦运仓储服务部,后庄子鱼塘混3,寺庄村混9配变,寺庄农5【纯农排变】,寺庄坟配变【纯农排变】,大辛庄西南农【纯农排变】,寺庄村南,寺庄东南农【纯农排变】,寺庄混合6号变压器,寺庄村西北农10【纯农排变】,寺庄新民居配变,0667223040-望都县誉鑫铸造厂-专变-208410918-望都县誉鑫铸造厂,大辛庄红星机械厂,寺庄村东农业【纯农排变】,寺庄村北混合7号,寺庄农3【纯农排变】,前庄子西农4【纯农排变】,大辛庄西北农业【纯农排变】,孙庄混合,孙庄农1【纯农排变】,寺庄乡政府配变,前庄子东农3【纯农排变】,后庄子混2,寺庄农7【纯农排变】,大辛庄村北农【纯农排变】,大辛庄西农业【纯农排变】,寺庄西南配变【纯农排变】,前庄子北农2【纯农排变】,孙庄村东农3【纯农排变】,彤霞村北农3号【纯农排变】,寺庄桥头,北龙潭【纯农排变】,孙庄农2【纯农排变】,城内大队,孙庄混合2号,北关西北农【纯农排变】,北韩庄混合4号,寺庄村北,后庄子村北农5【纯农排变】,大辛庄正北【纯农排变】,北韩庄混合2,寺庄大沟北农【纯农排变】,彤霞农1【纯农排变】,望都县鑫磊新型建材,寺庄村大辛庄道农业【纯农排变】,彤霞农4【纯农排变】,前庄子混合,前庄子西农1【纯农排变】,寺庄社办南,寺庄乡卫生院配变,后庄子混合,","scope":"【影响街道/乡镇】寺庄乡、望都镇　　 【高危重要客户】无　　 【影响客户】前庄子村、孙庄村、后庄子村、寺庄村、大辛庄村、彤霞村部分农业、北关西北农业、北韩庄村、北龙潭、城内大队、望都能顺面粉厂、李立昌面粉厂、望都惠得祥鞋厂、大辛庄红星机械厂、京艺制鞋厂、长城机械、水库车床加工、 鑫磊新型建材、望都县誉鑫铸造厂、望都县和平建材销售处","startTime":"2019-06-20 06:00:00","stopDate":"2019-06-20 09:00:00","orgNo":"1340623","typeCode":"计划停电","poweroffArea":"【全线路停电】停长城机械,望都县锦运仓储服务部,后庄子鱼塘混3,寺庄村混9配变,寺庄农5【纯农排变】,寺庄坟配变【纯农排变】,大辛庄西南农【纯农排变】,前庄子东农3【纯农排变】,后庄子混2,寺庄农7【纯农排变】,大辛庄村北农【纯农排变】,大辛庄红星机械厂,寺庄村东农业【纯农排变】,寺庄村北混合7号,前庄子西农4【纯农排变】,后庄子混合,彤霞村北农3号【纯农排变】,寺庄桥头,北龙潭【纯农排变】,孙庄农2【纯农排变】,城内大队,孙庄混合2号,北关西北农【纯农排变】,北韩庄混合4号,寺庄村北,寺庄村南,寺庄东南农【纯农排变】,寺庄混合6号变压器,寺庄村西北农10【纯农排变】,寺庄新民居配变,0667223040-望都县誉鑫铸造厂-专变-208410918-望都县誉鑫铸造厂,彤霞村路边农5号配变【纯农排变】,孙庄农1【纯农排变】,寺庄乡政府配变,前庄子西农1【纯农排变】,后庄子村北农5【纯农排变】,大辛庄正北【纯农排变】,孙庄混合,北韩庄混合2,寺庄大沟北农【纯农排变】,彤霞农1【纯农排变】,望都县鑫磊新型建材,寺庄村大辛庄道农业【纯农排变】,彤霞农4【纯农排变】,前庄子混合,寺庄社办南,寺庄乡卫生院配变,大辛庄西农业【纯农排变】,寺庄西南配变【纯农排变】,前庄子北农2【纯农排变】,孙庄村东农3【纯农排变】,寺庄农3【纯农排变】,大辛庄西北农业【纯农排变】","poweroffReason":"【停电原因】由于更换导线导致１１０ＫＶ八里庄变电站孙庄线５２８线路全线停电 【变更送电】因工作提前完工原因，送电时间由２１：００变更为０９：００ 【发布渠道】保定市望都有线电视台（０６月１０日至０６月１９日１９时００分至２０时００分之间）屏幕上方滚动","powerTime":"2019-06-20 08:21:48","powerComm":"已送电","subsNo":"","lineNo":"","tgNo":"","tgName":null,"infoStatus":"1","orgName":"国网望都县供电公司","typeName":null,"infoStatusName":null,"dateDay":null,"orgNos":null,"nowTime":null,"countyName":null,"streetName":null,"villageName":null,"roadName":null,"communityName":null,"tranName":null,"sdLineName":null,"cityCode":"1340623","cityName":"国网望都县供电公司","provinceCode":null,"stopTime":"2019-06-20 09:00:00","powerType":"全部","powerOffArea":"【全线路停电】停长城机械,望都县锦运仓储服务部,后庄子鱼塘混3,寺庄村混9配变,寺庄农5【纯农排变】,寺庄坟配变【纯农排变】,大辛庄西南农【纯农排变】,前庄子东农3【纯农排变】,后庄子混2,寺庄农7【纯农排变】,大辛庄村北农【纯农排变】,大辛庄红星机械厂,寺庄村东农业【纯农排变】,寺庄村北混合7号,前庄子西农4【纯农排变】,后庄子混合,彤霞村北农3号【纯农排变】,寺庄桥头,北龙潭【纯农排变】,孙庄农2【纯农排变】,城内大队,孙庄混合2号,北关西北农【纯农排变】,北韩庄混合4号,寺庄村北,寺庄村南,寺庄东南农【纯农排变】,寺庄混合6号变压器,寺庄村西北农10【纯农排变】,寺庄新民居配变,0667223040-望都县誉鑫铸造厂-专变-208410918-望都县誉鑫铸造厂,彤霞村路边农5号配变【纯农排变】,孙庄农1【纯农排变】,寺庄乡政府配变,前庄子西农1【纯农排变】,后庄子村北农5【纯农排变】,大辛庄正北【纯农排变】,孙庄混合,北韩庄混合2,寺庄大沟北农【纯农排变】,彤霞农1【纯农排变】,望都县鑫磊新型建材,寺庄村大辛庄道农业【纯农排变】,彤霞农4【纯农排变】,前庄子混合,寺庄社办南,寺庄乡卫生院配变,大辛庄西农业【纯农排变】,寺庄西南配变【纯农排变】,前庄子北农2【纯农排变】,孙庄村东农3【纯农排变】,寺庄农3【纯农排变】,大辛庄西北农业【纯农排变】","powerOffReason":"【停电原因】由于更换导线导致１１０ＫＶ八里庄变电站孙庄线５２８线路全线停电 【变更送电】因工作提前完工原因，送电时间由２１：００变更为０９：００ 【发布渠道】保定市望都有线电视台（０６月１０日至０６月１９日１９时００分至２０时００分之间）屏幕上方滚动","powerOffId":"2019060913000110"},{"poweroffId":2019060813000090,"sgpoweroffId":null,"subsName":"","lineName":"黄庄I线534","pubTranName":"唐会内北,唐会村内东,北岗子东北2号【纯农排变】,东安里村内,唐会村东北2号【纯农排变】,东安里东北2号【纯农排变】,唐会村南,北岗子内东,唐灰东北【纯农排变】,北岗子东北3号【纯农排变】,唐会村内西南,唐会道农业【纯农排变】,北岗子东北【纯农排变】,唐会村东【纯农排变】,北岗子村内,东安里内东,唐会村北2号【纯农排变】,唐会村北,唐会内西北,北岗子内南,东安里东北1号【纯农排变】,","scope":"【影响街道/乡镇】固店镇、黑堡乡 【高危重要客户】无　　 【影响客户】唐会、东安里、北岗子、北阳村部分农业、南岗子（西北）农业","startTime":"2019-06-23 06:00:00","stopDate":"2019-06-23 20:00:00","orgNo":"1340623","typeCode":"计划停电","poweroffArea":"【分支停电】停北岗子东北3号【纯农排变】,唐灰东北【纯农排变】,唐会村内西南,唐会道农业【纯农排变】,北岗子东北【纯农排变】,唐会村东【纯农排变】,北岗子村内,东安里内东,唐会村北2号【纯农排变】,唐会村北,唐会内西北,北岗子内南,东安里东北1号【纯农排变】,东安里东北2号【纯农排变】,唐会内北,唐会村内东,北岗子东北2号【纯农排变】,东安里村内,唐会村东北2号【纯农排变】,唐会村南,北岗子内东","poweroffReason":"【停电原因】由于更换导线导致２２０ＫＶ固店变电站黄庄Ｉ线５３４线路０２９号杆５３４６号开关以下线路停电 【变更送电】因工作提前完工原因，送电时间由２１：００变更为２０：００ 【发布渠道】望都有线电视台（06月22日19时00分至20时00分之间）屏幕上方滚动","powerTime":"2019-06-23 19:20:05","powerComm":"已送电","subsNo":"","lineNo":"","tgNo":"","tgName":null,"infoStatus":"1","orgName":"国网望都县供电公司","typeName":null,"infoStatusName":null,"dateDay":null,"orgNos":null,"nowTime":null,"countyName":null,"streetName":null,"villageName":null,"roadName":null,"communityName":null,"tranName":null,"sdLineName":null,"cityCode":"1340623","cityName":"国网望都县供电公司","provinceCode":null,"stopTime":"2019-06-23 20:00:00","powerType":"全部","powerOffArea":"【分支停电】停北岗子东北3号【纯农排变】,唐灰东北【纯农排变】,唐会村内西南,唐会道农业【纯农排变】,北岗子东北【纯农排变】,唐会村东【纯农排变】,北岗子村内,东安里内东,唐会村北2号【纯农排变】,唐会村北,唐会内西北,北岗子内南,东安里东北1号【纯农排变】,东安里东北2号【纯农排变】,唐会内北,唐会村内东,北岗子东北2号【纯农排变】,东安里村内,唐会村东北2号【纯农排变】,唐会村南,北岗子内东","powerOffReason":"【停电原因】由于更换导线导致２２０ＫＶ固店变电站黄庄Ｉ线５３４线路０２９号杆５３４６号开关以下线路停电 【变更送电】因工作提前完工原因，送电时间由２１：００变更为２０：００ 【发布渠道】望都有线电视台（06月22日19时00分至20时00分之间）屏幕上方滚动","powerOffId":"2019060813000090"},{"poweroffId":2019060613000805,"sgpoweroffId":null,"subsName":"","lineName":"太保营线514","pubTranName":"常乐10号,师庄14号,常乐11号,常乐13号,常乐14号,常乐1号,常乐2号,常乐3号【纯农排变】,常乐4号【纯农排变】,常乐5号,常乐6号,常乐7号【纯农排变】,常乐8号【纯农排变】,常乐9号,东庄1号,东庄2号,东庄3号【纯农排变】,东庄4号【纯农排变】,留东营1号,留东营2号,留东营3号【纯农排变】,留东营4号,留东营5号【纯农排变】,留东营7号【纯农排变】,东庄5号,留东营8号,南高桥10号,南高桥11号,南高桥12号,南高桥16号,南高桥1号【纯农排变】,南高桥14号【纯农排变】,南高桥18号,南高桥4号【纯农排变】,南庄1号,南庄2号【纯农排变】,南庄3号【纯农排变】,南庄4号【纯农排变】,师庄10号,师庄11号,师庄12号,师庄13号,师庄15号,师庄16号,师庄1号,师庄2号【纯农排变】,师庄3号,师庄4号【纯农排变】,师庄5号,师庄6号【纯农排变】,师庄7号,师庄8号,师庄9号,太保营15号,太保营16号,太保营6号,田庄1号【纯农排变】,田庄2号,田庄3号,田庄4号【纯农排变】,","scope":"【影响街道/乡镇】留村乡 【高危重要客户】无 【影响客户】师庄、田庄、南庄、东庄、留东营、南高桥村、常乐村","startTime":"2019-06-19 07:00:00","stopDate":"2019-06-19 20:00:00","orgNo":"1340605","typeCode":"计划停电","poweroffArea":"【分支停电】停师庄14号,常乐10号,常乐11号,常乐13号,常乐14号,常乐1号,常乐2号,常乐3号【纯农排变】,常乐4号【纯农排变】,常乐5号,常乐6号,常乐7号【纯农排变】,常乐8号【纯农排变】,常乐9号,东庄1号,东庄2号,东庄3号【纯农排变】,东庄4号【纯农排变】,留东营1号,留东营2号,留东营3号【纯农排变】,留东营4号,留东营5号【纯农排变】,留东营7号【纯农排变】,东庄5号,留东营8号,南高桥10号,南高桥11号,南高桥12号,南高桥16号,南高桥1号【纯农排变】,南高桥14号【纯农排变】,南高桥18号,南高桥4号【纯农排变】,南庄1号,南庄2号【纯农排变】,南庄3号【纯农排变】,南庄4号【纯农排变】,师庄10号,师庄11号,师庄12号,师庄13号,师庄15号,师庄16号,师庄1号,师庄2号【纯农排变】,师庄3号,师庄4号【纯农排变】,师庄5号,师庄6号【纯农排变】,师庄7号,师庄8号,师庄9号,太保营15号,太保营16号,太保营6号,田庄1号【纯农排变】,田庄2号,田庄3号,田庄4号【纯农排变】","poweroffReason":"【停电原因】由于计划检修导致３５ＫＶ漕河变电站太保营线５１４线路０７号杆分段开关以下线路停电 【变更送电】无 【发布渠道】通过河北省保定市徐水电视台游走滚动字幕播放（２０１９年０６月１２日０８:００至０６月１８日２０:００）","powerTime":"2019-06-19 19:36:44","powerComm":"已送电","subsNo":"","lineNo":"","tgNo":"","tgName":null,"infoStatus":"1","orgName":"国网徐水县供电公司","typeName":null,"infoStatusName":null,"dateDay":null,"orgNos":null,"nowTime":null,"countyName":null,"streetName":null,"villageName":null,"roadName":null,"communityName":null,"tranName":null,"sdLineName":null,"cityCode":"1340605","cityName":"国网徐水县供电公司","provinceCode":null,"stopTime":"2019-06-19 20:00:00","powerType":"全部","powerOffArea":"【分支停电】停师庄14号,常乐10号,常乐11号,常乐13号,常乐14号,常乐1号,常乐2号,常乐3号【纯农排变】,常乐4号【纯农排变】,常乐5号,常乐6号,常乐7号【纯农排变】,常乐8号【纯农排变】,常乐9号,东庄1号,东庄2号,东庄3号【纯农排变】,东庄4号【纯农排变】,留东营1号,留东营2号,留东营3号【纯农排变】,留东营4号,留东营5号【纯农排变】,留东营7号【纯农排变】,东庄5号,留东营8号,南高桥10号,南高桥11号,南高桥12号,南高桥16号,南高桥1号【纯农排变】,南高桥14号【纯农排变】,南高桥18号,南高桥4号【纯农排变】,南庄1号,南庄2号【纯农排变】,南庄3号【纯农排变】,南庄4号【纯农排变】,师庄10号,师庄11号,师庄12号,师庄13号,师庄15号,师庄16号,师庄1号,师庄2号【纯农排变】,师庄3号,师庄4号【纯农排变】,师庄5号,师庄6号【纯农排变】,师庄7号,师庄8号,师庄9号,太保营15号,太保营16号,太保营6号,田庄1号【纯农排变】,田庄2号,田庄3号,田庄4号【纯农排变】","powerOffReason":"【停电原因】由于计划检修导致３５ＫＶ漕河变电站太保营线５１４线路０７号杆分段开关以下线路停电 【变更送电】无 【发布渠道】通过河北省保定市徐水电视台游走滚动字幕播放（２０１９年０６月１２日０８:００至０６月１８日２０:００）","powerOffId":"2019060613000805"},{"poweroffId":2019060613000772,"sgpoweroffId":null,"subsName":"","lineName":"10kV574大因线","pubTranName":"汉阳3号,汉阳1号,汉阳4号,","scope":"【影响街道/乡镇】大因镇 【高危重要客户】无 【影响客户】汉阳","startTime":"2019-06-18 06:00:00","stopDate":"2019-06-18 15:00:00","orgNo":"1340605","typeCode":"计划停电","poweroffArea":"【分支停电】停汉阳3号,汉阳4号,汉阳1号","poweroffReason":"【停电原因】由于线路检修导致１１０ＫＶ沙口变电站大因线５７４线路６２号杆分段开关以下线路停电 【变更送电】无 【发布渠道】通过河北省保定市徐水电视台游走滚动字幕播放（２０１９年０６月１１日０８:００至０６月１７日２０:００）","powerTime":"2019-06-18 14:19:52","powerComm":"已送电","subsNo":"","lineNo":"","tgNo":"","tgName":null,"infoStatus":"1","orgName":"国网徐水县供电公司","typeName":null,"infoStatusName":null,"dateDay":null,"orgNos":null,"nowTime":null,"countyName":null,"streetName":null,"villageName":null,"roadName":null,"communityName":null,"tranName":null,"sdLineName":null,"cityCode":"1340605","cityName":"国网徐水县供电公司","provinceCode":null,"stopTime":"2019-06-18 15:00:00","powerType":"全部","powerOffArea":"【分支停电】停汉阳3号,汉阳4号,汉阳1号","powerOffReason":"【停电原因】由于线路检修导致１１０ＫＶ沙口变电站大因线５７４线路６２号杆分段开关以下线路停电 【变更送电】无 【发布渠道】通过河北省保定市徐水电视台游走滚动字幕播放（２０１９年０６月１１日０８:００至０６月１７日２０:００）","powerOffId":"2019060613000772"}],"pageModel":{"pageNow":944,"totalCount":10973,"totalPage":1098,"tableRows":0,"pageCount":10,"beginCount":9430},"isExperi":"1"}