{"message":"","today":"2020-06-15","seleList":[{"poweroffId":2018063013000403,"sgpoweroffId":null,"subsName":"","lineName":"尚家柳线522","pubTranName":"07131|尚家柳综合0503,恒立(2号),翟老五,07146|北尖东北农排0519【纯农排变】,高阳县昱东棉纺织厂变压器,王丙文,07245|尚家柳农业村北3#农排5651【纯农排变】,高阳县嘉信市政建设有限公司变压器,张立春,甄小建,07142|北尖4变综合0419,河北六阳纺织品有限公司,07243|尚家柳农业村南1#农排5648【纯农排变】,尖窝面粉厂,高阳县晋庄镇尚家柳村委会二变压器,翟文杰,南尖道北综合,高阳县晋庄镇尚家柳村委会一变压器,赵万通,07140|北尖5#综合0505,南尖村北农业变压器,高阳县胜达毛巾厂变压器,中国石油华北油田公司第一采油厂西柳作业区（高64#）变压器,高阳县喜君巾被厂变压器,尚家柳(北),南尖染厂变压器减容,杨庄农业,尚家柳村东新增综合,高阳南光纺织公司,北尖大队综合0394,07244|尚家柳农业村中2#农排5649【纯农排变】,07143|北尖东南农排0516【纯农排变】,甄喜合,王丙文毛巾厂,南尖大队农业,代占良,张杰,南尖制线厂,南光纺织有限公司,韩二强,高阳县中金电力金具厂设备,高阳县晋庄镇西杨庄村变压器,070013|六合庄农业2#4975【纯农排变】,高阳县邢家南镇六合庄村民委员会一变压器,恒立纺织印染有限公司,天海巾被有限公司,代艳昌,南尖纺织厂变压器减容,南尖农排8台区【纯农排变】,北尖絮片厂,翟敬通,高阳县建鑫毛巾厂变压器,高阳县美天使纺织品有限公司变压器,北尖公路北综合,0728|尚家柳2#综合0400,070006|六合庄农业3#4976【纯农排变】,北尖西北农排【纯农排变】,喜君纺织公司,070010|六合庄农业1#4974【纯农排变】,07141|北尖大队综合0435,北尖东北新增综合,华通医用器材公司,南尖农排3台区【纯农排变】,河北旭万格纺织有限公司变压器,高阳县恒立纺织印染有限公司变压器,宋延宾,河北伊佩姿纺织有限公司变压器,旭阳巾被厂,南尖农业,南尖农排5台区【纯农排变】,南尖农排2台区【纯农排变】,07145|北尖村中农排0517【纯农排变】,北尖大队,邓新海,高阳县双凤毛巾厂电压器,杨庄综合0402,尚家柳(北副业),翟志强,代志安,高阳县鑫星巾被厂变压器,向阳毛纺厂,保定市武警支队一中队,0727|尚家柳1#综合0399,","scope":"【影响街道/乡镇】晋庄乡、邢南乡 【高危重要客户】无 【影响客户】杨庄（杨家庄）、尚家柳、北尖（北尖窝）、六合庄、南尖窝","startTime":"2018-06-30 16:36:50","stopDate":"2018-06-30 18:30:00","orgNo":"1340613","typeCode":"电网故障停限电","poweroffArea":"【全线路停电】停高阳县中金电力金具厂设备,07244|尚家柳农业村中2#农排5649【纯农排变】,翟老五,保定市武警支队一中队,尚家柳(北),河北伊佩姿纺织有限公司变压器,翟文杰,北尖大队综合0394,代占良,尚家柳村东新增综合,张立春,07145|北尖村中农排0517【纯农排变】,南尖农排5台区【纯农排变】,高阳县昱东棉纺织厂变压器,高阳县恒立纺织印染有限公司变压器,宋延宾,南尖农业,070013|六合庄农业2#4975【纯农排变】,中国石油华北油田公司第一采油厂西柳作业区（高64#）变压器,向阳毛纺厂,杨庄农业,南尖村北农业变压器,070010|六合庄农业1#4974【纯农排变】,高阳县晋庄镇尚家柳村委会一变压器,07146|北尖东北农排0519【纯农排变】,南尖纺织厂变压器减容,河北六阳纺织品有限公司,高阳县嘉信市政建设有限公司变压器,代艳昌,华通医用器材公司,北尖絮片厂,高阳县双凤毛巾厂电压器,甄小建,河北旭万格纺织有限公司变压器,高阳县晋庄镇尚家柳村委会二变压器,恒立(2号),代志安,07141|北尖大队综合0435,07245|尚家柳农业村北3#农排5651【纯农排变】,南尖农排8台区【纯农排变】,0727|尚家柳1#综合0399,高阳县胜达毛巾厂变压器,张杰,07142|北尖4变综合0419,高阳南光纺织公司,南尖染厂变压器减容,高阳县喜君巾被厂变压器,高阳县美天使纺织品有限公司变压器,南尖农排2台区【纯农排变】,北尖西北农排【纯农排变】,高阳县鑫星巾被厂变压器,旭阳巾被厂,高阳县邢家南镇六合庄村民委员会一变压器,王丙文,南尖制线厂,尚家柳(北副业),天海巾被有限公司,南尖大队农业,070006|六合庄农业3#4976【纯农排变】,甄喜合,南光纺织有限公司,北尖大队,高阳县晋庄镇西杨庄村变压器,翟敬通,邓新海,赵万通,杨庄综合0402,南尖道北综合,北尖公路北综合,翟志强,07243|尚家柳农业村南1#农排5648【纯农排变】,07143|北尖东南农排0516【纯农排变】,尖窝面粉厂,高阳县建鑫毛巾厂变压器,恒立纺织印染有限公司,喜君纺织公司,王丙文毛巾厂,北尖东北新增综合,韩二强,07131|尚家柳综合0503,0728|尚家柳2#综合0400,07140|北尖5#综合0505,南尖农排3台区【纯农排变】","poweroffReason":"【停电原因】由于外力破坏导致２２０ＫＶ高阳变电站尚家柳５２２线路全线停电【变更送电】因抢修进度加快原因，送电时间由２０：００变更为１８：３０【发布渠道】９５５９８","powerTime":"2018-06-30 18:00:24","powerComm":"已送电","subsNo":"","lineNo":"","tgNo":"","tgName":null,"infoStatus":"1","orgName":"国网高阳县供电公司","typeName":null,"infoStatusName":null,"dateDay":null,"orgNos":null,"nowTime":null,"countyName":null,"streetName":null,"villageName":null,"roadName":null,"communityName":null,"tranName":null,"sdLineName":null,"cityCode":"1340613","cityName":"国网高阳县供电公司","provinceCode":null,"stopTime":"2018-06-30 18:30:00","powerType":"全部","powerOffArea":"【全线路停电】停高阳县中金电力金具厂设备,07244|尚家柳农业村中2#农排5649【纯农排变】,翟老五,保定市武警支队一中队,尚家柳(北),河北伊佩姿纺织有限公司变压器,翟文杰,北尖大队综合0394,代占良,尚家柳村东新增综合,张立春,07145|北尖村中农排0517【纯农排变】,南尖农排5台区【纯农排变】,高阳县昱东棉纺织厂变压器,高阳县恒立纺织印染有限公司变压器,宋延宾,南尖农业,070013|六合庄农业2#4975【纯农排变】,中国石油华北油田公司第一采油厂西柳作业区（高64#）变压器,向阳毛纺厂,杨庄农业,南尖村北农业变压器,070010|六合庄农业1#4974【纯农排变】,高阳县晋庄镇尚家柳村委会一变压器,07146|北尖东北农排0519【纯农排变】,南尖纺织厂变压器减容,河北六阳纺织品有限公司,高阳县嘉信市政建设有限公司变压器,代艳昌,华通医用器材公司,北尖絮片厂,高阳县双凤毛巾厂电压器,甄小建,河北旭万格纺织有限公司变压器,高阳县晋庄镇尚家柳村委会二变压器,恒立(2号),代志安,07141|北尖大队综合0435,07245|尚家柳农业村北3#农排5651【纯农排变】,南尖农排8台区【纯农排变】,0727|尚家柳1#综合0399,高阳县胜达毛巾厂变压器,张杰,07142|北尖4变综合0419,高阳南光纺织公司,南尖染厂变压器减容,高阳县喜君巾被厂变压器,高阳县美天使纺织品有限公司变压器,南尖农排2台区【纯农排变】,北尖西北农排【纯农排变】,高阳县鑫星巾被厂变压器,旭阳巾被厂,高阳县邢家南镇六合庄村民委员会一变压器,王丙文,南尖制线厂,尚家柳(北副业),天海巾被有限公司,南尖大队农业,070006|六合庄农业3#4976【纯农排变】,甄喜合,南光纺织有限公司,北尖大队,高阳县晋庄镇西杨庄村变压器,翟敬通,邓新海,赵万通,杨庄综合0402,南尖道北综合,北尖公路北综合,翟志强,07243|尚家柳农业村南1#农排5648【纯农排变】,07143|北尖东南农排0516【纯农排变】,尖窝面粉厂,高阳县建鑫毛巾厂变压器,恒立纺织印染有限公司,喜君纺织公司,王丙文毛巾厂,北尖东北新增综合,韩二强,07131|尚家柳综合0503,0728|尚家柳2#综合0400,07140|北尖5#综合0505,南尖农排3台区【纯农排变】","powerOffReason":"【停电原因】由于外力破坏导致２２０ＫＶ高阳变电站尚家柳５２２线路全线停电【变更送电】因抢修进度加快原因，送电时间由２０：００变更为１８：３０【发布渠道】９５５９８","powerOffId":"2018063013000403"},{"poweroffId":2018063013000381,"sgpoweroffId":null,"subsName":"","lineName":"大马庄线539","pubTranName":"郝庄六台区,","scope":"【影响街道/乡镇】刘李庄镇 【高危重要客户】无 【影响客户】郝庄","startTime":"2018-06-30 16:00:22","stopDate":"2018-06-30 17:30:00","orgNo":"1340607","typeCode":"电网故障停限电","poweroffArea":"【单台区停电】停郝庄六台区","poweroffReason":"【停电原因】由于低压线断导致１１０ＫＶ杨庄变电站大马庄线５３９线路郝庄六号公变台区停电 【变更送电】因抢修进度加快原因，送电时间由２０：００变更为１７：３０ 【发布渠道】通过９５５９８发布","powerTime":"2018-06-30 17:11:46","powerComm":"已送电","subsNo":"","lineNo":"","tgNo":"","tgName":null,"infoStatus":"1","orgName":"(原)国网安新县供电公司","typeName":null,"infoStatusName":null,"dateDay":null,"orgNos":null,"nowTime":null,"countyName":null,"streetName":null,"villageName":null,"roadName":null,"communityName":null,"tranName":null,"sdLineName":null,"cityCode":"1340607","cityName":"(原)国网安新县供电公司","provinceCode":null,"stopTime":"2018-06-30 17:30:00","powerType":"全部","powerOffArea":"【单台区停电】停郝庄六台区","powerOffReason":"【停电原因】由于低压线断导致１１０ＫＶ杨庄变电站大马庄线５３９线路郝庄六号公变台区停电 【变更送电】因抢修进度加快原因，送电时间由２０：００变更为１７：３０ 【发布渠道】通过９５５９８发布","powerOffId":"2018063013000381"},{"poweroffId":2018063013000366,"sgpoweroffId":null,"subsName":"","lineName":"兴胜579","pubTranName":"许庄安置区4变压器,许庄北,许庄东2,许庄安置区2变压器,许庄变电站,许庄中,许庄安置区3-2变压器,工业园区路灯2-1,许庄安置区3-1变压器,0552299974-高碑店市白沟镇许庄村(许庄安置小区)-专变-50703846-高碑店市白沟镇许庄村（许庄安置小区）变压器,","scope":"【影响街道/乡镇】白沟镇 【高危重要客户】无 【影响客户】许庄村、许庄安置小区、河道国际电商产业园、工业园区","startTime":"2018-06-30 15:27:47","stopDate":"2018-06-30 20:00:00","orgNo":"1340612","typeCode":"电网故障停限电","poweroffArea":"【分支停电】停工业园区路灯2-1,许庄安置区2变压器,许庄安置区3-1变压器,许庄变电站,许庄中,许庄安置区4变压器,许庄安置区3-2变压器,许庄北,0552299974-高碑店市白沟镇许庄村(许庄安置小区)-专变-50703846-高碑店市白沟镇许庄村（许庄安置小区）变压器,许庄东2","poweroffReason":"【停电原因】由于修路工程队挖断高压电缆导致１１０ＫＶ南留变电站１０ＫＶ兴盛５７９线路０２号断路器以下停电 【变更送电】无 【发布渠道】通过９５５９８发布","powerTime":"2018-06-30 19:39:04","powerComm":"已送电","subsNo":"","lineNo":"","tgNo":"","tgName":null,"infoStatus":"1","orgName":"国网高碑店市供电公司","typeName":null,"infoStatusName":null,"dateDay":null,"orgNos":null,"nowTime":null,"countyName":null,"streetName":null,"villageName":null,"roadName":null,"communityName":null,"tranName":null,"sdLineName":null,"cityCode":"1340612","cityName":"国网高碑店市供电公司","provinceCode":null,"stopTime":"2018-06-30 20:00:00","powerType":"全部","powerOffArea":"【分支停电】停工业园区路灯2-1,许庄安置区2变压器,许庄安置区3-1变压器,许庄变电站,许庄中,许庄安置区4变压器,许庄安置区3-2变压器,许庄北,0552299974-高碑店市白沟镇许庄村(许庄安置小区)-专变-50703846-高碑店市白沟镇许庄村（许庄安置小区）变压器,许庄东2","powerOffReason":"【停电原因】由于修路工程队挖断高压电缆导致１１０ＫＶ南留变电站１０ＫＶ兴盛５７９线路０２号断路器以下停电 【变更送电】无 【发布渠道】通过９５５９８发布","powerOffId":"2018063013000366"},{"poweroffId":2018063013000364,"sgpoweroffId":null,"subsName":"","lineName":"玉山线513","pubTranName":"神湖四季生态园1号,荆山路北,天祥化工,大娄村南,满城县卫东林果社,荆山西北,冉景坡,小娄路边,小娄村东,大娄村机井,大楼田连生,中国移动通信集团河北有限公司满城分公司,林风果品250KVA配变1号,富强面粉厂,0671316817-南水北调中线干线工程建设管理局河北分局-专变-212142838-南水北调中线干线保定管理处,大元2号,晶华石材厂,大水渠郭庆伟,大楼南胡同,大娄红沙沟2号,大娄庙坡,荆山西南,荆山村北路边,荆山大元1号,大娄三角地井,大娄石头坡,荆山村北照明,林风果品250KVA配变2号,冉栓路,大娄吃水井,荆山钙粉厂,神星小庄新增,冉玉林,荆山村边,玉山玻璃制品,大楼村北,太平山,满城县吴庄馒头山石碴厂400计量点,玉山城坡岭,大娄黄来,大楼西壕,保定市满城区三发养殖场,满城县吴庄馒头山石碴厂315计量点,神星大长地,大娄红沙沟3号,荆山苑启面粉厂,大娄果园,金星粉末制剂厂,大楼村东新增,冯青包装厂,果园井,冉喜良,康泰养殖2,小楼路南,大娄古山北,大娄红沙沟,玉山村南,大娄大寨,荆山村东新增,神星养猪厂,晶华石材厂2号,大楼高渠,小楼村南,玉山村北1号,玉山村西,古山南边,玉山村南3号,小楼新增,东方沙石厂,味美源有限公司,小楼村北,荆山村西,永兴沙石厂,康泰养殖1号,保满石料厂,九龙机井,玉山大峪,小楼村新增,大娄西壕2号,荆山桥西,0387463867-荆山村南-专变-45293922-荆山村南,玉山路边,大娄古山南,荆山灿,0387465212-荆山南沟-专变-45294030-荆山南沟,大娄古山东2号,大楼村东,塑料厂,田镇坡新增,荆山村西新增,崔昆砖厂,神星吃水井,荆山新增,味香源食品厂,玉山福利厂,大娄白灰厂,荆山村东,冉连套新增,荆山四季水泥砖厂,大楼南坡,荆山南壕,满城县恒昌纸制品厂,玉山南坡,大娄村北,大楼村西,玉山,大娄李角门,神湖四季生态园2,赵文力猪厂,冉祥养殖厂,新兴灰厂,荆山养猪厂,大娄桑园,小楼新增（统管）,大娄曹坡,满城县吴庄馒头山石碴厂,大楼南台,太平钙粉厂,荆山村机井,大娄涵洞口,大娄天角,天角2号,满城县吴庄馒头山石碴厂计量点 400KVA,","scope":"【影响街道/乡镇】神星镇 【高危重要客户】无 【影响客户】大楼（娄）村、荆山村、小楼（娄）村、玉山村","startTime":"2018-06-30 15:34:15","stopDate":"2018-06-30 18:20:00","orgNo":"1340617","typeCode":"超电网供电能力停限电","poweroffArea":"【全线路停电】停玉山南坡,神星小庄新增,天祥化工,0387463867-荆山村南-专变-45293922-荆山村南,荆山大元1号,大娄白灰厂,东方沙石厂,玉山城坡岭,荆山四季水泥砖厂,满城县吴庄馒头山石碴厂计量点 400KVA,新兴灰厂,富强面粉厂,荆山钙粉厂,大娄村机井,晶华石材厂2号,果园井,神星大长地,荆山灿,太平山,晶华石材厂,冉栓路,大娄西壕2号,荆山村北路边,大楼田连生,小楼村北,林风果品250KVA配变1号,荆山村机井,荆山苑启面粉厂,大娄古山东2号,满城县吴庄馒头山石碴厂,小楼村新增,大娄红沙沟2号,荆山西南,大娄古山南,神星吃水井,大娄果园,玉山村北1号,大娄古山北,大娄红沙沟,大娄天角,荆山路北,大娄村南,大娄石头坡,大娄庙坡,荆山西北,九龙机井,小娄村东,神星养猪厂,玉山路边,满城县吴庄馒头山石碴厂315计量点,康泰养殖2,古山南边,荆山养猪厂,大娄三角地井,大水渠郭庆伟,荆山村西新增,味香源食品厂,崔昆砖厂,大娄吃水井,冯青包装厂,金星粉末制剂厂,味美源有限公司,满城县吴庄馒头山石碴厂400计量点,荆山村西,冉祥养殖厂,满城县卫东林果社,塑料厂,大楼南台,冉连套新增,中国移动通信集团河北有限公司满城分公司,大娄大寨,满城县恒昌纸制品厂,0387465212-荆山南沟-专变-45294030-荆山南沟,大娄涵洞口,大楼村东,小楼新增（统管）,玉山村南3号,玉山大峪,大楼西壕,大娄桑园,大楼村东新增,0671316817-南水北调中线干线工程建设管理局河北分局-专变-212142838-南水北调中线干线保定管理处,小楼新增,荆山新增,小娄路边,小楼路南,荆山南壕,小楼村南,大娄红沙沟3号,荆山村边,玉山村南,天角2号,大楼村北,赵文力猪厂,大楼南坡,林风果品250KVA配变2号,玉山福利厂,大娄黄来,冉玉林,冉喜良,荆山村东,田镇坡新增,大娄曹坡,永兴沙石厂,冉景坡,大楼南胡同,大元2号,保定市满城区三发养殖场,荆山村北照明,玉山玻璃制品,太平钙粉厂,大楼高渠,神湖四季生态园1号,荆山村东新增,荆山桥西,大楼村西,大娄村北,康泰养殖1号,玉山,大娄李角门,神湖四季生态园2,玉山村西,保满石料厂","poweroffReason":"【停电原因】由于变电站主变过负荷导致３５ＫＶ神星变电站玉山线５１３线路全线停电 【变更送电】因抢修进度加快原因，送电时间由２３：５５变更为１８：２０ 【发布渠道】９５５９８","powerTime":"2018-06-30 18:10:24","powerComm":"已送电","subsNo":"","lineNo":"","tgNo":"","tgName":null,"infoStatus":"1","orgName":"国网满城县供电公司","typeName":null,"infoStatusName":null,"dateDay":null,"orgNos":null,"nowTime":null,"countyName":null,"streetName":null,"villageName":null,"roadName":null,"communityName":null,"tranName":null,"sdLineName":null,"cityCode":"1340617","cityName":"国网满城县供电公司","provinceCode":null,"stopTime":"2018-06-30 18:20:00","powerType":"全部","powerOffArea":"【全线路停电】停玉山南坡,神星小庄新增,天祥化工,0387463867-荆山村南-专变-45293922-荆山村南,荆山大元1号,大娄白灰厂,东方沙石厂,玉山城坡岭,荆山四季水泥砖厂,满城县吴庄馒头山石碴厂计量点 400KVA,新兴灰厂,富强面粉厂,荆山钙粉厂,大娄村机井,晶华石材厂2号,果园井,神星大长地,荆山灿,太平山,晶华石材厂,冉栓路,大娄西壕2号,荆山村北路边,大楼田连生,小楼村北,林风果品250KVA配变1号,荆山村机井,荆山苑启面粉厂,大娄古山东2号,满城县吴庄馒头山石碴厂,小楼村新增,大娄红沙沟2号,荆山西南,大娄古山南,神星吃水井,大娄果园,玉山村北1号,大娄古山北,大娄红沙沟,大娄天角,荆山路北,大娄村南,大娄石头坡,大娄庙坡,荆山西北,九龙机井,小娄村东,神星养猪厂,玉山路边,满城县吴庄馒头山石碴厂315计量点,康泰养殖2,古山南边,荆山养猪厂,大娄三角地井,大水渠郭庆伟,荆山村西新增,味香源食品厂,崔昆砖厂,大娄吃水井,冯青包装厂,金星粉末制剂厂,味美源有限公司,满城县吴庄馒头山石碴厂400计量点,荆山村西,冉祥养殖厂,满城县卫东林果社,塑料厂,大楼南台,冉连套新增,中国移动通信集团河北有限公司满城分公司,大娄大寨,满城县恒昌纸制品厂,0387465212-荆山南沟-专变-45294030-荆山南沟,大娄涵洞口,大楼村东,小楼新增（统管）,玉山村南3号,玉山大峪,大楼西壕,大娄桑园,大楼村东新增,0671316817-南水北调中线干线工程建设管理局河北分局-专变-212142838-南水北调中线干线保定管理处,小楼新增,荆山新增,小娄路边,小楼路南,荆山南壕,小楼村南,大娄红沙沟3号,荆山村边,玉山村南,天角2号,大楼村北,赵文力猪厂,大楼南坡,林风果品250KVA配变2号,玉山福利厂,大娄黄来,冉玉林,冉喜良,荆山村东,田镇坡新增,大娄曹坡,永兴沙石厂,冉景坡,大楼南胡同,大元2号,保定市满城区三发养殖场,荆山村北照明,玉山玻璃制品,太平钙粉厂,大楼高渠,神湖四季生态园1号,荆山村东新增,荆山桥西,大楼村西,大娄村北,康泰养殖1号,玉山,大娄李角门,神湖四季生态园2,玉山村西,保满石料厂","powerOffReason":"【停电原因】由于变电站主变过负荷导致３５ＫＶ神星变电站玉山线５１３线路全线停电 【变更送电】因抢修进度加快原因，送电时间由２３：５５变更为１８：２０ 【发布渠道】９５５９８","powerOffId":"2018063013000364"},{"poweroffId":2018063013000356,"sgpoweroffId":null,"subsName":"","lineName":"采蒲台线515","pubTranName":"杨庄一台区,","scope":"【影响街道/乡镇】刘李庄镇 【高危重要客户】无 【影响客户】杨庄","startTime":"2018-06-30 15:27:58","stopDate":"2018-06-30 19:00:00","orgNo":"1340607","typeCode":"电网故障停限电","poweroffArea":"【单台区停电】停杨庄一台区","poweroffReason":"【停电原因】由于低压线断导致３５ＫＶ杨庄变电站采蒲台线５１５线路杨庄一号公变台区停电 【变更送电】因抢修进度加快原因，送电时间由２０：００变更为１９：００ 【发布渠道】通过９５５９８发布","powerTime":"2018-06-30 18:40:39","powerComm":"已送电","subsNo":"","lineNo":"","tgNo":"","tgName":null,"infoStatus":"1","orgName":"(原)国网安新县供电公司","typeName":null,"infoStatusName":null,"dateDay":null,"orgNos":null,"nowTime":null,"countyName":null,"streetName":null,"villageName":null,"roadName":null,"communityName":null,"tranName":null,"sdLineName":null,"cityCode":"1340607","cityName":"(原)国网安新县供电公司","provinceCode":null,"stopTime":"2018-06-30 19:00:00","powerType":"全部","powerOffArea":"【单台区停电】停杨庄一台区","powerOffReason":"【停电原因】由于低压线断导致３５ＫＶ杨庄变电站采蒲台线５１５线路杨庄一号公变台区停电 【变更送电】因抢修进度加快原因，送电时间由２０：００变更为１９：００ 【发布渠道】通过９５５９８发布","powerOffId":"2018063013000356"},{"poweroffId":2018063013000341,"sgpoweroffId":null,"subsName":"","lineName":"10kV泗庄线515","pubTranName":"高碑店市泗庄镇织带辅料制品变压器,宋辛北公变变压器,十三里东1变压器,泗庄十里铺南变压器,宋辛南变压器,高碑店市呈泰塑胶制品有限公司2#变压器,十三里东变压器,0602244635-高碑店市白沟永发五金门市部-专变-126842496-高碑店市顺和成化纤制品有限公司变压器,王玉海,赵康萍,孙建华西南,宋辛东南变压器,孙建华,0387440475-高碑店市宋辛村恒业拉头拉链门市部-专变-125746930-恒业压铸厂变压器,泗庄十里铺东台柱上变压器,高碑店市泗庄镇织带辅料制品厂变压器,高碑店市呈泰塑胶制品有限公司,十里铺村变压器,十三里西变压器,十三里西地变压器【纯农排变】,宋辛南二变压器,宋辛南公变2,纪建春,十三里西北地变压器【纯农排变】,0547125828-冯吉英-专变-47971088-呈祥泰塑胶厂2变压器,十三里东南变压器,宋辛东变压器,宋辛东南地变压器【纯农排变】,十里铺乡直变压器,十里铺南2变压器,宋辛南排,0547124795-高碑店市呈泰塑胶制品有限公司一-专变-47968751-呈祥泰塑胶厂1变压器,宋辛西变压器,宋辛南公变变压器,宋辛西南变压器,十三里西南地变压器,高碑店市呈泰塑胶制品有限公司变压器,0664708104-河北恒祥塑胶有限公司-专变-201042005-河北恒祥塑胶有限公司变压器,高碑店市顺和成化纤制品有限公司变压器,宋辛西地变压器【纯农排变】,","scope":"【影响街道/乡镇】泗庄镇、东马营镇 【高危重要客户】无 【影响客户】宋辛村、十三里村、十里铺村、恒业拉头拉链门市部、孙建华、恒祥塑胶有限公司、呈泰塑胶有限公司、保定捷高五金制品有限公司、白沟驾校、顺和城化纤制品有限公司、冯吉英、泗庄镇织带辅料制品厂、郭建民、博荣拉链厂、王玉海、保定酷奇贝微箱包制造有限公司、宋辛海绵纸厂、王义明、赵康萍","startTime":"2018-06-30 15:13:31","stopDate":"2018-06-30 19:15:00","orgNo":"1340612","typeCode":"电网故障停限电","poweroffArea":"【分支停电】停0547124795-高碑店市呈泰塑胶制品有限公司一-专变-47968751-呈祥泰塑胶厂1变压器,0602244635-高碑店市白沟永发五金门市部-专变-126842496-高碑店市顺和成化纤制品有限公司变压器,宋辛南公变2,宋辛西地变压器【纯农排变】,宋辛东南变压器,高碑店市呈泰塑胶制品有限公司,王玉海,宋辛南二变压器,十三里西北地变压器【纯农排变】,赵康萍,宋辛西变压器,宋辛北公变变压器,泗庄十里铺东台柱上变压器,孙建华,宋辛南变压器,0547125828-冯吉英-专变-47971088-呈祥泰塑胶厂2变压器,宋辛南公变变压器,高碑店市呈泰塑胶制品有限公司变压器,十三里东1变压器,宋辛东南地变压器【纯农排变】,0387440475-高碑店市宋辛村恒业拉头拉链门市部-专变-125746930-恒业压铸厂变压器,十三里东南变压器,十里铺村变压器,宋辛西南变压器,十三里西地变压器【纯农排变】,十三里西南地变压器,宋辛东变压器,高碑店市呈泰塑胶制品有限公司2#变压器,纪建春,0664708104-河北恒祥塑胶有限公司-专变-201042005-河北恒祥塑胶有限公司变压器,宋辛南排,十里铺乡直变压器,十三里西变压器,泗庄十里铺南变压器,十三里东变压器,高碑店市泗庄镇织带辅料制品变压器,高碑店市顺和成化纤制品有限公司变压器,孙建华西南,十里铺南2变压器,高碑店市泗庄镇织带辅料制品厂变压器","poweroffReason":"【停电原因】由于宋辛分支弓子线烧毁导致３５ＫＶ泗庄变电站１０ＫＶ泗庄５１５线路０４号断路器以下停电 【变更送电】因抢修进度加快原因，送电时间由２０：００变更为１９：１５ 【发布渠道】通过９５５９８发布","powerTime":"2018-06-30 19:09:01","powerComm":"已送电","subsNo":"","lineNo":"","tgNo":"","tgName":null,"infoStatus":"1","orgName":"国网高碑店市供电公司","typeName":null,"infoStatusName":null,"dateDay":null,"orgNos":null,"nowTime":null,"countyName":null,"streetName":null,"villageName":null,"roadName":null,"communityName":null,"tranName":null,"sdLineName":null,"cityCode":"1340612","cityName":"国网高碑店市供电公司","provinceCode":null,"stopTime":"2018-06-30 19:15:00","powerType":"全部","powerOffArea":"【分支停电】停0547124795-高碑店市呈泰塑胶制品有限公司一-专变-47968751-呈祥泰塑胶厂1变压器,0602244635-高碑店市白沟永发五金门市部-专变-126842496-高碑店市顺和成化纤制品有限公司变压器,宋辛南公变2,宋辛西地变压器【纯农排变】,宋辛东南变压器,高碑店市呈泰塑胶制品有限公司,王玉海,宋辛南二变压器,十三里西北地变压器【纯农排变】,赵康萍,宋辛西变压器,宋辛北公变变压器,泗庄十里铺东台柱上变压器,孙建华,宋辛南变压器,0547125828-冯吉英-专变-47971088-呈祥泰塑胶厂2变压器,宋辛南公变变压器,高碑店市呈泰塑胶制品有限公司变压器,十三里东1变压器,宋辛东南地变压器【纯农排变】,0387440475-高碑店市宋辛村恒业拉头拉链门市部-专变-125746930-恒业压铸厂变压器,十三里东南变压器,十里铺村变压器,宋辛西南变压器,十三里西地变压器【纯农排变】,十三里西南地变压器,宋辛东变压器,高碑店市呈泰塑胶制品有限公司2#变压器,纪建春,0664708104-河北恒祥塑胶有限公司-专变-201042005-河北恒祥塑胶有限公司变压器,宋辛南排,十里铺乡直变压器,十三里西变压器,泗庄十里铺南变压器,十三里东变压器,高碑店市泗庄镇织带辅料制品变压器,高碑店市顺和成化纤制品有限公司变压器,孙建华西南,十里铺南2变压器,高碑店市泗庄镇织带辅料制品厂变压器","powerOffReason":"【停电原因】由于宋辛分支弓子线烧毁导致３５ＫＶ泗庄变电站１０ＫＶ泗庄５１５线路０４号断路器以下停电 【变更送电】因抢修进度加快原因，送电时间由２０：００变更为１９：１５ 【发布渠道】通过９５５９８发布","powerOffId":"2018063013000341"},{"poweroffId":2018063013000331,"sgpoweroffId":null,"subsName":"","lineName":"苏疃线515","pubTranName":"小苏疃村东农4配变【纯农排变】,小苏疃农2配变【纯农排变】,小苏疃村东北农3配变【纯农排变】,望都县平原工程机械有限公司,小苏疃农1配变,小苏疃混合配变,","scope":"【影响街道/乡镇】寺庄乡 【高危重要客户】无 【影响客户】小苏疃、望都县平原工程机械有限公司","startTime":"2018-06-30 15:05:00","stopDate":"2018-06-30 18:00:00","orgNo":"1340623","typeCode":"电网故障停限电","poweroffArea":"【全线路停电】停望都县平原工程机械有限公司,小苏疃农2配变【纯农排变】,小苏疃农1配变,小苏疃村东北农3配变【纯农排变】,小苏疃混合配变,小苏疃村东农4配变【纯农排变】","poweroffReason":"【停电原因】由于外力破坏导致３５ＫＶ白岳变电站苏疃线５１５线路全线停电 【变更送电】因抢修进度加快原因，送电时间由２３：３０变更为１８：００ 【发布渠道】通过９５５９８发布","powerTime":"2018-06-30 17:41:11","powerComm":"已送电","subsNo":"","lineNo":"","tgNo":"","tgName":null,"infoStatus":"1","orgName":"国网望都县供电公司","typeName":null,"infoStatusName":null,"dateDay":null,"orgNos":null,"nowTime":null,"countyName":null,"streetName":null,"villageName":null,"roadName":null,"communityName":null,"tranName":null,"sdLineName":null,"cityCode":"1340623","cityName":"国网望都县供电公司","provinceCode":null,"stopTime":"2018-06-30 18:00:00","powerType":"全部","powerOffArea":"【全线路停电】停望都县平原工程机械有限公司,小苏疃农2配变【纯农排变】,小苏疃农1配变,小苏疃村东北农3配变【纯农排变】,小苏疃混合配变,小苏疃村东农4配变【纯农排变】","powerOffReason":"【停电原因】由于外力破坏导致３５ＫＶ白岳变电站苏疃线５１５线路全线停电 【变更送电】因抢修进度加快原因，送电时间由２３：３０变更为１８：００ 【发布渠道】通过９５５９８发布","powerOffId":"2018063013000331"},{"poweroffId":2018063013000296,"sgpoweroffId":null,"subsName":"","lineName":"白沙线514","pubTranName":"西白尧0312变压器,","scope":"【影响街道/乡镇】长古城乡【高危重要客户】无【影响客户】西白尧村","startTime":"2018-06-30 13:45:58","stopDate":"2018-06-30 18:00:00","orgNo":"1340622","typeCode":"电网故障停限电","poweroffArea":"【单台区停电】停西白尧0312变压器","poweroffReason":"【停电原因】由于ＪＰ柜烧导致３５ＫＶ北罗变电站白沙线５１４线路西白尧０３１２公变台区停电【变更送电】因抢修进度加快原因，送电时间由２０：００变更为１８：００【发布渠道】通过９５５９８发布","powerTime":"2018-06-30 17:17:11","powerComm":"已送电","subsNo":"","lineNo":"","tgNo":"","tgName":null,"infoStatus":"1","orgName":"国网唐县供电公司","typeName":null,"infoStatusName":null,"dateDay":null,"orgNos":null,"nowTime":null,"countyName":null,"streetName":null,"villageName":null,"roadName":null,"communityName":null,"tranName":null,"sdLineName":null,"cityCode":"1340622","cityName":"国网唐县供电公司","provinceCode":null,"stopTime":"2018-06-30 18:00:00","powerType":"全部","powerOffArea":"【单台区停电】停西白尧0312变压器","powerOffReason":"【停电原因】由于ＪＰ柜烧导致３５ＫＶ北罗变电站白沙线５１４线路西白尧０３１２公变台区停电【变更送电】因抢修进度加快原因，送电时间由２０：００变更为１８：００【发布渠道】通过９５５９８发布","powerOffId":"2018063013000296"},{"poweroffId":2018063013000267,"sgpoweroffId":null,"subsName":"","lineName":"10kV514导务线","pubTranName":"南康关东综合8368,南康关0840#农排|24000840,南康关村西1000|24001000,燕子水农业7927,柴各庄石牛2130#农排|24002130,燕子水0800|24000800,0684640732-佛光寺-专变-225174026-佛光寺200,柴各庄西燕坡2110#农排|24002110,导务西0910|24000910,北康关东北综合8456,东白司城综合7836,柴各庄村北农业2622,北康关0880#农排|24000880,北康关0920#农排|24000920,南康关0820|24000820,康北庄西综合8373,导务东0770|24000770,南康关东1900#农排|24001900,南康关东庄0830|24000830,柴各庄综合6015,北康关村0870|24000870,麦旺750|24000750,柴各庄综合8340,东安阳综合8335,南康关东1840#农排|24001840,导务0790#农排|24000790,0469472093-中国铁塔股份有限公司保定市分公司-专变-46816867-中国移动,小掌西0940#农排|24000940,小掌,柴各庄2170#农排|24002170,康北庄东综合7869,麦旺0740#农排|24000740,北康关0970#农排|24000970,南康关2460|24002460,燕子水2080#农排|24002080,柴各庄南2160|24002160,柴各庄村内农业2844,北康关村西0990|24000990,导务0780#农排|24000780,柴各庄十亩湾2120#农排|24002120,南康关南综合7861,燕子水2560#农排|24002560,柴各庄东沟2100#农排|24002100,贾合适1770#农排|24001770,东安阳0720#农排|24000720,南康关南1890#农排|24001890,北康关东庄0860|24000860,小掌东综合,康关北庄0810#农排|24000810,康关北综合2127,康北庄0950|24000950,保定太行肠衣有限公司,导务村南2610|24002610,台鱼乡政府,小掌农业8333,导务2740,柴各庄北2150|24002150,小掌0930#农排|24000930,麦旺730|24000730,麦旺0760#农排|24000760,北康关2580|24002580,东安阳西北2240#农排|24002240,","scope":"【影响街道/乡镇】台鱼乡【高危重要客户】无【影响客户】麦旺、导务、燕子水、南康关、南康关东庄、北康关东庄、北康关、小掌村、康关北庄、柴各庄、东白司城、东安阳、台鱼乡政府","startTime":"2018-06-30 13:12:14","stopDate":"2018-06-30 20:30:00","orgNo":"1340621","typeCode":"超电网供电能力停限电","poweroffArea":"【全线路停电】停南康关0840#农排|24000840,导务村南2610|24002610,0684640732-佛光寺-专变-225174026-佛光寺200,保定太行肠衣有限公司,麦旺0760#农排|24000760,导务0780#农排|24000780,东安阳综合8335,柴各庄北2150|24002150,东安阳西北2240#农排|24002240,柴各庄村北农业2622,北康关2580|24002580,小掌西0940#农排|24000940,康关北综合2127　","poweroffReason":"【停电原因】由于安阳变电站主变过负荷导致３５ＫＶ安阳变电站１０ＫＶ５１４导务线路全线停电【变更送电】因主变负荷恢复正常原因，送电时间由２２：００变更为２０：３０【发布渠道】通过９５５９８发布","powerTime":"2018-06-30 20:05:58","powerComm":"已送电","subsNo":"","lineNo":"","tgNo":"","tgName":null,"infoStatus":"1","orgName":"国网顺平县电力局","typeName":null,"infoStatusName":null,"dateDay":null,"orgNos":null,"nowTime":null,"countyName":null,"streetName":null,"villageName":null,"roadName":null,"communityName":null,"tranName":null,"sdLineName":null,"cityCode":"1340621","cityName":"国网顺平县电力局","provinceCode":null,"stopTime":"2018-06-30 20:30:00","powerType":"全部","powerOffArea":"【全线路停电】停南康关0840#农排|24000840,导务村南2610|24002610,0684640732-佛光寺-专变-225174026-佛光寺200,保定太行肠衣有限公司,麦旺0760#农排|24000760,导务0780#农排|24000780,东安阳综合8335,柴各庄北2150|24002150,东安阳西北2240#农排|24002240,柴各庄村北农业2622,北康关2580|24002580,小掌西0940#农排|24000940,康关北综合2127　","powerOffReason":"【停电原因】由于安阳变电站主变过负荷导致３５ＫＶ安阳变电站１０ＫＶ５１４导务线路全线停电【变更送电】因主变负荷恢复正常原因，送电时间由２２：００变更为２０：３０【发布渠道】通过９５５９８发布","powerOffId":"2018063013000267"},{"poweroffId":2018063013000263,"sgpoweroffId":null,"subsName":"","lineName":"十里铺线538","pubTranName":"【纯农排变】大阴村内,","scope":"【影响街道/乡镇】雄州镇 【高危重要客户】无 【影响客户】大阴村","startTime":"2018-06-30 13:02:36","stopDate":"2018-06-30 19:00:00","orgNo":"1340624","typeCode":"电网故障停限电","poweroffArea":"【单台区停电】停【纯农排变】大阴村内","poweroffReason":"【停电原因】由于低压刀闸烧毁导致１１０ＫＶ铺南变电站十里铺线５３８线路大阴村内公变台区停电 【变更送电】无 【发布渠道】通过９５５９８发布　　　　　　　　","powerTime":"2018-06-30 15:33:59","powerComm":"已送电","subsNo":"","lineNo":"","tgNo":"","tgName":null,"infoStatus":"1","orgName":"(原)国网雄县供电公司","typeName":null,"infoStatusName":null,"dateDay":null,"orgNos":null,"nowTime":null,"countyName":null,"streetName":null,"villageName":null,"roadName":null,"communityName":null,"tranName":null,"sdLineName":null,"cityCode":"1340624","cityName":"(原)国网雄县供电公司","provinceCode":null,"stopTime":"2018-06-30 19:00:00","powerType":"全部","powerOffArea":"【单台区停电】停【纯农排变】大阴村内","powerOffReason":"【停电原因】由于低压刀闸烧毁导致１１０ＫＶ铺南变电站十里铺线５３８线路大阴村内公变台区停电 【变更送电】无 【发布渠道】通过９５５９８发布　　　　　　　　","powerOffId":"2018063013000263"}],"pageModel":{"pageNow":949,"totalCount":10973,"totalPage":1098,"tableRows":0,"pageCount":10,"beginCount":9480},"isExperi":"1"}