{"message":"","today":"2020-06-15","seleList":[{"poweroffId":2018062913000548,"sgpoweroffId":null,"subsName":"","lineName":"东盛514","pubTranName":"0671179803-高碑店市广跃城市建设有限公司-专变-212318236-高碑店市广跃城市建设有限公司变压器,高碑店市公安消防大队,东盛冯漫撒西变压器【纯农排变】,光明铝合金,异型刀具,赵成武,高碑店市单单幕墙有限责任公司,闫玉山,河北合创建筑节能科技有限责任公司2#变压器,福达公司,河北雷华伟业房地产开发有限公司,高碑店市恒安房地产开发有限公司,0671906667-保定隆和房地产开发有限公司-专变-212389225-保定隆和房地产开发有限公司1#变压器,圣方机械有限公司,保定隆和房地产开发有限公司3#变压器,东盛艾各庄东变压器,张八屯水洗,东盛冯漫撒西北变压器,高碑店市金宇电磁线有限公司变压器,河北雷华物业房地产开发有限公司2变压器,保定隆和房地产开发有限公司4#变压器,保定市隆和房地产开发有限公司,东盛冯漫撒北变压器,张八屯水洗厂,高碑店市建设局,东盛办事处变压器,高碑店市路灯管理办公室（112线环岛路灯）变压器,高碑店市单单幕墙有限责任公司变压器,张八屯铁厂,高碑店市兴泰房地产开发有限公司1#变压器,李怀友变压器,高碑店市万美商贸有限公司变压器,龙腾旅游制品,立信塑业变压器,河北雷华物业房地产开发有限公司1变压器,保定隆和房地产开发有限公司1#变压器,方家务小学,高碑店市丰原汽车配件厂变压器,高碑店市路灯管理办公室（新华大街闫各庄西路灯）,东盛艾各庄地变压器,高碑店市大和环保锅炉有限公司变压器,高碑店市山农生物有限公司变压器,东盛闫各庄东变压器,保定轩宇陆威汽车销售服务有限公司变压器,变压器,东盛艾各庄变压器,东盛闫王庄北变压器,海绵厂,东盛闫各庄西变压器,高碑店市广跃城市建设有限公司,东盛艾各庄新1变压器,立信塑业,码王叉车配件,高碑店市兴泰房地产开发有限公司2#变压器,0387438029-高碑店市鑫光明玻璃有限公司-专变-217785144-高碑店市鑫光明玻璃有限公司变压器,东盛艾各庄南变压器,河北合创建筑节能科技有限责任公司变压器,东盛艾各庄新变压器,东盛闫王庄变压器,东盛闫各庄排灌变压器【纯农排变】,杨丙山,高碑店市路灯管理办公室（光华北大街路灯）变压器,112线南公变变压器,高碑店市利通设备租赁有限公司变压器,东盛张八屯西变压器,高碑店市世纪毅佳饲料有限责任公司变压器,联通公司1,高碑店市永杰汽车销售有限公司变压器,高碑店市路灯管理办公室变压器,0671906667-保定隆和房地产开发有限公司-专变-212380302-保定隆和房地产开发有限公司2#变压器,梁洪,保定隆和房地产开发有限公司2#变压器,","scope":"【影响街道/乡镇】东盛办事处、１１２线南 【高危重要客户】无 【影响客户】闫各庄村、李怀友、鑫光明玻璃有限公司、世纪毅佳饲料有限责任公司、大和环保锅炉、金宇电磁线、万美房地产、保定隆和房地产、起悦汽车贸易、路灯管理办公室、广跃城市建设有限公司、中国人寿保险高碑店分公司、龙腾旅游制品有限责任公司、恒安房地产、单单幕墙、方家务小学、保定轩宇陆威汽车销售、河北航帆箱包制造有限公司、立信神农、丰原汽车配件厂、山农生物有限公司、运恒土地整理有限公司、河北隆泰物业高碑店分公司、宏德机加工综合厂、张八屯水洗厂、高碑店市建设局、路灯管理办公室、河北赢石建筑工程有限公司、雷华物业房地产","startTime":"2018-06-30 01:00:40","stopDate":"2018-06-30 07:00:00","orgNo":"1340612","typeCode":"其他临时停电","poweroffArea":"【全线路停电】停高碑店市万美商贸有限公司变压器,高碑店市世纪毅佳饲料有限责任公司变压器,梁洪,东盛艾各庄新变压器,河北合创建筑节能科技有限责任公司变压器,高碑店市恒安房地产开发有限公司,高碑店市路灯管理办公室变压器,高碑店市山农生物有限公司变压器,高碑店市单单幕墙有限责任公司,东盛艾各庄变压器,东盛闫各庄排灌变压器【纯农排变】,东盛张八屯西变压器,高碑店市兴泰房地产开发有限公司2#变压器,112线南公变变压器,东盛办事处变压器,海绵厂,福达公司,联通公司1,高碑店市路灯管理办公室（112线环岛路灯）变压器,高碑店市永杰汽车销售有限公司变压器,河北雷华伟业房地产开发有限公司,东盛艾各庄新1变压器,东盛闫王庄北变压器,高碑店市广跃城市建设有限公司,张八屯水洗,高碑店市大和环保锅炉有限公司变压器,河北合创建筑节能科技有限责任公司2#变压器,保定隆和房地产开发有限公司1#变压器,东盛冯漫撒西北变压器,0671179803-高碑店市广跃城市建设有限公司-专变-212318236-高碑店市广跃城市建设有限公司变压器,张八屯铁厂,东盛闫王庄变压器,0671906667-保定隆和房地产开发有限公司-专变-212389225-保定隆和房地产开发有限公司1#变压器,高碑店市公安消防大队,高碑店市单单幕墙有限责任公司变压器,高碑店市兴泰房地产开发有限公司1#变压器,圣方机械有限公司,东盛闫各庄东变压器,方家务小学,杨丙山,李怀友变压器,保定轩宇陆威汽车销售服务有限公司变压器,东盛冯漫撒西变压器【纯农排变】,东盛闫各庄西变压器,河北雷华物业房地产开发有限公司2变压器,保定隆和房地产开发有限公司2#变压器,保定隆和房地产开发有限公司3#变压器,张八屯水洗厂,保定隆和房地产开发有限公司4#变压器,立信塑业,龙腾旅游制品,光明铝合金,闫玉山,保定市隆和房地产开发有限公司,高碑店市路灯管理办公室（新华大街闫各庄西路灯）,东盛艾各庄东变压器,变压器,东盛艾各庄地变压器,0387438029-高碑店市鑫光明玻璃有限公司-专变-217785144-高碑店市鑫光明玻璃有限公司变压器,高碑店市利通设备租赁有限公司变压器,高碑店市建设局,异型刀具,立信塑业变压器,高碑店市路灯管理办公室（光华北大街路灯）变压器,东盛冯漫撒北变压器,高碑店市金宇电磁线有限公司变压器,高碑店市丰原汽车配件厂变压器,0671906667-保定隆和房地产开发有限公司-专变-212380302-保定隆和房地产开发有限公司2#变压器,码王叉车配件,赵成武,东盛艾各庄南变压器,河北雷华物业房地产开发有限公司1变压器","poweroffReason":"【停电原因】由于弓子线打火需紧急处理导致１１０ＫＶ方家务变电站１０ＫＶ东盛５１４线路全线停电 【变更送电】无 【发布渠道】通过９５５９８发布","powerTime":"2018-06-30 06:43:35","powerComm":"已送电","subsNo":"","lineNo":"","tgNo":"","tgName":null,"infoStatus":"1","orgName":"国网高碑店市供电公司","typeName":null,"infoStatusName":null,"dateDay":null,"orgNos":null,"nowTime":null,"countyName":null,"streetName":null,"villageName":null,"roadName":null,"communityName":null,"tranName":null,"sdLineName":null,"cityCode":"1340612","cityName":"国网高碑店市供电公司","provinceCode":null,"stopTime":"2018-06-30 07:00:00","powerType":"全部","powerOffArea":"【全线路停电】停高碑店市万美商贸有限公司变压器,高碑店市世纪毅佳饲料有限责任公司变压器,梁洪,东盛艾各庄新变压器,河北合创建筑节能科技有限责任公司变压器,高碑店市恒安房地产开发有限公司,高碑店市路灯管理办公室变压器,高碑店市山农生物有限公司变压器,高碑店市单单幕墙有限责任公司,东盛艾各庄变压器,东盛闫各庄排灌变压器【纯农排变】,东盛张八屯西变压器,高碑店市兴泰房地产开发有限公司2#变压器,112线南公变变压器,东盛办事处变压器,海绵厂,福达公司,联通公司1,高碑店市路灯管理办公室（112线环岛路灯）变压器,高碑店市永杰汽车销售有限公司变压器,河北雷华伟业房地产开发有限公司,东盛艾各庄新1变压器,东盛闫王庄北变压器,高碑店市广跃城市建设有限公司,张八屯水洗,高碑店市大和环保锅炉有限公司变压器,河北合创建筑节能科技有限责任公司2#变压器,保定隆和房地产开发有限公司1#变压器,东盛冯漫撒西北变压器,0671179803-高碑店市广跃城市建设有限公司-专变-212318236-高碑店市广跃城市建设有限公司变压器,张八屯铁厂,东盛闫王庄变压器,0671906667-保定隆和房地产开发有限公司-专变-212389225-保定隆和房地产开发有限公司1#变压器,高碑店市公安消防大队,高碑店市单单幕墙有限责任公司变压器,高碑店市兴泰房地产开发有限公司1#变压器,圣方机械有限公司,东盛闫各庄东变压器,方家务小学,杨丙山,李怀友变压器,保定轩宇陆威汽车销售服务有限公司变压器,东盛冯漫撒西变压器【纯农排变】,东盛闫各庄西变压器,河北雷华物业房地产开发有限公司2变压器,保定隆和房地产开发有限公司2#变压器,保定隆和房地产开发有限公司3#变压器,张八屯水洗厂,保定隆和房地产开发有限公司4#变压器,立信塑业,龙腾旅游制品,光明铝合金,闫玉山,保定市隆和房地产开发有限公司,高碑店市路灯管理办公室（新华大街闫各庄西路灯）,东盛艾各庄东变压器,变压器,东盛艾各庄地变压器,0387438029-高碑店市鑫光明玻璃有限公司-专变-217785144-高碑店市鑫光明玻璃有限公司变压器,高碑店市利通设备租赁有限公司变压器,高碑店市建设局,异型刀具,立信塑业变压器,高碑店市路灯管理办公室（光华北大街路灯）变压器,东盛冯漫撒北变压器,高碑店市金宇电磁线有限公司变压器,高碑店市丰原汽车配件厂变压器,0671906667-保定隆和房地产开发有限公司-专变-212380302-保定隆和房地产开发有限公司2#变压器,码王叉车配件,赵成武,东盛艾各庄南变压器,河北雷华物业房地产开发有限公司1变压器","powerOffReason":"【停电原因】由于弓子线打火需紧急处理导致１１０ＫＶ方家务变电站１０ＫＶ东盛５１４线路全线停电 【变更送电】无 【发布渠道】通过９５５９８发布","powerOffId":"2018062913000548"},{"poweroffId":2018062913000534,"sgpoweroffId":null,"subsName":"","lineName":"10kV前卫站576线路","pubTranName":"C021柱上变压器,10kVY0184.Y0185配电室Y0184配电变压器,10kVB1546.B1547配电室B1546配电变压器,C390柱上变压器,10kVY0324.Y0325配电室Y0324配电变压器,10kVY0326.Y0327配电室Y0326配电变压器,C198柱上变压器,10kVY0186.Y0187配电室Y0186配电变压器,10kVB1550.B1551.B1552配电室B1551配电变压器,10kVB1546.B1547配电室B1547配电变压器,10kVC3026箱式变电站C3026配电变压器,10kVB1550.B1551.B1552配电室B1552配电变压器,C022柱上变压器,10kVB1550.B1551.B1552配电室B1550配电变压器,","scope":"【影响街道/乡镇】瑞兴路、恒祥大街、徐庄路、复兴中路、瑞安路 【高危重要客户】无 【影响客户】盛和小区、盛和嘉园、鑫和花园、丽景蓝湾A区、丽景蓝湾B区、新一代C区、天籁新城、秀兰锦观城、北城风景、金筷子、青山房地产、世新园动力","startTime":"2018-06-29 16:30:00","stopDate":"2018-06-29 18:30:00","orgNo":"13406","typeCode":"电网故障停限电","poweroffArea":"【全线路停电】停10kVB1546.B1547配电室B1546配电变压器,10kVB1546.B1547配电室B1547配电变压器,10kVB1550.B1551.B1552配电室B1550配电变压器,10kVB1550.B1551.B1552配电室B1551配电变压器,10kVB1550.B1551.B1552配电室B1552配电变压器,10kVC3026箱式变电站C3026配电变压器,10kVY0184.Y0185配电室Y0184配电变压器,10kVY0186.Y0187配电室Y0186配电变压器,10kVY0324.Y0325配电室Y0324配电变压器,10kVY0326.Y0327配电室Y0326配电变压器,C021柱上变压器,C022柱上变压器,C198柱上变压器,C390柱上变压器","poweroffReason":"【停电原因】由于线路接地导致１０ＫＶ前卫变电站５７６线路全线停电【变更送电】因抢修进度加快，原定２０:００送电现计划１８:３０送电。【发布渠道】通过９５５９８发布","powerTime":"2018-06-29 18:07:40","powerComm":"已送电","subsNo":"","lineNo":"","tgNo":"","tgName":null,"infoStatus":"1","orgName":"保定供电公司","typeName":null,"infoStatusName":null,"dateDay":null,"orgNos":null,"nowTime":null,"countyName":null,"streetName":null,"villageName":null,"roadName":null,"communityName":null,"tranName":null,"sdLineName":null,"cityCode":"13406","cityName":"保定供电公司","provinceCode":null,"stopTime":"2018-06-29 18:30:00","powerType":"全部","powerOffArea":"【全线路停电】停10kVB1546.B1547配电室B1546配电变压器,10kVB1546.B1547配电室B1547配电变压器,10kVB1550.B1551.B1552配电室B1550配电变压器,10kVB1550.B1551.B1552配电室B1551配电变压器,10kVB1550.B1551.B1552配电室B1552配电变压器,10kVC3026箱式变电站C3026配电变压器,10kVY0184.Y0185配电室Y0184配电变压器,10kVY0186.Y0187配电室Y0186配电变压器,10kVY0324.Y0325配电室Y0324配电变压器,10kVY0326.Y0327配电室Y0326配电变压器,C021柱上变压器,C022柱上变压器,C198柱上变压器,C390柱上变压器","powerOffReason":"【停电原因】由于线路接地导致１０ＫＶ前卫变电站５７６线路全线停电【变更送电】因抢修进度加快，原定２０:００送电现计划１８:３０送电。【发布渠道】通过９５５９８发布","powerOffId":"2018062913000534"},{"poweroffId":2018062913000508,"sgpoweroffId":null,"subsName":"","lineName":"10kV东北郊站534线路","pubTranName":"10kVB1067.B1068箱式变电站B1068配电变压器,","scope":"【影响街道/乡镇】军校街、五四路 【高危重要客户】无 【影响客户】东方家园","startTime":"2018-06-29 16:10:00","stopDate":"2018-06-29 18:30:00","orgNo":"13406","typeCode":"电网故障停限电","poweroffArea":"【单台区停电】停10kVB1067.B1068箱式变电站B1068配电变压器","poweroffReason":"【停电原因】由于低压空开烧导致１０ＫＶ东北郊变电站５３４线路Ｂ１０６８公变台区停电【变更送电】因工作正在处理中，送电时间由１８:００变更为２０:００；因抢修进度加快，原定２０:００送电现计划１８:３０送电。【发布渠道】通过９５５９８发布","powerTime":"2018-06-29 18:22:59","powerComm":"已送电","subsNo":"","lineNo":"","tgNo":"","tgName":null,"infoStatus":"1","orgName":"保定供电公司","typeName":null,"infoStatusName":null,"dateDay":null,"orgNos":null,"nowTime":null,"countyName":null,"streetName":null,"villageName":null,"roadName":null,"communityName":null,"tranName":null,"sdLineName":null,"cityCode":"13406","cityName":"保定供电公司","provinceCode":null,"stopTime":"2018-06-29 18:30:00","powerType":"全部","powerOffArea":"【单台区停电】停10kVB1067.B1068箱式变电站B1068配电变压器","powerOffReason":"【停电原因】由于低压空开烧导致１０ＫＶ东北郊变电站５３４线路Ｂ１０６８公变台区停电【变更送电】因工作正在处理中，送电时间由１８:００变更为２０:００；因抢修进度加快，原定２０:００送电现计划１８:３０送电。【发布渠道】通过９５５９８发布","powerOffId":"2018062913000508"},{"poweroffId":2018062913000495,"sgpoweroffId":null,"subsName":"","lineName":"岭南线513","pubTranName":"坨南村南新增,坨南村南2号,岭南梨眼,赵新国,坨南第9队,坨南村内2号,大众加油站,坨南村南,岭南村内,保定市天家饲养有限公司,赵新亮,坨南收费站,岭南果园,扬泽昆钙粉厂,中国联合网络通信有限公司满城县分,坨南村西北,保定市满城区会民种植园,三大队2队东河南,坨南乡政府,2大队村东,坨南市场新增,界河南,岭南市场,张站德,坨南张站得,西河南【纯农排变】,坨南3号,寨子界河,宝石湾【纯农排变】,满城县顺利果品农民专业合作社,坨南界河北,吃水井新增,坨南吃水井,坨南市场台区,","scope":"【影响街道/乡镇】坨南乡 【高危重要客户】无 【影响客户】坨南村、岭南村","startTime":"2018-06-29 16:14:39","stopDate":"2018-06-29 18:45:00","orgNo":"1340617","typeCode":"超电网供电能力停限电","poweroffArea":"【全线路停电】停宝石湾【纯农排变】,坨南村南新增,赵新国,坨南市场台区,2大队村东,吃水井新增,岭南村内,坨南第9队,大众加油站,岭南市场,中国联合网络通信有限公司满城县分,张站德,岭南梨眼,扬泽昆钙粉厂,坨南收费站,坨南村南,西河南【纯农排变】,坨南吃水井,赵新亮,坨南3号,保定市满城区会民种植园,岭南果园,寨子界河,满城县顺利果品农民专业合作社,坨南张站得,坨南村南2号,坨南村内2号,坨南村西北,坨南市场新增,坨南界河北,坨南乡政府,界河南,三大队2队东河南,保定市天家饲养有限公司","poweroffReason":"【停电原因】由于变电站主变过负荷导致３５ＫＶ岭西变电站岭南线５１３线路全线停电 【变更送电】因抢修进度加快，送电时间由２１：００变更为１８：４５ 【发布渠道】９５５９８","powerTime":"2018-06-29 18:30:19","powerComm":"已送电","subsNo":"","lineNo":"","tgNo":"","tgName":null,"infoStatus":"1","orgName":"国网满城县供电公司","typeName":null,"infoStatusName":null,"dateDay":null,"orgNos":null,"nowTime":null,"countyName":null,"streetName":null,"villageName":null,"roadName":null,"communityName":null,"tranName":null,"sdLineName":null,"cityCode":"1340617","cityName":"国网满城县供电公司","provinceCode":null,"stopTime":"2018-06-29 18:45:00","powerType":"全部","powerOffArea":"【全线路停电】停宝石湾【纯农排变】,坨南村南新增,赵新国,坨南市场台区,2大队村东,吃水井新增,岭南村内,坨南第9队,大众加油站,岭南市场,中国联合网络通信有限公司满城县分,张站德,岭南梨眼,扬泽昆钙粉厂,坨南收费站,坨南村南,西河南【纯农排变】,坨南吃水井,赵新亮,坨南3号,保定市满城区会民种植园,岭南果园,寨子界河,满城县顺利果品农民专业合作社,坨南张站得,坨南村南2号,坨南村内2号,坨南村西北,坨南市场新增,坨南界河北,坨南乡政府,界河南,三大队2队东河南,保定市天家饲养有限公司","powerOffReason":"【停电原因】由于变电站主变过负荷导致３５ＫＶ岭西变电站岭南线５１３线路全线停电 【变更送电】因抢修进度加快，送电时间由２１：００变更为１８：４５ 【发布渠道】９５５９８","powerOffId":"2018062913000495"},{"poweroffId":2018062913000478,"sgpoweroffId":null,"subsName":"","lineName":"10kV520东关线","pubTranName":"河北鹏洲房地产开发有限公司变压器1,河北冀军利诚房地产开发有限公司变压器4,东大社照明3台区,高管门前台区路灯变压器,定州市开元蔬菜有限公司,东关农业6台区【纯农排变】,气象局家属院,定州市英杰电器有限公司,定州市新华小学变压器,91医院,河北通达天元房地产开发有限公司紫香园供热变压器,河北海慧房地产开发有限公司变压器,河北通达天元房地产开发有限公司紫香园供热变压器,河北中天房地产开发集团有限公司变压器,东门街(015):照明1台区,河北中天房地产开发集团有限公司变压器2,东北郊供电所,河北鹏洲房地产开发有限公司变压器1,北门街(009):公用照明12台区,北门街照明4台区中压出线间隔配电变压器,社变照明2台区,新立街(008):照明4台区,毛衣厂院：照明1台区,0387417239-河北省高速公路禄发实业总公司-专变-45264153-河北冀星高速公路有限公司定州收费站,河北海慧房地产开发有限公司变压器2,眼镜厂社变(022):照明1台区,高速交警,河北文博房地产开发有限公司 东方铭邸变压器,0623017717-河北文博房地产开发有限公司 东方铭邸-专变-130756701-河北文博房地产开发有限公司 东方铭邸变压器,东门街公用照明9台区,市场社变(023)；照明1台区,河北冀军利诚房地产开发有限公司 天成东星一期供热2变压器2,华怡公司,定州市新达冷储有限公司2,定州市新天超级市场有限公司变压器,东门街(015):照明2台区,北门街(009):农业2台区,东门街(015):照明1台区,0387416773-河北省定州监狱-专变-118437152-河北省定州监狱2,花园小区,定州市中山东路初级中学变压器,高管处院(015)：照明1台区,新立街照明,0623017717-河北文博房地产开发有限公司 东方铭邸-专变-130756701-河北文博房地产开发有限公司 东方铭邸变压器,高速交警,气象局家属院,新立街(008):照明6台区,东关农业6台区【纯农排变】,定州市育贤双语小学,定州市新达冷储有限公司,河北腾鹤文化传播有限公司定州分公司变压器,技工学校变压器,定州市中山东路初级中学变压器,定州市新华印刷有限公司,北环路灯,眼镜厂公用照明3台区,河北冀军利诚房地产开发有限公司 天成东星一期供热2变压器1,河北文博房地产开发有限公司 东方铭邸变压器,0622707790-河北中天房地产开发集团有限公司 君悦华府照明-专变-130393777-河北中天房地产开发集团有限公司 君悦华府照明变压器,河北中天房地产开发集团有限公司公用,定州市中标节能技术服务有限公司变压器,电信局,潜水泵厂,东门街东台区路灯变压器,定州第二建筑公司,电信局,东北郊供电所,华怡公司,河北鹏洲房地产开发有限公司变压器2,北门街(009):农业6台区【纯农排变】,定州市新华印刷有限公司,二建公司,陈永才,市场管理局,猪场,河北中天房地产开发集团有限公司居民变压器1,0387416773-河北省定州监狱-专变-45264096-河北省定州监狱,0387416773-河北省定州监狱-专变-118437152-河北省定州监狱2,粮油市场,东门街(015):照","scope":"【影响街道/乡镇】北门街、新立街、自来佛街、东大街、东门街、东关、中山东路、北环路【高危重要客户】无【影响客户】北环路中学、二建、宝塔花园小区、国际大酒店、高速公路一带、东高中学附近、老窝小区、地税局家属院、温馨２００９经济适用房、君悦华府、东关市场、环保局家属院、北岸小镇、兴国寺一带、人力资源局、定州监狱","startTime":"2018-06-30 00:00:00","stopDate":"2018-06-30 04:00:00","orgNo":"1340610","typeCode":"其他临时停电","poweroffArea":"【全线路停电】停张氏房地产公司,东门街(015):照明5台区,河北中天房地产开发集团有限公司变压器1,定州市中标节能技术服务有限公司变压器,河北中天房地产开发集团有限公司变压器2,定州市地方税务局,91医院,东门街公用照明9台区,东门街(015):照明3台区,定州市新达冷储有限公司2,电信局,气象局家属院,粮油市场,东门街公用照明8台区,三建公司,河北冀军利诚房地产开发有限公司变压器4,环保家属院；照明1台区,0387416946-河北京石高速公路开发有限公司-专变-212146823-河北京石高速公路开发有限公司变压器,0387416773-河北省定州监狱-专变-45264096-河北省定州监狱,新立街(008):照明1台区,定州市中山东路初级中学变压器,定州第二建筑公司,定州市育贤双语小学,0623017717-河北文博房地产开发有限公司 东方铭邸-专变-130756701-河北文博房地产开发有限公司 东方铭邸变压器,定州市开元蔬菜有限公司,二建公司,定州市英杰电器有限公司,河北文博房地产开发有限公司 东方铭邸变压器,东大街（005）：照明2台区中压出线 间隔 配电变压器,市场社变(023)；照明1台区,北门街(009):公用照明12台区,贵宾楼,定州市北环路初级中学变压器,北环路灯,市场管理局,0706311019-河北宏天房地产开发有限公司变压器-900018912946,河北锦虎房地产开发有限公司 温心2009变压器1,定州市新华小学变压器,定州市新华印刷有限公司,东关(001):照明3台区,京新公司,河北鹏洲房地产开发有限公司变压器1,0387416890-定州市第一蒸汽构件厂-专变-45264001-构件厂,河北通达天元房地产开发有限公司紫香园供热变压器,东关(001):照明2台区,高管处院(015)：照明1台区,东关农业6台区【纯农排变】,河北中天房地产开发集团有限公司,高速交警,远政,河北中天房地产开发集团有限公司居民变压器2,东门街东台区路灯变压器,定州市劳动人事局,河北中天房地产开发集团有限公司居民变压器1,华怡公司,东北郊供电所,0387417239-河北省高速公路禄发实业总公司-专变-45264153-河北冀星高速公路有限公司定州收费站,技工学校变压器,河北中天房地产开发集团有限公司变压器,高管门前台区路灯变压器,东关照明4台区,东门街(015):照明1台区,毛衣厂院：照明1台区,河北中天房地产开发集团有限公司（君悦华府水源热泵）变压器,花园小区,书店路灯,中山中学,新立街照明,北门街(009):照明1台区中压出线间隔配电变压器,0636245846-河北鹏洲房地产开发有限公司 鹏洲丽城小区-专变-148204382-河北鹏洲房地产开发有限公司变压器1,河北海慧房地产开发有限公司变压器2,东门街西台区路灯变压器,东关公用照明6台区,北门街照明4台区中压出线间隔配电变压器,河北中天房地产开发集团有限公司 水源热泵君悦华府变压器,北门街(009):农业2台区,北门街(009):农业6台区【纯农排变】,环保局,东门街(015):照明2台区,河北海慧房地产开发有限公司变压器,河北中天房地产开发集团有限公司公用,香山中学,定州市供电局实业公司,东门街：照明6台区,河北冀军利诚房地产开发有限公司 天成东星一期供热2变压器2,北岸小镇,恒达纺织机械器材制造有限公司,陈永才,地税家属院：照明1台区,0387416773-河北省定州监狱-专变-118437152-河北省定州监狱2,潜水泵厂,新立街(008):照明6台区,0622707790-河北中天房地产开发集团有限公司 君悦华府照明-专变-130393777-河北中天房地产开发集团有限公司 君悦华府照明变压器,河北冀军利诚房地产开发有限公司变压器3,猪场,东关公用照明8台区,010005620花园小区,河北鹏洲房地产开发有限公司变压器2,眼镜厂公用照明3台","poweroffReason":"【停电原因】由于主干０１号杆０１号隔离开关打火需停电进行紧急检修导致１１０ＫＶ总司屯变电站１０ＫＶ５２０东关线路全线停电 【变更送电】无 【发布渠道】９５５９８","powerTime":"2018-06-30 04:00:00","powerComm":"已送电","subsNo":"","lineNo":"","tgNo":"","tgName":null,"infoStatus":"1","orgName":"国网定州市供电公司","typeName":null,"infoStatusName":null,"dateDay":null,"orgNos":null,"nowTime":null,"countyName":null,"streetName":null,"villageName":null,"roadName":null,"communityName":null,"tranName":null,"sdLineName":null,"cityCode":"1340610","cityName":"国网定州市供电公司","provinceCode":null,"stopTime":"2018-06-30 04:00:00","powerType":"全部","powerOffArea":"【全线路停电】停张氏房地产公司,东门街(015):照明5台区,河北中天房地产开发集团有限公司变压器1,定州市中标节能技术服务有限公司变压器,河北中天房地产开发集团有限公司变压器2,定州市地方税务局,91医院,东门街公用照明9台区,东门街(015):照明3台区,定州市新达冷储有限公司2,电信局,气象局家属院,粮油市场,东门街公用照明8台区,三建公司,河北冀军利诚房地产开发有限公司变压器4,环保家属院；照明1台区,0387416946-河北京石高速公路开发有限公司-专变-212146823-河北京石高速公路开发有限公司变压器,0387416773-河北省定州监狱-专变-45264096-河北省定州监狱,新立街(008):照明1台区,定州市中山东路初级中学变压器,定州第二建筑公司,定州市育贤双语小学,0623017717-河北文博房地产开发有限公司 东方铭邸-专变-130756701-河北文博房地产开发有限公司 东方铭邸变压器,定州市开元蔬菜有限公司,二建公司,定州市英杰电器有限公司,河北文博房地产开发有限公司 东方铭邸变压器,东大街（005）：照明2台区中压出线 间隔 配电变压器,市场社变(023)；照明1台区,北门街(009):公用照明12台区,贵宾楼,定州市北环路初级中学变压器,北环路灯,市场管理局,0706311019-河北宏天房地产开发有限公司变压器-900018912946,河北锦虎房地产开发有限公司 温心2009变压器1,定州市新华小学变压器,定州市新华印刷有限公司,东关(001):照明3台区,京新公司,河北鹏洲房地产开发有限公司变压器1,0387416890-定州市第一蒸汽构件厂-专变-45264001-构件厂,河北通达天元房地产开发有限公司紫香园供热变压器,东关(001):照明2台区,高管处院(015)：照明1台区,东关农业6台区【纯农排变】,河北中天房地产开发集团有限公司,高速交警,远政,河北中天房地产开发集团有限公司居民变压器2,东门街东台区路灯变压器,定州市劳动人事局,河北中天房地产开发集团有限公司居民变压器1,华怡公司,东北郊供电所,0387417239-河北省高速公路禄发实业总公司-专变-45264153-河北冀星高速公路有限公司定州收费站,技工学校变压器,河北中天房地产开发集团有限公司变压器,高管门前台区路灯变压器,东关照明4台区,东门街(015):照明1台区,毛衣厂院：照明1台区,河北中天房地产开发集团有限公司（君悦华府水源热泵）变压器,花园小区,书店路灯,中山中学,新立街照明,北门街(009):照明1台区中压出线间隔配电变压器,0636245846-河北鹏洲房地产开发有限公司 鹏洲丽城小区-专变-148204382-河北鹏洲房地产开发有限公司变压器1,河北海慧房地产开发有限公司变压器2,东门街西台区路灯变压器,东关公用照明6台区,北门街照明4台区中压出线间隔配电变压器,河北中天房地产开发集团有限公司 水源热泵君悦华府变压器,北门街(009):农业2台区,北门街(009):农业6台区【纯农排变】,环保局,东门街(015):照明2台区,河北海慧房地产开发有限公司变压器,河北中天房地产开发集团有限公司公用,香山中学,定州市供电局实业公司,东门街：照明6台区,河北冀军利诚房地产开发有限公司 天成东星一期供热2变压器2,北岸小镇,恒达纺织机械器材制造有限公司,陈永才,地税家属院：照明1台区,0387416773-河北省定州监狱-专变-118437152-河北省定州监狱2,潜水泵厂,新立街(008):照明6台区,0622707790-河北中天房地产开发集团有限公司 君悦华府照明-专变-130393777-河北中天房地产开发集团有限公司 君悦华府照明变压器,河北冀军利诚房地产开发有限公司变压器3,猪场,东关公用照明8台区,010005620花园小区,河北鹏洲房地产开发有限公司变压器2,眼镜厂公用照明3台","powerOffReason":"【停电原因】由于主干０１号杆０１号隔离开关打火需停电进行紧急检修导致１１０ＫＶ总司屯变电站１０ＫＶ５２０东关线路全线停电 【变更送电】无 【发布渠道】９５５９８","powerOffId":"2018062913000478"},{"poweroffId":2018062913000466,"sgpoweroffId":null,"subsName":"","lineName":"10kV516东西营线","pubTranName":"东营浇地3号东,西营综合3台区,西营综合4台区,西营农排5台区【纯农排变】,东营浇地2号,东营综合8台区,东营砖厂2,西营综合5台区,西营农排3台区【纯农排变】,东营综合6台区,东营浇地10号,东营浇地1号,东营浇地10号东,渔池,东营村委会,东营砖厂1,林堡5号,西营农排7台区【纯农排变】,西营综合2台区,0469455377-东营村浇地五号-专变-46813156-东营村浇地5号,东营综合2台区,东营综合5台区,东营浇地3号,西营农排9台区【纯农排变】,东营村东北,东营浇地4号,西营农排4台区【纯农排变】,蠡县磊鑫砂石料场,东营综合3台区,东营浇地6号,大朋,东营浇地6号东,东营浇地8号,保定德鑫纺织品制造有限公司变压器,东营浇地9号,西营农排6台区【纯农排变】,东营综合4台区,东营浇地7号,东营综合9台区,东营综合7台区,东营村浇地5号东,林堡六,东营综合1台区,东营浇地7号西,西营综合1台区,","scope":"【影响街道/乡镇】林堡乡【高危重要客户】无【影响客户】西营村、东营村","startTime":"2018-06-29 15:51:52","stopDate":"2018-06-29 17:00:56","orgNo":"1340616","typeCode":"电网故障停限电","poweroffArea":"【全线路停电】停林堡六,西营综合4台区,西营农排7台区【纯农排变】,西营农排4台区【纯农排变】,东营村浇地5号东,东营浇地10号,东营浇地7号西,0469455377-东营村浇地五号-专变-46813156-东营村浇地5号,东营浇地8号,东营浇地7号,东营浇地6号东,东营综合4台区,东营浇地3号,东营浇地2号,东营村东北,东营浇地6号,东营浇地4号,东营浇地10号东,东营浇地3号东,东营综合8台区,东营综合6台区,东营综合3台区,西营农排9台区【纯农排变】,西营综合3台区,西营综合5台区,大朋,林堡5号,东营村委会,东营浇地1号,渔池,西营农排6台区【纯农排变】,东营综合9台区,蠡县磊鑫砂石料场,东营浇地9号,西营农排5台区【纯农排变】,东营砖厂2,东营砖厂1,东营综合5台区,西营综合1台区,东营综合7台区,东营综合2台区,东营综合1台区,西营综合2台区,西营农排3台区【纯农排变】,保定德鑫纺织品制造有限公司变压器","poweroffReason":"【停电原因】由于站外开关掉闸导致３５ＫＶ林堡变电站１０ＫＶ东西营５１６线路全线停电【变更送电】因抢修进度加快原因，送电时间由２０：００变更为１７：００【发布渠道】通过９５５９８发布","powerTime":"2018-06-29 16:14:30","powerComm":"已送电","subsNo":"","lineNo":"","tgNo":"","tgName":null,"infoStatus":"1","orgName":"国网蠡县供电公司","typeName":null,"infoStatusName":null,"dateDay":null,"orgNos":null,"nowTime":null,"countyName":null,"streetName":null,"villageName":null,"roadName":null,"communityName":null,"tranName":null,"sdLineName":null,"cityCode":"1340616","cityName":"国网蠡县供电公司","provinceCode":null,"stopTime":"2018-06-29 17:00:56","powerType":"全部","powerOffArea":"【全线路停电】停林堡六,西营综合4台区,西营农排7台区【纯农排变】,西营农排4台区【纯农排变】,东营村浇地5号东,东营浇地10号,东营浇地7号西,0469455377-东营村浇地五号-专变-46813156-东营村浇地5号,东营浇地8号,东营浇地7号,东营浇地6号东,东营综合4台区,东营浇地3号,东营浇地2号,东营村东北,东营浇地6号,东营浇地4号,东营浇地10号东,东营浇地3号东,东营综合8台区,东营综合6台区,东营综合3台区,西营农排9台区【纯农排变】,西营综合3台区,西营综合5台区,大朋,林堡5号,东营村委会,东营浇地1号,渔池,西营农排6台区【纯农排变】,东营综合9台区,蠡县磊鑫砂石料场,东营浇地9号,西营农排5台区【纯农排变】,东营砖厂2,东营砖厂1,东营综合5台区,西营综合1台区,东营综合7台区,东营综合2台区,东营综合1台区,西营综合2台区,西营农排3台区【纯农排变】,保定德鑫纺织品制造有限公司变压器","powerOffReason":"【停电原因】由于站外开关掉闸导致３５ＫＶ林堡变电站１０ＫＶ东西营５１６线路全线停电【变更送电】因抢修进度加快原因，送电时间由２０：００变更为１７：００【发布渠道】通过９５５９８发布","powerOffId":"2018062913000466"},{"poweroffId":2018062913000381,"sgpoweroffId":null,"subsName":"","lineName":"开元街571","pubTranName":"电北院直供,丁街2#,恒发石材厂(郭艳辉),营房村,华宇新港湾,河北华宇房地产开发有限公司变压器,0469136816-金台商厦-专变-46725850-金台商厦,易县夏威夷休闲会馆变压器,食品院直供,地税局,县医院家属楼,易县中学影剧院,易水金街(永忠商贸),旅游局直供,众程房地产开发有限公司计量点,北京华煜都房地产开发有限公司,迎宾路西(100KVA),丁街3#,农机局家属楼,迎宾小区1#,易县中学(北315KVA),103家属院(华宇双拥),易县华宇房地产开发（新港湾小区）,易县水务局变压器,城隍庙直供,中国网通集团有限公司易县分公司,农行楼1分配电变压器,龙烁供热80KVA-迎宾小区锅炉房,易县华宇房地产开发有限公司,清建公司楼,修造厂家属楼(315KVA),保定安达制动有限公司,石油公司家属院,易县中学(北100KVA),农贸市场,农行,药材公司,迎宾小区2#,店北直供,电力局,易县城区居民管理处迎宾路居民委员会变压器,工商银行易县支行,工商行1配电变压器,易县红梅信誉楼,网通直供变压器,0687170010-易县百货大楼商贸有限公司-专变-227118220-易县百货大楼商贸有限公司500KVA,易县鸿华房地产开发有限公司2000KVA,邮局直供,迎宾庄园,易县医院变压器1,修造厂家属楼(125KVA),0469136799-长安住宅小区-专变-46725797-长安住宅小区,保定供电公司,修造厂(太平洋),王府酒店(建行),","scope":"【影响街道/乡镇】易州镇、城管处、迎宾路、长安路、金台路、开元路【高危重要客户】无【影响客户】店北村","startTime":"2018-06-29 15:01:08","stopDate":"2018-06-29 16:00:28","orgNo":"1340625","typeCode":"电网故障停限电","poweroffArea":"【全线路停电】停修造厂家属楼(125KVA),电力局,易县中学(北315KVA),县医院家属楼,修造厂(太平洋),修造厂家属楼(315KVA),103家属院(华宇双拥),易县中学影剧院,丁街2#,丁街3#,0469136799-长安住宅小区-专变-46725797-长安住宅小区,易县中学(北100KVA),众程房地产开发有限公司计量点,0469136816-金台商厦-专变-46725850-金台商厦,地税局,食品院直供,电北院直供,北京华煜都房地产开发有限公司,易水金街(永忠商贸),恒发石材厂(郭艳辉),易县医院变压器1,药材公司,营房村,迎宾路西(100KVA),易县红梅信誉楼,0687170010-易县百货大楼商贸有限公司-专变-227118220-易县百货大楼商贸有限公司500KVA,易县城区居民管理处迎宾路居民委员会变压器,清建公司楼,河北华宇房地产开发有限公司变压器,城隍庙直供,易县水务局变压器,店北直供,迎宾小区1#,易县华宇房地产开发有限公司,龙烁供热80KVA-迎宾小区锅炉房,易县鸿华房地产开发有限公司2000KVA,农机局家属楼,保定安达制动有限公司,农行楼1分配电变压器,迎宾庄园,石油公司家属院,保定供电公司,迎宾小区2#,王府酒店(建行),农行,易县夏威夷休闲会馆变压器,工商行1配电变压器,旅游局直供,中国网通集团有限公司易县分公司,工商银行易县支行,网通直供变压器,易县华宇房地产开发（新港湾小区）,邮局直供,华宇新港湾,农贸市场","poweroffReason":"【停电原因】由于红梅商厦变压器（客户产权）开关烧毁导致１１０ＫＶ店北变电站开元街５７１线路全线停电【变更送电】因抢修进度加快原因送电时间由１８：００变更为１６：００【发布渠道】通过９５５９８","powerTime":"2018-06-29 15:51:06","powerComm":"已送电","subsNo":"","lineNo":"","tgNo":"","tgName":null,"infoStatus":"1","orgName":"国网易县供电公司","typeName":null,"infoStatusName":null,"dateDay":null,"orgNos":null,"nowTime":null,"countyName":null,"streetName":null,"villageName":null,"roadName":null,"communityName":null,"tranName":null,"sdLineName":null,"cityCode":"1340625","cityName":"国网易县供电公司","provinceCode":null,"stopTime":"2018-06-29 16:00:28","powerType":"全部","powerOffArea":"【全线路停电】停修造厂家属楼(125KVA),电力局,易县中学(北315KVA),县医院家属楼,修造厂(太平洋),修造厂家属楼(315KVA),103家属院(华宇双拥),易县中学影剧院,丁街2#,丁街3#,0469136799-长安住宅小区-专变-46725797-长安住宅小区,易县中学(北100KVA),众程房地产开发有限公司计量点,0469136816-金台商厦-专变-46725850-金台商厦,地税局,食品院直供,电北院直供,北京华煜都房地产开发有限公司,易水金街(永忠商贸),恒发石材厂(郭艳辉),易县医院变压器1,药材公司,营房村,迎宾路西(100KVA),易县红梅信誉楼,0687170010-易县百货大楼商贸有限公司-专变-227118220-易县百货大楼商贸有限公司500KVA,易县城区居民管理处迎宾路居民委员会变压器,清建公司楼,河北华宇房地产开发有限公司变压器,城隍庙直供,易县水务局变压器,店北直供,迎宾小区1#,易县华宇房地产开发有限公司,龙烁供热80KVA-迎宾小区锅炉房,易县鸿华房地产开发有限公司2000KVA,农机局家属楼,保定安达制动有限公司,农行楼1分配电变压器,迎宾庄园,石油公司家属院,保定供电公司,迎宾小区2#,王府酒店(建行),农行,易县夏威夷休闲会馆变压器,工商行1配电变压器,旅游局直供,中国网通集团有限公司易县分公司,工商银行易县支行,网通直供变压器,易县华宇房地产开发（新港湾小区）,邮局直供,华宇新港湾,农贸市场","powerOffReason":"【停电原因】由于红梅商厦变压器（客户产权）开关烧毁导致１１０ＫＶ店北变电站开元街５７１线路全线停电【变更送电】因抢修进度加快原因送电时间由１８：００变更为１６：００【发布渠道】通过９５５９８","powerOffId":"2018062913000381"},{"poweroffId":2018062913000346,"sgpoweroffId":null,"subsName":"","lineName":"10kV511贾各庄线","pubTranName":"南峪混用140|24000140,贾各庄新增综合8447,新建绸子岭0160|24000160,刘各庄0040#农排|24000040【纯农排变】,新建偏郎峪0170|24000170,贾各庄格朗峪2050#农排|24002050【纯农排变】,贾各庄新增农业8451【纯农排变】,贾西庄郝家农业8457【纯农排变】,贾西庄刘金海农业6017【纯农排变】,南峪2640|24002640,贾西庄南沟0260|24000260,贾各庄格郎峪0190|24000190,刘各庄0300#农排|24000300【纯农排变】,罗各庄南2020#农排|24002020【纯农排变】,南峪0130#农排|24000130【纯农排变】,贾西庄小侯家0290|24000290,贾各庄0080#农排|24000080【纯农排变】,南峪0250#农排|24000250【纯农排变】,贾西庄孟家0310#农排|24000310【纯农排变】,西安阳1320#农排|24001320【纯农排变】,罗各庄大队井【纯农排变】,新建涝底1860#农排|24001860【纯农排变】,南峪0100#农排|24000100【纯农排变】,新建涝底0150|24000150,贾西庄新增综合配变0125,贾各庄0320#农排|24000320【纯农排变】,贾各庄0330|24000330,刘各庄新增综合8449,贾西庄孟家0210|24000210,新建木兰沟混用0180|24000180,司仓文凯100【纯农排变】,中国移动,南峪0120|24000120,贾各庄村西0070|24000070,贾西庄郝家0220|24000220,贾西庄南沟0200#农排|24000200【纯农排变】,罗各庄0020#农排|24000020【纯农排变】,刘各庄0050|24000050,司仓0240#农排|24000240【纯农排变】,南峪0110#农排|24000110【纯农排变】,贾西庄侯家0270|24000270,贾各庄0090#农排|24000090【纯农排变】,新建2440#农排|24002440【纯农排变】,刘各庄南坡1870#农排|24001870【纯农排变】,新建村新增3号农业【纯农排变】,贾西庄大候家农业8455【纯农排变】,新建村西北井,罗各庄村0030|24000030,新建绸子岭2060#农排|24002060【纯农排变】,贾各庄2480#农排|24002480【纯农排变】,","scope":"【影响街道/乡镇】安阳乡【高危重要客户】无【影响客户】罗各庄、刘各庄、贾各庄、贾西庄、南峪、新建、涝底、绸子岭、偏郎峪、木兰沟","startTime":"2018-06-29 14:21:27","stopDate":"2018-06-29 21:30:00","orgNo":"1340621","typeCode":"超电网供电能力停限电","poweroffArea":"【全线路停电】停新建木兰沟混用0180|24000180,贾西庄小侯家0290|24000290,南峪2640|24002640,新建村西北井,南峪0250#农排|24000250【纯农排变】,贾各庄村西0070|24000070,贾西庄郝家农业8457【纯农排变】,罗各庄村0030|24000030,贾西庄郝家0220|24000220,贾西庄侯家0270|24000270,贾各庄新增综合8447,刘各庄0040#农排|24000040【纯农排变】","poweroffReason":"【停电原因】由于安阳变电站主变过负荷导致３５ＫＶ安阳变电站１０ＫＶ５１１贾各庄线路全线停电【变更送电】因主变负荷恢复正常原因，送电时间由２３：００变更为２１：３０【发布渠道】通过９５５９８发布","powerTime":"2018-06-29 21:01:50","powerComm":"已送电","subsNo":"","lineNo":"","tgNo":"","tgName":null,"infoStatus":"1","orgName":"国网顺平县电力局","typeName":null,"infoStatusName":null,"dateDay":null,"orgNos":null,"nowTime":null,"countyName":null,"streetName":null,"villageName":null,"roadName":null,"communityName":null,"tranName":null,"sdLineName":null,"cityCode":"1340621","cityName":"国网顺平县电力局","provinceCode":null,"stopTime":"2018-06-29 21:30:00","powerType":"全部","powerOffArea":"【全线路停电】停新建木兰沟混用0180|24000180,贾西庄小侯家0290|24000290,南峪2640|24002640,新建村西北井,南峪0250#农排|24000250【纯农排变】,贾各庄村西0070|24000070,贾西庄郝家农业8457【纯农排变】,罗各庄村0030|24000030,贾西庄郝家0220|24000220,贾西庄侯家0270|24000270,贾各庄新增综合8447,刘各庄0040#农排|24000040【纯农排变】","powerOffReason":"【停电原因】由于安阳变电站主变过负荷导致３５ＫＶ安阳变电站１０ＫＶ５１１贾各庄线路全线停电【变更送电】因主变负荷恢复正常原因，送电时间由２３：００变更为２１：３０【发布渠道】通过９５５９８发布","powerOffId":"2018062913000346"},{"poweroffId":2018062913000290,"sgpoweroffId":null,"subsName":"","lineName":"广场线521","pubTranName":"迎宾小区3#,","scope":"【影响街道/乡镇】易州镇 【高危重要客户】无 【影响客户】迎宾小区","startTime":"2018-06-29 12:02:14","stopDate":"2018-06-29 16:30:00","orgNo":"1340625","typeCode":"电网故障停限电","poweroffArea":"【单台区停电】停迎宾小区3#","poweroffReason":"【停电原因】由于迎宾小区电缆烧断（用户产权）导致１１０ＫＶ易县变电站广场５２１线路迎宾小区３#公变台区停电 【变更送电】因抢修进度加快原因，送电时间由１７:００变更为１６:３０ 【发布渠道】通过９５５９８发布","powerTime":"2018-06-29 15:52:29","powerComm":"已送电","subsNo":"","lineNo":"","tgNo":"","tgName":null,"infoStatus":"1","orgName":"国网易县供电公司","typeName":null,"infoStatusName":null,"dateDay":null,"orgNos":null,"nowTime":null,"countyName":null,"streetName":null,"villageName":null,"roadName":null,"communityName":null,"tranName":null,"sdLineName":null,"cityCode":"1340625","cityName":"国网易县供电公司","provinceCode":null,"stopTime":"2018-06-29 16:30:00","powerType":"全部","powerOffArea":"【单台区停电】停迎宾小区3#","powerOffReason":"【停电原因】由于迎宾小区电缆烧断（用户产权）导致１１０ＫＶ易县变电站广场５２１线路迎宾小区３#公变台区停电 【变更送电】因抢修进度加快原因，送电时间由１７:００变更为１６:３０ 【发布渠道】通过９５５９８发布","powerOffId":"2018062913000290"},{"poweroffId":2018062913000249,"sgpoweroffId":null,"subsName":"","lineName":"10kV邓庄线513","pubTranName":"崔场地变压器【纯农排变】,李南4号地变压器,十九垡西变压器,邓庄地变压器,李南2号地变压器,李南东地变压器【纯农排变】,李南西变压器,郭庄东北台变压器,十九垡西地变压器,郭庄面粉厂,东黄1号地变压器【纯农排变】,水厂,李南3号地变压器,陶阳庄1号地变压器【纯农排变】,邓庄2号地变压器【纯农排变】,小董庄村变压器,邓庄排灌变压器【纯农排变】,李北1号地变压器【纯农排变】,东高东台变压器,邓庄1号地变压器【纯农排变】,李北西变压器,雄县大营镇鼎拓板材复合厂,北黄西台变压器,凡庄变压器1,北黄东北地变压器【纯农排变】,南黄西南台,十九垡北,李北东变压器,凡庄2号地变压器【纯农排变】,邓庄面粉厂南,北留东变压器,北黄1号地变压器【纯农排变】,小清凌中变压器,东高庄东北地变压器【纯农排变】,凡庄地变压器【纯农排变】,北留1号地变压器【纯农排变】,东高庄东南地变压器【纯农排变】,高碑店市泗庄镇小清凌学校变压器,大董庄一号地【纯农排变】,南黄村王庆丰排灌【纯农排变】,十九垡1号地变压器【纯农排变】,邓庄西北变压器,王庆丰东,北黄北变压器,邓庄南台变压器,李南地,北黄2号地变压器【纯农排变】,王庆丰西,高碑店市泗庄初级中学变压器,变压器,十九垡东变压器,大董庄村变压器,郭庄1号地变压器【纯农排变】,南黄1号地变压器,高碑店市晶普玻璃制造有限公司,十九垡排灌变压器【纯农排变】,郭庄西变压器,小清凌西北变压器,崔场东地变压器,崔场变压器,李北东地变压器【纯农排变】,东高庄1号地变压器【纯农排变】,邓庄西南变压器,崔庄变压器,小董庄地变压器【纯农排变】,大董庄东地变压器【纯农排变】,李北二号地变压器,李南1号地变压器【纯农排变】,小青凌地变压器【纯农排变】,小清凌南变压器,客户投资_东黄北变压器,马涛变压器,客户投资_李南东变压器,小清凌北变压器,东黄北地变压器,李北西地变压器【纯农排变】,邓庄东变压器,李南南台变压器,邓庄3号地变压器,崔场南变压器,邓庄北2,高碑店市泗庄镇邓庄小学变压器,高碑店市同兴农林畜牧有限公司,邓庄中变压器,邓庄北变压器,北黄地变压器【纯农排变】,凡庄1号地变压器【纯农排变】,郭庄地变压器【纯农排变】,十九垡东地变压器,郭庄东变压器,高碑店市金冠黄桃专业合作社变压器,郭庄东地变压器【纯农排变】,0387440563-泗庄中学-专变-45277413-泗庄中学,北黄西南台柱上变压器,保定博德广信皮革制品有限公司,邓庄东北,李北地变压器【纯农排变】,北留北变压器,十九垡中变压器,东高庄西台变压器,庞场革厂,邓庄西变压器,陶阳庄2号地变压器【纯农排变】,大董庄地变压器【纯农排变】,陶阳庄变压器,养路工区变压器,崔场西北地变压器【纯农排变】,","scope":"【影响街道/乡镇】泗庄镇 【高危重要客户】无 【影响客户】北黄村、北留村、李南村、李北村、东黄村（部分）、崔庄村、邓庄村、小董庄村、大董庄村、郭庄村、陶阳庄村、凡庄村、东高庄村、崔场村、小清凌村、十九垡、水厂、金冠黄桃专业合作社、邓庄小学、小清凌小学、泗庄初级中学、同兴农林畜牧有限公司、付英启、邓庄面粉厂、郭庄面粉厂、养路工区、博荣拉链厂、泗庄中学、交警监控、泗庄总校、安海林、同兴农林畜牧有限公司二","startTime":"2018-06-29 11:58:02","stopDate":"2018-06-29 19:30:00","orgNo":"1340612","typeCode":"电网故障停限电","poweroffArea":"【全线路停电】停小清凌北变压器,东高庄东南地变压器【纯农排变】,李南2号地变压器,凡庄地变压器【纯农排变】,北黄东北地变压器【纯农排变】,小董庄村变压器,小青凌地变压器【纯农排变】,高碑店市同兴农林畜牧有限公司,十九垡西变压器,邓庄排灌变压器【纯农排变】,李南东地变压器【纯农排变】,南黄1号地变压器,东高庄西台变压器,东高东台变压器,邓庄东北,北留北变压器,客户投资_东黄北变压器,北留1号地变压器【纯农排变】,陶阳庄变压器,十九垡中变压器,北黄地变压器【纯农排变】,李北1号地变压器【纯农排变】,小清凌南变压器,高碑店市泗庄镇小清凌学校变压器,凡庄1号地变压器【纯农排变】,大董庄一号地【纯农排变】,李南地,邓庄西变压器,南黄西南台,李北东地变压器【纯农排变】,保定博德广信皮革制品有限公司,陶阳庄2号地变压器【纯农排变】,北黄西台变压器,小董庄地变压器【纯农排变】,小清凌中变压器,十九垡排灌变压器【纯农排变】,李北地变压器【纯农排变】,邓庄2号地变压器【纯农排变】,郭庄东变压器,北留东变压器,邓庄1号地变压器【纯农排变】,崔场西北地变压器【纯农排变】,邓庄北2,大董庄地变压器【纯农排变】,东高庄东北地变压器【纯农排变】,十九垡1号地变压器【纯农排变】,高碑店市泗庄镇邓庄小学变压器,小清凌西北变压器,雄县大营镇鼎拓板材复合厂,十九垡东变压器,高碑店市晶普玻璃制造有限公司,邓庄西南变压器,大董庄东地变压器【纯农排变】,李南1号地变压器【纯农排变】,郭庄1号地变压器【纯农排变】,陶阳庄1号地变压器【纯农排变】,十九垡东地变压器,崔场南变压器,邓庄中变压器,十九垡北,崔场东地变压器,崔庄变压器,李南西变压器,高碑店市金冠黄桃专业合作社变压器,北黄2号地变压器【纯农排变】,大董庄村变压器,李北二号地变压器,郭庄西变压器,郭庄东地变压器【纯农排变】,庞场革厂,邓庄面粉厂南,郭庄面粉厂,北黄1号地变压器【纯农排变】,邓庄北变压器,十九垡西地变压器,0387440563-泗庄中学-专变-45277413-泗庄中学,东黄北地变压器,崔场地变压器【纯农排变】,李北西变压器,邓庄西北变压器,崔场变压器,郭庄地变压器【纯农排变】,王庆丰东,王庆丰西,李北西地变压器【纯农排变】,李南3号地变压器,南黄村王庆丰排灌【纯农排变】,北黄北变压器,凡庄变压器1,北黄西南台柱上变压器,高碑店市泗庄初级中学变压器,东黄1号地变压器【纯农排变】,邓庄东变压器,养路工区变压器,马涛变压器,凡庄2号地变压器【纯农排变】,变压器,郭庄东北台变压器,客户投资_李南东变压器,水厂,邓庄地变压器,邓庄南台变压器,邓庄3号地变压器,东高庄1号地变压器【纯农排变】,李北东变压器,李南南台变压器,李南4号地变压器","poweroffReason":"【停电原因】由于水厂电缆坏导致３５ＫＶ泗庄变电站１０ＫＶ邓庄５１３线路全线停电 【变更送电】因抢修进度加快原因，送电时间由２２：００变更为１９：３０ 【发布渠道】通过９５５９８发布","powerTime":"2018-06-29 19:15:31","powerComm":"已送电","subsNo":"","lineNo":"","tgNo":"","tgName":null,"infoStatus":"1","orgName":"国网高碑店市供电公司","typeName":null,"infoStatusName":null,"dateDay":null,"orgNos":null,"nowTime":null,"countyName":null,"streetName":null,"villageName":null,"roadName":null,"communityName":null,"tranName":null,"sdLineName":null,"cityCode":"1340612","cityName":"国网高碑店市供电公司","provinceCode":null,"stopTime":"2018-06-29 19:30:00","powerType":"全部","powerOffArea":"【全线路停电】停小清凌北变压器,东高庄东南地变压器【纯农排变】,李南2号地变压器,凡庄地变压器【纯农排变】,北黄东北地变压器【纯农排变】,小董庄村变压器,小青凌地变压器【纯农排变】,高碑店市同兴农林畜牧有限公司,十九垡西变压器,邓庄排灌变压器【纯农排变】,李南东地变压器【纯农排变】,南黄1号地变压器,东高庄西台变压器,东高东台变压器,邓庄东北,北留北变压器,客户投资_东黄北变压器,北留1号地变压器【纯农排变】,陶阳庄变压器,十九垡中变压器,北黄地变压器【纯农排变】,李北1号地变压器【纯农排变】,小清凌南变压器,高碑店市泗庄镇小清凌学校变压器,凡庄1号地变压器【纯农排变】,大董庄一号地【纯农排变】,李南地,邓庄西变压器,南黄西南台,李北东地变压器【纯农排变】,保定博德广信皮革制品有限公司,陶阳庄2号地变压器【纯农排变】,北黄西台变压器,小董庄地变压器【纯农排变】,小清凌中变压器,十九垡排灌变压器【纯农排变】,李北地变压器【纯农排变】,邓庄2号地变压器【纯农排变】,郭庄东变压器,北留东变压器,邓庄1号地变压器【纯农排变】,崔场西北地变压器【纯农排变】,邓庄北2,大董庄地变压器【纯农排变】,东高庄东北地变压器【纯农排变】,十九垡1号地变压器【纯农排变】,高碑店市泗庄镇邓庄小学变压器,小清凌西北变压器,雄县大营镇鼎拓板材复合厂,十九垡东变压器,高碑店市晶普玻璃制造有限公司,邓庄西南变压器,大董庄东地变压器【纯农排变】,李南1号地变压器【纯农排变】,郭庄1号地变压器【纯农排变】,陶阳庄1号地变压器【纯农排变】,十九垡东地变压器,崔场南变压器,邓庄中变压器,十九垡北,崔场东地变压器,崔庄变压器,李南西变压器,高碑店市金冠黄桃专业合作社变压器,北黄2号地变压器【纯农排变】,大董庄村变压器,李北二号地变压器,郭庄西变压器,郭庄东地变压器【纯农排变】,庞场革厂,邓庄面粉厂南,郭庄面粉厂,北黄1号地变压器【纯农排变】,邓庄北变压器,十九垡西地变压器,0387440563-泗庄中学-专变-45277413-泗庄中学,东黄北地变压器,崔场地变压器【纯农排变】,李北西变压器,邓庄西北变压器,崔场变压器,郭庄地变压器【纯农排变】,王庆丰东,王庆丰西,李北西地变压器【纯农排变】,李南3号地变压器,南黄村王庆丰排灌【纯农排变】,北黄北变压器,凡庄变压器1,北黄西南台柱上变压器,高碑店市泗庄初级中学变压器,东黄1号地变压器【纯农排变】,邓庄东变压器,养路工区变压器,马涛变压器,凡庄2号地变压器【纯农排变】,变压器,郭庄东北台变压器,客户投资_李南东变压器,水厂,邓庄地变压器,邓庄南台变压器,邓庄3号地变压器,东高庄1号地变压器【纯农排变】,李北东变压器,李南南台变压器,李南4号地变压器","powerOffReason":"【停电原因】由于水厂电缆坏导致３５ＫＶ泗庄变电站１０ＫＶ邓庄５１３线路全线停电 【变更送电】因抢修进度加快原因，送电时间由２２：００变更为１９：３０ 【发布渠道】通过９５５９８发布","powerOffId":"2018062913000249"}],"pageModel":{"pageNow":952,"totalCount":10973,"totalPage":1098,"tableRows":0,"pageCount":10,"beginCount":9510},"isExperi":"1"}