{"message":"","today":"2020-06-15","seleList":[{"poweroffId":2018062913000224,"sgpoweroffId":null,"subsName":"","lineName":"坨南线517","pubTranName":"中国移动通信集团河北有限公司满城分公司,东赵庄村东北,西赵庄村委会2号,赵庄2号,东赵庄中和峪,北赵庄村东,东赵庄村北,曹家峪,西赵庄村西北,东赵庄村内,曹家峪村西2号,满城县兴农生物质燃料有限公司,满城县金果果蔬加工有限公司,东赵庄村东,坨南果园,大坎下4号土地整改,北台鱼大队,岭西供电所新建,岭西村大地,杨庄村西新增,杨庄八达岭【纯农排变】,北赵庄村西北,落沟村北新增3号,大坎下2号土地整改,黄山村内,北台鱼村南,曹家峪新增,北峪,北赵庄荒沟梁【纯农排变】,东赵庄牛鸡岭,西赵庄村西,大坎下西南,西赵庄村北,落沟村北【纯农排变】,曹家峪村南,扬庄西架坨,北台鱼村北,落沟村北2号【纯农排变】,杨庄村内,西赵庄村委会1号,中国移动通信集团河北有限公司满城,北台鱼南门,落沟村内,东赵庄桥东,长青太行水业有限公司,北赵庄村内,养路工区,曹家峪村东,北赵庄凤凰山,北赵庄大队,西赵庄村南2号,北峪村南,北台鱼乡中,龙爪沟,飞龙石业,北台鱼市场,坎下石板厂,东赵庄村南3号,东赵庄村南,坎下村内,东赵庄新增,黄山村北,北赵庄村北,扬庄北山,曹家峪村民委员会,西赵庄村内,凤凰山庄,北赵庄村南,赵庄1号土地整改,北台鱼村东,东赵庄南沟,曹仙洞洞口,北赵庄东山【纯农排变】,黄山2号,北赵庄东坡梁【纯农排变】,落沟村西【纯农排变】,曹家峪村西1号,坨南村内,肖占营石板厂,坎下村村东南,北峪新增【纯农排变】,北赵庄东庄,大坎下3号土地整改,北台鱼村东北,满城县花琴养猪场,木兰溶洞,北赵庄东沟,黄山1号,西赵庄村南【纯农排变】,北台鱼村内,","scope":"【影响街道/乡镇】坨南乡 【高危重要客户】无 【影响客户】坨南村、杨庄村、落沟村、北峪村、北台鱼村、东赵庄村、北赵庄村、西赵庄村、坎下村、曹家峪村、黄山村（龙爪沟）","startTime":"2018-06-29 10:40:10","stopDate":"2018-06-29 11:50:57","orgNo":"1340617","typeCode":"超电网供电能力停限电","poweroffArea":"【全线路停电】停北峪新增【纯农排变】,北赵庄村北,西赵庄村南【纯农排变】,坎下村内,东赵庄南沟,东赵庄牛鸡岭,北赵庄荒沟梁【纯农排变】,东赵庄村北,北台鱼村东,岭西供电所新建,赵庄2号,赵庄1号土地整改,曹家峪村西2号,满城县金果果蔬加工有限公司,东赵庄新增,西赵庄村西,北赵庄东坡梁【纯农排变】,北赵庄凤凰山,东赵庄村东北,北赵庄村西北,北赵庄村内,黄山村北,黄山1号,扬庄北山,扬庄西架坨,肖占营石板厂,飞龙石业,东赵庄桥东,落沟村内,黄山村内,东赵庄村东,东赵庄中和峪,大坎下西南,北赵庄东庄,西赵庄村南2号,坨南果园,杨庄村内,落沟村北【纯农排变】,北峪,北台鱼村北,北赵庄村南,北赵庄东沟,东赵庄村南3号,龙爪沟,曹家峪村民委员会,北台鱼市场,中国移动通信集团河北有限公司满城分公司,坎下村村东南,北台鱼村南,坎下石板厂,曹家峪村西1号,大坎下4号土地整改,落沟村北2号【纯农排变】,西赵庄村内,西赵庄村委会2号,长青太行水业有限公司,落沟村北新增3号,东赵庄村内,落沟村西【纯农排变】,黄山2号,北台鱼南门,西赵庄村西北,中国移动通信集团河北有限公司满城,曹家峪新增,北峪村南,坨南村内,北台鱼乡中,凤凰山庄,北台鱼村内,曹仙洞洞口,西赵庄村北,木兰溶洞,大坎下2号土地整改,杨庄村西新增,满城县花琴养猪场,北赵庄村东,大坎下3号土地整改,曹家峪村东,北台鱼大队,养路工区,北台鱼村东北,西赵庄村委会1号,北赵庄大队,曹家峪村南,杨庄八达岭【纯农排变】,满城县兴农生物质燃料有限公司,曹家峪,东赵庄村南,岭西村大地,北赵庄东山【纯农排变】","poweroffReason":"【停电原因】由于变电站主变过负荷导致３５ＫＶ岭西变电站坨南线５１７线路全线停电 【变更送电】无 【发布渠道】９５５９８","powerTime":"2018-06-29 11:24:19","powerComm":"已送电","subsNo":"","lineNo":"","tgNo":"","tgName":null,"infoStatus":"1","orgName":"国网满城县供电公司","typeName":null,"infoStatusName":null,"dateDay":null,"orgNos":null,"nowTime":null,"countyName":null,"streetName":null,"villageName":null,"roadName":null,"communityName":null,"tranName":null,"sdLineName":null,"cityCode":"1340617","cityName":"国网满城县供电公司","provinceCode":null,"stopTime":"2018-06-29 11:50:57","powerType":"全部","powerOffArea":"【全线路停电】停北峪新增【纯农排变】,北赵庄村北,西赵庄村南【纯农排变】,坎下村内,东赵庄南沟,东赵庄牛鸡岭,北赵庄荒沟梁【纯农排变】,东赵庄村北,北台鱼村东,岭西供电所新建,赵庄2号,赵庄1号土地整改,曹家峪村西2号,满城县金果果蔬加工有限公司,东赵庄新增,西赵庄村西,北赵庄东坡梁【纯农排变】,北赵庄凤凰山,东赵庄村东北,北赵庄村西北,北赵庄村内,黄山村北,黄山1号,扬庄北山,扬庄西架坨,肖占营石板厂,飞龙石业,东赵庄桥东,落沟村内,黄山村内,东赵庄村东,东赵庄中和峪,大坎下西南,北赵庄东庄,西赵庄村南2号,坨南果园,杨庄村内,落沟村北【纯农排变】,北峪,北台鱼村北,北赵庄村南,北赵庄东沟,东赵庄村南3号,龙爪沟,曹家峪村民委员会,北台鱼市场,中国移动通信集团河北有限公司满城分公司,坎下村村东南,北台鱼村南,坎下石板厂,曹家峪村西1号,大坎下4号土地整改,落沟村北2号【纯农排变】,西赵庄村内,西赵庄村委会2号,长青太行水业有限公司,落沟村北新增3号,东赵庄村内,落沟村西【纯农排变】,黄山2号,北台鱼南门,西赵庄村西北,中国移动通信集团河北有限公司满城,曹家峪新增,北峪村南,坨南村内,北台鱼乡中,凤凰山庄,北台鱼村内,曹仙洞洞口,西赵庄村北,木兰溶洞,大坎下2号土地整改,杨庄村西新增,满城县花琴养猪场,北赵庄村东,大坎下3号土地整改,曹家峪村东,北台鱼大队,养路工区,北台鱼村东北,西赵庄村委会1号,北赵庄大队,曹家峪村南,杨庄八达岭【纯农排变】,满城县兴农生物质燃料有限公司,曹家峪,东赵庄村南,岭西村大地,北赵庄东山【纯农排变】","powerOffReason":"【停电原因】由于变电站主变过负荷导致３５ＫＶ岭西变电站坨南线５１７线路全线停电 【变更送电】无 【发布渠道】９５５９８","powerOffId":"2018062913000224"},{"poweroffId":2018062913000182,"sgpoweroffId":null,"subsName":"","lineName":"10kV王盘线513","pubTranName":"2王盘外14【纯农排变】,清苑县建业彩钢有限公司,王盘外22【纯农排变】,南邓村棉织厂,南邓村面粉厂,1王盘内12,清苑县朋达储备有限公司,王盘5号,清苑县来义面粉厂,王盘外17【纯农排变】,王盘中学,王盘外18【纯农排变】,1王盘内11,1王盘内10,王盘外19【纯农排变】,王盘6号,王盘面粉厂,1南邓村内5,1王盘内7,南邓村外4【纯农排变】,南邓村外5【纯农排变】,王盘外15【纯农排变】,王盘外12【纯农排变】,王盘外16【纯农排变】,南邓村外6【纯农排变】,南邓村外7【纯农排变】,南邓村外3【纯农排变】,王盘4号,王盘村幸福小区,南邓村内3,王盘外11【纯农排变】,王盘2号,1王盘内9,清苑县王盘中航彩钢板加工厂,保定市清苑区刘芳冷库,0626026040-清苑县王盘一龙冷库-专变-136256400-清苑县王盘一龙冷库,2王盘外23【纯农排变】,蠡县腾运纺织有限公司,蠡县亿丰纺织有限公司,王盘外20【纯农排变】,清苑县温仁镇王牌冷食厂,王盘内8,1王盘内1,王盘外13【纯农排变】,蠡县华泰纺织有限公司,王盘外9【纯农排变】,1王盘内13,1南邓村内2,2王盘外10【纯农排变】,王盘外8【纯农排变】,王盘外7【纯农排变】,1南邓村内4,南邓村外2【纯农排变】,客户投资_1王盘内3,清苑县振兴冷库,南邓村外8【纯农排变】,0617750002-清苑县南邓村红强机床加工厂-专变-128688011-清苑县南邓村红强机床加工厂,王盘外21【纯农排变】,南邓村内1,","scope":"【影响街道/乡镇】温仁乡 【高危重要客户】无 【影响客户】王盘村、南邓村","startTime":"2018-06-29 10:04:54","stopDate":"2018-06-29 12:00:00","orgNo":"1340618","typeCode":"电网故障停限电","poweroffArea":"【全线路停电】停清苑县建业彩钢有限公司,蠡县腾运纺织有限公司,南邓村外7【纯农排变】,客户投资_1王盘内3,王盘外11【纯农排变】,王盘外22【纯农排变】,蠡县亿丰纺织有限公司,王盘2号,南邓村内3,南邓村棉织厂,王盘外21【纯农排变】,王盘外20【纯农排变】,王盘外19【纯农排变】,王盘6号,清苑县温仁镇王牌冷食厂,南邓村外3【纯农排变】,南邓村面粉厂,清苑县振兴冷库,王盘内8,王盘4号,南邓村外8【纯农排变】,王盘村幸福小区,2王盘外14【纯农排变】,0617750002-清苑县南邓村红强机床加工厂-专变-128688011-清苑县南邓村红强机床加工厂,2王盘外23【纯农排变】,王盘外9【纯农排变】,1王盘内12,清苑县朋达储备有限公司,1王盘内11,1王盘内10,1王盘内1,王盘外17【纯农排变】,1王盘内13,南邓村内1,王盘面粉厂,1南邓村内2,1南邓村内5,王盘外13【纯农排变】,王盘中学,1王盘内7,蠡县华泰纺织有限公司,南邓村外4【纯农排变】,1王盘内9,2王盘外10【纯农排变】,南邓村外5【纯农排变】,王盘外8【纯农排变】,王盘5号,王盘外15【纯农排变】,清苑县王盘中航彩钢板加工厂,王盘外7【纯农排变】,保定市清苑区刘芳冷库,王盘外12【纯农排变】,清苑县来义面粉厂,1南邓村内4,0626026040-清苑县王盘一龙冷库-专变-136256400-清苑县王盘一龙冷库,王盘外16【纯农排变】,南邓村外6【纯农排变】,王盘外18【纯农排变】,南邓村外2【纯农排变】","poweroffReason":"【停电原因】由于主干７１号杆分支１６号杆南邓村面粉厂避雷器击穿导致３５ＫＶ王盘变电站１０ＫＶ王盘线５１３线路全线停电 【变更送电】因抢修进度加快原因，送电时间由１６：００变更为１２：００ 【发布渠道】通过９５５９８发布","powerTime":"2018-06-29 11:37:18","powerComm":"冯斌通知已送电","subsNo":"","lineNo":"","tgNo":"","tgName":null,"infoStatus":"1","orgName":"国网清苑县供电公司","typeName":null,"infoStatusName":null,"dateDay":null,"orgNos":null,"nowTime":null,"countyName":null,"streetName":null,"villageName":null,"roadName":null,"communityName":null,"tranName":null,"sdLineName":null,"cityCode":"1340618","cityName":"国网清苑县供电公司","provinceCode":null,"stopTime":"2018-06-29 12:00:00","powerType":"全部","powerOffArea":"【全线路停电】停清苑县建业彩钢有限公司,蠡县腾运纺织有限公司,南邓村外7【纯农排变】,客户投资_1王盘内3,王盘外11【纯农排变】,王盘外22【纯农排变】,蠡县亿丰纺织有限公司,王盘2号,南邓村内3,南邓村棉织厂,王盘外21【纯农排变】,王盘外20【纯农排变】,王盘外19【纯农排变】,王盘6号,清苑县温仁镇王牌冷食厂,南邓村外3【纯农排变】,南邓村面粉厂,清苑县振兴冷库,王盘内8,王盘4号,南邓村外8【纯农排变】,王盘村幸福小区,2王盘外14【纯农排变】,0617750002-清苑县南邓村红强机床加工厂-专变-128688011-清苑县南邓村红强机床加工厂,2王盘外23【纯农排变】,王盘外9【纯农排变】,1王盘内12,清苑县朋达储备有限公司,1王盘内11,1王盘内10,1王盘内1,王盘外17【纯农排变】,1王盘内13,南邓村内1,王盘面粉厂,1南邓村内2,1南邓村内5,王盘外13【纯农排变】,王盘中学,1王盘内7,蠡县华泰纺织有限公司,南邓村外4【纯农排变】,1王盘内9,2王盘外10【纯农排变】,南邓村外5【纯农排变】,王盘外8【纯农排变】,王盘5号,王盘外15【纯农排变】,清苑县王盘中航彩钢板加工厂,王盘外7【纯农排变】,保定市清苑区刘芳冷库,王盘外12【纯农排变】,清苑县来义面粉厂,1南邓村内4,0626026040-清苑县王盘一龙冷库-专变-136256400-清苑县王盘一龙冷库,王盘外16【纯农排变】,南邓村外6【纯农排变】,王盘外18【纯农排变】,南邓村外2【纯农排变】","powerOffReason":"【停电原因】由于主干７１号杆分支１６号杆南邓村面粉厂避雷器击穿导致３５ＫＶ王盘变电站１０ＫＶ王盘线５１３线路全线停电 【变更送电】因抢修进度加快原因，送电时间由１６：００变更为１２：００ 【发布渠道】通过９５５９８发布","powerOffId":"2018062913000182"},{"poweroffId":2018062913000160,"sgpoweroffId":null,"subsName":"","lineName":"开二线512","pubTranName":"【纯农排变】开二5#公用,【纯农排变】开二3#公用,开一2#公用,【纯农排变】开口8#水利公用,【纯农排变】开口6#水利公用,谢克民,靳家祥,【纯农排变】开一2号水利公用（512）,0670445864-雄县天丰塑料厂-专变-210397972-雄县天丰塑料厂,开一3#公用,【纯农排变】开一6#公用,中国移动通信集团河北有限公司雄县分公司,董春路,开三南水,刘春旺,【纯农排变】开口2#水利公用,开三东水,张振华,国小明,【纯农排变】开三9#公用,【纯农排变】开三10#公用,开三北水,董老七,董小柱,【纯农排变】开口7#水利公用,【纯农排变】开二6#公用,国双会,【纯农排变】董庄村内公用,【纯农排变】开口内北公用,【纯农排变】开口4#水利公用,董二来,邢爱强,开一1#公用,【纯农排变】开三7#公用,陈振清,0692820199-雄县张岗乡开口第一小学-专变-235692398-雄县张岗乡开口第一小学,【纯农排变】董庄2#水利公用,辛炳寅,开二北水,雄县强大塑料异型材厂,韩庄6#水利,【纯农排变】开三8#公用,【纯农排变】开二2#水利,【纯农排变】开三3#公用,【纯农排变】董庄2#公用,【纯农排变】开二4#公用,【纯农排变】开三11#公用,【纯农排变】开一水利公用1号,雄县瑞思塑业有限公司,【纯农排变】开口10#水利公用,雄县开明电器有限公司,【纯农排变】开一5#公用,开一村委会公用,【纯农排变】开三1#公用,开一4#公用,【纯农排变】开口9#水利公用,开一面粉厂,【纯农排变】开口3#水利公用,雄县贾友乐塑料制品厂,【纯农排变】开三4#公用,董庄3号公用,开一果园,0606802842-雄县永胜装饰材料厂-专变-127337547-雄县永胜装饰材料厂,【纯农排变】开三6#公用,【纯农排变】开二7#公用,【纯农排变】开口1#水利公用,【纯农排变】开一4#水利公用,【纯农排变】开二8#公用,董万臣1#,开二西水,雄县红日塑胶装饰材料制品厂2#,国网河北电动汽车服务有限公司,【纯农排变】开二一号水利公用,开一水利8#公用,【纯农排变】开三2#公用,【纯农排变】开二内南,董庄3#水利,【纯农排变】开口5#水利公用,","scope":"【影响街道/乡镇】张岗乡 【高危重要客户】无 【影响客户】开三、开一、开二、开口、董庄","startTime":"2018-06-29 09:44:11","stopDate":"2018-06-29 11:30:00","orgNo":"1340624","typeCode":"电网故障停限电","poweroffArea":"【全线路停电】停董庄3#水利,【纯农排变】开三6#公用,【纯农排变】开口4#水利公用,雄县红日塑胶装饰材料制品厂2#,【纯农排变】开三1#公用,开二北水,张振华,国网河北电动汽车服务有限公司,靳家祥,【纯农排变】开二7#公用,【纯农排变】开一2号水利公用（512）,【纯农排变】开二8#公用,开一3#公用,【纯农排变】开口8#水利公用,【纯农排变】开口9#水利公用,董万臣1#,【纯农排变】开二2#水利,开二西水,韩庄6#水利,【纯农排变】开三4#公用,0670445864-雄县天丰塑料厂-专变-210397972-雄县天丰塑料厂,开一2#公用,【纯农排变】开三9#公用,【纯农排变】开口6#水利公用,【纯农排变】开三8#公用,【纯农排变】开二5#公用,开一面粉厂,【纯农排变】开三3#公用,【纯农排变】开三10#公用,【纯农排变】开二3#公用,【纯农排变】开三11#公用,董庄3号公用,【纯农排变】开口3#水利公用,谢克民,【纯农排变】开一水利公用1号,开一果园,开三北水,【纯农排变】开口7#水利公用,【纯农排变】开二一号水利公用,雄县强大塑料异型材厂,0692820199-雄县张岗乡开口第一小学-专变-235692398-雄县张岗乡开口第一小学,【纯农排变】开二6#公用,开一1#公用,【纯农排变】开一4#水利公用,开一水利8#公用,国双会,【纯农排变】开三7#公用,邢爱强,中国移动通信集团河北有限公司雄县分公司,雄县开明电器有限公司,【纯农排变】开二内南,董春路,雄县贾友乐塑料制品厂,开三南水,辛炳寅,刘春旺,【纯农排变】董庄2#公用,董小柱,【纯农排变】开口5#水利公用,【纯农排变】开一5#公用,【纯农排变】董庄2#水利公用,董老七,【纯农排变】开口2#水利公用,【纯农排变】开二4#公用,开一村委会公用,开一4#公用,【纯农排变】开三2#公用,【纯农排变】董庄村内公用,开三东水,0606802842-雄县永胜装饰材料厂-专变-127337547-雄县永胜装饰材料厂,【纯农排变】开口10#水利公用,【纯农排变】开一6#公用,【纯农排变】开口内北公用,董二来,国小明,【纯农排变】开口1#水利公用,陈振清,雄县瑞思塑业有限公司","poweroffReason":"【停电原因】由于Ｂ相接地导致３５ＫＶ张岗变电站开二线５１２线路全线停电 【变更送电】因抢修进度加快原因，送电时间由１５：００变更为１１：３０ 【发布渠道】通过９５５９８发布","powerTime":"2018-06-29 10:56:17","powerComm":"已送电","subsNo":"","lineNo":"","tgNo":"","tgName":null,"infoStatus":"1","orgName":"(原)国网雄县供电公司","typeName":null,"infoStatusName":null,"dateDay":null,"orgNos":null,"nowTime":null,"countyName":null,"streetName":null,"villageName":null,"roadName":null,"communityName":null,"tranName":null,"sdLineName":null,"cityCode":"1340624","cityName":"(原)国网雄县供电公司","provinceCode":null,"stopTime":"2018-06-29 11:30:00","powerType":"全部","powerOffArea":"【全线路停电】停董庄3#水利,【纯农排变】开三6#公用,【纯农排变】开口4#水利公用,雄县红日塑胶装饰材料制品厂2#,【纯农排变】开三1#公用,开二北水,张振华,国网河北电动汽车服务有限公司,靳家祥,【纯农排变】开二7#公用,【纯农排变】开一2号水利公用（512）,【纯农排变】开二8#公用,开一3#公用,【纯农排变】开口8#水利公用,【纯农排变】开口9#水利公用,董万臣1#,【纯农排变】开二2#水利,开二西水,韩庄6#水利,【纯农排变】开三4#公用,0670445864-雄县天丰塑料厂-专变-210397972-雄县天丰塑料厂,开一2#公用,【纯农排变】开三9#公用,【纯农排变】开口6#水利公用,【纯农排变】开三8#公用,【纯农排变】开二5#公用,开一面粉厂,【纯农排变】开三3#公用,【纯农排变】开三10#公用,【纯农排变】开二3#公用,【纯农排变】开三11#公用,董庄3号公用,【纯农排变】开口3#水利公用,谢克民,【纯农排变】开一水利公用1号,开一果园,开三北水,【纯农排变】开口7#水利公用,【纯农排变】开二一号水利公用,雄县强大塑料异型材厂,0692820199-雄县张岗乡开口第一小学-专变-235692398-雄县张岗乡开口第一小学,【纯农排变】开二6#公用,开一1#公用,【纯农排变】开一4#水利公用,开一水利8#公用,国双会,【纯农排变】开三7#公用,邢爱强,中国移动通信集团河北有限公司雄县分公司,雄县开明电器有限公司,【纯农排变】开二内南,董春路,雄县贾友乐塑料制品厂,开三南水,辛炳寅,刘春旺,【纯农排变】董庄2#公用,董小柱,【纯农排变】开口5#水利公用,【纯农排变】开一5#公用,【纯农排变】董庄2#水利公用,董老七,【纯农排变】开口2#水利公用,【纯农排变】开二4#公用,开一村委会公用,开一4#公用,【纯农排变】开三2#公用,【纯农排变】董庄村内公用,开三东水,0606802842-雄县永胜装饰材料厂-专变-127337547-雄县永胜装饰材料厂,【纯农排变】开口10#水利公用,【纯农排变】开一6#公用,【纯农排变】开口内北公用,董二来,国小明,【纯农排变】开口1#水利公用,陈振清,雄县瑞思塑业有限公司","powerOffReason":"【停电原因】由于Ｂ相接地导致３５ＫＶ张岗变电站开二线５１２线路全线停电 【变更送电】因抢修进度加快原因，送电时间由１５：００变更为１１：３０ 【发布渠道】通过９５５９８发布","powerOffId":"2018062913000160"},{"poweroffId":2018062913000134,"sgpoweroffId":null,"subsName":"","lineName":"10kV514导务线","pubTranName":"保定太行肠衣有限公司,柴各庄北2150|24002150,小掌西0940#农排|24000940,燕子水2560#农排|24002560,南康关0820|24000820,北康关东庄0860|24000860,燕子水农业7927,小掌东综合,贾合适1770#农排|24001770,南康关东1840#农排|24001840,小掌,柴各庄十亩湾2120#农排|24002120,小掌0930#农排|24000930,北康关东北综合8456,康关北庄0810#农排|24000810,柴各庄石牛2130#农排|24002130,麦旺730|24000730,东安阳0720#农排|24000720,柴各庄综合6015,燕子水0800|24000800,麦旺0760#农排|24000760,柴各庄村北农业2622,康关北综合2127,柴各庄2170#农排|24002170,南康关东1900#农排|24001900,北康关0880#农排|24000880,东白司城综合7836,0469472093-中国铁塔股份有限公司保定市分公司-专变-46816867-中国移动,南康关0840#农排|24000840,北康关村0870|24000870,导务0790#农排|24000790,南康关南综合7861,南康关南1890#农排|24001890,北康关村西0990|24000990,南康关2460|24002460,台鱼乡政府,导务2740,南康关村西1000|24001000,柴各庄村内农业2844,康北庄东综合7869,康北庄0950|24000950,柴各庄东沟2100#农排|24002100,导务东0770|24000770,导务0780#农排|24000780,0684640732-佛光寺-专变-225174026-佛光寺200,北康关2580|24002580,南康关东庄0830|24000830,小掌农业8333,麦旺0740#农排|24000740,柴各庄综合8340,燕子水2080#农排|24002080,麦旺750|24000750,柴各庄西燕坡2110#农排|24002110,东安阳西北2240#农排|24002240,导务村南2610|24002610,东安阳综合8335,北康关0970#农排|24000970,康北庄西综合8373,柴各庄南2160|24002160,南康关东综合8368,导务西0910|24000910,北康关0920#农排|24000920,","scope":"【影响街道/乡镇】台鱼乡【高危重要客户】无【影响客户】麦旺、导务、燕子水、南康关、南康关东庄、北康关东庄、北康关、小掌村、康关北庄、柴各庄、东白司城、东安阳、台鱼乡政府","startTime":"2018-06-29 09:19:18","stopDate":"2018-06-29 15:00:00","orgNo":"1340621","typeCode":"超电网供电能力停限电","poweroffArea":"【全线路停电】停南康关0840#农排|24000840,导务村南2610|24002610,0684640732-佛光寺-专变-225174026-佛光寺200,保定太行肠衣有限公司,麦旺0760#农排|24000760,导务0780#农排|24000780,东安阳综合8335,柴各庄北2150|24002150,东安阳西北2240#农排|24002240,柴各庄村北农业2622,北康关2580|24002580,小掌西0940#农排|24000940,康关北综合2127　","poweroffReason":"【停电原因】由于安阳变电站主变过负荷导致３５ＫＶ安阳变电站１０ＫＶ５１４导务线路全线停电【变更送电】因主变负荷恢复正常原因，送电时间由１８：００变更为１５：００【发布渠道】通过９５５９８发布","powerTime":"2018-06-29 14:30:36","powerComm":"已送电","subsNo":"","lineNo":"","tgNo":"","tgName":null,"infoStatus":"1","orgName":"国网顺平县电力局","typeName":null,"infoStatusName":null,"dateDay":null,"orgNos":null,"nowTime":null,"countyName":null,"streetName":null,"villageName":null,"roadName":null,"communityName":null,"tranName":null,"sdLineName":null,"cityCode":"1340621","cityName":"国网顺平县电力局","provinceCode":null,"stopTime":"2018-06-29 15:00:00","powerType":"全部","powerOffArea":"【全线路停电】停南康关0840#农排|24000840,导务村南2610|24002610,0684640732-佛光寺-专变-225174026-佛光寺200,保定太行肠衣有限公司,麦旺0760#农排|24000760,导务0780#农排|24000780,东安阳综合8335,柴各庄北2150|24002150,东安阳西北2240#农排|24002240,柴各庄村北农业2622,北康关2580|24002580,小掌西0940#农排|24000940,康关北综合2127　","powerOffReason":"【停电原因】由于安阳变电站主变过负荷导致３５ＫＶ安阳变电站１０ＫＶ５１４导务线路全线停电【变更送电】因主变负荷恢复正常原因，送电时间由１８：００变更为１５：００【发布渠道】通过９５５９８发布","powerOffId":"2018062913000134"},{"poweroffId":2018062913000065,"sgpoweroffId":null,"subsName":"","lineName":"下河西线516","pubTranName":"10kV516下河西线下河西供50号,","scope":"【影响街道/乡镇】史端乡 【高危重要客户】无 【影响客户】下河西村","startTime":"2018-06-29 07:31:48","stopDate":"2018-06-29 19:00:00","orgNo":"1340605","typeCode":"电网故障停限电","poweroffArea":"【单台区停电】停10kV516下河西线下河西供50号","poweroffReason":"【停电原因】由于变压器低压保险片烧毁导致３５ＫＶ下河西变电站下河西５１６线路下河西供５０号公变台区停电 【变更送电】无 【发布渠道】通过９５５９８发布","powerTime":"2018-06-29 15:46:05","powerComm":"已送电","subsNo":"","lineNo":"","tgNo":"","tgName":null,"infoStatus":"1","orgName":"国网徐水县供电公司","typeName":null,"infoStatusName":null,"dateDay":null,"orgNos":null,"nowTime":null,"countyName":null,"streetName":null,"villageName":null,"roadName":null,"communityName":null,"tranName":null,"sdLineName":null,"cityCode":"1340605","cityName":"国网徐水县供电公司","provinceCode":null,"stopTime":"2018-06-29 19:00:00","powerType":"全部","powerOffArea":"【单台区停电】停10kV516下河西线下河西供50号","powerOffReason":"【停电原因】由于变压器低压保险片烧毁导致３５ＫＶ下河西变电站下河西５１６线路下河西供５０号公变台区停电 【变更送电】无 【发布渠道】通过９５５９８发布","powerOffId":"2018062913000065"},{"poweroffId":2018062813001142,"sgpoweroffId":null,"subsName":"","lineName":"安乐585线","pubTranName":"东安乐3020变压器,西安乐0352变压器,西安乐4194变压器,拔茄3352变压器【纯农排变】,拔茄水4507变压器【纯农排变】,唐县安乐铸造有限公司计量点,东安乐3408变压器,西安乐0356变压器【纯农排变】,西安乐0358变压器【纯农排变】,西安乐0198变压器【纯农排变】,西安乐0366变压器【纯农排变】,北安乐5258变压器,东安乐2091变压器,拔茄0369变压器【纯农排变】,东安乐0343变压器,拔茄村5157变压器,东安乐0346变压器【纯农排变】,东安乐0342变压器【纯农排变】,西安乐铸造厂1035,东安乐5064变压器,西安乐6012变压器,东安乐0372变压器,东安乐0345变压器【纯农排变】,拔茄水2370变压器【纯农排变】,唐县王京镇东安乐村水利灌溉6056新装,西安乐小学7751变压器【煤改电】,西安乐2854变压器,东安乐0388变压器【纯农排变】,西安乐0355变压器【纯农排变】,东安乐0387变压器【纯农排变】,拔茄4919变压器,北安乐0389变压器【纯农排变】,拔茄0368变压器【纯农排变】,北安乐0337变压器【纯农排变】,西安乐0381变压器,拔茄村0336变压器,安乐综合加工厂2651,拔茄0378变压器,东安乐0373变压器【纯农排变】,西安乐0379变压器,东安乐3132变压器,东安乐南水4678【纯农排变】,西安乐0377变压器,西安乐小学7228变压器【煤改电】,拔茄0370变压器【纯农排变】,西安乐0306变压器【纯农排变】,西安乐0347变压器,西安乐0330变压器【纯农排变】,第二织布厂0202,西安乐0195变压器【纯农排变】,拔茄6861变压器【纯农排变】,唐县安乐铸造有限公司,保定三俊排水制品制造有限公司10KV配变,拔茄抄表队变压器,北安乐1491变压器,西安乐0351变压器,西安乐6862变压器,北安乐0376变压器【纯农排变】,拔茄4524变压器,唐县安乐铸造有限公司250kva,拨茄小学2 7232变压器【煤改电】,西安乐0200变压器【纯农排变】,拔茄村西6008台区变压器,拔茄幼儿园7752变压器【煤改电】,拔茄村0334变压器,拔茄0374变压器【纯农排变】,拨茄小学1 7231变压器【煤改电】,东安乐0204变压器【纯农排变】,东安乐0385变压器【纯农排变】,拔茄1705变压器【纯农排变】,北安乐3382变压器,西安乐0357变压器【纯农排变】,","scope":"【影响街道/乡镇】王京镇【高危重要客户】无【影响客户】西安乐、北安乐、拔茄、东安乐、唐县紫恒建材制造有限公司、唐县安乐铸造有限公司、河北省唐县第二纺织机械厂、唐县安乐铸造有限公司","startTime":"2018-06-28 22:23:00","stopDate":"2018-06-28 23:59:00","orgNo":"1340622","typeCode":"超电网供电能力停限电","poweroffArea":"【全线路停电】停拔茄4524变压器,东安乐0343变压器,西安乐6012变压器,保定三俊排水制品制造有限公司10KV配变,拔茄抄表队变压器,北安乐0337变压器【纯农排变】,东安乐3020变压器,拔茄村5157变压器,西安乐0381变压器,北安乐1491变压器,西安乐0352变压器,东安乐0346变压器【纯农排变】,拔茄村0336变压器,西安乐0351变压器,安乐综合加工厂2651,东安乐0342变压器【纯农排变】,拔茄0378变压器,西安乐4194变压器,西安乐6862变压器,西安乐铸造厂1035,东安乐0373变压器【纯农排变】,北安乐0376变压器【纯农排变】,拔茄3352变压器【纯农排变】,东安乐5064变压器,西安乐0379变压器,唐县安乐铸造有限公司250kva,东安乐3132变压器,东安乐0372变压器,拔茄水4507变压器【纯农排变】,拨茄小学2 7232变压器【煤改电】,东安乐南水4678【纯农排变】,东安乐0345变压器【纯农排变】,唐县安乐铸造有限公司计量点,西安乐0200变压器【纯农排变】,西安乐0377变压器,拔茄水2370变压器【纯农排变】,西安乐小学7228变压器【煤改电】,拔茄村西6008台区变压器,东安乐3408变压器,唐县王京镇东安乐村水利灌溉6056新装,拔茄0370变压器【纯农排变】,拔茄幼儿园7752变压器【煤改电】,西安乐0356变压器【纯农排变】,西安乐小学7751变压器【煤改电】,第二织布厂0202,拔茄村0334变压器,西安乐0358变压器【纯农排变】,西安乐0355变压器【纯农排变】,西安乐0195变压器【纯农排变】,拔茄0374变压器【纯农排变】,西安乐0198变压器【纯农排变】,东安乐0387变压器【纯农排变】,西安乐0306变压器【纯农排变】,拨茄小学1 7231变压器【煤改电】,西安乐0366变压器【纯农排变】,西安乐2854变压器,西安乐0347变压器,东安乐0204变压器【纯农排变】,东安乐0388变压器【纯农排变】,北安乐5258变压器,西安乐0330变压器【纯农排变】,东安乐0385变压器【纯农排变】,拔茄4919变压器,拔茄1705变压器【纯农排变】,北安乐0389变压器【纯农排变】,东安乐2091变压器,北安乐3382变压器,拔茄6861变压器【纯农排变】,拔茄0368变压器【纯农排变】,拔茄0369变压器【纯农排变】,西安乐0357变压器【纯农排变】,唐县安乐铸造有限公司","poweroffReason":"【停电原因】由于主变过负荷导致１１０ＫＶ拔茄变电站安乐５８５线路全线停电【变更送电】因负荷恢复正常，送电时间由２９日０８：００变更为２８日２３：５９【发布渠道】通过９５５９８发布","powerTime":"2018-06-28 23:30:16","powerComm":"已送电","subsNo":"","lineNo":"","tgNo":"","tgName":null,"infoStatus":"1","orgName":"国网唐县供电公司","typeName":null,"infoStatusName":null,"dateDay":null,"orgNos":null,"nowTime":null,"countyName":null,"streetName":null,"villageName":null,"roadName":null,"communityName":null,"tranName":null,"sdLineName":null,"cityCode":"1340622","cityName":"国网唐县供电公司","provinceCode":null,"stopTime":"2018-06-28 23:59:00","powerType":"全部","powerOffArea":"【全线路停电】停拔茄4524变压器,东安乐0343变压器,西安乐6012变压器,保定三俊排水制品制造有限公司10KV配变,拔茄抄表队变压器,北安乐0337变压器【纯农排变】,东安乐3020变压器,拔茄村5157变压器,西安乐0381变压器,北安乐1491变压器,西安乐0352变压器,东安乐0346变压器【纯农排变】,拔茄村0336变压器,西安乐0351变压器,安乐综合加工厂2651,东安乐0342变压器【纯农排变】,拔茄0378变压器,西安乐4194变压器,西安乐6862变压器,西安乐铸造厂1035,东安乐0373变压器【纯农排变】,北安乐0376变压器【纯农排变】,拔茄3352变压器【纯农排变】,东安乐5064变压器,西安乐0379变压器,唐县安乐铸造有限公司250kva,东安乐3132变压器,东安乐0372变压器,拔茄水4507变压器【纯农排变】,拨茄小学2 7232变压器【煤改电】,东安乐南水4678【纯农排变】,东安乐0345变压器【纯农排变】,唐县安乐铸造有限公司计量点,西安乐0200变压器【纯农排变】,西安乐0377变压器,拔茄水2370变压器【纯农排变】,西安乐小学7228变压器【煤改电】,拔茄村西6008台区变压器,东安乐3408变压器,唐县王京镇东安乐村水利灌溉6056新装,拔茄0370变压器【纯农排变】,拔茄幼儿园7752变压器【煤改电】,西安乐0356变压器【纯农排变】,西安乐小学7751变压器【煤改电】,第二织布厂0202,拔茄村0334变压器,西安乐0358变压器【纯农排变】,西安乐0355变压器【纯农排变】,西安乐0195变压器【纯农排变】,拔茄0374变压器【纯农排变】,西安乐0198变压器【纯农排变】,东安乐0387变压器【纯农排变】,西安乐0306变压器【纯农排变】,拨茄小学1 7231变压器【煤改电】,西安乐0366变压器【纯农排变】,西安乐2854变压器,西安乐0347变压器,东安乐0204变压器【纯农排变】,东安乐0388变压器【纯农排变】,北安乐5258变压器,西安乐0330变压器【纯农排变】,东安乐0385变压器【纯农排变】,拔茄4919变压器,拔茄1705变压器【纯农排变】,北安乐0389变压器【纯农排变】,东安乐2091变压器,北安乐3382变压器,拔茄6861变压器【纯农排变】,拔茄0368变压器【纯农排变】,拔茄0369变压器【纯农排变】,西安乐0357变压器【纯农排变】,唐县安乐铸造有限公司","powerOffReason":"【停电原因】由于主变过负荷导致１１０ＫＶ拔茄变电站安乐５８５线路全线停电【变更送电】因负荷恢复正常，送电时间由２９日０８：００变更为２８日２３：５９【发布渠道】通过９５５９８发布","powerOffId":"2018062813001142"},{"poweroffId":2018062813001131,"sgpoweroffId":null,"subsName":"","lineName":"10kV516北高晃线","pubTranName":"沈庄农排2台区【纯农排变】,北高晃农排6台区【纯农排变】,西柳青综合9台区,北高晃综合13台区,蠡县永丰再生胶厂变压器,西柳青综合2台区,西柳青农排3台区【纯农排变】,沈庄开花厂,西柳青农排10台区【纯农排变】,西柳青农排5台区【纯农排变】,西柳青河南南,南板,西柳青综合6台区,沈庄综合10台区,站变,北高晃综合6台区,西柳青综合3台区,北高晃农排2台区【纯农排变】,蠡县纺纱厂变压器,北高晃农排5台区【纯农排变】,高晃农业高深南,段庄综合3台区,八里庄农排5台区【纯农排变】,保定燕兆化工有限公司变压器,北高晃农排3台区【纯农排变】,西柳青农排8台区【纯农排变】,北高晃堤上农业,西柳青综合10台区,北高晃综合3台区,北高晃综合10台区,西柳青综合11台区,沈庄综合9台区,北高晃堤南农业,北高晃综合11台区,高晃鸡场,西柳青农排2台区【纯农排变】,北高晃综合16台区,北高晃农排1台区【纯农排变】,西柳青农排1台区【纯农排变】,段庄综合2台区,北高晃农排8台区【纯农排变】,北高晃综合14台区,北高晃综合5台区,西柳青农排9台区【纯农排变】,沈庄农排3台区【纯农排变】,北高晃第一纺织厂,蠡县永丰再生胶500,北高晃综合7台区,西柳青农排13台区【纯农排变】,高晃堤内农用,沈庄综合2台区,西柳青综合7台区,沈庄综合7台区,西柳青农排6台区【纯农排变】,北高晃农排9台区【纯农排变】,北高晃综合8台区,八里庄农排7台区【纯农排变】,西柳青综合5台区,八里庄面粉厂,蠡县沈庄扎花厂变压器,西柳青综合4台区,高晃农业高深北,西柳青吃水井,蠡县西柳青华宇纺织厂,北高晃综合15台区,沈庄综合5台区,保定永祥橡胶输送设备制造有限公司,沈庄综合6台区,蠡县铭福通盛服装制造厂,洪江塑料厂,河北云岭生物科技有限公司变压器,北高晃农排4台区【纯农排变】,沈庄综合1台区,段庄综合1台区,北高晃综合12台区,西柳青综合8台区,西柳青农排14台区【纯农排变】,西柳青农排7台区【纯农排变】,北高晃农排7台区【纯农排变】,西柳青综合1台区,沈庄综合3台区,蠡县永丰再生胶315,北高晃综合9台区,蠡县航轩饲养场变压器,北高晃综合1台区,北高晃纺纱厂,沈庄农排1台区【纯农排变】,北高晃农排11台区【纯农排变】,保定永祥橡胶输送设备制造有限公司500KVA,西柳青农排4台区【纯农排变】,西柳青农排12台区【纯农排变】,北高晃综合2台区,八里庄农排6台区【纯农排变】,段庄农排2台区【纯农排变】,西柳青农排11台区【纯农排变】,北高晃综合4台区,北高晃农排10台区【纯农排变】,","scope":"【影响街道/乡镇】蠡吾镇【高危重要客户】无【影响客户】北高晃村、八里庄村、西柳青村、段庄村、沈庄村（沈河庄村）","startTime":"2018-06-28 21:57:27","stopDate":"2018-06-28 23:00:00","orgNo":"1340616","typeCode":"电网故障停限电","poweroffArea":"【全线路停电】停西柳青综合5台区,北高晃综合9台区,西柳青农排2台区【纯农排变】,西柳青综合7台区,北高晃第一纺织厂,北高晃综合13台区,蠡县西柳青华宇纺织厂,西柳青河南南,西柳青农排11台区【纯农排变】八里庄农排7台区【纯农排变】,蠡县航轩饲养场变压器,西柳青农排8台区【纯农排变】,段庄综合1台区,西柳青综合1台区,保定永祥橡胶输送设备制造有限公司,西柳青农排13台区","poweroffReason":"【停电原因】由于站外开关掉闸导致３５ＫＶ王庄变电站１０ＫＶ北高晃５１６线路全线停电【变更送电】因抢修进度加快原因，送电时间由２９日１０：００变更为２８日２３：００【发布渠道】通过９５５９８发布","powerTime":"2018-06-28 22:22:10","powerComm":"已送电","subsNo":"","lineNo":"","tgNo":"","tgName":null,"infoStatus":"1","orgName":"国网蠡县供电公司","typeName":null,"infoStatusName":null,"dateDay":null,"orgNos":null,"nowTime":null,"countyName":null,"streetName":null,"villageName":null,"roadName":null,"communityName":null,"tranName":null,"sdLineName":null,"cityCode":"1340616","cityName":"国网蠡县供电公司","provinceCode":null,"stopTime":"2018-06-28 23:00:00","powerType":"全部","powerOffArea":"【全线路停电】停西柳青综合5台区,北高晃综合9台区,西柳青农排2台区【纯农排变】,西柳青综合7台区,北高晃第一纺织厂,北高晃综合13台区,蠡县西柳青华宇纺织厂,西柳青河南南,西柳青农排11台区【纯农排变】八里庄农排7台区【纯农排变】,蠡县航轩饲养场变压器,西柳青农排8台区【纯农排变】,段庄综合1台区,西柳青综合1台区,保定永祥橡胶输送设备制造有限公司,西柳青农排13台区","powerOffReason":"【停电原因】由于站外开关掉闸导致３５ＫＶ王庄变电站１０ＫＶ北高晃５１６线路全线停电【变更送电】因抢修进度加快原因，送电时间由２９日１０：００变更为２８日２３：００【发布渠道】通过９５５９８发布","powerOffId":"2018062813001131"},{"poweroffId":2018062813001130,"sgpoweroffId":null,"subsName":"","lineName":"拔茄工业576线","pubTranName":"星火玩具厂1895,保定双虎铸造有限公司10KV配变,第一机械厂0551,唐县凯华金属制品有限公司,唐县凯华金属制品有限公司4935,拔茄村1725变压器,拔茄公用0553变压器,唐县凯华金属制品有限公司4821,拔茄公用6009,保定双虎铸造有限公司-专变,双虎铸造0554,双赢机械厂0552,唐县凯华金属制品有限公司计量点,拔茄0556变压器,拔茄4917变压器,拨茄中学1 7233变压器【煤改电】,拨茄中学2 7234变压器【煤改电】,拔茄水0560变压器,尹建民厂1059,","scope":"【影响街道/乡镇】王京镇、唐王公路【高危重要客户】无【影响客户】拔茄村、唐县凯华金属制品有限公司、保定畅途金属制品有限公司、尹建民厂、河北沃田机械制造有限公司、星火玩具厂、双虎铸造","startTime":"2018-06-28 21:54:38","stopDate":"2018-06-28 23:59:00","orgNo":"1340622","typeCode":"超电网供电能力停限电","poweroffArea":"【全线路停电】停拨茄中学1 7233变压器【煤改电】,拔茄4917变压器,拨茄中学2 7234变压器【煤改电】,唐县凯华金属制品有限公司4935,拔茄公用6009,唐县凯华金属制品有限公司计量点,拔茄公用0553变压器,第一机械厂0551,保定双虎铸造有限公司-专变,拔茄0556变压器,唐县凯华金属制品有限公司4821,唐县凯华金属制品有限公司,双虎铸造0554,拔茄水0560变压器,星火玩具厂1895,双赢机械厂0552,拔茄村1725变压器,保定双虎铸造有限公司10KV配变,尹建民厂1059","poweroffReason":"【停电原因】由于主变过负荷导致１１０ＫＶ拔茄变电站拔茄工业５７６线路全线停电【变更送电】无【发布渠道】通过９５５９８发布","powerTime":"2018-06-28 23:07:21","powerComm":"已送电","subsNo":"","lineNo":"","tgNo":"","tgName":null,"infoStatus":"1","orgName":"国网唐县供电公司","typeName":null,"infoStatusName":null,"dateDay":null,"orgNos":null,"nowTime":null,"countyName":null,"streetName":null,"villageName":null,"roadName":null,"communityName":null,"tranName":null,"sdLineName":null,"cityCode":"1340622","cityName":"国网唐县供电公司","provinceCode":null,"stopTime":"2018-06-28 23:59:00","powerType":"全部","powerOffArea":"【全线路停电】停拨茄中学1 7233变压器【煤改电】,拔茄4917变压器,拨茄中学2 7234变压器【煤改电】,唐县凯华金属制品有限公司4935,拔茄公用6009,唐县凯华金属制品有限公司计量点,拔茄公用0553变压器,第一机械厂0551,保定双虎铸造有限公司-专变,拔茄0556变压器,唐县凯华金属制品有限公司4821,唐县凯华金属制品有限公司,双虎铸造0554,拔茄水0560变压器,星火玩具厂1895,双赢机械厂0552,拔茄村1725变压器,保定双虎铸造有限公司10KV配变,尹建民厂1059","powerOffReason":"【停电原因】由于主变过负荷导致１１０ＫＶ拔茄变电站拔茄工业５７６线路全线停电【变更送电】无【发布渠道】通过９５５９８发布","powerOffId":"2018062813001130"},{"poweroffId":2018062813001113,"sgpoweroffId":null,"subsName":"","lineName":"10kV东桄513线","pubTranName":"营二里综合三,营二里综合四,东桄综合八,营二里综合2变压器,侯村农业6变压器,侯村农业4台区【纯农排变】,侯村综合三台区,东桄综合四,东柴农业9台区【纯农排变】,营二里农业4台区【纯农排变】,侯村农业5台区【纯农排变】,西桄农业4台区【纯农排变】,西桄综合1变压器,西里农业2台区【纯农排变】,营二里农业5台区【纯农排变】,侯村综合1变压器,","scope":"【影响街道/乡镇】郑章镇 【高危重要客户】无 【影响客户】东桄村、西桄村、东柴村、西李村、西娄底村、常庄村、东李村、营二里村、候村","startTime":"2018-06-28 21:25:00","stopDate":"2018-06-28 23:59:00","orgNo":"1340606","typeCode":"电网故障停限电","poweroffArea":"【全线路停电】停营二里农业4台区【纯农排变】,侯村农业4台区【纯农排变】,西桄农业4台区【纯农排变】,侯村农业5台区【纯农排变】,东桄综合四,西桄综合1变压器,侯村综合三台区,西里农业2台区【纯农排变】,东桄综合八,营二里综合四,营二里综合三,东柴农业9台区【纯农排变】,侯村农业6变压器,侯村综合1变压器,营二里农业5台区【纯农排变】,营二里综合2变压器","poweroffReason":"【停电原因】由于站内开关跳闸导致３５ＫＶ常庄变电站１０ＫＶ东桄５１３线路全线停电 【变更送电】无 【发布渠道】通过９５５９８发布","powerTime":"2018-06-28 23:54:46","powerComm":"已送电","subsNo":"","lineNo":"","tgNo":"","tgName":null,"infoStatus":"1","orgName":"国网安国市供电公司","typeName":null,"infoStatusName":null,"dateDay":null,"orgNos":null,"nowTime":null,"countyName":null,"streetName":null,"villageName":null,"roadName":null,"communityName":null,"tranName":null,"sdLineName":null,"cityCode":"1340606","cityName":"国网安国市供电公司","provinceCode":null,"stopTime":"2018-06-28 23:59:00","powerType":"全部","powerOffArea":"【全线路停电】停营二里农业4台区【纯农排变】,侯村农业4台区【纯农排变】,西桄农业4台区【纯农排变】,侯村农业5台区【纯农排变】,东桄综合四,西桄综合1变压器,侯村综合三台区,西里农业2台区【纯农排变】,东桄综合八,营二里综合四,营二里综合三,东柴农业9台区【纯农排变】,侯村农业6变压器,侯村综合1变压器,营二里农业5台区【纯农排变】,营二里综合2变压器","powerOffReason":"【停电原因】由于站内开关跳闸导致３５ＫＶ常庄变电站１０ＫＶ东桄５１３线路全线停电 【变更送电】无 【发布渠道】通过９５５９８发布","powerOffId":"2018062813001113"},{"poweroffId":2018062813001058,"sgpoweroffId":null,"subsName":"","lineName":"10kV谢庄线561","pubTranName":"芦庄九台区,","scope":"【影响街道/乡镇】芦庄乡 【高危重要客户】无 【影响客户】芦庄村","startTime":"2018-06-28 20:07:27","stopDate":"2018-06-28 22:00:00","orgNo":"1340607","typeCode":"电网故障停限电","poweroffArea":"【单台区停电】停芦庄九台区","poweroffReason":"【停电原因】由于低压线断导致１１０ＫＶ芦庄变电站１０ＫＶ谢庄线５６１线路芦庄九号公变台区停电 【变更送电】无 【发布渠道】通过９５５９８发布","powerTime":"2018-06-28 21:10:50","powerComm":"已送电","subsNo":"","lineNo":"","tgNo":"","tgName":null,"infoStatus":"1","orgName":"(原)国网安新县供电公司","typeName":null,"infoStatusName":null,"dateDay":null,"orgNos":null,"nowTime":null,"countyName":null,"streetName":null,"villageName":null,"roadName":null,"communityName":null,"tranName":null,"sdLineName":null,"cityCode":"1340607","cityName":"(原)国网安新县供电公司","provinceCode":null,"stopTime":"2018-06-28 22:00:00","powerType":"全部","powerOffArea":"【单台区停电】停芦庄九台区","powerOffReason":"【停电原因】由于低压线断导致１１０ＫＶ芦庄变电站１０ＫＶ谢庄线５６１线路芦庄九号公变台区停电 【变更送电】无 【发布渠道】通过９５５９８发布","powerOffId":"2018062813001058"}],"pageModel":{"pageNow":953,"totalCount":10973,"totalPage":1098,"tableRows":0,"pageCount":10,"beginCount":9520},"isExperi":"1"}