{"message":"","today":"2020-06-15","seleList":[{"poweroffId":2018062613000599,"sgpoweroffId":null,"subsName":"","lineName":"10kV药城515线","pubTranName":"东关街综合1号变压器,蔺氏门口变压器,天龙综合变压器,大街南综合变压器,中林北综合变压器,长城东综合变压器,大厅南综合变压器,大街中综合变压器,祁惠门口综合变压器,","scope":"【影响街道/乡镇】大六街、光明街 【高危重要客户】无 【影响客户】青少年宫、城市信用社、脑血管医院、鑫丰苑、国税局家属楼、光明小区、大街南口、双龙门口、长城、药王大厦、红参小区、八五小区、交易大厅、新八五小区、菜市、法庭、菏泽大路、关汉卿剧院、八五","startTime":"2018-06-28 08:30:00","stopDate":"2018-06-28 23:30:00","orgNo":"1340606","typeCode":"临时停电","poweroffArea":"【全线路停电】停天龙综合变压器,蔺氏门口变压器,大厅南综合变压器,祁惠门口综合变压器,长城东综合变压器,东关街综合1号变压器,大街南综合变压器,大街中综合变压器,中林北综合变压器","poweroffReason":"【停电原因】由于更换电流互感器，保护改定值导致１１０ＫＶ药城变电站１０ＫＶ药城５１５线路全线停电 【变更送电】无 【发布渠道】保定市安国电视台（６月２７日００时至２４时之间）屏幕上方滚动","powerTime":"2018-06-28 23:26:05","powerComm":"已送电","subsNo":"","lineNo":"","tgNo":"","tgName":null,"infoStatus":"1","orgName":"国网安国市供电公司","typeName":null,"infoStatusName":null,"dateDay":null,"orgNos":null,"nowTime":null,"countyName":null,"streetName":null,"villageName":null,"roadName":null,"communityName":null,"tranName":null,"sdLineName":null,"cityCode":"1340606","cityName":"国网安国市供电公司","provinceCode":null,"stopTime":"2018-06-28 23:30:00","powerType":"全部","powerOffArea":"【全线路停电】停天龙综合变压器,蔺氏门口变压器,大厅南综合变压器,祁惠门口综合变压器,长城东综合变压器,东关街综合1号变压器,大街南综合变压器,大街中综合变压器,中林北综合变压器","powerOffReason":"【停电原因】由于更换电流互感器，保护改定值导致１１０ＫＶ药城变电站１０ＫＶ药城５１５线路全线停电 【变更送电】无 【发布渠道】保定市安国电视台（６月２７日００时至２４时之间）屏幕上方滚动","powerOffId":"2018062613000599"},{"poweroffId":2018062613000080,"sgpoweroffId":null,"subsName":"","lineName":"10kV边各庄514线","pubTranName":"边各庄内2397煤增,","scope":"【影响街道/乡镇】东城坊镇 【高危重要客户】无 【影响客户】边各庄村","startTime":"2018-06-28 07:00:00","stopDate":"2018-06-28 18:00:00","orgNo":"1340626","typeCode":"临时停电","poweroffArea":"【单台区停电】停边各庄内2397煤增","poweroffReason":"【停电原因】由于煤改电工程导致３５ＫＶ东城坊变电站１０ＫＶ边各庄５１４线路边各庄内２３９７煤增公变台区停电 【变更送电】无 【发布渠道】通过９５５９８发布","powerTime":"2018-06-28 17:40:34","powerComm":"恢复送电","subsNo":"","lineNo":"","tgNo":"","tgName":null,"infoStatus":"1","orgName":"国网涿州市供电公司","typeName":null,"infoStatusName":null,"dateDay":null,"orgNos":null,"nowTime":null,"countyName":null,"streetName":null,"villageName":null,"roadName":null,"communityName":null,"tranName":null,"sdLineName":null,"cityCode":"1340626","cityName":"国网涿州市供电公司","provinceCode":null,"stopTime":"2018-06-28 18:00:00","powerType":"全部","powerOffArea":"【单台区停电】停边各庄内2397煤增","powerOffReason":"【停电原因】由于煤改电工程导致３５ＫＶ东城坊变电站１０ＫＶ边各庄５１４线路边各庄内２３９７煤增公变台区停电 【变更送电】无 【发布渠道】通过９５５９８发布","powerOffId":"2018062613000080"},{"poweroffId":2018062613000079,"sgpoweroffId":null,"subsName":"","lineName":"10kV中相578","pubTranName":"柳河营1023煤增,柳河营村南内5069煤增,柳河营1011煤增,","scope":"【影响街道/乡镇】豆庄乡 【高危重要客户】无 【影响客户】柳河营村","startTime":"2018-06-28 06:00:00","stopDate":"2018-06-28 18:00:00","orgNo":"1340626","typeCode":"临时停电","poweroffArea":"【分支停电】停柳河营1011煤增,柳河营1023煤增,柳河营村南内5069煤增","poweroffReason":"【停电原因】由于煤改电工程导致２２０ＫＶ豆庄变电站１０ＫＶ中相５７８线路柳河营分支０１号杆以下线路停电 【变更送电】无 【发布渠道】通过９５５９８发布","powerTime":"2018-06-28 17:40:17","powerComm":"恢复送电","subsNo":"","lineNo":"","tgNo":"","tgName":null,"infoStatus":"1","orgName":"国网涿州市供电公司","typeName":null,"infoStatusName":null,"dateDay":null,"orgNos":null,"nowTime":null,"countyName":null,"streetName":null,"villageName":null,"roadName":null,"communityName":null,"tranName":null,"sdLineName":null,"cityCode":"1340626","cityName":"国网涿州市供电公司","provinceCode":null,"stopTime":"2018-06-28 18:00:00","powerType":"全部","powerOffArea":"【分支停电】停柳河营1011煤增,柳河营1023煤增,柳河营村南内5069煤增","powerOffReason":"【停电原因】由于煤改电工程导致２２０ＫＶ豆庄变电站１０ＫＶ中相５７８线路柳河营分支０１号杆以下线路停电 【变更送电】无 【发布渠道】通过９５５９８发布","powerOffId":"2018062613000079"},{"poweroffId":2018062613000077,"sgpoweroffId":null,"subsName":"","lineName":"10kV中相578","pubTranName":"周屯0971,","scope":"【影响街道/乡镇】豆庄乡 【高危重要客户】无 【影响客户】周屯村","startTime":"2018-06-28 07:00:00","stopDate":"2018-06-28 18:00:00","orgNo":"1340626","typeCode":"临时停电","poweroffArea":"【单台区停电】停周屯0971","poweroffReason":"【停电原因】由于煤改电工程导致２２０ＫＶ豆庄变电站１０ＫＶ中相５７８线路周屯０９７１公变台区停电 【变更送电】无 【发布渠道】通过９５５９８发布","powerTime":"2018-06-28 17:39:55","powerComm":"恢复送电","subsNo":"","lineNo":"","tgNo":"","tgName":null,"infoStatus":"1","orgName":"国网涿州市供电公司","typeName":null,"infoStatusName":null,"dateDay":null,"orgNos":null,"nowTime":null,"countyName":null,"streetName":null,"villageName":null,"roadName":null,"communityName":null,"tranName":null,"sdLineName":null,"cityCode":"1340626","cityName":"国网涿州市供电公司","provinceCode":null,"stopTime":"2018-06-28 18:00:00","powerType":"全部","powerOffArea":"【单台区停电】停周屯0971","powerOffReason":"【停电原因】由于煤改电工程导致２２０ＫＶ豆庄变电站１０ＫＶ中相５７８线路周屯０９７１公变台区停电 【变更送电】无 【发布渠道】通过９５５９８发布","powerOffId":"2018062613000077"},{"poweroffId":2018062513000348,"sgpoweroffId":null,"subsName":"","lineName":"林水线518","pubTranName":"索庄供120号变压器,林水供122号变压器,徐水县万顺塑钢门窗厂配变,徐水县树海配件加工厂,林水1号变压器,林水供8号变压器,林水供92号变压器,0683975800-徐水县树海液压机械配件加工厂-专变-223583804-徐水县树海液压机械配件加工厂变压器,徐水县东升铸造厂,林水杨同春面粉厂(原林水3号),林水砖厂2号,林水供14号变压器,北徐城6号,王铁庄供87号变压器,王铁庄供70号变压器【纯农排变】,林水10号变压器,林水4号变压器,田庄1号变压器,林水2号变压器,王铁庄供98号变压器,林水供135号变压器,保定市徐水区崔庄镇林水小学,田庄供55号变压器,林水供121 号变压器【纯农排变】,王铁庄3号变压器,索庄供139号变压器,索庄2号变压器,林水12号变压器【纯农排变】,王铁庄2号变压器,林水供80号变压器,林水供48号变压器,田庄供10号变压器,田庄2号变压器,王铁庄供112号变压器【纯农排变】,林水5号变压器【纯农排变】,索庄供30号变压器,王铁庄9号变压器,林水供104号变压器【纯农排变】,索庄供107号变压器,王铁庄1号变压器,北徐城4号变压器,林水供109 号变压器,林水供66号变压器,林水供138号变压器,林水9号变压器,林水供71号变压器,王铁庄4号变压器,索庄1号变压器【纯农排变】,林水11号变压器【纯农排变】,田庄供11号变压器,王铁庄供79号变压器,林水8号变压器,林水供15号变压器,田庄供93号变压器,徐水县建工商品混凝土有限公司,林水砖厂1号,林水7号变压器,","scope":"【影响街道/乡镇】崔庄镇 【高危重要客户】无 【影响客户】林水、索庄、田庄、北徐城、王铁庄","startTime":"2018-06-29 03:00:00","stopDate":"2018-06-29 19:00:00","orgNo":"1340605","typeCode":"临时停电","poweroffArea":"【全线路停电】停林水10号变压器,保定市徐水区崔庄镇林水小学,索庄1号变压器【纯农排变】,林水供48号变压器,田庄供55号变压器,林水供135号变压器,林水11号变压器【纯农排变】,田庄供10号变压器,林水8号变压器,北徐城6号,林水供104号变压器【纯农排变】,林水4号变压器,王铁庄3号变压器,田庄2号变压器,王铁庄供112号变压器【纯农排变】,林水供8号变压器,林水供14号变压器,王铁庄供98号变压器,田庄1号变压器,徐水县东升铸造厂,林水供109 号变压器,徐水县树海配件加工厂,徐水县建工商品混凝土有限公司,林水供92号变压器,林水7号变压器,0683975800-徐水县树海液压机械配件加工厂-专变-223583804-徐水县树海液压机械配件加工厂变压器,北徐城4号变压器,林水供15号变压器,索庄供139号变压器,田庄供11号变压器,王铁庄1号变压器,林水供122号变压器,林水供121 号变压器【纯农排变】,索庄2号变压器,林水供80号变压器,王铁庄4号变压器,林水9号变压器,林水2号变压器,索庄供30号变压器,索庄供120号变压器,田庄供93号变压器,林水杨同春面粉厂(原林水3号),王铁庄供87号变压器,林水供66号变压器,林水砖厂1号,林水砖厂2号,林水供138号变压器,王铁庄供70号变压器【纯农排变】,徐水县万顺塑钢门窗厂配变,王铁庄9号变压器,王铁庄2号变压器,林水1号变压器,王铁庄供79号变压器,林水12号变压器【纯农排变】,林水供71号变压器,索庄供107号变压器,林水5号变压器【纯农排变】","poweroffReason":"【停电原因】由于线路检修导致３５ＫＶ崔庄变电站林水５１８线路全线停电 【变更送电】无 【发布渠道】通过９５５９８发布","powerTime":"2018-06-29 18:30:39","powerComm":"已送电","subsNo":"","lineNo":"","tgNo":"","tgName":null,"infoStatus":"1","orgName":"国网徐水县供电公司","typeName":null,"infoStatusName":null,"dateDay":null,"orgNos":null,"nowTime":null,"countyName":null,"streetName":null,"villageName":null,"roadName":null,"communityName":null,"tranName":null,"sdLineName":null,"cityCode":"1340605","cityName":"国网徐水县供电公司","provinceCode":null,"stopTime":"2018-06-29 19:00:00","powerType":"全部","powerOffArea":"【全线路停电】停林水10号变压器,保定市徐水区崔庄镇林水小学,索庄1号变压器【纯农排变】,林水供48号变压器,田庄供55号变压器,林水供135号变压器,林水11号变压器【纯农排变】,田庄供10号变压器,林水8号变压器,北徐城6号,林水供104号变压器【纯农排变】,林水4号变压器,王铁庄3号变压器,田庄2号变压器,王铁庄供112号变压器【纯农排变】,林水供8号变压器,林水供14号变压器,王铁庄供98号变压器,田庄1号变压器,徐水县东升铸造厂,林水供109 号变压器,徐水县树海配件加工厂,徐水县建工商品混凝土有限公司,林水供92号变压器,林水7号变压器,0683975800-徐水县树海液压机械配件加工厂-专变-223583804-徐水县树海液压机械配件加工厂变压器,北徐城4号变压器,林水供15号变压器,索庄供139号变压器,田庄供11号变压器,王铁庄1号变压器,林水供122号变压器,林水供121 号变压器【纯农排变】,索庄2号变压器,林水供80号变压器,王铁庄4号变压器,林水9号变压器,林水2号变压器,索庄供30号变压器,索庄供120号变压器,田庄供93号变压器,林水杨同春面粉厂(原林水3号),王铁庄供87号变压器,林水供66号变压器,林水砖厂1号,林水砖厂2号,林水供138号变压器,王铁庄供70号变压器【纯农排变】,徐水县万顺塑钢门窗厂配变,王铁庄9号变压器,王铁庄2号变压器,林水1号变压器,王铁庄供79号变压器,林水12号变压器【纯农排变】,林水供71号变压器,索庄供107号变压器,林水5号变压器【纯农排变】","powerOffReason":"【停电原因】由于线路检修导致３５ＫＶ崔庄变电站林水５１８线路全线停电 【变更送电】无 【发布渠道】通过９５５９８发布","powerOffId":"2018062513000348"},{"poweroffId":2018062513000337,"sgpoweroffId":null,"subsName":"","lineName":"三岔口516电力电缆","pubTranName":"菱角桥3号,永兴59号箱变(迁民新区1号),徐水县城乡建设局晨阳路灯2号,菱角桥9号,0469276376-徐水县华燕热收缩膜有限公司-专变-46770167-徐水县华燕热收缩膜有限公司2号,菱角桥7号,南梨园1号,保定建新彩钢工程有限公司,大寺各庄6号,三岔口6号,三岔口3号,徐水基地处机厂小区2号变,菱角桥（供电所1号）,0682550392-保定市徐水区迎新工程机械设备租赁处-专变-221690360-保定市徐水区迎新工程机械设备租赁处,小辛庄1号,三岔口10号,南梨园4号,三岔口23号,徐水基地处机厂小区5号变,三岔口14号,菱角桥1号,菱角桥10号,南徐城6号,南梨园2号,三岔口25号,菱角桥6号,三岔口26号,南徐城4号,南梨园5号,徐水基地处机厂小区6号变,菱角桥8号,河北驰力电机制造有限公司,三岔口16号,南徐城3号,大寺各庄4号,南梨园3号,八四农机站,三岔口15号,三岔口18号,菱角桥2号【纯农排变】,三岔口12号,保定建新彩钢工程有限公司1号,南梨园7号,菱角桥5号,南徐城8号,徐水县城乡建设局晨阳路灯1号,徐水县多维冶金机械制造有限公司,徐水县日力吊索具有限公司,三岔口7号,0469276376-徐水县华燕热收缩膜有限公司-专变-46770250-徐水县华燕热收缩膜有限公司1号,高庄8号,小辛庄2号,三岔口24号,三岔口1号,徐水基地处机厂小区3号变,小辛庄4号,三岔口19号,三岔口4号,三岔口22号,三岔口2号,三岔口17号,徐水县庆大汽车配件经销处,徐水基地处机厂小区4号变,三岔口20号,小辛庄3号,南徐城5号,南徐城7号,三岔口轧钢厂2号,三岔口13号,迁民庄12号,三岔口21号,南梨园6号,三岔口9号,永兴60号箱变(迁民新区2号),南梨园8号,高庄1号,高庄6号,建设局水泵站,大寺各庄7号,南徐城2号,南梨园分箱(三岔口5号)变压器,保定神骏运输设备有限公司受电点,三岔口8号,高庄5号,南徐城1号,保定天力金属结构有限公司,徐水县安肃镇中学,徐水基地处机厂小区1号变,小辛庄5号,","scope":"【影响街道/乡镇】安肃镇 【高危重要客户】无 【影响客户】三岔口、南徐城、菱角桥、南梨园、小辛庄","startTime":"2018-06-29 03:00:00","stopDate":"2018-06-29 19:00:00","orgNo":"1340605","typeCode":"临时停电","poweroffArea":"【分支停电】停三岔口25号,南徐城4号,三岔口14号,菱角桥6号,南梨园1号,小辛庄3号,南梨园8号,三岔口13号,小辛庄5号,南梨园5号,南徐城6号,三岔口4号,三岔口19号,三岔口17号,三岔口18号,南徐城8号,菱角桥8号,三岔口26号,三岔口24号,南梨园3号,三岔口16号,三岔口15号,三岔口10号,菱角桥9号,南徐城2号,菱角桥3号,菱角桥10号,菱角桥（供电所1号）,南徐城5号,三岔口23号,小辛庄1号,南徐城3号,三岔口9号,三岔口2号,三岔口22号,南梨园分箱(三岔口5号)变压器,菱角桥7号,三岔口7号,南梨园2号,南徐城7号,三岔口21号,小辛庄2号,南徐城1号,三岔口1号,菱角桥2号【纯农排变】,三岔口6号,三岔口8号,南梨园6号,南梨园4号,三岔口12号,小辛庄4号,三岔口20号,三岔口3号,南梨园7号,菱角桥5号,菱角桥1号","poweroffReason":"【停电原因】由于线路检修导致１１０ＫＶ下河西变电站三岔口５１６线路２９号分支隔离以下线路停电 【变更送电】无 【发布渠道】通过９５５９８发布","powerTime":"2018-06-29 18:31:01","powerComm":"已送电","subsNo":"","lineNo":"","tgNo":"","tgName":null,"infoStatus":"1","orgName":"国网徐水县供电公司","typeName":null,"infoStatusName":null,"dateDay":null,"orgNos":null,"nowTime":null,"countyName":null,"streetName":null,"villageName":null,"roadName":null,"communityName":null,"tranName":null,"sdLineName":null,"cityCode":"1340605","cityName":"国网徐水县供电公司","provinceCode":null,"stopTime":"2018-06-29 19:00:00","powerType":"全部","powerOffArea":"【分支停电】停三岔口25号,南徐城4号,三岔口14号,菱角桥6号,南梨园1号,小辛庄3号,南梨园8号,三岔口13号,小辛庄5号,南梨园5号,南徐城6号,三岔口4号,三岔口19号,三岔口17号,三岔口18号,南徐城8号,菱角桥8号,三岔口26号,三岔口24号,南梨园3号,三岔口16号,三岔口15号,三岔口10号,菱角桥9号,南徐城2号,菱角桥3号,菱角桥10号,菱角桥（供电所1号）,南徐城5号,三岔口23号,小辛庄1号,南徐城3号,三岔口9号,三岔口2号,三岔口22号,南梨园分箱(三岔口5号)变压器,菱角桥7号,三岔口7号,南梨园2号,南徐城7号,三岔口21号,小辛庄2号,南徐城1号,三岔口1号,菱角桥2号【纯农排变】,三岔口6号,三岔口8号,南梨园6号,南梨园4号,三岔口12号,小辛庄4号,三岔口20号,三岔口3号,南梨园7号,菱角桥5号,菱角桥1号","powerOffReason":"【停电原因】由于线路检修导致１１０ＫＶ下河西变电站三岔口５１６线路２９号分支隔离以下线路停电 【变更送电】无 【发布渠道】通过９５５９８发布","powerOffId":"2018062513000337"},{"poweroffId":2018062413000096,"sgpoweroffId":null,"subsName":"","lineName":"10kV大阳站535线路","pubTranName":"C034柱上变压器,","scope":"【影响街道/乡镇】杨庄乡 【高危重要客户】无 【影响客户】中阳村","startTime":"2018-06-30 04:00:00","stopDate":"2018-06-30 18:00:00","orgNo":"13406","typeCode":"临时停电","poweroffArea":"【单台区停电】停C034柱上变压器","poweroffReason":"【停电原因】由于更换低压主线导致１０ＫＶ大阳变电站５３５线路Ｃ０３４公变台区停电【变更送电】无【发布渠道】通过９５５９８发布","powerTime":"2018-06-30 17:55:12","powerComm":"已送电","subsNo":"","lineNo":"","tgNo":"","tgName":null,"infoStatus":"1","orgName":"保定供电公司","typeName":null,"infoStatusName":null,"dateDay":null,"orgNos":null,"nowTime":null,"countyName":null,"streetName":null,"villageName":null,"roadName":null,"communityName":null,"tranName":null,"sdLineName":null,"cityCode":"13406","cityName":"保定供电公司","provinceCode":null,"stopTime":"2018-06-30 18:00:00","powerType":"全部","powerOffArea":"【单台区停电】停C034柱上变压器","powerOffReason":"【停电原因】由于更换低压主线导致１０ＫＶ大阳变电站５３５线路Ｃ０３４公变台区停电【变更送电】无【发布渠道】通过９５５９８发布","powerOffId":"2018062413000096"},{"poweroffId":2018062413000091,"sgpoweroffId":null,"subsName":"","lineName":"10kV鲁岗站521线路","pubTranName":"10kVY0413.Y0414配电室Y0413配电变压器,0669107456-大唐保定热电厂-专变-210352686-变压器,10kVY0413.Y0414配电室Y0414配电变压器,","scope":"【影响街道/乡镇】七一路、乐凯北大街 【高危重要客户】无 【影响客户】热电厂宿舍","startTime":"2018-06-30 06:00:00","stopDate":"2018-06-30 18:00:00","orgNo":"13406","typeCode":"临时停电","poweroffArea":"【分支停电】停0669107456-大唐保定热电厂-专变-210352686-变压器,10kVY0413.Y0414配电室Y0413配电变压器,10kVY0413.Y0414配电室Y0414配电变压器","poweroffReason":"【停电原因】由于用户设备原因导致１０ＫＶ鲁岗变电站５２１线路乐凯大街８９号杆以下停电【变更送电】因抢修进度加快，原定２０：００送电现计划１８：００送电【发布渠道】保定市保定有线电视台（０６月２７日２０时１５分至２１时４５分之间）屏幕上滚动","powerTime":"2018-06-30 17:51:14","powerComm":"已送电","subsNo":"","lineNo":"","tgNo":"","tgName":null,"infoStatus":"1","orgName":"保定供电公司","typeName":null,"infoStatusName":null,"dateDay":null,"orgNos":null,"nowTime":null,"countyName":null,"streetName":null,"villageName":null,"roadName":null,"communityName":null,"tranName":null,"sdLineName":null,"cityCode":"13406","cityName":"保定供电公司","provinceCode":null,"stopTime":"2018-06-30 18:00:00","powerType":"全部","powerOffArea":"【分支停电】停0669107456-大唐保定热电厂-专变-210352686-变压器,10kVY0413.Y0414配电室Y0413配电变压器,10kVY0413.Y0414配电室Y0414配电变压器","powerOffReason":"【停电原因】由于用户设备原因导致１０ＫＶ鲁岗变电站５２１线路乐凯大街８９号杆以下停电【变更送电】因抢修进度加快，原定２０：００送电现计划１８：００送电【发布渠道】保定市保定有线电视台（０６月２７日２０时１５分至２１时４５分之间）屏幕上滚动","powerOffId":"2018062413000091"},{"poweroffId":2018062413000077,"sgpoweroffId":null,"subsName":"","lineName":"10kV鲁岗站520线路","pubTranName":"B1090柱上变压器,","scope":"【影响街道/乡镇】乐凯大街、光明路 【高危重要客户】无 【影响客户】兵乓球厂宿舍、电厂宿舍、合成橡胶厂","startTime":"2018-06-30 06:00:00","stopDate":"2018-06-30 10:30:00","orgNo":"13406","typeCode":"临时停电","poweroffArea":"【分支停电】停B1090柱上变压器","poweroffReason":"【停电原因】由于用户设备原因导致１０ＫＶ鲁岗变电站５２０线路乐凯大街８９号杆以下停电【变更送电】因抢修进度加快，原定20:00送电现计划10:30送电【发布渠道】保定市保定有线电视台（０６月２７日２０时１５分至２１时４５分之间）屏幕上滚动","powerTime":"2018-06-30 10:17:54","powerComm":"已送电","subsNo":"","lineNo":"","tgNo":"","tgName":null,"infoStatus":"1","orgName":"保定供电公司","typeName":null,"infoStatusName":null,"dateDay":null,"orgNos":null,"nowTime":null,"countyName":null,"streetName":null,"villageName":null,"roadName":null,"communityName":null,"tranName":null,"sdLineName":null,"cityCode":"13406","cityName":"保定供电公司","provinceCode":null,"stopTime":"2018-06-30 10:30:00","powerType":"全部","powerOffArea":"【分支停电】停B1090柱上变压器","powerOffReason":"【停电原因】由于用户设备原因导致１０ＫＶ鲁岗变电站５２０线路乐凯大街８９号杆以下停电【变更送电】因抢修进度加快，原定20:00送电现计划10:30送电【发布渠道】保定市保定有线电视台（０６月２７日２０时１５分至２１时４５分之间）屏幕上滚动","powerOffId":"2018062413000077"},{"poweroffId":2018062213000517,"sgpoweroffId":null,"subsName":"","lineName":"10kV566南陈纸厂线","pubTranName":"宋岗果园,宋岗综合4台区,宋岗西农,蠡县永兴庄摩托车修理店,另岗农排11台区【纯农排变】,宋岗农排1台区【纯农排变】,永兴庄农排3台区【纯农排变】,宋岗综合3台区,堤内陈综合1台区,永兴庄综合1台区,堤内陈综合2台区,永兴庄综合3台区,永兴庄小学综合5台区柱上变压器,堤内养猪厂,宋岗综合7台区,宋岗综合2台区,宋岗综合1台区,宋岗（农用）,另岗农排6台区【纯农排变】,宋岗综合8台区,宋岗农排3台区【纯农排变】,南陈综合4台区,宋岗综合5台区,宋岗农用,南陈综合1台区（宋岗）,永兴庄综合2台区,宋岗农排4台区【纯农排变】,堤内陈农排1台区【纯农排变】,蠡县英弘人造板制造厂变压器,永兴庄综合4台区,宋岗综合6台区,南陈综合2台区,","scope":"【影响街道/乡镇】南庄镇【高危重要客户】无【影响客户】利源造纸有限公司、宋岗村、堤内陈村、南陈村、永兴庄村","startTime":"2018-06-22 20:19:07","stopDate":"2018-06-22 21:45:00","orgNo":"1340616","typeCode":"电网故障停限电","poweroffArea":"【全线路停电】停宋岗综合2台区,南陈综合1台区（宋岗）,堤内陈农排1台区【纯农排变】,宋岗综合3台区,宋岗综合5台区,宋岗西农,永兴庄农排3台区【纯农排变】,永兴庄综合2台区,宋岗（农用）,永兴庄小学综合5台区柱上变压器,宋岗综合4台区,堤内养猪厂,宋岗果园,宋岗农排3台区【纯农排变】,宋岗综合1台区,南陈综合4台区,另岗农排6台区【纯农排变】,永兴庄综合4台区,另岗农排11台区【纯农排变】,宋岗综合6台区,宋岗农用,蠡县英弘人造板制造厂变压器,永兴庄综合1台区,南陈综合2台区,堤内陈综合2台区,宋岗综合7台区,永兴庄综合3台区,宋岗农排4台区【纯农排变】,堤内陈综合1台区,宋岗综合8台区,宋岗农排1台区【纯农排变】,蠡县永兴庄摩托车修理店","poweroffReason":"【停电原因】由于线路C相接地到零导致１１０ＫＶ南庄变电站１０ＫＶ南陈纸厂５６６线路全线停电【变更送电】由于抢修进度加快原因,送电时间由２３日１３：３０变更为２２日２１：４５【发布渠道】通过９５５９８发布","powerTime":"2018-06-22 21:06:06","powerComm":"已送电","subsNo":"","lineNo":"","tgNo":"","tgName":null,"infoStatus":"1","orgName":"国网蠡县供电公司","typeName":null,"infoStatusName":null,"dateDay":null,"orgNos":null,"nowTime":null,"countyName":null,"streetName":null,"villageName":null,"roadName":null,"communityName":null,"tranName":null,"sdLineName":null,"cityCode":"1340616","cityName":"国网蠡县供电公司","provinceCode":null,"stopTime":"2018-06-22 21:45:00","powerType":"全部","powerOffArea":"【全线路停电】停宋岗综合2台区,南陈综合1台区（宋岗）,堤内陈农排1台区【纯农排变】,宋岗综合3台区,宋岗综合5台区,宋岗西农,永兴庄农排3台区【纯农排变】,永兴庄综合2台区,宋岗（农用）,永兴庄小学综合5台区柱上变压器,宋岗综合4台区,堤内养猪厂,宋岗果园,宋岗农排3台区【纯农排变】,宋岗综合1台区,南陈综合4台区,另岗农排6台区【纯农排变】,永兴庄综合4台区,另岗农排11台区【纯农排变】,宋岗综合6台区,宋岗农用,蠡县英弘人造板制造厂变压器,永兴庄综合1台区,南陈综合2台区,堤内陈综合2台区,宋岗综合7台区,永兴庄综合3台区,宋岗农排4台区【纯农排变】,堤内陈综合1台区,宋岗综合8台区,宋岗农排1台区【纯农排变】,蠡县永兴庄摩托车修理店","powerOffReason":"【停电原因】由于线路C相接地到零导致１１０ＫＶ南庄变电站１０ＫＶ南陈纸厂５６６线路全线停电【变更送电】由于抢修进度加快原因,送电时间由２３日１３：３０变更为２２日２１：４５【发布渠道】通过９５５９８发布","powerOffId":"2018062213000517"}],"pageModel":{"pageNow":960,"totalCount":10973,"totalPage":1098,"tableRows":0,"pageCount":10,"beginCount":9590},"isExperi":"1"}