{"message":"","today":"2020-06-15","seleList":[{"poweroffId":2018062213000450,"sgpoweroffId":null,"subsName":"","lineName":"10kV550南关线","pubTranName":"吴家庄古永昌,永军面粉厂,北下叔4660#农排|20004660【纯农排变】,吴家庄新增综合8446,北下叔190#农排|20000190【纯农排变】,伙家关3340综合|20003340,霍家关新增农业1号【纯农排变】,刘立虎,委加关3310#农业|20003310【纯农排变】,张秀珍,吴家庄村南综合,谷学林4号综合4567,古占营,委家关东南综合,吴炳南塑料厂,伙家关3350#农排|20003350【纯农排变】,顺平致成饲养农业【纯农排变】,0469124011-中国移动通信集团河北有限公司顺平分公司-专变-46723598-中国移动,南关3620#农业|20003620【纯农排变】,吴家庄3370#（综合）|20003370,霍家关3320|20003320,吴家庄3380#（综合）|20003380,南关9990|20009990,霍家关9980|20009980,霍家关综合3号7375,石政华,吴家庄新增1号综合,一亩泉顺平酒业有限公司,吴家庄3号综合3456,北下叔180#农排|20000180【纯农排变】,天龙养殖场7680#农业|20007680【纯农排变】,吴家庄10#农排|20000010【纯农排变】,吴家庄1号台区(综合),霍家关3450#综合|20003450,红春养殖厂9820#农排|20009820【纯农排变】,吴家庄3630|20003630,","scope":"【影响街道/乡镇】蒲阳镇【高危重要客户】无【影响客户】吴家庄、霍家关、北下叔、顺平致成农业饲养、南关、委家关、吴炳南塑料厂、永军面粉厂、郭志奇、长江砖厂、中国移动、刘立虎、张秀珍、肖文彦、红春养殖厂、小宝鸡厂、天龙养殖场","startTime":"2018-06-22 17:09:49","stopDate":"2018-06-22 19:30:00","orgNo":"1340621","typeCode":"电网故障停限电","poweroffArea":"【全线路停电】停北下叔180#农排|20000180【纯农排变】,南关3620#农业|20003620【纯农排变】,顺平致成饲养农业【纯农排变】,霍家关9980|20009980,张秀珍,吴家庄新增综合8446,伙家关3340综合|20003340,北下叔190#农排|20000190【纯农排变】,委家关东南综合,吴家庄古永昌,霍家关新增农业1号【纯农排变】,吴家庄3370#（综合）|20003370,吴家庄村南综合,吴家庄新增1号综合,古占营,霍家关综合3号7375,吴炳南塑料厂,吴家庄3380#（综合）|20003380,永军面粉厂,霍家关3320|20003320,伙家关3350#农排|20003350【纯农排变】,石政华,吴家庄3630|20003630","poweroffReason":"【停电原因】由于地埋电缆断线导致２２０ＫＶ吴家庄变电站１０ＫＶ５５０南关线路全线停电【变更送电】因抢修进度加快原因，送电时间由２２：００变更为１９：３０【发布渠道】通过９５５９８发布","powerTime":"2018-06-22 18:48:41","powerComm":"已送电","subsNo":"","lineNo":"","tgNo":"","tgName":null,"infoStatus":"1","orgName":"国网顺平县电力局","typeName":null,"infoStatusName":null,"dateDay":null,"orgNos":null,"nowTime":null,"countyName":null,"streetName":null,"villageName":null,"roadName":null,"communityName":null,"tranName":null,"sdLineName":null,"cityCode":"1340621","cityName":"国网顺平县电力局","provinceCode":null,"stopTime":"2018-06-22 19:30:00","powerType":"全部","powerOffArea":"【全线路停电】停北下叔180#农排|20000180【纯农排变】,南关3620#农业|20003620【纯农排变】,顺平致成饲养农业【纯农排变】,霍家关9980|20009980,张秀珍,吴家庄新增综合8446,伙家关3340综合|20003340,北下叔190#农排|20000190【纯农排变】,委家关东南综合,吴家庄古永昌,霍家关新增农业1号【纯农排变】,吴家庄3370#（综合）|20003370,吴家庄村南综合,吴家庄新增1号综合,古占营,霍家关综合3号7375,吴炳南塑料厂,吴家庄3380#（综合）|20003380,永军面粉厂,霍家关3320|20003320,伙家关3350#农排|20003350【纯农排变】,石政华,吴家庄3630|20003630","powerOffReason":"【停电原因】由于地埋电缆断线导致２２０ＫＶ吴家庄变电站１０ＫＶ５５０南关线路全线停电【变更送电】因抢修进度加快原因，送电时间由２２：００变更为１９：３０【发布渠道】通过９５５９８发布","powerOffId":"2018062213000450"},{"poweroffId":2018062213000336,"sgpoweroffId":null,"subsName":"","lineName":"北桥头515","pubTranName":"昌盛钙粉厂(刘森),美律电子（河北）有限公司变压器,龙泉塑料厂(卢志刚),桥头供电所,北桥头村5#村南,东张庄村2#村西,东张家庄10#西,东张庄王英面粉厂(龙王庙),南留召村1#村内,北桥头村11村南,西留召村3#村内【纯农排变】,易县移动公司（南山北村）,0631831253-易县兴发建材有限公司-专变-144689825-易县兴发建材有限公司变压器,南山北村2#变压器,龙王庙村内2号,南山北村3#村东,侯宗江,南留召村4#村东,麻屋庄村1#,南山北村1#村内,南留召5号,易县职教中心,北山北村2#村西,东张庄3#影视城,东张家庄9#村北,南山北钙粉厂(王术同),北桥头村9#村北,南山北村5#村东,北山南村1#村东,纪兴种苗厂,东张庄12#村内,北山北村3#村西,易县天承建筑材料厂,0469488816-易县越发钙粉厂-专变-46820772-易县越发钙粉厂,中山南村3#变压器【纯农排变】,麻屋庄村5#路北,南山北村4#村南【纯农排变】,麻屋庄村4#村东,龙王庙村7#村东,南山北村7#村北,南留召村2#村北,东山北村6#村北,东山北村3#村北,龙王庙村4#村北【纯农排变】,老山兰灰厂(李永保),北桥头村2#村内,东山北村2#村东,东山北村5#村北【纯农排变】,东张家庄6号村北,东山北村1#村内,易县职业技术教育中心160KVA,宗刚澎润土厂,麻屋庄面粉厂,南留召村3#村南【纯农排变】,易县立新钙粉厂（杨永堂）,泰和土地整理服务有限公司-西留召100KVA,西留召村2#村内,龙王庙村5#村南,北桥头村6#村内【纯农排变】,麻屋庄村采矿1#,北山北村1号村西,龙王庙村3#村西【纯农排变】,绿周苗木有限公司(于建立),龙王庙村1#村东,南山北村闫江变压器,北山北村6#变压器,北桥头村12村东,西留召村4#,麻屋庄村3#村南（综）变压器,北桥头村4#河西,北桥头钙粉厂(王俊超),南山北水泥厂(侯艳利),北山北村5号村东【纯农排变】,北桥头村8#村东,龙王庙村6#村中,伊振良,东张家庄11村东,易县双联钙粉厂变压器,麻屋庄村路南2号,南山北村6#村北,北桥头村3#村西,东张家庄村4#【纯农排变】,北桥头村7#【纯农排变】,东山北村8#,西留召村1#村内,易县闫生大理石厂,东山北村7#村北,东张庄村1#村内,东山北村4#村东【纯农排变】,北桥头村1#村东,南山北村(王术文),北山北村4#村南,东张家庄7#村东,北山北大队(蔺合春砖厂),北桥头村10村内,东张家庄8#村东,梁春华变压器,","scope":"【影响街道/乡镇】桥头乡【高危重要客户】无【影响客户】麻屋庄村、中山南村、北山南村、北桥头村、西留召村、南留召村、东张家庄村、东龙王庙村、北山北村、南山北村、东山北村","startTime":"2018-06-22 14:20:36","stopDate":"2018-06-22 20:00:00","orgNo":"1340625","typeCode":"电网故障停限电","poweroffArea":"【全线路停电】停麻屋庄村采矿1#,北山北大队(蔺合春砖厂),东张家庄11村东,东张庄王英面粉厂(龙王庙),南山北钙粉厂(王术同),北桥头村12村东,侯宗江,老山兰灰厂(李永保),南留召村2#村北,北桥头村11村南,龙王庙村内2号,昌盛钙粉厂(刘森),0469488816-易县越发钙粉厂-专变-46820772-易县越发钙粉厂,麻屋庄村5#路北,北桥头钙粉厂(王俊超),北山北村5号村东【纯农排变】,南山北村(王术文),麻屋庄村4#村东,绿周苗木有限公司(于建立),南山北水泥厂(侯艳利),宗刚澎润土厂,南山北村3#村东,东张庄12#村内,易县职教中心,东张庄村1#村内,东张庄村2#村西,东山北村5#村北【纯农排变】,南留召5号,南留召村3#村南【纯农排变】,东张庄3#影视城,南留召村4#村东,0631831253-易县兴发建材有限公司-专变-144689825-易县兴发建材有限公司变压器,美律电子（河北）有限公司变压器,北桥头村9#村北,龙王庙村3#村西【纯农排变】,北桥头村8#村东,东山北村6#村北,北山北村1号村西,南山北村闫江变压器,南山北村1#村内,麻屋庄村3#村南（综）变压器,西留召村3#村内【纯农排变】,东山北村2#村东,南山北村5#村东,南山北村6#村北,中山南村3#变压器【纯农排变】,北桥头村10村内,易县天承建筑材料厂,龙王庙村7#村东,麻屋庄村1#,东张家庄8#村东,北山北村4#村南,西留召村4#,北山北村6#变压器,北桥头村4#河西,东张家庄6号村北,东山北村8#,泰和土地整理服务有限公司-西留召100KVA,梁春华变压器,北桥头村5#村南,西留召村1#村内,易县双联钙粉厂变压器,东张家庄7#村东,北山南村1#村东,龙王庙村1#村东,龙王庙村6#村中,龙王庙村5#村南,南山北村4#村南【纯农排变】,南留召村1#村内,东张家庄10#西,北山北村3#村西,东山北村7#村北,南山北村2#变压器,北山北村2#村西,北桥头村1#村东,东山北村1#村内,北桥头村3#村西,东山北村3#村北,龙王庙村4#村北【纯农排变】,麻屋庄村路南2号,南山北村7#村北,北桥头村6#村内【纯农排变】,东山北村4#村东【纯农排变】,易县职业技术教育中心160KVA,纪兴种苗厂,麻屋庄面粉厂,伊振良,桥头供电所,易县立新钙粉厂（杨永堂）,北桥头村2#村内,北桥头村7#【纯农排变】,西留召村2#村内,东张家庄9#村北,龙泉塑料厂(卢志刚),易县闫生大理石厂,东张家庄村4#【纯农排变】,易县移动公司（南山北村）","poweroffReason":"【停电原因】由于北桥头钙粉厂变压器跌落烧毁（客户产权）故障导致３５ＫＶ燕城变电站北桥头５１５线路全线停电【变更送电】无【发布渠道】通过９５５９８发布","powerTime":"2018-06-22 16:11:55","powerComm":"已送电","subsNo":"","lineNo":"","tgNo":"","tgName":null,"infoStatus":"1","orgName":"国网易县供电公司","typeName":null,"infoStatusName":null,"dateDay":null,"orgNos":null,"nowTime":null,"countyName":null,"streetName":null,"villageName":null,"roadName":null,"communityName":null,"tranName":null,"sdLineName":null,"cityCode":"1340625","cityName":"国网易县供电公司","provinceCode":null,"stopTime":"2018-06-22 20:00:00","powerType":"全部","powerOffArea":"【全线路停电】停麻屋庄村采矿1#,北山北大队(蔺合春砖厂),东张家庄11村东,东张庄王英面粉厂(龙王庙),南山北钙粉厂(王术同),北桥头村12村东,侯宗江,老山兰灰厂(李永保),南留召村2#村北,北桥头村11村南,龙王庙村内2号,昌盛钙粉厂(刘森),0469488816-易县越发钙粉厂-专变-46820772-易县越发钙粉厂,麻屋庄村5#路北,北桥头钙粉厂(王俊超),北山北村5号村东【纯农排变】,南山北村(王术文),麻屋庄村4#村东,绿周苗木有限公司(于建立),南山北水泥厂(侯艳利),宗刚澎润土厂,南山北村3#村东,东张庄12#村内,易县职教中心,东张庄村1#村内,东张庄村2#村西,东山北村5#村北【纯农排变】,南留召5号,南留召村3#村南【纯农排变】,东张庄3#影视城,南留召村4#村东,0631831253-易县兴发建材有限公司-专变-144689825-易县兴发建材有限公司变压器,美律电子（河北）有限公司变压器,北桥头村9#村北,龙王庙村3#村西【纯农排变】,北桥头村8#村东,东山北村6#村北,北山北村1号村西,南山北村闫江变压器,南山北村1#村内,麻屋庄村3#村南（综）变压器,西留召村3#村内【纯农排变】,东山北村2#村东,南山北村5#村东,南山北村6#村北,中山南村3#变压器【纯农排变】,北桥头村10村内,易县天承建筑材料厂,龙王庙村7#村东,麻屋庄村1#,东张家庄8#村东,北山北村4#村南,西留召村4#,北山北村6#变压器,北桥头村4#河西,东张家庄6号村北,东山北村8#,泰和土地整理服务有限公司-西留召100KVA,梁春华变压器,北桥头村5#村南,西留召村1#村内,易县双联钙粉厂变压器,东张家庄7#村东,北山南村1#村东,龙王庙村1#村东,龙王庙村6#村中,龙王庙村5#村南,南山北村4#村南【纯农排变】,南留召村1#村内,东张家庄10#西,北山北村3#村西,东山北村7#村北,南山北村2#变压器,北山北村2#村西,北桥头村1#村东,东山北村1#村内,北桥头村3#村西,东山北村3#村北,龙王庙村4#村北【纯农排变】,麻屋庄村路南2号,南山北村7#村北,北桥头村6#村内【纯农排变】,东山北村4#村东【纯农排变】,易县职业技术教育中心160KVA,纪兴种苗厂,麻屋庄面粉厂,伊振良,桥头供电所,易县立新钙粉厂（杨永堂）,北桥头村2#村内,北桥头村7#【纯农排变】,西留召村2#村内,东张家庄9#村北,龙泉塑料厂(卢志刚),易县闫生大理石厂,东张家庄村4#【纯农排变】,易县移动公司（南山北村）","powerOffReason":"【停电原因】由于北桥头钙粉厂变压器跌落烧毁（客户产权）故障导致３５ＫＶ燕城变电站北桥头５１５线路全线停电【变更送电】无【发布渠道】通过９５５９８发布","powerOffId":"2018062213000336"},{"poweroffId":2018062213000309,"sgpoweroffId":null,"subsName":"","lineName":"迪城线577","pubTranName":"小千秋4号,任庄5号【纯农排变】,肖迪城6号【纯农排变】,任庄16号【纯农排变】,肖迪城5号【纯农排变】,崔迪城3号【纯农排变】,李迪城11号【纯农排变】,崔迪城2号【纯农排变】,于迪城16号【纯农排变】,于迪城11号,崔迪城17号【纯农排变】,汉阳5号,蒙域王子羊绒,于迪城2号【纯农排变】,李迪城16号【纯农排变】,任庄12号【纯农排变】,大千秋2号【纯农排变】,崔迪城12号【纯农排变】,李迪城7号【纯农排变】,大因扬水机站2号,大因12号【纯农排变】,大因29号【纯农排变】,任庄7号变压器【纯农排变】,崔迪城6号【纯农排变】,任庄17号,徐水县宝坤建筑材料销售有限公司,崔迪城4号【纯农排变】,崔迪城10号【纯农排变】,于迪城7号【纯农排变】,大因34号,保定市徐水区大因镇李迪城小学,于迪城3号【纯农排变】,李迪城（农开1）【纯农排变】,大因27号【纯农排变】,0654423789-蒙域王子羊绒纺织股份有限公司-专变-183723479-蒙域王子羊绒纺织有限公司变压器,李迪城4号【纯农排变】,肖迪城3号【纯农排变】,李迪城17号【纯农排变】,大因供电所4号【纯农排变】,于迪城13号【纯农排变】,李迪城8号【纯农排变】,肖迪城4号【纯农排变】,肖迪城5号李迪城分箱【纯农排变】,大因32号【纯农排变】,于迪城15号【纯农排变】,于迪城6号【纯农排变】,肖迪城7号【纯农排变】,保定市徐水区大因镇于迪城幼儿园,任庄15号【纯农排变】,大因28号【纯农排变】,李迪城15号【纯农排变】,崔迪城1号【纯农排变】,于迪城9号【纯农排变】,迪城扬水机站1号,任庄2号【纯农排变】,任庄4号,任庄11号【纯农排变】,大因10号,崔迪城7号【纯农排变】,于迪城17号【纯农排变】,李迪城10号【纯农排变】,崔迪城14号【纯农排变】,李迪城5号【纯农排变】,于迪城4号【纯农排变】,于迪城12号【纯农排变】,大因31号,任庄7号【纯农排变】,大因7号【纯农排变】,大因26号【纯农排变】,崔迪城9号【纯农排变】,任庄3号【纯农排变】,于迪城10号【纯农排变】,保定蒙域王子羊绒纺织有限公司,大因16号【纯农排变】,李迪城1号【纯农排变】,大因11号【纯农排变】,大千秋5号,崔迪城5号【纯农排变】,肖迪城1号【纯农排变】,于迪城1号【纯农排变】,于迪城19号,李迪城12号【纯农排变】,任庄8号【纯农排变】,任庄1号【纯农排变】,崔迪城11号【纯农排变】,李迪城6号【纯农排变】,崔迪城15号【纯农排变】,0654783494-蒙域王子羊绒纺织股份有限公司-专变-183741219-蒙域王子羊绒纺织股份有限公司,李迪城14号,任庄13号【纯农排变】,大千秋9号【纯农排变】,迪城扬水机站2号,李迪城3号【纯农排变】,保定市徐水区大因镇任庄小学,于迪城5号【纯农排变】,李迪城（农开2）【纯农排变】,李迪城2号【纯农排变】,大因3号【纯农排变】,汉阳2号【纯农排变】,大千秋1号,大千秋14号【纯农排变】,大因25号【纯农排变】,于迪城18号【纯农排变】,崔迪城16号【纯农排变】,大千秋13号,崔迪城8号【纯农排变】,于迪城14号【纯农排变】,肖迪城2号【纯农排变","scope":"【影响街道/乡镇】大因镇 【高危重要客户】无 【影响客户】任庄、于迪城、崔迪城、李迪城、大因、肖迪城、大千秋","startTime":"2018-06-22 13:35:37","stopDate":"2018-06-22 22:35:47","orgNo":"1340605","typeCode":"电网故障停限电","poweroffArea":"【全线路停电】停任庄16号【纯农排变】,于迪城9号【纯农排变】,崔迪城9号【纯农排变】,李迪城15号【纯农排变】,崔迪城14号【纯农排变】,大因31号,于迪城4号【纯农排变】,保定蒙域王子羊绒纺织有限公司,崔迪城15号【纯农排变】,肖迪城3号【纯农排变】,李迪城（农开2）【纯农排变】,大千秋13号,李迪城8号【纯农排变】,李迪城2号【纯农排变】,崔迪城4号【纯农排变】,于迪城13号【纯农排变】,大因28号【纯农排变】,大因供电所4号【纯农排变】,于迪城7号【纯农排变】,李迪城（农开1）【纯农排变】,李迪城16号【纯农排变】,于迪城6号【纯农排变】,于迪城17号【纯农排变】,崔迪城10号【纯农排变】,大千秋2号【纯农排变】,于迪城10号【纯农排变】,李迪城11号【纯农排变】,任庄11号【纯农排变】,大因9号【纯农排变】,徐水县宝坤建筑材料销售有限公司,崔迪城13号【纯农排变】,崔迪城8号【纯农排变】,肖迪城5号李迪城分箱【纯农排变】,大因27号【纯农排变】,大因7号【纯农排变】,汉阳2号【纯农排变】,李迪城9号【纯农排变】,李迪城13号【纯农排变】,大千秋9号【纯农排变】,保定市徐水区大因镇李迪城小学,李迪城5号【纯农排变】,大因10号,李迪城4号【纯农排变】,任庄7号【纯农排变】,蒙域王子羊绒,任庄13号【纯农排变】,大因25号【纯农排变】,肖迪城6号【纯农排变】,李迪城12号【纯农排变】,汉阳5号,大因32号【纯农排变】,大因16号【纯农排变】,肖迪城4号【纯农排变】,保定市徐水区大因镇于迪城幼儿园,任庄4号,崔迪城3号【纯农排变】,于迪城8号【纯农排变】,肖迪城5号【纯农排变】,大因26号【纯农排变】,大因扬水机站2号,大因扬水机站1号,任庄1号【纯农排变】,于迪城16号【纯农排变】,迪城扬水机站1号,大因扬水机站3号,崔迪城7号【纯农排变】,迪城扬水机站2号,肖迪城1号【纯农排变】,大千秋1号,崔迪城1号【纯农排变】,李迪城1号【纯农排变】,大千秋11号【纯农排变】,于迪城3号【纯农排变】,任庄8号【纯农排变】,崔迪城16号【纯农排变】,任庄17号,于迪城11号,崔迪城2号【纯农排变】,大因3号【纯农排变】,于迪城14号【纯农排变】,于迪城12号【纯农排变】,0654423789-蒙域王子羊绒纺织股份有限公司-专变-183723479-蒙域王子羊绒纺织有限公司变压器,任庄7号变压器【纯农排变】,李迪城10号【纯农排变】,李迪城6号【纯农排变】,大千秋14号【纯农排变】,大因29号【纯农排变】,任庄5号【纯农排变】,大千秋5号,于迪城15号【纯农排变】,大因30号【纯农排变】,崔迪城17号【纯农排变】,李迪城7号【纯农排变】,肖迪城2号【纯农排变】,大因12号【纯农排变】,于迪城18号【纯农排变】,小千秋4号,0654783494-蒙域王子羊绒纺织股份有限公司-专变-183741219-蒙域王子羊绒纺织股份有限公司,任庄15号【纯农排变】,任庄12号【纯农排变】,保定市徐水区大因镇任庄小学,大因11号【纯农排变】,任庄3号【纯农排变】,李迪城17号【纯农排变】,于迪城19号,崔迪城6号【纯农排变】,于迪城2号【纯农排变】,肖迪城7号【纯农排变】,李迪城3号【纯农排变】,李迪城14号,大因34号,崔迪城12号【纯农排变】,任庄2号【纯农排变】,崔迪城11号【纯农排变】,于迪城5号【纯农排变】,崔迪城5号【纯农排变】,于迪城1号【纯农排变】,大因18号","poweroffReason":"【停电原因】由于Ｂ相接地导致１１０ＫＶ沙口变电站迪城线５７７线路全线停电 【变更送电】无 【发布渠道】通过９５５９８发布","powerTime":"2018-06-22 14:28:21","powerComm":"已送电","subsNo":"","lineNo":"","tgNo":"","tgName":null,"infoStatus":"1","orgName":"国网徐水县供电公司","typeName":null,"infoStatusName":null,"dateDay":null,"orgNos":null,"nowTime":null,"countyName":null,"streetName":null,"villageName":null,"roadName":null,"communityName":null,"tranName":null,"sdLineName":null,"cityCode":"1340605","cityName":"国网徐水县供电公司","provinceCode":null,"stopTime":"2018-06-22 22:35:47","powerType":"全部","powerOffArea":"【全线路停电】停任庄16号【纯农排变】,于迪城9号【纯农排变】,崔迪城9号【纯农排变】,李迪城15号【纯农排变】,崔迪城14号【纯农排变】,大因31号,于迪城4号【纯农排变】,保定蒙域王子羊绒纺织有限公司,崔迪城15号【纯农排变】,肖迪城3号【纯农排变】,李迪城（农开2）【纯农排变】,大千秋13号,李迪城8号【纯农排变】,李迪城2号【纯农排变】,崔迪城4号【纯农排变】,于迪城13号【纯农排变】,大因28号【纯农排变】,大因供电所4号【纯农排变】,于迪城7号【纯农排变】,李迪城（农开1）【纯农排变】,李迪城16号【纯农排变】,于迪城6号【纯农排变】,于迪城17号【纯农排变】,崔迪城10号【纯农排变】,大千秋2号【纯农排变】,于迪城10号【纯农排变】,李迪城11号【纯农排变】,任庄11号【纯农排变】,大因9号【纯农排变】,徐水县宝坤建筑材料销售有限公司,崔迪城13号【纯农排变】,崔迪城8号【纯农排变】,肖迪城5号李迪城分箱【纯农排变】,大因27号【纯农排变】,大因7号【纯农排变】,汉阳2号【纯农排变】,李迪城9号【纯农排变】,李迪城13号【纯农排变】,大千秋9号【纯农排变】,保定市徐水区大因镇李迪城小学,李迪城5号【纯农排变】,大因10号,李迪城4号【纯农排变】,任庄7号【纯农排变】,蒙域王子羊绒,任庄13号【纯农排变】,大因25号【纯农排变】,肖迪城6号【纯农排变】,李迪城12号【纯农排变】,汉阳5号,大因32号【纯农排变】,大因16号【纯农排变】,肖迪城4号【纯农排变】,保定市徐水区大因镇于迪城幼儿园,任庄4号,崔迪城3号【纯农排变】,于迪城8号【纯农排变】,肖迪城5号【纯农排变】,大因26号【纯农排变】,大因扬水机站2号,大因扬水机站1号,任庄1号【纯农排变】,于迪城16号【纯农排变】,迪城扬水机站1号,大因扬水机站3号,崔迪城7号【纯农排变】,迪城扬水机站2号,肖迪城1号【纯农排变】,大千秋1号,崔迪城1号【纯农排变】,李迪城1号【纯农排变】,大千秋11号【纯农排变】,于迪城3号【纯农排变】,任庄8号【纯农排变】,崔迪城16号【纯农排变】,任庄17号,于迪城11号,崔迪城2号【纯农排变】,大因3号【纯农排变】,于迪城14号【纯农排变】,于迪城12号【纯农排变】,0654423789-蒙域王子羊绒纺织股份有限公司-专变-183723479-蒙域王子羊绒纺织有限公司变压器,任庄7号变压器【纯农排变】,李迪城10号【纯农排变】,李迪城6号【纯农排变】,大千秋14号【纯农排变】,大因29号【纯农排变】,任庄5号【纯农排变】,大千秋5号,于迪城15号【纯农排变】,大因30号【纯农排变】,崔迪城17号【纯农排变】,李迪城7号【纯农排变】,肖迪城2号【纯农排变】,大因12号【纯农排变】,于迪城18号【纯农排变】,小千秋4号,0654783494-蒙域王子羊绒纺织股份有限公司-专变-183741219-蒙域王子羊绒纺织股份有限公司,任庄15号【纯农排变】,任庄12号【纯农排变】,保定市徐水区大因镇任庄小学,大因11号【纯农排变】,任庄3号【纯农排变】,李迪城17号【纯农排变】,于迪城19号,崔迪城6号【纯农排变】,于迪城2号【纯农排变】,肖迪城7号【纯农排变】,李迪城3号【纯农排变】,李迪城14号,大因34号,崔迪城12号【纯农排变】,任庄2号【纯农排变】,崔迪城11号【纯农排变】,于迪城5号【纯农排变】,崔迪城5号【纯农排变】,于迪城1号【纯农排变】,大因18号","powerOffReason":"【停电原因】由于Ｂ相接地导致１１０ＫＶ沙口变电站迪城线５７７线路全线停电 【变更送电】无 【发布渠道】通过９５５９８发布","powerOffId":"2018062213000309"},{"poweroffId":2018062213000265,"sgpoweroffId":null,"subsName":"","lineName":"10kV谢庄线561","pubTranName":"芦庄五台区,","scope":"【影响街道/乡镇】芦庄乡 【高危重要客户】无 【影响客户】芦庄村","startTime":"2018-06-22 11:47:19","stopDate":"2018-06-22 19:30:00","orgNo":"1340607","typeCode":"电网故障停限电","poweroffArea":"【单台区停电】停芦庄五台区","poweroffReason":"【停电原因】由于低压线断导致１１０ＫＶ芦庄变电站１０ＫＶ谢庄线５６１线路芦庄五号公变台区停电 【变更送电】因抢修进度加快原因，送电时间由２１：００变更为１９：３０ 【发布渠道】通过９５５９８发布","powerTime":"2018-06-22 19:03:57","powerComm":"已送电","subsNo":"","lineNo":"","tgNo":"","tgName":null,"infoStatus":"1","orgName":"(原)国网安新县供电公司","typeName":null,"infoStatusName":null,"dateDay":null,"orgNos":null,"nowTime":null,"countyName":null,"streetName":null,"villageName":null,"roadName":null,"communityName":null,"tranName":null,"sdLineName":null,"cityCode":"1340607","cityName":"(原)国网安新县供电公司","provinceCode":null,"stopTime":"2018-06-22 19:30:00","powerType":"全部","powerOffArea":"【单台区停电】停芦庄五台区","powerOffReason":"【停电原因】由于低压线断导致１１０ＫＶ芦庄变电站１０ＫＶ谢庄线５６１线路芦庄五号公变台区停电 【变更送电】因抢修进度加快原因，送电时间由２１：００变更为１９：３０ 【发布渠道】通过９５５９８发布","powerOffId":"2018062213000265"},{"poweroffId":2018062213000232,"sgpoweroffId":null,"subsName":"","lineName":"10kV515八里庄线","pubTranName":"10KV515八里庄八里庄11010分支9号杆八里庄村南11010IC卡变压器【纯农排变】,10KV515八里庄十里铺11021分支16号杆十里铺村南11054IC卡变压器【纯农排变】,10KV515八里庄南祝11075分支46号杆南祝村西北11057IC卡变压器【纯农排变】,10Kv515八里庄11086台区变压器【纯农排变】,10KV515八里庄许村11028分支14号杆许村北祝道11028IC卡变压器【纯农排变】,10KV515八里庄南祝11074分支11号杆南祝村内11074台区变压器,博野县五州雁五金制品,10KV515八里庄82850分支1号杆八里庄村内82850变压器,10KV515八里庄八里庄11012分支3号杆八里庄东北11012台区变压器,10KV515八里庄许村11026分支2号杆许村新开道11026IC卡变压器【纯农排变】,10KV515八里庄许村11090分支2号杆许村村北11090IC卡变压器【纯农排变】,南祝面粉厂,10KV515八里庄八里庄村11035分支2号杆八里庄11035台区变压器,10KV515八里庄主干120号杆十里铺村东11052IC卡变压器【纯农排变】,城东砖厂,10KV515八里庄11014分支5号杆八里庄西北11014IC卡变压器【纯农排变】,10KV515八里庄11065分支1号杆八里庄西南11065IC卡变压器【纯农排变】,10KV515八里庄南祝村11033分支1号杆南祝路11033IC卡变压器【纯农排变】,10KV515八里庄11089分支19号杆许村村北11089IC卡变压器【纯农排变】,八里庄印刷厂,10Kv515八里庄11050台区变压器【纯农排变】,10KV515八里庄南祝11075分支76号杆南祝村内11075台区变压器,10KV515八里庄11008变压器,10KV515八里庄11029分支1号杆许村北祝道11029IC卡变压器【纯农排变】,10KV515八里庄南祝村11030分支3号杆南祝村北11030变压器,10KV515八里庄主干41号杆许村11073IC卡变压器【纯农排变】,10KV515八里庄南祝村11031分支1号杆南祝鸡毛厂11031IC卡变压器【纯农排变】,10KV515八里庄十里铺11021分支22号杆十里铺村内11021台区变压器,10KV515八里庄37835分支4号杆十里铺村西37835台区变压器,10KV515八里庄南祝村11064分支7号杆南祝路11064IC卡变压器【纯农排变】,10KV515八里庄八里庄11066分支2号杆八里庄林厂11066IC卡变压器【纯农排变】,10Kv515八里庄八里庄小学台区变压器,10KV515八里庄11089分支15号杆许村11076IC卡变压器【纯农排变】,10KV515八里庄南祝11023分支9号杆小南祝村内11023台区变压器,10KV八里庄515线十里铺村东1号变压器【纯农排变】,10KV515八里庄八里庄11068分支2号杆八里庄村东11068IC卡变压器【纯农排变】,10KV515八里庄13383台区变压器,10KV515八里庄11088分支2号杆许村村北11088IC卡变压器","scope":"【影响街道/乡镇】城东乡【高危重要客户】无【影响客户】南祝、小南祝、八里庄、十里铺、许村","startTime":"2018-06-22 11:05:22","stopDate":"2018-06-22 13:00:00","orgNo":"1340608","typeCode":"电网故障停限电","poweroffArea":"【全线路停电】停10KV515八里庄11092分支1号杆十里铺11092台区变压器,10KV515八里庄许村11084分支5号杆许村北祝道11027IC卡变压器【纯农排变】,10KV515八里庄11008变压器,10KV515八里庄11087分支3号杆许村村北11087IC卡变压器【纯农排变】,10KV515八里庄南祝11075分支54号杆南祝中道11032IC卡变压器【纯农排变】,10KV515八里庄许村11028分支14号杆许村北祝道11028IC卡变压器【纯农排变】,10Kv515八里庄八里庄小学台区变压器,10KV515八里庄南祝11075分支46号杆南祝村西北11057IC卡变压器【纯农排变】,10KV515八里庄13383台区变压器,10KV八里庄515线十里铺村东1号变压器【纯农排变】,10KV515八里庄11067分支3号杆八里庄公路11067IC卡变压器【纯农排变】,10KV八里庄515线十里铺村西1号变压器【纯农排变】,10Kv515八里庄11086台区变压器【纯农排变】,10KV515八里庄主干41号杆许村11073IC卡变压器【纯农排变】,10KV515八里庄主干114号杆十里铺村北11020台区变压器,10KV八里庄515线十里铺村南1号变压器【纯农排变】,博野县五州雁五金制品,10KV515八里庄十里铺11021分支27号杆十里铺11070台区变压器,10KV515八里庄南祝11023分支9号杆小南祝村内11023台区变压器,南祝面粉厂,10KV515八里庄南祝村11033分支1号杆南祝路11033IC卡变压器【纯农排变】,10KV515八里庄主干120号杆十里铺村东11052IC卡变压器【纯农排变】,10KV515八里庄11049分支1号杆十里村西南11049IC卡变压器【纯农排变】,10KV515八里庄八里庄11066分支2号杆八里庄林厂11066IC卡变压器【纯农排变】,10KV515八里庄南祝11075分支76号杆南祝村内11075台区变压器,10KV515八里庄11065分支1号杆八里庄西南11065IC卡变压器【纯农排变】,10KV515八里庄八里庄11010分支9号杆八里庄村南11010IC卡变压器【纯农排变】,10KV515八里庄许村11083分支2号杆许村村北11083IC卡变压器【纯农排变】,10KV515八里庄十里铺11019分支5号杆十里铺西北11019IC卡变压器【纯农排变】,博野县五洲雁五金制品有限公司,10KV515八里庄许村11025分支4号杆许村公路边11025IC卡变压器【纯农排变】,10KV515八里庄十里铺11021分支22号杆十里铺村内11021台区变压器,10KV515八里庄11089分支19号杆许村村北11089IC卡变压器【纯农排变】,10KV515八里庄许村11084分支14号杆许村村北11085IC卡变压器【纯农排变】,10KV515八里庄南祝11063分支4号杆南祝村北11063IC卡变压器【纯农排变】,10KV515八里庄11089分支15号杆许村11076IC卡变压器【纯农排变】,10KV515八里庄南祝11074分支11号杆南祝村内11074台区变压器,10KV515八里庄37835分支4号杆十里铺村西37835台区变压器,10KV515八里庄11014分支5号杆八里庄西北11014IC卡变压器【纯农排变】,10KV515八里庄八里庄39991分支5号杆八里庄39991台区变压器,10KV515八里庄八里庄11009分支2号杆八里庄村西11009台区变压器,10Kv515八里庄11050台区变压器【纯农排变】,10KV515八里庄八里庄11068分支2号杆八里庄村东11068IC卡变压器【纯农排变】,10KV515八里庄许村11026分支2号杆许村新开道11026IC卡变压器【纯农排变】,10KV515八里庄许村11084分支17号杆许村村北11084IC卡变压器【纯农排变】,10KV515八里庄南祝村11030分支3号杆南祝村北11030变压器,10KV515八里庄十里铺11021分支16号杆十里铺村南11054IC卡变压器【纯农排变】,10KV515八里庄许村11090分支2号杆许村村北11090IC卡变压器【纯农排变】,10KV515八里庄南祝村11031分支1号杆南祝鸡毛厂11031IC卡变压器【纯农排变】,10KV515八里庄岗子11062上分支15号杆岗子上村东11062IC卡变压器【纯农排变】,10KV515八里庄11011分支8号杆八里庄村东南11011台区变压器,10KV515八里庄岗子11062上分支7号杆小南祝村北110","poweroffReason":"【停电原因】由于１１０２８分支树倒碰到高压线导致３５ＫＶ城东变电站八里庄５１５线路全线停电【变更送电】因抢修进度加快原因，送电时间由２２日２２:００变更为２２日１３:００【发布渠道】通过９５５９８发布","powerTime":"2018-06-22 12:32:01","powerComm":"已送电","subsNo":"","lineNo":"","tgNo":"","tgName":null,"infoStatus":"1","orgName":"国网博野县供电公司","typeName":null,"infoStatusName":null,"dateDay":null,"orgNos":null,"nowTime":null,"countyName":null,"streetName":null,"villageName":null,"roadName":null,"communityName":null,"tranName":null,"sdLineName":null,"cityCode":"1340608","cityName":"国网博野县供电公司","provinceCode":null,"stopTime":"2018-06-22 13:00:00","powerType":"全部","powerOffArea":"【全线路停电】停10KV515八里庄11092分支1号杆十里铺11092台区变压器,10KV515八里庄许村11084分支5号杆许村北祝道11027IC卡变压器【纯农排变】,10KV515八里庄11008变压器,10KV515八里庄11087分支3号杆许村村北11087IC卡变压器【纯农排变】,10KV515八里庄南祝11075分支54号杆南祝中道11032IC卡变压器【纯农排变】,10KV515八里庄许村11028分支14号杆许村北祝道11028IC卡变压器【纯农排变】,10Kv515八里庄八里庄小学台区变压器,10KV515八里庄南祝11075分支46号杆南祝村西北11057IC卡变压器【纯农排变】,10KV515八里庄13383台区变压器,10KV八里庄515线十里铺村东1号变压器【纯农排变】,10KV515八里庄11067分支3号杆八里庄公路11067IC卡变压器【纯农排变】,10KV八里庄515线十里铺村西1号变压器【纯农排变】,10Kv515八里庄11086台区变压器【纯农排变】,10KV515八里庄主干41号杆许村11073IC卡变压器【纯农排变】,10KV515八里庄主干114号杆十里铺村北11020台区变压器,10KV八里庄515线十里铺村南1号变压器【纯农排变】,博野县五州雁五金制品,10KV515八里庄十里铺11021分支27号杆十里铺11070台区变压器,10KV515八里庄南祝11023分支9号杆小南祝村内11023台区变压器,南祝面粉厂,10KV515八里庄南祝村11033分支1号杆南祝路11033IC卡变压器【纯农排变】,10KV515八里庄主干120号杆十里铺村东11052IC卡变压器【纯农排变】,10KV515八里庄11049分支1号杆十里村西南11049IC卡变压器【纯农排变】,10KV515八里庄八里庄11066分支2号杆八里庄林厂11066IC卡变压器【纯农排变】,10KV515八里庄南祝11075分支76号杆南祝村内11075台区变压器,10KV515八里庄11065分支1号杆八里庄西南11065IC卡变压器【纯农排变】,10KV515八里庄八里庄11010分支9号杆八里庄村南11010IC卡变压器【纯农排变】,10KV515八里庄许村11083分支2号杆许村村北11083IC卡变压器【纯农排变】,10KV515八里庄十里铺11019分支5号杆十里铺西北11019IC卡变压器【纯农排变】,博野县五洲雁五金制品有限公司,10KV515八里庄许村11025分支4号杆许村公路边11025IC卡变压器【纯农排变】,10KV515八里庄十里铺11021分支22号杆十里铺村内11021台区变压器,10KV515八里庄11089分支19号杆许村村北11089IC卡变压器【纯农排变】,10KV515八里庄许村11084分支14号杆许村村北11085IC卡变压器【纯农排变】,10KV515八里庄南祝11063分支4号杆南祝村北11063IC卡变压器【纯农排变】,10KV515八里庄11089分支15号杆许村11076IC卡变压器【纯农排变】,10KV515八里庄南祝11074分支11号杆南祝村内11074台区变压器,10KV515八里庄37835分支4号杆十里铺村西37835台区变压器,10KV515八里庄11014分支5号杆八里庄西北11014IC卡变压器【纯农排变】,10KV515八里庄八里庄39991分支5号杆八里庄39991台区变压器,10KV515八里庄八里庄11009分支2号杆八里庄村西11009台区变压器,10Kv515八里庄11050台区变压器【纯农排变】,10KV515八里庄八里庄11068分支2号杆八里庄村东11068IC卡变压器【纯农排变】,10KV515八里庄许村11026分支2号杆许村新开道11026IC卡变压器【纯农排变】,10KV515八里庄许村11084分支17号杆许村村北11084IC卡变压器【纯农排变】,10KV515八里庄南祝村11030分支3号杆南祝村北11030变压器,10KV515八里庄十里铺11021分支16号杆十里铺村南11054IC卡变压器【纯农排变】,10KV515八里庄许村11090分支2号杆许村村北11090IC卡变压器【纯农排变】,10KV515八里庄南祝村11031分支1号杆南祝鸡毛厂11031IC卡变压器【纯农排变】,10KV515八里庄岗子11062上分支15号杆岗子上村东11062IC卡变压器【纯农排变】,10KV515八里庄11011分支8号杆八里庄村东南11011台区变压器,10KV515八里庄岗子11062上分支7号杆小南祝村北110","powerOffReason":"【停电原因】由于１１０２８分支树倒碰到高压线导致３５ＫＶ城东变电站八里庄５１５线路全线停电【变更送电】因抢修进度加快原因，送电时间由２２日２２:００变更为２２日１３:００【发布渠道】通过９５５９８发布","powerOffId":"2018062213000232"},{"poweroffId":2018062213000109,"sgpoweroffId":null,"subsName":"","lineName":"大高线575","pubTranName":"0694889602-保定白沟爱神箱包制造有限公司-专变-239226397-爱神箱包变压器,保定白沟新城互信居民服务部变压器,大高东地中【纯农排变】,大高5,0550557867-顾翠萍-专变-48976870-顾翠萍变压器,河北正威混凝土贸易有限公司,芦辛庄北,东芦中台,张艳刚,兴宝华,东一环公变,大高2号,大高南,0387444552-保定鼎创箱包材料制造有限公司-专变-216168873-变压器630,恒昌拉链变压器,小高村东,小高3号,群山皮具变压器,宋村,小高北2,芦辛庄3号,大高7号,大高东地北【纯农排变】,东芦浇地,大高东2,0691467999-保定恒昌拉链有限公司-专变-234153144-变压器,河北宾乐皮具制造有限公司变压器,变压器200,大高村西,钟磊,西芦5号,0694889569-保定恒昌拉链有限公司-专变-239226308-恒昌变压器,大高南地【纯农排变】,变压器250,变压器100,小高村北,保定驰丰箱包配件制造有限公司变压器,保定卯吉塑胶科技有限公司变压器,保定白沟宝华箱包制造有限公司变压器,保定白沟申丰箱包配件厂变压器,芦辛庄南,芦辛庄4号,宋村3号,保定君厚箱包配件制造有限公司变压器,大高6号,东芦南,白沟诚兴箱包变压器,大高东地南【纯农排变】,西芦村,东芦西,污水处理厂变压器,东芦东2,大高西地,白丙男2,大高北,宋村南,小高南,许国栋,李志江变压器,东芦东,变压器,大高3号,大高4,郎连峰,大高1,航城机械厂,大高东,小高东2,李金虎,","scope":"【影响街道/乡镇】白沟镇、东一环路、津保路 【高危重要客户】无 【影响客户】白沟新城规划建设局(东一环泵站) 、白沟新城分局、白沟新城规划建设局路灯ＣＴ工业园保定白沟、苏德禄、白沟新城规划建设局(东一环路灯)、顾翠萍、西芦村、大高村、小高村、芦辛庄村、东芦村、宋村、保定鼎创箱包材料制造有限公司、保定市中茂能源有限公司、保定白沟新城新野马皮具厂、中国铁塔股份有限公司保定市分公司、保定白沟新城泽佳箱包厂、保定白沟新城永安汽车饰品销售部、保定恒昌拉链有限公司、保定品通塑胶制造有限公司、保定白沟爱神箱包制造有限公司、保定豪爽塑胶制造有限公司、郎连峰、张艳刚、许际新、保定君厚箱包配件制造有限公司、高碑店市航城机械厂、保定白沟宝华箱包制造有限公司、保定毅朗皮具制造有限公司、许国栋、保定白沟卓安鞋业经销部白丙男、李志江、李金虎、保定申丰箱包配件制造有限公司、保定群山皮具有限公司、保定白沟新城诚兴箱包销售部","startTime":"2018-06-22 10:40:00","stopDate":"2018-06-22 12:00:00","orgNo":"1340612","typeCode":"其他临时停电","poweroffArea":"【分支停电】停变压器250,东芦东,西芦5号,变压器,东芦西,污水处理厂变压器,小高北2,大高东地南【纯农排变】,芦辛庄3号,大高7号,大高东地北【纯农排变】,东芦东2,西芦村,东芦浇地,大高东2,变压器100,0691467999-保定恒昌拉链有限公司-专变-234153144-变压器,河北宾乐皮具制造有限公司变压器,变压器200,小高村北,保定驰丰箱包配件制造有限公司变压器,保定卯吉塑胶科技有限公司变压器,保定白沟宝华箱包制造有限公司变压器,大高村西,钟磊,保定白沟申丰箱包配件厂变压器,芦辛庄南,东芦中台,张艳刚,芦辛庄4号,宋村3号,0694889602-保定白沟爱神箱包制造有限公司-专变-239226397-爱神箱包变压器,保定君厚箱包配件制造有限公司变压器,保定白沟新城互信居民服务部变压器,大高6号,大高东地中【纯农排变】,东芦南,大高5,大高西地,0550557867-顾翠萍-专变-48976870-顾翠萍变压器,河北正威混凝土贸易有限公司,白丙男2,芦辛庄北,大高北,兴宝华,东一环公变,宋村南,大高2号,小高南,大高南,许国栋,李志江变压器,0387444552-保定鼎创箱包材料制造有限公司-专变-216168873-变压器630,大高3号,恒昌拉链变压器,大高4,小高村东,郎连峰,小高3号,大高1,群山皮具变压器,宋村,航城机械厂,大高东,小高东2,李金虎,0694889569-保定恒昌拉链有限公司-专变-239226308-恒昌变压器,大高南地【纯农排变】,白沟诚兴箱包变压器","poweroffReason":"【停电原因】由于开关调定值导致１１０ＫＶ南留变电站１０ＫＶ大高５７５线路０１号断路器以下停电 【变更送电】无 【发布渠道】通过９５５９８发布","powerTime":"2018-06-22 11:23:27","powerComm":"已送电","subsNo":"","lineNo":"","tgNo":"","tgName":null,"infoStatus":"1","orgName":"国网高碑店市供电公司","typeName":null,"infoStatusName":null,"dateDay":null,"orgNos":null,"nowTime":null,"countyName":null,"streetName":null,"villageName":null,"roadName":null,"communityName":null,"tranName":null,"sdLineName":null,"cityCode":"1340612","cityName":"国网高碑店市供电公司","provinceCode":null,"stopTime":"2018-06-22 12:00:00","powerType":"全部","powerOffArea":"【分支停电】停变压器250,东芦东,西芦5号,变压器,东芦西,污水处理厂变压器,小高北2,大高东地南【纯农排变】,芦辛庄3号,大高7号,大高东地北【纯农排变】,东芦东2,西芦村,东芦浇地,大高东2,变压器100,0691467999-保定恒昌拉链有限公司-专变-234153144-变压器,河北宾乐皮具制造有限公司变压器,变压器200,小高村北,保定驰丰箱包配件制造有限公司变压器,保定卯吉塑胶科技有限公司变压器,保定白沟宝华箱包制造有限公司变压器,大高村西,钟磊,保定白沟申丰箱包配件厂变压器,芦辛庄南,东芦中台,张艳刚,芦辛庄4号,宋村3号,0694889602-保定白沟爱神箱包制造有限公司-专变-239226397-爱神箱包变压器,保定君厚箱包配件制造有限公司变压器,保定白沟新城互信居民服务部变压器,大高6号,大高东地中【纯农排变】,东芦南,大高5,大高西地,0550557867-顾翠萍-专变-48976870-顾翠萍变压器,河北正威混凝土贸易有限公司,白丙男2,芦辛庄北,大高北,兴宝华,东一环公变,宋村南,大高2号,小高南,大高南,许国栋,李志江变压器,0387444552-保定鼎创箱包材料制造有限公司-专变-216168873-变压器630,大高3号,恒昌拉链变压器,大高4,小高村东,郎连峰,小高3号,大高1,群山皮具变压器,宋村,航城机械厂,大高东,小高东2,李金虎,0694889569-保定恒昌拉链有限公司-专变-239226308-恒昌变压器,大高南地【纯农排变】,白沟诚兴箱包变压器","powerOffReason":"【停电原因】由于开关调定值导致１１０ＫＶ南留变电站１０ＫＶ大高５７５线路０１号断路器以下停电 【变更送电】无 【发布渠道】通过９５５９８发布","powerOffId":"2018062213000109"},{"poweroffId":2018062213000077,"sgpoweroffId":null,"subsName":"","lineName":"10kV马庄线530","pubTranName":"田庄公用1#,【纯农排变】马庄村水利公用3#,马庄公用1#,【纯农排变】田庄水利公用2#,马庄公用2#,田庄2#公用,","scope":"【影响街道/乡镇】朱各庄乡 【高危重要客户】无 【影响客户】马庄、田庄","startTime":"2018-06-22 08:20:30","stopDate":"2018-06-22 11:00:00","orgNo":"1340624","typeCode":"电网故障停限电","poweroffArea":"【分支停电】停田庄2#公用,马庄公用1#,马庄公用2#,田庄公用1#,【纯农排变】马庄村水利公用3#,【纯农排变】田庄水利公用2#","poweroffReason":"【停电原因】由于弓子线烧断导致２２０ＫＶ雄州变电站１０ＫＶ马庄线５３０线路主干３２号杆及以下线路分支停电 【变更送电】无 【发布渠道】通过９５５９８发布","powerTime":"2018-06-22 10:12:34","powerComm":"已送电","subsNo":"","lineNo":"","tgNo":"","tgName":null,"infoStatus":"1","orgName":"(原)国网雄县供电公司","typeName":null,"infoStatusName":null,"dateDay":null,"orgNos":null,"nowTime":null,"countyName":null,"streetName":null,"villageName":null,"roadName":null,"communityName":null,"tranName":null,"sdLineName":null,"cityCode":"1340624","cityName":"(原)国网雄县供电公司","provinceCode":null,"stopTime":"2018-06-22 11:00:00","powerType":"全部","powerOffArea":"【分支停电】停田庄2#公用,马庄公用1#,马庄公用2#,田庄公用1#,【纯农排变】马庄村水利公用3#,【纯农排变】田庄水利公用2#","powerOffReason":"【停电原因】由于弓子线烧断导致２２０ＫＶ雄州变电站１０ＫＶ马庄线５３０线路主干３２号杆及以下线路分支停电 【变更送电】无 【发布渠道】通过９５５９８发布","powerOffId":"2018062213000077"},{"poweroffId":2018062213000073,"sgpoweroffId":null,"subsName":"","lineName":"新盖房529线","pubTranName":"新盖房公用2#,新盖房水利公用8#,闫铺3#公用,西柳村公用4#,新盖房村3#公用水利,新盖房4#公用,新盖房公用1#,新盖房公用3#,","scope":"【影响街道/乡镇】朱各庄乡 【高危重要客户】无 【影响客户】西柳、新盖房、闫铺","startTime":"2018-06-22 08:17:02","stopDate":"2018-06-22 11:00:00","orgNo":"1340624","typeCode":"电网故障停限电","poweroffArea":"【分支停电】停西柳村公用4#,新盖房4#公用,新盖房村3#公用水利,新盖房公用1#,新盖房公用2#,新盖房公用3#,新盖房水利公用8#,闫铺3#公用","poweroffReason":"【停电原因】由于弓子线烧断导致２２０ＫＶ雄州变电站新盖房线５２９线路主干３３号杆及以下线路分支停电 【变更送电】无 【发布渠道】通过９５５９８发布","powerTime":"2018-06-22 10:12:55","powerComm":"已送电","subsNo":"","lineNo":"","tgNo":"","tgName":null,"infoStatus":"1","orgName":"(原)国网雄县供电公司","typeName":null,"infoStatusName":null,"dateDay":null,"orgNos":null,"nowTime":null,"countyName":null,"streetName":null,"villageName":null,"roadName":null,"communityName":null,"tranName":null,"sdLineName":null,"cityCode":"1340624","cityName":"(原)国网雄县供电公司","provinceCode":null,"stopTime":"2018-06-22 11:00:00","powerType":"全部","powerOffArea":"【分支停电】停西柳村公用4#,新盖房4#公用,新盖房村3#公用水利,新盖房公用1#,新盖房公用2#,新盖房公用3#,新盖房水利公用8#,闫铺3#公用","powerOffReason":"【停电原因】由于弓子线烧断导致２２０ＫＶ雄州变电站新盖房线５２９线路主干３３号杆及以下线路分支停电 【变更送电】无 【发布渠道】通过９５５９８发布","powerOffId":"2018062213000073"},{"poweroffId":2018062213000069,"sgpoweroffId":null,"subsName":"","lineName":"10KV东垒子515","pubTranName":"0469322301-青松灰粉厂-专变-46775161-青松灰粉厂,涞水金庆石灰制造有限公司新增变压,宏林石灰400KVA专变,河北省保定市涞水煤矿400KVA专变,宏林石灰公司400KVA专变,0469320132-涞水县鸿翔建材有限公司-专变-125723938-鸿翔建材200KVA,金庆石灰50KVA专变,宏林石灰公司250KVA专变,西垒子村内变压器,东垒子东台区变压器,0624449722-涞水振成石灰制造有限公司-专变-133590023-振成石灰制造400KVA,西垒子村内2,0469320132-涞水县鸿翔建材有限公司-专变-46775178-联合4号,琉璃瓦厂,宏林石灰制造有限公司400KVA专变,西垒子村西变压器,东垒子煤矿台区,西垒子村东2,西垒子村西3台区变压器,涞水冠亿水泥砖制造有限公司800KVA专变,宏林石灰制造有限公司315KVA专变,金庆石灰800KVA专变,东垒子村南,","scope":"【影响街道/乡镇】永阳镇 【高危重要客户】无 【影响客户】西垒子村、东垒子村","startTime":"2018-06-22 08:01:48","stopDate":"2018-06-22 10:00:00","orgNo":"1340614","typeCode":"电网故障停限电","poweroffArea":"【全线路停电】停东垒子村南,西垒子村内2,东垒子东台区变压器,0624449722-涞水振成石灰制造有限公司-专变-133590023-振成石灰制造400KVA,宏林石灰制造有限公司315KVA专变,金庆石灰800KVA专变,金庆石灰50KVA专变,宏林石灰公司250KVA专变,0469320132-涞水县鸿翔建材有限公司-专变-46775178-联合4号,0469322301-青松灰粉厂-专变-46775161-青松灰粉厂,琉璃瓦厂,宏林石灰制造有限公司400KVA专变,西垒子村西变压器,涞水金庆石灰制造有限公司新增变压,东垒子煤矿台区,宏林石灰400KVA专变,西垒子村东2,西垒子村内变压器,西垒子村西3台区变压器,涞水冠亿水泥砖制造有限公司800KVA专变,河北省保定市涞水煤矿400KVA专变,宏林石灰公司400KVA专变,0469320132-涞水县鸿翔建材有限公司-专变-125723938-鸿翔建材200KVA","poweroffReason":"【停电原因】由于速断跳闸导致３５ＫＶ永阳变电站１０ＫＶ东垒子５１５线路全线停电 【变更送电】无 【发布渠道】通过９５５９８发布","powerTime":"2018-06-22 09:09:36","powerComm":"已送电","subsNo":"","lineNo":"","tgNo":"","tgName":null,"infoStatus":"1","orgName":"国网涞水县供电公司","typeName":null,"infoStatusName":null,"dateDay":null,"orgNos":null,"nowTime":null,"countyName":null,"streetName":null,"villageName":null,"roadName":null,"communityName":null,"tranName":null,"sdLineName":null,"cityCode":"1340614","cityName":"国网涞水县供电公司","provinceCode":null,"stopTime":"2018-06-22 10:00:00","powerType":"全部","powerOffArea":"【全线路停电】停东垒子村南,西垒子村内2,东垒子东台区变压器,0624449722-涞水振成石灰制造有限公司-专变-133590023-振成石灰制造400KVA,宏林石灰制造有限公司315KVA专变,金庆石灰800KVA专变,金庆石灰50KVA专变,宏林石灰公司250KVA专变,0469320132-涞水县鸿翔建材有限公司-专变-46775178-联合4号,0469322301-青松灰粉厂-专变-46775161-青松灰粉厂,琉璃瓦厂,宏林石灰制造有限公司400KVA专变,西垒子村西变压器,涞水金庆石灰制造有限公司新增变压,东垒子煤矿台区,宏林石灰400KVA专变,西垒子村东2,西垒子村内变压器,西垒子村西3台区变压器,涞水冠亿水泥砖制造有限公司800KVA专变,河北省保定市涞水煤矿400KVA专变,宏林石灰公司400KVA专变,0469320132-涞水县鸿翔建材有限公司-专变-125723938-鸿翔建材200KVA","powerOffReason":"【停电原因】由于速断跳闸导致３５ＫＶ永阳变电站１０ＫＶ东垒子５１５线路全线停电 【变更送电】无 【发布渠道】通过９５５９８发布","powerOffId":"2018062213000069"},{"poweroffId":2018062213000055,"sgpoweroffId":null,"subsName":"","lineName":"北店头525线","pubTranName":"北店头0466台区变压器,","scope":"【影响街道/乡镇】北店头乡【高危重要客户】无【影响客户】北店头村","startTime":"2018-06-22 07:18:44","stopDate":"2018-06-22 11:30:00","orgNo":"1340622","typeCode":"电网故障停限电","poweroffArea":"【单台区停电】停北店头0466台区变压器","poweroffReason":"【停电原因】由于变压器跌落烧导致１１０ＫＶ唐县变电站北店头５２５线路北店头０４６６公变台区停电【变更送电】因抢修进度加快原因，送电时间由 ２１：００变更为 １１：３０【发布渠道】通过９５５９８发布","powerTime":"2018-06-22 10:36:48","powerComm":"已送电","subsNo":"","lineNo":"","tgNo":"","tgName":null,"infoStatus":"1","orgName":"国网唐县供电公司","typeName":null,"infoStatusName":null,"dateDay":null,"orgNos":null,"nowTime":null,"countyName":null,"streetName":null,"villageName":null,"roadName":null,"communityName":null,"tranName":null,"sdLineName":null,"cityCode":"1340622","cityName":"国网唐县供电公司","provinceCode":null,"stopTime":"2018-06-22 11:30:00","powerType":"全部","powerOffArea":"【单台区停电】停北店头0466台区变压器","powerOffReason":"【停电原因】由于变压器跌落烧导致１１０ＫＶ唐县变电站北店头５２５线路北店头０４６６公变台区停电【变更送电】因抢修进度加快原因，送电时间由 ２１：００变更为 １１：３０【发布渠道】通过９５５９８发布","powerOffId":"2018062213000055"}],"pageModel":{"pageNow":961,"totalCount":10973,"totalPage":1098,"tableRows":0,"pageCount":10,"beginCount":9600},"isExperi":"1"}