{"message":"","today":"2020-06-15","seleList":[{"poweroffId":2018062013000259,"sgpoweroffId":null,"subsName":"","lineName":"10kV522兑坎庄线","pubTranName":"蠡县蠡吾大街汉丽轩烤肉变压器,南关街综合四台区变压器,西北街综合一台区变压器,紫薇西路综合一台区变压器,范蠡西路武装部小区综合六台区变压器,蠡吾南大街综合三台区变压器,看守所,蠡县实验中学变压器,永宁大街综合一台区变压器,政府,教育局,西南街综合一台区变压器,维明西路综合二台区变压器,广场小区综合一台区箱变出线间隔配电变压器,0469341094-新华店门口-专变-46778914-新华店门口,强胜纸业,范蠡西路综合二台区变压器,蠡吾南大街综合五台区变压器,武装部小区范蠡西路综合5台区变压器,东南街综合六台区变压器,0675893365-蠡县范蠡路美地华府物业服务部-专变-216176243-蠡县范蠡路美地华府物业服务部,蠡县中学变压器,蠡吾南大街综合10台区变压器,南关街综合二台区变压器,西南街综合三台区变压器,西库综合四台区变压器,天成路灯,东南街综合四台区变压器,中医院,西库综合一台区变压器,东南街综合一台区变压器,东北街综合四台区变压器,东北街综合三台区变压器,南关街综合一台区变压器,西库综合三台区变压器,中学6157,县委,范蠡东路一台区变压器,蠡吾南大街综合七台区箱变出线间隔配电变压器,诚信商厦,蠡县中医院变压器,西北街综合三台区变压器,蠡吾南大街综合一台区变压器,南关街综合三台区变压器,0670489323-蠡县气象局-专变-213334047-蠡县气象局,政府变压器,蠡吾南大街综合二台区变压器,蠡县人民政府廉租房项目变压器,东南街综合三台区变压器,百货路灯,范蠡西路综合一台区变压器,西北街综合二台区变压器,东南街综合五台区变压器,蠡县天河物业管理有限公司,西南街综合二台区变压器,自来水,教委,蠡吾南大街综合九台区变压器,东北街综合一台区变压器,蠡吾南大街综合四台区变压器,里中操场路灯,西库综合二台区变压器,","scope":"【影响街道/乡镇】步行街、蠡吾南大街、东南街、东北街、西北街、西南街、范蠡西路、紫微西路、蠡吾镇【高危重要客户】无【影响客户】自来水公司（城西）、看守所、老教育局、县委、蠡县第二中学、诚信商厦、蠡县实验中学、西库、弹药库、气象站、西广场以南、西广场以西、武装部小区、蠡县中医院、南关村","startTime":"2018-06-20 11:28:29","stopDate":"2018-06-20 15:00:30","orgNo":"1340616","typeCode":"电网故障停限电","poweroffArea":"【全线路停电】停紫薇西路综合一台区变压器,政府,东北街综合三台区变压器,蠡吾南大街综合一台区变压器,蠡吾南大街综合二台区变压器,蠡吾南大街综合四台区变压器,广场小区综合一台区箱变出线间隔配电变压器,范蠡西路武装部小区综合六台区变压器,,天成路灯,里中操场路灯,蠡县人民政府廉租房项目变压器,永宁大街综合一台区变压器,南关街综合四台区变压器,政府变压器,西库综合三台区变压器,诚信商厦,东南街综合五台区变压器,蠡吾南大街综合10台区变压器,自来水","poweroffReason":"【停电原因】由于站内开关掉闸导致２２０ＫＶ蠡县变电站１０ＫＶ兑坎庄５２２线路全线停电【变更送电】因抢修进度加快原因，送电时间由１８：３０变更为１５：００【发布渠道】通过９５５９８发布","powerTime":"2018-06-20 14:15:01","powerComm":"已送电","subsNo":"","lineNo":"","tgNo":"","tgName":null,"infoStatus":"1","orgName":"国网蠡县供电公司","typeName":null,"infoStatusName":null,"dateDay":null,"orgNos":null,"nowTime":null,"countyName":null,"streetName":null,"villageName":null,"roadName":null,"communityName":null,"tranName":null,"sdLineName":null,"cityCode":"1340616","cityName":"国网蠡县供电公司","provinceCode":null,"stopTime":"2018-06-20 15:00:30","powerType":"全部","powerOffArea":"【全线路停电】停紫薇西路综合一台区变压器,政府,东北街综合三台区变压器,蠡吾南大街综合一台区变压器,蠡吾南大街综合二台区变压器,蠡吾南大街综合四台区变压器,广场小区综合一台区箱变出线间隔配电变压器,范蠡西路武装部小区综合六台区变压器,,天成路灯,里中操场路灯,蠡县人民政府廉租房项目变压器,永宁大街综合一台区变压器,南关街综合四台区变压器,政府变压器,西库综合三台区变压器,诚信商厦,东南街综合五台区变压器,蠡吾南大街综合10台区变压器,自来水","powerOffReason":"【停电原因】由于站内开关掉闸导致２２０ＫＶ蠡县变电站１０ＫＶ兑坎庄５２２线路全线停电【变更送电】因抢修进度加快原因，送电时间由１８：３０变更为１５：００【发布渠道】通过９５５９８发布","powerOffId":"2018062013000259"},{"poweroffId":2018062013000252,"sgpoweroffId":null,"subsName":"","lineName":"岳烟线513","pubTranName":"河北中正铜工艺品制造有限公司10KV配变,唐王水泥砖厂3081,西南京1457变压器,保定盖德机械制造有限公司配变,西南京2160变压器,西南京2656变压器,东南京0619变压器,小庄2013变压器,河北瑞天建材制造有限公司6112,长古城岳烟村北农业灌溉新装配变,长古城村村委会2新装10KV配变,小庄4515变压器,东南京村西6002变压器,长古城2110变压器,东南京1455变压器,河北汉唐牧业有限公司10KV配变,长古城2012变压器,西南京0329变压器,西南京2161变压器,东南京2184变压器,白塔2183水变压器,白塔2182水变压器,长古城乡西南京城农业灌溉新装配变,小庄水2180变压器,10kV岳烟线东南京6548变压器,岳烟2608变压器,唐县天源水泥制造有限公司新装6078,唐县鑫恒食品有限公司,长古城0339变压器,西南京0320变压器,长古城村村委会4新装10KV配变,长古城0344变压器,东南京3235变压器,唐县为民水磨石砖厂,长古城2170变压器,唐县志达绒毛加工厂1966,野牛村2571变压器,东南京0354变压器,长古城乡岳烟村南新装配变,岳烟625变压器,长古城0626水变压器,长古城村村委会5新装10KV配变,河北瑞天建材制造有限公司6123,东南京东6061变压器,长古城新民居4087变压器,岳烟0662变压器,长古城面粉厂0584,长古城4547变压器,长古城东北混4504变压器,白塔4928变压器,长古城0628变压器,大庄子0616变压器,岳烟0624变压器,公用1913变压器,唐县建华水泥砖经销处,长古城村村委会1新装10KV配变,企业局板厂0349,长古城0338变压器,乡政府公用0589变压器,东南京西南6003变压器,长古城0340变压器,河北汉唐牧业有限公司315KVA配变,长古城村村委会3新装10KV配变,张铁柱（小米加工）1095,长古城0627变压器,西南京0591变压器,长古城0341变压器,猪厂0973,唐县顺意水泥砖厂,东南京西北水4644变压器,东南京0353变压器,岳烟0620变压器,民政养老院变压器,岳烟0623变压器,","scope":"【影响街道/乡镇】长古城乡【高危重要客户】无【影响客户】大庄子、小庄儿村、长古城村、岳烟村、东南京村、白塔、西南京村、养老院","startTime":"2018-06-20 11:20:14","stopDate":"2018-06-20 12:30:00","orgNo":"1340622","typeCode":"电网故障停限电","poweroffArea":"【全线路停电】停岳烟0623变压器,河北汉唐牧业有限公司315KVA配变,猪厂0973,东南京西南6003变压器,长古城0626水变压器,长古城2012变压器,白塔2182水变压器,张铁柱（小米加工）1095,长古城村村委会5新装10KV配变,西南京2160变压器,长古城4547变压器,唐县志达绒毛加工厂1966,唐县天源水泥制造有限公司新装6078,东南京0619变压器,长古城0627变压器,长古城2110变压器,长古城0341变压器,长古城面粉厂0584,唐县建华水泥砖经销处,河北汉唐牧业有限公司10KV配变,东南京0353变压器,白塔4928变压器,西南京2161变压器,西南京2656变压器,西南京0591变压器,小庄2013变压器,岳烟0662变压器,岳烟0620变压器,长古城村村委会2新装10KV配变,10kV岳烟线东南京6548变压器,东南京西北水4644变压器,小庄水2180变压器,长古城村村委会1新装10KV配变,长古城0340变压器,长古城新民居4087变压器,长古城0339变压器,长古城2170变压器,野牛村2571变压器,长古城0628变压器,岳烟625变压器,东南京0354变压器,唐县顺意水泥砖厂,东南京2184变压器,企业局板厂0349,唐县鑫恒食品有限公司,白塔2183水变压器,长古城岳烟村北农业灌溉新装配变,小庄4515变压器,岳烟2608变压器,长古城乡岳烟村南新装配变,东南京1455变压器,乡政府公用0589变压器,公用1913变压器,民政养老院变压器,长古城村村委会4新装10KV配变,西南京1457变压器,东南京东6061变压器,长古城村村委会3新装10KV配变,东南京村西6002变压器,西南京0320变压器,西南京0329变压器,大庄子0616变压器,唐王水泥砖厂3081,保定盖德机械制造有限公司配变,长古城0338变压器,河北瑞天建材制造有限公司6112,河北瑞天建材制造有限公司6123,长古城0344变压器,河北中正铜工艺品制造有限公司10KV配变,岳烟0624变压器,长古城东北混4504变压器,长古城乡西南京城农业灌溉新装配变,东南京3235变压器,唐县为民水磨石砖厂","poweroffReason":"【停电原因】由于顺意水泥砖厂变压器跌落击穿导致３５ＫＶ城南变电站岳烟线５１３线路全线停电【变更送电】因抢修进度加快原因，送电时间由１８：００变更为 １２：３０【发布渠道】通过９５５９８发布","powerTime":"2018-06-20 11:53:31","powerComm":"已送电","subsNo":"","lineNo":"","tgNo":"","tgName":null,"infoStatus":"1","orgName":"国网唐县供电公司","typeName":null,"infoStatusName":null,"dateDay":null,"orgNos":null,"nowTime":null,"countyName":null,"streetName":null,"villageName":null,"roadName":null,"communityName":null,"tranName":null,"sdLineName":null,"cityCode":"1340622","cityName":"国网唐县供电公司","provinceCode":null,"stopTime":"2018-06-20 12:30:00","powerType":"全部","powerOffArea":"【全线路停电】停岳烟0623变压器,河北汉唐牧业有限公司315KVA配变,猪厂0973,东南京西南6003变压器,长古城0626水变压器,长古城2012变压器,白塔2182水变压器,张铁柱（小米加工）1095,长古城村村委会5新装10KV配变,西南京2160变压器,长古城4547变压器,唐县志达绒毛加工厂1966,唐县天源水泥制造有限公司新装6078,东南京0619变压器,长古城0627变压器,长古城2110变压器,长古城0341变压器,长古城面粉厂0584,唐县建华水泥砖经销处,河北汉唐牧业有限公司10KV配变,东南京0353变压器,白塔4928变压器,西南京2161变压器,西南京2656变压器,西南京0591变压器,小庄2013变压器,岳烟0662变压器,岳烟0620变压器,长古城村村委会2新装10KV配变,10kV岳烟线东南京6548变压器,东南京西北水4644变压器,小庄水2180变压器,长古城村村委会1新装10KV配变,长古城0340变压器,长古城新民居4087变压器,长古城0339变压器,长古城2170变压器,野牛村2571变压器,长古城0628变压器,岳烟625变压器,东南京0354变压器,唐县顺意水泥砖厂,东南京2184变压器,企业局板厂0349,唐县鑫恒食品有限公司,白塔2183水变压器,长古城岳烟村北农业灌溉新装配变,小庄4515变压器,岳烟2608变压器,长古城乡岳烟村南新装配变,东南京1455变压器,乡政府公用0589变压器,公用1913变压器,民政养老院变压器,长古城村村委会4新装10KV配变,西南京1457变压器,东南京东6061变压器,长古城村村委会3新装10KV配变,东南京村西6002变压器,西南京0320变压器,西南京0329变压器,大庄子0616变压器,唐王水泥砖厂3081,保定盖德机械制造有限公司配变,长古城0338变压器,河北瑞天建材制造有限公司6112,河北瑞天建材制造有限公司6123,长古城0344变压器,河北中正铜工艺品制造有限公司10KV配变,岳烟0624变压器,长古城东北混4504变压器,长古城乡西南京城农业灌溉新装配变,东南京3235变压器,唐县为民水磨石砖厂","powerOffReason":"【停电原因】由于顺意水泥砖厂变压器跌落击穿导致３５ＫＶ城南变电站岳烟线５１３线路全线停电【变更送电】因抢修进度加快原因，送电时间由１８：００变更为 １２：３０【发布渠道】通过９５５９８发布","powerOffId":"2018062013000252"},{"poweroffId":2018062013000223,"sgpoweroffId":null,"subsName":"","lineName":"10kV崔闸站553线路","pubTranName":"B1827柱上变压器,","scope":"【影响街道/乡镇】七一路 【高危重要客户】无 【影响客户】北基地","startTime":"2018-06-20 10:30:00","stopDate":"2018-06-20 12:00:00","orgNo":"13406","typeCode":"电网故障停限电","poweroffArea":"【单台区停电】停B1827柱上变压器","poweroffReason":"【停电原因】由于接户线烧导致１０ＫＶ崔闸变电站５５３线路Ｂ１８２７公变台区停电【变更送电】无【发布渠道】通过９５５９８发布","powerTime":"2018-06-20 11:30:12","powerComm":"已送电","subsNo":"","lineNo":"","tgNo":"","tgName":null,"infoStatus":"1","orgName":"保定供电公司","typeName":null,"infoStatusName":null,"dateDay":null,"orgNos":null,"nowTime":null,"countyName":null,"streetName":null,"villageName":null,"roadName":null,"communityName":null,"tranName":null,"sdLineName":null,"cityCode":"13406","cityName":"保定供电公司","provinceCode":null,"stopTime":"2018-06-20 12:00:00","powerType":"全部","powerOffArea":"【单台区停电】停B1827柱上变压器","powerOffReason":"【停电原因】由于接户线烧导致１０ＫＶ崔闸变电站５５３线路Ｂ１８２７公变台区停电【变更送电】无【发布渠道】通过９５５９８发布","powerOffId":"2018062013000223"},{"poweroffId":2018062013000220,"sgpoweroffId":null,"subsName":"","lineName":"10kV石佛511线","pubTranName":"石佛综合1台区变压器,石佛综合15号,石佛综合2台区变压器,石佛综合11台区变压器,石佛农业8台区【纯农排变】,石佛综合12台区变压器,石佛综合16号,石佛综合8台区变压器,","scope":"【影响街道/乡镇】石佛镇 【高危重要客户】无 【影响客户】石佛村","startTime":"2018-06-29 05:00:44","stopDate":"2018-06-29 09:00:06","orgNo":"1340606","typeCode":"计划停电","poweroffArea":"【分支停电】停石佛综合16号,石佛农业8台区【纯农排变】,石佛综合15号,石佛综合11台区变压器,石佛综合8台区变压器,石佛综合1台区变压器,石佛综合12台区变压器,石佛综合2台区变压器","poweroffReason":"【停电原因】由于英迪克分支０１号杆安装刀闸导致３５ＫＶ石佛变电站１０ＫＶ石佛５１１线路主干０９号杆刀闸以下线路停电 【变更送电】无 【发布渠道】保定市安国电视台（６月２０日００时至２４时之间）","powerTime":"2018-06-29 08:32:59","powerComm":"已送电","subsNo":"","lineNo":"","tgNo":"","tgName":null,"infoStatus":"1","orgName":"国网安国市供电公司","typeName":null,"infoStatusName":null,"dateDay":null,"orgNos":null,"nowTime":null,"countyName":null,"streetName":null,"villageName":null,"roadName":null,"communityName":null,"tranName":null,"sdLineName":null,"cityCode":"1340606","cityName":"国网安国市供电公司","provinceCode":null,"stopTime":"2018-06-29 09:00:06","powerType":"全部","powerOffArea":"【分支停电】停石佛综合16号,石佛农业8台区【纯农排变】,石佛综合15号,石佛综合11台区变压器,石佛综合8台区变压器,石佛综合1台区变压器,石佛综合12台区变压器,石佛综合2台区变压器","powerOffReason":"【停电原因】由于英迪克分支０１号杆安装刀闸导致３５ＫＶ石佛变电站１０ＫＶ石佛５１１线路主干０９号杆刀闸以下线路停电 【变更送电】无 【发布渠道】保定市安国电视台（６月２０日００时至２４时之间）","powerOffId":"2018062013000220"},{"poweroffId":2018062013000214,"sgpoweroffId":null,"subsName":"","lineName":"马庄线512","pubTranName":"马家庄光5,马家庄光4,北店混11,马家庄排15【纯农排变】,马庄光3,辛木光13,辛木光15,侯家庄光8,辛木排12【纯农排变】,辛木光17,辛木排10【纯农排变】,辛木光1,候家庄排4【纯农排变】,辛木光7,辛木排15【纯农排变】,马家庄排4【纯农排变】,辛木光12,马庄光13,马庄光15,辛木光14,马庄光8,侯家庄光7,马家庄光6,候家庄排3【纯农排变】,辛木光11,马家庄排6【纯农排变】,辛木排1【纯农排变】,马家庄排16【纯农排变】,马家庄排12【纯农排变】,辛木混11,马庄排3【纯农排变】,马庄光10,马庄光7,辛木排7【纯农排变】,马家庄排7【纯农排变】,马家庄排1【纯农排变】,辛木光5,马庄混13,马庄光11,马庄光14,马庄村排19【纯农排变】,马庄光1,候家庄光1,辛木光10,马家庄排5【纯农排变】,马家庄排9【纯农排变】,西马庄养殖小区排1【纯农排变】,候家庄光5,马庄排14【纯农排变】,马家庄排8【纯农排变】,辛木光16,候家庄光6,马庄村排20【纯农排变】,马庄村排21【纯农排变】,马庄村排18【纯农排变】,候家庄排8【纯农排变】,马家庄排10【纯农排变】,候庄光3,候家庄光2,马庄光12,辛木排9【纯农排变】,辛木光9,候家庄混2,北店混9,辛木排6【纯农排变】,候家庄排1【纯农排变】,候家庄排9【纯农排变】,候庄光4,辛木排13【纯农排变】,马家庄光2,辛木混5,辛木排16【纯农排变】,辛木排2【纯农排变】,马家庄排2【纯农排变】,辛木排14【纯农排变】,辛木光4,候家庄排5【纯农排变】,马家庄混11,候家庄排7【纯农排变】,马庄光9,候家庄排6【纯农排变】,辛木排8【纯农排变】,北店混8,","scope":"【影响街道/乡镇】姚村乡 【高危重要客户】无 【影响客户】马家庄、侯家庄、北店部分用户、大风公司、辛木、高速收费站","startTime":"2018-06-29 07:00:00","stopDate":"2018-06-29 18:00:00","orgNo":"1340609","typeCode":"计划停电","poweroffArea":"【全线路停电】停马庄光3,马庄光9,马庄光10,马庄光11,马庄光12,候家庄光5,辛木光12,辛木光16,马庄光13,马庄光14,辛木光13,候家庄光6,马庄村排19【纯农排变】,马庄村排20【纯农排变】,马庄光15,辛木光15,辛木光14,马庄光8,马庄村排21【纯农排变】,马庄光1,侯家庄光7,侯家庄光8,马庄村排18【纯农排变】,马家庄光6,辛木混5,辛木排12【纯农排变】,辛木光7,辛木排15【纯农排变】,辛木排16【纯农排变】,辛木光17,候家庄排3【纯农排变】,候家庄光1,辛木排10【纯农排变】,候家庄排5【纯农排变】,马庄光7,辛木光1,马家庄排1【纯农排变】,辛木光10,辛木光11,候家庄排9【纯农排变】,马庄混13,马家庄排6【纯农排变】,马家庄排12【纯农排变】,马家庄排5【纯农排变】,候家庄排4【纯农排变】,马家庄排15【纯农排变】,候家庄排7【纯农排变】,辛木排2【纯农排变】,马家庄光4,辛木排6【纯农排变】,辛木光4,马家庄混11,候家庄混2,西马庄养殖小区排1【纯农排变】,辛木排13【纯农排变】,马家庄排7【纯农排变】,马家庄光5,马家庄排4【纯农排变】,马庄排14【纯农排变】,辛木混11,候家庄排1【纯农排变】,马家庄光2,候家庄排6【纯农排变】,辛木排9【纯农排变】,候家庄排8【纯农排变】,辛木排8【纯农排变】,马家庄排9【纯农排变】,候庄光4,马庄排3【纯农排变】,北店混9,辛木光9,马家庄排8【纯农排变】,辛木排14【纯农排变】,北店混11,辛木排7【纯农排变】,候庄光3,候家庄光2,辛木光5,辛木排1【纯农排变】,马家庄排2【纯农排变】,马家庄排16【纯农排变】,北店混8,马家庄排10【纯农排变】","poweroffReason":"【停电原因】由于线路主干１３号杆至９６号杆及以下线路检修、绝缘化处理导致３５ＫＶ闫台变电站马庄线５１２线路全线停电 【变更送电】无 【发布渠道】保定市定兴县电视台（０６月２１日０９时１０分至２３时５０分之间）屏幕上方滚动播放","powerTime":"2018-06-29 17:26:05","powerComm":"已送电","subsNo":"","lineNo":"","tgNo":"","tgName":null,"infoStatus":"1","orgName":"国网定兴县供电公司","typeName":null,"infoStatusName":null,"dateDay":null,"orgNos":null,"nowTime":null,"countyName":null,"streetName":null,"villageName":null,"roadName":null,"communityName":null,"tranName":null,"sdLineName":null,"cityCode":"1340609","cityName":"国网定兴县供电公司","provinceCode":null,"stopTime":"2018-06-29 18:00:00","powerType":"全部","powerOffArea":"【全线路停电】停马庄光3,马庄光9,马庄光10,马庄光11,马庄光12,候家庄光5,辛木光12,辛木光16,马庄光13,马庄光14,辛木光13,候家庄光6,马庄村排19【纯农排变】,马庄村排20【纯农排变】,马庄光15,辛木光15,辛木光14,马庄光8,马庄村排21【纯农排变】,马庄光1,侯家庄光7,侯家庄光8,马庄村排18【纯农排变】,马家庄光6,辛木混5,辛木排12【纯农排变】,辛木光7,辛木排15【纯农排变】,辛木排16【纯农排变】,辛木光17,候家庄排3【纯农排变】,候家庄光1,辛木排10【纯农排变】,候家庄排5【纯农排变】,马庄光7,辛木光1,马家庄排1【纯农排变】,辛木光10,辛木光11,候家庄排9【纯农排变】,马庄混13,马家庄排6【纯农排变】,马家庄排12【纯农排变】,马家庄排5【纯农排变】,候家庄排4【纯农排变】,马家庄排15【纯农排变】,候家庄排7【纯农排变】,辛木排2【纯农排变】,马家庄光4,辛木排6【纯农排变】,辛木光4,马家庄混11,候家庄混2,西马庄养殖小区排1【纯农排变】,辛木排13【纯农排变】,马家庄排7【纯农排变】,马家庄光5,马家庄排4【纯农排变】,马庄排14【纯农排变】,辛木混11,候家庄排1【纯农排变】,马家庄光2,候家庄排6【纯农排变】,辛木排9【纯农排变】,候家庄排8【纯农排变】,辛木排8【纯农排变】,马家庄排9【纯农排变】,候庄光4,马庄排3【纯农排变】,北店混9,辛木光9,马家庄排8【纯农排变】,辛木排14【纯农排变】,北店混11,辛木排7【纯农排变】,候庄光3,候家庄光2,辛木光5,辛木排1【纯农排变】,马家庄排2【纯农排变】,马家庄排16【纯农排变】,北店混8,马家庄排10【纯农排变】","powerOffReason":"【停电原因】由于线路主干１３号杆至９６号杆及以下线路检修、绝缘化处理导致３５ＫＶ闫台变电站马庄线５１２线路全线停电 【变更送电】无 【发布渠道】保定市定兴县电视台（０６月２１日０９时１０分至２３时５０分之间）屏幕上方滚动播放","powerOffId":"2018062013000214"},{"poweroffId":2018062013000213,"sgpoweroffId":null,"subsName":"","lineName":"10kV阮庄站511线路","pubTranName":"0356183697-保定市北方电磁线有限公司-1-配电室-变压器-1,0356546144-保定市南市区顺兴机械加工厂-1-配电室-变压器-1,","scope":"【影响街道/乡镇】阮庄路 【高危重要客户】无 【影响客户】顺兴机械加工厂、北方电磁线有限公司、朱庄钢厂、拔丝厂、凤仙起重设备厂","startTime":"2018-06-20 10:00:00","stopDate":"2018-06-20 15:30:00","orgNo":"13406","typeCode":"电网故障停限电","poweroffArea":"【分支停电】停0356546144-保定市南市区顺兴机械加工厂-1-配电室-变压器-1,0356183697-保定市北方电磁线有限公司-1-配电室-变压器-1","poweroffReason":"【停电原因】由于开关两侧刀闸过热导致１０ＫＶ阮庄变电站５１１线路３６号杆以上停电【变更送电】因抢修进度加快，原定18：00送电现计划15：30送电。【发布渠道】通过９５５９８发布","powerTime":"2018-06-20 15:22:03","powerComm":"已送电","subsNo":"","lineNo":"","tgNo":"","tgName":null,"infoStatus":"1","orgName":"保定供电公司","typeName":null,"infoStatusName":null,"dateDay":null,"orgNos":null,"nowTime":null,"countyName":null,"streetName":null,"villageName":null,"roadName":null,"communityName":null,"tranName":null,"sdLineName":null,"cityCode":"13406","cityName":"保定供电公司","provinceCode":null,"stopTime":"2018-06-20 15:30:00","powerType":"全部","powerOffArea":"【分支停电】停0356546144-保定市南市区顺兴机械加工厂-1-配电室-变压器-1,0356183697-保定市北方电磁线有限公司-1-配电室-变压器-1","powerOffReason":"【停电原因】由于开关两侧刀闸过热导致１０ＫＶ阮庄变电站５１１线路３６号杆以上停电【变更送电】因抢修进度加快，原定18：00送电现计划15：30送电。【发布渠道】通过９５５９８发布","powerOffId":"2018062013000213"},{"poweroffId":2018062013000205,"sgpoweroffId":null,"subsName":"","lineName":"10kV阮庄站513线路","pubTranName":"0572542869-保定市运输总公司八公司-专变,0356235936-保定市南苑娱乐城-专变,0652928093-保定市俊芝冷冻有限公司,0356344256-保定市伟达电业安装有限公司-专变,0357665206-保定市沃尔精制阀门有限公司-1-配电室-变压器-1,","scope":"【影响街道/乡镇】阮庄路 【高危重要客户】无 【影响客户】沃尔精制阀门有限公司、运输总公司八公司、南苑娱乐城、俊芝冷冻有限公司、伟达电业安装有限公司、胶合板厂、宏川农产品、宏伟铝加工厂、北方铜业","startTime":"2018-06-20 10:00:00","stopDate":"2018-06-20 15:30:00","orgNo":"13406","typeCode":"电网故障停限电","poweroffArea":"【分支停电】停0357665206-保定市沃尔精制阀门有限公司-1-配电室-变压器-1,0572542869-保定市运输总公司八公司-专变,0356235936-保定市南苑娱乐城-专变,0652928093-保定市俊芝冷冻有限公司,0356344256-保定市伟达电业安装有限公司-专变","poweroffReason":"【停电原因】由于开关两侧刀闸过热导致１０ＫＶ阮庄变电站５１３线路３６号杆以上停电【变更送电】因抢修进度加快，原定18：00送电现计划15：30送电。【发布渠道】通过９５５９８发布","powerTime":"2018-06-20 15:22:54","powerComm":"已送电","subsNo":"","lineNo":"","tgNo":"","tgName":null,"infoStatus":"1","orgName":"保定供电公司","typeName":null,"infoStatusName":null,"dateDay":null,"orgNos":null,"nowTime":null,"countyName":null,"streetName":null,"villageName":null,"roadName":null,"communityName":null,"tranName":null,"sdLineName":null,"cityCode":"13406","cityName":"保定供电公司","provinceCode":null,"stopTime":"2018-06-20 15:30:00","powerType":"全部","powerOffArea":"【分支停电】停0357665206-保定市沃尔精制阀门有限公司-1-配电室-变压器-1,0572542869-保定市运输总公司八公司-专变,0356235936-保定市南苑娱乐城-专变,0652928093-保定市俊芝冷冻有限公司,0356344256-保定市伟达电业安装有限公司-专变","powerOffReason":"【停电原因】由于开关两侧刀闸过热导致１０ＫＶ阮庄变电站５１３线路３６号杆以上停电【变更送电】因抢修进度加快，原定18：00送电现计划15：30送电。【发布渠道】通过９５５９８发布","powerOffId":"2018062013000205"},{"poweroffId":2018062013000196,"sgpoweroffId":null,"subsName":"","lineName":"南店线517","pubTranName":"南店排14【纯农排变】,南店排7【纯农排变】,南店光16,台上光4,南店光9,0011676990河北祥和冷暖设备有限公司,白陵山台区,北店光12,南店光17,北店排12【纯农排变】,南店光10,台上光2,0011677006周福生养殖厂,南店光8,北店光18,北店排10【纯农排变】,南店光13,台上光3,北店养殖小区公用,华野燃气-630,南店光14,南店光2,鼎亢水泥-315,台上光6,南店光20,台上排4【纯农排变】,北店排6【纯农排变】,北店排7【纯农排变】,南店排15【纯农排变】,台上排3【纯农排变】,南店混16,南店排13【纯农排变】,南店光7,南店混11,北店光2,台上光8变压器,台上排1【纯农排变】,南店小学-315,台上光5,南店排6【纯农排变】,南店排12【纯农排变】,0011677017*闫台屠宰厂(许大国),北店光6,台上光7,北店光28,北店光16,定兴县盛禾肥业有限公司,台上排2【纯农排变】,南店光5,北店光29,0011677009*河北祥和冷暖设备有限公司,南店排9【纯农排变】,南店光21,南店排5【纯农排变】,南店混4,南店光1,南店光15,南店光3,南店光4【2018年重过载】,南店光4,台上光1,南店光11,南店光12,南店混8【纯农排变】,南店排10【纯农排变】,","scope":"【影响街道/乡镇】固城镇 【高危重要客户】无 【影响客户】北店、南店、台上、闫台屠宰厂、河北祥和冷暖设备有限公司、华野燃气、周福生养殖厂、盛禾肥业有限公司、鼎亢水泥、北店养殖小区","startTime":"2018-06-29 07:00:00","stopDate":"2018-06-29 18:00:00","orgNo":"1340609","typeCode":"计划停电","poweroffArea":"【全线路停电】停南店排9【纯农排变】,0011677017*闫台屠宰厂(许大国),南店光21,南店光15,北店光18,0011677009*河北祥和冷暖设备有限公司,南店排15【纯农排变】,0011676990河北祥和冷暖设备有限公司,台上排3【纯农排变】,南店排14【纯农排变】,北店养殖小区公用,华野燃气-630,南店排7【纯农排变】,南店光5,台上排1【纯农排变】,北店光29,台上光5,白陵山台区,南店光16,台上光4,北店光6,台上排2【纯农排变】,南店光9,台上光7,南店小学-315,南店排5【纯农排变】,台上光8变压器,南店混4,南店光14,鼎亢水泥-315,北店光28,台上光6,南店光2,南店光1,南店混11,北店光12,南店光20,南店光17,台上排4【纯农排变】,南店混8【纯农排变】,北店光2,北店排12【纯农排变】,南店排10【纯农排变】,北店排6【纯农排变】,南店光10,北店排7【纯农排变】,台上光2,0011677006周福生养殖厂,南店排12【纯农排变】,南店光8,北店排10【纯农排变】,南店排6【纯农排变】,南店混16,南店光3,南店排13【纯农排变】,南店光13,南店光4,台上光3,台上光1,南店光11,北店光16,南店光12,定兴县盛禾肥业有限公司,南店光7,南店光4【2018年重过载】","poweroffReason":"【停电原因】由于线路主干０６号杆至０７３号杆及以下分支线路检修、绝缘化处理导致３５ＫＶ闫台变电站南店线５１７线路全线停电 【变更送电】无 【发布渠道】保定市定兴县电视台（０６月２１日０９时１０分至２３时５０分之间）屏幕上方滚动播放","powerTime":"2018-06-29 17:48:54","powerComm":"已送电","subsNo":"","lineNo":"","tgNo":"","tgName":null,"infoStatus":"1","orgName":"国网定兴县供电公司","typeName":null,"infoStatusName":null,"dateDay":null,"orgNos":null,"nowTime":null,"countyName":null,"streetName":null,"villageName":null,"roadName":null,"communityName":null,"tranName":null,"sdLineName":null,"cityCode":"1340609","cityName":"国网定兴县供电公司","provinceCode":null,"stopTime":"2018-06-29 18:00:00","powerType":"全部","powerOffArea":"【全线路停电】停南店排9【纯农排变】,0011677017*闫台屠宰厂(许大国),南店光21,南店光15,北店光18,0011677009*河北祥和冷暖设备有限公司,南店排15【纯农排变】,0011676990河北祥和冷暖设备有限公司,台上排3【纯农排变】,南店排14【纯农排变】,北店养殖小区公用,华野燃气-630,南店排7【纯农排变】,南店光5,台上排1【纯农排变】,北店光29,台上光5,白陵山台区,南店光16,台上光4,北店光6,台上排2【纯农排变】,南店光9,台上光7,南店小学-315,南店排5【纯农排变】,台上光8变压器,南店混4,南店光14,鼎亢水泥-315,北店光28,台上光6,南店光2,南店光1,南店混11,北店光12,南店光20,南店光17,台上排4【纯农排变】,南店混8【纯农排变】,北店光2,北店排12【纯农排变】,南店排10【纯农排变】,北店排6【纯农排变】,南店光10,北店排7【纯农排变】,台上光2,0011677006周福生养殖厂,南店排12【纯农排变】,南店光8,北店排10【纯农排变】,南店排6【纯农排变】,南店混16,南店光3,南店排13【纯农排变】,南店光13,南店光4,台上光3,台上光1,南店光11,北店光16,南店光12,定兴县盛禾肥业有限公司,南店光7,南店光4【2018年重过载】","powerOffReason":"【停电原因】由于线路主干０６号杆至０７３号杆及以下分支线路检修、绝缘化处理导致３５ＫＶ闫台变电站南店线５１７线路全线停电 【变更送电】无 【发布渠道】保定市定兴县电视台（０６月２１日０９时１０分至２３时５０分之间）屏幕上方滚动播放","powerOffId":"2018062013000196"},{"poweroffId":2018062013000178,"sgpoweroffId":null,"subsName":"","lineName":"走马驿线512","pubTranName":"张云峰砖厂,涞源县基甸庄园变压器,走马驿卫生院【煤改电】,512走马驿线五间房公用变压器,512走马驿线西村东变压器,512走马驿线北大沟变压器,养羊小区,涞源县走马驿葛沟村村民委员会 变压器,512走马驿线甄家沟变压器,涞源县走马驿新城水电站变压器,512走马驿线祭道岭变压器,512走马驿线五门上庄子变压器,512走马驿线教场北变压器,512走马驿线老院变压器,512走马驿线葛沟变压器,512走马驿线北大沟下庄子公用变压器,512走马驿线石城墩变压器,512走马驿线高家台变压器,涞源县走马驿镇葛沟村村民委员会水利变压器,512走马驿线东村北变压器,512走马驿线磨子沟门变压器,512走马驿线花园变压器,512走马驿线五门变压器,512走马驿线戈沟大地变压器,512走马驿线二亩湾变压器,五门水利,中国电信,中国人民解放军61969部队变压器,五间房部队,512走马驿线东村南湾公用变压器,512走马驿线西村9变压器,512走马驿线西村公用变压器,七八三台,涞源县走马驿镇中心小学西村小学变压器,512走马驿线新城儿变压器,512走马驿线西村东北公用变压器,512走马驿线马家沟变压器,戈沟水利,祭刀岭水利,512走马驿线东台变压器,走马驿镇政府【煤改电】,512走马驿线东村变压器,东风果园抽水用电变压器,变压器,茂源苹果园2（水）,0566771055-涞源县走马驿镇高家台村-专变-123999260-变压器,512走马驿线教厂变压器,","scope":"【影响街道/乡镇】走马驿镇【高危重要客户】无【影响客户】东村、西村、五门村、葛沟村、教场村、五间房村、花园村、高家台村、北大沟村","startTime":"2018-06-20 10:15:00","stopDate":"2018-06-20 11:30:00","orgNo":"1340615","typeCode":"电网故障停限电","poweroffArea":"【全线路停电】停涞源县走马驿镇葛沟村村民委员会水利变压器,512走马驿线葛沟变压器,512走马驿线马家沟变压器,涞源县走马驿镇中心小学西村小学变压器,512走马驿线东村北变压器,512走马驿线东台变压器,涞源县基甸庄园变压器,512走马驿线磨子沟门变压器,走马驿卫生院【煤改电】,512走马驿线祭道岭变压器,512走马驿线东村变压器,0566771055-涞源县走马驿镇高家台村-专变-123999260-变压器,512走马驿线北大沟变压器,512走马驿线戈沟大地变压器,戈沟水利,512走马驿线二亩湾变压器,祭刀岭水利,五门水利,养羊小区,中国电信,涞源县走马驿葛沟村村民委员会 变压器,五间房部队,张云峰砖厂,512走马驿线花园变压器,走马驿镇政府【煤改电】,512走马驿线五门变压器,512走马驿线甄家沟变压器,东风果园抽水用电变压器,涞源县走马驿新城水电站变压器,512走马驿线东村南湾公用变压器,512走马驿线北大沟下庄子公用变压器,512走马驿线西村9变压器,512走马驿线西村公用变压器,512走马驿线西村东北公用变压器,512走马驿线五间房公用变压器,茂源苹果园2（水）,512走马驿线新城儿变压器,512走马驿线五门上庄子变压器,512走马驿线石城墩变压器,七八三台,512走马驿线教场北变压器,512走马驿线西村东变压器,512走马驿线老院变压器,中国人民解放军61969部队变压器,512走马驿线高家台变压器,512走马驿线教厂变压器,变压器","poweroffReason":"【停电原因】由于速断掉闸导致３５ＫＶ高家台变电站走马驿线５１２线路全线停电【变更送电】因抢修进度加快，原定１６：１５送电现计划１１：３０送电。【发布渠道】通过９５５９８发布","powerTime":"2018-06-20 10:56:44","powerComm":"已送电","subsNo":"","lineNo":"","tgNo":"","tgName":null,"infoStatus":"1","orgName":"国网涞源县供电公司","typeName":null,"infoStatusName":null,"dateDay":null,"orgNos":null,"nowTime":null,"countyName":null,"streetName":null,"villageName":null,"roadName":null,"communityName":null,"tranName":null,"sdLineName":null,"cityCode":"1340615","cityName":"国网涞源县供电公司","provinceCode":null,"stopTime":"2018-06-20 11:30:00","powerType":"全部","powerOffArea":"【全线路停电】停涞源县走马驿镇葛沟村村民委员会水利变压器,512走马驿线葛沟变压器,512走马驿线马家沟变压器,涞源县走马驿镇中心小学西村小学变压器,512走马驿线东村北变压器,512走马驿线东台变压器,涞源县基甸庄园变压器,512走马驿线磨子沟门变压器,走马驿卫生院【煤改电】,512走马驿线祭道岭变压器,512走马驿线东村变压器,0566771055-涞源县走马驿镇高家台村-专变-123999260-变压器,512走马驿线北大沟变压器,512走马驿线戈沟大地变压器,戈沟水利,512走马驿线二亩湾变压器,祭刀岭水利,五门水利,养羊小区,中国电信,涞源县走马驿葛沟村村民委员会 变压器,五间房部队,张云峰砖厂,512走马驿线花园变压器,走马驿镇政府【煤改电】,512走马驿线五门变压器,512走马驿线甄家沟变压器,东风果园抽水用电变压器,涞源县走马驿新城水电站变压器,512走马驿线东村南湾公用变压器,512走马驿线北大沟下庄子公用变压器,512走马驿线西村9变压器,512走马驿线西村公用变压器,512走马驿线西村东北公用变压器,512走马驿线五间房公用变压器,茂源苹果园2（水）,512走马驿线新城儿变压器,512走马驿线五门上庄子变压器,512走马驿线石城墩变压器,七八三台,512走马驿线教场北变压器,512走马驿线西村东变压器,512走马驿线老院变压器,中国人民解放军61969部队变压器,512走马驿线高家台变压器,512走马驿线教厂变压器,变压器","powerOffReason":"【停电原因】由于速断掉闸导致３５ＫＶ高家台变电站走马驿线５１２线路全线停电【变更送电】因抢修进度加快，原定１６：１５送电现计划１１：３０送电。【发布渠道】通过９５５９８发布","powerOffId":"2018062013000178"},{"poweroffId":2018062013000145,"sgpoweroffId":null,"subsName":"","lineName":"10kV御城线542","pubTranName":"大望亭村委会,御城外11【纯农排变】,御城外7号【纯农排变】,保定市海深农业发展有限公司,0387506687-保定市清苑区农村信用联社股份有限公司-专变-45325179-清苑县农村信用合作联社,大望亭外5号【纯农排变】,御城内17台区,大望亭外10号【纯农排变】,大侯村外20【纯农排变】,御城外6【纯农排变】,小候村外3【纯农排变】,保定市亿宠宠物饲料制造有限公司,仙人桥外11【纯农排变】,1御城内15,2大望亭外14【纯农排变】,1御城内6,1大望亭内7,2小望亭外6【纯农排变】,大望亭外13【纯农排变】,客户投资_1御城内1号,河北建投灵峰环保发电有限公司,大望亭3号,大侯村外19【纯农排变】,保定市中茂能源有限公司,1御城内7,1御城内11.,0387506498-保定市文岳金属制品加工厂-专变-45325222-清苑县恒鑫五合面粉厂,0621499072-保定伊和生物科技有限责任公司-专变-129725284-清苑县博远饲料销售有限公司,屹立卓郡小区,段志佳养羊场,1大望亭内14,1御城内2号,2仙人桥外10【纯农排变】,大望亭外8号【纯农排变】,清苑县茂硕金属加工有限公司,0602532073-保定伊和生物科技有限责任公司-专变-126944238-清苑县博远饲料销售有限公司,0387505150-大望亭孟成福沙厂-专变-45325219-大望亭孟成福沙厂,0387506427-平陵河边-专变-45325170-平陵河边,0621499072-保定伊和生物科技有限责任公司-专变-129745707-清苑县博远饲料销售有限公司,小望亭外4【纯农排变】,清苑县绿鸣养殖基地,0387505440-河北鑫兴仓储有限公司-专变-45325198-大望亭带锯,1大望亭内11,0387505613-小望亭大堤(分箱)-专变-45325185-小望亭大堤（分箱）,保定市亚航建筑工程有限公司,小望亭外5【纯农排变】,0387505466-清苑县望亭长志养殖厂-专变-45325224-清苑县望亭长志养殖厂,0387506414-侯村农场内-专变-124027280-侯村农场内,0387504841-清泉鸡厂-专变-45325188-清泉鸡厂,0653694351-清苑县鑫润达机械配件制造有限公司-专变-183550373-清苑县鑫润达机械配件制造有限公司,2御城外15【纯农排变】,御城外3【纯农排变】,大侯村外13号【纯农排变】,大望亭4号,0612729737-保定隆达铝业有限公司-专变-127871694-保定隆达铝业有限公司,清苑县大望亭绿康养殖场,0387506762-清苑县茂硕金属加工有限公司-专变-192916051-保定美亚尼灯具制造有限公司,御城内10,大望亭外11号【纯农排变】,大望亭外4【纯农排变】,大望亭外12号【纯农排变】,大望亭内10,0649076901-清苑县国兵机械配件加工有限公司-专变-174391202-清苑县国兵机械配件加工有限公司,0387505059-大侯村南砖厂-专变-45325238-大侯村南砖厂,1御城内13,0387504782-保定中亿电气材料制造有限公司-专变-45325","scope":"【影响街道/乡镇】望亭乡、孙村乡、石桥乡 【高危重要客户】无 【影响客户】玉城、大望亭、小望亭、大候村、小候村、仙人桥","startTime":"2018-06-29 06:00:00","stopDate":"2018-06-30 04:00:00","orgNo":"1340618","typeCode":"计划停电","poweroffArea":"【全线路停电】停大侯村外19【纯农排变】,御城外7号【纯农排变】,大望亭外6号【纯农排变】,0387505873-中节能(保定)环保能源有限公司-专变-49039117-河北建投灵峰环保发电有限公司,小候村外3【纯农排变】,大望亭外4【纯农排变】,0387504782-保定中亿电气材料制造有限公司-专变-45325255-保定中亿电气材料制造有限公司,保定市亿宠宠物饲料制造有限公司,0653694351-清苑县鑫润达机械配件制造有限公司-专变-183550373-清苑县鑫润达机械配件制造有限公司,0387505440-河北鑫兴仓储有限公司-专变-45325198-大望亭带锯,1小望亭内4,1御城内13,大望亭外9号【纯农排变】,2仙人桥外10【纯农排变】,2御城外12【纯农排变】,大望亭外13【纯农排变】,小望亭外5【纯农排变】,清苑县绿鸣养殖基地,1御城内4,保定市亚航建筑工程有限公司,河北建投灵峰环保发电有限公司,大望亭外11号【纯农排变】,0387505453-保定鑫源机件热处理加工厂-专变-45325062-保定鑫源机件热处理加工厂,御城内10,1御城内7,清苑县广通铝业,清苑县大望亭绿康养殖场,0387506427-平陵河边-专变-45325170-平陵河边,0387505802-大望亭鸡厂会元-专变-45325175-大望亭鸡厂会元,0387506687-保定市清苑区农村信用联社股份有限公司-专变-45325179-清苑县农村信用合作联社,大望亭外7号【纯农排变】,1御城内9,御城外11【纯农排变】,0387506762-清苑县茂硕金属加工有限公司-专变-192916051-保定美亚尼灯具制造有限公司,清苑县茂硕金属加工有限公司,保定市海深农业发展有限公司,大望亭外12号【纯农排变】,御城外6【纯农排变】,2小望亭外6【纯农排变】,1小望亭新民居内1,大望亭外8号【纯农排变】,大望亭贾顺养鸡场,御城外2【纯农排变】,2御城外13【纯农排变】,0387505088-望亭线材厂-专变-45325182-望亭线材厂,0387504795-清苑县盛达变压器铁芯制造有限公司-专变-45325183-清苑县盛达变压器铁芯制造有限公司,0602532073-保定伊和生物科技有限责任公司-专变-126940174-清苑县博远饲料销售有限公司,御城内8,0387506674-大望亭饮料厂北台-专变-45325081-大望亭饮料厂北台,0387505613-小望亭大堤(分箱)-专变-45325185-小望亭大堤（分箱）,0621499072-保定伊和生物科技有限责任公司-专变-129725284-清苑县博远饲料销售有限公司,1御城内15,0387504841-清泉鸡厂-专变-45325188-清泉鸡厂,2大望亭外14【纯农排变】,清苑县金荷塘农业园,1大望亭内11,2御城外15【纯农排变】,0602532073-保定伊和生物科技有限责任公司-专变-126944238-清苑县博远饲料销售有限公司,保定市中茂能源有限公司,0648984478-保定美亚尼灯具制造有限公司-专变-174391050-保定美亚尼灯具制造有限公司,大望亭村委会,1小望亭内3,御城外3【纯农排变】,0603049374-屹立卓郡小区-专变-126939848-屹立卓郡小区,段志佳养羊场,0621499072-保定伊和生物科技有限责任公司-专变-129745707-清苑县博远饲料销售有限公司,御城内18台区,0387505118-御城董占义-专变-124028079-御城董占义,1御城内2号,大候村外14【纯农排变】,大望亭3号,1大望亭内14,御城外9【纯农排变】,0387506498-保定市文岳金属制品加工厂-专变-45325222-清苑县恒鑫五合面粉厂,0387505466-清苑县望亭长志养殖厂-专变-45325224-清苑县望亭长志养殖厂,大侯村外15【纯农排变】,1御城内3,1御城内16,御城外14【纯农排变】,1御城内6,0387504753-大侯村新兴食品厂-专变-45325166-大侯村新兴食品厂,0387506140-大侯村河边-专变-45325169-大侯村河边,侯村农场河边西台,小望亭外4【纯农排变】,御城外10【纯农排变】,0387505150-大望亭孟成福沙厂-专变-45325219-大望亭孟成福沙厂,大候村外18【纯农排变】","poweroffReason":"【停电原因】由于灾后重建工程导致１０ＫＶ戎官营开关变电站１０ＫＶ御城线５４２线路全线停电 【变更送电】因计划工作进度加快原因，送电时间由０８：００变更为０４：００ 【发布渠道】保定市清苑区电视台（０６月２１日１９时至０６月２８日２０时之间）屏幕上方滚动","powerTime":"2018-06-30 03:10:00","powerComm":"已送电","subsNo":"","lineNo":"","tgNo":"","tgName":null,"infoStatus":"1","orgName":"国网清苑县供电公司","typeName":null,"infoStatusName":null,"dateDay":null,"orgNos":null,"nowTime":null,"countyName":null,"streetName":null,"villageName":null,"roadName":null,"communityName":null,"tranName":null,"sdLineName":null,"cityCode":"1340618","cityName":"国网清苑县供电公司","provinceCode":null,"stopTime":"2018-06-30 04:00:00","powerType":"全部","powerOffArea":"【全线路停电】停大侯村外19【纯农排变】,御城外7号【纯农排变】,大望亭外6号【纯农排变】,0387505873-中节能(保定)环保能源有限公司-专变-49039117-河北建投灵峰环保发电有限公司,小候村外3【纯农排变】,大望亭外4【纯农排变】,0387504782-保定中亿电气材料制造有限公司-专变-45325255-保定中亿电气材料制造有限公司,保定市亿宠宠物饲料制造有限公司,0653694351-清苑县鑫润达机械配件制造有限公司-专变-183550373-清苑县鑫润达机械配件制造有限公司,0387505440-河北鑫兴仓储有限公司-专变-45325198-大望亭带锯,1小望亭内4,1御城内13,大望亭外9号【纯农排变】,2仙人桥外10【纯农排变】,2御城外12【纯农排变】,大望亭外13【纯农排变】,小望亭外5【纯农排变】,清苑县绿鸣养殖基地,1御城内4,保定市亚航建筑工程有限公司,河北建投灵峰环保发电有限公司,大望亭外11号【纯农排变】,0387505453-保定鑫源机件热处理加工厂-专变-45325062-保定鑫源机件热处理加工厂,御城内10,1御城内7,清苑县广通铝业,清苑县大望亭绿康养殖场,0387506427-平陵河边-专变-45325170-平陵河边,0387505802-大望亭鸡厂会元-专变-45325175-大望亭鸡厂会元,0387506687-保定市清苑区农村信用联社股份有限公司-专变-45325179-清苑县农村信用合作联社,大望亭外7号【纯农排变】,1御城内9,御城外11【纯农排变】,0387506762-清苑县茂硕金属加工有限公司-专变-192916051-保定美亚尼灯具制造有限公司,清苑县茂硕金属加工有限公司,保定市海深农业发展有限公司,大望亭外12号【纯农排变】,御城外6【纯农排变】,2小望亭外6【纯农排变】,1小望亭新民居内1,大望亭外8号【纯农排变】,大望亭贾顺养鸡场,御城外2【纯农排变】,2御城外13【纯农排变】,0387505088-望亭线材厂-专变-45325182-望亭线材厂,0387504795-清苑县盛达变压器铁芯制造有限公司-专变-45325183-清苑县盛达变压器铁芯制造有限公司,0602532073-保定伊和生物科技有限责任公司-专变-126940174-清苑县博远饲料销售有限公司,御城内8,0387506674-大望亭饮料厂北台-专变-45325081-大望亭饮料厂北台,0387505613-小望亭大堤(分箱)-专变-45325185-小望亭大堤（分箱）,0621499072-保定伊和生物科技有限责任公司-专变-129725284-清苑县博远饲料销售有限公司,1御城内15,0387504841-清泉鸡厂-专变-45325188-清泉鸡厂,2大望亭外14【纯农排变】,清苑县金荷塘农业园,1大望亭内11,2御城外15【纯农排变】,0602532073-保定伊和生物科技有限责任公司-专变-126944238-清苑县博远饲料销售有限公司,保定市中茂能源有限公司,0648984478-保定美亚尼灯具制造有限公司-专变-174391050-保定美亚尼灯具制造有限公司,大望亭村委会,1小望亭内3,御城外3【纯农排变】,0603049374-屹立卓郡小区-专变-126939848-屹立卓郡小区,段志佳养羊场,0621499072-保定伊和生物科技有限责任公司-专变-129745707-清苑县博远饲料销售有限公司,御城内18台区,0387505118-御城董占义-专变-124028079-御城董占义,1御城内2号,大候村外14【纯农排变】,大望亭3号,1大望亭内14,御城外9【纯农排变】,0387506498-保定市文岳金属制品加工厂-专变-45325222-清苑县恒鑫五合面粉厂,0387505466-清苑县望亭长志养殖厂-专变-45325224-清苑县望亭长志养殖厂,大侯村外15【纯农排变】,1御城内3,1御城内16,御城外14【纯农排变】,1御城内6,0387504753-大侯村新兴食品厂-专变-45325166-大侯村新兴食品厂,0387506140-大侯村河边-专变-45325169-大侯村河边,侯村农场河边西台,小望亭外4【纯农排变】,御城外10【纯农排变】,0387505150-大望亭孟成福沙厂-专变-45325219-大望亭孟成福沙厂,大候村外18【纯农排变】","powerOffReason":"【停电原因】由于灾后重建工程导致１０ＫＶ戎官营开关变电站１０ＫＶ御城线５４２线路全线停电 【变更送电】因计划工作进度加快原因，送电时间由０８：００变更为０４：００ 【发布渠道】保定市清苑区电视台（０６月２１日１９时至０６月２８日２０时之间）屏幕上方滚动","powerOffId":"2018062013000145"}],"pageModel":{"pageNow":968,"totalCount":10973,"totalPage":1098,"tableRows":0,"pageCount":10,"beginCount":9670},"isExperi":"1"}