{"message":"","today":"2020-06-15","seleList":[{"poweroffId":2018062013000017,"sgpoweroffId":null,"subsName":"","lineName":"西各庄512","pubTranName":"东赵排2【纯农排变】,西各庄光7,西各庄光4,新辛庄 光3【灾后重建】,西各庄排【纯农排变】,西各庄变,姚庄排2【纯农排变】,辛庄排1 2【纯农排变】,南冬光6,西各庄光10,新南冬排3【纯农排变】,杨村排5【纯农排变】,杨村排19【纯农排变】,杨村排21【纯农排变】,吴庄大棚2【纯农排变】,姚庄光2,南冬光2,姚庄大棚变【纯农排变】,新吴庄光12,0694656327-定兴县杨村乡姚家庄小学-专变-239106681-姚家庄小学,辛庄光2 1,西各庄小学,姚庄光3,杨村排13【纯农排变】,西各庄混1,西各庄光8,西各庄排6【纯农排变】,杨村排3,南冬排1【纯农排变】,西各庄排2【纯农排变】,杨村排17【纯农排变】,辛庄光1 2,河北恒利弹簧有限公司200,西各庄光6,西各庄排5【纯农排变】,杨村排10【纯农排变】,姚庄光1,杨村排18【纯农排变】,西各庄光9,新姚庄排4【纯农排变】,吴庄排1【纯农排变】,南冬光1,杨村排20【纯农排变】,南冬光5,西各庄光1,杨村排1【纯农排变】,杨村排15【纯农排变】,杨村排2,吴庄大棚1【纯农排变】,西各庄排3【纯农排变】,吴庄光2 1,姚庄排3【纯农排变】,杨村排7【纯农排变】,辛庄排3 1【纯农排变】,东赵排1【纯农排变】,姚庄排1【纯农排变】,西各庄光5,吴庄排2【纯农排变】,南冬光7,辛庄排2 1【纯农排变】,南冬排2【纯农排变】,杨村排14【纯农排变】,南冬光3,西各庄光3,","scope":"【影响街道/乡镇】杨村乡 【高危重要客户】无 【影响客户】姚庄、吴庄、辛庄、南冬、西各庄、杨村","startTime":"2018-06-20 00:24:30","stopDate":"2018-06-20 05:00:00","orgNo":"1340609","typeCode":"电网故障停限电","poweroffArea":"【全线路停电】停杨村排10【纯农排变】,河北恒利弹簧有限公司200,姚庄光1,西各庄光6,西各庄排5【纯农排变】,辛庄光2 1,杨村排18【纯农排变】,西各庄小学,西各庄光9,姚庄光3,辛庄排3 1【纯农排变】,杨村排13【纯农排变】,东赵排1【纯农排变】,西各庄混1,新姚庄排4【纯农排变】 ,西各庄光8,吴庄排1【纯农排变】,西各庄排6【纯农排变】,南冬光1,杨村排3,杨村排20【纯农排变】,南冬排1【纯农排变】,南冬光5,西各庄排2【纯农排变】,西各庄光1,杨村排17【纯农排变】,杨村排1【纯农排变】,杨村排15【纯农排变】,辛庄光1 2,杨村排2,西各庄光4,吴庄大棚1【纯农排变】,东赵排2【纯农排变】,西各庄光7,新辛庄 光3【灾后重建】,西各庄排3【纯农排变】,西各庄排【纯农排变】,吴庄光2 1,西各庄变,姚庄排3【纯农排变】,姚庄排2【纯农排变】,杨村排7【纯农排变】,辛庄排1 2【纯农排变】,南冬光6,西各庄光10,南冬光3,新南冬排3【纯农排变】 ,西各庄光3,杨村排5【纯农排变】,姚庄排1【纯农排变】,杨村排19【纯农排变】,西各庄光5,杨村排21【纯农排变】,吴庄排2【纯农排变】,吴庄大棚2【纯农排变】,南冬光7,姚庄光2,辛庄排2 1【纯农排变】,南冬光2,南冬排2【纯农排变】,姚庄大棚变【纯农排变】,杨村排14【纯农排变】,新吴庄光12,0694656327-定兴县杨村乡姚家庄小学-专变-239106681-姚家庄小学","poweroffReason":"【停电原因】由于５０２－３刀闸烧毁导致３５ＫＶ杨村变电站西各庄５１２线路全线停电 【变更送电】无 【发布渠道】通过９５５９８发布","powerTime":"2018-06-20 04:21:07","powerComm":"已送电","subsNo":"","lineNo":"","tgNo":"","tgName":null,"infoStatus":"1","orgName":"国网定兴县供电公司","typeName":null,"infoStatusName":null,"dateDay":null,"orgNos":null,"nowTime":null,"countyName":null,"streetName":null,"villageName":null,"roadName":null,"communityName":null,"tranName":null,"sdLineName":null,"cityCode":"1340609","cityName":"国网定兴县供电公司","provinceCode":null,"stopTime":"2018-06-20 05:00:00","powerType":"全部","powerOffArea":"【全线路停电】停杨村排10【纯农排变】,河北恒利弹簧有限公司200,姚庄光1,西各庄光6,西各庄排5【纯农排变】,辛庄光2 1,杨村排18【纯农排变】,西各庄小学,西各庄光9,姚庄光3,辛庄排3 1【纯农排变】,杨村排13【纯农排变】,东赵排1【纯农排变】,西各庄混1,新姚庄排4【纯农排变】 ,西各庄光8,吴庄排1【纯农排变】,西各庄排6【纯农排变】,南冬光1,杨村排3,杨村排20【纯农排变】,南冬排1【纯农排变】,南冬光5,西各庄排2【纯农排变】,西各庄光1,杨村排17【纯农排变】,杨村排1【纯农排变】,杨村排15【纯农排变】,辛庄光1 2,杨村排2,西各庄光4,吴庄大棚1【纯农排变】,东赵排2【纯农排变】,西各庄光7,新辛庄 光3【灾后重建】,西各庄排3【纯农排变】,西各庄排【纯农排变】,吴庄光2 1,西各庄变,姚庄排3【纯农排变】,姚庄排2【纯农排变】,杨村排7【纯农排变】,辛庄排1 2【纯农排变】,南冬光6,西各庄光10,南冬光3,新南冬排3【纯农排变】 ,西各庄光3,杨村排5【纯农排变】,姚庄排1【纯农排变】,杨村排19【纯农排变】,西各庄光5,杨村排21【纯农排变】,吴庄排2【纯农排变】,吴庄大棚2【纯农排变】,南冬光7,姚庄光2,辛庄排2 1【纯农排变】,南冬光2,南冬排2【纯农排变】,姚庄大棚变【纯农排变】,杨村排14【纯农排变】,新吴庄光12,0694656327-定兴县杨村乡姚家庄小学-专变-239106681-姚家庄小学","powerOffReason":"【停电原因】由于５０２－３刀闸烧毁导致３５ＫＶ杨村变电站西各庄５１２线路全线停电 【变更送电】无 【发布渠道】通过９５５９８发布","powerOffId":"2018062013000017"},{"poweroffId":2018062013000015,"sgpoweroffId":null,"subsName":"","lineName":"杨村线513","pubTranName":"杨村光8,东赵光1,杨村光3,西赵光1,北寨光3,杨村光7,杨村光11,东韩村【纯农排变】,新杨村光5,新杨村光2,杨村排16【纯农排变】,西赵排1【纯农排变】,杨村排9【纯农排变】,南谢光3,杨村幼儿园-200,0011676817李铁臣面粉厂,杨村排8【纯农排变】,新杨村光4,南谢排4 1【纯农排变】,杨村光1,0696770339-定兴县杨村中心小学-专变-240815559-400,北寨排3【纯农排变】,南谢排5【纯农排变】,0011676820杨村排1,杨村光10,杨村光9,南寨排【纯农排变】,200,杨村混6,北寨排2【纯农排变】,北寨光4,北寨光1,西赵光3,育德小学-315,西赵光4,北寨光6,东赵光2,南寨变,北寨排1【纯农排变】,北寨排6【纯农排变】,0011676807杨村排6,北寨光5,北寨排4【纯农排变】,西赵排2【纯农排变】,杨村排12【纯农排变】,西赵光2,北寨光2,北寨排5【纯农排变】,南谢村村排6【纯农排变】,南冬光4,","scope":"【影响街道/乡镇】杨村乡 【高危重要客户】无 【影响客户】南寨、南谢、东赵、西赵、杨村、化学试剂厂、北寨、东韩村部分用户","startTime":"2018-06-20 00:19:47","stopDate":"2018-06-20 05:00:00","orgNo":"1340609","typeCode":"电网故障停限电","poweroffArea":"【全线路停电】停南谢排4 1【纯农排变】,北寨光6,杨村光1,东赵光2,杨村光8,南寨排【纯农排变】,东赵光1,200,杨村光3,杨村混6,西赵光1,北寨排2【纯农排变】,北寨光3,北寨光4,杨村光7,北寨光1,杨村光11,西赵光3,东韩村【纯农排变】,育德小学-315,新杨村光5,西赵光4,新杨村光2,南寨变,杨村排16【纯农排变】,北寨排1【纯农排变】,西赵排1【纯农排变】,北寨排6【纯农排变】,杨村排9【纯农排变】,0011676807杨村排6,南谢光3,北寨光5,杨村幼儿园-200,北寨排4【纯农排变】,0011676817李铁臣面粉厂,西赵排2【纯农排变】,杨村排8【纯农排变】,杨村排12【纯农排变】,新杨村光4,西赵光2,0696770339-定兴县杨村中心小学-专变-240815559-400,北寨光2,北寨排3【纯农排变】,南谢排5【纯农排变】,南冬光4,0011676820杨村排1,北寨排5【纯农排变】,杨村光10,南谢村村排6【纯农排变】,杨村光9","poweroffReason":"【停电原因】由于５０２－３刀闸烧毁导致３５ＫＶ杨村变电站杨村线５１３线路全线停电 【变更送电】无 【发布渠道】通过９５５９８发布","powerTime":"2018-06-20 04:21:39","powerComm":"已送电","subsNo":"","lineNo":"","tgNo":"","tgName":null,"infoStatus":"1","orgName":"国网定兴县供电公司","typeName":null,"infoStatusName":null,"dateDay":null,"orgNos":null,"nowTime":null,"countyName":null,"streetName":null,"villageName":null,"roadName":null,"communityName":null,"tranName":null,"sdLineName":null,"cityCode":"1340609","cityName":"国网定兴县供电公司","provinceCode":null,"stopTime":"2018-06-20 05:00:00","powerType":"全部","powerOffArea":"【全线路停电】停南谢排4 1【纯农排变】,北寨光6,杨村光1,东赵光2,杨村光8,南寨排【纯农排变】,东赵光1,200,杨村光3,杨村混6,西赵光1,北寨排2【纯农排变】,北寨光3,北寨光4,杨村光7,北寨光1,杨村光11,西赵光3,东韩村【纯农排变】,育德小学-315,新杨村光5,西赵光4,新杨村光2,南寨变,杨村排16【纯农排变】,北寨排1【纯农排变】,西赵排1【纯农排变】,北寨排6【纯农排变】,杨村排9【纯农排变】,0011676807杨村排6,南谢光3,北寨光5,杨村幼儿园-200,北寨排4【纯农排变】,0011676817李铁臣面粉厂,西赵排2【纯农排变】,杨村排8【纯农排变】,杨村排12【纯农排变】,新杨村光4,西赵光2,0696770339-定兴县杨村中心小学-专变-240815559-400,北寨光2,北寨排3【纯农排变】,南谢排5【纯农排变】,南冬光4,0011676820杨村排1,北寨排5【纯农排变】,杨村光10,南谢村村排6【纯农排变】,杨村光9","powerOffReason":"【停电原因】由于５０２－３刀闸烧毁导致３５ＫＶ杨村变电站杨村线５１３线路全线停电 【变更送电】无 【发布渠道】通过９５５９８发布","powerOffId":"2018062013000015"},{"poweroffId":2018062013000010,"sgpoweroffId":null,"subsName":"","lineName":"青冢线514","pubTranName":"南重楼排6【纯农排变】,青冢村光12【灾后重建】,南谢排2【纯农排变】,南重楼光2,五柳庄光1,青冢排8【纯农排变】,南重楼排3【纯农排变】,青中排10【纯农排变】,青冢光10,南重楼排5【纯农排变】,南重楼光3,五柳庄光5,青冢排9【纯农排变】,西重楼光4,0694657434-定兴县五柳庄小学-专变-239106715-五柳庄小学,南重楼光1,青冢光9,五柳庄光2,青冢光8,青冢排1【纯农排变】,新青冢光11【2018年重过载】,青冢排4【纯农排变】,青冢光11,卷子排3【纯农排变】,南重楼光5,青冢排7【纯农排变】,青冢光5,青冢排3【纯农排变】,卷子光6,五柳庄光3,青冢排2【纯农排变】,青冢光6,西重楼排4【纯农排变】,0011676812金轮服装厂,青冢光2,南重楼光7,卷子光2,卷子混2,南重楼排2【纯农排变】,五柳庄村光6,青冢排6【纯农排变】,五柳庄排2【纯农排变】,0606581255-中国铁塔股份有限公司保定市分公司-专变-127342798-移动公司圈子村机站,卷子排5【纯农排变】,青冢排5【纯农排变】,南重楼排4【纯农排变】,五柳庄排1【纯农排变】,青冢光7,五柳庄光4,卷子光4,卷子光8,青冢光3,卷子排1【纯农排变】,南重楼光4,青冢排11【纯农排变】,卷子光7,卷子排4【纯农排变】,0696770078-定兴县青冢小学-专变-240815764-青冢小学,卷子光3,移动公司基站-50,青冢光4,五柳庄排4【纯农排变】,青冢光1,卷子小学-160,卷子光1,0469291908-杨村供电所-专变-46771920-杨村供电所,五柳庄排3【纯农排变】,","scope":"【影响街道/乡镇】杨村乡 【高危重要客户】无 【影响客户】南重楼、卷子、五柳庄、青冢","startTime":"2018-06-20 00:11:23","stopDate":"2018-06-20 05:00:00","orgNo":"1340609","typeCode":"电网故障停限电","poweroffArea":"【全线路停电】停卷子光7,卷子排3【纯农排变】,0606581255-中国铁塔股份有限公司保定市分公司-专变-127342798-移动公司圈子村机站,五柳庄排2【纯农排变】,青冢光8,五柳庄排4【纯农排变】,南重楼排3【纯农排变】,青冢排6【纯农排变】,卷子排4【纯农排变】,南重楼光5,卷子排5【纯农排变】,青冢排1【纯农排变】,青冢排3【纯农排变】,青中排10【纯农排变】,青冢光1,青冢排5【纯农排变】,卷子光6,西重楼排4【纯农排变】,青冢排7【纯农排变】,南重楼排5【纯农排变】,南谢排2【纯农排变】,青冢光2,青冢排2【纯农排变】,五柳庄排1【纯农排变】,南重楼排6【纯农排变】,卷子小学-160,0011676812金轮服装厂,青冢光5,南重楼光3,南重楼光7,0696770078-定兴县青冢小学-专变-240815764-青冢小学,卷子光1,青冢光7,青冢村光12【灾后重建】,五柳庄光5,五柳庄光3,新青冢光11【2018年重过载】,卷子光2,0469291908-杨村供电所-专变-46771920-杨村供电所,五柳庄光4,卷子混2,卷子光3,南重楼光2,青冢排9【纯农排变】,青冢光6,青冢排4【纯农排变】,南重楼排2【纯农排变】,五柳庄排3【纯农排变】,卷子排1【纯农排变】,青冢光3,南重楼光1,0694657434-定兴县五柳庄小学-专变-239106715-五柳庄小学,卷子光4,青冢光10,移动公司基站-50,南重楼光4,西重楼光4,南重楼排4【纯农排变】,卷子光8,青冢光9,青冢光11,五柳庄光1,青冢排11【纯农排变】,五柳庄村光6,青冢光4,五柳庄光2,青冢排8【纯农排变】","poweroffReason":"【停电原因】由于５０２－３刀闸烧毁导致３５ＫＶ杨村变电站青冢线５１４线路全线停电 【变更送电】无 【发布渠道】通过９５５９８发布","powerTime":"2018-06-20 04:22:12","powerComm":"已送电","subsNo":"","lineNo":"","tgNo":"","tgName":null,"infoStatus":"1","orgName":"国网定兴县供电公司","typeName":null,"infoStatusName":null,"dateDay":null,"orgNos":null,"nowTime":null,"countyName":null,"streetName":null,"villageName":null,"roadName":null,"communityName":null,"tranName":null,"sdLineName":null,"cityCode":"1340609","cityName":"国网定兴县供电公司","provinceCode":null,"stopTime":"2018-06-20 05:00:00","powerType":"全部","powerOffArea":"【全线路停电】停卷子光7,卷子排3【纯农排变】,0606581255-中国铁塔股份有限公司保定市分公司-专变-127342798-移动公司圈子村机站,五柳庄排2【纯农排变】,青冢光8,五柳庄排4【纯农排变】,南重楼排3【纯农排变】,青冢排6【纯农排变】,卷子排4【纯农排变】,南重楼光5,卷子排5【纯农排变】,青冢排1【纯农排变】,青冢排3【纯农排变】,青中排10【纯农排变】,青冢光1,青冢排5【纯农排变】,卷子光6,西重楼排4【纯农排变】,青冢排7【纯农排变】,南重楼排5【纯农排变】,南谢排2【纯农排变】,青冢光2,青冢排2【纯农排变】,五柳庄排1【纯农排变】,南重楼排6【纯农排变】,卷子小学-160,0011676812金轮服装厂,青冢光5,南重楼光3,南重楼光7,0696770078-定兴县青冢小学-专变-240815764-青冢小学,卷子光1,青冢光7,青冢村光12【灾后重建】,五柳庄光5,五柳庄光3,新青冢光11【2018年重过载】,卷子光2,0469291908-杨村供电所-专变-46771920-杨村供电所,五柳庄光4,卷子混2,卷子光3,南重楼光2,青冢排9【纯农排变】,青冢光6,青冢排4【纯农排变】,南重楼排2【纯农排变】,五柳庄排3【纯农排变】,卷子排1【纯农排变】,青冢光3,南重楼光1,0694657434-定兴县五柳庄小学-专变-239106715-五柳庄小学,卷子光4,青冢光10,移动公司基站-50,南重楼光4,西重楼光4,南重楼排4【纯农排变】,卷子光8,青冢光9,青冢光11,五柳庄光1,青冢排11【纯农排变】,五柳庄村光6,青冢光4,五柳庄光2,青冢排8【纯农排变】","powerOffReason":"【停电原因】由于５０２－３刀闸烧毁导致３５ＫＶ杨村变电站青冢线５１４线路全线停电 【变更送电】无 【发布渠道】通过９５５９８发布","powerOffId":"2018062013000010"},{"poweroffId":2018062013000003,"sgpoweroffId":null,"subsName":"","lineName":"房家庄线511","pubTranName":"房家庄光10,房家庄光11,西重楼光5,房家庄排3【纯农排变】,永鑫食品厂315-1,房家庄光2,杨庄光1,东江村排【纯农排变】,杨庄光2,0011676821南重楼综合厂,房家庄光9,房家庄光5,南谢光6,房家庄光7,房家庄排4【纯农排变】,房家庄光4,永鑫食品厂315-3,西重楼排2【纯农排变】,西重楼混1,南重楼排1【纯农排变】,南谢排4【纯农排变】,北重楼排2【纯农排变】,北谢排2【纯农排变】,杨庄光3,房家庄排7【纯农排变】,北谢排1【纯农排变】,0011676822京兴磨石厂,南谢光5,南重楼光6,明德小学-400,北重楼光4,北重楼排3【纯农排变】,西重楼混2,房家庄光1,房家庄排5【纯农排变】,北重楼光5,0691927613-定兴县房家庄幼儿园-专变-235695139-房家庄幼儿园-200,永鑫食品厂315-2,杨庄排1【纯农排变】,房家庄排8【纯农排变】,北谢光3,卷子光5,0694650970-定兴县南重楼幼儿园-专变-239106696-南重楼幼儿园,北重楼光1,北重楼排4【纯农排变】,北重楼排5【纯农排变】,房家庄排6【纯农排变】,房家庄排2【纯农排变】,北重楼光2,房家庄光3,房家庄光8,北谢光1,北重楼排1【纯农排变】,杨庄排3【纯农排变】,北谢光2,新杨庄光4,西重楼光3,南谢光1,房家庄光6,南谢排1【纯农排变】,北谢排3【纯农排变】,西重楼排3【纯农排变】,西重楼排5【纯农排变】,南谢光2,南谢光4,马大姐第三分公司（1000）,西重楼光1,北重楼光3,杨庄排2【纯农排变】,房家庄排1【纯农排变】,","scope":"【影响街道/乡镇】杨村乡 【高危重要客户】无 【影响客户】房家庄、杨庄、北重楼、南谢、北谢、西重楼、东江村部分用户、南重楼部分用户","startTime":"2018-06-20 00:02:43","stopDate":"2018-06-20 05:00:00","orgNo":"1340609","typeCode":"电网故障停限电","poweroffArea":"【全线路停电】停北重楼排3【纯农排变】,南谢排1【纯农排变】,北谢排2【纯农排变】,新杨庄光4,北重楼光1,西重楼混1,0694650970-定兴县南重楼幼儿园-专变-239106696-南重楼幼儿园,杨庄光1,杨庄光3,杨庄光2,西重楼排3【纯农排变】,房家庄光3,东江村排【纯农排变】,北谢光2,北重楼排4【纯农排变】,马大姐第三分公司（1000）,南重楼排1【纯农排变】,房家庄光10,北重楼排5【纯农排变】,南谢光1,房家庄光11,南谢排4【纯农排变】,西重楼光5,房家庄光6,北重楼排2【纯农排变】,房家庄排6【纯农排变】,房家庄排3【纯农排变】,北谢排3【纯农排变】,永鑫食品厂315-1,房家庄排7【纯农排变】,房家庄排2【纯农排变】,房家庄光2,西重楼排5【纯农排变】,北重楼光2,北谢排1【纯农排变】,0011676821南重楼综合厂,南谢光2,房家庄光8,0011676822京兴磨石厂,房家庄光9,南谢光4,北谢光1,南谢光5,房家庄光5,杨庄排1【纯农排变】,南谢光6,南重楼光6,西重楼光1,明德小学-400,房家庄排8【纯农排变】,北重楼光3,北重楼光4,杨庄排2【纯农排变】,0691927613-定兴县房家庄幼儿园-专变-235695139-房家庄幼儿园-200,房家庄光7,永鑫食品厂315-2,房家庄排1【纯农排变】,房家庄排5【纯农排变】,房家庄排4【纯农排变】,北谢光3,房家庄光4,北重楼光5,永鑫食品厂315-3,卷子光5,北重楼排1【纯农排变】,西重楼混2,杨庄排3【纯农排变】,房家庄光1,西重楼排2【纯农排变】,西重楼光3","poweroffReason":"【停电原因】由于５０２－３刀闸烧毁导致３５ＫＶ杨村变电站房家庄线５１１线路全线停电 【变更送电】无 【发布渠道】通过９５５９８发布","powerTime":"2018-06-20 04:22:34","powerComm":"已送电","subsNo":"","lineNo":"","tgNo":"","tgName":null,"infoStatus":"1","orgName":"国网定兴县供电公司","typeName":null,"infoStatusName":null,"dateDay":null,"orgNos":null,"nowTime":null,"countyName":null,"streetName":null,"villageName":null,"roadName":null,"communityName":null,"tranName":null,"sdLineName":null,"cityCode":"1340609","cityName":"国网定兴县供电公司","provinceCode":null,"stopTime":"2018-06-20 05:00:00","powerType":"全部","powerOffArea":"【全线路停电】停北重楼排3【纯农排变】,南谢排1【纯农排变】,北谢排2【纯农排变】,新杨庄光4,北重楼光1,西重楼混1,0694650970-定兴县南重楼幼儿园-专变-239106696-南重楼幼儿园,杨庄光1,杨庄光3,杨庄光2,西重楼排3【纯农排变】,房家庄光3,东江村排【纯农排变】,北谢光2,北重楼排4【纯农排变】,马大姐第三分公司（1000）,南重楼排1【纯农排变】,房家庄光10,北重楼排5【纯农排变】,南谢光1,房家庄光11,南谢排4【纯农排变】,西重楼光5,房家庄光6,北重楼排2【纯农排变】,房家庄排6【纯农排变】,房家庄排3【纯农排变】,北谢排3【纯农排变】,永鑫食品厂315-1,房家庄排7【纯农排变】,房家庄排2【纯农排变】,房家庄光2,西重楼排5【纯农排变】,北重楼光2,北谢排1【纯农排变】,0011676821南重楼综合厂,南谢光2,房家庄光8,0011676822京兴磨石厂,房家庄光9,南谢光4,北谢光1,南谢光5,房家庄光5,杨庄排1【纯农排变】,南谢光6,南重楼光6,西重楼光1,明德小学-400,房家庄排8【纯农排变】,北重楼光3,北重楼光4,杨庄排2【纯农排变】,0691927613-定兴县房家庄幼儿园-专变-235695139-房家庄幼儿园-200,房家庄光7,永鑫食品厂315-2,房家庄排1【纯农排变】,房家庄排5【纯农排变】,房家庄排4【纯农排变】,北谢光3,房家庄光4,北重楼光5,永鑫食品厂315-3,卷子光5,北重楼排1【纯农排变】,西重楼混2,杨庄排3【纯农排变】,房家庄光1,西重楼排2【纯农排变】,西重楼光3","powerOffReason":"【停电原因】由于５０２－３刀闸烧毁导致３５ＫＶ杨村变电站房家庄线５１１线路全线停电 【变更送电】无 【发布渠道】通过９５５９８发布","powerOffId":"2018062013000003"},{"poweroffId":2018062013000001,"sgpoweroffId":null,"subsName":"","lineName":"十里铺线513","pubTranName":"曲桥排灌2变压器【纯农排变】,大王庄西变压器,武家村变压器,李庄果园变压器【纯农排变】,田东排灌2变压器【纯农排变】,田西中变压器,田东排灌1变压器【纯农排变】,东马营李庄,李庄东变压器,梁庄东地2变压器【纯农排变】,梁庄变压器,朱庄地东变压器【纯农排变】,田西北变压器,郝庄地变压器【纯农排变】,曲桥地变压器,十里铺公变,李庄排灌2变压器【纯农排变】,田东混用变压器,曲辛庄地北变压器【纯农排变】,田西南变压器,朱庄排灌1变压器【纯农排变】,郝庄排灌变压器【纯农排变】,李庄南变压器,梁庄南变压器,大屯中变压器,田东南变压器,大屯东排灌变压器【纯农排变】,东马营小陈庄,大屯西南地变压器【纯农排变】,大王庄地北变压器【纯农排变】,田东北变压器,十里铺南变压器,田西地北变压器【纯农排变】,前孟东变压器,郭街北排灌变压器【纯农排变】,大屯北变压器,十里铺地东变压器【纯农排变】,武家村南变压器,田西混用柱上变压器,梁庄东地1变压器【纯农排变】,十里铺排灌3变压器【纯农排变】,李庄排灌1变压器【纯农排变】,十里铺排灌4变压器【纯农排变】,曲桥变压器,十里铺西地2变压器【纯农排变】,田东地南2变压器【纯农排变】,胡街地西变压器【纯农排变】,大屯西地一变压器【纯农排变】,十里铺地中变压器,客户投资_曲辛庄变压器,十里铺中变压器,曲辛庄地南变压器【纯农排变】,十里铺北变压器,十里铺西地1变压器【纯农排变】,曲辛庄西变压器,曲桥排灌1变压器【纯农排变】,后孟变压器,大王庄北变压器,朱庄西变压器,十里铺排灌5变压器【纯农排变】,十里铺西变压器,前孟变压器,大王庄东变压器,郝庄变压器,东五地北变压器【纯农排变】,线庄排灌变压器【纯农排变】,丰元庄排灌变压器,大屯南地2分支【纯农排变】,大屯地东磁卡变压器【纯农排变】,田东东变压器,宇航织带变压器,大屯内变压器,大王庄地南变压器【纯农排变】,武家村南排灌变压器【纯农排变】,大屯西地变压器【纯农排变】,曲桥南变压器,大屯北地变压器【纯农排变】,朱庄排灌2变压器【纯农排变】,田东地北变压器【纯农排变】,十里铺东变压器,朱庄东变压器,大屯南变压器,朱庄变压器,武家村排灌变压器【纯农排变】,大王庄新架变压器,梁庄西地变压器【纯农排变】,田东地南1变压器【纯农排变】,曲桥排灌3变压器【纯农排变】,田西地南变压器【纯农排变】,后孟西变压器,西张庄地变压器【纯农排变】,曲桥东变压器,","scope":"【影响街道/乡镇】新城镇、东马营镇 【高危重要客户】无 【影响客户】良庄村、大屯村、武家村、朱庄村、十里铺村、曲桥村、曲辛庄村、前孟村、后孟村、小陈庄村、李庄村、大王庄村、郝庄村、田宜屯村、大屯垃圾场、大屯小学、河北艾莫森通用机场、水办处、大屯扬水机站、平建军搅拌站、宇建尚砼、东马营镇马文武箱包加工厂、大屯煤场、东马营镇春顺养猪场、中国移动高碑店分公司郝庄基站","startTime":"2018-06-20 00:04:23","stopDate":"2018-06-20 01:30:00","orgNo":"1340612","typeCode":"电网故障停限电","poweroffArea":"【全线路停电】停大屯北变压器,大屯北地变压器【纯农排变】,大屯地东磁卡变压器【纯农排变】,大屯东排灌变压器【纯农排变】,大屯南变压器,大屯南地2分支【纯农排变】,大屯内变压器,大屯西地变压器【纯农排变】,大屯西地一变压器【纯农排变】,大屯西南地变压器【纯农排变】,大屯中变压器,大王庄北变压器,大王庄地北变压器【纯农排变】,大王庄地南变压器【纯农排变】,大王庄东变压器,大王庄西变压器,大王庄新架变压器,东马营李庄,东马营小陈庄,东五地北变压器【纯农排变】,丰元庄排灌变压器,郭街北排灌变压器【纯农排变】,郝庄变压器,郝庄地变压器【纯农排变】,郝庄排灌变压器【纯农排变】,后孟变压器,后孟西变压器,胡街地西变压器【纯农排变】,客户投资_曲辛庄变压器,李庄东变压器,李庄果园变压器【纯农排变】,李庄南变压器,李庄排灌1变压器【纯农排变】,李庄排灌2变压器【纯农排变】,梁庄变压器,梁庄东地1变压器【纯农排变】,梁庄东地2变压器【纯农排变】,梁庄南变压器,梁庄西地变压器【纯农排变】,前孟变压器,前孟东变压器,曲桥变压器,曲桥地变压器,曲桥东变压器,曲桥南变压器,曲桥排灌1变压器【纯农排变】,曲桥排灌2变压器【纯农排变】,曲桥排灌3变压器【纯农排变】,曲辛庄地北变压器【纯农排变】,曲辛庄地南变压器【纯农排变】,曲辛庄西变压器,十里铺北变压器,十里铺地东变压器【纯农排变】,十里铺地中变压器,十里铺东变压器,十里铺公变,十里铺南变压器,十里铺排灌3变压器【纯农排变】,十里铺排灌4变压器【纯农排变】,十里铺排灌5变压器【纯农排变】,十里铺西变压器,十里铺西地1变压器【纯农排变】,十里铺西地2变压器【纯农排变】,十里铺中变压器,田东北变压器,田东地北变压器【纯农排变】,田东地南1变压器【纯农排变】,田东地南2变压器【纯农排变】,田东东变压器,田东混用变压器,田东南变压器,田东排灌1变压器【纯农排变】,田东排灌2变压器【纯农排变】,田西北变压器,田西地北变压器【纯农排变】,田西地南变压器【纯农排变】,田西混用柱上变压器,田西南变压器,田西中变压器,武家村变压器,武家村南变压器,武家村南排灌变压器【纯农排变】,武家村排灌变压器【纯农排变】,西张庄地变压器【纯农排变】,线庄排灌变压器【纯农排变】,宇航织带变压器,朱庄变压器,朱庄地东变压器【纯农排变】,朱庄东变压器,朱庄排灌1变压器【纯农排变】,朱庄排灌2变压器【纯农排变】,朱庄西变压器","poweroffReason":"【停电原因】由于宇建尚砼分支变压器跌落烧毁导致１１０ＫＶ太平庄变电站１０ＫＶ十里铺５１３线路全线停电 【变更送电】因抢修进度加快原因，送电时间由０２：００变更为０１：３０ 【发布渠道】通过９５５９８发布","powerTime":"2018-06-20 00:53:25","powerComm":"已送电","subsNo":"","lineNo":"","tgNo":"","tgName":null,"infoStatus":"1","orgName":"国网高碑店市供电公司","typeName":null,"infoStatusName":null,"dateDay":null,"orgNos":null,"nowTime":null,"countyName":null,"streetName":null,"villageName":null,"roadName":null,"communityName":null,"tranName":null,"sdLineName":null,"cityCode":"1340612","cityName":"国网高碑店市供电公司","provinceCode":null,"stopTime":"2018-06-20 01:30:00","powerType":"全部","powerOffArea":"【全线路停电】停大屯北变压器,大屯北地变压器【纯农排变】,大屯地东磁卡变压器【纯农排变】,大屯东排灌变压器【纯农排变】,大屯南变压器,大屯南地2分支【纯农排变】,大屯内变压器,大屯西地变压器【纯农排变】,大屯西地一变压器【纯农排变】,大屯西南地变压器【纯农排变】,大屯中变压器,大王庄北变压器,大王庄地北变压器【纯农排变】,大王庄地南变压器【纯农排变】,大王庄东变压器,大王庄西变压器,大王庄新架变压器,东马营李庄,东马营小陈庄,东五地北变压器【纯农排变】,丰元庄排灌变压器,郭街北排灌变压器【纯农排变】,郝庄变压器,郝庄地变压器【纯农排变】,郝庄排灌变压器【纯农排变】,后孟变压器,后孟西变压器,胡街地西变压器【纯农排变】,客户投资_曲辛庄变压器,李庄东变压器,李庄果园变压器【纯农排变】,李庄南变压器,李庄排灌1变压器【纯农排变】,李庄排灌2变压器【纯农排变】,梁庄变压器,梁庄东地1变压器【纯农排变】,梁庄东地2变压器【纯农排变】,梁庄南变压器,梁庄西地变压器【纯农排变】,前孟变压器,前孟东变压器,曲桥变压器,曲桥地变压器,曲桥东变压器,曲桥南变压器,曲桥排灌1变压器【纯农排变】,曲桥排灌2变压器【纯农排变】,曲桥排灌3变压器【纯农排变】,曲辛庄地北变压器【纯农排变】,曲辛庄地南变压器【纯农排变】,曲辛庄西变压器,十里铺北变压器,十里铺地东变压器【纯农排变】,十里铺地中变压器,十里铺东变压器,十里铺公变,十里铺南变压器,十里铺排灌3变压器【纯农排变】,十里铺排灌4变压器【纯农排变】,十里铺排灌5变压器【纯农排变】,十里铺西变压器,十里铺西地1变压器【纯农排变】,十里铺西地2变压器【纯农排变】,十里铺中变压器,田东北变压器,田东地北变压器【纯农排变】,田东地南1变压器【纯农排变】,田东地南2变压器【纯农排变】,田东东变压器,田东混用变压器,田东南变压器,田东排灌1变压器【纯农排变】,田东排灌2变压器【纯农排变】,田西北变压器,田西地北变压器【纯农排变】,田西地南变压器【纯农排变】,田西混用柱上变压器,田西南变压器,田西中变压器,武家村变压器,武家村南变压器,武家村南排灌变压器【纯农排变】,武家村排灌变压器【纯农排变】,西张庄地变压器【纯农排变】,线庄排灌变压器【纯农排变】,宇航织带变压器,朱庄变压器,朱庄地东变压器【纯农排变】,朱庄东变压器,朱庄排灌1变压器【纯农排变】,朱庄排灌2变压器【纯农排变】,朱庄西变压器","powerOffReason":"【停电原因】由于宇建尚砼分支变压器跌落烧毁导致１１０ＫＶ太平庄变电站１０ＫＶ十里铺５１３线路全线停电 【变更送电】因抢修进度加快原因，送电时间由０２：００变更为０１：３０ 【发布渠道】通过９５５９８发布","powerOffId":"2018062013000001"},{"poweroffId":2018061913000492,"sgpoweroffId":null,"subsName":"","lineName":"华梓营574","pubTranName":"保定白沟吉忠热力有限公司变压器,于庄西,于庄南,0692496147-保定白沟新城杜香伟皮革商行-专变-235641338-变压器,东芦北2,新兴皮件厂,东芦北3号公变,于庄村（东南地）【纯农排变】,许场浇地东,姜振清,许场中2,保定白沟吉忠热力有限责任公司变压器,于庄7号,许场东2,变压器200,西芦浇地,黄克良,许场浇地西,于庄村（东地）【纯农排变】,许场西,永兴皮件厂,姜会军,黄宝兴,变压器,于庄村（东北地）【纯农排变】,东芦北,许场南,于庄6号,于庄8号变压器,于庄北,于庄东,许场中,于庄5号,兴建强,","scope":"【影响街道/乡镇】白沟镇、东一环 【高危重要客户】无 【影响客户】许场村、于庄村、热力公司、东芦村、保定白沟吉忠热力公司、保定白沟新城中通加油站、保定白沟新城杜香伟皮革商行、黄克良、兴建强、新兴皮件厂、黄宝兴、姜会军、李风水、永兴皮件厂、姜振清、于庄砖厂（鼎奎）","startTime":"2018-06-20 03:00:00","stopDate":"2018-06-20 05:00:00","orgNo":"1340612","typeCode":"其他临时停电","poweroffArea":"【分支停电】停保定白沟吉忠热力有限公司变压器,于庄5号,于庄西,兴建强,于庄南,许场浇地西,0692496147-保定白沟新城杜香伟皮革商行-专变-235641338-变压器,于庄村（东地）【纯农排变】,东芦北2,新兴皮件厂,许场西,东芦北3号公变,永兴皮件厂,于庄村（东南地）【纯农排变】,姜会军,许场浇地东,黄宝兴,姜振清,变压器,许场中2,于庄村（东北地）【纯农排变】,保定白沟吉忠热力有限责任公司变压器,东芦北,于庄7号,许场南,许场东2,于庄6号,于庄8号变压器,变压器200,于庄北,西芦浇地,于庄东,黄克良,许场中","poweroffReason":"【停电原因】由于许场西地变台跌落打火需紧急处理导致１１０ＫＶ南留变电站１０ＫＶ华梓营５７４线路０２号断路器以下停电 【变更送电】无 【发布渠道】通过９５５９８发布","powerTime":"2018-06-20 04:09:31","powerComm":"已送电","subsNo":"","lineNo":"","tgNo":"","tgName":null,"infoStatus":"1","orgName":"国网高碑店市供电公司","typeName":null,"infoStatusName":null,"dateDay":null,"orgNos":null,"nowTime":null,"countyName":null,"streetName":null,"villageName":null,"roadName":null,"communityName":null,"tranName":null,"sdLineName":null,"cityCode":"1340612","cityName":"国网高碑店市供电公司","provinceCode":null,"stopTime":"2018-06-20 05:00:00","powerType":"全部","powerOffArea":"【分支停电】停保定白沟吉忠热力有限公司变压器,于庄5号,于庄西,兴建强,于庄南,许场浇地西,0692496147-保定白沟新城杜香伟皮革商行-专变-235641338-变压器,于庄村（东地）【纯农排变】,东芦北2,新兴皮件厂,许场西,东芦北3号公变,永兴皮件厂,于庄村（东南地）【纯农排变】,姜会军,许场浇地东,黄宝兴,姜振清,变压器,许场中2,于庄村（东北地）【纯农排变】,保定白沟吉忠热力有限责任公司变压器,东芦北,于庄7号,许场南,许场东2,于庄6号,于庄8号变压器,变压器200,于庄北,西芦浇地,于庄东,黄克良,许场中","powerOffReason":"【停电原因】由于许场西地变台跌落打火需紧急处理导致１１０ＫＶ南留变电站１０ＫＶ华梓营５７４线路０２号断路器以下停电 【变更送电】无 【发布渠道】通过９５５９８发布","powerOffId":"2018061913000492"},{"poweroffId":2018061913000490,"sgpoweroffId":null,"subsName":"","lineName":"10kV北务线527","pubTranName":"北务村南4591,","scope":"【影响街道/乡镇】东仙坡镇 【高危重要客户】无 【影响客户】北务","startTime":"2018-06-19 22:46:23","stopDate":"2018-06-20 02:00:00","orgNo":"1340626","typeCode":"电网故障停限电","poweroffArea":"【单台区停电】停北务村南4591","poweroffReason":"【停电原因】由于车辆撞断低压电杆导致１１０ＫＶ下胡良变电站１０ＫＶ北务５２７线路北务村南４５９１公变台区停电 【变更送电】因抢修进度加快原因，送电时间由１２：００变更为０２：００ 【发布渠道】通过９５５９８发布","powerTime":"2018-06-20 01:24:01","powerComm":"已送电","subsNo":"","lineNo":"","tgNo":"","tgName":null,"infoStatus":"1","orgName":"国网涿州市供电公司","typeName":null,"infoStatusName":null,"dateDay":null,"orgNos":null,"nowTime":null,"countyName":null,"streetName":null,"villageName":null,"roadName":null,"communityName":null,"tranName":null,"sdLineName":null,"cityCode":"1340626","cityName":"国网涿州市供电公司","provinceCode":null,"stopTime":"2018-06-20 02:00:00","powerType":"全部","powerOffArea":"【单台区停电】停北务村南4591","powerOffReason":"【停电原因】由于车辆撞断低压电杆导致１１０ＫＶ下胡良变电站１０ＫＶ北务５２７线路北务村南４５９１公变台区停电 【变更送电】因抢修进度加快原因，送电时间由１２：００变更为０２：００ 【发布渠道】通过９５５９８发布","powerOffId":"2018061913000490"},{"poweroffId":2018061913000478,"sgpoweroffId":null,"subsName":"","lineName":"东盛514","pubTranName":"高碑店市公安消防大队,东盛闫各庄东变压器,方家务小学,保定轩宇陆威汽车销售服务有限公司变压器,保定隆和房地产开发有限公司2#变压器,立信塑业,立信塑业变压器,高碑店市丰原汽车配件厂变压器,东盛艾各庄南变压器,东盛艾各庄新变压器,高碑店市单单幕墙有限责任公司,东盛闫各庄排灌变压器【纯农排变】,东盛办事处变压器,河北雷华伟业房地产开发有限公司,东盛闫王庄北变压器,张八屯水洗,张八屯铁厂,高碑店市单单幕墙有限责任公司变压器,李怀友变压器,河北雷华物业房地产开发有限公司2变压器,0387438029-高碑店市鑫光明玻璃有限公司-专变-217785144-高碑店市鑫光明玻璃有限公司变压器,保定隆和房地产开发有限公司3#变压器,龙腾旅游制品,高碑店市路灯管理办公室（新华大街闫各庄西路灯）,异型刀具,高碑店市金宇电磁线有限公司变压器,赵成武,东盛闫王庄变压器,海绵厂,高碑店市永杰汽车销售有限公司变压器,保定隆和房地产开发有限公司1#变压器,高碑店市万美商贸有限公司变压器,东盛艾各庄东变压器,高碑店市山农生物有限公司变压器,东盛张八屯西变压器,河北合创建筑节能科技有限责任公司变压器,东盛艾各庄变压器,112线南公变变压器,联通公司1,高碑店市大和环保锅炉有限公司变压器,0671179803-高碑店市广跃城市建设有限公司-专变-212318236-高碑店市广跃城市建设有限公司变压器,高碑店市兴泰房地产开发有限公司1#变压器,张八屯水洗厂,光明铝合金,保定市隆和房地产开发有限公司,东盛艾各庄地变压器,高碑店市建设局,东盛冯漫撒北变压器,码王叉车配件,高碑店市世纪毅佳饲料有限责任公司变压器,高碑店市恒安房地产开发有限公司,高碑店市路灯管理办公室变压器,高碑店市兴泰房地产开发有限公司2#变压器,福达公司,高碑店市路灯管理办公室（112线环岛路灯）变压器,东盛艾各庄新1变压器,高碑店市广跃城市建设有限公司,河北合创建筑节能科技有限责任公司2#变压器,东盛冯漫撒西北变压器,0671906667-保定隆和房地产开发有限公司-专变-212389225-保定隆和房地产开发有限公司1#变压器,圣方机械有限公司,杨丙山,东盛冯漫撒西变压器【纯农排变】,变压器,保定隆和房地产开发有限公司4#变压器,闫玉山,高碑店市利通设备租赁有限公司变压器,高碑店市路灯管理办公室（光华北大街路灯）变压器,0671906667-保定隆和房地产开发有限公司-专变-212380302-保定隆和房地产开发有限公司2#变压器,河北雷华物业房地产开发有限公司1变压器,梁洪,东盛闫各庄西变压器,","scope":"【影响街道/乡镇】东盛办事处、１１２线南 【高危重要客户】无 【影响客户】闫各庄村、李怀友、鑫光明玻璃有限公司、世纪毅佳饲料有限责任公司、大和环保锅炉、金宇电磁线、万美房地产、保定隆和房地产、起悦汽车贸易、路灯管理办公室、广跃城市建设有限公司、中国人寿保险高碑店分公司、龙腾旅游制品有限责任公司、恒安房地产、单单幕墙、方家务小学、保定轩宇陆威汽车销售、河北航帆箱包制造有限公司、立信神农、丰原汽车配件厂、山农生物有限公司、运恒土地整理有限公司、河北隆泰物业高碑店分公司、宏德机加工综合厂、张八屯水洗厂、高碑店市建设局、路灯管理办公室、河北赢石建筑工程有限公司、雷华物业房地产","startTime":"2018-06-19 21:19:48","stopDate":"2018-06-19 22:40:00","orgNo":"1340612","typeCode":"电网故障停限电","poweroffArea":"【全线路停电】停高碑店市万美商贸有限公司变压器,高碑店市世纪毅佳饲料有限责任公司变压器,梁洪,东盛艾各庄新变压器,河北合创建筑节能科技有限责任公司变压器,高碑店市恒安房地产开发有限公司,高碑店市路灯管理办公室变压器,高碑店市山农生物有限公司变压器,高碑店市单单幕墙有限责任公司,东盛艾各庄变压器,东盛闫各庄排灌变压器【纯农排变】,东盛张八屯西变压器,高碑店市兴泰房地产开发有限公司2#变压器,112线南公变变压器,东盛办事处变压器,海绵厂,福达公司,联通公司1,高碑店市路灯管理办公室（112线环岛路灯）变压器,高碑店市永杰汽车销售有限公司变压器,河北雷华伟业房地产开发有限公司,东盛艾各庄新1变压器,东盛闫王庄北变压器,高碑店市广跃城市建设有限公司,张八屯水洗,高碑店市大和环保锅炉有限公司变压器,河北合创建筑节能科技有限责任公司2#变压器,保定隆和房地产开发有限公司1#变压器,东盛冯漫撒西北变压器,0671179803-高碑店市广跃城市建设有限公司-专变-212318236-高碑店市广跃城市建设有限公司变压器,张八屯铁厂,东盛闫王庄变压器,0671906667-保定隆和房地产开发有限公司-专变-212389225-保定隆和房地产开发有限公司1#变压器,高碑店市公安消防大队,高碑店市单单幕墙有限责任公司变压器,高碑店市兴泰房地产开发有限公司1#变压器,圣方机械有限公司,东盛闫各庄东变压器,方家务小学,杨丙山,李怀友变压器,保定轩宇陆威汽车销售服务有限公司变压器,东盛冯漫撒西变压器【纯农排变】,东盛闫各庄西变压器,河北雷华物业房地产开发有限公司2变压器,保定隆和房地产开发有限公司2#变压器,保定隆和房地产开发有限公司3#变压器,张八屯水洗厂,保定隆和房地产开发有限公司4#变压器,立信塑业,龙腾旅游制品,光明铝合金,闫玉山,保定市隆和房地产开发有限公司,高碑店市路灯管理办公室（新华大街闫各庄西路灯）,东盛艾各庄东变压器,变压器,东盛艾各庄地变压器,0387438029-高碑店市鑫光明玻璃有限公司-专变-217785144-高碑店市鑫光明玻璃有限公司变压器,高碑店市利通设备租赁有限公司变压器,高碑店市建设局,异型刀具,立信塑业变压器,高碑店市路灯管理办公室（光华北大街路灯）变压器,东盛冯漫撒北变压器,高碑店市金宇电磁线有限公司变压器,高碑店市丰原汽车配件厂变压器,0671906667-保定隆和房地产开发有限公司-专变-212380302-保定隆和房地产开发有限公司2#变压器,码王叉车配件,赵成武,东盛艾各庄南变压器,河北雷华物业房地产开发有限公司1变压器","poweroffReason":"【停电原因】由于迎宾路１号工地二次电缆弓子线烧断导致１１０ＫＶ方家务变电站１０ＫＶ东盛５１４线路全线停电 【变更送电】因抢修进度加快原因，送电时间由６月２０日０２：００变更为６月１９日２２：４０ 【发布渠道】通过９５５９８发布","powerTime":"2018-06-19 22:12:39","powerComm":"已送电","subsNo":"","lineNo":"","tgNo":"","tgName":null,"infoStatus":"1","orgName":"国网高碑店市供电公司","typeName":null,"infoStatusName":null,"dateDay":null,"orgNos":null,"nowTime":null,"countyName":null,"streetName":null,"villageName":null,"roadName":null,"communityName":null,"tranName":null,"sdLineName":null,"cityCode":"1340612","cityName":"国网高碑店市供电公司","provinceCode":null,"stopTime":"2018-06-19 22:40:00","powerType":"全部","powerOffArea":"【全线路停电】停高碑店市万美商贸有限公司变压器,高碑店市世纪毅佳饲料有限责任公司变压器,梁洪,东盛艾各庄新变压器,河北合创建筑节能科技有限责任公司变压器,高碑店市恒安房地产开发有限公司,高碑店市路灯管理办公室变压器,高碑店市山农生物有限公司变压器,高碑店市单单幕墙有限责任公司,东盛艾各庄变压器,东盛闫各庄排灌变压器【纯农排变】,东盛张八屯西变压器,高碑店市兴泰房地产开发有限公司2#变压器,112线南公变变压器,东盛办事处变压器,海绵厂,福达公司,联通公司1,高碑店市路灯管理办公室（112线环岛路灯）变压器,高碑店市永杰汽车销售有限公司变压器,河北雷华伟业房地产开发有限公司,东盛艾各庄新1变压器,东盛闫王庄北变压器,高碑店市广跃城市建设有限公司,张八屯水洗,高碑店市大和环保锅炉有限公司变压器,河北合创建筑节能科技有限责任公司2#变压器,保定隆和房地产开发有限公司1#变压器,东盛冯漫撒西北变压器,0671179803-高碑店市广跃城市建设有限公司-专变-212318236-高碑店市广跃城市建设有限公司变压器,张八屯铁厂,东盛闫王庄变压器,0671906667-保定隆和房地产开发有限公司-专变-212389225-保定隆和房地产开发有限公司1#变压器,高碑店市公安消防大队,高碑店市单单幕墙有限责任公司变压器,高碑店市兴泰房地产开发有限公司1#变压器,圣方机械有限公司,东盛闫各庄东变压器,方家务小学,杨丙山,李怀友变压器,保定轩宇陆威汽车销售服务有限公司变压器,东盛冯漫撒西变压器【纯农排变】,东盛闫各庄西变压器,河北雷华物业房地产开发有限公司2变压器,保定隆和房地产开发有限公司2#变压器,保定隆和房地产开发有限公司3#变压器,张八屯水洗厂,保定隆和房地产开发有限公司4#变压器,立信塑业,龙腾旅游制品,光明铝合金,闫玉山,保定市隆和房地产开发有限公司,高碑店市路灯管理办公室（新华大街闫各庄西路灯）,东盛艾各庄东变压器,变压器,东盛艾各庄地变压器,0387438029-高碑店市鑫光明玻璃有限公司-专变-217785144-高碑店市鑫光明玻璃有限公司变压器,高碑店市利通设备租赁有限公司变压器,高碑店市建设局,异型刀具,立信塑业变压器,高碑店市路灯管理办公室（光华北大街路灯）变压器,东盛冯漫撒北变压器,高碑店市金宇电磁线有限公司变压器,高碑店市丰原汽车配件厂变压器,0671906667-保定隆和房地产开发有限公司-专变-212380302-保定隆和房地产开发有限公司2#变压器,码王叉车配件,赵成武,东盛艾各庄南变压器,河北雷华物业房地产开发有限公司1变压器","powerOffReason":"【停电原因】由于迎宾路１号工地二次电缆弓子线烧断导致１１０ＫＶ方家务变电站１０ＫＶ东盛５１４线路全线停电 【变更送电】因抢修进度加快原因，送电时间由６月２０日０２：００变更为６月１９日２２：４０ 【发布渠道】通过９５５９８发布","powerOffId":"2018061913000478"},{"poweroffId":2018061913000422,"sgpoweroffId":null,"subsName":"","lineName":"10KV松马517","pubTranName":"松林店村东1528,","scope":"【影响街道/乡镇】松林店镇 【高危重要客户】无 【影响客户】松林店","startTime":"2018-06-19 17:53:35","stopDate":"2018-06-19 19:30:00","orgNo":"1340626","typeCode":"电网故障停限电","poweroffArea":"【单台区停电】停松林店村东1528","poweroffReason":"【停电原因】由于低压空开烧毁导致３５ＫＶ松林店变电站１０ＫＶ松马５１７线路松林店村东１５２８公变台区停电 【变更送电】因抢修进度加快原因，送电时间由２３：３０变更为１９：３０ 【发布渠道】通过９５５９８发布","powerTime":"2018-06-19 19:03:58","powerComm":"已送电","subsNo":"","lineNo":"","tgNo":"","tgName":null,"infoStatus":"1","orgName":"国网涿州市供电公司","typeName":null,"infoStatusName":null,"dateDay":null,"orgNos":null,"nowTime":null,"countyName":null,"streetName":null,"villageName":null,"roadName":null,"communityName":null,"tranName":null,"sdLineName":null,"cityCode":"1340626","cityName":"国网涿州市供电公司","provinceCode":null,"stopTime":"2018-06-19 19:30:00","powerType":"全部","powerOffArea":"【单台区停电】停松林店村东1528","powerOffReason":"【停电原因】由于低压空开烧毁导致３５ＫＶ松林店变电站１０ＫＶ松马５１７线路松林店村东１５２８公变台区停电 【变更送电】因抢修进度加快原因，送电时间由２３：３０变更为１９：３０ 【发布渠道】通过９５５９８发布","powerOffId":"2018061913000422"},{"poweroffId":2018061913000407,"sgpoweroffId":null,"subsName":"","lineName":"大湾线511","pubTranName":"0626769507-涞源县小豆玉畜禽饲养有限公司-专变-139254732-涞源县小豆玉畜禽饲养有限公司变压器,中交第一公路工程局有限公司荣乌高速公路LJSG-21项目经理部变压器,0469545526-亚家庄机井-专变-46836037-亚家庄机井,0469544927-河北钢铁集团涞源锌钼矿业有限公司-专变-47888761-金帝萜选,0469545076-窟窿沟矿业-专变-46836033-窟窿沟矿业,涞源县窟窿沟矿业有限责任公司变压器,0469545207-涞源县和顺源铁选厂三分厂-专变-55834018-变压器,0469545799-河北钢铁集团涞源锌钼矿业有限公司-专变-61362842-50,马圈站511大湾变压器,0469545207-涞源县和顺源铁选厂三分厂-专变-48208705-和顺源三厂,朱家庄机井,马圈站511朱家庄变压器,0622804097-中交第一公路工程局有限公司荣乌高速公路LJSG-21项目经理部-专变-131317668-中交第一公路工程局有限公司荣乌高速公路LJSG-21项目经理部变压器3,马圈站511亚家庄变压器,0469545018-涞源县和顺源铁选厂三分厂-专变-46836056-和顺源三厂,0611708382-涞源县小豆玉畜禽饲养有限公司-专变-127784486-涞源县小豆玉畜禽饲养有限公司变压器,0562776014-刘海林矿山-专变-118504387-变压器,0622804097-中交第一公路工程局有限公司荣乌高速公路LJSG-21项目经理部-专变-131272885-中交第一公路工程局有限公司荣乌高速公路LJSG-21项目经理部变压器,0469545207-涞源县和顺源铁选厂三分厂-专变-46836057-和顺源三厂,0469544842-河北钢铁集团涞源锌钼矿业有限公司-专变-46836052-东风矿业公司,0622804097-中交第一公路工程局有限公司荣乌高速公路LJSG-21项目经理部-专变-131272983-中交第一公路工程局有限公司荣乌高速公路LJSG-21项目经理部变压器2,","scope":"【影响街道/乡镇】南屯镇【高危重要客户】无【影响客户】亚家庄村、朱家庄村","startTime":"2018-06-29 05:00:00","stopDate":"2018-06-29 07:35:00","orgNo":"1340615","typeCode":"计划停电","poweroffArea":"【全线路停电】停0469545076-窟窿沟矿业-专变-46836033-窟窿沟矿业,0622804097-中交第一公路工程局有限公司荣乌高速公路LJSG-21项目经理部-专变-131272983-中交第一公路工程局有限公司荣乌高速公路LJSG-21项目经理部变压器2,0469544842-河北钢铁集团涞源锌钼矿业有限公司-专变-46836052-东风矿业公司,中交第一公路工程局有限公司荣乌高速公路LJSG-21项目经理部变压器,0469544927-河北钢铁集团涞源锌钼矿业有限公司-专变-47888761-金帝萜选,0469545018-涞源县和顺源铁选厂三分厂-专变-46836056-和顺源三厂,0469545207-涞源县和顺源铁选厂三分厂-专变-46836057-和顺源三厂,马圈站511亚家庄变压器,0626769507-涞源县小豆玉畜禽饲养有限公司-专变-139254732-涞源县小豆玉畜禽饲养有限公司变压器,朱家庄机井,涞源县窟窿沟矿业有限责任公司变压器,0469545207-涞源县和顺源铁选厂三分厂-专变-55834018-变压器,0611708382-涞源县小豆玉畜禽饲养有限公司-专变-127784486-涞源县小豆玉畜禽饲养有限公司变压器,0469545526-亚家庄机井-专变-46836037-亚家庄机井,0622804097-中交第一公路工程局有限公司荣乌高速公路LJSG-21项目经理部-专变-131272885-中交第一公路工程局有限公司荣乌高速公路LJSG-21项目经理部变压器,0562776014-刘海林矿山-专变-118504387-变压器,马圈站511朱家庄变压器,马圈站511大湾变压器,0469545207-涞源县和顺源铁选厂三分厂-专变-48208705-和顺源三厂,0469545799-河北钢铁集团涞源锌钼矿业有限公司-专变-61362842-50,0622804097-中交第一公路工程局有限公司荣乌高速公路LJSG-21项目经理部-专变-131317668-中交第一公路工程局有限公司荣乌高速公路LJSG-21项目经理部变压器3,中交第一公路工程局有限公司荣乌高速公路LJSG-21项目经理部变压器1","poweroffReason":"【停电原因】由于新增配变分支接引导致３５ＫＶ马圈变电站大湾线５１１线路全线停电【变更送电】因工作量大,送电时间由０７：００变更为０７：３５【发布渠道】涞源电视台（２０１８年６月１９日至２０１８年６月２８日）屏幕上方滚动","powerTime":"2018-06-29 07:05:13","powerComm":"已送电","subsNo":"","lineNo":"","tgNo":"","tgName":null,"infoStatus":"1","orgName":"国网涞源县供电公司","typeName":null,"infoStatusName":null,"dateDay":null,"orgNos":null,"nowTime":null,"countyName":null,"streetName":null,"villageName":null,"roadName":null,"communityName":null,"tranName":null,"sdLineName":null,"cityCode":"1340615","cityName":"国网涞源县供电公司","provinceCode":null,"stopTime":"2018-06-29 07:35:00","powerType":"全部","powerOffArea":"【全线路停电】停0469545076-窟窿沟矿业-专变-46836033-窟窿沟矿业,0622804097-中交第一公路工程局有限公司荣乌高速公路LJSG-21项目经理部-专变-131272983-中交第一公路工程局有限公司荣乌高速公路LJSG-21项目经理部变压器2,0469544842-河北钢铁集团涞源锌钼矿业有限公司-专变-46836052-东风矿业公司,中交第一公路工程局有限公司荣乌高速公路LJSG-21项目经理部变压器,0469544927-河北钢铁集团涞源锌钼矿业有限公司-专变-47888761-金帝萜选,0469545018-涞源县和顺源铁选厂三分厂-专变-46836056-和顺源三厂,0469545207-涞源县和顺源铁选厂三分厂-专变-46836057-和顺源三厂,马圈站511亚家庄变压器,0626769507-涞源县小豆玉畜禽饲养有限公司-专变-139254732-涞源县小豆玉畜禽饲养有限公司变压器,朱家庄机井,涞源县窟窿沟矿业有限责任公司变压器,0469545207-涞源县和顺源铁选厂三分厂-专变-55834018-变压器,0611708382-涞源县小豆玉畜禽饲养有限公司-专变-127784486-涞源县小豆玉畜禽饲养有限公司变压器,0469545526-亚家庄机井-专变-46836037-亚家庄机井,0622804097-中交第一公路工程局有限公司荣乌高速公路LJSG-21项目经理部-专变-131272885-中交第一公路工程局有限公司荣乌高速公路LJSG-21项目经理部变压器,0562776014-刘海林矿山-专变-118504387-变压器,马圈站511朱家庄变压器,马圈站511大湾变压器,0469545207-涞源县和顺源铁选厂三分厂-专变-48208705-和顺源三厂,0469545799-河北钢铁集团涞源锌钼矿业有限公司-专变-61362842-50,0622804097-中交第一公路工程局有限公司荣乌高速公路LJSG-21项目经理部-专变-131317668-中交第一公路工程局有限公司荣乌高速公路LJSG-21项目经理部变压器3,中交第一公路工程局有限公司荣乌高速公路LJSG-21项目经理部变压器1","powerOffReason":"【停电原因】由于新增配变分支接引导致３５ＫＶ马圈变电站大湾线５１１线路全线停电【变更送电】因工作量大,送电时间由０７：００变更为０７：３５【发布渠道】涞源电视台（２０１８年６月１９日至２０１８年６月２８日）屏幕上方滚动","powerOffId":"2018061913000407"}],"pageModel":{"pageNow":970,"totalCount":10973,"totalPage":1098,"tableRows":0,"pageCount":10,"beginCount":9690},"isExperi":"1"}