{"message":"","today":"2020-06-15","seleList":[{"poweroffId":2020051113000069,"sgpoweroffId":null,"subsName":"","lineName":"10kV营头线511","pubTranName":"韦各庄内11,南营头内11,北营头内6,韦各庄小学2,史庄外3【纯农排变】,南营头内10,南营头内2,南营头内4,庞庄外1【纯农排变】,1南营头内14,南营头内12,1韦各庄内18,北营头内7,2南营头外13【纯农排变】,南营头小学,韦各庄内1,2韦各庄外6,南营头外3【纯农排变】,1韦各庄内15,2韦各庄外10,北营头小学,韦各庄内14,韦各庄内10,1韦各庄内4,2韦各庄外9,北营头内4,韦各庄内3,南营头内7,北营头内5,南营头内1,1韦各庄内16,2南营头外12【纯农排变】,北营头内3,南营头外1【纯农排变】,韦各庄内5,北营头内9,1南营头内15,南营头内8,韦各庄内8,1南营头内5,韦各庄内7,南营头内6,2韦各庄外16,北营头内2,2韦各庄外18,韦各庄内17,北营头内10变压器,北营头内8,南营头内13,韦各庄内13,2韦各庄外5,韦各庄内12,1韦各庄内19,2韦各庄外17,南营头外2【纯农排变】,韦各庄内2,南营头内3,韦各庄内6,草桥外18【纯农排变】,1北营头内11,韦各庄小学1,北营头内1,2韦各庄外14,韦各庄内9,","scope":"【影响街道/乡镇】东吕乡、大庄乡 【高危重要客户】无 【影响客户】南营头、北营头、韦各庄、史庄、庞庄","startTime":"2020-05-11 05:54:54","stopDate":"2020-05-11 11:00:00","orgNo":"1340618","typeCode":"电网故障停限电","poweroffArea":"【全线路停电】停35kV营头变电站10kV营头线511线路全线，北营头内5,清苑县伟峰金属精密铸造有限公司01,南营头内1,保定市锦源纺织厂,1韦各庄内16,2韦各庄外11,南营头刘老白,北营头鲁立新织布厂,南营头内7,清苑县伟峰金属精密铸造有限公司,南营头孟利恒织布厂,马明,南营头外20【纯农排变】,南营头外4【纯农排变】,2南营头外12【纯农排变】,北营头内3,南营头外10【纯农排变】,南营头李堂纺织2,韦各庄内8,北营头外1【纯农排变】,2韦各庄外7,韦各庄内13,2韦各庄外5,北营头外5【纯农排变】,2韦各庄外17,韦各庄村委会01,保定市金谷粮食收购有限公司,韦各庄内6,北营头鲁四顺砖厂,草桥外18【纯农排变】,1北营头内11,北营头内1,0387493046-小东村五号分箱-专变-45315410-小东村内5,北营头刘正月织布厂,韦各庄村委会,小东村杨贵田砖厂,1南营头内15,南营头内8,北营头外3【纯农排变】,北营头内2,2韦各庄外18,韦各庄内17,2韦各庄外15,北营头内10变压器,北营头内8,保定百奕隆纺织有限公司01,清苑县韦各庄福申肉牛养殖场,南营头内13,北营头个体,南营头外8【纯农排变】,北营头外6【纯农排变】,韦各庄内12,1韦各庄内19,清苑县韦各庄丁丁冲庄加工厂,南营头外18【纯农排变】,南营头外2【纯农排变】,韦各庄内2,南营头内3,韦各庄小学1,国网清苑县供电公司,2韦各庄外14,韦各庄内9,南营头外11【纯农排变】,南营头孟庆军纺织厂,韦各庄外2【纯农排变】,保定力拓纺织有限公司03,南营头内9,韦各庄马少华2,北营头李东发织布厂,保定恒美纺织有限公司,北营头锅厂,1南营头内5,韦各庄内7,南营头内6,2韦各庄外16,韦各庄内11,南营头外17【纯农排变】,南营头内11,北营头内6,韦各庄小学2,史庄外3【纯农排变】,南营头内10,南营头内2,南营头内4,1韦各庄内18,庞庄外1【纯农排变】,1南营头内14,0609119501-保定市德高纺织厂-专变-127559239-清苑县梦娇纺织厂,草桥外17【纯农排变】,韦各庄外1【纯农排变】,2韦各庄外4【纯农排变】,2韦各庄外19,韦各庄外3【纯农排变】,南营头内12,南营头外5【纯农排变】,南营头外9【纯农排变】,2韦各庄外12,北营头内7,南营头外19【纯农排变】,北营头外8【纯农排变】,南营头刘军良纺织,北营头外4【纯农排变】,保定建烨纺织有限公司01,南营头孟进分箱,北营头孙跃更纺织,韦各庄刘小军焊厂,胡寅喜,保定鑫硕纺织有限公司,南营头刘大庄养殖场,南营头胡怀松,2南营头外13【纯农排变】,南营头孟根山养殖场,南营头小学,清苑县东益达棉织厂,南营头外14【纯农排变】,韦各庄内1,清苑县友联针棉织有限公司01,保定市天蓝龙商贸有限公司,保定力拓纺织有限公司01,南营头吴仁子,营头供电所,保定建烨纺织有限公司,2韦各庄外6,南营头外15【纯农排变】,南营头外3【纯农排变】,0387490803-南营头果园-专变-45315105-南营头果园,1韦各庄内15,保定力拓纺织有限公司,南营头外6【纯农排变】,南营头外16【纯农排变】,南营头刘文柱纺织,2韦各庄外10,北营头李喜路,北营头小学,南营头李虎,韦各庄翟俊生2,保定建烨纺织有限公司02,保定奥斯莉纺织有限公司,保定市清苑县新兴棉织厂,韦各庄内14,北营头外2【纯农排变】,南营头李俊勇织布厂,吴更需,韦各庄内10,保定市杰超棉纺织厂,0387491688-南营头吴仁子-专变-228778587-南营头吴仁子2,1韦各庄内4,2韦各庄外13,保定市三帆纺织厂,2韦各庄外9,南营头吴仁子3,2韦各庄外8,南营头陈立更纺织,保定百奕隆纺织有限公司,北营头内4,北营头李跃进,南营头外7【纯农排变】,韦各庄内3,南营头梁山,小东村李庆林,河北省清苑县兴元焊接器材厂,北","poweroffReason":"【停电原因】由于丁丁配件加工厂电缆击穿导致３５ＫＶ营头变电站１０ＫＶ营头线５１１线路全线停电 【变更送电】因抢修进度加快原因，送电时间由１２：００变更为１１：００ 【发布渠道】通过９５５９８发布","powerTime":"2020-05-11 10:17:27","powerComm":"张倩通知已送电","subsNo":"","lineNo":"","tgNo":"","tgName":null,"infoStatus":"1","orgName":"国网清苑县供电公司","typeName":null,"infoStatusName":null,"dateDay":null,"orgNos":null,"nowTime":null,"countyName":null,"streetName":null,"villageName":null,"roadName":null,"communityName":null,"tranName":null,"sdLineName":null,"cityCode":"1340618","cityName":"国网清苑县供电公司","provinceCode":null,"stopTime":"2020-05-11 11:00:00","powerType":"全部","powerOffArea":"【全线路停电】停35kV营头变电站10kV营头线511线路全线，北营头内5,清苑县伟峰金属精密铸造有限公司01,南营头内1,保定市锦源纺织厂,1韦各庄内16,2韦各庄外11,南营头刘老白,北营头鲁立新织布厂,南营头内7,清苑县伟峰金属精密铸造有限公司,南营头孟利恒织布厂,马明,南营头外20【纯农排变】,南营头外4【纯农排变】,2南营头外12【纯农排变】,北营头内3,南营头外10【纯农排变】,南营头李堂纺织2,韦各庄内8,北营头外1【纯农排变】,2韦各庄外7,韦各庄内13,2韦各庄外5,北营头外5【纯农排变】,2韦各庄外17,韦各庄村委会01,保定市金谷粮食收购有限公司,韦各庄内6,北营头鲁四顺砖厂,草桥外18【纯农排变】,1北营头内11,北营头内1,0387493046-小东村五号分箱-专变-45315410-小东村内5,北营头刘正月织布厂,韦各庄村委会,小东村杨贵田砖厂,1南营头内15,南营头内8,北营头外3【纯农排变】,北营头内2,2韦各庄外18,韦各庄内17,2韦各庄外15,北营头内10变压器,北营头内8,保定百奕隆纺织有限公司01,清苑县韦各庄福申肉牛养殖场,南营头内13,北营头个体,南营头外8【纯农排变】,北营头外6【纯农排变】,韦各庄内12,1韦各庄内19,清苑县韦各庄丁丁冲庄加工厂,南营头外18【纯农排变】,南营头外2【纯农排变】,韦各庄内2,南营头内3,韦各庄小学1,国网清苑县供电公司,2韦各庄外14,韦各庄内9,南营头外11【纯农排变】,南营头孟庆军纺织厂,韦各庄外2【纯农排变】,保定力拓纺织有限公司03,南营头内9,韦各庄马少华2,北营头李东发织布厂,保定恒美纺织有限公司,北营头锅厂,1南营头内5,韦各庄内7,南营头内6,2韦各庄外16,韦各庄内11,南营头外17【纯农排变】,南营头内11,北营头内6,韦各庄小学2,史庄外3【纯农排变】,南营头内10,南营头内2,南营头内4,1韦各庄内18,庞庄外1【纯农排变】,1南营头内14,0609119501-保定市德高纺织厂-专变-127559239-清苑县梦娇纺织厂,草桥外17【纯农排变】,韦各庄外1【纯农排变】,2韦各庄外4【纯农排变】,2韦各庄外19,韦各庄外3【纯农排变】,南营头内12,南营头外5【纯农排变】,南营头外9【纯农排变】,2韦各庄外12,北营头内7,南营头外19【纯农排变】,北营头外8【纯农排变】,南营头刘军良纺织,北营头外4【纯农排变】,保定建烨纺织有限公司01,南营头孟进分箱,北营头孙跃更纺织,韦各庄刘小军焊厂,胡寅喜,保定鑫硕纺织有限公司,南营头刘大庄养殖场,南营头胡怀松,2南营头外13【纯农排变】,南营头孟根山养殖场,南营头小学,清苑县东益达棉织厂,南营头外14【纯农排变】,韦各庄内1,清苑县友联针棉织有限公司01,保定市天蓝龙商贸有限公司,保定力拓纺织有限公司01,南营头吴仁子,营头供电所,保定建烨纺织有限公司,2韦各庄外6,南营头外15【纯农排变】,南营头外3【纯农排变】,0387490803-南营头果园-专变-45315105-南营头果园,1韦各庄内15,保定力拓纺织有限公司,南营头外6【纯农排变】,南营头外16【纯农排变】,南营头刘文柱纺织,2韦各庄外10,北营头李喜路,北营头小学,南营头李虎,韦各庄翟俊生2,保定建烨纺织有限公司02,保定奥斯莉纺织有限公司,保定市清苑县新兴棉织厂,韦各庄内14,北营头外2【纯农排变】,南营头李俊勇织布厂,吴更需,韦各庄内10,保定市杰超棉纺织厂,0387491688-南营头吴仁子-专变-228778587-南营头吴仁子2,1韦各庄内4,2韦各庄外13,保定市三帆纺织厂,2韦各庄外9,南营头吴仁子3,2韦各庄外8,南营头陈立更纺织,保定百奕隆纺织有限公司,北营头内4,北营头李跃进,南营头外7【纯农排变】,韦各庄内3,南营头梁山,小东村李庆林,河北省清苑县兴元焊接器材厂,北","powerOffReason":"【停电原因】由于丁丁配件加工厂电缆击穿导致３５ＫＶ营头变电站１０ＫＶ营头线５１１线路全线停电 【变更送电】因抢修进度加快原因，送电时间由１２：００变更为１１：００ 【发布渠道】通过９５５９８发布","powerOffId":"2020051113000069"},{"poweroffId":2020051113000066,"sgpoweroffId":null,"subsName":"","lineName":"10kV559东魏线","pubTranName":"东魏综合2台区,东魏综合1台区,东魏农排7台区【纯农排变】,南庄综合15台区,东魏小学变压器,东魏综合12台区,东魏农排12台区【纯农排变】,南庄农排3台区（宋岗）【纯农排变】,南庄综合7台区,东魏综合10台区,东魏农排1台区【纯农排变】,南庄农排5台区（宋岗）【纯农排变】,南庄综合10台区,东魏综合9台区,东魏农排3台区【纯农排变】,南庄综合6台区,南庄综合12台区,南庄综合8台区,东魏综合6台区,东魏综合13台区,南庄综合13台区,南庄农排7台区（宋岗）【纯农排变】,南庄农排6台区（宋岗）【纯农排变】,东魏综合3台区,东魏农排15台区【纯农排变】,南庄综合5台区,东魏综合5台区,南庄综合1台区,东魏综合4台区,东魏综合8台区,南庄综合4台区,南庄综合14台区,南庄综合11台区,东魏综合7台区,东魏农排13台区【纯农排变】,东魏综合11台区,南庄小学变压器,东魏农排2台区【纯农排变】,南庄综合3台区,南庄综合9台区,南庄综合2台区,","scope":"【影响街道/乡镇】南庄镇【高危重要客户】无【影响客户】南庄村、东魏村","startTime":"2020-05-11 05:54:37","stopDate":"2020-05-11 09:00:00","orgNo":"1340616","typeCode":"电网故障停限电","poweroffArea":"【全线路停电】停１１０ＫＶ南庄变电站１０ＫＶ东魏５５９线路全线，蠡县蠡南毛皮有限公司,东魏农排2台区【纯农排变】,南庄综合7台区,东魏小学变压器,南庄综合3台区,东魏农排11台区【纯农排变】,南庄综合10台区,南庄农排7台区（宋岗）【纯农排变】,东魏综合2台区,蠡县钰洁皮革皮毛汽车用品有限公司,蠡县海兴皮革制品厂,东魏农排13台区【纯农排变】,吴振岭,蠡县蠡南振山化纤厂变压器,南庄村北,南庄综合9台区,蠡县蠡南振山化纤厂变压器1,东魏综合4台区,东魏农排10台区纯农排变】","poweroffReason":"【停电原因】由于电杆断裂导致１１０ＫＶ南庄变电站１０ＫＶ东魏５５９线路全线停电【变更送电】因抢修进度加快原因，送电时间由１１：００变更为０９：００【发布渠道】通过９５５９８发布","powerTime":"2020-05-11 08:48:10","powerComm":"已送电","subsNo":"","lineNo":"","tgNo":"","tgName":null,"infoStatus":"1","orgName":"国网蠡县供电公司","typeName":null,"infoStatusName":null,"dateDay":null,"orgNos":null,"nowTime":null,"countyName":null,"streetName":null,"villageName":null,"roadName":null,"communityName":null,"tranName":null,"sdLineName":null,"cityCode":"1340616","cityName":"国网蠡县供电公司","provinceCode":null,"stopTime":"2020-05-11 09:00:00","powerType":"全部","powerOffArea":"【全线路停电】停１１０ＫＶ南庄变电站１０ＫＶ东魏５５９线路全线，蠡县蠡南毛皮有限公司,东魏农排2台区【纯农排变】,南庄综合7台区,东魏小学变压器,南庄综合3台区,东魏农排11台区【纯农排变】,南庄综合10台区,南庄农排7台区（宋岗）【纯农排变】,东魏综合2台区,蠡县钰洁皮革皮毛汽车用品有限公司,蠡县海兴皮革制品厂,东魏农排13台区【纯农排变】,吴振岭,蠡县蠡南振山化纤厂变压器,南庄村北,南庄综合9台区,蠡县蠡南振山化纤厂变压器1,东魏综合4台区,东魏农排10台区纯农排变】","powerOffReason":"【停电原因】由于电杆断裂导致１１０ＫＶ南庄变电站１０ＫＶ东魏５５９线路全线停电【变更送电】因抢修进度加快原因，送电时间由１１：００变更为０９：００【发布渠道】通过９５５９８发布","powerOffId":"2020051113000066"},{"poweroffId":2020051113000054,"sgpoweroffId":null,"subsName":"","lineName":"10kV582拆解厂线","pubTranName":"0667410756-定州市耐特尔装饰材料有限公司-专变-208429847-定州市朝鹏塑料制品厂变压器,河滩西北一号,定州市周村乡南辛兴村村民委员会变压器,定州市科瑞塑料制品有限公司变压器,0647129052-定州市越弘塑胶制品有限公司-专变-171544168-定州市越弘塑胶制品有限公司变压器,定州市万华塑料加工厂变压器,定州市正誉塑胶制品厂变压器,定州市鸿达塑料制品厂变压器,0639156736-定州市利泰塑胶制品厂-专变-148554782-定州市利泰塑胶制品变压器,河北宏丹再生资源利用有限公司变压器,定州市锐新塑胶有限公司变压器,南辛兴河滩,定州市华耀塑胶制品有限公司变压器,0642997573-河北禄鼎顺塑料制品有限公司-专变-161875345-河北禄鼎顺塑料制品有限公司变压器,定州市凯瑞塑胶制品有限公司变压器,定州市祥云塑胶制品有限公司变压器,定州市宇洋塑料制品有限公司变压器,河滩七号,定州市佳豪橡胶制品有限公司变压器,0677786421-定州市佳旺塑胶制品有限公司-专变-217787141-定州市佳旺塑胶制品有限公司变压器,定州市广源塑料加工厂变压器,定州市二伟塑料制品有限公司变压器,定州市晓鹏塑料制品有限公司变压器,南辛兴万通砂场,定州市华瑞达塑胶,定州市弘康塑胶加工厂变压器,定州市兴创塑胶制品有限公司变压器,定州市轩博塑料制品有限公司变压器,河滩东北三号,河滩西北二号,0684679585-定州市博奥塑料制品有限公司-专变-223614452-定州市博奥塑料制品有限公司变压器,定州市瑞达塑料加工厂,0639103686-定州市驰瑞塑胶制品有限公司-专变-148556808-定州市驰瑞塑胶制品有限公司变压器,定州市鑫德塑料加工厂变压器,南辛兴公用农业2台区变压器【纯农排变】,定州市盛康塑胶制品有限公司变压器,定州市亚星塑料制品有限公司变压器,定州市卫龙塑料加工厂变压器,定州市金源塑料加工厂变压器,0639091989-定州市海军塑胶制品有限公司-专变-148556474-定州市海军塑胶制品有限公司变压器,0649471517-定州市嘉鹏塑料制品有限公司-专变-174209199-定州市嘉鹏塑料制品有限公司变压器,定州市建起水泥砖厂,定州市民源塑胶加工厂变压器,定州市兴跃塑胶加工厂变压器,定州市跃宗塑料制品厂变压器,河北宝森新材料有限公司变压器,0672367731-定州市合旺体育用品有限公司-专变-214318290-定州市合旺体育用品有限公司变压器,定州市玉明塑料制品有限公司变压器,定州市义森塑胶加工厂变压器,河滩东北四号,定州市新臣塑料加工厂变压器,定州市瑞通塑料制品有限公司变压器,0639096405-定州市瑞宇塑料制品有限公司-专变-148556224-定州市瑞宇塑料制品有限公司变压器,定州市金岭塑料制品厂变压器,定州市永恒塑胶加工厂变压器,0646887629-定州市博奥塑料制品有限公司-专变-171534126-定州市博奥塑料制品有限公司变压器,定州市润浩塑料制品有限公司变压器,河滩五号,定州市宇通塑胶加工厂变压器,定州市傲康塑胶制品有限公司变压器,","scope":"【影响街道/乡镇】周村乡【高危重要客户】无浩塑料厂、嘉鹏塑料厂、晓鹏塑料厂、瑞星源塑料厂、玉明塑料厂、祥云塑胶厂、轩博塑料厂、合旺体育用品厂、二伟塑料厂、瑞达塑料厂、卫龙塑料厂、锐新塑胶厂、河北宏丹再生资源利用厂、盛康塑胶厂、宇洋塑料厂、瑞通塑料厂、凯瑞塑胶厂、兴创塑胶厂、旭昌塑料厂、河北宝森新材料厂、正誉塑胶厂、永恒塑胶厂、鸿发达塑料厂、弘康塑胶厂、华瑞达塑胶厂、万华塑料厂、新臣塑料厂、鑫德塑料厂、宇通塑胶厂、金源塑料厂、义森塑胶厂、广源塑料厂、金岭塑料厂","startTime":"2020-05-11 05:22:46","stopDate":"2020-05-11 06:30:00","orgNo":"1340610","typeCode":"电网故障停限电","poweroffArea":"【全线路停电】停３５ＫＶ周村变电站１０ＫＶ５８２拆解厂线路全线，定州市锐新塑胶有限公司变压器,定州市祥云塑胶制品有限公司变压器,定州市瑞达塑料加工厂,定州市兴跃塑胶加工厂变压器,定州市广源塑料加工厂变压器,河滩东北三号,0639091989-定州市海军塑胶制品有限公司-专变-148556474-定州市海军塑胶制品有限公司变压器,定州市华耀塑胶制品有限公司变压器,河滩西北二号,定州市傲康塑胶制品有限公司变压器,南辛兴万通砂场,定州市新臣塑料加工厂变压器,河滩西北一号,0672367731-定州市合旺体育用品有限公司-专变-214318290-定州市合旺体育用品有限公司变压器,定州市鸿达塑料制品厂变压器,河北宝森新材料有限公司变压器,定州市轩博塑料制品有限公司变压器,河滩七号,0639103686-定州市驰瑞塑胶制品有限公司-专变-148556808-定州市驰瑞塑胶制品有限公司变压器,河北宏丹再生资源利用有限公司变压器,0647129052-定州市越弘塑胶制品有限公司-专变-171544168-定州市越弘塑胶制品有限公司变压器,0646887629-定州市博奥塑料制品有限公司-专变-171534126-定州市博奥塑料制品有限公司变压器,定州市弘康塑胶加工厂变压器,定州市科瑞塑料制品有限公司变压器,定州市亚星塑料制品有限公司变压器,0642997573-河北禄鼎顺塑料制品有限公司-专变-161875345-河北禄鼎顺塑料制品有限公司变压器,定州市宇洋塑料制品有限公司变压器,0684679585-定州市博奥塑料制品有限公司-专变-223614452-定州市博奥塑料制品有限公司变压器,0649471517-定州市嘉鹏塑料制品有限公司-专变-174209199-定州市嘉鹏塑料制品有限公司变压器,定州市义森塑胶加工厂变压器,定州市凯瑞塑胶制品有限公司变压器,定州市晓鹏塑料制品有限公司变压器,0639096405-定州市瑞宇塑料制品有限公司-专变-148556224-定州市瑞宇塑料制品有限公司变压器,定州市万华塑料加工厂变压器,0667410756-定州市耐特尔装饰材料有限公司-专变-208429847-定州市朝鹏塑料制品厂变压器,定州市华瑞达塑胶,南辛兴公用农业2台区变压器【纯农排变】,定州市民源塑胶加工厂变压器,定州市佳豪橡胶制品有限公司变压器,定州市永恒塑胶加工厂变压器,定州市润浩塑料制品有限公司变压器,定州市兴创塑胶制品有限公司变压器,定州市宇通塑胶加工厂变压器,定州市玉明塑料制品有限公司变压器,定州市正誉塑胶制品厂变压器,定州市二伟塑料制品有限公司变压器,定州市跃宗塑料制品厂变压器,定州市金源塑料加工厂变压器,定州市建起水泥砖厂,河滩东北四号,定州市盛康塑胶制品有限公司变压器,定州市周村乡南辛兴村村民委员会变压器,0639156736-定州市利泰塑胶制品厂-专变-148554782-定州市利泰塑胶制品变压器,河滩五号,定州市鑫德塑料加工厂变压器,南辛兴河滩,定州市金岭塑料制品厂变压器,定州市卫龙塑料加工厂变压器,定州市瑞通塑料制品有限公司变压器,0677786421-定州市佳旺塑胶制品有限公司-专变-217787141-定州市佳旺塑胶制品有限公司变压器","poweroffReason":"【停电原因】由于旭昌塑料高压计量烧毁导致３５ＫＶ周村变电站１０ＫＶ５８２拆解厂线路全线停电 【变更送电】因抢修进度加快原因，送电时间由１２：００变更为０６：３０ 【发布渠道】９５５９８","powerTime":"2020-05-11 06:01:08","powerComm":"已送电","subsNo":"","lineNo":"","tgNo":"","tgName":null,"infoStatus":"1","orgName":"国网定州市供电公司","typeName":null,"infoStatusName":null,"dateDay":null,"orgNos":null,"nowTime":null,"countyName":null,"streetName":null,"villageName":null,"roadName":null,"communityName":null,"tranName":null,"sdLineName":null,"cityCode":"1340610","cityName":"国网定州市供电公司","provinceCode":null,"stopTime":"2020-05-11 06:30:00","powerType":"全部","powerOffArea":"【全线路停电】停３５ＫＶ周村变电站１０ＫＶ５８２拆解厂线路全线，定州市锐新塑胶有限公司变压器,定州市祥云塑胶制品有限公司变压器,定州市瑞达塑料加工厂,定州市兴跃塑胶加工厂变压器,定州市广源塑料加工厂变压器,河滩东北三号,0639091989-定州市海军塑胶制品有限公司-专变-148556474-定州市海军塑胶制品有限公司变压器,定州市华耀塑胶制品有限公司变压器,河滩西北二号,定州市傲康塑胶制品有限公司变压器,南辛兴万通砂场,定州市新臣塑料加工厂变压器,河滩西北一号,0672367731-定州市合旺体育用品有限公司-专变-214318290-定州市合旺体育用品有限公司变压器,定州市鸿达塑料制品厂变压器,河北宝森新材料有限公司变压器,定州市轩博塑料制品有限公司变压器,河滩七号,0639103686-定州市驰瑞塑胶制品有限公司-专变-148556808-定州市驰瑞塑胶制品有限公司变压器,河北宏丹再生资源利用有限公司变压器,0647129052-定州市越弘塑胶制品有限公司-专变-171544168-定州市越弘塑胶制品有限公司变压器,0646887629-定州市博奥塑料制品有限公司-专变-171534126-定州市博奥塑料制品有限公司变压器,定州市弘康塑胶加工厂变压器,定州市科瑞塑料制品有限公司变压器,定州市亚星塑料制品有限公司变压器,0642997573-河北禄鼎顺塑料制品有限公司-专变-161875345-河北禄鼎顺塑料制品有限公司变压器,定州市宇洋塑料制品有限公司变压器,0684679585-定州市博奥塑料制品有限公司-专变-223614452-定州市博奥塑料制品有限公司变压器,0649471517-定州市嘉鹏塑料制品有限公司-专变-174209199-定州市嘉鹏塑料制品有限公司变压器,定州市义森塑胶加工厂变压器,定州市凯瑞塑胶制品有限公司变压器,定州市晓鹏塑料制品有限公司变压器,0639096405-定州市瑞宇塑料制品有限公司-专变-148556224-定州市瑞宇塑料制品有限公司变压器,定州市万华塑料加工厂变压器,0667410756-定州市耐特尔装饰材料有限公司-专变-208429847-定州市朝鹏塑料制品厂变压器,定州市华瑞达塑胶,南辛兴公用农业2台区变压器【纯农排变】,定州市民源塑胶加工厂变压器,定州市佳豪橡胶制品有限公司变压器,定州市永恒塑胶加工厂变压器,定州市润浩塑料制品有限公司变压器,定州市兴创塑胶制品有限公司变压器,定州市宇通塑胶加工厂变压器,定州市玉明塑料制品有限公司变压器,定州市正誉塑胶制品厂变压器,定州市二伟塑料制品有限公司变压器,定州市跃宗塑料制品厂变压器,定州市金源塑料加工厂变压器,定州市建起水泥砖厂,河滩东北四号,定州市盛康塑胶制品有限公司变压器,定州市周村乡南辛兴村村民委员会变压器,0639156736-定州市利泰塑胶制品厂-专变-148554782-定州市利泰塑胶制品变压器,河滩五号,定州市鑫德塑料加工厂变压器,南辛兴河滩,定州市金岭塑料制品厂变压器,定州市卫龙塑料加工厂变压器,定州市瑞通塑料制品有限公司变压器,0677786421-定州市佳旺塑胶制品有限公司-专变-217787141-定州市佳旺塑胶制品有限公司变压器","powerOffReason":"【停电原因】由于旭昌塑料高压计量烧毁导致３５ＫＶ周村变电站１０ＫＶ５８２拆解厂线路全线停电 【变更送电】因抢修进度加快原因，送电时间由１２：００变更为０６：３０ 【发布渠道】９５５９８","powerOffId":"2020051113000054"},{"poweroffId":2020051113000008,"sgpoweroffId":null,"subsName":"","lineName":"10kV572工业线","pubTranName":"定州市森康进出口贸易有限公司变压器,0608633655-定州市森康进出口贸易有限公司-专变-127492768-定州市森康进出口贸易有限公司变压器,0608633655-定州市森康进出口贸易有限公司-专变-127492784-定州市森康进出口贸易有限公司变压器,河北百川达体育用品有限公司,河北百川达体育用品有限公司变压器,河北百川体育用品有限公司变压器,0608633655-定州市森康进出口贸易有限公司-专变-127492776-定州市森康进出口贸易有限公司变压器,0608633655-定州市森康进出口贸易有限公司-专变-156521079-定州市森康进出口贸易有限公司变压器,","scope":"【影响街道/乡镇】明月店镇【影响客户】百川达体育用品有限公司、森康厂","startTime":"2020-05-11 00:54:20","stopDate":"2020-05-11 02:00:00","orgNo":"1340610","typeCode":"电网故障停限电","poweroffArea":"【全线路停电】停１１０ＫＶ明月店变电站１０ＫＶ５７２工业线路全线，0608633655-定州市森康进出口贸易有限公司-专变-127492776-定州市森康进出口贸易有限公司变压器,0608633655-定州市森康进出口贸易有限公司-专变-156521079-定州市森康进出口贸易有限公司变压器,0608633655-定州市森康进出口贸易有限公司-专变-127492768-定州市森康进出口贸易有限公司变压器,0608633655-定州市森康进出口贸易有限公司-专变-127492784-定州市森康进出口贸易有限公司变压器,定州市森康进出口贸易有限公司变压器,河北百川达体育用品有限公司,河北百川达体育用品有限公司变压器,河北百川体育用品有限公司变压器","poweroffReason":"【停电原因】由于厂内断路器烧毁导致１１０ＫＶ明月店变电站１０ＫＶ５７２工业线路全线停电 【变更送电】因抢修进度加快原因，送电时间由１２：００变更为０２：００ 【发布渠道】９５５９８","powerTime":"2020-05-11 01:28:42","powerComm":"已送电","subsNo":"","lineNo":"","tgNo":"","tgName":null,"infoStatus":"1","orgName":"国网定州市供电公司","typeName":null,"infoStatusName":null,"dateDay":null,"orgNos":null,"nowTime":null,"countyName":null,"streetName":null,"villageName":null,"roadName":null,"communityName":null,"tranName":null,"sdLineName":null,"cityCode":"1340610","cityName":"国网定州市供电公司","provinceCode":null,"stopTime":"2020-05-11 02:00:00","powerType":"全部","powerOffArea":"【全线路停电】停１１０ＫＶ明月店变电站１０ＫＶ５７２工业线路全线，0608633655-定州市森康进出口贸易有限公司-专变-127492776-定州市森康进出口贸易有限公司变压器,0608633655-定州市森康进出口贸易有限公司-专变-156521079-定州市森康进出口贸易有限公司变压器,0608633655-定州市森康进出口贸易有限公司-专变-127492768-定州市森康进出口贸易有限公司变压器,0608633655-定州市森康进出口贸易有限公司-专变-127492784-定州市森康进出口贸易有限公司变压器,定州市森康进出口贸易有限公司变压器,河北百川达体育用品有限公司,河北百川达体育用品有限公司变压器,河北百川体育用品有限公司变压器","powerOffReason":"【停电原因】由于厂内断路器烧毁导致１１０ＫＶ明月店变电站１０ＫＶ５７２工业线路全线停电 【变更送电】因抢修进度加快原因，送电时间由１２：００变更为０２：００ 【发布渠道】９５５９８","powerOffId":"2020051113000008"},{"poweroffId":2020051021000003,"sgpoweroffId":null,"subsName":"","lineName":"10kV联盟路站520线路","pubTranName":"10kVB817.B818箱式变电站B817配电变压器,","scope":"【影响街道/乡镇】南市区、兴华路 【高危重要客户】无 【影响客户】总督署、恒祥房地产","startTime":"2020-05-10 08:00:00","stopDate":"2020-05-10 12:00:00","orgNo":"13406","typeCode":"电网故障停限电","poweroffArea":"【单台区停电】停10kVB817.B818箱式变电站B817配电变压器","poweroffReason":"【停电原因】由于低压刀闸烧导致１０ＫＶ联盟变电站５２０线路Ｂ８１７公变台区停电【变更送电】无【发布渠道】通过９５５９８发布","powerTime":"2020-05-10 11:34:16","powerComm":"已送电","subsNo":"","lineNo":"","tgNo":"","tgName":null,"infoStatus":"1","orgName":"保定供电公司","typeName":null,"infoStatusName":null,"dateDay":null,"orgNos":null,"nowTime":null,"countyName":null,"streetName":null,"villageName":null,"roadName":null,"communityName":null,"tranName":null,"sdLineName":null,"cityCode":"13406","cityName":"保定供电公司","provinceCode":null,"stopTime":"2020-05-10 12:00:00","powerType":"全部","powerOffArea":"【单台区停电】停10kVB817.B818箱式变电站B817配电变压器","powerOffReason":"【停电原因】由于低压刀闸烧导致１０ＫＶ联盟变电站５２０线路Ｂ８１７公变台区停电【变更送电】无【发布渠道】通过９５５９８发布","powerOffId":"2020051021000003"},{"poweroffId":2020051013000448,"sgpoweroffId":null,"subsName":"","lineName":"10kV北平西路514","pubTranName":"满城镇家属楼1号,","scope":"【影响街道/乡镇】满城镇 【影响客户】满城镇家属楼附近","startTime":"2020-05-10 22:41:14","stopDate":"2020-05-11 05:00:00","orgNo":"1340617","typeCode":"电网故障停限电","poweroffArea":"【单台区停电】停１１０ＫＶ杨佐变电站１０ＫＶ北平西路５１４线路满城镇家属楼１号公变台区,满城镇家属楼1号","poweroffReason":"【停电原因】由于低压电缆分接箱烧毁导致１１０ＫＶ杨佐变电站１０ＫＶ北平西路５１４线路满城镇家属楼１号公变台区停电 【变更送电】无 【发布渠道】通过９５５９８发布","powerTime":"2020-05-11 04:57:28","powerComm":"已送电","subsNo":"","lineNo":"","tgNo":"","tgName":null,"infoStatus":"1","orgName":"国网满城县供电公司","typeName":null,"infoStatusName":null,"dateDay":null,"orgNos":null,"nowTime":null,"countyName":null,"streetName":null,"villageName":null,"roadName":null,"communityName":null,"tranName":null,"sdLineName":null,"cityCode":"1340617","cityName":"国网满城县供电公司","provinceCode":null,"stopTime":"2020-05-11 05:00:00","powerType":"全部","powerOffArea":"【单台区停电】停１１０ＫＶ杨佐变电站１０ＫＶ北平西路５１４线路满城镇家属楼１号公变台区,满城镇家属楼1号","powerOffReason":"【停电原因】由于低压电缆分接箱烧毁导致１１０ＫＶ杨佐变电站１０ＫＶ北平西路５１４线路满城镇家属楼１号公变台区停电 【变更送电】无 【发布渠道】通过９５５９８发布","powerOffId":"2020051013000448"},{"poweroffId":2020051013000444,"sgpoweroffId":null,"subsName":"","lineName":"10kV北平西路514","pubTranName":"清华房地产新增4号,","scope":"【影响街道/乡镇】满城镇 【影响客户】在水一方小区","startTime":"2020-05-10 22:31:59","stopDate":"2020-05-11 05:00:00","orgNo":"1340617","typeCode":"电网故障停限电","poweroffArea":"【单台区停电】停１１０ＫＶ杨佐变电站１０ＫＶ北平西路５１４线路清华房地产新增４号公变台区,清华房地产新增4号","poweroffReason":"【停电原因】由于低压电缆分接箱烧毁导致１１０ＫＶ杨佐变电站１０ＫＶ北平西路５１４线路清华房地产新增４号公变台区停电 【变更送电】无 【发布渠道】通过９５５９８发布","powerTime":"2020-05-11 04:57:52","powerComm":"已送电","subsNo":"","lineNo":"","tgNo":"","tgName":null,"infoStatus":"1","orgName":"国网满城县供电公司","typeName":null,"infoStatusName":null,"dateDay":null,"orgNos":null,"nowTime":null,"countyName":null,"streetName":null,"villageName":null,"roadName":null,"communityName":null,"tranName":null,"sdLineName":null,"cityCode":"1340617","cityName":"国网满城县供电公司","provinceCode":null,"stopTime":"2020-05-11 05:00:00","powerType":"全部","powerOffArea":"【单台区停电】停１１０ＫＶ杨佐变电站１０ＫＶ北平西路５１４线路清华房地产新增４号公变台区,清华房地产新增4号","powerOffReason":"【停电原因】由于低压电缆分接箱烧毁导致１１０ＫＶ杨佐变电站１０ＫＶ北平西路５１４线路清华房地产新增４号公变台区停电 【变更送电】无 【发布渠道】通过９５５９８发布","powerOffId":"2020051013000444"},{"poweroffId":2020051013000376,"sgpoweroffId":null,"subsName":"","lineName":"10kV570四鲍墟线","pubTranName":"北保去综合1台区,东鲍墟综合7台区,南鲍墟综合7台区,北鲍墟综合4台区,北鲍墟综合6台区,南鲍墟综合5台区,南鲍墟综合8台区,北鲍墟综合10台区【冬季供暖设施】,东鲍墟综合5台区,东保去综合2台区,北鲍墟综合7台区,南保去综合3台区,东保去综合4台区,西鲍墟综合7台区,北鲍墟综合8台区,南鲍墟综合9台区,北鲍墟综合5台区,南保去综合1台区,西鲍墟综合6台区,西鲍墟综合8台区,北鲍墟综合9台区,南鲍墟综合4台区,北保去综合2台区,客户投资_北保去综合3台区,南鲍墟综合10台区,西保去综合2台区,西保去综合5台区,南鲍墟综合6台区,西鲍墟综合9台区【冬季供暖设施】,东鲍墟综合6台区,西保去综合1台区,南鲍墟农排8台区,东保去综合3台区,西保去综合4台区,西保去综合3台区,南保去综合2台区,东保去综合1台区,","scope":"【影响街道/乡镇】鲍墟乡【高危重要客户】无【影响客户】东鲍墟村、西鲍墟村、南鲍墟村、北鲍墟村","startTime":"2020-05-10 19:15:29","stopDate":"2020-05-10 22:00:00","orgNo":"1340616","typeCode":"电网故障停限电","poweroffArea":"【全线路停电】停１１０ＫＶ南庄变电站１０ＫＶ四鲍墟５７０线路全线，进托,东鲍墟综合7台区,南鲍墟综合7台区,东保去综合4台区,西鲍墟综合7台区,北鲍墟综合8台区,南保去综合1台区,西鲍墟综合6台区,西鲍墟综合8台区,北鲍墟综合9台区,北鲍墟综合10台区【冬季供暖设施】,东保去综合3台区,西保去综合1台区,瑞兴宏景变压器500,南保去综合2台区,西保去综合2台区,西保去综合5台区,南鲍墟综合6台区,西鲍墟综合9台区【冬季供暖设施】,北鲍墟综合4台区,蠡县亿帮洁日化有限公司,北鲍墟综合6台区,南鲍墟综合5台区,南鲍墟综合8台区,东鲍墟综合5台区,东保去综合2台区,客户投资_北保去综合3台区,南鲍墟农排8台区,北鲍墟综合5台区,保去社办厂,北鲍墟综合7台区,保定江雄商品混凝土有限公司变压器,南保去综合3台区,南鲍墟综合9台区,东保去综合1台区,南保红亮,保去中学变压器,南鲍墟综合10台区,瑞兴宏景变压器315,种子站,东鲍墟综合6台区,文瑞,南鲍墟综合4台区,北保去综合2台区,西保去综合4台区,西保去综合3台区,北保去综合1台区","poweroffReason":"【停电原因】由于站内开关掉闸导致１１０ＫＶ南庄变电站１０ＫＶ四鲍墟５７０线路全线停电【变更送电】无【发布渠道】通过９５５９８发布","powerTime":"2020-05-10 21:11:39","powerComm":"已送电","subsNo":"","lineNo":"","tgNo":"","tgName":null,"infoStatus":"1","orgName":"国网蠡县供电公司","typeName":null,"infoStatusName":null,"dateDay":null,"orgNos":null,"nowTime":null,"countyName":null,"streetName":null,"villageName":null,"roadName":null,"communityName":null,"tranName":null,"sdLineName":null,"cityCode":"1340616","cityName":"国网蠡县供电公司","provinceCode":null,"stopTime":"2020-05-10 22:00:00","powerType":"全部","powerOffArea":"【全线路停电】停１１０ＫＶ南庄变电站１０ＫＶ四鲍墟５７０线路全线，进托,东鲍墟综合7台区,南鲍墟综合7台区,东保去综合4台区,西鲍墟综合7台区,北鲍墟综合8台区,南保去综合1台区,西鲍墟综合6台区,西鲍墟综合8台区,北鲍墟综合9台区,北鲍墟综合10台区【冬季供暖设施】,东保去综合3台区,西保去综合1台区,瑞兴宏景变压器500,南保去综合2台区,西保去综合2台区,西保去综合5台区,南鲍墟综合6台区,西鲍墟综合9台区【冬季供暖设施】,北鲍墟综合4台区,蠡县亿帮洁日化有限公司,北鲍墟综合6台区,南鲍墟综合5台区,南鲍墟综合8台区,东鲍墟综合5台区,东保去综合2台区,客户投资_北保去综合3台区,南鲍墟农排8台区,北鲍墟综合5台区,保去社办厂,北鲍墟综合7台区,保定江雄商品混凝土有限公司变压器,南保去综合3台区,南鲍墟综合9台区,东保去综合1台区,南保红亮,保去中学变压器,南鲍墟综合10台区,瑞兴宏景变压器315,种子站,东鲍墟综合6台区,文瑞,南鲍墟综合4台区,北保去综合2台区,西保去综合4台区,西保去综合3台区,北保去综合1台区","powerOffReason":"【停电原因】由于站内开关掉闸导致１１０ＫＶ南庄变电站１０ＫＶ四鲍墟５７０线路全线停电【变更送电】无【发布渠道】通过９５５９８发布","powerOffId":"2020051013000376"},{"poweroffId":2020051013000345,"sgpoweroffId":null,"subsName":"","lineName":"10kV北平西路514","pubTranName":"城内北关,城内大队建材北,城内村北平路100,0638673049-保定嘉尚房地产开发有限公司-专变-148535716-保定嘉尚房地产开发有限公司1号,城内村委会张喜井,0387453518-城内一二队监所南-专变-45285585-城内一二队监所南,0387453778-西街二号灯-专变-45285750-西街二号灯,旧地税局家属,保定清华房地产开发有限公司华旺商贸,满城地税局,0559662588-满城县图腾房地产开发有限公司-专变-127799169-满城县图腾房地产开发有限公司,满城县图腾房地产开发有限公司,满城镇家属楼1号,0686021027-保定市满城区人民政府信访局-专变-226226460-保定市满城区人民政府信访局,城内村北平路井,清华房地产新增4号,北关大队,满城小学,中山宾馆,城内北关食品总,国税2号,县工会2号,中山路灯,贰小路灯,剧场新增,0387452124-满城县国税局-专变-45285161-新国税局,0387454902-保定嘉瑞物业服务有限公司-专变-45285685-清华房地产4号,0430032725-满城县图腾房地产开发有限公司-专变-45476189-图腾房地产开发,0638673049-保定嘉尚房地产开发有限公司-专变-148957929-嘉尚2号,北关路口新增,0559662588-满城县图腾房地产开发有限公司-专变-118431922-满城县图腾房地产开发有限公司,国税一号,县长楼,北厂新增,燕赵街新增,北关大队新增,环网路灯2号,顺德小区,防疫站门口,城内镇中照明,城内新增400配电变压器,清华房地产2#,0387453358-保定嘉瑞物业服务有限公司-专变-45285617-清华房地产新增3号,0547461021-新宝祥房地产-专变-48012305-新宝祥房地产,城关土地所,0387454915-城内村浇地供水1号井-专变-45285687-清华在水一方井,宏保养殖场,北厂大队照明,大富豪路灯,","scope":"【影响街道/乡镇】满城镇 【影响客户】华旺超市、在水一方小区、国税局家属院、二小附近、西环老驴饭店附近、西山花园小区、北平西路、镇中附近、城内村、满城镇家属楼、北关、北厂、金百灵附近、顺德小区、剧场附近、中山宾馆、沃美附近、工会楼、新开路、燕赵街、顺德商贸街、旧地税、公安局家属楼、颐和胡同、新地税家属楼、永乐园、菜市场、种子站家属楼、茗庭花苑","startTime":"2020-05-10 18:03:15","stopDate":"2020-05-10 23:59:00","orgNo":"1340617","typeCode":"电网故障停限电","poweroffArea":"【全线路停电】停１１０ＫＶ杨佐变电站１０ＫＶ北平西路５１４线路全线,旧地税局家属,宏保养殖场,城内新增400配电变压器,城内北关食品总,清华房地产2#,0430032725-满城县图腾房地产开发有限公司-专变-45476189-图腾房地产开发,燕赵街新增,0638673049-保定嘉尚房地产开发有限公司-专变-148957929-嘉尚2号,北厂大队照明,县工会2号,贰小路灯,满城地税局,国税2号,城内镇中照明,中山宾馆,城内大队建材北,0387452124-满城县国税局-专变-45285161-新国税局,北关大队,县长楼,满城镇家属楼1号,0686021027-保定市满城区人民政府信访局-专变-226226460-保定市满城区人民政府信访局,城内村北平路井,0559662588-满城县图腾房地产开发有限公司-专变-118431922-满城县图腾房地产开发有限公司,0387453358-保定嘉瑞物业服务有限公司-专变-45285617-清华房地产新增3号,清华房地产新增4号,保定清华房地产开发有限公司华旺商贸,城关土地所,北关大队新增,城内村北平路100,0559662588-满城县图腾房地产开发有限公司-专变-127799169-满城县图腾房地产开发有限公司,顺德小区,0387453778-西街二号灯-专变-45285750-西街二号灯,满城小学,北厂新增,剧场新增,防疫站门口,0638673049-保定嘉尚房地产开发有限公司-专变-148535716-保定嘉尚房地产开发有限公司1号,北关路口新增,中山路灯","poweroffReason":"【停电原因】由于Ｂ相接地导致１１０ＫＶ杨佐变电站１０ＫＶ北平西路５１４线路全线停电 【变更送电】无 【发布渠道】通过９５５９８发布","powerTime":"2020-05-10 23:03:39","powerComm":"已送电","subsNo":"","lineNo":"","tgNo":"","tgName":null,"infoStatus":"1","orgName":"国网满城县供电公司","typeName":null,"infoStatusName":null,"dateDay":null,"orgNos":null,"nowTime":null,"countyName":null,"streetName":null,"villageName":null,"roadName":null,"communityName":null,"tranName":null,"sdLineName":null,"cityCode":"1340617","cityName":"国网满城县供电公司","provinceCode":null,"stopTime":"2020-05-10 23:59:00","powerType":"全部","powerOffArea":"【全线路停电】停１１０ＫＶ杨佐变电站１０ＫＶ北平西路５１４线路全线,旧地税局家属,宏保养殖场,城内新增400配电变压器,城内北关食品总,清华房地产2#,0430032725-满城县图腾房地产开发有限公司-专变-45476189-图腾房地产开发,燕赵街新增,0638673049-保定嘉尚房地产开发有限公司-专变-148957929-嘉尚2号,北厂大队照明,县工会2号,贰小路灯,满城地税局,国税2号,城内镇中照明,中山宾馆,城内大队建材北,0387452124-满城县国税局-专变-45285161-新国税局,北关大队,县长楼,满城镇家属楼1号,0686021027-保定市满城区人民政府信访局-专变-226226460-保定市满城区人民政府信访局,城内村北平路井,0559662588-满城县图腾房地产开发有限公司-专变-118431922-满城县图腾房地产开发有限公司,0387453358-保定嘉瑞物业服务有限公司-专变-45285617-清华房地产新增3号,清华房地产新增4号,保定清华房地产开发有限公司华旺商贸,城关土地所,北关大队新增,城内村北平路100,0559662588-满城县图腾房地产开发有限公司-专变-127799169-满城县图腾房地产开发有限公司,顺德小区,0387453778-西街二号灯-专变-45285750-西街二号灯,满城小学,北厂新增,剧场新增,防疫站门口,0638673049-保定嘉尚房地产开发有限公司-专变-148535716-保定嘉尚房地产开发有限公司1号,北关路口新增,中山路灯","powerOffReason":"【停电原因】由于Ｂ相接地导致１１０ＫＶ杨佐变电站１０ＫＶ北平西路５１４线路全线停电 【变更送电】无 【发布渠道】通过９５５９８发布","powerOffId":"2020051013000345"},{"poweroffId":2020051013000234,"sgpoweroffId":null,"subsName":"","lineName":"紫口Ⅰ线540","pubTranName":"上紫口6#（统管）,","scope":"【影响街道/乡镇】大册营镇 【影响客户】大册营、上子（紫）口","startTime":"2020-05-19 06:00:20","stopDate":"2020-05-19 18:00:00","orgNo":"1340617","typeCode":"计划停电","poweroffArea":"【全线路停电】停１１０ＫＶ夜借变电站紫口Ｉ线５４０线路全线,上紫口6#（统管）,大册营3号,大册营16号","poweroffReason":"【停电原因】由于线路检修导致１１０ＫＶ夜借变电站紫口Ｉ线５４０线路全线停电 【变更送电】无 【发布渠道】保定市满城县有线电视台（５月１０日１９：００－２０：００至５月１８日１９：００－２０：００）屏幕上方滚动。","powerTime":"2020-05-19 17:45:31","powerComm":"已送电","subsNo":"","lineNo":"","tgNo":"","tgName":null,"infoStatus":"1","orgName":"国网满城县供电公司","typeName":null,"infoStatusName":null,"dateDay":null,"orgNos":null,"nowTime":null,"countyName":null,"streetName":null,"villageName":null,"roadName":null,"communityName":null,"tranName":null,"sdLineName":null,"cityCode":"1340617","cityName":"国网满城县供电公司","provinceCode":null,"stopTime":"2020-05-19 18:00:00","powerType":"全部","powerOffArea":"【全线路停电】停１１０ＫＶ夜借变电站紫口Ｉ线５４０线路全线,上紫口6#（统管）,大册营3号,大册营16号","powerOffReason":"【停电原因】由于线路检修导致１１０ＫＶ夜借变电站紫口Ｉ线５４０线路全线停电 【变更送电】无 【发布渠道】保定市满城县有线电视台（５月１０日１９：００－２０：００至５月１８日１９：００－２０：００）屏幕上方滚动。","powerOffId":"2020051013000234"}],"pageModel":{"pageNow":81,"totalCount":10973,"totalPage":1098,"tableRows":0,"pageCount":10,"beginCount":800},"isExperi":"1"}