{"message":"","today":"2020-06-15","seleList":[{"poweroffId":2018061713000372,"sgpoweroffId":null,"subsName":"","lineName":"白沙线514","pubTranName":"西白尧0312变压器,","scope":"【影响街道/乡镇】长古城乡【高危重要客户】无【影响客户】西白尧村","startTime":"2018-06-17 20:03:41","stopDate":"2018-06-17 23:30:00","orgNo":"1340622","typeCode":"电网故障停限电","poweroffArea":"【单台区停电】停西白尧0312变压器","poweroffReason":"【停电原因】由于变压器空开烧导致３５ＫＶ北罗变电站白沙线５１４线路西白尧０３１２公变台区停电【变更送电】无【发布渠道】通过９５５９８发布","powerTime":"2018-06-17 22:33:53","powerComm":"已送电","subsNo":"","lineNo":"","tgNo":"","tgName":null,"infoStatus":"1","orgName":"国网唐县供电公司","typeName":null,"infoStatusName":null,"dateDay":null,"orgNos":null,"nowTime":null,"countyName":null,"streetName":null,"villageName":null,"roadName":null,"communityName":null,"tranName":null,"sdLineName":null,"cityCode":"1340622","cityName":"国网唐县供电公司","provinceCode":null,"stopTime":"2018-06-17 23:30:00","powerType":"全部","powerOffArea":"【单台区停电】停西白尧0312变压器","powerOffReason":"【停电原因】由于变压器空开烧导致３５ＫＶ北罗变电站白沙线５１４线路西白尧０３１２公变台区停电【变更送电】无【发布渠道】通过９５５９８发布","powerOffId":"2018061713000372"},{"poweroffId":2018061713000341,"sgpoweroffId":null,"subsName":"","lineName":"备用线513","pubTranName":"10kV513北北里线北北里供54号【纯农排变】,10kV513北北里线北北里供64号,10kV513北北里线南北里8号,河北海意机械制造有限公司,10kV513北北里线北北里5号,10kV513北北里线北北里6号【纯农排变】,10kV513北北里线北北里2号【纯农排变】,徐水县科峰机械制造厂3号,10kV513北北里线南北里10号【纯农排变】,10kV513北北里线北北里供34号,10kV513北北里线南北里3号【纯农排变】,10kV513北北里线北北里供45号,10kV513北北里线北胡1号,10kV513北北里线南北里1号,10kV513北北里线北北里供80号【纯农排变】,10kV513北北里线南北里供44号,10kV513北北里线南北里供47号,10kV513北北里线郑庄1号【纯农排变】,10kV513北北里线北北里3号【纯农排变】,北胡渠西砖厂2号,北胡渠西砖厂1号,10kV513北北里线南北里供81号【纯农排变】,10kV513北北里线北北里8号【纯农排变】,10kV513北北里线北胡11号,10kV513北北里线北北里7号,徐水县科峰机械制造厂2号,10kV513北北里线南北里2号【纯农排变】,徐水县和顺建材有限公司,10kV513北北里线北北里10号,徐水县联创塑粉制造有限公司,10kV513北北里线北北里1号,10kV513北北里线北北里4号【纯农排变】,10kV513北北里线南北里4号【纯农排变】,10kV513北北里线南北里供87号,10kV513北北里线北胡供74【纯农排变】,徐水县金路精密构件制造有限公司,10kV513北北里线南北里供25号,10kV513北北里线南胡8号【纯农排变】,10kV513北北里线南胡13号,10kV513北北里线南北里6号,10kV513北北里线北北里9号【纯农排变】,","scope":"【影响街道/乡镇】史端乡 【高危重要客户】无 【影响客户】郑庄、北北里村、南北里村、北胡村","startTime":"2018-06-17 18:05:00","stopDate":"2018-06-17 19:30:00","orgNo":"1340605","typeCode":"电网故障停限电","poweroffArea":"【全线路停电】停10kV513北北里线郑庄1号【纯农排变】,10kV513北北里线北北里6号【纯农排变】,河北海意机械制造有限公司,徐水县金路精密构件制造有限公司,10kV513北北里线北北里供80号【纯农排变】,徐水县联创塑粉制造有限公司,10kV513北北里线北北里3号【纯农排变】,徐水县科峰机械制造厂2号,10kV513北北里线北北里供54号【纯农排变】,北胡渠西砖厂2号,北胡渠西砖厂1号,10kV513北北里线南北里供44号,10kV513北北里线南北里2号【纯农排变】,10kV513北北里线南北里供47号,10kV513北北里线北北里9号【纯农排变】,徐水县和顺建材有限公司,10kV513北北里线南北里6号,10kV513北北里线南北里供25号,10kV513北北里线南胡13号,10kV513北北里线南北里供87号,10kV513北北里线北北里4号【纯农排变】,10kV513北北里线北北里7号,10kV513北北里线南北里8号,10kV513北北里线北北里供45号,10kV513北北里线北北里2号【纯农排变】,10kV513北北里线北胡11号,10kV513北北里线北北里8号【纯农排变】,10kV513北北里线南北里10号【纯农排变】,10kV513北北里线南胡8号【纯农排变】,徐水县科峰机械制造厂3号,10kV513北北里线南北里3号【纯农排变】,10kV513北北里线北北里1号,10kV513北北里线北胡供74【纯农排变】,10kV513北北里线北北里供64号,10kV513北北里线北北里供34号,10kV513北北里线南北里1号,10kV513北北里线北北里10号,10kV513北北里线南北里4号【纯农排变】,10kV513北北里线南北里供81号【纯农排变】,10kV513北北里线北胡1号,10kV513北北里线北北里5号","poweroffReason":"【停电原因】由于Ｂ相接地导致３５ＫＶ史端变电站备用线５１３线路全线停电 【变更送电】因抢修进度加快原因，送电时间由２３：００变更为１９：３０ 【发布渠道】通过９５５９８发布","powerTime":"2018-06-17 19:09:22","powerComm":"已送电","subsNo":"","lineNo":"","tgNo":"","tgName":null,"infoStatus":"1","orgName":"国网徐水县供电公司","typeName":null,"infoStatusName":null,"dateDay":null,"orgNos":null,"nowTime":null,"countyName":null,"streetName":null,"villageName":null,"roadName":null,"communityName":null,"tranName":null,"sdLineName":null,"cityCode":"1340605","cityName":"国网徐水县供电公司","provinceCode":null,"stopTime":"2018-06-17 19:30:00","powerType":"全部","powerOffArea":"【全线路停电】停10kV513北北里线郑庄1号【纯农排变】,10kV513北北里线北北里6号【纯农排变】,河北海意机械制造有限公司,徐水县金路精密构件制造有限公司,10kV513北北里线北北里供80号【纯农排变】,徐水县联创塑粉制造有限公司,10kV513北北里线北北里3号【纯农排变】,徐水县科峰机械制造厂2号,10kV513北北里线北北里供54号【纯农排变】,北胡渠西砖厂2号,北胡渠西砖厂1号,10kV513北北里线南北里供44号,10kV513北北里线南北里2号【纯农排变】,10kV513北北里线南北里供47号,10kV513北北里线北北里9号【纯农排变】,徐水县和顺建材有限公司,10kV513北北里线南北里6号,10kV513北北里线南北里供25号,10kV513北北里线南胡13号,10kV513北北里线南北里供87号,10kV513北北里线北北里4号【纯农排变】,10kV513北北里线北北里7号,10kV513北北里线南北里8号,10kV513北北里线北北里供45号,10kV513北北里线北北里2号【纯农排变】,10kV513北北里线北胡11号,10kV513北北里线北北里8号【纯农排变】,10kV513北北里线南北里10号【纯农排变】,10kV513北北里线南胡8号【纯农排变】,徐水县科峰机械制造厂3号,10kV513北北里线南北里3号【纯农排变】,10kV513北北里线北北里1号,10kV513北北里线北胡供74【纯农排变】,10kV513北北里线北北里供64号,10kV513北北里线北北里供34号,10kV513北北里线南北里1号,10kV513北北里线北北里10号,10kV513北北里线南北里4号【纯农排变】,10kV513北北里线南北里供81号【纯农排变】,10kV513北北里线北胡1号,10kV513北北里线北北里5号","powerOffReason":"【停电原因】由于Ｂ相接地导致３５ＫＶ史端变电站备用线５１３线路全线停电 【变更送电】因抢修进度加快原因，送电时间由２３：００变更为１９：３０ 【发布渠道】通过９５５９８发布","powerOffId":"2018061713000341"},{"poweroffId":2018061713000329,"sgpoweroffId":null,"subsName":"","lineName":"东邵514","pubTranName":"东邵东村8#变压器,黄山村7#,东邵新村5#,南韩村1#配变【纯农排变】,大巨村10#,东韩村2#,大方村3#【纯农排变】,涞山村5#【纯农排变】,大巨村5#【纯农排变】,大方村4#【纯农排变】,东邵新6号,大巨19号变压器,黄山村9#,大方村5#【纯农排变】,东邵中村3#【纯农排变】,黄山村1#,大巨村7#【纯农排变】,大巨21号变压器【纯农排变】,黄山村10#,大方村16#,涞山村8#,大巨村6#【纯农排变】,东邵中村1#,大方村13#【纯农排变】,东邵东村1#【纯农排变】,贾庄村2号【纯农排变】,大方村9#,大巨20号变压器,大方村6#【纯农排变】,大方17号变压器,东邵中村7#,大巨村9#【纯农排变】,贾庄村7号,贾庄村1号【纯农排变】,大方村北12#,东邵东村7#变压器,东邵新7号,","scope":"【影响街道/乡镇】凌云册乡【高危重要客户】无【影响客户】涞山村、贾庄村、辛庄村、东东邵村、中东邵村、新东邵村、大巨村、大方村、黄山村、东韩村","startTime":"2018-06-17 17:03:24","stopDate":"2018-06-17 20:00:00","orgNo":"1340625","typeCode":"电网故障停限电","poweroffArea":"【全线路停电】停东邵东村8#变压器,大方村北12#,大方村13#【纯农排变】,大方村6#【纯农排变】,大方村16#,大方17号变压器,大方村3#【纯农排变】,大方村4#【纯农排变】,大方村5#【纯农排变】,大方村9#,大巨村10#,大巨村5#【纯农排变】,大巨19号变压器,大巨村6#【纯农排变】,大巨村7#【纯农排变】,大巨村9#【纯农排变】,东韩村2#,东邵东村1#【纯农排变】,东邵东村7#变压器,东邵新村5#,东邵新6号,东邵中村7#,东邵中村3#【纯农排变】,东邵中村1#,黄山村9#,黄山村7#,黄山村10#,黄山村1#,贾庄村1号【纯农排变】,贾庄村2号【纯农排变】,贾庄村7号,涞山村5#【纯农排变】,涞山村8#,大巨20号变压器,大巨21号变压器【纯农排变】,南韩村1#配变【纯农排变】,东邵新7号","poweroffReason":"【停电原因】由于百姓伐树砸断主线导致３５ＫＶ凌云册变电站东邵５１４线路全线停电【变更送电】因抢修进度加快，送电时间由２２：００变更为２０：００【发布渠道】通过９５５９８发布","powerTime":"2018-06-17 19:42:53","powerComm":"已送电","subsNo":"","lineNo":"","tgNo":"","tgName":null,"infoStatus":"1","orgName":"国网易县供电公司","typeName":null,"infoStatusName":null,"dateDay":null,"orgNos":null,"nowTime":null,"countyName":null,"streetName":null,"villageName":null,"roadName":null,"communityName":null,"tranName":null,"sdLineName":null,"cityCode":"1340625","cityName":"国网易县供电公司","provinceCode":null,"stopTime":"2018-06-17 20:00:00","powerType":"全部","powerOffArea":"【全线路停电】停东邵东村8#变压器,大方村北12#,大方村13#【纯农排变】,大方村6#【纯农排变】,大方村16#,大方17号变压器,大方村3#【纯农排变】,大方村4#【纯农排变】,大方村5#【纯农排变】,大方村9#,大巨村10#,大巨村5#【纯农排变】,大巨19号变压器,大巨村6#【纯农排变】,大巨村7#【纯农排变】,大巨村9#【纯农排变】,东韩村2#,东邵东村1#【纯农排变】,东邵东村7#变压器,东邵新村5#,东邵新6号,东邵中村7#,东邵中村3#【纯农排变】,东邵中村1#,黄山村9#,黄山村7#,黄山村10#,黄山村1#,贾庄村1号【纯农排变】,贾庄村2号【纯农排变】,贾庄村7号,涞山村5#【纯农排变】,涞山村8#,大巨20号变压器,大巨21号变压器【纯农排变】,南韩村1#配变【纯农排变】,东邵新7号","powerOffReason":"【停电原因】由于百姓伐树砸断主线导致３５ＫＶ凌云册变电站东邵５１４线路全线停电【变更送电】因抢修进度加快，送电时间由２２：００变更为２０：００【发布渠道】通过９５５９８发布","powerOffId":"2018061713000329"},{"poweroffId":2018061713000316,"sgpoweroffId":null,"subsName":"","lineName":"10KV下胡良528","pubTranName":"青岗C2850,青岗村,","scope":"【影响街道/乡镇】东仙坡镇 【高危重要客户】无 【影响客户】青岗村","startTime":"2018-06-19 07:00:00","stopDate":"2018-06-19 19:00:00","orgNo":"1340626","typeCode":"临时停电","poweroffArea":"【分支停电】停青岗村,青岗C2850","poweroffReason":"【停电原因】由于煤改电工程导致１１０ＫＶ下胡良变电站１０ＫＶ下胡良５２８线路青岗分支０１号杆以下线路停电 【变更送电】无 【发布渠道】通过９５５９８发布","powerTime":"2018-06-19 18:43:25","powerComm":"已送电","subsNo":"","lineNo":"","tgNo":"","tgName":null,"infoStatus":"1","orgName":"国网涿州市供电公司","typeName":null,"infoStatusName":null,"dateDay":null,"orgNos":null,"nowTime":null,"countyName":null,"streetName":null,"villageName":null,"roadName":null,"communityName":null,"tranName":null,"sdLineName":null,"cityCode":"1340626","cityName":"国网涿州市供电公司","provinceCode":null,"stopTime":"2018-06-19 19:00:00","powerType":"全部","powerOffArea":"【分支停电】停青岗村,青岗C2850","powerOffReason":"【停电原因】由于煤改电工程导致１１０ＫＶ下胡良变电站１０ＫＶ下胡良５２８线路青岗分支０１号杆以下线路停电 【变更送电】无 【发布渠道】通过９５５９８发布","powerOffId":"2018061713000316"},{"poweroffId":2018061713000313,"sgpoweroffId":null,"subsName":"","lineName":"迪城线577","pubTranName":"任庄4号,任庄11号【纯农排变】,大因10号,崔迪城7号【纯农排变】,于迪城17号【纯农排变】,李迪城10号【纯农排变】,小千秋4号,任庄5号【纯农排变】,肖迪城5号【纯农排变】,崔迪城3号【纯农排变】,肖迪城6号【纯农排变】,任庄16号【纯农排变】,李迪城11号【纯农排变】,崔迪城2号【纯农排变】,于迪城16号【纯农排变】,于迪城11号,崔迪城17号【纯农排变】,崔迪城14号【纯农排变】,李迪城5号【纯农排变】,于迪城4号【纯农排变】,于迪城12号【纯农排变】,大因31号,任庄7号【纯农排变】,大因7号【纯农排变】,大因26号【纯农排变】,崔迪城9号【纯农排变】,任庄3号【纯农排变】,于迪城10号【纯农排变】,保定蒙域王子羊绒纺织有限公司,大因16号【纯农排变】,李迪城1号【纯农排变】,大因11号【纯农排变】,大千秋5号,崔迪城5号【纯农排变】,肖迪城1号【纯农排变】,于迪城1号【纯农排变】,于迪城19号,李迪城12号【纯农排变】,任庄8号【纯农排变】,任庄1号【纯农排变】,崔迪城11号【纯农排变】,李迪城6号【纯农排变】,崔迪城15号【纯农排变】,0654783494-蒙域王子羊绒纺织股份有限公司-专变-183741219-蒙域王子羊绒纺织股份有限公司,李迪城14号,任庄13号【纯农排变】,大千秋9号【纯农排变】,迪城扬水机站2号,李迪城3号【纯农排变】,保定市徐水区大因镇任庄小学,于迪城5号【纯农排变】,李迪城（农开2）【纯农排变】,李迪城2号【纯农排变】,大因3号【纯农排变】,汉阳2号【纯农排变】,大千秋1号,大千秋14号【纯农排变】,大因25号【纯农排变】,于迪城18号【纯农排变】,崔迪城16号【纯农排变】,李迪城16号【纯农排变】,任庄12号【纯农排变】,汉阳5号,蒙域王子羊绒,于迪城2号【纯农排变】,迪城扬水机站1号,大千秋2号【纯农排变】,崔迪城12号【纯农排变】,李迪城7号【纯农排变】,大因扬水机站2号,大因12号【纯农排变】,大因29号【纯农排变】,任庄7号变压器【纯农排变】,崔迪城6号【纯农排变】,于迪城14号【纯农排变】,肖迪城2号【纯农排变】,大因9号【纯农排变】,大因18号,于迪城8号【纯农排变】,大因扬水机站3号,大千秋11号【纯农排变】,大因30号【纯农排变】,崔迪城13号【纯农排变】,李迪城9号【纯农排变】,大千秋13号,崔迪城8号【纯农排变】,任庄17号,徐水县宝坤建筑材料销售有限公司,大因扬水机站1号,于迪城6号【纯农排变】,任庄15号【纯农排变】,李迪城13号【纯农排变】,任庄2号【纯农排变】,崔迪城4号【纯农排变】,崔迪城10号【纯农排变】,于迪城7号【纯农排变】,大因34号,保定市徐水区大因镇李迪城小学,于迪城3号【纯农排变】,李迪城（农开1）【纯农排变】,大因27号【纯农排变】,0654423789-蒙域王子羊绒纺织股份有限公司-专变-183723479-蒙域王子羊绒纺织有限公司变压器,李迪城4号【纯农排变】,肖迪城3号【纯农排变】,李迪城17号【纯农排变】,大因供电所4号【纯农排变】,于迪城13号【纯农排变】,李迪城8号【纯农排变】,肖迪城4号【纯农排变】,肖迪城5号李迪","scope":"【影响街道/乡镇】大因镇 【高危重要客户】无 【影响客户】任庄、于迪城、崔迪城、李迪城、大因、肖迪城、大千秋","startTime":"2018-06-17 15:50:38","stopDate":"2018-06-17 18:40:00","orgNo":"1340605","typeCode":"电网故障停限电","poweroffArea":"【全线路停电】停任庄16号【纯农排变】,于迪城9号【纯农排变】,崔迪城9号【纯农排变】,李迪城15号【纯农排变】,崔迪城14号【纯农排变】,大因31号,于迪城4号【纯农排变】,保定蒙域王子羊绒纺织有限公司,崔迪城15号【纯农排变】,肖迪城3号【纯农排变】,李迪城（农开2）【纯农排变】,大千秋13号,李迪城8号【纯农排变】,李迪城2号【纯农排变】,崔迪城4号【纯农排变】,于迪城13号【纯农排变】,大因28号【纯农排变】,大因供电所4号【纯农排变】,于迪城7号【纯农排变】,李迪城（农开1）【纯农排变】,李迪城16号【纯农排变】,于迪城6号【纯农排变】,于迪城17号【纯农排变】,崔迪城10号【纯农排变】,大千秋2号【纯农排变】,于迪城10号【纯农排变】,李迪城11号【纯农排变】,任庄11号【纯农排变】,大因9号【纯农排变】,徐水县宝坤建筑材料销售有限公司,崔迪城13号【纯农排变】,崔迪城8号【纯农排变】,肖迪城5号李迪城分箱【纯农排变】,大因27号【纯农排变】,大因7号【纯农排变】,汉阳2号【纯农排变】,李迪城9号【纯农排变】,李迪城13号【纯农排变】,大千秋9号【纯农排变】,保定市徐水区大因镇李迪城小学,李迪城5号【纯农排变】,大因10号,李迪城4号【纯农排变】,任庄7号【纯农排变】,蒙域王子羊绒,任庄13号【纯农排变】,大因25号【纯农排变】,肖迪城6号【纯农排变】,李迪城12号【纯农排变】,汉阳5号,大因32号【纯农排变】,大因16号【纯农排变】,肖迪城4号【纯农排变】,保定市徐水区大因镇于迪城幼儿园,任庄4号,崔迪城3号【纯农排变】,于迪城8号【纯农排变】,肖迪城5号【纯农排变】,大因26号【纯农排变】,大因扬水机站2号,大因扬水机站1号,任庄1号【纯农排变】,于迪城16号【纯农排变】,迪城扬水机站1号,大因扬水机站3号,崔迪城7号【纯农排变】,迪城扬水机站2号,肖迪城1号【纯农排变】,大千秋1号,崔迪城1号【纯农排变】,李迪城1号【纯农排变】,大千秋11号【纯农排变】,于迪城3号【纯农排变】,任庄8号【纯农排变】,崔迪城16号【纯农排变】,任庄17号,于迪城11号,崔迪城2号【纯农排变】,大因3号【纯农排变】,于迪城14号【纯农排变】,于迪城12号【纯农排变】,0654423789-蒙域王子羊绒纺织股份有限公司-专变-183723479-蒙域王子羊绒纺织有限公司变压器,任庄7号变压器【纯农排变】,李迪城10号【纯农排变】,李迪城6号【纯农排变】,大千秋14号【纯农排变】,大因29号【纯农排变】,任庄5号【纯农排变】,大千秋5号,于迪城15号【纯农排变】,大因30号【纯农排变】,崔迪城17号【纯农排变】,李迪城7号【纯农排变】,肖迪城2号【纯农排变】,大因12号【纯农排变】,于迪城18号【纯农排变】,小千秋4号,0654783494-蒙域王子羊绒纺织股份有限公司-专变-183741219-蒙域王子羊绒纺织股份有限公司,任庄15号【纯农排变】,任庄12号【纯农排变】,保定市徐水区大因镇任庄小学,大因11号【纯农排变】,任庄3号【纯农排变】,李迪城17号【纯农排变】,于迪城19号,崔迪城6号【纯农排变】,于迪城2号【纯农排变】,肖迪城7号【纯农排变】,李迪城3号【纯农排变】,李迪城14号,大因34号,崔迪城12号【纯农排变】,任庄2号【纯农排变】,崔迪城11号【纯农排变】,于迪城5号【纯农排变】,崔迪城5号【纯农排变】,于迪城1号【纯农排变】,大因18号","poweroffReason":"【停电原因】由于Ｂ相接地导致１１０ＫＶ沙口变电站迪城线５７７线路全线停电 【变更送电】因抢修进度加快原因，送电时间由２２：００变更为１８：４０ 【发布渠道】通过９５５９８发布","powerTime":"2018-06-17 18:20:32","powerComm":"已送电","subsNo":"","lineNo":"","tgNo":"","tgName":null,"infoStatus":"1","orgName":"国网徐水县供电公司","typeName":null,"infoStatusName":null,"dateDay":null,"orgNos":null,"nowTime":null,"countyName":null,"streetName":null,"villageName":null,"roadName":null,"communityName":null,"tranName":null,"sdLineName":null,"cityCode":"1340605","cityName":"国网徐水县供电公司","provinceCode":null,"stopTime":"2018-06-17 18:40:00","powerType":"全部","powerOffArea":"【全线路停电】停任庄16号【纯农排变】,于迪城9号【纯农排变】,崔迪城9号【纯农排变】,李迪城15号【纯农排变】,崔迪城14号【纯农排变】,大因31号,于迪城4号【纯农排变】,保定蒙域王子羊绒纺织有限公司,崔迪城15号【纯农排变】,肖迪城3号【纯农排变】,李迪城（农开2）【纯农排变】,大千秋13号,李迪城8号【纯农排变】,李迪城2号【纯农排变】,崔迪城4号【纯农排变】,于迪城13号【纯农排变】,大因28号【纯农排变】,大因供电所4号【纯农排变】,于迪城7号【纯农排变】,李迪城（农开1）【纯农排变】,李迪城16号【纯农排变】,于迪城6号【纯农排变】,于迪城17号【纯农排变】,崔迪城10号【纯农排变】,大千秋2号【纯农排变】,于迪城10号【纯农排变】,李迪城11号【纯农排变】,任庄11号【纯农排变】,大因9号【纯农排变】,徐水县宝坤建筑材料销售有限公司,崔迪城13号【纯农排变】,崔迪城8号【纯农排变】,肖迪城5号李迪城分箱【纯农排变】,大因27号【纯农排变】,大因7号【纯农排变】,汉阳2号【纯农排变】,李迪城9号【纯农排变】,李迪城13号【纯农排变】,大千秋9号【纯农排变】,保定市徐水区大因镇李迪城小学,李迪城5号【纯农排变】,大因10号,李迪城4号【纯农排变】,任庄7号【纯农排变】,蒙域王子羊绒,任庄13号【纯农排变】,大因25号【纯农排变】,肖迪城6号【纯农排变】,李迪城12号【纯农排变】,汉阳5号,大因32号【纯农排变】,大因16号【纯农排变】,肖迪城4号【纯农排变】,保定市徐水区大因镇于迪城幼儿园,任庄4号,崔迪城3号【纯农排变】,于迪城8号【纯农排变】,肖迪城5号【纯农排变】,大因26号【纯农排变】,大因扬水机站2号,大因扬水机站1号,任庄1号【纯农排变】,于迪城16号【纯农排变】,迪城扬水机站1号,大因扬水机站3号,崔迪城7号【纯农排变】,迪城扬水机站2号,肖迪城1号【纯农排变】,大千秋1号,崔迪城1号【纯农排变】,李迪城1号【纯农排变】,大千秋11号【纯农排变】,于迪城3号【纯农排变】,任庄8号【纯农排变】,崔迪城16号【纯农排变】,任庄17号,于迪城11号,崔迪城2号【纯农排变】,大因3号【纯农排变】,于迪城14号【纯农排变】,于迪城12号【纯农排变】,0654423789-蒙域王子羊绒纺织股份有限公司-专变-183723479-蒙域王子羊绒纺织有限公司变压器,任庄7号变压器【纯农排变】,李迪城10号【纯农排变】,李迪城6号【纯农排变】,大千秋14号【纯农排变】,大因29号【纯农排变】,任庄5号【纯农排变】,大千秋5号,于迪城15号【纯农排变】,大因30号【纯农排变】,崔迪城17号【纯农排变】,李迪城7号【纯农排变】,肖迪城2号【纯农排变】,大因12号【纯农排变】,于迪城18号【纯农排变】,小千秋4号,0654783494-蒙域王子羊绒纺织股份有限公司-专变-183741219-蒙域王子羊绒纺织股份有限公司,任庄15号【纯农排变】,任庄12号【纯农排变】,保定市徐水区大因镇任庄小学,大因11号【纯农排变】,任庄3号【纯农排变】,李迪城17号【纯农排变】,于迪城19号,崔迪城6号【纯农排变】,于迪城2号【纯农排变】,肖迪城7号【纯农排变】,李迪城3号【纯农排变】,李迪城14号,大因34号,崔迪城12号【纯农排变】,任庄2号【纯农排变】,崔迪城11号【纯农排变】,于迪城5号【纯农排变】,崔迪城5号【纯农排变】,于迪城1号【纯农排变】,大因18号","powerOffReason":"【停电原因】由于Ｂ相接地导致１１０ＫＶ沙口变电站迪城线５７７线路全线停电 【变更送电】因抢修进度加快原因，送电时间由２２：００变更为１８：４０ 【发布渠道】通过９５５９８发布","powerOffId":"2018061713000313"},{"poweroffId":2018061713000310,"sgpoweroffId":null,"subsName":"","lineName":"10KV宋营544","pubTranName":"宋营村西0235变压器,","scope":"【影响街道/乡镇】百尺竿乡 【高危重要客户】无 【影响客户】宋营村","startTime":"2018-06-17 15:47:07","stopDate":"2018-06-17 17:00:00","orgNo":"1340626","typeCode":"电网故障停限电","poweroffArea":"【单台区停电】停宋营村西0235变压器","poweroffReason":"【停电原因】由于低压空开烧毁导致１１０ＫＶ宋营变电站１０ＫＶ宋营５４４线路宋营村西０２３５公变台区停电 【变更送电】因抢修进度加快原因，送电时间由２０：００变更为１７：００ 【发布渠道】通过９５５９８发布","powerTime":"2018-06-17 16:44:48","powerComm":"恢复送电","subsNo":"","lineNo":"","tgNo":"","tgName":null,"infoStatus":"1","orgName":"国网涿州市供电公司","typeName":null,"infoStatusName":null,"dateDay":null,"orgNos":null,"nowTime":null,"countyName":null,"streetName":null,"villageName":null,"roadName":null,"communityName":null,"tranName":null,"sdLineName":null,"cityCode":"1340626","cityName":"国网涿州市供电公司","provinceCode":null,"stopTime":"2018-06-17 17:00:00","powerType":"全部","powerOffArea":"【单台区停电】停宋营村西0235变压器","powerOffReason":"【停电原因】由于低压空开烧毁导致１１０ＫＶ宋营变电站１０ＫＶ宋营５４４线路宋营村西０２３５公变台区停电 【变更送电】因抢修进度加快原因，送电时间由２０：００变更为１７：００ 【发布渠道】通过９５５９８发布","powerOffId":"2018061713000310"},{"poweroffId":2018061713000274,"sgpoweroffId":null,"subsName":"","lineName":"申庄线513","pubTranName":"10Kv513申庄线申庄6号【纯农排变】,10Kv513申庄线申庄15号,10Kv513申庄线马庄7号,10Kv513申庄线马庄1号,10Kv513申庄线申庄17号,10Kv513申庄线申庄14号,10Kv513申庄线申庄13号,10Kv513申庄线申庄3号,10Kv513申庄线申庄20号,10Kv513申庄线申庄8号,10Kv513申庄线申庄10号,10Kv513申庄线侯家窑1号,10Kv513申庄线冯庄4号【纯农排变】,10Kv513申庄线高林村13号,10Kv513申庄线翟庄10号,10Kv513申庄线冯庄1号,10Kv513申庄线高林村10号变压器,10Kv513申庄线马庄2号,10Kv513申庄线申庄16号,10Kv513申庄线申庄2号,10Kv513申庄线高林村14号,10Kv513申庄线申庄19号,10Kv513申庄线郎五庄12号【纯农排变】,10Kv513申庄线冯庄2号,10Kv513申庄线马庄3号,10Kv513申庄线翟庄9号【纯农排变】,10Kv513申庄线翟庄18号,10Kv513申庄线侯家窑2号,10Kv513申庄线高林村15号变压器,10Kv513申庄线马庄10号【纯农排变】,10Kv513申庄线高林村12号,10Kv513申庄线翟庄13号【纯农排变】,10Kv513申庄线马庄4号,10Kv513申庄线冯庄3号,10Kv513申庄线申庄9号【纯农排变】,10Kv513申庄线马庄8号,高顺录养猪厂,10Kv513申庄线翟庄17号【纯农排变】,徐水县四通散热器制造有限公司,10Kv513申庄线马庄6号,10Kv513申庄线申庄5号,10Kv513申庄线申庄4号,10Kv513申庄线申庄7号,10Kv513申庄线郎五庄7号,10Kv513申庄线翟庄11号【纯农排变】,10Kv513申庄线申庄18号【纯农排变】,10Kv513申庄线申庄21号【纯农排变】,10Kv513申庄线马庄9号,10Kv513申庄线高林村16号,10Kv513申庄线侯家窑3号【纯农排变】,10Kv513申庄线申庄12号,10Kv513申庄线马庄5号,10Kv513申庄线申庄11号,10Kv513申庄线高林村17号【纯农排变】,高林村砖厂,高林村镇申庄小学,10Kv513申庄线申庄1号,","scope":"【影响街道/乡镇】高林村镇 【高危重要客户】无 【影响客户】冯庄、马庄、翟庄、高林村、侯家窑、申庄","startTime":"2018-06-17 14:05:14","stopDate":"2018-06-17 19:00:00","orgNo":"1340605","typeCode":"超电网供电能力停限电","poweroffArea":"【全线路停电】停10Kv513申庄线冯庄3号, 10Kv513申庄线冯庄2号, 10Kv513申庄线马庄7号, 10Kv513申庄线翟庄11号【纯农排变】,10Kv513申庄线高林村10号变压器, 10Kv513申庄线申庄8号, 10Kv513申庄线马庄2号,10Kv513申庄线高林村12号, 10Kv513申庄线侯家窑2号, 10Kv513申庄线翟庄13号【纯农排变】, 10Kv513申庄线马庄10号【纯农排变】, 10Kv513申庄线马庄4号,10Kv513申庄线高林村17号【纯农排变】,高林村镇申庄小学, 10Kv513申庄线侯家窑1号, 10Kv513申庄线申庄11号, 10Kv513申庄线申庄21号【纯农排变】, 10Kv513申庄线申庄16号, 10Kv513申庄线高林村16号, 10Kv513申庄线马庄1号,10Kv513申庄线翟庄9号【纯农排变】, 10Kv513申庄线申庄13号, 10Kv513申庄线申庄18号【纯农排变】, 10Kv513申庄线高林村15号变压器, 10Kv513申庄线申庄3号, 10Kv513申庄线申庄9号【纯农排变】, 10Kv513申庄线申庄4号, 10Kv513申庄线郎五庄12号【纯农排变】, 10Kv513申庄线高林村14号, 10Kv513申庄线侯家窑3号【纯农排变】, 10Kv513申庄线申庄15号, 10Kv513申庄线申庄10号, 10Kv513申庄线马庄9号, 10Kv513申庄线申庄20号, 10Kv513申庄线申庄12号,10Kv513申庄线高林村13号,徐水县四通散热器制造有限公司, 10Kv513申庄线马庄8号, 10Kv513申庄线翟庄10号, 10Kv513申庄线申庄5号, 10Kv513申庄线申庄14号,高顺录养猪厂, 10Kv513申庄线申庄2号,高林村砖厂, 10Kv513申庄线马庄5号, 10Kv513申庄线马庄6号, 10Kv513申庄线申庄19号, 10Kv513申庄线翟庄17号【纯农排变】, 10Kv513申庄线冯庄1号, 10Kv513申庄线翟庄18号, 10Kv513申庄线郎五庄7号, 10Kv513申庄线申庄6号【纯农排变】, 10Kv513申庄线申庄1号, 10Kv513申庄线申庄7号, 10Kv513申庄线冯庄4号【纯农排变】, 10Kv513申庄线马庄3号, 10Kv513申庄线申庄17号","poweroffReason":"【停电原因】由于郎五庄变电站主变超负荷导致３５ＫＶ郎五庄变电站申庄５１３线路全线停电 【变更送电】因主变恢复正常原因，送电时间由２２：００变更为１９：００ 【发布渠道】通过９５５９８发布","powerTime":"2018-06-17 18:37:20","powerComm":"已送电","subsNo":"","lineNo":"","tgNo":"","tgName":null,"infoStatus":"1","orgName":"国网徐水县供电公司","typeName":null,"infoStatusName":null,"dateDay":null,"orgNos":null,"nowTime":null,"countyName":null,"streetName":null,"villageName":null,"roadName":null,"communityName":null,"tranName":null,"sdLineName":null,"cityCode":"1340605","cityName":"国网徐水县供电公司","provinceCode":null,"stopTime":"2018-06-17 19:00:00","powerType":"全部","powerOffArea":"【全线路停电】停10Kv513申庄线冯庄3号, 10Kv513申庄线冯庄2号, 10Kv513申庄线马庄7号, 10Kv513申庄线翟庄11号【纯农排变】,10Kv513申庄线高林村10号变压器, 10Kv513申庄线申庄8号, 10Kv513申庄线马庄2号,10Kv513申庄线高林村12号, 10Kv513申庄线侯家窑2号, 10Kv513申庄线翟庄13号【纯农排变】, 10Kv513申庄线马庄10号【纯农排变】, 10Kv513申庄线马庄4号,10Kv513申庄线高林村17号【纯农排变】,高林村镇申庄小学, 10Kv513申庄线侯家窑1号, 10Kv513申庄线申庄11号, 10Kv513申庄线申庄21号【纯农排变】, 10Kv513申庄线申庄16号, 10Kv513申庄线高林村16号, 10Kv513申庄线马庄1号,10Kv513申庄线翟庄9号【纯农排变】, 10Kv513申庄线申庄13号, 10Kv513申庄线申庄18号【纯农排变】, 10Kv513申庄线高林村15号变压器, 10Kv513申庄线申庄3号, 10Kv513申庄线申庄9号【纯农排变】, 10Kv513申庄线申庄4号, 10Kv513申庄线郎五庄12号【纯农排变】, 10Kv513申庄线高林村14号, 10Kv513申庄线侯家窑3号【纯农排变】, 10Kv513申庄线申庄15号, 10Kv513申庄线申庄10号, 10Kv513申庄线马庄9号, 10Kv513申庄线申庄20号, 10Kv513申庄线申庄12号,10Kv513申庄线高林村13号,徐水县四通散热器制造有限公司, 10Kv513申庄线马庄8号, 10Kv513申庄线翟庄10号, 10Kv513申庄线申庄5号, 10Kv513申庄线申庄14号,高顺录养猪厂, 10Kv513申庄线申庄2号,高林村砖厂, 10Kv513申庄线马庄5号, 10Kv513申庄线马庄6号, 10Kv513申庄线申庄19号, 10Kv513申庄线翟庄17号【纯农排变】, 10Kv513申庄线冯庄1号, 10Kv513申庄线翟庄18号, 10Kv513申庄线郎五庄7号, 10Kv513申庄线申庄6号【纯农排变】, 10Kv513申庄线申庄1号, 10Kv513申庄线申庄7号, 10Kv513申庄线冯庄4号【纯农排变】, 10Kv513申庄线马庄3号, 10Kv513申庄线申庄17号","powerOffReason":"【停电原因】由于郎五庄变电站主变超负荷导致３５ＫＶ郎五庄变电站申庄５１３线路全线停电 【变更送电】因主变恢复正常原因，送电时间由２２：００变更为１９：００ 【发布渠道】通过９５５９８发布","powerOffId":"2018061713000274"},{"poweroffId":2018061713000233,"sgpoweroffId":null,"subsName":"","lineName":"西关线515","pubTranName":"0654413629-河北宏屹房地产开发有限公司定兴分公司-专变-183741370-河北宏屹房地产-1250,南肖庄光2,河北贯鸿房地产开发有限公司-1250A,康城3号地块1号变—630,0655986142-河北贯鸿房地产开发有限公司-专变-185565209-贯鸿房地产1号变-1000,康城3号地块-1000,厚德房地产-1250,河北定兴中学1250,北肖庄村光2,南关村光3,西关村光2,河北定兴中学-500,康城3号地块3号变—315,康城3号地块2号变-630,四街公用,河北贯鸿房地产开发有限公司-1250B,0655986142-河北贯鸿房地产开发有限公司-专变-185565217-贯鸿房地产2号变-1000,西关村光1,兴瑞房地产2号配变,河北宏屹房地产4-1000,和平路路灯-100,兴瑞房地产1号配变,园丁小区公用,北肖庄村光1,贯鸿2号变-1000,*康城建筑公司,企业局公用,康城3号地块-800,贯鸿房地产-1000,100,*园丁小区,康城3号地块1号箱变2—630,河北定兴中学-1000,南肖庄光1,河北宏屹房地产2号变-1250,定兴中学-500,定兴中学-1250,河北定兴中学500,北肖庄村光3,河北宏屹房地产3-1000,","scope":"【影响街道/乡镇】定兴镇 【高危重要客户】无 【影响客户】西关村、园丁小区、南肖庄、北肖庄、定兴中学、四街村、南关部分用户、企业局家属院、西苑小区、宏屹房地产、溪水湾小区、康城房地产、北京世代小区","startTime":"2018-06-17 10:22:17","stopDate":"2018-06-17 12:00:00","orgNo":"1340609","typeCode":"电网故障停限电","poweroffArea":"【全线路停电】停北肖庄村光3,兴瑞房地产2号配变,100,企业局公用,河北宏屹房地产2号变-1250,北肖庄村光1,康城3号地块2号变-630,*园丁小区,四街公用,南肖庄光2,康城3号地块-800,河北贯鸿房地产开发有限公司-1250A,贯鸿房地产-1000,兴瑞房地产1号配变,河北贯鸿房地产开发有限公司-1250B,0654413629-河北宏屹房地产开发有限公司定兴分公司-专变-183741370-河北宏屹房地产-1250,定兴中学-500,园丁小区公用,定兴中学-1250,河北宏屹房地产4-1000,河北定兴中学1250,西关村光1,北肖庄村光2,和平路路灯-100,河北定兴中学500,康城3号地块1号变—630,西关村光2,0655986142-河北贯鸿房地产开发有限公司-专变-185565209-贯鸿房地产1号变-1000,贯鸿2号变-1000,康城3号地块-1000,康城3号地块1号箱变2—630,厚德房地产-1250,河北定兴中学-1000,南关村光3,河北定兴中学-500,南肖庄光1,康城3号地块3号变—315,0655986142-河北贯鸿房地产开发有限公司-专变-185565217-贯鸿房地产2号变-1000,*康城建筑公司,河北宏屹房地产3-1000","poweroffReason":"【停电原因】由于速断跳闸导致３５ＫＶ城关变电站西关线５１５线路全线停电 【变更送电】因抢修进度加快原因，送电时间由１８：００变更为１２：００ 【发布渠道】通过９５５９８发布","powerTime":"2018-06-17 11:21:51","powerComm":"已送电","subsNo":"","lineNo":"","tgNo":"","tgName":null,"infoStatus":"1","orgName":"国网定兴县供电公司","typeName":null,"infoStatusName":null,"dateDay":null,"orgNos":null,"nowTime":null,"countyName":null,"streetName":null,"villageName":null,"roadName":null,"communityName":null,"tranName":null,"sdLineName":null,"cityCode":"1340609","cityName":"国网定兴县供电公司","provinceCode":null,"stopTime":"2018-06-17 12:00:00","powerType":"全部","powerOffArea":"【全线路停电】停北肖庄村光3,兴瑞房地产2号配变,100,企业局公用,河北宏屹房地产2号变-1250,北肖庄村光1,康城3号地块2号变-630,*园丁小区,四街公用,南肖庄光2,康城3号地块-800,河北贯鸿房地产开发有限公司-1250A,贯鸿房地产-1000,兴瑞房地产1号配变,河北贯鸿房地产开发有限公司-1250B,0654413629-河北宏屹房地产开发有限公司定兴分公司-专变-183741370-河北宏屹房地产-1250,定兴中学-500,园丁小区公用,定兴中学-1250,河北宏屹房地产4-1000,河北定兴中学1250,西关村光1,北肖庄村光2,和平路路灯-100,河北定兴中学500,康城3号地块1号变—630,西关村光2,0655986142-河北贯鸿房地产开发有限公司-专变-185565209-贯鸿房地产1号变-1000,贯鸿2号变-1000,康城3号地块-1000,康城3号地块1号箱变2—630,厚德房地产-1250,河北定兴中学-1000,南关村光3,河北定兴中学-500,南肖庄光1,康城3号地块3号变—315,0655986142-河北贯鸿房地产开发有限公司-专变-185565217-贯鸿房地产2号变-1000,*康城建筑公司,河北宏屹房地产3-1000","powerOffReason":"【停电原因】由于速断跳闸导致３５ＫＶ城关变电站西关线５１５线路全线停电 【变更送电】因抢修进度加快原因，送电时间由１８：００变更为１２：００ 【发布渠道】通过９５５９８发布","powerOffId":"2018061713000233"},{"poweroffId":2018061713000229,"sgpoweroffId":null,"subsName":"","lineName":"10kV七一路站533线路","pubTranName":"B442柱上变压器,","scope":"【影响街道/乡镇】五一九路 【高危重要客户】无 【影响客户】田野宿舍","startTime":"2018-06-17 10:15:00","stopDate":"2018-06-17 14:00:00","orgNo":"13406","typeCode":"电网故障停限电","poweroffArea":"【单台区停电】停B442柱上变压器","poweroffReason":"【停电原因】由于跌落保险中相烧导致１０ＫＶ七一路变电站５３３线路Ｂ４４２公变台区停电【变更送电】无【发布渠道】通过９５５９８发布","powerTime":"2018-06-17 11:25:56","powerComm":"已送电","subsNo":"","lineNo":"","tgNo":"","tgName":null,"infoStatus":"1","orgName":"保定供电公司","typeName":null,"infoStatusName":null,"dateDay":null,"orgNos":null,"nowTime":null,"countyName":null,"streetName":null,"villageName":null,"roadName":null,"communityName":null,"tranName":null,"sdLineName":null,"cityCode":"13406","cityName":"保定供电公司","provinceCode":null,"stopTime":"2018-06-17 14:00:00","powerType":"全部","powerOffArea":"【单台区停电】停B442柱上变压器","powerOffReason":"【停电原因】由于跌落保险中相烧导致１０ＫＶ七一路变电站５３３线路Ｂ４４２公变台区停电【变更送电】无【发布渠道】通过９５５９８发布","powerOffId":"2018061713000229"},{"poweroffId":2018061713000213,"sgpoweroffId":null,"subsName":"","lineName":"10KV城西农业519","pubTranName":"太平庄村内5375,太平庄西北【纯农排变】,","scope":"【影响街道/乡镇】东城坊镇 【高危重要客户】无 【影响客户】太平庄村","startTime":"2018-06-19 07:00:00","stopDate":"2018-06-19 19:00:00","orgNo":"1340626","typeCode":"临时停电","poweroffArea":"【分支停电】停太平庄村内5375,太平庄西北【纯农排变】","poweroffReason":"【停电原因】由于煤改电工程导致１１０ＫＶ涿县变电站１０ＫＶ城西农业５１９线路太平庄分支０８号杆以下线路停电 【变更送电】无 【发布渠道】通过９５５９８发布","powerTime":"2018-06-19 18:43:45","powerComm":"已送电","subsNo":"","lineNo":"","tgNo":"","tgName":null,"infoStatus":"1","orgName":"国网涿州市供电公司","typeName":null,"infoStatusName":null,"dateDay":null,"orgNos":null,"nowTime":null,"countyName":null,"streetName":null,"villageName":null,"roadName":null,"communityName":null,"tranName":null,"sdLineName":null,"cityCode":"1340626","cityName":"国网涿州市供电公司","provinceCode":null,"stopTime":"2018-06-19 19:00:00","powerType":"全部","powerOffArea":"【分支停电】停太平庄村内5375,太平庄西北【纯农排变】","powerOffReason":"【停电原因】由于煤改电工程导致１１０ＫＶ涿县变电站１０ＫＶ城西农业５１９线路太平庄分支０８号杆以下线路停电 【变更送电】无 【发布渠道】通过９５５９８发布","powerOffId":"2018061713000213"}],"pageModel":{"pageNow":977,"totalCount":10973,"totalPage":1098,"tableRows":0,"pageCount":10,"beginCount":9760},"isExperi":"1"}