{"message":"","today":"2020-06-15","seleList":[{"poweroffId":2018061713000210,"sgpoweroffId":null,"subsName":"","lineName":"阳光线521","pubTranName":"五处大修厂,高碑店市德安房地产开发有限公司,锅炉厂公变,诺林湾3期,高碑店明仁眼科医院,李小北,闫家务东变压器,富民路公变变压器,检察院公变1,天津市兴建房地产开发公司（金都3号）1#,环岛高杆灯,天津市兴建房地产开发公司（金都3号）7#,天津市兴建房地产开发公司（金都3号）4#,福利风机厂,高碑店市国家税务局,建安变压器,高碑店市路灯管理办公室（东环岛路灯）变压器,高碑店市鑫远房地产开发有限公司变压器,天津市兴建房地产开发公司（金都花园2号）变压器,人行,职中变压器,付庄面粉厂,高碑店市卫生和计划生育局,付庄基地,老地税公变,新华书店,天津市兴建房地产开发公司（金都3号）6#,高碑店市强林物业服务有限公司变压器,高碑店市路灯管理办公室（富民路路灯变压器,河北创世房地产开发有限公司变压器,天津市兴建房地产开发公司（金都3号）10#,天津市兴建房地产开发公司（金都3号）5#,环岛公变变压器,0562791183-保定津联物业服务有限公司-专变-118501320-天津市兴建房地产开发公司（金都3号）2#,张八屯信用社,0562791066-保定津联物业服务有限公司-专变-118501293-天津市兴建房地产开发公司（金都花园2号）变压器,高碑店市地方税务局,徐金峰变压器,付庄变压器,电力花园2号箱变间隔配电变压器,天奕商厦1#,农发行公变,检察院,0642710897-高碑店市兴泰房地产开发有限公司-专变-161577774-高碑店市兴泰房地产开发有限公司变压器,高碑店市兴泰房地产开发有限公司2,高碑店市人民防空办公室变压器,高碑店市路灯管理办公室变压器,中国石油保定119站,电力花园1号箱变间隔配电变压器,电力花园3号箱变间隔配电变压器,付庄北台变压器,河北创世房地产开发有限公司(安洁物业),闫家务南变压器,高碑店市人民法院变压器,付庄东变压器,邮政局,天奕商厦2号箱变,新世纪公变,锅炉辅机厂,高碑店市兴泰房地产开发有限公司1,向新焊接厂变压器,付庄面粉厂2,河北华达公路工程咨询监理有限公司变压器,天津市兴建房地产开发公司（金都3号）3#变压器,高建集团建装公司,高碑店市人民法院,","scope":"【影响街道/乡镇】迎宾东路、新昌大街、光华南大街、兴文街、文苑路、富民路、民欣胡同 【高危重要客户】三中、一中东校区、疾控中心 【影响客户】付庄村、闫家务村、电力花园小区、付庄小区、地税小区、新检察院小区、锅炉辅机平房、建安公寓、职中门脸、一小平房、农行家属楼、公园大道小区、金都小区、诺林湾三期、邮政小区、天平小区、新城国税所平房、职中家属楼、职中平房、盛景花园、阳光商厦、德安房地产、高碑店市一中、宜佳旺商场、河北向鑫机电设备有限公司、家兴商贸、兴泰房地产、双硕物业、实达物业、检察院、人民银行、李小北、锅炉辅机厂、中国邮政、付庄面粉厂、福利风机厂、五处大修厂、高建集团建装公司、付庄基地、河北鼎誉房地产、锦锈花园小区、河北创世房地产(安洁物业)、徐金峰、汇华物业、人民防空办公室、明仁眼科医院、中国石油保定１１９站、河北高碑店农村商业银行、图书大厦","startTime":"2018-06-17 09:58:00","stopDate":"2018-06-17 11:30:00","orgNo":"1340612","typeCode":"电网故障停限电","poweroffArea":"【全线路停电】停0562791183-保定津联物业服务有限公司-专变-118501320-天津市兴建房地产开发公司（金都3号）2#,职中变压器,高碑店市人民防空办公室变压器,天津市兴建房地产开发公司（金都3号）5#,高碑店市人民法院变压器,农发行公变,高碑店市兴泰房地产开发有限公司1,河北华达公路工程咨询监理有限公司变压器,河北创世房地产开发有限公司变压器,高碑店市强林物业服务有限公司变压器,高碑店市路灯管理办公室（东环岛路灯）变压器,高碑店市人民法院,高碑店市鑫远房地产开发有限公司变压器,闫家务东变压器,天津市兴建房地产开发公司（金都3号）6#,电力花园1号箱变间隔配电变压器,高碑店市路灯管理办公室变压器,建安变压器,高碑店市路灯管理办公室（富民路路灯变压器,锅炉厂公变,天津市兴建房地产开发公司（金都3号）7#,高碑店市国家税务局,环岛公变变压器,天津市兴建房地产开发公司（金都3号）10#,付庄基地,邮政局,高碑店市地方税务局,徐金峰变压器 ,人行,锅炉辅机厂,检察院,天津市兴建房地产开发公司（金都3号）3#变压器,福利风机厂,高碑店市兴泰房地产开发有限公司2,富民路公变变压器,检察院公变1,高碑店市德安房地产开发有限公司,张八屯信用社,河北创世房地产开发有限公司(安洁物业),天奕商厦2号箱变,诺林湾3期,高碑店明仁眼科医院,电力花园3号箱变间隔配电变压器,闫家务南变压器,0562791066-保定津联物业服务有限公司-专变-118501293-天津市兴建房地产开发公司（金都花园2号）变压器,环岛高杆灯,向新焊接厂变压器,天奕商厦1#,高建集团建装公司,0642710897-高碑店市兴泰房地产开发有限公司-专变-161577774-高碑店市兴泰房地产开发有限公司变压器,新华书店,天津市兴建房地产开发公司（金都花园2号）变压器,中国石油保定119站,付庄变压器,电力花园2号箱变间隔配电变压器,付庄面粉厂,高碑店市卫生和计划生育局,新世纪公变,李小北,付庄北台变压器,老地税公变,天津市兴建房地产开发公司（金都3号）1#,付庄东变压器,付庄面粉厂2,天津市兴建房地产开发公司（金都3号）4#,五处大修厂","poweroffReason":"【停电原因】由于０１号杆刀闸引线断导致１１０ＫＶ马庄变电站１０ＫＶ阳光５２１线路全线停电 【变更送电】因抢修进度加快原因，送电时间由１２：３０变更为１１：３０ 【发布渠道】通过９５５９８发布","powerTime":"2018-06-17 11:13:48","powerComm":"已送电","subsNo":"","lineNo":"","tgNo":"","tgName":null,"infoStatus":"1","orgName":"国网高碑店市供电公司","typeName":null,"infoStatusName":null,"dateDay":null,"orgNos":null,"nowTime":null,"countyName":null,"streetName":null,"villageName":null,"roadName":null,"communityName":null,"tranName":null,"sdLineName":null,"cityCode":"1340612","cityName":"国网高碑店市供电公司","provinceCode":null,"stopTime":"2018-06-17 11:30:00","powerType":"全部","powerOffArea":"【全线路停电】停0562791183-保定津联物业服务有限公司-专变-118501320-天津市兴建房地产开发公司（金都3号）2#,职中变压器,高碑店市人民防空办公室变压器,天津市兴建房地产开发公司（金都3号）5#,高碑店市人民法院变压器,农发行公变,高碑店市兴泰房地产开发有限公司1,河北华达公路工程咨询监理有限公司变压器,河北创世房地产开发有限公司变压器,高碑店市强林物业服务有限公司变压器,高碑店市路灯管理办公室（东环岛路灯）变压器,高碑店市人民法院,高碑店市鑫远房地产开发有限公司变压器,闫家务东变压器,天津市兴建房地产开发公司（金都3号）6#,电力花园1号箱变间隔配电变压器,高碑店市路灯管理办公室变压器,建安变压器,高碑店市路灯管理办公室（富民路路灯变压器,锅炉厂公变,天津市兴建房地产开发公司（金都3号）7#,高碑店市国家税务局,环岛公变变压器,天津市兴建房地产开发公司（金都3号）10#,付庄基地,邮政局,高碑店市地方税务局,徐金峰变压器 ,人行,锅炉辅机厂,检察院,天津市兴建房地产开发公司（金都3号）3#变压器,福利风机厂,高碑店市兴泰房地产开发有限公司2,富民路公变变压器,检察院公变1,高碑店市德安房地产开发有限公司,张八屯信用社,河北创世房地产开发有限公司(安洁物业),天奕商厦2号箱变,诺林湾3期,高碑店明仁眼科医院,电力花园3号箱变间隔配电变压器,闫家务南变压器,0562791066-保定津联物业服务有限公司-专变-118501293-天津市兴建房地产开发公司（金都花园2号）变压器,环岛高杆灯,向新焊接厂变压器,天奕商厦1#,高建集团建装公司,0642710897-高碑店市兴泰房地产开发有限公司-专变-161577774-高碑店市兴泰房地产开发有限公司变压器,新华书店,天津市兴建房地产开发公司（金都花园2号）变压器,中国石油保定119站,付庄变压器,电力花园2号箱变间隔配电变压器,付庄面粉厂,高碑店市卫生和计划生育局,新世纪公变,李小北,付庄北台变压器,老地税公变,天津市兴建房地产开发公司（金都3号）1#,付庄东变压器,付庄面粉厂2,天津市兴建房地产开发公司（金都3号）4#,五处大修厂","powerOffReason":"【停电原因】由于０１号杆刀闸引线断导致１１０ＫＶ马庄变电站１０ＫＶ阳光５２１线路全线停电 【变更送电】因抢修进度加快原因，送电时间由１２：３０变更为１１：３０ 【发布渠道】通过９５５９８发布","powerOffId":"2018061713000210"},{"poweroffId":2018061713000208,"sgpoweroffId":null,"subsName":"","lineName":"白象线523","pubTranName":"高碑店市新发地食品贸易有限公司变压器,0638317121-河北新发地农副产品有限公司-专变-148533727-河北新发地农副产品有限公司5#变压器,河北新发地农副产品有限公司4#变压器,河北新发地农副产品有限公司3#变压器,河北新发地农副产品有限公司7#变压器,河北新发地房地产开发有限公司变压器,保定市隆和房地产开发有限公司2#变压器,高碑店市新发地食品贸易有限公司1600变压器,河北新发地农副产品有限公司5#变压器,0688563747-河北新发地房地产开发有限公司-专变-228799790-河北新发地房地产开发有限公司4变压器,河北新发地农副产品有限公司6#变压器,河北新发地农副产品有限公司2#变压器,高碑店市路灯管理办公室（新昌南大街）,0688563747-河北新发地房地产开发有限公司-专变-228808000-河北新发地房地产开发有限公司3号变压器,河北新发地农副产品有限公司1#变压器,河北新发地农副产品有限公司计量点,保定市隆和房地产开发有限公司,保定隆和房地产开发有限公司变压器,0688563747-河北新发地房地产开发有限公司-专变-228808002-河北新发地房地产开发有限公司4号变压器,0688563747-河北新发地房地产开发有限公司-专变-228807998-河北新发地房地产开发有限公司1号变压器,河北新发地农副产品有限公司8#变压器,河北新发地农副产品有限公司2000KVA变压器,河北新发地农副产品有限公司变压器,河北新发地农副产品有限公司,","scope":"【影响街道/乡镇】新昌北大街 【高危重要客户】无 【影响客户】新发地农副产品批发市场","startTime":"2018-06-17 09:57:26","stopDate":"2018-06-17 11:30:00","orgNo":"1340612","typeCode":"电网故障停限电","poweroffArea":"【全线路停电】停保定市隆和房地产开发有限公司,河北新发地农副产品有限公司1#变压器,河北新发地房地产开发有限公司变压器,河北新发地农副产品有限公司7#变压器,河北新发地农副产品有限公司4#变压器,河北新发地农副产品有限公司2#变压器,河北新发地农副产品有限公司3#变压器,河北新发地农副产品有限公司5#变压器,0688563747-河北新发地房地产开发有限公司-专变-228799790-河北新发地房地产开发有限公司4变压器,河北新发地农副产品有限公司6#变压器,高碑店市新发地食品贸易有限公司变压器,0688563747-河北新发地房地产开发有限公司-专变-228807998-河北新发地房地产开发有限公司1号变压器,河北新发地农副产品有限公司,高碑店市新发地食品贸易有限公司1600变压器,河北新发地农副产品有限公司8#变压器,保定隆和房地产开发有限公司变压器,0638317121-河北新发地农副产品有限公司-专变-148533727-河北新发地农副产品有限公司5#变压器,河北新发地农副产品有限公司计量点,河北新发地农副产品有限公司变压器,高碑店市路灯管理办公室（新昌南大街）,保定市隆和房地产开发有限公司2#变压器,0688563747-河北新发地房地产开发有限公司-专变-228808002-河北新发地房地产开发有限公司4号变压器,0688563747-河北新发地房地产开发有限公司-专变-228808000-河北新发地房地产开发有限公司3号变压器,河北新发地农副产品有限公司2000KVA变压器","poweroffReason":"【停电原因】由于白象５２３线路０１号杆刀闸引线断导致１１０ＫＶ马庄变电站１０ＫＶ白象５２３线路全线停电 【变更送电】因抢修进度加快原因，送电时间由１２：３０变更为１１：３０ 【发布渠道】通过９５５９８发布","powerTime":"2018-06-17 11:14:03","powerComm":"已送电","subsNo":"","lineNo":"","tgNo":"","tgName":null,"infoStatus":"1","orgName":"国网高碑店市供电公司","typeName":null,"infoStatusName":null,"dateDay":null,"orgNos":null,"nowTime":null,"countyName":null,"streetName":null,"villageName":null,"roadName":null,"communityName":null,"tranName":null,"sdLineName":null,"cityCode":"1340612","cityName":"国网高碑店市供电公司","provinceCode":null,"stopTime":"2018-06-17 11:30:00","powerType":"全部","powerOffArea":"【全线路停电】停保定市隆和房地产开发有限公司,河北新发地农副产品有限公司1#变压器,河北新发地房地产开发有限公司变压器,河北新发地农副产品有限公司7#变压器,河北新发地农副产品有限公司4#变压器,河北新发地农副产品有限公司2#变压器,河北新发地农副产品有限公司3#变压器,河北新发地农副产品有限公司5#变压器,0688563747-河北新发地房地产开发有限公司-专变-228799790-河北新发地房地产开发有限公司4变压器,河北新发地农副产品有限公司6#变压器,高碑店市新发地食品贸易有限公司变压器,0688563747-河北新发地房地产开发有限公司-专变-228807998-河北新发地房地产开发有限公司1号变压器,河北新发地农副产品有限公司,高碑店市新发地食品贸易有限公司1600变压器,河北新发地农副产品有限公司8#变压器,保定隆和房地产开发有限公司变压器,0638317121-河北新发地农副产品有限公司-专变-148533727-河北新发地农副产品有限公司5#变压器,河北新发地农副产品有限公司计量点,河北新发地农副产品有限公司变压器,高碑店市路灯管理办公室（新昌南大街）,保定市隆和房地产开发有限公司2#变压器,0688563747-河北新发地房地产开发有限公司-专变-228808002-河北新发地房地产开发有限公司4号变压器,0688563747-河北新发地房地产开发有限公司-专变-228808000-河北新发地房地产开发有限公司3号变压器,河北新发地农副产品有限公司2000KVA变压器","powerOffReason":"【停电原因】由于白象５２３线路０１号杆刀闸引线断导致１１０ＫＶ马庄变电站１０ＫＶ白象５２３线路全线停电 【变更送电】因抢修进度加快原因，送电时间由１２：３０变更为１１：３０ 【发布渠道】通过９５５９８发布","powerOffId":"2018061713000208"},{"poweroffId":2018061713000179,"sgpoweroffId":null,"subsName":"","lineName":"10kV苍山线511","pubTranName":"519小石坊1#配变,519南峪2#配变,519黄岸底4#配变,519神台1#配变,519董家沟口1#配变,519大石坊5#配变,519董家沟口4#配变,519大石坊3配变,519苍山1#配变,519董家沟口3#配变,519大石坊1#配变,519苍山3#配变,519大石坊4#配变,519董家沟口2#配变,519南峪1#配变,519董家沟口5#配变,519大道3#配变,519大石坊2#配变,519海沿1#配变,519小石坊3#配变,519苍山2#配变,519神台2#配变,519小石坊2#配变,","scope":"【影响街道/乡镇】阜平镇 【高危重要客户】无 【影响客户】苍山村、南峪村、董家沟口、大石坊村、槐树庄村、大道村、黄岸底村、海沿村、耑路头、槐树庄中学、小石坊村、高阜口村、神台村","startTime":"2018-06-17 09:23:09","stopDate":"2018-06-17 21:00:00","orgNo":"1340611","typeCode":"电网故障停限电","poweroffArea":"【全线路停电】停519苍山1#配变,519董家沟口2#配变,519董家沟口3#配变,519大石坊2#配变,519神台2#配变,519南峪1#配变,519大石坊5#配变,519神台1#配变,519小石坊3#配变,519大道3#配变,519海沿1#配变,519苍山3#配变,519董家沟口5#配变,519小石坊1#配变,519黄岸底4#配变,519苍山2#配变,519南峪2#配变,519董家沟口4#配变,519大石坊3配变,519董家沟口1#配变,519小石坊2#配变,519大石坊1#配变,519大石坊4#配变","poweroffReason":"【停电原因】由于线路接地导致３５ＫＶ阜平西庄变电站１０ＫＶ苍山线５１１线路全线停电 【变更送电】无 【发布渠道】９５５９８","powerTime":"2018-06-17 12:25:39","powerComm":"已送电","subsNo":"","lineNo":"","tgNo":"","tgName":null,"infoStatus":"1","orgName":"国网阜平县供电公司","typeName":null,"infoStatusName":null,"dateDay":null,"orgNos":null,"nowTime":null,"countyName":null,"streetName":null,"villageName":null,"roadName":null,"communityName":null,"tranName":null,"sdLineName":null,"cityCode":"1340611","cityName":"国网阜平县供电公司","provinceCode":null,"stopTime":"2018-06-17 21:00:00","powerType":"全部","powerOffArea":"【全线路停电】停519苍山1#配变,519董家沟口2#配变,519董家沟口3#配变,519大石坊2#配变,519神台2#配变,519南峪1#配变,519大石坊5#配变,519神台1#配变,519小石坊3#配变,519大道3#配变,519海沿1#配变,519苍山3#配变,519董家沟口5#配变,519小石坊1#配变,519黄岸底4#配变,519苍山2#配变,519南峪2#配变,519董家沟口4#配变,519大石坊3配变,519董家沟口1#配变,519小石坊2#配变,519大石坊1#配变,519大石坊4#配变","powerOffReason":"【停电原因】由于线路接地导致３５ＫＶ阜平西庄变电站１０ＫＶ苍山线５１１线路全线停电 【变更送电】无 【发布渠道】９５５９８","powerOffId":"2018061713000179"},{"poweroffId":2018061713000175,"sgpoweroffId":null,"subsName":"","lineName":"10kV杨家务线512","pubTranName":"西加录地变压器【纯农排变】,韩庄变压器,东务变压器,毛庄西变压器,李庄浇地变压器【纯农排变】,西宋南变压器,军庄西变压器,东务西变压器,东宋排灌变压器,西务地6变压器【纯农排变】,李庄西变压器,金东西变压器,东务北变压器,石辛庄水3变压器,东宋变压器,雷李庄变压器,东仓地变压器【纯农排变】,东务村南变压器,西仓地2变压器【纯农排变】,东仓变压器,高碑店市鸿旭金属粉末加工有限公司变压器,河北高鼓环保设备有限公司,西义合变压器,军庄新地变压器,金东地2变压器【纯农排变】,0387449762-天津通鼓风机有限公司河北分公司-专变-226995247-天津风机五厂变压器,西仓村2变压器,李庄变压器512线,西仓地变压器【纯农排变】,东务村北2,马东东变压器,西务地变压器【纯农排变】,毛庄北地变压器,天津风机五厂(谷1),西务地4变压器【纯农排变】,西仓变压器,中国移动通信集体河北有限公司高碑店分公司,韩庄水变压器【纯农排变】,马东南地变压器【纯农排变】,金中变压器,马东变压器,西务新地变压器,韩庄北地变压器【纯农排变】,东宋南水变压器,军庄东变压器,韩庄东南水变压器【纯农排变】,东义合水3变压器,石辛庄地变压器【纯农排变】,东仓地2变压器【纯农排变】,东务南变压器【纯农排变】,军庄地变压器【纯农排变】,东义合变压器,肖鱼池变压器,0610660612-高碑店市科隆商贸有限公司-专变-223551278-河北科隆风机有限公司变压器,韩庄南水变压器【纯农排变】,金东新变压器,肖鱼池地变压器,东务地2变压器【纯农排变】,石辛庄水4变压器,河北高碑店市鼓风机厂变压器,西义合地2变压器,东义合水2变压器,石辛庄变压器,河北鑫宏远冶金设备制造有限公司变压器,西务南变压器,东宋地变压器【纯农排变】,军庄北地变压器【纯农排变】,西务北变压器,毛庄变压器,马东北地变压器【纯农排变】,西宋变压器,西务变压器,东务地变压器【纯农排变】,肖鱼池东变压器,马西变压器,张庄变压器,李庄地2变压器【纯农排变】,张庄水变压器,金柴营变压器,西务地3变压器【纯农排变】,东义合地变压器,西务地5变压器【纯农排变】,金东地变压器【纯农排变】,李庄北变压器,西义合地变压器【纯农排变】,","scope":"【影响街道/乡镇】方官镇、新城镇、肖官营乡 【高危重要客户】无 【影响客户】马东村、马西村、雷李庄村、肖鱼池村、金东村、金中村、李庄村、毛庄村、东仓村、西仓村、韩庄村、张庄村、西义和村、东宋村、东务村、东义和村、军庄村、石辛庄村、西宋村、西务村、天津通鼓风机有限公司河北分公司、河北高碑店市鼓风机厂、河北高鼓环保设备有限公司、河北鑫宏远冶金设备制造有限公司、高碑店市宏润风机制造有限公司、高碑店市红日风机厂、河北腾浩风机制造有限公司、高碑店市工业风机制造厂、鸿旭金属粉末加工有限公司、河北科隆风机有限公司、中国移动通信高碑店分公司","startTime":"2018-06-17 10:30:19","stopDate":"2018-06-17 11:30:00","orgNo":"1340612","typeCode":"其他临时停电","poweroffArea":"【分支停电】停韩庄北地变压器【纯农排变】,张庄变压器,肖鱼池变压器,东宋地变压器【纯农排变】,东宋变压器,军庄东变压器,西义合变压器,西务地3变压器【纯农排变】,毛庄北地变压器,中国移动通信集体河北有限公司高碑店分公司,东务地变压器【纯农排变】,西义合地2变压器,东务变压器,金东地变压器【纯农排变】,韩庄变压器,0610660612-高碑店市科隆商贸有限公司-专变-223551278-河北科隆风机有限公司变压器,韩庄南水变压器【纯农排变】,东务村北2,毛庄变压器,毛庄西变压器,西义合地变压器【纯农排变】,东务村南变压器,河北高碑店市鼓风机厂变压器,金东西变压器,东务西变压器,军庄地变压器【纯农排变】,0387449762-天津通鼓风机有限公司河北分公司-专变-226995247-天津风机五厂变压器,肖鱼池地变压器,金柴营变压器,东义合水3变压器,西宋南变压器,军庄西变压器,石辛庄水3变压器,西务变压器,李庄地2变压器【纯农排变】,石辛庄变压器,韩庄东南水变压器【纯农排变】,东务南变压器【纯农排变】,东仓地2变压器【纯农排变】,西仓村2变压器,马东变压器,西务北变压器,西务南变压器,东义合水2变压器,西仓地变压器【纯农排变】,金中变压器,东务地2变压器【纯农排变】,西务地6变压器【纯农排变】,东仓地变压器【纯农排变】,西务地5变压器【纯农排变】,马西变压器,金东地2变压器【纯农排变】,西务地变压器【纯农排变】,天津风机五厂(谷1),东义合地变压器,西仓地2变压器【纯农排变】,东仓变压器,雷李庄变压器,马东北地变压器【纯农排变】,韩庄水变压器【纯农排变】,西仓变压器,河北鑫宏远冶金设备制造有限公司变压器,军庄新地变压器,西加录地变压器【纯农排变】,西务新地变压器,东义合变压器,李庄变压器512线,河北高鼓环保设备有限公司,东宋排灌变压器,石辛庄水4变压器,肖鱼池东变压器,李庄北变压器,李庄浇地变压器【纯农排变】,军庄北地变压器【纯农排变】,金东新变压器,东宋南水变压器,石辛庄地变压器【纯农排变】,高碑店市鸿旭金属粉末加工有限公司变压器,东务北变压器,张庄水变压器,李庄西变压器,西宋变压器,马东东变压器,马东南地变压器【纯农排变】,西务地4变压器【纯农排变】","poweroffReason":"【停电原因】由于杨家务５１２线路主干１２８号杆线夹打火需要紧急处理导致３５ＫＶ加录变电站１０ＫＶ杨家务５１２线路主干５７号杆０２号断路器以下停电 【变更送电】无 【发布渠道】通过９５５９８发布","powerTime":"2018-06-17 11:21:34","powerComm":"已送电","subsNo":"","lineNo":"","tgNo":"","tgName":null,"infoStatus":"1","orgName":"国网高碑店市供电公司","typeName":null,"infoStatusName":null,"dateDay":null,"orgNos":null,"nowTime":null,"countyName":null,"streetName":null,"villageName":null,"roadName":null,"communityName":null,"tranName":null,"sdLineName":null,"cityCode":"1340612","cityName":"国网高碑店市供电公司","provinceCode":null,"stopTime":"2018-06-17 11:30:00","powerType":"全部","powerOffArea":"【分支停电】停韩庄北地变压器【纯农排变】,张庄变压器,肖鱼池变压器,东宋地变压器【纯农排变】,东宋变压器,军庄东变压器,西义合变压器,西务地3变压器【纯农排变】,毛庄北地变压器,中国移动通信集体河北有限公司高碑店分公司,东务地变压器【纯农排变】,西义合地2变压器,东务变压器,金东地变压器【纯农排变】,韩庄变压器,0610660612-高碑店市科隆商贸有限公司-专变-223551278-河北科隆风机有限公司变压器,韩庄南水变压器【纯农排变】,东务村北2,毛庄变压器,毛庄西变压器,西义合地变压器【纯农排变】,东务村南变压器,河北高碑店市鼓风机厂变压器,金东西变压器,东务西变压器,军庄地变压器【纯农排变】,0387449762-天津通鼓风机有限公司河北分公司-专变-226995247-天津风机五厂变压器,肖鱼池地变压器,金柴营变压器,东义合水3变压器,西宋南变压器,军庄西变压器,石辛庄水3变压器,西务变压器,李庄地2变压器【纯农排变】,石辛庄变压器,韩庄东南水变压器【纯农排变】,东务南变压器【纯农排变】,东仓地2变压器【纯农排变】,西仓村2变压器,马东变压器,西务北变压器,西务南变压器,东义合水2变压器,西仓地变压器【纯农排变】,金中变压器,东务地2变压器【纯农排变】,西务地6变压器【纯农排变】,东仓地变压器【纯农排变】,西务地5变压器【纯农排变】,马西变压器,金东地2变压器【纯农排变】,西务地变压器【纯农排变】,天津风机五厂(谷1),东义合地变压器,西仓地2变压器【纯农排变】,东仓变压器,雷李庄变压器,马东北地变压器【纯农排变】,韩庄水变压器【纯农排变】,西仓变压器,河北鑫宏远冶金设备制造有限公司变压器,军庄新地变压器,西加录地变压器【纯农排变】,西务新地变压器,东义合变压器,李庄变压器512线,河北高鼓环保设备有限公司,东宋排灌变压器,石辛庄水4变压器,肖鱼池东变压器,李庄北变压器,李庄浇地变压器【纯农排变】,军庄北地变压器【纯农排变】,金东新变压器,东宋南水变压器,石辛庄地变压器【纯农排变】,高碑店市鸿旭金属粉末加工有限公司变压器,东务北变压器,张庄水变压器,李庄西变压器,西宋变压器,马东东变压器,马东南地变压器【纯农排变】,西务地4变压器【纯农排变】","powerOffReason":"【停电原因】由于杨家务５１２线路主干１２８号杆线夹打火需要紧急处理导致３５ＫＶ加录变电站１０ＫＶ杨家务５１２线路主干５７号杆０２号断路器以下停电 【变更送电】无 【发布渠道】通过９５５９８发布","powerOffId":"2018061713000175"},{"poweroffId":2018061713000157,"sgpoweroffId":null,"subsName":"","lineName":"10KV南韩516","pubTranName":"关立庄（村西）,官立庄（村内）1705,","scope":"【影响街道/乡镇】松林店镇 【高危重要客户】无 【影响客户】官立庄村","startTime":"2018-06-19 07:30:00","stopDate":"2018-06-19 17:30:00","orgNo":"1340626","typeCode":"临时停电","poweroffArea":"【分支停电】停官立庄（村内）1705,关立庄（村西）","poweroffReason":"【停电原因】由于煤改电工程导致３５ＫＶ南马变电站１０ＫＶ南韩５１６线路１５号杆以下线路停电 【变更送电】无 【发布渠道】通过９５５９８发布","powerTime":"2018-06-19 17:15:43","powerComm":"已送电","subsNo":"","lineNo":"","tgNo":"","tgName":null,"infoStatus":"1","orgName":"国网涿州市供电公司","typeName":null,"infoStatusName":null,"dateDay":null,"orgNos":null,"nowTime":null,"countyName":null,"streetName":null,"villageName":null,"roadName":null,"communityName":null,"tranName":null,"sdLineName":null,"cityCode":"1340626","cityName":"国网涿州市供电公司","provinceCode":null,"stopTime":"2018-06-19 17:30:00","powerType":"全部","powerOffArea":"【分支停电】停官立庄（村内）1705,关立庄（村西）","powerOffReason":"【停电原因】由于煤改电工程导致３５ＫＶ南马变电站１０ＫＶ南韩５１６线路１５号杆以下线路停电 【变更送电】无 【发布渠道】通过９５５９８发布","powerOffId":"2018061713000157"},{"poweroffId":2018061713000147,"sgpoweroffId":null,"subsName":"","lineName":"10KV南岐515","pubTranName":"岐沟村西变压器,","scope":"【影响街道/乡镇】松林店镇 【高危重要客户】无 【影响客户】岐沟村","startTime":"2018-06-19 07:30:00","stopDate":"2018-06-19 17:30:00","orgNo":"1340626","typeCode":"临时停电","poweroffArea":"【单台区停电】停岐沟村西变压器","poweroffReason":"【停电原因】由于煤改电工程导致３５ＫＶ南马变电站１０ＫＶ南岐５１５线路岐沟村西公变台区停电 【变更送电】无 【发布渠道】通过９５５９８发布","powerTime":"2018-06-19 17:15:33","powerComm":"已送电","subsNo":"","lineNo":"","tgNo":"","tgName":null,"infoStatus":"1","orgName":"国网涿州市供电公司","typeName":null,"infoStatusName":null,"dateDay":null,"orgNos":null,"nowTime":null,"countyName":null,"streetName":null,"villageName":null,"roadName":null,"communityName":null,"tranName":null,"sdLineName":null,"cityCode":"1340626","cityName":"国网涿州市供电公司","provinceCode":null,"stopTime":"2018-06-19 17:30:00","powerType":"全部","powerOffArea":"【单台区停电】停岐沟村西变压器","powerOffReason":"【停电原因】由于煤改电工程导致３５ＫＶ南马变电站１０ＫＶ南岐５１５线路岐沟村西公变台区停电 【变更送电】无 【发布渠道】通过９５５９８发布","powerOffId":"2018061713000147"},{"poweroffId":2018061713000140,"sgpoweroffId":null,"subsName":"","lineName":"10KV兴盛屯514","pubTranName":"前铺村东,","scope":"【影响街道/乡镇】孙庄乡 【高危重要客户】无 【影响客户】前铺村","startTime":"2018-06-19 07:30:00","stopDate":"2018-06-19 18:30:00","orgNo":"1340626","typeCode":"临时停电","poweroffArea":"【单台区停电】停前铺村东","poweroffReason":"【停电原因】由于煤改电工程导致３５ＫＶ孙庄变电站１０ＫＶ兴盛屯５１４线路前铺村东公变台区停电 【变更送电】无 【发布渠道】通过９５５９８发布","powerTime":"2018-06-19 18:13:34","powerComm":"已送电","subsNo":"","lineNo":"","tgNo":"","tgName":null,"infoStatus":"1","orgName":"国网涿州市供电公司","typeName":null,"infoStatusName":null,"dateDay":null,"orgNos":null,"nowTime":null,"countyName":null,"streetName":null,"villageName":null,"roadName":null,"communityName":null,"tranName":null,"sdLineName":null,"cityCode":"1340626","cityName":"国网涿州市供电公司","provinceCode":null,"stopTime":"2018-06-19 18:30:00","powerType":"全部","powerOffArea":"【单台区停电】停前铺村东","powerOffReason":"【停电原因】由于煤改电工程导致３５ＫＶ孙庄变电站１０ＫＶ兴盛屯５１４线路前铺村东公变台区停电 【变更送电】无 【发布渠道】通过９５５９８发布","powerOffId":"2018061713000140"},{"poweroffId":2018061713000126,"sgpoweroffId":null,"subsName":"","lineName":"阳光线521","pubTranName":"电力花园3号箱变间隔配电变压器,河北创世房地产开发有限公司(安洁物业),高建集团建装公司,中国石油保定119站,高碑店市人民法院变压器,天津市兴建房地产开发公司（金都3号）10#,付庄基地,环岛高杆灯,付庄东变压器,建安变压器,天奕商厦1#,天津市兴建房地产开发公司（金都花园2号）变压器,付庄面粉厂2,高碑店市路灯管理办公室（东环岛路灯）变压器,检察院,天津市兴建房地产开发公司（金都3号）3#变压器,富民路公变变压器,付庄面粉厂,天津市兴建房地产开发公司（金都3号）6#,高碑店市鑫远房地产开发有限公司变压器,农发行公变,人行,闫家务南变压器,河北华达公路工程咨询监理有限公司变压器,高碑店市国家税务局,高碑店市德安房地产开发有限公司,职中变压器,天津市兴建房地产开发公司（金都3号）1#,高碑店市路灯管理办公室（富民路路灯变压器,检察院公变1,高碑店市强林物业服务有限公司变压器,高碑店市卫生和计划生育局,闫家务东变压器,0642710897-高碑店市兴泰房地产开发有限公司-专变-161577774-高碑店市兴泰房地产开发有限公司变压器,付庄北台变压器,河北创世房地产开发有限公司变压器,高碑店市路灯管理办公室变压器,福利风机厂,五处大修厂,高碑店市人民法院,邮政局,高碑店市兴泰房地产开发有限公司2,诺林湾3期,天津市兴建房地产开发公司（金都3号）5#,李小北,高碑店市人民防空办公室变压器,向新焊接厂变压器,环岛公变变压器,天奕商厦2号箱变,0562791183-保定津联物业服务有限公司-专变-118501320-天津市兴建房地产开发公司（金都3号）2#,锅炉厂公变,天津市兴建房地产开发公司（金都3号）7#,新世纪公变,张八屯信用社,付庄变压器,电力花园1号箱变间隔配电变压器,锅炉辅机厂,0562791066-保定津联物业服务有限公司-专变-118501293-天津市兴建房地产开发公司（金都花园2号）变压器,电力花园2号箱变间隔配电变压器,天津市兴建房地产开发公司（金都3号）4#,高碑店市兴泰房地产开发有限公司1,高碑店市地方税务局,高碑店明仁眼科医院,老地税公变,徐金峰变压器,新华书店,","scope":"【影响街道/乡镇】迎宾东路、新昌大街、光华南大街、兴文街、文苑路、富民路、民欣胡同 【高危重要客户】三中、一中东校区、疾控中心 【影响客户】付庄村、闫家务村、电力花园小区、付庄小区、地税小区、新检察院小区、锅炉辅机平房、建安公寓、职中门脸、一小平房、农行家属楼、公园大道小区、金都小区、诺林湾三期、邮政小区、天平小区、新城国税所平房、职中家属楼、职中平房、盛景花园、阳光商厦、德安房地产、高碑店市一中、宜佳旺商场、河北向鑫机电设备有限公司、家兴商贸、兴泰房地产、双硕物业、实达物业、检察院、人民银行、李小北、锅炉辅机厂、中国邮政、付庄面粉厂、福利风机厂、五处大修厂、高建集团建装公司、付庄基地、河北鼎誉房地产、锦锈花园小区、河北创世房地产(安洁物业)、徐金峰、汇华物业、人民防空办公室、明仁眼科医院、中国石油保定１１９站、河北高碑店农村商业银行、图书大厦","startTime":"2018-06-17 08:00:04","stopDate":"2018-06-17 10:00:00","orgNo":"1340612","typeCode":"电网故障停限电","poweroffArea":"【全线路停电】停0562791183-保定津联物业服务有限公司-专变-118501320-天津市兴建房地产开发公司（金都3号）2#,职中变压器,高碑店市人民防空办公室变压器,天津市兴建房地产开发公司（金都3号）5#,高碑店市人民法院变压器,农发行公变,高碑店市兴泰房地产开发有限公司1,河北华达公路工程咨询监理有限公司变压器,河北创世房地产开发有限公司变压器,高碑店市强林物业服务有限公司变压器,高碑店市路灯管理办公室（东环岛路灯）变压器,高碑店市人民法院,高碑店市鑫远房地产开发有限公司变压器,闫家务东变压器,天津市兴建房地产开发公司（金都3号）6#,电力花园1号箱变间隔配电变压器,高碑店市路灯管理办公室变压器,建安变压器,高碑店市路灯管理办公室（富民路路灯变压器,锅炉厂公变,天津市兴建房地产开发公司（金都3号）7#,高碑店市国家税务局,环岛公变变压器,天津市兴建房地产开发公司（金都3号）10#,付庄基地,邮政局,高碑店市地方税务局,徐金峰变压器 ,人行,锅炉辅机厂,检察院,天津市兴建房地产开发公司（金都3号）3#变压器,福利风机厂,高碑店市兴泰房地产开发有限公司2,富民路公变变压器,检察院公变1,高碑店市德安房地产开发有限公司,张八屯信用社,河北创世房地产开发有限公司(安洁物业),天奕商厦2号箱变,诺林湾3期,高碑店明仁眼科医院,电力花园3号箱变间隔配电变压器,闫家务南变压器,0562791066-保定津联物业服务有限公司-专变-118501293-天津市兴建房地产开发公司（金都花园2号）变压器,环岛高杆灯,向新焊接厂变压器,天奕商厦1#,高建集团建装公司,0642710897-高碑店市兴泰房地产开发有限公司-专变-161577774-高碑店市兴泰房地产开发有限公司变压器,新华书店,天津市兴建房地产开发公司（金都花园2号）变压器,中国石油保定119站,付庄变压器,电力花园2号箱变间隔配电变压器,付庄面粉厂,高碑店市卫生和计划生育局,新世纪公变,李小北,付庄北台变压器,老地税公变,天津市兴建房地产开发公司（金都3号）1#,付庄东变压器,付庄面粉厂2,天津市兴建房地产开发公司（金都3号）4#,五处大修厂","poweroffReason":"【停电原因】由于０１号杆刀闸引线断导致１１０ＫＶ马庄变电站１０ＫＶ阳光５２１线路全线停电 【变更送电】因抢修进度加快原因，送电时间由１７日１２：００变更为１７日１０：００ 【发布渠道】通过９５５９８发布","powerTime":"2018-06-17 09:58:49","powerComm":"已送电","subsNo":"","lineNo":"","tgNo":"","tgName":null,"infoStatus":"1","orgName":"国网高碑店市供电公司","typeName":null,"infoStatusName":null,"dateDay":null,"orgNos":null,"nowTime":null,"countyName":null,"streetName":null,"villageName":null,"roadName":null,"communityName":null,"tranName":null,"sdLineName":null,"cityCode":"1340612","cityName":"国网高碑店市供电公司","provinceCode":null,"stopTime":"2018-06-17 10:00:00","powerType":"全部","powerOffArea":"【全线路停电】停0562791183-保定津联物业服务有限公司-专变-118501320-天津市兴建房地产开发公司（金都3号）2#,职中变压器,高碑店市人民防空办公室变压器,天津市兴建房地产开发公司（金都3号）5#,高碑店市人民法院变压器,农发行公变,高碑店市兴泰房地产开发有限公司1,河北华达公路工程咨询监理有限公司变压器,河北创世房地产开发有限公司变压器,高碑店市强林物业服务有限公司变压器,高碑店市路灯管理办公室（东环岛路灯）变压器,高碑店市人民法院,高碑店市鑫远房地产开发有限公司变压器,闫家务东变压器,天津市兴建房地产开发公司（金都3号）6#,电力花园1号箱变间隔配电变压器,高碑店市路灯管理办公室变压器,建安变压器,高碑店市路灯管理办公室（富民路路灯变压器,锅炉厂公变,天津市兴建房地产开发公司（金都3号）7#,高碑店市国家税务局,环岛公变变压器,天津市兴建房地产开发公司（金都3号）10#,付庄基地,邮政局,高碑店市地方税务局,徐金峰变压器 ,人行,锅炉辅机厂,检察院,天津市兴建房地产开发公司（金都3号）3#变压器,福利风机厂,高碑店市兴泰房地产开发有限公司2,富民路公变变压器,检察院公变1,高碑店市德安房地产开发有限公司,张八屯信用社,河北创世房地产开发有限公司(安洁物业),天奕商厦2号箱变,诺林湾3期,高碑店明仁眼科医院,电力花园3号箱变间隔配电变压器,闫家务南变压器,0562791066-保定津联物业服务有限公司-专变-118501293-天津市兴建房地产开发公司（金都花园2号）变压器,环岛高杆灯,向新焊接厂变压器,天奕商厦1#,高建集团建装公司,0642710897-高碑店市兴泰房地产开发有限公司-专变-161577774-高碑店市兴泰房地产开发有限公司变压器,新华书店,天津市兴建房地产开发公司（金都花园2号）变压器,中国石油保定119站,付庄变压器,电力花园2号箱变间隔配电变压器,付庄面粉厂,高碑店市卫生和计划生育局,新世纪公变,李小北,付庄北台变压器,老地税公变,天津市兴建房地产开发公司（金都3号）1#,付庄东变压器,付庄面粉厂2,天津市兴建房地产开发公司（金都3号）4#,五处大修厂","powerOffReason":"【停电原因】由于０１号杆刀闸引线断导致１１０ＫＶ马庄变电站１０ＫＶ阳光５２１线路全线停电 【变更送电】因抢修进度加快原因，送电时间由１７日１２：００变更为１７日１０：００ 【发布渠道】通过９５５９８发布","powerOffId":"2018061713000126"},{"poweroffId":2018061713000113,"sgpoweroffId":null,"subsName":"","lineName":"辛立庄553","pubTranName":"杨辛庄3号农变压器【纯农排变】,高碑店市辛立庄峰源养猪场变压器,辛三东变压器,高碑店市辛立庄幼儿园变压器,辛三东南排灌（磁卡）变压器【纯农排变】,韩村营南变压器,杜村南农变压器【纯农排变】,杨辛庄东变压器,韩村营农（磁卡）变压器【纯农排变】,辛二西变压器,杨辛庄2号农变压器【纯农排变】,辛二东变压器,杨辛庄北变压器,杨辛庄南1变压器,新一村南变压器【纯农排变】,辛三东北变压器,辛三农（磁卡）变压器【纯农排变】,辛二南变压器,杜村东变压器,高碑店市强昊技术信息服务农民专业合作社1#变压器,时成海,辛二农变压器【纯农排变】,韩村营南农变压器【纯农排变】,辛三南变压器,杜村西1变压器,杨辛庄南变压器,韩村营东变压器,燎原公司东,韩村营内变压器,变压器,杜村东1变压器,杜村西变压器,杜村西3变压器,刘笑天,辛二2号农排变压器【纯农排变】,辛三2号农变压器【纯农排变】,韩村营东南变压器,柳振喜,辛一南1变压器,杨辛庄1号农变压器【纯农排变】,高碑店市强昊技术信息服务农民专业合作社2#变压器,高碑店市辛立庄镇杨辛庄村村民委员会变压器,","scope":"【影响街道/乡镇】辛立庄镇 【高危重要客户】无 【影响客户】杨辛庄村、杜村、辛二村、辛三村、辛一（部分）、韩村营、辛立庄韩村营井龙塑料件加工厂、辛立庄鑫宏宇木门加工厂、时成海、刘笑天、杨辛庄成江塑件厂、强昊技术信息服务农民专业合作社、杨辛庄村村民委员会、辛立庄峰源养猪场、辛立庄幼儿园","startTime":"2018-06-17 07:45:38","stopDate":"2018-06-17 09:30:00","orgNo":"1340612","typeCode":"电网故障停限电","poweroffArea":"【全线路停电】停燎原公司东,杜村东变压器,韩村营内变压器,韩村营南变压器,韩村营南农变压器【纯农排变】,韩村营东变压器,高碑店市辛立庄幼儿园变压器,辛二东变压器,辛二农变压器【纯农排变】,杨辛庄南1变压器,时成海,辛二2号农排变压器【纯农排变】,辛三2号农变压器【纯农排变】,辛三东变压器,杨辛庄东变压器,辛二西变压器,辛三南变压器,杜村西1变压器,杜村南农变压器【纯农排变】,杨辛庄2号农变压器【纯农排变】,杜村西3变压器,杜村西变压器,杨辛庄3号农变压器【纯农排变】,辛三农（磁卡）变压器【纯农排变】,辛一南1变压器,变压器,杜村东1变压器,新一村南变压器【纯农排变】,杨辛庄南变压器,杨辛庄1号农变压器【纯农排变】,韩村营农（磁卡）变压器【纯农排变】,高碑店市强昊技术信息服务农民专业合作社2#变压器,辛三东北变压器,柳振喜,杨辛庄北变压器,辛三东南排灌（磁卡）变压器【纯农排变】,高碑店市强昊技术信息服务农民专业合作社1#变压器,韩村营东南变压器,辛二南变压器,高碑店市辛立庄镇杨辛庄村村民委员会变压器,刘笑天,高碑店市辛立庄峰源养猪场变压器","poweroffReason":"【停电原因】由于辛立庄信用社变压器故障导致１１０ＫＶ陈八庄变电站１０ＫＶ辛立庄５５３线路全线停电 【变更送电】无 【发布渠道】通过９５５９８发布","powerTime":"2018-06-17 08:39:38","powerComm":"已送电","subsNo":"","lineNo":"","tgNo":"","tgName":null,"infoStatus":"1","orgName":"国网高碑店市供电公司","typeName":null,"infoStatusName":null,"dateDay":null,"orgNos":null,"nowTime":null,"countyName":null,"streetName":null,"villageName":null,"roadName":null,"communityName":null,"tranName":null,"sdLineName":null,"cityCode":"1340612","cityName":"国网高碑店市供电公司","provinceCode":null,"stopTime":"2018-06-17 09:30:00","powerType":"全部","powerOffArea":"【全线路停电】停燎原公司东,杜村东变压器,韩村营内变压器,韩村营南变压器,韩村营南农变压器【纯农排变】,韩村营东变压器,高碑店市辛立庄幼儿园变压器,辛二东变压器,辛二农变压器【纯农排变】,杨辛庄南1变压器,时成海,辛二2号农排变压器【纯农排变】,辛三2号农变压器【纯农排变】,辛三东变压器,杨辛庄东变压器,辛二西变压器,辛三南变压器,杜村西1变压器,杜村南农变压器【纯农排变】,杨辛庄2号农变压器【纯农排变】,杜村西3变压器,杜村西变压器,杨辛庄3号农变压器【纯农排变】,辛三农（磁卡）变压器【纯农排变】,辛一南1变压器,变压器,杜村东1变压器,新一村南变压器【纯农排变】,杨辛庄南变压器,杨辛庄1号农变压器【纯农排变】,韩村营农（磁卡）变压器【纯农排变】,高碑店市强昊技术信息服务农民专业合作社2#变压器,辛三东北变压器,柳振喜,杨辛庄北变压器,辛三东南排灌（磁卡）变压器【纯农排变】,高碑店市强昊技术信息服务农民专业合作社1#变压器,韩村营东南变压器,辛二南变压器,高碑店市辛立庄镇杨辛庄村村民委员会变压器,刘笑天,高碑店市辛立庄峰源养猪场变压器","powerOffReason":"【停电原因】由于辛立庄信用社变压器故障导致１１０ＫＶ陈八庄变电站１０ＫＶ辛立庄５５３线路全线停电 【变更送电】无 【发布渠道】通过９５５９８发布","powerOffId":"2018061713000113"},{"poweroffId":2018061713000106,"sgpoweroffId":null,"subsName":"","lineName":"杨西楼线547","pubTranName":"变压器,【纯农排变】南辛立庄3#水利公用,0649152997-雄县海川塑业有限公司-专变-174114634-雄县海川塑业有限公司,北菜园6#公用,【纯农排变】杨西楼水利,红西楼幸福家园1#公用,雄县兴宇胶印包装有限公司,艾西楼5#公用,红西楼幸福家园2#公用,红西楼5#公用,南辛立庄机站,艾西楼南（公用）,0387533652-南辛立庄村北-专变-45345207-南辛立庄村北,邓西楼1#公用,北菜园村西（公用）,半庄头1#水利公用,雄州塑料机械厂,雄县中瑞纸塑包装有限公司,雄县雄州镇政宇塑料包装厂,隆昌塑料厂,【纯农排变】半庄头村南水利,北菜园7#公用,刘占强,半庄头2#公用,李二华,0547095529-保定市白沟白洋淀温泉城龙腾投资有限公司10#-专变-47978162-变压器,艾西楼3#公用,李庄头4#公用,半庄头村东,【纯农排变】红西楼1#水利公用,艾西楼北公用,【纯农排变】北菜园1#水利公用,雄县华邦工程机械配件有限公司,【纯农排变】红西楼4#水利公用,红西楼3#公用,中国联通雄县分公司杨西楼营业部,红西楼村内,红西楼村南公用,建华塑料厂,北菜园5#公用,547北菜园新村2号公用配电变压器,艾西楼6#公用,【纯农排变】红西楼3#水利公用,杨西楼3#公用,北菜园新村1号公用配电变压器,红西楼4#公用,邓西楼3#公用,【纯农排变】邓西楼2#水利公用,北菜园（公用）,0387535544-赵铁圈-专变-45345050-赵铁圈,雄县鼎业塑胶制品有限公司,张会升,河北百事和纸塑包装制品有限公司,北菜园4#公用,雄县新东海塑料片材有限公司,杨西楼4#公用,李庄头村南水利,雄县聚鑫工程机械制造公司,雄县和尔佳工程机械有限公司,艾西楼4#公用,雄县恒佳塑胶制品有限公司,杨西楼村内公用,雄县东辉纸塑包装有限公司,邓西楼村南公用,邓小正,港监,雄县卓亿达工程机械配件制造厂,【纯农排变】邓西楼1#水利公用,杨西楼面粉厂,0692767452-雄县雄州镇第二中学-专变-235720734-雄县雄州镇第二中学,雄县聚鑫工程机械配件制造有限公司,半庄头3#公用,【纯农排变】红西楼2#水利公用,雄县双利纸塑包装有限公司,【纯农排变】南辛立庄2#水利公用,547北菜园8号公用,杨西楼2号公用,","scope":"【影响街道/乡镇】雄州镇 【高危重要客户】无 【影响客户】邓西楼、红西楼、艾西楼、杨西楼、北菜园、半庄头、盛德医院","startTime":"2018-06-17 07:16:47","stopDate":"2018-06-17 11:00:00","orgNo":"1340624","typeCode":"电网故障停限电","poweroffArea":"【全线路停电】停变压器,【纯农排变】南辛立庄3#水利公用,雄县卓亿达工程机械配件制造厂,0649152997-雄县海川塑业有限公司-专变-174114634-雄县海川塑业有限公司,【纯农排变】邓西楼1#水利公用,北菜园6#公用,雄县东辉纸塑包装有限公司,【纯农排变】杨西楼水利,邓西楼村南公用,红西楼幸福家园1#公用,邓小正,雄县兴宇胶印包装有限公司,港监,艾西楼5#公用,杨西楼面粉厂,红西楼幸福家园2#公用,红西楼5#公用,0692767452-雄县雄州镇第二中学-专变-235720734-雄县雄州镇第二中学,南辛立庄机站,雄县聚鑫工程机械配件制造有限公司,0387533652-南辛立庄村北-专变-45345207-南辛立庄村北,半庄头3#公用,邓西楼1#公用,【纯农排变】红西楼2#水利公用,艾西楼南（公用）,雄县双利纸塑包装有限公司,北菜园村西（公用）,半庄头1#水利公用,【纯农排变】南辛立庄2#水利公用,雄州塑料机械厂,547北菜园8号公用,雄县中瑞纸塑包装有限公司,北菜园4#公用,雄县雄州镇政宇塑料包装厂,雄县新东海塑料片材有限公司,隆昌塑料厂,0387535544-赵铁圈-专变-45345050-赵铁圈,【纯农排变】半庄头村南水利,雄县鼎业塑胶制品有限公司,北菜园7#公用,张会升,刘占强,河北百事和纸塑包装制品有限公司,杨西楼4#公用,半庄头2#公用,李庄头村南水利,李二华,雄县聚鑫工程机械制造公司,雄县和尔佳工程机械有限公司,艾西楼4#公用,【纯农排变】北菜园1#水利公用,雄县恒佳塑胶制品有限公司,雄县华邦工程机械配件有限公司,杨西楼村内公用,0547095529-保定市白沟白洋淀温泉城龙腾投资有限公司10#-专变-47978162-变压器,杨西楼2号公用,艾西楼3#公用,李庄头4#公用,北菜园5#公用,半庄头村东,547北菜园新村2号公用配电变压器,艾西楼6#公用,【纯农排变】红西楼3#水利公用,【纯农排变】红西楼1#水利公用,艾西楼北公用,杨西楼3#公用,【纯农排变】红西楼4#水利公用,北菜园新村1号公用配电变压器,红西楼3#公用,红西楼4#公用,中国联通雄县分公司杨西楼营业部,邓西楼3#公用,红西楼村内,【纯农排变】邓西楼2#水利公用,红西楼村南公用,北菜园（公用）,建华塑料厂","poweroffReason":"【停电原因】由于Ｂ相接地导致１１０ＫＶ温泉城变电站杨西楼线５４７线路全线停电 【变更送电】无 【发布渠道】通过９５５９８发布","powerTime":"2018-06-17 10:02:20","powerComm":"已送电","subsNo":"","lineNo":"","tgNo":"","tgName":null,"infoStatus":"1","orgName":"(原)国网雄县供电公司","typeName":null,"infoStatusName":null,"dateDay":null,"orgNos":null,"nowTime":null,"countyName":null,"streetName":null,"villageName":null,"roadName":null,"communityName":null,"tranName":null,"sdLineName":null,"cityCode":"1340624","cityName":"(原)国网雄县供电公司","provinceCode":null,"stopTime":"2018-06-17 11:00:00","powerType":"全部","powerOffArea":"【全线路停电】停变压器,【纯农排变】南辛立庄3#水利公用,雄县卓亿达工程机械配件制造厂,0649152997-雄县海川塑业有限公司-专变-174114634-雄县海川塑业有限公司,【纯农排变】邓西楼1#水利公用,北菜园6#公用,雄县东辉纸塑包装有限公司,【纯农排变】杨西楼水利,邓西楼村南公用,红西楼幸福家园1#公用,邓小正,雄县兴宇胶印包装有限公司,港监,艾西楼5#公用,杨西楼面粉厂,红西楼幸福家园2#公用,红西楼5#公用,0692767452-雄县雄州镇第二中学-专变-235720734-雄县雄州镇第二中学,南辛立庄机站,雄县聚鑫工程机械配件制造有限公司,0387533652-南辛立庄村北-专变-45345207-南辛立庄村北,半庄头3#公用,邓西楼1#公用,【纯农排变】红西楼2#水利公用,艾西楼南（公用）,雄县双利纸塑包装有限公司,北菜园村西（公用）,半庄头1#水利公用,【纯农排变】南辛立庄2#水利公用,雄州塑料机械厂,547北菜园8号公用,雄县中瑞纸塑包装有限公司,北菜园4#公用,雄县雄州镇政宇塑料包装厂,雄县新东海塑料片材有限公司,隆昌塑料厂,0387535544-赵铁圈-专变-45345050-赵铁圈,【纯农排变】半庄头村南水利,雄县鼎业塑胶制品有限公司,北菜园7#公用,张会升,刘占强,河北百事和纸塑包装制品有限公司,杨西楼4#公用,半庄头2#公用,李庄头村南水利,李二华,雄县聚鑫工程机械制造公司,雄县和尔佳工程机械有限公司,艾西楼4#公用,【纯农排变】北菜园1#水利公用,雄县恒佳塑胶制品有限公司,雄县华邦工程机械配件有限公司,杨西楼村内公用,0547095529-保定市白沟白洋淀温泉城龙腾投资有限公司10#-专变-47978162-变压器,杨西楼2号公用,艾西楼3#公用,李庄头4#公用,北菜园5#公用,半庄头村东,547北菜园新村2号公用配电变压器,艾西楼6#公用,【纯农排变】红西楼3#水利公用,【纯农排变】红西楼1#水利公用,艾西楼北公用,杨西楼3#公用,【纯农排变】红西楼4#水利公用,北菜园新村1号公用配电变压器,红西楼3#公用,红西楼4#公用,中国联通雄县分公司杨西楼营业部,邓西楼3#公用,红西楼村内,【纯农排变】邓西楼2#水利公用,红西楼村南公用,北菜园（公用）,建华塑料厂","powerOffReason":"【停电原因】由于Ｂ相接地导致１１０ＫＶ温泉城变电站杨西楼线５４７线路全线停电 【变更送电】无 【发布渠道】通过９５５９８发布","powerOffId":"2018061713000106"}],"pageModel":{"pageNow":978,"totalCount":10973,"totalPage":1098,"tableRows":0,"pageCount":10,"beginCount":9770},"isExperi":"1"}