{"message":"","today":"2020-06-15","seleList":[{"poweroffId":2018061713000020,"sgpoweroffId":null,"subsName":"","lineName":"白虹线538","pubTranName":"南白虹村1#,高家庄村3#,东柳泉村2#,刘晓立养牛厂,南中庄村9#变压器,南靠村3#,北靠村4#,西柳泉村1#,东柳泉村3#,北白虹村5#,太和庄村8#,塘湖村15#,王家庄村4#,塘湖村18#变压器（吴小河）,任金海变压器,榆林庄村4#,南白虹村10#,仁义庄村5#,王家庄村5#,东柳泉村5#,西靠村5#,车网地村4#,仁义庄村7#,仁义庄村1#,塘湖村17号变压器,北白虹村3#,中电投河北易县新能源发电有限公司变压器,车网地村1#,太和庄村3#,高家庄村1#,南中庄村3#,西靠村北任红泉,南白虹村11#变压器【纯农排变】,北白虹村1#,南福地村1#,西靠村7#变压器,南白虹2#,西柳泉村5#,北林村2#t,北白虹村2#,北白虹村7#,仁义庄村3#,南靠村1#,太和庄村4#,西靠村4#,南福地焦红斌,北靠村1#,塘湖村14#,南白虹村13#变压器,南白虹村2#|,宋家庄村3#,变压器,塘湖村7#,宋家庄6#,北白虹村6#,南靠村4#,南中庄村2#【纯农排变】,西靠村1#,南中庄村5#【纯农排变】,塘湖村16#变压器,西柳泉村6#,南白虹村5#,西柳泉村2#|【纯农排变】,太和庄村1#t,南福地村3#,南中庄村6#,宋家庄村9#变压器,王家庄村1#|,南考村张华变压器,南靠村2#,南中庄村1#,太和庄村2#t,西柳泉7#,南白虹村9#,车网地村3#|,南中庄村8#,吴小合砖厂,宋家庄村1#,张进庄村3#,北白虹村8#变压器,太和庄村6#,刘德财养鸡厂,北白虹面粉厂,南白虹村8#,王家庄村2#,塘湖镇中心小学,北白虹村4#,仁义庄村8#南井,南福地村4#【纯农排变】,易县源德建材有限公司B-500KVA,西固城村5#变压器,东柳泉村1#,高家庄村2#,","scope":"【影响街道/乡镇】裴山镇、塘湖镇【高危重要客户】无【影响客户】南太和庄村、车网地村、小罗村、北白虹村、南福地村、南白虹村、高家庄村、塘湖村、南林村、榆林庄村、张进庄村、东柳泉村、西柳泉村、宋家庄村、仁义庄村、南考村、北考村、西考村、王家庄村、南中庄村","startTime":"2018-06-17 03:20:22","stopDate":"2018-06-17 07:25:00","orgNo":"1340625","typeCode":"电网故障停限电","poweroffArea":"【全线路停电】停西靠村7#变压器,西靠村5#,北白虹村6#,北白虹村4#,刘德财养鸡厂,塘湖村18#变压器（吴小河）,南福地村1#,易县源德建材有限公司B-500KVA,刘晓立养牛厂,北白虹村2#,王家庄村2#,南白虹村2#|,北白虹面粉厂,北白虹村5#,中电投河北易县新能源发电有限公司变压器,太和庄村3#,南白虹2#,南白虹村13#变压器,榆林庄村4#,南白虹村1#,宋家庄6#,南中庄村5#","poweroffReason":"【停电原因】由于西考任宏全专线（用户产权）Ｂ相瓶子脱落导致１１０ＫＶ塘湖变电站白虹５３８线路全线停电【变更送电】因抢修进度加快，送电时间由１０:００变更为７：２５【发布渠道】通过９５５９８发布","powerTime":"2018-06-17 07:12:22","powerComm":"已送电","subsNo":"","lineNo":"","tgNo":"","tgName":null,"infoStatus":"1","orgName":"国网易县供电公司","typeName":null,"infoStatusName":null,"dateDay":null,"orgNos":null,"nowTime":null,"countyName":null,"streetName":null,"villageName":null,"roadName":null,"communityName":null,"tranName":null,"sdLineName":null,"cityCode":"1340625","cityName":"国网易县供电公司","provinceCode":null,"stopTime":"2018-06-17 07:25:00","powerType":"全部","powerOffArea":"【全线路停电】停西靠村7#变压器,西靠村5#,北白虹村6#,北白虹村4#,刘德财养鸡厂,塘湖村18#变压器（吴小河）,南福地村1#,易县源德建材有限公司B-500KVA,刘晓立养牛厂,北白虹村2#,王家庄村2#,南白虹村2#|,北白虹面粉厂,北白虹村5#,中电投河北易县新能源发电有限公司变压器,太和庄村3#,南白虹2#,南白虹村13#变压器,榆林庄村4#,南白虹村1#,宋家庄6#,南中庄村5#","powerOffReason":"【停电原因】由于西考任宏全专线（用户产权）Ｂ相瓶子脱落导致１１０ＫＶ塘湖变电站白虹５３８线路全线停电【变更送电】因抢修进度加快，送电时间由１０:００变更为７：２５【发布渠道】通过９５５９８发布","powerOffId":"2018061713000020"},{"poweroffId":2018061713000018,"sgpoweroffId":null,"subsName":"","lineName":"延福线517","pubTranName":"04070|延付村西综合,双延学校,延付屯,中国石油天然气股份有限公司华北油田分公司变压器,延付屯(原面厂),延福屯村东北新增综合,延付屯永生毛巾厂,延福屯村东南综合,04057|延付屯村东综合,延福屯村东南新增综合,04058|延付屯村东北综合,延福屯村北综合,04056|延付屯村西综合,04060|延福屯村南综合,延福屯村西南综合,04068|延付村东综合,延福村东综合2,04082|延福村南综合,04059|延付屯村里综合,延福屯村东南综合2,","scope":"【影响街道/乡镇】西演镇 【高危重要客户】无 【影响客户】延福屯","startTime":"2018-06-17 03:04:22","stopDate":"2018-06-17 09:00:00","orgNo":"1340613","typeCode":"电网故障停限电","poweroffArea":"【分支停电】停延福屯村东南综合,04059|延付屯村里综合,04058|延付屯村东北综合,04068|延付村东综合,延福屯村东北新增综合,中国石油天然气股份有限公司华北油田分公司变压器,延福屯村北综合,延付屯永生毛巾厂,延福村东综合2,04056|延付屯村西综合,延付屯(原面厂),04070|延付村西综合,04082|延福村南综合,04060|延福屯村南综合,04057|延付屯村东综合,双延学校,延福屯村东南综合2 ,延福屯村西南综合,延福屯村东南新增综合,延付屯","poweroffReason":"【停电原因】由于外力破坏导致３５ＫＶ魏家佐变电站延福５１７线路主线６２号杆６２号开关以下停电【变更送电】因抢修进度加快原因，送电时间由１０：００变更为０９：００【发布渠道】９５５９８","powerTime":"2018-06-17 08:34:33","powerComm":"已送电","subsNo":"","lineNo":"","tgNo":"","tgName":null,"infoStatus":"1","orgName":"国网高阳县供电公司","typeName":null,"infoStatusName":null,"dateDay":null,"orgNos":null,"nowTime":null,"countyName":null,"streetName":null,"villageName":null,"roadName":null,"communityName":null,"tranName":null,"sdLineName":null,"cityCode":"1340613","cityName":"国网高阳县供电公司","provinceCode":null,"stopTime":"2018-06-17 09:00:00","powerType":"全部","powerOffArea":"【分支停电】停延福屯村东南综合,04059|延付屯村里综合,04058|延付屯村东北综合,04068|延付村东综合,延福屯村东北新增综合,中国石油天然气股份有限公司华北油田分公司变压器,延福屯村北综合,延付屯永生毛巾厂,延福村东综合2,04056|延付屯村西综合,延付屯(原面厂),04070|延付村西综合,04082|延福村南综合,04060|延福屯村南综合,04057|延付屯村东综合,双延学校,延福屯村东南综合2 ,延福屯村西南综合,延福屯村东南新增综合,延付屯","powerOffReason":"【停电原因】由于外力破坏导致３５ＫＶ魏家佐变电站延福５１７线路主线６２号杆６２号开关以下停电【变更送电】因抢修进度加快原因，送电时间由１０：００变更为０９：００【发布渠道】９５５９８","powerOffId":"2018061713000018"},{"poweroffId":2018061713000012,"sgpoweroffId":null,"subsName":"","lineName":"夏庄线526","pubTranName":"西大地4#村东,北百泉村6#村东,西大地3#村西,梁格庄村扬水站4台区,张格庄村1#村内,南石门村3#村内,西大地村2#村北,河北省林业示范园西陵林场,中国移动通讯集团河北有限公司易县分公司变压器,梁格庄12#,清西陵文物管理处,龙湖开发区管理处(张来宾),南石门村8#村东,南石门村4#村南,南石门13#,南石门村9#村东【纯农排变】,梁格庄村15#村东,武装部,易县恒兴精密铸造有限公司,关春伟变压器,良格庄供电所,南石门10号变压器,易县西陵万亩林林场王晓明100KVA,南石门村5#村南,石门店村5#村西南,行宫招待所,凤凰台1#【纯农排变】,南石门村2#村西,华路宾馆,省良种厂西陵分厂,西大地村1#村南,西大地村5#村东,石门店8#台区,南石门12台区,易县忆江南观赏鱼饲养场变压器,北百泉村2#村北,南石门村7#村中,梁格庄9#,王宗保,万亩林,南石门11台区,太和庄村孙书珍变压器,南石门村苑爱忠变压器,南石门村1#村西,王贾庄村5#村内,梁格庄村2#村东,梁格庄村3#村西,崇陵(100KVA),张格庄2#,南石门村李彦平变压器,南石门村6#村西,张格庄村3#村东,北百泉村5#村北,","scope":"【影响街道/乡镇】梁格庄镇【高危重要客户】无【影响客户】梁格庄村、王贾庄村、西大地村、张各庄村、北百泉村、南石门村、石门店村","startTime":"2018-06-17 02:36:20","stopDate":"2018-06-17 10:00:00","orgNo":"1340625","typeCode":"电网故障停限电","poweroffArea":"【全线路停电】停梁格庄12#,南石门村1#村西,华路宾馆,王贾庄村5#村内,易县恒兴精密铸造有限公司,西大地村1#村南,西大地村5#村东,西大地村2#村北,南石门村8#村东,南石门村3#村内,石门店村5#村西南,南石门村6#村西,北百泉村2#村北,武装部,凤凰台1#【纯农排变】,张格庄村3#村东,南石门村7#村中,梁格庄村15#村东,南石门村李彦平变压器,南石门12台区,梁格庄9#,关春伟变压器,北百泉村5#村北,北百泉村6#村东,易县忆江南观赏鱼饲养场变压器,王宗保,西大地4#村东,南石门10号变压器,良格庄供电所,中国移动通讯集团河北有限公司易县分公司变压器,南石门村4#村南,梁格庄村扬水站4台区,南石门村9#村东【纯农排变】,易县西陵万亩林林场王晓明100KVA,龙湖开发区管理处(张来宾),太和庄村孙书珍变压器,崇陵(100KVA),河北省林业示范园西陵林场,南石门村5#村南,张格庄2#,梁格庄村3#村西,万亩林,行宫招待所,省良种厂西陵分厂,清西陵文物管理处,南石门13#,南石门村苑爱忠变压器,南石门11台区,西大地3#村西,张格庄村1#村内,梁格庄村2#村东,石门店8#台区,南石门村2#村西","poweroffReason":"【停电原因】由于大风天气树砸断主线导致１１０ＫＶ西陵变电站夏庄５２６线路全线停电【变更送电】无【发布渠道】通过９５５９８发布","powerTime":"2018-06-17 09:09:23","powerComm":"已送电","subsNo":"","lineNo":"","tgNo":"","tgName":null,"infoStatus":"1","orgName":"国网易县供电公司","typeName":null,"infoStatusName":null,"dateDay":null,"orgNos":null,"nowTime":null,"countyName":null,"streetName":null,"villageName":null,"roadName":null,"communityName":null,"tranName":null,"sdLineName":null,"cityCode":"1340625","cityName":"国网易县供电公司","provinceCode":null,"stopTime":"2018-06-17 10:00:00","powerType":"全部","powerOffArea":"【全线路停电】停梁格庄12#,南石门村1#村西,华路宾馆,王贾庄村5#村内,易县恒兴精密铸造有限公司,西大地村1#村南,西大地村5#村东,西大地村2#村北,南石门村8#村东,南石门村3#村内,石门店村5#村西南,南石门村6#村西,北百泉村2#村北,武装部,凤凰台1#【纯农排变】,张格庄村3#村东,南石门村7#村中,梁格庄村15#村东,南石门村李彦平变压器,南石门12台区,梁格庄9#,关春伟变压器,北百泉村5#村北,北百泉村6#村东,易县忆江南观赏鱼饲养场变压器,王宗保,西大地4#村东,南石门10号变压器,良格庄供电所,中国移动通讯集团河北有限公司易县分公司变压器,南石门村4#村南,梁格庄村扬水站4台区,南石门村9#村东【纯农排变】,易县西陵万亩林林场王晓明100KVA,龙湖开发区管理处(张来宾),太和庄村孙书珍变压器,崇陵(100KVA),河北省林业示范园西陵林场,南石门村5#村南,张格庄2#,梁格庄村3#村西,万亩林,行宫招待所,省良种厂西陵分厂,清西陵文物管理处,南石门13#,南石门村苑爱忠变压器,南石门11台区,西大地3#村西,张格庄村1#村内,梁格庄村2#村东,石门店8#台区,南石门村2#村西","powerOffReason":"【停电原因】由于大风天气树砸断主线导致１１０ＫＶ西陵变电站夏庄５２６线路全线停电【变更送电】无【发布渠道】通过９５５９８发布","powerOffId":"2018061713000012"},{"poweroffId":2018061713000003,"sgpoweroffId":null,"subsName":"","lineName":"10kV528城工线","pubTranName":"东庄村东综合8946,东庄1550|20001550,委家关8980|20008980,劳动就业局,东街1430|20001430,王家关村北新增综合5398,东庄综合,东关路灯（北）,西显阳西北新增综合1395【纯农排变】,中医院宿舍0940|20000940,蔡家关1570|20001570,西显阳村南新增综合2997,北城2（1830）|20001830,东街1440#农排|20001440【纯农排变】,水利局宿舍1970|20001970,公安北4790|20004790,东关北1990|20001990,东街4500#农排|20004500【纯农排变】,东关路灯（南）,西显阳北1620|20001620,国税局2130|20002130,药监局路灯,委家关新增综合2998,东关1270#农排|20001270【纯农排变】,变压器800,劳动就业局0950|20000950,东街北1410|20001410,工商行宿舍7830|20007830,西显阳大队边综合2996,东关1540#农排|20001540【纯农排变】,东街新台区9340|20009340,工商行,蔡家关10250|20010250,鸿阳饭店,显阳地1630#农业|20001630【纯农排变】,教育局,武装部宿舍1870|20001870,李兰锁528,蔡家关1590|20001590,北城1（0980）|20000980,局办公楼混用箱变配电变压器,保定市天辰地产开发有限公司,北街东新增综合1403,东关南1500|20001500,东关新综合8852,东庄羊厂9520#农业|20009520【纯农排变】,烟草宿舍2190|20002190,顺平县欣荣物业管理有限公司800,税务局,公安局,王家关1470#农排|20001470【纯农排变】,木易春,南城1（3930）|20003930,电力4760|20004760,委家关1600|20001600,周家关宿舍1490|20001490,东关4690#农排|20004690【纯农排变】,木兰饭店,东庄1560#农排|20001560【纯农排变】,中医院,西显阳10100|20010100,周家关1580|20001580,工行2,东关村北新增综合8951,东关1520#农排|20001520【纯农排变】,尧乡宿舍1220|20001220,箱变,1600箱变,商委小区1320|20001320,顺平县人民政府,东庄鸡厂7810#农业|20007810【纯农排变】,变压器,东街南1420|20001420,王家关1480|20001480,变压器630,公安村2120|20002120,东街煤厂1690#农排|20001690【纯农排变】,中心社1080|20001080,北街薛家岸1750|20001750,浓业局宿舍1950|20001950,交通局1250|20001250,李春建,水塔,王家关10110|20010110,天地好人商场,西显阳南1610|20001610,学府花园,河北省烟草公司保定市公司,药监局宿舍9578,蔡家关4480#农排|20004480【纯农排变】,","scope":"【影响街道/乡镇】木兰东街、蒲阳镇【高危重要客户】无【影响客户】东关、东街村、东庄、周家关、蔡家关、委家关、南城、学府花园、玫瑰园、公安局、工行、工行宿舍、旧交通局宿舍楼、烟草公司、烟草宿舍楼、教育局、植物园、中医院、金万福商场、就业局家属楼、工商行、鸿阳饭店、疾控中心、中心社、商委小区、公安村、税务局家属院","startTime":"2018-06-17 00:45:12","stopDate":"2018-06-17 08:00:00","orgNo":"1340621","typeCode":"电网故障停限电","poweroffArea":"【分支停电】停国税局2130|20002130,蔡家关4480#农排|20004480【纯农排变】,1600箱变,东关南1500|20001500,药监局路灯,东关1520#农排|20001520【纯农排变】,商委小区1320|20001320,东关路灯（南）,委家关新增综合2998,东街北1410|20001410,顺平县人民政府,木易春,东关1270#农排|20001270【纯农排变】,工商行宿舍7830|20007830","poweroffReason":"【停电原因】由于李春建变压器烧毁导致１１０ＫＶ顺平变电站１０ＫＶ５２８城工线路２８号杆断路器以下停电【变更送电】无【发布渠道】通过９５５９８发布","powerTime":"2018-06-17 07:05:51","powerComm":"已送电","subsNo":"","lineNo":"","tgNo":"","tgName":null,"infoStatus":"1","orgName":"国网顺平县电力局","typeName":null,"infoStatusName":null,"dateDay":null,"orgNos":null,"nowTime":null,"countyName":null,"streetName":null,"villageName":null,"roadName":null,"communityName":null,"tranName":null,"sdLineName":null,"cityCode":"1340621","cityName":"国网顺平县电力局","provinceCode":null,"stopTime":"2018-06-17 08:00:00","powerType":"全部","powerOffArea":"【分支停电】停国税局2130|20002130,蔡家关4480#农排|20004480【纯农排变】,1600箱变,东关南1500|20001500,药监局路灯,东关1520#农排|20001520【纯农排变】,商委小区1320|20001320,东关路灯（南）,委家关新增综合2998,东街北1410|20001410,顺平县人民政府,木易春,东关1270#农排|20001270【纯农排变】,工商行宿舍7830|20007830","powerOffReason":"【停电原因】由于李春建变压器烧毁导致１１０ＫＶ顺平变电站１０ＫＶ５２８城工线路２８号杆断路器以下停电【变更送电】无【发布渠道】通过９５５９８发布","powerOffId":"2018061713000003"},{"poweroffId":2018061613000328,"sgpoweroffId":null,"subsName":"","lineName":"10kV百楼站513线路","pubTranName":"1西百楼内4号,","scope":"【影响街道/乡镇】百楼乡 【高危重要客户】无 【影响客户】西百楼","startTime":"2018-06-16 23:36:07","stopDate":"2018-06-17 08:10:00","orgNo":"1340618","typeCode":"电网故障停限电","poweroffArea":"【单台区停电】停1西百楼内4号","poweroffReason":"【停电原因】由于低压线烧毁导致１１０ＫＶ百楼变电站１０ＫＶ百楼线５１３线路１西百楼内４号公变台区停电 【变更送电】因抢修进度加快原因，送电时间由１０：３０变更为０８：１０ 【发布渠道】通过９５５９８发布","powerTime":"2018-06-17 07:39:12","powerComm":"陈薇通知已送电","subsNo":"","lineNo":"","tgNo":"","tgName":null,"infoStatus":"1","orgName":"国网清苑县供电公司","typeName":null,"infoStatusName":null,"dateDay":null,"orgNos":null,"nowTime":null,"countyName":null,"streetName":null,"villageName":null,"roadName":null,"communityName":null,"tranName":null,"sdLineName":null,"cityCode":"1340618","cityName":"国网清苑县供电公司","provinceCode":null,"stopTime":"2018-06-17 08:10:00","powerType":"全部","powerOffArea":"【单台区停电】停1西百楼内4号","powerOffReason":"【停电原因】由于低压线烧毁导致１１０ＫＶ百楼变电站１０ＫＶ百楼线５１３线路１西百楼内４号公变台区停电 【变更送电】因抢修进度加快原因，送电时间由１０：３０变更为０８：１０ 【发布渠道】通过９５５９８发布","powerOffId":"2018061613000328"},{"poweroffId":2018061613000326,"sgpoweroffId":null,"subsName":"","lineName":"河北线536","pubTranName":"南界安4#,南界安村2#,南界安村1#,","scope":"【影响街道/乡镇】塘湖镇 【高危重要客户】无 【影响客户】南界安村","startTime":"2018-06-19 05:00:00","stopDate":"2018-06-19 08:00:00","orgNo":"1340625","typeCode":"临时停电","poweroffArea":"【分支停电】停南界安4#,南界安村1#,南界安村2#","poweroffReason":"【停电原因】由于移动公司变压器新增线路梯接工程导致１１０ＫＶ塘湖变电站河北５３６线路００８号杆至００９号杆停电 【变更送电】无 【发布渠道】通过９５５９８发布","powerTime":"2018-06-19 07:10:56","powerComm":"已送电","subsNo":"","lineNo":"","tgNo":"","tgName":null,"infoStatus":"1","orgName":"国网易县供电公司","typeName":null,"infoStatusName":null,"dateDay":null,"orgNos":null,"nowTime":null,"countyName":null,"streetName":null,"villageName":null,"roadName":null,"communityName":null,"tranName":null,"sdLineName":null,"cityCode":"1340625","cityName":"国网易县供电公司","provinceCode":null,"stopTime":"2018-06-19 08:00:00","powerType":"全部","powerOffArea":"【分支停电】停南界安4#,南界安村1#,南界安村2#","powerOffReason":"【停电原因】由于移动公司变压器新增线路梯接工程导致１１０ＫＶ塘湖变电站河北５３６线路００８号杆至００９号杆停电 【变更送电】无 【发布渠道】通过９５５９８发布","powerOffId":"2018061613000326"},{"poweroffId":2018061613000316,"sgpoweroffId":null,"subsName":"","lineName":"河北线536","pubTranName":"北界安村4#【纯农排变】,北界安村3#,北界安村2#,","scope":"【影响街道/乡镇】塘湖镇 【高危重要客户】无 【影响客户】北界安村","startTime":"2018-06-19 04:30:00","stopDate":"2018-06-19 07:00:00","orgNo":"1340625","typeCode":"临时停电","poweroffArea":"【分支停电】停北界安村2#,北界安村3#,北界安村4#【纯农排变】","poweroffReason":"【停电原因】由于北界安村新增变压器工程导致１１０ＫＶ塘湖变电站河北５３６线路００１号杆０１号刀闸以下停电 【变更送电】无 【发布渠道】通过９５５９８发布","powerTime":"2018-06-19 06:55:08","powerComm":"已送电","subsNo":"","lineNo":"","tgNo":"","tgName":null,"infoStatus":"1","orgName":"国网易县供电公司","typeName":null,"infoStatusName":null,"dateDay":null,"orgNos":null,"nowTime":null,"countyName":null,"streetName":null,"villageName":null,"roadName":null,"communityName":null,"tranName":null,"sdLineName":null,"cityCode":"1340625","cityName":"国网易县供电公司","provinceCode":null,"stopTime":"2018-06-19 07:00:00","powerType":"全部","powerOffArea":"【分支停电】停北界安村2#,北界安村3#,北界安村4#【纯农排变】","powerOffReason":"【停电原因】由于北界安村新增变压器工程导致１１０ＫＶ塘湖变电站河北５３６线路００１号杆０１号刀闸以下停电 【变更送电】无 【发布渠道】通过９５５９８发布","powerOffId":"2018061613000316"},{"poweroffId":2018061613000309,"sgpoweroffId":null,"subsName":"","lineName":"南辛立庄线546","pubTranName":"河北中联塑胶科技发展有限公司,【纯农排变】黄湾村北水利1,南辛立庄东,南辛立庄村南（公用）,河北中联银杉新材料有限公司,南辛立庄村西公用,河北中联化工有限公司,【纯农排变】南辛立庄1#水利公用,河北中联塑胶科技有限公司,南辛立庄5#公用,南辛立庄村村内（公用）,","scope":"【影响街道/乡镇】雄州镇 【高危重要客户】无 【影响客户】南辛立庄村","startTime":"2018-06-16 22:15:34","stopDate":"2018-06-17 13:00:00","orgNo":"1340624","typeCode":"电网故障停限电","poweroffArea":"【全线路停电】停河北中联银杉新材料有限公司,南辛立庄村村内（公用）,河北中联化工有限公司,【纯农排变】南辛立庄1#水利公用,南辛立庄村南（公用）,【纯农排变】黄湾村北水利1,南辛立庄5#公用,河北中联塑胶科技发展有限公司,南辛立庄东,南辛立庄村西公用,河北中联塑胶科技有限公司","poweroffReason":"【停电原因】由于Ｂ相接地导致１１０ＫＶ温泉城变电站南辛立庄线５４６线路全线停电 【变更送电】因抢修进度加快原因，送电时间由２２：００变更为１３：００ 【发布渠道】通过９５５９８发布","powerTime":"2018-06-17 12:07:33","powerComm":"已送电","subsNo":"","lineNo":"","tgNo":"","tgName":null,"infoStatus":"1","orgName":"(原)国网雄县供电公司","typeName":null,"infoStatusName":null,"dateDay":null,"orgNos":null,"nowTime":null,"countyName":null,"streetName":null,"villageName":null,"roadName":null,"communityName":null,"tranName":null,"sdLineName":null,"cityCode":"1340624","cityName":"(原)国网雄县供电公司","provinceCode":null,"stopTime":"2018-06-17 13:00:00","powerType":"全部","powerOffArea":"【全线路停电】停河北中联银杉新材料有限公司,南辛立庄村村内（公用）,河北中联化工有限公司,【纯农排变】南辛立庄1#水利公用,南辛立庄村南（公用）,【纯农排变】黄湾村北水利1,南辛立庄5#公用,河北中联塑胶科技发展有限公司,南辛立庄东,南辛立庄村西公用,河北中联塑胶科技有限公司","powerOffReason":"【停电原因】由于Ｂ相接地导致１１０ＫＶ温泉城变电站南辛立庄线５４６线路全线停电 【变更送电】因抢修进度加快原因，送电时间由２２：００变更为１３：００ 【发布渠道】通过９５５９８发布","powerOffId":"2018061613000309"},{"poweroffId":2018061613000300,"sgpoweroffId":null,"subsName":"","lineName":"10kV路灯线519","pubTranName":"保定市清苑区永兴仓储服务部,富强造纸厂,清苑县住房和城乡建设局,2北沟头外2【纯农排变】,保定明凯物资商贸有限公司,中冉砖厂,阮庄邮电局,清苑县文禄机械厂,金风帆电解液厂,菅进强养殖场,佳美汽车,保定市南市区众鑫机械厂,2北沟头外1【纯农排变】,清苑县通达物流有限公司,清苑县瑞意厢体制造有限公司,2北大冉外12【纯农排变】,付永会养殖厂,雷达站,保定市利源仓储服务有限公司,粮局直属库2,|保定市南市区天龙法兰厂,0387486116-保定市升源机械铸造有限公司-专变-131186099-|保定市升源机械铸造有限公司,2北沟头外6【纯农排变】,2北沟头外4【纯农排变】,清苑县强力砼业有限公司,保定市华光泰电气设备有限公司,2北沟头外3【纯农排变】,开关厂,保定市南市区佳诚食品厂,0387486552-保定市志诚电力实业有限责任公司-专变-45312458-志诚公司锅炉房,刘禄,保定市凯运公交客运有限公司,0555739644-保定市南市区东旭养殖场-专变-94782886-保定市南市区东旭养殖场,清苑县武装部,清苑县泽盛砼业有限公司,2北大冉外10【纯农排变】,中国石油化工股份有限公司河北清苑分公司,保定五味盉食品制造有限公司,2北沟头外5【纯农排变】,保定杜恒商贸有限公司,0627940185-保定市俊芝冷冻有限公司-专变-139784552-保定市俊芝冷冻有限公司,变压器,保定市冀庚机械制造有限公司,保定市清苑县恒泰造纸厂,保定市南市区正鑫机械加工厂,北沟头面粉厂,清苑县木光煤炭销售有限公司,省粮食储备库,粮局直属库1,北沟头柴文林,保定市鑫利源通物资有限公司,清苑县敬方机械厂,移动通讯清苑营业部,0627997530-清苑县木光煤炭销售有限公司-专变-139709518-清苑县木光煤炭加工销售有限公司,保定骤盛新能源科技有限公司,0565045922-保定市南市区北沟头五金厂-专变-118733691-保定市南市区北沟头五金厂,宋志强予制厂,2北沟头外8【纯农排变】,清苑县红旗管件有限公司,2北大冉外13【纯农排变】,安康,保定新星铁路配件有限公司,保定市南市区兰生冲件厂,东胜管件厂,大唐清苑热电有限公司,清苑县人民客运有限公司,2北沟头外7【纯农排变】,清苑国家粮食储备库,0628426754-清苑县长胜钢材经销处-专变-140690021-清苑县长胜钢材经销处,国库三号,三星废旧物资回收站,高平安,保定鑫福达工贸有限公司,复合肥厂,0632246050-保定市昌茂恒冠中空铝条机械制造有限公司-专变-144749053-清苑县冉鑫机械加工厂,0626424219-河北尊澳废品回收有限公司-专变-138805546-保定市帼琳物资有限公司,良种厂,2中冉外1【纯农排变】,0549289007-保定市沧龙不锈钢精密铸造有限公司-专变-156446870-保定市沧龙不锈钢精密铸造有限公司,2北大冉外11【纯农排变】,0553830257-清苑县住房和城乡建设局-专变-69378842-清苑县财政局,清苑县旗利砼业有限公司,保定市南市区精艺标准件棒材加工厂,保定市南市区宇通石油城第二加油站,保定市汇丰变压器有限公司,|北","scope":"【影响街道/乡镇】五尧乡、清苑镇 【高危重要客户】无 【影响客户】五尧乡政府、北沟头、北大冉、国家粮食储备库、志诚公司","startTime":"2018-06-16 22:04:39","stopDate":"2018-06-16 23:30:00","orgNo":"1340618","typeCode":"电网故障停限电","poweroffArea":"【全线路停电】停清苑县泽盛砼业有限公司,清苑县瑞意厢体制造有限公司,保定市南市区宇通石油城第二加油站,0627997530-清苑县木光煤炭销售有限公司-专变-139709518-清苑县木光煤炭加工销售有限公司,2中冉外1【纯农排变】,2北大冉外12【纯农排变】,0387486552-保定市志诚电力实业有限责任公司-专变-45312458-志诚公司锅炉房,保定骤盛新能源科技有限公司,0549289007-保定市沧龙不锈钢精密铸造有限公司-专变-156446870-保定市沧龙不锈钢精密铸造有限公司,清苑县通达物流有限公司,刘禄,付永会养殖厂,2北大冉外11【纯农排变】,0565045922-保定市南市区北沟头五金厂-专变-118733691-保定市南市区北沟头五金厂,保定畅隆铸造有限公司,变压器,雷达站,宋志强予制厂,保定市凯运公交客运有限公司,富强造纸厂,0553830257-清苑县住房和城乡建设局-专变-69378842-清苑县财政局,2北沟头外8【纯农排变】,保定明凯物资商贸有限公司,清苑县住房和城乡建设局,清苑县红旗管件有限公司,保定市冀庚机械制造有限公司,2北大冉外13【纯农排变】,2北沟头外2【纯农排变】,保定市清苑区永兴仓储服务部,保定市清苑县恒泰造纸厂,安康,中冉砖厂,0555739644-保定市南市区东旭养殖场-专变-94782886-保定市南市区东旭养殖场,保定市利源仓储服务有限公司,清苑县旗利砼业有限公司,保定新星铁路配件有限公司,清苑县武装部,保定市南市区兰生冲件厂,保定市南市区精艺标准件棒材加工厂,2北大冉外10【纯农排变】,保定市南市区正鑫机械加工厂,阮庄邮电局,北沟头面粉厂,良种厂,保定市南市区佳诚食品厂,清苑县文禄机械厂,保定鑫福达工贸有限公司,清苑县木光煤炭销售有限公司,清苑县强力砼业有限公司,省粮食储备库,金风帆电解液厂,粮局直属库1,粮局直属库2,菅进强养殖场,东胜管件厂,北沟头柴文林,|保定市南市区天龙法兰厂,大唐清苑热电有限公司,佳美汽车,清苑县人民客运有限公司,保定市鑫利源通物资有限公司,2北沟头外7【纯农排变】,0387486116-保定市升源机械铸造有限公司-专变-131186099-|保定市升源机械铸造有限公司,保定市南市区众鑫机械厂,清苑国家粮食储备库,清苑县敬方机械厂,0628426754-清苑县长胜钢材经销处-专变-140690021-清苑县长胜钢材经销处,2北沟头外1【纯农排变】,国库三号,移动通讯清苑营业部,2北沟头外6【纯农排变】,保定市汇丰变压器有限公司,三星废旧物资回收站,高平安,中国石油化工股份有限公司河北清苑分公司,|北沟头贾立云,保定五味盉食品制造有限公司,复合肥厂,0387486321-省库-专变-45312501-省库,2北沟头外4【纯农排变】,2北沟头外5【纯农排变】,保定市华光泰电气设备有限公司,0677790570-保定市莲池区风顺废旧金属回收站-专变-219462746-保定市莲池区顺废旧金属回收站,0632246050-保定市昌茂恒冠中空铝条机械制造有限公司-专变-144749053-清苑县冉鑫机械加工厂,保定杜恒商贸有限公司,2北沟头外3【纯农排变】,清苑县源邦搬运站,0626424219-河北尊澳废品回收有限公司-专变-138805546-保定市帼琳物资有限公司,0627940185-保定市俊芝冷冻有限公司-专变-139784552-保定市俊芝冷冻有限公司,开关厂","poweroffReason":"【停电原因】由于主干２８号杆Ｔ１号杆中国移动变压器烧毁导致１１０ＫＶ阮庄变电站１０ＫＶ路灯线５１９线路全线停电 【变更送电】因抢修进度加快原因，送电时间由１７日０８：００变更为１６日２３：３０ 【发布渠道】通过９５５９８发布","powerTime":"2018-06-16 22:57:39","powerComm":"李海娟通知已送电","subsNo":"","lineNo":"","tgNo":"","tgName":null,"infoStatus":"1","orgName":"国网清苑县供电公司","typeName":null,"infoStatusName":null,"dateDay":null,"orgNos":null,"nowTime":null,"countyName":null,"streetName":null,"villageName":null,"roadName":null,"communityName":null,"tranName":null,"sdLineName":null,"cityCode":"1340618","cityName":"国网清苑县供电公司","provinceCode":null,"stopTime":"2018-06-16 23:30:00","powerType":"全部","powerOffArea":"【全线路停电】停清苑县泽盛砼业有限公司,清苑县瑞意厢体制造有限公司,保定市南市区宇通石油城第二加油站,0627997530-清苑县木光煤炭销售有限公司-专变-139709518-清苑县木光煤炭加工销售有限公司,2中冉外1【纯农排变】,2北大冉外12【纯农排变】,0387486552-保定市志诚电力实业有限责任公司-专变-45312458-志诚公司锅炉房,保定骤盛新能源科技有限公司,0549289007-保定市沧龙不锈钢精密铸造有限公司-专变-156446870-保定市沧龙不锈钢精密铸造有限公司,清苑县通达物流有限公司,刘禄,付永会养殖厂,2北大冉外11【纯农排变】,0565045922-保定市南市区北沟头五金厂-专变-118733691-保定市南市区北沟头五金厂,保定畅隆铸造有限公司,变压器,雷达站,宋志强予制厂,保定市凯运公交客运有限公司,富强造纸厂,0553830257-清苑县住房和城乡建设局-专变-69378842-清苑县财政局,2北沟头外8【纯农排变】,保定明凯物资商贸有限公司,清苑县住房和城乡建设局,清苑县红旗管件有限公司,保定市冀庚机械制造有限公司,2北大冉外13【纯农排变】,2北沟头外2【纯农排变】,保定市清苑区永兴仓储服务部,保定市清苑县恒泰造纸厂,安康,中冉砖厂,0555739644-保定市南市区东旭养殖场-专变-94782886-保定市南市区东旭养殖场,保定市利源仓储服务有限公司,清苑县旗利砼业有限公司,保定新星铁路配件有限公司,清苑县武装部,保定市南市区兰生冲件厂,保定市南市区精艺标准件棒材加工厂,2北大冉外10【纯农排变】,保定市南市区正鑫机械加工厂,阮庄邮电局,北沟头面粉厂,良种厂,保定市南市区佳诚食品厂,清苑县文禄机械厂,保定鑫福达工贸有限公司,清苑县木光煤炭销售有限公司,清苑县强力砼业有限公司,省粮食储备库,金风帆电解液厂,粮局直属库1,粮局直属库2,菅进强养殖场,东胜管件厂,北沟头柴文林,|保定市南市区天龙法兰厂,大唐清苑热电有限公司,佳美汽车,清苑县人民客运有限公司,保定市鑫利源通物资有限公司,2北沟头外7【纯农排变】,0387486116-保定市升源机械铸造有限公司-专变-131186099-|保定市升源机械铸造有限公司,保定市南市区众鑫机械厂,清苑国家粮食储备库,清苑县敬方机械厂,0628426754-清苑县长胜钢材经销处-专变-140690021-清苑县长胜钢材经销处,2北沟头外1【纯农排变】,国库三号,移动通讯清苑营业部,2北沟头外6【纯农排变】,保定市汇丰变压器有限公司,三星废旧物资回收站,高平安,中国石油化工股份有限公司河北清苑分公司,|北沟头贾立云,保定五味盉食品制造有限公司,复合肥厂,0387486321-省库-专变-45312501-省库,2北沟头外4【纯农排变】,2北沟头外5【纯农排变】,保定市华光泰电气设备有限公司,0677790570-保定市莲池区风顺废旧金属回收站-专变-219462746-保定市莲池区顺废旧金属回收站,0632246050-保定市昌茂恒冠中空铝条机械制造有限公司-专变-144749053-清苑县冉鑫机械加工厂,保定杜恒商贸有限公司,2北沟头外3【纯农排变】,清苑县源邦搬运站,0626424219-河北尊澳废品回收有限公司-专变-138805546-保定市帼琳物资有限公司,0627940185-保定市俊芝冷冻有限公司-专变-139784552-保定市俊芝冷冻有限公司,开关厂","powerOffReason":"【停电原因】由于主干２８号杆Ｔ１号杆中国移动变压器烧毁导致１１０ＫＶ阮庄变电站１０ＫＶ路灯线５１９线路全线停电 【变更送电】因抢修进度加快原因，送电时间由１７日０８：００变更为１６日２３：３０ 【发布渠道】通过９５５９８发布","powerOffId":"2018061613000300"},{"poweroffId":2018061613000297,"sgpoweroffId":null,"subsName":"","lineName":"台北线513","pubTranName":"曲阳县颖硕石材雕刻厂变压器,沙道西2区变压器,沙道西3区配电变压器,曲阳县奉华雕刻厂2,申台北（申全喜）,0000005982穆台北东区变压器,东邸村中区配电变压器,曲阳县台北铜石工艺雕刻厂变压器,东诸侯西南农变压器【纯农排变】,0012735112北东郭东2区变压器,曲阳县向亮石材雕刻厂,北东郭东北农3变压器【纯农排变】,东邸村小学变压器【煤改电】,0012735910穆台北西2区变压器,申台北申志会,穆台北农灌变压器,曲阳县鹏超石材雕刻厂1,0000004715南东郭西区变压器,曲阳县丰硕石材雕塑有限公司变压器,穆台北威利石材雕刻厂,北东郭邢二占,北东郭村董建朝,刘瑞普,曲阳县艺仁雕刻厂变压器,0000006751王台北西区变压器,石艺有限公司,0672452493-曲阳县志朝石材销售处-专变-213879174-曲阳县志朝石材销售处变压器,0000006074东邸村农一变压器【纯农排变】,0000006075东邸村农二变压器【纯农排变】,曲阳县申台北同章石材雕刻厂,0012330757东邸村南区变压器,0012887521北东郭西南区变压器,曲阳县鑫超雕刻厂变压器,王台北西,曲阳县点铖石材有限公司变压器,永庄石板厂,曲阳县长兴雕刻厂变压器,0000006084东邸村农十一变压器【纯农排变】,穆立光石材加工厂,曲阳县恒通石材雕刻厂,北东郭北农1变压器,曲阳县华冠石材雕刻厂2,台北幼儿园变压器【煤改电】,王台北小学变压器【煤改电】,鑫达石材雕刻厂,东邸村乡东邸村委会（东）,0000005858东邸村统管变压器,东邸村中学变压器【煤改电】,曲阳县峰凯艺术雕刻厂变压器,鹏超石材雕刻厂,王台北开发区石材雕刻厂,0000004727北东郭西区变压器,曲阳县吉大博硕石材雕刻厂,王台北晶华雕刻厂,0000005433东邸村东区变压器,曲阳县明正石木雕刻厂变压器,0000005762北东郭统管东南农变压器【纯农排变】,张会龙石板厂（1）,曲阳县中原雕刻石材有限公司变压器,0000004537王台北村变压器,曲阳县全军石材加工销售处变压器,王台北村南,0012135558王台北统管南区变压器,北东郭小学变压器【煤改电】,0000004535穆台北西变压器,0000006406南东郭农6变压器,邸村乡政府变压器【煤改电】,华通胶业,0012735171南东郭西3变压器,曲阳县兴龙艺术雕刻厂变压器,南东郭刘占周,0012735908王台北北区变压器,曲阳县华龙雕刻有限公司(2),0000006231南东郭农1变压器【纯农排变】,0000006077东邸村农四变压器,0000005596申台北统管变压器,穆台北张洪波1#,南东郭西1区变压器,曲阳县王台北建筑工艺雕刻厂变压器,曲阳县胜龙石材雕刻厂2,0000006366南东郭农7变压器【纯农排变】,0000006123南东郭西区（2）变压器,穆会明石板厂,曲阳县君友石材雕刻厂变压器,曲阳县永顺雕塑石材加工厂,王晓丽,0000006628南东郭农8号变压器,邢增道,0000006316北东郭西2变压器,0012887524东邸村西北区变压器,邸村卫生院变压器【煤改电】,文德乡王台北农灌,穆台","scope":"【影响街道/乡镇】邸村乡【高危重要客户】无【影响客户】王台北、南东郭、北东郭、东邸村、穆台北、沙道、申台北、文德、东诸侯南","startTime":"2018-06-16 22:05:00","stopDate":"2018-06-16 23:30:00","orgNo":"1340619","typeCode":"电网故障停限电","poweroffArea":"【全线路停电】停曲阳县胜龙石材雕刻厂2,东诸侯东南农变压器【纯农排变】,曲阳县吉大博硕石材雕刻厂,曲阳县园鑫石材加工厂变压器,南东郭西1区变压器,0000006074东邸村农一变压器【纯农排变】,王台北西,0000005858东邸村统管变压器,邸村乡政府变压器【煤改电】,0000006751王台北西区变压器,北东郭北区,穆台北穆立浩,0013240893北东郭东北农2号变压器【纯农排变】,0000006366南东郭农7变压器【纯农排变】,曲阳县长兴雕刻厂变压器,0000006405南东郭农5变压器【纯农排变】,申台北申志会,0000005982穆台北东区变压器,沙道西3区配电变压器,石艺有限公司,曲阳县点铖石材有限公司变压器,王台北晶华雕刻厂,0000006429东诸侯南农变压器,0000006316北东郭西2变压器,东邸村中学变压器【煤改电】,0012918843王台北西北农变压器【纯农排变】,0000006123南东郭西区（2）变压器,0000006075东邸村农二变压器【纯农排变】,0000006404南东郭农4变压器【纯农排变】,0014309383北东郭东农变压器,台北幼儿园变压器【煤改电】,0000005433东邸村东区变压器,0000004534沙道村变压器,王台北大理石雕刻厂,王台北村南,东邸村东2区变压器,0012735171南东郭西3变压器,曲阳县京磊雕塑石材有限公司2,曲阳县穆台北环艺雕刻厂变压器,0012735910穆台北西2区变压器,穆台北三龙雕刻厂,0012887524东邸村西北区变压器,东邸村中区配电变压器,0000006084东邸村农十一变压器【纯农排变】,0012735908王台北北区变压器,王台北小学变压器【煤改电】,曲阳县丰硕石材雕塑有限公司变压器,南东郭小学变压器【煤改电】,张会龙石板厂（1）,曲阳县奇新石材销售部变压器,穆台北农灌变压器,曲阳县向亮石材雕刻厂,曲阳县明正石木雕刻厂变压器,曲阳县华龙雕刻有限公司(2),0469464809文德乡王台北农灌变压器,穆立光石材加工厂,胜龙石材雕刻厂,邸村卫生院变压器【煤改电】,华通胶业,曲阳县超磊工艺雕刻厂,穆台北南农变压器,曲阳县华冠石材雕刻厂2,曲阳县兴龙艺术雕刻厂变压器,0000006077东邸村农四变压器,曲阳县立根石材加工厂,河北省曲阳县台北工美雕刻厂,曲阳县鹏超石材雕刻厂1,曲阳县翠林工艺雕刻厂,0000005763穆台北统管东北农变压器【纯农排变】,0000006693南东郭农9号变压器,0000006232南东郭农2变压器【纯农排变】,申台北变压器,东诸侯西南农变压器【纯农排变】,文德乡王台北农灌,永庄石板厂,0000004537王台北村变压器,0000006231南东郭农1变压器【纯农排变】,南东郭刘占周,0000006752沙道西区变压器,曲阳县永顺雕塑石材加工厂,0000004715南东郭西区变压器,刘瑞普,王台北东农,穆台北光明工艺雕刻厂,申台北（申全喜）,0000005583文德供电所统管变压器,穆会明石板厂,东邸村乡东邸村委会（东）,曲阳县全军石材加工销售处变压器,王台北王建功石材厂,0012735112北东郭东2区变压器,王立强,曲阳县恒威石材经销部变压器,曲阳县穆台北理石工艺美术雕刻厂,穆台北威利石材雕刻厂,曲阳县双文石材雕刻厂变压器,0000006628南东郭农8号变压器,0000005818穆台北统管东南农变压器【纯农排变】,曲阳县奉华石材雕刻厂,鹏超石材雕刻厂,0000005847南东郭东北农3变压器【纯农排变】,曲阳县王台北建筑工艺雕刻厂变压器,申台北申玉坡石板厂,0012330757东邸村南区变压器,0012135558王台北统管南区变压器,曲阳县峰凯艺术雕刻厂变压器,曲阳县恒通石材雕刻厂,0013144430南东郭中区变压器,北东郭邢二占,曲阳县奉华雕刻厂2,0014338562南东郭农10变压器【纯农排变】,沙道东区变压器,北东郭小学变压器【煤改电】,0672452493-曲阳县志朝石材销售处-专变-","poweroffReason":"【停电原因】由于线路Ａ相接地导致３５ＫＶ邸村变电站１０ＫＶ台北线５１３线路全线停电【变更送电】因抢修进度加快原因，送电时间由１７日１１：００变更１６日２３：３０【发布渠道】通过９５５９８发布","powerTime":"2018-06-16 23:13:53","powerComm":"已送电","subsNo":"","lineNo":"","tgNo":"","tgName":null,"infoStatus":"1","orgName":"国网曲阳县供电公司","typeName":null,"infoStatusName":null,"dateDay":null,"orgNos":null,"nowTime":null,"countyName":null,"streetName":null,"villageName":null,"roadName":null,"communityName":null,"tranName":null,"sdLineName":null,"cityCode":"1340619","cityName":"国网曲阳县供电公司","provinceCode":null,"stopTime":"2018-06-16 23:30:00","powerType":"全部","powerOffArea":"【全线路停电】停曲阳县胜龙石材雕刻厂2,东诸侯东南农变压器【纯农排变】,曲阳县吉大博硕石材雕刻厂,曲阳县园鑫石材加工厂变压器,南东郭西1区变压器,0000006074东邸村农一变压器【纯农排变】,王台北西,0000005858东邸村统管变压器,邸村乡政府变压器【煤改电】,0000006751王台北西区变压器,北东郭北区,穆台北穆立浩,0013240893北东郭东北农2号变压器【纯农排变】,0000006366南东郭农7变压器【纯农排变】,曲阳县长兴雕刻厂变压器,0000006405南东郭农5变压器【纯农排变】,申台北申志会,0000005982穆台北东区变压器,沙道西3区配电变压器,石艺有限公司,曲阳县点铖石材有限公司变压器,王台北晶华雕刻厂,0000006429东诸侯南农变压器,0000006316北东郭西2变压器,东邸村中学变压器【煤改电】,0012918843王台北西北农变压器【纯农排变】,0000006123南东郭西区（2）变压器,0000006075东邸村农二变压器【纯农排变】,0000006404南东郭农4变压器【纯农排变】,0014309383北东郭东农变压器,台北幼儿园变压器【煤改电】,0000005433东邸村东区变压器,0000004534沙道村变压器,王台北大理石雕刻厂,王台北村南,东邸村东2区变压器,0012735171南东郭西3变压器,曲阳县京磊雕塑石材有限公司2,曲阳县穆台北环艺雕刻厂变压器,0012735910穆台北西2区变压器,穆台北三龙雕刻厂,0012887524东邸村西北区变压器,东邸村中区配电变压器,0000006084东邸村农十一变压器【纯农排变】,0012735908王台北北区变压器,王台北小学变压器【煤改电】,曲阳县丰硕石材雕塑有限公司变压器,南东郭小学变压器【煤改电】,张会龙石板厂（1）,曲阳县奇新石材销售部变压器,穆台北农灌变压器,曲阳县向亮石材雕刻厂,曲阳县明正石木雕刻厂变压器,曲阳县华龙雕刻有限公司(2),0469464809文德乡王台北农灌变压器,穆立光石材加工厂,胜龙石材雕刻厂,邸村卫生院变压器【煤改电】,华通胶业,曲阳县超磊工艺雕刻厂,穆台北南农变压器,曲阳县华冠石材雕刻厂2,曲阳县兴龙艺术雕刻厂变压器,0000006077东邸村农四变压器,曲阳县立根石材加工厂,河北省曲阳县台北工美雕刻厂,曲阳县鹏超石材雕刻厂1,曲阳县翠林工艺雕刻厂,0000005763穆台北统管东北农变压器【纯农排变】,0000006693南东郭农9号变压器,0000006232南东郭农2变压器【纯农排变】,申台北变压器,东诸侯西南农变压器【纯农排变】,文德乡王台北农灌,永庄石板厂,0000004537王台北村变压器,0000006231南东郭农1变压器【纯农排变】,南东郭刘占周,0000006752沙道西区变压器,曲阳县永顺雕塑石材加工厂,0000004715南东郭西区变压器,刘瑞普,王台北东农,穆台北光明工艺雕刻厂,申台北（申全喜）,0000005583文德供电所统管变压器,穆会明石板厂,东邸村乡东邸村委会（东）,曲阳县全军石材加工销售处变压器,王台北王建功石材厂,0012735112北东郭东2区变压器,王立强,曲阳县恒威石材经销部变压器,曲阳县穆台北理石工艺美术雕刻厂,穆台北威利石材雕刻厂,曲阳县双文石材雕刻厂变压器,0000006628南东郭农8号变压器,0000005818穆台北统管东南农变压器【纯农排变】,曲阳县奉华石材雕刻厂,鹏超石材雕刻厂,0000005847南东郭东北农3变压器【纯农排变】,曲阳县王台北建筑工艺雕刻厂变压器,申台北申玉坡石板厂,0012330757东邸村南区变压器,0012135558王台北统管南区变压器,曲阳县峰凯艺术雕刻厂变压器,曲阳县恒通石材雕刻厂,0013144430南东郭中区变压器,北东郭邢二占,曲阳县奉华雕刻厂2,0014338562南东郭农10变压器【纯农排变】,沙道东区变压器,北东郭小学变压器【煤改电】,0672452493-曲阳县志朝石材销售处-专变-","powerOffReason":"【停电原因】由于线路Ａ相接地导致３５ＫＶ邸村变电站１０ＫＶ台北线５１３线路全线停电【变更送电】因抢修进度加快原因，送电时间由１７日１１：００变更１６日２３：３０【发布渠道】通过９５５９８发布","powerOffId":"2018061613000297"}],"pageModel":{"pageNow":980,"totalCount":10973,"totalPage":1098,"tableRows":0,"pageCount":10,"beginCount":9790},"isExperi":"1"}