{"message":"","today":"2020-06-15","seleList":[{"poweroffId":2018061613000296,"sgpoweroffId":null,"subsName":"","lineName":"东环北路线515","pubTranName":"唐县兴业房地产有限公司,北庄子村东0087,北京鸿祥兴泰房地产开发有限公司#4874,","scope":"【影响街道/乡镇】仁厚镇、中山北大街【高危重要客户】无【影响客户】北庄子村东、广安佳苑","startTime":"2018-06-19 07:00:00","stopDate":"2018-06-19 18:00:00","orgNo":"1340622","typeCode":"临时停电","poweroffArea":"【分支停电】停北庄子村东0087,唐县兴业房地产有限公司,北京鸿祥兴泰房地产开发有限公司#4874","poweroffReason":"【停电原因】由于更换导线导致３５ＫＶ城关变电站东环北路线５１５线路北庄子分支００１号杆以下线路停电【变更送电】因工作进度加快原因，送电时间由 １９：００变更为 １８：００【发布渠道】通过９５５９８发布","powerTime":"2018-06-19 17:43:32","powerComm":"已送电","subsNo":"","lineNo":"","tgNo":"","tgName":null,"infoStatus":"1","orgName":"国网唐县供电公司","typeName":null,"infoStatusName":null,"dateDay":null,"orgNos":null,"nowTime":null,"countyName":null,"streetName":null,"villageName":null,"roadName":null,"communityName":null,"tranName":null,"sdLineName":null,"cityCode":"1340622","cityName":"国网唐县供电公司","provinceCode":null,"stopTime":"2018-06-19 18:00:00","powerType":"全部","powerOffArea":"【分支停电】停北庄子村东0087,唐县兴业房地产有限公司,北京鸿祥兴泰房地产开发有限公司#4874","powerOffReason":"【停电原因】由于更换导线导致３５ＫＶ城关变电站东环北路线５１５线路北庄子分支００１号杆以下线路停电【变更送电】因工作进度加快原因，送电时间由 １９：００变更为 １８：００【发布渠道】通过９５５９８发布","powerOffId":"2018061613000296"},{"poweroffId":2018061613000267,"sgpoweroffId":null,"subsName":"","lineName":"10kV百楼站512线路","pubTranName":"10kVY0059.Y0060.Y0061配电室Y0061配电变压器,0549119573-保定坤舆物业管理有限公司-1#专变,0356331618-保定坤舆物业管理有限公司-1-配电室-变压器-1,0700320558-保定隆信房地产开发有限公司-专变2,10kVY0059.Y0060.Y0061配电室Y0060配电变压器,10kVY0059.Y0060.Y0061配电室Y0059配电变压器,0356331618-保定坤舆物业管理有限公司-1-配电室-变压器-7,0356331618-保定坤舆物业管理有限公司-1-配电室-变压器-6,0700320558-保定隆信房地产开发有限公司-专变4,0356331618-保定坤舆物业管理有限公司-1-配电室-变压器-2,0356331618-保定坤舆物业管理有限公司-1-配电室-变压器-5,0356331618-保定坤舆物业管理有限公司-1-配电室-变压器-4,0356331618-保定坤舆物业管理有限公司-1-配电室-变压器-3,0700320558-保定隆信房地产开发有限公司-专变3,0700320558-保定隆信房地产开发有限公司-专变1,0356331618-保定坤舆物业管理有限公司-1-配电室-变压器-8,","scope":"【影响街道/乡镇】七一东路、龙飞路 【高危重要客户】河大新校区、河大新生活区 【影响客户】坤舆德翰园公寓","startTime":"2018-06-16 18:10:11","stopDate":"2018-06-16 19:15:25","orgNo":"13406","typeCode":"电网故障停限电","poweroffArea":"【全线路停电】停0700320558-保定隆信房地产开发有限公司-专变3,0700320558-保定隆信房地产开发有限公司-专变4,0356331618-保定坤舆物业管理有限公司-1-配电室-变压器-6,0700320558-保定隆信房地产开发有限公司-专变1,10kVY0059.Y0060.Y0061配电室Y0060配电变压器,0700320558-保定隆信房地产开发有限公司-专变2,0356331618-保定坤舆物业管理有限公司-1-配电室-变压器-4,0549119573-保定坤舆物业管理有限公司-1#专变,0356331618-保定坤舆物业管理有限公司-1-配电室-变压器-1,0356331618-保定坤舆物业管理有限公司-1-配电室-变压器-7,10kVY0059.Y0060.Y0061配电室Y0059配电变压器,0356331618-保定坤舆物业管理有限公司-1-配电室-变压器-2,0356331618-保定坤舆物业管理有限公司-1-配电室-变压器-8,10kVY0059.Y0060.Y0061配电室Y0061配电变压器,0356331618-保定坤舆物业管理有限公司-1-配电室-变压器-3,0356331618-保定坤舆物业管理有限公司-1-配电室-变压器-5","poweroffReason":"【停电原因】由于用户设备原因导致１０ＫＶ百楼变电站５１２线路全线停电【变更送电】因抢修进度加快，原定２２:４０送电现计划１９:１５送电。【发布渠道】通过９５５９８发布","powerTime":"2018-06-16 19:14:40","powerComm":"已送电","subsNo":"","lineNo":"","tgNo":"","tgName":null,"infoStatus":"1","orgName":"保定供电公司","typeName":null,"infoStatusName":null,"dateDay":null,"orgNos":null,"nowTime":null,"countyName":null,"streetName":null,"villageName":null,"roadName":null,"communityName":null,"tranName":null,"sdLineName":null,"cityCode":"13406","cityName":"保定供电公司","provinceCode":null,"stopTime":"2018-06-16 19:15:25","powerType":"全部","powerOffArea":"【全线路停电】停0700320558-保定隆信房地产开发有限公司-专变3,0700320558-保定隆信房地产开发有限公司-专变4,0356331618-保定坤舆物业管理有限公司-1-配电室-变压器-6,0700320558-保定隆信房地产开发有限公司-专变1,10kVY0059.Y0060.Y0061配电室Y0060配电变压器,0700320558-保定隆信房地产开发有限公司-专变2,0356331618-保定坤舆物业管理有限公司-1-配电室-变压器-4,0549119573-保定坤舆物业管理有限公司-1#专变,0356331618-保定坤舆物业管理有限公司-1-配电室-变压器-1,0356331618-保定坤舆物业管理有限公司-1-配电室-变压器-7,10kVY0059.Y0060.Y0061配电室Y0059配电变压器,0356331618-保定坤舆物业管理有限公司-1-配电室-变压器-2,0356331618-保定坤舆物业管理有限公司-1-配电室-变压器-8,10kVY0059.Y0060.Y0061配电室Y0061配电变压器,0356331618-保定坤舆物业管理有限公司-1-配电室-变压器-3,0356331618-保定坤舆物业管理有限公司-1-配电室-变压器-5","powerOffReason":"【停电原因】由于用户设备原因导致１０ＫＶ百楼变电站５１２线路全线停电【变更送电】因抢修进度加快，原定２２:４０送电现计划１９:１５送电。【发布渠道】通过９５５９８发布","powerOffId":"2018061613000267"},{"poweroffId":2018061613000234,"sgpoweroffId":null,"subsName":"","lineName":"10kV白团线515","pubTranName":"1白团南街内2,白团东街外2【纯农排变】,2白团南街外5【纯农排变】,2北白团外3【纯农排变】,2白团南街外4【纯农排变】,1北白团内2,2北白团外7【纯农排变】,1白团东街内2,1白团中街内2,2白团东街外15【纯农排变】,2白团南街外3【纯农排变】,1北白团内3,2白团东街外3【纯农排变】,2北白团外8【纯农排变】,白团东街内7,客户投资_1白团南街内1,1白团东街内4,2北白团外1【纯农排变】,2白团中街外2【纯农排变】,1北白团内1,客户投资_1白团东街内8,2北白团外4【纯农排变】,1白团乡政府,2白团中街外3【纯农排变】,2白团南街外2【纯农排变】,2北白团外6【纯农排变】,1白团中街内1,2北白团外5【纯农排变】,1白团东街内5,","scope":"【影响街道/乡镇】白团乡 【高危重要客户】无 【影响客户】北白团村、白团东街村、白团中街村、白团南街村、白团乡政府","startTime":"2018-06-17 00:00:00","stopDate":"2018-06-17 04:00:00","orgNo":"1340618","typeCode":"其他临时停电","poweroffArea":"【分支停电】停2白团东街外15【纯农排变】,白团东街外2【纯农排变】,1白团中街内1,1白团东街内2,客户投资_1白团南街内1,1白团乡政府,1北白团内3,2白团南街外3【纯农排变】,2白团中街外3【纯农排变】,1白团东街内4,1白团南街内2,2白团南街外5【纯农排变】,2白团南街外2【纯农排变】,2北白团外1【纯农排变】,2北白团外6【纯农排变】,2北白团外3【纯农排变】,2白团东街外3【纯农排变】,2白团中街外2【纯农排变】,白团东街内7,2白团南街外4【纯农排变】,2北白团外8【纯农排变】,2北白团外5【纯农排变】,1北白团内1,1北白团内2,1白团中街内2,客户投资_1白团东街内8,2北白团外7【纯农排变】,1白团东街内5,2北白团外4【纯农排变】","poweroffReason":"【停电原因】由于主干６８号杆破损严重，需停电进行紧急抢修导致３５ＫＶ白团变电站１０ＫＶ白团线５１５线路主干２５号杆至７３号杆停电 【变更送电】因抢修进度加快原因，送电时间由０９：３０变更为０４：００ 【发布渠道】通过９５５９８发布","powerTime":"2018-06-17 03:30:15","powerComm":"宋洁琼通知已送电","subsNo":"","lineNo":"","tgNo":"","tgName":null,"infoStatus":"1","orgName":"国网清苑县供电公司","typeName":null,"infoStatusName":null,"dateDay":null,"orgNos":null,"nowTime":null,"countyName":null,"streetName":null,"villageName":null,"roadName":null,"communityName":null,"tranName":null,"sdLineName":null,"cityCode":"1340618","cityName":"国网清苑县供电公司","provinceCode":null,"stopTime":"2018-06-17 04:00:00","powerType":"全部","powerOffArea":"【分支停电】停2白团东街外15【纯农排变】,白团东街外2【纯农排变】,1白团中街内1,1白团东街内2,客户投资_1白团南街内1,1白团乡政府,1北白团内3,2白团南街外3【纯农排变】,2白团中街外3【纯农排变】,1白团东街内4,1白团南街内2,2白团南街外5【纯农排变】,2白团南街外2【纯农排变】,2北白团外1【纯农排变】,2北白团外6【纯农排变】,2北白团外3【纯农排变】,2白团东街外3【纯农排变】,2白团中街外2【纯农排变】,白团东街内7,2白团南街外4【纯农排变】,2北白团外8【纯农排变】,2北白团外5【纯农排变】,1北白团内1,1北白团内2,1白团中街内2,客户投资_1白团东街内8,2北白团外7【纯农排变】,1白团东街内5,2北白团外4【纯农排变】","powerOffReason":"【停电原因】由于主干６８号杆破损严重，需停电进行紧急抢修导致３５ＫＶ白团变电站１０ＫＶ白团线５１５线路主干２５号杆至７３号杆停电 【变更送电】因抢修进度加快原因，送电时间由０９：３０变更为０４：００ 【发布渠道】通过９５５９８发布","powerOffId":"2018061613000234"},{"poweroffId":2018061613000216,"sgpoweroffId":null,"subsName":"","lineName":"10kV联盟路站522线路","pubTranName":"B520柱上变压器,","scope":"【影响街道/乡镇】红旗大街 【高危重要客户】无 【影响客户】小营房","startTime":"2018-06-16 15:00:00","stopDate":"2018-06-16 17:00:00","orgNo":"13406","typeCode":"电网故障停限电","poweroffArea":"【单台区停电】停B520柱上变压器","poweroffReason":"【停电原因】由于表前闸烧导致１０ＫＶ联盟路变电站５２２线路Ｂ５２０公变台区停电【变更送电】无【发布渠道】通过９５５９８发布","powerTime":"2018-06-16 16:03:49","powerComm":"已送电","subsNo":"","lineNo":"","tgNo":"","tgName":null,"infoStatus":"1","orgName":"保定供电公司","typeName":null,"infoStatusName":null,"dateDay":null,"orgNos":null,"nowTime":null,"countyName":null,"streetName":null,"villageName":null,"roadName":null,"communityName":null,"tranName":null,"sdLineName":null,"cityCode":"13406","cityName":"保定供电公司","provinceCode":null,"stopTime":"2018-06-16 17:00:00","powerType":"全部","powerOffArea":"【单台区停电】停B520柱上变压器","powerOffReason":"【停电原因】由于表前闸烧导致１０ＫＶ联盟路变电站５２２线路Ｂ５２０公变台区停电【变更送电】无【发布渠道】通过９５５９８发布","powerOffId":"2018061613000216"},{"poweroffId":2018061613000204,"sgpoweroffId":null,"subsName":"","lineName":"10kV511洪善堡线","pubTranName":"中佐农排13台区【纯农排变】,洪善堡农排7台区【纯农排变】,洪善堡农排17台区【纯农排变】,0469453788-齐村段贯纯农业一台区-专变-46812913-齐村东北,洪善堡综合10台区,洪善堡综合7台区,洪善堡人造皮毛厂,后市综合5台区,洪善堡农排8台区【纯农排变】,洪善堡综合9台区,一队农排5台区【纯农排变】,后市农排5台区【纯农排变】,后市综合12台区变压器,洪善堡农排12台区【纯农排变】,后市农排3台区【纯农排变】,后市综合2台区,0469454808-齐村段贯纯农业二台区-专变-46812914-齐村西北,洪善堡综合1台区,齐村综合6台区,前市综合4台区,蠡县新民养猪场变压器,后市农排1台区【纯农排变】,0469454316-后刘市面粉厂-专变-46812910-后市面粉厂,0469452349-洪堡孙彦卿农业台区-专变-46812916-花厂,0593173310-蠡县后刘市兴光人造革废料加工厂-专变-125866393-蠡县后刘市兴光人造革废料加工厂,齐村综合4台区,前市农排1台区【纯农排变】,前市综合2台区,洪善堡农排4台区【纯农排变】,后市综合11台区变压器,洪善堡综合3台区,0469453010-中国联合网络通信有限公司蠡县分公司-专变-46812917-中国网通,洪善堡农排16台区【纯农排变】,洪善堡农排15台区【纯农排变】,洪善堡综合4台区,后市综合9台区,后市综合8台区,0469454329-后市宋树模农业台区-专变-46812911-后市宋树模,北刘佐农排2台区【纯农排变】,前市综合1台区,洪堡综合6台区,站变,齐村综合3台区,后市综合6台区,蠡县欧福特汽车用品厂,齐村综合7台区,洪善堡农排6台区【纯农排变】,北刘佐综合3台区,北刘佐综合1台区,北佐综合5台区,北刘佐综合5台区,洪善堡综合12台区,齐村农排1台区【纯农排变】,后市农排4台区【纯农排变】,前市综合3台区,后市综合7台区,后市综合4台区,0469454303-蠡县北刘佐面粉厂-专变-46812920-蠡县北刘佐面粉厂,后市农排9台区变压器【纯农排变】,齐村综合5台区,后市农排7台区【纯农排变】,北刘佐综合4台区,洪善堡综合5台区,洪善堡综合2台区,后市综合1台区,北刘佐综合2台区,齐村综合1台区,洪堡农排1台区【纯农排变】,齐村综合2台区,洪善堡综合11台区,后市综合10台区,0469453384-冀宏橡胶制品厂-专变-46812912-洪堡胶厂,后市综合3台区,北佐综合6台区,","scope":"【影响街道/乡镇】南庄镇【高危重要客户】无【影响客户】洪善堡村、后刘市村、北刘佐村、齐村、前刘市村","startTime":"2018-06-16 14:39:49","stopDate":"2018-06-16 16:00:00","orgNo":"1340616","typeCode":"电网故障停限电","poweroffArea":"【全线路停电】停后市综合8台区,洪善堡综合7台区,后市综合11台区变压器,后市综合1台区,后市综合7台区,洪善堡综合3台区,洪善堡综合4台区,北刘佐综合3台区,后市综合3台区,洪善堡综合12台区,后市综合2台区,0469452349-洪堡孙彦卿农业台区-专变-46812916-花厂,洪善堡综合1台区,0469454329-后市宋树模农业台区-专变-46812911-后市宋树模,0469453384-冀宏橡胶制品厂-专变-46812912-洪堡胶厂,后市综合9台区,洪善堡人造皮毛厂,0469453010-中国联合网络通信有限公司蠡县分公司-专变-46812917-中国网通,北佐综合6台区,齐村综合3台区,洪善堡综合10台区,洪善堡农排16台区【纯农排变】,蠡县欧福特汽车用品厂,北刘佐农排2台区【纯农排变】,洪善堡农排4台区【纯农排变】,洪善堡综合11台区,洪善堡农排6台区【纯农排变】,前市综合4台区,后市农排9台区变压器【纯农排变】,后市农排5台区【纯农排变】,蠡县新民养猪场变压器,齐村综合7台区,前市农排1台区【纯农排变】,0469454316-后刘市面粉厂-专变-46812910-后市面粉厂,洪善堡综合5台区,一队农排5台区【纯农排变】,站变,北刘佐综合5台区,洪善堡农排12台区【纯农排变】,后市综合10台区,后市农排3台区【纯农排变】,齐村综合2台区,后市综合12台区变压器,后市综合4台区,齐村综合4台区,齐村农排1台区【纯农排变】,洪善堡综合2台区,洪善堡综合9台区,北刘佐综合2台区,后市综合6台区,中佐农排13台区【纯农排变】,后市农排1台区【纯农排变】,齐村综合6台区,齐村综合1台区,0593173310-蠡县后刘市兴光人造革废料加工厂-专变-125866393-蠡县后刘市兴光人造革废料加工厂,洪善堡农排17台区【纯农排变】,北刘佐综合1台区,洪善堡农排15台区【纯农排变】,洪堡综合6台区,后市综合5台区,北刘佐综合4台区,前市综合1台区,前市综合2台区,后市农排7台区【纯农排变】,洪善堡农排8台区【纯农排变】,齐村综合5台区,北佐综合5台区,洪善堡农排7台区【纯农排变】,0469454808-齐村段贯纯农业二台区-专变-46812914-齐村西北,前市综合3台区,后市农排4台区【纯农排变】,0469453788-齐村段贯纯农业一台区-专变-46812913-齐村东北,洪堡农排1台区【纯农排变】,0469454303-蠡县北刘佐面粉厂-专变-46812920-蠡县北刘佐面粉厂","poweroffReason":"【停电原因】由于站外开关掉闸导致３５ＫＶ洪善堡变电站１０ＫＶ洪善堡５１１线路全线停电【变更送电】因抢修进度加快原因，送电时间由１９：３０变更为１６：００【发布渠道】通过９５５９８发布","powerTime":"2018-06-16 15:30:16","powerComm":"已送电","subsNo":"","lineNo":"","tgNo":"","tgName":null,"infoStatus":"1","orgName":"国网蠡县供电公司","typeName":null,"infoStatusName":null,"dateDay":null,"orgNos":null,"nowTime":null,"countyName":null,"streetName":null,"villageName":null,"roadName":null,"communityName":null,"tranName":null,"sdLineName":null,"cityCode":"1340616","cityName":"国网蠡县供电公司","provinceCode":null,"stopTime":"2018-06-16 16:00:00","powerType":"全部","powerOffArea":"【全线路停电】停后市综合8台区,洪善堡综合7台区,后市综合11台区变压器,后市综合1台区,后市综合7台区,洪善堡综合3台区,洪善堡综合4台区,北刘佐综合3台区,后市综合3台区,洪善堡综合12台区,后市综合2台区,0469452349-洪堡孙彦卿农业台区-专变-46812916-花厂,洪善堡综合1台区,0469454329-后市宋树模农业台区-专变-46812911-后市宋树模,0469453384-冀宏橡胶制品厂-专变-46812912-洪堡胶厂,后市综合9台区,洪善堡人造皮毛厂,0469453010-中国联合网络通信有限公司蠡县分公司-专变-46812917-中国网通,北佐综合6台区,齐村综合3台区,洪善堡综合10台区,洪善堡农排16台区【纯农排变】,蠡县欧福特汽车用品厂,北刘佐农排2台区【纯农排变】,洪善堡农排4台区【纯农排变】,洪善堡综合11台区,洪善堡农排6台区【纯农排变】,前市综合4台区,后市农排9台区变压器【纯农排变】,后市农排5台区【纯农排变】,蠡县新民养猪场变压器,齐村综合7台区,前市农排1台区【纯农排变】,0469454316-后刘市面粉厂-专变-46812910-后市面粉厂,洪善堡综合5台区,一队农排5台区【纯农排变】,站变,北刘佐综合5台区,洪善堡农排12台区【纯农排变】,后市综合10台区,后市农排3台区【纯农排变】,齐村综合2台区,后市综合12台区变压器,后市综合4台区,齐村综合4台区,齐村农排1台区【纯农排变】,洪善堡综合2台区,洪善堡综合9台区,北刘佐综合2台区,后市综合6台区,中佐农排13台区【纯农排变】,后市农排1台区【纯农排变】,齐村综合6台区,齐村综合1台区,0593173310-蠡县后刘市兴光人造革废料加工厂-专变-125866393-蠡县后刘市兴光人造革废料加工厂,洪善堡农排17台区【纯农排变】,北刘佐综合1台区,洪善堡农排15台区【纯农排变】,洪堡综合6台区,后市综合5台区,北刘佐综合4台区,前市综合1台区,前市综合2台区,后市农排7台区【纯农排变】,洪善堡农排8台区【纯农排变】,齐村综合5台区,北佐综合5台区,洪善堡农排7台区【纯农排变】,0469454808-齐村段贯纯农业二台区-专变-46812914-齐村西北,前市综合3台区,后市农排4台区【纯农排变】,0469453788-齐村段贯纯农业一台区-专变-46812913-齐村东北,洪堡农排1台区【纯农排变】,0469454303-蠡县北刘佐面粉厂-专变-46812920-蠡县北刘佐面粉厂","powerOffReason":"【停电原因】由于站外开关掉闸导致３５ＫＶ洪善堡变电站１０ＫＶ洪善堡５１１线路全线停电【变更送电】因抢修进度加快原因，送电时间由１９：３０变更为１６：００【发布渠道】通过９５５９８发布","powerOffId":"2018061613000204"},{"poweroffId":2018061613000184,"sgpoweroffId":null,"subsName":"","lineName":"10kV七一路站535线路","pubTranName":"10kVB1553.B1554配电室B1553配电变压器,","scope":"【影响街道/乡镇】朝阳北大街 【高危重要客户】无 【影响客户】石化家园","startTime":"2018-06-16 12:30:00","stopDate":"2018-06-16 15:00:00","orgNo":"13406","typeCode":"电网故障停限电","poweroffArea":"【单台区停电】停10kVB1553.B1554配电室B1553配电变压器","poweroffReason":"【停电原因】由于接户线烧导致１０ＫＶ七一路变电站５３５线路Ｂ１５５３公变台区停电【变更送电】无【发布渠道】通过９５５９８发布","powerTime":"2018-06-16 14:32:25","powerComm":"已送电","subsNo":"","lineNo":"","tgNo":"","tgName":null,"infoStatus":"1","orgName":"保定供电公司","typeName":null,"infoStatusName":null,"dateDay":null,"orgNos":null,"nowTime":null,"countyName":null,"streetName":null,"villageName":null,"roadName":null,"communityName":null,"tranName":null,"sdLineName":null,"cityCode":"13406","cityName":"保定供电公司","provinceCode":null,"stopTime":"2018-06-16 15:00:00","powerType":"全部","powerOffArea":"【单台区停电】停10kVB1553.B1554配电室B1553配电变压器","powerOffReason":"【停电原因】由于接户线烧导致１０ＫＶ七一路变电站５３５线路Ｂ１５５３公变台区停电【变更送电】无【发布渠道】通过９５５９８发布","powerOffId":"2018061613000184"},{"poweroffId":2018061613000175,"sgpoweroffId":null,"subsName":"","lineName":"10kV流各庄513线","pubTranName":"固显农业7台区变压器,马村综合1台区变压器,米庄综合1台区变压器,固显内东南综合1台区变压器,甄庄综合3台区变压器,甄庄村北农业7台区,马村南南农业2台区变压器【纯农排变】,甄庄综合8柱上变压器,马村综合2台区变压器,固显综合2台区变压器,流各庄综合5台区变压器,马村农业3台区变压器【纯农排变】,米庄综合4台区变压器,马庄农业1台区变压器【纯农排变】,马村西南农业4台区【纯农排变】,固显北80台区变压器,甄庄农业2台区变压器,甄庄农业3台区变压器,甄庄综合4台区变压器,甄庄农业6台区变压器,固显农业4台区变压器,流各庄农业1台区变压器【纯农排变】,石庄农业1台区变压器【纯农排变】,甄庄内中西综合6,固显内西综合台区变压器,流各庄农业7台区变压器【纯农排变】,流各庄内西北综合3,甄庄内东综合5,流各庄综合2台区变压器,马庄西南农业2台区变压器【纯农排变】,石庄综合1,固显农业1台区变压器,马庄综合4台区变压器,固显农业2台区变压器,流各庄综合1台区变压器,米庄综合2台区变压器,甄庄东南农业4台区,流各庄东80台区变压器【纯农排变】,流各庄内东综合4,米庄综合3,米庄东西综合3台区变压器,甄庄内北南综合7,固显内西南综合5,马庄内东北综合3,保定飞龙联轴器有限公司,固显内东农业5台区变压器,马庄综合1台区变压器,马村内东综合3,固显综合8变压器,甄庄综合1台区变压器,马庄农业3台区变压器【纯农排变】,保定飞龙连轴器厂,米庄农业3台区变压器【纯农排变】,流各庄村西农业变压器【纯农排变】,固显内中综合7台区配变,马村农业1台区变压器【纯农排变】,固显保定冶化,固显农业3台区变压器,流各庄东东农业8台区变压器【纯农排变】,甄庄综合2台区变压器,固显内西北综合4,河北飞鸿泵业有限公司,石庄农业2台区变压器【纯农排变】,马庄村北农业4,马庄综合2台区变压器,固显村北农业8台区,流各庄农业3台区变压器【纯农排变】,甄庄村东农业1台区,","scope":"【影响街道/乡镇】西安国城乡 【高危重要客户】无 【影响客户】米庄村、固显村、甄庄村、马庄村、石庄村、东街村","startTime":"2018-06-16 12:45:00","stopDate":"2018-06-16 16:00:00","orgNo":"1340606","typeCode":"电网故障停限电","poweroffArea":"【全线路停电】停固显内西北综合4,流各庄农业3台区变压器【纯农排变】,流各庄内西北综合3,甄庄东南农业4台区,马庄农业1台区变压器【纯农排变】,石庄农业1台区变压器【纯农排变】,米庄农业3台区变压器【纯农排变】,马村西南农业4台区【纯农排变】,石庄农业2台区变压器【纯农排变】,马庄综合1台区变压器,甄庄综合2台区变压器,马庄农业3台区变压器【纯农排变】,甄庄内北南综合7,流各庄内东综合4,米庄综合3,固显内中综合7台区配变,甄庄综合4台区变压器,保定飞龙连轴器厂,流各庄农业1台区变压器【纯农排变】,保定飞龙联轴器有限公司,固显北80台区变压器,流各庄东东农业8台区变压器【纯农排变】,石庄综合1,固显综合2台区变压器,流各庄村西农业变压器【纯农排变】,马庄内东北综合3,固显保定冶化,固显综合8变压器,固显农业4台区变压器,流各庄综合5台区变压器,马村农业3台区变压器【纯农排变】,流各庄综合2台区变压器,流各庄农业7台区变压器【纯农排变】,甄庄农业3台区变压器,米庄综合1台区变压器,米庄综合2台区变压器,固显农业3台区变压器,固显内东南综合1台区变压器,米庄综合4台区变压器,流各庄东80台区变压器【纯农排变】,甄庄农业2台区变压器,甄庄农业6台区变压器,甄庄村东农业1台区,马村综合2台区变压器,马庄综合4台区变压器,流各庄综合1台区变压器,甄庄综合3台区变压器,固显内东农业5台区变压器,马村农业1台区变压器【纯农排变】,马村内东综合3,甄庄综合8柱上变压器,甄庄内中西综合6,固显农业7台区变压器,马庄综合2台区变压器,固显村北农业8台区,固显农业1台区变压器,固显农业2台区变压器,固显内西综合台区变压器,甄庄综合1台区变压器,马村综合1台区变压器,马庄村北农业4,马村南南农业2台区变压器【纯农排变】,米庄东西综合3台区变压器,固显内西南综合5,甄庄村北农业7台区,甄庄内东综合5,马庄西南农业2台区变压器【纯农排变】,河北飞鸿泵业有限公司","poweroffReason":"【停电原因】由于站内开关掉闸导致３５ＫＶ庞各庄变电站１０ＫＶ流各庄５１３线路全线停电 【变更送电】无 【发布渠道】通过９５５９８发布","powerTime":"2018-06-16 15:15:25","powerComm":"已送电","subsNo":"","lineNo":"","tgNo":"","tgName":null,"infoStatus":"1","orgName":"国网安国市供电公司","typeName":null,"infoStatusName":null,"dateDay":null,"orgNos":null,"nowTime":null,"countyName":null,"streetName":null,"villageName":null,"roadName":null,"communityName":null,"tranName":null,"sdLineName":null,"cityCode":"1340606","cityName":"国网安国市供电公司","provinceCode":null,"stopTime":"2018-06-16 16:00:00","powerType":"全部","powerOffArea":"【全线路停电】停固显内西北综合4,流各庄农业3台区变压器【纯农排变】,流各庄内西北综合3,甄庄东南农业4台区,马庄农业1台区变压器【纯农排变】,石庄农业1台区变压器【纯农排变】,米庄农业3台区变压器【纯农排变】,马村西南农业4台区【纯农排变】,石庄农业2台区变压器【纯农排变】,马庄综合1台区变压器,甄庄综合2台区变压器,马庄农业3台区变压器【纯农排变】,甄庄内北南综合7,流各庄内东综合4,米庄综合3,固显内中综合7台区配变,甄庄综合4台区变压器,保定飞龙连轴器厂,流各庄农业1台区变压器【纯农排变】,保定飞龙联轴器有限公司,固显北80台区变压器,流各庄东东农业8台区变压器【纯农排变】,石庄综合1,固显综合2台区变压器,流各庄村西农业变压器【纯农排变】,马庄内东北综合3,固显保定冶化,固显综合8变压器,固显农业4台区变压器,流各庄综合5台区变压器,马村农业3台区变压器【纯农排变】,流各庄综合2台区变压器,流各庄农业7台区变压器【纯农排变】,甄庄农业3台区变压器,米庄综合1台区变压器,米庄综合2台区变压器,固显农业3台区变压器,固显内东南综合1台区变压器,米庄综合4台区变压器,流各庄东80台区变压器【纯农排变】,甄庄农业2台区变压器,甄庄农业6台区变压器,甄庄村东农业1台区,马村综合2台区变压器,马庄综合4台区变压器,流各庄综合1台区变压器,甄庄综合3台区变压器,固显内东农业5台区变压器,马村农业1台区变压器【纯农排变】,马村内东综合3,甄庄综合8柱上变压器,甄庄内中西综合6,固显农业7台区变压器,马庄综合2台区变压器,固显村北农业8台区,固显农业1台区变压器,固显农业2台区变压器,固显内西综合台区变压器,甄庄综合1台区变压器,马村综合1台区变压器,马庄村北农业4,马村南南农业2台区变压器【纯农排变】,米庄东西综合3台区变压器,固显内西南综合5,甄庄村北农业7台区,甄庄内东综合5,马庄西南农业2台区变压器【纯农排变】,河北飞鸿泵业有限公司","powerOffReason":"【停电原因】由于站内开关掉闸导致３５ＫＶ庞各庄变电站１０ＫＶ流各庄５１３线路全线停电 【变更送电】无 【发布渠道】通过９５５９８发布","powerOffId":"2018061613000175"},{"poweroffId":2018061613000169,"sgpoweroffId":null,"subsName":"","lineName":"10kV520永禄大街线","pubTranName":"顺兴物业阳光佳苑A区1250,0677950947-顺平县众美物业管理有限公司-专变-217798946-顺平县众美物业管理有限公司1250,保险公司7820|20007820,移动,移动公司旧交警,大城北9680|20009680,教委宿舍1890|20001890,顺平县顺兴物业管理有限责任公司1000,顺兴物业阳光佳苑A区800(2),0678067581-顺平县顺兴物业管理有限责任公司-专变-217801175-顺兴物业（阳光佳苑B区）2000-2,申成路桥250,纬十街北西路灯,纬十街东北路灯,0678067581-顺平县顺兴物业管理有限责任公司-专变-217797613-顺兴物业（阳光佳苑B区）2500,顺平县兴泰物业服务有限公司1000,消防大队混用1960|20001960,申成路桥,北关1360|20001360,顺平县顺兴物业管理有限责任公司1600,北关8080#农排|20008080【纯农排变】,纬十街南路灯,顺兴物业阳光佳苑A区800,北关新增综合7854,保定顺兴房地产开发有限公司,科委宿舍2000|20002000,0678067581-顺平县顺兴物业管理有限责任公司-专变-217801173-顺兴物业（阳光佳苑B区）2000-1,人行宿舍1880|20001880,保定顺泰建筑工程有限公司200,万佳物业变压器,","scope":"【影响街道/乡镇】永录大街、纬十一街、永平路、蒲阳镇【高危重要客户】无【影响客户】北关、人行宿舍、教委宿舍、原消防队、大城北、林江商厦、新概念火锅、保险公司宿舍楼、城区医院、保定顺泰建筑工程有限公司、万佳物业、保定顺兴房地产开发有限公司、科委宿舍、移动公司、尧乡商城、顺平县顺兴物业管理有限责任公司、顺平县心兴泰物业服务有限公司、药检局、阳光佳苑A区、沁香名邸小区","startTime":"2018-06-16 12:31:42","stopDate":"2018-06-16 16:00:00","orgNo":"1340621","typeCode":"电网故障停限电","poweroffArea":"【全线路停电】停纬十街北西路灯,万佳物业变压器,0678067581-顺平县顺兴物业管理有限责任公司-专变-217797613-顺兴物业（阳光佳苑B区）2500,人行宿舍1880|20001880,保险公司7820|20007820,顺平县顺兴物业管理有限责任公司1600,保定顺兴房地产开发有限公司,消防大队混用1960|20001960","poweroffReason":"【停电原因】由于万佳物业变压器刀闸烧毁导致１１０ＫＶ顺平变电站１０ＫＶ５２０永禄大街线路全线停电【变更送电】因抢修进度加快原因，送电时间由２２：００变更为１６：００【发布渠道】通过９５５９８发布","powerTime":"2018-06-16 15:25:57","powerComm":"已送电","subsNo":"","lineNo":"","tgNo":"","tgName":null,"infoStatus":"1","orgName":"国网顺平县电力局","typeName":null,"infoStatusName":null,"dateDay":null,"orgNos":null,"nowTime":null,"countyName":null,"streetName":null,"villageName":null,"roadName":null,"communityName":null,"tranName":null,"sdLineName":null,"cityCode":"1340621","cityName":"国网顺平县电力局","provinceCode":null,"stopTime":"2018-06-16 16:00:00","powerType":"全部","powerOffArea":"【全线路停电】停纬十街北西路灯,万佳物业变压器,0678067581-顺平县顺兴物业管理有限责任公司-专变-217797613-顺兴物业（阳光佳苑B区）2500,人行宿舍1880|20001880,保险公司7820|20007820,顺平县顺兴物业管理有限责任公司1600,保定顺兴房地产开发有限公司,消防大队混用1960|20001960","powerOffReason":"【停电原因】由于万佳物业变压器刀闸烧毁导致１１０ＫＶ顺平变电站１０ＫＶ５２０永禄大街线路全线停电【变更送电】因抢修进度加快原因，送电时间由２２：００变更为１６：００【发布渠道】通过９５５９８发布","powerOffId":"2018061613000169"},{"poweroffId":2018061613000165,"sgpoweroffId":null,"subsName":"","lineName":"10kV516东西营线","pubTranName":"东营综合5台区,东营浇地10号东,东营浇地6号东,东营浇地1号,渔池,东营浇地3号东,东营砖厂1,东营综合6台区,东营综合7台区,东营浇地6号,东营浇地3号,西营农排3台区【纯农排变】,东营综合3台区,保定德鑫纺织品制造有限公司变压器,蠡县磊鑫砂石料场,西营综合5台区,西营农排5台区【纯农排变】,东营浇地9号,东营村委会,东营砖厂2,林堡六,东营浇地10号,0469455377-东营村浇地五号-专变-46813156-东营村浇地5号,西营农排4台区【纯农排变】,东营综合9台区,大朋,东营村东北,东营综合8台区,西营农排6台区【纯农排变】,西营综合2台区,东营浇地2号,东营浇地4号,西营综合1台区,东营浇地7号西,东营综合2台区,东营综合4台区,林堡5号,西营农排7台区【纯农排变】,东营综合1台区,东营村浇地5号东,西营综合4台区,西营综合3台区,西营农排9台区【纯农排变】,东营浇地7号,东营浇地8号,","scope":"【影响街道/乡镇】林堡乡【高危重要客户】无【影响客户】西营村、东营村","startTime":"2018-06-16 12:29:59","stopDate":"2018-06-16 14:00:00","orgNo":"1340616","typeCode":"电网故障停限电","poweroffArea":"【全线路停电】停林堡六,西营综合4台区,西营农排7台区【纯农排变】,西营农排4台区【纯农排变】,东营村浇地5号东,东营浇地10号,东营浇地7号西,0469455377-东营村浇地五号-专变-46813156-东营村浇地5号,东营浇地8号,东营浇地7号,东营浇地6号东,东营综合4台区,东营浇地3号,东营浇地2号,东营村东北,东营浇地6号,东营浇地4号,东营浇地10号东,东营浇地3号东,东营综合8台区,东营综合6台区,东营综合3台区,西营农排9台区【纯农排变】,西营综合3台区,西营综合5台区,大朋,林堡5号,东营村委会,东营浇地1号,渔池,西营农排6台区【纯农排变】,东营综合9台区,蠡县磊鑫砂石料场,东营浇地9号,西营农排5台区【纯农排变】,东营砖厂2,东营砖厂1,东营综合5台区,西营综合1台区,东营综合7台区,东营综合2台区,东营综合1台区,西营综合2台区,西营农排3台区【纯农排变】,保定德鑫纺织品制造有限公司变压器","poweroffReason":"【停电原因】由于站外开关掉闸导致３５ＫＶ林堡变电站１０ＫＶ东西营５１６线路全线停电【变更送电】因抢修进度加快原因，送电时间由１７：３０变更为１４：００【发布渠道】通过９５５９８发布","powerTime":"2018-06-16 13:33:15","powerComm":"已送电","subsNo":"","lineNo":"","tgNo":"","tgName":null,"infoStatus":"1","orgName":"国网蠡县供电公司","typeName":null,"infoStatusName":null,"dateDay":null,"orgNos":null,"nowTime":null,"countyName":null,"streetName":null,"villageName":null,"roadName":null,"communityName":null,"tranName":null,"sdLineName":null,"cityCode":"1340616","cityName":"国网蠡县供电公司","provinceCode":null,"stopTime":"2018-06-16 14:00:00","powerType":"全部","powerOffArea":"【全线路停电】停林堡六,西营综合4台区,西营农排7台区【纯农排变】,西营农排4台区【纯农排变】,东营村浇地5号东,东营浇地10号,东营浇地7号西,0469455377-东营村浇地五号-专变-46813156-东营村浇地5号,东营浇地8号,东营浇地7号,东营浇地6号东,东营综合4台区,东营浇地3号,东营浇地2号,东营村东北,东营浇地6号,东营浇地4号,东营浇地10号东,东营浇地3号东,东营综合8台区,东营综合6台区,东营综合3台区,西营农排9台区【纯农排变】,西营综合3台区,西营综合5台区,大朋,林堡5号,东营村委会,东营浇地1号,渔池,西营农排6台区【纯农排变】,东营综合9台区,蠡县磊鑫砂石料场,东营浇地9号,西营农排5台区【纯农排变】,东营砖厂2,东营砖厂1,东营综合5台区,西营综合1台区,东营综合7台区,东营综合2台区,东营综合1台区,西营综合2台区,西营农排3台区【纯农排变】,保定德鑫纺织品制造有限公司变压器","powerOffReason":"【停电原因】由于站外开关掉闸导致３５ＫＶ林堡变电站１０ＫＶ东西营５１６线路全线停电【变更送电】因抢修进度加快原因，送电时间由１７：３０变更为１４：００【发布渠道】通过９５５９８发布","powerOffId":"2018061613000165"},{"poweroffId":2018061613000089,"sgpoweroffId":null,"subsName":"","lineName":"郎伍庄线516","pubTranName":"10Kv516郎伍庄线郎五庄3号,10Kv516郎伍庄线郎五庄9号,10Kv516郎伍庄线郎五庄4号,10Kv516郎伍庄线郎五庄17号,徐水大午中学3号,徐水县大午温泉度假村有限公司,10Kv516郎伍庄线郎五庄15号,10Kv516郎伍庄线郎五庄11号【纯农排变】,10Kv516郎伍庄线郎五庄18号,河北大午集团公司5号,保定市徐水区大午温泉酒店有限公司,徐水县大午温泉酒店,徐水大午医院,河北大午农牧集团种禽有限公司,保定市徐水区大午水厂,河北大午农牧集团公司1号,大午集团公司7号,10Kv516郎伍庄线郎五庄8号,大午集团公司8号（温泉）,10Kv516郎伍庄线郎五庄19号,10Kv516郎伍庄线郎五庄14号,10Kv516郎伍庄线郎五庄6号【纯农排变】,郎伍庄新居民进线间隔配电变压器,10Kv516郎伍庄线郎五庄2号,10Kv516郎伍庄线郎五庄10号【纯农排变】,10Kv516郎伍庄线郎五庄20号【纯农排变】,10Kv516郎伍庄线郎五庄13号,徐水大午中学,10Kv516郎伍庄线郎五庄5号,10Kv516郎伍庄线郎五庄1号,","scope":"【影响街道/乡镇】高林村镇 【高危重要客户】无 【影响客户】郎伍庄","startTime":"2018-06-16 09:49:41","stopDate":"2018-06-16 17:40:00","orgNo":"1340605","typeCode":"超电网供电能力停限电","poweroffArea":"【全线路停电】停河北大午农牧集团公司1号,10Kv516郎伍庄线郎五庄9号,保定市徐水区大午水厂,保定市徐水区大午温泉酒店有限公司,徐水县大午温泉度假村有限公司,10Kv516郎伍庄线郎五庄4号, 10Kv516郎伍庄线郎五庄20号【纯农排变】, 10Kv516郎伍庄线郎五庄6号【纯农排变】,徐水大午中学,大午集团公司7号,河北大午农牧集团种禽有限公司,10Kv516郎伍庄线郎五庄8号, 10Kv516郎伍庄线郎五庄19号,10Kv516郎伍庄线郎五庄11号【纯农排变】,大午集团公司8号（温泉）,徐水大午医院,徐水大午中学3号,郎伍庄新居民进线间隔配电变压器,10Kv516郎伍庄线郎五庄17号,河北大午集团公司5号,10Kv516郎伍庄线郎五庄5号,10Kv516郎伍庄线郎五庄18号,10Kv516郎伍庄线郎五庄10号【纯农排变】,10Kv516郎伍庄线郎五庄13号,10Kv516郎伍庄线郎五庄14号,10Kv516郎伍庄线郎五庄1号,10Kv516郎伍庄线郎五庄3号,10Kv516郎伍庄线郎五庄2号,徐水县大午温泉酒店,10Kv516郎伍庄线郎五庄15号","poweroffReason":"【停电原因】由于主变过负荷导致３５ＫＶ郎五庄变电站郎伍庄线５１６线路全线停电 【变更送电】因抢修进度加快原因，送电时间由２２:００变更为１７:４０ 【发布渠道】通过９５５９８发布","powerTime":"2018-06-16 17:08:05","powerComm":"已送电","subsNo":"","lineNo":"","tgNo":"","tgName":null,"infoStatus":"1","orgName":"国网徐水县供电公司","typeName":null,"infoStatusName":null,"dateDay":null,"orgNos":null,"nowTime":null,"countyName":null,"streetName":null,"villageName":null,"roadName":null,"communityName":null,"tranName":null,"sdLineName":null,"cityCode":"1340605","cityName":"国网徐水县供电公司","provinceCode":null,"stopTime":"2018-06-16 17:40:00","powerType":"全部","powerOffArea":"【全线路停电】停河北大午农牧集团公司1号,10Kv516郎伍庄线郎五庄9号,保定市徐水区大午水厂,保定市徐水区大午温泉酒店有限公司,徐水县大午温泉度假村有限公司,10Kv516郎伍庄线郎五庄4号, 10Kv516郎伍庄线郎五庄20号【纯农排变】, 10Kv516郎伍庄线郎五庄6号【纯农排变】,徐水大午中学,大午集团公司7号,河北大午农牧集团种禽有限公司,10Kv516郎伍庄线郎五庄8号, 10Kv516郎伍庄线郎五庄19号,10Kv516郎伍庄线郎五庄11号【纯农排变】,大午集团公司8号（温泉）,徐水大午医院,徐水大午中学3号,郎伍庄新居民进线间隔配电变压器,10Kv516郎伍庄线郎五庄17号,河北大午集团公司5号,10Kv516郎伍庄线郎五庄5号,10Kv516郎伍庄线郎五庄18号,10Kv516郎伍庄线郎五庄10号【纯农排变】,10Kv516郎伍庄线郎五庄13号,10Kv516郎伍庄线郎五庄14号,10Kv516郎伍庄线郎五庄1号,10Kv516郎伍庄线郎五庄3号,10Kv516郎伍庄线郎五庄2号,徐水县大午温泉酒店,10Kv516郎伍庄线郎五庄15号","powerOffReason":"【停电原因】由于主变过负荷导致３５ＫＶ郎五庄变电站郎伍庄线５１６线路全线停电 【变更送电】因抢修进度加快原因，送电时间由２２:００变更为１７:４０ 【发布渠道】通过９５５９８发布","powerOffId":"2018061613000089"}],"pageModel":{"pageNow":981,"totalCount":10973,"totalPage":1098,"tableRows":0,"pageCount":10,"beginCount":9800},"isExperi":"1"}