{"message":"","today":"2020-06-15","seleList":[{"poweroffId":2018061513000128,"sgpoweroffId":null,"subsName":"","lineName":"李家营524","pubTranName":"李中新,高碑店市自来水公司变压器,银迈变压器,吉亚无纺布厂,0585511104-高碑店市路灯管理办公室-专变-125093165-高碑店市路灯管理办公室变压器,王克录,东盛钱家营新公变,中国石油保定第105站,石家庄2#公变变压器,高碑店市龙安泰房地产开发有限公司变压器,高碑店市凯龙房地产开发有限公司7#变压器,永安印铁变压器2,高碑店市华彩装订有限公司变压器,高碑店市顶津饮品有限公司1#变压器,东盛马庄1变,欣欣水泥机械厂,高碑店市永杰汽车销售公司,高碑店市华创房地产开发有限公司,河北旭坤房地产开发有限公司3#变压器,河北隆泰物业服务有限责任公司高碑店分公司1#变压器,高碑店市龙安泰房地产开发有限公司3号变压器,万通加油站,石家庄电能替代14号变压器（煤改电）,郭屯电能替代04变压器（煤改电）,河北隆泰物业变压器,高碑店市建筑集团公司变压器,郭屯电能替代03变压器（煤改电）,永安印铁,东盛温屯北变压器,东盛马庄5变,高碑店市凯龙房地产开发有限公司4#变压器,河北鹏达房地产开发有限公司变压器,高碑店市电业局变压器,河北旭坤房地产开发有限公司4#变压器,河北京石高速公路开发有限公司,高碑店市凯龙房地产开发有限公司6#变压器,东盛马庄2变,高碑店市康美舒空气净化设备科技有限公司,河北旭坤房地产开发有限公司2#变压器,华铝,0387437765-高碑店市海轮风机制造有限责任公司-专变-45274527-海轮风机厂,东盛张八屯地变压器【纯农排变】,高桂茹变压器,高碑店市欣知语服饰有限公司变压器,东盛钱家营地变压器,贾志明,交通局,河北高碑店市经济开发管理委员会变压器,东盛马庄3变,郭屯电能替代01号变压器（煤改电）,温屯窗纱厂,高碑店市东盛办事处张八屯中心学校变压器,永安印铁变压器3,高碑店市路灯管理办公室变压器,0554901958-河北鼎泰华奥投资有限公司-专变-82386835-河北鼎泰华奥投资有限公司变压器,豆豆集团,高碑店市凯龙房地产开发有限公司3#变压器,高碑店市顶津饮品有限公司3#变压器,华欣水泥,碑店市凯龙房地产开发有限公司变压器,杨宝坤,李凯风机厂西,东盛马庄4变,东盛张八屯变压器,华欣水泥2,中亚东,郭屯电能替代05变压器（煤改电）,0554901958-河北鼎泰华奥投资有限公司-专变-82386833-河北鼎泰华奥投资有限公司变压器,中亚印染厂,保定中油石油销售有限公司第二加油站,李凯风机厂,高碑店市东盛初级中学变压器,高碑店市凯龙房地产开发有限公司8#变压器,东盛马庄变压器,东盛温屯北公变,高碑店白象食品有限公司变压器,建安公司,高碑店市万通发展有限责任公司变压器,高碑店市龙安泰房地产开发有限公司2号变压器,河北旭坤房地产开发有限公司,冀东商业公司,高碑店市园林局变压器,高碑店市凯龙房地产开发有限公司5#变压器,温屯公变,东盛张八屯南变压器,东盛城南供电所变压器,郭屯电能替代02变压器（煤改电）,东盛阎王庄南变压器,东盛钱家营新变压器,河北省高速公路京石改扩建筹建处变压器,高碑店市诚惠家庭农场变压器,变压器,高碑店市顶津饮品有限公司2#变压器,0609130229-河北高碑店市豆豆食品(集团)有限公司","scope":"【影响街道/乡镇】东盛办事处 【高危重要客户】无 【影响客户】郭屯村、马庄村、河北隆泰物业高碑店分公司、河北欣知语服饰有限公司、顶津饮品有限公司、河北旭坤房地产、万通发展有限责任公司、华永房地产、路灯管理办公室、河北鹏达房地产、高碑店市中房嘉业房地产、高碑店市诚惠家庭农场、天天一泉水厂、高碑店市永安印铁制罐有限责任公司、王克录、自来水公司、高碑店白象食品有限公司、高碑店市华创房地产、河北北方风机制造有限公司、交通局、明合彩钢有限公司、中国石油保定第１０５站、机动车驾驶员培训学校、昊青物业、高碑店市建筑集团公司、豆豆食品(集团)、河北鼎泰华奥投资有限公司、龙安泰房地产、经济开发管理委员会、高碑店市园林局、高碑店市京津风机厂、平生环保设备制造有限公司、贾志明、李中新、华欣水泥、建安公司菜园、海宏工业有限公司、华强制冷工程高碑店分公司、北京风机四厂、华彩装订有限责任公司、石家庄小区、高桂茹","startTime":"2018-06-15 09:19:37","stopDate":"2018-06-15 12:30:00","orgNo":"1340612","typeCode":"电网故障停限电","poweroffArea":"【全线路停电】停永安印铁变压器3,东盛阎王庄南变压器,东盛钱家营新变压器,高碑店市路灯管理办公室变压器,高桂茹变压器,河北鹏达房地产开发有限公司变压器,河北省高速公路京石改扩建筹建处变压器,0554901958-河北鼎泰华奥投资有限公司-专变-82386833-河北鼎泰华奥投资有限公司变压器,高碑店市诚惠家庭农场变压器,0554901958-河北鼎泰华奥投资有限公司-专变-82386835-河北鼎泰华奥投资有限公司变压器,河北鹏达房地产开发有限公司,八方达客运有限公司天桥分公司变压器,高碑店市欣知语服饰有限公司变压器,高碑店市华彩装订有限公司变压器,东盛钱家营地变压器,万通加油站,李中新,中亚印染厂,贾志明,豆豆集团,李凯风机厂西,高碑店市自来水公司变压器,交通局,高碑店市顶津饮品有限公司1#变压器,变压器,石家庄电能替代14号变压器（煤改电）,东盛马庄1变,郭屯电能替代05变压器（煤改电）,东盛马庄4变,郭屯电能替代04变压器（煤改电）,河北高碑店市经济开发管理委员会变压器,河北隆泰物业变压器,高碑店白象食品有限公司变压器,银迈变压器,河北京石高速公路开发有限公司,高碑店市顶津饮品有限公司2#变压器,高碑店市顶津饮品有限公司3#变压器,东盛马庄3变,高碑店市建筑集团公司变压器,保定中油石油销售有限公司第二加油站,0387437765-高碑店市海轮风机制造有限责任公司-专变-45274527-海轮风机厂,0609130229-河北高碑店市豆豆食品(集团)有限公司-专变-127561667-河北高碑店市豆豆食品（集团）有限公司变压器,吉亚无纺布厂,东盛张八屯变压器,华欣水泥2,高碑店市东盛办事处张八屯中心学校变压器,永安印铁变压器2,高碑店市龙安泰房地产开发有限公司3号变压器,高碑店市龙安泰房地产开发有限公司2号变压器,高碑店市东盛初级中学变压器,东盛张八屯地变压器【纯农排变】,高碑店市电业局变压器,郭屯电能替代02变压器（煤改电）,欣欣水泥机械厂,李凯风机厂,高碑店市永杰汽车销售公司,温屯窗纱厂,建安公司,东盛马庄5变,高碑店市万通发展有限责任公司变压器,高碑店市龙安泰房地产开发有限公司变压器,中亚东,河北旭坤房地产开发有限公司,河北旭坤房地产开发有限公司2#变压器,高碑店市华创房地产开发有限公司,华铝,高碑店市凯龙房地产开发有限公司8#变压器,0585511104-高碑店市路灯管理办公室-专变-125093165-高碑店市路灯管理办公室变压器,高碑店市凯龙房地产开发有限公司3#变压器,杨宝坤,东盛马庄变压器,华欣水泥,河北旭坤房地产开发有限公司3#变压器,东盛张八屯南变压器,王克录,永安印铁,冀东商业公司,东盛钱家营新公变,河北旭坤房地产开发有限公司4#变压器,碑店市凯龙房地产开发有限公司变压器,东盛城南供电所变压器,高碑店市园林局变压器,中国石油保定第105站,河北隆泰物业服务有限责任公司高碑店分公司1#变压器,东盛温屯北变压器,郭屯电能替代01号变压器（煤改电）,东盛温屯北公变,高碑店市康美舒空气净化设备科技有限公司,石家庄2#公变变压器,高碑店市凯龙房地产开发有限公司7#变压器,高碑店市凯龙房地产开发有限公司6#变压器,温屯公变,东盛马庄2变,高碑店市凯龙房地产开发有限公司5#变压器,郭屯电能替代03变压器（煤改电）,高碑店市凯龙房地产开发有限公司4#变压器","poweroffReason":"【停电原因】由于豆豆集团分支施工挖断电缆导致１１０ＫＶ马庄变电站１０ＫＶ李家营５２４线路全线停电 【变更送电】因抢修进度加快原因，送电时间由１５日１３：００变更为１５日１２：３０ 【发布渠道】通过９５５９８发布","powerTime":"2018-06-15 11:58:17","powerComm":"已送电","subsNo":"","lineNo":"","tgNo":"","tgName":null,"infoStatus":"1","orgName":"国网高碑店市供电公司","typeName":null,"infoStatusName":null,"dateDay":null,"orgNos":null,"nowTime":null,"countyName":null,"streetName":null,"villageName":null,"roadName":null,"communityName":null,"tranName":null,"sdLineName":null,"cityCode":"1340612","cityName":"国网高碑店市供电公司","provinceCode":null,"stopTime":"2018-06-15 12:30:00","powerType":"全部","powerOffArea":"【全线路停电】停永安印铁变压器3,东盛阎王庄南变压器,东盛钱家营新变压器,高碑店市路灯管理办公室变压器,高桂茹变压器,河北鹏达房地产开发有限公司变压器,河北省高速公路京石改扩建筹建处变压器,0554901958-河北鼎泰华奥投资有限公司-专变-82386833-河北鼎泰华奥投资有限公司变压器,高碑店市诚惠家庭农场变压器,0554901958-河北鼎泰华奥投资有限公司-专变-82386835-河北鼎泰华奥投资有限公司变压器,河北鹏达房地产开发有限公司,八方达客运有限公司天桥分公司变压器,高碑店市欣知语服饰有限公司变压器,高碑店市华彩装订有限公司变压器,东盛钱家营地变压器,万通加油站,李中新,中亚印染厂,贾志明,豆豆集团,李凯风机厂西,高碑店市自来水公司变压器,交通局,高碑店市顶津饮品有限公司1#变压器,变压器,石家庄电能替代14号变压器（煤改电）,东盛马庄1变,郭屯电能替代05变压器（煤改电）,东盛马庄4变,郭屯电能替代04变压器（煤改电）,河北高碑店市经济开发管理委员会变压器,河北隆泰物业变压器,高碑店白象食品有限公司变压器,银迈变压器,河北京石高速公路开发有限公司,高碑店市顶津饮品有限公司2#变压器,高碑店市顶津饮品有限公司3#变压器,东盛马庄3变,高碑店市建筑集团公司变压器,保定中油石油销售有限公司第二加油站,0387437765-高碑店市海轮风机制造有限责任公司-专变-45274527-海轮风机厂,0609130229-河北高碑店市豆豆食品(集团)有限公司-专变-127561667-河北高碑店市豆豆食品（集团）有限公司变压器,吉亚无纺布厂,东盛张八屯变压器,华欣水泥2,高碑店市东盛办事处张八屯中心学校变压器,永安印铁变压器2,高碑店市龙安泰房地产开发有限公司3号变压器,高碑店市龙安泰房地产开发有限公司2号变压器,高碑店市东盛初级中学变压器,东盛张八屯地变压器【纯农排变】,高碑店市电业局变压器,郭屯电能替代02变压器（煤改电）,欣欣水泥机械厂,李凯风机厂,高碑店市永杰汽车销售公司,温屯窗纱厂,建安公司,东盛马庄5变,高碑店市万通发展有限责任公司变压器,高碑店市龙安泰房地产开发有限公司变压器,中亚东,河北旭坤房地产开发有限公司,河北旭坤房地产开发有限公司2#变压器,高碑店市华创房地产开发有限公司,华铝,高碑店市凯龙房地产开发有限公司8#变压器,0585511104-高碑店市路灯管理办公室-专变-125093165-高碑店市路灯管理办公室变压器,高碑店市凯龙房地产开发有限公司3#变压器,杨宝坤,东盛马庄变压器,华欣水泥,河北旭坤房地产开发有限公司3#变压器,东盛张八屯南变压器,王克录,永安印铁,冀东商业公司,东盛钱家营新公变,河北旭坤房地产开发有限公司4#变压器,碑店市凯龙房地产开发有限公司变压器,东盛城南供电所变压器,高碑店市园林局变压器,中国石油保定第105站,河北隆泰物业服务有限责任公司高碑店分公司1#变压器,东盛温屯北变压器,郭屯电能替代01号变压器（煤改电）,东盛温屯北公变,高碑店市康美舒空气净化设备科技有限公司,石家庄2#公变变压器,高碑店市凯龙房地产开发有限公司7#变压器,高碑店市凯龙房地产开发有限公司6#变压器,温屯公变,东盛马庄2变,高碑店市凯龙房地产开发有限公司5#变压器,郭屯电能替代03变压器（煤改电）,高碑店市凯龙房地产开发有限公司4#变压器","powerOffReason":"【停电原因】由于豆豆集团分支施工挖断电缆导致１１０ＫＶ马庄变电站１０ＫＶ李家营５２４线路全线停电 【变更送电】因抢修进度加快原因，送电时间由１５日１３：００变更为１５日１２：３０ 【发布渠道】通过９５５９８发布","powerOffId":"2018061513000128"},{"poweroffId":2018061513000114,"sgpoweroffId":null,"subsName":"","lineName":"10kV515大川线","pubTranName":"0013229477北庄村埂北农井变压器【纯农排变】,曲阳县振英钙粉厂变压器,0013010940胡家咀村大坝农井变压器,曲阳县连和养殖有限公司变压器,南仲佐村变压器,0013010435南中佐村西农井变压器【纯农排变】,0013010931南中佐村东农井变压器,0000005051东相如变压器,0013229981大川村东中桥东边农井变压器【纯农排变】,北庄村埂东头北渠农井变压器【纯农排变】,0013584879小川村南水井变压器【纯农排变】,0000006492仲佐村南变变压器,0013229988曲阳县产德乡石城村村东大道农井变压器【纯农排变】,0012411792东相如北区新增变压器,0013585377小川村东水井变压器【纯农排变】,曲阳县丰业养殖技术服务农民专业合作社,西相如机台,0013229997北庄村北梗南四队农井变压器【纯农排变】,0000006844北庄东区变压器,0013696321西相如3区变压器,0012703495大川南区变压器,0012233572东相如农灌变压器【纯农排变】,0000006518铺上农灌1＃变压器,0013229485北庄村老坟农井变压器【纯农排变】,0014469918北庄北区,0000005402西相如北区变压器,北庄农,0013010444胡家咀村河滩农井变压器,曲阳县程鹏钙粉厂变压器,0013229977大川村黑石头下边路南农井变压器【纯农排变】,北庄村变压器,0012943901西相如农灌变压器,0012704381大川北2区变压器,0000005767沙河农灌变压器,南仲佐村东北农井变压器【纯农排变】,0000005046西相如变压器,曲阳县丰晔钙粉厂变压器,0013584876西相如村村北农井变压器【纯农排变】,0013229475曲阳县产德乡石城村村南农井变压器,0014453414小川农灌【纯农排变】,0013145005产德南区变压器,北庄村埂东头南渠农井变压器【纯农排变】,0013229484北庄村牌楼南农井【纯农排变】,大川面粉加工,0013584877大川村大沙河农井变压器【纯农排变】,0000005113大川变压器,0013229986曲阳县产德乡石城村杨树沟农井变压器【纯农排变】,西相如村南农井变压器【纯农排变】,0000006362大川北区变压器,0013229978大川村西大口井农井变压器【纯农排变】,0013229486北庄村牌楼北农井变压器【纯农排变】,0013230003西相如村河西西农灌变压器【纯农排变】,0012479901产德统管1变压器,0013229972大川村方地东头路南农井变压器【纯农排变】,0012263582西相如新增变压器,0013229471大川村滑里沟北农井变压器,0013010446胡家咀村村东农井变压器【纯农排变】,0013229979大川村同子河西路南农井变压器【纯农排变】,0013229975大川村东西队地路北农井变压器【纯农排变】,0013229971大川村东最南桥路南农井变压器【纯农排变】,0000005841北庄小学变压器,0013010437南中佐村东南农井变压器【纯农排变】,0013230","scope":"【影响街道/乡镇】产德乡【高危重要客户】无【影响客户】西相如、东相如、北庄、大川、中佐、产德","startTime":"2018-06-15 09:18:00","stopDate":"2018-06-15 10:30:00","orgNo":"1340619","typeCode":"电网故障停限电","poweroffArea":"【全线路停电】停0012263582西相如新增变压器,0013229975大川村东西队地路北农井变压器【纯农排变】,0000006518铺上农灌1＃变压器,曲阳县丰业养殖技术服务农民专业合作社,0013229981大川村东中桥东边农井变压器【纯农排变】,0000005402西相如北区变压器,0013145005产德南区变压器,曲阳县连和养殖有限公司变压器,0000005046西相如变压器,曲阳县振英钙粉厂变压器,0013229977大川村黑石头下边路南农井变压器【纯农排变】,0014453414小川农灌【纯农排变】,0013230001北庄村牌楼以南1队地农井变压器【纯农排变】,0012479901产德统管1变压器,0000005841北庄小学变压器,0013010437南中佐村东南农井变压器【纯农排变】,0000006492仲佐村南变变压器,南仲佐村东北农井变压器【纯农排变】,0013230003西相如村河西西农灌变压器【纯农排变】,0013585378小川村北水井变压器,0012943901西相如农灌变压器,北庄村埂东头南渠农井变压器【纯农排变】,0013229993北庄村埂北进科地农井变压器【纯农排变】,0013585377小川村东水井变压器【纯农排变】,0013229998北庄村埂北第三条水泥路东头农井变压器【纯农排变】,0013229476北庄南区变压器,0013229972大川村方地东头路南农井变压器【纯农排变】,0012704381大川北2区变压器,0000006844北庄东区变压器,北庄村变压器,0013229978大川村西大口井农井变压器【纯农排变】,曲阳县程鹏钙粉厂变压器,0013010446胡家咀村村东农井变压器【纯农排变】,0013010435南中佐村西农井变压器【纯农排变】,0013229475曲阳县产德乡石城村村南农井变压器,0013229471大川村滑里沟北农井变压器,0014469918北庄北区,0000005113大川变压器,0013229979大川村同子河西路南农井变压器【纯农排变】,西相如机台,0000005767沙河农灌变压器,北庄村埂东头北渠农井变压器【纯农排变】,0013229997北庄村北梗南四队农井变压器【纯农排变】,0013584876西相如村村北农井变压器【纯农排变】,0012233572东相如农灌变压器【纯农排变】,0013229485北庄村老坟农井变压器【纯农排变】,0013229477北庄村埂北农井变压器【纯农排变】,0013230000北庄村海城坡农井变压器,0013584879小川村南水井变压器【纯农排变】,0013229988曲阳县产德乡石城村村东大道农井变压器【纯农排变】,0013229486北庄村牌楼北农井变压器【纯农排变】,0013229973大川村东中桥西农井变压器【纯农排变】,0013230004猪场路农灌变压器,0013229971大川村东最南桥路南农井变压器【纯农排变】,0013696321西相如3区变压器,0013010940胡家咀村大坝农井变压器,0013229986曲阳县产德乡石城村杨树沟农井变压器【纯农排变】,0000005051东相如变压器,南仲佐村变压器,大川面粉加工,0013229484北庄村牌楼南农井【纯农排变】,北庄农,0013229987曲阳县产德乡石城村水库农井变压器【纯农排变】,0012411792东相如北区新增变压器,西相如村南农井变压器【纯农排变】,0013010931南中佐村东农井变压器,0013584877大川村大沙河农井变压器【纯农排变】,0013229468大川村花门东边路东农井变压器【纯农排变】,曲阳县丰晔钙粉厂变压器,0013230005西相如西农灌变压器,0013010444胡家咀村河滩农井变压器,0000006362大川北区变压器,0012703495大川南区变压器","poweroffReason":"【停电原因】由于线路Ｂ相接地导致３５ＫＶ产德变电站１０ＫＶ５１５大川线路全线停电【变更送电】因抢修进度加快原因，送电时间由２０:００变更为１０:３０【发布渠道】通过９５５９８发布","powerTime":"2018-06-15 10:05:45","powerComm":"已全部送电","subsNo":"","lineNo":"","tgNo":"","tgName":null,"infoStatus":"1","orgName":"国网曲阳县供电公司","typeName":null,"infoStatusName":null,"dateDay":null,"orgNos":null,"nowTime":null,"countyName":null,"streetName":null,"villageName":null,"roadName":null,"communityName":null,"tranName":null,"sdLineName":null,"cityCode":"1340619","cityName":"国网曲阳县供电公司","provinceCode":null,"stopTime":"2018-06-15 10:30:00","powerType":"全部","powerOffArea":"【全线路停电】停0012263582西相如新增变压器,0013229975大川村东西队地路北农井变压器【纯农排变】,0000006518铺上农灌1＃变压器,曲阳县丰业养殖技术服务农民专业合作社,0013229981大川村东中桥东边农井变压器【纯农排变】,0000005402西相如北区变压器,0013145005产德南区变压器,曲阳县连和养殖有限公司变压器,0000005046西相如变压器,曲阳县振英钙粉厂变压器,0013229977大川村黑石头下边路南农井变压器【纯农排变】,0014453414小川农灌【纯农排变】,0013230001北庄村牌楼以南1队地农井变压器【纯农排变】,0012479901产德统管1变压器,0000005841北庄小学变压器,0013010437南中佐村东南农井变压器【纯农排变】,0000006492仲佐村南变变压器,南仲佐村东北农井变压器【纯农排变】,0013230003西相如村河西西农灌变压器【纯农排变】,0013585378小川村北水井变压器,0012943901西相如农灌变压器,北庄村埂东头南渠农井变压器【纯农排变】,0013229993北庄村埂北进科地农井变压器【纯农排变】,0013585377小川村东水井变压器【纯农排变】,0013229998北庄村埂北第三条水泥路东头农井变压器【纯农排变】,0013229476北庄南区变压器,0013229972大川村方地东头路南农井变压器【纯农排变】,0012704381大川北2区变压器,0000006844北庄东区变压器,北庄村变压器,0013229978大川村西大口井农井变压器【纯农排变】,曲阳县程鹏钙粉厂变压器,0013010446胡家咀村村东农井变压器【纯农排变】,0013010435南中佐村西农井变压器【纯农排变】,0013229475曲阳县产德乡石城村村南农井变压器,0013229471大川村滑里沟北农井变压器,0014469918北庄北区,0000005113大川变压器,0013229979大川村同子河西路南农井变压器【纯农排变】,西相如机台,0000005767沙河农灌变压器,北庄村埂东头北渠农井变压器【纯农排变】,0013229997北庄村北梗南四队农井变压器【纯农排变】,0013584876西相如村村北农井变压器【纯农排变】,0012233572东相如农灌变压器【纯农排变】,0013229485北庄村老坟农井变压器【纯农排变】,0013229477北庄村埂北农井变压器【纯农排变】,0013230000北庄村海城坡农井变压器,0013584879小川村南水井变压器【纯农排变】,0013229988曲阳县产德乡石城村村东大道农井变压器【纯农排变】,0013229486北庄村牌楼北农井变压器【纯农排变】,0013229973大川村东中桥西农井变压器【纯农排变】,0013230004猪场路农灌变压器,0013229971大川村东最南桥路南农井变压器【纯农排变】,0013696321西相如3区变压器,0013010940胡家咀村大坝农井变压器,0013229986曲阳县产德乡石城村杨树沟农井变压器【纯农排变】,0000005051东相如变压器,南仲佐村变压器,大川面粉加工,0013229484北庄村牌楼南农井【纯农排变】,北庄农,0013229987曲阳县产德乡石城村水库农井变压器【纯农排变】,0012411792东相如北区新增变压器,西相如村南农井变压器【纯农排变】,0013010931南中佐村东农井变压器,0013584877大川村大沙河农井变压器【纯农排变】,0013229468大川村花门东边路东农井变压器【纯农排变】,曲阳县丰晔钙粉厂变压器,0013230005西相如西农灌变压器,0013010444胡家咀村河滩农井变压器,0000006362大川北区变压器,0012703495大川南区变压器","powerOffReason":"【停电原因】由于线路Ｂ相接地导致３５ＫＶ产德变电站１０ＫＶ５１５大川线路全线停电【变更送电】因抢修进度加快原因，送电时间由２０:００变更为１０:３０【发布渠道】通过９５５９８发布","powerOffId":"2018061513000114"},{"poweroffId":2018061513000084,"sgpoweroffId":null,"subsName":"","lineName":"10kV513内堡线","pubTranName":"东内堡公用农业31台区【纯农排变】,东内堡公用农业33台区【纯农排变】,","scope":"【影响街道/乡镇】子位镇【高危重要客户】无【影响客户】东内堡","startTime":"2018-06-15 11:00:00","stopDate":"2018-06-15 14:00:00","orgNo":"1340610","typeCode":"其他临时停电","poweroffArea":"【分支停电】停东内堡公用农业33台区【纯农排变】,东内堡公用农业31台区【纯农排变】","poweroffReason":"【停电原因】由于电杆倾斜需停电进行紧急检修导致３５ＫＶ丁村变电站１０ＫＶ５１３内堡线路主干１０２号杆４２号隔离开关以下线路停电 【变更送电】无 【发布渠道】９５５９８","powerTime":"2018-06-15 13:57:33","powerComm":"已送电","subsNo":"","lineNo":"","tgNo":"","tgName":null,"infoStatus":"1","orgName":"国网定州市供电公司","typeName":null,"infoStatusName":null,"dateDay":null,"orgNos":null,"nowTime":null,"countyName":null,"streetName":null,"villageName":null,"roadName":null,"communityName":null,"tranName":null,"sdLineName":null,"cityCode":"1340610","cityName":"国网定州市供电公司","provinceCode":null,"stopTime":"2018-06-15 14:00:00","powerType":"全部","powerOffArea":"【分支停电】停东内堡公用农业33台区【纯农排变】,东内堡公用农业31台区【纯农排变】","powerOffReason":"【停电原因】由于电杆倾斜需停电进行紧急检修导致３５ＫＶ丁村变电站１０ＫＶ５１３内堡线路主干１０２号杆４２号隔离开关以下线路停电 【变更送电】无 【发布渠道】９５５９８","powerOffId":"2018061513000084"},{"poweroffId":2018061513000079,"sgpoweroffId":null,"subsName":"","lineName":"四六线517","pubTranName":"北六五台区,","scope":"【影响街道/乡镇】大王镇 【高危重要客户】无 【影响客户】北六村","startTime":"2018-06-15 08:52:31","stopDate":"2018-06-15 14:00:00","orgNo":"1340607","typeCode":"电网故障停限电","poweroffArea":"【单台区停电】停北六五台区","poweroffReason":"【停电原因】由于低压电缆烧导致３５ＫＶ张六变电站四六线５１７线路北六五公变台区停电 【变更送电】无 【发布渠道】通过９５５９８发布","powerTime":"2018-06-15 13:47:19","powerComm":"已送电","subsNo":"","lineNo":"","tgNo":"","tgName":null,"infoStatus":"1","orgName":"(原)国网安新县供电公司","typeName":null,"infoStatusName":null,"dateDay":null,"orgNos":null,"nowTime":null,"countyName":null,"streetName":null,"villageName":null,"roadName":null,"communityName":null,"tranName":null,"sdLineName":null,"cityCode":"1340607","cityName":"(原)国网安新县供电公司","provinceCode":null,"stopTime":"2018-06-15 14:00:00","powerType":"全部","powerOffArea":"【单台区停电】停北六五台区","powerOffReason":"【停电原因】由于低压电缆烧导致３５ＫＶ张六变电站四六线５１７线路北六五公变台区停电 【变更送电】无 【发布渠道】通过９５５９８发布","powerOffId":"2018061513000079"},{"poweroffId":2018061513000074,"sgpoweroffId":null,"subsName":"","lineName":"10KV城西农业519","pubTranName":"南庄村东,","scope":"【影响街道/乡镇】东城坊镇 【高危重要客户】无 【影响客户】南庄村","startTime":"2018-06-17 07:00:00","stopDate":"2018-06-17 19:00:00","orgNo":"1340626","typeCode":"临时停电","poweroffArea":"【单台区停电】停南庄村东","poweroffReason":"【停电原因】由于煤改电工程导致１１０ＫＶ涿县变电站１０ＫＶ城西农业５１９线路南庄村东公变台区停电 【变更送电】无 【发布渠道】通过９５５９８发布","powerTime":"2018-06-17 18:40:54","powerComm":"恢复送电","subsNo":"","lineNo":"","tgNo":"","tgName":null,"infoStatus":"1","orgName":"国网涿州市供电公司","typeName":null,"infoStatusName":null,"dateDay":null,"orgNos":null,"nowTime":null,"countyName":null,"streetName":null,"villageName":null,"roadName":null,"communityName":null,"tranName":null,"sdLineName":null,"cityCode":"1340626","cityName":"国网涿州市供电公司","provinceCode":null,"stopTime":"2018-06-17 19:00:00","powerType":"全部","powerOffArea":"【单台区停电】停南庄村东","powerOffReason":"【停电原因】由于煤改电工程导致１１０ＫＶ涿县变电站１０ＫＶ城西农业５１９线路南庄村东公变台区停电 【变更送电】无 【发布渠道】通过９５５９８发布","powerOffId":"2018061513000074"},{"poweroffId":2018061513000070,"sgpoweroffId":null,"subsName":"","lineName":"10KV兴盛屯514","pubTranName":"前铺内,","scope":"【影响街道/乡镇】孙庄乡 【高危重要客户】无 【影响客户】前铺村","startTime":"2018-06-17 07:30:00","stopDate":"2018-06-17 18:30:00","orgNo":"1340626","typeCode":"临时停电","poweroffArea":"【单台区停电】停前铺内","poweroffReason":"【停电原因】由于煤改电工程导致３５ＫＶ孙庄变电站１０ＫＶ兴盛屯５１４线路前铺内公变台区停电 【变更送电】无 【发布渠道】通过９５５９８发布","powerTime":"2018-06-17 18:10:15","powerComm":"恢复送电","subsNo":"","lineNo":"","tgNo":"","tgName":null,"infoStatus":"1","orgName":"国网涿州市供电公司","typeName":null,"infoStatusName":null,"dateDay":null,"orgNos":null,"nowTime":null,"countyName":null,"streetName":null,"villageName":null,"roadName":null,"communityName":null,"tranName":null,"sdLineName":null,"cityCode":"1340626","cityName":"国网涿州市供电公司","provinceCode":null,"stopTime":"2018-06-17 18:30:00","powerType":"全部","powerOffArea":"【单台区停电】停前铺内","powerOffReason":"【停电原因】由于煤改电工程导致３５ＫＶ孙庄变电站１０ＫＶ兴盛屯５１４线路前铺内公变台区停电 【变更送电】无 【发布渠道】通过９５５９８发布","powerOffId":"2018061513000070"},{"poweroffId":2018061513000031,"sgpoweroffId":null,"subsName":"","lineName":"10kV朝阳路站528线路","pubTranName":"B900柱上变压器,","scope":"【影响街道/乡镇】胜利南巷 【高危重要客户】无 【影响客户】工人新村","startTime":"2018-06-15 05:55:00","stopDate":"2018-06-15 11:00:00","orgNo":"13406","typeCode":"电网故障停限电","poweroffArea":"【单台区停电】停B900柱上变压器","poweroffReason":"【停电原因】由于低压保险片烧导致１０ＫＶ朝阳路变电站５２８线路Ｂ９００公变台区停电【变更送电】无【发布渠道】通过９５５９８发布","powerTime":"2018-06-15 10:50:40","powerComm":"已送电","subsNo":"","lineNo":"","tgNo":"","tgName":null,"infoStatus":"1","orgName":"保定供电公司","typeName":null,"infoStatusName":null,"dateDay":null,"orgNos":null,"nowTime":null,"countyName":null,"streetName":null,"villageName":null,"roadName":null,"communityName":null,"tranName":null,"sdLineName":null,"cityCode":"13406","cityName":"保定供电公司","provinceCode":null,"stopTime":"2018-06-15 11:00:00","powerType":"全部","powerOffArea":"【单台区停电】停B900柱上变压器","powerOffReason":"【停电原因】由于低压保险片烧导致１０ＫＶ朝阳路变电站５２８线路Ｂ９００公变台区停电【变更送电】无【发布渠道】通过９５５９８发布","powerOffId":"2018061513000031"},{"poweroffId":2018061513000030,"sgpoweroffId":null,"subsName":"","lineName":"10kV516耿庄线","pubTranName":"神龙制衣有限公司,南绪口综合4台区变压器,北绪口农排6台区【纯农排变】,西绪口农排1台区【纯农排变】,南绪口农排1台区【纯农排变】,0469435766-蠡县大曲堤乡中心小学-专变-127945735-蠡县大曲堤乡中心小学变压器,九天厂,高佐农排7台区【纯农排变】,耿庄农排8台区【纯农排变】,南绪口综合3台区变压器,0469432376-鑫华制革厂-专变-46810308-鑫华,耿庄综合7台区变压器,南绪口综合1台区变压器,曲堤庄农排7台区【纯农排变】,0469435753-蠡县鑫亚皮草服饰有限公司-专变-46810228-万昌,高佐综合4台区变压器,耿庄农排7台区【纯农排变】,昆仑东,耿庄综合8台区变压器,南绪口综合8台区变压器,0469433467-高佐纸箱厂-专变-46810325-高佐纸箱厂,高佐综合10台区变压器,0469432884-蠡县留史朱佐鹏源皮革厂-专变-46810309-蠡县留史朱佐鹏源皮革厂,曲堤庄农排1台区【纯农排变】,昆仑西,鑫龙皮业有限公司,南绪口综合7台区变压器,曲堤庄农排12台区【纯农排变】,南绪口综合6台区变压器,0469433425-旭升制革厂-专变-46810339-旭升,0469433382-向东养殖场-专变-46810270-向东养殖厂,0469432389-兴华制革厂-专变-46810272-兴华厂,0469435128-龙武皮业有限公司-专变-46810229-龙武皮业有限公司,五洋皮革有限公司,耿庄卫生院,西绪口综合1台区变压器,汇帮皮业公司,南绪口农排2台区【纯农排变】,鑫龙（2）,蠡县耿庄东方制革厂变压器,三亚变压器,0469435144-鑫源制革厂-专变-46810304-鑫源,高佐综合14台区变压器,耿庄综合2台区变压器,0621295683-耿庄村小区-专变-129725544-耿庄村小区500KVA变压器,0628807151-蠡县南绪口老五麻山药专业合作社-专变-141400864-蠡县南绪口老五麻山药专业合作社,制污厂北,蠡县达盛昌养羊农民专业合作社变压器,曲堤庄农排13台区【纯农排变】,曲堤庄农排9台区【纯农排变】,南绪口综合9台区变压器,0469435131-万顺制革厂-专变-46810249-万顺厂,西绪口综合3台区变压器,三丰,曲堤庄农排11台区【纯农排变】,华运皮业有限公司,高佐农排6台区【纯农排变】,耿庄农排3台区【纯农排变】,曲堤庄农排8台区【纯农排变】,高佐农排2台区【纯农排变】,曲堤庄农排4台区【纯农排变】,南绪口综合10台区变压器,曲堤庄农排3台区【纯农排变】,0469434574-强盛制革厂-专变-46810389-强盛厂,0630170353-蠡县金海麻山药农民专业合作社-专变-141689200-蠡县汇恩肉羊屠宰厂变压器500,耿庄农排10台区【纯农排变】,耿庄农排6台区【纯农排变】,0469435069-耿亚洲冷库-专变-46810346-耿亚洲冷库,红旗变压器,0630366558-蠡县轩宏麻山药农民专业合作社-专变-141705847-蠡县轩宏麻山药农民专业合作社,耿庄综合14台区变压器,（宏源）光大有限公司,南绪口农排3","scope":"【影响街道/乡镇】大曲堤乡【高危重要客户】无【影响客户】西绪口村、曲堤庄村外、耿庄村、高佐村、北绪口、南绪口村","startTime":"2018-06-15 09:00:00","stopDate":"2018-06-15 10:30:00","orgNo":"1340616","typeCode":"其他临时停电","poweroffArea":"【全线路停电】停耿庄农排6台区【纯农排变】,0621295683-耿庄村小区-专变-129725544-耿庄村小区500KVA变压器,0469435144-鑫源制革厂-专变-46810304-鑫源,高佐农排7台区【纯农排变】,高佐综合1台区变压器,南绪口综合9台区变压器,高佐综合4台区变压器,高佐综合10台区变压器,昆仑西,耿庄综合12台区变压器,0469435766-蠡县大曲堤乡中心小学-专变-127945735-蠡县大曲堤乡中心小学变压器,曲堤庄农排7台区【纯农排变】,0469432389-兴华制革厂-专变-46810272-兴华厂,西绪口农排1台区【纯农排变】,南绪口农排3台区【纯农排变】,高佐农排6台区【纯农排变】,耿庄农排3台区【纯农排变】,0630170353-蠡县金海麻山药农民专业合作社-专变-141689200-蠡县汇恩肉羊屠宰厂变压器500,双礼喷浆厂变压器,南绪口农排5台区【纯农排变】,长城,曲堤庄农排4台区【纯农排变】,曲堤庄农排8台区【纯农排变】,北绪口农排6台区【纯农排变】,蠡县耿庄东方制革厂变压器,蠡县天隆皮业有限公司变压器,0469432376-鑫华制革厂-专变-46810308-鑫华,鑫龙（2）,南绪口农排1台区【纯农排变】,高佐综合8台区变压器,南绪口综合10台区变压器,耿庄综合1台区变压器,昆仑东,九天厂,高佐农排2台区【纯农排变】,南绪口综合7台区变压器,三丰,耿庄农排10台区【纯农排变】,南绪口综合8台区变压器,鑫龙皮业有限公司,汇帮皮业公司,南绪口综合2台区变压器,耿庄综合5台区变压器,曲堤庄农排5台区【纯农排变】,耿庄综合3台区变压器,0628807151-蠡县南绪口老五麻山药专业合作社-专变-141400864-蠡县南绪口老五麻山药专业合作社,三亚变压器,耿庄综合9台区变压器,南绪口农排4台区【纯农排变】,南绪口农排2台区【纯农排变】,高佐农排3台区【纯农排变】,0630170353-蠡县金海麻山药农民专业合作社-专变-141692335-蠡县汇恩肉羊屠宰厂变压器80,大曲堤农排11台区【纯农排变】,变压器,五洋皮革有限公司,西绪口综合1台区变压器,制污厂北,0469433467-高佐纸箱厂-专变-46810325-高佐纸箱厂,耿庄综合8台区变压器,0469432406-蠡县天瑞祥服装有限公司-专变-46810274-汇邦北,耿庄农排8台区【纯农排变】,耿庄卫生院,曲堤庄农排1台区【纯农排变】,北绪口农排7台区【纯农排变】,曲堤庄农排12台区【纯农排变】,（宏源）光大有限公司,蠡县缔明麻山药农民专业合作社变压器,0469435131-万顺制革厂-专变-46810249-万顺厂,0621295683-耿庄村小区-专变-129725540-耿庄村小区315变压器,曲堤庄农排3台区【纯农排变】,0469434574-强盛制革厂-专变-46810389-强盛厂,南绪口综合3台区变压器,耿庄农排7台区【纯农排变】,南绪口综合6台区变压器,曲堤庄农排13台区【纯农排变】,南绪口综合4台区变压器,0469431982-蠡县松林服装有限公司-专变-46810273-蠡县松林服装有限公司,耿庄综合14台区变压器,地中豪,南绪口农排6台区【纯农排变】,0469433425-旭升制革厂-专变-46810339-旭升,耿庄农排5台区【纯农排变】,耿庄综合7台区变压器,高佐综合14台区变压器,0469435069-耿亚洲冷库-专变-46810346-耿亚洲冷库,0469435753-蠡县鑫亚皮草服饰有限公司-专变-46810228-万昌,0469432884-蠡县留史朱佐鹏源皮革厂-专变-46810309-蠡县留史朱佐鹏源皮革厂,红旗变压器,0630366558-蠡县轩宏麻山药农民专业合作社-专变-141705847-蠡县轩宏麻山药农民专业合作社,西绪口综合3台区变压器,曲堤庄农排11台区【纯农排变】,南绪口综合11台区变压器,华运皮业有限公司,神龙制衣有限公司,蠡县达盛昌养羊农民专业合作社变压器,0469433382-向东养殖场-专变-46810270-向东养殖厂,南绪口综合1台区变压器,耿庄综合2台区变压器,耿庄","poweroffReason":"【停电原因】由于线路严重缺陷，需停电进行紧急消缺导致３５ＫＶ握纽庄变电站１０ＫＶ耿庄５１６线路全线停电【变更送电】无【发布渠道】通过９５５９８发布","powerTime":"2018-06-15 09:37:13","powerComm":"已送电","subsNo":"","lineNo":"","tgNo":"","tgName":null,"infoStatus":"1","orgName":"国网蠡县供电公司","typeName":null,"infoStatusName":null,"dateDay":null,"orgNos":null,"nowTime":null,"countyName":null,"streetName":null,"villageName":null,"roadName":null,"communityName":null,"tranName":null,"sdLineName":null,"cityCode":"1340616","cityName":"国网蠡县供电公司","provinceCode":null,"stopTime":"2018-06-15 10:30:00","powerType":"全部","powerOffArea":"【全线路停电】停耿庄农排6台区【纯农排变】,0621295683-耿庄村小区-专变-129725544-耿庄村小区500KVA变压器,0469435144-鑫源制革厂-专变-46810304-鑫源,高佐农排7台区【纯农排变】,高佐综合1台区变压器,南绪口综合9台区变压器,高佐综合4台区变压器,高佐综合10台区变压器,昆仑西,耿庄综合12台区变压器,0469435766-蠡县大曲堤乡中心小学-专变-127945735-蠡县大曲堤乡中心小学变压器,曲堤庄农排7台区【纯农排变】,0469432389-兴华制革厂-专变-46810272-兴华厂,西绪口农排1台区【纯农排变】,南绪口农排3台区【纯农排变】,高佐农排6台区【纯农排变】,耿庄农排3台区【纯农排变】,0630170353-蠡县金海麻山药农民专业合作社-专变-141689200-蠡县汇恩肉羊屠宰厂变压器500,双礼喷浆厂变压器,南绪口农排5台区【纯农排变】,长城,曲堤庄农排4台区【纯农排变】,曲堤庄农排8台区【纯农排变】,北绪口农排6台区【纯农排变】,蠡县耿庄东方制革厂变压器,蠡县天隆皮业有限公司变压器,0469432376-鑫华制革厂-专变-46810308-鑫华,鑫龙（2）,南绪口农排1台区【纯农排变】,高佐综合8台区变压器,南绪口综合10台区变压器,耿庄综合1台区变压器,昆仑东,九天厂,高佐农排2台区【纯农排变】,南绪口综合7台区变压器,三丰,耿庄农排10台区【纯农排变】,南绪口综合8台区变压器,鑫龙皮业有限公司,汇帮皮业公司,南绪口综合2台区变压器,耿庄综合5台区变压器,曲堤庄农排5台区【纯农排变】,耿庄综合3台区变压器,0628807151-蠡县南绪口老五麻山药专业合作社-专变-141400864-蠡县南绪口老五麻山药专业合作社,三亚变压器,耿庄综合9台区变压器,南绪口农排4台区【纯农排变】,南绪口农排2台区【纯农排变】,高佐农排3台区【纯农排变】,0630170353-蠡县金海麻山药农民专业合作社-专变-141692335-蠡县汇恩肉羊屠宰厂变压器80,大曲堤农排11台区【纯农排变】,变压器,五洋皮革有限公司,西绪口综合1台区变压器,制污厂北,0469433467-高佐纸箱厂-专变-46810325-高佐纸箱厂,耿庄综合8台区变压器,0469432406-蠡县天瑞祥服装有限公司-专变-46810274-汇邦北,耿庄农排8台区【纯农排变】,耿庄卫生院,曲堤庄农排1台区【纯农排变】,北绪口农排7台区【纯农排变】,曲堤庄农排12台区【纯农排变】,（宏源）光大有限公司,蠡县缔明麻山药农民专业合作社变压器,0469435131-万顺制革厂-专变-46810249-万顺厂,0621295683-耿庄村小区-专变-129725540-耿庄村小区315变压器,曲堤庄农排3台区【纯农排变】,0469434574-强盛制革厂-专变-46810389-强盛厂,南绪口综合3台区变压器,耿庄农排7台区【纯农排变】,南绪口综合6台区变压器,曲堤庄农排13台区【纯农排变】,南绪口综合4台区变压器,0469431982-蠡县松林服装有限公司-专变-46810273-蠡县松林服装有限公司,耿庄综合14台区变压器,地中豪,南绪口农排6台区【纯农排变】,0469433425-旭升制革厂-专变-46810339-旭升,耿庄农排5台区【纯农排变】,耿庄综合7台区变压器,高佐综合14台区变压器,0469435069-耿亚洲冷库-专变-46810346-耿亚洲冷库,0469435753-蠡县鑫亚皮草服饰有限公司-专变-46810228-万昌,0469432884-蠡县留史朱佐鹏源皮革厂-专变-46810309-蠡县留史朱佐鹏源皮革厂,红旗变压器,0630366558-蠡县轩宏麻山药农民专业合作社-专变-141705847-蠡县轩宏麻山药农民专业合作社,西绪口综合3台区变压器,曲堤庄农排11台区【纯农排变】,南绪口综合11台区变压器,华运皮业有限公司,神龙制衣有限公司,蠡县达盛昌养羊农民专业合作社变压器,0469433382-向东养殖场-专变-46810270-向东养殖厂,南绪口综合1台区变压器,耿庄综合2台区变压器,耿庄","powerOffReason":"【停电原因】由于线路严重缺陷，需停电进行紧急消缺导致３５ＫＶ握纽庄变电站１０ＫＶ耿庄５１６线路全线停电【变更送电】无【发布渠道】通过９５５９８发布","powerOffId":"2018061513000030"},{"poweroffId":2018061513000027,"sgpoweroffId":null,"subsName":"","lineName":"瀑河线517","pubTranName":"东凡村4号,","scope":"【影响街道/乡镇】户木乡 【高危重要客户】无 【影响客户】东凡村","startTime":"2018-06-15 05:49:56","stopDate":"2018-06-15 20:00:00","orgNo":"1340605","typeCode":"电网故障停限电","poweroffArea":"【单台区停电】停东凡村4号","poweroffReason":"【停电原因】由于变压器低压保险片烧毁导致３５ＫＶ户木变电站瀑河线５１７线路东凡村４号公变台区停电 【变更送电】因故障未处理完成，送电时间由０８:００变更为２０:００； 【发布渠道】通过９５５９８发布","powerTime":"2018-06-15 15:22:38","powerComm":"已送电","subsNo":"","lineNo":"","tgNo":"","tgName":null,"infoStatus":"1","orgName":"国网徐水县供电公司","typeName":null,"infoStatusName":null,"dateDay":null,"orgNos":null,"nowTime":null,"countyName":null,"streetName":null,"villageName":null,"roadName":null,"communityName":null,"tranName":null,"sdLineName":null,"cityCode":"1340605","cityName":"国网徐水县供电公司","provinceCode":null,"stopTime":"2018-06-15 20:00:00","powerType":"全部","powerOffArea":"【单台区停电】停东凡村4号","powerOffReason":"【停电原因】由于变压器低压保险片烧毁导致３５ＫＶ户木变电站瀑河线５１７线路东凡村４号公变台区停电 【变更送电】因故障未处理完成，送电时间由０８:００变更为２０:００； 【发布渠道】通过９５５９８发布","powerOffId":"2018061513000027"},{"poweroffId":2018061513000008,"sgpoweroffId":null,"subsName":"","lineName":"10kV515大王庄线","pubTranName":"大王庄公用照明2台区,北辛庄公用农业7台区,姜钮庄公用农业1台区【纯农排变】,姜钮庄公用农业5台区【纯农排变】,南辛庄公用照明3台区,姜钮庄公用照明1台区,赵祚公用农业4台区【纯农排变】,姜钮庄公用农业11台区【纯农排变】,南辛庄公用农业5台区,中辛庄公用农业6台区,南辛庄公用农业4台区,姜钮庄公用农业6台区【纯农排变】,北辛庄公用农业5台区,中辛庄公用农业7台区,北辛庄公用农业1台区,李村店农业1台区,中辛庄公用农业2台区【纯农排变】,北辛庄公用照明5台区,姜钮庄村鸡厂,大王庄公用农业12台区【纯农排变】,南辛庄公用农业3台区,中辛庄公用农业9台区,中辛庄公用农业3台区,大王庄公用农业5台区,南辛庄公用照明2台区,姜钮庄公用农业7台区,北辛庄公用农业2台区,大王庄公用农业6台区【纯农排变】,大王庄公用农业3台区,中辛庄公用照明2台区,姜钮庄公用农业2台区【纯农排变】,城旺公用农业4台区【纯农排变】,赵祚公用农业2台区【纯农排变】,大王庄公用农业9台区【纯农排变】,北辛庄公用农业8台区,中辛庄公用照明1台区,北辛庄公用照明1台区,姜钮庄公用照明3台区,大王庄公用照明5台区,北辛庄公用照明4台区,姜钮庄公用农业3台区【纯农排变】,南辛庄公用农业8台区,北辛庄公用农业6台区,北辛庄公用农业4台区,大王庄公用农业1台区,北辛庄公用农业3台区,中辛庄公用农业4台区,城旺公用农业5台区【纯农排变】,北辛庄公用照明2台区,姜钮庄公用照明6台区,姜钮庄公用农业8台区,中山配件厂,大王庄公用农业8台区【纯农排变】,姜钮庄公用照明5台区,城旺公用农业7台区【纯农排变】,南辛庄公用照明1台区,南辛庄公用农业1台区,城旺公用农业6台区,大王庄公用农业11台区【纯农排变】,赵祚公用农业5台区,南辛庄公用农业7台区【纯农排变】,姜钮庄公用农业9台区【纯农排变】,姜钮庄公用农业10台区,中辛庄公用农业5台区,大王庄公用农业7台区【纯农排变】,姜钮庄公用农业4台区【纯农排变】,大王庄公用照明4台区,大王庄公用农业4台区【纯农排变】,大王庄公用照明3台区,南辛庄公用农业6台区,北辛庄公用照明3台区,中辛庄公用农业1台区,大王庄公用照明1台区,城旺公用农业8台区【纯农排变】,姜钮庄公用照明2台区,南辛庄公用农业2台区,大王庄公用农业10台区【纯农排变】,北辛庄公用农业9台区,大王庄公用农业2台区【纯农排变】,姜钮庄公用照明4台区,","scope":"【影响街道/乡镇】东旺镇【高危重要客户】无【影响客户】大王庄、姜钮庄、中辛庄、北辛庄、南辛庄","startTime":"2018-06-15 05:00:00","stopDate":"2018-06-15 16:20:00","orgNo":"1340610","typeCode":"其他临时停电","poweroffArea":"【全线路停电】停大王庄公用农业9台区【纯农排变】,姜钮庄公用农业8台区,北辛庄公用照明2台区,姜钮庄公用照明1台区,北辛庄公用农业6台区,北辛庄公用农业1台区,北辛庄公用农业5台区,李村店农业1台区,南辛庄公用农业1台区,大王庄公用农业11台区【纯农排变】,中辛庄公用农业5台区,城旺公用农业5台区【纯农排变】,北辛庄公用农业8台区,北辛庄公用农业2台区,大王庄公用农业6台区【纯农排变】,北辛庄公用农业9台区,中辛庄公用农业2台区【纯农排变】,姜钮庄公用农业6台区【纯农排变】,大王庄公用农业7台区【纯农排变】,大王庄公用农业12台区【纯农排变】,南辛庄公用照明3台区,赵祚公用农业5台区,赵祚公用农业2台区【纯农排变】,南辛庄公用农业5台区,大王庄公用照明3台区,大王庄公用农业10台区【纯农排变】,大王庄公用照明4台区,中辛庄公用农业9台区,南辛庄公用农业2台区,姜钮庄公用农业1台区【纯农排变】,中辛庄公用农业7台区,中辛庄公用照明1台区,城旺公用农业8台区【纯农排变】,南辛庄公用照明1台区,北辛庄公用农业3台区,大王庄公用农业4台区【纯农排变】,大王庄公用农业1台区,中山配件厂,城旺公用农业4台区【纯农排变】,姜钮庄公用照明3台区,姜钮庄公用农业10台区,中辛庄公用农业3台区,大王庄公用照明1台区,姜钮庄公用农业2台区【纯农排变】,中辛庄公用农业6台区,中辛庄公用照明2台区,赵祚公用农业4台区【纯农排变】,大王庄公用农业2台区【纯农排变】,姜钮庄公用照明2台区,姜钮庄公用农业4台区【纯农排变】,大王庄公用农业8台区【纯农排变】,姜钮庄公用农业3台区【纯农排变】,姜钮庄村鸡厂,城旺公用农业6台区,姜钮庄公用照明5台区,姜钮庄公用农业11台区【纯农排变】,北辛庄公用农业4台区,北辛庄公用照明1台区,大王庄公用照明5台区,城旺公用农业7台区【纯农排变】,大王庄公用照明2台区,大王庄公用农业3台区,南辛庄公用农业7台区【纯农排变】,姜钮庄公用农业5台区【纯农排变】,南辛庄公用农业8台区,南辛庄公用农业3台区,中辛庄公用农业1台区,中辛庄公用农业4台区,南辛庄公用农业4台区,北辛庄公用农业7台区,北辛庄公用照明5台区,北辛庄公用照明3台区,南辛庄公用农业6台区,北辛庄公用照明4台区,姜钮庄公用照明4台区,姜钮庄公用照明6台区,姜钮庄公用农业9台区【纯农排变】,姜钮庄公用农业7台区,南辛庄公用照明2台区,大王庄公用农业5台区","poweroffReason":"【停电原因】由于主干６８号电杆倾斜需停电进行紧急检修导致３５ＫＶ东旺变电站１０ＫＶ５１５大王庄线路全线停电 【变更送电】因抢修进度加快原因，送电时间由２２：００变更为１６：２０ 【发布渠道】９５５９８","powerTime":"2018-06-15 15:58:15","powerComm":"已送电","subsNo":"","lineNo":"","tgNo":"","tgName":null,"infoStatus":"1","orgName":"国网定州市供电公司","typeName":null,"infoStatusName":null,"dateDay":null,"orgNos":null,"nowTime":null,"countyName":null,"streetName":null,"villageName":null,"roadName":null,"communityName":null,"tranName":null,"sdLineName":null,"cityCode":"1340610","cityName":"国网定州市供电公司","provinceCode":null,"stopTime":"2018-06-15 16:20:00","powerType":"全部","powerOffArea":"【全线路停电】停大王庄公用农业9台区【纯农排变】,姜钮庄公用农业8台区,北辛庄公用照明2台区,姜钮庄公用照明1台区,北辛庄公用农业6台区,北辛庄公用农业1台区,北辛庄公用农业5台区,李村店农业1台区,南辛庄公用农业1台区,大王庄公用农业11台区【纯农排变】,中辛庄公用农业5台区,城旺公用农业5台区【纯农排变】,北辛庄公用农业8台区,北辛庄公用农业2台区,大王庄公用农业6台区【纯农排变】,北辛庄公用农业9台区,中辛庄公用农业2台区【纯农排变】,姜钮庄公用农业6台区【纯农排变】,大王庄公用农业7台区【纯农排变】,大王庄公用农业12台区【纯农排变】,南辛庄公用照明3台区,赵祚公用农业5台区,赵祚公用农业2台区【纯农排变】,南辛庄公用农业5台区,大王庄公用照明3台区,大王庄公用农业10台区【纯农排变】,大王庄公用照明4台区,中辛庄公用农业9台区,南辛庄公用农业2台区,姜钮庄公用农业1台区【纯农排变】,中辛庄公用农业7台区,中辛庄公用照明1台区,城旺公用农业8台区【纯农排变】,南辛庄公用照明1台区,北辛庄公用农业3台区,大王庄公用农业4台区【纯农排变】,大王庄公用农业1台区,中山配件厂,城旺公用农业4台区【纯农排变】,姜钮庄公用照明3台区,姜钮庄公用农业10台区,中辛庄公用农业3台区,大王庄公用照明1台区,姜钮庄公用农业2台区【纯农排变】,中辛庄公用农业6台区,中辛庄公用照明2台区,赵祚公用农业4台区【纯农排变】,大王庄公用农业2台区【纯农排变】,姜钮庄公用照明2台区,姜钮庄公用农业4台区【纯农排变】,大王庄公用农业8台区【纯农排变】,姜钮庄公用农业3台区【纯农排变】,姜钮庄村鸡厂,城旺公用农业6台区,姜钮庄公用照明5台区,姜钮庄公用农业11台区【纯农排变】,北辛庄公用农业4台区,北辛庄公用照明1台区,大王庄公用照明5台区,城旺公用农业7台区【纯农排变】,大王庄公用照明2台区,大王庄公用农业3台区,南辛庄公用农业7台区【纯农排变】,姜钮庄公用农业5台区【纯农排变】,南辛庄公用农业8台区,南辛庄公用农业3台区,中辛庄公用农业1台区,中辛庄公用农业4台区,南辛庄公用农业4台区,北辛庄公用农业7台区,北辛庄公用照明5台区,北辛庄公用照明3台区,南辛庄公用农业6台区,北辛庄公用照明4台区,姜钮庄公用照明4台区,姜钮庄公用照明6台区,姜钮庄公用农业9台区【纯农排变】,姜钮庄公用农业7台区,南辛庄公用照明2台区,大王庄公用农业5台区","powerOffReason":"【停电原因】由于主干６８号电杆倾斜需停电进行紧急检修导致３５ＫＶ东旺变电站１０ＫＶ５１５大王庄线路全线停电 【变更送电】因抢修进度加快原因，送电时间由２２：００变更为１６：２０ 【发布渠道】９５５９８","powerOffId":"2018061513000008"}],"pageModel":{"pageNow":984,"totalCount":10973,"totalPage":1098,"tableRows":0,"pageCount":10,"beginCount":9830},"isExperi":"1"}