{"message":"","today":"2020-06-15","seleList":[{"poweroffId":2018061413000578,"sgpoweroffId":null,"subsName":"","lineName":"东邵514","pubTranName":"涞山村8#,黄山村9#,东邵新6号,涞山村5#【纯农排变】,大巨村7#【纯农排变】,东邵中村3#【纯农排变】,贾庄村1号【纯农排变】,大方村13#【纯农排变】,大巨村10#,大巨村6#【纯农排变】,东邵东村7#变压器,黄山村10#,大方村16#,大方村北12#,大巨20号变压器,东韩村2#,东邵东村1#【纯农排变】,贾庄村2号【纯农排变】,大方17号变压器,东邵中村7#,大方村6#【纯农排变】,黄山村7#,大方村5#【纯农排变】,黄山村1#,大方村3#【纯农排变】,东邵新7号,大巨村9#【纯农排变】,大巨村5#【纯农排变】,贾庄村7号,大方村4#【纯农排变】,大方村9#,大巨19号变压器,南韩村1#配变【纯农排变】,大巨21号变压器【纯农排变】,东邵东村8#变压器,东邵新村5#,东邵中村1#,","scope":"【影响街道/乡镇】凌云册乡【高危重要客户】无【影响客户】涞山村、贾庄村、辛庄村、东东邵村、中东邵村、新东邵村、大巨村、大方村、黄山村、东韩村","startTime":"2018-06-29 08:30:00","stopDate":"2018-06-29 19:00:00","orgNo":"1340625","typeCode":"计划停电","poweroffArea":"【全线路停电】停东邵东村8#变压器,大方村北12#,大方村13#【纯农排变】,大方村6#【纯农排变】,大方村16#,大方17号变压器,大方村3#【纯农排变】,大方村4#【纯农排变】,大方村5#【纯农排变】,大方村9#,大巨村10#,大巨村5#【纯农排变】,大巨19号变压器,大巨村6#【纯农排变】,大巨村7#【纯农排变】,大巨村9#【纯农排变】,东韩村2#,东邵东村1#【纯农排变】,东邵东村7#变压器,东邵新村5#,东邵新6号,东邵中村7#,东邵中村3#【纯农排变】,东邵中村1#,黄山村9#,黄山村7#,黄山村10#,黄山村1#,贾庄村1号【纯农排变】,贾庄村2号【纯农排变】,贾庄村7号,涞山村5#【纯农排变】,涞山村8#,大巨20号变压器,大巨21号变压器【纯农排变】,南韩村1#配变【纯农排变】,东邵新7号","poweroffReason":"【停电原因】由于东邵５１４主干线路清扫检修，导致３５ＫＶ凌云册变电站东邵５１４线路全线停电【变更送电】无【发布渠道】保定市易县电视台（０６月１５日００时至０６月２５日２４时之间）下方滚动","powerTime":"2018-06-29 18:50:46","powerComm":"已送电","subsNo":"","lineNo":"","tgNo":"","tgName":null,"infoStatus":"1","orgName":"国网易县供电公司","typeName":null,"infoStatusName":null,"dateDay":null,"orgNos":null,"nowTime":null,"countyName":null,"streetName":null,"villageName":null,"roadName":null,"communityName":null,"tranName":null,"sdLineName":null,"cityCode":"1340625","cityName":"国网易县供电公司","provinceCode":null,"stopTime":"2018-06-29 19:00:00","powerType":"全部","powerOffArea":"【全线路停电】停东邵东村8#变压器,大方村北12#,大方村13#【纯农排变】,大方村6#【纯农排变】,大方村16#,大方17号变压器,大方村3#【纯农排变】,大方村4#【纯农排变】,大方村5#【纯农排变】,大方村9#,大巨村10#,大巨村5#【纯农排变】,大巨19号变压器,大巨村6#【纯农排变】,大巨村7#【纯农排变】,大巨村9#【纯农排变】,东韩村2#,东邵东村1#【纯农排变】,东邵东村7#变压器,东邵新村5#,东邵新6号,东邵中村7#,东邵中村3#【纯农排变】,东邵中村1#,黄山村9#,黄山村7#,黄山村10#,黄山村1#,贾庄村1号【纯农排变】,贾庄村2号【纯农排变】,贾庄村7号,涞山村5#【纯农排变】,涞山村8#,大巨20号变压器,大巨21号变压器【纯农排变】,南韩村1#配变【纯农排变】,东邵新7号","powerOffReason":"【停电原因】由于东邵５１４主干线路清扫检修，导致３５ＫＶ凌云册变电站东邵５１４线路全线停电【变更送电】无【发布渠道】保定市易县电视台（０６月１５日００时至０６月２５日２４时之间）下方滚动","powerOffId":"2018061413000578"},{"poweroffId":2018061413000546,"sgpoweroffId":null,"subsName":"","lineName":"10kV513内堡线","pubTranName":"东内堡公用农业33台区,东内堡公用农业15台区【纯农排变】,北内堡公用农业16台区【纯农排变】,北内堡村公用照明8台区,北内堡粮站,七级公用农业13台区,七级公用农业17台区【纯农排变】,七级公用农业23台区【纯农排变】,东内堡公用照明10台区,七级公用农业22台区【纯农排变】,七级公用农业15台区【纯农排变】,东内堡公用农业29台区,东内堡公用农业35台区,七级公用照明4台区,北内堡村公用照明10台区,七级公用农业19台区【纯农排变】,东内堡公用农业16台区,东内堡公用农业24台区,东内堡公用农业38台区【纯农排变】,北内堡村公用照明6台区,七级公用照明2台区,东内堡公用农业36台区,七级公用照明5台区,北内堡村公用照明4台区,北内堡公用农业22台区,东内堡公用农业26台区,北内堡公用农业6台区【纯农排变】,七级公用农业11台区,东内堡公用照明3台区,北内堡村公用照明1台区,北内堡公用农业1台区【纯农排变】,七级公用农业20台区,东内堡公用农业18台区【纯农排变】,北内堡公用农业8台区【纯农排变】,北内堡公用农业11台区,定州市子位镇西丁庄村村民委员会变压器,北内堡公用农业10台区【纯农排变】,七级公用农业21台区,东内堡公用农业13台区,东内堡公用照明6台区,七级公用农业18台区【纯农排变】,东内堡公用农业1台区,北内堡公用农业9台区【纯农排变】,东内堡公用农业7台区,北内堡村公用照明3台区,东内堡公用农业12台区,东内堡公用照明14台区,北内堡村公用照明5台区,北内堡公用农业18台区,七级公用照明3台区,东内堡公用农业25台区,东内堡公用农业9台区,定州市七级计生面粉厂,定州市七级栓成面粉厂,东内堡公用农业14台区,东内堡公用农业6台区,北内堡村公用照明2台区,北内堡公用农业12台区【纯农排变】,七级公用农业12台区,东内堡公用农业19台区,北内堡公用农业23台区,西丁庄公用农业1台区,东内堡公用农业34台区,北内堡公用农业5台区【纯农排变】,东内堡公用农业32台区,北内堡公用农业2台区【纯农排变】,东内堡自来水厂（统管）,东内堡公用照明8台区,七级公用农业14台区【纯农排变】,北内堡村公用照明9台区,北内堡公用农业17台区,东内堡公用农业10台区,东内堡公用农业2台区【纯农排变】,东内堡公用农业39台区,北内堡公用农业15台区【纯农排变】,定州市东内堡振尧面粉厂,东内堡公用农业23台区,东内堡公用农业21台区,东内堡公用照明1台区,北内堡公用农业21台区,东内堡公用农业3台区,北内堡公用农业4台区,东内堡公用农业37台区,七级公用照明1台区,东内堡公用照明13台区,东内堡公用农业31台区,东内堡公用照明2台区,北内堡公用农业13台区【纯农排变】,东内堡公用农业5台区,东内堡公用照明11台区,东内堡公用照明5台区,北内堡公用农业19台区,东内堡公用农业20台区,东内堡公用农业4台区,东内堡公用农业11台区,东内堡公用照明9台区,北内堡公用农业20台区【纯农排变】,北内堡公用农业14台区【纯农排变】,七级公用照明7台区,北内堡村公用照明7台区,北内堡公用农业7台区【纯农排变】,七级公用照明9台区,东内堡公用农业28","scope":"【影响街道/乡镇】子位镇【高危重要客户】无【影响客户】北内堡、东内堡、七级、西丁庄","startTime":"2018-06-14 17:36:55","stopDate":"2018-06-14 20:00:00","orgNo":"1340610","typeCode":"电网故障停限电","poweroffArea":"【全线路停电】停东内堡公用农业28台区,东内堡公用照明13台区,东内堡公用农业1台区,北内堡公用农业12台区【纯农排变】,东内堡公用农业39台区,东内堡公用照明6台区,北内堡村公用照明6台区,东内堡小庄公用照明1台区,东内堡公用照明10台区,定州市七级计生面粉厂,东内堡公用农业26台区,七级公用照明3台区,东内堡公用农业5台区,东内堡公用农业38台区【纯农排变】,东内堡公用农业22台区【纯农排变】,东内堡公用农业21台区,东内堡公用照明3台区,东内堡公用照明8台区,北内堡村公用照明9台区,东内堡公用农业36台区,七级公用照明1台区,东内堡公用农业2台区【纯农排变】,东内堡公用农业34台区,东内堡公用照明12台区,北内堡公用农业16台区【纯农排变】,北内堡公用农业23台区,东内堡公用农业12台区,七级公用农业18台区【纯农排变】,北内堡公用农业8台区【纯农排变】,七级公用农业12台区,北内堡公用农业1台区【纯农排变】,七级公用农业19台区【纯农排变】,北内堡公用农业18台区,北内堡公用农业17台区,东内堡公用照明1台区,七级公用照明6台区,北内堡公用农业9台区【纯农排变】,北内堡公用农业7台区【纯农排变】,东内堡公用农业17台区,定州市东内堡振尧面粉厂,七级公用农业20台区,东内堡公用农业6台区,东内堡公用农业3台区,东内堡公用农业23台区,东内堡公用照明4台区,东内堡公用照明11台区,七级公用农业21台区,北内堡公用农业19台区,东内堡公用农业11台区,东内堡公用农业31台区,七级公用农业14台区【纯农排变】,北内堡村公用照明1台区,东内堡自来水厂（统管）,七级公用照明7台区,定州市七级栓成面粉厂,北内堡村公用照明4台区,七级公用农业17台区【纯农排变】,东内堡公用农业29台区,北内堡公用农业21台区,北内堡村公用照明8台区,东内堡公用农业7台区,东内堡公用农业20台区,东内堡公用照明9台区,东内堡公用照明2台区,东内堡公用照明14台区,东内堡公用农业35台区,七级公用农业22台区【纯农排变】,北内堡村公用照明5台区,北内堡公用农业2台区【纯农排变】,七级公用农业15台区【纯农排变】,北内堡公用农业20台区【纯农排变】,东内堡公用农业9台区,北内堡村公用照明7台区,北内堡村公用照明10台区,北内堡粮站,七级公用照明9台区,东内堡公用农业10台区,北内堡公用农业10台区【纯农排变】,七级公用照明5台区,东内堡公用农业18台区【纯农排变】,北内堡公用农业13台区【纯农排变】,定州市子位镇西丁庄村村民委员会变压器,北内堡村公用照明2台区,北内堡公用农业14台区【纯农排变】,东内堡公用农业19台区,东内堡公用农业32台区,七级公用农业16台区【纯农排变】,西丁庄公用农业1台区,七级公用农业23台区【纯农排变】,东内堡公用农业14台区,北内堡公用农业11台区,东内堡公用农业24台区,东内堡公用农业13台区,北内堡公用农业15台区【纯农排变】,东内堡公用农业33台区,七级公用照明4台区,东内堡公用农业30台区【纯农排变】,东内堡公用照明5台区,七级公用照明8台区,东内堡公用农业4台区,北内堡公用农业22台区,东内堡公用农业27台区,东内堡公用农业16台区,东内堡公用农业25台区,北内堡公用农业4台区,七级公用照明2台区,东内堡公用农业37台区,七级公用农业11台区,东内堡公用农业8台区,北内堡公用农业6台区【纯农排变】,北内堡公用农业5台区【纯农排变】,东内堡公用农业15台区【纯农排变】,北内堡村公用照明3台区,七级公用农业13台区","poweroffReason":"【停电原因】由于七级四分支０１号杆七级栓成面粉厂配变避雷器击穿导致３５ＫＶ丁村变电站１０ＫＶ５１３内堡线路全线停电 【变更送电】因抢修进度加快原因，送电时间由１５日１２：００变更为１４日２０：００ 【发布渠道】９５５９８","powerTime":"2018-06-14 19:33:07","powerComm":"已送电","subsNo":"","lineNo":"","tgNo":"","tgName":null,"infoStatus":"1","orgName":"国网定州市供电公司","typeName":null,"infoStatusName":null,"dateDay":null,"orgNos":null,"nowTime":null,"countyName":null,"streetName":null,"villageName":null,"roadName":null,"communityName":null,"tranName":null,"sdLineName":null,"cityCode":"1340610","cityName":"国网定州市供电公司","provinceCode":null,"stopTime":"2018-06-14 20:00:00","powerType":"全部","powerOffArea":"【全线路停电】停东内堡公用农业28台区,东内堡公用照明13台区,东内堡公用农业1台区,北内堡公用农业12台区【纯农排变】,东内堡公用农业39台区,东内堡公用照明6台区,北内堡村公用照明6台区,东内堡小庄公用照明1台区,东内堡公用照明10台区,定州市七级计生面粉厂,东内堡公用农业26台区,七级公用照明3台区,东内堡公用农业5台区,东内堡公用农业38台区【纯农排变】,东内堡公用农业22台区【纯农排变】,东内堡公用农业21台区,东内堡公用照明3台区,东内堡公用照明8台区,北内堡村公用照明9台区,东内堡公用农业36台区,七级公用照明1台区,东内堡公用农业2台区【纯农排变】,东内堡公用农业34台区,东内堡公用照明12台区,北内堡公用农业16台区【纯农排变】,北内堡公用农业23台区,东内堡公用农业12台区,七级公用农业18台区【纯农排变】,北内堡公用农业8台区【纯农排变】,七级公用农业12台区,北内堡公用农业1台区【纯农排变】,七级公用农业19台区【纯农排变】,北内堡公用农业18台区,北内堡公用农业17台区,东内堡公用照明1台区,七级公用照明6台区,北内堡公用农业9台区【纯农排变】,北内堡公用农业7台区【纯农排变】,东内堡公用农业17台区,定州市东内堡振尧面粉厂,七级公用农业20台区,东内堡公用农业6台区,东内堡公用农业3台区,东内堡公用农业23台区,东内堡公用照明4台区,东内堡公用照明11台区,七级公用农业21台区,北内堡公用农业19台区,东内堡公用农业11台区,东内堡公用农业31台区,七级公用农业14台区【纯农排变】,北内堡村公用照明1台区,东内堡自来水厂（统管）,七级公用照明7台区,定州市七级栓成面粉厂,北内堡村公用照明4台区,七级公用农业17台区【纯农排变】,东内堡公用农业29台区,北内堡公用农业21台区,北内堡村公用照明8台区,东内堡公用农业7台区,东内堡公用农业20台区,东内堡公用照明9台区,东内堡公用照明2台区,东内堡公用照明14台区,东内堡公用农业35台区,七级公用农业22台区【纯农排变】,北内堡村公用照明5台区,北内堡公用农业2台区【纯农排变】,七级公用农业15台区【纯农排变】,北内堡公用农业20台区【纯农排变】,东内堡公用农业9台区,北内堡村公用照明7台区,北内堡村公用照明10台区,北内堡粮站,七级公用照明9台区,东内堡公用农业10台区,北内堡公用农业10台区【纯农排变】,七级公用照明5台区,东内堡公用农业18台区【纯农排变】,北内堡公用农业13台区【纯农排变】,定州市子位镇西丁庄村村民委员会变压器,北内堡村公用照明2台区,北内堡公用农业14台区【纯农排变】,东内堡公用农业19台区,东内堡公用农业32台区,七级公用农业16台区【纯农排变】,西丁庄公用农业1台区,七级公用农业23台区【纯农排变】,东内堡公用农业14台区,北内堡公用农业11台区,东内堡公用农业24台区,东内堡公用农业13台区,北内堡公用农业15台区【纯农排变】,东内堡公用农业33台区,七级公用照明4台区,东内堡公用农业30台区【纯农排变】,东内堡公用照明5台区,七级公用照明8台区,东内堡公用农业4台区,北内堡公用农业22台区,东内堡公用农业27台区,东内堡公用农业16台区,东内堡公用农业25台区,北内堡公用农业4台区,七级公用照明2台区,东内堡公用农业37台区,七级公用农业11台区,东内堡公用农业8台区,北内堡公用农业6台区【纯农排变】,北内堡公用农业5台区【纯农排变】,东内堡公用农业15台区【纯农排变】,北内堡村公用照明3台区,七级公用农业13台区","powerOffReason":"【停电原因】由于七级四分支０１号杆七级栓成面粉厂配变避雷器击穿导致３５ＫＶ丁村变电站１０ＫＶ５１３内堡线路全线停电 【变更送电】因抢修进度加快原因，送电时间由１５日１２：００变更为１４日２０：００ 【发布渠道】９５５９８","powerOffId":"2018061413000546"},{"poweroffId":2018061413000524,"sgpoweroffId":null,"subsName":"","lineName":"10KV义和庄514","pubTranName":"南任村村北【纯农排变】,","scope":"【影响街道/乡镇】义和庄乡 【高危重要客户】无 【影响客户】南任村","startTime":"2018-06-14 17:21:09","stopDate":"2018-06-14 18:20:00","orgNo":"1340626","typeCode":"电网故障停限电","poweroffArea":"【单台区停电】停南任村村北【纯农排变】","poweroffReason":"【停电原因】由于低压空开烧毁导致３５ＫＶ码头变电站１０ＫＶ义和庄５１４线路南任村村北公变台区停电 【变更送电】因抢修进度加快原因，送电时间由２３：５９变更为１８：２０ 【发布渠道】通过９５５９８发布","powerTime":"2018-06-14 18:00:12","powerComm":"恢复送电","subsNo":"","lineNo":"","tgNo":"","tgName":null,"infoStatus":"1","orgName":"国网涿州市供电公司","typeName":null,"infoStatusName":null,"dateDay":null,"orgNos":null,"nowTime":null,"countyName":null,"streetName":null,"villageName":null,"roadName":null,"communityName":null,"tranName":null,"sdLineName":null,"cityCode":"1340626","cityName":"国网涿州市供电公司","provinceCode":null,"stopTime":"2018-06-14 18:20:00","powerType":"全部","powerOffArea":"【单台区停电】停南任村村北【纯农排变】","powerOffReason":"【停电原因】由于低压空开烧毁导致３５ＫＶ码头变电站１０ＫＶ义和庄５１４线路南任村村北公变台区停电 【变更送电】因抢修进度加快原因，送电时间由２３：５９变更为１８：２０ 【发布渠道】通过９５５９８发布","powerOffId":"2018061413000524"},{"poweroffId":2018061413000512,"sgpoweroffId":null,"subsName":"","lineName":"10KV太平村513","pubTranName":"张涿一标商砼400KVA专变,太平村水塔台区变压器,北龙门隧道630KVA专变,河西村南台区,林里隧道500KVA专变,镇厂大街3台区,高永喜,北龙门隧道250KVA专变,北龙门隧道500KVA专变,北庄大河滩台区变压器,北庄西河滩台区,北龙门隧道200KVA专变,北龙门隧道160KVA专变,","scope":"【影响街道/乡镇】九龙镇 【高危重要客户】无 【影响客户】北庄村、镇厂村、张涿高速","startTime":"2018-06-14 16:55:22","stopDate":"2018-06-14 18:00:00","orgNo":"1340614","typeCode":"电网故障停限电","poweroffArea":"【全线路停电】停北龙门隧道500KVA专变,北龙门隧道200KVA专变,北庄大河滩台区变压器,镇厂大街3台区,北龙门隧道250KVA专变,高永喜,张涿一标商砼400KVA专变,河西村南台区,太平村水塔台区变压器,北龙门隧道160KVA专变,北龙门隧道630KVA专变,林里隧道500KVA专变,北庄西河滩台区","poweroffReason":"【停电原因】由于速断跳闸导致３５ＫＶ镇厂变电站１０ＫＶ太平村５１３线路全线停电 【变更送电】无 【发布渠道】通过９５５９８发布","powerTime":"2018-06-14 17:30:29","powerComm":"已送电","subsNo":"","lineNo":"","tgNo":"","tgName":null,"infoStatus":"1","orgName":"国网涞水县供电公司","typeName":null,"infoStatusName":null,"dateDay":null,"orgNos":null,"nowTime":null,"countyName":null,"streetName":null,"villageName":null,"roadName":null,"communityName":null,"tranName":null,"sdLineName":null,"cityCode":"1340614","cityName":"国网涞水县供电公司","provinceCode":null,"stopTime":"2018-06-14 18:00:00","powerType":"全部","powerOffArea":"【全线路停电】停北龙门隧道500KVA专变,北龙门隧道200KVA专变,北庄大河滩台区变压器,镇厂大街3台区,北龙门隧道250KVA专变,高永喜,张涿一标商砼400KVA专变,河西村南台区,太平村水塔台区变压器,北龙门隧道160KVA专变,北龙门隧道630KVA专变,林里隧道500KVA专变,北庄西河滩台区","powerOffReason":"【停电原因】由于速断跳闸导致３５ＫＶ镇厂变电站１０ＫＶ太平村５１３线路全线停电 【变更送电】无 【发布渠道】通过９５５９８发布","powerOffId":"2018061413000512"},{"poweroffId":2018061413000481,"sgpoweroffId":null,"subsName":"","lineName":"10KV兴盛屯514","pubTranName":"前铺村西,","scope":"【影响街道/乡镇】孙庄乡 【高危重要客户】无 【影响客户】前铺村","startTime":"2018-06-16 07:30:00","stopDate":"2018-06-16 18:30:00","orgNo":"1340626","typeCode":"临时停电","poweroffArea":"【单台区停电】停前铺村西","poweroffReason":"【停电原因】由于煤改电工程导致３５ＫＶ孙庄变电站１０ＫＶ兴盛屯５１４线路前铺村西公变台区停电 【变更送电】无 【发布渠道】通过９５５９８发布","powerTime":"2018-06-16 18:10:14","powerComm":"恢复送电","subsNo":"","lineNo":"","tgNo":"","tgName":null,"infoStatus":"1","orgName":"国网涿州市供电公司","typeName":null,"infoStatusName":null,"dateDay":null,"orgNos":null,"nowTime":null,"countyName":null,"streetName":null,"villageName":null,"roadName":null,"communityName":null,"tranName":null,"sdLineName":null,"cityCode":"1340626","cityName":"国网涿州市供电公司","provinceCode":null,"stopTime":"2018-06-16 18:30:00","powerType":"全部","powerOffArea":"【单台区停电】停前铺村西","powerOffReason":"【停电原因】由于煤改电工程导致３５ＫＶ孙庄变电站１０ＫＶ兴盛屯５１４线路前铺村西公变台区停电 【变更送电】无 【发布渠道】通过９５５９８发布","powerOffId":"2018061413000481"},{"poweroffId":2018061413000480,"sgpoweroffId":null,"subsName":"","lineName":"新柳村线523","pubTranName":"小冯村新增5号农业【纯农排变】,西柳村,西柳村西北综合,西柳面厂1#,新柳东方农场21#农业【纯农排变】,边渡口村东66综合变压器,新柳村南新增综合,齐敬增,张克强水洗厂,新型建筑材料厂,新柳西40#农业【纯农排变】,张克强水洗厂(子),西柳村东远46#农业【纯农排变】,西柳村北16#农业【纯农排变】,西柳面厂2#,北柳庄,西柳村西(北）63#农业【纯农排变】,新柳东南综合38,边渡口后增60#农业【纯农排变】,新柳小白河,姜齐庄10#农业【纯农排变】,河北丰汇能源科技有限公司变压器,小冯村,西柳村西综合61,北柳庄村东47#农业【纯农排变】,西柳村东50#农业【纯农排变】,天丰农场,中国移动通信集团河北有限公司高阳分公司变压器,边渡口58#农业【纯农排变】,新柳东方农场22#农业【纯农排变】,西柳村西北9#农业【纯农排变】,西柳村东新增综合,西柳小白河23#农业【纯农排变】,西柳村51#农业【纯农排变】,西柳村西（南）62#农业【纯农排变】,边渡口村北综合56,文计果园,边渡口村北5#农业【纯农排变】,文记果园,边渡口57#农业【纯农排变】,边渡口乡35#农业【纯农排变】,西演化工厂,张伯超,高阳县润丰粮食收购站变压器,恒康纺织有限公司,西柳砖厂,西柳村17#农业【纯农排变】,新柳东南19#农业【纯农排变】,边渡口村北远6#农业【纯农排变】,边渡口村北新增综合,边渡口东北34#农业【纯农排变】,西柳村综合12,新柳综合39,高阳县鑫泽巾被厂变压器,边渡口东南33#农业【纯农排变】,西柳工业区综合,边渡口,西柳村东综合18,姜齐庄综合11,北柳庄28#农业【纯农排变】,新柳西南37#农业【纯农排变】,北柳庄村西48#农业【纯农排变】,西柳砖厂(子),新柳新增1#（64）农业【纯农排变】,新柳新增2#（65）农业【纯农排变】,西柳村东8#农业【纯农排变】,西演砖厂,边渡口中学,新柳20#农业【纯农排变】,西柳村里综合,边渡口校边综合,","scope":"【影响街道/乡镇】庞口镇 【高危重要客户】无 【影响客户】新柳、西柳、边渡口、姜齐庄、北柳庄、小冯村","startTime":"2018-06-14 16:17:57","stopDate":"2018-06-14 17:30:00","orgNo":"1340613","typeCode":"电网故障停限电","poweroffArea":"【全线路停电】停边渡口村东66综合变压器,西柳村东综合18,高阳县鑫泽巾被厂变压器,张伯超,北柳庄村东47#农业【纯农排变】,西柳村东50#农业【纯农排变】,边渡口村北新增综合,高阳县润丰粮食收购站变压器,边渡口东南33#农业【纯农排变】,西柳村东新增综合,西柳小白河23#农业【纯农排变】,边渡口村北5#农业【纯农排变】,文记果园,边渡口中学,新柳东南综合38,西柳村西北综合,西柳村51#农业【纯农排变】,西柳面厂1#,西柳村西（南）62#农业【纯农排变】,新柳东南19#农业【纯农排变】,边渡口57#农业【纯农排变】,小冯村,西柳村西综合61,恒康纺织有限公司,边渡口校边综合,西柳工业区综合,西柳村西(北）63#农业【纯农排变】,新柳东方农场21#农业【纯农排变】,边渡口村北综合56,边渡口,文计果园,姜齐庄综合11,西柳村里综合,新柳村南新增综合,边渡口58#农业【纯农排变】,北柳庄28#农业【纯农排变】,新柳东方农场22#农业【纯农排变】,新柳西南37#农业【纯农排变】,西柳村西北9#农业【纯农排变】,齐敬增,边渡口乡35#农业【纯农排变】,张克强水洗厂,西演化工厂,西柳村东8#农业【纯农排变】,天丰农场,西演砖厂,中国移动通信集团河北有限公司高阳分公司变压器,新型建筑材料厂,边渡口后增60#农业【纯农排变】,北柳庄村西48#农业【纯农排变】,新柳小白河,新柳西40#农业【纯农排变】,姜齐庄10#农业【纯农排变】,西柳砖厂(子),边渡口东北34#农业【纯农排变】,张克强水洗厂(子),河北丰汇能源科技有限公司变压器,西柳村东远46#农业【纯农排变】,西柳村综合12,西柳村北16#农业【纯农排变】,小冯村新增5号农业【纯农排变】,西柳面厂2#,西柳村,北柳庄,新柳20#农业【纯农排变】,新柳新增1#（64）农业【纯农排变】,西柳村17#农业【纯农排变】,新柳新增2#（65）农业【纯农排变】,边渡口村北远6#农业【纯农排变】,西柳砖厂,新柳综合39","poweroffReason":"【停电原因】由于外力破坏导致１１０ＫＶ西演变电站新柳村５２３线路全线停电【变更送电】因抢修进度加快原因，送电时间由２１：００变更为１７：３０【发布渠道】９５５９８","powerTime":"2018-06-14 17:19:06","powerComm":"已送电","subsNo":"","lineNo":"","tgNo":"","tgName":null,"infoStatus":"1","orgName":"国网高阳县供电公司","typeName":null,"infoStatusName":null,"dateDay":null,"orgNos":null,"nowTime":null,"countyName":null,"streetName":null,"villageName":null,"roadName":null,"communityName":null,"tranName":null,"sdLineName":null,"cityCode":"1340613","cityName":"国网高阳县供电公司","provinceCode":null,"stopTime":"2018-06-14 17:30:00","powerType":"全部","powerOffArea":"【全线路停电】停边渡口村东66综合变压器,西柳村东综合18,高阳县鑫泽巾被厂变压器,张伯超,北柳庄村东47#农业【纯农排变】,西柳村东50#农业【纯农排变】,边渡口村北新增综合,高阳县润丰粮食收购站变压器,边渡口东南33#农业【纯农排变】,西柳村东新增综合,西柳小白河23#农业【纯农排变】,边渡口村北5#农业【纯农排变】,文记果园,边渡口中学,新柳东南综合38,西柳村西北综合,西柳村51#农业【纯农排变】,西柳面厂1#,西柳村西（南）62#农业【纯农排变】,新柳东南19#农业【纯农排变】,边渡口57#农业【纯农排变】,小冯村,西柳村西综合61,恒康纺织有限公司,边渡口校边综合,西柳工业区综合,西柳村西(北）63#农业【纯农排变】,新柳东方农场21#农业【纯农排变】,边渡口村北综合56,边渡口,文计果园,姜齐庄综合11,西柳村里综合,新柳村南新增综合,边渡口58#农业【纯农排变】,北柳庄28#农业【纯农排变】,新柳东方农场22#农业【纯农排变】,新柳西南37#农业【纯农排变】,西柳村西北9#农业【纯农排变】,齐敬增,边渡口乡35#农业【纯农排变】,张克强水洗厂,西演化工厂,西柳村东8#农业【纯农排变】,天丰农场,西演砖厂,中国移动通信集团河北有限公司高阳分公司变压器,新型建筑材料厂,边渡口后增60#农业【纯农排变】,北柳庄村西48#农业【纯农排变】,新柳小白河,新柳西40#农业【纯农排变】,姜齐庄10#农业【纯农排变】,西柳砖厂(子),边渡口东北34#农业【纯农排变】,张克强水洗厂(子),河北丰汇能源科技有限公司变压器,西柳村东远46#农业【纯农排变】,西柳村综合12,西柳村北16#农业【纯农排变】,小冯村新增5号农业【纯农排变】,西柳面厂2#,西柳村,北柳庄,新柳20#农业【纯农排变】,新柳新增1#（64）农业【纯农排变】,西柳村17#农业【纯农排变】,新柳新增2#（65）农业【纯农排变】,边渡口村北远6#农业【纯农排变】,西柳砖厂,新柳综合39","powerOffReason":"【停电原因】由于外力破坏导致１１０ＫＶ西演变电站新柳村５２３线路全线停电【变更送电】因抢修进度加快原因，送电时间由２１：００变更为１７：３０【发布渠道】９５５９８","powerOffId":"2018061413000480"},{"poweroffId":2018061413000467,"sgpoweroffId":null,"subsName":"","lineName":"南阳线513","pubTranName":"农排北郑-10【纯农排变】,容城县丰发平豆制衣厂,综合罗河-1,农排胡村-23【纯农排变】,综合留村-1,农排北郑-9【纯农排变】,综合留村-17,综合北郑-20,综合马庄-4,农排留村-7【纯农排变】,农排南文营-3【纯农排变】,综合西孙-3,综合北郑-18,农排马庄-7,综合采暖南文营-21,农排胡村-35,综合南文营-29,综合北郑-23,综合河西-5,农排留村-5【纯农排变】,综合胡村-4,综合北郑-11,综合北郑-19,农排胡村-19,综合北郑-21,农排南阳-7,农排胡村地-4【纯农排变】,农排马庄-18,综合东孙-3,综合王路-15,农排河西-9,张市供水站,综合胡村-34,综合南文营-12,河北奔亚衣业发展有限公司,农排南文营-14,综合北郑-15,综合东孙-2,容城县义弘粮贸有限公司,农排北郑-16【纯农排变】,胡村段根生建材厂-2,综合南文营-25,综合胡村-12,农排留村-6【纯农排变】,综合东孙-4,综合南文营-14,综合留村-3,农排马庄-21,综合胡村-33,综合北郑-12,农排张市-7【纯农排变】,综合罗河-6,容城县丽华拉链厂,综合马庄-14,综合胡村-8,综合罗河-3,综合罗河-4,农排张市-22【纯农排变】,综合西孙-1,农排马庄-5,综合南文营-23,农排王路-4【纯农排变】,综合西孙-2,综合罗河-5,综合南文营-28,综合南文营-9,农排南文营-4【纯农排变】,综合留村-11,综合胡村-10,综合南文营-30,综合南文营-15,胡村小学配电新建,综合北郑-22,综合北郑-3,综合胡村-9,农排南文营-18,农排胡村-20【纯农排变】,综合留村-10,综合罗河-2,综合胡村-1,综合南阳-12,综合河西-4,综合河西-1,农排胡村-11【纯农排变】,综合南文营-2,农排河西-3【纯农排变】,新华服装厂,综合北郑-14,综合南文营-18,农排北郑-4,综合河西-2,农排留村-18,农排马庄-19,综合胡村-14,综合北郑-1,综合张市地-8,综合留村-2,火化厂,综合胡村-2,综合南文营-22,综合张市-18,综合张市-15,综合胡村-32,农排河西-7,综合留村-4,农排东孙-1【纯农排变】,综合王路-8,综合胡村-7,保定春燕制衣有限公司,农排胡村-22【纯农排变】,农排河西-8,农排东孙-6,农排南文营-17【纯农排变】,综合胡村-17,农排胡村-36,综合大河供电所取暖,农排王路3【纯农排变】,综合马庄-16,农排马庄-20,综合南文营-8,鸿发布条厂,农排南阳-8,综合东孙-5,综合留村-13,综合留村-14,农排南文营-13【纯农排变】,综合南文营-26,综合北郑-5,综合胡村-6,综合胡村-15,留村小学配电新建,农排南文营-11【纯农排变】,综合西孙-4,综合胡村-31,综合北郑-2,综合胡村-18,综合胡村-24,农排北郑-7,农排北郑-6【纯农排变】,农排留村-16【纯农排变】,农排西孙-6,综合北郑-8,综合胡村-13,综合胡村-21,农排河西-6【纯农排变】,综合南文营-6,综合南文营-24,农排胡村-30【纯农排变】,综合胡村-3,农排南文营-10【纯农排","scope":"【影响街道/乡镇】大河镇 【高危重要客户】无 【影响客户】南文营村、张市村、河西村、胡村、北郑村、王路村、罗河村、留村、南阳村、马庄村、东孙村、西孙村","startTime":"2018-06-14 23:00:00","stopDate":"2018-06-14 23:59:00","orgNo":"1340620","typeCode":"其他临时停电","poweroffArea":"【全线路停电】停综合北郑-3,综合胡村-18,农排东孙-1【纯农排变】,农排胡村-19,农排南文营-11【纯农排变】,农排南文营-4【纯农排变】,综合胡村-6,综合南文营-28,综合罗河-1,综合胡村-24,综合南文营-26,农排东孙-6,综合西孙-4,综合留村-11,综合胡村-9,综合罗河-6,综合胡村-31,综合北郑-5,综合北郑-19,农排胡村-35,农排胡村-23【纯农排变】,综合北郑-23,农排南文营-14,综合张市-15,综合北郑-12,农排北郑-9【纯农排变】,综合南文营-9,农排马庄-21,综合胡村-34,综合北郑-15,农排留村-18,农排胡村-11【纯农排变】,综合北郑-2,综合东孙-3,综合南文营-12,农排马庄-20,综合胡村-7,综合南文营-6,综合马庄-16,综合采暖南文营-21,综合东孙-5,火化厂,综合北郑-18,综合南文营-15,鸿发布条厂,综合张市-18,农排南文营-17【纯农排变】,综合留村-10,容城县丽华拉链厂,综合南文营-8,综合北郑-17,农排胡村-20【纯农排变】,综合胡村-14,综合罗河-3,综合王路-15,胡村小学配电新建,农排马庄-18,综合北郑-20,综合留村-1,综合罗河-2,综合北郑-21,综合罗河-4,综合东孙-4,保定春燕制衣有限公司,综合东孙-2,农排北郑-7,综合南文营-14,农排胡村-22【纯农排变】,农排王路-4【纯农排变】,综合胡村-13,综合留村-3,综合北郑-8,农排北郑-6【纯农排变】,综合胡村-21,综合留村-4,农排留村-16【纯农排变】,综合大河供电所取暖,农排南阳-7,农排南文营-3【纯农排变】,农排河西-3【纯农排变】,综合胡村-1,综合王路-8,农排南文营-10【纯农排变】,农排张市-22【纯农排变】,综合马庄-14,农排北郑-16【纯农排变】,综合西孙-3,农排胡村-36,综合南文营-2,综合西孙-2,综合胡村-5,综合南文营-24,综合南文营-30,综合胡村-17,综合胡村-32,综合南文营-29,综合河西-5,综合留村-13,综合马庄-4,农排张市-7【纯农排变】,张市供水站,农排河西-8,农排胡村地-4【纯农排变】,胡村段根生建材厂-2,农排王路3【纯农排变】,新华服装厂,河北奔亚衣业发展有限公司,综合留村-17,综合张市地-8,综合河西-1,综合胡村-8,农排留村-6【纯农排变】,综合南阳-12,综合胡村-12,综合南文营-23,综合留村-14,农排留村-7【纯农排变】,容城县丰发平豆制衣厂,综合胡村-2,农排马庄-7,农排河西-6【纯农排变】,综合北郑-1,农排南文营-18,农排马庄-19,综合西孙-1,农排马庄-5,农排南阳-8,综合胡村-10,综合北郑-14,农排北郑-4,综合北郑-11,农排河西-7,农排留村-5【纯农排变】,综合留村-12,综合南文营-22,综合留村-2,容城县义弘粮贸有限公司,综合河西-2,综合胡村-15,综合胡村-4,综合南文营-18,综合南文营-25,综合北郑-22,农排南文营-13【纯农排变】,综合胡村-33,农排胡村-30【纯农排变】,留村小学配电新建,农排西孙-6,农排北郑-10【纯农排变】,农排河西-9,综合罗河-5,综合胡村-3,综合河西-4","poweroffReason":"【停电原因】由于刀闸线夹发热需停电进行紧急消缺导致３５ＫＶ胡村变电站１０ＫＶ南阳线５１３线路全线停电【变更送电】无【发布渠道】通过９５５９８发布","powerTime":"2018-06-14 23:51:21","powerComm":"已送电","subsNo":"","lineNo":"","tgNo":"","tgName":null,"infoStatus":"1","orgName":"(原)国网容城县供电公司","typeName":null,"infoStatusName":null,"dateDay":null,"orgNos":null,"nowTime":null,"countyName":null,"streetName":null,"villageName":null,"roadName":null,"communityName":null,"tranName":null,"sdLineName":null,"cityCode":"1340620","cityName":"(原)国网容城县供电公司","provinceCode":null,"stopTime":"2018-06-14 23:59:00","powerType":"全部","powerOffArea":"【全线路停电】停综合北郑-3,综合胡村-18,农排东孙-1【纯农排变】,农排胡村-19,农排南文营-11【纯农排变】,农排南文营-4【纯农排变】,综合胡村-6,综合南文营-28,综合罗河-1,综合胡村-24,综合南文营-26,农排东孙-6,综合西孙-4,综合留村-11,综合胡村-9,综合罗河-6,综合胡村-31,综合北郑-5,综合北郑-19,农排胡村-35,农排胡村-23【纯农排变】,综合北郑-23,农排南文营-14,综合张市-15,综合北郑-12,农排北郑-9【纯农排变】,综合南文营-9,农排马庄-21,综合胡村-34,综合北郑-15,农排留村-18,农排胡村-11【纯农排变】,综合北郑-2,综合东孙-3,综合南文营-12,农排马庄-20,综合胡村-7,综合南文营-6,综合马庄-16,综合采暖南文营-21,综合东孙-5,火化厂,综合北郑-18,综合南文营-15,鸿发布条厂,综合张市-18,农排南文营-17【纯农排变】,综合留村-10,容城县丽华拉链厂,综合南文营-8,综合北郑-17,农排胡村-20【纯农排变】,综合胡村-14,综合罗河-3,综合王路-15,胡村小学配电新建,农排马庄-18,综合北郑-20,综合留村-1,综合罗河-2,综合北郑-21,综合罗河-4,综合东孙-4,保定春燕制衣有限公司,综合东孙-2,农排北郑-7,综合南文营-14,农排胡村-22【纯农排变】,农排王路-4【纯农排变】,综合胡村-13,综合留村-3,综合北郑-8,农排北郑-6【纯农排变】,综合胡村-21,综合留村-4,农排留村-16【纯农排变】,综合大河供电所取暖,农排南阳-7,农排南文营-3【纯农排变】,农排河西-3【纯农排变】,综合胡村-1,综合王路-8,农排南文营-10【纯农排变】,农排张市-22【纯农排变】,综合马庄-14,农排北郑-16【纯农排变】,综合西孙-3,农排胡村-36,综合南文营-2,综合西孙-2,综合胡村-5,综合南文营-24,综合南文营-30,综合胡村-17,综合胡村-32,综合南文营-29,综合河西-5,综合留村-13,综合马庄-4,农排张市-7【纯农排变】,张市供水站,农排河西-8,农排胡村地-4【纯农排变】,胡村段根生建材厂-2,农排王路3【纯农排变】,新华服装厂,河北奔亚衣业发展有限公司,综合留村-17,综合张市地-8,综合河西-1,综合胡村-8,农排留村-6【纯农排变】,综合南阳-12,综合胡村-12,综合南文营-23,综合留村-14,农排留村-7【纯农排变】,容城县丰发平豆制衣厂,综合胡村-2,农排马庄-7,农排河西-6【纯农排变】,综合北郑-1,农排南文营-18,农排马庄-19,综合西孙-1,农排马庄-5,农排南阳-8,综合胡村-10,综合北郑-14,农排北郑-4,综合北郑-11,农排河西-7,农排留村-5【纯农排变】,综合留村-12,综合南文营-22,综合留村-2,容城县义弘粮贸有限公司,综合河西-2,综合胡村-15,综合胡村-4,综合南文营-18,综合南文营-25,综合北郑-22,农排南文营-13【纯农排变】,综合胡村-33,农排胡村-30【纯农排变】,留村小学配电新建,农排西孙-6,农排北郑-10【纯农排变】,农排河西-9,综合罗河-5,综合胡村-3,综合河西-4","powerOffReason":"【停电原因】由于刀闸线夹发热需停电进行紧急消缺导致３５ＫＶ胡村变电站１０ＫＶ南阳线５１３线路全线停电【变更送电】无【发布渠道】通过９５５９８发布","powerOffId":"2018061413000467"},{"poweroffId":2018061413000460,"sgpoweroffId":null,"subsName":"","lineName":"望高线524","pubTranName":"小张家村南混,李家村南跑【纯农排变】,葛家村农业【纯农排变】,高速引线路边配变,","scope":"【影响街道/乡镇】高岭乡 【高危重要客户】无 【影响客户】葛家村农业、李家村部分农业、小张家村南、莲众食品、素味珍、德胜莲众、梁屯石料、九安门业、保定日新高食品有限公司、保定冀中轴瓦有限公司、河北九安门业有限公司望都分公司、河北悦客食品有限公司","startTime":"2018-06-28 07:00:00","stopDate":"2018-06-28 13:00:00","orgNo":"1340623","typeCode":"计划停电","poweroffArea":"【全线路停电】停李家村南跑【纯农排变】,葛家村农业【纯农排变】,高速引线路边配变,小张家村南混","poweroffReason":"【停电原因】由于导线接引导致１１０ＫＶ望都变电站望高线５２４线路全线停电 【变更送电】因施工进度加快原因，送电时间由１４:３０变更为１３:００ 【发布渠道】保定市望都有线电视台（０６月１４日至０６月２７日１９时００分至２０时００分之间）屏幕上方滚动","powerTime":"2018-06-28 12:39:49","powerComm":"已送电","subsNo":"","lineNo":"","tgNo":"","tgName":null,"infoStatus":"1","orgName":"国网望都县供电公司","typeName":null,"infoStatusName":null,"dateDay":null,"orgNos":null,"nowTime":null,"countyName":null,"streetName":null,"villageName":null,"roadName":null,"communityName":null,"tranName":null,"sdLineName":null,"cityCode":"1340623","cityName":"国网望都县供电公司","provinceCode":null,"stopTime":"2018-06-28 13:00:00","powerType":"全部","powerOffArea":"【全线路停电】停李家村南跑【纯农排变】,葛家村农业【纯农排变】,高速引线路边配变,小张家村南混","powerOffReason":"【停电原因】由于导线接引导致１１０ＫＶ望都变电站望高线５２４线路全线停电 【变更送电】因施工进度加快原因，送电时间由１４:３０变更为１３:００ 【发布渠道】保定市望都有线电视台（０６月１４日至０６月２７日１９时００分至２０时００分之间）屏幕上方滚动","powerOffId":"2018061413000460"},{"poweroffId":2018061413000380,"sgpoweroffId":null,"subsName":"","lineName":"10kV祝泽站512线路","pubTranName":"C323柱上变压器,0356240730-大祝泽西队-专变,C470柱上变压器,C324柱上变压器,","scope":"【影响街道/乡镇】富昌乡 【高危重要客户】无 【影响客户】大祝泽村","startTime":"2018-06-19 06:00:00","stopDate":"2018-06-19 12:00:00","orgNo":"13406","typeCode":"临时停电","poweroffArea":"【分支停电】停C323柱上变压器,C470柱上变压器,0356240730-大祝泽西队-专变,C324柱上变压器","poweroffReason":"【停电原因】由于供电设备临时检修导致１０ＫＶ祝泽变电站５１２线路出线１５号西分支９号北分支开关以下停电【变更送电】无【发布渠道】保定市保定有线电视台（６月１５日２０时１５分至２１时４５分之间）屏幕上滚动","powerTime":"2018-06-19 11:49:52","powerComm":"已送电","subsNo":"","lineNo":"","tgNo":"","tgName":null,"infoStatus":"1","orgName":"保定供电公司","typeName":null,"infoStatusName":null,"dateDay":null,"orgNos":null,"nowTime":null,"countyName":null,"streetName":null,"villageName":null,"roadName":null,"communityName":null,"tranName":null,"sdLineName":null,"cityCode":"13406","cityName":"保定供电公司","provinceCode":null,"stopTime":"2018-06-19 12:00:00","powerType":"全部","powerOffArea":"【分支停电】停C323柱上变压器,C470柱上变压器,0356240730-大祝泽西队-专变,C324柱上变压器","powerOffReason":"【停电原因】由于供电设备临时检修导致１０ＫＶ祝泽变电站５１２线路出线１５号西分支９号北分支开关以下停电【变更送电】无【发布渠道】保定市保定有线电视台（６月１５日２０时１５分至２１时４５分之间）屏幕上滚动","powerOffId":"2018061413000380"},{"poweroffId":2018061413000366,"sgpoweroffId":null,"subsName":"","lineName":"尚家柳线522","pubTranName":"河北旭万格纺织有限公司变压器,0727|尚家柳1#综合0399,高阳南光纺织公司,尚家柳村东新增综合,喜君纺织公司,070010|六合庄农业1#4974【纯农排变】,高阳县恒立纺织印染有限公司变压器,中国石油华北油田公司第一采油厂西柳作业区（高64#）变压器,高阳县喜君巾被厂变压器,高阳县鑫星巾被厂变压器,尚家柳(北),北尖大队综合0394,向阳毛纺厂,宋延宾,南尖染厂变压器减容,07244|尚家柳农业村中2#农排5649【纯农排变】,保定市武警支队一中队,河北伊佩姿纺织有限公司变压器,杨庄农业,高阳县晋庄镇西杨庄村变压器,07143|北尖东南农排0516【纯农排变】,甄小建,南尖农业,070013|六合庄农业2#4975【纯农排变】,南尖农排5台区【纯农排变】,07142|北尖4变综合0419,南尖农排2台区【纯农排变】,高阳县邢家南镇六合庄村民委员会一变压器,高阳县昱东棉纺织厂变压器,河北六阳纺织品有限公司,07145|北尖村中农排0517【纯农排变】,恒立纺织印染有限公司,北尖大队,07243|尚家柳农业村南1#农排5648【纯农排变】,王丙文,天海巾被有限公司,邓新海,尖窝面粉厂,07131|尚家柳综合0503,代艳昌,高阳县双凤毛巾厂电压器,高阳县晋庄镇尚家柳村委会二变压器,恒立(2号),南尖纺织厂变压器减容,翟老五,翟文杰,07146|北尖东北农排0519【纯农排变】,南尖农排8台区【纯农排变】,北尖西北农排【纯农排变】,北尖絮片厂,南光纺织有限公司,南尖道北综合,北尖东北新增综合,高阳县晋庄镇尚家柳村委会一变压器,尚家柳(北副业),翟敬通,甄喜合,翟志强,07245|尚家柳农业村北3#农排5651【纯农排变】,代志安,高阳县嘉信市政建设有限公司变压器,王丙文毛巾厂,南尖大队农业,韩二强,0728|尚家柳2#综合0400,高阳县中金电力金具厂设备,代占良,张立春,张杰,070006|六合庄农业3#4976【纯农排变】,赵万通,高阳县建鑫毛巾厂变压器,07140|北尖5#综合0505,华通医用器材公司,南尖村北农业变压器,南尖制线厂,杨庄综合0402,南尖农排3台区【纯农排变】,高阳县胜达毛巾厂变压器,07141|北尖大队综合0435,旭阳巾被厂,高阳县美天使纺织品有限公司变压器,北尖公路北综合,","scope":"【影响街道/乡镇】晋庄乡、邢南乡 【高危重要客户】无 【影响客户】杨庄（杨家庄）、尚家柳、北尖（北尖窝）、六合庄、南尖窝","startTime":"2018-06-21 06:00:00","stopDate":"2018-06-21 07:30:00","orgNo":"1340613","typeCode":"临时停电","poweroffArea":"【全线路停电】停高阳县中金电力金具厂设备,07244|尚家柳农业村中2#农排5649【纯农排变】,翟老五,保定市武警支队一中队,尚家柳(北),河北伊佩姿纺织有限公司变压器,翟文杰,北尖大队综合0394,代占良,尚家柳村东新增综合,张立春,07145|北尖村中农排0517【纯农排变】,南尖农排5台区【纯农排变】,高阳县昱东棉纺织厂变压器,高阳县恒立纺织印染有限公司变压器,宋延宾,南尖农业,070013|六合庄农业2#4975【纯农排变】,中国石油华北油田公司第一采油厂西柳作业区（高64#）变压器,向阳毛纺厂,杨庄农业,南尖村北农业变压器,070010|六合庄农业1#4974【纯农排变】,高阳县晋庄镇尚家柳村委会一变压器,07146|北尖东北农排0519【纯农排变】,南尖纺织厂变压器减容,河北六阳纺织品有限公司,高阳县嘉信市政建设有限公司变压器,代艳昌,华通医用器材公司,北尖絮片厂,高阳县双凤毛巾厂电压器,甄小建,河北旭万格纺织有限公司变压器,高阳县晋庄镇尚家柳村委会二变压器,恒立(2号),代志安,07141|北尖大队综合0435,07245|尚家柳农业村北3#农排5651【纯农排变】,南尖农排8台区【纯农排变】,0727|尚家柳1#综合0399,高阳县胜达毛巾厂变压器,张杰,07142|北尖4变综合0419,高阳南光纺织公司,南尖染厂变压器减容,高阳县喜君巾被厂变压器,高阳县美天使纺织品有限公司变压器,南尖农排2台区【纯农排变】,北尖西北农排【纯农排变】,高阳县鑫星巾被厂变压器,旭阳巾被厂,高阳县邢家南镇六合庄村民委员会一变压器,王丙文,南尖制线厂,尚家柳(北副业),天海巾被有限公司,南尖大队农业,070006|六合庄农业3#4976【纯农排变】,甄喜合,南光纺织有限公司,北尖大队,高阳县晋庄镇西杨庄村变压器,翟敬通,邓新海,赵万通,杨庄综合0402,南尖道北综合,北尖公路北综合,翟志强,07243|尚家柳农业村南1#农排5648【纯农排变】,07143|北尖东南农排0516【纯农排变】,尖窝面粉厂,高阳县建鑫毛巾厂变压器,恒立纺织印染有限公司,喜君纺织公司,王丙文毛巾厂,北尖东北新增综合,韩二强,07131|尚家柳综合0503,0728|尚家柳2#综合0400,07140|北尖5#综合0505,南尖农排3台区【纯农排变】","poweroffReason":"【停电原因】由于线路改经导致２２０ＫＶ高阳变电站尚家柳５２２线路全线停电【变更送电】因抢修进度加快原因，送电时间由１９：００变更为０７：３０【发布渠道】９５５９８","powerTime":"2018-06-21 07:03:08","powerComm":"已送电","subsNo":"","lineNo":"","tgNo":"","tgName":null,"infoStatus":"1","orgName":"国网高阳县供电公司","typeName":null,"infoStatusName":null,"dateDay":null,"orgNos":null,"nowTime":null,"countyName":null,"streetName":null,"villageName":null,"roadName":null,"communityName":null,"tranName":null,"sdLineName":null,"cityCode":"1340613","cityName":"国网高阳县供电公司","provinceCode":null,"stopTime":"2018-06-21 07:30:00","powerType":"全部","powerOffArea":"【全线路停电】停高阳县中金电力金具厂设备,07244|尚家柳农业村中2#农排5649【纯农排变】,翟老五,保定市武警支队一中队,尚家柳(北),河北伊佩姿纺织有限公司变压器,翟文杰,北尖大队综合0394,代占良,尚家柳村东新增综合,张立春,07145|北尖村中农排0517【纯农排变】,南尖农排5台区【纯农排变】,高阳县昱东棉纺织厂变压器,高阳县恒立纺织印染有限公司变压器,宋延宾,南尖农业,070013|六合庄农业2#4975【纯农排变】,中国石油华北油田公司第一采油厂西柳作业区（高64#）变压器,向阳毛纺厂,杨庄农业,南尖村北农业变压器,070010|六合庄农业1#4974【纯农排变】,高阳县晋庄镇尚家柳村委会一变压器,07146|北尖东北农排0519【纯农排变】,南尖纺织厂变压器减容,河北六阳纺织品有限公司,高阳县嘉信市政建设有限公司变压器,代艳昌,华通医用器材公司,北尖絮片厂,高阳县双凤毛巾厂电压器,甄小建,河北旭万格纺织有限公司变压器,高阳县晋庄镇尚家柳村委会二变压器,恒立(2号),代志安,07141|北尖大队综合0435,07245|尚家柳农业村北3#农排5651【纯农排变】,南尖农排8台区【纯农排变】,0727|尚家柳1#综合0399,高阳县胜达毛巾厂变压器,张杰,07142|北尖4变综合0419,高阳南光纺织公司,南尖染厂变压器减容,高阳县喜君巾被厂变压器,高阳县美天使纺织品有限公司变压器,南尖农排2台区【纯农排变】,北尖西北农排【纯农排变】,高阳县鑫星巾被厂变压器,旭阳巾被厂,高阳县邢家南镇六合庄村民委员会一变压器,王丙文,南尖制线厂,尚家柳(北副业),天海巾被有限公司,南尖大队农业,070006|六合庄农业3#4976【纯农排变】,甄喜合,南光纺织有限公司,北尖大队,高阳县晋庄镇西杨庄村变压器,翟敬通,邓新海,赵万通,杨庄综合0402,南尖道北综合,北尖公路北综合,翟志强,07243|尚家柳农业村南1#农排5648【纯农排变】,07143|北尖东南农排0516【纯农排变】,尖窝面粉厂,高阳县建鑫毛巾厂变压器,恒立纺织印染有限公司,喜君纺织公司,王丙文毛巾厂,北尖东北新增综合,韩二强,07131|尚家柳综合0503,0728|尚家柳2#综合0400,07140|北尖5#综合0505,南尖农排3台区【纯农排变】","powerOffReason":"【停电原因】由于线路改经导致２２０ＫＶ高阳变电站尚家柳５２２线路全线停电【变更送电】因抢修进度加快原因，送电时间由１９：００变更为０７：３０【发布渠道】９５５９８","powerOffId":"2018061413000366"}],"pageModel":{"pageNow":986,"totalCount":10973,"totalPage":1098,"tableRows":0,"pageCount":10,"beginCount":9850},"isExperi":"1"}