{"message":"","today":"2020-06-15","seleList":[{"poweroffId":2018061413000352,"sgpoweroffId":null,"subsName":"","lineName":"10kV南章512线","pubTranName":"东巷综合2台区变压器,","scope":"【影响街道/乡镇】石佛镇 【高危重要客户】无 【影响客户】东巷村","startTime":"2018-06-14 12:39:32","stopDate":"2018-06-14 20:00:00","orgNo":"1340606","typeCode":"电网故障停限电","poweroffArea":"【单台区停电】停东巷综合2台区变压器","poweroffReason":"【停电原因】由于ＪＰ柜漏电保护器烧导致３５ＫＶ石佛变电站１０ＫＶ南章５１２线路东巷综合２公变台区停电 【变更送电】无 【发布渠道】９５５９８","powerTime":"2018-06-14 19:38:55","powerComm":"已送电","subsNo":"","lineNo":"","tgNo":"","tgName":null,"infoStatus":"1","orgName":"国网安国市供电公司","typeName":null,"infoStatusName":null,"dateDay":null,"orgNos":null,"nowTime":null,"countyName":null,"streetName":null,"villageName":null,"roadName":null,"communityName":null,"tranName":null,"sdLineName":null,"cityCode":"1340606","cityName":"国网安国市供电公司","provinceCode":null,"stopTime":"2018-06-14 20:00:00","powerType":"全部","powerOffArea":"【单台区停电】停东巷综合2台区变压器","powerOffReason":"【停电原因】由于ＪＰ柜漏电保护器烧导致３５ＫＶ石佛变电站１０ＫＶ南章５１２线路东巷综合２公变台区停电 【变更送电】无 【发布渠道】９５５９８","powerOffId":"2018061413000352"},{"poweroffId":2018061413000346,"sgpoweroffId":null,"subsName":"","lineName":"10kV田西良站593线路","pubTranName":"0637551438-保定市绿溪谷花卉科普乐园有限公司-专变-148487210-变压器,10kVB1484配电室B1484配电变压器,0637551438-保定市绿溪谷花卉科普乐园有限公司-专变-148480386-变压器,","scope":"【影响街道/乡镇】阳光大街、北三环 【高危重要客户】无 【影响客户】宏孚庄园、绿溪谷花卉科普乐园有限公司、精细化工厂、杨村、纯生物饮品、炼钢厂、富达公司","startTime":"2018-06-14 12:19:53","stopDate":"2018-06-14 13:30:00","orgNo":"13406","typeCode":"电网故障停限电","poweroffArea":"【分支停电】停10kVB1484配电室B1484配电变压器,0637551438-保定市绿溪谷花卉科普乐园有限公司-专变-148480386-变压器,0637551438-保定市绿溪谷花卉科普乐园有限公司-专变-148487210-变压器","poweroffReason":"【停电原因】由于用户设备原因导致１０ＫＶ田西良变电站５９３线路１６４号东分支２号开关以下停电【变更送电】因抢修进度加快，原定18:00送电现计划13:30送电【发布渠道】通过９５５９８发布","powerTime":"2018-06-14 12:56:27","powerComm":"已送电","subsNo":"","lineNo":"","tgNo":"","tgName":null,"infoStatus":"1","orgName":"保定供电公司","typeName":null,"infoStatusName":null,"dateDay":null,"orgNos":null,"nowTime":null,"countyName":null,"streetName":null,"villageName":null,"roadName":null,"communityName":null,"tranName":null,"sdLineName":null,"cityCode":"13406","cityName":"保定供电公司","provinceCode":null,"stopTime":"2018-06-14 13:30:00","powerType":"全部","powerOffArea":"【分支停电】停10kVB1484配电室B1484配电变压器,0637551438-保定市绿溪谷花卉科普乐园有限公司-专变-148480386-变压器,0637551438-保定市绿溪谷花卉科普乐园有限公司-专变-148487210-变压器","powerOffReason":"【停电原因】由于用户设备原因导致１０ＫＶ田西良变电站５９３线路１６４号东分支２号开关以下停电【变更送电】因抢修进度加快，原定18:00送电现计划13:30送电【发布渠道】通过９５５９８发布","powerOffId":"2018061413000346"},{"poweroffId":2018061413000327,"sgpoweroffId":null,"subsName":"","lineName":"10kV南章512线","pubTranName":"石佛综合17台区,东巷农业4台区变压器,王街农业2台区变压器,","scope":"【影响街道/乡镇】石佛镇 【高危重要客户】无 【影响客户】南章村、石佛村、高街村、东巷村、王街村、李街村","startTime":"2018-06-14 11:43:19","stopDate":"2018-06-14 12:30:00","orgNo":"1340606","typeCode":"电网故障停限电","poweroffArea":"【全线路停电】停王街农业２台区变压器,东巷农业４台区变压器,石佛综合１７台区","poweroffReason":"【停电原因】由于站内开关跳闸导致３５ＫＶ石佛变电站１０ＫＶ南章５１２线路全线停电 【变更送电】因抢修进度加快原因，送电时间由１５：００变更为１２：３０ 【发布渠道】通过９５５９８发布","powerTime":"2018-06-14 12:25:24","powerComm":"已送电","subsNo":"","lineNo":"","tgNo":"","tgName":null,"infoStatus":"1","orgName":"国网安国市供电公司","typeName":null,"infoStatusName":null,"dateDay":null,"orgNos":null,"nowTime":null,"countyName":null,"streetName":null,"villageName":null,"roadName":null,"communityName":null,"tranName":null,"sdLineName":null,"cityCode":"1340606","cityName":"国网安国市供电公司","provinceCode":null,"stopTime":"2018-06-14 12:30:00","powerType":"全部","powerOffArea":"【全线路停电】停王街农业２台区变压器,东巷农业４台区变压器,石佛综合１７台区","powerOffReason":"【停电原因】由于站内开关跳闸导致３５ＫＶ石佛变电站１０ＫＶ南章５１２线路全线停电 【变更送电】因抢修进度加快原因，送电时间由１５：００变更为１２：３０ 【发布渠道】通过９５５９８发布","powerOffId":"2018061413000327"},{"poweroffId":2018061413000313,"sgpoweroffId":null,"subsName":"","lineName":"10kV516三李岗线","pubTranName":"李南农排6台区【纯农排变】,李南建彬,李南农排13台区【纯农排变】,李岗站变,李南农排4台区【纯农排变】,李南农排9台区【纯农排变】,李南砖厂,李南农排5台区【纯农排变】,李南综合6台区,花园头综合12台区变压器,李南农排3台区【纯农排变】,李南农排12台区【纯农排变】,李南农排2台区【纯农排变】,蠡县圣之垣物业服务有限公司,李南农排8台区【纯农排变】,贾庄综合2台区,李南农排11台区【纯农排变】,李南农排10台区【纯农排变】,花园头农排7台区。【纯农排变】,李南综合5台区,李西农排1台区。【纯农排变】,李南综合4台区,李南综合1台区,李南农排14台区【纯农排变】,李南农用,贾庄综合1台区,李南农排7台区【纯农排变】,蠡县兴业汽车装饰用品厂变压器,贾庄综合3台区。,李南综合3台区,李南农排1台区【纯农排变】,天和人家小区,李南综合2台区,贾庄综合4台区。,","scope":"【影响街道/乡镇】北埝头乡【高危重要客户】无【影响客户】李南村、贾庄村、李西村、李岗村","startTime":"2018-06-14 11:31:00","stopDate":"2018-06-14 16:00:00","orgNo":"1340616","typeCode":"电网故障停限电","poweroffArea":"【全线路停电】停李南农排14台区【纯农排变】,李南农排3台区【纯农排变】,李南砖厂,李南农排8台区【纯农排变】,李南农排2台区【纯农排变】,李南农用,李南农排12台区【纯农排变】,李南农排7台区【纯农排变】,李南综合1台区,李南农排10台区【纯农排变】,李南建彬,李南综合3台区,李岗站变,李南农排5台区【纯农排变】,李南农排9台区【纯农排变】,李南农排4台区【纯农排变】,李南综合6台区,贾庄综合2台区,李南农排13台区【纯农排变】,贾庄综合1台区,李南农排11台区【纯农排变】,贾庄综合3台区。,李南综合4台区,李西农排1台区。【纯农排变】,李南综合2台区,李南农排6台区【纯农排变】,花园头农排7台区。【纯农排变】,天和人家小区,蠡县兴业汽车装饰用品厂变压器,蠡县圣之垣物业服务有限公司,李南农排1台区【纯农排变】,李南综合5台区,花园头综合12台区变压器,贾庄综合4台区。","poweroffReason":"【停电原因】由于站外开关掉闸导致３５ＫＶ李岗变电站１０ＫＶ三李岗５１６线路全线停电【变更送电】因抢修进度加快原因，送电时间由１９：００变更为１６：００【发布渠道】通过９５５９８发布","powerTime":"2018-06-14 15:26:34","powerComm":"已送电","subsNo":"","lineNo":"","tgNo":"","tgName":null,"infoStatus":"1","orgName":"国网蠡县供电公司","typeName":null,"infoStatusName":null,"dateDay":null,"orgNos":null,"nowTime":null,"countyName":null,"streetName":null,"villageName":null,"roadName":null,"communityName":null,"tranName":null,"sdLineName":null,"cityCode":"1340616","cityName":"国网蠡县供电公司","provinceCode":null,"stopTime":"2018-06-14 16:00:00","powerType":"全部","powerOffArea":"【全线路停电】停李南农排14台区【纯农排变】,李南农排3台区【纯农排变】,李南砖厂,李南农排8台区【纯农排变】,李南农排2台区【纯农排变】,李南农用,李南农排12台区【纯农排变】,李南农排7台区【纯农排变】,李南综合1台区,李南农排10台区【纯农排变】,李南建彬,李南综合3台区,李岗站变,李南农排5台区【纯农排变】,李南农排9台区【纯农排变】,李南农排4台区【纯农排变】,李南综合6台区,贾庄综合2台区,李南农排13台区【纯农排变】,贾庄综合1台区,李南农排11台区【纯农排变】,贾庄综合3台区。,李南综合4台区,李西农排1台区。【纯农排变】,李南综合2台区,李南农排6台区【纯农排变】,花园头农排7台区。【纯农排变】,天和人家小区,蠡县兴业汽车装饰用品厂变压器,蠡县圣之垣物业服务有限公司,李南农排1台区【纯农排变】,李南综合5台区,花园头综合12台区变压器,贾庄综合4台区。","powerOffReason":"【停电原因】由于站外开关掉闸导致３５ＫＶ李岗变电站１０ＫＶ三李岗５１６线路全线停电【变更送电】因抢修进度加快原因，送电时间由１９：００变更为１６：００【发布渠道】通过９５５９８发布","powerOffId":"2018061413000313"},{"poweroffId":2018061413000309,"sgpoweroffId":null,"subsName":"","lineName":"南辛线525","pubTranName":"辛留佐11号农排【纯农排变】,辛留佐10号农排【纯农排变】,辛留佐吃水井综合,享通机毡厂,高阳县光辉机毡厂变压器,建新皮毛厂,辛留佐村东北新增综合,辛留佐大队井综合,07011|辛留佐村东综合1751,07030|南晋庄村南综合1776,辛留佐12号农排【纯农排变】,高阳县源晟纺纱厂变压器,高阳县诚信机毡厂,辛留佐村东南新增综合,辛留佐村东新增综合,越飞机毡厂,东升汽轮机毡厂,辛留佐8号农排【纯农排变】,东升汽流机毡厂,辛留佐第一毛纺厂,","scope":"【影响街道/乡镇】晋庄乡、邢南乡 【高危重要客户】无 【影响客户】辛留佐村东、南晋庄村南","startTime":"2018-06-18 06:00:00","stopDate":"2018-06-18 12:00:00","orgNo":"1340613","typeCode":"临时停电","poweroffArea":"【分支停电】停辛留佐村东南新增综合,辛留佐村东北新增综合,辛留佐10号农排【纯农排变】,高阳县光辉机毡厂变压器,享通机毡厂,辛留佐8号农排【纯农排变】,辛留佐第一毛纺厂,东升汽轮机毡厂,建新皮毛厂,辛留佐大队井综合,东升汽流机毡厂,高阳县源晟纺纱厂变压器,越飞机毡厂,07030|南晋庄村南综合1776,辛留佐村东新增综合,辛留佐12号农排【纯农排变】,辛留佐吃水井综合,辛留佐11号农排【纯农排变】,高阳县诚信机毡厂,07011|辛留佐村东综合1751","poweroffReason":"【停电原因】由于线路改径导致２２０ＫＶ高阳变电站南辛５２５线路主线７３号杆Ｔ接南晋庄分支１０号杆１０号开关以下线路停电【变更送电】因抢修进度加快原因，送电时间由１３：００变更为１２：００【发布渠道】９５５９８","powerTime":"2018-06-18 11:16:11","powerComm":"已送电","subsNo":"","lineNo":"","tgNo":"","tgName":null,"infoStatus":"1","orgName":"国网高阳县供电公司","typeName":null,"infoStatusName":null,"dateDay":null,"orgNos":null,"nowTime":null,"countyName":null,"streetName":null,"villageName":null,"roadName":null,"communityName":null,"tranName":null,"sdLineName":null,"cityCode":"1340613","cityName":"国网高阳县供电公司","provinceCode":null,"stopTime":"2018-06-18 12:00:00","powerType":"全部","powerOffArea":"【分支停电】停辛留佐村东南新增综合,辛留佐村东北新增综合,辛留佐10号农排【纯农排变】,高阳县光辉机毡厂变压器,享通机毡厂,辛留佐8号农排【纯农排变】,辛留佐第一毛纺厂,东升汽轮机毡厂,建新皮毛厂,辛留佐大队井综合,东升汽流机毡厂,高阳县源晟纺纱厂变压器,越飞机毡厂,07030|南晋庄村南综合1776,辛留佐村东新增综合,辛留佐12号农排【纯农排变】,辛留佐吃水井综合,辛留佐11号农排【纯农排变】,高阳县诚信机毡厂,07011|辛留佐村东综合1751","powerOffReason":"【停电原因】由于线路改径导致２２０ＫＶ高阳变电站南辛５２５线路主线７３号杆Ｔ接南晋庄分支１０号杆１０号开关以下线路停电【变更送电】因抢修进度加快原因，送电时间由１３：００变更为１２：００【发布渠道】９５５９８","powerOffId":"2018061413000309"},{"poweroffId":2018061413000289,"sgpoweroffId":null,"subsName":"","lineName":"10kV512庄伙线","pubTranName":"西泉头南井,曲阳县庄窠乡诚质石灰厂变压器,0014478806贾庄村西区,庄伙金龙灰粉厂,0013170420南苏南变压器,曲阳县西泉头玉洁灰粉厂变压器,庄伙大桥灰粉厂,曲阳县恒北建材销售有限公司变压器,新利灰粉厂,曲阳县要合养殖有限公司变压器,贾庄一号井,珍玉灰粉厂,陈敬杰面粉厂,0000007206葛条沟2区变压器,庄伙北变压器,曲阳县兴冀灰粉有限公司变压器,曲阳县昊博建材有限公司,庄伙鑫玉灰粉厂,李建川灰粉厂,0000004772洪山村变压器,0000006374贾庄南2变压器,曲阳县青龙德硅化物有限公司,曲阳县运达建材有限责任公司变压器,马家岸机井,北苏家峪村北变压器,0000004765贾庄中变压器,曲阳县黑风山蛋鸡养殖场变压器,兴龙水泥砖销售处变压器,陈会龙,五环灰粉厂,庄伙白云灰粉厂,0000006500东泉头南变压器,曲阳县白玉灰粉厂,移动分公司庄伙机站,0000005353东泉头变压器,陈亚辉农灌,东泉头井,0000006753马家岸西变压器,河北博辉钙业有限公司,0000004770南苏变压器,曲阳县奥兴钙业有限公司变压器,曲阳县英好养殖有限公司变压器,曲阳县程阳建材有限公司变压器,0012752921西泉头南区变压器,洪山二号井,曲阳县金牛灰粉经销处变压器,曲阳县李建川灰粉经销处变压器,0013170421东泉头东变压器,曲阳县鸿运满石灰经销处变压器,曲阳县利民塑料厂,0000004774贾庄南变压器,曲阳县永兴建材有限公司变压器,曲阳县白玉灰粉厂变压器,庄伙金箭灰粉厂,0000007155庄伙中区变压器,0012850561贾庄北1变压器,0012359235洪山北区变压器,0000006446庄伙西2变压器,0012359237洪山南区变压器,0014478809西泉头西2区变压器,庄伙高彦章,曲阳县瑞金灰粉经俏处变压器,0000004771北苏变压器,庄伙乡白月灰粉厂,0000004764西泉头西变压器,曲阳县白玉灰粉有限公司变压器,0000005461西泉头东变压器,0000004767庄伙村东变压器,曲阳县庄伙乡西泉头村农井变压器,0000004782庄伙村西变压器,民信灰粉厂,曲阳县朋举建材经销处变压器,0000005352马家岸变压器,西泉头天鹅灰粉厂,李同杰,曲阳县赛玉灰粉厂变压器,0000004776贾庄北变压器,","scope":"【影响街道/乡镇】庄伙乡【高危重要客户】无【影响客户】南苏、北苏、洪山、贾庄、东泉头、西泉头、庄伙、葛条沟、马家岸","startTime":"2018-06-28 08:30:00","stopDate":"2018-06-28 16:30:00","orgNo":"1340619","typeCode":"计划停电","poweroffArea":"【全线路停电】停0000006446庄伙西2变压器,曲阳县李建川灰粉经销处变压器,0000007155庄伙中区变压器,北苏家峪村北变压器,0013170421东泉头东变压器,0000004776贾庄北变压器,曲阳县永兴建材有限公司变压器,曲阳县瑞金灰粉经俏处变压器,曲阳县西泉头玉洁灰粉厂变压器,0000005352马家岸变压器,兴龙水泥砖销售处变压器,0000004771北苏变压器,曲阳县恒北建材销售有限公司变压器,0012359237洪山南区变压器,曲阳县庄窠乡诚质石灰厂变压器,曲阳县要合养殖有限公司变压器,曲阳县白玉灰粉有限公司变压器,0014478809西泉头西2区变压器,曲阳县黑风山蛋鸡养殖场变压器,0013170420南苏南变压器,0012850561贾庄北1变压器,0000006753马家岸西变压器,曲阳县鸿运满石灰经销处变压器,曲阳县青龙德硅化物有限公司,民信灰粉厂,曲阳县昊博建材有限公司,河北博辉钙业有限公司,庄伙高彦章,新利灰粉厂,0000004774贾庄南变压器,0000004782庄伙村西变压器,0012359235洪山北区变压器,庄伙北变压器,曲阳县庄伙乡西泉头村农井变压器,曲阳县白玉灰粉厂变压器,曲阳县赛玉灰粉厂变压器,0000004772洪山村变压器,0000006374贾庄南2变压器,曲阳县兴冀灰粉有限公司变压器,马家岸机井,曲阳县金牛灰粉经销处变压器,庄伙金龙灰粉厂,曲阳县奥兴钙业有限公司变压器,曲阳县利民塑料厂,0000004770南苏变压器,0000004767庄伙村东变压器,移动分公司庄伙机站,曲阳县运达建材有限责任公司变压器,曲阳县英好养殖有限公司变压器,0012752921西泉头南区变压器,0000004764西泉头西变压器,李同杰,0000006500东泉头南变压器,庄伙金箭灰粉厂,0000005353东泉头变压器,0000004765贾庄中变压器,0014478806贾庄村西区,陈敬杰面粉厂,陈会龙,陈亚辉农灌,庄伙白云灰粉厂,李建川灰粉厂,珍玉灰粉厂,曲阳县朋举建材经销处变压器,0000005461西泉头东变压器,东泉头井,曲阳县程阳建材有限公司变压器,五环灰粉厂,庄伙鑫玉灰粉厂,西泉头南井,曲阳县白玉灰粉厂,贾庄一号井,庄伙大桥灰粉厂,西泉头天鹅灰粉厂,0000007206葛条沟2区变压器,庄伙乡白月灰粉厂,洪山二号井","poweroffReason":"【停电原因】由于新增配变架线接火导致３５ＫＶ刘家马变电站１０ＫＶ５１２庄伙线路全线停电【变更送电】无【发布渠道】保定市曲阳县电视台（０６月１４日至０６月１６日１８时至２０时之间）屏幕上方滚动","powerTime":"2018-06-28 15:38:33","powerComm":"已送电","subsNo":"","lineNo":"","tgNo":"","tgName":null,"infoStatus":"1","orgName":"国网曲阳县供电公司","typeName":null,"infoStatusName":null,"dateDay":null,"orgNos":null,"nowTime":null,"countyName":null,"streetName":null,"villageName":null,"roadName":null,"communityName":null,"tranName":null,"sdLineName":null,"cityCode":"1340619","cityName":"国网曲阳县供电公司","provinceCode":null,"stopTime":"2018-06-28 16:30:00","powerType":"全部","powerOffArea":"【全线路停电】停0000006446庄伙西2变压器,曲阳县李建川灰粉经销处变压器,0000007155庄伙中区变压器,北苏家峪村北变压器,0013170421东泉头东变压器,0000004776贾庄北变压器,曲阳县永兴建材有限公司变压器,曲阳县瑞金灰粉经俏处变压器,曲阳县西泉头玉洁灰粉厂变压器,0000005352马家岸变压器,兴龙水泥砖销售处变压器,0000004771北苏变压器,曲阳县恒北建材销售有限公司变压器,0012359237洪山南区变压器,曲阳县庄窠乡诚质石灰厂变压器,曲阳县要合养殖有限公司变压器,曲阳县白玉灰粉有限公司变压器,0014478809西泉头西2区变压器,曲阳县黑风山蛋鸡养殖场变压器,0013170420南苏南变压器,0012850561贾庄北1变压器,0000006753马家岸西变压器,曲阳县鸿运满石灰经销处变压器,曲阳县青龙德硅化物有限公司,民信灰粉厂,曲阳县昊博建材有限公司,河北博辉钙业有限公司,庄伙高彦章,新利灰粉厂,0000004774贾庄南变压器,0000004782庄伙村西变压器,0012359235洪山北区变压器,庄伙北变压器,曲阳县庄伙乡西泉头村农井变压器,曲阳县白玉灰粉厂变压器,曲阳县赛玉灰粉厂变压器,0000004772洪山村变压器,0000006374贾庄南2变压器,曲阳县兴冀灰粉有限公司变压器,马家岸机井,曲阳县金牛灰粉经销处变压器,庄伙金龙灰粉厂,曲阳县奥兴钙业有限公司变压器,曲阳县利民塑料厂,0000004770南苏变压器,0000004767庄伙村东变压器,移动分公司庄伙机站,曲阳县运达建材有限责任公司变压器,曲阳县英好养殖有限公司变压器,0012752921西泉头南区变压器,0000004764西泉头西变压器,李同杰,0000006500东泉头南变压器,庄伙金箭灰粉厂,0000005353东泉头变压器,0000004765贾庄中变压器,0014478806贾庄村西区,陈敬杰面粉厂,陈会龙,陈亚辉农灌,庄伙白云灰粉厂,李建川灰粉厂,珍玉灰粉厂,曲阳县朋举建材经销处变压器,0000005461西泉头东变压器,东泉头井,曲阳县程阳建材有限公司变压器,五环灰粉厂,庄伙鑫玉灰粉厂,西泉头南井,曲阳县白玉灰粉厂,贾庄一号井,庄伙大桥灰粉厂,西泉头天鹅灰粉厂,0000007206葛条沟2区变压器,庄伙乡白月灰粉厂,洪山二号井","powerOffReason":"【停电原因】由于新增配变架线接火导致３５ＫＶ刘家马变电站１０ＫＶ５１２庄伙线路全线停电【变更送电】无【发布渠道】保定市曲阳县电视台（０６月１４日至０６月１６日１８时至２０时之间）屏幕上方滚动","powerOffId":"2018061413000289"},{"poweroffId":2018061413000279,"sgpoweroffId":null,"subsName":"","lineName":"北八村线525","pubTranName":"梁神堂5#公用,","scope":"【影响街道/乡镇】昝岗镇 【高危重要客户】无 【影响客户】梁神堂村","startTime":"2018-06-14 11:00:55","stopDate":"2018-06-14 14:00:00","orgNo":"1340624","typeCode":"电网故障停限电","poweroffArea":"【单台区停电】停梁神堂5#公用","poweroffReason":"【停电原因】由于低压刀闸烧毁导致１１０ＫＶ昝岗变电站北八村线５２５线路梁神堂５号公变台区停电 【变更送电】无 【发布渠道】通过９５５９８发布　　　　　　　　","powerTime":"2018-06-14 13:47:33","powerComm":"已送电","subsNo":"","lineNo":"","tgNo":"","tgName":null,"infoStatus":"1","orgName":"(原)国网雄县供电公司","typeName":null,"infoStatusName":null,"dateDay":null,"orgNos":null,"nowTime":null,"countyName":null,"streetName":null,"villageName":null,"roadName":null,"communityName":null,"tranName":null,"sdLineName":null,"cityCode":"1340624","cityName":"(原)国网雄县供电公司","provinceCode":null,"stopTime":"2018-06-14 14:00:00","powerType":"全部","powerOffArea":"【单台区停电】停梁神堂5#公用","powerOffReason":"【停电原因】由于低压刀闸烧毁导致１１０ＫＶ昝岗变电站北八村线５２５线路梁神堂５号公变台区停电 【变更送电】无 【发布渠道】通过９５５９８发布　　　　　　　　","powerOffId":"2018061413000279"},{"poweroffId":2018061413000274,"sgpoweroffId":null,"subsName":"","lineName":"辛留佐线515","pubTranName":"高阳县远阳纺织厂变压器,070019|辛留佐村西北综合5195,东飞纺织品公司,北路台村西中北农排【纯农排变】,北于八农业土地开发一号【纯农排变】,南晋庄村西南远6号农排【纯农排变】,高阳县高尚纺织厂变压器,北于八村北4号,北于八吃水井新增综合,07005|辛留佐村西综合1727,高阳县兵永纺织厂变压器,辛留佐针刺厂,07018|北于八村东北综合1768,北路台村南农排【纯农排变】,07052|北于八村北综合1705,洪银锁,辛留佐9号农排【纯农排变】,北于八村西变压器,辛留佐村南2号新增综合,07025|辛留佐村北综合1774,高阳县邢家南镇辛留佐村村民委员会变压器,北于八西北2,北于八西北3,07053|北于八村西综合1706,北路台村西远农排【纯农排变】,南晋庄村南4号农排【纯农排变】,北于八村东农业,辛留佐7号农排【纯农排变】,辛留佐6号农排【纯农排变】,辛留佐1号农排【纯农排变】,辛留佐2号农排【纯农排变】,朝阳毛巾厂,于八乡砖厂,辛留佐3号农排【纯农排变】,辛留佐4号农排【纯农排变】,高阳县吉盛纺纱厂变压器,北于八村西2号综合台区,辛留佐5号农排【纯农排变】,北于八西北1,07077|北路台综合1729,北于八西农业,兴和博宇有限公司,北于八农业土地开发二号【纯农排变】,立新皮毛厂,艳辉毛巾厂,辛留佐纸制品厂,","scope":"【影响街道/乡镇】邢南乡 【高危重要客户】无 【影响客户】北于八村北、 北路台村西部分","startTime":"2018-06-18 06:00:00","stopDate":"2018-06-18 12:00:00","orgNo":"1340613","typeCode":"临时停电","poweroffArea":"【分支停电】停北路台村西中北农排【纯农排变】,辛留佐3号农排【纯农排变】,南晋庄村西南远6号农排【纯农排变】,立新皮毛厂,高阳县远阳纺织厂变压器,北于八村西变压器,朝阳毛巾厂,辛留佐2号农排【纯农排变】,辛留佐村南2号新增综合,07053|北于八村西综合1706,艳辉毛巾厂,北于八西北3,兴和博宇有限公司,洪银锁,北于八农业土地开发一号【纯农排变】,辛留佐4号农排【纯农排变】,辛留佐9号农排【纯农排变】,辛留佐7号农排【纯农排变】,070019|辛留佐村西北综合5195,07018|北于八村东北综合1768,北于八吃水井新增综合,07025|辛留佐村北综合1774,北于八西北1,07077|北路台综合1729,高阳县兵永纺织厂变压器,北于八村北4号,北于八村东农业,于八乡砖厂,北于八村西2号综合台区,辛留佐针刺厂,北于八西北2,辛留佐纸制品厂,东飞纺织品公司,辛留佐5号农排【纯农排变】,07005|辛留佐村西综合1727,北路台村西远农排【纯农排变】,南晋庄村南4号农排【纯农排变】,高阳县高尚纺织厂变压器,高阳县邢家南镇辛留佐村村民委员会变压器,北路台村南农排【纯农排变】,北于八农业土地开发二号【纯农排变】,辛留佐6号农排【纯农排变】,辛留佐1号农排【纯农排变】,高阳县吉盛纺纱厂变压器,07052|北于八村北综合1705,北于八西农业","poweroffReason":"【停电原因】由于新增配变及设备导致３５ＫＶ南路台变电站辛留佐５１５线路主线１０号杆１０开关以下线路停电【变更送电】因抢修进度加快原因，送电时间由１４：００变更为１２：００【发布渠道】９５５９８","powerTime":"2018-06-18 11:16:27","powerComm":"已送电","subsNo":"","lineNo":"","tgNo":"","tgName":null,"infoStatus":"1","orgName":"国网高阳县供电公司","typeName":null,"infoStatusName":null,"dateDay":null,"orgNos":null,"nowTime":null,"countyName":null,"streetName":null,"villageName":null,"roadName":null,"communityName":null,"tranName":null,"sdLineName":null,"cityCode":"1340613","cityName":"国网高阳县供电公司","provinceCode":null,"stopTime":"2018-06-18 12:00:00","powerType":"全部","powerOffArea":"【分支停电】停北路台村西中北农排【纯农排变】,辛留佐3号农排【纯农排变】,南晋庄村西南远6号农排【纯农排变】,立新皮毛厂,高阳县远阳纺织厂变压器,北于八村西变压器,朝阳毛巾厂,辛留佐2号农排【纯农排变】,辛留佐村南2号新增综合,07053|北于八村西综合1706,艳辉毛巾厂,北于八西北3,兴和博宇有限公司,洪银锁,北于八农业土地开发一号【纯农排变】,辛留佐4号农排【纯农排变】,辛留佐9号农排【纯农排变】,辛留佐7号农排【纯农排变】,070019|辛留佐村西北综合5195,07018|北于八村东北综合1768,北于八吃水井新增综合,07025|辛留佐村北综合1774,北于八西北1,07077|北路台综合1729,高阳县兵永纺织厂变压器,北于八村北4号,北于八村东农业,于八乡砖厂,北于八村西2号综合台区,辛留佐针刺厂,北于八西北2,辛留佐纸制品厂,东飞纺织品公司,辛留佐5号农排【纯农排变】,07005|辛留佐村西综合1727,北路台村西远农排【纯农排变】,南晋庄村南4号农排【纯农排变】,高阳县高尚纺织厂变压器,高阳县邢家南镇辛留佐村村民委员会变压器,北路台村南农排【纯农排变】,北于八农业土地开发二号【纯农排变】,辛留佐6号农排【纯农排变】,辛留佐1号农排【纯农排变】,高阳县吉盛纺纱厂变压器,07052|北于八村北综合1705,北于八西农业","powerOffReason":"【停电原因】由于新增配变及设备导致３５ＫＶ南路台变电站辛留佐５１５线路主线１０号杆１０开关以下线路停电【变更送电】因抢修进度加快原因，送电时间由１４：００变更为１２：００【发布渠道】９５５９８","powerOffId":"2018061413000274"},{"poweroffId":2018061413000262,"sgpoweroffId":null,"subsName":"","lineName":"10kV570吴咬村线","pubTranName":"王咬村公用照明二台区,大杨咬公用农业1台区【纯农排变】,王咬村公用农业3台区【纯农排变】,李咬村公用农业1台区【纯农排变】,吴咬村公用农业一台区【纯农排变】,大杨咬公用农业4台区【纯农排变】,大杨咬公用农业2台区【纯农排变】,大杨咬公用农业3台区【纯农排变】,王咬村公用农业1台区【纯农排变】,大杨咬公用照明2台区,吴咬村公用农业7台区【纯农排变】,大杨咬公用照明一台区,大杨咬公用农业六台区【纯农排变】,解咬村公用农业4台区【纯农排变】,李咬村公用照明2台区,王咬村公用照明一台区,吴咬村公用农业2台区【纯农排变】,王咬村公用照明3台区,大杨咬公用照明3台区,解咬村公用农业3台区【纯农排变】,解咬村公用农业2台区【纯农排变】,大杨咬公用农业5台区【纯农排变】,","scope":"【影响街道/乡镇】明月店镇【高危重要客户】无【影响客户】李咬村、王咬村、大扬咬","startTime":"2018-06-28 07:30:00","stopDate":"2018-06-28 18:00:00","orgNo":"1340610","typeCode":"计划停电","poweroffArea":"【分支停电】停大杨咬公用照明3台区,大杨咬公用农业4台区【纯农排变】,解咬村公用农业3台区【纯农排变】,解咬村公用农业2台区【纯农排变】,大杨咬公用农业1台区【纯农排变】,王咬村公用农业1台区【纯农排变】,大杨咬公用照明2台区,吴咬村公用农业2台区【纯农排变】,吴咬村公用农业7台区【纯农排变】,王咬村公用照明3台区,王咬村公用照明一台区,大杨咬公用照明一台区,王咬村公用照明二台区,大杨咬公用农业六台区【纯农排变】,大杨咬公用农业2台区【纯农排变】,大杨咬公用农业3台区【纯农排变】,解咬村公用农业4台区【纯农排变】,李咬村公用照明2台区,大杨咬公用农业5台区【纯农排变】,王咬村公用农业3台区【纯农排变】,李咬村公用农业1台区【纯农排变】,吴咬村公用农业一台区【纯农排变】","poweroffReason":"【停电原因】由于更换导线导致１１０ＫＶ明月店变电站１０ＫＶ５７０吴咬村线路主干６６号杆０５号断路器以下线路停电 【变更送电】无 【发布渠道】河北省定州市定州日报第三版（２０１８年０６月１５日）","powerTime":"2018-06-28 17:27:24","powerComm":"已送电","subsNo":"","lineNo":"","tgNo":"","tgName":null,"infoStatus":"1","orgName":"国网定州市供电公司","typeName":null,"infoStatusName":null,"dateDay":null,"orgNos":null,"nowTime":null,"countyName":null,"streetName":null,"villageName":null,"roadName":null,"communityName":null,"tranName":null,"sdLineName":null,"cityCode":"1340610","cityName":"国网定州市供电公司","provinceCode":null,"stopTime":"2018-06-28 18:00:00","powerType":"全部","powerOffArea":"【分支停电】停大杨咬公用照明3台区,大杨咬公用农业4台区【纯农排变】,解咬村公用农业3台区【纯农排变】,解咬村公用农业2台区【纯农排变】,大杨咬公用农业1台区【纯农排变】,王咬村公用农业1台区【纯农排变】,大杨咬公用照明2台区,吴咬村公用农业2台区【纯农排变】,吴咬村公用农业7台区【纯农排变】,王咬村公用照明3台区,王咬村公用照明一台区,大杨咬公用照明一台区,王咬村公用照明二台区,大杨咬公用农业六台区【纯农排变】,大杨咬公用农业2台区【纯农排变】,大杨咬公用农业3台区【纯农排变】,解咬村公用农业4台区【纯农排变】,李咬村公用照明2台区,大杨咬公用农业5台区【纯农排变】,王咬村公用农业3台区【纯农排变】,李咬村公用农业1台区【纯农排变】,吴咬村公用农业一台区【纯农排变】","powerOffReason":"【停电原因】由于更换导线导致１１０ＫＶ明月店变电站１０ＫＶ５７０吴咬村线路主干６６号杆０５号断路器以下线路停电 【变更送电】无 【发布渠道】河北省定州市定州日报第三版（２０１８年０６月１５日）","powerOffId":"2018061413000262"},{"poweroffId":2018061413000223,"sgpoweroffId":null,"subsName":"","lineName":"10kV552诚信线","pubTranName":"凌云工业股份有限公司定州分公司,定州市金华蓝天汽车零部件有限公司变压器,定州市中邦工贸有限公司变压器,定州市定普汽车零部件有限公司变压器,定州市新华机械制造有限公司,定州至信机械制造有限公司,河北顺城水泥制品有限公司变压器,定州市新华机械制造有限公司变压器,定州市中标节能技术服务有限公司变压器,河北海特汽车部件有限公司,定州唐河循环经济产业开发有限公司变压器,定州市松本座椅制造有限公司变压器,定州市华腾仓储变压器,定州市定普汽车零部件有限公司,变压器,0387392910-凌云工业股份有限公司定州分公司-专变-118446833-凌云工业股份有限公司定州分公司,","scope":"【影响街道/乡镇】赵村乡【高危重要客户】无【影响客户】顺成水泥制品、嘉宝天同汽车配件厂、松本座椅汽车配件、至信汽车配件、海特汽车配件、新华机械制造厂","startTime":"2018-06-29 06:00:00","stopDate":"2018-06-29 17:30:00","orgNo":"1340610","typeCode":"计划停电","poweroffArea":"【全线路停电】停变压器,定州市华腾仓储变压器,定州至信机械制造有限公司,定州市定普汽车零部件有限公司,定州市金华蓝天汽车零部件有限公司变压器,定州市中邦工贸有限公司变压器,河北顺城水泥制品有限公司变压器,定州市定普汽车零部件有限公司变压器,定州市新华机械制造有限公司变压器,定州市中标节能技术服务有限公司变压器,定州市新华机械制造有限公司,凌云工业股份有限公司定州分公司,河北海特汽车部件有限公司,0387392910-凌云工业股份有限公司定州分公司-专变-118446833-凌云工业股份有限公司定州分公司,定州唐河循环经济产业开发有限公司变压器,定州市松本座椅制造有限公司变压器","poweroffReason":"【停电原因】由于电缆接引导致１１０ＫＶ新民变电站１０ＫＶ５５２诚信线路全线停电 【变更送电】因抢修进度加快原因，送电时间由２０：３０变更为１７：３０ 【发布渠道】河北省定州市定州日报第三版（２０１８年０６月１５日）","powerTime":"2018-06-29 16:50:51","powerComm":"已送电","subsNo":"","lineNo":"","tgNo":"","tgName":null,"infoStatus":"1","orgName":"国网定州市供电公司","typeName":null,"infoStatusName":null,"dateDay":null,"orgNos":null,"nowTime":null,"countyName":null,"streetName":null,"villageName":null,"roadName":null,"communityName":null,"tranName":null,"sdLineName":null,"cityCode":"1340610","cityName":"国网定州市供电公司","provinceCode":null,"stopTime":"2018-06-29 17:30:00","powerType":"全部","powerOffArea":"【全线路停电】停变压器,定州市华腾仓储变压器,定州至信机械制造有限公司,定州市定普汽车零部件有限公司,定州市金华蓝天汽车零部件有限公司变压器,定州市中邦工贸有限公司变压器,河北顺城水泥制品有限公司变压器,定州市定普汽车零部件有限公司变压器,定州市新华机械制造有限公司变压器,定州市中标节能技术服务有限公司变压器,定州市新华机械制造有限公司,凌云工业股份有限公司定州分公司,河北海特汽车部件有限公司,0387392910-凌云工业股份有限公司定州分公司-专变-118446833-凌云工业股份有限公司定州分公司,定州唐河循环经济产业开发有限公司变压器,定州市松本座椅制造有限公司变压器","powerOffReason":"【停电原因】由于电缆接引导致１１０ＫＶ新民变电站１０ＫＶ５５２诚信线路全线停电 【变更送电】因抢修进度加快原因，送电时间由２０：３０变更为１７：３０ 【发布渠道】河北省定州市定州日报第三版（２０１８年０６月１５日）","powerOffId":"2018061413000223"}],"pageModel":{"pageNow":987,"totalCount":10973,"totalPage":1098,"tableRows":0,"pageCount":10,"beginCount":9860},"isExperi":"1"}