{"message":"","today":"2020-06-15","seleList":[{"poweroffId":2018061413000052,"sgpoweroffId":null,"subsName":"","lineName":"10kV512后营线","pubTranName":"定州市东旺镇五女集村村委会（五女集东北)变压器,前营公用农业4台区【纯农排变】,后营公用照明7台区,小五女面粉厂,前营公用农业17台区【纯农排变】,前营公用农业18台区【纯农排变】,定州市东旺镇东旺村村民委员会（田园公司村用）变压器,东旺村南,前营双福面粉厂,前营公用照明9台区,前营公用农业5台区【纯农排变】,定州市永顺养殖有限公司变压器,前营公用农业10台区【纯农排变】,后营公用农业4台区【纯农排变】,前营公用农业9台区【纯农排变】,五女集公用照明2台区,前营公用照明1台区,东旺南口,后营公用农业11台区【纯农排变】,后营老北头,前营公用农业3台区【纯农排变】,前营公用农业22台区【纯农排变】,小五女公用照明1台区,前营公用农业2台区【纯农排变】,前营公用农业16台区【纯农排变】,后营公用照明6台区,前营公用照明8台区,前营公用农业8台区【纯农排变】,后营公用农业5台区【纯农排变】,五女集公用农业2台区【纯农排变】,前营公用农业14台区【纯农排变】,小五女公用农业2台区,后营大井西,前营公用农业23台区【纯农排变】,后营大井东,前营公用农业24台区【纯农排变】,后营村公用农业1台区【纯农排变】,五女集公用照明1台区,前营公用照明6台区,五女集公用农业4台区【纯农排变】,后营公用农业8台区【纯农排变】,定州市东旺镇后营村村民委员会（后营村西)变压器,前营公用照明7台区,后营公用照明3台区,前营公用农业1台区【纯农排变】,前营公用农业21台区【纯农排变】,后营公用农业7台区【纯农排变】,定州市东旺镇小五女村村民委员会（小五女村北）变压器,前营公用农业26台区【纯农排变】,后营河沟西,后营公用照明8台区,东旺镇政府（新民居）,后营河沟东,定州前营志诚面粉厂,五女集公用农业3台区【纯农排变】,五女集公用照明5台区,后营公用农业9台区,前营公用照明5台区,前营公用照明4台区,后营公用照明5台区,前营公用农业15台区【纯农排变】,前营公用农业19台区【纯农排变】,定州市保欣挂面厂,五女集公用照明3台区,东旺南头,后营公用农业6台区【纯农排变】,五女集公用农业7台区【纯农排变】,后营公用农业3台区【纯农排变】,变压器,前营公用农业12台区【纯农排变】,定州市标牌厂,五女集公用照明6台区,后营公用农业12台区【纯农排变】,前营公用农业25台区【纯农排变】,五女集东南,后营公用照明1台区,前营公用农业20台区【纯农排变】,后营公用农业2台区【纯农排变】,后营公用照明4台区,后营公用农业10台区【纯农排变】,后营公用照明2台区,前营公用农业11台区【纯农排变】,前营公用农业13台区【纯农排变】,后营村南,李村店公用农业3台区【纯农排变】,五女集公用照明4台区,定州市志成面业有限公司变压器2,后营公用农业13台区【纯农排变】,五女集村公用农业1台区【纯农排变】,前营公用农业7台区【纯农排变】,前营公用照明3台区,小五女公用农业1台区柱上变压器,前营公用农业6台区【纯农排变】,定州市东旺镇东旺村村民委员会（东旺村东）变压器,前营公用照明2台区,","scope":"【影响街道/乡镇】东旺镇【高危重要客户】无【影响客户】后营、前营、五女集、小五女","startTime":"2018-06-14 06:28:28","stopDate":"2018-06-14 12:40:00","orgNo":"1340610","typeCode":"电网故障停限电","poweroffArea":"【全线路停电】停前营公用农业12台区【纯农排变】,前营公用农业24台区【纯农排变】,五女集东南,五女集公用照明3台区,后营公用农业5台区【纯农排变】,前营公用农业7台区【纯农排变】,东旺镇政府（新民居）,后营公用农业3台区【纯农排变】,后营公用照明5台区,小五女公用农业1台区柱上变压器,后营公用农业11台区【纯农排变】,定州市保欣挂面厂,定州市东旺镇后营村村民委员会（后营村西)变压器,前营公用农业15台区【纯农排变】,前营公用农业11台区【纯农排变】,后营公用农业13台区【纯农排变】,前营公用照明3台区,前营公用照明8台区,后营公用照明2台区,定州市标牌厂,前营公用农业2台区【纯农排变】,定州前营志诚面粉厂,前营公用农业1台区【纯农排变】,前营公用农业22台区【纯农排变】,变压器,后营公用农业7台区【纯农排变】,定州市东旺镇东旺村村民委员会（田园公司村用）变压器,定州市东旺镇小五女村村民委员会（小五女村北）变压器,前营公用照明5台区,后营公用照明1台区,五女集公用农业3台区【纯农排变】,定州市志成面业有限公司变压器2,前营公用农业13台区【纯农排变】,前营公用农业25台区【纯农排变】,前营公用照明6台区,前营公用农业8台区【纯农排变】,五女集公用照明5台区,定州市东旺镇东旺村村民委员会（东旺村东）变压器,后营公用照明4台区,前营公用农业23台区【纯农排变】,小五女面粉厂,五女集公用照明1台区,前营公用农业3台区【纯农排变】,五女集公用照明6台区,后营公用照明8台区,后营公用农业8台区【纯农排变】,五女集公用农业4台区【纯农排变】,前营双福面粉厂,前营公用农业14台区【纯农排变】,后营老北头,前营公用照明9台区,后营大井东,后营公用农业12台区【纯农排变】,后营村南,前营公用照明4台区,五女集公用照明4台区,定州市东旺镇五女集村村委会（五女集东北)变压器,东旺南口,后营公用农业9台区,前营公用农业4台区【纯农排变】,后营公用照明7台区,前营公用农业16台区【纯农排变】,后营河沟东,前营公用农业10台区【纯农排变】,后营大井西,后营公用农业6台区【纯农排变】,前营公用农业20台区【纯农排变】,后营公用农业10台区【纯农排变】,后营公用农业2台区【纯农排变】,五女集公用农业2台区【纯农排变】,定州市永顺养殖有限公司变压器,前营公用农业19台区【纯农排变】,李村店公用农业3台区【纯农排变】,前营公用农业26台区【纯农排变】,后营公用照明6台区,前营公用农业21台区【纯农排变】,前营公用照明7台区,前营公用照明2台区,小五女公用照明1台区,前营公用农业18台区【纯农排变】,东旺村南,五女集公用照明2台区,后营村公用农业1台区【纯农排变】,前营公用照明1台区,前营公用农业9台区【纯农排变】,五女集公用农业7台区【纯农排变】,后营公用农业4台区【纯农排变】,五女集村公用农业1台区【纯农排变】,后营公用照明3台区,后营河沟西,东旺南头,前营公用农业6台区【纯农排变】,前营公用农业5台区【纯农排变】,前营公用农业17台区【纯农排变】,小五女公用农业2台区","poweroffReason":"【停电原因】由于五女店面粉厂配变烧毁导致３５ＫＶ东旺变电站１０ＫＶ５１２后营线路全线停电 【变更送电】因抢修进度加快原因，送电时间由２２：００变更为１２：４０ 【发布渠道】９５５９８","powerTime":"2018-06-14 12:18:40","powerComm":"已送电","subsNo":"","lineNo":"","tgNo":"","tgName":null,"infoStatus":"1","orgName":"国网定州市供电公司","typeName":null,"infoStatusName":null,"dateDay":null,"orgNos":null,"nowTime":null,"countyName":null,"streetName":null,"villageName":null,"roadName":null,"communityName":null,"tranName":null,"sdLineName":null,"cityCode":"1340610","cityName":"国网定州市供电公司","provinceCode":null,"stopTime":"2018-06-14 12:40:00","powerType":"全部","powerOffArea":"【全线路停电】停前营公用农业12台区【纯农排变】,前营公用农业24台区【纯农排变】,五女集东南,五女集公用照明3台区,后营公用农业5台区【纯农排变】,前营公用农业7台区【纯农排变】,东旺镇政府（新民居）,后营公用农业3台区【纯农排变】,后营公用照明5台区,小五女公用农业1台区柱上变压器,后营公用农业11台区【纯农排变】,定州市保欣挂面厂,定州市东旺镇后营村村民委员会（后营村西)变压器,前营公用农业15台区【纯农排变】,前营公用农业11台区【纯农排变】,后营公用农业13台区【纯农排变】,前营公用照明3台区,前营公用照明8台区,后营公用照明2台区,定州市标牌厂,前营公用农业2台区【纯农排变】,定州前营志诚面粉厂,前营公用农业1台区【纯农排变】,前营公用农业22台区【纯农排变】,变压器,后营公用农业7台区【纯农排变】,定州市东旺镇东旺村村民委员会（田园公司村用）变压器,定州市东旺镇小五女村村民委员会（小五女村北）变压器,前营公用照明5台区,后营公用照明1台区,五女集公用农业3台区【纯农排变】,定州市志成面业有限公司变压器2,前营公用农业13台区【纯农排变】,前营公用农业25台区【纯农排变】,前营公用照明6台区,前营公用农业8台区【纯农排变】,五女集公用照明5台区,定州市东旺镇东旺村村民委员会（东旺村东）变压器,后营公用照明4台区,前营公用农业23台区【纯农排变】,小五女面粉厂,五女集公用照明1台区,前营公用农业3台区【纯农排变】,五女集公用照明6台区,后营公用照明8台区,后营公用农业8台区【纯农排变】,五女集公用农业4台区【纯农排变】,前营双福面粉厂,前营公用农业14台区【纯农排变】,后营老北头,前营公用照明9台区,后营大井东,后营公用农业12台区【纯农排变】,后营村南,前营公用照明4台区,五女集公用照明4台区,定州市东旺镇五女集村村委会（五女集东北)变压器,东旺南口,后营公用农业9台区,前营公用农业4台区【纯农排变】,后营公用照明7台区,前营公用农业16台区【纯农排变】,后营河沟东,前营公用农业10台区【纯农排变】,后营大井西,后营公用农业6台区【纯农排变】,前营公用农业20台区【纯农排变】,后营公用农业10台区【纯农排变】,后营公用农业2台区【纯农排变】,五女集公用农业2台区【纯农排变】,定州市永顺养殖有限公司变压器,前营公用农业19台区【纯农排变】,李村店公用农业3台区【纯农排变】,前营公用农业26台区【纯农排变】,后营公用照明6台区,前营公用农业21台区【纯农排变】,前营公用照明7台区,前营公用照明2台区,小五女公用照明1台区,前营公用农业18台区【纯农排变】,东旺村南,五女集公用照明2台区,后营村公用农业1台区【纯农排变】,前营公用照明1台区,前营公用农业9台区【纯农排变】,五女集公用农业7台区【纯农排变】,后营公用农业4台区【纯农排变】,五女集村公用农业1台区【纯农排变】,后营公用照明3台区,后营河沟西,东旺南头,前营公用农业6台区【纯农排变】,前营公用农业5台区【纯农排变】,前营公用农业17台区【纯农排变】,小五女公用农业2台区","powerOffReason":"【停电原因】由于五女店面粉厂配变烧毁导致３５ＫＶ东旺变电站１０ＫＶ５１２后营线路全线停电 【变更送电】因抢修进度加快原因，送电时间由２２：００变更为１２：４０ 【发布渠道】９５５９８","powerOffId":"2018061413000052"},{"poweroffId":2018061313001803,"sgpoweroffId":null,"subsName":"","lineName":"北桥头515","pubTranName":"北桥头村8#村东,易县移动公司（南山北村）,北山北村6#变压器,中山南村3#变压器【纯农排变】,南山北村5#村东,麻屋庄村5#路北,南山北村(王术文),北桥头村6#村内【纯农排变】,南留召村4#村东,北桥头钙粉厂(王俊超),东张庄12#村内,北桥头村9#村北,易县闫生大理石厂,易县职业技术教育中心160KVA,东山北村4#村东【纯农排变】,龙王庙村5#村南,昌盛钙粉厂(刘森),西留召村2#村内,易县职教中心,北桥头村1#村东,东张家庄7#村东,北山北村3#村西,西留召村1#村内,北桥头村10村内,南山北村6#村北,南山北水泥厂(侯艳利),北山南村1#村东,老山兰灰厂(李永保),麻屋庄村4#村东,0469488816-易县越发钙粉厂-专变-46820772-易县越发钙粉厂,东张庄村1#村内,北桥头村4#河西,东山北村5#村北【纯农排变】,宗刚澎润土厂,南山北村4#村南【纯农排变】,北山北村5号村东【纯农排变】,南山北村2#变压器,南山北村1#村内,麻屋庄村3#村南（综）变压器,龙王庙村3#村西【纯农排变】,北桥头村11村南,梁春华变压器,东张家庄村4#【纯农排变】,易县天承建筑材料厂,南留召村1#村内,北山北大队(蔺合春砖厂),龙王庙村6#村中,麻屋庄村路南2号,东张庄王英面粉厂(龙王庙),龙王庙村内2号,南山北村3#村东,伊振良,龙王庙村4#村北【纯农排变】,北桥头村12村东,南留召5号,西留召村3#村内【纯农排变】,南留召村3#村南【纯农排变】,龙王庙村1#村东,桥头供电所,易县立新钙粉厂（杨永堂）,北山北村4#村南,美律电子（河北）有限公司变压器,龙王庙村7#村东,南留召村2#村北,南山北钙粉厂(王术同),西留召村4#,东山北村6#村北,北桥头村3#村西,麻屋庄面粉厂,北山北村1号村西,北桥头村2#村内,东张家庄10#西,龙泉塑料厂(卢志刚),东山北村3#村北,东张庄村2#村西,侯宗江,北山北村2#村西,易县双联钙粉厂变压器,纪兴种苗厂,南山北村闫江变压器,东山北村7#村北,东山北村2#村东,0631831253-易县兴发建材有限公司-专变-144689825-易县兴发建材有限公司变压器,东张家庄8#村东,麻屋庄村采矿1#,麻屋庄村1#,东张庄3#影视城,东张家庄6号村北,泰和土地整理服务有限公司-西留召100KVA,东山北村8#,北桥头村5#村南,绿周苗木有限公司(于建立),东张家庄11村东,东山北村1#村内,北桥头村7#【纯农排变】,南山北村7#村北,东张家庄9#村北,","scope":"【影响街道/乡镇】桥头乡【高危重要客户】无【影响客户】麻屋庄村、中山南村、北山南村、北桥头村、西留召村、南留召村、东张家庄村、东龙王庙村、北山北村、南山北村、东山北村","startTime":"2018-06-13 22:11:22","stopDate":"2018-06-14 05:50:00","orgNo":"1340625","typeCode":"电网故障停限电","poweroffArea":"【全线路停电】停麻屋庄村采矿1#,北山北大队(蔺合春砖厂),东张家庄11村东,东张庄王英面粉厂(龙王庙),南山北钙粉厂(王术同),北桥头村12村东,侯宗江,老山兰灰厂(李永保),南留召村2#村北,北桥头村11村南,龙王庙村内2号,昌盛钙粉厂(刘森),0469488816-易县越发钙粉厂-专变-46820772-易县越发钙粉厂,麻屋庄村5#路北,北桥头钙粉厂(王俊超),北山北村5号村东【纯农排变】,南山北村(王术文),麻屋庄村4#村东,绿周苗木有限公司(于建立),南山北水泥厂(侯艳利),宗刚澎润土厂,南山北村3#村东,东张庄12#村内,易县职教中心,东张庄村1#村内,东张庄村2#村西,东山北村5#村北【纯农排变】,南留召5号,南留召村3#村南【纯农排变】,东张庄3#影视城,南留召村4#村东,0631831253-易县兴发建材有限公司-专变-144689825-易县兴发建材有限公司变压器,美律电子（河北）有限公司变压器,北桥头村9#村北,龙王庙村3#村西【纯农排变】,北桥头村8#村东,东山北村6#村北,北山北村1号村西,南山北村闫江变压器,南山北村1#村内,麻屋庄村3#村南（综）变压器,西留召村3#村内【纯农排变】,东山北村2#村东,南山北村5#村东,南山北村6#村北,中山南村3#变压器【纯农排变】,北桥头村10村内,易县天承建筑材料厂,龙王庙村7#村东,麻屋庄村1#,东张家庄8#村东,北山北村4#村南,西留召村4#,北山北村6#变压器,北桥头村4#河西,东张家庄6号村北,东山北村8#,泰和土地整理服务有限公司-西留召100KVA,梁春华变压器,北桥头村5#村南,西留召村1#村内,易县双联钙粉厂变压器,东张家庄7#村东,北山南村1#村东,龙王庙村1#村东,龙王庙村6#村中,龙王庙村5#村南,南山北村4#村南【纯农排变】,南留召村1#村内,东张家庄10#西,北山北村3#村西,东山北村7#村北,南山北村2#变压器,北山北村2#村西,北桥头村1#村东,东山北村1#村内,北桥头村3#村西,东山北村3#村北,龙王庙村4#村北【纯农排变】,麻屋庄村路南2号,南山北村7#村北,北桥头村6#村内【纯农排变】,东山北村4#村东【纯农排变】,易县职业技术教育中心160KVA,纪兴种苗厂,麻屋庄面粉厂,伊振良,桥头供电所,易县立新钙粉厂（杨永堂）,北桥头村2#村内,北桥头村7#【纯农排变】,西留召村2#村内,东张家庄9#村北,龙泉塑料厂(卢志刚),易县闫生大理石厂,东张家庄村4#【纯农排变】,易县移动公司（南山北村）","poweroffReason":"【停电原因】由于过流跳闸导致３５ＫＶ燕城变电站北桥头５１５线路全线停电【变更送电】因抢修进度加快，送电时间由２０:００变更为５:５０【发布渠道】通过９５５９８发布","powerTime":"2018-06-14 05:36:25","powerComm":"已送电","subsNo":"","lineNo":"","tgNo":"","tgName":null,"infoStatus":"1","orgName":"国网易县供电公司","typeName":null,"infoStatusName":null,"dateDay":null,"orgNos":null,"nowTime":null,"countyName":null,"streetName":null,"villageName":null,"roadName":null,"communityName":null,"tranName":null,"sdLineName":null,"cityCode":"1340625","cityName":"国网易县供电公司","provinceCode":null,"stopTime":"2018-06-14 05:50:00","powerType":"全部","powerOffArea":"【全线路停电】停麻屋庄村采矿1#,北山北大队(蔺合春砖厂),东张家庄11村东,东张庄王英面粉厂(龙王庙),南山北钙粉厂(王术同),北桥头村12村东,侯宗江,老山兰灰厂(李永保),南留召村2#村北,北桥头村11村南,龙王庙村内2号,昌盛钙粉厂(刘森),0469488816-易县越发钙粉厂-专变-46820772-易县越发钙粉厂,麻屋庄村5#路北,北桥头钙粉厂(王俊超),北山北村5号村东【纯农排变】,南山北村(王术文),麻屋庄村4#村东,绿周苗木有限公司(于建立),南山北水泥厂(侯艳利),宗刚澎润土厂,南山北村3#村东,东张庄12#村内,易县职教中心,东张庄村1#村内,东张庄村2#村西,东山北村5#村北【纯农排变】,南留召5号,南留召村3#村南【纯农排变】,东张庄3#影视城,南留召村4#村东,0631831253-易县兴发建材有限公司-专变-144689825-易县兴发建材有限公司变压器,美律电子（河北）有限公司变压器,北桥头村9#村北,龙王庙村3#村西【纯农排变】,北桥头村8#村东,东山北村6#村北,北山北村1号村西,南山北村闫江变压器,南山北村1#村内,麻屋庄村3#村南（综）变压器,西留召村3#村内【纯农排变】,东山北村2#村东,南山北村5#村东,南山北村6#村北,中山南村3#变压器【纯农排变】,北桥头村10村内,易县天承建筑材料厂,龙王庙村7#村东,麻屋庄村1#,东张家庄8#村东,北山北村4#村南,西留召村4#,北山北村6#变压器,北桥头村4#河西,东张家庄6号村北,东山北村8#,泰和土地整理服务有限公司-西留召100KVA,梁春华变压器,北桥头村5#村南,西留召村1#村内,易县双联钙粉厂变压器,东张家庄7#村东,北山南村1#村东,龙王庙村1#村东,龙王庙村6#村中,龙王庙村5#村南,南山北村4#村南【纯农排变】,南留召村1#村内,东张家庄10#西,北山北村3#村西,东山北村7#村北,南山北村2#变压器,北山北村2#村西,北桥头村1#村东,东山北村1#村内,北桥头村3#村西,东山北村3#村北,龙王庙村4#村北【纯农排变】,麻屋庄村路南2号,南山北村7#村北,北桥头村6#村内【纯农排变】,东山北村4#村东【纯农排变】,易县职业技术教育中心160KVA,纪兴种苗厂,麻屋庄面粉厂,伊振良,桥头供电所,易县立新钙粉厂（杨永堂）,北桥头村2#村内,北桥头村7#【纯农排变】,西留召村2#村内,东张家庄9#村北,龙泉塑料厂(卢志刚),易县闫生大理石厂,东张家庄村4#【纯农排变】,易县移动公司（南山北村）","powerOffReason":"【停电原因】由于过流跳闸导致３５ＫＶ燕城变电站北桥头５１５线路全线停电【变更送电】因抢修进度加快，送电时间由２０:００变更为５:５０【发布渠道】通过９５５９８发布","powerOffId":"2018061313001803"},{"poweroffId":2018061313001800,"sgpoweroffId":null,"subsName":"","lineName":"育英中学517","pubTranName":"育英中学,变压器,河北省易县120厨具店,魏家坟村4#,魏家坟村5#,良村10#,易县龙胜石制工艺品厂250KVA,魏家坟村3#【纯农排变】,保定华煜金属制品有限公司,保定北极星九江石材有限公司,易县鸿飞钢结构安装服务处变压器,魏家坟村2#,魏家坟村1#,章村5#村北,良村7#村东,章村6#台区,章村利田苗圃场,魏家坟薛敬,保定京易新型建材有限公司,易县利华燃气仓储服务有限公司变压器,0469489125-易县越发钙粉厂-专变-47628315-易县越发钙粉厂,易县新源石材厂250KVA,东张家庄村5#【纯农排变】,章村4台区,保定万利达铸造有限公司,京易新型建材有限公司,易县天威石材,","scope":"【影响街道/乡镇】桥头乡、易州镇、白马乡【高危重要客户】无【影响客户】东张家庄村、章村、良村、魏家坟村","startTime":"2018-06-13 22:08:44","stopDate":"2018-06-14 05:50:00","orgNo":"1340625","typeCode":"电网故障停限电","poweroffArea":"【全线路停电】停魏家坟村5#,魏家坟村1#,良村10#,魏家坟村2#,0469489125-易县越发钙粉厂-专变-47628315-易县越发钙粉厂,易县利华燃气仓储服务有限公司变压器,东张家庄村5#【纯农排变】,变压器,魏家坟村4#,育英中学,魏家坟薛敬,章村4台区,易县天威石材,易县新源石材厂250KVA,魏家坟村3#【纯农排变】,保定万利达铸造有限公司,章村利田苗圃场,保定北极星九江石材有限公司,易县龙胜石制工艺品厂250KVA,易县鸿飞钢结构安装服务处变压器,良村7#村东,章村6#台区,保定华煜金属制品有限公司,章村5#村北,京易新型建材有限公司,河北省易县120厨具店,保定京易新型建材有限公司","poweroffReason":"【停电原因】由于过流跳闸导致３５ＫＶ燕城变电站育英中学５１７线路全线停电【变更送电】因抢修进度加快，送电时间由２０:００变更为５:５０【发布渠道】通过９５５９８发布","powerTime":"2018-06-14 05:39:25","powerComm":"已送电","subsNo":"","lineNo":"","tgNo":"","tgName":null,"infoStatus":"1","orgName":"国网易县供电公司","typeName":null,"infoStatusName":null,"dateDay":null,"orgNos":null,"nowTime":null,"countyName":null,"streetName":null,"villageName":null,"roadName":null,"communityName":null,"tranName":null,"sdLineName":null,"cityCode":"1340625","cityName":"国网易县供电公司","provinceCode":null,"stopTime":"2018-06-14 05:50:00","powerType":"全部","powerOffArea":"【全线路停电】停魏家坟村5#,魏家坟村1#,良村10#,魏家坟村2#,0469489125-易县越发钙粉厂-专变-47628315-易县越发钙粉厂,易县利华燃气仓储服务有限公司变压器,东张家庄村5#【纯农排变】,变压器,魏家坟村4#,育英中学,魏家坟薛敬,章村4台区,易县天威石材,易县新源石材厂250KVA,魏家坟村3#【纯农排变】,保定万利达铸造有限公司,章村利田苗圃场,保定北极星九江石材有限公司,易县龙胜石制工艺品厂250KVA,易县鸿飞钢结构安装服务处变压器,良村7#村东,章村6#台区,保定华煜金属制品有限公司,章村5#村北,京易新型建材有限公司,河北省易县120厨具店,保定京易新型建材有限公司","powerOffReason":"【停电原因】由于过流跳闸导致３５ＫＶ燕城变电站育英中学５１７线路全线停电【变更送电】因抢修进度加快，送电时间由２０:００变更为５:５０【发布渠道】通过９５５９８发布","powerOffId":"2018061313001800"},{"poweroffId":2018061313001784,"sgpoweroffId":null,"subsName":"","lineName":"10kV514南环线","pubTranName":"10KV514南环线西街37006分支西街37006台区变压器,10KV514南环线3706237011分支37011台区变压器,10KV514南环线高庄2472分支大营2472台区变压器,10KV514南环线高庄37038分支大营2437台区变压器,10KV514南环线大营37062分支大营37003台区变压器,10KV514南环线高庄37061分支大营2460台区变压器,10KV514南环线247337012分支大营村37044台区变压器【纯农排变】,10KV514南环线大营博江浇地分支大营2425台区变压器,10KV514南环线高庄分支37007台区变压器【纯农排变】,10KV514南环线小营村东分支小营2475台区变压器,10KV514南环线2433分支2471台区变压器,10KV514南环线主干南白沙37049台区变压器【纯农排变】,10KV514南环线东路分支小营2466台区变压器,10KV514南环线高庄37016分支37016台区变压器【纯农排变】,10KV514南环线大营37062分支大营37045台区变压器【纯农排变】,10KV514南环线高庄2472分支大营2442台区变压器【纯农排变】,10KV514南环线高庄37054分支37037台区变压器【纯农排变】,10KV514南环线东路1分支2470台区变压器【纯农排变】,10KV514南环线大营37062分支大营2461台区变压器,10KV514南环线247337012分支大营2412台区变压器,10KV514南环线高庄2473分支大营2473台区变压器,","scope":"【影响街道/乡镇】博野镇【高危重要客户】无【影响客户】大营、小营、东高庄","startTime":"2018-06-13 21:28:02","stopDate":"2018-06-14 18:00:00","orgNo":"1340608","typeCode":"电网故障停限电","poweroffArea":"【分支停电】停10KV514南环线2433分支2471台区变压器,10KV514南环线高庄分支37007台区变压器【纯农排变】,10KV514南环线主干南白沙37049台区变压器【纯农排变】,10KV514南环线东路分支小营2466台区变压器,10KV514南环线小营村东分支小营2475台区变压器,10KV514南环线高庄37016分支37016台区变压器【纯农排变】,10KV514南环线西街37006分支西街37006台区变压器,10KV514南环线大营37062分支大营37045台区变压器【纯农排变】,10KV514南环线3706237011分支37011台区变压器,10KV514南环线高庄2472分支大营2442台区变压器【纯农排变】,10KV514南环线高庄2472分支大营2472台区变压器,10KV514南环线高庄37054分支37037台区变压器【纯农排变】,10KV514南环线高庄37038分支大营2437台区变压器,10KV514南环线东路1分支2470台区变压器【纯农排变】,10KV514南环线大营37062分支大营37003台区变压器,10KV514南环线大营37062分支大营2461台区变压器,10KV514南环线高庄37061分支大营2460台区变压器,10KV514南环线247337012分支大营2412台区变压器,10KV514南环线247337012分支大营村37044台区变压器【纯农排变】,10KV514南环线高庄2473分支大营2473台区变压器,10KV514南环线大营博江浇地分支大营2425台区变压器","poweroffReason":"【停电原因】由于高庄分支倒杆断线导致３５ＫＶ南白沙变电站南环５１４线路１号杆至５７号杆停电【变更送电】无【发布渠道】通过９５５９８发布","powerTime":"2018-06-14 17:55:43","powerComm":"已送电","subsNo":"","lineNo":"","tgNo":"","tgName":null,"infoStatus":"1","orgName":"国网博野县供电公司","typeName":null,"infoStatusName":null,"dateDay":null,"orgNos":null,"nowTime":null,"countyName":null,"streetName":null,"villageName":null,"roadName":null,"communityName":null,"tranName":null,"sdLineName":null,"cityCode":"1340608","cityName":"国网博野县供电公司","provinceCode":null,"stopTime":"2018-06-14 18:00:00","powerType":"全部","powerOffArea":"【分支停电】停10KV514南环线2433分支2471台区变压器,10KV514南环线高庄分支37007台区变压器【纯农排变】,10KV514南环线主干南白沙37049台区变压器【纯农排变】,10KV514南环线东路分支小营2466台区变压器,10KV514南环线小营村东分支小营2475台区变压器,10KV514南环线高庄37016分支37016台区变压器【纯农排变】,10KV514南环线西街37006分支西街37006台区变压器,10KV514南环线大营37062分支大营37045台区变压器【纯农排变】,10KV514南环线3706237011分支37011台区变压器,10KV514南环线高庄2472分支大营2442台区变压器【纯农排变】,10KV514南环线高庄2472分支大营2472台区变压器,10KV514南环线高庄37054分支37037台区变压器【纯农排变】,10KV514南环线高庄37038分支大营2437台区变压器,10KV514南环线东路1分支2470台区变压器【纯农排变】,10KV514南环线大营37062分支大营37003台区变压器,10KV514南环线大营37062分支大营2461台区变压器,10KV514南环线高庄37061分支大营2460台区变压器,10KV514南环线247337012分支大营2412台区变压器,10KV514南环线247337012分支大营村37044台区变压器【纯农排变】,10KV514南环线高庄2473分支大营2473台区变压器,10KV514南环线大营博江浇地分支大营2425台区变压器","powerOffReason":"【停电原因】由于高庄分支倒杆断线导致３５ＫＶ南白沙变电站南环５１４线路１号杆至５７号杆停电【变更送电】无【发布渠道】通过９５５９８发布","powerOffId":"2018061313001784"},{"poweroffId":2018061313001732,"sgpoweroffId":null,"subsName":"","lineName":"10kV石佛511线","pubTranName":"石佛综合8台区变压器,石佛综合11台区变压器,石佛综合16号,石佛农业8台区【纯农排变】,石佛综合2台区变压器,石佛综合12台区变压器,石佛综合15号,石佛综合1台区变压器,","scope":"【影响街道/乡镇】石佛镇 【高危重要客户】无 【影响客户】石佛村","startTime":"2018-06-13 20:26:19","stopDate":"2018-06-13 21:30:00","orgNo":"1340606","typeCode":"电网故障停限电","poweroffArea":"【全线路停电】停石佛综合16号,石佛农业8台区【纯农排变】,石佛综合15号,石佛综合11台区变压器,石佛综合8台区变压器,石佛综合1台区变压器,石佛综合12台区变压器,石佛综合2台区变压器","poweroffReason":"【停电原因】由于站内开关掉闸导致３５ＫＶ石佛变电站１０ＫＶ石佛５１１线路全线停电 【变更送电】因抢修进度加快原因，送电时间由１４日０９：００变更为１３日２１：３０ 【发布渠道】通过９５５９８发布","powerTime":"2018-06-13 21:27:36","powerComm":"已送电","subsNo":"","lineNo":"","tgNo":"","tgName":null,"infoStatus":"1","orgName":"国网安国市供电公司","typeName":null,"infoStatusName":null,"dateDay":null,"orgNos":null,"nowTime":null,"countyName":null,"streetName":null,"villageName":null,"roadName":null,"communityName":null,"tranName":null,"sdLineName":null,"cityCode":"1340606","cityName":"国网安国市供电公司","provinceCode":null,"stopTime":"2018-06-13 21:30:00","powerType":"全部","powerOffArea":"【全线路停电】停石佛综合16号,石佛农业8台区【纯农排变】,石佛综合15号,石佛综合11台区变压器,石佛综合8台区变压器,石佛综合1台区变压器,石佛综合12台区变压器,石佛综合2台区变压器","powerOffReason":"【停电原因】由于站内开关掉闸导致３５ＫＶ石佛变电站１０ＫＶ石佛５１１线路全线停电 【变更送电】因抢修进度加快原因，送电时间由１４日０９：００变更为１３日２１：３０ 【发布渠道】通过９５５９８发布","powerOffId":"2018061313001732"},{"poweroffId":2018061313001729,"sgpoweroffId":null,"subsName":"","lineName":"10kV南章512线","pubTranName":"王街农业2台区变压器,东巷农业4台区变压器,石佛综合17台区,","scope":"【影响街道/乡镇】石佛镇 【高危重要客户】无 【影响客户】南章村、石佛村、高街村、东巷村、王街村、李街村","startTime":"2018-06-13 20:25:05","stopDate":"2018-06-13 20:40:00","orgNo":"1340606","typeCode":"电网故障停限电","poweroffArea":"【全线路停电】停王街农业２台区变压器,东巷农业４台区变压器,石佛综合１７台区","poweroffReason":"【停电原因】由于站内开关跳闸导致３５ＫＶ石佛变电站１０ＫＶ南章５１２线路全线停电 【变更送电】因抢修进度加快原因，送电时间由１４日０９：００变更为１３日２０：４０ 【发布渠道】通过９５５９８发布","powerTime":"2018-06-13 20:33:25","powerComm":"已送电","subsNo":"","lineNo":"","tgNo":"","tgName":null,"infoStatus":"1","orgName":"国网安国市供电公司","typeName":null,"infoStatusName":null,"dateDay":null,"orgNos":null,"nowTime":null,"countyName":null,"streetName":null,"villageName":null,"roadName":null,"communityName":null,"tranName":null,"sdLineName":null,"cityCode":"1340606","cityName":"国网安国市供电公司","provinceCode":null,"stopTime":"2018-06-13 20:40:00","powerType":"全部","powerOffArea":"【全线路停电】停王街农业２台区变压器,东巷农业４台区变压器,石佛综合１７台区","powerOffReason":"【停电原因】由于站内开关跳闸导致３５ＫＶ石佛变电站１０ＫＶ南章５１２线路全线停电 【变更送电】因抢修进度加快原因，送电时间由１４日０９：００变更为１３日２０：４０ 【发布渠道】通过９５５９８发布","powerOffId":"2018061313001729"},{"poweroffId":2018061313001725,"sgpoweroffId":null,"subsName":"","lineName":"10kV流各庄513线","pubTranName":"马庄西南农业2台区变压器【纯农排变】,甄庄东南农业4台区,米庄综合2台区变压器,流各庄东80台区变压器【纯农排变】,流各庄内东综合4,石庄综合1,米庄综合3,米庄东西综合3台区变压器,甄庄内北南综合7,固显农业1台区变压器,固显农业2台区变压器,固显内西综合台区变压器,流各庄综合1台区变压器,流各庄农业7台区变压器【纯农排变】,马庄综合4台区变压器,流各庄内西北综合3,固显农业7台区变压器,马庄内东北综合3,马村综合1台区变压器,保定飞龙联轴器有限公司,米庄综合1台区变压器,固显内东农业5台区变压器,固显内东南综合1台区变压器,马庄综合1台区变压器,甄庄综合3台区变压器,马村内东综合3,甄庄村北农业7台区,固显综合8变压器,固显内西南综合5,流各庄村西农业变压器【纯农排变】,马村农业3台区变压器【纯农排变】,固显内中综合7台区配变,马村农业1台区变压器【纯农排变】,米庄综合4台区变压器,固显保定冶化,固显农业3台区变压器,马庄农业1台区变压器【纯农排变】,甄庄内东综合5,流各庄东东农业8台区变压器【纯农排变】,马村西南农业4台区【纯农排变】,甄庄综合2台区变压器,固显北80台区变压器,固显内西北综合4,甄庄农业2台区变压器,甄庄农业3台区变压器,流各庄农业3台区变压器【纯农排变】,甄庄综合4台区变压器,甄庄村东农业1台区,甄庄农业6台区变压器,河北飞鸿泵业有限公司,马村南南农业2台区变压器【纯农排变】,甄庄综合1台区变压器,甄庄综合8柱上变压器,马庄农业3台区变压器【纯农排变】,马村综合2台区变压器,保定飞龙连轴器厂,固显综合2台区变压器,米庄农业3台区变压器【纯农排变】,流各庄综合5台区变压器,固显农业4台区变压器,石庄农业2台区变压器【纯农排变】,流各庄农业1台区变压器【纯农排变】,石庄农业1台区变压器【纯农排变】,马庄村北农业4,马庄综合2台区变压器,固显村北农业8台区,甄庄内中西综合6,流各庄综合2台区变压器,","scope":"【影响街道/乡镇】西安国城乡 【高危重要客户】无 【影响客户】米庄村、固显村、甄庄村、马庄村、石庄村、东街村","startTime":"2018-06-13 20:21:18","stopDate":"2018-06-13 21:10:00","orgNo":"1340606","typeCode":"电网故障停限电","poweroffArea":"【全线路停电】停固显内西北综合4,流各庄农业3台区变压器【纯农排变】,流各庄内西北综合3,甄庄东南农业4台区,马庄农业1台区变压器【纯农排变】,石庄农业1台区变压器【纯农排变】,米庄农业3台区变压器【纯农排变】,马村西南农业4台区【纯农排变】,石庄农业2台区变压器【纯农排变】,马庄综合1台区变压器,甄庄综合2台区变压器,马庄农业3台区变压器【纯农排变】,甄庄内北南综合7,流各庄内东综合4,米庄综合3,固显内中综合7台区配变,甄庄综合4台区变压器,保定飞龙连轴器厂,流各庄农业1台区变压器【纯农排变】,保定飞龙联轴器有限公司,固显北80台区变压器,流各庄东东农业8台区变压器【纯农排变】,石庄综合1,固显综合2台区变压器,流各庄村西农业变压器【纯农排变】,马庄内东北综合3,固显保定冶化,固显综合8变压器,固显农业4台区变压器,流各庄综合5台区变压器,马村农业3台区变压器【纯农排变】,流各庄综合2台区变压器,流各庄农业7台区变压器【纯农排变】,甄庄农业3台区变压器,米庄综合1台区变压器,米庄综合2台区变压器,固显农业3台区变压器,固显内东南综合1台区变压器,米庄综合4台区变压器,流各庄东80台区变压器【纯农排变】,甄庄农业2台区变压器,甄庄农业6台区变压器,甄庄村东农业1台区,马村综合2台区变压器,马庄综合4台区变压器,流各庄综合1台区变压器,甄庄综合3台区变压器,固显内东农业5台区变压器,马村农业1台区变压器【纯农排变】,马村内东综合3,甄庄综合8柱上变压器,甄庄内中西综合6,固显农业7台区变压器,马庄综合2台区变压器,固显村北农业8台区,固显农业1台区变压器,固显农业2台区变压器,固显内西综合台区变压器,甄庄综合1台区变压器,马村综合1台区变压器,马庄村北农业4,马村南南农业2台区变压器【纯农排变】,米庄东西综合3台区变压器,固显内西南综合5,甄庄村北农业7台区,甄庄内东综合5,马庄西南农业2台区变压器【纯农排变】,河北飞鸿泵业有限公司","poweroffReason":"【停电原因】由于站内开关掉闸导致３５ＫＶ庞各庄变电站１０ＫＶ流各庄５１３线路全线停电 【变更送电】因抢修进度加快原因，送电时间由１４日０９：００变更为１３日２１：１０ 【发布渠道】通过９５５９８发布","powerTime":"2018-06-13 21:04:17","powerComm":"已送电","subsNo":"","lineNo":"","tgNo":"","tgName":null,"infoStatus":"1","orgName":"国网安国市供电公司","typeName":null,"infoStatusName":null,"dateDay":null,"orgNos":null,"nowTime":null,"countyName":null,"streetName":null,"villageName":null,"roadName":null,"communityName":null,"tranName":null,"sdLineName":null,"cityCode":"1340606","cityName":"国网安国市供电公司","provinceCode":null,"stopTime":"2018-06-13 21:10:00","powerType":"全部","powerOffArea":"【全线路停电】停固显内西北综合4,流各庄农业3台区变压器【纯农排变】,流各庄内西北综合3,甄庄东南农业4台区,马庄农业1台区变压器【纯农排变】,石庄农业1台区变压器【纯农排变】,米庄农业3台区变压器【纯农排变】,马村西南农业4台区【纯农排变】,石庄农业2台区变压器【纯农排变】,马庄综合1台区变压器,甄庄综合2台区变压器,马庄农业3台区变压器【纯农排变】,甄庄内北南综合7,流各庄内东综合4,米庄综合3,固显内中综合7台区配变,甄庄综合4台区变压器,保定飞龙连轴器厂,流各庄农业1台区变压器【纯农排变】,保定飞龙联轴器有限公司,固显北80台区变压器,流各庄东东农业8台区变压器【纯农排变】,石庄综合1,固显综合2台区变压器,流各庄村西农业变压器【纯农排变】,马庄内东北综合3,固显保定冶化,固显综合8变压器,固显农业4台区变压器,流各庄综合5台区变压器,马村农业3台区变压器【纯农排变】,流各庄综合2台区变压器,流各庄农业7台区变压器【纯农排变】,甄庄农业3台区变压器,米庄综合1台区变压器,米庄综合2台区变压器,固显农业3台区变压器,固显内东南综合1台区变压器,米庄综合4台区变压器,流各庄东80台区变压器【纯农排变】,甄庄农业2台区变压器,甄庄农业6台区变压器,甄庄村东农业1台区,马村综合2台区变压器,马庄综合4台区变压器,流各庄综合1台区变压器,甄庄综合3台区变压器,固显内东农业5台区变压器,马村农业1台区变压器【纯农排变】,马村内东综合3,甄庄综合8柱上变压器,甄庄内中西综合6,固显农业7台区变压器,马庄综合2台区变压器,固显村北农业8台区,固显农业1台区变压器,固显农业2台区变压器,固显内西综合台区变压器,甄庄综合1台区变压器,马村综合1台区变压器,马庄村北农业4,马村南南农业2台区变压器【纯农排变】,米庄东西综合3台区变压器,固显内西南综合5,甄庄村北农业7台区,甄庄内东综合5,马庄西南农业2台区变压器【纯农排变】,河北飞鸿泵业有限公司","powerOffReason":"【停电原因】由于站内开关掉闸导致３５ＫＶ庞各庄变电站１０ＫＶ流各庄５１３线路全线停电 【变更送电】因抢修进度加快原因，送电时间由１４日０９：００变更为１３日２１：１０ 【发布渠道】通过９５５９８发布","powerOffId":"2018061313001725"},{"poweroffId":2018061313001700,"sgpoweroffId":null,"subsName":"","lineName":"10kV大阳站558线路","pubTranName":"B1896柱上变压器,","scope":"【影响街道/乡镇】红星路 【高危重要客户】无 【影响客户】杨庄乡政府宿舍","startTime":"2018-06-13 20:03:38","stopDate":"2018-06-13 22:00:00","orgNo":"13406","typeCode":"电网故障停限电","poweroffArea":"【单台区停电】停B1896柱上变压器","poweroffReason":"【停电原因】由于低压跌落下引线烧导致１０ＫＶ大阳变电站５５８线路Ｂ１８９６公变台区停电【变更送电】无【发布渠道】通过９５５９８发布","powerTime":"2018-06-13 21:38:08","powerComm":"已送电","subsNo":"","lineNo":"","tgNo":"","tgName":null,"infoStatus":"1","orgName":"保定供电公司","typeName":null,"infoStatusName":null,"dateDay":null,"orgNos":null,"nowTime":null,"countyName":null,"streetName":null,"villageName":null,"roadName":null,"communityName":null,"tranName":null,"sdLineName":null,"cityCode":"13406","cityName":"保定供电公司","provinceCode":null,"stopTime":"2018-06-13 22:00:00","powerType":"全部","powerOffArea":"【单台区停电】停B1896柱上变压器","powerOffReason":"【停电原因】由于低压跌落下引线烧导致１０ＫＶ大阳变电站５５８线路Ｂ１８９６公变台区停电【变更送电】无【发布渠道】通过９５５９８发布","powerOffId":"2018061313001700"},{"poweroffId":2018061313001699,"sgpoweroffId":null,"subsName":"","lineName":"10kV554北城北庄线","pubTranName":"大王村内新增综合0909,北城村北综合9340,大王村北混用2370|27002370,大王二号混用2880|27002880,北城北庄980农业|27000980【纯农排变】,北城北庄2470农业|27002470【纯农排变】,大王2560农排|27002560【纯农排变】,北城村西北混用2620|27002620,北城2400农业|27002400【纯农排变】,顺平县宇桐塑胶有限公司,北庄村东综合7653,北城西庄村西新增综合,北城混用630|27000630,北城2280农业|27002280【纯农排变】,北庄村990农业|27000990【纯农排变】,北城北庄1000农业|27001000【纯农排变】,大王490农排|27000490【纯农排变】,大王2570农排|27002570【纯农排变】,北城西庄1080农业|27001080【纯农排变】,大王村西北新增综合1375,北城村南内综合7665,西庄村混用1010|27001010,北城西庄2520农业|27002520【纯农排变】,北庄村内,北城2420农业|27002420【纯农排变】,北城1950农业|27001950【纯农排变】,北城村东综合9335,北城西庄1070农业|27001070【纯农排变】,558大王新增农业7号2482【纯农排变】,北城2600农业|27002600【纯农排变】,北城大村,北城2440农业|27002440【纯农排变】,北城村东混用2930|27002930,北城910农业|27000910【纯农排变】,北城东小桥综合9339,北城村南东综合7667,北城西庄1060农业|27001060【纯农排变】,北城870农业|27000870【纯农排变】,北城面粉厂,大王村七界新增农业4856【纯农排变】,北城新增综合1369,北城大村喜平混用690|27000690,北城北庄新增综合5472,北城大村王朋,大王村北新增综合1692,北城混用670|27000670,北城920农业|27000920【纯农排变】,北城西庄村新增综合1835,北城大村王福混用680|27000680,北城北庄混用940|27000940,大王吃水工程(综合)8347,大王吃水农业排灌4857【纯农排变】,北城大坝混用2920|27002920,北城北庄混用2900|27002900,北城五辰混用770|27000770,北城西庄新增综合0095,北城村中新增综合5678,北城北庄2290农业|27002290【纯农排变】,北城西庄新架农排【纯农排变】,西庄村混用1020|27001020,北城机站混用800|27000800,北城深井880农业|27000880【纯农排变】,王庆林混用750|27000750,北城北庄2580农业|27002580【纯农排变】,北城北庄混用950|27000950,大王村新增100KVA,北城混用640|27000640,大王2550农排|27002550【纯农排变】,保定市利和高速公路经营有限公司保定服务区,变压器,北城西庄1090农业|27001090【纯农排变】,北城930农业|27000930【纯农排变】,大","scope":"【影响街道/乡镇】高于铺镇【高危重要客户】无【影响客户】北城北庄、北城西庄、北城、北城大村、大王、保阜高速顺平服务区","startTime":"2018-06-13 20:02:57","stopDate":"2018-06-13 22:30:00","orgNo":"1340621","typeCode":"电网故障停限电","poweroffArea":"【全线路停电】停大王村西北新增综合1375,北城1950农业|27001950【纯农排变】,北城西庄新增农业1号（TD）6963【纯农排变】,北城930农业|27000930【纯农排变】,北城北庄2580农业|27002580【纯农排变】,顺平县宇桐塑胶有限公司,北城村东综合9335,北城北庄混用2900|27002900,北城2430农业|27002430【纯农排变】,北城混用630|27000630,大王村混用320|27000320","poweroffReason":"【停电原因】由于西庄木申变压器刀闸烧毁导致１１０ＫＶ王各庄变电站１０ＫＶ５５４北城北庄线路全线停电【变更送电】因抢修进度加快原因，送电时间由２３：３０变更为２２：３０【发布渠道】通过９５５９８发布","powerTime":"2018-06-13 21:50:12","powerComm":"已送电","subsNo":"","lineNo":"","tgNo":"","tgName":null,"infoStatus":"1","orgName":"国网顺平县电力局","typeName":null,"infoStatusName":null,"dateDay":null,"orgNos":null,"nowTime":null,"countyName":null,"streetName":null,"villageName":null,"roadName":null,"communityName":null,"tranName":null,"sdLineName":null,"cityCode":"1340621","cityName":"国网顺平县电力局","provinceCode":null,"stopTime":"2018-06-13 22:30:00","powerType":"全部","powerOffArea":"【全线路停电】停大王村西北新增综合1375,北城1950农业|27001950【纯农排变】,北城西庄新增农业1号（TD）6963【纯农排变】,北城930农业|27000930【纯农排变】,北城北庄2580农业|27002580【纯农排变】,顺平县宇桐塑胶有限公司,北城村东综合9335,北城北庄混用2900|27002900,北城2430农业|27002430【纯农排变】,北城混用630|27000630,大王村混用320|27000320","powerOffReason":"【停电原因】由于西庄木申变压器刀闸烧毁导致１１０ＫＶ王各庄变电站１０ＫＶ５５４北城北庄线路全线停电【变更送电】因抢修进度加快原因，送电时间由２３：３０变更为２２：３０【发布渠道】通过９５５９８发布","powerOffId":"2018061313001699"},{"poweroffId":2018061313001657,"sgpoweroffId":null,"subsName":"","lineName":"10kV南呈511线","pubTranName":"北呈西西综合3,郑各庄大方中农业1号,北呈内西综合2,郑各庄综合7,郑各庄大方西农业9号,郑各庄大方东农业2台区变压器,北呈综合4台区,","scope":"【影响街道/乡镇】庞各庄乡 【高危重要客户】无 【影响客户】南呈村、北呈村、郑各庄村、东叩村、西叩村、流各庄村","startTime":"2018-06-13 19:28:52","stopDate":"2018-06-13 21:00:00","orgNo":"1340606","typeCode":"电网故障停限电","poweroffArea":"【全线路停电】停郑各庄综合7,郑各庄大方中农业1号,郑各庄大方东农业2台区变压器,北呈西西综合3,北呈内西综合2,郑各庄大方西农业9号,北呈综合4台区","poweroffReason":"【停电原因】由于站内开关掉闸导致３５ＫＶ庞各庄变电站１０ＫＶ南呈５１１线路全线停电 【变更送电】因抢修进度加快原因，送电时间由１４日０９：００变更为１３日２１：００ 【发布渠道】通过９５５９８发布","powerTime":"2018-06-13 20:52:39","powerComm":"已送电","subsNo":"","lineNo":"","tgNo":"","tgName":null,"infoStatus":"1","orgName":"国网安国市供电公司","typeName":null,"infoStatusName":null,"dateDay":null,"orgNos":null,"nowTime":null,"countyName":null,"streetName":null,"villageName":null,"roadName":null,"communityName":null,"tranName":null,"sdLineName":null,"cityCode":"1340606","cityName":"国网安国市供电公司","provinceCode":null,"stopTime":"2018-06-13 21:00:00","powerType":"全部","powerOffArea":"【全线路停电】停郑各庄综合7,郑各庄大方中农业1号,郑各庄大方东农业2台区变压器,北呈西西综合3,北呈内西综合2,郑各庄大方西农业9号,北呈综合4台区","powerOffReason":"【停电原因】由于站内开关掉闸导致３５ＫＶ庞各庄变电站１０ＫＶ南呈５１１线路全线停电 【变更送电】因抢修进度加快原因，送电时间由１４日０９：００变更为１３日２１：００ 【发布渠道】通过９５５９８发布","powerOffId":"2018061313001657"}],"pageModel":{"pageNow":989,"totalCount":10973,"totalPage":1098,"tableRows":0,"pageCount":10,"beginCount":9880},"isExperi":"1"}