{"message":"","today":"2020-06-15","seleList":[{"poweroffId":2020051013000037,"sgpoweroffId":null,"subsName":"","lineName":"10KV满金峪线573","pubTranName":"板城北台区,王家碾南台区,满金峪落宝滩,山后北台区,满金峪村内,板城南上坎台区,石亭北2台区,北庄西北台区,","scope":"【影响街道/乡镇】石亭镇 【高危重要客户】无 【影响客户】石亭村、板城村、王家碾村、山后村、北庄村、满金峪村、许家磨河西村、落宝滩村","startTime":"2020-05-10 07:44:56","stopDate":"2020-05-10 09:00:00","orgNo":"1340614","typeCode":"电网故障停限电","poweroffArea":"【全线路停电】停１１０ＫＶ石亭变电站１０ＫＶ满金峪线５７３线路全线，石亭北2台区,北庄西北台区,板城北台区,王家碾南台区,满金峪落宝滩,山后北台区,满金峪村内,板城南上坎台区","poweroffReason":"【停电原因】由于过流跳闸导致１１０ＫＶ石亭变电站１０ＫＶ满金峪线５７３线路全线停电 【变更送电】因抢修进度加快原因，送电时间由１２：００变更为０９：００ 【发布渠道】通过９５５９８发布","powerTime":"2020-05-10 08:32:44","powerComm":"已送电","subsNo":"","lineNo":"","tgNo":"","tgName":null,"infoStatus":"1","orgName":"国网涞水县供电公司","typeName":null,"infoStatusName":null,"dateDay":null,"orgNos":null,"nowTime":null,"countyName":null,"streetName":null,"villageName":null,"roadName":null,"communityName":null,"tranName":null,"sdLineName":null,"cityCode":"1340614","cityName":"国网涞水县供电公司","provinceCode":null,"stopTime":"2020-05-10 09:00:00","powerType":"全部","powerOffArea":"【全线路停电】停１１０ＫＶ石亭变电站１０ＫＶ满金峪线５７３线路全线，石亭北2台区,北庄西北台区,板城北台区,王家碾南台区,满金峪落宝滩,山后北台区,满金峪村内,板城南上坎台区","powerOffReason":"【停电原因】由于过流跳闸导致１１０ＫＶ石亭变电站１０ＫＶ满金峪线５７３线路全线停电 【变更送电】因抢修进度加快原因，送电时间由１２：００变更为０９：００ 【发布渠道】通过９５５９８发布","powerOffId":"2020051013000037"},{"poweroffId":2020051013000024,"sgpoweroffId":null,"subsName":"","lineName":"10kV521武装部线","pubTranName":"总司屯(006):照明2台区,总司屯公用照明5台区,中国建筑土木建设有限公司,总司屯公用照明16台区,市场社变公用照明2台区,总司屯公用照明14台区,西里元公用农业8台区【纯农排变】,西里元公用农业9台区【纯农排变】,河北省高速公路京石段定州北收费站变压器,定州利民蔬菜保鲜厂,总司屯(006):照明1台区,0693437523中标,总司屯公用照明9台区,武装部新,总司屯公用照明13台区,西里元(027):农业1台区【纯农排变】,定州九州蔬菜冷库,高头公用农业6台区【纯农排变】,中国移动通信集团河北有限公司定州分公司,总司屯公用照明15台区,宏英家具厂,总司屯公用照明7台区,东里元公用农业9台区【纯农排变】,西里元公用照明9台区,北门街公用照明11台区,河北海慧房地产开发有限公司变压器,西里元公用照明14台区,总司屯公用照明10台区,西里元公用照明10台区,定州市中标节能技术服务有限公司变压器,总司屯公用照明8台区,民兵训练基地,","scope":"【影响街道/乡镇】北城区【影响客户】西里元、总司屯、高速收费站、武装部、北门街市场社变村、北门街、消防队","startTime":"2020-05-10 07:24:44","stopDate":"2020-05-10 09:00:00","orgNo":"1340610","typeCode":"电网故障停限电","poweroffArea":"【全线路停电】停１１０ＫＶ总司屯变电站１０ＫＶ５２１武装部线路全线，西里元公用农业9台区【纯农排变】,河北省高速公路京石段定州北收费站变压器,定州利民蔬菜保鲜厂,总司屯(006):照明1台区,0693437523中标,总司屯公用照明7台区,东里元公用农业9台区【纯农排变】,西里元公用照明9台区,北门街公用照明11台区,武装部新,总司屯公用照明13台区,西里元(027):农业1台区【纯农排变】,定州九州蔬菜冷库,高头公用农业6台区【纯农排变】,中国移动通信集团河北有限公司定州分公司,宏英家具厂,总司屯公用照明15台区,总司屯公用照明5台区,中国建筑土木建设有限公司,西里元公用农业8台区【纯农排变】,总司屯(006):照明2台区,总司屯公用照明16台区,市场社变公用照明2台区,总司屯公用照明14台区,定州市中标节能技术服务有限公司变压器,河北海慧房地产开发有限公司变压器,西里元公用照明14台区,总司屯公用照明10台区,西里元公用照明10台区,总司屯公用照明8台区,民兵训练基地,总司屯公用照明9台区","poweroffReason":"【停电原因】由于线路开关掉闸导致１１０ＫＶ总司屯变电站１０ＫＶ５２１武装部线路全线停电 【变更送电】因抢修进度加快原因，送电时间由２０：００变更为０９：００ 【发布渠道】９５５９８","powerTime":"2020-05-10 08:41:16","powerComm":"已送电","subsNo":"","lineNo":"","tgNo":"","tgName":null,"infoStatus":"1","orgName":"国网定州市供电公司","typeName":null,"infoStatusName":null,"dateDay":null,"orgNos":null,"nowTime":null,"countyName":null,"streetName":null,"villageName":null,"roadName":null,"communityName":null,"tranName":null,"sdLineName":null,"cityCode":"1340610","cityName":"国网定州市供电公司","provinceCode":null,"stopTime":"2020-05-10 09:00:00","powerType":"全部","powerOffArea":"【全线路停电】停１１０ＫＶ总司屯变电站１０ＫＶ５２１武装部线路全线，西里元公用农业9台区【纯农排变】,河北省高速公路京石段定州北收费站变压器,定州利民蔬菜保鲜厂,总司屯(006):照明1台区,0693437523中标,总司屯公用照明7台区,东里元公用农业9台区【纯农排变】,西里元公用照明9台区,北门街公用照明11台区,武装部新,总司屯公用照明13台区,西里元(027):农业1台区【纯农排变】,定州九州蔬菜冷库,高头公用农业6台区【纯农排变】,中国移动通信集团河北有限公司定州分公司,宏英家具厂,总司屯公用照明15台区,总司屯公用照明5台区,中国建筑土木建设有限公司,西里元公用农业8台区【纯农排变】,总司屯(006):照明2台区,总司屯公用照明16台区,市场社变公用照明2台区,总司屯公用照明14台区,定州市中标节能技术服务有限公司变压器,河北海慧房地产开发有限公司变压器,西里元公用照明14台区,总司屯公用照明10台区,西里元公用照明10台区,总司屯公用照明8台区,民兵训练基地,总司屯公用照明9台区","powerOffReason":"【停电原因】由于线路开关掉闸导致１１０ＫＶ总司屯变电站１０ＫＶ５２１武装部线路全线停电 【变更送电】因抢修进度加快原因，送电时间由２０：００变更为０９：００ 【发布渠道】９５５９８","powerOffId":"2020051013000024"},{"poweroffId":2020051013000022,"sgpoweroffId":null,"subsName":"","lineName":"10kV519新一中线","pubTranName":"东门街(015):公用照明11台区,西里元照明5台区,西里元(027):照明2台区,高头公用照明6台区,总司屯公用照明12台区,东门街公用照明12台区,西里元公用照明12台区,西里元(027):照明3台区,西里元公用照明6台区,高头公变照明7台区,西里元照明4台区,北门街(009):照明2台区,西里元(027):照明1台区,东门街照明13台区,高头公用照明8台区,西里元公用照明13台区,高头(007):照明1台区,新立街(008):照明3台区,西里元公用照明11台区,","scope":"【影响街道/乡镇】北门街、东门街、新立街、北城区【影响客户】东关、西里元、高头、大酒店","startTime":"2020-05-10 07:20:48","stopDate":"2020-05-10 09:00:00","orgNo":"1340610","typeCode":"电网故障停限电","poweroffArea":"【全线路停电】停１１０ＫＶ总司屯变电站１０ＫＶ５１９新一中线路全线，西里元公用照明6台区,定州市星光印务有限公司,定州市8640部队医院,定州市市容环境卫生管理处,北门街(009):照明2台区,西里元(027):照明1台区,河北通达天元房地产开发有限公司,东门街照明13台区,定州市金泰工业配件有限公司,高头公变照明7台区,西里元照明4台区,高头公用照明8台区,河北文博房地产开发有限公司变压器1,西里元(027):照明2台区,高头(007):照明1台区,定州市住房和城乡建设局变压器,东门街(015):公用照明11台区,0650075683-河北文博房地产开发有限公司 水墨林居-专变-174505568-河北文博房地产开发有限公司变压器2,西里元公用照明13台区,河北万兴混凝土有限公司变压器,新立街(008):照明3台区,西里元照明5台区,高头(007):农业2台区【纯农排变】,西里元公用农业7台区【纯农排变】,高头公用照明6台区,西里元村拔丝厂,河北通达天元房地产开发有限公司变压器,0658892226-定州市广兴机械零部件有限公司-专变-192910976-定州市广兴机械零部件有限公司变压器,定州市北门农产品经纪人服务,总司屯公用照明12台区,0637332941-定州市中标节能技术服务有限公司-专变-148530302-定州市住房和城乡建设局变压器,西里元公用照明8台区,贵宾楼,高头(007):农业4台区【纯农排变】,东门街公用照明12台区,西里元公用照明11台区,工艺美术厂,西里元公用照明12台区,东关(001):农业5台区【纯农排变】,新立街(008):农业2台区【纯农排变】,东关(001):农业4台区【纯农排变】,西里元公用农业4台区【纯农排变】,西里元(027):照明3台区,高头(007):农业3台区【纯农排变】,西里元(027):农业3台区【纯农排变】","poweroffReason":"【停电原因】由于线路开关掉闸导致１１０ＫＶ总司屯变电站１０ＫＶ５１９新一中线路全线停电 【变更送电】因抢修进度加快原因，送电时间由２０：００变更为０９：００ 【发布渠道】９５５９８","powerTime":"2020-05-10 08:41:38","powerComm":"已送电","subsNo":"","lineNo":"","tgNo":"","tgName":null,"infoStatus":"1","orgName":"国网定州市供电公司","typeName":null,"infoStatusName":null,"dateDay":null,"orgNos":null,"nowTime":null,"countyName":null,"streetName":null,"villageName":null,"roadName":null,"communityName":null,"tranName":null,"sdLineName":null,"cityCode":"1340610","cityName":"国网定州市供电公司","provinceCode":null,"stopTime":"2020-05-10 09:00:00","powerType":"全部","powerOffArea":"【全线路停电】停１１０ＫＶ总司屯变电站１０ＫＶ５１９新一中线路全线，西里元公用照明6台区,定州市星光印务有限公司,定州市8640部队医院,定州市市容环境卫生管理处,北门街(009):照明2台区,西里元(027):照明1台区,河北通达天元房地产开发有限公司,东门街照明13台区,定州市金泰工业配件有限公司,高头公变照明7台区,西里元照明4台区,高头公用照明8台区,河北文博房地产开发有限公司变压器1,西里元(027):照明2台区,高头(007):照明1台区,定州市住房和城乡建设局变压器,东门街(015):公用照明11台区,0650075683-河北文博房地产开发有限公司 水墨林居-专变-174505568-河北文博房地产开发有限公司变压器2,西里元公用照明13台区,河北万兴混凝土有限公司变压器,新立街(008):照明3台区,西里元照明5台区,高头(007):农业2台区【纯农排变】,西里元公用农业7台区【纯农排变】,高头公用照明6台区,西里元村拔丝厂,河北通达天元房地产开发有限公司变压器,0658892226-定州市广兴机械零部件有限公司-专变-192910976-定州市广兴机械零部件有限公司变压器,定州市北门农产品经纪人服务,总司屯公用照明12台区,0637332941-定州市中标节能技术服务有限公司-专变-148530302-定州市住房和城乡建设局变压器,西里元公用照明8台区,贵宾楼,高头(007):农业4台区【纯农排变】,东门街公用照明12台区,西里元公用照明11台区,工艺美术厂,西里元公用照明12台区,东关(001):农业5台区【纯农排变】,新立街(008):农业2台区【纯农排变】,东关(001):农业4台区【纯农排变】,西里元公用农业4台区【纯农排变】,西里元(027):照明3台区,高头(007):农业3台区【纯农排变】,西里元(027):农业3台区【纯农排变】","powerOffReason":"【停电原因】由于线路开关掉闸导致１１０ＫＶ总司屯变电站１０ＫＶ５１９新一中线路全线停电 【变更送电】因抢修进度加快原因，送电时间由２０：００变更为０９：００ 【发布渠道】９５５９８","powerOffId":"2020051013000022"},{"poweroffId":2020051013000016,"sgpoweroffId":null,"subsName":"","lineName":"10KV十八局524","pubTranName":"林子头村南0076柱变【纯农排变】,","scope":"【影响街道/乡镇】东仙坡镇 【影响客户】林子头村","startTime":"2020-05-10 06:43:07","stopDate":"2020-05-10 08:00:00","orgNo":"1340626","typeCode":"电网故障停限电","poweroffArea":"【单台区停电】停１１０ＫＶ下胡良变电站１０ＫＶ十八局５２４线路林子头村南００７６公变台区，林子头村南0076柱变【纯农排变】","poweroffReason":"【停电原因】由于低压空开烧毁导致１１０ＫＶ下胡良变电站１０ＫＶ十八局５２４线路林子头村南００７６公变台区停电 【变更送电】因抢修进度加快原因，送电时间由１４：００变更为０８：００ 【发布渠道】通过９５５９８发布","powerTime":"2020-05-10 07:52:07","powerComm":"恢复送电","subsNo":"","lineNo":"","tgNo":"","tgName":null,"infoStatus":"1","orgName":"国网涿州市供电公司","typeName":null,"infoStatusName":null,"dateDay":null,"orgNos":null,"nowTime":null,"countyName":null,"streetName":null,"villageName":null,"roadName":null,"communityName":null,"tranName":null,"sdLineName":null,"cityCode":"1340626","cityName":"国网涿州市供电公司","provinceCode":null,"stopTime":"2020-05-10 08:00:00","powerType":"全部","powerOffArea":"【单台区停电】停１１０ＫＶ下胡良变电站１０ＫＶ十八局５２４线路林子头村南００７６公变台区，林子头村南0076柱变【纯农排变】","powerOffReason":"【停电原因】由于低压空开烧毁导致１１０ＫＶ下胡良变电站１０ＫＶ十八局５２４线路林子头村南００７６公变台区停电 【变更送电】因抢修进度加快原因，送电时间由１４：００变更为０８：００ 【发布渠道】通过９５５９８发布","powerOffId":"2020051013000016"},{"poweroffId":2020051013000014,"sgpoweroffId":null,"subsName":"","lineName":"10KV辛庄头512","pubTranName":"同心街村内,杨家台村内台区,东王庄村西,辛庄头北台区,代庄新东台区,王村南台区,沈家台西南台区,东十里铺村内,城内大桥东变压器,","scope":"【影响街道/乡镇】王村镇 【高危重要客户】无 【影响客户】王村、孔村、东王庄村、赵各庄村、辛庄头村、同心街村、代庄村、东十里铺村、杨家台村、沈家台村、城内大桥附近北关用户","startTime":"2020-05-10 05:24:36","stopDate":"2020-05-10 07:40:00","orgNo":"1340614","typeCode":"电网故障停限电","poweroffArea":"【全线路停电】停３５ＫＶ王村变电站１０ＫＶ辛庄头５１２线路全线，同心街村内,杨家台村内台区,孔村村北,东王庄村西,辛庄头北台区,代庄新东台区,王村南台区,沈家台西南台区,东十里铺村内,城内大桥东变压器","poweroffReason":"【停电原因】由于速断跳闸导致３５ＫＶ王村变电站１０ＫＶ辛庄头５１２线路全线停电 【变更送电】因抢修进度加快原因，送电时间由０９：３０变更为０７：４０ 【发布渠道】通过９５５９８发布","powerTime":"2020-05-10 07:22:02","powerComm":"已送电","subsNo":"","lineNo":"","tgNo":"","tgName":null,"infoStatus":"1","orgName":"国网涞水县供电公司","typeName":null,"infoStatusName":null,"dateDay":null,"orgNos":null,"nowTime":null,"countyName":null,"streetName":null,"villageName":null,"roadName":null,"communityName":null,"tranName":null,"sdLineName":null,"cityCode":"1340614","cityName":"国网涞水县供电公司","provinceCode":null,"stopTime":"2020-05-10 07:40:00","powerType":"全部","powerOffArea":"【全线路停电】停３５ＫＶ王村变电站１０ＫＶ辛庄头５１２线路全线，同心街村内,杨家台村内台区,孔村村北,东王庄村西,辛庄头北台区,代庄新东台区,王村南台区,沈家台西南台区,东十里铺村内,城内大桥东变压器","powerOffReason":"【停电原因】由于速断跳闸导致３５ＫＶ王村变电站１０ＫＶ辛庄头５１２线路全线停电 【变更送电】因抢修进度加快原因，送电时间由０９：３０变更为０７：４０ 【发布渠道】通过９５５９８发布","powerOffId":"2020051013000014"},{"poweroffId":2020050921000080,"sgpoweroffId":null,"subsName":"","lineName":"10kV利民路站524线路","pubTranName":"C058柱上变压器,10kVC482配电室C482配电变压器,10kVH0020.H0021配电室H0021配电变压器,10kVH0020.H0021配电室H0020配电变压器,10kVC480配电室C480配电变压器,C400柱上变压器,C3015柱上变压器,10kVB1581配电室B1581配电变压器,C056柱上变压器,C057柱上变压器,C3014柱上变压器,10kVC481配电室C481配电变压器,","scope":"【影响街道/乡镇】南市区、南二环、五尧乡、清真寺后街 【高危重要客户】无 【影响客户】安庄村、宁苑小区、尧和宁苑、东五尧村、先锋厂、都市桃源、东五尧小学、四方种植场、博创城市建设有限公司、铝塑门窗、晶华玻璃厂、诚信法兰铸造、大唐电厂、南方动力、食品厂、天香、集联建筑、安庄砖厂","startTime":"2020-05-24 06:00:00","stopDate":"2020-05-24 18:00:00","orgNo":"13406","typeCode":"计划停电","poweroffArea":"【分支停电】停C057柱上变压器,10kVC481配电室C481配电变压器,0736349347-博创城市建设开发有限公司-变压器-900026438896,C058柱上变压器,0702487576-博创城市建设开发有限公司-柱上变5,0702487576-博创城市建设开发有限公司-柱上变6,0702487576-博创城市建设开发有限公司-柱上变4,0702487576-博创城市建设开发有限公司-柱上变3,10kVC482配电室C482配电变压器,10kVH0020.H0021配电室H0021配电变压器,10kVH0020.H0021配电室H0020配电变压器,0590607261-大唐清苑热电有限公司-1-箱式变-变压器-2,0356337081-东五尧村委会-专变,10kVC480配电室C480配电变压器,C400柱上变压器,C3015柱上变压器,0583308236-保定市南市区五尧乡东五尧村-专变,10kVB1581配电室B1581配电变压器,0702487576-博创城市建设开发有限公司-柱上变2,0702487576-博创城市建设开发有限公司-柱上变1,C056柱上变压器,0736349347-博创城市建设开发有限公司-变压器-900026438905,0356465632-保定市南市区四方种植厂-专变,C3014柱上变压器,0356171704-东五尧-专变,0736349347-博创城市建设开发有限公司-变压器-900026438910,0736349347-博创城市建设开发有限公司-变压器-900026435668","poweroffReason":"【停电原因】由于供电设备临时检修导致１０ＫＶ利民路变电站５２４线路１３０号杆南分支上引以下停电【变更送电】无【发布渠道】保定市保定有限电视台（５月２２日２０时１５分至２１时４５分之间）屏幕上滚动","powerTime":"2020-05-24 17:32:22","powerComm":"已送电","subsNo":"","lineNo":"","tgNo":"","tgName":null,"infoStatus":"1","orgName":"保定供电公司","typeName":null,"infoStatusName":null,"dateDay":null,"orgNos":null,"nowTime":null,"countyName":null,"streetName":null,"villageName":null,"roadName":null,"communityName":null,"tranName":null,"sdLineName":null,"cityCode":"13406","cityName":"保定供电公司","provinceCode":null,"stopTime":"2020-05-24 18:00:00","powerType":"全部","powerOffArea":"【分支停电】停C057柱上变压器,10kVC481配电室C481配电变压器,0736349347-博创城市建设开发有限公司-变压器-900026438896,C058柱上变压器,0702487576-博创城市建设开发有限公司-柱上变5,0702487576-博创城市建设开发有限公司-柱上变6,0702487576-博创城市建设开发有限公司-柱上变4,0702487576-博创城市建设开发有限公司-柱上变3,10kVC482配电室C482配电变压器,10kVH0020.H0021配电室H0021配电变压器,10kVH0020.H0021配电室H0020配电变压器,0590607261-大唐清苑热电有限公司-1-箱式变-变压器-2,0356337081-东五尧村委会-专变,10kVC480配电室C480配电变压器,C400柱上变压器,C3015柱上变压器,0583308236-保定市南市区五尧乡东五尧村-专变,10kVB1581配电室B1581配电变压器,0702487576-博创城市建设开发有限公司-柱上变2,0702487576-博创城市建设开发有限公司-柱上变1,C056柱上变压器,0736349347-博创城市建设开发有限公司-变压器-900026438905,0356465632-保定市南市区四方种植厂-专变,C3014柱上变压器,0356171704-东五尧-专变,0736349347-博创城市建设开发有限公司-变压器-900026438910,0736349347-博创城市建设开发有限公司-变压器-900026435668","powerOffReason":"【停电原因】由于供电设备临时检修导致１０ＫＶ利民路变电站５２４线路１３０号杆南分支上引以下停电【变更送电】无【发布渠道】保定市保定有限电视台（５月２２日２０时１５分至２１时４５分之间）屏幕上滚动","powerOffId":"2020050921000080"},{"poweroffId":2020050921000077,"sgpoweroffId":null,"subsName":"","lineName":"10kV利民路站563线路","pubTranName":"C002柱上变压器,","scope":"【影响街道/乡镇】莲池区、五尧乡 【高危重要客户】无 【影响客户】西小庄","startTime":"2020-05-24 07:30:00","stopDate":"2020-05-24 11:40:00","orgNo":"13406","typeCode":"计划停电","poweroffArea":"【单台区停电】停C002柱上变压器","poweroffReason":"【停电原因】由于供电设备临时检修导致１０ＫＶ利民路变电站５６３线路Ｃ００２公变台区停电【变更送电】因抢修进度加快，原定１４:３０送电现计划１１:４０送电【发布渠道】保定市保定有限电视台（５月２２日２０时１５分至２１时４５分之间）屏幕上滚动","powerTime":"2020-05-24 11:27:49","powerComm":"已送电","subsNo":"","lineNo":"","tgNo":"","tgName":null,"infoStatus":"1","orgName":"保定供电公司","typeName":null,"infoStatusName":null,"dateDay":null,"orgNos":null,"nowTime":null,"countyName":null,"streetName":null,"villageName":null,"roadName":null,"communityName":null,"tranName":null,"sdLineName":null,"cityCode":"13406","cityName":"保定供电公司","provinceCode":null,"stopTime":"2020-05-24 11:40:00","powerType":"全部","powerOffArea":"【单台区停电】停C002柱上变压器","powerOffReason":"【停电原因】由于供电设备临时检修导致１０ＫＶ利民路变电站５６３线路Ｃ００２公变台区停电【变更送电】因抢修进度加快，原定１４:３０送电现计划１１:４０送电【发布渠道】保定市保定有限电视台（５月２２日２０时１５分至２１时４５分之间）屏幕上滚动","powerOffId":"2020050921000077"},{"poweroffId":2020050913000411,"sgpoweroffId":null,"subsName":"","lineName":"尚品530","pubTranName":"高碑店市城市管理综合执法局世纪大道3号,高碑店市威盾电子设备有限公司,高碑店市昆仑房地产开发有限公司04,河北元和房地产开发有限公司4#变压器,河北鼎誉房地产开发有限公司变压器,河北元和房地产开发有限公司3#变压器,高碑店市昆仑房地产开发有限公司1#变压器,高碑店市久筑物业服务有限公司2变压器,植物园,高碑店市昆仑房地产开发有限公司03,高碑店市东盛办事处高镇中心学校变压器,奥润顺达窗业公司西,河北元和房地产开发有限公司2#变压器,0712249751-河北尚轩房地产开发有限公司02,保定顺和房地产开发有限公司（西）变压器02,0710603951-高碑店市路灯管理办公室01,河北元和房地产开发有限公司1#变压器,好妈妈商业股份有限公司变压器400,高碑店市昆仑房地产开发有限公司6#变压器,高碑店市昆仑房地产开发有限公司3#变压器,河北元和房地产开发有限公司5#变压器,高碑店市荣悦昌纸制品制造有限公司变压器,高碑店市昆仑房地产开发有限公司2#变压器,高碑店市昆仑房地产开发有限公司4#变压器,保定顺和房地产开发有限公司（西）变压器01,0721091497-河北尚轩房地产开发有限公司02,河北元和房地产开发有限公司6#变压器,0691031521-高碑店市普惠健康体检有限公司-专变-234122772-高碑店市普惠健康体检有限公司,0712249751-河北尚轩房地产开发有限公司01,0712249751-河北尚轩房地产开发有限公司03,高碑店市昆仑房地产开发有限公司02,高碑店市昆仑房地产开发有限公司01,0712247973-河北尚轩房地产开发有限公司01,娃哈哈增容工程,高碑店市久筑物业服务有限公司1变压器,","scope":"【影响街道/乡镇】东盛办事处 【高危重要客户】无 【影响客户】尚轩房地产、昆仑房地产、润正房地产、人和物业、高镇中心学校、元和房地产","startTime":"2020-05-09 23:00:00","stopDate":"2020-05-10 01:00:00","orgNo":"1340612","typeCode":"电网故障停限电","poweroffArea":"【全线路停电】停高碑店市威盾电子设备有限公司,高碑店市昆仑房地产开发有限公司04,河北元和房地产开发有限公司4#变压器,河北鼎誉房地产开发有限公司变压器,河北元和房地产开发有限公司3#变压器,高碑店市东盛办事处高镇中心学校变压器,奥润顺达窗业公司西,河北元和房地产开发有限公司2#变压器,0712249751-河北尚轩房地产开发有限公司02,保定顺和房地产开发有限公司（西）变压器02,0710603951-高碑店市路灯管理办公室01,河北元和房地产开发有限公司1#变压器,好妈妈商业股份有限公司变压器400,高碑店市昆仑房地产开发有限公司6#变压器,高碑店市昆仑房地产开发有限公司3#变压器,河北元和房地产开发有限公司5#变压器,高碑店市荣悦昌纸制品制造有限公司变压器,高碑店市昆仑房地产开发有限公司2#变压器,高碑店市昆仑房地产开发有限公司4#变压器,保定顺和房地产开发有限公司（西）变压器01,0721091497-河北尚轩房地产开发有限公司02,河北元和房地产开发有限公司6#变压器,0691031521-高碑店市普惠健康体检有限公司-专变-234122772-高碑店市普惠健康体检有限公司,0712249751-河北尚轩房地产开发有限公司01,高碑店市城市管理综合执法局世纪大道3号,高碑店市昆仑房地产开发有限公司1#变压器,高碑店市久筑物业服务有限公司2变压器,植物园,高碑店市昆仑房地产开发有限公司03,0712249751-河北尚轩房地产开发有限公司03,高碑店市昆仑房地产开发有限公司02,高碑店市昆仑房地产开发有限公司01,0712247973-河北尚轩房地产开发有限公司01,娃哈哈增容工程,高碑店市久筑物业服务有限公司1变压器","poweroffReason":"【停电原因】由于电缆烧毁导致１１０ＫＶ马庄变电站１０ＫＶ尚品５３０线路全线停电 【变更送电】无 【发布渠道】通过９５５９８发布","powerTime":"2020-05-10 00:28:47","powerComm":"已送电","subsNo":"","lineNo":"","tgNo":"","tgName":null,"infoStatus":"1","orgName":"国网高碑店市供电公司","typeName":null,"infoStatusName":null,"dateDay":null,"orgNos":null,"nowTime":null,"countyName":null,"streetName":null,"villageName":null,"roadName":null,"communityName":null,"tranName":null,"sdLineName":null,"cityCode":"1340612","cityName":"国网高碑店市供电公司","provinceCode":null,"stopTime":"2020-05-10 01:00:00","powerType":"全部","powerOffArea":"【全线路停电】停高碑店市威盾电子设备有限公司,高碑店市昆仑房地产开发有限公司04,河北元和房地产开发有限公司4#变压器,河北鼎誉房地产开发有限公司变压器,河北元和房地产开发有限公司3#变压器,高碑店市东盛办事处高镇中心学校变压器,奥润顺达窗业公司西,河北元和房地产开发有限公司2#变压器,0712249751-河北尚轩房地产开发有限公司02,保定顺和房地产开发有限公司（西）变压器02,0710603951-高碑店市路灯管理办公室01,河北元和房地产开发有限公司1#变压器,好妈妈商业股份有限公司变压器400,高碑店市昆仑房地产开发有限公司6#变压器,高碑店市昆仑房地产开发有限公司3#变压器,河北元和房地产开发有限公司5#变压器,高碑店市荣悦昌纸制品制造有限公司变压器,高碑店市昆仑房地产开发有限公司2#变压器,高碑店市昆仑房地产开发有限公司4#变压器,保定顺和房地产开发有限公司（西）变压器01,0721091497-河北尚轩房地产开发有限公司02,河北元和房地产开发有限公司6#变压器,0691031521-高碑店市普惠健康体检有限公司-专变-234122772-高碑店市普惠健康体检有限公司,0712249751-河北尚轩房地产开发有限公司01,高碑店市城市管理综合执法局世纪大道3号,高碑店市昆仑房地产开发有限公司1#变压器,高碑店市久筑物业服务有限公司2变压器,植物园,高碑店市昆仑房地产开发有限公司03,0712249751-河北尚轩房地产开发有限公司03,高碑店市昆仑房地产开发有限公司02,高碑店市昆仑房地产开发有限公司01,0712247973-河北尚轩房地产开发有限公司01,娃哈哈增容工程,高碑店市久筑物业服务有限公司1变压器","powerOffReason":"【停电原因】由于电缆烧毁导致１１０ＫＶ马庄变电站１０ＫＶ尚品５３０线路全线停电 【变更送电】无 【发布渠道】通过９５５９８发布","powerOffId":"2020050913000411"},{"poweroffId":2020050913000398,"sgpoweroffId":null,"subsName":"","lineName":"西王庄线521","pubTranName":"西王庄村南综合65,西王庄村南综合,安庄村西新增综合,西王庄村西综合24,高阳县宏柱冲压件厂变压器,中国移动通信集团河北有限公司高阳分公司,西王庄孙永跃,西王庄眼镜厂,西王庄毛纺厂,王庄钢厂(子),西王庄孙永和,石文利,广汇纺织印染公司,食用菌种殖厂,","scope":"【影响街道/乡镇】西演镇、庞口镇 【高危重要客户】无 【影响客户】西王庄村南、姜齐庄村北","startTime":"2020-05-10 14:22:31","stopDate":"2020-05-10 17:30:00","orgNo":"1340613","typeCode":"电网故障停限电","poweroffArea":"【分支停电】停西王庄村南综合65,西王庄村南综合,安庄村西新增综合,西王庄村西综合24,高阳县宏柱冲压件厂变压器,中国移动通信集团河北有限公司高阳分公司,西王庄孙永跃,西王庄眼镜厂,西王庄毛纺厂,王庄钢厂(子),西王庄孙永和,石文利,广汇纺织印染公司,食用菌种殖厂","poweroffReason":"【停电原因】由于外力破坏导致１１０ＫＶ西演变电站西王庄５２１线路主线１２７号杆１２７号开关以下停电【变更送电】无【发布渠道】通过９５５９８发布","powerTime":"2020-05-10 17:03:09","powerComm":"已送电","subsNo":"","lineNo":"","tgNo":"","tgName":null,"infoStatus":"1","orgName":"国网高阳县供电公司","typeName":null,"infoStatusName":null,"dateDay":null,"orgNos":null,"nowTime":null,"countyName":null,"streetName":null,"villageName":null,"roadName":null,"communityName":null,"tranName":null,"sdLineName":null,"cityCode":"1340613","cityName":"国网高阳县供电公司","provinceCode":null,"stopTime":"2020-05-10 17:30:00","powerType":"全部","powerOffArea":"【分支停电】停西王庄村南综合65,西王庄村南综合,安庄村西新增综合,西王庄村西综合24,高阳县宏柱冲压件厂变压器,中国移动通信集团河北有限公司高阳分公司,西王庄孙永跃,西王庄眼镜厂,西王庄毛纺厂,王庄钢厂(子),西王庄孙永和,石文利,广汇纺织印染公司,食用菌种殖厂","powerOffReason":"【停电原因】由于外力破坏导致１１０ＫＶ西演变电站西王庄５２１线路主线１２７号杆１２７号开关以下停电【变更送电】无【发布渠道】通过９５５９８发布","powerOffId":"2020050913000398"},{"poweroffId":2020050913000274,"sgpoweroffId":null,"subsName":"","lineName":"西村538","pubTranName":"下紫口8号,大册营新增（统管）,西村二号,苏庄6号,","scope":"【影响街道/乡镇】大册营镇 【影响客户】西村、下子（紫）口、永南庄、苏庄","startTime":"2020-05-18 06:00:00","stopDate":"2020-05-18 18:00:00","orgNo":"1340617","typeCode":"计划停电","poweroffArea":"【全线路停电】停１１０ＫＶ夜借变电站西村５３８线路全线下紫口8号,大册营新增（统管）,西村二号,苏庄6号","poweroffReason":"【停电原因】由于线路检修导致１１０ＫＶ夜借变电站西村５３８线路全线停电 【变更送电】无 【发布渠道】保定市满城县有线电视台（０５月０９日１９：００－２０：００至０５月１７日１９：００－２０：００）屏幕上方滚动","powerTime":"2020-05-18 17:49:55","powerComm":"已送电","subsNo":"","lineNo":"","tgNo":"","tgName":null,"infoStatus":"1","orgName":"国网满城县供电公司","typeName":null,"infoStatusName":null,"dateDay":null,"orgNos":null,"nowTime":null,"countyName":null,"streetName":null,"villageName":null,"roadName":null,"communityName":null,"tranName":null,"sdLineName":null,"cityCode":"1340617","cityName":"国网满城县供电公司","provinceCode":null,"stopTime":"2020-05-18 18:00:00","powerType":"全部","powerOffArea":"【全线路停电】停１１０ＫＶ夜借变电站西村５３８线路全线下紫口8号,大册营新增（统管）,西村二号,苏庄6号","powerOffReason":"【停电原因】由于线路检修导致１１０ＫＶ夜借变电站西村５３８线路全线停电 【变更送电】无 【发布渠道】保定市满城县有线电视台（０５月０９日１９：００－２０：００至０５月１７日１９：００－２０：００）屏幕上方滚动","powerOffId":"2020050913000274"}],"pageModel":{"pageNow":83,"totalCount":10973,"totalPage":1098,"tableRows":0,"pageCount":10,"beginCount":820},"isExperi":"1"}