{"message":"","today":"2020-06-15","seleList":[{"poweroffId":2018061213000261,"sgpoweroffId":null,"subsName":"","lineName":"刘家台线514","pubTranName":"白沙3 4队村南,白沙3 4队村北,支锅石6队,慈家台村南,新建庄村内,中国移动通信集团河北有限公司满城,满城县刘家台乡慈家台村委会计量点100,黄龙寺9队,高庄新增1号【纯农排变】,高庄2号,龙居村南,三大队西河南,支锅石小庄,龙居村南新增,黄龙寺1队,高庄村北,黄龙寺7队,支锅石村内,刘家台新增1号,岭西二大队,满城县刘家台乡慈家台村委会50,西高士庄大坝,好善庄村内,三大队6队北沟,新建庄一号,慈家台村内,新建庄村委会,龙居村东,支锅石吃水井,高庄王福有,长角台水厂,刘家台医院,长角台3队,西高士庄村东,新建庄南沟,支锅石六队,孙家台,龙居村西,龙居南子沟,岭西一大队,扬水站,岭西村西【纯农排变】,龙居村内,龙居三元【纯农排变】,支锅石大荒峪【纯农排变】,岭西2大队南沟,龙居望龙沟【纯农排变】,黄龙寺8队,刘家台市场,红利塑料,岭西3大队机井,岭西村委会,慈家台村北,岭西供电所,白沙1 2队村南,刘家台村内,黄龙寺4队,龙居村东3号【纯农排变】,刘家台,黄龙寺十队,龙居吃水井新增,长角台2队,西高士庄新增1号,慈家台1号,车厂村南,西高士庄路南【纯农排变】,黄龙寺6队,东高士庄路南,刘家台乡政府,西高士庄新增,黄龙寺10队新增,车厂村北,大平台,龙居生态园【纯农排变】,长角台1队,满城县坨南乡好善庄,岭西三大队5队,刘家台新村【纯农排变】,支锅石6队计,龙居村东2号【纯农排变】,满城县刘家台乡刘家台村委会,赵和平,满城县刘家台乡长角台村民委员会,车厂村内,张站乐,宝石饭店,白沙1 2队村北,岭西三大队,宝盛一号井,新建庄果园,刘家台西南【纯农排变】,东高士庄村内,西高士庄村内,地税所,","scope":"【影响街道/乡镇】坨南乡、刘家台乡 【高危重要客户】无 【影响客户】岭西村、支锅石村、新建庄村、高庄村、好善庄村、东高士庄村、西高士庄村、龙居村、白沙村（孙家台）、车场村、慈家台村、长角台村、黄龙寺村","startTime":"2018-06-12 12:32:53","stopDate":"2018-06-12 14:20:00","orgNo":"1340617","typeCode":"电网故障停限电","poweroffArea":"【全线路停电】停满城县刘家台乡长角台村民委员会,刘家台新增1号,东高士庄村内,黄龙寺1队,龙居村内,白沙1 2队村南,新建庄村委会,龙居村东3号【纯农排变】,龙居吃水井新增,龙居南子沟,地税所,黄龙寺8队,红利塑料,车厂村南,长角台2队,新建庄南沟,满城县刘家台乡慈家台村委会50,黄龙寺7队,慈家台村南,支锅石大荒峪【纯农排变】,岭西供电所,黄龙寺10队新增,高庄村北,岭西3大队机井,黄龙寺9队,高庄新增1号【纯农排变】,孙家台,西高士庄新增1号,支锅石吃水井,支锅石村内,白沙3 4队村南,宝盛一号井,刘家台市场,刘家台乡政府,白沙3 4队村北,高庄2号,黄龙寺4队,满城县刘家台乡刘家台村委会,刘家台新村【纯农排变】,龙居村南新增,宝石饭店,长角台1队,满城县坨南乡好善庄,龙居望龙沟【纯农排变】,新建庄村内,长角台3队,满城县刘家台乡慈家台村委会计量点100,东高士庄路南,龙居村南,岭西村西【纯农排变】,支锅石6队,扬水站,中国移动通信集团河北有限公司满城,西高士庄新增,支锅石六队,岭西村委会,慈家台1号,岭西二大队,白沙1 2队村北,龙居三元【纯农排变】,支锅石小庄,长角台水厂,西高士庄路南【纯农排变】,赵和平,西高士庄大坝,三大队西河南,龙居村东2号【纯农排变】,刘家台西南【纯农排变】,龙居村东,刘家台村内,好善庄村内,新建庄一号,张站乐,岭西2大队南沟,高庄王福有,慈家台村北,刘家台,车厂村内, 岭西一大队,黄龙寺十队,慈家台村内,刘家台医院,大平台,岭西三大队5队,岭西三大队,龙居生态园【纯农排变】,新建庄果园,龙居村西,黄龙寺6队,西高士庄村东,三大队6队北沟,车厂村北,支锅石6队计,西高士庄村内","poweroffReason":"【停电原因】由于Ａ相接地导致３５ＫＶ岭西变电站刘家台线５１４线路全线停电 【变更送电】因抢修进度加快原因，送电时间由２３：５９变更为１４：２０ 【发布渠道】９５５９８","powerTime":"2018-06-12 13:58:14","powerComm":"已送电","subsNo":"","lineNo":"","tgNo":"","tgName":null,"infoStatus":"1","orgName":"国网满城县供电公司","typeName":null,"infoStatusName":null,"dateDay":null,"orgNos":null,"nowTime":null,"countyName":null,"streetName":null,"villageName":null,"roadName":null,"communityName":null,"tranName":null,"sdLineName":null,"cityCode":"1340617","cityName":"国网满城县供电公司","provinceCode":null,"stopTime":"2018-06-12 14:20:00","powerType":"全部","powerOffArea":"【全线路停电】停满城县刘家台乡长角台村民委员会,刘家台新增1号,东高士庄村内,黄龙寺1队,龙居村内,白沙1 2队村南,新建庄村委会,龙居村东3号【纯农排变】,龙居吃水井新增,龙居南子沟,地税所,黄龙寺8队,红利塑料,车厂村南,长角台2队,新建庄南沟,满城县刘家台乡慈家台村委会50,黄龙寺7队,慈家台村南,支锅石大荒峪【纯农排变】,岭西供电所,黄龙寺10队新增,高庄村北,岭西3大队机井,黄龙寺9队,高庄新增1号【纯农排变】,孙家台,西高士庄新增1号,支锅石吃水井,支锅石村内,白沙3 4队村南,宝盛一号井,刘家台市场,刘家台乡政府,白沙3 4队村北,高庄2号,黄龙寺4队,满城县刘家台乡刘家台村委会,刘家台新村【纯农排变】,龙居村南新增,宝石饭店,长角台1队,满城县坨南乡好善庄,龙居望龙沟【纯农排变】,新建庄村内,长角台3队,满城县刘家台乡慈家台村委会计量点100,东高士庄路南,龙居村南,岭西村西【纯农排变】,支锅石6队,扬水站,中国移动通信集团河北有限公司满城,西高士庄新增,支锅石六队,岭西村委会,慈家台1号,岭西二大队,白沙1 2队村北,龙居三元【纯农排变】,支锅石小庄,长角台水厂,西高士庄路南【纯农排变】,赵和平,西高士庄大坝,三大队西河南,龙居村东2号【纯农排变】,刘家台西南【纯农排变】,龙居村东,刘家台村内,好善庄村内,新建庄一号,张站乐,岭西2大队南沟,高庄王福有,慈家台村北,刘家台,车厂村内, 岭西一大队,黄龙寺十队,慈家台村内,刘家台医院,大平台,岭西三大队5队,岭西三大队,龙居生态园【纯农排变】,新建庄果园,龙居村西,黄龙寺6队,西高士庄村东,三大队6队北沟,车厂村北,支锅石6队计,西高士庄村内","powerOffReason":"【停电原因】由于Ａ相接地导致３５ＫＶ岭西变电站刘家台线５１４线路全线停电 【变更送电】因抢修进度加快原因，送电时间由２３：５９变更为１４：２０ 【发布渠道】９５５９８","powerOffId":"2018061213000261"},{"poweroffId":2018061213000250,"sgpoweroffId":null,"subsName":"","lineName":"10kV513莲子口线","pubTranName":"东口综合1台区,东口综合10台区,东口综合24台区,西南庄综合4台区,南口综合10台区,北口农排2台区【纯农排变】,西口综合2台区,南口综合2台区,中口综合5台区,中口综合2台区,中口综合1台区,南口农排1台区【纯农排变】,东兴,东口综合8台区,光明,东口综合2台区,东口综合15台区,中口综合7台区,南口综合11台区,西口综合1台区,南口综合9台区,北口综合3台区,南口综合1台区,蠡县瑞鹏物业服务有限公司变压器,中国移动通信集团河北有限公司蠡县分公司,西南庄综合六台区,东口综合17台区,南口综合5台区,东口综合11台区,北口综合2台区,中口综合6台区,西南庄综合8台区,南口综合6台区,东口综合13台区,中口综合4台区,东口综合19台区,东口综合23台区,北口农排1台区【纯农排变】,东口综合3台区,南口综合7台区,东口综合4台区,东口综合6台区,西口综合4台区,东口综合16台区,西口农排3台区【纯农排变】,西南庄综合2台区,南口综合4台区,东口综合18台区,东口综合7台区,西口综合3台区,北口综合1台区,东口综合5台区,0469437267-蠡县博亚服装有限公司-专变-214337787-蠡县博亚服装有限公司变压器,西南庄综合1台区,北口农排3台区【纯农排变】,东口综合21台区,东口农排1台区【纯农排变】,东口综合12台区,东口综合22台区,中口综合3台区,南口综合3台区,南口综合8台区,中口农排1台区【纯农排变】,东口综合14台区,西南庄综合5台区,东口综合9台区,","scope":"【影响街道/乡镇】鲍墟乡【高危重要客户】无【影响客户】南莲子口村、中莲子口村、东莲子口村、北莲子口村、西南庄村、西莲子口村","startTime":"2018-06-12 15:00:00","stopDate":"2018-06-12 17:00:00","orgNo":"1340616","typeCode":"其他临时停电","poweroffArea":"【全线路停电】停北口农排2台区【纯农排变】,北口农排3台区【纯农排变】,东口综合19台区,南口综合2台区,东口综合18台区,北口农排1台区【纯农排变】,东口综合10台区,南口综合8台区,北口综合3台区,西南庄综合1台区,光明,南口综合1台区,东口综合6台区,中口综合7台区,东口综合22台区,东兴,南口综合11台区,东口综合2台区,东口农排1台区【纯农排变】,东口综合16台区,西口综合2台区,东口综合11台区,西口综合3台区,东口综合15台区,东口综合9台区,西南庄综合4台区,中口农排1台区","poweroffReason":"【停电原因】由于站内主变消缺导致３５ＫＶ鲍墟变电站１０ＫＶ莲子口５１３线路全线停电【变更送电】无【发布渠道】通过９５５９８发布","powerTime":"2018-06-12 16:08:02","powerComm":"已送电","subsNo":"","lineNo":"","tgNo":"","tgName":null,"infoStatus":"1","orgName":"国网蠡县供电公司","typeName":null,"infoStatusName":null,"dateDay":null,"orgNos":null,"nowTime":null,"countyName":null,"streetName":null,"villageName":null,"roadName":null,"communityName":null,"tranName":null,"sdLineName":null,"cityCode":"1340616","cityName":"国网蠡县供电公司","provinceCode":null,"stopTime":"2018-06-12 17:00:00","powerType":"全部","powerOffArea":"【全线路停电】停北口农排2台区【纯农排变】,北口农排3台区【纯农排变】,东口综合19台区,南口综合2台区,东口综合18台区,北口农排1台区【纯农排变】,东口综合10台区,南口综合8台区,北口综合3台区,西南庄综合1台区,光明,南口综合1台区,东口综合6台区,中口综合7台区,东口综合22台区,东兴,南口综合11台区,东口综合2台区,东口农排1台区【纯农排变】,东口综合16台区,西口综合2台区,东口综合11台区,西口综合3台区,东口综合15台区,东口综合9台区,西南庄综合4台区,中口农排1台区","powerOffReason":"【停电原因】由于站内主变消缺导致３５ＫＶ鲍墟变电站１０ＫＶ莲子口５１３线路全线停电【变更送电】无【发布渠道】通过９５５９８发布","powerOffId":"2018061213000250"},{"poweroffId":2018061213000249,"sgpoweroffId":null,"subsName":"","lineName":"10kV段庄线514","pubTranName":"2付家营外22【纯农排变】,2北辛力外3【纯农排变】,2南辛力外11【纯农排变】,2付家营外15【纯农排变】,2大李各庄小村外9【纯农排变】,2李庄外22【纯农排变】,2北段庄外21【纯农排变】,张马庄面粉厂,1北辛力内1,1北段庄内1,北辛力面粉厂,2付家营外16【纯农排变】,2付家营外18【纯农排变】,2北段庄外24【纯农排变】,2北辛力外10【纯农排变】,2李庄外21【纯农排变】,北李各庄林场西,2北段庄外12【纯农排变】,2付家营外25【纯农排变】,2张马庄外7【纯农排变】,2北段庄外22【纯农排变】,2付家营外17【纯农排变】,1北李各庄内2,2北辛力外8【纯农排变】,2大李各庄小村外11【纯农排变】,2张马庄外12【纯农排变】,2张马庄外3【纯农排变】,段庄南面厂,2付家营外27【纯农排变】,1付家营内2,2大李各庄小村外12【纯农排变】,2张马庄外11【纯农排变】,1北段庄内6,唐河4,1北段庄内8,2北段庄外15【纯农排变】,2付家营外13【纯农排变】,2大李各庄小村外1【纯农排变】,2北段庄外10并台【纯农排变】,2大李各庄小村外8【纯农排变】,2寺上外3【纯农排变】,2北李各庄外3【纯农排变】,2北段庄外11【纯农排变】,2北辛力外11【纯农排变】,2大李各庄小村外10【纯农排变】,2南辛力外13【纯农排变】,2北段庄外25【纯农排变】,唐河6,2北段庄外13【纯农排变】,1寺上内1,2大李各庄小村外3【纯农排变】,2付家营外23【纯农排变】,2付家营外12【纯农排变】,2大李各庄小村外4【纯农排变】,2南辛力外6【纯农排变】,1寺上内2,2张马庄外6【纯农排变】,2付家营外11【纯农排变】,2北李各庄外7【纯农排变】,2付家营外19【纯农排变】,1南辛力内2,李庄二中,2南辛力外9【纯农排变】,2北段庄外19【纯农排变】,0600552015-中国铁塔股份有限公司保定市分公司-专变-126728124-中国移动通信集团河北有限公司清苑分公司,1北李各庄内4,2南辛力外5【纯农排变】,2北段庄外20【纯农排变】,2北段庄外17【纯农排变】,1北李各庄内3,2寺上外8【纯农排变】,1张马庄内3,2张马庄外13【纯农排变】,2北李各庄外11【纯农排变】,2北李各庄外15【纯农排变】,2张马庄外2【纯农排变】,2寺上外2【纯农排变】,1北段庄内7,2北段庄外5【纯农排变】,2北李各庄外12【纯农排变】,2张马庄外4【纯农排变】,2大李各庄小村外7【纯农排变】,2张马庄外9【纯农排变】,2张马庄外1【纯农排变】,2张马庄外10【纯农排变】,2北段庄外14【纯农排变】,1张马庄内2,1北辛力内3,2北李各庄外14【纯农排变】,2北辛力外5【纯农排变】,1北段庄内3,2北段庄外8【纯农排变】,1北李各庄内6,2北李各庄外16【纯农排变】,2南辛力外3【纯农排变】,唐河2,唐河3,2北段庄外9【纯农排变】,2南辛力外12【纯农排变】,1南辛力内1,2北段庄外1【纯农排变】,2北李各庄外4【纯农排变】,2北李各庄外1【纯农排变】,2寺上外6【纯农排变】,2大李各庄内4,2北段庄外16【纯农排变】,1付家营内5,2北","scope":"【影响街道/乡镇】李庄乡、冉庄镇、北王力乡 【高危重要客户】无 【影响客户】北李各庄、付家营、寺上、南辛力、北辛力、北段庄、张马庄、大李各庄小村","startTime":"2018-06-12 12:21:36","stopDate":"2018-06-12 14:00:00","orgNo":"1340618","typeCode":"电网故障停限电","poweroffArea":"【全线路停电】停2付家营外17【纯农排变】,2大李各庄小村外6【纯农排变】 ,2付家营外10【纯农排变】,2大李各庄小村外8【纯农排变】,2北李各庄外10【纯农排变】,2北段庄外12【纯农排变】,2北段庄外22【纯农排变】,2北段庄外16【纯农排变】,2付家营外19【纯农排变】,2大李各庄小村外1【纯农排变】,1北李各庄内2,2付家营外14【纯农排变】,段庄南中分箱,1北段庄内9,大泉鸡厂分箱,1南辛力内2,2北辛力外7【纯农排变】,2北辛力外8【纯农排变】,2张马庄外2【纯农排变】,1付家营内4,1北李各庄内1,张马庄面粉厂,1北李各庄内7,2寺上外2【纯农排变】,李庄二中,2南辛力外3【纯农排变】,2大李各庄小村外11【纯农排变】,2北段庄外10并台【纯农排变】,2北李各庄外13【纯农排变】,1北段庄内7,2北辛力外4【纯农排变】,唐河2,2南辛力外9【纯农排变】,2大李各庄小村外5【纯农排变】,2张马庄外12【纯农排变】,唐河3,2北段庄外19【纯农排变】,2北段庄外5【纯农排变】,2北段庄外3【纯农排变】,1付家营内7,2寺上外3【纯农排变】,0600552015-中国铁塔股份有限公司保定市分公司-专变-126728124-中国移动通信集团河北有限公司清苑分公司,2北段庄外9【纯农排变】,2寺上外5【纯农排变】,2北李各庄外12【纯农排变】,1北李各庄内4,2北段庄外13【纯农排变】,2张马庄外3【纯农排变】,2付家营外9【纯农排变】,2南辛力外12【纯农排变】,段庄南面厂,2北段庄外2【纯农排变】,保定市诚通农产品有限公司,2张马庄外4【纯农排变】,2付家营外28【纯农排变】,1寺上内1,1南辛力内1,1北段庄内3,2寺上外4【纯农排变】,2北段庄外8【纯农排变】,2大李各庄小村外7【纯农排变】,2南辛力外5【纯农排变】,2北辛力外11【纯农排变】,2北段庄外20【纯农排变】,2北段庄外1【纯农排变】,1北段庄内6,2大李各庄小村外13【纯农排变】,1北段庄内2,2张马庄外9【纯农排变】,唐河4,2大李各庄小村外10【纯农排变】,2北段庄外17【纯农排变】,2北李各庄外4【纯农排变】,2南辛力外4【纯农排变】,1北辛力内2,2付家营外24【纯农排变】,2张马庄外1【纯农排变】,1北段庄内8,2南辛力外13【纯农排变】,1北李各庄内3,2北李各庄外1【纯农排变】 ,2北辛力外9【纯农排变】,2北段庄外25【纯农排变】,2寺上外8【纯农排变】,2北段庄外12并台【纯农排变】,2张马庄外5【纯农排变】,唐河6,2北段庄外4并台【纯农排变】,2李庄外21【纯农排变】,1张马庄内3,1北段庄内5,2南辛力外1【纯农排变】,2寺上外6【纯农排变】,2北段庄外15【纯农排变】,2大李各庄小村外3【纯农排变】,2大李各庄小村外2【纯农排变】,2北李各庄外9【纯农排变】,2张马庄外13【纯农排变】,北李各庄林场西,2北辛力外3【纯农排变】 ,2付家营外23【纯农排变】,2北李各庄外5【纯农排变】,2大李各庄内4,2北李各庄外11【纯农排变】,1付家营内3,2北李各庄外6【纯农排变】,2付家营外27【纯农排变】,2南辛力外7【纯农排变】,2付家营外12【纯农排变】,2北李各庄外15【纯农排变】,1北李各庄内6,2北段庄外23【纯农排变】,2大李各庄小村外4【纯农排变】,1北段庄内4,2北李各庄外16【纯农排变】,2南辛力外11【纯农排变】,2南辛力外2【纯农排变】,2付家营外16【纯农排变】,2南辛力外6【纯农排变】,2张马庄外10【纯农排变】,2北辛力外6【纯农排变】,2寺上外7【纯农排变】,2付家营外22【纯农排变】,1北辛力内3,1寺上内2,1张马庄内4,2大李各庄小村外12【纯农排变】,2北李各庄外14【纯农排变】,2北段庄外14【纯农排变】,2北李各庄外8【纯农排变】,2北李各庄外7【纯农排变】,","poweroffReason":"【停电原因】由于主干９０号杆北分支１２号杆付家营面粉厂变压器跌落烧毁导致３５ＫＶ李庄变电站１０ＫＶ段庄线５１４线路全线停电 【变更送电】因抢修进度加快原因，送电时间由１８：００变更为１４：００ 【发布渠道】通过９５５９８发布","powerTime":"2018-06-12 13:27:38","powerComm":"丽齐通知已送电","subsNo":"","lineNo":"","tgNo":"","tgName":null,"infoStatus":"1","orgName":"国网清苑县供电公司","typeName":null,"infoStatusName":null,"dateDay":null,"orgNos":null,"nowTime":null,"countyName":null,"streetName":null,"villageName":null,"roadName":null,"communityName":null,"tranName":null,"sdLineName":null,"cityCode":"1340618","cityName":"国网清苑县供电公司","provinceCode":null,"stopTime":"2018-06-12 14:00:00","powerType":"全部","powerOffArea":"【全线路停电】停2付家营外17【纯农排变】,2大李各庄小村外6【纯农排变】 ,2付家营外10【纯农排变】,2大李各庄小村外8【纯农排变】,2北李各庄外10【纯农排变】,2北段庄外12【纯农排变】,2北段庄外22【纯农排变】,2北段庄外16【纯农排变】,2付家营外19【纯农排变】,2大李各庄小村外1【纯农排变】,1北李各庄内2,2付家营外14【纯农排变】,段庄南中分箱,1北段庄内9,大泉鸡厂分箱,1南辛力内2,2北辛力外7【纯农排变】,2北辛力外8【纯农排变】,2张马庄外2【纯农排变】,1付家营内4,1北李各庄内1,张马庄面粉厂,1北李各庄内7,2寺上外2【纯农排变】,李庄二中,2南辛力外3【纯农排变】,2大李各庄小村外11【纯农排变】,2北段庄外10并台【纯农排变】,2北李各庄外13【纯农排变】,1北段庄内7,2北辛力外4【纯农排变】,唐河2,2南辛力外9【纯农排变】,2大李各庄小村外5【纯农排变】,2张马庄外12【纯农排变】,唐河3,2北段庄外19【纯农排变】,2北段庄外5【纯农排变】,2北段庄外3【纯农排变】,1付家营内7,2寺上外3【纯农排变】,0600552015-中国铁塔股份有限公司保定市分公司-专变-126728124-中国移动通信集团河北有限公司清苑分公司,2北段庄外9【纯农排变】,2寺上外5【纯农排变】,2北李各庄外12【纯农排变】,1北李各庄内4,2北段庄外13【纯农排变】,2张马庄外3【纯农排变】,2付家营外9【纯农排变】,2南辛力外12【纯农排变】,段庄南面厂,2北段庄外2【纯农排变】,保定市诚通农产品有限公司,2张马庄外4【纯农排变】,2付家营外28【纯农排变】,1寺上内1,1南辛力内1,1北段庄内3,2寺上外4【纯农排变】,2北段庄外8【纯农排变】,2大李各庄小村外7【纯农排变】,2南辛力外5【纯农排变】,2北辛力外11【纯农排变】,2北段庄外20【纯农排变】,2北段庄外1【纯农排变】,1北段庄内6,2大李各庄小村外13【纯农排变】,1北段庄内2,2张马庄外9【纯农排变】,唐河4,2大李各庄小村外10【纯农排变】,2北段庄外17【纯农排变】,2北李各庄外4【纯农排变】,2南辛力外4【纯农排变】,1北辛力内2,2付家营外24【纯农排变】,2张马庄外1【纯农排变】,1北段庄内8,2南辛力外13【纯农排变】,1北李各庄内3,2北李各庄外1【纯农排变】 ,2北辛力外9【纯农排变】,2北段庄外25【纯农排变】,2寺上外8【纯农排变】,2北段庄外12并台【纯农排变】,2张马庄外5【纯农排变】,唐河6,2北段庄外4并台【纯农排变】,2李庄外21【纯农排变】,1张马庄内3,1北段庄内5,2南辛力外1【纯农排变】,2寺上外6【纯农排变】,2北段庄外15【纯农排变】,2大李各庄小村外3【纯农排变】,2大李各庄小村外2【纯农排变】,2北李各庄外9【纯农排变】,2张马庄外13【纯农排变】,北李各庄林场西,2北辛力外3【纯农排变】 ,2付家营外23【纯农排变】,2北李各庄外5【纯农排变】,2大李各庄内4,2北李各庄外11【纯农排变】,1付家营内3,2北李各庄外6【纯农排变】,2付家营外27【纯农排变】,2南辛力外7【纯农排变】,2付家营外12【纯农排变】,2北李各庄外15【纯农排变】,1北李各庄内6,2北段庄外23【纯农排变】,2大李各庄小村外4【纯农排变】,1北段庄内4,2北李各庄外16【纯农排变】,2南辛力外11【纯农排变】,2南辛力外2【纯农排变】,2付家营外16【纯农排变】,2南辛力外6【纯农排变】,2张马庄外10【纯农排变】,2北辛力外6【纯农排变】,2寺上外7【纯农排变】,2付家营外22【纯农排变】,1北辛力内3,1寺上内2,1张马庄内4,2大李各庄小村外12【纯农排变】,2北李各庄外14【纯农排变】,2北段庄外14【纯农排变】,2北李各庄外8【纯农排变】,2北李各庄外7【纯农排变】,","powerOffReason":"【停电原因】由于主干９０号杆北分支１２号杆付家营面粉厂变压器跌落烧毁导致３５ＫＶ李庄变电站１０ＫＶ段庄线５１４线路全线停电 【变更送电】因抢修进度加快原因，送电时间由１８：００变更为１４：００ 【发布渠道】通过９５５９８发布","powerOffId":"2018061213000249"},{"poweroffId":2018061213000245,"sgpoweroffId":null,"subsName":"","lineName":"10kV冉庄线511","pubTranName":"1姜庄内4,2姜庄外10【纯农排变】,1冉庄内2,冉庄展览馆,冉庄内12,2冉庄外21【纯农排变】,2大张庄外07【纯农排变】,2东孙庄外12【纯农排变】,1冉庄内11,保定市清苑区洪源生态园,1大张庄内7,2冉庄外17【纯农排变】,2大张庄外11【纯农排变】,1冉庄内8,1大张庄内2,2小张庄外6【纯农排变】,2姜庄外14【纯农排变】,1姜庄内6,2姜庄外4【纯农排变】,保定市源渤新型建筑材料有限公司,2冉庄外13【纯农排变】,1冉庄内9,冉庄营业部,2冉庄外28【纯农排变】,2冉庄外12【纯农排变】,许占良,2小张庄外7【纯农排变】,兴达饲料加工厂,2冉庄外30【纯农排变】,2冉庄外14【纯农排变】,2大张庄外13【纯农排变】,2姜庄外6【纯农排变】,1大张庄内1,2姜庄外12【纯农排变】,1冉庄内3,2冉庄外10【纯农排变】,1大张庄内5,2大张庄外15【纯农排变】,0599812158-清苑县冉庄中心卫生院-专变-126596070-清苑县冉庄中心卫生院,1冉庄内5,2姜庄外5【纯农排变】,大张庄砖厂,张庆增养鸡厂,0577569942-清苑县鑫合农副产品专业合作社-专变-124226422-清苑县鑫合农副产品专业合作社,2大张庄外14【纯农排变】,1大张庄外2变压器,2冉庄外23【纯农排变】,1大张庄内6,2姜庄外15【纯农排变】,2封庄外6【纯农排变】,2冉庄外7【纯农排变】,1小张庄内2,2姜庄外13【纯农排变】,2大张庄外6【纯农排变】,0663797457-保定市示范性综合实践基地-专变-201046819-保定市示范性综合实践基地,保定市太公旅游开发有限公司,冉庄地展馆,3大张庄外5【纯农排变】,1冉庄内4,0671603861-大张庄安置楼-专变-213878021-大张庄安置楼,2姜庄外7【纯农排变】,2冉庄外19【纯农排变】,河北省清苑县冉庄地道战纪念馆,2姜庄外9【纯农排变】,2小张庄外3【纯农排变】,2大张庄外10【纯农排变】,2冉庄外26【纯农排变】,2姜庄外8【纯农排变】,2冉庄外25【纯农排变】,1姜庄内2,2姜庄外11【纯农排变】,2冉庄外24【纯农排变】,2大张庄外12【纯农排变】,0645905858-清苑县冉庄晓军家电商场-专变-169688986-清苑县冉庄晓军家电商场,2冉庄外15【纯农排变】,1姜庄外16,1姜庄内3,清苑县兴达面粉厂,1大张庄内8,河北省清苑县冉庄砖厂,2冉庄外8【纯农排变】,2大张庄外17【纯农排变】,2小张庄外8【纯农排变】,2耿庄外17【纯农排变】,2冉庄外9【纯农排变】,2大张庄外8【纯农排变】,2冉庄外20【纯农排变】,1姜庄内1,2小张庄外1【纯农排变】,2大张庄外4【纯农排变】,1小张庄内1,2冉庄外16【纯农排变】,粉条厂,2冉庄外31【纯农排变】,大张庄外9【纯农排变】,1冉庄内6,2小张庄外2【纯农排变】,2姜庄外3【纯农排变】,清苑县金南纸业有限公司,2小张庄外4【纯农排变】,2冉庄外11【纯农排变】,1大张庄内3,2大张庄外16【纯农排变】,清苑县冉庄中心医院,1冉庄内10,1冉庄内7,2冉庄外27【纯农排变】,1小张庄内3,2","scope":"【影响街道/乡镇】冉庄镇 【高危重要客户】无 【影响客户】冉庄、大张庄、小张庄、姜庄","startTime":"2018-06-12 12:17:10","stopDate":"2018-06-13 04:40:00","orgNo":"1340618","typeCode":"电网故障停限电","poweroffArea":"【全线路停电】停1大张庄内2,保定市太公旅游开发有限公司,2姜庄外9【纯农排变】,2大张庄外12【纯农排变】,2冉庄外13【纯农排变】,1姜庄内4,1小张庄内2,河北省清苑县冉庄地道战纪念馆,2冉庄外21【纯农排变】,1姜庄外16,2大张庄外07【纯农排变】,2姜庄外3【纯农排变】,2姜庄外15【纯农排变】,1冉庄内5,保定市清苑区洪源生态园,2封庄外6【纯农排变】,大张庄外9【纯农排变】,2大张庄外6【纯农排变】,1小张庄内3,2大张庄外4【纯农排变】,清苑县金南纸业有限公司,2冉庄外22【纯农排变】,1姜庄内1,1姜庄内3,2大张庄外15【纯农排变】,1冉庄内8,0663797457-保定市示范性综合实践基地-专变-201046819-保定市示范性综合实践基地,0599812158-清苑县冉庄中心卫生院-专变-126596070-清苑县冉庄中心卫生院,保定市源渤新型建筑材料有限公司,3大张庄外5【纯农排变】,1大张庄内7,2大张庄外8【纯农排变】,2冉庄外29【纯农排变】,2冉庄外9【纯农排变】,2冉庄外24【纯农排变】,2小张庄外7【纯农排变】,1冉庄内1,2小张庄外4【纯农排变】,冉庄内12,2小张庄外5【纯农排变】,2冉庄外25【纯农排变】,1大张庄内8,1姜庄内5,2大张庄外13【纯农排变】,2冉庄外23【纯农排变】,冉庄供电所,1大张庄内4,2冉庄外11【纯农排变】,2小张庄外1【纯农排变】,2东孙庄外12【纯农排变】,2冉庄外33【纯农排变】,1大张庄内1,2小张庄外6【纯农排变】,1姜庄内2,2姜庄外6【纯农排变】,1大张庄内6,1冉庄内9,2冉庄外31【纯农排变】,1冉庄内11,1大张庄内3,2冉庄外20【纯农排变】,清苑县兴达面粉厂,1大张庄内5,2大张庄外16【纯农排变】,2冉庄外32【纯农排变】,清苑县冉庄中心医院,冉庄营业部,2姜庄外14【纯农排变】,2大张庄外11【纯农排变】,2冉庄外18【纯农排变】,2姜庄外8【纯农排变】,2姜庄外12【纯农排变】,2冉庄外8【纯农排变】,河北省清苑县冉庄砖厂,冉庄地展馆,2姜庄外7【纯农排变】,0645905858-清苑县冉庄晓军家电商场-专变-169688986-清苑县冉庄晓军家电商场,0671603861-大张庄安置楼-专变-213878021-大张庄安置楼,2冉庄外28【纯农排变】,2姜庄外10【纯农排变】,2大张庄外10【纯农排变】,2小张庄外2【纯农排变】,1冉庄内3,2冉庄外26【纯农排变】,2大张庄外3【纯农排变】,0577569942-清苑县鑫合农副产品专业合作社-专变-124226422-清苑县鑫合农副产品专业合作社,2冉庄外15【纯农排变】,2姜庄外5【纯农排变】,1冉庄内10,兴达饲料加工厂,冉庄展览馆,1冉庄内4,2小张庄外3【纯农排变】,2冉庄外12【纯农排变】,1冉庄内6,2大张庄外14【纯农排变】,2小张庄外8【纯农排变】,1冉庄内7,2冉庄外16【纯农排变】,2耿庄外17【纯农排变】,1姜庄内6,2姜庄外11【纯农排变】,2冉庄外19【纯农排变】,2冉庄外17【纯农排变】,大张庄砖厂,2冉庄外14【纯农排变】,2冉庄外7【纯农排变】,许占良,张庆增养鸡厂,粉条厂,2冉庄外30【纯农排变】,清苑县古槐木器厂,1冉庄内2,1大张庄外2变压器,2姜庄外13【纯农排变】,2冉庄外27【纯农排变】,1小张庄内1,2冉庄外10【纯农排变】,2大张庄外17【纯农排变】,2姜庄外4【纯农排变】","poweroffReason":"【停电原因】由于主干０号杆出线电缆坏导致３５ＫＶ李庄变电站１０ＫＶ冉庄线５１１线路全线停电 【变更送电】因抢修进度加快原因，送电时间由１３日０８：００变更为１３日０４：４０ 【发布渠道】通过９５５９８发布","powerTime":"2018-06-13 04:15:55","powerComm":"华瑞杰通知已送电","subsNo":"","lineNo":"","tgNo":"","tgName":null,"infoStatus":"1","orgName":"国网清苑县供电公司","typeName":null,"infoStatusName":null,"dateDay":null,"orgNos":null,"nowTime":null,"countyName":null,"streetName":null,"villageName":null,"roadName":null,"communityName":null,"tranName":null,"sdLineName":null,"cityCode":"1340618","cityName":"国网清苑县供电公司","provinceCode":null,"stopTime":"2018-06-13 04:40:00","powerType":"全部","powerOffArea":"【全线路停电】停1大张庄内2,保定市太公旅游开发有限公司,2姜庄外9【纯农排变】,2大张庄外12【纯农排变】,2冉庄外13【纯农排变】,1姜庄内4,1小张庄内2,河北省清苑县冉庄地道战纪念馆,2冉庄外21【纯农排变】,1姜庄外16,2大张庄外07【纯农排变】,2姜庄外3【纯农排变】,2姜庄外15【纯农排变】,1冉庄内5,保定市清苑区洪源生态园,2封庄外6【纯农排变】,大张庄外9【纯农排变】,2大张庄外6【纯农排变】,1小张庄内3,2大张庄外4【纯农排变】,清苑县金南纸业有限公司,2冉庄外22【纯农排变】,1姜庄内1,1姜庄内3,2大张庄外15【纯农排变】,1冉庄内8,0663797457-保定市示范性综合实践基地-专变-201046819-保定市示范性综合实践基地,0599812158-清苑县冉庄中心卫生院-专变-126596070-清苑县冉庄中心卫生院,保定市源渤新型建筑材料有限公司,3大张庄外5【纯农排变】,1大张庄内7,2大张庄外8【纯农排变】,2冉庄外29【纯农排变】,2冉庄外9【纯农排变】,2冉庄外24【纯农排变】,2小张庄外7【纯农排变】,1冉庄内1,2小张庄外4【纯农排变】,冉庄内12,2小张庄外5【纯农排变】,2冉庄外25【纯农排变】,1大张庄内8,1姜庄内5,2大张庄外13【纯农排变】,2冉庄外23【纯农排变】,冉庄供电所,1大张庄内4,2冉庄外11【纯农排变】,2小张庄外1【纯农排变】,2东孙庄外12【纯农排变】,2冉庄外33【纯农排变】,1大张庄内1,2小张庄外6【纯农排变】,1姜庄内2,2姜庄外6【纯农排变】,1大张庄内6,1冉庄内9,2冉庄外31【纯农排变】,1冉庄内11,1大张庄内3,2冉庄外20【纯农排变】,清苑县兴达面粉厂,1大张庄内5,2大张庄外16【纯农排变】,2冉庄外32【纯农排变】,清苑县冉庄中心医院,冉庄营业部,2姜庄外14【纯农排变】,2大张庄外11【纯农排变】,2冉庄外18【纯农排变】,2姜庄外8【纯农排变】,2姜庄外12【纯农排变】,2冉庄外8【纯农排变】,河北省清苑县冉庄砖厂,冉庄地展馆,2姜庄外7【纯农排变】,0645905858-清苑县冉庄晓军家电商场-专变-169688986-清苑县冉庄晓军家电商场,0671603861-大张庄安置楼-专变-213878021-大张庄安置楼,2冉庄外28【纯农排变】,2姜庄外10【纯农排变】,2大张庄外10【纯农排变】,2小张庄外2【纯农排变】,1冉庄内3,2冉庄外26【纯农排变】,2大张庄外3【纯农排变】,0577569942-清苑县鑫合农副产品专业合作社-专变-124226422-清苑县鑫合农副产品专业合作社,2冉庄外15【纯农排变】,2姜庄外5【纯农排变】,1冉庄内10,兴达饲料加工厂,冉庄展览馆,1冉庄内4,2小张庄外3【纯农排变】,2冉庄外12【纯农排变】,1冉庄内6,2大张庄外14【纯农排变】,2小张庄外8【纯农排变】,1冉庄内7,2冉庄外16【纯农排变】,2耿庄外17【纯农排变】,1姜庄内6,2姜庄外11【纯农排变】,2冉庄外19【纯农排变】,2冉庄外17【纯农排变】,大张庄砖厂,2冉庄外14【纯农排变】,2冉庄外7【纯农排变】,许占良,张庆增养鸡厂,粉条厂,2冉庄外30【纯农排变】,清苑县古槐木器厂,1冉庄内2,1大张庄外2变压器,2姜庄外13【纯农排变】,2冉庄外27【纯农排变】,1小张庄内1,2冉庄外10【纯农排变】,2大张庄外17【纯农排变】,2姜庄外4【纯农排变】","powerOffReason":"【停电原因】由于主干０号杆出线电缆坏导致３５ＫＶ李庄变电站１０ＫＶ冉庄线５１１线路全线停电 【变更送电】因抢修进度加快原因，送电时间由１３日０８：００变更为１３日０４：４０ 【发布渠道】通过９５５９８发布","powerOffId":"2018061213000245"},{"poweroffId":2018061213000244,"sgpoweroffId":null,"subsName":"","lineName":"10kV516市场线","pubTranName":"阳光嘉园综合1台区,阳光嘉园综合5台区,友福,市场综合5台区,市场综合5出线间隔配电变压器,阳光嘉园综合4台区,友福皮毛有限公司变压器,市场综合2台区,阳光嘉园综合7台区,市场综合4台区,阳光嘉园综合3台区,阳光嘉园综合2台区,市场综合1台区,阳光嘉园综合6台区,市场综合3台区,","scope":"【影响街道/乡镇】鲍墟乡【高危重要客户】无【影响客户】东口市场、阳光嘉园","startTime":"2018-06-12 15:00:00","stopDate":"2018-06-12 17:00:00","orgNo":"1340616","typeCode":"其他临时停电","poweroffArea":"【全线路停电】停友福,市场综合5出线间隔配电变压器,阳光嘉园综合1台区,阳光嘉园综合4台区,市场综合5台区,市场综合2台区,阳光嘉园综合6台区,市场综合4台区,阳光嘉园综合5台区,市场综合3台区,阳光嘉园综合3台区,友福皮毛有限公司变压器,阳光嘉园综合2台区,阳光嘉园综合7台区,市场综合1台区","poweroffReason":"【停电原因】由于站内主变消缺导致３５ＫＶ鲍墟变电站１０ＫＶ市场５１６线路全线停电【变更送电】无【发布渠道】通过９５５９８发布","powerTime":"2018-06-12 16:07:19","powerComm":"已送电","subsNo":"","lineNo":"","tgNo":"","tgName":null,"infoStatus":"1","orgName":"国网蠡县供电公司","typeName":null,"infoStatusName":null,"dateDay":null,"orgNos":null,"nowTime":null,"countyName":null,"streetName":null,"villageName":null,"roadName":null,"communityName":null,"tranName":null,"sdLineName":null,"cityCode":"1340616","cityName":"国网蠡县供电公司","provinceCode":null,"stopTime":"2018-06-12 17:00:00","powerType":"全部","powerOffArea":"【全线路停电】停友福,市场综合5出线间隔配电变压器,阳光嘉园综合1台区,阳光嘉园综合4台区,市场综合5台区,市场综合2台区,阳光嘉园综合6台区,市场综合4台区,阳光嘉园综合5台区,市场综合3台区,阳光嘉园综合3台区,友福皮毛有限公司变压器,阳光嘉园综合2台区,阳光嘉园综合7台区,市场综合1台区","powerOffReason":"【停电原因】由于站内主变消缺导致３５ＫＶ鲍墟变电站１０ＫＶ市场５１６线路全线停电【变更送电】无【发布渠道】通过９５５９８发布","powerOffId":"2018061213000244"},{"poweroffId":2018061213000221,"sgpoweroffId":null,"subsName":"","lineName":"西沟线514","pubTranName":"翟佐新增,翟佐村北,西峪村边,中峪4号,中又杨园1号中峪杨元3号,马连川村边,石佐路边,李佐村西1号,木谷峪,杨园2号,马连川,中峪东沟2号新增中峪东沟【纯农排变】,石板山1号,翟佐村南,南峪村南增【纯农排变】,寺角村边,西峪北坡吃水井,石板山菜园,石板山于钱坡【纯农排变】,翟佐村东,寺角新增,东峪村1号,李佐村委会,东又机井,南峪村边2号,石板山村边,南峪4号,南峪2号,西峪村,翟佐东洼,南峪村边,西峪上庄,翟佐市场,石板山8号,李佐村边,马连川1号【纯农排变】,东又大园,石板山新增,西峪新增,东峪陈庄,龙德寺石板山村委会,翟佐下坡,中峪东坡,南峪村南2号,翟佐西大梁,马连川村东,东峪上庄3号【纯农排变】,石佐河西,石板山2号,中峪东沟东沟2号,寺角河套新增,翟佐河套,神星十家坡,马连川新增,东峪路东上庄新增,翟佐东坡,石板山村委会2,中峪曹庄,中峪西沟【纯农排变】,寺角村,南峪3号,","scope":"【影响街道/乡镇】神星镇 【高危重要客户】无 【影响客户】南峪（又）村、寺角村、中峪（又）村、东峪（又）村、石板山、西峪（又）村、翟家佐、马连川、李家佐","startTime":"2018-06-14 06:00:00","stopDate":"2018-06-14 20:00:00","orgNo":"1340617","typeCode":"临时停电","poweroffArea":"【全线路停电】停马连川村边,翟佐东坡,石佐路边,石板山村委会2,翟佐下坡,石板山菜园,李佐村西1号,石板山于钱坡【纯农排变】,中峪东坡,寺角村,木谷峪,翟佐村东,南峪村南2号,寺角新增,南峪3号,杨园2号,翟佐西大梁,东峪村1号,李佐村委会,中峪曹庄,马连川,东又机井,中峪西沟【纯农排变】,东峪路东上庄新增,西峪北坡吃水井,南峪村边2号,南峪村边,翟佐河套,石板山村边,神星十家坡,西峪上庄,马连川新增,中又杨园1号中峪杨元3号,龙德寺石板山村委会,南峪4号,翟佐市场,南峪2号,石板山8号,西峪村,马连川村东,李佐村边,中峪东沟2号新增中峪东沟【纯农排变】,翟佐东洼,东峪上庄3号【纯农排变】,翟佐新增,石佐河西,马连川1号【纯农排变】,石板山2号,东又大园,石板山1号,翟佐村北,中峪东沟东沟2号,石板山新增,翟佐村南,西峪村边,南峪村南增【纯农排变】,西峪新增,中峪4号,寺角河套新增,东峪陈庄,寺角村边","poweroffReason":"【停电原因】由于配合政府施工导致３５ＫＶ神星变电站西沟线５１４线路全线停电 【变更送电】无 【发布渠道】９５５９８","powerTime":"2018-06-14 19:09:30","powerComm":"已送电","subsNo":"","lineNo":"","tgNo":"","tgName":null,"infoStatus":"1","orgName":"国网满城县供电公司","typeName":null,"infoStatusName":null,"dateDay":null,"orgNos":null,"nowTime":null,"countyName":null,"streetName":null,"villageName":null,"roadName":null,"communityName":null,"tranName":null,"sdLineName":null,"cityCode":"1340617","cityName":"国网满城县供电公司","provinceCode":null,"stopTime":"2018-06-14 20:00:00","powerType":"全部","powerOffArea":"【全线路停电】停马连川村边,翟佐东坡,石佐路边,石板山村委会2,翟佐下坡,石板山菜园,李佐村西1号,石板山于钱坡【纯农排变】,中峪东坡,寺角村,木谷峪,翟佐村东,南峪村南2号,寺角新增,南峪3号,杨园2号,翟佐西大梁,东峪村1号,李佐村委会,中峪曹庄,马连川,东又机井,中峪西沟【纯农排变】,东峪路东上庄新增,西峪北坡吃水井,南峪村边2号,南峪村边,翟佐河套,石板山村边,神星十家坡,西峪上庄,马连川新增,中又杨园1号中峪杨元3号,龙德寺石板山村委会,南峪4号,翟佐市场,南峪2号,石板山8号,西峪村,马连川村东,李佐村边,中峪东沟2号新增中峪东沟【纯农排变】,翟佐东洼,东峪上庄3号【纯农排变】,翟佐新增,石佐河西,马连川1号【纯农排变】,石板山2号,东又大园,石板山1号,翟佐村北,中峪东沟东沟2号,石板山新增,翟佐村南,西峪村边,南峪村南增【纯农排变】,西峪新增,中峪4号,寺角河套新增,东峪陈庄,寺角村边","powerOffReason":"【停电原因】由于配合政府施工导致３５ＫＶ神星变电站西沟线５１４线路全线停电 【变更送电】无 【发布渠道】９５５９８","powerOffId":"2018061213000221"},{"poweroffId":2018061213000187,"sgpoweroffId":null,"subsName":"","lineName":"纸箱厂线513","pubTranName":"大芦昝4#公用,","scope":"【影响街道/乡镇】昝岗镇 【高危重要客户】无 【影响客户】大芦昝村","startTime":"2018-06-12 10:41:07","stopDate":"2018-06-12 15:30:00","orgNo":"1340624","typeCode":"电网故障停限电","poweroffArea":"【单台区停电】停大芦昝4#公用","poweroffReason":"【停电原因】由于低压刀闸烧毁导致１１０ＫＶ昝岗变电站纸箱厂线５１３线路大芦昝４号公变台区停电 【变更送电】因抢修进度加快原因，送电时间由１９：００变更为１５：３０ 【发布渠道】通过９５５９８发布","powerTime":"2018-06-12 14:56:14","powerComm":"已送电","subsNo":"","lineNo":"","tgNo":"","tgName":null,"infoStatus":"1","orgName":"(原)国网雄县供电公司","typeName":null,"infoStatusName":null,"dateDay":null,"orgNos":null,"nowTime":null,"countyName":null,"streetName":null,"villageName":null,"roadName":null,"communityName":null,"tranName":null,"sdLineName":null,"cityCode":"1340624","cityName":"(原)国网雄县供电公司","provinceCode":null,"stopTime":"2018-06-12 15:30:00","powerType":"全部","powerOffArea":"【单台区停电】停大芦昝4#公用","powerOffReason":"【停电原因】由于低压刀闸烧毁导致１１０ＫＶ昝岗变电站纸箱厂线５１３线路大芦昝４号公变台区停电 【变更送电】因抢修进度加快原因，送电时间由１９：００变更为１５：３０ 【发布渠道】通过９５５９８发布","powerOffId":"2018061213000187"},{"poweroffId":2018061213000185,"sgpoweroffId":null,"subsName":"","lineName":"纸箱厂线513","pubTranName":"大芦昝公用,","scope":"【影响街道/乡镇】昝岗镇 【高危重要客户】无 【影响客户】大芦昝","startTime":"2018-06-12 10:40:37","stopDate":"2018-06-12 15:30:00","orgNo":"1340624","typeCode":"电网故障停限电","poweroffArea":"【单台区停电】停大芦昝公用","poweroffReason":"【停电原因】由于低压刀闸烧毁导致１１０ＫＶ昝岗变电站纸箱厂线５１３线路大芦昝公变台区停电 【变更送电】因抢修进度加快原因，送电时间由１９：００变更为１５：３０ 【发布渠道】通过９５５９８发布","powerTime":"2018-06-12 14:57:34","powerComm":"已送电","subsNo":"","lineNo":"","tgNo":"","tgName":null,"infoStatus":"1","orgName":"(原)国网雄县供电公司","typeName":null,"infoStatusName":null,"dateDay":null,"orgNos":null,"nowTime":null,"countyName":null,"streetName":null,"villageName":null,"roadName":null,"communityName":null,"tranName":null,"sdLineName":null,"cityCode":"1340624","cityName":"(原)国网雄县供电公司","provinceCode":null,"stopTime":"2018-06-12 15:30:00","powerType":"全部","powerOffArea":"【单台区停电】停大芦昝公用","powerOffReason":"【停电原因】由于低压刀闸烧毁导致１１０ＫＶ昝岗变电站纸箱厂线５１３线路大芦昝公变台区停电 【变更送电】因抢修进度加快原因，送电时间由１９：００变更为１５：３０ 【发布渠道】通过９５５９８发布","powerOffId":"2018061213000185"},{"poweroffId":2018061213000132,"sgpoweroffId":null,"subsName":"","lineName":"望工线513","pubTranName":"河北梓硕建筑装饰工程有限公司,梁屯东混,鑫丰园箱变配电变压器,保定伍建物业管理有限责任公司,兴葛面粉厂,新樊家村配电变压器,汽车站,中油八站,保定伍建房地产开发有限公司,挂毯厂配变,丽景家园箱变配电变压器,樊家村,第一城1箱变配电变压器,伍建配变1,107国道南【纯农排变】,保定伍健房地产开发公司,保定伍建物业管理公司1,第一城2箱变配电变压器,0609198245-保定伍建物业管理有限责任公司-专变-127552778-保定伍建物业管理有限责任公司,樊家村安置楼配电变压器,东方机械厂,中国石油天然气股份有限公司河北销售分公司,","scope":"【影响街道/乡镇】繁荣街、１０７国道、望都镇 【高危重要客户】无　　 【影响客户】樊家村、梁屯村东、第一城、鑫丰园、丽景嘉苑、挂毯厂、１０７国道南、梓硕建筑装饰工程、东方机械、伍建物业管理公司、汽车站、刚山房地产、兴葛面粉、中国石油天然气公司、中油八站樊家村","startTime":"2018-06-14 06:00:00","stopDate":"2018-06-14 22:00:00","orgNo":"1340623","typeCode":"临时停电","poweroffArea":"【分支停电】停丽景家园箱变配电变压器,保定伍健房地产开发公司,樊家村,保定伍建物业管理公司1,河北梓硕建筑装饰工程有限公司,保定伍建房地产开发有限公司,梁屯东混,第一城2箱变配电变压器,保定伍建物业管理有限责任公司,挂毯厂配变,兴葛面粉厂,中国石油天然气股份有限公司河北销售分公司,107国道南【纯农排变】,鑫丰园箱变配电变压器,0609198245-保定伍建物业管理有限责任公司-专变-127552778-保定伍建物业管理有限责任公司,东方机械厂,中油八站,汽车站,樊家村安置楼配电变压器,新樊家村配电变压器,第一城1箱变配电变压器,伍建配变1","poweroffReason":"【停电原因】由于供电设备临时检修导致１１０ＫＶ望都变电站望工５１３线路５１３１号开关至５１３２号开关之间线路停电 【变更送电】无　 【发布渠道】通过９５５９８发布","powerTime":"2018-06-14 21:03:26","powerComm":"已送电","subsNo":"","lineNo":"","tgNo":"","tgName":null,"infoStatus":"1","orgName":"国网望都县供电公司","typeName":null,"infoStatusName":null,"dateDay":null,"orgNos":null,"nowTime":null,"countyName":null,"streetName":null,"villageName":null,"roadName":null,"communityName":null,"tranName":null,"sdLineName":null,"cityCode":"1340623","cityName":"国网望都县供电公司","provinceCode":null,"stopTime":"2018-06-14 22:00:00","powerType":"全部","powerOffArea":"【分支停电】停丽景家园箱变配电变压器,保定伍健房地产开发公司,樊家村,保定伍建物业管理公司1,河北梓硕建筑装饰工程有限公司,保定伍建房地产开发有限公司,梁屯东混,第一城2箱变配电变压器,保定伍建物业管理有限责任公司,挂毯厂配变,兴葛面粉厂,中国石油天然气股份有限公司河北销售分公司,107国道南【纯农排变】,鑫丰园箱变配电变压器,0609198245-保定伍建物业管理有限责任公司-专变-127552778-保定伍建物业管理有限责任公司,东方机械厂,中油八站,汽车站,樊家村安置楼配电变压器,新樊家村配电变压器,第一城1箱变配电变压器,伍建配变1","powerOffReason":"【停电原因】由于供电设备临时检修导致１１０ＫＶ望都变电站望工５１３线路５１３１号开关至５１３２号开关之间线路停电 【变更送电】无　 【发布渠道】通过９５５９８发布","powerOffId":"2018061213000132"},{"poweroffId":2018061213000091,"sgpoweroffId":null,"subsName":"","lineName":"10kV514小陈乡线","pubTranName":"小陈中学1变压器,颜庄综合7台区,小陈乡政府,中国移动通信集团河北有限公司蠡县分公司变压器,颜庄浇地四,颜庄浇地一,小陈综合8台区,小陈综合2台区,蠡县春龙纺织厂变压器,小陈综合14台区,永安浇地三,华宇新增,国令浇地二,永安二浇地,小陈综合12台区,颜庄3台区,小陈综合1台区,小陈纺织厂,小陈建河,小陈综合6台区,小陈皮毛厂,蠡县日发纺织有限公司,小陈综合3台区,保定华宇纺织有限公司,小陈综合9台区,？县颜庄扣板厂,建民浇地,颜庄综合5台区,小陈综合10台区,小陈综合4台区,蠡县颜庄盛源面粉厂变压器,建民浇地四,小陈综合13台区,小陈中学2变压器,小陈村南,恒基,小陈砖厂,颜庄浇地8台区,颜庄浇地七,蠡县加华纺织有限公司变压器,颜庄综合6台区,国令三,小陈红卫纺织厂,颜庄浇地6台区,小陈综合16台区变压器,建民浇地三,颜庄浇地5台区,小陈学校,林昌织布厂,颜庄综合4台区,小陈综合5台区,小陈综合7台区,颜庄综合3台区,小陈中学,小陈利群纺纱厂,颜庄综合2台区,小陈综合15台区变压器,颜庄浇地二,刘胖浇地,小陈村北1号,颜庄浇地三,保定华宇纺织有限公司变压器,颜庄综合1台区,小陈综合11台区,","scope":"【影响街道/乡镇】小陈乡【高危重要客户】无【影响客户】小陈村","startTime":"2018-06-21 06:30:00","stopDate":"2018-06-21 19:30:00","orgNo":"1340616","typeCode":"计划停电","poweroffArea":"【单台区停电】停小陈综合11台区","poweroffReason":"【停电原因】由于更换导线导致３５ＫＶ小陈变电站１０ＫＶ小陈乡５１４线路小陈综合１１公变台区停电【变更送电】无【发布渠道】蠡县电视台（２０１８年０６月１２日至２０１８年０６月２０日２０：００至２２：００之间）屏幕上方滚动　　　","powerTime":"2018-06-21 18:39:24","powerComm":"已送电","subsNo":"","lineNo":"","tgNo":"","tgName":null,"infoStatus":"1","orgName":"国网蠡县供电公司","typeName":null,"infoStatusName":null,"dateDay":null,"orgNos":null,"nowTime":null,"countyName":null,"streetName":null,"villageName":null,"roadName":null,"communityName":null,"tranName":null,"sdLineName":null,"cityCode":"1340616","cityName":"国网蠡县供电公司","provinceCode":null,"stopTime":"2018-06-21 19:30:00","powerType":"全部","powerOffArea":"【单台区停电】停小陈综合11台区","powerOffReason":"【停电原因】由于更换导线导致３５ＫＶ小陈变电站１０ＫＶ小陈乡５１４线路小陈综合１１公变台区停电【变更送电】无【发布渠道】蠡县电视台（２０１８年０６月１２日至２０１８年０６月２０日２０：００至２２：００之间）屏幕上方滚动　　　","powerOffId":"2018061213000091"}],"pageModel":{"pageNow":1004,"totalCount":10973,"totalPage":1098,"tableRows":0,"pageCount":10,"beginCount":10030},"isExperi":"1"}