{"message":"","today":"2020-06-15","seleList":[{"poweroffId":2018061113000323,"sgpoweroffId":null,"subsName":"","lineName":"10kV561安庄线","pubTranName":"杨家营公用农业7台区【纯农排变】,安家庄公用农业3台区【纯农排变】,梁家营公用农业7台区【纯农排变】,定州市旺牛奶牛养殖场变压器,杨家营公用农业8台区【纯农排变】,河北伊人奶牛养殖有限公司变压器,梁家营公用农业1台区【纯农排变】,梁家营村公用照明2台区,梁家营公用农业10台区【纯农排变】,定州市杨家营奶牛养殖场,梁家营公用照明6台区,同好饲料厂,杨家营公用农业1台区【纯农排变】,安家庄公用农业2台区【纯农排变】,定州市乾清贡农产品农民专业合作社变压器,安家庄公用照明4台区,安家庄村公用照明1台区,安家庄公用农业4台区【纯农排变】,定州市兴芳农产品专业合作社,梁家营村公用照明4台区,梁家营公用农业4台区【纯农排变】,梁家营公用农业13台区【纯农排变】,安家庄公用农业6台区【纯农排变】,谢军凯米厂,安家庄公用农业8台区【纯农排变】,吴定庄村公用照明2台区,定州市红年小米加工厂变压器,梁家营公用农业14台区【纯农排变】,吴定庄公用照明5台区,吴定庄村公用照明1台区,安家庄公用农业7台区【纯农排变】,吴定庄公用农业8台区【纯农排变】,梁家营公用农业16台区【纯农排变】,梁家营公用农业3台区【纯农排变】,梁家营公用农业6台区【纯农排变】,安家庄公用农业10台区【纯农排变】,梁家营公用照明5台区,讨气米厂,0685934632-定州市占夺农产品专业合作社-专变-225239124-定州市占夺农产品专业合作社变压器,吴定庄奶厂,吴定庄村公用照明4台区,梁家营公用农业8台区【纯农排变】,安庄公用照明6台区,杨家营公用农业4台区【纯农排变】,梁家营公用照明8台区,安庄公用照明5台区,安家庄村公用照明2台区,吴定庄村公用农业1台区【纯农排变】,安家庄公用农业5台区【纯农排变】,定州市隆泰牧业有限公司变压器,梁家营公用农业15台区【纯农排变】,定州市赛科星伊人牧业有限公司变压器,梁家营公用农业12台区【纯农排变】,安家庄公用农业1台区【纯农排变】,吴定庄公用农业6台区【纯农排变】,安家庄公用照明3台区,梁家营公用农业9台区【纯农排变】,杨家营公用农业3台区【纯农排变】,吴定庄公用农业3台区【纯农排变】,吴定庄村公用照明3台区,定州市鑫淼木材加工厂变压器,吴定庄公用农业7台区【纯农排变】,定州市王涛蔬菜购销站,杨家营公用农业6台区【纯农排变】,梁家营公用照明7台区,0576006651-定州市号头庄乡杨家营社区村民委员会-专变-124024571-定州市号头庄乡杨家营社区村变压器,梁家营公用农业5台区【纯农排变】,梁家营正北,杨家营公用农业2台区【纯农排变】,吴定庄公用农业4台区【纯农排变】,定州市运涛空心砖厂,杨家营公用农业9台区【纯农排变】,杨家营村公用照明1台区,梁家营村公用照明3台区,梁家营村公用照明1台区,梁家营公用农业2台区【纯农排变】,吴定庄公用农业5台区【纯农排变】,杨家营公用农业5台区【纯农排变】,吴定庄西奶厂,谢红尚,梁家营公用农业11台区【纯农排变】,吴定庄公用农业2台区【纯农排变】,杨家营村公用照明2台区,安家庄公用农业9台区【纯农排变】,","scope":"【影响街道/乡镇】号头庄乡【高危重要客户】无【影响客户】杨家营、梁家营、吴定庄、安家庄 、红年米厂、红尚米厂、淘气米厂、君凯米厂、乾清贡米厂","startTime":"2018-06-12 00:30:00","stopDate":"2018-06-12 02:00:00","orgNo":"1340610","typeCode":"其他临时停电","poweroffArea":"【全线路停电】停梁家营公用照明5台区,梁家营公用农业5台区【纯农排变】,安庄公用照明5台区,吴定庄公用农业2台区【纯农排变】,梁家营公用照明6台区,梁家营公用农业7台区【纯农排变】,杨家营公用农业1台区【纯农排变】,梁家营公用农业1台区【纯农排变】,安家庄村公用照明2台区,安家庄公用农业8台区【纯农排变】,吴定庄奶厂,吴定庄公用农业6台区【纯农排变】,讨气米厂,杨家营公用农业5台区【纯农排变】,谢红尚,安家庄公用农业1台区【纯农排变】,梁家营公用照明8台区,吴定庄村公用照明1台区,定州市赛科星伊人牧业有限公司变压器,安家庄公用农业4台区【纯农排变】,安家庄公用农业2台区【纯农排变】,吴定庄公用照明5台区,吴定庄西奶厂,安庄公用照明6台区,梁家营公用农业6台区【纯农排变】,定州市隆泰牧业有限公司变压器,安家庄公用农业3台区【纯农排变】,梁家营公用农业15台区【纯农排变】,安家庄公用农业10台区【纯农排变】,杨家营公用农业3台区【纯农排变】,杨家营公用农业9台区【纯农排变】,河北伊人奶牛养殖有限公司变压器,谢军凯米厂,吴定庄公用农业5台区【纯农排变】,梁家营公用农业11台区【纯农排变】,吴定庄村公用照明4台区,杨家营村公用照明2台区,安家庄公用农业7台区【纯农排变】,定州市王涛蔬菜购销站,杨家营公用农业2台区【纯农排变】,定州市兴芳农产品专业合作社,安家庄公用照明4台区,安家庄公用农业9台区【纯农排变】,0576006651-定州市号头庄乡杨家营社区村民委员会-专变-124024571-定州市号头庄乡杨家营社区村变压器,吴定庄村公用农业1台区【纯农排变】,定州市杨家营奶牛养殖场,梁家营公用农业3台区【纯农排变】,梁家营公用农业8台区【纯农排变】,定州市旺牛奶牛养殖场变压器,0685934632-定州市占夺农产品专业合作社-专变-225239124-定州市占夺农产品专业合作社变压器,定州市乾清贡农产品农民专业合作社变压器,安家庄公用农业6台区【纯农排变】,安家庄公用农业5台区【纯农排变】,梁家营正北,梁家营公用农业12台区【纯农排变】,梁家营村公用照明1台区,杨家营公用农业4台区【纯农排变】,定州市运涛空心砖厂,安家庄公用照明3台区,梁家营公用照明7台区,梁家营公用农业2台区【纯农排变】,定州市鑫淼木材加工厂变压器,吴定庄村公用照明3台区,定州市红年小米加工厂变压器,同好饲料厂,梁家营公用农业9台区【纯农排变】,梁家营公用农业10台区【纯农排变】,安家庄村公用照明1台区,杨家营公用农业6台区【纯农排变】,吴定庄公用农业7台区【纯农排变】,梁家营村公用照明4台区,梁家营公用农业16台区【纯农排变】,杨家营公用农业7台区【纯农排变】,杨家营村公用照明1台区,梁家营村公用照明2台区,杨家营公用农业8台区【纯农排变】,梁家营村公用照明3台区,吴定庄公用农业3台区【纯农排变】,梁家营公用农业13台区【纯农排变】,梁家营公用农业4台区【纯农排变】,吴定庄公用农业4台区【纯农排变】,吴定庄公用农业8台区【纯农排变】,梁家营公用农业14台区【纯农排变】,吴定庄村公用照明2台区","poweroffReason":"【停电原因】由于主干０号电杆倾斜需停电进行紧急检修导致１１０ＫＶ叮咛店变电站１０ＫＶ５６１安庄线路全线停电 【变更送电】因抢修进度加快原因，送电时间由０５：００变更为０２：００ 【发布渠道】９５５９８","powerTime":"2018-06-12 01:41:59","powerComm":"已送电","subsNo":"","lineNo":"","tgNo":"","tgName":null,"infoStatus":"1","orgName":"国网定州市供电公司","typeName":null,"infoStatusName":null,"dateDay":null,"orgNos":null,"nowTime":null,"countyName":null,"streetName":null,"villageName":null,"roadName":null,"communityName":null,"tranName":null,"sdLineName":null,"cityCode":"1340610","cityName":"国网定州市供电公司","provinceCode":null,"stopTime":"2018-06-12 02:00:00","powerType":"全部","powerOffArea":"【全线路停电】停梁家营公用照明5台区,梁家营公用农业5台区【纯农排变】,安庄公用照明5台区,吴定庄公用农业2台区【纯农排变】,梁家营公用照明6台区,梁家营公用农业7台区【纯农排变】,杨家营公用农业1台区【纯农排变】,梁家营公用农业1台区【纯农排变】,安家庄村公用照明2台区,安家庄公用农业8台区【纯农排变】,吴定庄奶厂,吴定庄公用农业6台区【纯农排变】,讨气米厂,杨家营公用农业5台区【纯农排变】,谢红尚,安家庄公用农业1台区【纯农排变】,梁家营公用照明8台区,吴定庄村公用照明1台区,定州市赛科星伊人牧业有限公司变压器,安家庄公用农业4台区【纯农排变】,安家庄公用农业2台区【纯农排变】,吴定庄公用照明5台区,吴定庄西奶厂,安庄公用照明6台区,梁家营公用农业6台区【纯农排变】,定州市隆泰牧业有限公司变压器,安家庄公用农业3台区【纯农排变】,梁家营公用农业15台区【纯农排变】,安家庄公用农业10台区【纯农排变】,杨家营公用农业3台区【纯农排变】,杨家营公用农业9台区【纯农排变】,河北伊人奶牛养殖有限公司变压器,谢军凯米厂,吴定庄公用农业5台区【纯农排变】,梁家营公用农业11台区【纯农排变】,吴定庄村公用照明4台区,杨家营村公用照明2台区,安家庄公用农业7台区【纯农排变】,定州市王涛蔬菜购销站,杨家营公用农业2台区【纯农排变】,定州市兴芳农产品专业合作社,安家庄公用照明4台区,安家庄公用农业9台区【纯农排变】,0576006651-定州市号头庄乡杨家营社区村民委员会-专变-124024571-定州市号头庄乡杨家营社区村变压器,吴定庄村公用农业1台区【纯农排变】,定州市杨家营奶牛养殖场,梁家营公用农业3台区【纯农排变】,梁家营公用农业8台区【纯农排变】,定州市旺牛奶牛养殖场变压器,0685934632-定州市占夺农产品专业合作社-专变-225239124-定州市占夺农产品专业合作社变压器,定州市乾清贡农产品农民专业合作社变压器,安家庄公用农业6台区【纯农排变】,安家庄公用农业5台区【纯农排变】,梁家营正北,梁家营公用农业12台区【纯农排变】,梁家营村公用照明1台区,杨家营公用农业4台区【纯农排变】,定州市运涛空心砖厂,安家庄公用照明3台区,梁家营公用照明7台区,梁家营公用农业2台区【纯农排变】,定州市鑫淼木材加工厂变压器,吴定庄村公用照明3台区,定州市红年小米加工厂变压器,同好饲料厂,梁家营公用农业9台区【纯农排变】,梁家营公用农业10台区【纯农排变】,安家庄村公用照明1台区,杨家营公用农业6台区【纯农排变】,吴定庄公用农业7台区【纯农排变】,梁家营村公用照明4台区,梁家营公用农业16台区【纯农排变】,杨家营公用农业7台区【纯农排变】,杨家营村公用照明1台区,梁家营村公用照明2台区,杨家营公用农业8台区【纯农排变】,梁家营村公用照明3台区,吴定庄公用农业3台区【纯农排变】,梁家营公用农业13台区【纯农排变】,梁家营公用农业4台区【纯农排变】,吴定庄公用农业4台区【纯农排变】,吴定庄公用农业8台区【纯农排变】,梁家营公用农业14台区【纯农排变】,吴定庄村公用照明2台区","powerOffReason":"【停电原因】由于主干０号电杆倾斜需停电进行紧急检修导致１１０ＫＶ叮咛店变电站１０ＫＶ５６１安庄线路全线停电 【变更送电】因抢修进度加快原因，送电时间由０５：００变更为０２：００ 【发布渠道】９５５９８","powerOffId":"2018061113000323"},{"poweroffId":2018061113000321,"sgpoweroffId":null,"subsName":"","lineName":"10kV562东张谦线","pubTranName":"国丰,定州市双龙环保水处理助剂有限公司,东张欠公用农业11台区【纯农排变】,定州市汇通车床加工点,东张欠公用农业10台区【纯农排变】,西张欠公用农业10台区【纯农排变】,西张欠公用农业14台区【纯农排变】,许英起,定州市兴达纺织器材厂,定州市保兴校旺注塑厂,东张欠公用农业17台区【纯农排变】,东张欠公用农业19台区【纯农排变】,东张欠公用照明2台区,东张欠公用农业1台区【纯农排变】,东张欠公用农业18台区【纯农排变】,定州市大华纺织器材厂变压器,定州市中山纺织器材有限公司,西张欠公用农业7台区【纯农排变】,变压器,郑平,东张欠公用农业4台区【纯农排变】,东张欠公用农业9台区【纯农排变】,东张欠公用照明1台区,韩超,东张欠公用照明8台区,定州市汇通纺织器材有限公司变压器,郑铁流,西张欠公用农业11台区【纯农排变】,立强,占奇,西张欠公用农业9台区【纯农排变】,定州市华龙纺织配件厂（小勇）,定州市兴华纺织器材厂（韩根强）,东张欠公用照明7台区,东张欠村公用照明3台区,定州市德力金属制品有限公司变压器,定州市金圣达木业有限公司,西张欠公用农业5台区【纯农排变】,东张欠公用农业14台区【纯农排变】,定州市大华纺织器材厂（韩伟）,郑亚龙,东张欠公用照明9台区,叮咛店公用农业4台区柱上变压器【纯农排变】,东张欠公用农业7台区【纯农排变】,叮咛店公用农业3台区柱上变压器【纯农排变】,定州市大华纺织器材厂（保安）,东张谦公用农业20台区【纯农排变】,东张欠公用农业2台区【纯农排变】,定州市前进纺织机械器材厂,东张欠公用农业13台区【纯农排变】,东张欠公用照明10台区,郑西军,东张欠公用农业5台区【纯农排变】,东张欠公用农业8台区【纯农排变】,0688848143-定州市孟生球铁有限公司-专变-230579154-定州市孟生球铁有限公司变压器,东张欠村公用照明6台区,东张欠村公用照明5台区,西张欠公用农业13台区【纯农排变】,定州市福鑫金属制品有限公司变压器,东张欠公用农业16台区【纯农排变】,东张欠公用农业6台区【纯农排变】,东张欠村公用照明4台区,韩建芳,东张欠公用农业15台区【纯农排变】,东张欠公用农业12台区【纯农排变】,薛永强,西张欠公用农业12台区【纯农排变】,定州市大华纺织器材厂（立平）,西张欠公用农业8台区【纯农排变】,西张欠公用农业6台区【纯农排变】,东张欠公用农业3台区【纯农排变】,","scope":"【影响街道/乡镇】叮咛店镇【高危重要客户】无【影响客户】东张谦","startTime":"2018-06-12 00:30:00","stopDate":"2018-06-12 02:00:00","orgNo":"1340610","typeCode":"其他临时停电","poweroffArea":"【全线路停电】停定州市福鑫金属制品有限公司变压器,定州市兴达纺织器材厂,东张欠公用农业14台区【纯农排变】,东张欠公用农业13台区【纯农排变】,变压器,东张欠公用农业2台区【纯农排变】,定州市汇通车床加工点,定州市大华纺织器材厂（立平）,东张欠公用农业10台区【纯农排变】,定州市保兴校旺注塑厂,西张欠公用农业11台区【纯农排变】,西张欠公用农业9台区【纯农排变】,东张欠公用农业5台区【纯农排变】,东张欠公用照明8台区,东张欠公用照明1台区,西张欠公用农业10台区【纯农排变】,定州市大华纺织器材厂变压器,西张欠公用农业14台区【纯农排变】,东张谦公用农业20台区【纯农排变】,东张欠公用农业15台区【纯农排变】,定州市德力金属制品有限公司变压器,定州市金圣达木业有限公司,东张欠公用农业16台区【纯农排变】,西张欠公用农业5台区【纯农排变】,叮咛店公用农业4台区柱上变压器【纯农排变】,东张欠公用农业19台区【纯农排变】,东张欠公用农业1台区【纯农排变】,东张欠公用农业6台区【纯农排变】,东张欠公用农业9台区【纯农排变】,东张欠村公用照明4台区,西张欠公用农业13台区【纯农排变】,东张欠村公用照明6台区,东张欠公用农业17台区【纯农排变】,定州市双龙环保水处理助剂有限公司,西张欠公用农业8台区【纯农排变】,定州市汇通纺织器材有限公司变压器,东张欠公用照明2台区,西张欠公用农业12台区【纯农排变】,0688848143-定州市孟生球铁有限公司-专变-230579154-定州市孟生球铁有限公司变压器,占奇,东张欠公用农业11台区【纯农排变】,韩超,立强,定州市大华纺织器材厂（韩伟）,韩建芳,郑西军,郑平,定州市兴华纺织器材厂（韩根强）,东张欠村公用照明3台区,西张欠公用农业7台区【纯农排变】,东张欠公用农业12台区【纯农排变】,定州市大华纺织器材厂（保安）,郑铁流,东张欠村公用照明5台区,定州市华龙纺织配件厂（小勇）,东张欠公用农业8台区【纯农排变】,薛永强,东张欠公用农业3台区【纯农排变】,定州市前进纺织机械器材厂,东张欠公用农业4台区【纯农排变】,许英起,东张欠公用农业18台区【纯农排变】,叮咛店公用农业3台区柱上变压器【纯农排变】,东张欠公用照明10台区,定州市中山纺织器材有限公司,国丰,东张欠公用照明7台区,东张欠公用照明9台区,西张欠公用农业6台区【纯农排变】,郑亚龙,东张欠公用农业7台区【纯农排变】","poweroffReason":"【停电原因】由于主干０号电杆倾斜需停电进行紧急检修导致１１０ＫＶ叮咛店变电站１０ＫＶ５６２东张谦线路全线停电 【变更送电】因抢修进度加快原因，送电时间由０５：００变更为０２：００ 【发布渠道】９５５９８","powerTime":"2018-06-12 01:43:49","powerComm":"已送电","subsNo":"","lineNo":"","tgNo":"","tgName":null,"infoStatus":"1","orgName":"国网定州市供电公司","typeName":null,"infoStatusName":null,"dateDay":null,"orgNos":null,"nowTime":null,"countyName":null,"streetName":null,"villageName":null,"roadName":null,"communityName":null,"tranName":null,"sdLineName":null,"cityCode":"1340610","cityName":"国网定州市供电公司","provinceCode":null,"stopTime":"2018-06-12 02:00:00","powerType":"全部","powerOffArea":"【全线路停电】停定州市福鑫金属制品有限公司变压器,定州市兴达纺织器材厂,东张欠公用农业14台区【纯农排变】,东张欠公用农业13台区【纯农排变】,变压器,东张欠公用农业2台区【纯农排变】,定州市汇通车床加工点,定州市大华纺织器材厂（立平）,东张欠公用农业10台区【纯农排变】,定州市保兴校旺注塑厂,西张欠公用农业11台区【纯农排变】,西张欠公用农业9台区【纯农排变】,东张欠公用农业5台区【纯农排变】,东张欠公用照明8台区,东张欠公用照明1台区,西张欠公用农业10台区【纯农排变】,定州市大华纺织器材厂变压器,西张欠公用农业14台区【纯农排变】,东张谦公用农业20台区【纯农排变】,东张欠公用农业15台区【纯农排变】,定州市德力金属制品有限公司变压器,定州市金圣达木业有限公司,东张欠公用农业16台区【纯农排变】,西张欠公用农业5台区【纯农排变】,叮咛店公用农业4台区柱上变压器【纯农排变】,东张欠公用农业19台区【纯农排变】,东张欠公用农业1台区【纯农排变】,东张欠公用农业6台区【纯农排变】,东张欠公用农业9台区【纯农排变】,东张欠村公用照明4台区,西张欠公用农业13台区【纯农排变】,东张欠村公用照明6台区,东张欠公用农业17台区【纯农排变】,定州市双龙环保水处理助剂有限公司,西张欠公用农业8台区【纯农排变】,定州市汇通纺织器材有限公司变压器,东张欠公用照明2台区,西张欠公用农业12台区【纯农排变】,0688848143-定州市孟生球铁有限公司-专变-230579154-定州市孟生球铁有限公司变压器,占奇,东张欠公用农业11台区【纯农排变】,韩超,立强,定州市大华纺织器材厂（韩伟）,韩建芳,郑西军,郑平,定州市兴华纺织器材厂（韩根强）,东张欠村公用照明3台区,西张欠公用农业7台区【纯农排变】,东张欠公用农业12台区【纯农排变】,定州市大华纺织器材厂（保安）,郑铁流,东张欠村公用照明5台区,定州市华龙纺织配件厂（小勇）,东张欠公用农业8台区【纯农排变】,薛永强,东张欠公用农业3台区【纯农排变】,定州市前进纺织机械器材厂,东张欠公用农业4台区【纯农排变】,许英起,东张欠公用农业18台区【纯农排变】,叮咛店公用农业3台区柱上变压器【纯农排变】,东张欠公用照明10台区,定州市中山纺织器材有限公司,国丰,东张欠公用照明7台区,东张欠公用照明9台区,西张欠公用农业6台区【纯农排变】,郑亚龙,东张欠公用农业7台区【纯农排变】","powerOffReason":"【停电原因】由于主干０号电杆倾斜需停电进行紧急检修导致１１０ＫＶ叮咛店变电站１０ＫＶ５６２东张谦线路全线停电 【变更送电】因抢修进度加快原因，送电时间由０５：００变更为０２：００ 【发布渠道】９５５９８","powerOffId":"2018061113000321"},{"poweroffId":2018061113000308,"sgpoweroffId":null,"subsName":"","lineName":"川夹线514","pubTranName":"上赤水新增5162变压器,米家湾水3387变压器,夹子村1648变压器,川里中学1940变压器,小北花1652变压器,川里车站801变压器,河西村6597变压器,下赤水3368变压器,秦王杨水站1653变压器,和西村1642变压器,五间坨0822变压器,川里村5169变压器,米家湾1647变压器,客户投资_秦王荒山3217变压器,川里乡政府6667变压器,下赤水1643变压器,川里乡政府0818变压器,川里公用1657变压器,夹子北沟5166变压器,腰子沟1645变压器,下秦王村北1651变压器,上秦王1230变压器,米家湾4102变压器,川里村1641变压器,路家寨1644变压器,川里村西0242变压器,","scope":"【影响街道/乡镇】川里镇、倒马关乡【高危重要客户】无【影响客户】秦王村、小北花、五尖驼、上秦王、下秦王、荒山、川里村、川里中学、路家寨村、下赤水、断水、腰子沟、河西村、夹子村、上赤水、沟掌、米家湾村","startTime":"2018-06-11 15:35:48","stopDate":"2018-06-11 17:30:00","orgNo":"1340622","typeCode":"电网故障停限电","poweroffArea":"【全线路停电】停川里车站801变压器,川里村1641变压器,川里村西0242变压器,川里村5169变压器,川里乡政府6667变压器,川里乡政府0818变压器,川里中学1940变压器,川里公用1657变压器,和西村1642变压器,夹子北沟5166变压器,夹子村1648变压器,路家寨1644变压器,米家湾1647变压器,米家湾4102变压器,米家湾水3387变压器,客户投资_秦王荒山3217变压器,上赤水新增5162变压器,上秦王1230变压器,五间坨0822变压器,下赤水1643变压器,下赤水3368变压器,下秦王村北1651变压器,小北花1652变压器,秦王杨水站1653变压器,腰子沟1645变压器,河西村6597变压器","poweroffReason":"【停电原因】由于路家寨村高速变压器高压电缆断导致３５ＫＶ川里变电站川夹线５１４线路全线停电【变更送电】因抢修进度加快原因，送电时间由２２：００变更为 １７：３０【发布渠道】通过９５５９８发布","powerTime":"2018-06-11 16:56:39","powerComm":"已送电","subsNo":"","lineNo":"","tgNo":"","tgName":null,"infoStatus":"1","orgName":"国网唐县供电公司","typeName":null,"infoStatusName":null,"dateDay":null,"orgNos":null,"nowTime":null,"countyName":null,"streetName":null,"villageName":null,"roadName":null,"communityName":null,"tranName":null,"sdLineName":null,"cityCode":"1340622","cityName":"国网唐县供电公司","provinceCode":null,"stopTime":"2018-06-11 17:30:00","powerType":"全部","powerOffArea":"【全线路停电】停川里车站801变压器,川里村1641变压器,川里村西0242变压器,川里村5169变压器,川里乡政府6667变压器,川里乡政府0818变压器,川里中学1940变压器,川里公用1657变压器,和西村1642变压器,夹子北沟5166变压器,夹子村1648变压器,路家寨1644变压器,米家湾1647变压器,米家湾4102变压器,米家湾水3387变压器,客户投资_秦王荒山3217变压器,上赤水新增5162变压器,上秦王1230变压器,五间坨0822变压器,下赤水1643变压器,下赤水3368变压器,下秦王村北1651变压器,小北花1652变压器,秦王杨水站1653变压器,腰子沟1645变压器,河西村6597变压器","powerOffReason":"【停电原因】由于路家寨村高速变压器高压电缆断导致３５ＫＶ川里变电站川夹线５１４线路全线停电【变更送电】因抢修进度加快原因，送电时间由２２：００变更为 １７：３０【发布渠道】通过９５５９８发布","powerOffId":"2018061113000308"},{"poweroffId":2018061113000306,"sgpoweroffId":null,"subsName":"","lineName":"莘桥线512","pubTranName":"辛桥西北,辛桥河套3号农排变压器【纯农排变】,04078|辛桥西南综合变压器,莘桥村西远综合变压器,辛桥南远,04122|布里村东南农业变压器【纯农排变】,辛桥南,04045|布里大队综合变压器,莘桥村口综合,04051|辛桥村东(综合)变压器,宏阔毛巾厂云增元,天下行纺织公司,辛桥面粉厂,04050|辛桥村北(综合)变压器,04052|辛桥村南(综合)变压器,高阳县芝柏莉纺织厂电压器,魏佐供电所,曹满意,梅鹿纺织品公司,安华纺织有限公司,王庆怀,田海涛,04044|布里村西综合变压器,靳宝坤,布里中学新增综合变压器,莘桥村村西北综合变压器,马进兴,辛桥河套2号农排变压器【纯农排变】,王辉,04076|辛桥村西(综合)变压器,辛桥村北新增综合变压器,莘桥村南新增综合变压器,04077|莘桥村里新增综合变压器,辛桥,04079|辛桥村西南综合变压器,辛桥河套1号农排变压器【纯农排变】,莘桥集口综合,靳运通,永亮纺织有限公司,布里村南,李文,04048|布里新增综合变压器,辛桥村西北农业,高阳县东奥棉织厂,辛桥村东,布里村西南综合变压器,三联毛巾厂,莘桥村鸡场综合变压器,","scope":"【影响街道/乡镇】西演镇 【高危重要客户】无 【影响客户】布里村、莘桥村","startTime":"2018-06-13 06:00:00","stopDate":"2018-06-13 21:00:00","orgNo":"1340613","typeCode":"临时停电","poweroffArea":"【全线路停电】停宏阔毛巾厂云增元,天下行纺织公司,靳宝坤,04122|布里村东南农业变压器【纯农排变】,辛桥村东,田海涛,04052|辛桥村南(综合)变压器,高阳县芝柏莉纺织厂电压器,李文,魏佐供电所,04048|布里新增综合变压器,曹满意,辛桥南远,永亮纺织有限公司,辛桥西北,辛桥河套3号农排变压器【纯农排变】,辛桥村西北农业,梅鹿纺织品公司,安华纺织有限公司,布里中学新增综合变压器,辛桥南,莘桥村村西北综合变压器,马进兴,辛桥河套2号农排变压器【纯农排变】,04045|布里大队综合变压器,王辉,莘桥村口综合,04076|辛桥村西(综合)变压器,辛桥村北新增综合变压器,莘桥村南新增综合变压器,04077|莘桥村里新增综合变压器,04078|辛桥西南综合变压器,辛桥,04079|辛桥村西南综合变压器,辛桥河套1号农排变压器【纯农排变】,04051|辛桥村东(综合)变压器,辛桥面粉厂,04050|辛桥村北(综合)变压器,莘桥集口综合,布里村南,高阳县东奥棉织厂,王庆怀,布里村西南综合变压器,04044|布里村西综合变压器,三联毛巾厂,莘桥村鸡场综合变压器,莘桥村西远综合变压器,靳运通","poweroffReason":"【停电原因】由于换杆换线导致３５ＫＶ魏家佐变电站莘桥５１２线路全线停电【变更送电】无【发布渠道】９５５９８","powerTime":"2018-06-13 20:20:05","powerComm":"已送电","subsNo":"","lineNo":"","tgNo":"","tgName":null,"infoStatus":"1","orgName":"国网高阳县供电公司","typeName":null,"infoStatusName":null,"dateDay":null,"orgNos":null,"nowTime":null,"countyName":null,"streetName":null,"villageName":null,"roadName":null,"communityName":null,"tranName":null,"sdLineName":null,"cityCode":"1340613","cityName":"国网高阳县供电公司","provinceCode":null,"stopTime":"2018-06-13 21:00:00","powerType":"全部","powerOffArea":"【全线路停电】停宏阔毛巾厂云增元,天下行纺织公司,靳宝坤,04122|布里村东南农业变压器【纯农排变】,辛桥村东,田海涛,04052|辛桥村南(综合)变压器,高阳县芝柏莉纺织厂电压器,李文,魏佐供电所,04048|布里新增综合变压器,曹满意,辛桥南远,永亮纺织有限公司,辛桥西北,辛桥河套3号农排变压器【纯农排变】,辛桥村西北农业,梅鹿纺织品公司,安华纺织有限公司,布里中学新增综合变压器,辛桥南,莘桥村村西北综合变压器,马进兴,辛桥河套2号农排变压器【纯农排变】,04045|布里大队综合变压器,王辉,莘桥村口综合,04076|辛桥村西(综合)变压器,辛桥村北新增综合变压器,莘桥村南新增综合变压器,04077|莘桥村里新增综合变压器,04078|辛桥西南综合变压器,辛桥,04079|辛桥村西南综合变压器,辛桥河套1号农排变压器【纯农排变】,04051|辛桥村东(综合)变压器,辛桥面粉厂,04050|辛桥村北(综合)变压器,莘桥集口综合,布里村南,高阳县东奥棉织厂,王庆怀,布里村西南综合变压器,04044|布里村西综合变压器,三联毛巾厂,莘桥村鸡场综合变压器,莘桥村西远综合变压器,靳运通","powerOffReason":"【停电原因】由于换杆换线导致３５ＫＶ魏家佐变电站莘桥５１２线路全线停电【变更送电】无【发布渠道】９５５９８","powerOffId":"2018061113000306"},{"poweroffId":2018061113000300,"sgpoweroffId":null,"subsName":"","lineName":"凤华线514","pubTranName":"04120|东赵堡村东北综合,04094|东赵布村大队综合,双吉纺织有限责任公司1,04107|东赵布村西综合,东赵布村里变压器,东赵布村北农业2号【纯农排变】,东赵布朝阳毛巾厂,双吉纺织有限责任公司2,东赵布西北农业1号【纯农排变】,中国石油天然气股份有限公司华北油田分公司变压器,04097|东赵布东南综合,04108|东赵布北综合,04096|东赵堡村东综合,04099|东赵布小楼南综合,东赵布村北农业1号【纯农排变】,04126|魏佐村东新增综合,东赵堡村西新增,04098|东赵布村南综合,东赵布村北农业3号【纯农排变】,04095|东赵布新增综合,魏浩洋,04110|东赵布村西南综合,任丘市华北石油科信采油技术研究开发有限公司变压器,高阳县玖润纺织品变压器,东赵布村东农业1号【纯农排变】,04109|东赵布小楼北综合,高阳县恒诺纺织厂变压器,东赵布西南新增综合,东赵布西南农业1号【纯农排变】,东赵布东北农业1号【纯农排变】,","scope":"【影响街道/乡镇】西演镇 【高危重要客户】无 【影响客户】东赵堡村（东赵布村）、赵堡店（赵布店）、魏家佐村","startTime":"2018-06-13 06:00:00","stopDate":"2018-06-13 21:00:00","orgNo":"1340613","typeCode":"临时停电","poweroffArea":"【全线路停电】停04126|魏佐村东新增综合,04099|东赵布小楼南综合,东赵布村北农业1号【纯农排变】,04096|东赵堡村东综合,东赵布朝阳毛巾厂,任丘市华北石油科信采油技术研究开发有限公司变压器,双吉纺织有限责任公司2,双吉纺织有限责任公司1,04107|东赵布村西综合,东赵布村里变压器,东赵布村北农业2号【纯农排变】,东赵堡村西新增,04110|东赵布村西南综合,高阳县玖润纺织品变压器,东赵布村东农业1号【纯农排变】,04095|东赵布新增综合,魏浩洋,东赵布东北农业1号【纯农排变】,04109|东赵布小楼北综合,东赵布西南农业1号【纯农排变】,04098|东赵布村南综合,高阳县恒诺纺织厂变压器,东赵布村北农业3号【纯农排变】,东赵布西南新增综合,东赵布西北农业1号【纯农排变】,中国石油天然气股份有限公司华北油田分公司变压器,04120|东赵堡村东北综合,04097|东赵布东南综合,04108|东赵布北综合,04094|东赵布村大队综合","poweroffReason":"【停电原因】由于换杆换线导致３５ＫＶ魏家佐变电站凤华５１４线路全线停电【变更送电】无【发布渠道】９５５９８","powerTime":"2018-06-13 20:20:16","powerComm":"已送电","subsNo":"","lineNo":"","tgNo":"","tgName":null,"infoStatus":"1","orgName":"国网高阳县供电公司","typeName":null,"infoStatusName":null,"dateDay":null,"orgNos":null,"nowTime":null,"countyName":null,"streetName":null,"villageName":null,"roadName":null,"communityName":null,"tranName":null,"sdLineName":null,"cityCode":"1340613","cityName":"国网高阳县供电公司","provinceCode":null,"stopTime":"2018-06-13 21:00:00","powerType":"全部","powerOffArea":"【全线路停电】停04126|魏佐村东新增综合,04099|东赵布小楼南综合,东赵布村北农业1号【纯农排变】,04096|东赵堡村东综合,东赵布朝阳毛巾厂,任丘市华北石油科信采油技术研究开发有限公司变压器,双吉纺织有限责任公司2,双吉纺织有限责任公司1,04107|东赵布村西综合,东赵布村里变压器,东赵布村北农业2号【纯农排变】,东赵堡村西新增,04110|东赵布村西南综合,高阳县玖润纺织品变压器,东赵布村东农业1号【纯农排变】,04095|东赵布新增综合,魏浩洋,东赵布东北农业1号【纯农排变】,04109|东赵布小楼北综合,东赵布西南农业1号【纯农排变】,04098|东赵布村南综合,高阳县恒诺纺织厂变压器,东赵布村北农业3号【纯农排变】,东赵布西南新增综合,东赵布西北农业1号【纯农排变】,中国石油天然气股份有限公司华北油田分公司变压器,04120|东赵堡村东北综合,04097|东赵布东南综合,04108|东赵布北综合,04094|东赵布村大队综合","powerOffReason":"【停电原因】由于换杆换线导致３５ＫＶ魏家佐变电站凤华５１４线路全线停电【变更送电】无【发布渠道】９５５９８","powerOffId":"2018061113000300"},{"poweroffId":2018061113000289,"sgpoweroffId":null,"subsName":"","lineName":"10kV548北王线","pubTranName":"陈村综合1台区,","scope":"【影响街道/乡镇】蠡吾镇【高危重要客户】无【影响客户】陈村（北陈村）","startTime":"2018-06-19 06:00:00","stopDate":"2018-06-19 19:30:00","orgNo":"1340616","typeCode":"临时停电","poweroffArea":"【单台区停电】停陈村综合1台区","poweroffReason":"【停电原因】由于更换导线导致１１０ＫＶ中滑变电站１０ＫＶ北王５４８线路陈村综合１公变台区停电【变更送电】无【发布渠道】通过９５５９８发布","powerTime":"2018-06-19 18:42:01","powerComm":"已送电","subsNo":"","lineNo":"","tgNo":"","tgName":null,"infoStatus":"1","orgName":"国网蠡县供电公司","typeName":null,"infoStatusName":null,"dateDay":null,"orgNos":null,"nowTime":null,"countyName":null,"streetName":null,"villageName":null,"roadName":null,"communityName":null,"tranName":null,"sdLineName":null,"cityCode":"1340616","cityName":"国网蠡县供电公司","provinceCode":null,"stopTime":"2018-06-19 19:30:00","powerType":"全部","powerOffArea":"【单台区停电】停陈村综合1台区","powerOffReason":"【停电原因】由于更换导线导致１１０ＫＶ中滑变电站１０ＫＶ北王５４８线路陈村综合１公变台区停电【变更送电】无【发布渠道】通过９５５９８发布","powerOffId":"2018061113000289"},{"poweroffId":2018061113000272,"sgpoweroffId":null,"subsName":"","lineName":"10kV549工业区西线","pubTranName":"北常丰3520|20003520,北尧城350#农业|20000350【纯农排变】,北常丰新增农业6号（TD）2383【纯农排变】,西尧城学校混用8950|20008950,西尧城8480#农业|20008480【纯农排变】,南尧城20010340,南尧城村北农排【纯农排变】,北常丰奶牛厂7880#农排|20007880【纯农排变】,南常丰8260,南常丰8690|20008690,中国移动河北公司顺平分公司,北常丰地板革厂,北尧城8530#农业|20008530【纯农排变】,公路养护综合3440#|20003440,南常丰村南新增农业2号5915【纯农排变】,东尧城240#农排|20000240【纯农排变】,南尧城新增1号综合8363,霍家关南农业7359【纯农排变】,北常丰8770#农排|20008770【纯农排变】,霍家关东农业8926【纯农排变】,西尧城1号1234,南常丰620|20000620,北常丰新增农业3号（TD）1439【纯农排变】,西尧城8940|20008940,构件厂,南常丰村南农业东7924【纯农排变】,西尧城新增综合7227,北常丰新增农业2号（TD）1437【纯农排变】,西尧城4800#农业|20004800【纯农排变】,南常丰410#农业|20000410【纯农排变】,南常丰390#农业|20000390【纯农排变】,南常丰570|20000570,南尧城270#农排|20000270【纯农排变】,魏爱军混用8230|20008230,西尧城12160|20010260,西尧城0280|20000280,南尧城260#农排|20000260【纯农排变】,东尧城9620#农排|20009620【纯农排变】,路灯变压器3号8379,西尧城2号2345,北常丰新增1号7870,北常丰新增农业7号（TD）1452【纯农排变】,西尧城300#农业|20000300【纯农排变】,北常丰新10310|20010310,北尧城340#农业|20000340【纯农排变】,南尧城1号农排【纯农排变】,512南常丰村南新增综合4338,512南常丰村北新增综合4340,东尧城3460#农排|20003460【纯农排变】,顺平县华康肠衣厂,南常丰420#农业|20000420【纯农排变】,南尧城新增农业5565【纯农排变】,北尧城650#农排|20000650【纯农排变】,西尧城290#农业|20000290【纯农排变】,南常丰8210#农业|20008210【纯农排变】,四红鸡厂8060#农排|20008060【纯农排变】,南常丰牛厂8250#农排|20008250【纯农排变】,0469126176-保定申成路桥有限责任公司高速公路养护中心-专变-46723613-保定市保阜高速公路筹建处,东尧城9640#农排|20009640【纯农排变】,北常丰新增农业8号（TD）2387【纯农排变】,北常丰新增综合1389,北常丰新增农业1号（TD）1435【纯农排变】,北尧城8490#农业|20008490【纯农排变】,北常丰新增农业4号（TD）1441【纯农排变】,南常丰8670|20008670,西尧城8830|","scope":"【影响街道/乡镇】蒲阳镇【高危重要客户】无【影响客户】南尧城、西尧城、北尧城、南常丰、北常丰、霍家关、南环公路养护中心","startTime":"2018-06-11 14:53:04","stopDate":"2018-06-11 20:00:00","orgNo":"1340621","typeCode":"电网故障停限电","poweroffArea":"【全线路停电】停512南常丰村南新增综合4338,西尧城新增综合7227,南常丰570|20000570,北尧城8530#农业|20008530【纯农排变】,霍家关南农业7359【纯农排变】,路灯变压器3号8379,魏爱军混用8230|20008230,北尧城350#农业|20000350【纯农排变】,西尧城8480#农业|20008480【纯农排变】,西尧城8940|20008940,北常丰奶牛厂7880#农排|20007880【纯农排变】,南尧城20010340,南常丰8680|20008680,北常丰8770#农排|20008770【纯农排变】,南尧城1号农排【纯农排变】,0469126176-保定申成路桥有限责任公司高速公路养护中心-专变-46723613-保定市保阜高速公路筹建处,北常丰新增农业5号（TD）1444【纯农排变】,南常丰380|20000380,南常丰村南新增农业2号5915【纯农排变】,南常丰370综合|20000370,南常丰400#农业|20000400【纯农排变】,南常丰390#农业|20000390【纯农排变】,南常丰420#农业|20000420【纯农排变】,南尧城260#农排|20000260【纯农排变】,512南常丰村北新增综合4340,公路养护综合3440#|20003440,北常丰新增农业8号（TD）2387【纯农排变】,南常丰8670|20008670,东尧城9640#农排|20009640【纯农排变】,西尧城290#农业|20000290【纯农排变】,南常丰410#农业|20000410【纯农排变】,北常丰新增农业3号（TD）1439【纯农排变】,东尧城9620#农排|20009620【纯农排变】,西尧城0280|20000280,南尧城新增农业5565【纯农排变】,西尧城2号2345,北常丰新10310|20010310,北常丰新增农业6号（TD）2383【纯农排变】,西尧城4800#农业|20004800【纯农排变】,南常丰8690|20008690,北常丰3530#农排|20003530【纯农排变】,北常丰新增1号7870,北尧城650#农排|20000650【纯农排变】,南常丰8260,南尧城新增1号综合8363,北常丰新增农业1号（TD）1435【纯农排变】","poweroffReason":"【停电原因】由于四红鸡厂变压器烧毁导致２２０ＫＶ吴家庄变电站１０ＫＶ５４９工业区西线路全线停电【变更送电】无【发布渠道】通过９５５９８发布","powerTime":"2018-06-11 19:20:51","powerComm":"已送电","subsNo":"","lineNo":"","tgNo":"","tgName":null,"infoStatus":"1","orgName":"国网顺平县电力局","typeName":null,"infoStatusName":null,"dateDay":null,"orgNos":null,"nowTime":null,"countyName":null,"streetName":null,"villageName":null,"roadName":null,"communityName":null,"tranName":null,"sdLineName":null,"cityCode":"1340621","cityName":"国网顺平县电力局","provinceCode":null,"stopTime":"2018-06-11 20:00:00","powerType":"全部","powerOffArea":"【全线路停电】停512南常丰村南新增综合4338,西尧城新增综合7227,南常丰570|20000570,北尧城8530#农业|20008530【纯农排变】,霍家关南农业7359【纯农排变】,路灯变压器3号8379,魏爱军混用8230|20008230,北尧城350#农业|20000350【纯农排变】,西尧城8480#农业|20008480【纯农排变】,西尧城8940|20008940,北常丰奶牛厂7880#农排|20007880【纯农排变】,南尧城20010340,南常丰8680|20008680,北常丰8770#农排|20008770【纯农排变】,南尧城1号农排【纯农排变】,0469126176-保定申成路桥有限责任公司高速公路养护中心-专变-46723613-保定市保阜高速公路筹建处,北常丰新增农业5号（TD）1444【纯农排变】,南常丰380|20000380,南常丰村南新增农业2号5915【纯农排变】,南常丰370综合|20000370,南常丰400#农业|20000400【纯农排变】,南常丰390#农业|20000390【纯农排变】,南常丰420#农业|20000420【纯农排变】,南尧城260#农排|20000260【纯农排变】,512南常丰村北新增综合4340,公路养护综合3440#|20003440,北常丰新增农业8号（TD）2387【纯农排变】,南常丰8670|20008670,东尧城9640#农排|20009640【纯农排变】,西尧城290#农业|20000290【纯农排变】,南常丰410#农业|20000410【纯农排变】,北常丰新增农业3号（TD）1439【纯农排变】,东尧城9620#农排|20009620【纯农排变】,西尧城0280|20000280,南尧城新增农业5565【纯农排变】,西尧城2号2345,北常丰新10310|20010310,北常丰新增农业6号（TD）2383【纯农排变】,西尧城4800#农业|20004800【纯农排变】,南常丰8690|20008690,北常丰3530#农排|20003530【纯农排变】,北常丰新增1号7870,北尧城650#农排|20000650【纯农排变】,南常丰8260,南尧城新增1号综合8363,北常丰新增农业1号（TD）1435【纯农排变】","powerOffReason":"【停电原因】由于四红鸡厂变压器烧毁导致２２０ＫＶ吴家庄变电站１０ＫＶ５４９工业区西线路全线停电【变更送电】无【发布渠道】通过９５５９８发布","powerOffId":"2018061113000272"},{"poweroffId":2018061113000250,"sgpoweroffId":null,"subsName":"","lineName":"防陵线515","pubTranName":"防陵29号,防陵31号,防陵22号【纯农排变】,防陵10号,防陵16号【纯农排变】,防陵21号【纯农排变】,防陵26号【纯农排变】,防陵18号【纯农排变】,防陵4号【纯农排变】,小因14号【纯农排变】,小因13号【纯农排变】,防陵14号【纯农排变】,防陵1号【纯农排变】,防陵15号【纯农排变】,防陵12号【纯农排变】,防陵8号【纯农排变】,防陵24号【纯农排变】,防陵17号【纯农排变】,小因8号,防陵28号,防陵13号【纯农排变】,防陵23号【纯农排变】,防陵3号,防陵27号,","scope":"【影响街道/乡镇】大因镇 【高危重要客户】无 【影响客户】防凌村、小因村","startTime":"2018-06-19 07:00:00","stopDate":"2018-06-19 15:00:00","orgNo":"1340605","typeCode":"临时停电","poweroffArea":"【分支停电】停防陵22号【纯农排变】,防陵14号【纯农排变】,防陵10号,防陵1号【纯农排变】,防陵31号,防陵16号【纯农排变】,防陵15号【纯农排变】,防陵12号【纯农排变】,防陵21号【纯农排变】,防陵8号【纯农排变】,防陵26号【纯农排变】,防陵24号【纯农排变】,防陵18号【纯农排变】,防陵17号【纯农排变】,防陵4号【纯农排变】,小因8号,防陵28号,小因14号【纯农排变】,小因13号【纯农排变】,防陵13号【纯农排变】,防陵23号【纯农排变】,防陵29号,防陵3号,防陵27号","poweroffReason":"【停电原因】由于线路检修导致３５ＫＶ大因变电站防凌线５１５线路１１２号杆分段开关以下线路停电 【变更送电】无 【发布渠道】通过９５５９８发布","powerTime":"2018-06-19 14:52:33","powerComm":"已送电","subsNo":"","lineNo":"","tgNo":"","tgName":null,"infoStatus":"1","orgName":"国网徐水县供电公司","typeName":null,"infoStatusName":null,"dateDay":null,"orgNos":null,"nowTime":null,"countyName":null,"streetName":null,"villageName":null,"roadName":null,"communityName":null,"tranName":null,"sdLineName":null,"cityCode":"1340605","cityName":"国网徐水县供电公司","provinceCode":null,"stopTime":"2018-06-19 15:00:00","powerType":"全部","powerOffArea":"【分支停电】停防陵22号【纯农排变】,防陵14号【纯农排变】,防陵10号,防陵1号【纯农排变】,防陵31号,防陵16号【纯农排变】,防陵15号【纯农排变】,防陵12号【纯农排变】,防陵21号【纯农排变】,防陵8号【纯农排变】,防陵26号【纯农排变】,防陵24号【纯农排变】,防陵18号【纯农排变】,防陵17号【纯农排变】,防陵4号【纯农排变】,小因8号,防陵28号,小因14号【纯农排变】,小因13号【纯农排变】,防陵13号【纯农排变】,防陵23号【纯农排变】,防陵29号,防陵3号,防陵27号","powerOffReason":"【停电原因】由于线路检修导致３５ＫＶ大因变电站防凌线５１５线路１１２号杆分段开关以下线路停电 【变更送电】无 【发布渠道】通过９５５９８发布","powerOffId":"2018061113000250"},{"poweroffId":2018061113000218,"sgpoweroffId":null,"subsName":"","lineName":"马村线542","pubTranName":"西马一村一台区,","scope":"【影响街道/乡镇】寨里乡 【高危重要客户】无 【影响客户】西马一村","startTime":"2018-06-11 11:24:49","stopDate":"2018-06-11 13:00:00","orgNo":"1340607","typeCode":"电网故障停限电","poweroffArea":"【单台区停电】停西马一村一台区","poweroffReason":"【停电原因】由于低压线断导致３５ＫＶ建昌变电站马村线５４２线路西马一村一公变台区停电 【变更送电】无 【发布渠道】通过９５５９８发布","powerTime":"2018-06-11 12:54:43","powerComm":"已送电","subsNo":"","lineNo":"","tgNo":"","tgName":null,"infoStatus":"1","orgName":"(原)国网安新县供电公司","typeName":null,"infoStatusName":null,"dateDay":null,"orgNos":null,"nowTime":null,"countyName":null,"streetName":null,"villageName":null,"roadName":null,"communityName":null,"tranName":null,"sdLineName":null,"cityCode":"1340607","cityName":"(原)国网安新县供电公司","provinceCode":null,"stopTime":"2018-06-11 13:00:00","powerType":"全部","powerOffArea":"【单台区停电】停西马一村一台区","powerOffReason":"【停电原因】由于低压线断导致３５ＫＶ建昌变电站马村线５４２线路西马一村一公变台区停电 【变更送电】无 【发布渠道】通过９５５９８发布","powerOffId":"2018061113000218"},{"poweroffId":2018061113000194,"sgpoweroffId":null,"subsName":"","lineName":"李家营524","pubTranName":"华欣水泥2,李凯风机厂西,高碑店市华彩装订有限公司变压器,石家庄2#公变变压器,贾志明,华欣水泥,李中新,建安公司,","scope":"【影响街道/乡镇】东盛办事处 【高危重要客户】无 【影响客户】经济开发管理委员会、京津风机厂、平生环保设备制造有限公司、贾志明、李中新、华欣水泥、建安公司菜园、海宏工业有限公司、华强制冷工程高碑店分公司、北京风机四厂、华彩装订有限责任公司、石家庄小区、高桂茹","startTime":"2018-06-13 03:00:00","stopDate":"2018-06-13 08:00:00","orgNo":"1340612","typeCode":"临时停电","poweroffArea":"【分支停电】停高碑店市华彩装订有限公司变压器,李中新,贾志明,李凯风机厂西,华欣水泥2,建安公司,华欣水泥,石家庄2#公变变压器","poweroffReason":"【停电原因】由于平生环保变台电源接引导致１１０ＫＶ马庄变电站１０ＫＶ李家营５２４线路０４号断路器以下停电 【变更送电】无 【发布渠道】通过９５５９８发布","powerTime":"2018-06-13 07:42:55","powerComm":"已送电","subsNo":"","lineNo":"","tgNo":"","tgName":null,"infoStatus":"1","orgName":"国网高碑店市供电公司","typeName":null,"infoStatusName":null,"dateDay":null,"orgNos":null,"nowTime":null,"countyName":null,"streetName":null,"villageName":null,"roadName":null,"communityName":null,"tranName":null,"sdLineName":null,"cityCode":"1340612","cityName":"国网高碑店市供电公司","provinceCode":null,"stopTime":"2018-06-13 08:00:00","powerType":"全部","powerOffArea":"【分支停电】停高碑店市华彩装订有限公司变压器,李中新,贾志明,李凯风机厂西,华欣水泥2,建安公司,华欣水泥,石家庄2#公变变压器","powerOffReason":"【停电原因】由于平生环保变台电源接引导致１１０ＫＶ马庄变电站１０ＫＶ李家营５２４线路０４号断路器以下停电 【变更送电】无 【发布渠道】通过９５５９８发布","powerOffId":"2018061113000194"}],"pageModel":{"pageNow":1008,"totalCount":10973,"totalPage":1098,"tableRows":0,"pageCount":10,"beginCount":10070},"isExperi":"1"}