{"message":"","today":"2020-06-15","seleList":[{"poweroffId":2018061113000064,"sgpoweroffId":null,"subsName":"","lineName":"黄土岗线515","pubTranName":"0469333217-涞源县奥瑞矿业有限公司-专变-46777792-冀豫选厂,涞源县中凯矿业有限责任公司变压器,龙青峰矿山,0469333392-杨占玉-专变-46777800-杨占玉,龙腾选厂,中凯401,涞源碧溪矿业公司,高庆合矿山,大庄04台区变压器,中凯矿业402,张家口矿山,奥瑞矿业,中凯矿业(10),中凯矿业401,0636586291-涞源县大庄刘福增铅锌矿-专变-148260402-涞源县大庄刘福增铅锌矿变压器,中凯矿业16,0469332807-涞源县甸子梁马连稿庆合铅锌矿-专变-46777764-李南冰矿山,玉鑫矿山,","scope":"【影响街道/乡镇】乌龙沟乡【高危重要客户】无【影响客户】大庄村","startTime":"2018-06-11 08:05:31","stopDate":"2018-06-11 09:30:00","orgNo":"1340615","typeCode":"电网故障停限电","poweroffArea":"【全线路停电】停龙腾选厂,0469333392-杨占玉-专变-46777800-杨占玉,中凯矿业401,中凯矿业(10),中凯401,0469333217-涞源县奥瑞矿业有限公司-专变-46777792-冀豫选厂,0636586291-涞源县大庄刘福增铅锌矿-专变-148260402-涞源县大庄刘福增铅锌矿变压器,大庄04台区变压器,中凯矿业16,中凯矿业402,涞源碧溪矿业公司,涞源县中凯矿业有限责任公司变压器,0469332807-涞源县甸子梁马连稿庆合铅锌矿-专变-46777764-李南冰矿山,龙青峰矿山,玉鑫矿山,张家口矿山,高庆合矿山,奥瑞矿业","poweroffReason":"【停电原因】由于王乌线３３１线路接地导致３５ＫＶ乌龙沟变电站黄土岗线５１５线路全线停电【变更送电】抢修进度加快，原定１４：０４送电现计划０９：３０送电。【发布渠道】通过９５５９８发布","powerTime":"2018-06-11 09:13:13","powerComm":"已送电","subsNo":"","lineNo":"","tgNo":"","tgName":null,"infoStatus":"1","orgName":"国网涞源县供电公司","typeName":null,"infoStatusName":null,"dateDay":null,"orgNos":null,"nowTime":null,"countyName":null,"streetName":null,"villageName":null,"roadName":null,"communityName":null,"tranName":null,"sdLineName":null,"cityCode":"1340615","cityName":"国网涞源县供电公司","provinceCode":null,"stopTime":"2018-06-11 09:30:00","powerType":"全部","powerOffArea":"【全线路停电】停龙腾选厂,0469333392-杨占玉-专变-46777800-杨占玉,中凯矿业401,中凯矿业(10),中凯401,0469333217-涞源县奥瑞矿业有限公司-专变-46777792-冀豫选厂,0636586291-涞源县大庄刘福增铅锌矿-专变-148260402-涞源县大庄刘福增铅锌矿变压器,大庄04台区变压器,中凯矿业16,中凯矿业402,涞源碧溪矿业公司,涞源县中凯矿业有限责任公司变压器,0469332807-涞源县甸子梁马连稿庆合铅锌矿-专变-46777764-李南冰矿山,龙青峰矿山,玉鑫矿山,张家口矿山,高庆合矿山,奥瑞矿业","powerOffReason":"【停电原因】由于王乌线３３１线路接地导致３５ＫＶ乌龙沟变电站黄土岗线５１５线路全线停电【变更送电】抢修进度加快，原定１４：０４送电现计划０９：３０送电。【发布渠道】通过９５５９８发布","powerOffId":"2018061113000064"},{"poweroffId":2018061113000060,"sgpoweroffId":null,"subsName":"","lineName":"大庄线512","pubTranName":"乌龙沟铅锌选厂,马台村3台区,马台村2台区,昶达公司,大庄02台区,津源铅锌矿,北赵家庄01台区,冯富矿山,黄安养猪厂,邓庄04台区【三批中心村】,北赵家庄03台区,龙利达铅锌选厂,涞源县恒牛矿业有限公司变压器,邓庄02台区【三批中心村】,【光伏】马台村光伏变压器,0469332924-涞源县中凯矿业有限责任公司第四分公司-专变-46777846-中凯矿业有限公司(7),乌龙沟铅锌选厂水,涞源县金豪矿业有限公司 变压器,王清艳选厂,魏志强铁选,0469332810-涞源县中凯矿业有限责任公司-专变-46777801-中凯公司(新3号)(11),乌龙沟矿山,大庄刘福增铅锌矿1,马台村05台区,马台村04台区,大庄台区08台区,小庄迁建区3【三批中心村】,涞源中凯矿业公司(4),邓庄01台区【三批中心村】,0469333204-魏志强铁选-专变-46777788-魏志强铁选,邓庄02台区【三批中心村】,北赵家庄05台区,大庄03台区,北赵家庄04台区,北赵庄铜选厂,小庄村03台区,涞源县德林铅锌选矿厂变压器,大庄06台区,大庄05台区,中凯矿业有限公司(1),涞源县杨六养殖场变压器,北赵家庄02台区,大庄刘福增铅锌矿,0469332924-涞源县中凯矿业有限责任公司第四分公司-专变-47896321-中凯矿业有限公司（7）,冯付,涞源中凯矿业5,小庄村04台区,乌龙沟512大庄01,邓庄03台区,金泰铅锌选矿厂,涞源县乌龙沟乡邓家庄村村民委员会变压器,大庄村07台区,0469332445-涞源县兰光铅锌矿-专变-46777759-涞源县兰光铅锌矿3,小庄迁建区2【三批中心村】,周月军矿山,冀豫铅锌矿,小庄迁建区1【三批中心村】,小庄村01台区,小庄村02台区,中凯矿业变压器,马台01台区,魏志强,乾鑫选厂,涞源县乌龙沟乡小庄村村民委员会变压器,龙利达铅锌选厂,涞源县乌龙沟乡邓家庄村村民委员会变压器,涞源县恒牛矿业有限公司变压器,北赵家庄04台区,马台村2台区,小庄村03台区,涞源县德林铅锌选矿厂变压器,大庄06台区,","scope":"【影响街道/乡镇】乌龙沟乡【高危重要客户】无【影响客户】马台村、马台村学校、赵庄村、邓庄村、小庄村、小庄村学校、大庄村、大庄村学校","startTime":"2018-06-11 08:01:54","stopDate":"2018-06-11 09:30:00","orgNo":"1340615","typeCode":"电网故障停限电","poweroffArea":"【全线路停电】停涞源中凯矿业公司(4),乌龙沟铅锌选厂,邓庄01台区【三批中心村】,马台村3台区,乾鑫选厂,津源铅锌矿,涞源中凯矿业5,北赵家庄01台区,涞源县乌龙沟乡小庄村村民委员会变压器,大庄05台区,小庄村04台区,昶达公司,乌龙沟512大庄01,邓庄03台区,小庄村01台区,金泰铅锌选矿厂,小庄村02台区,龙利达铅锌选厂,小庄迁建区1【三批中心村】,涞源县乌龙沟乡邓家庄村村民委员会变压器,大庄02台区,涞源县恒牛矿业有限公司变压器,中凯矿业有限公司(1),邓庄02台区【三批中心村】,北赵家庄04台区,涞源县杨六养殖场变压器,大庄06台区,冯富矿山,小庄村03台区,黄安养猪厂,马台村2台区,北赵庄铜选厂,邓庄04台区【三批中心村】,大庄村07台区,马台村05台区,0469332445-涞源县兰光铅锌矿-专变-46777759-涞源县兰光铅锌矿3,马台村04台区,王清艳选厂,小庄迁建区2【三批中心村】,北赵家庄03台区,涞源县德林铅锌选矿厂变压器,周月军矿山,冀豫铅锌矿,魏志强铁选,乌龙沟铅锌选厂水,0469332810-涞源县中凯矿业有限责任公司-专变-46777801-中凯公司(新3号)(11),乌龙沟矿山,涞源县金豪矿业有限公司 变压器,中凯矿业变压器,大庄刘福增铅锌矿1,马台01台区,北赵家庄02台区,北赵家庄05台区,大庄刘福增铅锌矿,大庄03台区,0469332924-涞源县中凯矿业有限责任公司第四分公司-专变-47896321-中凯矿业有限公司（7）,冯付,【光伏】马台村光伏变压器,魏志强,0469332924-涞源县中凯矿业有限责任公司第四分公司-专变-46777846-中凯矿业有限公司(7),大庄台区08台区,小庄迁建区3【三批中心村】,0469333204-魏志强铁选-专变-46777788-魏志强铁选","poweroffReason":"【停电原因】由于王乌线３３１线路接地导致３５ＫＶ乌龙沟变电站大庄线５１２线路全线停电【变更送电】因抢修进度加快，原定１４：００送电现计划０９：３０送电。【发布渠道】通过９５５９８发布","powerTime":"2018-06-11 09:12:37","powerComm":"已送电","subsNo":"","lineNo":"","tgNo":"","tgName":null,"infoStatus":"1","orgName":"国网涞源县供电公司","typeName":null,"infoStatusName":null,"dateDay":null,"orgNos":null,"nowTime":null,"countyName":null,"streetName":null,"villageName":null,"roadName":null,"communityName":null,"tranName":null,"sdLineName":null,"cityCode":"1340615","cityName":"国网涞源县供电公司","provinceCode":null,"stopTime":"2018-06-11 09:30:00","powerType":"全部","powerOffArea":"【全线路停电】停涞源中凯矿业公司(4),乌龙沟铅锌选厂,邓庄01台区【三批中心村】,马台村3台区,乾鑫选厂,津源铅锌矿,涞源中凯矿业5,北赵家庄01台区,涞源县乌龙沟乡小庄村村民委员会变压器,大庄05台区,小庄村04台区,昶达公司,乌龙沟512大庄01,邓庄03台区,小庄村01台区,金泰铅锌选矿厂,小庄村02台区,龙利达铅锌选厂,小庄迁建区1【三批中心村】,涞源县乌龙沟乡邓家庄村村民委员会变压器,大庄02台区,涞源县恒牛矿业有限公司变压器,中凯矿业有限公司(1),邓庄02台区【三批中心村】,北赵家庄04台区,涞源县杨六养殖场变压器,大庄06台区,冯富矿山,小庄村03台区,黄安养猪厂,马台村2台区,北赵庄铜选厂,邓庄04台区【三批中心村】,大庄村07台区,马台村05台区,0469332445-涞源县兰光铅锌矿-专变-46777759-涞源县兰光铅锌矿3,马台村04台区,王清艳选厂,小庄迁建区2【三批中心村】,北赵家庄03台区,涞源县德林铅锌选矿厂变压器,周月军矿山,冀豫铅锌矿,魏志强铁选,乌龙沟铅锌选厂水,0469332810-涞源县中凯矿业有限责任公司-专变-46777801-中凯公司(新3号)(11),乌龙沟矿山,涞源县金豪矿业有限公司 变压器,中凯矿业变压器,大庄刘福增铅锌矿1,马台01台区,北赵家庄02台区,北赵家庄05台区,大庄刘福增铅锌矿,大庄03台区,0469332924-涞源县中凯矿业有限责任公司第四分公司-专变-47896321-中凯矿业有限公司（7）,冯付,【光伏】马台村光伏变压器,魏志强,0469332924-涞源县中凯矿业有限责任公司第四分公司-专变-46777846-中凯矿业有限公司(7),大庄台区08台区,小庄迁建区3【三批中心村】,0469333204-魏志强铁选-专变-46777788-魏志强铁选","powerOffReason":"【停电原因】由于王乌线３３１线路接地导致３５ＫＶ乌龙沟变电站大庄线５１２线路全线停电【变更送电】因抢修进度加快，原定１４：００送电现计划０９：３０送电。【发布渠道】通过９５５９８发布","powerOffId":"2018061113000060"},{"poweroffId":2018061113000057,"sgpoweroffId":null,"subsName":"","lineName":"东团堡线511","pubTranName":"511东团堡线干之营,511东团堡线峙院沟,候家沟村光伏变压器【光伏】,涞源县东团堡乡卫生院变压器,北辛庄迁建区1号配变【三批中心村】,中国移动通信集团河北有限公司涞源分公司变压器,511东团堡线养老河,卸甲沟迁建区2号配变【三批中心村】,511东团堡线甸坡,北李庄村光伏变压器【光伏】,侯家沟迁建区2号配变【三批中心村】,511东团堡线扦树底村,511东团堡线卸甲沟2号,511东团堡线梁家庄2号,511东团堡线杆树底,卸甲沟村光伏变压器【光伏】,涞源县东团堡乡北辛庄村村民委员会变压器,涞源县刘振明选厂变压器,511东团堡线汤子岭西变,保定中和土地整理有限公司变压器,511东团堡线东坡南,511东团堡线老营沟2号,511东团堡线杨庄村,511东团堡线五节崖,511东团堡线王家湾,西团堡站511袁家村水力,511东团堡线旧葫芦河村,涞源县马泉养殖场变压器,511东团堡线王家湾2,红花峪迁建区2号配变【三批中心村】,涞源县公安局东团堡派出所变压器,511东团堡线桃木疙瘩,511东团堡线东团堡卫生院,511东团堡线老营沟,涞源县宇安房地产开发有限公司变压器,511东团堡线磨峪沟变压器,中国移动通信集团河北有限公司涞源,王家湾村光伏变压器【光伏】,511东团堡线东团堡乡中,511东团堡线南石塘,511东团堡线汤子岭东变,511东团堡线箭干河,唐满多金属探矿区,511东团堡线连巴岭,变压器,北辛庄迁建区3号配变【三批中心村】,涞源县东团堡乡北王家湾村村民委员会变压器,北辛庄村光伏变压器【光伏】,河北建设集团股份有限公司变压器,511东团堡线南窑变压器,511东团堡线水磨滩,511东团堡线石山子,511东团堡线东团堡村变,511东团堡线流水沟,0654981872-涞源县禄可伟沙石经销处-专变-183768866-涞源县禄可伟沙石经销处变压器,龙泉矿业西梁铁矿,511东团堡线袁家村变压器,511东团堡线新葫芦河,511东团堡线红花峪,东团堡镇政府【煤改电】,涞源县问客东方有机农庄变压器,511东团堡线北台村,511东团堡线东坡水利,511东团堡线东团堡小学,511东团堡线梁家庄,511东团堡线西团堡西变,涞源首奥新能源发电有限公司变压器,511东团堡线东团堡南变,511东团堡线养老河2台区,涞源县沃强土地整理有限公司变压器,红花峪迁建区1号配变【三批中心村】,511东团堡线渔场,老营沟沙场,袁家村3号变压器,511东团堡线东台沟,侯家沟迁建区1号配变【三批中心村】,涞源县东团堡乡北辛庄村民委员会变压器,511东团堡线老营沟3号,孙景润沙石厂,涞源县东团堡乡红花峪村村民委员会变压器,河北省涞源县东团堡中学变压器,511东团堡线大道变压器,卸甲沟迁建区1号配变【三批中心村】,联通保定分公司,511东团堡线东坡北变,涞源县东团堡乡中心小学变压器,511东团堡线东团堡8号台区,国网河北省电力公司涞源县供电分公司(东团堡所)变压器,511东团堡线一倾地村,511东团堡线西团堡东变,511东团堡线槽碾,511东团堡线东团堡北变,511东团堡线东团堡6号台区,511东团堡线北幸庄村,511东团堡线卸甲沟变压器,511东团堡线北力庄,511东团堡线","scope":"【影响街道/乡镇】东团堡乡【高危重要客户】无【影响客户】汤之岭村、西团堡村、养老河、王家湾村、扦树底、水沟村、袁家村、五节崖村、水磨滩村、老营沟村、梁家庄、东团堡村、东团堡小学、东团堡乡中、东团堡卫生院、北辛庄村、北台村、石山子村、东坡村、红花峪、连巴岭村、山羊池村、干之营村、大道村、南窑村、卸甲沟村、杨庄村、北李庄村、新葫芦河村、旧葫芦河村、甸坡村、桃木疙瘩村、南石塘村、东台沟村、流水沟、曹年村、峙院沟村、一倾地村、三台岭村、箭干河村","startTime":"2018-06-11 08:01:39","stopDate":"2018-06-11 09:30:00","orgNo":"1340615","typeCode":"电网故障停限电","poweroffArea":"【全线路停电】停511东团堡线养老河2台区,老营沟沙场,511东团堡线王家湾2,河北建设集团股份有限公司变压器,中国移动通信集团河北有限公司涞源分公司变压器,511东团堡线北幸庄村,511东团堡线养老河,511东团堡线东坡北变,511东团堡线桃木疙瘩,保定中和土地整理有限公司变压器,511东团堡线石山子2号,卸甲沟村光伏变压器【光伏】,511东团堡线扦树底村,511东团堡线南石塘,511东团堡线袁家村1#,511东团堡线水磨滩,511东团堡线袁家村变压器,511东团堡线东团堡南1,涞源县松景润砂石料有限公司变压器,变压器,511东团堡线梁家庄2号,511东团堡线杆树底,511东团堡线西团堡东变,511东团堡线连巴岭,511东团堡线王家湾,511东团堡线磨峪沟变压器,511东团堡线峙院沟,涞源县沃强土地整理有限公司变压器,511东团堡线东团堡卫生院,侯家沟迁建区2号配变【三批中心村】,511东团堡线东团堡小学,卸甲沟迁建区2号配变【三批中心村】,红花峪迁建区2号配变【三批中心村】,511东团堡线东团堡6号台区,511东团堡线渔场,511东团堡线山羊池,汤子岭村光伏变压器【光伏】,511东团堡线三台岭,0654981872-涞源县禄可伟沙石经销处-专变-183768866-涞源县禄可伟沙石经销处变压器,511东团堡线卸甲沟变压器,511东团堡线东坡南,涞源首奥新能源发电有限公司变压器,511东团堡线老营沟,国网河北省电力公司涞源县供电分公司(东团堡所)变压器,涞源县刘振明选厂变压器,511东团堡线东团堡村变,候家沟村光伏变压器【光伏】,511东团堡线流水沟,涞源县东团堡乡北王家湾村村民委员会变压器,北辛庄村光伏变压器【光伏】,511东团堡线槽碾,涞源县东团堡乡中心小学变压器,511东团堡线东坡水利,袁家村3号变压器,511东团堡线红花峪,511东团堡线箭干河,511东团堡线北力庄,涞源县东团堡乡北辛庄村民委员会变压器,511东团堡线梁家庄,511东团堡线石山子,511东团堡线新葫芦河,511东团堡线旧葫芦河村,涞源县东团堡乡北辛庄村村民委员会变压器,511东团堡线大道变压器,511东团堡线五节崖,侯家沟迁建区1号配变【三批中心村】,红花峪迁建区1号配变【三批中心村】,511东团堡线东团堡北变,通信集团河北有限公司,西团堡站511袁家村水力,涞源县东团堡乡红花峪村村民委员会变压器,511东团堡线东团堡南变,511东团堡线老营沟3号,北李庄村光伏变压器【光伏】,北辛庄迁建区3号配变【三批中心村】,511东团堡线水沟,涞源县公安局东团堡派出所变压器,511东团堡线西团堡西变,涞源县东团堡乡卫生院变压器,唐满多金属探矿区,511东团堡线一倾地村,涞源县宇安房地产开发有限公司变压器,卸甲沟迁建区1号配变【三批中心村】,龙泉矿业西梁铁矿,511东团堡线东团堡8号台区,511东团堡线汤子岭东变,511东团堡线卸甲沟2号,涞源县问客东方有机农庄变压器,东团堡村光伏变压器【光伏】,511东团堡线老营沟2号,北辛庄迁建区2号配变【三批中心村】,511东团堡线南窑变压器,511东团堡线东团堡乡中,王家湾村光伏变压器【光伏】,511东团堡线杨庄村,中国移动通信集团河北有限公司涞源,北辛庄迁建区4号配变【三批中心村】,东团堡镇政府【煤改电】,511东团堡线北台村,北辛庄迁建区1号配变【三批中心村】,511东团堡线东台沟,511东团堡线汤子岭西变,联通保定分公司,511东团堡线甸坡,孙景润沙石厂,河北省涞源县东团堡中学变压器,511东团堡线干之营,涞源县马泉养殖场变压器","poweroffReason":"【停电原因】由于王乌线３３１线路接地导致３５ＫＶ西团堡变电站东团堡线５１１线路全线停电【变更送电】因抢修进度加快，原定１４：００送电现计划０９：３０送电。【发布渠道】通过９５５９８发布","powerTime":"2018-06-11 09:12:58","powerComm":"已送电","subsNo":"","lineNo":"","tgNo":"","tgName":null,"infoStatus":"1","orgName":"国网涞源县供电公司","typeName":null,"infoStatusName":null,"dateDay":null,"orgNos":null,"nowTime":null,"countyName":null,"streetName":null,"villageName":null,"roadName":null,"communityName":null,"tranName":null,"sdLineName":null,"cityCode":"1340615","cityName":"国网涞源县供电公司","provinceCode":null,"stopTime":"2018-06-11 09:30:00","powerType":"全部","powerOffArea":"【全线路停电】停511东团堡线养老河2台区,老营沟沙场,511东团堡线王家湾2,河北建设集团股份有限公司变压器,中国移动通信集团河北有限公司涞源分公司变压器,511东团堡线北幸庄村,511东团堡线养老河,511东团堡线东坡北变,511东团堡线桃木疙瘩,保定中和土地整理有限公司变压器,511东团堡线石山子2号,卸甲沟村光伏变压器【光伏】,511东团堡线扦树底村,511东团堡线南石塘,511东团堡线袁家村1#,511东团堡线水磨滩,511东团堡线袁家村变压器,511东团堡线东团堡南1,涞源县松景润砂石料有限公司变压器,变压器,511东团堡线梁家庄2号,511东团堡线杆树底,511东团堡线西团堡东变,511东团堡线连巴岭,511东团堡线王家湾,511东团堡线磨峪沟变压器,511东团堡线峙院沟,涞源县沃强土地整理有限公司变压器,511东团堡线东团堡卫生院,侯家沟迁建区2号配变【三批中心村】,511东团堡线东团堡小学,卸甲沟迁建区2号配变【三批中心村】,红花峪迁建区2号配变【三批中心村】,511东团堡线东团堡6号台区,511东团堡线渔场,511东团堡线山羊池,汤子岭村光伏变压器【光伏】,511东团堡线三台岭,0654981872-涞源县禄可伟沙石经销处-专变-183768866-涞源县禄可伟沙石经销处变压器,511东团堡线卸甲沟变压器,511东团堡线东坡南,涞源首奥新能源发电有限公司变压器,511东团堡线老营沟,国网河北省电力公司涞源县供电分公司(东团堡所)变压器,涞源县刘振明选厂变压器,511东团堡线东团堡村变,候家沟村光伏变压器【光伏】,511东团堡线流水沟,涞源县东团堡乡北王家湾村村民委员会变压器,北辛庄村光伏变压器【光伏】,511东团堡线槽碾,涞源县东团堡乡中心小学变压器,511东团堡线东坡水利,袁家村3号变压器,511东团堡线红花峪,511东团堡线箭干河,511东团堡线北力庄,涞源县东团堡乡北辛庄村民委员会变压器,511东团堡线梁家庄,511东团堡线石山子,511东团堡线新葫芦河,511东团堡线旧葫芦河村,涞源县东团堡乡北辛庄村村民委员会变压器,511东团堡线大道变压器,511东团堡线五节崖,侯家沟迁建区1号配变【三批中心村】,红花峪迁建区1号配变【三批中心村】,511东团堡线东团堡北变,通信集团河北有限公司,西团堡站511袁家村水力,涞源县东团堡乡红花峪村村民委员会变压器,511东团堡线东团堡南变,511东团堡线老营沟3号,北李庄村光伏变压器【光伏】,北辛庄迁建区3号配变【三批中心村】,511东团堡线水沟,涞源县公安局东团堡派出所变压器,511东团堡线西团堡西变,涞源县东团堡乡卫生院变压器,唐满多金属探矿区,511东团堡线一倾地村,涞源县宇安房地产开发有限公司变压器,卸甲沟迁建区1号配变【三批中心村】,龙泉矿业西梁铁矿,511东团堡线东团堡8号台区,511东团堡线汤子岭东变,511东团堡线卸甲沟2号,涞源县问客东方有机农庄变压器,东团堡村光伏变压器【光伏】,511东团堡线老营沟2号,北辛庄迁建区2号配变【三批中心村】,511东团堡线南窑变压器,511东团堡线东团堡乡中,王家湾村光伏变压器【光伏】,511东团堡线杨庄村,中国移动通信集团河北有限公司涞源,北辛庄迁建区4号配变【三批中心村】,东团堡镇政府【煤改电】,511东团堡线北台村,北辛庄迁建区1号配变【三批中心村】,511东团堡线东台沟,511东团堡线汤子岭西变,联通保定分公司,511东团堡线甸坡,孙景润沙石厂,河北省涞源县东团堡中学变压器,511东团堡线干之营,涞源县马泉养殖场变压器","powerOffReason":"【停电原因】由于王乌线３３１线路接地导致３５ＫＶ西团堡变电站东团堡线５１１线路全线停电【变更送电】因抢修进度加快，原定１４：００送电现计划０９：３０送电。【发布渠道】通过９５５９８发布","powerOffId":"2018061113000057"},{"poweroffId":2018061113000055,"sgpoweroffId":null,"subsName":"","lineName":"煤窑线513","pubTranName":"后庄04台区配变,后庄01台区配变,中国移动通信集团河北有限公司涞源,乌龙沟513柱角石02台区,煤窑01台区配变,涞源县农村信用联社股份有限公司变压器,乌龙沟05台区配变11,后庄03台区配变,乌龙沟供电所,鑫旺铅锌选厂,中凯三公司,曹东升,涞源县玉鑫矿业有限责任公司变压器,乌龙沟513柱角石03,乌龙沟03台区配变,涞源县乌龙沟乡卫生院变压器,煤窑02台区配变,后庄02台区配变,涞源县乌龙沟乡中心小学变压器,煤窑水利,涞源泽亚滑雪度假有限公司变压器,聚鑫选厂,0684294841-涞源县玉鑫矿业有限责任公司-专变-223589445-涞源县玉鑫矿业有限责任公司变压器,李三盼,煤窑03台区配变,变压器,乌龙沟乡镇府变压器（煤改电）,涞源县公安局乌龙沟派出所变压器,联通保定分公司,乌龙沟02台区配变,乌龙沟01台区配变,煤窑04台区配变,乌龙沟513柱角石01,乌龙沟07台区配变,鸿运铅锌选厂,乌龙沟513侯家沟01,乌龙沟06台区配变11,王树恩选厂,乌龙沟513侯家沟02,乌龙沟04台区配变,0684294841-涞源县玉鑫矿业有限责任公司-专变-223584124-涞源县玉鑫矿业有限责任公司变压器2,国网河北省电力公司涞源县供电分公司(乌龙沟所)变压器,","scope":"【影响街道/乡镇】乌龙沟乡、东团堡乡【高危重要客户】无【影响客户】乌龙沟村、乌龙沟乡卫生院、乌龙沟村学校、煤窑村、后庄村、柱角石村、侯家沟村","startTime":"2018-06-11 07:58:42","stopDate":"2018-06-11 09:30:00","orgNo":"1340615","typeCode":"电网故障停限电","poweroffArea":"【全线路停电】停涞源县乌龙沟乡卫生院变压器,煤窑04台区配变,变压器,乌龙沟03台区配变,王树恩选厂,0684294841-涞源县玉鑫矿业有限责任公司-专变-223584124-涞源县玉鑫矿业有限责任公司变压器2,涞源县乌龙沟乡中心小学变压器,涞源县玉鑫矿业有限责任公司变压器,煤窑水利,乌龙沟513柱角石03,李三盼,涞源泽亚滑雪度假有限公司变压器,煤窑01台区配变,煤窑03台区配变,涞源县农村信用联社股份有限公司变压器,煤窑02台区配变,国网河北省电力公司涞源县供电分公司(乌龙沟所)变压器,乌龙沟乡镇府变压器（煤改电）,后庄04台区配变,乌龙沟05台区配变11,后庄03台区配变,涞源县公安局乌龙沟派出所变压器,乌龙沟513侯家沟01,乌龙沟供电所,联通保定分公司,鑫旺铅锌选厂,后庄01台区配变,中凯三公司,乌龙沟02台区配变,曹东升,乌龙沟01台区配变,乌龙沟06台区配变11,中国移动通信集团河北有限公司涞源,乌龙沟513柱角石02台区,后庄02台区配变,乌龙沟513柱角石01,乌龙沟513侯家沟02,乌龙沟07台区配变,聚鑫选厂,0684294841-涞源县玉鑫矿业有限责任公司-专变-223589445-涞源县玉鑫矿业有限责任公司变压器,鸿运铅锌选厂,乌龙沟04台区配变","poweroffReason":"【停电原因】由于王乌线３３１线路接地导致３５ＫＶ乌龙沟变电站煤窑线５１３线路全线停电【变更送电】因抢修进度加快，原定１４：００送电现计划０９：３０送电。【发布渠道】通过９５５９８发布","powerTime":"2018-06-11 09:11:29","powerComm":"已送电","subsNo":"","lineNo":"","tgNo":"","tgName":null,"infoStatus":"1","orgName":"国网涞源县供电公司","typeName":null,"infoStatusName":null,"dateDay":null,"orgNos":null,"nowTime":null,"countyName":null,"streetName":null,"villageName":null,"roadName":null,"communityName":null,"tranName":null,"sdLineName":null,"cityCode":"1340615","cityName":"国网涞源县供电公司","provinceCode":null,"stopTime":"2018-06-11 09:30:00","powerType":"全部","powerOffArea":"【全线路停电】停涞源县乌龙沟乡卫生院变压器,煤窑04台区配变,变压器,乌龙沟03台区配变,王树恩选厂,0684294841-涞源县玉鑫矿业有限责任公司-专变-223584124-涞源县玉鑫矿业有限责任公司变压器2,涞源县乌龙沟乡中心小学变压器,涞源县玉鑫矿业有限责任公司变压器,煤窑水利,乌龙沟513柱角石03,李三盼,涞源泽亚滑雪度假有限公司变压器,煤窑01台区配变,煤窑03台区配变,涞源县农村信用联社股份有限公司变压器,煤窑02台区配变,国网河北省电力公司涞源县供电分公司(乌龙沟所)变压器,乌龙沟乡镇府变压器（煤改电）,后庄04台区配变,乌龙沟05台区配变11,后庄03台区配变,涞源县公安局乌龙沟派出所变压器,乌龙沟513侯家沟01,乌龙沟供电所,联通保定分公司,鑫旺铅锌选厂,后庄01台区配变,中凯三公司,乌龙沟02台区配变,曹东升,乌龙沟01台区配变,乌龙沟06台区配变11,中国移动通信集团河北有限公司涞源,乌龙沟513柱角石02台区,后庄02台区配变,乌龙沟513柱角石01,乌龙沟513侯家沟02,乌龙沟07台区配变,聚鑫选厂,0684294841-涞源县玉鑫矿业有限责任公司-专变-223589445-涞源县玉鑫矿业有限责任公司变压器,鸿运铅锌选厂,乌龙沟04台区配变","powerOffReason":"【停电原因】由于王乌线３３１线路接地导致３５ＫＶ乌龙沟变电站煤窑线５１３线路全线停电【变更送电】因抢修进度加快，原定１４：００送电现计划０９：３０送电。【发布渠道】通过９５５９８发布","powerOffId":"2018061113000055"},{"poweroffId":2018061113000049,"sgpoweroffId":null,"subsName":"","lineName":"湘连口线511","pubTranName":"保定京阳线缆有限公司,贾务村东新增综合,北柳庄村北新增农业【纯农排变】,保定京阳立津线缆制造有限公司变压器,都曹口31#农业【纯农排变】,北辛庄1号综合,都曹口村里新增综合,北辛庄东南农业（124）【纯农排变】,田佐2#农业【纯农排变】,南辛庄77#农业【纯农排变】,边家务52#农业【纯农排变】,史文清变压器,京阳电缆厂,北辛庄综合36,南梁庄7#农业【纯农排变】,河北华恩纺织品制造有限公司变压器,边家务村西新增综合　,南辛庄53综合,贾务村东北农业【纯农排变】,贾务东,贾务村东农业【纯农排变】,都曹口电镀厂,边家务新增106#农业【纯农排变】,北柳庄村西49#农业【纯农排变】,都曹口62#农业【纯农排变】,都曹口32#农业【纯农排变】,田佐新增综合,都曹口34#农业【纯农排变】,北辛庄皮制品厂,北柳庄村东北综合,南梁庄村东新增综合,庞佐村西北新增综合,河北保沧高速公路公司,高阳县贾务面粉厂变压器,北柳庄综合3,祥丰毛巾厂,边家务51#农业【纯农排变】,庞佐96#农业【纯农排变】,北辛庄54综合,任佐新增农业【纯农排变】,高阳县宝发纺织机械制造有限公司变压器,北柳庄综合55,冀中电缆厂,边家务利达养殖厂,都曹口121#农业【纯农排变】,中国石油天然气股份有限公司华北油田分公司变压器,都曹口新增综合,南辛庄综合（116）,田佐53#农业【纯农排变】,田佐1#农业【纯农排变】,田佐村东新增农业【纯农排变】,京阳电揽厂,都曹口33综合,","scope":"【影响街道/乡镇】西演镇、庞佐乡 【高危重要客户】无 【影响客户】田佐、北辛庄、南辛庄、边家务、贾务、庞佐、都曹口、南梁庄","startTime":"2018-06-11 07:25:32","stopDate":"2018-06-11 09:00:00","orgNo":"1340613","typeCode":"电网故障停限电","poweroffArea":"【全线路停电】停边家务利达养殖厂,田佐2#农业【纯农排变】,南梁庄村东新增综合,边家务新增106#农业【纯农排变】,田佐新增综合,贾务村东农业【纯农排变】,都曹口33综合,贾务村东新增综合,南辛庄77#农业【纯农排变】,南辛庄综合（116）,北柳庄村西49#农业【纯农排变】,保定京阳立津线缆制造有限公司变压器,都曹口电镀厂,田佐1#农业【纯农排变】,边家务村西新增综合　,河北华恩纺织品制造有限公司变压器,京阳电揽厂,北辛庄1号综合,史文清变压器,高阳县宝发纺织机械制造有限公司变压器,都曹口新增综合,北辛庄皮制品厂,都曹口121#农业【纯农排变】,中国石油天然气股份有限公司华北油田分公司变压器,北辛庄54综合,庞佐村西北新增综合,北柳庄村东北综合,北柳庄综合55,都曹口村里新增综合,田佐村东新增农业【纯农排变】,都曹口62#农业【纯农排变】,保定京阳线缆有限公司,贾务村东北农业【纯农排变】,河北保沧高速公路公司,边家务52#农业【纯农排变】,冀中电缆厂,北柳庄综合3,贾务东,北辛庄东南农业（124）【纯农排变】,高阳县贾务面粉厂变压器,都曹口32#农业【纯农排变】,南辛庄53综合,都曹口31#农业【纯农排变】,南梁庄7#农业【纯农排变】,京阳电缆厂,北柳庄村北新增农业【纯农排变】,边家务51#农业【纯农排变】,祥丰毛巾厂,庞佐96#农业【纯农排变】,都曹口34#农业【纯农排变】,北辛庄综合36,任佐新增农业【纯农排变】,田佐53#农业【纯农排变】","poweroffReason":"【停电原因】由于外力破坏导致１１０ＫＶ西演变电站湘连口５１１线路全线停电【变更送电】因抢修进度加快原因，送电时间由１７：００变更为０９：００【发布渠道】９５５９８","powerTime":"2018-06-11 08:31:50","powerComm":"已送电","subsNo":"","lineNo":"","tgNo":"","tgName":null,"infoStatus":"1","orgName":"国网高阳县供电公司","typeName":null,"infoStatusName":null,"dateDay":null,"orgNos":null,"nowTime":null,"countyName":null,"streetName":null,"villageName":null,"roadName":null,"communityName":null,"tranName":null,"sdLineName":null,"cityCode":"1340613","cityName":"国网高阳县供电公司","provinceCode":null,"stopTime":"2018-06-11 09:00:00","powerType":"全部","powerOffArea":"【全线路停电】停边家务利达养殖厂,田佐2#农业【纯农排变】,南梁庄村东新增综合,边家务新增106#农业【纯农排变】,田佐新增综合,贾务村东农业【纯农排变】,都曹口33综合,贾务村东新增综合,南辛庄77#农业【纯农排变】,南辛庄综合（116）,北柳庄村西49#农业【纯农排变】,保定京阳立津线缆制造有限公司变压器,都曹口电镀厂,田佐1#农业【纯农排变】,边家务村西新增综合　,河北华恩纺织品制造有限公司变压器,京阳电揽厂,北辛庄1号综合,史文清变压器,高阳县宝发纺织机械制造有限公司变压器,都曹口新增综合,北辛庄皮制品厂,都曹口121#农业【纯农排变】,中国石油天然气股份有限公司华北油田分公司变压器,北辛庄54综合,庞佐村西北新增综合,北柳庄村东北综合,北柳庄综合55,都曹口村里新增综合,田佐村东新增农业【纯农排变】,都曹口62#农业【纯农排变】,保定京阳线缆有限公司,贾务村东北农业【纯农排变】,河北保沧高速公路公司,边家务52#农业【纯农排变】,冀中电缆厂,北柳庄综合3,贾务东,北辛庄东南农业（124）【纯农排变】,高阳县贾务面粉厂变压器,都曹口32#农业【纯农排变】,南辛庄53综合,都曹口31#农业【纯农排变】,南梁庄7#农业【纯农排变】,京阳电缆厂,北柳庄村北新增农业【纯农排变】,边家务51#农业【纯农排变】,祥丰毛巾厂,庞佐96#农业【纯农排变】,都曹口34#农业【纯农排变】,北辛庄综合36,任佐新增农业【纯农排变】,田佐53#农业【纯农排变】","powerOffReason":"【停电原因】由于外力破坏导致１１０ＫＶ西演变电站湘连口５１１线路全线停电【变更送电】因抢修进度加快原因，送电时间由１７：００变更为０９：００【发布渠道】９５５９８","powerOffId":"2018061113000049"},{"poweroffId":2018061113000038,"sgpoweroffId":null,"subsName":"","lineName":"奇峰庄517","pubTranName":"塔洼石灰厂(李士玉),奇峰庄村4台区变压器,奇峰庄村6#,河北卓泰房地产开发有限公司变压器,奇峰庄7#变压器,上岳格庄村9台区变压器,易县董军玄武岩石料厂变压器,上岳格庄村8#,旺龙林业试区,五里庄6#,贾建民石料厂,营房寺村3#,王贾庄村1#|村北,韩振龙石料加工厂,刘广全石料加工厂,上岳各庄村1#,阳谷庄3#,塔洼村3台区变压器,阳谷庄7#,玄武岩基地奇峰庄料场(董军),岭东村1#,贾宇石料厂,五里庄村3#,易县玄武岩石料有限公司,阳谷庄村2#,塔洼钙粉厂,上岳格庄5#,阳谷庄4台区变压器,54002460|易县王贾庄石灰厂(郭锦辉*3#),上岳格庄村2#,下岳各庄村5#,王贾庄村10#村中,奇峰庄村1#,王贾庄村3#|村南,营房寺2#,王贾庄村12台区,王贾庄村2#|村内,岭东村5号,塔洼村1台区变压器,上岳格庄村3#,阳谷庄村5#,五里庄4#,岭东村3#|6队,上岳格庄村7#,梁格庄村14#,上岳格庄10号变压器,五里庄村2#,下岳格庄村1#|村内,上岳各庄4#,营房寺村1#,下岳格庄村6#村南,下岳格庄村2#|村东,王贾庄村6#村内,营房寺村4#,54001510|易县王贾庄石灰厂(郭锦辉*1#),上岳格庄村6#,营房寺5台区,翟立民石料厂,阳谷庄8#,玄武建材集团公司(郭锦辉),变压器,五里庄村1#,岭东村6#4.5队,易县乾安玄武岩厂,岭东村7#,塔洼村2台区变压器,54002100|易县王贾庄石灰厂(郭锦辉*2#),易县原野山庄有限公司(穆建哲),奇峰庄村3#,五里庄村5#,易县易和玄武岩加工厂变压器,奇峰庄村2#,龙海工贸,奇峰庄5#,下岳各庄4台区变压器,郭景春新,阳谷庄6#,岭东村2#|村北,岭东4#,下岳格庄村3#,尚文录玄武岩石料厂,阳谷庄村1#,","scope":"【影响街道/乡镇】梁格庄镇、西陵镇【高危重要客户】无【影响客户】岭东村、王贾庄村、阳谷庄村、塔洼村、下岳各庄村、上岳格庄村、奇峰庄村、五里庄村、营房寺村","startTime":"2018-06-11 06:37:58","stopDate":"2018-06-11 09:30:00","orgNo":"1340625","typeCode":"电网故障停限电","poweroffArea":"【全线路停电】停岭东村7#,王贾庄村1#|村北,阳谷庄6#,龙海工贸,下岳各庄4台区变压器,阳谷庄村2#,岭东村2#|村北,王贾庄村12台区,阳谷庄8#,塔洼村3台区变压器,玄武岩基地奇峰庄料场(董军),阳谷庄4台区变压器,岭东4#,下岳各庄村5#,玄武建材集团公司(郭锦辉),上岳格庄村7#,奇峰庄5#,上岳格庄村6#,上岳格庄村3#,五里庄村5#,易县玄武岩石料有限公司,上岳格庄10号变压器,尚文录玄武岩石料厂,营房寺2#,岭东村6#4.5队,岭东村1#,54002100|易县王贾庄石灰厂(郭锦辉*2#),奇峰庄村3#,上岳格庄村8#,易县易和玄武岩加工厂变压器,五里庄4#,阳谷庄村1#,54001510|易县王贾庄石灰厂(郭锦辉*1#),易县乾安玄武岩厂,塔洼石灰厂(李士玉),下岳格庄村1#|村内,易县董军玄武岩石料厂变压器,梁格庄村14#,变压器,奇峰庄村1#,五里庄村1#,奇峰庄村4台区变压器,54002460|易县王贾庄石灰厂(郭锦辉*3#),下岳格庄村2#|村东,上岳各庄村1#,塔洼钙粉厂,郭景春新,王贾庄村3#|村南,下岳格庄村6#村南,岭东村3#|6队,塔洼村1台区变压器,王贾庄村10#村中,上岳各庄4#,翟立民石料厂,刘广全石料加工厂,贾建民石料厂,奇峰庄村6#,旺龙林业试区,阳谷庄3#,营房寺村4#,营房寺村3#,五里庄村2#,韩振龙石料加工厂,下岳格庄村3#,营房寺村1#,五里庄6#,阳谷庄村5#,上岳格庄村2#,贾宇石料厂,王贾庄村2#|村内,营房寺5台区,岭东村5号,易县原野山庄有限公司(穆建哲),阳谷庄7#,王贾庄村6#村内,五里庄村3#,奇峰庄7#变压器,河北卓泰房地产开发有限公司变压器,塔洼村2台区变压器,奇峰庄村2#,上岳格庄村9台区变压器,上岳格庄5#","poweroffReason":"【停电原因】由于站内差动跳闸导致３５ＫＶ龙湖变电站奇峰庄５１７线路全线停电【变更送电】因抢修进度加快，送电时间由１４:００变更为０９:３０【发布渠道】通过９５５９８发布","powerTime":"2018-06-11 09:08:25","powerComm":"已送电","subsNo":"","lineNo":"","tgNo":"","tgName":null,"infoStatus":"1","orgName":"国网易县供电公司","typeName":null,"infoStatusName":null,"dateDay":null,"orgNos":null,"nowTime":null,"countyName":null,"streetName":null,"villageName":null,"roadName":null,"communityName":null,"tranName":null,"sdLineName":null,"cityCode":"1340625","cityName":"国网易县供电公司","provinceCode":null,"stopTime":"2018-06-11 09:30:00","powerType":"全部","powerOffArea":"【全线路停电】停岭东村7#,王贾庄村1#|村北,阳谷庄6#,龙海工贸,下岳各庄4台区变压器,阳谷庄村2#,岭东村2#|村北,王贾庄村12台区,阳谷庄8#,塔洼村3台区变压器,玄武岩基地奇峰庄料场(董军),阳谷庄4台区变压器,岭东4#,下岳各庄村5#,玄武建材集团公司(郭锦辉),上岳格庄村7#,奇峰庄5#,上岳格庄村6#,上岳格庄村3#,五里庄村5#,易县玄武岩石料有限公司,上岳格庄10号变压器,尚文录玄武岩石料厂,营房寺2#,岭东村6#4.5队,岭东村1#,54002100|易县王贾庄石灰厂(郭锦辉*2#),奇峰庄村3#,上岳格庄村8#,易县易和玄武岩加工厂变压器,五里庄4#,阳谷庄村1#,54001510|易县王贾庄石灰厂(郭锦辉*1#),易县乾安玄武岩厂,塔洼石灰厂(李士玉),下岳格庄村1#|村内,易县董军玄武岩石料厂变压器,梁格庄村14#,变压器,奇峰庄村1#,五里庄村1#,奇峰庄村4台区变压器,54002460|易县王贾庄石灰厂(郭锦辉*3#),下岳格庄村2#|村东,上岳各庄村1#,塔洼钙粉厂,郭景春新,王贾庄村3#|村南,下岳格庄村6#村南,岭东村3#|6队,塔洼村1台区变压器,王贾庄村10#村中,上岳各庄4#,翟立民石料厂,刘广全石料加工厂,贾建民石料厂,奇峰庄村6#,旺龙林业试区,阳谷庄3#,营房寺村4#,营房寺村3#,五里庄村2#,韩振龙石料加工厂,下岳格庄村3#,营房寺村1#,五里庄6#,阳谷庄村5#,上岳格庄村2#,贾宇石料厂,王贾庄村2#|村内,营房寺5台区,岭东村5号,易县原野山庄有限公司(穆建哲),阳谷庄7#,王贾庄村6#村内,五里庄村3#,奇峰庄7#变压器,河北卓泰房地产开发有限公司变压器,塔洼村2台区变压器,奇峰庄村2#,上岳格庄村9台区变压器,上岳格庄5#","powerOffReason":"【停电原因】由于站内差动跳闸导致３５ＫＶ龙湖变电站奇峰庄５１７线路全线停电【变更送电】因抢修进度加快，送电时间由１４:００变更为０９:３０【发布渠道】通过９５５９８发布","powerOffId":"2018061113000038"},{"poweroffId":2018061113000037,"sgpoweroffId":null,"subsName":"","lineName":"柴厂511","pubTranName":"娄亭村6#,旺龙村2#村北,娄亭村7#小鱼沟,娄亭村2#变压器,旺龙村4#村南新,保定伍建房地产开发有限公司,惠东房地产(托斯卡纳庄园),柴厂5#,易县董军玄武岩石料厂,变压器,柴厂村2#|村下,娄亭村4#|3队,柴厂村6#村东,旺龙村6#,柴厂村3#|村中,梁建国变压器,河北誉龙圣世房地产开发有限公司,0469484377-易县桂隆房地产开发有限公司-专变-46819469-易县桂隆房地产开发有限公司,柴厂村4#,旺龙村3#,娄亭村3台区,娄亭村1#,娄亭村5#,0672256112-中国电建集团北京勘测设计研究院有限公司-专变-213884191-中国电建集团北京勘测设计研究院有限公司250KVA,娄亭10#,娄亭村8台区变压器,易县天伟矿产品有限公司(郭保良),旺龙村5#村东,旺龙村1#,柴厂村1#,桂龙公司,龙湖碧枫轩度假村,娄亭扬水站,红豆山庄,","scope":"【影响街道/乡镇】梁格庄镇【高危重要客户】无【影响客户】柴厂村、娄亭村、旺龙村","startTime":"2018-06-11 06:42:38","stopDate":"2018-06-11 09:30:00","orgNo":"1340625","typeCode":"电网故障停限电","poweroffArea":"【全线路停电】停旺龙村6#,0672256112-中国电建集团北京勘测设计研究院有限公司-专变-213884191-中国电建集团北京勘测设计研究院有限公司250KVA,变压器,易县天伟矿产品有限公司(郭保良),娄亭扬水站,娄亭村2#变压器,柴厂村6#村东,娄亭村5#,旺龙村2#村北,柴厂村4#,旺龙村4#村南新,娄亭村1#,娄亭10#,柴厂5#,娄亭村4#|3队,惠东房地产(托斯卡纳庄园),龙湖碧枫轩度假村,旺龙村3#,河北誉龙圣世房地产开发有限公司,旺龙村1#,桂龙公司,旺龙村5#村东,娄亭村8台区变压器,梁建国变压器,柴厂村2#|村下,柴厂村3#|村中,0469484377-易县桂隆房地产开发有限公司-专变-46819469-易县桂隆房地产开发有限公司,娄亭村7#小鱼沟,娄亭村6#,柴厂村1#,娄亭村3台区,红豆山庄,易县董军玄武岩石料厂,保定伍建房地产开发有限公司","poweroffReason":"【停电原因】由于站内差动跳闸导致３５ＫＶ龙湖变电站柴厂５１１线路全线停电【变更送电】因抢修进度加快，送电时间由１４:００变更为０９:３０【发布渠道】通过９５５９８发布","powerTime":"2018-06-11 09:08:57","powerComm":"已送电","subsNo":"","lineNo":"","tgNo":"","tgName":null,"infoStatus":"1","orgName":"国网易县供电公司","typeName":null,"infoStatusName":null,"dateDay":null,"orgNos":null,"nowTime":null,"countyName":null,"streetName":null,"villageName":null,"roadName":null,"communityName":null,"tranName":null,"sdLineName":null,"cityCode":"1340625","cityName":"国网易县供电公司","provinceCode":null,"stopTime":"2018-06-11 09:30:00","powerType":"全部","powerOffArea":"【全线路停电】停旺龙村6#,0672256112-中国电建集团北京勘测设计研究院有限公司-专变-213884191-中国电建集团北京勘测设计研究院有限公司250KVA,变压器,易县天伟矿产品有限公司(郭保良),娄亭扬水站,娄亭村2#变压器,柴厂村6#村东,娄亭村5#,旺龙村2#村北,柴厂村4#,旺龙村4#村南新,娄亭村1#,娄亭10#,柴厂5#,娄亭村4#|3队,惠东房地产(托斯卡纳庄园),龙湖碧枫轩度假村,旺龙村3#,河北誉龙圣世房地产开发有限公司,旺龙村1#,桂龙公司,旺龙村5#村东,娄亭村8台区变压器,梁建国变压器,柴厂村2#|村下,柴厂村3#|村中,0469484377-易县桂隆房地产开发有限公司-专变-46819469-易县桂隆房地产开发有限公司,娄亭村7#小鱼沟,娄亭村6#,柴厂村1#,娄亭村3台区,红豆山庄,易县董军玄武岩石料厂,保定伍建房地产开发有限公司","powerOffReason":"【停电原因】由于站内差动跳闸导致３５ＫＶ龙湖变电站柴厂５１１线路全线停电【变更送电】因抢修进度加快，送电时间由１４:００变更为０９:３０【发布渠道】通过９５５９８发布","powerOffId":"2018061113000037"},{"poweroffId":2018061113000007,"sgpoweroffId":null,"subsName":"","lineName":"大阳线515","pubTranName":"大阳十二台区,大阳八台区,大阳二台区,大阳十一台区,大阳五台区,大阳浇地十五台区,大阳浇地二十一台区【纯农排变】,大阳浇地十九台区【纯农排变】,小阳浇地三台区【纯农排变】,小阳一台区,小阳面粉厂,大阳一台区,大阳浇地二十台区【纯农排变】,小阳浇地二台区【纯农排变】,大阳十六台区,大阳浇地一台区【纯农排变】,大阳浇地五台区【纯农排变】,小阳浇地四台区【纯农排变】,大阳九台区,大阳四台区,大阳七台区,大阳浇地十二台区,大阳十三台区,大阳六台区,大阳浇地二台区【纯农排变】,大阳三台区,大阳鱼池,大王浇地十五台区【纯农排变】,安新县大阳永发砖厂,大阳浇地十四台区【纯农排变】,大阳浇地十八台区,大阳浇地十七台区,小阳浇地一台区【纯农排变】,大王二台区,大阳浇地九台区【纯农排变】,大阳十五台区,大阳浇地十一台区【纯农排变】,大阳浇地十台区,大阳十四台区,小阳浇地七台区【纯农排变】,大阳浇地七台区,小阳浇地六台区【纯农排变】,大阳浇地四台区【纯农排变】,大阳浇地十六台区,大阳浇地三台区【纯农排变】,","scope":"【影响街道/乡镇】大王镇 【高危重要客户】无 【影响客户】大阳村、小阳村","startTime":"2018-06-11 00:35:34","stopDate":"2018-06-11 02:00:00","orgNo":"1340607","typeCode":"电网故障停限电","poweroffArea":"【分支停电】停大阳七台区,大阳二台区,大阳浇地十二台区,大阳十二台区,大阳十三台区,大阳八台区,大阳六台区,大阳十一台区,大阳浇地二台区【纯农排变】,大阳五台区,大阳三台区,大阳浇地十五台区,大阳鱼池,大阳浇地二十一台区【纯农排变】,大王浇地十五台区【纯农排变】,大阳浇地十九台区【纯农排变】,小阳浇地三台区【纯农排变】,安新县大阳永发砖厂,小阳一台区,大阳浇地十四台区【纯农排变】,小阳面粉厂,大阳一台区,大阳浇地十八台区,大阳浇地二十台区【纯农排变】,大阳浇地十七台区,小阳浇地二台区【纯农排变】,小阳浇地一台区【纯农排变】,大阳十六台区,大王二台区,大阳浇地一台区【纯农排变】,大阳浇地九台区【纯农排变】,大阳浇地五台区【纯农排变】,大阳十五台区,小阳浇地四台区【纯农排变】,大阳浇地七台区,小阳浇地六台区【纯农排变】,大阳四台区,大阳浇地十一台区【纯农排变】,大阳九台区,大阳浇地十台区,大阳浇地四台区【纯农排变】,大阳十四台区,大阳浇地十六台区,小阳浇地七台区【纯农排变】,大阳浇地三台区【纯农排变】","poweroffReason":"【停电原因】由于高压线断导致３５ＫＶ张六变电站大阳线５１５线路１０５号杆开关以下线路停电 【变更送电】无 【发布渠道】通过９５５９８发布","powerTime":"2018-06-11 01:29:58","powerComm":"已送电","subsNo":"","lineNo":"","tgNo":"","tgName":null,"infoStatus":"1","orgName":"(原)国网安新县供电公司","typeName":null,"infoStatusName":null,"dateDay":null,"orgNos":null,"nowTime":null,"countyName":null,"streetName":null,"villageName":null,"roadName":null,"communityName":null,"tranName":null,"sdLineName":null,"cityCode":"1340607","cityName":"(原)国网安新县供电公司","provinceCode":null,"stopTime":"2018-06-11 02:00:00","powerType":"全部","powerOffArea":"【分支停电】停大阳七台区,大阳二台区,大阳浇地十二台区,大阳十二台区,大阳十三台区,大阳八台区,大阳六台区,大阳十一台区,大阳浇地二台区【纯农排变】,大阳五台区,大阳三台区,大阳浇地十五台区,大阳鱼池,大阳浇地二十一台区【纯农排变】,大王浇地十五台区【纯农排变】,大阳浇地十九台区【纯农排变】,小阳浇地三台区【纯农排变】,安新县大阳永发砖厂,小阳一台区,大阳浇地十四台区【纯农排变】,小阳面粉厂,大阳一台区,大阳浇地十八台区,大阳浇地二十台区【纯农排变】,大阳浇地十七台区,小阳浇地二台区【纯农排变】,小阳浇地一台区【纯农排变】,大阳十六台区,大王二台区,大阳浇地一台区【纯农排变】,大阳浇地九台区【纯农排变】,大阳浇地五台区【纯农排变】,大阳十五台区,小阳浇地四台区【纯农排变】,大阳浇地七台区,小阳浇地六台区【纯农排变】,大阳四台区,大阳浇地十一台区【纯农排变】,大阳九台区,大阳浇地十台区,大阳浇地四台区【纯农排变】,大阳十四台区,大阳浇地十六台区,小阳浇地七台区【纯农排变】,大阳浇地三台区【纯农排变】","powerOffReason":"【停电原因】由于高压线断导致３５ＫＶ张六变电站大阳线５１５线路１０５号杆开关以下线路停电 【变更送电】无 【发布渠道】通过９５５９８发布","powerOffId":"2018061113000007"},{"poweroffId":2018061013000346,"sgpoweroffId":null,"subsName":"","lineName":"牛角线511","pubTranName":"安新县宏运承配件制造有限公司,小郭村浇地二台区,牛角九台区,邢屯浇地二台区,牛角四台区,西涝淀浇地一台区,谢庄浇地三台区,牛角15台区,天源牛业养殖有限公司,牛角十四台区,安新县宏运轴承配件制造有限公司315KVA,牛角三台区,安新县亿恒轴承配件厂,安新县二彬氧化锌加工厂,西涝淀浇地二台区【纯农排变】,金京有色金属熔炼1,安新县鑫益丰铜业有限公司,牛角浇地十二台区【纯农排变】,盛隆有色金属（西）,安新县自力有色金属熔炼有限公司,牛角二台区,安新县金京有色金属熔炼有限公司,牛角一台区,牛角浇地十一台区【纯农排变】,牛角五台区,牛角浇地二台区【纯农排变】,牛角十台区,自力有色金属熔炼有限公司,保定东晨铜业（1）,变压器400KVA,变压器增250KVA,东海有色金属熔炼厂（2）,牛角双源熔炼厂,安新县烟东有色金属熔炼有限公司,金京有色金属熔炼2,保定金龙汽车同步器齿环公司,牛角十二台区,光明金属集团公司,牛角浇地十台区【纯农排变】,安新县益达有色金属加工有限公司,变压器100KVA,鑫源有色金属购销有限公司80KVA,西老淀浇地（2）,后屯浇地四台区【纯农排变】,安新县建东有色金属熔炼厂,牛角浇地八台区【纯农排变】,牛角八台区,安新县华胜有色金属制造有限公司,牛角浇地十三台区【纯农排变】,后屯浇地五台区,西涝淀浇地三台区【纯农排变】,牛角浇地一台区【纯农排变】,变压器250,牛角浇地三台区【纯农排变】,安新县胜旺铝合金厂(普通合伙),新科达铜业200,西涝淀浇地六台区【纯农排变】,安新县鑫冶有色金属熔炼有限公司250KVA,西涝淀浇地四台区【纯农排变】,远东轴承配件制造公司,永固新型管材配件有限公司,牛角十三台区,牛角浇地十四台区【纯农排变】,利达铝业（牛角）,小郭村浇地一台区,前屯浇地三台区【纯农排变】,保定长力金属制品有限公司400KVA,安新县忆恒轴承配件厂,西涝淀浇地五台区【纯农排变】,保定长力金属制品有限公司250,牛角六台区,西老淀浇地（1）（追补）,牛角浇地九台区【纯农排变】,牛角十一台区,0387384133-河北华安铸造有限责任公司-专变-49152877-变压器250,牛角七台区,牛角十六台区,河北长力金属制品有限公司,","scope":"【影响街道/乡镇】芦庄乡 【高危重要客户】无 【影响客户】牛角村","startTime":"2018-06-10 21:24:06","stopDate":"2018-06-11 01:00:00","orgNo":"1340607","typeCode":"电网故障停限电","poweroffArea":"【全线路停电】停东海有色金属熔炼厂（2）,保定东晨铜业（1）,牛角浇地九台区【纯农排变】,新科达铜业200,牛角八台区,河北长力金属制品有限公司,牛角15台区,安新县金京有色金属熔炼有限公司,变压器250,西涝淀浇地二台区【纯农排变】,西老淀浇地（1）（追补）,光明金属集团公司,牛角浇地十一台区【纯农排变】,0387384133-河北华安铸造有限责任公司-专变-49152877-变压器250,牛角双源熔炼厂,金京有色金属熔炼1,牛角浇地三台区【纯农排变】,前屯浇地三台区【纯农排变】,鑫源有色金属购销有限公司80KVA,保定金龙汽车同步器齿环公司,牛角六台区,利达铝业（牛角）,永固新型管材配件有限公司,安新县宏运承配件制造有限公司,远东轴承配件制造公司,牛角浇地一台区【纯农排变】,牛角十四台区,谢庄浇地三台区,牛角浇地二台区【纯农排变】,安新县宏运轴承配件制造有限公司315KVA,小郭村浇地一台区,自力有色金属熔炼有限公司,西涝淀浇地四台区【纯农排变】,安新县亿恒轴承配件厂,牛角十台区,安新县自力有色金属熔炼有限公司,牛角十二台区,牛角九台区,变压器增250KVA,变压器100KVA,牛角三台区,安新县益达有色金属加工有限公司,牛角二台区,牛角五台区,西涝淀浇地六台区【纯农排变】,安新县二彬氧化锌加工厂,安新县建东有色金属熔炼厂,安新县华胜有色金属制造有限公司,牛角浇地十二台区【纯农排变】,安新县鑫益丰铜业有限公司,牛角浇地十台区【纯农排变】,安新县烟东有色金属熔炼有限公司,天源牛业养殖有限公司,安新县忆恒轴承配件厂,后屯浇地四台区【纯农排变】,变压器400KVA,牛角浇地十三台区【纯农排变】,牛角十三台区,西涝淀浇地一台区,西涝淀浇地三台区【纯农排变】,牛角十六台区,西老淀浇地（2）,安新县胜旺铝合金厂(普通合伙),西涝淀浇地五台区【纯农排变】,保定长力金属制品有限公司400KVA,盛隆有色金属（西）,小郭村浇地二台区,牛角一台区,邢屯浇地二台区,牛角浇地十四台区【纯农排变】,牛角四台区,安新县鑫冶有色金属熔炼有限公司250KVA,牛角七台区,牛角十一台区,牛角浇地八台区【纯农排变】,金京有色金属熔炼2,保定长力金属制品有限公司250,后屯浇地五台区","poweroffReason":"【停电原因】由于高压线断导致３５ＫＶ芦庄变电站牛角线５１１线路全线停电 【变更送电】因抢修进度加快原因，送电时间由０９:００变更为０１：００ 【发布渠道】通过９５５９８发布","powerTime":"2018-06-11 00:22:44","powerComm":"已送电","subsNo":"","lineNo":"","tgNo":"","tgName":null,"infoStatus":"1","orgName":"(原)国网安新县供电公司","typeName":null,"infoStatusName":null,"dateDay":null,"orgNos":null,"nowTime":null,"countyName":null,"streetName":null,"villageName":null,"roadName":null,"communityName":null,"tranName":null,"sdLineName":null,"cityCode":"1340607","cityName":"(原)国网安新县供电公司","provinceCode":null,"stopTime":"2018-06-11 01:00:00","powerType":"全部","powerOffArea":"【全线路停电】停东海有色金属熔炼厂（2）,保定东晨铜业（1）,牛角浇地九台区【纯农排变】,新科达铜业200,牛角八台区,河北长力金属制品有限公司,牛角15台区,安新县金京有色金属熔炼有限公司,变压器250,西涝淀浇地二台区【纯农排变】,西老淀浇地（1）（追补）,光明金属集团公司,牛角浇地十一台区【纯农排变】,0387384133-河北华安铸造有限责任公司-专变-49152877-变压器250,牛角双源熔炼厂,金京有色金属熔炼1,牛角浇地三台区【纯农排变】,前屯浇地三台区【纯农排变】,鑫源有色金属购销有限公司80KVA,保定金龙汽车同步器齿环公司,牛角六台区,利达铝业（牛角）,永固新型管材配件有限公司,安新县宏运承配件制造有限公司,远东轴承配件制造公司,牛角浇地一台区【纯农排变】,牛角十四台区,谢庄浇地三台区,牛角浇地二台区【纯农排变】,安新县宏运轴承配件制造有限公司315KVA,小郭村浇地一台区,自力有色金属熔炼有限公司,西涝淀浇地四台区【纯农排变】,安新县亿恒轴承配件厂,牛角十台区,安新县自力有色金属熔炼有限公司,牛角十二台区,牛角九台区,变压器增250KVA,变压器100KVA,牛角三台区,安新县益达有色金属加工有限公司,牛角二台区,牛角五台区,西涝淀浇地六台区【纯农排变】,安新县二彬氧化锌加工厂,安新县建东有色金属熔炼厂,安新县华胜有色金属制造有限公司,牛角浇地十二台区【纯农排变】,安新县鑫益丰铜业有限公司,牛角浇地十台区【纯农排变】,安新县烟东有色金属熔炼有限公司,天源牛业养殖有限公司,安新县忆恒轴承配件厂,后屯浇地四台区【纯农排变】,变压器400KVA,牛角浇地十三台区【纯农排变】,牛角十三台区,西涝淀浇地一台区,西涝淀浇地三台区【纯农排变】,牛角十六台区,西老淀浇地（2）,安新县胜旺铝合金厂(普通合伙),西涝淀浇地五台区【纯农排变】,保定长力金属制品有限公司400KVA,盛隆有色金属（西）,小郭村浇地二台区,牛角一台区,邢屯浇地二台区,牛角浇地十四台区【纯农排变】,牛角四台区,安新县鑫冶有色金属熔炼有限公司250KVA,牛角七台区,牛角十一台区,牛角浇地八台区【纯农排变】,金京有色金属熔炼2,保定长力金属制品有限公司250,后屯浇地五台区","powerOffReason":"【停电原因】由于高压线断导致３５ＫＶ芦庄变电站牛角线５１１线路全线停电 【变更送电】因抢修进度加快原因，送电时间由０９:００变更为０１：００ 【发布渠道】通过９５５９８发布","powerOffId":"2018061013000346"},{"poweroffId":2018061013000323,"sgpoweroffId":null,"subsName":"","lineName":"10kV538马古庄线","pubTranName":"南孝墓西区变压器,0000004778五里岗变压器,0000004841南孝墓变压器,东海子东区变压器,0000005364南水涧西区变压器,0000006073北水涧南区变压器,新农村北农灌变压器,0013880879东海子南区变压器,0000007215北水涧东南区变压器,0012411785北马古庄北2变压器,0000004822东海子变压器,","scope":"【影响街道/乡镇】恒州镇【高危重要客户】无【影响客户】北马古庄、五里岗、新农村、东海子、西海子、南孝墓、孝墓、南水涧、北水涧、独古庄、南水窦涧","startTime":"2018-06-10 20:03:25","stopDate":"2018-06-10 23:30:00","orgNo":"1340619","typeCode":"电网故障停限电","poweroffArea":"【全线路停电】停新农村北农灌变压器,东海子东区变压器,0000004822东海子变压器,0000005364南水涧西区变压器,0013880879东海子南区变压器,0000007215北水涧东南区变压器,0000006073北水涧南区变压器,0000004778五里岗变压器,0012411785北马古庄北2变压器,0000004841南孝墓变压器,南孝墓西区变压器","poweroffReason":"【停电原因】由于线路接地导致３５ＫＶ城西变电站１０ＫＶ５３８马古庄线路全线停电【变更送电】无【发布渠道】通过９５５９８发布","powerTime":"2018-06-10 21:14:56","powerComm":"已送电","subsNo":"","lineNo":"","tgNo":"","tgName":null,"infoStatus":"1","orgName":"国网曲阳县供电公司","typeName":null,"infoStatusName":null,"dateDay":null,"orgNos":null,"nowTime":null,"countyName":null,"streetName":null,"villageName":null,"roadName":null,"communityName":null,"tranName":null,"sdLineName":null,"cityCode":"1340619","cityName":"国网曲阳县供电公司","provinceCode":null,"stopTime":"2018-06-10 23:30:00","powerType":"全部","powerOffArea":"【全线路停电】停新农村北农灌变压器,东海子东区变压器,0000004822东海子变压器,0000005364南水涧西区变压器,0013880879东海子南区变压器,0000007215北水涧东南区变压器,0000006073北水涧南区变压器,0000004778五里岗变压器,0012411785北马古庄北2变压器,0000004841南孝墓变压器,南孝墓西区变压器","powerOffReason":"【停电原因】由于线路接地导致３５ＫＶ城西变电站１０ＫＶ５３８马古庄线路全线停电【变更送电】无【发布渠道】通过９５５９８发布","powerOffId":"2018061013000323"}],"pageModel":{"pageNow":1010,"totalCount":10973,"totalPage":1098,"tableRows":0,"pageCount":10,"beginCount":10090},"isExperi":"1"}