{"message":"","today":"2020-06-15","seleList":[{"poweroffId":2018061013000125,"sgpoweroffId":null,"subsName":"","lineName":"中旺517","pubTranName":"崔中旺东变压器,66336部队营内,亚腾达橡塑,李中旺内变压器,增利水泥厂,崔中旺地变压器【纯农排变】,高碑店市华神煤炭贸易有限公限公司,王喜彬变压器,0387435932-高碑店市高碑店金盾水泥厂-专变-45273822-高碑店市金盾水泥厂,周中旺新变压器,立各庄北变压器,李中旺地三变压器【纯农排变】,高碑店市丰和商贸有限公司变压器,立各庄东2变压器,高碑店市军城办事处台中旺村,乔刘凡面粉厂,王献忠变压器,乔四变压器,台中旺地变压器【纯农排变】,乔刘凡西变压器,何顺（催中旺砖厂）变压器,李中旺南变压器,增利水泥厂2,高碑店市金盾水泥厂2,周中旺内变压器,乔刘凡南变压器,立各庄西明变压器,乔刘凡西2变压器,台中旺内变压器,高碑店市立各庄鑫涛泡沫包装厂变压器,台中旺南变压器,【学校取暖】乔刘凡中学公变,乔刘凡东南变压器,高碑店市硕农家庭农场,河北君安越翔玻璃幕墙工程有限公司,立各庄面粉厂,高碑店市华治机械有限公司变压器,立各庄东南变压器,李中旺村二变压器【纯农排变】,0585424794-高碑店市路灯管理办公室-专变-125093139-高碑店市路灯管理办公室变压器,润洋建材有限公司,高碑店市伟宸路桥建设有限公司变压器,0585431288-高碑店市路灯管理办公室-专变-125093135-高碑店市路灯管理办公室变压器,崔中旺砖厂,立各庄地变压器,崔中旺西变压器,新源加油站,李中旺村变压器,立各庄东变压器,高碑店模星钢模板制造有限公司变压器,立各庄西北变压器,台中旺排灌变压器【纯农排变】,中国人民解放军66336部队变压器,崔中旺面粉厂,台中旺西变压器,吕永兴变压器,金桥汽车,刘国斌,李中旺地变压器【纯农排变】,乔五变压器,0585424433-高碑店市路灯管理办公室-专变-125093144-高碑店市路灯管理办公室变压器,立各庄东北变压器,66336部队营内变压器,高碑店市环亚泵业有限责任公司变压器,乔刘凡东变压器,乙炔气厂,商混搅拌站变压器,立各庄南变压器,高碑店市鑫耕农农机农民专业合作社,","scope":"【影响街道/乡镇】军城办事处 【高危重要客户】无 【影响客户】崔中旺村、乔刘凡村、李中旺村、台中旺村、周中旺村、立各庄村、６６３３６部队靶场、６６３３６部队炮团、６６３３６部队营内、昌泰汽车、崔中旺砖厂、崔中旺面粉厂、丰和商贸有限公司、何宝良、华神煤炭、环亚泵业、嘉晟幕墙、金盾水泥厂、立各庄面粉厂、吕永兴、模星钢模板、乔刘凡面粉厂、润洋建材、商混搅拌站、盛源、台中旺砖厂、王喜彬、王宪中、新源加油站、亚腾达、乙炔气厂","startTime":"2018-06-19 08:30:00","stopDate":"2018-06-19 16:30:00","orgNo":"1340612","typeCode":"计划停电","poweroffArea":"【全线路停电】停立各庄东2变压器,崔中旺地变压器【纯农排变】,乔刘凡面粉厂,崔中旺砖厂,台中旺排灌变压器【纯农排变】,周中旺新变压器,66336部队营内变压器,0585424433-高碑店市路灯管理办公室-专变-125093144-高碑店市路灯管理办公室变压器,立各庄西北变压器,0585424794-高碑店市路灯管理办公室-专变-125093139-高碑店市路灯管理办公室变压器,崔中旺东变压器,何顺（催中旺砖厂）变压器,王献忠变压器,李中旺内变压器,立各庄西明变压器,高碑店市鑫耕农农机农民专业合作社,高碑店市伟宸路桥建设有限公司变压器,李中旺村变压器,商混搅拌站变压器,立各庄地变压器,【学校取暖】乔刘凡中学公变,刘国斌,中国人民解放军66336部队变压器,高碑店市硕农家庭农场,高碑店市环亚泵业有限责任公司变压器,高碑店市华治机械有限公司变压器,乔五变压器,李中旺村二变压器【纯农排变】,崔中旺面粉厂,乔刘凡西变压器,立各庄南变压器,增利水泥厂,李中旺地三变压器【纯农排变】,乔刘凡东南变压器,王喜彬变压器,崔中旺西变压器,周中旺内变压器,润洋建材有限公司,立各庄东北变压器,高碑店市金盾水泥厂2,吕永兴变压器,李中旺南变压器,66336部队营内,高碑店市立各庄鑫涛泡沫包装厂变压器,李中旺地变压器【纯农排变】,0585431288-高碑店市路灯管理办公室-专变-125093135-高碑店市路灯管理办公室变压器,台中旺南变压器,台中旺内变压器,台中旺地变压器【纯农排变】,乔四变压器,立各庄东变压器,立各庄面粉厂,乔刘凡西2变压器,乔刘凡东变压器,新源加油站,乔刘凡南变压器,高碑店市军城办事处台中旺村,高碑店市丰和商贸有限公司变压器,立各庄北变压器,乙炔气厂,立各庄东南变压器,亚腾达橡塑,0387435932-高碑店市高碑店金盾水泥厂-专变-45273822-高碑店市金盾水泥厂,增利水泥厂2,河北君安越翔玻璃幕墙工程有限公司,金桥汽车,台中旺西变压器,高碑店模星钢模板制造有限公司变压器,高碑店市华神煤炭贸易有限公限公司","poweroffReason":"【停电原因】由于新增变台接引，站内换ＣＴ导致２２０ＫＶ高碑店变电站１０ＫＶ中旺５１７线路全线停电 【变更送电】因工作进度加快原因，送电时间由１７：３０变更为:１６：３０ 【发布渠道】高碑店市高碑店电视台（６月１１日８时至６月１８日１８时之间）屏幕上方滚动","powerTime":"2018-06-19 16:07:28","powerComm":"已送电","subsNo":"","lineNo":"","tgNo":"","tgName":null,"infoStatus":"1","orgName":"国网高碑店市供电公司","typeName":null,"infoStatusName":null,"dateDay":null,"orgNos":null,"nowTime":null,"countyName":null,"streetName":null,"villageName":null,"roadName":null,"communityName":null,"tranName":null,"sdLineName":null,"cityCode":"1340612","cityName":"国网高碑店市供电公司","provinceCode":null,"stopTime":"2018-06-19 16:30:00","powerType":"全部","powerOffArea":"【全线路停电】停立各庄东2变压器,崔中旺地变压器【纯农排变】,乔刘凡面粉厂,崔中旺砖厂,台中旺排灌变压器【纯农排变】,周中旺新变压器,66336部队营内变压器,0585424433-高碑店市路灯管理办公室-专变-125093144-高碑店市路灯管理办公室变压器,立各庄西北变压器,0585424794-高碑店市路灯管理办公室-专变-125093139-高碑店市路灯管理办公室变压器,崔中旺东变压器,何顺（催中旺砖厂）变压器,王献忠变压器,李中旺内变压器,立各庄西明变压器,高碑店市鑫耕农农机农民专业合作社,高碑店市伟宸路桥建设有限公司变压器,李中旺村变压器,商混搅拌站变压器,立各庄地变压器,【学校取暖】乔刘凡中学公变,刘国斌,中国人民解放军66336部队变压器,高碑店市硕农家庭农场,高碑店市环亚泵业有限责任公司变压器,高碑店市华治机械有限公司变压器,乔五变压器,李中旺村二变压器【纯农排变】,崔中旺面粉厂,乔刘凡西变压器,立各庄南变压器,增利水泥厂,李中旺地三变压器【纯农排变】,乔刘凡东南变压器,王喜彬变压器,崔中旺西变压器,周中旺内变压器,润洋建材有限公司,立各庄东北变压器,高碑店市金盾水泥厂2,吕永兴变压器,李中旺南变压器,66336部队营内,高碑店市立各庄鑫涛泡沫包装厂变压器,李中旺地变压器【纯农排变】,0585431288-高碑店市路灯管理办公室-专变-125093135-高碑店市路灯管理办公室变压器,台中旺南变压器,台中旺内变压器,台中旺地变压器【纯农排变】,乔四变压器,立各庄东变压器,立各庄面粉厂,乔刘凡西2变压器,乔刘凡东变压器,新源加油站,乔刘凡南变压器,高碑店市军城办事处台中旺村,高碑店市丰和商贸有限公司变压器,立各庄北变压器,乙炔气厂,立各庄东南变压器,亚腾达橡塑,0387435932-高碑店市高碑店金盾水泥厂-专变-45273822-高碑店市金盾水泥厂,增利水泥厂2,河北君安越翔玻璃幕墙工程有限公司,金桥汽车,台中旺西变压器,高碑店模星钢模板制造有限公司变压器,高碑店市华神煤炭贸易有限公限公司","powerOffReason":"【停电原因】由于新增变台接引，站内换ＣＴ导致２２０ＫＶ高碑店变电站１０ＫＶ中旺５１７线路全线停电 【变更送电】因工作进度加快原因，送电时间由１７：３０变更为:１６：３０ 【发布渠道】高碑店市高碑店电视台（６月１１日８时至６月１８日１８时之间）屏幕上方滚动","powerOffId":"2018061013000125"},{"poweroffId":2018061013000109,"sgpoweroffId":null,"subsName":"","lineName":"南冯线514","pubTranName":"邸庄二台区,","scope":"【影响街道/乡镇】刘李庄镇 【高危重要客户】无 【影响客户】邸庄村","startTime":"2018-06-10 09:11:23","stopDate":"2018-06-10 12:00:00","orgNo":"1340607","typeCode":"电网故障停限电","poweroffArea":"【单台区停电】停邸庄二台区","poweroffReason":"【停电原因】由于低压线断导致３５ＫＶ杨庄变电站南冯线５１４线路邸庄二号公变台区停电 【变更送电】无 【发布渠道】通过９５５９８发布","powerTime":"2018-06-10 11:51:40","powerComm":"已送电","subsNo":"","lineNo":"","tgNo":"","tgName":null,"infoStatus":"1","orgName":"(原)国网安新县供电公司","typeName":null,"infoStatusName":null,"dateDay":null,"orgNos":null,"nowTime":null,"countyName":null,"streetName":null,"villageName":null,"roadName":null,"communityName":null,"tranName":null,"sdLineName":null,"cityCode":"1340607","cityName":"(原)国网安新县供电公司","provinceCode":null,"stopTime":"2018-06-10 12:00:00","powerType":"全部","powerOffArea":"【单台区停电】停邸庄二台区","powerOffReason":"【停电原因】由于低压线断导致３５ＫＶ杨庄变电站南冯线５１４线路邸庄二号公变台区停电 【变更送电】无 【发布渠道】通过９５５９８发布","powerOffId":"2018061013000109"},{"poweroffId":2018061013000106,"sgpoweroffId":null,"subsName":"","lineName":"北梨园524电力电缆","pubTranName":"北梨园3号,","scope":"【影响街道/乡镇】安肃镇 【高危重要客户】无 【影响客户】北梨园村","startTime":"2018-06-10 09:05:53","stopDate":"2018-06-10 19:00:00","orgNo":"1340605","typeCode":"电网故障停限电","poweroffArea":"【单台区停电】停北梨园10号","poweroffReason":"【停电原因】由于变压器低压保险片烧毁导致１１０ＫＶ下河西变电站北梨园５２４线路北梨园１０号公变台区停电 【变更送电】无 【发布渠道】通过９５５９８发布","powerTime":"2018-06-10 18:59:14","powerComm":"已送电","subsNo":"","lineNo":"","tgNo":"","tgName":null,"infoStatus":"1","orgName":"国网徐水县供电公司","typeName":null,"infoStatusName":null,"dateDay":null,"orgNos":null,"nowTime":null,"countyName":null,"streetName":null,"villageName":null,"roadName":null,"communityName":null,"tranName":null,"sdLineName":null,"cityCode":"1340605","cityName":"国网徐水县供电公司","provinceCode":null,"stopTime":"2018-06-10 19:00:00","powerType":"全部","powerOffArea":"【单台区停电】停北梨园10号","powerOffReason":"【停电原因】由于变压器低压保险片烧毁导致１１０ＫＶ下河西变电站北梨园５２４线路北梨园１０号公变台区停电 【变更送电】无 【发布渠道】通过９５５９８发布","powerOffId":"2018061013000106"},{"poweroffId":2018061013000064,"sgpoweroffId":null,"subsName":"","lineName":"沈家坯线511","pubTranName":"沈北六台区,","scope":"【影响街道/乡镇】老河头镇 【高危重要客户】无 【影响客户】沈北","startTime":"2018-06-10 06:42:55","stopDate":"2018-06-10 10:00:00","orgNo":"1340607","typeCode":"电网故障停限电","poweroffArea":"【单台区停电】停沈北六台区","poweroffReason":"【停电原因】由于低压线断导致３５ＫＶ西地变电站沈家坯线５１１线路沈北六号公变台区停电 【变更送电】无 【发布渠道】通过９５５９８发布","powerTime":"2018-06-10 09:51:28","powerComm":"已送电","subsNo":"","lineNo":"","tgNo":"","tgName":null,"infoStatus":"1","orgName":"(原)国网安新县供电公司","typeName":null,"infoStatusName":null,"dateDay":null,"orgNos":null,"nowTime":null,"countyName":null,"streetName":null,"villageName":null,"roadName":null,"communityName":null,"tranName":null,"sdLineName":null,"cityCode":"1340607","cityName":"(原)国网安新县供电公司","provinceCode":null,"stopTime":"2018-06-10 10:00:00","powerType":"全部","powerOffArea":"【单台区停电】停沈北六台区","powerOffReason":"【停电原因】由于低压线断导致３５ＫＶ西地变电站沈家坯线５１１线路沈北六号公变台区停电 【变更送电】无 【发布渠道】通过９５５９８发布","powerOffId":"2018061013000064"},{"poweroffId":2018061013000056,"sgpoweroffId":null,"subsName":"","lineName":"大次良线511","pubTranName":"大次良14号,小次良3号,","scope":"【影响街道/乡镇】遂城镇 【高危重要客户】无 【影响客户】大次良村、小次良村","startTime":"2018-06-10 05:55:02","stopDate":"2018-06-10 10:00:10","orgNo":"1340605","typeCode":"电网故障停限电","poweroffArea":"【全线路停电】停小次良3号,大次良14号","poweroffReason":"【停电原因】由于Ｂ相接地导致３５ＫＶ广门变电站大次良５１１线路全线停电 【变更送电】无 【发布渠道】通过９５５９８发布","powerTime":"2018-06-10 09:08:52","powerComm":"已送电","subsNo":"","lineNo":"","tgNo":"","tgName":null,"infoStatus":"1","orgName":"国网徐水县供电公司","typeName":null,"infoStatusName":null,"dateDay":null,"orgNos":null,"nowTime":null,"countyName":null,"streetName":null,"villageName":null,"roadName":null,"communityName":null,"tranName":null,"sdLineName":null,"cityCode":"1340605","cityName":"国网徐水县供电公司","provinceCode":null,"stopTime":"2018-06-10 10:00:10","powerType":"全部","powerOffArea":"【全线路停电】停小次良3号,大次良14号","powerOffReason":"【停电原因】由于Ｂ相接地导致３５ＫＶ广门变电站大次良５１１线路全线停电 【变更送电】无 【发布渠道】通过９５５９８发布","powerOffId":"2018061013000056"},{"poweroffId":2018060913000692,"sgpoweroffId":null,"subsName":"","lineName":"涝淀砖厂线518","pubTranName":"北边吴十四台区,北边吴浇地七台区【纯农排变】,欣华皮毛厂,周俊其合线厂,北边吴浇地二十一台区【纯农排变】,北边吴四台区,北边吴浇地四台区,北边吴小学混用,北边吴一台区,北边吴浇地二十五台区【纯农排变】,北边吴三台区,北边吴浇地八台区,北边吴十三台区,甄庄浇地北,北二浇地20,北边吴九台区,北边吴浇地十三台区【纯农排变】,北边吴浇地五台区【纯农排变】,安新县宏兴棉花收购加工厂,东老淀浇地一台区【纯农排变】,北边吴工艺品厂,腾达皮毛厂,保定宏润地毯有限公司（预）,北边吴浇地三十二台区【纯农排变】,保定宏润地毯有限公司,东涝淀浇地三台区【纯农排变】,安新县腾达皮毛厂,机务队熔炼厂,北边吴浇地十一台区【纯农排变】,北边吴浇地九台区【纯农排变】,北边吴十五台区,北边吴浇地二十台区【纯农排变】,安新县金缘有色金属有限公司,北边吴三兴面粉厂,鹏飞制线股份公司,北边吴浇地二十二台区【纯农排变】,北边吴钢球厂浇地,北边吴浇地二十九台区【纯农排变】,安新县宏兴棉花收购加工厂01,北边吴16台区,北边吴二村砖厂50KVA配变,北边吴浇地三十五台区【纯农排变】,北边吴浇地二十八台区【纯农排变】,安新县华浩有色金属加工有限公司,北边吴十一台区,北边吴浇地十四台区,北边吴浇地十七台区【纯农排变】,北边吴浇地十六台区【纯农排变】,北边吴浇地二十四台区【纯农排变】,北边吴浇地十台区【纯农排变】,北二浇地三台区,北二浇地二台区,北边吴浇地十八台区【纯农排变】,北边吴浇地三十三台区,北边吴浇地十九台区【纯农排变】,北边吴工艺品厂50KVA,北边吴浇地六台区【纯农排变】,北边吴浇地二十三台区【纯农排变】,保定超越粮棉有限公司,北边吴八台区,北边吴十二台区,北边吴永兴面粉厂160,西老淀砖厂160KVA配变,北边吴浇地十五台区,北边吴浇地一台区【纯农排变】,西老淀砖厂（2）,宏兴地毯厂（2）,河西浇地八台区【纯农排变】,北边吴浇地二十七台区【纯农排变】,宏兴棉花收购加工厂（普通合伙）增160KVA变压器一台,北边吴七台区,北边吴浇地十二台区【纯农排变】,北边吴五台区,北边吴浇地二十六台区,北边吴二台区,安新县兴顺建材制造有限公司,北边吴永兴面粉厂80,恒泰浇地,变压器400KVA,北边吴浇地三十台区【纯农排变】,安新县芦庄北边吴五联合线厂160KVA,北边吴十台区,安新县宇腾纺织品制造有限公司,北边吴浇地三十一台区【纯农排变】,河北宏兴地毯纺织有限公司100KVA,奶牛厂,北边吴浇地三十四台区【纯农排变】,北边吴六台区,北边吴砖厂,北边吴工艺品（3）,北边吴砖厂160KVA配变,明珠织布厂,安新县亚轩熔炼加工厂,东涝淀浇地四台区【纯农排变】,0546263600-后屯浇地二台区-专变-47843721-后屯浇地二台区,","scope":"【影响街道/乡镇】芦庄乡 【高危重要客户】无 【影响客户】北边吴村","startTime":"2018-06-09 21:32:57","stopDate":"2018-06-09 23:40:00","orgNo":"1340607","typeCode":"电网故障停限电","poweroffArea":"【全线路停电】停北二浇地20,北边吴浇地二十七台区【纯农排变】,北边吴浇地三十三台区,安新县宏兴棉花收购加工厂,北边吴七台区,北边吴十三台区,东涝淀浇地三台区【纯农排变】,鹏飞制线股份公司,变压器400KVA,北边吴六台区,北边吴浇地二十一台区【纯农排变】,北边吴九台区,北边吴浇地三十二台区【纯农排变】,北边吴浇地四台区,河北宏兴地毯纺织有限公司100KVA,安新县华浩有色金属加工有限公司,北二浇地二台区,北边吴永兴面粉厂160,北边吴十四台区,北边吴一台区,北边吴浇地二十三台区【纯农排变】,北边吴浇地三十一台区【纯农排变】,北边吴三台区,北边吴四台区,东老淀浇地一台区【纯农排变】,北边吴十五台区,安新县宇腾纺织品制造有限公司,北边吴浇地十二台区【纯农排变】,北边吴浇地二十九台区【纯农排变】,北边吴砖厂,北边吴浇地二十四台区【纯农排变】,北边吴十台区,北边吴浇地五台区【纯农排变】,周俊其合线厂,北边吴三兴面粉厂,北边吴浇地十四台区,明珠织布厂,北边吴浇地十三台区【纯农排变】,北边吴砖厂160KVA配变,欣华皮毛厂,北边吴二村砖厂50KVA配变,北边吴浇地三十五台区【纯农排变】,保定宏润地毯有限公司,北边吴浇地十台区【纯农排变】,西老淀砖厂160KVA配变,北边吴五台区,北边吴工艺品（3）,北边吴永兴面粉厂80,北边吴浇地十五台区,北边吴浇地七台区【纯农排变】,北边吴浇地一台区【纯农排变】,北边吴浇地十九台区【纯农排变】,北边吴浇地十八台区【纯农排变】,北边吴浇地三十四台区【纯农排变】,西老淀砖厂（2）,腾达皮毛厂,北边吴八台区,北边吴工艺品厂50KVA,北边吴浇地十七台区【纯农排变】,安新县宏兴棉花收购加工厂01,宏兴地毯厂（2）,北边吴16台区,北边吴浇地二十六台区,北边吴十一台区,北边吴浇地二十八台区【纯农排变】,北边吴浇地三十台区【纯农排变】,河西浇地八台区【纯农排变】,安新县腾达皮毛厂,奶牛厂,安新县兴顺建材制造有限公司,北边吴浇地九台区【纯农排变】,保定超越粮棉有限公司,北边吴浇地十一台区【纯农排变】,北边吴浇地二十台区【纯农排变】,北边吴小学混用,甄庄浇地北,北边吴工艺品厂,保定宏润地毯有限公司（预）,恒泰浇地,北边吴浇地八台区,北边吴二台区,安新县芦庄北边吴五联合线厂160KVA,宏兴棉花收购加工厂（普通合伙）增160KVA变压器一台,北边吴浇地六台区【纯农排变】,安新县金缘有色金属有限公司,机务队熔炼厂,东涝淀浇地四台区【纯农排变】,北边吴钢球厂浇地,安新县亚轩熔炼加工厂,北边吴浇地二十二台区【纯农排变】,北边吴十二台区,北二浇地三台区,0546263600-后屯浇地二台区-专变-47843721-后屯浇地二台区,北边吴浇地二十五台区【纯农排变】,北边吴浇地十六台区【纯农排变】","poweroffReason":"【停电原因】由于用户专用变压器烧毁导致３５ＫＶ芦庄变电站涝淀砖厂线５１８线路全线停电 【变更送电】因抢修进度加快，送电时间由６月１０日０３：３０变更为６月９日２３：４０ 【发布渠道】通过９５５９８发布","powerTime":"2018-06-09 23:16:00","powerComm":"已送电","subsNo":"","lineNo":"","tgNo":"","tgName":null,"infoStatus":"1","orgName":"(原)国网安新县供电公司","typeName":null,"infoStatusName":null,"dateDay":null,"orgNos":null,"nowTime":null,"countyName":null,"streetName":null,"villageName":null,"roadName":null,"communityName":null,"tranName":null,"sdLineName":null,"cityCode":"1340607","cityName":"(原)国网安新县供电公司","provinceCode":null,"stopTime":"2018-06-09 23:40:00","powerType":"全部","powerOffArea":"【全线路停电】停北二浇地20,北边吴浇地二十七台区【纯农排变】,北边吴浇地三十三台区,安新县宏兴棉花收购加工厂,北边吴七台区,北边吴十三台区,东涝淀浇地三台区【纯农排变】,鹏飞制线股份公司,变压器400KVA,北边吴六台区,北边吴浇地二十一台区【纯农排变】,北边吴九台区,北边吴浇地三十二台区【纯农排变】,北边吴浇地四台区,河北宏兴地毯纺织有限公司100KVA,安新县华浩有色金属加工有限公司,北二浇地二台区,北边吴永兴面粉厂160,北边吴十四台区,北边吴一台区,北边吴浇地二十三台区【纯农排变】,北边吴浇地三十一台区【纯农排变】,北边吴三台区,北边吴四台区,东老淀浇地一台区【纯农排变】,北边吴十五台区,安新县宇腾纺织品制造有限公司,北边吴浇地十二台区【纯农排变】,北边吴浇地二十九台区【纯农排变】,北边吴砖厂,北边吴浇地二十四台区【纯农排变】,北边吴十台区,北边吴浇地五台区【纯农排变】,周俊其合线厂,北边吴三兴面粉厂,北边吴浇地十四台区,明珠织布厂,北边吴浇地十三台区【纯农排变】,北边吴砖厂160KVA配变,欣华皮毛厂,北边吴二村砖厂50KVA配变,北边吴浇地三十五台区【纯农排变】,保定宏润地毯有限公司,北边吴浇地十台区【纯农排变】,西老淀砖厂160KVA配变,北边吴五台区,北边吴工艺品（3）,北边吴永兴面粉厂80,北边吴浇地十五台区,北边吴浇地七台区【纯农排变】,北边吴浇地一台区【纯农排变】,北边吴浇地十九台区【纯农排变】,北边吴浇地十八台区【纯农排变】,北边吴浇地三十四台区【纯农排变】,西老淀砖厂（2）,腾达皮毛厂,北边吴八台区,北边吴工艺品厂50KVA,北边吴浇地十七台区【纯农排变】,安新县宏兴棉花收购加工厂01,宏兴地毯厂（2）,北边吴16台区,北边吴浇地二十六台区,北边吴十一台区,北边吴浇地二十八台区【纯农排变】,北边吴浇地三十台区【纯农排变】,河西浇地八台区【纯农排变】,安新县腾达皮毛厂,奶牛厂,安新县兴顺建材制造有限公司,北边吴浇地九台区【纯农排变】,保定超越粮棉有限公司,北边吴浇地十一台区【纯农排变】,北边吴浇地二十台区【纯农排变】,北边吴小学混用,甄庄浇地北,北边吴工艺品厂,保定宏润地毯有限公司（预）,恒泰浇地,北边吴浇地八台区,北边吴二台区,安新县芦庄北边吴五联合线厂160KVA,宏兴棉花收购加工厂（普通合伙）增160KVA变压器一台,北边吴浇地六台区【纯农排变】,安新县金缘有色金属有限公司,机务队熔炼厂,东涝淀浇地四台区【纯农排变】,北边吴钢球厂浇地,安新县亚轩熔炼加工厂,北边吴浇地二十二台区【纯农排变】,北边吴十二台区,北二浇地三台区,0546263600-后屯浇地二台区-专变-47843721-后屯浇地二台区,北边吴浇地二十五台区【纯农排变】,北边吴浇地十六台区【纯农排变】","powerOffReason":"【停电原因】由于用户专用变压器烧毁导致３５ＫＶ芦庄变电站涝淀砖厂线５１８线路全线停电 【变更送电】因抢修进度加快，送电时间由６月１０日０３：３０变更为６月９日２３：４０ 【发布渠道】通过９５５９８发布","powerOffId":"2018060913000692"},{"poweroffId":2018060913000681,"sgpoweroffId":null,"subsName":"","lineName":"梁家营线511","pubTranName":"高碑店市奥伟工业有限公司,10kV511华文府分支东黄河分支2#东黄河变压器,10kV511孙马庄大分支杨北3分支35#杨北3变压器【纯农排变】,小商新变压器,10kV511梁家营线孙马庄大分支33#孙马庄变压器,10kV511梁家营线孙马庄大分支45#孙马庄西变压器,小商排灌2变压器【纯农排变】,东黄河北变压器,10kV511华文府分支巨水营地分支3#巨水营排灌变压器【纯农排变】,西黄河2,王家营排灌东变压器【纯农排变】,城东排灌变压器【纯农排变】,10kV511孙马庄大分支王家营排灌南分支2#王家营排灌南变压器【纯农排变】,10kV511孙马庄大分支大商北分支11#大商北变压器,小商排灌变压器【纯农排变】,10kV511孙马庄大分支杨北3分支27#杨北2变压器【纯农排变】,永欣加油站,蔡庄排灌变压器【纯农排变】,巨水营变压器,10kV511梁家营线永欣加油站分支6#梁南地变压器【纯农排变】,10kV511梁家营线杨北分支3#杨北排灌变压器【纯农排变】,10kV511孙马庄大分支杨北3分支13#大商南变压器,10kV511华文府分支巨水营分支3#东黄河排灌变压器【纯农排变】,10kV511华文府分支巨水营地分支6#巨水营地变压器,10kV511孙马庄大分支杨北3分支18#大商排灌1变压器【纯农排变】,10kV511孙马庄大分支孙马庄排灌分支4#孙马庄排灌变压器【纯农排变】,华峰,10kV511孙马庄大分支贾家营分支1#贾家营变压器,黄玉江,华峰钢厂,10kV511孙马庄大分支贾家营排灌分支1#贾家营排灌变压器【纯农排变】,城内西排灌变压器,变压器,10kV511华文府分支东黄河排灌东分支2#东黄河排灌东变压器【纯农排变】,10kV511孙马庄大分支小商排灌3分支1#小商排灌3变压器【纯农排变】,巨水营东,大商排灌变压器【纯农排变】,小商变压器,","scope":"【影响街道/乡镇】梁家营乡 【高危重要客户】华丰首特 【影响客户】大商村、小商村、巨水营村、东黄河村、贾家营村、孙马庄村","startTime":"2018-06-09 20:17:59","stopDate":"2018-06-09 22:30:00","orgNo":"1340612","typeCode":"电网故障停限电","poweroffArea":"【全线路停电】停10kV511孙马庄大分支贾家营排灌分支1#贾家营排灌变压器【纯农排变】,10kV511孙马庄大分支杨北3分支18#大商排灌1变压器【纯农排变】,城东排灌变压器【纯农排变】,小商新变压器,10kV511华文府分支巨水营地分支3#巨水营排灌变压器【纯农排变】,10kV511梁家营线永欣加油站分支6#梁南地变压器【纯农排变】,黄玉江,小商排灌2变压器【纯农排变】,西黄河2,10kV511梁家营线杨北分支3#杨北排灌变压器【纯农排变】,华峰钢厂,东黄河北变压器,王家营排灌东变压器【纯农排变】,10kV511孙马庄大分支杨北3分支13#大商南变压器,城内西排灌变压器,高碑店市奥伟工业有限公司,10kV511孙马庄大分支王家营排灌南分支2#王家营排灌南变压器【纯农排变】,10kV511华文府分支巨水营分支3#东黄河排灌变压器【纯农排变】,变压器,10kV511华文府分支东黄河分支2#东黄河变压器,10kV511华文府分支东黄河排灌东分支2#东黄河排灌东变压器【纯农排变】,10kV511华文府分支巨水营地分支6#巨水营地变压器,10kV511孙马庄大分支大商北分支11#大商北变压器,10kV511孙马庄大分支杨北3分支35#杨北3变压器【纯农排变】,10kV511孙马庄大分支小商排灌3分支1#小商排灌3变压器【纯农排变】,10kV511孙马庄大分支孙马庄排灌分支4#孙马庄排灌变压器【纯农排变】,小商排灌变压器【纯农排变】,巨水营东,10kV511梁家营线孙马庄大分支33#孙马庄变压器,10kV511孙马庄大分支杨北3分支27#杨北2变压器【纯农排变】,大商排灌变压器【纯农排变】,永欣加油站,华峰,小商变压器,10kV511梁家营线孙马庄大分支45#孙马庄西变压器,蔡庄排灌变压器【纯农排变】,10kV511孙马庄大分支贾家营分支1#贾家营变压器,巨水营变压器","poweroffReason":"【停电原因】由于东黄河分支避雷器击穿导致１１０ＫＶ太平庄变电站１０ＫＶ梁家营５１１线路全线停电 【变更送电】因抢修进度加快原因，送电时间由２３：３０变更为２２：３０ 【发布渠道】通过９５５９８发布","powerTime":"2018-06-09 22:15:05","powerComm":"已送电","subsNo":"","lineNo":"","tgNo":"","tgName":null,"infoStatus":"1","orgName":"国网高碑店市供电公司","typeName":null,"infoStatusName":null,"dateDay":null,"orgNos":null,"nowTime":null,"countyName":null,"streetName":null,"villageName":null,"roadName":null,"communityName":null,"tranName":null,"sdLineName":null,"cityCode":"1340612","cityName":"国网高碑店市供电公司","provinceCode":null,"stopTime":"2018-06-09 22:30:00","powerType":"全部","powerOffArea":"【全线路停电】停10kV511孙马庄大分支贾家营排灌分支1#贾家营排灌变压器【纯农排变】,10kV511孙马庄大分支杨北3分支18#大商排灌1变压器【纯农排变】,城东排灌变压器【纯农排变】,小商新变压器,10kV511华文府分支巨水营地分支3#巨水营排灌变压器【纯农排变】,10kV511梁家营线永欣加油站分支6#梁南地变压器【纯农排变】,黄玉江,小商排灌2变压器【纯农排变】,西黄河2,10kV511梁家营线杨北分支3#杨北排灌变压器【纯农排变】,华峰钢厂,东黄河北变压器,王家营排灌东变压器【纯农排变】,10kV511孙马庄大分支杨北3分支13#大商南变压器,城内西排灌变压器,高碑店市奥伟工业有限公司,10kV511孙马庄大分支王家营排灌南分支2#王家营排灌南变压器【纯农排变】,10kV511华文府分支巨水营分支3#东黄河排灌变压器【纯农排变】,变压器,10kV511华文府分支东黄河分支2#东黄河变压器,10kV511华文府分支东黄河排灌东分支2#东黄河排灌东变压器【纯农排变】,10kV511华文府分支巨水营地分支6#巨水营地变压器,10kV511孙马庄大分支大商北分支11#大商北变压器,10kV511孙马庄大分支杨北3分支35#杨北3变压器【纯农排变】,10kV511孙马庄大分支小商排灌3分支1#小商排灌3变压器【纯农排变】,10kV511孙马庄大分支孙马庄排灌分支4#孙马庄排灌变压器【纯农排变】,小商排灌变压器【纯农排变】,巨水营东,10kV511梁家营线孙马庄大分支33#孙马庄变压器,10kV511孙马庄大分支杨北3分支27#杨北2变压器【纯农排变】,大商排灌变压器【纯农排变】,永欣加油站,华峰,小商变压器,10kV511梁家营线孙马庄大分支45#孙马庄西变压器,蔡庄排灌变压器【纯农排变】,10kV511孙马庄大分支贾家营分支1#贾家营变压器,巨水营变压器","powerOffReason":"【停电原因】由于东黄河分支避雷器击穿导致１１０ＫＶ太平庄变电站１０ＫＶ梁家营５１１线路全线停电 【变更送电】因抢修进度加快原因，送电时间由２３：３０变更为２２：３０ 【发布渠道】通过９５５９８发布","powerOffId":"2018060913000681"},{"poweroffId":2018060913000650,"sgpoweroffId":null,"subsName":"","lineName":"10kV开发区线516","pubTranName":"0575454954-河北江特塑料制品有限公司-专变-124005455-雄县恒昌华泰塑胶制品有限公司,刘双林3#,刘双林,东大2#水利,河北福派安管道制造有限公司,雄县建伟塑料制品厂,【纯农排变】东大村东南水利,东大1#水利,西大村3＃水利公用,雄县德润塑料制品厂,雄县艺财甘薯专业合作社,东大4#水利,【纯农排变】东大村5＃水利公用,东大村3＃公用,鲍树维,东大村4＃公用,0387550251-刘双林-专变-45353543-刘双林,东大村1＃公用,河北百江塑胶制品有限公司,0600793050-雄县米家务镇健硕塑料制品厂-专变-126683352-雄县米家务镇宝通塑料制品厂2#,0628859152-雄县昝岗木森塑料制品厂2#-专变-140695693-雄县昝岗木森塑料制品厂2#,永丰塑料制品厂,变压器,陈长彪,雄县四达塑料制品有限公司,雄县亿凯塑胶制品有限公司,东大村5#公用（小区）,东大村2＃公用,0600792868-雄县亿凯塑胶制品有限公司-专变-126683345-雄县米家务镇宝通塑料制品厂1#,【纯农排变】东大村东北水利,刘亚亮,0545982511-雄县长彪制花有限公司-专变-47848144-变压器,0387551557-河北福派安管道制造有限公司-专变-225192130-变压器,0637189622-雄县永旺塑料制品有限公司-专变-148424408-雄县永旺塑料制品有限公司,东大村6#水利公用,东大村北水,东大村内孵化厂,苏毅,0553970368-雄县昱嘉塑胶制品厂-专变-70407835-变压器,西大村4#水利公用,北庄2#水利公用,0387551717-孟庆祥-专变-45353124-孟庆祥,0387551951-雄县米家务镇顺祥塑料制品厂-专变-45353252-雄县同顺昌塑料制品厂,北庄3#水利,王法利,","scope":"【影响街道/乡镇】米家务镇 【高危重要客户】无 【影响客户】东大村","startTime":"2018-06-09 18:44:24","stopDate":"2018-06-09 21:00:00","orgNo":"1340624","typeCode":"电网故障停限电","poweroffArea":"【全线路停电】停0637189622-雄县永旺塑料制品有限公司-专变-148424408-雄县永旺塑料制品有限公司,0575454954-河北江特塑料制品有限公司-专变-124005455-雄县恒昌华泰塑胶制品有限公司,东大村6#水利公用,刘双林3#,变压器,刘双林,陈长彪,东大2#水利,雄县四达塑料制品有限公司,河北福派安管道制造有限公司,雄县亿凯塑胶制品有限公司,雄县建伟塑料制品厂,东大村5#公用（小区）,【纯农排变】东大村东南水利,东大村2＃公用,东大1#水利,0600792868-雄县亿凯塑胶制品有限公司-专变-126683345-雄县米家务镇宝通塑料制品厂1#,西大村3＃水利公用,【纯农排变】东大村东北水利,雄县德润塑料制品厂,刘亚亮,雄县艺财甘薯专业合作社,0545982511-雄县长彪制花有限公司-专变-47848144-变压器,东大4#水利,0387551557-河北福派安管道制造有限公司-专变-225192130-变压器,【纯农排变】东大村5＃水利公用,北庄3#水利,东大村3＃公用,王法利,鲍树维,东大村北水,东大村4＃公用,东大村内孵化厂,0387550251-刘双林-专变-45353543-刘双林,苏毅,东大村1＃公用,0553970368-雄县昱嘉塑胶制品厂-专变-70407835-变压器,河北百江塑胶制品有限公司,西大村4#水利公用,0628859152-雄县昝岗木森塑料制品厂2#-专变-140695693-雄县昝岗木森塑料制品厂2#,北庄2#水利公用,永丰塑料制品厂,0387551717-孟庆祥-专变-45353124-孟庆祥,0600793050-雄县米家务镇健硕塑料制品厂-专变-126683352-雄县米家务镇宝通塑料制品厂2#,0387551951-雄县米家务镇顺祥塑料制品厂-专变-45353252-雄县同顺昌塑料制品厂","poweroffReason":"【停电原因】由于Ｂ相接地导致３５ＫＶ仁义庄变电站１０ＫＶ开发区线５１６线路全线停电 【变更送电】无 【发布渠道】通过９５５９８发布","powerTime":"2018-06-09 20:05:57","powerComm":"已送电","subsNo":"","lineNo":"","tgNo":"","tgName":null,"infoStatus":"1","orgName":"(原)国网雄县供电公司","typeName":null,"infoStatusName":null,"dateDay":null,"orgNos":null,"nowTime":null,"countyName":null,"streetName":null,"villageName":null,"roadName":null,"communityName":null,"tranName":null,"sdLineName":null,"cityCode":"1340624","cityName":"(原)国网雄县供电公司","provinceCode":null,"stopTime":"2018-06-09 21:00:00","powerType":"全部","powerOffArea":"【全线路停电】停0637189622-雄县永旺塑料制品有限公司-专变-148424408-雄县永旺塑料制品有限公司,0575454954-河北江特塑料制品有限公司-专变-124005455-雄县恒昌华泰塑胶制品有限公司,东大村6#水利公用,刘双林3#,变压器,刘双林,陈长彪,东大2#水利,雄县四达塑料制品有限公司,河北福派安管道制造有限公司,雄县亿凯塑胶制品有限公司,雄县建伟塑料制品厂,东大村5#公用（小区）,【纯农排变】东大村东南水利,东大村2＃公用,东大1#水利,0600792868-雄县亿凯塑胶制品有限公司-专变-126683345-雄县米家务镇宝通塑料制品厂1#,西大村3＃水利公用,【纯农排变】东大村东北水利,雄县德润塑料制品厂,刘亚亮,雄县艺财甘薯专业合作社,0545982511-雄县长彪制花有限公司-专变-47848144-变压器,东大4#水利,0387551557-河北福派安管道制造有限公司-专变-225192130-变压器,【纯农排变】东大村5＃水利公用,北庄3#水利,东大村3＃公用,王法利,鲍树维,东大村北水,东大村4＃公用,东大村内孵化厂,0387550251-刘双林-专变-45353543-刘双林,苏毅,东大村1＃公用,0553970368-雄县昱嘉塑胶制品厂-专变-70407835-变压器,河北百江塑胶制品有限公司,西大村4#水利公用,0628859152-雄县昝岗木森塑料制品厂2#-专变-140695693-雄县昝岗木森塑料制品厂2#,北庄2#水利公用,永丰塑料制品厂,0387551717-孟庆祥-专变-45353124-孟庆祥,0600793050-雄县米家务镇健硕塑料制品厂-专变-126683352-雄县米家务镇宝通塑料制品厂2#,0387551951-雄县米家务镇顺祥塑料制品厂-专变-45353252-雄县同顺昌塑料制品厂","powerOffReason":"【停电原因】由于Ｂ相接地导致３５ＫＶ仁义庄变电站１０ＫＶ开发区线５１６线路全线停电 【变更送电】无 【发布渠道】通过９５５９８发布","powerOffId":"2018060913000650"},{"poweroffId":2018060913000624,"sgpoweroffId":null,"subsName":"","lineName":"10kV549工业区西线","pubTranName":"北常丰新增农业8号（TD）2387【纯农排变】,北常丰3520|20003520,南常丰620|20000620,南尧城260#农排|20000260【纯农排变】,北常丰新增农业3号（TD）1439【纯农排变】,西尧城8940|20008940,北常丰新增农业6号（TD）2383【纯农排变】,构件厂,南常丰村南农业东7924【纯农排变】,0469126176-保定申成路桥有限责任公司高速公路养护中心-专变-46723613-保定市保阜高速公路筹建处,东尧城9640#农排|20009640【纯农排变】,路灯变压器3号8379,西尧城新增综合7227,北常丰新10310|20010310,西尧城8830|20008830,南常丰8670|20008670,北尧城340#农业|20000340【纯农排变】,南常丰570|20000570,南尧城20010340,北常丰新增农业2号（TD）1437【纯农排变】,西尧城8480#农业|20008480【纯农排变】,北常丰新增综合1389,南尧城村北农排【纯农排变】,北常丰新增农业1号（TD）1435【纯农排变】,北常丰奶牛厂7880#农排|20007880【纯农排变】,西尧城4800#农业|20004800【纯农排变】,南尧城1号农排【纯农排变】,南常丰8260,北尧城8490#农业|20008490【纯农排变】,512南常丰村南新增综合4338,南常丰410#农业|20000410【纯农排变】,南常丰390#农业|20000390【纯农排变】,南常丰8690|20008690,北常丰新增农业4号（TD）1441【纯农排变】,512南常丰村北新增综合4340,南尧城270#农排|20000270【纯农排变】,南常丰8680|20008680,中国移动河北公司顺平分公司,北常丰地板革厂,东尧城3460#农排|20003460【纯农排变】,北尧城360#农业|20000360【纯农排变】,南常丰380|20000380,北尧城8530#农业|20008530【纯农排变】,霍家关东农业8926【纯农排变】,南常丰8210#农业|20008210【纯农排变】,顺平县华康肠衣厂,公路养护综合3440#|20003440,北常丰新增1号7870,西尧城670#农业|20000670【纯农排变】,北常丰3530#农排|20003530【纯农排变】,西尧城300#农业|20000300【纯农排变】,北常丰新增农业7号（TD）1452【纯农排变】,西尧城2号2345,西尧城学校混用8950|20008950,北常丰新增农业5号（TD）1444【纯农排变】,南常丰370综合|20000370,南常丰420#农业|20000420【纯农排变】,南尧城西630|20000630,南常丰村南新增农业2号5915【纯农排变】,魏爱军混用8230|20008230,南尧城新增农业5565【纯农排变】,东尧城240#农排|20000240【纯农排变】,北尧城650#农排|20000650【纯农排变】,南常丰8180#农业|20008180【纯农排变】,南尧城新增1号综合8363,西尧城290#农业|200002","scope":"【影响街道/乡镇】蒲阳镇【高危重要客户】无【影响客户】南尧城、西尧城、北尧城、南常丰、北常丰、霍家关、南环公路养护中心","startTime":"2018-06-09 17:52:38","stopDate":"2018-06-09 21:30:00","orgNo":"1340621","typeCode":"电网故障停限电","poweroffArea":"【全线路停电】停512南常丰村南新增综合4338,西尧城新增综合7227,南常丰570|20000570,北尧城8530#农业|20008530【纯农排变】,霍家关南农业7359【纯农排变】,路灯变压器3号8379,魏爱军混用8230|20008230,北尧城350#农业|20000350【纯农排变】,西尧城8480#农业|20008480【纯农排变】,西尧城8940|20008940,北常丰奶牛厂7880#农排|20007880【纯农排变】,南尧城20010340,南常丰8680|20008680,北常丰8770#农排|20008770【纯农排变】,南尧城1号农排【纯农排变】,0469126176-保定申成路桥有限责任公司高速公路养护中心-专变-46723613-保定市保阜高速公路筹建处,北常丰新增农业5号（TD）1444【纯农排变】,南常丰380|20000380,南常丰村南新增农业2号5915【纯农排变】,南常丰370综合|20000370,南常丰400#农业|20000400【纯农排变】,南常丰390#农业|20000390【纯农排变】,南常丰420#农业|20000420【纯农排变】,南尧城260#农排|20000260【纯农排变】,512南常丰村北新增综合4340,公路养护综合3440#|20003440,北常丰新增农业8号（TD）2387【纯农排变】,南常丰8670|20008670,东尧城9640#农排|20009640【纯农排变】,西尧城290#农业|20000290【纯农排变】,南常丰410#农业|20000410【纯农排变】,北常丰新增农业3号（TD）1439【纯农排变】,东尧城9620#农排|20009620【纯农排变】,西尧城0280|20000280,南尧城新增农业5565【纯农排变】,西尧城2号2345,北常丰新10310|20010310,北常丰新增农业6号（TD）2383【纯农排变】,西尧城4800#农业|20004800【纯农排变】,南常丰8690|20008690,北常丰3530#农排|20003530【纯农排变】,北常丰新增1号7870,北尧城650#农排|20000650【纯农排变】,南常丰8260,南尧城新增1号综合8363,北常丰新增农业1号（TD）1435【纯农排变】","poweroffReason":"【停电原因】由于北常丰牛场瓷瓶击穿导致２２０ＫＶ吴家庄变电站１０ＫＶ５４９工业区西线路全线停电【变更送电】因抢修进度加快原因，送电时间由２２：００变更为２１：３０；【发布渠道】通过９５５９８发布","powerTime":"2018-06-09 20:43:42","powerComm":"已送电","subsNo":"","lineNo":"","tgNo":"","tgName":null,"infoStatus":"1","orgName":"国网顺平县电力局","typeName":null,"infoStatusName":null,"dateDay":null,"orgNos":null,"nowTime":null,"countyName":null,"streetName":null,"villageName":null,"roadName":null,"communityName":null,"tranName":null,"sdLineName":null,"cityCode":"1340621","cityName":"国网顺平县电力局","provinceCode":null,"stopTime":"2018-06-09 21:30:00","powerType":"全部","powerOffArea":"【全线路停电】停512南常丰村南新增综合4338,西尧城新增综合7227,南常丰570|20000570,北尧城8530#农业|20008530【纯农排变】,霍家关南农业7359【纯农排变】,路灯变压器3号8379,魏爱军混用8230|20008230,北尧城350#农业|20000350【纯农排变】,西尧城8480#农业|20008480【纯农排变】,西尧城8940|20008940,北常丰奶牛厂7880#农排|20007880【纯农排变】,南尧城20010340,南常丰8680|20008680,北常丰8770#农排|20008770【纯农排变】,南尧城1号农排【纯农排变】,0469126176-保定申成路桥有限责任公司高速公路养护中心-专变-46723613-保定市保阜高速公路筹建处,北常丰新增农业5号（TD）1444【纯农排变】,南常丰380|20000380,南常丰村南新增农业2号5915【纯农排变】,南常丰370综合|20000370,南常丰400#农业|20000400【纯农排变】,南常丰390#农业|20000390【纯农排变】,南常丰420#农业|20000420【纯农排变】,南尧城260#农排|20000260【纯农排变】,512南常丰村北新增综合4340,公路养护综合3440#|20003440,北常丰新增农业8号（TD）2387【纯农排变】,南常丰8670|20008670,东尧城9640#农排|20009640【纯农排变】,西尧城290#农业|20000290【纯农排变】,南常丰410#农业|20000410【纯农排变】,北常丰新增农业3号（TD）1439【纯农排变】,东尧城9620#农排|20009620【纯农排变】,西尧城0280|20000280,南尧城新增农业5565【纯农排变】,西尧城2号2345,北常丰新10310|20010310,北常丰新增农业6号（TD）2383【纯农排变】,西尧城4800#农业|20004800【纯农排变】,南常丰8690|20008690,北常丰3530#农排|20003530【纯农排变】,北常丰新增1号7870,北尧城650#农排|20000650【纯农排变】,南常丰8260,南尧城新增1号综合8363,北常丰新增农业1号（TD）1435【纯农排变】","powerOffReason":"【停电原因】由于北常丰牛场瓷瓶击穿导致２２０ＫＶ吴家庄变电站１０ＫＶ５４９工业区西线路全线停电【变更送电】因抢修进度加快原因，送电时间由２２：００变更为２１：３０；【发布渠道】通过９５５９８发布","powerOffId":"2018060913000624"},{"poweroffId":2018060913000616,"sgpoweroffId":null,"subsName":"","lineName":"纱厂516","pubTranName":"于堤综合19台区,于堤综合18台区,06074|于堤农业2号【纯农排变】,06149|于堤村东（东）4台区综合,高阳县润金纺织品有限责任公司,06089|于堤村南（东）6台区综合,06088|于堤村东（北）1台区综合,亚欧纺织有限公司,","scope":"【影响街道/乡镇】小王果庄乡 【高危重要客户】无 【影响客户】于堤村东","startTime":"2018-06-14 06:00:30","stopDate":"2018-06-14 21:00:00","orgNo":"1340613","typeCode":"临时停电","poweroffArea":"【分支停电】停于堤综合19台区,于堤综合18台区,06149|于堤村东（东）4台区综合,06074|于堤农业2号【纯农排变】,06088|于堤村东（北）1台区综合,亚欧纺织有限公司,高阳县润金纺织品有限责任公司,06089|于堤村南（东）6台区综合","poweroffReason":"【停电原因】由于线路改径导致３５ＫＶ李果庄变电站纱厂５１６线路Ｔ接于堤村东分支１０号杆１０号开关以下停电【变更送电】无【发布渠道】９５５９８","powerTime":"2018-06-14 20:50:10","powerComm":"已送电","subsNo":"","lineNo":"","tgNo":"","tgName":null,"infoStatus":"1","orgName":"国网高阳县供电公司","typeName":null,"infoStatusName":null,"dateDay":null,"orgNos":null,"nowTime":null,"countyName":null,"streetName":null,"villageName":null,"roadName":null,"communityName":null,"tranName":null,"sdLineName":null,"cityCode":"1340613","cityName":"国网高阳县供电公司","provinceCode":null,"stopTime":"2018-06-14 21:00:00","powerType":"全部","powerOffArea":"【分支停电】停于堤综合19台区,于堤综合18台区,06149|于堤村东（东）4台区综合,06074|于堤农业2号【纯农排变】,06088|于堤村东（北）1台区综合,亚欧纺织有限公司,高阳县润金纺织品有限责任公司,06089|于堤村南（东）6台区综合","powerOffReason":"【停电原因】由于线路改径导致３５ＫＶ李果庄变电站纱厂５１６线路Ｔ接于堤村东分支１０号杆１０号开关以下停电【变更送电】无【发布渠道】９５５９８","powerOffId":"2018060913000616"}],"pageModel":{"pageNow":1012,"totalCount":10973,"totalPage":1098,"tableRows":0,"pageCount":10,"beginCount":10110},"isExperi":"1"}