{"message":"","today":"2020-06-15","seleList":[{"poweroffId":2018060913000595,"sgpoweroffId":null,"subsName":"","lineName":"10kV东闾西535线","pubTranName":"东吕西二,1东吕二街内6,东吕三街村西,东吕杨华池配件加工,东吕一街内3,东吕杨恩占配件加工,东吕一街内1,东吕付彦微配件加工,东吕三街内2,东吕一街内5,清苑县北极星起重机械厂,1东吕三街内3,0549287867-清苑县伟力起重机械制造有限公司-专变-175498337-清苑县伟力起重机械制造有限公司,东吕二街野外,0575136047-清苑县威龙起重机械有限公司-专变-123928961-清苑县威龙起重机械有限公司,东吕果园,东吕一街内2,保定三友忠诚起重机械有限公司,东吕崔同芬配件加工,东吕三街村西北,东吕东二,巨鹰起重,张树昌配件加工厂,清苑县东闾水厂,东吕东八,1东吕三街内5,东吕杨蕴辉,清苑县超凡起重设备厂,保定京鸽起重机械制造有限公司,东吕二街内3,清苑县东吕小康链条加工厂,东吕二街内1,东吕村委会,东吕二街村外,","scope":"【影响街道/乡镇】东吕乡 【高危重要客户】无 【影响客户】东吕一街村、东吕二街村、东吕三街村","startTime":"2018-06-09 16:51:55","stopDate":"2018-06-09 18:20:00","orgNo":"1340618","typeCode":"电网故障停限电","poweroffArea":"【全线路停电】停东吕杨恩占配件加工,东吕付彦微配件加工,东吕三街内2,东吕三街村西北,东吕杨蕴辉,东吕东八,东吕东二,东吕一街内5,东吕一街内1,1东吕二街内6,巨鹰起重,东吕一街内2,东吕二街野外,1东吕三街内5,东吕三街村西,清苑县东吕小康链条加工厂,清苑县超凡起重设备厂,0575136047-清苑县威龙起重机械有限公司-专变-123928961-清苑县威龙起重机械有限公司,保定三友忠诚起重机械有限公司,张树昌配件加工厂,保定京鸽起重机械制造有限公司,0549287867-清苑县伟力起重机械制造有限公司-专变-175498337-清苑县伟力起重机械制造有限公司,东吕果园,东吕杨华池配件加工,东吕二街内1,清苑县北极星起重机械厂,清苑县东闾水厂,东吕崔同芬配件加工,东吕村委会,东吕二街内3,东吕西二,东吕一街内3,东吕二街村外,1东吕三街内3","poweroffReason":"【停电原因】由于主干５号杆Ｔ５号杆三龙起重配变烧毁导致１１０ＫＶ东闾变电站１０ＫＶ东闾西５３５线路全线停电 【变更送电】因抢修进度加快原因，送电时间由２３：００变更为１８：２０ 【发布渠道】通过９５５９８发布","powerTime":"2018-06-09 17:54:40","powerComm":"刘丰收通知已送电","subsNo":"","lineNo":"","tgNo":"","tgName":null,"infoStatus":"1","orgName":"国网清苑县供电公司","typeName":null,"infoStatusName":null,"dateDay":null,"orgNos":null,"nowTime":null,"countyName":null,"streetName":null,"villageName":null,"roadName":null,"communityName":null,"tranName":null,"sdLineName":null,"cityCode":"1340618","cityName":"国网清苑县供电公司","provinceCode":null,"stopTime":"2018-06-09 18:20:00","powerType":"全部","powerOffArea":"【全线路停电】停东吕杨恩占配件加工,东吕付彦微配件加工,东吕三街内2,东吕三街村西北,东吕杨蕴辉,东吕东八,东吕东二,东吕一街内5,东吕一街内1,1东吕二街内6,巨鹰起重,东吕一街内2,东吕二街野外,1东吕三街内5,东吕三街村西,清苑县东吕小康链条加工厂,清苑县超凡起重设备厂,0575136047-清苑县威龙起重机械有限公司-专变-123928961-清苑县威龙起重机械有限公司,保定三友忠诚起重机械有限公司,张树昌配件加工厂,保定京鸽起重机械制造有限公司,0549287867-清苑县伟力起重机械制造有限公司-专变-175498337-清苑县伟力起重机械制造有限公司,东吕果园,东吕杨华池配件加工,东吕二街内1,清苑县北极星起重机械厂,清苑县东闾水厂,东吕崔同芬配件加工,东吕村委会,东吕二街内3,东吕西二,东吕一街内3,东吕二街村外,1东吕三街内3","powerOffReason":"【停电原因】由于主干５号杆Ｔ５号杆三龙起重配变烧毁导致１１０ＫＶ东闾变电站１０ＫＶ东闾西５３５线路全线停电 【变更送电】因抢修进度加快原因，送电时间由２３：００变更为１８：２０ 【发布渠道】通过９５５９８发布","powerOffId":"2018060913000595"},{"poweroffId":2018060913000538,"sgpoweroffId":null,"subsName":"","lineName":"10KV石佛533","pubTranName":"西里池村北,","scope":"【影响街道/乡镇】东城坊镇 【高危重要客户】无 【影响客户】西里池","startTime":"2018-06-09 14:18:35","stopDate":"2018-06-09 18:30:00","orgNo":"1340626","typeCode":"电网故障停限电","poweroffArea":"【单台区停电】停西里池村北","poweroffReason":"【停电原因】由于低压空开烧毁导致１１０ＫＶ宋营变电站１０ＫＶ石佛５３３线路西里池村北公变台区停电 【变更送电】因抢修进度加快原因，送电时间由２３：００变更为１８：３０ 【发布渠道】通过９５５９８发布","powerTime":"2018-06-09 18:09:01","powerComm":"恢复送电","subsNo":"","lineNo":"","tgNo":"","tgName":null,"infoStatus":"1","orgName":"国网涿州市供电公司","typeName":null,"infoStatusName":null,"dateDay":null,"orgNos":null,"nowTime":null,"countyName":null,"streetName":null,"villageName":null,"roadName":null,"communityName":null,"tranName":null,"sdLineName":null,"cityCode":"1340626","cityName":"国网涿州市供电公司","provinceCode":null,"stopTime":"2018-06-09 18:30:00","powerType":"全部","powerOffArea":"【单台区停电】停西里池村北","powerOffReason":"【停电原因】由于低压空开烧毁导致１１０ＫＶ宋营变电站１０ＫＶ石佛５３３线路西里池村北公变台区停电 【变更送电】因抢修进度加快原因，送电时间由２３：００变更为１８：３０ 【发布渠道】通过９５５９８发布","powerOffId":"2018060913000538"},{"poweroffId":2018060913000526,"sgpoweroffId":null,"subsName":"","lineName":"10KV东垒子515","pubTranName":"金庆石灰800KVA专变,宏林石灰公司250KVA专变,西垒子村内2,0624449722-涞水振成石灰制造有限公司-专变-133590023-振成石灰制造400KVA,涞水金庆石灰制造有限公司新增变压,宏林石灰400KVA专变,西垒子村内变压器,涞水冠亿水泥砖制造有限公司800KVA专变,宏林石灰公司400KVA专变,0469322301-青松灰粉厂-专变-46775161-青松灰粉厂,宏林石灰制造有限公司400KVA专变,东垒子村南,东垒子东台区变压器,宏林石灰制造有限公司315KVA专变,金庆石灰50KVA专变,0469320132-涞水县鸿翔建材有限公司-专变-46775178-联合4号,琉璃瓦厂,西垒子村西变压器,东垒子煤矿台区,西垒子村东2,西垒子村西3台区变压器,河北省保定市涞水煤矿400KVA专变,0469320132-涞水县鸿翔建材有限公司-专变-125723938-鸿翔建材200KVA,","scope":"【影响街道/乡镇】永阳镇 【高危重要客户】无 【影响客户】西垒子村、东垒子村","startTime":"2018-06-09 13:46:04","stopDate":"2018-06-09 17:00:00","orgNo":"1340614","typeCode":"电网故障停限电","poweroffArea":"【全线路停电】停东垒子村南,西垒子村内2,东垒子东台区变压器,0624449722-涞水振成石灰制造有限公司-专变-133590023-振成石灰制造400KVA,宏林石灰制造有限公司315KVA专变,金庆石灰800KVA专变,金庆石灰50KVA专变,宏林石灰公司250KVA专变,0469320132-涞水县鸿翔建材有限公司-专变-46775178-联合4号,0469322301-青松灰粉厂-专变-46775161-青松灰粉厂,琉璃瓦厂,宏林石灰制造有限公司400KVA专变,西垒子村西变压器,涞水金庆石灰制造有限公司新增变压,东垒子煤矿台区,宏林石灰400KVA专变,西垒子村东2,西垒子村内变压器,西垒子村西3台区变压器,涞水冠亿水泥砖制造有限公司800KVA专变,河北省保定市涞水煤矿400KVA专变,宏林石灰公司400KVA专变,0469320132-涞水县鸿翔建材有限公司-专变-125723938-鸿翔建材200KVA","poweroffReason":"【停电原因】由于Ａ相接地导致３５ＫＶ永阳变电站１０ＫＶ东垒子５１５线路全线停电 【变更送电】无 【发布渠道】通过９５５９８发布","powerTime":"2018-06-09 16:56:41","powerComm":"已送电","subsNo":"","lineNo":"","tgNo":"","tgName":null,"infoStatus":"1","orgName":"国网涞水县供电公司","typeName":null,"infoStatusName":null,"dateDay":null,"orgNos":null,"nowTime":null,"countyName":null,"streetName":null,"villageName":null,"roadName":null,"communityName":null,"tranName":null,"sdLineName":null,"cityCode":"1340614","cityName":"国网涞水县供电公司","provinceCode":null,"stopTime":"2018-06-09 17:00:00","powerType":"全部","powerOffArea":"【全线路停电】停东垒子村南,西垒子村内2,东垒子东台区变压器,0624449722-涞水振成石灰制造有限公司-专变-133590023-振成石灰制造400KVA,宏林石灰制造有限公司315KVA专变,金庆石灰800KVA专变,金庆石灰50KVA专变,宏林石灰公司250KVA专变,0469320132-涞水县鸿翔建材有限公司-专变-46775178-联合4号,0469322301-青松灰粉厂-专变-46775161-青松灰粉厂,琉璃瓦厂,宏林石灰制造有限公司400KVA专变,西垒子村西变压器,涞水金庆石灰制造有限公司新增变压,东垒子煤矿台区,宏林石灰400KVA专变,西垒子村东2,西垒子村内变压器,西垒子村西3台区变压器,涞水冠亿水泥砖制造有限公司800KVA专变,河北省保定市涞水煤矿400KVA专变,宏林石灰公司400KVA专变,0469320132-涞水县鸿翔建材有限公司-专变-125723938-鸿翔建材200KVA","powerOffReason":"【停电原因】由于Ａ相接地导致３５ＫＶ永阳变电站１０ＫＶ东垒子５１５线路全线停电 【变更送电】无 【发布渠道】通过９５５９８发布","powerOffId":"2018060913000526"},{"poweroffId":2018060913000517,"sgpoweroffId":null,"subsName":"","lineName":"东南郊531线","pubTranName":"滨河3#公用配电变压器,滨河6#公用箱变进线配电变压器,滨河4#公用箱变进线配电变压器,滨河5#公用箱变进线配电变压器,滨河新区公用配电变压器,","scope":"【影响街道/乡镇】雄州镇 【高危重要客户】无 【影响客户】滨河小区","startTime":"2018-06-14 08:00:00","stopDate":"2018-06-14 18:00:00","orgNo":"1340624","typeCode":"临时停电","poweroffArea":"【分支停电】停滨河3#公用配电变压器,滨河4#公用箱变进线配电变压器,滨河5#公用箱变进线配电变压器,滨河6#公用箱变进线配电变压器,滨河新区公用配电变压器","poweroffReason":"【停电原因】由于更换变压器导致１１０ＫＶ铺南变电站东南郊５３１线路主干１１号杆刀闸及以下线路分支停电 【变更送电】无 【发布渠道】通过９５５９８发布","powerTime":"2018-06-14 17:53:24","powerComm":"已送电","subsNo":"","lineNo":"","tgNo":"","tgName":null,"infoStatus":"1","orgName":"(原)国网雄县供电公司","typeName":null,"infoStatusName":null,"dateDay":null,"orgNos":null,"nowTime":null,"countyName":null,"streetName":null,"villageName":null,"roadName":null,"communityName":null,"tranName":null,"sdLineName":null,"cityCode":"1340624","cityName":"(原)国网雄县供电公司","provinceCode":null,"stopTime":"2018-06-14 18:00:00","powerType":"全部","powerOffArea":"【分支停电】停滨河3#公用配电变压器,滨河4#公用箱变进线配电变压器,滨河5#公用箱变进线配电变压器,滨河6#公用箱变进线配电变压器,滨河新区公用配电变压器","powerOffReason":"【停电原因】由于更换变压器导致１１０ＫＶ铺南变电站东南郊５３１线路主干１１号杆刀闸及以下线路分支停电 【变更送电】无 【发布渠道】通过９５５９８发布","powerOffId":"2018060913000517"},{"poweroffId":2018060913000512,"sgpoweroffId":null,"subsName":"","lineName":"10kV西留518线","pubTranName":"【纯农排变】西龙5#水利公用,西龙7#公用,西龙5#公用,【纯农排变】西龙村6#水利,西龙公用2#,【纯农排变】西龙堂4#水利公用,西龙公用1#,西龙6#公用,西龙4#公用,【纯农排变】西龙堂村北水,【纯农排变】西龙7#水利公用,西龙3#公用,","scope":"【影响街道/乡镇】北沙口乡 【高危重要客户】无 【影响客户】西龙（西龙堂）","startTime":"2018-06-14 08:00:00","stopDate":"2018-06-14 17:30:00","orgNo":"1340624","typeCode":"临时停电","poweroffArea":"【分支停电】停【纯农排变】西龙堂村北水,西龙4#公用,西龙公用2#,【纯农排变】西龙7#水利公用,西龙5#公用,西龙公用1#,西龙6#公用,西龙7#公用,【纯农排变】西龙5#水利公用,【纯农排变】西龙村6#水利,西龙3#公用,【纯农排变】西龙堂4#水利公用","poweroffReason":"【停电原因】由于换线导致３５ＫＶ北沙变电站１０ＫＶ西留５１８线路西龙４号公用分支０１号杆刀闸动触头及以下线路分支停电 【变更送电】因施工进度加快原因，送电时间由１９:００变更为１７:３０ 【发布渠道】通过９５５９８发布","powerTime":"2018-06-14 16:41:33","powerComm":"已送电","subsNo":"","lineNo":"","tgNo":"","tgName":null,"infoStatus":"1","orgName":"(原)国网雄县供电公司","typeName":null,"infoStatusName":null,"dateDay":null,"orgNos":null,"nowTime":null,"countyName":null,"streetName":null,"villageName":null,"roadName":null,"communityName":null,"tranName":null,"sdLineName":null,"cityCode":"1340624","cityName":"(原)国网雄县供电公司","provinceCode":null,"stopTime":"2018-06-14 17:30:00","powerType":"全部","powerOffArea":"【分支停电】停【纯农排变】西龙堂村北水,西龙4#公用,西龙公用2#,【纯农排变】西龙7#水利公用,西龙5#公用,西龙公用1#,西龙6#公用,西龙7#公用,【纯农排变】西龙5#水利公用,【纯农排变】西龙村6#水利,西龙3#公用,【纯农排变】西龙堂4#水利公用","powerOffReason":"【停电原因】由于换线导致３５ＫＶ北沙变电站１０ＫＶ西留５１８线路西龙４号公用分支０１号杆刀闸动触头及以下线路分支停电 【变更送电】因施工进度加快原因，送电时间由１９:００变更为１７:３０ 【发布渠道】通过９５５９８发布","powerOffId":"2018060913000512"},{"poweroffId":2018060913000498,"sgpoweroffId":null,"subsName":"","lineName":"10kV东河525线","pubTranName":"伏村综合三台区,西长仕综合1号变压器,西河综合4号变压器,","scope":"【影响街道/乡镇】明官店乡 【高危重要客户】无 【影响客户】西长仕、霍庄、伏村、西河、南流、北辛庄","startTime":"2018-06-09 12:41:31","stopDate":"2018-06-09 15:30:00","orgNo":"1340606","typeCode":"电网故障停限电","poweroffArea":"【全线路停电】停西长仕综合1号变压器,伏村综合三台区,西河综合4号变压器","poweroffReason":"【停电原因】由于站内开关掉闸导致１１０ＫＶ东河变电站１０ＫＶ东河５２５线路全线停电 【变更送电】无 【发布渠道】通过９５５９８发布","powerTime":"2018-06-09 14:39:13","powerComm":"已送电","subsNo":"","lineNo":"","tgNo":"","tgName":null,"infoStatus":"1","orgName":"国网安国市供电公司","typeName":null,"infoStatusName":null,"dateDay":null,"orgNos":null,"nowTime":null,"countyName":null,"streetName":null,"villageName":null,"roadName":null,"communityName":null,"tranName":null,"sdLineName":null,"cityCode":"1340606","cityName":"国网安国市供电公司","provinceCode":null,"stopTime":"2018-06-09 15:30:00","powerType":"全部","powerOffArea":"【全线路停电】停西长仕综合1号变压器,伏村综合三台区,西河综合4号变压器","powerOffReason":"【停电原因】由于站内开关掉闸导致１１０ＫＶ东河变电站１０ＫＶ东河５２５线路全线停电 【变更送电】无 【发布渠道】通过９５５９８发布","powerOffId":"2018060913000498"},{"poweroffId":2018060913000452,"sgpoweroffId":null,"subsName":"","lineName":"邓家店线513","pubTranName":"0000005254南宋变压器,峪尔东2变压器,0013205971太平庄北变压器,0012436735北宋北2区变压器,0000005397郎家庄南变压器,0013681418北宋农灌变压器,阳光加油城,0012855255干河沟农灌变压器,干河铺南区变压器,0012436736峪尔东区变压器,0000005256邓家店村变压器,0012436392郎家庄西区变压器,郎家庄村委会,曲阳县郎家庄郎家庄中学变压器,0012414036涧子东区变压器,0012434219北宋东区变压器,0000005453北宋南变压器,0000005255北宋北变压器,0000005253忙牛台变压器,张伍江,0000005257干河沟变压器,0000005258干河铺变压器,0000005250郎家庄中变压器,0013205972下庄东2变压器,0013205453下庄东1变压器,0000006824干河铺北区变压器,0012436732邓家店西区变压器,0012434218南宋南区变压器,0000005251太平庄变压器,0012436733下庄西区变压器,下庄西2区变压器,0000007154太平庄南变压器,0000005260涧子村变压器,0012436737忙牛台南区变压器,0000005261峪尔变压器,涧子东2变压器,0000005249郎家庄北变压器,0012436734郎家庄东区变压器,0000006019郎家庄北2变压器,","scope":"【影响街道/乡镇】郎家庄乡【高危重要客户】无【影响客户】下庄、干河沟、邓家店、朗家庄、南宋、北宋、忙牛台、干河浦、太平庄、涧子村、峪尔","startTime":"2018-06-09 11:43:45","stopDate":"2018-06-09 12:30:00","orgNo":"1340619","typeCode":"电网故障停限电","poweroffArea":"【全线路停电】停0000007154太平庄南变压器,0013681418北宋农灌变压器,郎家庄村委会,张伍江,涧子东2变压器,0000005258干河铺变压器,0000005255北宋北变压器,0012436737忙牛台南区变压器,0000005251太平庄变压器,0012436733下庄西区变压器,0000005249郎家庄北变压器,下庄西2区变压器,0000006019郎家庄北2变压器,0000005261峪尔变压器,0013205453下庄东1变压器,0013205972下庄东2变压器,0012436735北宋北2区变压器,0000005260涧子村变压器,0012436734郎家庄东区变压器,0000006824干河铺北区变压器,0000005257干河沟变压器,0012436392郎家庄西区变压器,0000005254南宋变压器,0012434219北宋东区变压器,0012436736峪尔东区变压器,0000005397郎家庄南变压器,0000005250郎家庄中变压器,0013205971太平庄北变压器,0012436732邓家店西区变压器,峪尔东2变压器,0000005256邓家店村变压器,0000005453北宋南变压器,0012414036涧子东区变压器,干河铺南区变压器,0000005253忙牛台变压器,阳光加油城,0012434218南宋南区变压器,0012855255干河沟农灌变压器,曲阳县郎家庄郎家庄中学变压器","poweroffReason":"【停电原因】由于线路Ｂ相接地导致３５ＫＶ郎家庄变电站１０ＫＶ邓家店线５１３线路全线停电【变更送电】因抢修进度加快原因，送电时间由１４：００变更为１２：３０【发布渠道】通过９５５９８发布","powerTime":"2018-06-09 12:24:46","powerComm":"已送电","subsNo":"","lineNo":"","tgNo":"","tgName":null,"infoStatus":"1","orgName":"国网曲阳县供电公司","typeName":null,"infoStatusName":null,"dateDay":null,"orgNos":null,"nowTime":null,"countyName":null,"streetName":null,"villageName":null,"roadName":null,"communityName":null,"tranName":null,"sdLineName":null,"cityCode":"1340619","cityName":"国网曲阳县供电公司","provinceCode":null,"stopTime":"2018-06-09 12:30:00","powerType":"全部","powerOffArea":"【全线路停电】停0000007154太平庄南变压器,0013681418北宋农灌变压器,郎家庄村委会,张伍江,涧子东2变压器,0000005258干河铺变压器,0000005255北宋北变压器,0012436737忙牛台南区变压器,0000005251太平庄变压器,0012436733下庄西区变压器,0000005249郎家庄北变压器,下庄西2区变压器,0000006019郎家庄北2变压器,0000005261峪尔变压器,0013205453下庄东1变压器,0013205972下庄东2变压器,0012436735北宋北2区变压器,0000005260涧子村变压器,0012436734郎家庄东区变压器,0000006824干河铺北区变压器,0000005257干河沟变压器,0012436392郎家庄西区变压器,0000005254南宋变压器,0012434219北宋东区变压器,0012436736峪尔东区变压器,0000005397郎家庄南变压器,0000005250郎家庄中变压器,0013205971太平庄北变压器,0012436732邓家店西区变压器,峪尔东2变压器,0000005256邓家店村变压器,0000005453北宋南变压器,0012414036涧子东区变压器,干河铺南区变压器,0000005253忙牛台变压器,阳光加油城,0012434218南宋南区变压器,0012855255干河沟农灌变压器,曲阳县郎家庄郎家庄中学变压器","powerOffReason":"【停电原因】由于线路Ｂ相接地导致３５ＫＶ郎家庄变电站１０ＫＶ邓家店线５１３线路全线停电【变更送电】因抢修进度加快原因，送电时间由１４：００变更为１２：３０【发布渠道】通过９５５９８发布","powerOffId":"2018060913000452"},{"poweroffId":2018060913000439,"sgpoweroffId":null,"subsName":"","lineName":"北台线514","pubTranName":"0000005292三会东变压器,0013154939三会东三区变压器,0000005279张家峪变压器,曲阳县万达煤炭运销有限公司变压器,北方加油城,0000005283土洞子变压器,0000005294南沟变压器,河北交通投资集团保阜高速公路有限公司变压器,0000005284将子峪变压器,八里庄西3变压器,0012768965八里庄西区变压器,庄尔上变压器,0014477020榆林新区,0680908186-曲阳雄世石业加工厂-专变-219734777-曲阳雄世石业加工厂变压器,曲阳县太行伟业物资有限公司3变压器,0000005302三会中变压器,0000005296八里庄变压器,0012815364仁景树西2区变压器,0012978904仁景树统管副业变压器,0012768966段术南区变压器,曲阳县曙光木器加工厂变压器,0000007248仁景树南区变压器,曲阳县恒发石子加工厂变压器,0014460823八里庄西2区,0000005285段术变压器,0000006866葫芦旺东区变压器,0000005299任景树西变压器,0012451231北台西区变压器,曲阳县润轩蛋鸡养殖场变压器,0012451731冯家庄南区变压器,0000006825庄尔上东区变压器,仁景树西三区变压器,0680908186-曲阳雄世石业加工厂-专变-219728847-曲阳雄世石业加工厂变压器,0000005287牛分岭变压器,0013155437黄岭洼南区变压器,0000005666三会西变压器,0014460824任景树东2区,0000005282西良峪变压器,北台乡变压器,保能曲阳县光伏电力开发有限公司变压器,0012451729张家峪西区变压器,0000005304冯家庄变压器,土洞子西变压器,0012451727超树岭西区变压器,0000005280岸上变压器,0000005300曹家峪变压器,0012451228落地南区变压器,0012451230牛分岭东区变压器,八里庄西4变压器,0000005301沟掌1变压器,0000005275黄岭洼村变压器,董家沟村2,0469457201-河北省高速公路禄发实业总公司曲阳服务区-专变-94407841-河北省高速公路禄发实业总公司曲阳服务区变压器,0000005297葫芦汪变压器,0012451235立台西区变压器,0012883900董家沟北区变压器,仁景树北1变压器,曲阳金上源矿产品有限公司变压器,0013154937岸上南区变压器,榆林变压器,0000005288超树岭变压器,山西煤炭运销集团曲阳煤炭物流有限公司变压器,曲阳县恒茂矿业有限公司变压器,0000005289立台变压器,0000005286红岗变压器,0013155435曹家峪南区变压器,0000006028沟掌2变压器,0000006229仁景树北变压器,曲阳利环矿业有限公司变压器,0680908186-曲阳雄世石业加工厂-专变-219728849-曲阳雄世石业加工厂变压器,0000005290枣台变压器,庄尔上南区变压器,0012451732南沟北区变压器,0469457201-河北省高速公路禄发实业总公","scope":"【影响街道/乡镇】北台乡【高危重要客户】无【影响客户】南沟、黄岭洼、张家峪、枣台、落地、超树岭、红岗、牛分岭、段术、西良峪、立台、榆林、岸上、北台、任景树、土洞子、将子峪、董家沟、八里庄、冯家庄、 庄尔上、沟掌、曹家峪、三会","startTime":"2018-06-09 11:21:43","stopDate":"2018-06-09 12:30:00","orgNo":"1340619","typeCode":"电网故障停限电","poweroffArea":"【全线路停电】停0000005291落地村变压器,0000005287牛分岭变压器,0012451732南沟北区变压器,0012883900董家沟北区变压器,0012451228落地南区变压器,曲阳县恒茂矿业有限公司变压器,0000005666三会西变压器,0000005294南沟变压器,0000005296八里庄变压器,0000005275黄岭洼村变压器,0012451731冯家庄南区变压器,八里庄西4变压器,0000005298任景树东变压器,0469457201-河北省高速公路禄发实业总公司曲阳服务区-专变-94362945-河北省高速公路禄发实业总公司曲阳服务区变压器,0000005301沟掌1变压器,河北交通投资集团保阜高速公路有限公司变压器,0000005297葫芦汪变压器,榆林变压器,曲阳利环矿业有限公司变压器,北台乡煤炭经营园区,0000006229仁景树北变压器,0000007248仁景树南区变压器,0000005280岸上变压器,曲阳县恒发石子加工厂变压器,0000005292三会东变压器,0013154937岸上南区变压器,0000006825庄尔上东区变压器,0680908186-曲阳雄世石业加工厂-专变-219734777-曲阳雄世石业加工厂变压器,北方加油城,0000005304冯家庄变压器,曲阳县曙光木器加工厂变压器,0014460824任景树东2区,0000006866葫芦旺东区变压器,0012815364仁景树西2区变压器,张过堂,0013155435曹家峪南区变压器,曲阳金上源矿产品有限公司变压器,曲阳县万达煤炭运销有限公司变压器,八里庄西3变压器,0012451231北台西区变压器,北台乡变压器,0012768965八里庄西区变压器,0012768966段术南区变压器,仁景树西三区变压器,仁景树北1变压器,0012451727超树岭西区变压器,0000005290枣台变压器,0012978904仁景树统管副业变压器,董家沟村2,0680908186-曲阳雄世石业加工厂-专变-219728849-曲阳雄世石业加工厂变压器,保能曲阳县光伏电力开发有限公司变压器,0680908186-曲阳雄世石业加工厂-专变-219728847-曲阳雄世石业加工厂变压器,曲阳县太行伟业物资有限公司3变压器,0012451729张家峪西区变压器,0000005286红岗变压器,0000005300曹家峪变压器,土洞子西变压器,0012451235立台西区变压器,0000005289立台变压器,0000005278北台村变压器,0000005283土洞子变压器,","poweroffReason":"【停电原因】由于线路Ｂ相接地导致３５ＫＶ郎家庄变电站北台５１４线路全线停电【变更送电】因抢修进度加快原因，送电时间由１４：００变更为１２：３０【发布渠道】通过９５５９８发布","powerTime":"2018-06-09 12:07:27","powerComm":"已送电","subsNo":"","lineNo":"","tgNo":"","tgName":null,"infoStatus":"1","orgName":"国网曲阳县供电公司","typeName":null,"infoStatusName":null,"dateDay":null,"orgNos":null,"nowTime":null,"countyName":null,"streetName":null,"villageName":null,"roadName":null,"communityName":null,"tranName":null,"sdLineName":null,"cityCode":"1340619","cityName":"国网曲阳县供电公司","provinceCode":null,"stopTime":"2018-06-09 12:30:00","powerType":"全部","powerOffArea":"【全线路停电】停0000005291落地村变压器,0000005287牛分岭变压器,0012451732南沟北区变压器,0012883900董家沟北区变压器,0012451228落地南区变压器,曲阳县恒茂矿业有限公司变压器,0000005666三会西变压器,0000005294南沟变压器,0000005296八里庄变压器,0000005275黄岭洼村变压器,0012451731冯家庄南区变压器,八里庄西4变压器,0000005298任景树东变压器,0469457201-河北省高速公路禄发实业总公司曲阳服务区-专变-94362945-河北省高速公路禄发实业总公司曲阳服务区变压器,0000005301沟掌1变压器,河北交通投资集团保阜高速公路有限公司变压器,0000005297葫芦汪变压器,榆林变压器,曲阳利环矿业有限公司变压器,北台乡煤炭经营园区,0000006229仁景树北变压器,0000007248仁景树南区变压器,0000005280岸上变压器,曲阳县恒发石子加工厂变压器,0000005292三会东变压器,0013154937岸上南区变压器,0000006825庄尔上东区变压器,0680908186-曲阳雄世石业加工厂-专变-219734777-曲阳雄世石业加工厂变压器,北方加油城,0000005304冯家庄变压器,曲阳县曙光木器加工厂变压器,0014460824任景树东2区,0000006866葫芦旺东区变压器,0012815364仁景树西2区变压器,张过堂,0013155435曹家峪南区变压器,曲阳金上源矿产品有限公司变压器,曲阳县万达煤炭运销有限公司变压器,八里庄西3变压器,0012451231北台西区变压器,北台乡变压器,0012768965八里庄西区变压器,0012768966段术南区变压器,仁景树西三区变压器,仁景树北1变压器,0012451727超树岭西区变压器,0000005290枣台变压器,0012978904仁景树统管副业变压器,董家沟村2,0680908186-曲阳雄世石业加工厂-专变-219728849-曲阳雄世石业加工厂变压器,保能曲阳县光伏电力开发有限公司变压器,0680908186-曲阳雄世石业加工厂-专变-219728847-曲阳雄世石业加工厂变压器,曲阳县太行伟业物资有限公司3变压器,0012451729张家峪西区变压器,0000005286红岗变压器,0000005300曹家峪变压器,土洞子西变压器,0012451235立台西区变压器,0000005289立台变压器,0000005278北台村变压器,0000005283土洞子变压器,","powerOffReason":"【停电原因】由于线路Ｂ相接地导致３５ＫＶ郎家庄变电站北台５１４线路全线停电【变更送电】因抢修进度加快原因，送电时间由１４：００变更为１２：３０【发布渠道】通过９５５９８发布","powerOffId":"2018060913000439"},{"poweroffId":2018060913000434,"sgpoweroffId":null,"subsName":"","lineName":"范家庄线512","pubTranName":"0000007166范家庄东2变压器,刘合顺,中国移动通信集团河北有限公司曲阳分公司变压器,0012436738杨家台西区变压器,0000005382范家庄西变压器,0000005232武家湾变压器,0000005234西沟变压器,上高堡西2变压器,0000005237上高堡变压器,范家庄王聪苗修配厂,0014477516下高堡东2区,0000005240栗树沟变压器,上下跑统管变压器,0013205978葡萄口北变压器,金鑫蜂窝煤厂,0000007167武家湾南区变压器,曲阳县虎山风景区旅游服务有限公司2变压器1,0000006784杨家台东区变压器,0000005246葡塔石变压器,0000005330下高堡变压器,范家庄南变压器,0014477023青山西区,张玲火,曲阳县小型病险水库除险加固工程,曲阳县虎山风景区旅游服务有限公司2变压器2,0000005243葡萄口变压器,0000005244虎山变压器,王建华蜂窝煤厂,0012436741虎山西区变压器,0013205464王家庄南变压器,0000005235王家庄变压器,0012436742下高堡东区变压器,曲阳县乾盛红枣经销处,0000005242杨家台变压器,0000005238虎神沟变压器,范家庄北变压器,0012436739青山东区变压器,0013205463虎神沟北变压器,曲阳县虎山风景区旅游服务有限公司2变压器,0000005247湾沟变压器,曲阳县上高堡铁粉销售部变压器,0000005245青山变压器,0012436740武家湾西区变压器,0012878893下高堡西区变压器,0000005239范家庄东变压器,0000005241上下跑变压器,曲阳县新生水泥砖厂变压器,0000006864葡萄口南区变压器,0000006826栗树沟2变压器,","scope":"【影响街道/乡镇】范家庄乡【高危重要客户】无【影响客户】下高堡、范家庄、栗树沟、上下跑、青山 、虎山、葡塔石、葡萄口、上高堡、虎神沟、杨家台、西沟、王家庄、武家湾南、湾沟","startTime":"2018-06-09 11:17:08","stopDate":"2018-06-09 12:30:00","orgNo":"1340619","typeCode":"电网故障停限电","poweroffArea":"【全线路停电】停0000005241上下跑变压器,曲阳县虎山风景区旅游服务有限公司2变压器,0000005243葡萄口变压器,0013205463虎神沟北变压器,金鑫蜂窝煤厂,0000005237上高堡变压器,范家庄王聪苗修配厂,0000005247湾沟变压器,0000005234西沟变压器,曲阳县小型病险水库除险加固工程,曲阳县乾盛红枣经销处,张玲火,曲阳县虎山风景区旅游服务有限公司2变压器2,曲阳县新生水泥砖厂变压器,0000005238虎神沟变压器,范家庄北变压器,0000005382范家庄西变压器,0000005242杨家台变压器,0012436740武家湾西区变压器,0000005244虎山变压器,上高堡西2变压器,0000005235王家庄变压器,中国移动通信集团河北有限公司曲阳分公司变压器,0013205978葡萄口北变压器,王建华蜂窝煤厂,0000005246葡塔石变压器,曲阳县虎山风景区旅游服务有限公司2变压器1,0000006864葡萄口南区变压器,0000005330下高堡变压器,刘合顺,0000006826栗树沟2变压器,0000007167武家湾南区变压器,0000005245青山变压器,0013205464王家庄南变压器,0012436738杨家台西区变压器,0012436742下高堡东区变压器,0000005232武家湾变压器,0012878893下高堡西区变压器,0012436739青山东区变压器,0000007166范家庄东2变压器,0014477516下高堡东2区,0000006784杨家台东区变压器,0012436741虎山西区变压器,曲阳县上高堡铁粉销售部变压器,范家庄南变压器,0000005239范家庄东变压器,0014477023青山西区,0000005240栗树沟变压器,上下跑统管变压器","poweroffReason":"【停电原因】由于线路Ａ相接地导致３５ＫＶ郎家庄变电站１０ＫＶ范家庄线５１２线路全线停电【变更送电】因抢修进度加快原因，送电时间由１４：００变更为１２：３０【发布渠道】通过９５５９８发布","powerTime":"2018-06-09 12:07:12","powerComm":"已送电","subsNo":"","lineNo":"","tgNo":"","tgName":null,"infoStatus":"1","orgName":"国网曲阳县供电公司","typeName":null,"infoStatusName":null,"dateDay":null,"orgNos":null,"nowTime":null,"countyName":null,"streetName":null,"villageName":null,"roadName":null,"communityName":null,"tranName":null,"sdLineName":null,"cityCode":"1340619","cityName":"国网曲阳县供电公司","provinceCode":null,"stopTime":"2018-06-09 12:30:00","powerType":"全部","powerOffArea":"【全线路停电】停0000005241上下跑变压器,曲阳县虎山风景区旅游服务有限公司2变压器,0000005243葡萄口变压器,0013205463虎神沟北变压器,金鑫蜂窝煤厂,0000005237上高堡变压器,范家庄王聪苗修配厂,0000005247湾沟变压器,0000005234西沟变压器,曲阳县小型病险水库除险加固工程,曲阳县乾盛红枣经销处,张玲火,曲阳县虎山风景区旅游服务有限公司2变压器2,曲阳县新生水泥砖厂变压器,0000005238虎神沟变压器,范家庄北变压器,0000005382范家庄西变压器,0000005242杨家台变压器,0012436740武家湾西区变压器,0000005244虎山变压器,上高堡西2变压器,0000005235王家庄变压器,中国移动通信集团河北有限公司曲阳分公司变压器,0013205978葡萄口北变压器,王建华蜂窝煤厂,0000005246葡塔石变压器,曲阳县虎山风景区旅游服务有限公司2变压器1,0000006864葡萄口南区变压器,0000005330下高堡变压器,刘合顺,0000006826栗树沟2变压器,0000007167武家湾南区变压器,0000005245青山变压器,0013205464王家庄南变压器,0012436738杨家台西区变压器,0012436742下高堡东区变压器,0000005232武家湾变压器,0012878893下高堡西区变压器,0012436739青山东区变压器,0000007166范家庄东2变压器,0014477516下高堡东2区,0000006784杨家台东区变压器,0012436741虎山西区变压器,曲阳县上高堡铁粉销售部变压器,范家庄南变压器,0000005239范家庄东变压器,0014477023青山西区,0000005240栗树沟变压器,上下跑统管变压器","powerOffReason":"【停电原因】由于线路Ａ相接地导致３５ＫＶ郎家庄变电站１０ＫＶ范家庄线５１２线路全线停电【变更送电】因抢修进度加快原因，送电时间由１４：００变更为１２：３０【发布渠道】通过９５５９８发布","powerOffId":"2018060913000434"},{"poweroffId":2018060913000426,"sgpoweroffId":null,"subsName":"","lineName":"东石门线511","pubTranName":"0012453255东石门西区变压器,0012453750罗家沟东区变压器,0000005224蝎子沟变压器,曲阳县茂森木材加工厂,郎家庄供电所统管变压器,0000005227上阁尔变压器,中国铁塔股份有限公司保定市分公司变压器,0013205976东会西变压器,0012414771上阁尔东区变压器,0000006865竹林北区变压器,0000005228皆安变压器,0014460821东石门东区,0000005563竹林东变变压器,曲阳县彦宗带锯加工厂变压器,0000005226计都石变压器,0000005218东石门北变压器,0000005220石门上变压器,0000006945下阁尔西区变压器,0000005221口头变压器,0000005223尖地角变压器,0000005222中左变压器,曲阳县农村信用合作联社郎家庄信用社变压器,曲阳县现德蜂窝煤厂变压器,0000005329下阁尔变压器,0013205462尖地角西变压器,0012878890口头东区变压器,0000005219罗家沟变压器,0693890445-曲阳县京昌农业开发有限公司-专变-237523119-曲阳县京昌农业开发有限公司变压器,曲阳县郎家庄乡东石门小学变压器,0012884383中佐东区变压器,0013205458石门上东变压器,0000005229竹林变压器,","scope":"【影响街道/乡镇】郎家庄乡【高危重要客户】无【影响客户】石门上、上阁尔、口头、计都石、尖地角、蝎子沟、东会、东石门、竹林、下阁尔、罗家沟、中左、皆安","startTime":"2018-06-09 11:14:36","stopDate":"2018-06-09 12:30:00","orgNo":"1340619","typeCode":"电网故障停限电","poweroffArea":"【全线路停电】停0000005329下阁尔变压器,0000006945下阁尔西区变压器,曲阳县彦宗带锯加工厂变压器,0000005221口头变压器,0000005219罗家沟变压器,0012453750罗家沟东区变压器,0000005229竹林变压器,0693890445-曲阳县京昌农业开发有限公司-专变-237523119-曲阳县京昌农业开发有限公司变压器,0000005220石门上变压器,0012453255东石门西区变压器,曲阳县现德蜂窝煤厂变压器,0000005563竹林东变变压器,0012884383中佐东区变压器,0000005224蝎子沟变压器,0012878890口头东区变压器,0000005228皆安变压器,0000005227上阁尔变压器,曲阳县茂森木材加工厂,0014460821东石门东区,曲阳县郎家庄乡东石门小学变压器,0000005223尖地角变压器,0000005226计都石变压器,0000006865竹林北区变压器,0013205976东会西变压器,0013205462尖地角西变压器,郎家庄供电所统管变压器,0012414771上阁尔东区变压器,中国铁塔股份有限公司保定市分公司变压器,0013205458石门上东变压器,0000005222中左变压器,0000005218东石门北变压器,曲阳县农村信用合作联社郎家庄信用社变压器","poweroffReason":"【停电原因】由于线路Ｂ相接地导致３５ＫＶ郎家庄变电站１０ＫＶ东石门线５１１线路全线停电【变更送电】因抢修进度加快原因，送电时间由１４：００变更为１２：３０【发布渠道】通过９５５９８发布","powerTime":"2018-06-09 12:02:42","powerComm":"已送电","subsNo":"","lineNo":"","tgNo":"","tgName":null,"infoStatus":"1","orgName":"国网曲阳县供电公司","typeName":null,"infoStatusName":null,"dateDay":null,"orgNos":null,"nowTime":null,"countyName":null,"streetName":null,"villageName":null,"roadName":null,"communityName":null,"tranName":null,"sdLineName":null,"cityCode":"1340619","cityName":"国网曲阳县供电公司","provinceCode":null,"stopTime":"2018-06-09 12:30:00","powerType":"全部","powerOffArea":"【全线路停电】停0000005329下阁尔变压器,0000006945下阁尔西区变压器,曲阳县彦宗带锯加工厂变压器,0000005221口头变压器,0000005219罗家沟变压器,0012453750罗家沟东区变压器,0000005229竹林变压器,0693890445-曲阳县京昌农业开发有限公司-专变-237523119-曲阳县京昌农业开发有限公司变压器,0000005220石门上变压器,0012453255东石门西区变压器,曲阳县现德蜂窝煤厂变压器,0000005563竹林东变变压器,0012884383中佐东区变压器,0000005224蝎子沟变压器,0012878890口头东区变压器,0000005228皆安变压器,0000005227上阁尔变压器,曲阳县茂森木材加工厂,0014460821东石门东区,曲阳县郎家庄乡东石门小学变压器,0000005223尖地角变压器,0000005226计都石变压器,0000006865竹林北区变压器,0013205976东会西变压器,0013205462尖地角西变压器,郎家庄供电所统管变压器,0012414771上阁尔东区变压器,中国铁塔股份有限公司保定市分公司变压器,0013205458石门上东变压器,0000005222中左变压器,0000005218东石门北变压器,曲阳县农村信用合作联社郎家庄信用社变压器","powerOffReason":"【停电原因】由于线路Ｂ相接地导致３５ＫＶ郎家庄变电站１０ＫＶ东石门线５１１线路全线停电【变更送电】因抢修进度加快原因，送电时间由１４：００变更为１２：３０【发布渠道】通过９５５９８发布","powerOffId":"2018060913000426"}],"pageModel":{"pageNow":1013,"totalCount":10973,"totalPage":1098,"tableRows":0,"pageCount":10,"beginCount":10120},"isExperi":"1"}