{"message":"","today":"2020-06-15","seleList":[{"poweroffId":2018060913000396,"sgpoweroffId":null,"subsName":"","lineName":"10KV东垒子515","pubTranName":"西垒子村内2,0624449722-涞水振成石灰制造有限公司-专变-133590023-振成石灰制造400KVA,金庆石灰800KVA专变,宏林石灰公司250KVA专变,0469322301-青松灰粉厂-专变-46775161-青松灰粉厂,琉璃瓦厂,西垒子村西变压器,东垒子煤矿台区,河北省保定市涞水煤矿400KVA专变,西垒子村内变压器,宏林石灰公司400KVA专变,0469320132-涞水县鸿翔建材有限公司-专变-125723938-鸿翔建材200KVA,西垒子村西3台区变压器,涞水冠亿水泥砖制造有限公司800KVA专变,东垒子村南,东垒子东台区变压器,宏林石灰制造有限公司315KVA专变,金庆石灰50KVA专变,0469320132-涞水县鸿翔建材有限公司-专变-46775178-联合4号,宏林石灰制造有限公司400KVA专变,涞水金庆石灰制造有限公司新增变压,宏林石灰400KVA专变,西垒子村东2,","scope":"【影响街道/乡镇】永阳镇 【高危重要客户】无 【影响客户】西垒子村、东垒子村","startTime":"2018-06-09 10:18:52","stopDate":"2018-06-09 12:00:00","orgNo":"1340614","typeCode":"电网故障停限电","poweroffArea":"【全线路停电】停东垒子村南,西垒子村内2,东垒子东台区变压器,0624449722-涞水振成石灰制造有限公司-专变-133590023-振成石灰制造400KVA,宏林石灰制造有限公司315KVA专变,金庆石灰800KVA专变,金庆石灰50KVA专变,宏林石灰公司250KVA专变,0469320132-涞水县鸿翔建材有限公司-专变-46775178-联合4号,0469322301-青松灰粉厂-专变-46775161-青松灰粉厂,琉璃瓦厂,宏林石灰制造有限公司400KVA专变,西垒子村西变压器,涞水金庆石灰制造有限公司新增变压,东垒子煤矿台区,宏林石灰400KVA专变,西垒子村东2,西垒子村内变压器,西垒子村西3台区变压器,涞水冠亿水泥砖制造有限公司800KVA专变,河北省保定市涞水煤矿400KVA专变,宏林石灰公司400KVA专变,0469320132-涞水县鸿翔建材有限公司-专变-125723938-鸿翔建材200KVA","poweroffReason":"【停电原因】由于Ａ相接地导致３５ＫＶ永阳变电站１０ＫＶ东垒子５１５线路全线停电 【变更送电】无 【发布渠道】通过９５５９８发布","powerTime":"2018-06-09 11:04:50","powerComm":"已送电","subsNo":"","lineNo":"","tgNo":"","tgName":null,"infoStatus":"1","orgName":"国网涞水县供电公司","typeName":null,"infoStatusName":null,"dateDay":null,"orgNos":null,"nowTime":null,"countyName":null,"streetName":null,"villageName":null,"roadName":null,"communityName":null,"tranName":null,"sdLineName":null,"cityCode":"1340614","cityName":"国网涞水县供电公司","provinceCode":null,"stopTime":"2018-06-09 12:00:00","powerType":"全部","powerOffArea":"【全线路停电】停东垒子村南,西垒子村内2,东垒子东台区变压器,0624449722-涞水振成石灰制造有限公司-专变-133590023-振成石灰制造400KVA,宏林石灰制造有限公司315KVA专变,金庆石灰800KVA专变,金庆石灰50KVA专变,宏林石灰公司250KVA专变,0469320132-涞水县鸿翔建材有限公司-专变-46775178-联合4号,0469322301-青松灰粉厂-专变-46775161-青松灰粉厂,琉璃瓦厂,宏林石灰制造有限公司400KVA专变,西垒子村西变压器,涞水金庆石灰制造有限公司新增变压,东垒子煤矿台区,宏林石灰400KVA专变,西垒子村东2,西垒子村内变压器,西垒子村西3台区变压器,涞水冠亿水泥砖制造有限公司800KVA专变,河北省保定市涞水煤矿400KVA专变,宏林石灰公司400KVA专变,0469320132-涞水县鸿翔建材有限公司-专变-125723938-鸿翔建材200KVA","powerOffReason":"【停电原因】由于Ａ相接地导致３５ＫＶ永阳变电站１０ＫＶ东垒子５１５线路全线停电 【变更送电】无 【发布渠道】通过９５５９８发布","powerOffId":"2018060913000396"},{"poweroffId":2018060913000378,"sgpoweroffId":null,"subsName":"","lineName":"10kV522兑坎庄线","pubTranName":"武装部小区范蠡西路综合5台区变压器,","scope":"【影响街道/乡镇】范蠡西路【高危重要客户】无【影响客户】武装部小区","startTime":"2018-06-09 10:00:41","stopDate":"2018-06-09 11:30:00","orgNo":"1340616","typeCode":"电网故障停限电","poweroffArea":"【单台区停电】停武装部小区范蠡西路综合5台区变压器","poweroffReason":"【停电原因】】由于ＪＰ柜内空开掉闸导致２２０ＫＶ蠡县变电站１０ＫＶ兑坎庄５２２线路武装部小区范蠡西路综合五公变台区停电【变更送电】无【发布渠道】通过９５５９８发布","powerTime":"2018-06-09 11:01:30","powerComm":"已送电","subsNo":"","lineNo":"","tgNo":"","tgName":null,"infoStatus":"1","orgName":"国网蠡县供电公司","typeName":null,"infoStatusName":null,"dateDay":null,"orgNos":null,"nowTime":null,"countyName":null,"streetName":null,"villageName":null,"roadName":null,"communityName":null,"tranName":null,"sdLineName":null,"cityCode":"1340616","cityName":"国网蠡县供电公司","provinceCode":null,"stopTime":"2018-06-09 11:30:00","powerType":"全部","powerOffArea":"【单台区停电】停武装部小区范蠡西路综合5台区变压器","powerOffReason":"【停电原因】】由于ＪＰ柜内空开掉闸导致２２０ＫＶ蠡县变电站１０ＫＶ兑坎庄５２２线路武装部小区范蠡西路综合五公变台区停电【变更送电】无【发布渠道】通过９５５９８发布","powerOffId":"2018060913000378"},{"poweroffId":2018060913000311,"sgpoweroffId":null,"subsName":"","lineName":"北边吴线517","pubTranName":"南边吴四台区,","scope":"【影响街道/乡镇】芦庄乡 【高危重要客户】无 【影响客户】南边吴村","startTime":"2018-06-09 08:39:38","stopDate":"2018-06-09 10:30:00","orgNo":"1340607","typeCode":"电网故障停限电","poweroffArea":"【单台区停电】停南边吴四台区","poweroffReason":"【停电原因】由于低压线断导致３５ＫＶ芦庄变电站北边吴线５１７线路南边吴四号公变台区停电 【变更送电】因抢修进度加快原因，送电时间由１２：００变更为１０：３０ 【发布渠道】通过９５５９８发布","powerTime":"2018-06-09 10:14:22","powerComm":"已送电","subsNo":"","lineNo":"","tgNo":"","tgName":null,"infoStatus":"1","orgName":"(原)国网安新县供电公司","typeName":null,"infoStatusName":null,"dateDay":null,"orgNos":null,"nowTime":null,"countyName":null,"streetName":null,"villageName":null,"roadName":null,"communityName":null,"tranName":null,"sdLineName":null,"cityCode":"1340607","cityName":"(原)国网安新县供电公司","provinceCode":null,"stopTime":"2018-06-09 10:30:00","powerType":"全部","powerOffArea":"【单台区停电】停南边吴四台区","powerOffReason":"【停电原因】由于低压线断导致３５ＫＶ芦庄变电站北边吴线５１７线路南边吴四号公变台区停电 【变更送电】因抢修进度加快原因，送电时间由１２：００变更为１０：３０ 【发布渠道】通过９５５９８发布","powerOffId":"2018060913000311"},{"poweroffId":2018060913000230,"sgpoweroffId":null,"subsName":"","lineName":"北蔡线514","pubTranName":"北蔡光6,大留村光4【2018年重过载】,新北蔡光1,大留排9【纯农排变】,北蔡排6【纯农排变】,新北蔡光2【中心村】,辛庄排4【纯农排变】,大留排12【纯农排变】,北蔡排5【纯农排变】,辛庄光8,谭城排10【纯农排变】,大留光6,辛庄排1【纯农排变】,北蔡排1【纯农排变】,大留排13【纯农排变】,新北蔡光4,北蔡光3,王官排5【纯农排变】,大留村排1【纯农排变】,辛庄光10,辛庄光2,大留村排3【纯农排变】,0692004720-北南蔡乡北蔡小学-专变-236732513-北蔡小学-250,大留村光11,大留排10【纯农排变】,大留光10,北蔡光9,新大留村光1,辛庄排2【纯农排变】,新辛庄村光1,大留光2,辛庄混5,北蔡光8,谭城排3【纯农排变】,0469290341-*五达化工厂-专变-46771855-*五达化工厂,大留排14【纯农排变】,北蔡村光3,大留排4【纯农排变】,大留村排2【纯农排变】,大留村光9,谭城排9【纯农排变】,北蔡排9【纯农排变】,南南蔡大棚排1【纯农排变】,北蔡排7【纯农排变】,谭城排12【纯农排变】,谭城排13【纯农排变】,王官排6【纯农排变】,大留排8【纯农排变】,辛庄光5,北蔡排4【纯农排变】,大留村排11【纯农排变】,谭城混4,辛庄排6【纯农排变】,辛庄光6,辛庄光9,新北蔡光5【中心村】,谭城排8【纯农排变】,大留村光3【2018年重过载】,王官排4【纯农排变】,谭城混1,北蔡排2【纯农排变】,大留排7【纯农排变】,大留村光5【2018年重过载】,辛庄光7,谭城排6【纯农排变】,辛庄排3【纯农排变】,北南蔡排11【纯农排变】,辛庄排7【纯农排变】,北蔡排8【纯农排变】,辛庄光4,大留排15【纯农排变】,谭城混7,大留村小学-315,北蔡排3【纯农排变】,辛庄光3,","scope":"【影响街道/乡镇】大留村乡 【高危重要客户】无 【影响客户】北蔡、东辛庄村、大留村","startTime":"2018-06-09 07:24:48","stopDate":"2018-06-09 09:45:00","orgNo":"1340609","typeCode":"电网故障停限电","poweroffArea":"【全线路停电】停北蔡光9,谭城排9【纯农排变】,北蔡排6【纯农排变】,北蔡排1【纯农排变】,辛庄光2,北蔡排9【纯农排变】,辛庄排4【纯农排变】,大留排13【纯农排变】,大留村排3【纯农排变】,南南蔡大棚排1【纯农排变】,大留排12【纯农排变】,新北蔡光4,0692004720-北南蔡乡北蔡小学-专变-236732513-北蔡小学-250,北蔡排7【纯农排变】,北蔡光6,北蔡光3,大留村光11,谭城排12【纯农排变】,大留村光4【2018年重过载】,王官排5【纯农排变】,谭城排6【纯农排变】,谭城排3【纯农排变】,北南蔡排11【纯农排变】,辛庄光7,辛庄光5,0469290341-*五达化工厂-专变-46771855-*五达化工厂,大留排8【纯农排变】,辛庄排7【纯农排变】,大留排10【纯农排变】,辛庄排3【纯农排变】,谭城排13【纯农排变】,大留村排1【纯农排变】,辛庄光10,大留排14【纯农排变】,北蔡排5【纯农排变】,北蔡排4【纯农排变】,北蔡村光3,北蔡排8【纯农排变】,大留光6,大留村排11【纯农排变】,大留排4【纯农排变】,辛庄光8,王官排6【纯农排变】,大留村排2【纯农排变】,辛庄光4,谭城混4,大留排15【纯农排变】,新北蔡光1,辛庄排6【纯农排变】,谭城混7,谭城排10【纯农排变】,辛庄光6,大留村光9,辛庄排1【纯农排变】,辛庄混5,大留排7【纯农排变】,新辛庄村光1,谭城混1,大留光2,谭城排8【纯农排变】,北蔡排2【纯农排变】,大留村光3【2018年重过载】,北蔡光8,辛庄光9,大留村光5【2018年重过载】,北蔡排3【纯农排变】,新北蔡光5【中心村】,辛庄光3,新大留村光1,辛庄排2【纯农排变】,新北蔡光2【中心村】,大留光10,王官排4【纯农排变】,大留排9【纯农排变】,大留村小学-315","poweroffReason":"【停电原因】由于北南蔡大棚分支２号杆断线导致３５ＫＶ大留村变电站北蔡线５１４线路全线停电 【变更送电】因抢修进度加快原因，送电时间由１５：００变更为０９：４５ 【发布渠道】通过９５５９８发布","powerTime":"2018-06-09 09:05:45","powerComm":"已送电","subsNo":"","lineNo":"","tgNo":"","tgName":null,"infoStatus":"1","orgName":"国网定兴县供电公司","typeName":null,"infoStatusName":null,"dateDay":null,"orgNos":null,"nowTime":null,"countyName":null,"streetName":null,"villageName":null,"roadName":null,"communityName":null,"tranName":null,"sdLineName":null,"cityCode":"1340609","cityName":"国网定兴县供电公司","provinceCode":null,"stopTime":"2018-06-09 09:45:00","powerType":"全部","powerOffArea":"【全线路停电】停北蔡光9,谭城排9【纯农排变】,北蔡排6【纯农排变】,北蔡排1【纯农排变】,辛庄光2,北蔡排9【纯农排变】,辛庄排4【纯农排变】,大留排13【纯农排变】,大留村排3【纯农排变】,南南蔡大棚排1【纯农排变】,大留排12【纯农排变】,新北蔡光4,0692004720-北南蔡乡北蔡小学-专变-236732513-北蔡小学-250,北蔡排7【纯农排变】,北蔡光6,北蔡光3,大留村光11,谭城排12【纯农排变】,大留村光4【2018年重过载】,王官排5【纯农排变】,谭城排6【纯农排变】,谭城排3【纯农排变】,北南蔡排11【纯农排变】,辛庄光7,辛庄光5,0469290341-*五达化工厂-专变-46771855-*五达化工厂,大留排8【纯农排变】,辛庄排7【纯农排变】,大留排10【纯农排变】,辛庄排3【纯农排变】,谭城排13【纯农排变】,大留村排1【纯农排变】,辛庄光10,大留排14【纯农排变】,北蔡排5【纯农排变】,北蔡排4【纯农排变】,北蔡村光3,北蔡排8【纯农排变】,大留光6,大留村排11【纯农排变】,大留排4【纯农排变】,辛庄光8,王官排6【纯农排变】,大留村排2【纯农排变】,辛庄光4,谭城混4,大留排15【纯农排变】,新北蔡光1,辛庄排6【纯农排变】,谭城混7,谭城排10【纯农排变】,辛庄光6,大留村光9,辛庄排1【纯农排变】,辛庄混5,大留排7【纯农排变】,新辛庄村光1,谭城混1,大留光2,谭城排8【纯农排变】,北蔡排2【纯农排变】,大留村光3【2018年重过载】,北蔡光8,辛庄光9,大留村光5【2018年重过载】,北蔡排3【纯农排变】,新北蔡光5【中心村】,辛庄光3,新大留村光1,辛庄排2【纯农排变】,新北蔡光2【中心村】,大留光10,王官排4【纯农排变】,大留排9【纯农排变】,大留村小学-315","powerOffReason":"【停电原因】由于北南蔡大棚分支２号杆断线导致３５ＫＶ大留村变电站北蔡线５１４线路全线停电 【变更送电】因抢修进度加快原因，送电时间由１５：００变更为０９：４５ 【发布渠道】通过９５５９８发布","powerOffId":"2018060913000230"},{"poweroffId":2018060913000220,"sgpoweroffId":null,"subsName":"","lineName":"韩村线513","pubTranName":"榆林光7,杨保安,新佟高庄光8【煤改电】,韩村光3,尤旺光2,大佟村光1,佟北庄排3【纯农排变】,北田光4,曹村排5【纯农排变】,南召光1,章村农排4【纯农排变】,大佟村排3【纯农排变】,杨村排6【纯农排变】,曹村光3,尤旺排5【纯农排变】,佟高庄大棚排1【纯农排变】,章村光5,王官排2【纯农排变】,会军建材城,大佟村光5,章村光6,农排鸡厂【纯农排变】,曹村排4【纯农排变】,榆林小学,皂马光1,北田农贸公用,北田排6【纯农排变】,大佟村光2,0469291487-*北田小学-专变-46771861-*北田小学,王官光2,曹村排7【纯农排变】,王官光3,皂马混2,北田排2【纯农排变】,北田光5,佟北庄光2,新佟高庄光3【煤改电】,韩村光1,100,曹村排2【纯农排变】,0694658277-定兴县北田中学-专变-237550411-北田中学1号便,榆林光5,韩村光5,皂马排3【纯农排变】,新皂马光2,曹村排6【纯农排变】,佟高庄光10,韩村排5【纯农排变】,曹村光2,章村农排3【纯农排变】,尤旺光4,佟北庄光3,曹村光1,榆林混1,大佟村排4【纯农排变】,0694616378-定兴县北田乡章村小学-专变-237547951-章村小学,章村农排7【纯农排变】,韩村光9,佟高庄排1【纯农排变】,新佟高庄光2【煤改电】,新佟高庄光6【煤改电】,北田排1【纯农排变】,曹村排1【纯农排变】,新佟高庄光4【煤改电】,杨村排3【纯农排变】,0696770270-定兴县北田小学-专变-240818269-200,曹村排3【纯农排变】,南召光3,榆林光3,曹村光6,曹村排8【纯农排变】,榆林排4【纯农排变】,皂马排1【纯农排变】,北田排5【纯农排变】,大佟村光4,大佟村排5【纯农排变】,北田排3【纯农排变】,新榆林光2,0551571644-定兴县医院北田分院-专变-49778119-北田分院,章村排2【纯农排变】,皂马光5,章村农排5【纯农排变】,章村农排6【纯农排变】,佟高庄排4【纯农排变】,尤旺光5,曹村光4,皂马光4,新榆林光1,佟北庄光1,0469291214-*北田乡中学校-专变-46771854-*北田学校,0694658277-定兴县北田中学-专变-237548824-北田中学2号便,王官光5,大佟村中心小学,南召排1【纯农排变】,王官排3【纯农排变】,皂马光3,大佟村光6,韩村排3【纯农排变】,韩村排1【纯农排变】,榆林光6,榆林排3【纯农排变】,佟高庄光9,榆林排5【纯农排变】,章村光3,大佟村排2【纯农排变】,新佟高庄光9【煤改电】,佟高庄排6【纯农排变】,章村光1【2018年重过载】,章村光2,王官光4,尤旺排2【纯农排变】,尤旺光1【2018年重过载】,榆林排2【纯农排变】,新韩村光2,章村排1【纯农排变】,南召排2【纯农排变】,曹村面,南召光2,杨村排2【纯农排变】,北田光3,佟北庄排1【纯农排变】,佟高庄排3【纯农排变】,南召河防,尤旺光3,韩村光7,杨村排11【纯农排变】,新北田光1,皂马排4【纯农排变】,王官光6,佟高庄排5【纯农排变】,新佟高庄光1【煤改电】,韩村排2【纯农排变】,尤旺排6【纯农排变】","scope":"【影响街道/乡镇】北田乡 【高危重要客户】无 【影响客户】东韩村、章村、曹村、榆林、北田、南召、大佟村、佟北庄、尤旺、佟高庄、王官、皂马","startTime":"2018-06-09 07:14:06","stopDate":"2018-06-09 16:00:00","orgNo":"1340609","typeCode":"电网故障停限电","poweroffArea":"【全线路停电】停佟高庄光9,曹村光1,新佟高庄光1【煤改电】,曹村排3【纯农排变】,章村光2,王官排2【纯农排变】,大佟村排2【纯农排变】,杨村排6【纯农排变】,皂马光1,榆林混1,新佟高庄光7【煤改电】,曹村光3,会军建材城,南召光3,榆林排5【纯农排变】,新榆林光1,曹村排7【纯农排变】,尤旺排5【纯农排变】,章村光4,大佟村排4【纯农排变】,韩村排2【纯农排变】,大佟村光3,曹村排8【纯农排变】,王官排3【纯农排变】,尤旺排6【纯农排变】,王官光4,0694616378-定兴县北田乡章村小学-专变-237547951-章村小学,皂马光3,新佟高庄光6【煤改电】,曹村光5,章村农排7【纯农排变】,韩村排5【纯农排变】,王官光1,大佟村光6,曹村排6【纯农排变】,尤旺排2【纯农排变】,王官排4 1【纯农排变】,曹村光2,韩村光9,尤旺光1【2018年重过载】,佟高庄光10,韩村排3【纯农排变】,榆林排4【纯农排变】,杨村排4【纯农排变】,尤旺排1【纯农排变】,韩村排1【纯农排变】,大佟村排5【纯农排变】,尤旺光3,南召排2【纯农排变】,王官光3,北田排3【纯农排变】,佟北庄排3【纯农排变】,韩村光8,皂马排1【纯农排变】,北田光5,榆林排2【纯农排变】,曹村面,0469291487-*北田小学-专变-46771861-*北田小学,北田排2【纯农排变】,大佟村排1【纯农排变】,佟高庄排7|09105132075【纯农排变】,北田排5【纯农排变】,新榆林光2,新韩村光2,佟北庄光2,王官光2,南召光2,韩村排4【纯农排变】,0551571644-定兴县医院北田分院-专变-49778119-北田分院,大佟村光4,榆林光4,章村排1【纯农排变】,章村农排3【纯农排变】,皂马混2,杨村排2【纯农排变】,大佟村光5,章村排2【纯农排变】,榆林光6,榆林光7,佟北庄光1,皂马光5,北田排4【纯农排变】,北田光3,章村光6,新佟高庄光3【煤改电】,榆林排3【纯农排变】,杨保安,农排鸡厂【纯农排变】,章村农排5【纯农排变】,新佟高庄光5【煤改电】,佟北庄排1【纯农排变】,尤旺排4【纯农排变】,韩村光3,韩村光4,章村农排6【纯农排变】,曹村排4【纯农排变】,新佟高庄光8【煤改电】,新北田光2【2018年一批应急】,韩村光1,韩村村排6【纯农排变】,佟高庄排3【纯农排变】,章村光3,尤旺光2,榆林小学,100,佟高庄排2【纯农排变】,南召河防,0469291214-*北田乡中学校-专变-46771854-*北田学校,榆林光3,佟北庄排2【纯农排变】,曹村排2【纯农排变】,0694658277-定兴县北田中学-专变-237548824-北田中学2号便,曹村光6,新佟高庄光9【煤改电】,0694658277-定兴县北田中学-专变-237550411-北田中学1号便,北田农贸公用,北田排1【纯农排变】,南召光4,榆林光5,王官光5,大佟村光1,佟高庄排6【纯农排变】,韩村光5,北田排6【纯农排变】,皂马排3【纯农排变】,韩村光6,韩村光7,大佟村中心小学,北田光6,章村光1【2018年重过载】,北田光4,杨村排11【纯农排变】,新皂马光2,大佟村光2,曹村排1【纯农排变】,曹村光7,曹村排5【纯农排变】,南召排1【纯农排变】,新佟高庄光4【煤改电】,尤旺光4,新北田光1,杨村排3【纯农排变】,皂马大棚排1【纯农排变】,南召光1,佟高庄排4【纯农排变】,皂马排4【纯农排变】,北田乡春蕾小学,章村农排4【纯农排变】,尤旺光5,佟北庄光3,佟高庄大棚排1【纯农排变】,佟高庄排1【纯农排变】,王官光6,尤旺光6,佟高庄排5【纯农排变】,曹村光4,0696770270-定兴县北田小学-专变-240818269-200,章村光5,皂马光4,大佟村排3【纯农排变】,尤旺排3【纯农排变】,新佟高庄光2【煤改电】","poweroffReason":"【停电原因】由于韩村排１分支绝缘子爆裂导致３５ＫＶ大留村变电站韩村线５１３线路全线停电 【变更送电】因抢修进度加快原因，送电时间由００：００变更为１６：００ 【发布渠道】通过９５５９８发布","powerTime":"2018-06-09 15:29:08","powerComm":"已送电","subsNo":"","lineNo":"","tgNo":"","tgName":null,"infoStatus":"1","orgName":"国网定兴县供电公司","typeName":null,"infoStatusName":null,"dateDay":null,"orgNos":null,"nowTime":null,"countyName":null,"streetName":null,"villageName":null,"roadName":null,"communityName":null,"tranName":null,"sdLineName":null,"cityCode":"1340609","cityName":"国网定兴县供电公司","provinceCode":null,"stopTime":"2018-06-09 16:00:00","powerType":"全部","powerOffArea":"【全线路停电】停佟高庄光9,曹村光1,新佟高庄光1【煤改电】,曹村排3【纯农排变】,章村光2,王官排2【纯农排变】,大佟村排2【纯农排变】,杨村排6【纯农排变】,皂马光1,榆林混1,新佟高庄光7【煤改电】,曹村光3,会军建材城,南召光3,榆林排5【纯农排变】,新榆林光1,曹村排7【纯农排变】,尤旺排5【纯农排变】,章村光4,大佟村排4【纯农排变】,韩村排2【纯农排变】,大佟村光3,曹村排8【纯农排变】,王官排3【纯农排变】,尤旺排6【纯农排变】,王官光4,0694616378-定兴县北田乡章村小学-专变-237547951-章村小学,皂马光3,新佟高庄光6【煤改电】,曹村光5,章村农排7【纯农排变】,韩村排5【纯农排变】,王官光1,大佟村光6,曹村排6【纯农排变】,尤旺排2【纯农排变】,王官排4 1【纯农排变】,曹村光2,韩村光9,尤旺光1【2018年重过载】,佟高庄光10,韩村排3【纯农排变】,榆林排4【纯农排变】,杨村排4【纯农排变】,尤旺排1【纯农排变】,韩村排1【纯农排变】,大佟村排5【纯农排变】,尤旺光3,南召排2【纯农排变】,王官光3,北田排3【纯农排变】,佟北庄排3【纯农排变】,韩村光8,皂马排1【纯农排变】,北田光5,榆林排2【纯农排变】,曹村面,0469291487-*北田小学-专变-46771861-*北田小学,北田排2【纯农排变】,大佟村排1【纯农排变】,佟高庄排7|09105132075【纯农排变】,北田排5【纯农排变】,新榆林光2,新韩村光2,佟北庄光2,王官光2,南召光2,韩村排4【纯农排变】,0551571644-定兴县医院北田分院-专变-49778119-北田分院,大佟村光4,榆林光4,章村排1【纯农排变】,章村农排3【纯农排变】,皂马混2,杨村排2【纯农排变】,大佟村光5,章村排2【纯农排变】,榆林光6,榆林光7,佟北庄光1,皂马光5,北田排4【纯农排变】,北田光3,章村光6,新佟高庄光3【煤改电】,榆林排3【纯农排变】,杨保安,农排鸡厂【纯农排变】,章村农排5【纯农排变】,新佟高庄光5【煤改电】,佟北庄排1【纯农排变】,尤旺排4【纯农排变】,韩村光3,韩村光4,章村农排6【纯农排变】,曹村排4【纯农排变】,新佟高庄光8【煤改电】,新北田光2【2018年一批应急】,韩村光1,韩村村排6【纯农排变】,佟高庄排3【纯农排变】,章村光3,尤旺光2,榆林小学,100,佟高庄排2【纯农排变】,南召河防,0469291214-*北田乡中学校-专变-46771854-*北田学校,榆林光3,佟北庄排2【纯农排变】,曹村排2【纯农排变】,0694658277-定兴县北田中学-专变-237548824-北田中学2号便,曹村光6,新佟高庄光9【煤改电】,0694658277-定兴县北田中学-专变-237550411-北田中学1号便,北田农贸公用,北田排1【纯农排变】,南召光4,榆林光5,王官光5,大佟村光1,佟高庄排6【纯农排变】,韩村光5,北田排6【纯农排变】,皂马排3【纯农排变】,韩村光6,韩村光7,大佟村中心小学,北田光6,章村光1【2018年重过载】,北田光4,杨村排11【纯农排变】,新皂马光2,大佟村光2,曹村排1【纯农排变】,曹村光7,曹村排5【纯农排变】,南召排1【纯农排变】,新佟高庄光4【煤改电】,尤旺光4,新北田光1,杨村排3【纯农排变】,皂马大棚排1【纯农排变】,南召光1,佟高庄排4【纯农排变】,皂马排4【纯农排变】,北田乡春蕾小学,章村农排4【纯农排变】,尤旺光5,佟北庄光3,佟高庄大棚排1【纯农排变】,佟高庄排1【纯农排变】,王官光6,尤旺光6,佟高庄排5【纯农排变】,曹村光4,0696770270-定兴县北田小学-专变-240818269-200,章村光5,皂马光4,大佟村排3【纯农排变】,尤旺排3【纯农排变】,新佟高庄光2【煤改电】","powerOffReason":"【停电原因】由于韩村排１分支绝缘子爆裂导致３５ＫＶ大留村变电站韩村线５１３线路全线停电 【变更送电】因抢修进度加快原因，送电时间由００：００变更为１６：００ 【发布渠道】通过９５５９８发布","powerOffId":"2018060913000220"},{"poweroffId":2018060913000196,"sgpoweroffId":null,"subsName":"","lineName":"佰堡线512","pubTranName":"佰堡公用农业4台区【纯农排变】,北鹿庄公用照明4台区,佰堡公用照明8台区,东市邑村小市邑公用照明一台区,东市邑村小市邑公用农业1台区【纯农排变】,大鹿庄(010):农业8台区【纯农排变】,大鹿庄公用照明7台区,大鹿庄(010):农业5台区【纯农排变】,大鹿庄公用农业15台区【纯农排变】,佰堡公用农业5台区【纯农排变】,北鹿庄村公用农业五台区【纯农排变】,北鹿庄村公用农业二台区【纯农排变】,佰堡公用照明6台区,佰堡公用农业8台【纯农排变】,大鹿庄公用农业10台区【纯农排变】,佰堡公用农业9台区【纯农排变】,北鹿庄公用照明3台区,大鹿庄(010):农业6台区【纯农排变】,大鹿庄公用照明6台区,佰堡公用农业11台区【纯农排变】,北鹿庄村公用农业七台区【纯农排变】,佰堡公用照明4台区,佰堡公用农业7台区【纯农排变】,佰堡公用农业2台区【纯农排变】,佰堡公用农业3台区【纯农排变】,大鹿庄(010):农业4台区【纯农排变】,佰堡公用照明5台区,北鹿庄村公用照明二台区,佰堡村公用照明二台区,佰堡公用农业12台区【纯农排变】,佰堡公用农业10台区【纯农排变】,北鹿庄村公用农业一台区【纯农排变】,佰堡公用农业6台区【纯农排变】,北鹿庄村公用照明一台区,北鹿庄村公用农业4台区【纯农排变】,佰堡公用农业13台区【纯农排变】,佰堡公用农业1台区【纯农排变】,佰堡村公用照明一台区,佰堡公用照明7台区,定州市德龙环境工程有限公司变压器,定州市育红籽种繁育场,大鹿庄(010):农业7台区【纯农排变】,佰堡村公用照明三台区,定州市富农良种繁育场变压器,北鹿庄村公用农业六台区【纯农排变】,北鹿庄村公用农业3台区【纯农排变】,","scope":"【影响街道/乡镇】清风店镇、大鹿庄乡【高危重要客户】无【影响客户】佰堡、北鹿庄、小东市邑、大鹿庄","startTime":"2018-06-09 06:57:11","stopDate":"2018-06-09 10:00:00","orgNo":"1340610","typeCode":"电网故障停限电","poweroffArea":"【全线路停电】停佰堡村公用照明二台区,大鹿庄(010):农业6台区【纯农排变】,佰堡公用农业7台区【纯农排变】,大鹿庄(010):农业4台区【纯农排变】,东市邑村小市邑公用照明一台区,大鹿庄公用照明7台区,定州市富农良种繁育场变压器,北鹿庄村公用农业4台区【纯农排变】,佰堡公用农业11台区【纯农排变】,东市邑村小市邑公用农业1台区【纯农排变】,佰堡公用农业3台区【纯农排变】,佰堡公用农业13台区【纯农排变】,北鹿庄村公用农业一台区【纯农排变】,佰堡公用照明5台区,大鹿庄(010):农业8台区【纯农排变】,佰堡公用农业10台区【纯农排变】,北鹿庄公用照明4台区,北鹿庄村公用农业七台区【纯农排变】,佰堡公用农业12台区【纯农排变】,大鹿庄(010):农业5台区【纯农排变】,佰堡公用农业4台区【纯农排变】,大鹿庄(010):农业7台区【纯农排变】,北鹿庄村公用农业二台区【纯农排变】,佰堡村公用照明三台区,北鹿庄村公用照明二台区,佰堡公用农业9台区【纯农排变】,佰堡公用照明6台区,北鹿庄村公用农业五台区【纯农排变】,佰堡公用照明7台区,佰堡公用农业2台区【纯农排变】,北鹿庄公用照明3台区,佰堡公用农业1台区【纯农排变】,大鹿庄公用照明6台区,定州市育红籽种繁育场,北鹿庄村公用农业3台区【纯农排变】,佰堡公用农业6台区【纯农排变】,大鹿庄公用农业10台区【纯农排变】,佰堡公用照明8台区,佰堡村公用照明一台区,佰堡公用农业5台区【纯农排变】,北鹿庄村公用照明一台区,佰堡公用照明4台区,大鹿庄公用农业15台区【纯农排变】,定州市德龙环境工程有限公司变压器,佰堡公用农业8台【纯农排变】,北鹿庄村公用农业六台区【纯农排变】","poweroffReason":"【停电原因】由于富农繁育场跌落保险烧毁导致３５ＫＶ移动变电站１０ＫＶ５１２佰堡线路全线停电 【变更送电】因抢修进度加快原因，送电时间由１８：００变更为１０：００ 【发布渠道】９５５９８","powerTime":"2018-06-09 09:29:55","powerComm":"已送电","subsNo":"","lineNo":"","tgNo":"","tgName":null,"infoStatus":"1","orgName":"国网定州市供电公司","typeName":null,"infoStatusName":null,"dateDay":null,"orgNos":null,"nowTime":null,"countyName":null,"streetName":null,"villageName":null,"roadName":null,"communityName":null,"tranName":null,"sdLineName":null,"cityCode":"1340610","cityName":"国网定州市供电公司","provinceCode":null,"stopTime":"2018-06-09 10:00:00","powerType":"全部","powerOffArea":"【全线路停电】停佰堡村公用照明二台区,大鹿庄(010):农业6台区【纯农排变】,佰堡公用农业7台区【纯农排变】,大鹿庄(010):农业4台区【纯农排变】,东市邑村小市邑公用照明一台区,大鹿庄公用照明7台区,定州市富农良种繁育场变压器,北鹿庄村公用农业4台区【纯农排变】,佰堡公用农业11台区【纯农排变】,东市邑村小市邑公用农业1台区【纯农排变】,佰堡公用农业3台区【纯农排变】,佰堡公用农业13台区【纯农排变】,北鹿庄村公用农业一台区【纯农排变】,佰堡公用照明5台区,大鹿庄(010):农业8台区【纯农排变】,佰堡公用农业10台区【纯农排变】,北鹿庄公用照明4台区,北鹿庄村公用农业七台区【纯农排变】,佰堡公用农业12台区【纯农排变】,大鹿庄(010):农业5台区【纯农排变】,佰堡公用农业4台区【纯农排变】,大鹿庄(010):农业7台区【纯农排变】,北鹿庄村公用农业二台区【纯农排变】,佰堡村公用照明三台区,北鹿庄村公用照明二台区,佰堡公用农业9台区【纯农排变】,佰堡公用照明6台区,北鹿庄村公用农业五台区【纯农排变】,佰堡公用照明7台区,佰堡公用农业2台区【纯农排变】,北鹿庄公用照明3台区,佰堡公用农业1台区【纯农排变】,大鹿庄公用照明6台区,定州市育红籽种繁育场,北鹿庄村公用农业3台区【纯农排变】,佰堡公用农业6台区【纯农排变】,大鹿庄公用农业10台区【纯农排变】,佰堡公用照明8台区,佰堡村公用照明一台区,佰堡公用农业5台区【纯农排变】,北鹿庄村公用照明一台区,佰堡公用照明4台区,大鹿庄公用农业15台区【纯农排变】,定州市德龙环境工程有限公司变压器,佰堡公用农业8台【纯农排变】,北鹿庄村公用农业六台区【纯农排变】","powerOffReason":"【停电原因】由于富农繁育场跌落保险烧毁导致３５ＫＶ移动变电站１０ＫＶ５１２佰堡线路全线停电 【变更送电】因抢修进度加快原因，送电时间由１８：００变更为１０：００ 【发布渠道】９５５９８","powerOffId":"2018060913000196"},{"poweroffId":2018060913000191,"sgpoweroffId":null,"subsName":"","lineName":"大鹿庄线511","pubTranName":"西建阳公用照明6台区,西建阳(026):农业2台区【纯农排变】,大鹿庄(010):照明1台区,大鹿庄(010):农业3台区【纯农排变】,小渡河公用农业1台区【纯农排变】,西建阳公用农业11台区【纯农排变】,张文丰,西建阳(026):农业7台区【纯农排变】,大鹿庄公用照明5台区,大鹿庄公用照明11台区,西建阳公用照明8台区,定州市大鹿庄乡人民政府变压器,大洼里村冷库,西建阳公用照明4台区,西建阳公用照明10台区,大鹿庄公用照明8台区,大鹿庄公用照明9台区,陈增耀,定州市大鹿庄乡西建阳村民委员会变压器,西建阳公用照明7台区,大鹿庄(010):照明2台区,西建阳照明2台区,三英面粉厂,西建阳(026):农业1台区【纯农排变】,定州市瑞华冷库变压器,西建阳(026):农业6台区【纯农排变】,西建阳(026):农业4台区【纯农排变】,西建阳(026):农业9台区【纯农排变】,大鹿庄(010):照明4台区,中国联合网络通信有限公司定州市分公司邮局,大洼里：农业5台区【纯农排变】,大洼里(003):农业1台区【纯农排变】,西建阳公用照明9台区,西建阳(026):照明3台区,西建阳(026):农业3台区【纯农排变】,定州市华田蔬菜购销站,西建阳公用农业10台区【纯农排变】,西建阳(026):农业5台区【纯农排变】,大鹿庄(010):照明3台区,西建阳(026):农业8台区【纯农排变】,西建阳(026):照明1台区,大洼里(003):农业3台区【纯农排变】,大洼里(003):农业2台区【纯农排变】,大鹿庄公用照明12台区,","scope":"【影响街道/乡镇】大鹿庄乡【高危重要客户】无【影响客户】大鹿庄、西建阳、大洼里","startTime":"2018-06-09 06:54:54","stopDate":"2018-06-09 10:00:00","orgNo":"1340610","typeCode":"电网故障停限电","poweroffArea":"【全线路停电】停张文丰,定州市大鹿庄乡人民政府变压器,西建阳(026):照明1台区,中国联合网络通信有限公司定州市分公司邮局,大洼里：农业5台区【纯农排变】,西建阳(026):农业8台区【纯农排变】,西建阳公用照明6台区,西建阳(026):农业4台区【纯农排变】,大洼里村冷库,大洼里(003):农业2台区【纯农排变】,大洼里(003):农业3台区【纯农排变】,陈增耀,大洼里(003):农业1台区【纯农排变】,大鹿庄(010):照明1台区,西建阳(026):农业9台区【纯农排变】,西建阳公用照明9台区,西建阳公用农业10台区【纯农排变】,大鹿庄公用照明12台区,西建阳公用照明10台区,定州市大鹿庄乡西建阳村民委员会变压器,西建阳(026):农业1台区【纯农排变】,西建阳(026):照明3台区,大鹿庄公用照明8台区,大鹿庄(010):农业3台区【纯农排变】,定州市瑞华冷库变压器,西建阳公用照明7台区,大鹿庄公用照明9台区,西建阳(026):农业7台区【纯农排变】,西建阳(026):农业6台区【纯农排变】,西建阳(026):农业3台区【纯农排变】,大鹿庄公用照明11台区,小渡河公用农业1台区【纯农排变】,西建阳(026):农业5台区【纯农排变】,西建阳照明2台区,大鹿庄(010):照明4台区,大鹿庄公用照明5台区,大鹿庄(010):照明3台区,定州市华田蔬菜购销站,西建阳公用照明8台区,西建阳公用农业11台区【纯农排变】,西建阳(026):农业2台区【纯农排变】,大鹿庄(010):照明2台区,三英面粉厂,西建阳公用照明4台区","poweroffReason":"【停电原因】由于润华冷库弓子线烧毁导致３５ＫＶ移动变电站１０ＫＶ５１１大鹿庄线路全线停电 【变更送电】因抢修进度加快原因，送电时间由１８：００变更为１０：００ 【发布渠道】９５５９８","powerTime":"2018-06-09 09:30:19","powerComm":"已送电","subsNo":"","lineNo":"","tgNo":"","tgName":null,"infoStatus":"1","orgName":"国网定州市供电公司","typeName":null,"infoStatusName":null,"dateDay":null,"orgNos":null,"nowTime":null,"countyName":null,"streetName":null,"villageName":null,"roadName":null,"communityName":null,"tranName":null,"sdLineName":null,"cityCode":"1340610","cityName":"国网定州市供电公司","provinceCode":null,"stopTime":"2018-06-09 10:00:00","powerType":"全部","powerOffArea":"【全线路停电】停张文丰,定州市大鹿庄乡人民政府变压器,西建阳(026):照明1台区,中国联合网络通信有限公司定州市分公司邮局,大洼里：农业5台区【纯农排变】,西建阳(026):农业8台区【纯农排变】,西建阳公用照明6台区,西建阳(026):农业4台区【纯农排变】,大洼里村冷库,大洼里(003):农业2台区【纯农排变】,大洼里(003):农业3台区【纯农排变】,陈增耀,大洼里(003):农业1台区【纯农排变】,大鹿庄(010):照明1台区,西建阳(026):农业9台区【纯农排变】,西建阳公用照明9台区,西建阳公用农业10台区【纯农排变】,大鹿庄公用照明12台区,西建阳公用照明10台区,定州市大鹿庄乡西建阳村民委员会变压器,西建阳(026):农业1台区【纯农排变】,西建阳(026):照明3台区,大鹿庄公用照明8台区,大鹿庄(010):农业3台区【纯农排变】,定州市瑞华冷库变压器,西建阳公用照明7台区,大鹿庄公用照明9台区,西建阳(026):农业7台区【纯农排变】,西建阳(026):农业6台区【纯农排变】,西建阳(026):农业3台区【纯农排变】,大鹿庄公用照明11台区,小渡河公用农业1台区【纯农排变】,西建阳(026):农业5台区【纯农排变】,西建阳照明2台区,大鹿庄(010):照明4台区,大鹿庄公用照明5台区,大鹿庄(010):照明3台区,定州市华田蔬菜购销站,西建阳公用照明8台区,西建阳公用农业11台区【纯农排变】,西建阳(026):农业2台区【纯农排变】,大鹿庄(010):照明2台区,三英面粉厂,西建阳公用照明4台区","powerOffReason":"【停电原因】由于润华冷库弓子线烧毁导致３５ＫＶ移动变电站１０ＫＶ５１１大鹿庄线路全线停电 【变更送电】因抢修进度加快原因，送电时间由１８：００变更为１０：００ 【发布渠道】９５５９８","powerOffId":"2018060913000191"},{"poweroffId":2018060913000175,"sgpoweroffId":null,"subsName":"","lineName":"10kV512林堡线","pubTranName":"站变,郑村综合9台区变压器,郑村农排2台区变压器【纯农排变】,蠡县和合金碇纺织厂变压器,蠡县鑫丰浆纱厂变压器,郑村综合8台区变压器,郑村农排13台区变压器【纯农排变】,东方毛条（高计）,郑村综合7台区变压器,？县东河泡料厂,郑村农排7台区变压器【纯农排变】,0650266489-中国移动通信集团河北有限公司蠡县分公司-专变-174520153-中国移动通信集团河北有限公司蠡县分公司郑村,郑村学校,郑村综合6台区变压器,郑村开达毛纺厂,俊秋印刷厂,郑村农排8台区变压器【纯农排变】,郑村综合3台区变压器,蠡县鑫易纺织品有限公司,郑村农排5台区变压器【纯农排变】,周泽忠,郑村农排11台区变压器【纯农排变】,燕齐织布厂,蠡县裕鑫纺织品加工厂变压器,郑村农排3台区变压器【纯农排变】,郑村综合1台区变压器,郑村农排12台区变压器【纯农排变】,郑村农排6台区变压器【纯农排变】,燕丰南,郑村农排4台区变压器【纯农排变】,变压器,郑村农排1台区变压器【纯农排变】,郑村综合4台区变压器,郑村农排9台区变压器【纯农排变】,郑村农排10台区变压器【纯农排变】,郑村砖厂,郑村综合5台区变压器,蠡县利强纺织有限公司,郑村综合2台区变压器,燕丰北,方正佳苑A区变压器,郑村综合10台区变压器,","scope":"【影响街道/乡镇】辛兴镇【高危重要客户】无【影响客户】郑村","startTime":"2018-06-09 06:39:02","stopDate":"2018-06-09 08:30:00","orgNo":"1340616","typeCode":"电网故障停限电","poweroffArea":"【全线路停电】停郑村砖厂,燕丰南,蠡县利强纺织有限公司,郑村综合10台区变压器,站变,郑村综合9台区变压器,郑村综合4台区变压器,郑村农排2台区变压器【纯农排变】,郑村综合5台区变压器,蠡县鑫易纺织品有限公司,郑村综合3台区变压器,郑村农排9台区变压器【纯农排变】,郑村农排3台区变压器【纯农排变】,郑村农排8台区变压器【纯农排变】,郑村农排11台区变压器【纯农排变】,周泽忠,郑村开达毛纺厂,郑村综合2台区变压器,郑村农排1台区变压器【纯农排变】,郑村农排10台区变压器【纯农排变】,郑村综合8台区变压器,变压器,郑村综合7台区变压器,郑村农排7台区变压器【纯农排变】,？县东河泡料厂,燕齐织布厂,郑村农排4台区变压器【纯农排变】,0650266489-中国移动通信集团河北有限公司蠡县分公司-专变-174520153-中国移动通信集团河北有限公司蠡县分公司郑村,方正佳苑A区变压器,蠡县和合金碇纺织厂变压器,燕丰北,郑村学校,俊秋印刷厂,蠡县鑫丰浆纱厂变压器,郑村农排12台区变压器【纯农排变】,郑村综合1台区变压器,郑村综合6台区变压器,郑村农排13台区变压器【纯农排变】,蠡县裕鑫纺织品加工厂变压器,郑村农排5台区变压器【纯农排变】,东方毛条（高计）,郑村农排6台区变压器【纯农排变】","poweroffReason":"【停电原因】由于站外开关掉闸导致３５ＫＶ小陈变电站１０ＫＶ林堡５１２线路全线停电【变更送电】因抢修进度加快原因，送电时间由１６:００变更为０８:３０【发布渠道】通过９５５９８发布","powerTime":"2018-06-09 07:52:05","powerComm":"已送电","subsNo":"","lineNo":"","tgNo":"","tgName":null,"infoStatus":"1","orgName":"国网蠡县供电公司","typeName":null,"infoStatusName":null,"dateDay":null,"orgNos":null,"nowTime":null,"countyName":null,"streetName":null,"villageName":null,"roadName":null,"communityName":null,"tranName":null,"sdLineName":null,"cityCode":"1340616","cityName":"国网蠡县供电公司","provinceCode":null,"stopTime":"2018-06-09 08:30:00","powerType":"全部","powerOffArea":"【全线路停电】停郑村砖厂,燕丰南,蠡县利强纺织有限公司,郑村综合10台区变压器,站变,郑村综合9台区变压器,郑村综合4台区变压器,郑村农排2台区变压器【纯农排变】,郑村综合5台区变压器,蠡县鑫易纺织品有限公司,郑村综合3台区变压器,郑村农排9台区变压器【纯农排变】,郑村农排3台区变压器【纯农排变】,郑村农排8台区变压器【纯农排变】,郑村农排11台区变压器【纯农排变】,周泽忠,郑村开达毛纺厂,郑村综合2台区变压器,郑村农排1台区变压器【纯农排变】,郑村农排10台区变压器【纯农排变】,郑村综合8台区变压器,变压器,郑村综合7台区变压器,郑村农排7台区变压器【纯农排变】,？县东河泡料厂,燕齐织布厂,郑村农排4台区变压器【纯农排变】,0650266489-中国移动通信集团河北有限公司蠡县分公司-专变-174520153-中国移动通信集团河北有限公司蠡县分公司郑村,方正佳苑A区变压器,蠡县和合金碇纺织厂变压器,燕丰北,郑村学校,俊秋印刷厂,蠡县鑫丰浆纱厂变压器,郑村农排12台区变压器【纯农排变】,郑村综合1台区变压器,郑村综合6台区变压器,郑村农排13台区变压器【纯农排变】,蠡县裕鑫纺织品加工厂变压器,郑村农排5台区变压器【纯农排变】,东方毛条（高计）,郑村农排6台区变压器【纯农排变】","powerOffReason":"【停电原因】由于站外开关掉闸导致３５ＫＶ小陈变电站１０ＫＶ林堡５１２线路全线停电【变更送电】因抢修进度加快原因，送电时间由１６:００变更为０８:３０【发布渠道】通过９５５９８发布","powerOffId":"2018060913000175"},{"poweroffId":2018060913000171,"sgpoweroffId":null,"subsName":"","lineName":"10kV516北大留线","pubTranName":"仁立毛纺厂,0654305966-保定泓瑞农业发展有限公司-专变-183721617-保定泓瑞农业发展有限公司,蠡县永固水泥制品制造有限公司变压器,北大留综合16台区,北大留综合1台区,浇地2台区,浇地9台区,0688878814-蠡县恒丰中药材农民专业合作社-专变-230398598-蠡县恒丰中药材农民专业合作社,北大留综合10台区,浇地1台区,北大留综合8台区,北大留农排3台区【纯农排变】,北大留综合11台区变压器,鑫泰棉业有限公司,浇地15台区,北大留综合9台区,北大留农排1台区【纯农排变】,北大留综合12台区,北大留综合3台区,北大留综合13台区变压器,北大留学校,北大留综合5台区,蠡县育丰园饲养有限公司变压器,北大留综合15台区,蠡县运达货物运输有限公司变压器,鑫泰棉业购销公司,北大留农排2台区【纯农排变】,北大留综合14台区,北大留织布厂,北大留综合4台区,蠡县北大留立业养殖场,浇地7台区,浇地8台区,北大留综合6台区,浇地10台区,河北仁立毛纺厂,北大留综合2台区,浇地14台区,浇地5台区,北大留综合7台区,蠡县中立纺织制造有限公司变压器,浇地6台区,浇地16台区,","scope":"【影响街道/乡镇】小陈乡【高危重要客户】无【影响客户】北大留村","startTime":"2018-06-09 06:36:10","stopDate":"2018-06-09 09:00:00","orgNo":"1340616","typeCode":"电网故障停限电","poweroffArea":"【全线路停电】停鑫泰棉业购销公司,北大留综合15台区,北大留综合9台区,浇地9台区,北大留综合3台区,浇地15台区,0688878814-蠡县恒丰中药材农民专业合作社-专变-230398598-蠡县恒丰中药材农民专业合作社,0654305966-保定泓瑞农业发展有限公司-专变-183721617-保定泓瑞农业发展有限公司,北大留农排1台区【纯农排变】,北大留综合8台区,北大留农排2台区【纯农排变】,北大留综合2台区,北大留综合11台区变压器,浇地1台区,蠡县永固水泥制品制造有限公司变压器,蠡县中立纺织制造有限公司变压器,仁立毛纺厂,浇地6台区,蠡县育丰园饲养有限公司变压器,鑫泰棉业有限公司,蠡县运达货物运输有限公司变压器,北大留农排3台区【纯农排变】,北大留综合5台区,北大留综合1台区,河北仁立毛纺厂,蠡县北大留立业养殖场,浇地5台区,浇地8台区,浇地2台区,浇地14台区,北大留综合13台区变压器,浇地7台区,北大留综合10台区,北大留综合14台区,北大留织布厂,浇地16台区,北大留综合7台区,北大留学校,北大留综合12台区,北大留综合6台区,浇地10台区,北大留综合4台区,北大留综合16台区","poweroffReason":"【停电原因】由于站外开关掉闸导致３５ＫＶ小陈变电站１０ＫＶ北大留５１６线路全线停电【变更送电】因抢修进度加快原因，送电时间由１４:００变更为０９:００【发布渠道】通过９５５９８发布","powerTime":"2018-06-09 08:18:00","powerComm":"已送电","subsNo":"","lineNo":"","tgNo":"","tgName":null,"infoStatus":"1","orgName":"国网蠡县供电公司","typeName":null,"infoStatusName":null,"dateDay":null,"orgNos":null,"nowTime":null,"countyName":null,"streetName":null,"villageName":null,"roadName":null,"communityName":null,"tranName":null,"sdLineName":null,"cityCode":"1340616","cityName":"国网蠡县供电公司","provinceCode":null,"stopTime":"2018-06-09 09:00:00","powerType":"全部","powerOffArea":"【全线路停电】停鑫泰棉业购销公司,北大留综合15台区,北大留综合9台区,浇地9台区,北大留综合3台区,浇地15台区,0688878814-蠡县恒丰中药材农民专业合作社-专变-230398598-蠡县恒丰中药材农民专业合作社,0654305966-保定泓瑞农业发展有限公司-专变-183721617-保定泓瑞农业发展有限公司,北大留农排1台区【纯农排变】,北大留综合8台区,北大留农排2台区【纯农排变】,北大留综合2台区,北大留综合11台区变压器,浇地1台区,蠡县永固水泥制品制造有限公司变压器,蠡县中立纺织制造有限公司变压器,仁立毛纺厂,浇地6台区,蠡县育丰园饲养有限公司变压器,鑫泰棉业有限公司,蠡县运达货物运输有限公司变压器,北大留农排3台区【纯农排变】,北大留综合5台区,北大留综合1台区,河北仁立毛纺厂,蠡县北大留立业养殖场,浇地5台区,浇地8台区,浇地2台区,浇地14台区,北大留综合13台区变压器,浇地7台区,北大留综合10台区,北大留综合14台区,北大留织布厂,浇地16台区,北大留综合7台区,北大留学校,北大留综合12台区,北大留综合6台区,浇地10台区,北大留综合4台区,北大留综合16台区","powerOffReason":"【停电原因】由于站外开关掉闸导致３５ＫＶ小陈变电站１０ＫＶ北大留５１６线路全线停电【变更送电】因抢修进度加快原因，送电时间由１４:００变更为０９:００【发布渠道】通过９５５９８发布","powerOffId":"2018060913000171"},{"poweroffId":2018060913000159,"sgpoweroffId":null,"subsName":"","lineName":"10kV513文德线","pubTranName":"西河流北2变压器,东诸侯冉立国,0012792364东河流中变压器,0000004532东诸侯南变压器,0012468122文德北西区,0014316769西诸侯西2区变压器,0000005431文德西村北区变压器,0000004544东河流东区变压器,0000004539西河流中区,0000005824文德乡统管变压器,文德新村配电变压器,0000004533西诸侯村变压器,0012909444西河流东2区变压器,0000004531东诸侯村西区变压器,0000005428文德北村南区变压器,0012340236中河流东2区变压器,0000006331东诸候村西南区,0000005426中河流西区变压器,0000004543东河流南区变压器,0012471336东诸侯西南1区变压器,0000004542沙河灌区小区变压器,0000004541西河流北中区变压器,东河流农西,0000005429文德西村南区变压器,西诸侯西农变压器,0012792363东河流东2区,0014317108东诸侯西2区变压器,中河流面粉厂,0012909443文德西村中区变压器,0000005430文德北村北区变压器,曲阳县公交运输有限公司变压器,0000005488西河流东北区变压器,0000005525东河流北区变压器,0000005427中河流东区变压器,0000004540西河流东区变压器,0000007117中河流北区变压器,0000005500西河流北区变压器,0000005487西河流西区变压器,0013282430东河流南2区变压器,0000006558西诸侯西区变压器,0014468090文德西村农,0000004487东河流西区,0014328495文德北东,","scope":"【影响街道/乡镇】文德乡【高危重要客户】无【影响客户】西诸侯、东诸候、中河流、西河流、西河流灌区家属院、东河流、文德、沙河灌区曲阳第三管理所","startTime":"2018-06-09 06:20:00","stopDate":"2018-06-09 10:30:00","orgNo":"1340619","typeCode":"电网故障停限电","poweroffArea":"【全线路停电】停0000004544东河流东区变压器,0000004541西河流北中区变压器,0000005427中河流东区变压器,0012340236中河流东2区变压器,0012468122文德北西区,0000006331东诸候村西南区,0000005488西河流东北区变压器,0000005428文德北村南区变压器,西河流北2变压器,0000004543东河流南区变压器,0012792364东河流中变压器,0013282430东河流南2区变压器,西诸侯西农变压器,0000005426中河流西区变压器,0012909444西河流东2区变压器,0012471336东诸侯西南1区变压器,0000004539西河流中区,文德新村配电变压器,0000004531东诸侯村西区变压器,曲阳县公交运输有限公司变压器,0012792363东河流东2区,0014468090文德西村农,0000004542沙河灌区小区变压器,0014316769西诸侯西2区变压器,0000005525东河流北区变压器,0000005431文德西村北区变压器,0000004540西河流东区变压器,中河流面粉厂,0000006558西诸侯西区变压器,0000005500西河流北区变压器,0014317108东诸侯西2区变压器,0000004533西诸侯村变压器,0012909443文德西村中区变压器,0000004532东诸侯南变压器,0000004487东河流西区,0000005487西河流西区变压器,0000005429文德西村南区变压器,东河流农西,0000005430文德北村北区变压器,东诸侯冉立国,0014328495文德北东,0000005824文德乡统管变压器,0000007117中河流北区变压器","poweroffReason":"【停电原因】由于线路Ｂ相接地导致１１０ＫＶ曲阳变电站１０ＫＶ５１３文德线路全线停电【变更送电】因抢修进度加快原因，送电时间由１６：００变更为１０：３０【发布渠道】通过９５５９８发布","powerTime":"2018-06-09 10:15:37","powerComm":"已送电","subsNo":"","lineNo":"","tgNo":"","tgName":null,"infoStatus":"1","orgName":"国网曲阳县供电公司","typeName":null,"infoStatusName":null,"dateDay":null,"orgNos":null,"nowTime":null,"countyName":null,"streetName":null,"villageName":null,"roadName":null,"communityName":null,"tranName":null,"sdLineName":null,"cityCode":"1340619","cityName":"国网曲阳县供电公司","provinceCode":null,"stopTime":"2018-06-09 10:30:00","powerType":"全部","powerOffArea":"【全线路停电】停0000004544东河流东区变压器,0000004541西河流北中区变压器,0000005427中河流东区变压器,0012340236中河流东2区变压器,0012468122文德北西区,0000006331东诸候村西南区,0000005488西河流东北区变压器,0000005428文德北村南区变压器,西河流北2变压器,0000004543东河流南区变压器,0012792364东河流中变压器,0013282430东河流南2区变压器,西诸侯西农变压器,0000005426中河流西区变压器,0012909444西河流东2区变压器,0012471336东诸侯西南1区变压器,0000004539西河流中区,文德新村配电变压器,0000004531东诸侯村西区变压器,曲阳县公交运输有限公司变压器,0012792363东河流东2区,0014468090文德西村农,0000004542沙河灌区小区变压器,0014316769西诸侯西2区变压器,0000005525东河流北区变压器,0000005431文德西村北区变压器,0000004540西河流东区变压器,中河流面粉厂,0000006558西诸侯西区变压器,0000005500西河流北区变压器,0014317108东诸侯西2区变压器,0000004533西诸侯村变压器,0012909443文德西村中区变压器,0000004532东诸侯南变压器,0000004487东河流西区,0000005487西河流西区变压器,0000005429文德西村南区变压器,东河流农西,0000005430文德北村北区变压器,东诸侯冉立国,0014328495文德北东,0000005824文德乡统管变压器,0000007117中河流北区变压器","powerOffReason":"【停电原因】由于线路Ｂ相接地导致１１０ＫＶ曲阳变电站１０ＫＶ５１３文德线路全线停电【变更送电】因抢修进度加快原因，送电时间由１６：００变更为１０：３０【发布渠道】通过９５５９８发布","powerOffId":"2018060913000159"}],"pageModel":{"pageNow":1014,"totalCount":10973,"totalPage":1098,"tableRows":0,"pageCount":10,"beginCount":10130},"isExperi":"1"}