{"message":"","today":"2020-06-15","seleList":[{"poweroffId":2018060813000561,"sgpoweroffId":null,"subsName":"","lineName":"石家庄512","pubTranName":"武家庄村2#,下卫厂2#村南,宝石4队,上卫厂村1#,甘河净村1#,张公铺村3#,甘河净乡政府,七峪村2#,上卫厂村3#,甘河净村2#,六平地村2#,武家庄村1#,张公铺村5#,张公铺村4#,王宏远矿山,甘河净5#,甘河净8#,宝石村5#,七峪村1#,下卫厂村3#,七峪村4#,旺家台村1#,六平地村3#,旺家台3#,旺家台村4#,六平地村1#,张公铺村1#,下卫厂村1#,上卫厂村2#,甘河净村3#,石家庄村3#,石家庄村1#,旺家台村2#,七峪7#变压器,七峪村5#,","scope":"【影响街道/乡镇】七峪乡、坡仓乡、甘河净乡【高危重要客户】无【影响客户】七峪村、石家庄村、武家庄村、张公铺村、六平地村、上苇场村、下苇场村、宝石村、甘河净村、旺家台村","startTime":"2018-06-08 23:34:36","stopDate":"2018-06-09 09:00:00","orgNo":"1340625","typeCode":"电网故障停限电","poweroffArea":"【全线路停电】停上卫厂村2#,下卫厂2#村南,武家庄村2#,上卫厂村3#,旺家台村1#,六平地村2#,六平地村1#,旺家台村4#,甘河净5#,旺家台村2#,下卫厂村3#,宝石村5#,甘河净村1#,七峪村2#,七峪村1#,七峪7#变压器,张公铺村3#,六平地村3#,武家庄村1#,张公铺村1#,下卫厂村1#,甘河净乡政府,七峪村5#,甘河净村3#,宝石4队,甘河净8#,张公铺村4#,石家庄村1#,张公铺村5#,石家庄村3#,上卫厂村1#,王宏远矿山,旺家台3#,七峪村4#,甘河净村2#","poweroffReason":"【停电原因】由于线路速断跳闸导致３５ＫＶ甘河净变电站石家庄５１２线路全线停电【变更送电】无【发布渠道】通过９５５９８发布","powerTime":"2018-06-09 08:30:53","powerComm":"已送电","subsNo":"","lineNo":"","tgNo":"","tgName":null,"infoStatus":"1","orgName":"国网易县供电公司","typeName":null,"infoStatusName":null,"dateDay":null,"orgNos":null,"nowTime":null,"countyName":null,"streetName":null,"villageName":null,"roadName":null,"communityName":null,"tranName":null,"sdLineName":null,"cityCode":"1340625","cityName":"国网易县供电公司","provinceCode":null,"stopTime":"2018-06-09 09:00:00","powerType":"全部","powerOffArea":"【全线路停电】停上卫厂村2#,下卫厂2#村南,武家庄村2#,上卫厂村3#,旺家台村1#,六平地村2#,六平地村1#,旺家台村4#,甘河净5#,旺家台村2#,下卫厂村3#,宝石村5#,甘河净村1#,七峪村2#,七峪村1#,七峪7#变压器,张公铺村3#,六平地村3#,武家庄村1#,张公铺村1#,下卫厂村1#,甘河净乡政府,七峪村5#,甘河净村3#,宝石4队,甘河净8#,张公铺村4#,石家庄村1#,张公铺村5#,石家庄村3#,上卫厂村1#,王宏远矿山,旺家台3#,七峪村4#,甘河净村2#","powerOffReason":"【停电原因】由于线路速断跳闸导致３５ＫＶ甘河净变电站石家庄５１２线路全线停电【变更送电】无【发布渠道】通过９５５９８发布","powerOffId":"2018060813000561"},{"poweroffId":2018060813000558,"sgpoweroffId":null,"subsName":"","lineName":"沈家坯线511","pubTranName":"沈北一台区,","scope":"【影响街道/乡镇】老河头镇 【高危重要客户】无 【影响客户】沈北","startTime":"2018-06-08 23:09:00","stopDate":"2018-06-09 02:00:00","orgNo":"1340607","typeCode":"电网故障停限电","poweroffArea":"【单台区停电】停沈北一台区","poweroffReason":"【停电原因】由于低压线断导致３５ＫＶ西地变电站沈家坯线５１１线路沈北一号公变台区停电 【变更送电】无 【发布渠道】通过９５５９８发布","powerTime":"2018-06-09 01:56:57","powerComm":"已送电","subsNo":"","lineNo":"","tgNo":"","tgName":null,"infoStatus":"1","orgName":"(原)国网安新县供电公司","typeName":null,"infoStatusName":null,"dateDay":null,"orgNos":null,"nowTime":null,"countyName":null,"streetName":null,"villageName":null,"roadName":null,"communityName":null,"tranName":null,"sdLineName":null,"cityCode":"1340607","cityName":"(原)国网安新县供电公司","provinceCode":null,"stopTime":"2018-06-09 02:00:00","powerType":"全部","powerOffArea":"【单台区停电】停沈北一台区","powerOffReason":"【停电原因】由于低压线断导致３５ＫＶ西地变电站沈家坯线５１１线路沈北一号公变台区停电 【变更送电】无 【发布渠道】通过９５５９８发布","powerOffId":"2018060813000558"},{"poweroffId":2018060813000551,"sgpoweroffId":null,"subsName":"","lineName":"东工业线514","pubTranName":"老会板厂0173,0387517740-河北保定鸿力预应力有限公司-专变-45336528-忠尔1451,唐县京旺卫生纸用品有限公司,全保板厂0184,3091|锐达机械设备制造有限公司3091、3094-3098,保定市泰利面业有限公司1745,唐县国健迈腾体育建材厂5013,0387518626-唐县西连乙红霞板厂-专变-45336486-老忠板厂1345,套锁分厂1752,王京公用变压器,唐县宏业多层板厂新装配变,锐达机械设备制造有限公司3091、3094-3098,保定鸿力预应力技术有限公司新装配变,唐县鑫浦木材加工有限公司高压10KV新装配变,五喜板厂0170,东兴板厂0225,加油站0443,锐达机械设备有限公司3099,唐县鑫岩矿产品加工厂,形创意铜调工艺品工司2356,唐县茂森模板厂10KV配变,聚源胶合板厂0221,老德板厂,王京邮电支局0577,","scope":"【影响街道/乡镇】王京镇【高危重要客户】无【影响客户】王京村、唐县鑫浦木材加工有限公司、唐县国健迈腾体育器材厂、唐县宏业多层板厂、保定鸿力预应力技术有限责任公司、唐县京旺卫生用品有限公司、聚源胶合板厂、老德板厂、唐县西连乙红霞板厂、形创意铜调工艺品工司、唐县兴业人造板厂、东兴板厂、唐县新禾粮油购销有限公司、中国联合网络通信有限公司唐县分公司、锐达机械设备有限公司、唐县超强建筑材料制造有限公司、中国石油天然气股份有限公司河北保定销售分公司第十八加油站、唐县锐达机械设备制造有限公司、保定天力建筑机具制造有限公司、河北保定鸿力预应力有限公司、唐县泽森木材加工有限公司、唐县川盛木材加工有限公司","startTime":"2018-06-10 06:00:00","stopDate":"2018-06-10 13:00:00","orgNo":"1340622","typeCode":"临时停电","poweroffArea":"【全线路停电】停形创意铜调工艺品工司2356,唐县国健迈腾体育建材厂5013,五喜板厂0170,王京公用变压器,锐达机械设备有限公司3099,3091|锐达机械设备制造有限公司3091、3094-3098,全保板厂0184,唐县鑫浦木材加工有限公司高压10KV新装配变,老德板厂,锐达机械设备制造有限公司3091、3094-3098,0387517740-河北保定鸿力预应力有限公司-专变-45336528-忠尔1451,唐县宏业多层板厂新装配变,唐县茂森模板厂10KV配变,聚源胶合板厂0221,加油站0443,唐县京旺卫生纸用品有限公司,东兴板厂0225,王京邮电支局0577,保定市泰利面业有限公司1745,0387518626-唐县西连乙红霞板厂-专变-45336486-老忠板厂1345,保定鸿力预应力技术有限公司新装配变,套锁分厂1752,老会板厂0173,唐县鑫岩矿产品加工厂","poweroffReason":"【停电原因】由于安装断路器导致３５ＫＶ王京变电站东工业线５１４线路全线停电【变更送电】因工作进度加快原因，送电时间由 ２０：３０变更为 １３：００【发布渠道】通过９５５９８发布","powerTime":"2018-06-10 12:19:56","powerComm":"已送电","subsNo":"","lineNo":"","tgNo":"","tgName":null,"infoStatus":"1","orgName":"国网唐县供电公司","typeName":null,"infoStatusName":null,"dateDay":null,"orgNos":null,"nowTime":null,"countyName":null,"streetName":null,"villageName":null,"roadName":null,"communityName":null,"tranName":null,"sdLineName":null,"cityCode":"1340622","cityName":"国网唐县供电公司","provinceCode":null,"stopTime":"2018-06-10 13:00:00","powerType":"全部","powerOffArea":"【全线路停电】停形创意铜调工艺品工司2356,唐县国健迈腾体育建材厂5013,五喜板厂0170,王京公用变压器,锐达机械设备有限公司3099,3091|锐达机械设备制造有限公司3091、3094-3098,全保板厂0184,唐县鑫浦木材加工有限公司高压10KV新装配变,老德板厂,锐达机械设备制造有限公司3091、3094-3098,0387517740-河北保定鸿力预应力有限公司-专变-45336528-忠尔1451,唐县宏业多层板厂新装配变,唐县茂森模板厂10KV配变,聚源胶合板厂0221,加油站0443,唐县京旺卫生纸用品有限公司,东兴板厂0225,王京邮电支局0577,保定市泰利面业有限公司1745,0387518626-唐县西连乙红霞板厂-专变-45336486-老忠板厂1345,保定鸿力预应力技术有限公司新装配变,套锁分厂1752,老会板厂0173,唐县鑫岩矿产品加工厂","powerOffReason":"【停电原因】由于安装断路器导致３５ＫＶ王京变电站东工业线５１４线路全线停电【变更送电】因工作进度加快原因，送电时间由 ２０：３０变更为 １３：００【发布渠道】通过９５５９８发布","powerOffId":"2018060813000551"},{"poweroffId":2018060813000549,"sgpoweroffId":null,"subsName":"","lineName":"西工业线515","pubTranName":"光明修配厂3290,保定鸿力预应力技术有限责任公司1399,金发板厂0562,崔永法3219,保定鸿力预应力技术有限公司,唐县宏业多层板厂2978,吉达石料厂0565,腾达0580,忠尔铸造1408,华泰板厂0182,陈献国板厂0572,王京公用0578变压器,保定鸿力预应力技术有限责任公司400KVA,宏峰1669,唐县刨花板厂0208台区变压器,第二板厂变压器,全来板厂0169,中尔加工0166,唐县宏利建筑模板厂,0387518714-唐县超强建筑材料制造有限公司-专变-45336592-沐森生活区2070,宏峰南厂2349,唐县占仓板厂10KV配变,王京水5097台区变压器,","scope":"【影响街道/乡镇】王京镇【高危重要客户】无【影响客户】王京村、刨花板厂、第二板厂、唐县超强建筑材料制造有限公司、唐县康保木材加工有限公司、保定泰伯机械制造有限公司、唐县宏业多层板厂、唐县宏利建筑模板厂、崔建成板厂、唐县锐达机械设备制造有限公司、唐县崔永法板厂、河北保定鸿力预应力有限公司、唐县腾达人造板厂、保定宏峰木业有限公司、占仓板厂、陈献国板厂、保定鸿力预应力技术有限责任公司、银达多层板厂、唐县景丰木器厂、光明修配厂、吉达石料厂","startTime":"2018-06-10 06:00:00","stopDate":"2018-06-10 13:00:00","orgNo":"1340622","typeCode":"临时停电","poweroffArea":"【全线路停电】停宏峰南厂2349,唐县刨花板厂0208台区变压器,保定鸿力预应力技术有限公司,中尔加工0166,第二板厂变压器,唐县占仓板厂10KV配变,宏峰1669,陈献国板厂0572,吉达石料厂0565,华泰板厂0182,忠尔铸造1408,金发板厂0562,光明修配厂3290,腾达0580,唐县宏业多层板厂2978,0387518714-唐县超强建筑材料制造有限公司-专变-45336592-沐森生活区2070,保定鸿力预应力技术有限责任公司1399,王京公用0578变压器,全来板厂0169,崔永法3219,保定鸿力预应力技术有限责任公司400KVA,唐县宏利建筑模板厂,王京水5097台区变压器","poweroffReason":"【停电原因】由于安装断路器导致３５ＫＶ王京变电站西工业线５１５线路全线停电【变更送电】因工作进度加快原因，送电时间由 ２０：３０变更为 １３：００【发布渠道】通过９５５９８发布","powerTime":"2018-06-10 12:21:32","powerComm":"已送电","subsNo":"","lineNo":"","tgNo":"","tgName":null,"infoStatus":"1","orgName":"国网唐县供电公司","typeName":null,"infoStatusName":null,"dateDay":null,"orgNos":null,"nowTime":null,"countyName":null,"streetName":null,"villageName":null,"roadName":null,"communityName":null,"tranName":null,"sdLineName":null,"cityCode":"1340622","cityName":"国网唐县供电公司","provinceCode":null,"stopTime":"2018-06-10 13:00:00","powerType":"全部","powerOffArea":"【全线路停电】停宏峰南厂2349,唐县刨花板厂0208台区变压器,保定鸿力预应力技术有限公司,中尔加工0166,第二板厂变压器,唐县占仓板厂10KV配变,宏峰1669,陈献国板厂0572,吉达石料厂0565,华泰板厂0182,忠尔铸造1408,金发板厂0562,光明修配厂3290,腾达0580,唐县宏业多层板厂2978,0387518714-唐县超强建筑材料制造有限公司-专变-45336592-沐森生活区2070,保定鸿力预应力技术有限责任公司1399,王京公用0578变压器,全来板厂0169,崔永法3219,保定鸿力预应力技术有限责任公司400KVA,唐县宏利建筑模板厂,王京水5097台区变压器","powerOffReason":"【停电原因】由于安装断路器导致３５ＫＶ王京变电站西工业线５１５线路全线停电【变更送电】因工作进度加快原因，送电时间由 ２０：３０变更为 １３：００【发布渠道】通过９５５９８发布","powerOffId":"2018060813000549"},{"poweroffId":2018060813000509,"sgpoweroffId":null,"subsName":"","lineName":"10kV西留518线","pubTranName":"西留9#公用,","scope":"【影响街道/乡镇】北沙口乡 【高危重要客户】无 【影响客户】西留","startTime":"2018-06-08 19:23:04","stopDate":"2018-06-08 22:00:00","orgNo":"1340624","typeCode":"电网故障停限电","poweroffArea":"【单台区停电】停西留9#公用","poweroffReason":"【停电原因】由于低压刀闸烧毁导致３５ＫＶ北沙变电站１０ＫＶ西留线５１８线路西留９号公变台区停电 【变更送电】无 【发布渠道】通过９５５９８发布","powerTime":"2018-06-08 21:10:20","powerComm":"已送电","subsNo":"","lineNo":"","tgNo":"","tgName":null,"infoStatus":"1","orgName":"(原)国网雄县供电公司","typeName":null,"infoStatusName":null,"dateDay":null,"orgNos":null,"nowTime":null,"countyName":null,"streetName":null,"villageName":null,"roadName":null,"communityName":null,"tranName":null,"sdLineName":null,"cityCode":"1340624","cityName":"(原)国网雄县供电公司","provinceCode":null,"stopTime":"2018-06-08 22:00:00","powerType":"全部","powerOffArea":"【单台区停电】停西留9#公用","powerOffReason":"【停电原因】由于低压刀闸烧毁导致３５ＫＶ北沙变电站１０ＫＶ西留线５１８线路西留９号公变台区停电 【变更送电】无 【发布渠道】通过９５５９８发布","powerOffId":"2018060813000509"},{"poweroffId":2018060813000497,"sgpoweroffId":null,"subsName":"","lineName":"10kV鲁岗站530线路","pubTranName":"B198柱上变压器,","scope":"【影响街道/乡镇】向阳北大街、韩村乡 【高危重要客户】无 【影响客户】双阳南巷、东鲁岗村、中银房地产宿舍","startTime":"2018-06-11 07:30:00","stopDate":"2018-06-11 10:10:00","orgNo":"13406","typeCode":"临时停电","poweroffArea":"【单台区停电】停B198柱上变压器","poweroffReason":"【停电原因】由于更换变压器ＣＴ、低压引线、低压刀闸、表线导致１０ＫＶ鲁岗变电站５３０线路Ｂ１９８公变台区停电【变更送电】因抢修进度加快，原定１３:００送电现计划１０:１０送电【发布渠道】通过９５５９８发布","powerTime":"2018-06-11 09:55:14","powerComm":"已送电","subsNo":"","lineNo":"","tgNo":"","tgName":null,"infoStatus":"1","orgName":"保定供电公司","typeName":null,"infoStatusName":null,"dateDay":null,"orgNos":null,"nowTime":null,"countyName":null,"streetName":null,"villageName":null,"roadName":null,"communityName":null,"tranName":null,"sdLineName":null,"cityCode":"13406","cityName":"保定供电公司","provinceCode":null,"stopTime":"2018-06-11 10:10:00","powerType":"全部","powerOffArea":"【单台区停电】停B198柱上变压器","powerOffReason":"【停电原因】由于更换变压器ＣＴ、低压引线、低压刀闸、表线导致１０ＫＶ鲁岗变电站５３０线路Ｂ１９８公变台区停电【变更送电】因抢修进度加快，原定１３:００送电现计划１０:１０送电【发布渠道】通过９５５９８发布","powerOffId":"2018060813000497"},{"poweroffId":2018060813000483,"sgpoweroffId":null,"subsName":"","lineName":"留祥佐线526","pubTranName":"王黑开花厂,07024|留祥佐村北综合1652,高阳县三星呢戎厂变压器,仁和染厂,高阳县天华织物厂变压器,光明毛呢总厂,070068|路台营村东农排1748【纯农排变】,070007|六合庄农业8#5079【纯农排变】,许艳峰,志远毛纺厂,留祥佐村东南新增变压器（孝义河）,人和毛纺厂,07231|于留佐西北6#农排5538【纯农排变】,富丽毛呢厂,高阳县邢家南镇留祥佐村委会变压器,高阳县鼎盛毛纺织厂,留祥佐村东南新增综合旧,留祥佐大队变压器,07013|留祥佐村东北综合1603,留祥佐大队,高阳县邢家南镇留祥佐村变压器,胜利毛呢厂,高阳县鼎盛毛纺织厂变压器,飞达染厂,新阳光乳业公司,廊房东北亚石油化工公司,海天染织有限公司,07074|留祥佐村南综合0628,高阳县留祥佐小学变压器,留祥佐村西(农开),高阳县邢家南镇路台营村村民委员会一变压器,南路台丰产方4号台区农排【纯农排变】,07073|留祥佐村里综合1604,三星呢绒厂,振华毛呢厂(子),高阳县邢家南镇南路台村村民委员会一变压器,国网河北电动汽车服务有限公司变压器,07014|留祥佐村西综合1602,光明总厂,07230|于留佐西北5#农排5537【纯农排变】,留祥佐村西北新增综合,建设集团天辰公司,振华毛呢厂,","scope":"【影响街道/乡镇】邢南乡 【高危重要客户】无 【影响客户】留祥佐全村","startTime":"2018-06-15 06:00:00","stopDate":"2018-06-15 14:00:00","orgNo":"1340613","typeCode":"临时停电","poweroffArea":"【分支停电】停王黑开花厂,人和毛纺厂,留祥佐大队,07024|留祥佐村北综合1652,留祥佐村西(农开),胜利毛呢厂,高阳县天华织物厂变压器,志远毛纺厂,070068|路台营村东农排1748【纯农排变】,富丽毛呢厂,光明毛呢总厂,高阳县邢家南镇留祥佐村委会变压器,海天染织有限公司,新阳光乳业公司,国网河北电动汽车服务有限公司变压器,高阳县邢家南镇南路台村村民委员会一变压器,仁和染厂,南路台丰产方4号台区农排【纯农排变】,高阳县三星呢戎厂变压器,三星呢绒厂,07014|留祥佐村西综合1602,留祥佐大队变压器,07013|留祥佐村东北综合1603,留祥佐村东南新增综合旧,高阳县邢家南镇留祥佐村变压器,07230|于留佐西北5#农排5537【纯农排变】,振华毛呢厂(子),07073|留祥佐村里综合1604,高阳县鼎盛毛纺织厂变压器,高阳县邢家南镇路台营村村民委员会一变压器,07074|留祥佐村南综合0628,振华毛呢厂,飞达染厂,070007|六合庄农业8#5079【纯农排变】,高阳县留祥佐小学变压器,07231|于留佐西北6#农排5538【纯农排变】,高阳县鼎盛毛纺织厂,光明总厂,许艳峰,建设集团天辰公司,廊房东北亚石油化工公司,留祥佐村西北新增综合,留祥佐村东南新增变压器（孝义河）","poweroffReason":"【停电原因】由于线路改径导致２２０ＫＶ高阳变电站留祥佐５２６线路主线７号杆７号开关以下停电【变更送电】因工作正在处理中，送电时间由１１：００变更为１４：００【发布渠道】９５５９８","powerTime":"2018-06-15 13:11:18","powerComm":"已送电","subsNo":"","lineNo":"","tgNo":"","tgName":null,"infoStatus":"1","orgName":"国网高阳县供电公司","typeName":null,"infoStatusName":null,"dateDay":null,"orgNos":null,"nowTime":null,"countyName":null,"streetName":null,"villageName":null,"roadName":null,"communityName":null,"tranName":null,"sdLineName":null,"cityCode":"1340613","cityName":"国网高阳县供电公司","provinceCode":null,"stopTime":"2018-06-15 14:00:00","powerType":"全部","powerOffArea":"【分支停电】停王黑开花厂,人和毛纺厂,留祥佐大队,07024|留祥佐村北综合1652,留祥佐村西(农开),胜利毛呢厂,高阳县天华织物厂变压器,志远毛纺厂,070068|路台营村东农排1748【纯农排变】,富丽毛呢厂,光明毛呢总厂,高阳县邢家南镇留祥佐村委会变压器,海天染织有限公司,新阳光乳业公司,国网河北电动汽车服务有限公司变压器,高阳县邢家南镇南路台村村民委员会一变压器,仁和染厂,南路台丰产方4号台区农排【纯农排变】,高阳县三星呢戎厂变压器,三星呢绒厂,07014|留祥佐村西综合1602,留祥佐大队变压器,07013|留祥佐村东北综合1603,留祥佐村东南新增综合旧,高阳县邢家南镇留祥佐村变压器,07230|于留佐西北5#农排5537【纯农排变】,振华毛呢厂(子),07073|留祥佐村里综合1604,高阳县鼎盛毛纺织厂变压器,高阳县邢家南镇路台营村村民委员会一变压器,07074|留祥佐村南综合0628,振华毛呢厂,飞达染厂,070007|六合庄农业8#5079【纯农排变】,高阳县留祥佐小学变压器,07231|于留佐西北6#农排5538【纯农排变】,高阳县鼎盛毛纺织厂,光明总厂,许艳峰,建设集团天辰公司,廊房东北亚石油化工公司,留祥佐村西北新增综合,留祥佐村东南新增变压器（孝义河）","powerOffReason":"【停电原因】由于线路改径导致２２０ＫＶ高阳变电站留祥佐５２６线路主线７号杆７号开关以下停电【变更送电】因工作正在处理中，送电时间由１１：００变更为１４：００【发布渠道】９５５９８","powerOffId":"2018060813000483"},{"poweroffId":2018060813000471,"sgpoweroffId":null,"subsName":"","lineName":"天拓线523","pubTranName":"10083|师范小区综合,河北长润房地产开发有限公司（南沙旧城改造,南沙村南,10044|副食小区综合,染厂家属楼,南街村委会,09030|南沙村里2#综合,食品公司,0636143775-高阳中学-专变-148194941-高阳中学变压器,0376908766-盐业小区-专变-44757893-盐业小区,高阳中学,10093|一中生活小区综合,10101|文化路小区2号综合,保定冀中药业公司变压器,高阳县北沙学府名苑五号综合箱变配变配电变压器,10025|一中西家属区综合,10045|文化路小区综合,10042|食品小区综合,河北高阳师范学校变压器,孙秉信,09032|南沙村东1#综合,0955|南沙村北5#综合,南沙村新民居3#台区配电变压器,","scope":"【影响街道/乡镇】高阳镇、文化路 【高危重要客户】无 【影响客户】南沙村食品小区（副食小区）、一中生活小区、一中西家属院、文化路小区、师范小区、高阳中学、盐业小区、南沙村北、南沙村里","startTime":"2018-06-14 06:00:00","stopDate":"2018-06-14 17:15:00","orgNo":"1340613","typeCode":"临时停电","poweroffArea":"【全线路停电】停南街村委会,孙秉信,0955|南沙村北5#综合,高阳县北沙学府名苑五号综合箱变配变配电变压器,09030|南沙村里2#综合,10083|师范小区综合,河北长润房地产开发有限公司（南沙旧城改造,10101|文化路小区2号综合,保定冀中药业公司变压器,染厂家属楼,河北高阳师范学校变压器,0636143775-高阳中学-专变-148194941-高阳中学变压器,10042|食品小区综合,食品公司,南沙村南,0376908766-盐业小区-专变-44757893-盐业小区,10045|文化路小区综合,10025|一中西家属区综合,高阳中学,09032|南沙村东1#综合,南沙村新民居3#台区配电变压器,10044|副食小区综合,10093|一中生活小区综合","poweroffReason":"【停电原因】由于线路检修导致１１０ＫＶ田果庄变电站天拓５２３线路全线停电【变更送电】因抢修进度加快原因，送电时间由１９：００变更为１７：１５【发布渠道】９５５９８","powerTime":"2018-06-14 16:54:50","powerComm":"已送电","subsNo":"","lineNo":"","tgNo":"","tgName":null,"infoStatus":"1","orgName":"国网高阳县供电公司","typeName":null,"infoStatusName":null,"dateDay":null,"orgNos":null,"nowTime":null,"countyName":null,"streetName":null,"villageName":null,"roadName":null,"communityName":null,"tranName":null,"sdLineName":null,"cityCode":"1340613","cityName":"国网高阳县供电公司","provinceCode":null,"stopTime":"2018-06-14 17:15:00","powerType":"全部","powerOffArea":"【全线路停电】停南街村委会,孙秉信,0955|南沙村北5#综合,高阳县北沙学府名苑五号综合箱变配变配电变压器,09030|南沙村里2#综合,10083|师范小区综合,河北长润房地产开发有限公司（南沙旧城改造,10101|文化路小区2号综合,保定冀中药业公司变压器,染厂家属楼,河北高阳师范学校变压器,0636143775-高阳中学-专变-148194941-高阳中学变压器,10042|食品小区综合,食品公司,南沙村南,0376908766-盐业小区-专变-44757893-盐业小区,10045|文化路小区综合,10025|一中西家属区综合,高阳中学,09032|南沙村东1#综合,南沙村新民居3#台区配电变压器,10044|副食小区综合,10093|一中生活小区综合","powerOffReason":"【停电原因】由于线路检修导致１１０ＫＶ田果庄变电站天拓５２３线路全线停电【变更送电】因抢修进度加快原因，送电时间由１９：００变更为１７：１５【发布渠道】９５５９８","powerOffId":"2018060813000471"},{"poweroffId":2018060813000412,"sgpoweroffId":null,"subsName":"","lineName":"王马线549电力电缆","pubTranName":"徐水县东方橡塑制品有限公司,沿公7号,王马村2号,坟台24号,义和庄8号,南张丰19号,坟台面粉厂,徐水县太行纸业有限公司,保定市徐水区住房和城乡建设局变压器,坟台22号,王马村8号,义合庄2号,保定巨力能源有限公司2,供电所6号【纯农排变】,坟台村6号【纯农排变】,沿公8号,义合庄3号【纯农排变】,徐水强力合线厂,王马村1号,0469073498-徐水县富达金工橡塑有限公司-专变-46716336-徐水县富达金工橡塑有限公司2号,沿公4号,徐水县祈强金属制造有限公司,坟台14号【纯农排变】,义合庄1号【纯农排变】,坟台村1号,南张丰7号,王马村4号【纯农排变】,沿公6号,徐水县彩虹表面制品厂,坟台23号,徐水县创业橡胶密封件厂,坟台5号【纯农排变】,坟台村13,沿公9号【纯农排变】,沿公1号,义合庄4号【纯农排变】,坟台永兴编织厂,王马村6号,保定奥睿特高分子粘接材料有限公司,保定巨力能源有限公司1,义和庄7号,中国联合网络通信有限公司徐水县分公司沿公,徐水县富达金工橡塑有限公司,义合庄5号【纯农排变】,坟台村8号,坟台村25号【纯农排变】,沿公11号,坟台村10号【纯农排变】,变压器,坟台村17号【纯农排变】,仁里村15号,坟台20号,王马村3号,坟台村2号,坟台18号,坟台村3号,坟台21号,坟台村9号,沿公10号,河北大业电机制造有限公司,坟台19号,坟台村16号【纯农排变】,坟台村7号【纯农排变】,仁里村10号,王马精工汽修厂,坟台11号,义合庄6号【纯农排变】,沿公5号【纯农排变】,河北富达金工医疗器械有限公司,徐水县长江吊索具有限公司,河北长江中远吊索具有限公司,南张丰村11号,长达建筑工程第一水泥构件厂,坟台村15号,吉正农牧有限公司1号,保定银虹泵业有限公司,徐水县富达金工橡塑有限公司1号,沿公3号,河北省食品工业公司酿酒厂,徐水县玉川铸造有限公司,义和庄9号,仁里村20号【纯农排变】,0469073469-保定市仁德塑料制品有限公司-专变-46716317-仁里村塑料厂,坟台12号,玉泉橡胶有限公司,胜利特种橡胶制造有限公司,王马村7号,徐水县世纪缘卫生巾厂,王马村5号,坟台村4号【纯农排变】,","scope":"【影响街道/乡镇】安肃镇 【高危重要客户】无 【影响客户】坟台、南张丰、义合庄、仁里村、王马村、沿公村","startTime":"2018-06-08 15:45:33","stopDate":"2018-06-08 18:50:00","orgNo":"1340605","typeCode":"电网故障停限电","poweroffArea":"【全线路停电】停徐水县玉川铸造有限公司,坟台21号,坟台永兴编织厂,南张丰村11号,义和庄7号,0469073469-保定市仁德塑料制品有限公司-专变-46716317-仁里村塑料厂,坟台村3号,义合庄2号,坟台村16号【纯农排变】,坟台11号,坟台20号,徐水县富达金工橡塑有限公司,坟台村2号,坟台村7号【纯农排变】,仁里村20号【纯农排变】,供电所6号【纯农排变】,坟台村4号【纯农排变】,王马村6号,王马村2号,王马村7号,坟台村9号,王马村8号,义合庄3号【纯农排变】,中国联合网络通信有限公司徐水县分公司沿公,义合庄6号【纯农排变】,坟台村6号【纯农排变】,沿公6号,沿公3号,河北长江中远吊索具有限公司,王马村5号,坟台村1号,沿公5号【纯农排变】,坟台23号,南张丰19号,保定奥睿特高分子粘接材料有限公司,坟台村15号,徐水县创业橡胶密封件厂,王马村4号【纯农排变】,徐水县东方橡塑制品有限公司,沿公1号,坟台24号,南张丰7号,保定巨力能源有限公司2,沿公10号,坟台19号,仁里村10号,坟台村10号【纯农排变】,王马村3号,保定银虹泵业有限公司,徐水县世纪缘卫生巾厂,徐水县彩虹表面制品厂,徐水县太行纸业有限公司,徐水县长江吊索具有限公司,沿公4号,义和庄9号,0469073498-徐水县富达金工橡塑有限公司-专变-46716336-徐水县富达金工橡塑有限公司2号,坟台22号,变压器,玉泉橡胶有限公司,义合庄5号【纯农排变】,坟台12号,坟台村8号,沿公11号,坟台村25号【纯农排变】,坟台村13,河北大业电机制造有限公司,保定巨力能源有限公司1,坟台18号,沿公9号【纯农排变】,保定市徐水区住房和城乡建设局变压器,徐水县富达金工橡塑有限公司1号,仁里村15号,坟台14号【纯农排变】,义合庄4号【纯农排变】,王马精工汽修厂,河北省食品工业公司酿酒厂,坟台村17号【纯农排变】,河北富达金工医疗器械有限公司,坟台面粉厂,义合庄1号【纯农排变】,吉正农牧有限公司1号,胜利特种橡胶制造有限公司,坟台5号【纯农排变】,徐水强力合线厂,王马村1号,长达建筑工程第一水泥构件厂,徐水县祈强金属制造有限公司,沿公7号,沿公8号,义和庄8号","poweroffReason":"【停电原因】由于Ｂ相接地导致２２０ＫＶ张丰变电站１０ＫＶ王马线５４９线路全线停电 【变更送电】因抢修进度加快原因，送电时间由２２：００变更为１８：５０ 【发布渠道】通过９５５９８发布","powerTime":"2018-06-08 18:35:44","powerComm":"已送电","subsNo":"","lineNo":"","tgNo":"","tgName":null,"infoStatus":"1","orgName":"国网徐水县供电公司","typeName":null,"infoStatusName":null,"dateDay":null,"orgNos":null,"nowTime":null,"countyName":null,"streetName":null,"villageName":null,"roadName":null,"communityName":null,"tranName":null,"sdLineName":null,"cityCode":"1340605","cityName":"国网徐水县供电公司","provinceCode":null,"stopTime":"2018-06-08 18:50:00","powerType":"全部","powerOffArea":"【全线路停电】停徐水县玉川铸造有限公司,坟台21号,坟台永兴编织厂,南张丰村11号,义和庄7号,0469073469-保定市仁德塑料制品有限公司-专变-46716317-仁里村塑料厂,坟台村3号,义合庄2号,坟台村16号【纯农排变】,坟台11号,坟台20号,徐水县富达金工橡塑有限公司,坟台村2号,坟台村7号【纯农排变】,仁里村20号【纯农排变】,供电所6号【纯农排变】,坟台村4号【纯农排变】,王马村6号,王马村2号,王马村7号,坟台村9号,王马村8号,义合庄3号【纯农排变】,中国联合网络通信有限公司徐水县分公司沿公,义合庄6号【纯农排变】,坟台村6号【纯农排变】,沿公6号,沿公3号,河北长江中远吊索具有限公司,王马村5号,坟台村1号,沿公5号【纯农排变】,坟台23号,南张丰19号,保定奥睿特高分子粘接材料有限公司,坟台村15号,徐水县创业橡胶密封件厂,王马村4号【纯农排变】,徐水县东方橡塑制品有限公司,沿公1号,坟台24号,南张丰7号,保定巨力能源有限公司2,沿公10号,坟台19号,仁里村10号,坟台村10号【纯农排变】,王马村3号,保定银虹泵业有限公司,徐水县世纪缘卫生巾厂,徐水县彩虹表面制品厂,徐水县太行纸业有限公司,徐水县长江吊索具有限公司,沿公4号,义和庄9号,0469073498-徐水县富达金工橡塑有限公司-专变-46716336-徐水县富达金工橡塑有限公司2号,坟台22号,变压器,玉泉橡胶有限公司,义合庄5号【纯农排变】,坟台12号,坟台村8号,沿公11号,坟台村25号【纯农排变】,坟台村13,河北大业电机制造有限公司,保定巨力能源有限公司1,坟台18号,沿公9号【纯农排变】,保定市徐水区住房和城乡建设局变压器,徐水县富达金工橡塑有限公司1号,仁里村15号,坟台14号【纯农排变】,义合庄4号【纯农排变】,王马精工汽修厂,河北省食品工业公司酿酒厂,坟台村17号【纯农排变】,河北富达金工医疗器械有限公司,坟台面粉厂,义合庄1号【纯农排变】,吉正农牧有限公司1号,胜利特种橡胶制造有限公司,坟台5号【纯农排变】,徐水强力合线厂,王马村1号,长达建筑工程第一水泥构件厂,徐水县祈强金属制造有限公司,沿公7号,沿公8号,义和庄8号","powerOffReason":"【停电原因】由于Ｂ相接地导致２２０ＫＶ张丰变电站１０ＫＶ王马线５４９线路全线停电 【变更送电】因抢修进度加快原因，送电时间由２２：００变更为１８：５０ 【发布渠道】通过９５５９８发布","powerOffId":"2018060813000412"},{"poweroffId":2018060813000407,"sgpoweroffId":null,"subsName":"","lineName":"10kV联盟路站530线路","pubTranName":"0563303307-保定市机电设备总公司-1-配电室-变压器-1,10kVB1815配电室B1815配电变压器,C041柱上变压器,0356188953-保定一中-专变,0548584068-保定市南市区焦庄乡西韩蒋村村民委员会-1#专变,C040柱上变压器,0547229533-石家庄卓艺房地产开发有限公司-1#专变,0357730836-保定人和物业管理有限公司-2#专变,B1122柱上变压器,0356236391-保定东方技工学校-专变,0609468010-保定市鑫安物业管理有限公司-1#专变,B704柱上变压器,B004柱上变压器,0609685790-保定轩宇泰鼎汽车销售服务有限公司-专变,0356230654-河北省保定劳教所-1#专变,10kVC465.C466.C467.C468配电室C467配电变压器,10kVB1194.B1210配电室B1210配电变压器,10kVC570.C571箱式变电站C571配电变压器,0356329637-保定市南市区春来塑料制品商行-专变-148290657-变压器,C110柱上变压器,10kVC465.C466.C467.C468配电室C468配电变压器,0356338778-保定市王成兰食品有限公司-专变,0591458479-保定市城市之家酒店管理有限公司长城南大街店-专变,10kVC559.C560箱式变电站C560配电变压器,0356345275-南大园-专变,变压器,0356329637-保定市力达塑业有限公司-1#专变,0548584068-保定市南市区焦庄乡西韩蒋村村民委员会-2#专变,0356188940-保定市新华综合制品厂-专变,0357280924-保定市路灯管理处-1-箱式变-变压器-1,0356225690-保定市亨达铜业有限责任公司-专变-148038555-变压器,0356174208-长城汽车股份有限公司-1-配电室-变压器-1,0356651909-中国石油化工股份有限公司河北保定石油分公司-专变,0356318327-保定市新华蓄电池厂-专变,0356241658-东马池-专变,10kVC570.C571箱式变电站C570配电变压器,0356174194-长城汽车股份有限公司-1-配电室-变压器-2,0356174208-长城汽车股份有限公司-1-配电室-变压器-2,C042柱上变压器,0356244051-保定市老板中式烹调师技能培训学校,B1333柱上变压器,10kVC465.C466.C467.C468配电室C465配电变压器,0357506688-保定市路灯管理处-1-箱式变-变压器-1,0356242097-保定市硕丰管件制造有限公司-1-配电室-变压器-1,0356244048-南苑纺织厂-专变,0357730836-保定人和物业管理有限公司-1#专变,0358496920-保定市路灯管理处-1-箱式变-变压器-1,10kVY0057.Y0058配电室Y0058配电变压器,C464柱上变压器,0589015714-保定市人民政府府河片区拆迁指挥部景观打造和市政建设办公室-1-箱式变-变压器-1,0356268710-","scope":"【影响街道/乡镇】长城大街、环城东路、北河坡、环城南路、三丰东路、南大园乡、煤市街、长城南大街 【高危重要客户】无 【影响客户】金丰花园、青青家园、岳庄村、西韩蒋、卓雅豪庭、阳光新馨家园、宝硕东区","startTime":"2018-06-08 15:00:00","stopDate":"2018-06-08 17:00:00","orgNo":"13406","typeCode":"电网故障停限电","poweroffArea":"【分支停电】停0356174194-长城汽车股份有限公司-1-配电室-变压器-1,0356237020-中华纺织厂-专变,0547229533-石家庄卓艺房地产开发有限公司-1#专变,0357280924-保定市路灯管理处-1-箱式变-变压器-1,0357730836-保定人和物业管理有限公司-2#专变,0356236391-保定东方技工学校-专变,0356225690-保定市亨达铜业有限责任公司-专变-148038555-变压器,10kVY0057.Y0058配电室Y0057配电变压器,0356176839-岳庄-专变,0357444960-保定市力达塑业有限公司-1-配电室-变压器-1,变压器,C039柱上变压器,0356329826-保定市南市区涮肥羊饭店-1-配电室-变压器-1,0357730836-保定人和物业管理有限公司-1#专变,B1334柱上变压器,0358496920-保定市路灯管理处-1-箱式变-变压器-1,byq,0356188940-保定市新华综合制品厂-专变,0356188953-保定一中-专变,0356244048-南苑纺织厂-专变,0548584068-保定市南市区焦庄乡西韩蒋村村民委员会-1#专变,0548584068-保定市南市区焦庄乡西韩蒋村村民委员会-2#专变,0563303307-保定市机电设备总公司-1-配电室-变压器-1,0609468010-保定市鑫安物业管理有限公司-1#专变,B1122柱上变压器,0356329637-保定市南市区春来塑料制品商行-专变-148290631-变压器,0356174208-长城汽车股份有限公司-1-配电室-变压器-1,0356188924-保定市新金制冰厂-专变,0356318327-保定市新华蓄电池厂-专变,C108柱上变压器,10kVC465.C466.C467.C468配电室C467配电变压器,0356230654-河北省保定劳教所-1#专变,0609685790-保定轩宇泰鼎汽车销售服务有限公司-专变,C040柱上变压器,0356234728-保定市糖厂三丰经销部-专变,0636989898-保定市运输总公司八公司-专变-148277431-变压器,10kVB1194.B1210配电室B1194配电变压器,0356437547-保定市南市区顺利编织厂-专变,B704柱上变压器,0708922228-保定市联农果品批发市场有限公司-1000KVA 专变,C464柱上变压器,0357506688-保定市路灯管理处-1-箱式变-变压器-1,B505柱上变压器,0356242097-保定市硕丰管件制造有限公司-1-配电室-变压器-1,10kVB1815配电室B1815配电变压器,0589015714-保定市人民政府府河片区拆迁指挥部景观打造和市政建设办公室-1-箱式变-变压器-1,C041柱上变压器,0356268710-保定市新华蓄电池厂-专变,10kVC559.C560箱式变电站C559配电变压器,C415柱上变压器,B004柱上变压器,20022232,0356345275-南大园-专变,0712745985-保定市城泰供热有限公司-专变-315KVA,0356241658-东马池-专变,0356339654-保定市路灯管理处-1-箱式变-变压器-1,0677852315-保定市悦水汽车维修有限公司-专变-217787298-变压器,C110柱上变压器,10kVC465.C466.C467.C468配电室C468配电变压器,10kVC570.C571箱式变电站C570配电变压器,0356338824-保定市路灯管理处-1-箱式变-变压器-1,10kVC570.C571箱式变电站C571配电变压器,0356244051-保定市老板中式烹调师技能培训学校,0356174194-长城汽车股份有限公司-1-配电室-变压器-2,0356329637-保定市南市区春来塑料制品商行-专变-148290657-变压器,B1333柱上变压器,0356329637-保定市力达塑业有限公司-1#专变,C109柱上变压器,0356174208-长城汽车股份有限公司-1-配电室-变压器-2,0698626953-保定市医药有限公司,0356651909-中国石油化工股份有限公司河北保定石油分公司-专变,0356339641-保定市路灯管理处-1-箱式变-变压器-1,10kVB1194.B1210配电室B1210配电变压器,0356338778-保定市王成兰食品有限公司-专变,C042柱上变压器,10kVC559.C560箱式变电站C560配电变压器,0591458479-保定市城市之家酒店管理有限公司长城南大街店-专变,10kVC465.C466.C467.C468配电室C466配电变压器,10kVY0057.Y0058配电室Y0058配电变压器,C043柱上变压器,10kVC465.C466.C467.C468配电室C465配电变压器,0356329637-保定市力达塑业有限公司-2#专变,0356234047-中国联合网络通信","poweroffReason":"【停电原因】由于用户设备原因导致１０ＫＶ联盟路变电站５３０线路长城大街ＨＫ-０４环网柜５号间隔开关以下停电【变更送电】因抢修进度加快，原定２０:００送电现计划１７:００送电【发布渠道】通过９５５９８发布","powerTime":"2018-06-08 16:52:40","powerComm":"已送电","subsNo":"","lineNo":"","tgNo":"","tgName":null,"infoStatus":"1","orgName":"保定供电公司","typeName":null,"infoStatusName":null,"dateDay":null,"orgNos":null,"nowTime":null,"countyName":null,"streetName":null,"villageName":null,"roadName":null,"communityName":null,"tranName":null,"sdLineName":null,"cityCode":"13406","cityName":"保定供电公司","provinceCode":null,"stopTime":"2018-06-08 17:00:00","powerType":"全部","powerOffArea":"【分支停电】停0356174194-长城汽车股份有限公司-1-配电室-变压器-1,0356237020-中华纺织厂-专变,0547229533-石家庄卓艺房地产开发有限公司-1#专变,0357280924-保定市路灯管理处-1-箱式变-变压器-1,0357730836-保定人和物业管理有限公司-2#专变,0356236391-保定东方技工学校-专变,0356225690-保定市亨达铜业有限责任公司-专变-148038555-变压器,10kVY0057.Y0058配电室Y0057配电变压器,0356176839-岳庄-专变,0357444960-保定市力达塑业有限公司-1-配电室-变压器-1,变压器,C039柱上变压器,0356329826-保定市南市区涮肥羊饭店-1-配电室-变压器-1,0357730836-保定人和物业管理有限公司-1#专变,B1334柱上变压器,0358496920-保定市路灯管理处-1-箱式变-变压器-1,byq,0356188940-保定市新华综合制品厂-专变,0356188953-保定一中-专变,0356244048-南苑纺织厂-专变,0548584068-保定市南市区焦庄乡西韩蒋村村民委员会-1#专变,0548584068-保定市南市区焦庄乡西韩蒋村村民委员会-2#专变,0563303307-保定市机电设备总公司-1-配电室-变压器-1,0609468010-保定市鑫安物业管理有限公司-1#专变,B1122柱上变压器,0356329637-保定市南市区春来塑料制品商行-专变-148290631-变压器,0356174208-长城汽车股份有限公司-1-配电室-变压器-1,0356188924-保定市新金制冰厂-专变,0356318327-保定市新华蓄电池厂-专变,C108柱上变压器,10kVC465.C466.C467.C468配电室C467配电变压器,0356230654-河北省保定劳教所-1#专变,0609685790-保定轩宇泰鼎汽车销售服务有限公司-专变,C040柱上变压器,0356234728-保定市糖厂三丰经销部-专变,0636989898-保定市运输总公司八公司-专变-148277431-变压器,10kVB1194.B1210配电室B1194配电变压器,0356437547-保定市南市区顺利编织厂-专变,B704柱上变压器,0708922228-保定市联农果品批发市场有限公司-1000KVA 专变,C464柱上变压器,0357506688-保定市路灯管理处-1-箱式变-变压器-1,B505柱上变压器,0356242097-保定市硕丰管件制造有限公司-1-配电室-变压器-1,10kVB1815配电室B1815配电变压器,0589015714-保定市人民政府府河片区拆迁指挥部景观打造和市政建设办公室-1-箱式变-变压器-1,C041柱上变压器,0356268710-保定市新华蓄电池厂-专变,10kVC559.C560箱式变电站C559配电变压器,C415柱上变压器,B004柱上变压器,20022232,0356345275-南大园-专变,0712745985-保定市城泰供热有限公司-专变-315KVA,0356241658-东马池-专变,0356339654-保定市路灯管理处-1-箱式变-变压器-1,0677852315-保定市悦水汽车维修有限公司-专变-217787298-变压器,C110柱上变压器,10kVC465.C466.C467.C468配电室C468配电变压器,10kVC570.C571箱式变电站C570配电变压器,0356338824-保定市路灯管理处-1-箱式变-变压器-1,10kVC570.C571箱式变电站C571配电变压器,0356244051-保定市老板中式烹调师技能培训学校,0356174194-长城汽车股份有限公司-1-配电室-变压器-2,0356329637-保定市南市区春来塑料制品商行-专变-148290657-变压器,B1333柱上变压器,0356329637-保定市力达塑业有限公司-1#专变,C109柱上变压器,0356174208-长城汽车股份有限公司-1-配电室-变压器-2,0698626953-保定市医药有限公司,0356651909-中国石油化工股份有限公司河北保定石油分公司-专变,0356339641-保定市路灯管理处-1-箱式变-变压器-1,10kVB1194.B1210配电室B1210配电变压器,0356338778-保定市王成兰食品有限公司-专变,C042柱上变压器,10kVC559.C560箱式变电站C560配电变压器,0591458479-保定市城市之家酒店管理有限公司长城南大街店-专变,10kVC465.C466.C467.C468配电室C466配电变压器,10kVY0057.Y0058配电室Y0058配电变压器,C043柱上变压器,10kVC465.C466.C467.C468配电室C465配电变压器,0356329637-保定市力达塑业有限公司-2#专变,0356234047-中国联合网络通信","powerOffReason":"【停电原因】由于用户设备原因导致１０ＫＶ联盟路变电站５３０线路长城大街ＨＫ-０４环网柜５号间隔开关以下停电【变更送电】因抢修进度加快，原定２０:００送电现计划１７:００送电【发布渠道】通过９５５９８发布","powerOffId":"2018060813000407"}],"pageModel":{"pageNow":1016,"totalCount":10973,"totalPage":1098,"tableRows":0,"pageCount":10,"beginCount":10150},"isExperi":"1"}