{"message":"","today":"2020-06-15","seleList":[{"poweroffId":2018060713000480,"sgpoweroffId":null,"subsName":"","lineName":"10KV都衙511","pubTranName":"0469100668-电力二宾馆-专变-46719384-电力二宾馆,陈丙君瀑布,邮政局(三坡),四北峪1台区变压器,四北峪2台区变压器,下庄3号台区变压器,下庄村4#台区,上庄四队4#台区,绿苑宾馆,0469100671-国网河北涞水县供电公司(三坡供电所)-专变-46719388-三坡供电所,","scope":"【影响街道/乡镇】三坡镇 【高危重要客户】无 【影响客户】都衙村、上庄村、下庄村、北峪村","startTime":"2018-06-13 08:00:00","stopDate":"2018-06-13 19:00:00","orgNo":"1340614","typeCode":"临时停电","poweroffArea":"【全线路停电】停陈丙君瀑布,邮政局(三坡),四北峪1台区变压器,绿苑宾馆,0469100671-国网河北涞水县供电公司(三坡供电所)-专变-46719388-三坡供电所,下庄村4#台区,四北峪2台区变压器,上庄四队4#台区,0469100668-电力二宾馆-专变-46719384-电力二宾馆,下庄3号台区变压器","poweroffReason":"【停电原因】由于线路检修导致３５ＫＶ三坡变电站１０ＫＶ都衙５１１线路全线停电 【变更送电】无 【发布渠道】通过９５５９８发布","powerTime":"2018-06-13 18:49:20","powerComm":"已送电","subsNo":"","lineNo":"","tgNo":"","tgName":null,"infoStatus":"1","orgName":"国网涞水县供电公司","typeName":null,"infoStatusName":null,"dateDay":null,"orgNos":null,"nowTime":null,"countyName":null,"streetName":null,"villageName":null,"roadName":null,"communityName":null,"tranName":null,"sdLineName":null,"cityCode":"1340614","cityName":"国网涞水县供电公司","provinceCode":null,"stopTime":"2018-06-13 19:00:00","powerType":"全部","powerOffArea":"【全线路停电】停陈丙君瀑布,邮政局(三坡),四北峪1台区变压器,绿苑宾馆,0469100671-国网河北涞水县供电公司(三坡供电所)-专变-46719388-三坡供电所,下庄村4#台区,四北峪2台区变压器,上庄四队4#台区,0469100668-电力二宾馆-专变-46719384-电力二宾馆,下庄3号台区变压器","powerOffReason":"【停电原因】由于线路检修导致３５ＫＶ三坡变电站１０ＫＶ都衙５１１线路全线停电 【变更送电】无 【发布渠道】通过９５５９８发布","powerOffId":"2018060713000480"},{"poweroffId":2018060713000477,"sgpoweroffId":null,"subsName":"","lineName":"10KV苟各庄513","pubTranName":"刘家河村2号台区,松树口隧道1#开闭所200KVA专变,上庄四队2#台区,松口新村三号[纯农排变],圣迪宾馆,松树口隧道1#开闭所630KVA专变,品道酒店400KVA专变,松树口二号台区,河北品道创意休闲健身新增500KVA变压器,胜迪宾馆,松口新村,松树口铁路台区,配变,保定市圣豪酒店有限公司涞水分公司新增160KVA变压器,松树口后山,上庄四队3,刘春城,三坡污水处理厂100KVA专变,松口村,刘家河村四号台区,","scope":"【影响街道/乡镇】三坡镇 【高危重要客户】无 【影响客户】松树口村、松树口新村、刘家河村、上庄村、苟各庄村、张涿高速、鹏渤房地产","startTime":"2018-06-13 08:00:00","stopDate":"2018-06-13 19:00:00","orgNo":"1340614","typeCode":"临时停电","poweroffArea":"【全线路停电】停松树口二号台区,保定市圣豪酒店有限公司涞水分公司新增160KVA变压器,圣迪宾馆,松树口铁路台区,配变,松口新村三号[纯农排变],松树口隧道1#开闭所630KVA专变,刘家河村四号台区,松树口后山,上庄四队3,品道酒店400KVA专变,松树口隧道1#开闭所200KVA专变,刘家河村2号台区,上庄四队2#台区,胜迪宾馆,三坡污水处理厂100KVA专变,松口村,松口新村,河北品道创意休闲健身新增500KVA变压器,刘春城","poweroffReason":"【停电原因】由于线路检修导致３５ＫＶ三坡变电站１０ＫＶ苟各庄５１３线路全线停电 【变更送电】无 【发布渠道】通过９５５９８发布","powerTime":"2018-06-13 18:48:57","powerComm":"已送电","subsNo":"","lineNo":"","tgNo":"","tgName":null,"infoStatus":"1","orgName":"国网涞水县供电公司","typeName":null,"infoStatusName":null,"dateDay":null,"orgNos":null,"nowTime":null,"countyName":null,"streetName":null,"villageName":null,"roadName":null,"communityName":null,"tranName":null,"sdLineName":null,"cityCode":"1340614","cityName":"国网涞水县供电公司","provinceCode":null,"stopTime":"2018-06-13 19:00:00","powerType":"全部","powerOffArea":"【全线路停电】停松树口二号台区,保定市圣豪酒店有限公司涞水分公司新增160KVA变压器,圣迪宾馆,松树口铁路台区,配变,松口新村三号[纯农排变],松树口隧道1#开闭所630KVA专变,刘家河村四号台区,松树口后山,上庄四队3,品道酒店400KVA专变,松树口隧道1#开闭所200KVA专变,刘家河村2号台区,上庄四队2#台区,胜迪宾馆,三坡污水处理厂100KVA专变,松口村,松口新村,河北品道创意休闲健身新增500KVA变压器,刘春城","powerOffReason":"【停电原因】由于线路检修导致３５ＫＶ三坡变电站１０ＫＶ苟各庄５１３线路全线停电 【变更送电】无 【发布渠道】通过９５５９８发布","powerOffId":"2018060713000477"},{"poweroffId":2018060713000473,"sgpoweroffId":null,"subsName":"","lineName":"10KV备用电源503","pubTranName":"0618195365-河北野三坡旅游发展有限公司-专变-128721002-野三坡旅游发展有限公司100KVA变压器,上庄广场,上庄四队5台区,涞水县金桥宾馆315KVA专变,","scope":"【影响街道/乡镇】三坡镇 【高危重要客户】无 【影响客户】张涿高速、上庄村、紫石口小南台村","startTime":"2018-06-13 08:00:00","stopDate":"2018-06-13 19:00:00","orgNo":"1340614","typeCode":"临时停电","poweroffArea":"【全线路停电】停0618195365-河北野三坡旅游发展有限公司-专变-128721002-野三坡旅游发展有限公司100KVA变压器,涞水县金桥宾馆315KVA专变,上庄广场,上庄四队5台区","poweroffReason":"【停电原因】由于线路检修导致３５ＫＶ三坡变电站１０ＫＶ备用电源５０３线路全线停电 【变更送电】无 【发布渠道】通过９５５９８发布","powerTime":"2018-06-13 18:48:27","powerComm":"已送电","subsNo":"","lineNo":"","tgNo":"","tgName":null,"infoStatus":"1","orgName":"国网涞水县供电公司","typeName":null,"infoStatusName":null,"dateDay":null,"orgNos":null,"nowTime":null,"countyName":null,"streetName":null,"villageName":null,"roadName":null,"communityName":null,"tranName":null,"sdLineName":null,"cityCode":"1340614","cityName":"国网涞水县供电公司","provinceCode":null,"stopTime":"2018-06-13 19:00:00","powerType":"全部","powerOffArea":"【全线路停电】停0618195365-河北野三坡旅游发展有限公司-专变-128721002-野三坡旅游发展有限公司100KVA变压器,涞水县金桥宾馆315KVA专变,上庄广场,上庄四队5台区","powerOffReason":"【停电原因】由于线路检修导致３５ＫＶ三坡变电站１０ＫＶ备用电源５０３线路全线停电 【变更送电】无 【发布渠道】通过９５５９８发布","powerOffId":"2018060713000473"},{"poweroffId":2018060713000471,"sgpoweroffId":null,"subsName":"","lineName":"市政线511","pubTranName":"中铁十八局集团高碑店医院,干休所,育才路变压器,高碑店市鹏达物业服务有限公司（一招家属楼）变压器,高碑店市人民政府,政府,联通高碑店分公司2,联通高碑店分公司1,鹏达公变变压器,干休所1号变压器,网通公变变压器,十八局医院,|鹏达世纪酒店,鹏达世纪酒店,","scope":"【影响街道/乡镇】迎宾路、育才路、兴华中路 【高危重要客户】政府、十八局医院、联通高碑店分公司 【影响客户】鹏达小区、网通家属楼、武装部家属楼、鹏达世纪酒店 、腾盛家园","startTime":"2018-06-07 18:00:00","stopDate":"2018-06-07 20:00:00","orgNo":"1340612","typeCode":"其他临时停电","poweroffArea":"【分支停电】停鹏达世纪酒店,干休所1号变压器,联通高碑店分公司2,干休所,中铁十八局集团高碑店医院,联通高碑店分公司1,十八局医院,高碑店市人民政府,网通公变变压器,高碑店市鹏达物业服务有限公司（一招家属楼）变压器,育才路变压器,鹏达公变变压器,政府,鹏达世纪酒店","poweroffReason":"【停电原因】由于网通分支０１号杆刀闸引线打火需进行紧急处理导致１１０ＫＶ方家务变电站１０ＫＶ市政５１１线路０５号断路器以下停电 【变更送电】无 【发布渠道】通过９５５９８发布","powerTime":"2018-06-07 19:11:01","powerComm":"已送电","subsNo":"","lineNo":"","tgNo":"","tgName":null,"infoStatus":"1","orgName":"国网高碑店市供电公司","typeName":null,"infoStatusName":null,"dateDay":null,"orgNos":null,"nowTime":null,"countyName":null,"streetName":null,"villageName":null,"roadName":null,"communityName":null,"tranName":null,"sdLineName":null,"cityCode":"1340612","cityName":"国网高碑店市供电公司","provinceCode":null,"stopTime":"2018-06-07 20:00:00","powerType":"全部","powerOffArea":"【分支停电】停鹏达世纪酒店,干休所1号变压器,联通高碑店分公司2,干休所,中铁十八局集团高碑店医院,联通高碑店分公司1,十八局医院,高碑店市人民政府,网通公变变压器,高碑店市鹏达物业服务有限公司（一招家属楼）变压器,育才路变压器,鹏达公变变压器,政府,鹏达世纪酒店","powerOffReason":"【停电原因】由于网通分支０１号杆刀闸引线打火需进行紧急处理导致１１０ＫＶ方家务变电站１０ＫＶ市政５１１线路０５号断路器以下停电 【变更送电】无 【发布渠道】通过９５５９８发布","powerOffId":"2018060713000471"},{"poweroffId":2018060713000468,"sgpoweroffId":null,"subsName":"","lineName":"潦水514","pubTranName":"易县京阳文教用品销售中心,西火山村6#,广海石料(赵天梅),北街村4#【纯农排变】,南庄天源板厂,西火山村5#【纯农排变】,向阳村7#,北邵村2#,南韩村5号,向阳村4#,西火山村1#,潦水村7#,南庄村2#,南街村8#【纯农排变】,潦水兴达面粉厂,西火山9#,0678209170-易县狼牙山中凯农副产品经销有限公司-专变-217787052-易县狼牙山中凯农副产品经销有限公司-200KVA.,北邵村1#【纯农排变】,潦水13号变压器,西火山10#,西火山村4#【纯农排变】,北邵村6#,向阳玻璃厂,南韩学宾石子厂,东霍山振欧石材销售部,易县北邵久刚木材加工厂,潦水村11#【纯农排变】,东火山5村#,向阳村1#,东火山村8#,丰辉装饰,南庄村5#【纯农排变】,刘巨义煤厂,易县泽锐石材厂,潦水村8#,南韩村1#,南街村7#【纯农排变】,南庄村1#,西火山李先明面粉厂,潦水砖厂,易县南韩村广海石料厂,西韩1#【纯农排变】,易县裴山中心卫生院变压器,农科所1#【纯农排变】,0658712140-易县凤平橱柜经销处-专变-192886832-易县凤平橱柜经销处80KVA,向阳村3#,北街村6#,易县裴山初级中学变压器,青花石材加工厂,南庄村7#【纯农排变】,向阳村5#,南庄村6#【纯农排变】,西火山村7#,北街农业,南街村12#变压器,潦水村2#,易县东方石材厂变压器,潦水村10#【纯农排变】,辛旺面粉厂变压器,东火山7#,南庄村3#,南韩4#【纯农排变】,易县隆鑫石材厂,辛旺村1#【纯农排变】,永兴鞋垫厂,潦水村6#,易县天宏建材有限公司变压器,易县金玉龙石材加工厂变压器,东火山9#,向阳村8#,南庄村10#,辛旺村2#【纯农排变】,南街3#,张文月石板厂,易县向阳三强石材厂,西街村2#,向阳小江石板厂,北街村2#,向阳村9#,南庄村8#,辛旺村4#【纯农排变】,潦水村3#,收费站,易县南山石料厂,南街村4#,西火山村2#,向阳村2#,潦水村12#【纯农排变】,北邵村3#,南庄村9#,向阳面粉厂,北邵村4#【纯农排变】,天宏建材有限公司,易县潦水汇鸿石材销售处变压器,易县南韩村广海石料厂(姚文亮),南街村5#【纯农排变】,易县永乐建材有限公司变压器,建新板厂(王绘兵),北邵村8#变压器,向阳村10#,尚文才鞋垫厂,易县北邵会田石板厂变压器,向阳村6#,辛旺村3#,南韩3#,潦水村9#,广海石料厂(4#),潦水村4#,北邵村5#,北邵7号变压器,潦水村5#,北街村5#【纯农排变】,辛旺村5#,潦水村1#,南韩2#,西火山村8#,","scope":"【影响街道/乡镇】裴山镇、塘湖镇、凌云册乡【高危重要客户】无【影响客户】南街村、西街村、北街村、南庄村、向阳村、西霍山村、东霍山村、北邵村、辛旺村、潦水村、南韩村","startTime":"2018-06-07 15:20:38","stopDate":"2018-06-07 17:30:00","orgNo":"1340625","typeCode":"电网故障停限电","poweroffArea":"【全线路停电】停南街村4#,潦水村10#【纯农排变】,北邵村2#,辛旺村2#【纯农排变】,建新板厂(王绘兵),南庄天源板厂,潦水砖厂,西火山李先明面粉厂,向阳村2#,北街村4#【纯农排变】,辛旺面粉厂变压器,东火山5村#,向阳村1#,西火山9#,南街村12#变压器,向阳村10#,南庄村3#,向阳村7#,潦水村11#【纯农排变】,辛旺村4#【纯农排变】,易县北邵会田石板厂变压器,潦水兴达面粉厂,潦水村9#,向阳小江石板厂,向阳面粉厂,南街3#,西火山村7#,北邵村5#,南庄村2#,西韩1#【纯农排变】,东火山9#,西火山村6#,北街村5#【纯农排变】,北街村6#,易县金玉龙石材加工厂变压器,北邵村4#【纯农排变】,易县裴山中心卫生院变压器,向阳村8#,易县北邵久刚木材加工厂,青花石材加工厂,南街村8#【纯农排变】,丰辉装饰,南韩4#【纯农排变】,潦水村12#【纯农排变】,收费站,南庄村9#,南街村5#【纯农排变】,易县裴山初级中学变压器,辛旺村1#【纯农排变】,潦水村7#,东火山7#,南庄村7#【纯农排变】,西火山10#,西火山村4#【纯农排变】,永兴鞋垫厂,南韩村1#,东霍山振欧石材销售部,北邵村6#,北邵7号变压器,西火山村8#,北邵村8#变压器,向阳村6#,农科所1#【纯农排变】,北邵村1#【纯农排变】,潦水13号变压器,向阳村3#,潦水村8#,向阳村9#,潦水村4#,0658712140-易县凤平橱柜经销处-专变-192886832-易县凤平橱柜经销处80KVA,西火山村5#【纯农排变】,易县京阳文教用品销售中心,西火山村1#,刘巨义煤厂,易县南韩村广海石料厂(姚文亮),潦水村1#,东火山村8#,南庄村8#,南韩学宾石子厂,辛旺村3#,向阳玻璃厂,易县永乐建材有限公司变压器,易县南韩村广海石料厂,易县东方石材厂变压器,北邵村3#,潦水村6#,0678209170-易县狼牙山中凯农副产品经销有限公司-专变-217787052-易县狼牙山中凯农副产品经销有限公司-200KVA.,南庄村6#【纯农排变】,尚文才鞋垫厂,张文月石板厂,南街村7#【纯农排变】,西街村2#,南庄村10#,辛旺村5#,易县泽锐石材厂,易县向阳三强石材厂,易县隆鑫石材厂,南庄村1#,易县潦水汇鸿石材销售处变压器,潦水村5#,北街农业,南韩3#,潦水村2#,南庄村5#【纯农排变】,南韩2#,易县天宏建材有限公司变压器,潦水村3#,易县南山石料厂,广海石料(赵天梅),西火山村2#,广海石料厂(4#),南韩村5号,北街村2#,向阳村5#,天宏建材有限公司,向阳村4#","poweroffReason":"【停电原因】由于南山石料厂变压器（客户产权）Ｃ相线夹脱落导致３５ＫＶ裴山变电站潦水５１４线路全线停电【变更送电】因抢修进度加快，送电时间由２２：００变更为１７:３０【发布渠道】通过９５５９８发布","powerTime":"2018-06-07 17:07:55","powerComm":"已送电","subsNo":"","lineNo":"","tgNo":"","tgName":null,"infoStatus":"1","orgName":"国网易县供电公司","typeName":null,"infoStatusName":null,"dateDay":null,"orgNos":null,"nowTime":null,"countyName":null,"streetName":null,"villageName":null,"roadName":null,"communityName":null,"tranName":null,"sdLineName":null,"cityCode":"1340625","cityName":"国网易县供电公司","provinceCode":null,"stopTime":"2018-06-07 17:30:00","powerType":"全部","powerOffArea":"【全线路停电】停南街村4#,潦水村10#【纯农排变】,北邵村2#,辛旺村2#【纯农排变】,建新板厂(王绘兵),南庄天源板厂,潦水砖厂,西火山李先明面粉厂,向阳村2#,北街村4#【纯农排变】,辛旺面粉厂变压器,东火山5村#,向阳村1#,西火山9#,南街村12#变压器,向阳村10#,南庄村3#,向阳村7#,潦水村11#【纯农排变】,辛旺村4#【纯农排变】,易县北邵会田石板厂变压器,潦水兴达面粉厂,潦水村9#,向阳小江石板厂,向阳面粉厂,南街3#,西火山村7#,北邵村5#,南庄村2#,西韩1#【纯农排变】,东火山9#,西火山村6#,北街村5#【纯农排变】,北街村6#,易县金玉龙石材加工厂变压器,北邵村4#【纯农排变】,易县裴山中心卫生院变压器,向阳村8#,易县北邵久刚木材加工厂,青花石材加工厂,南街村8#【纯农排变】,丰辉装饰,南韩4#【纯农排变】,潦水村12#【纯农排变】,收费站,南庄村9#,南街村5#【纯农排变】,易县裴山初级中学变压器,辛旺村1#【纯农排变】,潦水村7#,东火山7#,南庄村7#【纯农排变】,西火山10#,西火山村4#【纯农排变】,永兴鞋垫厂,南韩村1#,东霍山振欧石材销售部,北邵村6#,北邵7号变压器,西火山村8#,北邵村8#变压器,向阳村6#,农科所1#【纯农排变】,北邵村1#【纯农排变】,潦水13号变压器,向阳村3#,潦水村8#,向阳村9#,潦水村4#,0658712140-易县凤平橱柜经销处-专变-192886832-易县凤平橱柜经销处80KVA,西火山村5#【纯农排变】,易县京阳文教用品销售中心,西火山村1#,刘巨义煤厂,易县南韩村广海石料厂(姚文亮),潦水村1#,东火山村8#,南庄村8#,南韩学宾石子厂,辛旺村3#,向阳玻璃厂,易县永乐建材有限公司变压器,易县南韩村广海石料厂,易县东方石材厂变压器,北邵村3#,潦水村6#,0678209170-易县狼牙山中凯农副产品经销有限公司-专变-217787052-易县狼牙山中凯农副产品经销有限公司-200KVA.,南庄村6#【纯农排变】,尚文才鞋垫厂,张文月石板厂,南街村7#【纯农排变】,西街村2#,南庄村10#,辛旺村5#,易县泽锐石材厂,易县向阳三强石材厂,易县隆鑫石材厂,南庄村1#,易县潦水汇鸿石材销售处变压器,潦水村5#,北街农业,南韩3#,潦水村2#,南庄村5#【纯农排变】,南韩2#,易县天宏建材有限公司变压器,潦水村3#,易县南山石料厂,广海石料(赵天梅),西火山村2#,广海石料厂(4#),南韩村5号,北街村2#,向阳村5#,天宏建材有限公司,向阳村4#","powerOffReason":"【停电原因】由于南山石料厂变压器（客户产权）Ｃ相线夹脱落导致３５ＫＶ裴山变电站潦水５１４线路全线停电【变更送电】因抢修进度加快，送电时间由２２：００变更为１７:３０【发布渠道】通过９５５９８发布","powerOffId":"2018060713000468"},{"poweroffId":2018060713000467,"sgpoweroffId":null,"subsName":"","lineName":"10KV渡假村514","pubTranName":"下庄6队2号台区,庄子路路灯,三坡次生森林,下庄村台区,三坡圣洁供水200KVA专变,北京铁路局北京供电段新增,下庄商业街6号台区,广源公司1,波峰假日(2),恒业假日,下庄商业街4号台区,松树口新村二号台区,下庄6队1号台区,波峰宾馆(1),下庄村3号台区,下庄5队台区,联通(下庄),度假村,下庄商业街5号台区,下庄六队4#台区,李桂山,科苑宾馆,三坡客栈(2),检察院宾馆,下庄商业街3号配电变压器,金鑫宾馆,龚建永,三坡镇卫生院315KVA专变,配变,下庄后山台区,李春波50KVA专变,广源公司,陶贻志,下庄商业街2台区,中菲宾馆,下庄6队后山台区,上庄四队1#台区,民族园度假村,下庄商业街台区,波峰宾馆,加油站,涞水网通公司,绿野仙中酒店,金鑫山庄,","scope":"【影响街道/乡镇】三坡镇 【高危重要客户】无 【影响客户】下庄村","startTime":"2018-06-13 08:00:00","stopDate":"2018-06-13 19:00:00","orgNo":"1340614","typeCode":"临时停电","poweroffArea":"【全线路停电】停三坡镇卫生院315KVA专变,配变,下庄六队4#台区,下庄商业街5号台区,北京铁路局北京供电段新增,下庄商业街2台区,下庄商业街6号台区,李桂山,科苑宾馆,下庄村3号台区,下庄5队台区,下庄6队2号台区,广源公司1,波峰宾馆,绿野仙中酒店,联通(下庄),度假村,金鑫山庄,三坡客栈(2),加油站,检察院宾馆,涞水网通公司,下庄商业街3号配电变压器,金鑫宾馆,庄子路路灯,波峰假日(2),龚建永,恒业假日,三坡次生森林,下庄商业街4号台区,下庄6队后山台区,下庄后山台区,下庄村台区,松树口新村二号台区,下庄商业街台区,上庄四队1#台区,李春波50KVA专变,下庄6队1号台区,广源公司,波峰宾馆(1),中菲宾馆,三坡圣洁供水200KVA专变,民族园度假村,陶贻志","poweroffReason":"【停电原因】由于线路检修导致３５ＫＶ三坡变电站１０ＫＶ渡假村５１４线路全线停电 【变更送电】无 【发布渠道】通过９５５９８发布","powerTime":"2018-06-13 18:51:43","powerComm":"已送电","subsNo":"","lineNo":"","tgNo":"","tgName":null,"infoStatus":"1","orgName":"国网涞水县供电公司","typeName":null,"infoStatusName":null,"dateDay":null,"orgNos":null,"nowTime":null,"countyName":null,"streetName":null,"villageName":null,"roadName":null,"communityName":null,"tranName":null,"sdLineName":null,"cityCode":"1340614","cityName":"国网涞水县供电公司","provinceCode":null,"stopTime":"2018-06-13 19:00:00","powerType":"全部","powerOffArea":"【全线路停电】停三坡镇卫生院315KVA专变,配变,下庄六队4#台区,下庄商业街5号台区,北京铁路局北京供电段新增,下庄商业街2台区,下庄商业街6号台区,李桂山,科苑宾馆,下庄村3号台区,下庄5队台区,下庄6队2号台区,广源公司1,波峰宾馆,绿野仙中酒店,联通(下庄),度假村,金鑫山庄,三坡客栈(2),加油站,检察院宾馆,涞水网通公司,下庄商业街3号配电变压器,金鑫宾馆,庄子路路灯,波峰假日(2),龚建永,恒业假日,三坡次生森林,下庄商业街4号台区,下庄6队后山台区,下庄后山台区,下庄村台区,松树口新村二号台区,下庄商业街台区,上庄四队1#台区,李春波50KVA专变,下庄6队1号台区,广源公司,波峰宾馆(1),中菲宾馆,三坡圣洁供水200KVA专变,民族园度假村,陶贻志","powerOffReason":"【停电原因】由于线路检修导致３５ＫＶ三坡变电站１０ＫＶ渡假村５１４线路全线停电 【变更送电】无 【发布渠道】通过９５５９８发布","powerOffId":"2018060713000467"},{"poweroffId":2018060713000428,"sgpoweroffId":null,"subsName":"","lineName":"10kV朝阳路线558","pubTranName":"南关25号井（2）,水泥厂家属院二号台区,城关镇门口变压器,南关机井25号变压器,建行家属院变压器,南关小学门口公用,百货对面公用变压器,南关蚊香厂后身台区,朝阳南路公用变压器,南关铁道南台区,南关砖厂公用,水泥厂家属院变压器,新兴路口变压器,水泥路口变压器,南关一台区变压器,南关2号井变压器,清真寺公用变压器,","scope":"【影响街道/乡镇】涞水镇 【高危重要客户】无 【影响客户】冀家胡同、清真寺街及附近、聚泽园小区、南关小学、涞水镇政府、技术监督局、南关大街两侧、南关村、阳光帝景小区（盛世嘉禾）、雅特小区、112国道北侧雅特小区到张涿高速管理处、南关后沟道、新兴路、水泥厂家属院、水泥厂路口、天和宾馆、安河小区、南关西南井、南关铁道南、建行家属院、国道112线南侧、天顺斋下坡100米用户、张一元茶庄下坡100米用户","startTime":"2018-06-12 00:00:00","stopDate":"2018-06-12 06:00:00","orgNo":"1340614","typeCode":"临时停电","poweroffArea":"【分支停电】停百货对面公用变压器,朝阳南路公用变压器,城关镇门口变压器,建行家属院变压器,南关25号井（2）,南关2号井变压器,南关机井25号变压器,南关铁道南台区,南关蚊香厂后身台区,南关小学门口公用,南关一台区变压器,南关砖厂公用,清真寺公用变压器,水泥厂家属院变压器,水泥厂家属院二号台区,水泥路口变压器,新兴路口变压器","poweroffReason":"【停电原因】由于配变接火导致１１０ＫＶ郭下变电站１０ＫＶ朝阳路５５８线路０１号杆至３２号杆停电 【变更送电】无 【发布渠道】通过９５５９８发布","powerTime":"2018-06-12 05:09:48","powerComm":"已送电","subsNo":"","lineNo":"","tgNo":"","tgName":null,"infoStatus":"1","orgName":"国网涞水县供电公司","typeName":null,"infoStatusName":null,"dateDay":null,"orgNos":null,"nowTime":null,"countyName":null,"streetName":null,"villageName":null,"roadName":null,"communityName":null,"tranName":null,"sdLineName":null,"cityCode":"1340614","cityName":"国网涞水县供电公司","provinceCode":null,"stopTime":"2018-06-12 06:00:00","powerType":"全部","powerOffArea":"【分支停电】停百货对面公用变压器,朝阳南路公用变压器,城关镇门口变压器,建行家属院变压器,南关25号井（2）,南关2号井变压器,南关机井25号变压器,南关铁道南台区,南关蚊香厂后身台区,南关小学门口公用,南关一台区变压器,南关砖厂公用,清真寺公用变压器,水泥厂家属院变压器,水泥厂家属院二号台区,水泥路口变压器,新兴路口变压器","powerOffReason":"【停电原因】由于配变接火导致１１０ＫＶ郭下变电站１０ＫＶ朝阳路５５８线路０１号杆至３２号杆停电 【变更送电】无 【发布渠道】通过９５５９８发布","powerOffId":"2018060713000428"},{"poweroffId":2018060713000427,"sgpoweroffId":null,"subsName":"","lineName":"石家庄512","pubTranName":"宝石村5#,张公铺村3#,七峪村1#,甘河净乡政府,下卫厂村3#,武家庄村2#,七峪村4#,下卫厂2#村南,旺家台村1#,甘河净村1#,六平地村1#,六平地村2#,旺家台村2#,武家庄村1#,七峪村2#,七峪7#变压器,上卫厂村3#,张公铺村1#,甘河净村2#,下卫厂村1#,张公铺村5#,上卫厂村2#,张公铺村4#,甘河净村3#,宝石4队,六平地村3#,旺家台3#,上卫厂村1#,旺家台村4#,甘河净8#,王宏远矿山,石家庄村3#,甘河净5#,石家庄村1#,七峪村5#,","scope":"【影响街道/乡镇】七峪乡、坡仓乡、甘河净乡【高危重要客户】无【影响客户】七峪村、石家庄村、武家庄村、张公铺村、六平地村、上苇场村、下苇场村、宝石村、甘河净村、旺家台村","startTime":"2018-06-07 12:55:32","stopDate":"2018-06-07 16:00:43","orgNo":"1340625","typeCode":"电网故障停限电","poweroffArea":"【全线路停电】停上卫厂村2#,下卫厂2#村南,武家庄村2#,上卫厂村3#,旺家台村1#,六平地村2#,六平地村1#,旺家台村4#,甘河净5#,旺家台村2#,下卫厂村3#,宝石村5#,甘河净村1#,七峪村2#,七峪村1#,七峪7#变压器,张公铺村3#,六平地村3#,武家庄村1#,张公铺村1#,下卫厂村1#,甘河净乡政府,七峪村5#,甘河净村3#,宝石4队,甘河净8#,张公铺村4#,石家庄村1#,张公铺村5#,石家庄村3#,上卫厂村1#,王宏远矿山,旺家台3#,七峪村4#,甘河净村2#","poweroffReason":"【停电原因】由于甘河净乡政府变压器（客户产权）避雷器击穿导致３５ＫＶ甘河净变电站石家庄５１２线路全线停电【变更送电】因抢修进度加快，送电时间由２０:００变更为１６:００【发布渠道】通过９５５９８发布","powerTime":"2018-06-07 15:35:12","powerComm":"已送电","subsNo":"","lineNo":"","tgNo":"","tgName":null,"infoStatus":"1","orgName":"国网易县供电公司","typeName":null,"infoStatusName":null,"dateDay":null,"orgNos":null,"nowTime":null,"countyName":null,"streetName":null,"villageName":null,"roadName":null,"communityName":null,"tranName":null,"sdLineName":null,"cityCode":"1340625","cityName":"国网易县供电公司","provinceCode":null,"stopTime":"2018-06-07 16:00:43","powerType":"全部","powerOffArea":"【全线路停电】停上卫厂村2#,下卫厂2#村南,武家庄村2#,上卫厂村3#,旺家台村1#,六平地村2#,六平地村1#,旺家台村4#,甘河净5#,旺家台村2#,下卫厂村3#,宝石村5#,甘河净村1#,七峪村2#,七峪村1#,七峪7#变压器,张公铺村3#,六平地村3#,武家庄村1#,张公铺村1#,下卫厂村1#,甘河净乡政府,七峪村5#,甘河净村3#,宝石4队,甘河净8#,张公铺村4#,石家庄村1#,张公铺村5#,石家庄村3#,上卫厂村1#,王宏远矿山,旺家台3#,七峪村4#,甘河净村2#","powerOffReason":"【停电原因】由于甘河净乡政府变压器（客户产权）避雷器击穿导致３５ＫＶ甘河净变电站石家庄５１２线路全线停电【变更送电】因抢修进度加快，送电时间由２０:００变更为１６:００【发布渠道】通过９５５９８发布","powerOffId":"2018060713000427"},{"poweroffId":2018060713000426,"sgpoweroffId":null,"subsName":"","lineName":"10KV十亩地542","pubTranName":"太平庄5队台区,太平庄1台区,江西井冈路桥1#,太平庄3台区,太平庄4队台区,李家铺隧道1#变电站200KVA专变,李家铺隧道1#变电站800KVA专变,","scope":"【影响街道/乡镇】娄村镇 【高危重要客户】无 【影响客户】太平庄村、张涿高速","startTime":"2018-06-13 08:00:00","stopDate":"2018-06-13 19:00:00","orgNo":"1340614","typeCode":"临时停电","poweroffArea":"【全线路停电】停太平庄5队台区,李家铺隧道1#变电站800KVA专变,太平庄4队台区,李家铺隧道1#变电站200KVA专变,江西井冈路桥1#,太平庄1台区,太平庄3台区","poweroffReason":"【停电原因】由于线路检修导致３５ＫＶ太平庄变电站１０ＫＶ十亩地５４２线路全线停电 【变更送电】无 【发布渠道】通过９５５９８发布","powerTime":"2018-06-13 18:50:49","powerComm":"已送电","subsNo":"","lineNo":"","tgNo":"","tgName":null,"infoStatus":"1","orgName":"国网涞水县供电公司","typeName":null,"infoStatusName":null,"dateDay":null,"orgNos":null,"nowTime":null,"countyName":null,"streetName":null,"villageName":null,"roadName":null,"communityName":null,"tranName":null,"sdLineName":null,"cityCode":"1340614","cityName":"国网涞水县供电公司","provinceCode":null,"stopTime":"2018-06-13 19:00:00","powerType":"全部","powerOffArea":"【全线路停电】停太平庄5队台区,李家铺隧道1#变电站800KVA专变,太平庄4队台区,李家铺隧道1#变电站200KVA专变,江西井冈路桥1#,太平庄1台区,太平庄3台区","powerOffReason":"【停电原因】由于线路检修导致３５ＫＶ太平庄变电站１０ＫＶ十亩地５４２线路全线停电 【变更送电】无 【发布渠道】通过９５５９８发布","powerOffId":"2018060713000426"},{"poweroffId":2018060713000422,"sgpoweroffId":null,"subsName":"","lineName":"10KV大孤石541","pubTranName":"南峪隧道2#变电所315KVA专变,南峪隧道2#变电所800KVA专变,太平庄2台区,太平庄大孤石台区,","scope":"【影响街道/乡镇】娄村镇 【高危重要客户】无 【影响客户】太平庄村、大孤石村、张涿高速","startTime":"2018-06-13 08:00:00","stopDate":"2018-06-13 19:00:00","orgNo":"1340614","typeCode":"临时停电","poweroffArea":"【全线路停电】停太平庄2台区,南峪隧道2#变电所315KVA专变,南峪隧道2#变电所800KVA专变,太平庄大孤石台区","poweroffReason":"【停电原因】由于线路检修导致３５ＫＶ太平庄变电站１０ＫＶ大孤石５４１线路全线停电 【变更送电】无 【发布渠道】通过９５５９８发布","powerTime":"2018-06-13 18:51:16","powerComm":"已送电","subsNo":"","lineNo":"","tgNo":"","tgName":null,"infoStatus":"1","orgName":"国网涞水县供电公司","typeName":null,"infoStatusName":null,"dateDay":null,"orgNos":null,"nowTime":null,"countyName":null,"streetName":null,"villageName":null,"roadName":null,"communityName":null,"tranName":null,"sdLineName":null,"cityCode":"1340614","cityName":"国网涞水县供电公司","provinceCode":null,"stopTime":"2018-06-13 19:00:00","powerType":"全部","powerOffArea":"【全线路停电】停太平庄2台区,南峪隧道2#变电所315KVA专变,南峪隧道2#变电所800KVA专变,太平庄大孤石台区","powerOffReason":"【停电原因】由于线路检修导致３５ＫＶ太平庄变电站１０ＫＶ大孤石５４１线路全线停电 【变更送电】无 【发布渠道】通过９５５９８发布","powerOffId":"2018060713000422"}],"pageModel":{"pageNow":1023,"totalCount":10973,"totalPage":1098,"tableRows":0,"pageCount":10,"beginCount":10220},"isExperi":"1"}