{"message":"","today":"2020-06-15","seleList":[{"poweroffId":2018060613000484,"sgpoweroffId":null,"subsName":"","lineName":"10kV药都大街520线","pubTranName":"路祥佳苑小区,农行变压器,新华书店,经委变压器,人行变压器,","scope":"【影响街道/乡镇】药城大街、东一街 【高危重要客户】市医院 【影响客户】网通、正泰、检察院、法院、财政局、药城中学、书香苑、新华书店、王志刚、保险公司、人行、工行、农行、农行家属院、加工厂、煤建、工商局、运管站、县社家属院、停车厂、和悦房地产、药城南口、东关小区、路祥家苑、加油站、石油、邮政局、保险公司、天顺小区","startTime":"2018-06-06 16:05:07","stopDate":"2018-06-06 17:00:09","orgNo":"1340606","typeCode":"电网故障停限电","poweroffArea":"【全线路停电】停经委变压器,路祥佳苑小区,人行变压器,农行变压器,新华书店","poweroffReason":"【停电原因】由于站内开关掉闸导致１１０ＫＶ药城变电站１０ＫＶ药都大街５２０线路全线停电 【变更送电】因抢修进度加快，原定20:00送电现计划17:00送电。 【发布渠道】９５５９８","powerTime":"2018-06-06 16:49:58","powerComm":"已送电","subsNo":"","lineNo":"","tgNo":"","tgName":null,"infoStatus":"1","orgName":"国网安国市供电公司","typeName":null,"infoStatusName":null,"dateDay":null,"orgNos":null,"nowTime":null,"countyName":null,"streetName":null,"villageName":null,"roadName":null,"communityName":null,"tranName":null,"sdLineName":null,"cityCode":"1340606","cityName":"国网安国市供电公司","provinceCode":null,"stopTime":"2018-06-06 17:00:09","powerType":"全部","powerOffArea":"【全线路停电】停经委变压器,路祥佳苑小区,人行变压器,农行变压器,新华书店","powerOffReason":"【停电原因】由于站内开关掉闸导致１１０ＫＶ药城变电站１０ＫＶ药都大街５２０线路全线停电 【变更送电】因抢修进度加快，原定20:00送电现计划17:00送电。 【发布渠道】９５５９８","powerOffId":"2018060613000484"},{"poweroffId":2018060613000468,"sgpoweroffId":null,"subsName":"","lineName":"10kV打油庄线511","pubTranName":"1钟家营内4,2西木欠庄外2【纯农排变】,2南闫庄外5【纯农排变】,1打油庄内4,1前营内1,2钟家营外1【纯农排变】,打油庄北鸡厂,0387487180-清苑县力达新型机械设备有限公司-专变-45313706-清苑县力达精密构件厂,0600318723-清苑县南阎庄夏都建材销售处-专变-126661998-清苑县南闫庄正月板厂,沙城营村委会,0666504209-清苑县南阎庄润达模具机械加工厂-专变-208088837-清苑县南阎庄润达模具机械加工厂,1白庙内2,2西木欠庄外1【纯农排变】,南闫庄恒翔制衣厂,南闫庄东升塑料厂,1白庙内1,保定市清苑区臧村镇育才小学,2南闫庄外4【纯农排变】,南闫庄塑料颗粒厂,金诺塑料厂,2白庙外2【纯农排变】,清苑县腾飞模盒厂,0387487584-前营村委会-专变-45313740-前营村委会,1前营内2,1打油庄内3,2前营外2【纯农排变】,1西木欠庄内2,沙堤营鸡场,1沙堤营内5,1沙堤营内1,2蔡庄外1【纯农排变】,新潮家具公司,1郭庄内1,蔡庄和平模盒厂,2打油庄外2【纯农排变】,1钟家营内2,0387488024-保定聚鼎塑料模具制造有限公司-专变-45313658-南闫庄卫东模盒厂,清苑县闫庄旭日彩砖加工厂,南闫庄服装厂,1南闫庄内1,中闫庄塑料厂东台,清苑县南闫庄瑞达模具机械加工厂,2沙堤营外2（1）【纯农排变】,1南闫庄内5,清苑县长更液压机械加工厂,保定市宠康庞物制造有限公司,2钟家营外2【纯农排变】,1西木欠庄内1,河北省清苑腾飞模盒厂,0387488691-中国联合网络通信有限公司清苑县分公司-专变-45314038-南闫庄邮局,保定市沣达模具制造有限公司,2钟家营外4【纯农排变】,清苑县南闫庄模板厂,2打油庄外1【纯农排变】,打油庄南鸡厂,南阎庄模板厂,1南闫庄内12,南闫庄挂面厂,前营村委会,1郭庄内2,清苑县闫庄乡卫东模盒厂,0574772482-清苑县闫庄乡卫东模盒厂-专变-123914514-清苑县闫庄乡卫东模盒厂,2南闫庄外3【纯农排变】,保定新兴肉食品加工厂,振安塑料制品厂,1南闫庄内11,保定恒翔制衣有限公司,2郭庄外1【纯农排变】,2沙堤营外1【纯农排变】,1钟家营内3,0452874424-清苑县兴旺粮食购销有限责任公司-专变-45558274-清苑县兴旺粮食购销有限责任公司,2西木欠庄外4【纯农排变】,2沙堤营外4【纯农排变】,2沙堤营外3【纯农排变】,保定市三鼎机械制造有限公司,张辛庄预制件厂,1沙堤营内3,清苑县力达新型机械设备有限公司,保定东兴建设有限责任公司,保定市宠康宠物饲料制造有限公司,保定利家世纪房地产开发有限公司,2南闫庄外6【纯农排变】,钟家营塑料厂,1南闫庄内7,1南闫庄内6,龙岩市明发机电安装工程有限公司保定分公司,后营塑料厂,东方农厂,2南闫庄外2【纯农排变】,清苑县南闫庄华鑫液压机械加工厂,河北建设集团股份有限公司,2南闫庄外7（1）【纯农排变】,1沙堤营内4,1打油庄内2,2钟家营外3【纯农排变】,0387489085-兴旺粮油储运-专变-45313949-兴旺粮油储运,2南闫庄外8【纯农排变】,1郭庄内3,2","scope":"【影响街道/乡镇】臧村乡、闫庄乡 【高危重要客户】无 【影响客户】白庙、郭庄、打油庄、西木欠庄、沙堤营、前营、钟家营、南闫庄","startTime":"2018-06-15 05:30:00","stopDate":"2018-06-15 18:30:00","orgNo":"1340618","typeCode":"计划停电","poweroffArea":"【全线路停电】停2南闫庄外5【纯农排变】,清苑县南闫庄模板厂,1打油庄内4,2打油庄外1【纯农排变】,打油庄南鸡厂,南阎庄模板厂,1南闫庄内12,1前营内1,南闫庄挂面厂,2钟家营外1【纯农排变】,保定新兴肉食品加工厂,振安塑料制品厂,打油庄北鸡厂,前营村委会,0387487180-清苑县力达新型机械设备有限公司-专变-45313706-清苑县力达精密构件厂,1郭庄内2,0600318723-清苑县南阎庄夏都建材销售处-专变-126661998-清苑县南闫庄正月板厂,清苑县闫庄乡卫东模盒厂,0574772482-清苑县闫庄乡卫东模盒厂-专变-123914514-清苑县闫庄乡卫东模盒厂,2南闫庄外3【纯农排变】,沙城营村委会,1南闫庄内11,0666504209-清苑县南阎庄润达模具机械加工厂-专变-208088837-清苑县南阎庄润达模具机械加工厂,保定恒翔制衣有限公司,2郭庄外1【纯农排变】,2沙堤营外1【纯农排变】,1白庙内2,2西木欠庄外1【纯农排变】,1钟家营内3,南闫庄恒翔制衣厂,0452874424-清苑县兴旺粮食购销有限责任公司-专变-45558274-清苑县兴旺粮食购销有限责任公司,南闫庄东升塑料厂,1白庙内1,1沙堤营内3,保定市清苑区臧村镇育才小学,清苑县力达新型机械设备有限公司,2南闫庄外4【纯农排变】,张辛庄预制件厂,南闫庄塑料颗粒厂,金诺塑料厂,2西木欠庄外4【纯农排变】,2西木欠庄外2【纯农排变】,保定东兴建设有限责任公司,保定市宠康宠物饲料制造有限公司,保定利家世纪房地产开发有限公司,2白庙外2【纯农排变】,2南闫庄外6【纯农排变】,清苑县腾飞模盒厂,钟家营塑料厂,0387487584-前营村委会-专变-45313740-前营村委会,1南闫庄内7,1前营内2,1南闫庄内6,1打油庄内3,龙岩市明发机电安装工程有限公司保定分公司,2前营外2【纯农排变】,后营塑料厂,1西木欠庄内2,沙堤营鸡场,东方农厂,1沙堤营内5,2南闫庄外2【纯农排变】,1沙堤营内1,清苑县南闫庄华鑫液压机械加工厂,2蔡庄外1【纯农排变】,河北建设集团股份有限公司,新潮家具公司,1郭庄内1,2南闫庄外7（1）【纯农排变】,蔡庄和平模盒厂,1沙堤营内4,2打油庄外2【纯农排变】,1打油庄内2,1钟家营内2,2钟家营外3【纯农排变】,0387488024-保定聚鼎塑料模具制造有限公司-专变-45313658-南闫庄卫东模盒厂,清苑县闫庄旭日彩砖加工厂,南闫庄服装厂,1南闫庄内1,0387489085-兴旺粮油储运-专变-45313949-兴旺粮油储运,中闫庄塑料厂东台,2南闫庄外1【纯农排变】,清苑县南闫庄瑞达模具机械加工厂,2白庙外1【纯农排变】,2沙堤营外2（1）【纯农排变】,1南闫庄内5,2南闫庄外8【纯农排变】,清苑县长更液压机械加工厂,1郭庄内3,保定市宠康庞物制造有限公司,2沙堤营外5【纯农排变】,2钟家营外2【纯农排变】,1西木欠庄内1,1钟家营内1,河北省清苑腾飞模盒厂,彩虹机械厂,0387488691-中国联合网络通信有限公司清苑县分公司-专变-45314038-南闫庄邮局,保定市沣达模具制造有限公司,2钟家营外4【纯农排变】,2沙堤营外4【纯农排变】,2沙堤营外3【纯农排变】,保定市三鼎机械制造有限公司,1钟家营内4,1打油庄内1","poweroffReason":"【停电原因】由于灾后重建工程导致３５ＫＶ沙堤营变电站１０ＫＶ打油庄线５１１线路全线停电 【变更送电】无 【发布渠道】保定市清苑区电视台（２０１８年０６月０７日１９时至２０１８年０６月１４日２０时之间）屏幕上方滚动","powerTime":"2018-06-15 18:20:53","powerComm":"臧村所王志强通知已送电","subsNo":"","lineNo":"","tgNo":"","tgName":null,"infoStatus":"1","orgName":"国网清苑县供电公司","typeName":null,"infoStatusName":null,"dateDay":null,"orgNos":null,"nowTime":null,"countyName":null,"streetName":null,"villageName":null,"roadName":null,"communityName":null,"tranName":null,"sdLineName":null,"cityCode":"1340618","cityName":"国网清苑县供电公司","provinceCode":null,"stopTime":"2018-06-15 18:30:00","powerType":"全部","powerOffArea":"【全线路停电】停2南闫庄外5【纯农排变】,清苑县南闫庄模板厂,1打油庄内4,2打油庄外1【纯农排变】,打油庄南鸡厂,南阎庄模板厂,1南闫庄内12,1前营内1,南闫庄挂面厂,2钟家营外1【纯农排变】,保定新兴肉食品加工厂,振安塑料制品厂,打油庄北鸡厂,前营村委会,0387487180-清苑县力达新型机械设备有限公司-专变-45313706-清苑县力达精密构件厂,1郭庄内2,0600318723-清苑县南阎庄夏都建材销售处-专变-126661998-清苑县南闫庄正月板厂,清苑县闫庄乡卫东模盒厂,0574772482-清苑县闫庄乡卫东模盒厂-专变-123914514-清苑县闫庄乡卫东模盒厂,2南闫庄外3【纯农排变】,沙城营村委会,1南闫庄内11,0666504209-清苑县南阎庄润达模具机械加工厂-专变-208088837-清苑县南阎庄润达模具机械加工厂,保定恒翔制衣有限公司,2郭庄外1【纯农排变】,2沙堤营外1【纯农排变】,1白庙内2,2西木欠庄外1【纯农排变】,1钟家营内3,南闫庄恒翔制衣厂,0452874424-清苑县兴旺粮食购销有限责任公司-专变-45558274-清苑县兴旺粮食购销有限责任公司,南闫庄东升塑料厂,1白庙内1,1沙堤营内3,保定市清苑区臧村镇育才小学,清苑县力达新型机械设备有限公司,2南闫庄外4【纯农排变】,张辛庄预制件厂,南闫庄塑料颗粒厂,金诺塑料厂,2西木欠庄外4【纯农排变】,2西木欠庄外2【纯农排变】,保定东兴建设有限责任公司,保定市宠康宠物饲料制造有限公司,保定利家世纪房地产开发有限公司,2白庙外2【纯农排变】,2南闫庄外6【纯农排变】,清苑县腾飞模盒厂,钟家营塑料厂,0387487584-前营村委会-专变-45313740-前营村委会,1南闫庄内7,1前营内2,1南闫庄内6,1打油庄内3,龙岩市明发机电安装工程有限公司保定分公司,2前营外2【纯农排变】,后营塑料厂,1西木欠庄内2,沙堤营鸡场,东方农厂,1沙堤营内5,2南闫庄外2【纯农排变】,1沙堤营内1,清苑县南闫庄华鑫液压机械加工厂,2蔡庄外1【纯农排变】,河北建设集团股份有限公司,新潮家具公司,1郭庄内1,2南闫庄外7（1）【纯农排变】,蔡庄和平模盒厂,1沙堤营内4,2打油庄外2【纯农排变】,1打油庄内2,1钟家营内2,2钟家营外3【纯农排变】,0387488024-保定聚鼎塑料模具制造有限公司-专变-45313658-南闫庄卫东模盒厂,清苑县闫庄旭日彩砖加工厂,南闫庄服装厂,1南闫庄内1,0387489085-兴旺粮油储运-专变-45313949-兴旺粮油储运,中闫庄塑料厂东台,2南闫庄外1【纯农排变】,清苑县南闫庄瑞达模具机械加工厂,2白庙外1【纯农排变】,2沙堤营外2（1）【纯农排变】,1南闫庄内5,2南闫庄外8【纯农排变】,清苑县长更液压机械加工厂,1郭庄内3,保定市宠康庞物制造有限公司,2沙堤营外5【纯农排变】,2钟家营外2【纯农排变】,1西木欠庄内1,1钟家营内1,河北省清苑腾飞模盒厂,彩虹机械厂,0387488691-中国联合网络通信有限公司清苑县分公司-专变-45314038-南闫庄邮局,保定市沣达模具制造有限公司,2钟家营外4【纯农排变】,2沙堤营外4【纯农排变】,2沙堤营外3【纯农排变】,保定市三鼎机械制造有限公司,1钟家营内4,1打油庄内1","powerOffReason":"【停电原因】由于灾后重建工程导致３５ＫＶ沙堤营变电站１０ＫＶ打油庄线５１１线路全线停电 【变更送电】无 【发布渠道】保定市清苑区电视台（２０１８年０６月０７日１９时至２０１８年０６月１４日２０时之间）屏幕上方滚动","powerOffId":"2018060613000468"},{"poweroffId":2018060613000456,"sgpoweroffId":null,"subsName":"","lineName":"市政II线512","pubTranName":"九龙河边,幸福里小区箱变配电变压器,河北钢山房地产开发集团有限公司(名都一品A区),华赫园房地产开发有限公司,龙泉公寓箱变配电变压器,北关3台区,西堤站市政II线512主干009号杆梯接处,曲家湾东,北关5台区,城内小学,望都县双丰面业有限公司,0672298705-河北力恒塑业有限公司-专变-213880259-河北力恒塑业有限公司,0469478453-河北望都中学-专变-46817558-望都中学,三强鞋厂,千里鞋厂,河北力恒塑业有限公司,园丁之家,小西堤北,北关4台区,0664749202-河北钢山房地产开发集团有限公司-专变-201073720-河北钢山房地产开发集团有限公司,西堤315,小西堤南,研修中心外,小西堤北2号,北关2台区,城内小区2号,河北钢山房地产开发集团有限公司,西堤腾飞鞋厂,城内小区1号,旺府门前,运动家园箱变配电变压器,曲家湾西,变压器,小西堤西混1号,天宇制鞋厂,城内小区3号,农行配变,宣武鞋厂,望都中学西,幸福里小区东配电变压器,北关1台区1,河北华瑞香辛料有限公司,望都县万盛电瓷厂,小西堤东,西堤驾校,研修中心内,","scope":"【影响街道/乡镇】望都镇　　 【高危重要客户】无　　 【影响客户】龙泉公寓、望都中学西、农行、小西堤部分农业、研修中心、曲家湾、小西堤村村南、北关部分农业、运动佳园、望都中学、双丰面粉、千里鞋厂、园丁之家、美菱制鞋厂、天宇制鞋厂、华赫园房地产、华都豪苑、名都一品Ａ区、幸福里、鸿福楼、城内小区、万盛电磁、小西堤驾校、宜春酒厂、力恒塑业、西堤３１５、宣武鞋厂、西堤腾飞鞋厂、二丫鞋厂、小西堤西混、九龙河边、钢山房地产开发公司、华瑞香辛料公司","startTime":"2018-06-06 15:00:13","stopDate":"2018-06-06 18:00:00","orgNo":"1340623","typeCode":"电网故障停限电","poweroffArea":"【全线路停电】停北关1台区1,曲家湾西,0664749202-河北钢山房地产开发集团有限公司-专变-201073720-河北钢山房地产开发集团有限公司,千里鞋厂,变压器,三强鞋厂,北关4台区,西堤315,宣武鞋厂,河北力恒塑业有限公司,小西堤北2号,北关2台区,华赫园房地产开发有限公司,龙泉公寓箱变配电变压器,城内小区2号,河北钢山房地产开发集团有限公司(名都一品A区),河北华瑞香辛料有限公司,西堤驾校,河北钢山房地产开发集团有限公司,北关5台区,望都县万盛电瓷厂,望都中学西,西堤腾飞鞋厂,幸福里小区东配电变压器,小西堤东,九龙河边,城内小区3号,城内小区1号,幸福里小区箱变配电变压器,旺府门前,农行配变,研修中心内,运动家园箱变配电变压器,西堤站市政II线512主干009号杆梯接处,曲家湾东,北关3台区,0469478453-河北望都中学-专变-46817558-望都中学,小西堤西混1号,小西堤北,望都县双丰面业有限公司,0672298705-河北力恒塑业有限公司-专变-213880259-河北力恒塑业有限公司,研修中心外,城内小学,天宇制鞋厂,小西堤南,园丁之家","poweroffReason":"【停电原因】由于Ａ相接地导致１１０ＫＶ西堤变电站市政ＩＩ线５１２线路全线停电 【变更送电】因抢修进度加快原因，送电时间由０７日１２：００变更为０６日１８：００ 【发布渠道】通过９５５９８发布","powerTime":"2018-06-06 17:17:59","powerComm":"已送电","subsNo":"","lineNo":"","tgNo":"","tgName":null,"infoStatus":"1","orgName":"国网望都县供电公司","typeName":null,"infoStatusName":null,"dateDay":null,"orgNos":null,"nowTime":null,"countyName":null,"streetName":null,"villageName":null,"roadName":null,"communityName":null,"tranName":null,"sdLineName":null,"cityCode":"1340623","cityName":"国网望都县供电公司","provinceCode":null,"stopTime":"2018-06-06 18:00:00","powerType":"全部","powerOffArea":"【全线路停电】停北关1台区1,曲家湾西,0664749202-河北钢山房地产开发集团有限公司-专变-201073720-河北钢山房地产开发集团有限公司,千里鞋厂,变压器,三强鞋厂,北关4台区,西堤315,宣武鞋厂,河北力恒塑业有限公司,小西堤北2号,北关2台区,华赫园房地产开发有限公司,龙泉公寓箱变配电变压器,城内小区2号,河北钢山房地产开发集团有限公司(名都一品A区),河北华瑞香辛料有限公司,西堤驾校,河北钢山房地产开发集团有限公司,北关5台区,望都县万盛电瓷厂,望都中学西,西堤腾飞鞋厂,幸福里小区东配电变压器,小西堤东,九龙河边,城内小区3号,城内小区1号,幸福里小区箱变配电变压器,旺府门前,农行配变,研修中心内,运动家园箱变配电变压器,西堤站市政II线512主干009号杆梯接处,曲家湾东,北关3台区,0469478453-河北望都中学-专变-46817558-望都中学,小西堤西混1号,小西堤北,望都县双丰面业有限公司,0672298705-河北力恒塑业有限公司-专变-213880259-河北力恒塑业有限公司,研修中心外,城内小学,天宇制鞋厂,小西堤南,园丁之家","powerOffReason":"【停电原因】由于Ａ相接地导致１１０ＫＶ西堤变电站市政ＩＩ线５１２线路全线停电 【变更送电】因抢修进度加快原因，送电时间由０７日１２：００变更为０６日１８：００ 【发布渠道】通过９５５９８发布","powerOffId":"2018060613000456"},{"poweroffId":2018060613000441,"sgpoweroffId":null,"subsName":"","lineName":"10kV511洪善堡线","pubTranName":"齐村综合6台区,北刘佐农排5台区【纯农排变】,北刘佐农排2台区【纯农排变】,洪善堡农排11台区【纯农排变】,0469454808-齐村段贯纯农业二台区-专变-46812914-齐村西北,北刘佐综合1台区,齐村综合5台区,洪善堡综合5台区,北刘佐农排7台区【纯农排变】,洪善堡综合12台区,后市农排6台区【纯农排变】,洪善堡综合3台区,洪善堡农排17台区【纯农排变】,后市综合10台区,洪善堡农排8台区【纯农排变】,后市综合9台区,0469453384-冀宏橡胶制品厂-专变-46812912-洪堡胶厂,中佐农排15台区【纯农排变】,北刘佐综合5台区,北佐综合5台区,0469454329-后市宋树模农业台区-专变-46812911-后市宋树模,前市综合3台区,洪堡农排3台区【纯农排变】,洪善堡农排12台区【纯农排变】,蠡县欧福特汽车用品厂,齐村综合3台区,洪善堡综合9台区,后市综合2台区,中佐农排13台区【纯农排变】,洪善堡农排15台区【纯农排变】,洪善堡综合7台区,前市综合1台区,齐村农排1台区【纯农排变】,后市综合1台区,洪堡农排13台区【纯农排变】,后市综合6台区,北刘佐农排4台区【纯农排变】,后市农排7台区【纯农排变】,后市综合8台区,中佐农排12台区【纯农排变】,后市农排4台区【纯农排变】,洪善堡综合11台区,齐村农排2台区【纯农排变】,前市综合4台区,北刘佐综合2台区,洪善堡综合2台区,后市农排8台区【纯农排变】,站变,洪善堡农排14台区【纯农排变】,0469453788-齐村段贯纯农业一台区-专变-46812913-齐村东北,洪善堡农排16台区【纯农排变】,洪善堡农排4台区【纯农排变】,北刘佐综合4台区,后市农排9台区变压器【纯农排变】,洪堡农排1台区【纯农排变】,0469454303-蠡县北刘佐面粉厂-专变-46812920-蠡县北刘佐面粉厂,北刘佐农排6台区【纯农排变】,后市综合11台区变压器,蠡县新民养猪场变压器,北佐综合6台区,洪善堡综合1台区,后市综合7台区,后市综合12台区变压器,北佐农排3台区【纯农排变】,齐村综合2台区,0469453010-中国联合网络通信有限公司蠡县分公司-专变-46812917-中国网通,后市综合4台区,齐村综合4台区,后市农排1台区【纯农排变】,前市农排1台区【纯农排变】,中佐农排11台区【纯农排变】,洪善堡综合10台区,前市综合2台区,洪善堡综合4台区,后市农排3台区【纯农排变】,0469452349-洪堡孙彦卿农业台区-专变-46812916-花厂,后市综合5台区,一队农排5台区【纯农排变】,洪善堡农排6台区【纯农排变】,齐村综合7台区,后市综合3台区,中佐农排14台区【纯农排变】,北刘佐综合3台区,0593173310-蠡县后刘市兴光人造革废料加工厂-专变-125866393-蠡县后刘市兴光人造革废料加工厂,洪善堡人造皮毛厂,0469454316-后刘市面粉厂-专变-46812910-后市面粉厂,后市农排5台区【纯农排变】,洪善堡农排7台区【纯农排变】,北刘佐农排1台区【纯农排变】,齐村综合1台区,洪堡综合6台区,","scope":"【影响街道/乡镇】南庄镇【高危重要客户】无【影响客户】洪善堡村、后刘市村、北刘佐村、齐村、前刘市村","startTime":"2018-06-13 06:30:00","stopDate":"2018-06-13 19:30:00","orgNo":"1340616","typeCode":"临时停电","poweroffArea":"【全线路停电】停前市农排1台区【纯农排变】,洪堡农排3台区【纯农排变】,洪善堡综合11台区,后市综合8台区,洪善堡农排6台区【纯农排变】,洪善堡综合7台区,前市综合4台区,后市综合11台区变压器,后市农排9台区变压器【纯农排变】,后市农排5台区【纯农排变】,洪堡农排1台区【纯农排变】,蠡县新民养猪场变压器,洪善堡农排14台区【纯农排变】,齐村综合7台区,北刘佐农排1台区【纯农排变】,洪堡综合6台区,后市综合1台区,后市综合5台区,洪善堡农排11台区【纯农排变】,北刘佐综合2台区,北刘佐农排6台区【纯农排变】,后市综合6台区,北刘佐农排7台区【纯农排变】,中佐农排13台区【纯农排变】,后市综合7台区,后市农排1台区【纯农排变】,后市综合3台区,齐村综合6台区,中佐农排12台区【纯农排变】,齐村综合1台区,北刘佐农排5台区【纯农排变】,0593173310-蠡县后刘市兴光人造革废料加工厂-专变-125866393-蠡县后刘市兴光人造革废料加工厂,中佐农排15台区【纯农排变】,洪善堡农排17台区【纯农排变】,北刘佐综合1台区,0469454303-蠡县北刘佐面粉厂-专变-46812920-蠡县北刘佐面粉厂,洪善堡农排15台区【纯农排变】,洪善堡综合3台区,北刘佐综合4台区,北佐农排3台区【纯农排变】,前市综合1台区,洪善堡综合4台区,前市综合2台区,北刘佐农排4台区【纯农排变】,后市农排7台区【纯农排变】,北刘佐综合3台区,洪善堡农排8台区【纯农排变】,中佐农排14台区【纯农排变】,齐村综合5台区,洪善堡综合12台区,北佐综合5台区,中佐农排11台区【纯农排变】,洪善堡农排7台区【纯农排变】,后市综合2台区,0469452349-洪堡孙彦卿农业台区-专变-46812916-花厂,0469453788-齐村段贯纯农业一台区-专变-46812913-齐村东北,洪善堡综合1台区,0469454808-齐村段贯纯农业二台区-专变-46812914-齐村西北,齐村农排2台区【纯农排变】,前市综合3台区,0469454329-后市宋树模农业台区-专变-46812911-后市宋树模,后市农排4台区【纯农排变】,0469453384-冀宏橡胶制品厂-专变-46812912-洪堡胶厂,齐村农排1台区【纯农排变】,洪堡农排13台区【纯农排变】,洪善堡综合2台区,0469454316-后刘市面粉厂-专变-46812910-后市面粉厂,后市综合9台区,洪善堡综合5台区,洪善堡人造皮毛厂,一队农排5台区【纯农排变】,0469453010-中国联合网络通信有限公司蠡县分公司-专变-46812917-中国网通,站变,后市农排6台区【纯农排变】,北刘佐综合5台区,洪善堡农排12台区【纯农排变】,后市农排8台区【纯农排变】,后市综合10台区,北佐综合6台区,后市农排3台区【纯农排变】,齐村综合3台区,齐村综合2台区,洪善堡综合10台区,后市综合12台区变压器,洪善堡农排16台区【纯农排变】,后市综合4台区,蠡县欧福特汽车用品厂,齐村综合4台区,北刘佐农排2台区【纯农排变】,洪善堡综合9台区,洪善堡农排4台区【纯农排变】","poweroffReason":"【停电原因】由于更换电杆、更换导线导致３５ＫＶ洪善堡变电站１０ＫＶ洪善堡５１１线路全线停电【变更送电】无【发布渠道】通过９５５９８发布","powerTime":"2018-06-13 19:30:00","powerComm":"已送电","subsNo":"","lineNo":"","tgNo":"","tgName":null,"infoStatus":"1","orgName":"国网蠡县供电公司","typeName":null,"infoStatusName":null,"dateDay":null,"orgNos":null,"nowTime":null,"countyName":null,"streetName":null,"villageName":null,"roadName":null,"communityName":null,"tranName":null,"sdLineName":null,"cityCode":"1340616","cityName":"国网蠡县供电公司","provinceCode":null,"stopTime":"2018-06-13 19:30:00","powerType":"全部","powerOffArea":"【全线路停电】停前市农排1台区【纯农排变】,洪堡农排3台区【纯农排变】,洪善堡综合11台区,后市综合8台区,洪善堡农排6台区【纯农排变】,洪善堡综合7台区,前市综合4台区,后市综合11台区变压器,后市农排9台区变压器【纯农排变】,后市农排5台区【纯农排变】,洪堡农排1台区【纯农排变】,蠡县新民养猪场变压器,洪善堡农排14台区【纯农排变】,齐村综合7台区,北刘佐农排1台区【纯农排变】,洪堡综合6台区,后市综合1台区,后市综合5台区,洪善堡农排11台区【纯农排变】,北刘佐综合2台区,北刘佐农排6台区【纯农排变】,后市综合6台区,北刘佐农排7台区【纯农排变】,中佐农排13台区【纯农排变】,后市综合7台区,后市农排1台区【纯农排变】,后市综合3台区,齐村综合6台区,中佐农排12台区【纯农排变】,齐村综合1台区,北刘佐农排5台区【纯农排变】,0593173310-蠡县后刘市兴光人造革废料加工厂-专变-125866393-蠡县后刘市兴光人造革废料加工厂,中佐农排15台区【纯农排变】,洪善堡农排17台区【纯农排变】,北刘佐综合1台区,0469454303-蠡县北刘佐面粉厂-专变-46812920-蠡县北刘佐面粉厂,洪善堡农排15台区【纯农排变】,洪善堡综合3台区,北刘佐综合4台区,北佐农排3台区【纯农排变】,前市综合1台区,洪善堡综合4台区,前市综合2台区,北刘佐农排4台区【纯农排变】,后市农排7台区【纯农排变】,北刘佐综合3台区,洪善堡农排8台区【纯农排变】,中佐农排14台区【纯农排变】,齐村综合5台区,洪善堡综合12台区,北佐综合5台区,中佐农排11台区【纯农排变】,洪善堡农排7台区【纯农排变】,后市综合2台区,0469452349-洪堡孙彦卿农业台区-专变-46812916-花厂,0469453788-齐村段贯纯农业一台区-专变-46812913-齐村东北,洪善堡综合1台区,0469454808-齐村段贯纯农业二台区-专变-46812914-齐村西北,齐村农排2台区【纯农排变】,前市综合3台区,0469454329-后市宋树模农业台区-专变-46812911-后市宋树模,后市农排4台区【纯农排变】,0469453384-冀宏橡胶制品厂-专变-46812912-洪堡胶厂,齐村农排1台区【纯农排变】,洪堡农排13台区【纯农排变】,洪善堡综合2台区,0469454316-后刘市面粉厂-专变-46812910-后市面粉厂,后市综合9台区,洪善堡综合5台区,洪善堡人造皮毛厂,一队农排5台区【纯农排变】,0469453010-中国联合网络通信有限公司蠡县分公司-专变-46812917-中国网通,站变,后市农排6台区【纯农排变】,北刘佐综合5台区,洪善堡农排12台区【纯农排变】,后市农排8台区【纯农排变】,后市综合10台区,北佐综合6台区,后市农排3台区【纯农排变】,齐村综合3台区,齐村综合2台区,洪善堡综合10台区,后市综合12台区变压器,洪善堡农排16台区【纯农排变】,后市综合4台区,蠡县欧福特汽车用品厂,齐村综合4台区,北刘佐农排2台区【纯农排变】,洪善堡综合9台区,洪善堡农排4台区【纯农排变】","powerOffReason":"【停电原因】由于更换电杆、更换导线导致３５ＫＶ洪善堡变电站１０ＫＶ洪善堡５１１线路全线停电【变更送电】无【发布渠道】通过９５５９８发布","powerOffId":"2018060613000441"},{"poweroffId":2018060613000401,"sgpoweroffId":null,"subsName":"","lineName":"10kV514林堡线","pubTranName":"宋庄水泥构件厂变压器,双乐团绒,林堡综合11台区,新9号,林堡综合4台区,砖厂东南2,新3号,林堡综合6台区,林堡综合3台区,小新鸡厂,林堡综合9台区,林堡综合8台区,胜园,占利,林堡综合2台区,林堡新1号,新10号,永旺,林堡综合16台区,林堡6号,华益,宋庄砖厂,新6号,砖厂东南1,林堡综合12台区,林堡站用,林堡新4号,齐根浇地,牛厂1号,华泽纺织有限公司,林堡1号,宋庄南2号,落地3号,宋庄板厂,林堡综合5台区,新5号,蠡县宋庄恒威棉织厂变压器,宋庄南1号,浇地2号,马军板厂,林堡综合15台区,东子,林堡综合1台区,猪厂7号,新8号,大柳树农场,浇地5号,林堡综合10台区,林堡新2号,宋庄综合8台区,林堡5号,林堡2号,宋庄毛纺厂（清飞）,林堡综合20台区,新四号,林堡综合13台区,荣顺祥,","scope":"【影响街道/乡镇】林堡乡 【高危重要客户】无 【影响客户】林堡村","startTime":"2018-06-06 15:30:00","stopDate":"2018-06-06 20:00:00","orgNo":"1340616","typeCode":"其他临时停电","poweroffArea":"【全线路停电】停林堡6号,华益,宋庄南2号,宋庄南1号,浇地5号,林堡综合15台区,林堡综合1台区,林堡综合6台区,新四号,新3号,新5号,浇地2号,新6号,牛厂1号,猪厂7号,林堡综合12台区,林堡综合5台区,林堡新4号,林堡综合4台区,林堡综合10台区,宋庄综合8台区,林堡新1号,林堡综合11台区,林堡新2号,林堡综合20台区,蠡县宋庄恒威棉织厂变压器,林堡综合8台区,东子,砖厂东南2,双乐团绒,小新鸡厂,宋庄毛纺厂（清飞）,永旺,新10号,落地3号,宋庄水泥构件厂变压器,新9号,占利,马军板厂,齐根浇地,胜园,砖厂东南1,林堡综合3台区,新8号,林堡站用,宋庄砖厂,大柳树农场,林堡综合9台区,宋庄板厂,华泽纺织有限公司,荣顺祥,林堡2号,林堡1号,林堡5号,林堡综合2台区,林堡综合13台区,林堡综合16台区","poweroffReason":"【停电原因】由于配合政府环保治污停电导致３５ＫＶ林堡变电站１０ＫＶ林堡５１４线路全线停电【变更送电】因政府环保治污行动进度加快原因，送电时间由２０：３０变更为２０：００【发布渠道】通过９５５９８发布","powerTime":"2018-06-06 19:09:21","powerComm":"已送电","subsNo":"","lineNo":"","tgNo":"","tgName":null,"infoStatus":"1","orgName":"国网蠡县供电公司","typeName":null,"infoStatusName":null,"dateDay":null,"orgNos":null,"nowTime":null,"countyName":null,"streetName":null,"villageName":null,"roadName":null,"communityName":null,"tranName":null,"sdLineName":null,"cityCode":"1340616","cityName":"国网蠡县供电公司","provinceCode":null,"stopTime":"2018-06-06 20:00:00","powerType":"全部","powerOffArea":"【全线路停电】停林堡6号,华益,宋庄南2号,宋庄南1号,浇地5号,林堡综合15台区,林堡综合1台区,林堡综合6台区,新四号,新3号,新5号,浇地2号,新6号,牛厂1号,猪厂7号,林堡综合12台区,林堡综合5台区,林堡新4号,林堡综合4台区,林堡综合10台区,宋庄综合8台区,林堡新1号,林堡综合11台区,林堡新2号,林堡综合20台区,蠡县宋庄恒威棉织厂变压器,林堡综合8台区,东子,砖厂东南2,双乐团绒,小新鸡厂,宋庄毛纺厂（清飞）,永旺,新10号,落地3号,宋庄水泥构件厂变压器,新9号,占利,马军板厂,齐根浇地,胜园,砖厂东南1,林堡综合3台区,新8号,林堡站用,宋庄砖厂,大柳树农场,林堡综合9台区,宋庄板厂,华泽纺织有限公司,荣顺祥,林堡2号,林堡1号,林堡5号,林堡综合2台区,林堡综合13台区,林堡综合16台区","powerOffReason":"【停电原因】由于配合政府环保治污停电导致３５ＫＶ林堡变电站１０ＫＶ林堡５１４线路全线停电【变更送电】因政府环保治污行动进度加快原因，送电时间由２０：３０变更为２０：００【发布渠道】通过９５５９８发布","powerOffId":"2018060613000401"},{"poweroffId":2018060613000398,"sgpoweroffId":null,"subsName":"","lineName":"10kV511潘营线","pubTranName":"蛮营道东,王辛庄综合6台区,加弹厂北,林曲北2号,渡槽,王辛庄综合8台区,朱坟,王辛庄综合10台区,中国联合网络通信有限公司蠡县分公司变压器,王辛庄综合5台区,王辛庄综合2台区,王辛庄综合9台区,王辛庄综合1台区,林曲北1号,志敏房东,沟南,板厂,潘西砖厂,王辛庄综合4台区,志敏房,蛮营道,林曲路南新变,加弹厂浇地,砖厂北,渡槽西,王辛庄综合7台区,面粉厂,王辛庄综合11台区,王辛庄综合3台区,王辛庄小学西,林曲南1号,王辛庄综合12台区.,（2）6台区西营道,王辛庄村东,","scope":"【影响街道/乡镇】林堡乡 【高危重要客户】无 【影响客户】王辛庄村","startTime":"2018-06-06 15:30:00","stopDate":"2018-06-06 18:00:00","orgNo":"1340616","typeCode":"其他临时停电","poweroffArea":"【全线路停电】停加弹厂北,加弹厂浇地,蛮营道东,蛮营道,志敏房,志敏房东,板厂,渡槽,王辛庄小学西,面粉厂,王辛庄综合10台区,王辛庄综合11台区,王辛庄综合5台区,王辛庄综合6台区,王辛庄综合9台区,王辛庄综合2台区,王辛庄综合1台区,林曲南1号,王辛庄综合4台区,渡槽西,林曲北2号,潘西砖厂,林曲路南新变,（2）6台区西营道,王辛庄综合8台区,朱坟,王辛庄综合3台区,林曲北1号,沟南,砖厂北,王辛庄村东,中国联合网络通信有限公司蠡县分公司变压器,王辛庄综合12台区.,王辛庄综合7台区","poweroffReason":"【停电原因】由于配合政府环保治污停电导致３５ＫＶ林堡变电站１０ＫＶ潘营５１１线路全线停电【变更送电】因政府环保治污行动进度加快原因，送电时间由２０：３０变更为１８：００【发布渠道】通过９５５９８发布","powerTime":"2018-06-06 17:05:44","powerComm":"已送电","subsNo":"","lineNo":"","tgNo":"","tgName":null,"infoStatus":"1","orgName":"国网蠡县供电公司","typeName":null,"infoStatusName":null,"dateDay":null,"orgNos":null,"nowTime":null,"countyName":null,"streetName":null,"villageName":null,"roadName":null,"communityName":null,"tranName":null,"sdLineName":null,"cityCode":"1340616","cityName":"国网蠡县供电公司","provinceCode":null,"stopTime":"2018-06-06 18:00:00","powerType":"全部","powerOffArea":"【全线路停电】停加弹厂北,加弹厂浇地,蛮营道东,蛮营道,志敏房,志敏房东,板厂,渡槽,王辛庄小学西,面粉厂,王辛庄综合10台区,王辛庄综合11台区,王辛庄综合5台区,王辛庄综合6台区,王辛庄综合9台区,王辛庄综合2台区,王辛庄综合1台区,林曲南1号,王辛庄综合4台区,渡槽西,林曲北2号,潘西砖厂,林曲路南新变,（2）6台区西营道,王辛庄综合8台区,朱坟,王辛庄综合3台区,林曲北1号,沟南,砖厂北,王辛庄村东,中国联合网络通信有限公司蠡县分公司变压器,王辛庄综合12台区.,王辛庄综合7台区","powerOffReason":"【停电原因】由于配合政府环保治污停电导致３５ＫＶ林堡变电站１０ＫＶ潘营５１１线路全线停电【变更送电】因政府环保治污行动进度加快原因，送电时间由２０：３０变更为１８：００【发布渠道】通过９５５９８发布","powerOffId":"2018060613000398"},{"poweroffId":2018060613000386,"sgpoweroffId":null,"subsName":"","lineName":"10kV516留春线","pubTranName":"西留春庄面粉厂,西留春村公用农业12台区【纯农排变】,西留春村公用农业6台区【纯农排变】,西留春村公用农业3台区【纯农排变】,西留春公用照明6台区,西留春村公用农业2台区【纯农排变】,西留春村公用照明2台区,西留春村公用农业9台区【纯农排变】,西留春公用农业5台区【纯农排变】,西留春公用照明5台区,西留春村公用农业8台区【纯农排变】,西留春村公用照明4台区,西留春公用照明7台区,西留春村公用农业7台区【纯农排变】,西留春村公用农业1台区【纯农排变】,西留春公用照明3台区,西留春公用照明9台区,西留春村公用农业11台区【纯农排变】,西留春公用照明11台区,西留春纺织配件厂,西留春村公用农业13台区【纯农排变】,","scope":"【影响街道/乡镇】东留春乡【高危重要客户】无【影响客户】西留春","startTime":"2018-06-06 13:30:00","stopDate":"2018-06-06 17:20:00","orgNo":"1340610","typeCode":"电网故障停限电","poweroffArea":"【分支停电】停西留春村公用农业1台区【纯农排变】,西留春公用照明5台区,西留春村公用照明4台区,西留春公用照明6台区,西留春村公用农业3台区【纯农排变】,西留春村公用农业13台区【纯农排变】,西留春公用照明11台区,西留春村公用农业6台区【纯农排变】,西留春纺织配件厂,西留春公用照明7台区,西留春村公用农业11台区【纯农排变】,西留春村公用农业9台区【纯农排变】,西留春村公用农业8台区【纯农排变】,西留春村公用农业2台区【纯农排变】,西留春庄面粉厂,西留春村公用农业12台区【纯农排变】,西留春公用农业5台区【纯农排变】,西留春村公用照明2台区,西留春公用照明3台区,西留春村公用农业7台区【纯农排变】,西留春公用照明9台区","poweroffReason":"【停电原因】由于西留春１分支８至９号杆联通公司移杆碰断线导致３５ＫＶ刘良庄变电站１０ＫＶ５１６留春线路主干１０４号杆２３号隔离开关以下线路停电 【变更送电】因抢修进度加快原因，送电时间由２０：００变更为１７：２０ 【发布渠道】９５５９８","powerTime":"2018-06-06 16:51:07","powerComm":"已送电","subsNo":"","lineNo":"","tgNo":"","tgName":null,"infoStatus":"1","orgName":"国网定州市供电公司","typeName":null,"infoStatusName":null,"dateDay":null,"orgNos":null,"nowTime":null,"countyName":null,"streetName":null,"villageName":null,"roadName":null,"communityName":null,"tranName":null,"sdLineName":null,"cityCode":"1340610","cityName":"国网定州市供电公司","provinceCode":null,"stopTime":"2018-06-06 17:20:00","powerType":"全部","powerOffArea":"【分支停电】停西留春村公用农业1台区【纯农排变】,西留春公用照明5台区,西留春村公用照明4台区,西留春公用照明6台区,西留春村公用农业3台区【纯农排变】,西留春村公用农业13台区【纯农排变】,西留春公用照明11台区,西留春村公用农业6台区【纯农排变】,西留春纺织配件厂,西留春公用照明7台区,西留春村公用农业11台区【纯农排变】,西留春村公用农业9台区【纯农排变】,西留春村公用农业8台区【纯农排变】,西留春村公用农业2台区【纯农排变】,西留春庄面粉厂,西留春村公用农业12台区【纯农排变】,西留春公用农业5台区【纯农排变】,西留春村公用照明2台区,西留春公用照明3台区,西留春村公用农业7台区【纯农排变】,西留春公用照明9台区","powerOffReason":"【停电原因】由于西留春１分支８至９号杆联通公司移杆碰断线导致３５ＫＶ刘良庄变电站１０ＫＶ５１６留春线路主干１０４号杆２３号隔离开关以下线路停电 【变更送电】因抢修进度加快原因，送电时间由２０：００变更为１７：２０ 【发布渠道】９５５９８","powerOffId":"2018060613000386"},{"poweroffId":2018060613000385,"sgpoweroffId":null,"subsName":"","lineName":"10kV512西柴里线","pubTranName":"曲头公用照明2台区,佛店公用农业11台区,佛店村公用照明2台区,佛店村公用照明4台区,曲头公用农业3台区,西柴里公用照明1台区,佛店公用照明7台区,佛店公用农业2台区【纯农排变】,西柴里公用农业13台区【纯农排变】,西柴里公用农业16台区【纯农排变】,佛店公用农业15台区【纯农排变】,西柴里公用农业25台区【纯农排变】,西柴里公用农业7台区【纯农排变】,佛店公用农业21台区【纯农排变】,曲头村公用照明1台区,西柴里公用农业14台区【纯农排变】,亚平纺织厂,佛店村公用照明1台区,西柴里公用农业19台区【纯农排变】,西柴里公用农业24台区【纯农排变】,佛店公用农业19台区【纯农排变】,西柴里公用照明10台区,佛店村公用照明3台区,曲头公用农业6台区,曲头公用农业5台区,佛店公用农业14台区,曲头公用农业8台区,曲头公用农业10台区,佛店公用农业12台区【纯农排变】,佛店公用农业1台区,西柴里公用农业1台区,西柴里公用农业23台区【纯农排变】,西柴里公用照明9台区,西柴里公用农业20台区【纯农排变】,佛店公用农业3台区【纯农排变】,曲头公用农业4台区,西柴里公用农业4台区【纯农排变】,西柴里公用照明7台区,西柴里公用农业8台区【纯农排变】,佛店公用照明8台区,佛店公用农业16台区,西柴里公用农业17台区【纯农排变】,西柴里公用照明3台区,西柴里公用农业12台区【纯农排变】,中辛庄村西,西柴里公用农业22台区,定州市西柴里联村水厂,佛店公用农业8台区【纯农排变】,佛店公用农业7台区【纯农排变】,曲头公用农业9台区,佛店公用农业20台区【纯农排变】,西柴里公用农业21台区【纯农排变】,西柴里公用农业5台区【纯农排变】,曲头公用照明3台区,曲头公用农业7台区,西柴里公用照明8台区,西柴里公用农业11台区【纯农排变】,佛店公用农业10台区【纯农排变】,西柴里公用照明2台区,西柴里公用农业9台区【纯农排变】,西柴里公用农业15台区,西柴里公用农业3台区【纯农排变】,曲头公用农业1台区,西柴里公用农业6台区【纯农排变】,佛店公用农业13台区,佛店公用农业18台区【纯农排变】,佛店公用农业4台区【纯农排变】,西柴里公用农业10台区【纯农排变】,佛店公用照明5台区,西柴里邮局,佛店公用照明6台区,西柴里公用照明6台区,佛店公用农业9台区【纯农排变】,西柴里公用农业18台区【纯农排变】,佛店公用农业5台区【纯农排变】,佛店公用农业6台区【纯农排变】,佛店公用照明9台区,西柴里公用照明5台区,佛店公用农业17台区【纯农排变】,西柴里公用照明4台区,西柴里公用农业2台区【纯农排变】,曲头公用农业2台区,","scope":"【影响街道/乡镇】东留春乡、号头庄乡【高危重要客户】无【影响客户】曲头、西柴里、佛店","startTime":"2018-06-06 13:29:45","stopDate":"2018-06-06 15:00:00","orgNo":"1340610","typeCode":"电网故障停限电","poweroffArea":"【分支停电】停西柴里公用农业25台区【纯农排变】,曲头公用农业7台区,曲头公用照明2台区,佛店公用农业11台区,佛店村公用照明1台区,西柴里公用照明8台区,曲头公用农业6台区,曲头公用农业2台区,中辛庄村西,曲头公用农业5台区,佛店公用农业14台区,西柴里公用农业22台区,佛店公用农业21台区【纯农排变】,曲头村公用照明1台区,定州市西柴里联村水厂,西柴里公用农业14台区【纯农排变】,佛店公用农业5台区【纯农排变】,西柴里公用农业20台区【纯农排变】,佛店公用农业6台区【纯农排变】,佛店公用农业1台区,佛店公用农业3台区【纯农排变】,西柴里公用农业1台区,佛店公用农业8台区【纯农排变】,曲头公用农业4台区,佛店公用农业18台区【纯农排变】,佛店公用农业7台区【纯农排变】,西柴里公用农业19台区【纯农排变】,西柴里公用农业24台区【纯农排变】,曲头公用农业9台区,佛店公用农业19台区【纯农排变】,佛店公用农业20台区【纯农排变】,曲头公用农业8台区,佛店公用照明9台区,西柴里公用农业5台区【纯农排变】,西柴里公用照明5台区,西柴里公用农业4台区【纯农排变】,佛店公用农业17台区【纯农排变】,西柴里公用照明7台区,西柴里公用农业21台区【纯农排变】,西柴里公用照明4台区,佛店公用照明5台区,西柴里公用照明10台区,西柴里公用照明6台区,曲头公用农业10台区,佛店村公用照明3台区,佛店公用农业12台区【纯农排变】,西柴里公用农业8台区【纯农排变】,佛店公用农业13台区,佛店公用照明8台区,西柴里公用农业18台区【纯农排变】,佛店公用农业16台区,佛店村公用照明2台区,曲头公用照明3台区,佛店村公用照明4台区,佛店公用农业9台区【纯农排变】,曲头公用农业1台区,西柴里公用农业17台区【纯农排变】,曲头公用农业3台区,西柴里公用农业11台区【纯农排变】,西柴里公用照明1台区,西柴里公用照明3台区,佛店公用照明7台区,佛店公用农业10台区【纯农排变】,西柴里公用农业6台区【纯农排变】,西柴里公用农业12台区【纯农排变】,佛店公用农业2台区【纯农排变】,西柴里公用照明2台区,西柴里公用农业13台区【纯农排变】,西柴里邮局,西柴里公用农业7台区【纯农排变】,佛店公用照明6台区,西柴里公用农业16台区【纯农排变】,佛店公用农业15台区【纯农排变】,西柴里公用农业23台区【纯农排变】,西柴里公用照明9台区,西柴里公用农业9台区【纯农排变】,西柴里公用农业2台区【纯农排变】,亚平纺织厂,佛店公用农业4台区【纯农排变】,西柴里公用农业10台区【纯农排变】,西柴里公用农业15台区,西柴里公用农业3台区【纯农排变】","poweroffReason":"【停电原因】由于亚平纺织厂配变避雷器烧毁导致３５ＫＶ刘良庄变电站１０ＫＶ５１２西柴里线路主干８９号杆０２号断路器以下线路停电 【变更送电】因抢修进度加快原因，送电时间由２０：００变更为１５：００ 【发布渠道】９５５９８","powerTime":"2018-06-06 14:35:17","powerComm":"已送电","subsNo":"","lineNo":"","tgNo":"","tgName":null,"infoStatus":"1","orgName":"国网定州市供电公司","typeName":null,"infoStatusName":null,"dateDay":null,"orgNos":null,"nowTime":null,"countyName":null,"streetName":null,"villageName":null,"roadName":null,"communityName":null,"tranName":null,"sdLineName":null,"cityCode":"1340610","cityName":"国网定州市供电公司","provinceCode":null,"stopTime":"2018-06-06 15:00:00","powerType":"全部","powerOffArea":"【分支停电】停西柴里公用农业25台区【纯农排变】,曲头公用农业7台区,曲头公用照明2台区,佛店公用农业11台区,佛店村公用照明1台区,西柴里公用照明8台区,曲头公用农业6台区,曲头公用农业2台区,中辛庄村西,曲头公用农业5台区,佛店公用农业14台区,西柴里公用农业22台区,佛店公用农业21台区【纯农排变】,曲头村公用照明1台区,定州市西柴里联村水厂,西柴里公用农业14台区【纯农排变】,佛店公用农业5台区【纯农排变】,西柴里公用农业20台区【纯农排变】,佛店公用农业6台区【纯农排变】,佛店公用农业1台区,佛店公用农业3台区【纯农排变】,西柴里公用农业1台区,佛店公用农业8台区【纯农排变】,曲头公用农业4台区,佛店公用农业18台区【纯农排变】,佛店公用农业7台区【纯农排变】,西柴里公用农业19台区【纯农排变】,西柴里公用农业24台区【纯农排变】,曲头公用农业9台区,佛店公用农业19台区【纯农排变】,佛店公用农业20台区【纯农排变】,曲头公用农业8台区,佛店公用照明9台区,西柴里公用农业5台区【纯农排变】,西柴里公用照明5台区,西柴里公用农业4台区【纯农排变】,佛店公用农业17台区【纯农排变】,西柴里公用照明7台区,西柴里公用农业21台区【纯农排变】,西柴里公用照明4台区,佛店公用照明5台区,西柴里公用照明10台区,西柴里公用照明6台区,曲头公用农业10台区,佛店村公用照明3台区,佛店公用农业12台区【纯农排变】,西柴里公用农业8台区【纯农排变】,佛店公用农业13台区,佛店公用照明8台区,西柴里公用农业18台区【纯农排变】,佛店公用农业16台区,佛店村公用照明2台区,曲头公用照明3台区,佛店村公用照明4台区,佛店公用农业9台区【纯农排变】,曲头公用农业1台区,西柴里公用农业17台区【纯农排变】,曲头公用农业3台区,西柴里公用农业11台区【纯农排变】,西柴里公用照明1台区,西柴里公用照明3台区,佛店公用照明7台区,佛店公用农业10台区【纯农排变】,西柴里公用农业6台区【纯农排变】,西柴里公用农业12台区【纯农排变】,佛店公用农业2台区【纯农排变】,西柴里公用照明2台区,西柴里公用农业13台区【纯农排变】,西柴里邮局,西柴里公用农业7台区【纯农排变】,佛店公用照明6台区,西柴里公用农业16台区【纯农排变】,佛店公用农业15台区【纯农排变】,西柴里公用农业23台区【纯农排变】,西柴里公用照明9台区,西柴里公用农业9台区【纯农排变】,西柴里公用农业2台区【纯农排变】,亚平纺织厂,佛店公用农业4台区【纯农排变】,西柴里公用农业10台区【纯农排变】,西柴里公用农业15台区,西柴里公用农业3台区【纯农排变】","powerOffReason":"【停电原因】由于亚平纺织厂配变避雷器烧毁导致３５ＫＶ刘良庄变电站１０ＫＶ５１２西柴里线路主干８９号杆０２号断路器以下线路停电 【变更送电】因抢修进度加快原因，送电时间由２０：００变更为１５：００ 【发布渠道】９５５９８","powerOffId":"2018060613000385"},{"poweroffId":2018060613000354,"sgpoweroffId":null,"subsName":"","lineName":"10kV工业园I线555","pubTranName":"张村十九台区,","scope":"【影响街道/乡镇】三台镇 【高危重要客户】无 【影响客户】张村","startTime":"2018-06-06 12:58:35","stopDate":"2018-06-06 15:00:00","orgNo":"1340607","typeCode":"电网故障停限电","poweroffArea":"【单台区停电】张村十九台区","poweroffReason":"【停电原因】由于低压线断导致１１０ＫＶ三台变电站１０ＫＶ工业园Ｉ线５５５线路张村十九号公变台区停电 【变更送电】因抢修进度加快原因，送电时间由１６:００变更为１５:００ 【发布渠道】通过９５５９８发布","powerTime":"2018-06-06 14:25:09","powerComm":"已送电","subsNo":"","lineNo":"","tgNo":"","tgName":null,"infoStatus":"1","orgName":"(原)国网安新县供电公司","typeName":null,"infoStatusName":null,"dateDay":null,"orgNos":null,"nowTime":null,"countyName":null,"streetName":null,"villageName":null,"roadName":null,"communityName":null,"tranName":null,"sdLineName":null,"cityCode":"1340607","cityName":"(原)国网安新县供电公司","provinceCode":null,"stopTime":"2018-06-06 15:00:00","powerType":"全部","powerOffArea":"【单台区停电】张村十九台区","powerOffReason":"【停电原因】由于低压线断导致１１０ＫＶ三台变电站１０ＫＶ工业园Ｉ线５５５线路张村十九号公变台区停电 【变更送电】因抢修进度加快原因，送电时间由１６:００变更为１５:００ 【发布渠道】通过９５５９８发布","powerOffId":"2018060613000354"},{"poweroffId":2018060613000304,"sgpoweroffId":null,"subsName":"","lineName":"西环路574","pubTranName":"厂城村9#,厂城村1#,光达汽车维修站(李增光),","scope":"【影响街道/乡镇】易州镇 【高危重要客户】无 【影响客户】厂城村、光达汽车维修站","startTime":"2018-06-14 05:00:00","stopDate":"2018-06-14 07:00:00","orgNo":"1340625","typeCode":"临时停电","poweroffArea":"【分支停电】停厂城村1#,光达汽车维修站(李增光),厂城村9#","poweroffReason":"【停电原因】由于变压器新增工程导致１１０ＫＶ店北变电站西环路５７４线路００１号杆至００２号杆停电 【变更送电】无 【发布渠道】通过９５５９８发布","powerTime":"2018-06-14 06:47:38","powerComm":"已送电","subsNo":"","lineNo":"","tgNo":"","tgName":null,"infoStatus":"1","orgName":"国网易县供电公司","typeName":null,"infoStatusName":null,"dateDay":null,"orgNos":null,"nowTime":null,"countyName":null,"streetName":null,"villageName":null,"roadName":null,"communityName":null,"tranName":null,"sdLineName":null,"cityCode":"1340625","cityName":"国网易县供电公司","provinceCode":null,"stopTime":"2018-06-14 07:00:00","powerType":"全部","powerOffArea":"【分支停电】停厂城村1#,光达汽车维修站(李增光),厂城村9#","powerOffReason":"【停电原因】由于变压器新增工程导致１１０ＫＶ店北变电站西环路５７４线路００１号杆至００２号杆停电 【变更送电】无 【发布渠道】通过９５５９８发布","powerOffId":"2018060613000304"}],"pageModel":{"pageNow":1029,"totalCount":10973,"totalPage":1098,"tableRows":0,"pageCount":10,"beginCount":10280},"isExperi":"1"}