{"message":"","today":"2020-06-15","seleList":[{"poweroffId":2020050813000583,"sgpoweroffId":null,"subsName":"","lineName":"西原线511","pubTranName":"东村北新增,东村村内,东村村内2号（统管）,东村新增,东村新增1号,东村新增2号,东村新增照明,","scope":"【影响街道/乡镇】方顺桥乡 【影响客户】东村","startTime":"2020-05-17 06:00:00","stopDate":"2020-05-17 18:00:00","orgNo":"1340617","typeCode":"计划停电","poweroffArea":"【分支停电】停１１０ＫＶ西原变电站西原线５１１线路东村分支，东村北新增,东村村内,东村村内2号（统管）,东村新增,东村新增1号,东村新增2号,东村新增照明","poweroffReason":"【停电原因】由于线路检修导致１１０ＫＶ西原变电站西原线５１１线路东村分支停电 【变更送电】无 【发布渠道】满城县有线电视台（０５月０８日１９：００－２０：００至０５月１６日１９：００－２０：００）屏幕上方滚动","powerTime":"2020-05-17 17:52:58","powerComm":"已送电","subsNo":"","lineNo":"","tgNo":"","tgName":null,"infoStatus":"1","orgName":"国网满城县供电公司","typeName":null,"infoStatusName":null,"dateDay":null,"orgNos":null,"nowTime":null,"countyName":null,"streetName":null,"villageName":null,"roadName":null,"communityName":null,"tranName":null,"sdLineName":null,"cityCode":"1340617","cityName":"国网满城县供电公司","provinceCode":null,"stopTime":"2020-05-17 18:00:00","powerType":"全部","powerOffArea":"【分支停电】停１１０ＫＶ西原变电站西原线５１１线路东村分支，东村北新增,东村村内,东村村内2号（统管）,东村新增,东村新增1号,东村新增2号,东村新增照明","powerOffReason":"【停电原因】由于线路检修导致１１０ＫＶ西原变电站西原线５１１线路东村分支停电 【变更送电】无 【发布渠道】满城县有线电视台（０５月０８日１９：００－２０：００至０５月１６日１９：００－２０：００）屏幕上方滚动","powerOffId":"2020050813000583"},{"poweroffId":2020050813000556,"sgpoweroffId":null,"subsName":"","lineName":"10kV542红星线","pubTranName":"兑坎庄综合11台区,兑坎庄综合10台区,兑坎庄综合5台区,兑坎庄综合2台区,","scope":"【影响街道/乡镇】蠡吾镇【高危重要客户】无【影响客户】兑坎庄工业区","startTime":"2020-05-10 00:30:00","stopDate":"2020-05-10 04:00:00","orgNo":"1340616","typeCode":"临时停电","poweroffArea":"【全线路停电】停１１０ＫＶ张岳变电站１０ＫＶ红星５４２线路全线，李同营,蠡县兑坎庄橡胶制品经销部变压器,华腾,四通设备厂,保定坤隆橡胶机带有限公司变压器,保定天顺橡胶制品有限公司,河北东风橡胶机带有限公司,蠡县兑坎庄中亿胶带输送设备配件厂,保定四海橡胶机带有限公司,兑坎庄综合11台区,李贺营,李国安,保定红星橡胶制品有限公司,保定中南橡胶机带有限公司,蠡县亿丰输送设备有限公司变压器,韩素卓||2522046|兑坎庄,2522兑坎庄李云清,河北新达胶带厂变压器,2522050||2522兑坎庄,兑坎庄综合10台区,2522兑坎庄车床,蠡县东亿橡胶机带有限公司变压器安装,0684252737-保定晟诺橡胶机带制造有限公司-专变-225174124-保定晟诺橡胶机带制造有限公司,2522兑坎庄韩显增,保定天顺橡胶制品有限公司变压器,双启织布厂,中北橡,蠡县华川胶带有限公司,兑坎庄综合2台区,北方,0683783388-蠡县华隆胶带厂-专变-223538313-蠡县华隆胶带厂变压器,变压器,胜利橡,蠡县开泰输送机带有限公司变压器,华都,其林,保定中南橡胶机带有限公司变压器,蠡县兑庄农机配件维修部,李建辉,中元,鑫宝达输送设备制造有限公司变压器,兑坎庄综合5台区,李贺兵,明星,蠡县兑坎庄腾达环形带厂变压器,李建良,李保昌,保定弘强橡胶机带有限公司,蠡县爱辉橡胶厂变压器","poweroffReason":"【停电原因】由于Ｔ接电缆导致１１０ＫＶ张岳变电站１０ＫＶ红星５４２线路全线停电【变更送电】因工作进度加快原因，送电时间由０６：００变更为０４：００【发布渠道】通过９５５９８发布","powerTime":"2020-05-10 03:03:15","powerComm":"已送电","subsNo":"","lineNo":"","tgNo":"","tgName":null,"infoStatus":"1","orgName":"国网蠡县供电公司","typeName":null,"infoStatusName":null,"dateDay":null,"orgNos":null,"nowTime":null,"countyName":null,"streetName":null,"villageName":null,"roadName":null,"communityName":null,"tranName":null,"sdLineName":null,"cityCode":"1340616","cityName":"国网蠡县供电公司","provinceCode":null,"stopTime":"2020-05-10 04:00:00","powerType":"全部","powerOffArea":"【全线路停电】停１１０ＫＶ张岳变电站１０ＫＶ红星５４２线路全线，李同营,蠡县兑坎庄橡胶制品经销部变压器,华腾,四通设备厂,保定坤隆橡胶机带有限公司变压器,保定天顺橡胶制品有限公司,河北东风橡胶机带有限公司,蠡县兑坎庄中亿胶带输送设备配件厂,保定四海橡胶机带有限公司,兑坎庄综合11台区,李贺营,李国安,保定红星橡胶制品有限公司,保定中南橡胶机带有限公司,蠡县亿丰输送设备有限公司变压器,韩素卓||2522046|兑坎庄,2522兑坎庄李云清,河北新达胶带厂变压器,2522050||2522兑坎庄,兑坎庄综合10台区,2522兑坎庄车床,蠡县东亿橡胶机带有限公司变压器安装,0684252737-保定晟诺橡胶机带制造有限公司-专变-225174124-保定晟诺橡胶机带制造有限公司,2522兑坎庄韩显增,保定天顺橡胶制品有限公司变压器,双启织布厂,中北橡,蠡县华川胶带有限公司,兑坎庄综合2台区,北方,0683783388-蠡县华隆胶带厂-专变-223538313-蠡县华隆胶带厂变压器,变压器,胜利橡,蠡县开泰输送机带有限公司变压器,华都,其林,保定中南橡胶机带有限公司变压器,蠡县兑庄农机配件维修部,李建辉,中元,鑫宝达输送设备制造有限公司变压器,兑坎庄综合5台区,李贺兵,明星,蠡县兑坎庄腾达环形带厂变压器,李建良,李保昌,保定弘强橡胶机带有限公司,蠡县爱辉橡胶厂变压器","powerOffReason":"【停电原因】由于Ｔ接电缆导致１１０ＫＶ张岳变电站１０ＫＶ红星５４２线路全线停电【变更送电】因工作进度加快原因，送电时间由０６：００变更为０４：００【发布渠道】通过９５５９８发布","powerOffId":"2020050813000556"},{"poweroffId":2020050813000548,"sgpoweroffId":null,"subsName":"","lineName":"10kV541大润线","pubTranName":"兑坎庄综合4台区,兑坎庄综合13台区,兑坎庄综合19台区,兑坎庄农排7台区【纯农排变】,兑坎庄综合9台区,","scope":"【影响街道/乡镇】蠡吾镇【高危重要客户】无【影响客户】兑坎庄工业区","startTime":"2020-05-10 00:30:00","stopDate":"2020-05-10 04:00:00","orgNo":"1340616","typeCode":"临时停电","poweroffArea":"【全线路停电】停１１０ＫＶ张岳变电站１０ＫＶ大润５４１线路全线，亿达,保定宏达输送机械有限公司变压器,变压器,河北阳光胶带,东龙,九州变压器,远大,兑坎庄综合4台区,蠡县弘扬胶带有限公司变压器,变压器400,张永志,蠡县宏源橡胶制品有限公司,兑坎庄综合13台区,河北大华胶带有限公司变压器,河北天发橡胶有限公司,保定大润橡胶机带制造有限公司,九川,保定腾骏橡胶机带制造有限公司变压器,河北昌鑫胶带机械有限公司,北方浸胶,鑫涛橡胶,张彦峰,蠡县圣元橡胶机带厂,九州胶带变压器,兑坎庄综合19台区,保定远晟橡胶胶带制造有限公司变压器,？县兑坎庄正达胶带厂,中国石化,变压器50-5,变压器250,河北华龙输送设备厂,保定华橡胶带250,亚通橡胶,东兴1111,河北大华胶带有限公司500,蠡县昌鑫橡胶机械制造有限公司变压器,保定东正橡胶机带有限公司变压器,蠡县亿鑫橡胶输送设备有限公司变压器,蠡县宏源橡胶制品有限公司200,保定华橡胶带,保定蓝润胶带制造有限公司,保定恒橡橡胶机带有限公司变压器,变压器250-1,兑坎庄农排7台区【纯农排变】,蠡县宏达贸易有限公司,兑坎庄综合9台区,张鹏辉,保定东龙胶带有限公司","poweroffReason":"【停电原因】由于Ｔ接电缆导致１１０ＫＶ张岳变电站１０ＫＶ大润５４１线路全线停电【变更送电】因工作进度加快原因，送电时间由０６：００变更为０４：００【发布渠道】通过９５５９８发布","powerTime":"2020-05-10 03:03:46","powerComm":"已送电","subsNo":"","lineNo":"","tgNo":"","tgName":null,"infoStatus":"1","orgName":"国网蠡县供电公司","typeName":null,"infoStatusName":null,"dateDay":null,"orgNos":null,"nowTime":null,"countyName":null,"streetName":null,"villageName":null,"roadName":null,"communityName":null,"tranName":null,"sdLineName":null,"cityCode":"1340616","cityName":"国网蠡县供电公司","provinceCode":null,"stopTime":"2020-05-10 04:00:00","powerType":"全部","powerOffArea":"【全线路停电】停１１０ＫＶ张岳变电站１０ＫＶ大润５４１线路全线，亿达,保定宏达输送机械有限公司变压器,变压器,河北阳光胶带,东龙,九州变压器,远大,兑坎庄综合4台区,蠡县弘扬胶带有限公司变压器,变压器400,张永志,蠡县宏源橡胶制品有限公司,兑坎庄综合13台区,河北大华胶带有限公司变压器,河北天发橡胶有限公司,保定大润橡胶机带制造有限公司,九川,保定腾骏橡胶机带制造有限公司变压器,河北昌鑫胶带机械有限公司,北方浸胶,鑫涛橡胶,张彦峰,蠡县圣元橡胶机带厂,九州胶带变压器,兑坎庄综合19台区,保定远晟橡胶胶带制造有限公司变压器,？县兑坎庄正达胶带厂,中国石化,变压器50-5,变压器250,河北华龙输送设备厂,保定华橡胶带250,亚通橡胶,东兴1111,河北大华胶带有限公司500,蠡县昌鑫橡胶机械制造有限公司变压器,保定东正橡胶机带有限公司变压器,蠡县亿鑫橡胶输送设备有限公司变压器,蠡县宏源橡胶制品有限公司200,保定华橡胶带,保定蓝润胶带制造有限公司,保定恒橡橡胶机带有限公司变压器,变压器250-1,兑坎庄农排7台区【纯农排变】,蠡县宏达贸易有限公司,兑坎庄综合9台区,张鹏辉,保定东龙胶带有限公司","powerOffReason":"【停电原因】由于Ｔ接电缆导致１１０ＫＶ张岳变电站１０ＫＶ大润５４１线路全线停电【变更送电】因工作进度加快原因，送电时间由０６：００变更为０４：００【发布渠道】通过９５５９８发布","powerOffId":"2020050813000548"},{"poweroffId":2020050813000518,"sgpoweroffId":null,"subsName":"","lineName":"10kV520东关线","pubTranName":"东关公用照明6台区,北门街照明4台区中压出线间隔配电变压器,地税家属院：照明1台区,新立街(008):照明6台区,东门街(015):照明2台区,新立街(008):照明4台区,眼镜厂公用照明3台区,东关(001):照明3台区,新立街(008):照明5台区,眼镜厂社变(022):照明1台区,东门街：照明6台区,东门街公用照明10台区,东门街照明7台区,东关公用照明8台区,高管处院(015)：照明1台区,东关(001):照明1台区,市场社变(023)；照明1台区,北门街公用照明14台区变压器,东关照明4台区,东门街(015):照明5台区,东关(001):照明2台区,北门街(009):照明1台区中压出线间隔配电变压器,东门街(015):照明1台区,社变照明2台区,东大社照明3台区,东门街公用照明9台区,东关公用照明7台区变压器,东门街公用照明8台区,环保家属院；照明1台区,眼镜厂公用照明2台区,东大街（005）：照明2台区中压出线间隔1配电变压器,","scope":"【影响街道/乡镇】北门街、新立街、自来佛街、东大街、东门街、东关、中山东路、北环路【影响客户】北环路中学附近、国际大酒店附近、高速公路一带、东高中学附近、老窝小区、地税局家属院、北岸小镇、东关市场附近、东星花园、环保局家属院、定州监狱、定州市高级技工学校、保定吉达电力建设集团有限责任公司定州分公司、定州市中山东路初级中学、定州市气象局、定州市环境保护局、定州市人力资源和社会保障局、河北省高速公路禄发实业总公司、定州市福源潜水泵厂、香山中学、定州市北环路初级中学、定州市地方税务局、中山中学、地税局、市场管理中心、运输管理处、高速养护中心、鹏洲郦城、育贤双语小学","startTime":"2020-05-08 15:22:40","stopDate":"2020-05-08 21:30:00","orgNo":"1340610","typeCode":"电网故障停限电","poweroffArea":"【全线路停电】停１１０ＫＶ总司屯变电站１０ＫＶ５２０东关线路全线，张氏房地产公司,东门街(015):照明5台区,河北鹏洲房地产开发有限公司变压器5,定州市中标节能技术服务有限公司变压器,定州市地方税务局,河北冀军利诚房地产开发有限公司 天成东星一期商业变压器1,东门街公用照明9台区,东关公用照明7台区变压器,定州市中山中学变压器,定州市新达冷储有限公司2,电信局,气象局家属院,粮油市场,河北冀军利诚房地产开发有限公司 天成东星一期公用变压器2号,东门街公用照明8台区,河北冀军利诚房地产开发有限公司变压器4,环保家属院；照明1台区,0387416946-河北京石高速公路开发有限公司-专变-212146823-河北京石高速公路开发有限公司变压器,眼镜厂公用照明2台区,0387416773-河北省定州监狱-专变-45264096-河北省定州监狱1,河北鹏洲房地产开发有限公司变压器1,定州市中山东路初级中学变压器,定州市育贤双语小学,河北鹏洲房地产开发有限公司 鹏洲丽城居民北变压器2,定州市开元蔬菜有限公司,定州市总工会变压器1,定州市英杰电器有限公司,东大街（005）：照明2台区中压出线间隔1配电变压器,东关(001):照明3台区,市场社变(023)；照明1台区,贵宾楼,定州市北环路初级中学变压器,北环路灯,河北鹏洲房地产开发有限公司 鹏洲丽城居民南变压器1,0706311019-河北宏天房地产开发有限公司变压器-900018912946,定州市新华小学变压器,京新公司,0387416890-定州市第一蒸汽构件厂-专变-45264001-构件厂,定州市总工会变压器2,河北通达天元房地产开发有限公司紫香园供热变压器,东关(001):照明2台区,高管处院(015)：照明1台区,东关农业6台区【纯农排变】,北门街公用照明14台区变压器,高速交警,远政,河北鹏洲房地产开发有限公司变压器3,东门街东台区路灯变压器,定州市劳动人事局,华怡公司,东北郊供电所,0387417239-河北省高速公路禄发实业总公司-专变-45264153-河北冀星高速公路有限公司定州收费站,河北鹏洲房地产开发有限公司变压器2,技工学校变压器,定州市市场建设服务中心变压器,河北中天房地产开发集团有限公司变压器,高管门前台区路灯变压器,东关照明4台区,东门街(015):照明1台区,河北冀军利诚房地产开发有限公司 天成东星一期商业变压器2,书店路灯,河北冀军利诚房地产开发有限公司 天成东星一期居民2变压器2,新立街照明,北门街(009):照明1台区中压出线间隔配电变压器,河北宏天房地产开发有限公司,河北鹏洲房地产开发有限公司 鹏洲丽城公用变压器1,河北海慧房地产开发有限公司变压器2,东门街西台区路灯变压器,东关公用照明6台区,河北鹏洲房地产开发有限公司 鹏洲丽城公用变压器2,北门街照明4台区中压出线间隔配电变压器,河北鹏洲房地产开发有限公司变压器4,北门街(009):农业6台区【纯农排变】,环保局,东门街(015):照明2台区,河北海慧房地产开发有限公司变压器,香山中学,河北鹏洲房地产开发有限公司 鹏洲丽城供暖变压器1,定州市供电局实业公司,河北鹏洲房地产开发有限公司 鹏洲丽城供暖变压器2,河北冀军利诚房地产开发有限公司 天成东星一期供热2变压器2,北岸小镇,恒达纺织机械器材制造有限公司,陈永才,地税家属院：照明1台区,0387416773-河北省定州监狱-专变-118437152-河北省定州监狱2,潜水泵厂,新立街(008):照明6台区,河北冀军利诚房地产开发有限公司变压器3,河北冀军利诚房地产开发有限公司 天成东星一期居民2变压器1,新立街(008):照明4台区,东关公用照明8台区,猪场,河北鹏洲房地产开发有限公司 鹏洲丽城居民北变压器1","poweroffReason":"【停电原因】由于主干３６号杆地埋电缆被挖断导致１１０ＫＶ总司屯变电站１０ＫＶ５２０东关线路全线停电 【变更送电】因抢修进度加快原因，送电时间由２３：００变更为２１：３０ 【发布渠道】９５５９８","powerTime":"2020-05-08 20:45:51","powerComm":"已送电","subsNo":"","lineNo":"","tgNo":"","tgName":null,"infoStatus":"1","orgName":"国网定州市供电公司","typeName":null,"infoStatusName":null,"dateDay":null,"orgNos":null,"nowTime":null,"countyName":null,"streetName":null,"villageName":null,"roadName":null,"communityName":null,"tranName":null,"sdLineName":null,"cityCode":"1340610","cityName":"国网定州市供电公司","provinceCode":null,"stopTime":"2020-05-08 21:30:00","powerType":"全部","powerOffArea":"【全线路停电】停１１０ＫＶ总司屯变电站１０ＫＶ５２０东关线路全线，张氏房地产公司,东门街(015):照明5台区,河北鹏洲房地产开发有限公司变压器5,定州市中标节能技术服务有限公司变压器,定州市地方税务局,河北冀军利诚房地产开发有限公司 天成东星一期商业变压器1,东门街公用照明9台区,东关公用照明7台区变压器,定州市中山中学变压器,定州市新达冷储有限公司2,电信局,气象局家属院,粮油市场,河北冀军利诚房地产开发有限公司 天成东星一期公用变压器2号,东门街公用照明8台区,河北冀军利诚房地产开发有限公司变压器4,环保家属院；照明1台区,0387416946-河北京石高速公路开发有限公司-专变-212146823-河北京石高速公路开发有限公司变压器,眼镜厂公用照明2台区,0387416773-河北省定州监狱-专变-45264096-河北省定州监狱1,河北鹏洲房地产开发有限公司变压器1,定州市中山东路初级中学变压器,定州市育贤双语小学,河北鹏洲房地产开发有限公司 鹏洲丽城居民北变压器2,定州市开元蔬菜有限公司,定州市总工会变压器1,定州市英杰电器有限公司,东大街（005）：照明2台区中压出线间隔1配电变压器,东关(001):照明3台区,市场社变(023)；照明1台区,贵宾楼,定州市北环路初级中学变压器,北环路灯,河北鹏洲房地产开发有限公司 鹏洲丽城居民南变压器1,0706311019-河北宏天房地产开发有限公司变压器-900018912946,定州市新华小学变压器,京新公司,0387416890-定州市第一蒸汽构件厂-专变-45264001-构件厂,定州市总工会变压器2,河北通达天元房地产开发有限公司紫香园供热变压器,东关(001):照明2台区,高管处院(015)：照明1台区,东关农业6台区【纯农排变】,北门街公用照明14台区变压器,高速交警,远政,河北鹏洲房地产开发有限公司变压器3,东门街东台区路灯变压器,定州市劳动人事局,华怡公司,东北郊供电所,0387417239-河北省高速公路禄发实业总公司-专变-45264153-河北冀星高速公路有限公司定州收费站,河北鹏洲房地产开发有限公司变压器2,技工学校变压器,定州市市场建设服务中心变压器,河北中天房地产开发集团有限公司变压器,高管门前台区路灯变压器,东关照明4台区,东门街(015):照明1台区,河北冀军利诚房地产开发有限公司 天成东星一期商业变压器2,书店路灯,河北冀军利诚房地产开发有限公司 天成东星一期居民2变压器2,新立街照明,北门街(009):照明1台区中压出线间隔配电变压器,河北宏天房地产开发有限公司,河北鹏洲房地产开发有限公司 鹏洲丽城公用变压器1,河北海慧房地产开发有限公司变压器2,东门街西台区路灯变压器,东关公用照明6台区,河北鹏洲房地产开发有限公司 鹏洲丽城公用变压器2,北门街照明4台区中压出线间隔配电变压器,河北鹏洲房地产开发有限公司变压器4,北门街(009):农业6台区【纯农排变】,环保局,东门街(015):照明2台区,河北海慧房地产开发有限公司变压器,香山中学,河北鹏洲房地产开发有限公司 鹏洲丽城供暖变压器1,定州市供电局实业公司,河北鹏洲房地产开发有限公司 鹏洲丽城供暖变压器2,河北冀军利诚房地产开发有限公司 天成东星一期供热2变压器2,北岸小镇,恒达纺织机械器材制造有限公司,陈永才,地税家属院：照明1台区,0387416773-河北省定州监狱-专变-118437152-河北省定州监狱2,潜水泵厂,新立街(008):照明6台区,河北冀军利诚房地产开发有限公司变压器3,河北冀军利诚房地产开发有限公司 天成东星一期居民2变压器1,新立街(008):照明4台区,东关公用照明8台区,猪场,河北鹏洲房地产开发有限公司 鹏洲丽城居民北变压器1","powerOffReason":"【停电原因】由于主干３６号杆地埋电缆被挖断导致１１０ＫＶ总司屯变电站１０ＫＶ５２０东关线路全线停电 【变更送电】因抢修进度加快原因，送电时间由２３：００变更为２１：３０ 【发布渠道】９５５９８","powerOffId":"2020050813000518"},{"poweroffId":2020050813000513,"sgpoweroffId":null,"subsName":"","lineName":"10kV车屯线515","pubTranName":"东魏屯变压器,","scope":"【影响街道/乡镇】肖官营镇 【高危重要客户】无 【影响客户】东魏屯村","startTime":"2020-05-08 15:21:26","stopDate":"2020-05-08 17:00:00","orgNo":"1340612","typeCode":"电网故障停限电","poweroffArea":"【单台区停电】停东魏屯变压器","poweroffReason":"【停电原因】由于东魏屯砖厂分支０４号杆有异物导致３５ＫＶ方官变电站１０ＫＶ车屯５１５线路东魏屯公变台区停电 【变更送电】因抢修进度加快原因，送电时间由２０：００变更为１７：００ 【发布渠道】通过９５５９８发布","powerTime":"2020-05-08 16:08:35","powerComm":"已送电","subsNo":"","lineNo":"","tgNo":"","tgName":null,"infoStatus":"1","orgName":"国网高碑店市供电公司","typeName":null,"infoStatusName":null,"dateDay":null,"orgNos":null,"nowTime":null,"countyName":null,"streetName":null,"villageName":null,"roadName":null,"communityName":null,"tranName":null,"sdLineName":null,"cityCode":"1340612","cityName":"国网高碑店市供电公司","provinceCode":null,"stopTime":"2020-05-08 17:00:00","powerType":"全部","powerOffArea":"【单台区停电】停东魏屯变压器","powerOffReason":"【停电原因】由于东魏屯砖厂分支０４号杆有异物导致３５ＫＶ方官变电站１０ＫＶ车屯５１５线路东魏屯公变台区停电 【变更送电】因抢修进度加快原因，送电时间由２０：００变更为１７：００ 【发布渠道】通过９５５９８发布","powerOffId":"2020050813000513"},{"poweroffId":2020050813000512,"sgpoweroffId":null,"subsName":"","lineName":"涿仝548","pubTranName":"涿仝村南,三合庄东地变台,","scope":"【影响街道/乡镇】向阳乡 【影响客户】涿仝村南、三合庄（部分用户）、辛庄户（部分用户）","startTime":"2020-05-10 07:00:00","stopDate":"2020-05-10 11:30:00","orgNo":"1340626","typeCode":"临时停电","poweroffArea":"【分支停电】停２２０ＫＶ党庄变电站涿仝５４８线路涿仝分支０１号杆以下线路，涿州市三合庄顺利生猪饲养场,涿仝村南,辛庄户地(村南),三合庄东地变台,涿州市展业防水材料厂,涿州市金雨防水材料厂","poweroffReason":"【停电原因】由于架设导线导致２２０ＫＶ党庄变电站涿仝５４８线路涿仝分支０１号杆以下线路停电 【变更送电】无 【发布渠道】通过９５５９８发布","powerTime":"2020-05-10 10:53:45","powerComm":"恢复送电","subsNo":"","lineNo":"","tgNo":"","tgName":null,"infoStatus":"1","orgName":"国网涿州市供电公司","typeName":null,"infoStatusName":null,"dateDay":null,"orgNos":null,"nowTime":null,"countyName":null,"streetName":null,"villageName":null,"roadName":null,"communityName":null,"tranName":null,"sdLineName":null,"cityCode":"1340626","cityName":"国网涿州市供电公司","provinceCode":null,"stopTime":"2020-05-10 11:30:00","powerType":"全部","powerOffArea":"【分支停电】停２２０ＫＶ党庄变电站涿仝５４８线路涿仝分支０１号杆以下线路，涿州市三合庄顺利生猪饲养场,涿仝村南,辛庄户地(村南),三合庄东地变台,涿州市展业防水材料厂,涿州市金雨防水材料厂","powerOffReason":"【停电原因】由于架设导线导致２２０ＫＶ党庄变电站涿仝５４８线路涿仝分支０１号杆以下线路停电 【变更送电】无 【发布渠道】通过９５５９８发布","powerOffId":"2020050813000512"},{"poweroffId":2020050813000465,"sgpoweroffId":null,"subsName":"","lineName":"10kV569赵村线","pubTranName":"西甘德公用照明3台区,赵村公用照明2台区,孟家庄公用照明5台区【纯农排变】,赵村乡政府公用照明1台区,孟家庄公用照明9台区,孟家庄公用照明20台区,孟家庄公用照明14台区,赵村公用照明3台区,孟家庄公用照明10台区【纯农排变】,客户投资_西南佐公用照明2台区,韩家庄公用照明2台区,韩家庄公用照明1台区,韩家庄公用照明5台区,孟家庄公用照明11台区,孟家庄公用照明2台区,西南佐公用照明1台区,孟家庄公用照明16台区,韩家庄公用照明3台区,孟家庄公用照明17台区,西甘德公用照明6台区,西甘德公用照明4台区,赵村公用照明5台区,赵村公用照明6台区,客户投资_孟家庄公用照明8台区,韩家庄公用农业3台区【纯农排变】,赵村公用照明4台区,西甘德公用照明5台区,孟家庄公用照明7台区,韩家庄公用照明6台区,孟家庄公用照明12台区,赵村公用照明1台区,西甘德公用照明1台区,韩家庄公用照明4台区,孟家庄公用照明18台区,孟家庄公用照明3台区,客户投资_孟家庄公用照明4台区,西甘德公用照明2台区,孟家庄公用照明6台区,韩家庄公用照明7台区,孟家庄公用照明13台区,赵村公用农业5台区【纯农排变】,孟家庄公用农业12台区【纯农排变】,赵村公用农业4台区【纯农排变】,赵村公用农业10台区【纯农排变】,赵村公用农业3台区【纯农排变】,赵村公用农业6台区【纯农排变】,赵村公用农业9台区【纯农排变】,赵村公用农业2台区【纯农排变】,韩家庄公用农业4台区【纯农排变】,孟家庄公用农业13台区【纯农排变】,赵村公用农业8台区【纯农排变】,赵村公用农业11台区【纯农排变】,孟家庄公用农业11台区【纯农排变】,","scope":"【影响街道/乡镇】赵村乡【影响客户】西甘德、赵村、西南佐、韩家庄、孟家庄、鸿鑫铸造、省天燃气、定皇加油站、京阳加油站","startTime":"2020-05-08 14:41:57","stopDate":"2020-05-08 16:00:00","orgNo":"1340610","typeCode":"电网故障停限电","poweroffArea":"【全线路停电】停１１０ＫＶ焦化厂变电站１０ＫＶ５６９赵村线路全线，韩家庄公用照明1台区,韩家庄公用照明5台区,孟家庄公用照明11台区,孟家庄公用照明2台区,西南佐公用照明1台区,西甘德公用照明3台区,赵村公用照明2台区,孟家庄公用照明5台区【纯农排变】,赵村乡政府公用照明1台区,孟家庄公用照明9台区,孟家庄公用照明20台区,孟家庄公用照明14台区,赵村公用照明3台区,孟家庄公用照明10台区【纯农排变】,客户投资_西南佐公用照明2台区,韩家庄公用照明2台区,赵村公用农业8台区【纯农排变】,孟家庄公用照明16台区,韩家庄公用照明3台区,孟家庄公用照明17台区,西甘德公用照明6台区,西甘德公用照明4台区,赵村公用照明5台区,赵村公用照明6台区,客户投资_孟家庄公用照明8台区,韩家庄公用农业3台区【纯农排变】,赵村公用照明4台区,西甘德公用照明5台区,孟家庄公用照明7台区,韩家庄公用照明6台区,孟家庄公用照明12台区,赵村公用照明1台区,西甘德公用照明1台区,韩家庄公用照明4台区,孟家庄公用照明18台区,孟家庄公用照明3台区,客户投资_孟家庄公用照明4台区,西甘德公用照明2台区,孟家庄公用照明6台区,韩家庄公用照明7台区,孟家庄公用照明13台区,赵村公用农业5台区【纯农排变】,孟家庄公用农业12台区【纯农排变】,赵村公用农业4台区【纯农排变】,赵村公用农业10台区【纯农排变】,赵村公用农业3台区【纯农排变】,赵村公用农业6台区【纯农排变】,赵村公用农业9台区【纯农排变】,赵村公用农业2台区【纯农排变】,韩家庄公用农业4台区【纯农排变】,孟家庄公用农业13台区【纯农排变】,赵村公用农业11台区【纯农排变】,孟家庄公用农业11台区【纯农排变】,定州市双悦汽车贸易有限公司变压器,定州市森淼粉刷厂变压器,定州市盛达奶牛厂,孟家庄公用农业10台区【纯农排变】,河北恒诺运输有限公司变压器,定州市西甘德社区村民委员会,孟家庄煤厂,定州市新美包装有限公司,西甘德西南变压器,西甘德公路南变压器,定州市天元昌盛水泥制品有限公司变压器,定州市西南佐社区村民委员会变压器,孟家庄公用农业14台区【纯农排变】,定州天龙雕刻厂,定州市东方供水有限公司变压器,定州市信联农机专业合作社变压器,定州市赵村镇西南佐村村委会,定州市兴亚电气控制设备有限公司,变压器,定州市宝光实业有限公司,定州市隆升加油站,定皇加油站,定州百丰水泥制品有限公司变压器,定州市万和储运有限公司变压器,省天然气,河北永发水泥制品有限公司变压器,西甘德村北二,赵村东南,定州市德龙环境工程有限公司变压器,西甘德村北一,孟家庄公用农业4台区【纯农排变】,定州市泽永储运有限公司变压器,孟家庄公用照明19台区,定州市晨菲木器加工厂变压器,韩家庄公用农业6台区【纯农排变】,中国移动通信集团河北有限公司定州分公司变压器,定州市新源电力物业管理有限责任公司,刘立,定州新星中学,定州市鸿鑫铸造厂(一)一,定州市京阳加油站,孟家庄公用农业7台区【纯农排变】,定州市鸿鑫铸造厂(一)二,定州市金和渊汽车配件有限公司,定州市鸿鹄环保建材有限公司,定州市西甘德社区村民委员会变压器,韩家庄公用农业5台区【纯农排变】,定州市永兴木器加工厂变压器,定州市树龙农机配件厂变压器,曹振瑞,定州市袖博机械配件加工厂,孟家庄公用农业3台区【纯农排变】,定州市金玉玻璃钢制品厂变压器,孟家庄公用农业1台区【纯农排变】,定州市鸿鑫铸造厂,定州市赵村镇西南佐村村委会变压器,孟家庄公用农业15台区【","poweroffReason":"【停电原因】由于东方供水高压计量引线断线导致１１０ＫＶ焦化厂变电站１０ＫＶ５６９赵村线路全线停电 【变更送电】因抢修进度加快原因，送电时间由２０：００变更为１６：００ 【发布渠道】９５５９８","powerTime":"2020-05-08 15:32:01","powerComm":"已送电","subsNo":"","lineNo":"","tgNo":"","tgName":null,"infoStatus":"1","orgName":"国网定州市供电公司","typeName":null,"infoStatusName":null,"dateDay":null,"orgNos":null,"nowTime":null,"countyName":null,"streetName":null,"villageName":null,"roadName":null,"communityName":null,"tranName":null,"sdLineName":null,"cityCode":"1340610","cityName":"国网定州市供电公司","provinceCode":null,"stopTime":"2020-05-08 16:00:00","powerType":"全部","powerOffArea":"【全线路停电】停１１０ＫＶ焦化厂变电站１０ＫＶ５６９赵村线路全线，韩家庄公用照明1台区,韩家庄公用照明5台区,孟家庄公用照明11台区,孟家庄公用照明2台区,西南佐公用照明1台区,西甘德公用照明3台区,赵村公用照明2台区,孟家庄公用照明5台区【纯农排变】,赵村乡政府公用照明1台区,孟家庄公用照明9台区,孟家庄公用照明20台区,孟家庄公用照明14台区,赵村公用照明3台区,孟家庄公用照明10台区【纯农排变】,客户投资_西南佐公用照明2台区,韩家庄公用照明2台区,赵村公用农业8台区【纯农排变】,孟家庄公用照明16台区,韩家庄公用照明3台区,孟家庄公用照明17台区,西甘德公用照明6台区,西甘德公用照明4台区,赵村公用照明5台区,赵村公用照明6台区,客户投资_孟家庄公用照明8台区,韩家庄公用农业3台区【纯农排变】,赵村公用照明4台区,西甘德公用照明5台区,孟家庄公用照明7台区,韩家庄公用照明6台区,孟家庄公用照明12台区,赵村公用照明1台区,西甘德公用照明1台区,韩家庄公用照明4台区,孟家庄公用照明18台区,孟家庄公用照明3台区,客户投资_孟家庄公用照明4台区,西甘德公用照明2台区,孟家庄公用照明6台区,韩家庄公用照明7台区,孟家庄公用照明13台区,赵村公用农业5台区【纯农排变】,孟家庄公用农业12台区【纯农排变】,赵村公用农业4台区【纯农排变】,赵村公用农业10台区【纯农排变】,赵村公用农业3台区【纯农排变】,赵村公用农业6台区【纯农排变】,赵村公用农业9台区【纯农排变】,赵村公用农业2台区【纯农排变】,韩家庄公用农业4台区【纯农排变】,孟家庄公用农业13台区【纯农排变】,赵村公用农业11台区【纯农排变】,孟家庄公用农业11台区【纯农排变】,定州市双悦汽车贸易有限公司变压器,定州市森淼粉刷厂变压器,定州市盛达奶牛厂,孟家庄公用农业10台区【纯农排变】,河北恒诺运输有限公司变压器,定州市西甘德社区村民委员会,孟家庄煤厂,定州市新美包装有限公司,西甘德西南变压器,西甘德公路南变压器,定州市天元昌盛水泥制品有限公司变压器,定州市西南佐社区村民委员会变压器,孟家庄公用农业14台区【纯农排变】,定州天龙雕刻厂,定州市东方供水有限公司变压器,定州市信联农机专业合作社变压器,定州市赵村镇西南佐村村委会,定州市兴亚电气控制设备有限公司,变压器,定州市宝光实业有限公司,定州市隆升加油站,定皇加油站,定州百丰水泥制品有限公司变压器,定州市万和储运有限公司变压器,省天然气,河北永发水泥制品有限公司变压器,西甘德村北二,赵村东南,定州市德龙环境工程有限公司变压器,西甘德村北一,孟家庄公用农业4台区【纯农排变】,定州市泽永储运有限公司变压器,孟家庄公用照明19台区,定州市晨菲木器加工厂变压器,韩家庄公用农业6台区【纯农排变】,中国移动通信集团河北有限公司定州分公司变压器,定州市新源电力物业管理有限责任公司,刘立,定州新星中学,定州市鸿鑫铸造厂(一)一,定州市京阳加油站,孟家庄公用农业7台区【纯农排变】,定州市鸿鑫铸造厂(一)二,定州市金和渊汽车配件有限公司,定州市鸿鹄环保建材有限公司,定州市西甘德社区村民委员会变压器,韩家庄公用农业5台区【纯农排变】,定州市永兴木器加工厂变压器,定州市树龙农机配件厂变压器,曹振瑞,定州市袖博机械配件加工厂,孟家庄公用农业3台区【纯农排变】,定州市金玉玻璃钢制品厂变压器,孟家庄公用农业1台区【纯农排变】,定州市鸿鑫铸造厂,定州市赵村镇西南佐村村委会变压器,孟家庄公用农业15台区【","powerOffReason":"【停电原因】由于东方供水高压计量引线断线导致１１０ＫＶ焦化厂变电站１０ＫＶ５６９赵村线路全线停电 【变更送电】因抢修进度加快原因，送电时间由２０：００变更为１６：００ 【发布渠道】９５５９８","powerOffId":"2020050813000465"},{"poweroffId":2020050813000417,"sgpoweroffId":null,"subsName":"","lineName":"顺利线519","pubTranName":"西田村西口11号综合,09059|西田村西3#综合,09091|西田村东北9#综合,西田广场综合,西田村南18#综合变压器,西田村西新增综合,10kV西田10号综合变压器,09060|西田村西北4#综合,09090|西田村西口8#综合,09028|西田村里6#,","scope":"【影响街道/乡镇】高阳镇 【高危重要客户】无 【影响客户】西田村西","startTime":"2020-05-17 06:00:00","stopDate":"2020-05-17 17:30:00","orgNo":"1340613","typeCode":"计划停电","poweroffArea":"【分支停电】停09028|西田村里6#,09059|西田村西3#综合,西田村西口11号综合,09091|西田村东北9#综合,西田广场综合,西田村南18#综合变压器,西田村西新增综合,10kV西田10号综合变压器,09060|西田村西北4#综合,09090|西田村西口8#综合","poweroffReason":"【停电原因】由于换杆、换线导致３５ＫＶ西田变电站顺利５１９线路西田村里分支８号杆８号开关以下停电【变更送电】无【发布渠道】高阳县电视台（５月９日１９时至２１时之间）屏幕下方滚动播出","powerTime":"2020-05-17 17:25:11","powerComm":"已送电","subsNo":"","lineNo":"","tgNo":"","tgName":null,"infoStatus":"1","orgName":"国网高阳县供电公司","typeName":null,"infoStatusName":null,"dateDay":null,"orgNos":null,"nowTime":null,"countyName":null,"streetName":null,"villageName":null,"roadName":null,"communityName":null,"tranName":null,"sdLineName":null,"cityCode":"1340613","cityName":"国网高阳县供电公司","provinceCode":null,"stopTime":"2020-05-17 17:30:00","powerType":"全部","powerOffArea":"【分支停电】停09028|西田村里6#,09059|西田村西3#综合,西田村西口11号综合,09091|西田村东北9#综合,西田广场综合,西田村南18#综合变压器,西田村西新增综合,10kV西田10号综合变压器,09060|西田村西北4#综合,09090|西田村西口8#综合","powerOffReason":"【停电原因】由于换杆、换线导致３５ＫＶ西田变电站顺利５１９线路西田村里分支８号杆８号开关以下停电【变更送电】无【发布渠道】高阳县电视台（５月９日１９时至２１时之间）屏幕下方滚动播出","powerOffId":"2020050813000417"},{"poweroffId":2020050813000415,"sgpoweroffId":null,"subsName":"","lineName":"徐果庄线512","pubTranName":"徐果庄村东新增综合,07200|阮庄村南综合3716,佐庄村西南综合,07203|阮庄村村北综合3614,阮庄村西2号新增综合,北晋庄宋桥道综合,07032|雷庄综合3758,北晋庄村西北新增综合,阮庄村北新增综合,北晋庄西街口综合,07084|佐庄大队综合3684,徐果庄大坑2号新增综合,阮庄村西北新增综合,佐庄村西北新增综合,徐果庄教堂2号综合,雷庄村里东综合台区,北晋庄村北新增综合,07197|徐果庄村教堂综合5236,07063|雷庄村西综合3732,雷庄村西北新增综合,北晋庄宋桥道2号综合,07169|耿庄村北综合3686,阮庄村东新增综合,佐庄村北新增综合,07017|徐果庄村南综合5234,07081|北晋庄综合3578,070020|徐果庄中南综合5238,北晋庄村东中综合,070021|徐果庄村西大坑综合5240,07205|徐果庄村东综合5231,07201|阮庄村东综合3715,07088|佐庄村东北综合3731,佐庄大队新增综合,徐果庄村西综合,阮庄大队综合,07092|北晋庄村东2#综合3730,徐果庄村南新增综合,07202|阮庄村西综合3595,徐果庄村南新增2号综合,徐果庄西南新增综合,07198|徐果庄村里综合5237,佐庄村东南综合,徐果庄板厂新增综合,07234|阮庄东南新增综合5546,徐果庄西南新增2号综合,阮庄村西南新增综合,07028|徐果庄西南综合5233,徐果庄大队新增综合,07080|北晋庄东北方综合3572,阮庄村北2号综合,徐果庄村北综合,雷庄村里新增综合,","scope":"【影响街道/乡镇】晋庄乡 【高危重要客户】无 【影响客户】耿庄、阮庄、佐庄（佐家庄）、雷庄（雷家庄）、徐果庄、北晋庄村北","startTime":"2020-05-08 13:44:46","stopDate":"2020-05-08 15:00:00","orgNo":"1340613","typeCode":"电网故障停限电","poweroffArea":"【全线路停电】停高阳县晋庄镇徐果庄村民委员会二号变压器,,高阳县兴荣纺织品制造有限公司变压器,高阳县恒泽纺纱厂减容,高阳县新源巾被厂变压器,高阳县晋庄镇耿庄村村委会变压器,徐果庄村西综合,高阳县万通棉织厂电压器,永丰织物厂,阮庄大队综合,刘新民变压器,07202|阮庄村西综合3595,徐果庄村南新增2号综合,徐果庄西南新增综合,07198|徐果庄村里综合5237,高阳县晋庄镇徐果庄村民委员会三号台区,佐庄村东南综合,阮庄村西南新增综合,新建毛纺厂,07028|徐果庄西南综合5233,07203|阮庄村村北综合3614,成都华川公路建设集团有限公司变压器5,阮庄村西2号新增综合,北晋庄宋桥道综合,高阳县兴光棉织厂变压器,阮庄村西北新增综合,佐庄村西北新增综合,徐果庄大队新增综合,晋庄商店织布厂,07080|北晋庄东北方综合3572,徐果庄村北综合,高阳县晋庄镇阮庄村村民委员会二变压器,高阳县申达棉织厂变压器,高阳县平安汽车服务有限公司变压器,高阳县平安机动车驾驶培训学校变压器,北晋庄村西北新增综合,北晋庄西街口综合,高阳县禹恒棉织厂变压器,07084|佐庄大队综合3684,07092|北晋庄村东2#综合3730,徐果庄村南新增综合,双峰针织厂,高阳县晋庄镇佐家庄村一变压器,,高阳县晋庄镇佐家庄村二变压器,高阳县富国毛巾厂变压器,高阳县好丽纺织有限公司,康庄棉织厂减容200,三益氧化锌厂,徐果庄村东新增综合,李明发,佐庄村西南综合,高阳县康庄棉织厂变压器,高阳县晋庄镇北晋庄村三变压器,成都华川公路建设集团有限公司变压器6,07197|徐果庄村教堂综合5236,高阳县荣利毛巾厂变压器,雷庄村西北新增综合,佐庄村北新增综合,07081|北晋庄综合3578,高阳县平安机动车驾驶员培训学校变压器,高阳县晋庄乡杨家佐村民委员会二号变压器,070020|徐果庄中南综合5238,振国毛巾厂,北晋庄村东中综合,河北三益锌制品有限公司变压器,070021|徐果庄村西大坑综合5240,07205|徐果庄村东综合5231,徐果庄板厂新增综合,徐果庄西南新增2号综合,徐果庄教堂2号综合,万兴毛巾厂,高阳县舒雅特巾被有限公司变压器,高阳县晋庄镇雷家庄村村委会二变压器,阮庄村北2号综合,雷庄村里新增综合,康雄伟,07032|雷庄综合3758,高阳县新源巾被厂减容250,阮庄村北新增综合,徐果庄大坑2号新增综合,高阳县晋庄乡中心卫生院变压器,07200|阮庄村南综合3716,07063|雷庄村西综合3732,高阳县友宏绣花厂变压器,北晋庄宋桥道2号综合,吉利毛巾厂,07169|耿庄村北综合3686,康新良,阮庄村东新增综合,徐果庄毛纺厂,07017|徐果庄村南综合5234,高阳县晋阳针织厂减容250,高阳县晋庄镇北晋庄村五变压器,07234|阮庄东南新增综合5546,07201|阮庄村东综合3715,高阳县晋庄镇徐果庄村民委员会一号变压器,高阳县晋庄镇阮庄村村民委员会一变压器,07088|佐庄村东北综合3731,佐庄大队新增综合,高阳县晋庄镇雷家庄村村委会一变压器","poweroffReason":"【停电原因】由于汽车撞杆导致３５ＫＶ杨佐变电站徐果庄５１２线路全线停电【变更送电】无【发布渠道】通过９５５９８发布","powerTime":"2020-05-08 14:43:09","powerComm":"已送电","subsNo":"","lineNo":"","tgNo":"","tgName":null,"infoStatus":"1","orgName":"国网高阳县供电公司","typeName":null,"infoStatusName":null,"dateDay":null,"orgNos":null,"nowTime":null,"countyName":null,"streetName":null,"villageName":null,"roadName":null,"communityName":null,"tranName":null,"sdLineName":null,"cityCode":"1340613","cityName":"国网高阳县供电公司","provinceCode":null,"stopTime":"2020-05-08 15:00:00","powerType":"全部","powerOffArea":"【全线路停电】停高阳县晋庄镇徐果庄村民委员会二号变压器,,高阳县兴荣纺织品制造有限公司变压器,高阳县恒泽纺纱厂减容,高阳县新源巾被厂变压器,高阳县晋庄镇耿庄村村委会变压器,徐果庄村西综合,高阳县万通棉织厂电压器,永丰织物厂,阮庄大队综合,刘新民变压器,07202|阮庄村西综合3595,徐果庄村南新增2号综合,徐果庄西南新增综合,07198|徐果庄村里综合5237,高阳县晋庄镇徐果庄村民委员会三号台区,佐庄村东南综合,阮庄村西南新增综合,新建毛纺厂,07028|徐果庄西南综合5233,07203|阮庄村村北综合3614,成都华川公路建设集团有限公司变压器5,阮庄村西2号新增综合,北晋庄宋桥道综合,高阳县兴光棉织厂变压器,阮庄村西北新增综合,佐庄村西北新增综合,徐果庄大队新增综合,晋庄商店织布厂,07080|北晋庄东北方综合3572,徐果庄村北综合,高阳县晋庄镇阮庄村村民委员会二变压器,高阳县申达棉织厂变压器,高阳县平安汽车服务有限公司变压器,高阳县平安机动车驾驶培训学校变压器,北晋庄村西北新增综合,北晋庄西街口综合,高阳县禹恒棉织厂变压器,07084|佐庄大队综合3684,07092|北晋庄村东2#综合3730,徐果庄村南新增综合,双峰针织厂,高阳县晋庄镇佐家庄村一变压器,,高阳县晋庄镇佐家庄村二变压器,高阳县富国毛巾厂变压器,高阳县好丽纺织有限公司,康庄棉织厂减容200,三益氧化锌厂,徐果庄村东新增综合,李明发,佐庄村西南综合,高阳县康庄棉织厂变压器,高阳县晋庄镇北晋庄村三变压器,成都华川公路建设集团有限公司变压器6,07197|徐果庄村教堂综合5236,高阳县荣利毛巾厂变压器,雷庄村西北新增综合,佐庄村北新增综合,07081|北晋庄综合3578,高阳县平安机动车驾驶员培训学校变压器,高阳县晋庄乡杨家佐村民委员会二号变压器,070020|徐果庄中南综合5238,振国毛巾厂,北晋庄村东中综合,河北三益锌制品有限公司变压器,070021|徐果庄村西大坑综合5240,07205|徐果庄村东综合5231,徐果庄板厂新增综合,徐果庄西南新增2号综合,徐果庄教堂2号综合,万兴毛巾厂,高阳县舒雅特巾被有限公司变压器,高阳县晋庄镇雷家庄村村委会二变压器,阮庄村北2号综合,雷庄村里新增综合,康雄伟,07032|雷庄综合3758,高阳县新源巾被厂减容250,阮庄村北新增综合,徐果庄大坑2号新增综合,高阳县晋庄乡中心卫生院变压器,07200|阮庄村南综合3716,07063|雷庄村西综合3732,高阳县友宏绣花厂变压器,北晋庄宋桥道2号综合,吉利毛巾厂,07169|耿庄村北综合3686,康新良,阮庄村东新增综合,徐果庄毛纺厂,07017|徐果庄村南综合5234,高阳县晋阳针织厂减容250,高阳县晋庄镇北晋庄村五变压器,07234|阮庄东南新增综合5546,07201|阮庄村东综合3715,高阳县晋庄镇徐果庄村民委员会一号变压器,高阳县晋庄镇阮庄村村民委员会一变压器,07088|佐庄村东北综合3731,佐庄大队新增综合,高阳县晋庄镇雷家庄村村委会一变压器","powerOffReason":"【停电原因】由于汽车撞杆导致３５ＫＶ杨佐变电站徐果庄５１２线路全线停电【变更送电】无【发布渠道】通过９５５９８发布","powerOffId":"2020050813000415"},{"poweroffId":2020050813000413,"sgpoweroffId":null,"subsName":"","lineName":"宋桥线516","pubTranName":"07090|北晋庄村北综合3728,07238|北晋庄村北新增综合5576,07043|三岔口村西南综合3672,北晋庄羊场新增综合,07082|北晋庄村西2综合3565,07044|三岔口村西北综合3736,07042|三岔口村东综合3673,07091|北晋庄村西综合3729,北晋庄村北农排3#【纯农排变】,07045|三岔口综合3619,","scope":"【影响街道/乡镇】晋庄乡 【高危重要客户】无 【影响客户】北晋庄村北部分、三岔口村","startTime":"2020-05-08 13:43:27","stopDate":"2020-05-08 15:00:00","orgNo":"1340613","typeCode":"电网故障停限电","poweroffArea":"【全线路停电】停晁燕合线厂,北晋庄17号农排【纯农排变】,高阳县凯通织物厂变压器,保定凯曼毛纺织品制造有限公司变压器,三岔口3#农排【纯农排变】,三岔口1#农排【纯农排变】,高阳县晋庄镇北晋庄村四变压器,东方皮毛厂,高阳县盛鸿纺织品制造有限公司变压器,晋庄中学变压器,北晋庄村西北农排5#【纯农排变】,高阳县明远纺织有限公司变压器,苇元屯面粉厂,振华皮毛厂,李红格织布厂,北晋庄16号农排【纯农排变】,王刚,北晋庄12号农排【纯农排变】,070016|北晋庄村西农排（5）5146【纯农排变】,07044|三岔口村西北综合3736,北晋庄村北农排3#【纯农排变】,北晋庄13号农排【纯农排变】,曙光北毛巾厂,义兴毛纺厂,北晋庄18号农排【纯农排变】,北晋庄11号农排【纯农排变】,蒋小贺地毯厂,三岔口5号农排【纯农排变】,高阳县晋庄镇北晋庄村一变压器,高阳县朋乐纺织厂变压器,07042|三岔口村东综合3673,昌旗佳润纺织品有限公司,07238|北晋庄村北新增综合5576,金丰毛纺厂,晁小燕合线厂,高阳县晋庄镇北晋庄村二变压器,三岔口2#农排【纯农排变】,07091|北晋庄村西综合3729,07045|三岔口综合3619,07082|北晋庄村西2综合3565,三岔口8#农排【纯农排变】,三岔口4#农排【纯农排变】,07090|北晋庄村北综合3728,07043|三岔口村西南综合3672,北晋庄村北农排4#【纯农排变】,北晋庄羊场新增综合,北晋庄2号农排【纯农排变】","poweroffReason":"【停电原因】由于汽车撞杆导致３５ＫＶ杨佐变电站宋桥５１６线路全线停电【变更送电】无【发布渠道】通过９５５９８发布","powerTime":"2020-05-08 14:43:40","powerComm":"已送电","subsNo":"","lineNo":"","tgNo":"","tgName":null,"infoStatus":"1","orgName":"国网高阳县供电公司","typeName":null,"infoStatusName":null,"dateDay":null,"orgNos":null,"nowTime":null,"countyName":null,"streetName":null,"villageName":null,"roadName":null,"communityName":null,"tranName":null,"sdLineName":null,"cityCode":"1340613","cityName":"国网高阳县供电公司","provinceCode":null,"stopTime":"2020-05-08 15:00:00","powerType":"全部","powerOffArea":"【全线路停电】停晁燕合线厂,北晋庄17号农排【纯农排变】,高阳县凯通织物厂变压器,保定凯曼毛纺织品制造有限公司变压器,三岔口3#农排【纯农排变】,三岔口1#农排【纯农排变】,高阳县晋庄镇北晋庄村四变压器,东方皮毛厂,高阳县盛鸿纺织品制造有限公司变压器,晋庄中学变压器,北晋庄村西北农排5#【纯农排变】,高阳县明远纺织有限公司变压器,苇元屯面粉厂,振华皮毛厂,李红格织布厂,北晋庄16号农排【纯农排变】,王刚,北晋庄12号农排【纯农排变】,070016|北晋庄村西农排（5）5146【纯农排变】,07044|三岔口村西北综合3736,北晋庄村北农排3#【纯农排变】,北晋庄13号农排【纯农排变】,曙光北毛巾厂,义兴毛纺厂,北晋庄18号农排【纯农排变】,北晋庄11号农排【纯农排变】,蒋小贺地毯厂,三岔口5号农排【纯农排变】,高阳县晋庄镇北晋庄村一变压器,高阳县朋乐纺织厂变压器,07042|三岔口村东综合3673,昌旗佳润纺织品有限公司,07238|北晋庄村北新增综合5576,金丰毛纺厂,晁小燕合线厂,高阳县晋庄镇北晋庄村二变压器,三岔口2#农排【纯农排变】,07091|北晋庄村西综合3729,07045|三岔口综合3619,07082|北晋庄村西2综合3565,三岔口8#农排【纯农排变】,三岔口4#农排【纯农排变】,07090|北晋庄村北综合3728,07043|三岔口村西南综合3672,北晋庄村北农排4#【纯农排变】,北晋庄羊场新增综合,北晋庄2号农排【纯农排变】","powerOffReason":"【停电原因】由于汽车撞杆导致３５ＫＶ杨佐变电站宋桥５１６线路全线停电【变更送电】无【发布渠道】通过９５５９８发布","powerOffId":"2020050813000413"}],"pageModel":{"pageNow":87,"totalCount":10973,"totalPage":1098,"tableRows":0,"pageCount":10,"beginCount":860},"isExperi":"1"}