{"message":"","today":"2020-06-15","seleList":[{"poweroffId":2018060513000765,"sgpoweroffId":null,"subsName":"","lineName":"10kV朝阳路站515线路","pubTranName":"B340柱上变压器,","scope":"【影响街道/乡镇】富阳路、富昌乡、富阳街 【高危重要客户】无 【影响客户】政府宿舍、司法局宿舍、西大洋宿舍、金纶公司宿舍","startTime":"2018-06-05 19:00:00","stopDate":"2018-06-05 21:00:00","orgNo":"13406","typeCode":"电网故障停限电","poweroffArea":"【单台区停电】停B340柱上变压器","poweroffReason":"【停电原因】由于低压刀闸烧导致１０ＫＶ朝阳路变电站５１５线路Ｂ３４０公变台区停电【变更送电】无【发布渠道】通过９５５９８发布","powerTime":"2018-06-05 20:11:50","powerComm":"已送电","subsNo":"","lineNo":"","tgNo":"","tgName":null,"infoStatus":"1","orgName":"保定供电公司","typeName":null,"infoStatusName":null,"dateDay":null,"orgNos":null,"nowTime":null,"countyName":null,"streetName":null,"villageName":null,"roadName":null,"communityName":null,"tranName":null,"sdLineName":null,"cityCode":"13406","cityName":"保定供电公司","provinceCode":null,"stopTime":"2018-06-05 21:00:00","powerType":"全部","powerOffArea":"【单台区停电】停B340柱上变压器","powerOffReason":"【停电原因】由于低压刀闸烧导致１０ＫＶ朝阳路变电站５１５线路Ｂ３４０公变台区停电【变更送电】无【发布渠道】通过９５５９８发布","powerOffId":"2018060513000765"},{"poweroffId":2018060513000756,"sgpoweroffId":null,"subsName":"","lineName":"10kV韩村512线","pubTranName":"常庄综合10变压器,东方兽药,路根综合4,韩村学校北北农业6台区【纯农排变】,新安加气站,红凤纺织机械配件厂,新安学校变压器,韩村综合9,辛安综合6,韩村林业农业4台区【纯农排变】,辛安农业4,路根农业2台区【纯农排变】,新安公路边农2变压器,新安内北综合2变压器,安国市盛泰橡胶有限公司,力元农业2台区【纯农排变】,安国市隆盛纺织机械有限公司,梨园村北农3变压器,路根内北综合3变压器,新安综合五台区,韩村内南综合3变压器,安国市亚欧动力有限公司,韩村综合4台区变压器,新安新增农11变压器,韩村铁路北边农业4台区【纯农排变】,新安内西综合3变压器,沙滩东农5变压器,辛安综合四,韩村北2农业3台区【纯农排变】,韩村综合7,东方兽药厂,路根综合五号J,辛安农业9台区【纯农排变】,新安正北农5变压器,辛安农业6台区【纯农排变】,梨园村内综合1变压器,路根农业3【纯农排变】,路根农业4台区【纯农排变】,0387359933-常庄加油站-专变-45230926-常庄加油站,韩村综合8,新安内东综合1变压器,辛安农业13,安国市盛泰橡胶2计量点,辛安农业3台区【纯农排变】,路根内西综合1变压器,安国市鑫盛泰建材有限公司,路根农业1台区【纯农排变】,韩村内西综合2变压器,韩村煤厂,梨园村西南农1变压器,奎龙药业有限公司,路根农业5台区【纯农排变】,辛安农业12台区【纯农排变】,韩村林业北农业7台区【纯农排变】,辛安农业1台区【纯农排变】,福海面粉厂,综1柱上变压器,辛安村南农业11台区【纯农排变】,韩村内东综合1变压器,辛安综合7,辛安农业5台区【纯农排变】,辛安农业10台区【纯农排变】,新安综4,辛安农业7台区【纯农排变】,隆盛纺织机械有限公司,路根内东综合2变压器,新安板厂,韩村河边农业3台区【纯农排变】,韩村综合6,韩村北1农业3台区【纯农排变】,韩村西南农业5台区【纯农排变】,韩村综合5,益昌纺织厂,安国市民主街胶厂,","scope":"【影响街道/乡镇】郑章镇 【高危重要客户】无 【影响客户】辛安村","startTime":"2018-06-14 05:00:00","stopDate":"2018-06-14 18:00:00","orgNo":"1340606","typeCode":"计划停电","poweroffArea":"【分支停电】停辛安农业12台区,辛安综合四,辛安村南农业11台区【纯农排变】,辛安农业10台区【纯农排变】,辛安综合6","poweroffReason":"【停电原因】由于辛安农业５台区扩容导致３５ＫＶ常庄变电站１０ＫＶ韩村５１２线路０号杆１７号断路器刀闸以下开关停电 【变更送电】因工作量大原因，送电时间由１４：３０变更为１８：００ 【发布渠道】保定市安国电视台（０６月０６日００时至２４时之间）屏幕上方滚动","powerTime":"2018-06-14 17:47:27","powerComm":"已送电","subsNo":"","lineNo":"","tgNo":"","tgName":null,"infoStatus":"1","orgName":"国网安国市供电公司","typeName":null,"infoStatusName":null,"dateDay":null,"orgNos":null,"nowTime":null,"countyName":null,"streetName":null,"villageName":null,"roadName":null,"communityName":null,"tranName":null,"sdLineName":null,"cityCode":"1340606","cityName":"国网安国市供电公司","provinceCode":null,"stopTime":"2018-06-14 18:00:00","powerType":"全部","powerOffArea":"【分支停电】停辛安农业12台区,辛安综合四,辛安村南农业11台区【纯农排变】,辛安农业10台区【纯农排变】,辛安综合6","powerOffReason":"【停电原因】由于辛安农业５台区扩容导致３５ＫＶ常庄变电站１０ＫＶ韩村５１２线路０号杆１７号断路器刀闸以下开关停电 【变更送电】因工作量大原因，送电时间由１４：３０变更为１８：００ 【发布渠道】保定市安国电视台（０６月０６日００时至２４时之间）屏幕上方滚动","powerOffId":"2018060513000756"},{"poweroffId":2018060513000751,"sgpoweroffId":null,"subsName":"","lineName":"李果庄线511","pubTranName":"06032|李果庄村农业14台区变压器【纯农排变】,06020|李果庄村农业2台区变压器【纯农排变】,06021|李果庄村农业3台区变压器【纯农排变】,06026|李果庄村农业8台区变压器【纯农排变】,06061|李果庄10台区综合变压器,记果拔丝厂,李果庄综合18台区变压器,李果庄南瓦厂(子),高阳县合伟纺织品制造有限公司变压器,06059|李果庄8台区综合变压器,06060|李果庄9台区综合变压器,06035|李果庄村农业17台区变压器【纯农排变】,06055|李果庄4台区综合变压器,高阳县景泰新型建筑材料制造有限公司变压器,李果庄综合24台区变压器,王伍龙拔丝厂,李果庄综合27台区,王聚全,李果庄,韩大水,06062|李果庄11台区综合变压器,李果庄瓦厂,06024|李果庄村农业6台区变压器【纯农排变】,06054|李果庄3台区综合变压器,李果庄农业24台区变压器【纯农排变】,王东来拔丝厂,李果庄农业25台区变压器【纯农排变】,06136|李果庄14台区综合变压器,李果庄综合25台区变压器,保定天腾公路工程有限公司变压器,李果庄综合19台区变压器,李果庄综合20台区变压器,06033|李果庄村农业15台区变压器【纯农排变】,06025|李果庄村农业7台区变压器【纯农排变】,06030|李果庄村农业12台区变压器【纯农排变】,韩艳景再生料厂,韩秋变压器,06031|李果庄村农业13台区变压器【纯农排变】,06019|李果庄村农业1台区变压器【纯农排变】,韩利利农场,高阳县志全纺织品有限公司变压器,永利拔丝厂,韩清,高阳县壮业窗纱有限公司变压器,06028|李果庄村农业10台区变压器【纯农排变】,李果庄南瓦厂,李果庄文涛拔丝厂,韩秋旺拔丝厂,06147|李果庄15台区综合变压器,06053|李果庄2台区综合变压器,李果庄综合26台区,李果庄综合21台区变压器,齐春生拔丝厂,06029|李果庄村农业11台区变压器【纯农排变】,06023|李果庄村农业5台区变压器【纯农排变】,06123|李果庄村农业18变压器【纯农排变】,李果庄瓦厂(子),李果庄北瓦厂,高阳县蒲口乡北蔡口村一变压器,李果庄农业23台区综合【纯农排变】,保定金世强纺织有限公司变压器,06058|李果庄7台区综合变压器,06063|李果庄村12台区综合变压器,李果庄综合22台区变压器,06057|李果庄6台区综合变压器,建康纺织有限公司,06052|李果庄1台区综合变压器,06022|李果庄村农业4台区变压器【纯农排变】,建涛毛巾厂,06034|李果庄村农业16台区变压器【纯农排变】,高阳县蒲口乡北蔡口村二变压器,06056|李果庄5台区综合变压器,李果庄综合23台区变压器,","scope":"【影响街道/乡镇】小王果庄乡 【高危重要客户】无 【影响客户】李果庄村","startTime":"2018-06-05 18:36:03","stopDate":"2018-06-05 22:00:00","orgNo":"1340613","typeCode":"电网故障停限电","poweroffArea":"【全线路停电】停06030|李果庄村农业12台区变压器【纯农排变】,建康纺织有限公司,韩艳景再生料厂,06052|李果庄1台区综合变压器,高阳县蒲口乡北蔡口村一变压器,06024|李果庄村农业6台区变压器【纯农排变】,李果庄农业23台区综合【纯农排变】,保定金世强纺织有限公司变压器,06054|李果庄3台区综合变压器,06058|李果庄7台区综合变压器,李果庄农业24台区变压器【纯农排变】,06063|李果庄村12台区综合变压器,李果庄综合22台区变压器,王东来拔丝厂,06057|李果庄6台区综合变压器,李果庄农业25台区变压器【纯农排变】,06022|李果庄村农业4台区变压器【纯农排变】,06136|李果庄14台区综合变压器,建涛毛巾厂,李果庄综合25台区变压器,06034|李果庄村农业16台区变压器【纯农排变】,保定天腾公路工程有限公司变压器,高阳县蒲口乡北蔡口村二变压器,李果庄综合19台区变压器,06056|李果庄5台区综合变压器,李果庄综合20台区变压器,李果庄综合23台区变压器,06033|李果庄村农业15台区变压器【纯农排变】,06025|李果庄村农业7台区变压器【纯农排变】,韩利利农场,高阳县志全纺织品有限公司变压器,06020|李果庄村农业2台区变压器【纯农排变】,韩秋变压器,06021|李果庄村农业3台区变压器【纯农排变】,06031|李果庄村农业13台区变压器【纯农排变】,06032|李果庄村农业14台区变压器【纯农排变】,06026|李果庄村农业8台区变压器【纯农排变】,06061|李果庄10台区综合变压器,06019|李果庄村农业1台区变压器【纯农排变】,记果拔丝厂,李果庄瓦厂(子),李果庄北瓦厂,李果庄综合18台区变压器,李果庄南瓦厂(子),永利拔丝厂,高阳县合伟纺织品制造有限公司变压器,韩清,06059|李果庄8台区综合变压器,高阳县壮业窗纱有限公司变压器,06028|李果庄村农业10台区变压器【纯农排变】,06060|李果庄9台区综合变压器,李果庄南瓦厂,06035|李果庄村农业17台区变压器【纯农排变】,李果庄文涛拔丝厂,韩秋旺拔丝厂,06055|李果庄4台区综合变压器,06147|李果庄15台区综合变压器,高阳县景泰新型建筑材料制造有限公司变压器,06053|李果庄2台区综合变压器,李果庄综合24台区变压器,李果庄综合26台区,王伍龙拔丝厂,李果庄综合21台区变压器,李果庄综合27台区,齐春生拔丝厂,王聚全,李果庄,06029|李果庄村农业11台区变压器【纯农排变】,韩大水,06023|李果庄村农业5台区变压器【纯农排变】,06062|李果庄11台区综合变压器,06123|李果庄村农业18变压器【纯农排变】,李果庄瓦厂","poweroffReason":"【停电原因】由于外力破坏导致３５ＫＶ李果庄变电站李果庄５１１线路全线停电【变更送电】无【发布渠道】９５５９８","powerTime":"2018-06-05 21:25:19","powerComm":"已送电","subsNo":"","lineNo":"","tgNo":"","tgName":null,"infoStatus":"1","orgName":"国网高阳县供电公司","typeName":null,"infoStatusName":null,"dateDay":null,"orgNos":null,"nowTime":null,"countyName":null,"streetName":null,"villageName":null,"roadName":null,"communityName":null,"tranName":null,"sdLineName":null,"cityCode":"1340613","cityName":"国网高阳县供电公司","provinceCode":null,"stopTime":"2018-06-05 22:00:00","powerType":"全部","powerOffArea":"【全线路停电】停06030|李果庄村农业12台区变压器【纯农排变】,建康纺织有限公司,韩艳景再生料厂,06052|李果庄1台区综合变压器,高阳县蒲口乡北蔡口村一变压器,06024|李果庄村农业6台区变压器【纯农排变】,李果庄农业23台区综合【纯农排变】,保定金世强纺织有限公司变压器,06054|李果庄3台区综合变压器,06058|李果庄7台区综合变压器,李果庄农业24台区变压器【纯农排变】,06063|李果庄村12台区综合变压器,李果庄综合22台区变压器,王东来拔丝厂,06057|李果庄6台区综合变压器,李果庄农业25台区变压器【纯农排变】,06022|李果庄村农业4台区变压器【纯农排变】,06136|李果庄14台区综合变压器,建涛毛巾厂,李果庄综合25台区变压器,06034|李果庄村农业16台区变压器【纯农排变】,保定天腾公路工程有限公司变压器,高阳县蒲口乡北蔡口村二变压器,李果庄综合19台区变压器,06056|李果庄5台区综合变压器,李果庄综合20台区变压器,李果庄综合23台区变压器,06033|李果庄村农业15台区变压器【纯农排变】,06025|李果庄村农业7台区变压器【纯农排变】,韩利利农场,高阳县志全纺织品有限公司变压器,06020|李果庄村农业2台区变压器【纯农排变】,韩秋变压器,06021|李果庄村农业3台区变压器【纯农排变】,06031|李果庄村农业13台区变压器【纯农排变】,06032|李果庄村农业14台区变压器【纯农排变】,06026|李果庄村农业8台区变压器【纯农排变】,06061|李果庄10台区综合变压器,06019|李果庄村农业1台区变压器【纯农排变】,记果拔丝厂,李果庄瓦厂(子),李果庄北瓦厂,李果庄综合18台区变压器,李果庄南瓦厂(子),永利拔丝厂,高阳县合伟纺织品制造有限公司变压器,韩清,06059|李果庄8台区综合变压器,高阳县壮业窗纱有限公司变压器,06028|李果庄村农业10台区变压器【纯农排变】,06060|李果庄9台区综合变压器,李果庄南瓦厂,06035|李果庄村农业17台区变压器【纯农排变】,李果庄文涛拔丝厂,韩秋旺拔丝厂,06055|李果庄4台区综合变压器,06147|李果庄15台区综合变压器,高阳县景泰新型建筑材料制造有限公司变压器,06053|李果庄2台区综合变压器,李果庄综合24台区变压器,李果庄综合26台区,王伍龙拔丝厂,李果庄综合21台区变压器,李果庄综合27台区,齐春生拔丝厂,王聚全,李果庄,06029|李果庄村农业11台区变压器【纯农排变】,韩大水,06023|李果庄村农业5台区变压器【纯农排变】,06062|李果庄11台区综合变压器,06123|李果庄村农业18变压器【纯农排变】,李果庄瓦厂","powerOffReason":"【停电原因】由于外力破坏导致３５ＫＶ李果庄变电站李果庄５１１线路全线停电【变更送电】无【发布渠道】９５５９８","powerOffId":"2018060513000751"},{"poweroffId":2018060513000731,"sgpoweroffId":null,"subsName":"","lineName":"10kV513团结线","pubTranName":"业里村南新增农业（TD）1894【纯农排变】,寨南村北二区新增综合6367,付友1280综合|26001280,团结1010农排|26001010【纯农排变】,南盘混用|26000910,西大悲850农排|26000850【纯农排变】,北大悲四|26001820,旺顺敏达养猪场5998,南大悲二区新增综合5863,赵县洲1470农排|26001470【纯农排变】,富顺村果农场1200农排|26001200【纯农排变】,大岭后|26001210,大岭后1040农排|26001040【纯农排变】,西大悲|26000840,黄岩970农排|26000970【纯农排变】,北大悲石子厂,旺顺敏达1190农排|26001190【纯农排变】,郭家庄|26000950,盘古南沟农业【纯农排变】,黄岩|26000960,北大悲村东农业新建【纯农排变】,付友村北农业1号【纯农排变】,井尔峪二区新增综合5858【纯农排变】,野场1160农业|26001160【纯农排变】,南大悲支少辉综合6048,野场820农排|26000820【纯农排变】,业里综合2号6520【纯农排变】,大岭后新增2号井（TD）2880【纯农排变】,黄岩新增综合1610,大岭后1140农排|26001140【纯农排变】,团结村土地整改新增农业1号（TD）2443【纯农排变】,付友3|26000870,黄岩村土地整改新增农业1号（TD）2441【纯农排变】,大悲中学,南大悲1250农排|26001250【纯农排变】,中国移动,团结2混用|26001720,龙王展1混用|26001080,团结1150农排|26001150【纯农排变】,野场村光伏扶贫变压器【光伏】,团结1260农排|26001260【纯农排变】,西大悲村北新兴综合1609,龙王展东坡农业2443【纯农排变】,龙王水混用|26000830,寨南1100农排|26001100【纯农排变】,安子新增农业1108【纯农排变】,大岭后村南综合9735,大岭后2|26001130,大岭后新增4号井（TD）2883【纯农排变】,团结二队1020农排|26001020【纯农排变】,安子混用|26001060,井尔峪1090农排|26001090【纯农排变】,井尔峪2050农排|26002050【纯农排变】,寨南混用|26000990,盘古北坡农业【纯农排变】,北大悲村东农业50【纯农排变】,野场混用|26000810,富有村4号综合8450,龙王展2混用|26001030,西大悲村西农业1959【纯农排变】,付友开发,付友村北农业2号【纯农排变】,业里混用|26000920,旺顺敏达养猪场2号,西大悲村北农业6368【纯农排变】,团结二队1170农排|26001170【纯农排变】,黄岩村西1230农排|26001230【纯农排变】,龙王水930农排|26000930【纯农排变】,大岭后村西|26001920,盘古井儿沟农业6517【纯农排变】,大岭后新增1号井（TD）1897【纯农排变】,南大悲|26000940,盘古石儿沟农业6050【纯农排变】,大岭后3|26001070,团结1混用|26001240,大岭后新增3号井","scope":"【影响街道/乡镇】大悲乡【高危重要客户】无【影响客户】野场、龙王水、西大悲、富有、南盘、邺里、南大悲、郭家庄、黄岩、井尔峪、寨南、龙王展、大岭后、安子、李家沟、团结、大悲面粉厂、大悲中学、路桥公司、路桥公司砂石厂","startTime":"2018-06-05 18:09:19","stopDate":"2018-06-05 21:10:00","orgNo":"1340621","typeCode":"电网故障停限电","poweroffArea":"【全线路停电】停黄岩970农排|26000970【纯农排变】,野场村光伏扶贫变压器【光伏】,北大悲村东农业新建【纯农排变】,付友2|26000890,付友开发,团结二队1170农排|26001170【纯农排变】,井尔峪2050农排|26002050【纯农排变】,付友供水站1960农排|26001960【纯农排变】,团结1260农排|26001260【纯农排变】,大岭后新增4号井（TD）2883","poweroffReason":"【停电原因】由于移动分支断线导致３５ＫＶ大悲变电站１０ＫＶ５１３团结线路全线停电【变更送电】因抢修进度加快原因，送电时间由２３：３０变更为２１：１０【发布渠道】通过９５５９８发布","powerTime":"2018-06-05 20:54:22","powerComm":"已送电","subsNo":"","lineNo":"","tgNo":"","tgName":null,"infoStatus":"1","orgName":"国网顺平县电力局","typeName":null,"infoStatusName":null,"dateDay":null,"orgNos":null,"nowTime":null,"countyName":null,"streetName":null,"villageName":null,"roadName":null,"communityName":null,"tranName":null,"sdLineName":null,"cityCode":"1340621","cityName":"国网顺平县电力局","provinceCode":null,"stopTime":"2018-06-05 21:10:00","powerType":"全部","powerOffArea":"【全线路停电】停黄岩970农排|26000970【纯农排变】,野场村光伏扶贫变压器【光伏】,北大悲村东农业新建【纯农排变】,付友2|26000890,付友开发,团结二队1170农排|26001170【纯农排变】,井尔峪2050农排|26002050【纯农排变】,付友供水站1960农排|26001960【纯农排变】,团结1260农排|26001260【纯农排变】,大岭后新增4号井（TD）2883","powerOffReason":"【停电原因】由于移动分支断线导致３５ＫＶ大悲变电站１０ＫＶ５１３团结线路全线停电【变更送电】因抢修进度加快原因，送电时间由２３：３０变更为２１：１０【发布渠道】通过９５５９８发布","powerOffId":"2018060513000731"},{"poweroffId":2018060513000698,"sgpoweroffId":null,"subsName":"","lineName":"南于八线516","pubTranName":"高阳县泉铄纺织有限公司变压器,南于八村南综合5329,西郊毛纺厂,高阳县长业针织厂变压器,城西毛纺厂13#,南于八14#农排5077【纯农排变】,城西毛纺厂,高阳县长天化纤商贸有限公司变压器,穆广田,南于八小庙综合5342,占平地毯纱厂,南于八农业8#农排5071【纯农排变】,南于八村西,华油,北路台面粉厂,洪钊合线厂,燕赵制香有限公司,高阳县康佳毛纺织,南于八村西南,南于八大队综合5338,南于八农业5#农排5068【纯农排变】,长达针织厂,南于八梁占桥,南于八农业9#农排5072【纯农排变】,中国石油天然气股份有限公司华北油田分公司变压器,马海申,北于八西南综合1787,南于八村小学综合5334,中国石油天然气股份有限公司华北油田分公司第三采油厂变压器,高阳县兴茂织物厂,南于八13#农排5078【纯农排变】,保定开源棉纺有限公司变压器,南于八远东吃水井综合5343,长业织物厂,高阳县宝熙纺织厂变压器,高阳县鑫旺织物厂变压器,南于八11#农排5074【纯农排变】,南于八农业4#农排5067【纯农排变】,南于八村西南综合5336,南于八10#农排5073【纯农排变】,南于八荷花坑综合5331,南于八村北综合5346,南于八村西南综合5335,南于八农业7#农排5070【纯农排变】,南于八12#农排5075【纯农排变】,高阳县灿美纺织品有限公司,南于八农业3#农排5066【纯农排变】,南于八砖窑中综合配变,孙小卯,南于八砖窑南综合5340,南于八砖窑北综合5337,高阳县兴茂织物厂,南于八东南吃水井综合5332,南于八农业6#农排5069【纯农排变】,曹大安,高阳县城西毛纺织厂,南于八洪钊合线厂,通达毛纺厂,0680417899-高阳县源润纺织制造有限公司-专变-219724069-高阳县源润纺织制造有限公司变压器,南于八村东北,南于八农业2#农排5065【纯农排变】,保定开源棉纱有限公司315,高阳城西纺织厂,保定海蛟纺织有限公司,南于八占桥综合5339,南于八农业1#农排5064【纯农排变】,团结毛纺厂,南于八占桥2#综合柱上变压器,梁建安,高阳县康佳毛纺织厂,南于八西胶毛纺厂,高阳县新利地毯纱厂,","scope":"【影响街道/乡镇】邢南乡 【高危重要客户】无 【影响客户】南于八、北于八","startTime":"2018-06-05 22:45:00","stopDate":"2018-06-05 23:55:00","orgNo":"1340613","typeCode":"其他临时停电","poweroffArea":"【全线路停电】停长业织物厂,高阳县城西毛纺织厂,高阳县灿美纺织品有限公司,南于八村西南综合5336,南于八农业6#农排5069【纯农排变】,南于八村西南综合5335,西郊毛纺厂,长达针织厂,0680417899-高阳县源润纺织制造有限公司-专变-219724069-高阳县源润纺织制造有限公司变压器,南于八砖窑北综合5337,南于八10#农排5073【纯农排变】,高阳县长业针织厂变压器,南于八村东北,城西毛纺厂13#,通达毛纺厂,南于八村西南,高阳县泉铄纺织有限公司变压器,南于八农业5#农排5068【纯农排变】,高阳县康佳毛纺织厂,保定开源棉纺有限公司变压器,南于八梁占桥,华油,高阳县长天化纤商贸有限公司变压器,南于八农业7#农排5070【纯农排变】,南于八14#农排5077【纯农排变】,团结毛纺厂,北路台面粉厂,南于八农业3#农排5066【纯农排变】,孙小卯,马海申,曹大安,南于八11#农排5074【纯农排变】,南于八远东吃水井综合5343,穆广田,梁建安,南于八占桥综合5339,城西毛纺厂,高阳县鑫旺织物厂变压器,中国石油天然气股份有限公司华北油田分公司第三采油厂变压器,高阳县新利地毯纱厂,燕赵制香有限公司,南于八村北综合5346,南于八洪钊合线厂,南于八东南吃水井综合5332,南于八12#农排5075【纯农排变】,南于八农业8#农排5071【纯农排变】,南于八农业9#农排5072【纯农排变】,南于八小庙综合5342,占平地毯纱厂,南于八西胶毛纺厂,高阳县康佳毛纺织,洪钊合线厂,高阳县兴茂织物厂,保定海蛟纺织有限公司,南于八村小学综合5334,南于八砖窑南综合5340,高阳城西纺织厂,南于八农业4#农排5067【纯农排变】, 高阳县兴茂织物厂,保定开源棉纱有限公司315,南于八农业2#农排5065【纯农排变】,南于八13#农排5078【纯农排变】,南于八荷花坑综合5331,中国石油天然气股份有限公司华北油田分公司变压器,北于八西南综合1787,南于八砖窑中综合配变,南于八占桥2#综合柱上变压器,南于八大队综合5338,南于八农业1#农排5064【纯农排变】,高阳县宝熙纺织厂变压器,南于八村南综合5329,南于八村西","poweroffReason":"【停电原因】由于危急缺陷导致３５ＫＶ南路台变电站南于八５１６线路全线停电【变更送电】因抢修进度加快原因，送电时间由６日８：００变更为５日２３：５５【发布渠道】９５５９８","powerTime":"2018-06-05 23:49:37","powerComm":"已送电","subsNo":"","lineNo":"","tgNo":"","tgName":null,"infoStatus":"1","orgName":"国网高阳县供电公司","typeName":null,"infoStatusName":null,"dateDay":null,"orgNos":null,"nowTime":null,"countyName":null,"streetName":null,"villageName":null,"roadName":null,"communityName":null,"tranName":null,"sdLineName":null,"cityCode":"1340613","cityName":"国网高阳县供电公司","provinceCode":null,"stopTime":"2018-06-05 23:55:00","powerType":"全部","powerOffArea":"【全线路停电】停长业织物厂,高阳县城西毛纺织厂,高阳县灿美纺织品有限公司,南于八村西南综合5336,南于八农业6#农排5069【纯农排变】,南于八村西南综合5335,西郊毛纺厂,长达针织厂,0680417899-高阳县源润纺织制造有限公司-专变-219724069-高阳县源润纺织制造有限公司变压器,南于八砖窑北综合5337,南于八10#农排5073【纯农排变】,高阳县长业针织厂变压器,南于八村东北,城西毛纺厂13#,通达毛纺厂,南于八村西南,高阳县泉铄纺织有限公司变压器,南于八农业5#农排5068【纯农排变】,高阳县康佳毛纺织厂,保定开源棉纺有限公司变压器,南于八梁占桥,华油,高阳县长天化纤商贸有限公司变压器,南于八农业7#农排5070【纯农排变】,南于八14#农排5077【纯农排变】,团结毛纺厂,北路台面粉厂,南于八农业3#农排5066【纯农排变】,孙小卯,马海申,曹大安,南于八11#农排5074【纯农排变】,南于八远东吃水井综合5343,穆广田,梁建安,南于八占桥综合5339,城西毛纺厂,高阳县鑫旺织物厂变压器,中国石油天然气股份有限公司华北油田分公司第三采油厂变压器,高阳县新利地毯纱厂,燕赵制香有限公司,南于八村北综合5346,南于八洪钊合线厂,南于八东南吃水井综合5332,南于八12#农排5075【纯农排变】,南于八农业8#农排5071【纯农排变】,南于八农业9#农排5072【纯农排变】,南于八小庙综合5342,占平地毯纱厂,南于八西胶毛纺厂,高阳县康佳毛纺织,洪钊合线厂,高阳县兴茂织物厂,保定海蛟纺织有限公司,南于八村小学综合5334,南于八砖窑南综合5340,高阳城西纺织厂,南于八农业4#农排5067【纯农排变】, 高阳县兴茂织物厂,保定开源棉纱有限公司315,南于八农业2#农排5065【纯农排变】,南于八13#农排5078【纯农排变】,南于八荷花坑综合5331,中国石油天然气股份有限公司华北油田分公司变压器,北于八西南综合1787,南于八砖窑中综合配变,南于八占桥2#综合柱上变压器,南于八大队综合5338,南于八农业1#农排5064【纯农排变】,高阳县宝熙纺织厂变压器,南于八村南综合5329,南于八村西","powerOffReason":"【停电原因】由于危急缺陷导致３５ＫＶ南路台变电站南于八５１６线路全线停电【变更送电】因抢修进度加快原因，送电时间由６日８：００变更为５日２３：５５【发布渠道】９５５９８","powerOffId":"2018060513000698"},{"poweroffId":2018060513000697,"sgpoweroffId":null,"subsName":"","lineName":"南路台线513","pubTranName":"东华棉织厂,华南棉毛纺织厂,南路台村东南综合,南路台村北综合4号台区,高阳道5号台区农排【纯农排变】,南路台村南大园8号台区农排【纯农排变】,明乐毛巾厂,高阳县邢家南镇南路台村村民委员会二变压器,飞舟毛呢厂,高阳县邢家南镇南路台村村民委员会三变压器,07003|南路台村北综合1658,南路台李家园3号台区农排【纯农排变】,南路台北园2号台区农排【纯农排变】,南路台大地6台区农排【纯农排变】,南路台第二面厂,南路台村南,07002|南路台村西综合1674,南路台面粉厂,南路台张八地1号台区农排【纯农排变】,恒天毛纺有限公司,高阳县邢家南镇南路台村村民委员会四变压器,路达棉织厂,飞舟毛纺厂(315),南路台吴家地7台区农排【纯农排变】,东风呢绒厂,07001|南路台村南综合1659,广正毛纺厂,","scope":"【影响街道/乡镇】邢南乡 【高危重要客户】无 【影响客户】南路台村","startTime":"2018-06-05 22:45:00","stopDate":"2018-06-05 23:55:00","orgNo":"1340613","typeCode":"其他临时停电","poweroffArea":"【全线路停电】南路台大地6台区农排【纯农排变】,高阳县邢家南镇南路台村村民委员会二变压器,07002|南路台村西综合1674,华南棉毛纺织厂,南路台村北综合4号台区,明乐毛巾厂,07001|南路台村南综合1659,南路台张八地1号台区农排【纯农排变】,广正毛纺厂,高阳县邢家南镇南路台村村民委员会三变压器,飞舟毛纺厂(315),南路台吴家地7台区农排【纯农排变】,南路台第二面厂,南路台村东南综合,南路台面粉厂,飞舟毛呢厂,高阳县邢家南镇南路台村村民委员会四变压器,07003|南路台村北综合1658,恒天毛纺有限公司,东华棉织厂,东风呢绒厂,高阳道5号台区农排【纯农排变】,南路台李家园3号台区农排【纯农排变】,南路台村南大园8号台区农排【纯农排变】,南路台北园2号台区农排【纯农排变】,路达棉织厂,南路台村南","poweroffReason":"【停电原因】由于危急缺陷导致３５ＫＶ南路台变电站南路台５１３线路全线停电【变更送电】因抢修进度加快原因，送电时间由６日８：００变更为５日２３：５５【发布渠道】９５５９８","powerTime":"2018-06-05 23:50:44","powerComm":"已送电","subsNo":"","lineNo":"","tgNo":"","tgName":null,"infoStatus":"1","orgName":"国网高阳县供电公司","typeName":null,"infoStatusName":null,"dateDay":null,"orgNos":null,"nowTime":null,"countyName":null,"streetName":null,"villageName":null,"roadName":null,"communityName":null,"tranName":null,"sdLineName":null,"cityCode":"1340613","cityName":"国网高阳县供电公司","provinceCode":null,"stopTime":"2018-06-05 23:55:00","powerType":"全部","powerOffArea":"【全线路停电】南路台大地6台区农排【纯农排变】,高阳县邢家南镇南路台村村民委员会二变压器,07002|南路台村西综合1674,华南棉毛纺织厂,南路台村北综合4号台区,明乐毛巾厂,07001|南路台村南综合1659,南路台张八地1号台区农排【纯农排变】,广正毛纺厂,高阳县邢家南镇南路台村村民委员会三变压器,飞舟毛纺厂(315),南路台吴家地7台区农排【纯农排变】,南路台第二面厂,南路台村东南综合,南路台面粉厂,飞舟毛呢厂,高阳县邢家南镇南路台村村民委员会四变压器,07003|南路台村北综合1658,恒天毛纺有限公司,东华棉织厂,东风呢绒厂,高阳道5号台区农排【纯农排变】,南路台李家园3号台区农排【纯农排变】,南路台村南大园8号台区农排【纯农排变】,南路台北园2号台区农排【纯农排变】,路达棉织厂,南路台村南","powerOffReason":"【停电原因】由于危急缺陷导致３５ＫＶ南路台变电站南路台５１３线路全线停电【变更送电】因抢修进度加快原因，送电时间由６日８：００变更为５日２３：５５【发布渠道】９５５９８","powerOffId":"2018060513000697"},{"poweroffId":2018060513000691,"sgpoweroffId":null,"subsName":"","lineName":"辛留佐线515","pubTranName":"北于八农业土地开发二号【纯农排变】,高阳县邢家南镇北于八村村民委员会变压器,北路台村西远农排【纯农排变】,洪银锁,辛留佐6号农排【纯农排变】,高阳县邢家南镇路台营村村民委员会三变压器,高阳县兵永纺织厂变压器,高阳县灿辉纺织品制造有限公司变压器,北于八西北3,辛留佐5号农排【纯农排变】,高阳县邢家南镇辛留佐村村民委员会变压器,07077|北路台综合1729,北于八村西变压器,北路台村中南农排【纯农排变】,北于八农业土地开发一号【纯农排变】,朝阳毛巾厂,高阳县英利地毯纱,北于八村西2号综合台区,艳辉毛巾厂,07005|辛留佐村西综合1727,辛留佐3号农排【纯农排变】,070019|辛留佐村西北综合5195,高阳县兵勇地毯纱厂变压器,07018|北于八村东北综合1768,北于八吃水井新增综合,东飞纺织品公司,北路台村西中北农排【纯农排变】,高阳县长天纺织有限公司,070069|路台营村东南2号农排5328【纯农排变】,高阳县辛留佐毛纺厂变压器,辛留佐村南2号新增综合,高阳县英利地毯纱厂,高阳县立新纺纱厂,南晋庄村西南远6号农排【纯农排变】,辛留佐地毯纱厂,辛留佐7号农排【纯农排变】,高阳县华阳毛纺染织有限公司变压器,070070|路台营村东南3号农排5333【纯农排变】,南晋庄村南4号农排【纯农排变】,07052|北于八村北综合1705,辛留佐织布厂,高阳县兵永地毯纱厂设备,北路台村南农排【纯农排变】,辛留佐纸制品厂,北于八村北4号,辛留佐1号农排【纯农排变】,辛留佐9号农排【纯农排变】,辛留佐4号农排【纯农排变】,北于八西农业,高阳县远阳纺织厂变压器,07053|北于八村西综合1706,兴和博宇有限公司,冯连栋,沈永新,北于八远东,高阳县利阳气流纺织厂变压器,丽阳棉纺厂,高阳县吉盛纺纱厂变压器,北于八村东农业,北于八西北2,辛留佐针刺厂,高阳县联城地毯纱厂变压器,于八乡砖厂,辛留佐2号农排【纯农排变】,北于八西北1,07025|辛留佐村北综合1774,立新皮毛厂,","scope":"【影响街道/乡镇】邢南乡 【高危重要客户】无 【影响客户】北路台、北于八、辛留佐、路台营、南晋庄村","startTime":"2018-06-05 22:45:00","stopDate":"2018-06-05 23:55:00","orgNo":"1340613","typeCode":"其他临时停电","poweroffArea":"【全线路停电】停高阳县立新纺纱厂,北路台村西中北农排【纯农排变】,辛留佐3号农排【纯农排变】,高阳县辛留佐毛纺厂变压器,南晋庄村西南远6号农排【纯农排变】,立新皮毛厂,高阳县远阳纺织厂变压器,北于八村西变压器,朝阳毛巾厂,高阳县英利地毯纱,辛留佐2号农排【纯农排变】,高阳县长天纺织有限公司,辛留佐村南2号新增综合,07053|北于八村西综合1706,艳辉毛巾厂,高阳县利阳气流纺织厂变压器,北于八西北3,兴和博宇有限公司,洪银锁,北于八农业土地开发一号【纯农排变】,高阳县邢家南镇北于八村村民委员会变压器,辛留佐4号农排【纯农排变】,辛留佐9号农排【纯农排变】,辛留佐7号农排【纯农排变】,沈永新,高阳县联城地毯纱厂变压器,高阳县兵永地毯纱厂设备,070019|辛留佐村西北综合5195,07018|北于八村东北综合1768,北于八吃水井新增综合,07025|辛留佐村北综合1774,北于八西北1,07077|北路台综合1729,高阳县灿辉纺织品制造有限公司变压器,辛留佐地毯纱厂,高阳县兵永纺织厂变压器,北于八村北4号,高阳县兵勇地毯纱厂变压器,北于八村东农业,于八乡砖厂,高阳县英利地毯纱厂,070069|路台营村东南2号农排5328【纯农排变】,070070|路台营村东南3号农排5333【纯农排变】,北于八村西2号综合台区,高阳县华阳毛纺染织有限公司变压器,辛留佐针刺厂,冯连栋,丽阳棉纺厂,北于八西北2,北路台村中南农排【纯农排变】,辛留佐纸制品厂,东飞纺织品公司,高阳县邢家南镇路台营村村民委员会三变压器,辛留佐5号农排【纯农排变】,07005|辛留佐村西综合1727,北路台村西远农排【纯农排变】,南晋庄村南4号农排【纯农排变】,高阳县邢家南镇辛留佐村村民委员会变压器,北路台村南农排【纯农排变】,北于八农业土地开发二号【纯农排变】,辛留佐6号农排【纯农排变】,辛留佐1号农排【纯农排变】,高阳县吉盛纺纱厂变压器,07052|北于八村北综合1705,辛留佐织布厂,北于八西农业,北于八远东","poweroffReason":"【停电原因】由于危急缺陷导致３５ＫＶ南路台变电站辛留佐５１５线路全线停电【变更送电】因抢修进度加快原因，送电时间由６日８：００变更为５日２３：５５【发布渠道】９５５９８","powerTime":"2018-06-05 23:53:42","powerComm":"已送电","subsNo":"","lineNo":"","tgNo":"","tgName":null,"infoStatus":"1","orgName":"国网高阳县供电公司","typeName":null,"infoStatusName":null,"dateDay":null,"orgNos":null,"nowTime":null,"countyName":null,"streetName":null,"villageName":null,"roadName":null,"communityName":null,"tranName":null,"sdLineName":null,"cityCode":"1340613","cityName":"国网高阳县供电公司","provinceCode":null,"stopTime":"2018-06-05 23:55:00","powerType":"全部","powerOffArea":"【全线路停电】停高阳县立新纺纱厂,北路台村西中北农排【纯农排变】,辛留佐3号农排【纯农排变】,高阳县辛留佐毛纺厂变压器,南晋庄村西南远6号农排【纯农排变】,立新皮毛厂,高阳县远阳纺织厂变压器,北于八村西变压器,朝阳毛巾厂,高阳县英利地毯纱,辛留佐2号农排【纯农排变】,高阳县长天纺织有限公司,辛留佐村南2号新增综合,07053|北于八村西综合1706,艳辉毛巾厂,高阳县利阳气流纺织厂变压器,北于八西北3,兴和博宇有限公司,洪银锁,北于八农业土地开发一号【纯农排变】,高阳县邢家南镇北于八村村民委员会变压器,辛留佐4号农排【纯农排变】,辛留佐9号农排【纯农排变】,辛留佐7号农排【纯农排变】,沈永新,高阳县联城地毯纱厂变压器,高阳县兵永地毯纱厂设备,070019|辛留佐村西北综合5195,07018|北于八村东北综合1768,北于八吃水井新增综合,07025|辛留佐村北综合1774,北于八西北1,07077|北路台综合1729,高阳县灿辉纺织品制造有限公司变压器,辛留佐地毯纱厂,高阳县兵永纺织厂变压器,北于八村北4号,高阳县兵勇地毯纱厂变压器,北于八村东农业,于八乡砖厂,高阳县英利地毯纱厂,070069|路台营村东南2号农排5328【纯农排变】,070070|路台营村东南3号农排5333【纯农排变】,北于八村西2号综合台区,高阳县华阳毛纺染织有限公司变压器,辛留佐针刺厂,冯连栋,丽阳棉纺厂,北于八西北2,北路台村中南农排【纯农排变】,辛留佐纸制品厂,东飞纺织品公司,高阳县邢家南镇路台营村村民委员会三变压器,辛留佐5号农排【纯农排变】,07005|辛留佐村西综合1727,北路台村西远农排【纯农排变】,南晋庄村南4号农排【纯农排变】,高阳县邢家南镇辛留佐村村民委员会变压器,北路台村南农排【纯农排变】,北于八农业土地开发二号【纯农排变】,辛留佐6号农排【纯农排变】,辛留佐1号农排【纯农排变】,高阳县吉盛纺纱厂变压器,07052|北于八村北综合1705,辛留佐织布厂,北于八西农业,北于八远东","powerOffReason":"【停电原因】由于危急缺陷导致３５ＫＶ南路台变电站辛留佐５１５线路全线停电【变更送电】因抢修进度加快原因，送电时间由６日８：００变更为５日２３：５５【发布渠道】９５５９８","powerOffId":"2018060513000691"},{"poweroffId":2018060513000688,"sgpoweroffId":null,"subsName":"","lineName":"北于八线514","pubTranName":"葛延谦,保定雪莹家纺有限公司变压器,华阳毛纺染织公司,保定旭腾纺织品有限公司,07019|北于八东南综合1699,北于八村东南新增综合,070062|南于八面粉厂村东综合5345,北于八洗毛厂,华阳毛染有限公司,高阳县金锐纺织品有限公司,中国移动通信集团河北有限公司高阳分公司变压器,北于八村东变压器,高阳县金锐纺织品有限公司变压器,东风毛呢厂,明光染厂,070061|南于八村里综合5344,北于八面粉厂,高阳县胡掺毛巾厂变压器,红军毛巾厂,梁新刚,070044|南于八远东综合5341,","scope":"【影响街道/乡镇】邢南乡 【高危重要客户】无 【影响客户】北于八、南于八村","startTime":"2018-06-05 22:45:00","stopDate":"2018-06-05 23:55:00","orgNo":"1340613","typeCode":"其他临时停电","poweroffArea":"【全线路停电】停梁新刚,07019|北于八东南综合1699,东风毛呢厂,北于八村东南新增综合,北于八面粉厂,保定旭腾纺织品有限公司,070044|南于八远东综合5341,中国移动通信集团河北有限公司高阳分公司变压器,高阳县金锐纺织品有限公司,华阳毛纺染织公司,高阳县胡掺毛巾厂变压器,070062|南于八面粉厂村东综合5345,华阳毛染有限公司,保定雪莹家纺有限公司变压器,葛延谦,070061|南于八村里综合5344,高阳县金锐纺织品有限公司变压器,红军毛巾厂,北于八村东变压器,北于八洗毛厂,明光染厂","poweroffReason":"【停电原因】由于危急缺陷导致３５ＫＶ南路台变电站北于八５１４线路全线停电【变更送电】因抢修进度加快原因，送电时间由６日８：００变更为５日２３：５５【发布渠道】９５５９８","powerTime":"2018-06-05 23:52:15","powerComm":"已送电","subsNo":"","lineNo":"","tgNo":"","tgName":null,"infoStatus":"1","orgName":"国网高阳县供电公司","typeName":null,"infoStatusName":null,"dateDay":null,"orgNos":null,"nowTime":null,"countyName":null,"streetName":null,"villageName":null,"roadName":null,"communityName":null,"tranName":null,"sdLineName":null,"cityCode":"1340613","cityName":"国网高阳县供电公司","provinceCode":null,"stopTime":"2018-06-05 23:55:00","powerType":"全部","powerOffArea":"【全线路停电】停梁新刚,07019|北于八东南综合1699,东风毛呢厂,北于八村东南新增综合,北于八面粉厂,保定旭腾纺织品有限公司,070044|南于八远东综合5341,中国移动通信集团河北有限公司高阳分公司变压器,高阳县金锐纺织品有限公司,华阳毛纺染织公司,高阳县胡掺毛巾厂变压器,070062|南于八面粉厂村东综合5345,华阳毛染有限公司,保定雪莹家纺有限公司变压器,葛延谦,070061|南于八村里综合5344,高阳县金锐纺织品有限公司变压器,红军毛巾厂,北于八村东变压器,北于八洗毛厂,明光染厂","powerOffReason":"【停电原因】由于危急缺陷导致３５ＫＶ南路台变电站北于八５１４线路全线停电【变更送电】因抢修进度加快原因，送电时间由６日８：００变更为５日２３：５５【发布渠道】９５５９８","powerOffId":"2018060513000688"},{"poweroffId":2018060513000685,"sgpoweroffId":null,"subsName":"","lineName":"李庄线517","pubTranName":"姚村混13,龙华排7【纯农排变】,龙华排10【纯农排变】,0469302152-河北省高速公路禄发实业总公司定兴西服务区-专变-126191223-张石高速服务区500,李家庄光7,李家庄光6,0011677012李家庄排2,姚村排12【纯农排变】,李家庄排12【纯农排变】,龙华排9【纯农排变】,李家庄光3,0011676986贤寓排5,贤寓养殖小区排【纯农排变】,0011676999贤寓排4,龙华排8【纯农排变】,一间房光1,李家庄光5,龙华大棚排7【纯农排变】,0011676995*张石高速服务区,一间房光2,一间房混1,0011677058李家庄排4,0011677035贤寓排9,1号台区,李家庄光2,李家庄光1,0011676996李家庄排3,京昆高速东区630,李家庄排13【纯农排变】,0011677044贤寓排12,京昆高速西区630,贤寓排17,0011677000李家庄排5,0011676998李家庄排1,李家庄光4,0011677019李家庄排6,","scope":"【影响街道/乡镇】贤寓镇 【高危重要客户】无 【影响客户】贤寓村部分用户、贤寓养殖、龙华村部分用户、李家庄村、一间房村部分用户、姚村部分用户、荣达孵化、京昆高速服务区、侯家庄幼儿园","startTime":"2018-06-05 17:01:14","stopDate":"2018-06-05 21:00:00","orgNo":"1340609","typeCode":"电网故障停限电","poweroffArea":"【全线路停电】停龙华排9【纯农排变】,一间房光1,1号台区,0011676995*张石高速服务区,李家庄光3,李家庄光2,李家庄排13【纯农排变】,李家庄光5,龙华排8【纯农排变】,李家庄光6,0011676999贤寓排4,李家庄光4,李家庄排12【纯农排变】,0011677019李家庄排6,0011676986贤寓排5,龙华大棚排7【纯农排变】,龙华排7【纯农排变】,京昆高速西区630,李家庄光7,京昆高速东区630,龙华排10【纯农排变】,0011676998李家庄排1,0011677035贤寓排9,0011677044贤寓排12,一间房混1,贤寓排17,姚村排12【纯农排变】,一间房光2,李家庄光1,姚村混13,贤寓养殖小区排【纯农排变】,0469302152-河北省高速公路禄发实业总公司定兴西服务区-专变-126191223-张石高速服务区500,0011677058李家庄排4,0011677000李家庄排5,0011677012李家庄排2,0011676996李家庄排3","poweroffReason":"【停电原因】由于李庄排４分支９号杆支瓶坏导致３５ＫＶ贤寓变电站李庄线５１７线路全线停电 【变更送电】无 【发布渠道】通过９５５９８发布","powerTime":"2018-06-05 20:01:36","powerComm":"已送电","subsNo":"","lineNo":"","tgNo":"","tgName":null,"infoStatus":"1","orgName":"国网定兴县供电公司","typeName":null,"infoStatusName":null,"dateDay":null,"orgNos":null,"nowTime":null,"countyName":null,"streetName":null,"villageName":null,"roadName":null,"communityName":null,"tranName":null,"sdLineName":null,"cityCode":"1340609","cityName":"国网定兴县供电公司","provinceCode":null,"stopTime":"2018-06-05 21:00:00","powerType":"全部","powerOffArea":"【全线路停电】停龙华排9【纯农排变】,一间房光1,1号台区,0011676995*张石高速服务区,李家庄光3,李家庄光2,李家庄排13【纯农排变】,李家庄光5,龙华排8【纯农排变】,李家庄光6,0011676999贤寓排4,李家庄光4,李家庄排12【纯农排变】,0011677019李家庄排6,0011676986贤寓排5,龙华大棚排7【纯农排变】,龙华排7【纯农排变】,京昆高速西区630,李家庄光7,京昆高速东区630,龙华排10【纯农排变】,0011676998李家庄排1,0011677035贤寓排9,0011677044贤寓排12,一间房混1,贤寓排17,姚村排12【纯农排变】,一间房光2,李家庄光1,姚村混13,贤寓养殖小区排【纯农排变】,0469302152-河北省高速公路禄发实业总公司定兴西服务区-专变-126191223-张石高速服务区500,0011677058李家庄排4,0011677000李家庄排5,0011677012李家庄排2,0011676996李家庄排3","powerOffReason":"【停电原因】由于李庄排４分支９号杆支瓶坏导致３５ＫＶ贤寓变电站李庄线５１７线路全线停电 【变更送电】无 【发布渠道】通过９５５９８发布","powerOffId":"2018060513000685"},{"poweroffId":2018060513000655,"sgpoweroffId":null,"subsName":"","lineName":"牛庄线517","pubTranName":"新杨各庄光8【煤改电】,新牛家庄光13【煤改电】,付家庄光11【煤改电】,定兴县广顺达水泥制品厂-250,内二光4,内一排6【纯农排变】,中交二公司第六工程部200配变,韩宝新,张百户排5|07095174040【纯农排变】,付庄排1|07095174017【纯农排变】,永兴食品400,0694619322-定兴县傅家庄小学-专变-239106961-付家庄小学,张百户光3|07095174075,*洁士达冷库,牛家庄排2【纯农排变】,德刚石料厂,新杨各庄光11【煤改电】,内一排5【纯农排变】,内一光6,李郁庄乡政府光1,新牛家庄光6【煤改电】,内一排2(村东)【纯农排变】,内一光4,新杨各庄光7【煤改电】,杨各庄排6|07095174033【纯农排变】,张百户排6|07095174041【纯农排变】,牛家庄光11【煤改电】,*永兴食品有限公司,古庄营光5,新付家庄光2【煤改电】,0469423088-汉印印刷有限责任公司-专变-46808228-汉印印刷有限公司,李郁庄乡政府,古庄营排1|07095174022【纯农排变】,付庄排4|07095174020【纯农排变】,新张百户光5【煤改电】,新张百户光2【煤改电】,内二光2,牛家庄排5【纯农排变】,张百户光8【煤改电】,新张百户光4【煤改电】,西章排5【纯农排变】,张百户排3【纯农排变】,新牛家庄光5【煤改电】,新牛家庄光2【煤改电】,付家庄光9【煤改电】,新杨各庄光5【煤改电】,0607377446-河北省高速公路禄发实业总公司定兴服务区-专变-147983579-牛庄高速服务区-630,保定雲航金属制品,内三排4【纯农排变】,定兴东皇金属装饰工程有限公司变压器,新张百户光1【煤改电】,新内二光3,付庄排5|07095174021【纯农排变】,新牛家庄光12【煤改电】,新张百户光6【煤改电】,西章排6【纯农排变】,内一光7,付家庄混1,内一排3(村北)【纯农排变】,牛家庄排6【纯农排变】,新付家庄光8【煤改电】,内二排4【纯农排变】,杨各庄排5【纯农排变】,新付家庄光10【煤改电】,*冀兴高速公路养护公司,古庄营光2|07095174024,内一光2,杨各庄小学-500,新付家庄光1【煤改电】,0607377446-河北省高速公路禄发实业总公司定兴服务区-专变-147985796-牛庄高速服务区-500,付庄排7【纯农排变】,王洪修木器厂,牛家庄光8【煤改电】,定兴县明宇机床制造有限公司-315,付庄混2|07095174018,张百户混2|07095174035,牛家庄光7【煤改电】,新牛家庄光4【煤改电】,新杨各庄光9【煤改电】,高速路口公用,新付家庄光3【煤改电】,新杨各庄光3【煤改电】,内二排1【纯农排变】,新付家庄光5【煤改电】,新付家庄光4【煤改电】,付家庄光12【煤改电】,0469423088-汉印印刷有限责任公司-专变-123917319-汉印印刷有限公司50,高速东引线2号路灯变-100,内二排2【纯农排变】,张百户光7【煤改电】,0694615229-定兴县牛家庄小学-专变-239110803-牛家庄小学,数仁国学,牛家庄村内光1,内一光3,*","scope":"【影响街道/乡镇】北田乡、李郁庄乡 【高危重要客户】无 【影响客户】牛家庄、张百户、古庄营、付家庄、杨各庄、内章村、内一、内二、内三","startTime":"2018-06-05 16:43:22","stopDate":"2018-06-05 19:00:00","orgNo":"1340609","typeCode":"电网故障停限电","poweroffArea":"【全线路停电】停保定雲航金属制品,新杨各庄光6【煤改电】,保定小泽包装制品有限公司,付家庄光11【煤改电】,160,牛家庄光7【煤改电】,*冀星高速养护中心,新杨各庄光8【煤改电】,新张百户光2【煤改电】,*东方之宝工贸有限公司,*永兴食品有限公司,*洁士达冷库,王洪修木器厂,新张百户光6【煤改电】,西章排5【纯农排变】,内一光1,供电所,内二光1,中交二公局630配变,付家庄混1,张百户光8【煤改电】,古庄营光4,高速路口公用,新张百户光4【煤改电】,兴宝金属加工厂-250,兴龙金属,0469423088-汉印印刷有限责任公司-专变-46808228-汉印印刷有限公司,杨各庄排5【纯农排变】,高速东引线1号路灯变-100,西靳排17【纯农排变】,牛家庄排5【纯农排变】,杨各庄排6|07095174033【纯农排变】,牛家庄排1【纯农排变】,新付家庄光10【煤改电】,内一排4【纯农排变】,0607377446-河北省高速公路禄发实业总公司定兴服务区-专变-147983579-牛庄高速服务区-630,定兴县玉奎粮食收购点,古庄营小学-250,新付家庄光4【煤改电】,内二排2【纯农排变】,张百户排6|07095174041【纯农排变】,伟成新型建材-1250,竣丰建材-200,李郁庄乡政府光1,定兴县瑞丰水泥制品有限公司,定兴县广顺达水泥制品厂-250,内一光6,变压器,西章排6【纯农排变】,京港澳服务区西区-630,*安广厦装饰材料有限公司,*西靳(杨军),牛家庄排4分支【纯农排变】,定兴县兴和房产中介服务有限公司-100,新牛家庄光4【煤改电】,内一排3(村北)【纯农排变】,定兴东皇金属装饰工程有限公司变压器,内二排4【纯农排变】,新杨各庄光7【煤改电】,内二排3【纯农排变】,新付家庄光5【煤改电】,新付家庄光7【煤改电】,内二光4,付家庄光9【煤改电】,张百户光3|07095174075,新内二光3,0469423088-汉印印刷有限责任公司-专变-123917319-汉印印刷有限公司50,新付家庄光3【煤改电】,东史家庄小学,西靳排18【纯农排变】,新付家庄光2【煤改电】,高速东引线2号路灯变-100,*冀兴高速公路养护公司,张百户光7【煤改电】,付家庄光12【煤改电】,内三排4【纯农排变】,古庄营光1|07095174023,内一排5【纯农排变】,内二排1【纯农排变】,牛家庄排3【纯农排变】,定兴县明宇机床制造有限公司-315,0694615229-定兴县牛家庄小学-专变-239110803-牛家庄小学,0694619322-定兴县傅家庄小学-专变-239106961-付家庄小学,牛家庄排2【纯农排变】,内三排2【纯农排变】,牛家庄光9【煤改电】,付庄混2|07095174018,张百户排3【纯农排变】,新付家庄光8【煤改电】,牛家庄光3,新牛家庄光6【煤改电】,内一光3,古庄营光5,兴航地板有限公司,内一排2(村东)【纯农排变】,内一排6【纯农排变】,杨各庄光2|07095174003,德刚石料厂,新杨各庄光9【煤改电】,新张百户光1【煤改电】,新杨各庄光12【煤改电】,京港澳服务区东区630,新牛家庄光12【煤改电】,牛家庄光8【煤改电】,新牛家庄光13【煤改电】,数仁国学,新杨各庄光5【煤改电】,新杨各庄光10【煤改电】,付庄排1|07095174017【纯农排变】,付庄排7【纯农排变】,新张百户光5【煤改电】,古庄营光2|07095174024,付庄排5|07095174021【纯农排变】,李郁庄乡政府,杨各庄商品街光1|07095174007,韩宝新,内一光7,杨各庄排7|07095174034【纯农排变】,新杨各庄光11【煤改电】,张百户排5|07095174040【纯农排变】,新牛家庄光2【煤改电】,李郁庄乡政府光2,张百户排4|07095174039【纯农排变】,新付家庄光1【煤改电】,牛家庄光11【煤改电】,内一光4,古庄营排1|07095174022【纯农排变】,新牛家庄光5【煤改电】,内一光2,北田乡政府,中交二公司第六工程部200配变,牛家庄排6【纯农排变","poweroffReason":"【停电原因】由于内二排３分支１０号杆树倾倒砸线导致３５ＫＶ彭各庄变电站牛庄线５１７线路全线停电 【变更送电】因抢修进度加快原因，送电时间由２１：００变更为１９：００ 【发布渠道】通过９５５９８发布","powerTime":"2018-06-05 18:23:30","powerComm":"已送电","subsNo":"","lineNo":"","tgNo":"","tgName":null,"infoStatus":"1","orgName":"国网定兴县供电公司","typeName":null,"infoStatusName":null,"dateDay":null,"orgNos":null,"nowTime":null,"countyName":null,"streetName":null,"villageName":null,"roadName":null,"communityName":null,"tranName":null,"sdLineName":null,"cityCode":"1340609","cityName":"国网定兴县供电公司","provinceCode":null,"stopTime":"2018-06-05 19:00:00","powerType":"全部","powerOffArea":"【全线路停电】停保定雲航金属制品,新杨各庄光6【煤改电】,保定小泽包装制品有限公司,付家庄光11【煤改电】,160,牛家庄光7【煤改电】,*冀星高速养护中心,新杨各庄光8【煤改电】,新张百户光2【煤改电】,*东方之宝工贸有限公司,*永兴食品有限公司,*洁士达冷库,王洪修木器厂,新张百户光6【煤改电】,西章排5【纯农排变】,内一光1,供电所,内二光1,中交二公局630配变,付家庄混1,张百户光8【煤改电】,古庄营光4,高速路口公用,新张百户光4【煤改电】,兴宝金属加工厂-250,兴龙金属,0469423088-汉印印刷有限责任公司-专变-46808228-汉印印刷有限公司,杨各庄排5【纯农排变】,高速东引线1号路灯变-100,西靳排17【纯农排变】,牛家庄排5【纯农排变】,杨各庄排6|07095174033【纯农排变】,牛家庄排1【纯农排变】,新付家庄光10【煤改电】,内一排4【纯农排变】,0607377446-河北省高速公路禄发实业总公司定兴服务区-专变-147983579-牛庄高速服务区-630,定兴县玉奎粮食收购点,古庄营小学-250,新付家庄光4【煤改电】,内二排2【纯农排变】,张百户排6|07095174041【纯农排变】,伟成新型建材-1250,竣丰建材-200,李郁庄乡政府光1,定兴县瑞丰水泥制品有限公司,定兴县广顺达水泥制品厂-250,内一光6,变压器,西章排6【纯农排变】,京港澳服务区西区-630,*安广厦装饰材料有限公司,*西靳(杨军),牛家庄排4分支【纯农排变】,定兴县兴和房产中介服务有限公司-100,新牛家庄光4【煤改电】,内一排3(村北)【纯农排变】,定兴东皇金属装饰工程有限公司变压器,内二排4【纯农排变】,新杨各庄光7【煤改电】,内二排3【纯农排变】,新付家庄光5【煤改电】,新付家庄光7【煤改电】,内二光4,付家庄光9【煤改电】,张百户光3|07095174075,新内二光3,0469423088-汉印印刷有限责任公司-专变-123917319-汉印印刷有限公司50,新付家庄光3【煤改电】,东史家庄小学,西靳排18【纯农排变】,新付家庄光2【煤改电】,高速东引线2号路灯变-100,*冀兴高速公路养护公司,张百户光7【煤改电】,付家庄光12【煤改电】,内三排4【纯农排变】,古庄营光1|07095174023,内一排5【纯农排变】,内二排1【纯农排变】,牛家庄排3【纯农排变】,定兴县明宇机床制造有限公司-315,0694615229-定兴县牛家庄小学-专变-239110803-牛家庄小学,0694619322-定兴县傅家庄小学-专变-239106961-付家庄小学,牛家庄排2【纯农排变】,内三排2【纯农排变】,牛家庄光9【煤改电】,付庄混2|07095174018,张百户排3【纯农排变】,新付家庄光8【煤改电】,牛家庄光3,新牛家庄光6【煤改电】,内一光3,古庄营光5,兴航地板有限公司,内一排2(村东)【纯农排变】,内一排6【纯农排变】,杨各庄光2|07095174003,德刚石料厂,新杨各庄光9【煤改电】,新张百户光1【煤改电】,新杨各庄光12【煤改电】,京港澳服务区东区630,新牛家庄光12【煤改电】,牛家庄光8【煤改电】,新牛家庄光13【煤改电】,数仁国学,新杨各庄光5【煤改电】,新杨各庄光10【煤改电】,付庄排1|07095174017【纯农排变】,付庄排7【纯农排变】,新张百户光5【煤改电】,古庄营光2|07095174024,付庄排5|07095174021【纯农排变】,李郁庄乡政府,杨各庄商品街光1|07095174007,韩宝新,内一光7,杨各庄排7|07095174034【纯农排变】,新杨各庄光11【煤改电】,张百户排5|07095174040【纯农排变】,新牛家庄光2【煤改电】,李郁庄乡政府光2,张百户排4|07095174039【纯农排变】,新付家庄光1【煤改电】,牛家庄光11【煤改电】,内一光4,古庄营排1|07095174022【纯农排变】,新牛家庄光5【煤改电】,内一光2,北田乡政府,中交二公司第六工程部200配变,牛家庄排6【纯农排变","powerOffReason":"【停电原因】由于内二排３分支１０号杆树倾倒砸线导致３５ＫＶ彭各庄变电站牛庄线５１７线路全线停电 【变更送电】因抢修进度加快原因，送电时间由２１：００变更为１９：００ 【发布渠道】通过９５５９８发布","powerOffId":"2018060513000655"}],"pageModel":{"pageNow":1033,"totalCount":10973,"totalPage":1098,"tableRows":0,"pageCount":10,"beginCount":10320},"isExperi":"1"}