{"message":"","today":"2020-06-15","seleList":[{"poweroffId":2018060513000271,"sgpoweroffId":null,"subsName":"","lineName":"开发区线523","pubTranName":"高碑店市军隆房地产开发有限责任公司（富润豪庭）,0683959392-仁和庄8号变台-专变-223535644-变压器,0596497550-保定土垚物业服务有限公司-专变-126205945-林生地产变压器,仁和庄开发区2,龚志山,0387441449-仁和辅料城东-专变-45278592-仁和辅料城东,0387441986-1号路灯-专变-45278723-1号路灯,广顺,白沟世纪金鼎购物中心变压器,来源小区,变压器400,赵长路,变压器200,0596497550-保定土垚物业服务有限公司-专变-126207643-林生地产2,鹏飞伟业地产变台,林生地产变压器4,0683945650-仁和庄3号变台-专变-223538049-变压器,时代第一城,0547348027-高碑店市金邦金鼎商贸有限责任公司-专变-212348093-白沟世纪金鼎购物中心变压器,1100000406|时代第一城变压器,服饰广场C区,服饰广场B区,变压器,0387441393-河北仁盛市场服务有限公司-专变-212347551-服饰广场B区变压器2,0387441250-高碑店市军隆房地产开发有限责任公司(富润豪庭)-专变-212346663-110000004797|高碑店市军隆房地产开发有限责任公司（富润豪庭）变压器,徐二群,白沟服饰广场A区2,宏业,高碑店白沟小肥羊城变台,涞远村东,0683952506-仁和庄4号-专变-223538057-变压器,电子大厦,变压器315,鑫宏发泡厂2,白沟服饰广场A区,变压器3,变压器100,芙蓉苑小区,芙蓉苑小区2,","scope":"【影响街道/乡镇】白沟镇、五一路、富民大街、友谊东路 【高危重要客户】服饰广场、五金皮革城 【影响客户】东方蒂景小区、仁和庄村（部分）、刘国强、时代第一城小区、宏业魏文银、电子大厦、移动公司、徐记布业、白沟小肥羊、金利达革塑有限责任公司、涞远小区、金鼎服饰广场二期、辅料城、香清园周敬森、鑫宏发泡厂李明强、富润豪庭小区夏明月、东北木器厂刘国锋、邮局小区、联通公司、刘国强、仁和庄开发区、广顺家属楼","startTime":"2018-06-14 07:00:00","stopDate":"2018-06-14 20:00:00","orgNo":"1340612","typeCode":"计划停电","poweroffArea":"【分支停电】停1100000406|时代第一城变压器,龚志山,广顺,0683952506-仁和庄4号-专变-223538057-变压器,0387441250-高碑店市军隆房地产开发有限责任公司(富润豪庭)-专变-212346663-110000004797|高碑店市军隆房地产开发有限责任公司（富润豪庭）变压器,来源小区,白沟世纪金鼎购物中心变压器,0596497550-保定土垚物业服务有限公司-专变-126205945-林生地产变压器,电子大厦,芙蓉苑小区2,高碑店白沟小肥羊城变台,林生地产变压器4,高碑店市军隆房地产开发有限责任公司（富润豪庭）,服饰广场B区,服饰广场C区,变压器,0387441986-1号路灯-专变-45278723-1号路灯,变压器400,徐二群,变压器100,鹏飞伟业地产变台,0683945650-仁和庄3号变台-专变-223538049-变压器,变压器200,0387441393-河北仁盛市场服务有限公司-专变-212347551-服饰广场B区变压器2,时代第一城,变压器3,白沟服饰广场A区2,0547348027-高碑店市金邦金鼎商贸有限责任公司-专变-212348093-白沟世纪金鼎购物中心变压器,宏业,0683959392-仁和庄8号变台-专变-223535644-变压器,鑫宏发泡厂2,白沟服饰广场A区,0596497550-保定土垚物业服务有限公司-专变-126207643-林生地产2,赵长路,仁和庄开发区2,涞远村东,芙蓉苑小区,0387441449-仁和辅料城东-专变-45278592-仁和辅料城东,变压器315","poweroffReason":"【停电原因】由于电源接引、负荷切改导致１１０ＫＶ白沟变电站１０ＫＶ开发区５２３线路０１号断路器以下停电 【变更送电】因工作量大原因，送电时间由１４日１９：００变更为２０：００ 【发布渠道】高碑店市电视台（６月６日８时至６月１３日１８时之间）屏幕上方滚动","powerTime":"2018-06-14 19:40:38","powerComm":"已送电","subsNo":"","lineNo":"","tgNo":"","tgName":null,"infoStatus":"1","orgName":"国网高碑店市供电公司","typeName":null,"infoStatusName":null,"dateDay":null,"orgNos":null,"nowTime":null,"countyName":null,"streetName":null,"villageName":null,"roadName":null,"communityName":null,"tranName":null,"sdLineName":null,"cityCode":"1340612","cityName":"国网高碑店市供电公司","provinceCode":null,"stopTime":"2018-06-14 20:00:00","powerType":"全部","powerOffArea":"【分支停电】停1100000406|时代第一城变压器,龚志山,广顺,0683952506-仁和庄4号-专变-223538057-变压器,0387441250-高碑店市军隆房地产开发有限责任公司(富润豪庭)-专变-212346663-110000004797|高碑店市军隆房地产开发有限责任公司（富润豪庭）变压器,来源小区,白沟世纪金鼎购物中心变压器,0596497550-保定土垚物业服务有限公司-专变-126205945-林生地产变压器,电子大厦,芙蓉苑小区2,高碑店白沟小肥羊城变台,林生地产变压器4,高碑店市军隆房地产开发有限责任公司（富润豪庭）,服饰广场B区,服饰广场C区,变压器,0387441986-1号路灯-专变-45278723-1号路灯,变压器400,徐二群,变压器100,鹏飞伟业地产变台,0683945650-仁和庄3号变台-专变-223538049-变压器,变压器200,0387441393-河北仁盛市场服务有限公司-专变-212347551-服饰广场B区变压器2,时代第一城,变压器3,白沟服饰广场A区2,0547348027-高碑店市金邦金鼎商贸有限责任公司-专变-212348093-白沟世纪金鼎购物中心变压器,宏业,0683959392-仁和庄8号变台-专变-223535644-变压器,鑫宏发泡厂2,白沟服饰广场A区,0596497550-保定土垚物业服务有限公司-专变-126207643-林生地产2,赵长路,仁和庄开发区2,涞远村东,芙蓉苑小区,0387441449-仁和辅料城东-专变-45278592-仁和辅料城东,变压器315","powerOffReason":"【停电原因】由于电源接引、负荷切改导致１１０ＫＶ白沟变电站１０ＫＶ开发区５２３线路０１号断路器以下停电 【变更送电】因工作量大原因，送电时间由１４日１９：００变更为２０：００ 【发布渠道】高碑店市电视台（６月６日８时至６月１３日１８时之间）屏幕上方滚动","powerOffId":"2018060513000271"},{"poweroffId":2018060513000247,"sgpoweroffId":null,"subsName":"","lineName":"10kV东北郊站523线路","pubTranName":"0356232171-扬庄乡砖厂-13397570-专变,","scope":"【影响街道/乡镇】杨庄乡 【高危重要客户】无 【影响客户】西康砖厂、信能沼气发电厂、垃圾站","startTime":"2018-06-05 09:31:29","stopDate":"2018-06-05 18:00:00","orgNo":"13406","typeCode":"电网故障停限电","poweroffArea":"【分支停电】停0356232171-扬庄乡砖厂-13397570-专变","poweroffReason":"【停电原因】由于用户设备故障导致１０ＫＶ东北郊变电站５２３线路ＨＫ—０８环网柜５号间隔出线１２号分支刀闸以下停电【变更送电】因工作正在处理中，送电时间由１７：００变更为１８：００【发布渠道】通过９５５９８发布","powerTime":"2018-06-05 17:01:31","powerComm":"已送电","subsNo":"","lineNo":"","tgNo":"","tgName":null,"infoStatus":"1","orgName":"保定供电公司","typeName":null,"infoStatusName":null,"dateDay":null,"orgNos":null,"nowTime":null,"countyName":null,"streetName":null,"villageName":null,"roadName":null,"communityName":null,"tranName":null,"sdLineName":null,"cityCode":"13406","cityName":"保定供电公司","provinceCode":null,"stopTime":"2018-06-05 18:00:00","powerType":"全部","powerOffArea":"【分支停电】停0356232171-扬庄乡砖厂-13397570-专变","powerOffReason":"【停电原因】由于用户设备故障导致１０ＫＶ东北郊变电站５２３线路ＨＫ—０８环网柜５号间隔出线１２号分支刀闸以下停电【变更送电】因工作正在处理中，送电时间由１７：００变更为１８：００【发布渠道】通过９５５９８发布","powerOffId":"2018060513000247"},{"poweroffId":2018060513000237,"sgpoweroffId":null,"subsName":"","lineName":"10kV藏庄线511","pubTranName":"1南刘口内2,清苑县光华铜板有限公司,1臧庄内8,1臧庄内6,2臧庄外9【纯农排变】,2臧庄外10【纯农排变】,0387487917-清苑县臧庄增军苗圃种植基地-专变-45313711-臧庄村北,0387486998-南刘口村委会养殖场-专变-124295166-南刘口村东2号,1臧庄内2,0387487715-清苑县永顺金属制品有限公司-专变-45313698-清苑县永顺金属制品有限公司,0387487018-南刘口成林鸡场-专变-45313697-南刘口成林鸡场,1北刘口内8,2臧庄外11【纯农排变】,南刘口村南,南刘口村西,1南刘口内3,1南刘口内7,2东木欠庄外5【纯农排变】,2北刘口外5【纯农排变】,2北刘口外14,1东木欠庄内3,南刘口村正南,1臧庄内4,1南刘口内8,保定市清苑区保坤养殖场,东木欠庄村北,1南刘口内1,2臧庄外6【纯农排变】,南园区种植基地,0387487021-清苑县恒达有色金属经销处-专变-45313702-清苑县恒达有色金属经销处,2东木欠庄外4【纯农排变】,1东木欠庄内4,容坤无公害蔬菜种植基地,0603047033-容坤无公害蔬菜种植基地-专变-126949993-容坤无公害蔬菜种植基地,2臧庄外7【纯农排变】,0387487379-南刘口果园-专变-45314025-南刘口果园2台,0625971831-河北建设集团有限公司-专变-141344939-河北建设集团有限公司,1臧庄内7,刘国清养鱼场,1臧庄内9,保定市清苑区光辉铜米加工厂,2东木欠庄外12【纯农排变】,1南刘口内5,2东木欠庄外3【纯农排变】,清苑县望亭乡南刘口水厂,0625971831-河北建设集团有限公司-专变-135605033-河北建设集团有限公司,保定市榆茂有色金属回收有限公司,2北刘口外4【纯农排变】,0670064193-清苑县月阳福帝休闲农业观光有限公司-专变-212351143-清苑县月阳福帝休闲农业观光有限公司,1东木欠庄内2,1臧庄内11,|清苑县永顺金属制品有限公司,1南刘口内9,1北刘口内1,1东木欠庄内1,1南刘口内4,2臧庄外12【纯农排变】,清苑县臧庄自然苗木种植场,0387488200-南刘口村南-专变-45313865-南刘口村南1,南刘口村东3,0387487366-南刘口村委会养殖场-专变-124292791-南刘口村东1号,1臧庄内3,0387487005-南刘口果园-专变-45313691-南刘口果园1台,2臧庄外14【纯农排变】,清苑县方全电力材料有限公司,1臧庄内10,河北光辉农业产品开发有限公司,河北光辉农产品开发有限公司,1臧庄内5,1南刘口内10,1北刘口内6,保定市清苑区纪营养殖场,2臧庄外8【纯农排变】,南刘口村南2,0579488416-南刘口村委会-专变-124419232-南刘口村委会,1北刘口内7,保定海旺有色金属销售有限公司,1臧庄内1,1南刘口内6,2臧庄外13【纯农排变】,0672325991-南刘口村委会-专变-215912465-南刘口村委会,","scope":"【影响街道/乡镇】望亭乡 【高危重要客户】无 【影响客户】东木欠庄、臧庄、南刘口、北刘口","startTime":"2018-06-14 05:30:00","stopDate":"2018-06-14 18:30:00","orgNo":"1340618","typeCode":"计划停电","poweroffArea":"【全线路停电】停0387487005-南刘口果园-专变-45313691-南刘口果园1台,0387487021-清苑县恒达有色金属经销处-专变-45313702-清苑县恒达有色金属经销处,清苑县光华铜板有限公司,2东木欠庄外4【纯农排变】,1臧庄内8,|清苑县永顺金属制品有限公司,1南刘口内2,1东木欠庄内4,2臧庄外14【纯农排变】,1南刘口内9,1臧庄内6,1南刘口内6,清苑县方全电力材料有限公司,2臧庄外13【纯农排变】,2臧庄外9【纯农排变】,0672325991-南刘口村委会-专变-215912465-南刘口村委会,2臧庄外10【纯农排变】,1北刘口内1,0387487917-清苑县臧庄增军苗圃种植基地-专变-45313711-臧庄村北,南刘口村南,1北刘口内6,1臧庄内10,南刘口村西,0387486998-南刘口村委会养殖场-专变-124295166-南刘口村东2号,0603047033-容坤无公害蔬菜种植基地-专变-126949993-容坤无公害蔬菜种植基地,2臧庄外7【纯农排变】,0387487379-南刘口果园-专变-45314025-南刘口果园2台,1南刘口内3,0625971831-河北建设集团有限公司-专变-141344939-河北建设集团有限公司,1臧庄内2,河北光辉农业产品开发有限公司,0387487715-清苑县永顺金属制品有限公司-专变-45313698-清苑县永顺金属制品有限公司,0387487018-南刘口成林鸡场-专变-45313697-南刘口成林鸡场,1南刘口内7,清苑县臧庄自然苗木种植场,1臧庄内7,2东木欠庄外5【纯农排变】,1东木欠庄内1,刘国清养鱼场,2北刘口外5【纯农排变】,1臧庄内9,河北光辉农产品开发有限公司,2北刘口外14,1南刘口内4,2臧庄外8【纯农排变】,保定市清苑区光辉铜米加工厂,1东木欠庄内3,南刘口村正南,1臧庄内4,1臧庄内5,2东木欠庄外12【纯农排变】,1北刘口内8,1南刘口内8,1南刘口内5,1南刘口内10,保定市清苑区保坤养殖场,2臧庄外11【纯农排变】,2东木欠庄外3【纯农排变】,0579488416-南刘口村委会-专变-124419232-南刘口村委会,1北刘口内7,清苑县望亭乡南刘口水厂,0387488200-南刘口村南-专变-45313865-南刘口村南1,东木欠庄村北,南刘口村东3,0625971831-河北建设集团有限公司-专变-135605033-河北建设集团有限公司,0387487366-南刘口村委会养殖场-专变-124292791-南刘口村东1号,保定市榆茂有色金属回收有限公司,1南刘口内1,容坤无公害蔬菜种植基地,1臧庄内3,2臧庄外6【纯农排变】,2北刘口外4【纯农排变】,保定海旺有色金属销售有限公司,0670064193-清苑县月阳福帝休闲农业观光有限公司-专变-212351143-清苑县月阳福帝休闲农业观光有限公司,南园区种植基地,1臧庄内11,1东木欠庄内2,南刘口村南2,2臧庄外12【纯农排变】,1臧庄内1,保定市清苑区纪营养殖场","poweroffReason":"【停电原因】由于灾后重建工程导致３５ＫＶ刘口变电站１０ＫＶ藏庄线５１１线路全线停电 【变更送电】无 【发布渠道】保定市清苑区电视台（２０１８年０６月０６日１９时至２０１８年０６月１３日２０时之间）屏幕上方滚动","powerTime":"2018-06-14 18:14:30","powerComm":"王永营通知已送电","subsNo":"","lineNo":"","tgNo":"","tgName":null,"infoStatus":"1","orgName":"国网清苑县供电公司","typeName":null,"infoStatusName":null,"dateDay":null,"orgNos":null,"nowTime":null,"countyName":null,"streetName":null,"villageName":null,"roadName":null,"communityName":null,"tranName":null,"sdLineName":null,"cityCode":"1340618","cityName":"国网清苑县供电公司","provinceCode":null,"stopTime":"2018-06-14 18:30:00","powerType":"全部","powerOffArea":"【全线路停电】停0387487005-南刘口果园-专变-45313691-南刘口果园1台,0387487021-清苑县恒达有色金属经销处-专变-45313702-清苑县恒达有色金属经销处,清苑县光华铜板有限公司,2东木欠庄外4【纯农排变】,1臧庄内8,|清苑县永顺金属制品有限公司,1南刘口内2,1东木欠庄内4,2臧庄外14【纯农排变】,1南刘口内9,1臧庄内6,1南刘口内6,清苑县方全电力材料有限公司,2臧庄外13【纯农排变】,2臧庄外9【纯农排变】,0672325991-南刘口村委会-专变-215912465-南刘口村委会,2臧庄外10【纯农排变】,1北刘口内1,0387487917-清苑县臧庄增军苗圃种植基地-专变-45313711-臧庄村北,南刘口村南,1北刘口内6,1臧庄内10,南刘口村西,0387486998-南刘口村委会养殖场-专变-124295166-南刘口村东2号,0603047033-容坤无公害蔬菜种植基地-专变-126949993-容坤无公害蔬菜种植基地,2臧庄外7【纯农排变】,0387487379-南刘口果园-专变-45314025-南刘口果园2台,1南刘口内3,0625971831-河北建设集团有限公司-专变-141344939-河北建设集团有限公司,1臧庄内2,河北光辉农业产品开发有限公司,0387487715-清苑县永顺金属制品有限公司-专变-45313698-清苑县永顺金属制品有限公司,0387487018-南刘口成林鸡场-专变-45313697-南刘口成林鸡场,1南刘口内7,清苑县臧庄自然苗木种植场,1臧庄内7,2东木欠庄外5【纯农排变】,1东木欠庄内1,刘国清养鱼场,2北刘口外5【纯农排变】,1臧庄内9,河北光辉农产品开发有限公司,2北刘口外14,1南刘口内4,2臧庄外8【纯农排变】,保定市清苑区光辉铜米加工厂,1东木欠庄内3,南刘口村正南,1臧庄内4,1臧庄内5,2东木欠庄外12【纯农排变】,1北刘口内8,1南刘口内8,1南刘口内5,1南刘口内10,保定市清苑区保坤养殖场,2臧庄外11【纯农排变】,2东木欠庄外3【纯农排变】,0579488416-南刘口村委会-专变-124419232-南刘口村委会,1北刘口内7,清苑县望亭乡南刘口水厂,0387488200-南刘口村南-专变-45313865-南刘口村南1,东木欠庄村北,南刘口村东3,0625971831-河北建设集团有限公司-专变-135605033-河北建设集团有限公司,0387487366-南刘口村委会养殖场-专变-124292791-南刘口村东1号,保定市榆茂有色金属回收有限公司,1南刘口内1,容坤无公害蔬菜种植基地,1臧庄内3,2臧庄外6【纯农排变】,2北刘口外4【纯农排变】,保定海旺有色金属销售有限公司,0670064193-清苑县月阳福帝休闲农业观光有限公司-专变-212351143-清苑县月阳福帝休闲农业观光有限公司,南园区种植基地,1臧庄内11,1东木欠庄内2,南刘口村南2,2臧庄外12【纯农排变】,1臧庄内1,保定市清苑区纪营养殖场","powerOffReason":"【停电原因】由于灾后重建工程导致３５ＫＶ刘口变电站１０ＫＶ藏庄线５１１线路全线停电 【变更送电】无 【发布渠道】保定市清苑区电视台（２０１８年０６月０６日１９时至２０１８年０６月１３日２０时之间）屏幕上方滚动","powerOffId":"2018060513000237"},{"poweroffId":2018060513000226,"sgpoweroffId":null,"subsName":"","lineName":"10kV511高蓬线","pubTranName":"定州市东盛金属制品有限公司变压器,小章村面粉厂,小章村沙河北西,小章村南3号变压器,李家庄公用照明4台区,李家庄公用照明3台区,小章村南二号,王家庄公用照明3台区,留宿村南一号变压器,马村沙内二号变压器,王家庄村公用照明1台区,小章村沙河北东,马村公用照明6台区,李家庄公用农业1台区,0664225984-定州市高蓬镇马村村民委员会-专变-199242517-定州市高蓬镇马村村民委员会变压器,0664247911-定州市高蓬镇马村村民委员会-专变-199238412-定州市高蓬镇马村村民委员会变压器,定州市高蓬镇南王家庄村民委员会变压器,0664223249-定州市高蓬镇马村村民委员会-专变-199237797-定州市高蓬镇六家庄村村民委员会变压器,留宿村南二号变压器,孙家庄公用农业3台区,小章公用照明5台区,李家庄公用农业4台区,李家庄公用农业5台区,定州市晟坤金属制品有限公司变压器,0665906352-定州市高蓬镇南王家庄村村民委员会-专变-202688333-定州市高蓬镇南王家庄村村民委员会变压器,李家庄公用照明2台区1,马村南四号台,龙泉奶牛养殖有限公司,孙家庄公用照明3台区,孙家庄公用照明1台区,马村南二号台,孙家庄公用农业6台区,小章公用照明7台区,王家庄公用照明9台区,孙家庄公用农业1台区,李家庄公用农业2台区,马村公用照明5台区,李家庄公用农业7台区,砖厂,王家庄公用照明4台区,马村公用照明1台区,王家庄公用照明5台区,孙家庄公用照明2台区,小章公用照明9台区,小章公用照明6台区,李家庄公用农业3台区,马村沙内一号变压器,王家庄公用照明2台区,0664225056-定州市高蓬镇位村村民委员会-专变-199252399-定州市高蓬镇村民委员会变压器,王家庄沙河内二号变压器,定州市高蓬镇小章村村委会变压器,0664246309-定州市高蓬镇马村村民委员会-专变-199237686-定州市高蓬镇马村村民委员会变压器,李辛庄公用农业6台区,马村南三号台,小章村公用照明2台区,0664214661-定州市高蓬镇小章村民委员会-专变-199238281-定州市高蓬镇小章村村民委员会变压器,马村公用照明2台区,李辛庄公用农业8台区,马村公用照明7台区,王家庄公用照明8台区,王家庄公用照明7台区,小章村南公路边,李家庄公用农业6台区,马村公用照明8台区,马村公用照明3台区,小章村公用照明1台区,李家庄公用照明1台区,","scope":"【影响街道/乡镇】高蓬镇【高危重要客户】无【影响客户】马村、孙家庄、李家庄、小章、王家庄","startTime":"2018-06-05 09:48:00","stopDate":"2018-06-05 11:30:00","orgNo":"1340610","typeCode":"电网故障停限电","poweroffArea":"【全线路停电】停马村南四号台,孙家庄公用农业1台区,李辛庄公用农业6台区,李家庄公用照明1台区,定州市高蓬镇南王家庄村民委员会变压器,王家庄公用照明9台区,王家庄公用照明5台区,马村沙内二号变压器,李家庄公用农业3台区,李家庄公用农业7台区,小章村沙河北西,小章村南二号,李家庄公用农业5台区,留宿村南一号变压器,马村南二号台,马村公用照明3台区,马村公用照明1台区,小章村面粉厂,0664246309-定州市高蓬镇马村村民委员会-专变-199237686-定州市高蓬镇马村村民委员会变压器,李家庄公用农业6台区,0664223249-定州市高蓬镇马村村民委员会-专变-199237797-定州市高蓬镇六家庄村村民委员会变压器,马村公用照明8台区,定州市东盛金属制品有限公司变压器,小章村沙河北东,李家庄公用农业4台区,王家庄公用照明8台区,孙家庄公用农业3台区,马村公用照明6台区,0664247911-定州市高蓬镇马村村民委员会-专变-199238412-定州市高蓬镇马村村民委员会变压器,定州市高蓬镇小章村村委会变压器,孙家庄公用照明3台区,王家庄公用照明2台区,小章村南公路边,王家庄沙河内二号变压器,李辛庄公用农业8台区,马村南三号台,李家庄公用农业2台区,0664214661-定州市高蓬镇小章村民委员会-专变-199238281-定州市高蓬镇小章村村民委员会变压器,王家庄公用照明7台区,0665906352-定州市高蓬镇南王家庄村村民委员会-专变-202688333-定州市高蓬镇南王家庄村村民委员会变压器,马村沙内一号变压器,留宿村南二号变压器,小章村南3号变压器,小章公用照明6台区,小章公用照明9台区,马村公用照明2台区,马村公用照明7台区,王家庄公用照明3台区,李家庄公用照明2台区1,小章公用照明5台区,李家庄公用照明3台区,0664225984-定州市高蓬镇马村村民委员会-专变-199242517-定州市高蓬镇马村村民委员会变压器,小章村公用照明2台区,马村公用照明5台区,王家庄公用照明4台区,孙家庄公用照明1台区,王家庄村公用照明1台区,孙家庄公用农业6台区,小章村公用照明1台区,李家庄公用照明4台区,孙家庄公用照明2台区,小章公用照明7台区,0664225056-定州市高蓬镇位村村民委员会-专变-199252399-定州市高蓬镇村民委员会变压器,李家庄公用农业1台区,龙泉奶牛养殖有限公司,砖厂,定州市晟坤金属制品有限公司变压器","poweroffReason":"【停电原因】由于小章村村委会变压器烧毁导致１１０ＫＶ李亲顾变电站１０ＫＶ５１１高蓬线路全线停电 【变更送电】因抢修进度加快原因，送电时间由１８：００变更为１１：３０ 【发布渠道】９５５９８","powerTime":"2018-06-05 10:50:21","powerComm":"已送电","subsNo":"","lineNo":"","tgNo":"","tgName":null,"infoStatus":"1","orgName":"国网定州市供电公司","typeName":null,"infoStatusName":null,"dateDay":null,"orgNos":null,"nowTime":null,"countyName":null,"streetName":null,"villageName":null,"roadName":null,"communityName":null,"tranName":null,"sdLineName":null,"cityCode":"1340610","cityName":"国网定州市供电公司","provinceCode":null,"stopTime":"2018-06-05 11:30:00","powerType":"全部","powerOffArea":"【全线路停电】停马村南四号台,孙家庄公用农业1台区,李辛庄公用农业6台区,李家庄公用照明1台区,定州市高蓬镇南王家庄村民委员会变压器,王家庄公用照明9台区,王家庄公用照明5台区,马村沙内二号变压器,李家庄公用农业3台区,李家庄公用农业7台区,小章村沙河北西,小章村南二号,李家庄公用农业5台区,留宿村南一号变压器,马村南二号台,马村公用照明3台区,马村公用照明1台区,小章村面粉厂,0664246309-定州市高蓬镇马村村民委员会-专变-199237686-定州市高蓬镇马村村民委员会变压器,李家庄公用农业6台区,0664223249-定州市高蓬镇马村村民委员会-专变-199237797-定州市高蓬镇六家庄村村民委员会变压器,马村公用照明8台区,定州市东盛金属制品有限公司变压器,小章村沙河北东,李家庄公用农业4台区,王家庄公用照明8台区,孙家庄公用农业3台区,马村公用照明6台区,0664247911-定州市高蓬镇马村村民委员会-专变-199238412-定州市高蓬镇马村村民委员会变压器,定州市高蓬镇小章村村委会变压器,孙家庄公用照明3台区,王家庄公用照明2台区,小章村南公路边,王家庄沙河内二号变压器,李辛庄公用农业8台区,马村南三号台,李家庄公用农业2台区,0664214661-定州市高蓬镇小章村民委员会-专变-199238281-定州市高蓬镇小章村村民委员会变压器,王家庄公用照明7台区,0665906352-定州市高蓬镇南王家庄村村民委员会-专变-202688333-定州市高蓬镇南王家庄村村民委员会变压器,马村沙内一号变压器,留宿村南二号变压器,小章村南3号变压器,小章公用照明6台区,小章公用照明9台区,马村公用照明2台区,马村公用照明7台区,王家庄公用照明3台区,李家庄公用照明2台区1,小章公用照明5台区,李家庄公用照明3台区,0664225984-定州市高蓬镇马村村民委员会-专变-199242517-定州市高蓬镇马村村民委员会变压器,小章村公用照明2台区,马村公用照明5台区,王家庄公用照明4台区,孙家庄公用照明1台区,王家庄村公用照明1台区,孙家庄公用农业6台区,小章村公用照明1台区,李家庄公用照明4台区,孙家庄公用照明2台区,小章公用照明7台区,0664225056-定州市高蓬镇位村村民委员会-专变-199252399-定州市高蓬镇村民委员会变压器,李家庄公用农业1台区,龙泉奶牛养殖有限公司,砖厂,定州市晟坤金属制品有限公司变压器","powerOffReason":"【停电原因】由于小章村村委会变压器烧毁导致１１０ＫＶ李亲顾变电站１０ＫＶ５１１高蓬线路全线停电 【变更送电】因抢修进度加快原因，送电时间由１８：００变更为１１：３０ 【发布渠道】９５５９８","powerOffId":"2018060513000226"},{"poweroffId":2018060513000209,"sgpoweroffId":null,"subsName":"","lineName":"10KV东陶516","pubTranName":"东城坊村内东煤增,","scope":"【影响街道/乡镇】东城坊镇 【高危重要客户】无 【影响客户】东城坊村","startTime":"2018-06-14 07:30:00","stopDate":"2018-06-14 19:00:00","orgNo":"1340626","typeCode":"计划停电","poweroffArea":"【单台区停电】停东城坊村内东煤增","poweroffReason":"【停电原因】由于煤改电工程导致３５ＫＶ东城坊变电站１０ＫＶ东陶５１６线路东城坊村内东煤增公变台区停电 【变更送电】无 【发布渠道】涿州电视台（０６月０５日至０６月１３日２１：００播放２次）屏幕上方滚动","powerTime":"2018-06-14 18:40:18","powerComm":"恢复送电","subsNo":"","lineNo":"","tgNo":"","tgName":null,"infoStatus":"1","orgName":"国网涿州市供电公司","typeName":null,"infoStatusName":null,"dateDay":null,"orgNos":null,"nowTime":null,"countyName":null,"streetName":null,"villageName":null,"roadName":null,"communityName":null,"tranName":null,"sdLineName":null,"cityCode":"1340626","cityName":"国网涿州市供电公司","provinceCode":null,"stopTime":"2018-06-14 19:00:00","powerType":"全部","powerOffArea":"【单台区停电】停东城坊村内东煤增","powerOffReason":"【停电原因】由于煤改电工程导致３５ＫＶ东城坊变电站１０ＫＶ东陶５１６线路东城坊村内东煤增公变台区停电 【变更送电】无 【发布渠道】涿州电视台（０６月０５日至０６月１３日２１：００播放２次）屏幕上方滚动","powerOffId":"2018060513000209"},{"poweroffId":2018060513000197,"sgpoweroffId":null,"subsName":"","lineName":"10KV长空路518","pubTranName":"涿州市宏远房地产开发有限公司1,物资局小区（新）,生产公司,涿州市鑫昊汇元集团房地产开发有限公司2,涿州市时代汇元物业服务有限公司,企业局,市政设施管理处,粮食局东库小区（新）【纯农排变】,涿州市双塔街道办事处东关社区居民委员会,涿州市飞腾房地产开发有限公司2,涿州市广远物业服务有限公司,联合小区4号院,龙马铝业集团有限公司变压器,涿州市宏远房地产开发有限公司3,宏远房地产,应化研究所,东关新村小区,清凉寺卫生院（煤）,燃料公司(燃料小区),邱庄250(4),长空路南段公变(新),9715家属院（新）,长空路北段公用（新）,涿州市宏远房地产开发有限公司2,西辛庄0440,0387557106-涿州市宏远小区-专变-45356484-涿州市宏远小区,中国石油化工股份有限公司河北涿州石油分公,涿州市物资燃料股份合作公司,涿州市飞腾房地产开发有限公司1,农畜局家属院（新）【纯农排变】,涿州市博豪物业服务有限公司,土地局,涿州市梓通清洗有限公司,西河建筑队,0589046635-涿州市名流物业服务有限公司-专变-125417909-河北省汲涿州远方名流房地产开发有限公司,东关新村温馨小区,建材公司,涿州市鑫昊汇元集团房地产开发有限公司1,涿州市京热热力有限责任公司,三合庄南地变压器,北京供电段,设计院,华欣小区（新）,市政公司(宏远小区),涿州市市政设施管理处,","scope":"【影响街道/乡镇】清凉寺城区教军场街、建设路 【高危重要客户】无 【影响客户】物资局小区、９４家属院、华欣小区、西辛庄、农畜局家属院、建材公司、西河建筑队、东关新村小区、粮局东库小区、联合小区４号院、烟酒公司、第二中心医院、东关社区居民委员会、燃料公司小区、仙颐园、温馨小区、市政设施管理处、土地局、邱庄、企业局、设计院、和谐家园、交警家园、农业银行、时代汇元、宏远小区、碧罗湾、三合庄","startTime":"2018-06-14 08:00:00","stopDate":"2018-06-14 19:00:00","orgNo":"1340626","typeCode":"计划停电","poweroffArea":"【全线路停电】停9715家属院（新）,涿州市广远物业服务有限公司,北京供电段,涿州市京热热力有限责任公司,涿州市时代汇元物业服务有限公司,三合庄南地变压器,涿州市宏远房地产开发有限公司1,西河建筑队,建材公司,龙马铝业集团有限公司变压器,涿州市物资燃料股份合作公司,设计院,应化研究所,企业局,涿州市宏远房地产开发有限公司2,中国石油化工股份有限公司河北涿州石油分公,农畜局家属院（新）【纯农排变】,燃料公司(燃料小区),涿州市宏远房地产开发有限公司3,土地局,涿州市市政设施管理处,西辛庄0440,长空路南段公变(新),生产公司,物资局小区（新）,市政设施管理处,0589046635-涿州市名流物业服务有限公司-专变-125417909-河北省汲涿州远方名流房地产开发有限公司,东关新村小区,清凉寺卫生院（煤）,0387557106-涿州市宏远小区-专变-45356484-涿州市宏远小区,粮食局东库小区（新）【纯农排变】,市政公司(宏远小区),涿州市鑫昊汇元集团房地产开发有限公司2,联合小区4号院,邱庄250(4),宏远房地产,涿州市双塔街道办事处东关社区居民委员会,东关新村温馨小区,涿州市梓通清洗有限公司,涿州市飞腾房地产开发有限公司1,长空路北段公用（新）,华欣小区（新）,涿州市飞腾房地产开发有限公司2,涿州市鑫昊汇元集团房地产开发有限公司1,涿州市博豪物业服务有限公司","poweroffReason":"【停电原因】由于线路切改、煤改电工程导致３５ＫＶ南河变电站１０ＫＶ长空路５１８线路全线停电 【变更送电】无 【发布渠道】涿州电视台（０６月０５日至０６月１３日２１：００播放２次）屏幕上方滚动","powerTime":"2018-06-14 18:12:50","powerComm":"恢复送电","subsNo":"","lineNo":"","tgNo":"","tgName":null,"infoStatus":"1","orgName":"国网涿州市供电公司","typeName":null,"infoStatusName":null,"dateDay":null,"orgNos":null,"nowTime":null,"countyName":null,"streetName":null,"villageName":null,"roadName":null,"communityName":null,"tranName":null,"sdLineName":null,"cityCode":"1340626","cityName":"国网涿州市供电公司","provinceCode":null,"stopTime":"2018-06-14 19:00:00","powerType":"全部","powerOffArea":"【全线路停电】停9715家属院（新）,涿州市广远物业服务有限公司,北京供电段,涿州市京热热力有限责任公司,涿州市时代汇元物业服务有限公司,三合庄南地变压器,涿州市宏远房地产开发有限公司1,西河建筑队,建材公司,龙马铝业集团有限公司变压器,涿州市物资燃料股份合作公司,设计院,应化研究所,企业局,涿州市宏远房地产开发有限公司2,中国石油化工股份有限公司河北涿州石油分公,农畜局家属院（新）【纯农排变】,燃料公司(燃料小区),涿州市宏远房地产开发有限公司3,土地局,涿州市市政设施管理处,西辛庄0440,长空路南段公变(新),生产公司,物资局小区（新）,市政设施管理处,0589046635-涿州市名流物业服务有限公司-专变-125417909-河北省汲涿州远方名流房地产开发有限公司,东关新村小区,清凉寺卫生院（煤）,0387557106-涿州市宏远小区-专变-45356484-涿州市宏远小区,粮食局东库小区（新）【纯农排变】,市政公司(宏远小区),涿州市鑫昊汇元集团房地产开发有限公司2,联合小区4号院,邱庄250(4),宏远房地产,涿州市双塔街道办事处东关社区居民委员会,东关新村温馨小区,涿州市梓通清洗有限公司,涿州市飞腾房地产开发有限公司1,长空路北段公用（新）,华欣小区（新）,涿州市飞腾房地产开发有限公司2,涿州市鑫昊汇元集团房地产开发有限公司1,涿州市博豪物业服务有限公司","powerOffReason":"【停电原因】由于线路切改、煤改电工程导致３５ＫＶ南河变电站１０ＫＶ长空路５１８线路全线停电 【变更送电】无 【发布渠道】涿州电视台（０６月０５日至０６月１３日２１：００播放２次）屏幕上方滚动","powerOffId":"2018060513000197"},{"poweroffId":2018060513000196,"sgpoweroffId":null,"subsName":"","lineName":"田家庄583","pubTranName":"田家庄2659变压器,三里庄4747变压器,田家庄2178变压器,三里庄1355变压器【纯农排变】,屯村2158变压器【纯农排变】,三里庄4748变压器【纯农排变】,田家庄0663变压器,田家庄3105变压器,东屯村0685变压器,三里庄2166变压器【纯农排变】,","scope":"【影响街道/乡镇】长古城乡【高危重要客户】无【影响客户】田家庄、三里庄、东屯村","startTime":"2018-06-15 06:30:00","stopDate":"2018-06-15 19:00:00","orgNo":"1340622","typeCode":"计划停电","poweroffArea":"【分支停电】停三里庄4748变压器【纯农排变】,田家庄2659变压器,田家庄2178变压器,田家庄0663变压器,田家庄3105变压器,东屯村0685变压器,三里庄4747变压器,三里庄1355变压器【纯农排变】,三里庄2166变压器【纯农排变】,屯村2158变压器【纯农排变】","poweroffReason":"【停电原因】由于更换导线导致１１０ＫＶ拔茄变电站田家庄５８３线路７９号杆隔离开关以下线路停电【变更送电】因工作进度加快，送电时间由２０：００变更为１９：００【发布渠道】保定市唐县电视台（６月５日至６月１４日的２０：００时至２０：３０时之间）屏幕上方滚动字幕","powerTime":"2018-06-15 18:36:49","powerComm":"已送电","subsNo":"","lineNo":"","tgNo":"","tgName":null,"infoStatus":"1","orgName":"国网唐县供电公司","typeName":null,"infoStatusName":null,"dateDay":null,"orgNos":null,"nowTime":null,"countyName":null,"streetName":null,"villageName":null,"roadName":null,"communityName":null,"tranName":null,"sdLineName":null,"cityCode":"1340622","cityName":"国网唐县供电公司","provinceCode":null,"stopTime":"2018-06-15 19:00:00","powerType":"全部","powerOffArea":"【分支停电】停三里庄4748变压器【纯农排变】,田家庄2659变压器,田家庄2178变压器,田家庄0663变压器,田家庄3105变压器,东屯村0685变压器,三里庄4747变压器,三里庄1355变压器【纯农排变】,三里庄2166变压器【纯农排变】,屯村2158变压器【纯农排变】","powerOffReason":"【停电原因】由于更换导线导致１１０ＫＶ拔茄变电站田家庄５８３线路７９号杆隔离开关以下线路停电【变更送电】因工作进度加快，送电时间由２０：００变更为１９：００【发布渠道】保定市唐县电视台（６月５日至６月１４日的２０：００时至２０：３０时之间）屏幕上方滚动字幕","powerOffId":"2018060513000196"},{"poweroffId":2018060513000187,"sgpoweroffId":null,"subsName":"","lineName":"10kV513南许线","pubTranName":"百东农排12台区【纯农排变】,南许综合14台区,南许综合17台区,树理浇地,南许综合9台区,百东农17台【纯农排变】,蠡县盛强毛纺有限公司,高庄综合1台区,南许综合6台区,南许综合2台区,南许农排十二台区,线头加工开花厂,中国移动通信集团河北有限公司蠡县分公司,南许综合7台区,0617141804-蠡县南许二安化纤加工厂-专变-128570237-蠡县南许二安化纤加工厂变压器,南许农排11台区,南许村东浇地,南许综合21台区,百尺酱菜厂,南许烤鸭店,南许综合15台区,南许综合13台区,蠡县澳新纺织有限公司变压器,高庄综合3台区,南许综合20台区,益利毛纺厂变压器,南许综合1台区,南许综合8台区,0653453811-蠡县南许二安化纤加工厂-专变-183583595-蠡县南许二安化纤加工厂变压器,0664755083-中国石油天然气股份有限公司华北油田分公司-专变-202593684-中国石油天然气股份有限公司华北油田分公司变压器,南许农排8台区,绿生奶牛厂,百东综合12台区,南许梳绒厂,小豆,保定强胜水利工程有限公司（百尺所）变压器,南许综合4台区,南许农排六台区,百东农排13台区【纯农排变】,高庄农排1台区【纯农排变】,蠡县统力毛纺厂变压器,南许综合11台区,南许综合3台区,高庄综合2台区,南许水泥制板厂,南许综合12台区,百尺农排16台区【纯农排变】,立源毛纺厂,南许综合19台区,0681794595-蠡县南许二安化纤加工厂-专变-219745267-蠡县南许二安化纤加工厂变压器,蠡县正德养殖厂,保定利源毛纺织有限公司变压器,南许面粉厂,南许农排二台区,百中农排13台区【纯农排变】,棉线加工厂,0683759859-蠡县宏凯棉纺织厂-专变-223596485-蠡县宏凯棉纺织厂变压器,南许农排五台区,蠡县正德综合养猪场变压器,南许综合18台区,恒发毛纺厂,南许开花厂,南许综合10台区,南许综合16台区,南许综合5台区,","scope":"【影响街道/乡镇】大百尺镇【高危重要客户】无【影响客户】南许村、大百尺、高庄村、百东村","startTime":"2018-06-14 06:00:00","stopDate":"2018-06-14 19:30:00","orgNo":"1340616","typeCode":"计划停电","poweroffArea":"【全线路停电】停南许农排五台区,南许综合17台区,南许农排11台区,南许综合7台区,树理浇地,南许开花厂,高庄综合1台区,蠡县澳新纺织有限公司变压器,南许综合5台区,南许综合16台区,南许综合2台区,蠡县正德养殖厂,益利毛纺厂变压器,南许综合8台区,百东农排13台区【纯农排变】,小豆,立源毛纺厂,保定利源毛纺织有限公司变压器,南许村东浇地,百东综合12台区,保定强胜水利工程有限公司（百尺所）变压器,南许农排8台区,南许综合19台区,南许综合21台区,0617141804-蠡县南许二安化纤加工厂-专变-128570237-蠡县南许二安化纤加工厂变压器,高庄综合3台区,高庄农排1台区【纯农排变】,绿生奶牛厂,高庄综合2台区,南许梳绒厂,百尺酱菜厂,南许综合20台区,南许综合10台区,南许面粉厂,南许综合9台区,中国移动通信集团河北有限公司蠡县分公司,南许水泥制板厂,南许综合6台区,0681794595-蠡县南许二安化纤加工厂-专变-219745267-蠡县南许二安化纤加工厂变压器,百中农排13台区【纯农排变】,百东农17台【纯农排变】,南许农排十二台区,蠡县统力毛纺厂变压器,南许综合4台区,南许综合12台区,恒发毛纺厂,百东农排12台区【纯农排变】,线头加工开花厂,0653453811-蠡县南许二安化纤加工厂-专变-183583595-蠡县南许二安化纤加工厂变压器,南许烤鸭店,南许综合18台区,南许农排六台区,南许农排二台区,蠡县正德综合养猪场变压器,南许综合1台区,蠡县盛强毛纺有限公司,棉线加工厂,南许综合11台区,0664755083-中国石油天然气股份有限公司华北油田分公司-专变-202593684-中国石油天然气股份有限公司华北油田分公司变压器,南许综合3台区,南许综合15台区,南许综合14台区,0683759859-蠡县宏凯棉纺织厂-专变-223596485-蠡县宏凯棉纺织厂变压器,百尺农排16台区【纯农排变】,南许综合13台区","poweroffReason":"【停电原因】由于更换电杆、更换导线导致３５ＫＶ百尺变电站１０ＫＶ南许５１３线路全线停电【变更送电】无【发布渠道】蠡县电视台（２０１８年０６月０５日至２０１８年０６月１３日２０：００至２２：００之间）屏幕上方滚动","powerTime":"2018-06-14 19:15:26","powerComm":"已送电","subsNo":"","lineNo":"","tgNo":"","tgName":null,"infoStatus":"1","orgName":"国网蠡县供电公司","typeName":null,"infoStatusName":null,"dateDay":null,"orgNos":null,"nowTime":null,"countyName":null,"streetName":null,"villageName":null,"roadName":null,"communityName":null,"tranName":null,"sdLineName":null,"cityCode":"1340616","cityName":"国网蠡县供电公司","provinceCode":null,"stopTime":"2018-06-14 19:30:00","powerType":"全部","powerOffArea":"【全线路停电】停南许农排五台区,南许综合17台区,南许农排11台区,南许综合7台区,树理浇地,南许开花厂,高庄综合1台区,蠡县澳新纺织有限公司变压器,南许综合5台区,南许综合16台区,南许综合2台区,蠡县正德养殖厂,益利毛纺厂变压器,南许综合8台区,百东农排13台区【纯农排变】,小豆,立源毛纺厂,保定利源毛纺织有限公司变压器,南许村东浇地,百东综合12台区,保定强胜水利工程有限公司（百尺所）变压器,南许农排8台区,南许综合19台区,南许综合21台区,0617141804-蠡县南许二安化纤加工厂-专变-128570237-蠡县南许二安化纤加工厂变压器,高庄综合3台区,高庄农排1台区【纯农排变】,绿生奶牛厂,高庄综合2台区,南许梳绒厂,百尺酱菜厂,南许综合20台区,南许综合10台区,南许面粉厂,南许综合9台区,中国移动通信集团河北有限公司蠡县分公司,南许水泥制板厂,南许综合6台区,0681794595-蠡县南许二安化纤加工厂-专变-219745267-蠡县南许二安化纤加工厂变压器,百中农排13台区【纯农排变】,百东农17台【纯农排变】,南许农排十二台区,蠡县统力毛纺厂变压器,南许综合4台区,南许综合12台区,恒发毛纺厂,百东农排12台区【纯农排变】,线头加工开花厂,0653453811-蠡县南许二安化纤加工厂-专变-183583595-蠡县南许二安化纤加工厂变压器,南许烤鸭店,南许综合18台区,南许农排六台区,南许农排二台区,蠡县正德综合养猪场变压器,南许综合1台区,蠡县盛强毛纺有限公司,棉线加工厂,南许综合11台区,0664755083-中国石油天然气股份有限公司华北油田分公司-专变-202593684-中国石油天然气股份有限公司华北油田分公司变压器,南许综合3台区,南许综合15台区,南许综合14台区,0683759859-蠡县宏凯棉纺织厂-专变-223596485-蠡县宏凯棉纺织厂变压器,百尺农排16台区【纯农排变】,南许综合13台区","powerOffReason":"【停电原因】由于更换电杆、更换导线导致３５ＫＶ百尺变电站１０ＫＶ南许５１３线路全线停电【变更送电】无【发布渠道】蠡县电视台（２０１８年０６月０５日至２０１８年０６月１３日２０：００至２２：００之间）屏幕上方滚动","powerOffId":"2018060513000187"},{"poweroffId":2018060513000184,"sgpoweroffId":null,"subsName":"","lineName":"10KV建设路557","pubTranName":"吉祥胡同(新),西辛庄3612,十八局三处家属院,","scope":"【影响街道/乡镇】清凉寺城区 【高危重要客户】无 【影响客户】十八局家属院、吉祥胡同社区、西辛庄村","startTime":"2018-06-14 08:00:00","stopDate":"2018-06-14 19:00:00","orgNo":"1340626","typeCode":"计划停电","poweroffArea":"【分支停电】停吉祥胡同(新),西辛庄3612,十八局三处家属院","poweroffReason":"【停电原因】由于更换导线、煤改电工程导致１１０ＫＶ安泰变电站１０ＫＶ建设路５５７线路十八局分支０１号杆以下线路停电 【变更送电】无 【发布渠道】涿州电视台（０６月０５日至０６月１３日２１：００播放２次）屏幕上方滚动","powerTime":"2018-06-14 18:12:15","powerComm":"恢复送电","subsNo":"","lineNo":"","tgNo":"","tgName":null,"infoStatus":"1","orgName":"国网涿州市供电公司","typeName":null,"infoStatusName":null,"dateDay":null,"orgNos":null,"nowTime":null,"countyName":null,"streetName":null,"villageName":null,"roadName":null,"communityName":null,"tranName":null,"sdLineName":null,"cityCode":"1340626","cityName":"国网涿州市供电公司","provinceCode":null,"stopTime":"2018-06-14 19:00:00","powerType":"全部","powerOffArea":"【分支停电】停吉祥胡同(新),西辛庄3612,十八局三处家属院","powerOffReason":"【停电原因】由于更换导线、煤改电工程导致１１０ＫＶ安泰变电站１０ＫＶ建设路５５７线路十八局分支０１号杆以下线路停电 【变更送电】无 【发布渠道】涿州电视台（０６月０５日至０６月１３日２１：００播放２次）屏幕上方滚动","powerOffId":"2018060513000184"},{"poweroffId":2018060513000175,"sgpoweroffId":null,"subsName":"","lineName":"10kV514大柳树线","pubTranName":"荣营综合7台区变压器,大百尺农排19台区变压器【纯农排变】,蠡县大柳树小学变压器,蠡县佳康皮毛皮革制品有限公司,蠡县曙光羊毛洗涤制品厂变压器,荣营农排6台区【纯农排变】,大柳树综合4台区变压器,荣营综合6台区变压器,大百尺农排3台区变压器【纯农排变】,变压器,大百尺农排1台区变压器【纯农排变】,大百尺农排18变压器【纯农排变】,荣营综合11台区变压器,北界河综合5 变压器,荣营综合1台区变压器,北界河综合7台区变压器,北界河综合6台区变压器,向阳,大柳树农排7台区变压器【纯农排变】,北界村边南浇地,蠡县荣营小学变压器,蠡县北界河小学变压器,荣营农排2台区变压器【纯农排变】,荣营综合4台区变压器,大百尺农排17变压器【纯农排变】,大百尺农排2台区变压器【纯农排变】,大百尺农排20变压器【纯农排变】,荣营综合3台区变压器,驾校,北界河综合2台区变压器,大百尺农排5台区变压器【纯农排变】,荣营综合9台区变压器,北界河综合3台区变压器,大柳树农排1台区变压器【纯农排变】,南许砖厂,王平面粉厂,荣营农排十【纯农排变】,蠡县盛强毛纺有限公司变压器,东方洗毛厂,荣营农排3台区变压器【纯农排变】,大柳树农排2台区变压器【纯农排变】,东方羊毛加工厂,高蠡公路2#路灯,荣营农排5台区变压器【纯农排变】,南许砖厂西浇地,大柳树综合3台区变压器,西面粉厂,加油站,大柳树综合5台区变压器,大柳树毛纺厂,荣营农排4台区变压器【纯农排变】,客户投资_大柳树综合7台区变压器,大柳树综合2台区变压器,大柳树农排4台区变压器【纯农排变】,荣营农排七【纯农排变】,中国移动通信集团河北有限公司蠡县分公司,北界东南浇地,南许南浇地,南许中兴,大百尺综合11台区,蠡县帅浩加油站,大百尺农排23台区变压器【纯农排变】,南许四片浇地,蠡县瑞普华皮毛皮革有限公司变压器,大柳树农排3台区变压器【纯农排变】,荣营农排8台区变压器【纯农排变】,北界河农排8台区变压器【纯农排变】,北界村边西浇地,北界村西浇地,荣营农排9台区变压器【纯农排变】,大柳树农排6台区变压器【纯农排变】,北界村东浇地,大柳树矿棉厂,加油站浇地,蠡县南许羊毛加工厂变压器315,客户投资_大柳树综合6台区变压器,大柳树综合1台区变压器,蠡县南许羊毛加工厂变压器250,大柳树农排5台区【纯农排变】,高蠡公路3#路灯,荣营综合2台区变压器,荣营综合5台区变压器,北界河综合8台区变压器,蠡县宇峰新型建材厂变压器,北界河综合1台区变压器,大百尺农排4台区变压器【纯农排变】,北界河综合4台区变压器,荣营综合8台区变压器,北界村村南浇地,荣营农排1变压器【纯农排变】,","scope":"【影响街道/乡镇】大百尺镇【高危重要客户】无【影响客户】南许村、大柳树村、荣家营村（荣营）、大百尺村、北界河村、工业区","startTime":"2018-06-14 06:00:00","stopDate":"2018-06-14 19:30:00","orgNo":"1340616","typeCode":"计划停电","poweroffArea":"【全线路停电】停荣营综合7台区变压器,大百尺农排23台区变压器【纯农排变】,大百尺农排19台区变压器【纯农排变】,南许四片浇地,大百尺农排3台区变压器【纯农排变】,荣营综合4台区变压器,变压器,大百尺农排17变压器【纯农排变】,大百尺农排2台区变压器【纯农排变】,荣营综合2台区变压器,荣营综合5台区变压器,北界河综合8台区变压器,蠡县宇峰新型建材厂变压器,北界河综合1台区变压器,大百尺农排4台区变压器【纯农排变】,大百尺农排20变压器【纯农排变】,北界河综合4台区变压器,荣营综合3台区变压器,荣营综合8台区变压器,驾校,北界村村南浇地,北界河综合2台区变压器,大百尺农排1台区变压器【纯农排变】,大百尺农排18变压器【纯农排变】,大百尺农排5台区变压器【纯农排变】,荣营综合11台区变压器,北界河综合5 变压器,荣营综合1台区变压器,荣营综合9台区变压器,北界河综合3台区变压器,北界河综合7台区变压器,北界河综合6台区变压器,向阳,大柳树农排1台区变压器【纯农排变】,荣营农排1变压器【纯农排变】,南许砖厂,王平面粉厂,荣营农排十【纯农排变】,蠡县盛强毛纺有限公司变压器,蠡县大柳树小学变压器,蠡县佳康皮毛皮革制品有限公司,东方洗毛厂,蠡县曙光羊毛洗涤制品厂变压器,荣营农排3台区变压器【纯农排变】,大柳树农排7台区变压器【纯农排变】,大柳树农排2台区变压器【纯农排变】,东方羊毛加工厂,高蠡公路2#路灯,荣营农排5台区变压器【纯农排变】,荣营农排6台区【纯农排变】,南许砖厂西浇地,大柳树综合3台区变压器,西面粉厂,加油站,大柳树综合5台区变压器,北界村边南浇地,大柳树毛纺厂,蠡县荣营小学变压器,蠡县北界河小学变压器,荣营农排2台区变压器【纯农排变】,荣营农排4台区变压器【纯农排变】,高蠡公路3#路灯,大柳树农排5台区【纯农排变】,客户投资_大柳树综合7台区变压器,蠡县瑞普华皮毛皮革有限公司变压器,大柳树农排3台区变压器【纯农排变】,荣营农排8台区变压器【纯农排变】,北界河农排8台区变压器【纯农排变】,大柳树综合2台区变压器,北界村边西浇地,北界村西浇地,荣营农排9台区变压器【纯农排变】,大柳树农排4台区变压器【纯农排变】,荣营农排七【纯农排变】,中国移动通信集团河北有限公司蠡县分公司,大柳树农排6台区变压器【纯农排变】,北界东南浇地,北界村东浇地,大柳树矿棉厂,加油站浇地,蠡县南许羊毛加工厂变压器315,南许南浇地,客户投资_大柳树综合6台区变压器,大柳树综合1台区变压器,南许中兴,蠡县南许羊毛加工厂变压器250,大百尺综合11台区,蠡县帅浩加油站,大柳树综合4台区变压器,荣营综合6台区变压器","poweroffReason":"【停电原因】由于更换导线、更换电杆导致３５ＫＶ百尺变电站１０ＫＶ大柳树５１４线路全线路停电【变更送电】无【发布渠道】蠡县电视台（２０１８年０６月０５日至２０１８年０６月１３日２０：００至２２：００之间）","powerTime":"2018-06-14 19:15:45","powerComm":"已送电","subsNo":"","lineNo":"","tgNo":"","tgName":null,"infoStatus":"1","orgName":"国网蠡县供电公司","typeName":null,"infoStatusName":null,"dateDay":null,"orgNos":null,"nowTime":null,"countyName":null,"streetName":null,"villageName":null,"roadName":null,"communityName":null,"tranName":null,"sdLineName":null,"cityCode":"1340616","cityName":"国网蠡县供电公司","provinceCode":null,"stopTime":"2018-06-14 19:30:00","powerType":"全部","powerOffArea":"【全线路停电】停荣营综合7台区变压器,大百尺农排23台区变压器【纯农排变】,大百尺农排19台区变压器【纯农排变】,南许四片浇地,大百尺农排3台区变压器【纯农排变】,荣营综合4台区变压器,变压器,大百尺农排17变压器【纯农排变】,大百尺农排2台区变压器【纯农排变】,荣营综合2台区变压器,荣营综合5台区变压器,北界河综合8台区变压器,蠡县宇峰新型建材厂变压器,北界河综合1台区变压器,大百尺农排4台区变压器【纯农排变】,大百尺农排20变压器【纯农排变】,北界河综合4台区变压器,荣营综合3台区变压器,荣营综合8台区变压器,驾校,北界村村南浇地,北界河综合2台区变压器,大百尺农排1台区变压器【纯农排变】,大百尺农排18变压器【纯农排变】,大百尺农排5台区变压器【纯农排变】,荣营综合11台区变压器,北界河综合5 变压器,荣营综合1台区变压器,荣营综合9台区变压器,北界河综合3台区变压器,北界河综合7台区变压器,北界河综合6台区变压器,向阳,大柳树农排1台区变压器【纯农排变】,荣营农排1变压器【纯农排变】,南许砖厂,王平面粉厂,荣营农排十【纯农排变】,蠡县盛强毛纺有限公司变压器,蠡县大柳树小学变压器,蠡县佳康皮毛皮革制品有限公司,东方洗毛厂,蠡县曙光羊毛洗涤制品厂变压器,荣营农排3台区变压器【纯农排变】,大柳树农排7台区变压器【纯农排变】,大柳树农排2台区变压器【纯农排变】,东方羊毛加工厂,高蠡公路2#路灯,荣营农排5台区变压器【纯农排变】,荣营农排6台区【纯农排变】,南许砖厂西浇地,大柳树综合3台区变压器,西面粉厂,加油站,大柳树综合5台区变压器,北界村边南浇地,大柳树毛纺厂,蠡县荣营小学变压器,蠡县北界河小学变压器,荣营农排2台区变压器【纯农排变】,荣营农排4台区变压器【纯农排变】,高蠡公路3#路灯,大柳树农排5台区【纯农排变】,客户投资_大柳树综合7台区变压器,蠡县瑞普华皮毛皮革有限公司变压器,大柳树农排3台区变压器【纯农排变】,荣营农排8台区变压器【纯农排变】,北界河农排8台区变压器【纯农排变】,大柳树综合2台区变压器,北界村边西浇地,北界村西浇地,荣营农排9台区变压器【纯农排变】,大柳树农排4台区变压器【纯农排变】,荣营农排七【纯农排变】,中国移动通信集团河北有限公司蠡县分公司,大柳树农排6台区变压器【纯农排变】,北界东南浇地,北界村东浇地,大柳树矿棉厂,加油站浇地,蠡县南许羊毛加工厂变压器315,南许南浇地,客户投资_大柳树综合6台区变压器,大柳树综合1台区变压器,南许中兴,蠡县南许羊毛加工厂变压器250,大百尺综合11台区,蠡县帅浩加油站,大柳树综合4台区变压器,荣营综合6台区变压器","powerOffReason":"【停电原因】由于更换导线、更换电杆导致３５ＫＶ百尺变电站１０ＫＶ大柳树５１４线路全线路停电【变更送电】无【发布渠道】蠡县电视台（２０１８年０６月０５日至２０１８年０６月１３日２０：００至２２：００之间）","powerOffId":"2018060513000175"}],"pageModel":{"pageNow":1038,"totalCount":10973,"totalPage":1098,"tableRows":0,"pageCount":10,"beginCount":10370},"isExperi":"1"}