{"message":"","today":"2020-06-15","seleList":[{"poweroffId":2018060413000096,"sgpoweroffId":null,"subsName":"","lineName":"10kV樊庄线567","pubTranName":"1白城二村内3,2白城二村外3【纯农排变】,1西白城内3,2西白城外4【纯农排变】,2张庄外7【纯农排变】,2白城五村外8【纯农排变】,2白城五村外2【纯农排变】,2白城三村外7【纯农排变】,2白城五村外4【纯农排变】,2张庄外5【纯农排变】,1张庄内4,1白城一村内1,2樊庄外10【纯农排变】,2西白城外3【纯农排变】,1白城一村内2,2白城五村外1【纯农排变】,1西白城内2,白城四村南2,2西白城外7【纯农排变】,2张庄外4【纯农排变】,2白城三村外3【纯农排变】,2西白城外8【纯农排变】,2白城三村外1【纯农排变】,2西白城外2【纯农排变】,1白城二村内1,李铁良,1张庄内6,2樊庄外9【纯农排变】,1白城四村内1,2白城一村外1【纯农排变】,1张庄内5,2白城三村外5【纯农排变】,1白城五村内3,2张庄外8（纯农排）,1樊庄内4,2樊庄外3【纯农排变】,2白城二村外2【纯农排变】,2白城五村外5【纯农排变】,1白城三村内5,白城四村西南,2白城二村外6【纯农排变】,2白城三村外4【纯农排变】,1张庄内2,1白城三村内2,祥和家园,白城四大队村西,1张庄内3,2白城三村外6【纯农排变】,1白城三村内3,白城四村南1,2樊庄外4【纯农排变】,1白城三村内4,2张庄外3【纯农排变】,1白城二村内2,1樊庄内3,2白城五村外7【纯农排变】,白城四村村西,2白城二村外7【纯农排变】,2西白城外1【纯农排变】,1西白城内1,2樊庄外1【纯农排变】,2白城二村外4【纯农排变】,1白城四村内2,2白城五村外6【纯农排变】,2西白城外5【纯农排变】,1张庄内1,2张庄外1【纯农排变】,1白城三村内1,客户投资_1樊庄内1,2樊庄外2【纯农排变】,2樊庄外7【纯农排变】,1白城五村内2,2白城二村外1【纯农排变】,1白城五村内1,2张庄外6【纯农排变】,1樊庄内2,1白城三村内6,2樊庄外8【纯农排变】,2白城三村外2【纯农排变】,2樊庄外5【纯农排变】,2张庄外2【纯农排变】,2白城五村外3【纯农排变】,2西白城外6【纯农排变】,2白城一村外2【纯农排变】,","scope":"【影响街道/乡镇】白团乡、魏村镇 【高危重要客户】无 【影响客户】白城一村、白城二村、白城三村、白城四村、白城五村、西白城、樊庄、张庄","startTime":"2018-06-13 05:30:00","stopDate":"2018-06-13 21:30:00","orgNo":"1340618","typeCode":"计划停电","poweroffArea":"【全线路停电】停2白城三村外4【纯农排变】,2张庄外3【纯农排变】,1白城二村内2,2白城三村外3【纯农排变】,2西白城外8【纯农排变】,2白城二村外3【纯农排变】,1张庄内1,1樊庄内3,2樊庄外1【纯农排变】,1白城一村内2,1白城二村内1,李铁良,1白城三村内5,1张庄内3,2白城三村外6【纯农排变】,白城四村西南,2白城五村外4【纯农排变】,1白城三村内6,2樊庄外8【纯农排变】,2张庄外5【纯农排变】,1西白城内1,2白城二村外4【纯农排变】,2张庄外8（纯农排）,2白城二村外1【纯农排变】,1樊庄内4,1张庄内4,2白城五村外1【纯农排变】,1白城五村内1,1白城四村内1,2樊庄外3【纯农排变】,2白城三村外1【纯农排变】,1西白城内2,1张庄内5,2樊庄外10【纯农排变】,2白城一村外1【纯农排变】,1白城五村内3,2白城三村外5【纯农排变】,2白城三村外2【纯农排变】,1白城三村内3,2白城二村外6【纯农排变】,2樊庄外5【纯农排变】,2张庄外2【纯农排变】,1张庄内2,白城四村南1,2西白城外3【纯农排变】,1白城一村内1,1张庄内6,2樊庄外4【纯农排变】,1白城三村内4,2樊庄外9【纯农排变】,2张庄外6【纯农排变】,2白城五村外3【纯农排变】,2西白城外2【纯农排变】,2白城二村外2【纯农排变】,2西白城外6【纯农排变】,2白城五村外5【纯农排变】,2白城一村外2【纯农排变】,1樊庄内2,1白城二村内3,1西白城内3,2白城五村外6【纯农排变】,1白城三村内2,2西白城外5【纯农排变】,祥和家园,1白城四村内2,2西白城外4【纯农排变】,2张庄外1【纯农排变】,白城四村南2,2白城五村外7【纯农排变】,2张庄外7【纯农排变】,1白城三村内1,2西白城外7【纯农排变】,白城四村村西,2张庄外4【纯农排变】,2白城五村外8【纯农排变】,客户投资_1樊庄内1,2白城五村外2【纯农排变】,2白城二村外7【纯农排变】,2白城三村外7【纯农排变】,2樊庄外2【纯农排变】,2西白城外1【纯农排变】,2樊庄外7【纯农排变】,白城四大队村西,1白城五村内2","poweroffReason":"【停电原因】由于线路秋冬季重过载设备治理工程导致１１０ＫＶ罗侯变电站１０ＫＶ樊庄线５６７线路全线停电 【变更送电】无 【发布渠道】保定市清苑区电视台（２０１８年０６月０５日１９时至２０１８年０６月１２日２０时之间）屏幕上方滚动","powerTime":"2018-06-13 20:32:31","powerComm":"已送电","subsNo":"","lineNo":"","tgNo":"","tgName":null,"infoStatus":"1","orgName":"国网清苑县供电公司","typeName":null,"infoStatusName":null,"dateDay":null,"orgNos":null,"nowTime":null,"countyName":null,"streetName":null,"villageName":null,"roadName":null,"communityName":null,"tranName":null,"sdLineName":null,"cityCode":"1340618","cityName":"国网清苑县供电公司","provinceCode":null,"stopTime":"2018-06-13 21:30:00","powerType":"全部","powerOffArea":"【全线路停电】停2白城三村外4【纯农排变】,2张庄外3【纯农排变】,1白城二村内2,2白城三村外3【纯农排变】,2西白城外8【纯农排变】,2白城二村外3【纯农排变】,1张庄内1,1樊庄内3,2樊庄外1【纯农排变】,1白城一村内2,1白城二村内1,李铁良,1白城三村内5,1张庄内3,2白城三村外6【纯农排变】,白城四村西南,2白城五村外4【纯农排变】,1白城三村内6,2樊庄外8【纯农排变】,2张庄外5【纯农排变】,1西白城内1,2白城二村外4【纯农排变】,2张庄外8（纯农排）,2白城二村外1【纯农排变】,1樊庄内4,1张庄内4,2白城五村外1【纯农排变】,1白城五村内1,1白城四村内1,2樊庄外3【纯农排变】,2白城三村外1【纯农排变】,1西白城内2,1张庄内5,2樊庄外10【纯农排变】,2白城一村外1【纯农排变】,1白城五村内3,2白城三村外5【纯农排变】,2白城三村外2【纯农排变】,1白城三村内3,2白城二村外6【纯农排变】,2樊庄外5【纯农排变】,2张庄外2【纯农排变】,1张庄内2,白城四村南1,2西白城外3【纯农排变】,1白城一村内1,1张庄内6,2樊庄外4【纯农排变】,1白城三村内4,2樊庄外9【纯农排变】,2张庄外6【纯农排变】,2白城五村外3【纯农排变】,2西白城外2【纯农排变】,2白城二村外2【纯农排变】,2西白城外6【纯农排变】,2白城五村外5【纯农排变】,2白城一村外2【纯农排变】,1樊庄内2,1白城二村内3,1西白城内3,2白城五村外6【纯农排变】,1白城三村内2,2西白城外5【纯农排变】,祥和家园,1白城四村内2,2西白城外4【纯农排变】,2张庄外1【纯农排变】,白城四村南2,2白城五村外7【纯农排变】,2张庄外7【纯农排变】,1白城三村内1,2西白城外7【纯农排变】,白城四村村西,2张庄外4【纯农排变】,2白城五村外8【纯农排变】,客户投资_1樊庄内1,2白城五村外2【纯农排变】,2白城二村外7【纯农排变】,2白城三村外7【纯农排变】,2樊庄外2【纯农排变】,2西白城外1【纯农排变】,2樊庄外7【纯农排变】,白城四大队村西,1白城五村内2","powerOffReason":"【停电原因】由于线路秋冬季重过载设备治理工程导致１１０ＫＶ罗侯变电站１０ＫＶ樊庄线５６７线路全线停电 【变更送电】无 【发布渠道】保定市清苑区电视台（２０１８年０６月０５日１９时至２０１８年０６月１２日２０时之间）屏幕上方滚动","powerOffId":"2018060413000096"},{"poweroffId":2018060413000095,"sgpoweroffId":null,"subsName":"","lineName":"10kV田庄线568","pubTranName":"2李罗候外4【纯农排变】,1武罗候内5,2李罗候外8【纯农排变】,1田庄内4,2田庄外5【纯农排变】,2李罗候外2【纯农排变】,1李罗候内7,2田庄外10【纯农排变】,1李罗候内4,1李罗候内2,2李罗候外5【纯农排变】,1田庄内1,1田庄内6,1田庄内7,1田庄内3,2田庄外2【纯农排变】,1李罗候内6,2田庄外1【纯农排变】,1田庄内2,清苑县光荣院,2史庄外2【纯农排变】,2李罗候外3【纯农排变】,1史庄内1,2李罗候外6【纯农排变】,1田庄内5,2田庄外9【纯农排变】,2田庄外4【纯农排变】,2田庄外3【纯农排变】,2武罗候外9【纯农排变】,2田庄外6【纯农排变】,2武罗候外8【纯农排变】,1李罗候内1,2田庄外11【纯农排变】,1李罗候内3,2田庄外7【纯农排变】,2李罗候外7【纯农排变】,保定市清苑区光荣院,1李罗候内5,清苑县光明热浸线路金具厂,2田庄外8【纯农排变】,","scope":"【影响街道/乡镇】魏村乡 【高危重要客户】无 【影响客户】魏村南街村、魏村西街村、田庄、武罗候、史庄、李罗候","startTime":"2018-06-13 05:30:00","stopDate":"2018-06-13 18:40:00","orgNo":"1340618","typeCode":"计划停电","poweroffArea":"【全线路停电】停1田庄内4,1田庄内2,2田庄外2【纯农排变】,2武罗候外8【纯农排变】,1李罗候内1,清苑县光明热浸线路金具厂,2武罗候外9【纯农排变】,1田庄内1,1李罗候内2,2田庄外3【纯农排变】,保定市清苑区光荣院,2李罗候外7【纯农排变】,2田庄外5【纯农排变】,1李罗候内4,2史庄外2【纯农排变】,1田庄内3,2田庄外10【纯农排变】,2田庄外4【纯农排变】,1李罗候内3,2田庄外8【纯农排变】,2李罗候外3【纯农排变】,1李罗候内7,2李罗候外4【纯农排变】,2田庄外11【纯农排变】,1李罗候内6,1武罗候内5,2李罗候外2【纯农排变】,1史庄内1,1田庄内7,2田庄外6【纯农排变】,2田庄外7【纯农排变】,清苑县光荣院,1田庄内6,2田庄外9【纯农排变】,1田庄内5,1李罗候内5,2李罗候外5【纯农排变】,2田庄外1【纯农排变】,2李罗候外8【纯农排变】,2李罗候外6【纯农排变】","poweroffReason":"【停电原因】由于线路重过载治理工程导致１１０ＫＶ罗侯变电站１０ＫＶ田庄线５６８线路全线停电 【变更送电】因计划工作进度加快原因，送电时间由２１：３０变更为１８：４０ 【发布渠道】保定市清苑区电视台（０６月０５日１９时至０６月１２日２０时之间）屏幕上方滚动","powerTime":"2018-06-13 17:43:39","powerComm":"已送电","subsNo":"","lineNo":"","tgNo":"","tgName":null,"infoStatus":"1","orgName":"国网清苑县供电公司","typeName":null,"infoStatusName":null,"dateDay":null,"orgNos":null,"nowTime":null,"countyName":null,"streetName":null,"villageName":null,"roadName":null,"communityName":null,"tranName":null,"sdLineName":null,"cityCode":"1340618","cityName":"国网清苑县供电公司","provinceCode":null,"stopTime":"2018-06-13 18:40:00","powerType":"全部","powerOffArea":"【全线路停电】停1田庄内4,1田庄内2,2田庄外2【纯农排变】,2武罗候外8【纯农排变】,1李罗候内1,清苑县光明热浸线路金具厂,2武罗候外9【纯农排变】,1田庄内1,1李罗候内2,2田庄外3【纯农排变】,保定市清苑区光荣院,2李罗候外7【纯农排变】,2田庄外5【纯农排变】,1李罗候内4,2史庄外2【纯农排变】,1田庄内3,2田庄外10【纯农排变】,2田庄外4【纯农排变】,1李罗候内3,2田庄外8【纯农排变】,2李罗候外3【纯农排变】,1李罗候内7,2李罗候外4【纯农排变】,2田庄外11【纯农排变】,1李罗候内6,1武罗候内5,2李罗候外2【纯农排变】,1史庄内1,1田庄内7,2田庄外6【纯农排变】,2田庄外7【纯农排变】,清苑县光荣院,1田庄内6,2田庄外9【纯农排变】,1田庄内5,1李罗候内5,2李罗候外5【纯农排变】,2田庄外1【纯农排变】,2李罗候外8【纯农排变】,2李罗候外6【纯农排变】","powerOffReason":"【停电原因】由于线路重过载治理工程导致１１０ＫＶ罗侯变电站１０ＫＶ田庄线５６８线路全线停电 【变更送电】因计划工作进度加快原因，送电时间由２１：３０变更为１８：４０ 【发布渠道】保定市清苑区电视台（０６月０５日１９时至０６月１２日２０时之间）屏幕上方滚动","powerOffId":"2018060413000095"},{"poweroffId":2018060413000075,"sgpoweroffId":null,"subsName":"","lineName":"10KV东陶516","pubTranName":"东城坊1812煤增,东城坊1766煤增,","scope":"【影响街道/乡镇】东城坊镇 【高危重要客户】无 【影响客户】东城坊村","startTime":"2018-06-13 07:30:00","stopDate":"2018-06-13 19:00:00","orgNo":"1340626","typeCode":"计划停电","poweroffArea":"【分支停电】停东城坊1766煤增,东城坊1812煤增","poweroffReason":"【停电原因】由于煤改电工程导致３５ＫＶ东城坊变电站１０ＫＶ东陶５１６线路０７号杆以下线路停电 【变更送电】无 【发布渠道】涿州电视台（０６月０４日至０６月１２日２１：００播放２次）屏幕上方滚动","powerTime":"2018-06-13 18:40:35","powerComm":"恢复送电","subsNo":"","lineNo":"","tgNo":"","tgName":null,"infoStatus":"1","orgName":"国网涿州市供电公司","typeName":null,"infoStatusName":null,"dateDay":null,"orgNos":null,"nowTime":null,"countyName":null,"streetName":null,"villageName":null,"roadName":null,"communityName":null,"tranName":null,"sdLineName":null,"cityCode":"1340626","cityName":"国网涿州市供电公司","provinceCode":null,"stopTime":"2018-06-13 19:00:00","powerType":"全部","powerOffArea":"【分支停电】停东城坊1766煤增,东城坊1812煤增","powerOffReason":"【停电原因】由于煤改电工程导致３５ＫＶ东城坊变电站１０ＫＶ东陶５１６线路０７号杆以下线路停电 【变更送电】无 【发布渠道】涿州电视台（０６月０４日至０６月１２日２１：００播放２次）屏幕上方滚动","powerOffId":"2018060413000075"},{"poweroffId":2018060413000074,"sgpoweroffId":null,"subsName":"","lineName":"10KV松马517","pubTranName":"房树村（东地）,房四村西,房树村内9856,房树（村南200）,房树匡面粉厂,房二东柱上变压器,太和庄村南,房三1621,房一北柱上变压器,房一村西,房树村村西2号【纯农排变】,太和庄村内1545变压器,房树东北地2号4617【纯农排变】,下辛店村西变压器,房四村东变压器【纯农排变】,夏辛店小学（煤）柱上变压器,房树村村西1号【纯农排变】,房二村西4432【纯农排变】,下辛店村东【纯农排变】,房树小学二（煤）柱上变压器,房树东北地4616【纯农排变】,下辛店东1524,房四1564,下辛店村南3229,房一1563,下辛店东1523,房树小学三（煤）柱上变压器,夏辛店村东南,房树西5119,房树村变压器【纯农排变】,夏辛店村北柱上变压器,房树小学一（煤）柱上变压器,下辛店1569,房二1546,房三村东,房一村北4055,","scope":"【影响街道/乡镇】松林店镇 【高危重要客户】无 【影响客户】房树村、房一、房四、房二、房三、下辛店、太和庄","startTime":"2018-06-13 06:00:00","stopDate":"2018-06-13 17:00:00","orgNo":"1340626","typeCode":"计划停电","poweroffArea":"【分支停电】停房树村（东地）,房二东柱上变压器,房树小学三（煤）柱上变压器,下辛店村南3229,房一1563,房树村村西2号【纯农排变】,房树小学一（煤）柱上变压器,下辛店1569,太和庄村内1545变压器,夏辛店小学（煤）柱上变压器,房树村变压器【纯农排变】,房树小学二（煤）柱上变压器,夏辛店村东南,下辛店村东【纯农排变】,房树东北地4616【纯农排变】,房树东北地2号4617【纯农排变】,房二1546,房树匡面粉厂,房三村东,太和庄村南,房三1621,下辛店东1524,下辛店东1523,房一村北4055,房一北柱上变压器,房二村西4432【纯农排变】,房四村西,房树村村西1号【纯农排变】,夏辛店村北柱上变压器,房树（村南200）,下辛店村西变压器,房树西5119,房四村东变压器【纯农排变】,房树村内9856,房四1564,房一村西","poweroffReason":"【停电原因】由于新增配变、煤改电导致３５ＫＶ松林店变电站１０ＫＶ松马５１７线路０２号杆以下线路停电 【变更送电】因抢修进度加快原因，送电时间由１９：００变更为１７：００ 【发布渠道】涿州电视台（０６月０４日至０６月１２日２１：００播放２次）屏幕上方滚动","powerTime":"2018-06-13 16:32:01","powerComm":"恢复送电","subsNo":"","lineNo":"","tgNo":"","tgName":null,"infoStatus":"1","orgName":"国网涿州市供电公司","typeName":null,"infoStatusName":null,"dateDay":null,"orgNos":null,"nowTime":null,"countyName":null,"streetName":null,"villageName":null,"roadName":null,"communityName":null,"tranName":null,"sdLineName":null,"cityCode":"1340626","cityName":"国网涿州市供电公司","provinceCode":null,"stopTime":"2018-06-13 17:00:00","powerType":"全部","powerOffArea":"【分支停电】停房树村（东地）,房二东柱上变压器,房树小学三（煤）柱上变压器,下辛店村南3229,房一1563,房树村村西2号【纯农排变】,房树小学一（煤）柱上变压器,下辛店1569,太和庄村内1545变压器,夏辛店小学（煤）柱上变压器,房树村变压器【纯农排变】,房树小学二（煤）柱上变压器,夏辛店村东南,下辛店村东【纯农排变】,房树东北地4616【纯农排变】,房树东北地2号4617【纯农排变】,房二1546,房树匡面粉厂,房三村东,太和庄村南,房三1621,下辛店东1524,下辛店东1523,房一村北4055,房一北柱上变压器,房二村西4432【纯农排变】,房四村西,房树村村西1号【纯农排变】,夏辛店村北柱上变压器,房树（村南200）,下辛店村西变压器,房树西5119,房四村东变压器【纯农排变】,房树村内9856,房四1564,房一村西","powerOffReason":"【停电原因】由于新增配变、煤改电导致３５ＫＶ松林店变电站１０ＫＶ松马５１７线路０２号杆以下线路停电 【变更送电】因抢修进度加快原因，送电时间由１９：００变更为１７：００ 【发布渠道】涿州电视台（０６月０４日至０６月１２日２１：００播放２次）屏幕上方滚动","powerOffId":"2018060413000074"},{"poweroffId":2018060413000071,"sgpoweroffId":null,"subsName":"","lineName":"10KV下胡良528","pubTranName":"青岗村东南4469,","scope":"【影响街道/乡镇】东仙坡镇 【高危重要客户】无 【影响客户】青岗村","startTime":"2018-06-13 07:00:00","stopDate":"2018-06-13 18:00:00","orgNo":"1340626","typeCode":"计划停电","poweroffArea":"【单台区停电】停青岗村东南4469","poweroffReason":"【停电原因】由于煤改电工程导致１１０ＫＶ下胡良变电站１０ＫＶ下胡良５２８线路青岗村东南４４６９公变台区停电 【变更送电】无 【发布渠道】涿州电视台（０６月０４日至０６月１２日２１：００播放２次）屏幕上方滚动","powerTime":"2018-06-13 17:41:44","powerComm":"恢复送电","subsNo":"","lineNo":"","tgNo":"","tgName":null,"infoStatus":"1","orgName":"国网涿州市供电公司","typeName":null,"infoStatusName":null,"dateDay":null,"orgNos":null,"nowTime":null,"countyName":null,"streetName":null,"villageName":null,"roadName":null,"communityName":null,"tranName":null,"sdLineName":null,"cityCode":"1340626","cityName":"国网涿州市供电公司","provinceCode":null,"stopTime":"2018-06-13 18:00:00","powerType":"全部","powerOffArea":"【单台区停电】停青岗村东南4469","powerOffReason":"【停电原因】由于煤改电工程导致１１０ＫＶ下胡良变电站１０ＫＶ下胡良５２８线路青岗村东南４４６９公变台区停电 【变更送电】无 【发布渠道】涿州电视台（０６月０４日至０６月１２日２１：００播放２次）屏幕上方滚动","powerOffId":"2018060413000071"},{"poweroffId":2018060413000065,"sgpoweroffId":null,"subsName":"","lineName":"10KV太平庄575","pubTranName":"小报子新增四号变煤,新望海庄4549【纯农排变】,小报子新增三号变煤,小义合庄新增5号变煤,新4513太2号变【纯农排变】,涿州市汇鑫板金制品有限公司,小义合庄新增1号变煤,望海庄3798,小报子庄1352,小义合庄新增6号变煤,4501小义合庄【纯农排变】,新4512太平庄1号变【纯农排变】,太平庄村东,1355小义合庄煤增,蛮子营村,小义合庄新增4号变煤,新4552小报子庄【纯农排变】,新4550蛮子营【纯农排变】,1361满子营,望海庄1359,小义合庄新增3号变煤,新4551蛮子营【纯农排变】,新4320小报子庄【纯农排变】,望海庄村西北井柱上变压器【纯农排变】,望海庄村南,小报子新增一号变煤,小义合庄村,新4548望海庄【纯农排变】,小义合庄村西南煤增,1361满子营增【纯农排变】,小报子新增二号变煤,5096河西务【纯农排变】,小义合庄新增2号变煤,小义合庄村内,新4385泗平庄【纯农排变】,涿州市润祥源农业技术开发有限公司,太平庄1349,望海庄村东（刁窝供电所）【纯农排变】,新河西务4799【纯农排变】,满子营村西南柱变,太平庄3976【纯农排变】,苗圃厂,新望海庄4798【纯农排变】,新小义合庄4503【纯农排变】,望海庄3798增【纯农排变】,小义和庄4502【纯农排变】,新1356小义合庄煤增,","scope":"【影响街道/乡镇】刁窝乡 【高危重要客户】无 【影响客户】太平庄、小报子庄、满子营、望海庄、小义合庄","startTime":"2018-06-13 06:00:00","stopDate":"2018-06-13 16:30:00","orgNo":"1340626","typeCode":"计划停电","poweroffArea":"【全线路停电】停蛮子营村,小义合庄新增1号变煤,新4512太平庄1号变【纯农排变】,小报子新增四号变煤,4501小义合庄【纯农排变】,望海庄3798,小义合庄村,小报子庄1352,太平庄村东,小义合庄新增3号变煤,新望海庄4549【纯农排变】,苗圃厂,新4548望海庄【纯农排变】,新4513太2号变【纯农排变】,小义合庄新增5号变煤,小义合庄新增4号变煤,5096河西务【纯农排变】,新4551蛮子营【纯农排变】,新4320小报子庄【纯农排变】,新1356小义合庄煤增,小义合庄新增6号变煤,望海庄村南,涿州市汇鑫板金制品有限公司,新望海庄4798【纯农排变】,小报子新增一号变煤,小义合庄村西南煤增,望海庄村东（刁窝供电所）【纯农排变】,新4552小报子庄【纯农排变】,新小义合庄4503【纯农排变】,新4385泗平庄【纯农排变】,1361满子营增【纯农排变】,望海庄3798增【纯农排变】,小报子新增二号变煤,小义合庄新增2号变煤,涿州市润祥源农业技术开发有限公司,满子营村西南柱变,小义和庄4502【纯农排变】,望海庄村西北井柱上变压器【纯农排变】,太平庄1349,小义合庄村内,新4550蛮子营【纯农排变】,新河西务4799【纯农排变】,1361满子营,1355小义合庄煤增,太平庄3976【纯农排变】,望海庄1359,小报子新增三号变煤","poweroffReason":"【停电原因】由于线路清扫、煤改电工程导致２２０ＫＶ豆庄变电站１０ＫＶ太平庄５７５线路全线停电 【变更送电】因抢修进度加快原因，送电时间由２０：００变更为１６：３０ 【发布渠道】涿州电视台（０６月０４日至０６月１２日２１：００播放２次）屏幕上方滚动","powerTime":"2018-06-13 16:10:24","powerComm":"恢复送电","subsNo":"","lineNo":"","tgNo":"","tgName":null,"infoStatus":"1","orgName":"国网涿州市供电公司","typeName":null,"infoStatusName":null,"dateDay":null,"orgNos":null,"nowTime":null,"countyName":null,"streetName":null,"villageName":null,"roadName":null,"communityName":null,"tranName":null,"sdLineName":null,"cityCode":"1340626","cityName":"国网涿州市供电公司","provinceCode":null,"stopTime":"2018-06-13 16:30:00","powerType":"全部","powerOffArea":"【全线路停电】停蛮子营村,小义合庄新增1号变煤,新4512太平庄1号变【纯农排变】,小报子新增四号变煤,4501小义合庄【纯农排变】,望海庄3798,小义合庄村,小报子庄1352,太平庄村东,小义合庄新增3号变煤,新望海庄4549【纯农排变】,苗圃厂,新4548望海庄【纯农排变】,新4513太2号变【纯农排变】,小义合庄新增5号变煤,小义合庄新增4号变煤,5096河西务【纯农排变】,新4551蛮子营【纯农排变】,新4320小报子庄【纯农排变】,新1356小义合庄煤增,小义合庄新增6号变煤,望海庄村南,涿州市汇鑫板金制品有限公司,新望海庄4798【纯农排变】,小报子新增一号变煤,小义合庄村西南煤增,望海庄村东（刁窝供电所）【纯农排变】,新4552小报子庄【纯农排变】,新小义合庄4503【纯农排变】,新4385泗平庄【纯农排变】,1361满子营增【纯农排变】,望海庄3798增【纯农排变】,小报子新增二号变煤,小义合庄新增2号变煤,涿州市润祥源农业技术开发有限公司,满子营村西南柱变,小义和庄4502【纯农排变】,望海庄村西北井柱上变压器【纯农排变】,太平庄1349,小义合庄村内,新4550蛮子营【纯农排变】,新河西务4799【纯农排变】,1361满子营,1355小义合庄煤增,太平庄3976【纯农排变】,望海庄1359,小报子新增三号变煤","powerOffReason":"【停电原因】由于线路清扫、煤改电工程导致２２０ＫＶ豆庄变电站１０ＫＶ太平庄５７５线路全线停电 【变更送电】因抢修进度加快原因，送电时间由２０：００变更为１６：３０ 【发布渠道】涿州电视台（０６月０４日至０６月１２日２１：００播放２次）屏幕上方滚动","powerOffId":"2018060413000065"},{"poweroffId":2018060413000062,"sgpoweroffId":null,"subsName":"","lineName":"10KV松马517","pubTranName":"松林店村南1527,","scope":"【影响街道/乡镇】松林店镇 【高危重要客户】无 【影响客户】松林店村","startTime":"2018-06-13 07:00:00","stopDate":"2018-06-13 18:30:00","orgNo":"1340626","typeCode":"计划停电","poweroffArea":"【单台区停电】停松林店村南1527","poweroffReason":"【停电原因】由于煤改电工程导致３５ＫＶ松林店变电站１０ＫＶ松马５１７线路松林店村南１５２７公变台区停电 【变更送电】无 【发布渠道】涿州电视台（０６月０４日至０６月１２日２１：００播放２次）屏幕上方滚动","powerTime":"2018-06-13 18:11:07","powerComm":"恢复送电","subsNo":"","lineNo":"","tgNo":"","tgName":null,"infoStatus":"1","orgName":"国网涿州市供电公司","typeName":null,"infoStatusName":null,"dateDay":null,"orgNos":null,"nowTime":null,"countyName":null,"streetName":null,"villageName":null,"roadName":null,"communityName":null,"tranName":null,"sdLineName":null,"cityCode":"1340626","cityName":"国网涿州市供电公司","provinceCode":null,"stopTime":"2018-06-13 18:30:00","powerType":"全部","powerOffArea":"【单台区停电】停松林店村南1527","powerOffReason":"【停电原因】由于煤改电工程导致３５ＫＶ松林店变电站１０ＫＶ松马５１７线路松林店村南１５２７公变台区停电 【变更送电】无 【发布渠道】涿州电视台（０６月０４日至０６月１２日２１：００播放２次）屏幕上方滚动","powerOffId":"2018060413000062"},{"poweroffId":2018060413000059,"sgpoweroffId":null,"subsName":"","lineName":"10KV城西农业519","pubTranName":"西坛村内东煤增,","scope":"【影响街道/乡镇】东城坊镇 【高危重要客户】无 【影响客户】西坛村","startTime":"2018-06-13 08:00:00","stopDate":"2018-06-13 18:00:00","orgNo":"1340626","typeCode":"计划停电","poweroffArea":"【单台区停电】停西坛村内东煤增","poweroffReason":"【停电原因】由于煤改电工程导致１１０ＫＶ涿县变电站１０ＫＶ城西农业５１９线路西坛村内东煤增公变台区停电 【变更送电】无 【发布渠道】涿州电视台（０６月０４日至０６月１２日２１：００播放２次）屏幕上方滚动","powerTime":"2018-06-13 17:42:02","powerComm":"恢复送电","subsNo":"","lineNo":"","tgNo":"","tgName":null,"infoStatus":"1","orgName":"国网涿州市供电公司","typeName":null,"infoStatusName":null,"dateDay":null,"orgNos":null,"nowTime":null,"countyName":null,"streetName":null,"villageName":null,"roadName":null,"communityName":null,"tranName":null,"sdLineName":null,"cityCode":"1340626","cityName":"国网涿州市供电公司","provinceCode":null,"stopTime":"2018-06-13 18:00:00","powerType":"全部","powerOffArea":"【单台区停电】停西坛村内东煤增","powerOffReason":"【停电原因】由于煤改电工程导致１１０ＫＶ涿县变电站１０ＫＶ城西农业５１９线路西坛村内东煤增公变台区停电 【变更送电】无 【发布渠道】涿州电视台（０６月０４日至０６月１２日２１：００播放２次）屏幕上方滚动","powerOffId":"2018060413000059"},{"poweroffId":2018060413000057,"sgpoweroffId":null,"subsName":"","lineName":"10KV东方515","pubTranName":"西皋庄北2183,桃园供电所（张飞店村北井）,黎明小区（新）,西皋村村北井【纯农排变】,西皋庄小学（煤）箱式变电站母线间隔配电变压器,涿州市龙腾工业气体经营部桃园区西皋村2,西皋村村东,西皋庄河套【纯农排变】,东庄头村东,0671328074-张立军-专变-212336011-张立军,徐玉堂村南,镇安寺2064,西皋庄2058【纯农排变】,西皋庄4099【纯农排变】,西皋庄村东,党校,张飞店楼板厂,桃园供电所（镇安寺南井）,八家窑2067,计生办(新)柱变【纯农排变】,西皋庄南2083,西皋庄村中内,镇安寺村东北台区,下坡店村,西皋庄村北2073,西皋村2072,0387562030-涿州龙泉商贸有限公司-专变-45358092-涿州龙泉商贸有限公司,桃园办事处西皋庄村委会1,0387561590-涿州市桃园办事处西皋庄村委会-专变-45358106-涿州市桃园办事处西皋庄村委会,下坡店村北井【纯农排变】,涿州市华福精铸厂,下坡店2167,西皋庄村中内大队院内,张飞店2075,镇安寺南3675,四中,涿州市京热热力有限责任公司,西皋村,北京铁路局北京供电段,西皋庄东地,第四中学,桃园供电所,晨光小区,养路工区,包子铺村东（东方大酒店）,西皋庄村南,张飞店西南,涿州市龙腾工业气体经营部桃园区西皋村1,东庄头村,","scope":"【影响街道/乡镇】桃园城区 【高危重要客户】无 【影响客户】镇安寺、四中、西皋村、西皋庄、忠义店、下坡店、八家尧、党校、黎明小区、晨光小区、计生委","startTime":"2018-06-13 06:00:00","stopDate":"2018-06-13 18:00:00","orgNo":"1340626","typeCode":"计划停电","poweroffArea":"【全线路停电】停西皋庄4099【纯农排变】,下坡店村,下坡店村北井【纯农排变】,西皋庄村北2073,涿州市华福精铸厂,计生办(新)柱变【纯农排变】,下坡店2167,西皋庄南2083,西皋村村北井【纯农排变】,西皋村村东,西皋村,黎明小区（新）,西皋庄村中内大队院内,北京铁路局北京供电段,西皋庄东地,张飞店2075,第四中学,西皋庄北2183,桃园供电所（张飞店村北井）,西皋庄村东,西皋庄村中内,党校,镇安寺村东北台区,西皋村2072,桃园供电所,镇安寺南3675,晨光小区,四中,西皋庄河套【纯农排变】,张飞店楼板厂,涿州市京热热力有限责任公司,东庄头村东,桃园供电所（镇安寺南井）,0387562030-涿州龙泉商贸有限公司-专变-45358092-涿州龙泉商贸有限公司,养路工区,包子铺村东（东方大酒店）,0671328074-张立军-专变-212336011-张立军,西皋庄小学（煤）箱式变电站母线间隔配电变压器,徐玉堂村南,西皋庄村南,桃园办事处西皋庄村委会1,涿州市龙腾工业气体经营部桃园区西皋村2,张飞店西南,镇安寺2064,涿州市龙腾工业气体经营部桃园区西皋村1,西皋庄2058【纯农排变】,八家窑2067,0387561590-涿州市桃园办事处西皋庄村委会-专变-45358106-涿州市桃园办事处西皋庄村委会,东庄头村","poweroffReason":"【停电原因】由于线路清扫、煤改电工程导致１１０ＫＶ涿县变电站１０ＫＶ东方５１５线路全线停电 【变更送电】无 【发布渠道】涿州电视台（０６月０４日至０６月１２日２１：００播放２次）屏幕上方滚动","powerTime":"2018-06-13 17:42:28","powerComm":"恢复送电","subsNo":"","lineNo":"","tgNo":"","tgName":null,"infoStatus":"1","orgName":"国网涿州市供电公司","typeName":null,"infoStatusName":null,"dateDay":null,"orgNos":null,"nowTime":null,"countyName":null,"streetName":null,"villageName":null,"roadName":null,"communityName":null,"tranName":null,"sdLineName":null,"cityCode":"1340626","cityName":"国网涿州市供电公司","provinceCode":null,"stopTime":"2018-06-13 18:00:00","powerType":"全部","powerOffArea":"【全线路停电】停西皋庄4099【纯农排变】,下坡店村,下坡店村北井【纯农排变】,西皋庄村北2073,涿州市华福精铸厂,计生办(新)柱变【纯农排变】,下坡店2167,西皋庄南2083,西皋村村北井【纯农排变】,西皋村村东,西皋村,黎明小区（新）,西皋庄村中内大队院内,北京铁路局北京供电段,西皋庄东地,张飞店2075,第四中学,西皋庄北2183,桃园供电所（张飞店村北井）,西皋庄村东,西皋庄村中内,党校,镇安寺村东北台区,西皋村2072,桃园供电所,镇安寺南3675,晨光小区,四中,西皋庄河套【纯农排变】,张飞店楼板厂,涿州市京热热力有限责任公司,东庄头村东,桃园供电所（镇安寺南井）,0387562030-涿州龙泉商贸有限公司-专变-45358092-涿州龙泉商贸有限公司,养路工区,包子铺村东（东方大酒店）,0671328074-张立军-专变-212336011-张立军,西皋庄小学（煤）箱式变电站母线间隔配电变压器,徐玉堂村南,西皋庄村南,桃园办事处西皋庄村委会1,涿州市龙腾工业气体经营部桃园区西皋村2,张飞店西南,镇安寺2064,涿州市龙腾工业气体经营部桃园区西皋村1,西皋庄2058【纯农排变】,八家窑2067,0387561590-涿州市桃园办事处西皋庄村委会-专变-45358106-涿州市桃园办事处西皋庄村委会,东庄头村","powerOffReason":"【停电原因】由于线路清扫、煤改电工程导致１１０ＫＶ涿县变电站１０ＫＶ东方５１５线路全线停电 【变更送电】无 【发布渠道】涿州电视台（０６月０４日至０６月１２日２１：００播放２次）屏幕上方滚动","powerOffId":"2018060413000057"},{"poweroffId":2018060413000031,"sgpoweroffId":null,"subsName":"","lineName":"市政线511","pubTranName":"十八局建安处,盛世广场,今日家园,公安1号变压器,公安2号变压器,干休所,高碑店市腾盛房地产开发有限公司变压器,干休所1号变压器,公安3号变压器,高碑店市盛世商业有限公司变压器,建委公变变压器,干休所2号变压器,保定腾盛房地产开发有限公司变压器,","scope":"【影响街道/乡镇】迎宾路、文明路、育才路、兴华中路、玖玖胡同 【高危重要客户】政府、十八局医院、联通高碑店分公司 【影响客户】今日家园、盛世商场、干休所、腾胜家园、十八局建安处、老公安局家属楼、建委家属楼","startTime":"2018-06-04 05:58:20","stopDate":"2018-06-04 10:00:00","orgNo":"1340612","typeCode":"电网故障停限电","poweroffArea":"【分支停电】停高碑店市腾盛房地产开发有限公司变压器,公安3号变压器,干休所2号变压器,建委公变变压器,干休所1号变压器,保定腾盛房地产开发有限公司变压器,公安1号变压器,干休所,今日家园,高碑店市盛世商业有限公司变压器,盛世广场,公安2号变压器,十八局建安处","poweroffReason":"【停电原因】由于中铁２２局建筑安装有限公司高压计量烧毁导致１１０ＫＶ方家务变电站１０ＫＶ市政５１１线路０２号断路器以下停电 【变更送电】无 【发布渠道】通过９５５９８发布","powerTime":"2018-06-04 09:09:05","powerComm":"已送电","subsNo":"","lineNo":"","tgNo":"","tgName":null,"infoStatus":"1","orgName":"国网高碑店市供电公司","typeName":null,"infoStatusName":null,"dateDay":null,"orgNos":null,"nowTime":null,"countyName":null,"streetName":null,"villageName":null,"roadName":null,"communityName":null,"tranName":null,"sdLineName":null,"cityCode":"1340612","cityName":"国网高碑店市供电公司","provinceCode":null,"stopTime":"2018-06-04 10:00:00","powerType":"全部","powerOffArea":"【分支停电】停高碑店市腾盛房地产开发有限公司变压器,公安3号变压器,干休所2号变压器,建委公变变压器,干休所1号变压器,保定腾盛房地产开发有限公司变压器,公安1号变压器,干休所,今日家园,高碑店市盛世商业有限公司变压器,盛世广场,公安2号变压器,十八局建安处","powerOffReason":"【停电原因】由于中铁２２局建筑安装有限公司高压计量烧毁导致１１０ＫＶ方家务变电站１０ＫＶ市政５１１线路０２号断路器以下停电 【变更送电】无 【发布渠道】通过９５５９８发布","powerOffId":"2018060413000031"}],"pageModel":{"pageNow":1044,"totalCount":10973,"totalPage":1098,"tableRows":0,"pageCount":10,"beginCount":10430},"isExperi":"1"}