{"message":"","today":"2020-06-15","seleList":[{"poweroffId":2018060313000283,"sgpoweroffId":null,"subsName":"","lineName":"10kV前卫站583线路","pubTranName":"0356308599-保定市市区农村信用合作联社百楼信用社-专变,0356223724-清苑县西佰楼村-专变,0690264296-保定市公用事业局-专变,0356329448-保定华泰印刷有限公司-专变,0356235167-保定市北市区百楼乡后营村民委员会-专变,0357913624-保定市恒盛变压器有限公司-专变,0706103614-保定市莲池区百楼乡北张庄村民委员会,0356438393-保定市特种钢铸造有限公司-1#专变,0356235138-保定市百楼乡后营村民委员会-专变,0356224206-保定市公安局交警支队-3#专变,C221柱上变压器,C220柱上变压器,0690268096-保定市公用事业局-专变,0590676672-保定市立志玻璃制品制造有限公司-专变,0356232328-保定市电器设备公司-专变,0356232315-市三丰生活锅炉厂-专变,0356249463-保定青华经贸外语中专专科学校-专变,0356438393-保定市特种钢铸造有限公司-2#专变,0626254737-保定市昂硕混凝土有限公司-专变-138042135-变压器,0594791562-保定市耀达正博汽车销售服务有限公司-专变,0358009191-保定市保北商贸有限公司-专变,0356342061-保定市保北医药药材有限责任公司-专变-138814337-变压器,C592柱上变压器,0356224206-保定市公安局交警支队-1#专变,0356416281-中国石油天然气股份有限公司河北保定销售分公司第十四加油站-专变,0356226811-保定市公安局交通警察支队-专变-169949585-变压器,0357308978-保定市北市区百楼乡头台村委会-专变,0364160479-中国人民解放军河北省保定军分区-专变,0356224206-保定市公安局交警支队-2#专变,","scope":"【影响街道/乡镇】百楼乡、长城北大街 【高危重要客户】无 【影响客户】头台村、后营村、太保营村、北张庄村、后辛庄工业区、百楼信用社、老车管所","startTime":"2018-06-03 13:00:00","stopDate":"2018-06-03 18:00:00","orgNo":"13406","typeCode":"电网故障停限电","poweroffArea":"【分支停电】停0356232328-保定市电器设备公司-专变,0356232315-市三丰生活锅炉厂-专变,0364160479-中国人民解放军河北省保定军分区-专变,0356224206-保定市公安局交警支队-3#专变,0356224206-保定市公安局交警支队-2#专变,C221柱上变压器,0356416281-中国石油天然气股份有限公司河北保定销售分公司第十四加油站-专变,C220柱上变压器,0356226811-保定市公安局交通警察支队-专变-169949585-变压器,0690268096-保定市公用事业局-专变,0357308978-保定市北市区百楼乡头台村委会-专变,0590676672-保定市立志玻璃制品制造有限公司-专变,0356308599-保定市市区农村信用合作联社百楼信用社-专变,0356249463-保定青华经贸外语中专专科学校-专变,0356223724-清苑县西佰楼村-专变,0356438393-保定市特种钢铸造有限公司-2#专变,0690264296-保定市公用事业局-专变,0626254737-保定市昂硕混凝土有限公司-专变-138042135-变压器,0356329448-保定华泰印刷有限公司-专变,0594791562-保定市耀达正博汽车销售服务有限公司-专变,0356235167-保定市北市区百楼乡后营村民委员会-专变,0358009191-保定市保北商贸有限公司-专变,0357913624-保定市恒盛变压器有限公司-专变,0356342061-保定市保北医药药材有限责任公司-专变-138814337-变压器,0706103614-保定市莲池区百楼乡北张庄村民委员会,C592柱上变压器,0356438393-保定市特种钢铸造有限公司-1#专变,0356224206-保定市公安局交警支队-1#专变,0356235138-保定市百楼乡后营村民委员会-专变","poweroffReason":"【停电原因】由于分支开关跳闸导致１０ＫＶ前卫变电站５８３线路２２７号杆以下停电【变更送电】无【发布渠道】通过９５５９８发布","powerTime":"2018-06-03 17:23:21","powerComm":"已送电","subsNo":"","lineNo":"","tgNo":"","tgName":null,"infoStatus":"1","orgName":"保定供电公司","typeName":null,"infoStatusName":null,"dateDay":null,"orgNos":null,"nowTime":null,"countyName":null,"streetName":null,"villageName":null,"roadName":null,"communityName":null,"tranName":null,"sdLineName":null,"cityCode":"13406","cityName":"保定供电公司","provinceCode":null,"stopTime":"2018-06-03 18:00:00","powerType":"全部","powerOffArea":"【分支停电】停0356232328-保定市电器设备公司-专变,0356232315-市三丰生活锅炉厂-专变,0364160479-中国人民解放军河北省保定军分区-专变,0356224206-保定市公安局交警支队-3#专变,0356224206-保定市公安局交警支队-2#专变,C221柱上变压器,0356416281-中国石油天然气股份有限公司河北保定销售分公司第十四加油站-专变,C220柱上变压器,0356226811-保定市公安局交通警察支队-专变-169949585-变压器,0690268096-保定市公用事业局-专变,0357308978-保定市北市区百楼乡头台村委会-专变,0590676672-保定市立志玻璃制品制造有限公司-专变,0356308599-保定市市区农村信用合作联社百楼信用社-专变,0356249463-保定青华经贸外语中专专科学校-专变,0356223724-清苑县西佰楼村-专变,0356438393-保定市特种钢铸造有限公司-2#专变,0690264296-保定市公用事业局-专变,0626254737-保定市昂硕混凝土有限公司-专变-138042135-变压器,0356329448-保定华泰印刷有限公司-专变,0594791562-保定市耀达正博汽车销售服务有限公司-专变,0356235167-保定市北市区百楼乡后营村民委员会-专变,0358009191-保定市保北商贸有限公司-专变,0357913624-保定市恒盛变压器有限公司-专变,0356342061-保定市保北医药药材有限责任公司-专变-138814337-变压器,0706103614-保定市莲池区百楼乡北张庄村民委员会,C592柱上变压器,0356438393-保定市特种钢铸造有限公司-1#专变,0356224206-保定市公安局交警支队-1#专变,0356235138-保定市百楼乡后营村民委员会-专变","powerOffReason":"【停电原因】由于分支开关跳闸导致１０ＫＶ前卫变电站５８３线路２２７号杆以下停电【变更送电】无【发布渠道】通过９５５９８发布","powerOffId":"2018060313000283"},{"poweroffId":2018060313000276,"sgpoweroffId":null,"subsName":"","lineName":"10kV566胡房线","pubTranName":"胡房公用农业1台区【纯农排变】,宿家佐公用照明5台区,胡房公用农业4台区【纯农排变】,胡房公用照明5台区,高辛庄村公用照明1台区,陈家佐村公用照明1台区,高家佐村公用照明1台区,高辛庄村公用农业3台区【纯农排变】,高辛庄村公用农业4台区,高辛庄村公用农业2台区【纯农排变】,高家佐公用照明2台区,宿家佐公用照明4台区,宿家佐村公用照明2台区,宿家佐村公用照明1台区,西同房公用农业7台区【纯农排变】,胡房村公用照明1台区,胡房公用农业3台区【纯农排变】,陈家佐公用照明2台区,西同房公用照明8台区,宿家佐公用照明3台区,西同房公用农业4台区【纯农排变】,高辛庄村公用农业1台区【纯农排变】,西同房公用照明7台区,胡房公用照明8台区,西同房公用农业1台区,西同房公用农业8台区【纯农排变】,西同房公用农业5台区【纯农排变】,","scope":"【影响街道/乡镇】留早镇【高危重要客户】无【影响客户】高家佐、高辛庄、胡房村、陈家佐、宿家佐、西同房、东南合、西南合","startTime":"2018-06-03 16:30:00","stopDate":"2018-06-03 19:00:00","orgNo":"1340610","typeCode":"其他临时停电","poweroffArea":"【全线路停电】停高辛庄村公用农业1台区【纯农排变】,高家佐村公用照明1台区,高辛庄村公用农业3台区【纯农排变】,宿家佐公用照明5台区,宿家佐村公用照明2台区,高辛庄村公用农业4台区,陈家佐公用照明2台区,陈家佐村公用照明1台区,高家佐公用照明2台区,高辛庄村公用农业2台区【纯农排变】,高辛庄村公用照明1台区,宿家佐村公用照明1台区,宿家佐公用照明4台区,宿家佐公用照明3台区,胡房公用农业4台区【纯农排变】,胡房公用农业1台区【纯农排变】,胡房公用农业3台区【纯农排变】,胡房公用照明5台区,胡房村公用照明1台区,胡房公用照明8台区,西同房公用农业1台区,西同房公用农业7台区【纯农排变】,西同房公用农业8台区【纯农排变】,西同房公用农业4台区【纯农排变】,西同房公用农业5台区【纯农排变】,西同房公用照明7台区,西同房公用照明8台区","poweroffReason":"【停电原因】由于主干９０号杆弓子线打火需停电进行紧急检修导致１１０ＫＶ清风店变电站１０ＫＶ５６６胡房线路全线停电 【变更送电】无 【发布渠道】９５５９８","powerTime":"2018-06-03 18:56:25","powerComm":"已送电","subsNo":"","lineNo":"","tgNo":"","tgName":null,"infoStatus":"1","orgName":"国网定州市供电公司","typeName":null,"infoStatusName":null,"dateDay":null,"orgNos":null,"nowTime":null,"countyName":null,"streetName":null,"villageName":null,"roadName":null,"communityName":null,"tranName":null,"sdLineName":null,"cityCode":"1340610","cityName":"国网定州市供电公司","provinceCode":null,"stopTime":"2018-06-03 19:00:00","powerType":"全部","powerOffArea":"【全线路停电】停高辛庄村公用农业1台区【纯农排变】,高家佐村公用照明1台区,高辛庄村公用农业3台区【纯农排变】,宿家佐公用照明5台区,宿家佐村公用照明2台区,高辛庄村公用农业4台区,陈家佐公用照明2台区,陈家佐村公用照明1台区,高家佐公用照明2台区,高辛庄村公用农业2台区【纯农排变】,高辛庄村公用照明1台区,宿家佐村公用照明1台区,宿家佐公用照明4台区,宿家佐公用照明3台区,胡房公用农业4台区【纯农排变】,胡房公用农业1台区【纯农排变】,胡房公用农业3台区【纯农排变】,胡房公用照明5台区,胡房村公用照明1台区,胡房公用照明8台区,西同房公用农业1台区,西同房公用农业7台区【纯农排变】,西同房公用农业8台区【纯农排变】,西同房公用农业4台区【纯农排变】,西同房公用农业5台区【纯农排变】,西同房公用照明7台区,西同房公用照明8台区","powerOffReason":"【停电原因】由于主干９０号杆弓子线打火需停电进行紧急检修导致１１０ＫＶ清风店变电站１０ＫＶ５６６胡房线路全线停电 【变更送电】无 【发布渠道】９５５９８","powerOffId":"2018060313000276"},{"poweroffId":2018060313000268,"sgpoweroffId":null,"subsName":"","lineName":"10kV511才良线","pubTranName":"才良250农业|27000250【纯农排变】,韩新庄2810农业|27002810【纯农排变】,韩新庄综合2号7672,韩旧庄土地整改新增农业1号（TD）1909【纯农排变】,才良220农业|27000220【纯农排变】,西韩童新增农业4号（TD）4380【纯农排变】,才良210农业|27000210【纯农排变】,才良村西新建综合5388,西韩童新增农业6号（TD）4384【纯农排变】,西韩童40农业|27000040【纯农排变】,北新兴10农业|27000010【纯农排变】,四通供电所,才良水塔边农业【纯农排变】,韩新庄新增农业1号（TD）4385【纯农排变】,旧西庄130|27000130,才良村西新增综合2号,西韩童60|27000060,西韩童村内新增综合1172,韩旧庄2020农业|27002020【纯农排变】,才良240农排【纯农排变】,西韩童2310农业|27002310【纯农排变】,西韩童50|27000050,才良2760|27002760,西韩童2190农业|27002190【纯农排变】,西韩童村北新增综合1169,韩新庄土地整改新增农业1号（TD）1409【纯农排变】,才良村西农业【纯农排变】,才良村北综合2860|27002860,才良村北农业【纯农排变】,韩新庄110农业|27000110【纯农排变】,西韩童新增农业5号（TD）4381【纯农排变】,西韩童面粉厂,才良村东南农业【纯农排变】,韩旧庄2820农业|27002820【纯农排变】,西韩童30农业|27000030【纯农排变】,韩新庄新增农业2号（TD）4386【纯农排变】,西韩童村东综合1855,西韩童2340农业|27002340【纯农排变】,才良西南农业1【纯农排变】,北新兴村东2180农业|27002180【纯农排变】,韩新庄2800农业|27002800【纯农排变】,西韩童70农业|27000070【纯农排变】,西韩童2320农业|27002320【纯农排变】,西韩童东南综合0390,西韩童新增农业1号（TD)2473【纯农排变】,才良村西北农业【纯农排变】,韩旧庄150农业|27000150【纯农排变】,韩新庄2260农业|27002260【纯农排变】,西韩童新增农业2号（TD)4387【纯农排变】,才良村180|27000180,顺平县韩旺再生资源开发利用有限公司,才良西南农业2【纯农排变】,才良村西南农业【纯农排变】,才良村160|27000160,旧西庄140|27000140,才良270|27000270,才良村东新增综合,西韩童20综合|27000020,西韩童2330综合|27002330,韩旧庄综合1842,韩新庄100|27000100,西韩童新增农业3号（TD)4389【纯农排变】,才良村170|27000170,韩旧庄土地整改新增农业2号（TD）1427【纯农排变】,才良230农业|27000230【纯农排变】,0469468162-中国移动通信集团河北有限公司顺平分公司-专变-46816492-中国移动,西韩童80农业|27000080【纯农排变】,才良面粉厂,才良村北新增综合1432,杨兴尔,才良学校","scope":"【影响街道/乡镇】腰山镇【高危重要客户】无【影响客户】才良、西韩童、韩新庄、韩旧庄","startTime":"2018-06-03 14:12:41","stopDate":"2018-06-03 16:00:00","orgNo":"1340621","typeCode":"电网故障停限电","poweroffArea":"【全线路停电】停四通供电所,韩旧庄150农业|27000150【纯农排变】,才良村东南农业【纯农排变】,才良230农业|27000230【纯农排变】,才良250农业|27000250【纯农排变】,才良西南农业1【纯农排变】,韩新庄综合2号7672,西韩童2310农业|27002310【纯农排变】,韩旧庄土地整改新增农业1号（TD）1909【纯农排变】,北新兴村东2180农业|27002180【纯农排变】,西韩童2190农业|27002190【纯农排变】,西韩童村内新增综合1172,才良220农业|27000220【纯农排变】,韩新庄2800农业|27002800【纯农排变】,西韩童村北新增综合1169,韩旧庄2020农业|27002020【纯农排变】,西韩童新增农业4号（TD）4380【纯农排变】,才良240农排【纯农排变】,韩新庄土地整改新增农业1号（TD）1409【纯农排变】,西韩童70农业|27000070【纯农排变】,才良村西新增综合2号,西韩童2320农业|27002320【纯农排变】,才良村西农业【纯农排变】,西韩童60|27000060,才良村北综合2860|27002860,西韩童东南综合0390,才良210农业|27000210【纯农排变】,才良村西新建综合5388,才良村北农业【纯农排变】,西韩童新增农业6号（TD）4384【纯农排变】,韩新庄110农业|27000110【纯农排变】,才良村东新增综合,西韩童40农业|27000040【纯农排变】,西韩童新增农业1号（TD)2473【纯农排变】,西韩童新增农业5号（TD）4381【纯农排变】,北新兴10农业|27000010【纯农排变】,西韩童20综合|27000020,西韩童面粉厂,韩新庄新增农业1号（TD）4385【纯农排变】,旧西庄130|27000130,韩新庄新增农业2号（TD）4386【纯农排变】,才良西南农业2【纯农排变】,才良水塔边农业【纯农排变】,才良村西南农业【纯农排变】,才良村西北农业【纯农排变】,才良村160|27000160,0469468162-中国移动通信集团河北有限公司顺平分公司-专变-46816492-中国移动,旧西庄140|27000140,西韩童村东综合1855,韩旧庄2820农业|27002820【纯农排变】,西韩童2340农业|27002340【纯农排变】,韩新庄2810农业|27002810【纯农排变】,才良270|27000270,西韩童80农业|27000080【纯农排变】,西韩童30农业|27000030【纯农排变】,才良2760|27002760,西韩童2330综合|27002330,韩旧庄土地整改新增农业2号（TD）1427【纯农排变】,才良面粉厂,北新兴土地整改新增农业7号（TD）7879【纯农排变】,韩旧庄综合1842,韩新庄2260农业|27002260【纯农排变】,才良村北新增综合1432,韩新庄100|27000100,韩新庄120农业|27000120【纯农排变】,杨兴尔,西韩童新增农业2号（TD)4387【纯农排变】,西韩童新增农业3号（TD)4389【纯农排变】,西韩童南综合2850|27002850,才良学校综合1850,才良村180|27000180,才良村170|27000170,顺平县韩旺再生资源开发利用有限公司,韩新庄新增农业3号（TD）2475【纯农排变】,西韩童50|27000050","poweroffReason":"【停电原因】由于移动公司设备线尖烧毁导致３５ＫＶ四通变电站１０ＫＶ５１１才良线路全线停电【变更送电】因抢修进度加快原因，送电时间由１９：００变更为１６：００【发布渠道】通过９５５９８发布","powerTime":"2018-06-03 15:19:17","powerComm":"已送电","subsNo":"","lineNo":"","tgNo":"","tgName":null,"infoStatus":"1","orgName":"国网顺平县电力局","typeName":null,"infoStatusName":null,"dateDay":null,"orgNos":null,"nowTime":null,"countyName":null,"streetName":null,"villageName":null,"roadName":null,"communityName":null,"tranName":null,"sdLineName":null,"cityCode":"1340621","cityName":"国网顺平县电力局","provinceCode":null,"stopTime":"2018-06-03 16:00:00","powerType":"全部","powerOffArea":"【全线路停电】停四通供电所,韩旧庄150农业|27000150【纯农排变】,才良村东南农业【纯农排变】,才良230农业|27000230【纯农排变】,才良250农业|27000250【纯农排变】,才良西南农业1【纯农排变】,韩新庄综合2号7672,西韩童2310农业|27002310【纯农排变】,韩旧庄土地整改新增农业1号（TD）1909【纯农排变】,北新兴村东2180农业|27002180【纯农排变】,西韩童2190农业|27002190【纯农排变】,西韩童村内新增综合1172,才良220农业|27000220【纯农排变】,韩新庄2800农业|27002800【纯农排变】,西韩童村北新增综合1169,韩旧庄2020农业|27002020【纯农排变】,西韩童新增农业4号（TD）4380【纯农排变】,才良240农排【纯农排变】,韩新庄土地整改新增农业1号（TD）1409【纯农排变】,西韩童70农业|27000070【纯农排变】,才良村西新增综合2号,西韩童2320农业|27002320【纯农排变】,才良村西农业【纯农排变】,西韩童60|27000060,才良村北综合2860|27002860,西韩童东南综合0390,才良210农业|27000210【纯农排变】,才良村西新建综合5388,才良村北农业【纯农排变】,西韩童新增农业6号（TD）4384【纯农排变】,韩新庄110农业|27000110【纯农排变】,才良村东新增综合,西韩童40农业|27000040【纯农排变】,西韩童新增农业1号（TD)2473【纯农排变】,西韩童新增农业5号（TD）4381【纯农排变】,北新兴10农业|27000010【纯农排变】,西韩童20综合|27000020,西韩童面粉厂,韩新庄新增农业1号（TD）4385【纯农排变】,旧西庄130|27000130,韩新庄新增农业2号（TD）4386【纯农排变】,才良西南农业2【纯农排变】,才良水塔边农业【纯农排变】,才良村西南农业【纯农排变】,才良村西北农业【纯农排变】,才良村160|27000160,0469468162-中国移动通信集团河北有限公司顺平分公司-专变-46816492-中国移动,旧西庄140|27000140,西韩童村东综合1855,韩旧庄2820农业|27002820【纯农排变】,西韩童2340农业|27002340【纯农排变】,韩新庄2810农业|27002810【纯农排变】,才良270|27000270,西韩童80农业|27000080【纯农排变】,西韩童30农业|27000030【纯农排变】,才良2760|27002760,西韩童2330综合|27002330,韩旧庄土地整改新增农业2号（TD）1427【纯农排变】,才良面粉厂,北新兴土地整改新增农业7号（TD）7879【纯农排变】,韩旧庄综合1842,韩新庄2260农业|27002260【纯农排变】,才良村北新增综合1432,韩新庄100|27000100,韩新庄120农业|27000120【纯农排变】,杨兴尔,西韩童新增农业2号（TD)4387【纯农排变】,西韩童新增农业3号（TD)4389【纯农排变】,西韩童南综合2850|27002850,才良学校综合1850,才良村180|27000180,才良村170|27000170,顺平县韩旺再生资源开发利用有限公司,韩新庄新增农业3号（TD）2475【纯农排变】,西韩童50|27000050","powerOffReason":"【停电原因】由于移动公司设备线尖烧毁导致３５ＫＶ四通变电站１０ＫＶ５１１才良线路全线停电【变更送电】因抢修进度加快原因，送电时间由１９：００变更为１６：００【发布渠道】通过９５５９８发布","powerOffId":"2018060313000268"},{"poweroffId":2018060313000266,"sgpoweroffId":null,"subsName":"","lineName":"县城Ⅰ线535","pubTranName":"五铺2号,五铺8号公用,五铺1号,五铺5号,汇淼温泉花园公用变压器,汇淼温泉花园3#,雄县古槐塑料厂,汇淼温泉花园2号公用,津雄公用,五铺4号,物价局公用,五铺3号,法院,河北绿源地热能开发有限公司雄县分公司,陕西绿源地热能源开发有限公司雄县分公司（雄县二中）,雄县嘉鹏塑料包装有限公司,五铺7号,五铺13#公用,雄县凌志塑料厂,五铺11号,五铺12号,西侯留12#公用,五铺6号公用,支油办公室家属院,五铺9号公用,雄县昆巍纸塑制品销售有限公司,政府招待处商局楼公用,清河公园,孙同升,农业局公用,五铺10号,","scope":"【影响街道/乡镇】雄州镇 【高危重要客户】无 【影响客户】五铺、政府招待楼、汇淼温泉花园、西侯留、物价局、农业局","startTime":"2018-06-03 14:02:42","stopDate":"2018-06-03 20:00:00","orgNo":"1340624","typeCode":"电网故障停限电","poweroffArea":"【全线路停电】停五铺12号,政府招待处商局楼公用,孙同升,雄县古槐塑料厂,五铺13#公用,五铺10号,五铺7号,五铺5号,五铺9号公用,五铺1号,河北绿源地热能开发有限公司雄县分公司,汇淼温泉花园3#,雄县昆巍纸塑制品销售有限公司,农业局公用,法院,西侯留12#公用,支油办公室家属院,五铺3号,五铺2号,五铺11号,陕西绿源地热能源开发有限公司雄县分公司（雄县二中）,津雄公用,五铺4号,物价局公用,五铺8号公用,雄县嘉鹏塑料包装有限公司,清河公园,汇淼温泉花园公用变压器,雄县凌志塑料厂,汇淼温泉花园2号公用,五铺6号公用","poweroffReason":"【停电原因】由于Ｂ相接地导致１１０ＫＶ温泉城变电站县城Ｉ线５３５线路全线停电 【变更送电】无 【发布渠道】通过９５５９８发布","powerTime":"2018-06-03 19:53:59","powerComm":"已送电","subsNo":"","lineNo":"","tgNo":"","tgName":null,"infoStatus":"1","orgName":"(原)国网雄县供电公司","typeName":null,"infoStatusName":null,"dateDay":null,"orgNos":null,"nowTime":null,"countyName":null,"streetName":null,"villageName":null,"roadName":null,"communityName":null,"tranName":null,"sdLineName":null,"cityCode":"1340624","cityName":"(原)国网雄县供电公司","provinceCode":null,"stopTime":"2018-06-03 20:00:00","powerType":"全部","powerOffArea":"【全线路停电】停五铺12号,政府招待处商局楼公用,孙同升,雄县古槐塑料厂,五铺13#公用,五铺10号,五铺7号,五铺5号,五铺9号公用,五铺1号,河北绿源地热能开发有限公司雄县分公司,汇淼温泉花园3#,雄县昆巍纸塑制品销售有限公司,农业局公用,法院,西侯留12#公用,支油办公室家属院,五铺3号,五铺2号,五铺11号,陕西绿源地热能源开发有限公司雄县分公司（雄县二中）,津雄公用,五铺4号,物价局公用,五铺8号公用,雄县嘉鹏塑料包装有限公司,清河公园,汇淼温泉花园公用变压器,雄县凌志塑料厂,汇淼温泉花园2号公用,五铺6号公用","powerOffReason":"【停电原因】由于Ｂ相接地导致１１０ＫＶ温泉城变电站县城Ｉ线５３５线路全线停电 【变更送电】无 【发布渠道】通过９５５９８发布","powerOffId":"2018060313000266"},{"poweroffId":2018060313000257,"sgpoweroffId":null,"subsName":"","lineName":"十白线526","pubTranName":"小营东,","scope":"【影响街道/乡镇】白沟镇 【高危重要客户】无 【影响客户】小营村（东部分）","startTime":"2018-06-03 13:05:32","stopDate":"2018-06-03 15:00:00","orgNo":"1340612","typeCode":"电网故障停限电","poweroffArea":"【单台区停电】停小营东","poweroffReason":"【停电原因】由于小营东分支树枝搭线导致１１０ＫＶ白沟变电站１０ＫＶ十白５２６线路小营东公变台区停电 【变更送电】因抢修进度加快原因，送电时间由１６：００变更为１５：００ 【发布渠道】通过９５５９８发布","powerTime":"2018-06-03 14:50:16","powerComm":"已送电","subsNo":"","lineNo":"","tgNo":"","tgName":null,"infoStatus":"1","orgName":"国网高碑店市供电公司","typeName":null,"infoStatusName":null,"dateDay":null,"orgNos":null,"nowTime":null,"countyName":null,"streetName":null,"villageName":null,"roadName":null,"communityName":null,"tranName":null,"sdLineName":null,"cityCode":"1340612","cityName":"国网高碑店市供电公司","provinceCode":null,"stopTime":"2018-06-03 15:00:00","powerType":"全部","powerOffArea":"【单台区停电】停小营东","powerOffReason":"【停电原因】由于小营东分支树枝搭线导致１１０ＫＶ白沟变电站１０ＫＶ十白５２６线路小营东公变台区停电 【变更送电】因抢修进度加快原因，送电时间由１６：００变更为１５：００ 【发布渠道】通过９５５９８发布","powerOffId":"2018060313000257"},{"poweroffId":2018060313000242,"sgpoweroffId":null,"subsName":"","lineName":"10kV庞各庄515线","pubTranName":"南卜综合4台区,东街面粉,北街内东北综4,南卜内东综合1,庞各庄所自用电,北街边西农业1号【纯农排变】,东街综合4台区,南卜村西农业4台区变压器【纯农排变】,北卜东南农业【纯农排变】,东街村北农业3号【纯农排变】,北街鸡东农业6号【纯农排变】,西街内北综合1台区变压器,东奥工贸,南街村西新增农业变压器【纯农排变】,北街鸡中综合4号,北卜内中新综合3,北街内西北综合3,北卜内东综合1,西街内西北综合3,西街村东北农业1台区变压器【纯农排变】,南卜村北农业5台区变压器【纯农排变】,南卜内北综合5台区,北街边东农业二台区变压器【纯农排变】,北街北西农业4号【纯农排变】,北卜农业8台区【纯农排变】,西街北东农业6号【纯农排变】,北卜村东农业1台区变压器【纯农排变】,东街村东农业1号【纯农排变】,安国市西城乡西街水厂,北街农业三台区变压器【纯农排变】,南卜村南农业3号【纯农排变】,北街内东综6柱上变压器,西街综合4台区,南街农业四台区【纯农排变】,东街内南综合3,北街内西综合1号,北卜东北农业5号【纯农排变】,北卜内东新综合4台区变压器,北卜村南农业3号【纯农排变】,北街农业8台区【纯农排变】,东街村东农业4号【纯农排变】,西街西北农业5台区变压器【纯农排变】,东街内西综合2,东街村内东综合1,北街内东综合2,南街内西综合2,北卜农业7台区【纯农排变】,南卜内西综合2号,南卜边东台区变压器【纯农排变】,南卜东北农业1号【纯农排变】,南街村西农业2号【纯农排变】,南卜内中综合3,北卜西北农业【纯农排变】,南街西北农业3号【纯农排变】,南卜面厂,西街综合二台区变压器,北街北东农业5号【纯农排变】,北卜村北东农业6台区【纯农排变】,南卜村东农业2号【纯农排变】,南街内东综合1,西街北西农业4台区变压器【纯农排变】,北卜农业9台区【纯农排变】,北卜内西新综合,南卜窑上农业6号【纯农排变】,","scope":"【影响街道/乡镇】西安国城乡 【高危重要客户】无 【影响客户】北卜村、南街村、东街村、南卜村、西街村、北街村","startTime":"2018-06-03 11:45:56","stopDate":"2018-06-03 14:50:00","orgNo":"1340606","typeCode":"电网故障停限电","poweroffArea":"【全线路停电】停南街内东综合1,北街内东综6柱上变压器,西街内西北综合3,北卜东南农业【纯农排变】,西街北西农业4台区变压器【纯农排变】,南卜边东台区变压器【纯农排变】,南卜内中综合3,北街内西北综合3,北街鸡东农业6号【纯农排变】,北街北西农业4号【纯农排变】,北卜村南农业3号【纯农排变】,南卜东北农业1号【纯农排变】,南街西北农业3号【纯农排变】,东街村北农业3号【纯农排变】,东街综合4台区,北卜农业9台区【纯农排变】,东街面粉,庞各庄所自用电,西街西北农业5台区变压器【纯农排变】,西街综合4台区,东街内南综合3,北卜内东新综合4台区变压器,东街村内东综合1,北卜内西新综合,北街内东北综4,北街内西综合1号,东街内西综合2,南卜窑上农业6号【纯农排变】,南卜内东综合1,南街农业四台区【纯农排变】,南卜村北农业5台区变压器【纯农排变】,西街内北综合1台区变压器,北卜东北农业5号【纯农排变】,北街内东综合2,南卜内北综合5台区,南卜综合4台区,北街边西农业1号【纯农排变】,东奥工贸,北卜西北农业【纯农排变】,东街村东农业1号【纯农排变】,西街村东北农业1台区变压器【纯农排变】,南街内西综合2,北卜村东农业1台区变压器【纯农排变】,南卜面厂,北街农业8台区【纯农排变】,南街村西新增农业变压器【纯农排变】,北街农业三台区变压器【纯农排变】,西街综合二台区变压器,南卜村西农业4台区变压器【纯农排变】,北卜农业7台区【纯农排变】,南卜村南农业3号【纯农排变】,安国市西城乡西街水厂,东街村东农业4号【纯农排变】,北街鸡中综合4号,西街北东农业6号【纯农排变】,北街北东农业5号【纯农排变】,南卜村东农业2号【纯农排变】,南卜内西综合2号,北卜内东综合1,北街边东农业二台区变压器【纯农排变】,北卜农业8台区【纯农排变】,北卜内中新综合3,南街村西农业2号【纯农排变】,北卜村北东农业6台区【纯农排变】","poweroffReason":"【停电原因】由于站内开关掉闸导致３５ＫＶ庞各庄变电站１０ＫＶ庞各庄５１５线路全线停电 【变更送电】无 【发布渠道】９５５９８","powerTime":"2018-06-03 14:11:29","powerComm":"已送电","subsNo":"","lineNo":"","tgNo":"","tgName":null,"infoStatus":"1","orgName":"国网安国市供电公司","typeName":null,"infoStatusName":null,"dateDay":null,"orgNos":null,"nowTime":null,"countyName":null,"streetName":null,"villageName":null,"roadName":null,"communityName":null,"tranName":null,"sdLineName":null,"cityCode":"1340606","cityName":"国网安国市供电公司","provinceCode":null,"stopTime":"2018-06-03 14:50:00","powerType":"全部","powerOffArea":"【全线路停电】停南街内东综合1,北街内东综6柱上变压器,西街内西北综合3,北卜东南农业【纯农排变】,西街北西农业4台区变压器【纯农排变】,南卜边东台区变压器【纯农排变】,南卜内中综合3,北街内西北综合3,北街鸡东农业6号【纯农排变】,北街北西农业4号【纯农排变】,北卜村南农业3号【纯农排变】,南卜东北农业1号【纯农排变】,南街西北农业3号【纯农排变】,东街村北农业3号【纯农排变】,东街综合4台区,北卜农业9台区【纯农排变】,东街面粉,庞各庄所自用电,西街西北农业5台区变压器【纯农排变】,西街综合4台区,东街内南综合3,北卜内东新综合4台区变压器,东街村内东综合1,北卜内西新综合,北街内东北综4,北街内西综合1号,东街内西综合2,南卜窑上农业6号【纯农排变】,南卜内东综合1,南街农业四台区【纯农排变】,南卜村北农业5台区变压器【纯农排变】,西街内北综合1台区变压器,北卜东北农业5号【纯农排变】,北街内东综合2,南卜内北综合5台区,南卜综合4台区,北街边西农业1号【纯农排变】,东奥工贸,北卜西北农业【纯农排变】,东街村东农业1号【纯农排变】,西街村东北农业1台区变压器【纯农排变】,南街内西综合2,北卜村东农业1台区变压器【纯农排变】,南卜面厂,北街农业8台区【纯农排变】,南街村西新增农业变压器【纯农排变】,北街农业三台区变压器【纯农排变】,西街综合二台区变压器,南卜村西农业4台区变压器【纯农排变】,北卜农业7台区【纯农排变】,南卜村南农业3号【纯农排变】,安国市西城乡西街水厂,东街村东农业4号【纯农排变】,北街鸡中综合4号,西街北东农业6号【纯农排变】,北街北东农业5号【纯农排变】,南卜村东农业2号【纯农排变】,南卜内西综合2号,北卜内东综合1,北街边东农业二台区变压器【纯农排变】,北卜农业8台区【纯农排变】,北卜内中新综合3,南街村西农业2号【纯农排变】,北卜村北东农业6台区【纯农排变】","powerOffReason":"【停电原因】由于站内开关掉闸导致３５ＫＶ庞各庄变电站１０ＫＶ庞各庄５１５线路全线停电 【变更送电】无 【发布渠道】９５５９８","powerOffId":"2018060313000242"},{"poweroffId":2018060313000222,"sgpoweroffId":null,"subsName":"","lineName":"10KV高官庄512","pubTranName":"南高官庄北1169,","scope":"【影响街道/乡镇】高官庄镇 【高危重要客户】无 【影响客户】南高官庄","startTime":"2018-06-03 11:35:23","stopDate":"2018-06-03 13:30:00","orgNo":"1340626","typeCode":"电网故障停限电","poweroffArea":"【单台区停电】停南高官庄北1169","poweroffReason":"【停电原因】由于低压空开烧毁导致３５ＫＶ高官庄变电站１０ＫＶ高官庄５１２线路南高官庄北１１６９公变台区停电 【变更送电】因抢修进度加快原因，送电时间由１８：００变更为１３：３０ 【发布渠道】通过９５５９８发布","powerTime":"2018-06-03 12:55:29","powerComm":"恢复送电","subsNo":"","lineNo":"","tgNo":"","tgName":null,"infoStatus":"1","orgName":"国网涿州市供电公司","typeName":null,"infoStatusName":null,"dateDay":null,"orgNos":null,"nowTime":null,"countyName":null,"streetName":null,"villageName":null,"roadName":null,"communityName":null,"tranName":null,"sdLineName":null,"cityCode":"1340626","cityName":"国网涿州市供电公司","provinceCode":null,"stopTime":"2018-06-03 13:30:00","powerType":"全部","powerOffArea":"【单台区停电】停南高官庄北1169","powerOffReason":"【停电原因】由于低压空开烧毁导致３５ＫＶ高官庄变电站１０ＫＶ高官庄５１２线路南高官庄北１１６９公变台区停电 【变更送电】因抢修进度加快原因，送电时间由１８：００变更为１３：３０ 【发布渠道】通过９５５９８发布","powerOffId":"2018060313000222"},{"poweroffId":2018060313000203,"sgpoweroffId":null,"subsName":"","lineName":"十白线526","pubTranName":"变压器630,电瓶厂200,高桥生态别墅小区变压器,0387445858-魏洪海-专变-45280082-魏洪海,高桥10,高桥中,高桥2,高桥西,小营东,高桥中9,永康制线厂,高金花,小营地南【纯农排变】,雨水提升泵站,小营9,高桥南2,高桥南,小营地【纯农排变】,高桥北,小营12号,高桥中8学校,变压器,高桥北2,0612093386-保定白沟新城恒利五金压铸厂-专变-216214635-变压器,高桥11号,变压器315,电瓶厂3,小营10号,高碑店市帛隆无纺布有限公司,白沟新城规划建设局(北一环路灯3),","scope":"【影响街道/乡镇】白沟镇、北一环 【高危重要客户】无 【影响客户】高桥村、帛隆无纺布、帝威五金压铸、白沟新城恒利五金压铸厂、高桥生态别墅小区、白沟雨水提升泵站、张素萍（圆通物流）、魏庄菜市场","startTime":"2018-06-03 10:51:00","stopDate":"2018-06-03 13:30:00","orgNo":"1340612","typeCode":"电网故障停限电","poweroffArea":"【全线路停电】停高桥生态别墅小区变压器,高金花,高桥北2,永康制线厂,小营东,高桥北,变压器315,白沟新城规划建设局(北一环路灯3),高桥10,高桥2,变压器630,高桥11号,高桥南2,小营10号,雨水提升泵站,电瓶厂3,0387445858-魏洪海-专变-45280082-魏洪海,小营地【纯农排变】,高桥中,电瓶厂200,高桥中8学校,高桥中9,小营12号,高桥西,0612093386-保定白沟新城恒利五金压铸厂-专变-216214635-变压器,高碑店市帛隆无纺布有限公司,变压器,小营地南【纯农排变】,高桥南,小营9","poweroffReason":"【停电原因】由于龙安泰分支树枝搭线导致１１０ＫＶ白沟变电站１０ＫＶ十白５２６线路全线停电 【变更送电】因抢修进度加快原因，送电时间由１６：００变更为１３：３０ 【发布渠道】通过９５５９８发布","powerTime":"2018-06-03 13:04:40","powerComm":"已送电","subsNo":"","lineNo":"","tgNo":"","tgName":null,"infoStatus":"1","orgName":"国网高碑店市供电公司","typeName":null,"infoStatusName":null,"dateDay":null,"orgNos":null,"nowTime":null,"countyName":null,"streetName":null,"villageName":null,"roadName":null,"communityName":null,"tranName":null,"sdLineName":null,"cityCode":"1340612","cityName":"国网高碑店市供电公司","provinceCode":null,"stopTime":"2018-06-03 13:30:00","powerType":"全部","powerOffArea":"【全线路停电】停高桥生态别墅小区变压器,高金花,高桥北2,永康制线厂,小营东,高桥北,变压器315,白沟新城规划建设局(北一环路灯3),高桥10,高桥2,变压器630,高桥11号,高桥南2,小营10号,雨水提升泵站,电瓶厂3,0387445858-魏洪海-专变-45280082-魏洪海,小营地【纯农排变】,高桥中,电瓶厂200,高桥中8学校,高桥中9,小营12号,高桥西,0612093386-保定白沟新城恒利五金压铸厂-专变-216214635-变压器,高碑店市帛隆无纺布有限公司,变压器,小营地南【纯农排变】,高桥南,小营9","powerOffReason":"【停电原因】由于龙安泰分支树枝搭线导致１１０ＫＶ白沟变电站１０ＫＶ十白５２６线路全线停电 【变更送电】因抢修进度加快原因，送电时间由１６：００变更为１３：３０ 【发布渠道】通过９５５９８发布","powerOffId":"2018060313000203"},{"poweroffId":2018060313000177,"sgpoweroffId":null,"subsName":"","lineName":"10kV东山513线","pubTranName":"宋庄综合2#变压器,宋庄综合1#变压器,","scope":"【影响街道/乡镇】药市办事处 【高危重要客户】无 【影响客户】以岭饮片厂、神禾中药材饮片公司、金康迪中药材有限公司、刘庄饮料厂、中豪纺织有限公司、河北瑞高药业公司、实业公司、安国创业水务有限公司、棉纺家属院、安国市前进无纺布有限公司、河北嘉诚环境工程有限公司、亚东药业、东山、祁州镇宋庄村","startTime":"2018-06-13 08:30:00","stopDate":"2018-06-13 19:15:00","orgNo":"1340606","typeCode":"计划停电","poweroffArea":"【全线路停电】停宋庄综合1#变压器,宋庄综合2#变压器","poweroffReason":"【停电原因】由于更换电流互感器，导致１１０ＫＶ东河变电站１０ＫＶ东山５１３线路全线停电 【变更送电】因抢修进度加快原因，送电时间由２３：３０变更为１９：１５ 【发布渠道】保定市安国电视台（０６月０４日００时至２４时之间）屏幕上方滚动","powerTime":"2018-06-13 19:08:33","powerComm":"已送电","subsNo":"","lineNo":"","tgNo":"","tgName":null,"infoStatus":"1","orgName":"国网安国市供电公司","typeName":null,"infoStatusName":null,"dateDay":null,"orgNos":null,"nowTime":null,"countyName":null,"streetName":null,"villageName":null,"roadName":null,"communityName":null,"tranName":null,"sdLineName":null,"cityCode":"1340606","cityName":"国网安国市供电公司","provinceCode":null,"stopTime":"2018-06-13 19:15:00","powerType":"全部","powerOffArea":"【全线路停电】停宋庄综合1#变压器,宋庄综合2#变压器","powerOffReason":"【停电原因】由于更换电流互感器，导致１１０ＫＶ东河变电站１０ＫＶ东山５１３线路全线停电 【变更送电】因抢修进度加快原因，送电时间由２３：３０变更为１９：１５ 【发布渠道】保定市安国电视台（０６月０４日００时至２４时之间）屏幕上方滚动","powerOffId":"2018060313000177"},{"poweroffId":2018060313000174,"sgpoweroffId":null,"subsName":"","lineName":"10kV药城526线","pubTranName":"酒厂家属院综合变压器,大兴隆公用变压器,瑞安综合变压器,工业城综合变压器,","scope":"【影响街道/乡镇】东大街 【高危重要客户】无 【影响客户】工业城、电力局汽修厂、祁农中药加工厂、新隆制药有限公司、三九药业、祁澳饮片有限公司、天下康制药、弘发中药材饮片有限公司、合力塑料2号、美威中药材有限公司、橡塑制品有限公司、金中贵乳剂厂、冷库、祁州酒业有限公司、祁新颗粒饮片厂、华隆农机公司、关家园养生酒有限公司、祁农中药材有限公司、中国移动公司、公安消防大队、酒厂家属院、千祥云集、科瑞达纺织、大兴隆、合力塑料有限公司、三九（安国）现代中药开发有限公司、宏瑞纺织有限公司、安国市橡塑制品有限公司、瑞安","startTime":"2018-06-13 08:30:00","stopDate":"2018-06-13 20:30:00","orgNo":"1340606","typeCode":"计划停电","poweroffArea":"【全线路停电】停大兴隆公用变压器,酒厂家属院综合变压器,瑞安综合变压器,工业城综合变压器","poweroffReason":"【停电原因】由于更换电流互感器，导致１１０ＫＶ东河变电站１０ＫＶ药城５２６线路全线停电 【变更送电】因抢修进度加快原因，送电时间由２３：３０变更为２０：３０ 【发布渠道】保定市安国电视台（０６月０４日００时至２４时之间）屏幕上方滚动","powerTime":"2018-06-13 20:20:56","powerComm":"已送电","subsNo":"","lineNo":"","tgNo":"","tgName":null,"infoStatus":"1","orgName":"国网安国市供电公司","typeName":null,"infoStatusName":null,"dateDay":null,"orgNos":null,"nowTime":null,"countyName":null,"streetName":null,"villageName":null,"roadName":null,"communityName":null,"tranName":null,"sdLineName":null,"cityCode":"1340606","cityName":"国网安国市供电公司","provinceCode":null,"stopTime":"2018-06-13 20:30:00","powerType":"全部","powerOffArea":"【全线路停电】停大兴隆公用变压器,酒厂家属院综合变压器,瑞安综合变压器,工业城综合变压器","powerOffReason":"【停电原因】由于更换电流互感器，导致１１０ＫＶ东河变电站１０ＫＶ药城５２６线路全线停电 【变更送电】因抢修进度加快原因，送电时间由２３：３０变更为２０：３０ 【发布渠道】保定市安国电视台（０６月０４日００时至２４时之间）屏幕上方滚动","powerOffId":"2018060313000174"}],"pageModel":{"pageNow":1046,"totalCount":10973,"totalPage":1098,"tableRows":0,"pageCount":10,"beginCount":10450},"isExperi":"1"}