{"message":"","today":"2020-06-15","seleList":[{"poweroffId":2018060113000469,"sgpoweroffId":null,"subsName":"","lineName":"仁义庄线512","pubTranName":"杜庄西水,0387550091-杜庄西水-专变-45353206-杜庄西水,上岔河4#公用,仁义庄2#水利公用,0692835964-雄县米家务镇上岔河小学-专变-235698572-雄县米家务镇上岔河小学,上岔河1＃公用,仁义庄1#水利公用,仁义庄5#公用,【纯农排变】仁义庄7#水利公用,【纯农排变】仁义庄4#水利公用,【纯农排变】仁义庄3＃公用,杜庄3＃公用,上岔河3号公用,仁义庄2＃公用,上岔河2＃公用,0694736911-雄县双堂乡杜庄小学-专变-237563637-雄县双堂乡杜庄小学,杜庄4＃公用,【纯农排变】杜庄1＃公用,上岔河2#水利公用,仁义庄6#水利公用,仁义庄1＃公用,仁义庄8#水利公用,杜庄2＃公用,0387550730-雄县中元奶牛厂-专变-45353143-雄县中元奶牛厂,仁义庄3#水利公用,【纯农排变】上岔河1#水利公用,宋伯辉,","scope":"【影响街道/乡镇】米家务镇 【高危重要客户】无 【影响客户】杜庄、上岔河、仁义庄","startTime":"2018-06-03 05:00:00","stopDate":"2018-06-03 06:30:00","orgNo":"1340624","typeCode":"临时停电","poweroffArea":"【全线路停电】停杜庄3＃公用,上岔河3号公用,【纯农排变】仁义庄3＃公用,宋伯辉,仁义庄2＃公用,杜庄西水,0387550091-杜庄西水-专变-45353206-杜庄西水,上岔河2＃公用,0694736911-雄县双堂乡杜庄小学-专变-237563637-雄县双堂乡杜庄小学,上岔河4#公用,杜庄4＃公用,【纯农排变】杜庄1＃公用,仁义庄2#水利公用,上岔河2#水利公用,0692835964-雄县米家务镇上岔河小学-专变-235698572-雄县米家务镇上岔河小学,仁义庄6#水利公用,上岔河1＃公用,仁义庄1＃公用,仁义庄1#水利公用,仁义庄8#水利公用,仁义庄5#公用,杜庄2＃公用,【纯农排变】仁义庄7#水利公用,0387550730-雄县中元奶牛厂-专变-45353143-雄县中元奶牛厂,仁义庄3#水利公用,【纯农排变】上岔河1#水利公用,【纯农排变】仁义庄4#水利公用","poweroffReason":"【停电原因】由于倒方式导致３５ＫＶ仁义庄变电站仁义庄线５１２线路全线停电 【变更送电】无 【发布渠道】通过９５５９８发布","powerTime":"2018-06-03 06:23:00","powerComm":"已送电","subsNo":"","lineNo":"","tgNo":"","tgName":null,"infoStatus":"1","orgName":"(原)国网雄县供电公司","typeName":null,"infoStatusName":null,"dateDay":null,"orgNos":null,"nowTime":null,"countyName":null,"streetName":null,"villageName":null,"roadName":null,"communityName":null,"tranName":null,"sdLineName":null,"cityCode":"1340624","cityName":"(原)国网雄县供电公司","provinceCode":null,"stopTime":"2018-06-03 06:30:00","powerType":"全部","powerOffArea":"【全线路停电】停杜庄3＃公用,上岔河3号公用,【纯农排变】仁义庄3＃公用,宋伯辉,仁义庄2＃公用,杜庄西水,0387550091-杜庄西水-专变-45353206-杜庄西水,上岔河2＃公用,0694736911-雄县双堂乡杜庄小学-专变-237563637-雄县双堂乡杜庄小学,上岔河4#公用,杜庄4＃公用,【纯农排变】杜庄1＃公用,仁义庄2#水利公用,上岔河2#水利公用,0692835964-雄县米家务镇上岔河小学-专变-235698572-雄县米家务镇上岔河小学,仁义庄6#水利公用,上岔河1＃公用,仁义庄1＃公用,仁义庄1#水利公用,仁义庄8#水利公用,仁义庄5#公用,杜庄2＃公用,【纯农排变】仁义庄7#水利公用,0387550730-雄县中元奶牛厂-专变-45353143-雄县中元奶牛厂,仁义庄3#水利公用,【纯农排变】上岔河1#水利公用,【纯农排变】仁义庄4#水利公用","powerOffReason":"【停电原因】由于倒方式导致３５ＫＶ仁义庄变电站仁义庄线５１２线路全线停电 【变更送电】无 【发布渠道】通过９５５９８发布","powerOffId":"2018060113000469"},{"poweroffId":2018060113000467,"sgpoweroffId":null,"subsName":"","lineName":"10kV开发区线516","pubTranName":"东大村6#水利公用,刘双林,河北福派安管道制造有限公司,西大村3＃水利公用,0545982511-雄县长彪制花有限公司-专变-47848144-变压器,王法利,苏毅,东大村1＃公用,东大2#水利,雄县四达塑料制品有限公司,雄县亿凯塑胶制品有限公司,东大村2＃公用,东大1#水利,东大4#水利,东大村3＃公用,东大村4＃公用,东大村内孵化厂,河北百江塑胶制品有限公司,西大村4#水利公用,0628859152-雄县昝岗木森塑料制品厂2#-专变-140695693-雄县昝岗木森塑料制品厂2#,永丰塑料制品厂,0387551951-雄县米家务镇顺祥塑料制品厂-专变-45353252-雄县同顺昌塑料制品厂,0575454954-河北江特塑料制品有限公司-专变-124005455-雄县恒昌华泰塑胶制品有限公司,刘双林3#,雄县建伟塑料制品厂,雄县德润塑料制品厂,刘亚亮,雄县艺财甘薯专业合作社,【纯农排变】东大村5＃水利公用,鲍树维,北庄2#水利公用,0387551717-孟庆祥-专变-45353124-孟庆祥,0600793050-雄县米家务镇健硕塑料制品厂-专变-126683352-雄县米家务镇宝通塑料制品厂2#,0637189622-雄县永旺塑料制品有限公司-专变-148424408-雄县永旺塑料制品有限公司,东大村5#公用（小区）,【纯农排变】东大村东南水利,0600792868-雄县亿凯塑胶制品有限公司-专变-126683345-雄县米家务镇宝通塑料制品厂1#,0387551557-河北福派安管道制造有限公司-专变-225192130-变压器,北庄3#水利,东大村北水,0387550251-刘双林-专变-45353543-刘双林,0553970368-雄县昱嘉塑胶制品厂-专变-70407835-变压器,变压器,陈长彪,【纯农排变】东大村东北水利,","scope":"【影响街道/乡镇】米家务镇 【高危重要客户】无 【影响客户】东大村","startTime":"2018-06-03 05:00:00","stopDate":"2018-06-03 06:30:00","orgNo":"1340624","typeCode":"临时停电","poweroffArea":"【全线路停电】停0637189622-雄县永旺塑料制品有限公司-专变-148424408-雄县永旺塑料制品有限公司,0575454954-河北江特塑料制品有限公司-专变-124005455-雄县恒昌华泰塑胶制品有限公司,东大村6#水利公用,刘双林3#,变压器,刘双林,陈长彪,东大2#水利,雄县四达塑料制品有限公司,河北福派安管道制造有限公司,雄县亿凯塑胶制品有限公司,雄县建伟塑料制品厂,东大村5#公用（小区）,【纯农排变】东大村东南水利,东大村2＃公用,东大1#水利,0600792868-雄县亿凯塑胶制品有限公司-专变-126683345-雄县米家务镇宝通塑料制品厂1#,西大村3＃水利公用,【纯农排变】东大村东北水利,雄县德润塑料制品厂,刘亚亮,雄县艺财甘薯专业合作社,0545982511-雄县长彪制花有限公司-专变-47848144-变压器,东大4#水利,0387551557-河北福派安管道制造有限公司-专变-225192130-变压器,【纯农排变】东大村5＃水利公用,北庄3#水利,东大村3＃公用,王法利,鲍树维,东大村北水,东大村4＃公用,东大村内孵化厂,0387550251-刘双林-专变-45353543-刘双林,苏毅,东大村1＃公用,0553970368-雄县昱嘉塑胶制品厂-专变-70407835-变压器,河北百江塑胶制品有限公司,西大村4#水利公用,0628859152-雄县昝岗木森塑料制品厂2#-专变-140695693-雄县昝岗木森塑料制品厂2#,北庄2#水利公用,永丰塑料制品厂,0387551717-孟庆祥-专变-45353124-孟庆祥,0600793050-雄县米家务镇健硕塑料制品厂-专变-126683352-雄县米家务镇宝通塑料制品厂2#,0387551951-雄县米家务镇顺祥塑料制品厂-专变-45353252-雄县同顺昌塑料制品厂","poweroffReason":"【停电原因】由于倒方式导致３５ＫＶ仁义庄变电站１０ＫＶ开发区线５１６线路全线停电 【变更送电】无 【发布渠道】通过９５５９８发布","powerTime":"2018-06-03 06:23:13","powerComm":"已送电","subsNo":"","lineNo":"","tgNo":"","tgName":null,"infoStatus":"1","orgName":"(原)国网雄县供电公司","typeName":null,"infoStatusName":null,"dateDay":null,"orgNos":null,"nowTime":null,"countyName":null,"streetName":null,"villageName":null,"roadName":null,"communityName":null,"tranName":null,"sdLineName":null,"cityCode":"1340624","cityName":"(原)国网雄县供电公司","provinceCode":null,"stopTime":"2018-06-03 06:30:00","powerType":"全部","powerOffArea":"【全线路停电】停0637189622-雄县永旺塑料制品有限公司-专变-148424408-雄县永旺塑料制品有限公司,0575454954-河北江特塑料制品有限公司-专变-124005455-雄县恒昌华泰塑胶制品有限公司,东大村6#水利公用,刘双林3#,变压器,刘双林,陈长彪,东大2#水利,雄县四达塑料制品有限公司,河北福派安管道制造有限公司,雄县亿凯塑胶制品有限公司,雄县建伟塑料制品厂,东大村5#公用（小区）,【纯农排变】东大村东南水利,东大村2＃公用,东大1#水利,0600792868-雄县亿凯塑胶制品有限公司-专变-126683345-雄县米家务镇宝通塑料制品厂1#,西大村3＃水利公用,【纯农排变】东大村东北水利,雄县德润塑料制品厂,刘亚亮,雄县艺财甘薯专业合作社,0545982511-雄县长彪制花有限公司-专变-47848144-变压器,东大4#水利,0387551557-河北福派安管道制造有限公司-专变-225192130-变压器,【纯农排变】东大村5＃水利公用,北庄3#水利,东大村3＃公用,王法利,鲍树维,东大村北水,东大村4＃公用,东大村内孵化厂,0387550251-刘双林-专变-45353543-刘双林,苏毅,东大村1＃公用,0553970368-雄县昱嘉塑胶制品厂-专变-70407835-变压器,河北百江塑胶制品有限公司,西大村4#水利公用,0628859152-雄县昝岗木森塑料制品厂2#-专变-140695693-雄县昝岗木森塑料制品厂2#,北庄2#水利公用,永丰塑料制品厂,0387551717-孟庆祥-专变-45353124-孟庆祥,0600793050-雄县米家务镇健硕塑料制品厂-专变-126683352-雄县米家务镇宝通塑料制品厂2#,0387551951-雄县米家务镇顺祥塑料制品厂-专变-45353252-雄县同顺昌塑料制品厂","powerOffReason":"【停电原因】由于倒方式导致３５ＫＶ仁义庄变电站１０ＫＶ开发区线５１６线路全线停电 【变更送电】无 【发布渠道】通过９５５９８发布","powerOffId":"2018060113000467"},{"poweroffId":2018060113000463,"sgpoweroffId":null,"subsName":"","lineName":"三家疃512","pubTranName":"0605072701-*河北铭硕机械有限公司-专变-235641534-河北铭硕机械有限公司-400,通美晶体-1600,变压器,中桥重钢结构制造1号变-800,海星橡胶制品-500,中桥重钢结构制造有限公司2号变-800,定兴县翔德铭汽车贸易有限公司,0586892525-定兴县恒通汽车维修服务中心-专变-125195158-变压器,2号变,1号变,0675890799-定兴县城市管理行政执法局-专变-216186611-定兴县城市管理执法局路灯-100,0647453577-定兴县城市管理行政执法局-专变-171447564-定兴县城市管理行政执法局-50,定兴县龙源热力有限公司100,天骄房地产1号变—630,佳茂金属制品-250,跃飞2号变―630,宏峰耐火材料-400,天骄房地产2号变—250,速洁优服务有限公司-200,两合庄排3【纯农排变】,海虹纸塑1号变-800,雅合纸塑800变压器,0604182401-*河北朗瑞环境工程有限公司-专变-127078698-河北朗瑞环境工程有限公司1号变,定兴龙源热力有限公司-1000,河北朗瑞环境工程有限公司2号变,万驰传动-630,河北京格-315,万驰传动-800,定兴县城市管理行政执法局-50,0011676772定兴县征途卡客车服务中心,天宏天然气-160,鑫阳新能源-1250,梁合庄路灯1-50,定兴龙源热力有限公司-1000A,内章所公用2,河北宝华电子科技有限公司,九地龙象合成材料-250,京工万达厨房1号变,0011676763定兴县朝阳机动车驾驶员培训学校,0645595552-定兴县城市管理行政执法局梁合庄段路灯-专变-169547073-梁合庄路灯2-50,美业斯维生物技术-630,燕城食品-1000,河北禾之美电器有限公司,京工万达厨房2好变,宏峰耐火-500,万驰传动-1250,0651097998-河北微纳环保科技有限公司-专变-176982813-河北微纳-315,宏峰耐火材料-630,定兴龙源热力有限公司-1000B,","scope":"【影响街道/乡镇】定兴镇 【高危重要客户】无 【影响客户】天宏天然气、九地龙象合成材料、海虹纸塑、两合庄部分用户、定兴县翔德铭汽车贸易有限公司、河北微纳、宏峰耐火材料、中桥重钢结构制造、万驰传动、河北宏庚环保设备有限公司、河北京格、天骄房地产","startTime":"2018-06-15 00:00:00","stopDate":"2018-06-15 07:00:00","orgNo":"1340609","typeCode":"计划停电","poweroffArea":"【全线路停电】停雅合纸塑800变压器,0605072701-*河北铭硕机械有限公司-专变-235641534-河北铭硕机械有限公司-400,通美晶体-1600,变压器,中桥重钢结构制造1号变-800,0604182401-*河北朗瑞环境工程有限公司-专变-127078698-河北朗瑞环境工程有限公司1号变,海星橡胶制品-500,中桥重钢结构制造有限公司2号变-800,定兴龙源热力有限公司-1000,定兴县翔德铭汽车贸易有限公司,0586892525-定兴县恒通汽车维修服务中心-专变-125195158-变压器,2号变,1号变,河北朗瑞环境工程有限公司2号变,0675890799-定兴县城市管理行政执法局-专变-216186611-定兴县城市管理执法局路灯-100,万驰传动-630,0647453577-定兴县城市管理行政执法局-专变-171447564-定兴县城市管理行政执法局-50,河北京格-315,定兴县龙源热力有限公司100,宏峰耐火-500,万驰传动-800,万驰传动-1250,定兴县城市管理行政执法局-50,0011676772定兴县征途卡客车服务中心,天宏天然气-160,鑫阳新能源-1250,0651097998-河北微纳环保科技有限公司-专变-176982813-河北微纳-315,梁合庄路灯1-50,宏峰耐火材料-630,定兴龙源热力有限公司-1000A,定兴龙源热力有限公司-1000B,内章所公用2,河北宝华电子科技有限公司,九地龙象合成材料-250,天骄房地产1号变—630,京工万达厨房1号变,佳茂金属制品-250,0011676763定兴县朝阳机动车驾驶员培训学校,0645595552-定兴县城市管理行政执法局梁合庄段路灯-专变-169547073-梁合庄路灯2-50,跃飞2号变―630,美业斯维生物技术-630,宏峰耐火材料-400,燕城食品-1000,河北禾之美电器有限公司,天骄房地产2号变—250,京工万达厨房2好变,两合庄排3【纯农排变】,速洁优服务有限公司-200,海虹纸塑1号变-800","poweroffReason":"【停电原因】由于线路切改导致１１０ＫＶ周家庄变电站三家疃５１２线路全线停电 【变更送电】无 【发布渠道】保定市定兴县电视台（０６月０７日０９时１０分至２３时５０分之间）屏幕上方滚动播放","powerTime":"2018-06-15 06:20:16","powerComm":"已送电","subsNo":"","lineNo":"","tgNo":"","tgName":null,"infoStatus":"1","orgName":"国网定兴县供电公司","typeName":null,"infoStatusName":null,"dateDay":null,"orgNos":null,"nowTime":null,"countyName":null,"streetName":null,"villageName":null,"roadName":null,"communityName":null,"tranName":null,"sdLineName":null,"cityCode":"1340609","cityName":"国网定兴县供电公司","provinceCode":null,"stopTime":"2018-06-15 07:00:00","powerType":"全部","powerOffArea":"【全线路停电】停雅合纸塑800变压器,0605072701-*河北铭硕机械有限公司-专变-235641534-河北铭硕机械有限公司-400,通美晶体-1600,变压器,中桥重钢结构制造1号变-800,0604182401-*河北朗瑞环境工程有限公司-专变-127078698-河北朗瑞环境工程有限公司1号变,海星橡胶制品-500,中桥重钢结构制造有限公司2号变-800,定兴龙源热力有限公司-1000,定兴县翔德铭汽车贸易有限公司,0586892525-定兴县恒通汽车维修服务中心-专变-125195158-变压器,2号变,1号变,河北朗瑞环境工程有限公司2号变,0675890799-定兴县城市管理行政执法局-专变-216186611-定兴县城市管理执法局路灯-100,万驰传动-630,0647453577-定兴县城市管理行政执法局-专变-171447564-定兴县城市管理行政执法局-50,河北京格-315,定兴县龙源热力有限公司100,宏峰耐火-500,万驰传动-800,万驰传动-1250,定兴县城市管理行政执法局-50,0011676772定兴县征途卡客车服务中心,天宏天然气-160,鑫阳新能源-1250,0651097998-河北微纳环保科技有限公司-专变-176982813-河北微纳-315,梁合庄路灯1-50,宏峰耐火材料-630,定兴龙源热力有限公司-1000A,定兴龙源热力有限公司-1000B,内章所公用2,河北宝华电子科技有限公司,九地龙象合成材料-250,天骄房地产1号变—630,京工万达厨房1号变,佳茂金属制品-250,0011676763定兴县朝阳机动车驾驶员培训学校,0645595552-定兴县城市管理行政执法局梁合庄段路灯-专变-169547073-梁合庄路灯2-50,跃飞2号变―630,美业斯维生物技术-630,宏峰耐火材料-400,燕城食品-1000,河北禾之美电器有限公司,天骄房地产2号变—250,京工万达厨房2好变,两合庄排3【纯农排变】,速洁优服务有限公司-200,海虹纸塑1号变-800","powerOffReason":"【停电原因】由于线路切改导致１１０ＫＶ周家庄变电站三家疃５１２线路全线停电 【变更送电】无 【发布渠道】保定市定兴县电视台（０６月０７日０９时１０分至２３时５０分之间）屏幕上方滚动播放","powerOffId":"2018060113000463"},{"poweroffId":2018060113000457,"sgpoweroffId":null,"subsName":"","lineName":"八东线515","pubTranName":"八南2#公用,八东1＃公用,【纯农排变】八南5#公用,保定同建塑料制品有限公司,河北乾鑫塑料制品有限公司,0692837377-雄县米家务镇八北幼儿园-专变-235694194-雄县米家务镇八北幼儿园,周庄8#水利公用,北京中财万鑫科技有限公司,雄县增伯树杈加工厂,八东5＃水利公用,八东3＃公用,八南6#公用,八南9#水利公用,变压器,八东7＃水利公用,八东4号公用,八东6#公用,八东7#公用,雄县方通电讯管材有限公司,0387551283-中国石化销售有限公司河北保定雄县石油分公司-专变-45353402-河北雄县石油分公司,【纯农排变】八东北水,【纯农排变】八东水,八东10#公用,八南4#公用,八东1#水利公用,河北乾鑫塑料制品有限公司2#,八东8#公用,八东2号公用,0387550118-保定中化森美燃气有限公司-专变-162025505-保定中化森美燃气有限公司,北京奇立强塑料包装公司,八东9台区,八东5号公用,【纯农排变】八东6＃水利公用,","scope":"【影响街道/乡镇】米家务镇 【高危重要客户】无 【影响客户】八东、八南","startTime":"2018-06-03 05:00:00","stopDate":"2018-06-03 06:30:00","orgNo":"1340624","typeCode":"临时停电","poweroffArea":"【全线路停电】停八东4号公用,【纯农排变】八东6＃水利公用,北京中财万鑫科技有限公司,八东9台区,八东1#水利公用,河北乾鑫塑料制品有限公司2#,雄县增伯树杈加工厂,周庄8#水利公用,八南4#公用,八东7＃水利公用,八东5号公用,八南2#公用,八东7#公用,八东6#公用,八东5＃水利公用,八东8#公用,0387551283-中国石化销售有限公司河北保定雄县石油分公司-专变-45353402-河北雄县石油分公司,八东1＃公用,八东3＃公用,八南6#公用,【纯农排变】八南5#公用,0387550118-保定中化森美燃气有限公司-专变-162025505-保定中化森美燃气有限公司,保定同建塑料制品有限公司,八东2号公用,北京奇立强塑料包装公司,八南9#水利公用,河北乾鑫塑料制品有限公司,【纯农排变】八东北水,雄县方通电讯管材有限公司,【纯农排变】八东水,变压器,0692837377-雄县米家务镇八北幼儿园-专变-235694194-雄县米家务镇八北幼儿园,八东10#公用","poweroffReason":"【停电原因】由于倒方式导致３５ＫＶ仁义庄变电站八东线５１５线路全线停电 【变更送电】无 【发布渠道】通过９５５９８发布","powerTime":"2018-06-03 06:23:30","powerComm":"已送电","subsNo":"","lineNo":"","tgNo":"","tgName":null,"infoStatus":"1","orgName":"(原)国网雄县供电公司","typeName":null,"infoStatusName":null,"dateDay":null,"orgNos":null,"nowTime":null,"countyName":null,"streetName":null,"villageName":null,"roadName":null,"communityName":null,"tranName":null,"sdLineName":null,"cityCode":"1340624","cityName":"(原)国网雄县供电公司","provinceCode":null,"stopTime":"2018-06-03 06:30:00","powerType":"全部","powerOffArea":"【全线路停电】停八东4号公用,【纯农排变】八东6＃水利公用,北京中财万鑫科技有限公司,八东9台区,八东1#水利公用,河北乾鑫塑料制品有限公司2#,雄县增伯树杈加工厂,周庄8#水利公用,八南4#公用,八东7＃水利公用,八东5号公用,八南2#公用,八东7#公用,八东6#公用,八东5＃水利公用,八东8#公用,0387551283-中国石化销售有限公司河北保定雄县石油分公司-专变-45353402-河北雄县石油分公司,八东1＃公用,八东3＃公用,八南6#公用,【纯农排变】八南5#公用,0387550118-保定中化森美燃气有限公司-专变-162025505-保定中化森美燃气有限公司,保定同建塑料制品有限公司,八东2号公用,北京奇立强塑料包装公司,八南9#水利公用,河北乾鑫塑料制品有限公司,【纯农排变】八东北水,雄县方通电讯管材有限公司,【纯农排变】八东水,变压器,0692837377-雄县米家务镇八北幼儿园-专变-235694194-雄县米家务镇八北幼儿园,八东10#公用","powerOffReason":"【停电原因】由于倒方式导致３５ＫＶ仁义庄变电站八东线５１５线路全线停电 【变更送电】无 【发布渠道】通过９５５９８发布","powerOffId":"2018060113000457"},{"poweroffId":2018060113000400,"sgpoweroffId":null,"subsName":"","lineName":"10kV大阳站558线路","pubTranName":"B142柱上变压器,10kVY0438.Y0439.Y0440.Y0441配电室Y0440配电变压器,10kVY0442.Y0443配电室Y0443变压器,10kVY0340.Y0341配电室Y0341配电变压器,C530柱上变压器,0356265971-杨庄乡王范庄村-专变,B1896柱上变压器,0356235082-中国人民解放军63850部队保定离职干部休养所-1-箱式变-变压器-1,10kVY0377.Y0378配电室Y0378配电变压器,10kVB880配电室B880配电变压器,10kVY0340.Y0341配电室Y0340配电变压器,0356179971-河北大学医学部-2#专变,0356179971-河北大学-专变-148014080-变压器,0356239387-保定市三丰电器有限公司-1-配电室-变压器-1,10kVY0377.Y0378配电室Y0377配电变压器,0356213589-保华消防器材有限公司-专变,变压器,0356224280-保定市南市区杨庄乡西高庄村-专变,0356322405-保定市南市区国家税务局-1-配电室-变压器-1,B141柱上变压器,10kVY0438.Y0439.Y0440.Y0441配电室Y0439配电变压器,0356234122-自来水公司-专变,10kVB878配电室B878配电变压器,10kVY0438.Y0439.Y0440.Y0441配电室Y0438配电变压器,0356179971-河北大学-专变-148014078-变压器,10kVY0442.Y0443配电室Y0442变压器,10kVY0438.Y0439.Y0440.Y0441配电室Y0441配电变压器,0356272654-保定市红阳小区业主委员会-专变,0356322405-保定市南市区国家税务局-1-配电室-变压器-2,","scope":"【影响街道/乡镇】杨庄乡、玉兰大街、红星路、裕华东路、红阳大街、天威路 【高危重要客户】无 【影响客户】杨庄、罐头厂宿舍、红阳小区、狮城佰俪、干休所、红星路小学宿舍、王范庄、自来水、省职工医学院、气象局宿舍、九三宿舍、红星路52号院、三丰电器、保华消防器材有限公司、保定市南市区国家税务局、石油分公司、东城国际、欣佳房产、中国人民解放军63850部队保定离职干部休养所、中国石化销售有限公司、河北大学、保定市路灯管理处、保定市中铁物业管理有限公司、保定市住房投资有限责任公司","startTime":"2018-06-01 14:25:00","stopDate":"2018-06-01 19:00:00","orgNo":"13406","typeCode":"电网故障停限电","poweroffArea":"【全线路停电】停10kVB880配电室B880配电变压器,0356213589-保华消防器材有限公司-专变,C530柱上变压器,B141柱上变压器,0356322405-保定市南市区国家税务局-1-配电室-变压器-1,10kVY0438.Y0439.Y0440.Y0441配电室Y0440配电变压器,变压器,10kVY0377.Y0378配电室Y0377配电变压器,0356239387-保定市三丰电器有限公司-1-配电室-变压器-1,10kVY0442.Y0443配电室Y0442变压器,0356234122-自来水公司-专变,B142柱上变压器,0356179971-河北大学-专变-148014080-变压器,0356265971-杨庄乡王范庄村-专变,10kVY0340.Y0341配电室Y0340配电变压器,0356179971-河北大学医学部-2#专变,0356224280-保定市南市区杨庄乡西高庄村-专变,10kVY0442.Y0443配电室Y0443变压器,0356322405-保定市南市区国家税务局-1-配电室-变压器-2,0356235082-中国人民解放军63850部队保定离职干部休养所-1-箱式变-变压器-1,0356179971-河北大学-专变-148014078-变压器,0356272654-保定市红阳小区业主委员会-专变,10kVY0438.Y0439.Y0440.Y0441配电室Y0438配电变压器,10kVY0377.Y0378配电室Y0378配电变压器,10kVY0438.Y0439.Y0440.Y0441配电室Y0439配电变压器,10kVY0438.Y0439.Y0440.Y0441配电室Y0441配电变压器,10kVY0340.Y0341配电室Y0341配电变压器,B1896柱上变压器,10kVB878配电室B878配电变压器","poweroffReason":"【停电原因】由于过流跳闸导致１０ＫＶ大阳变电站５５８线路全线停电【变更送电】因工作正在处理中，送电时间由１７：００变更为２０：００，因抢修进度加快，原定２０:００送电现计划１９:００送电【发布渠道】通过９５５９８发布","powerTime":"2018-06-01 18:50:30","powerComm":"已送电","subsNo":"","lineNo":"","tgNo":"","tgName":null,"infoStatus":"1","orgName":"保定供电公司","typeName":null,"infoStatusName":null,"dateDay":null,"orgNos":null,"nowTime":null,"countyName":null,"streetName":null,"villageName":null,"roadName":null,"communityName":null,"tranName":null,"sdLineName":null,"cityCode":"13406","cityName":"保定供电公司","provinceCode":null,"stopTime":"2018-06-01 19:00:00","powerType":"全部","powerOffArea":"【全线路停电】停10kVB880配电室B880配电变压器,0356213589-保华消防器材有限公司-专变,C530柱上变压器,B141柱上变压器,0356322405-保定市南市区国家税务局-1-配电室-变压器-1,10kVY0438.Y0439.Y0440.Y0441配电室Y0440配电变压器,变压器,10kVY0377.Y0378配电室Y0377配电变压器,0356239387-保定市三丰电器有限公司-1-配电室-变压器-1,10kVY0442.Y0443配电室Y0442变压器,0356234122-自来水公司-专变,B142柱上变压器,0356179971-河北大学-专变-148014080-变压器,0356265971-杨庄乡王范庄村-专变,10kVY0340.Y0341配电室Y0340配电变压器,0356179971-河北大学医学部-2#专变,0356224280-保定市南市区杨庄乡西高庄村-专变,10kVY0442.Y0443配电室Y0443变压器,0356322405-保定市南市区国家税务局-1-配电室-变压器-2,0356235082-中国人民解放军63850部队保定离职干部休养所-1-箱式变-变压器-1,0356179971-河北大学-专变-148014078-变压器,0356272654-保定市红阳小区业主委员会-专变,10kVY0438.Y0439.Y0440.Y0441配电室Y0438配电变压器,10kVY0377.Y0378配电室Y0378配电变压器,10kVY0438.Y0439.Y0440.Y0441配电室Y0439配电变压器,10kVY0438.Y0439.Y0440.Y0441配电室Y0441配电变压器,10kVY0340.Y0341配电室Y0341配电变压器,B1896柱上变压器,10kVB878配电室B878配电变压器","powerOffReason":"【停电原因】由于过流跳闸导致１０ＫＶ大阳变电站５５８线路全线停电【变更送电】因工作正在处理中，送电时间由１７：００变更为２０：００，因抢修进度加快，原定２０:００送电现计划１９:００送电【发布渠道】通过９５５９８发布","powerOffId":"2018060113000400"},{"poweroffId":2018060113000386,"sgpoweroffId":null,"subsName":"","lineName":"10kV田庄线568","pubTranName":"2田庄外9【纯农排变】,2田庄外5【纯农排变】,2田庄外3【纯农排变】,清苑县光荣院,1田庄内7,2田庄外8【纯农排变】,保定市清苑区光荣院,1李罗候内1,1武罗候内5,2田庄外7【纯农排变】,1田庄内1,2田庄外11【纯农排变】,1李罗候内4,1李罗候内5,2田庄外1【纯农排变】,2李罗候外8【纯农排变】,1田庄内4,2田庄外4【纯农排变】,1田庄内3,1史庄内1,2李罗候外6【纯农排变】,1田庄内5,1田庄内2,2田庄外2【纯农排变】,2李罗候外3【纯农排变】,1李罗候内3,1李罗候内2,2田庄外10【纯农排变】,1李罗候内6,2李罗候外7【纯农排变】,清苑县光明热浸线路金具厂,2武罗候外9【纯农排变】,2史庄外2【纯农排变】,2武罗候外8【纯农排变】,2李罗候外5【纯农排变】,2李罗候外4【纯农排变】,2李罗候外2【纯农排变】,1田庄内6,1李罗候内7,2田庄外6【纯农排变】,","scope":"【影响街道/乡镇】魏村镇 【高危重要客户】无 【影响客户】魏村南街村、魏村西街村、田庄、武罗候、史庄、李罗候","startTime":"2018-06-01 13:43:32","stopDate":"2018-06-01 16:50:00","orgNo":"1340618","typeCode":"电网故障停限电","poweroffArea":"【全线路停电】停1田庄内4,1田庄内2,2田庄外2【纯农排变】,2武罗候外8【纯农排变】,1李罗候内1,清苑县光明热浸线路金具厂,2武罗候外9【纯农排变】,1田庄内1,1李罗候内2,2田庄外3【纯农排变】,保定市清苑区光荣院,2李罗候外7【纯农排变】,2田庄外5【纯农排变】,1李罗候内4,2史庄外2【纯农排变】,1田庄内3,2田庄外10【纯农排变】,2田庄外4【纯农排变】,1李罗候内3,2田庄外8【纯农排变】,2李罗候外3【纯农排变】,1李罗候内7,2李罗候外4【纯农排变】,2田庄外11【纯农排变】,1李罗候内6,1武罗候内5,2李罗候外2【纯农排变】,1史庄内1,1田庄内7,2田庄外6【纯农排变】,2田庄外7【纯农排变】,清苑县光荣院,1田庄内6,2田庄外9【纯农排变】,1田庄内5,1李罗候内5,2李罗候外5【纯农排变】,2田庄外1【纯农排变】,2李罗候外8【纯农排变】,2李罗候外6【纯农排变】","poweroffReason":"【停电原因】由于主干１７号杆北Ｔ１５号杆光荣院避雷器击穿导致１１０ＫＶ罗侯变电站１０ＫＶ田庄线５６８线路全线停电 【变更送电】因抢修进度加快原因，送电时间由１８：００变更为１６：５０ 【发布渠道】通过９５５９８发布","powerTime":"2018-06-01 16:19:02","powerComm":"刘芳通知已送电","subsNo":"","lineNo":"","tgNo":"","tgName":null,"infoStatus":"1","orgName":"国网清苑县供电公司","typeName":null,"infoStatusName":null,"dateDay":null,"orgNos":null,"nowTime":null,"countyName":null,"streetName":null,"villageName":null,"roadName":null,"communityName":null,"tranName":null,"sdLineName":null,"cityCode":"1340618","cityName":"国网清苑县供电公司","provinceCode":null,"stopTime":"2018-06-01 16:50:00","powerType":"全部","powerOffArea":"【全线路停电】停1田庄内4,1田庄内2,2田庄外2【纯农排变】,2武罗候外8【纯农排变】,1李罗候内1,清苑县光明热浸线路金具厂,2武罗候外9【纯农排变】,1田庄内1,1李罗候内2,2田庄外3【纯农排变】,保定市清苑区光荣院,2李罗候外7【纯农排变】,2田庄外5【纯农排变】,1李罗候内4,2史庄外2【纯农排变】,1田庄内3,2田庄外10【纯农排变】,2田庄外4【纯农排变】,1李罗候内3,2田庄外8【纯农排变】,2李罗候外3【纯农排变】,1李罗候内7,2李罗候外4【纯农排变】,2田庄外11【纯农排变】,1李罗候内6,1武罗候内5,2李罗候外2【纯农排变】,1史庄内1,1田庄内7,2田庄外6【纯农排变】,2田庄外7【纯农排变】,清苑县光荣院,1田庄内6,2田庄外9【纯农排变】,1田庄内5,1李罗候内5,2李罗候外5【纯农排变】,2田庄外1【纯农排变】,2李罗候外8【纯农排变】,2李罗候外6【纯农排变】","powerOffReason":"【停电原因】由于主干１７号杆北Ｔ１５号杆光荣院避雷器击穿导致１１０ＫＶ罗侯变电站１０ＫＶ田庄线５６８线路全线停电 【变更送电】因抢修进度加快原因，送电时间由１８：００变更为１６：５０ 【发布渠道】通过９５５９８发布","powerOffId":"2018060113000386"},{"poweroffId":2018060113000361,"sgpoweroffId":null,"subsName":"","lineName":"10kV备用540间隔","pubTranName":"清苑县川岛起重机械制造有限公司,神雕起重,东吕付彦微配件加工,保定鼎力索具有限公司,清苑县联合起重机械厂,上海轶鹰起重机械有限公司清苑分公司,河北恩派克起重液压机械有限公司,东吕翟志章配件加工,东吕张国林配件加工,清苑县东吕月宽配件加工厂,东吕四街内2,清苑县志发链条加工厂,东吕杨恩占配件加工,河北双业起重机械有限公司,清苑县宏利锚链厂,0646559580-中国铁塔股份有限公司保定市分公司-专变-169916015-中国移动通信集团河北有限公司保定分公司,东吕四街内9,清苑县东广起重配件厂,佳力起重,0387489896-清苑县鑫力起重索具制造厂-专变-45315538-清苑县鑫力起重索具制造厂,清苑县飞翔起重机械厂,河北佳帅起重机械制造有限公司,东吕西二,保定巨鹰起重机械制造有限公司,0556973793-东吕一街头村委会村西-专变-104865832-东吕一街村委会村西,东吕三街村西,河北宇雕起重设备有限公司,东吕杨华池配件加工,东吕东四,东吕崔同芬配件加工,河北蒙德起重机械制造有限公司,东吕四街野外,东吕寇建生配件加工,东吕西六,1东吕三街内3,东吕张彦京配件加工,东吕三街内2,清苑县凯利特起重机械厂,东吕东威工具公司,东吕杜成立配件加工,清苑县双业起重机械有限公司,东吕一街野外,1东吕四街内6,1东吕三街内5,保定京鸽起重机械制造有限公司,上海轶鹰机械有限公司清苑分公司,杨继军,清苑县宇航起重机械制造有限公司,东吕畜牧场,保定大力起重机械有限公司,东吕四街野外新增,东吕村西,东吕四街村西南,东吕一街村委会东,东吕西五,东吕杨蕴辉,河北君达起重机械制造有限公司,","scope":"【影响街道/乡镇】东吕乡 【高危重要客户】无 【影响客户】东吕三街村、东吕四街村","startTime":"2018-06-01 12:46:21","stopDate":"2018-06-01 14:00:00","orgNo":"1340618","typeCode":"电网故障停限电","poweroffArea":"【全线路停电】停东吕杨恩占配件加工,东吕张彦京配件加工,神雕起重,河北君达起重机械制造有限公司,东吕付彦微配件加工,清苑县志发链条加工厂,东吕三街内2,清苑县川岛起重机械制造有限公司,东吕杨蕴辉,清苑县凯利特起重机械厂,河北双业起重机械有限公司,清苑县宏利锚链厂,保定大力起重机械有限公司,保定鼎力索具有限公司,0646559580-中国铁塔股份有限公司保定市分公司-专变-169916015-中国移动通信集团河北有限公司保定分公司,东吕东威工具公司,东吕杜成立配件加工,东吕四街野外新增,清苑县双业起重机械有限公司,东吕四街内9,东吕村西,清苑县东广起重配件厂,清苑县联合起重机械厂,佳力起重,东吕四街村西南,东吕一街野外,1东吕四街内6,上海轶鹰起重机械有限公司清苑分公司,1东吕三街内5,0556973793-东吕一街头村委会村西-专变-104865832-东吕一街村委会村西,0387489896-清苑县鑫力起重索具制造厂-专变-45315538-清苑县鑫力起重索具制造厂,东吕三街村西,保定京鸽起重机械制造有限公司,河北宇雕起重设备有限公司,东吕一街村委会东,河北佳帅起重机械制造有限公司,上海轶鹰机械有限公司清苑分公司,东吕杨华池配件加工,杨继军,东吕东四,河北恩派克起重液压机械有限公司,清苑县飞翔起重机械厂,东吕崔同芬配件加工,清苑县宇航起重机械制造有限公司,东吕翟志章配件加工,河北蒙德起重机械制造有限公司,东吕张国林配件加工,保定巨鹰起重机械制造有限公司,东吕四街野外,清苑县东吕月宽配件加工厂,东吕畜牧场,东吕寇建生配件加工,东吕西二,东吕西六,东吕西五,东吕四街内2,1东吕三街内3","poweroffReason":"【停电原因】由于主干１号杆开关掉闸导致１１０ＫＶ东闾变电站１０ＫＶ备用５４０间隔线路全线停电 【变更送电】因抢修进度加快原因，送电时间由１７：００变更为１４：００ 【发布渠道】通过９５５９８发布","powerTime":"2018-06-01 13:24:48","powerComm":"已送电","subsNo":"","lineNo":"","tgNo":"","tgName":null,"infoStatus":"1","orgName":"国网清苑县供电公司","typeName":null,"infoStatusName":null,"dateDay":null,"orgNos":null,"nowTime":null,"countyName":null,"streetName":null,"villageName":null,"roadName":null,"communityName":null,"tranName":null,"sdLineName":null,"cityCode":"1340618","cityName":"国网清苑县供电公司","provinceCode":null,"stopTime":"2018-06-01 14:00:00","powerType":"全部","powerOffArea":"【全线路停电】停东吕杨恩占配件加工,东吕张彦京配件加工,神雕起重,河北君达起重机械制造有限公司,东吕付彦微配件加工,清苑县志发链条加工厂,东吕三街内2,清苑县川岛起重机械制造有限公司,东吕杨蕴辉,清苑县凯利特起重机械厂,河北双业起重机械有限公司,清苑县宏利锚链厂,保定大力起重机械有限公司,保定鼎力索具有限公司,0646559580-中国铁塔股份有限公司保定市分公司-专变-169916015-中国移动通信集团河北有限公司保定分公司,东吕东威工具公司,东吕杜成立配件加工,东吕四街野外新增,清苑县双业起重机械有限公司,东吕四街内9,东吕村西,清苑县东广起重配件厂,清苑县联合起重机械厂,佳力起重,东吕四街村西南,东吕一街野外,1东吕四街内6,上海轶鹰起重机械有限公司清苑分公司,1东吕三街内5,0556973793-东吕一街头村委会村西-专变-104865832-东吕一街村委会村西,0387489896-清苑县鑫力起重索具制造厂-专变-45315538-清苑县鑫力起重索具制造厂,东吕三街村西,保定京鸽起重机械制造有限公司,河北宇雕起重设备有限公司,东吕一街村委会东,河北佳帅起重机械制造有限公司,上海轶鹰机械有限公司清苑分公司,东吕杨华池配件加工,杨继军,东吕东四,河北恩派克起重液压机械有限公司,清苑县飞翔起重机械厂,东吕崔同芬配件加工,清苑县宇航起重机械制造有限公司,东吕翟志章配件加工,河北蒙德起重机械制造有限公司,东吕张国林配件加工,保定巨鹰起重机械制造有限公司,东吕四街野外,清苑县东吕月宽配件加工厂,东吕畜牧场,东吕寇建生配件加工,东吕西二,东吕西六,东吕西五,东吕四街内2,1东吕三街内3","powerOffReason":"【停电原因】由于主干１号杆开关掉闸导致１１０ＫＶ东闾变电站１０ＫＶ备用５４０间隔线路全线停电 【变更送电】因抢修进度加快原因，送电时间由１７：００变更为１４：００ 【发布渠道】通过９５５９８发布","powerOffId":"2018060113000361"},{"poweroffId":2018060113000236,"sgpoweroffId":null,"subsName":"","lineName":"10kV572东丈线","pubTranName":"西岗公用农业5台区,东丈公用照明6台区1,东丈公用农业6台区【纯农排变】,东岗公用照明6台区,西岗公用照明3台区,东岗公用照明7台区,西岗公用农业4台区,东丈公用农业7台区,西岗村公用照明1台区,东丈公用照明9台区,东丈公用照明14台区,东只东公用农业2台区【纯农排变】,东岗村公用农业1台区,东丈村公用照明2台区1,东丈公用照明15台区,东丈公用农业9台区【纯农排变】,清风店西岗公用照明9台区,东只东村公用照明1台区,东岗村公用照明2台区,二十里铺公用农业4台区,东岗村公用农业2台区【纯农排变】,东丈公用照明8台区,龙腾公司,东丈公用农业5台区,鱼苗厂,东丈村公用照明1台区1,清风店西岗公用照明6台区,东岗村公用照明1台区,东岗公用照明4台区,东丈公用农业10台区,东丈公用照明10台区,唐城村公用农业5台区,东丈公用照明11台区,东丈公用照明7台区,中建路桥集团有限公司变压器,东只东公用农业1台区【纯农排变】,西岗公用农业3台区【纯农排变】,东丈村公用照明4台区,东丈公用农业2台区【纯农排变】,东丈公用照明12台区,东岗公用照明5台区,西岗公用照明5台区,东丈公用照明5台区1,清风店东只东公用照明2台区,定州市天成奶牛养殖中心,东丈公用照明13台区,东丈公用农业8台区【纯农排变】,西岗公用照明10台区,东丈公用农业1台区1【纯农排变】,西岗村公用照明2台区,东丈公用农业3台区,0664678065-定州市丰盛水泥制品厂-专变-201023143-定州市丰盛水泥制品厂变压器,东丈公用农业4台区,东丈村公用照明3台区,","scope":"【影响街道/乡镇】清风店镇、庞村镇【高危重要客户】无【影响客户】东岗、西岗、东丈、东只东、唐城","startTime":"2018-06-02 01:00:00","stopDate":"2018-06-02 03:00:00","orgNo":"1340610","typeCode":"其他临时停电","poweroffArea":"【全线路停电】停东丈村公用照明1台区1,东丈公用农业2台区【纯农排变】,东丈公用农业9台区【纯农排变】,东岗公用照明4台区,东只东村公用照明1台区,东岗村公用照明1台区,清风店东只东公用照明2台区,东岗公用照明6台区,东丈公用农业7台区,西岗村公用照明1台区,东丈公用农业1台区1【纯农排变】,东丈公用农业3台区,西岗公用农业4台区,定州市天成奶牛养殖中心,东丈村公用照明2台区1,二十里铺公用农业4台区,东丈公用照明10台区,清风店西岗公用照明9台区,东岗村公用农业1台区,东丈公用照明12台区,东丈公用照明15台区,东岗公用照明7台区,东丈公用照明14台区,东丈公用照明9台区,中建路桥集团有限公司变压器,东岗村公用照明2台区,0664678065-定州市丰盛水泥制品厂-专变-201023143-定州市丰盛水泥制品厂变压器,西岗公用照明3台区,东岗村公用农业2台区【纯农排变】,鱼苗厂,东丈公用农业8台区【纯农排变】,龙腾公司,东只东公用农业1台区【纯农排变】,西岗公用照明5台区,东丈公用照明6台区1,东丈公用农业4台区,东丈公用照明13台区,东丈公用农业10台区,西岗公用农业3台区【纯农排变】,东岗公用照明5台区,东丈村公用照明3台区,东丈公用照明8台区,东丈村公用照明4台区,清风店西岗公用照明6台区,东丈公用照明11台区,西岗公用照明10台区,东丈公用照明7台区,东丈公用照明5台区1,西岗村公用照明2台区,东丈公用农业6台区【纯农排变】,东只东公用农业2台区【纯农排变】,东丈公用农业5台区,西岗公用农业5台区,唐城村公用农业5台区","poweroffReason":"【停电原因】由于中建路桥配变弓子线打火需停电进行紧急检修导致１１０ＫＶ清风店变电站１０ＫＶ５７２东丈线路全线停电 【变更送电】无 【发布渠道】９５５９８","powerTime":"2018-06-02 02:28:46","powerComm":"已送电","subsNo":"","lineNo":"","tgNo":"","tgName":null,"infoStatus":"1","orgName":"国网定州市供电公司","typeName":null,"infoStatusName":null,"dateDay":null,"orgNos":null,"nowTime":null,"countyName":null,"streetName":null,"villageName":null,"roadName":null,"communityName":null,"tranName":null,"sdLineName":null,"cityCode":"1340610","cityName":"国网定州市供电公司","provinceCode":null,"stopTime":"2018-06-02 03:00:00","powerType":"全部","powerOffArea":"【全线路停电】停东丈村公用照明1台区1,东丈公用农业2台区【纯农排变】,东丈公用农业9台区【纯农排变】,东岗公用照明4台区,东只东村公用照明1台区,东岗村公用照明1台区,清风店东只东公用照明2台区,东岗公用照明6台区,东丈公用农业7台区,西岗村公用照明1台区,东丈公用农业1台区1【纯农排变】,东丈公用农业3台区,西岗公用农业4台区,定州市天成奶牛养殖中心,东丈村公用照明2台区1,二十里铺公用农业4台区,东丈公用照明10台区,清风店西岗公用照明9台区,东岗村公用农业1台区,东丈公用照明12台区,东丈公用照明15台区,东岗公用照明7台区,东丈公用照明14台区,东丈公用照明9台区,中建路桥集团有限公司变压器,东岗村公用照明2台区,0664678065-定州市丰盛水泥制品厂-专变-201023143-定州市丰盛水泥制品厂变压器,西岗公用照明3台区,东岗村公用农业2台区【纯农排变】,鱼苗厂,东丈公用农业8台区【纯农排变】,龙腾公司,东只东公用农业1台区【纯农排变】,西岗公用照明5台区,东丈公用照明6台区1,东丈公用农业4台区,东丈公用照明13台区,东丈公用农业10台区,西岗公用农业3台区【纯农排变】,东岗公用照明5台区,东丈村公用照明3台区,东丈公用照明8台区,东丈村公用照明4台区,清风店西岗公用照明6台区,东丈公用照明11台区,西岗公用照明10台区,东丈公用照明7台区,东丈公用照明5台区1,西岗村公用照明2台区,东丈公用农业6台区【纯农排变】,东只东公用农业2台区【纯农排变】,东丈公用农业5台区,西岗公用农业5台区,唐城村公用农业5台区","powerOffReason":"【停电原因】由于中建路桥配变弓子线打火需停电进行紧急检修导致１１０ＫＶ清风店变电站１０ＫＶ５７２东丈线路全线停电 【变更送电】无 【发布渠道】９５５９８","powerOffId":"2018060113000236"},{"poweroffId":2018060113000208,"sgpoweroffId":null,"subsName":"","lineName":"东北郊线521","pubTranName":"旅游路南公用,旅游路西段公用,旅游路中公用,旅游路东公用,","scope":"【影响街道/乡镇】旅游路、雄州镇 【高危重要客户】无 【影响客户】旅游路沿街商户","startTime":"2018-06-15 08:00:00","stopDate":"2018-06-15 14:30:00","orgNo":"1340624","typeCode":"计划停电","poweroffArea":"【分支停电】停旅游路东公用,旅游路南公用,旅游路西段公用,旅游路中公用","poweroffReason":"【停电原因】由于东环路南段公用更换变压器导致１１０ＫＶ雄县变电站东北郊线５２１线路主干３０号杆刀闸以下线路分支停电 【变更送电】因工作进度加快原因，送电时间由１８：００变更为１４：３０ 【发布渠道】保定市雄县电视台（０６月０７日１９时至２１时之间）媒体播报","powerTime":"2018-06-15 13:58:59","powerComm":"已送电","subsNo":"","lineNo":"","tgNo":"","tgName":null,"infoStatus":"1","orgName":"(原)国网雄县供电公司","typeName":null,"infoStatusName":null,"dateDay":null,"orgNos":null,"nowTime":null,"countyName":null,"streetName":null,"villageName":null,"roadName":null,"communityName":null,"tranName":null,"sdLineName":null,"cityCode":"1340624","cityName":"(原)国网雄县供电公司","provinceCode":null,"stopTime":"2018-06-15 14:30:00","powerType":"全部","powerOffArea":"【分支停电】停旅游路东公用,旅游路南公用,旅游路西段公用,旅游路中公用","powerOffReason":"【停电原因】由于东环路南段公用更换变压器导致１１０ＫＶ雄县变电站东北郊线５２１线路主干３０号杆刀闸以下线路分支停电 【变更送电】因工作进度加快原因，送电时间由１８：００变更为１４：３０ 【发布渠道】保定市雄县电视台（０６月０７日１９时至２１时之间）媒体播报","powerOffId":"2018060113000208"},{"poweroffId":2018060113000194,"sgpoweroffId":null,"subsName":"","lineName":"东南郊线519","pubTranName":"棉织厂公用,棉织厂2#公用,东环路南段公用,财政局变压器,东环路南段2号公用,","scope":"【影响街道/乡镇】东环路、雄州镇 【高危重要客户】无 【影响客户】棉织厂、东环路沿街居民及商户、财政局","startTime":"2018-06-15 08:00:00","stopDate":"2018-06-15 14:30:00","orgNo":"1340624","typeCode":"计划停电","poweroffArea":"【分支停电】停棉织厂公用,财政局变压器,棉织厂2#公用,东环路南段2号公用,东环路南段公用","poweroffReason":"【停电原因】由于东环路南段公用更换变压器导致１１０ＫＶ雄县变电站东南郊线５１９线路主干３０号杆刀闸以下线路分支停电 【变更送电】因工作进度加快原因，送电时间由１８：００变更为１４：３０ 【发布渠道】保定市雄县电视台（０６月０７日１９时至２１时之间）媒体播报","powerTime":"2018-06-15 13:58:38","powerComm":"已送电","subsNo":"","lineNo":"","tgNo":"","tgName":null,"infoStatus":"1","orgName":"(原)国网雄县供电公司","typeName":null,"infoStatusName":null,"dateDay":null,"orgNos":null,"nowTime":null,"countyName":null,"streetName":null,"villageName":null,"roadName":null,"communityName":null,"tranName":null,"sdLineName":null,"cityCode":"1340624","cityName":"(原)国网雄县供电公司","provinceCode":null,"stopTime":"2018-06-15 14:30:00","powerType":"全部","powerOffArea":"【分支停电】停棉织厂公用,财政局变压器,棉织厂2#公用,东环路南段2号公用,东环路南段公用","powerOffReason":"【停电原因】由于东环路南段公用更换变压器导致１１０ＫＶ雄县变电站东南郊线５１９线路主干３０号杆刀闸以下线路分支停电 【变更送电】因工作进度加快原因，送电时间由１８：００变更为１４：３０ 【发布渠道】保定市雄县电视台（０６月０７日１９时至２１时之间）媒体播报","powerOffId":"2018060113000194"}],"pageModel":{"pageNow":1054,"totalCount":10973,"totalPage":1098,"tableRows":0,"pageCount":10,"beginCount":10530},"isExperi":"1"}