{"message":"","today":"2020-06-15","seleList":[{"poweroffId":2018060113000022,"sgpoweroffId":null,"subsName":"","lineName":"军农场线511","pubTranName":"南陈庄内西2号,河北众源鞋业有限公司,三民村农业5号【纯农排变】,北王疃村内北,宏远新型墙材,北王疃村内西2号,北王疃高速路农【纯农排变】,北王疃服务区农业【纯农排变】,三民村二队西农【纯农排变】,南陈庄农业5号【纯农排变】,中韩庄中乡公用,田庄南农2号【纯农排变】,变压器,望都县腾飞鞋厂,北王疃鸡场南3号【纯农排变】,田庄内西,北王疃内南2,中韩庄村内农业【纯农排变】,南陈庄内东,北王疃鸡场南2号【纯农排变】,南陈庄最东边【纯农排变】,田庄内东,北王疃新上农【纯农排变】,北王疃村内东,三民村西北【纯农排变】,南陈庄鸡厂边【纯农排变】,三民村三队农业【纯农排变】,南陈庄内东2号,田庄农业9号【纯农排变】,三民村农业4号【纯农排变】,中韩庄村西【纯农排变】,三民村二队,望都县远通橡胶制品有限公司,望都红门鞋业有限公司第一分公司,南陈庄农业8号【纯农排变】,望泰公司院内,南陈庄村北3号【纯农排变】,南陈庄内西,东方良种奶牛,三民村农业6号【纯农排变】,国网河北省电力公司保定供电分公司,望都县海波奶农专业合作社,田庄计栓面粉,东白陀砖厂农【纯农排变】,南陈庄农业4号【纯农排变】,河北省高速公路京石改扩建筹建处,北王疃村内西3号配变,北王疃东农【纯农排变】,北王疃中农【纯农排变】,中韩庄村内,南陈庄51044部队【纯农排变】,望都步达鞋业有限公司,三民村三队,望都县圣源特种建材有限公司,田庄南农【纯农排变】,中韩庄小学,中韩庄内西,南陈庄村北1号【纯农排变】,三民村北,16,冀星公司望都站,望都县进喜车床加工部,北王疃西农2号【纯农排变】,望都县依心鞋业有限公司依心制鞋厂,北王疃村内西,0693728902-望都县京城绣制鞋厂-专变-237527501-望都县京城绣制鞋厂,北王疃村内南,南陈庄农业7号【纯农排变】,田庄高速路东【纯农排变】,南陈庄牛场【纯农排变】,中韩庄村西新增【纯农排变】,南陈庄村北9号【纯农排变】,北王疃西农【纯农排变】,南陈庄村北2号【纯农排变】,南陈庄农业6号【纯农排变】,柳陀路南【纯农排变】,三民村桥头【纯农排变】,","scope":"【影响街道/乡镇】高岭乡、中韩庄乡　　 【高危重要客户】无　　 【影响客户】三民村、北王疃村、望都县腾飞鞋厂、中韩庄小学、河北众源鞋业有限公司、依心制鞋厂、河北省高速公路京石改扩建筹建处、汽车充电站、南陈庄部分农业、田庄部分农业、望都县圣源特种建材、红门鞋业、进喜车床加工部、京城绣制鞋厂、冀星公司望都站、望泰公司、望都县海波奶农专业合作社、东方良种奶牛","startTime":"2018-06-01 05:40:28","stopDate":"2018-06-01 09:00:00","orgNo":"1340623","typeCode":"电网故障停限电","poweroffArea":"【全线路停电】停三民村农业5号【纯农排变】,柳陀路南【纯农排变】,北王疃东农【纯农排变】,国网河北省电力公司保定供电分公司,变压器,东白陀砖厂农【纯农排变】,三民村北,南陈庄村北2号【纯农排变】,南陈庄农业4号【纯农排变】,北王疃村内东,北王疃村内北,北王疃服务区农业【纯农排变】,三民村农业4号【纯农排变】,望都县腾飞鞋厂,三民村农业6号【纯农排变】,北王疃村内西3号配变,南陈庄内东2号,北王疃中农【纯农排变】,北王疃高速路农【纯农排变】,望都县圣源特种建材有限公司,南陈庄农业6号【纯农排变】,北王疃鸡场南3号【纯农排变】,中韩庄村西新增【纯农排变】,三民村二队西农【纯农排变】,三民村二队,中韩庄村内,南陈庄村北9号【纯农排变】,望都县海波奶农专业合作社,南陈庄农业5号【纯农排变】,中韩庄内西,南陈庄农业7号【纯农排变】,东方良种奶牛,南陈庄最东边【纯农排变】,三民村桥头【纯农排变】,宏远新型墙材,田庄计栓面粉,16,田庄内西,北王疃村内西,北王疃新上农【纯农排变】,南陈庄鸡厂边【纯农排变】,望都步达鞋业有限公司,北王疃鸡场南2号【纯农排变】,北王疃村内西2号,三民村三队农业【纯农排变】,冀星公司望都站,望泰公司院内,0693728902-望都县京城绣制鞋厂-专变-237527501-望都县京城绣制鞋厂,南陈庄村北1号【纯农排变】,中韩庄中乡公用,南陈庄内西2号,望都县远通橡胶制品有限公司,南陈庄51044部队【纯农排变】,北王疃西农2号【纯农排变】,北王疃西农【纯农排变】,田庄内东,望都县进喜车床加工部,中韩庄村内农业【纯农排变】,南陈庄牛场【纯农排变】,望都红门鞋业有限公司第一分公司,北王疃内南2,三民村三队,南陈庄村北3号【纯农排变】,北王疃村内南,中韩庄村西【纯农排变】,望都县依心鞋业有限公司依心制鞋厂,河北省高速公路京石改扩建筹建处,南陈庄内东,田庄南农【纯农排变】,田庄农业9号【纯农排变】,南陈庄内西,南陈庄农业8号【纯农排变】,三民村西北【纯农排变】,田庄南农2号【纯农排变】,河北众源鞋业有限公司,田庄高速路东【纯农排变】,中韩庄小学","poweroffReason":"【停电原因】由于外力破坏导致３５ＫＶ曹庄变电站军农场线５１１线路全线停电 【变更送电】因抢修进度加快原因，送电时间由１７：００变更为０９：００ 【发布渠道】通过９５５９８发布","powerTime":"2018-06-01 08:16:29","powerComm":"已送电","subsNo":"","lineNo":"","tgNo":"","tgName":null,"infoStatus":"1","orgName":"国网望都县供电公司","typeName":null,"infoStatusName":null,"dateDay":null,"orgNos":null,"nowTime":null,"countyName":null,"streetName":null,"villageName":null,"roadName":null,"communityName":null,"tranName":null,"sdLineName":null,"cityCode":"1340623","cityName":"国网望都县供电公司","provinceCode":null,"stopTime":"2018-06-01 09:00:00","powerType":"全部","powerOffArea":"【全线路停电】停三民村农业5号【纯农排变】,柳陀路南【纯农排变】,北王疃东农【纯农排变】,国网河北省电力公司保定供电分公司,变压器,东白陀砖厂农【纯农排变】,三民村北,南陈庄村北2号【纯农排变】,南陈庄农业4号【纯农排变】,北王疃村内东,北王疃村内北,北王疃服务区农业【纯农排变】,三民村农业4号【纯农排变】,望都县腾飞鞋厂,三民村农业6号【纯农排变】,北王疃村内西3号配变,南陈庄内东2号,北王疃中农【纯农排变】,北王疃高速路农【纯农排变】,望都县圣源特种建材有限公司,南陈庄农业6号【纯农排变】,北王疃鸡场南3号【纯农排变】,中韩庄村西新增【纯农排变】,三民村二队西农【纯农排变】,三民村二队,中韩庄村内,南陈庄村北9号【纯农排变】,望都县海波奶农专业合作社,南陈庄农业5号【纯农排变】,中韩庄内西,南陈庄农业7号【纯农排变】,东方良种奶牛,南陈庄最东边【纯农排变】,三民村桥头【纯农排变】,宏远新型墙材,田庄计栓面粉,16,田庄内西,北王疃村内西,北王疃新上农【纯农排变】,南陈庄鸡厂边【纯农排变】,望都步达鞋业有限公司,北王疃鸡场南2号【纯农排变】,北王疃村内西2号,三民村三队农业【纯农排变】,冀星公司望都站,望泰公司院内,0693728902-望都县京城绣制鞋厂-专变-237527501-望都县京城绣制鞋厂,南陈庄村北1号【纯农排变】,中韩庄中乡公用,南陈庄内西2号,望都县远通橡胶制品有限公司,南陈庄51044部队【纯农排变】,北王疃西农2号【纯农排变】,北王疃西农【纯农排变】,田庄内东,望都县进喜车床加工部,中韩庄村内农业【纯农排变】,南陈庄牛场【纯农排变】,望都红门鞋业有限公司第一分公司,北王疃内南2,三民村三队,南陈庄村北3号【纯农排变】,北王疃村内南,中韩庄村西【纯农排变】,望都县依心鞋业有限公司依心制鞋厂,河北省高速公路京石改扩建筹建处,南陈庄内东,田庄南农【纯农排变】,田庄农业9号【纯农排变】,南陈庄内西,南陈庄农业8号【纯农排变】,三民村西北【纯农排变】,田庄南农2号【纯农排变】,河北众源鞋业有限公司,田庄高速路东【纯农排变】,中韩庄小学","powerOffReason":"【停电原因】由于外力破坏导致３５ＫＶ曹庄变电站军农场线５１１线路全线停电 【变更送电】因抢修进度加快原因，送电时间由１７：００变更为０９：００ 【发布渠道】通过９５５９８发布","powerOffId":"2018060113000022"},{"poweroffId":2018060113000015,"sgpoweroffId":null,"subsName":"","lineName":"10kV523上庄线","pubTranName":"天硕大酒店,段春雨,义合庄2,上庄二台区,0643630565-涞水鹏渤房地产开发有限公司-专变-161912061-鹏渤房地产250KVA变压器,天硕大酒店2,0681499722-涞水县星辰酒店-专变-219745609-涞水县星辰酒店315KV变压器专变,交通局大坝2,京通水上乐园,义合庄台区,紫石口小南庄,路政50,0684527800-河北野三坡旅游投资有限公司-专变-223614548-河北野三坡旅游投资有限公司100KVA专变,上庄村,上庄新井台区,南极科普800KVA专变,","scope":"【影响街道/乡镇】三坡镇 【高危重要客户】无 【影响客户】上庄村、义合庄村、紫石口村","startTime":"2018-06-01 04:38:26","stopDate":"2018-06-01 08:00:00","orgNo":"1340614","typeCode":"电网故障停限电","poweroffArea":"【全线路停电】停义合庄台区,0681499722-涞水县星辰酒店-专变-219745609-涞水县星辰酒店315KV变压器专变,紫石口小南庄,0684527800-河北野三坡旅游投资有限公司-专变-223614548-河北野三坡旅游投资有限公司100KVA专变,上庄二台区,路政50,0643630565-涞水鹏渤房地产开发有限公司-专变-161912061-鹏渤房地产250KVA变压器,交通局大坝2,上庄村,天硕大酒店,天硕大酒店2,京通水上乐园,上庄新井台区,段春雨,义合庄2,南极科普800KVA专变","poweroffReason":"【停电原因】由于速断跳闸导致１１０ＫＶ三坡变电站１０ＫＶ上庄５２３线路全线停电 【变更送电】因抢修进度加快原因，送电时间由１２：００变更为０８：００ 【发布渠道】通过９５５９８发布","powerTime":"2018-06-01 07:27:07","powerComm":"已送电","subsNo":"","lineNo":"","tgNo":"","tgName":null,"infoStatus":"1","orgName":"国网涞水县供电公司","typeName":null,"infoStatusName":null,"dateDay":null,"orgNos":null,"nowTime":null,"countyName":null,"streetName":null,"villageName":null,"roadName":null,"communityName":null,"tranName":null,"sdLineName":null,"cityCode":"1340614","cityName":"国网涞水县供电公司","provinceCode":null,"stopTime":"2018-06-01 08:00:00","powerType":"全部","powerOffArea":"【全线路停电】停义合庄台区,0681499722-涞水县星辰酒店-专变-219745609-涞水县星辰酒店315KV变压器专变,紫石口小南庄,0684527800-河北野三坡旅游投资有限公司-专变-223614548-河北野三坡旅游投资有限公司100KVA专变,上庄二台区,路政50,0643630565-涞水鹏渤房地产开发有限公司-专变-161912061-鹏渤房地产250KVA变压器,交通局大坝2,上庄村,天硕大酒店,天硕大酒店2,京通水上乐园,上庄新井台区,段春雨,义合庄2,南极科普800KVA专变","powerOffReason":"【停电原因】由于速断跳闸导致１１０ＫＶ三坡变电站１０ＫＶ上庄５２３线路全线停电 【变更送电】因抢修进度加快原因，送电时间由１２：００变更为０８：００ 【发布渠道】通过９５５９８发布","powerOffId":"2018060113000015"},{"poweroffId":2018060113000013,"sgpoweroffId":null,"subsName":"","lineName":"台北线513","pubTranName":"曲阳县恒硕雕塑有限公司变压器,0013144430南东郭中区变压器,东邸村中学变压器【煤改电】,穆台北小学变压器【煤改电】,北东郭北农变压器【纯农排变】,张会龙石板厂（1）,曲阳县申台北同章石材雕刻厂,河北跃轩园林雕刻工程有限公司,0000006316北东郭西2变压器,曲阳县磊达石材雕刻厂,0012135558王台北统管南区变压器,东邸村乡东邸村委会,华冠石材雕刻厂,沙道东区变压器,0000006405南东郭农5变压器【纯农排变】,河北省曲阳长城雕刻有限公司变压器,王台北开发区石材雕刻厂2,王台北东农,京磊石材雕塑有限公司,森利达雕刻装璜公司（2）,东邸村小学变压器【煤改电】,曲阳县奕晗石材加工厂变压器,曲阳县西郭大理石雕刻建材厂,0000004715南东郭西区变压器,曲阳县磊硕石材雕刻销售部变压器,0012735908王台北北区变压器,0000005800北东郭统管西农变压器【纯农排变】,曲阳东亮石材雕刻厂变压器,曲阳县吉大博硕石材雕刻厂,王台北西,曲阳县丰硕石材雕塑有限公司变压器,王台北开发区石材雕刻厂,穆台北穆立浩,邸村乡政府变压器【煤改电】,0000006123南东郭西区（2）变压器,0000006232南东郭农2变压器【纯农排变】,曲阳县华利雕刻石材有限公司1,永庄石板厂,0000005596申台北统管变压器,穆会明石板厂,0000006429东诸侯南农变压器,穆台北光明工艺雕刻厂,曲阳县侨圣雕刻有限公司变压器,曲阳县宏图鑫远石材雕刻厂,曲阳县增道石材雕刻厂,东诸侯西南农变压器【纯农排变】,0469121692-曲阳县华岩石材雕刻厂-专变-46723113-曲阳县华岩石材雕刻厂,曲阳县中原雕刻石材有限公司变压器,王立强,天龙雕刻石材工艺雕刻厂1#,曲阳县中原雕刻石材厂,曲阳县贺雷艺术雕刻厂变压器,0000006628南东郭农8号变压器,曲阳县恒威石材经销部变压器,穆台北艺林雕刻厂,0000004716北东郭东区变压器,0000005762北东郭统管东南农变压器【纯农排变】,0000004534沙道村变压器,东邸村东2区变压器,0469464809文德乡王台北农灌变压器,曲阳县岩涛石材雕刻厂变压器,0000005818穆台北统管东南农变压器【纯农排变】,0012735171南东郭西3变压器,0000006077东邸村农四变压器,0012330757东邸村南区变压器,曲阳县台北铜石工艺雕刻厂变压器,穆增民石板厂,曲阳县京磊雕塑石材有限公司2,0000006404南东郭农4变压器【纯农排变】,0000006819南东郭东区变压器,曲阳县艺仁雕刻厂变压器,曲阳县鹏超石材雕刻厂1,曲阳县穆台北理石工艺美术雕刻厂,0000006074东邸村农一变压器【纯农排变】,曲阳县顺永石材雕刻厂变压器,南东郭刘占周,申台北（申全喜）,曲阳县中旺石材雕刻厂变压器,曲阳县兴龙艺术雕刻厂变压器,曲阳县龙灵雕刻厂,北东郭东北农3变压器【纯农排变】,曲阳县恒通石材雕刻厂,0012735910穆台北西2区变压器,曲阳县点铖石材有限公司变压器,曲阳县龙坤工艺雕刻石材加工厂变压器,曲阳县永顺雕塑石材加工厂,南东郭小学变压器【煤改电】,沙道西3区配电","scope":"【影响街道/乡镇】邸村乡【高危重要客户】无【影响客户】王台北、南东郭、北东郭、东邸村、穆台北、沙道、申台北、文德、东诸侯南","startTime":"2018-06-01 04:16:00","stopDate":"2018-06-01 05:40:00","orgNo":"1340619","typeCode":"电网故障停限电","poweroffArea":"【全线路停电】停曲阳县立根石材加工厂,王晓丽,王台北大理石雕刻厂,王台北晶华雕刻厂,曲阳县鑫超雕刻厂变压器,曲阳县京磊雕塑石材有限公司2,0012735908王台北北区变压器,穆台北小学变压器【煤改电】,0000006075东邸村农二变压器【纯农排变】,曲阳县宏图鑫远石材雕刻厂,曲阳县晨佳石材雕刻厂变压器,曲阳县东邸村老李免烧砖厂,曲阳县华利雕刻石材有限公司1,曲阳县龙灵雕刻厂,曲阳县穆台北环艺雕刻厂变压器,穆立光石材加工厂,曲阳县穆台北理石工艺美术雕刻厂,君友石材厂,曲阳县兴龙艺术雕刻厂变压器,曲阳县侨圣雕刻有限公司变压器,曲阳县康利石材雕刻厂,北东郭北农1变压器,曲阳县丰硕石材雕塑有限公司变压器,0000005982穆台北东区变压器,曲阳县西郭大理石雕刻建材厂,0000006077东邸村农四变压器,0013144430南东郭中区变压器,曲阳县神雕雕塑有限公司,0000005818穆台北统管东南农变压器【纯农排变】,森利达雕刻装璜公司（2）,胜利雕刻厂,穆台北光明工艺雕刻厂,0000006429东诸侯南农变压器,曲阳县平栓石材加工厂变压器,0000006693南东郭农9号变压器,曲阳县泽睿农机配件有限公司变压器,0000004716北东郭东区变压器,沙道西2区变压器,沙道西3区配电变压器,曲阳县双义石材雕刻厂变压器,0000005433东邸村东区变压器,南东郭刘占周,王台北小学变压器【煤改电】,曲阳县增道石材雕刻厂,穆台北三龙雕刻厂,0012918843王台北西北农变压器【纯农排变】,曲阳县中原雕刻石材厂,曲阳县鹏远石材雕刻厂变压器,曲阳县艺仁雕刻厂变压器,0012330757东邸村南区变压器,王台北村南,曲阳县隆盛艺术雕刻厂,申台北申志会,北东郭北农变压器【纯农排变】,王台北东农,王台北西,申台北申玉坡石板厂,河北省曲阳长城雕刻有限公司变压器,王台北开发区石材雕刻厂2,0000006123南东郭西区（2）变压器,曲阳县园鑫石材加工厂变压器,穆台北农灌变压器,曲阳县华龙雕刻有限公司(3),曲阳县华龙雕刻有限公司(2),文德乡王台北农灌,0000006232南东郭农2变压器【纯农排变】,穆台北艺林雕刻厂,0000006366南东郭农7变压器【纯农排变】,曲阳县奇新石材销售部变压器,东邸村东2区变压器,0000006819南东郭东区变压器,王台北王建功石材厂,曲阳县翠林工艺雕刻厂,曲阳县顺永石材雕刻厂变压器,0000006084东邸村农十一变压器【纯农排变】,华通胶业,王立强,穆增民石板厂,0000006316北东郭西2变压器,曲阳县恒硕雕塑有限公司变压器,曲阳县中旺石材雕刻厂变压器,0000005847南东郭东北农3变压器【纯农排变】,0000005762北东郭统管东南农变压器【纯农排变】,邢永强,王台北大理石雕刻厂30,0014309383北东郭东农变压器,0012735910穆台北西2区变压器,曲阳县点铖石材有限公司变压器,东邸村中区配电变压器,0012887521北东郭西南区变压器,曲阳县君友石材雕刻厂变压器,0672452493-曲阳县志朝石材销售处-专变-213879174-曲阳县志朝石材销售处变压器,0676965737-河北通畅房地产开发有限公司阳光小区-专变-216230126-河北通畅房地产开发有限公司阳光小区变压器,曲阳县会民石材雕刻厂,曲阳县永顺雕塑石材加工厂2,王台北开发区石材雕刻厂,曲阳县国鑫雕刻石材厂,曲阳县向亮石材雕刻厂,曲阳县侨圣雕刻有限公司,王增强加工厂,河北跃轩园林雕刻工程有限公司,曲阳县申台北同章石材雕刻厂,曲阳县茗盛石材雕刻厂变压器,0469464809文德乡王台北农灌变压器,北东郭东北农3变压器【纯农排变】,0000004727北东郭西区变压器,南东郭小学变压器【煤改电】,曲阳县中原雕刻石材有限公司变压器,0000006074东邸村农一变压器【纯农排变","poweroffReason":"【停电原因】由于线路Ｂ相接地导致３５ＫＶ邸村变电站１０ＫＶ台北线５１３线路全线停电【变更送电】因抢修进度加快原因，送电时间由１４：００变更为:０５：４０【发布渠道】通过９５５９８发布","powerTime":"2018-06-01 05:25:27","powerComm":"已送电","subsNo":"","lineNo":"","tgNo":"","tgName":null,"infoStatus":"1","orgName":"国网曲阳县供电公司","typeName":null,"infoStatusName":null,"dateDay":null,"orgNos":null,"nowTime":null,"countyName":null,"streetName":null,"villageName":null,"roadName":null,"communityName":null,"tranName":null,"sdLineName":null,"cityCode":"1340619","cityName":"国网曲阳县供电公司","provinceCode":null,"stopTime":"2018-06-01 05:40:00","powerType":"全部","powerOffArea":"【全线路停电】停曲阳县立根石材加工厂,王晓丽,王台北大理石雕刻厂,王台北晶华雕刻厂,曲阳县鑫超雕刻厂变压器,曲阳县京磊雕塑石材有限公司2,0012735908王台北北区变压器,穆台北小学变压器【煤改电】,0000006075东邸村农二变压器【纯农排变】,曲阳县宏图鑫远石材雕刻厂,曲阳县晨佳石材雕刻厂变压器,曲阳县东邸村老李免烧砖厂,曲阳县华利雕刻石材有限公司1,曲阳县龙灵雕刻厂,曲阳县穆台北环艺雕刻厂变压器,穆立光石材加工厂,曲阳县穆台北理石工艺美术雕刻厂,君友石材厂,曲阳县兴龙艺术雕刻厂变压器,曲阳县侨圣雕刻有限公司变压器,曲阳县康利石材雕刻厂,北东郭北农1变压器,曲阳县丰硕石材雕塑有限公司变压器,0000005982穆台北东区变压器,曲阳县西郭大理石雕刻建材厂,0000006077东邸村农四变压器,0013144430南东郭中区变压器,曲阳县神雕雕塑有限公司,0000005818穆台北统管东南农变压器【纯农排变】,森利达雕刻装璜公司（2）,胜利雕刻厂,穆台北光明工艺雕刻厂,0000006429东诸侯南农变压器,曲阳县平栓石材加工厂变压器,0000006693南东郭农9号变压器,曲阳县泽睿农机配件有限公司变压器,0000004716北东郭东区变压器,沙道西2区变压器,沙道西3区配电变压器,曲阳县双义石材雕刻厂变压器,0000005433东邸村东区变压器,南东郭刘占周,王台北小学变压器【煤改电】,曲阳县增道石材雕刻厂,穆台北三龙雕刻厂,0012918843王台北西北农变压器【纯农排变】,曲阳县中原雕刻石材厂,曲阳县鹏远石材雕刻厂变压器,曲阳县艺仁雕刻厂变压器,0012330757东邸村南区变压器,王台北村南,曲阳县隆盛艺术雕刻厂,申台北申志会,北东郭北农变压器【纯农排变】,王台北东农,王台北西,申台北申玉坡石板厂,河北省曲阳长城雕刻有限公司变压器,王台北开发区石材雕刻厂2,0000006123南东郭西区（2）变压器,曲阳县园鑫石材加工厂变压器,穆台北农灌变压器,曲阳县华龙雕刻有限公司(3),曲阳县华龙雕刻有限公司(2),文德乡王台北农灌,0000006232南东郭农2变压器【纯农排变】,穆台北艺林雕刻厂,0000006366南东郭农7变压器【纯农排变】,曲阳县奇新石材销售部变压器,东邸村东2区变压器,0000006819南东郭东区变压器,王台北王建功石材厂,曲阳县翠林工艺雕刻厂,曲阳县顺永石材雕刻厂变压器,0000006084东邸村农十一变压器【纯农排变】,华通胶业,王立强,穆增民石板厂,0000006316北东郭西2变压器,曲阳县恒硕雕塑有限公司变压器,曲阳县中旺石材雕刻厂变压器,0000005847南东郭东北农3变压器【纯农排变】,0000005762北东郭统管东南农变压器【纯农排变】,邢永强,王台北大理石雕刻厂30,0014309383北东郭东农变压器,0012735910穆台北西2区变压器,曲阳县点铖石材有限公司变压器,东邸村中区配电变压器,0012887521北东郭西南区变压器,曲阳县君友石材雕刻厂变压器,0672452493-曲阳县志朝石材销售处-专变-213879174-曲阳县志朝石材销售处变压器,0676965737-河北通畅房地产开发有限公司阳光小区-专变-216230126-河北通畅房地产开发有限公司阳光小区变压器,曲阳县会民石材雕刻厂,曲阳县永顺雕塑石材加工厂2,王台北开发区石材雕刻厂,曲阳县国鑫雕刻石材厂,曲阳县向亮石材雕刻厂,曲阳县侨圣雕刻有限公司,王增强加工厂,河北跃轩园林雕刻工程有限公司,曲阳县申台北同章石材雕刻厂,曲阳县茗盛石材雕刻厂变压器,0469464809文德乡王台北农灌变压器,北东郭东北农3变压器【纯农排变】,0000004727北东郭西区变压器,南东郭小学变压器【煤改电】,曲阳县中原雕刻石材有限公司变压器,0000006074东邸村农一变压器【纯农排变","powerOffReason":"【停电原因】由于线路Ｂ相接地导致３５ＫＶ邸村变电站１０ＫＶ台北线５１３线路全线停电【变更送电】因抢修进度加快原因，送电时间由１４：００变更为:０５：４０【发布渠道】通过９５５９８发布","powerOffId":"2018060113000013"},{"poweroffId":2018053113000608,"sgpoweroffId":null,"subsName":"","lineName":"西村538","pubTranName":"下紫口8号,下紫口2号新增,永南三号,下紫口三号,下紫口村一号,下紫口14号,下紫口6号,下紫口11号,下紫口13号,下紫口10号,下紫口9号,苏庄五号【纯农排变】,西村8号,永南庄4号【纯农排变】,西村六号,永南庄1号,苏庄7号【纯农排变】,大册营新增（统管）,苏庄4号,苏庄村内1号,西村二号,下紫口12号,西村西山根新增2号,苏庄村2号,西村新增,西村新增7号,下紫口16号【纯农排变】,下紫口5号新增,永南庄5号,苏庄6号,西村3号,西村山根,苏庄8号,下紫口17号【纯农排变】,苏庄三号【纯农排变】,下紫口15号,","scope":"【影响街道/乡镇】大册营镇 【高危重要客户】无 【影响客户】苏庄、西村、下子（紫）口、永南庄","startTime":"2018-06-01 01:00:00","stopDate":"2018-06-01 03:00:00","orgNo":"1340617","typeCode":"其他临时停电","poweroffArea":"【全线路停电】停大册营新增（统管）,西村新增,下紫口16号【纯农排变】,西村山根,西村西山根新增2号,苏庄8号,苏庄村2号,苏庄五号【纯农排变】,永南庄1号,永南庄5号,苏庄村内1号,苏庄4号,苏庄7号【纯农排变】,西村8号,西村六号,下紫口10号,下紫口12号,下紫口13号,下紫口15号,下紫口8号,下紫口三号,西村3号,西村二号,下紫口17号【纯农排变】,下紫口2号新增,下紫口5号新增,下紫口6号,苏庄三号【纯农排变】,下紫口9号,永南三号,永南庄4号【纯农排变】,西村新增7号,下紫口11号,下紫口村一号,苏庄6号,下紫口14号","poweroffReason":"【停电原因】由于西村５３８线开关的操作机构严重缺陷，需停电进行紧急消缺导致１１０ＫＶ夜借变电站西村５３８线路全线停电 【变更送电】因抢修进度加快原因，送电时间由０５：００变更为０３：００ 【发布渠道】９５５９８","powerTime":"2018-06-01 02:41:39","powerComm":"已送电","subsNo":"","lineNo":"","tgNo":"","tgName":null,"infoStatus":"1","orgName":"国网满城县供电公司","typeName":null,"infoStatusName":null,"dateDay":null,"orgNos":null,"nowTime":null,"countyName":null,"streetName":null,"villageName":null,"roadName":null,"communityName":null,"tranName":null,"sdLineName":null,"cityCode":"1340617","cityName":"国网满城县供电公司","provinceCode":null,"stopTime":"2018-06-01 03:00:00","powerType":"全部","powerOffArea":"【全线路停电】停大册营新增（统管）,西村新增,下紫口16号【纯农排变】,西村山根,西村西山根新增2号,苏庄8号,苏庄村2号,苏庄五号【纯农排变】,永南庄1号,永南庄5号,苏庄村内1号,苏庄4号,苏庄7号【纯农排变】,西村8号,西村六号,下紫口10号,下紫口12号,下紫口13号,下紫口15号,下紫口8号,下紫口三号,西村3号,西村二号,下紫口17号【纯农排变】,下紫口2号新增,下紫口5号新增,下紫口6号,苏庄三号【纯农排变】,下紫口9号,永南三号,永南庄4号【纯农排变】,西村新增7号,下紫口11号,下紫口村一号,苏庄6号,下紫口14号","powerOffReason":"【停电原因】由于西村５３８线开关的操作机构严重缺陷，需停电进行紧急消缺导致１１０ＫＶ夜借变电站西村５３８线路全线停电 【变更送电】因抢修进度加快原因，送电时间由０５：００变更为０３：００ 【发布渠道】９５５９８","powerOffId":"2018053113000608"},{"poweroffId":2018053113000607,"sgpoweroffId":null,"subsName":"","lineName":"紫口东532","pubTranName":"上紫口14#,上紫口6#（统管）,上紫口17号,上紫口13号,上紫口村1#,上紫口新增11号,上紫口12号,上紫口5#（统管）,上紫口3号,西村四号,上紫口8#【纯农排变】,上紫口9#【纯农排变】,上紫口7#【纯农排变】,上紫口2#,大册营14号,上紫口10#,大册营3号,上紫口16号,上紫口15号,上紫口4#（统管）,大册营16号,","scope":"【影响街道/乡镇】大册营镇 【高危重要客户】无 【影响客户】上紫（子）口","startTime":"2018-06-01 01:00:00","stopDate":"2018-06-01 03:00:00","orgNo":"1340617","typeCode":"其他临时停电","poweroffArea":"【全线路停电】停大册营16号,上紫口9#【纯农排变】,大册营14号,上紫口2#,上紫口10#,上紫口13号,上紫口14#,上紫口3号,上紫口4#（统管）,上紫口5#（统管）,上紫口6#（统管）,上紫口7#【纯农排变】,上紫口村1#,上紫口新增11号,上紫口17号,上紫口16号,上紫口12号,大册营3号,上紫口15号,西村四号,上紫口8#【纯农排变】","poweroffReason":"【停电原因】由于紫口东５３２线开关的操作机构严重缺陷，需停电进行紧急消缺导致１１０ＫＶ夜借变电站紫口东５３２线路全线停电 【变更送电】因抢修进度加快原因，送电时间由０５：００变更为０３：００ 【发布渠道】９５５９８","powerTime":"2018-06-01 02:38:33","powerComm":"已送电","subsNo":"","lineNo":"","tgNo":"","tgName":null,"infoStatus":"1","orgName":"国网满城县供电公司","typeName":null,"infoStatusName":null,"dateDay":null,"orgNos":null,"nowTime":null,"countyName":null,"streetName":null,"villageName":null,"roadName":null,"communityName":null,"tranName":null,"sdLineName":null,"cityCode":"1340617","cityName":"国网满城县供电公司","provinceCode":null,"stopTime":"2018-06-01 03:00:00","powerType":"全部","powerOffArea":"【全线路停电】停大册营16号,上紫口9#【纯农排变】,大册营14号,上紫口2#,上紫口10#,上紫口13号,上紫口14#,上紫口3号,上紫口4#（统管）,上紫口5#（统管）,上紫口6#（统管）,上紫口7#【纯农排变】,上紫口村1#,上紫口新增11号,上紫口17号,上紫口16号,上紫口12号,大册营3号,上紫口15号,西村四号,上紫口8#【纯农排变】","powerOffReason":"【停电原因】由于紫口东５３２线开关的操作机构严重缺陷，需停电进行紧急消缺导致１１０ＫＶ夜借变电站紫口东５３２线路全线停电 【变更送电】因抢修进度加快原因，送电时间由０５：００变更为０３：００ 【发布渠道】９５５９８","powerOffId":"2018053113000607"},{"poweroffId":2018053113000601,"sgpoweroffId":null,"subsName":"","lineName":"紫口西531","pubTranName":"大册营村1号,夜借8号【纯农排变】,大册营17号配变,大册营5号,大册营2号,大册营10号,","scope":"【影响街道/乡镇】大册营镇 【高危重要客户】无 【影响客户】大册营","startTime":"2018-06-01 01:00:00","stopDate":"2018-06-01 03:00:00","orgNo":"1340617","typeCode":"其他临时停电","poweroffArea":"【全线路停电】停大册营17号配变,大册营10号,大册营5号,大册营村1号,夜借8号【纯农排变】,大册营2号","poweroffReason":"【停电原因】由于紫口西５３１线０２号杆处电线打火导致１１０ＫＶ夜借变电站紫口西５３１线路全线停电 【变更送电】因抢修进度加快原因，送电时间由０５：００变更为０３：００ 【发布渠道】９５５９８","powerTime":"2018-06-01 02:40:10","powerComm":"已送电","subsNo":"","lineNo":"","tgNo":"","tgName":null,"infoStatus":"1","orgName":"国网满城县供电公司","typeName":null,"infoStatusName":null,"dateDay":null,"orgNos":null,"nowTime":null,"countyName":null,"streetName":null,"villageName":null,"roadName":null,"communityName":null,"tranName":null,"sdLineName":null,"cityCode":"1340617","cityName":"国网满城县供电公司","provinceCode":null,"stopTime":"2018-06-01 03:00:00","powerType":"全部","powerOffArea":"【全线路停电】停大册营17号配变,大册营10号,大册营5号,大册营村1号,夜借8号【纯农排变】,大册营2号","powerOffReason":"【停电原因】由于紫口西５３１线０２号杆处电线打火导致１１０ＫＶ夜借变电站紫口西５３１线路全线停电 【变更送电】因抢修进度加快原因，送电时间由０５：００变更为０３：００ 【发布渠道】９５５９８","powerOffId":"2018053113000601"},{"poweroffId":2018053113000566,"sgpoweroffId":null,"subsName":"","lineName":"泰元街线515","pubTranName":"中亢村2#,西亢村2#,教育局家属楼,西亢村1#,东环路3#,中亢村5#,电厂楼直供,移动公司,路家庄村3#,劳动局直供,东环路6#,木器厂直供,团结路3#,易县中学(南),一中直供,电南院直供,安各庄水库家属院,中亢村1#,董家楼村1#,丁街1#,泰元街直供2#,泰元街直供1#,刘永利,西亢村3#,石庄1#,中亢村4#,中亢村3#,西亢村4#,畜牧局直供,西亢5#,团结路2#,","scope":"【影响街道/乡镇】易州镇、长安路、泰元街、易兴路、朝阳路、易黄公路、团结路 【高危重要客户】无 【影响客户】领尚城小区、电厂家属楼、锦芳园小区、教育局家属楼","startTime":"2018-05-31 20:20:10","stopDate":"2018-06-01 05:30:15","orgNo":"1340625","typeCode":"电网故障停限电","poweroffArea":"【全线路停电】停中亢村5#,教育局家属楼,中亢村1#,丁街1#,路家庄村3#,中亢村2#,西亢村2#,团结路2#,畜牧局直供,安各庄水库家属院,西亢村4#,中亢村4#,东环路6#,团结路3#,刘永利,董家楼村1#,石庄1#,易县中学(南),西亢5#,移动公司,泰元街直供2#,西亢村3#,泰元街直供1#,劳动局直供,电南院直供,电厂楼直供,木器厂直供,一中直供,中亢村3#,东环路3#,西亢村1#","poweroffReason":"【停电原因】由于货运车把电杆撞断导致１１０ＫＶ易县变电站泰元街５１５线路全线停电 【变更送电】因抢修进度加快，送电时间由１０:００变更为０５:３０ 【发布渠道】通过９５５９８发布","powerTime":"2018-06-01 05:11:12","powerComm":"已送电","subsNo":"","lineNo":"","tgNo":"","tgName":null,"infoStatus":"1","orgName":"国网易县供电公司","typeName":null,"infoStatusName":null,"dateDay":null,"orgNos":null,"nowTime":null,"countyName":null,"streetName":null,"villageName":null,"roadName":null,"communityName":null,"tranName":null,"sdLineName":null,"cityCode":"1340625","cityName":"国网易县供电公司","provinceCode":null,"stopTime":"2018-06-01 05:30:15","powerType":"全部","powerOffArea":"【全线路停电】停中亢村5#,教育局家属楼,中亢村1#,丁街1#,路家庄村3#,中亢村2#,西亢村2#,团结路2#,畜牧局直供,安各庄水库家属院,西亢村4#,中亢村4#,东环路6#,团结路3#,刘永利,董家楼村1#,石庄1#,易县中学(南),西亢5#,移动公司,泰元街直供2#,西亢村3#,泰元街直供1#,劳动局直供,电南院直供,电厂楼直供,木器厂直供,一中直供,中亢村3#,东环路3#,西亢村1#","powerOffReason":"【停电原因】由于货运车把电杆撞断导致１１０ＫＶ易县变电站泰元街５１５线路全线停电 【变更送电】因抢修进度加快，送电时间由１０:００变更为０５:３０ 【发布渠道】通过９５５９８发布","powerOffId":"2018053113000566"},{"poweroffId":2018053113000561,"sgpoweroffId":null,"subsName":"","lineName":"10KV涧头552","pubTranName":"北涧头村西北变压器,北涧头东道边北井变压器,南涧头村东台区变压器,南涧头村南变压器,魏村南高速西变压器【纯农排变】,魏村站西井,北涧头村内台区变压器,北涧头村西台区变压器,南涧头村西台区变压器【冬季供暖设施】,魏村十队井变压器,","scope":"【影响街道/乡镇】涞水镇 【高危重要客户】无 【影响客户】南涧头村、北涧头村、魏村","startTime":"2018-05-31 19:59:29","stopDate":"2018-05-31 23:30:00","orgNo":"1340614","typeCode":"电网故障停限电","poweroffArea":"【全线路停电】停北涧头村内台区变压器,北涧头村西北变压器,北涧头村西台区变压器,北涧头东道边北井变压器,南涧头村东台区变压器,南涧头村南变压器,南涧头村西台区变压器【冬季供暖设施】,魏村南高速西变压器【纯农排变】,魏村十队井变压器,魏村站西井","poweroffReason":"【停电原因】由于Ａ相接地导致２２０ＫＶ涞阳变电站１０ＫＶ涧头５５２线路全线停电 【变更送电】无 【发布渠道】通过９５５９８发布","powerTime":"2018-05-31 23:17:15","powerComm":"已送电","subsNo":"","lineNo":"","tgNo":"","tgName":null,"infoStatus":"1","orgName":"国网涞水县供电公司","typeName":null,"infoStatusName":null,"dateDay":null,"orgNos":null,"nowTime":null,"countyName":null,"streetName":null,"villageName":null,"roadName":null,"communityName":null,"tranName":null,"sdLineName":null,"cityCode":"1340614","cityName":"国网涞水县供电公司","provinceCode":null,"stopTime":"2018-05-31 23:30:00","powerType":"全部","powerOffArea":"【全线路停电】停北涧头村内台区变压器,北涧头村西北变压器,北涧头村西台区变压器,北涧头东道边北井变压器,南涧头村东台区变压器,南涧头村南变压器,南涧头村西台区变压器【冬季供暖设施】,魏村南高速西变压器【纯农排变】,魏村十队井变压器,魏村站西井","powerOffReason":"【停电原因】由于Ａ相接地导致２２０ＫＶ涞阳变电站１０ＫＶ涧头５５２线路全线停电 【变更送电】无 【发布渠道】通过９５５９８发布","powerOffId":"2018053113000561"},{"poweroffId":2018053113000551,"sgpoweroffId":null,"subsName":"","lineName":"申庄线513","pubTranName":"10Kv513申庄线马庄10号【纯农排变】,10Kv513申庄线申庄20号,10Kv513申庄线翟庄10号,10Kv513申庄线申庄15号,10Kv513申庄线申庄6号【纯农排变】,10Kv513申庄线侯家窑2号,10Kv513申庄线申庄12号,10Kv513申庄线申庄21号【纯农排变】,10Kv513申庄线高林村12号,徐水县四通散热器制造有限公司,10Kv513申庄线申庄8号,10Kv513申庄线马庄5号,10Kv513申庄线马庄6号,10Kv513申庄线冯庄1号,10Kv513申庄线马庄7号,10Kv513申庄线高林村15号变压器,10Kv513申庄线申庄5号,10Kv513申庄线马庄9号,10Kv513申庄线高林村10号变压器,10Kv513申庄线马庄1号,10Kv513申庄线马庄3号,10Kv513申庄线申庄1号,10Kv513申庄线马庄2号,10Kv513申庄线申庄4号,10Kv513申庄线翟庄13号【纯农排变】,10Kv513申庄线申庄11号,10Kv513申庄线高林村17号【纯农排变】,10Kv513申庄线申庄17号,10Kv513申庄线申庄19号,10Kv513申庄线申庄10号,10Kv513申庄线申庄16号,高林村砖厂,10Kv513申庄线马庄4号,10Kv513申庄线侯家窑1号,10Kv513申庄线郎五庄12号【纯农排变】,10Kv513申庄线申庄7号,10Kv513申庄线高林村16号,10Kv513申庄线申庄2号,10Kv513申庄线申庄14号,高林村镇申庄小学,高顺录养猪厂,10Kv513申庄线侯家窑3号【纯农排变】,10Kv513申庄线申庄13号,10Kv513申庄线翟庄17号【纯农排变】,10Kv513申庄线高林村13号,10Kv513申庄线郎五庄7号,10Kv513申庄线高林村14号,10Kv513申庄线冯庄4号【纯农排变】,10Kv513申庄线申庄3号,10Kv513申庄线冯庄3号,10Kv513申庄线申庄9号【纯农排变】,10Kv513申庄线翟庄18号,10Kv513申庄线翟庄9号【纯农排变】,10Kv513申庄线申庄18号【纯农排变】,10Kv513申庄线马庄8号,10Kv513申庄线翟庄11号【纯农排变】,10Kv513申庄线冯庄2号,","scope":"【影响街道/乡镇】高林村镇 【高危重要客户】无 【影响客户】冯庄、马庄、翟庄、高林村、侯家窑、申庄","startTime":"2018-05-31 19:45:47","stopDate":"2018-06-01 09:00:00","orgNo":"1340605","typeCode":"电网故障停限电","poweroffArea":"【全线路停电】停10Kv513申庄线冯庄3号, 10Kv513申庄线冯庄2号, 10Kv513申庄线马庄7号, 10Kv513申庄线翟庄11号【纯农排变】,10Kv513申庄线高林村10号变压器, 10Kv513申庄线申庄8号, 10Kv513申庄线马庄2号,10Kv513申庄线高林村12号, 10Kv513申庄线侯家窑2号, 10Kv513申庄线翟庄13号【纯农排变】, 10Kv513申庄线马庄10号【纯农排变】, 10Kv513申庄线马庄4号,10Kv513申庄线高林村17号【纯农排变】,高林村镇申庄小学, 10Kv513申庄线侯家窑1号, 10Kv513申庄线申庄11号, 10Kv513申庄线申庄21号【纯农排变】, 10Kv513申庄线申庄16号, 10Kv513申庄线高林村16号, 10Kv513申庄线马庄1号,10Kv513申庄线翟庄9号【纯农排变】, 10Kv513申庄线申庄13号, 10Kv513申庄线申庄18号【纯农排变】, 10Kv513申庄线高林村15号变压器, 10Kv513申庄线申庄3号, 10Kv513申庄线申庄9号【纯农排变】, 10Kv513申庄线申庄4号, 10Kv513申庄线郎五庄12号【纯农排变】, 10Kv513申庄线高林村14号, 10Kv513申庄线侯家窑3号【纯农排变】, 10Kv513申庄线申庄15号, 10Kv513申庄线申庄10号, 10Kv513申庄线马庄9号, 10Kv513申庄线申庄20号, 10Kv513申庄线申庄12号,10Kv513申庄线高林村13号,徐水县四通散热器制造有限公司, 10Kv513申庄线马庄8号, 10Kv513申庄线翟庄10号, 10Kv513申庄线申庄5号, 10Kv513申庄线申庄14号,高顺录养猪厂, 10Kv513申庄线申庄2号,高林村砖厂, 10Kv513申庄线马庄5号, 10Kv513申庄线马庄6号, 10Kv513申庄线申庄19号, 10Kv513申庄线翟庄17号【纯农排变】, 10Kv513申庄线冯庄1号, 10Kv513申庄线翟庄18号, 10Kv513申庄线郎五庄7号, 10Kv513申庄线申庄6号【纯农排变】, 10Kv513申庄线申庄1号, 10Kv513申庄线申庄7号, 10Kv513申庄线冯庄4号【纯农排变】, 10Kv513申庄线马庄3号, 10Kv513申庄线申庄17号","poweroffReason":"【停电原因】由于Ｂ相接地导致３５ＫＶ郎五庄变电站申庄５１３线路全线停电 【变更送电】无 【发布渠道】通过９５５９８发布","powerTime":"2018-05-31 20:25:31","powerComm":"已送电","subsNo":"","lineNo":"","tgNo":"","tgName":null,"infoStatus":"1","orgName":"国网徐水县供电公司","typeName":null,"infoStatusName":null,"dateDay":null,"orgNos":null,"nowTime":null,"countyName":null,"streetName":null,"villageName":null,"roadName":null,"communityName":null,"tranName":null,"sdLineName":null,"cityCode":"1340605","cityName":"国网徐水县供电公司","provinceCode":null,"stopTime":"2018-06-01 09:00:00","powerType":"全部","powerOffArea":"【全线路停电】停10Kv513申庄线冯庄3号, 10Kv513申庄线冯庄2号, 10Kv513申庄线马庄7号, 10Kv513申庄线翟庄11号【纯农排变】,10Kv513申庄线高林村10号变压器, 10Kv513申庄线申庄8号, 10Kv513申庄线马庄2号,10Kv513申庄线高林村12号, 10Kv513申庄线侯家窑2号, 10Kv513申庄线翟庄13号【纯农排变】, 10Kv513申庄线马庄10号【纯农排变】, 10Kv513申庄线马庄4号,10Kv513申庄线高林村17号【纯农排变】,高林村镇申庄小学, 10Kv513申庄线侯家窑1号, 10Kv513申庄线申庄11号, 10Kv513申庄线申庄21号【纯农排变】, 10Kv513申庄线申庄16号, 10Kv513申庄线高林村16号, 10Kv513申庄线马庄1号,10Kv513申庄线翟庄9号【纯农排变】, 10Kv513申庄线申庄13号, 10Kv513申庄线申庄18号【纯农排变】, 10Kv513申庄线高林村15号变压器, 10Kv513申庄线申庄3号, 10Kv513申庄线申庄9号【纯农排变】, 10Kv513申庄线申庄4号, 10Kv513申庄线郎五庄12号【纯农排变】, 10Kv513申庄线高林村14号, 10Kv513申庄线侯家窑3号【纯农排变】, 10Kv513申庄线申庄15号, 10Kv513申庄线申庄10号, 10Kv513申庄线马庄9号, 10Kv513申庄线申庄20号, 10Kv513申庄线申庄12号,10Kv513申庄线高林村13号,徐水县四通散热器制造有限公司, 10Kv513申庄线马庄8号, 10Kv513申庄线翟庄10号, 10Kv513申庄线申庄5号, 10Kv513申庄线申庄14号,高顺录养猪厂, 10Kv513申庄线申庄2号,高林村砖厂, 10Kv513申庄线马庄5号, 10Kv513申庄线马庄6号, 10Kv513申庄线申庄19号, 10Kv513申庄线翟庄17号【纯农排变】, 10Kv513申庄线冯庄1号, 10Kv513申庄线翟庄18号, 10Kv513申庄线郎五庄7号, 10Kv513申庄线申庄6号【纯农排变】, 10Kv513申庄线申庄1号, 10Kv513申庄线申庄7号, 10Kv513申庄线冯庄4号【纯农排变】, 10Kv513申庄线马庄3号, 10Kv513申庄线申庄17号","powerOffReason":"【停电原因】由于Ｂ相接地导致３５ＫＶ郎五庄变电站申庄５１３线路全线停电 【变更送电】无 【发布渠道】通过９５５９８发布","powerOffId":"2018053113000551"},{"poweroffId":2018053113000506,"sgpoweroffId":null,"subsName":"","lineName":"牛角线511","pubTranName":"牛角15台区,谢庄浇地三台区,牛角五台区,西涝淀浇地六台区【纯农排变】,安新县建东有色金属熔炼厂,小郭村浇地一台区,河北长力金属制品有限公司,保定金龙汽车同步器齿环公司,牛角十一台区,牛角浇地三台区【纯农排变】,牛角十三台区,安新县宏运承配件制造有限公司,牛角浇地八台区【纯农排变】,后屯浇地五台区,牛角十二台区,牛角浇地十四台区【纯农排变】,保定长力金属制品有限公司400KVA,牛角浇地二台区【纯农排变】,安新县鑫益丰铜业有限公司,安新县金京有色金属熔炼有限公司,利达铝业（牛角）,牛角十台区,安新县二彬氧化锌加工厂,0387384133-河北华安铸造有限责任公司-专变-49152877-变压器250,安新县益达有色金属加工有限公司,光明金属集团公司,安新县胜旺铝合金厂(普通合伙),西涝淀浇地四台区【纯农排变】,小郭村浇地二台区,西涝淀浇地三台区【纯农排变】,牛角浇地十二台区【纯农排变】,牛角八台区,西涝淀浇地五台区【纯农排变】,前屯浇地三台区【纯农排变】,天源牛业养殖有限公司,变压器100KVA,金京有色金属熔炼1,牛角一台区,保定东晨铜业（1）,保定长力金属制品有限公司250,牛角双源熔炼厂,牛角十六台区,牛角浇地十台区【纯农排变】,变压器400KVA,盛隆有色金属（西）,牛角浇地九台区【纯农排变】,金京有色金属熔炼2,永固新型管材配件有限公司,安新县亿恒轴承配件厂,后屯浇地四台区【纯农排变】,安新县忆恒轴承配件厂,牛角浇地十三台区【纯农排变】,安新县鑫冶有色金属熔炼有限公司250KVA,牛角九台区,新科达铜业200,邢屯浇地二台区,牛角六台区,安新县宏运轴承配件制造有限公司315KVA,牛角浇地一台区【纯农排变】,牛角十四台区,鑫源有色金属购销有限公司80KVA,牛角四台区,东海有色金属熔炼厂（2）,安新县自力有色金属熔炼有限公司,牛角七台区,远东轴承配件制造公司,安新县烟东有色金属熔炼有限公司,西涝淀浇地二台区【纯农排变】,安新县华胜有色金属制造有限公司,西老淀浇地（2）,变压器250,西涝淀浇地一台区,变压器增250KVA,牛角二台区,牛角浇地十一台区【纯农排变】,自力有色金属熔炼有限公司,牛角三台区,西老淀浇地（1）（追补）,","scope":"【影响街道/乡镇】芦庄乡 【高危重要客户】无 【影响客户】牛角村","startTime":"2018-05-31 18:16:02","stopDate":"2018-05-31 19:30:00","orgNo":"1340607","typeCode":"电网故障停限电","poweroffArea":"【全线路停电】停东海有色金属熔炼厂（2）,保定东晨铜业（1）,牛角浇地九台区【纯农排变】,新科达铜业200,牛角八台区,河北长力金属制品有限公司,牛角15台区,安新县金京有色金属熔炼有限公司,变压器250,西涝淀浇地二台区【纯农排变】,西老淀浇地（1）（追补）,光明金属集团公司,牛角浇地十一台区【纯农排变】,0387384133-河北华安铸造有限责任公司-专变-49152877-变压器250,牛角双源熔炼厂,金京有色金属熔炼1,牛角浇地三台区【纯农排变】,前屯浇地三台区【纯农排变】,鑫源有色金属购销有限公司80KVA,保定金龙汽车同步器齿环公司,牛角六台区,利达铝业（牛角）,永固新型管材配件有限公司,安新县宏运承配件制造有限公司,远东轴承配件制造公司,牛角浇地一台区【纯农排变】,牛角十四台区,谢庄浇地三台区,牛角浇地二台区【纯农排变】,安新县宏运轴承配件制造有限公司315KVA,小郭村浇地一台区,自力有色金属熔炼有限公司,西涝淀浇地四台区【纯农排变】,安新县亿恒轴承配件厂,牛角十台区,安新县自力有色金属熔炼有限公司,牛角十二台区,牛角九台区,变压器增250KVA,变压器100KVA,牛角三台区,安新县益达有色金属加工有限公司,牛角二台区,牛角五台区,西涝淀浇地六台区【纯农排变】,安新县二彬氧化锌加工厂,安新县建东有色金属熔炼厂,安新县华胜有色金属制造有限公司,牛角浇地十二台区【纯农排变】,安新县鑫益丰铜业有限公司,牛角浇地十台区【纯农排变】,安新县烟东有色金属熔炼有限公司,天源牛业养殖有限公司,安新县忆恒轴承配件厂,后屯浇地四台区【纯农排变】,变压器400KVA,牛角浇地十三台区【纯农排变】,牛角十三台区,西涝淀浇地一台区,西涝淀浇地三台区【纯农排变】,牛角十六台区,西老淀浇地（2）,安新县胜旺铝合金厂(普通合伙),西涝淀浇地五台区【纯农排变】,保定长力金属制品有限公司400KVA,盛隆有色金属（西）,小郭村浇地二台区,牛角一台区,邢屯浇地二台区,牛角浇地十四台区【纯农排变】,牛角四台区,安新县鑫冶有色金属熔炼有限公司250KVA,牛角七台区,牛角十一台区,牛角浇地八台区【纯农排变】,金京有色金属熔炼2,保定长力金属制品有限公司250,后屯浇地五台区","poweroffReason":"【停电原因】由于高压线断导致３５ＫＶ芦庄变电站牛角线５１１线路全线停电 【变更送电】无 【发布渠道】通过９５５９８发布","powerTime":"2018-05-31 18:51:08","powerComm":"已送电","subsNo":"","lineNo":"","tgNo":"","tgName":null,"infoStatus":"1","orgName":"(原)国网安新县供电公司","typeName":null,"infoStatusName":null,"dateDay":null,"orgNos":null,"nowTime":null,"countyName":null,"streetName":null,"villageName":null,"roadName":null,"communityName":null,"tranName":null,"sdLineName":null,"cityCode":"1340607","cityName":"(原)国网安新县供电公司","provinceCode":null,"stopTime":"2018-05-31 19:30:00","powerType":"全部","powerOffArea":"【全线路停电】停东海有色金属熔炼厂（2）,保定东晨铜业（1）,牛角浇地九台区【纯农排变】,新科达铜业200,牛角八台区,河北长力金属制品有限公司,牛角15台区,安新县金京有色金属熔炼有限公司,变压器250,西涝淀浇地二台区【纯农排变】,西老淀浇地（1）（追补）,光明金属集团公司,牛角浇地十一台区【纯农排变】,0387384133-河北华安铸造有限责任公司-专变-49152877-变压器250,牛角双源熔炼厂,金京有色金属熔炼1,牛角浇地三台区【纯农排变】,前屯浇地三台区【纯农排变】,鑫源有色金属购销有限公司80KVA,保定金龙汽车同步器齿环公司,牛角六台区,利达铝业（牛角）,永固新型管材配件有限公司,安新县宏运承配件制造有限公司,远东轴承配件制造公司,牛角浇地一台区【纯农排变】,牛角十四台区,谢庄浇地三台区,牛角浇地二台区【纯农排变】,安新县宏运轴承配件制造有限公司315KVA,小郭村浇地一台区,自力有色金属熔炼有限公司,西涝淀浇地四台区【纯农排变】,安新县亿恒轴承配件厂,牛角十台区,安新县自力有色金属熔炼有限公司,牛角十二台区,牛角九台区,变压器增250KVA,变压器100KVA,牛角三台区,安新县益达有色金属加工有限公司,牛角二台区,牛角五台区,西涝淀浇地六台区【纯农排变】,安新县二彬氧化锌加工厂,安新县建东有色金属熔炼厂,安新县华胜有色金属制造有限公司,牛角浇地十二台区【纯农排变】,安新县鑫益丰铜业有限公司,牛角浇地十台区【纯农排变】,安新县烟东有色金属熔炼有限公司,天源牛业养殖有限公司,安新县忆恒轴承配件厂,后屯浇地四台区【纯农排变】,变压器400KVA,牛角浇地十三台区【纯农排变】,牛角十三台区,西涝淀浇地一台区,西涝淀浇地三台区【纯农排变】,牛角十六台区,西老淀浇地（2）,安新县胜旺铝合金厂(普通合伙),西涝淀浇地五台区【纯农排变】,保定长力金属制品有限公司400KVA,盛隆有色金属（西）,小郭村浇地二台区,牛角一台区,邢屯浇地二台区,牛角浇地十四台区【纯农排变】,牛角四台区,安新县鑫冶有色金属熔炼有限公司250KVA,牛角七台区,牛角十一台区,牛角浇地八台区【纯农排变】,金京有色金属熔炼2,保定长力金属制品有限公司250,后屯浇地五台区","powerOffReason":"【停电原因】由于高压线断导致３５ＫＶ芦庄变电站牛角线５１１线路全线停电 【变更送电】无 【发布渠道】通过９５５９８发布","powerOffId":"2018053113000506"}],"pageModel":{"pageNow":1056,"totalCount":10973,"totalPage":1098,"tableRows":0,"pageCount":10,"beginCount":10550},"isExperi":"1"}