{"message":"","today":"2020-06-15","seleList":[{"poweroffId":2018053113000359,"sgpoweroffId":null,"subsName":"","lineName":"10kV御城线542","pubTranName":"大侯村外15【纯农排变】,大望亭4号,1小望亭新民居内1,小候村外4【纯农排变】,大望亭村委会,大望亭内10,1御城内11.,御城外1【纯农排变】,0387504782-保定中亿电气材料制造有限公司-专变-45325255-保定中亿电气材料制造有限公司,大望亭外9号【纯农排变】,1御城内14,1小望亭内3,0387506762-清苑县茂硕金属加工有限公司-专变-192916051-保定美亚尼灯具制造有限公司,御城外10【纯农排变】,0387504841-清泉鸡厂-专变-45325188-清泉鸡厂,大望亭3号,侯村农场河边西台,1御城内12,御城内17台区,御城外3【纯农排变】,0387506140-大侯村河边-专变-45325169-大侯村河边,0602532073-保定伊和生物科技有限责任公司-专变-126940174-清苑县博远饲料销售有限公司,御城外7号【纯农排变】,0653694351-清苑县鑫润达机械配件制造有限公司-专变-183550373-清苑县鑫润达机械配件制造有限公司,0387505453-保定鑫源机件热处理加工厂-专变-45325062-保定鑫源机件热处理加工厂,御城内10,0387505059-大侯村南砖厂-专变-45325238-大侯村南砖厂,0387505802-大望亭鸡厂会元-专变-45325175-大望亭鸡厂会元,御城外11【纯农排变】,清苑县茂硕金属加工有限公司,2御城外13【纯农排变】,御城外6【纯农排变】,大望亭外11号【纯农排变】,清苑县广通铝业,2御城外15【纯农排变】,0387505118-御城董占义-专变-124028079-御城董占义,大候村外14【纯农排变】,1大望亭内14,0649076901-清苑县国兵机械配件加工有限公司-专变-174391202-清苑县国兵机械配件加工有限公司,大侯村外20【纯农排变】,大望亭外7号【纯农排变】,0621499072-保定伊和生物科技有限责任公司-专变-129725284-清苑县博远饲料销售有限公司,段志佳养羊场,0621499072-保定伊和生物科技有限责任公司-专变-129745707-清苑县博远饲料销售有限公司,清苑县华峰养鸡场,小望亭外4【纯农排变】,大候村外18【纯农排变】,河北建投灵峰环保发电有限公司,1小望亭内4,2仙人桥外10【纯农排变】,1御城内4,0387504795-清苑县盛达变压器铁芯制造有限公司-专变-45325183-清苑县盛达变压器铁芯制造有限公司,大望亭外8号【纯农排变】,0387506687-保定市清苑区农村信用联社股份有限公司-专变-45325179-清苑县农村信用合作联社,1御城内9,客户投资_1御城内1号,2御城外12【纯农排变】,清苑县金荷塘农业园,0387506498-保定市文岳金属制品加工厂-专变-45325222-清苑县恒鑫五合面粉厂,御城外14【纯农排变】,0387504753-大侯村新兴食品厂-专变-45325166-大侯村新兴食品厂,大望亭外12号【纯农排变】,1大望亭内11,御城外2【纯农排变】,0387505613-小望亭大堤(分箱)-专变-45325185-小望亭大堤（分箱","scope":"【影响街道/乡镇】望亭乡、孙村乡、石桥乡 【高危重要客户】无 【影响客户】玉城、大望亭、小望亭 、大候村、小候村、仙人桥","startTime":"2018-05-31 15:44:10","stopDate":"2018-05-31 17:00:00","orgNo":"1340618","typeCode":"电网故障停限电","poweroffArea":"【全线路停电】停大侯村外19【纯农排变】,御城外7号【纯农排变】,大望亭外6号【纯农排变】,0387505873-中节能(保定)环保能源有限公司-专变-49039117-河北建投灵峰环保发电有限公司,小候村外3【纯农排变】,大望亭外4【纯农排变】,0387504782-保定中亿电气材料制造有限公司-专变-45325255-保定中亿电气材料制造有限公司,保定市亿宠宠物饲料制造有限公司,0653694351-清苑县鑫润达机械配件制造有限公司-专变-183550373-清苑县鑫润达机械配件制造有限公司,0387505440-河北鑫兴仓储有限公司-专变-45325198-大望亭带锯,1小望亭内4,1御城内13,大望亭外9号【纯农排变】,2仙人桥外10【纯农排变】,2御城外12【纯农排变】,大望亭外13【纯农排变】,小望亭外5【纯农排变】,清苑县绿鸣养殖基地,1御城内4,保定市亚航建筑工程有限公司,河北建投灵峰环保发电有限公司,大望亭外11号【纯农排变】,0387505453-保定鑫源机件热处理加工厂-专变-45325062-保定鑫源机件热处理加工厂,御城内10,清苑县广通铝业,清苑县大望亭绿康养殖场,0387506427-平陵河边-专变-45325170-平陵河边,0387505802-大望亭鸡厂会元-专变-45325175-大望亭鸡厂会元,0387506687-保定市清苑区农村信用联社股份有限公司-专变-45325179-清苑县农村信用合作联社,大望亭外7号【纯农排变】,1御城内9,御城外11【纯农排变】,0387506762-清苑县茂硕金属加工有限公司-专变-192916051-保定美亚尼灯具制造有限公司,清苑县茂硕金属加工有限公司,保定市海深农业发展有限公司,大望亭外12号【纯农排变】,御城外6【纯农排变】,2小望亭外6【纯农排变】,1小望亭新民居内1,大望亭外8号【纯农排变】,大望亭贾顺养鸡场,御城外2【纯农排变】,2御城外13【纯农排变】,0387505088-望亭线材厂-专变-45325182-望亭线材厂,0387504795-清苑县盛达变压器铁芯制造有限公司-专变-45325183-清苑县盛达变压器铁芯制造有限公司,0602532073-保定伊和生物科技有限责任公司-专变-126940174-清苑县博远饲料销售有限公司,御城内8,0387506674-大望亭饮料厂北台-专变-45325081-大望亭饮料厂北台,0387505613-小望亭大堤(分箱)-专变-45325185-小望亭大堤（分箱）,0621499072-保定伊和生物科技有限责任公司-专变-129725284-清苑县博远饲料销售有限公司,1御城内15,0387504841-清泉鸡厂-专变-45325188-清泉鸡厂,2大望亭外14【纯农排变】,清苑县金荷塘农业园,1大望亭内11,2御城外15【纯农排变】,0602532073-保定伊和生物科技有限责任公司-专变-126944238-清苑县博远饲料销售有限公司,保定市中茂能源有限公司,0648984478-保定美亚尼灯具制造有限公司-专变-174391050-保定美亚尼灯具制造有限公司,大望亭村委会,1小望亭内3,御城外3【纯农排变】,0603049374-屹立卓郡小区-专变-126939848-屹立卓郡小区,段志佳养羊场,0621499072-保定伊和生物科技有限责任公司-专变-129745707-清苑县博远饲料销售有限公司,御城内18台区,0387505118-御城董占义-专变-124028079-御城董占义,1御城内2号,大候村外14【纯农排变】,大望亭3号,1大望亭内14,御城外9【纯农排变】,0387506498-保定市文岳金属制品加工厂-专变-45325222-清苑县恒鑫五合面粉厂,0387505466-清苑县望亭长志养殖厂-专变-45325224-清苑县望亭长志养殖厂,大侯村外15【纯农排变】,1御城内3,1御城内16,御城外14【纯农排变】,1御城内6,0387504753-大侯村新兴食品厂-专变-45325166-大侯村新兴食品厂,0387506140-大侯村河边-专变-45325169-大侯村河边,侯村农场河边西台,小望亭外4【纯农排变】,1御城内7,御城外10【纯农排变】,0387505150-大望亭孟成福沙厂-专变-45325219-大望亭孟成福沙厂,大候村外18【纯农排变】","poweroffReason":"【停电原因】由于主干８７号杆北分支２号杆清泉鸡场配变烧毁导致１０ＫＶ戎官营开关变电站１０ＫＶ御城线５４２线路全线停电 【变更送电】因抢修进度加快原因，送电时间由２１：００变更为１７：００ 【发布渠道】通过９５５９８发布","powerTime":"2018-05-31 16:22:13","powerComm":"戎官营所刘振宁通知已送电","subsNo":"","lineNo":"","tgNo":"","tgName":null,"infoStatus":"1","orgName":"国网清苑县供电公司","typeName":null,"infoStatusName":null,"dateDay":null,"orgNos":null,"nowTime":null,"countyName":null,"streetName":null,"villageName":null,"roadName":null,"communityName":null,"tranName":null,"sdLineName":null,"cityCode":"1340618","cityName":"国网清苑县供电公司","provinceCode":null,"stopTime":"2018-05-31 17:00:00","powerType":"全部","powerOffArea":"【全线路停电】停大侯村外19【纯农排变】,御城外7号【纯农排变】,大望亭外6号【纯农排变】,0387505873-中节能(保定)环保能源有限公司-专变-49039117-河北建投灵峰环保发电有限公司,小候村外3【纯农排变】,大望亭外4【纯农排变】,0387504782-保定中亿电气材料制造有限公司-专变-45325255-保定中亿电气材料制造有限公司,保定市亿宠宠物饲料制造有限公司,0653694351-清苑县鑫润达机械配件制造有限公司-专变-183550373-清苑县鑫润达机械配件制造有限公司,0387505440-河北鑫兴仓储有限公司-专变-45325198-大望亭带锯,1小望亭内4,1御城内13,大望亭外9号【纯农排变】,2仙人桥外10【纯农排变】,2御城外12【纯农排变】,大望亭外13【纯农排变】,小望亭外5【纯农排变】,清苑县绿鸣养殖基地,1御城内4,保定市亚航建筑工程有限公司,河北建投灵峰环保发电有限公司,大望亭外11号【纯农排变】,0387505453-保定鑫源机件热处理加工厂-专变-45325062-保定鑫源机件热处理加工厂,御城内10,清苑县广通铝业,清苑县大望亭绿康养殖场,0387506427-平陵河边-专变-45325170-平陵河边,0387505802-大望亭鸡厂会元-专变-45325175-大望亭鸡厂会元,0387506687-保定市清苑区农村信用联社股份有限公司-专变-45325179-清苑县农村信用合作联社,大望亭外7号【纯农排变】,1御城内9,御城外11【纯农排变】,0387506762-清苑县茂硕金属加工有限公司-专变-192916051-保定美亚尼灯具制造有限公司,清苑县茂硕金属加工有限公司,保定市海深农业发展有限公司,大望亭外12号【纯农排变】,御城外6【纯农排变】,2小望亭外6【纯农排变】,1小望亭新民居内1,大望亭外8号【纯农排变】,大望亭贾顺养鸡场,御城外2【纯农排变】,2御城外13【纯农排变】,0387505088-望亭线材厂-专变-45325182-望亭线材厂,0387504795-清苑县盛达变压器铁芯制造有限公司-专变-45325183-清苑县盛达变压器铁芯制造有限公司,0602532073-保定伊和生物科技有限责任公司-专变-126940174-清苑县博远饲料销售有限公司,御城内8,0387506674-大望亭饮料厂北台-专变-45325081-大望亭饮料厂北台,0387505613-小望亭大堤(分箱)-专变-45325185-小望亭大堤（分箱）,0621499072-保定伊和生物科技有限责任公司-专变-129725284-清苑县博远饲料销售有限公司,1御城内15,0387504841-清泉鸡厂-专变-45325188-清泉鸡厂,2大望亭外14【纯农排变】,清苑县金荷塘农业园,1大望亭内11,2御城外15【纯农排变】,0602532073-保定伊和生物科技有限责任公司-专变-126944238-清苑县博远饲料销售有限公司,保定市中茂能源有限公司,0648984478-保定美亚尼灯具制造有限公司-专变-174391050-保定美亚尼灯具制造有限公司,大望亭村委会,1小望亭内3,御城外3【纯农排变】,0603049374-屹立卓郡小区-专变-126939848-屹立卓郡小区,段志佳养羊场,0621499072-保定伊和生物科技有限责任公司-专变-129745707-清苑县博远饲料销售有限公司,御城内18台区,0387505118-御城董占义-专变-124028079-御城董占义,1御城内2号,大候村外14【纯农排变】,大望亭3号,1大望亭内14,御城外9【纯农排变】,0387506498-保定市文岳金属制品加工厂-专变-45325222-清苑县恒鑫五合面粉厂,0387505466-清苑县望亭长志养殖厂-专变-45325224-清苑县望亭长志养殖厂,大侯村外15【纯农排变】,1御城内3,1御城内16,御城外14【纯农排变】,1御城内6,0387504753-大侯村新兴食品厂-专变-45325166-大侯村新兴食品厂,0387506140-大侯村河边-专变-45325169-大侯村河边,侯村农场河边西台,小望亭外4【纯农排变】,1御城内7,御城外10【纯农排变】,0387505150-大望亭孟成福沙厂-专变-45325219-大望亭孟成福沙厂,大候村外18【纯农排变】","powerOffReason":"【停电原因】由于主干８７号杆北分支２号杆清泉鸡场配变烧毁导致１０ＫＶ戎官营开关变电站１０ＫＶ御城线５４２线路全线停电 【变更送电】因抢修进度加快原因，送电时间由２１：００变更为１７：００ 【发布渠道】通过９５５９８发布","powerOffId":"2018053113000359"},{"poweroffId":2018053113000351,"sgpoweroffId":null,"subsName":"","lineName":"10kV望亭线551","pubTranName":"后米阳内1,前后米阳合用【纯农排变】,0387505987-夏金水-专变-45324916-夏金水,1前米阳内5,0387505697-清苑县大望亭益达养殖场-专变-128080819-清苑县大望亭益达养殖场,0387504900-前米阳村东-专变-45325146-前米阳村东,小侯村外6号【纯农排变】,1大望亭内12,1前米阳内4,0387506238-望亭段占林鸡场-专变-45324893-望亭段占林鸡场,0387505482-前米阳村东河边-专变-45325022-前米阳村东河边,东安周满义,清苑县固上兴旺奶牛场,大望亭红旗养鸡厂,大望亭内9,前米阳外2【纯农排变】,固上外3【纯农排变】,小望亭内1,1前米阳内3,1大望亭内16,0387504870-保定恒益电力电器设备有限公司-专变-121540910-保定恒鑫电力电器设备有限公司,0648948913-保定鸿展金属制品制造有限公司-专变-174386323-保定鸿展金属制品制造有限公司,1前米阳内1,清苑县四通铝业有限公司,2小侯村外2【纯农排变】,大望亭外2号【纯农排变】,1大望亭内13,大望亭孵化厂,大望亭内5号,0548483189-河北春赏金属合金制造有限公司-专变-48120109-保定天贸金属有限公司,0387505176-小望亭村北西箱-专变-45325065-变压器,后米阳外3【纯农排变】,后米阳外4【纯农排变】,后米阳河边,大望亭外3号【纯农排变】,固上外1号【纯农排变】,小望亭内2,1前米阳内2,后米阳外2【纯农排变】,0548476754-河北春赏金属合金制造有限公司-专变-48120040-保定天贸金属有限公司,清苑县大望亭水厂,1后米阳内3,1大望亭内15,清苑县兰珍蛋鸡养殖基地,前米阳外1【纯农排变】,0573968165-后米阳村委会-专变-121576915-后米阳村委会,后米阳内2号,大望亭外1号【纯农排变】,0387506254-大望亭面粉厂-专变-45324934-大望亭面粉厂,小候村西南1【纯农排变】,0387506300-大望亭贾顺养鸡厂-专变-45324948-大望亭贾顺养鸡厂,1大望亭内8,大望亭1号,1小望亭内5,大望亭内6号,前米阳外3【纯农排变】,0387505701-小候村周大庄-专变-124295114-小候村周大庄,保定市立中车轮制造有限公司,大望亭2号,0387506225-程郡鸡厂-专变-45324886-程郡鸡厂,固上外2号【纯农排变】,1东安内11,0648948913-保定鸿展金属制品制造有限公司-专变-174383163-保定鸿展金属制品制造有限公司,振兴鸡厂,","scope":"【影响街道/乡镇】望亭乡 【高危重要客户】无 【影响客户】前米阳、后米阳、大望亭、小望亭、小侯村","startTime":"2018-05-31 15:36:33","stopDate":"2018-05-31 18:00:00","orgNo":"1340618","typeCode":"电网故障停限电","poweroffArea":"【全线路停电】停1大望亭内16,0387505987-夏金水-专变-45324916-夏金水,0648948913-保定鸿展金属制品制造有限公司-专变-174383163-保定鸿展金属制品制造有限公司,0387506225-程郡鸡厂-专变-45324886-程郡鸡厂,前米阳外2【纯农排变】,大望亭孵化厂,1前米阳内5,1大望亭内8,固上外2号【纯农排变】,后米阳内1,大望亭内5号,1大望亭内12,1前米阳内4,0387505697-清苑县大望亭益达养殖场-专变-128080819-清苑县大望亭益达养殖场,1大望亭内15,0387506238-望亭段占林鸡场-专变-45324893-望亭段占林鸡场,0548483189-河北春赏金属合金制造有限公司-专变-48120109-保定天贸金属有限公司,小候村西南1【纯农排变】,0387505176-小望亭村北西箱-专变-45325065-变压器,清苑县兰珍蛋鸡养殖基地,1东安内11,0573968165-后米阳村委会-专变-121576915-后米阳村委会,1小望亭内5,小侯村外6号【纯农排变】,1前米阳内2,后米阳外2【纯农排变】,大望亭内6号,0387504870-保定恒益电力电器设备有限公司-专变-121540910-保定恒鑫电力电器设备有限公司,振兴鸡厂,大望亭1号,后米阳内2号,前米阳外3【纯农排变】,0387505482-前米阳村东河边-专变-45325022-前米阳村东河边,后米阳河边,0648948913-保定鸿展金属制品制造有限公司-专变-174386323-保定鸿展金属制品制造有限公司,0548476754-河北春赏金属合金制造有限公司-专变-48120040-保定天贸金属有限公司,大望亭2号,前米阳外1【纯农排变】,大望亭外1号【纯农排变】,0387506254-大望亭面粉厂-专变-45324934-大望亭面粉厂,东安周满义,后米阳外3【纯农排变】,清苑县大望亭水厂,1前米阳内1,清苑县固上兴旺奶牛场,固上外3【纯农排变】,清苑县四通铝业有限公司,保定市立中车轮制造有限公司,0387505701-小候村周大庄-专变-124295114-小候村周大庄,2小侯村外2【纯农排变】,1后米阳内3,后米阳外4【纯农排变】,0387506300-大望亭贾顺养鸡厂-专变-45324948-大望亭贾顺养鸡厂,小望亭内1,大望亭红旗养鸡厂,大望亭外3号【纯农排变】,大望亭外2号【纯农排变】,1前米阳内3,大望亭内9,固上外1号【纯农排变】,1大望亭内13,0387504900-前米阳村东-专变-45325146-前米阳村东,前后米阳合用【纯农排变】,小望亭内2","poweroffReason":"【停电原因】由于主干３２号杆Ｔ４号杆程群鸡场配变烧毁导致１０ＫＶ戎官营开关变电站１０ＫＶ望亭线５５１线路全线停电 【变更送电】因抢修进度加快原因，送电时间由２１：００变更为１８：００ 【发布渠道】通过９５５９８发布","powerTime":"2018-05-31 17:33:59","powerComm":"戎官营所高丽杰通知已送电","subsNo":"","lineNo":"","tgNo":"","tgName":null,"infoStatus":"1","orgName":"国网清苑县供电公司","typeName":null,"infoStatusName":null,"dateDay":null,"orgNos":null,"nowTime":null,"countyName":null,"streetName":null,"villageName":null,"roadName":null,"communityName":null,"tranName":null,"sdLineName":null,"cityCode":"1340618","cityName":"国网清苑县供电公司","provinceCode":null,"stopTime":"2018-05-31 18:00:00","powerType":"全部","powerOffArea":"【全线路停电】停1大望亭内16,0387505987-夏金水-专变-45324916-夏金水,0648948913-保定鸿展金属制品制造有限公司-专变-174383163-保定鸿展金属制品制造有限公司,0387506225-程郡鸡厂-专变-45324886-程郡鸡厂,前米阳外2【纯农排变】,大望亭孵化厂,1前米阳内5,1大望亭内8,固上外2号【纯农排变】,后米阳内1,大望亭内5号,1大望亭内12,1前米阳内4,0387505697-清苑县大望亭益达养殖场-专变-128080819-清苑县大望亭益达养殖场,1大望亭内15,0387506238-望亭段占林鸡场-专变-45324893-望亭段占林鸡场,0548483189-河北春赏金属合金制造有限公司-专变-48120109-保定天贸金属有限公司,小候村西南1【纯农排变】,0387505176-小望亭村北西箱-专变-45325065-变压器,清苑县兰珍蛋鸡养殖基地,1东安内11,0573968165-后米阳村委会-专变-121576915-后米阳村委会,1小望亭内5,小侯村外6号【纯农排变】,1前米阳内2,后米阳外2【纯农排变】,大望亭内6号,0387504870-保定恒益电力电器设备有限公司-专变-121540910-保定恒鑫电力电器设备有限公司,振兴鸡厂,大望亭1号,后米阳内2号,前米阳外3【纯农排变】,0387505482-前米阳村东河边-专变-45325022-前米阳村东河边,后米阳河边,0648948913-保定鸿展金属制品制造有限公司-专变-174386323-保定鸿展金属制品制造有限公司,0548476754-河北春赏金属合金制造有限公司-专变-48120040-保定天贸金属有限公司,大望亭2号,前米阳外1【纯农排变】,大望亭外1号【纯农排变】,0387506254-大望亭面粉厂-专变-45324934-大望亭面粉厂,东安周满义,后米阳外3【纯农排变】,清苑县大望亭水厂,1前米阳内1,清苑县固上兴旺奶牛场,固上外3【纯农排变】,清苑县四通铝业有限公司,保定市立中车轮制造有限公司,0387505701-小候村周大庄-专变-124295114-小候村周大庄,2小侯村外2【纯农排变】,1后米阳内3,后米阳外4【纯农排变】,0387506300-大望亭贾顺养鸡厂-专变-45324948-大望亭贾顺养鸡厂,小望亭内1,大望亭红旗养鸡厂,大望亭外3号【纯农排变】,大望亭外2号【纯农排变】,1前米阳内3,大望亭内9,固上外1号【纯农排变】,1大望亭内13,0387504900-前米阳村东-专变-45325146-前米阳村东,前后米阳合用【纯农排变】,小望亭内2","powerOffReason":"【停电原因】由于主干３２号杆Ｔ４号杆程群鸡场配变烧毁导致１０ＫＶ戎官营开关变电站１０ＫＶ望亭线５５１线路全线停电 【变更送电】因抢修进度加快原因，送电时间由２１：００变更为１８：００ 【发布渠道】通过９５５９８发布","powerOffId":"2018053113000351"},{"poweroffId":2018053113000349,"sgpoweroffId":null,"subsName":"","lineName":"10kV仙人桥线541","pubTranName":"1仙人桥内19,1平陵内33,平陵内4号,孙村乡政府,戎官营外12【纯农排变】,戎官营外10【纯农排变】,仙人桥外16【纯农排变】,仙人桥外8【纯农排变】,0387506081-西孙村-专变-45324862-西孙村,0387505785-平陵田国胜托牛所-专变-121420986-平陵田国胜托牛所,0387506094-西孙村纸箱厂-专变-45325140-西孙村纸箱厂,0387506368-中石化集团保定石油化工厂-专变-45324852-中石化集团保定石油化工厂,0387506384-西孙村村西-专变-45325089-西孙村村西,0387505567-保定莲池家具公司-专变-45325085-保定莲池家具公司,1平陵内35,1平陵内34,1西孙村内4,0387506296-平陵下闸河边-专变-45324836-平陵下闸河边,1平陵内29,2平陵外24【纯农排变】,平陵1号,1南孙村内3,戎官营外2号【纯农排变】,1平陵内32,1平陵内36,乡办厂大箱,0387506052-保定市东方养殖厂-专变-124730660-保定市东方养殖厂1,仙人桥外15号【纯农排变】,保定宏睿石材有限公司,仙人桥外12号【纯农排变】,南孙村内2,戎官营外7【纯农排变】,0387505323-平陵村东河边-专变-45324845-平陵村东河边,平陵外19【纯农排变】,平陵外18【纯农排变】,1仙人桥内20,0677597533-仙庭湖畔-专变-219700973-仙庭湖畔,平陵2号,保定市一诺日化科技有限公司,1戎官营内15,2平陵外12【纯农排变】,0387505280-西孙村西南-专变-45324834-西孙村西南,1平陵内28,2南孙村外3【纯农排变】,平陵外10号【纯农排变】,平陵外7【纯农排变】,0387505743-保定市金诺制香有限公司-专变-45324851-保定市金诺制香有限公司,1仙人桥内1,平陵外13【纯农排变】,0547650241-清苑县轩达水泥制品厂-专变-48157156-保定元亨微晶石材有限公司,2平陵外15【纯农排变】,南孙村内1,平陵外20【纯农排变】,戎官营外11【纯农排变】,平陵外5【纯农排变】,平陵内3,平陵外9【纯农排变】,仙人桥外7号【纯农排变】,戎官营供电所,西孙村1号,1仙人桥内17,0387505017-清苑县昌隆禽业有限公司-专变-45325152-清苑县昌隆禽业有限公司,仙人桥外5【纯农排变】,1平陵内38,仙人桥内3,2平陵外17【纯农排变】,仙人桥外9【纯农排变】,平陵外6【纯农排变】,仙人桥外6号【纯农排变】,1仙人桥内18,南孙村外4【纯农排变】,1平陵内30,0547390002-清苑县孙村乡占良煤厂-专变-48227087-清苑县佳鑫诚钢材经销处,戎官营外9【纯农排变】,0387504997-平陵张峰种鸡厂-专变-45324859-平陵张峰种鸡厂,1平陵内26,仙人桥外4号【纯农排变】,仙人桥外13号【纯农排变】,平陵内21,1平陵内31,平陵外14【纯农排变】,平陵内22,仙人桥外14号【纯农排变】,2平陵外25【纯农排变】,南孙村外2【纯农排变】,保定市三鼎废旧物","scope":"【影响街道/乡镇】石桥乡、孙村乡 【高危重要客户】无 【影响客户】平陵、仙人桥、南孙村、西孙村、戎官营、孙村乡政府","startTime":"2018-05-31 15:32:04","stopDate":"2018-05-31 16:40:00","orgNo":"1340618","typeCode":"电网故障停限电","poweroffArea":"【全线路停电】停西孙内3,平陵外9【纯农排变】,1平陵内32,南孙村外6【纯农排变】,1仙人桥内17,仙人桥外5【纯农排变】,1平陵内37,1南孙村内4,仙人桥外4号【纯农排变】,平陵外20【纯农排变】,2平陵外25【纯农排变】,1平陵内38,小北大幼儿园,1仙人桥内19,仙庭湖畔,1戎官营内15,2平陵外12【纯农排变】,平陵2号,平陵外18【纯农排变】,南孙村外2【纯农排变】,1平陵内29,0387506384-西孙村村西-专变-45325089-西孙村村西,平陵外11【纯农排变】,南孙村内2,1平陵内30,1仙人桥内1,0387505567-保定莲池家具公司-专变-45325085-保定莲池家具公司,1平陵内36,0387506108-戎官营李红彬苗圃-专变-45325084-戎官营李红彬苗圃,2平陵外23【纯农排变】,平陵外13【纯农排变】,仙人桥内2,仙人桥内3,平陵外19【纯农排变】,1平陵内33,1平陵内35,南孙村外1【纯农排变】,1平陵内27,保定市三鼎废旧物资回收有限公司,1平陵内34,1仙人桥内20,平陵内4号,2平陵外17【纯农排变】,保定市一诺日化科技有限公司,0547650241-清苑县轩达水泥制品厂-专变-48157156-保定元亨微晶石材有限公司,戎官营外7【纯农排变】,0547390002-清苑县孙村乡占良煤厂-专变-48227087-清苑县佳鑫诚钢材经销处,仙人桥郝冠军养鸭厂,0387505600-保定元亨微晶石材有限公司-专变-45325157-保定元亨微晶石材有限公司,乡办厂大箱,1南孙村内5,0387505730-保定医用氧气厂-专变-45324849-保定医用氧气厂,仙人桥外13号【纯农排变】,0387505017-清苑县昌隆禽业有限公司-专变-45325152-清苑县昌隆禽业有限公司,戎官营外9【纯农排变】,2戎官营外8【纯农排变】,保定宏睿石材有限公司,0387506052-保定市东方养殖厂-专变-124730660-保定市东方养殖厂1,0387505785-平陵田国胜托牛所-专变-121420986-平陵田国胜托牛所,0387505323-平陵村东河边-专变-45324845-平陵村东河边,平陵外14【纯农排变】,平陵内21,西孙村内2,孙村乡政府,1西孙村内4,平陵内16,0677597533-仙庭湖畔-专变-219700973-仙庭湖畔,戎官营外12【纯农排变】,0602532725-清苑县文兴蔬菜花卉果树专业合作社-专变-126929395-清苑县文兴蔬菜花卉果蔬专业合作社,仙人桥外9【纯农排变】,平陵内3,仙人桥外16【纯农排变】,平陵内22,0387505280-西孙村西南-专变-45324834-西孙村西南,0387506296-平陵下闸河边-专变-45324836-平陵下闸河边,1平陵内28,平陵外6【纯农排变】,仙人桥外8【纯农排变】,2平陵外15【纯农排变】,仙人桥外12号【纯农排变】,仙人桥外7号【纯农排变】,1平陵内31,平陵外10号【纯农排变】,仙人桥外6号【纯农排变】,戎官营外2号【纯农排变】,2南孙村外3【纯农排变】,2平陵外24【纯农排变】,南孙村外5【纯农排变】,戎官营外10【纯农排变】,2平陵外8【纯农排变】,平陵外5【纯农排变】,0387506081-西孙村-专变-45324862-西孙村,平陵1号,平陵外7【纯农排变】,1仙人桥内18,仙人桥外14号【纯农排变】,1南孙村内3,1平陵内26,戎官营供电所,南孙村内1,清苑县华星工艺蜡香制品有限公司,0387506094-西孙村纸箱厂-专变-45325140-西孙村纸箱厂,西孙村1号,南孙村外4【纯农排变】,0387504997-平陵张峰种鸡厂-专变-45324859-平陵张峰种鸡厂,仙人桥外15号【纯农排变】,0387505743-保定市金诺制香有限公司-专变-45324851-保定市金诺制香有限公司,0387506368-中石化集团保定石油化工厂-专变-45324852-中石化集团保定石油化工厂,戎官营外11【纯农排变】","poweroffReason":"【停电原因】由于线路Ａ相接地导致１０ＫＶ戎官营开关变电站１０ＫＶ仙人桥线５４１线路全线停电 【变更送电】因抢修进度加快原因，送电时间由２１：００变更为１６：４０ 【发布渠道】通过９５５９８发布","powerTime":"2018-05-31 16:14:55","powerComm":"刘新站通知已送电","subsNo":"","lineNo":"","tgNo":"","tgName":null,"infoStatus":"1","orgName":"国网清苑县供电公司","typeName":null,"infoStatusName":null,"dateDay":null,"orgNos":null,"nowTime":null,"countyName":null,"streetName":null,"villageName":null,"roadName":null,"communityName":null,"tranName":null,"sdLineName":null,"cityCode":"1340618","cityName":"国网清苑县供电公司","provinceCode":null,"stopTime":"2018-05-31 16:40:00","powerType":"全部","powerOffArea":"【全线路停电】停西孙内3,平陵外9【纯农排变】,1平陵内32,南孙村外6【纯农排变】,1仙人桥内17,仙人桥外5【纯农排变】,1平陵内37,1南孙村内4,仙人桥外4号【纯农排变】,平陵外20【纯农排变】,2平陵外25【纯农排变】,1平陵内38,小北大幼儿园,1仙人桥内19,仙庭湖畔,1戎官营内15,2平陵外12【纯农排变】,平陵2号,平陵外18【纯农排变】,南孙村外2【纯农排变】,1平陵内29,0387506384-西孙村村西-专变-45325089-西孙村村西,平陵外11【纯农排变】,南孙村内2,1平陵内30,1仙人桥内1,0387505567-保定莲池家具公司-专变-45325085-保定莲池家具公司,1平陵内36,0387506108-戎官营李红彬苗圃-专变-45325084-戎官营李红彬苗圃,2平陵外23【纯农排变】,平陵外13【纯农排变】,仙人桥内2,仙人桥内3,平陵外19【纯农排变】,1平陵内33,1平陵内35,南孙村外1【纯农排变】,1平陵内27,保定市三鼎废旧物资回收有限公司,1平陵内34,1仙人桥内20,平陵内4号,2平陵外17【纯农排变】,保定市一诺日化科技有限公司,0547650241-清苑县轩达水泥制品厂-专变-48157156-保定元亨微晶石材有限公司,戎官营外7【纯农排变】,0547390002-清苑县孙村乡占良煤厂-专变-48227087-清苑县佳鑫诚钢材经销处,仙人桥郝冠军养鸭厂,0387505600-保定元亨微晶石材有限公司-专变-45325157-保定元亨微晶石材有限公司,乡办厂大箱,1南孙村内5,0387505730-保定医用氧气厂-专变-45324849-保定医用氧气厂,仙人桥外13号【纯农排变】,0387505017-清苑县昌隆禽业有限公司-专变-45325152-清苑县昌隆禽业有限公司,戎官营外9【纯农排变】,2戎官营外8【纯农排变】,保定宏睿石材有限公司,0387506052-保定市东方养殖厂-专变-124730660-保定市东方养殖厂1,0387505785-平陵田国胜托牛所-专变-121420986-平陵田国胜托牛所,0387505323-平陵村东河边-专变-45324845-平陵村东河边,平陵外14【纯农排变】,平陵内21,西孙村内2,孙村乡政府,1西孙村内4,平陵内16,0677597533-仙庭湖畔-专变-219700973-仙庭湖畔,戎官营外12【纯农排变】,0602532725-清苑县文兴蔬菜花卉果树专业合作社-专变-126929395-清苑县文兴蔬菜花卉果蔬专业合作社,仙人桥外9【纯农排变】,平陵内3,仙人桥外16【纯农排变】,平陵内22,0387505280-西孙村西南-专变-45324834-西孙村西南,0387506296-平陵下闸河边-专变-45324836-平陵下闸河边,1平陵内28,平陵外6【纯农排变】,仙人桥外8【纯农排变】,2平陵外15【纯农排变】,仙人桥外12号【纯农排变】,仙人桥外7号【纯农排变】,1平陵内31,平陵外10号【纯农排变】,仙人桥外6号【纯农排变】,戎官营外2号【纯农排变】,2南孙村外3【纯农排变】,2平陵外24【纯农排变】,南孙村外5【纯农排变】,戎官营外10【纯农排变】,2平陵外8【纯农排变】,平陵外5【纯农排变】,0387506081-西孙村-专变-45324862-西孙村,平陵1号,平陵外7【纯农排变】,1仙人桥内18,仙人桥外14号【纯农排变】,1南孙村内3,1平陵内26,戎官营供电所,南孙村内1,清苑县华星工艺蜡香制品有限公司,0387506094-西孙村纸箱厂-专变-45325140-西孙村纸箱厂,西孙村1号,南孙村外4【纯农排变】,0387504997-平陵张峰种鸡厂-专变-45324859-平陵张峰种鸡厂,仙人桥外15号【纯农排变】,0387505743-保定市金诺制香有限公司-专变-45324851-保定市金诺制香有限公司,0387506368-中石化集团保定石油化工厂-专变-45324852-中石化集团保定石油化工厂,戎官营外11【纯农排变】","powerOffReason":"【停电原因】由于线路Ａ相接地导致１０ＫＶ戎官营开关变电站１０ＫＶ仙人桥线５４１线路全线停电 【变更送电】因抢修进度加快原因，送电时间由２１：００变更为１６：４０ 【发布渠道】通过９５５９８发布","powerOffId":"2018053113000349"},{"poweroffId":2018053113000302,"sgpoweroffId":null,"subsName":"","lineName":"10kV薛留营站520线路","pubTranName":"B088柱上变压器,B501柱上变压器,B092柱上变压器,B091柱上变压器,10kVY0079配电室Y0079配电变压器,B093柱上变压器,B090柱上变压器,B089柱上变压器,B528柱上变压器,B502柱上变压器,","scope":"【影响街道/乡镇】小集后街、西关大街、北阁外街、小集前街、黄华馆街、北一胡同、北三胡同、集茂胡同 【高危重要客户】无 【影响客户】粮局宿舍、建行宿舍、隶城新巢、隶城心巢","startTime":"2018-06-05 05:00:00","stopDate":"2018-06-05 10:00:00","orgNo":"13406","typeCode":"临时停电","poweroffArea":"【分支停电】停B528柱上变压器,B501柱上变压器,B093柱上变压器,B092柱上变压器,B089柱上变压器,B502柱上变压器,B091柱上变压器,B090柱上变压器,B088柱上变压器,10kVY0079配电室Y0079配电变压器","poweroffReason":"【停电原因】由于供电设备临时检修导致１０ＫＶ薛留营变电站５２０线路北阁外７号杆开关以下停电【变更送电】无【发布渠道】通过９５５９８发布","powerTime":"2018-06-05 09:52:12","powerComm":"已送电","subsNo":"","lineNo":"","tgNo":"","tgName":null,"infoStatus":"1","orgName":"保定供电公司","typeName":null,"infoStatusName":null,"dateDay":null,"orgNos":null,"nowTime":null,"countyName":null,"streetName":null,"villageName":null,"roadName":null,"communityName":null,"tranName":null,"sdLineName":null,"cityCode":"13406","cityName":"保定供电公司","provinceCode":null,"stopTime":"2018-06-05 10:00:00","powerType":"全部","powerOffArea":"【分支停电】停B528柱上变压器,B501柱上变压器,B093柱上变压器,B092柱上变压器,B089柱上变压器,B502柱上变压器,B091柱上变压器,B090柱上变压器,B088柱上变压器,10kVY0079配电室Y0079配电变压器","powerOffReason":"【停电原因】由于供电设备临时检修导致１０ＫＶ薛留营变电站５２０线路北阁外７号杆开关以下停电【变更送电】无【发布渠道】通过９５５９８发布","powerOffId":"2018053113000302"},{"poweroffId":2018053113000253,"sgpoweroffId":null,"subsName":"","lineName":"10kv高庄543","pubTranName":"高庄,","scope":"【影响街道/乡镇】向阳乡 【高危重要客户】无 【影响客户】高庄","startTime":"2018-05-31 13:32:21","stopDate":"2018-05-31 15:40:00","orgNo":"1340626","typeCode":"电网故障停限电","poweroffArea":"【单台区停电】停高庄","poweroffReason":"【停电原因】由于低压空开烧毁导致２２０ＫＶ党庄变电站１０ＫＶ高庄５４３线路高庄公变台区停电 【变更送电】因抢修进度加快原因，送电时间由１７：００变更为１５：４０ 【发布渠道】通过９５５９８发布","powerTime":"2018-05-31 15:15:15","powerComm":"恢复送电","subsNo":"","lineNo":"","tgNo":"","tgName":null,"infoStatus":"1","orgName":"国网涿州市供电公司","typeName":null,"infoStatusName":null,"dateDay":null,"orgNos":null,"nowTime":null,"countyName":null,"streetName":null,"villageName":null,"roadName":null,"communityName":null,"tranName":null,"sdLineName":null,"cityCode":"1340626","cityName":"国网涿州市供电公司","provinceCode":null,"stopTime":"2018-05-31 15:40:00","powerType":"全部","powerOffArea":"【单台区停电】停高庄","powerOffReason":"【停电原因】由于低压空开烧毁导致２２０ＫＶ党庄变电站１０ＫＶ高庄５４３线路高庄公变台区停电 【变更送电】因抢修进度加快原因，送电时间由１７：００变更为１５：４０ 【发布渠道】通过９５５９８发布","powerOffId":"2018053113000253"},{"poweroffId":2018053113000239,"sgpoweroffId":null,"subsName":"","lineName":"10kV589南庞线","pubTranName":"小刘庄5号,北庞8号,西白亭3号【纯农排变】,西白亭8号,大刘庄砖厂1号,北庞5号【纯农排变】,小刘庄2号【纯农排变】,南庞3号【纯农排变】,西白亭14号,曹庄3号【纯农排变】,大刘庄6号【纯农排变】,南庞11号,保定市强固建筑材料制造有限公司,西白亭1号,南庞5号,大刘庄13号,大刘庄1号【纯农排变】,大刘庄3号,大刘庄9号,东白亭鱼塘,徐水县祥光工业用呢厂,西白亭12号,南庞6号,大刘庄11号,保定立辉玻璃有限公司,南庞1号【纯农排变】,徐水县华通水泥制品有限公司,曹庄2号,大刘庄2号【纯农排变】,小刘庄6号,西白亭5号,南庞13号,小刘庄面粉厂,西白亭11号【纯农排变】,东白亭1号【纯农排变】,南庞12号,供电所8号,大刘庄5号,南庞8号【纯农排变】,西白亭9号,东白亭6号【纯农排变】,东白亭7号【纯农排变】,东白亭12号,东白亭10号,南庞9号,小刘庄冰棍房,徐水县轩雅食品有限公司计量点,格润工贸有限公司,小刘庄3号【纯农排变】,西白亭4号【纯农排变】,北楼13号,东白亭2号,南庞村面粉厂,大刘庄8号,西白亭2号,大刘庄砖厂2号,西白亭10号,大刘庄7号,大刘庄4号【纯农排变】,刘大庆,西白亭7号,东白亭5号【纯农排变】,东白亭9号【纯农排变】,西白亭13号,西白亭6号,大刘庄12号,徐水县华帅包装制品厂2号,南庞4号,曹庄1号,漕河中心小学,盛园护具厂,大刘庄果园,东白亭8号【纯农排变】,徐水县乔森机械制造有限公司,南庞10号,曹庄4号,南庞14号,小刘庄4号,东白亭3号【纯农排变】,大刘庄10号,南庞15号,徐水鑫林塑管有限公司,南庞16号,西白亭面粉厂,东白亭11号,北楼5号,北楼8号【纯农排变】,南庞2号,小刘庄1号,南庞7号,保定桑德水处理有限公司,","scope":"【影响街道/乡镇】漕河镇 【高危重要客户】无 【影响客户】大刘庄村、西白亭村、南庞村、东白亭村、曹庄村、小刘庄村、北楼村","startTime":"2018-05-31 13:12:41","stopDate":"2018-05-31 23:00:00","orgNo":"1340605","typeCode":"电网故障停限电","poweroffArea":"【全线路停电】停徐水县轩雅食品有限公司计量点,大刘庄果园,西白亭10号,西白亭6号,南庞1号【纯农排变】,供电所8号,西白亭11号【纯农排变】,东白亭10号,东白亭12号,北庞8号,南庞5号,西白亭3号【纯农排变】,大刘庄7号,西白亭7号,西白亭12号,东白亭7号【纯农排变】,西白亭4号【纯农排变】,南庞12号,大刘庄1号【纯农排变】,南庞14号,东白亭6号【纯农排变】,南庞13号,大刘庄4号【纯农排变】,西白亭9号,西白亭2号,保定立辉玻璃有限公司,曹庄1号,大刘庄3号,徐水县华通水泥制品有限公司,小刘庄3号【纯农排变】,保定桑德水处理有限公司,南庞11号,东白亭1号【纯农排变】,小刘庄冰棍房,小刘庄4号,东白亭8号【纯农排变】,南庞4号,南庞3号【纯农排变】,盛园护具厂,大刘庄12号,徐水鑫林塑管有限公司,南庞10号,南庞村面粉厂,东白亭11号,西白亭8号,北楼5号,大刘庄13号,南庞16号,大刘庄6号【纯农排变】,大刘庄8号,南庞6号,西白亭13号,北庞5号【纯农排变】,曹庄3号【纯农排变】,大刘庄10号,东白亭2号,南庞8号【纯农排变】,南庞15号,东白亭5号【纯农排变】,小刘庄5号,东白亭3号【纯农排变】,小刘庄6号,大刘庄砖厂2号,大刘庄9号,大刘庄砖厂1号,南庞7号,小刘庄面粉厂,徐水县祥光工业用呢厂,徐水县乔森机械制造有限公司,刘大庆,小刘庄1号,南庞9号,北楼13号,漕河中心小学,西白亭5号,西白亭14号,保定市强固建筑材料制造有限公司,东白亭9号【纯农排变】,曹庄4号,西白亭1号,大刘庄5号,小刘庄2号【纯农排变】,大刘庄2号【纯农排变】,北楼8号【纯农排变】,南庞2号,曹庄2号,格润工贸有限公司,西白亭面粉厂,徐水县华帅包装制品厂2号,大刘庄11号,东白亭鱼塘","poweroffReason":"【停电原因】由于Ｂ相接地导致１１０ＫＶ田西良变电站南庞线５８９线路全线停电 【变更送电】无 【发布渠道】通过９５５９８发布","powerTime":"2018-05-31 14:31:56","powerComm":"已送电","subsNo":"","lineNo":"","tgNo":"","tgName":null,"infoStatus":"1","orgName":"国网徐水县供电公司","typeName":null,"infoStatusName":null,"dateDay":null,"orgNos":null,"nowTime":null,"countyName":null,"streetName":null,"villageName":null,"roadName":null,"communityName":null,"tranName":null,"sdLineName":null,"cityCode":"1340605","cityName":"国网徐水县供电公司","provinceCode":null,"stopTime":"2018-05-31 23:00:00","powerType":"全部","powerOffArea":"【全线路停电】停徐水县轩雅食品有限公司计量点,大刘庄果园,西白亭10号,西白亭6号,南庞1号【纯农排变】,供电所8号,西白亭11号【纯农排变】,东白亭10号,东白亭12号,北庞8号,南庞5号,西白亭3号【纯农排变】,大刘庄7号,西白亭7号,西白亭12号,东白亭7号【纯农排变】,西白亭4号【纯农排变】,南庞12号,大刘庄1号【纯农排变】,南庞14号,东白亭6号【纯农排变】,南庞13号,大刘庄4号【纯农排变】,西白亭9号,西白亭2号,保定立辉玻璃有限公司,曹庄1号,大刘庄3号,徐水县华通水泥制品有限公司,小刘庄3号【纯农排变】,保定桑德水处理有限公司,南庞11号,东白亭1号【纯农排变】,小刘庄冰棍房,小刘庄4号,东白亭8号【纯农排变】,南庞4号,南庞3号【纯农排变】,盛园护具厂,大刘庄12号,徐水鑫林塑管有限公司,南庞10号,南庞村面粉厂,东白亭11号,西白亭8号,北楼5号,大刘庄13号,南庞16号,大刘庄6号【纯农排变】,大刘庄8号,南庞6号,西白亭13号,北庞5号【纯农排变】,曹庄3号【纯农排变】,大刘庄10号,东白亭2号,南庞8号【纯农排变】,南庞15号,东白亭5号【纯农排变】,小刘庄5号,东白亭3号【纯农排变】,小刘庄6号,大刘庄砖厂2号,大刘庄9号,大刘庄砖厂1号,南庞7号,小刘庄面粉厂,徐水县祥光工业用呢厂,徐水县乔森机械制造有限公司,刘大庆,小刘庄1号,南庞9号,北楼13号,漕河中心小学,西白亭5号,西白亭14号,保定市强固建筑材料制造有限公司,东白亭9号【纯农排变】,曹庄4号,西白亭1号,大刘庄5号,小刘庄2号【纯农排变】,大刘庄2号【纯农排变】,北楼8号【纯农排变】,南庞2号,曹庄2号,格润工贸有限公司,西白亭面粉厂,徐水县华帅包装制品厂2号,大刘庄11号,东白亭鱼塘","powerOffReason":"【停电原因】由于Ｂ相接地导致１１０ＫＶ田西良变电站南庞线５８９线路全线停电 【变更送电】无 【发布渠道】通过９５５９８发布","powerOffId":"2018053113000239"},{"poweroffId":2018053113000238,"sgpoweroffId":null,"subsName":"","lineName":"10kV仕庄511线","pubTranName":"流霜农业1【纯农排变】,贾村农业1【纯农排变】,流双综合8台区,北仕庄农业2变压器,流双综合7台区,","scope":"【影响街道/乡镇】祁州镇 【高危重要客户】无 【影响客户】东张庄村、流双村、贾村、北仕庄村、马固村、南七公村、东王奇村、小中阳村","startTime":"2018-05-31 13:12:00","stopDate":"2018-05-31 15:20:00","orgNo":"1340606","typeCode":"电网故障停限电","poweroffArea":"【全线路停电】停贾村农业1【纯农排变】,流霜农业1【纯农排变】,北仕庄农业2变压器,流双综合7台区,流双综合8台区","poweroffReason":"【停电原因】由于站内开关掉闸导致１１０ＫＶ东河变电站１０ＫＶ仕庄５１１线路全线停电 【变更送电】因抢修进度加快原因，送电时间由１９：００变更为１５：２０ 【发布渠道】通过９５５９８发布","powerTime":"2018-05-31 15:20:00","powerComm":"已送电","subsNo":"","lineNo":"","tgNo":"","tgName":null,"infoStatus":"1","orgName":"国网安国市供电公司","typeName":null,"infoStatusName":null,"dateDay":null,"orgNos":null,"nowTime":null,"countyName":null,"streetName":null,"villageName":null,"roadName":null,"communityName":null,"tranName":null,"sdLineName":null,"cityCode":"1340606","cityName":"国网安国市供电公司","provinceCode":null,"stopTime":"2018-05-31 15:20:00","powerType":"全部","powerOffArea":"【全线路停电】停贾村农业1【纯农排变】,流霜农业1【纯农排变】,北仕庄农业2变压器,流双综合7台区,流双综合8台区","powerOffReason":"【停电原因】由于站内开关掉闸导致１１０ＫＶ东河变电站１０ＫＶ仕庄５１１线路全线停电 【变更送电】因抢修进度加快原因，送电时间由１９：００变更为１５：２０ 【发布渠道】通过９５５９８发布","powerOffId":"2018053113000238"},{"poweroffId":2018053113000236,"sgpoweroffId":null,"subsName":"","lineName":"保安庄539","pubTranName":"保安庄877煤增,","scope":"【影响街道/乡镇】向阳乡 【高危重要客户】无 【影响客户】保安庄","startTime":"2018-05-31 13:05:38","stopDate":"2018-05-31 15:30:00","orgNo":"1340626","typeCode":"电网故障停限电","poweroffArea":"【单台区停电】停保安庄877煤增","poweroffReason":"【停电原因】由于低压线路断线导致２２０ＫＶ党庄变电站保安庄５３９线路保安庄８７７煤增公变台区停电 【变更送电】因抢修进度加快原因，送电时间由１９：００变更为１５：３０ 【发布渠道】通过９５５９８发布","powerTime":"2018-05-31 15:08:32","powerComm":"恢复送电","subsNo":"","lineNo":"","tgNo":"","tgName":null,"infoStatus":"1","orgName":"国网涿州市供电公司","typeName":null,"infoStatusName":null,"dateDay":null,"orgNos":null,"nowTime":null,"countyName":null,"streetName":null,"villageName":null,"roadName":null,"communityName":null,"tranName":null,"sdLineName":null,"cityCode":"1340626","cityName":"国网涿州市供电公司","provinceCode":null,"stopTime":"2018-05-31 15:30:00","powerType":"全部","powerOffArea":"【单台区停电】停保安庄877煤增","powerOffReason":"【停电原因】由于低压线路断线导致２２０ＫＶ党庄变电站保安庄５３９线路保安庄８７７煤增公变台区停电 【变更送电】因抢修进度加快原因，送电时间由１９：００变更为１５：３０ 【发布渠道】通过９５５９８发布","powerOffId":"2018053113000236"},{"poweroffId":2018053113000219,"sgpoweroffId":null,"subsName":"","lineName":"10kV备用540间隔","pubTranName":"清苑县宏利锚链厂,东吕东威工具公司,清苑县双业起重机械有限公司,佳力起重,上海轶鹰起重机械有限公司清苑分公司,东吕四街野外,0617341523-河北诺友起重机械制造有限公司-专变-128614809-河北诺友起重机械制造有限公司,河北宇雕起重设备有限公司,清苑县凯利特起重机械厂,东吕东四,东吕畜牧场,0387489896-清苑县鑫力起重索具制造厂-专变-45315538-清苑县鑫力起重索具制造厂,上海轶鹰机械有限公司清苑分公司,东吕四街村西南,清苑县东广起重配件厂,清苑县世友起重机械厂,东吕四街内2,东吕三街村西,东吕杨华池配件加工,东吕张国林配件加工,东吕西二,东吕张彦京配件加工,东吕三街内2,河北双业起重机械有限公司,东吕四街野外新增,东吕翟志章配件加工,东吕寇建生配件加工,东吕杨恩占配件加工,东吕王志强配件加工,神雕起重,保定大力起重机械有限公司,清苑县联合起重机械厂,东吕四街内9,东吕一街野外,0556973793-东吕一街头村委会村西-专变-104865832-东吕一街村委会村西,杨继军,清苑县宇航起重机械制造有限公司,东吕西六,1东吕三街内5,东吕一街村委会东,河北恩派克起重液压机械有限公司,清苑县东吕月宽配件加工厂,1东吕三街内3,东吕付彦微配件加工,清苑县川岛起重机械制造有限公司,保定鼎力索具有限公司,东吕崔同芬配件加工,保定巨鹰起重机械制造有限公司,东吕西五,河北君达起重机械制造有限公司,东吕宋村道西,东吕杜成立配件加工,保定宇力起重机械制造有限公司,东吕杨蕴辉,东吕村西,保定京鸽起重机械制造有限公司,清苑县志发链条加工厂,河北佳帅起重机械制造有限公司,河北蒙德起重机械制造有限公司,1东吕四街内6,余粮配件加工,清苑县飞翔起重机械厂,河北神雕起重设备制造有限公司,","scope":"【影响街道/乡镇】东吕乡 【高危重要客户】无 【影响客户】东吕三街村、东吕四街村","startTime":"2018-05-31 12:23:43","stopDate":"2018-05-31 13:30:00","orgNo":"1340618","typeCode":"电网故障停限电","poweroffArea":"【全线路停电】停东吕杨恩占配件加工,东吕张彦京配件加工,神雕起重,保定宇力起重机械制造有限公司,河北君达起重机械制造有限公司,东吕付彦微配件加工,清苑县志发链条加工厂,0617341523-河北诺友起重机械制造有限公司-专变-128614809-河北诺友起重机械制造有限公司,东吕三街内2,东吕宋村道西,东吕杨蕴辉,清苑县川岛起重机械制造有限公司,清苑县凯利特起重机械厂,清苑县宏利锚链厂,河北双业起重机械有限公司,保定大力起重机械有限公司,保定鼎力索具有限公司,东吕东威工具公司,东吕杜成立配件加工,东吕四街野外新增,清苑县双业起重机械有限公司,东吕四街内9,东吕村西,东吕王志强配件加工,清苑县东广起重配件厂,清苑县联合起重机械厂,佳力起重,东吕四街村西南,河北神雕起重设备制造有限公司,东吕一街野外,1东吕四街内6,上海轶鹰起重机械有限公司清苑分公司,1东吕三街内5,0556973793-东吕一街头村委会村西-专变-104865832-东吕一街村委会村西,0387489896-清苑县鑫力起重索具制造厂-专变-45315538-清苑县鑫力起重索具制造厂,东吕三街村西,保定京鸽起重机械制造有限公司,余粮配件加工,河北宇雕起重设备有限公司,清苑县世友起重机械厂,东吕一街村委会东,河北佳帅起重机械制造有限公司,上海轶鹰机械有限公司清苑分公司,东吕杨华池配件加工,杨继军,清苑县飞翔起重机械厂,河北恩派克起重液压机械有限公司,东吕东四,东吕崔同芬配件加工,清苑县宇航起重机械制造有限公司,东吕翟志章配件加工,河北蒙德起重机械制造有限公司,东吕张国林配件加工,保定巨鹰起重机械制造有限公司,东吕四街野外,清苑县东吕月宽配件加工厂,东吕畜牧场,东吕寇建生配件加工,东吕西二,东吕西六,东吕西五,东吕四街内2,1东吕三街内3","poweroffReason":"【停电原因】由于主干５４号杆南Ｔ７号杆东吕四街野外配变烧毁导致１１０ＫＶ东闾变电站１０ＫＶ备用５４０间隔线路全线停电 【变更送电】因抢修进度加快原因，送电时间由１８：００变更为１３：３０ 【发布渠道】通过９５５９８发布","powerTime":"2018-05-31 13:02:40","powerComm":"薛鹏通知已送电","subsNo":"","lineNo":"","tgNo":"","tgName":null,"infoStatus":"1","orgName":"国网清苑县供电公司","typeName":null,"infoStatusName":null,"dateDay":null,"orgNos":null,"nowTime":null,"countyName":null,"streetName":null,"villageName":null,"roadName":null,"communityName":null,"tranName":null,"sdLineName":null,"cityCode":"1340618","cityName":"国网清苑县供电公司","provinceCode":null,"stopTime":"2018-05-31 13:30:00","powerType":"全部","powerOffArea":"【全线路停电】停东吕杨恩占配件加工,东吕张彦京配件加工,神雕起重,保定宇力起重机械制造有限公司,河北君达起重机械制造有限公司,东吕付彦微配件加工,清苑县志发链条加工厂,0617341523-河北诺友起重机械制造有限公司-专变-128614809-河北诺友起重机械制造有限公司,东吕三街内2,东吕宋村道西,东吕杨蕴辉,清苑县川岛起重机械制造有限公司,清苑县凯利特起重机械厂,清苑县宏利锚链厂,河北双业起重机械有限公司,保定大力起重机械有限公司,保定鼎力索具有限公司,东吕东威工具公司,东吕杜成立配件加工,东吕四街野外新增,清苑县双业起重机械有限公司,东吕四街内9,东吕村西,东吕王志强配件加工,清苑县东广起重配件厂,清苑县联合起重机械厂,佳力起重,东吕四街村西南,河北神雕起重设备制造有限公司,东吕一街野外,1东吕四街内6,上海轶鹰起重机械有限公司清苑分公司,1东吕三街内5,0556973793-东吕一街头村委会村西-专变-104865832-东吕一街村委会村西,0387489896-清苑县鑫力起重索具制造厂-专变-45315538-清苑县鑫力起重索具制造厂,东吕三街村西,保定京鸽起重机械制造有限公司,余粮配件加工,河北宇雕起重设备有限公司,清苑县世友起重机械厂,东吕一街村委会东,河北佳帅起重机械制造有限公司,上海轶鹰机械有限公司清苑分公司,东吕杨华池配件加工,杨继军,清苑县飞翔起重机械厂,河北恩派克起重液压机械有限公司,东吕东四,东吕崔同芬配件加工,清苑县宇航起重机械制造有限公司,东吕翟志章配件加工,河北蒙德起重机械制造有限公司,东吕张国林配件加工,保定巨鹰起重机械制造有限公司,东吕四街野外,清苑县东吕月宽配件加工厂,东吕畜牧场,东吕寇建生配件加工,东吕西二,东吕西六,东吕西五,东吕四街内2,1东吕三街内3","powerOffReason":"【停电原因】由于主干５４号杆南Ｔ７号杆东吕四街野外配变烧毁导致１１０ＫＶ东闾变电站１０ＫＶ备用５４０间隔线路全线停电 【变更送电】因抢修进度加快原因，送电时间由１８：００变更为１３：３０ 【发布渠道】通过９５５９８发布","powerOffId":"2018053113000219"},{"poweroffId":2018053113000213,"sgpoweroffId":null,"subsName":"","lineName":"板东线514","pubTranName":"板西8#公用,板西1＃公用,板西10#公用,板西12#公用,","scope":"【影响街道/乡镇】米家务镇 【高危重要客户】无 【影响客户】板西村","startTime":"2018-06-03 08:00:00","stopDate":"2018-06-03 16:00:00","orgNo":"1340624","typeCode":"临时停电","poweroffArea":"【分支停电】停板西10#公用,板西12#公用,板西8#公用,板西1＃公用","poweroffReason":"【停电原因】由于更换电缆导致３５ＫＶ板东变电站１０ＫＶ板东线５１４线路主干６４号杆刀闸动触头及以下线路分支停电 【变更送电】无 【发布渠道】通过９５５９８发布","powerTime":"2018-06-03 15:07:30","powerComm":"已送电","subsNo":"","lineNo":"","tgNo":"","tgName":null,"infoStatus":"1","orgName":"(原)国网雄县供电公司","typeName":null,"infoStatusName":null,"dateDay":null,"orgNos":null,"nowTime":null,"countyName":null,"streetName":null,"villageName":null,"roadName":null,"communityName":null,"tranName":null,"sdLineName":null,"cityCode":"1340624","cityName":"(原)国网雄县供电公司","provinceCode":null,"stopTime":"2018-06-03 16:00:00","powerType":"全部","powerOffArea":"【分支停电】停板西10#公用,板西12#公用,板西8#公用,板西1＃公用","powerOffReason":"【停电原因】由于更换电缆导致３５ＫＶ板东变电站１０ＫＶ板东线５１４线路主干６４号杆刀闸动触头及以下线路分支停电 【变更送电】无 【发布渠道】通过９５５９８发布","powerOffId":"2018053113000213"}],"pageModel":{"pageNow":1058,"totalCount":10973,"totalPage":1098,"tableRows":0,"pageCount":10,"beginCount":10570},"isExperi":"1"}