{"message":"","today":"2020-06-15","seleList":[{"poweroffId":2018053113000199,"sgpoweroffId":null,"subsName":"","lineName":"东关II线514","pubTranName":"东关新民居南,东关塑料编织袋,昌平路南2号配变,昌平路配变,东关鑫晶覆膜沙厂,望都博星学校,电力局东院,所药混合,东关新上【纯农排变】,木器厂配变,翠庭院配电变压器,大水泥家属院,所药内西2,昌平路北2号新上,昌兴家园配电变压器,东关幼儿园,文教局家属院,东关村东,东关村南混合,东关内东2,东关村南混3,望都县鑫源混凝圭搅拌有限公司,东关新民居北,变压器,东关大沟,所药社区1号,师馨家园2配电变压器,望都县教育局,昌平路2号变压器,中医院家属楼,东关村南,化肥家属院变压器,东关小学,机械厂南,师馨家园配电变压器,所药村西1|,化工家属院,所药村配变,中医院,人行联社院,望都县望都镇卫生院2,所药社区配电变压器,望都县望都镇卫生院,望都县鑫旺铝塑门窗厂,昌盛路灯,明仕苑小区,盛景园小区,所药新民居,","scope":"【影响街道/乡镇】望都镇、昌平路　 【高危重要客户】无　　 【影响客户】东关村、东关新民居、所药村、所药新民居、师馨家园、化肥家属院、化工家属院、大水泥家属院、木器厂、机械厂南、人行联社院、盛景园小区、电力局东院、翠庭院、文教局家属院、中医院家属楼、望都县鑫源混凝圭搅拌有限公司、名仕苑小区、中医院、文体中心楼、望都博星学校、华北泰兴护栏、东关鑫晶覆膜沙厂、钢山房地产开发有限公司、望都镇卫生院、县幼儿园、东关幼儿园","startTime":"2018-06-02 06:30:00","stopDate":"2018-06-02 23:00:00","orgNo":"1340623","typeCode":"临时停电","poweroffArea":"【全线路停电】停变压器,昌平路南2号配变,东关新民居南,望都县鑫旺铝塑门窗厂,东关大沟,所药村西1|,大水泥家属院,化工家属院,所药内西2,东关内东2,所药混合,望都县望都镇卫生院2,所药村配变,文教局家属院,昌平路北2号新上,所药社区配电变压器,中医院,东关村东,望都县望都镇卫生院,昌兴家园配电变压器,东关小学,东关村南混合,东关新上【纯农排变】,人行联社院,东关幼儿园,机械厂南,明仕苑小区,木器厂配变,望都县鑫源混凝圭搅拌有限公司,昌盛路灯,中医院家属楼,昌平路配变,望都县教育局,东关村南混3,师馨家园配电变压器,盛景园小区,翠庭院配电变压器,东关新民居北,所药新民居,东关鑫晶覆膜沙厂,昌平路2号变压器,望都博星学校,所药社区1号,东关村南,师馨家园2配电变压器,电力局东院,化肥家属院变压器,东关塑料编织袋","poweroffReason":"【停电原因】由于供电设备临时检修导致３５ＫＶ八里庄变电站东关ＩＩ线５１４线路全线停电 【变更送电】因工作量大，送电时间由２０：００变更为２３：００ 【发布渠道】通过９５５９８发布","powerTime":"2018-06-02 22:47:53","powerComm":"已送电","subsNo":"","lineNo":"","tgNo":"","tgName":null,"infoStatus":"1","orgName":"国网望都县供电公司","typeName":null,"infoStatusName":null,"dateDay":null,"orgNos":null,"nowTime":null,"countyName":null,"streetName":null,"villageName":null,"roadName":null,"communityName":null,"tranName":null,"sdLineName":null,"cityCode":"1340623","cityName":"国网望都县供电公司","provinceCode":null,"stopTime":"2018-06-02 23:00:00","powerType":"全部","powerOffArea":"【全线路停电】停变压器,昌平路南2号配变,东关新民居南,望都县鑫旺铝塑门窗厂,东关大沟,所药村西1|,大水泥家属院,化工家属院,所药内西2,东关内东2,所药混合,望都县望都镇卫生院2,所药村配变,文教局家属院,昌平路北2号新上,所药社区配电变压器,中医院,东关村东,望都县望都镇卫生院,昌兴家园配电变压器,东关小学,东关村南混合,东关新上【纯农排变】,人行联社院,东关幼儿园,机械厂南,明仕苑小区,木器厂配变,望都县鑫源混凝圭搅拌有限公司,昌盛路灯,中医院家属楼,昌平路配变,望都县教育局,东关村南混3,师馨家园配电变压器,盛景园小区,翠庭院配电变压器,东关新民居北,所药新民居,东关鑫晶覆膜沙厂,昌平路2号变压器,望都博星学校,所药社区1号,东关村南,师馨家园2配电变压器,电力局东院,化肥家属院变压器,东关塑料编织袋","powerOffReason":"【停电原因】由于供电设备临时检修导致３５ＫＶ八里庄变电站东关ＩＩ线５１４线路全线停电 【变更送电】因工作量大，送电时间由２０：００变更为２３：００ 【发布渠道】通过９５５９８发布","powerOffId":"2018053113000199"},{"poweroffId":2018053113000196,"sgpoweroffId":null,"subsName":"","lineName":"东关I线513","pubTranName":"保定鑫达铸造有限公司,机械厂北1号,电力局东【纯农排变】,保定鑫达铸造有限公司3,东关利民构件厂,保定鑫达铸造有限公司1,望都县鼎晶铸造材料有限公司,机械厂北,0469477724-华北泰兴护栏有限公司-专变-49912022-华北泰兴护栏有限公司,鑫源混凝土（2）,电力局北农业【纯农排变】,保定鑫达铸造有限公司2,东关鞋厂,河北巨象机械零部件制造有限公司,0556925521-河北省望都县通用工程机械轴瓦有限公司-专变-104104497-变压器,通用机械厂,通用轴瓦,","scope":"【影响街道/乡镇】望都镇　　 【高危重要客户】无　　 【影响客户】机械厂北、电力局东、天和祥鞋厂、东关利民构件厂、通用轴瓦、望都县鼎晶铸造材料有限公司、河北省望都县通用工程机械轴瓦有限公司、泰兴护栏、鑫达铸造、械厂南院、鑫源搅拌站","startTime":"2018-06-02 06:30:00","stopDate":"2018-06-02 23:00:00","orgNo":"1340623","typeCode":"临时停电","poweroffArea":"【全线路停电】停望都县鼎晶铸造材料有限公司,机械厂北,通用轴瓦,保定鑫达铸造有限公司1,保定鑫达铸造有限公司2,东关利民构件厂,通用机械厂,电力局北农业【纯农排变】,保定鑫达铸造有限公司3,保定鑫达铸造有限公司,鑫源混凝土（2）,电力局东【纯农排变】,东关鞋厂,机械厂北1号,0556925521-河北省望都县通用工程机械轴瓦有限公司-专变-104104497-变压器,0469477724-华北泰兴护栏有限公司-专变-49912022-华北泰兴护栏有限公司,河北巨象机械零部件制造有限公司","poweroffReason":"【停电原因】由于供电设备临时检修导致３５ＫＶ八里庄变电站东关Ｉ线５１３线路全线停电 【变更送电】因工作量大，送电时间由２０：００变更为２３：００ 【发布渠道】通过９５５９８发布","powerTime":"2018-06-02 22:47:30","powerComm":"已送电","subsNo":"","lineNo":"","tgNo":"","tgName":null,"infoStatus":"1","orgName":"国网望都县供电公司","typeName":null,"infoStatusName":null,"dateDay":null,"orgNos":null,"nowTime":null,"countyName":null,"streetName":null,"villageName":null,"roadName":null,"communityName":null,"tranName":null,"sdLineName":null,"cityCode":"1340623","cityName":"国网望都县供电公司","provinceCode":null,"stopTime":"2018-06-02 23:00:00","powerType":"全部","powerOffArea":"【全线路停电】停望都县鼎晶铸造材料有限公司,机械厂北,通用轴瓦,保定鑫达铸造有限公司1,保定鑫达铸造有限公司2,东关利民构件厂,通用机械厂,电力局北农业【纯农排变】,保定鑫达铸造有限公司3,保定鑫达铸造有限公司,鑫源混凝土（2）,电力局东【纯农排变】,东关鞋厂,机械厂北1号,0556925521-河北省望都县通用工程机械轴瓦有限公司-专变-104104497-变压器,0469477724-华北泰兴护栏有限公司-专变-49912022-华北泰兴护栏有限公司,河北巨象机械零部件制造有限公司","powerOffReason":"【停电原因】由于供电设备临时检修导致３５ＫＶ八里庄变电站东关Ｉ线５１３线路全线停电 【变更送电】因工作量大，送电时间由２０：００变更为２３：００ 【发布渠道】通过９５５９８发布","powerOffId":"2018053113000196"},{"poweroffId":2018053113000195,"sgpoweroffId":null,"subsName":"","lineName":"何家店线575","pubTranName":"十里铺6号,徐水镇中线材有限公司3号,山东营6号【纯农排变】,山东营3号【纯农排变】,山东营4号【纯农排变】,黄土岗5号【纯农排变】,十里铺村13号变台区,山东营11号,黄土岗3号,黄土岗7号,何家店4号,徐水镇中线材有限公司2号,十里铺7号,何家店8号,何家店村14号台区,山东营1号,十里铺村12号变台区,黄土岗6号,何家店村15号台区,黄土岗4号,何家店村13号台区,何家店村17号台区,山东营2号【纯农排变】,十里铺村17号变台区,变压器,黄土岗2号【纯农排变】,何家店10号,十里铺村18号变台区,黄土岗1号【纯农排变】,十里铺村19号变台区,徐水镇中线材有限公司1号,山东营9号,山东营5号,山东营砖厂,山东营7号【纯农排变】,青庙营9号,何家店6号,何家店11号,何家店1号,何家店村12号台区,徐水镇中线材有限公司4号,山东营10号,何家店村16号台区,山东营12号,山东营8号,","scope":"【影响街道/乡镇】留村乡、安肃镇 【高危重要客户】无 【影响客户】山东营、十里铺、黄土岗、青庙营、何家店","startTime":"2018-06-03 06:00:00","stopDate":"2018-06-03 20:00:00","orgNo":"1340605","typeCode":"临时停电","poweroffArea":"【全线路停电】停徐水镇中线材有限公司1号,山东营5号,山东营9号,山东营12号,十里铺6号,山东营11号,黄土岗1号【纯农排变】,山东营砖厂,徐水镇中线材有限公司3号,十里铺村18号变台区,十里铺村19号变台区,山东营7号【纯农排变】,山东营6号【纯农排变】,黄土岗3号,山东营3号【纯农排变】,青庙营9号,山东营4号【纯农排变】,何家店6号,何家店10号,黄土岗6号,黄土岗5号【纯农排变】,黄土岗7号,何家店村15号台区,何家店村12号台区,黄土岗4号,何家店村16号台区,何家店4号,何家店1号,何家店村13号台区,徐水镇中线材有限公司4号,徐水镇中线材有限公司2号,山东营10号,何家店村17号台区,十里铺7号,山东营2号【纯农排变】,十里铺村12号变台区,何家店8号,山东营1号,十里铺村13号变台区,十里铺村17号变台区, 变压器,何家店村14号台区,黄土岗2号【纯农排变】,何家店11号,山东营8号","poweroffReason":"【停电原因】由于线路检修导致１１０ＫＶ何家店变电站何家店５７５线路全线停电 【变更送电】无 【发布渠道】通过９５５９８发布","powerTime":"2018-06-03 19:56:11","powerComm":"已送电","subsNo":"","lineNo":"","tgNo":"","tgName":null,"infoStatus":"1","orgName":"国网徐水县供电公司","typeName":null,"infoStatusName":null,"dateDay":null,"orgNos":null,"nowTime":null,"countyName":null,"streetName":null,"villageName":null,"roadName":null,"communityName":null,"tranName":null,"sdLineName":null,"cityCode":"1340605","cityName":"国网徐水县供电公司","provinceCode":null,"stopTime":"2018-06-03 20:00:00","powerType":"全部","powerOffArea":"【全线路停电】停徐水镇中线材有限公司1号,山东营5号,山东营9号,山东营12号,十里铺6号,山东营11号,黄土岗1号【纯农排变】,山东营砖厂,徐水镇中线材有限公司3号,十里铺村18号变台区,十里铺村19号变台区,山东营7号【纯农排变】,山东营6号【纯农排变】,黄土岗3号,山东营3号【纯农排变】,青庙营9号,山东营4号【纯农排变】,何家店6号,何家店10号,黄土岗6号,黄土岗5号【纯农排变】,黄土岗7号,何家店村15号台区,何家店村12号台区,黄土岗4号,何家店村16号台区,何家店4号,何家店1号,何家店村13号台区,徐水镇中线材有限公司4号,徐水镇中线材有限公司2号,山东营10号,何家店村17号台区,十里铺7号,山东营2号【纯农排变】,十里铺村12号变台区,何家店8号,山东营1号,十里铺村13号变台区,十里铺村17号变台区, 变压器,何家店村14号台区,黄土岗2号【纯农排变】,何家店11号,山东营8号","powerOffReason":"【停电原因】由于线路检修导致１１０ＫＶ何家店变电站何家店５７５线路全线停电 【变更送电】无 【发布渠道】通过９５５９８发布","powerOffId":"2018053113000195"},{"poweroffId":2018053113000183,"sgpoweroffId":null,"subsName":"","lineName":"金家庄线516","pubTranName":"北豹泉变压器4,东豹泉村10#,北豹泉村1,西豹泉村4#,西豹泉变压器3#,西豹泉变压器1,西豹泉变压器5#,东豹泉村1#,北豹泉变压器6,北豹泉变压器2,东豹泉村7#,金家庄变压器4,金家庄机井变压器3,东豹泉11号变,金家庄8号变,金家庄9号变,南豹泉村2#,东豹泉村5#【纯农排变】,东豹泉村2#,东豹泉变压器9,金家庄变压器1,金家庄变压器2,金家庄变压器6,北豹泉7号变,东豹泉12号变,西豹泉6号变压器,北豹泉变压器3,东豹泉机井变压器6,南豹泉村4#【纯农排变】,南豹泉变压器6,西豹泉变压器5,金家庄7号变压器,","scope":"【影响街道/乡镇】白马乡 【高危重要客户】无 【影响客户】东豹泉村、西豹泉村、南豹泉村、北豹泉村、金家庄村","startTime":"2018-06-01 05:00:00","stopDate":"2018-06-01 09:00:00","orgNo":"1340625","typeCode":"其他临时停电","poweroffArea":"【分支停电】停东豹泉村10#,北豹泉变压器3,北豹泉村1,北豹泉变压器4,北豹泉变压器6,东豹泉机井变压器6,北豹泉变压器2,东豹泉村5#【纯农排变】,东豹泉村1#,东豹泉村2#,东豹泉变压器9,金家庄变压器1,东豹泉村7#,金家庄变压器2,金家庄变压器4,金家庄变压器6,金家庄机井变压器3,北豹泉7号变,东豹泉11号变,东豹泉12号变,金家庄8号变,金家庄9号变,西豹泉6号变压器,南豹泉村2#,南豹泉村4#【纯农排变】,南豹泉变压器6,西豹泉变压器1,西豹泉变压器5,西豹泉变压器5#,西豹泉村4#,西豹泉变压器3#,金家庄7号变压器","poweroffReason":"【停电原因】由于线路紧急消缺导致３５ＫＶ李家坟变电站金家庄５１６线路００４号杆至００７号杆停电 【变更送电】无 【发布渠道】通过９５５９８发布","powerTime":"2018-06-01 08:27:57","powerComm":"已送电","subsNo":"","lineNo":"","tgNo":"","tgName":null,"infoStatus":"1","orgName":"国网易县供电公司","typeName":null,"infoStatusName":null,"dateDay":null,"orgNos":null,"nowTime":null,"countyName":null,"streetName":null,"villageName":null,"roadName":null,"communityName":null,"tranName":null,"sdLineName":null,"cityCode":"1340625","cityName":"国网易县供电公司","provinceCode":null,"stopTime":"2018-06-01 09:00:00","powerType":"全部","powerOffArea":"【分支停电】停东豹泉村10#,北豹泉变压器3,北豹泉村1,北豹泉变压器4,北豹泉变压器6,东豹泉机井变压器6,北豹泉变压器2,东豹泉村5#【纯农排变】,东豹泉村1#,东豹泉村2#,东豹泉变压器9,金家庄变压器1,东豹泉村7#,金家庄变压器2,金家庄变压器4,金家庄变压器6,金家庄机井变压器3,北豹泉7号变,东豹泉11号变,东豹泉12号变,金家庄8号变,金家庄9号变,西豹泉6号变压器,南豹泉村2#,南豹泉村4#【纯农排变】,南豹泉变压器6,西豹泉变压器1,西豹泉变压器5,西豹泉变压器5#,西豹泉村4#,西豹泉变压器3#,金家庄7号变压器","powerOffReason":"【停电原因】由于线路紧急消缺导致３５ＫＶ李家坟变电站金家庄５１６线路００４号杆至００７号杆停电 【变更送电】无 【发布渠道】通过９５５９８发布","powerOffId":"2018053113000183"},{"poweroffId":2018053113000161,"sgpoweroffId":null,"subsName":"","lineName":"城内520线","pubTranName":"厂东关村3#,","scope":"【影响街道/乡镇】易州镇 【高危重要客户】无 【影响客户】厂东关村","startTime":"2018-06-05 02:00:00","stopDate":"2018-06-05 05:00:00","orgNo":"1340625","typeCode":"临时停电","poweroffArea":"【单台区停电】停厂东关村3#","poweroffReason":"【停电原因】由于保定市蕴鑫房地产开发有限公司变压器新增工程导致１１０ＫＶ易县变电站城内５２０线路厂东关３＃公变台区停电 【变更送电】无 【发布渠道】通过９５５９８发布","powerTime":"2018-06-05 04:55:23","powerComm":"已送电","subsNo":"","lineNo":"","tgNo":"","tgName":null,"infoStatus":"1","orgName":"国网易县供电公司","typeName":null,"infoStatusName":null,"dateDay":null,"orgNos":null,"nowTime":null,"countyName":null,"streetName":null,"villageName":null,"roadName":null,"communityName":null,"tranName":null,"sdLineName":null,"cityCode":"1340625","cityName":"国网易县供电公司","provinceCode":null,"stopTime":"2018-06-05 05:00:00","powerType":"全部","powerOffArea":"【单台区停电】停厂东关村3#","powerOffReason":"【停电原因】由于保定市蕴鑫房地产开发有限公司变压器新增工程导致１１０ＫＶ易县变电站城内５２０线路厂东关３＃公变台区停电 【变更送电】无 【发布渠道】通过９５５９８发布","powerOffId":"2018053113000161"},{"poweroffId":2018053113000148,"sgpoweroffId":null,"subsName":"","lineName":"10kV大阳站535线路","pubTranName":"C126柱上变压器,","scope":"【影响街道/乡镇】杨庄乡 【高危重要客户】无 【影响客户】下闸村","startTime":"2018-06-06 06:00:00","stopDate":"2018-06-06 17:30:00","orgNo":"13406","typeCode":"临时停电","poweroffArea":"【单台区停电】停C126柱上变压器","poweroffReason":"【停电原因】由于更换线杆、更换导线导致１０ＫＶ大阳变电站５３５线路Ｃ１２６公变台区停电【变更送电】无【发布渠道】通过９５５９８发布","powerTime":"2018-06-06 17:25:09","powerComm":"已送电","subsNo":"","lineNo":"","tgNo":"","tgName":null,"infoStatus":"1","orgName":"保定供电公司","typeName":null,"infoStatusName":null,"dateDay":null,"orgNos":null,"nowTime":null,"countyName":null,"streetName":null,"villageName":null,"roadName":null,"communityName":null,"tranName":null,"sdLineName":null,"cityCode":"13406","cityName":"保定供电公司","provinceCode":null,"stopTime":"2018-06-06 17:30:00","powerType":"全部","powerOffArea":"【单台区停电】停C126柱上变压器","powerOffReason":"【停电原因】由于更换线杆、更换导线导致１０ＫＶ大阳变电站５３５线路Ｃ１２６公变台区停电【变更送电】无【发布渠道】通过９５５９８发布","powerOffId":"2018053113000148"},{"poweroffId":2018053113000145,"sgpoweroffId":null,"subsName":"","lineName":"旅游线515","pubTranName":"西街幼儿园,西城根,人保家园南区,","scope":"【影响街道/乡镇】安新镇 【高危重要客户】无 【影响客户】人保家园南区、艺术幼儿园、西城根","startTime":"2018-06-03 00:00:00","stopDate":"2018-06-03 09:00:00","orgNo":"1340607","typeCode":"临时停电","poweroffArea":"【分支停电】停西街幼儿园,西城根,人保家园南区","poweroffReason":"【停电原因】由于更换配变、更换电杆导致１１０ＫＶ新安变电站旅游线５１５线路３５分支０１０号杆开关以下线路停电 【变更送电】无 【发布渠道】通过９５５９８发布","powerTime":"2018-06-03 08:53:08","powerComm":"已送电","subsNo":"","lineNo":"","tgNo":"","tgName":null,"infoStatus":"1","orgName":"(原)国网安新县供电公司","typeName":null,"infoStatusName":null,"dateDay":null,"orgNos":null,"nowTime":null,"countyName":null,"streetName":null,"villageName":null,"roadName":null,"communityName":null,"tranName":null,"sdLineName":null,"cityCode":"1340607","cityName":"(原)国网安新县供电公司","provinceCode":null,"stopTime":"2018-06-03 09:00:00","powerType":"全部","powerOffArea":"【分支停电】停西街幼儿园,西城根,人保家园南区","powerOffReason":"【停电原因】由于更换配变、更换电杆导致１１０ＫＶ新安变电站旅游线５１５线路３５分支０１０号杆开关以下线路停电 【变更送电】无 【发布渠道】通过９５５９８发布","powerOffId":"2018053113000145"},{"poweroffId":2018053113000144,"sgpoweroffId":null,"subsName":"","lineName":"10kV花庄站524线路","pubTranName":"C389柱上变压器,","scope":"【影响街道/乡镇】韩村乡 【高危重要客户】无 【影响客户】沈庄村","startTime":"2018-06-05 08:00:00","stopDate":"2018-06-05 11:00:00","orgNo":"13406","typeCode":"临时停电","poweroffArea":"【单台区停电】停C389柱上变压器","poweroffReason":"【停电原因】由于更改偏担导致１０ＫＶ花庄变电站５２４线路Ｃ３８９公变台区停电【变更送电】无【发布渠道】通过９５５９８发布","powerTime":"2018-06-05 10:58:45","powerComm":"已送电","subsNo":"","lineNo":"","tgNo":"","tgName":null,"infoStatus":"1","orgName":"保定供电公司","typeName":null,"infoStatusName":null,"dateDay":null,"orgNos":null,"nowTime":null,"countyName":null,"streetName":null,"villageName":null,"roadName":null,"communityName":null,"tranName":null,"sdLineName":null,"cityCode":"13406","cityName":"保定供电公司","provinceCode":null,"stopTime":"2018-06-05 11:00:00","powerType":"全部","powerOffArea":"【单台区停电】停C389柱上变压器","powerOffReason":"【停电原因】由于更改偏担导致１０ＫＶ花庄变电站５２４线路Ｃ３８９公变台区停电【变更送电】无【发布渠道】通过９５５９８发布","powerOffId":"2018053113000144"},{"poweroffId":2018053113000142,"sgpoweroffId":null,"subsName":"","lineName":"北圆线514","pubTranName":"安新县正鑫有色金属熔炼有限公司（预）,安新县正鑫有色金属熔炼有限公司,南地一台区,南地十一台区,南地二台区,南地九台区,北圆有色金属公司（250）,安新县众力有色金属制造有限公司,北圆有色金属公司（630）,南地十台区,北圆有色金属公司（50）,南地四台区,南地五台区,南地三台区,0387374057-大鹏有色金属熔炼公司-专变-45242326-大鹏有色金属熔炼公司,北地小学混用八台区,安新县金桥有色金属熔炼有限公司400KVA,","scope":"【影响街道/乡镇】老河头镇 【高危重要客户】无 【影响客户】南地、北圆铜厂","startTime":"2018-06-03 00:00:00","stopDate":"2018-06-03 07:00:00","orgNo":"1340607","typeCode":"临时停电","poweroffArea":"【全线路停电】停北圆有色金属公司（630）,南地一台区,南地十台区,北圆有色金属公司（50）,南地九台区,南地四台区,南地五台区,北圆有色金属公司（250）,南地三台区,南地二台区,南地十一台区,安新县众力有色金属制造有限公司,安新县金桥有色金属熔炼有限公司400KVA,0387374057-大鹏有色金属熔炼公司-专变-45242326-大鹏有色金属熔炼公司,北地小学混用八台区,安新县正鑫有色金属熔炼有限公司,安新县正鑫有色金属熔炼有限公司（预）","poweroffReason":"【停电原因】由于更换配变、更换电杆导致３５ＫＶ西地变电站北圆线５１４线路全线停电 【变更送电】无 【发布渠道】通过９５５９８发布","powerTime":"2018-06-03 06:54:23","powerComm":"已送电","subsNo":"","lineNo":"","tgNo":"","tgName":null,"infoStatus":"1","orgName":"(原)国网安新县供电公司","typeName":null,"infoStatusName":null,"dateDay":null,"orgNos":null,"nowTime":null,"countyName":null,"streetName":null,"villageName":null,"roadName":null,"communityName":null,"tranName":null,"sdLineName":null,"cityCode":"1340607","cityName":"(原)国网安新县供电公司","provinceCode":null,"stopTime":"2018-06-03 07:00:00","powerType":"全部","powerOffArea":"【全线路停电】停北圆有色金属公司（630）,南地一台区,南地十台区,北圆有色金属公司（50）,南地九台区,南地四台区,南地五台区,北圆有色金属公司（250）,南地三台区,南地二台区,南地十一台区,安新县众力有色金属制造有限公司,安新县金桥有色金属熔炼有限公司400KVA,0387374057-大鹏有色金属熔炼公司-专变-45242326-大鹏有色金属熔炼公司,北地小学混用八台区,安新县正鑫有色金属熔炼有限公司,安新县正鑫有色金属熔炼有限公司（预）","powerOffReason":"【停电原因】由于更换配变、更换电杆导致３５ＫＶ西地变电站北圆线５１４线路全线停电 【变更送电】无 【发布渠道】通过９５５９８发布","powerOffId":"2018053113000142"},{"poweroffId":2018053113000138,"sgpoweroffId":null,"subsName":"","lineName":"将台东线519","pubTranName":"邢村2号,邢村5号公用,邢村1号水利,邢村6号公用,旅游路3#公用,邢村4号公用,将台路2号公用,邢村2号水利,邢村1号公用,旅游路1号公用,将台路7号公用,将台路1号公用,将台路4号公用,","scope":"【影响街道/乡镇】将台路、旅游路、雄州镇 【高危重要客户】无 【影响客户】将台路附近居民及沿街商户、旅游路附近居民及沿街商户、邢村","startTime":"2018-06-12 13:30:00","stopDate":"2018-06-12 20:30:00","orgNo":"1340624","typeCode":"计划停电","poweroffArea":"【全线路停电】停将台路7号公用,将台路1号公用,邢村6号公用,将台路2号公用,旅游路1号公用,旅游路3#公用,将台路4号公用,邢村2号水利,邢村1号水利,邢村1号公用,邢村2号,邢村4号公用,邢村5号公用","poweroffReason":"【停电原因】由于１号主变保护装置、改定值导致３５ＫＶ城北变电站将台东线５１９线路全线停电 【变更送电】因工作进度加快原因，送电时间由２２：００变更为:２０：３０ 【发布渠道】保定市雄县电视台（０６月０４日１９时至２１时之间）媒体播报","powerTime":"2018-06-12 20:01:45","powerComm":"已送电","subsNo":"","lineNo":"","tgNo":"","tgName":null,"infoStatus":"1","orgName":"(原)国网雄县供电公司","typeName":null,"infoStatusName":null,"dateDay":null,"orgNos":null,"nowTime":null,"countyName":null,"streetName":null,"villageName":null,"roadName":null,"communityName":null,"tranName":null,"sdLineName":null,"cityCode":"1340624","cityName":"(原)国网雄县供电公司","provinceCode":null,"stopTime":"2018-06-12 20:30:00","powerType":"全部","powerOffArea":"【全线路停电】停将台路7号公用,将台路1号公用,邢村6号公用,将台路2号公用,旅游路1号公用,旅游路3#公用,将台路4号公用,邢村2号水利,邢村1号水利,邢村1号公用,邢村2号,邢村4号公用,邢村5号公用","powerOffReason":"【停电原因】由于１号主变保护装置、改定值导致３５ＫＶ城北变电站将台东线５１９线路全线停电 【变更送电】因工作进度加快原因，送电时间由２２：００变更为:２０：３０ 【发布渠道】保定市雄县电视台（０６月０４日１９时至２１时之间）媒体播报","powerOffId":"2018053113000138"}],"pageModel":{"pageNow":1059,"totalCount":10973,"totalPage":1098,"tableRows":0,"pageCount":10,"beginCount":10580},"isExperi":"1"}