{"message":"","today":"2020-06-15","seleList":[{"poweroffId":2018053013000189,"sgpoweroffId":null,"subsName":"","lineName":"10kV黄台567线","pubTranName":"保定恒锐商品混凝土有限公司,黄台综合2号变压器,北都农业13号变压器【纯农排变】,马庄综1变压器,马庄综合3号变压器,富强奶牛养殖场,黄台农业1号变压器【纯农排变】,黄台南农业变压器【纯农排变】,黄台农业7号变压器【纯农排变】,北都农业8号变压器【纯农排变】,黄台综合8号,马庄农4变压器【纯农排变】,黄台农业5号变压器【纯农排变】,黄台综合5号变压器,北都综合1号变压器,北都农业9号变压器,黄台农业9柱上变压器【纯农排变】,马庄农业11号【纯农排变】,黄台综合6号变压器,马庄农9台区柱上变压器【纯农排变】,黄台农业17号变压器【纯农排变】,黄台农业2号变压器【纯农排变】,北都农业5台区变压器【纯农排变】,马庄农2变压器【纯农排变】,北都农业3号变压器【纯农排变】,北都农业7号变压器【纯农排变】,黄台农业3号变压器【纯农排变】,黄台农业16号,北都农业25号变压器,北都农业2号变压器,马庄农6变压器【纯农排变】,边三庄农业4号【纯农排变】,马庄综合6柱上变压器,北都农业11号变压器【纯农排变】,黄台综合4号变压器,边三庄农11变压器【纯农排变】,马庄农1变压器【纯农排变】,黄台农业4号变压器【纯农排变】,马庄综合2号,北都综合11号,北都综合8号,北都综合23号变压器,马庄综合4号,黄台农业15号变压器【纯农排变】,北都农业15号变压器【纯农排变】,北都农业12号变压器【纯农排变】,北都综合21号变压器,北都综合4号变压器,北都农业16号【纯农排变】,边三庄农5变压器【纯农排变】,黄台学校边综合变压器,北都综合9号,黄台农业8号【纯农排变】,北都综合6号变压器,北都农业十七住上变压器【纯农排变】,北都农业5号变压器【纯农排变】,北段农业1变压器,北都综合10号,0387362917-黄台面粉厂-专变-45236607-黄台面粉厂,边三庄农业6台区柱上变压器【纯农排变】,马庄农3变压器【纯农排变】,马庄农5变压器【纯农排变】,北都综合5号变压器,北都综合2号,黄台农业6号变压器【纯农排变】,北都综合3号变压器,黄台板厂,北都农业1号变压器【纯农排变】,北都农业10号变压器【纯农排变】,马庄农业10号【纯农排变】,北都农业24号变压器【纯农排变】,黄台综合3号变压器,南段农业6变压器【纯农排变】,马庄综合5号,黄台综合1台区变压器,北都农业新增变压器柱上变压器【纯农排变】,边三庄农10变压器【纯农排变】,黄台综合7号变压器,黄台综合14号变压器,北都综合变压器,","scope":"【影响街道/乡镇】北段村乡 【高危重要客户】无 【影响客户】马庄村、北都村、黄台村、康达气雾剂厂","startTime":"2018-06-09 05:00:00","stopDate":"2018-06-09 20:30:00","orgNo":"1340606","typeCode":"计划停电","poweroffArea":"【全线路停电】停北都农业15号变压器【纯农排变】,北都农业5台区变压器【纯农排变】,马庄农5变压器【纯农排变】,南段农业6变压器【纯农排变】,黄台农业7号变压器【纯农排变】,北都综合8号,北都综合9号,黄台学校边综合变压器,北段农业1变压器,马庄农业11号【纯农排变】,北都综合23号变压器,北都农业8号变压器【纯农排变】,边三庄农业4号【纯农排变】,马庄综合3号变压器,北都农业12号变压器【纯农排变】,北都农业9号变压器,马庄农9台区柱上变压器【纯农排变】,北都农业24号变压器【纯农排变】,黄台南农业变压器【纯农排变】,北都农业10号变压器【纯农排变】,黄台综合4号变压器,马庄综合5号,北都农业1号变压器【纯农排变】,黄台农业6号变压器【纯农排变】,马庄综合4号,富强奶牛养殖场,马庄农2变压器【纯农排变】,北都农业十七住上变压器【纯农排变】,黄台综合5号变压器,北都综合6号变压器,黄台农业2号变压器【纯农排变】,北都综合10号,马庄综合2号,马庄农4变压器【纯农排变】,北都综合变压器,黄台农业9柱上变压器【纯农排变】,黄台综合1台区变压器,边三庄农5变压器【纯农排变】,北都农业5号变压器【纯农排变】,黄台农业1号变压器【纯农排变】,黄台综合8号,马庄综1变压器,北都农业3号变压器【纯农排变】,黄台农业5号变压器【纯农排变】,边三庄农10变压器【纯农排变】,北都综合1号变压器,北都综合3号变压器,黄台农业4号变压器【纯农排变】,北都综合11号,0387362917-黄台面粉厂-专变-45236607-黄台面粉厂,北都农业2号变压器,黄台综合3号变压器,北都农业16号【纯农排变】,北都综合21号变压器,保定恒锐商品混凝土有限公司,黄台农业15号变压器【纯农排变】,北都综合2号,边三庄农11变压器【纯农排变】,北都综合5号变压器,黄台农业8号【纯农排变】,马庄农业10号【纯农排变】,黄台综合14号变压器,北都农业11号变压器【纯农排变】,马庄农1变压器【纯农排变】,北都综合4号变压器,马庄农6变压器【纯农排变】,北都农业7号变压器【纯农排变】,北都农业13号变压器【纯农排变】,黄台综合2号变压器,黄台综合7号变压器,北都农业25号变压器,马庄综合6柱上变压器,黄台板厂,黄台农业17号变压器【纯农排变】,黄台综合6号变压器,黄台农业16号,黄台农业3号变压器【纯农排变】,边三庄农业6台区柱上变压器【纯农排变】,北都农业新增变压器柱上变压器【纯农排变】,马庄农3变压器【纯农排变】","poweroffReason":"【停电原因】由于线路迁改，更换变台导致１１０ＫＶ孝义变电站１０ＫＶ黄台５６７线路全线停电 【变更送电】无 【发布渠道】保定市安国电视台（６月１日００时至２４时之间）屏幕上方滚动","powerTime":"2018-06-09 19:53:16","powerComm":"已送电","subsNo":"","lineNo":"","tgNo":"","tgName":null,"infoStatus":"1","orgName":"国网安国市供电公司","typeName":null,"infoStatusName":null,"dateDay":null,"orgNos":null,"nowTime":null,"countyName":null,"streetName":null,"villageName":null,"roadName":null,"communityName":null,"tranName":null,"sdLineName":null,"cityCode":"1340606","cityName":"国网安国市供电公司","provinceCode":null,"stopTime":"2018-06-09 20:30:00","powerType":"全部","powerOffArea":"【全线路停电】停北都农业15号变压器【纯农排变】,北都农业5台区变压器【纯农排变】,马庄农5变压器【纯农排变】,南段农业6变压器【纯农排变】,黄台农业7号变压器【纯农排变】,北都综合8号,北都综合9号,黄台学校边综合变压器,北段农业1变压器,马庄农业11号【纯农排变】,北都综合23号变压器,北都农业8号变压器【纯农排变】,边三庄农业4号【纯农排变】,马庄综合3号变压器,北都农业12号变压器【纯农排变】,北都农业9号变压器,马庄农9台区柱上变压器【纯农排变】,北都农业24号变压器【纯农排变】,黄台南农业变压器【纯农排变】,北都农业10号变压器【纯农排变】,黄台综合4号变压器,马庄综合5号,北都农业1号变压器【纯农排变】,黄台农业6号变压器【纯农排变】,马庄综合4号,富强奶牛养殖场,马庄农2变压器【纯农排变】,北都农业十七住上变压器【纯农排变】,黄台综合5号变压器,北都综合6号变压器,黄台农业2号变压器【纯农排变】,北都综合10号,马庄综合2号,马庄农4变压器【纯农排变】,北都综合变压器,黄台农业9柱上变压器【纯农排变】,黄台综合1台区变压器,边三庄农5变压器【纯农排变】,北都农业5号变压器【纯农排变】,黄台农业1号变压器【纯农排变】,黄台综合8号,马庄综1变压器,北都农业3号变压器【纯农排变】,黄台农业5号变压器【纯农排变】,边三庄农10变压器【纯农排变】,北都综合1号变压器,北都综合3号变压器,黄台农业4号变压器【纯农排变】,北都综合11号,0387362917-黄台面粉厂-专变-45236607-黄台面粉厂,北都农业2号变压器,黄台综合3号变压器,北都农业16号【纯农排变】,北都综合21号变压器,保定恒锐商品混凝土有限公司,黄台农业15号变压器【纯农排变】,北都综合2号,边三庄农11变压器【纯农排变】,北都综合5号变压器,黄台农业8号【纯农排变】,马庄农业10号【纯农排变】,黄台综合14号变压器,北都农业11号变压器【纯农排变】,马庄农1变压器【纯农排变】,北都综合4号变压器,马庄农6变压器【纯农排变】,北都农业7号变压器【纯农排变】,北都农业13号变压器【纯农排变】,黄台综合2号变压器,黄台综合7号变压器,北都农业25号变压器,马庄综合6柱上变压器,黄台板厂,黄台农业17号变压器【纯农排变】,黄台综合6号变压器,黄台农业16号,黄台农业3号变压器【纯农排变】,边三庄农业6台区柱上变压器【纯农排变】,北都农业新增变压器柱上变压器【纯农排变】,马庄农3变压器【纯农排变】","powerOffReason":"【停电原因】由于线路迁改，更换变台导致１１０ＫＶ孝义变电站１０ＫＶ黄台５６７线路全线停电 【变更送电】无 【发布渠道】保定市安国电视台（６月１日００时至２４时之间）屏幕上方滚动","powerOffId":"2018053013000189"},{"poweroffId":2018053013000142,"sgpoweroffId":null,"subsName":"","lineName":"河旺线512","pubTranName":"小赛高标准农田2号配变【纯农排变】,小赛万亩良田新增3【纯农排变】,沟河村南新增配变,河北德宇饲料科技有限公司,沟河村南配变,沟河庄高标准农田1号配变【纯农排变】,大河旺村内配变,王新国苗圃厂,方顺桥供电所,满城县球会家庭农场,大河旺高标准农田2号配变【纯农排变】,大河旺北【纯农排变】,大河旺机房配变,沟河庄村东2号配变【纯农排变】,大河旺C配变,高荆西北1号配变【纯农排变】,高荆西北2号【纯农排变】,大河旺A配变,小塞村内,农嘉禾科技有限公司,小赛村内台区配变,沟河村内配变,大河旺村西新增配变,满城县方顺桥乡小赛村委会,小赛高标准农田1号配变【纯农排变】,大河旺村南新【纯农排变】,沟河村东配变【纯农排变】,小赛东配变,高荆高标准农田1号【纯农排变】,小赛村西新增【纯农排变】,小塞1号,许村东新增配变【纯农排变】,小赛南配变,沟河村北【纯农排变】,沟河庄林厂,大河旺东南,大河旺村南,","scope":"【影响街道/乡镇】方顺桥乡 【高危重要客户】无 【影响客户】沟河庄、大河旺、小赛","startTime":"2018-06-01 07:00:00","stopDate":"2018-06-01 20:00:00","orgNo":"1340617","typeCode":"临时停电","poweroffArea":"【全线路停电】停大河旺村西新增配变,大河旺A配变,大河旺村南,河北德宇饲料科技有限公司,沟河村南配变,高荆西北2号【纯农排变】,小赛东配变,沟河庄林厂,许村东新增配变【纯农排变】,沟河庄村东2号配变【纯农排变】,满城县球会家庭农场,沟河村东配变【纯农排变】,大河旺村内配变,小赛南配变,方顺桥供电所,大河旺C配变,王新国苗圃厂,小赛高标准农田2号配变【纯农排变】,高荆西北1号配变【纯农排变】,小赛村内台区配变,小赛万亩良田新增3【纯农排变】,满城县方顺桥乡小赛村委会,沟河庄高标准农田1号配变【纯农排变】,沟河村北【纯农排变】,农嘉禾科技有限公司,大河旺北【纯农排变】,沟河村内配变,小塞1号,小赛高标准农田1号配变【纯农排变】,大河旺机房配变,大河旺高标准农田2号配变【纯农排变】,沟河村南新增配变,大河旺村南新【纯农排变】,小赛村西新增【纯农排变】,高荆高标准农田1号【纯农排变】,大河旺东南,小塞村内","poweroffReason":"【停电原因】由于线路检修导致３５ＫＶ方顺桥变电站河旺线５１２线路全线停电 【变更送电】无 【发布渠道】９５５９８","powerTime":"2018-06-01 19:54:56","powerComm":"已送电","subsNo":"","lineNo":"","tgNo":"","tgName":null,"infoStatus":"1","orgName":"国网满城县供电公司","typeName":null,"infoStatusName":null,"dateDay":null,"orgNos":null,"nowTime":null,"countyName":null,"streetName":null,"villageName":null,"roadName":null,"communityName":null,"tranName":null,"sdLineName":null,"cityCode":"1340617","cityName":"国网满城县供电公司","provinceCode":null,"stopTime":"2018-06-01 20:00:00","powerType":"全部","powerOffArea":"【全线路停电】停大河旺村西新增配变,大河旺A配变,大河旺村南,河北德宇饲料科技有限公司,沟河村南配变,高荆西北2号【纯农排变】,小赛东配变,沟河庄林厂,许村东新增配变【纯农排变】,沟河庄村东2号配变【纯农排变】,满城县球会家庭农场,沟河村东配变【纯农排变】,大河旺村内配变,小赛南配变,方顺桥供电所,大河旺C配变,王新国苗圃厂,小赛高标准农田2号配变【纯农排变】,高荆西北1号配变【纯农排变】,小赛村内台区配变,小赛万亩良田新增3【纯农排变】,满城县方顺桥乡小赛村委会,沟河庄高标准农田1号配变【纯农排变】,沟河村北【纯农排变】,农嘉禾科技有限公司,大河旺北【纯农排变】,沟河村内配变,小塞1号,小赛高标准农田1号配变【纯农排变】,大河旺机房配变,大河旺高标准农田2号配变【纯农排变】,沟河村南新增配变,大河旺村南新【纯农排变】,小赛村西新增【纯农排变】,高荆高标准农田1号【纯农排变】,大河旺东南,小塞村内","powerOffReason":"【停电原因】由于线路检修导致３５ＫＶ方顺桥变电站河旺线５１２线路全线停电 【变更送电】无 【发布渠道】９５５９８","powerOffId":"2018053013000142"},{"poweroffId":2018053013000119,"sgpoweroffId":null,"subsName":"","lineName":"三恩庄线513","pubTranName":"东方运输服务区,许村村北配变,三恩庄2号配变,许村高标准农田1号配变【纯农排变】,三恩庄1号,三恩庄大队配变,许村高标准农田2号配变【纯农排变】,东方顺高标准农田2号配变【纯农排变】,许村大坝3号配变【纯农排变】,孔村塑料厂,三恩庄4号配变【纯农排变】,许村河北（国成）配变【纯农排变】,恒兴塑料,许村大队配变,三恩庄10号配变,孔村南2号配变【纯农排变】,孔村大坝配变,许村南新增配变,三恩庄7号配变【纯农排变】,许村工业区,许村大坝2号配变,许村河南配变【纯农排变】,孔村面粉厂80KVA变压器,孔村高标准农田2号配变【纯农排变】,大河旺大坝配变,许村大坝1号配变,孔村高标准农田4号配变【纯农排变】,0548950733-河北省水利工程局白洋淀水渠工程施工项目部-专变-48208312-河北省水利工程局白洋淀补水渠工程施工项目部,孔村钢厂,0387479749-许村河北-专变-45307012-许村河北,孔村村南1号配变,许村东北配变,许村,伟鑫塑料厂,大河旺高标准农田1号配变【纯农排变】,三恩庄大坝配变【纯农排变】,三恩庄2号新增配变,三恩庄9号配变,三恩庄高标准农田1号配变【纯农排变】,孔村高标准农田3号【纯农排变】,孔村南1号配变【纯农排变】,孔村西200配变,许村村南配变,孔村占长配变,保定冀众水泥制品制造有限公司,孔村B配变,三恩庄新增,三恩庄8号配变【纯农排变】,孔村5号塑料厂,孔村高标准农田1号配变【纯农排变】,孔村村北配变,宏伟苗圃场200KVA配变,三恩庄5号配变【纯农排变】,许村村北1号配变,许村铸石厂,双合盛塑料厂,孔村5号配变,云风塑料厂,许村村东配变,孔村西北2号,孔村催站江,许村西配变,孔村北40配变,诚信塑料厂,孔村西南3号（远采）,孔村西【纯农排变】,孔村鸡厂,孔村南配变,东方顺高标准农田3号配变【纯农排变】,赵红伟,三恩庄3号,孔村路边配变,三恩庄6号配变【纯农排变】,","scope":"【影响街道/乡镇】方顺桥乡 【高危重要客户】无 【影响客户】孔村、许村、三恩庄","startTime":"2018-06-01 07:00:00","stopDate":"2018-06-01 20:00:00","orgNo":"1340617","typeCode":"临时停电","poweroffArea":"【全线路停电】停东方顺高标准农田3号配变【纯农排变】,许村东北配变,孔村高标准农田2号配变【纯农排变】,孔村塑料厂,孔村面粉厂80KVA变压器,孔村钢厂,云风塑料厂,三恩庄1号,大河旺大坝配变,三恩庄3号,恒兴塑料,三恩庄5号配变【纯农排变】,三恩庄6号配变【纯农排变】,孔村北40配变,孔村高标准农田1号配变【纯农排变】,许村铸石厂,孔村西200配变,宏伟苗圃场200KVA配变,东方运输服务区,孔村5号塑料厂,孔村南1号配变【纯农排变】,孔村西北2号,孔村鸡厂,0548950733-河北省水利工程局白洋淀水渠工程施工项目部-专变-48208312-河北省水利工程局白洋淀补水渠工程施工项目部,孔村高标准农田4号配变【纯农排变】,许村大坝1号配变,三恩庄2号新增配变,许村西配变,双合盛塑料厂,孔村高标准农田3号【纯农排变】,孔村占长配变,许村南新增配变,三恩庄4号配变【纯农排变】,三恩庄大坝配变【纯农排变】,许村河南配变【纯农排变】,许村村南配变,东方顺高标准农田2号配变【纯农排变】,许村村北配变,许村高标准农田2号配变【纯农排变】,三恩庄大队配变,赵红伟,许村河北（国成）配变【纯农排变】,孔村南2号配变【纯农排变】,孔村西【纯农排变】,三恩庄10号配变,三恩庄2号配变,许村村北1号配变,孔村村南1号配变,三恩庄8号配变【纯农排变】,许村村东配变,孔村南配变,孔村村北配变,许村大坝2号配变,孔村路边配变,孔村5号配变,孔村大坝配变,许村,0387479749-许村河北-专变-45307012-许村河北,三恩庄7号配变【纯农排变】,许村工业区,大河旺高标准农田1号配变【纯农排变】,伟鑫塑料厂,三恩庄高标准农田1号配变【纯农排变】,保定冀众水泥制品制造有限公司,许村大坝3号配变【纯农排变】,孔村催站江,三恩庄新增,孔村B配变,许村高标准农田1号配变【纯农排变】,孔村西南3号（远采）,诚信塑料厂,许村大队配变,三恩庄9号配变","poweroffReason":"【停电原因】由于线路检修导致３５ＫＶ方顺桥变电站三恩庄线５１３线路全线停电 【变更送电】无 【发布渠道】９５５９８","powerTime":"2018-06-01 19:55:13","powerComm":"已送电","subsNo":"","lineNo":"","tgNo":"","tgName":null,"infoStatus":"1","orgName":"国网满城县供电公司","typeName":null,"infoStatusName":null,"dateDay":null,"orgNos":null,"nowTime":null,"countyName":null,"streetName":null,"villageName":null,"roadName":null,"communityName":null,"tranName":null,"sdLineName":null,"cityCode":"1340617","cityName":"国网满城县供电公司","provinceCode":null,"stopTime":"2018-06-01 20:00:00","powerType":"全部","powerOffArea":"【全线路停电】停东方顺高标准农田3号配变【纯农排变】,许村东北配变,孔村高标准农田2号配变【纯农排变】,孔村塑料厂,孔村面粉厂80KVA变压器,孔村钢厂,云风塑料厂,三恩庄1号,大河旺大坝配变,三恩庄3号,恒兴塑料,三恩庄5号配变【纯农排变】,三恩庄6号配变【纯农排变】,孔村北40配变,孔村高标准农田1号配变【纯农排变】,许村铸石厂,孔村西200配变,宏伟苗圃场200KVA配变,东方运输服务区,孔村5号塑料厂,孔村南1号配变【纯农排变】,孔村西北2号,孔村鸡厂,0548950733-河北省水利工程局白洋淀水渠工程施工项目部-专变-48208312-河北省水利工程局白洋淀补水渠工程施工项目部,孔村高标准农田4号配变【纯农排变】,许村大坝1号配变,三恩庄2号新增配变,许村西配变,双合盛塑料厂,孔村高标准农田3号【纯农排变】,孔村占长配变,许村南新增配变,三恩庄4号配变【纯农排变】,三恩庄大坝配变【纯农排变】,许村河南配变【纯农排变】,许村村南配变,东方顺高标准农田2号配变【纯农排变】,许村村北配变,许村高标准农田2号配变【纯农排变】,三恩庄大队配变,赵红伟,许村河北（国成）配变【纯农排变】,孔村南2号配变【纯农排变】,孔村西【纯农排变】,三恩庄10号配变,三恩庄2号配变,许村村北1号配变,孔村村南1号配变,三恩庄8号配变【纯农排变】,许村村东配变,孔村南配变,孔村村北配变,许村大坝2号配变,孔村路边配变,孔村5号配变,孔村大坝配变,许村,0387479749-许村河北-专变-45307012-许村河北,三恩庄7号配变【纯农排变】,许村工业区,大河旺高标准农田1号配变【纯农排变】,伟鑫塑料厂,三恩庄高标准农田1号配变【纯农排变】,保定冀众水泥制品制造有限公司,许村大坝3号配变【纯农排变】,孔村催站江,三恩庄新增,孔村B配变,许村高标准农田1号配变【纯农排变】,孔村西南3号（远采）,诚信塑料厂,许村大队配变,三恩庄9号配变","powerOffReason":"【停电原因】由于线路检修导致３５ＫＶ方顺桥变电站三恩庄线５１３线路全线停电 【变更送电】无 【发布渠道】９５５９８","powerOffId":"2018053013000119"},{"poweroffId":2018053013000106,"sgpoweroffId":null,"subsName":"","lineName":"望城线511","pubTranName":"辛街村东,龙庄大棚【纯农排变】,北陈庄村西,龙庄村西混1,辛街西南2【纯农排变】,辛街3台区,望都中燃城市燃气发展有限公司,望都县冀中电瓷电器有限公司第一分公司,京广电瓷电器厂,京广电瓷西,南关果园,京广电瓷东,龙庄北,齐庄东4【纯农排变】,齐庄东5号【纯农排变】,龙庄新民居,辛街路边,龙庄新农业【纯农排变】,望都县千山食品有限公司,河北华鲁食品有限公司,齐庄东3号【纯农排变】,望都县望鑫热力有限公司,望都口福食品有限公司,北陈庄新上东【纯农排变】,辛街大棚【纯农排变】,南关旧猪场【纯农排变】,双丰机械厂,辛街西南农【纯农排变】,北陈庄农业3号【纯农排变】,望都县冀中电瓷电器有限公司,望都县中医医院,齐庄东2号【纯农排变】,龙庄南农业【纯农排变】,齐庄东【纯农排变】,龙庄,华源辣业,","scope":"【影响街道/乡镇】望都镇　 【高危重要客户】无　　 【影响客户】龙庄、北陈庄、辛街村、齐庄村部分农业、南关果园、双丰机械厂、京广电瓷厂、华鲁食品、冀中电瓷电器、口福食品、华源辣业、顺达车床千山食品、望鑫热力望都县中久房地产、望都县中医医院、望都县中燃、龙庄新民居","startTime":"2018-05-30 11:00:00","stopDate":"2018-05-30 13:00:00","orgNo":"1340623","typeCode":"其他临时停电","poweroffArea":"【分支停电】停望都县冀中电瓷电器有限公司,龙庄,华源辣业,龙庄大棚【纯农排变】,望都县冀中电瓷电器有限公司第一分公司,齐庄东4【纯农排变】,望都口福食品有限公司,京广电瓷西,南关果园,京广电瓷电器厂,望都县千山食品有限公司,河北华鲁食品有限公司,龙庄南农业【纯农排变】,望都县中医医院,齐庄东2号【纯农排变】,辛街路边,龙庄新农业【纯农排变】,京广电瓷东,龙庄北, 望都中燃城市燃气发展有限公司,北陈庄农业3号【纯农排变】,辛街西南农【纯农排变】,北陈庄村西,北陈庄新上东【纯农排变】,齐庄东3号【纯农排变】,望都县望鑫热力有限公司,龙庄村西混1,辛街大棚【纯农排变】,辛街村东,齐庄东【纯农排变】,齐庄东5号【纯农排变】,南关旧猪场【纯农排变】,辛街西南2【纯农排变】,辛街3台区,双丰机械厂,龙庄新民居","poweroffReason":"【停电原因】由于望城５１１线路０２１号杆处电线打火，需停电进行紧急检修导致１１０ＫＶ望都变电站望城５１１线路０２１号杆５１１４号开关以下线路停电 【变更送电】因临时抢修进度加快原因，送电时间由１４：００变更为１３：００ 【发布渠道】通过９５５９８发布","powerTime":"2018-05-30 12:40:31","powerComm":"已送电","subsNo":"","lineNo":"","tgNo":"","tgName":null,"infoStatus":"1","orgName":"国网望都县供电公司","typeName":null,"infoStatusName":null,"dateDay":null,"orgNos":null,"nowTime":null,"countyName":null,"streetName":null,"villageName":null,"roadName":null,"communityName":null,"tranName":null,"sdLineName":null,"cityCode":"1340623","cityName":"国网望都县供电公司","provinceCode":null,"stopTime":"2018-05-30 13:00:00","powerType":"全部","powerOffArea":"【分支停电】停望都县冀中电瓷电器有限公司,龙庄,华源辣业,龙庄大棚【纯农排变】,望都县冀中电瓷电器有限公司第一分公司,齐庄东4【纯农排变】,望都口福食品有限公司,京广电瓷西,南关果园,京广电瓷电器厂,望都县千山食品有限公司,河北华鲁食品有限公司,龙庄南农业【纯农排变】,望都县中医医院,齐庄东2号【纯农排变】,辛街路边,龙庄新农业【纯农排变】,京广电瓷东,龙庄北, 望都中燃城市燃气发展有限公司,北陈庄农业3号【纯农排变】,辛街西南农【纯农排变】,北陈庄村西,北陈庄新上东【纯农排变】,齐庄东3号【纯农排变】,望都县望鑫热力有限公司,龙庄村西混1,辛街大棚【纯农排变】,辛街村东,齐庄东【纯农排变】,齐庄东5号【纯农排变】,南关旧猪场【纯农排变】,辛街西南2【纯农排变】,辛街3台区,双丰机械厂,龙庄新民居","powerOffReason":"【停电原因】由于望城５１１线路０２１号杆处电线打火，需停电进行紧急检修导致１１０ＫＶ望都变电站望城５１１线路０２１号杆５１１４号开关以下线路停电 【变更送电】因临时抢修进度加快原因，送电时间由１４：００变更为１３：００ 【发布渠道】通过９５５９８发布","powerOffId":"2018053013000106"},{"poweroffId":2018053013000071,"sgpoweroffId":null,"subsName":"","lineName":"新柳村线523","pubTranName":"西柳工业区综合,文记果园,新柳东方农场22#农业,张克强水洗厂(子),新柳新增2#（65）农业,张伯超,新柳西40#农业,西柳村北16#农业,新柳小白河,边渡口村北远6#农业,小冯村新增5号农业,西柳村西（南）62#农业,姜齐庄10#农业,齐敬增,西柳面厂1#,文计果园,边渡口中学,新柳新增1#（64）农业,西演化工厂,西柳村东50#农业,新柳20#农业,新柳东南19#农业,西柳村51#农业,中国移动通信集团河北有限公司高阳分公司变压器,西柳村东远46#农业,西演砖厂,西柳砖厂(子),边渡口校边综合,北柳庄,西柳村,西柳村东8#农业,西柳村西北9#农业,小冯村,边渡口村北综合56,北柳庄28#农业,边渡口58#农业,新柳综合39,边渡口东南33#农业,西柳村东综合18,边渡口村东66综合变压器,边渡口57#农业,西柳村东新增综合,边渡口东北34#农业,西柳砖厂,边渡口村北新增综合,西柳村西综合61,恒康纺织有限公司,北柳庄村西48#农业,张克强水洗厂,新柳东南综合38,天丰农场,边渡口村北5#农业,新型建筑材料厂,边渡口后增60#农业,新柳村南新增综合,边渡口,新柳东方农场21#农业,新柳西南37#农业,西柳面厂2#,西柳村西(北）63#农业,西柳小白河23#农业,姜齐庄综合11,边渡口乡35#农业,西柳村17#农业,西柳村综合12,","scope":"【影响街道/乡镇】庞口镇 【高危重要客户】无 【影响客户】新柳、西柳、边渡口、姜齐庄、北柳庄、小冯村","startTime":"2018-06-09 06:00:00","stopDate":"2018-06-09 19:00:00","orgNo":"1340613","typeCode":"计划停电","poweroffArea":"【分支停电】停边渡口村东66综合变压器,西柳村东综合18,张伯超,西柳村东50#农业,边渡口村北新增综合,边渡口东南33#农业,西柳村东新增综合,西柳小白河23#农业,边渡口村北5#农业,文记果园,边渡口中学,新柳东南综合38,西柳村51#农业,西柳面厂1#,西柳村西（南）62#农业,新柳东南19#农业,边渡口57#农业,小冯村,西柳村西综合61,恒康纺织有限公司,西柳工业区综合,边渡口校边综合,西柳村西(北）63#农业,新柳东方农场21#农业,边渡口村北综合56,边渡口,文计果园,姜齐庄综合11,新柳村南新增综合,边渡口58#农业,北柳庄28#农业,新柳东方农场22#农业,西柳村西北9#农业,新柳西南37#农业,齐敬增,边渡口乡35#农业,张克强水洗厂,西柳村东8#农业,西演化工厂,天丰农场,西演砖厂,中国移动通信集团河北有限公司高阳分公司变压器,北柳庄村西48#农业,边渡口后增60#农业,新型建筑材料厂,新柳小白河,新柳西40#农业,姜齐庄10#农业,西柳砖厂(子),边渡口东北34#农业,张克强水洗厂(子),西柳村综合12,西柳村东远46#农业,西柳村北16#农业,小冯村新增5号农业,西柳面厂2#,西柳村,北柳庄,新柳20#农业,新柳新增1#（64）农业,西柳村17#农业,新柳新增2#（65）农业,西柳砖厂,边渡口村北远6#农业,新柳综合39","poweroffReason":"【停电原因】由于换杆、换线导致１１０ＫＶ西演变电站新柳村５２３线路主线１６号杆１６号开关以下线路停电【变更送电】因抢修进度加快原因，送电时间由２２：００变更为１９：００【发布渠道】高阳县电视台（５月３１日１９时至２１时之间）屏幕下方滚动播出","powerTime":"2018-06-09 18:48:57","powerComm":"已送电","subsNo":"","lineNo":"","tgNo":"","tgName":null,"infoStatus":"1","orgName":"国网高阳县供电公司","typeName":null,"infoStatusName":null,"dateDay":null,"orgNos":null,"nowTime":null,"countyName":null,"streetName":null,"villageName":null,"roadName":null,"communityName":null,"tranName":null,"sdLineName":null,"cityCode":"1340613","cityName":"国网高阳县供电公司","provinceCode":null,"stopTime":"2018-06-09 19:00:00","powerType":"全部","powerOffArea":"【分支停电】停边渡口村东66综合变压器,西柳村东综合18,张伯超,西柳村东50#农业,边渡口村北新增综合,边渡口东南33#农业,西柳村东新增综合,西柳小白河23#农业,边渡口村北5#农业,文记果园,边渡口中学,新柳东南综合38,西柳村51#农业,西柳面厂1#,西柳村西（南）62#农业,新柳东南19#农业,边渡口57#农业,小冯村,西柳村西综合61,恒康纺织有限公司,西柳工业区综合,边渡口校边综合,西柳村西(北）63#农业,新柳东方农场21#农业,边渡口村北综合56,边渡口,文计果园,姜齐庄综合11,新柳村南新增综合,边渡口58#农业,北柳庄28#农业,新柳东方农场22#农业,西柳村西北9#农业,新柳西南37#农业,齐敬增,边渡口乡35#农业,张克强水洗厂,西柳村东8#农业,西演化工厂,天丰农场,西演砖厂,中国移动通信集团河北有限公司高阳分公司变压器,北柳庄村西48#农业,边渡口后增60#农业,新型建筑材料厂,新柳小白河,新柳西40#农业,姜齐庄10#农业,西柳砖厂(子),边渡口东北34#农业,张克强水洗厂(子),西柳村综合12,西柳村东远46#农业,西柳村北16#农业,小冯村新增5号农业,西柳面厂2#,西柳村,北柳庄,新柳20#农业,新柳新增1#（64）农业,西柳村17#农业,新柳新增2#（65）农业,西柳砖厂,边渡口村北远6#农业,新柳综合39","powerOffReason":"【停电原因】由于换杆、换线导致１１０ＫＶ西演变电站新柳村５２３线路主线１６号杆１６号开关以下线路停电【变更送电】因抢修进度加快原因，送电时间由２２：００变更为１９：００【发布渠道】高阳县电视台（５月３１日１９时至２１时之间）屏幕下方滚动播出","powerOffId":"2018053013000071"},{"poweroffId":2018053013000062,"sgpoweroffId":null,"subsName":"","lineName":"邢南线533","pubTranName":"0734|六合庄11#村西南新增综合,0735|六合庄12#村西北新增综合,六合屯村东北新增综合,0732|六合庄9#村南西头综合,07072|六合庄三和道综合4219,","scope":"【影响街道/乡镇】邢南乡 【高危重要客户】无 【影响客户】邢南、何庄、六合庄","startTime":"2018-06-06 06:00:00","stopDate":"2018-06-06 12:00:00","orgNo":"1340613","typeCode":"临时停电","poweroffArea":"【分支停电】停0734|六合庄11#村西南新增综合,0732|六合庄9#村南西头综合,07072|六合庄三和道综合4219,六合屯村东北新增综合,0735|六合庄12#村西北新增综合","poweroffReason":"【停电原因】由于线路接引导致２２０ＫＶ高阳站邢南５３３线路主线５号杆５号开关以下线路停电【变更送电】无【发布渠道】９５５９８","powerTime":"2018-06-06 11:28:30","powerComm":"已送电","subsNo":"","lineNo":"","tgNo":"","tgName":null,"infoStatus":"1","orgName":"国网高阳县供电公司","typeName":null,"infoStatusName":null,"dateDay":null,"orgNos":null,"nowTime":null,"countyName":null,"streetName":null,"villageName":null,"roadName":null,"communityName":null,"tranName":null,"sdLineName":null,"cityCode":"1340613","cityName":"国网高阳县供电公司","provinceCode":null,"stopTime":"2018-06-06 12:00:00","powerType":"全部","powerOffArea":"【分支停电】停0734|六合庄11#村西南新增综合,0732|六合庄9#村南西头综合,07072|六合庄三和道综合4219,六合屯村东北新增综合,0735|六合庄12#村西北新增综合","powerOffReason":"【停电原因】由于线路接引导致２２０ＫＶ高阳站邢南５３３线路主线５号杆５号开关以下线路停电【变更送电】无【发布渠道】９５５９８","powerOffId":"2018053013000062"},{"poweroffId":2018052913000445,"sgpoweroffId":null,"subsName":"","lineName":"马村线542","pubTranName":"寨里大北头二台区,","scope":"【影响街道/乡镇】寨里乡 【高危重要客户】无 【影响客户】大北头村","startTime":"2018-05-29 23:39:47","stopDate":"2018-05-30 06:00:00","orgNo":"1340607","typeCode":"电网故障停限电","poweroffArea":"【单台区停电】停寨里大北头二台区","poweroffReason":"【停电原因】由于低压线断导致３５ＫＶ建昌变电站马村线５４２线路寨里大北头二号公变台区停电 【变更送电】无 【发布渠道】通过９５５９８发布","powerTime":"2018-05-30 05:54:25","powerComm":"已送电","subsNo":"","lineNo":"","tgNo":"","tgName":null,"infoStatus":"1","orgName":"(原)国网安新县供电公司","typeName":null,"infoStatusName":null,"dateDay":null,"orgNos":null,"nowTime":null,"countyName":null,"streetName":null,"villageName":null,"roadName":null,"communityName":null,"tranName":null,"sdLineName":null,"cityCode":"1340607","cityName":"(原)国网安新县供电公司","provinceCode":null,"stopTime":"2018-05-30 06:00:00","powerType":"全部","powerOffArea":"【单台区停电】停寨里大北头二台区","powerOffReason":"【停电原因】由于低压线断导致３５ＫＶ建昌变电站马村线５４２线路寨里大北头二号公变台区停电 【变更送电】无 【发布渠道】通过９５５９８发布","powerOffId":"2018052913000445"},{"poweroffId":2018052913000423,"sgpoweroffId":null,"subsName":"","lineName":"10kV南章512线","pubTranName":"王街农业2台区变压器,石佛综合17台区,东巷农业4台区变压器,","scope":"【影响街道/乡镇】石佛镇 【高危重要客户】无 【影响客户】南章村、石佛村、高街村、东巷村、王街村、李街村","startTime":"2018-05-29 21:31:58","stopDate":"2018-05-29 23:50:08","orgNo":"1340606","typeCode":"电网故障停限电","poweroffArea":"【全线路停电】停王街农业２台区变压器,东巷农业４台区变压器,石佛综合１７台区","poweroffReason":"【停电原因】由于站内开关跳闸导致３５ＫＶ石佛变电站１０ＫＶ南章５１２线路全线停电 【变更送电】因抢修进度加快原因，送电时间由 ０９:００变更为２３:５０ 【发布渠道】９５５９８","powerTime":"2018-05-29 23:39:16","powerComm":"已送电","subsNo":"","lineNo":"","tgNo":"","tgName":null,"infoStatus":"1","orgName":"国网安国市供电公司","typeName":null,"infoStatusName":null,"dateDay":null,"orgNos":null,"nowTime":null,"countyName":null,"streetName":null,"villageName":null,"roadName":null,"communityName":null,"tranName":null,"sdLineName":null,"cityCode":"1340606","cityName":"国网安国市供电公司","provinceCode":null,"stopTime":"2018-05-29 23:50:08","powerType":"全部","powerOffArea":"【全线路停电】停王街农业２台区变压器,东巷农业４台区变压器,石佛综合１７台区","powerOffReason":"【停电原因】由于站内开关跳闸导致３５ＫＶ石佛变电站１０ＫＶ南章５１２线路全线停电 【变更送电】因抢修进度加快原因，送电时间由 ０９:００变更为２３:５０ 【发布渠道】９５５９８","powerOffId":"2018052913000423"},{"poweroffId":2018052913000389,"sgpoweroffId":null,"subsName":"","lineName":"遂城农业线521","pubTranName":"巩固庄11号,东关6号,北马营2号,城北庄4号【纯农排变】,谢坊1号,城西8号,北马营1号,徐水县永昌法兰厂,石桥10号【纯农排变】,谢坊12号,东关7号,城西1号,谢坊11号,变压器,徐水颐和园酒厂,遂城18号,东关4号【纯农排变】,城北庄6号【纯农排变】,巩固庄采暖设备厂,东关1号,城北7号,北马营4号【纯农排变】,城西12号【纯农排变】,谢坊6号【纯农排变】,河北徐水经济开发区管委会,石桥4号【纯农排变】,石桥6号【纯农排变】,城北庄7号【纯农排变】,遂城9号【纯农排变】,城北2号【纯农排变】,北马营6号,遂城14号,石桥9号,巩固庄2号,城西7号,石桥1号,大庞村面粉厂,大庞村1号,城北庄12号【纯农排变】,城西3号,大庞村11号,张华村7号,张华村4号,徐水三生管件厂,城西13号【纯农排变】,城北庄10号,石桥8号【纯农排变】,八达工艺品厂,永昌法兰长2号,城西10号,城北4号【纯农排变】,城北庄11号,城西11号,城北庄1号,城北6号,河北青竹酿酒有限公司,城西9号,徐水县邮政局遂城支局,刘山纸膜包装厂,城北1号,古遂造纸厂,谢坊21号【纯农排变】,城北9号【纯农排变】,东关2号【纯农排变】,久久集团乳业有限公司,河北诗林醉酿酒有限公司,城北3号【纯农排变】,城西6号【纯农排变】,大庞村24号,大庞村22号,城北庄2号,保定市道路开发中心变压器,城北庄5号,张华村1号,石桥2号,城西16号,今明后饮料公司,巩固庄15号,城西面粉厂,城西4号【纯农排变】,城北庄8号【纯农排变】,城北庄3号【纯农排变】,城西5号【纯农排变】,康进卫生巾厂,北马营5号【纯农排变】,东关5号,龙须面厂,城西15号【纯农排变】,城北8号【纯农排变】,遂城24号,东关3号【纯农排变】,城北庄9号,遂城法兰加工厂,北马营3号【纯农排变】,张华村6号【纯农排变】,北马营7号,石桥新兴印刷厂,石桥7号,东关8号【纯农排变】,大庞村25号【纯农排变】,谢坊9号【纯农排变】,徐水县新泰工贸有限公司,大庞村26号,城北5号,谢坊25号,石桥5号【纯农排变】,城西14号【纯农排变】,石桥3号,奥峰锻造厂,","scope":"【影响街道/乡镇】遂城镇 【高危重要客户】无 【影响客户】巩固庄、东关、石桥、城北、城北庄、城西、遂城、北马营、张华村、大庞村、谢坊","startTime":"2018-05-29 19:58:18","stopDate":"2018-05-29 22:00:00","orgNo":"1340605","typeCode":"电网故障停限电","poweroffArea":"【全线路停电】停大庞村25号【纯农排变】,东关4号【纯农排变】,大庞村1号,巩固庄2号,张华村4号,谢坊12号,东关8号【纯农排变】,城北庄7号【纯农排变】,城北庄4号【纯农排变】,城北庄12号【纯农排变】,北马营1号,变压器,石桥7号,城北庄10号,城北庄5号,城北庄3号【纯农排变】,大庞村面粉厂,城西面粉厂,古遂造纸厂,巩固庄采暖设备厂,石桥新兴印刷厂,今明后饮料公司,徐水县永昌法兰厂,保定市道路开发中心变压器,龙须面厂,遂城9号【纯农排变】,谢坊9号【纯农排变】,城北7号,城北庄11号,张华村1号,八达工艺品厂,久久集团乳业有限公司,徐水县邮政局遂城支局,徐水三生管件厂,刘山纸膜包装厂,永昌法兰长2号,遂城法兰加工厂,康进卫生巾厂,北马营2号,遂城24号,大庞村22号,石桥8号【纯农排变】,城西13号【纯农排变】,城北6号,城北9号【纯农排变】,河北徐水经济开发区管委会,大庞村11号,东关5号,大庞村26号,谢坊21号【纯农排变】,城北2号【纯农排变】,城西8号,东关7号,谢坊6号【纯农排变】,谢坊1号,城西7号,石桥3号,巩固庄15号,城北8号【纯农排变】,北马营7号,城西10号,石桥2号,城西5号【纯农排变】,北马营5号【纯农排变】,北马营6号,城西3号,城西1号,城北庄8号【纯农排变】,东关1号,奥峰锻造厂,城北庄6号【纯农排变】,石桥10号【纯农排变】,徐水颐和园酒厂,城西12号【纯农排变】,河北诗林醉酿酒有限公司,徐水县新泰工贸有限公司,河北青竹酿酒有限公司,城西6号【纯农排变】,城西4号【纯农排变】,张华村7号,遂城14号,城北庄1号,东关2号【纯农排变】,巩固庄11号,城北3号【纯农排变】,大庞村24号,石桥4号【纯农排变】,城西15号【纯农排变】,石桥1号,城西16号,城北庄2号,城北庄9号,遂城18号,城西9号,石桥5号【纯农排变】,北马营4号【纯农排变】,东关6号,石桥6号【纯农排变】,东关3号【纯农排变】,城北5号,城北4号【纯农排变】,城西11号,城北1号,北马营3号【纯农排变】,石桥9号,谢坊11号,城西14号【纯农排变】,张华村6号【纯农排变】,谢坊25号","poweroffReason":"【停电原因】由于Ｂ相接地导致１１０ＫＶ遂城变电站遂城农业线５２１线路全线停电 【变更送电】因抢修进度加快原因，送电时间由３０日１０：００变更为２９日２２：００ 【发布渠道】通过９５５９８发布","powerTime":"2018-05-29 21:19:21","powerComm":"已送电","subsNo":"","lineNo":"","tgNo":"","tgName":null,"infoStatus":"1","orgName":"国网徐水县供电公司","typeName":null,"infoStatusName":null,"dateDay":null,"orgNos":null,"nowTime":null,"countyName":null,"streetName":null,"villageName":null,"roadName":null,"communityName":null,"tranName":null,"sdLineName":null,"cityCode":"1340605","cityName":"国网徐水县供电公司","provinceCode":null,"stopTime":"2018-05-29 22:00:00","powerType":"全部","powerOffArea":"【全线路停电】停大庞村25号【纯农排变】,东关4号【纯农排变】,大庞村1号,巩固庄2号,张华村4号,谢坊12号,东关8号【纯农排变】,城北庄7号【纯农排变】,城北庄4号【纯农排变】,城北庄12号【纯农排变】,北马营1号,变压器,石桥7号,城北庄10号,城北庄5号,城北庄3号【纯农排变】,大庞村面粉厂,城西面粉厂,古遂造纸厂,巩固庄采暖设备厂,石桥新兴印刷厂,今明后饮料公司,徐水县永昌法兰厂,保定市道路开发中心变压器,龙须面厂,遂城9号【纯农排变】,谢坊9号【纯农排变】,城北7号,城北庄11号,张华村1号,八达工艺品厂,久久集团乳业有限公司,徐水县邮政局遂城支局,徐水三生管件厂,刘山纸膜包装厂,永昌法兰长2号,遂城法兰加工厂,康进卫生巾厂,北马营2号,遂城24号,大庞村22号,石桥8号【纯农排变】,城西13号【纯农排变】,城北6号,城北9号【纯农排变】,河北徐水经济开发区管委会,大庞村11号,东关5号,大庞村26号,谢坊21号【纯农排变】,城北2号【纯农排变】,城西8号,东关7号,谢坊6号【纯农排变】,谢坊1号,城西7号,石桥3号,巩固庄15号,城北8号【纯农排变】,北马营7号,城西10号,石桥2号,城西5号【纯农排变】,北马营5号【纯农排变】,北马营6号,城西3号,城西1号,城北庄8号【纯农排变】,东关1号,奥峰锻造厂,城北庄6号【纯农排变】,石桥10号【纯农排变】,徐水颐和园酒厂,城西12号【纯农排变】,河北诗林醉酿酒有限公司,徐水县新泰工贸有限公司,河北青竹酿酒有限公司,城西6号【纯农排变】,城西4号【纯农排变】,张华村7号,遂城14号,城北庄1号,东关2号【纯农排变】,巩固庄11号,城北3号【纯农排变】,大庞村24号,石桥4号【纯农排变】,城西15号【纯农排变】,石桥1号,城西16号,城北庄2号,城北庄9号,遂城18号,城西9号,石桥5号【纯农排变】,北马营4号【纯农排变】,东关6号,石桥6号【纯农排变】,东关3号【纯农排变】,城北5号,城北4号【纯农排变】,城西11号,城北1号,北马营3号【纯农排变】,石桥9号,谢坊11号,城西14号【纯农排变】,张华村6号【纯农排变】,谢坊25号","powerOffReason":"【停电原因】由于Ｂ相接地导致１１０ＫＶ遂城变电站遂城农业线５２１线路全线停电 【变更送电】因抢修进度加快原因，送电时间由３０日１０：００变更为２９日２２：００ 【发布渠道】通过９５５９８发布","powerOffId":"2018052913000389"},{"poweroffId":2018052913000362,"sgpoweroffId":null,"subsName":"","lineName":"10kV雷庄线537","pubTranName":"刘漫撒电能替代18号变压器（煤改电）,刘庄电能替代05号变压器（煤改电）,雷庄村电能替代04号变压器（煤改电）,雷庄村电能替代02号变压器（煤改电）,刘庄电能替代04号变压器（煤改电）,刘漫撒电能替代19号变压器（煤改电）,刘漫撒电能替代01号变压器（煤改电）,刘庄电能替代09号变压器（煤改电）,刘漫撒电能替代22号变压器（煤改电）,刘漫撒西地变压器,刘庄电能替代03号变压器（煤改电）,刘庄电能替代11号变压器（煤改电）,刘漫撒电能替代20号变压器（煤改电）,刘庄电能替代10号变压器（煤改电）,刘漫撒电能替代13号变压器（煤改电）,刘漫撒电能替代09号变压器（煤改电）,刘漫撒电能替代14号变压器（煤改电）,雷庄村电能替代05号变压器（煤改电）,刘漫撒电能替代08号变压器（煤改电）,刘漫撒电能替代03号变压器（煤改电）,刘庄电能替代08号变压器（煤改电）,刘庄电能替代01号变压器（煤改电）,刘漫撒电能替代11号变压器（煤改电）,雷庄村电能替代01号变压器（煤改电）,刘漫撒电能替代17号变压器（煤改电）,刘漫撒东地变压器,刘漫撒电能替代02号变压器（煤改电）,刘漫撒电能替代06号变压器（煤改电）,刘庄电能替代02号变压器（煤改电）,刘漫撒电能替代07号变压器（煤改电）,雷庄村电能替代08号变压器（煤改电）,刘漫撒电能替代04号变压器（煤改电）,雷庄东地变压器,刘漫撒电能替代15号变压器（煤改电）,刘庄电能替代07号变压器（煤改电）,刘漫撒电能替代23号变压器（煤改电）,刘漫撒电能替代21号变压器（煤改电）,刘漫撒电能替代05号变压器（煤改电）,雷庄村电能替代06号变压器（煤改电）,雷庄东变压器,雷庄村电能替代07号变压器（煤改电）,刘漫撒电能替代12号变压器（煤改电）,刘庄电能替代06号变压器（煤改电）,刘漫撒电能替代10号变压器（煤改电）,雷庄村电能替代03号变压器（煤改电）,刘漫撒电能替代16号变压器（煤改电）,","scope":"【影响街道/乡镇】北城办事处 【高危重要客户】无 【影响客户】刘漫撒村、雷庄村、刘庄村","startTime":"2018-06-05 02:30:00","stopDate":"2018-06-05 23:30:00","orgNo":"1340612","typeCode":"临时停电","poweroffArea":"【全线路停电】停刘庄电能替代11号变压器（煤改电）,雷庄村电能替代01号变压器（煤改电）,刘漫撒电能替代01号变压器（煤改电）,刘漫撒电能替代22号变压器（煤改电）,刘庄电能替代01号变压器（煤改电）,刘庄电能替代03号变压器（煤改电）,刘庄电能替代04号变压器（煤改电）,刘庄电能替代08号变压器（煤改电）,刘庄电能替代09号变压器（煤改电）,刘漫撒电能替代04号变压器（煤改电）,刘漫撒电能替代05号变压器（煤改电）,刘漫撒电能替代06号变压器（煤改电）,刘漫撒电能替代09号变压器（煤改电）,刘漫撒电能替代18号变压器（煤改电）,刘漫撒电能替代14号变压器（煤改电）,刘漫撒电能替代16号变压器（煤改电）,雷庄村电能替代02号变压器（煤改电）,雷庄村电能替代04号变压器（煤改电）,刘漫撒电能替代02号变压器（煤改电）,刘漫撒电能替代03号变压器（煤改电）,刘漫撒电能替代12号变压器（煤改电）,雷庄村电能替代05号变压器（煤改电）,刘漫撒电能替代13号变压器（煤改电）,刘漫撒电能替代17号变压器（煤改电）,刘漫撒电能替代08号变压器（煤改电）,刘漫撒电能替代10号变压器（煤改电）,刘漫撒电能替代20号变压器（煤改电）,刘庄电能替代02号变压器（煤改电）,刘庄电能替代07号变压器（煤改电）,刘庄电能替代10号变压器（煤改电）,刘漫撒电能替代21号变压器（煤改电）,刘漫撒电能替代11号变压器（煤改电）,刘漫撒电能替代07号变压器（煤改电）,刘漫撒电能替代15号变压器（煤改电）,刘漫撒电能替代23号变压器（煤改电）,刘漫撒电能替代19号变压器（煤改电）,雷庄村电能替代03号变压器（煤改电）,雷庄村电能替代06号变压器（煤改电）,雷庄村电能替代07号变压器（煤改电）,雷庄村电能替代08号变压器（煤改电）,刘庄电能替代05号变压器（煤改电）,刘庄电能替代06号变压器（煤改电）,刘漫撒东地变压器,刘漫撒西地变压器,雷庄东变压器,雷庄东地变压器","poweroffReason":"【停电原因】由于上级计划检修导致１１０ＫＶ各庄变电站１０ＫＶ雷庄５３７线路全线停电 【变更送电】无 【发布渠道】高碑店市高碑店电视台（５月３０日０８时至６月４日１８时之间）屏幕上方滚动","powerTime":"2018-06-05 23:03:52","powerComm":"已送电","subsNo":"","lineNo":"","tgNo":"","tgName":null,"infoStatus":"1","orgName":"国网高碑店市供电公司","typeName":null,"infoStatusName":null,"dateDay":null,"orgNos":null,"nowTime":null,"countyName":null,"streetName":null,"villageName":null,"roadName":null,"communityName":null,"tranName":null,"sdLineName":null,"cityCode":"1340612","cityName":"国网高碑店市供电公司","provinceCode":null,"stopTime":"2018-06-05 23:30:00","powerType":"全部","powerOffArea":"【全线路停电】停刘庄电能替代11号变压器（煤改电）,雷庄村电能替代01号变压器（煤改电）,刘漫撒电能替代01号变压器（煤改电）,刘漫撒电能替代22号变压器（煤改电）,刘庄电能替代01号变压器（煤改电）,刘庄电能替代03号变压器（煤改电）,刘庄电能替代04号变压器（煤改电）,刘庄电能替代08号变压器（煤改电）,刘庄电能替代09号变压器（煤改电）,刘漫撒电能替代04号变压器（煤改电）,刘漫撒电能替代05号变压器（煤改电）,刘漫撒电能替代06号变压器（煤改电）,刘漫撒电能替代09号变压器（煤改电）,刘漫撒电能替代18号变压器（煤改电）,刘漫撒电能替代14号变压器（煤改电）,刘漫撒电能替代16号变压器（煤改电）,雷庄村电能替代02号变压器（煤改电）,雷庄村电能替代04号变压器（煤改电）,刘漫撒电能替代02号变压器（煤改电）,刘漫撒电能替代03号变压器（煤改电）,刘漫撒电能替代12号变压器（煤改电）,雷庄村电能替代05号变压器（煤改电）,刘漫撒电能替代13号变压器（煤改电）,刘漫撒电能替代17号变压器（煤改电）,刘漫撒电能替代08号变压器（煤改电）,刘漫撒电能替代10号变压器（煤改电）,刘漫撒电能替代20号变压器（煤改电）,刘庄电能替代02号变压器（煤改电）,刘庄电能替代07号变压器（煤改电）,刘庄电能替代10号变压器（煤改电）,刘漫撒电能替代21号变压器（煤改电）,刘漫撒电能替代11号变压器（煤改电）,刘漫撒电能替代07号变压器（煤改电）,刘漫撒电能替代15号变压器（煤改电）,刘漫撒电能替代23号变压器（煤改电）,刘漫撒电能替代19号变压器（煤改电）,雷庄村电能替代03号变压器（煤改电）,雷庄村电能替代06号变压器（煤改电）,雷庄村电能替代07号变压器（煤改电）,雷庄村电能替代08号变压器（煤改电）,刘庄电能替代05号变压器（煤改电）,刘庄电能替代06号变压器（煤改电）,刘漫撒东地变压器,刘漫撒西地变压器,雷庄东变压器,雷庄东地变压器","powerOffReason":"【停电原因】由于上级计划检修导致１１０ＫＶ各庄变电站１０ＫＶ雷庄５３７线路全线停电 【变更送电】无 【发布渠道】高碑店市高碑店电视台（５月３０日０８时至６月４日１８时之间）屏幕上方滚动","powerOffId":"2018052913000362"}],"pageModel":{"pageNow":1062,"totalCount":10973,"totalPage":1098,"tableRows":0,"pageCount":10,"beginCount":10610},"isExperi":"1"}