{"message":"","today":"2020-06-15","seleList":[{"poweroffId":2018052813000192,"sgpoweroffId":null,"subsName":"","lineName":"白合镇514线","pubTranName":"白合1543变压器,白合7158变压器,白合2477变压器,白合中学变压器,红星厂1509,金盼厂1513,白合区直1537变压器,白合2495变压器,","scope":"【影响街道/乡镇】白合镇【高危重要客户】无【影响客户】白合村","startTime":"2018-05-28 14:30:00","stopDate":"2018-05-28 18:00:00","orgNo":"1340622","typeCode":"其他临时停电","poweroffArea":"【全线路停电】停白合7158变压器,白合中学变压器,金盼厂1513,白合1543变压器,红星厂1509,白合区直1537变压器,白合2495变压器,白合2477变压器","poweroffReason":"【停电原因】由于白白３４７线路００４号杆导线脱落需停电抢修导致３５ＫＶ白合变电站白合镇５１４线路全线停电【变更送电】因抢修进度加快原因，送电时间由２０：３０变更为１８：００【发布渠道】通过９５５９８发布","powerTime":"2018-05-28 17:22:32","powerComm":"已送电","subsNo":"","lineNo":"","tgNo":"","tgName":null,"infoStatus":"1","orgName":"国网唐县供电公司","typeName":null,"infoStatusName":null,"dateDay":null,"orgNos":null,"nowTime":null,"countyName":null,"streetName":null,"villageName":null,"roadName":null,"communityName":null,"tranName":null,"sdLineName":null,"cityCode":"1340622","cityName":"国网唐县供电公司","provinceCode":null,"stopTime":"2018-05-28 18:00:00","powerType":"全部","powerOffArea":"【全线路停电】停白合7158变压器,白合中学变压器,金盼厂1513,白合1543变压器,红星厂1509,白合区直1537变压器,白合2495变压器,白合2477变压器","powerOffReason":"【停电原因】由于白白３４７线路００４号杆导线脱落需停电抢修导致３５ＫＶ白合变电站白合镇５１４线路全线停电【变更送电】因抢修进度加快原因，送电时间由２０：３０变更为１８：００【发布渠道】通过９５５９８发布","powerOffId":"2018052813000192"},{"poweroffId":2018052813000104,"sgpoweroffId":null,"subsName":"","lineName":"10kV七一路站540线路","pubTranName":"0696351064-保定市发投热力有限公司-专变-1,0696351064-保定市发投热力有限公司-专变-2,","scope":"【影响街道/乡镇】永华北大街 【高危重要客户】无 【影响客户】保定市发投热力有限公司","startTime":"2018-06-01 08:30:00","stopDate":"2018-06-01 11:30:00","orgNo":"13406","typeCode":"临时停电","poweroffArea":"【全线路停电】停0696351064-保定市发投热力有限公司-专变-1,0696351064-保定市发投热力有限公司-专变-2","poweroffReason":"【停电原因】由于供电设备临时检修导致１０ＫＶ七一路变电站５４０线路停电【变更送电】无【发布渠道】通过９５５９８发布","powerTime":"2018-06-01 11:25:22","powerComm":"已送电","subsNo":"","lineNo":"","tgNo":"","tgName":null,"infoStatus":"1","orgName":"保定供电公司","typeName":null,"infoStatusName":null,"dateDay":null,"orgNos":null,"nowTime":null,"countyName":null,"streetName":null,"villageName":null,"roadName":null,"communityName":null,"tranName":null,"sdLineName":null,"cityCode":"13406","cityName":"保定供电公司","provinceCode":null,"stopTime":"2018-06-01 11:30:00","powerType":"全部","powerOffArea":"【全线路停电】停0696351064-保定市发投热力有限公司-专变-1,0696351064-保定市发投热力有限公司-专变-2","powerOffReason":"【停电原因】由于供电设备临时检修导致１０ＫＶ七一路变电站５４０线路停电【变更送电】无【发布渠道】通过９５５９８发布","powerOffId":"2018052813000104"},{"poweroffId":2018052813000092,"sgpoweroffId":null,"subsName":"","lineName":"西村538","pubTranName":"下紫口16号【纯农排变】,下紫口2号新增,苏庄村2号,下紫口8号,下紫口17号【纯农排变】,苏庄五号【纯农排变】,苏庄6号,下紫口11号,苏庄三号【纯农排变】,下紫口13号,西村8号,西村新增7号,永南三号,下紫口三号,西村新增,永南庄4号【纯农排变】,西村山根,下紫口5号新增,苏庄8号,苏庄村内1号,西村六号,西村3号,下紫口村一号,下紫口14号,大册营新增（统管）,下紫口12号,苏庄7号【纯农排变】,下紫口15号,下紫口6号,下紫口10号,下紫口9号,西村二号,永南庄5号,苏庄4号,永南庄1号,西村西山根新增2号,","scope":"【影响街道/乡镇】大册营镇 【高危重要客户】无 【影响客户】苏庄、西村、下子（紫）口、永南庄","startTime":"2018-05-28 09:43:18","stopDate":"2018-05-28 11:55:00","orgNo":"1340617","typeCode":"电网故障停限电","poweroffArea":"【全线路停电】停大册营新增（统管）,西村新增,下紫口16号【纯农排变】,西村山根,西村西山根新增2号,苏庄8号,苏庄村2号,苏庄五号【纯农排变】,永南庄1号,永南庄5号,苏庄村内1号,苏庄4号,苏庄7号【纯农排变】,西村8号,西村六号,下紫口10号,下紫口12号,下紫口13号,下紫口15号,下紫口8号,下紫口三号,西村3号,西村二号,下紫口17号【纯农排变】,下紫口2号新增,下紫口5号新增,下紫口6号,苏庄三号【纯农排变】,下紫口9号,永南三号,永南庄4号【纯农排变】,西村新增7号,下紫口11号,下紫口村一号,苏庄6号,下紫口14号","poweroffReason":"【停电原因】由于过流掉闸导致１１０ＫＶ夜借变电站西村５３８线路全线停电 【变更送电】因抢修进度加快原因，送电时间由２２：００变更为１１：５５ 【发布渠道】９５５９８","powerTime":"2018-05-28 11:40:35","powerComm":"已送电","subsNo":"","lineNo":"","tgNo":"","tgName":null,"infoStatus":"1","orgName":"国网满城县供电公司","typeName":null,"infoStatusName":null,"dateDay":null,"orgNos":null,"nowTime":null,"countyName":null,"streetName":null,"villageName":null,"roadName":null,"communityName":null,"tranName":null,"sdLineName":null,"cityCode":"1340617","cityName":"国网满城县供电公司","provinceCode":null,"stopTime":"2018-05-28 11:55:00","powerType":"全部","powerOffArea":"【全线路停电】停大册营新增（统管）,西村新增,下紫口16号【纯农排变】,西村山根,西村西山根新增2号,苏庄8号,苏庄村2号,苏庄五号【纯农排变】,永南庄1号,永南庄5号,苏庄村内1号,苏庄4号,苏庄7号【纯农排变】,西村8号,西村六号,下紫口10号,下紫口12号,下紫口13号,下紫口15号,下紫口8号,下紫口三号,西村3号,西村二号,下紫口17号【纯农排变】,下紫口2号新增,下紫口5号新增,下紫口6号,苏庄三号【纯农排变】,下紫口9号,永南三号,永南庄4号【纯农排变】,西村新增7号,下紫口11号,下紫口村一号,苏庄6号,下紫口14号","powerOffReason":"【停电原因】由于过流掉闸导致１１０ＫＶ夜借变电站西村５３８线路全线停电 【变更送电】因抢修进度加快原因，送电时间由２２：００变更为１１：５５ 【发布渠道】９５５９８","powerOffId":"2018052813000092"},{"poweroffId":2018052813000059,"sgpoweroffId":null,"subsName":"","lineName":"10kV547刘村线","pubTranName":"刘村综合11台区,随东农排12台区【纯农排变】,外贸冷冻厂,刘村农排8台区【纯农排变】,新乡农排1台区【纯农排变】,刘村农排11台区【纯农排变】,新乡农排9台区【纯农排变】,北漳农排3台区【纯农排变】,随东综合8台区,随东农排4台区【纯农排变】,北漳农排15台区【纯农排变】,随东综合13台区,随东综合14台区,刘村综合10台区,宏阳毛纺厂,随东东面粉厂,刘村农排6台区【纯农排变】,刘村综合12台区,刘村综合7台区,宋庄农排1台区【纯农排变】,刘村综合9台区,新乡综合10台区,新乡农排8台区【纯农排变】,新乡农排2台区【纯农排变】,随东农排19台区【纯农排变】,刘村农排16台区【纯农排变】,随东农排13台区【纯农排变】,南漳农排1台区【纯农排变】,随东综合15台区,随东农排8台区【纯农排变】,刘村农排20台区【纯农排变】,南漳综合2台区,刘村砖厂（小）,刘村农排7台区【纯农排变】,随东农排7台区【纯农排变】,547线宋庄综合2台区,刘村综合6台区,南漳农排2台区【纯农排变】,刘村农排12台区【纯农排变】,新乡综合8台区,随东农排16台区【纯农排变】,宋庄建军天鹅绒厂,随东综合11台区,刘村砖厂（大）,刘村农排2台区【纯农排变】,刘村综合5台区,新乡农排3台区【纯农排变】,刘村颗粒厂,刘村农排1台区【纯农排变】,南漳综合3台区,变压器,南漳村西塑料厂,蠡县宇大房地产开发有限公司变压器,陈村农排10台区【纯农排变】,随东综合10台区,547线宋庄综合1台区,0683454741-保定市南水北调工程建设委员会办公室-专变-223624965-保定南水北调工程建设委员会办公室变压器,刘村农排14台区【纯农排变】,随东综合7台区,刘村综合15台区,南漳农排4台区【纯农排变】,刘村综合2台区,随东综合1台区,宋庄农排7台区【纯农排变】,随东农排18台区【纯农排变】,随东综合2台区,随中面粉厂,蠡县中小麻山药专业合作社,新乡综合5台区,刘村农排22台区【纯农排变】,保定朝雄电气化电力器材有限公司变压器,刘村综合3台区,新乡综合6台区,随东综合4台区,随东综合6台区,东滑农排1台区【纯农排变】,灵辉毛纺厂,随东农排6台区【纯农排变】,随东农排9台区【纯农排变】,蠡县鑫宇纺纱厂变压器,刘村农排4台区【纯农排变】,随东农排11台区【纯农排变】,新乡综合7台区,新乡综合2台区,新乡综合11台区,蠡县新乡免烧砖厂变压器,刘村农排13台区【纯农排变】,随东农排14台区【纯农排变】,蠡县工商行政管理局蠡州工商分局变压器,刘村农排15台区【纯农排变】,南漳综合4台区,刘村农排21台区【纯农排变】,新乡综合1台区,新乡面粉厂,刘村综合8台区,随东综合5台区,北漳农排5台区【纯农排变】,随东农排5台区【纯农排变】,随东综合12台区,刘村农排9台区【纯农排变】,刘村农排18台区【纯农排变】,刘村农排5台区【纯农排变】,547线宋庄综合3台区,南漳综合1台区,随东农排1台区【纯农排变】,新乡综合3台区,随东农排15台区【纯农排变】,刘村综合14台区,新乡综合9台区,天祥化工厂,刘村综合13台区,刘村农排3台区【纯农排变】,宋庄农排8台区【纯农排变】,随东综合","scope":"【影响街道/乡镇】蠡吾镇 【高危重要客户】无 【影响客户】刘村、新乡村、南漳村、宋庄村、随东村","startTime":"2018-05-28 08:19:02","stopDate":"2018-05-28 09:00:06","orgNo":"1340616","typeCode":"电网故障停限电","poweroffArea":"【全线路停电】停刘村综合10台区,随东综合1台区,新乡综合10台区,新乡综合8台区,随东农排13台区【纯农排变】,随东农排17台区【纯农排变】,随东综合6台区,随东农排19台区【纯农排变】,随东农排14台区【纯农排变】,蠡县盛宇纺纱厂变压器,随东农排18台区【纯农排变】,随东农排6台区【纯农排变】,刘村农排2台区【纯农排变】,南漳综合4台区,随东农排5台区【纯农排变】,0683454741-保定市南水北调工程建设委员会办公室-专变-223624965-保定南水北调工程建设委员会办公室变压器,宋庄农排1台区【纯农排变】,刘村综合3台区,刘村农排4台区【纯农排变】,新乡综合5台区,随东农排8台区【纯农排变】,随东农排9台区【纯农排变】,刘村农排3台区【纯农排变】,宋庄农排8台区【纯农排变】,随中面粉厂,南漳村西塑料厂,刘村农排8台区【纯农排变】,刘村颗粒厂,保定朝雄电气化电力器材有限公司变压器,随东综合15台区,新乡农排2台区【纯农排变】,新乡农排3台区【纯农排变】,新乡农排4台区【纯农排变】,外贸冷冻厂,刘村农排12台区【纯农排变】,随东综合9台区,随东综合11台区,北漳农排15台区【纯农排变】,随东农排2台区【纯农排变】,随东综合4台区,刘村综合1台区,南漳农排2台区【纯农排变】,刘村农排6台区【纯农排变】,刘村砖厂（小）,新乡综合1台区,随东农排7台区【纯农排变】,547线宋庄综合2台区,新乡综合2台区,刘村农排22台区【纯农排变】,随东农排16台区【纯农排变】,天祥化工厂,随东综合3台区,随东农排11台区【纯农排变】,随东综合2台区,随东综合12台区,新乡综合9台区,新乡站变,变压器,随东综合5台区,随东农排1台区【纯农排变】,随东综合8台区,刘村综合15台区,新乡农排8台区【纯农排变】,南漳综合3台区,刘村农排11台区【纯农排变】,刘村农排13台区【纯农排变】,刘村农排14台区【纯农排变】,陈村农排10台区【纯农排变】,刘村综合5台区,刘村综合7台区,刘村农排15台区【纯农排变】,随东综合7台区,蠡县宇大房地产开发有限公司变压器,刘村农排1台区【纯农排变】,南漳农排4台区【纯农排变】,新乡综合6台区,新乡综合7台区,宋庄农排3台区【纯农排变】,刘村农排17台区【纯农排变】,随东综合14台区,新乡农排9台区【纯农排变】,蠡县中小麻山药专业合作社,刘村农排18台区【纯农排变】,随东东面粉厂,刘村综合11台区,刘村综合8台区,新乡综合11台区,随东综合10台区,蠡县工商行政管理局蠡州工商分局变压器,刘村农排10台区【纯农排变】,随东综合13台区,新乡面粉厂,刘村农排9台区【纯农排变】,刘村综合9台区,刘村农排16台区【纯农排变】,蠡县鑫宇纺纱厂变压器,刘村农排19台区【纯农排变】,刘村综合6台区,南漳综合2台区,蠡县新乡免烧砖厂变压器,北漳农排5台区【纯农排变】,刘村综合4台区,宋庄建军天鹅绒厂,新乡综合4台区,随东农排12台区【纯农排变】,新乡农排1台区【纯农排变】,刘村综合2台区,刘村农排5台区【纯农排变】,刘村农排20台区【纯农排变】,刘村综合14台区,刘村综合13台区,刘村砖厂（大）,北漳农排3台区【纯农排变】,刘村农排7台区【纯农排变】,随东农排15台区【纯农排变】,灵辉毛纺厂,宏阳毛纺厂,南漳农排1台区【纯农排变】,547线宋庄综合3台区,随东农排4台区【纯农排变】,547线宋庄综合1台区,刘村综合12台区,南漳综合1台区,刘村农排21台区【纯农排变】,东滑农排1台区【纯农排变】,新乡综合3台区,宋庄农排7台区【纯农排变】","poweroffReason":"【停电原因】由于站外开关掉闸导致１１０ＫＶ中滑变电站１０ＫＶ刘村５４７线路全线停电【变更送电】因抢修进度加快的原因，送电时间由１２:００变更为０９:００【发布渠道】通过９５５９８发布","powerTime":"2018-05-28 08:39:50","powerComm":"已送电","subsNo":"","lineNo":"","tgNo":"","tgName":null,"infoStatus":"1","orgName":"国网蠡县供电公司","typeName":null,"infoStatusName":null,"dateDay":null,"orgNos":null,"nowTime":null,"countyName":null,"streetName":null,"villageName":null,"roadName":null,"communityName":null,"tranName":null,"sdLineName":null,"cityCode":"1340616","cityName":"国网蠡县供电公司","provinceCode":null,"stopTime":"2018-05-28 09:00:06","powerType":"全部","powerOffArea":"【全线路停电】停刘村综合10台区,随东综合1台区,新乡综合10台区,新乡综合8台区,随东农排13台区【纯农排变】,随东农排17台区【纯农排变】,随东综合6台区,随东农排19台区【纯农排变】,随东农排14台区【纯农排变】,蠡县盛宇纺纱厂变压器,随东农排18台区【纯农排变】,随东农排6台区【纯农排变】,刘村农排2台区【纯农排变】,南漳综合4台区,随东农排5台区【纯农排变】,0683454741-保定市南水北调工程建设委员会办公室-专变-223624965-保定南水北调工程建设委员会办公室变压器,宋庄农排1台区【纯农排变】,刘村综合3台区,刘村农排4台区【纯农排变】,新乡综合5台区,随东农排8台区【纯农排变】,随东农排9台区【纯农排变】,刘村农排3台区【纯农排变】,宋庄农排8台区【纯农排变】,随中面粉厂,南漳村西塑料厂,刘村农排8台区【纯农排变】,刘村颗粒厂,保定朝雄电气化电力器材有限公司变压器,随东综合15台区,新乡农排2台区【纯农排变】,新乡农排3台区【纯农排变】,新乡农排4台区【纯农排变】,外贸冷冻厂,刘村农排12台区【纯农排变】,随东综合9台区,随东综合11台区,北漳农排15台区【纯农排变】,随东农排2台区【纯农排变】,随东综合4台区,刘村综合1台区,南漳农排2台区【纯农排变】,刘村农排6台区【纯农排变】,刘村砖厂（小）,新乡综合1台区,随东农排7台区【纯农排变】,547线宋庄综合2台区,新乡综合2台区,刘村农排22台区【纯农排变】,随东农排16台区【纯农排变】,天祥化工厂,随东综合3台区,随东农排11台区【纯农排变】,随东综合2台区,随东综合12台区,新乡综合9台区,新乡站变,变压器,随东综合5台区,随东农排1台区【纯农排变】,随东综合8台区,刘村综合15台区,新乡农排8台区【纯农排变】,南漳综合3台区,刘村农排11台区【纯农排变】,刘村农排13台区【纯农排变】,刘村农排14台区【纯农排变】,陈村农排10台区【纯农排变】,刘村综合5台区,刘村综合7台区,刘村农排15台区【纯农排变】,随东综合7台区,蠡县宇大房地产开发有限公司变压器,刘村农排1台区【纯农排变】,南漳农排4台区【纯农排变】,新乡综合6台区,新乡综合7台区,宋庄农排3台区【纯农排变】,刘村农排17台区【纯农排变】,随东综合14台区,新乡农排9台区【纯农排变】,蠡县中小麻山药专业合作社,刘村农排18台区【纯农排变】,随东东面粉厂,刘村综合11台区,刘村综合8台区,新乡综合11台区,随东综合10台区,蠡县工商行政管理局蠡州工商分局变压器,刘村农排10台区【纯农排变】,随东综合13台区,新乡面粉厂,刘村农排9台区【纯农排变】,刘村综合9台区,刘村农排16台区【纯农排变】,蠡县鑫宇纺纱厂变压器,刘村农排19台区【纯农排变】,刘村综合6台区,南漳综合2台区,蠡县新乡免烧砖厂变压器,北漳农排5台区【纯农排变】,刘村综合4台区,宋庄建军天鹅绒厂,新乡综合4台区,随东农排12台区【纯农排变】,新乡农排1台区【纯农排变】,刘村综合2台区,刘村农排5台区【纯农排变】,刘村农排20台区【纯农排变】,刘村综合14台区,刘村综合13台区,刘村砖厂（大）,北漳农排3台区【纯农排变】,刘村农排7台区【纯农排变】,随东农排15台区【纯农排变】,灵辉毛纺厂,宏阳毛纺厂,南漳农排1台区【纯农排变】,547线宋庄综合3台区,随东农排4台区【纯农排变】,547线宋庄综合1台区,刘村综合12台区,南漳综合1台区,刘村农排21台区【纯农排变】,东滑农排1台区【纯农排变】,新乡综合3台区,宋庄农排7台区【纯农排变】","powerOffReason":"【停电原因】由于站外开关掉闸导致１１０ＫＶ中滑变电站１０ＫＶ刘村５４７线路全线停电【变更送电】因抢修进度加快的原因，送电时间由１２:００变更为０９:００【发布渠道】通过９５５９８发布","powerOffId":"2018052813000059"},{"poweroffId":2018052813000052,"sgpoweroffId":null,"subsName":"","lineName":"迁民庄514电力电缆","pubTranName":"迁民供电所,徐水县双凯汽车检测服务有限公司,0469275689-徐水县兴华铸造有限公司-专变-46770239-徐水县兴华铸造有限公司3号,徐水县兴华铸造有限公司5号,徐水县兴华铸造有限公司6号,0656742112-徐水县兴华铸造有限公司-专变-187319561-徐水县兴华铸造有限公司,徐水县兴华铸造有限公司,0681013434-河北晨阳工贸集团有限公司-专变-219719681-河北晨阳工贸集团有限公司,0682607779-徐水县兴华铸造有限公司-专变-221299945-徐水县兴华铸造有限公司,河北鑫佳铸造有限公司2号变,","scope":"【影响街道/乡镇】安肃镇 【高危重要客户】无 【影响客户】迁民庄村","startTime":"2018-05-28 08:00:55","stopDate":"2018-05-28 18:00:00","orgNo":"1340605","typeCode":"电网故障停限电","poweroffArea":"【全线路停电】停徐水县兴华铸造有限公司6号,徐水县双凯汽车检测服务有限公司,徐水县兴华铸造有限公司5号,0656742112-徐水县兴华铸造有限公司-专变-187319561-徐水县兴华铸造有限公司,河北鑫佳铸造有限公司2号变,0681013434-河北晨阳工贸集团有限公司-专变-219719681-河北晨阳工贸集团有限公司,迁民供电所,0682607779-徐水县兴华铸造有限公司-专变-221299945-徐水县兴华铸造有限公司,0469275689-徐水县兴华铸造有限公司-专变-46770239-徐水县兴华铸造有限公司3号,徐水县兴华铸造有限公司","poweroffReason":"【停电原因】由于Ｂ相接地导致１１０ＫＶ下河西变电站迁民庄５１４线路全线停电 【变更送电】无 【发布渠道】通过９５５９８发布","powerTime":"2018-05-28 13:00:48","powerComm":"已送电","subsNo":"","lineNo":"","tgNo":"","tgName":null,"infoStatus":"1","orgName":"国网徐水县供电公司","typeName":null,"infoStatusName":null,"dateDay":null,"orgNos":null,"nowTime":null,"countyName":null,"streetName":null,"villageName":null,"roadName":null,"communityName":null,"tranName":null,"sdLineName":null,"cityCode":"1340605","cityName":"国网徐水县供电公司","provinceCode":null,"stopTime":"2018-05-28 18:00:00","powerType":"全部","powerOffArea":"【全线路停电】停徐水县兴华铸造有限公司6号,徐水县双凯汽车检测服务有限公司,徐水县兴华铸造有限公司5号,0656742112-徐水县兴华铸造有限公司-专变-187319561-徐水县兴华铸造有限公司,河北鑫佳铸造有限公司2号变,0681013434-河北晨阳工贸集团有限公司-专变-219719681-河北晨阳工贸集团有限公司,迁民供电所,0682607779-徐水县兴华铸造有限公司-专变-221299945-徐水县兴华铸造有限公司,0469275689-徐水县兴华铸造有限公司-专变-46770239-徐水县兴华铸造有限公司3号,徐水县兴华铸造有限公司","powerOffReason":"【停电原因】由于Ｂ相接地导致１１０ＫＶ下河西变电站迁民庄５１４线路全线停电 【变更送电】无 【发布渠道】通过９５５９８发布","powerOffId":"2018052813000052"},{"poweroffId":2018052713000377,"sgpoweroffId":null,"subsName":"","lineName":"新发地533","pubTranName":"高碑店市路灯管理办公室变压器,河北路云乾房地产开发有限公司2变压器,高碑店市铁岩钢板桩有限公司,东盛温屯南变压器,党家营电能替代02号变压器,东盛杜家营北变压器,东盛杜家营北地变压器【纯农排变】,0575654804-高碑店市三义厚再生水建设有限公司-专变-123981594-汇通路桥建设集团有限公司变压器,东盛钱家营新1变压器,东盛冯漫撒东变压器【纯农排变】,隆基泰和实业有限公司,党家营电能替代04号变压器,河北阿苏尔门窗材料科技有限公司变压器,高碑店市栋梁实业有限公司变压器,0587148951-高碑店市人和物业服务有限公司-专变-125220608-汇通路桥建设集团昆仑房地产开发有限公司变压器,河北英泰环境工程有限公司,汇通路桥建设集团再生水建设有限公司2#变压器,东盛杜家营西变压器,河北路云乾房地产开发有限公司1变压器,党家营电能替代01号变压器,东盛杜家营南地变压器【纯农排变】,隆基泰和置业有限公司高碑店分公司,东盛温屯西变压器,东盛杜家营变压器,0586499061-高碑店市路灯管理办公室-专变-125125578-高碑店市路灯管理办公室变压器,党家营电能替代03号变压器,东盛党家营变压器,东盛温屯新一变压器,0387451512-河北英泰环境工程有限公司-专变-219728329-河北英泰环境工程有限公司2变压器,汇通路桥建设集团再生水建设有限公司1#变压器,东盛冯漫撒南变压器,河北鼎誉房地产开发有限公司400KVA变压器,东盛党家营南变压器,东盛党家营地变压器【纯农排变】,党家营电能替代05号变压器,高碑店市路灯管理办公室,新凯汽车集团有限公司,河北鼎誉房地产开发有限公司100KVA变压器,东盛国成玻璃变压器,汇通路桥建设集团有限公司变压器,0566910892汇通路桥变压器,高碑店市路灯管理办公室（世纪大道东侧）变压器,河北弘盛实业有限公司变压器,高碑店市建设局变压器,刘长军,","scope":"【影响街道/乡镇】东盛办事处 【高危重要客户】污水处理厂、新凯、汇通路桥 【影响客户】党家营村、杜家营村、钱家营村、隆泰物业、新凯汽车、明盛达、铁岩、阿苏尔门窗材料科技、弘盛实业、国成玻璃","startTime":"2018-05-27 22:53:05","stopDate":"2018-05-28 09:00:00","orgNo":"1340612","typeCode":"电网故障停限电","poweroffArea":"【全线路停电】停党家营电能替代04号变压器,高碑店市栋梁实业有限公司变压器,0566910892汇通路桥变压器,新凯汽车集团有限公司,高碑店市建设局变压器,隆基泰和实业有限公司,隆基泰和置业有限公司高碑店分公司,汇通路桥建设集团再生水建设有限公司1#变压器,高碑店市路灯管理办公室（世纪大道东侧）变压器,东盛温屯新一变压器,党家营电能替代05号变压器,东盛国成玻璃变压器,东盛温屯南变压器,刘长军,党家营电能替代03号变压器,党家营电能替代02号变压器,0575654804-高碑店市三义厚再生水建设有限公司-专变-123981594-汇通路桥建设集团有限公司变压器,东盛杜家营北地变压器【纯农排变】,0587148951-高碑店市人和物业服务有限公司-专变-125220608-汇通路桥建设集团昆仑房地产开发有限公司变压器,汇通路桥建设集团再生水建设有限公司2#变压器,高碑店市路灯管理办公室,河北英泰环境工程有限公司,东盛杜家营变压器,东盛杜家营西变压器,高碑店市铁岩钢板桩有限公司,高碑店市路灯管理办公室变压器,汇通路桥建设集团有限公司变压器,东盛党家营地变压器【纯农排变】,东盛杜家营北变压器,东盛温屯西变压器,东盛党家营南变压器,河北鼎誉房地产开发有限公司100KVA变压器,东盛党家营变压器,河北鼎誉房地产开发有限公司400KVA变压器,0387451512-河北英泰环境工程有限公司-专变-219728329-河北英泰环境工程有限公司2变压器,东盛冯漫撒东变压器【纯农排变】,东盛钱家营新1变压器,东盛杜家营南地变压器【纯农排变】,党家营电能替代01号变压器,东盛冯漫撒南变压器,河北弘盛实业有限公司变压器,河北路云乾房地产开发有限公司2变压器,河北阿苏尔门窗材料科技有限公司变压器,河北路云乾房地产开发有限公司1变压器,0586499061-高碑店市路灯管理办公室-专变-125125578-高碑店市路灯管理办公室变压器","poweroffReason":"【停电原因】由于过流Ｉ段跳闸导致１１０ＫＶ方官变电站１０ＫＶ新发地５３３线路全线停电 【变更送电】因抢修进度加快原因，送电时间由２８日１２：００变更为２８日０９：００ 【发布渠道】通过９５５９８发布","powerTime":"2018-05-28 08:33:57","powerComm":"已送电","subsNo":"","lineNo":"","tgNo":"","tgName":null,"infoStatus":"1","orgName":"国网高碑店市供电公司","typeName":null,"infoStatusName":null,"dateDay":null,"orgNos":null,"nowTime":null,"countyName":null,"streetName":null,"villageName":null,"roadName":null,"communityName":null,"tranName":null,"sdLineName":null,"cityCode":"1340612","cityName":"国网高碑店市供电公司","provinceCode":null,"stopTime":"2018-05-28 09:00:00","powerType":"全部","powerOffArea":"【全线路停电】停党家营电能替代04号变压器,高碑店市栋梁实业有限公司变压器,0566910892汇通路桥变压器,新凯汽车集团有限公司,高碑店市建设局变压器,隆基泰和实业有限公司,隆基泰和置业有限公司高碑店分公司,汇通路桥建设集团再生水建设有限公司1#变压器,高碑店市路灯管理办公室（世纪大道东侧）变压器,东盛温屯新一变压器,党家营电能替代05号变压器,东盛国成玻璃变压器,东盛温屯南变压器,刘长军,党家营电能替代03号变压器,党家营电能替代02号变压器,0575654804-高碑店市三义厚再生水建设有限公司-专变-123981594-汇通路桥建设集团有限公司变压器,东盛杜家营北地变压器【纯农排变】,0587148951-高碑店市人和物业服务有限公司-专变-125220608-汇通路桥建设集团昆仑房地产开发有限公司变压器,汇通路桥建设集团再生水建设有限公司2#变压器,高碑店市路灯管理办公室,河北英泰环境工程有限公司,东盛杜家营变压器,东盛杜家营西变压器,高碑店市铁岩钢板桩有限公司,高碑店市路灯管理办公室变压器,汇通路桥建设集团有限公司变压器,东盛党家营地变压器【纯农排变】,东盛杜家营北变压器,东盛温屯西变压器,东盛党家营南变压器,河北鼎誉房地产开发有限公司100KVA变压器,东盛党家营变压器,河北鼎誉房地产开发有限公司400KVA变压器,0387451512-河北英泰环境工程有限公司-专变-219728329-河北英泰环境工程有限公司2变压器,东盛冯漫撒东变压器【纯农排变】,东盛钱家营新1变压器,东盛杜家营南地变压器【纯农排变】,党家营电能替代01号变压器,东盛冯漫撒南变压器,河北弘盛实业有限公司变压器,河北路云乾房地产开发有限公司2变压器,河北阿苏尔门窗材料科技有限公司变压器,河北路云乾房地产开发有限公司1变压器,0586499061-高碑店市路灯管理办公室-专变-125125578-高碑店市路灯管理办公室变压器","powerOffReason":"【停电原因】由于过流Ｉ段跳闸导致１１０ＫＶ方官变电站１０ＫＶ新发地５３３线路全线停电 【变更送电】因抢修进度加快原因，送电时间由２８日１２：００变更为２８日０９：００ 【发布渠道】通过９５５９８发布","powerOffId":"2018052713000377"},{"poweroffId":2018052713000345,"sgpoweroffId":null,"subsName":"","lineName":"10kV西留518线","pubTranName":"西龙公用2#,","scope":"【影响街道/乡镇】北沙口乡 【高危重要客户】无 【影响客户】西龙","startTime":"2018-05-27 20:04:27","stopDate":"2018-05-27 22:00:00","orgNo":"1340624","typeCode":"电网故障停限电","poweroffArea":"【单台区停电】停西龙公用2#","poweroffReason":"【停电原因】由于低压刀闸烧毁导致３５ＫＶ北沙变电站１０ＫＶ西留线５１８线路西龙２号公变台区停电 【变更送电】无 【发布渠道】通过９５５９８发布　　　　　　　　","powerTime":"2018-05-27 21:00:13","powerComm":"已送电","subsNo":"","lineNo":"","tgNo":"","tgName":null,"infoStatus":"1","orgName":"(原)国网雄县供电公司","typeName":null,"infoStatusName":null,"dateDay":null,"orgNos":null,"nowTime":null,"countyName":null,"streetName":null,"villageName":null,"roadName":null,"communityName":null,"tranName":null,"sdLineName":null,"cityCode":"1340624","cityName":"(原)国网雄县供电公司","provinceCode":null,"stopTime":"2018-05-27 22:00:00","powerType":"全部","powerOffArea":"【单台区停电】停西龙公用2#","powerOffReason":"【停电原因】由于低压刀闸烧毁导致３５ＫＶ北沙变电站１０ＫＶ西留线５１８线路西龙２号公变台区停电 【变更送电】无 【发布渠道】通过９５５９８发布　　　　　　　　","powerOffId":"2018052713000345"},{"poweroffId":2018052713000303,"sgpoweroffId":null,"subsName":"","lineName":"10kV东闾北534线","pubTranName":"清苑鑫川崎起重机械有限公司,清苑县海源起重滑车厂,东吕蔡双柱配件加工,0387489795-保定东方机械有限公司-专变-45315218-保定东方机械有限公司,保定市东方机械有限公司,中国移动通信集团河北有限公司保定分公司,0554253899-河北凯澄起重机械有限公司-专变-87343247-河北凯澄起重机械有限公司,清苑东吕营业部,保定京鸽起重机械制造有限公司,河北怀鸽起重机械集团有限公司,东吕营头道东,河北辰力吊索具制造有限公司,东吕华欣起重设备公司,清苑鑫川崎起重机械制造有限公司,东吕三街内6,0478109058-东吕村委会二街-专变-46910849-东吕村委会二街,清苑县绍华起重机械厂,清苑冀力起重索具制造有限公司,东吕蔡克亮配件加工,东吕三街村西北,东吕张景跃配件加工,河北神力索具有限公司,东吕三街内7,1东吕二街内4,0598423133-清苑县博海起重机械厂-专变-126432923-清苑县博海起重机械厂,保定恒力起重机械厂有限公司,保定市华欣起重机械制造有限公司,东吕二街村北1,0600724043-河北神力索具集团有限公司-专变-126674060-河北神力索具有限公司,0646533346-保定源爱商贸有限公司-专变-169920345-保定源爱商贸有限公司,东吕乡政府,1东吕三街内4,清苑县天诚起重设备厂,东吕三街村北,清苑臣力起重吊索具制造有限公司1,东吕五花起重设备公司,东吕西一,保定起重运输设备厂,保定恒力起重机械有限公司,公路西,东吕二街内2,东吕三星配件厂,0387493091-清苑县神力起重机械厂-专变-45315425-清苑县神力起重机械厂,清苑县圣牌起重设备厂,清苑伟业起重机械制造有限公司,清苑县玉田起重设备有限公司,清苑县川岛起重机械制造有限公司,东吕三街内1,东吕中学,清苑县臣力起重吊索具制造有限公司,清苑县老山机械加工厂,清苑县神力起重机械厂,东吕苏满收配件加工,0387492740-清苑臣力起重吊索具制造有限公司-专变-45315205-清苑臣力起重吊索具制造有限公司,东吕崔新成配件加工,东吕苏佩中配件加工,东吕崔玉兴配件加工,1东吕二街内5,0387492258-清苑伟业起重机械制造有限公司-专变-208447447-清苑伟业起重机械制造有限公司,0598428268-清苑县津工机械有限公司-专变-126432828-清苑县津工机械有限公司,东吕教堂,0554488806-河北神力索具集团有限公司-专变-77785653-河北神力索具有限公司,东吕海鑫起重设备公司,神力起重,0666477592-保定市清苑区昱力特电力机具制造厂-专变-208302402-保定市清苑区昱力特电力机具制造厂,0387493075-中国电信股份有限公司保定分公司-专变-45315581-中国电信集团公司河北网络资产分公司,清苑县天诚起重机械设备有限公司,0387491255-东吕东一-专变-45315500-东吕东一,东吕二街村东,","scope":"【影响街道/乡镇】东吕乡 【高危重要客户】无 【影响客户】东吕三街村、东吕二街村","startTime":"2018-05-27 23:30:00","stopDate":"2018-05-28 05:30:00","orgNo":"1340618","typeCode":"其他临时停电","poweroffArea":"【全线路停电】停清苑县玉田起重设备有限公司,清苑鑫川崎起重机械有限公司,清苑县绍华起重机械厂,东吕二街村北1,清苑县川岛起重机械制造有限公司,0600724043-河北神力索具集团有限公司-专变-126674060-河北神力索具有限公司,清苑冀力起重索具制造有限公司,东吕三街内1,清苑县海源起重滑车厂,0646533346-保定源爱商贸有限公司-专变-169920345-保定源爱商贸有限公司,东吕蔡克亮配件加工,东吕中学,东吕蔡双柱配件加工,东吕三街村西北,0387489795-保定东方机械有限公司-专变-45315218-保定东方机械有限公司,东吕张景跃配件加工,东吕乡政府,清苑县臣力起重吊索具制造有限公司,保定市东方机械有限公司,河北神力索具有限公司,1东吕三街内4,东吕三街内7,中国移动通信集团河北有限公司保定分公司,清苑县神力起重机械厂,清苑县天诚起重设备厂,清苑县老山机械加工厂,0554253899-河北凯澄起重机械有限公司-专变-87343247-河北凯澄起重机械有限公司,1东吕二街内4,东吕三街村北,东吕苏满收配件加工,清苑东吕营业部,0598423133-清苑县博海起重机械厂-专变-126432923-清苑县博海起重机械厂,清苑臣力起重吊索具制造有限公司1,0387492740-清苑臣力起重吊索具制造有限公司-专变-45315205-清苑臣力起重吊索具制造有限公司,保定京鸽起重机械制造有限公司,东吕崔新成配件加工,东吕五花起重设备公司,东吕苏佩中配件加工,河北怀鸽起重机械集团有限公司,保定恒力起重机械厂有限公司,东吕西一,东吕崔玉兴配件加工,东吕教堂,保定市华欣起重机械制造有限公司,保定起重运输设备厂,神力起重,保定恒力起重机械有限公司,1东吕二街内5,公路西,0666477592-保定市清苑区昱力特电力机具制造厂-专变-208302402-保定市清苑区昱力特电力机具制造厂,东吕营头道东,0387492258-清苑伟业起重机械制造有限公司-专变-208447447-清苑伟业起重机械制造有限公司,东吕二街内2,0387493075-中国电信股份有限公司保定分公司-专变-45315581-中国电信集团公司河北网络资产分公司,河北辰力吊索具制造有限公司,0598428268-清苑县津工机械有限公司-专变-126432828-清苑县津工机械有限公司,东吕华欣起重设备公司,清苑县天诚起重机械设备有限公司,东吕三星配件厂,0554488806-河北神力索具集团有限公司-专变-77785653-河北神力索具有限公司,清苑鑫川崎起重机械制造有限公司,0387491255-东吕东一-专变-45315500-东吕东一,0387493091-清苑县神力起重机械厂-专变-45315425-清苑县神力起重机械厂,东吕海鑫起重设备公司,东吕三街内6,清苑县圣牌起重设备厂,东吕二街村东,清苑伟业起重机械制造有限公司,0478109058-东吕村委会二街-专变-46910849-东吕村委会二街","poweroffReason":"【停电原因】由于与本线路同杆架设的东闾西５３５线路发生电缆头过热故障，需本线路停电配合抢修导致１１０ＫＶ东闾变电站１０ＫＶ东闾北线５３４线路全线停电 【变更送电】无 【发布渠道】通过９５５９８发布","powerTime":"2018-05-28 04:31:03","powerComm":"李海娟通知已送电","subsNo":"","lineNo":"","tgNo":"","tgName":null,"infoStatus":"1","orgName":"国网清苑县供电公司","typeName":null,"infoStatusName":null,"dateDay":null,"orgNos":null,"nowTime":null,"countyName":null,"streetName":null,"villageName":null,"roadName":null,"communityName":null,"tranName":null,"sdLineName":null,"cityCode":"1340618","cityName":"国网清苑县供电公司","provinceCode":null,"stopTime":"2018-05-28 05:30:00","powerType":"全部","powerOffArea":"【全线路停电】停清苑县玉田起重设备有限公司,清苑鑫川崎起重机械有限公司,清苑县绍华起重机械厂,东吕二街村北1,清苑县川岛起重机械制造有限公司,0600724043-河北神力索具集团有限公司-专变-126674060-河北神力索具有限公司,清苑冀力起重索具制造有限公司,东吕三街内1,清苑县海源起重滑车厂,0646533346-保定源爱商贸有限公司-专变-169920345-保定源爱商贸有限公司,东吕蔡克亮配件加工,东吕中学,东吕蔡双柱配件加工,东吕三街村西北,0387489795-保定东方机械有限公司-专变-45315218-保定东方机械有限公司,东吕张景跃配件加工,东吕乡政府,清苑县臣力起重吊索具制造有限公司,保定市东方机械有限公司,河北神力索具有限公司,1东吕三街内4,东吕三街内7,中国移动通信集团河北有限公司保定分公司,清苑县神力起重机械厂,清苑县天诚起重设备厂,清苑县老山机械加工厂,0554253899-河北凯澄起重机械有限公司-专变-87343247-河北凯澄起重机械有限公司,1东吕二街内4,东吕三街村北,东吕苏满收配件加工,清苑东吕营业部,0598423133-清苑县博海起重机械厂-专变-126432923-清苑县博海起重机械厂,清苑臣力起重吊索具制造有限公司1,0387492740-清苑臣力起重吊索具制造有限公司-专变-45315205-清苑臣力起重吊索具制造有限公司,保定京鸽起重机械制造有限公司,东吕崔新成配件加工,东吕五花起重设备公司,东吕苏佩中配件加工,河北怀鸽起重机械集团有限公司,保定恒力起重机械厂有限公司,东吕西一,东吕崔玉兴配件加工,东吕教堂,保定市华欣起重机械制造有限公司,保定起重运输设备厂,神力起重,保定恒力起重机械有限公司,1东吕二街内5,公路西,0666477592-保定市清苑区昱力特电力机具制造厂-专变-208302402-保定市清苑区昱力特电力机具制造厂,东吕营头道东,0387492258-清苑伟业起重机械制造有限公司-专变-208447447-清苑伟业起重机械制造有限公司,东吕二街内2,0387493075-中国电信股份有限公司保定分公司-专变-45315581-中国电信集团公司河北网络资产分公司,河北辰力吊索具制造有限公司,0598428268-清苑县津工机械有限公司-专变-126432828-清苑县津工机械有限公司,东吕华欣起重设备公司,清苑县天诚起重机械设备有限公司,东吕三星配件厂,0554488806-河北神力索具集团有限公司-专变-77785653-河北神力索具有限公司,清苑鑫川崎起重机械制造有限公司,0387491255-东吕东一-专变-45315500-东吕东一,0387493091-清苑县神力起重机械厂-专变-45315425-清苑县神力起重机械厂,东吕海鑫起重设备公司,东吕三街内6,清苑县圣牌起重设备厂,东吕二街村东,清苑伟业起重机械制造有限公司,0478109058-东吕村委会二街-专变-46910849-东吕村委会二街","powerOffReason":"【停电原因】由于与本线路同杆架设的东闾西５３５线路发生电缆头过热故障，需本线路停电配合抢修导致１１０ＫＶ东闾变电站１０ＫＶ东闾北线５３４线路全线停电 【变更送电】无 【发布渠道】通过９５５９８发布","powerOffId":"2018052713000303"},{"poweroffId":2018052713000301,"sgpoweroffId":null,"subsName":"","lineName":"10kV东闾西535线","pubTranName":"河北庆泰起重机械制造有限公司,保定巨鹰起重机械制造有限公司1,0387489867-河北东特起重机械制造有限公司-专变-45315515-清苑县腾飞起重设备厂,清苑县东吕小康链条加工厂,张树昌配件加工厂,东吕二街内1,清苑县旭光起重机械配件厂,东吕李长龙配件加工,0387490470-河北佳力起重索具制造有限公司-专变-45315520-清苑县威龙起重机械有限公司1,天航机械,东吕村委会,东吕一街内3,保定三龙起重机械有限公司,东吕杜大青配件加工,东吕东二,东吕一街内5,东吕苏立成配件加工,1东吕二街内6,清苑县天航机械有限公司2,巨鹰起重,清苑县超凡起重设备厂,清苑县北极星起重机械厂,清苑县龙腾配件厂,河北巨人起重机械有限公司,河北双业起重机械有限公司,保定庆泰起重机械制造有限公司,0387491893-清苑县巨力起重机械有限公司-专变-192915897-清苑县洪飞链条厂,0555744594-东吕村委会-专变-94729171-东吕村委会,0387491196-东吕东三-专变-45315502-东吕东三,东吕一街内1,0387491806-河北东特起重机械制造有限公司-专变-45315516-东吕王凤池配件加工,清苑县天航机械有限公司1,东吕一街内2,0575136047-清苑县威龙起重机械有限公司-专变-123928961-清苑县威龙起重机械有限公司,0549287867-清苑县伟力起重机械制造有限公司-专变-175498337-清苑县伟力起重机械制造有限公司,清苑县鸣宇起重设备厂,清苑县东闾水厂,保定诚然起重机械制造有限公司,清苑县五环起重机械制造有限公司,0575136047-清苑县威龙起重机械有限公司-专变-123928567-清苑县威龙起重机械有限公司,保定安泰起重机械有限公司,保定市清苑区艾菲特起重机械厂,东吕东八,金龙手拉葫芦配件厂,0575136047-清苑县威龙起重机械有限公司-专变-123928595-清苑县威龙起重机械有限公司,清苑县威龙起重机械有限公司,河北巨威起重机械制造有限公司,东吕苏占良配件加工,东吕二街野外,保定三友忠诚起重机械有限公司,东吕果园,杭州双力起重机械有限公司清苑分公司,清苑县新宇起重机械有限公司,保定市清苑区东闾乡小天使幼儿园,清苑县威腾起重设备制造有限公,河北凯澄起重机械有限公司,东吕二街内3,河北维大力起重设备制造有限公司,东吕二街村外,清苑县伟力起重机械制造有限公司东吕分公司,","scope":"【影响街道/乡镇】东吕乡 【高危重要客户】无 【影响客户】东吕一街村、东吕二街村","startTime":"2018-05-27 23:30:00","stopDate":"2018-05-28 05:30:00","orgNo":"1340618","typeCode":"其他临时停电","poweroffArea":"【全线路停电】停保定市清苑区艾菲特起重机械厂,保定三龙起重机械有限公司,0555744594-东吕村委会-专变-94729171-东吕村委会,东吕杜大青配件加工,东吕李长龙配件加工,东吕东八,0387491196-东吕东三-专变-45315502-东吕东三,东吕东二,0387490470-河北佳力起重索具制造有限公司-专变-45315520-清苑县威龙起重机械有限公司1,金龙手拉葫芦配件厂,东吕一街内5,东吕苏立成配件加工,0575136047-清苑县威龙起重机械有限公司-专变-123928595-清苑县威龙起重机械有限公司,东吕一街内1,1东吕二街内6,河北庆泰起重机械制造有限公司,清苑县威龙起重机械有限公司,保定巨鹰起重机械制造有限公司1,河北巨威起重机械制造有限公司,0387491806-河北东特起重机械制造有限公司-专变-45315516-东吕王凤池配件加工,清苑县天航机械有限公司2,清苑县天航机械有限公司1,东吕苏占良配件加工,0387489867-河北东特起重机械制造有限公司-专变-45315515-清苑县腾飞起重设备厂,巨鹰起重,东吕一街内2,东吕二街野外,清苑县东吕小康链条加工厂,清苑县超凡起重设备厂,0575136047-清苑县威龙起重机械有限公司-专变-123928961-清苑县威龙起重机械有限公司,保定三友忠诚起重机械有限公司,张树昌配件加工厂,东吕果园,0549287867-清苑县伟力起重机械制造有限公司-专变-175498337-清苑县伟力起重机械制造有限公司,杭州双力起重机械有限公司清苑分公司,清苑县鸣宇起重设备厂,清苑县新宇起重机械有限公司,东吕二街内1,清苑县北极星起重机械厂,清苑县东闾水厂,保定市清苑区东闾乡小天使幼儿园,清苑县旭光起重机械配件厂,清苑县威腾起重设备制造有限公,清苑县龙腾配件厂,河北凯澄起重机械有限公司,河北巨人起重机械有限公司,天航机械,保定诚然起重机械制造有限公司,河北双业起重机械有限公司,东吕村委会,东吕二街内3,河北维大力起重设备制造有限公司,清苑县五环起重机械制造有限公司,保定庆泰起重机械制造有限公司,东吕一街内3,东吕二街村外,清苑县伟力起重机械制造有限公司东吕分公司,0575136047-清苑县威龙起重机械有限公司-专变-123928567-清苑县威龙起重机械有限公司,0387491893-清苑县巨力起重机械有限公司-专变-192915897-清苑县洪飞链条厂,保定安泰起重机械有限公司","poweroffReason":"【停电原因】由于主干６２号杆电缆头过热，需停电进行紧急抢修导致１１０ＫＶ东闾变电站１０ＫＶ东闾西线５３５线路全线停电 【变更送电】无 【发布渠道】通过９５５９８发布","powerTime":"2018-05-28 04:31:38","powerComm":"李海娟通知已送电","subsNo":"","lineNo":"","tgNo":"","tgName":null,"infoStatus":"1","orgName":"国网清苑县供电公司","typeName":null,"infoStatusName":null,"dateDay":null,"orgNos":null,"nowTime":null,"countyName":null,"streetName":null,"villageName":null,"roadName":null,"communityName":null,"tranName":null,"sdLineName":null,"cityCode":"1340618","cityName":"国网清苑县供电公司","provinceCode":null,"stopTime":"2018-05-28 05:30:00","powerType":"全部","powerOffArea":"【全线路停电】停保定市清苑区艾菲特起重机械厂,保定三龙起重机械有限公司,0555744594-东吕村委会-专变-94729171-东吕村委会,东吕杜大青配件加工,东吕李长龙配件加工,东吕东八,0387491196-东吕东三-专变-45315502-东吕东三,东吕东二,0387490470-河北佳力起重索具制造有限公司-专变-45315520-清苑县威龙起重机械有限公司1,金龙手拉葫芦配件厂,东吕一街内5,东吕苏立成配件加工,0575136047-清苑县威龙起重机械有限公司-专变-123928595-清苑县威龙起重机械有限公司,东吕一街内1,1东吕二街内6,河北庆泰起重机械制造有限公司,清苑县威龙起重机械有限公司,保定巨鹰起重机械制造有限公司1,河北巨威起重机械制造有限公司,0387491806-河北东特起重机械制造有限公司-专变-45315516-东吕王凤池配件加工,清苑县天航机械有限公司2,清苑县天航机械有限公司1,东吕苏占良配件加工,0387489867-河北东特起重机械制造有限公司-专变-45315515-清苑县腾飞起重设备厂,巨鹰起重,东吕一街内2,东吕二街野外,清苑县东吕小康链条加工厂,清苑县超凡起重设备厂,0575136047-清苑县威龙起重机械有限公司-专变-123928961-清苑县威龙起重机械有限公司,保定三友忠诚起重机械有限公司,张树昌配件加工厂,东吕果园,0549287867-清苑县伟力起重机械制造有限公司-专变-175498337-清苑县伟力起重机械制造有限公司,杭州双力起重机械有限公司清苑分公司,清苑县鸣宇起重设备厂,清苑县新宇起重机械有限公司,东吕二街内1,清苑县北极星起重机械厂,清苑县东闾水厂,保定市清苑区东闾乡小天使幼儿园,清苑县旭光起重机械配件厂,清苑县威腾起重设备制造有限公,清苑县龙腾配件厂,河北凯澄起重机械有限公司,河北巨人起重机械有限公司,天航机械,保定诚然起重机械制造有限公司,河北双业起重机械有限公司,东吕村委会,东吕二街内3,河北维大力起重设备制造有限公司,清苑县五环起重机械制造有限公司,保定庆泰起重机械制造有限公司,东吕一街内3,东吕二街村外,清苑县伟力起重机械制造有限公司东吕分公司,0575136047-清苑县威龙起重机械有限公司-专变-123928567-清苑县威龙起重机械有限公司,0387491893-清苑县巨力起重机械有限公司-专变-192915897-清苑县洪飞链条厂,保定安泰起重机械有限公司","powerOffReason":"【停电原因】由于主干６２号杆电缆头过热，需停电进行紧急抢修导致１１０ＫＶ东闾变电站１０ＫＶ东闾西线５３５线路全线停电 【变更送电】无 【发布渠道】通过９５５９８发布","powerOffId":"2018052713000301"},{"poweroffId":2018052713000294,"sgpoweroffId":null,"subsName":"","lineName":"10kV祝泽站519线路","pubTranName":"B364柱上变压器,","scope":"【影响街道/乡镇】三丰路 【高危重要客户】无 【影响客户】北刘各庄、粮库宿舍","startTime":"2018-05-27 16:00:00","stopDate":"2018-05-27 19:00:00","orgNo":"13406","typeCode":"电网故障停限电","poweroffArea":"【单台区停电】停B364柱上变压器","poweroffReason":"【停电原因】由于换低压架空线导致１０ＫＶ祝泽变电站５１９线路Ｂ３６４公变台区停电【变更送电】无【发布渠道】通过９５５９８发布","powerTime":"2018-05-27 18:14:57","powerComm":"已送电","subsNo":"","lineNo":"","tgNo":"","tgName":null,"infoStatus":"1","orgName":"保定供电公司","typeName":null,"infoStatusName":null,"dateDay":null,"orgNos":null,"nowTime":null,"countyName":null,"streetName":null,"villageName":null,"roadName":null,"communityName":null,"tranName":null,"sdLineName":null,"cityCode":"13406","cityName":"保定供电公司","provinceCode":null,"stopTime":"2018-05-27 19:00:00","powerType":"全部","powerOffArea":"【单台区停电】停B364柱上变压器","powerOffReason":"【停电原因】由于换低压架空线导致１０ＫＶ祝泽变电站５１９线路Ｂ３６４公变台区停电【变更送电】无【发布渠道】通过９５５９８发布","powerOffId":"2018052713000294"}],"pageModel":{"pageNow":1067,"totalCount":10973,"totalPage":1098,"tableRows":0,"pageCount":10,"beginCount":10660},"isExperi":"1"}