{"message":"","today":"2020-06-15","seleList":[{"poweroffId":2018052713000289,"sgpoweroffId":null,"subsName":"","lineName":"下河西线516","pubTranName":"10kV516下河西线下河西供84号,","scope":"【影响街道/乡镇】史端乡 【高危重要客户】无 【影响客户】下河西村","startTime":"2018-05-27 15:50:41","stopDate":"2018-05-27 18:00:00","orgNo":"1340605","typeCode":"电网故障停限电","poweroffArea":"【单台区停电】停10kV516下河西线下河西供84号","poweroffReason":"【停电原因】由于变压器低压保险片烧毁导致３５ＫＶ下河西变电站下河西线５１６线路下河西供８４号公变台区停电 【变更送电】因抢修进度加快原因，送电时间由２０：００变更为１８：００ 【发布渠道】通过９５５９８发布","powerTime":"2018-05-27 17:30:02","powerComm":"已送电","subsNo":"","lineNo":"","tgNo":"","tgName":null,"infoStatus":"1","orgName":"国网徐水县供电公司","typeName":null,"infoStatusName":null,"dateDay":null,"orgNos":null,"nowTime":null,"countyName":null,"streetName":null,"villageName":null,"roadName":null,"communityName":null,"tranName":null,"sdLineName":null,"cityCode":"1340605","cityName":"国网徐水县供电公司","provinceCode":null,"stopTime":"2018-05-27 18:00:00","powerType":"全部","powerOffArea":"【单台区停电】停10kV516下河西线下河西供84号","powerOffReason":"【停电原因】由于变压器低压保险片烧毁导致３５ＫＶ下河西变电站下河西线５１６线路下河西供８４号公变台区停电 【变更送电】因抢修进度加快原因，送电时间由２０：００变更为１８：００ 【发布渠道】通过９５５９８发布","powerOffId":"2018052713000289"},{"poweroffId":2018052713000286,"sgpoweroffId":null,"subsName":"","lineName":"石井工业线526","pubTranName":"吉明包装有限公司,刘占祥肠衣厂,满城县吉明包装有限公司,振华纸厂,刘喜顺,东江包装厂,玉龙矿产制品厂,西于河村西（统管）,刘喜顺井,东于河路口（统管）,西于河联合井,韩庄抬水,长青纸箱厂,占文养鸡厂,西于河村内（统管）,保定沃森肥料制造有限公司,东于河纸箱厂,韩庄新增（统管）,石井山嘴停车场,西于河大道南,西于河村南,保定市满城区市政维护管理处,宏安包装公司,西于河村东,金利包装有限公司变压器,慧丽纸箱厂,西于河纤维厂,满城县友益建材厂,杨佐供电所（统管）,大久集团,石井兴建纸箱厂,西于河村北新增（统管）,西于河2队石厂,国强国业专业合作社,韩庄路边（统管）,","scope":"【影响街道/乡镇】石井乡、满城镇 【高危重要客户】无 【影响客户】西于河村、韩庄村","startTime":"2018-05-29 08:00:00","stopDate":"2018-05-29 18:00:00","orgNo":"1340617","typeCode":"临时停电","poweroffArea":"【全线路停电】停韩庄路边（统管）,长青纸箱厂,占文养鸡厂,刘喜顺井,满城县友益建材厂,宏安包装公司,大久集团,西于河村内（统管）,西于河村南,慧丽纸箱厂,东于河路口（统管）,西于河村北新增（统管）,东于河纸箱厂,西于河村东,杨佐供电所（统管）,吉明包装有限公司,满城县吉明包装有限公司,西于河纤维厂,玉龙矿产制品厂,石井山嘴停车场,西于河联合井,西于河村西（统管）,保定市满城区市政维护管理处,刘喜顺,金利包装有限公司变压器,保定沃森肥料制造有限公司,石井兴建纸箱厂,西于河大道南,韩庄新增（统管）,西于河2队石厂,韩庄抬水,东江包装厂,振华纸厂,刘占祥肠衣厂,国强国业专业合作社","poweroffReason":"【停电原因】由于配合政府施工导致１１０ＫＶ杨佐变电站石井工业线５２６线路全线停电 【变更送电】无 【发布渠道】９５５９８","powerTime":"2018-05-29 17:28:49","powerComm":"已送电","subsNo":"","lineNo":"","tgNo":"","tgName":null,"infoStatus":"1","orgName":"国网满城县供电公司","typeName":null,"infoStatusName":null,"dateDay":null,"orgNos":null,"nowTime":null,"countyName":null,"streetName":null,"villageName":null,"roadName":null,"communityName":null,"tranName":null,"sdLineName":null,"cityCode":"1340617","cityName":"国网满城县供电公司","provinceCode":null,"stopTime":"2018-05-29 18:00:00","powerType":"全部","powerOffArea":"【全线路停电】停韩庄路边（统管）,长青纸箱厂,占文养鸡厂,刘喜顺井,满城县友益建材厂,宏安包装公司,大久集团,西于河村内（统管）,西于河村南,慧丽纸箱厂,东于河路口（统管）,西于河村北新增（统管）,东于河纸箱厂,西于河村东,杨佐供电所（统管）,吉明包装有限公司,满城县吉明包装有限公司,西于河纤维厂,玉龙矿产制品厂,石井山嘴停车场,西于河联合井,西于河村西（统管）,保定市满城区市政维护管理处,刘喜顺,金利包装有限公司变压器,保定沃森肥料制造有限公司,石井兴建纸箱厂,西于河大道南,韩庄新增（统管）,西于河2队石厂,韩庄抬水,东江包装厂,振华纸厂,刘占祥肠衣厂,国强国业专业合作社","powerOffReason":"【停电原因】由于配合政府施工导致１１０ＫＶ杨佐变电站石井工业线５２６线路全线停电 【变更送电】无 【发布渠道】９５５９８","powerOffId":"2018052713000286"},{"poweroffId":2018052713000283,"sgpoweroffId":null,"subsName":"","lineName":"10kV东官庄557","pubTranName":"北南租村北专变压器【纯农排变】,南瓦宅村东混变压器,北瓦宅村北2台区,王各庄村北专变压器【纯农排变】,南瓦宅村西北台区,北汝河村北专2台区【纯农排变】,华恒商贸有限公司100KVA专变,北南租村西混变压器,东南租村东新,曹家庄村东北,城西污水处理,南瓦宅村北混变压器,训林灰厂2,南互通收费站,司徒村内专50,训林灰粉厂,涞水县国土资源局新增100KVA变压器,南瓦宅村内混变压器,司徒村内2,涞水中港电子科技有限公司200KVA专变,张家洼村东台区,0619340779-涞水县圣鑫石灰厂-专变-128938100-圣鑫石灰厂200KVA专变,南瓦宅村西2台区,南瓦宅村西北2台区,曹家庄村东混,东南租村南3台区,司徒村东北|0827【纯农排变】,董家庄村东北专变压器【纯农排变】,南秋兰村南台区,司徒村东南1台区【纯农排变】,西南租村内混变压器,司徒村北专变压器,0469096675-东明义面粉厂-专变-46718866-东明义面粉厂,北瓦宅村西混变压器,陶立厂,东南租东南专变压器,北瓦宅面粉厂,西南租村内新建,司徒村东50专,东南租村南专【纯农排变】,南瓦宅村西专变压器【纯农排变】,东南租村东混变压器,董家庄村南,南瓦宅学校台区,北瓦宅村西北混变压器,南秋兰村西混变压器,河北涞博传动机械制造有限公司250KVA 专变,瓦宅100KVA路灯变,北南租村北2,北瓦宅村北混变压器,0627226874-河北涞博传动机械制造有限公司-专变-139258158-涞博传动机械制造有限公司250KVA变压器专变,董家庄村东南专【纯农排变】,北瓦宅村东北变压器,北南租村北混变压器,司徒村内100,南瓦宅村内2,董家庄村西混,董家庄村东专【纯农排变】,北京公交集团资产管理涞水有限公司315KVA专变,张家洼村南混用变压器,南秋兰村北混变压器,司徒村东混用台区,南瓦宅村西南专【纯农排变】,司徒村南混变压器,司徒村内50,南瓦宅东北专变压器,张志安机井,南秋兰村东混变压器,北瓦宅村西2变压器【纯农排变】,西南租村西台区,西南租村东混变压器,北封村内变压器,涞水京涞易轻200KVA专变,南瓦宅村北2台区,南瓦宅村西混变压器,董家庄村东混,封村100KVA路灯变,北瓦宅村东混变压器,张家洼村北混用变压器,司徒村东200【纯农排变】,变压器,南瓦宅村南混变压器,东南租村内台区,北瓦宅村内混变压器,张志安灰粉厂,","scope":"【影响街道/乡镇】涞水镇、明义乡、胡家庄乡 【高危重要客户】无 【影响客户】南瓦宅村、北瓦宅村、南郭下村、欧美亚附近、南秋兰村、北封村、张家洼村、北南租村、东南租村、西南租村、曹家庄村、司徒村、董家庄村、王各庄村","startTime":"2018-05-27 15:30:26","stopDate":"2018-05-27 18:00:00","orgNo":"1340614","typeCode":"电网故障停限电","poweroffArea":"【全线路停电】停北南租村北专变压器【纯农排变】,南瓦宅村东混变压器,北瓦宅村北2台区,南瓦宅村内2,董家庄村西混,王各庄村北专变压器【纯农排变】,南瓦宅村西北台区,瓦宅100KVA路灯变,北汝河村北专2台区【纯农排变】,北南租村北2,华恒商贸有限公司100KVA专变,北瓦宅村北混变压器,北南租村西混变压器,0627226874-河北涞博传动机械制造有限公司-专变-139258158-涞博传动机械制造有限公司250KVA变压器专变,董家庄村东南专【纯农排变】,南秋兰村西混变压器,北瓦宅村东北变压器,河北涞博传动机械制造有限公司250KVA 专变,北南租村北混变压器,司徒村东北|0827【纯农排变】,司徒村内100,董家庄村东北专变压器【纯农排变】,董家庄村东专【纯农排变】,南秋兰村南台区,北京公交集团资产管理涞水有限公司315KVA专变,司徒村东南1台区【纯农排变】,张家洼村南混用变压器,西南租村内混变压器,南秋兰村北混变压器,东南租村东新,司徒村东混用台区,南瓦宅村西南专【纯农排变】,曹家庄村东北,司徒村南混变压器,司徒村北专变压器,司徒村内50,0469096675-东明义面粉厂-专变-46718866-东明义面粉厂,北瓦宅村西混变压器,南瓦宅东北专变压器,城西污水处理,张志安机井,南瓦宅村北混变压器,南秋兰村东混变压器,训林灰厂2,北瓦宅村西2变压器【纯农排变】,南互通收费站,西南租村西台区,司徒村内专50,西南租村东混变压器,训林灰粉厂,北瓦宅村东混变压器,涞水县国土资源局新增100KVA变压器,张家洼村北混用变压器,南瓦宅村内混变压器,北封村内变压器,司徒村内2,涞水京涞易轻200KVA专变,涞水中港电子科技有限公司200KVA专变,南瓦宅村北2台区,张家洼村东台区,南瓦宅村西混变压器,0619340779-涞水县圣鑫石灰厂-专变-128938100-圣鑫石灰厂200KVA专变,董家庄村东混,南瓦宅村西2台区,封村100KVA路灯变,南瓦宅村西北2台区,陶立厂,东南租东南专变压器,北瓦宅村内混变压器,北瓦宅面粉厂,张志安灰粉厂,西南租村内新建,司徒村东50专,司徒村东200【纯农排变】,东南租村南专【纯农排变】,变压器,南瓦宅村西专变压器【纯农排变】,南瓦宅村南混变压器,东南租村东混变压器,董家庄村南,东南租村内台区,曹家庄村东混,东南租村南3台区,南瓦宅学校台区,北瓦宅村西北混变压器","poweroffReason":"【停电原因】由于工程车撞断线路导致１１０ＫＶ郭下变电站１０ＫＶ东官庄５５７线路全线停电 【变更送电】无 【发布渠道】通过９５５９８发布","powerTime":"2018-05-27 17:03:52","powerComm":"已送电","subsNo":"","lineNo":"","tgNo":"","tgName":null,"infoStatus":"1","orgName":"国网涞水县供电公司","typeName":null,"infoStatusName":null,"dateDay":null,"orgNos":null,"nowTime":null,"countyName":null,"streetName":null,"villageName":null,"roadName":null,"communityName":null,"tranName":null,"sdLineName":null,"cityCode":"1340614","cityName":"国网涞水县供电公司","provinceCode":null,"stopTime":"2018-05-27 18:00:00","powerType":"全部","powerOffArea":"【全线路停电】停北南租村北专变压器【纯农排变】,南瓦宅村东混变压器,北瓦宅村北2台区,南瓦宅村内2,董家庄村西混,王各庄村北专变压器【纯农排变】,南瓦宅村西北台区,瓦宅100KVA路灯变,北汝河村北专2台区【纯农排变】,北南租村北2,华恒商贸有限公司100KVA专变,北瓦宅村北混变压器,北南租村西混变压器,0627226874-河北涞博传动机械制造有限公司-专变-139258158-涞博传动机械制造有限公司250KVA变压器专变,董家庄村东南专【纯农排变】,南秋兰村西混变压器,北瓦宅村东北变压器,河北涞博传动机械制造有限公司250KVA 专变,北南租村北混变压器,司徒村东北|0827【纯农排变】,司徒村内100,董家庄村东北专变压器【纯农排变】,董家庄村东专【纯农排变】,南秋兰村南台区,北京公交集团资产管理涞水有限公司315KVA专变,司徒村东南1台区【纯农排变】,张家洼村南混用变压器,西南租村内混变压器,南秋兰村北混变压器,东南租村东新,司徒村东混用台区,南瓦宅村西南专【纯农排变】,曹家庄村东北,司徒村南混变压器,司徒村北专变压器,司徒村内50,0469096675-东明义面粉厂-专变-46718866-东明义面粉厂,北瓦宅村西混变压器,南瓦宅东北专变压器,城西污水处理,张志安机井,南瓦宅村北混变压器,南秋兰村东混变压器,训林灰厂2,北瓦宅村西2变压器【纯农排变】,南互通收费站,西南租村西台区,司徒村内专50,西南租村东混变压器,训林灰粉厂,北瓦宅村东混变压器,涞水县国土资源局新增100KVA变压器,张家洼村北混用变压器,南瓦宅村内混变压器,北封村内变压器,司徒村内2,涞水京涞易轻200KVA专变,涞水中港电子科技有限公司200KVA专变,南瓦宅村北2台区,张家洼村东台区,南瓦宅村西混变压器,0619340779-涞水县圣鑫石灰厂-专变-128938100-圣鑫石灰厂200KVA专变,董家庄村东混,南瓦宅村西2台区,封村100KVA路灯变,南瓦宅村西北2台区,陶立厂,东南租东南专变压器,北瓦宅村内混变压器,北瓦宅面粉厂,张志安灰粉厂,西南租村内新建,司徒村东50专,司徒村东200【纯农排变】,东南租村南专【纯农排变】,变压器,南瓦宅村西专变压器【纯农排变】,南瓦宅村南混变压器,东南租村东混变压器,董家庄村南,东南租村内台区,曹家庄村东混,东南租村南3台区,南瓦宅学校台区,北瓦宅村西北混变压器","powerOffReason":"【停电原因】由于工程车撞断线路导致１１０ＫＶ郭下变电站１０ＫＶ东官庄５５７线路全线停电 【变更送电】无 【发布渠道】通过９５５９８发布","powerOffId":"2018052713000283"},{"poweroffId":2018052713000227,"sgpoweroffId":null,"subsName":"","lineName":"10kV589南庞线","pubTranName":"西白亭1号,徐水县轩雅食品有限公司计量点,南庞5号,格润工贸有限公司,大刘庄13号,小刘庄3号【纯农排变】,大刘庄1号【纯农排变】,西白亭4号【纯农排变】,大刘庄3号,北楼13号,大刘庄9号,东白亭2号,东白亭鱼塘,南庞村面粉厂,徐水县祥光工业用呢厂,大刘庄8号,西白亭12号,保定立辉玻璃有限公司,大刘庄7号,南庞1号【纯农排变】,大刘庄4号【纯农排变】,刘大庆,徐水县华通水泥制品有限公司,西白亭7号,曹庄2号,东白亭5号【纯农排变】,大刘庄2号【纯农排变】,东白亭9号【纯农排变】,小刘庄6号,西白亭5号,西白亭13号,南庞13号,西白亭6号,西白亭2号,南庞6号,大刘庄砖厂2号,大刘庄11号,西白亭10号,小刘庄面粉厂,徐水鑫林塑管有限公司,西白亭11号【纯农排变】,东白亭1号【纯农排变】,南庞16号,南庞12号,大刘庄12号,供电所8号,大刘庄5号,徐水县华帅包装制品厂2号,南庞8号【纯农排变】,南庞4号,西白亭9号,曹庄1号,东白亭6号【纯农排变】,漕河中心小学,盛园护具厂,东白亭7号【纯农排变】,大刘庄果园,东白亭8号【纯农排变】,徐水县乔森机械制造有限公司,南庞10号,东白亭12号,曹庄4号,东白亭10号,南庞14号,南庞9号,小刘庄4号,小刘庄5号,北庞8号,小刘庄冰棍房,西白亭3号【纯农排变】,东白亭3号【纯农排变】,西白亭8号,大刘庄10号,南庞15号,大刘庄砖厂1号,西白亭面粉厂,北庞5号【纯农排变】,东白亭11号,小刘庄2号【纯农排变】,南庞2号,南庞3号【纯农排变】,小刘庄1号,西白亭14号,北楼5号,保定市强固建筑材料制造有限公司,曹庄3号【纯农排变】,北楼8号【纯农排变】,大刘庄6号【纯农排变】,南庞7号,南庞11号,保定桑德水处理有限公司,","scope":"【影响街道/乡镇】漕河镇 【高危重要客户】无 【影响客户】大刘庄村、西白亭村、南庞村、东白亭村、曹庄村、小刘庄村、北楼村","startTime":"2018-05-27 13:33:39","stopDate":"2018-05-27 15:20:00","orgNo":"1340605","typeCode":"电网故障停限电","poweroffArea":"【全线路停电】停徐水县轩雅食品有限公司计量点,大刘庄果园,西白亭10号,西白亭6号,南庞1号【纯农排变】,供电所8号,西白亭11号【纯农排变】,东白亭10号,东白亭12号,北庞8号,南庞5号,西白亭3号【纯农排变】,大刘庄7号,西白亭7号,西白亭12号,东白亭7号【纯农排变】,西白亭4号【纯农排变】,南庞12号,大刘庄1号【纯农排变】,南庞14号,东白亭6号【纯农排变】,南庞13号,大刘庄4号【纯农排变】,西白亭9号,西白亭2号,保定立辉玻璃有限公司,曹庄1号,大刘庄3号,徐水县华通水泥制品有限公司,小刘庄3号【纯农排变】,保定桑德水处理有限公司,南庞11号,东白亭1号【纯农排变】,小刘庄冰棍房,小刘庄4号,东白亭8号【纯农排变】,南庞4号,南庞3号【纯农排变】,盛园护具厂,大刘庄12号,徐水鑫林塑管有限公司,南庞10号,南庞村面粉厂,东白亭11号,西白亭8号,北楼5号,大刘庄13号,南庞16号,大刘庄6号【纯农排变】,大刘庄8号,南庞6号,西白亭13号,北庞5号【纯农排变】,曹庄3号【纯农排变】,大刘庄10号,东白亭2号,南庞8号【纯农排变】,南庞15号,东白亭5号【纯农排变】,小刘庄5号,东白亭3号【纯农排变】,小刘庄6号,大刘庄砖厂2号,大刘庄9号,大刘庄砖厂1号,南庞7号,小刘庄面粉厂,徐水县祥光工业用呢厂,徐水县乔森机械制造有限公司,刘大庆,小刘庄1号,南庞9号,北楼13号,漕河中心小学,西白亭5号,西白亭14号,保定市强固建筑材料制造有限公司,东白亭9号【纯农排变】,曹庄4号,西白亭1号,大刘庄5号,小刘庄2号【纯农排变】,大刘庄2号【纯农排变】,北楼8号【纯农排变】,南庞2号,曹庄2号,格润工贸有限公司,西白亭面粉厂,徐水县华帅包装制品厂2号,大刘庄11号,东白亭鱼塘","poweroffReason":"【停电原因】由于Ｂ相接地导致１１０ＫＶ田西良变电站南庞线５８９线路全线停电 【变更送电】因抢修进度加快原因，送电时间由２０：００变更为１５：２０ 【发布渠道】通过９５５９８发布","powerTime":"2018-05-27 14:56:47","powerComm":"已送电","subsNo":"","lineNo":"","tgNo":"","tgName":null,"infoStatus":"1","orgName":"国网徐水县供电公司","typeName":null,"infoStatusName":null,"dateDay":null,"orgNos":null,"nowTime":null,"countyName":null,"streetName":null,"villageName":null,"roadName":null,"communityName":null,"tranName":null,"sdLineName":null,"cityCode":"1340605","cityName":"国网徐水县供电公司","provinceCode":null,"stopTime":"2018-05-27 15:20:00","powerType":"全部","powerOffArea":"【全线路停电】停徐水县轩雅食品有限公司计量点,大刘庄果园,西白亭10号,西白亭6号,南庞1号【纯农排变】,供电所8号,西白亭11号【纯农排变】,东白亭10号,东白亭12号,北庞8号,南庞5号,西白亭3号【纯农排变】,大刘庄7号,西白亭7号,西白亭12号,东白亭7号【纯农排变】,西白亭4号【纯农排变】,南庞12号,大刘庄1号【纯农排变】,南庞14号,东白亭6号【纯农排变】,南庞13号,大刘庄4号【纯农排变】,西白亭9号,西白亭2号,保定立辉玻璃有限公司,曹庄1号,大刘庄3号,徐水县华通水泥制品有限公司,小刘庄3号【纯农排变】,保定桑德水处理有限公司,南庞11号,东白亭1号【纯农排变】,小刘庄冰棍房,小刘庄4号,东白亭8号【纯农排变】,南庞4号,南庞3号【纯农排变】,盛园护具厂,大刘庄12号,徐水鑫林塑管有限公司,南庞10号,南庞村面粉厂,东白亭11号,西白亭8号,北楼5号,大刘庄13号,南庞16号,大刘庄6号【纯农排变】,大刘庄8号,南庞6号,西白亭13号,北庞5号【纯农排变】,曹庄3号【纯农排变】,大刘庄10号,东白亭2号,南庞8号【纯农排变】,南庞15号,东白亭5号【纯农排变】,小刘庄5号,东白亭3号【纯农排变】,小刘庄6号,大刘庄砖厂2号,大刘庄9号,大刘庄砖厂1号,南庞7号,小刘庄面粉厂,徐水县祥光工业用呢厂,徐水县乔森机械制造有限公司,刘大庆,小刘庄1号,南庞9号,北楼13号,漕河中心小学,西白亭5号,西白亭14号,保定市强固建筑材料制造有限公司,东白亭9号【纯农排变】,曹庄4号,西白亭1号,大刘庄5号,小刘庄2号【纯农排变】,大刘庄2号【纯农排变】,北楼8号【纯农排变】,南庞2号,曹庄2号,格润工贸有限公司,西白亭面粉厂,徐水县华帅包装制品厂2号,大刘庄11号,东白亭鱼塘","powerOffReason":"【停电原因】由于Ｂ相接地导致１１０ＫＶ田西良变电站南庞线５８９线路全线停电 【变更送电】因抢修进度加快原因，送电时间由２０：００变更为１５：２０ 【发布渠道】通过９５５９８发布","powerOffId":"2018052713000227"},{"poweroffId":2018052713000205,"sgpoweroffId":null,"subsName":"","lineName":"10KV篷头线531","pubTranName":"小丰口2号井台区变压器,赵各庄6台区,赵各庄村大队1号井,0671532666-涞水荣盛伟业房地产开发有限公司-专变-212323038-涞水荣盛康旅投资有限公司630KVA,涞水荣盛伟业房地产开发有限公司315KVA专变,小丰口扬水站变压器,涞水荣盛伟业房地产开发有限公司1250KVA专变,小丰口上庄2台区,赵各庄砖厂,河东2台区,赵各庄村大队后沟井【纯农排变】,龙八港中铺变压器,福山口村变压器,计鹿5台区,小丰口村东3台区变压器,小丰口山神庙变压器,白涧邮政分局,白涧机井变压器,赵各庄幼儿园台区,小丰口上庄,福山口3台区,涞水县国营赵各庄林场,涞水县城乡建设投资有限公司新增变压器,涞水县恒瑞建筑工程有限公司315KVA专变,赵各庄村变压器,龙八港二台区【纯农排变】,赵各庄大街变压器,福山口3号井变压器,白涧十台区,涞水荣发体育文化发展有限公司1000KVA专变,平峪5台区,福山口一间房机井1台区,赵各庄（二台区）,福山口许文永变压器,计鹿砖厂,福山口小学台区【冬季供暖设施】,赵各庄3,河东3台区,福山口机井,小丰口村,荣盛伟业房地产1600KVA专变,河北鼎拓房地产开发有限公司250KVA专变,董秀文,计鹿村三台区,平峪（三台区）,北京铁路局北京供电段250KVA,北砣生态园,小丰口村东2台区,平峪电站,计鹿二台区,赵各庄南台区,小丰口村西台区,福山口一间房变压器,河东村变压器【冬季供暖设施】,平峪二台区变压器,福山口2号井台区变压器,涞水荣盛康旅投资有限公司新增变压器630KVA一台,龙八港五台区变压器,小丰口沙窝东变压器,福山口2,赵各庄苗圃场变压器,计鹿四台区,福山口奔山变压器,福山口小北台区,河东村开发区,河东4台区,赵各庄7台区,赵各庄大棚台区,赵各庄派出所【煤改电】,赵各庄大街2台区,平峪村变压器,涞水荣盛伟业房地产开发有限公司专变,白涧四台区,福山口一间房机井2台区,涞水荣盛伟业房地产开发有限公司KVA,计鹿村变压器（箱式变电站）间隔配电变压器,河东5台区,平峪4台区,福山口1号井台区变压器,小丰口（村东）,小丰口1号井台区变压器,吕建良50KVA专变,计鹿机井变压器【纯农排变】,","scope":"【影响街道/乡镇】赵各庄镇 【高危重要客户】无 【影响客户】福山口村、赵各庄村、河东村、计鹿村、平峪村、小丰口村、荣盛集团（计鹿）","startTime":"2018-05-27 13:06:12","stopDate":"2018-05-27 14:00:00","orgNo":"1340614","typeCode":"电网故障停限电","poweroffArea":"【全线路停电】停赵各庄（二台区）,平峪4台区,平峪电站,涞水荣盛伟业房地产开发有限公司专变,赵各庄大街2台区,赵各庄村大队后沟井【纯农排变】,白涧四台区,计鹿二台区,赵各庄南台区,龙八港中铺变压器,小丰口村西台区,福山口一间房变压器,白涧十台区,福山口村变压器,福山口一间房机井2台区,河东村变压器【冬季供暖设施】,涞水荣发体育文化发展有限公司1000KVA专变,计鹿5台区,涞水荣盛伟业房地产开发有限公司KVA,平峪二台区变压器,平峪5台区,小丰口村东3台区变压器,计鹿村变压器（箱式变电站）间隔配电变压器,福山口一间房机井1台区,福山口2号井台区变压器,河东5台区,小丰口山神庙变压器,福山口许文永变压器,涞水荣盛康旅投资有限公司新增变压器630KVA一台,福山口1号井台区变压器,白涧邮政分局,计鹿砖厂,龙八港五台区变压器,小丰口（村东）,白涧机井变压器,福山口小学台区【冬季供暖设施】,小丰口沙窝东变压器,小丰口1号井台区变压器,赵各庄幼儿园台区,赵各庄3,吕建良50KVA专变,计鹿机井变压器【纯农排变】,河东3台区,福山口2,福山口机井,涞水荣盛伟业房地产开发有限公司315KVA专变,小丰口村,小丰口扬水站变压器,小丰口上庄,赵各庄苗圃场变压器,荣盛伟业房地产1600KVA专变,福山口3台区,小丰口2号井台区变压器,计鹿四台区,河北鼎拓房地产开发有限公司250KVA专变,涞水县国营赵各庄林场,赵各庄6台区,福山口奔山变压器,董秀文,涞水县城乡建设投资有限公司新增变压器,赵各庄派出所【煤改电】,赵各庄村大队1号井,平峪村变压器,计鹿村三台区,福山口小北台区,平峪（三台区）,涞水县恒瑞建筑工程有限公司315KVA专变,0671532666-涞水荣盛伟业房地产开发有限公司-专变-212323038-涞水荣盛康旅投资有限公司630KVA,河东村开发区,北京铁路局北京供电段250KVA,赵各庄村变压器,涞水荣盛伟业房地产开发有限公司1250KVA专变,河东4台区,小丰口上庄2台区,龙八港二台区【纯农排变】,北砣生态园,赵各庄7台区,赵各庄砖厂,赵各庄大街变压器,小丰口村东2台区,赵各庄大棚台区,河东2台区,福山口3号井变压器","poweroffReason":"【停电原因】由于速断跳闸导致１１０ＫＶ六顺变电站１０ＫＶ蓬头５３１线路全线停电 【变更送电】因抢修进度加快原因，送电时间由１８：００变更为１４：００ 【发布渠道】通过９５５９８发布","powerTime":"2018-05-27 13:37:09","powerComm":"已送电","subsNo":"","lineNo":"","tgNo":"","tgName":null,"infoStatus":"1","orgName":"国网涞水县供电公司","typeName":null,"infoStatusName":null,"dateDay":null,"orgNos":null,"nowTime":null,"countyName":null,"streetName":null,"villageName":null,"roadName":null,"communityName":null,"tranName":null,"sdLineName":null,"cityCode":"1340614","cityName":"国网涞水县供电公司","provinceCode":null,"stopTime":"2018-05-27 14:00:00","powerType":"全部","powerOffArea":"【全线路停电】停赵各庄（二台区）,平峪4台区,平峪电站,涞水荣盛伟业房地产开发有限公司专变,赵各庄大街2台区,赵各庄村大队后沟井【纯农排变】,白涧四台区,计鹿二台区,赵各庄南台区,龙八港中铺变压器,小丰口村西台区,福山口一间房变压器,白涧十台区,福山口村变压器,福山口一间房机井2台区,河东村变压器【冬季供暖设施】,涞水荣发体育文化发展有限公司1000KVA专变,计鹿5台区,涞水荣盛伟业房地产开发有限公司KVA,平峪二台区变压器,平峪5台区,小丰口村东3台区变压器,计鹿村变压器（箱式变电站）间隔配电变压器,福山口一间房机井1台区,福山口2号井台区变压器,河东5台区,小丰口山神庙变压器,福山口许文永变压器,涞水荣盛康旅投资有限公司新增变压器630KVA一台,福山口1号井台区变压器,白涧邮政分局,计鹿砖厂,龙八港五台区变压器,小丰口（村东）,白涧机井变压器,福山口小学台区【冬季供暖设施】,小丰口沙窝东变压器,小丰口1号井台区变压器,赵各庄幼儿园台区,赵各庄3,吕建良50KVA专变,计鹿机井变压器【纯农排变】,河东3台区,福山口2,福山口机井,涞水荣盛伟业房地产开发有限公司315KVA专变,小丰口村,小丰口扬水站变压器,小丰口上庄,赵各庄苗圃场变压器,荣盛伟业房地产1600KVA专变,福山口3台区,小丰口2号井台区变压器,计鹿四台区,河北鼎拓房地产开发有限公司250KVA专变,涞水县国营赵各庄林场,赵各庄6台区,福山口奔山变压器,董秀文,涞水县城乡建设投资有限公司新增变压器,赵各庄派出所【煤改电】,赵各庄村大队1号井,平峪村变压器,计鹿村三台区,福山口小北台区,平峪（三台区）,涞水县恒瑞建筑工程有限公司315KVA专变,0671532666-涞水荣盛伟业房地产开发有限公司-专变-212323038-涞水荣盛康旅投资有限公司630KVA,河东村开发区,北京铁路局北京供电段250KVA,赵各庄村变压器,涞水荣盛伟业房地产开发有限公司1250KVA专变,河东4台区,小丰口上庄2台区,龙八港二台区【纯农排变】,北砣生态园,赵各庄7台区,赵各庄砖厂,赵各庄大街变压器,小丰口村东2台区,赵各庄大棚台区,河东2台区,福山口3号井变压器","powerOffReason":"【停电原因】由于速断跳闸导致１１０ＫＶ六顺变电站１０ＫＶ蓬头５３１线路全线停电 【变更送电】因抢修进度加快原因，送电时间由１８：００变更为１４：００ 【发布渠道】通过９５５９８发布","powerOffId":"2018052713000205"},{"poweroffId":2018052713000191,"sgpoweroffId":null,"subsName":"","lineName":"水库线511","pubTranName":"金坡村5#|村中,红阳饭店变压器,中国网通集团北京市通信公司,北头村2#,北头村1#|村中,新东古县5#村南,马峪村3#村北,新东古县4#,中国移动通信集团河北有限公司易县分公司变压器,东岩水泥砖厂2号-250KVA,安格庄村1#,变压器,马峪村1#|村南,泥瓦铺村3#,汇通路桥建设集团有限公司A630KVA,汇通路桥建设集团有限公司C250KVA,新东古县村3#,0688754149-易县三利生态旅游开发有限公司-专变-228796363-易县三利生态旅游开发有限公司1号-1250KVA,安格庄村2#,南头村1#|村中,安格庄乡政府,新东古县村1#,安格庄水库管理处(南坝头),安格庄村汪建强变压器,0687231559-河北恋乡旅游开发有限责任公司-专变-227115847-河北恋乡旅游开发有限责任公司1250KVA-1号,马峪村2#|村北,安格庄水库管理处(溢洪道),安格庄村3#,南头村4#,保定市安格庄水库管理处变压器,南头村5#,金坡村3#|村西,金坡村7#村南,易县东岩水泥砖厂变压器,新东古县村2#,南头村3#村西,泥瓦铺村4#村南,上陈驿村1#村中,新东古县村6#,0687231096-河北恋乡旅游开发有限责任公司-专变-227120071-河北恋乡旅游开发有限公司1250KVA-2号,尧顺口村2#,安格庄村5#,汇通路桥建设集团有限公司B630KVA,安格庄水库管理处(大院),金坡村4#|村南,崔连军,南头村2#|村西,0676495155-河北恋乡旅游开发有限责任公司-专变-216198312-河北恋乡旅游开发邮箱责任公司200KVA,","scope":"【影响街道/乡镇】紫荆关镇、安格庄乡、大龙华乡【高危重要客户】无【影响客户】泥瓦铺村、新东古县村、金坡村、安格庄村、南头村、北头村、马峪村、尧舜口村","startTime":"2018-05-27 12:25:09","stopDate":"2018-05-27 17:00:15","orgNo":"1340625","typeCode":"电网故障停限电","poweroffArea":"【全线路停电】停中国网通集团北京市通信公司,南头村3#村西,上陈驿村1#村中,安格庄村1#,0687231096-河北恋乡旅游开发有限责任公司-专变-227120071-河北恋乡旅游开发有限公司1250KVA-2号,易县东岩水泥砖厂变压器,金坡村3#|村西,新东古县村1#,新东古县4#,安格庄村3#,泥瓦铺村4#村南,安格庄水库管理处(南坝头),保定市安格庄水库管理处变压器,安格庄水库管理处(溢洪道),0676495155-河北恋乡旅游开发有限责任公司-专变-216198312-河北恋乡旅游开发邮箱责任公司200KVA,南头村2#|村西,0688754149-易县三利生态旅游开发有限公司-专变-228796363-易县三利生态旅游开发有限公司1号-1250KVA,红阳饭店变压器,泥瓦铺村3#,安格庄水库管理处(大院),新东古县村2#,马峪村1#|村南,金坡村5#|村中,金坡村4#|村南,新东古县村3#,安格庄村5#,尧顺口村2#,安格庄乡政府,新东古县5#村南,安格庄村汪建强变压器,变压器,中国移动通信集团河北有限公司易县分公司变压器,北头村1#|村中,南头村5#,0687231559-河北恋乡旅游开发有限责任公司-专变-227115847-河北恋乡旅游开发有限责任公司1250KVA-1号,东岩水泥砖厂2号-250KVA,汇通路桥建设集团有限公司A630KVA,北头村2#,金坡村7#村南,马峪村2#|村北,马峪村3#村北,南头村4#,新东古县村6#,南头村1#|村中,汇通路桥建设集团有限公司B630KVA,汇通路桥建设集团有限公司C250KVA,崔连军,安格庄村2#","poweroffReason":"【停电原因】由于大车撞倒电杆故障导致１１０ＫＶ上陈驿变电站水库５１１线路全线停电【变更送电】因抢修进度加快，送电时间由１７:００变更为１３:４０【发布渠道】通过９５５９８发布","powerTime":"2018-05-27 13:29:27","powerComm":"已送电","subsNo":"","lineNo":"","tgNo":"","tgName":null,"infoStatus":"1","orgName":"国网易县供电公司","typeName":null,"infoStatusName":null,"dateDay":null,"orgNos":null,"nowTime":null,"countyName":null,"streetName":null,"villageName":null,"roadName":null,"communityName":null,"tranName":null,"sdLineName":null,"cityCode":"1340625","cityName":"国网易县供电公司","provinceCode":null,"stopTime":"2018-05-27 17:00:15","powerType":"全部","powerOffArea":"【全线路停电】停中国网通集团北京市通信公司,南头村3#村西,上陈驿村1#村中,安格庄村1#,0687231096-河北恋乡旅游开发有限责任公司-专变-227120071-河北恋乡旅游开发有限公司1250KVA-2号,易县东岩水泥砖厂变压器,金坡村3#|村西,新东古县村1#,新东古县4#,安格庄村3#,泥瓦铺村4#村南,安格庄水库管理处(南坝头),保定市安格庄水库管理处变压器,安格庄水库管理处(溢洪道),0676495155-河北恋乡旅游开发有限责任公司-专变-216198312-河北恋乡旅游开发邮箱责任公司200KVA,南头村2#|村西,0688754149-易县三利生态旅游开发有限公司-专变-228796363-易县三利生态旅游开发有限公司1号-1250KVA,红阳饭店变压器,泥瓦铺村3#,安格庄水库管理处(大院),新东古县村2#,马峪村1#|村南,金坡村5#|村中,金坡村4#|村南,新东古县村3#,安格庄村5#,尧顺口村2#,安格庄乡政府,新东古县5#村南,安格庄村汪建强变压器,变压器,中国移动通信集团河北有限公司易县分公司变压器,北头村1#|村中,南头村5#,0687231559-河北恋乡旅游开发有限责任公司-专变-227115847-河北恋乡旅游开发有限责任公司1250KVA-1号,东岩水泥砖厂2号-250KVA,汇通路桥建设集团有限公司A630KVA,北头村2#,金坡村7#村南,马峪村2#|村北,马峪村3#村北,南头村4#,新东古县村6#,南头村1#|村中,汇通路桥建设集团有限公司B630KVA,汇通路桥建设集团有限公司C250KVA,崔连军,安格庄村2#","powerOffReason":"【停电原因】由于大车撞倒电杆故障导致１１０ＫＶ上陈驿变电站水库５１１线路全线停电【变更送电】因抢修进度加快，送电时间由１７:００变更为１３:４０【发布渠道】通过９５５９８发布","powerOffId":"2018052713000191"},{"poweroffId":2018052713000171,"sgpoweroffId":null,"subsName":"","lineName":"10kV东闾北534线","pubTranName":"0598423133-清苑县博海起重机械厂-专变-126432923-清苑县博海起重机械厂,0387491255-东吕东一-专变-45315500-东吕东一,东吕中学,东吕海鑫起重设备公司,0554488806-河北神力索具集团有限公司-专变-77785653-河北神力索具有限公司,0600724043-河北神力索具集团有限公司-专变-126674060-河北神力索具有限公司,东吕三街村西北,东吕三街内7,东吕苏满收配件加工,0387492258-清苑伟业起重机械制造有限公司-专变-208447447-清苑伟业起重机械制造有限公司,保定市东方机械有限公司,东吕营头道东,东吕二街村北1,清苑鑫川崎起重机械制造有限公司,东吕蔡克亮配件加工,东吕三街村北,清苑臣力起重吊索具制造有限公司1,河北怀鸽起重机械集团有限公司,神力起重,清苑县天诚起重机械设备有限公司,0478109058-东吕村委会二街-专变-46910849-东吕村委会二街,清苑县绍华起重机械厂,保定起重运输设备厂,0666477592-保定市清苑区昱力特电力机具制造厂-专变-208302402-保定市清苑区昱力特电力机具制造厂,清苑县神力起重机械厂,东吕崔新成配件加工,保定恒力起重机械有限公司,公路西,河北辰力吊索具制造有限公司,0387493091-清苑县神力起重机械厂-专变-45315425-清苑县神力起重机械厂,清苑冀力起重索具制造有限公司,东吕蔡双柱配件加工,1东吕三街内4,中国移动通信集团河北有限公司保定分公司,0554253899-河北凯澄起重机械有限公司-专变-87343247-河北凯澄起重机械有限公司,保定京鸽起重机械制造有限公司,东吕苏佩中配件加工,东吕崔玉兴配件加工,1东吕二街内5,保定恒力起重机械厂有限公司,清苑县玉田起重设备有限公司,河北神力索具有限公司,1东吕二街内4,0387489795-保定东方机械有限公司-专变-45315218-保定东方机械有限公司,东吕五花起重设备公司,保定市华欣起重机械制造有限公司,东吕教堂,东吕二街内2,东吕三星配件厂,清苑县海源起重滑车厂,东吕乡政府,清苑东吕营业部,东吕西一,清苑县圣牌起重设备厂,东吕三街内6,0387493075-中国电信股份有限公司保定分公司-专变-45315581-中国电信集团公司河北网络资产分公司,东吕三街内1,东吕张景跃配件加工,清苑伟业起重机械制造有限公司,东吕二街村东,0646533346-保定源爱商贸有限公司-专变-169920345-保定源爱商贸有限公司,清苑县臣力起重吊索具制造有限公司,清苑县老山机械加工厂,0387492740-清苑臣力起重吊索具制造有限公司-专变-45315205-清苑臣力起重吊索具制造有限公司,0598428268-清苑县津工机械有限公司-专变-126432828-清苑县津工机械有限公司,清苑县天诚起重设备厂,清苑鑫川崎起重机械有限公司,东吕华欣起重设备公司,清苑县川岛起重机械制造有限公司,","scope":"【影响街道/乡镇】东吕乡 【高危重要客户】无 【影响客户】东吕四街村、东吕一街村","startTime":"2018-05-27 11:55:04","stopDate":"2018-05-27 13:20:00","orgNo":"1340618","typeCode":"电网故障停限电","poweroffArea":"【全线路停电】停清苑县玉田起重设备有限公司,清苑鑫川崎起重机械有限公司,清苑县绍华起重机械厂,东吕二街村北1,清苑县川岛起重机械制造有限公司,0600724043-河北神力索具集团有限公司-专变-126674060-河北神力索具有限公司,清苑冀力起重索具制造有限公司,东吕三街内1,清苑县海源起重滑车厂,0646533346-保定源爱商贸有限公司-专变-169920345-保定源爱商贸有限公司,东吕蔡克亮配件加工,东吕中学,东吕蔡双柱配件加工,东吕三街村西北,0387489795-保定东方机械有限公司-专变-45315218-保定东方机械有限公司,东吕张景跃配件加工,东吕乡政府,清苑县臣力起重吊索具制造有限公司,保定市东方机械有限公司,河北神力索具有限公司,1东吕三街内4,东吕三街内7,中国移动通信集团河北有限公司保定分公司,清苑县神力起重机械厂,清苑县天诚起重设备厂,清苑县老山机械加工厂,0554253899-河北凯澄起重机械有限公司-专变-87343247-河北凯澄起重机械有限公司,1东吕二街内4,东吕三街村北,东吕苏满收配件加工,清苑东吕营业部,0598423133-清苑县博海起重机械厂-专变-126432923-清苑县博海起重机械厂,清苑臣力起重吊索具制造有限公司1,0387492740-清苑臣力起重吊索具制造有限公司-专变-45315205-清苑臣力起重吊索具制造有限公司,保定京鸽起重机械制造有限公司,东吕崔新成配件加工,东吕五花起重设备公司,东吕苏佩中配件加工,河北怀鸽起重机械集团有限公司,保定恒力起重机械厂有限公司,东吕西一,东吕崔玉兴配件加工,东吕教堂,保定市华欣起重机械制造有限公司,保定起重运输设备厂,神力起重,保定恒力起重机械有限公司,1东吕二街内5,公路西,0666477592-保定市清苑区昱力特电力机具制造厂-专变-208302402-保定市清苑区昱力特电力机具制造厂,东吕营头道东,0387492258-清苑伟业起重机械制造有限公司-专变-208447447-清苑伟业起重机械制造有限公司,东吕二街内2,0387493075-中国电信股份有限公司保定分公司-专变-45315581-中国电信集团公司河北网络资产分公司,河北辰力吊索具制造有限公司,0598428268-清苑县津工机械有限公司-专变-126432828-清苑县津工机械有限公司,东吕华欣起重设备公司,清苑县天诚起重机械设备有限公司,东吕三星配件厂,0554488806-河北神力索具集团有限公司-专变-77785653-河北神力索具有限公司,清苑鑫川崎起重机械制造有限公司,0387491255-东吕东一-专变-45315500-东吕东一,0387493091-清苑县神力起重机械厂-专变-45315425-清苑县神力起重机械厂,东吕海鑫起重设备公司,东吕三街内6,清苑县圣牌起重设备厂,东吕二街村东,清苑伟业起重机械制造有限公司,0478109058-东吕村委会二街-专变-46910849-东吕村委会二街","poweroffReason":"【停电原因】由于主干３５号杆北Ｔ１号杆神雕起重配变烧毁导致１１０ＫＶ东闾变电站１０ＫＶ东闾北５３４线路全线停电 【变更送电】因抢修进度加快原因，送电时间由１８：００变更为１３：２０ 【发布渠道】通过９５５９８发布","powerTime":"2018-05-27 13:00:00","powerComm":"滑瑞峰通知已送电","subsNo":"","lineNo":"","tgNo":"","tgName":null,"infoStatus":"1","orgName":"国网清苑县供电公司","typeName":null,"infoStatusName":null,"dateDay":null,"orgNos":null,"nowTime":null,"countyName":null,"streetName":null,"villageName":null,"roadName":null,"communityName":null,"tranName":null,"sdLineName":null,"cityCode":"1340618","cityName":"国网清苑县供电公司","provinceCode":null,"stopTime":"2018-05-27 13:20:00","powerType":"全部","powerOffArea":"【全线路停电】停清苑县玉田起重设备有限公司,清苑鑫川崎起重机械有限公司,清苑县绍华起重机械厂,东吕二街村北1,清苑县川岛起重机械制造有限公司,0600724043-河北神力索具集团有限公司-专变-126674060-河北神力索具有限公司,清苑冀力起重索具制造有限公司,东吕三街内1,清苑县海源起重滑车厂,0646533346-保定源爱商贸有限公司-专变-169920345-保定源爱商贸有限公司,东吕蔡克亮配件加工,东吕中学,东吕蔡双柱配件加工,东吕三街村西北,0387489795-保定东方机械有限公司-专变-45315218-保定东方机械有限公司,东吕张景跃配件加工,东吕乡政府,清苑县臣力起重吊索具制造有限公司,保定市东方机械有限公司,河北神力索具有限公司,1东吕三街内4,东吕三街内7,中国移动通信集团河北有限公司保定分公司,清苑县神力起重机械厂,清苑县天诚起重设备厂,清苑县老山机械加工厂,0554253899-河北凯澄起重机械有限公司-专变-87343247-河北凯澄起重机械有限公司,1东吕二街内4,东吕三街村北,东吕苏满收配件加工,清苑东吕营业部,0598423133-清苑县博海起重机械厂-专变-126432923-清苑县博海起重机械厂,清苑臣力起重吊索具制造有限公司1,0387492740-清苑臣力起重吊索具制造有限公司-专变-45315205-清苑臣力起重吊索具制造有限公司,保定京鸽起重机械制造有限公司,东吕崔新成配件加工,东吕五花起重设备公司,东吕苏佩中配件加工,河北怀鸽起重机械集团有限公司,保定恒力起重机械厂有限公司,东吕西一,东吕崔玉兴配件加工,东吕教堂,保定市华欣起重机械制造有限公司,保定起重运输设备厂,神力起重,保定恒力起重机械有限公司,1东吕二街内5,公路西,0666477592-保定市清苑区昱力特电力机具制造厂-专变-208302402-保定市清苑区昱力特电力机具制造厂,东吕营头道东,0387492258-清苑伟业起重机械制造有限公司-专变-208447447-清苑伟业起重机械制造有限公司,东吕二街内2,0387493075-中国电信股份有限公司保定分公司-专变-45315581-中国电信集团公司河北网络资产分公司,河北辰力吊索具制造有限公司,0598428268-清苑县津工机械有限公司-专变-126432828-清苑县津工机械有限公司,东吕华欣起重设备公司,清苑县天诚起重机械设备有限公司,东吕三星配件厂,0554488806-河北神力索具集团有限公司-专变-77785653-河北神力索具有限公司,清苑鑫川崎起重机械制造有限公司,0387491255-东吕东一-专变-45315500-东吕东一,0387493091-清苑县神力起重机械厂-专变-45315425-清苑县神力起重机械厂,东吕海鑫起重设备公司,东吕三街内6,清苑县圣牌起重设备厂,东吕二街村东,清苑伟业起重机械制造有限公司,0478109058-东吕村委会二街-专变-46910849-东吕村委会二街","powerOffReason":"【停电原因】由于主干３５号杆北Ｔ１号杆神雕起重配变烧毁导致１１０ＫＶ东闾变电站１０ＫＶ东闾北５３４线路全线停电 【变更送电】因抢修进度加快原因，送电时间由１８：００变更为１３：２０ 【发布渠道】通过９５５９８发布","powerOffId":"2018052713000171"},{"poweroffId":2018052713000160,"sgpoweroffId":null,"subsName":"","lineName":"10KV八里庄线565","pubTranName":"华银房地产开发有限公司新增变压器800KVA,八里庄西井1号【纯农排变】,曾广友,渐村东台区,秦家岗台区,东水峪东南井【纯农排变】,渐村机井【纯农排变】,东赤土东南井【纯农排变】,沿庄东台区,渐村北台区,东水峪北台区,东水峪东台区,八里庄西井2号【纯农排变】,八岔沟东南井【纯农排变】,八里庄78队【纯农排变】,八岔沟东台区,八里庄34队2台区,八里庄34队台区,八岔沟西台区,华银房地产开发有限公司新增变压器800KVA一台,华银房地产专变400KVA,东水峪农场【纯农排变】,构件厂台区,0468887540-京源泡沫公司-专变-46618890-京源泡沫公司,石亭水泥构件,石亭陈家套井变压器【纯农排变】,渐村东南井,渐村西北井【纯农排变】,东水峪村内,大赤土11.12队井,八里庄8队台区,渐村电站井【纯农排变】,八岔沟果园【纯农排变】,八里庄7队井【纯农排变】,八岔沟村南井【纯农排变】,福信牧业,八里庄56队2台区,八里庄5、6队井【纯农排变】,大赤土桥东台区【纯农排变】,石亭四中台区变压器,八里庄机井【纯农排变】,渐村北井变压器,八岔沟白来水井【纯农排变】,黎明纸箱厂2,申术海,八里庄5、6队台区,沿庄北井变压器【纯农排变】,沿庄北井,渐村崔内2,0468888400-河北京创投资有限公司-专变-46618893-构件责任公司,石亭加油站,大赤土农场井【纯农排变】,渐村村内,八里庄自来水【纯农排变】,八里庄桥西井【纯农排变】,","scope":"【影响街道/乡镇】石亭镇 【高危重要客户】无 【影响客户】东水峪村、八里庄村、沿庄村、东营房村、高庄村、秦家岗村、石亭村、八岔沟村、大赤土村、渐村","startTime":"2018-05-27 11:09:58","stopDate":"2018-05-27 16:00:00","orgNo":"1340614","typeCode":"电网故障停限电","poweroffArea":"【全线路停电】停八岔沟白来水井【纯农排变】,八里庄机井【纯农排变】,东水峪北台区,东水峪东台区,渐村北井变压器,华银房地产开发有限公司新增变压器800KVA,八里庄西井1号【纯农排变】,黎明纸箱厂2,曾广友,申术海,渐村东台区,秦家岗台区,八里庄5、6队井【纯农排变】,东水峪东南井【纯农排变】,大赤土桥东台区【纯农排变】,渐村机井【纯农排变】,八里庄8队台区,东赤土东南井【纯农排变】,渐村电站井【纯农排变】,八岔沟果园【纯农排变】,八里庄7队井【纯农排变】,沿庄东台区,八岔沟村南井【纯农排变】,渐村北台区,八里庄西井2号【纯农排变】,福信牧业,八里庄56队2台区,八岔沟东南井【纯农排变】,八里庄78队【纯农排变】,石亭四中台区变压器,八岔沟东台区,八里庄34队2台区,八里庄5、6队台区,八里庄34队台区,沿庄北井变压器【纯农排变】,八岔沟西台区,华银房地产开发有限公司新增变压器800KVA一台,沿庄北井,华银房地产专变400KVA,渐村崔内2,东水峪农场【纯农排变】,构件厂台区,0468887540-京源泡沫公司-专变-46618890-京源泡沫公司,0468888400-河北京创投资有限公司-专变-46618893-构件责任公司,石亭水泥构件,石亭陈家套井变压器【纯农排变】,石亭加油站,渐村东南井,渐村西北井【纯农排变】,大赤土农场井【纯农排变】,东水峪村内,渐村村内,大赤土11.12队井,八里庄自来水【纯农排变】,八里庄桥西井【纯农排变】","poweroffReason":"【停电原因】由于速断跳闸导致１１０ＫＶ石亭变电站１０ＫＶ八里庄５６５线路全线停电 【变更送电】无 【发布渠道】通过９５５９８发布","powerTime":"2018-05-27 15:01:42","powerComm":"已送电","subsNo":"","lineNo":"","tgNo":"","tgName":null,"infoStatus":"1","orgName":"国网涞水县供电公司","typeName":null,"infoStatusName":null,"dateDay":null,"orgNos":null,"nowTime":null,"countyName":null,"streetName":null,"villageName":null,"roadName":null,"communityName":null,"tranName":null,"sdLineName":null,"cityCode":"1340614","cityName":"国网涞水县供电公司","provinceCode":null,"stopTime":"2018-05-27 16:00:00","powerType":"全部","powerOffArea":"【全线路停电】停八岔沟白来水井【纯农排变】,八里庄机井【纯农排变】,东水峪北台区,东水峪东台区,渐村北井变压器,华银房地产开发有限公司新增变压器800KVA,八里庄西井1号【纯农排变】,黎明纸箱厂2,曾广友,申术海,渐村东台区,秦家岗台区,八里庄5、6队井【纯农排变】,东水峪东南井【纯农排变】,大赤土桥东台区【纯农排变】,渐村机井【纯农排变】,八里庄8队台区,东赤土东南井【纯农排变】,渐村电站井【纯农排变】,八岔沟果园【纯农排变】,八里庄7队井【纯农排变】,沿庄东台区,八岔沟村南井【纯农排变】,渐村北台区,八里庄西井2号【纯农排变】,福信牧业,八里庄56队2台区,八岔沟东南井【纯农排变】,八里庄78队【纯农排变】,石亭四中台区变压器,八岔沟东台区,八里庄34队2台区,八里庄5、6队台区,八里庄34队台区,沿庄北井变压器【纯农排变】,八岔沟西台区,华银房地产开发有限公司新增变压器800KVA一台,沿庄北井,华银房地产专变400KVA,渐村崔内2,东水峪农场【纯农排变】,构件厂台区,0468887540-京源泡沫公司-专变-46618890-京源泡沫公司,0468888400-河北京创投资有限公司-专变-46618893-构件责任公司,石亭水泥构件,石亭陈家套井变压器【纯农排变】,石亭加油站,渐村东南井,渐村西北井【纯农排变】,大赤土农场井【纯农排变】,东水峪村内,渐村村内,大赤土11.12队井,八里庄自来水【纯农排变】,八里庄桥西井【纯农排变】","powerOffReason":"【停电原因】由于速断跳闸导致１１０ＫＶ石亭变电站１０ＫＶ八里庄５６５线路全线停电 【变更送电】无 【发布渠道】通过９５５９８发布","powerOffId":"2018052713000160"},{"poweroffId":2018052713000134,"sgpoweroffId":null,"subsName":"","lineName":"仪村线511","pubTranName":"顺通冷拔异型钢管有限公司,保定美伦有色金属有限公司2号,仪村4号,大西张一队19号,徐水县信佳精密塑料有限公司,大西张二队9号,仪村3号,仪村6号【纯农排变】,大西张二队8号,仪村5号【纯农排变】,大西张二队6号,南亭17号,徐水县金地电解铅厂,保定美伦有色金属有限公司1号,大西张一队14号,大西张二队4号,仪村9号,中交一公司第六工程有限公司京石扩建工程JS6项目部,仪村8号,大西张二队13号【纯农排变】,保定双帆蓄电池有限公司1号,中国电信集团公司保定市分公司,中交一公局第六工程有限公司京石扩建工程JS6项目部,敬上18号,仪村1号【纯农排变】,长虹杂铅厂,大西张二队1号,大西张二队2号,保定双帆蓄电池有限公司4号,大西张二队7号,大西张二队10号,大西张二队11号【纯农排变】,仪村2号,大西张二队5号,仪村7号,仪村10号,","scope":"【影响街道/乡镇】留村乡、大因镇 【高危重要客户】无 【影响客户】仪村、南亭村、大西张二队","startTime":"2018-06-02 16:00:00","stopDate":"2018-06-02 17:30:00","orgNo":"1340605","typeCode":"临时停电","poweroffArea":"【全线路停电】停仪村8号,中国电信集团公司保定市分公司,大西张二队9号,仪村1号【纯农排变】,仪村5号【纯农排变】,大西张一队14号,大西张二队11号【纯农排变】,大西张二队8号,仪村7号,大西张一队19号,保定美伦有色金属有限公司1号,大西张二队7号,南亭17号,大西张二队4号,仪村9号,仪村3号,仪村10号,仪村2号,大西张二队5号,大西张二队6号,顺通冷拔异型钢管有限公司,中交一公司第六工程有限公司京石扩建工程JS6项目部,长虹杂铅厂,保定美伦有色金属有限公司2号,仪村6号【纯农排变】,仪村4号,徐水县金地电解铅厂,大西张二队13号【纯农排变】,大西张二队2号,敬上18号,保定双帆蓄电池有限公司1号,大西张二队1号,徐水县信佳精密塑料有限公司,保定双帆蓄电池有限公司4号,中交一公局第六工程有限公司京石扩建工程JS6项目部,大西张二队10号","poweroffReason":"【停电原因】由于线路检修导致３５ＫＶ大因变电站仪村线５１１线路全线停电 【变更送电】因工作进度加快原因，送电时间由１９:００变更为１７:３０； 【发布渠道】通过９５５９８发布","powerTime":"2018-06-02 17:08:45","powerComm":"已送电","subsNo":"","lineNo":"","tgNo":"","tgName":null,"infoStatus":"1","orgName":"国网徐水县供电公司","typeName":null,"infoStatusName":null,"dateDay":null,"orgNos":null,"nowTime":null,"countyName":null,"streetName":null,"villageName":null,"roadName":null,"communityName":null,"tranName":null,"sdLineName":null,"cityCode":"1340605","cityName":"国网徐水县供电公司","provinceCode":null,"stopTime":"2018-06-02 17:30:00","powerType":"全部","powerOffArea":"【全线路停电】停仪村8号,中国电信集团公司保定市分公司,大西张二队9号,仪村1号【纯农排变】,仪村5号【纯农排变】,大西张一队14号,大西张二队11号【纯农排变】,大西张二队8号,仪村7号,大西张一队19号,保定美伦有色金属有限公司1号,大西张二队7号,南亭17号,大西张二队4号,仪村9号,仪村3号,仪村10号,仪村2号,大西张二队5号,大西张二队6号,顺通冷拔异型钢管有限公司,中交一公司第六工程有限公司京石扩建工程JS6项目部,长虹杂铅厂,保定美伦有色金属有限公司2号,仪村6号【纯农排变】,仪村4号,徐水县金地电解铅厂,大西张二队13号【纯农排变】,大西张二队2号,敬上18号,保定双帆蓄电池有限公司1号,大西张二队1号,徐水县信佳精密塑料有限公司,保定双帆蓄电池有限公司4号,中交一公局第六工程有限公司京石扩建工程JS6项目部,大西张二队10号","powerOffReason":"【停电原因】由于线路检修导致３５ＫＶ大因变电站仪村线５１１线路全线停电 【变更送电】因工作进度加快原因，送电时间由１９:００变更为１７:３０； 【发布渠道】通过９５５９８发布","powerOffId":"2018052713000134"},{"poweroffId":2018052713000133,"sgpoweroffId":null,"subsName":"","lineName":"南白塔线516","pubTranName":"南白塔16号,南白塔22号【纯农排变】,南白塔3号,南白塔26号,南白塔25号,南白塔15号,南白塔5号,南白塔23号,南白塔21号【纯农排变】,南白塔28号,南白塔4号,南白塔13号【纯农排变】,大因供电所2号,保定泰力金属制品有限公司2号,南白塔14号,南白塔2号,南白塔11号,南白塔1号,南白塔30号,南白塔8号【纯农排变】,南白塔20号,中国联合网络通信有限公司徐水县分公司南白,南白塔10号【纯农排变】,南白塔18号,南白塔19号,南白塔7号,南白塔12号【纯农排变】,南白塔24号【纯农排变】,","scope":"【影响街道/乡镇】大因镇 【高危重要客户】无 【影响客户】南白塔","startTime":"2018-06-02 16:00:00","stopDate":"2018-06-02 17:30:00","orgNo":"1340605","typeCode":"临时停电","poweroffArea":"【全线路停电】停南白塔12号【纯农排变】,南白塔19号,南白塔30号,南白塔10号【纯农排变】,南白塔20号,南白塔18号,南白塔7号,南白塔8号【纯农排变】,南白塔26号,中国联合网络通信有限公司徐水县分公司南白,保定泰力金属制品有限公司2号,南白塔4号,南白塔2号,南白塔3号,南白塔21号【纯农排变】,南白塔11号,南白塔28号,南白塔15号,南白塔14号,南白塔5号,南白塔24号【纯农排变】,南白塔13号【纯农排变】,南白塔16号,南白塔22号【纯农排变】,南白塔25号,南白塔23号,南白塔1号,大因供电所2号","poweroffReason":"【停电原因】由于线路检修导致３５ＫＶ大因变电站南白塔线５１６线路全线停电 【变更送电】因工作进度加快原因，送电时间由１９:００变更为１７:３０； 【发布渠道】通过９５５９８发布","powerTime":"2018-06-02 17:10:03","powerComm":"已送电","subsNo":"","lineNo":"","tgNo":"","tgName":null,"infoStatus":"1","orgName":"国网徐水县供电公司","typeName":null,"infoStatusName":null,"dateDay":null,"orgNos":null,"nowTime":null,"countyName":null,"streetName":null,"villageName":null,"roadName":null,"communityName":null,"tranName":null,"sdLineName":null,"cityCode":"1340605","cityName":"国网徐水县供电公司","provinceCode":null,"stopTime":"2018-06-02 17:30:00","powerType":"全部","powerOffArea":"【全线路停电】停南白塔12号【纯农排变】,南白塔19号,南白塔30号,南白塔10号【纯农排变】,南白塔20号,南白塔18号,南白塔7号,南白塔8号【纯农排变】,南白塔26号,中国联合网络通信有限公司徐水县分公司南白,保定泰力金属制品有限公司2号,南白塔4号,南白塔2号,南白塔3号,南白塔21号【纯农排变】,南白塔11号,南白塔28号,南白塔15号,南白塔14号,南白塔5号,南白塔24号【纯农排变】,南白塔13号【纯农排变】,南白塔16号,南白塔22号【纯农排变】,南白塔25号,南白塔23号,南白塔1号,大因供电所2号","powerOffReason":"【停电原因】由于线路检修导致３５ＫＶ大因变电站南白塔线５１６线路全线停电 【变更送电】因工作进度加快原因，送电时间由１９:００变更为１７:３０； 【发布渠道】通过９５５９８发布","powerOffId":"2018052713000133"}],"pageModel":{"pageNow":1068,"totalCount":10973,"totalPage":1098,"tableRows":0,"pageCount":10,"beginCount":10670},"isExperi":"1"}