{"message":"","today":"2020-06-15","seleList":[{"poweroffId":2018052713000088,"sgpoweroffId":null,"subsName":"","lineName":"10kV新昌线521","pubTranName":"高碑店市人民政府北城办事处变压器,高碑店市清波水务科技有限公司,河北新发地农副产品有限公司2#变压器,高碑店市南海润滑油有限公司,杨炳成1,李玉山,","scope":"【影响街道/乡镇】北城办事处 【高危重要客户】水厂 【影响客户】南海润滑油、李玉山","startTime":"2018-06-05 05:30:00","stopDate":"2018-06-05 12:00:00","orgNo":"1340612","typeCode":"计划停电","poweroffArea":"【全线路停电】停河北新发地农副产品有限公司2#变压器,高碑店市清波水务科技有限公司,杨炳成1,高碑店市人民政府北城办事处变压器,高碑店市南海润滑油有限公司,李玉山","poweroffReason":"【停电原因】由于北城２号公变新增导致１１０ＫＶ各庄变电站１０ＫＶ新昌５２１线路全线停电 【变更送电】无 【发布渠道】高碑店市高碑店电视台（５月２８日０８时至６月４日１８时之间）屏幕上方滚动","powerTime":"2018-06-05 11:39:57","powerComm":"已送电","subsNo":"","lineNo":"","tgNo":"","tgName":null,"infoStatus":"1","orgName":"国网高碑店市供电公司","typeName":null,"infoStatusName":null,"dateDay":null,"orgNos":null,"nowTime":null,"countyName":null,"streetName":null,"villageName":null,"roadName":null,"communityName":null,"tranName":null,"sdLineName":null,"cityCode":"1340612","cityName":"国网高碑店市供电公司","provinceCode":null,"stopTime":"2018-06-05 12:00:00","powerType":"全部","powerOffArea":"【全线路停电】停河北新发地农副产品有限公司2#变压器,高碑店市清波水务科技有限公司,杨炳成1,高碑店市人民政府北城办事处变压器,高碑店市南海润滑油有限公司,李玉山","powerOffReason":"【停电原因】由于北城２号公变新增导致１１０ＫＶ各庄变电站１０ＫＶ新昌５２１线路全线停电 【变更送电】无 【发布渠道】高碑店市高碑店电视台（５月２８日０８时至６月４日１８时之间）屏幕上方滚动","powerOffId":"2018052713000088"},{"poweroffId":2018052713000086,"sgpoweroffId":null,"subsName":"","lineName":"辛桥线557","pubTranName":"客户投资_陈八庄西变压器,赵庄西南水变压器【纯农排变】,汤家营南变压器,王庄变压器,辛桥2号公变变压器,孤株北台变压器,杜辛庄西变压器,孤株西农变压器,汤家营西变压器,赵庄西变压器,汤家营北变压器,辛桥南台变压器,赵庄北变压器,孤株南台变压器,太平庄北水变压器,辛桥北变压器,赵庄西水变压器,辛桥公变变压器,辛桥磁卡变压器【纯农排变】,杜辛庄西3号排灌变压器【纯农排变】,赵庄东水变压器【纯农排变】,赵庄内变压器,汤家营变压器,汤家营学校变压器,辛桥东变压器,杜辛庄变压器,赵庄南水变压器,","scope":"【影响街道/乡镇】辛桥乡 【高危重要客户】辛桥乡政府 【影响客户】赵庄村、孤株村、辛桥村、汤家营村、杜辛庄村、王庄村、辛桥水站、辛桥乡政府、辛苑塑木加工厂、邮局、汤家营学校、辛桥水厂、辛桥中学","startTime":"2018-06-05 04:00:00","stopDate":"2018-06-05 07:00:00","orgNo":"1340612","typeCode":"计划停电","poweroffArea":"【分支停电】停赵庄北变压器,赵庄东水变压器【纯农排变】,赵庄南水变压器,赵庄内变压器,赵庄西变压器,赵庄西南水变压器【纯农排变】,赵庄西水变压器,汤家营北变压器,汤家营变压器,汤家营南变压器,汤家营西变压器,汤家营学校变压器,王庄变压器,辛桥北变压器,辛桥东变压器,辛桥公变变压器,辛桥南台变压器,辛桥2号公变变压器,杜辛庄变压器,辛桥磁卡变压器【纯农排变】,杜辛庄西3号排灌变压器【纯农排变】,杜辛庄西变压器,孤株北台变压器,孤株南台变压器,孤株西农变压器,客户投资_陈八庄西变压器,太平庄北水变压器","poweroffReason":"【停电原因】由于高碑店民康医院新增专变接引导致１１０ＫＶ陈八庄变电站１０ＫＶ辛桥５５７线路０３号断路器以下停电 【变更送电】无 【发布渠道】高碑店市高碑店电视台（５月２８日０８时至６月４日１８时之间）屏幕上方滚动","powerTime":"2018-06-05 06:54:05","powerComm":"已送电","subsNo":"","lineNo":"","tgNo":"","tgName":null,"infoStatus":"1","orgName":"国网高碑店市供电公司","typeName":null,"infoStatusName":null,"dateDay":null,"orgNos":null,"nowTime":null,"countyName":null,"streetName":null,"villageName":null,"roadName":null,"communityName":null,"tranName":null,"sdLineName":null,"cityCode":"1340612","cityName":"国网高碑店市供电公司","provinceCode":null,"stopTime":"2018-06-05 07:00:00","powerType":"全部","powerOffArea":"【分支停电】停赵庄北变压器,赵庄东水变压器【纯农排变】,赵庄南水变压器,赵庄内变压器,赵庄西变压器,赵庄西南水变压器【纯农排变】,赵庄西水变压器,汤家营北变压器,汤家营变压器,汤家营南变压器,汤家营西变压器,汤家营学校变压器,王庄变压器,辛桥北变压器,辛桥东变压器,辛桥公变变压器,辛桥南台变压器,辛桥2号公变变压器,杜辛庄变压器,辛桥磁卡变压器【纯农排变】,杜辛庄西3号排灌变压器【纯农排变】,杜辛庄西变压器,孤株北台变压器,孤株南台变压器,孤株西农变压器,客户投资_陈八庄西变压器,太平庄北水变压器","powerOffReason":"【停电原因】由于高碑店民康医院新增专变接引导致１１０ＫＶ陈八庄变电站１０ＫＶ辛桥５５７线路０３号断路器以下停电 【变更送电】无 【发布渠道】高碑店市高碑店电视台（５月２８日０８时至６月４日１８时之间）屏幕上方滚动","powerOffId":"2018052713000086"},{"poweroffId":2018052713000084,"sgpoweroffId":null,"subsName":"","lineName":"10kV韩村512线","pubTranName":"韩村铁路北边农业4台区【纯农排变】,新安内西综合3变压器,韩村综合9,梨园村内综合1变压器,福海面粉厂,辛安农业13,新安内东综合1变压器,东方兽药厂,韩村内东综合1变压器,安国市鑫盛泰建材有限公司,韩村综合7,新安板厂,新安正北农5变压器,路根综合五号J,路根农业2台区【纯农排变】,辛安农业12台区【纯农排变】,路根内东综合2变压器,综1柱上变压器,韩村内南综合3变压器,韩村林业农业4台区【纯农排变】,新安综合五台区,韩村内西综合2变压器,路根农业1台区【纯农排变】,韩村学校北北农业6台区【纯农排变】,辛安农业6台区【纯农排变】,梨园村西南农1变压器,辛安农业3台区【纯农排变】,韩村综合6,辛安综合四,路根农业5台区【纯农排变】,新安加气站,韩村综合5,安国市亚欧动力有限公司,安国市盛泰橡胶2计量点,路根内北综合3变压器,辛安村南农业11台区【纯农排变】,辛安农业1台区【纯农排变】,韩村北1农业3台区【纯农排变】,辛安农业9台区【纯农排变】,路根农业4台区【纯农排变】,韩村西南农业5台区【纯农排变】,辛安农业4,路根内西综合1变压器,路根农业3【纯农排变】,韩村北2农业3台区【纯农排变】,辛安农业7台区【纯农排变】,安国市盛泰橡胶有限公司,路根综合4,辛安综合6,韩村林业北农业7台区【纯农排变】,韩村煤厂,新安公路边农2变压器,隆盛纺织机械有限公司,常庄综合10变压器,新安内北综合2变压器,韩村河边农业3台区【纯农排变】,韩村综合8,力元农业2台区【纯农排变】,0387359933-常庄加油站-专变-45230926-常庄加油站,奎龙药业有限公司,益昌纺织厂,新安综4,辛安农业10台区【纯农排变】,辛安农业5台区【纯农排变】,韩村综合4台区变压器,沙滩东农5变压器,红凤纺织机械配件厂,新安学校变压器,辛安综合7,安国市隆盛纺织机械有限公司,东方兽药,新安新增农11变压器,安国市民主街胶厂,梨园村北农3变压器,","scope":"【影响街道/乡镇】郑章镇 【高危重要客户】无 【影响客户】辛安村、路根村、韩村、梨园村","startTime":"2018-05-27 09:10:53","stopDate":"2018-05-27 10:10:00","orgNo":"1340606","typeCode":"电网故障停限电","poweroffArea":"【全线路停电】停新安公路边农2变压器,路根农业1台区【纯农排变】,福海面粉厂,新安板厂,新安正北农5变压器,韩村综合7,路根内北综合3变压器,安国市民主街胶厂,路根内东综合2变压器,韩村综合6,辛安农业12台区【纯农排变】,新安综4,梨园村内综合1变压器,韩村内南综合3变压器,新安内东综合1变压器,韩村综合9,新安内西综合3变压器,0387359933-常庄加油站-专变-45230926-常庄加油站,益昌纺织厂,韩村煤厂,新安加气站,新安综合五台区,综1柱上变压器,辛安综合四,辛安村南农业11台区【纯农排变】,韩村西南农业5台区【纯农排变】,梨园村西南农1变压器,奎龙药业有限公司,路根综合五号J,安国市亚欧动力有限公司,韩村河边农业3台区【纯农排变】,辛安农业10台区【纯农排变】,力元农业2台区【纯农排变】,辛安农业6台区【纯农排变】,路根农业5台区【纯农排变】,辛安农业13,韩村林业农业4台区【纯农排变】,辛安农业1台区【纯农排变】,辛安农业9台区【纯农排变】,韩村内东综合1变压器,辛安农业4,新安学校变压器,路根农业4台区【纯农排变】,红凤纺织机械配件厂,新安内北综合2变压器,辛安农业3台区【纯农排变】,韩村学校北北农业6台区【纯农排变】,东方兽药,梨园村北农3变压器,路根内西综合1变压器,安国市盛泰橡胶有限公司,东方兽药厂,安国市盛泰橡胶2计量点,隆盛纺织机械有限公司,路根综合4,辛安综合6,路根农业3【纯农排变】,沙滩东农5变压器,辛安农业5台区【纯农排变】,辛安综合7,辛安农业7台区【纯农排变】,路根农业2台区【纯农排变】,韩村综合4台区变压器,常庄综合10变压器,韩村北2农业3台区【纯农排变】,韩村内西综合2变压器,安国市隆盛纺织机械有限公司,韩村铁路北边农业4台区【纯农排变】,韩村北1农业3台区【纯农排变】,韩村综合5,韩村综合8,韩村林业北农业7台区【纯农排变】,新安新增农11变压器,安国市鑫盛泰建材有限公司","poweroffReason":"【停电原因】由于站内开关跳闸导致３５ＫＶ常庄变电站１０ＫＶ韩村５１２线路全线停电 【变更送电】因抢修进度加快原因，送电时间由１２：００变更为１０：１０ 【发布渠道】通过９５５９８发布","powerTime":"2018-05-27 10:03:05","powerComm":"已送电","subsNo":"","lineNo":"","tgNo":"","tgName":null,"infoStatus":"1","orgName":"国网安国市供电公司","typeName":null,"infoStatusName":null,"dateDay":null,"orgNos":null,"nowTime":null,"countyName":null,"streetName":null,"villageName":null,"roadName":null,"communityName":null,"tranName":null,"sdLineName":null,"cityCode":"1340606","cityName":"国网安国市供电公司","provinceCode":null,"stopTime":"2018-05-27 10:10:00","powerType":"全部","powerOffArea":"【全线路停电】停新安公路边农2变压器,路根农业1台区【纯农排变】,福海面粉厂,新安板厂,新安正北农5变压器,韩村综合7,路根内北综合3变压器,安国市民主街胶厂,路根内东综合2变压器,韩村综合6,辛安农业12台区【纯农排变】,新安综4,梨园村内综合1变压器,韩村内南综合3变压器,新安内东综合1变压器,韩村综合9,新安内西综合3变压器,0387359933-常庄加油站-专变-45230926-常庄加油站,益昌纺织厂,韩村煤厂,新安加气站,新安综合五台区,综1柱上变压器,辛安综合四,辛安村南农业11台区【纯农排变】,韩村西南农业5台区【纯农排变】,梨园村西南农1变压器,奎龙药业有限公司,路根综合五号J,安国市亚欧动力有限公司,韩村河边农业3台区【纯农排变】,辛安农业10台区【纯农排变】,力元农业2台区【纯农排变】,辛安农业6台区【纯农排变】,路根农业5台区【纯农排变】,辛安农业13,韩村林业农业4台区【纯农排变】,辛安农业1台区【纯农排变】,辛安农业9台区【纯农排变】,韩村内东综合1变压器,辛安农业4,新安学校变压器,路根农业4台区【纯农排变】,红凤纺织机械配件厂,新安内北综合2变压器,辛安农业3台区【纯农排变】,韩村学校北北农业6台区【纯农排变】,东方兽药,梨园村北农3变压器,路根内西综合1变压器,安国市盛泰橡胶有限公司,东方兽药厂,安国市盛泰橡胶2计量点,隆盛纺织机械有限公司,路根综合4,辛安综合6,路根农业3【纯农排变】,沙滩东农5变压器,辛安农业5台区【纯农排变】,辛安综合7,辛安农业7台区【纯农排变】,路根农业2台区【纯农排变】,韩村综合4台区变压器,常庄综合10变压器,韩村北2农业3台区【纯农排变】,韩村内西综合2变压器,安国市隆盛纺织机械有限公司,韩村铁路北边农业4台区【纯农排变】,韩村北1农业3台区【纯农排变】,韩村综合5,韩村综合8,韩村林业北农业7台区【纯农排变】,新安新增农11变压器,安国市鑫盛泰建材有限公司","powerOffReason":"【停电原因】由于站内开关跳闸导致３５ＫＶ常庄变电站１０ＫＶ韩村５１２线路全线停电 【变更送电】因抢修进度加快原因，送电时间由１２：００变更为１０：１０ 【发布渠道】通过９５５９８发布","powerOffId":"2018052713000084"},{"poweroffId":2018052713000054,"sgpoweroffId":null,"subsName":"","lineName":"10kV520永禄大街线","pubTranName":"顺平县顺兴物业管理有限责任公司1600,消防大队混用1960|20001960,申成路桥250,0678067581-顺平县顺兴物业管理有限责任公司-专变-217801175-顺兴物业（阳光佳苑B区）2000-2,北关8080#农排|20008080【纯农排变】,顺兴物业阳光佳苑A区1250,纬十街南路灯,顺兴物业阳光佳苑A区800,保定顺泰建筑工程有限公司200,0678067581-顺平县顺兴物业管理有限责任公司-专变-217801173-顺兴物业（阳光佳苑B区）2000-1,0677950947-顺平县众美物业管理有限公司-专变-217798946-顺平县众美物业管理有限公司1250,北关新增综合7854,万佳物业变压器,人行宿舍1880|20001880,保险公司7820|20007820,保定顺兴房地产开发有限公司,申成路桥,科委宿舍2000|20002000,北关1360|20001360,教委宿舍1890|20001890,纬十街北西路灯,0678067581-顺平县顺兴物业管理有限责任公司-专变-217797613-顺兴物业（阳光佳苑B区）2500,纬十街东北路灯,移动,顺平县顺兴物业管理有限责任公司1000,移动公司旧交警,顺平县兴泰物业服务有限公司1000,大城北9680|20009680,顺兴物业阳光佳苑A区800(2),","scope":"【影响街道/乡镇】永录大街、纬十一街、永平路、蒲阳镇【高危重要客户】无【影响客户】北关、人行宿舍、教委宿舍、原消防队、大城北、林江商厦、新概念火锅、保险公司宿舍楼、城区医院、保定顺泰建筑工程有限公司、万佳物业、保定顺兴房地产开发有限公司、科委宿舍、移动公司、尧乡商城、顺平县顺兴物业管理有限责任公司、顺平县心兴泰物业服务有限公司、药检局、阳光佳苑A区、沁香名邸小区","startTime":"2018-05-27 08:03:19","stopDate":"2018-05-27 22:00:00","orgNo":"1340621","typeCode":"电网故障停限电","poweroffArea":"【全线路停电】停纬十街北西路灯,万佳物业变压器,0678067581-顺平县顺兴物业管理有限责任公司-专变-217797613-顺兴物业（阳光佳苑B区）2500,人行宿舍1880|20001880,保险公司7820|20007820,顺平县顺兴物业管理有限责任公司1600,保定顺兴房地产开发有限公司,消防大队混用1960|20001960","poweroffReason":"【停电原因】由于保险公司分支０８号杆至１２号杆树倒压线导致１１０ＫＶ顺平变电站１０ＫＶ５２０永禄大街线路全线停电【变更送电】因抢修进度加快原因，送电时间由２３：３０变更为２２：００【发布渠道】通过９５５９８发布","powerTime":"2018-05-27 21:10:18","powerComm":"已送电","subsNo":"","lineNo":"","tgNo":"","tgName":null,"infoStatus":"1","orgName":"国网顺平县电力局","typeName":null,"infoStatusName":null,"dateDay":null,"orgNos":null,"nowTime":null,"countyName":null,"streetName":null,"villageName":null,"roadName":null,"communityName":null,"tranName":null,"sdLineName":null,"cityCode":"1340621","cityName":"国网顺平县电力局","provinceCode":null,"stopTime":"2018-05-27 22:00:00","powerType":"全部","powerOffArea":"【全线路停电】停纬十街北西路灯,万佳物业变压器,0678067581-顺平县顺兴物业管理有限责任公司-专变-217797613-顺兴物业（阳光佳苑B区）2500,人行宿舍1880|20001880,保险公司7820|20007820,顺平县顺兴物业管理有限责任公司1600,保定顺兴房地产开发有限公司,消防大队混用1960|20001960","powerOffReason":"【停电原因】由于保险公司分支０８号杆至１２号杆树倒压线导致１１０ＫＶ顺平变电站１０ＫＶ５２０永禄大街线路全线停电【变更送电】因抢修进度加快原因，送电时间由２３：３０变更为２２：００【发布渠道】通过９５５９８发布","powerOffId":"2018052713000054"},{"poweroffId":2018052713000043,"sgpoweroffId":null,"subsName":"","lineName":"10kV藏庄线511","pubTranName":"1北刘口内7,","scope":"【影响街道/乡镇】望亭乡 【高危重要客户】无 【影响客户】北刘口村","startTime":"2018-05-27 06:57:35","stopDate":"2018-05-27 10:00:00","orgNo":"1340618","typeCode":"电网故障停限电","poweroffArea":"【单台区停电】停1北刘口内7","poweroffReason":"【停电原因】由于低压线断导致３５ＫＶ刘口变电站１０ＫＶ藏庄线５１１线路１北刘口内７号公变台区停电 【变更送电】无 【发布渠道】通过９５５９８发布","powerTime":"2018-05-27 09:51:17","powerComm":"已送电","subsNo":"","lineNo":"","tgNo":"","tgName":null,"infoStatus":"1","orgName":"国网清苑县供电公司","typeName":null,"infoStatusName":null,"dateDay":null,"orgNos":null,"nowTime":null,"countyName":null,"streetName":null,"villageName":null,"roadName":null,"communityName":null,"tranName":null,"sdLineName":null,"cityCode":"1340618","cityName":"国网清苑县供电公司","provinceCode":null,"stopTime":"2018-05-27 10:00:00","powerType":"全部","powerOffArea":"【单台区停电】停1北刘口内7","powerOffReason":"【停电原因】由于低压线断导致３５ＫＶ刘口变电站１０ＫＶ藏庄线５１１线路１北刘口内７号公变台区停电 【变更送电】无 【发布渠道】通过９５５９８发布","powerOffId":"2018052713000043"},{"poweroffId":2018052713000042,"sgpoweroffId":null,"subsName":"","lineName":"10kV联盟路站531线路","pubTranName":"10kVZ0059.Z0060配电室Z0060配电变压器,10kVZ0059.Z0060配电室Z0059配电变压器,10kVY0328.Y0329配电室Y0328配电变压器,10kVY0328.Y0329配电室Y0329配电变压器,10kVB1464配电室B1464配电变压器,","scope":"【影响街道/乡镇】三丰东路、凌云街、长城大街 【高危重要客户】无 【影响客户】幸福小区、万博园、吉祥小区","startTime":"2018-05-27 07:30:01","stopDate":"2018-05-27 12:00:40","orgNo":"13406","typeCode":"电网故障停限电","poweroffArea":"【分支停电】停10kVB1464配电室B1464配电变压器,10kVY0328.Y0329配电室Y0328配电变压器,10kVZ0059.Z0060配电室Z0060配电变压器,10kVY0328.Y0329配电室Y0329配电变压器,10kVZ0059.Z0060配电室Z0059配电变压器","poweroffReason":"【停电原因】由于客户设备故障导致１０ＫＶ联盟路变电站５３１线路ＨＫ-５２号环网柜以下停电【变更送电】因抢修进度加快，原定１２：００送电现计划１０：００送电。【发布渠道】通过９５５９８发布","powerTime":"2018-05-27 09:47:10","powerComm":"已送电","subsNo":"","lineNo":"","tgNo":"","tgName":null,"infoStatus":"1","orgName":"保定供电公司","typeName":null,"infoStatusName":null,"dateDay":null,"orgNos":null,"nowTime":null,"countyName":null,"streetName":null,"villageName":null,"roadName":null,"communityName":null,"tranName":null,"sdLineName":null,"cityCode":"13406","cityName":"保定供电公司","provinceCode":null,"stopTime":"2018-05-27 12:00:40","powerType":"全部","powerOffArea":"【分支停电】停10kVB1464配电室B1464配电变压器,10kVY0328.Y0329配电室Y0328配电变压器,10kVZ0059.Z0060配电室Z0060配电变压器,10kVY0328.Y0329配电室Y0329配电变压器,10kVZ0059.Z0060配电室Z0059配电变压器","powerOffReason":"【停电原因】由于客户设备故障导致１０ＫＶ联盟路变电站５３１线路ＨＫ-５２号环网柜以下停电【变更送电】因抢修进度加快，原定１２：００送电现计划１０：００送电。【发布渠道】通过９５５９８发布","powerOffId":"2018052713000042"},{"poweroffId":2018052713000040,"sgpoweroffId":null,"subsName":"","lineName":"10kV藏庄线511","pubTranName":"1北刘口内1,","scope":"【影响街道/乡镇】望亭乡 【高危重要客户】无 【影响客户】北刘口村","startTime":"2018-05-27 06:52:19","stopDate":"2018-05-27 10:00:00","orgNo":"1340618","typeCode":"电网故障停限电","poweroffArea":"【单台区停电】停1北刘口内1","poweroffReason":"【停电原因】由于低压线断导致３５ＫＶ刘口变电站１０ＫＶ藏庄线５１１线路１北刘口内１号公变台区停电 【变更送电】无 【发布渠道】通过９５５９８发布","powerTime":"2018-05-27 09:51:38","powerComm":"已送电","subsNo":"","lineNo":"","tgNo":"","tgName":null,"infoStatus":"1","orgName":"国网清苑县供电公司","typeName":null,"infoStatusName":null,"dateDay":null,"orgNos":null,"nowTime":null,"countyName":null,"streetName":null,"villageName":null,"roadName":null,"communityName":null,"tranName":null,"sdLineName":null,"cityCode":"1340618","cityName":"国网清苑县供电公司","provinceCode":null,"stopTime":"2018-05-27 10:00:00","powerType":"全部","powerOffArea":"【单台区停电】停1北刘口内1","powerOffReason":"【停电原因】由于低压线断导致３５ＫＶ刘口变电站１０ＫＶ藏庄线５１１线路１北刘口内１号公变台区停电 【变更送电】无 【发布渠道】通过９５５９８发布","powerOffId":"2018052713000040"},{"poweroffId":2018052713000038,"sgpoweroffId":null,"subsName":"","lineName":"郭村线513","pubTranName":"郭东村混合1,郭东村农6【纯农排变】,郭东村混合3,","scope":"【影响街道/乡镇】寺庄乡　 【高危重要客户】无　　 【影响客户】郭东村","startTime":"2018-05-27 08:00:00","stopDate":"2018-05-27 20:10:00","orgNo":"1340623","typeCode":"其他临时停电","poweroffArea":"【分支停电】停郭东村混合3,郭东村混合1,郭东村农6【纯农排变】","poweroffReason":"【停电原因】由于郭村５１３线路３３号电杆倾斜，需停电进行紧急抢修导致３５ＫＶ白岳变电站郭村线５１３线路２８号杆５１３５号开关以下线路停电 【变更送电】因临时抢修进度加快原因，送电时间由２３：３０变更为２０：１０ 【发布渠道】通过９５５９８发布","powerTime":"2018-05-27 19:40:16","powerComm":"已送电","subsNo":"","lineNo":"","tgNo":"","tgName":null,"infoStatus":"1","orgName":"国网望都县供电公司","typeName":null,"infoStatusName":null,"dateDay":null,"orgNos":null,"nowTime":null,"countyName":null,"streetName":null,"villageName":null,"roadName":null,"communityName":null,"tranName":null,"sdLineName":null,"cityCode":"1340623","cityName":"国网望都县供电公司","provinceCode":null,"stopTime":"2018-05-27 20:10:00","powerType":"全部","powerOffArea":"【分支停电】停郭东村混合3,郭东村混合1,郭东村农6【纯农排变】","powerOffReason":"【停电原因】由于郭村５１３线路３３号电杆倾斜，需停电进行紧急抢修导致３５ＫＶ白岳变电站郭村线５１３线路２８号杆５１３５号开关以下线路停电 【变更送电】因临时抢修进度加快原因，送电时间由２３：３０变更为２０：１０ 【发布渠道】通过９５５９８发布","powerOffId":"2018052713000038"},{"poweroffId":2018052713000026,"sgpoweroffId":null,"subsName":"","lineName":"10kV513垒德线","pubTranName":"东环南大街东侧路灯,","scope":"【影响街道/乡镇】蠡吾镇【高危重要客户】无【影响客户】代庄、王庄开发区、鑫泽汽配城、紫薇山制药厂、方田牧业、永盛建材城","startTime":"2018-05-27 03:22:00","stopDate":"2018-05-27 06:30:00","orgNo":"1340616","typeCode":"电网故障停限电","poweroffArea":"【全线路停电】停东环南大街东侧路灯","poweroffReason":"【停电原因】由于站外开关掉闸导致３５ＫＶ王庄变电站１０ＫＶ垒德５１３线路全线停电【变更送电】无【发布渠道】通过９５５９８发布","powerTime":"2018-05-27 06:19:29","powerComm":"已送电","subsNo":"","lineNo":"","tgNo":"","tgName":null,"infoStatus":"1","orgName":"国网蠡县供电公司","typeName":null,"infoStatusName":null,"dateDay":null,"orgNos":null,"nowTime":null,"countyName":null,"streetName":null,"villageName":null,"roadName":null,"communityName":null,"tranName":null,"sdLineName":null,"cityCode":"1340616","cityName":"国网蠡县供电公司","provinceCode":null,"stopTime":"2018-05-27 06:30:00","powerType":"全部","powerOffArea":"【全线路停电】停东环南大街东侧路灯","powerOffReason":"【停电原因】由于站外开关掉闸导致３５ＫＶ王庄变电站１０ＫＶ垒德５１３线路全线停电【变更送电】无【发布渠道】通过９５５９８发布","powerOffId":"2018052713000026"},{"poweroffId":2018052713000023,"sgpoweroffId":null,"subsName":"","lineName":"10kV511电力新村线","pubTranName":"电力新村1备用,电力新村综合6台区箱变10KV出线间隔2号配电变压器,电力新村综合1台区,电力新村综合6台区箱变10KV出线间隔1号配电变压器,电力新村综合2台区,电力新村2备用,0469339055-六号照明变压器-专变-46778861-六号变压器,电力新村三台区出线间隔配电变压器,电力新村综合6台区箱变10KV出线间隔3号配电变压器,","scope":"【影响街道/乡镇】蠡吾镇【高危重要客户】无【影响客户】电力新村、蠡县供电公司","startTime":"2018-05-27 03:16:00","stopDate":"2018-05-27 06:30:00","orgNo":"1340616","typeCode":"电网故障停限电","poweroffArea":"【全线路停电】停电力新村1备用,电力新村综合6台区箱变10KV出线间隔3号配电变压器,电力新村三台区出线间隔配电变压器,电力新村综合6台区箱变10KV出线间隔2号配电变压器,电力新村2备用,电力新村综合2台区,电力新村综合6台区箱变10KV出线间隔1号配电变压器,0469339055-六号照明变压器-专变-46778861-六号变压器,电力新村综合1台区","poweroffReason":"【停电原因】由于站外开关掉闸导致３５ＫＶ王庄变电站１０ＫＶ电力新村５１１线路全线停电【变更送电】无【发布渠道】通过９５５９８发布","powerTime":"2018-05-27 06:19:58","powerComm":"已送电","subsNo":"","lineNo":"","tgNo":"","tgName":null,"infoStatus":"1","orgName":"国网蠡县供电公司","typeName":null,"infoStatusName":null,"dateDay":null,"orgNos":null,"nowTime":null,"countyName":null,"streetName":null,"villageName":null,"roadName":null,"communityName":null,"tranName":null,"sdLineName":null,"cityCode":"1340616","cityName":"国网蠡县供电公司","provinceCode":null,"stopTime":"2018-05-27 06:30:00","powerType":"全部","powerOffArea":"【全线路停电】停电力新村1备用,电力新村综合6台区箱变10KV出线间隔3号配电变压器,电力新村三台区出线间隔配电变压器,电力新村综合6台区箱变10KV出线间隔2号配电变压器,电力新村2备用,电力新村综合2台区,电力新村综合6台区箱变10KV出线间隔1号配电变压器,0469339055-六号照明变压器-专变-46778861-六号变压器,电力新村综合1台区","powerOffReason":"【停电原因】由于站外开关掉闸导致３５ＫＶ王庄变电站１０ＫＶ电力新村５１１线路全线停电【变更送电】无【发布渠道】通过９５５９８发布","powerOffId":"2018052713000023"}],"pageModel":{"pageNow":1070,"totalCount":10973,"totalPage":1098,"tableRows":0,"pageCount":10,"beginCount":10690},"isExperi":"1"}