{"message":"","today":"2020-06-15","seleList":[{"poweroffId":2018052513000597,"sgpoweroffId":null,"subsName":"","lineName":"西王庄线521","pubTranName":"孙永跃50,连庄冲床,西王庄西大方11#农业,西王庄东南21#农业,连庄农排新增1号,王振农场,西王庄村西综合24,安庄村东综合73,刘伟4号,西演新79综合,西王庄村西新增综合台区,西王庄村南综合,王庄钢厂(子),西王庄农业76#,西王庄村北综合72,74#西演农业1#,西王庄村东22#农业,高阳县雄鹰扣板厂变压器,连庄57#农业,河北省大广高速公路京衡段筹建处变压器,安庄村东北新增综合,尤五面厂,高阳县宏柱冲压件厂变压器,西演村南46综合,西王庄眼镜厂,连庄村北新增综合82,西演供电所250KVA,西演供电所,连庄28#农业,西王庄村西12#农业,连庄32#农业,刘志海,西王庄村东新增综合台区,西演高压1#农业85,安庄村西(李石香),高阳县亚飞农用汽车销售有限公司台区,高阳县庞口镇西王庄村变压器,安庄农业生态开发,高阳县桥东粮油加工厂变压器,西演东北4综合,西演村东新增综合,广汇纺织印染公司,西演高压2#农业71,安庄60#农业,西演官坑综合,姜齐庄42#农业,75#西演农业2#,安庄9#农业,西演村东47综合,连庄村西综合81,中国移动通信集团河北有限公司高阳分公司,王震浇地,西王庄村东综合23,王保亮,王仙,高阳县华谊内燃机配件经销处变压器,北柳庄,连庄村西北新增综合,安庄6#农业,西王庄村南综合65,连庄农排新增2号,西王庄孙永跃,安庄59#农业,西王庄北大方农排,高阳县东兴机械厂变压器,安庄村西新增综合,西王庄农业77#,连庄村北综合80,王爱民,安庄10综合,西王庄村北34#农业,高阳县众德蔬菜农民专业合作社变压器,西王庄毛纺厂,安庄村北新增综合,西演南3综合,石文利,西王庄孙永和,边渡口包地,王立明变压器,西演村南(牛世民),食用菌种殖厂,安庄8#农业,78#西演农业3#,高阳县广汇纺织印染有限公司变压器,连庄58#农业,高阳县汇通机械厂变压器,","scope":"【影响街道/乡镇】西演镇、庞口镇 【高危重要客户】无 【影响客户】西演村东、西演村南、西演村北、安庄（安家庄）、连庄（连家庄）、西王庄、姜齐庄村北","startTime":"2018-06-01 06:00:00","stopDate":"2018-06-01 23:00:00","orgNo":"1340613","typeCode":"临时停电","poweroffArea":"【分支停电】停姜齐庄42#农业,安庄8#农业,74#西演农业1#,西演东北4综合,高阳县东兴机械厂变压器,河北省大广高速公路京衡段筹建处变压器,安庄59#农业,高阳县亚飞农用汽车销售有限公司台区,高阳县雄鹰扣板厂变压器,安庄村东北新增综合,高阳县众德蔬菜农民专业合作社变压器,西演供电所250KVA,西演村南46综合,高阳县庞口镇西王庄村变压器,高阳县汇通机械厂变压器,安庄9#农业,高阳县桥东粮油加工厂变压器,西演高压2#农业71,孙永跃50,西演村东47综合,安庄村北新增综合,西王庄西大方11#农业,西演村南(牛世民),78#西演农业3#,连庄村北新增综合82,西演供电所,西演高压1#农业85,连庄32#农业,连庄冲床,王震浇地,王爱民,西王庄村南综合,西王庄村西综合24,安庄60#农业,王保亮,高阳县宏柱冲压件厂变压器,高阳县华谊内燃机配件经销处变压器,西演新79综合,中国移动通信集团河北有限公司高阳分公司,西王庄孙永跃,西王庄眼镜厂,西王庄村北34#农业,西王庄农业77#,王振农场,西演官坑综合,安庄农业生态开发,安庄村西(李石香),连庄村西北新增综合,刘伟4号,75#西演农业2#,西王庄毛纺厂,西王庄孙永和,西王庄村东22#农业,连庄农排新增1号,西王庄村西新增综合台区,北柳庄,刘志海,西演村东新增综合,西王庄东南21#农业,西王庄北大方农排,王庄钢厂(子),尤五面厂,西王庄村东新增综合台区,连庄58#农业,边渡口包地,西王庄村南综合65,连庄村北综合80,石文利,广汇纺织印染公司,安庄6#农业,西王庄村北综合72,安庄村东综合73,连庄28#农业,王立明变压器,连庄村西综合81,高阳县广汇纺织印染有限公司变压器,西王庄农业76#,连庄57#农业,连庄农排新增2号,西王庄村东综合23,西演南3综合,安庄10综合,安庄村西新增综合,王仙,食用菌种殖厂,西王庄村西12#农业","poweroffReason":"【停电原因】由于换杆、换线导致１１０ＫＶ西演变电站西王庄５２１线路主线５号杆５号开关以下停电【变更送电】因工作正在处理中，送电时间由１９：００变更为２３：００【发布渠道】９５５９８","powerTime":"2018-06-01 22:52:19","powerComm":"已送电","subsNo":"","lineNo":"","tgNo":"","tgName":null,"infoStatus":"1","orgName":"国网高阳县供电公司","typeName":null,"infoStatusName":null,"dateDay":null,"orgNos":null,"nowTime":null,"countyName":null,"streetName":null,"villageName":null,"roadName":null,"communityName":null,"tranName":null,"sdLineName":null,"cityCode":"1340613","cityName":"国网高阳县供电公司","provinceCode":null,"stopTime":"2018-06-01 23:00:00","powerType":"全部","powerOffArea":"【分支停电】停姜齐庄42#农业,安庄8#农业,74#西演农业1#,西演东北4综合,高阳县东兴机械厂变压器,河北省大广高速公路京衡段筹建处变压器,安庄59#农业,高阳县亚飞农用汽车销售有限公司台区,高阳县雄鹰扣板厂变压器,安庄村东北新增综合,高阳县众德蔬菜农民专业合作社变压器,西演供电所250KVA,西演村南46综合,高阳县庞口镇西王庄村变压器,高阳县汇通机械厂变压器,安庄9#农业,高阳县桥东粮油加工厂变压器,西演高压2#农业71,孙永跃50,西演村东47综合,安庄村北新增综合,西王庄西大方11#农业,西演村南(牛世民),78#西演农业3#,连庄村北新增综合82,西演供电所,西演高压1#农业85,连庄32#农业,连庄冲床,王震浇地,王爱民,西王庄村南综合,西王庄村西综合24,安庄60#农业,王保亮,高阳县宏柱冲压件厂变压器,高阳县华谊内燃机配件经销处变压器,西演新79综合,中国移动通信集团河北有限公司高阳分公司,西王庄孙永跃,西王庄眼镜厂,西王庄村北34#农业,西王庄农业77#,王振农场,西演官坑综合,安庄农业生态开发,安庄村西(李石香),连庄村西北新增综合,刘伟4号,75#西演农业2#,西王庄毛纺厂,西王庄孙永和,西王庄村东22#农业,连庄农排新增1号,西王庄村西新增综合台区,北柳庄,刘志海,西演村东新增综合,西王庄东南21#农业,西王庄北大方农排,王庄钢厂(子),尤五面厂,西王庄村东新增综合台区,连庄58#农业,边渡口包地,西王庄村南综合65,连庄村北综合80,石文利,广汇纺织印染公司,安庄6#农业,西王庄村北综合72,安庄村东综合73,连庄28#农业,王立明变压器,连庄村西综合81,高阳县广汇纺织印染有限公司变压器,西王庄农业76#,连庄57#农业,连庄农排新增2号,西王庄村东综合23,西演南3综合,安庄10综合,安庄村西新增综合,王仙,食用菌种殖厂,西王庄村西12#农业","powerOffReason":"【停电原因】由于换杆、换线导致１１０ＫＶ西演变电站西王庄５２１线路主线５号杆５号开关以下停电【变更送电】因工作正在处理中，送电时间由１９：００变更为２３：００【发布渠道】９５５９８","powerOffId":"2018052513000597"},{"poweroffId":2018052513000593,"sgpoweroffId":null,"subsName":"","lineName":"10kV利民路站564线路","pubTranName":"B1600柱上变压器,","scope":"【影响街道/乡镇】南大园乡 【高危重要客户】无 【影响客户】东马池村","startTime":"2018-05-29 08:30:00","stopDate":"2018-05-29 12:00:00","orgNo":"13406","typeCode":"临时停电","poweroffArea":"【单台区停电】停B1600柱上变压器","poweroffReason":"【停电原因】由于供电设备临时检修导致１０ＫＶ利民路变电站５６４线路Ｂ１６００公变台区停电【变更送电】无【发布渠道】通过保定市保定有限电视台（５月２５日２０时１５分至２１时４５分之间）屏幕上滚动","powerTime":"2018-05-29 11:43:14","powerComm":"已送电","subsNo":"","lineNo":"","tgNo":"","tgName":null,"infoStatus":"1","orgName":"保定供电公司","typeName":null,"infoStatusName":null,"dateDay":null,"orgNos":null,"nowTime":null,"countyName":null,"streetName":null,"villageName":null,"roadName":null,"communityName":null,"tranName":null,"sdLineName":null,"cityCode":"13406","cityName":"保定供电公司","provinceCode":null,"stopTime":"2018-05-29 12:00:00","powerType":"全部","powerOffArea":"【单台区停电】停B1600柱上变压器","powerOffReason":"【停电原因】由于供电设备临时检修导致１０ＫＶ利民路变电站５６４线路Ｂ１６００公变台区停电【变更送电】无【发布渠道】通过保定市保定有限电视台（５月２５日２０时１５分至２１时４５分之间）屏幕上滚动","powerOffId":"2018052513000593"},{"poweroffId":2018052513000588,"sgpoweroffId":null,"subsName":"","lineName":"10kV马坊站532线路","pubTranName":"C557,0356219082-保定市华光机械有限公司-专变,0356339856-保定市新市区振兴海绵厂-专变,0356272771-保定市晨光纸业有限公司-1-配电室-变压器-1,0356216751-保定市晨光纸业有限公司板纸分公司-专变,C391柱上变压器,0357929580-保定市华建混凝土有限公司-1-配电室-变压器-1,0357311789-保定市建业混凝土搅拌有限公司-专变,0356339739-保定市新市区金兴纤维素厂-专变,0356337241-要庄乡张庄村-专变,C168柱上变压器,0709135791-保定市一代华航电子科技有限公司-专变,变压器,0356324414-保定市索力建筑材料有限公司-1-配电室-变压器-1,0356256801-保定市新德新型建筑材料厂-专变,0356238225-保定华中技工学校-900023499156-变压器,0356324313-保定科赛新材料科技有限公司-专变-206363152-变压器,0356384465-保定市华锐方正机械制造有限公司-1-配电室-变压器-1,0550533401-保定新一代久久防水工程有限公司-专变,C169柱上变压器,0366282081-保定国家高新技术产业开发区公共事业管理处-1-箱式变－变压器,0356219851-大马坊砖厂-专变,0654581900-河北威控机电设备有限公司-专变-183744280-变压器,0356213710-周庄砖厂-专变,0356335186-保定市高庙纸业有限公司-2#专变,0357741016-中能风电设备有限公司-1-配电室-变压器-1,0645868502-河北海泰环保材料有限公司-专变-169715193-变压器,0356326579-要庄乡张庄-专变,0356219444-要庄乡张庄-专变,0545975779-保定市华建混凝土有限公司-专变,0617700762-河北威控机电设备有限公司-专变,0356272771-保定市晨光纸业有限公司-1-配电室-变压器-2,0701252089-保定思源电力设备有限公司250kva,0356335186-保定市高庙纸业有限公司-1-配电室-变压器-1,","scope":"【影响街道/乡镇】大马坊乡、要庄乡、韩村乡 【高危重要客户】无 【影响客户】北张庄村、惠阳科技工业园、高新区周庄村砖场、张庄、村西南角予制厂、保满路北建业混凝土院内","startTime":"2018-05-29 06:00:00","stopDate":"2018-05-29 10:00:00","orgNo":"13406","typeCode":"临时停电","poweroffArea":"【分支停电】停0357741016-中能风电设备有限公司-1-配电室-变压器-1,0356219444-要庄乡张庄-专变,C168柱上变压器,0709135791-保定市一代华航电子科技有限公司-专变,0645868502-河北海泰环保材料有限公司-专变-169715193-变压器,0545975779-保定市华建混凝土有限公司-专变,0356324414-保定市索力建筑材料有限公司-1-配电室-变压器-1,变压器,0550533401-保定新一代久久防水工程有限公司-专变,0617700762-河北威控机电设备有限公司-专变,C169柱上变压器,0366282081-保定国家高新技术产业开发区公共事业管理处-1-箱式变－变压器,C391柱上变压器,C557,0356219851-大马坊砖厂-专变,0356272771-保定市晨光纸业有限公司-1-配电室-变压器-2,0654581900-河北威控机电设备有限公司-专变-183744280-变压器,0357311789-保定市建业混凝土搅拌有限公司-专变,0356213710-周庄砖厂-专变,0356339739-保定市新市区金兴纤维素厂-专变,0356326579-要庄乡张庄-专变,0356335186-保定市高庙纸业有限公司-2#专变,0356337241-要庄乡张庄村-专变,0356256801-保定市新德新型建筑材料厂-专变,0356219082-保定市华光机械有限公司-专变,0356238225-保定华中技工学校-900023499156-变压器,0701252089-保定思源电力设备有限公司250kva,0356339856-保定市新市区振兴海绵厂-专变,0356324313-保定科赛新材料科技有限公司-专变-206363152-变压器,0356335186-保定市高庙纸业有限公司-1-配电室-变压器-1,0357929580-保定市华建混凝土有限公司-1-配电室-变压器-1,0356272771-保定市晨光纸业有限公司-1-配电室-变压器-1,0356216751-保定市晨光纸业有限公司板纸分公司-专变,0356384465-保定市华锐方正机械制造有限公司-1-配电室-变压器-1","poweroffReason":"【停电原因】由于供电设备临时检修导致１０ＫＶ马坊变电站５３２线路３号开关以下停电【变更送电】无【发布渠道】通过保定市保定有限电视台（５月２５日２０时１５分至２１时４５分之间）屏幕上滚动","powerTime":"2018-05-29 09:45:44","powerComm":"已送电","subsNo":"","lineNo":"","tgNo":"","tgName":null,"infoStatus":"1","orgName":"保定供电公司","typeName":null,"infoStatusName":null,"dateDay":null,"orgNos":null,"nowTime":null,"countyName":null,"streetName":null,"villageName":null,"roadName":null,"communityName":null,"tranName":null,"sdLineName":null,"cityCode":"13406","cityName":"保定供电公司","provinceCode":null,"stopTime":"2018-05-29 10:00:00","powerType":"全部","powerOffArea":"【分支停电】停0357741016-中能风电设备有限公司-1-配电室-变压器-1,0356219444-要庄乡张庄-专变,C168柱上变压器,0709135791-保定市一代华航电子科技有限公司-专变,0645868502-河北海泰环保材料有限公司-专变-169715193-变压器,0545975779-保定市华建混凝土有限公司-专变,0356324414-保定市索力建筑材料有限公司-1-配电室-变压器-1,变压器,0550533401-保定新一代久久防水工程有限公司-专变,0617700762-河北威控机电设备有限公司-专变,C169柱上变压器,0366282081-保定国家高新技术产业开发区公共事业管理处-1-箱式变－变压器,C391柱上变压器,C557,0356219851-大马坊砖厂-专变,0356272771-保定市晨光纸业有限公司-1-配电室-变压器-2,0654581900-河北威控机电设备有限公司-专变-183744280-变压器,0357311789-保定市建业混凝土搅拌有限公司-专变,0356213710-周庄砖厂-专变,0356339739-保定市新市区金兴纤维素厂-专变,0356326579-要庄乡张庄-专变,0356335186-保定市高庙纸业有限公司-2#专变,0356337241-要庄乡张庄村-专变,0356256801-保定市新德新型建筑材料厂-专变,0356219082-保定市华光机械有限公司-专变,0356238225-保定华中技工学校-900023499156-变压器,0701252089-保定思源电力设备有限公司250kva,0356339856-保定市新市区振兴海绵厂-专变,0356324313-保定科赛新材料科技有限公司-专变-206363152-变压器,0356335186-保定市高庙纸业有限公司-1-配电室-变压器-1,0357929580-保定市华建混凝土有限公司-1-配电室-变压器-1,0356272771-保定市晨光纸业有限公司-1-配电室-变压器-1,0356216751-保定市晨光纸业有限公司板纸分公司-专变,0356384465-保定市华锐方正机械制造有限公司-1-配电室-变压器-1","powerOffReason":"【停电原因】由于供电设备临时检修导致１０ＫＶ马坊变电站５３２线路３号开关以下停电【变更送电】无【发布渠道】通过保定市保定有限电视台（５月２５日２０时１５分至２１时４５分之间）屏幕上滚动","powerOffId":"2018052513000588"},{"poweroffId":2018052513000584,"sgpoweroffId":null,"subsName":"","lineName":"10kV大阳站538线路","pubTranName":"C013柱上变压器,","scope":"【影响街道/乡镇】焦庄乡 【高危重要客户】无 【影响客户】焦庄村","startTime":"2018-05-29 06:00:00","stopDate":"2018-05-29 19:00:00","orgNo":"13406","typeCode":"临时停电","poweroffArea":"【单台区停电】停C013柱上变压器","poweroffReason":"【停电原因】由于供电设备临时检修导致１０ＫＶ大阳变电站５３８线路Ｃ０１３公变台区停电【变更送电】无【发布渠道】通过保定市保定有限电视台（５月２５日２０时１５分至２１时４５分之间）屏幕上滚动","powerTime":"2018-05-29 18:52:02","powerComm":"已送电","subsNo":"","lineNo":"","tgNo":"","tgName":null,"infoStatus":"1","orgName":"保定供电公司","typeName":null,"infoStatusName":null,"dateDay":null,"orgNos":null,"nowTime":null,"countyName":null,"streetName":null,"villageName":null,"roadName":null,"communityName":null,"tranName":null,"sdLineName":null,"cityCode":"13406","cityName":"保定供电公司","provinceCode":null,"stopTime":"2018-05-29 19:00:00","powerType":"全部","powerOffArea":"【单台区停电】停C013柱上变压器","powerOffReason":"【停电原因】由于供电设备临时检修导致１０ＫＶ大阳变电站５３８线路Ｃ０１３公变台区停电【变更送电】无【发布渠道】通过保定市保定有限电视台（５月２５日２０时１５分至２１时４５分之间）屏幕上滚动","powerOffId":"2018052513000584"},{"poweroffId":2018052513000555,"sgpoweroffId":null,"subsName":"","lineName":"10kV大五女515线","pubTranName":"南店农业五台区变压器【纯农排变】,南张村综合三台区变压器,西秋元综合六台区,北店农业八台区变压器【纯农排变】,南张村农业十三台区变压器【纯农排变】,郑村综合二台区变压器,滩头农业四台区变压器【纯农排变】,滩头农业7台区变压器,南张村农业十二台区变压器【纯农排变】,西秋元农业五台区变压器【纯农排变】,郑章供电所专用,大五女综合三台区变压器,北张村农业二台区变压器【纯农排变】,南张村农业19台区变压器【纯农排变】,郑村农业八台区变压器【纯农排变】,南张村农业20台区,北店综合二台区变压器,南店综合一台区变压器,北店综合一台区变压器,保定中易复合肥制造有限公司,北店农业11台区变压器【纯农排变】,南张村面粉厂,大五女综合十一台区变压器,北张村农业五台区【纯农排变】,南店农业四台区变压器【纯农排变】,南店综合六台区变压器,滩头农业五台区变压器【纯农排变】,张店农业二台区变压器【纯农排变】,郑村农业五台区变压器,南张村农业十一台区变压器【纯农排变】,南张村综合16台区变压器,南张村综合四台区变压器,郑村农业十四台区变压器【纯农排变】,大五女面粉厂2,南张村综合17台区变压器,南张村农业十台区变压器,大五女农业十台区变压器【纯农排变】,西秋元综合一台区变压器,郑村综合16台区变压器,滩头综合一台区变压器,南张村农业十五台区变压器,南店综合8台区变压器,南张村综合21台区,张店综合一台区变压器,0613075697-保定中易复合肥制造有限公司2-专变-127895288-中易复合肥,滩头综合6台区变压器,大五女综合二台区变压器,大五女农业六台区变压器【纯农排变】,大五女农业九台区变压器【纯农排变】,北店农业三台区变压器【纯农排变】,北店农业六台区变压器【纯农排变】,南张村农业六台区变压器【纯农排变】,南店农业三台区变压器,西秋元农业四台区变压器【纯农排变】,南张村综合18台区变压器,大五女农业五台区变压器,南张村综合一台区变压器,郑村农业17台区变压器【纯农排变】,南张村农业七台区变压器【纯农排变】,北张村综合一台区变压器,南张村综合十四台区变压器,北张村农业四台区【纯农排变】,谢庄农业六台区变压器,南张村农业五台区变压器【纯农排变】,北店综合9台区变压器,大五女综合一台区变压器,大五女农业四台区变压器【纯农排变】,郑村农业七台区变压器【纯农排变】,北张村农业三台区【纯农排变】,滩头农业二台区变压器【纯农排变】,南张村农业八台区变压器,郑村小火庄农业十一台区变压器【纯农排变】,南店农业二台区变压器,西秋元农业三台区变压器,郑村综合四台区变压器,郑村小火庄农业十台区变压器【纯农排变】,郑村小火庄农业十三台区,南张村农业九台区变压器【纯农排变】,大五女农业八台区变压器【纯农排变】,郑村农业九台区变压器【纯农排变】,郑村小火庄综合三台区变压器,滩头农业三台区变压器【纯农排变】,北张村农业6台区变压器【纯农排变】,大五女线515南张村农业22台区变压器,北店农业四台区变压器【纯农排变】,北店农业10台区变压器【纯农排变】,大五女农业七台区变压器【纯农排变】,大五女面粉厂1,郑村综合一台区变压器,北店农业五台区变压器,郑村综合15台区变压器,","scope":"【影响街道/乡镇】大五女镇 【高危重要客户】无 【影响客户】西秋元，郑村，滩头，北张村，南张村，大五女，张店，北店，南店","startTime":"2018-05-29 08:00:00","stopDate":"2018-05-29 19:00:00","orgNo":"1340606","typeCode":"临时停电","poweroffArea":"【全线路停电】停大五女综合三台区变压器,保定中易复合肥制造有限公司,西秋元农业五台区变压器【纯农排变】,北店综合一台区变压器,北张村综合一台区变压器,大五女综合一台区变压器,郑村小火庄农业十一台区变压器【纯农排变】,大五女农业六台区变压器【纯农排变】,南张村农业十台区变压器,北店农业七台区变压器,南店综合8台区变压器,南张村农业20台区,郑村农业十四台区变压器【纯农排变】,南张村农业九台区变压器【纯农排变】,北店农业五台区变压器,0613075697-保定中易复合肥制造有限公司2-专变-127895288-中易复合肥,郑村农业17台区变压器【纯农排变】,张店农业二台区变压器【纯农排变】,南张村农业八台区变压器,大五女面粉厂2,西秋元农业三台区变压器,南店农业四台区变压器【纯农排变】,郑章供电所专用,南张村农业十二台区变压器【纯农排变】,郑村农业五台区变压器,南店农业三台区变压器,滩头农业四台区变压器【纯农排变】,南张村综合21台区,南张村综合一台区变压器,郑村小火庄农业十台区变压器【纯农排变】,南张村农业十五台区变压器,滩头农业五台区变压器【纯农排变】,大五女农业十台区变压器【纯农排变】,滩头农业二台区变压器【纯农排变】,西秋元综合一台区变压器,北张村农业二台区变压器【纯农排变】,北张村农业五台区【纯农排变】,南张村综合三台区变压器,郑村综合二台区变压器,郑村综合16台区变压器,郑村综合一台区变压器,南店农业7台区变压器,南张村综合17台区变压器,北店农业六台区变压器【纯农排变】,郑村综合12台区变压器,南店综合六台区变压器,郑村综合15台区变压器,南张村综合二台区变压器,滩头综合一台区变压器,南店农业二台区变压器,滩头综合6台区变压器,郑村农业八台区变压器【纯农排变】,郑村小火庄综合三台区变压器,张店综合一台区变压器,北张村农业三台区【纯农排变】,滩头农业7台区变压器,郑村综合四台区变压器,北店农业四台区变压器【纯农排变】,南张村综合18台区变压器,大五女线515南张村农业22台区变压器,北张村农业6台区变压器【纯农排变】,谢庄农业六台区变压器,南张村面粉厂,大五女综合十一台区变压器,南张村农业19台区变压器【纯农排变】,大五女综合二台区变压器,北店综合9台区变压器,郑村农业七台区变压器【纯农排变】,郑村小火庄农业十三台区,大五女农业四台区变压器【纯农排变】,南张村农业六台区变压器【纯农排变】,南张村综合16台区变压器,南店农业五台区变压器【纯农排变】,北店农业八台区变压器【纯农排变】,南张村综合十四台区变压器,北张村农业四台区【纯农排变】,大五女面粉厂1,西秋元综合六台区,大五女农业九台区变压器【纯农排变】,南张村农业十一台区变压器【纯农排变】,郑村农业九台区变压器【纯农排变】,北店农业10台区变压器【纯农排变】,南店综合一台区变压器,大五女农业七台区变压器【纯农排变】,北店农业11台区变压器【纯农排变】,北店综合二台区变压器,南张村综合四台区变压器,南张村农业五台区变压器【纯农排变】,滩头农业三台区变压器【纯农排变】,大五女农业八台区变压器【纯农排变】,大五女农业五台区变压器,南张村农业十三台区变压器【纯农排变】,郑村农业六台区变压器【纯农排变】,西秋元农业四台区变压器【纯农排变】,北店农业三台区变压器【纯农排变】,南张村农业七台区变压器【纯农排变】","poweroffReason":"【停电原因】由于更换导线导致３５ＫＶ谢庄变电站１０ＫＶ大五女５１５线路全线停电 【变更送电】无 【发布渠道】保定市安国电视台（０５月２７日００时至２４时之间）屏幕上方滚动","powerTime":"2018-05-29 18:45:09","powerComm":"已送电","subsNo":"","lineNo":"","tgNo":"","tgName":null,"infoStatus":"1","orgName":"国网安国市供电公司","typeName":null,"infoStatusName":null,"dateDay":null,"orgNos":null,"nowTime":null,"countyName":null,"streetName":null,"villageName":null,"roadName":null,"communityName":null,"tranName":null,"sdLineName":null,"cityCode":"1340606","cityName":"国网安国市供电公司","provinceCode":null,"stopTime":"2018-05-29 19:00:00","powerType":"全部","powerOffArea":"【全线路停电】停大五女综合三台区变压器,保定中易复合肥制造有限公司,西秋元农业五台区变压器【纯农排变】,北店综合一台区变压器,北张村综合一台区变压器,大五女综合一台区变压器,郑村小火庄农业十一台区变压器【纯农排变】,大五女农业六台区变压器【纯农排变】,南张村农业十台区变压器,北店农业七台区变压器,南店综合8台区变压器,南张村农业20台区,郑村农业十四台区变压器【纯农排变】,南张村农业九台区变压器【纯农排变】,北店农业五台区变压器,0613075697-保定中易复合肥制造有限公司2-专变-127895288-中易复合肥,郑村农业17台区变压器【纯农排变】,张店农业二台区变压器【纯农排变】,南张村农业八台区变压器,大五女面粉厂2,西秋元农业三台区变压器,南店农业四台区变压器【纯农排变】,郑章供电所专用,南张村农业十二台区变压器【纯农排变】,郑村农业五台区变压器,南店农业三台区变压器,滩头农业四台区变压器【纯农排变】,南张村综合21台区,南张村综合一台区变压器,郑村小火庄农业十台区变压器【纯农排变】,南张村农业十五台区变压器,滩头农业五台区变压器【纯农排变】,大五女农业十台区变压器【纯农排变】,滩头农业二台区变压器【纯农排变】,西秋元综合一台区变压器,北张村农业二台区变压器【纯农排变】,北张村农业五台区【纯农排变】,南张村综合三台区变压器,郑村综合二台区变压器,郑村综合16台区变压器,郑村综合一台区变压器,南店农业7台区变压器,南张村综合17台区变压器,北店农业六台区变压器【纯农排变】,郑村综合12台区变压器,南店综合六台区变压器,郑村综合15台区变压器,南张村综合二台区变压器,滩头综合一台区变压器,南店农业二台区变压器,滩头综合6台区变压器,郑村农业八台区变压器【纯农排变】,郑村小火庄综合三台区变压器,张店综合一台区变压器,北张村农业三台区【纯农排变】,滩头农业7台区变压器,郑村综合四台区变压器,北店农业四台区变压器【纯农排变】,南张村综合18台区变压器,大五女线515南张村农业22台区变压器,北张村农业6台区变压器【纯农排变】,谢庄农业六台区变压器,南张村面粉厂,大五女综合十一台区变压器,南张村农业19台区变压器【纯农排变】,大五女综合二台区变压器,北店综合9台区变压器,郑村农业七台区变压器【纯农排变】,郑村小火庄农业十三台区,大五女农业四台区变压器【纯农排变】,南张村农业六台区变压器【纯农排变】,南张村综合16台区变压器,南店农业五台区变压器【纯农排变】,北店农业八台区变压器【纯农排变】,南张村综合十四台区变压器,北张村农业四台区【纯农排变】,大五女面粉厂1,西秋元综合六台区,大五女农业九台区变压器【纯农排变】,南张村农业十一台区变压器【纯农排变】,郑村农业九台区变压器【纯农排变】,北店农业10台区变压器【纯农排变】,南店综合一台区变压器,大五女农业七台区变压器【纯农排变】,北店农业11台区变压器【纯农排变】,北店综合二台区变压器,南张村综合四台区变压器,南张村农业五台区变压器【纯农排变】,滩头农业三台区变压器【纯农排变】,大五女农业八台区变压器【纯农排变】,大五女农业五台区变压器,南张村农业十三台区变压器【纯农排变】,郑村农业六台区变压器【纯农排变】,西秋元农业四台区变压器【纯农排变】,北店农业三台区变压器【纯农排变】,南张村农业七台区变压器【纯农排变】","powerOffReason":"【停电原因】由于更换导线导致３５ＫＶ谢庄变电站１０ＫＶ大五女５１５线路全线停电 【变更送电】无 【发布渠道】保定市安国电视台（０５月２７日００时至２４时之间）屏幕上方滚动","powerOffId":"2018052513000555"},{"poweroffId":2018052513000508,"sgpoweroffId":null,"subsName":"","lineName":"杨村线513","pubTranName":"西赵光1,0011676817李铁臣面粉厂,北寨光6,南冬光4,新杨村光5,南谢村村排6【纯农排变】,杨村排16【纯农排变】,杨村排9【纯农排变】,杨村排12【纯农排变】,西赵光4,0011676807杨村排6,东韩村【纯农排变】,北寨光2,0011676820杨村排1,东赵光2,育德小学-315,北寨光5,南寨排【纯农排变】,0696770339-定兴县杨村中心小学-专变-240815559-400,北寨光3,杨村排8【纯农排变】,西赵光2,北寨排3【纯农排变】,东赵光1,北寨光1,新杨村光2,西赵排1【纯农排变】,西赵光3,南谢排4 1【纯农排变】,杨村光9,南谢光3,南谢排5【纯农排变】,杨村光10,杨村光7,杨村混6,200,北寨排1【纯农排变】,北寨排6【纯农排变】,新杨村光4,杨村光8,杨村光1,北寨排2【纯农排变】,北寨光4,北寨排4【纯农排变】,杨村光3,杨村幼儿园-200,杨村光11,北寨排5【纯农排变】,南寨变,西赵排2【纯农排变】,","scope":"【影响街道/乡镇】杨村乡 【高危重要客户】无 【影响客户】南寨、东赵、西赵、杨村、化学试剂厂、北寨","startTime":"2018-06-14 04:00:00","stopDate":"2018-06-14 06:00:00","orgNo":"1340609","typeCode":"计划停电","poweroffArea":"【全线路停电】停南谢排4 1【纯农排变】,北寨光6,杨村光1,东赵光2,杨村光8,南寨排【纯农排变】,东赵光1,200,杨村光3,杨村混6,西赵光1,北寨排2【纯农排变】,北寨光3,北寨光4,杨村光7,北寨光1,杨村光11,西赵光3,东韩村【纯农排变】,育德小学-315,新杨村光5,西赵光4,新杨村光2,南寨变,杨村排16【纯农排变】,北寨排1【纯农排变】,西赵排1【纯农排变】,北寨排6【纯农排变】,杨村排9【纯农排变】,0011676807杨村排6,南谢光3,北寨光5,杨村幼儿园-200,北寨排4【纯农排变】,0011676817李铁臣面粉厂,西赵排2【纯农排变】,杨村排8【纯农排变】,杨村排12【纯农排变】,新杨村光4,西赵光2,0696770339-定兴县杨村中心小学-专变-240815559-400,北寨光2,北寨排3【纯农排变】,南谢排5【纯农排变】,南冬光4,0011676820杨村排1,北寨排5【纯农排变】,杨村光10,南谢村村排6【纯农排变】,杨村光9","poweroffReason":"【停电原因】由于主干０１７号杆鑫伟弹簧增容、搭接弓子线导致３５ＫＶ杨村变电站杨村线５１３线路全线停电 【变更送电】无 【发布渠道】保定市定兴县电视台（０６月０６日０９时１０分至２３时５０分之间）屏幕上方滚动播放","powerTime":"2018-06-14 05:24:34","powerComm":"已送电","subsNo":"","lineNo":"","tgNo":"","tgName":null,"infoStatus":"1","orgName":"国网定兴县供电公司","typeName":null,"infoStatusName":null,"dateDay":null,"orgNos":null,"nowTime":null,"countyName":null,"streetName":null,"villageName":null,"roadName":null,"communityName":null,"tranName":null,"sdLineName":null,"cityCode":"1340609","cityName":"国网定兴县供电公司","provinceCode":null,"stopTime":"2018-06-14 06:00:00","powerType":"全部","powerOffArea":"【全线路停电】停南谢排4 1【纯农排变】,北寨光6,杨村光1,东赵光2,杨村光8,南寨排【纯农排变】,东赵光1,200,杨村光3,杨村混6,西赵光1,北寨排2【纯农排变】,北寨光3,北寨光4,杨村光7,北寨光1,杨村光11,西赵光3,东韩村【纯农排变】,育德小学-315,新杨村光5,西赵光4,新杨村光2,南寨变,杨村排16【纯农排变】,北寨排1【纯农排变】,西赵排1【纯农排变】,北寨排6【纯农排变】,杨村排9【纯农排变】,0011676807杨村排6,南谢光3,北寨光5,杨村幼儿园-200,北寨排4【纯农排变】,0011676817李铁臣面粉厂,西赵排2【纯农排变】,杨村排8【纯农排变】,杨村排12【纯农排变】,新杨村光4,西赵光2,0696770339-定兴县杨村中心小学-专变-240815559-400,北寨光2,北寨排3【纯农排变】,南谢排5【纯农排变】,南冬光4,0011676820杨村排1,北寨排5【纯农排变】,杨村光10,南谢村村排6【纯农排变】,杨村光9","powerOffReason":"【停电原因】由于主干０１７号杆鑫伟弹簧增容、搭接弓子线导致３５ＫＶ杨村变电站杨村线５１３线路全线停电 【变更送电】无 【发布渠道】保定市定兴县电视台（０６月０６日０９时１０分至２３时５０分之间）屏幕上方滚动播放","powerOffId":"2018052513000508"},{"poweroffId":2018052513000504,"sgpoweroffId":null,"subsName":"","lineName":"工业线511","pubTranName":"大北召排9【纯农排变】,大北召混8,大北召排7【纯农排变】,","scope":"【影响街道/乡镇】李郁庄乡 【高危重要客户】无 【影响客户】大北召","startTime":"2018-06-05 01:00:00","stopDate":"2018-06-05 06:00:00","orgNo":"1340609","typeCode":"计划停电","poweroffArea":"【分支停电】停大北召排7【纯农排变】,大北召排9【纯农排变】,大北召混8","poweroffReason":"【停电原因】由于大北召排９分支更换高压计量导致３５ＫＶ彭各庄变电站工业线５１１线路大北召排７分支００２号杆以下线路停电 【变更送电】无 【发布渠道】保定市定兴县电视台（０５月２８日０９时１０分至２３时５０分之间）屏幕上方滚动播放","powerTime":"2018-06-05 05:01:54","powerComm":"已送电","subsNo":"","lineNo":"","tgNo":"","tgName":null,"infoStatus":"1","orgName":"国网定兴县供电公司","typeName":null,"infoStatusName":null,"dateDay":null,"orgNos":null,"nowTime":null,"countyName":null,"streetName":null,"villageName":null,"roadName":null,"communityName":null,"tranName":null,"sdLineName":null,"cityCode":"1340609","cityName":"国网定兴县供电公司","provinceCode":null,"stopTime":"2018-06-05 06:00:00","powerType":"全部","powerOffArea":"【分支停电】停大北召排7【纯农排变】,大北召排9【纯农排变】,大北召混8","powerOffReason":"【停电原因】由于大北召排９分支更换高压计量导致３５ＫＶ彭各庄变电站工业线５１１线路大北召排７分支００２号杆以下线路停电 【变更送电】无 【发布渠道】保定市定兴县电视台（０５月２８日０９时１０分至２３时５０分之间）屏幕上方滚动播放","powerOffId":"2018052513000504"},{"poweroffId":2018052513000503,"sgpoweroffId":null,"subsName":"","lineName":"10kV北辛庄站543线路","pubTranName":"0697785961-中广核保定新能源有限公司-1#专变,","scope":"【影响街道/乡镇】南二环 【高危重要客户】无 【影响客户】河北农业大学西校区、中广核保定新能源有限公司","startTime":"2018-05-25 16:49:51","stopDate":"2018-05-26 10:00:00","orgNo":"13406","typeCode":"电网故障停限电","poweroffArea":"【全线路停电】停0697785961-中广核保定新能源有限公司-1#专变","poweroffReason":"【停电原因】由于用户设备原因导致１０ＫＶ北辛庄变电站５４３线路全线停电【变更送电】因工作正在处理中，送电时间由２６日０７：００变更为２６日１０：００【发布渠道】通过９５５９８发布","powerTime":"2018-05-26 09:59:03","powerComm":"已送电","subsNo":"","lineNo":"","tgNo":"","tgName":null,"infoStatus":"1","orgName":"保定供电公司","typeName":null,"infoStatusName":null,"dateDay":null,"orgNos":null,"nowTime":null,"countyName":null,"streetName":null,"villageName":null,"roadName":null,"communityName":null,"tranName":null,"sdLineName":null,"cityCode":"13406","cityName":"保定供电公司","provinceCode":null,"stopTime":"2018-05-26 10:00:00","powerType":"全部","powerOffArea":"【全线路停电】停0697785961-中广核保定新能源有限公司-1#专变","powerOffReason":"【停电原因】由于用户设备原因导致１０ＫＶ北辛庄变电站５４３线路全线停电【变更送电】因工作正在处理中，送电时间由２６日０７：００变更为２６日１０：００【发布渠道】通过９５５９８发布","powerOffId":"2018052513000503"},{"poweroffId":2018052513000486,"sgpoweroffId":null,"subsName":"","lineName":"老里线562","pubTranName":"西里排3【纯农排变】,张里排1【纯农排变】,老里光11【煤改电】,老里光1变压器【煤改电】,老里排2【纯农排变】,老里光2,中连排2【纯农排变】,张里光2,张里光1,老里光3【煤改电】,老里光9【煤改电】,老里排1【纯农排变】,张里排3【纯农排变】,西里排1【纯农排变】,老里光10【煤改电】,张里光4,西里光3,老里光7【煤改电】,张里排4【纯农排变】,老里光3,老里排5【纯农排变】,中连排3【纯农排变】,张里排2【纯农排变】,西里排4【纯农排变】,张里村排5【纯农排变】,老里光6【煤改电】,老里光2【煤改电】,老里光4【煤改电】,老里排3【纯农排变】,老里排4【纯农排变】,老里光5【煤改电】,老里光8【煤改电】,西里排2【纯农排变】,西里光4【灾后重建】,西里光1,新西里光2,张里光3,","scope":"【影响街道/乡镇】杨村乡 【高危重要客户】无 【影响客户】西里村、老里村、张里村、中连部分用户","startTime":"2018-06-05 01:00:00","stopDate":"2018-06-05 04:00:00","orgNo":"1340609","typeCode":"计划停电","poweroffArea":"【分支停电】停老里光5【煤改电】,老里光8【煤改电】,老里光10【煤改电】,老里光7【煤改电】,老里光6【煤改电】,老里光3【煤改电】,老里光2【煤改电】,老里光4【煤改电】,老里光11【煤改电】 ,老里光9【煤改电】,老里光1变压器【煤改电】,老里排3【纯农排变】,老里光3,老里排1【纯农排变】,老里排2【纯农排变】,老里排4【纯农排变】,老里排5【纯农排变】,老里光2,西里光4【灾后重建】,新西里光2,西里排1【纯农排变】,西里光3,西里光1,西里排2【纯农排变】,西里排3【纯农排变】,西里排4【纯农排变】,张里排1【纯农排变】,张里光2,张里排4【纯农排变】,张里光4,张里光3,张里村排5【纯农排变】,张里光1,张里排2【纯农排变】,张里排3【纯农排变】,中连排2【纯农排变】,中连排3【纯农排变】","poweroffReason":"【停电原因】由于西里光３分支６号杆搭接导线导致２２０ＫＶ柳卓开关站老里线５６２线路西里排１分支４号杆５６２－０９号隔离开关以下线路停电 【变更送电】无 【发布渠道】保定市定兴县电视台（０５月２８日０９时１０分至２３时５０分之间）屏幕上方滚动播放","powerTime":"2018-06-05 03:01:35","powerComm":"已送电","subsNo":"","lineNo":"","tgNo":"","tgName":null,"infoStatus":"1","orgName":"国网定兴县供电公司","typeName":null,"infoStatusName":null,"dateDay":null,"orgNos":null,"nowTime":null,"countyName":null,"streetName":null,"villageName":null,"roadName":null,"communityName":null,"tranName":null,"sdLineName":null,"cityCode":"1340609","cityName":"国网定兴县供电公司","provinceCode":null,"stopTime":"2018-06-05 04:00:00","powerType":"全部","powerOffArea":"【分支停电】停老里光5【煤改电】,老里光8【煤改电】,老里光10【煤改电】,老里光7【煤改电】,老里光6【煤改电】,老里光3【煤改电】,老里光2【煤改电】,老里光4【煤改电】,老里光11【煤改电】 ,老里光9【煤改电】,老里光1变压器【煤改电】,老里排3【纯农排变】,老里光3,老里排1【纯农排变】,老里排2【纯农排变】,老里排4【纯农排变】,老里排5【纯农排变】,老里光2,西里光4【灾后重建】,新西里光2,西里排1【纯农排变】,西里光3,西里光1,西里排2【纯农排变】,西里排3【纯农排变】,西里排4【纯农排变】,张里排1【纯农排变】,张里光2,张里排4【纯农排变】,张里光4,张里光3,张里村排5【纯农排变】,张里光1,张里排2【纯农排变】,张里排3【纯农排变】,中连排2【纯农排变】,中连排3【纯农排变】","powerOffReason":"【停电原因】由于西里光３分支６号杆搭接导线导致２２０ＫＶ柳卓开关站老里线５６２线路西里排１分支４号杆５６２－０９号隔离开关以下线路停电 【变更送电】无 【发布渠道】保定市定兴县电视台（０５月２８日０９时１０分至２３时５０分之间）屏幕上方滚动播放","powerOffId":"2018052513000486"},{"poweroffId":2018052513000474,"sgpoweroffId":null,"subsName":"","lineName":"西王庄线521","pubTranName":"西王庄西大方11#农业【纯农排变】,王爱民,高阳县宏柱冲压件厂变压器,孙永跃50,西王庄村南综合65,连庄57#农业【纯农排变】,姜齐庄42#农业【纯农排变】,连庄村北新增综合82,连庄32#农业【纯农排变】,西王庄村北34#农业【纯农排变】,西王庄村东新增综合台区,石文利,西王庄村北综合72,高阳县广汇纺织印染有限公司变压器,西王庄农业76#【纯农排变】,西王庄村东综合23,安庄10综合,食用菌种殖厂,王保亮,刘志海,中国移动通信集团河北有限公司高阳分公司,西王庄孙永跃,西王庄毛纺厂,连庄农排新增1号【纯农排变】,西王庄村西新增综合台区,北柳庄,安庄村东综合73,西王庄村西12#农业【纯农排变】,西王庄村东22#农业【纯农排变】,连庄村北综合80,河北省大广高速公路京衡段筹建处变压器,安庄59#农业【纯农排变】,安庄8#农业【纯农排变】,高阳县亚飞农用汽车销售有限公司台区,西王庄农业77#【纯农排变】,连庄村西北新增综合,西王庄孙永和,西王庄东南21#农业【纯农排变】,西王庄北大方农排【纯农排变】,连庄58#农业【纯农排变】,广汇纺织印染公司,西王庄村南综合,西王庄村西综合24,安庄村东北新增综合,安庄9#农业【纯农排变】,边渡口包地,安庄6#农业【纯农排变】,安庄村西(李石香),王庄钢厂(子),王立明变压器,连庄28#农业【纯农排变】,王震浇地,安庄村北新增综合,连庄村西综合81,连庄农排新增2号【纯农排变】,安庄村西新增综合,安庄60#农业【纯农排变】,高阳县汇通机械厂变压器,西王庄眼镜厂,姜齐庄村北新增综合,王振农场,安庄农业生态开发,","scope":"【影响街道/乡镇】西演镇、庞口镇 【高危重要客户】无 【影响客户】安庄村、连庄村、西王庄村、姜齐庄村北","startTime":"2018-06-01 07:00:00","stopDate":"2018-06-01 17:00:00","orgNo":"1340613","typeCode":"临时停电","poweroffArea":"【分支停电】停河北省大广高速公路京衡段筹建处变压器,安庄59#农业【纯农排变】,安庄村东北新增综合,安庄9#农业【纯农排变】,孙永跃50,西王庄西大方11#农业【纯农排变】,王爱民,西王庄村南综合,西王庄村西综合24,安庄60#农业【纯农排变】,王保亮,高阳县宏柱冲压件厂变压器,高阳县汇通机械厂变压器,中国移动通信集团河北有限公司高阳分公司,西王庄孙永跃,西王庄眼镜厂,姜齐庄村北新增综合,王振农场,安庄农业生态开发,安庄村西(李石香),西王庄毛纺厂,连庄农排新增1号【纯农排变】,西王庄村西新增综合台区,北柳庄,刘志海,王庄钢厂(子),边渡口包地,西王庄村南综合65,连庄村北综合80,安庄6#农业【纯农排变】,安庄村东综合73,王立明变压器,连庄28#农业【纯农排变】,连庄57#农业【纯农排变】,王震浇地,西王庄村西12#农业【纯农排变】,姜齐庄42#农业【纯农排变】,安庄8#农业【纯农排变】,高阳县亚飞农用汽车销售有限公司台区,安庄村北新增综合,连庄村北新增综合82,连庄32#农业【纯农排变】,西王庄村北34#农业【纯农排变】,西王庄农业77#【纯农排变】,连庄村西北新增综合,西王庄孙永和,西王庄村东22#农业【纯农排变】,西王庄东南21#农业【纯农排变】,西王庄北大方农排【纯农排变】,西王庄村东新增综合台区,连庄58#农业【纯农排变】,石文利,广汇纺织印染公司,西王庄村北综合72,高阳县广汇纺织印染有限公司变压器,连庄村西综合81,西王庄农业76#【纯农排变】,连庄农排新增2号【纯农排变】,西王庄村东综合23,安庄村西新增综合,安庄10综合,食用菌种殖厂","poweroffReason":"【停电原因】由于线路检修导致１１０ＫＶ西演变电站西王庄５２１线路主线２６号杆２６号开关以下线路停电【变更送电】无【发布渠道】９５５９８","powerTime":"2018-06-01 11:16:23","powerComm":"已送电","subsNo":"","lineNo":"","tgNo":"","tgName":null,"infoStatus":"1","orgName":"国网高阳县供电公司","typeName":null,"infoStatusName":null,"dateDay":null,"orgNos":null,"nowTime":null,"countyName":null,"streetName":null,"villageName":null,"roadName":null,"communityName":null,"tranName":null,"sdLineName":null,"cityCode":"1340613","cityName":"国网高阳县供电公司","provinceCode":null,"stopTime":"2018-06-01 17:00:00","powerType":"全部","powerOffArea":"【分支停电】停河北省大广高速公路京衡段筹建处变压器,安庄59#农业【纯农排变】,安庄村东北新增综合,安庄9#农业【纯农排变】,孙永跃50,西王庄西大方11#农业【纯农排变】,王爱民,西王庄村南综合,西王庄村西综合24,安庄60#农业【纯农排变】,王保亮,高阳县宏柱冲压件厂变压器,高阳县汇通机械厂变压器,中国移动通信集团河北有限公司高阳分公司,西王庄孙永跃,西王庄眼镜厂,姜齐庄村北新增综合,王振农场,安庄农业生态开发,安庄村西(李石香),西王庄毛纺厂,连庄农排新增1号【纯农排变】,西王庄村西新增综合台区,北柳庄,刘志海,王庄钢厂(子),边渡口包地,西王庄村南综合65,连庄村北综合80,安庄6#农业【纯农排变】,安庄村东综合73,王立明变压器,连庄28#农业【纯农排变】,连庄57#农业【纯农排变】,王震浇地,西王庄村西12#农业【纯农排变】,姜齐庄42#农业【纯农排变】,安庄8#农业【纯农排变】,高阳县亚飞农用汽车销售有限公司台区,安庄村北新增综合,连庄村北新增综合82,连庄32#农业【纯农排变】,西王庄村北34#农业【纯农排变】,西王庄农业77#【纯农排变】,连庄村西北新增综合,西王庄孙永和,西王庄村东22#农业【纯农排变】,西王庄东南21#农业【纯农排变】,西王庄北大方农排【纯农排变】,西王庄村东新增综合台区,连庄58#农业【纯农排变】,石文利,广汇纺织印染公司,西王庄村北综合72,高阳县广汇纺织印染有限公司变压器,连庄村西综合81,西王庄农业76#【纯农排变】,连庄农排新增2号【纯农排变】,西王庄村东综合23,安庄村西新增综合,安庄10综合,食用菌种殖厂","powerOffReason":"【停电原因】由于线路检修导致１１０ＫＶ西演变电站西王庄５２１线路主线２６号杆２６号开关以下线路停电【变更送电】无【发布渠道】９５５９８","powerOffId":"2018052513000474"}],"pageModel":{"pageNow":1073,"totalCount":10973,"totalPage":1098,"tableRows":0,"pageCount":10,"beginCount":10720},"isExperi":"1"}