{"message":"","today":"2020-06-15","seleList":[{"poweroffId":2018052513000473,"sgpoweroffId":null,"subsName":"","lineName":"工业线517","pubTranName":"韩庄光4,韩庄光2,小店路东光3,大沟排3【纯农排变】,小店光6,加会庄光2,看守所公用,","scope":"【影响街道/乡镇】定兴镇 【高危重要客户】无 【影响客户】嘉会、大沟、韩庄、小店村、盛德机械部件有限公司、海龙冷冻食品、第四小学、马大姐食品、鑫华印刷厂、华艺制帽、金凯利包装厂、北控环境服务公司、金祥德制帽有限公司","startTime":"2018-06-05 01:00:00","stopDate":"2018-06-05 04:00:00","orgNo":"1340609","typeCode":"计划停电","poweroffArea":"【分支停电】停小店光6,加会庄光2,大沟排3【纯农排变】,看守所公用,韩庄光2,韩庄光4,小店路东光3","poweroffReason":"【停电原因】由于污水处理厂分支３６号杆Ｔ接电缆导致３５ＫＶ城关变电站工业线５１７线路污水处理厂分支０３号杆５１７－０１号断路器以下线路停电 【变更送电】无 【发布渠道】保定市定兴县电视台（０５月２８日０９时１０分至２３时５０分之间）屏幕上方滚动播放","powerTime":"2018-06-05 03:25:49","powerComm":"已送电","subsNo":"","lineNo":"","tgNo":"","tgName":null,"infoStatus":"1","orgName":"国网定兴县供电公司","typeName":null,"infoStatusName":null,"dateDay":null,"orgNos":null,"nowTime":null,"countyName":null,"streetName":null,"villageName":null,"roadName":null,"communityName":null,"tranName":null,"sdLineName":null,"cityCode":"1340609","cityName":"国网定兴县供电公司","provinceCode":null,"stopTime":"2018-06-05 04:00:00","powerType":"全部","powerOffArea":"【分支停电】停小店光6,加会庄光2,大沟排3【纯农排变】,看守所公用,韩庄光2,韩庄光4,小店路东光3","powerOffReason":"【停电原因】由于污水处理厂分支３６号杆Ｔ接电缆导致３５ＫＶ城关变电站工业线５１７线路污水处理厂分支０３号杆５１７－０１号断路器以下线路停电 【变更送电】无 【发布渠道】保定市定兴县电视台（０５月２８日０９时１０分至２３时５０分之间）屏幕上方滚动播放","powerOffId":"2018052513000473"},{"poweroffId":2018052513000461,"sgpoweroffId":null,"subsName":"","lineName":"10kV524李亲顾线","pubTranName":"0676965711-定州市泰祥商城-专变-217720430-定州市泰祥商城变压器,李亲顾村公用照明12台区,李亲顾公用照明23台区,李亲顾村公用照明11台区,李亲顾公用照明17台区,李亲顾公用照明18台区,客户投资_李亲顾村公用照明2台区,李亲顾公用照明15台区,李亲顾公用照明6台区,李亲顾公用照明5台区,李亲顾公用照明13台区,定州市新景商贸集团有限公司 新景尚城公用变压器,李亲顾公用照明1台区,李亲顾公用照明4台区,定州市李亲顾镇李亲顾村民委员会 小区居民变压器,李亲顾公用照明16台区,","scope":"【影响街道/乡镇】李亲顾镇【高危重要客户】无【影响客户】李亲顾村、李亲顾村委会新区、泰祥商城小区、新景商贸小区","startTime":"2018-05-28 08:00:00","stopDate":"2018-05-28 09:00:00","orgNo":"1340610","typeCode":"临时停电","poweroffArea":"【分支停电】停李亲顾公用照明4台区,李亲顾公用照明16台区,李亲顾公用照明17台区,李亲顾公用照明6台区,李亲顾公用照明13台区,0676965711-定州市泰祥商城-专变-217720430-定州市泰祥商城变压器,定州市李亲顾镇李亲顾村民委员会 小区居民变压器,定州市新景商贸集团有限公司 新景尚城公用变压器,李亲顾公用照明15台区,李亲顾村公用照明12台区,李亲顾公用照明18台区,李亲顾公用照明1台区,李亲顾公用照明5台区,李亲顾公用照明23台区,客户投资_李亲顾村公用照明2台区,李亲顾村公用照明11台区","poweroffReason":"【停电原因】由于更换低压导线、新增电杆导致１１０ＫＶ李亲顾变电站１０ＫＶ５２４李亲顾线路主干２６＋１号杆０１号断路器以下线路停电 【变更送电】因抢修进度加快原因，送电时间由１５：００变更为０９：００ 【发布渠道】９５５９８　　","powerTime":"2018-05-28 08:38:00","powerComm":"已送电","subsNo":"","lineNo":"","tgNo":"","tgName":null,"infoStatus":"1","orgName":"国网定州市供电公司","typeName":null,"infoStatusName":null,"dateDay":null,"orgNos":null,"nowTime":null,"countyName":null,"streetName":null,"villageName":null,"roadName":null,"communityName":null,"tranName":null,"sdLineName":null,"cityCode":"1340610","cityName":"国网定州市供电公司","provinceCode":null,"stopTime":"2018-05-28 09:00:00","powerType":"全部","powerOffArea":"【分支停电】停李亲顾公用照明4台区,李亲顾公用照明16台区,李亲顾公用照明17台区,李亲顾公用照明6台区,李亲顾公用照明13台区,0676965711-定州市泰祥商城-专变-217720430-定州市泰祥商城变压器,定州市李亲顾镇李亲顾村民委员会 小区居民变压器,定州市新景商贸集团有限公司 新景尚城公用变压器,李亲顾公用照明15台区,李亲顾村公用照明12台区,李亲顾公用照明18台区,李亲顾公用照明1台区,李亲顾公用照明5台区,李亲顾公用照明23台区,客户投资_李亲顾村公用照明2台区,李亲顾村公用照明11台区","powerOffReason":"【停电原因】由于更换低压导线、新增电杆导致１１０ＫＶ李亲顾变电站１０ＫＶ５２４李亲顾线路主干２６＋１号杆０１号断路器以下线路停电 【变更送电】因抢修进度加快原因，送电时间由１５：００变更为０９：００ 【发布渠道】９５５９８　　","powerOffId":"2018052513000461"},{"poweroffId":2018052513000456,"sgpoweroffId":null,"subsName":"","lineName":"阳光城线554","pubTranName":"安新县荣昌鞋材有限公司变压器,容城鑫海市场开发管理有限公司,保定浩润房地产开发有限公司变压器,0627928552-保定绿洋房地产开发有限公司-专变-139315786-保定绿洋房地产开发有限公司,北京天宏石亨石油化工有限公司变压器,0665903135-保定浩润房地产开发有限公司-专变-202679988-保定浩润房地产开发有限公司,河北天象生物药业有限公司,容城县城南新区路灯路东变压器,容城县丽涛商贸有限公司变压器2,0668573465-定州市和力房地产开发有限公司-专变-209986128-定州市和力房地产开发有限公司,容城县文化广电新闻出版局,容城县文化广电新闻出版局变压器,容城鑫海市场开发管理有限公司变压器,容城县丽涛商贸有限公司变压器1,","scope":"【影响街道/乡镇】城关镇 【高危重要客户】无 【影响客户】北京天宏石亨石油化工有限公司、容城鑫海市场开发管理有限公司、保定浩润房地产开发有限公司、容城县文化广电新闻出版局、安新县荣昌鞋材有限公司、保定绿洋房地产开发有限公司、容城县丽涛商贸有限公司","startTime":"2018-05-26 07:30:00","stopDate":"2018-05-26 17:30:00","orgNo":"1340620","typeCode":"其他临时停电","poweroffArea":"【全线路停电】停保定浩润房地产开发有限公司变压器,河北天象生物药业有限公司,容城县城南新区路灯路东变压器,安新县荣昌鞋材有限公司变压器,容城县丽涛商贸有限公司变压器2,0668573465-定州市和力房地产开发有限公司-专变-209986128-定州市和力房地产开发有限公司,容城鑫海市场开发管理有限公司,容城县文化广电新闻出版局变压器,0627928552-保定绿洋房地产开发有限公司-专变-139315786-保定绿洋房地产开发有限公司,容城县丽涛商贸有限公司变压器1,北京天宏石亨石油化工有限公司变压器,容城鑫海市场开发管理有限公司变压器,容城县文化广电新闻出版局,0665903135-保定浩润房地产开发有限公司-专变-202679988-保定浩润房地产开发有限公司","poweroffReason":"【停电原因】由于雄安截洪渠需停电进行紧急消缺导致１１０ＫＶ奥威变电站１０ＫＶ阳光城线５５４线路全线停电【变更送电】因抢修进度加快原因，送电时间由:２１：３０变更为１７：３０【发布渠道】通过９５５９８发布","powerTime":"2018-05-26 17:16:59","powerComm":"已送电","subsNo":"","lineNo":"","tgNo":"","tgName":null,"infoStatus":"1","orgName":"(原)国网容城县供电公司","typeName":null,"infoStatusName":null,"dateDay":null,"orgNos":null,"nowTime":null,"countyName":null,"streetName":null,"villageName":null,"roadName":null,"communityName":null,"tranName":null,"sdLineName":null,"cityCode":"1340620","cityName":"(原)国网容城县供电公司","provinceCode":null,"stopTime":"2018-05-26 17:30:00","powerType":"全部","powerOffArea":"【全线路停电】停保定浩润房地产开发有限公司变压器,河北天象生物药业有限公司,容城县城南新区路灯路东变压器,安新县荣昌鞋材有限公司变压器,容城县丽涛商贸有限公司变压器2,0668573465-定州市和力房地产开发有限公司-专变-209986128-定州市和力房地产开发有限公司,容城鑫海市场开发管理有限公司,容城县文化广电新闻出版局变压器,0627928552-保定绿洋房地产开发有限公司-专变-139315786-保定绿洋房地产开发有限公司,容城县丽涛商贸有限公司变压器1,北京天宏石亨石油化工有限公司变压器,容城鑫海市场开发管理有限公司变压器,容城县文化广电新闻出版局,0665903135-保定浩润房地产开发有限公司-专变-202679988-保定浩润房地产开发有限公司","powerOffReason":"【停电原因】由于雄安截洪渠需停电进行紧急消缺导致１１０ＫＶ奥威变电站１０ＫＶ阳光城线５５４线路全线停电【变更送电】因抢修进度加快原因，送电时间由:２１：３０变更为１７：３０【发布渠道】通过９５５９８发布","powerOffId":"2018052513000456"},{"poweroffId":2018052513000443,"sgpoweroffId":null,"subsName":"","lineName":"大张庄线512","pubTranName":"河北雪诺羽绒制品有限公司,占祥羽绒厂,安新县欣得丽羽绒厂200,春光羽绒厂80ＫＶＡ,0387367723-保定凯杰隆羽绒制品有限公司-专变-126333601-保定凯杰隆羽绒制品有限公司,变压器,0551186970-安新县恒基和润羽绒制品有限公司-专变-49138261-变压器,变压器2000KVA,神洲羽绒厂,天源羽绒厂,安新县利兴羽绒厂,安新县大张庄华瑞羽绒厂200KVA,0387366775-安新县泓一羽绒制品有限公司-专变-45239314-安新县盛达羽绒厂01,变压器100KVA,0387367967-嘉丰羽绒厂-专变-45239294-嘉丰羽绒厂（小开）,南六浇地三台区【纯农排变】,0387365684-安新县翔羽羽绒制品有限公司-专变-45239244-安新县翔羽羽绒制品有限公司1,安新县羽通羽绒厂250KVA,博奥羽绒制品有限公司50KVA,0387366430-安新县鸿隆羽绒制品制造有限公司-专变-45239053-保定雪瑞莎羽绒制品有限公司,宏泰羽绒制品有限,盛发羽绒厂50KVA,新新羽绒厂,凯利达羽绒厂（老刘）,安新县兴业羽绒厂200KVA,凯丽羽绒厂160KVA,0387366212-安新县正邦羽绒制品有限公司-专变-124311367-正邦羽绒制品有限公司50KVA,凯丽羽绒厂,南六浇地一台区【纯农排变】,大张庄七台区,0387366212-安新县正邦羽绒制品有限公司-专变-45239144-安新县康源羽绒制品有限公司,大张庄十五台区,奥顺达羽绒厂,0387367345-河北盛耀羽绒有限公司-专变-124322486-欣得丽羽绒厂80KVA,0387368029-安新县恒基和润羽绒制品有限公司-专变-45239027-安新县营大羽绒制品有限公司,胜利羽绒厂,0387365639-安新县奥力达羽绒厂-专变-49145216-变压器315KVA,0387366430-安新县鸿隆羽绒制品制造有限公司-专变-125965198-保定雪瑞莎羽绒制品有限公司80KVA,盛发羽绒厂（新）,安新县新新羽绒厂250KVA,安新县博奥羽绒制品有限公司,保定凯杰隆羽绒制品有限公司,安新县三有利羽绒制品厂200KVA,新龙羽绒厂250KVA,0387366124-河北丽特舒羽绒制品有限公司-专变-45239055-保定雪瑞莎羽绒制品有限公司,兴业羽绒厂,0387366661-安新县光明羽绒制品有限公司-专变-45239118-安新县光明羽绒制品有限公司,新星羽绒有限公司,神洲羽绒厂200KVA,变压器160,","scope":"【影响街道/乡镇】安新镇 【高危重要客户】无 【影响客户】大张庄村、大张庄机台、大张庄羽绒厂区、顺源养殖基地.","startTime":"2018-06-04 06:30:00","stopDate":"2018-06-04 19:30:00","orgNo":"1340607","typeCode":"计划停电","poweroffArea":"【全线路停电】停盛发羽绒厂50KVA,变压器,0387366212-安新县正邦羽绒制品有限公司-专变-124311367-正邦羽绒制品有限公司50KVA,占祥羽绒厂,新龙羽绒厂250KVA,南六浇地一台区【纯农排变】,变压器160,宏泰羽绒制品有限,南六浇地三台区【纯农排变】,凯丽羽绒厂160KVA,天源羽绒厂,0387367345-河北盛耀羽绒有限公司-专变-124322486-欣得丽羽绒厂80KVA,大张庄七台区,新星羽绒有限公司,0551186970-安新县恒基和润羽绒制品有限公司-专变-49138261-变压器,博奥羽绒制品有限公司50KVA,安新县欣得丽羽绒厂200,春光羽绒厂80ＫＶＡ,0387366661-安新县光明羽绒制品有限公司-专变-45239118-安新县光明羽绒制品有限公司,安新县新新羽绒厂250KVA,奥顺达羽绒厂,凯丽羽绒厂,保定凯杰隆羽绒制品有限公司,0387367723-保定凯杰隆羽绒制品有限公司-专变-126333601-保定凯杰隆羽绒制品有限公司,兴业羽绒厂,0387368029-安新县恒基和润羽绒制品有限公司-专变-45239027-安新县营大羽绒制品有限公司,盛发羽绒厂（新）,河北雪诺羽绒制品有限公司,胜利羽绒厂,0387367967-嘉丰羽绒厂-专变-45239294-嘉丰羽绒厂（小开）,变压器100KVA,安新县三有利羽绒制品厂200KVA,神洲羽绒厂200KVA,凯利达羽绒厂（老刘）,安新县兴业羽绒厂200KVA,0387366430-安新县鸿隆羽绒制品制造有限公司-专变-45239053-保定雪瑞莎羽绒制品有限公司,0387366775-安新县泓一羽绒制品有限公司-专变-45239314-安新县盛达羽绒厂01,新新羽绒厂,0387366124-河北丽特舒羽绒制品有限公司-专变-45239055-保定雪瑞莎羽绒制品有限公司,安新县羽通羽绒厂250KVA,大张庄十五台区,变压器2000KVA,神洲羽绒厂,安新县大张庄华瑞羽绒厂200KVA,0387366212-安新县正邦羽绒制品有限公司-专变-45239144-安新县康源羽绒制品有限公司,0387365639-安新县奥力达羽绒厂-专变-49145216-变压器315KVA,0387365684-安新县翔羽羽绒制品有限公司-专变-45239244-安新县翔羽羽绒制品有限公司1,0387366430-安新县鸿隆羽绒制品制造有限公司-专变-125965198-保定雪瑞莎羽绒制品有限公司80KVA,安新县利兴羽绒厂,安新县博奥羽绒制品有限公司","poweroffReason":"【停电原因】由于更换电杆、导线导致３５ＫＶ张六变电站大张庄线５１２线路全线停电 【变更送电】因工作进度加快，送电时间变更为１９：３０ 【发布渠道】安新电视台（２０１８年５月２６日至２０１８年６月３日的１９：３０至２０：００之间）屏幕下方滚动字幕","powerTime":"2018-06-04 19:10:21","powerComm":"已送电","subsNo":"","lineNo":"","tgNo":"","tgName":null,"infoStatus":"1","orgName":"(原)国网安新县供电公司","typeName":null,"infoStatusName":null,"dateDay":null,"orgNos":null,"nowTime":null,"countyName":null,"streetName":null,"villageName":null,"roadName":null,"communityName":null,"tranName":null,"sdLineName":null,"cityCode":"1340607","cityName":"(原)国网安新县供电公司","provinceCode":null,"stopTime":"2018-06-04 19:30:00","powerType":"全部","powerOffArea":"【全线路停电】停盛发羽绒厂50KVA,变压器,0387366212-安新县正邦羽绒制品有限公司-专变-124311367-正邦羽绒制品有限公司50KVA,占祥羽绒厂,新龙羽绒厂250KVA,南六浇地一台区【纯农排变】,变压器160,宏泰羽绒制品有限,南六浇地三台区【纯农排变】,凯丽羽绒厂160KVA,天源羽绒厂,0387367345-河北盛耀羽绒有限公司-专变-124322486-欣得丽羽绒厂80KVA,大张庄七台区,新星羽绒有限公司,0551186970-安新县恒基和润羽绒制品有限公司-专变-49138261-变压器,博奥羽绒制品有限公司50KVA,安新县欣得丽羽绒厂200,春光羽绒厂80ＫＶＡ,0387366661-安新县光明羽绒制品有限公司-专变-45239118-安新县光明羽绒制品有限公司,安新县新新羽绒厂250KVA,奥顺达羽绒厂,凯丽羽绒厂,保定凯杰隆羽绒制品有限公司,0387367723-保定凯杰隆羽绒制品有限公司-专变-126333601-保定凯杰隆羽绒制品有限公司,兴业羽绒厂,0387368029-安新县恒基和润羽绒制品有限公司-专变-45239027-安新县营大羽绒制品有限公司,盛发羽绒厂（新）,河北雪诺羽绒制品有限公司,胜利羽绒厂,0387367967-嘉丰羽绒厂-专变-45239294-嘉丰羽绒厂（小开）,变压器100KVA,安新县三有利羽绒制品厂200KVA,神洲羽绒厂200KVA,凯利达羽绒厂（老刘）,安新县兴业羽绒厂200KVA,0387366430-安新县鸿隆羽绒制品制造有限公司-专变-45239053-保定雪瑞莎羽绒制品有限公司,0387366775-安新县泓一羽绒制品有限公司-专变-45239314-安新县盛达羽绒厂01,新新羽绒厂,0387366124-河北丽特舒羽绒制品有限公司-专变-45239055-保定雪瑞莎羽绒制品有限公司,安新县羽通羽绒厂250KVA,大张庄十五台区,变压器2000KVA,神洲羽绒厂,安新县大张庄华瑞羽绒厂200KVA,0387366212-安新县正邦羽绒制品有限公司-专变-45239144-安新县康源羽绒制品有限公司,0387365639-安新县奥力达羽绒厂-专变-49145216-变压器315KVA,0387365684-安新县翔羽羽绒制品有限公司-专变-45239244-安新县翔羽羽绒制品有限公司1,0387366430-安新县鸿隆羽绒制品制造有限公司-专变-125965198-保定雪瑞莎羽绒制品有限公司80KVA,安新县利兴羽绒厂,安新县博奥羽绒制品有限公司","powerOffReason":"【停电原因】由于更换电杆、导线导致３５ＫＶ张六变电站大张庄线５１２线路全线停电 【变更送电】因工作进度加快，送电时间变更为１９：３０ 【发布渠道】安新电视台（２０１８年５月２６日至２０１８年６月３日的１９：３０至２０：００之间）屏幕下方滚动字幕","powerOffId":"2018052513000443"},{"poweroffId":2018052513000439,"sgpoweroffId":null,"subsName":"","lineName":"高于铺线513","pubTranName":"桥头塑料厂,0469131749-顺平县顺通塑料有限公司-专变-46724572-顺平县顺通塑料有限公司,宏发塑料厂,玉同塑料厂,高于铺1860 农业|22001860【纯农排变】,顺平县明途鞋厂,拔丝厂,0469132364-中国移动通信集团河北有限公司顺平分公司-专变-46724576-中国移动,高于铺190|28000190,李玉秋,张连子,高于铺村东南新增综合0992,0469132032-吴贯立-专变-223629671-吴冠利200,顺平县卓正塑料制品有限公司200,李敬冬,顺平县卓正塑料制品有限公司50,刘铁,富康1,高于铺160|28000160,0469131954-刘运镖-专变-223632421-刘运镖,赵鹏,赵新房80KVA配变,包代厂,0551751114-顺平县顺通塑料有限公司-专变-49786865-变压器,0469132276-刘运镖-专变-223632423-刘运镖160（2）,高于铺2410|22002410,袁红卫,高于铺村北3号农业(TD)7518【纯农排变】,高于铺村西5号农业(TD)7991【纯农排变】,高于铺新增农业14号【纯农排变】,高于铺桥西面粉厂,高于铺1850 综合|22001850,高于铺2650|22002650,姚全胜,车站肠衣厂,顺平县佳明塑料厂200,高于铺村西8号农业(TD)7993【纯农排变】,高于铺村东北11号农业(TD)7988【纯农排变】,顺通塑料厂,高于铺村西1号,顺平县鸿飞塑料厂,魏正铎,赵福占,高于铺2710|22002710,高于铺供电所,高于铺1870|22001870,刘金旦,高于铺村南9号农业(TD)7986【纯农排变】,高于铺钢厂,高于铺村南1号综合2722,0607162750-顺平县卓正塑料制品有限公司-专变-148034200-顺平县卓正塑料制品有限公司315,赵新川,高于铺2590|22002590,吴喜生,高于铺村西6号农业(TD)7533【纯农排变】,许景文,顺平县金峰化纤有限公司50,0469131811-顺平县顺通塑料有限公司-专变-223632414-顺通塑料有限公司250,赵新海,校办,张立伟,郄全造,高于铺2570 农业|22002570【纯农排变】,顺平县卓正塑料制品有限公司,高于铺2310|22002310,顺平县尚丰塑料有限公司,袁立红,0469131967-许长义-专变-123936514-许长义,高于铺东街村中新增综合1051,高于铺桥头综合1878,春迎塑料厂,顺平县新文塑料有限公司,高于铺2630|22002630,张占忠塑料厂,顺平县晟维塑料制品有限公司,刘立国,高于铺6010|22006010,韩长锁塑料厂,北京铁路局石家庄供电段,高于铺1840 农业|22001840【纯农排变】,袁虎群,0469132250-韩计来-专变-223632252-韩计来200,污水厂,文凯塑料厂,高于铺村西7号农业(TD)7517【纯农排变】,赵辉,张利生,变压器,高于铺4270|22004270,高于铺污水厂,高于铺北面粉厂,高于铺村中综合1879,高于铺新兴厂,赵冬塑料厂,刘英民3号,高于铺村南10号农业","scope":"【影响街道/乡镇】高于铺镇【高危重要客户】无【影响客户】高于铺、顺平县卓正塑料制品有限公司","startTime":"2018-06-01 07:00:00","stopDate":"2018-06-01 19:30:00","orgNo":"1340621","typeCode":"临时停电","poweroffArea":"【分支停电】停高于铺6010|22006010,高于铺桥头综合1878,0469132364-中国移动通信集团河北有限公司顺平分公司-专变-46724576-中国移动,张连子,顺通塑料厂","poweroffReason":"【停电原因】由于更换导线导致３５ＫＶ益兴变电站１０ＫＶ５１３高于铺线路主干１４号杆断路器以下线路停电【变更送电】无【发布渠道】保定市顺平县电视台（０５月２５日至３１日２０时至２１时之间）屏幕上方滚动字幕","powerTime":"2018-06-01 18:50:37","powerComm":"已送电","subsNo":"","lineNo":"","tgNo":"","tgName":null,"infoStatus":"1","orgName":"国网顺平县电力局","typeName":null,"infoStatusName":null,"dateDay":null,"orgNos":null,"nowTime":null,"countyName":null,"streetName":null,"villageName":null,"roadName":null,"communityName":null,"tranName":null,"sdLineName":null,"cityCode":"1340621","cityName":"国网顺平县电力局","provinceCode":null,"stopTime":"2018-06-01 19:30:00","powerType":"全部","powerOffArea":"【分支停电】停高于铺6010|22006010,高于铺桥头综合1878,0469132364-中国移动通信集团河北有限公司顺平分公司-专变-46724576-中国移动,张连子,顺通塑料厂","powerOffReason":"【停电原因】由于更换导线导致３５ＫＶ益兴变电站１０ＫＶ５１３高于铺线路主干１４号杆断路器以下线路停电【变更送电】无【发布渠道】保定市顺平县电视台（０５月２５日至３１日２０时至２１时之间）屏幕上方滚动字幕","powerOffId":"2018052513000439"},{"poweroffId":2018052513000435,"sgpoweroffId":null,"subsName":"","lineName":"公堤线583","pubTranName":"涞城一台区,水利局崔公堤排污30,王凯羽绒厂,碧溪（崔公堤）,0464756680-安新县三台步运气垫厂-专变-46122226-变压器,广州炫尊鞋服有限公司,0387387930-国营安新县原种场-专变-47084188-监所,涞城二十四台区,安新县雄风鞋材厂,崔公堤十一台区,变压器315KVA,安新县三台鑫发底厂400KVA,朱公堤二台区,国旗羽绒厂,崔公堤污水处理泵站,朱公堤橡胶厂,涞城十台区,0387387507-安新县崔公堤村利林颗粒厂-专变-201073763-安新县崔公堤村利林颗粒厂,华强羽绒厂,忠胜羽绒厂,涞城十七台区,朱公堤浇地六台区,王公堤三台区,五虎加丝厂,0387389750-朱公堤红泉鞋厂-专变-45249424-朱公堤红泉鞋厂,0578800503-安新县王公堤富鸿鞋材加工厂-专变-124316728-王公堤富鸿100KVA,通泰羽绒厂,崔公堤六台区,0387389239-保定丰硕种植公司-专变-45249495-保定丰硕种植公司,安新县三台崔广青鞋厂,崔公堤十四台区,崔公堤二十六台区,高公堤七台区,朱公堤浇地一台区,百威特鞋厂,安新县鑫发底厂,崔公堤十五台区,安新县宏达革制品厂200KVA,朱公堤一台区,崔公堤三台区,王公堤五台区,0387390754-气象局-专变-45249096-气象局,华鑫羽绒厂,王公堤二台区,王公堤浇地三台区,崔公堤二十二台区,变压器200KVA,崔公堤新秋鞋厂,涞城六台区,涞城十九台区,崔公堤十六台区,0635261702-安新县祥和机毡厂-专变-148035448-安新县祥和机毡厂250KVA,崔公堤八台区,兴达羽绒厂,0387386865-安新县雪踏羽绒加工有限公司-专变-214303405-安新县雪踏羽绒加工有限公司,0667054503-安新县铭博鞋业有限公司-专变-208437716-安新县铭博鞋业有限公司,安新县跑王鞋厂,崔公堤十台区,华颖鞋厂,王小龙羽绒厂375,崔公堤崔国民加丝厂,安新县舒雅特制鞋有限公司160KVA,0387386562-安新县朱公堤村卓航制鞋厂-专变-45249127-朱公堤仁合羽绒厂,涞城四台区,安新县涞城红玲制鞋厂,安新县雄风鞋材制造有限公司,崔公堤四台区,涞城捷耐恩鞋业,金龙羽绒厂,金忠羽绒厂,高公堤五台区,水利局崔公堤排污400配变,崔广清鞋厂,崔会民鞋厂,崔公堤二十一台区,通达羽绒厂,新秋制鞋厂,0387389428-安新县玖润纸制品包装有限公司-专变-45249214-安新县高公堤群利达纸箱装订厂（预）01,朱公堤四台区,崔公堤十八台区,","scope":"【影响街道/乡镇】三台镇 【高危重要客户】无 【影响客户】王公堤村、崔公堤村、高公堤村、朱公堤村、涞城村","startTime":"2018-06-05 06:30:00","stopDate":"2018-06-05 21:00:00","orgNo":"1340607","typeCode":"计划停电","poweroffArea":"【分支停电】停0387389428-安新县玖润纸制品包装有限公司-专变-45249214-安新县高公堤群利达纸箱装订厂（预）01,涞城四台区,安新县鑫发底厂,崔公堤二十六台区,华颖鞋厂,广州炫尊鞋服有限公司,高公堤七台区,王小龙羽绒厂375,崔会民鞋厂,崔公堤崔国民加丝厂,安新县三台鑫发底厂400KVA,朱公堤浇地一台区,朱公堤四台区,安新县舒雅特制鞋有限公司160KVA,0387386562-安新县朱公堤村卓航制鞋厂-专变-45249127-朱公堤仁合羽绒厂,安新县涞城红玲制鞋厂,百威特鞋厂,朱公堤二台区,崔公堤十六台区,安新县雄风鞋材制造有限公司,通泰羽绒厂,崔公堤十一台区,0635261702-安新县祥和机毡厂-专变-148035448-安新县祥和机毡厂250KVA,变压器315KVA,崔公堤四台区,崔公堤六台区,涞城捷耐恩鞋业,崔公堤八台区,0387389239-保定丰硕种植公司-专变-45249495-保定丰硕种植公司,兴达羽绒厂,安新县宏达革制品厂200KVA,0387386865-安新县雪踏羽绒加工有限公司-专变-214303405-安新县雪踏羽绒加工有限公司,新秋制鞋厂,涞城十台区,安新县雄风鞋材厂,崔公堤三台区,国旗羽绒厂,0387387507-安新县崔公堤村利林颗粒厂-专变-201073763-安新县崔公堤村利林颗粒厂,崔公堤十五台区,华鑫羽绒厂,华强羽绒厂,金龙羽绒厂,王公堤二台区,涞城一台区,忠胜羽绒厂,0387389750-朱公堤红泉鞋厂-专变-45249424-朱公堤红泉鞋厂,崔公堤十八台区,崔公堤污水处理泵站,0387390754-气象局-专变-45249096-气象局,金忠羽绒厂,朱公堤一台区,王公堤浇地三台区,涞城十七台区,水利局崔公堤排污30,崔公堤二十二台区,朱公堤浇地六台区,变压器200KVA,高公堤五台区,王公堤五台区,朱公堤橡胶厂,安新县三台崔广青鞋厂,王凯羽绒厂,0667054503-安新县铭博鞋业有限公司-专变-208437716-安新县铭博鞋业有限公司,崔公堤十四台区,安新县跑王鞋厂,碧溪（崔公堤）,崔公堤十台区,王公堤三台区,水利局崔公堤排污400配变,崔广清鞋厂,0464756680-安新县三台步运气垫厂-专变-46122226-变压器,0387387930-国营安新县原种场-专变-47084188-监所,崔公堤二十一台区,崔公堤新秋鞋厂,五虎加丝厂,涞城六台区,涞城十九台区,涞城二十四台区,通达羽绒厂,0578800503-安新县王公堤富鸿鞋材加工厂-专变-124316728-王公堤富鸿100KVA","poweroffReason":"【停电原因】由于更换电杆、导线导致１１０ＫＶ新安变电站公堤线５８３线路２９号杆开关以下线路停电 【变更送电】无 【发布渠道】安新电视台（２０１８年５月２６日至２０１８年６月４日的１９：３０至２０：００之间）屏幕下方滚动字幕","powerTime":"2018-06-05 20:52:11","powerComm":"已送电","subsNo":"","lineNo":"","tgNo":"","tgName":null,"infoStatus":"1","orgName":"(原)国网安新县供电公司","typeName":null,"infoStatusName":null,"dateDay":null,"orgNos":null,"nowTime":null,"countyName":null,"streetName":null,"villageName":null,"roadName":null,"communityName":null,"tranName":null,"sdLineName":null,"cityCode":"1340607","cityName":"(原)国网安新县供电公司","provinceCode":null,"stopTime":"2018-06-05 21:00:00","powerType":"全部","powerOffArea":"【分支停电】停0387389428-安新县玖润纸制品包装有限公司-专变-45249214-安新县高公堤群利达纸箱装订厂（预）01,涞城四台区,安新县鑫发底厂,崔公堤二十六台区,华颖鞋厂,广州炫尊鞋服有限公司,高公堤七台区,王小龙羽绒厂375,崔会民鞋厂,崔公堤崔国民加丝厂,安新县三台鑫发底厂400KVA,朱公堤浇地一台区,朱公堤四台区,安新县舒雅特制鞋有限公司160KVA,0387386562-安新县朱公堤村卓航制鞋厂-专变-45249127-朱公堤仁合羽绒厂,安新县涞城红玲制鞋厂,百威特鞋厂,朱公堤二台区,崔公堤十六台区,安新县雄风鞋材制造有限公司,通泰羽绒厂,崔公堤十一台区,0635261702-安新县祥和机毡厂-专变-148035448-安新县祥和机毡厂250KVA,变压器315KVA,崔公堤四台区,崔公堤六台区,涞城捷耐恩鞋业,崔公堤八台区,0387389239-保定丰硕种植公司-专变-45249495-保定丰硕种植公司,兴达羽绒厂,安新县宏达革制品厂200KVA,0387386865-安新县雪踏羽绒加工有限公司-专变-214303405-安新县雪踏羽绒加工有限公司,新秋制鞋厂,涞城十台区,安新县雄风鞋材厂,崔公堤三台区,国旗羽绒厂,0387387507-安新县崔公堤村利林颗粒厂-专变-201073763-安新县崔公堤村利林颗粒厂,崔公堤十五台区,华鑫羽绒厂,华强羽绒厂,金龙羽绒厂,王公堤二台区,涞城一台区,忠胜羽绒厂,0387389750-朱公堤红泉鞋厂-专变-45249424-朱公堤红泉鞋厂,崔公堤十八台区,崔公堤污水处理泵站,0387390754-气象局-专变-45249096-气象局,金忠羽绒厂,朱公堤一台区,王公堤浇地三台区,涞城十七台区,水利局崔公堤排污30,崔公堤二十二台区,朱公堤浇地六台区,变压器200KVA,高公堤五台区,王公堤五台区,朱公堤橡胶厂,安新县三台崔广青鞋厂,王凯羽绒厂,0667054503-安新县铭博鞋业有限公司-专变-208437716-安新县铭博鞋业有限公司,崔公堤十四台区,安新县跑王鞋厂,碧溪（崔公堤）,崔公堤十台区,王公堤三台区,水利局崔公堤排污400配变,崔广清鞋厂,0464756680-安新县三台步运气垫厂-专变-46122226-变压器,0387387930-国营安新县原种场-专变-47084188-监所,崔公堤二十一台区,崔公堤新秋鞋厂,五虎加丝厂,涞城六台区,涞城十九台区,涞城二十四台区,通达羽绒厂,0578800503-安新县王公堤富鸿鞋材加工厂-专变-124316728-王公堤富鸿100KVA","powerOffReason":"【停电原因】由于更换电杆、导线导致１１０ＫＶ新安变电站公堤线５８３线路２９号杆开关以下线路停电 【变更送电】无 【发布渠道】安新电视台（２０１８年５月２６日至２０１８年６月４日的１９：３０至２０：００之间）屏幕下方滚动字幕","powerOffId":"2018052513000435"},{"poweroffId":2018052513000433,"sgpoweroffId":null,"subsName":"","lineName":"宋庄线511","pubTranName":"杨红生临时用电160KVA,0598364863-崇文路二号路灯-专变-126423571-崇文路二号路灯160KVA,南六浇地十四台区【纯农排变】,旅游路路灯,0552146182-安新县水利局扬水站管理处大张庄扬水机站-专变-49918785-变压器50KVA,大张庄十六台区,管委会广场,南六浇地十七台区,北联街浇地200KVA,南六浇地4台区,凯盛国宾温泉度假村,安新县安新镇大张庄村委会（浇地）预,旅游路一台区,南六浇地五台区,大张庄沙滩浴场,0597060034-京汉保定度假酒店有限公司-专变-126288717-京汉置业集团股份有限公司安新分公司500KVA,保定市安新汽车综合性能检测站200KVA,广场630,南六浇地十五台区【纯农排变】,大张庄十七台区,0550676843-京汉保定度假酒店有限公司-专变-48990133-变压器630,弹药库,大张庄一台区,南六浇地二十台区,0586495287-京汉保定度假酒店有限公司-专变-125135034-京汉置业集团股份有限公司安新分公司630KVA,大张庄二台区,华北明珠温泉宾馆,800亩排水新增200KVA配变,海天影视城,弹药库二台区,丽明纸箱厂,张六浇地四台区【纯农排变】,南六浇地二台区【纯农排变】,大张庄三台区,0597060034-京汉保定度假酒店有限公司-专变-126291644-京汉置业集团股份有限公司安新分公司500KVA,二轻纸箱厂,欧森皮塑,0387366674-欧森箱包厂-专变-45238983-欧森箱包厂,变压器250KVA,0685898031-安新县金坡水泥构件有限公司-专变-225193822-安新县金坡水泥构件有限公司,0387367752-安新县工商局-专变-45239089-安新县工商局,大张庄泵站,安新县君安房地产开发有限公司500KVA,河北卓正休闲大观园旅游发展有限公司200KVA,新安所码头100,南六浇地十二台区【纯农排变】,安新县城乡规划管理局,南六浇地十六台区【纯农排变】,变压器,海天影视广告公司,变压器(一),变压器200KVA,元妃荷园鱼池,南六浇地十八台区【纯农排变】,管委会交通,张六浇地五台区【纯农排变】,新码头步行街路灯,新码头照明,0544859270-大张庄贰号机台-专变-47701336-大张庄2号机台,","scope":"【影响街道/乡镇】新安镇 【高危重要客户】无 【影响客户】大张庄村、污水泵站、新码头、凯盛、武装部","startTime":"2018-06-04 06:30:00","stopDate":"2018-06-04 19:30:00","orgNo":"1340607","typeCode":"计划停电","poweroffArea":"【全线路停电】停南六浇地十八台区【纯农排变】,0597060034-京汉保定度假酒店有限公司-专变-126288717-京汉置业集团股份有限公司安新分公司500KVA,海天影视城,大张庄十七台区,南六浇地4台区,南六浇地二十台区,杨红生临时用电160KVA,广场630,大张庄一台区,变压器200KVA,新码头步行街路灯,凯盛国宾温泉度假村,安新县安新镇大张庄村委会（浇地）预,南六浇地十七台区,变压器250KVA,华北明珠温泉宾馆,大张庄泵站,南六浇地十二台区【纯农排变】,河北卓正休闲大观园旅游发展有限公司200KVA,南六浇地五台区,0685898031-安新县金坡水泥构件有限公司-专变-225193822-安新县金坡水泥构件有限公司,旅游路一台区,大张庄二台区,800亩排水新增200KVA配变,变压器,旅游路路灯,0387366674-欧森箱包厂-专变-45238983-欧森箱包厂,弹药库,南六浇地十六台区【纯农排变】,0552146182-安新县水利局扬水站管理处大张庄扬水机站-专变-49918785-变压器50KVA,保定市安新汽车综合性能检测站200KVA,变压器(一),0550676843-京汉保定度假酒店有限公司-专变-48990133-变压器630,海天影视广告公司,安新县君安房地产开发有限公司500KVA,欧森皮塑,0586495287-京汉保定度假酒店有限公司-专变-125135034-京汉置业集团股份有限公司安新分公司630KVA,南六浇地十四台区【纯农排变】,管委会交通,南六浇地二台区【纯农排变】,北联街浇地200KVA,大张庄沙滩浴场,0597060034-京汉保定度假酒店有限公司-专变-126291644-京汉置业集团股份有限公司安新分公司500KVA,张六浇地四台区【纯农排变】,大张庄十六台区,弹药库二台区,新码头照明,0387367752-安新县工商局-专变-45239089-安新县工商局,大张庄三台区,丽明纸箱厂,南六浇地十五台区【纯农排变】,管委会广场,0544859270-大张庄贰号机台-专变-47701336-大张庄2号机台,二轻纸箱厂,元妃荷园鱼池,0598364863-崇文路二号路灯-专变-126423571-崇文路二号路灯160KVA,安新县城乡规划管理局,新安所码头100,张六浇地五台区【纯农排变】","poweroffReason":"【停电原因】由于更换电杆、导线导致３５ＫＶ张六变电站宋庄线５１１线路全线停电 【变更送电】因工作进度加快，送电时间变更为１９：３０ 【发布渠道】安新电视台（２０１８年５月２６日至２０１８年６月３日的１９：３０至２０：００之间）屏幕下方滚动字幕","powerTime":"2018-06-04 19:12:02","powerComm":"已送电","subsNo":"","lineNo":"","tgNo":"","tgName":null,"infoStatus":"1","orgName":"(原)国网安新县供电公司","typeName":null,"infoStatusName":null,"dateDay":null,"orgNos":null,"nowTime":null,"countyName":null,"streetName":null,"villageName":null,"roadName":null,"communityName":null,"tranName":null,"sdLineName":null,"cityCode":"1340607","cityName":"(原)国网安新县供电公司","provinceCode":null,"stopTime":"2018-06-04 19:30:00","powerType":"全部","powerOffArea":"【全线路停电】停南六浇地十八台区【纯农排变】,0597060034-京汉保定度假酒店有限公司-专变-126288717-京汉置业集团股份有限公司安新分公司500KVA,海天影视城,大张庄十七台区,南六浇地4台区,南六浇地二十台区,杨红生临时用电160KVA,广场630,大张庄一台区,变压器200KVA,新码头步行街路灯,凯盛国宾温泉度假村,安新县安新镇大张庄村委会（浇地）预,南六浇地十七台区,变压器250KVA,华北明珠温泉宾馆,大张庄泵站,南六浇地十二台区【纯农排变】,河北卓正休闲大观园旅游发展有限公司200KVA,南六浇地五台区,0685898031-安新县金坡水泥构件有限公司-专变-225193822-安新县金坡水泥构件有限公司,旅游路一台区,大张庄二台区,800亩排水新增200KVA配变,变压器,旅游路路灯,0387366674-欧森箱包厂-专变-45238983-欧森箱包厂,弹药库,南六浇地十六台区【纯农排变】,0552146182-安新县水利局扬水站管理处大张庄扬水机站-专变-49918785-变压器50KVA,保定市安新汽车综合性能检测站200KVA,变压器(一),0550676843-京汉保定度假酒店有限公司-专变-48990133-变压器630,海天影视广告公司,安新县君安房地产开发有限公司500KVA,欧森皮塑,0586495287-京汉保定度假酒店有限公司-专变-125135034-京汉置业集团股份有限公司安新分公司630KVA,南六浇地十四台区【纯农排变】,管委会交通,南六浇地二台区【纯农排变】,北联街浇地200KVA,大张庄沙滩浴场,0597060034-京汉保定度假酒店有限公司-专变-126291644-京汉置业集团股份有限公司安新分公司500KVA,张六浇地四台区【纯农排变】,大张庄十六台区,弹药库二台区,新码头照明,0387367752-安新县工商局-专变-45239089-安新县工商局,大张庄三台区,丽明纸箱厂,南六浇地十五台区【纯农排变】,管委会广场,0544859270-大张庄贰号机台-专变-47701336-大张庄2号机台,二轻纸箱厂,元妃荷园鱼池,0598364863-崇文路二号路灯-专变-126423571-崇文路二号路灯160KVA,安新县城乡规划管理局,新安所码头100,张六浇地五台区【纯农排变】","powerOffReason":"【停电原因】由于更换电杆、导线导致３５ＫＶ张六变电站宋庄线５１１线路全线停电 【变更送电】因工作进度加快，送电时间变更为１９：３０ 【发布渠道】安新电视台（２０１８年５月２６日至２０１８年６月３日的１９：３０至２０：００之间）屏幕下方滚动字幕","powerOffId":"2018052513000433"},{"poweroffId":2018052513000432,"sgpoweroffId":null,"subsName":"","lineName":"圈头线513","pubTranName":"圈头西街九台区,圈头桥西一台区,圈头桥南一台区,圈头桥东一台区,圈头东街七台区,圈头东街六台区,圈头西街六台区,圈头东街九台区,圈头桥东五台区,圈头东街四台区,圈头西街七台区,圈头桥南五台区,圈头西街二台区,圈头东街十三台区,圈头桥西六台区,怡兴园养殖,圈头东街十六台区,圈头桥西四台区,圈头桥西二台区,圈头桥南六台区,圈头西街一台区,圈头西街四台区,圈头桥东三台区,圈头西街八台区,圈头西街十台区,桥西七台区,圈头东街三台区,圈头桥东四台区,圈头桥南三台区,圈头东街十一台区,圈头西街十一台区,圈头西街五台区,圈头东街五台区,圈头桥西五台区,圈头东街十二台区,圈头桥东二台区,圈头东街八台区,圈头桥南二台区,圈头西街三台区,桥东渔池,圈头桥西八台区,圈头东街十五台区,圈头东街十四台区,圈头桥西三台区,圈头东街一台区,","scope":"【影响街道/乡镇】圈头乡 【高危重要客户】无 【影响客户】桥南村、桥西村、桥东村、东街村、西街村、怡兴园、庆洋公司","startTime":"2018-06-10 06:00:00","stopDate":"2018-06-10 21:00:00","orgNo":"1340607","typeCode":"计划停电","poweroffArea":"【分支停电】停圈头东街四台区,圈头桥东一台区,圈头桥南三台区,圈头东街三台区,圈头西街五台区,圈头西街十一台区,桥西七台区,圈头东街十二台区,圈头桥东三台区,圈头桥南一台区,圈头桥西四台区,圈头桥东五台区,圈头西街十台区,圈头东街八台区,圈头桥西六台区,圈头桥南二台区,圈头西街七台区,圈头西街八台区,圈头西街六台区,圈头桥西五台区,圈头西街三台区,圈头东街七台区,圈头东街十六台区,圈头东街九台区,怡兴园养殖,圈头桥东二台区,圈头桥东四台区,圈头桥南五台区,圈头东街十五台区,圈头桥南六台区,圈头西街一台区,圈头桥西二台区,桥东渔池,圈头西街二台区,圈头桥西三台区,圈头西街四台区,圈头桥西一台区,圈头东街六台区,圈头东街十四台区,圈头西街九台区,圈头桥西八台区,圈头东街十三台区,圈头东街十一台区,圈头东街五台区,圈头东街一台区","poweroffReason":"【停电原因】由于线路改造导致３５ＫＶ端村变电站圈头线５１３线路６９分支３４号杆开关以下线路停电 【变更送电】无 【发布渠道】安新电视台（２０１８年５月２６日至２０１８年６月９日的１９：３０至２０：００之间）屏幕下方滚动字幕","powerTime":"2018-06-10 20:55:36","powerComm":"已送电","subsNo":"","lineNo":"","tgNo":"","tgName":null,"infoStatus":"1","orgName":"(原)国网安新县供电公司","typeName":null,"infoStatusName":null,"dateDay":null,"orgNos":null,"nowTime":null,"countyName":null,"streetName":null,"villageName":null,"roadName":null,"communityName":null,"tranName":null,"sdLineName":null,"cityCode":"1340607","cityName":"(原)国网安新县供电公司","provinceCode":null,"stopTime":"2018-06-10 21:00:00","powerType":"全部","powerOffArea":"【分支停电】停圈头东街四台区,圈头桥东一台区,圈头桥南三台区,圈头东街三台区,圈头西街五台区,圈头西街十一台区,桥西七台区,圈头东街十二台区,圈头桥东三台区,圈头桥南一台区,圈头桥西四台区,圈头桥东五台区,圈头西街十台区,圈头东街八台区,圈头桥西六台区,圈头桥南二台区,圈头西街七台区,圈头西街八台区,圈头西街六台区,圈头桥西五台区,圈头西街三台区,圈头东街七台区,圈头东街十六台区,圈头东街九台区,怡兴园养殖,圈头桥东二台区,圈头桥东四台区,圈头桥南五台区,圈头东街十五台区,圈头桥南六台区,圈头西街一台区,圈头桥西二台区,桥东渔池,圈头西街二台区,圈头桥西三台区,圈头西街四台区,圈头桥西一台区,圈头东街六台区,圈头东街十四台区,圈头西街九台区,圈头桥西八台区,圈头东街十三台区,圈头东街十一台区,圈头东街五台区,圈头东街一台区","powerOffReason":"【停电原因】由于线路改造导致３５ＫＶ端村变电站圈头线５１３线路６９分支３４号杆开关以下线路停电 【变更送电】无 【发布渠道】安新电视台（２０１８年５月２６日至２０１８年６月９日的１９：３０至２０：００之间）屏幕下方滚动字幕","powerOffId":"2018052513000432"},{"poweroffId":2018052513000430,"sgpoweroffId":null,"subsName":"","lineName":"农场线582","pubTranName":"王公堤昌盛机毡厂,变压器50KVA,金圣元鞋厂,崔公堤二十五台区,留村浇地十台区,胜利鞋材制造有限公司,高公堤六台区,留村天宇鞋底厂315KVA,永胜机毡厂,利达羽绒厂,朱公堤三台,卓跃鞋厂,崔公堤二十三台区,高公堤浇地三台区【纯农排变】,0387391382-安新县三台镇卓跃鞋厂-专变-45249347-安新县三台镇卓跃鞋厂,王公堤四台区,崔公堤十三台区,崔公堤二十台区,崔公堤村南浇地一台区,王公堤六台区,留村十五台区,王公堤一台区,高公堤三台区,三台东明鞋底厂,一砖印刷材料厂,崔公堤五台区,高公堤一台区,安新县三台镇永发机毡厂,高公堤八台区,朱公堤浇地五台区,变压器250KVA,王公堤广义羽绒厂,变压器630KVA,宏达机毡厂,崔公堤七台区,变压器500,安新县三台镇王公堤文鑫恒达鞋材加工厂200KVA,崔公堤十七台区,博硕鞋厂200KVA,安新县留村新华纸箱厂,崔公堤二台区,高公堤浇地四台区,留村二十三台区,安新县瑞天鞋业有限公司,0387390057-华龙羽绒厂-专变-45248974-华龙羽绒厂378,海阔羽绒厂,安新县留村金澳鞋厂（预）01,安新县瑞祥宇鞋厂315KVA,变压器160KVA,变压器400KVA,宏山鞋厂,永发机毡厂,高公堤二台区,富鸿鞋底厂,高公堤九台区,安新县三台崔公堤天利达底厂,三台王公堤浇地三台区,留村浇地二十一台区,王公堤浇地一台区,王公堤机毡厂,崔公堤十二台区,朱公堤浇地七台区,群利达纸箱厂,0387367329-胜利鞋材-专变-45238953-胜利鞋材,崔公堤十九台区,三台镇高公堤泰跃鞋厂,安新县三台镇崔公堤小学,高公堤浇地五台区,高公堤四台区,崔公堤一台区,崔公堤九台区,安新县留村天宇鞋底厂,安新县胜利鞋材制造有限公司,0387366166-安新县留村捷达鞋厂-专变-45239221-安新县留村捷达鞋厂,安新县胜凯利鞋材制造有限公司630KVA,长乐羽绒厂,","scope":"【影响街道/乡镇】三台镇 【高危重要客户】无 【影响客户】王公堤村、高公堤村、朱公堤村、崔公堤村","startTime":"2018-06-05 06:30:00","stopDate":"2018-06-05 21:00:00","orgNo":"1340607","typeCode":"计划停电","poweroffArea":"【分支停电】停0387367329-胜利鞋材-专变-45238953-胜利鞋材,永胜机毡厂,崔公堤十九台区,王公堤广义羽绒厂,永发机毡厂,0387390057-华龙羽绒厂-专变-45248974-华龙羽绒厂378,高公堤一台区,海阔羽绒厂,胜利鞋材制造有限公司,安新县留村新华纸箱厂,安新县留村天宇鞋底厂,崔公堤村南浇地一台区,王公堤昌盛机毡厂,利达羽绒厂,长乐羽绒厂,朱公堤三台,变压器50KVA,高公堤浇地五台区,变压器630KVA,卓跃鞋厂,金圣元鞋厂,宏达机毡厂,高公堤四台区,崔公堤二十三台区,崔公堤二十五台区,崔公堤一台区,留村浇地十台区,崔公堤七台区,崔公堤九台区,高公堤浇地三台区【纯农排变】,高公堤六台区,变压器500,0387391382-安新县三台镇卓跃鞋厂-专变-45249347-安新县三台镇卓跃鞋厂,安新县胜利鞋材制造有限公司,安新县三台镇王公堤文鑫恒达鞋材加工厂200KVA,留村天宇鞋底厂315KVA,王公堤四台区,0387366166-安新县留村捷达鞋厂-专变-45239221-安新县留村捷达鞋厂,崔公堤十七台区,变压器400KVA,高公堤九台区,高公堤二台区,三台东明鞋底厂,安新县三台镇永发机毡厂,安新县三台崔公堤天利达底厂,高公堤八台区,一砖印刷材料厂,富鸿鞋底厂,宏山鞋厂,朱公堤浇地五台区,崔公堤五台区,三台王公堤浇地三台区,安新县胜凯利鞋材制造有限公司630KVA,变压器250KVA,留村浇地二十一台区,王公堤六台区,崔公堤十三台区,崔公堤二台区,留村十五台区,安新县留村金澳鞋厂（预）01,王公堤一台区,高公堤浇地四台区,王公堤浇地一台区,留村二十三台区,王公堤机毡厂,三台镇高公堤泰跃鞋厂,安新县瑞祥宇鞋厂315KVA,安新县三台镇崔公堤小学,高公堤三台区,变压器160KVA,崔公堤十二台区,朱公堤浇地七台区,安新县瑞天鞋业有限公司,博硕鞋厂200KVA,群利达纸箱厂,崔公堤二十台区","poweroffReason":"【停电原因】由于更换电杆、导线导致１１０ＫＶ新安变电站农场线５８２线路２９号杆开关以下线路停电 【变更送电】无 【发布渠道】安新电视台（２０１８年５月２６日至２０１８年６月４日的１９：３０至２０：００之间）屏幕下方滚动字幕","powerTime":"2018-06-05 20:52:38","powerComm":"已送电","subsNo":"","lineNo":"","tgNo":"","tgName":null,"infoStatus":"1","orgName":"(原)国网安新县供电公司","typeName":null,"infoStatusName":null,"dateDay":null,"orgNos":null,"nowTime":null,"countyName":null,"streetName":null,"villageName":null,"roadName":null,"communityName":null,"tranName":null,"sdLineName":null,"cityCode":"1340607","cityName":"(原)国网安新县供电公司","provinceCode":null,"stopTime":"2018-06-05 21:00:00","powerType":"全部","powerOffArea":"【分支停电】停0387367329-胜利鞋材-专变-45238953-胜利鞋材,永胜机毡厂,崔公堤十九台区,王公堤广义羽绒厂,永发机毡厂,0387390057-华龙羽绒厂-专变-45248974-华龙羽绒厂378,高公堤一台区,海阔羽绒厂,胜利鞋材制造有限公司,安新县留村新华纸箱厂,安新县留村天宇鞋底厂,崔公堤村南浇地一台区,王公堤昌盛机毡厂,利达羽绒厂,长乐羽绒厂,朱公堤三台,变压器50KVA,高公堤浇地五台区,变压器630KVA,卓跃鞋厂,金圣元鞋厂,宏达机毡厂,高公堤四台区,崔公堤二十三台区,崔公堤二十五台区,崔公堤一台区,留村浇地十台区,崔公堤七台区,崔公堤九台区,高公堤浇地三台区【纯农排变】,高公堤六台区,变压器500,0387391382-安新县三台镇卓跃鞋厂-专变-45249347-安新县三台镇卓跃鞋厂,安新县胜利鞋材制造有限公司,安新县三台镇王公堤文鑫恒达鞋材加工厂200KVA,留村天宇鞋底厂315KVA,王公堤四台区,0387366166-安新县留村捷达鞋厂-专变-45239221-安新县留村捷达鞋厂,崔公堤十七台区,变压器400KVA,高公堤九台区,高公堤二台区,三台东明鞋底厂,安新县三台镇永发机毡厂,安新县三台崔公堤天利达底厂,高公堤八台区,一砖印刷材料厂,富鸿鞋底厂,宏山鞋厂,朱公堤浇地五台区,崔公堤五台区,三台王公堤浇地三台区,安新县胜凯利鞋材制造有限公司630KVA,变压器250KVA,留村浇地二十一台区,王公堤六台区,崔公堤十三台区,崔公堤二台区,留村十五台区,安新县留村金澳鞋厂（预）01,王公堤一台区,高公堤浇地四台区,王公堤浇地一台区,留村二十三台区,王公堤机毡厂,三台镇高公堤泰跃鞋厂,安新县瑞祥宇鞋厂315KVA,安新县三台镇崔公堤小学,高公堤三台区,变压器160KVA,崔公堤十二台区,朱公堤浇地七台区,安新县瑞天鞋业有限公司,博硕鞋厂200KVA,群利达纸箱厂,崔公堤二十台区","powerOffReason":"【停电原因】由于更换电杆、导线导致１１０ＫＶ新安变电站农场线５８２线路２９号杆开关以下线路停电 【变更送电】无 【发布渠道】安新电视台（２０１８年５月２６日至２０１８年６月４日的１９：３０至２０：００之间）屏幕下方滚动字幕","powerOffId":"2018052513000430"},{"poweroffId":2018052513000423,"sgpoweroffId":null,"subsName":"","lineName":"射击场线553","pubTranName":"农排午方东庄-5【纯农排变】,综合午方北庄-8,农排午方西庄-19【纯农排变】,农排午方西庄-18【纯农排变】,农排午方西庄-10【纯农排变】,农排午方北庄-7,农排午方东庄-3【纯农排变】,容城县午方同保奶牛场变压器,综合午方西庄-5,0626850238-河北亚体投资管理有限公司-专变-139028037-河北亚体投资管理有限公司变压器,农排午方东庄-4,农排午方北庄-18【纯农排变】,综合东牛南庄-10,农排东牛南庄-5【纯农排变】,0610676347-河北宏利达实业有限公司-专变-127678734-河北宏利达实业有限公司变压器,农排午方西庄-9【纯农排变】,农排午方北庄-17【纯农排变】,农排东牛南庄-4【纯农排变】,保定长信文化传播有限公司变压器,农排午方西庄-25【纯农排变】,农排午方西庄-13【纯农排变】,农排午方西庄-23【纯农排变】,综合午方西庄-26,农排午方西庄-12【纯农排变】,农排午方西庄-17【纯农排变】,农排午方西庄-7【纯农排变】,农排午方西庄-8【纯农排变】,农排午方西庄-28【纯农排变】,农排午方西庄-16【纯农排变】,农排午方西庄-14【纯农排变】,农排午方西庄-11【纯农排变】,农排午方西庄-20【纯农排变】,0387510156-河北宏利达实业有限公司奶牛养殖-专变-45327873-河北宏利达实业有限公司奶牛养殖,农排午方北庄-11【纯农排变】,0387509686-河北宏利达实业有限公司奶牛养殖-2-专变-127238478-河北宏利达实业有限公司奶牛养殖变压器,农排午方西庄-24【纯农排变】,综合午方西庄-4,农排东牛南庄-7【纯农排变】,农排东牛-26【纯农排变】,综合午方西庄-22,农排午方西庄-15【纯农排变】,","scope":"【影响街道/乡镇】城关镇 【高危重要客户】无 【影响客户】午方西庄、东牛南庄、东牛、午方北庄、午方东庄、保定长信文化传播有限公司、崔同宝牛场、河北宏利达实业有限公司奶牛养殖、河北亚体投资管理有限公司","startTime":"2018-05-26 07:30:00","stopDate":"2018-05-26 17:40:00","orgNo":"1340620","typeCode":"其他临时停电","poweroffArea":"【全线路停电】停农排午方北庄-7,农排午方西庄-17【纯农排变】,农排午方西庄-15【纯农排变】,综合午方西庄-4,农排午方北庄-17【纯农排变】,农排午方北庄-11【纯农排变】,农排午方西庄-14【纯农排变】,农排午方西庄-25【纯农排变】,农排东牛南庄-4【纯农排变】,农排午方西庄-7【纯农排变】,农排午方西庄-11【纯农排变】,农排东牛南庄-7【纯农排变】,农排东牛-26【纯农排变】,农排午方西庄-8【纯农排变】,综合午方西庄-22,容城县午方同保奶牛场变压器,农排午方西庄-10【纯农排变】,0610676347-河北宏利达实业有限公司-专变-127678734-河北宏利达实业有限公司变压器,0387509686-河北宏利达实业有限公司奶牛养殖-2-专变-127238478-河北宏利达实业有限公司奶牛养殖变压器,农排午方西庄-28【纯农排变】,农排午方西庄-19【纯农排变】,农排午方西庄-16【纯农排变】,农排午方东庄-5【纯农排变】,农排午方西庄-20【纯农排变】,综合午方西庄-5,农排午方西庄-18【纯农排变】,综合午方北庄-8,农排午方东庄-3【纯农排变】,农排午方西庄-13【纯农排变】,农排午方西庄-23【纯农排变】,0626850238-河北亚体投资管理有限公司-专变-139028037-河北亚体投资管理有限公司变压器,综合东牛南庄-10,综合午方西庄-26,农排午方东庄-4,农排午方西庄-9【纯农排变】,农排午方北庄-18【纯农排变】,农排东牛南庄-5【纯农排变】,0387510156-河北宏利达实业有限公司奶牛养殖-专变-45327873-河北宏利达实业有限公司奶牛养殖,保定长信文化传播有限公司变压器,农排午方西庄-12【纯农排变】,农排午方西庄-24【纯农排变】","poweroffReason":"【停电原因】由于雄安截洪渠需停电进行紧急消缺导致１１０ＫＶ奥威变电站１０ＫＶ射击场线５５３线路全线停电【变更送电】因抢修进度加快原因，送电时间由:２１：３０变更为１７：４０【发布渠道】通过９５５９８发布","powerTime":"2018-05-26 17:20:35","powerComm":"已送电","subsNo":"","lineNo":"","tgNo":"","tgName":null,"infoStatus":"1","orgName":"(原)国网容城县供电公司","typeName":null,"infoStatusName":null,"dateDay":null,"orgNos":null,"nowTime":null,"countyName":null,"streetName":null,"villageName":null,"roadName":null,"communityName":null,"tranName":null,"sdLineName":null,"cityCode":"1340620","cityName":"(原)国网容城县供电公司","provinceCode":null,"stopTime":"2018-05-26 17:40:00","powerType":"全部","powerOffArea":"【全线路停电】停农排午方北庄-7,农排午方西庄-17【纯农排变】,农排午方西庄-15【纯农排变】,综合午方西庄-4,农排午方北庄-17【纯农排变】,农排午方北庄-11【纯农排变】,农排午方西庄-14【纯农排变】,农排午方西庄-25【纯农排变】,农排东牛南庄-4【纯农排变】,农排午方西庄-7【纯农排变】,农排午方西庄-11【纯农排变】,农排东牛南庄-7【纯农排变】,农排东牛-26【纯农排变】,农排午方西庄-8【纯农排变】,综合午方西庄-22,容城县午方同保奶牛场变压器,农排午方西庄-10【纯农排变】,0610676347-河北宏利达实业有限公司-专变-127678734-河北宏利达实业有限公司变压器,0387509686-河北宏利达实业有限公司奶牛养殖-2-专变-127238478-河北宏利达实业有限公司奶牛养殖变压器,农排午方西庄-28【纯农排变】,农排午方西庄-19【纯农排变】,农排午方西庄-16【纯农排变】,农排午方东庄-5【纯农排变】,农排午方西庄-20【纯农排变】,综合午方西庄-5,农排午方西庄-18【纯农排变】,综合午方北庄-8,农排午方东庄-3【纯农排变】,农排午方西庄-13【纯农排变】,农排午方西庄-23【纯农排变】,0626850238-河北亚体投资管理有限公司-专变-139028037-河北亚体投资管理有限公司变压器,综合东牛南庄-10,综合午方西庄-26,农排午方东庄-4,农排午方西庄-9【纯农排变】,农排午方北庄-18【纯农排变】,农排东牛南庄-5【纯农排变】,0387510156-河北宏利达实业有限公司奶牛养殖-专变-45327873-河北宏利达实业有限公司奶牛养殖,保定长信文化传播有限公司变压器,农排午方西庄-12【纯农排变】,农排午方西庄-24【纯农排变】","powerOffReason":"【停电原因】由于雄安截洪渠需停电进行紧急消缺导致１１０ＫＶ奥威变电站１０ＫＶ射击场线５５３线路全线停电【变更送电】因抢修进度加快原因，送电时间由:２１：３０变更为１７：４０【发布渠道】通过９５５９８发布","powerOffId":"2018052513000423"}],"pageModel":{"pageNow":1074,"totalCount":10973,"totalPage":1098,"tableRows":0,"pageCount":10,"beginCount":10730},"isExperi":"1"}