{"message":"","today":"2020-06-15","seleList":[{"poweroffId":2018052213000346,"sgpoweroffId":null,"subsName":"","lineName":"10kV519新一中线","pubTranName":"定州市北门农产品经纪人服务,河北文博房地产开发有限公司变压器2,中国移动通信集团河北有限公司定州分公司变压器,高速东台区变压器,南角羊(004):照明1台区,东门街照明13台区,大涨村(018):农业2台区【纯农排变】,高头(007):农业1台区【纯农排变】,大洼里照明2台区,中铁十一局铁路客运专线（北角羊）,西里元(027):照明1台区,塑料厂,仝家庄面粉厂,大洼里公用照明3台区,东关(001)：照明5台区,小涨(020):照明1台区,仝家庄公用照明2台区,定州市杨家庄乡卫生院变压器,高头(007):农业4台区【纯农排变】,0623128378-定州市车站综合管理局-专变-131158650-定州市车站综合管理局变压器,小陈村公用照明1台区,田勇,八里店公用照明4台区,东关(001):农业5台区【纯农排变】,西里元(027)农业4台区【纯农排变】,大洼里村造纸厂,客户投资_小渡河公用照明3台区,河北万兴混凝土有限公司变压器,北角羊(024):农业1台区【纯农排变】,田增启,西里元公用照明12台区,东关(001):农业3台区【纯农排变】,小渡河：照明2台区,定州养路工区（定安公路）,大洼里(003):照明1台区,小渡河公用照明5台区,西里元公用照明11台区,定州市社会福利院变压器,定州市车站综合管理局变压器,定州市车站管理局变压器,大涨村(018):农业1台区【纯农排变】,北角羊公用照明2台区,小涨村公用农业3台区【纯农排变】,八里店公用照明7台区,大涨村公用照明7台区,河北通达天元房地产开发有限公司紫香园变压器,南角羊公用照明5台区,李会杰板厂,仝家庄(021):照明1台区,大涨村公用农业4台区【纯农排变】,尹家庄公用照明4台区,八里店(002):农业1台区【纯农排变】,定州市星光印务有限公司,高头公用照明6台区,0699040556--定州市德龙环境工程有限公司,大涨村(018):照明2台区,南角羊公用照明7台区,农机修理厂,仝家庄公用照明5台区,大涨村(018):农业3台区【纯农排变】,八里店照明3台区,高头(007):农业2台区【纯农排变】,南角羊(004):农业3台区【纯农排变】,西里元公用农业6台区【纯农排变】,大涨村公用农业6台区【纯农排变】,西里元公用照明6台区,高头公变照明7台区,西里元(027):照明3台区,大涨村照明3台区,贵宾楼,大涨村公用照明8台区,定州市8640部队医院,定州市永旺木器加工厂变压器,东门街公用照明12台区,河北文博房地产开发有限公司变压器1,仝家庄(021):农业1台区【纯农排变】,大涨村公用照明6台区,八里店公用照明5台区,东关(001):农业4台区【纯农排变】,大涨村公用照明5台区,南角羊公用农业4台区【纯农排变】,南角羊(004):照明2台区,西里元(027):农业3台区【纯农排变】,定州市杨家庄乡南角羊村民委员会变压器,尹家庄(013):农业1台区【纯农排变】,小涨(020):农业2台区【纯农排变】,工艺美术厂,八里店村北,小渡河公用照明7台区,北角羊公用照明4台区,南角羊公用照明4台区,定州市民政局变压器2,保定宏孚石化产品销售有限公司变压器,八里店公用照明8台区,","scope":"【影响街道/乡镇】北门街、北城区、大鹿庄乡、杨家庄乡【高危重要客户】无【影响客户】东关、西里元、高头、尹家庄、仝家庄、八里店、小涨村、大涨村、南角羊、北角羊、大洼里、小渡河、杨家庄村、尹家庄污水处理厂、紫香园、国际大酒店","startTime":"2018-05-26 07:00:00","stopDate":"2018-05-26 22:00:00","orgNo":"1340610","typeCode":"临时停电","poweroffArea":"【全线路停电】停南角羊公用照明6台区,小涨(020):照明1台区,大涨村(018):农业2台区【纯农排变】,北角羊(024):农业2台区【纯农排变】,仝家庄公用照明4台区,大洼里照明2台区,尹家庄公用照明5台区,定州市丰源热处理厂,定州市民政局变压器2,仝家庄公用照明3台区,三期分表检测,定州市住房和城乡建设局变压器,0623128378-定州市车站综合管理局-专变-131158650-定州市车站综合管理局变压器,大涨村(018):农业1台区【纯农排变】,田增启,田勇,西里元公用照明6台区,八里店村北,南角羊公用照明5台区,河北通达天元房地产开发有限公司紫香园变压器,定州市天德环保科技有限公司变压器,中国移动通信集团河北有限公司定州分公司变压器,南角羊(004):农业2台区【纯农排变】,小涨村公用照明3台区,0658892226-定州市广兴机械零部件有限公司-专变-192910976-定州市广兴机械零部件有限公司变压器,定州市北门农产品经纪人服务,仝家庄公用照明5台区,大涨村照明3台区,尹家庄(013):照明2台区,工艺美术厂,大涨村(018):照明2台区,东关(001):农业1台区【纯农排变】,定州市社会福利院变压器,定州养路工区（定安公路）,李会杰板厂,定州市丽静肉制品有限公司,冷库,大涨村公用农业4台区【纯农排变】,塑料厂,大洼里村造纸厂,仝家庄公用照明6台区,八里店公用照明7台区,北角羊公用照明3台区,定州市车站综合管理局变压器,大洼里公用照明3台区,小涨(020):农业2台区【纯农排变】,北角羊(024):农业1台区【纯农排变】,西里元(027):农业3台区【纯农排变】,小渡河公用照明5台区,南角羊公用照明7台区,北角羊公用照明2台区,八里店公用照明9台区,杨家庄立乾保鲜冷库,八里店公用照明8台区,东关(001)：照明5台区,北门街(009):照明2台区,客户投资_尹家庄(013):照明1台区,定州市杨家庄乡人民政府变压器,东门街照明13台区,0668579056-河北通达天元房地产开发有限公司 紫香园-专变-209986117-河北通达天元房地产开发有限公司变压器,高速东台区变压器,仝家庄公用照明2台区,保定宏孚石化产品销售有限公司变压器,仝家庄面粉厂,西里元公用照明11台区,高头(007):农业2台区【纯农排变】,小涨村公用农业3台区【纯农排变】,高头(007):农业1台区【纯农排变】,现奇,定州市新华童星双语小学,小渡河公用照明4台区,南角羊公用农业4台区【纯农排变】,贵宾楼,定州市永旺木器加工厂变压器,定州市中诚水务有限公司,变压器,西里元(027):照明3台区,定州市杨家庄乡南角羊村民委员会变压器,大涨村公用照明5台区,尹家庄(013):农业1台区【纯农排变】,定州市中油昆仑石油天然气销售有限公司变压器,西里元公用农业4台区【纯农排变】,西里元公用农业6台区【纯农排变】,北角羊公用照明4台区,南角羊(004):农业3台区【纯农排变】,南角羊照明3台区,安永其,0699040556--定州市德龙环境工程有限公司,大涨村公用照明7台区,高头(007):农业3台区【纯农排变】,小渡河(025):农业4台区【纯农排变】,小涨(020):农业1台区【纯农排变】,八里店照明3台区,尹家庄公用照明4台区,李金榜苗木种植变压器,西里元(027):照明1台区,八里店公用照明5台区,西里元公用照明12台区,小渡河(025):照明1台区,河北文博房地产开发有限公司变压器1,西里元(027):照明2台区,河北文博房地产开发有限公司变压器2,大涨村公用农业5台区【纯农排变】,八里店公用照明4台区,河北万兴混凝土有限公司变压器,西里元公用农业7台区【纯农排变】,西里元村拔丝厂,小陈村公用照明1台区,西里元照明4台区,尹家庄公用照明3台区,大洼里(003):照明1台区,大涨村(018):农","poweroffReason":"【停电原因】由于新增电杆、更换电缆导致１１０ＫＶ总司屯变电站１０ＫＶ５１９新一中线路全线停电 【变更送电】因工作量大原因，送电时间由２０：００变更为２２：００ 【发布渠道】９５５９８","powerTime":"2018-05-26 21:47:51","powerComm":"已送电","subsNo":"","lineNo":"","tgNo":"","tgName":null,"infoStatus":"1","orgName":"国网定州市供电公司","typeName":null,"infoStatusName":null,"dateDay":null,"orgNos":null,"nowTime":null,"countyName":null,"streetName":null,"villageName":null,"roadName":null,"communityName":null,"tranName":null,"sdLineName":null,"cityCode":"1340610","cityName":"国网定州市供电公司","provinceCode":null,"stopTime":"2018-05-26 22:00:00","powerType":"全部","powerOffArea":"【全线路停电】停南角羊公用照明6台区,小涨(020):照明1台区,大涨村(018):农业2台区【纯农排变】,北角羊(024):农业2台区【纯农排变】,仝家庄公用照明4台区,大洼里照明2台区,尹家庄公用照明5台区,定州市丰源热处理厂,定州市民政局变压器2,仝家庄公用照明3台区,三期分表检测,定州市住房和城乡建设局变压器,0623128378-定州市车站综合管理局-专变-131158650-定州市车站综合管理局变压器,大涨村(018):农业1台区【纯农排变】,田增启,田勇,西里元公用照明6台区,八里店村北,南角羊公用照明5台区,河北通达天元房地产开发有限公司紫香园变压器,定州市天德环保科技有限公司变压器,中国移动通信集团河北有限公司定州分公司变压器,南角羊(004):农业2台区【纯农排变】,小涨村公用照明3台区,0658892226-定州市广兴机械零部件有限公司-专变-192910976-定州市广兴机械零部件有限公司变压器,定州市北门农产品经纪人服务,仝家庄公用照明5台区,大涨村照明3台区,尹家庄(013):照明2台区,工艺美术厂,大涨村(018):照明2台区,东关(001):农业1台区【纯农排变】,定州市社会福利院变压器,定州养路工区（定安公路）,李会杰板厂,定州市丽静肉制品有限公司,冷库,大涨村公用农业4台区【纯农排变】,塑料厂,大洼里村造纸厂,仝家庄公用照明6台区,八里店公用照明7台区,北角羊公用照明3台区,定州市车站综合管理局变压器,大洼里公用照明3台区,小涨(020):农业2台区【纯农排变】,北角羊(024):农业1台区【纯农排变】,西里元(027):农业3台区【纯农排变】,小渡河公用照明5台区,南角羊公用照明7台区,北角羊公用照明2台区,八里店公用照明9台区,杨家庄立乾保鲜冷库,八里店公用照明8台区,东关(001)：照明5台区,北门街(009):照明2台区,客户投资_尹家庄(013):照明1台区,定州市杨家庄乡人民政府变压器,东门街照明13台区,0668579056-河北通达天元房地产开发有限公司 紫香园-专变-209986117-河北通达天元房地产开发有限公司变压器,高速东台区变压器,仝家庄公用照明2台区,保定宏孚石化产品销售有限公司变压器,仝家庄面粉厂,西里元公用照明11台区,高头(007):农业2台区【纯农排变】,小涨村公用农业3台区【纯农排变】,高头(007):农业1台区【纯农排变】,现奇,定州市新华童星双语小学,小渡河公用照明4台区,南角羊公用农业4台区【纯农排变】,贵宾楼,定州市永旺木器加工厂变压器,定州市中诚水务有限公司,变压器,西里元(027):照明3台区,定州市杨家庄乡南角羊村民委员会变压器,大涨村公用照明5台区,尹家庄(013):农业1台区【纯农排变】,定州市中油昆仑石油天然气销售有限公司变压器,西里元公用农业4台区【纯农排变】,西里元公用农业6台区【纯农排变】,北角羊公用照明4台区,南角羊(004):农业3台区【纯农排变】,南角羊照明3台区,安永其,0699040556--定州市德龙环境工程有限公司,大涨村公用照明7台区,高头(007):农业3台区【纯农排变】,小渡河(025):农业4台区【纯农排变】,小涨(020):农业1台区【纯农排变】,八里店照明3台区,尹家庄公用照明4台区,李金榜苗木种植变压器,西里元(027):照明1台区,八里店公用照明5台区,西里元公用照明12台区,小渡河(025):照明1台区,河北文博房地产开发有限公司变压器1,西里元(027):照明2台区,河北文博房地产开发有限公司变压器2,大涨村公用农业5台区【纯农排变】,八里店公用照明4台区,河北万兴混凝土有限公司变压器,西里元公用农业7台区【纯农排变】,西里元村拔丝厂,小陈村公用照明1台区,西里元照明4台区,尹家庄公用照明3台区,大洼里(003):照明1台区,大涨村(018):农","powerOffReason":"【停电原因】由于新增电杆、更换电缆导致１１０ＫＶ总司屯变电站１０ＫＶ５１９新一中线路全线停电 【变更送电】因工作量大原因，送电时间由２０：００变更为２２：００ 【发布渠道】９５５９８","powerOffId":"2018052213000346"},{"poweroffId":2018052213000341,"sgpoweroffId":null,"subsName":"","lineName":"中庄村线512","pubTranName":"龙盘沟公用配变,变压器,中庄512清风沟西,胡子峪,涞源县上庄乡中心卫生院变压器,华夏幸福涞源扶贫发展有限公司,中庄512西泉头3台区,涞源县富民土地开发有限责任公司变压器,涞源县上庄乡中心小学变压器,涞源县公安局上庄派出所变压器,土胡同配变,涞源县昌虹农产品购销专业合作社变压器,南阳峪新村2【三批中心村】,小荒荒配变,中庄512上庄北2台区,南阳峪机井,中庄512东泉头2台区,李文海,清风沟2台区【三批中心村】,南阳峪村光伏变压器【光伏】,狮子峪,狮子峪南,涞源县英利光伏电力开发有限公司变压器,中庄512陈家庄,上庄村光伏变压器【光伏】,中庄中2台区变压器,涞源县金家井乡泉峪村村民委员会变压器,上庄机井,沙岭水,河北沃茂牧业有限公司变压器,中庄512下老芳,南阳峪旧村【三批中心村】,上庄水配变,涞源县科瑞新能源发电有限公司变压器,涞源县森林公安局变压器,中庄512上庄中计,甲村林厂,富源加油站,中庄512上庄南,中庄512毕家庄,中庄南3台区变压器,中庄北4台区,清风沟村光伏变压器【光伏】,中庄512沙岭单,甲村供电所,清风沟1台区【三批中心村】,雨润集团,河北省涞源县上庄中学变压器,中庄512跃子沟,中庄512黄郊新2台区,中庄北2台区,任智,涞源县储生加工厂变压器,0603049345-涞源县鑫满畜禽饲养有限公司-专变-126973882-涞源县鑫满畜禽饲养有限公司变压器,河北雄威建筑工程有限公司变压器,0643436349-涞源县豪杰铁选厂-专变-161885199-涞源县广华水泥构件厂变压器,中庄512中庄北3台区,涞源县上庄乡狮子峪村村民委员会变压器,中庄南台区变压器,高新民,中庄512上庄学校,中庄512麻库,中庄中台变压器,中庄南2台区变压器,中国移动通信集团河北有限公司涞源,中庄512上老房,白杨村,衙庭配变,黄郊,庄火台配变,中庄512清风沟中,东泉头配变,中庄512狮子峪单,中庄512万子沟,西泉头村光伏变压器【光伏】,涞源县旭源煤站变压器,横山岭配变,中庄512峨头,中庄512中庄学校户,上老芳村光伏变压器【光伏】,南阳峪新村【三批中心村】,国网河北省电力公司涞源县供电分公司(甲村所)变压器,中庄512上庄东【煤改电】,上庄医院,涞源县聚强商品混凝土有限公司变压器,羊圈配变,森利选厂,狮子峪北,中庄512刘湖,中庄512李家黄,中庄512毕东沟,涞源县上庄乡中心小学中庄小学变压器,创大乙炔气厂,西泉头水,中庄机井,中庄512峨头新村【三批中心村】,中庄512上庄南2台区,涞源县农村信用联社股份有限公司变压器,清风沟水变,中庄512上庄中2台区,黄郊西,中庄北台区变压器,中庄512万子沟2台区,中庄512上庄,中庄512毕家庄单,中庄512西泉头2台区,涞源县六旺川生态养殖有限公司变压器,中庄512沙岭子,中庄512黄郊新村,","scope":"【影响街道/乡镇】上庄乡【高危重要客户】无【影响客户】狮子峪、黄郊、南阳峪、清风沟、中庄、上庄、上老房、下老房、万子沟、峨头、毕家庄、横山岭、东泉头、西泉头、跃子沟、衙庭、沙岭、李家黄、刘胡、上庄中学、上庄小学、铁塔公司、联通公司、移动公司、上庄乡政府","startTime":"2018-05-31 04:00:00","stopDate":"2018-05-31 06:30:00","orgNo":"1340615","typeCode":"计划停电","poweroffArea":"【分支停电】停龙盘沟公用配变,中庄512黄郊新村,变压器,涞源县六旺川生态养殖有限公司变压器,中庄512清风沟西,胡子峪,中庄512下老芳,清风沟2台区【三批中心村】,涞源县上庄乡中心小学中庄小学变压器,中庄512上老房,高新民,涞源县上庄乡中心卫生院变压器,中庄512东泉头2台区,西泉头村光伏变压器【光伏】,创大乙炔气厂,土胡同配变,任智,涞源县公安局上庄派出所变压器,南阳峪机井,西泉头水,中庄512中庄北3台区,中庄机井,清风沟1台区【三批中心村】,李文海,涞源县上庄乡狮子峪村村民委员会变压器,中庄南台区变压器,中庄512峨头新村【三批中心村】,中庄512毕家庄单,中庄512上庄学校,国网河北省电力公司涞源县供电分公司(甲村所)变压器,涞源县旭源煤站变压器,涞源县金家井乡泉峪村村民委员会变压器,中庄512上庄南2台区,中庄512上庄东【煤改电】,甲村林厂,富源加油站,涞源县农村信用联社股份有限公司变压器,中庄512上庄南,清风沟水变,涞源县储生加工厂变压器,中庄512上庄中2台区,中庄512万子沟,中庄512毕家庄,中庄512狮子峪单,上庄机井,雨润集团,中庄北2台区,河北省涞源县上庄中学变压器,中庄南3台区变压器,上庄医院,中庄北4台区,白杨村,清风沟村光伏变压器【光伏】,涞源县聚强商品混凝土有限公司变压器,中庄512毕东沟,南阳峪村光伏变压器【光伏】,衙庭配变,中庄512沙岭单,上庄水配变,甲村供电所,涞源县科瑞新能源发电有限公司变压器,羊圈配变,沙岭水,涞源县森林公安局变压器,黄郊,中庄512沙岭子,狮子峪,中庄512李家黄,庄火台配变,华夏幸福涞源扶贫发展有限公司,河北雄威建筑工程有限公司变压器,中庄512上庄,狮子峪南,涞源县昌虹农产品购销专业合作社变压器,中庄512跃子沟,中庄南2台区变压器,南阳峪新村2【三批中心村】,中庄512西泉头3台区,0643436349-涞源县豪杰铁选厂-专变-161885199-涞源县广华水泥构件厂变压器,涞源县富民土地开发有限责任公司变压器,涞源县上庄乡中心小学变压器,中庄512黄郊新2台区,横山岭配变,中庄512麻库,涞源县英利光伏电力开发有限公司变压器,中庄512陈家庄,中庄512清风沟中,东泉头配变,黄郊西,狮子峪北,小荒荒配变,中庄北台区变压器,河北沃茂牧业有限公司变压器,中庄512峨头,中庄512上庄中计,中庄中台变压器,上庄村光伏变压器【光伏】,中国移动通信集团河北有限公司涞源,中庄512中庄学校户,上老芳村光伏变压器【光伏】,南阳峪新村【三批中心村】,中庄512万子沟2台区,中庄512上庄北2台区,中庄中2台区变压器,中庄512刘湖,森利选厂,南阳峪旧村【三批中心村】,0603049345-涞源县鑫满畜禽饲养有限公司-专变-126973882-涞源县鑫满畜禽饲养有限公司变压器,中庄512西泉头2台区","poweroffReason":"【停电原因】由于中庄线５１２线路主干１３４号杆黄郊扶贫养殖场分支接引导致３５ＫＶ城关变电站中庄线５１２线路主干０４３号杆５１２－３断路器及５１２－８刀闸以下停电【变更送电】无【发布渠道】涞源电视台（２０１８年５月２２日至２０１８年５月３０日）屏幕上方滚动","powerTime":"2018-05-31 06:10:06","powerComm":"已送电","subsNo":"","lineNo":"","tgNo":"","tgName":null,"infoStatus":"1","orgName":"国网涞源县供电公司","typeName":null,"infoStatusName":null,"dateDay":null,"orgNos":null,"nowTime":null,"countyName":null,"streetName":null,"villageName":null,"roadName":null,"communityName":null,"tranName":null,"sdLineName":null,"cityCode":"1340615","cityName":"国网涞源县供电公司","provinceCode":null,"stopTime":"2018-05-31 06:30:00","powerType":"全部","powerOffArea":"【分支停电】停龙盘沟公用配变,中庄512黄郊新村,变压器,涞源县六旺川生态养殖有限公司变压器,中庄512清风沟西,胡子峪,中庄512下老芳,清风沟2台区【三批中心村】,涞源县上庄乡中心小学中庄小学变压器,中庄512上老房,高新民,涞源县上庄乡中心卫生院变压器,中庄512东泉头2台区,西泉头村光伏变压器【光伏】,创大乙炔气厂,土胡同配变,任智,涞源县公安局上庄派出所变压器,南阳峪机井,西泉头水,中庄512中庄北3台区,中庄机井,清风沟1台区【三批中心村】,李文海,涞源县上庄乡狮子峪村村民委员会变压器,中庄南台区变压器,中庄512峨头新村【三批中心村】,中庄512毕家庄单,中庄512上庄学校,国网河北省电力公司涞源县供电分公司(甲村所)变压器,涞源县旭源煤站变压器,涞源县金家井乡泉峪村村民委员会变压器,中庄512上庄南2台区,中庄512上庄东【煤改电】,甲村林厂,富源加油站,涞源县农村信用联社股份有限公司变压器,中庄512上庄南,清风沟水变,涞源县储生加工厂变压器,中庄512上庄中2台区,中庄512万子沟,中庄512毕家庄,中庄512狮子峪单,上庄机井,雨润集团,中庄北2台区,河北省涞源县上庄中学变压器,中庄南3台区变压器,上庄医院,中庄北4台区,白杨村,清风沟村光伏变压器【光伏】,涞源县聚强商品混凝土有限公司变压器,中庄512毕东沟,南阳峪村光伏变压器【光伏】,衙庭配变,中庄512沙岭单,上庄水配变,甲村供电所,涞源县科瑞新能源发电有限公司变压器,羊圈配变,沙岭水,涞源县森林公安局变压器,黄郊,中庄512沙岭子,狮子峪,中庄512李家黄,庄火台配变,华夏幸福涞源扶贫发展有限公司,河北雄威建筑工程有限公司变压器,中庄512上庄,狮子峪南,涞源县昌虹农产品购销专业合作社变压器,中庄512跃子沟,中庄南2台区变压器,南阳峪新村2【三批中心村】,中庄512西泉头3台区,0643436349-涞源县豪杰铁选厂-专变-161885199-涞源县广华水泥构件厂变压器,涞源县富民土地开发有限责任公司变压器,涞源县上庄乡中心小学变压器,中庄512黄郊新2台区,横山岭配变,中庄512麻库,涞源县英利光伏电力开发有限公司变压器,中庄512陈家庄,中庄512清风沟中,东泉头配变,黄郊西,狮子峪北,小荒荒配变,中庄北台区变压器,河北沃茂牧业有限公司变压器,中庄512峨头,中庄512上庄中计,中庄中台变压器,上庄村光伏变压器【光伏】,中国移动通信集团河北有限公司涞源,中庄512中庄学校户,上老芳村光伏变压器【光伏】,南阳峪新村【三批中心村】,中庄512万子沟2台区,中庄512上庄北2台区,中庄中2台区变压器,中庄512刘湖,森利选厂,南阳峪旧村【三批中心村】,0603049345-涞源县鑫满畜禽饲养有限公司-专变-126973882-涞源县鑫满畜禽饲养有限公司变压器,中庄512西泉头2台区","powerOffReason":"【停电原因】由于中庄线５１２线路主干１３４号杆黄郊扶贫养殖场分支接引导致３５ＫＶ城关变电站中庄线５１２线路主干０４３号杆５１２－３断路器及５１２－８刀闸以下停电【变更送电】无【发布渠道】涞源电视台（２０１８年５月２２日至２０１８年５月３０日）屏幕上方滚动","powerOffId":"2018052213000341"},{"poweroffId":2018052213000337,"sgpoweroffId":null,"subsName":"","lineName":"二环路线517","pubTranName":"包装城11#公用,包装城8#公用,包装城3#公用,包装城1#公用,塑料包装城(公用),","scope":"【影响街道/乡镇】雄州镇 【高危重要客户】无 【影响客户】包装城","startTime":"2018-06-02 08:00:00","stopDate":"2018-06-02 19:00:00","orgNo":"1340624","typeCode":"计划停电","poweroffArea":"【分支停电】停包装城1#公用,包装城11#公用,包装城3#公用,包装城8#公用,塑料包装城(公用)","poweroffReason":"【停电原因】由于包装城公用更换变压器导致１１０ＫＶ雄县变电站二环路线５１７线路主干２１号杆开关分支停电 【变更送电】无 【发布渠道】保定市雄县电视台（０５月２５日１９时至２１时之间）媒体播报","powerTime":"2018-06-02 18:26:51","powerComm":"已送电","subsNo":"","lineNo":"","tgNo":"","tgName":null,"infoStatus":"1","orgName":"(原)国网雄县供电公司","typeName":null,"infoStatusName":null,"dateDay":null,"orgNos":null,"nowTime":null,"countyName":null,"streetName":null,"villageName":null,"roadName":null,"communityName":null,"tranName":null,"sdLineName":null,"cityCode":"1340624","cityName":"(原)国网雄县供电公司","provinceCode":null,"stopTime":"2018-06-02 19:00:00","powerType":"全部","powerOffArea":"【分支停电】停包装城1#公用,包装城11#公用,包装城3#公用,包装城8#公用,塑料包装城(公用)","powerOffReason":"【停电原因】由于包装城公用更换变压器导致１１０ＫＶ雄县变电站二环路线５１７线路主干２１号杆开关分支停电 【变更送电】无 【发布渠道】保定市雄县电视台（０５月２５日１９时至２１时之间）媒体播报","powerOffId":"2018052213000337"},{"poweroffId":2018052213000333,"sgpoweroffId":null,"subsName":"","lineName":"化工厂线511","pubTranName":"包装城2#公用,包装城7#公用,","scope":"【影响街道/乡镇】雄州镇 【高危重要客户】无 【影响客户】包装城","startTime":"2018-06-02 08:00:00","stopDate":"2018-06-02 19:00:00","orgNo":"1340624","typeCode":"计划停电","poweroffArea":"【分支停电】停包装城2#公用,包装城7#公用","poweroffReason":"【停电原因】由于包装城２号公用更换变压器导致１１０ＫＶ雄县变电站化工厂线５１１线路主干２１号杆开关分支停电 【变更送电】无 【发布渠道】保定市雄县电视台（０５月２５日１９时至２１时之间）媒体播报","powerTime":"2018-06-02 18:27:04","powerComm":"已送电","subsNo":"","lineNo":"","tgNo":"","tgName":null,"infoStatus":"1","orgName":"(原)国网雄县供电公司","typeName":null,"infoStatusName":null,"dateDay":null,"orgNos":null,"nowTime":null,"countyName":null,"streetName":null,"villageName":null,"roadName":null,"communityName":null,"tranName":null,"sdLineName":null,"cityCode":"1340624","cityName":"(原)国网雄县供电公司","provinceCode":null,"stopTime":"2018-06-02 19:00:00","powerType":"全部","powerOffArea":"【分支停电】停包装城2#公用,包装城7#公用","powerOffReason":"【停电原因】由于包装城２号公用更换变压器导致１１０ＫＶ雄县变电站化工厂线５１１线路主干２１号杆开关分支停电 【变更送电】无 【发布渠道】保定市雄县电视台（０５月２５日１９时至２１时之间）媒体播报","powerOffId":"2018052213000333"},{"poweroffId":2018052213000327,"sgpoweroffId":null,"subsName":"","lineName":"高庄线518","pubTranName":"0692815412-雄县朱各庄镇高庄小学-专变-235679050-雄县朱各庄镇高庄小学,高庄3#公用,高庄9#公用,【纯农排变】高庄村委会3#水利,高庄4#公用,高庄7#公用,高庄水利公用1#,高庄村委会4#水利,【纯农排变】高庄村委会2#水利,高庄2#公用,高庄公用1#,高庄孙秋申,高庄张福,高庄6#公用,高庄5#公用,高庄8#公用,","scope":"【影响街道/乡镇】朱各庄乡 【高危重要客户】无 【影响客户】高庄村","startTime":"2018-06-01 08:00:00","stopDate":"2018-06-01 19:00:00","orgNo":"1340624","typeCode":"计划停电","poweroffArea":"【全线路停电】停高庄3#公用,高庄张福,高庄9#公用,0692815412-雄县朱各庄镇高庄小学-专变-235679050-雄县朱各庄镇高庄小学,高庄4#公用,高庄水利公用1#,高庄8#公用,高庄6#公用,高庄5#公用,高庄公用1#,高庄村委会4#水利,高庄孙秋申,【纯农排变】高庄村委会3#水利,高庄2#公用,高庄7#公用,【纯农排变】高庄村委会2#水利","poweroffReason":"【停电原因】由于高庄４号公用５号公用更换变压器导致３５ＫＶ东阳变电站高庄线５１８线路全线停电 【变更送电】无 【发布渠道】保定市雄县电视台（０５月２４日１９时至２１时之间）媒体播报","powerTime":"2018-06-01 18:37:03","powerComm":"已送电","subsNo":"","lineNo":"","tgNo":"","tgName":null,"infoStatus":"1","orgName":"(原)国网雄县供电公司","typeName":null,"infoStatusName":null,"dateDay":null,"orgNos":null,"nowTime":null,"countyName":null,"streetName":null,"villageName":null,"roadName":null,"communityName":null,"tranName":null,"sdLineName":null,"cityCode":"1340624","cityName":"(原)国网雄县供电公司","provinceCode":null,"stopTime":"2018-06-01 19:00:00","powerType":"全部","powerOffArea":"【全线路停电】停高庄3#公用,高庄张福,高庄9#公用,0692815412-雄县朱各庄镇高庄小学-专变-235679050-雄县朱各庄镇高庄小学,高庄4#公用,高庄水利公用1#,高庄8#公用,高庄6#公用,高庄5#公用,高庄公用1#,高庄村委会4#水利,高庄孙秋申,【纯农排变】高庄村委会3#水利,高庄2#公用,高庄7#公用,【纯农排变】高庄村委会2#水利","powerOffReason":"【停电原因】由于高庄４号公用５号公用更换变压器导致３５ＫＶ东阳变电站高庄线５１８线路全线停电 【变更送电】无 【发布渠道】保定市雄县电视台（０５月２４日１９时至２１时之间）媒体播报","powerOffId":"2018052213000327"},{"poweroffId":2018052213000325,"sgpoweroffId":null,"subsName":"","lineName":"电力线523线","pubTranName":"市场西公用,","scope":"【影响街道/乡镇】雄州镇 【高危重要客户】无 【影响客户】雄州市场附近居民及商户","startTime":"2018-06-01 08:00:00","stopDate":"2018-06-01 14:00:00","orgNo":"1340624","typeCode":"计划停电","poweroffArea":"【单台区停电】停市场西公用","poweroffReason":"【停电原因】由于铃铛阁西公用更换变压器导致１１０ＫＶ雄县变电站电力线５２３线路市场西公变台区停电 【变更送电】因工作进度加快原因，送电时间由１８：００变更为１４：００ 【发布渠道】保定市雄县电视台（０５月２４日１９时至２１时之间）媒体播报","powerTime":"2018-06-01 13:35:55","powerComm":"已送电","subsNo":"","lineNo":"","tgNo":"","tgName":null,"infoStatus":"1","orgName":"(原)国网雄县供电公司","typeName":null,"infoStatusName":null,"dateDay":null,"orgNos":null,"nowTime":null,"countyName":null,"streetName":null,"villageName":null,"roadName":null,"communityName":null,"tranName":null,"sdLineName":null,"cityCode":"1340624","cityName":"(原)国网雄县供电公司","provinceCode":null,"stopTime":"2018-06-01 14:00:00","powerType":"全部","powerOffArea":"【单台区停电】停市场西公用","powerOffReason":"【停电原因】由于铃铛阁西公用更换变压器导致１１０ＫＶ雄县变电站电力线５２３线路市场西公变台区停电 【变更送电】因工作进度加快原因，送电时间由１８：００变更为１４：００ 【发布渠道】保定市雄县电视台（０５月２４日１９时至２１时之间）媒体播报","powerOffId":"2018052213000325"},{"poweroffId":2018052213000318,"sgpoweroffId":null,"subsName":"","lineName":"城东线525","pubTranName":"造纸厂家属院公用,铃铛阁西公用,","scope":"【影响街道/乡镇】铃铛阁大街、雄州镇 【高危重要客户】无 【影响客户】造纸厂小区、铃铛阁大街东段路南沿街商户及居民","startTime":"2018-06-01 08:00:00","stopDate":"2018-06-01 14:00:00","orgNo":"1340624","typeCode":"计划停电","poweroffArea":"【分支停电】停造纸厂家属院公用,铃铛阁西公用","poweroffReason":"【停电原因】由于铃铛阁西公用更换变压器导致１１０ＫＶ雄县变电站城东线５２５线路主干３７号杆开关停电 【变更送电】因工作进度加快原因，送电时间由１８：００变更为１４：００ 【发布渠道】保定市雄县电视台（０５月２４日１９时至２１时之间）媒体播报","powerTime":"2018-06-01 13:34:13","powerComm":"已送电","subsNo":"","lineNo":"","tgNo":"","tgName":null,"infoStatus":"1","orgName":"(原)国网雄县供电公司","typeName":null,"infoStatusName":null,"dateDay":null,"orgNos":null,"nowTime":null,"countyName":null,"streetName":null,"villageName":null,"roadName":null,"communityName":null,"tranName":null,"sdLineName":null,"cityCode":"1340624","cityName":"(原)国网雄县供电公司","provinceCode":null,"stopTime":"2018-06-01 14:00:00","powerType":"全部","powerOffArea":"【分支停电】停造纸厂家属院公用,铃铛阁西公用","powerOffReason":"【停电原因】由于铃铛阁西公用更换变压器导致１１０ＫＶ雄县变电站城东线５２５线路主干３７号杆开关停电 【变更送电】因工作进度加快原因，送电时间由１８：００变更为１４：００ 【发布渠道】保定市雄县电视台（０５月２４日１９时至２１时之间）媒体播报","powerOffId":"2018052213000318"},{"poweroffId":2018052213000314,"sgpoweroffId":null,"subsName":"","lineName":"10kV516北大留线","pubTranName":"北大留综合7台区,0688878814-蠡县恒丰中药材农民专业合作社-专变-230398598-蠡县恒丰中药材农民专业合作社,北大留综合13台区变压器,北大留织布厂,0654305966-保定泓瑞农业发展有限公司-专变-183721617-保定泓瑞农业发展有限公司,北大留综合1台区,北大留综合10台区,浇地14台区,蠡县北大留立业养殖场,浇地6台区,北大留综合3台区,蠡县永固水泥制品制造有限公司变压器,浇地1台区,蠡县中立纺织制造有限公司变压器,北大留学校,浇地10台区,蠡县运达货物运输有限公司变压器,蠡县育丰园饲养有限公司变压器,浇地9台区,浇地2台区,浇地16台区,河北仁立毛纺厂,仁立毛纺厂,北大留农排3台区【纯农排变】,浇地8台区,北大留综合4台区,北大留综合12台区,北大留综合2台区,北大留综合8台区,北大留综合6台区,北大留综合11台区变压器,浇地15台区,浇地7台区,浇地5台区,北大留综合14台区,北大留综合16台区,北大留农排1台区【纯农排变】,北大留综合9台区,鑫泰棉业购销公司,北大留综合5台区,北大留农排2台区【纯农排变】,北大留综合15台区,鑫泰棉业有限公司,","scope":"【影响街道/乡镇】小陈乡【高危重要客户】无【影响客户】北大留村","startTime":"2018-05-31 05:30:00","stopDate":"2018-05-31 19:30:00","orgNo":"1340616","typeCode":"计划停电","poweroffArea":"【全线路停电】停鑫泰棉业购销公司,北大留综合15台区,北大留综合9台区,浇地9台区,北大留综合3台区,浇地15台区,0688878814-蠡县恒丰中药材农民专业合作社-专变-230398598-蠡县恒丰中药材农民专业合作社,0654305966-保定泓瑞农业发展有限公司-专变-183721617-保定泓瑞农业发展有限公司,北大留农排1台区【纯农排变】,北大留综合8台区,北大留农排2台区【纯农排变】,北大留综合2台区,北大留综合11台区变压器,浇地1台区,蠡县永固水泥制品制造有限公司变压器,蠡县中立纺织制造有限公司变压器,仁立毛纺厂,浇地6台区,蠡县育丰园饲养有限公司变压器,鑫泰棉业有限公司,蠡县运达货物运输有限公司变压器,北大留农排3台区【纯农排变】,北大留综合5台区,北大留综合1台区,河北仁立毛纺厂,蠡县北大留立业养殖场,浇地5台区,浇地8台区,浇地2台区,浇地14台区,北大留综合13台区变压器,浇地7台区,北大留综合10台区,北大留综合14台区,北大留织布厂,浇地16台区,北大留综合7台区,北大留学校,北大留综合12台区,北大留综合6台区,浇地10台区,北大留综合4台区,北大留综合16台区","poweroffReason":"【停电原因】由于更换电杆、更换导线导致３５ＫＶ小陈变电站１０ＫＶ北大留５１６线路全线停电【变更送电】无【发布渠道】蠡县电视台（２０１８年０５月２２日至２０１８年０５月３０日２０：００至２２：００之间）屏幕上方滚动","powerTime":"2018-05-31 19:24:51","powerComm":"已送电","subsNo":"","lineNo":"","tgNo":"","tgName":null,"infoStatus":"1","orgName":"国网蠡县供电公司","typeName":null,"infoStatusName":null,"dateDay":null,"orgNos":null,"nowTime":null,"countyName":null,"streetName":null,"villageName":null,"roadName":null,"communityName":null,"tranName":null,"sdLineName":null,"cityCode":"1340616","cityName":"国网蠡县供电公司","provinceCode":null,"stopTime":"2018-05-31 19:30:00","powerType":"全部","powerOffArea":"【全线路停电】停鑫泰棉业购销公司,北大留综合15台区,北大留综合9台区,浇地9台区,北大留综合3台区,浇地15台区,0688878814-蠡县恒丰中药材农民专业合作社-专变-230398598-蠡县恒丰中药材农民专业合作社,0654305966-保定泓瑞农业发展有限公司-专变-183721617-保定泓瑞农业发展有限公司,北大留农排1台区【纯农排变】,北大留综合8台区,北大留农排2台区【纯农排变】,北大留综合2台区,北大留综合11台区变压器,浇地1台区,蠡县永固水泥制品制造有限公司变压器,蠡县中立纺织制造有限公司变压器,仁立毛纺厂,浇地6台区,蠡县育丰园饲养有限公司变压器,鑫泰棉业有限公司,蠡县运达货物运输有限公司变压器,北大留农排3台区【纯农排变】,北大留综合5台区,北大留综合1台区,河北仁立毛纺厂,蠡县北大留立业养殖场,浇地5台区,浇地8台区,浇地2台区,浇地14台区,北大留综合13台区变压器,浇地7台区,北大留综合10台区,北大留综合14台区,北大留织布厂,浇地16台区,北大留综合7台区,北大留学校,北大留综合12台区,北大留综合6台区,浇地10台区,北大留综合4台区,北大留综合16台区","powerOffReason":"【停电原因】由于更换电杆、更换导线导致３５ＫＶ小陈变电站１０ＫＶ北大留５１６线路全线停电【变更送电】无【发布渠道】蠡县电视台（２０１８年０５月２２日至２０１８年０５月３０日２０：００至２２：００之间）屏幕上方滚动","powerOffId":"2018052213000314"},{"poweroffId":2018052213000291,"sgpoweroffId":null,"subsName":"","lineName":"烟煤洞线512","pubTranName":"512隋家庄8配变,512隋家庄2#配变,512西沟配变,华林石棉厂,512下操场台区配变,52下新园配变,512南大楼配变,中国移动通信集团河北有限公司涞源,512清水河配变,中国移动通信集团河北有限公司涞源分公司变压器,512隋家庄5#配变,烟煤洞镇政府【煤改电】,512烟煤洞配变,512弓箭沟门配变,小河站512随家庄富民6#,512隋家庄富民1#配变,鑫达二选厂,512隋家庄9#配变,512后新元配变,512西玉青配变,512张家庄公用配变,变压器,512石夹子台区配变,小河站512上庄子变压器,512隋家庄富民2#配变,512货厂配变,涞源县兴林石材销售处变压器,512天桥村公用配变,512货厂1台区配变,512刘家沟配变,512隋家庄富民5#配变,512宋家沟台区配变,512隋家庄富民4#配变,512隋家庄1配变,小河站512老子沟台区,512弓箭沟变压器,512隋家庄10#配变,512隋家庄配变,鑫达选矿厂,","scope":"【影响街道/乡镇】杨家庄镇【高危重要客户】无【影响客户】二道龙沟村、天桥村、弓箭沟、弓箭沟门、张家庄、石夹子、刘家门、五道庙、东沟、西沟、上碾盘、下碾盘、宋家沟、庞家沟、下操长、刺米花、立碑石沟、隋家庄、潘家铺、城墙、烟煤洞、南大楼、上庄子、乡政府、下新元、黄土梁、货厂、后新元、老子沟、西玉清、清水河、上东玉清、水潮沟、派出所","startTime":"2018-06-02 08:00:00","stopDate":"2018-06-02 13:40:00","orgNo":"1340615","typeCode":"计划停电","poweroffArea":"【全线路停电】停512隋家庄富民5#配变,小河站512老子沟台区,512弓箭沟门配变,小河站512随家庄富民6#,512宋家沟台区配变,512石夹子台区配变,512隋家庄富民4#配变,512后新元配变,512货厂配变,512烟煤洞配变,512隋家庄1配变,中国移动通信集团河北有限公司涞源,涞源县兴林石材销售处变压器,512弓箭沟变压器,512清水河配变,512隋家庄富民1#配变,512天桥村公用配变,华林石棉厂,鑫达二选厂,中国移动通信集团河北有限公司涞源分公司变压器,512下操场台区配变,512货厂1台区配变,512隋家庄8配变,512隋家庄5#配变,512刘家沟配变,512隋家庄2#配变,512隋家庄9#配变,变压器,512西玉青配变,512隋家庄富民2#配变,鑫达选矿厂,512西沟配变,512隋家庄10#配变,512张家庄公用配变,512隋家庄配变,52下新园配变,小河站512上庄子变压器,512南大楼配变,烟煤洞镇政府【煤改电】","poweroffReason":"【停电原因】由于烟煤洞线５１２线路春季检修导致３５ＫＶ小河变电站烟煤洞线５１２线路全线停电【变更送电】因抢修进度加快，原定１８：００送电现计划１３：４０送电。【发布渠道】涞源电视台（２０１８年５月２２日至２０１８年６月０１日）屏幕上方滚动","powerTime":"2018-06-02 13:07:45","powerComm":"已送电","subsNo":"","lineNo":"","tgNo":"","tgName":null,"infoStatus":"1","orgName":"国网涞源县供电公司","typeName":null,"infoStatusName":null,"dateDay":null,"orgNos":null,"nowTime":null,"countyName":null,"streetName":null,"villageName":null,"roadName":null,"communityName":null,"tranName":null,"sdLineName":null,"cityCode":"1340615","cityName":"国网涞源县供电公司","provinceCode":null,"stopTime":"2018-06-02 13:40:00","powerType":"全部","powerOffArea":"【全线路停电】停512隋家庄富民5#配变,小河站512老子沟台区,512弓箭沟门配变,小河站512随家庄富民6#,512宋家沟台区配变,512石夹子台区配变,512隋家庄富民4#配变,512后新元配变,512货厂配变,512烟煤洞配变,512隋家庄1配变,中国移动通信集团河北有限公司涞源,涞源县兴林石材销售处变压器,512弓箭沟变压器,512清水河配变,512隋家庄富民1#配变,512天桥村公用配变,华林石棉厂,鑫达二选厂,中国移动通信集团河北有限公司涞源分公司变压器,512下操场台区配变,512货厂1台区配变,512隋家庄8配变,512隋家庄5#配变,512刘家沟配变,512隋家庄2#配变,512隋家庄9#配变,变压器,512西玉青配变,512隋家庄富民2#配变,鑫达选矿厂,512西沟配变,512隋家庄10#配变,512张家庄公用配变,512隋家庄配变,52下新园配变,小河站512上庄子变压器,512南大楼配变,烟煤洞镇政府【煤改电】","powerOffReason":"【停电原因】由于烟煤洞线５１２线路春季检修导致３５ＫＶ小河变电站烟煤洞线５１２线路全线停电【变更送电】因抢修进度加快，原定１８：００送电现计划１３：４０送电。【发布渠道】涞源电视台（２０１８年５月２２日至２０１８年６月０１日）屏幕上方滚动","powerOffId":"2018052213000291"},{"poweroffId":2018052213000281,"sgpoweroffId":null,"subsName":"","lineName":"毛屯536","pubTranName":"毛屯小学（煤）柱上变压器,毛屯新增4号煤,毛屯村东煤增,毛屯新增5号煤,西秧坊村南4053【纯农排变】,毛屯村南井,西秧坊（村南东箱）,东秧坊南坊井【纯农排变】,毛屯新增1号煤,涿州市连生牧业有限公司,毛屯5148煤增,茂林庄北箱0149,西秧坊村东,兰营村南4054,西秧坊村西南变压器,茂林庄村（村南）,毛屯村西0178煤增,茂林庄村东井0146,涿州市祥诚伟业铸造有限公司,毛屯村西北井,兰营村内0156变压器,茂林庄,毛屯新增7号煤,西秧坊小学（煤）柱上变压器,兰营新增1号煤变【纯农排变】,兰营供电所（西秧坊）,西秧坊西内0138,兰营新增2号煤变【纯农排变】,茂林庄小庄0150,毛屯新增6号煤,茂林庄村内,毛屯新增3号煤,西秧坊村东0168,兰营新增3号煤变【纯农排变】,河北宝昌佳彩印刷有限公司,毛屯村东,西秧坊（村南白坟）,兰营村北地【纯农排变】,毛屯新增2号煤,毛屯村内0162煤增,兰营新增6号煤变【纯农排变】,毛屯西大井北箱,涿州众汇农业科技有限公司2,兰营新增4号煤变【纯农排变】,涿州市秧坊斋农牧业发展有限公司,涿州众汇农业科技有限公司,河北连生农业开发有限公司,涿州市博锋铸造有限公司,东秧坊西内5279【纯农排变】,西秧坊东箱0136,兰营新增7号煤变【纯农排变】,兰营村西井,","scope":"【影响街道/乡镇】百尺竿乡 【高危重要客户】无 【影响客户】兰营村、毛家屯、茂林庄、东秧房、西秧房","startTime":"2018-05-31 04:30:00","stopDate":"2018-05-31 08:30:00","orgNo":"1340626","typeCode":"计划停电","poweroffArea":"【全线路停电】停茂林庄村（村南）,毛屯村南井,涿州众汇农业科技有限公司2,毛屯新增3号煤,毛屯小学（煤）柱上变压器,西秧坊村东0168,茂林庄村东井0146,西秧坊村东,河北宝昌佳彩印刷有限公司,毛屯村西北井,兰营供电所（西秧坊）,兰营村北地【纯农排变】,毛屯新增2号煤,西秧坊（村南东箱）,兰营新增4号煤变【纯农排变】,毛屯新增4号煤,茂林庄北箱0149,涿州市秧坊斋农牧业发展有限公司,兰营村南4054,河北连生农业开发有限公司,毛屯新增6号煤,茂林庄村内,西秧坊小学（煤）柱上变压器,涿州众汇农业科技有限公司,兰营新增1号煤变【纯农排变】,毛屯村内0162煤增,西秧坊村西南变压器,毛屯村东煤增,西秧坊村南4053【纯农排变】,西秧坊西内0138,东秧坊南坊井【纯农排变】,东秧坊西内5279【纯农排变】,毛屯新增1号煤,毛屯新增7号煤,兰营新增2号煤变【纯农排变】,毛屯新增5号煤,兰营村内0156变压器,西秧坊东箱0136,兰营新增7号煤变【纯农排变】,茂林庄小庄0150,兰营村西井,兰营新增6号煤变【纯农排变】,涿州市连生牧业有限公司,西秧坊（村南白坟）,涿州市祥诚伟业铸造有限公司,茂林庄,毛屯西大井北箱,毛屯村东,毛屯5148煤增,涿州市博锋铸造有限公司,毛屯村西0178煤增,兰营新增3号煤变【纯农排变】","poweroffReason":"【停电原因】由于涿州站１２０间隔Ａ、Ｃ相ＣＴ开关侧接头过热消缺导致１１０ＫＶ宋营变电站毛屯５３６线路全线停电 【变更送电】无 【发布渠道】涿州电视台（０５月２２日至０５月３０日２１：００播放２次）屏幕上方滚动","powerTime":"2018-05-31 08:16:18","powerComm":"恢复送电","subsNo":"","lineNo":"","tgNo":"","tgName":null,"infoStatus":"1","orgName":"国网涿州市供电公司","typeName":null,"infoStatusName":null,"dateDay":null,"orgNos":null,"nowTime":null,"countyName":null,"streetName":null,"villageName":null,"roadName":null,"communityName":null,"tranName":null,"sdLineName":null,"cityCode":"1340626","cityName":"国网涿州市供电公司","provinceCode":null,"stopTime":"2018-05-31 08:30:00","powerType":"全部","powerOffArea":"【全线路停电】停茂林庄村（村南）,毛屯村南井,涿州众汇农业科技有限公司2,毛屯新增3号煤,毛屯小学（煤）柱上变压器,西秧坊村东0168,茂林庄村东井0146,西秧坊村东,河北宝昌佳彩印刷有限公司,毛屯村西北井,兰营供电所（西秧坊）,兰营村北地【纯农排变】,毛屯新增2号煤,西秧坊（村南东箱）,兰营新增4号煤变【纯农排变】,毛屯新增4号煤,茂林庄北箱0149,涿州市秧坊斋农牧业发展有限公司,兰营村南4054,河北连生农业开发有限公司,毛屯新增6号煤,茂林庄村内,西秧坊小学（煤）柱上变压器,涿州众汇农业科技有限公司,兰营新增1号煤变【纯农排变】,毛屯村内0162煤增,西秧坊村西南变压器,毛屯村东煤增,西秧坊村南4053【纯农排变】,西秧坊西内0138,东秧坊南坊井【纯农排变】,东秧坊西内5279【纯农排变】,毛屯新增1号煤,毛屯新增7号煤,兰营新增2号煤变【纯农排变】,毛屯新增5号煤,兰营村内0156变压器,西秧坊东箱0136,兰营新增7号煤变【纯农排变】,茂林庄小庄0150,兰营村西井,兰营新增6号煤变【纯农排变】,涿州市连生牧业有限公司,西秧坊（村南白坟）,涿州市祥诚伟业铸造有限公司,茂林庄,毛屯西大井北箱,毛屯村东,毛屯5148煤增,涿州市博锋铸造有限公司,毛屯村西0178煤增,兰营新增3号煤变【纯农排变】","powerOffReason":"【停电原因】由于涿州站１２０间隔Ａ、Ｃ相ＣＴ开关侧接头过热消缺导致１１０ＫＶ宋营变电站毛屯５３６线路全线停电 【变更送电】无 【发布渠道】涿州电视台（０５月２２日至０５月３０日２１：００播放２次）屏幕上方滚动","powerOffId":"2018052213000281"}],"pageModel":{"pageNow":1082,"totalCount":10973,"totalPage":1098,"tableRows":0,"pageCount":10,"beginCount":10810},"isExperi":"1"}