{"message":"","today":"2020-06-15","seleList":[{"poweroffId":2018052213000278,"sgpoweroffId":null,"subsName":"","lineName":"10KV石佛533","pubTranName":"小洛村2324,东城坊供电所(西里池村西北),东城坊供电所小洛村西,里池店2314,东城坊供电所东里池村西,东城坊供电所大洛大队院内,西沙沟南3152,涿州市鑫生保温建材厂,大洛西4275,石佛村北,东城坊供电所大洛幼儿园（煤）柱上变压器,石佛南(海开),石佛东北,边各庄供电所（大洛）,0387629157-涿州市多彩喷塑厂-专变-47879662-多彩喷塑,西里池4448,涿州市多彩喷塑厂,涿州市汇百川机械厂,东里池2317,边各庄供电所里池店,石佛西2368,石佛东2309,东城坊西里池村西【纯农排变】,西里池村北,宋营村东（东城坊供电所）柱上变压器,东城坊供电所石佛幼儿园（煤）柱上变压器,里池店东新,东城坊西沙沟村南,0657625351-涿州市平盛模具厂-专变-192858959-涿州市平盛模具厂,大洛井4663,边各庄供电所(石佛),林场,涿州市隽诚化工有限公司,东城坊供电所西里池小学A（煤）柱上变压器,小洛庄面粉厂,西里池东2311,边各庄彩电所(石佛),西里池村（海开）,东里池村内西,东城坊镇余香酒家,西沙沟村内2896,东里池村南2316,东城坊供电所西里池小学B（煤）柱上变压器,西沙沟东2501,西沙沟内南,东城坊西沙沟村北,石佛西北,涿州市白庆苗木种植园,东城坊供电所(东里池村北),小洛2419,涿州市三国文化发展有限公司,东城坊西里池村南,大洛村2515,西沙沟西2312,西里池村东南【纯农排变】,涿州市鑫升机械加工厂,涿州市聚鑫楼板厂,东城坊供电所里池店村西北,西里池2312,0668009807-涿州市博纳高品科技有限公司-专变-208452910-涿州市博纳高品科技有限公司,","scope":"【影响街道/乡镇】东城坊镇 【高危重要客户】无 【影响客户】西沙沟、西里池、石佛、东里池、里池店、小洛村、大洛村","startTime":"2018-05-31 04:30:00","stopDate":"2018-05-31 08:30:00","orgNo":"1340626","typeCode":"计划停电","poweroffArea":"【全线路停电】停东城坊镇余香酒家,边各庄彩电所(石佛),里池店2314,小洛庄面粉厂,石佛东北,西里池村（海开）,东里池村内西,石佛西北,西沙沟南3152,涿州市聚鑫楼板厂,涿州市白庆苗木种植园,东城坊供电所里池店村西北,西里池2312,涿州市汇百川机械厂,东城坊西里池村西【纯农排变】,林场,西沙沟村内2896,大洛西4275,宋营村东（东城坊供电所）柱上变压器,0387629157-涿州市多彩喷塑厂-专变-47879662-多彩喷塑,涿州市隽诚化工有限公司,西里池东2311,东城坊供电所(东里池村北),东城坊供电所石佛幼儿园（煤）柱上变压器,东城坊西沙沟村南,西里池4448,大洛村2515,西沙沟西2312,西里池村北,西沙沟东2501,东城坊供电所东里池村西,边各庄供电所(石佛),大洛井4663,东城坊供电所(西里池村西北),石佛西2368,东城坊供电所小洛村西,石佛东2309,东城坊供电所大洛大队院内,小洛2419,石佛南(海开),里池店东新,涿州市三国文化发展有限公司,0668009807-涿州市博纳高品科技有限公司-专变-208452910-涿州市博纳高品科技有限公司,边各庄供电所（大洛）,东里池村南2316,边各庄供电所里池店,石佛村北,西沙沟内南,东城坊西里池村南,0657625351-涿州市平盛模具厂-专变-192858959-涿州市平盛模具厂,西里池村东南【纯农排变】,东城坊供电所大洛幼儿园（煤）柱上变压器,东里池2317,东城坊西沙沟村北,小洛村2324,东城坊供电所西里池小学B（煤）柱上变压器,涿州市多彩喷塑厂,涿州市鑫升机械加工厂,涿州市鑫生保温建材厂,东城坊供电所西里池小学A（煤）柱上变压器","poweroffReason":"【停电原因】由于涿州站１２０间隔Ａ、Ｃ相ＣＴ开关侧接头过热消缺导致１１０ＫＶ宋营变电站１０ＫＶ石佛５３３线路全线停电 【变更送电】无 【发布渠道】涿州电视台（０５月２２日至０５月３０日２１：００播放２次）屏幕上方滚动","powerTime":"2018-05-31 08:16:00","powerComm":"恢复送电","subsNo":"","lineNo":"","tgNo":"","tgName":null,"infoStatus":"1","orgName":"国网涿州市供电公司","typeName":null,"infoStatusName":null,"dateDay":null,"orgNos":null,"nowTime":null,"countyName":null,"streetName":null,"villageName":null,"roadName":null,"communityName":null,"tranName":null,"sdLineName":null,"cityCode":"1340626","cityName":"国网涿州市供电公司","provinceCode":null,"stopTime":"2018-05-31 08:30:00","powerType":"全部","powerOffArea":"【全线路停电】停东城坊镇余香酒家,边各庄彩电所(石佛),里池店2314,小洛庄面粉厂,石佛东北,西里池村（海开）,东里池村内西,石佛西北,西沙沟南3152,涿州市聚鑫楼板厂,涿州市白庆苗木种植园,东城坊供电所里池店村西北,西里池2312,涿州市汇百川机械厂,东城坊西里池村西【纯农排变】,林场,西沙沟村内2896,大洛西4275,宋营村东（东城坊供电所）柱上变压器,0387629157-涿州市多彩喷塑厂-专变-47879662-多彩喷塑,涿州市隽诚化工有限公司,西里池东2311,东城坊供电所(东里池村北),东城坊供电所石佛幼儿园（煤）柱上变压器,东城坊西沙沟村南,西里池4448,大洛村2515,西沙沟西2312,西里池村北,西沙沟东2501,东城坊供电所东里池村西,边各庄供电所(石佛),大洛井4663,东城坊供电所(西里池村西北),石佛西2368,东城坊供电所小洛村西,石佛东2309,东城坊供电所大洛大队院内,小洛2419,石佛南(海开),里池店东新,涿州市三国文化发展有限公司,0668009807-涿州市博纳高品科技有限公司-专变-208452910-涿州市博纳高品科技有限公司,边各庄供电所（大洛）,东里池村南2316,边各庄供电所里池店,石佛村北,西沙沟内南,东城坊西里池村南,0657625351-涿州市平盛模具厂-专变-192858959-涿州市平盛模具厂,西里池村东南【纯农排变】,东城坊供电所大洛幼儿园（煤）柱上变压器,东里池2317,东城坊西沙沟村北,小洛村2324,东城坊供电所西里池小学B（煤）柱上变压器,涿州市多彩喷塑厂,涿州市鑫升机械加工厂,涿州市鑫生保温建材厂,东城坊供电所西里池小学A（煤）柱上变压器","powerOffReason":"【停电原因】由于涿州站１２０间隔Ａ、Ｃ相ＣＴ开关侧接头过热消缺导致１１０ＫＶ宋营变电站１０ＫＶ石佛５３３线路全线停电 【变更送电】无 【发布渠道】涿州电视台（０５月２２日至０５月３０日２１：００播放２次）屏幕上方滚动","powerOffId":"2018052213000278"},{"poweroffId":2018052213000277,"sgpoweroffId":null,"subsName":"","lineName":"部队线516","pubTranName":"涞源县森漫绿化有限公司台区,艾河3,艾河村东,刘家咀村光伏变压器【光伏】,红泉钙业有限公司(水),北石佛4,北石佛6,艾河4,龙河水,刘家嘴2【三批中心村】,西道沟机井1,刘家嘴4【三批中心村】,艾河村西,涞源县沃盛硅肥厂变压器,0683193802-涞源县富民土地开发有限责任公司-专变-221831987-涞源县富民土地开发有限责任公司变压器,河北省涞源县北石佛中学变压器,变压器,涞源县博韬旅游开发有限公司变压器,刘家嘴1【三批中心村】,涞源县北石佛乡红泉村村民委员会变压器,西道沟机井2,涞源县正飞土地整理有限公司变压器3,北石佛村5,红泉钙业有限公司,刘家嘴3【三批中心村】,红泉村东,涞源县正飞土地整理有限公司变压器1,涞源县红泉钙业有限公司变压器,66274部队,涞源县北石佛乡艾河村村民委员会变压器,白绸2,红泉村光伏变压器【光伏】,涞源县聚能农牧专业合作社变压器,涞源县双修中药材种植农民专业合作社变压器,涞源站516驿马岭村,白绸1,涞源县正飞土地整理有限公司变压器2,西道沟3,北京铁路局北京供电段变压器,涞源县北石佛乡西道沟村村民委员会变压器,北石佛4+1【三批中心村】,白绸5,河北省高速公路荣乌管理处变压器,河北尚林农业科技有限公司变压器,涞源县北石佛乡中心小学变压器,涞源县隆威土地整理有限公司变压器,白绸4,涞源县北石佛乡中心小学红泉小学变压器,中国移动通信集团河北有限公司涞源分公司变压器,红泉村西,白绸3,","scope":"【影响街道/乡镇】北石佛乡【高危重要客户】无【影响客户】白绸、刘家嘴、艾河、红泉、北石佛、龙河水、艾河部队、北石佛小学、红泉小学、荣乌高速管理处","startTime":"2018-05-30 06:00:00","stopDate":"2018-05-30 17:35:00","orgNo":"1340615","typeCode":"临时停电","poweroffArea":"【全线路停电】停涞源县沃盛硅肥厂变压器,变压器,河北省涞源县北石佛中学变压器,北京铁路局北京供电段变压器,红泉村西,艾河村西,红泉村光伏变压器【光伏】,涞源县博韬旅游开发有限公司变压器,涞源县隆威土地整理有限公司变压器,涞源县聚能农牧专业合作社变压器,艾河4,涞源县正飞土地整理有限公司变压器2,西道沟3,河北省高速公路荣乌管理处变压器,西道沟机井1,涞源县红泉钙业有限公司变压器,刘家嘴4【三批中心村】,66274部队,龙河水,白绸5,刘家嘴2【三批中心村】,涞源县北石佛乡中心小学变压器,涞源县森漫绿化有限公司台区,0683193802-涞源县富民土地开发有限责任公司-专变-221831987-涞源县富民土地开发有限责任公司变压器,河北尚林农业科技有限公司变压器,艾河3,涞源县正飞土地整理有限公司变压器3,艾河村东,北石佛村5,涞源县北石佛乡艾河村村民委员会变压器,红泉钙业有限公司,涞源县双修中药材种植农民专业合作社变压器,白绸2,涞源站516驿马岭村,刘家嘴3【三批中心村】,刘家咀村光伏变压器【光伏】,红泉村东,刘家嘴1【三批中心村】,白绸3,涞源县北石佛乡红泉村村民委员会变压器,涞源县正飞土地整理有限公司变压器1,红泉钙业有限公司(水),白绸4,西道沟机井2,涞源县北石佛乡中心小学红泉小学变压器,北石佛4,中国移动通信集团河北有限公司涞源分公司变压器,北石佛6,白绸1,涞源县北石佛乡西道沟村村民委员会变压器,北石佛4+1【三批中心村】","poweroffReason":"【停电原因】由于部队线５１６线路主干００１号杆更换隔离开关、引线导致１１０ＫＶ涞源变电站部队线５１６线路全线停电【变更送电】因工作量大,送电时间由１７：００变更为１７：３５【发布渠道】涞源电视台（２０１８年５月２２日至２０１８年５月２９日）屏幕上方滚动","powerTime":"2018-05-30 17:02:17","powerComm":"已送电","subsNo":"","lineNo":"","tgNo":"","tgName":null,"infoStatus":"1","orgName":"国网涞源县供电公司","typeName":null,"infoStatusName":null,"dateDay":null,"orgNos":null,"nowTime":null,"countyName":null,"streetName":null,"villageName":null,"roadName":null,"communityName":null,"tranName":null,"sdLineName":null,"cityCode":"1340615","cityName":"国网涞源县供电公司","provinceCode":null,"stopTime":"2018-05-30 17:35:00","powerType":"全部","powerOffArea":"【全线路停电】停涞源县沃盛硅肥厂变压器,变压器,河北省涞源县北石佛中学变压器,北京铁路局北京供电段变压器,红泉村西,艾河村西,红泉村光伏变压器【光伏】,涞源县博韬旅游开发有限公司变压器,涞源县隆威土地整理有限公司变压器,涞源县聚能农牧专业合作社变压器,艾河4,涞源县正飞土地整理有限公司变压器2,西道沟3,河北省高速公路荣乌管理处变压器,西道沟机井1,涞源县红泉钙业有限公司变压器,刘家嘴4【三批中心村】,66274部队,龙河水,白绸5,刘家嘴2【三批中心村】,涞源县北石佛乡中心小学变压器,涞源县森漫绿化有限公司台区,0683193802-涞源县富民土地开发有限责任公司-专变-221831987-涞源县富民土地开发有限责任公司变压器,河北尚林农业科技有限公司变压器,艾河3,涞源县正飞土地整理有限公司变压器3,艾河村东,北石佛村5,涞源县北石佛乡艾河村村民委员会变压器,红泉钙业有限公司,涞源县双修中药材种植农民专业合作社变压器,白绸2,涞源站516驿马岭村,刘家嘴3【三批中心村】,刘家咀村光伏变压器【光伏】,红泉村东,刘家嘴1【三批中心村】,白绸3,涞源县北石佛乡红泉村村民委员会变压器,涞源县正飞土地整理有限公司变压器1,红泉钙业有限公司(水),白绸4,西道沟机井2,涞源县北石佛乡中心小学红泉小学变压器,北石佛4,中国移动通信集团河北有限公司涞源分公司变压器,北石佛6,白绸1,涞源县北石佛乡西道沟村村民委员会变压器,北石佛4+1【三批中心村】","powerOffReason":"【停电原因】由于部队线５１６线路主干００１号杆更换隔离开关、引线导致１１０ＫＶ涞源变电站部队线５１６线路全线停电【变更送电】因工作量大,送电时间由１７：００变更为１７：３５【发布渠道】涞源电视台（２０１８年５月２２日至２０１８年５月２９日）屏幕上方滚动","powerOffId":"2018052213000277"},{"poweroffId":2018052213000276,"sgpoweroffId":null,"subsName":"","lineName":"10KV城西农业519","pubTranName":"杨庄村西南,","scope":"【影响街道/乡镇】东城坊镇 【高危重要客户】无 【影响客户】杨庄村","startTime":"2018-05-31 07:00:00","stopDate":"2018-05-31 18:30:00","orgNo":"1340626","typeCode":"计划停电","poweroffArea":"【单台区停电】停杨庄村西南","poweroffReason":"【停电原因】由于煤改电工程导致１１０ＫＶ涿县变电站１０ＫＶ城西农业５１９线路杨庄村西南公变台区停电 【变更送电】无 【发布渠道】涿州电视台（０５月２２日至０５月３０日２１：００播放２次）屏幕上方滚动","powerTime":"2018-05-31 18:15:32","powerComm":"已送电","subsNo":"","lineNo":"","tgNo":"","tgName":null,"infoStatus":"1","orgName":"国网涿州市供电公司","typeName":null,"infoStatusName":null,"dateDay":null,"orgNos":null,"nowTime":null,"countyName":null,"streetName":null,"villageName":null,"roadName":null,"communityName":null,"tranName":null,"sdLineName":null,"cityCode":"1340626","cityName":"国网涿州市供电公司","provinceCode":null,"stopTime":"2018-05-31 18:30:00","powerType":"全部","powerOffArea":"【单台区停电】停杨庄村西南","powerOffReason":"【停电原因】由于煤改电工程导致１１０ＫＶ涿县变电站１０ＫＶ城西农业５１９线路杨庄村西南公变台区停电 【变更送电】无 【发布渠道】涿州电视台（０５月２２日至０５月３０日２１：００播放２次）屏幕上方滚动","powerOffId":"2018052213000276"},{"poweroffId":2018052213000275,"sgpoweroffId":null,"subsName":"","lineName":"10KV宋营544","pubTranName":"永兴沙石厂,宋营村南,宋营西大井,宋营村西0235变压器,广源石料厂,涿州市鸿基铁粉加工厂,宋营西南井,宋营东北井,宋营村东,涿州市东城坊镇宋家营村委会,东城坊西北井,宋营南口井（村南）,涿州市华源建筑安装工程有限公司,东城坊村北井【纯农排变】,兰营九队,宋营村东南变压器,东城坊宋营道井,华源环保地面装饰砖厂,宋营西北井,安辉玻璃材料厂,","scope":"【影响街道/乡镇】百尺竿乡 【高危重要客户】无 【影响客户】宋营村、兰营九队、京都物业","startTime":"2018-05-31 04:30:00","stopDate":"2018-05-31 08:30:00","orgNo":"1340626","typeCode":"计划停电","poweroffArea":"【全线路停电】停东城坊宋营道井,广源石料厂,涿州市鸿基铁粉加工厂,东城坊西北井,安辉玻璃材料厂,宋营村南,宋营西南井,涿州市东城坊镇宋家营村委会,华源环保地面装饰砖厂,涿州市华源建筑安装工程有限公司,宋营西大井,东城坊村北井【纯农排变】,永兴沙石厂,宋营南口井（村南）,宋营东北井,宋营西北井,兰营九队,宋营村东南变压器,宋营村西0235变压器,宋营村东","poweroffReason":"【停电原因】由于涿州站１２０间隔Ａ、Ｃ相ＣＴ开关侧接头过热消缺导致１１０ＫＶ宋营变电站１０ＫＶ宋营５４４线路全线停电 【变更送电】无 【发布渠道】涿州电视台（０５月２２日至０５月３０日２１：００播放２次）屏幕上方滚动","powerTime":"2018-05-31 08:16:36","powerComm":"恢复送电","subsNo":"","lineNo":"","tgNo":"","tgName":null,"infoStatus":"1","orgName":"国网涿州市供电公司","typeName":null,"infoStatusName":null,"dateDay":null,"orgNos":null,"nowTime":null,"countyName":null,"streetName":null,"villageName":null,"roadName":null,"communityName":null,"tranName":null,"sdLineName":null,"cityCode":"1340626","cityName":"国网涿州市供电公司","provinceCode":null,"stopTime":"2018-05-31 08:30:00","powerType":"全部","powerOffArea":"【全线路停电】停东城坊宋营道井,广源石料厂,涿州市鸿基铁粉加工厂,东城坊西北井,安辉玻璃材料厂,宋营村南,宋营西南井,涿州市东城坊镇宋家营村委会,华源环保地面装饰砖厂,涿州市华源建筑安装工程有限公司,宋营西大井,东城坊村北井【纯农排变】,永兴沙石厂,宋营南口井（村南）,宋营东北井,宋营西北井,兰营九队,宋营村东南变压器,宋营村西0235变压器,宋营村东","powerOffReason":"【停电原因】由于涿州站１２０间隔Ａ、Ｃ相ＣＴ开关侧接头过热消缺导致１１０ＫＶ宋营变电站１０ＫＶ宋营５４４线路全线停电 【变更送电】无 【发布渠道】涿州电视台（０５月２２日至０５月３０日２１：００播放２次）屏幕上方滚动","powerOffId":"2018052213000275"},{"poweroffId":2018052213000274,"sgpoweroffId":null,"subsName":"","lineName":"10KV南岐515","pubTranName":"岐沟村新变压器,","scope":"【影响街道/乡镇】松林店镇 【高危重要客户】无 【影响客户】岐沟村","startTime":"2018-05-31 07:30:00","stopDate":"2018-05-31 17:30:00","orgNo":"1340626","typeCode":"计划停电","poweroffArea":"【单台区停电】停岐沟村新变压器","poweroffReason":"【停电原因】由于煤改电工程导致３５ＫＶ南马变电站１０ＫＶ南岐５１５线路岐沟村新公变台区停电 【变更送电】无 【发布渠道】涿州电视台（０５月２２日至０５月３０日２１：００播放２次）屏幕上方滚动","powerTime":"2018-05-31 17:10:13","powerComm":"恢复送电","subsNo":"","lineNo":"","tgNo":"","tgName":null,"infoStatus":"1","orgName":"国网涿州市供电公司","typeName":null,"infoStatusName":null,"dateDay":null,"orgNos":null,"nowTime":null,"countyName":null,"streetName":null,"villageName":null,"roadName":null,"communityName":null,"tranName":null,"sdLineName":null,"cityCode":"1340626","cityName":"国网涿州市供电公司","provinceCode":null,"stopTime":"2018-05-31 17:30:00","powerType":"全部","powerOffArea":"【单台区停电】停岐沟村新变压器","powerOffReason":"【停电原因】由于煤改电工程导致３５ＫＶ南马变电站１０ＫＶ南岐５１５线路岐沟村新公变台区停电 【变更送电】无 【发布渠道】涿州电视台（０５月２２日至０５月３０日２１：００播放２次）屏幕上方滚动","powerOffId":"2018052213000274"},{"poweroffId":2018052213000271,"sgpoweroffId":null,"subsName":"","lineName":"二道河线512","pubTranName":"赛奥工贸有限公司,涞源县涞源镇三甲村中心小学二道河小学变压器,变压器,浮图峪种殖基地,0469327478-涞源县永达矿业有限公司-专变-46776491-永达矿业有限公司,中国联合网络通信有限公司涞源县分公司变压器,河北建设集团有限公司张石高速涞源至涞水段第LJM-N9项目部变压器1,512村西配变,国网河北省电力公司涞源县供电分公司(杨家庄所)变压器,涞源县磊鑫碎石厂变压器,李春雷,512孤山子配变,西二道河水电站变压器,涞源县永达矿业有限公司,涞源县永达矿业有限公司变压器,涞源县强茂选铜厂变压器,涞源县人民法院变压器,涞源县市场监督管理局变压器,杨家庄供电所,512二道河村配变,浮图峪种植基地,北京铁路局北京供电段变压器,赛奥水泵,河北建设集团有限公司张石高速涞源至涞水段第LJM-N9项目部,河北建设集团有限公司张石高速涞源至涞水段第LJM-N9项目部变压器,","scope":"【影响街道/乡镇】城关镇【高危重要客户】无【影响客户】二道河村、孤山子","startTime":"2018-05-29 06:00:00","stopDate":"2018-05-29 15:00:00","orgNo":"1340615","typeCode":"临时停电","poweroffArea":"【全线路停电】停涞源县市场监督管理局变压器,赛奥水泵,李春雷,浮图峪种植基地,512孤山子配变,杨家庄供电所,西二道河水电站变压器,涞源县永达矿业有限公司,国网河北省电力公司涞源县供电分公司(杨家庄所)变压器,北京铁路局北京供电段变压器,涞源县永达矿业有限公司变压器,涞源县磊鑫碎石厂变压器,浮图峪种殖基地,涞源县强茂选铜厂变压器,赛奥工贸有限公司,变压器,涞源县涞源镇三甲村中心小学二道河小学变压器,0469327478-涞源县永达矿业有限公司-专变-46776491-永达矿业有限公司,河北建设集团有限公司张石高速涞源至涞水段第LJM-N9项目部变压器1,中国联合网络通信有限公司涞源县分公司变压器,河北建设集团有限公司张石高速涞源至涞水段第LJM-N9项目部,涞源县人民法院变压器,河北建设集团有限公司张石高速涞源至涞水段第LJM-N9项目部变压器,512二道河村配变,512村西配变","poweroffReason":"【停电原因】由于更换真空断路器、加装避雷器导致３５ＫＶ马圈变电站二道河线５１２线路全线停电【变更送电】因工作进度加快，原定１７：００送电现计划１５：００送电【发布渠道】涞源电视台（２０１８年５月２２日至２０１８年５月２８日）屏幕上方滚动","powerTime":"2018-05-29 14:22:16","powerComm":"已送电","subsNo":"","lineNo":"","tgNo":"","tgName":null,"infoStatus":"1","orgName":"国网涞源县供电公司","typeName":null,"infoStatusName":null,"dateDay":null,"orgNos":null,"nowTime":null,"countyName":null,"streetName":null,"villageName":null,"roadName":null,"communityName":null,"tranName":null,"sdLineName":null,"cityCode":"1340615","cityName":"国网涞源县供电公司","provinceCode":null,"stopTime":"2018-05-29 15:00:00","powerType":"全部","powerOffArea":"【全线路停电】停涞源县市场监督管理局变压器,赛奥水泵,李春雷,浮图峪种植基地,512孤山子配变,杨家庄供电所,西二道河水电站变压器,涞源县永达矿业有限公司,国网河北省电力公司涞源县供电分公司(杨家庄所)变压器,北京铁路局北京供电段变压器,涞源县永达矿业有限公司变压器,涞源县磊鑫碎石厂变压器,浮图峪种殖基地,涞源县强茂选铜厂变压器,赛奥工贸有限公司,变压器,涞源县涞源镇三甲村中心小学二道河小学变压器,0469327478-涞源县永达矿业有限公司-专变-46776491-永达矿业有限公司,河北建设集团有限公司张石高速涞源至涞水段第LJM-N9项目部变压器1,中国联合网络通信有限公司涞源县分公司变压器,河北建设集团有限公司张石高速涞源至涞水段第LJM-N9项目部,涞源县人民法院变压器,河北建设集团有限公司张石高速涞源至涞水段第LJM-N9项目部变压器,512二道河村配变,512村西配变","powerOffReason":"【停电原因】由于更换真空断路器、加装避雷器导致３５ＫＶ马圈变电站二道河线５１２线路全线停电【变更送电】因工作进度加快，原定１７：００送电现计划１５：００送电【发布渠道】涞源电视台（２０１８年５月２２日至２０１８年５月２８日）屏幕上方滚动","powerOffId":"2018052213000271"},{"poweroffId":2018052213000269,"sgpoweroffId":null,"subsName":"","lineName":"10KV东陶516","pubTranName":"东城坊村西4399,","scope":"【影响街道/乡镇】东城坊镇 【高危重要客户】无 【影响客户】东城坊村","startTime":"2018-05-31 07:30:00","stopDate":"2018-05-31 19:00:00","orgNo":"1340626","typeCode":"计划停电","poweroffArea":"【单台区停电】停东城坊村西4399","poweroffReason":"【停电原因】由于煤改电工程导致３５ＫＶ东城坊变电站１０ＫＶ东陶５１６线路东城坊村西４３９９公变台区停电 【变更送电】无 【发布渠道】涿州电视台（０５月２２日至０５月３０日２１：００播放２次）屏幕上方滚动","powerTime":"2018-05-31 18:43:46","powerComm":"已送电","subsNo":"","lineNo":"","tgNo":"","tgName":null,"infoStatus":"1","orgName":"国网涿州市供电公司","typeName":null,"infoStatusName":null,"dateDay":null,"orgNos":null,"nowTime":null,"countyName":null,"streetName":null,"villageName":null,"roadName":null,"communityName":null,"tranName":null,"sdLineName":null,"cityCode":"1340626","cityName":"国网涿州市供电公司","provinceCode":null,"stopTime":"2018-05-31 19:00:00","powerType":"全部","powerOffArea":"【单台区停电】停东城坊村西4399","powerOffReason":"【停电原因】由于煤改电工程导致３５ＫＶ东城坊变电站１０ＫＶ东陶５１６线路东城坊村西４３９９公变台区停电 【变更送电】无 【发布渠道】涿州电视台（０５月２２日至０５月３０日２１：００播放２次）屏幕上方滚动","powerOffId":"2018052213000269"},{"poweroffId":2018052213000265,"sgpoweroffId":null,"subsName":"","lineName":"10KV茂林庄531","pubTranName":"涿州市水利局百竿镇南鲁坡村,百尺杆水站变压器（煤）,利民面粉厂,北鲁坡内4398,南鲁坡新增5号变煤,张庄村北煤,涿州市澍达建材经销处,北鲁坡村东【纯农排变】,北鲁坡村南,大泉庄杨家铺,涿州市宏力水泥有限公司,北鲁坡村西北【纯农排变】,大全庄西北2771,河北涿州农村商业银行股份有限公司兰家营支行,百尺竿派出所（煤）柱上变压器,北鲁坡村西井【纯农排变】,张庄北煤二号,北鲁坡村东（1）,北鲁坡内0153,北鲁坡村面粉厂,南鲁坡新增二号变煤,大泉庄村西地【纯农排变】,大泉庄南内,观营（荷花路）,徐书石粉厂,兰营新增5号煤变【纯农排变】,宏利水泥有限公司2,010002796|白云涂料厂大全庄村西2,百尺竿大乡,北鲁坡村(南）,大泉庄南地5028【纯农排变】,张庄村5199,涿州市世纪星商贸有限公司2,东秧坊村北【纯农排变】,涿州市振松石粉加工厂,东秧坊面粉厂,涿州市鑫海建材厂6,北鲁坡井5122【纯农排变】,大泉庄水泥厂,南鲁坡北井4581【纯农排变】,涿州市鑫海建材厂2,张庄内0159,大全庄2865,冯村西地2778,张庄村北5198【纯农排变】,兰营供电所,豆庄5003【纯农排变】,东秧坊村机井【纯农排变】,涿州市鑫海建材厂3,南鲁坡村西井【纯农排变】,涿州市泰吉模具厂,涿州市彩云涂料门市部,张庄井5121,涿州市金亮天鸿铸造有限公司,百尺竿镇政府煤箱式变电站母线间隔配电变压器【纯农排变】,东秧坊南3974,涿州市鑫海建材厂5,涿州市世纪星商贸有限公司1,南鲁坡村北煤增,南鲁坡东3516,南鲁坡村内0157变压器,百尺竿北鲁坡【纯农排变】,东秧坊村内0143,安顺达装饰材料厂,河北建设集团靖源混凝土有限公司,西秧坊饭店,大全庄东内2770,南鲁坡南井4579【纯农排变】,大泉庄村5294,涿州市人顺废旧物资回收站,涿州市鼎诚废旧物品回收站,0387568360-张庄村-专变-45361038-张庄村西,冯村西地西2868,冯村南内,小邵村西内,南鲁坡新增一号变煤,百尺竿供电所东秧坊村东,涿州市鑫海建材厂4,宏利水泥有限公司1,大泉庄北地5027【纯农排变】,兰营村东,涿州市鑫海建材厂1,","scope":"【影响街道/乡镇】百尺竿乡荷花路 【高危重要客户】无 【影响客户】张庄村、百尺竿大乡、西秧坊饭店、南鲁坡、北鲁坡、大泉庄","startTime":"2018-05-31 04:30:00","stopDate":"2018-05-31 08:30:00","orgNo":"1340626","typeCode":"计划停电","poweroffArea":"【全线路停电】停北鲁坡村东（1）,大全庄2865,北鲁坡村面粉厂,涿州市彩云涂料门市部,张庄村5199,涿州市鼎诚废旧物品回收站,张庄井5121,0387568360-张庄村-专变-45361038-张庄村西,涿州市金亮天鸿铸造有限公司,南鲁坡东3516,010002796|白云涂料厂大全庄村西2,大泉庄杨家铺,北鲁坡内0153,北鲁坡村西北【纯农排变】,百尺竿派出所（煤）柱上变压器,兰营村东,东秧坊村内0143,南鲁坡新增一号变煤,涿州市世纪星商贸有限公司2,安顺达装饰材料厂,百尺竿镇政府煤箱式变电站母线间隔配电变压器【纯农排变】,百尺竿供电所东秧坊村东,河北建设集团靖源混凝土有限公司,西秧坊饭店,涿州市鑫海建材厂4,南鲁坡新增5号变煤,大全庄东内2770,兰营新增5号煤变【纯农排变】,东秧坊南3974,大全庄西北2771,大泉庄水泥厂,涿州市鑫海建材厂5,宏利水泥有限公司2,南鲁坡南井4579【纯农排变】,涿州市世纪星商贸有限公司1,河北涿州农村商业银行股份有限公司兰家营支行,冯村西地2778,张庄村北5198【纯农排变】,冯村南内,涿州市鑫海建材厂3,小邵村西内,北鲁坡村西井【纯农排变】,北鲁坡村东【纯农排变】,兰营供电所,北鲁坡内4398,豆庄5003【纯农排变】,徐书石粉厂,东秧坊村北【纯农排变】,南鲁坡村西井【纯农排变】,利民面粉厂,涿州市泰吉模具厂,大泉庄村西地【纯农排变】,张庄北煤二号,南鲁坡新增二号变煤,冯村西地西2868,涿州市鑫海建材厂2,涿州市宏力水泥有限公司,张庄内0159,南鲁坡村北煤增,涿州市澍达建材经销处,大泉庄南内,北鲁坡村南,涿州市水利局百竿镇南鲁坡村,宏利水泥有限公司1,百尺竿大乡,南鲁坡村内0157变压器,涿州市鑫海建材厂1,涿州市振松石粉加工厂,观营（荷花路）,百尺杆水站变压器（煤）,北鲁坡村(南）,东秧坊面粉厂,大泉庄南地5028【纯农排变】,涿州市鑫海建材厂6,百尺竿北鲁坡【纯农排变】,大泉庄村5294,东秧坊村机井【纯农排变】,南鲁坡北井4581【纯农排变】,大泉庄北地5027【纯农排变】,涿州市人顺废旧物资回收站,张庄村北煤,北鲁坡井5122【纯农排变】","poweroffReason":"【停电原因】由于涿州站１２０间隔Ａ、Ｃ相ＣＴ开关侧接头过热消缺导致１１０ＫＶ宋营变电站１０ＫＶ茂林庄５３１线路全线停电 【变更送电】无 【发布渠道】涿州电视台（０５月２２日至０５月３０日２１：００播放２次）屏幕上方滚动","powerTime":"2018-05-31 08:15:34","powerComm":"恢复送电","subsNo":"","lineNo":"","tgNo":"","tgName":null,"infoStatus":"1","orgName":"国网涿州市供电公司","typeName":null,"infoStatusName":null,"dateDay":null,"orgNos":null,"nowTime":null,"countyName":null,"streetName":null,"villageName":null,"roadName":null,"communityName":null,"tranName":null,"sdLineName":null,"cityCode":"1340626","cityName":"国网涿州市供电公司","provinceCode":null,"stopTime":"2018-05-31 08:30:00","powerType":"全部","powerOffArea":"【全线路停电】停北鲁坡村东（1）,大全庄2865,北鲁坡村面粉厂,涿州市彩云涂料门市部,张庄村5199,涿州市鼎诚废旧物品回收站,张庄井5121,0387568360-张庄村-专变-45361038-张庄村西,涿州市金亮天鸿铸造有限公司,南鲁坡东3516,010002796|白云涂料厂大全庄村西2,大泉庄杨家铺,北鲁坡内0153,北鲁坡村西北【纯农排变】,百尺竿派出所（煤）柱上变压器,兰营村东,东秧坊村内0143,南鲁坡新增一号变煤,涿州市世纪星商贸有限公司2,安顺达装饰材料厂,百尺竿镇政府煤箱式变电站母线间隔配电变压器【纯农排变】,百尺竿供电所东秧坊村东,河北建设集团靖源混凝土有限公司,西秧坊饭店,涿州市鑫海建材厂4,南鲁坡新增5号变煤,大全庄东内2770,兰营新增5号煤变【纯农排变】,东秧坊南3974,大全庄西北2771,大泉庄水泥厂,涿州市鑫海建材厂5,宏利水泥有限公司2,南鲁坡南井4579【纯农排变】,涿州市世纪星商贸有限公司1,河北涿州农村商业银行股份有限公司兰家营支行,冯村西地2778,张庄村北5198【纯农排变】,冯村南内,涿州市鑫海建材厂3,小邵村西内,北鲁坡村西井【纯农排变】,北鲁坡村东【纯农排变】,兰营供电所,北鲁坡内4398,豆庄5003【纯农排变】,徐书石粉厂,东秧坊村北【纯农排变】,南鲁坡村西井【纯农排变】,利民面粉厂,涿州市泰吉模具厂,大泉庄村西地【纯农排变】,张庄北煤二号,南鲁坡新增二号变煤,冯村西地西2868,涿州市鑫海建材厂2,涿州市宏力水泥有限公司,张庄内0159,南鲁坡村北煤增,涿州市澍达建材经销处,大泉庄南内,北鲁坡村南,涿州市水利局百竿镇南鲁坡村,宏利水泥有限公司1,百尺竿大乡,南鲁坡村内0157变压器,涿州市鑫海建材厂1,涿州市振松石粉加工厂,观营（荷花路）,百尺杆水站变压器（煤）,北鲁坡村(南）,东秧坊面粉厂,大泉庄南地5028【纯农排变】,涿州市鑫海建材厂6,百尺竿北鲁坡【纯农排变】,大泉庄村5294,东秧坊村机井【纯农排变】,南鲁坡北井4581【纯农排变】,大泉庄北地5027【纯农排变】,涿州市人顺废旧物资回收站,张庄村北煤,北鲁坡井5122【纯农排变】","powerOffReason":"【停电原因】由于涿州站１２０间隔Ａ、Ｃ相ＣＴ开关侧接头过热消缺导致１１０ＫＶ宋营变电站１０ＫＶ茂林庄５３１线路全线停电 【变更送电】无 【发布渠道】涿州电视台（０５月２２日至０５月３０日２１：００播放２次）屏幕上方滚动","powerOffId":"2018052213000265"},{"poweroffId":2018052213000254,"sgpoweroffId":null,"subsName":"","lineName":"10KV下胡良528","pubTranName":"青岗C2850,","scope":"【影响街道/乡镇】东仙坡镇 【高危重要客户】无 【影响客户】青岗村","startTime":"2018-05-31 07:00:00","stopDate":"2018-05-31 18:00:00","orgNo":"1340626","typeCode":"计划停电","poweroffArea":"【单台区停电】停青岗C2850","poweroffReason":"【停电原因】由于煤改电工程导致１１０ＫＶ下胡良变电站１０ＫＶ下胡良５２８线路青岗Ｃ２８５０公变台区停电 【变更送电】无 【发布渠道】涿州电视台（０５月２２日至０５月３０日２１：００播放２次）屏幕上方滚动","powerTime":"2018-05-31 17:45:21","powerComm":"已送电","subsNo":"","lineNo":"","tgNo":"","tgName":null,"infoStatus":"1","orgName":"国网涿州市供电公司","typeName":null,"infoStatusName":null,"dateDay":null,"orgNos":null,"nowTime":null,"countyName":null,"streetName":null,"villageName":null,"roadName":null,"communityName":null,"tranName":null,"sdLineName":null,"cityCode":"1340626","cityName":"国网涿州市供电公司","provinceCode":null,"stopTime":"2018-05-31 18:00:00","powerType":"全部","powerOffArea":"【单台区停电】停青岗C2850","powerOffReason":"【停电原因】由于煤改电工程导致１１０ＫＶ下胡良变电站１０ＫＶ下胡良５２８线路青岗Ｃ２８５０公变台区停电 【变更送电】无 【发布渠道】涿州电视台（０５月２２日至０５月３０日２１：００播放２次）屏幕上方滚动","powerOffId":"2018052213000254"},{"poweroffId":2018052213000252,"sgpoweroffId":null,"subsName":"","lineName":"10KV普利庄532","pubTranName":"保定市政工程建设有限公司,泗各庄南地5024【纯农排变】,观营村内0206,百尺竿供电所观仙营北东,观仙营（村南井东）,观营南河井,泗各庄新增一号变煤,涿州市筑城砂石厂,张庄小区0205,观营石料厂,泗各庄村南,三兴石料厂,泗各庄西2742煤增,泗各庄东2745,泗各庄村西南内变压器,观营（村东）,河北永固水泥制品有限公司,泗各庄西地5021,泗各庄水泥厂,普利庄东内5309,涿州市月安建材厂,涿州市国发锻钢模具有限公司1,兰营村机井北,兰营村机井,普利庄东井4583【纯农排变】,泗各庄北2744,010000273|涿州市国发锻钢模具有限公司2,泗各庄新增6号变煤,普利庄村东地变压器【纯农排变】,南鲁坡村南内煤增,普利庄内0190,涿州市旅游开发公司,北京千宝建筑材料有限公司,泗各庄西北地5020【纯农排变】,泗各庄新增五号变煤,泗各庄厂2784,普新松石料厂,观营村西北【纯农排变】,泗各庄新增二号变煤,0387567833-涿州市凯伦锅炉制造有限公司-专变-45361086-凯伦锅炉制造有限公司,普利庄林场,普利庄小学（煤）柱上变压器,普利庄村东南5675【纯农排变】,泗各庄新增10号变煤,涿州市志宏星业建材有限公司,百尺竿供电所观仙营北西,涿州市富龙建材厂,南鲁坡新增4号变煤,百尺竿沟北4997【纯农排变】,涿州市裕丰源农业科技有限公司,兰营村机井南,兰营村西（百尺竿供电所）【纯农排变】,泗各庄新增7号变煤,观仙营（村南井西）,南鲁坡新增3号变煤,涿州市百尺竿镇兰家营村委会,观营村南井,南鲁坡南井4582,泗各庄新增9号变煤,普利庄村西（百尺竿供电所）【纯农排变】,普利庄西0189,泗各庄新增8号变煤,涿州市国发锻钢模具有限公司,泗各庄5395【纯农排变】,观营西大井,涿州市土产杂品公司,涿州市金亮天鸿铸造有限公司,泗各庄东南地5022【纯农排变】,涿州市庚午农牧业发展有限责任公司,兰营西大井东,泗各庄新增四号变煤,泗各庄新增11号变煤,刘兆玉面粉厂,泗各庄新增三号变煤,泗各庄东地5023,普利庄西南,观营村北0196,兰营村南内变压器,泗各庄面粉厂,","scope":"【影响街道/乡镇】百尺竿乡 【高危重要客户】无 【影响客户】观营村、普利庄、南鲁坡、张庄小区、泗各庄","startTime":"2018-05-31 04:30:00","stopDate":"2018-05-31 08:30:00","orgNo":"1340626","typeCode":"计划停电","poweroffArea":"【全线路停电】停涿州市庚午农牧业发展有限责任公司,涿州市国发锻钢模具有限公司1,普利庄小学（煤）柱上变压器,观仙营（村南井东）,三兴石料厂,泗各庄西2742煤增,普利庄内0190,泗各庄新增6号变煤,百尺竿供电所观仙营北西,普利庄西南,观营村西北【纯农排变】,涿州市月安建材厂,百尺竿供电所观仙营北东,兰营村机井,普利庄东井4583【纯农排变】,观营石料厂,观营村南井,泗各庄新增7号变煤,泗各庄西地5021,泗各庄厂2784,涿州市志宏星业建材有限公司,涿州市富龙建材厂,观仙营（村南井西）,涿州市土产杂品公司,观营南河井,涿州市旅游开发公司,兰营西大井东,普利庄林场,泗各庄新增四号变煤,泗各庄新增一号变煤,保定市政工程建设有限公司,百尺竿沟北4997【纯农排变】,兰营村机井北,普利庄村东南5675【纯农排变】,普利庄村东地变压器【纯农排变】,泗各庄东2745,南鲁坡南井4582,南鲁坡村南内煤增,涿州市裕丰源农业科技有限公司,泗各庄村西南内变压器,兰营村机井南,泗各庄新增二号变煤,南鲁坡新增3号变煤,涿州市金亮天鸿铸造有限公司,普利庄西0189,南鲁坡新增4号变煤,观营（村东）,河北永固水泥制品有限公司,北京千宝建筑材料有限公司,泗各庄南地5024【纯农排变】,泗各庄新增8号变煤,兰营村南内变压器,观营村内0206,泗各庄水泥厂,泗各庄西北地5020【纯农排变】,涿州市国发锻钢模具有限公司,泗各庄面粉厂,涿州市筑城砂石厂,泗各庄5395【纯农排变】,兰营村西（百尺竿供电所）【纯农排变】,泗各庄新增五号变煤,涿州市百尺竿镇兰家营村委会,泗各庄新增11号变煤,泗各庄新增9号变煤,0387567833-涿州市凯伦锅炉制造有限公司-专变-45361086-凯伦锅炉制造有限公司,刘兆玉面粉厂,泗各庄北2744,泗各庄新增三号变煤,泗各庄东地5023,普新松石料厂,普利庄村西（百尺竿供电所）【纯农排变】,观营村北0196,010000273|涿州市国发锻钢模具有限公司2,泗各庄东南地5022【纯农排变】,泗各庄新增10号变煤,张庄小区0205,普利庄东内5309,泗各庄村南,观营西大井","poweroffReason":"【停电原因】由于涿州站１２０间隔Ａ、Ｃ相ＣＴ开关侧接头过热消缺导致１１０ＫＶ宋营变电站１０ＫＶ普利庄５３２线路全线停电 【变更送电】无 【发布渠道】涿州电视台（０５月２２日至０５月３０日２１：００播放２次）屏幕上方滚动","powerTime":"2018-05-31 08:15:06","powerComm":"恢复送电","subsNo":"","lineNo":"","tgNo":"","tgName":null,"infoStatus":"1","orgName":"国网涿州市供电公司","typeName":null,"infoStatusName":null,"dateDay":null,"orgNos":null,"nowTime":null,"countyName":null,"streetName":null,"villageName":null,"roadName":null,"communityName":null,"tranName":null,"sdLineName":null,"cityCode":"1340626","cityName":"国网涿州市供电公司","provinceCode":null,"stopTime":"2018-05-31 08:30:00","powerType":"全部","powerOffArea":"【全线路停电】停涿州市庚午农牧业发展有限责任公司,涿州市国发锻钢模具有限公司1,普利庄小学（煤）柱上变压器,观仙营（村南井东）,三兴石料厂,泗各庄西2742煤增,普利庄内0190,泗各庄新增6号变煤,百尺竿供电所观仙营北西,普利庄西南,观营村西北【纯农排变】,涿州市月安建材厂,百尺竿供电所观仙营北东,兰营村机井,普利庄东井4583【纯农排变】,观营石料厂,观营村南井,泗各庄新增7号变煤,泗各庄西地5021,泗各庄厂2784,涿州市志宏星业建材有限公司,涿州市富龙建材厂,观仙营（村南井西）,涿州市土产杂品公司,观营南河井,涿州市旅游开发公司,兰营西大井东,普利庄林场,泗各庄新增四号变煤,泗各庄新增一号变煤,保定市政工程建设有限公司,百尺竿沟北4997【纯农排变】,兰营村机井北,普利庄村东南5675【纯农排变】,普利庄村东地变压器【纯农排变】,泗各庄东2745,南鲁坡南井4582,南鲁坡村南内煤增,涿州市裕丰源农业科技有限公司,泗各庄村西南内变压器,兰营村机井南,泗各庄新增二号变煤,南鲁坡新增3号变煤,涿州市金亮天鸿铸造有限公司,普利庄西0189,南鲁坡新增4号变煤,观营（村东）,河北永固水泥制品有限公司,北京千宝建筑材料有限公司,泗各庄南地5024【纯农排变】,泗各庄新增8号变煤,兰营村南内变压器,观营村内0206,泗各庄水泥厂,泗各庄西北地5020【纯农排变】,涿州市国发锻钢模具有限公司,泗各庄面粉厂,涿州市筑城砂石厂,泗各庄5395【纯农排变】,兰营村西（百尺竿供电所）【纯农排变】,泗各庄新增五号变煤,涿州市百尺竿镇兰家营村委会,泗各庄新增11号变煤,泗各庄新增9号变煤,0387567833-涿州市凯伦锅炉制造有限公司-专变-45361086-凯伦锅炉制造有限公司,刘兆玉面粉厂,泗各庄北2744,泗各庄新增三号变煤,泗各庄东地5023,普新松石料厂,普利庄村西（百尺竿供电所）【纯农排变】,观营村北0196,010000273|涿州市国发锻钢模具有限公司2,泗各庄东南地5022【纯农排变】,泗各庄新增10号变煤,张庄小区0205,普利庄东内5309,泗各庄村南,观营西大井","powerOffReason":"【停电原因】由于涿州站１２０间隔Ａ、Ｃ相ＣＴ开关侧接头过热消缺导致１１０ＫＶ宋营变电站１０ＫＶ普利庄５３２线路全线停电 【变更送电】无 【发布渠道】涿州电视台（０５月２２日至０５月３０日２１：００播放２次）屏幕上方滚动","powerOffId":"2018052213000252"}],"pageModel":{"pageNow":1083,"totalCount":10973,"totalPage":1098,"tableRows":0,"pageCount":10,"beginCount":10820},"isExperi":"1"}