{"message":"","today":"2020-06-15","seleList":[{"poweroffId":2018052113000849,"sgpoweroffId":null,"subsName":"","lineName":"城区工业线525","pubTranName":"盛源30号（安肃镇政府）,","scope":"【影响街道/乡镇】安肃镇、盛源大街 【高危重要客户】无 【影响客户】安肃镇政府、安肃镇政府家属院、红苹果幼儿园对面","startTime":"2018-05-27 07:00:00","stopDate":"2018-05-27 15:00:00","orgNo":"1340605","typeCode":"临时停电","poweroffArea":"【单台区停电】停盛源30号（安肃镇政府）","poweroffReason":"【停电原因】由于配变扩容改造导致１１０ＫＶ徐水变电站城区工业线５２５线路３０号公变台区停电 【变更送电】无 【发布渠道】通过９５５９８发布","powerTime":"2018-05-27 14:05:07","powerComm":"已送电","subsNo":"","lineNo":"","tgNo":"","tgName":null,"infoStatus":"1","orgName":"国网徐水县供电公司","typeName":null,"infoStatusName":null,"dateDay":null,"orgNos":null,"nowTime":null,"countyName":null,"streetName":null,"villageName":null,"roadName":null,"communityName":null,"tranName":null,"sdLineName":null,"cityCode":"1340605","cityName":"国网徐水县供电公司","provinceCode":null,"stopTime":"2018-05-27 15:00:00","powerType":"全部","powerOffArea":"【单台区停电】停盛源30号（安肃镇政府）","powerOffReason":"【停电原因】由于配变扩容改造导致１１０ＫＶ徐水变电站城区工业线５２５线路３０号公变台区停电 【变更送电】无 【发布渠道】通过９５５９８发布","powerOffId":"2018052113000849"},{"poweroffId":2018052113000847,"sgpoweroffId":null,"subsName":"","lineName":"袁辛线518","pubTranName":"徐水县来宾水泥制品变压器,大庄12号,白塔铺12号,袁家坟3号变压器,大庄10号,小辛安4号【纯农排变】,北孤庄营4号【纯农排变】,徐水县交通运输局,小庄6号,小庄1号,徐水县平易路石油天然气配件有限公司3号,白塔铺6号,大庄13号【纯农排变】,保定市徐水区住房和城乡建设局,大庄1号,徐水县平易路石油天然气配件有限公司2号,小庄5号,白塔铺13号,北孤营3号【纯农排变】,徐水县平易路石油天然气配件有限公司,徐水县平易路石油天然气配件有限公司1号,大庄9号,大庄8号,徐水县荣泰新型建材有限公司,白塔铺7号,中孤庄营3号,小庄7号【纯农排变】,变压器,白塔铺17号,大庄3号,大庄5号,河北科华防静电地板制造有限公司,大庄6号,袁家坟2号,小庄4号【纯农排变】,南孤庄营6号,河北德力食品有限公司,小庄2号,大庄11号,小辛安3号,北孤庄营1号【纯农排变】,小庄8号【纯农排变】,大庄7号,大庄14号【纯农排变】,小庄3号【纯农排变】,大庄2号,大庄4号【纯农排变】,白塔铺8号【纯农排变】,南孤庄营7号,河北徐水新洋丰肥业有限公司,南孤庄营11号【纯农排变】,袁家坟1号,高林营与小庄合用,","scope":"【影响街道/乡镇】高林村镇 【高危重要客户】无 【影响客户】北孤庄营村、白塔铺村、小庄村、大庄村、南孤庄营村、中孤庄营村、小辛安村、袁家坟村","startTime":"2018-06-01 07:00:00","stopDate":"2018-06-01 19:00:00","orgNo":"1340605","typeCode":"计划停电","poweroffArea":"【全线路停电】停保定市徐水区住房和城乡建设局,北孤庄营4号【纯农排变】,河北科华防静电地板制造有限公司,徐水县平易路石油天然气配件有限公司3号,徐水县来宾水泥制品变压器,徐水县交通运输局,大庄11号,白塔铺12号,小庄6号,大庄9号,河北徐水新洋丰肥业有限公司,徐水县平易路石油天然气配件有限公司1号,南孤庄营11号【纯农排变】,大庄1号,大庄12号,大庄6号,中孤庄营3号,大庄3号,小庄7号【纯农排变】,小庄3号【纯农排变】,大庄4号【纯农排变】,小辛安3号,小庄2号,大庄14号【纯农排变】,袁家坟2号,袁家坟3号变压器,南孤庄营7号,北孤庄营1号【纯农排变】,徐水县平易路石油天然气配件有限公司2号,白塔铺8号【纯农排变】,北孤营3号【纯农排变】,白塔铺7号,徐水县荣泰新型建材有限公司,大庄8号,小庄4号【纯农排变】,大庄2号,袁家坟1号,白塔铺17号,南孤庄营6号,小庄5号,徐水县平易路石油天然气配件有限公司,白塔铺13号,河北德力食品有限公司,白塔铺6号,大庄10号,大庄5号,大庄7号,小庄1号,变压器,高林营与小庄合用,大庄13号【纯农排变】,小庄8号【纯农排变】,小辛安4号【纯农排变】","poweroffReason":"【停电原因】由于线路检修导致３５ＫＶ郎五庄变电站袁辛线５１８线路全线停电 【变更送电】无 【发布渠道】通过河北省保定市徐水电视台游走滚动字幕播放（２０１８年０５月２５日０８:００至０５月３１日２０:００）","powerTime":"2018-06-01 18:13:49","powerComm":"已送电","subsNo":"","lineNo":"","tgNo":"","tgName":null,"infoStatus":"1","orgName":"国网徐水县供电公司","typeName":null,"infoStatusName":null,"dateDay":null,"orgNos":null,"nowTime":null,"countyName":null,"streetName":null,"villageName":null,"roadName":null,"communityName":null,"tranName":null,"sdLineName":null,"cityCode":"1340605","cityName":"国网徐水县供电公司","provinceCode":null,"stopTime":"2018-06-01 19:00:00","powerType":"全部","powerOffArea":"【全线路停电】停保定市徐水区住房和城乡建设局,北孤庄营4号【纯农排变】,河北科华防静电地板制造有限公司,徐水县平易路石油天然气配件有限公司3号,徐水县来宾水泥制品变压器,徐水县交通运输局,大庄11号,白塔铺12号,小庄6号,大庄9号,河北徐水新洋丰肥业有限公司,徐水县平易路石油天然气配件有限公司1号,南孤庄营11号【纯农排变】,大庄1号,大庄12号,大庄6号,中孤庄营3号,大庄3号,小庄7号【纯农排变】,小庄3号【纯农排变】,大庄4号【纯农排变】,小辛安3号,小庄2号,大庄14号【纯农排变】,袁家坟2号,袁家坟3号变压器,南孤庄营7号,北孤庄营1号【纯农排变】,徐水县平易路石油天然气配件有限公司2号,白塔铺8号【纯农排变】,北孤营3号【纯农排变】,白塔铺7号,徐水县荣泰新型建材有限公司,大庄8号,小庄4号【纯农排变】,大庄2号,袁家坟1号,白塔铺17号,南孤庄营6号,小庄5号,徐水县平易路石油天然气配件有限公司,白塔铺13号,河北德力食品有限公司,白塔铺6号,大庄10号,大庄5号,大庄7号,小庄1号,变压器,高林营与小庄合用,大庄13号【纯农排变】,小庄8号【纯农排变】,小辛安4号【纯农排变】","powerOffReason":"【停电原因】由于线路检修导致３５ＫＶ郎五庄变电站袁辛线５１８线路全线停电 【变更送电】无 【发布渠道】通过河北省保定市徐水电视台游走滚动字幕播放（２０１８年０５月２５日０８:００至０５月３１日２０:００）","powerOffId":"2018052113000847"},{"poweroffId":2018052113000841,"sgpoweroffId":null,"subsName":"","lineName":"苑家会线515","pubTranName":"未家庄1224变压器,三道河村1602变压器,河北台1791变压器,五家角1604变压器,花塔乡1599变压器,小花塔1601变压器,大草原1225变压器,花塔北沟水2843变压器,唐河铺1606变压器,花塔北沟1600变压器,三道河6567变压器,西湾4948变压器,老虎岭1605变压器,苑家会村6051变压器,花塔村东4075变压器,北当1603变压器,北当1603-2变压器,花塔村4761变压器,五家角村北变压器,","scope":"【影响街道/乡镇】黄石口乡【高危重要客户】无 【影响客户】苑家会、三道河村、花塔村、后七峪未家庄、北当村、五家角河北台、五家角、花塔北沟","startTime":"2018-05-31 09:00:00","stopDate":"2018-05-31 14:00:00","orgNo":"1340622","typeCode":"计划停电","poweroffArea":"【分支停电】停北当1603-2变压器,花塔乡1599变压器,五家角村北变压器,北当1603变压器,河北台1791变压器,花塔北沟水2843变压器,花塔北沟1600变压器,花塔村4761变压器,花塔村东4075变压器,老虎岭1605变压器,三道河村1602变压器,三道河6567变压器,唐河铺1606变压器,未家庄1224变压器,大草原1225变压器,五家角1604变压器,小花塔1601变压器,西湾4948变压器,苑家会村6051变压器","poweroffReason":"【停电原因】由于线路清扫导致３５ＫＶ花塔变电站苑家会线５１５线路００１号杆隔离开关以下线路停电【变更送电】因工作进度加快原因,送电时间由 ２０：００变更为 １４：００【发布渠道】保定市唐县电视台（０５月２１日至０５月３０日的２０：００时至２０：３０时之间）","powerTime":"2018-05-31 13:18:46","powerComm":"已送电","subsNo":"","lineNo":"","tgNo":"","tgName":null,"infoStatus":"1","orgName":"国网唐县供电公司","typeName":null,"infoStatusName":null,"dateDay":null,"orgNos":null,"nowTime":null,"countyName":null,"streetName":null,"villageName":null,"roadName":null,"communityName":null,"tranName":null,"sdLineName":null,"cityCode":"1340622","cityName":"国网唐县供电公司","provinceCode":null,"stopTime":"2018-05-31 14:00:00","powerType":"全部","powerOffArea":"【分支停电】停北当1603-2变压器,花塔乡1599变压器,五家角村北变压器,北当1603变压器,河北台1791变压器,花塔北沟水2843变压器,花塔北沟1600变压器,花塔村4761变压器,花塔村东4075变压器,老虎岭1605变压器,三道河村1602变压器,三道河6567变压器,唐河铺1606变压器,未家庄1224变压器,大草原1225变压器,五家角1604变压器,小花塔1601变压器,西湾4948变压器,苑家会村6051变压器","powerOffReason":"【停电原因】由于线路清扫导致３５ＫＶ花塔变电站苑家会线５１５线路００１号杆隔离开关以下线路停电【变更送电】因工作进度加快原因,送电时间由 ２０：００变更为 １４：００【发布渠道】保定市唐县电视台（０５月２１日至０５月３０日的２０：００时至２０：３０时之间）","powerOffId":"2018052113000841"},{"poweroffId":2018052113000833,"sgpoweroffId":null,"subsName":"","lineName":"大辛庄线573","pubTranName":"大辛庄羽绒加工厂,刘庄1号【纯农排变】,徐水县春晖羽绒加工厂,刘庄9号【纯农排变】,大辛庄4号,徐水县福宝麻纺加工有限公司,大辛庄12号配变【纯农排变】,田兰敏羽绒加工厂,大辛庄16号,保定羽丰羽绒制品有限公司,大辛庄32号【纯农排变】,茂山卫1号,鑫源羽绒厂,大辛庄19号配变【纯农排变】,徐水县康兴羽绒厂,大辛庄14号,大辛庄37号,茂山卫14号,茂山卫2号,徐水县瑞达羽绒服加工厂变压器,刘庄2号配变,大辛庄13号【纯农排变】,大辛庄23号【纯农排变】,大辛庄5号【纯农排变】,刘庄4号配变,鑫锋羽绒厂,茂山卫19号,刘庄14号配变,茂山卫11号配变,茂山卫5号【纯农排变】,茂山卫10号【纯农排变】,徐水县鑫丰羽绒制品经销处,大辛庄供电所10号,刘庄10号配变,刘庄15号配变,茂山卫4号,胜达羽绒厂,刘庄3号,大辛庄6号【纯农排变】,大辛庄28号,强胜羽绒加工厂,徐水县新天地羽绒厂变压器,刘庄7号配变【纯农排变】,徐水县海士杰羽绒制品经销处,刘庄13号【纯农排变】,大辛庄供电所11号,崔国良羽绒加工厂,茂山卫16号【纯农排变】,大辛庄17号【纯农排变】,刘庄16号,茂山卫15号,大辛庄34号,马战义羽绒加工厂,徐水县东胜羽绒厂,大辛庄15号【纯农排变】,大辛庄27号,茂山卫18号,茂山卫13号,大辛庄18号,茂山卫7号配变【纯农排变】,大辛庄11号【纯农排变】,茂山卫12号,鑫祥羽绒加工厂,茂山卫3号配变【纯农排变】,大辛庄20号,茂山卫8号【纯农排变】,大辛庄7号配变,大辛庄24号【纯农排变】,徐水县鑫达羽绒加工厂,保定顺迈羽绒制品有限公司,永兴羽绒加工厂,刘庄砖厂,大辛庄30号【纯农排变】,徐水县顺发羽绒厂,艳辉羽绒厂,刘庄6号配变【纯农排变】,利明羽绒厂,刘庄12号,刘庄8号,刘庄11号,东方羽毛加工厂2号,徐水县祥羽粉碎加工厂,河北新天地羽毛加工有限公司,庆丰粉碎加工厂,茂山卫9号,茂山卫17号【纯农排变】,徐水县东亚畜禽饲养有限公司,徐水县春晖羽绒厂,茂山卫6号配变【纯农排变】,青年羽绒厂,巨力集团有限公司,刘庄5号配变,大辛庄1号配变【纯农排变】,徐水县延旗羽绒加工厂,永兴洗毛厂,","scope":"【影响街道/乡镇】崔庄镇 【高危重要客户】无 【影响客户】茂山卫、大辛庄、刘庄","startTime":"2018-06-03 07:00:00","stopDate":"2018-06-03 15:00:00","orgNo":"1340605","typeCode":"计划停电","poweroffArea":"【全线路停电】停刘庄砖厂,永兴羽绒加工厂,茂山卫7号配变【纯农排变】,大辛庄30号【纯农排变】,茂山卫16号【纯农排变】,茂山卫17号【纯农排变】,徐水县新天地羽绒厂变压器,大辛庄28号,大辛庄13号【纯农排变】,大辛庄16号,大辛庄供电所10号,刘庄7号配变【纯农排变】,刘庄1号【纯农排变】,刘庄14号配变,茂山卫11号配变,徐水县春晖羽绒加工厂,茂山卫4号,大辛庄14号,东方羽毛加工厂2号,茂山卫6号配变【纯农排变】,刘庄9号【纯农排变】,茂山卫12号,茂山卫18号,大辛庄7号配变,胜达羽绒厂,大辛庄15号【纯农排变】,大辛庄12号配变【纯农排变】,利明羽绒厂,大辛庄27号,艳辉羽绒厂,鑫祥羽绒加工厂,青年羽绒厂,庆丰粉碎加工厂,刘庄5号配变,鑫源羽绒厂,大辛庄羽绒加工厂,大辛庄4号,徐水县海士杰羽绒制品经销处,大辛庄37号,徐水县瑞达羽绒服加工厂变压器,刘庄13号【纯农排变】,徐水县延旗羽绒加工厂,茂山卫2号,刘庄6号配变【纯农排变】,徐水县鑫达羽绒加工厂,刘庄3号,刘庄2号配变,鑫锋羽绒厂,徐水县福宝麻纺加工有限公司,大辛庄18号,大辛庄19号配变【纯农排变】,永兴洗毛厂,茂山卫8号【纯农排变】,茂山卫5号【纯农排变】,徐水县康兴羽绒厂,大辛庄1号配变【纯农排变】,大辛庄6号【纯农排变】,强胜羽绒加工厂,徐水县东胜羽绒厂,保定顺迈羽绒制品有限公司,徐水县春晖羽绒厂,茂山卫15号,田兰敏羽绒加工厂,徐水县顺发羽绒厂,保定羽丰羽绒制品有限公司,马战义羽绒加工厂,崔国良羽绒加工厂,徐水县鑫丰羽绒制品经销处,刘庄12号,刘庄11号,徐水县祥羽粉碎加工厂,大辛庄供电所11号,大辛庄20号,茂山卫13号,刘庄4号配变,茂山卫1号,大辛庄11号【纯农排变】,大辛庄23号【纯农排变】,巨力集团有限公司,刘庄8号,大辛庄34号,茂山卫9号,茂山卫14号,茂山卫19号,大辛庄5号【纯农排变】,大辛庄32号【纯农排变】,河北新天地羽毛加工有限公司,刘庄16号,徐水县东亚畜禽饲养有限公司,茂山卫10号【纯农排变】,大辛庄17号【纯农排变】,茂山卫3号配变【纯农排变】,刘庄10号配变,刘庄15号配变,大辛庄24号【纯农排变】","poweroffReason":"【停电原因】由于线路检修导致１１０ＫＶ沙口变电站大辛庄线５７３线路全线停电 【变更送电】无 【发布渠道】通过河北省保定市徐水电视台游走滚动字幕播放（２０１８年０５月２７日０８:００至０６月０２日２０:００）","powerTime":"2018-06-03 14:53:35","powerComm":"已送电","subsNo":"","lineNo":"","tgNo":"","tgName":null,"infoStatus":"1","orgName":"国网徐水县供电公司","typeName":null,"infoStatusName":null,"dateDay":null,"orgNos":null,"nowTime":null,"countyName":null,"streetName":null,"villageName":null,"roadName":null,"communityName":null,"tranName":null,"sdLineName":null,"cityCode":"1340605","cityName":"国网徐水县供电公司","provinceCode":null,"stopTime":"2018-06-03 15:00:00","powerType":"全部","powerOffArea":"【全线路停电】停刘庄砖厂,永兴羽绒加工厂,茂山卫7号配变【纯农排变】,大辛庄30号【纯农排变】,茂山卫16号【纯农排变】,茂山卫17号【纯农排变】,徐水县新天地羽绒厂变压器,大辛庄28号,大辛庄13号【纯农排变】,大辛庄16号,大辛庄供电所10号,刘庄7号配变【纯农排变】,刘庄1号【纯农排变】,刘庄14号配变,茂山卫11号配变,徐水县春晖羽绒加工厂,茂山卫4号,大辛庄14号,东方羽毛加工厂2号,茂山卫6号配变【纯农排变】,刘庄9号【纯农排变】,茂山卫12号,茂山卫18号,大辛庄7号配变,胜达羽绒厂,大辛庄15号【纯农排变】,大辛庄12号配变【纯农排变】,利明羽绒厂,大辛庄27号,艳辉羽绒厂,鑫祥羽绒加工厂,青年羽绒厂,庆丰粉碎加工厂,刘庄5号配变,鑫源羽绒厂,大辛庄羽绒加工厂,大辛庄4号,徐水县海士杰羽绒制品经销处,大辛庄37号,徐水县瑞达羽绒服加工厂变压器,刘庄13号【纯农排变】,徐水县延旗羽绒加工厂,茂山卫2号,刘庄6号配变【纯农排变】,徐水县鑫达羽绒加工厂,刘庄3号,刘庄2号配变,鑫锋羽绒厂,徐水县福宝麻纺加工有限公司,大辛庄18号,大辛庄19号配变【纯农排变】,永兴洗毛厂,茂山卫8号【纯农排变】,茂山卫5号【纯农排变】,徐水县康兴羽绒厂,大辛庄1号配变【纯农排变】,大辛庄6号【纯农排变】,强胜羽绒加工厂,徐水县东胜羽绒厂,保定顺迈羽绒制品有限公司,徐水县春晖羽绒厂,茂山卫15号,田兰敏羽绒加工厂,徐水县顺发羽绒厂,保定羽丰羽绒制品有限公司,马战义羽绒加工厂,崔国良羽绒加工厂,徐水县鑫丰羽绒制品经销处,刘庄12号,刘庄11号,徐水县祥羽粉碎加工厂,大辛庄供电所11号,大辛庄20号,茂山卫13号,刘庄4号配变,茂山卫1号,大辛庄11号【纯农排变】,大辛庄23号【纯农排变】,巨力集团有限公司,刘庄8号,大辛庄34号,茂山卫9号,茂山卫14号,茂山卫19号,大辛庄5号【纯农排变】,大辛庄32号【纯农排变】,河北新天地羽毛加工有限公司,刘庄16号,徐水县东亚畜禽饲养有限公司,茂山卫10号【纯农排变】,大辛庄17号【纯农排变】,茂山卫3号配变【纯农排变】,刘庄10号配变,刘庄15号配变,大辛庄24号【纯农排变】","powerOffReason":"【停电原因】由于线路检修导致１１０ＫＶ沙口变电站大辛庄线５７３线路全线停电 【变更送电】无 【发布渠道】通过河北省保定市徐水电视台游走滚动字幕播放（２０１８年０５月２７日０８:００至０６月０２日２０:００）","powerOffId":"2018052113000833"},{"poweroffId":2018052113000830,"sgpoweroffId":null,"subsName":"","lineName":"唐河西线513","pubTranName":"唐河西南1631变压器,聂家台1592变压器,花塔村1250变压器,岳家台1593变压器,唐河西线新增变压器,下庄村0824变压器,唐河东1260变压器,五家会5163变压器,唐河西1597变压器,富家峪1625变压器,五家会3374变压器,唐河西1594变压器,小南村1618变压器,五家会1608变压器,小南村4063变压器,合玉口北1630变压器,五家会水利4732变压器,五家会水利cl5066变压器,","scope":"【影响街道/乡镇】黄石口乡、川里镇【高危重要客户】无 【影响客户】花塔、唐河西、岳家台、富家峪、河峪口、五家会、聂家台、小南、下庄","startTime":"2018-05-31 09:00:00","stopDate":"2018-05-31 14:00:00","orgNo":"1340622","typeCode":"计划停电","poweroffArea":"【分支停电】停富家峪1625变压器,合玉口北1630变压器,花塔村1250变压器,聂家台1592变压器,唐河西南1631变压器,唐河东1260变压器,唐河西1597变压器,唐河西线新增变压器,五家会1608变压器,五家会3374变压器,五家会5163变压器,五家会水利4732变压器,五家会水利cl5066变压器,下庄村0824变压器,小南村1618变压器,小南村4063变压器,岳家台1593变压器,唐河西1594变压器","poweroffReason":"【停电原因】由于线路清扫导致３５ＫＶ花塔变电站唐河西线５１３线路００１号杆隔离开关以下线路停电【变更送电】因工作进度加快原因,送电时间由 ２０：００变更为 １４：００【发布渠道】保定市唐县电视台（０５月２１日至０５月３０日的２０：００时至２０：３０时之间）","powerTime":"2018-05-31 13:20:54","powerComm":"已送电","subsNo":"","lineNo":"","tgNo":"","tgName":null,"infoStatus":"1","orgName":"国网唐县供电公司","typeName":null,"infoStatusName":null,"dateDay":null,"orgNos":null,"nowTime":null,"countyName":null,"streetName":null,"villageName":null,"roadName":null,"communityName":null,"tranName":null,"sdLineName":null,"cityCode":"1340622","cityName":"国网唐县供电公司","provinceCode":null,"stopTime":"2018-05-31 14:00:00","powerType":"全部","powerOffArea":"【分支停电】停富家峪1625变压器,合玉口北1630变压器,花塔村1250变压器,聂家台1592变压器,唐河西南1631变压器,唐河东1260变压器,唐河西1597变压器,唐河西线新增变压器,五家会1608变压器,五家会3374变压器,五家会5163变压器,五家会水利4732变压器,五家会水利cl5066变压器,下庄村0824变压器,小南村1618变压器,小南村4063变压器,岳家台1593变压器,唐河西1594变压器","powerOffReason":"【停电原因】由于线路清扫导致３５ＫＶ花塔变电站唐河西线５１３线路００１号杆隔离开关以下线路停电【变更送电】因工作进度加快原因,送电时间由 ２０：００变更为 １４：００【发布渠道】保定市唐县电视台（０５月２１日至０５月３０日的２０：００时至２０：３０时之间）","powerOffId":"2018052113000830"},{"poweroffId":2018052113000822,"sgpoweroffId":null,"subsName":"","lineName":"大次良线531","pubTranName":"大次良33号,大次良18号,徐水县晨阳法兰厂,0669146819-徐水县华达法兰车床加工厂-专变-210379187-徐水县华达法兰车床加工厂,大次良钎粉厂,大次良6号,大次良10号,徐水县华源管件制造有限公司5号,徐水县恒达管件器材有限公司2号,徐水县浩兴快捷宾馆,河北鑫一凡阀门科技有限公司变压器,徐水县然兴管件制造厂,大次良4号,大次良2号,徐水县弘立管件加工厂,诚信加工厂,大次良3号,徐水县永丰管件制造有限公司3号,大次良8号,大次良32号,徐水县长达车床加工厂,徐水县鑫钰管件2号,徐水县恒达管件器材有限公司1号,徐水县宏达水暖器材制造有限公司2号,徐水县长兴管件制造有限公司,大次良26号,大次良加工厂,徐水县鑫钰管件1号,徐水县鑫钰管件有限公司,大次良13号,徐水县诚信车床加工厂,保定市鑫一凡商务酒店计量点变压器,变压器,徐水县隆胜法兰车床加工厂,徐水县龙兴法兰加工厂,徐水县郭力车床加工厂,徐水县长有车床加工厂,徐水县飞达法兰加工厂变压器,橡胶厂,大次良12号,徐水县添福商贸中心,大次良7号,徐水县中兴密封件制造有限公司2号,徐水县凯兴法兰制造有限公司,大次良22号,中羽加工厂,小仕庄1号,大次良25号,大次良24号,大次良35号,","scope":"【影响街道/乡镇】遂城镇 【高危重要客户】无 【影响客户】大次良","startTime":"2018-06-02 07:00:00","stopDate":"2018-06-02 12:20:00","orgNo":"1340605","typeCode":"计划停电","poweroffArea":"【全线路停电】停徐水县鑫钰管件2号,大次良13号,大次良33号,大次良26号,0669146819-徐水县华达法兰车床加工厂-专变-210379187-徐水县华达法兰车床加工厂,徐水县长兴管件制造有限公司,徐水县然兴管件制造厂,大次良12号,大次良2号,徐水县长达车床加工厂,徐水县凯兴法兰制造有限公司,徐水县长有车床加工厂,橡胶厂,变压器,徐水县鑫钰管件1号,徐水县恒达管件器材有限公司1号,徐水县弘立管件加工厂,徐水县飞达法兰加工厂变压器,徐水县添福商贸中心,徐水县华源管件制造有限公司5号,大次良3号,小仕庄1号,河北鑫一凡阀门科技有限公司变压器,大次良24号,大次良10号,徐水县诚信车床加工厂,大次良7号,大次良4号,大次良加工厂,大次良22号,徐水县恒达管件器材有限公司2号,徐水县鑫钰管件有限公司,徐水县宏达水暖器材制造有限公司2号,大次良32号,大次良钎粉厂,徐水县浩兴快捷宾馆,徐水县龙兴法兰加工厂,徐水县中兴密封件制造有限公司2号,中羽加工厂,诚信加工厂,徐水县晨阳法兰厂,大次良6号,徐水县隆胜法兰车床加工厂,保定市鑫一凡商务酒店计量点变压器,大次良35号,徐水县永丰管件制造有限公司3号,徐水县郭力车床加工厂,大次良18号,大次良25号,大次良8号","poweroffReason":"【停电原因】由于线路检修导致１１０ＫＶ黑山变电站大次良线５３１线路全线停电 【变更送电】因工作进度加快原因，送电时间由１５：００变更为１２：２０ 【发布渠道】通过河北省保定市徐水电视台游走滚动字幕播放（０５月２６日０８:００至０６月０１日２０:００）","powerTime":"2018-06-02 12:04:19","powerComm":"已送电","subsNo":"","lineNo":"","tgNo":"","tgName":null,"infoStatus":"1","orgName":"国网徐水县供电公司","typeName":null,"infoStatusName":null,"dateDay":null,"orgNos":null,"nowTime":null,"countyName":null,"streetName":null,"villageName":null,"roadName":null,"communityName":null,"tranName":null,"sdLineName":null,"cityCode":"1340605","cityName":"国网徐水县供电公司","provinceCode":null,"stopTime":"2018-06-02 12:20:00","powerType":"全部","powerOffArea":"【全线路停电】停徐水县鑫钰管件2号,大次良13号,大次良33号,大次良26号,0669146819-徐水县华达法兰车床加工厂-专变-210379187-徐水县华达法兰车床加工厂,徐水县长兴管件制造有限公司,徐水县然兴管件制造厂,大次良12号,大次良2号,徐水县长达车床加工厂,徐水县凯兴法兰制造有限公司,徐水县长有车床加工厂,橡胶厂,变压器,徐水县鑫钰管件1号,徐水县恒达管件器材有限公司1号,徐水县弘立管件加工厂,徐水县飞达法兰加工厂变压器,徐水县添福商贸中心,徐水县华源管件制造有限公司5号,大次良3号,小仕庄1号,河北鑫一凡阀门科技有限公司变压器,大次良24号,大次良10号,徐水县诚信车床加工厂,大次良7号,大次良4号,大次良加工厂,大次良22号,徐水县恒达管件器材有限公司2号,徐水县鑫钰管件有限公司,徐水县宏达水暖器材制造有限公司2号,大次良32号,大次良钎粉厂,徐水县浩兴快捷宾馆,徐水县龙兴法兰加工厂,徐水县中兴密封件制造有限公司2号,中羽加工厂,诚信加工厂,徐水县晨阳法兰厂,大次良6号,徐水县隆胜法兰车床加工厂,保定市鑫一凡商务酒店计量点变压器,大次良35号,徐水县永丰管件制造有限公司3号,徐水县郭力车床加工厂,大次良18号,大次良25号,大次良8号","powerOffReason":"【停电原因】由于线路检修导致１１０ＫＶ黑山变电站大次良线５３１线路全线停电 【变更送电】因工作进度加快原因，送电时间由１５：００变更为１２：２０ 【发布渠道】通过河北省保定市徐水电视台游走滚动字幕播放（０５月２６日０８:００至０６月０１日２０:００）","powerOffId":"2018052113000822"},{"poweroffId":2018052113000821,"sgpoweroffId":null,"subsName":"","lineName":"河暖线511","pubTranName":"花塔中学1141变压器,花塔扬水站1899变压器,周家堡6594变压器,河暖水利2212变压器,司里村1255变压器,司里村南4738变压器,桃家湾0022变压器,周家堡水利变压器,司里村北4750变压器,桃家湾水利2000变压器,周家堡1256变压器,面鱼沟1598变压器,下庄尔1253变压器,桃家湾水利4125变压器,河暖村1254变压器,","scope":"【影响街道/乡镇】黄石口乡【高危重要客户】无 【影响客户】司里村、河暖下庄尔、花塔、花塔中学、扬水站、周家堡村、桃家湾水","startTime":"2018-05-31 09:00:00","stopDate":"2018-05-31 14:00:00","orgNo":"1340622","typeCode":"计划停电","poweroffArea":"【分支停电】停河暖村1254变压器,河暖水利2212变压器,花塔扬水站1899变压器,花塔中学1141变压器,面鱼沟1598变压器,司里村1255变压器,司里村北4750变压器,司里村南4738变压器,桃家湾0022变压器,桃家湾水利2000变压器,桃家湾水利4125变压器,下庄尔1253变压器,周家堡1256变压器,周家堡水利变压器,周家堡6594变压器","poweroffReason":"【停电原因】由于线路清扫导致３５ＫＶ花塔变电站河暖线５１１线路００１号杆隔离开关以下线路停电【变更送电】因工作进度加快原因,送电时间由 ２０：００变更为 １４：００【发布渠道】保定市唐县电视台（０５月２１日至０５月３０日的２０：００时至２０：３０时之间）","powerTime":"2018-05-31 13:24:17","powerComm":"已送电","subsNo":"","lineNo":"","tgNo":"","tgName":null,"infoStatus":"1","orgName":"国网唐县供电公司","typeName":null,"infoStatusName":null,"dateDay":null,"orgNos":null,"nowTime":null,"countyName":null,"streetName":null,"villageName":null,"roadName":null,"communityName":null,"tranName":null,"sdLineName":null,"cityCode":"1340622","cityName":"国网唐县供电公司","provinceCode":null,"stopTime":"2018-05-31 14:00:00","powerType":"全部","powerOffArea":"【分支停电】停河暖村1254变压器,河暖水利2212变压器,花塔扬水站1899变压器,花塔中学1141变压器,面鱼沟1598变压器,司里村1255变压器,司里村北4750变压器,司里村南4738变压器,桃家湾0022变压器,桃家湾水利2000变压器,桃家湾水利4125变压器,下庄尔1253变压器,周家堡1256变压器,周家堡水利变压器,周家堡6594变压器","powerOffReason":"【停电原因】由于线路清扫导致３５ＫＶ花塔变电站河暖线５１１线路００１号杆隔离开关以下线路停电【变更送电】因工作进度加快原因,送电时间由 ２０：００变更为 １４：００【发布渠道】保定市唐县电视台（０５月２１日至０５月３０日的２０：００时至２０：３０时之间）","powerOffId":"2018052113000821"},{"poweroffId":2018052113000811,"sgpoweroffId":null,"subsName":"","lineName":"水库534","pubTranName":"小赤鲁25号,永合庄4号,小赤鲁3号,小赤鲁14号,小赤鲁26号,永合庄3号【纯农排变】,大赤鲁10号,小赤鲁6号【纯农排变】,小赤鲁4号,大赤鲁12号,大赤鲁1号【纯农排变】,小赤鲁24号,大赤鲁5号【纯农排变】,小赤鲁18号,小赤鲁9号【纯农排变】,小赤鲁11号,小赤鲁21号,小赤鲁2号【纯农排变】,小赤鲁13号【纯农排变】,大赤鲁2号【纯农排变】,小赤鲁23号,小赤鲁15号,小赤鲁22号,小赤鲁5号【纯农排变】,永合庄1号,小赤鲁29号,小赤鲁20号,小赤鲁7号【纯农排变】,小赤鲁10号【纯农排变】,小赤鲁28号,大赤鲁9号【纯农排变】,小赤鲁27号,大赤鲁4号,大赤鲁3号,大赤鲁6号,小赤鲁8号【纯农排变】,小赤鲁12号,广门18号【纯农排变】,大赤鲁8号【纯农排变】,小赤鲁19号,小赤鲁1号【纯农排变】,大赤鲁7号【纯农排变】,大赤鲁11号,小赤鲁16号【纯农排变】,永合庄5号变压器,小赤鲁17号【纯农排变】,永合庄2号【纯农排变】,小赤鲁30号,","scope":"【影响街道/乡镇】遂城镇 【高危重要客户】无 【影响客户】大赤鲁村、小赤鲁村、永合庄村","startTime":"2018-06-02 07:00:00","stopDate":"2018-06-02 12:20:00","orgNo":"1340605","typeCode":"计划停电","poweroffArea":"【全线路停电】停大赤鲁10号,大赤鲁11号,大赤鲁12号,大赤鲁1号【纯农排变】,大赤鲁2号【纯农排变】,大赤鲁3号,大赤鲁4号,大赤鲁5号【纯农排变】,大赤鲁6号,大赤鲁7号【纯农排变】,大赤鲁8号【纯农排变】,大赤鲁9号【纯农排变】,广门18号【纯农排变】,小赤鲁10号【纯农排变】,小赤鲁11号,小赤鲁12号,小赤鲁13号【纯农排变】,小赤鲁14号,小赤鲁15号,小赤鲁16号【纯农排变】,小赤鲁17号【纯农排变】,小赤鲁18号,小赤鲁19号,小赤鲁1号【纯农排变】,小赤鲁20号,小赤鲁21号,小赤鲁22号,小赤鲁23号,小赤鲁24号,小赤鲁25号,小赤鲁26号,小赤鲁27号,小赤鲁28号,小赤鲁29号,小赤鲁2号【纯农排变】,小赤鲁30号,小赤鲁3号,小赤鲁4号,小赤鲁5号【纯农排变】,小赤鲁6号【纯农排变】,小赤鲁7号【纯农排变】,小赤鲁8号【纯农排变】,小赤鲁9号【纯农排变】,永合庄1号,永合庄2号【纯农排变】,永合庄3号【纯农排变】,永合庄4号,永合庄5号变压器","poweroffReason":"【停电原因】由于计划检修导致１１０ＫＶ黑山变电站水库５３４线路全线停电 【变更送电】因工作进度加快原因，送电时间由１５：００变更为１２：２０ 【发布渠道】通过河北省保定市徐水电视台游走滚动字幕播放（２０１８年０５月２６日０８:００至０６月０１日２０:００）","powerTime":"2018-06-02 12:06:08","powerComm":"已送电","subsNo":"","lineNo":"","tgNo":"","tgName":null,"infoStatus":"1","orgName":"国网徐水县供电公司","typeName":null,"infoStatusName":null,"dateDay":null,"orgNos":null,"nowTime":null,"countyName":null,"streetName":null,"villageName":null,"roadName":null,"communityName":null,"tranName":null,"sdLineName":null,"cityCode":"1340605","cityName":"国网徐水县供电公司","provinceCode":null,"stopTime":"2018-06-02 12:20:00","powerType":"全部","powerOffArea":"【全线路停电】停大赤鲁10号,大赤鲁11号,大赤鲁12号,大赤鲁1号【纯农排变】,大赤鲁2号【纯农排变】,大赤鲁3号,大赤鲁4号,大赤鲁5号【纯农排变】,大赤鲁6号,大赤鲁7号【纯农排变】,大赤鲁8号【纯农排变】,大赤鲁9号【纯农排变】,广门18号【纯农排变】,小赤鲁10号【纯农排变】,小赤鲁11号,小赤鲁12号,小赤鲁13号【纯农排变】,小赤鲁14号,小赤鲁15号,小赤鲁16号【纯农排变】,小赤鲁17号【纯农排变】,小赤鲁18号,小赤鲁19号,小赤鲁1号【纯农排变】,小赤鲁20号,小赤鲁21号,小赤鲁22号,小赤鲁23号,小赤鲁24号,小赤鲁25号,小赤鲁26号,小赤鲁27号,小赤鲁28号,小赤鲁29号,小赤鲁2号【纯农排变】,小赤鲁30号,小赤鲁3号,小赤鲁4号,小赤鲁5号【纯农排变】,小赤鲁6号【纯农排变】,小赤鲁7号【纯农排变】,小赤鲁8号【纯农排变】,小赤鲁9号【纯农排变】,永合庄1号,永合庄2号【纯农排变】,永合庄3号【纯农排变】,永合庄4号,永合庄5号变压器","powerOffReason":"【停电原因】由于计划检修导致１１０ＫＶ黑山变电站水库５３４线路全线停电 【变更送电】因工作进度加快原因，送电时间由１５：００变更为１２：２０ 【发布渠道】通过河北省保定市徐水电视台游走滚动字幕播放（２０１８年０５月２６日０８:００至０６月０１日２０:００）","powerOffId":"2018052113000811"},{"poweroffId":2018052113000805,"sgpoweroffId":null,"subsName":"","lineName":"工业线515","pubTranName":"保定东部矿业有限公司,古道口5168变压器,峪鑫选矿厂,运通选矿厂,陈万顺1612,石腰村1655变压器,鸿发选厂水泵2755,沙里安7167变压器【光伏】,鑫盛选矿厂2476,黄石口东4067变压器,中交路桥北方工程有限公司计量点,黄石口矿业有限公司2322,望尔峪北沟5165变压器,黄石口4945变压器,古道口3280变压器,邸铁晨水3449,唐县川里虹祥选矿厂3376,沙里安1621变压器,黄石口矿业有限公司3085,黄石口南1627变压器,岭北沙场2827,秦王砖厂1636,唐县黄石口矿业有限公司3367,志合选厂2777,上庄子5160变压器,志合选矿厂1841,黄石口石粉2257,芦苇村0866变压器,黄石口矿业公司2875,鸿发选矿厂2756,上庄村1619变压器,黄石口村2735变压器,0387525716-唐县黄石口矿业有限公司-专变-45341895-黄石口矿业有限公司2210,中国电信岭北,唐县东兴选矿厂有限公司,黄石口矿业公司2293,黄石口乡1626,昌盛选矿厂,唐县黄石口矿业有限公司,唐县福泰选矿厂,志合选矿厂2865,对子门1622变压器,岭北村1614变压器,唐县华建选厂2054,建峰养猪厂,黄石口矿山2480,中交路桥北方工程有限公司新装6735,古道口村北6823变压器,秦王砖厂10KV配变,中交路桥北方工程有限公司新装6801,唐县黄石口矿业有限公司3152,黄石口矿业公司2295,石北村1656变压器,岭北3043变压器,虹祥选矿厂2042,黄石口4777变压器,下庄新增6824变压器,中交路桥北方工程有限公司XZ6710,望尔峪6736变压器光伏,兴华分厂1228,唐县黄石口矿业有限公司3191,望尔峪1620变压器,黄石口矿业公司2666,石北水2930,石腰7052变压器,黄石口北1613变压器,赵金禄鹏翔选厂2471,中交路桥北方工程有限公司计量点P6722,陈大栓铁厂,芦苇村北cl3389变压器,药草村1596变压器,黄石口矿业公司2828,大寺上1623变压器,黄石口矿业公司2810,保定东部矿业有限公司2045,","scope":"【影响街道/乡镇】川里镇、黄石口乡【高危重要客户】无【影响客户】石腰村、石北村、古道口村、沙里安村、上庄村药草、望尔峪村、大寺上、对子门、黄石口、岭北村、乡政府、芦苇村","startTime":"2018-05-31 10:30:00","stopDate":"2018-05-31 14:00:00","orgNo":"1340622","typeCode":"计划停电","poweroffArea":"【分支停电】停鑫盛选矿厂2476,黄石口矿业公司2828,唐县华建选厂2054,黄石口矿业公司2810,志合选厂2777,唐县东兴选矿厂有限公司,志合选矿厂1841,黄石口北1613变压器,昌盛选矿厂,望尔峪北沟5165变压器,志合选矿厂2865,邸铁晨水3449,唐县川里虹祥选矿厂3376,岭北沙场2827,唐县黄石口矿业有限公司,石北水2930,石腰村1655变压器,石北村1656变压器,唐县黄石口矿业有限公司3367,鸿发选矿厂2756,黄石口东4067变压器,石腰7052变压器,赵金禄鹏翔选厂2471,黄石口矿业公司2295,黄石口村2735变压器,中交路桥北方工程有限公司XZ6710,望尔峪1620变压器,保定东部矿业有限公司2045,虹祥选矿厂2042,黄石口矿业有限公司3085,唐县黄石口矿业有限公司3152,0387525716-唐县黄石口矿业有限公司-专变-45341895-黄石口矿业有限公司2210,黄石口4945变压器,大寺上1623变压器,中交路桥北方工程有限公司新装6735,黄石口石粉2257,唐县福泰选矿厂,中交路桥北方工程有限公司新装6801,兴华分厂1228,药草村1596变压器,唐县黄石口矿业有限公司3191,沙里安7167变压器【光伏】,对子门1622变压器,古道口3280变压器,陈大栓铁厂,保定东部矿业有限公司,建峰养猪厂,下庄新增6824变压器,黄石口矿业有限公司2322,黄石口矿业公司2666,黄石口矿业公司2293,黄石口南1627变压器,芦苇村北cl3389变压器,中交路桥北方工程有限公司计量点P6722,秦王砖厂10KV配变,陈万顺1612,芦苇村0866变压器,上庄村1619变压器,鸿发选厂水泵2755,中交路桥北方工程有限公司计量点,望尔峪6736变压器光伏,运通选矿厂,岭北3043变压器,黄石口乡1626,古道口5168变压器,中国电信岭北,峪鑫选矿厂,上庄子5160变压器,黄石口4777变压器,古道口村北6823变压器,黄石口矿山2480,黄石口矿业公司2875,秦王砖厂1636,沙里安1621变压器,岭北村1614变压器","poweroffReason":"【停电原因】由于线路清扫导致３５ＫＶ川里变电站工业线５１５线路００１号杆隔离开关以下线路停电【变更送电】因工作进度加快原因,送电时间由 ２０：００变更为 １４：００【发布渠道】保定市唐县电视台（０５月２１日至０５月３０日的２０：００时至２０：３０时之间）","powerTime":"2018-05-31 13:25:56","powerComm":"已送电","subsNo":"","lineNo":"","tgNo":"","tgName":null,"infoStatus":"1","orgName":"国网唐县供电公司","typeName":null,"infoStatusName":null,"dateDay":null,"orgNos":null,"nowTime":null,"countyName":null,"streetName":null,"villageName":null,"roadName":null,"communityName":null,"tranName":null,"sdLineName":null,"cityCode":"1340622","cityName":"国网唐县供电公司","provinceCode":null,"stopTime":"2018-05-31 14:00:00","powerType":"全部","powerOffArea":"【分支停电】停鑫盛选矿厂2476,黄石口矿业公司2828,唐县华建选厂2054,黄石口矿业公司2810,志合选厂2777,唐县东兴选矿厂有限公司,志合选矿厂1841,黄石口北1613变压器,昌盛选矿厂,望尔峪北沟5165变压器,志合选矿厂2865,邸铁晨水3449,唐县川里虹祥选矿厂3376,岭北沙场2827,唐县黄石口矿业有限公司,石北水2930,石腰村1655变压器,石北村1656变压器,唐县黄石口矿业有限公司3367,鸿发选矿厂2756,黄石口东4067变压器,石腰7052变压器,赵金禄鹏翔选厂2471,黄石口矿业公司2295,黄石口村2735变压器,中交路桥北方工程有限公司XZ6710,望尔峪1620变压器,保定东部矿业有限公司2045,虹祥选矿厂2042,黄石口矿业有限公司3085,唐县黄石口矿业有限公司3152,0387525716-唐县黄石口矿业有限公司-专变-45341895-黄石口矿业有限公司2210,黄石口4945变压器,大寺上1623变压器,中交路桥北方工程有限公司新装6735,黄石口石粉2257,唐县福泰选矿厂,中交路桥北方工程有限公司新装6801,兴华分厂1228,药草村1596变压器,唐县黄石口矿业有限公司3191,沙里安7167变压器【光伏】,对子门1622变压器,古道口3280变压器,陈大栓铁厂,保定东部矿业有限公司,建峰养猪厂,下庄新增6824变压器,黄石口矿业有限公司2322,黄石口矿业公司2666,黄石口矿业公司2293,黄石口南1627变压器,芦苇村北cl3389变压器,中交路桥北方工程有限公司计量点P6722,秦王砖厂10KV配变,陈万顺1612,芦苇村0866变压器,上庄村1619变压器,鸿发选厂水泵2755,中交路桥北方工程有限公司计量点,望尔峪6736变压器光伏,运通选矿厂,岭北3043变压器,黄石口乡1626,古道口5168变压器,中国电信岭北,峪鑫选矿厂,上庄子5160变压器,黄石口4777变压器,古道口村北6823变压器,黄石口矿山2480,黄石口矿业公司2875,秦王砖厂1636,沙里安1621变压器,岭北村1614变压器","powerOffReason":"【停电原因】由于线路清扫导致３５ＫＶ川里变电站工业线５１５线路００１号杆隔离开关以下线路停电【变更送电】因工作进度加快原因,送电时间由 ２０：００变更为 １４：００【发布渠道】保定市唐县电视台（０５月２１日至０５月３０日的２０：００时至２０：３０时之间）","powerOffId":"2018052113000805"},{"poweroffId":2018052113000796,"sgpoweroffId":null,"subsName":"","lineName":"川倒线516","pubTranName":"西苇子4388变压器,0387525732-唐县永旺选矿厂-专变-45341938-唐县永旺选矿厂3143,唐县恒川水泥砖厂,磊鑫选矿厂2987,川里新增4051变压器,川里村荒山开发2939,涧子沟1654变压器,西苇子5171变压器,龙鑫选矿厂2038,川里面粉厂1240,大石峪景区2653,金泰选矿厂2945,大石峪金矿2364\\2364,永盛制砖有限公司3069,刘家沟1771变压器,段庄子1783变压器,大石峪4177变压器,五家铺1781变压器,川里西2794变压器,0565327387-唐县大石峪金矿有限公司-专变-118673351-唐县大石峪金矿有限公司变压器,大石峪金矿2475,铁十三局水电4001-1,西苇子6595变压器,唐县联通公司2977,徐唐选矿厂1820,隆基水电,东庄子水1847变压器,黑龙洞1784变压器,金大地选厂,陈志云煤厂2830,倒马关4949变压器,移动基站2399,利达选矿厂2378,倒马关4784变压器,凯达选厂1739,广益加油站1810,温州水电4003,倒马关1777变压器,望尔峪6657变压器,大石峪4739变压器,唐县锦隆选矿厂2998,刘家庄1769变压器,隆基水电4002,南下沟1778变压器,川西选矿厂2905,永盛制砖有限公司3070,大石峪1782变压器,刘家庄1774变压器,民安庄1764变压器,唐县地天泰煤厂,0387525758-大石峪金矿-专变-125432801-大石峪金矿,西苇子1766变压器,红花1768变压器,川里太行加油站2075,双飞选矿厂2313,南下沟4011变压器,鑫丰选厂,马保国10KV新建,0549345798-唐县大石峪金矿有限公司-专变-48243973-唐县大石峪金矿有限公司3439,铁十三局4004,南上沟1779变压器,刘家庄6566变压器,民安庄4944变压器,上村口1776变压器,唐县龙鑫选矿厂新装变台,新城1785变压器,恒达免烧砖厂3008,虫王沟1773变压器,唐县川里加油站2876,兴达煤场2779,小朋选矿厂用水,东庄子1767变压器,东庄子南2622变压器,天用选矿厂2988,东庄子6632变压器,南下沟5167变压器,永康选矿厂2873,","scope":"【影响街道/乡镇】倒马关乡、川里镇【高危重要客户】无【影响客户】上城口、牛家庄、大石峪村、南上沟村、刘家沟、虫王沟、刘家庄、倒马关村、南下沟村、东庄子、红花、石北、川里村、西苇子村、民安庄村","startTime":"2018-05-31 10:30:00","stopDate":"2018-05-31 14:00:00","orgNo":"1340622","typeCode":"计划停电","poweroffArea":"【全线路停电】停0387525758-大石峪金矿-专变-125432801-大石峪金矿,陈志云煤厂2830,马保国10KV新建,大石峪4177变压器,龙鑫选矿厂2038,上村口1776变压器,0549345798-唐县大石峪金矿有限公司-专变-48243973-唐县大石峪金矿有限公司3439,永康选矿厂2873,五家铺1781变压器,川里村荒山开发2939,凯达选厂1739,东庄子南2622变压器,西苇子4388变压器,倒马关1777变压器,黑龙洞1784变压器,隆基水电,永盛制砖有限公司3070,0565327387-唐县大石峪金矿有限公司-专变-118673351-唐县大石峪金矿有限公司变压器,西苇子1766变压器,温州水电4003,东庄子1767变压器,东庄子6632变压器,唐县锦隆选矿厂2998,大石峪1782变压器,川西选矿厂2905,铁十三局水电4001-1,铁十三局4004,民安庄4944变压器,金泰选矿厂2945,西苇子5171变压器,隆基水电4002,新城1785变压器,倒马关4949变压器,段庄子1783变压器,南下沟4011变压器,鑫丰选厂,永盛制砖有限公司3069,刘家庄1769变压器,广益加油站1810,恒达免烧砖厂3008,涧子沟1654变压器,刘家庄1774变压器,川里面粉厂1240,唐县川里加油站2876,南下沟5167变压器,兴达煤场2779,天用选矿厂2988,0387525732-唐县永旺选矿厂-专变-45341938-唐县永旺选矿厂3143,虫王沟1773变压器,望尔峪6657变压器,小朋选矿厂用水,磊鑫选矿厂2987,大石峪景区2653,倒马关4784变压器,金大地选厂,西苇子6595变压器,川里西2794变压器,南上沟1779变压器,唐县龙鑫选矿厂新装变台,民安庄1764变压器,东庄子水1847变压器,红花1768变压器,刘家沟1771变压器,大石峪4739变压器,唐县恒川水泥砖厂,川里新增4051变压器,唐县联通公司2977,南下沟1778变压器,唐县地天泰煤厂,徐唐选矿厂1820,刘家庄6566变压器,川里太行加油站2075,双飞选矿厂2313,大石峪金矿2364\\2364,利达选矿厂2378,移动基站2399,大石峪金矿2475","poweroffReason":"【停电原因】由于线路清扫导致３５ＫＶ川里变电站川倒线５１６线路全线停电【变更送电】因工作进度加快原因,送电时间由 ２０：００变更为 １４：００【发布渠道】保定市唐县电视台（０５月２１日至０５月３０日的２０：００时至２０：３０时之间）","powerTime":"2018-05-31 13:28:29","powerComm":"已送电","subsNo":"","lineNo":"","tgNo":"","tgName":null,"infoStatus":"1","orgName":"国网唐县供电公司","typeName":null,"infoStatusName":null,"dateDay":null,"orgNos":null,"nowTime":null,"countyName":null,"streetName":null,"villageName":null,"roadName":null,"communityName":null,"tranName":null,"sdLineName":null,"cityCode":"1340622","cityName":"国网唐县供电公司","provinceCode":null,"stopTime":"2018-05-31 14:00:00","powerType":"全部","powerOffArea":"【全线路停电】停0387525758-大石峪金矿-专变-125432801-大石峪金矿,陈志云煤厂2830,马保国10KV新建,大石峪4177变压器,龙鑫选矿厂2038,上村口1776变压器,0549345798-唐县大石峪金矿有限公司-专变-48243973-唐县大石峪金矿有限公司3439,永康选矿厂2873,五家铺1781变压器,川里村荒山开发2939,凯达选厂1739,东庄子南2622变压器,西苇子4388变压器,倒马关1777变压器,黑龙洞1784变压器,隆基水电,永盛制砖有限公司3070,0565327387-唐县大石峪金矿有限公司-专变-118673351-唐县大石峪金矿有限公司变压器,西苇子1766变压器,温州水电4003,东庄子1767变压器,东庄子6632变压器,唐县锦隆选矿厂2998,大石峪1782变压器,川西选矿厂2905,铁十三局水电4001-1,铁十三局4004,民安庄4944变压器,金泰选矿厂2945,西苇子5171变压器,隆基水电4002,新城1785变压器,倒马关4949变压器,段庄子1783变压器,南下沟4011变压器,鑫丰选厂,永盛制砖有限公司3069,刘家庄1769变压器,广益加油站1810,恒达免烧砖厂3008,涧子沟1654变压器,刘家庄1774变压器,川里面粉厂1240,唐县川里加油站2876,南下沟5167变压器,兴达煤场2779,天用选矿厂2988,0387525732-唐县永旺选矿厂-专变-45341938-唐县永旺选矿厂3143,虫王沟1773变压器,望尔峪6657变压器,小朋选矿厂用水,磊鑫选矿厂2987,大石峪景区2653,倒马关4784变压器,金大地选厂,西苇子6595变压器,川里西2794变压器,南上沟1779变压器,唐县龙鑫选矿厂新装变台,民安庄1764变压器,东庄子水1847变压器,红花1768变压器,刘家沟1771变压器,大石峪4739变压器,唐县恒川水泥砖厂,川里新增4051变压器,唐县联通公司2977,南下沟1778变压器,唐县地天泰煤厂,徐唐选矿厂1820,刘家庄6566变压器,川里太行加油站2075,双飞选矿厂2313,大石峪金矿2364\\2364,利达选矿厂2378,移动基站2399,大石峪金矿2475","powerOffReason":"【停电原因】由于线路清扫导致３５ＫＶ川里变电站川倒线５１６线路全线停电【变更送电】因工作进度加快原因,送电时间由 ２０：００变更为 １４：００【发布渠道】保定市唐县电视台（０５月２１日至０５月３０日的２０：００时至２０：３０时之间）","powerOffId":"2018052113000796"}],"pageModel":{"pageNow":1085,"totalCount":10973,"totalPage":1098,"tableRows":0,"pageCount":10,"beginCount":10840},"isExperi":"1"}