{"message":"","today":"2020-06-15","seleList":[{"poweroffId":2018052113000263,"sgpoweroffId":null,"subsName":"","lineName":"10KV广场511","pubTranName":"李新,0387554325-河北惠友商业连锁发展有限公司-专变-45355729-河北惠友商业连锁发展有限公司,保定市民生房地产开发有限公司,涿州市鸿盛房地产开有限公司3,涿州市鸿盛房地产开有限公司7,涿州市宜佳旺购物广场商贸有限公司2,涿州市鸿盛房地产开有限公司1,涿州市鸿盛房地产开有限公司8,涿州市鸿盛房地产开有限公司6,62316部队,开发区供电所公用,0551286739-河北省涿州市远方名流房地产开发有限公司-专变-172480633-河北省涿州市远方名流房地产开发有限公司2,0646711634-涿州市南海鱼村房地产开发有限公司-专变-169947302-涿州市南海鱼村房地产开发有限公司,涿州市宜佳旺购物广场商贸有限公司1,涿州市博纳高品科技有限公司,0575228263-涿州市新立马房地产开发有限公司-专变-123954623-涿州市新立马房地产开发有限公司2,涿州市鸿盛房地产开发有限公司9,涿州市鸿盛房地产开有限公司5,涿州市伯力恒集团房地产开发有限公司3,涿州市鸿盛房地产开发有限公司10,0387553915-涿州市南海鱼村房地产开发有限公司-专变-45355764-涿州市华融商贸有限公司,槐林小区名流0356【纯农排变】,涿州市鸿盛房地产开发有限公司11,市政管理处,涿州市京热热力有限责任公司,广场511公用3841,0387555487-涿州市开发区北鑫家居广场-专变-45355762-北鑫家居,0575228263-涿州市新立马房地产开发有限公司-专变-123954630-涿州市新立马房地产开发有限公司1,天外天酒店,涿州市鸿盛房地产开有限公司4,中国银行股份有限公司涿州支行变压器,0551286739-河北省涿州市远方名流房地产开发有限公司-专变-172480635-河北省涿州市远方名流房地产开发有限公司1,0646712754-涿州市南海鱼村房地产开发有限公司-专变-169949792-涿州市南海鱼村房地产开发有限公司,涿州市鸿盛房地产开有限公司2,涿州市鸿盛房地产开发有限公司12,","scope":"【影响街道/乡镇】徐里营城区 【高危重要客户】无 【影响客户】槐林小区名流、惠友生活广场、肯德基、劳技校、市政管理处、红蕃、中行、宜家旺、涿州市中医院、６２３１６部队、北鑫家居、天外天酒店、华融商贸有限公司、民生房地产开发有限公司","startTime":"2018-05-30 06:00:00","stopDate":"2018-05-30 19:00:00","orgNo":"1340626","typeCode":"计划停电","poweroffArea":"【全线路停电】停开发区供电所公用,涿州市鸿盛房地产开有限公司2,李新,涿州市鸿盛房地产开有限公司3,涿州市伯力恒集团房地产开发有限公司3,槐林小区名流0356【纯农排变】,0387555487-涿州市开发区北鑫家居广场-专变-45355762-北鑫家居,0387553915-涿州市南海鱼村房地产开发有限公司-专变-45355764-涿州市华融商贸有限公司,涿州市鸿盛房地产开发有限公司10,涿州市鸿盛房地产开有限公司1,涿州市宜佳旺购物广场商贸有限公司1,涿州市鸿盛房地产开发有限公司9,天外天酒店,涿州市鸿盛房地产开发有限公司11,市政管理处,涿州市鸿盛房地产开有限公司7,0575228263-涿州市新立马房地产开发有限公司-专变-123954623-涿州市新立马房地产开发有限公司2,0646712754-涿州市南海鱼村房地产开发有限公司-专变-169949792-涿州市南海鱼村房地产开发有限公司,0575228263-涿州市新立马房地产开发有限公司-专变-123954630-涿州市新立马房地产开发有限公司1,0551286739-河北省涿州市远方名流房地产开发有限公司-专变-172480633-河北省涿州市远方名流房地产开发有限公司2,0646711634-涿州市南海鱼村房地产开发有限公司-专变-169947302-涿州市南海鱼村房地产开发有限公司,0551286739-河北省涿州市远方名流房地产开发有限公司-专变-172480635-河北省涿州市远方名流房地产开发有限公司1,涿州市鸿盛房地产开有限公司6,涿州市鸿盛房地产开有限公司8,涿州市京热热力有限责任公司,涿州市博纳高品科技有限公司,涿州市鸿盛房地产开有限公司5,涿州市宜佳旺购物广场商贸有限公司2,62316部队,保定市民生房地产开发有限公司,中国银行股份有限公司涿州支行变压器,0387554325-河北惠友商业连锁发展有限公司-专变-45355729-河北惠友商业连锁发展有限公司,广场511公用3841,涿州市鸿盛房地产开有限公司4,涿州市鸿盛房地产开发有限公司12","poweroffReason":"【停电原因】由于线路切改、煤改电工程导致３５ＫＶ城北变电站１０ＫＶ广场５１１线路全线停电 【变更送电】无 【发布渠道】涿州电视台（０５月２１日至０５月２９日２１：００播放２次）屏幕上方滚动","powerTime":"2018-05-30 18:12:26","powerComm":"恢复送电","subsNo":"","lineNo":"","tgNo":"","tgName":null,"infoStatus":"1","orgName":"国网涿州市供电公司","typeName":null,"infoStatusName":null,"dateDay":null,"orgNos":null,"nowTime":null,"countyName":null,"streetName":null,"villageName":null,"roadName":null,"communityName":null,"tranName":null,"sdLineName":null,"cityCode":"1340626","cityName":"国网涿州市供电公司","provinceCode":null,"stopTime":"2018-05-30 19:00:00","powerType":"全部","powerOffArea":"【全线路停电】停开发区供电所公用,涿州市鸿盛房地产开有限公司2,李新,涿州市鸿盛房地产开有限公司3,涿州市伯力恒集团房地产开发有限公司3,槐林小区名流0356【纯农排变】,0387555487-涿州市开发区北鑫家居广场-专变-45355762-北鑫家居,0387553915-涿州市南海鱼村房地产开发有限公司-专变-45355764-涿州市华融商贸有限公司,涿州市鸿盛房地产开发有限公司10,涿州市鸿盛房地产开有限公司1,涿州市宜佳旺购物广场商贸有限公司1,涿州市鸿盛房地产开发有限公司9,天外天酒店,涿州市鸿盛房地产开发有限公司11,市政管理处,涿州市鸿盛房地产开有限公司7,0575228263-涿州市新立马房地产开发有限公司-专变-123954623-涿州市新立马房地产开发有限公司2,0646712754-涿州市南海鱼村房地产开发有限公司-专变-169949792-涿州市南海鱼村房地产开发有限公司,0575228263-涿州市新立马房地产开发有限公司-专变-123954630-涿州市新立马房地产开发有限公司1,0551286739-河北省涿州市远方名流房地产开发有限公司-专变-172480633-河北省涿州市远方名流房地产开发有限公司2,0646711634-涿州市南海鱼村房地产开发有限公司-专变-169947302-涿州市南海鱼村房地产开发有限公司,0551286739-河北省涿州市远方名流房地产开发有限公司-专变-172480635-河北省涿州市远方名流房地产开发有限公司1,涿州市鸿盛房地产开有限公司6,涿州市鸿盛房地产开有限公司8,涿州市京热热力有限责任公司,涿州市博纳高品科技有限公司,涿州市鸿盛房地产开有限公司5,涿州市宜佳旺购物广场商贸有限公司2,62316部队,保定市民生房地产开发有限公司,中国银行股份有限公司涿州支行变压器,0387554325-河北惠友商业连锁发展有限公司-专变-45355729-河北惠友商业连锁发展有限公司,广场511公用3841,涿州市鸿盛房地产开有限公司4,涿州市鸿盛房地产开发有限公司12","powerOffReason":"【停电原因】由于线路切改、煤改电工程导致３５ＫＶ城北变电站１０ＫＶ广场５１１线路全线停电 【变更送电】无 【发布渠道】涿州电视台（０５月２１日至０５月２９日２１：００播放２次）屏幕上方滚动","powerOffId":"2018052113000263"},{"poweroffId":2018052113000246,"sgpoweroffId":null,"subsName":"","lineName":"10KV松马517","pubTranName":"松林店村西1567【纯农排变】,","scope":"【影响街道/乡镇】松林店镇 【高危重要客户】无 【影响客户】松林店村","startTime":"2018-05-30 07:00:00","stopDate":"2018-05-30 18:30:00","orgNo":"1340626","typeCode":"计划停电","poweroffArea":"【单台区停电】停松林店村西1567【纯农排变】","poweroffReason":"【停电原因】由于煤改电工程导致３５ＫＶ松林店变电站１０ＫＶ松马５１７线路松林店村西１５６７公变台区停电 【变更送电】无 【发布渠道】涿州电视台（０５月２１日至０５月２９日２１：００播放２次）屏幕上方滚动","powerTime":"2018-05-30 18:13:26","powerComm":"恢复送电","subsNo":"","lineNo":"","tgNo":"","tgName":null,"infoStatus":"1","orgName":"国网涿州市供电公司","typeName":null,"infoStatusName":null,"dateDay":null,"orgNos":null,"nowTime":null,"countyName":null,"streetName":null,"villageName":null,"roadName":null,"communityName":null,"tranName":null,"sdLineName":null,"cityCode":"1340626","cityName":"国网涿州市供电公司","provinceCode":null,"stopTime":"2018-05-30 18:30:00","powerType":"全部","powerOffArea":"【单台区停电】停松林店村西1567【纯农排变】","powerOffReason":"【停电原因】由于煤改电工程导致３５ＫＶ松林店变电站１０ＫＶ松马５１７线路松林店村西１５６７公变台区停电 【变更送电】无 【发布渠道】涿州电视台（０５月２１日至０５月２９日２１：００播放２次）屏幕上方滚动","powerOffId":"2018052113000246"},{"poweroffId":2018052013000272,"sgpoweroffId":null,"subsName":"","lineName":"10kV515孙庄线","pubTranName":"孙庄综合2台区,孙庄4台区,建国,蠡县瑞祥纺织厂变压器,宋庄综合4台区,蠡县林堡乡宋庄小学变压器,杨马庄综合1台区,杨马庄综合2台区,孙庄综合1台区,蠡县润通纺织有限公司变压器,宋庄西浇地,宋庄综合6台区,宋庄综合3台区,林堡综合14台区,华泽,杨马庄综合11台区,建修华盛棉织,孙庄浇地2,0469456501-蠡县泽丰纺织有限公司-专变-214329266-蠡县泽丰纺织有限公司变压器,孙庄综合5台区,兴达,建成织布,杨马庄综合8台区,杨马庄农排7台区【纯农排变】,杨马庄综合9台区,板厂,杨马庄综合10台区,孙庄6号,林北一,孙庄浇地1号,林堡4号,0546610927-蠡县宏源纺织有限公司-专变-48017880-宋庄兴达棉织厂变压器,宋庄综合5台区,宋庄综合1台区,孙庄综合3台区,孙庄7号,0667625530-蠡县林堡乡宋家庄村卫生室-专变-208434804-蠡县林堡乡宋家庄村卫生室,林堡面粉厂,蠡县瑞合纺织有限公司变压器,林堡3号,蠡县益源棉织厂变压器,杨马庄农排3台区【纯农排变】,0618194577-蠡县润仕纺织有限公司-专变-208418455-蠡县润仕纺织有限公司,孙庄3台区,蠡县达盛纺织厂变压器,孙庄综合4台区,林北二,宋庄综合7台区,杨马庄农排6台区【纯农排变】,宋庄村北变压器,林堡综合7台区,二军浇地,宋庄综合2台区,杨马庄农排5台区【纯农排变】,杨马庄农排4台区【纯农排变】,中国移动通信集团河北有限公司蠡县分公司变压器,孙庄织布,","scope":"【影响街道/乡镇】林堡乡【高危重要客户】无【影响客户】孙庄村、宋庄村、杨马庄村、林堡村","startTime":"2018-05-29 20:30:00","stopDate":"2018-05-29 23:00:00","orgNo":"1340616","typeCode":"计划停电","poweroffArea":"【全线路停电】停蠡县达盛纺织厂变压器,杨马庄综合10台区,宋庄西浇地,建成织布,宋庄综合6台区,建国,0546610927-蠡县宏源纺织有限公司-专变-48017880-宋庄兴达棉织厂变压器,孙庄浇地2,孙庄织布,孙庄6号,孙庄3台区,宋庄综合3台区,孙庄综合5台区,孙庄综合1台区,孙庄4台区,杨马庄农排3台区【纯农排变】,孙庄浇地1号,孙庄7号,杨马庄农排5台区【纯农排变】,建修华盛棉织,板厂,兴达,华泽,杨马庄综合9台区,孙庄综合3台区,杨马庄综合1台区,蠡县瑞祥纺织厂变压器,蠡县林堡乡宋庄小学变压器,蠡县润通纺织有限公司变压器,杨马庄综合8台区,宋庄综合4台区,孙庄综合2台区,宋庄综合7台区,0469456501-蠡县泽丰纺织有限公司-专变-214329266-蠡县泽丰纺织有限公司变压器,宋庄综合1台区,宋庄综合2台区,宋庄村北变压器,杨马庄综合2台区,林堡4号,林北一,孙庄综合4台区,杨马庄农排7台区【纯农排变】,林堡面粉厂,杨马庄综合11台区,二军浇地,林堡综合14台区,林堡3号,0618194577-蠡县润仕纺织有限公司-专变-208418455-蠡县润仕纺织有限公司,中国移动通信集团河北有限公司蠡县分公司变压器,0667625530-蠡县林堡乡宋家庄村卫生室-专变-208434804-蠡县林堡乡宋家庄村卫生室,林堡综合7台区,宋庄综合5台区,蠡县益源棉织厂变压器,蠡县瑞合纺织有限公司变压器,林北二,杨马庄农排6台区【纯农排变】,杨马庄农排4台区【纯农排变】","poweroffReason":"【停电原因】由于开关试验导致３５ＫＶ林堡变电站１０ＫＶ孙庄５１５线路全线停电【变更送电】无【发布渠道】河北省保定市蠡县电视台（２０１８年０５月２０日至２０１８年０５月２８日２０：００至２２：００之间）屏幕上方滚动　　　","powerTime":"2018-05-29 22:04:22","powerComm":"已送电","subsNo":"","lineNo":"","tgNo":"","tgName":null,"infoStatus":"1","orgName":"国网蠡县供电公司","typeName":null,"infoStatusName":null,"dateDay":null,"orgNos":null,"nowTime":null,"countyName":null,"streetName":null,"villageName":null,"roadName":null,"communityName":null,"tranName":null,"sdLineName":null,"cityCode":"1340616","cityName":"国网蠡县供电公司","provinceCode":null,"stopTime":"2018-05-29 23:00:00","powerType":"全部","powerOffArea":"【全线路停电】停蠡县达盛纺织厂变压器,杨马庄综合10台区,宋庄西浇地,建成织布,宋庄综合6台区,建国,0546610927-蠡县宏源纺织有限公司-专变-48017880-宋庄兴达棉织厂变压器,孙庄浇地2,孙庄织布,孙庄6号,孙庄3台区,宋庄综合3台区,孙庄综合5台区,孙庄综合1台区,孙庄4台区,杨马庄农排3台区【纯农排变】,孙庄浇地1号,孙庄7号,杨马庄农排5台区【纯农排变】,建修华盛棉织,板厂,兴达,华泽,杨马庄综合9台区,孙庄综合3台区,杨马庄综合1台区,蠡县瑞祥纺织厂变压器,蠡县林堡乡宋庄小学变压器,蠡县润通纺织有限公司变压器,杨马庄综合8台区,宋庄综合4台区,孙庄综合2台区,宋庄综合7台区,0469456501-蠡县泽丰纺织有限公司-专变-214329266-蠡县泽丰纺织有限公司变压器,宋庄综合1台区,宋庄综合2台区,宋庄村北变压器,杨马庄综合2台区,林堡4号,林北一,孙庄综合4台区,杨马庄农排7台区【纯农排变】,林堡面粉厂,杨马庄综合11台区,二军浇地,林堡综合14台区,林堡3号,0618194577-蠡县润仕纺织有限公司-专变-208418455-蠡县润仕纺织有限公司,中国移动通信集团河北有限公司蠡县分公司变压器,0667625530-蠡县林堡乡宋家庄村卫生室-专变-208434804-蠡县林堡乡宋家庄村卫生室,林堡综合7台区,宋庄综合5台区,蠡县益源棉织厂变压器,蠡县瑞合纺织有限公司变压器,林北二,杨马庄农排6台区【纯农排变】,杨马庄农排4台区【纯农排变】","powerOffReason":"【停电原因】由于开关试验导致３５ＫＶ林堡变电站１０ＫＶ孙庄５１５线路全线停电【变更送电】无【发布渠道】河北省保定市蠡县电视台（２０１８年０５月２０日至２０１８年０５月２８日２０：００至２２：００之间）屏幕上方滚动　　　","powerOffId":"2018052013000272"},{"poweroffId":2018052013000233,"sgpoweroffId":null,"subsName":"","lineName":"10kV511潘营线","pubTranName":"志敏房,渡槽,渡槽西,王辛庄综合11台区,蛮营道东,砖厂北,王辛庄综合9台区,王辛庄综合12台区.,蛮营道,面粉厂,王辛庄综合1台区,林曲路南新变,志敏房东,林曲北2号,沟南,王辛庄综合6台区,板厂,潘西砖厂,中国联合网络通信有限公司蠡县分公司变压器,林曲南1号,王辛庄综合10台区,王辛庄综合3台区,王辛庄综合2台区,王辛庄综合7台区,加弹厂北,林曲北1号,（2）6台区西营道,加弹厂浇地,朱坟,王辛庄小学西,王辛庄村东,王辛庄综合5台区,王辛庄综合8台区,王辛庄综合4台区,","scope":"【影响街道/乡镇】林堡乡【高危重要客户】无【影响客户】王辛庄村","startTime":"2018-05-29 20:30:00","stopDate":"2018-05-29 23:00:00","orgNo":"1340616","typeCode":"计划停电","poweroffArea":"【全线路停电】停加弹厂北,加弹厂浇地,蛮营道东,蛮营道,志敏房,志敏房东,板厂,渡槽,王辛庄小学西,面粉厂,王辛庄综合10台区,王辛庄综合11台区,王辛庄综合5台区,王辛庄综合6台区,王辛庄综合9台区,王辛庄综合2台区,王辛庄综合1台区,林曲南1号,王辛庄综合4台区,渡槽西,林曲北2号,潘西砖厂,林曲路南新变,（2）6台区西营道,王辛庄综合8台区,朱坟,王辛庄综合3台区,林曲北1号,沟南,砖厂北,王辛庄村东,中国联合网络通信有限公司蠡县分公司变压器,王辛庄综合12台区.,王辛庄综合7台区","poweroffReason":"【停电原因】由于开关试验导致３５ＫＶ林堡变电站１０ＫＶ潘营５１１线路全线停电【变更送电】无【发布渠道】河北省保定市蠡县电视台（２０１８年０５月２０日至２０１８年０５月２８日２０：００至２２：００之间）屏幕上方滚动　　　","powerTime":"2018-05-29 22:04:58","powerComm":"已送电","subsNo":"","lineNo":"","tgNo":"","tgName":null,"infoStatus":"1","orgName":"国网蠡县供电公司","typeName":null,"infoStatusName":null,"dateDay":null,"orgNos":null,"nowTime":null,"countyName":null,"streetName":null,"villageName":null,"roadName":null,"communityName":null,"tranName":null,"sdLineName":null,"cityCode":"1340616","cityName":"国网蠡县供电公司","provinceCode":null,"stopTime":"2018-05-29 23:00:00","powerType":"全部","powerOffArea":"【全线路停电】停加弹厂北,加弹厂浇地,蛮营道东,蛮营道,志敏房,志敏房东,板厂,渡槽,王辛庄小学西,面粉厂,王辛庄综合10台区,王辛庄综合11台区,王辛庄综合5台区,王辛庄综合6台区,王辛庄综合9台区,王辛庄综合2台区,王辛庄综合1台区,林曲南1号,王辛庄综合4台区,渡槽西,林曲北2号,潘西砖厂,林曲路南新变,（2）6台区西营道,王辛庄综合8台区,朱坟,王辛庄综合3台区,林曲北1号,沟南,砖厂北,王辛庄村东,中国联合网络通信有限公司蠡县分公司变压器,王辛庄综合12台区.,王辛庄综合7台区","powerOffReason":"【停电原因】由于开关试验导致３５ＫＶ林堡变电站１０ＫＶ潘营５１１线路全线停电【变更送电】无【发布渠道】河北省保定市蠡县电视台（２０１８年０５月２０日至２０１８年０５月２８日２０：００至２２：００之间）屏幕上方滚动　　　","powerOffId":"2018052013000233"},{"poweroffId":2018052013000227,"sgpoweroffId":null,"subsName":"","lineName":"十白线526","pubTranName":"0387445858-魏洪海-专变-45280082-魏洪海,永康制线厂,高桥西,高桥北,高桥10,高桥中,高金花,变压器630,高桥中9,电瓶厂3,高桥北2,高桥南2,高桥11号,高桥南,电瓶厂200,白沟新城规划建设局(北一环路灯3),变压器315,高桥中8学校,0612093386-保定白沟新城恒利五金压铸厂-专变-216214635-变压器,高桥生态别墅小区变压器,雨水提升泵站,高桥2,变压器,高碑店市帛隆无纺布有限公司,","scope":"【影响街道/乡镇】白沟镇、北一环 【高危重要客户】无 【影响客户】高桥村、帛隆无纺布、帝威五金压铸、白沟新城恒利五金压铸厂、高桥生态别墅小区、白沟雨水提升泵站、张素萍（圆通物流）、魏庄菜市场","startTime":"2018-05-29 08:00:00","stopDate":"2018-05-29 18:00:00","orgNo":"1340612","typeCode":"计划停电","poweroffArea":"【全线路停电】停高桥生态别墅小区变压器,高金花,永康制线厂,高桥北2,高桥北,变压器315,白沟新城规划建设局(北一环路灯3),高桥10,变压器630,高桥2,高桥11号,高桥南2,雨水提升泵站,电瓶厂3,0387445858-魏洪海-专变-45280082-魏洪海,高桥中,电瓶厂200,高桥中8学校,高桥中9,高桥西,0612093386-保定白沟新城恒利五金压铸厂-专变-216214635-变压器,变压器,高碑店市帛隆无纺布有限公司,高桥南","poweroffReason":"【停电原因】由于负荷切改导致１１０ＫＶ白沟变电站１０ＫＶ十白５２６线路全线停电 【变更送电】无 【发布渠道】高碑店市高碑店电视台（５月２１日０８时至５月２８日１８时之间）屏幕上方滚动","powerTime":"2018-05-29 17:20:22","powerComm":"已送电","subsNo":"","lineNo":"","tgNo":"","tgName":null,"infoStatus":"1","orgName":"国网高碑店市供电公司","typeName":null,"infoStatusName":null,"dateDay":null,"orgNos":null,"nowTime":null,"countyName":null,"streetName":null,"villageName":null,"roadName":null,"communityName":null,"tranName":null,"sdLineName":null,"cityCode":"1340612","cityName":"国网高碑店市供电公司","provinceCode":null,"stopTime":"2018-05-29 18:00:00","powerType":"全部","powerOffArea":"【全线路停电】停高桥生态别墅小区变压器,高金花,永康制线厂,高桥北2,高桥北,变压器315,白沟新城规划建设局(北一环路灯3),高桥10,变压器630,高桥2,高桥11号,高桥南2,雨水提升泵站,电瓶厂3,0387445858-魏洪海-专变-45280082-魏洪海,高桥中,电瓶厂200,高桥中8学校,高桥中9,高桥西,0612093386-保定白沟新城恒利五金压铸厂-专变-216214635-变压器,变压器,高碑店市帛隆无纺布有限公司,高桥南","powerOffReason":"【停电原因】由于负荷切改导致１１０ＫＶ白沟变电站１０ＫＶ十白５２６线路全线停电 【变更送电】无 【发布渠道】高碑店市高碑店电视台（５月２１日０８时至５月２８日１８时之间）屏幕上方滚动","powerOffId":"2018052013000227"},{"poweroffId":2018052013000224,"sgpoweroffId":null,"subsName":"","lineName":"10kV513宋庄工业线","pubTranName":"恒业纺织有限公司变压器2,大水,宏业纺织厂,宋庄四台区,宋庄北二,|新金利纺织有限公司,恒业纺织有限公司3,华泽纺织有限公司,小刚织布厂,顺成棉业,二团,二涛,跃军,新金利纺织有限公司,恒业纺织有限公司5,蠡县宋庄益源棉织厂变压器,瑞天纺织,威胜毛纺厂,桂林,国中织布,金鑫纺织有限公司变压器,恒业纺织变压器1,宋庄北浇地,鑫达,金鑫纺织有限公司,艳军,宋庄浇地,永发,旭光毛纺厂,华泰纺织有限公司,恒业纺织有限公司6,","scope":"【影响街道/乡镇】林堡乡【高危重要客户】无【影响客户】宋庄工业区","startTime":"2018-05-29 06:00:00","stopDate":"2018-05-29 21:30:00","orgNo":"1340616","typeCode":"计划停电","poweroffArea":"【全线路停电】停二涛,顺成棉业,艳军,华泰纺织有限公司,|新金利纺织有限公司,宋庄四台区,小刚织布厂,宋庄浇地,恒业纺织有限公司5,国中织布,二团,恒业纺织有限公司6,跃军,宏业纺织厂,威胜毛纺厂,金鑫纺织有限公司变压器,永发,大水,金鑫纺织有限公司,桂林,宋庄北浇地,新金利纺织有限公司,宋庄北二,鑫达,恒业纺织有限公司3,蠡县宋庄益源棉织厂变压器,恒业纺织有限公司变压器2,恒业纺织变压器1,瑞天纺织,华泽纺织有限公司,旭光毛纺厂","poweroffReason":"【停电原因】由于变台改造导致３５ＫＶ林堡变电站１０ＫＶ宋庄工业５１３线路全线停电【变更送电】因计划检修进度加快原因，送电时间由２３：３０变更为２１：３０【发布渠道】蠡县电视台（０５月２０日至０５月２８日２０：００至２２：００之间）屏幕上方滚动","powerTime":"2018-05-29 20:46:56","powerComm":"已送电","subsNo":"","lineNo":"","tgNo":"","tgName":null,"infoStatus":"1","orgName":"国网蠡县供电公司","typeName":null,"infoStatusName":null,"dateDay":null,"orgNos":null,"nowTime":null,"countyName":null,"streetName":null,"villageName":null,"roadName":null,"communityName":null,"tranName":null,"sdLineName":null,"cityCode":"1340616","cityName":"国网蠡县供电公司","provinceCode":null,"stopTime":"2018-05-29 21:30:00","powerType":"全部","powerOffArea":"【全线路停电】停二涛,顺成棉业,艳军,华泰纺织有限公司,|新金利纺织有限公司,宋庄四台区,小刚织布厂,宋庄浇地,恒业纺织有限公司5,国中织布,二团,恒业纺织有限公司6,跃军,宏业纺织厂,威胜毛纺厂,金鑫纺织有限公司变压器,永发,大水,金鑫纺织有限公司,桂林,宋庄北浇地,新金利纺织有限公司,宋庄北二,鑫达,恒业纺织有限公司3,蠡县宋庄益源棉织厂变压器,恒业纺织有限公司变压器2,恒业纺织变压器1,瑞天纺织,华泽纺织有限公司,旭光毛纺厂","powerOffReason":"【停电原因】由于变台改造导致３５ＫＶ林堡变电站１０ＫＶ宋庄工业５１３线路全线停电【变更送电】因计划检修进度加快原因，送电时间由２３：３０变更为２１：３０【发布渠道】蠡县电视台（０５月２０日至０５月２８日２０：００至２２：００之间）屏幕上方滚动","powerOffId":"2018052013000224"},{"poweroffId":2018052013000220,"sgpoweroffId":null,"subsName":"","lineName":"灯饰城线519","pubTranName":"0592616375-李志军-专变-125780646-变压器,田东果园,0387441931-张宏-专变-45278675-张宏,高碑店市拓宏人造革制造有限公司,高桥地南【纯农排变】,小营东,保定白沟路洒箱包有限公司变压器,小营地南【纯农排变】,顺德染厂2,变压器500,小营地2【纯农排变】,小营地【纯农排变】,张中华2变压器,高桥地4【纯农排变】,变压器315,北环路灯,小营12号,高桥地3【纯农排变】,高桥地5【纯农排变】,高桥构件厂,高桥地北【纯农排变】,0387445832-白沟机动车驾驶员培训学校-专变-220701845-变压器,魏庄开发区3号变台,新源福利厂,张中华1变压器,保定东能天然气销售有限公司变压器,小营9,0555613999-李桂堂-专变-202666809-变压器,0660822569-高碑店市拓宏人造革制造有限公司-专变-197235829-变压器,变压器,顾村变压器,新高食品厂2,时风,东马营合发皮革加工厂变压器,田东地,小营10号,","scope":"【影响街道/乡镇】白沟镇、北环路 【高危重要客户】无 【影响客户】顾村、小营村、宏锦无纺布、保定新高食品厂、白沟机动车驾驶员培训学校、保定恒冠商品混凝土、田东果园、顺德染厂、保定新真萃、新源福利厂、张中华、保定东能天然气、保定新城极品皮具厂、时斌、李志军、向东书包加工厂、白沟新城林茂旅游用品厂、白沟德月加油站、保定恒固混凝土加工有限公司、拓宏人造革、保定互赢物业、东马营合发皮革、保定轩致无纺布","startTime":"2018-05-29 08:00:00","stopDate":"2018-05-29 18:00:00","orgNo":"1340612","typeCode":"计划停电","poweroffArea":"【分支停电】停变压器,高桥地5【纯农排变】,田东果园,东马营合发皮革加工厂变压器,小营10号,高桥地4【纯农排变】,0387445832-白沟机动车驾驶员培训学校-专变-220701845-变压器,0660822569-高碑店市拓宏人造革制造有限公司-专变-197235829-变压器,0387441931-张宏-专变-45278675-张宏,0592616375-李志军-专变-125780646-变压器,保定白沟路洒箱包有限公司变压器,顺德染厂2,高桥地南【纯农排变】,顾村变压器,变压器500,小营9,小营东,魏庄开发区3号变台,新高食品厂2,时风,小营地2【纯农排变】,高桥地北【纯农排变】,小营地【纯农排变】,变压器315,田东地,0555613999-李桂堂-专变-202666809-变压器,北环路灯,新源福利厂,高碑店市拓宏人造革制造有限公司,高桥构件厂,保定东能天然气销售有限公司变压器,小营12号,高桥地3【纯农排变】,小营地南【纯农排变】,张中华2变压器,张中华1变压器","poweroffReason":"【停电原因】由于负荷切改导致１１０ＫＶ白沟变电站１０ＫＶ灯饰城５１９线路０２号断路器以下停电 【变更送电】无 【发布渠道】高碑店市高碑店电视台（５月２１日０８时至５月２８日１８时之间）屏幕上方滚动","powerTime":"2018-05-29 17:19:26","powerComm":"已送电","subsNo":"","lineNo":"","tgNo":"","tgName":null,"infoStatus":"1","orgName":"国网高碑店市供电公司","typeName":null,"infoStatusName":null,"dateDay":null,"orgNos":null,"nowTime":null,"countyName":null,"streetName":null,"villageName":null,"roadName":null,"communityName":null,"tranName":null,"sdLineName":null,"cityCode":"1340612","cityName":"国网高碑店市供电公司","provinceCode":null,"stopTime":"2018-05-29 18:00:00","powerType":"全部","powerOffArea":"【分支停电】停变压器,高桥地5【纯农排变】,田东果园,东马营合发皮革加工厂变压器,小营10号,高桥地4【纯农排变】,0387445832-白沟机动车驾驶员培训学校-专变-220701845-变压器,0660822569-高碑店市拓宏人造革制造有限公司-专变-197235829-变压器,0387441931-张宏-专变-45278675-张宏,0592616375-李志军-专变-125780646-变压器,保定白沟路洒箱包有限公司变压器,顺德染厂2,高桥地南【纯农排变】,顾村变压器,变压器500,小营9,小营东,魏庄开发区3号变台,新高食品厂2,时风,小营地2【纯农排变】,高桥地北【纯农排变】,小营地【纯农排变】,变压器315,田东地,0555613999-李桂堂-专变-202666809-变压器,北环路灯,新源福利厂,高碑店市拓宏人造革制造有限公司,高桥构件厂,保定东能天然气销售有限公司变压器,小营12号,高桥地3【纯农排变】,小营地南【纯农排变】,张中华2变压器,张中华1变压器","powerOffReason":"【停电原因】由于负荷切改导致１１０ＫＶ白沟变电站１０ＫＶ灯饰城５１９线路０２号断路器以下停电 【变更送电】无 【发布渠道】高碑店市高碑店电视台（５月２１日０８时至５月２８日１８时之间）屏幕上方滚动","powerOffId":"2018052013000220"},{"poweroffId":2018052013000216,"sgpoweroffId":null,"subsName":"","lineName":"10kV515孙庄线","pubTranName":"0667625530-蠡县林堡乡宋家庄村卫生室-专变-208434804-蠡县林堡乡宋家庄村卫生室,蠡县瑞祥纺织厂变压器,林堡面粉厂,林北二,宋庄综合4台区,杨马庄农排4台区【纯农排变】,蠡县林堡乡宋庄小学变压器,林北一,宋庄综合1台区,宋庄综合7台区,孙庄综合3台区,杨马庄综合1台区,孙庄浇地1号,杨马庄农排6台区【纯农排变】,孙庄7号,杨马庄综合2台区,林堡4号,蠡县瑞合纺织有限公司变压器,宋庄村北变压器,孙庄综合1台区,0546610927-蠡县宏源纺织有限公司-专变-48017880-宋庄兴达棉织厂变压器,林堡综合7台区,宋庄综合5台区,宋庄西浇地,建修华盛棉织,林堡3号,孙庄浇地2,0469456501-蠡县泽丰纺织有限公司-专变-214329266-蠡县泽丰纺织有限公司变压器,蠡县润通纺织有限公司变压器,蠡县益源棉织厂变压器,二军浇地,杨马庄综合11台区,孙庄综合5台区,杨马庄农排7台区【纯农排变】,兴达,林堡综合14台区,华泽,宋庄综合6台区,杨马庄农排3台区【纯农排变】,宋庄综合2台区,建成织布,杨马庄综合8台区,孙庄综合2台区,中国移动通信集团河北有限公司蠡县分公司变压器,杨马庄综合9台区,杨马庄农排5台区【纯农排变】,板厂,0618194577-蠡县润仕纺织有限公司-专变-208418455-蠡县润仕纺织有限公司,孙庄3台区,杨马庄综合10台区,孙庄4台区,孙庄6号,建国,宋庄综合3台区,蠡县达盛纺织厂变压器,孙庄织布,孙庄综合4台区,","scope":"【影响街道/乡镇】林堡乡【高危重要客户】无【影响客户】孙庄村、宋庄村、杨马庄村、林堡村","startTime":"2018-05-29 06:00:00","stopDate":"2018-05-29 19:00:00","orgNo":"1340616","typeCode":"计划停电","poweroffArea":"【全线路停电】停蠡县达盛纺织厂变压器,杨马庄综合10台区,宋庄西浇地,建成织布,宋庄综合6台区,建国,0546610927-蠡县宏源纺织有限公司-专变-48017880-宋庄兴达棉织厂变压器,孙庄浇地2,孙庄织布,孙庄6号,孙庄3台区,宋庄综合3台区,孙庄综合5台区,孙庄综合1台区,孙庄4台区,杨马庄农排3台区【纯农排变】,孙庄浇地1号,孙庄7号,杨马庄农排5台区【纯农排变】,建修华盛棉织,板厂,兴达,华泽,杨马庄综合9台区,孙庄综合3台区,杨马庄综合1台区,蠡县瑞祥纺织厂变压器,蠡县林堡乡宋庄小学变压器,蠡县润通纺织有限公司变压器,杨马庄综合8台区,宋庄综合4台区,孙庄综合2台区,宋庄综合7台区,0469456501-蠡县泽丰纺织有限公司-专变-214329266-蠡县泽丰纺织有限公司变压器,宋庄综合1台区,宋庄综合2台区,宋庄村北变压器,杨马庄综合2台区,林堡4号,林北一,孙庄综合4台区,杨马庄农排7台区【纯农排变】,林堡面粉厂,杨马庄综合11台区,二军浇地,林堡综合14台区,林堡3号,0618194577-蠡县润仕纺织有限公司-专变-208418455-蠡县润仕纺织有限公司,中国移动通信集团河北有限公司蠡县分公司变压器,0667625530-蠡县林堡乡宋家庄村卫生室-专变-208434804-蠡县林堡乡宋家庄村卫生室,林堡综合7台区,宋庄综合5台区,蠡县益源棉织厂变压器,蠡县瑞合纺织有限公司变压器,林北二,杨马庄农排6台区【纯农排变】,杨马庄农排4台区【纯农排变】","poweroffReason":"【停电原因】由于变台改造导致３５ＫＶ林堡变电站１０ＫＶ孙庄５１５线路全线停电【变更送电】无【发布渠道】河北省保定市蠡县电视台（２０１８年０５月２０日至２０１８年０５月２８日２０：００至２２：００之间）屏幕上方滚动　　　","powerTime":"2018-05-29 18:47:27","powerComm":"已送电","subsNo":"","lineNo":"","tgNo":"","tgName":null,"infoStatus":"1","orgName":"国网蠡县供电公司","typeName":null,"infoStatusName":null,"dateDay":null,"orgNos":null,"nowTime":null,"countyName":null,"streetName":null,"villageName":null,"roadName":null,"communityName":null,"tranName":null,"sdLineName":null,"cityCode":"1340616","cityName":"国网蠡县供电公司","provinceCode":null,"stopTime":"2018-05-29 19:00:00","powerType":"全部","powerOffArea":"【全线路停电】停蠡县达盛纺织厂变压器,杨马庄综合10台区,宋庄西浇地,建成织布,宋庄综合6台区,建国,0546610927-蠡县宏源纺织有限公司-专变-48017880-宋庄兴达棉织厂变压器,孙庄浇地2,孙庄织布,孙庄6号,孙庄3台区,宋庄综合3台区,孙庄综合5台区,孙庄综合1台区,孙庄4台区,杨马庄农排3台区【纯农排变】,孙庄浇地1号,孙庄7号,杨马庄农排5台区【纯农排变】,建修华盛棉织,板厂,兴达,华泽,杨马庄综合9台区,孙庄综合3台区,杨马庄综合1台区,蠡县瑞祥纺织厂变压器,蠡县林堡乡宋庄小学变压器,蠡县润通纺织有限公司变压器,杨马庄综合8台区,宋庄综合4台区,孙庄综合2台区,宋庄综合7台区,0469456501-蠡县泽丰纺织有限公司-专变-214329266-蠡县泽丰纺织有限公司变压器,宋庄综合1台区,宋庄综合2台区,宋庄村北变压器,杨马庄综合2台区,林堡4号,林北一,孙庄综合4台区,杨马庄农排7台区【纯农排变】,林堡面粉厂,杨马庄综合11台区,二军浇地,林堡综合14台区,林堡3号,0618194577-蠡县润仕纺织有限公司-专变-208418455-蠡县润仕纺织有限公司,中国移动通信集团河北有限公司蠡县分公司变压器,0667625530-蠡县林堡乡宋家庄村卫生室-专变-208434804-蠡县林堡乡宋家庄村卫生室,林堡综合7台区,宋庄综合5台区,蠡县益源棉织厂变压器,蠡县瑞合纺织有限公司变压器,林北二,杨马庄农排6台区【纯农排变】,杨马庄农排4台区【纯农排变】","powerOffReason":"【停电原因】由于变台改造导致３５ＫＶ林堡变电站１０ＫＶ孙庄５１５线路全线停电【变更送电】无【发布渠道】河北省保定市蠡县电视台（２０１８年０５月２０日至２０１８年０５月２８日２０：００至２２：００之间）屏幕上方滚动　　　","powerOffId":"2018052013000216"},{"poweroffId":2018052013000206,"sgpoweroffId":null,"subsName":"","lineName":"10kV515农场线","pubTranName":"屯里农排14台区【纯农排变】,屯里综合8台区,屯里综合6台区,五坊农排8台区【纯农排变】,屯里农排2台区【纯农排变】,一队农排1台区【纯农排变】,屯里农排3台区【纯农排变】,屯里农排9台区【纯农排变】,三队农排1台区【纯农排变】,一队农排3台区【纯农排变】,三队农排3台区【纯农排变】,三队综合1台区,农场五队,南庄树苗厂,屯里综合1台区,屯里农排5台区【纯农排变】,五队农排1台区【纯农排变】,前市农排7台区【纯农排变】,南庄农排2台区【纯农排变】,屯里农排10台区【纯农排变】,三队农排2台区【纯农排变】,农场三队2,二队农排1台区【纯农排变】,五坊东二,南庄农排8台区【纯农排变】,屯里农排7台区【纯农排变】,五坊村东,屯里农排6台区【纯农排变】,一队农排4台区【纯农排变】,屯里综合2台区,五坊农四,前市农排3台区【纯农排变】,屯里综合5台区,屯里农排17台区【纯农排变】,屯里农排8台区【纯农排变】,屯里农排4台区【纯农排变】,后市农排9台区【纯农排变】,屯里农排16台区【纯农排变】,农砖厂大,五队农排2台区【纯农排变】,屯里农排12台区【纯农排变】,二队综合1台区,二队农排4台区【纯农排变】,屯里综合4台区,屯里综合7台区,蠡县张七幸贤绳带,屯里农排11台区【纯农排变】,二队农排3台区【纯农排变】,五坊农排1台区【纯农排变】,后市农排2台区【纯农排变】,一队综合1台区,南庄农排7台区【纯农排变】,农砖厂小,屯里农排18台区,屯里农排1台区【纯农排变】,南庄农排1台区【纯农排变】,屯里农排13台区【纯农排变】,屯里农排15台区【纯农排变】,二队农排2台区【纯农排变】,一队农排2台区【纯农排变】,屯里综合3台区,","scope":"【影响街道/乡镇】南庄镇【高危重要客户】无【影响客户】屯里村、农场（一队、二队、三队）、前市、南庄村、南庄胶厂","startTime":"2018-05-29 06:00:00","stopDate":"2018-05-29 19:30:00","orgNo":"1340616","typeCode":"计划停电","poweroffArea":"【全线路停电】停三队农排3台区【纯农排变】,南庄农排2台区【纯农排变】,屯里农排8台区【纯农排变】,五队农排1台区【纯农排变】,屯里农排13台区【纯农排变】,屯里农排9台区【纯农排变】,农场三队2,南庄农排1台区【纯农排变】,五坊农排1台区【纯农排变】,前市农排3台区【纯农排变】,屯里农排4台区【纯农排变】,五队农排2台区【纯农排变】,屯里农排16台区【纯农排变】,一队农排1台区【纯农排变】,二队农排2台区【纯农排变】,一队农排3台区【纯农排变】,屯里农排7台区【纯农排变】,屯里综合2台区,蠡县张七幸贤绳带,屯里农排15台区【纯农排变】,屯里综合3台区,后市农排9台区【纯农排变】,屯里农排10台区【纯农排变】,一队农排2台区【纯农排变】,屯里农排17台区【纯农排变】,一队农排4台区【纯农排变】,屯里农排6台区【纯农排变】,三队综合1台区,屯里综合8台区,屯里综合6台区,三队农排1台区【纯农排变】,屯里农排5台区【纯农排变】,前市农排7台区【纯农排变】,屯里农排1台区【纯农排变】,一队综合1台区,南庄农排7台区【纯农排变】,五坊农排8台区【纯农排变】,屯里综合1台区,二队农排3台区【纯农排变】,屯里农排12台区【纯农排变】,三队农排2台区【纯农排变】,屯里综合5台区,屯里综合4台区,屯里综合7台区,五坊村东,屯里农排14台区【纯农排变】,南庄树苗厂,农场五队,屯里农排11台区【纯农排变】,南庄农排8台区【纯农排变】,后市农排2台区【纯农排变】,农砖厂小,二队综合1台区,五坊东二,五坊农四,屯里农排2台区【纯农排变】,屯里农排3台区【纯农排变】,农砖厂大,二队农排1台区【纯农排变】,屯里农排18台区,二队农排4台区【纯农排变】","poweroffReason":"【停电原因】由于更换电杆、更换导线导致３５ＫＶ洪善堡变电站１０ＫＶ农场５１５线路全线停电【变更送电】无【发布渠道】河北省保定市蠡县电视台（２０１８年０５月２０日至２０１８年０５月２８日２０：００至２２：００之间）屏幕上方滚动","powerTime":"2018-05-29 19:19:29","powerComm":"已送电","subsNo":"","lineNo":"","tgNo":"","tgName":null,"infoStatus":"1","orgName":"国网蠡县供电公司","typeName":null,"infoStatusName":null,"dateDay":null,"orgNos":null,"nowTime":null,"countyName":null,"streetName":null,"villageName":null,"roadName":null,"communityName":null,"tranName":null,"sdLineName":null,"cityCode":"1340616","cityName":"国网蠡县供电公司","provinceCode":null,"stopTime":"2018-05-29 19:30:00","powerType":"全部","powerOffArea":"【全线路停电】停三队农排3台区【纯农排变】,南庄农排2台区【纯农排变】,屯里农排8台区【纯农排变】,五队农排1台区【纯农排变】,屯里农排13台区【纯农排变】,屯里农排9台区【纯农排变】,农场三队2,南庄农排1台区【纯农排变】,五坊农排1台区【纯农排变】,前市农排3台区【纯农排变】,屯里农排4台区【纯农排变】,五队农排2台区【纯农排变】,屯里农排16台区【纯农排变】,一队农排1台区【纯农排变】,二队农排2台区【纯农排变】,一队农排3台区【纯农排变】,屯里农排7台区【纯农排变】,屯里综合2台区,蠡县张七幸贤绳带,屯里农排15台区【纯农排变】,屯里综合3台区,后市农排9台区【纯农排变】,屯里农排10台区【纯农排变】,一队农排2台区【纯农排变】,屯里农排17台区【纯农排变】,一队农排4台区【纯农排变】,屯里农排6台区【纯农排变】,三队综合1台区,屯里综合8台区,屯里综合6台区,三队农排1台区【纯农排变】,屯里农排5台区【纯农排变】,前市农排7台区【纯农排变】,屯里农排1台区【纯农排变】,一队综合1台区,南庄农排7台区【纯农排变】,五坊农排8台区【纯农排变】,屯里综合1台区,二队农排3台区【纯农排变】,屯里农排12台区【纯农排变】,三队农排2台区【纯农排变】,屯里综合5台区,屯里综合4台区,屯里综合7台区,五坊村东,屯里农排14台区【纯农排变】,南庄树苗厂,农场五队,屯里农排11台区【纯农排变】,南庄农排8台区【纯农排变】,后市农排2台区【纯农排变】,农砖厂小,二队综合1台区,五坊东二,五坊农四,屯里农排2台区【纯农排变】,屯里农排3台区【纯农排变】,农砖厂大,二队农排1台区【纯农排变】,屯里农排18台区,二队农排4台区【纯农排变】","powerOffReason":"【停电原因】由于更换电杆、更换导线导致３５ＫＶ洪善堡变电站１０ＫＶ农场５１５线路全线停电【变更送电】无【发布渠道】河北省保定市蠡县电视台（２０１８年０５月２０日至２０１８年０５月２８日２０：００至２２：００之间）屏幕上方滚动","powerOffId":"2018052013000206"},{"poweroffId":2018052013000187,"sgpoweroffId":null,"subsName":"","lineName":"10KV下胡良528","pubTranName":"青岗村,","scope":"【影响街道/乡镇】东仙坡镇 【高危重要客户】无 【影响客户】青岗村","startTime":"2018-05-29 07:00:00","stopDate":"2018-05-29 18:00:00","orgNo":"1340626","typeCode":"计划停电","poweroffArea":"【单台区停电】停青岗村","poweroffReason":"【停电原因】由于煤改电工程导致１１０ＫＶ下胡良变电站１０ＫＶ下胡良５２８线路青岗村公变台区停电 【变更送电】无 【发布渠道】涿州电视台（０５月２０日至０５月２８日２１：００播放２次）屏幕上方滚动","powerTime":"2018-05-29 17:40:11","powerComm":"恢复送电","subsNo":"","lineNo":"","tgNo":"","tgName":null,"infoStatus":"1","orgName":"国网涿州市供电公司","typeName":null,"infoStatusName":null,"dateDay":null,"orgNos":null,"nowTime":null,"countyName":null,"streetName":null,"villageName":null,"roadName":null,"communityName":null,"tranName":null,"sdLineName":null,"cityCode":"1340626","cityName":"国网涿州市供电公司","provinceCode":null,"stopTime":"2018-05-29 18:00:00","powerType":"全部","powerOffArea":"【单台区停电】停青岗村","powerOffReason":"【停电原因】由于煤改电工程导致１１０ＫＶ下胡良变电站１０ＫＶ下胡良５２８线路青岗村公变台区停电 【变更送电】无 【发布渠道】涿州电视台（０５月２０日至０５月２８日２１：００播放２次）屏幕上方滚动","powerOffId":"2018052013000187"}],"pageModel":{"pageNow":1088,"totalCount":10973,"totalPage":1098,"tableRows":0,"pageCount":10,"beginCount":10870},"isExperi":"1"}