{"message":"","today":"2020-06-15","seleList":[{"poweroffId":2018051813000611,"sgpoweroffId":null,"subsName":"","lineName":"潦水514","pubTranName":"北街村6#,向阳村4#,南庄天源板厂,易县东方石材厂变压器,北邵村5#,南庄村10#,易县南韩村广海石料厂,西街村2#,刘巨义煤厂,北街村5#【纯农排变】,东火山7#,向阳村10#,向阳村2#,易县天宏建材有限公司变压器,西火山李先明面粉厂,西火山村7#,向阳面粉厂,潦水村10#【纯农排变】,西火山村6#,辛旺村2#【纯农排变】,潦水村4#,辛旺面粉厂变压器,北街村2#,南街村12#变压器,向阳村8#,东火山村8#,北街村4#【纯农排变】,向阳村7#,易县南韩村广海石料厂(姚文亮),向阳村5#,南街村8#【纯农排变】,北街农业,向阳村3#,南庄村1#,南庄村8#,南韩2#,广海石料(赵天梅),北邵村6#,南韩4#【纯农排变】,易县泽锐石材厂,北邵村4#【纯农排变】,北邵7号变压器,南庄村5#【纯农排变】,南庄村7#【纯农排变】,辛旺村4#【纯农排变】,南庄村9#,潦水村2#,潦水村12#【纯农排变】,农科所1#【纯农排变】,南街3#,南街村7#【纯农排变】,易县裴山初级中学变压器,广海石料厂(4#),西火山9#,南街村5#【纯农排变】,西火山村8#,东火山9#,易县向阳三强石材厂,收费站,潦水村7#,南韩3#,青花石材加工厂,易县裴山中心卫生院变压器,辛旺村3#,潦水13号变压器,潦水砖厂,易县潦水汇鸿石材销售处变压器,潦水兴达面粉厂,易县永乐建材有限公司变压器,易县金玉龙石材加工厂变压器,张文月石板厂,潦水村1#,易县京阳文教用品销售中心,辛旺村1#【纯农排变】,南庄村2#,西火山村4#【纯农排变】,潦水村5#,易县南山石料厂,西韩1#【纯农排变】,潦水村8#,永兴鞋垫厂,潦水村11#【纯农排变】,北邵村8#变压器,南庄村6#【纯农排变】,南街村4#,南韩村1#,丰辉装饰,向阳玻璃厂,0658712140-易县凤平橱柜经销处-专变-192886832-易县凤平橱柜经销处80KVA,尚文才鞋垫厂,南庄村3#,北邵村3#,易县隆鑫石材厂,西火山村1#,潦水村6#,北邵村1#【纯农排变】,潦水村9#,西火山村5#【纯农排变】,辛旺村5#,南韩村5号,北邵村2#,南韩学宾石子厂,天宏建材有限公司,向阳小江石板厂,向阳村1#,东霍山振欧石材销售部,0678209170-易县狼牙山中凯农副产品经销有限公司-专变-217787052-易县狼牙山中凯农副产品经销有限公司-200KVA.,西火山10#,建新板厂(王绘兵),向阳村9#,东火山5村#,潦水村3#,易县北邵会田石板厂变压器,向阳村6#,易县北邵久刚木材加工厂,西火山村2#,","scope":"【影响街道/乡镇】裴山镇、塘湖镇、凌云册乡【高危重要客户】无【影响客户】南街村、西街村、北街村、南庄村、向阳村、西霍山村、东霍山村、北邵村、辛旺村、潦水村、南韩村","startTime":"2018-05-29 05:30:00","stopDate":"2018-05-29 23:59:00","orgNo":"1340625","typeCode":"计划停电","poweroffArea":"【全线路停电】停南街村4#,潦水村10#【纯农排变】,北邵村2#,辛旺村2#【纯农排变】,建新板厂(王绘兵),南庄天源板厂,潦水砖厂,西火山李先明面粉厂,向阳村2#,北街村4#【纯农排变】,辛旺面粉厂变压器,东火山5村#,向阳村1#,西火山9#,南街村12#变压器,向阳村10#,南庄村3#,向阳村7#,潦水村11#【纯农排变】,辛旺村4#【纯农排变】,易县北邵会田石板厂变压器,潦水兴达面粉厂,潦水村9#,向阳小江石板厂,向阳面粉厂,南街3#,西火山村7#,北邵村5#,南庄村2#,西韩1#【纯农排变】,东火山9#,西火山村6#,北街村5#【纯农排变】,北街村6#,易县金玉龙石材加工厂变压器,北邵村4#【纯农排变】,易县裴山中心卫生院变压器,向阳村8#,易县北邵久刚木材加工厂,青花石材加工厂,南街村8#【纯农排变】,丰辉装饰,南韩4#【纯农排变】,潦水村12#【纯农排变】,收费站,南庄村9#,南街村5#【纯农排变】,易县裴山初级中学变压器,辛旺村1#【纯农排变】,潦水村7#,东火山7#,南庄村7#【纯农排变】,西火山10#,西火山村4#【纯农排变】,永兴鞋垫厂,南韩村1#,东霍山振欧石材销售部,北邵村6#,北邵7号变压器,西火山村8#,北邵村8#变压器,向阳村6#,农科所1#【纯农排变】,北邵村1#【纯农排变】,潦水13号变压器,向阳村3#,潦水村8#,向阳村9#,潦水村4#,0658712140-易县凤平橱柜经销处-专变-192886832-易县凤平橱柜经销处80KVA,西火山村5#【纯农排变】,易县京阳文教用品销售中心,西火山村1#,刘巨义煤厂,易县南韩村广海石料厂(姚文亮),潦水村1#,东火山村8#,南庄村8#,南韩学宾石子厂,辛旺村3#,向阳玻璃厂,易县永乐建材有限公司变压器,易县南韩村广海石料厂,易县东方石材厂变压器,北邵村3#,潦水村6#,0678209170-易县狼牙山中凯农副产品经销有限公司-专变-217787052-易县狼牙山中凯农副产品经销有限公司-200KVA.,南庄村6#【纯农排变】,尚文才鞋垫厂,张文月石板厂,南街村7#【纯农排变】,西街村2#,南庄村10#,辛旺村5#,易县泽锐石材厂,易县向阳三强石材厂,易县隆鑫石材厂,南庄村1#,易县潦水汇鸿石材销售处变压器,潦水村5#,北街农业,南韩3#,潦水村2#,南庄村5#【纯农排变】,南韩2#,易县天宏建材有限公司变压器,潦水村3#,易县南山石料厂,广海石料(赵天梅),西火山村2#,广海石料厂(4#),南韩村5号,北街村2#,向阳村5#,天宏建材有限公司,向阳村4#","poweroffReason":"【停电原因】由于更换１０ＫＶ母线及引下线导致３５ＫＶ裴山变电站潦水５１４线路全线停电【变更送电】无【发布渠道】保定市易县电视台（０５月１９日００：００时至０５月２９日２４:００时之间）屏幕上方滚动","powerTime":"2018-05-29 23:58:56","powerComm":"已送电","subsNo":"","lineNo":"","tgNo":"","tgName":null,"infoStatus":"1","orgName":"国网易县供电公司","typeName":null,"infoStatusName":null,"dateDay":null,"orgNos":null,"nowTime":null,"countyName":null,"streetName":null,"villageName":null,"roadName":null,"communityName":null,"tranName":null,"sdLineName":null,"cityCode":"1340625","cityName":"国网易县供电公司","provinceCode":null,"stopTime":"2018-05-29 23:59:00","powerType":"全部","powerOffArea":"【全线路停电】停南街村4#,潦水村10#【纯农排变】,北邵村2#,辛旺村2#【纯农排变】,建新板厂(王绘兵),南庄天源板厂,潦水砖厂,西火山李先明面粉厂,向阳村2#,北街村4#【纯农排变】,辛旺面粉厂变压器,东火山5村#,向阳村1#,西火山9#,南街村12#变压器,向阳村10#,南庄村3#,向阳村7#,潦水村11#【纯农排变】,辛旺村4#【纯农排变】,易县北邵会田石板厂变压器,潦水兴达面粉厂,潦水村9#,向阳小江石板厂,向阳面粉厂,南街3#,西火山村7#,北邵村5#,南庄村2#,西韩1#【纯农排变】,东火山9#,西火山村6#,北街村5#【纯农排变】,北街村6#,易县金玉龙石材加工厂变压器,北邵村4#【纯农排变】,易县裴山中心卫生院变压器,向阳村8#,易县北邵久刚木材加工厂,青花石材加工厂,南街村8#【纯农排变】,丰辉装饰,南韩4#【纯农排变】,潦水村12#【纯农排变】,收费站,南庄村9#,南街村5#【纯农排变】,易县裴山初级中学变压器,辛旺村1#【纯农排变】,潦水村7#,东火山7#,南庄村7#【纯农排变】,西火山10#,西火山村4#【纯农排变】,永兴鞋垫厂,南韩村1#,东霍山振欧石材销售部,北邵村6#,北邵7号变压器,西火山村8#,北邵村8#变压器,向阳村6#,农科所1#【纯农排变】,北邵村1#【纯农排变】,潦水13号变压器,向阳村3#,潦水村8#,向阳村9#,潦水村4#,0658712140-易县凤平橱柜经销处-专变-192886832-易县凤平橱柜经销处80KVA,西火山村5#【纯农排变】,易县京阳文教用品销售中心,西火山村1#,刘巨义煤厂,易县南韩村广海石料厂(姚文亮),潦水村1#,东火山村8#,南庄村8#,南韩学宾石子厂,辛旺村3#,向阳玻璃厂,易县永乐建材有限公司变压器,易县南韩村广海石料厂,易县东方石材厂变压器,北邵村3#,潦水村6#,0678209170-易县狼牙山中凯农副产品经销有限公司-专变-217787052-易县狼牙山中凯农副产品经销有限公司-200KVA.,南庄村6#【纯农排变】,尚文才鞋垫厂,张文月石板厂,南街村7#【纯农排变】,西街村2#,南庄村10#,辛旺村5#,易县泽锐石材厂,易县向阳三强石材厂,易县隆鑫石材厂,南庄村1#,易县潦水汇鸿石材销售处变压器,潦水村5#,北街农业,南韩3#,潦水村2#,南庄村5#【纯农排变】,南韩2#,易县天宏建材有限公司变压器,潦水村3#,易县南山石料厂,广海石料(赵天梅),西火山村2#,广海石料厂(4#),南韩村5号,北街村2#,向阳村5#,天宏建材有限公司,向阳村4#","powerOffReason":"【停电原因】由于更换１０ＫＶ母线及引下线导致３５ＫＶ裴山变电站潦水５１４线路全线停电【变更送电】无【发布渠道】保定市易县电视台（０５月１９日００：００时至０５月２９日２４:００时之间）屏幕上方滚动","powerOffId":"2018051813000611"},{"poweroffId":2018051813000589,"sgpoweroffId":null,"subsName":"","lineName":"沈村511","pubTranName":"南庄面粉厂,西邵面粉厂,曲城村5#,裴山粮库,裴山镇政府1#,裴山小光石材厂,南街10#,尚晓东板厂,黄金庄村1#,北邵村9号变压器,变压器,曲城酒厂,南街村2#,0665049765-易县农村信用联社股份有限公司-专变-201072765-裴山信用社80KVA,南庄村4#,东火山村2#,尉都村8#,东火山村1#,河北省易县曲城酒厂变压器,曲城村1#【纯农排变】,孝村3#【纯农排变】,李顺吉板厂,东庄村4#【纯农排变】,黄学军面粉厂,西街村3#,王术申养殖厂(板厂),孝村塑料颗粒厂,马连平板厂,黄金庄村2#【纯农排变】,尉都乡政府1#,东庄村9#,魏喜元板厂,西邵村3#,孝村4#,易县尉都易兴石子厂(500),易县西邵康足鞋垫厂(王世清),孝村5#,东庄村12#,裴山供电所,东庄村1#【纯农排变】,东庄村2#【纯农排变】,东火山村7#【纯农排变】,曲城村4#,尉都中心小学变压器,东庄村5#,尉都村6#,东庄村7#,供销社石材加工厂(张瑞江),尉都村1#,西街4号变压器,南街村1#,东庄村6#,孝村1#【纯农排变】,灌渠,东庄村15#,西街村1#,东火山村6#,南街村6#,李金强面粉厂(石板厂),西邵村2#,沙莲娜北变,南街村9#,魏建军,金利重质碳酸钙厂变压器,东火山张建光石板厂,沙莲娜南变,曲城村2#,孝村崔克林(农业),周占良,尉都村5#,曲城村3#,东庄村13#,王志恒板厂,魏洪源,魏复兴板厂,东庄村8#,西邵村5#,东火山村3#,北街村1#,西邵村4#,东庄村3#【纯农排变】,南街村11#变压器,南街村3#,孝村2#,东霍山x英鞋垫厂(董红忠),西邵村6#变压器,东庄村11#,东庄村14#,东庄村10#,西邵村1#,修配厂,易县尉都腾达石材有限公司变压器,","scope":"【影响街道/乡镇】裴山镇、尉都乡【高危重要客户】无【影响客户】南街村、西街村、北街村、南庄村、东霍山村、尉都村、孝村、西邵村、曲城村、黄金庄村、东庄村","startTime":"2018-05-29 05:30:00","stopDate":"2018-05-29 23:59:00","orgNo":"1340625","typeCode":"计划停电","poweroffArea":"【全线路停电】停东庄村12#,沙莲娜北变,沙莲娜南变,裴山供电所,南街村1#,南庄村4#,裴山镇政府1#,尉都村6#,尉都乡政府1#,东庄村5#,易县尉都腾达石材有限公司变压器,王志恒板厂,0665049765-易县农村信用联社股份有限公司-专变-201072765-裴山信用社80KVA,东庄村9#,南街村11#变压器,尉都中心小学变压器,东庄村10#,西邵面粉厂,东庄村15#,曲城酒厂,尚晓东板厂,修配厂,尉都村5#,孝村5#,南街村3#,周占良,魏喜元板厂,魏复兴板厂,灌渠,裴山粮库,西街村3#,王术申养殖厂(板厂),南庄面粉厂,李金强面粉厂(石板厂),易县西邵康足鞋垫厂(王世清),南街村9#,东庄村1#【纯农排变】,东庄村2#【纯农排变】,西邵村6#变压器,曲城村3#,马连平板厂,魏建军,曲城村1#【纯农排变】,李顺吉板厂,东庄村6#,西邵村5#,尉都村8#,西街村1#,黄学军面粉厂,曲城村5#,东火山村7#【纯农排变】,东火山张建光石板厂,河北省易县曲城酒厂变压器,南街村2#,金利重质碳酸钙厂变压器,变压器,北街村1#,孝村1#【纯农排变】,东庄村4#【纯农排变】,南街10#,西邵村3#,南街村6#,东庄村13#,孝村3#【纯农排变】,黄金庄村1#,东庄村8#,尉都村1#,东庄村7#,孝村塑料颗粒厂,孝村崔克林(农业),西街4号变压器,孝村2#,曲城村2#,西邵村2#,东火山村3#,东庄村14#,东火山村2#,东火山村1#,孝村4#,魏洪源,西邵村4#,东庄村3#【纯农排变】,黄金庄村2#【纯农排变】,东霍山x英鞋垫厂(董红忠),东庄村11#,裴山小光石材厂,北邵村9号变压器,供销社石材加工厂(张瑞江),西邵村1#,东火山村6#,易县尉都易兴石子厂(500),曲城村4#","poweroffReason":"【停电原因】由于更换１０ＫＶ母线及引下线导致３５ＫＶ裴山变电站沈村５１１线路全线停电【变更送电】无【发布渠道】保定市易县电视台（０５月１９日００：００时至０５月２９日２４:００时之间）屏幕上方滚动","powerTime":"2018-05-29 23:59:00","powerComm":"已送电","subsNo":"","lineNo":"","tgNo":"","tgName":null,"infoStatus":"1","orgName":"国网易县供电公司","typeName":null,"infoStatusName":null,"dateDay":null,"orgNos":null,"nowTime":null,"countyName":null,"streetName":null,"villageName":null,"roadName":null,"communityName":null,"tranName":null,"sdLineName":null,"cityCode":"1340625","cityName":"国网易县供电公司","provinceCode":null,"stopTime":"2018-05-29 23:59:00","powerType":"全部","powerOffArea":"【全线路停电】停东庄村12#,沙莲娜北变,沙莲娜南变,裴山供电所,南街村1#,南庄村4#,裴山镇政府1#,尉都村6#,尉都乡政府1#,东庄村5#,易县尉都腾达石材有限公司变压器,王志恒板厂,0665049765-易县农村信用联社股份有限公司-专变-201072765-裴山信用社80KVA,东庄村9#,南街村11#变压器,尉都中心小学变压器,东庄村10#,西邵面粉厂,东庄村15#,曲城酒厂,尚晓东板厂,修配厂,尉都村5#,孝村5#,南街村3#,周占良,魏喜元板厂,魏复兴板厂,灌渠,裴山粮库,西街村3#,王术申养殖厂(板厂),南庄面粉厂,李金强面粉厂(石板厂),易县西邵康足鞋垫厂(王世清),南街村9#,东庄村1#【纯农排变】,东庄村2#【纯农排变】,西邵村6#变压器,曲城村3#,马连平板厂,魏建军,曲城村1#【纯农排变】,李顺吉板厂,东庄村6#,西邵村5#,尉都村8#,西街村1#,黄学军面粉厂,曲城村5#,东火山村7#【纯农排变】,东火山张建光石板厂,河北省易县曲城酒厂变压器,南街村2#,金利重质碳酸钙厂变压器,变压器,北街村1#,孝村1#【纯农排变】,东庄村4#【纯农排变】,南街10#,西邵村3#,南街村6#,东庄村13#,孝村3#【纯农排变】,黄金庄村1#,东庄村8#,尉都村1#,东庄村7#,孝村塑料颗粒厂,孝村崔克林(农业),西街4号变压器,孝村2#,曲城村2#,西邵村2#,东火山村3#,东庄村14#,东火山村2#,东火山村1#,孝村4#,魏洪源,西邵村4#,东庄村3#【纯农排变】,黄金庄村2#【纯农排变】,东霍山x英鞋垫厂(董红忠),东庄村11#,裴山小光石材厂,北邵村9号变压器,供销社石材加工厂(张瑞江),西邵村1#,东火山村6#,易县尉都易兴石子厂(500),曲城村4#","powerOffReason":"【停电原因】由于更换１０ＫＶ母线及引下线导致３５ＫＶ裴山变电站沈村５１１线路全线停电【变更送电】无【发布渠道】保定市易县电视台（０５月１９日００：００时至０５月２９日２４:００时之间）屏幕上方滚动","powerOffId":"2018051813000589"},{"poweroffId":2018051813000435,"sgpoweroffId":null,"subsName":"","lineName":"韩村线513","pubTranName":"韩村排2【纯农排变】,韩村排4【纯农排变】,曹村排1【纯农排变】,章村光2,章村排2【纯农排变】,韩村光1,南召光3,北田光4,北田光3,北田光5,新榆林光2,榆林光3,榆林混1,皂马光1,曹村光3,南召排1【纯农排变】,新北田光2【2018年一批应急】,北田排3【纯农排变】,曹村光5,曹村排4【纯农排变】,曹村光7,章村农排6【纯农排变】,韩村排5【纯农排变】,韩村光3,曹村光4,曹村排6【纯农排变】,章村光5,章村农排5【纯农排变】,韩村光8,韩村光7,南召光2,北田排1【纯农排变】,榆林光6,北田排5【纯农排变】,北田光6,榆林光7,榆林排2【纯农排变】,新韩村光2,章村光1【2018年重过载】,章村农排4【纯农排变】,章村农排7【纯农排变】,韩村光9,韩村光6,皂马光5,北田农贸公用,榆林排5【纯农排变】,南召光1,北田排4【纯农排变】,新榆林光1,榆林光5,榆林排3【纯农排变】,韩村村排6【纯农排变】,韩村光5,曹村排2【纯农排变】,章村光4,曹村排5【纯农排变】,曹村光1,章村农排3【纯农排变】,韩村排1【纯农排变】,韩村排3【纯农排变】,南召光4,北田排6【纯农排变】,榆林排4【纯农排变】,曹村排7【纯农排变】,曹村排3【纯农排变】,南召排2【纯农排变】,新北田光1,北田排2【纯农排变】,榆林光4,曹村光2,章村排1【纯农排变】,章村光3,章村光6,韩村光4,曹村排8【纯农排变】,曹村光6,","scope":"【影响街道/乡镇】北田乡 【高危重要客户】无 【影响客户】韩村、章村、曹村、榆林、北田、南召、皂马部分用户","startTime":"2018-06-02 01:00:00","stopDate":"2018-06-02 02:55:00","orgNo":"1340609","typeCode":"计划停电","poweroffArea":"【分支停电】停皂马光5,皂马光1,南召排1【纯农排变】,南召光3,南召光1,南召光2,南召排2【纯农排变】,南召光4,新北田光1,北田农贸公用,北田光4,新北田光2【2018年一批应急】,北田排6【纯农排变】,北田排2【纯农排变】,北田光3,北田排1【纯农排变】,北田排5【纯农排变】,北田排4【纯农排变】,北田光6,北田光5,北田排3【纯农排变】,新榆林光2,新榆林光1,榆林光3,榆林光7,榆林排5【纯农排变】,榆林排2【纯农排变】,榆林排4【纯农排变】,榆林排3【纯农排变】,榆林混1,榆林光6,榆林光4,榆林光5,曹村排7【纯农排变】,曹村排8【纯农排变】,曹村光5,曹村排2【纯农排变】,曹村排3【纯农排变】,曹村光4,曹村排4【纯农排变】,曹村光6,","poweroffReason":"【停电原因】由于增容导致３５ＫＶ大留村变电站韩村线５１３线路５１３-０３号断路器以下线路停电 【变更送电】因工作进度加快原因送电时间由０４：００变更为０２：５５ 【发布渠道】定兴县电视台０５月２５日０９时１０分至２３时５０分之间屏幕上方滚动播放","powerTime":"2018-06-02 02:29:53","powerComm":"已送电","subsNo":"","lineNo":"","tgNo":"","tgName":null,"infoStatus":"1","orgName":"国网定兴县供电公司","typeName":null,"infoStatusName":null,"dateDay":null,"orgNos":null,"nowTime":null,"countyName":null,"streetName":null,"villageName":null,"roadName":null,"communityName":null,"tranName":null,"sdLineName":null,"cityCode":"1340609","cityName":"国网定兴县供电公司","provinceCode":null,"stopTime":"2018-06-02 02:55:00","powerType":"全部","powerOffArea":"【分支停电】停皂马光5,皂马光1,南召排1【纯农排变】,南召光3,南召光1,南召光2,南召排2【纯农排变】,南召光4,新北田光1,北田农贸公用,北田光4,新北田光2【2018年一批应急】,北田排6【纯农排变】,北田排2【纯农排变】,北田光3,北田排1【纯农排变】,北田排5【纯农排变】,北田排4【纯农排变】,北田光6,北田光5,北田排3【纯农排变】,新榆林光2,新榆林光1,榆林光3,榆林光7,榆林排5【纯农排变】,榆林排2【纯农排变】,榆林排4【纯农排变】,榆林排3【纯农排变】,榆林混1,榆林光6,榆林光4,榆林光5,曹村排7【纯农排变】,曹村排8【纯农排变】,曹村光5,曹村排2【纯农排变】,曹村排3【纯农排变】,曹村光4,曹村排4【纯农排变】,曹村光6,","powerOffReason":"【停电原因】由于增容导致３５ＫＶ大留村变电站韩村线５１３线路５１３-０３号断路器以下线路停电 【变更送电】因工作进度加快原因送电时间由０４：００变更为０２：５５ 【发布渠道】定兴县电视台０５月２５日０９时１０分至２３时５０分之间屏幕上方滚动播放","powerOffId":"2018051813000435"},{"poweroffId":2018051813000418,"sgpoweroffId":null,"subsName":"","lineName":"三里线525","pubTranName":"*定兴县殡仪馆,北河市场光6,红树营排3【纯农排变】,中国移动通信集团河北有限公司保定分公司,0469298505-柳卓板厂-专变-46772360-*柳卓板厂,东刘庄光4【煤改电】,东刘庄光6变压器【煤改电】,西刘庄光1,北河市场（车站）光3,东刘庄大棚,北河市场光5,红树营排6【纯农排变】,200,新华养殖场,东刘庄光5【煤改电】,100,红树营排5-2【纯农排变】,东刘庄光3【煤改电】,西刘庄排2【纯农排变】,西刘庄光3,北幸村(混),东刘庄排2【纯农排变】,东刘庄排1【纯农排变】,西刘庄光5,红树营南,东刘庄光7【煤改电】,西刘庄排4【纯农排变】,西刘庄光4,东刘庄光1变压器【煤改电】,西刘庄排3【纯农排变】,*北河执法区,变压器,*64加油站,西刘庄排1【纯农排变】,西刘庄光2,东刘庄光2【煤改电】,红树营排4【纯农排变】,中国网通（集团）有限公司定兴县分公司,三禾农业315变压器,北河市场光2,*定兴安泰恒信新型保温材料厂,北河市场光4,","scope":"【影响街道/乡镇】北河镇、柳卓乡 【高危重要客户】无 【影响客户】西刘庄、东刘庄、红树营、６４加油站、柳卓板厂、殡仪馆、北河粮库、北河市场、北河车站、三禾农业","startTime":"2018-06-02 01:00:00","stopDate":"2018-06-02 04:00:00","orgNo":"1340609","typeCode":"计划停电","poweroffArea":"【全线路停电】停东刘庄光4【煤改电】,西刘庄排3【纯农排变】,东刘庄光6变压器【煤改电】,*北河执法区,变压器,100,*64加油站,西刘庄排1【纯农排变】,西刘庄光2,*定兴县殡仪馆,东刘庄光2【煤改电】,红树营排4【纯农排变】,北河市场光6,中国网通（集团）有限公司定兴县分公司,红树营排3【纯农排变】,三禾农业315变压器,北河市场光2,中国移动通信集团河北有限公司保定分公司,红树营排5-2【纯农排变】,西刘庄光1,北河市场（车站）光3,西刘庄光5,红树营南,西刘庄光3,东刘庄大棚,北幸村(混),*定兴安泰恒信新型保温材料厂,北河市场光5,北河市场光4,红树营排6【纯农排变】,200,东刘庄排2【纯农排变】,新华养殖场,东刘庄光5【煤改电】,东刘庄排1【纯农排变】,东刘庄光3【煤改电】,东刘庄光7【煤改电】,西刘庄排2【纯农排变】,西刘庄排4【纯农排变】,西刘庄光4,0469298505-柳卓板厂-专变-46772360-*柳卓板厂,东刘庄光1变压器【煤改电】","poweroffReason":"【停电原因】由于线路主干０９号杆安装变压器导致１１０ＫＶ北河变电站三里线５２５线路全线停电 【变更送电】无 【发布渠道】保定市定兴县电视台（０５月２５日０９时１０分至２３时５０分之间）屏幕上方滚动播放","powerTime":"2018-06-02 03:04:10","powerComm":"已送电","subsNo":"","lineNo":"","tgNo":"","tgName":null,"infoStatus":"1","orgName":"国网定兴县供电公司","typeName":null,"infoStatusName":null,"dateDay":null,"orgNos":null,"nowTime":null,"countyName":null,"streetName":null,"villageName":null,"roadName":null,"communityName":null,"tranName":null,"sdLineName":null,"cityCode":"1340609","cityName":"国网定兴县供电公司","provinceCode":null,"stopTime":"2018-06-02 04:00:00","powerType":"全部","powerOffArea":"【全线路停电】停东刘庄光4【煤改电】,西刘庄排3【纯农排变】,东刘庄光6变压器【煤改电】,*北河执法区,变压器,100,*64加油站,西刘庄排1【纯农排变】,西刘庄光2,*定兴县殡仪馆,东刘庄光2【煤改电】,红树营排4【纯农排变】,北河市场光6,中国网通（集团）有限公司定兴县分公司,红树营排3【纯农排变】,三禾农业315变压器,北河市场光2,中国移动通信集团河北有限公司保定分公司,红树营排5-2【纯农排变】,西刘庄光1,北河市场（车站）光3,西刘庄光5,红树营南,西刘庄光3,东刘庄大棚,北幸村(混),*定兴安泰恒信新型保温材料厂,北河市场光5,北河市场光4,红树营排6【纯农排变】,200,东刘庄排2【纯农排变】,新华养殖场,东刘庄光5【煤改电】,东刘庄排1【纯农排变】,东刘庄光3【煤改电】,东刘庄光7【煤改电】,西刘庄排2【纯农排变】,西刘庄排4【纯农排变】,西刘庄光4,0469298505-柳卓板厂-专变-46772360-*柳卓板厂,东刘庄光1变压器【煤改电】","powerOffReason":"【停电原因】由于线路主干０９号杆安装变压器导致１１０ＫＶ北河变电站三里线５２５线路全线停电 【变更送电】无 【发布渠道】保定市定兴县电视台（０５月２５日０９时１０分至２３时５０分之间）屏幕上方滚动播放","powerOffId":"2018051813000418"},{"poweroffId":2018051813000414,"sgpoweroffId":null,"subsName":"","lineName":"韦家营线513","pubTranName":"彭各庄排4|07095111025【纯农排变】,南马大棚公用,彭各庄光10,彭各庄排7【纯农排变】,彭各庄光8,0696770267-定兴县李郁庄乡彭各庄小学-专变-240818278-100,彭各庄光1|07095111019,彭各庄光6【2018年重过载】,彭各庄光7,彭各庄排6【纯农排变】,彭各庄排2|07095111023【纯农排变】,彭各庄光2|07095111020,彭各庄排5【纯农排变】,彭各庄光4|07095111096,彭各庄光9,彭各庄排3|07095111024【纯农排变】,0011688801*洪河养殖场,","scope":"【影响街道/乡镇】天宫寺乡 【高危重要客户】无 【影响客户】南马部分用户、洪河养殖场、彭各庄部分用户、天然气站","startTime":"2018-06-02 04:30:00","stopDate":"2018-06-02 10:30:00","orgNo":"1340609","typeCode":"计划停电","poweroffArea":"【全线路停电】停彭各庄排4|07095111025【纯农排变】,彭各庄光4|07095111096,南马大棚公用,彭各庄光10,彭各庄光7,彭各庄排7【纯农排变】,彭各庄光9,彭各庄光8,彭各庄排3|07095111024【纯农排变】,0696770267-定兴县李郁庄乡彭各庄小学-专变-240818278-100,0011688801*洪河养殖场,彭各庄光1|07095111019,彭各庄排6【纯农排变】,彭各庄光6【2018年重过载】,彭各庄排2|07095111023【纯农排变】,彭各庄光2|07095111020,彭各庄排5【纯农排变】","poweroffReason":"【停电原因】由于彭各庄排４分支００２号、００３号杆移杆导致３５ＫＶ彭各庄变电站韦家营线５１３线路全线停电 【变更送电】无 【发布渠道】保定市定兴县电视台（０５月２５日０９时１０分至２３时５０分之间）屏幕上方滚动播放","powerTime":"2018-06-02 08:25:19","powerComm":"已送电","subsNo":"","lineNo":"","tgNo":"","tgName":null,"infoStatus":"1","orgName":"国网定兴县供电公司","typeName":null,"infoStatusName":null,"dateDay":null,"orgNos":null,"nowTime":null,"countyName":null,"streetName":null,"villageName":null,"roadName":null,"communityName":null,"tranName":null,"sdLineName":null,"cityCode":"1340609","cityName":"国网定兴县供电公司","provinceCode":null,"stopTime":"2018-06-02 10:30:00","powerType":"全部","powerOffArea":"【全线路停电】停彭各庄排4|07095111025【纯农排变】,彭各庄光4|07095111096,南马大棚公用,彭各庄光10,彭各庄光7,彭各庄排7【纯农排变】,彭各庄光9,彭各庄光8,彭各庄排3|07095111024【纯农排变】,0696770267-定兴县李郁庄乡彭各庄小学-专变-240818278-100,0011688801*洪河养殖场,彭各庄光1|07095111019,彭各庄排6【纯农排变】,彭各庄光6【2018年重过载】,彭各庄排2|07095111023【纯农排变】,彭各庄光2|07095111020,彭各庄排5【纯农排变】","powerOffReason":"【停电原因】由于彭各庄排４分支００２号、００３号杆移杆导致３５ＫＶ彭各庄变电站韦家营线５１３线路全线停电 【变更送电】无 【发布渠道】保定市定兴县电视台（０５月２５日０９时１０分至２３时５０分之间）屏幕上方滚动播放","powerOffId":"2018051813000414"},{"poweroffId":2018051813000238,"sgpoweroffId":null,"subsName":"","lineName":"东白庄线542","pubTranName":"东白庄南队九台区,东白庄南队十台区,","scope":"【影响街道/乡镇】刘李庄镇 【高危重要客户】无 【影响客户】东白庄","startTime":"2018-05-27 07:30:00","stopDate":"2018-05-27 13:00:00","orgNo":"1340607","typeCode":"计划停电","poweroffArea":"【分支停电】停东白庄南队九台区,东白庄南队十台区","poweroffReason":"【停电原因】由于拆除配变电杆导致１１０ＫＶ杨庄变电站东白庄线５４２线路１３２号杆以下线路停电 【变更送电】无 【发布渠道】安新电视台（２０１８年５月１９日至２０１８年５月２６日的１９：３０至２０：００之间）屏幕下方滚动字幕","powerTime":"2018-05-27 12:53:10","powerComm":"已送电","subsNo":"","lineNo":"","tgNo":"","tgName":null,"infoStatus":"1","orgName":"(原)国网安新县供电公司","typeName":null,"infoStatusName":null,"dateDay":null,"orgNos":null,"nowTime":null,"countyName":null,"streetName":null,"villageName":null,"roadName":null,"communityName":null,"tranName":null,"sdLineName":null,"cityCode":"1340607","cityName":"(原)国网安新县供电公司","provinceCode":null,"stopTime":"2018-05-27 13:00:00","powerType":"全部","powerOffArea":"【分支停电】停东白庄南队九台区,东白庄南队十台区","powerOffReason":"【停电原因】由于拆除配变电杆导致１１０ＫＶ杨庄变电站东白庄线５４２线路１３２号杆以下线路停电 【变更送电】无 【发布渠道】安新电视台（２０１８年５月１９日至２０１８年５月２６日的１９：３０至２０：００之间）屏幕下方滚动字幕","powerOffId":"2018051813000238"},{"poweroffId":2018051813000235,"sgpoweroffId":null,"subsName":"","lineName":"10kV易家庄551线","pubTranName":"易家庄4#公用配变,","scope":"【影响街道/乡镇】城南庄镇 【高危重要客户】无 【影响客户】台上、易家庄","startTime":"2018-05-29 06:00:00","stopDate":"2018-05-29 13:00:00","orgNo":"1340611","typeCode":"计划停电","poweroffArea":"【分支停电】停易家庄4#公用配变","poweroffReason":"【停电原因】由于引线搭接导致３５ＫＶ城南庄变电站１０ＫＶ易家庄５５１线路主干０７号杆５５１—１号刀闸动触头及以下线路停电 【变更送电】无 【发布渠道】保定市阜平电视台（５月１８日１８时至５月２７日２１时）飞播","powerTime":"2018-05-29 12:00:30","powerComm":"全部送电","subsNo":"","lineNo":"","tgNo":"","tgName":null,"infoStatus":"1","orgName":"国网阜平县供电公司","typeName":null,"infoStatusName":null,"dateDay":null,"orgNos":null,"nowTime":null,"countyName":null,"streetName":null,"villageName":null,"roadName":null,"communityName":null,"tranName":null,"sdLineName":null,"cityCode":"1340611","cityName":"国网阜平县供电公司","provinceCode":null,"stopTime":"2018-05-29 13:00:00","powerType":"全部","powerOffArea":"【分支停电】停易家庄4#公用配变","powerOffReason":"【停电原因】由于引线搭接导致３５ＫＶ城南庄变电站１０ＫＶ易家庄５５１线路主干０７号杆５５１—１号刀闸动触头及以下线路停电 【变更送电】无 【发布渠道】保定市阜平电视台（５月１８日１８时至５月２７日２１时）飞播","powerOffId":"2018051813000235"},{"poweroffId":2018051813000225,"sgpoweroffId":null,"subsName":"","lineName":"10kV羊道548线","pubTranName":"下庄12#公用配变,花山1#,花山公用,菜池8#公用配变,二道庄3#公用配变,下庄3#公用配变,下庄1#公用配变,菜池11#公用配变,菜池9#公用配变,二道庄2#公用配变,面盆2#公用配变,菜池5#公用配变,面盆1#公用配变,菜池2#公用配变,大岸底7#公用配变,下庄7#公用配变,下庄8#公用配变,菜池7#公用配变,菜池12#公用配变,","scope":"【影响街道/乡镇】城南庄镇、下庄乡 【高危重要客户】无 【影响客户】下庄、面盆、菜池、羊道、二道庄、赤瓦屋、石牛河、大岸底","startTime":"2018-05-30 06:00:00","stopDate":"2018-05-30 13:00:00","orgNo":"1340611","typeCode":"计划停电","poweroffArea":"【分支停电】停下庄7#公用配变,菜池9#公用配变,下庄8#公用配变,菜池2#公用配变,菜池12#公用配变,二道庄2#公用配变,菜池5#公用配变,二道庄3#公用配变,大岸底7#公用配变,面盆1#公用配变,面盆2#公用配变,下庄3#公用配变,菜池8#公用配变,菜池7#公用配变,菜池11#公用配变,下庄12#公用配变,下庄1#公用配变","poweroffReason":"【停电原因】由于引线搭接导致１１０ＫＶ桑地变电站１０ＫＶ羊道５４８线路主干２８号杆５４８—２号刀闸动触头及以下线路停电 【变更送电】无 【发布渠道】保定市阜平电视台（５月１８日１８时至５月２７日２１时）飞播","powerTime":"2018-05-30 12:53:25","powerComm":"全部送电","subsNo":"","lineNo":"","tgNo":"","tgName":null,"infoStatus":"1","orgName":"国网阜平县供电公司","typeName":null,"infoStatusName":null,"dateDay":null,"orgNos":null,"nowTime":null,"countyName":null,"streetName":null,"villageName":null,"roadName":null,"communityName":null,"tranName":null,"sdLineName":null,"cityCode":"1340611","cityName":"国网阜平县供电公司","provinceCode":null,"stopTime":"2018-05-30 13:00:00","powerType":"全部","powerOffArea":"【分支停电】停下庄7#公用配变,菜池9#公用配变,下庄8#公用配变,菜池2#公用配变,菜池12#公用配变,二道庄2#公用配变,菜池5#公用配变,二道庄3#公用配变,大岸底7#公用配变,面盆1#公用配变,面盆2#公用配变,下庄3#公用配变,菜池8#公用配变,菜池7#公用配变,菜池11#公用配变,下庄12#公用配变,下庄1#公用配变","powerOffReason":"【停电原因】由于引线搭接导致１１０ＫＶ桑地变电站１０ＫＶ羊道５４８线路主干２８号杆５４８—２号刀闸动触头及以下线路停电 【变更送电】无 【发布渠道】保定市阜平电视台（５月１８日１８时至５月２７日２１时）飞播","powerOffId":"2018051813000225"},{"poweroffId":2018051813000211,"sgpoweroffId":null,"subsName":"","lineName":"10kV北工516线","pubTranName":"顾家沟3#公用配变,顾家沟2#公用配变,城南庄12#公用配变,北工3#公用配变,顾家沟1#公用配变,","scope":"【影响街道/乡镇】城南庄镇 【高危重要客户】无 【影响客户】葛达头、燕头、牛栏、西沟、向阳庄、福子裕、北工、石猴、顾家沟、枣园","startTime":"2018-05-28 06:00:00","stopDate":"2018-05-28 13:00:00","orgNo":"1340611","typeCode":"计划停电","poweroffArea":"【分支停电】停顾家沟3#公用配变,顾家沟2#公用配变,顾家沟1#公用配变,北工3#公用配变,城南庄12#公用配变","poweroffReason":"【停电原因】由于引线搭接导致３５ＫＶ城南庄变电站１０ＫＶ北工５１６线路主干０６号杆５１６—１号刀闸动触头及以下线路停电 【变更送电】无 【发布渠道】保定市阜平电视台（５月１８日１８时至５月２７日２１时）飞播","powerTime":"2018-05-28 12:29:55","powerComm":"已送电","subsNo":"","lineNo":"","tgNo":"","tgName":null,"infoStatus":"1","orgName":"国网阜平县供电公司","typeName":null,"infoStatusName":null,"dateDay":null,"orgNos":null,"nowTime":null,"countyName":null,"streetName":null,"villageName":null,"roadName":null,"communityName":null,"tranName":null,"sdLineName":null,"cityCode":"1340611","cityName":"国网阜平县供电公司","provinceCode":null,"stopTime":"2018-05-28 13:00:00","powerType":"全部","powerOffArea":"【分支停电】停顾家沟3#公用配变,顾家沟2#公用配变,顾家沟1#公用配变,北工3#公用配变,城南庄12#公用配变","powerOffReason":"【停电原因】由于引线搭接导致３５ＫＶ城南庄变电站１０ＫＶ北工５１６线路主干０６号杆５１６—１号刀闸动触头及以下线路停电 【变更送电】无 【发布渠道】保定市阜平电视台（５月１８日１８时至５月２７日２１时）飞播","powerOffId":"2018051813000211"},{"poweroffId":2018051813000189,"sgpoweroffId":null,"subsName":"","lineName":"郝庄线541","pubTranName":"梁庄村一台区,梁庄三台区,梁庄五台区,梁庄二台区,梁庄四台区,","scope":"【影响街道/乡镇】刘李庄镇 【高危重要客户】无 【影响客户】梁庄村","startTime":"2018-05-27 10:00:00","stopDate":"2018-05-27 18:00:00","orgNo":"1340607","typeCode":"计划停电","poweroffArea":"【分支停电】停梁庄村一台区,梁庄二台区,梁庄三台区,梁庄四台区,梁庄五台区","poweroffReason":"【停电原因】由于新增配变导致１１０ＫＶ杨庄变电站郝庄线５４１线路主干７１号杆开关以下线路停电 【变更送电】无 【发布渠道】安新电视台（２０１８年５月１９日至２０１８年５月２６日的１９：３０至２０：００之间）屏幕下方滚动字幕","powerTime":"2018-05-27 17:57:06","powerComm":"已送电","subsNo":"","lineNo":"","tgNo":"","tgName":null,"infoStatus":"1","orgName":"(原)国网安新县供电公司","typeName":null,"infoStatusName":null,"dateDay":null,"orgNos":null,"nowTime":null,"countyName":null,"streetName":null,"villageName":null,"roadName":null,"communityName":null,"tranName":null,"sdLineName":null,"cityCode":"1340607","cityName":"(原)国网安新县供电公司","provinceCode":null,"stopTime":"2018-05-27 18:00:00","powerType":"全部","powerOffArea":"【分支停电】停梁庄村一台区,梁庄二台区,梁庄三台区,梁庄四台区,梁庄五台区","powerOffReason":"【停电原因】由于新增配变导致１１０ＫＶ杨庄变电站郝庄线５４１线路主干７１号杆开关以下线路停电 【变更送电】无 【发布渠道】安新电视台（２０１８年５月１９日至２０１８年５月２６日的１９：３０至２０：００之间）屏幕下方滚动字幕","powerOffId":"2018051813000189"}],"pageModel":{"pageNow":1091,"totalCount":10973,"totalPage":1098,"tableRows":0,"pageCount":10,"beginCount":10900},"isExperi":"1"}