{"message":"","today":"2020-06-15","seleList":[{"poweroffId":2018051713000487,"sgpoweroffId":null,"subsName":"","lineName":"10kV580燕家庄线","pubTranName":"东王吕公用农业7台区（土地局）【纯农排变】,大三路公用农业3台区【纯农排变】,燕家庄公用照明5台区,东王吕公用照明2台区,大三路公用照明3台区,大三路村公用照明1台区,燕家庄公用农业1台区【纯农排变】,大三路公用照明2台区,东王吕村公用农业6台区【纯农排变】,燕三路公用照明2台区,东王吕公用照明3台区,东王吕村公用农业3台区【纯农排变】,中建路桥集团有限公司变压器,燕家庄公用农业4台区【纯农排变】,东三路公用农业3台区【纯农排变】,定州市西三路农机配件厂,燕家庄村委会,燕家庄公用农业3台区【纯农排变】,东王吕公用照明4台区,连仲公用农业5台区【纯农排变】,燕三路村公用农业1台区【纯农排变】,东王吕村公用照明1台区,燕家庄公用照明2台区,燕家庄公用农业5台区【纯农排变】,大三路公用农业4台区【纯农排变】,席家庄村公用农业3台区【纯农排变】,燕家庄公用农业6台区【纯农排变】,李盼杰养鸡场,燕家庄村北,席家庄村公用农业2台区【纯农排变】,燕家庄公用照明4台区,定州市德龙环境工程有限公司变压器,东王吕村公用农业1台区【纯农排变】,燕家庄村公用照明1台区,大三路公用农业5台区【纯农排变】,燕三路公用农业3台区【纯农排变】,清风店供电所变压器,燕三路村公用照明1台区,燕家庄公用农业2台区【纯农排变】,东王吕村公用农业5台区【纯农排变】,东王吕村公用农业4台区【纯农排变】,燕三路村公用农业2台区【纯农排变】,燕家庄公用照明3台区,","scope":"【影响街道/乡镇】清风店镇【高危重要客户】无【影响客户】大三路、燕家庄、东王吕、罗家庄","startTime":"2018-05-28 07:30:00","stopDate":"2018-05-28 18:00:00","orgNo":"1340610","typeCode":"计划停电","poweroffArea":"【分支停电】停大三路公用照明2台区,燕三路村公用农业2台区【纯农排变】,燕家庄公用农业1台区【纯农排变】,东王吕村公用农业5台区【纯农排变】,大三路公用农业4台区【纯农排变】,燕家庄村委会,席家庄村公用农业2台区【纯农排变】,燕家庄公用农业4台区【纯农排变】,燕家庄公用农业2台区【纯农排变】,燕家庄公用照明3台区,东王吕公用照明2台区,燕家庄村北,东王吕村公用农业1台区【纯农排变】,大三路公用农业5台区【纯农排变】,大三路村公用照明1台区,东王吕村公用农业4台区【纯农排变】,燕三路公用农业3台区【纯农排变】,燕三路村公用照明1台区,东王吕公用照明3台区,燕三路村公用农业1台区【纯农排变】,燕家庄公用农业3台区【纯农排变】,东王吕公用照明4台区,燕三路公用照明2台区,燕家庄公用照明4台区,席家庄村公用农业3台区【纯农排变】,东王吕村公用照明1台区,李盼杰养鸡场,东三路公用农业3台区【纯农排变】,燕家庄村公用照明1台区,连仲公用农业5台区【纯农排变】,燕家庄公用照明2台区,东王吕村公用农业3台区【纯农排变】,中建路桥集团有限公司变压器,燕家庄公用农业5台区【纯农排变】,清风店供电所变压器,定州市西三路农机配件厂,大三路公用照明3台区,东王吕村公用农业6台区【纯农排变】,东王吕公用农业7台区（土地局）【纯农排变】,大三路公用农业3台区【纯农排变】,定州市德龙环境工程有限公司变压器,燕家庄公用农业6台区【纯农排变】,燕家庄公用照明5台区","poweroffReason":"【停电原因】由于更换电杆导致１１０ＫＶ清风店变电站１０ＫＶ５８０燕家庄线路主干３２号杆０２号断路器以下线路停电 【变更送电】无 【发布渠道】河北省定州市定州日报第三版（２０１８年０５月１８日）","powerTime":"2018-05-28 17:56:47","powerComm":"已送电","subsNo":"","lineNo":"","tgNo":"","tgName":null,"infoStatus":"1","orgName":"国网定州市供电公司","typeName":null,"infoStatusName":null,"dateDay":null,"orgNos":null,"nowTime":null,"countyName":null,"streetName":null,"villageName":null,"roadName":null,"communityName":null,"tranName":null,"sdLineName":null,"cityCode":"1340610","cityName":"国网定州市供电公司","provinceCode":null,"stopTime":"2018-05-28 18:00:00","powerType":"全部","powerOffArea":"【分支停电】停大三路公用照明2台区,燕三路村公用农业2台区【纯农排变】,燕家庄公用农业1台区【纯农排变】,东王吕村公用农业5台区【纯农排变】,大三路公用农业4台区【纯农排变】,燕家庄村委会,席家庄村公用农业2台区【纯农排变】,燕家庄公用农业4台区【纯农排变】,燕家庄公用农业2台区【纯农排变】,燕家庄公用照明3台区,东王吕公用照明2台区,燕家庄村北,东王吕村公用农业1台区【纯农排变】,大三路公用农业5台区【纯农排变】,大三路村公用照明1台区,东王吕村公用农业4台区【纯农排变】,燕三路公用农业3台区【纯农排变】,燕三路村公用照明1台区,东王吕公用照明3台区,燕三路村公用农业1台区【纯农排变】,燕家庄公用农业3台区【纯农排变】,东王吕公用照明4台区,燕三路公用照明2台区,燕家庄公用照明4台区,席家庄村公用农业3台区【纯农排变】,东王吕村公用照明1台区,李盼杰养鸡场,东三路公用农业3台区【纯农排变】,燕家庄村公用照明1台区,连仲公用农业5台区【纯农排变】,燕家庄公用照明2台区,东王吕村公用农业3台区【纯农排变】,中建路桥集团有限公司变压器,燕家庄公用农业5台区【纯农排变】,清风店供电所变压器,定州市西三路农机配件厂,大三路公用照明3台区,东王吕村公用农业6台区【纯农排变】,东王吕公用农业7台区（土地局）【纯农排变】,大三路公用农业3台区【纯农排变】,定州市德龙环境工程有限公司变压器,燕家庄公用农业6台区【纯农排变】,燕家庄公用照明5台区","powerOffReason":"【停电原因】由于更换电杆导致１１０ＫＶ清风店变电站１０ＫＶ５８０燕家庄线路主干３２号杆０２号断路器以下线路停电 【变更送电】无 【发布渠道】河北省定州市定州日报第三版（２０１８年０５月１８日）","powerOffId":"2018051713000487"},{"poweroffId":2018051713000461,"sgpoweroffId":null,"subsName":"","lineName":"10kV513内堡线","pubTranName":"北内堡公用农业5台区【纯农排变】,北内堡公用农业2台区【纯农排变】,东内堡公用农业30台区【纯农排变】,七级公用照明1台区,北内堡村公用照明10台区,北内堡粮站,东内堡公用农业2台区【纯农排变】,北内堡公用农业21台区【纯农排变】,北内堡村公用照明5台区,西丁庄公用农业1台区【纯农排变】,北内堡公用农业4台区【纯农排变】,东内堡公用照明6台区,东内堡公用农业14台区【纯农排变】,七级公用照明4台区,东内堡公用农业38台区【纯农排变】,东内堡公用照明3台区,东内堡公用照明9台区,北内堡公用农业9台区【纯农排变】,北内堡公用农业16台区【纯农排变】,七级公用照明7台区,东内堡公用农业36台区【纯农排变】,七级公用农业21台区【纯农排变】,北内堡村公用照明8台区,东内堡公用农业5台区【纯农排变】,北内堡公用农业6台区【纯农排变】,东内堡公用农业39台区【纯农排变】,定州市七级计生面粉厂,东内堡公用农业34台区【纯农排变】,七级公用农业16台区【纯农排变】,东内堡小庄公用照明1台区,东内堡公用农业18台区【纯农排变】,东内堡公用照明12台区,东内堡公用照明5台区,东内堡公用农业1台区【纯农排变】,东内堡公用农业10台区【纯农排变】,七级公用农业17台区【纯农排变】,东内堡公用农业22台区【纯农排变】,七级公用农业15台区【纯农排变】,东内堡公用农业25台区【纯农排变】,东内堡公用农业8台区【纯农排变】,东内堡公用农业4台区【纯农排变】,七级公用农业12台区【纯农排变】,北内堡公用农业18台区【纯农排变】,北内堡公用农业23台区【纯农排变】,东内堡公用照明2台区,七级公用农业18台区【纯农排变】,东内堡公用农业33台区【纯农排变】,北内堡村公用照明9台区,东内堡公用照明10台区,东内堡公用农业37台区【纯农排变】,北内堡村公用照明7台区,东内堡公用照明4台区,七级公用照明8台区,东内堡公用农业29台区【纯农排变】,北内堡公用农业19台区【纯农排变】,七级公用农业20台区【纯农排变】,北内堡公用农业1台区【纯农排变】,七级公用农业23台区【纯农排变】,东内堡公用农业32台区【纯农排变】,东内堡公用农业28台区【纯农排变】,北内堡村公用照明2台区,北内堡村公用照明6台区,北内堡公用农业8台区【纯农排变】,七级公用照明9台区,北内堡公用农业11台区【纯农排变】,东内堡公用农业23台区【纯农排变】,东内堡公用农业6台区【纯农排变】,北内堡公用农业7台区【纯农排变】,东内堡公用照明1台区,七级公用照明5台区,东内堡公用农业20台区【纯农排变】,北内堡公用农业20台区【纯农排变】,北内堡村公用照明1台区,东内堡公用农业12台区【纯农排变】,东内堡公用照明13台区,东内堡公用照明14台区,东内堡公用农业13台区【纯农排变】,北内堡村公用照明3台区,北内堡公用农业15台区【纯农排变】,北内堡公用农业13台区【纯农排变】,东内堡公用农业27台区【纯农排变】,东内堡公用农业31台区【纯农排变】,北内堡村公用照明4台区,七级公用照明6台区,东内堡公用农业35台区【纯农排变】,东内堡公用农业16台区【纯农排变】,东内堡公用农业17台区【纯农排变】,定州","scope":"【影响街道/乡镇】子位镇【高危重要客户】无【影响客户】北内堡、东内堡、七级、西丁庄","startTime":"2018-05-30 06:00:00","stopDate":"2018-05-30 22:00:00","orgNo":"1340610","typeCode":"计划停电","poweroffArea":"【全线路停电】停东内堡公用农业28台区【纯农排变】,东内堡公用照明13台区,东内堡公用农业1台区【纯农排变】,北内堡公用农业12台区【纯农排变】,东内堡公用农业39台区【纯农排变】,东内堡公用照明6台区,北内堡村公用照明6台区,东内堡小庄公用照明1台区,东内堡公用照明10台区,定州市七级计生面粉厂,东内堡公用农业26台区【纯农排变】,七级公用照明3台区,东内堡公用农业5台区【纯农排变】,东内堡公用农业38台区【纯农排变】,东内堡公用农业22台区【纯农排变】,东内堡公用农业21台区【纯农排变】,东内堡公用照明3台区,东内堡公用照明8台区,北内堡村公用照明9台区,东内堡公用农业36台区【纯农排变】,七级公用照明1台区,东内堡公用农业2台区【纯农排变】,东内堡公用农业34台区【纯农排变】,东内堡公用照明12台区,北内堡公用农业16台区【纯农排变】,北内堡公用农业23台区【纯农排变】,东内堡公用农业12台区【纯农排变】,七级公用农业18台区【纯农排变】,北内堡公用农业8台区【纯农排变】,七级公用农业12台区【纯农排变】,北内堡公用农业1台区【纯农排变】,七级公用农业19台区【纯农排变】,北内堡公用农业18台区【纯农排变】,北内堡公用农业17台区【纯农排变】,东内堡公用照明1台区,北内堡公用农业9台区【纯农排变】,北内堡公用农业7台区【纯农排变】,东内堡公用农业17台区【纯农排变】,定州市东内堡振尧面粉厂,七级公用农业20台区【纯农排变】,东内堡公用农业6台区【纯农排变】,东内堡公用农业3台区【纯农排变】,东内堡公用农业23台区【纯农排变】,东内堡公用照明4台区,东内堡公用照明11台区,七级公用农业21台区【纯农排变】,北内堡村公用照明7台区,北内堡公用农业19台区【纯农排变】,东内堡公用农业11台区【纯农排变】,东内堡公用农业31台区【纯农排变】,七级公用农业14台区【纯农排变】,东内堡自来水厂（统管）,七级公用照明7台区,定州市七级栓成面粉厂,北内堡村公用照明4台区,七级公用农业17台区【纯农排变】,东内堡公用农业29台区【纯农排变】,北内堡公用农业21台区【纯农排变】,北内堡村公用照明8台区,七级公用照明6台区,东内堡公用农业7台区【纯农排变】,东内堡公用农业20台区【纯农排变】,东内堡公用照明9台区,东内堡公用照明14台区,东内堡公用照明2台区,东内堡公用农业35台区【纯农排变】,七级公用农业22台区【纯农排变】,北内堡村公用照明5台区,北内堡公用农业2台区【纯农排变】,七级公用农业15台区【纯农排变】,北内堡公用农业20台区【纯农排变】,东内堡公用农业9台区【纯农排变】,北内堡村公用照明1台区,北内堡村公用照明10台区,北内堡粮站,七级公用照明9台区,东内堡公用农业10台区【纯农排变】,北内堡公用农业10台区【纯农排变】,七级公用照明5台区,东内堡公用农业18台区【纯农排变】,北内堡公用农业13台区【纯农排变】,北内堡村公用照明2台区,北内堡公用农业14台区【纯农排变】,东内堡公用农业19台区【纯农排变】,东内堡公用农业32台区【纯农排变】,七级公用农业16台区【纯农排变】,西丁庄公用农业1台区【纯农排变】,七级公用农业23台区【纯农排变】,东内堡公用农业14台区【纯农排变】,北内堡公用农业11台区【纯农排变】,东内堡公用农业24台区【纯农排变】,东内堡公用农业13台区【纯农排变】,北内堡公用农业15台区【纯农排变】,东内堡公用农业33台区【纯农排变】,七级公用照明4台区,东内堡公用农业30台区【纯农排变】,东内堡公用照明5台区,七级公用","poweroffReason":"【停电原因】由于改定值导致３５ＫＶ丁村变电站１０ＫＶ５１３内堡线路全线停电 【变更送电】因抢修进度加快原因，送电时间由２３：５９变更为２２：００ 【发布渠道】河北省定州市定州日报第三版（２０１８年０５月１８日）","powerTime":"2018-05-30 21:46:43","powerComm":"已送电","subsNo":"","lineNo":"","tgNo":"","tgName":null,"infoStatus":"1","orgName":"国网定州市供电公司","typeName":null,"infoStatusName":null,"dateDay":null,"orgNos":null,"nowTime":null,"countyName":null,"streetName":null,"villageName":null,"roadName":null,"communityName":null,"tranName":null,"sdLineName":null,"cityCode":"1340610","cityName":"国网定州市供电公司","provinceCode":null,"stopTime":"2018-05-30 22:00:00","powerType":"全部","powerOffArea":"【全线路停电】停东内堡公用农业28台区【纯农排变】,东内堡公用照明13台区,东内堡公用农业1台区【纯农排变】,北内堡公用农业12台区【纯农排变】,东内堡公用农业39台区【纯农排变】,东内堡公用照明6台区,北内堡村公用照明6台区,东内堡小庄公用照明1台区,东内堡公用照明10台区,定州市七级计生面粉厂,东内堡公用农业26台区【纯农排变】,七级公用照明3台区,东内堡公用农业5台区【纯农排变】,东内堡公用农业38台区【纯农排变】,东内堡公用农业22台区【纯农排变】,东内堡公用农业21台区【纯农排变】,东内堡公用照明3台区,东内堡公用照明8台区,北内堡村公用照明9台区,东内堡公用农业36台区【纯农排变】,七级公用照明1台区,东内堡公用农业2台区【纯农排变】,东内堡公用农业34台区【纯农排变】,东内堡公用照明12台区,北内堡公用农业16台区【纯农排变】,北内堡公用农业23台区【纯农排变】,东内堡公用农业12台区【纯农排变】,七级公用农业18台区【纯农排变】,北内堡公用农业8台区【纯农排变】,七级公用农业12台区【纯农排变】,北内堡公用农业1台区【纯农排变】,七级公用农业19台区【纯农排变】,北内堡公用农业18台区【纯农排变】,北内堡公用农业17台区【纯农排变】,东内堡公用照明1台区,北内堡公用农业9台区【纯农排变】,北内堡公用农业7台区【纯农排变】,东内堡公用农业17台区【纯农排变】,定州市东内堡振尧面粉厂,七级公用农业20台区【纯农排变】,东内堡公用农业6台区【纯农排变】,东内堡公用农业3台区【纯农排变】,东内堡公用农业23台区【纯农排变】,东内堡公用照明4台区,东内堡公用照明11台区,七级公用农业21台区【纯农排变】,北内堡村公用照明7台区,北内堡公用农业19台区【纯农排变】,东内堡公用农业11台区【纯农排变】,东内堡公用农业31台区【纯农排变】,七级公用农业14台区【纯农排变】,东内堡自来水厂（统管）,七级公用照明7台区,定州市七级栓成面粉厂,北内堡村公用照明4台区,七级公用农业17台区【纯农排变】,东内堡公用农业29台区【纯农排变】,北内堡公用农业21台区【纯农排变】,北内堡村公用照明8台区,七级公用照明6台区,东内堡公用农业7台区【纯农排变】,东内堡公用农业20台区【纯农排变】,东内堡公用照明9台区,东内堡公用照明14台区,东内堡公用照明2台区,东内堡公用农业35台区【纯农排变】,七级公用农业22台区【纯农排变】,北内堡村公用照明5台区,北内堡公用农业2台区【纯农排变】,七级公用农业15台区【纯农排变】,北内堡公用农业20台区【纯农排变】,东内堡公用农业9台区【纯农排变】,北内堡村公用照明1台区,北内堡村公用照明10台区,北内堡粮站,七级公用照明9台区,东内堡公用农业10台区【纯农排变】,北内堡公用农业10台区【纯农排变】,七级公用照明5台区,东内堡公用农业18台区【纯农排变】,北内堡公用农业13台区【纯农排变】,北内堡村公用照明2台区,北内堡公用农业14台区【纯农排变】,东内堡公用农业19台区【纯农排变】,东内堡公用农业32台区【纯农排变】,七级公用农业16台区【纯农排变】,西丁庄公用农业1台区【纯农排变】,七级公用农业23台区【纯农排变】,东内堡公用农业14台区【纯农排变】,北内堡公用农业11台区【纯农排变】,东内堡公用农业24台区【纯农排变】,东内堡公用农业13台区【纯农排变】,北内堡公用农业15台区【纯农排变】,东内堡公用农业33台区【纯农排变】,七级公用照明4台区,东内堡公用农业30台区【纯农排变】,东内堡公用照明5台区,七级公用","powerOffReason":"【停电原因】由于改定值导致３５ＫＶ丁村变电站１０ＫＶ５１３内堡线路全线停电 【变更送电】因抢修进度加快原因，送电时间由２３：５９变更为２２：００ 【发布渠道】河北省定州市定州日报第三版（２０１８年０５月１８日）","powerOffId":"2018051713000461"},{"poweroffId":2018051713000448,"sgpoweroffId":null,"subsName":"","lineName":"10kV514木佃线","pubTranName":"东丁庄公用照明1台区,木佃公用农业5台区【纯农排变】,木佃公用照明9台区,木佃公用农业17台区【纯农排变】,木佃公用农业3台区【纯农排变】,寺底公用农业3台区【纯农排变】,木佃公用农业28台区【纯农排变】,木佃公用农业10台区【纯农排变】,木佃公用农业29台区【纯农排变】,木佃公用农业26台区【纯农排变】,七级公用农业9台区【纯农排变】,木佃公用农业18台区【纯农排变】,七级公用农业10台区【纯农排变】,木佃公用农业2台区【纯农排变】,木佃公用农业19台区【纯农排变】,木佃公用农业16台区【纯农排变】,木佃公用农业4台区【纯农排变】,木佃公用农业21台区【纯农排变】,木佃公用农业27台区【纯农排变】,木佃公用农业13台区【纯农排变】,七级公用农业5台区【纯农排变】,七级公用农业8台区【纯农排变】,客户投资_木佃公用照明1台区,木佃公用农业25台区【纯农排变】,木佃公用农业22台区【纯农排变】,木佃公用照明7台区,七级公用农业1台区【纯农排变】,木佃公用照明13台区,七级公用农业4台区【纯农排变】,木佃公用农业7台区【纯农排变】,东丁庄公用照明2台区,寺底公用农业18台区【纯农排变】,木佃公用照明2台区,木佃公用照明5台区,木佃公用照明8台区,东丁庄公用农业1台区【纯农排变】,木佃公用农业8台区【纯农排变】,寺底公用农业16台区【纯农排变】,木佃公用农业23台区【纯农排变】,木佃公用农业12台区【纯农排变】,七级公用农业3台区【纯农排变】,木佃公用农业15台区【纯农排变】,寺底公用农业1台区【纯农排变】,木佃公用农业24台区【纯农排变】,寺底公用农业17台区【纯农排变】,木佃公用农业1台区【纯农排变】,木佃公用农业6台区【纯农排变】,七级公用农业7台区【纯农排变】,寺底公用农业14台区【纯农排变】,木佃公用农业11台区【纯农排变】,七级公用农业2台区【纯农排变】,木佃公用照明12台区,木佃公用照明4台区,木佃公用照明3台区,木佃公用农业14台区【纯农排变】,木佃公用照明10台区,木佃公用农业9台区【纯农排变】,七级公用农业6台区【纯农排变】,木佃公用照明11台区,寺底公用农业2台区【纯农排变】,木佃公用照明6台区,","scope":"【影响街道/乡镇】子位镇【高危重要客户】无【影响客户】木佃、东丁庄、寺底、七级","startTime":"2018-05-30 06:00:00","stopDate":"2018-05-30 22:00:00","orgNo":"1340610","typeCode":"计划停电","poweroffArea":"【全线路停电】停寺底公用农业18台区【纯农排变】,寺底公用农业17台区【纯农排变】,寺底公用农业14台区【纯农排变】,东丁庄公用照明2台区,东丁庄公用照明1台区,东丁庄公用农业1台区【纯农排变】,木佃公用农业24台区【纯农排变】,木佃公用农业17台区【纯农排变】,木佃公用农业7台区【纯农排变】,木佃公用农业23台区【纯农排变】,木佃公用农业18台区【纯农排变】,木佃公用照明4台区,木佃公用照明11台区,木佃公用农业19台区【纯农排变】,木佃公用农业21台区【纯农排变】,木佃公用农业8台区【纯农排变】,木佃公用农业22台区【纯农排变】,木佃公用照明6台区,木佃公用农业5台区【纯农排变】,木佃公用农业6台区【纯农排变】,木佃公用照明8台区,木佃公用照明9台区,木佃公用农业10台区【纯农排变】,木佃公用照明12台区,木佃公用农业1台区【纯农排变】,木佃公用农业12台区【纯农排变】,木佃公用农业11台区【纯农排变】,木佃公用照明7台区,木佃公用照明5台区,木佃公用农业14台区【纯农排变】,木佃公用农业13台区【纯农排变】,木佃公用农业2台区【纯农排变】,木佃公用农业15台区【纯农排变】,木佃公用照明2台区,木佃公用照明13台区,客户投资_木佃公用照明1台区,木佃公用照明3台区,木佃公用农业27台区【纯农排变】,木佃公用农业16台区【纯农排变】,木佃公用农业4台区【纯农排变】,木佃公用农业3台区【纯农排变】,木佃公用照明10台区,木佃公用农业9台区【纯农排变】,七级公用农业8台区【纯农排变】,七级公用农业7台区【纯农排变】,七级公用农业10台区【纯农排变】,七级公用农业1台区【纯农排变】,七级公用农业9台区【纯农排变】,七级公用农业4台区【纯农排变】,七级公用农业3台区【纯农排变】,七级公用农业2台区【纯农排变】,七级公用农业5台区【纯农排变】,七级公用农业6台区【纯农排变】,寺底公用农业3台区【纯农排变】,寺底公用农业1台区【纯农排变】,木佃公用农业25台区【纯农排变】,木佃公用农业26台区【纯农排变】,木佃公用农业28台区【纯农排变】,木佃公用农业29台区【纯农排变】,寺底公用农业2台区【纯农排变】,寺底公用农业16台区【纯农排变】","poweroffReason":"【停电原因】由于改定值导致３５ＫＶ丁村变电站１０ＫＶ５１４木佃线路全线停电 【变更送电】因抢修进度加快原因，送电时间由２３：５９变更为２２：００ 【发布渠道】河北省定州市定州日报第三版（２０１８年０５月１８日）","powerTime":"2018-05-30 21:49:04","powerComm":"已送电","subsNo":"","lineNo":"","tgNo":"","tgName":null,"infoStatus":"1","orgName":"国网定州市供电公司","typeName":null,"infoStatusName":null,"dateDay":null,"orgNos":null,"nowTime":null,"countyName":null,"streetName":null,"villageName":null,"roadName":null,"communityName":null,"tranName":null,"sdLineName":null,"cityCode":"1340610","cityName":"国网定州市供电公司","provinceCode":null,"stopTime":"2018-05-30 22:00:00","powerType":"全部","powerOffArea":"【全线路停电】停寺底公用农业18台区【纯农排变】,寺底公用农业17台区【纯农排变】,寺底公用农业14台区【纯农排变】,东丁庄公用照明2台区,东丁庄公用照明1台区,东丁庄公用农业1台区【纯农排变】,木佃公用农业24台区【纯农排变】,木佃公用农业17台区【纯农排变】,木佃公用农业7台区【纯农排变】,木佃公用农业23台区【纯农排变】,木佃公用农业18台区【纯农排变】,木佃公用照明4台区,木佃公用照明11台区,木佃公用农业19台区【纯农排变】,木佃公用农业21台区【纯农排变】,木佃公用农业8台区【纯农排变】,木佃公用农业22台区【纯农排变】,木佃公用照明6台区,木佃公用农业5台区【纯农排变】,木佃公用农业6台区【纯农排变】,木佃公用照明8台区,木佃公用照明9台区,木佃公用农业10台区【纯农排变】,木佃公用照明12台区,木佃公用农业1台区【纯农排变】,木佃公用农业12台区【纯农排变】,木佃公用农业11台区【纯农排变】,木佃公用照明7台区,木佃公用照明5台区,木佃公用农业14台区【纯农排变】,木佃公用农业13台区【纯农排变】,木佃公用农业2台区【纯农排变】,木佃公用农业15台区【纯农排变】,木佃公用照明2台区,木佃公用照明13台区,客户投资_木佃公用照明1台区,木佃公用照明3台区,木佃公用农业27台区【纯农排变】,木佃公用农业16台区【纯农排变】,木佃公用农业4台区【纯农排变】,木佃公用农业3台区【纯农排变】,木佃公用照明10台区,木佃公用农业9台区【纯农排变】,七级公用农业8台区【纯农排变】,七级公用农业7台区【纯农排变】,七级公用农业10台区【纯农排变】,七级公用农业1台区【纯农排变】,七级公用农业9台区【纯农排变】,七级公用农业4台区【纯农排变】,七级公用农业3台区【纯农排变】,七级公用农业2台区【纯农排变】,七级公用农业5台区【纯农排变】,七级公用农业6台区【纯农排变】,寺底公用农业3台区【纯农排变】,寺底公用农业1台区【纯农排变】,木佃公用农业25台区【纯农排变】,木佃公用农业26台区【纯农排变】,木佃公用农业28台区【纯农排变】,木佃公用农业29台区【纯农排变】,寺底公用农业2台区【纯农排变】,寺底公用农业16台区【纯农排变】","powerOffReason":"【停电原因】由于改定值导致３５ＫＶ丁村变电站１０ＫＶ５１４木佃线路全线停电 【变更送电】因抢修进度加快原因，送电时间由２３：５９变更为２２：００ 【发布渠道】河北省定州市定州日报第三版（２０１８年０５月１８日）","powerOffId":"2018051713000448"},{"poweroffId":2018051713000436,"sgpoweroffId":null,"subsName":"","lineName":"10kV515彭家庄线","pubTranName":"彭家庄公用照明8台区,彭家庄公用农业9台区【纯农排变】,楼底公用农业5台区【纯农排变】,彭家庄公用农业7台区【纯农排变】,楼底公用农业15台区【纯农排变】,楼底公用农业4台区【纯农排变】,彭家庄公用农业4台区【纯农排变】,楼底公用照明7台区,彭家庄公用农业8台区【纯农排变】,楼底公用照明12台区,楼底公用农业12台区【纯农排变】,北城村公用照明3台区,楼底公用农业17台区【纯农排变】,北城村公用照明4台区,楼底公用农业9台区【纯农排变】,市庄中学,彭家庄公用照明1台区,楼底公用照明1台区,韩家庄公用照明3台区一,彭家庄公用农业5台区【纯农排变】,楼底公用农业16台区【纯农排变】,南城村公用照明2台区,楼底公用照明5台区,寺底公用农业10台区【纯农排变】,北城村公用农业3台区【纯农排变】,寺底公用农业12台区【纯农排变】,北城村公用农业4台区【纯农排变】,寺底公用照明6台区,北城村公用农业7台区【纯农排变】,彭家庄公用农业12台区【纯农排变】,北城村公用农业6台区【纯农排变】,寺底公用农业13台区【纯农排变】,彭家庄公用农业1台区【纯农排变】,0654273182-河北瑞洪源纺织品有限公司-专变-183727435-河北瑞洪源纺织品有限公司变压器,楼底公用照明11台区,楼底公用照明2台区,韩家庄公用农业2台区一【纯农排变】,楼底公用农业8台区【纯农排变】,韩家庄公用农业3台区一【纯农排变】,彭家庄公用照明6台区,彭家庄公用农业10台区【纯农排变】,楼底公用农业11台区【纯农排变】,彭家庄公用农业11台区【纯农排变】,楼底公用农业14台区【纯农排变】,南城村公用农业1台区【纯农排变】,韩家庄公用照明4台区1,楼底公用照明6台区,南城村公用照明1台区,韩家庄公用农业1台区一【纯农排变】,楼底公用农业13台区【纯农排变】,定州市高志宾淀粉厂,寺底公用农业11台区【纯农排变】,楼底公用农业2台区【纯农排变】,韩家庄公用照明1台区一,楼底公用农业1台区【纯农排变】,定州市南城面粉厂,南城村公用农业3台区【纯农排变】,楼底公用农业7台区【纯农排变】,定州市娄底面粉厂,彭家庄公用照明5台区,彭家庄公用农业3台区【纯农排变】,楼底公用照明4台区,寺底公用照明7台区,北城村公用农业2台区【纯农排变】,楼底公用农业3台区【纯农排变】,南城村公用农业2台区【纯农排变】,楼底公用照明9台区,北城村公用农业5台区【纯农排变】,韩家庄公用照明2台区一,定州市娄底保旗面厂,彭家庄公用农业2台区【纯农排变】,楼底公用照明8台区,北城村公用农业1台区【纯农排变】,彭家庄公用照明2台区一,北城村公用照明2台区,韩家庄公用农业5台区一【纯农排变】,彭家庄公用照明7台区,定州市百福面粉厂变压器,彭家庄公用照明4台区,韩家庄公用农业4台区一【纯农排变】,楼底公用照明10台区,楼底公用农业10台区【纯农排变】,北城村公用照明1台区,定州市鸿运服装加工厂,彭家庄公用农业6台区【纯农排变】,楼底公用农业6台区【纯农排变】,彭家庄公用照明3台区,北城村公用照明5台区,楼底公用照明3台区,","scope":"【影响街道/乡镇】李亲顾镇【高危重要客户】无【影响客户】彭家庄、韩家庄、楼底、南城村、北城村、寺底","startTime":"2018-05-30 06:00:00","stopDate":"2018-05-30 22:00:00","orgNo":"1340610","typeCode":"计划停电","poweroffArea":"【全线路停电】停楼底公用照明5台区,韩家庄公用农业5台区一【纯农排变】,北城村公用照明1台区,彭家庄公用农业8台区【纯农排变】,楼底公用照明2台区,北城村公用农业1台区【纯农排变】,韩家庄公用农业1台区一【纯农排变】,彭家庄公用照明4台区,楼底公用农业1台区【纯农排变】,彭家庄公用照明1台区,楼底公用照明7台区,北城村公用照明2台区,楼底公用农业4台区【纯农排变】,楼底公用照明8台区,寺底公用照明6台区,定州市鸿运服装加工厂,彭家庄公用农业11台区【纯农排变】,楼底公用照明4台区,彭家庄公用照明3台区,北城村公用照明5台区,北城村公用照明4台区,南城村公用农业1台区【纯农排变】,定州市娄底面粉厂,楼底公用农业5台区【纯农排变】,楼底公用农业2台区【纯农排变】,韩家庄公用照明1台区一,0654273182-河北瑞洪源纺织品有限公司-专变-183727435-河北瑞洪源纺织品有限公司变压器,北城村公用照明3台区,寺底公用农业10台区【纯农排变】,定州市娄底保旗面厂,楼底公用照明11台区,彭家庄公用农业5台区【纯农排变】,楼底公用农业8台区【纯农排变】,楼底公用照明12台区,楼底公用照明3台区,寺底公用农业12台区【纯农排变】,北城村公用农业7台区【纯农排变】,市庄中学,彭家庄公用农业6台区【纯农排变】,南城村公用照明1台区,定州市高志宾淀粉厂,彭家庄公用农业4台区【纯农排变】,韩家庄公用照明4台区1,彭家庄公用照明2台区一,韩家庄公用农业4台区一【纯农排变】,彭家庄公用照明7台区,楼底公用农业17台区【纯农排变】,韩家庄公用照明2台区一,楼底公用照明6台区,北城村公用农业5台区【纯农排变】,彭家庄公用照明8台区,韩家庄公用农业2台区一【纯农排变】,楼底公用农业12台区【纯农排变】,南城村公用农业3台区【纯农排变】,北城村公用农业4台区【纯农排变】,定州市百福面粉厂变压器,南城村公用农业2台区【纯农排变】,楼底公用农业16台区【纯农排变】,南城村公用照明2台区,韩家庄公用农业3台区一【纯农排变】,彭家庄公用照明5台区,彭家庄公用农业3台区【纯农排变】,楼底公用照明9台区,楼底公用农业13台区【纯农排变】,彭家庄公用农业12台区【纯农排变】,定州市南城面粉厂,楼底公用农业15台区【纯农排变】,彭家庄公用农业7台区【纯农排变】,寺底公用农业13台区【纯农排变】,彭家庄公用照明6台区,北城村公用农业6台区【纯农排变】,楼底公用农业3台区【纯农排变】,彭家庄公用农业1台区【纯农排变】,北城村公用农业2台区【纯农排变】,楼底公用照明10台区,楼底公用照明1台区,北城村公用农业3台区【纯农排变】,彭家庄公用农业10台区【纯农排变】,楼底公用农业9台区【纯农排变】,彭家庄公用农业2台区【纯农排变】,楼底公用农业10台区【纯农排变】,楼底公用农业11台区【纯农排变】,楼底公用农业14台区【纯农排变】,楼底公用农业7台区【纯农排变】,彭家庄公用农业9台区【纯农排变】,韩家庄公用照明3台区一,寺底公用农业11台区【纯农排变】,楼底公用农业6台区【纯农排变】,寺底公用照明7台区","poweroffReason":"【停电原因】由于改定值导致３５ＫＶ丁村变电站１０ＫＶ５１５彭家庄线路全线停电 【变更送电】因抢修进度加快原因，送电时间由２３：５９变更为２２：００ 【发布渠道】河北省定州市定州日报第三版（２０１８年０５月１８日）","powerTime":"2018-05-30 21:51:10","powerComm":"已送电","subsNo":"","lineNo":"","tgNo":"","tgName":null,"infoStatus":"1","orgName":"国网定州市供电公司","typeName":null,"infoStatusName":null,"dateDay":null,"orgNos":null,"nowTime":null,"countyName":null,"streetName":null,"villageName":null,"roadName":null,"communityName":null,"tranName":null,"sdLineName":null,"cityCode":"1340610","cityName":"国网定州市供电公司","provinceCode":null,"stopTime":"2018-05-30 22:00:00","powerType":"全部","powerOffArea":"【全线路停电】停楼底公用照明5台区,韩家庄公用农业5台区一【纯农排变】,北城村公用照明1台区,彭家庄公用农业8台区【纯农排变】,楼底公用照明2台区,北城村公用农业1台区【纯农排变】,韩家庄公用农业1台区一【纯农排变】,彭家庄公用照明4台区,楼底公用农业1台区【纯农排变】,彭家庄公用照明1台区,楼底公用照明7台区,北城村公用照明2台区,楼底公用农业4台区【纯农排变】,楼底公用照明8台区,寺底公用照明6台区,定州市鸿运服装加工厂,彭家庄公用农业11台区【纯农排变】,楼底公用照明4台区,彭家庄公用照明3台区,北城村公用照明5台区,北城村公用照明4台区,南城村公用农业1台区【纯农排变】,定州市娄底面粉厂,楼底公用农业5台区【纯农排变】,楼底公用农业2台区【纯农排变】,韩家庄公用照明1台区一,0654273182-河北瑞洪源纺织品有限公司-专变-183727435-河北瑞洪源纺织品有限公司变压器,北城村公用照明3台区,寺底公用农业10台区【纯农排变】,定州市娄底保旗面厂,楼底公用照明11台区,彭家庄公用农业5台区【纯农排变】,楼底公用农业8台区【纯农排变】,楼底公用照明12台区,楼底公用照明3台区,寺底公用农业12台区【纯农排变】,北城村公用农业7台区【纯农排变】,市庄中学,彭家庄公用农业6台区【纯农排变】,南城村公用照明1台区,定州市高志宾淀粉厂,彭家庄公用农业4台区【纯农排变】,韩家庄公用照明4台区1,彭家庄公用照明2台区一,韩家庄公用农业4台区一【纯农排变】,彭家庄公用照明7台区,楼底公用农业17台区【纯农排变】,韩家庄公用照明2台区一,楼底公用照明6台区,北城村公用农业5台区【纯农排变】,彭家庄公用照明8台区,韩家庄公用农业2台区一【纯农排变】,楼底公用农业12台区【纯农排变】,南城村公用农业3台区【纯农排变】,北城村公用农业4台区【纯农排变】,定州市百福面粉厂变压器,南城村公用农业2台区【纯农排变】,楼底公用农业16台区【纯农排变】,南城村公用照明2台区,韩家庄公用农业3台区一【纯农排变】,彭家庄公用照明5台区,彭家庄公用农业3台区【纯农排变】,楼底公用照明9台区,楼底公用农业13台区【纯农排变】,彭家庄公用农业12台区【纯农排变】,定州市南城面粉厂,楼底公用农业15台区【纯农排变】,彭家庄公用农业7台区【纯农排变】,寺底公用农业13台区【纯农排变】,彭家庄公用照明6台区,北城村公用农业6台区【纯农排变】,楼底公用农业3台区【纯农排变】,彭家庄公用农业1台区【纯农排变】,北城村公用农业2台区【纯农排变】,楼底公用照明10台区,楼底公用照明1台区,北城村公用农业3台区【纯农排变】,彭家庄公用农业10台区【纯农排变】,楼底公用农业9台区【纯农排变】,彭家庄公用农业2台区【纯农排变】,楼底公用农业10台区【纯农排变】,楼底公用农业11台区【纯农排变】,楼底公用农业14台区【纯农排变】,楼底公用农业7台区【纯农排变】,彭家庄公用农业9台区【纯农排变】,韩家庄公用照明3台区一,寺底公用农业11台区【纯农排变】,楼底公用农业6台区【纯农排变】,寺底公用照明7台区","powerOffReason":"【停电原因】由于改定值导致３５ＫＶ丁村变电站１０ＫＶ５１５彭家庄线路全线停电 【变更送电】因抢修进度加快原因，送电时间由２３：５９变更为２２：００ 【发布渠道】河北省定州市定州日报第三版（２０１８年０５月１８日）","powerOffId":"2018051713000436"},{"poweroffId":2018051713000432,"sgpoweroffId":null,"subsName":"","lineName":"10kV511丁村线","pubTranName":"西丁村公用农业8台区【纯农排变】,东丁村公用照明1台区,东丁村公用农业11台区,寺底公用照明8台区,定州市子位镇卫生院,西丁村公用农业14台区【纯农排变】,西丁村公用农业15台区,东丁村公用照明2台区,西丁村公用照明11台区,西丁村公用照明6台区,寺底公用农业8台区,定州市子位镇人民政府变压器,寺底公用照明2台区,寺底村东,东丁村公用照明8台区,西丁村公用农业11台区,西丁村公用照明3台区,西丁村公用农业2台区【纯农排变】,东丁村新民居公用照明2台区,东丁村公用农业5台区,东丁村公用照明5台区,西丁村公用农业16台区,西丁村公用农业4台区【纯农排变】,西丁村公用照明1台区,西丁村公用照明10台区,定州市丁村初级中学,丁村供电所,东丁村公用农业16台区【纯农排变】,寺底村河边,东丁东南角,西丁村公用照明15台区,西丁村公用农业10台区,定州市子位镇邮电分局,东丁村公用照明6台区,东丁村公用照明3台区,寺底村北,西丁村公用农业5台区【纯农排变】,定州市子位镇镇政府,东丁村公用照明10台区,寺底村杜计贞,定州市寺底面粉厂,西丁村公用照明8台区,变压器,寺底公用照明4台区,寺底公用照明10台区,寺底公用照明5台区,东丁村公用农业10台区,西丁村公用农业12台区,东丁村新民居公用照明1台区,寺底公用农业6台区,西丁村公用照明5台区,寺底公用农业5台区,东丁村公用农业8台区,西丁村公用照明4台区,东丁村公用农业17台区,西丁村公用照明7台区,寺底公用照明1台区,西丁面粉厂,东丁村公用照明4台区,西丁村公用照明9台区,东丁村公用农业15台区【纯农排变】,东丁村公用农业6台区,东丁村公用照明9台区,寺底公用农业7台区,寺底公用照明9台区,定州市丁村初级中学变压器,西丁村公用农业6台区【纯农排变】,定州市永兴线材有限公司,西丁村公用农业7台区,西丁村公用照明2台区,东丁村公用照明11台区,寺底公用农业9台区,东丁村公用农业14台区【纯农排变】,寺底公用农业4台区,东丁村公用农业13台区,西丁村公用农业3台区【纯农排变】,寺底公用照明3台区,东丁村公用照明7台区,东丁村公用农业7台区,西丁村公用农业13台区,东丁村公用农业12台区,西丁村公用农业1台区【纯农排变】,","scope":"【影响街道/乡镇】子位镇【高危重要客户】无【影响客户】寺底村、西丁村、东丁村","startTime":"2018-05-30 06:00:00","stopDate":"2018-05-30 22:00:00","orgNo":"1340610","typeCode":"计划停电","poweroffArea":"【全线路停电】停东丁村公用农业16台区【纯农排变】,西丁村公用农业10台区,丁村供电所,西丁村公用照明1台区,西丁村公用农业5台区【纯农排变】,西丁村公用农业14台区【纯农排变】,东丁村公用照明11台区,东丁村公用照明1台区,西丁村公用农业3台区【纯农排变】,东丁村公用农业11台区,东丁村公用照明2台区,寺底公用照明5台区,寺底公用农业6台区,西丁村公用照明10台区,西丁村公用农业12台区,东丁村公用农业5台区,寺底公用农业4台区,变寺底村河边,东丁村新民居公用照明1台区,西丁村公用照明7台区,西丁村公用农业8台区【纯农排变】,东丁村公用照明6台区,寺底公用农业5台区,西丁面粉厂","poweroffReason":"【停电原因】由于改定值导致３５ＫＶ丁村变电站１０ＫＶ５１１丁村线路全线停电 【变更送电】因抢修进度加快原因，送电时间由２３：５９变更为２２：００ 【发布渠道】河北省定州市定州日报第三版（２０１８年０５月１８日）","powerTime":"2018-05-30 21:53:07","powerComm":"已送电","subsNo":"","lineNo":"","tgNo":"","tgName":null,"infoStatus":"1","orgName":"国网定州市供电公司","typeName":null,"infoStatusName":null,"dateDay":null,"orgNos":null,"nowTime":null,"countyName":null,"streetName":null,"villageName":null,"roadName":null,"communityName":null,"tranName":null,"sdLineName":null,"cityCode":"1340610","cityName":"国网定州市供电公司","provinceCode":null,"stopTime":"2018-05-30 22:00:00","powerType":"全部","powerOffArea":"【全线路停电】停东丁村公用农业16台区【纯农排变】,西丁村公用农业10台区,丁村供电所,西丁村公用照明1台区,西丁村公用农业5台区【纯农排变】,西丁村公用农业14台区【纯农排变】,东丁村公用照明11台区,东丁村公用照明1台区,西丁村公用农业3台区【纯农排变】,东丁村公用农业11台区,东丁村公用照明2台区,寺底公用照明5台区,寺底公用农业6台区,西丁村公用照明10台区,西丁村公用农业12台区,东丁村公用农业5台区,寺底公用农业4台区,变寺底村河边,东丁村新民居公用照明1台区,西丁村公用照明7台区,西丁村公用农业8台区【纯农排变】,东丁村公用照明6台区,寺底公用农业5台区,西丁面粉厂","powerOffReason":"【停电原因】由于改定值导致３５ＫＶ丁村变电站１０ＫＶ５１１丁村线路全线停电 【变更送电】因抢修进度加快原因，送电时间由２３：５９变更为２２：００ 【发布渠道】河北省定州市定州日报第三版（２０１８年０５月１８日）","powerOffId":"2018051713000432"},{"poweroffId":2018051713000092,"sgpoweroffId":null,"subsName":"","lineName":"10KV东陶516","pubTranName":"公用变1828,","scope":"【影响街道/乡镇】东城坊镇 【高危重要客户】无 【影响客户】东城坊村","startTime":"2018-05-26 07:30:00","stopDate":"2018-05-26 19:00:00","orgNo":"1340626","typeCode":"计划停电","poweroffArea":"【单台区停电】停公用变1828","poweroffReason":"【停电原因】由于煤改电工程导致３５ＫＶ东城坊变电站１０ＫＶ东陶５１６线路公用变１８２８公变台区停电 【变更送电】无 【发布渠道】涿州电视台（０５月１７日至０５月２５日２１：００播放２次）屏幕上方滚动","powerTime":"2018-05-26 18:40:11","powerComm":"恢复送电","subsNo":"","lineNo":"","tgNo":"","tgName":null,"infoStatus":"1","orgName":"国网涿州市供电公司","typeName":null,"infoStatusName":null,"dateDay":null,"orgNos":null,"nowTime":null,"countyName":null,"streetName":null,"villageName":null,"roadName":null,"communityName":null,"tranName":null,"sdLineName":null,"cityCode":"1340626","cityName":"国网涿州市供电公司","provinceCode":null,"stopTime":"2018-05-26 19:00:00","powerType":"全部","powerOffArea":"【单台区停电】停公用变1828","powerOffReason":"【停电原因】由于煤改电工程导致３５ＫＶ东城坊变电站１０ＫＶ东陶５１６线路公用变１８２８公变台区停电 【变更送电】无 【发布渠道】涿州电视台（０５月１７日至０５月２５日２１：００播放２次）屏幕上方滚动","powerOffId":"2018051713000092"},{"poweroffId":2018051713000078,"sgpoweroffId":null,"subsName":"","lineName":"10KV下胡良528","pubTranName":"青岗村东南4469,","scope":"【影响街道/乡镇】东仙坡镇 【高危重要客户】无 【影响客户】青岗村","startTime":"2018-05-26 07:00:00","stopDate":"2018-05-26 18:00:00","orgNo":"1340626","typeCode":"计划停电","poweroffArea":"【单台区停电】停青岗村东南4469","poweroffReason":"【停电原因】由于煤改电工程导致１１０ＫＶ下胡良变电站１０ＫＶ下胡良５２８线路青岗村东南４４６９公变台区停电 【变更送电】无 【发布渠道】涿州电视台（０５月１７日至０５月２５日２１：００播放２次）屏幕上方滚动","powerTime":"2018-05-26 17:40:14","powerComm":"恢复送电","subsNo":"","lineNo":"","tgNo":"","tgName":null,"infoStatus":"1","orgName":"国网涿州市供电公司","typeName":null,"infoStatusName":null,"dateDay":null,"orgNos":null,"nowTime":null,"countyName":null,"streetName":null,"villageName":null,"roadName":null,"communityName":null,"tranName":null,"sdLineName":null,"cityCode":"1340626","cityName":"国网涿州市供电公司","provinceCode":null,"stopTime":"2018-05-26 18:00:00","powerType":"全部","powerOffArea":"【单台区停电】停青岗村东南4469","powerOffReason":"【停电原因】由于煤改电工程导致１１０ＫＶ下胡良变电站１０ＫＶ下胡良５２８线路青岗村东南４４６９公变台区停电 【变更送电】无 【发布渠道】涿州电视台（０５月１７日至０５月２５日２１：００播放２次）屏幕上方滚动","powerOffId":"2018051713000078"},{"poweroffId":2018051713000076,"sgpoweroffId":null,"subsName":"","lineName":"10KV南韩516","pubTranName":"官立庄（村内）1705,","scope":"【影响街道/乡镇】松林店镇 【高危重要客户】无 【影响客户】官立庄村","startTime":"2018-05-26 07:00:00","stopDate":"2018-05-26 18:30:00","orgNo":"1340626","typeCode":"计划停电","poweroffArea":"【单台区停电】停官立庄（村内）1705","poweroffReason":"【停电原因】由于煤改电工程导致３５ＫＶ南马变电站１０ＫＶ南韩５１６线路官立庄（村内）１７０５公变台区停电 【变更送电】无 【发布渠道】涿州电视台（０５月１７日至０５月２５日２１：００播放２次）屏幕上方滚动","powerTime":"2018-05-26 18:10:20","powerComm":"恢复送电","subsNo":"","lineNo":"","tgNo":"","tgName":null,"infoStatus":"1","orgName":"国网涿州市供电公司","typeName":null,"infoStatusName":null,"dateDay":null,"orgNos":null,"nowTime":null,"countyName":null,"streetName":null,"villageName":null,"roadName":null,"communityName":null,"tranName":null,"sdLineName":null,"cityCode":"1340626","cityName":"国网涿州市供电公司","provinceCode":null,"stopTime":"2018-05-26 18:30:00","powerType":"全部","powerOffArea":"【单台区停电】停官立庄（村内）1705","powerOffReason":"【停电原因】由于煤改电工程导致３５ＫＶ南马变电站１０ＫＶ南韩５１６线路官立庄（村内）１７０５公变台区停电 【变更送电】无 【发布渠道】涿州电视台（０５月１７日至０５月２５日２１：００播放２次）屏幕上方滚动","powerOffId":"2018051713000076"},{"poweroffId":2018051713000072,"sgpoweroffId":null,"subsName":"","lineName":"10KV松马517","pubTranName":"松林店村西1567【纯农排变】,","scope":"【影响街道/乡镇】松林店镇 【高危重要客户】无 【影响客户】松林店村","startTime":"2018-05-26 07:00:00","stopDate":"2018-05-26 18:30:00","orgNo":"1340626","typeCode":"计划停电","poweroffArea":"【单台区停电】停松林店村西1567【纯农排变】","poweroffReason":"【停电原因】由于煤改电工程导致３５ＫＶ松林店变电站１０ＫＶ松马５１７线路松林店村西１５６７公变台区停电 【变更送电】无 【发布渠道】涿州电视台（０５月１７日至０５月２５日２１：００播放２次）屏幕上方滚动","powerTime":"2018-05-26 18:10:40","powerComm":"恢复送电","subsNo":"","lineNo":"","tgNo":"","tgName":null,"infoStatus":"1","orgName":"国网涿州市供电公司","typeName":null,"infoStatusName":null,"dateDay":null,"orgNos":null,"nowTime":null,"countyName":null,"streetName":null,"villageName":null,"roadName":null,"communityName":null,"tranName":null,"sdLineName":null,"cityCode":"1340626","cityName":"国网涿州市供电公司","provinceCode":null,"stopTime":"2018-05-26 18:30:00","powerType":"全部","powerOffArea":"【单台区停电】停松林店村西1567【纯农排变】","powerOffReason":"【停电原因】由于煤改电工程导致３５ＫＶ松林店变电站１０ＫＶ松马５１７线路松林店村西１５６７公变台区停电 【变更送电】无 【发布渠道】涿州电视台（０５月１７日至０５月２５日２１：００播放２次）屏幕上方滚动","powerOffId":"2018051713000072"},{"poweroffId":2018051713000068,"sgpoweroffId":null,"subsName":"","lineName":"10KV计算机站522","pubTranName":"西坛村东4434【纯农排变】,","scope":"【影响街道/乡镇】东城坊镇 【高危重要客户】无 【影响客户】西坛村","startTime":"2018-05-26 08:00:00","stopDate":"2018-05-26 19:00:00","orgNo":"1340626","typeCode":"计划停电","poweroffArea":"【单台区停电】停西坛村东4434【纯农排变】","poweroffReason":"【停电原因】由于煤改电工程导致１１０ＫＶ涿县变电站１０ＫＶ计算机站５２２线路西坛村东４４３４公变台区停电 【变更送电】无 【发布渠道】涿州电视台（０５月１７日至０５月２５日２１：００播放２次）屏幕上方滚动","powerTime":"2018-05-26 18:40:30","powerComm":"恢复送电","subsNo":"","lineNo":"","tgNo":"","tgName":null,"infoStatus":"1","orgName":"国网涿州市供电公司","typeName":null,"infoStatusName":null,"dateDay":null,"orgNos":null,"nowTime":null,"countyName":null,"streetName":null,"villageName":null,"roadName":null,"communityName":null,"tranName":null,"sdLineName":null,"cityCode":"1340626","cityName":"国网涿州市供电公司","provinceCode":null,"stopTime":"2018-05-26 19:00:00","powerType":"全部","powerOffArea":"【单台区停电】停西坛村东4434【纯农排变】","powerOffReason":"【停电原因】由于煤改电工程导致１１０ＫＶ涿县变电站１０ＫＶ计算机站５２２线路西坛村东４４３４公变台区停电 【变更送电】无 【发布渠道】涿州电视台（０５月１７日至０５月２５日２１：００播放２次）屏幕上方滚动","powerOffId":"2018051713000068"}],"pageModel":{"pageNow":1093,"totalCount":10973,"totalPage":1098,"tableRows":0,"pageCount":10,"beginCount":10920},"isExperi":"1"}