{"message":"","today":"2020-06-15","seleList":[{"poweroffId":2018051513000107,"sgpoweroffId":null,"subsName":"","lineName":"10kV522惠丰街线","pubTranName":"复兴街南统管出线间隔配电变压器,","scope":"【影响街道/乡镇】恒州镇【高危重要客户】无【影响客户】凯瑞家居　一帆混凝土有限公司　陈文增艺术馆　定瓷有限责任公司","startTime":"2018-05-26 07:30:00","stopDate":"2018-05-26 22:50:00","orgNo":"1340619","typeCode":"计划停电","poweroffArea":"【全线路停电】停复兴街南统管出线间隔配电变压器","poweroffReason":"【停电原因】由于线路计划检修导致１１０ＫＶ曲阳变电站１０ＫＶ５２２惠丰街线路全线停电【变更送电】因工作进度加快原因，送电时间由２７日１０：００变更为２６日２２：５０【发布渠道】保定市曲阳县电视台（０５月１５日至０５月１７日１８时至２０时之间）屏幕上方滚动","powerTime":"2018-05-26 22:25:14","powerComm":"已送电","subsNo":"","lineNo":"","tgNo":"","tgName":null,"infoStatus":"1","orgName":"国网曲阳县供电公司","typeName":null,"infoStatusName":null,"dateDay":null,"orgNos":null,"nowTime":null,"countyName":null,"streetName":null,"villageName":null,"roadName":null,"communityName":null,"tranName":null,"sdLineName":null,"cityCode":"1340619","cityName":"国网曲阳县供电公司","provinceCode":null,"stopTime":"2018-05-26 22:50:00","powerType":"全部","powerOffArea":"【全线路停电】停复兴街南统管出线间隔配电变压器","powerOffReason":"【停电原因】由于线路计划检修导致１１０ＫＶ曲阳变电站１０ＫＶ５２２惠丰街线路全线停电【变更送电】因工作进度加快原因，送电时间由２７日１０：００变更为２６日２２：５０【发布渠道】保定市曲阳县电视台（０５月１５日至０５月１７日１８时至２０时之间）屏幕上方滚动","powerOffId":"2018051513000107"},{"poweroffId":2018051513000095,"sgpoweroffId":null,"subsName":"","lineName":"10kV523赵丘线","pubTranName":"观赏石北区配电变压器,0677606895-河北嘉山悠乐谷旅游开发有限公司-专变-217769125-河北嘉山游乐谷旅游开发有限公司变压器,0013183921李赵邱北2区变压器,烟叶公司（2）,曲阳县腾航混凝土搅拌有限公司变压器,曲阳县农村信用合作联社赵邱信用社,大西旺西3区变压器,0000006275朝阳街统管,0000006178烟草家属院,飞天雕刻有限公司,0000004409大西旺东变压器,曲阳县红章石材雕刻厂变压器,曲阳县庆浩水泥砖销售部变压器,曲阳县永大汽车销售服务有限公司变压器,大西旺郭训民,宏州大理石工艺品有限公司3,曲阳县艺华雕塑有限公司变压器,张西旺张家谱,恒山东路路灯,古赵邱北变压器,曲阳县华岩石材雕刻厂,0000005838李赵邱统管农灌变压器,李赵邱奶牛场,0013183920张西旺北区,0000004407阮西旺变压器,仟镜工艺石材厂,曲阳县建坡饭店变压器,曲阳县安信石材雕刻有限公司,曲阳县华风雕刻有限公司,曲阳县解放汽车维修服务中心,0000005681记西旺统管副业变压器,0000004421夏赵邱西变压器,曲阳县安信石材雕刻有限公司销售分公司变压器,泰利陶瓷有限公司,东环加油站,丽景豪庭B2配电变压器,东环路灯,河北交通投资集团张石高速公路保定段有限公司,曲阳县富源奶牛养殖场变压器,怡潇宫洗浴中心,曲阳县足福堂足疗店变压器,曲阳石艺雕刻有限公司,0677606895-河北嘉山悠乐谷旅游开发有限公司-专变-217766162-河北嘉山游乐谷旅游开发有限公司变压器,张世星,0000004408纪西旺变压器,中国铁塔股份有限公司保定市分公司变压器,曲阳县观赏石公园有限公司变压器,0000004405李赵邱变压器,0012340234李赵邱东区变压器,曲阳县鑫茂石雕有限公司,丽景豪庭东区配电变压器,0012909440大赵邱村南区,石油有限责任公司（城东）,0000004423夏赵邱东,张西旺变压器,古赵邱变压器,曲阳县少峰奶牛养殖场变压器,宏州大理石工艺品有限公司2,曲阳县华冠雕刻厂1变压器,曲阳县明峰雕塑石材经销部变压器,曲阳县华冠雕刻厂变压器,0469121780-曲阳县卫生和计划生育局-专变-197630667-曲阳县卫生和计划生育局变压器,大赵邱东,0000004406大赵邱西区变压器,大西旺西区2,曲阳县德胜园林雕塑有限公司,0012135557大西旺南区,大西旺西变压器,北环苗圃厂,丽景豪庭西区配电变压器,曲阳县博石工艺雕塑厂变压器,曲阳县爱强工艺雕刻厂变压器,0012792362大赵邱村中区,曲阳县先艺石雕工艺品经销部变压器,大西旺北变压器,大西旺东2,0677606895-河北嘉山悠乐谷旅游开发有限公司-专变-217769112-河北嘉山游乐谷旅游开发有限公司变压器,观赏石南配电变压器,0469122363-河北省烟草公司保定市公司曲阳卷烟-专变-46723091-河北省烟草公司保定市公司曲阳卷烟,保定嘉宝矿泉饮料有限公司,0000004411大赵邱东变压器,曲阳县万里加油站变压器,曲阳县大自然石材有限公司变压器,仁济医院2,新蕾雕刻有限公司,河北汇博丽景豪庭变压器,000","scope":"【影响街道/乡镇】恒州镇【高危重要客户】无【影响客户】顾赵邱、李赵邱、大赵邱、大西旺、阮西旺、纪西旺、夏赵邱、检察院、张西旺、烟草家属院、朝阳街、天府小区、仁济小区、永宁花园、永宁小区、永宁花城、丽景豪庭","startTime":"2018-05-26 07:30:00","stopDate":"2018-05-26 22:50:00","orgNo":"1340619","typeCode":"计划停电","poweroffArea":"【全线路停电】停曲阳县庆浩水泥砖销售部变压器,曲阳县万里加油站变压器,曲阳县农村信用合作联社赵邱信用社,曲阳县观赏石公园有限公司变压器,葛玉鹏2,曲阳县艺华雕塑有限公司变压器,0000004423夏赵邱东,飞天雕刻有限公司,0000004406大赵邱西区变压器,曲阳县华风雕刻有限公司","poweroffReason":"【停电原因】由于线路计划检修导致１１０ＫＶ曲阳变电站１０ＫＶ５２３赵丘线路全线停电【变更送电】因工作进度加快原因，送电时间由２７日１０：００变更为２６日２２：５０【发布渠道】保定市曲阳县电视台（０５月１５日至０５月１７日１８时至２０时之间）屏幕上方滚动","powerTime":"2018-05-26 22:25:24","powerComm":"已送电","subsNo":"","lineNo":"","tgNo":"","tgName":null,"infoStatus":"1","orgName":"国网曲阳县供电公司","typeName":null,"infoStatusName":null,"dateDay":null,"orgNos":null,"nowTime":null,"countyName":null,"streetName":null,"villageName":null,"roadName":null,"communityName":null,"tranName":null,"sdLineName":null,"cityCode":"1340619","cityName":"国网曲阳县供电公司","provinceCode":null,"stopTime":"2018-05-26 22:50:00","powerType":"全部","powerOffArea":"【全线路停电】停曲阳县庆浩水泥砖销售部变压器,曲阳县万里加油站变压器,曲阳县农村信用合作联社赵邱信用社,曲阳县观赏石公园有限公司变压器,葛玉鹏2,曲阳县艺华雕塑有限公司变压器,0000004423夏赵邱东,飞天雕刻有限公司,0000004406大赵邱西区变压器,曲阳县华风雕刻有限公司","powerOffReason":"【停电原因】由于线路计划检修导致１１０ＫＶ曲阳变电站１０ＫＶ５２３赵丘线路全线停电【变更送电】因工作进度加快原因，送电时间由２７日１０：００变更为２６日２２：５０【发布渠道】保定市曲阳县电视台（０５月１５日至０５月１７日１８时至２０时之间）屏幕上方滚动","powerOffId":"2018051513000095"},{"poweroffId":2018051513000093,"sgpoweroffId":null,"subsName":"","lineName":"10kV520复兴街线","pubTranName":"复兴街南统管出线间隔配电变压器,","scope":"【影响街道/乡镇】恒州镇【高危重要客户】无【影响客户】曲阳市政工程有限公司","startTime":"2018-05-26 07:30:00","stopDate":"2018-05-26 22:50:00","orgNo":"1340619","typeCode":"计划停电","poweroffArea":"【全线路停电】停复兴街南统管出线间隔配电变压器","poweroffReason":"【停电原因】由于线路计划检修导致１１０ＫＶ曲阳变电站１０ＫＶ５２０复兴街线路全线停电【变更送电】因工作进度加快原因，送电时间由２７日１０：００变更为２６日２２：５０【发布渠道】保定市曲阳县电视台（０５月１５日至０５月１７日１８时至２０时之间）屏幕上方滚动","powerTime":"2018-05-26 22:25:58","powerComm":"已送电","subsNo":"","lineNo":"","tgNo":"","tgName":null,"infoStatus":"1","orgName":"国网曲阳县供电公司","typeName":null,"infoStatusName":null,"dateDay":null,"orgNos":null,"nowTime":null,"countyName":null,"streetName":null,"villageName":null,"roadName":null,"communityName":null,"tranName":null,"sdLineName":null,"cityCode":"1340619","cityName":"国网曲阳县供电公司","provinceCode":null,"stopTime":"2018-05-26 22:50:00","powerType":"全部","powerOffArea":"【全线路停电】停复兴街南统管出线间隔配电变压器","powerOffReason":"【停电原因】由于线路计划检修导致１１０ＫＶ曲阳变电站１０ＫＶ５２０复兴街线路全线停电【变更送电】因工作进度加快原因，送电时间由２７日１０：００变更为２６日２２：５０【发布渠道】保定市曲阳县电视台（０５月１５日至０５月１７日１８时至２０时之间）屏幕上方滚动","powerOffId":"2018051513000093"},{"poweroffId":2018051513000086,"sgpoweroffId":null,"subsName":"","lineName":"10kV515电力局线","pubTranName":"0012309553宏光小区变压器,恒阳住宅小区2变压器,电力局变压器,曲阳县鑫金日化店变压器,曲阳恒都大酒店有限公司变压器,0000006267慧丰街统管变压器,0469352391-中国移动通信集团河北有限公司曲阳分公司-专变-213876233-中国移动通信集团河北有限公司曲阳分公司变压器,公园首府3号配电变压器,0012885865东大街6区变压器,曲阳县金源新型墙材厂,0012828882阳光水岸小区配电变压器,0000004475电厂家属院南变压器,电力局1#院变压器,实验小学路灯,0000005489东关东区变压器,电力局2#院变压器,局三产,王快水库管理处,曲阳县清香园餐饮服务有限公司变压器,0000005619电厂家属院北变压器,阳光水岸小区配电变压器,曲阳县工业和信息化局变压器,曲阳县广播电视局2,公园首府4号配电变压器,0000005305许城东西变压器,0000004479工商局家属院变压器,河北丰华建筑工程有限公司变压器,0000005969恒阳小区变压器,0593927643-曲阳县尚品豆捞酒店-专变-125912024-曲阳县尚品豆捞酒店变压器,0000006191建设街统管2,0000005660第一建筑公司变压器,0000006094建设街统管3变压器,恒阳住宅变压器,曲阳县电厂小区四号楼变压器,0000006218东大街4号变压器,中国联合网络通信有限公司曲阳县分,河北省曲阳县第一建筑工程公司1变压器,0546265026-曲阳县实验学校1-专变-47840234-曲阳县实验小学1变压器,公园首府2号配电变压器,0000005864许城东西2区变压器,阳光小区,曲阳县汇海商贸有限公司变压器,0000005946建设街统管变压器,公园首府1号配电变压器,河北通畅房地产开发有限公司变压器,0469352131-中国移动通信集团河北有限公司曲阳分公司-专变-46781539-移动公司曲阳县分公司,曲阳元丰经济信息咨询有限公司变压器,阳光水岸2配电变压器,0000006750东大街5号变压器,0012309671农发行小区,0000006434昌盛小区变压器,大唐电厂小区变压器,河北恒阳建筑工程有限公司变压器,工商行政管理局,新二中路灯,","scope":"【影响街道/乡镇】恒州镇【高危重要客户】无【影响客户】电力局家属院、许城东、第一建筑公司、东大街、慧丰街、昌盛小区、局三产、电厂家属院、建设街、恒阳小区、移动公司、贾城东、广播电视局、阳光水岸、宏光小区、公园首府、恒阳住宅、阳光小区、农发行小区","startTime":"2018-05-26 07:30:00","stopDate":"2018-05-26 22:50:00","orgNo":"1340619","typeCode":"计划停电","poweroffArea":"【全线路停电】停0000006191建设街统管2,电力局2#院变压器,公园首府2号配电变压器,工商行政管理局,河北恒阳建筑工程有限公司变压器,公园首府3号配电变压器,王快水库管理处,恒阳住宅小区2变压器,0000006267慧丰街统管变压器,0012309671农发行小区,曲阳县清香园餐饮服务有限公司变压器,0000005946建设街统管变压器,0469352391-中国移动通信集团河北有限公司曲阳分公司-专变-213876233-中国移动通信集团河北有限公司曲阳分公司变压器,曲阳县工业和信息化局变压器,曲阳县广播电视局2,中国联合网络通信有限公司曲阳县分,曲阳元丰经济信息咨询有限公司变压器,0593927643-曲阳县尚品豆捞酒店-专变-125912024-曲阳县尚品豆捞酒店变压器,0000005305许城东西变压器,曲阳恒都大酒店有限公司变压器,实验小学路灯,新二中路灯,局三产,0012828882阳光水岸小区配电变压器,0469352131-中国移动通信集团河北有限公司曲阳分公司-专变-46781539-移动公司曲阳县分公司,0000005969恒阳小区变压器,恒阳住宅变压器,曲阳县金源新型墙材厂,0000004475电厂家属院南变压器,0000005660第一建筑公司变压器,电力局变压器,0000006094建设街统管3变压器,阳光水岸小区配电变压器,公园首府4号配电变压器,0000005864许城东西2区变压器,电力局1#院变压器,0000005489东关东区变压器,0000005619电厂家属院北变压器,河北丰华建筑工程有限公司变压器,曲阳县鑫金日化店变压器,公园首府1号配电变压器,0546265026-曲阳县实验学校1-专变-47840234-曲阳县实验小学1变压器,0012309553宏光小区变压器,河北省曲阳县第一建筑工程公司1变压器,阳光水岸2配电变压器,0000006434昌盛小区变压器,阳光小区,0000006218东大街4号变压器,河北通畅房地产开发有限公司变压器,0000006750东大街5号变压器,曲阳县电厂小区四号楼变压器,0012885865东大街6区变压器,曲阳县汇海商贸有限公司变压器,0000004479工商局家属院变压器,大唐电厂小区变压器","poweroffReason":"【停电原因】由于线路计划检修导致１１０ＫＶ曲阳变电站１０ＫＶ电力局５１５线路全线停电【变更送电】因工作进度加快原因，送电时间由２７日１０：００变更为２６日２２：５０【发布渠道】保定市曲阳县电视台（０５月１５日至０５月１７日１８时至２０时之间）屏幕上方滚动","powerTime":"2018-05-26 22:27:00","powerComm":"已送电","subsNo":"","lineNo":"","tgNo":"","tgName":null,"infoStatus":"1","orgName":"国网曲阳县供电公司","typeName":null,"infoStatusName":null,"dateDay":null,"orgNos":null,"nowTime":null,"countyName":null,"streetName":null,"villageName":null,"roadName":null,"communityName":null,"tranName":null,"sdLineName":null,"cityCode":"1340619","cityName":"国网曲阳县供电公司","provinceCode":null,"stopTime":"2018-05-26 22:50:00","powerType":"全部","powerOffArea":"【全线路停电】停0000006191建设街统管2,电力局2#院变压器,公园首府2号配电变压器,工商行政管理局,河北恒阳建筑工程有限公司变压器,公园首府3号配电变压器,王快水库管理处,恒阳住宅小区2变压器,0000006267慧丰街统管变压器,0012309671农发行小区,曲阳县清香园餐饮服务有限公司变压器,0000005946建设街统管变压器,0469352391-中国移动通信集团河北有限公司曲阳分公司-专变-213876233-中国移动通信集团河北有限公司曲阳分公司变压器,曲阳县工业和信息化局变压器,曲阳县广播电视局2,中国联合网络通信有限公司曲阳县分,曲阳元丰经济信息咨询有限公司变压器,0593927643-曲阳县尚品豆捞酒店-专变-125912024-曲阳县尚品豆捞酒店变压器,0000005305许城东西变压器,曲阳恒都大酒店有限公司变压器,实验小学路灯,新二中路灯,局三产,0012828882阳光水岸小区配电变压器,0469352131-中国移动通信集团河北有限公司曲阳分公司-专变-46781539-移动公司曲阳县分公司,0000005969恒阳小区变压器,恒阳住宅变压器,曲阳县金源新型墙材厂,0000004475电厂家属院南变压器,0000005660第一建筑公司变压器,电力局变压器,0000006094建设街统管3变压器,阳光水岸小区配电变压器,公园首府4号配电变压器,0000005864许城东西2区变压器,电力局1#院变压器,0000005489东关东区变压器,0000005619电厂家属院北变压器,河北丰华建筑工程有限公司变压器,曲阳县鑫金日化店变压器,公园首府1号配电变压器,0546265026-曲阳县实验学校1-专变-47840234-曲阳县实验小学1变压器,0012309553宏光小区变压器,河北省曲阳县第一建筑工程公司1变压器,阳光水岸2配电变压器,0000006434昌盛小区变压器,阳光小区,0000006218东大街4号变压器,河北通畅房地产开发有限公司变压器,0000006750东大街5号变压器,曲阳县电厂小区四号楼变压器,0012885865东大街6区变压器,曲阳县汇海商贸有限公司变压器,0000004479工商局家属院变压器,大唐电厂小区变压器","powerOffReason":"【停电原因】由于线路计划检修导致１１０ＫＶ曲阳变电站１０ＫＶ电力局５１５线路全线停电【变更送电】因工作进度加快原因，送电时间由２７日１０：００变更为２６日２２：５０【发布渠道】保定市曲阳县电视台（０５月１５日至０５月１７日１８时至２０时之间）屏幕上方滚动","powerOffId":"2018051513000086"},{"poweroffId":2018051513000073,"sgpoweroffId":null,"subsName":"","lineName":"10kV519城内线","pubTranName":"0000004528国税局家属院变压器,0000006224赵城东统管变压器,复兴街统管2变压器,0000005759公安局小区变压器,0000004424交警队家属院变压器,0000005323审计局家属院变压器,0000004468建行家属院变压器,恒州镇小区变压器,0000006290东大街3号变压器,0000004494赵城东北变压器,0000005322劳动人事局家属院变压器,0000006133恒兴小区变压器,0000004519工商银行家属院变压器,0000005307许城东中变压器,0000005308许城东东变压器,","scope":"【影响街道/乡镇】恒山东路、复兴街、东大街、恒州镇【高危重要客户】无【影响客户】恒兴小区、工商银行家属院、建行家属院、交警队家属院、恒州镇小区、赵城东、国税局家属院、富城小区、许城东、二医院家属院、恒馨园居民小区、城建局家属院、地税局、劳动人事局家属院、审计局家属院、农行小区、新公安局小区、财政局交通局检测线、富城公寓、向阳小区","startTime":"2018-05-26 07:30:00","stopDate":"2018-05-26 22:50:00","orgNo":"1340619","typeCode":"计划停电","poweroffArea":"【全线路停电】停复兴街统管2变压器,0000004494赵城东北变压器,0000005759公安局小区变压器,0000005308许城东东变压器,0000005322劳动人事局家属院变压器,0000006290东大街3号变压器,0000006133恒兴小区变压器,0000005307许城东中变压器,恒州镇小区变压器,0000004424交警队家属院变压器,","poweroffReason":"【停电原因】由于线路计划检修导致１１０ＫＶ曲阳变电站１０ＫＶ５１９城内线路全线停电【变更送电】因工作进度加快原因，送电时间由２７日１０：００变更为２６日２２：５０【发布渠道】保定市曲阳县电视台（０５月１５日至０５月１７日１８时至２０时之间）屏幕上方滚动","powerTime":"2018-05-26 22:27:18","powerComm":"已送电","subsNo":"","lineNo":"","tgNo":"","tgName":null,"infoStatus":"1","orgName":"国网曲阳县供电公司","typeName":null,"infoStatusName":null,"dateDay":null,"orgNos":null,"nowTime":null,"countyName":null,"streetName":null,"villageName":null,"roadName":null,"communityName":null,"tranName":null,"sdLineName":null,"cityCode":"1340619","cityName":"国网曲阳县供电公司","provinceCode":null,"stopTime":"2018-05-26 22:50:00","powerType":"全部","powerOffArea":"【全线路停电】停复兴街统管2变压器,0000004494赵城东北变压器,0000005759公安局小区变压器,0000005308许城东东变压器,0000005322劳动人事局家属院变压器,0000006290东大街3号变压器,0000006133恒兴小区变压器,0000005307许城东中变压器,恒州镇小区变压器,0000004424交警队家属院变压器,","powerOffReason":"【停电原因】由于线路计划检修导致１１０ＫＶ曲阳变电站１０ＫＶ５１９城内线路全线停电【变更送电】因工作进度加快原因，送电时间由２７日１０：００变更为２６日２２：５０【发布渠道】保定市曲阳县电视台（０５月１５日至０５月１７日１８时至２０时之间）屏幕上方滚动","powerOffId":"2018051513000073"},{"poweroffId":2018051413000414,"sgpoweroffId":null,"subsName":"","lineName":"10kV东官庄557","pubTranName":"南瓦宅村东混变压器,张家洼村南混用变压器,东南租村东新,南瓦宅村西南专【纯农排变】,曹家庄村东北,南秋兰村东混变压器,西南租村东混变压器,北封村内变压器,城西污水处理,曹家庄村东混,南瓦宅学校台区,北瓦宅村北混变压器,封村100KVA路灯变,司徒村东50专,北瓦宅村西2变压器【纯农排变】,司徒村内专50,涞水县国土资源局新增100KVA变压器,司徒村内2,南瓦宅村西北台区,北南租村北2,南秋兰村西混变压器,董家庄村西混,北瓦宅村西混变压器,南瓦宅村内2,王各庄村北专变压器【纯农排变】,西南租村内混变压器,北瓦宅村北2台区,瓦宅100KVA路灯变,南秋兰村北混变压器,司徒村南混变压器,司徒村内50,0469096675-东明义面粉厂-专变-46718866-东明义面粉厂,南互通收费站,训林灰粉厂,涞水中港电子科技有限公司200KVA专变,北汝河村北专2台区【纯农排变】,北南租村西混变压器,0627226874-河北涞博传动机械制造有限公司-专变-139258158-涞博传动机械制造有限公司250KVA变压器专变,河北涞博传动机械制造有限公司250KVA 专变,司徒村东北|0827【纯农排变】,董家庄村东北专变压器【纯农排变】,北京公交集团资产管理涞水有限公司315KVA专变,司徒村东南1台区【纯农排变】,司徒村北专变压器,张志安机井,司徒村东混用台区,训林灰厂2,西南租村西台区,北瓦宅村东混变压器,南瓦宅村北2台区,张家洼村东台区,0619340779-涞水县圣鑫石灰厂-专变-128938100-圣鑫石灰厂200KVA专变,南瓦宅村西2台区,南瓦宅村西北2台区,东南租东南专变压器,西南租村内新建,司徒村东200【纯农排变】,变压器,东南租村内台区,北瓦宅村西北混变压器,张家洼村北混用变压器,董家庄村东南专【纯农排变】,北瓦宅村东北变压器,北南租村北混变压器,司徒村内100,南秋兰村南台区,南瓦宅东北专变压器,南瓦宅村北混变压器,华恒商贸有限公司100KVA专变,南瓦宅村西混变压器,董家庄村东混,北瓦宅村内混变压器,张志安灰粉厂,南瓦宅村西专变压器【纯农排变】,董家庄村南,陶立厂,北南租村北专变压器【纯农排变】,北瓦宅面粉厂,南瓦宅村南混变压器,东南租村南3台区,南瓦宅村内混变压器,董家庄村东专【纯农排变】,东南租村南专【纯农排变】,东南租村东混变压器,涞水京涞易轻200KVA专变,","scope":"【影响街道/乡镇】涞水镇、明义镇、胡家庄乡 【高危重要客户】无 【影响客户】南瓦宅村、北瓦宅村、南郭下村、欧美亚附近、南秋兰村、北封村、张家洼村、北南租村、东南租村、西南租村、曹家庄村、司徒村、董家庄村、王各庄村","startTime":"2018-05-26 00:00:00","stopDate":"2018-05-26 08:00:00","orgNo":"1340614","typeCode":"计划停电","poweroffArea":"【全线路停电】停北南租村北专变压器【纯农排变】,南瓦宅村东混变压器,北瓦宅村北2台区,南瓦宅村内2,董家庄村西混,王各庄村北专变压器【纯农排变】,南瓦宅村西北台区,瓦宅100KVA路灯变,北汝河村北专2台区【纯农排变】,北南租村北2,华恒商贸有限公司100KVA专变,北瓦宅村北混变压器,北南租村西混变压器,0627226874-河北涞博传动机械制造有限公司-专变-139258158-涞博传动机械制造有限公司250KVA变压器专变,董家庄村东南专【纯农排变】,南秋兰村西混变压器,北瓦宅村东北变压器,河北涞博传动机械制造有限公司250KVA 专变,北南租村北混变压器,司徒村东北|0827【纯农排变】,司徒村内100,董家庄村东北专变压器【纯农排变】,董家庄村东专【纯农排变】,南秋兰村南台区,北京公交集团资产管理涞水有限公司315KVA专变,司徒村东南1台区【纯农排变】,张家洼村南混用变压器,西南租村内混变压器,南秋兰村北混变压器,东南租村东新,司徒村东混用台区,南瓦宅村西南专【纯农排变】,曹家庄村东北,司徒村南混变压器,司徒村北专变压器,司徒村内50,0469096675-东明义面粉厂-专变-46718866-东明义面粉厂,北瓦宅村西混变压器,南瓦宅东北专变压器,城西污水处理,张志安机井,南瓦宅村北混变压器,南秋兰村东混变压器,训林灰厂2,北瓦宅村西2变压器【纯农排变】,南互通收费站,西南租村西台区,司徒村内专50,西南租村东混变压器,训林灰粉厂,北瓦宅村东混变压器,涞水县国土资源局新增100KVA变压器,张家洼村北混用变压器,南瓦宅村内混变压器,北封村内变压器,司徒村内2,涞水京涞易轻200KVA专变,涞水中港电子科技有限公司200KVA专变,南瓦宅村北2台区,张家洼村东台区,南瓦宅村西混变压器,0619340779-涞水县圣鑫石灰厂-专变-128938100-圣鑫石灰厂200KVA专变,董家庄村东混,南瓦宅村西2台区,封村100KVA路灯变,南瓦宅村西北2台区,陶立厂,东南租东南专变压器,北瓦宅村内混变压器,北瓦宅面粉厂,张志安灰粉厂,西南租村内新建,司徒村东50专,司徒村东200【纯农排变】,东南租村南专【纯农排变】,变压器,南瓦宅村西专变压器【纯农排变】,南瓦宅村南混变压器,东南租村东混变压器,董家庄村南,东南租村内台区,曹家庄村东混,东南租村南3台区,南瓦宅学校台区,北瓦宅村西北混变压器","poweroffReason":"【停电原因】由于更换导线导致１１０ＫＶ郭下变电站１０ＫＶ东官庄５５７线路全线停电 【变更送电】无 【发布渠道】保定市涞水电视台（０５月１４日１７时至０５月２５日１７时之间）屏幕上方滚动","powerTime":"2018-05-26 07:54:18","powerComm":"已送电","subsNo":"","lineNo":"","tgNo":"","tgName":null,"infoStatus":"1","orgName":"国网涞水县供电公司","typeName":null,"infoStatusName":null,"dateDay":null,"orgNos":null,"nowTime":null,"countyName":null,"streetName":null,"villageName":null,"roadName":null,"communityName":null,"tranName":null,"sdLineName":null,"cityCode":"1340614","cityName":"国网涞水县供电公司","provinceCode":null,"stopTime":"2018-05-26 08:00:00","powerType":"全部","powerOffArea":"【全线路停电】停北南租村北专变压器【纯农排变】,南瓦宅村东混变压器,北瓦宅村北2台区,南瓦宅村内2,董家庄村西混,王各庄村北专变压器【纯农排变】,南瓦宅村西北台区,瓦宅100KVA路灯变,北汝河村北专2台区【纯农排变】,北南租村北2,华恒商贸有限公司100KVA专变,北瓦宅村北混变压器,北南租村西混变压器,0627226874-河北涞博传动机械制造有限公司-专变-139258158-涞博传动机械制造有限公司250KVA变压器专变,董家庄村东南专【纯农排变】,南秋兰村西混变压器,北瓦宅村东北变压器,河北涞博传动机械制造有限公司250KVA 专变,北南租村北混变压器,司徒村东北|0827【纯农排变】,司徒村内100,董家庄村东北专变压器【纯农排变】,董家庄村东专【纯农排变】,南秋兰村南台区,北京公交集团资产管理涞水有限公司315KVA专变,司徒村东南1台区【纯农排变】,张家洼村南混用变压器,西南租村内混变压器,南秋兰村北混变压器,东南租村东新,司徒村东混用台区,南瓦宅村西南专【纯农排变】,曹家庄村东北,司徒村南混变压器,司徒村北专变压器,司徒村内50,0469096675-东明义面粉厂-专变-46718866-东明义面粉厂,北瓦宅村西混变压器,南瓦宅东北专变压器,城西污水处理,张志安机井,南瓦宅村北混变压器,南秋兰村东混变压器,训林灰厂2,北瓦宅村西2变压器【纯农排变】,南互通收费站,西南租村西台区,司徒村内专50,西南租村东混变压器,训林灰粉厂,北瓦宅村东混变压器,涞水县国土资源局新增100KVA变压器,张家洼村北混用变压器,南瓦宅村内混变压器,北封村内变压器,司徒村内2,涞水京涞易轻200KVA专变,涞水中港电子科技有限公司200KVA专变,南瓦宅村北2台区,张家洼村东台区,南瓦宅村西混变压器,0619340779-涞水县圣鑫石灰厂-专变-128938100-圣鑫石灰厂200KVA专变,董家庄村东混,南瓦宅村西2台区,封村100KVA路灯变,南瓦宅村西北2台区,陶立厂,东南租东南专变压器,北瓦宅村内混变压器,北瓦宅面粉厂,张志安灰粉厂,西南租村内新建,司徒村东50专,司徒村东200【纯农排变】,东南租村南专【纯农排变】,变压器,南瓦宅村西专变压器【纯农排变】,南瓦宅村南混变压器,东南租村东混变压器,董家庄村南,东南租村内台区,曹家庄村东混,东南租村南3台区,南瓦宅学校台区,北瓦宅村西北混变压器","powerOffReason":"【停电原因】由于更换导线导致１１０ＫＶ郭下变电站１０ＫＶ东官庄５５７线路全线停电 【变更送电】无 【发布渠道】保定市涞水电视台（０５月１４日１７时至０５月２５日１７时之间）屏幕上方滚动","powerOffId":"2018051413000414"},{"poweroffId":2018051413000408,"sgpoweroffId":null,"subsName":"","lineName":"10kV永乐572","pubTranName":"西武泉村西混变压器,富位村东北专,胡家庄中学间隔配电变压器【煤改电】,南辛庄派出所变压器【煤改电】,涞水县农村信用合作联社新增100KVA变压器,北汝河大队台区,南辛庄村东台区【纯农排变】,北郭下东北2,富位村东庄2新,永乐村内1台区,富位专3变压器【纯农排变】,汇通洁净型煤1250KVA专变,富位村南混变压器,永乐村南1台区,卢国华冷库160KVA专变,南汝河村北混变压器,姜各庄村北混变压器,0648630919-涞水县汇通洁净型煤有限公司-专变-172540185-涞水县汇通洁净型煤有限公司新增630KVA,王各庄村东,王各庄村南|0836,富位村东专3新,王各庄村北混变压器,0552217055-北京八方达客运有限责任公司大兴分公司-专变-50303231-配变,王各庄燃气站变压器,姜各庄村西混变压器,张石1#路灯变,北汝河东北专变压器区【纯农排变】,富位村北井台区,南汝河村西混变压器,富位大队台区,南辛庄村北专,胡家庄村西机井【纯农排变】,永乐村北专用变压器【纯农排变】,王各庄村北二台区,西武泉村中变压器,北汝河村边专变压器【纯农排变】,涞水县尚睿洗浴中心,富位村内混变压器,富位东专5变压器【纯农排变】,永乐村东1号井【纯农排变】,南辛庄村东混变压器,姜各庄东北专变压器【纯农排变】,富位东北井变压器,张石2#路灯变,南辛庄村内台区,姜各庄村东专|0795【冬季供暖设施】,任东连灰厂,省扶贫基地养,北郭下村北2井,北汝河村西专【纯农排变】,西武泉村南专2,张石3#路灯变,富位村东专3变压器,永乐村南混变压器,胡家庄村内变压器,永乐北专用变压器【纯农排变】,王各庄村中,胡家庄专用|0792【纯农排变】,胡家庄专用一,永乐村东混,省扶贫基地2,富位村东混2台区,东官庄村东【纯农排变】,南汝河村东专2台区【纯农排变】,南郭下村北,富位村东专4变压器【纯农排变】,南汝河村北专2【纯农排变】,姜各庄村东新增,北汝河村西2台区,涿州市东方金鼎钢结构有限公司新增变压器250KVA,富位村东混变压器,王各庄村南专【纯农排变】,胡家庄村西机井新建【纯农排变】变压器,东官庄村南1,姜各庄村东2|0794,胡家庄乡大众浴池250KVA专变,胡家庄村北混变压器【纯农排变】,永乐村东北混1台区,永乐路边混变压器,南汝河村北专变压器,北汝河村内混变压器,胡家庄村东北新【纯农排变】变压器,西武泉村南变压器,北汝河村西北混变压器,南辛庄村东2,北郭下村南二,北郭下村南井,富位小东街台区变压器,富民面粉厂,王各庄面粉厂,永乐村专2台区,南辛庄驾校机井【纯农排变】变压器,永乐东北混变压器【纯农排变】,富位村南专变压器【纯农排变】,姜各庄村东混变压器,富位村西专,南辛庄原种厂西台区,变压器,北汝河村北【纯农排变】变压器,西武泉东北专【纯农排变】,富位村东专1变压器,胡家庄村东混变压器,富位东机井,胡家庄村南变压器,富位市场变压器,蔡联军100KVA专变,0644356121-涞水县汇通洁净型煤有限公司-专变-162024032-汇通洁净型煤有限公司200KVA专变,西武泉村北专【纯农排变】,富位东庄2变压器,胡家庄东南专变压器,胡家庄广场台区,北郭下","scope":"【影响街道/乡镇】涞水镇、明义镇、 胡家庄乡 【高危重要客户】无 【影响客户】东官庄村、北郭下村、富位村、胡家庄村、南辛庄村、西武泉村、王各庄村、永乐村、南汝河村、北汝河村、姜各庄村","startTime":"2018-05-26 00:00:00","stopDate":"2018-05-26 08:00:00","orgNo":"1340614","typeCode":"计划停电","poweroffArea":"【全线路停电】停北郭下村南二,南辛庄原种厂西台区,北郭下村南井,张石3#路灯变,张石1#路灯变,变压器,南辛庄村东2,北汝河村北【纯农排变】变压器,北汝河东北专变压器区【纯农排变】,富位村东专3变压器,富位村北井台区,西武泉东北专【纯农排变】,南汝河村西混变压器,王各庄村南专【纯农排变】,胡家庄村内变压器,富位大队台区,富位村东专1变压器,胡家庄村东混变压器,南汝河村北混变压器,东官庄村南1,胡家庄小学台区变压器,永乐村东专变压器【纯农排变】,胡家庄中学间隔配电变压器【煤改电】,姜各庄村中2,富位村东混2台区,南辛庄派出所变压器【煤改电】,永乐北专用变压器【纯农排变】,胡家庄村东2台区【纯农排变】变压器,卢国华冷库160KVA专变,富位东机井,胡家庄村西机井新建【纯农排变】变压器,省扶贫基地2,富位东庄2变压器,张石2#路灯变,富位村西混变压器,南辛庄村内台区,东官庄村东【纯农排变】,富位村南专变压器【纯农排变】,胡家庄东南专变压器,北汝河村边专变压器【纯农排变】,西武泉村北专【纯农排变】,涞水县尚睿洗浴中心,富位村南专新,北汝河村西专【纯农排变】,永乐村专2台区,南辛庄驾校机井【纯农排变】变压器,南辛庄村北专,富位小东街台区变压器,姜各庄村东专|0795【冬季供暖设施】,胡家庄村西机井【纯农排变】,任东连灰厂,富民面粉厂,富位农场2,永乐村北专用变压器【纯农排变】,省扶贫基地养,王各庄面粉厂,北郭下村北2井,王各庄村北二台区,西武泉村中变压器,王各庄村中,姜各庄村北混变压器,涞水县农村信用合作联社新增100KVA变压器,姜各庄村东2|0794,胡家庄村南变压器,西武泉村南专2,富位村北台区,永乐村北混变压器,北郭下东北2,姜各庄村内【冬季供暖设施】,永乐村南混变压器,涞水县贵兴烧洁页岩砖有限公司新增变压器1000KVA,富位村东庄2新,永乐村内1台区,0648630919-涞水县汇通洁净型煤有限公司-专变-172540185-涞水县汇通洁净型煤有限公司新增630KVA,胡家庄专用|0792【纯农排变】,富位市场变压器,南关直属库机井【纯农排变】,胡家庄专用一,王各庄村东,富位村南2,蔡联军100KVA专变,东官庄村南,王各庄村南|0836,富位村东专3新,永乐村内,永乐村东混,王各庄村北混变压器,0644356121-涞水县汇通洁净型煤有限公司-专变-162024032-汇通洁净型煤有限公司200KVA专变,南汝河村内混变压器,0552217055-北京八方达客运有限责任公司大兴分公司-专变-50303231-配变,富位村内混变压器,富位专3变压器【纯农排变】,胡家庄乡大众浴池250KVA专变,永乐东北混变压器【纯农排变】,富位东专5变压器【纯农排变】,汇通洁净型煤1250KVA专变,姜各庄村东混变压器,胡家庄村北混变压器【纯农排变】,永乐村东1号井【纯农排变】,永乐村东北混1台区,南辛庄村东混变压器,富位村西专,永乐路边混变压器,南汝河村北专变压器,永乐村南1台区,富位村南混变压器,姜各庄东北专变压器【纯农排变】,北汝河村内混变压器,富位东北井变压器,胡家庄村东北新【纯农排变】变压器,南汝河村东专2台区【纯农排变】,胡家庄广场台区,南郭下村北,北郭下面粉厂变压器,富位村东专4变压器【纯农排变】,王各庄燃气站变压器,西武泉村南专变压器【纯农排变】,西武泉村南变压器,姜各庄村西混变压器,南汝河村北专2【纯农排变】,北汝河村西北混变压器,北郭下村东,0607025172-河北省公安厅高速公路交通警察总队保定支队涞水大队-专变-127400342-高速交警200KVA专变,姜各庄村东新增,北汝河大队台区,永乐村北2,富位村东南混,北汝河村西2台区,北郭下","poweroffReason":"【停电原因】由于更换导线导致１１０ＫＶ郭下变电站１０ＫＶ永乐５７２线路全线停电 【变更送电】无 【发布渠道】保定市涞水电视台（０５月１４日１７时至０５月２５日１７时之间）屏幕上方滚动。","powerTime":"2018-05-26 07:55:52","powerComm":"已送电","subsNo":"","lineNo":"","tgNo":"","tgName":null,"infoStatus":"1","orgName":"国网涞水县供电公司","typeName":null,"infoStatusName":null,"dateDay":null,"orgNos":null,"nowTime":null,"countyName":null,"streetName":null,"villageName":null,"roadName":null,"communityName":null,"tranName":null,"sdLineName":null,"cityCode":"1340614","cityName":"国网涞水县供电公司","provinceCode":null,"stopTime":"2018-05-26 08:00:00","powerType":"全部","powerOffArea":"【全线路停电】停北郭下村南二,南辛庄原种厂西台区,北郭下村南井,张石3#路灯变,张石1#路灯变,变压器,南辛庄村东2,北汝河村北【纯农排变】变压器,北汝河东北专变压器区【纯农排变】,富位村东专3变压器,富位村北井台区,西武泉东北专【纯农排变】,南汝河村西混变压器,王各庄村南专【纯农排变】,胡家庄村内变压器,富位大队台区,富位村东专1变压器,胡家庄村东混变压器,南汝河村北混变压器,东官庄村南1,胡家庄小学台区变压器,永乐村东专变压器【纯农排变】,胡家庄中学间隔配电变压器【煤改电】,姜各庄村中2,富位村东混2台区,南辛庄派出所变压器【煤改电】,永乐北专用变压器【纯农排变】,胡家庄村东2台区【纯农排变】变压器,卢国华冷库160KVA专变,富位东机井,胡家庄村西机井新建【纯农排变】变压器,省扶贫基地2,富位东庄2变压器,张石2#路灯变,富位村西混变压器,南辛庄村内台区,东官庄村东【纯农排变】,富位村南专变压器【纯农排变】,胡家庄东南专变压器,北汝河村边专变压器【纯农排变】,西武泉村北专【纯农排变】,涞水县尚睿洗浴中心,富位村南专新,北汝河村西专【纯农排变】,永乐村专2台区,南辛庄驾校机井【纯农排变】变压器,南辛庄村北专,富位小东街台区变压器,姜各庄村东专|0795【冬季供暖设施】,胡家庄村西机井【纯农排变】,任东连灰厂,富民面粉厂,富位农场2,永乐村北专用变压器【纯农排变】,省扶贫基地养,王各庄面粉厂,北郭下村北2井,王各庄村北二台区,西武泉村中变压器,王各庄村中,姜各庄村北混变压器,涞水县农村信用合作联社新增100KVA变压器,姜各庄村东2|0794,胡家庄村南变压器,西武泉村南专2,富位村北台区,永乐村北混变压器,北郭下东北2,姜各庄村内【冬季供暖设施】,永乐村南混变压器,涞水县贵兴烧洁页岩砖有限公司新增变压器1000KVA,富位村东庄2新,永乐村内1台区,0648630919-涞水县汇通洁净型煤有限公司-专变-172540185-涞水县汇通洁净型煤有限公司新增630KVA,胡家庄专用|0792【纯农排变】,富位市场变压器,南关直属库机井【纯农排变】,胡家庄专用一,王各庄村东,富位村南2,蔡联军100KVA专变,东官庄村南,王各庄村南|0836,富位村东专3新,永乐村内,永乐村东混,王各庄村北混变压器,0644356121-涞水县汇通洁净型煤有限公司-专变-162024032-汇通洁净型煤有限公司200KVA专变,南汝河村内混变压器,0552217055-北京八方达客运有限责任公司大兴分公司-专变-50303231-配变,富位村内混变压器,富位专3变压器【纯农排变】,胡家庄乡大众浴池250KVA专变,永乐东北混变压器【纯农排变】,富位东专5变压器【纯农排变】,汇通洁净型煤1250KVA专变,姜各庄村东混变压器,胡家庄村北混变压器【纯农排变】,永乐村东1号井【纯农排变】,永乐村东北混1台区,南辛庄村东混变压器,富位村西专,永乐路边混变压器,南汝河村北专变压器,永乐村南1台区,富位村南混变压器,姜各庄东北专变压器【纯农排变】,北汝河村内混变压器,富位东北井变压器,胡家庄村东北新【纯农排变】变压器,南汝河村东专2台区【纯农排变】,胡家庄广场台区,南郭下村北,北郭下面粉厂变压器,富位村东专4变压器【纯农排变】,王各庄燃气站变压器,西武泉村南专变压器【纯农排变】,西武泉村南变压器,姜各庄村西混变压器,南汝河村北专2【纯农排变】,北汝河村西北混变压器,北郭下村东,0607025172-河北省公安厅高速公路交通警察总队保定支队涞水大队-专变-127400342-高速交警200KVA专变,姜各庄村东新增,北汝河大队台区,永乐村北2,富位村东南混,北汝河村西2台区,北郭下","powerOffReason":"【停电原因】由于更换导线导致１１０ＫＶ郭下变电站１０ＫＶ永乐５７２线路全线停电 【变更送电】无 【发布渠道】保定市涞水电视台（０５月１４日１７时至０５月２５日１７时之间）屏幕上方滚动。","powerOffId":"2018051413000408"},{"poweroffId":2018051413000314,"sgpoweroffId":null,"subsName":"","lineName":"10kV王林口540线","pubTranName":"五丈湾6#公用配变,阜平县盖宇天然饮料食品有限公司,阜平县铭达矿产品经销有限公司,0667197990-阜平县东泰劳务服务处-专变-208399711-阜平县东泰劳务服务处,葫芦峪(阜平)农业科技开发有限公司,西王林口2#公用配变,西王林口4#公用配变,阜平县王林口乡人民政府,马沙沟1#公用配变,王快17#公用配变,阜平县林发绿化有限公司,五丈湾2#公用配变,中石化保定石油分公司平阳加油站,五丈湾11#公用配变,王快1#公用配变,铁岭7号公用配变,皂火峪2#公用配变变压器,铁岭3号公用配变,保定申成路桥有限责任公司,0679871550-河北青林农业技术开发有限公司-专变-219683207-河北青林农业技术开发有限公司,东王林口田野希望小学采暖1号变压器,前岭3#公用配变,前岭7#公用配变,王快15#公用配变,前岭5#公用配变,0662475071-河北国和兴阜农业发展有限公司-专变-197585568-河北国和兴阜农业发展有限公司,五丈湾4#公用配变,0679871749-河北青林农业技术开发有限公司-专变-219676475-河北青林农业技术开发有限公司,王快7#公用配变,阜平县仓房岭农牧业开发有限公司,河北建设集团有限公司,保定天航绿色保鲜有限公司,王快3#公用配变,中国石油天然气股份有限公司河北保,五丈湾8#公用配变,河北建设集团股份有限公司,阜平县阜裕投资有限责任公司,0671873327-河北国和兴阜农业发展有限公司-专变-212380449-河北国和兴阜农业发展有限公司,马沙沟2#公用配变,阜平县福瑞嘉食用菌专业合作社,阜平县鑫巨经贸有限公司,王快8#公用配变,河北青林农业技术开发有限公司,中国移动通信集团河北有限公司阜平分公司,保定市保阜高速公路阜平东收费站,铁岭4#公用配变,后沟井,马坊2#公用配变,铁岭2#公用配变,前岭2#公用配变,铁岭6#公用配变,刘家沟2#公用配变,五丈湾12#公用配变,0684002954-阜平县日荣新型建材加工厂-专变-223582621-阜平县日荣新型建材加工厂,王快14#公用配变,阜平县王林口强盛煤炭经销处,阜平县金阳泰铝塑门窗加工厂,前岭4#公用配变,刘家沟1#公用配变,0676135860-河北国和兴阜农业发展有限公司-专变-216183111-河北国和兴阜农业发展有限公司,阜平县福泉养羊专业合作社,王快4#公用配变,0679875477-河北青林农业技术开发有限公司-专变-219683713-河北青林农业技术开发有限公司,皂火峪村公用配变【光伏】,王快11#公用配变,马坊1#公用配变,黄家坡水,石门沟水专,0662475127-河北国和兴阜农业发展有限公司-专变-197584129-河北国和兴阜农业发展有限公司,铁岭5#公用配变,阜平县环境保护局,阜平县恒泰水貂养殖有限公司,0662477820-河北国和兴阜农业发展有限公司-专变-197584059-河北国和兴阜农业发展有限公司,五丈湾1#公用配变,孟现明煤场,阜平县合盛食用菌种植专业合作社,五丈湾富民小学采暖1号变压器,中国联合网络通信有限公司阜平分公,阜平县宇晖商贸有限公司,前岭6#公用配变,大名县霁祥贸易","scope":"【影响街道/乡镇】平阳镇、王林口乡 【高危重要客户】无 【影响客户】平阳村、铁岭村、王快村、白山村、五丈湾劳动沟村、五丈湾坡河村、皂火峪村","startTime":"2018-05-27 07:00:00","stopDate":"2018-05-27 16:30:00","orgNo":"1340611","typeCode":"计划停电","poweroffArea":"【分支停电】停王快16#公用配变,五丈湾6#公用配变,王快5#公用配变,葫芦峪（阜平）农业科技开发有限公司,五丈湾1#公用配变,铁岭4#公用配变,皂火峪村公用配变【光伏】,刘家沟1#公用配变,五丈湾4#公用配变,五丈湾2#公用配变,阜平县王林口乡西王林口小学,中国移动通信集团河北有限公司阜平分公司,阜平县越升煤炭购销处,县平阳镇铁岭村村民委员会,阜平县王林口乡卫生院,五丈湾8#公用配变,前岭6#公用配变,王快7#公用配变,西王林口2#公用配变,专变-197585568-河北国和兴阜农业发展有限公司,东王林口2#公用配变,阜平县金阳泰铝塑门窗加工厂,阜平县平阳中心卫生院,平阳11#公用配变,阜平县北果园乡惠民湾村委会,阜平县福泉牧业有限公司,阜平县职业技术教育中心,中石化保定石油分公司平阳加油站,五丈湾12#公用配变,中国联合网络通信有限公司阜平分公,王快2#公用配变,白山1#公用配变,黄家坡水,阜平县盖宇天然饮料食品有限公司,铁岭5#公用配变,王快13#公用配变,王快17#公用配变,西王林口4#公用配变,0676135860-河北国和兴阜农业发展有限公司-专变-216183111-河北国和兴阜农业发展有限公司,阜平县阜裕投资有限责任公司,五丈湾11#公用配变,阜平县林发绿化有限公司,阜平县昌盛水泥砖厂,0662476058-河北国和兴阜农业发展有限公司-专变-197585476-河北国和兴阜农业发展有限公司,0662477820-河北国和兴阜农业发展有限公司-专变-197584059-河北国和兴阜农业发展有限公司,五丈湾9#公用配变,王快12#公用配变,王快14#公用配变,0584732582-阜平县平阳镇五凤岭水专-专变-124991301-阜平县平阳镇五凤岭水专,河北建设集团有限公司,东王林口田野希望小学采暖1号变压器,河北青林农业技术开发有限公司,王快9#0662475071-河北国和兴阜农业发展有限公司-公用配变,铁岭6#公用配变,0668574237-银泰葫芦峪(阜平)农业科技开发有限公司-专变-210013002-葫芦峪(阜平)农业科技开发有限公司,五丈湾13#公用配变,东王林口1#公用配变,后沟井,石门沟水专,西王林口1#公用配变,王快11#公用配变,铁岭7号公用配变,王快6#公用配变,五丈湾5#公用配变","poweroffReason":"【停电原因】由于清扫线路导致１１０ＫＶ平阳变电站１０ＫＶ王林口５４０线路主干０４号杆０２号刀闸动触头及以下线路停电 【变更送电】无 【发布渠道】保定市阜平电视台（５月１５日１８时至５月２６日２１时）飞播","powerTime":"2018-05-27 15:47:40","powerComm":"已送电","subsNo":"","lineNo":"","tgNo":"","tgName":null,"infoStatus":"1","orgName":"国网阜平县供电公司","typeName":null,"infoStatusName":null,"dateDay":null,"orgNos":null,"nowTime":null,"countyName":null,"streetName":null,"villageName":null,"roadName":null,"communityName":null,"tranName":null,"sdLineName":null,"cityCode":"1340611","cityName":"国网阜平县供电公司","provinceCode":null,"stopTime":"2018-05-27 16:30:00","powerType":"全部","powerOffArea":"【分支停电】停王快16#公用配变,五丈湾6#公用配变,王快5#公用配变,葫芦峪（阜平）农业科技开发有限公司,五丈湾1#公用配变,铁岭4#公用配变,皂火峪村公用配变【光伏】,刘家沟1#公用配变,五丈湾4#公用配变,五丈湾2#公用配变,阜平县王林口乡西王林口小学,中国移动通信集团河北有限公司阜平分公司,阜平县越升煤炭购销处,县平阳镇铁岭村村民委员会,阜平县王林口乡卫生院,五丈湾8#公用配变,前岭6#公用配变,王快7#公用配变,西王林口2#公用配变,专变-197585568-河北国和兴阜农业发展有限公司,东王林口2#公用配变,阜平县金阳泰铝塑门窗加工厂,阜平县平阳中心卫生院,平阳11#公用配变,阜平县北果园乡惠民湾村委会,阜平县福泉牧业有限公司,阜平县职业技术教育中心,中石化保定石油分公司平阳加油站,五丈湾12#公用配变,中国联合网络通信有限公司阜平分公,王快2#公用配变,白山1#公用配变,黄家坡水,阜平县盖宇天然饮料食品有限公司,铁岭5#公用配变,王快13#公用配变,王快17#公用配变,西王林口4#公用配变,0676135860-河北国和兴阜农业发展有限公司-专变-216183111-河北国和兴阜农业发展有限公司,阜平县阜裕投资有限责任公司,五丈湾11#公用配变,阜平县林发绿化有限公司,阜平县昌盛水泥砖厂,0662476058-河北国和兴阜农业发展有限公司-专变-197585476-河北国和兴阜农业发展有限公司,0662477820-河北国和兴阜农业发展有限公司-专变-197584059-河北国和兴阜农业发展有限公司,五丈湾9#公用配变,王快12#公用配变,王快14#公用配变,0584732582-阜平县平阳镇五凤岭水专-专变-124991301-阜平县平阳镇五凤岭水专,河北建设集团有限公司,东王林口田野希望小学采暖1号变压器,河北青林农业技术开发有限公司,王快9#0662475071-河北国和兴阜农业发展有限公司-公用配变,铁岭6#公用配变,0668574237-银泰葫芦峪(阜平)农业科技开发有限公司-专变-210013002-葫芦峪(阜平)农业科技开发有限公司,五丈湾13#公用配变,东王林口1#公用配变,后沟井,石门沟水专,西王林口1#公用配变,王快11#公用配变,铁岭7号公用配变,王快6#公用配变,五丈湾5#公用配变","powerOffReason":"【停电原因】由于清扫线路导致１１０ＫＶ平阳变电站１０ＫＶ王林口５４０线路主干０４号杆０２号刀闸动触头及以下线路停电 【变更送电】无 【发布渠道】保定市阜平电视台（５月１５日１８时至５月２６日２１时）飞播","powerOffId":"2018051413000314"},{"poweroffId":2018051213000095,"sgpoweroffId":null,"subsName":"","lineName":"勺堤线514","pubTranName":"勺堤北1165变压器【纯农排变】,勺堤村西4023变压器,岸上1150变压器,勺堤4801变压器,10KV勺堤514线路勺堤6551变压器,勺堤5043变压器,勺堤北水3304变压器,勺堤4022变压器,勺堤村1169变压器【纯农排变】,勺堤1153变压器,岸上村南4024变压器,勺堤6046变压器,勺堤1154变压器,勺堤村1155变压器,10KV勺堤514线路勺堤村东6552变压器,勺堤村1167变压器【纯农排变】,南伏城2850变压器,","scope":"【影响街道/乡镇】罗庄乡【高危重要客户】无【影响客户】勺堤、岸上、南伏城村南","startTime":"2018-05-30 06:00:00","stopDate":"2018-05-30 19:30:00","orgNo":"1340622","typeCode":"计划停电","poweroffArea":"【分支停电】停岸上1150变压器,岸上村南4024变压器,南伏城2850变压器,勺堤1153变压器,勺堤4022变压器,勺堤4801变压器,勺堤1154变压器,勺堤5043变压器,勺堤6046变压器,勺堤北1165变压器【纯农排变】,勺堤北水3304变压器,勺堤村1155变压器,勺堤村1167变压器【纯农排变】,勺堤村西4023变压器,勺堤村1169变压器【纯农排变】,10KV勺堤514线路勺堤6551变压器,10KV勺堤514线路勺堤村东6552变压器","poweroffReason":"【停电原因】由于更换电杆导致３５ＫＶ伏城变电站勺堤线５１４线路００１号杆隔离开关以下线路停电【变更送电】无【发布渠道】保定市唐县电视台（０５月１２日至０５月２９日的２０：００时至２０：３０时之间）屏幕上方滚动字幕","powerTime":"2018-05-30 18:47:40","powerComm":"已送电","subsNo":"","lineNo":"","tgNo":"","tgName":null,"infoStatus":"1","orgName":"国网唐县供电公司","typeName":null,"infoStatusName":null,"dateDay":null,"orgNos":null,"nowTime":null,"countyName":null,"streetName":null,"villageName":null,"roadName":null,"communityName":null,"tranName":null,"sdLineName":null,"cityCode":"1340622","cityName":"国网唐县供电公司","provinceCode":null,"stopTime":"2018-05-30 19:30:00","powerType":"全部","powerOffArea":"【分支停电】停岸上1150变压器,岸上村南4024变压器,南伏城2850变压器,勺堤1153变压器,勺堤4022变压器,勺堤4801变压器,勺堤1154变压器,勺堤5043变压器,勺堤6046变压器,勺堤北1165变压器【纯农排变】,勺堤北水3304变压器,勺堤村1155变压器,勺堤村1167变压器【纯农排变】,勺堤村西4023变压器,勺堤村1169变压器【纯农排变】,10KV勺堤514线路勺堤6551变压器,10KV勺堤514线路勺堤村东6552变压器","powerOffReason":"【停电原因】由于更换电杆导致３５ＫＶ伏城变电站勺堤线５１４线路００１号杆隔离开关以下线路停电【变更送电】无【发布渠道】保定市唐县电视台（０５月１２日至０５月２９日的２０：００时至２０：３０时之间）屏幕上方滚动字幕","powerOffId":"2018051213000095"},{"poweroffId":2018051113000263,"sgpoweroffId":null,"subsName":"","lineName":"小北头线559","pubTranName":"沟头光10,沟头光12【煤改电】,沟头光13【煤改电】,沟头光18【煤改电】,沟头光14【煤改电】,沟头光8,沟头光2,沟头光4变,沟头光9,","scope":"【影响街道/乡镇】定兴镇 【高危重要客户】无 【影响客户】沟头、雅宾餐厅、河北三友橡胶制品有限公司、恒福瑞食品有限公司","startTime":"2018-05-27 06:30:00","stopDate":"2018-05-27 19:00:00","orgNo":"1340609","typeCode":"计划停电","poweroffArea":"【分支停电】停沟头光9,沟头光12【煤改电】,沟头光18【煤改电】,沟头光10,沟头光13【煤改电】,沟头光14【煤改电】,沟头光4变,沟头光8,沟头光2","poweroffReason":"【停电原因】由于沟头光１２分支００９号杆Ｔ接导线导致１１０ＫＶ兴北变电站小北头线５５９线路沟头光３分支０３号杆５５９－０３号断路器以下线路停电 【变更送电】无 【发布渠道】保定市定兴县电视台（０５月１９日０９时１０分至２３时５０分之间）屏幕上方滚动播放","powerTime":"2018-05-27 18:54:53","powerComm":"已送电","subsNo":"","lineNo":"","tgNo":"","tgName":null,"infoStatus":"1","orgName":"国网定兴县供电公司","typeName":null,"infoStatusName":null,"dateDay":null,"orgNos":null,"nowTime":null,"countyName":null,"streetName":null,"villageName":null,"roadName":null,"communityName":null,"tranName":null,"sdLineName":null,"cityCode":"1340609","cityName":"国网定兴县供电公司","provinceCode":null,"stopTime":"2018-05-27 19:00:00","powerType":"全部","powerOffArea":"【分支停电】停沟头光9,沟头光12【煤改电】,沟头光18【煤改电】,沟头光10,沟头光13【煤改电】,沟头光14【煤改电】,沟头光4变,沟头光8,沟头光2","powerOffReason":"【停电原因】由于沟头光１２分支００９号杆Ｔ接导线导致１１０ＫＶ兴北变电站小北头线５５９线路沟头光３分支０３号杆５５９－０３号断路器以下线路停电 【变更送电】无 【发布渠道】保定市定兴县电视台（０５月１９日０９时１０分至２３时５０分之间）屏幕上方滚动播放","powerOffId":"2018051113000263"}],"pageModel":{"pageNow":1095,"totalCount":10973,"totalPage":1098,"tableRows":0,"pageCount":10,"beginCount":10940},"isExperi":"1"}