{"message":"","today":"2020-06-15","seleList":[{"poweroffId":201911182056161,"sgpoweroffId":null,"subsName":"","lineName":"10kV祝泽站520线路","pubTranName":"10kVB1572.B1573.B1574.B1575配电室B1573配电变压器,10kVB1612.B1613配电室B1612配电变压器,C146柱上变压器,10kVB1574.B1575配电室B1574配电变压器,10kVB1612.B1613配电室B1613配电变压器,10kVB749配电室B749配电变压器,10kVB1572.B1573.B1574.B1575配电室B1572配电变压器,B3027柱上变压器,B365柱上变压器,B709柱上变压器,C406柱上变压器,C407柱上变压器,C408柱上变压器,C409柱上变压器,10kVB1574.B1575配电室B1575配电变压器,","scope":"【影响街道/乡镇】新市区乐凯大街、富昌乡、向阳路、南市区建华大街、三丰路 【高危重要客户】无 【影响客户】列电生活区、保定市第二运输公司、清山房地产世家郦园小区、二台村、西五里铺、金桥商城宿舍、百货站宿舍、保定市华兴汽车贸易有限公司、保定市华欣印刷厂、食品公司宿舍、保定市建材局铁木加工厂、清水河畔小区、保定建工集团房地产开发有限公司、保定市鑫丰阳光大酒店有限公司、保定市鑫丰燃料有限公司、鑫丰市场、河北秀兰房地产集团有限公司、前屯、供销社宿舍、联运小区、保运鑫苑、天瑞家园、烛光小区","startTime":"2019-11-18 20:30:00","stopDate":"2019-11-18 23:30:00","orgNo":"13406","typeCode":"电网故障停限电","poweroffArea":"【全线路停电】停10kVB1574.B1575配电室B1575配电变压器,C146柱上变压器,10kVB1574.B1575配电室B1574配电变压器,10kVB1612.B1613配电室B1613配电变压器,10kVB749配电室B749配电变压器,10kVB1572.B1573.B1574.B1575配电室B1573配电变压器,10kVB1612.B1613配电室B1612配电变压器,10kVB1572.B1573.B1574.B1575配电室B1572配电变压器,B3027柱上变压器,B365柱上变压器,B709柱上变压器,C406柱上变压器,C407柱上变压器,C408柱上变压器,C409柱上变压器","poweroffReason":"【停电原因】由于分支开关短路导致１０ＫＶ祝泽变电站５２０线路全线停电【变更送电】无【发布渠道】通过９５５９８发布","powerTime":"2019-11-18 22:59:20","powerComm":"已送电","subsNo":"","lineNo":"","tgNo":"","tgName":null,"infoStatus":"1","orgName":"保定供电公司","typeName":null,"infoStatusName":null,"dateDay":null,"orgNos":null,"nowTime":null,"countyName":null,"streetName":null,"villageName":null,"roadName":null,"communityName":null,"tranName":null,"sdLineName":null,"cityCode":"13406","cityName":"保定供电公司","provinceCode":null,"stopTime":"2019-11-18 23:30:00","powerType":"全部","powerOffArea":"【全线路停电】停10kVB1574.B1575配电室B1575配电变压器,C146柱上变压器,10kVB1574.B1575配电室B1574配电变压器,10kVB1612.B1613配电室B1613配电变压器,10kVB749配电室B749配电变压器,10kVB1572.B1573.B1574.B1575配电室B1573配电变压器,10kVB1612.B1613配电室B1612配电变压器,10kVB1572.B1573.B1574.B1575配电室B1572配电变压器,B3027柱上变压器,B365柱上变压器,B709柱上变压器,C406柱上变压器,C407柱上变压器,C408柱上变压器,C409柱上变压器","powerOffReason":"【停电原因】由于分支开关短路导致１０ＫＶ祝泽变电站５２０线路全线停电【变更送电】无【发布渠道】通过９５５９８发布","powerOffId":"201911182056161"},{"poweroffId":201911181310531,"sgpoweroffId":null,"subsName":"","lineName":"10kV百楼站526线路","pubTranName":"1西百楼内12,1蔡庄内2,1东大夫庄内3,1西大夫庄内2,2西大夫庄外3号【纯农排变】,1东百楼内10,1东百楼内7,1东百楼内11,1蔡庄内4,1东百楼内5,1东百楼内2,1蔡庄内5,1东百楼内15,1西大夫庄内5,1东大夫庄内4,1蔡庄内1,1东百楼内12,1西大夫庄内1,1东百楼内13,1东百楼内1,1东大夫庄内2,1西大夫庄内3,1东百楼内3,1蔡庄内3,1东百楼内6,1东百楼内8,1西白楼内5号,1东百楼内14,1东百楼内9,1东百楼内4,1西百楼内10,1西大夫庄内4,1东大夫庄内1,","scope":"【影响街道/乡镇】莲池区百楼乡、七一路、凤栖街 【高危重要客户】无 【影响客户】河北大学、东明树脂、万达环境、唐人珍贵术艺、邦泰化学有限公司、骏业医药公司、昂硕商贸、西大夫庄、东百楼、西百楼、蔡庄","startTime":"2019-11-18 13:00:00","stopDate":"2019-11-18 15:30:00","orgNo":"13406","typeCode":"电网故障停限电","poweroffArea":"【全线路停电】停2东百楼外7【纯农排变】,1西百楼内12,2西大夫外1【纯农排变】,1蔡庄内2,1东大夫庄内3,0387488314-保定市恒泽包装制品有限公司-专变-45313505-东百楼蛋托厂,0685374960-保定市华尊能源开发有限公司-专变,1西大夫庄内2,0644008413-保定市排水总公司-专变-162025551-保定市排水总公司,0387487441-东百楼永固构件厂-专变-45313647-东百楼永固构件厂,2西大夫庄外3号【纯农排变】,2西大夫庄外4【纯农排变】,2蔡庄外4【纯农排变】,东大夫庄面粉厂东,变压器,2东百楼外5【纯农排变】,百楼中学,0358275264-保定邦泰高分子新材料有限公司-1#专变,1东百楼内10,保定市北市区老百姓面粉厂,保定战神云车驿站电子商务有限公司,1东百楼内7,1东百楼内11,2东大夫庄外5【纯农排变】,0652815511-保定市北市区占辉五金经销部-专变-180486790-保定市北市区占辉五金经销部,1蔡庄内4,2东百楼外4【纯农排变】,0358395230-保定市路灯管理处-专变,2东大夫庄外2【纯农排变】,0387488037-蔡庄顺兴模盒厂-专变-45313659-蔡庄顺兴模盒厂,0387488112-保定市北市区华诚汽车修理厂-专变-45313564-保定市北市区华诚汽车修理厂,2东大夫庄外3【纯农排变】,1东百楼内5,0358266787-保定东明树脂化工有限公司-专变,1东百楼内2,1蔡庄内5,保定宿安商务酒店有限公司,1东百楼内15,1西大夫庄内5,2蔡庄外2【纯农排变】,2西大夫庄外2【纯农排变】,1东大夫庄内4,1蔡庄内1,1东百楼内12,1西大夫庄内1,0652874729-保定市北市区智都公寓-专变-180446422-保定市北市区智都公寓,0357927382-保定市北市区唐人珍贵木艺厂-1-配电室-变压器-1,0557307603-保定市北市区馨佳园学生公寓-专变-118056832-保定市北市区馨佳园学生公寓,2蔡庄外3【纯农排变】,1东百楼内13,1东百楼内1,东大夫庄面粉厂西,2东大夫庄外4号【纯农排变】,0358275264-保定邦泰高分子新材料有限公司-2#专变,0387489333-伟柱植物油有限公司-专变-45313665-伟柱植物油有限公司,1东大夫庄内2,1西大夫庄内3,1东百楼内3,0652873830-保定市北市区鑫金源旅馆-专变-180443636-保定市科丰广告有限公司,1蔡庄内3,1东百楼内6,1东百楼内8,1西白楼内5号,0387488822-保定市蔬菜包装有限公司-专变-45313736-保定市蔬菜包装有限公司,0619125154-保定市朋乐汽车贸易有限公司-专变-128899930-保定市朋乐汽车贸易有限公司,0387487773-蔡庄内四台-专变-45313535-蔡庄内四台,1东百楼内9,保定市北市区鑫兴花木展销处,2东百楼外6【纯农排变】,1东百楼内14,1东百楼内4,2东大夫庄外1【纯农排变】,1西百楼内10,0358487469-保定市万达环境技术工程公司-1-配电室-变压器-1,1西大夫庄内4,1东大夫庄内1,0623294246-河北长根商贸有限公司-专变-132445660-河北长根商贸有限公司,0652851470-保定市光捷商贸有限公司-专变-180490502-保定市光捷商贸有限公司","poweroffReason":"【停电原因】由于过流跳闸导致１０ＫＶ百楼变电站５２６线路全线停电【变更送电】因抢修进度加快，原定１７：００送电现计划１５：３０送电【发布渠道】通过９５５９８发布","powerTime":"2019-11-18 15:08:39","powerComm":"已送电","subsNo":"","lineNo":"","tgNo":"","tgName":null,"infoStatus":"1","orgName":"保定供电公司","typeName":null,"infoStatusName":null,"dateDay":null,"orgNos":null,"nowTime":null,"countyName":null,"streetName":null,"villageName":null,"roadName":null,"communityName":null,"tranName":null,"sdLineName":null,"cityCode":"13406","cityName":"保定供电公司","provinceCode":null,"stopTime":"2019-11-18 15:30:00","powerType":"全部","powerOffArea":"【全线路停电】停2东百楼外7【纯农排变】,1西百楼内12,2西大夫外1【纯农排变】,1蔡庄内2,1东大夫庄内3,0387488314-保定市恒泽包装制品有限公司-专变-45313505-东百楼蛋托厂,0685374960-保定市华尊能源开发有限公司-专变,1西大夫庄内2,0644008413-保定市排水总公司-专变-162025551-保定市排水总公司,0387487441-东百楼永固构件厂-专变-45313647-东百楼永固构件厂,2西大夫庄外3号【纯农排变】,2西大夫庄外4【纯农排变】,2蔡庄外4【纯农排变】,东大夫庄面粉厂东,变压器,2东百楼外5【纯农排变】,百楼中学,0358275264-保定邦泰高分子新材料有限公司-1#专变,1东百楼内10,保定市北市区老百姓面粉厂,保定战神云车驿站电子商务有限公司,1东百楼内7,1东百楼内11,2东大夫庄外5【纯农排变】,0652815511-保定市北市区占辉五金经销部-专变-180486790-保定市北市区占辉五金经销部,1蔡庄内4,2东百楼外4【纯农排变】,0358395230-保定市路灯管理处-专变,2东大夫庄外2【纯农排变】,0387488037-蔡庄顺兴模盒厂-专变-45313659-蔡庄顺兴模盒厂,0387488112-保定市北市区华诚汽车修理厂-专变-45313564-保定市北市区华诚汽车修理厂,2东大夫庄外3【纯农排变】,1东百楼内5,0358266787-保定东明树脂化工有限公司-专变,1东百楼内2,1蔡庄内5,保定宿安商务酒店有限公司,1东百楼内15,1西大夫庄内5,2蔡庄外2【纯农排变】,2西大夫庄外2【纯农排变】,1东大夫庄内4,1蔡庄内1,1东百楼内12,1西大夫庄内1,0652874729-保定市北市区智都公寓-专变-180446422-保定市北市区智都公寓,0357927382-保定市北市区唐人珍贵木艺厂-1-配电室-变压器-1,0557307603-保定市北市区馨佳园学生公寓-专变-118056832-保定市北市区馨佳园学生公寓,2蔡庄外3【纯农排变】,1东百楼内13,1东百楼内1,东大夫庄面粉厂西,2东大夫庄外4号【纯农排变】,0358275264-保定邦泰高分子新材料有限公司-2#专变,0387489333-伟柱植物油有限公司-专变-45313665-伟柱植物油有限公司,1东大夫庄内2,1西大夫庄内3,1东百楼内3,0652873830-保定市北市区鑫金源旅馆-专变-180443636-保定市科丰广告有限公司,1蔡庄内3,1东百楼内6,1东百楼内8,1西白楼内5号,0387488822-保定市蔬菜包装有限公司-专变-45313736-保定市蔬菜包装有限公司,0619125154-保定市朋乐汽车贸易有限公司-专变-128899930-保定市朋乐汽车贸易有限公司,0387487773-蔡庄内四台-专变-45313535-蔡庄内四台,1东百楼内9,保定市北市区鑫兴花木展销处,2东百楼外6【纯农排变】,1东百楼内14,1东百楼内4,2东大夫庄外1【纯农排变】,1西百楼内10,0358487469-保定市万达环境技术工程公司-1-配电室-变压器-1,1西大夫庄内4,1东大夫庄内1,0623294246-河北长根商贸有限公司-专变-132445660-河北长根商贸有限公司,0652851470-保定市光捷商贸有限公司-专变-180490502-保定市光捷商贸有限公司","powerOffReason":"【停电原因】由于过流跳闸导致１０ＫＶ百楼变电站５２６线路全线停电【变更送电】因抢修进度加快，原定１７：００送电现计划１５：３０送电【发布渠道】通过９５５９８发布","powerOffId":"201911181310531"},{"poweroffId":201911120846221,"sgpoweroffId":null,"subsName":"","lineName":"10kV崔闸站557线路","pubTranName":"0696403589-保定市发投热力有限公司-变压器03,","scope":"【影响街道/乡镇】竞秀区、七一路 【高危重要客户】无 【影响客户】保定市发投热力有限公司","startTime":"2019-11-12 08:46:22","stopDate":"2019-11-12 12:00:00","orgNo":"13406","typeCode":"电网故障停限电","poweroffArea":"【全线路停电】停0696403589-保定市发投热力有限公司-变压器03","poweroffReason":"【停电原因】由于分支开关短路导致１０ＫＶ崔闸变电站５５７线路全线停电【变更送电】无【发布渠道】通过９５５９８发布","powerTime":"2019-11-12 11:05:54","powerComm":"已送电","subsNo":"","lineNo":"","tgNo":"","tgName":null,"infoStatus":"1","orgName":"保定供电公司","typeName":null,"infoStatusName":null,"dateDay":null,"orgNos":null,"nowTime":null,"countyName":null,"streetName":null,"villageName":null,"roadName":null,"communityName":null,"tranName":null,"sdLineName":null,"cityCode":"13406","cityName":"保定供电公司","provinceCode":null,"stopTime":"2019-11-12 12:00:00","powerType":"全部","powerOffArea":"【全线路停电】停0696403589-保定市发投热力有限公司-变压器03","powerOffReason":"【停电原因】由于分支开关短路导致１０ＫＶ崔闸变电站５５７线路全线停电【变更送电】无【发布渠道】通过９５５９８发布","powerOffId":"201911120846221"}],"pageModel":{"pageNow":1098,"totalCount":10973,"totalPage":1098,"tableRows":0,"pageCount":10,"beginCount":10970},"isExperi":"1"}