{"message":"","today":"2020-06-15","seleList":[{"poweroffId":2020050613000561,"sgpoweroffId":null,"subsName":"","lineName":"10kV工业区515线","pubTranName":"郭北庄综合2号配变,郭北庄综合1变压器,大营综合(七),","scope":"【影响街道/乡镇】西伏落乡 【高危重要客户】无 【影响客户】郭北庄村、大营村、康达气雾剂、百消丹、 九州、小营村","startTime":"2020-05-16 06:00:00","stopDate":"2020-05-16 20:00:00","orgNo":"1340606","typeCode":"计划停电","poweroffArea":"【全线路停电】停３５ＫＶ北各堡变电站１０ＫＶ工业区５１５线路全线，大营综合(七),郭北庄综合1变压器,郭北庄综合2号配变","poweroffReason":"【停电原因】由于线路检修导致３５ＫＶ北各堡变电站１０ＫＶ工业区５１５线路全线停电 【变更送电】因工作进度加快原因送电时间由２１：３０变更为２０：００ 【发布渠道】保定市安国电视台（５月０６日００时至２４时之间）屏幕上方滚动","powerTime":"2020-05-16 19:44:31","powerComm":"已送电","subsNo":"","lineNo":"","tgNo":"","tgName":null,"infoStatus":"1","orgName":"国网安国市供电公司","typeName":null,"infoStatusName":null,"dateDay":null,"orgNos":null,"nowTime":null,"countyName":null,"streetName":null,"villageName":null,"roadName":null,"communityName":null,"tranName":null,"sdLineName":null,"cityCode":"1340606","cityName":"国网安国市供电公司","provinceCode":null,"stopTime":"2020-05-16 20:00:00","powerType":"全部","powerOffArea":"【全线路停电】停３５ＫＶ北各堡变电站１０ＫＶ工业区５１５线路全线，大营综合(七),郭北庄综合1变压器,郭北庄综合2号配变","powerOffReason":"【停电原因】由于线路检修导致３５ＫＶ北各堡变电站１０ＫＶ工业区５１５线路全线停电 【变更送电】因工作进度加快原因送电时间由２１：３０变更为２０：００ 【发布渠道】保定市安国电视台（５月０６日００时至２４时之间）屏幕上方滚动","powerOffId":"2020050613000561"},{"poweroffId":2020050613000519,"sgpoweroffId":null,"subsName":"","lineName":"10kV东桄513线","pubTranName":"东桄综合1台区配变,东桄综合3变压器,","scope":"【影响街道/乡镇】常庄乡 【高危重要客户】无 【影响客户】东桄村","startTime":"2020-05-16 06:00:00","stopDate":"2020-05-16 20:00:00","orgNo":"1340606","typeCode":"计划停电","poweroffArea":"【分支停电】停３５ＫＶ常庄变电站１０ＫＶ东桄５１３线主干４１号杆东桄村北分支刀闸以下线路，东桄综合3变压器,东桄综合1台区配变","poweroffReason":"【停电原因】由于更换导线导致３５ＫＶ常庄变电站１０ＫＶ东桄５１３线主干４１号杆东桄村北分支刀闸以下线路停电 【变更送电】无 【发布渠道】保定市安国电视台（０５月０６日００时至２４时之间）屏幕上方滚动","powerTime":"2020-05-16 19:39:22","powerComm":"已送电","subsNo":"","lineNo":"","tgNo":"","tgName":null,"infoStatus":"1","orgName":"国网安国市供电公司","typeName":null,"infoStatusName":null,"dateDay":null,"orgNos":null,"nowTime":null,"countyName":null,"streetName":null,"villageName":null,"roadName":null,"communityName":null,"tranName":null,"sdLineName":null,"cityCode":"1340606","cityName":"国网安国市供电公司","provinceCode":null,"stopTime":"2020-05-16 20:00:00","powerType":"全部","powerOffArea":"【分支停电】停３５ＫＶ常庄变电站１０ＫＶ东桄５１３线主干４１号杆东桄村北分支刀闸以下线路，东桄综合3变压器,东桄综合1台区配变","powerOffReason":"【停电原因】由于更换导线导致３５ＫＶ常庄变电站１０ＫＶ东桄５１３线主干４１号杆东桄村北分支刀闸以下线路停电 【变更送电】无 【发布渠道】保定市安国电视台（０５月０６日００时至２４时之间）屏幕上方滚动","powerOffId":"2020050613000519"},{"poweroffId":2020050613000493,"sgpoweroffId":null,"subsName":"","lineName":"10KV西水北534","pubTranName":"石硅村西台区变压器,色树村东变压器,安阳村村南变压器,宫家坟村内变压器,","scope":"【影响街道/乡镇】涞水镇、娄村乡 【高危重要客户】无 【影响客户】安阳村、石硅村、宫家坟村、色树村、东营房西山井、中水东村、西水北村","startTime":"2020-05-17 07:00:00","stopDate":"2020-05-17 18:00:00","orgNo":"1340614","typeCode":"计划停电","poweroffArea":"【全线路停电】停３５ＫＶ西营房变电站１０ＫＶ西水北５３４线路全线，石硅村西台区变压器,色树村东变压器,安阳村村南变压器,宫家坟村内变压器","poweroffReason":"【停电原因】由于更换导线导致３５ＫＶ西营房变电站１０ＫＶ西水北５３４线路全线停电 【变更送电】无 【发布渠道】保定市涞水电视台（０５月０７日０８时至０５月１７日１８时之间）屏幕上方滚动","powerTime":"2020-05-17 17:51:41","powerComm":"已送电","subsNo":"","lineNo":"","tgNo":"","tgName":null,"infoStatus":"1","orgName":"国网涞水县供电公司","typeName":null,"infoStatusName":null,"dateDay":null,"orgNos":null,"nowTime":null,"countyName":null,"streetName":null,"villageName":null,"roadName":null,"communityName":null,"tranName":null,"sdLineName":null,"cityCode":"1340614","cityName":"国网涞水县供电公司","provinceCode":null,"stopTime":"2020-05-17 18:00:00","powerType":"全部","powerOffArea":"【全线路停电】停３５ＫＶ西营房变电站１０ＫＶ西水北５３４线路全线，石硅村西台区变压器,色树村东变压器,安阳村村南变压器,宫家坟村内变压器","powerOffReason":"【停电原因】由于更换导线导致３５ＫＶ西营房变电站１０ＫＶ西水北５３４线路全线停电 【变更送电】无 【发布渠道】保定市涞水电视台（０５月０７日０８时至０５月１７日１８时之间）屏幕上方滚动","powerOffId":"2020050613000493"},{"poweroffId":2020050613000488,"sgpoweroffId":null,"subsName":"","lineName":"10kV孔村563线","pubTranName":"孔村西台区变压器,孔村村南变压器,","scope":"【影响街道/乡镇】王村乡 【高危重要客户】无 【影响客户】孔村","startTime":"2020-05-16 05:30:00","stopDate":"2020-05-16 18:00:00","orgNo":"1340614","typeCode":"计划停电","poweroffArea":"【全线路停电】停１１０ＫＶ义安变电站１０ＫＶ孔村５６３线路全线，孔村西台区变压器,孔村村南变压器","poweroffReason":"【停电原因】由于更换导线导致１１０ＫＶ义安变电站１０ＫＶ孔村５６３线路全线停电 【变更送电】无 【发布渠道】保定市涞水电视台（０５月０７日０８时至０５月１６日１８时之间）屏幕上方滚动","powerTime":"2020-05-16 17:21:48","powerComm":"已送电","subsNo":"","lineNo":"","tgNo":"","tgName":null,"infoStatus":"1","orgName":"国网涞水县供电公司","typeName":null,"infoStatusName":null,"dateDay":null,"orgNos":null,"nowTime":null,"countyName":null,"streetName":null,"villageName":null,"roadName":null,"communityName":null,"tranName":null,"sdLineName":null,"cityCode":"1340614","cityName":"国网涞水县供电公司","provinceCode":null,"stopTime":"2020-05-16 18:00:00","powerType":"全部","powerOffArea":"【全线路停电】停１１０ＫＶ义安变电站１０ＫＶ孔村５６３线路全线，孔村西台区变压器,孔村村南变压器","powerOffReason":"【停电原因】由于更换导线导致１１０ＫＶ义安变电站１０ＫＶ孔村５６３线路全线停电 【变更送电】无 【发布渠道】保定市涞水电视台（０５月０７日０８时至０５月１６日１８时之间）屏幕上方滚动","powerOffId":"2020050613000488"},{"poweroffId":2020050613000465,"sgpoweroffId":null,"subsName":"","lineName":"10kV北各堡511线","pubTranName":"北各堡农3台区,北各堡综合3台区,北各堡农业1变压器,北各堡综合2变压器,北各堡综合1变压器,","scope":"【影响街道/乡镇】西伏落乡 【高危重要客户】无 【影响客户】北各堡村","startTime":"2020-05-16 06:00:00","stopDate":"2020-05-16 20:00:00","orgNo":"1340606","typeCode":"计划停电","poweroffArea":"【全线路停电】停３５ＫＶ北各堡变电站１０ＫＶ北各堡５１１线路全线，北各堡综合2变压器,北各堡农3台区,北各堡综合1变压器,北各堡农业1变压器,北各堡综合3台区","poweroffReason":"【停电原因】由于线路转检修导致３５ＫＶ北各堡变电站１０ＫＶ北各堡５１１线路全线停电 【变更送电】因工作进度加快原因送电时间由２１：３０变更为２０：００ 【发布渠道】保定市安国电视台（０５月０６日００时至２４时之间）屏幕上方滚动","powerTime":"2020-05-16 19:45:46","powerComm":"已送电","subsNo":"","lineNo":"","tgNo":"","tgName":null,"infoStatus":"1","orgName":"国网安国市供电公司","typeName":null,"infoStatusName":null,"dateDay":null,"orgNos":null,"nowTime":null,"countyName":null,"streetName":null,"villageName":null,"roadName":null,"communityName":null,"tranName":null,"sdLineName":null,"cityCode":"1340606","cityName":"国网安国市供电公司","provinceCode":null,"stopTime":"2020-05-16 20:00:00","powerType":"全部","powerOffArea":"【全线路停电】停３５ＫＶ北各堡变电站１０ＫＶ北各堡５１１线路全线，北各堡综合2变压器,北各堡农3台区,北各堡综合1变压器,北各堡农业1变压器,北各堡综合3台区","powerOffReason":"【停电原因】由于线路转检修导致３５ＫＶ北各堡变电站１０ＫＶ北各堡５１１线路全线停电 【变更送电】因工作进度加快原因送电时间由２１：３０变更为２０：００ 【发布渠道】保定市安国电视台（０５月０６日００时至２４时之间）屏幕上方滚动","powerOffId":"2020050613000465"},{"poweroffId":2020050613000443,"sgpoweroffId":null,"subsName":"","lineName":"热电516线","pubTranName":"东环路1#,花园小区2#,花园小区1#,东环路7#村北,东环路2#,","scope":"【影响街道/乡镇】东环路【高危重要客户】无【影响客户】东环路居委会 、花园小区","startTime":"2020-05-07 04:05:00","stopDate":"2020-05-07 06:30:00","orgNo":"1340625","typeCode":"电网故障停限电","poweroffArea":"【分支停电】停花园小区2#,花园小区1#,0589303442-易县龙烁供热有限责任公司-专变-125429260-易县龙烁供热有限责任公司变压器,东环路7#村北,易县龙烁供热有限责任公司高压电动机1号,易县明军圣达房地产-领尚城路灯,东环路2#,易县龙烁供热有限责任公司2000KVA,东环路居委会变压器,易县龙烁供热有限责任公司高压电动机2号,东环路1#","poweroffReason":"【停电原因】由于车剐断电线导致１１０ＫＶ易县变电站热电５１６线路００１＃杆０１＃刀闸以下线路停电【变更送电】无【发布渠道】通过９５５９８发布","powerTime":"2020-05-07 06:17:33","powerComm":"已送电","subsNo":"","lineNo":"","tgNo":"","tgName":null,"infoStatus":"1","orgName":"国网易县供电公司","typeName":null,"infoStatusName":null,"dateDay":null,"orgNos":null,"nowTime":null,"countyName":null,"streetName":null,"villageName":null,"roadName":null,"communityName":null,"tranName":null,"sdLineName":null,"cityCode":"1340625","cityName":"国网易县供电公司","provinceCode":null,"stopTime":"2020-05-07 06:30:00","powerType":"全部","powerOffArea":"【分支停电】停花园小区2#,花园小区1#,0589303442-易县龙烁供热有限责任公司-专变-125429260-易县龙烁供热有限责任公司变压器,东环路7#村北,易县龙烁供热有限责任公司高压电动机1号,易县明军圣达房地产-领尚城路灯,东环路2#,易县龙烁供热有限责任公司2000KVA,东环路居委会变压器,易县龙烁供热有限责任公司高压电动机2号,东环路1#","powerOffReason":"【停电原因】由于车剐断电线导致１１０ＫＶ易县变电站热电５１６线路００１＃杆０１＃刀闸以下线路停电【变更送电】无【发布渠道】通过９５５９８发布","powerOffId":"2020050613000443"},{"poweroffId":2020050613000439,"sgpoweroffId":null,"subsName":"","lineName":"泰元街线515","pubTranName":"教育局家属楼,丁街1#,电厂楼直供,木器厂直供,泰元街直供2#,畜牧局直供,东环路6#,鸿华小区1配电变压器,丁街4#,团结路3#,安各庄水库家属院,东环路3#,团结路2#,一中直供,泰元街直供1#,","scope":"【影响街道/乡镇】泰元大街、团结路、丁街、东环路【高危重要客户】无【影响客户】领尚城小区、锦芳园家属楼、教育局家属楼、鸿华小区、京都首府、电厂家属楼、花园西区、安各庄水库家属院、易县电视台、易县中学、移动公司","startTime":"2020-05-07 06:18:00","stopDate":"2020-05-07 08:00:00","orgNo":"1340625","typeCode":"电网故障停限电","poweroffArea":"【分支停电】停一中直供,丁街4#,易县教育局630KVA-1号,泰元街直供1#,教育局家属楼,易县明军圣达房地产开发有限公司变压器,丁街1#,易县鸿华房地产开发有限公司,电厂楼直供,木器厂直供,0660325824-易县铸成房地产开发有限公司-专变-194541910-易县铸成房地产开发有限公司400KVA,易县第一小学,易县教育局变压器,河北易县中学变压器,王敬变压器,易县中学(南),移动公司总部315,易县教育局630KVA-3号,易县天泰房地产开发有限公司变压器,团结路2#,易县明军圣达房地产开发有限公司（领尚城）B-2000KVA,泰元街直供2#,畜牧局直供,龙烁供热80kva-一中宿舍楼,东环路6#,鸿华小区1配电变压器,团结路3#,安各庄水库家属院,沃美超市变压器,易县明军圣达房地产开发有限公司（领尚城）A-2000KVA,石庄村董华变压器,东环路3#,易县龙烁供热有限责任公司变压器,电视台,长安路蔡海连80,易县教育局-630KVA-2号","poweroffReason":"【停电原因】由于线夹断裂导致１１０ＫＶ易县变电站泰元街５１５线路００１＃杆０１＃刀闸以下线路停电【变更送电】无【发布渠道】通过９５５９８发布","powerTime":"2020-05-07 07:34:31","powerComm":"已送电","subsNo":"","lineNo":"","tgNo":"","tgName":null,"infoStatus":"1","orgName":"国网易县供电公司","typeName":null,"infoStatusName":null,"dateDay":null,"orgNos":null,"nowTime":null,"countyName":null,"streetName":null,"villageName":null,"roadName":null,"communityName":null,"tranName":null,"sdLineName":null,"cityCode":"1340625","cityName":"国网易县供电公司","provinceCode":null,"stopTime":"2020-05-07 08:00:00","powerType":"全部","powerOffArea":"【分支停电】停一中直供,丁街4#,易县教育局630KVA-1号,泰元街直供1#,教育局家属楼,易县明军圣达房地产开发有限公司变压器,丁街1#,易县鸿华房地产开发有限公司,电厂楼直供,木器厂直供,0660325824-易县铸成房地产开发有限公司-专变-194541910-易县铸成房地产开发有限公司400KVA,易县第一小学,易县教育局变压器,河北易县中学变压器,王敬变压器,易县中学(南),移动公司总部315,易县教育局630KVA-3号,易县天泰房地产开发有限公司变压器,团结路2#,易县明军圣达房地产开发有限公司（领尚城）B-2000KVA,泰元街直供2#,畜牧局直供,龙烁供热80kva-一中宿舍楼,东环路6#,鸿华小区1配电变压器,团结路3#,安各庄水库家属院,沃美超市变压器,易县明军圣达房地产开发有限公司（领尚城）A-2000KVA,石庄村董华变压器,东环路3#,易县龙烁供热有限责任公司变压器,电视台,长安路蔡海连80,易县教育局-630KVA-2号","powerOffReason":"【停电原因】由于线夹断裂导致１１０ＫＶ易县变电站泰元街５１５线路００１＃杆０１＃刀闸以下线路停电【变更送电】无【发布渠道】通过９５５９８发布","powerOffId":"2020050613000439"},{"poweroffId":2020050613000325,"sgpoweroffId":null,"subsName":"","lineName":"10kV517曲堤线","pubTranName":"西庞农排7台区【纯农排变】,大曲堤综合17台区变压器,大曲堤综合6台区变压器,东庞综合3台区变压器,大曲堤农排10台区【纯农排变】,西庞综合7台区变压器,大曲堤综合24台区变压器,西庞综合10台区变压器,北绪口综合7台区,大曲堤综合27台区变压器,陈营综合2台区变压器,大曲堤综合29台区变压器,陈营综合4台区变压器,西庞农排5台区【纯农排变】,大曲堤综合9台区变压器,西庞综合1台区变压器,北绪口综合1台区,陈营综合3台区变压器,西庞综合8台区变压器,北绪口农排3台区【纯农排变】,大曲堤综合10台区变压器,西庞综合5台区变压器,西庞综合2台区变压器,大曲堤综合4台区,西庞综合4台区变压器,大曲堤综合12台区变压器,大曲堤农排12台区【纯农排变】,大曲堤综合18台区变压器,大曲堤农排9台区【纯农排变】,西庞农排4台区【纯农排变】,大曲堤农排7台区【纯农排变】,大曲堤农排14台区【纯农排变】,西庞综合6台区变压器,西庞农排6台区【纯农排变】,大曲堤综合28台区变压器,大曲堤综合3台区,大曲堤综合23台区变压器,东庞综合2台区变压器,东庞农排2台区【纯农排变】,西庞综合3台区变压器,大曲堤综合21台区变压器,大曲堤综合26台区变压器,大曲堤农排3台区【纯农排变】,北绪口综合4台区,大曲堤综合2台区,大曲堤综合11台区变压器,西庞农排8台区【纯农排变】,大曲堤农排8台区【纯农排变】,大曲堤综合22台区变压器,大曲堤综合15台区变压器,北绪口综合8台区,北绪口综合6台区,东庞农排1台区【纯农排变】,大曲堤综合16台区变压器,大曲堤综合19台区变压器,大曲堤综合14台区变压器,大曲堤综合7台区变压器,大曲堤综合5台区,大曲堤综合20台区变压器,大曲堤综合13台区变压器,大曲堤综合8台区变压器,北绪口综合2台区,北绪口综合3台区,东庞综合1台区变压器,北绪口综合5台区,陈营综合1台区变压器,大曲堤综合1台区,大曲堤综合25台区变压器,","scope":"【影响街道/乡镇】大曲堤乡【高危重要客户】无【影响客户】北绪口村、东庞果村、陈阎营村、西绪口村、大曲堤村、西庞果村、高佐村","startTime":"2020-05-06 13:02:17","stopDate":"2020-05-06 14:20:00","orgNo":"1340616","typeCode":"电网故障停限电","poweroffArea":"【全线路停电】停３５ＫＶ握纽庄变电站１０ＫＶ曲堤５１７线路全线，大曲堤综合10台区变压器,蠡县鼎源麻山药农民专业合作,大曲堤综合25台区变压器,北绪口综合2台区,北绪口农排3台区【纯农排变】,西庞综合3台区变压器,大曲堤综合18台区变压器,西庞综合4台区变压器,0604192268-蠡县曲堤德旺包装制品厂-专变-127052052-蠡县曲堤德旺包装制品厂,0469434196-粮站面粉厂-专变-46810394-粮站面粉厂,0469432510-中国联合网络通信有限公司蠡县分公司-专变-46810254-网通公司,陈营综合1台区变压器,大曲堤综合23台区变压器,大曲堤农排12台区【纯农排变】,0629312658-蠡县端阳麻山药农民专业合作社-专变-141630370-蠡县端阳麻山药农民合作社变压器,大曲堤综合19台区变压器,大曲堤综合9台区变压器,大曲堤综合15台区变压器,陈营综合3台区变压器,西庞农排6台区【纯农排变】,蠡县大曲堤乡中学,北绪口农排4台区【纯农排变】,陈营综合2台区变压器,大曲堤农排9台区【纯农排变】,蠡县凤举麻山药农民专业合作社,北绪口综合8台区,西庞综合10台区变压器,大曲堤综合12台区变压器,大曲堤综合8台区变压器,西庞综合6台区变压器,西庞农排4台区【纯农排变】,大曲堤综合3台区,大曲堤综合13台区变压器,大曲堤综合1台区,西庞综合8台区变压器,东庞综合3台区变压器,0628582416-蠡县立纯麻山药农民专业合作社-专变-140233673-蠡县曲堤建辉麻山药经销站变压器,西庞农排2台区【纯农排变】,西庞农排5台区【纯农排变】,北绪口综合3台区,西庞综合7台区变压器,大曲堤农排10台区【纯农排变】,大曲堤农排8台区【纯农排变】,西庞综合1台区变压器,大曲堤综合7台区变压器,西庞综合5台区变压器,大曲堤综合24台区变压器,东庞农排1台区【纯农排变】,北绪口综合1台区,东庞农排2台区【纯农排变】,大曲堤综合21台区变压器,大曲堤综合16台区变压器,大曲堤农排7台区【纯农排变】,西庞农排8台区【纯农排变】,大曲堤综合20台区变压器,大曲堤综合2台区,大曲堤综合22台区变压器,0619986492-蠡县鑫鑫麻山药农民专业合作社-专变-223625090-蠡县鑫鑫麻山药农民专业合作社变压器,北绪口农排2台区【纯农排变】,大曲堤综合6台区变压器,北绪口综合5台区,陈营综合4台区变压器,0565990945-中国移动通信集团河北有限公司蠡县分公司-专变-118727920-中国移动通信集团河北有限公司蠡县分公司北绪口村变压器,东庞综合2台区变压器,0469434183-曲堤乡政府-专变-46810209-纳地,大曲堤综合5台区,大曲堤农排14台区【纯农排变】,西庞综合2台区变压器,0625934386-蠡县曲堤顺杰麻山药经销站-专变-138660027-蠡县曲堤顺杰麻山药经销站,北绪口综合6台区,西庞农排7台区【纯农排变】,大曲堤综合11台区变压器,北绪口综合7台区,大曲堤综合26台区变压器,大曲堤综合17台区变压器,北绪口综合4台区,0626348757-蠡县利农麻山药农民专业合作社-专变-139242228-蠡县利农麻山药农民专业合作社变压器,大曲堤综合27台区变压器,大曲堤综合4台区,大曲堤综合29台区变压器,大曲堤综合28台区变压器,东庞综合1台区变压器,大曲堤农排3台区【纯农排变】,0618936991-蠡县卓亚纺织有限公司-专变-128914691-蠡县雅琪纺织厂变压器,西庞农排1台区【纯农排变】,大曲堤综合14台区变压器","poweroffReason":"【停电原因】由于站外开关掉闸导致３５ＫＶ握纽庄变电站１０ＫＶ曲堤５１７线路全线停电【变更送电】因抢修进度加快原因，送电时间由１８:００变更为１４:２０【发布渠道】通过９５５９８发布","powerTime":"2020-05-06 14:04:53","powerComm":"已送电","subsNo":"","lineNo":"","tgNo":"","tgName":null,"infoStatus":"1","orgName":"国网蠡县供电公司","typeName":null,"infoStatusName":null,"dateDay":null,"orgNos":null,"nowTime":null,"countyName":null,"streetName":null,"villageName":null,"roadName":null,"communityName":null,"tranName":null,"sdLineName":null,"cityCode":"1340616","cityName":"国网蠡县供电公司","provinceCode":null,"stopTime":"2020-05-06 14:20:00","powerType":"全部","powerOffArea":"【全线路停电】停３５ＫＶ握纽庄变电站１０ＫＶ曲堤５１７线路全线，大曲堤综合10台区变压器,蠡县鼎源麻山药农民专业合作,大曲堤综合25台区变压器,北绪口综合2台区,北绪口农排3台区【纯农排变】,西庞综合3台区变压器,大曲堤综合18台区变压器,西庞综合4台区变压器,0604192268-蠡县曲堤德旺包装制品厂-专变-127052052-蠡县曲堤德旺包装制品厂,0469434196-粮站面粉厂-专变-46810394-粮站面粉厂,0469432510-中国联合网络通信有限公司蠡县分公司-专变-46810254-网通公司,陈营综合1台区变压器,大曲堤综合23台区变压器,大曲堤农排12台区【纯农排变】,0629312658-蠡县端阳麻山药农民专业合作社-专变-141630370-蠡县端阳麻山药农民合作社变压器,大曲堤综合19台区变压器,大曲堤综合9台区变压器,大曲堤综合15台区变压器,陈营综合3台区变压器,西庞农排6台区【纯农排变】,蠡县大曲堤乡中学,北绪口农排4台区【纯农排变】,陈营综合2台区变压器,大曲堤农排9台区【纯农排变】,蠡县凤举麻山药农民专业合作社,北绪口综合8台区,西庞综合10台区变压器,大曲堤综合12台区变压器,大曲堤综合8台区变压器,西庞综合6台区变压器,西庞农排4台区【纯农排变】,大曲堤综合3台区,大曲堤综合13台区变压器,大曲堤综合1台区,西庞综合8台区变压器,东庞综合3台区变压器,0628582416-蠡县立纯麻山药农民专业合作社-专变-140233673-蠡县曲堤建辉麻山药经销站变压器,西庞农排2台区【纯农排变】,西庞农排5台区【纯农排变】,北绪口综合3台区,西庞综合7台区变压器,大曲堤农排10台区【纯农排变】,大曲堤农排8台区【纯农排变】,西庞综合1台区变压器,大曲堤综合7台区变压器,西庞综合5台区变压器,大曲堤综合24台区变压器,东庞农排1台区【纯农排变】,北绪口综合1台区,东庞农排2台区【纯农排变】,大曲堤综合21台区变压器,大曲堤综合16台区变压器,大曲堤农排7台区【纯农排变】,西庞农排8台区【纯农排变】,大曲堤综合20台区变压器,大曲堤综合2台区,大曲堤综合22台区变压器,0619986492-蠡县鑫鑫麻山药农民专业合作社-专变-223625090-蠡县鑫鑫麻山药农民专业合作社变压器,北绪口农排2台区【纯农排变】,大曲堤综合6台区变压器,北绪口综合5台区,陈营综合4台区变压器,0565990945-中国移动通信集团河北有限公司蠡县分公司-专变-118727920-中国移动通信集团河北有限公司蠡县分公司北绪口村变压器,东庞综合2台区变压器,0469434183-曲堤乡政府-专变-46810209-纳地,大曲堤综合5台区,大曲堤农排14台区【纯农排变】,西庞综合2台区变压器,0625934386-蠡县曲堤顺杰麻山药经销站-专变-138660027-蠡县曲堤顺杰麻山药经销站,北绪口综合6台区,西庞农排7台区【纯农排变】,大曲堤综合11台区变压器,北绪口综合7台区,大曲堤综合26台区变压器,大曲堤综合17台区变压器,北绪口综合4台区,0626348757-蠡县利农麻山药农民专业合作社-专变-139242228-蠡县利农麻山药农民专业合作社变压器,大曲堤综合27台区变压器,大曲堤综合4台区,大曲堤综合29台区变压器,大曲堤综合28台区变压器,东庞综合1台区变压器,大曲堤农排3台区【纯农排变】,0618936991-蠡县卓亚纺织有限公司-专变-128914691-蠡县雅琪纺织厂变压器,西庞农排1台区【纯农排变】,大曲堤综合14台区变压器","powerOffReason":"【停电原因】由于站外开关掉闸导致３５ＫＶ握纽庄变电站１０ＫＶ曲堤５１７线路全线停电【变更送电】因抢修进度加快原因，送电时间由１８:００变更为１４:２０【发布渠道】通过９５５９８发布","powerOffId":"2020050613000325"},{"poweroffId":2020050613000271,"sgpoweroffId":null,"subsName":"","lineName":"市政520","pubTranName":"北大厅公变,","scope":"【影响街道/乡镇】白沟镇、音像街、政府街、友谊路、团结路、五一路 【高危重要客户】无 【影响客户】北大厅","startTime":"2020-05-06 11:10:39","stopDate":"2020-05-06 20:30:00","orgNo":"1340612","typeCode":"电网故障停限电","poweroffArea":"【单台区停电】停北大厅公变","poweroffReason":"【停电原因】由于北大厅变台跌落烧坏导致１１０ＫＶ白沟变电站１０ＫＶ市政５２０线路北大厅公变台区停电 【变更送电】因工作量大原因，送电时间由２０：００变更为２０：３０ 【发布渠道】通过９５５９８发布","powerTime":"2020-05-06 20:08:33","powerComm":"已送电","subsNo":"","lineNo":"","tgNo":"","tgName":null,"infoStatus":"1","orgName":"国网高碑店市供电公司","typeName":null,"infoStatusName":null,"dateDay":null,"orgNos":null,"nowTime":null,"countyName":null,"streetName":null,"villageName":null,"roadName":null,"communityName":null,"tranName":null,"sdLineName":null,"cityCode":"1340612","cityName":"国网高碑店市供电公司","provinceCode":null,"stopTime":"2020-05-06 20:30:00","powerType":"全部","powerOffArea":"【单台区停电】停北大厅公变","powerOffReason":"【停电原因】由于北大厅变台跌落烧坏导致１１０ＫＶ白沟变电站１０ＫＶ市政５２０线路北大厅公变台区停电 【变更送电】因工作量大原因，送电时间由２０：００变更为２０：３０ 【发布渠道】通过９５５９８发布","powerOffId":"2020050613000271"},{"poweroffId":2020050613000238,"sgpoweroffId":null,"subsName":"","lineName":"周任516","pubTranName":"解村15#变压器,","scope":"【影响街道/乡镇】凌云册乡【高危重要客户】无【影响客户】解村","startTime":"2020-05-16 13:00:00","stopDate":"2020-05-16 18:00:00","orgNo":"1340625","typeCode":"计划停电","poweroffArea":"【单台区停电】停解村15#变压器","poweroffReason":"【停电原因】由于更换配变导致３５ＫＶ凌云册变电站周任５１６线路解村１５＃公变台区停电【变更送电】无【发布渠道】保定市易县电视台（５月７日００：００时至５月１５日２４:００时之间）屏幕上方滚动","powerTime":"2020-05-16 17:53:02","powerComm":"已送电","subsNo":"","lineNo":"","tgNo":"","tgName":null,"infoStatus":"1","orgName":"国网易县供电公司","typeName":null,"infoStatusName":null,"dateDay":null,"orgNos":null,"nowTime":null,"countyName":null,"streetName":null,"villageName":null,"roadName":null,"communityName":null,"tranName":null,"sdLineName":null,"cityCode":"1340625","cityName":"国网易县供电公司","provinceCode":null,"stopTime":"2020-05-16 18:00:00","powerType":"全部","powerOffArea":"【单台区停电】停解村15#变压器","powerOffReason":"【停电原因】由于更换配变导致３５ＫＶ凌云册变电站周任５１６线路解村１５＃公变台区停电【变更送电】无【发布渠道】保定市易县电视台（５月７日００：００时至５月１５日２４:００时之间）屏幕上方滚动","powerOffId":"2020050613000238"}],"pageModel":{"pageNow":95,"totalCount":10973,"totalPage":1098,"tableRows":0,"pageCount":10,"beginCount":940},"isExperi":"1"}