{"message":"","today":"2020-06-15","seleList":[{"poweroffId":2020050513000432,"sgpoweroffId":null,"subsName":"","lineName":"10kV512杨东线","pubTranName":"杨东综合4台区,杨东综合8台区,杨东综合1台区,杨东综合2台区,杨东综合5台区,杨东综合9台区,杨东农排1台区【纯农排变】,杨东综合6台区,杨东综合7台区,杨东综合3台区,杨东综合10台区,","scope":"【影响街道/乡镇】桑元镇【高危重要客户】无【影响客户】杨东村","startTime":"2020-05-05 21:55:00","stopDate":"2020-05-06 07:00:00","orgNo":"1340616","typeCode":"电网故障停限电","poweroffArea":"【全线路停电】停３５ＫＶ桑园变电站１０ＫＶ杨东５１２线路全线，通达针织厂,老宽鸡厂,杨东综合10台区,杨东综合4台区,杨东综合3台区,杨东综合8台区,杨东综合7台区,杨东综合6台区,杨东综合5台区,杨东综合1台区,鑫辉毛纺厂,杨东农排1台区【纯农排变】,杨东综合9台区,杨东综合2台区","poweroffReason":"【停电原因】由于３５ＫＶ刘桑３１１线路１５号杆引流线打火导致３５ＫＶ桑园变电站１０ＫＶ杨东５１２线路全线停电【变更送电】无【发布渠道】通过９５５９８发布","powerTime":"2020-05-06 06:05:43","powerComm":"已送电","subsNo":"","lineNo":"","tgNo":"","tgName":null,"infoStatus":"1","orgName":"国网蠡县供电公司","typeName":null,"infoStatusName":null,"dateDay":null,"orgNos":null,"nowTime":null,"countyName":null,"streetName":null,"villageName":null,"roadName":null,"communityName":null,"tranName":null,"sdLineName":null,"cityCode":"1340616","cityName":"国网蠡县供电公司","provinceCode":null,"stopTime":"2020-05-06 07:00:00","powerType":"全部","powerOffArea":"【全线路停电】停３５ＫＶ桑园变电站１０ＫＶ杨东５１２线路全线，通达针织厂,老宽鸡厂,杨东综合10台区,杨东综合4台区,杨东综合3台区,杨东综合8台区,杨东综合7台区,杨东综合6台区,杨东综合5台区,杨东综合1台区,鑫辉毛纺厂,杨东农排1台区【纯农排变】,杨东综合9台区,杨东综合2台区","powerOffReason":"【停电原因】由于３５ＫＶ刘桑３１１线路１５号杆引流线打火导致３５ＫＶ桑园变电站１０ＫＶ杨东５１２线路全线停电【变更送电】无【发布渠道】通过９５５９８发布","powerOffId":"2020050513000432"},{"poweroffId":2020050513000430,"sgpoweroffId":null,"subsName":"","lineName":"10kV511杨南线","pubTranName":"杨南综合7台区,杨南综合6台区,杨南综合11台区,杨南综合4台区,杨南综合5台区,杨西综合7台区,杨南综合12台区,杨南农排4台区【纯农排变】,杨南综合2台区,元南农排7台区【纯农排变】,杨南综合9台区,杨南综合8台区,杨南农排1台区【纯农排变】,杨南综合1台区,杨南农排2台区【纯农排变】,杨西农排1台区【纯农排变】,杨南综合10台区,杨南农排8台区【纯农排变】,杨西农排7台区【纯农排变】,杨西综合2台区,杨南综合3台区,杨南农排3台区【纯农排变】,","scope":"【影响街道/乡镇】桑元镇【高危重要客户】无【影响客户】杨南村、杨东村、元南村、杨西村、大杨庄村","startTime":"2020-05-05 21:53:00","stopDate":"2020-05-06 07:00:00","orgNo":"1340616","typeCode":"电网故障停限电","poweroffArea":"【全线路停电】停３５ＫＶ桑园变电站１０ＫＶ杨南５１１线路全线，杨南养猪场,杨南面粉厂,元南农排7台区【纯农排变】,杨南综合2台区,杨西农排1台区【纯农排变】,占文东,杨南综合9台区,杨南综合1台区,杨南农排8台区【纯农排变】,杨南综合7台区,杨南综合5台区,杨南综合6台区,蠡县光辉纺织厂,泉润纺织新增160KVA变压器,树子,杨西农排7台区【纯农排变】,蠡县泉润纺织有限公司,杨南综合3台区,杨南综合10台区,杨南农排2台区【纯农排变】,杨南综合8台区,杨南农排4台区【纯农排变】,杨西综合2台区,杨南农排1台区【纯农排变】,杨南综合12台区,杨西综合7台区,杨南农排3台区【纯农排变】,杨南综合4台区,杨南综合11台区,宏业丝棉厂","poweroffReason":"【停电原因】由于３５ＫＶ刘桑３１１线路１５号杆引流线打火导致３５ＫＶ桑园变电站１０ＫＶ杨南５１１线路全线停电【变更送电】无【发布渠道】通过９５５９８发布","powerTime":"2020-05-06 06:05:25","powerComm":"已送电","subsNo":"","lineNo":"","tgNo":"","tgName":null,"infoStatus":"1","orgName":"国网蠡县供电公司","typeName":null,"infoStatusName":null,"dateDay":null,"orgNos":null,"nowTime":null,"countyName":null,"streetName":null,"villageName":null,"roadName":null,"communityName":null,"tranName":null,"sdLineName":null,"cityCode":"1340616","cityName":"国网蠡县供电公司","provinceCode":null,"stopTime":"2020-05-06 07:00:00","powerType":"全部","powerOffArea":"【全线路停电】停３５ＫＶ桑园变电站１０ＫＶ杨南５１１线路全线，杨南养猪场,杨南面粉厂,元南农排7台区【纯农排变】,杨南综合2台区,杨西农排1台区【纯农排变】,占文东,杨南综合9台区,杨南综合1台区,杨南农排8台区【纯农排变】,杨南综合7台区,杨南综合5台区,杨南综合6台区,蠡县光辉纺织厂,泉润纺织新增160KVA变压器,树子,杨西农排7台区【纯农排变】,蠡县泉润纺织有限公司,杨南综合3台区,杨南综合10台区,杨南农排2台区【纯农排变】,杨南综合8台区,杨南农排4台区【纯农排变】,杨西综合2台区,杨南农排1台区【纯农排变】,杨南综合12台区,杨西综合7台区,杨南农排3台区【纯农排变】,杨南综合4台区,杨南综合11台区,宏业丝棉厂","powerOffReason":"【停电原因】由于３５ＫＶ刘桑３１１线路１５号杆引流线打火导致３５ＫＶ桑园变电站１０ＫＶ杨南５１１线路全线停电【变更送电】无【发布渠道】通过９５５９８发布","powerOffId":"2020050513000430"},{"poweroffId":2020050513000428,"sgpoweroffId":null,"subsName":"","lineName":"10kV519杨西线","pubTranName":"杨西综合12台区,杨北综合1台区,杨北综合7台区,杨西综合13台区,杨北综合2台区,杨西综合4台区,元东综合3台区,杨西综合3台区,杨北综合3台区,杨北综合11台区,杨东农排8台区【纯农排变】,杨西综合9台区,元北综合10台区,元东综合12台区,元东综合5台区,杨北综合13台区,杨北综合9台区,杨西综合6台区,元北综合18台区,杨北综合5台区,杨西农排6台区【纯农排变】,杨北综合4台区,杨北综合12台区,杨西综合8台区,杨东农排2台区【纯农排变】,杨东综合11台区,杨北综合10台区,杨北综合8台区,杨西综合10台区,杨西综合5台区,杨西综合1台区,杨西综合11台区,元东综合7台区,","scope":"【影响街道/乡镇】桑元镇【高危重要客户】无【影响客户】元北村、杨西村、杨北村、元东村、大杨庄村","startTime":"2020-05-05 21:49:00","stopDate":"2020-05-06 07:00:00","orgNo":"1340616","typeCode":"电网故障停限电","poweroffArea":"【全线路停电】停３５ＫＶ桑园变电站１０ＫＶ杨西５１９线路全线，杨西综合3台区,同乐,幼儿园,杨西综合9台区,杨东农排2台区【纯农排变】,杨东农排8台区【纯农排变】,元东综合12台区,0469348516-蠡县华兴纺织有限公司-专变-46780275-华兴纺织公司,杨西综合13台区,杨西综合10台区,杨西综合4台区,杨西综合6台区,杨北综合2台区,杨北综合13台区,杨北综合1台区,何彦欣,桑园镇政府,保定美雅纺织变压器,元北综合18台区,杨北综合8台区,蠡县双建经编有限公司,杨北综合9台区,华澳石材厂,蠡园毛纺厂,杨北综合7台区,杨西纺织经编厂,杨北综合4台区,杨西九龙,杨北综合5台区,杨北综合3台区,杨北综合12台区,元东综合3台区,杨北综合11台区,杨北综合10台区,蔡团,国庆农场,杨西综合11台区,杨西综合1台区,张永兴,杨西九龙毛纺厂,元东综合5台区,杨西综合5台区,杨西针织厂,蠡县杨西孕泽纺织厂变压器,元东综合7台区,春雅纺织有限公司,杨西农排6台区【纯农排变】,元北综合10台区,杨西综合8台区,杨西综合12台区,杨北方辰针织厂变压器,杨东综合11台区","poweroffReason":"【停电原因】由于３５ＫＶ刘桑３１１线路１５号杆引流线打火导致３５ＫＶ桑园变电站１０ＫＶ杨西５１９线路全线停电【变更送电】无【发布渠道】通过９５５９８发布","powerTime":"2020-05-06 06:05:08","powerComm":"已送电","subsNo":"","lineNo":"","tgNo":"","tgName":null,"infoStatus":"1","orgName":"国网蠡县供电公司","typeName":null,"infoStatusName":null,"dateDay":null,"orgNos":null,"nowTime":null,"countyName":null,"streetName":null,"villageName":null,"roadName":null,"communityName":null,"tranName":null,"sdLineName":null,"cityCode":"1340616","cityName":"国网蠡县供电公司","provinceCode":null,"stopTime":"2020-05-06 07:00:00","powerType":"全部","powerOffArea":"【全线路停电】停３５ＫＶ桑园变电站１０ＫＶ杨西５１９线路全线，杨西综合3台区,同乐,幼儿园,杨西综合9台区,杨东农排2台区【纯农排变】,杨东农排8台区【纯农排变】,元东综合12台区,0469348516-蠡县华兴纺织有限公司-专变-46780275-华兴纺织公司,杨西综合13台区,杨西综合10台区,杨西综合4台区,杨西综合6台区,杨北综合2台区,杨北综合13台区,杨北综合1台区,何彦欣,桑园镇政府,保定美雅纺织变压器,元北综合18台区,杨北综合8台区,蠡县双建经编有限公司,杨北综合9台区,华澳石材厂,蠡园毛纺厂,杨北综合7台区,杨西纺织经编厂,杨北综合4台区,杨西九龙,杨北综合5台区,杨北综合3台区,杨北综合12台区,元东综合3台区,杨北综合11台区,杨北综合10台区,蔡团,国庆农场,杨西综合11台区,杨西综合1台区,张永兴,杨西九龙毛纺厂,元东综合5台区,杨西综合5台区,杨西针织厂,蠡县杨西孕泽纺织厂变压器,元东综合7台区,春雅纺织有限公司,杨西农排6台区【纯农排变】,元北综合10台区,杨西综合8台区,杨西综合12台区,杨北方辰针织厂变压器,杨东综合11台区","powerOffReason":"【停电原因】由于３５ＫＶ刘桑３１１线路１５号杆引流线打火导致３５ＫＶ桑园变电站１０ＫＶ杨西５１９线路全线停电【变更送电】无【发布渠道】通过９５５９８发布","powerOffId":"2020050513000428"},{"poweroffId":2020050513000421,"sgpoweroffId":null,"subsName":"","lineName":"10kV517桑园营线","pubTranName":"杨北农排5台区【纯农排变】,元北综合4台区,杨北农排4台区【纯农排变】,元营综合3台区,元营农排1台区【纯农排变】,元北综合12台区,元北综合8台区,元营综合2台区,元东农排8台区【纯农排变】,元营综合8台区,元北综合5台区,元营综合7台区,元营农排2台区【纯农排变】,元北综合13台区,元北综合1台区,元北综合16台区,元营综合4台区,元北综合2台区,元营综合9台区,元北综合11台区,元北综合17台区,杨西农排3台区【纯农排变】,元营农排5台区【纯农排变】,元营综合6台区,元南农排9台区【纯农排变】,杨北农排1台区【纯农排变】,元北农排5台区【纯农排变】,元南农排10台区【纯农排变】,杨东农排5台区【纯农排变】,元北农排3台区【纯农排变】,元营综合1台区,杨西农排8台区【纯农排变】,元北农排2台区【纯农排变】,元营综合5台区,元北综合6台区,元北综合15台区,元东农排7台区【纯农排变】,元北综合9台区,杨东农排3台区【纯农排变】,杨北农排3台区【纯农排变】,元北综合14台区,元营农排6台区【纯农排变】,元营农排3台区【纯农排变】,元北综合3台区,元营农排7台区【纯农排变】,杨西农排9台区【纯农排变】,元营农排4台区【纯农排变】,杨北农排2台区【纯农排变】,杨东农排4台区【纯农排变】,元北农排1台区【纯农排变】,元北农排4台区【纯农排变】,杨西农排2台区【纯农排变】,元北农排7台区【纯农排变】,元北农排6台区【纯农排变】,元北综合7台区,杨西农排5台区【纯农排变】,","scope":"【影响街道/乡镇】桑元镇【高危重要客户】无【影响客户】元营村、元北村、杨东村、杨西村、元南村","startTime":"2020-05-05 21:41:00","stopDate":"2020-05-06 07:00:00","orgNo":"1340616","typeCode":"电网故障停限电","poweroffArea":"【全线路停电】停３５ＫＶ桑园变电站１０ＫＶ桑园营５１７线路全线，李占江,元北面粉厂,刘铭庄砖厂,中信公司,元北综合7台区,云国经编厂,杨西农排5台区【纯农排变】,春光染厂,杨东农排4台区【纯农排变】,元北纬编厂,二兵经编厂,元北综合8台区,元北农排6台区【纯农排变】,占海纬编厂,元北农排2台区【纯农排变】,元北农排4台区【纯农排变】,小马经编厂,元北综合9台区,元营综合3台区,元南农排9台区【纯农排变】,元营农排2台区【纯农排变】,元营综合2台区,元东农排7台区【纯农排变】,元北综合3台区,元北综合14台区,元东农排8台区【纯农排变】,元营综合7台区,彦水,元南农排10台区【纯农排变】,元北综合2台区,元营综合5台区,杨东农排3台区【纯农排变】,元北综合16台区,杨西农排2台区【纯农排变】,元北农排3台区【纯农排变】,元北农排7台区【纯农排变】,元北综合11台区,杨东梨园（黄庄）,杨西农排9台区【纯农排变】,元营农排6台区【纯农排变】,杨北农排2台区【纯农排变】,元北综合6台区,元北综合13台区,蠡县乐朋起绒厂变压器,杨北农排4台区【纯农排变】,蠡县商标印刷厂,杨北农排5台区【纯农排变】,杨东农排5台区【纯农排变】,元营综合9台区,一鸣印刷厂,老虎,元营综合6台区,小学经编厂,蠡县桑园针织染整厂,杨西农排3台区【纯农排变】,元营农排4台区【纯农排变】,元营农排7台区【纯农排变】,蠡县桑园博远针织厂,杨北农排1台区【纯农排变】,元北综合12台区,元营综合10台区,元北经编厂,杨西农排8台区【纯农排变】,杨东梨园（大亮）,元北农排1台区【纯农排变】,李云平,元营综合4台区,元北冷库,杨北大队梨园,元北综合15台区,元营综合8台区,范建军,元营农排1台区【纯农排变】,元营农排5台区【纯农排变】,蠡县众诚纺织公司,元营农排3台区【纯农排变】,元北农排5台区【纯农排变】,元北综合4台区,元北综合5台区,杨北农排3台区【纯农排变】,元营综合1台区,元北综合1台区,元北综合17台区","poweroffReason":"【停电原因】由于３５ＫＶ刘桑３１１线路１５号杆引流线打火导致３５ＫＶ桑园变电站１０ＫＶ桑园营５１７线路全线停电【变更送电】无【发布渠道】通过９５５９８发布","powerTime":"2020-05-06 06:04:45","powerComm":"已送电","subsNo":"","lineNo":"","tgNo":"","tgName":null,"infoStatus":"1","orgName":"国网蠡县供电公司","typeName":null,"infoStatusName":null,"dateDay":null,"orgNos":null,"nowTime":null,"countyName":null,"streetName":null,"villageName":null,"roadName":null,"communityName":null,"tranName":null,"sdLineName":null,"cityCode":"1340616","cityName":"国网蠡县供电公司","provinceCode":null,"stopTime":"2020-05-06 07:00:00","powerType":"全部","powerOffArea":"【全线路停电】停３５ＫＶ桑园变电站１０ＫＶ桑园营５１７线路全线，李占江,元北面粉厂,刘铭庄砖厂,中信公司,元北综合7台区,云国经编厂,杨西农排5台区【纯农排变】,春光染厂,杨东农排4台区【纯农排变】,元北纬编厂,二兵经编厂,元北综合8台区,元北农排6台区【纯农排变】,占海纬编厂,元北农排2台区【纯农排变】,元北农排4台区【纯农排变】,小马经编厂,元北综合9台区,元营综合3台区,元南农排9台区【纯农排变】,元营农排2台区【纯农排变】,元营综合2台区,元东农排7台区【纯农排变】,元北综合3台区,元北综合14台区,元东农排8台区【纯农排变】,元营综合7台区,彦水,元南农排10台区【纯农排变】,元北综合2台区,元营综合5台区,杨东农排3台区【纯农排变】,元北综合16台区,杨西农排2台区【纯农排变】,元北农排3台区【纯农排变】,元北农排7台区【纯农排变】,元北综合11台区,杨东梨园（黄庄）,杨西农排9台区【纯农排变】,元营农排6台区【纯农排变】,杨北农排2台区【纯农排变】,元北综合6台区,元北综合13台区,蠡县乐朋起绒厂变压器,杨北农排4台区【纯农排变】,蠡县商标印刷厂,杨北农排5台区【纯农排变】,杨东农排5台区【纯农排变】,元营综合9台区,一鸣印刷厂,老虎,元营综合6台区,小学经编厂,蠡县桑园针织染整厂,杨西农排3台区【纯农排变】,元营农排4台区【纯农排变】,元营农排7台区【纯农排变】,蠡县桑园博远针织厂,杨北农排1台区【纯农排变】,元北综合12台区,元营综合10台区,元北经编厂,杨西农排8台区【纯农排变】,杨东梨园（大亮）,元北农排1台区【纯农排变】,李云平,元营综合4台区,元北冷库,杨北大队梨园,元北综合15台区,元营综合8台区,范建军,元营农排1台区【纯农排变】,元营农排5台区【纯农排变】,蠡县众诚纺织公司,元营农排3台区【纯农排变】,元北农排5台区【纯农排变】,元北综合4台区,元北综合5台区,杨北农排3台区【纯农排变】,元营综合1台区,元北综合1台区,元北综合17台区","powerOffReason":"【停电原因】由于３５ＫＶ刘桑３１１线路１５号杆引流线打火导致３５ＫＶ桑园变电站１０ＫＶ桑园营５１７线路全线停电【变更送电】无【发布渠道】通过９５５９８发布","powerOffId":"2020050513000421"},{"poweroffId":2020050513000398,"sgpoweroffId":null,"subsName":"","lineName":"10kV514大柳树线","pubTranName":"高蠡公路3#路灯,荣营农排2台区变压器【纯农排变】,大柳树农排7台区变压器【纯农排变】,大柳树农排6台区变压器【纯农排变】,荣营综合7台区变压器,荣营农排3台区变压器【纯农排变】,大柳树综合5台区变压器,荣营综合3台区变压器,大柳树综合1台区变压器,大百尺农排18变压器【纯农排变】,大柳树综合2台区变压器,北界河综合1台区变压器,大柳树农排4台区变压器【纯农排变】,大百尺农排20变压器【纯农排变】,荣营综合8台区变压器,荣营综合1台区变压器,大百尺农排23台区变压器【纯农排变】,北界河农排8台区变压器【纯农排变】,荣营农排4台区变压器【纯农排变】,荣营农排8台区变压器【纯农排变】,荣营综合2台区变压器,大百尺农排4台区变压器【纯农排变】,荣营农排七【纯农排变】,荣营综合5台区变压器,北界河综合4台区变压器,荣营综合4台区变压器,大柳树农排5台区【纯农排变】,荣营农排9台区变压器【纯农排变】,大柳树农排1台区变压器【纯农排变】,大百尺农排3台区变压器【纯农排变】,大百尺农排19台区变压器【纯农排变】,大百尺农排2台区变压器【纯农排变】,荣营综合6台区变压器,北界河综合6台区变压器,北界河综合7台区变压器,荣营农排5台区变压器【纯农排变】,北界河综合3台区变压器,北界河综合5 变压器,大柳树综合4台区变压器,高蠡公路2#路灯,北界河综合2台区变压器,大柳树综合3台区变压器,大百尺综合11台区,","scope":"【影响街道/乡镇】大百尺镇【高危重要客户】无【影响客户】南许村、大柳树村、荣家营村（荣营）、大百尺村、北界河村、工业区","startTime":"2020-05-05 17:00:00","stopDate":"2020-05-05 22:00:00","orgNo":"1340616","typeCode":"电网故障停限电","poweroffArea":"【全线路停电】停３５ＫＶ百尺变电站１０ＫＶ大柳树５１４线路全线，北界河综合5 变压器,北界河综合6台区变压器,南许砖厂,荣营农排1变压器【纯农排变】,驾校,王平面粉厂,北界村村南浇地,荣营农排十【纯农排变】,蠡县盛强毛纺有限公司变压器,蠡县佳康皮毛皮革制品有限公司,荣营综合5台区变压器,大百尺农排19台区变压器【纯农排变】,东方洗毛厂,蠡县曙光羊毛洗涤制品厂变压器,荣营农排3台区变压器【纯农排变】,大柳树农排7台区变压器【纯农排变】,大百尺农排2台区变压器【纯农排变】,大柳树农排2台区变压器【纯农排变】,北界河综合2台区变压器,大百尺农排17变压器【纯农排变】,东方羊毛加工厂,高蠡公路2#路灯,荣营农排5台区变压器【纯农排变】,荣营综合8台区变压器,荣营农排6台区【纯农排变】,南许四片浇地,南许砖厂西浇地,荣营综合3台区变压器,大百尺农排23台区变压器【纯农排变】,北界河综合1台区变压器,大柳树综合3台区变压器,西面粉厂,加油站,大柳树综合5台区变压器,北界村边南浇地,变压器,大柳树毛纺厂,大百尺农排5台区变压器【纯农排变】,荣营农排2台区变压器【纯农排变】,荣营农排4台区变压器【纯农排变】,高蠡公路3#路灯,大柳树农排5台区【纯农排变】,荣营综合1台区变压器,荣营综合2台区变压器,蠡县瑞普华皮毛皮革有限公司变压器,荣营农排8台区变压器【纯农排变】,北界河综合7台区变压器,北界河农排8台区变压器【纯农排变】,大柳树综合2台区变压器,大柳树农排1台区变压器【纯农排变】,北界河综合4台区变压器,北界村边西浇地,大柳树农排3台区变压器【纯农排变】,北界村西浇地,荣营农排9台区变压器【纯农排变】,大柳树农排4台区变压器【纯农排变】,大百尺农排3台区变压器【纯农排变】,荣营农排七【纯农排变】,蠡县宇峰新型建材厂变压器,中国移动通信集团河北有限公司蠡县分公司,大柳树农排6台区变压器【纯农排变】,北界河综合3台区变压器,北界东南浇地,北界村东浇地,大柳树矿棉厂,加油站浇地,蠡县南许羊毛加工厂变压器315,南许南浇地,荣营综合7台区变压器,大百尺农排4台区变压器【纯农排变】,大柳树综合1台区变压器,南许中兴,大百尺农排18变压器【纯农排变】,蠡县南许羊毛加工厂变压器250,大百尺综合11台区,蠡县帅浩加油站,向阳,大柳树综合4台区变压器,荣营综合4台区变压器,荣营综合6台区变压器,大百尺农排20变压器【纯农排变】,大百尺农排1台区变压器【纯农排变】","poweroffReason":"【停电原因】由于站内开关烧毁导致３５ＫＶ百尺变电站１０ＫＶ大柳树５１４线路全线停电【变更送电】因抢修进度加快原因，送电时间由５月６日０９:００变更为５月５日２２:００【发布渠道】通过９５５９８发布","powerTime":"2020-05-05 21:20:53","powerComm":"已送电","subsNo":"","lineNo":"","tgNo":"","tgName":null,"infoStatus":"1","orgName":"国网蠡县供电公司","typeName":null,"infoStatusName":null,"dateDay":null,"orgNos":null,"nowTime":null,"countyName":null,"streetName":null,"villageName":null,"roadName":null,"communityName":null,"tranName":null,"sdLineName":null,"cityCode":"1340616","cityName":"国网蠡县供电公司","provinceCode":null,"stopTime":"2020-05-05 22:00:00","powerType":"全部","powerOffArea":"【全线路停电】停３５ＫＶ百尺变电站１０ＫＶ大柳树５１４线路全线，北界河综合5 变压器,北界河综合6台区变压器,南许砖厂,荣营农排1变压器【纯农排变】,驾校,王平面粉厂,北界村村南浇地,荣营农排十【纯农排变】,蠡县盛强毛纺有限公司变压器,蠡县佳康皮毛皮革制品有限公司,荣营综合5台区变压器,大百尺农排19台区变压器【纯农排变】,东方洗毛厂,蠡县曙光羊毛洗涤制品厂变压器,荣营农排3台区变压器【纯农排变】,大柳树农排7台区变压器【纯农排变】,大百尺农排2台区变压器【纯农排变】,大柳树农排2台区变压器【纯农排变】,北界河综合2台区变压器,大百尺农排17变压器【纯农排变】,东方羊毛加工厂,高蠡公路2#路灯,荣营农排5台区变压器【纯农排变】,荣营综合8台区变压器,荣营农排6台区【纯农排变】,南许四片浇地,南许砖厂西浇地,荣营综合3台区变压器,大百尺农排23台区变压器【纯农排变】,北界河综合1台区变压器,大柳树综合3台区变压器,西面粉厂,加油站,大柳树综合5台区变压器,北界村边南浇地,变压器,大柳树毛纺厂,大百尺农排5台区变压器【纯农排变】,荣营农排2台区变压器【纯农排变】,荣营农排4台区变压器【纯农排变】,高蠡公路3#路灯,大柳树农排5台区【纯农排变】,荣营综合1台区变压器,荣营综合2台区变压器,蠡县瑞普华皮毛皮革有限公司变压器,荣营农排8台区变压器【纯农排变】,北界河综合7台区变压器,北界河农排8台区变压器【纯农排变】,大柳树综合2台区变压器,大柳树农排1台区变压器【纯农排变】,北界河综合4台区变压器,北界村边西浇地,大柳树农排3台区变压器【纯农排变】,北界村西浇地,荣营农排9台区变压器【纯农排变】,大柳树农排4台区变压器【纯农排变】,大百尺农排3台区变压器【纯农排变】,荣营农排七【纯农排变】,蠡县宇峰新型建材厂变压器,中国移动通信集团河北有限公司蠡县分公司,大柳树农排6台区变压器【纯农排变】,北界河综合3台区变压器,北界东南浇地,北界村东浇地,大柳树矿棉厂,加油站浇地,蠡县南许羊毛加工厂变压器315,南许南浇地,荣营综合7台区变压器,大百尺农排4台区变压器【纯农排变】,大柳树综合1台区变压器,南许中兴,大百尺农排18变压器【纯农排变】,蠡县南许羊毛加工厂变压器250,大百尺综合11台区,蠡县帅浩加油站,向阳,大柳树综合4台区变压器,荣营综合4台区变压器,荣营综合6台区变压器,大百尺农排20变压器【纯农排变】,大百尺农排1台区变压器【纯农排变】","powerOffReason":"【停电原因】由于站内开关烧毁导致３５ＫＶ百尺变电站１０ＫＶ大柳树５１４线路全线停电【变更送电】因抢修进度加快原因，送电时间由５月６日０９:００变更为５月５日２２:００【发布渠道】通过９５５９８发布","powerOffId":"2020050513000398"},{"poweroffId":2020050513000388,"sgpoweroffId":null,"subsName":"","lineName":"10kV516刘枣线","pubTranName":"枣林综合8台区,枣林综合10台区,枣林农排6台区【纯农排变】,枣林综合5台区,枣林综合1台区,枣林农排2台区【纯农排变】,枣林综合6台区,枣林综合3台区,枣林综合4台区,枣林综合17台区,客户投资_枣林综合2台区,枣林综合13台区,枣林综合7台区,枣林综合16台区,枣林综合14台区,枣林综合11台区,枣林综合15台区,枣林综合12台区,","scope":"【影响街道/乡镇】北郭丹镇【高危重要客户】无【影响客户】枣林村、志西村（西志愿村）、志东村（东志愿村）","startTime":"2020-05-05 16:33:00","stopDate":"2020-05-05 18:30:00","orgNo":"1340616","typeCode":"电网故障停限电","poweroffArea":"【全线路停电】停１１０ＫＶ刘铭庄变电站１０ＫＶ刘枣５１６线路全线，枣林综合14台区,枣林综合4台区,枣林农排4台区【纯农排变】,枣林综合17台区,枣林农排6台区【纯农排变】,枣林综合6台区,客户投资_枣林综合2台区,枣林农排1台区【纯农排变】,枣林农排2台区【纯农排变】,枣林综合10台区,枣林综合11台区,枣林综合12台区,枣林综合13台区,枣林综合15台区,枣林综合16台区,枣林综合1台区,枣林综合3台区,枣林综合5台区,枣林综合7台区,枣林综合8台区","poweroffReason":"【停电原因】由于站内开关掉闸导致１１０ＫＶ刘铭庄变电站１０ＫＶ刘枣５１６线路全线停电【变更送电】因抢修进度加快原因，送电时间由２３:００变更为１８:３０【发布渠道】通过９５５９８发布","powerTime":"2020-05-05 17:49:17","powerComm":"已送电","subsNo":"","lineNo":"","tgNo":"","tgName":null,"infoStatus":"1","orgName":"国网蠡县供电公司","typeName":null,"infoStatusName":null,"dateDay":null,"orgNos":null,"nowTime":null,"countyName":null,"streetName":null,"villageName":null,"roadName":null,"communityName":null,"tranName":null,"sdLineName":null,"cityCode":"1340616","cityName":"国网蠡县供电公司","provinceCode":null,"stopTime":"2020-05-05 18:30:00","powerType":"全部","powerOffArea":"【全线路停电】停１１０ＫＶ刘铭庄变电站１０ＫＶ刘枣５１６线路全线，枣林综合14台区,枣林综合4台区,枣林农排4台区【纯农排变】,枣林综合17台区,枣林农排6台区【纯农排变】,枣林综合6台区,客户投资_枣林综合2台区,枣林农排1台区【纯农排变】,枣林农排2台区【纯农排变】,枣林综合10台区,枣林综合11台区,枣林综合12台区,枣林综合13台区,枣林综合15台区,枣林综合16台区,枣林综合1台区,枣林综合3台区,枣林综合5台区,枣林综合7台区,枣林综合8台区","powerOffReason":"【停电原因】由于站内开关掉闸导致１１０ＫＶ刘铭庄变电站１０ＫＶ刘枣５１６线路全线停电【变更送电】因抢修进度加快原因，送电时间由２３:００变更为１８:３０【发布渠道】通过９５５９８发布","powerOffId":"2020050513000388"},{"poweroffId":2020050513000377,"sgpoweroffId":null,"subsName":"","lineName":"韩村线513","pubTranName":"皂马排3【纯农排变】,","scope":"【影响街道/乡镇】北田乡 【影响客户】皂马部分用户","startTime":"2020-05-05 16:07:52","stopDate":"2020-05-05 20:00:00","orgNo":"1340609","typeCode":"电网故障停限电","poweroffArea":"【单台区停电】停３５ＫＶ大留村变电站韩村线５１３线路皂马排３公变台区，皂马排3【纯农排变】","poweroffReason":"【停电原因】由于皂马排３ＪＰ柜内空开烧毁导致３５ＫＶ大留村变电站韩村线５１３线路皂马排３公变台区停电 【变更送电】因抢修进度加快原因，送电时间由２１：００变更为２０：００ 【发布渠道】通过９５５９８发布","powerTime":"2020-05-05 19:12:43","powerComm":"已送电","subsNo":"","lineNo":"","tgNo":"","tgName":null,"infoStatus":"1","orgName":"国网定兴县供电公司","typeName":null,"infoStatusName":null,"dateDay":null,"orgNos":null,"nowTime":null,"countyName":null,"streetName":null,"villageName":null,"roadName":null,"communityName":null,"tranName":null,"sdLineName":null,"cityCode":"1340609","cityName":"国网定兴县供电公司","provinceCode":null,"stopTime":"2020-05-05 20:00:00","powerType":"全部","powerOffArea":"【单台区停电】停３５ＫＶ大留村变电站韩村线５１３线路皂马排３公变台区，皂马排3【纯农排变】","powerOffReason":"【停电原因】由于皂马排３ＪＰ柜内空开烧毁导致３５ＫＶ大留村变电站韩村线５１３线路皂马排３公变台区停电 【变更送电】因抢修进度加快原因，送电时间由２１：００变更为２０：００ 【发布渠道】通过９５５９８发布","powerOffId":"2020050513000377"},{"poweroffId":2020050513000372,"sgpoweroffId":null,"subsName":"","lineName":"10kV542红星线","pubTranName":"兑坎庄综合11台区,兑坎庄综合5台区,兑坎庄综合10台区,兑坎庄综合2台区,","scope":"【影响街道/乡镇】蠡吾镇【高危重要客户】无【影响客户】兑坎庄工业区","startTime":"2020-05-05 15:56:00","stopDate":"2020-05-05 19:00:00","orgNo":"1340616","typeCode":"电网故障停限电","poweroffArea":"【全线路停电】停１１０ＫＶ张岳变电站１０ＫＶ红星５４２线路全线，李同营,蠡县兑坎庄橡胶制品经销部变压器,华腾,四通设备厂,保定坤隆橡胶机带有限公司变压器,保定天顺橡胶制品有限公司,河北东风橡胶机带有限公司,蠡县兑坎庄中亿胶带输送设备配件厂,保定四海橡胶机带有限公司,兑坎庄综合11台区,李贺营,李国安,保定红星橡胶制品有限公司,保定中南橡胶机带有限公司,蠡县亿丰输送设备有限公司变压器,韩素卓||2522046|兑坎庄,2522兑坎庄李云清,河北新达胶带厂变压器,2522050||2522兑坎庄,兑坎庄综合10台区,2522兑坎庄车床,蠡县东亿橡胶机带有限公司变压器安装,0684252737-保定晟诺橡胶机带制造有限公司-专变-225174124-保定晟诺橡胶机带制造有限公司,2522兑坎庄韩显增,保定天顺橡胶制品有限公司变压器,双启织布厂,中北橡,蠡县华川胶带有限公司,兑坎庄综合2台区,北方,0683783388-蠡县华隆胶带厂-专变-223538313-蠡县华隆胶带厂变压器,变压器,胜利橡,蠡县开泰输送机带有限公司变压器,华都,其林,保定中南橡胶机带有限公司变压器,蠡县兑庄农机配件维修部,李建辉,中元,鑫宝达输送设备制造有限公司变压器,兑坎庄综合5台区,李贺兵,明星,蠡县兑坎庄腾达环形带厂变压器,李建良,李保昌,保定弘强橡胶机带有限公司,蠡县爱辉橡胶厂变压器","poweroffReason":"【停电原因】由于站内开关掉闸导致１１０ＫＶ张岳变电站１０ＫＶ红星５４２线路全线停电【变更送电】因抢修进度加快原因，送电时间由５月６日１０:００变更为５月５日１９:００【发布渠道】通过９５５９８发布","powerTime":"2020-05-05 18:19:36","powerComm":"已送电","subsNo":"","lineNo":"","tgNo":"","tgName":null,"infoStatus":"1","orgName":"国网蠡县供电公司","typeName":null,"infoStatusName":null,"dateDay":null,"orgNos":null,"nowTime":null,"countyName":null,"streetName":null,"villageName":null,"roadName":null,"communityName":null,"tranName":null,"sdLineName":null,"cityCode":"1340616","cityName":"国网蠡县供电公司","provinceCode":null,"stopTime":"2020-05-05 19:00:00","powerType":"全部","powerOffArea":"【全线路停电】停１１０ＫＶ张岳变电站１０ＫＶ红星５４２线路全线，李同营,蠡县兑坎庄橡胶制品经销部变压器,华腾,四通设备厂,保定坤隆橡胶机带有限公司变压器,保定天顺橡胶制品有限公司,河北东风橡胶机带有限公司,蠡县兑坎庄中亿胶带输送设备配件厂,保定四海橡胶机带有限公司,兑坎庄综合11台区,李贺营,李国安,保定红星橡胶制品有限公司,保定中南橡胶机带有限公司,蠡县亿丰输送设备有限公司变压器,韩素卓||2522046|兑坎庄,2522兑坎庄李云清,河北新达胶带厂变压器,2522050||2522兑坎庄,兑坎庄综合10台区,2522兑坎庄车床,蠡县东亿橡胶机带有限公司变压器安装,0684252737-保定晟诺橡胶机带制造有限公司-专变-225174124-保定晟诺橡胶机带制造有限公司,2522兑坎庄韩显增,保定天顺橡胶制品有限公司变压器,双启织布厂,中北橡,蠡县华川胶带有限公司,兑坎庄综合2台区,北方,0683783388-蠡县华隆胶带厂-专变-223538313-蠡县华隆胶带厂变压器,变压器,胜利橡,蠡县开泰输送机带有限公司变压器,华都,其林,保定中南橡胶机带有限公司变压器,蠡县兑庄农机配件维修部,李建辉,中元,鑫宝达输送设备制造有限公司变压器,兑坎庄综合5台区,李贺兵,明星,蠡县兑坎庄腾达环形带厂变压器,李建良,李保昌,保定弘强橡胶机带有限公司,蠡县爱辉橡胶厂变压器","powerOffReason":"【停电原因】由于站内开关掉闸导致１１０ＫＶ张岳变电站１０ＫＶ红星５４２线路全线停电【变更送电】因抢修进度加快原因，送电时间由５月６日１０:００变更为５月５日１９:００【发布渠道】通过９５５９８发布","powerOffId":"2020050513000372"},{"poweroffId":2020050513000370,"sgpoweroffId":null,"subsName":"","lineName":"10kV541大润线","pubTranName":"鑫涛橡胶,张彦峰,蠡县圣元橡胶机带厂,保定远晟橡胶胶带制造有限公司变压器,？县兑坎庄正达胶带厂,中国石化,河北华龙输送设备厂,蠡县昌鑫橡胶机械制造有限公司变压器,蠡县亿鑫橡胶输送设备有限公司变压器,保定佳旭橡胶输送设备有限公司变压器630,保定蓝润胶带制造有限公司,兑坎庄农排7台区【纯农排变】,蠡县宏达贸易有限公司,兑坎庄综合9台区,保定宏达输送机械有限公司变压器,变压器,蠡县弘扬胶带有限公司变压器,张永志,河北阳光胶带,河北天发橡胶有限公司,大润橡胶机带制造有限公司,保定大润橡胶机带制造有限公司,河北昌鑫胶带机械有限公司,兑坎庄综合4台区,","scope":"【影响街道/乡镇】蠡吾镇【高危重要客户】无【影响客户】兑坎庄工业区","startTime":"2020-05-05 15:54:00","stopDate":"2020-05-05 19:00:00","orgNo":"1340616","typeCode":"电网故障停限电","poweroffArea":"【全线路停电】停１１０ＫＶ张岳变电站１０ＫＶ大润５４１线路全线，保定宏达输送机械有限公司变压器,河北阳光胶带,兑坎庄综合4台区,变压器,蠡县弘扬胶带有限公司变压器,张永志,河北天发橡胶有限公司,大润橡胶机带制造有限公司,保定大润橡胶机带制造有限公司,河北昌鑫胶带机械有限公司,鑫涛橡胶,张彦峰,蠡县圣元橡胶机带厂,保定远晟橡胶胶带制造有限公司变压器,？县兑坎庄正达胶带厂,中国石化,河北华龙输送设备厂,蠡县昌鑫橡胶机械制造有限公司变压器,蠡县亿鑫橡胶输送设备有限公司变压器,保定佳旭橡胶输送设备有限公司变压器630,保定蓝润胶带制造有限公司,兑坎庄农排7台区【纯农排变】,蠡县宏达贸易有限公司,兑坎庄综合9台区","poweroffReason":"【停电原因】由于线路接地导致１１０ＫＶ张岳变电站１０ＫＶ大润５４１线路全线停电【变更送电】因抢修进度加快原因，送电时间由５月６日１０:００变更为５月５日１９:００【发布渠道】通过９５５９８发布","powerTime":"2020-05-05 18:19:07","powerComm":"已送电","subsNo":"","lineNo":"","tgNo":"","tgName":null,"infoStatus":"1","orgName":"国网蠡县供电公司","typeName":null,"infoStatusName":null,"dateDay":null,"orgNos":null,"nowTime":null,"countyName":null,"streetName":null,"villageName":null,"roadName":null,"communityName":null,"tranName":null,"sdLineName":null,"cityCode":"1340616","cityName":"国网蠡县供电公司","provinceCode":null,"stopTime":"2020-05-05 19:00:00","powerType":"全部","powerOffArea":"【全线路停电】停１１０ＫＶ张岳变电站１０ＫＶ大润５４１线路全线，保定宏达输送机械有限公司变压器,河北阳光胶带,兑坎庄综合4台区,变压器,蠡县弘扬胶带有限公司变压器,张永志,河北天发橡胶有限公司,大润橡胶机带制造有限公司,保定大润橡胶机带制造有限公司,河北昌鑫胶带机械有限公司,鑫涛橡胶,张彦峰,蠡县圣元橡胶机带厂,保定远晟橡胶胶带制造有限公司变压器,？县兑坎庄正达胶带厂,中国石化,河北华龙输送设备厂,蠡县昌鑫橡胶机械制造有限公司变压器,蠡县亿鑫橡胶输送设备有限公司变压器,保定佳旭橡胶输送设备有限公司变压器630,保定蓝润胶带制造有限公司,兑坎庄农排7台区【纯农排变】,蠡县宏达贸易有限公司,兑坎庄综合9台区","powerOffReason":"【停电原因】由于线路接地导致１１０ＫＶ张岳变电站１０ＫＶ大润５４１线路全线停电【变更送电】因抢修进度加快原因，送电时间由５月６日１０:００变更为５月５日１９:００【发布渠道】通过９５５９８发布","powerOffId":"2020050513000370"},{"poweroffId":2020050513000359,"sgpoweroffId":null,"subsName":"","lineName":"10kV515齐营线","pubTranName":"刘佃庄综合9台区,齐营综合8台区,正南庄综合7台区,齐营综合9台区,刘佃庄综合4台区,刘佃庄综合8台区,刘佃庄农排8台区【纯农排变】,刘佃庄综合六台区,西南庄综合3台区,齐营综合1台区,东口农排4台区【纯农排变】,刘佃庄综合2台区,齐营综合6台区,刘佃庄综合10台区,西南庄农排4台区【纯农排变】,齐营农排4台区【纯农排变】,正南庄农排4台区【纯农排变】,齐营综合7台区,南口农排4台区【纯农排变】,正南庄综合3台区,齐营综合10台区,齐营综合5台区,齐营农排10台区【纯农排变】,齐营综合12台区,西南庄综合7台区,刘佃庄农排3台区【纯农排变】,正南庄综合6台区,齐营综合3台区,齐营农排11台区【纯农排变】,正南庄综合1台区,正南庄综合4台区,齐营综合11台区,刘佃庄综合5台区,齐营农排3台区【纯农排变】,刘佃庄农排6台区【纯农排变】,正南庄综合8台区,正南庄农排2台区【纯农排变】,正南庄农排3台区【纯农排变】,西南庄农排1台区【纯农排变】,刘佃庄综合1台区,正南庄综合9台区,齐营综合2台区,正南庄综合5台区,刘佃庄综合7台区,东口综合20台区,","scope":"【影响街道/乡镇】鲍墟乡【高危重要客户】无【影响客户】齐营村、东口村、刘佃庄村、西南庄村、正南庄村、南口村、西口村","startTime":"2020-05-05 15:31:00","stopDate":"2020-05-05 17:30:00","orgNo":"1340616","typeCode":"电网故障停限电","poweroffArea":"【全线路停电】停３５ＫＶ鲍墟变电站１０ＫＶ齐营５１５线路全线，正南庄农排1台区【纯农排变】,齐营农排6台区【纯农排变】,刘佃庄综合六台区,正南庄农排4台区【纯农排变】,东口农排5台区【纯农排变】,刘佃庄综合4台区,东口农排8台区【纯农排变】,齐营综合12台区,刘佃庄综合5台区,正南庄农排2台区【纯农排变】,齐营综合9台区,刘佃庄农排4台区【纯农排变】,齐营综合1台区,正南庄综合2台区,刘佃庄农排1台区【纯农排变】,冷冻厂,刘佃庄农排6台区【纯农排变】,刘佃庄农排10台区【纯农排变】,紫玉养殖厂,齐营农排5台区【纯农排变】,齐营综合7台区,齐营综合10台区,齐营综合11台区,西南庄综合3台区,东口综合20台区,齐营综合8台区,西南庄农排1台区【纯农排变】,齐营农排4台区【纯农排变】,正南庄综合9台区,中口农排2台区【纯农排变】,齐营农排3台区【纯农排变】,正南庄农排3台区【纯农排变】,蠡县东口利兆特种养殖厂变压器,刘佃庄农排5台区【纯农排变】,蠡县东口绿丹蓝养殖场变压器,东口农排4台区【纯农排变】,正南庄综合6台区,齐营农排1台区【纯农排变】,正南庄综合1台区,正南庄综合4台区,东口农排10台区【纯农排变】,正南庄综合7台区,正南庄综合8台区,西南庄农排2台区【纯农排变】,正南庄综合5台区,齐营农排10台区【纯农排变】,齐营综合5台区,中国移动通信集团河北有限公司蠡县分公司刘佃庄村变压器,齐营农排2台区【纯农排变】,齐营农排11台区【纯农排变】,东口农排6台区【纯农排变】,刘佃庄综合9台区,东口农排9台区【纯农排变】,齐营农排12台区【纯农排变】,刘佃庄综合1台区,刘佃庄农排3台区【纯农排变】,东口农排7台区【纯农排变】,刘佃庄农排9台区【纯农排变】,刘佃庄农排2台区【纯农排变】,东口地,齐营农排13台区【纯农排变】,蠡县东口第二饲养厂变压器,西南庄农排4台区【纯农排变】,刘佃庄综合8台区,刘佃庄农排8台区【纯农排变】,南口农排4台区【纯农排变】,齐营综合4台区,刘佃庄综合2台区,中口农排3台区【纯农排变】,齐营综合6台区,刘佃庄农排7台区【纯农排变】,刘佃庄综合7台区,正南庄综合3台区,刘佃庄综合10台区,蠡县东口第一养殖厂变压器,南口农排5台区【纯农排变】,南口农排2台区【纯农排变】,齐营农排8台区【纯农排变】,西南庄农排3台区【纯农排变】,齐营农排9台区【纯农排变】,齐营综合2台区,齐营农排7台区【纯农排变】,中国石油天然气股份有限公司华北油田分公司,西南庄综合7台区,齐营综合3台区,东口农排2台区【纯农排变】,南口农排3台区【纯农排变】,东口农排3台区【纯农排变】","poweroffReason":"【停电原因】由于速断掉闸导致３５ＫＶ鲍墟变电站１０ＫＶ齐营５１５线路全线停电【变更送电】因抢修进度加快原因，送电时间由２３:００变更为１７:３０【发布渠道】通过９５５９８发布","powerTime":"2020-05-05 16:56:14","powerComm":"已送电","subsNo":"","lineNo":"","tgNo":"","tgName":null,"infoStatus":"1","orgName":"国网蠡县供电公司","typeName":null,"infoStatusName":null,"dateDay":null,"orgNos":null,"nowTime":null,"countyName":null,"streetName":null,"villageName":null,"roadName":null,"communityName":null,"tranName":null,"sdLineName":null,"cityCode":"1340616","cityName":"国网蠡县供电公司","provinceCode":null,"stopTime":"2020-05-05 17:30:00","powerType":"全部","powerOffArea":"【全线路停电】停３５ＫＶ鲍墟变电站１０ＫＶ齐营５１５线路全线，正南庄农排1台区【纯农排变】,齐营农排6台区【纯农排变】,刘佃庄综合六台区,正南庄农排4台区【纯农排变】,东口农排5台区【纯农排变】,刘佃庄综合4台区,东口农排8台区【纯农排变】,齐营综合12台区,刘佃庄综合5台区,正南庄农排2台区【纯农排变】,齐营综合9台区,刘佃庄农排4台区【纯农排变】,齐营综合1台区,正南庄综合2台区,刘佃庄农排1台区【纯农排变】,冷冻厂,刘佃庄农排6台区【纯农排变】,刘佃庄农排10台区【纯农排变】,紫玉养殖厂,齐营农排5台区【纯农排变】,齐营综合7台区,齐营综合10台区,齐营综合11台区,西南庄综合3台区,东口综合20台区,齐营综合8台区,西南庄农排1台区【纯农排变】,齐营农排4台区【纯农排变】,正南庄综合9台区,中口农排2台区【纯农排变】,齐营农排3台区【纯农排变】,正南庄农排3台区【纯农排变】,蠡县东口利兆特种养殖厂变压器,刘佃庄农排5台区【纯农排变】,蠡县东口绿丹蓝养殖场变压器,东口农排4台区【纯农排变】,正南庄综合6台区,齐营农排1台区【纯农排变】,正南庄综合1台区,正南庄综合4台区,东口农排10台区【纯农排变】,正南庄综合7台区,正南庄综合8台区,西南庄农排2台区【纯农排变】,正南庄综合5台区,齐营农排10台区【纯农排变】,齐营综合5台区,中国移动通信集团河北有限公司蠡县分公司刘佃庄村变压器,齐营农排2台区【纯农排变】,齐营农排11台区【纯农排变】,东口农排6台区【纯农排变】,刘佃庄综合9台区,东口农排9台区【纯农排变】,齐营农排12台区【纯农排变】,刘佃庄综合1台区,刘佃庄农排3台区【纯农排变】,东口农排7台区【纯农排变】,刘佃庄农排9台区【纯农排变】,刘佃庄农排2台区【纯农排变】,东口地,齐营农排13台区【纯农排变】,蠡县东口第二饲养厂变压器,西南庄农排4台区【纯农排变】,刘佃庄综合8台区,刘佃庄农排8台区【纯农排变】,南口农排4台区【纯农排变】,齐营综合4台区,刘佃庄综合2台区,中口农排3台区【纯农排变】,齐营综合6台区,刘佃庄农排7台区【纯农排变】,刘佃庄综合7台区,正南庄综合3台区,刘佃庄综合10台区,蠡县东口第一养殖厂变压器,南口农排5台区【纯农排变】,南口农排2台区【纯农排变】,齐营农排8台区【纯农排变】,西南庄农排3台区【纯农排变】,齐营农排9台区【纯农排变】,齐营综合2台区,齐营农排7台区【纯农排变】,中国石油天然气股份有限公司华北油田分公司,西南庄综合7台区,齐营综合3台区,东口农排2台区【纯农排变】,南口农排3台区【纯农排变】,东口农排3台区【纯农排变】","powerOffReason":"【停电原因】由于速断掉闸导致３５ＫＶ鲍墟变电站１０ＫＶ齐营５１５线路全线停电【变更送电】因抢修进度加快原因，送电时间由２３:００变更为１７:３０【发布渠道】通过９５５９８发布","powerOffId":"2020050513000359"}],"pageModel":{"pageNow":98,"totalCount":10973,"totalPage":1098,"tableRows":0,"pageCount":10,"beginCount":970},"isExperi":"1"}