{"message":"","today":"2020-06-15","seleList":[{"poweroffId":2020050513000182,"sgpoweroffId":null,"subsName":"","lineName":"泰元街线515","pubTranName":"一中直供,团结路3#,安各庄水库家属院,东环路3#,团结路2#,泰元街直供1#,教育局家属楼,丁街1#,电厂楼直供,木器厂直供,泰元街直供2#,畜牧局直供,东环路6#,鸿华小区1配电变压器,丁街4#,","scope":"【影响街道/乡镇】泰元南大街、朝阳东路、团结路【高危重要客户】无【影响客户】东关新村、领尚城小区、亚澜家苑、锦芳园家属楼、教育局家属楼、鸿华小区、京都首府、电厂家属楼、花园西区","startTime":"2020-05-05 08:18:00","stopDate":"2020-05-05 09:30:00","orgNo":"1340625","typeCode":"电网故障停限电","poweroffArea":"【全线路停电】停一中直供,丁街4#,易县教育局630KVA-1号,泰元街直供1#,教育局家属楼,易县明军圣达房地产开发有限公司变压器,丁街1#,易县鸿华房地产开发有限公司,电厂楼直供,木器厂直供,0660325824-易县铸成房地产开发有限公司-专变-194541910-易县铸成房地产开发有限公司400KVA,易县第一小学,易县教育局变压器,河北易县中学变压器,王敬变压器,易县中学(南),移动公司总部315,易县教育局630KVA-3号,易县天泰房地产开发有限公司变压器,团结路2#,易县明军圣达房地产开发有限公司（领尚城）B-2000KVA,泰元街直供2#,畜牧局直供,龙烁供热80kva-一中宿舍楼,东环路6#,鸿华小区1配电变压器,团结路3#,安各庄水库家属院,沃美超市变压器,易县明军圣达房地产开发有限公司（领尚城）A-2000KVA,石庄村董华变压器,东环路3#,易县龙烁供热有限责任公司变压器,电视台,长安路蔡海连80,易县教育局-630KVA-2号","poweroffReason":"【停电原因】由于主干００１号杆线夹断裂导致１１０ＫＶ易县站泰元街５１５线路全线停电【变更送电】因抢修进度加快原因，送电时间由１３：００变更为０９：３０【发布渠道】通过９５５９８发布","powerTime":"2020-05-05 09:09:43","powerComm":"已送电","subsNo":"","lineNo":"","tgNo":"","tgName":null,"infoStatus":"1","orgName":"国网易县供电公司","typeName":null,"infoStatusName":null,"dateDay":null,"orgNos":null,"nowTime":null,"countyName":null,"streetName":null,"villageName":null,"roadName":null,"communityName":null,"tranName":null,"sdLineName":null,"cityCode":"1340625","cityName":"国网易县供电公司","provinceCode":null,"stopTime":"2020-05-05 09:30:00","powerType":"全部","powerOffArea":"【全线路停电】停一中直供,丁街4#,易县教育局630KVA-1号,泰元街直供1#,教育局家属楼,易县明军圣达房地产开发有限公司变压器,丁街1#,易县鸿华房地产开发有限公司,电厂楼直供,木器厂直供,0660325824-易县铸成房地产开发有限公司-专变-194541910-易县铸成房地产开发有限公司400KVA,易县第一小学,易县教育局变压器,河北易县中学变压器,王敬变压器,易县中学(南),移动公司总部315,易县教育局630KVA-3号,易县天泰房地产开发有限公司变压器,团结路2#,易县明军圣达房地产开发有限公司（领尚城）B-2000KVA,泰元街直供2#,畜牧局直供,龙烁供热80kva-一中宿舍楼,东环路6#,鸿华小区1配电变压器,团结路3#,安各庄水库家属院,沃美超市变压器,易县明军圣达房地产开发有限公司（领尚城）A-2000KVA,石庄村董华变压器,东环路3#,易县龙烁供热有限责任公司变压器,电视台,长安路蔡海连80,易县教育局-630KVA-2号","powerOffReason":"【停电原因】由于主干００１号杆线夹断裂导致１１０ＫＶ易县站泰元街５１５线路全线停电【变更送电】因抢修进度加快原因，送电时间由１３：００变更为０９：３０【发布渠道】通过９５５９８发布","powerOffId":"2020050513000182"},{"poweroffId":2020050513000167,"sgpoweroffId":null,"subsName":"","lineName":"10kV515农场线","pubTranName":"屯里农排18台区,一队综合1台区,屯里农排3台区【纯农排变】,屯里农排4台区【纯农排变】,屯里综合7台区,后市农排2台区【纯农排变】,屯里农排15台区【纯农排变】,二队农排2台区【纯农排变】,三队综合1台区,屯里农排10台区【纯农排变】,屯里综合8台区,屯里综合2台区,二队农排1台区【纯农排变】,屯里农排17台区【纯农排变】,屯里综合4台区,屯里综合3台区,南庄农排1台区【纯农排变】,屯里农排2台区【纯农排变】,三队农排3台区【纯农排变】,屯里综合6台区,二队农排3台区【纯农排变】,五队农排1台区【纯农排变】,二队综合1台区,屯里综合5台区,屯里农排6台区【纯农排变】,屯里农排16台区【纯农排变】,二队农排4台区【纯农排变】,屯里农排5台区【纯农排变】,三队农排2台区【纯农排变】,屯里综合1台区,南庄农排8台区【纯农排变】,","scope":"【影响街道/乡镇】南庄镇【高危重要客户】无【影响客户】屯里村、农场（一队、二队、三队）、前市、南庄村、南庄胶厂","startTime":"2020-05-05 07:51:32","stopDate":"2020-05-05 12:00:00","orgNo":"1340616","typeCode":"电网故障停限电","poweroffArea":"【全线路停电】停３５ＫＶ洪善堡变电站１０ＫＶ农场５１５线路全线，三队农排3台区【纯农排变】,南庄农排2台区【纯农排变】,屯里农排8台区【纯农排变】,五队农排1台区【纯农排变】,屯里农排13台区【纯农排变】,屯里农排9台区【纯农排变】,农场三队2,南庄农排1台区【纯农排变】,五坊农排1台区【纯农排变】,前市农排3台区【纯农排变】,屯里农排4台区【纯农排变】,五队农排2台区【纯农排变】,屯里农排16台区【纯农排变】,一队农排1台区【纯农排变】,二队农排2台区【纯农排变】,一队农排3台区【纯农排变】,屯里农排7台区【纯农排变】,屯里综合2台区,蠡县张七幸贤绳带,屯里农排15台区【纯农排变】,屯里综合3台区,后市农排9台区【纯农排变】,屯里农排10台区【纯农排变】,一队农排2台区【纯农排变】,屯里农排17台区【纯农排变】,一队农排4台区【纯农排变】,屯里农排6台区【纯农排变】,三队综合1台区,屯里综合8台区,屯里综合6台区,三队农排1台区【纯农排变】,屯里农排5台区【纯农排变】,前市农排7台区【纯农排变】,屯里农排1台区【纯农排变】,一队综合1台区,南庄农排7台区【纯农排变】,五坊农排8台区【纯农排变】,屯里综合1台区,二队农排3台区【纯农排变】,屯里农排12台区【纯农排变】,三队农排2台区【纯农排变】,屯里综合5台区,屯里综合4台区,屯里综合7台区,五坊村东,屯里农排14台区【纯农排变】,南庄树苗厂,农场五队,屯里农排11台区【纯农排变】,南庄农排8台区【纯农排变】,后市农排2台区【纯农排变】,农砖厂小,二队综合1台区,五坊东二,五坊农四,屯里农排2台区【纯农排变】,屯里农排3台区【纯农排变】,农砖厂大,二队农排1台区【纯农排变】,屯里农排18台区,二队农排4台区【纯农排变】","poweroffReason":"【停电原因】由于站内开关掉闸导致３５ＫＶ洪善堡变电站１０ＫＶ农场５１５线路全线停电【变更送电】因抢修进度加快原因，送电时间由１３:００变更为１２:００【发布渠道】通过９５５９８发布","powerTime":"2020-05-05 11:22:35","powerComm":"已送电","subsNo":"","lineNo":"","tgNo":"","tgName":null,"infoStatus":"1","orgName":"国网蠡县供电公司","typeName":null,"infoStatusName":null,"dateDay":null,"orgNos":null,"nowTime":null,"countyName":null,"streetName":null,"villageName":null,"roadName":null,"communityName":null,"tranName":null,"sdLineName":null,"cityCode":"1340616","cityName":"国网蠡县供电公司","provinceCode":null,"stopTime":"2020-05-05 12:00:00","powerType":"全部","powerOffArea":"【全线路停电】停３５ＫＶ洪善堡变电站１０ＫＶ农场５１５线路全线，三队农排3台区【纯农排变】,南庄农排2台区【纯农排变】,屯里农排8台区【纯农排变】,五队农排1台区【纯农排变】,屯里农排13台区【纯农排变】,屯里农排9台区【纯农排变】,农场三队2,南庄农排1台区【纯农排变】,五坊农排1台区【纯农排变】,前市农排3台区【纯农排变】,屯里农排4台区【纯农排变】,五队农排2台区【纯农排变】,屯里农排16台区【纯农排变】,一队农排1台区【纯农排变】,二队农排2台区【纯农排变】,一队农排3台区【纯农排变】,屯里农排7台区【纯农排变】,屯里综合2台区,蠡县张七幸贤绳带,屯里农排15台区【纯农排变】,屯里综合3台区,后市农排9台区【纯农排变】,屯里农排10台区【纯农排变】,一队农排2台区【纯农排变】,屯里农排17台区【纯农排变】,一队农排4台区【纯农排变】,屯里农排6台区【纯农排变】,三队综合1台区,屯里综合8台区,屯里综合6台区,三队农排1台区【纯农排变】,屯里农排5台区【纯农排变】,前市农排7台区【纯农排变】,屯里农排1台区【纯农排变】,一队综合1台区,南庄农排7台区【纯农排变】,五坊农排8台区【纯农排变】,屯里综合1台区,二队农排3台区【纯农排变】,屯里农排12台区【纯农排变】,三队农排2台区【纯农排变】,屯里综合5台区,屯里综合4台区,屯里综合7台区,五坊村东,屯里农排14台区【纯农排变】,南庄树苗厂,农场五队,屯里农排11台区【纯农排变】,南庄农排8台区【纯农排变】,后市农排2台区【纯农排变】,农砖厂小,二队综合1台区,五坊东二,五坊农四,屯里农排2台区【纯农排变】,屯里农排3台区【纯农排变】,农砖厂大,二队农排1台区【纯农排变】,屯里农排18台区,二队农排4台区【纯农排变】","powerOffReason":"【停电原因】由于站内开关掉闸导致３５ＫＶ洪善堡变电站１０ＫＶ农场５１５线路全线停电【变更送电】因抢修进度加快原因，送电时间由１３:００变更为１２:００【发布渠道】通过９５５９８发布","powerOffId":"2020050513000167"},{"poweroffId":2020050513000163,"sgpoweroffId":null,"subsName":"","lineName":"10kV513七器线","pubTranName":"七器综合5台区,七器农排1台区【纯农排变】,七器综合2台区,七器农排7台区【纯农排变】,七器综合4台区,七器综合7台区,七器农排10台区【纯农排变】,七器综合1台区,七器综合3台区,五坊农排8台区513【纯农排变】,七器农排11台区【纯农排变】,七器综合8台区,七器综合6台区,","scope":"【影响街道/乡镇】南庄镇 【高危重要客户】无 【影响客户】七器村","startTime":"2020-05-05 07:48:48","stopDate":"2020-05-05 12:00:00","orgNo":"1340616","typeCode":"电网故障停限电","poweroffArea":"【全线路停电】停３５ＫＶ洪善堡变电站１０ＫＶ七器５１３线路全线，七器综合7台区,七器综合1台区,七器南一,七器村北,七器南二,七器农排4台区【纯农排变】,七器村北路边,七器农排1台区【纯农排变】,七器农排3台区【纯农排变】,七器综合6台区,七器第一面粉厂,七器综合8台区,七器农排9台区【纯农排变】,七器村南,七器综合3台区,七器东一,七器农排2台区【纯农排变】,七器综合5台区,七器农排11台区【纯农排变】,七器综合2台区,七器农排5台区【纯农排变】,七器农排10台区【纯农排变】,七器综合4台区,七器农排7台区【纯农排变】,五坊农排8台区513【纯农排变】,七器农排6台区【纯农排变】,七器农排8台区【纯农排变】","poweroffReason":"【停电原因】由于站内开关掉闸导致３５ＫＶ洪善堡变电站１０ＫＶ七器５１３线路全线停电【变更送电】因抢修进度加快原因，送电时间由１３:００变更为１２:００【发布渠道】通过９５５９８发布","powerTime":"2020-05-05 11:22:57","powerComm":"已送电","subsNo":"","lineNo":"","tgNo":"","tgName":null,"infoStatus":"1","orgName":"国网蠡县供电公司","typeName":null,"infoStatusName":null,"dateDay":null,"orgNos":null,"nowTime":null,"countyName":null,"streetName":null,"villageName":null,"roadName":null,"communityName":null,"tranName":null,"sdLineName":null,"cityCode":"1340616","cityName":"国网蠡县供电公司","provinceCode":null,"stopTime":"2020-05-05 12:00:00","powerType":"全部","powerOffArea":"【全线路停电】停３５ＫＶ洪善堡变电站１０ＫＶ七器５１３线路全线，七器综合7台区,七器综合1台区,七器南一,七器村北,七器南二,七器农排4台区【纯农排变】,七器村北路边,七器农排1台区【纯农排变】,七器农排3台区【纯农排变】,七器综合6台区,七器第一面粉厂,七器综合8台区,七器农排9台区【纯农排变】,七器村南,七器综合3台区,七器东一,七器农排2台区【纯农排变】,七器综合5台区,七器农排11台区【纯农排变】,七器综合2台区,七器农排5台区【纯农排变】,七器农排10台区【纯农排变】,七器综合4台区,七器农排7台区【纯农排变】,五坊农排8台区513【纯农排变】,七器农排6台区【纯农排变】,七器农排8台区【纯农排变】","powerOffReason":"【停电原因】由于站内开关掉闸导致３５ＫＶ洪善堡变电站１０ＫＶ七器５１３线路全线停电【变更送电】因抢修进度加快原因，送电时间由１３:００变更为１２:００【发布渠道】通过９５５９８发布","powerOffId":"2020050513000163"},{"poweroffId":2020050513000110,"sgpoweroffId":null,"subsName":"","lineName":"崔庄线554","pubTranName":"许庄南变压器,","scope":"【影响街道/乡镇】辛立庄镇 【高危重要客户】无 【影响客户】许庄村","startTime":"2020-05-05 05:28:12","stopDate":"2020-05-05 10:30:00","orgNo":"1340612","typeCode":"电网故障停限电","poweroffArea":"【单台区停电】停许庄南变压器","poweroffReason":"【停电原因】由于８０号杆有铁丝导致１１０ＫＶ陈八庄变电站１０ＫＶ崔庄５５４线路许庄南公变台区停电 【变更送电】无 【发布渠道】通过９５５９８发布","powerTime":"2020-05-05 10:05:59","powerComm":"已送电","subsNo":"","lineNo":"","tgNo":"","tgName":null,"infoStatus":"1","orgName":"国网高碑店市供电公司","typeName":null,"infoStatusName":null,"dateDay":null,"orgNos":null,"nowTime":null,"countyName":null,"streetName":null,"villageName":null,"roadName":null,"communityName":null,"tranName":null,"sdLineName":null,"cityCode":"1340612","cityName":"国网高碑店市供电公司","provinceCode":null,"stopTime":"2020-05-05 10:30:00","powerType":"全部","powerOffArea":"【单台区停电】停许庄南变压器","powerOffReason":"【停电原因】由于８０号杆有铁丝导致１１０ＫＶ陈八庄变电站１０ＫＶ崔庄５５４线路许庄南公变台区停电 【变更送电】无 【发布渠道】通过９５５９８发布","powerOffId":"2020050513000110"},{"poweroffId":2020050421000082,"sgpoweroffId":null,"subsName":"","lineName":"10kV阮庄站512线路","pubTranName":"0356465616-保定市祥云金属制品有限公司-12#专变,0356465616-保定市祥云金属制品有限公司-9#专变,0356465616-保定市祥云金属制品有限公司-10#专变,0356465616-保定市祥云金属制品有限公司-7#专变,0356465616-保定市祥云金属制品有限公司-8#专变,0356465616-保定市祥云金属制品有限公司-5#专变,0356465616-保定市祥云金属制品有限公司-14#专变,0356465616-保定市祥云金属制品有限公司-6#专变,0356465616-保定市祥云金属制品有限公司-3#专变,0356465616-保定市祥云金属制品有限公司-2#专变,0356465616-保定市祥云金属制品有限公司-13#专变,0356465616-保定市祥云金属制品有限公司-4#专变,0356465616-保定市祥云金属制品有限公司-1#专变,0356183147-保定凯莱先锋硅钙砖建筑新材料有限公司-1-配电室-变压器-2,0356183147-保定凯莱先锋硅钙砖建筑新材料有限公司-1-配电室-变压器-1,0356465616-保定市祥云金属制品有限公司-11#专变,","scope":"【影响街道/乡镇】莲池区阮庄路、钢厂路 【高危重要客户】无 【影响客户】朱庄、保定森威机械制造有限公司、保定源锋煅压有限公司","startTime":"2020-05-04 16:50:00","stopDate":"2020-05-04 21:00:00","orgNo":"13406","typeCode":"电网故障停限电","poweroffArea":"【全线路停电】停0356465616-保定市祥云金属制品有限公司-4#专变,0356465616-保定市祥云金属制品有限公司-1#专变,0356183147-保定凯莱先锋硅钙砖建筑新材料有限公司-1-配电室-变压器-2,0356183147-保定凯莱先锋硅钙砖建筑新材料有限公司-1-配电室-变压器-1,0356465616-保定市祥云金属制品有限公司-11#专变,0356465616-保定市祥云金属制品有限公司-12#专变,0356465616-保定市祥云金属制品有限公司-9#专变,0356465616-保定市祥云金属制品有限公司-10#专变,0356465616-保定市祥云金属制品有限公司-7#专变,0356465616-保定市祥云金属制品有限公司-8#专变,0356465616-保定市祥云金属制品有限公司-5#专变,0356465616-保定市祥云金属制品有限公司-14#专变,0356465616-保定市祥云金属制品有限公司-6#专变,0356465616-保定市祥云金属制品有限公司-3#专变,0356465616-保定市祥云金属制品有限公司-2#专变,0356465616-保定市祥云金属制品有限公司-13#专变","poweroffReason":"【停电原因】由于分支开关短路导致１０ＫＶ阮庄变电站５１２线路全线停电【变更送电】无【发布渠道】通过９５５９８发布","powerTime":"2020-05-04 20:06:35","powerComm":"已送电","subsNo":"","lineNo":"","tgNo":"","tgName":null,"infoStatus":"1","orgName":"保定供电公司","typeName":null,"infoStatusName":null,"dateDay":null,"orgNos":null,"nowTime":null,"countyName":null,"streetName":null,"villageName":null,"roadName":null,"communityName":null,"tranName":null,"sdLineName":null,"cityCode":"13406","cityName":"保定供电公司","provinceCode":null,"stopTime":"2020-05-04 21:00:00","powerType":"全部","powerOffArea":"【全线路停电】停0356465616-保定市祥云金属制品有限公司-4#专变,0356465616-保定市祥云金属制品有限公司-1#专变,0356183147-保定凯莱先锋硅钙砖建筑新材料有限公司-1-配电室-变压器-2,0356183147-保定凯莱先锋硅钙砖建筑新材料有限公司-1-配电室-变压器-1,0356465616-保定市祥云金属制品有限公司-11#专变,0356465616-保定市祥云金属制品有限公司-12#专变,0356465616-保定市祥云金属制品有限公司-9#专变,0356465616-保定市祥云金属制品有限公司-10#专变,0356465616-保定市祥云金属制品有限公司-7#专变,0356465616-保定市祥云金属制品有限公司-8#专变,0356465616-保定市祥云金属制品有限公司-5#专变,0356465616-保定市祥云金属制品有限公司-14#专变,0356465616-保定市祥云金属制品有限公司-6#专变,0356465616-保定市祥云金属制品有限公司-3#专变,0356465616-保定市祥云金属制品有限公司-2#专变,0356465616-保定市祥云金属制品有限公司-13#专变","powerOffReason":"【停电原因】由于分支开关短路导致１０ＫＶ阮庄变电站５１２线路全线停电【变更送电】无【发布渠道】通过９５５９８发布","powerOffId":"2020050421000082"},{"poweroffId":2020050421000037,"sgpoweroffId":null,"subsName":"","lineName":"10kV大阳站538线路","pubTranName":"C426柱上变压器,","scope":"【影响街道/乡镇】莲池区、焦庄乡 【高危重要客户】无 【影响客户】 焦庄","startTime":"2020-05-04 10:00:00","stopDate":"2020-05-04 14:00:00","orgNo":"13406","typeCode":"电网故障停限电","poweroffArea":"【单台区停电】停 C426柱上变压器","poweroffReason":"【停电原因】由于低压刀闸烧导致１０ＫＶ大阳变电站５３８线路Ｃ４２６公变台区停电【变更送电】因工作正在处理中，送电时间由１２:００变更为１４:００【发布渠道】通过９５５９８发布","powerTime":"2020-05-04 13:32:28","powerComm":"已送电","subsNo":"","lineNo":"","tgNo":"","tgName":null,"infoStatus":"1","orgName":"保定供电公司","typeName":null,"infoStatusName":null,"dateDay":null,"orgNos":null,"nowTime":null,"countyName":null,"streetName":null,"villageName":null,"roadName":null,"communityName":null,"tranName":null,"sdLineName":null,"cityCode":"13406","cityName":"保定供电公司","provinceCode":null,"stopTime":"2020-05-04 14:00:00","powerType":"全部","powerOffArea":"【单台区停电】停 C426柱上变压器","powerOffReason":"【停电原因】由于低压刀闸烧导致１０ＫＶ大阳变电站５３８线路Ｃ４２６公变台区停电【变更送电】因工作正在处理中，送电时间由１２:００变更为１４:００【发布渠道】通过９５５９８发布","powerOffId":"2020050421000037"},{"poweroffId":2020050413000645,"sgpoweroffId":null,"subsName":"","lineName":"10kV515彭家庄线","pubTranName":"彭家庄公用照明2台区一,北城村公用照明1台区,楼底公用照明2台区,彭家庄公用照明4台区,楼底公用照明5台区,彭家庄公用照明3台区,楼底公用照明12台区,楼底公用照明3台区,北城村公用农业7台区【纯农排变】,彭家庄公用照明1台区,南城村公用照明1台区,楼底公用照明7台区,北城村公用照明2台区,韩家庄公用照明4台区1,楼底公用照明8台区,寺底公用照明6台区,彭家庄公用照明7台区,楼底公用照明4台区,北城村公用照明5台区,北城村公用照明4台区,北城村公用农业1台区【纯农排变】,韩家庄公用照明2台区一,韩家庄公用照明1台区一,楼底公用照明6台区,北城村公用照明3台区,韩家庄公用农业1台区一【纯农排变】,彭家庄公用照明8台区,南城村公用农业3台区【纯农排变】,韩家庄公用照明3台区一,南城村公用照明2台区,彭家庄公用照明5台区,楼底公用照明9台区,寺底公用照明7台区,北城村公用农业3台区【纯农排变】,彭家庄公用照明6台区,楼底公用照明10台区,楼底公用照明1台区,楼底公用照明11台区,","scope":"【影响街道/乡镇】李亲顾镇【影响客户】彭家庄、韩家庄、楼底、南城村、北城村、寺底","startTime":"2020-05-04 19:50:01","stopDate":"2020-05-04 22:30:00","orgNo":"1340610","typeCode":"电网故障停限电","poweroffArea":"【全线路停电】停３５ＫＶ丁村变电站１０ＫＶ５１５彭家庄线路全线，楼底公用照明5台区,彭家庄公用照明2台区一,韩家庄公用农业5台区一【纯农排变】,北城村公用照明1台区,彭家庄公用农业8台区【纯农排变】,楼底公用照明2台区,彭家庄公用照明4台区,楼底公用农业1台区【纯农排变】,彭家庄公用照明3台区,彭家庄公用照明1台区,楼底公用照明7台区,北城村公用照明2台区,楼底公用农业4台区【纯农排变】,楼底公用照明8台区,寺底公用照明6台区,定州市鸿运服装加工厂,彭家庄公用农业11台区【纯农排变】,楼底公用照明4台区,北城村公用照明5台区,北城村公用照明4台区,南城村公用农业1台区【纯农排变】,定州市娄底面粉厂,楼底公用农业5台区【纯农排变】,楼底公用农业2台区【纯农排变】,韩家庄公用照明1台区一,0654273182-河北瑞洪源纺织品有限公司-专变-183727435-河北瑞洪源纺织品有限公司变压器,北城村公用照明3台区,寺底公用农业10台区【纯农排变】,定州市娄底保旗面厂,彭家庄公用农业5台区【纯农排变】,楼底公用农业8台区【纯农排变】,楼底公用照明12台区,楼底公用照明3台区,寺底公用农业12台区【纯农排变】,北城村公用农业7台区【纯农排变】,市庄中学,彭家庄公用农业6台区【纯农排变】,南城村公用照明1台区,定州市高志宾淀粉厂,彭家庄公用农业4台区【纯农排变】,韩家庄公用照明4台区1,韩家庄公用农业4台区一【纯农排变】,彭家庄公用照明7台区,楼底公用农业17台区【纯农排变】,北城村公用农业1台区【纯农排变】,韩家庄公用照明2台区一,北城村公用农业5台区【纯农排变】,楼底公用照明6台区,韩家庄公用农业1台区一【纯农排变】,彭家庄公用照明8台区,韩家庄公用农业2台区一【纯农排变】,楼底公用农业12台区【纯农排变】,南城村公用农业3台区【纯农排变】,北城村公用农业4台区【纯农排变】,定州市百福面粉厂变压器,南城村公用农业2台区【纯农排变】,楼底公用农业16台区【纯农排变】,南城村公用照明2台区,韩家庄公用农业3台区一【纯农排变】,彭家庄公用照明5台区,彭家庄公用农业3台区【纯农排变】,楼底公用照明9台区,楼底公用农业13台区【纯农排变】,彭家庄公用农业12台区【纯农排变】,北城村公用农业3台区【纯农排变】,定州市南城面粉厂,楼底公用农业15台区【纯农排变】,彭家庄公用农业7台区【纯农排变】,寺底公用农业13台区【纯农排变】,彭家庄公用照明6台区,北城村公用农业6台区【纯农排变】,楼底公用农业3台区【纯农排变】,彭家庄公用农业1台区【纯农排变】,北城村公用农业2台区【纯农排变】,楼底公用照明10台区,楼底公用照明1台区,楼底公用照明11台区,彭家庄公用农业10台区【纯农排变】,楼底公用农业9台区【纯农排变】,彭家庄公用农业2台区【纯农排变】,楼底公用农业10台区【纯农排变】,楼底公用农业11台区【纯农排变】,楼底公用农业14台区【纯农排变】,楼底公用农业7台区【纯农排变】,彭家庄公用农业9台区【纯农排变】,韩家庄公用照明3台区一,寺底公用农业11台区【纯农排变】,楼底公用农业6台区【纯农排变】,寺底公用照明7台区","poweroffReason":"【停电原因】由于线路开关掉闸导致３５ＫＶ丁村变电站１０ＫＶ５１５彭家庄线路全线停电 【变更送电】因抢修进度加快原因，送电时间由０５日０８：３０变更为０４日２２：３０ 【发布渠道】９５５９８","powerTime":"2020-05-04 21:57:08","powerComm":"已送电","subsNo":"","lineNo":"","tgNo":"","tgName":null,"infoStatus":"1","orgName":"国网定州市供电公司","typeName":null,"infoStatusName":null,"dateDay":null,"orgNos":null,"nowTime":null,"countyName":null,"streetName":null,"villageName":null,"roadName":null,"communityName":null,"tranName":null,"sdLineName":null,"cityCode":"1340610","cityName":"国网定州市供电公司","provinceCode":null,"stopTime":"2020-05-04 22:30:00","powerType":"全部","powerOffArea":"【全线路停电】停３５ＫＶ丁村变电站１０ＫＶ５１５彭家庄线路全线，楼底公用照明5台区,彭家庄公用照明2台区一,韩家庄公用农业5台区一【纯农排变】,北城村公用照明1台区,彭家庄公用农业8台区【纯农排变】,楼底公用照明2台区,彭家庄公用照明4台区,楼底公用农业1台区【纯农排变】,彭家庄公用照明3台区,彭家庄公用照明1台区,楼底公用照明7台区,北城村公用照明2台区,楼底公用农业4台区【纯农排变】,楼底公用照明8台区,寺底公用照明6台区,定州市鸿运服装加工厂,彭家庄公用农业11台区【纯农排变】,楼底公用照明4台区,北城村公用照明5台区,北城村公用照明4台区,南城村公用农业1台区【纯农排变】,定州市娄底面粉厂,楼底公用农业5台区【纯农排变】,楼底公用农业2台区【纯农排变】,韩家庄公用照明1台区一,0654273182-河北瑞洪源纺织品有限公司-专变-183727435-河北瑞洪源纺织品有限公司变压器,北城村公用照明3台区,寺底公用农业10台区【纯农排变】,定州市娄底保旗面厂,彭家庄公用农业5台区【纯农排变】,楼底公用农业8台区【纯农排变】,楼底公用照明12台区,楼底公用照明3台区,寺底公用农业12台区【纯农排变】,北城村公用农业7台区【纯农排变】,市庄中学,彭家庄公用农业6台区【纯农排变】,南城村公用照明1台区,定州市高志宾淀粉厂,彭家庄公用农业4台区【纯农排变】,韩家庄公用照明4台区1,韩家庄公用农业4台区一【纯农排变】,彭家庄公用照明7台区,楼底公用农业17台区【纯农排变】,北城村公用农业1台区【纯农排变】,韩家庄公用照明2台区一,北城村公用农业5台区【纯农排变】,楼底公用照明6台区,韩家庄公用农业1台区一【纯农排变】,彭家庄公用照明8台区,韩家庄公用农业2台区一【纯农排变】,楼底公用农业12台区【纯农排变】,南城村公用农业3台区【纯农排变】,北城村公用农业4台区【纯农排变】,定州市百福面粉厂变压器,南城村公用农业2台区【纯农排变】,楼底公用农业16台区【纯农排变】,南城村公用照明2台区,韩家庄公用农业3台区一【纯农排变】,彭家庄公用照明5台区,彭家庄公用农业3台区【纯农排变】,楼底公用照明9台区,楼底公用农业13台区【纯农排变】,彭家庄公用农业12台区【纯农排变】,北城村公用农业3台区【纯农排变】,定州市南城面粉厂,楼底公用农业15台区【纯农排变】,彭家庄公用农业7台区【纯农排变】,寺底公用农业13台区【纯农排变】,彭家庄公用照明6台区,北城村公用农业6台区【纯农排变】,楼底公用农业3台区【纯农排变】,彭家庄公用农业1台区【纯农排变】,北城村公用农业2台区【纯农排变】,楼底公用照明10台区,楼底公用照明1台区,楼底公用照明11台区,彭家庄公用农业10台区【纯农排变】,楼底公用农业9台区【纯农排变】,彭家庄公用农业2台区【纯农排变】,楼底公用农业10台区【纯农排变】,楼底公用农业11台区【纯农排变】,楼底公用农业14台区【纯农排变】,楼底公用农业7台区【纯农排变】,彭家庄公用农业9台区【纯农排变】,韩家庄公用照明3台区一,寺底公用农业11台区【纯农排变】,楼底公用农业6台区【纯农排变】,寺底公用照明7台区","powerOffReason":"【停电原因】由于线路开关掉闸导致３５ＫＶ丁村变电站１０ＫＶ５１５彭家庄线路全线停电 【变更送电】因抢修进度加快原因，送电时间由０５日０８：３０变更为０４日２２：３０ 【发布渠道】９５５９８","powerOffId":"2020050413000645"},{"poweroffId":2020050413000632,"sgpoweroffId":null,"subsName":"","lineName":"10kV512子位线","pubTranName":"子位一村公用照明9台区,子位三村公用照明5台区,客户投资_西丁庄公用照明1台区,子位二村公用照明3台区,子位二村公用照明15台区,子位一村公用照明8台区,子位三村公用照明4台区,子位三村公用照明1台区,子位一村小庄公用照明2台区,寨里公用照明2台区,寨里公用照明4台区,寨里公用照明9台区,子位一村公用照明6台区,子位一村小庄公用照明1台区,子位三村公用照明9台区,子位三村公用照明6台区,寨里公用照明3台区,子位三村公用照明10台区,子位二村公用照明12台区,子位二村公用照明14台区,寨里公用照明6台区,子位二村公用照明11台区,子位二村公用照明2台区,子位一村公用照明3台区,子位二村公用照明4台区,子位三村公用照明7台区,寨里公用照明8台区,子位一村公用照明2台区,子位三村公用照明2台区,子位二村公用照明13台区,子位一村公用照明1台区,寨里公用照明10台区,寨里公用照明5台区,子位二村公用照明9台区,子位一村公用照明4台区,西丁庄公用照明2台区,寨里公用照明7台区,子位三村公用照明3台区,寨里公用照明1台区,子位二村公用照明6台区,子位二村公用照明10台区,子位一村公用照明5台区,子位二村公用照明1台区,子位二村公用照明7台区,子位一村公用照明7台区,西丁庄公用照明3台区,子位二村公用照明5台区,子位二村公用照明8台区,","scope":"【影响街道/乡镇】子位镇【影响客户】西丁庄村、子位一村、子位二村、子位三村、寨里村","startTime":"2020-05-04 19:43:44","stopDate":"2020-05-04 22:15:00","orgNo":"1340610","typeCode":"电网故障停限电","poweroffArea":"【全线路停电】停３５ＫＶ丁村变电站１０ＫＶ５１２子位线路全线，子位三村公用照明5台区,客户投资_西丁庄公用照明1台区,子位三村公用照明6台区,子位二村公用照明10台区,子位二村公用照明12台区,寨里公用照明7台区,西丁庄公用照明2台区,子位三村公用照明3台区,子位二村公用照明13台区,子位二村公用照明2台区,子位二村公用照明1台区,子位一村公用照明3台区,子位二村公用照明4台区,子位二村公用照明3台区,子位三村公用照明4台区,子位一村公用照明1台区,寨里公用照明10台区,子位一村公用照明8台区,寨里公用照明2台区,寨里公用照明9台区,子位二村公用照明14台区,子位二村公用照明16台区,寨里公用照明6台区,子位一村公用照明9台区,子位一村小庄公用照明2台区,子位三村公用照明1台区,子位一村公用照明6台区,寨里公用照明1台区,子位二村公用照明6台区,寨里公用照明5台区,子位二村公用照明9台区,子位三村公用照明7台区,子位一村小庄公用照明1台区,子位三村公用照明9台区,寨里公用照明8台区,子位三村公用照明2台区,寨里公用照明3台区,子位三村公用照明11台区0,子位一村公用照明4台区,子位二村公用照明15台区,寨里公用照明4台区,子位三村公用照明10台区,子位二村公用照明11台区,子位一村公用照明2台区,子位二村公用照明7台区,子位一村公用照明5台区,子位一村公用照明7台区,西丁庄公用照明3台区,子位二村公用照明5台区,子位二村公用照明8台区","poweroffReason":"【停电原因】由于线路开关掉闸导致３５ＫＶ丁村变电站１０ＫＶ５１２子位线路全线停电 【变更送电】因抢修进度加快原因，送电时间由２３：５９变更为２２：１５ 【发布渠道】９５５９８","powerTime":"2020-05-04 21:55:05","powerComm":"已送电","subsNo":"","lineNo":"","tgNo":"","tgName":null,"infoStatus":"1","orgName":"国网定州市供电公司","typeName":null,"infoStatusName":null,"dateDay":null,"orgNos":null,"nowTime":null,"countyName":null,"streetName":null,"villageName":null,"roadName":null,"communityName":null,"tranName":null,"sdLineName":null,"cityCode":"1340610","cityName":"国网定州市供电公司","provinceCode":null,"stopTime":"2020-05-04 22:15:00","powerType":"全部","powerOffArea":"【全线路停电】停３５ＫＶ丁村变电站１０ＫＶ５１２子位线路全线，子位三村公用照明5台区,客户投资_西丁庄公用照明1台区,子位三村公用照明6台区,子位二村公用照明10台区,子位二村公用照明12台区,寨里公用照明7台区,西丁庄公用照明2台区,子位三村公用照明3台区,子位二村公用照明13台区,子位二村公用照明2台区,子位二村公用照明1台区,子位一村公用照明3台区,子位二村公用照明4台区,子位二村公用照明3台区,子位三村公用照明4台区,子位一村公用照明1台区,寨里公用照明10台区,子位一村公用照明8台区,寨里公用照明2台区,寨里公用照明9台区,子位二村公用照明14台区,子位二村公用照明16台区,寨里公用照明6台区,子位一村公用照明9台区,子位一村小庄公用照明2台区,子位三村公用照明1台区,子位一村公用照明6台区,寨里公用照明1台区,子位二村公用照明6台区,寨里公用照明5台区,子位二村公用照明9台区,子位三村公用照明7台区,子位一村小庄公用照明1台区,子位三村公用照明9台区,寨里公用照明8台区,子位三村公用照明2台区,寨里公用照明3台区,子位三村公用照明11台区0,子位一村公用照明4台区,子位二村公用照明15台区,寨里公用照明4台区,子位三村公用照明10台区,子位二村公用照明11台区,子位一村公用照明2台区,子位二村公用照明7台区,子位一村公用照明5台区,子位一村公用照明7台区,西丁庄公用照明3台区,子位二村公用照明5台区,子位二村公用照明8台区","powerOffReason":"【停电原因】由于线路开关掉闸导致３５ＫＶ丁村变电站１０ＫＶ５１２子位线路全线停电 【变更送电】因抢修进度加快原因，送电时间由２３：５９变更为２２：１５ 【发布渠道】９５５９８","powerOffId":"2020050413000632"},{"poweroffId":2020050413000626,"sgpoweroffId":null,"subsName":"","lineName":"10kV513内堡线","pubTranName":"东内堡公用照明3台区,北内堡村公用照明7台区,七级公用照明7台区,北内堡村公用照明4台区,北内堡公用农业21台区【纯农排变】,北内堡村公用照明8台区,七级公用照明8台区,七级公用照明6台区,东内堡公用照明11台区,东内堡公用照明14台区,东内堡公用照明2台区,东内堡公用照明10台区,东内堡公用照明1台区,七级公用照明1台区,东内堡公用照明5台区,北内堡村公用照明1台区,七级公用照明2台区,北内堡村公用照明10台区,七级公用照明9台区,东内堡公用照明12台区,七级公用照明4台区,客户投资_北内堡村公用照明2台区,北内堡村公用照明9台区,北内堡公用农业22台区【纯农排变】,东内堡公用照明4台区,东内堡公用照明8台区,东内堡小庄公用照明1台区,北内堡村公用照明5台区,北内堡公用农业23台区【纯农排变】,北内堡村公用照明3台区,北内堡公用农业14台区【纯农排变】,东内堡公用照明13台区,东内堡公用农业2台区【纯农排变】,东内堡公用农业36台区【纯农排变】,东内堡公用照明6台区,北内堡村公用照明6台区,七级公用照明5台区,七级公用照明3台区,东内堡公用照明9台区,","scope":"【影响街道/乡镇】子位镇【影响客户】北内堡、东内堡、七级、西丁庄","startTime":"2020-05-04 19:37:26","stopDate":"2020-05-04 22:15:00","orgNo":"1340610","typeCode":"电网故障停限电","poweroffArea":"【全线路停电】停３５ＫＶ丁村变电站１０ＫＶ５１３内堡线路全线，东内堡公用农业28台区【纯农排变】,东内堡公用照明13台区,东内堡公用农业1台区【纯农排变】,东内堡公用农业2台区【纯农排变】,北内堡公用农业12台区【纯农排变】,东内堡公用农业39台区【纯农排变】,东内堡公用农业36台区【纯农排变】,东内堡公用照明6台区,北内堡村公用照明6台区,定州市七级计生面粉厂,七级公用照明5台区,东内堡公用农业26台区【纯农排变】,东内堡公用农业5台区【纯农排变】,东内堡公用农业38台区【纯农排变】,东内堡公用农业22台区【纯农排变】,东内堡公用农业21台区【纯农排变】,七级公用照明3台区,七级公用照明1台区,东内堡公用农业34台区【纯农排变】,东内堡小庄公用照明1台区,北内堡村公用照明5台区,北内堡公用农业16台区【纯农排变】,北内堡公用农业23台区【纯农排变】,东内堡公用农业12台区【纯农排变】,七级公用农业18台区【纯农排变】,北内堡公用农业8台区【纯农排变】,七级公用农业12台区【纯农排变】,北内堡公用农业1台区【纯农排变】,七级公用农业19台区【纯农排变】,北内堡公用农业18台区【纯农排变】,北内堡公用农业17台区【纯农排变】,北内堡公用农业9台区【纯农排变】,北内堡公用农业7台区【纯农排变】,东内堡公用农业17台区【纯农排变】,定州市东内堡振尧面粉厂,七级公用农业20台区【纯农排变】,东内堡公用农业6台区【纯农排变】,东内堡公用农业3台区【纯农排变】,东内堡公用农业23台区【纯农排变】,东内堡公用照明4台区,东内堡公用照明11台区,东内堡公用照明3台区,七级公用农业21台区【纯农排变】,北内堡村公用照明7台区,北内堡村公用照明11台区,东内堡公用农业31台区【纯农排变】,东内堡公用农业11台区【纯农排变】,七级公用农业14台区【纯农排变】,东内堡自来水厂（统管）,七级公用照明7台区,定州市七级栓成面粉厂,东内堡公用照明1台区,北内堡村公用照明4台区,七级公用农业17台区【纯农排变】,东内堡公用农业29台区【纯农排变】,北内堡公用农业21台区【纯农排变】,北内堡村公用照明8台区,七级公用照明8台区,七级公用照明6台区,东内堡公用农业7台区【纯农排变】,东内堡公用农业20台区【纯农排变】,东内堡公用照明9台区,东内堡公用照明14台区,东内堡公用照明2台区,东内堡公用农业35台区【纯农排变】,七级公用农业22台区【纯农排变】,东内堡公用照明10台区,北内堡公用农业2台区【纯农排变】,七级公用农业15台区【纯农排变】,北内堡公用农业20台区【纯农排变】,东内堡公用农业9台区【纯农排变】,北内堡村公用照明1台区,北内堡村公用照明10台区,北内堡粮站,七级公用照明9台区,东内堡公用照明12台区,东内堡公用农业10台区【纯农排变】,北内堡公用农业10台区【纯农排变】,七级公用照明4台区,东内堡公用农业18台区【纯农排变】,北内堡公用农业13台区【纯农排变】,客户投资_北内堡村公用照明2台区,东内堡公用农业19台区【纯农排变】,东内堡公用农业32台区【纯农排变】,七级公用农业16台区【纯农排变】,西丁庄公用农业1台区【纯农排变】,七级公用农业23台区【纯农排变】,东内堡公用农业14台区【纯农排变】,北内堡公用农业11台区【纯农排变】,东内堡公用农业24台区【纯农排变】,东内堡公用农业13台区【纯农排变】,北内堡公用农业15台区【纯农排变】,东内堡公用农业33台区【纯农排变】,东内堡公用农业30台区【纯农排变】,东内堡公用农业4台区【纯农排变】,北内堡","poweroffReason":"【停电原因】由于线路开关掉闸导致３５ＫＶ丁村变电站１０ＫＶ５１３内堡线路全线停电 【变更送电】因抢修进度加快原因，送电时间由２３：５９变更为２２：１５ 【发布渠道】９５５９８","powerTime":"2020-05-04 21:57:42","powerComm":"已送电","subsNo":"","lineNo":"","tgNo":"","tgName":null,"infoStatus":"1","orgName":"国网定州市供电公司","typeName":null,"infoStatusName":null,"dateDay":null,"orgNos":null,"nowTime":null,"countyName":null,"streetName":null,"villageName":null,"roadName":null,"communityName":null,"tranName":null,"sdLineName":null,"cityCode":"1340610","cityName":"国网定州市供电公司","provinceCode":null,"stopTime":"2020-05-04 22:15:00","powerType":"全部","powerOffArea":"【全线路停电】停３５ＫＶ丁村变电站１０ＫＶ５１３内堡线路全线，东内堡公用农业28台区【纯农排变】,东内堡公用照明13台区,东内堡公用农业1台区【纯农排变】,东内堡公用农业2台区【纯农排变】,北内堡公用农业12台区【纯农排变】,东内堡公用农业39台区【纯农排变】,东内堡公用农业36台区【纯农排变】,东内堡公用照明6台区,北内堡村公用照明6台区,定州市七级计生面粉厂,七级公用照明5台区,东内堡公用农业26台区【纯农排变】,东内堡公用农业5台区【纯农排变】,东内堡公用农业38台区【纯农排变】,东内堡公用农业22台区【纯农排变】,东内堡公用农业21台区【纯农排变】,七级公用照明3台区,七级公用照明1台区,东内堡公用农业34台区【纯农排变】,东内堡小庄公用照明1台区,北内堡村公用照明5台区,北内堡公用农业16台区【纯农排变】,北内堡公用农业23台区【纯农排变】,东内堡公用农业12台区【纯农排变】,七级公用农业18台区【纯农排变】,北内堡公用农业8台区【纯农排变】,七级公用农业12台区【纯农排变】,北内堡公用农业1台区【纯农排变】,七级公用农业19台区【纯农排变】,北内堡公用农业18台区【纯农排变】,北内堡公用农业17台区【纯农排变】,北内堡公用农业9台区【纯农排变】,北内堡公用农业7台区【纯农排变】,东内堡公用农业17台区【纯农排变】,定州市东内堡振尧面粉厂,七级公用农业20台区【纯农排变】,东内堡公用农业6台区【纯农排变】,东内堡公用农业3台区【纯农排变】,东内堡公用农业23台区【纯农排变】,东内堡公用照明4台区,东内堡公用照明11台区,东内堡公用照明3台区,七级公用农业21台区【纯农排变】,北内堡村公用照明7台区,北内堡村公用照明11台区,东内堡公用农业31台区【纯农排变】,东内堡公用农业11台区【纯农排变】,七级公用农业14台区【纯农排变】,东内堡自来水厂（统管）,七级公用照明7台区,定州市七级栓成面粉厂,东内堡公用照明1台区,北内堡村公用照明4台区,七级公用农业17台区【纯农排变】,东内堡公用农业29台区【纯农排变】,北内堡公用农业21台区【纯农排变】,北内堡村公用照明8台区,七级公用照明8台区,七级公用照明6台区,东内堡公用农业7台区【纯农排变】,东内堡公用农业20台区【纯农排变】,东内堡公用照明9台区,东内堡公用照明14台区,东内堡公用照明2台区,东内堡公用农业35台区【纯农排变】,七级公用农业22台区【纯农排变】,东内堡公用照明10台区,北内堡公用农业2台区【纯农排变】,七级公用农业15台区【纯农排变】,北内堡公用农业20台区【纯农排变】,东内堡公用农业9台区【纯农排变】,北内堡村公用照明1台区,北内堡村公用照明10台区,北内堡粮站,七级公用照明9台区,东内堡公用照明12台区,东内堡公用农业10台区【纯农排变】,北内堡公用农业10台区【纯农排变】,七级公用照明4台区,东内堡公用农业18台区【纯农排变】,北内堡公用农业13台区【纯农排变】,客户投资_北内堡村公用照明2台区,东内堡公用农业19台区【纯农排变】,东内堡公用农业32台区【纯农排变】,七级公用农业16台区【纯农排变】,西丁庄公用农业1台区【纯农排变】,七级公用农业23台区【纯农排变】,东内堡公用农业14台区【纯农排变】,北内堡公用农业11台区【纯农排变】,东内堡公用农业24台区【纯农排变】,东内堡公用农业13台区【纯农排变】,北内堡公用农业15台区【纯农排变】,东内堡公用农业33台区【纯农排变】,东内堡公用农业30台区【纯农排变】,东内堡公用农业4台区【纯农排变】,北内堡","powerOffReason":"【停电原因】由于线路开关掉闸导致３５ＫＶ丁村变电站１０ＫＶ５１３内堡线路全线停电 【变更送电】因抢修进度加快原因，送电时间由２３：５９变更为２２：１５ 【发布渠道】９５５９８","powerOffId":"2020050413000626"},{"poweroffId":2020050413000582,"sgpoweroffId":null,"subsName":"","lineName":"10kV北张各庄576线","pubTranName":"北张各庄综1变压器,北张各庄综合十八台区变压器,","scope":"【影响街道/乡镇】伍仁桥镇 【高危重要客户】无 【影响客户】北张各庄村","startTime":"2020-05-04 18:37:00","stopDate":"2020-05-04 20:00:00","orgNo":"1340606","typeCode":"电网故障停限电","poweroffArea":"【全线路停电】停北张各庄综合十八台区变压器,北张各庄综1变压器","poweroffReason":"【停电原因】由于站内开关跳闸导致１１０ＫＶ伍仁桥变电站１０ＫＶ北张各庄５７６线路全线停电 【变更送电】因抢修进度加快原因，送电时间由２２：００变更为２０：００ 【发布渠道】通过９５５９８发布","powerTime":"2020-05-04 19:57:10","powerComm":"已送电","subsNo":"","lineNo":"","tgNo":"","tgName":null,"infoStatus":"1","orgName":"国网安国市供电公司","typeName":null,"infoStatusName":null,"dateDay":null,"orgNos":null,"nowTime":null,"countyName":null,"streetName":null,"villageName":null,"roadName":null,"communityName":null,"tranName":null,"sdLineName":null,"cityCode":"1340606","cityName":"国网安国市供电公司","provinceCode":null,"stopTime":"2020-05-04 20:00:00","powerType":"全部","powerOffArea":"【全线路停电】停北张各庄综合十八台区变压器,北张各庄综1变压器","powerOffReason":"【停电原因】由于站内开关跳闸导致１１０ＫＶ伍仁桥变电站１０ＫＶ北张各庄５７６线路全线停电 【变更送电】因抢修进度加快原因，送电时间由２２：００变更为２０：００ 【发布渠道】通过９５５９８发布","powerOffId":"2020050413000582"}],"pageModel":{"pageNow":100,"totalCount":10973,"totalPage":1098,"tableRows":0,"pageCount":10,"beginCount":990},"isExperi":"1"}