{"message":"","today":"2020-06-15","seleList":[{"poweroffId":2020050413000280,"sgpoweroffId":null,"subsName":"","lineName":"10kV东吕南线539线路","pubTranName":"东吕四街内4,1东吕一街内15,1东吕四街内5,东吕四街内10,1东吕四街内7,1东吕一街内14,1东吕四街内8,1东吕一街内4,东吕四街内1,东吕四街内3,","scope":"【影响街道/乡镇】东吕乡 【高危重要客户】无 【影响客户】东吕四街村、东吕一街村","startTime":"2020-05-13 05:30:00","stopDate":"2020-05-13 18:00:00","orgNo":"1340618","typeCode":"计划停电","poweroffArea":"【全线路停电】停110kV东闾变电站10kV东吕南线539线路全线，东吕四街内4,1东吕一街内15,东吕南1,保定宇力起重机械制造有限公司01,河北神雕起重设备制造有限公司01,清苑臣力起重吊索具制造有限公司01,0617341523-河北诺友起重机械制造有限公司-专变-128614809-河北诺友起重机械制造有限公司,东吕张民更配件加工,东吕西八,河北神雕起重设备制造有限公司,东吕宋村道西,清苑县军民起重机械有限公司01,0387490975-清苑县巨力起重机械有限公司-专变-45315127-清苑县巨力起重机械有限公司,东吕张新发配件加工,保定市清苑区东闾乡卫生院,河北诺邦吊索具制造有限公司,河北天宇起重机械制造有限公司,东吕赵从会配件加工,东吕四街内10,石屯冀新纸业,1东吕四街内7,东吕王红配件加工,东吕张景波配件加工,0387491457-东吕王志强配件加工-专变-127831813-东吕王志强配件加工,保定大力起重机械有限公司,保定怀鸽起重机械制造有限公司,保定市宇鹰起重机械制造有限公司01,清苑玉蝶起重机械制造有限公司,保定华澳起重设备有限公司,1东吕四街内5,保定宇力起重机械制造有限公司,东吕赵永虎配件加工,张继强养殖场,保定华澳起重设备有限公司4,保定大力起重机械有限公司01,保定市华欣起重机械制造有限公司01,东吕张会田配件加工,北京猎鹰国际重工机械有限公司保定分公司,保定悍美机制链制造有限公司,保定华澳起重设备有限公司02,保定市华欣起重机械制造有限公司,清苑县鑫盛起重配件厂,河北宇雕起重设备制造有限公司01,1东吕一街内14,河北东特起重机械制造有限公司,河北黑狮机械有限公司,保定市海旭纺织厂,清苑县东吕国强起重链条厂,上海轶鹰起重机械有限公司清苑分公司,0469655139-清苑县余粮配件加工厂-专变-46901784-余粮配件加工,0387492681-清苑县飞翔起重机械厂-专变-45315302-清苑县飞翔起重机械厂,0646665696-清苑县金搏起重设备制造有限公司-专变-169898783-清苑县金搏起重设备制造有限公司,东吕赵永虎配件加工01,保定邦强起重吊索具制造有限公司,杭州双力起重机械有限公司清苑分公司,东吕赵增瑞配件加工,0454858064-清苑县华航起重机械厂-专变-126309789-清苑县世友起重机械厂,东吕四街,东吕四街内1,东吕刘梅配件加工,东吕王红配件加工01,河北宇雕起重设备制造有限公司02,东吕古楼养鸡场,保定大力起重机械有限公司02,河北迈普顿机电有限公司,北京市凌鹰起重机械厂清苑分厂,清苑县巨力起重机械有限公司,东吕四街内3,清苑县长城起重设备厂,河北宇雕起重设备制造有限公司,清苑县红松装饰链条厂,1东吕四街内8,1东吕一街内4,清苑县东吕景会罩壳加工厂,清苑县宗广起重工具厂,东吕赵永生配件加工,保定市宇鹰起重机械制造有限公司,清苑县宏利锚链厂,东吕杨恩保配件加工","poweroffReason":"【停电原因】由于线路改造工程导致１１０ＫＶ东闾变电站１０ＫＶ东吕南线５３９线路全线停电 【变更送电】无 【发布渠道】保定市清苑区电视台（２０２０年０５月０５日１９时至２０２０年０５月１２日２０时之间）屏幕上方滚动","powerTime":"2020-05-13 17:50:12","powerComm":"周立新通知已送电","subsNo":"","lineNo":"","tgNo":"","tgName":null,"infoStatus":"1","orgName":"国网清苑县供电公司","typeName":null,"infoStatusName":null,"dateDay":null,"orgNos":null,"nowTime":null,"countyName":null,"streetName":null,"villageName":null,"roadName":null,"communityName":null,"tranName":null,"sdLineName":null,"cityCode":"1340618","cityName":"国网清苑县供电公司","provinceCode":null,"stopTime":"2020-05-13 18:00:00","powerType":"全部","powerOffArea":"【全线路停电】停110kV东闾变电站10kV东吕南线539线路全线，东吕四街内4,1东吕一街内15,东吕南1,保定宇力起重机械制造有限公司01,河北神雕起重设备制造有限公司01,清苑臣力起重吊索具制造有限公司01,0617341523-河北诺友起重机械制造有限公司-专变-128614809-河北诺友起重机械制造有限公司,东吕张民更配件加工,东吕西八,河北神雕起重设备制造有限公司,东吕宋村道西,清苑县军民起重机械有限公司01,0387490975-清苑县巨力起重机械有限公司-专变-45315127-清苑县巨力起重机械有限公司,东吕张新发配件加工,保定市清苑区东闾乡卫生院,河北诺邦吊索具制造有限公司,河北天宇起重机械制造有限公司,东吕赵从会配件加工,东吕四街内10,石屯冀新纸业,1东吕四街内7,东吕王红配件加工,东吕张景波配件加工,0387491457-东吕王志强配件加工-专变-127831813-东吕王志强配件加工,保定大力起重机械有限公司,保定怀鸽起重机械制造有限公司,保定市宇鹰起重机械制造有限公司01,清苑玉蝶起重机械制造有限公司,保定华澳起重设备有限公司,1东吕四街内5,保定宇力起重机械制造有限公司,东吕赵永虎配件加工,张继强养殖场,保定华澳起重设备有限公司4,保定大力起重机械有限公司01,保定市华欣起重机械制造有限公司01,东吕张会田配件加工,北京猎鹰国际重工机械有限公司保定分公司,保定悍美机制链制造有限公司,保定华澳起重设备有限公司02,保定市华欣起重机械制造有限公司,清苑县鑫盛起重配件厂,河北宇雕起重设备制造有限公司01,1东吕一街内14,河北东特起重机械制造有限公司,河北黑狮机械有限公司,保定市海旭纺织厂,清苑县东吕国强起重链条厂,上海轶鹰起重机械有限公司清苑分公司,0469655139-清苑县余粮配件加工厂-专变-46901784-余粮配件加工,0387492681-清苑县飞翔起重机械厂-专变-45315302-清苑县飞翔起重机械厂,0646665696-清苑县金搏起重设备制造有限公司-专变-169898783-清苑县金搏起重设备制造有限公司,东吕赵永虎配件加工01,保定邦强起重吊索具制造有限公司,杭州双力起重机械有限公司清苑分公司,东吕赵增瑞配件加工,0454858064-清苑县华航起重机械厂-专变-126309789-清苑县世友起重机械厂,东吕四街,东吕四街内1,东吕刘梅配件加工,东吕王红配件加工01,河北宇雕起重设备制造有限公司02,东吕古楼养鸡场,保定大力起重机械有限公司02,河北迈普顿机电有限公司,北京市凌鹰起重机械厂清苑分厂,清苑县巨力起重机械有限公司,东吕四街内3,清苑县长城起重设备厂,河北宇雕起重设备制造有限公司,清苑县红松装饰链条厂,1东吕四街内8,1东吕一街内4,清苑县东吕景会罩壳加工厂,清苑县宗广起重工具厂,东吕赵永生配件加工,保定市宇鹰起重机械制造有限公司,清苑县宏利锚链厂,东吕杨恩保配件加工","powerOffReason":"【停电原因】由于线路改造工程导致１１０ＫＶ东闾变电站１０ＫＶ东吕南线５３９线路全线停电 【变更送电】无 【发布渠道】保定市清苑区电视台（２０２０年０５月０５日１９时至２０２０年０５月１２日２０时之间）屏幕上方滚动","powerOffId":"2020050413000280"},{"poweroffId":2020050413000263,"sgpoweroffId":null,"subsName":"","lineName":"正村线525","pubTranName":"王辛庄14号,王辛庄8号【纯农排变】,王辛庄12号【纯农排变】,王辛庄3号【纯农排变】,王辛庄11号【纯农排变】,王辛庄9号【纯农排变】,王辛庄2号,王辛庄1号,王辛庄10号【纯农排变】,王辛庄6号【纯农排变】,","scope":"【影响街道/乡镇】正村乡 【高危重要客户】无 【影响客户】王辛庄村","startTime":"2020-05-06 07:00:00","stopDate":"2020-05-06 18:00:00","orgNo":"1340605","typeCode":"临时停电","poweroffArea":"【分支停电】停王辛庄14号,王辛庄8号【纯农排变】,王辛庄12号【纯农排变】,王辛庄3号【纯农排变】,王辛庄11号【纯农排变】,王辛庄9号【纯农排变】,王辛庄2号,王辛庄1号,王辛庄10号【纯农排变】,王辛庄6号【纯农排变】","poweroffReason":"【停电原因】由于线路检修导致１１０ＫＶ遂城变电站正村线５２５线路王辛庄２１号杆分段开关以下线路停电 【变更送电】无 【发布渠道】通过９５５９８发布","powerTime":"2020-05-06 17:10:37","powerComm":"已送电","subsNo":"","lineNo":"","tgNo":"","tgName":null,"infoStatus":"1","orgName":"国网徐水县供电公司","typeName":null,"infoStatusName":null,"dateDay":null,"orgNos":null,"nowTime":null,"countyName":null,"streetName":null,"villageName":null,"roadName":null,"communityName":null,"tranName":null,"sdLineName":null,"cityCode":"1340605","cityName":"国网徐水县供电公司","provinceCode":null,"stopTime":"2020-05-06 18:00:00","powerType":"全部","powerOffArea":"【分支停电】停王辛庄14号,王辛庄8号【纯农排变】,王辛庄12号【纯农排变】,王辛庄3号【纯农排变】,王辛庄11号【纯农排变】,王辛庄9号【纯农排变】,王辛庄2号,王辛庄1号,王辛庄10号【纯农排变】,王辛庄6号【纯农排变】","powerOffReason":"【停电原因】由于线路检修导致１１０ＫＶ遂城变电站正村线５２５线路王辛庄２１号杆分段开关以下线路停电 【变更送电】无 【发布渠道】通过９５５９８发布","powerOffId":"2020050413000263"},{"poweroffId":2020050413000253,"sgpoweroffId":null,"subsName":"","lineName":"10KV徐里营531","pubTranName":"1198徐二,徐二村西内柱变,徐二村内西柱变,刁窝徐一村村南,徐二村东南,刁窝供电所徐二村,徐一村西,涿州市徐里营小学1,1219徐二,徐二村西南柱变,徐一村委会东,徐一村村东,徐一1223,刁窝供电所（徐一村）【纯农排变】,刁窝供电所（徐一村）增【纯农排变】,1266徐一【纯农排变】,涿州市徐里营小学2,","scope":"【影响街道/乡镇】刁窝乡 【影响客户】徐一、徐二、北京鸿坤","startTime":"2020-05-14 05:00:00","stopDate":"2020-05-14 18:00:00","orgNo":"1340626","typeCode":"计划停电","poweroffArea":"【全线路停电】停１１０ＫＶ刁窝变电站１０ＫＶ徐里营５３１线路，刁窝徐一村村南,涿州市祥筑房地产开发有限公司4,0645248313-涿州鸿泰房地产开发有限公司-专变-178892957-涿州鸿泰房地产开发有限公司11,涿州鸿泰房地产开发有限公司6,涿州市祥筑房地产开发有限公司3,1198徐二,徐二村西内柱变,徐二村内西柱变,涿州鸿泰房地产开发有限公司5,涿州鸿泰房地产开发有限公司7,徐二村东南,0645248313-涿州鸿泰房地产开发有限公司-专变-178892950-涿州鸿泰房地产开发有限公司12,涿州鸿泰房地产开发有限公司3,刁窝供电所徐二村,涿州盛丰和华房地产开发有限公司2,0602595948-河北涿州新兴产业示范区管理委员会-专变-126881274-华融万新涿州投资有限责任公司,涿州盛丰和华房地产开发有限公司1,涿州鸿泰房地产开发有限公司4,涿州市祥筑房地产开发有限公司5,徐一村西,涿州市祥筑房地产开发有限公司2,涿州市徐里营小学1,1219徐二,0645248313-涿州鸿泰房地产开发有限公司-专变-178894877-涿州鸿泰房地产开发有限公司10,涿州盛丰和华房地产开发有限公司4,0645248313-涿州鸿泰房地产开发有限公司-专变-178894880-涿州鸿泰房地产开发有限公司9,涿州市祥筑房地产开发有限公司1,0645248313-涿州鸿泰房地产开发有限公司-专变-178892947-涿州鸿泰房地产开发有限公司4,涿州市卓安环保科技有限公司,0645248313-涿州鸿泰房地产开发有限公司-专变-178892942-涿州鸿泰房地产开发有限公司3,涿州鸿泰房地产开发有限公司1,涿州盛丰和华房地产开发有限公司5,徐一村南地【纯农排变】,徐二村西南柱变,刁窝徐一村东【纯农排变】,徐一村委会东,徐一村村东,徐一1223,涿州刁窝徐一,涿州鸿泰房地产开发有限公司2,涿州盛丰和华房地产开发有限公司3,徐一村东变,徐贰村内,涿州鸿泰房地产开发有限公司8,刁窝供电所（徐一村）【纯农排变】,刁窝供电所（徐一村）增【纯农排变】,1266徐一【纯农排变】,涿州市徐里营小学2","poweroffReason":"【停电原因】由于线路清扫导致１１０ＫＶ刁窝变电站１０ＫＶ徐里营５３１线路全线停电 【变更送电】无 【发布渠道】涿州市涿州电视台（０５月０４日至０５月１３日２１：００播放２次）屏幕上方滚动","powerTime":"2020-05-14 17:43:42","powerComm":"已送电","subsNo":"","lineNo":"","tgNo":"","tgName":null,"infoStatus":"1","orgName":"国网涿州市供电公司","typeName":null,"infoStatusName":null,"dateDay":null,"orgNos":null,"nowTime":null,"countyName":null,"streetName":null,"villageName":null,"roadName":null,"communityName":null,"tranName":null,"sdLineName":null,"cityCode":"1340626","cityName":"国网涿州市供电公司","provinceCode":null,"stopTime":"2020-05-14 18:00:00","powerType":"全部","powerOffArea":"【全线路停电】停１１０ＫＶ刁窝变电站１０ＫＶ徐里营５３１线路，刁窝徐一村村南,涿州市祥筑房地产开发有限公司4,0645248313-涿州鸿泰房地产开发有限公司-专变-178892957-涿州鸿泰房地产开发有限公司11,涿州鸿泰房地产开发有限公司6,涿州市祥筑房地产开发有限公司3,1198徐二,徐二村西内柱变,徐二村内西柱变,涿州鸿泰房地产开发有限公司5,涿州鸿泰房地产开发有限公司7,徐二村东南,0645248313-涿州鸿泰房地产开发有限公司-专变-178892950-涿州鸿泰房地产开发有限公司12,涿州鸿泰房地产开发有限公司3,刁窝供电所徐二村,涿州盛丰和华房地产开发有限公司2,0602595948-河北涿州新兴产业示范区管理委员会-专变-126881274-华融万新涿州投资有限责任公司,涿州盛丰和华房地产开发有限公司1,涿州鸿泰房地产开发有限公司4,涿州市祥筑房地产开发有限公司5,徐一村西,涿州市祥筑房地产开发有限公司2,涿州市徐里营小学1,1219徐二,0645248313-涿州鸿泰房地产开发有限公司-专变-178894877-涿州鸿泰房地产开发有限公司10,涿州盛丰和华房地产开发有限公司4,0645248313-涿州鸿泰房地产开发有限公司-专变-178894880-涿州鸿泰房地产开发有限公司9,涿州市祥筑房地产开发有限公司1,0645248313-涿州鸿泰房地产开发有限公司-专变-178892947-涿州鸿泰房地产开发有限公司4,涿州市卓安环保科技有限公司,0645248313-涿州鸿泰房地产开发有限公司-专变-178892942-涿州鸿泰房地产开发有限公司3,涿州鸿泰房地产开发有限公司1,涿州盛丰和华房地产开发有限公司5,徐一村南地【纯农排变】,徐二村西南柱变,刁窝徐一村东【纯农排变】,徐一村委会东,徐一村村东,徐一1223,涿州刁窝徐一,涿州鸿泰房地产开发有限公司2,涿州盛丰和华房地产开发有限公司3,徐一村东变,徐贰村内,涿州鸿泰房地产开发有限公司8,刁窝供电所（徐一村）【纯农排变】,刁窝供电所（徐一村）增【纯农排变】,1266徐一【纯农排变】,涿州市徐里营小学2","powerOffReason":"【停电原因】由于线路清扫导致１１０ＫＶ刁窝变电站１０ＫＶ徐里营５３１线路全线停电 【变更送电】无 【发布渠道】涿州市涿州电视台（０５月０４日至０５月１３日２１：００播放２次）屏幕上方滚动","powerOffId":"2020050413000253"},{"poweroffId":2020050413000251,"sgpoweroffId":null,"subsName":"","lineName":"10kV564杜村线","pubTranName":"10kV564杜村线20120台区变压器,10kV564杜村线谭庄42614台区变压器,10kV564杜村线东杜村22007台区变压器,10kV564杜村线谭庄20007台区变压器,10kV564杜村线西杜村98989台区变压器,10kV564杜村线谭庄8296台区,10kV564杜村线西杜村22005台区变压器,10kV564杜村线22016台区变压器,10kV564杜村线东杜村22033台区变压器,10kV564杜村线谭庄20009台区变压器,10kV564杜村线西杜村村东新增照明49909变压器,10kV564杜村线东杜村22056台区变压器,10kV564杜村线西杜村22002台区变压器,10kV564杜村线71862台区变压器,10kV564杜村线东杜村22049台区变压器,10kV564杜村线油里铺新增98501台区变压器,10kV564杜村线西杜村22004台区变压器,","scope":"【影响街道/乡镇】小店镇【高危重要客户】无【影响客户】谭庄、油里铺、东杜村、西杜村","startTime":"2020-05-04 08:47:43","stopDate":"2020-05-04 11:00:00","orgNo":"1340608","typeCode":"电网故障停限电","poweroffArea":"【全线路停电】停110kV胡庄变电站10kV564杜村线东杜村22049台区变压器,10kV564杜村线油里铺新增98501台区变压器,10kV564杜村线西杜村22004台区变压器,10kV564杜村线20120台区变压器,10kV564杜村线谭庄42614台区变压器,10kV564杜村线东杜村22007台区变压器,10kV564杜村线谭庄20007台区变压器,10kV564杜村线西杜村98989台区变压器,10kV564杜村线谭庄8296台区,10kV564杜村线西杜村22005台区变压器,10kV564杜村线22016台区变压器,10kV564杜村线东杜村22033台区变压器,10kV564杜村线谭庄20009台区变压器,10kV564杜村线西杜村村东新增照明49909变压器,10kV564杜村线东杜村22056台区变压器,10kV564杜村线西杜村22002台区变压器,10kV564杜村线71862台区变压器","poweroffReason":"【停电原因】由于线路掉闸导致１１０ＫＶ胡庄变电站杜村５６４线路全线停电【变更送电】因抢修进度加快原因，送电时间由１８：００变更为１１：００【发布渠道】通过９５５９８发布","powerTime":"2020-05-04 10:36:36","powerComm":"已送电","subsNo":"","lineNo":"","tgNo":"","tgName":null,"infoStatus":"1","orgName":"国网博野县供电公司","typeName":null,"infoStatusName":null,"dateDay":null,"orgNos":null,"nowTime":null,"countyName":null,"streetName":null,"villageName":null,"roadName":null,"communityName":null,"tranName":null,"sdLineName":null,"cityCode":"1340608","cityName":"国网博野县供电公司","provinceCode":null,"stopTime":"2020-05-04 11:00:00","powerType":"全部","powerOffArea":"【全线路停电】停110kV胡庄变电站10kV564杜村线东杜村22049台区变压器,10kV564杜村线油里铺新增98501台区变压器,10kV564杜村线西杜村22004台区变压器,10kV564杜村线20120台区变压器,10kV564杜村线谭庄42614台区变压器,10kV564杜村线东杜村22007台区变压器,10kV564杜村线谭庄20007台区变压器,10kV564杜村线西杜村98989台区变压器,10kV564杜村线谭庄8296台区,10kV564杜村线西杜村22005台区变压器,10kV564杜村线22016台区变压器,10kV564杜村线东杜村22033台区变压器,10kV564杜村线谭庄20009台区变压器,10kV564杜村线西杜村村东新增照明49909变压器,10kV564杜村线东杜村22056台区变压器,10kV564杜村线西杜村22002台区变压器,10kV564杜村线71862台区变压器","powerOffReason":"【停电原因】由于线路掉闸导致１１０ＫＶ胡庄变电站杜村５６４线路全线停电【变更送电】因抢修进度加快原因，送电时间由１８：００变更为１１：００【发布渠道】通过９５５９８发布","powerOffId":"2020050413000251"},{"poweroffId":2020050413000238,"sgpoweroffId":null,"subsName":"","lineName":"10kV518大洋厂线","pubTranName":"蠡县和禄汽车检测有限公司,紫微山造药厂,南丹农排1台区【纯农排变】,大洋食品有限公司,南丹农排4台区【纯农排变】,蠡县精准机械制造厂变压器,西丹浇地,南丹农排3台区【纯农排变】,西丹农排4台区【纯农排变】,永胜开花,蠡县武营农机服务专业合作社,永腾洗毛厂,南丹农排2台区【纯农排变】,西丹浇地2,南丹农排5台区【纯农排变】,西丹农排3台区【纯农排变】,","scope":"【影响街道/乡镇】北郭丹镇【高危重要客户】无【影响客户】大洋食品有限公司","startTime":"2020-05-04 08:33:16","stopDate":"2020-05-04 15:00:00","orgNo":"1340616","typeCode":"电网故障停限电","poweroffArea":"【全线路停电】停３５ＫＶ郭丹变电站１０ＫＶ大洋厂５１８线路全线南丹农排2台区【纯农排变】,南丹农排5台区【纯农排变】,大洋食品有限公司,西丹农排3台区【纯农排变】,南丹农排3台区【纯农排变】,蠡县和禄汽车检测有限公司,西丹农排4台区【纯农排变】,永胜开花,南丹农排4台区【纯农排变】,西丹浇地,南丹农排1台区【纯农排变】,蠡县精准机械制造厂变压器,紫微山造药厂,蠡县武营农机服务专业合作社,西丹浇地2,永腾洗毛厂","poweroffReason":"【停电原因】由于站内开关掉闸导致３５ＫＶ郭丹变电站１０ＫＶ大洋厂５１８线路全线停电【变更送电】无【发布渠道】通过９５５９８发布","powerTime":"2020-05-04 14:10:10","powerComm":"已送电","subsNo":"","lineNo":"","tgNo":"","tgName":null,"infoStatus":"1","orgName":"国网蠡县供电公司","typeName":null,"infoStatusName":null,"dateDay":null,"orgNos":null,"nowTime":null,"countyName":null,"streetName":null,"villageName":null,"roadName":null,"communityName":null,"tranName":null,"sdLineName":null,"cityCode":"1340616","cityName":"国网蠡县供电公司","provinceCode":null,"stopTime":"2020-05-04 15:00:00","powerType":"全部","powerOffArea":"【全线路停电】停３５ＫＶ郭丹变电站１０ＫＶ大洋厂５１８线路全线南丹农排2台区【纯农排变】,南丹农排5台区【纯农排变】,大洋食品有限公司,西丹农排3台区【纯农排变】,南丹农排3台区【纯农排变】,蠡县和禄汽车检测有限公司,西丹农排4台区【纯农排变】,永胜开花,南丹农排4台区【纯农排变】,西丹浇地,南丹农排1台区【纯农排变】,蠡县精准机械制造厂变压器,紫微山造药厂,蠡县武营农机服务专业合作社,西丹浇地2,永腾洗毛厂","powerOffReason":"【停电原因】由于站内开关掉闸导致３５ＫＶ郭丹变电站１０ＫＶ大洋厂５１８线路全线停电【变更送电】无【发布渠道】通过９５５９８发布","powerOffId":"2020050413000238"},{"poweroffId":2020050413000234,"sgpoweroffId":null,"subsName":"","lineName":"屯庄线518","pubTranName":"屯庄9号【纯农排变】,","scope":"【影响街道/乡镇】户木乡 【高危重要客户】无 【影响客户】屯庄","startTime":"2020-05-04 08:31:21","stopDate":"2020-05-04 12:00:00","orgNo":"1340605","typeCode":"电网故障停限电","poweroffArea":"【全线路停电】停屯庄10号,屯庄11号【纯农排变】,屯庄12号【纯农排变】,屯庄13号,屯庄14号,屯庄15号【纯农排变】,屯庄16号,屯庄17号,屯庄18号,屯庄19号,屯庄1号,屯庄20号【纯农排变】,屯庄21号,屯庄22号,屯庄2号,屯庄3号,屯庄4号,屯庄5号,屯庄6号【纯农排变】,屯庄7号【纯农排变】,屯庄8号【纯农排变】,屯庄9号【纯农排变】","poweroffReason":"【停电原因】由于Ｂ相接地导致３５ＫＶ广门变电站屯庄线５１８全线停电 【变更送电】因抢修进度加快原因，送电时间由２３:００变更为１２:００ 【发布渠道】通过９５５９８发布","powerTime":"2020-05-04 11:11:06","powerComm":"已送电","subsNo":"","lineNo":"","tgNo":"","tgName":null,"infoStatus":"1","orgName":"国网徐水县供电公司","typeName":null,"infoStatusName":null,"dateDay":null,"orgNos":null,"nowTime":null,"countyName":null,"streetName":null,"villageName":null,"roadName":null,"communityName":null,"tranName":null,"sdLineName":null,"cityCode":"1340605","cityName":"国网徐水县供电公司","provinceCode":null,"stopTime":"2020-05-04 12:00:00","powerType":"全部","powerOffArea":"【全线路停电】停屯庄10号,屯庄11号【纯农排变】,屯庄12号【纯农排变】,屯庄13号,屯庄14号,屯庄15号【纯农排变】,屯庄16号,屯庄17号,屯庄18号,屯庄19号,屯庄1号,屯庄20号【纯农排变】,屯庄21号,屯庄22号,屯庄2号,屯庄3号,屯庄4号,屯庄5号,屯庄6号【纯农排变】,屯庄7号【纯农排变】,屯庄8号【纯农排变】,屯庄9号【纯农排变】","powerOffReason":"【停电原因】由于Ｂ相接地导致３５ＫＶ广门变电站屯庄线５１８全线停电 【变更送电】因抢修进度加快原因，送电时间由２３:００变更为１２:００ 【发布渠道】通过９５５９８发布","powerOffId":"2020050413000234"},{"poweroffId":2020050413000227,"sgpoweroffId":null,"subsName":"","lineName":"平景线555","pubTranName":"赵马营东变压器,","scope":"【影响街道/乡镇】辛立庄镇 【高危重要客户】无 【影响客户】赵马营","startTime":"2020-05-04 08:28:23","stopDate":"2020-05-04 11:00:00","orgNo":"1340612","typeCode":"电网故障停限电","poweroffArea":"【单台区停电】停赵马营东变压器","poweroffReason":"【停电原因】由于有树枝搭线导致１１０ＫＶ陈八庄变电站１０ＫＶ平景５５５线路赵马营东公变台区停电 【变更送电】因抢修进度加快原因，送电时间由１４：００变更为１１：００ 【发布渠道】通过９５５９８发布","powerTime":"2020-05-04 10:30:51","powerComm":"已送电","subsNo":"","lineNo":"","tgNo":"","tgName":null,"infoStatus":"1","orgName":"国网高碑店市供电公司","typeName":null,"infoStatusName":null,"dateDay":null,"orgNos":null,"nowTime":null,"countyName":null,"streetName":null,"villageName":null,"roadName":null,"communityName":null,"tranName":null,"sdLineName":null,"cityCode":"1340612","cityName":"国网高碑店市供电公司","provinceCode":null,"stopTime":"2020-05-04 11:00:00","powerType":"全部","powerOffArea":"【单台区停电】停赵马营东变压器","powerOffReason":"【停电原因】由于有树枝搭线导致１１０ＫＶ陈八庄变电站１０ＫＶ平景５５５线路赵马营东公变台区停电 【变更送电】因抢修进度加快原因，送电时间由１４：００变更为１１：００ 【发布渠道】通过９５５９８发布","powerOffId":"2020050413000227"},{"poweroffId":2020050413000212,"sgpoweroffId":null,"subsName":"","lineName":"10kV大李各庄线513","pubTranName":"1武安内7,1大李各庄内5,顾家营小学,1刘村内3,2大李各庄外27,1刘村内6,1刘村内8,1顾家营内4,1顾家营内7,2大李各庄外25,1大李各庄内13,大李各庄小学1,1刘村内2,1刘村内1,1刘村内7,1顾家营内5,1武安内6,1顾家营内6,1大李各庄内15,1大李各庄内3,1武安内1,1武安内5,1大李各庄内2,1顾家营内3,1大李各庄内9,1大李各庄内11,1大李各庄内10,1大李各庄内8,1武安内9,1大李各庄内6,刘村小学,1大李各庄内1,1大李各庄内12,2顾家营外3【纯农排变】,2大李各庄外26,1大李各庄内14,2大李各庄外28,1大李各庄内7,1武安内4,1武安内3,1武安内2,1顾家营内1,1顾家营内2,1武安内8,大李各庄小学2,1刘村内4,武安小学,1刘村内5,1刘村内9,1顾家营内8,","scope":"【影响街道/乡镇】北王力乡 【高危重要客户】无 【影响客户】大李各庄、刘村、顾家营、武安村","startTime":"2020-05-04 08:12:27","stopDate":"2020-05-04 12:00:00","orgNo":"1340618","typeCode":"电网故障停限电","poweroffArea":"【全线路停电】停35kV罗家营变电站10kV大李各庄线513线路全线，1大李各庄内13,大李各庄小学1,1刘村内2,2刘村外2【纯农排变】,1刘村内1,1刘村内7,2顾家营外10【纯农排变】,1顾家营内5,1顾家营内6,1武安内6,顾家营砖厂,顾家营水厂,2大李各庄外12【纯农排变】,1大李各庄内15,2武安外8【纯农排变】,1大李各庄内3,1武安内1,2武安外2【纯农排变】,2大李各庄外22【纯农排变】,1武安内5,1大李各庄内2,1顾家营内3,1大李各庄内9,1大李各庄内11,2大李各庄外20【纯农排变】,2武安外6【纯农排变】,2大李各庄外9【纯农排变】,2刘村外8【纯农排变】,2武安外4【纯农排变】,1大李各庄内10,清苑县大李各庄谷玉雄养鸡厂,2大李各庄外10【纯农排变】,1大李各庄内8,县林场南台,1武安内9,2大李各庄外1【纯农排变】,2大李各庄外3【纯农排变】,2武安外1【纯农排变】,2大李各庄外21【纯农排变】,2顾家营外1【纯农排变】,1大李各庄内6,2刘村外7【纯农排变】,刘村小学,2大李各庄外14【纯农排变】,2刘村外3【纯农排变】,2大李各庄外2【纯农排变】,1大李各庄内1,清苑县民政事业第二服务中心,1大李各庄内12,2顾家营外3【纯农排变】,2大李各庄外23【纯农排变】,2顾家营外13【纯农排变】,0387500605-清苑县苗圃总场-专变-45321375-清苑县苗圃总厂,2刘村外4【纯农排变】,2大李各庄外19【纯农排变】,大李各庄面粉厂,2大李各庄外26,2大李各庄外16【纯农排变】,1大李各庄内14,2大李各庄外6【纯农排变】,县林场东台,2刘村外6【纯农排变】,中国移动通信集团河北有限公司清苑分公司,2顾家营外12【纯农排变】,2大李各庄外28,1大李各庄内7,2顾家营外4【纯农排变】,1武安内4,1武安内3,2大李各庄外5【纯农排变】,1武安内2,2大李各庄外11【纯农排变】,1顾家营内1,0564528789-河北鑫艺苑建筑材料有限公司-专变-219696356-清苑县大李各庄砖厂,1顾家营内2,0387500966-清苑县苗圃总场-专变-45321358-大李各庄林场1,0669051926-保定市清苑区大李各庄鑫源苗圃场-专变-210338503-保定市清苑区大李各庄鑫源苗圃场,1武安内8,0387500995-清苑县苗圃总场-专变-45321359-大李各庄林场2,2大李各庄外7【纯农排变】,2顾家营外2【纯农排变】,2大李各庄外18【纯农排变】,大李各庄小学2,2武安外5【纯农排变】,1刘村内4,武安小学,1刘村内5,1刘村内9,2武安外3【纯农排变】,大李各庄林场3,1顾家营内8,2刘村外5【纯农排变】,县苗圃,0387500940-清苑县苗圃总场-专变-125674936-清苑县苗圃总场,1刘村内8,2顾家营外14【纯农排变】,1武安内7,2顾家营外9【纯农排变】,2顾家营外8【纯农排变】,中国移动通信集团河北有限公司保定分公司,县林场中,2顾家营外11【纯农排变】,1大李各庄内5,0618175321-河北泽龙投资集团有限公司-专变-128759542-河北泽龙投资集团有限公司,顾家营小学,2顾家营外5【纯农排变】,2大李各庄外4【纯农排变】,2刘村外1【纯农排变】,2大李各庄外8【纯农排变】,2武安外7【纯农排变】,2大李各庄外13【纯农排变】,2大李各庄外17【纯农排变】,0664802604-保定市共赢建筑材料制造有限公司-专变-202052729-保定市共赢建筑材料制造有限公司,2顾家营外6【纯农排变】,1刘村内3,2大李各庄外27,河北鑫艺苑建筑材料有限公司,2大李各庄外24【纯农排变】,1刘村内6,1顾家营内4,1顾家营内7,2大李各庄外15【纯农排变】,2大李各庄外25","poweroffReason":"【停电原因】由于主干１４５号杆分支６号杆树枝搭线导致３５ＫＶ罗家营变电站１０ＫＶ大李各庄线５１３线路全线停电 【变更送电】因抢修进度加快原因，送电时间由１３：００变更为１２：００ 【发布渠道】通过９５５９８发布","powerTime":"2020-05-04 11:28:28","powerComm":"刘宇龙通知已送电","subsNo":"","lineNo":"","tgNo":"","tgName":null,"infoStatus":"1","orgName":"国网清苑县供电公司","typeName":null,"infoStatusName":null,"dateDay":null,"orgNos":null,"nowTime":null,"countyName":null,"streetName":null,"villageName":null,"roadName":null,"communityName":null,"tranName":null,"sdLineName":null,"cityCode":"1340618","cityName":"国网清苑县供电公司","provinceCode":null,"stopTime":"2020-05-04 12:00:00","powerType":"全部","powerOffArea":"【全线路停电】停35kV罗家营变电站10kV大李各庄线513线路全线，1大李各庄内13,大李各庄小学1,1刘村内2,2刘村外2【纯农排变】,1刘村内1,1刘村内7,2顾家营外10【纯农排变】,1顾家营内5,1顾家营内6,1武安内6,顾家营砖厂,顾家营水厂,2大李各庄外12【纯农排变】,1大李各庄内15,2武安外8【纯农排变】,1大李各庄内3,1武安内1,2武安外2【纯农排变】,2大李各庄外22【纯农排变】,1武安内5,1大李各庄内2,1顾家营内3,1大李各庄内9,1大李各庄内11,2大李各庄外20【纯农排变】,2武安外6【纯农排变】,2大李各庄外9【纯农排变】,2刘村外8【纯农排变】,2武安外4【纯农排变】,1大李各庄内10,清苑县大李各庄谷玉雄养鸡厂,2大李各庄外10【纯农排变】,1大李各庄内8,县林场南台,1武安内9,2大李各庄外1【纯农排变】,2大李各庄外3【纯农排变】,2武安外1【纯农排变】,2大李各庄外21【纯农排变】,2顾家营外1【纯农排变】,1大李各庄内6,2刘村外7【纯农排变】,刘村小学,2大李各庄外14【纯农排变】,2刘村外3【纯农排变】,2大李各庄外2【纯农排变】,1大李各庄内1,清苑县民政事业第二服务中心,1大李各庄内12,2顾家营外3【纯农排变】,2大李各庄外23【纯农排变】,2顾家营外13【纯农排变】,0387500605-清苑县苗圃总场-专变-45321375-清苑县苗圃总厂,2刘村外4【纯农排变】,2大李各庄外19【纯农排变】,大李各庄面粉厂,2大李各庄外26,2大李各庄外16【纯农排变】,1大李各庄内14,2大李各庄外6【纯农排变】,县林场东台,2刘村外6【纯农排变】,中国移动通信集团河北有限公司清苑分公司,2顾家营外12【纯农排变】,2大李各庄外28,1大李各庄内7,2顾家营外4【纯农排变】,1武安内4,1武安内3,2大李各庄外5【纯农排变】,1武安内2,2大李各庄外11【纯农排变】,1顾家营内1,0564528789-河北鑫艺苑建筑材料有限公司-专变-219696356-清苑县大李各庄砖厂,1顾家营内2,0387500966-清苑县苗圃总场-专变-45321358-大李各庄林场1,0669051926-保定市清苑区大李各庄鑫源苗圃场-专变-210338503-保定市清苑区大李各庄鑫源苗圃场,1武安内8,0387500995-清苑县苗圃总场-专变-45321359-大李各庄林场2,2大李各庄外7【纯农排变】,2顾家营外2【纯农排变】,2大李各庄外18【纯农排变】,大李各庄小学2,2武安外5【纯农排变】,1刘村内4,武安小学,1刘村内5,1刘村内9,2武安外3【纯农排变】,大李各庄林场3,1顾家营内8,2刘村外5【纯农排变】,县苗圃,0387500940-清苑县苗圃总场-专变-125674936-清苑县苗圃总场,1刘村内8,2顾家营外14【纯农排变】,1武安内7,2顾家营外9【纯农排变】,2顾家营外8【纯农排变】,中国移动通信集团河北有限公司保定分公司,县林场中,2顾家营外11【纯农排变】,1大李各庄内5,0618175321-河北泽龙投资集团有限公司-专变-128759542-河北泽龙投资集团有限公司,顾家营小学,2顾家营外5【纯农排变】,2大李各庄外4【纯农排变】,2刘村外1【纯农排变】,2大李各庄外8【纯农排变】,2武安外7【纯农排变】,2大李各庄外13【纯农排变】,2大李各庄外17【纯农排变】,0664802604-保定市共赢建筑材料制造有限公司-专变-202052729-保定市共赢建筑材料制造有限公司,2顾家营外6【纯农排变】,1刘村内3,2大李各庄外27,河北鑫艺苑建筑材料有限公司,2大李各庄外24【纯农排变】,1刘村内6,1顾家营内4,1顾家营内7,2大李各庄外15【纯农排变】,2大李各庄外25","powerOffReason":"【停电原因】由于主干１４５号杆分支６号杆树枝搭线导致３５ＫＶ罗家营变电站１０ＫＶ大李各庄线５１３线路全线停电 【变更送电】因抢修进度加快原因，送电时间由１３：００变更为１２：００ 【发布渠道】通过９５５９８发布","powerOffId":"2020050413000212"},{"poweroffId":2020050413000203,"sgpoweroffId":null,"subsName":"","lineName":"姜庄线551备用","pubTranName":"姜庄02号变压器,","scope":"【影响街道/乡镇】方官镇 【高危重要客户】无 【影响客户】姜庄村","startTime":"2020-05-04 08:02:27","stopDate":"2020-05-04 12:00:00","orgNo":"1340612","typeCode":"电网故障停限电","poweroffArea":"【单台区停电】停姜庄02号变压器","poweroffReason":"【停电原因】由于有塑料布挂在线上导致１１０ＫＶ方官变电站１０ＫＶ姜庄５５１线路姜庄０２号公变台区停电 【变更送电】因抢修进度加快原因，送电时间由１３：００变更为１２：００ 【发布渠道】通过９５５９８发布","powerTime":"2020-05-04 11:17:02","powerComm":"已送电","subsNo":"","lineNo":"","tgNo":"","tgName":null,"infoStatus":"1","orgName":"国网高碑店市供电公司","typeName":null,"infoStatusName":null,"dateDay":null,"orgNos":null,"nowTime":null,"countyName":null,"streetName":null,"villageName":null,"roadName":null,"communityName":null,"tranName":null,"sdLineName":null,"cityCode":"1340612","cityName":"国网高碑店市供电公司","provinceCode":null,"stopTime":"2020-05-04 12:00:00","powerType":"全部","powerOffArea":"【单台区停电】停姜庄02号变压器","powerOffReason":"【停电原因】由于有塑料布挂在线上导致１１０ＫＶ方官变电站１０ＫＶ姜庄５５１线路姜庄０２号公变台区停电 【变更送电】因抢修进度加快原因，送电时间由１３：００变更为１２：００ 【发布渠道】通过９５５９８发布","powerOffId":"2020050413000203"},{"poweroffId":2020050413000176,"sgpoweroffId":null,"subsName":"","lineName":"10kV511杨南线","pubTranName":"杨南综合7台区,杨南综合6台区,杨南综合11台区,杨南综合4台区,杨南综合5台区,杨西综合7台区,杨南综合12台区,杨南农排4台区【纯农排变】,杨南综合2台区,元南农排7台区【纯农排变】,杨南综合9台区,杨南综合8台区,杨南农排1台区【纯农排变】,杨南综合1台区,杨南农排2台区【纯农排变】,杨西农排1台区【纯农排变】,杨南综合10台区,杨南农排8台区【纯农排变】,杨西农排7台区【纯农排变】,杨西综合2台区,杨南综合3台区,杨南农排3台区【纯农排变】,","scope":"【影响街道/乡镇】桑元镇【高危重要客户】无【影响客户】杨南村、杨东村、元南村、杨西村、大杨庄村","startTime":"2020-05-04 07:38:20","stopDate":"2020-05-04 09:00:00","orgNo":"1340616","typeCode":"电网故障停限电","poweroffArea":"【全线路停电】停３５ＫＶ桑园变电站１０ＫＶ杨南５１１线路全线，杨南养猪场,杨南面粉厂,元南农排7台区【纯农排变】,杨南综合2台区,杨西农排1台区【纯农排变】,占文东,杨南综合9台区,杨南综合1台区,杨南农排8台区【纯农排变】,杨南综合7台区,杨南综合5台区,杨南综合6台区,蠡县光辉纺织厂,泉润纺织新增160KVA变压器,树子,杨西农排7台区【纯农排变】,蠡县泉润纺织有限公司,杨南综合3台区,杨南综合10台区,杨南农排2台区【纯农排变】,杨南综合8台区,杨南农排4台区【纯农排变】,杨西综合2台区,杨南农排1台区【纯农排变】,杨南综合12台区,杨西综合7台区,杨南农排3台区【纯农排变】,杨南综合4台区,杨南综合11台区,宏业丝棉厂","poweroffReason":"【停电原因】由于站内开关掉闸导致３５ＫＶ桑园变电站１０ＫＶ杨南５１１线路全线停电【变更送电】因抢修进度加快原因，送电时间由１５:００变更为０９:００【发布渠道】通过９５５９８发布","powerTime":"2020-05-04 08:30:03","powerComm":"已送电","subsNo":"","lineNo":"","tgNo":"","tgName":null,"infoStatus":"1","orgName":"国网蠡县供电公司","typeName":null,"infoStatusName":null,"dateDay":null,"orgNos":null,"nowTime":null,"countyName":null,"streetName":null,"villageName":null,"roadName":null,"communityName":null,"tranName":null,"sdLineName":null,"cityCode":"1340616","cityName":"国网蠡县供电公司","provinceCode":null,"stopTime":"2020-05-04 09:00:00","powerType":"全部","powerOffArea":"【全线路停电】停３５ＫＶ桑园变电站１０ＫＶ杨南５１１线路全线，杨南养猪场,杨南面粉厂,元南农排7台区【纯农排变】,杨南综合2台区,杨西农排1台区【纯农排变】,占文东,杨南综合9台区,杨南综合1台区,杨南农排8台区【纯农排变】,杨南综合7台区,杨南综合5台区,杨南综合6台区,蠡县光辉纺织厂,泉润纺织新增160KVA变压器,树子,杨西农排7台区【纯农排变】,蠡县泉润纺织有限公司,杨南综合3台区,杨南综合10台区,杨南农排2台区【纯农排变】,杨南综合8台区,杨南农排4台区【纯农排变】,杨西综合2台区,杨南农排1台区【纯农排变】,杨南综合12台区,杨西综合7台区,杨南农排3台区【纯农排变】,杨南综合4台区,杨南综合11台区,宏业丝棉厂","powerOffReason":"【停电原因】由于站内开关掉闸导致３５ＫＶ桑园变电站１０ＫＶ杨南５１１线路全线停电【变更送电】因抢修进度加快原因，送电时间由１５:００变更为０９:００【发布渠道】通过９５５９８发布","powerOffId":"2020050413000176"}],"pageModel":{"pageNow":103,"totalCount":10973,"totalPage":1098,"tableRows":0,"pageCount":10,"beginCount":1020},"isExperi":"1"}