{"message":"","today":"2020-06-15","seleList":[{"poweroffId":2020050413000097,"sgpoweroffId":null,"subsName":"","lineName":"大马坊线556","pubTranName":"西南韩村内（统管）,马坊村,中南韩,马坊小学,西南韩新增（农网）,马坊新增东200,西南韩村西（农网）,马坊新增学校200,尹庄东（统管）,东南韩（统管）,小次韩村（统管）,马坊新增,尹庄村南,水北庄（统管）,杨庄村东内,大辛庄大队内,小营内,","scope":"【影响街道/乡镇】大马坊乡 【影响客户】东尹庄、东南韩、中南韩、西南韩、大马坊、小次韩、大辛庄、小营村、水北庄、杨庄、阳光盛景、诚达地产、朝华锦城、绿溪小镇","startTime":"2020-05-04 05:23:07","stopDate":"2020-05-04 08:00:00","orgNo":"1340617","typeCode":"电网故障停限电","poweroffArea":"【全线路停电】停１１０ＫＶ东尹庄变电站大马坊线５５６线路全线,西南韩村内（统管）,马坊村,中南韩,马坊小学,西南韩新增（农网）,马坊新增东200,西南韩村西（农网）,马坊新增学校200,尹庄东（统管）,东南韩（统管）,小次韩村（统管）,马坊新增,尹庄村南,水北庄（统管）,杨庄村东内,大辛庄大队内,小营内","poweroffReason":"【停电原因】由于线路接地导致１１０ＫＶ东尹庄变电站大马坊线５５６线路全线停电 【变更送电】因抢修进度加快原因，送电时间由１４：００变更为０８：００ 【发布渠道】通过９５５９８发布","powerTime":"2020-05-04 07:27:18","powerComm":"已送电","subsNo":"","lineNo":"","tgNo":"","tgName":null,"infoStatus":"1","orgName":"国网满城县供电公司","typeName":null,"infoStatusName":null,"dateDay":null,"orgNos":null,"nowTime":null,"countyName":null,"streetName":null,"villageName":null,"roadName":null,"communityName":null,"tranName":null,"sdLineName":null,"cityCode":"1340617","cityName":"国网满城县供电公司","provinceCode":null,"stopTime":"2020-05-04 08:00:00","powerType":"全部","powerOffArea":"【全线路停电】停１１０ＫＶ东尹庄变电站大马坊线５５６线路全线,西南韩村内（统管）,马坊村,中南韩,马坊小学,西南韩新增（农网）,马坊新增东200,西南韩村西（农网）,马坊新增学校200,尹庄东（统管）,东南韩（统管）,小次韩村（统管）,马坊新增,尹庄村南,水北庄（统管）,杨庄村东内,大辛庄大队内,小营内","powerOffReason":"【停电原因】由于线路接地导致１１０ＫＶ东尹庄变电站大马坊线５５６线路全线停电 【变更送电】因抢修进度加快原因，送电时间由１４：００变更为０８：００ 【发布渠道】通过９５５９８发布","powerOffId":"2020050413000097"},{"poweroffId":2020050413000094,"sgpoweroffId":null,"subsName":"","lineName":"10kV温仁线579","pubTranName":"温仁中学1,1温仁内7号,1温仁内5,1温仁内10,1温仁内15,1温仁内17,温仁幼儿园1,1温仁内3,1温仁内6,1温仁内25,1温仁内11,1温仁内26,1温仁内19,温仁小学2,2温仁二站外9【纯农排变】,温仁小学1,延福桥内1号,1温仁内4,1温仁内21,1温仁内23,1温仁内16,温仁幼儿园2,1温仁内13,温仁中学2,1温仁内22,1温仁内8,1温仁内9,1温仁内2,1温仁内27,1温仁内24,1温仁内1,温仁中学4,温仁中学3,1温仁内14,1温仁内18,1温仁内12,","scope":"【影响街道/乡镇】温仁乡 【高危重要客户】无 【影响客户】良寨、温仁、延福桥、南孟庄","startTime":"2020-05-04 05:07:48","stopDate":"2020-05-04 07:30:00","orgNo":"1340618","typeCode":"电网故障停限电","poweroffArea":"【全线路停电】停110kV温仁变电站10kV温仁线579线路全线，清苑县电力局,1温仁内7号,温仁中学1,2温仁六站外5【纯农排变】,2温仁六站外8【纯农排变】,1温仁内5,保定市凯运新型建材制造有限公司,保定凯利印刷有限公司01,温仁水厂,保定市凯运新型建材制造有限公司01,1温仁内10,1温仁内15,保定莱盛打印机配件有限公司01,保定市清苑区温仁镇温仁幼儿园,2温仁二站外7【纯农排变】,1温仁内3,2温仁三站外3【纯农排变】,2温仁一站外11【纯农排变】,1温仁内6,1温仁内25,中石化河北建投天然气有限公司,1温仁内11,1温仁内26,东风面粉厂,1温仁内19,保定凯利印刷有限公司,2温仁六站外13【纯农排变】,凯峰织布厂,2温仁三站外6【纯农排变】,2温仁三站外8【纯农排变】,温仁小学2,2温仁六站外15【纯农排变】,0571015250-清苑县康达塑料制品厂-专变-119516202-清苑县康达塑料制品厂,2温仁一站外2【纯农排变】,2温仁三站外9【纯农排变】,2温仁二站外2【纯农排变】,1温仁内16,2温仁二站外5【纯农排变】,2良寨外4【纯农排变】,温仁幼儿园2,温仁福利面粉厂,2温仁六站外3【纯农排变】,保定莱盛打印机配件有限公司,2温仁一站外6【纯农排变】,1温仁内17,温仁幼儿园1,2温仁二站外9【纯农排变】,2温仁六站外7【纯农排变】,2温仁三站外4【纯农排变】,温仁小学1,延福桥内1号,2温仁一站外7【纯农排变】,1温仁内4,1温仁内21,0547067421-清苑县萬腾注塑厂-专变-47959877-清苑县万腾蓄电池配件厂,2温仁一站外12【纯农排变】,1温仁内23,2温仁六站外10【纯农排变】,2温仁一站外4,|清苑县新华铸造厂,2温仁二站外4,1温仁内13,温仁中学2,1温仁内22,2温仁六站外2【纯农排变】,1温仁内8,2温仁一站外1【纯农排变】,1温仁内9,国网河北清苑县供电公司王盘供电所,2孟庄外2台区【纯农排变】,2温仁二站外10【纯农排变】,2温仁一站外5【纯农排变】,1温仁内2,延福桥外1台区【纯农排变】,0667680948-清苑县利民加油站-专变-208445891-清苑县利民加油站,保定莱盛打印机配件有限公司03,温仁邮局,1温仁内27,2温仁六站外11【纯农排变】,温仁织布厂,1温仁内24,温仁6站外9,2温仁二站外8【纯农排变】,2温仁六站外6【纯农排变】,2温仁三站外5【纯农排变】,河北省清苑县温仁砼制品加工厂,1温仁内1,2温仁一站外3【纯农排变】,2温仁二站外6【纯农排变】,温仁中学4,温仁中学3,2温仁一站外9【纯农排变】,2温仁三站外2【纯农排变】,2温仁二站外1【纯农排变】,1温仁内14,2温仁一站外8【纯农排变】,2温仁六站外1【纯农排变】,保定莱盛打印机配件有限公司02,2温仁三站外7【纯农排变】,2温仁一站外10【纯农排变】,0547598738-清苑县萬腾注塑厂-专变-48030695-清苑县万腾畜电池配件厂,2孟庄外1台区【纯农排变】,温仁医院,1温仁内18,2温仁六站外9【纯农排变】,1温仁内12,2温仁六站外14【纯农排变】,2温仁六站外4【纯农排变】,2温仁二站外3【纯农排变】","poweroffReason":"【停电原因】由于主干１号杆开关掉闸导致１１０ＫＶ温仁变电站１０ＫＶ温仁线５７９线路全线停电 【变更送电】因抢修进度加快原因，送电时间由１１：００变更为０７：３０ 【发布渠道】通过９５５９８发布","powerTime":"2020-05-04 07:02:57","powerComm":"郝艳荣通知已送电","subsNo":"","lineNo":"","tgNo":"","tgName":null,"infoStatus":"1","orgName":"国网清苑县供电公司","typeName":null,"infoStatusName":null,"dateDay":null,"orgNos":null,"nowTime":null,"countyName":null,"streetName":null,"villageName":null,"roadName":null,"communityName":null,"tranName":null,"sdLineName":null,"cityCode":"1340618","cityName":"国网清苑县供电公司","provinceCode":null,"stopTime":"2020-05-04 07:30:00","powerType":"全部","powerOffArea":"【全线路停电】停110kV温仁变电站10kV温仁线579线路全线，清苑县电力局,1温仁内7号,温仁中学1,2温仁六站外5【纯农排变】,2温仁六站外8【纯农排变】,1温仁内5,保定市凯运新型建材制造有限公司,保定凯利印刷有限公司01,温仁水厂,保定市凯运新型建材制造有限公司01,1温仁内10,1温仁内15,保定莱盛打印机配件有限公司01,保定市清苑区温仁镇温仁幼儿园,2温仁二站外7【纯农排变】,1温仁内3,2温仁三站外3【纯农排变】,2温仁一站外11【纯农排变】,1温仁内6,1温仁内25,中石化河北建投天然气有限公司,1温仁内11,1温仁内26,东风面粉厂,1温仁内19,保定凯利印刷有限公司,2温仁六站外13【纯农排变】,凯峰织布厂,2温仁三站外6【纯农排变】,2温仁三站外8【纯农排变】,温仁小学2,2温仁六站外15【纯农排变】,0571015250-清苑县康达塑料制品厂-专变-119516202-清苑县康达塑料制品厂,2温仁一站外2【纯农排变】,2温仁三站外9【纯农排变】,2温仁二站外2【纯农排变】,1温仁内16,2温仁二站外5【纯农排变】,2良寨外4【纯农排变】,温仁幼儿园2,温仁福利面粉厂,2温仁六站外3【纯农排变】,保定莱盛打印机配件有限公司,2温仁一站外6【纯农排变】,1温仁内17,温仁幼儿园1,2温仁二站外9【纯农排变】,2温仁六站外7【纯农排变】,2温仁三站外4【纯农排变】,温仁小学1,延福桥内1号,2温仁一站外7【纯农排变】,1温仁内4,1温仁内21,0547067421-清苑县萬腾注塑厂-专变-47959877-清苑县万腾蓄电池配件厂,2温仁一站外12【纯农排变】,1温仁内23,2温仁六站外10【纯农排变】,2温仁一站外4,|清苑县新华铸造厂,2温仁二站外4,1温仁内13,温仁中学2,1温仁内22,2温仁六站外2【纯农排变】,1温仁内8,2温仁一站外1【纯农排变】,1温仁内9,国网河北清苑县供电公司王盘供电所,2孟庄外2台区【纯农排变】,2温仁二站外10【纯农排变】,2温仁一站外5【纯农排变】,1温仁内2,延福桥外1台区【纯农排变】,0667680948-清苑县利民加油站-专变-208445891-清苑县利民加油站,保定莱盛打印机配件有限公司03,温仁邮局,1温仁内27,2温仁六站外11【纯农排变】,温仁织布厂,1温仁内24,温仁6站外9,2温仁二站外8【纯农排变】,2温仁六站外6【纯农排变】,2温仁三站外5【纯农排变】,河北省清苑县温仁砼制品加工厂,1温仁内1,2温仁一站外3【纯农排变】,2温仁二站外6【纯农排变】,温仁中学4,温仁中学3,2温仁一站外9【纯农排变】,2温仁三站外2【纯农排变】,2温仁二站外1【纯农排变】,1温仁内14,2温仁一站外8【纯农排变】,2温仁六站外1【纯农排变】,保定莱盛打印机配件有限公司02,2温仁三站外7【纯农排变】,2温仁一站外10【纯农排变】,0547598738-清苑县萬腾注塑厂-专变-48030695-清苑县万腾畜电池配件厂,2孟庄外1台区【纯农排变】,温仁医院,1温仁内18,2温仁六站外9【纯农排变】,1温仁内12,2温仁六站外14【纯农排变】,2温仁六站外4【纯农排变】,2温仁二站外3【纯农排变】","powerOffReason":"【停电原因】由于主干１号杆开关掉闸导致１１０ＫＶ温仁变电站１０ＫＶ温仁线５７９线路全线停电 【变更送电】因抢修进度加快原因，送电时间由１１：００变更为０７：３０ 【发布渠道】通过９５５９８发布","powerOffId":"2020050413000094"},{"poweroffId":2020050413000081,"sgpoweroffId":null,"subsName":"","lineName":"10kV邓庄线513","pubTranName":"邓庄东北,","scope":"【影响街道/乡镇】泗庄镇 【高危重要客户】无 【影响客户】邓庄村","startTime":"2020-05-04 03:30:40","stopDate":"2020-05-04 08:10:00","orgNo":"1340612","typeCode":"电网故障停限电","poweroffArea":"【单台区停电】停邓庄东北","poweroffReason":"【停电原因】由于大车碰线导致３５ＫＶ泗庄变电站１０ＫＶ邓庄５１３线路邓庄东北公变台区停电 【变更送电】因抢修进度加快原因，送电时间由１０：００变更为８：１０ 【发布渠道】通过９５５９８发布","powerTime":"2020-05-04 08:00:52","powerComm":"已送电","subsNo":"","lineNo":"","tgNo":"","tgName":null,"infoStatus":"1","orgName":"国网高碑店市供电公司","typeName":null,"infoStatusName":null,"dateDay":null,"orgNos":null,"nowTime":null,"countyName":null,"streetName":null,"villageName":null,"roadName":null,"communityName":null,"tranName":null,"sdLineName":null,"cityCode":"1340612","cityName":"国网高碑店市供电公司","provinceCode":null,"stopTime":"2020-05-04 08:10:00","powerType":"全部","powerOffArea":"【单台区停电】停邓庄东北","powerOffReason":"【停电原因】由于大车碰线导致３５ＫＶ泗庄变电站１０ＫＶ邓庄５１３线路邓庄东北公变台区停电 【变更送电】因抢修进度加快原因，送电时间由１０：００变更为８：１０ 【发布渠道】通过９５５９８发布","powerOffId":"2020050413000081"},{"poweroffId":2020050413000076,"sgpoweroffId":null,"subsName":"","lineName":"九汲线567","pubTranName":"九汲光2,","scope":"【影响街道/乡镇】固城镇 【影响客户】九汲部分用户","startTime":"2020-05-04 03:19:31","stopDate":"2020-05-04 08:00:00","orgNo":"1340609","typeCode":"电网故障停限电","poweroffArea":"【单台区停电】停２２０ＫＶ柳卓开关站九汲线５６７线路九汲光２公变台区，九汲光2","poweroffReason":"【停电原因】由于九汲光２避雷器烧毁导致２２０ＫＶ柳卓开关站九汲线５６７线路九汲光２公变台区停电 【变更送电】因抢修进度加快原因，送电时间由１０：００变更为０８：００ 【发布渠道】通过９５５９８发布","powerTime":"2020-05-04 07:20:46","powerComm":"已送电","subsNo":"","lineNo":"","tgNo":"","tgName":null,"infoStatus":"1","orgName":"国网定兴县供电公司","typeName":null,"infoStatusName":null,"dateDay":null,"orgNos":null,"nowTime":null,"countyName":null,"streetName":null,"villageName":null,"roadName":null,"communityName":null,"tranName":null,"sdLineName":null,"cityCode":"1340609","cityName":"国网定兴县供电公司","provinceCode":null,"stopTime":"2020-05-04 08:00:00","powerType":"全部","powerOffArea":"【单台区停电】停２２０ＫＶ柳卓开关站九汲线５６７线路九汲光２公变台区，九汲光2","powerOffReason":"【停电原因】由于九汲光２避雷器烧毁导致２２０ＫＶ柳卓开关站九汲线５６７线路九汲光２公变台区停电 【变更送电】因抢修进度加快原因，送电时间由１０：００变更为０８：００ 【发布渠道】通过９５５９８发布","powerOffId":"2020050413000076"},{"poweroffId":2020050413000072,"sgpoweroffId":null,"subsName":"","lineName":"西白涧516","pubTranName":"中罗村4#,西白涧村6#,东白涧村9#,小罗村9#,西白涧村2#,中罗村2#,西罗村4#,东白涧村11号变压器【纯农排变】,东白涧村6#,东白涧村12号变压器,中罗村1#,西白涧村8号变压器,小罗村4#,东白涧村1#,小罗村7#,小罗村8#,东白涧村3#,东罗村1#,西罗村5号变压器,西罗村2#,中罗村3#,西罗村3#,东白涧村5#,西白涧村7#,小罗村3#,东白涧村8#【纯农排变】,小罗村2#,东白涧村4#【纯农排变】,辛旺村7#【纯农排变】,辛旺村6#,东白涧村7#,西白涧村5#,小罗1#,小罗6号,东罗村2#,小罗村5#,","scope":"【影响街道/乡镇】裴山镇【高危重要客户】无【影响客户】东白涧村、舍龙城村、东罗村、中罗村、小罗村、西罗村、西白涧村","startTime":"2020-05-04 03:04:25","stopDate":"2020-05-04 08:00:00","orgNo":"1340625","typeCode":"电网故障停限电","poweroffArea":"【全线路停电】停东白涧村12号变压器,东白涧村1#,易县鑫海矿业有限公司1250KVA,0678209079-易县狼牙山中凯农副产品经销有限公司-专变-217785172-易县狼牙山中凯农副产品经销有限公司-50KVA,河北启明水利水电建筑安装有限公司3号,中罗村4#,西白涧村6#,东白涧村9#,西白涧村委会100,东白涧村4#【纯农排变】,辛旺村7#【纯农排变】,辛旺村6#,东白涧村7#,西白涧村5#,河北启明水利水电建筑安装有限公司7号,中罗村张宗坡100KVA,小罗1#,小罗6号,东白涧村2#【纯农排变】,河北启明水利水电建筑安装有限公司5号,河北启明水利水电建筑安装有限公司4号,西白涧村4#【纯农排变】,刘宝群变压器,10kV西白涧516线小罗村村委会-变压器001#,河北启明水利水电建筑安装有限公司6号,河北启明水利水电建筑安装有限公司8号,小罗村9#,西白涧村2#,史国强变压器,中罗村2#,西罗村4#,东白涧村11号变压器【纯农排变】,东白涧村6#,易县中罗村丰易养鱼场增容200KVA,西罗村1#【纯农排变】,东罗村5#【纯农排变】,北街村3#【纯农排变】,西白涧村8号变压器,东罗村1#,西罗村5号变压器,河北启明水利水电建筑安装有限公司2号,西白涧村1#【纯农排变】,西罗村2#,中罗村3#,舍龙城4#,河北启明水利水电建筑安装有限公司9号,东罗中心小学630KVA,小罗村3#,西白涧村师泉水变压器,易县中罗村丰易养鱼场变压器,河北启明水利水电建筑安装有限公司1号,东白涧村8#【纯农排变】,易县东白涧小雷农机具修理部变压器,永峰石板厂,东白涧渔场(板厂),易县西高砂厂,东罗村2#,10kV西白涧516线靳凤林变压器001#,小罗村5#,中罗村1#,小罗村4#,0649546482-易县永杰农作物种植农民专业合作社-专变-174385930-易县永杰农作物种植农民专业合作社变压器,东白涧村3#,小罗村7#,小罗村8#,易县鑫海矿业有限公司200KVA,西罗村3#,东白涧村5#,西白涧村7#,小罗村2#,西白涧师小鑫80,西白涧村3#【纯农排变】,易县润泽猪饲养有限公司变压器,保定酉兴畜禽养殖有限公司500","poweroffReason":"【停电原因】由于车撞电线杆导致３５ＫＶ裴山变电站西白涧５１６线路全线停电【变更送电】因抢修进度加快原因，送电时间由１０：００变更为０８：００【发布渠道】通过９５５９８发布","powerTime":"2020-05-04 07:10:03","powerComm":"已送电","subsNo":"","lineNo":"","tgNo":"","tgName":null,"infoStatus":"1","orgName":"国网易县供电公司","typeName":null,"infoStatusName":null,"dateDay":null,"orgNos":null,"nowTime":null,"countyName":null,"streetName":null,"villageName":null,"roadName":null,"communityName":null,"tranName":null,"sdLineName":null,"cityCode":"1340625","cityName":"国网易县供电公司","provinceCode":null,"stopTime":"2020-05-04 08:00:00","powerType":"全部","powerOffArea":"【全线路停电】停东白涧村12号变压器,东白涧村1#,易县鑫海矿业有限公司1250KVA,0678209079-易县狼牙山中凯农副产品经销有限公司-专变-217785172-易县狼牙山中凯农副产品经销有限公司-50KVA,河北启明水利水电建筑安装有限公司3号,中罗村4#,西白涧村6#,东白涧村9#,西白涧村委会100,东白涧村4#【纯农排变】,辛旺村7#【纯农排变】,辛旺村6#,东白涧村7#,西白涧村5#,河北启明水利水电建筑安装有限公司7号,中罗村张宗坡100KVA,小罗1#,小罗6号,东白涧村2#【纯农排变】,河北启明水利水电建筑安装有限公司5号,河北启明水利水电建筑安装有限公司4号,西白涧村4#【纯农排变】,刘宝群变压器,10kV西白涧516线小罗村村委会-变压器001#,河北启明水利水电建筑安装有限公司6号,河北启明水利水电建筑安装有限公司8号,小罗村9#,西白涧村2#,史国强变压器,中罗村2#,西罗村4#,东白涧村11号变压器【纯农排变】,东白涧村6#,易县中罗村丰易养鱼场增容200KVA,西罗村1#【纯农排变】,东罗村5#【纯农排变】,北街村3#【纯农排变】,西白涧村8号变压器,东罗村1#,西罗村5号变压器,河北启明水利水电建筑安装有限公司2号,西白涧村1#【纯农排变】,西罗村2#,中罗村3#,舍龙城4#,河北启明水利水电建筑安装有限公司9号,东罗中心小学630KVA,小罗村3#,西白涧村师泉水变压器,易县中罗村丰易养鱼场变压器,河北启明水利水电建筑安装有限公司1号,东白涧村8#【纯农排变】,易县东白涧小雷农机具修理部变压器,永峰石板厂,东白涧渔场(板厂),易县西高砂厂,东罗村2#,10kV西白涧516线靳凤林变压器001#,小罗村5#,中罗村1#,小罗村4#,0649546482-易县永杰农作物种植农民专业合作社-专变-174385930-易县永杰农作物种植农民专业合作社变压器,东白涧村3#,小罗村7#,小罗村8#,易县鑫海矿业有限公司200KVA,西罗村3#,东白涧村5#,西白涧村7#,小罗村2#,西白涧师小鑫80,西白涧村3#【纯农排变】,易县润泽猪饲养有限公司变压器,保定酉兴畜禽养殖有限公司500","powerOffReason":"【停电原因】由于车撞电线杆导致３５ＫＶ裴山变电站西白涧５１６线路全线停电【变更送电】因抢修进度加快原因，送电时间由１０：００变更为０８：００【发布渠道】通过９５５９８发布","powerOffId":"2020050413000072"},{"poweroffId":2020050413000069,"sgpoweroffId":null,"subsName":"","lineName":"贤台线521","pubTranName":"大次韩村内,大马坊中学,小辛庄村内2号,大辛庄村北,西贤台村内,中贤台村内新增,马坊村,小东庄村内（统管）,东贤台村内,留马村东2号,东庄店村南,曹庄村西新增,","scope":"【影响街道/乡镇】贤台乡、大马坊乡、要庄乡 【影响客户】大马坊、中贤台、东贤台、西贤台、小东庄、小辛庄、大次韩、留马、东庄店、国际陆港、国际物流园","startTime":"2020-05-04 03:00:29","stopDate":"2020-05-04 09:30:00","orgNo":"1340617","typeCode":"电网故障停限电","poweroffArea":"【全线路停电】停２２０ＫＶ花庄变电站贤台线５２１线路全线,西贤台村内,中贤台村内新增,马坊村,小东庄村内（统管）,东贤台村内,留马村东2号,东庄店村南,曹庄村西新增,大次韩村内,大马坊中学,小辛庄村内2号,大辛庄村北","poweroffReason":"【停电原因】由于线路接地导致２２０ＫＶ花庄变电站贤台线５２１线路全线停电 【变更送电】因抢修进度加快原因，送电时间由１２：００变更为０９：３０ 【发布渠道】通过９５５９８发布","powerTime":"2020-05-04 08:52:43","powerComm":"已送电","subsNo":"","lineNo":"","tgNo":"","tgName":null,"infoStatus":"1","orgName":"国网满城县供电公司","typeName":null,"infoStatusName":null,"dateDay":null,"orgNos":null,"nowTime":null,"countyName":null,"streetName":null,"villageName":null,"roadName":null,"communityName":null,"tranName":null,"sdLineName":null,"cityCode":"1340617","cityName":"国网满城县供电公司","provinceCode":null,"stopTime":"2020-05-04 09:30:00","powerType":"全部","powerOffArea":"【全线路停电】停２２０ＫＶ花庄变电站贤台线５２１线路全线,西贤台村内,中贤台村内新增,马坊村,小东庄村内（统管）,东贤台村内,留马村东2号,东庄店村南,曹庄村西新增,大次韩村内,大马坊中学,小辛庄村内2号,大辛庄村北","powerOffReason":"【停电原因】由于线路接地导致２２０ＫＶ花庄变电站贤台线５２１线路全线停电 【变更送电】因抢修进度加快原因，送电时间由１２：００变更为０９：３０ 【发布渠道】通过９５５９８发布","powerOffId":"2020050413000069"},{"poweroffId":2020050413000063,"sgpoweroffId":null,"subsName":"","lineName":"釜山线517","pubTranName":"釜山南街2号,釜山南街3号,釜山南街4号,釜山南街5号,北釜山9号,东黑山7号,东黑山9号【纯农排变】,东南街合用【纯农排变】,釜山北街1号【纯农排变】,釜山北街2号,釜山北街3号,釜山北街4号,釜山北街5号【纯农排变】,釜山北街6号,釜山北街7号,釜山北街8号,釜山北街9号,釜山东街10号,釜山东街11号（小学）,釜山东街1号,釜山东街2号,釜山南街6号,釜山南街7号,釜山南街8号,釜山南街9号（幼儿园）,南陈庄13号,南陈庄1号,南陈庄2号,南陈庄3号,南陈庄4号,南陈庄5号,南陈庄6号,南陈庄7号【纯农排变】,南陈庄8号,南陈庄9号,南釜山1号,南釜山2号,南釜山3号【纯农排变】,南釜山4号,南釜山5号,南釜山6号,南釜山7号,西釜山10号,西釜山1号,西釜山2号【纯农排变】,西釜山3号,西釜山4号,西釜山5号,西釜山6号【纯农排变】,西釜山7号【纯农排变】,西釜山8号,西釜山9号,小黑山1号,小黑山3号【纯农排变】,小黑山4号,小黑山5号,小黑山6号,小西庄1号,小西庄2号【纯农排变】,小西庄3号,小西庄4号【纯农排变】,小西庄5号,小西庄6号,小西庄7号【纯农排变】,小西庄8号,南陈庄10号,南陈庄11号,南陈庄12号（小学）,北陈庄1号【纯农排变】,北釜山11号,北釜山12号【纯农排变】,北釜山13号【纯农排变】,北釜山15号,北釜山17号（幼儿园）,北釜山18号,北釜山1号,北釜山2号【纯农排变】,北釜山3号,北釜山4号,北釜山6号,北釜山7号,釜山东街4号,釜山东街5号,釜山东街6号【纯农排变】,釜山东街7号,釜山东街8号,釜山东街9号,釜山南街1号,","scope":"【影响街道/乡镇】大王店镇 【高危重要客户】无 【影响客户】北釜山村、西釜山村、釜山北街村、南陈庄村、小西庄村、北陈庄村、南釜山村、釜山东街村、釜山南街村、小黑山村、东黑山村","startTime":"2020-05-04 02:25:23","stopDate":"2020-05-04 09:00:00","orgNo":"1340605","typeCode":"电网故障停限电","poweroffArea":"【全线路停电】停北陈庄1号【纯农排变】,北釜山11号,北釜山12号【纯农排变】,北釜山13号【纯农排变】,北釜山15号,北釜山17号（幼儿园）,北釜山18号,北釜山1号,北釜山2号【纯农排变】,北釜山3号,北釜山4号,北釜山6号,北釜山7号,北釜山9号,东黑山7号,东黑山9号【纯农排变】,东南街合用【纯农排变】,釜山北街1号【纯农排变】,釜山北街2号,釜山北街3号,釜山北街4号,釜山北街5号【纯农排变】,釜山北街6号,釜山北街7号,釜山北街8号,釜山北街9号,釜山东街10号,釜山东街11号（小学）,釜山东街1号,釜山东街2号,釜山东街4号,釜山东街5号,釜山东街6号【纯农排变】,釜山东街7号,釜山东街8号,釜山东街9号,釜山南街1号,釜山南街2号,釜山南街3号,釜山南街4号,釜山南街5号,釜山南街6号,釜山南街7号,釜山南街8号,釜山南街9号（幼儿园）,南陈庄10号,南陈庄11号,南陈庄12号（小学）,南陈庄13号,南陈庄1号,南陈庄2号,南陈庄3号,南陈庄4号,南陈庄5号,南陈庄6号,南陈庄7号【纯农排变】,南陈庄8号,南陈庄9号,南釜山1号,南釜山2号,南釜山3号【纯农排变】,南釜山4号,南釜山5号,南釜山6号,南釜山7号,西釜山10号,西釜山1号,西釜山2号【纯农排变】,西釜山3号,西釜山4号,西釜山5号,西釜山6号【纯农排变】,西釜山7号【纯农排变】,西釜山8号,西釜山9号,小黑山1号,小黑山3号【纯农排变】,小黑山4号,小黑山5号,小黑山6号,小西庄1号,小西庄2号【纯农排变】,小西庄3号,小西庄4号【纯农排变】,小西庄5号,小西庄6号,小西庄7号【纯农排变】,小西庄8号","poweroffReason":"【停电原因】由于Ｂ相接地导致３５ＫＶ黑山变电站釜山５１７线路全线停电 【变更送电】因抢修进度加快原因，送电时间由１０:００变更为０９:００ 【发布渠道】通过９５５９８发布","powerTime":"2020-05-04 08:03:52","powerComm":"已送电","subsNo":"","lineNo":"","tgNo":"","tgName":null,"infoStatus":"1","orgName":"国网徐水县供电公司","typeName":null,"infoStatusName":null,"dateDay":null,"orgNos":null,"nowTime":null,"countyName":null,"streetName":null,"villageName":null,"roadName":null,"communityName":null,"tranName":null,"sdLineName":null,"cityCode":"1340605","cityName":"国网徐水县供电公司","provinceCode":null,"stopTime":"2020-05-04 09:00:00","powerType":"全部","powerOffArea":"【全线路停电】停北陈庄1号【纯农排变】,北釜山11号,北釜山12号【纯农排变】,北釜山13号【纯农排变】,北釜山15号,北釜山17号（幼儿园）,北釜山18号,北釜山1号,北釜山2号【纯农排变】,北釜山3号,北釜山4号,北釜山6号,北釜山7号,北釜山9号,东黑山7号,东黑山9号【纯农排变】,东南街合用【纯农排变】,釜山北街1号【纯农排变】,釜山北街2号,釜山北街3号,釜山北街4号,釜山北街5号【纯农排变】,釜山北街6号,釜山北街7号,釜山北街8号,釜山北街9号,釜山东街10号,釜山东街11号（小学）,釜山东街1号,釜山东街2号,釜山东街4号,釜山东街5号,釜山东街6号【纯农排变】,釜山东街7号,釜山东街8号,釜山东街9号,釜山南街1号,釜山南街2号,釜山南街3号,釜山南街4号,釜山南街5号,釜山南街6号,釜山南街7号,釜山南街8号,釜山南街9号（幼儿园）,南陈庄10号,南陈庄11号,南陈庄12号（小学）,南陈庄13号,南陈庄1号,南陈庄2号,南陈庄3号,南陈庄4号,南陈庄5号,南陈庄6号,南陈庄7号【纯农排变】,南陈庄8号,南陈庄9号,南釜山1号,南釜山2号,南釜山3号【纯农排变】,南釜山4号,南釜山5号,南釜山6号,南釜山7号,西釜山10号,西釜山1号,西釜山2号【纯农排变】,西釜山3号,西釜山4号,西釜山5号,西釜山6号【纯农排变】,西釜山7号【纯农排变】,西釜山8号,西釜山9号,小黑山1号,小黑山3号【纯农排变】,小黑山4号,小黑山5号,小黑山6号,小西庄1号,小西庄2号【纯农排变】,小西庄3号,小西庄4号【纯农排变】,小西庄5号,小西庄6号,小西庄7号【纯农排变】,小西庄8号","powerOffReason":"【停电原因】由于Ｂ相接地导致３５ＫＶ黑山变电站釜山５１７线路全线停电 【变更送电】因抢修进度加快原因，送电时间由１０:００变更为０９:００ 【发布渠道】通过９５５９８发布","powerOffId":"2020050413000063"},{"poweroffId":2020050413000059,"sgpoweroffId":null,"subsName":"","lineName":"10kV517郑村线","pubTranName":"蠡县振义水泥管道厂变压器,东河恒通皮毛厂,刘庄综合6台区,0552858526-蠡县东河刘程纺织厂-专变-171511201-晓辉变压器,变压器,晓辉变压器,烤鸭店,0657745763-广东长青(集团)蠡县热电有限公司-专变-192886363-广东长青蠡县热电有限公司变压器,刘庄综合5台区,东河丽华皮毛厂,瑞丰建材,蠡县东河悦毅毛绒厂变压器,蠡县喜相逢饮品制造有限公司变压器,刘庄综合4台区,东河综合5台区,蠡县东河亚赛纸箱包装,蠡县天宇毛纺厂,蠡县一诺纺织有限公司变压器,赵佃庄综合1台区,东河南面粉厂,东河赵新乐毛纺厂,天宇毛纺厂,赵佃庄综合16台区,赵佃庄综合15台区,蠡县鑫达纺沙厂,辛兴所路灯3#变压器,腾飞地毯沙厂,保定天龙制衣有限公司,蠡县东河渤润冷库,蠡县永盛毛绒有限公司,赵佃庄综合2台区,赵佃庄综合7台区,赵佃庄综合12台区,东河综合12台区,东河综合11台区,赵佃庄面粉厂,刘庄综合3台区,东河占军毛条厂,幸福家园,兴旺人造皮毛厂变压器,东河综合6台区,蠡县森雅绒毛制品有限公司变压器,东河综合1台区,赵佃庄疏绒厂,赵佃庄综合14台区,蠡县李盛人造皮毛厂,东河东升皮毛厂,0663809082-蠡县森雅绒毛制品有限公司-专变-199222445-蠡县森雅绒毛制品有限公司变压器,东河综合13台区,赵佃庄丝织厂,老四,江海毛纺厂,东河综合3台区,蠡县第一毛绒有限公司,赵佃庄正学毛纺厂,赵佃庄爱军,恒力皮毛厂,东河综合4台区,刘庄综合1台区,赵佃庄砖厂,赵佃庄综合10台区,东河和顺佳苑小区变压器,河北隆达绒毛有限公司,赵佃庄老闷皮毛厂,赵佃庄综合3台区,东河世纪毛纺厂,东河村委会,东河综合10台区,辛兴所路灯4#变压器,刘庄综合2台区,东河综合8台区,14517075|天宇毛纺厂,兴河皮毛厂变压器,福隆纺纱厂,赵佃庄综合5台区,河北隆达绒毛有限公司变压器,张亚东皮毛厂,东河板厂,蠡县东河亚赛纸箱包装厂,保定永盛毛绒有限公司变压器,蠡县东河祥龙绒线厂变压器,赵佃庄综合9台区,蠡县恒通人造皮毛厂,蠡县辛兴镇卫生院,东河李建河,蠡县恒利人造皮毛厂变压器,蠡县成化助剂有限公司,赵佃庄综合8台区,东河恒通皮毛2厂,东河综合7台区,占国沙口,0663809082-蠡县森雅绒毛制品有限公司-专变-200850634-蠡县森雅绒毛制品有限公司,河北润凯纺织有限公司变压器,赵佃庄综合11台区,东河医院,蠡县四龙纺织有限公司变压器,东河综合2台区,赵佃庄综合13台区,0667977279-蠡县辛兴兴农种子门市部-专变-209986603-蠡县辛兴兴农种子门市部变压器,","scope":"【影响街道/乡镇】辛兴镇【高危重要客户】无【影响客户】赵锻庄村、东河村、刘庄村、梁庄村","startTime":"2020-05-04 02:06:08","stopDate":"2020-05-04 13:00:00","orgNo":"1340616","typeCode":"电网故障停限电","poweroffArea":"【全线路停电】停１１０ＫＶ辛兴变电站１０ＫＶ郑村５１７线路全线，蠡县鑫达纺沙厂,河北隆达绒毛有限公司,东河东升皮毛厂,赵佃庄面粉厂,赵佃庄丝织厂,赵佃庄综合2台区,东河综合1台区,赵佃庄综合15台区,张亚东皮毛厂,赵佃庄综合3台区,蠡县振义水泥管道厂变压器,蠡县第一毛绒有限公司,赵佃庄综合5台区,蠡县东河悦毅毛绒厂变压器,蠡县恒利人造皮毛厂变压器,蠡县成化助剂有限公司,刘庄综合6台区,东河赵新乐毛纺厂,东河李建河,赵佃庄综合11台区,蠡县喜相逢饮品制造有限公司变压器,河北隆达绒毛有限公司变压器,蠡县李盛人造皮毛厂,东河综合10台区,刘庄综合1台区,兴旺人造皮毛厂变压器,占国沙口,东河和顺佳苑小区变压器,0552858526-蠡县东河刘程纺织厂-专变-171511201-晓辉变压器,刘庄综合3台区,东河综合12台区,0663809082-蠡县森雅绒毛制品有限公司-专变-199222445-蠡县森雅绒毛制品有限公司变压器,14517075|天宇毛纺厂,刘庄综合4台区,变压器,0667977279-蠡县辛兴兴农种子门市部-专变-209986603-蠡县辛兴兴农种子门市部变压器,东河世纪毛纺厂,赵佃庄综合14台区,赵佃庄综合9台区,老四,辛兴所路灯4#变压器,赵佃庄综合1台区,赵佃庄综合12台区,东河综合4台区,0663809082-蠡县森雅绒毛制品有限公司-专变-200850634-蠡县森雅绒毛制品有限公司,幸福家园,赵佃庄砖厂,0657745763-广东长青(集团)蠡县热电有限公司-专变-192886363-广东长青蠡县热电有限公司变压器,赵佃庄正学毛纺厂,东河板厂,蠡县辛兴镇卫生院,赵佃庄综合8台区,蠡县天宇毛纺厂,赵佃庄综合13台区,保定永盛毛绒有限公司变压器,东河占军毛条厂,东河综合3台区,蠡县森雅绒毛制品有限公司变压器,保定天龙制衣有限公司,东河恒通皮毛厂,东河医院,东河综合6台区,赵佃庄老闷皮毛厂,晓辉变压器,赵佃庄综合10台区,蠡县东河亚赛纸箱包装厂,赵佃庄综合16台区,刘庄综合2台区,兴河皮毛厂变压器,东河综合5台区,江海毛纺厂,烤鸭店,蠡县四龙纺织有限公司变压器,东河综合2台区,蠡县东河祥龙绒线厂变压器,东河综合7台区,蠡县东河亚赛纸箱包装,东河丽华皮毛厂,东河恒通皮毛2厂,瑞丰建材,东河村委会,恒力皮毛厂,东河南面粉厂,东河综合8台区,福隆纺纱厂,腾飞地毯沙厂,赵佃庄疏绒厂,赵佃庄爱军,蠡县东河渤润冷库,东河综合13台区,辛兴所路灯3#变压器,河北润凯纺织有限公司变压器,赵佃庄综合7台区,蠡县一诺纺织有限公司变压器,蠡县永盛毛绒有限公司,刘庄综合5台区,天宇毛纺厂,蠡县恒通人造皮毛厂,东河综合11台区","poweroffReason":"【停电原因】由于线路接地导致１１０ＫＶ辛兴变电站１０ＫＶ郑村５１７线路全线停电【变更送电】无【发布渠道】通过９５５９８发布","powerTime":"2020-05-04 12:12:24","powerComm":"已送电","subsNo":"","lineNo":"","tgNo":"","tgName":null,"infoStatus":"1","orgName":"国网蠡县供电公司","typeName":null,"infoStatusName":null,"dateDay":null,"orgNos":null,"nowTime":null,"countyName":null,"streetName":null,"villageName":null,"roadName":null,"communityName":null,"tranName":null,"sdLineName":null,"cityCode":"1340616","cityName":"国网蠡县供电公司","provinceCode":null,"stopTime":"2020-05-04 13:00:00","powerType":"全部","powerOffArea":"【全线路停电】停１１０ＫＶ辛兴变电站１０ＫＶ郑村５１７线路全线，蠡县鑫达纺沙厂,河北隆达绒毛有限公司,东河东升皮毛厂,赵佃庄面粉厂,赵佃庄丝织厂,赵佃庄综合2台区,东河综合1台区,赵佃庄综合15台区,张亚东皮毛厂,赵佃庄综合3台区,蠡县振义水泥管道厂变压器,蠡县第一毛绒有限公司,赵佃庄综合5台区,蠡县东河悦毅毛绒厂变压器,蠡县恒利人造皮毛厂变压器,蠡县成化助剂有限公司,刘庄综合6台区,东河赵新乐毛纺厂,东河李建河,赵佃庄综合11台区,蠡县喜相逢饮品制造有限公司变压器,河北隆达绒毛有限公司变压器,蠡县李盛人造皮毛厂,东河综合10台区,刘庄综合1台区,兴旺人造皮毛厂变压器,占国沙口,东河和顺佳苑小区变压器,0552858526-蠡县东河刘程纺织厂-专变-171511201-晓辉变压器,刘庄综合3台区,东河综合12台区,0663809082-蠡县森雅绒毛制品有限公司-专变-199222445-蠡县森雅绒毛制品有限公司变压器,14517075|天宇毛纺厂,刘庄综合4台区,变压器,0667977279-蠡县辛兴兴农种子门市部-专变-209986603-蠡县辛兴兴农种子门市部变压器,东河世纪毛纺厂,赵佃庄综合14台区,赵佃庄综合9台区,老四,辛兴所路灯4#变压器,赵佃庄综合1台区,赵佃庄综合12台区,东河综合4台区,0663809082-蠡县森雅绒毛制品有限公司-专变-200850634-蠡县森雅绒毛制品有限公司,幸福家园,赵佃庄砖厂,0657745763-广东长青(集团)蠡县热电有限公司-专变-192886363-广东长青蠡县热电有限公司变压器,赵佃庄正学毛纺厂,东河板厂,蠡县辛兴镇卫生院,赵佃庄综合8台区,蠡县天宇毛纺厂,赵佃庄综合13台区,保定永盛毛绒有限公司变压器,东河占军毛条厂,东河综合3台区,蠡县森雅绒毛制品有限公司变压器,保定天龙制衣有限公司,东河恒通皮毛厂,东河医院,东河综合6台区,赵佃庄老闷皮毛厂,晓辉变压器,赵佃庄综合10台区,蠡县东河亚赛纸箱包装厂,赵佃庄综合16台区,刘庄综合2台区,兴河皮毛厂变压器,东河综合5台区,江海毛纺厂,烤鸭店,蠡县四龙纺织有限公司变压器,东河综合2台区,蠡县东河祥龙绒线厂变压器,东河综合7台区,蠡县东河亚赛纸箱包装,东河丽华皮毛厂,东河恒通皮毛2厂,瑞丰建材,东河村委会,恒力皮毛厂,东河南面粉厂,东河综合8台区,福隆纺纱厂,腾飞地毯沙厂,赵佃庄疏绒厂,赵佃庄爱军,蠡县东河渤润冷库,东河综合13台区,辛兴所路灯3#变压器,河北润凯纺织有限公司变压器,赵佃庄综合7台区,蠡县一诺纺织有限公司变压器,蠡县永盛毛绒有限公司,刘庄综合5台区,天宇毛纺厂,蠡县恒通人造皮毛厂,东河综合11台区","powerOffReason":"【停电原因】由于线路接地导致１１０ＫＶ辛兴变电站１０ＫＶ郑村５１７线路全线停电【变更送电】无【发布渠道】通过９５５９８发布","powerOffId":"2020050413000059"},{"poweroffId":2020050321000099,"sgpoweroffId":null,"subsName":"","lineName":"10kV阮庄站512线路","pubTranName":"0356465616-保定市祥云金属制品有限公司-14#专变,","scope":"【影响街道/乡镇】莲池区阮庄路、钢厂路 【高危重要客户】无 【影响客户】保定森威机械制造有限公司、保定源锋煅压有限公司","startTime":"2020-05-03 20:00:22","stopDate":"2020-05-03 23:00:00","orgNo":"13406","typeCode":"电网故障停限电","poweroffArea":"【全线路停电】停0356183147-保定凯莱先锋硅钙砖建筑新材料有限公司-1#专变,0356465616-保定市祥云金属制品有限公司-4#专变,0356465616-保定市祥云金属制品有限公司-1#专变,0356183147-保定凯莱先锋硅钙砖建筑新材料有限公司-1-配电室-变压器-2,0356465616-保定市祥云金属制品有限公司-11#专变,0356465616-保定市祥云金属制品有限公司-12#专变,0356465616-保定市祥云金属制品有限公司-9#专变,0356465616-保定市祥云金属制品有限公司-10#专变,0356465616-保定市祥云金属制品有限公司-7#专变,0356465616-保定市祥云金属制品有限公司-8#专变,0356465616-保定市祥云金属制品有限公司-5#专变,0356465616-保定市祥云金属制品有限公司-14#专变,0356465616-保定市祥云金属制品有限公司-6#专变,0356465616-保定市祥云金属制品有限公司-3#专变,0356465616-保定市祥云金属制品有限公司-2#专变,0356465616-保定市祥云金属制品有限公司-13#专变","poweroffReason":"【停电原因】由于分支开关短路导致１０ＫＶ阮庄变电站５１２线路全线停电【变更送电】因抢修进度加快，原定23：59送电现计划23:00送电。【发布渠道】通过９５５９８发布","powerTime":"2020-05-03 22:16:58","powerComm":"已送电","subsNo":"","lineNo":"","tgNo":"","tgName":null,"infoStatus":"1","orgName":"保定供电公司","typeName":null,"infoStatusName":null,"dateDay":null,"orgNos":null,"nowTime":null,"countyName":null,"streetName":null,"villageName":null,"roadName":null,"communityName":null,"tranName":null,"sdLineName":null,"cityCode":"13406","cityName":"保定供电公司","provinceCode":null,"stopTime":"2020-05-03 23:00:00","powerType":"全部","powerOffArea":"【全线路停电】停0356183147-保定凯莱先锋硅钙砖建筑新材料有限公司-1#专变,0356465616-保定市祥云金属制品有限公司-4#专变,0356465616-保定市祥云金属制品有限公司-1#专变,0356183147-保定凯莱先锋硅钙砖建筑新材料有限公司-1-配电室-变压器-2,0356465616-保定市祥云金属制品有限公司-11#专变,0356465616-保定市祥云金属制品有限公司-12#专变,0356465616-保定市祥云金属制品有限公司-9#专变,0356465616-保定市祥云金属制品有限公司-10#专变,0356465616-保定市祥云金属制品有限公司-7#专变,0356465616-保定市祥云金属制品有限公司-8#专变,0356465616-保定市祥云金属制品有限公司-5#专变,0356465616-保定市祥云金属制品有限公司-14#专变,0356465616-保定市祥云金属制品有限公司-6#专变,0356465616-保定市祥云金属制品有限公司-3#专变,0356465616-保定市祥云金属制品有限公司-2#专变,0356465616-保定市祥云金属制品有限公司-13#专变","powerOffReason":"【停电原因】由于分支开关短路导致１０ＫＶ阮庄变电站５１２线路全线停电【变更送电】因抢修进度加快，原定23：59送电现计划23:00送电。【发布渠道】通过９５５９８发布","powerOffId":"2020050321000099"},{"poweroffId":2020050313000565,"sgpoweroffId":null,"subsName":"","lineName":"新柳村线523","pubTranName":"新柳西40#农业【纯农排变】,西柳村综合12,西柳村东远46#农业【纯农排变】,西柳村北16#农业【纯农排变】,小冯村新增5号农业【纯农排变】,新柳新增1#（64）农业【纯农排变】,西柳村17#农业【纯农排变】,新柳新增2#（65）农业【纯农排变】,西柳村东综合18,西柳村东50#农业【纯农排变】,西柳小白河23#农业【纯农排变】,新柳东南综合38,西柳村西北综合,西柳村51#农业【纯农排变】,新柳东南19#农业【纯农排变】,边渡口57#农业【纯农排变】,西柳村西综合61,西柳工业区综合,西柳村西(北）63#农业【纯农排变】,新柳东方农场21#农业【纯农排变】,姜齐庄综合11,西柳村里综合,新柳村南新增综合,新柳东方农场22#农业【纯农排变】,西柳村西北9#农业【纯农排变】,西柳村东8#农业【纯农排变】,","scope":"【影响街道/乡镇】庞口镇 【高危重要客户】无 【影响客户】新柳、西柳、边渡口、姜齐庄、文记果园","startTime":"2020-05-03 22:00:09","stopDate":"2020-05-04 00:00:00","orgNo":"1340613","typeCode":"电网故障停限电","poweroffArea":"【分支停电】停西柳村东综合18,西柳村东50#农业【纯农排变】,西柳小白河23#农业【纯农排变】,新柳东南综合38,西柳村西北综合,西柳村51#农业【纯农排变】,新柳东南19#农业【纯农排变】,边渡口57#农业【纯农排变】,西柳村西综合61,西柳工业区综合,西柳村西(北）63#农业【纯农排变】,新柳东方农场21#农业【纯农排变】,姜齐庄综合11,西柳村里综合,新柳村南新增综合,新柳东方农场22#农业【纯农排变】,西柳村西北9#农业【纯农排变】,西柳村东8#农业【纯农排变】,新柳西40#农业【纯农排变】,西柳村综合12,西柳村东远46#农业【纯农排变】,西柳村北16#农业【纯农排变】,小冯村新增5号农业【纯农排变】,新柳新增1#（64）农业【纯农排变】,西柳村17#农业【纯农排变】,新柳新增2#（65）农业【纯农排变】","poweroffReason":"【停电原因】由于１１０ＫＶ西演变电站新柳村５２３线路主线７４号杆７４号开关停电【变更送电】因抢修进度加快原因，送电时间由５月４日８:００变更为５月４日００:００【发布渠道】通过９５５９８发布","powerTime":"2020-05-03 23:20:45","powerComm":"已送电","subsNo":"","lineNo":"","tgNo":"","tgName":null,"infoStatus":"1","orgName":"国网高阳县供电公司","typeName":null,"infoStatusName":null,"dateDay":null,"orgNos":null,"nowTime":null,"countyName":null,"streetName":null,"villageName":null,"roadName":null,"communityName":null,"tranName":null,"sdLineName":null,"cityCode":"1340613","cityName":"国网高阳县供电公司","provinceCode":null,"stopTime":"2020-05-04 00:00:00","powerType":"全部","powerOffArea":"【分支停电】停西柳村东综合18,西柳村东50#农业【纯农排变】,西柳小白河23#农业【纯农排变】,新柳东南综合38,西柳村西北综合,西柳村51#农业【纯农排变】,新柳东南19#农业【纯农排变】,边渡口57#农业【纯农排变】,西柳村西综合61,西柳工业区综合,西柳村西(北）63#农业【纯农排变】,新柳东方农场21#农业【纯农排变】,姜齐庄综合11,西柳村里综合,新柳村南新增综合,新柳东方农场22#农业【纯农排变】,西柳村西北9#农业【纯农排变】,西柳村东8#农业【纯农排变】,新柳西40#农业【纯农排变】,西柳村综合12,西柳村东远46#农业【纯农排变】,西柳村北16#农业【纯农排变】,小冯村新增5号农业【纯农排变】,新柳新增1#（64）农业【纯农排变】,西柳村17#农业【纯农排变】,新柳新增2#（65）农业【纯农排变】","powerOffReason":"【停电原因】由于１１０ＫＶ西演变电站新柳村５２３线路主线７４号杆７４号开关停电【变更送电】因抢修进度加快原因，送电时间由５月４日８:００变更为５月４日００:００【发布渠道】通过９５５９８发布","powerOffId":"2020050313000565"}],"pageModel":{"pageNow":105,"totalCount":10973,"totalPage":1098,"tableRows":0,"pageCount":10,"beginCount":1040},"isExperi":"1"}