{"message":"","today":"2020-06-15","seleList":[{"poweroffId":2020050313000139,"sgpoweroffId":null,"subsName":"","lineName":"10kV南阳513线","pubTranName":"立庄综合4台区变压器,南阳综合7台区变压器,北阳综合1台区变压器,路景综合26台区变压器,","scope":"【影响街道/乡镇】石佛镇 【高危重要客户】无 【影响客户】南阳村、立庄村、路景村、北阳村","startTime":"2020-05-03 12:05:00","stopDate":"2020-05-03 14:10:00","orgNo":"1340606","typeCode":"电网故障停限电","poweroffArea":"【全线路停电】停路景综合26台区变压器,立庄综合4台区变压器,南阳综合7台区变压器,北阳综合1台区变压器","poweroffReason":"【停电原因】由于站内开关掉闸导致３５ＫＶ石佛变电站１０ＫＶ南阳５１３线路全线停电 【变更送电】因抢修进度加快原因，送电时间由１６：００变更为１４：１０ 【发布渠道】通过９５５９８发布","powerTime":"2020-05-03 13:57:42","powerComm":"已送电","subsNo":"","lineNo":"","tgNo":"","tgName":null,"infoStatus":"1","orgName":"国网安国市供电公司","typeName":null,"infoStatusName":null,"dateDay":null,"orgNos":null,"nowTime":null,"countyName":null,"streetName":null,"villageName":null,"roadName":null,"communityName":null,"tranName":null,"sdLineName":null,"cityCode":"1340606","cityName":"国网安国市供电公司","provinceCode":null,"stopTime":"2020-05-03 14:10:00","powerType":"全部","powerOffArea":"【全线路停电】停路景综合26台区变压器,立庄综合4台区变压器,南阳综合7台区变压器,北阳综合1台区变压器","powerOffReason":"【停电原因】由于站内开关掉闸导致３５ＫＶ石佛变电站１０ＫＶ南阳５１３线路全线停电 【变更送电】因抢修进度加快原因，送电时间由１６：００变更为１４：１０ 【发布渠道】通过９５５９８发布","powerOffId":"2020050313000139"},{"poweroffId":2020050313000108,"sgpoweroffId":null,"subsName":"","lineName":"三八六512","pubTranName":"荆轲山4#,荆轲山村8#,荆轲山新增17台区,荆轲山村2#,荆轲山村5#,韩家庄1#,荆轲山村13#,荆轲山村15#村中,荆轲山村6#,西庄1#,荆轲山村16#,荆轲山村11#,荆轲山村1#,荆轲山村14#,荆轲山村3#,西庄2#变压器,荆轲山村7#,荆轲山村9#,荆轲山村12#,荆轲山村10#,","scope":"【影响街道/乡镇】易州镇【高危重要客户】无【影响客户】荆轲山村、韩家庄村、西庄村","startTime":"2020-05-03 10:17:28","stopDate":"2020-05-03 12:00:00","orgNo":"1340625","typeCode":"电网故障停限电","poweroffArea":"【全线路停电】停易县城市管理综合行政执法局800,乾荣房地产开发有限公司变压器,双民石料购销处（李爱明2）南,荆轲山村8#,双民石料购销处（李爱明4）北,荆轲山村高壬寅80,易县王文养殖厂,荆轲山新增17台区,易县青山石料厂(田永刚),易县民政局关荣院-采暖专用400,荆轲山村5#,韩家庄1#,荆轲山村13#,易县天泰房地产开发有限公司变压器,易县创意房地产开发有限公司变压器,双明石料购销处（李爱明3）北,66393部队,荆轲山村15#村中,河北卓泰房地产开发有限公司变压器,乾荣房地产变压器,天泰房地产东区B2000,保定市南水北调工程建设委员会办公室30KVA,荆轲山村6#,386总站,易县荆轲山中心小学-七小630KVA,天泰房地产东区A2000,双民石料购销处（李爱明1）南,西庄1#,易县创意房地产开发有限公司B2500,魏金山计量点,易县天泰房地产开发有限公司2000KVA,荆轲山村16#,孙家庄石料厂,荆轲山村11#,乾荣地产变压器01,万泉房地产开发有限公司B500,荆轲山村1#,乾荣分支001#变压器,荆轲山村14#,万泉房地产开发有限公司A500,石家庄乾荣房地产开发有限公司变压器,荆轲山村3#,范志桐变压器,西庄2#变压器,光荣院,石家庄乾荣房地产开发有限公司,西庄村胡生祥100,易县新农村建设投资有限公司A2000KVA,易县建设局变压器01,易县新农村建设投资有限公司B2000KVA,石油公司,易县民政局光荣院变压器,易县创意房地产开发有限公司A2500,荆轲山4#,荆轲山村2#,永忠工贸(许克海),荆轲山村7#,荆轲山村9#,荆轲山村12#,66287部队,0587164863-易县殡葬管理所-专变-125219237-易县殡葬管理所变压器,北京地矿-石亢村50,荆轲山村10#","poweroffReason":"【停电原因】由于车剐断电线导致３５ＫＶ易水变电站三八六５１２线路全线路停电【变更送电】因抢修进度加快原因，送电时间由１７：００变更为１２：００【发布渠道】通过９５５９８发布","powerTime":"2020-05-03 11:16:04","powerComm":"已送电","subsNo":"","lineNo":"","tgNo":"","tgName":null,"infoStatus":"1","orgName":"国网易县供电公司","typeName":null,"infoStatusName":null,"dateDay":null,"orgNos":null,"nowTime":null,"countyName":null,"streetName":null,"villageName":null,"roadName":null,"communityName":null,"tranName":null,"sdLineName":null,"cityCode":"1340625","cityName":"国网易县供电公司","provinceCode":null,"stopTime":"2020-05-03 12:00:00","powerType":"全部","powerOffArea":"【全线路停电】停易县城市管理综合行政执法局800,乾荣房地产开发有限公司变压器,双民石料购销处（李爱明2）南,荆轲山村8#,双民石料购销处（李爱明4）北,荆轲山村高壬寅80,易县王文养殖厂,荆轲山新增17台区,易县青山石料厂(田永刚),易县民政局关荣院-采暖专用400,荆轲山村5#,韩家庄1#,荆轲山村13#,易县天泰房地产开发有限公司变压器,易县创意房地产开发有限公司变压器,双明石料购销处（李爱明3）北,66393部队,荆轲山村15#村中,河北卓泰房地产开发有限公司变压器,乾荣房地产变压器,天泰房地产东区B2000,保定市南水北调工程建设委员会办公室30KVA,荆轲山村6#,386总站,易县荆轲山中心小学-七小630KVA,天泰房地产东区A2000,双民石料购销处（李爱明1）南,西庄1#,易县创意房地产开发有限公司B2500,魏金山计量点,易县天泰房地产开发有限公司2000KVA,荆轲山村16#,孙家庄石料厂,荆轲山村11#,乾荣地产变压器01,万泉房地产开发有限公司B500,荆轲山村1#,乾荣分支001#变压器,荆轲山村14#,万泉房地产开发有限公司A500,石家庄乾荣房地产开发有限公司变压器,荆轲山村3#,范志桐变压器,西庄2#变压器,光荣院,石家庄乾荣房地产开发有限公司,西庄村胡生祥100,易县新农村建设投资有限公司A2000KVA,易县建设局变压器01,易县新农村建设投资有限公司B2000KVA,石油公司,易县民政局光荣院变压器,易县创意房地产开发有限公司A2500,荆轲山4#,荆轲山村2#,永忠工贸(许克海),荆轲山村7#,荆轲山村9#,荆轲山村12#,66287部队,0587164863-易县殡葬管理所-专变-125219237-易县殡葬管理所变压器,北京地矿-石亢村50,荆轲山村10#","powerOffReason":"【停电原因】由于车剐断电线导致３５ＫＶ易水变电站三八六５１２线路全线路停电【变更送电】因抢修进度加快原因，送电时间由１７：００变更为１２：００【发布渠道】通过９５５９８发布","powerOffId":"2020050313000108"},{"poweroffId":2020050313000095,"sgpoweroffId":null,"subsName":"","lineName":"石井线511","pubTranName":"永安庄新增（统管）,韩庄村内（统管）,抱阳新建庄,西于河村西南,","scope":"【影响街道/乡镇】满城镇 【影响客户】韩家庄村（韩庄村）、抱阳新建庄（小抱阳村）、永安庄村、西于和（河）村","startTime":"2020-05-12 06:00:00","stopDate":"2020-05-12 18:00:00","orgNo":"1340617","typeCode":"计划停电","poweroffArea":"【全线路停电】停１１０ＫＶ杨佐变电站石井线５１１线路全线,永安庄新增（统管）,韩庄村内（统管）,抱阳新建庄,西于河村西南","poweroffReason":"【停电原因】由于线路检修导致１１０ＫＶ杨佐变电站石井线５１１线路全线停电 【变更送电】无 【发布渠道】保定市满城电视台（０５月０３日１９：００－２０：００至０５月１１日１９：００－２０：００之间）屏幕上方滚动","powerTime":"2020-05-12 17:46:52","powerComm":"已送电","subsNo":"","lineNo":"","tgNo":"","tgName":null,"infoStatus":"1","orgName":"国网满城县供电公司","typeName":null,"infoStatusName":null,"dateDay":null,"orgNos":null,"nowTime":null,"countyName":null,"streetName":null,"villageName":null,"roadName":null,"communityName":null,"tranName":null,"sdLineName":null,"cityCode":"1340617","cityName":"国网满城县供电公司","provinceCode":null,"stopTime":"2020-05-12 18:00:00","powerType":"全部","powerOffArea":"【全线路停电】停１１０ＫＶ杨佐变电站石井线５１１线路全线,永安庄新增（统管）,韩庄村内（统管）,抱阳新建庄,西于河村西南","powerOffReason":"【停电原因】由于线路检修导致１１０ＫＶ杨佐变电站石井线５１１线路全线停电 【变更送电】无 【发布渠道】保定市满城电视台（０５月０３日１９：００－２０：００至０５月１１日１９：００－２０：００之间）屏幕上方滚动","powerOffId":"2020050313000095"},{"poweroffId":2020050313000085,"sgpoweroffId":null,"subsName":"","lineName":"南旺线567","pubTranName":"*高新技术专业厂,","scope":"【影响街道/乡镇】张家庄乡 【影响客户】高新技术专业厂","startTime":"2020-05-03 09:43:41","stopDate":"2020-05-03 12:00:00","orgNo":"1340609","typeCode":"电网故障停限电","poweroffArea":"【单台区停电】停１１０ＫＶ贤寓变电站南旺线５６７线路高新技术专业厂公变台区,*高新技术专业厂","poweroffReason":"【停电原因】由于高新技术专业厂配变Ｂ相跌落保险烧毁导致１１０ＫＶ贤寓变电站南旺线５６７线路高新技术专业厂公变台区停电 【变更送电】无 【发布渠道】通过９５５９８发布","powerTime":"2020-05-03 11:15:45","powerComm":"已送电","subsNo":"","lineNo":"","tgNo":"","tgName":null,"infoStatus":"1","orgName":"国网定兴县供电公司","typeName":null,"infoStatusName":null,"dateDay":null,"orgNos":null,"nowTime":null,"countyName":null,"streetName":null,"villageName":null,"roadName":null,"communityName":null,"tranName":null,"sdLineName":null,"cityCode":"1340609","cityName":"国网定兴县供电公司","provinceCode":null,"stopTime":"2020-05-03 12:00:00","powerType":"全部","powerOffArea":"【单台区停电】停１１０ＫＶ贤寓变电站南旺线５６７线路高新技术专业厂公变台区,*高新技术专业厂","powerOffReason":"【停电原因】由于高新技术专业厂配变Ｂ相跌落保险烧毁导致１１０ＫＶ贤寓变电站南旺线５６７线路高新技术专业厂公变台区停电 【变更送电】无 【发布渠道】通过９５５９８发布","powerOffId":"2020050313000085"},{"poweroffId":2020050313000060,"sgpoweroffId":null,"subsName":"","lineName":"电台线514","pubTranName":"长旺新增1号,城内火车站2号,蓝汀园间隔配电变压器,理想城1号间隔配电变压器,煤建家属院,新阳合晟房地产4间隔配电变压器,","scope":"【影响街道/乡镇】满城镇 【影响客户】兰汀园、煤建家属院、城内七队、火车站家属院、理想城小区、兰亭风景、长旺村、阳光城小区、南马村、兰亭竹溪、新二中、兰汀东岸","startTime":"2020-05-05 06:00:00","stopDate":"2020-05-05 18:00:00","orgNo":"1340617","typeCode":"临时停电","poweroffArea":"【全线路停电】停１１０ＫＶ水源变电站电台线５１４线路全线,长旺新增1号,长旺大队,城内火车站2号,蓝汀园间隔配电变压器,理想城1号间隔配电变压器,煤建家属院,新阳合晟房地产4间隔配电变压器","poweroffReason":"【停电原因】由于线路检修导致１１０ＫＶ水源变电站电台线５１４线路全线停电 【变更送电】无 【发布渠道】通过９５５９８发布","powerTime":"2020-05-05 17:32:58","powerComm":"已送电","subsNo":"","lineNo":"","tgNo":"","tgName":null,"infoStatus":"1","orgName":"国网满城县供电公司","typeName":null,"infoStatusName":null,"dateDay":null,"orgNos":null,"nowTime":null,"countyName":null,"streetName":null,"villageName":null,"roadName":null,"communityName":null,"tranName":null,"sdLineName":null,"cityCode":"1340617","cityName":"国网满城县供电公司","provinceCode":null,"stopTime":"2020-05-05 18:00:00","powerType":"全部","powerOffArea":"【全线路停电】停１１０ＫＶ水源变电站电台线５１４线路全线,长旺新增1号,长旺大队,城内火车站2号,蓝汀园间隔配电变压器,理想城1号间隔配电变压器,煤建家属院,新阳合晟房地产4间隔配电变压器","powerOffReason":"【停电原因】由于线路检修导致１１０ＫＶ水源变电站电台线５１４线路全线停电 【变更送电】无 【发布渠道】通过９５５９８发布","powerOffId":"2020050313000060"},{"poweroffId":2020050313000049,"sgpoweroffId":null,"subsName":"","lineName":"10KV522程委线","pubTranName":"10KV522程委线程委40868台区变压器,10kV522程委线522分支40869台区变压器,10kV522程委线26004分支26004台区变压器,10kV522程委线主干26007台区变压器,10kV522程委线42078分支42078台区变压器,10kV522程委线16448分支16448台区变压器,10kV522程委线26005分支26005台区变压器,10kV522程委线主干26006台区变压器,","scope":"【影响街道/乡镇】大程委镇【高危重要客户】无【影响客户】程委","startTime":"2020-05-05 07:00:00","stopDate":"2020-05-05 18:00:00","orgNo":"1340608","typeCode":"临时停电","poweroffArea":"【全线路停电】停110kV程委变电站10kV522程委线26004分支26004台区变压器,10kV522程委线主干26007台区变压器,10kV522程委线42078分支42078台区变压器,10kV522程委线16448分支16448台区变压器,10kV522程委线26005分支26005台区变压器,10kV522程委线主干26006台区变压器,10KV522程委线程委40868台区变压器,10kV522程委线522分支40869台区变压器","poweroffReason":"【停电原因】由于更换低压导线导致１１０ＫＶ程委变电站程委５２２线路全线停电【变更送电】无【发布渠道】通过９５５９８发布","powerTime":"2020-05-05 17:51:29","powerComm":"已送电","subsNo":"","lineNo":"","tgNo":"","tgName":null,"infoStatus":"1","orgName":"国网博野县供电公司","typeName":null,"infoStatusName":null,"dateDay":null,"orgNos":null,"nowTime":null,"countyName":null,"streetName":null,"villageName":null,"roadName":null,"communityName":null,"tranName":null,"sdLineName":null,"cityCode":"1340608","cityName":"国网博野县供电公司","provinceCode":null,"stopTime":"2020-05-05 18:00:00","powerType":"全部","powerOffArea":"【全线路停电】停110kV程委变电站10kV522程委线26004分支26004台区变压器,10kV522程委线主干26007台区变压器,10kV522程委线42078分支42078台区变压器,10kV522程委线16448分支16448台区变压器,10kV522程委线26005分支26005台区变压器,10kV522程委线主干26006台区变压器,10KV522程委线程委40868台区变压器,10kV522程委线522分支40869台区变压器","powerOffReason":"【停电原因】由于更换低压导线导致１１０ＫＶ程委变电站程委５２２线路全线停电【变更送电】无【发布渠道】通过９５５９８发布","powerOffId":"2020050313000049"},{"poweroffId":2020050313000048,"sgpoweroffId":null,"subsName":"","lineName":"10KV520中学线","pubTranName":"10kV520中学线25120变压器,10kV520中学线25072变压器,10kV520中学线41011变压器,10kV520中学线敬老院变压器,10KV520中学线南堤圈25130台区变压器,10kV520中学线41012变压器,10kV520中学线程委30062台区变压器,10kV520中学线25104变压器,","scope":"【影响街道/乡镇】大程委镇【高危重要客户】义利铜厂【影响客户】程委、南堤圈","startTime":"2020-05-05 07:00:00","stopDate":"2020-05-05 18:00:00","orgNo":"1340608","typeCode":"临时停电","poweroffArea":"【分支停电】停110kV程委变电站10kV520中学线25072变压器,程盼增拔丝厂,顺达拔丝厂变压器,刘民英拔丝厂,程委小学IC,李通茂面粉厂30046,博野县第二敬老院,10kV520中学线敬老院变压器,博野县金盾铜材制品有限公司1,博野宏业金属有限公司1,博野县程委知须拔丝厂,博野县益丰金属有限公司1,宏博嘉苑小区,刘建增拔丝厂,博野县永信拔丝厂,10kV520中学线41012变压器,中国联合网络通信有限公司博野县分公司,李选成拔丝厂,博野宏业金属有限公司,10kV520中学线程委30062台区变压器,博野县鑫源线材有限公司,10kV520中学线25104变压器,程树妙拔丝30001,10kV520中学线25105变压器,10kV520中学线25120变压器,南堤圈宋跟跃拔丝,博野县普力丰线材有限公司,10kV520中学线41011变压器,博野县农村信用联社股份有限公司,博野县兴叶拔丝厂,博野县来运拔丝厂,保定科航金属制品有限公司,10KV520中学线南堤圈25130台区变压器,博野县益丰金属有限公司,博野县晓辉五金灯具城,保定卓盛工贸有限公司","poweroffReason":"【停电原因】由于更换低压导线导致１１０ＫＶ程委变电站中学５２０线路１８号杆１号开关以下线路停电【变更送电】无【发布渠道】通过９５５９８发布","powerTime":"2020-05-05 17:51:55","powerComm":"已送电","subsNo":"","lineNo":"","tgNo":"","tgName":null,"infoStatus":"1","orgName":"国网博野县供电公司","typeName":null,"infoStatusName":null,"dateDay":null,"orgNos":null,"nowTime":null,"countyName":null,"streetName":null,"villageName":null,"roadName":null,"communityName":null,"tranName":null,"sdLineName":null,"cityCode":"1340608","cityName":"国网博野县供电公司","provinceCode":null,"stopTime":"2020-05-05 18:00:00","powerType":"全部","powerOffArea":"【分支停电】停110kV程委变电站10kV520中学线25072变压器,程盼增拔丝厂,顺达拔丝厂变压器,刘民英拔丝厂,程委小学IC,李通茂面粉厂30046,博野县第二敬老院,10kV520中学线敬老院变压器,博野县金盾铜材制品有限公司1,博野宏业金属有限公司1,博野县程委知须拔丝厂,博野县益丰金属有限公司1,宏博嘉苑小区,刘建增拔丝厂,博野县永信拔丝厂,10kV520中学线41012变压器,中国联合网络通信有限公司博野县分公司,李选成拔丝厂,博野宏业金属有限公司,10kV520中学线程委30062台区变压器,博野县鑫源线材有限公司,10kV520中学线25104变压器,程树妙拔丝30001,10kV520中学线25105变压器,10kV520中学线25120变压器,南堤圈宋跟跃拔丝,博野县普力丰线材有限公司,10kV520中学线41011变压器,博野县农村信用联社股份有限公司,博野县兴叶拔丝厂,博野县来运拔丝厂,保定科航金属制品有限公司,10KV520中学线南堤圈25130台区变压器,博野县益丰金属有限公司,博野县晓辉五金灯具城,保定卓盛工贸有限公司","powerOffReason":"【停电原因】由于更换低压导线导致１１０ＫＶ程委变电站中学５２０线路１８号杆１号开关以下线路停电【变更送电】无【发布渠道】通过９５５９８发布","powerOffId":"2020050313000048"},{"poweroffId":2020050313000047,"sgpoweroffId":null,"subsName":"","lineName":"10kV513宋庄工业线","pubTranName":"恒业纺织有限公司变压器2,","scope":"【影响街道/乡镇】林堡乡【高危重要客户】无【影响客户】宋庄工业区","startTime":"2020-05-18 06:00:00","stopDate":"2020-05-18 22:00:00","orgNo":"1340616","typeCode":"计划停电","poweroffArea":"【全线路停电】停３５ＫＶ林堡变电站１０ＫＶ宋庄工业５１３线路全线，二涛,顺成棉业,艳军,华泰纺织有限公司,|新金利纺织有限公司,宋庄四台区,小刚织布厂,宋庄浇地,恒业纺织有限公司5,国中织布,二团,恒业纺织有限公司6,跃军,宏业纺织厂,威胜毛纺厂,金鑫纺织有限公司变压器,永发,大水,金鑫纺织有限公司,桂林,宋庄北浇地,新金利纺织有限公司,宋庄北二,鑫达,恒业纺织有限公司3,蠡县宋庄益源棉织厂变压器,恒业纺织有限公司变压器2,恒业纺织变压器1,瑞天纺织,华泽纺织有限公司,旭光毛纺厂","poweroffReason":"【停电原因】由于更换电杆、更换导线导致３５ＫＶ林堡变电站１０ＫＶ宋庄工业５１３线路全线停电【变更送电】因工作量大的原因，送电时间由１８：００变更为２２：００【发布渠道】蠡县电视台（０５月１１日至０５月１７日２０：００至２２：００之间）屏幕上方滚动　　","powerTime":"2020-05-18 21:39:46","powerComm":"已送电","subsNo":"","lineNo":"","tgNo":"","tgName":null,"infoStatus":"1","orgName":"国网蠡县供电公司","typeName":null,"infoStatusName":null,"dateDay":null,"orgNos":null,"nowTime":null,"countyName":null,"streetName":null,"villageName":null,"roadName":null,"communityName":null,"tranName":null,"sdLineName":null,"cityCode":"1340616","cityName":"国网蠡县供电公司","provinceCode":null,"stopTime":"2020-05-18 22:00:00","powerType":"全部","powerOffArea":"【全线路停电】停３５ＫＶ林堡变电站１０ＫＶ宋庄工业５１３线路全线，二涛,顺成棉业,艳军,华泰纺织有限公司,|新金利纺织有限公司,宋庄四台区,小刚织布厂,宋庄浇地,恒业纺织有限公司5,国中织布,二团,恒业纺织有限公司6,跃军,宏业纺织厂,威胜毛纺厂,金鑫纺织有限公司变压器,永发,大水,金鑫纺织有限公司,桂林,宋庄北浇地,新金利纺织有限公司,宋庄北二,鑫达,恒业纺织有限公司3,蠡县宋庄益源棉织厂变压器,恒业纺织有限公司变压器2,恒业纺织变压器1,瑞天纺织,华泽纺织有限公司,旭光毛纺厂","powerOffReason":"【停电原因】由于更换电杆、更换导线导致３５ＫＶ林堡变电站１０ＫＶ宋庄工业５１３线路全线停电【变更送电】因工作量大的原因，送电时间由１８：００变更为２２：００【发布渠道】蠡县电视台（０５月１１日至０５月１７日２０：００至２２：００之间）屏幕上方滚动　　","powerOffId":"2020050313000047"},{"poweroffId":2020050313000045,"sgpoweroffId":null,"subsName":"","lineName":"10kV515孙庄线","pubTranName":"杨马庄综合11台区,宋庄综合5台区,林堡综合7台区,杨马庄农排5台区【纯农排变】,宋庄综合6台区,孙庄综合1台区,孙庄综合4台区,杨马庄综合9台区,宋庄综合7台区,孙庄综合2台区,杨马庄综合10台区,杨马庄农排4台区【纯农排变】,孙庄综合5台区,杨马庄综合8台区,宋庄综合1台区,林堡综合14台区,宋庄综合3台区,孙庄综合3台区,杨马庄农排3台区【纯农排变】,宋庄综合2台区,杨马庄综合2台区,宋庄综合4台区,杨马庄综合1台区,","scope":"【影响街道/乡镇】林堡乡【高危重要客户】无【影响客户】孙庄村、宋庄村、杨马庄村","startTime":"2020-05-18 06:00:00","stopDate":"2020-05-18 22:00:00","orgNo":"1340616","typeCode":"计划停电","poweroffArea":"【全线路停电】停３５ＫＶ林堡变电站１０ＫＶ孙庄５１５线路全线，蠡县达盛纺织厂变压器,杨马庄综合10台区,宋庄西浇地,建成织布,宋庄综合6台区,建国,0546610927-蠡县宏源纺织有限公司-专变-48017880-宋庄兴达棉织厂变压器,孙庄浇地2,孙庄织布,孙庄6号,孙庄3台区,宋庄综合3台区,孙庄综合5台区,孙庄综合1台区,孙庄4台区,杨马庄农排3台区【纯农排变】,孙庄浇地1号,孙庄7号,杨马庄农排5台区【纯农排变】,建修华盛棉织,板厂,兴达,华泽,杨马庄综合9台区,孙庄综合3台区,杨马庄综合1台区,蠡县瑞祥纺织厂变压器,蠡县林堡乡宋庄小学变压器,蠡县润通纺织有限公司变压器,杨马庄综合8台区,宋庄综合4台区,孙庄综合2台区,宋庄综合7台区,0469456501-蠡县泽丰纺织有限公司-专变-214329266-蠡县泽丰纺织有限公司变压器,宋庄综合1台区,宋庄综合2台区,宋庄村北变压器,杨马庄综合2台区,林堡4号,林北一,孙庄综合4台区,杨马庄农排7台区【纯农排变】,林堡面粉厂,杨马庄综合11台区,二军浇地,林堡综合14台区,林堡3号,0618194577-蠡县润仕纺织有限公司-专变-208418455-蠡县润仕纺织有限公司,中国移动通信集团河北有限公司蠡县分公司变压器,0667625530-蠡县林堡乡宋家庄村卫生室-专变-208434804-蠡县林堡乡宋家庄村卫生室,林堡综合7台区,宋庄综合5台区,蠡县益源棉织厂变压器,蠡县瑞合纺织有限公司变压器,林北二,杨马庄农排6台区【纯农排变】,杨马庄农排4台区【纯农排变】","poweroffReason":"【停电原因】由于更换电杆、更换导线导致３５ＫＶ林堡变电站１０ＫＶ孙庄５１５线路全线停电【变更送电】因工作量大的原因，送电时间由１８：００变更为２２：００【发布渠道】蠡县电视台（０５月１１日至０５月１７日２０：００至２２：００之间）屏幕上方滚动","powerTime":"2020-05-18 21:40:00","powerComm":"已送电","subsNo":"","lineNo":"","tgNo":"","tgName":null,"infoStatus":"1","orgName":"国网蠡县供电公司","typeName":null,"infoStatusName":null,"dateDay":null,"orgNos":null,"nowTime":null,"countyName":null,"streetName":null,"villageName":null,"roadName":null,"communityName":null,"tranName":null,"sdLineName":null,"cityCode":"1340616","cityName":"国网蠡县供电公司","provinceCode":null,"stopTime":"2020-05-18 22:00:00","powerType":"全部","powerOffArea":"【全线路停电】停３５ＫＶ林堡变电站１０ＫＶ孙庄５１５线路全线，蠡县达盛纺织厂变压器,杨马庄综合10台区,宋庄西浇地,建成织布,宋庄综合6台区,建国,0546610927-蠡县宏源纺织有限公司-专变-48017880-宋庄兴达棉织厂变压器,孙庄浇地2,孙庄织布,孙庄6号,孙庄3台区,宋庄综合3台区,孙庄综合5台区,孙庄综合1台区,孙庄4台区,杨马庄农排3台区【纯农排变】,孙庄浇地1号,孙庄7号,杨马庄农排5台区【纯农排变】,建修华盛棉织,板厂,兴达,华泽,杨马庄综合9台区,孙庄综合3台区,杨马庄综合1台区,蠡县瑞祥纺织厂变压器,蠡县林堡乡宋庄小学变压器,蠡县润通纺织有限公司变压器,杨马庄综合8台区,宋庄综合4台区,孙庄综合2台区,宋庄综合7台区,0469456501-蠡县泽丰纺织有限公司-专变-214329266-蠡县泽丰纺织有限公司变压器,宋庄综合1台区,宋庄综合2台区,宋庄村北变压器,杨马庄综合2台区,林堡4号,林北一,孙庄综合4台区,杨马庄农排7台区【纯农排变】,林堡面粉厂,杨马庄综合11台区,二军浇地,林堡综合14台区,林堡3号,0618194577-蠡县润仕纺织有限公司-专变-208418455-蠡县润仕纺织有限公司,中国移动通信集团河北有限公司蠡县分公司变压器,0667625530-蠡县林堡乡宋家庄村卫生室-专变-208434804-蠡县林堡乡宋家庄村卫生室,林堡综合7台区,宋庄综合5台区,蠡县益源棉织厂变压器,蠡县瑞合纺织有限公司变压器,林北二,杨马庄农排6台区【纯农排变】,杨马庄农排4台区【纯农排变】","powerOffReason":"【停电原因】由于更换电杆、更换导线导致３５ＫＶ林堡变电站１０ＫＶ孙庄５１５线路全线停电【变更送电】因工作量大的原因，送电时间由１８：００变更为２２：００【发布渠道】蠡县电视台（０５月１１日至０５月１７日２０：００至２２：００之间）屏幕上方滚动","powerOffId":"2020050313000045"},{"poweroffId":2020050313000043,"sgpoweroffId":null,"subsName":"","lineName":"10kV514林堡线","pubTranName":"林堡综合1台区,林堡综合18台区【冬季供暖设施】,林堡综合19台,林堡综合6台区,林堡综合15台区,林堡综合20台区,林堡综合10台区,林堡综合4台区,林堡综合12台区,宋庄综合8台区,林堡综合8台区,林堡综合16台区,林堡综合5台区,林堡综合11台区,林堡综合9台区,林堡综合13台区,林堡综合3台区,林堡综合2台区,","scope":"【影响街道/乡镇】林堡乡【高危重要客户】无【影响客户】林堡村","startTime":"2020-05-18 06:00:00","stopDate":"2020-05-18 22:00:00","orgNo":"1340616","typeCode":"计划停电","poweroffArea":"【全线路停电】停３５ＫＶ林堡变电站１０ＫＶ林堡５１４线路全线，林堡综合12台区,宋庄综合8台区,宋庄毛纺厂（清飞）,新10号,永旺,林堡站用,砖厂东南2,新四号,胜园,齐根浇地,浇地2号,占利,新5号,马军板厂,林堡综合1台区,宋庄水泥构件厂变压器,林堡综合10台区,砖厂东南1,林堡综合4台区,宋庄板厂,林堡6号,林堡综合8台区,牛厂1号,宋庄南1号,华益,林堡新1号,林堡综合16台区,宋庄南2号,落地3号,新8号,林堡2号,林堡综合5台区,新9号,林堡综合11台区,浇地5号,蠡县宋庄恒威棉织厂变压器,宋庄砖厂,猪厂7号,东子,林堡综合9台区,新3号,林堡综合13台区,林堡新4号,荣顺祥,林堡综合2台区,林堡新2号,林堡综合6台区,林堡综合20台区,小新鸡厂,新6号,林堡1号,林堡5号,大柳树农场,华泽纺织有限公司,林堡综合15台区,林堡综合3台区,双乐团绒,蠡县瑞和果蔬农民专业合作社,林堡综合18台区【冬季供暖设施】,林堡综合19台,蠡县变压器,保定弘茂纺织厂","poweroffReason":"【停电原因】由于更换电杆、更换导线导致３５ＫＶ林堡变电站１０ＫＶ林堡５１４线路全线停电【变更送电】因工作量大的原因，送电时间由１８：００变更为２２：００【发布渠道】蠡县电视台（０５月１１日至０５月１７日２０：００至２２：００之间）屏幕上方滚动　　　","powerTime":"2020-05-18 21:40:15","powerComm":"已送电","subsNo":"","lineNo":"","tgNo":"","tgName":null,"infoStatus":"1","orgName":"国网蠡县供电公司","typeName":null,"infoStatusName":null,"dateDay":null,"orgNos":null,"nowTime":null,"countyName":null,"streetName":null,"villageName":null,"roadName":null,"communityName":null,"tranName":null,"sdLineName":null,"cityCode":"1340616","cityName":"国网蠡县供电公司","provinceCode":null,"stopTime":"2020-05-18 22:00:00","powerType":"全部","powerOffArea":"【全线路停电】停３５ＫＶ林堡变电站１０ＫＶ林堡５１４线路全线，林堡综合12台区,宋庄综合8台区,宋庄毛纺厂（清飞）,新10号,永旺,林堡站用,砖厂东南2,新四号,胜园,齐根浇地,浇地2号,占利,新5号,马军板厂,林堡综合1台区,宋庄水泥构件厂变压器,林堡综合10台区,砖厂东南1,林堡综合4台区,宋庄板厂,林堡6号,林堡综合8台区,牛厂1号,宋庄南1号,华益,林堡新1号,林堡综合16台区,宋庄南2号,落地3号,新8号,林堡2号,林堡综合5台区,新9号,林堡综合11台区,浇地5号,蠡县宋庄恒威棉织厂变压器,宋庄砖厂,猪厂7号,东子,林堡综合9台区,新3号,林堡综合13台区,林堡新4号,荣顺祥,林堡综合2台区,林堡新2号,林堡综合6台区,林堡综合20台区,小新鸡厂,新6号,林堡1号,林堡5号,大柳树农场,华泽纺织有限公司,林堡综合15台区,林堡综合3台区,双乐团绒,蠡县瑞和果蔬农民专业合作社,林堡综合18台区【冬季供暖设施】,林堡综合19台,蠡县变压器,保定弘茂纺织厂","powerOffReason":"【停电原因】由于更换电杆、更换导线导致３５ＫＶ林堡变电站１０ＫＶ林堡５１４线路全线停电【变更送电】因工作量大的原因，送电时间由１８：００变更为２２：００【发布渠道】蠡县电视台（０５月１１日至０５月１７日２０：００至２２：００之间）屏幕上方滚动　　　","powerOffId":"2020050313000043"}],"pageModel":{"pageNow":109,"totalCount":10973,"totalPage":1098,"tableRows":0,"pageCount":10,"beginCount":1080},"isExperi":"1"}