{"message":"","today":"2020-06-15","seleList":[{"poweroffId":2020043013000398,"sgpoweroffId":null,"subsName":"","lineName":"10kV520李辛庄线","pubTranName":"李辛庄公用照明8台区,李辛庄公用照明10台区,李辛庄公用照明16台区,李辛庄公用农业2台区【纯农排变】,李辛庄公用照明5台区,李辛庄公用照明6台区,李辛庄公用照明11台区,李辛庄公用农业1台区,李辛庄公用照明4台区,李辛庄公用照明7台区,李辛庄公用照明17台区,李辛庄公用照明9台区,李辛庄公用照明14台区,李辛庄公用照明15台区,","scope":"【影响街道/乡镇】高蓬镇【影响客户】李辛庄","startTime":"2020-05-14 07:00:00","stopDate":"2020-05-14 18:00:00","orgNo":"1340610","typeCode":"计划停电","poweroffArea":"【全线路停电】停１１０ＫＶ李亲顾变电站１０ＫＶ５２０李辛庄线路全线，李辛庄公用农业2台区【纯农排变】,李辛庄公用照明5台区,李辛庄公用照明6台区,李辛庄公用照明11台区,李辛庄公用农业1台区,李辛庄公用照明4台区,李辛庄公用照明7台区,李辛庄公用照明17台区,李辛庄公用照明9台区,李辛庄公用照明14台区,李辛庄公用照明15台区,李辛庄公用照明8台区,李辛庄公用照明10台区,李辛庄公用照明16台区","poweroffReason":"【停电原因】由于更换低压导线导致１１０ＫＶ李亲顾变电站１０ＫＶ５２０李辛庄线路全线停电 【变更送电】无 【发布渠道】河北省定州市定州日报第三版（２０２０年０５月０１日）","powerTime":"2020-05-14 17:56:17","powerComm":"已送电","subsNo":"","lineNo":"","tgNo":"","tgName":null,"infoStatus":"1","orgName":"国网定州市供电公司","typeName":null,"infoStatusName":null,"dateDay":null,"orgNos":null,"nowTime":null,"countyName":null,"streetName":null,"villageName":null,"roadName":null,"communityName":null,"tranName":null,"sdLineName":null,"cityCode":"1340610","cityName":"国网定州市供电公司","provinceCode":null,"stopTime":"2020-05-14 18:00:00","powerType":"全部","powerOffArea":"【全线路停电】停１１０ＫＶ李亲顾变电站１０ＫＶ５２０李辛庄线路全线，李辛庄公用农业2台区【纯农排变】,李辛庄公用照明5台区,李辛庄公用照明6台区,李辛庄公用照明11台区,李辛庄公用农业1台区,李辛庄公用照明4台区,李辛庄公用照明7台区,李辛庄公用照明17台区,李辛庄公用照明9台区,李辛庄公用照明14台区,李辛庄公用照明15台区,李辛庄公用照明8台区,李辛庄公用照明10台区,李辛庄公用照明16台区","powerOffReason":"【停电原因】由于更换低压导线导致１１０ＫＶ李亲顾变电站１０ＫＶ５２０李辛庄线路全线停电 【变更送电】无 【发布渠道】河北省定州市定州日报第三版（２０２０年０５月０１日）","powerOffId":"2020043013000398"},{"poweroffId":2020043013000376,"sgpoweroffId":null,"subsName":"","lineName":"10kV火炬街549","pubTranName":"司法局家属院0637变压器,电力局家属院（徐里营供电所）（2）,范阳东路公用变压器,建委家属楼4121变压器,高速交警家属院3829,电力局家属院（开发区供电所）变压器,电力局家属院（徐里营供电所）（3）,审计局小区0664变压器,X9号箱变六间房间隔FK01配电变压器,玫瑰北街3677【纯农排变】,金城花园601台区,","scope":"【影响街道/乡镇】徐里营城区玫瑰北街、火炬南街、自强街、平安北街、范阳东路 【影响客户】六间房、交警大队、高速交警家属院、金城花园、审计局小区、烟草公司、豪门庄园、检察院家属院、财达证券、公安局家属院、世纪嘉园小区、邮政局小区、唐人花园、法院家属院、电力局家属院、技术监督局、建委家属院、司法局家属院、光明小区、国税局、涿州市幼儿园、宏远裕隆小区、同善园、规划建设局、铁路十八局、伯力恒小区、红杏生态园、惠友康庭、天地新城、御景园、物探家园、玫瑰家园、国税局家属院、高速路家属院、证券小区、新府阳光小区、东方家园、怡海家园、京第银座","startTime":"2020-05-10 06:00:00","stopDate":"2020-05-10 18:00:00","orgNo":"1340626","typeCode":"计划停电","poweroffArea":"【全线路停电】停１１０ＫＶ安泰变电站１０ＫＶ火炬街５４９线路全线，电力局家属院（开发区供电所）变压器,东方建设基地,涿州市凡尘休闲健身服务有限公司,0387555751-保定宝发发品有限公司-专变-45355620-保定宝发发品有限公司,审计局小区0664变压器,涿州市鹏润房地产开发公司,涿州市交通局运输管理站,涿州市中房钢结构有限公司,0387554309-唐人花园-专变-45355692-唐人花园,金城花园601台区,豪门庄园,烟草公司,河北惠友商业连锁发展有限公司2,0586411199-北京田家园房地产开发有限公司涿州分公司-专变-125129399-北京田家园房地产开发有限公司涿州分公司,中国煤炭地质总局地球物理勘探研究院1600,涿州开发区规划建设局物探局门口西南角,0387554077-河北省高速公路公安交通警察总队一支队涿州-专变-45355831-河北省高速公路公安交通警察总队一支队涿州,东方生物（西）,玫瑰北街3677【纯农排变】,0387555647-涿州市京兴装饰工程有限公司-专变-45355657-京兴装饰工程公司,张段庄布厂,涿州市红杏生态园有限公司1,冀星公司涿州管理处,东乐药厂,涿州郡凤凰房地产开发有限公司1,0574519146-涿州金利房地产开发有限公司-专变-123023693-涿州市金利房地产开发有限公司消防用电,电力局办公楼,涿州市鑫鑫源工贸有限公司,冀星公司涿州管理处(高速路家属院)1,建委家属楼4121变压器,涿州市伯力恒房地产开发有限公司,X9号箱变六间房间隔FK01配电变压器,河北丰华重工机电设备制造有限公司涿州分公,物探局特勘处1,物探局特勘处2,财达证?还？,邮政局,0686000888-涿州市南海鱼村房地产开发有限公司-专变-226234059-涿州市南海鱼村房地产开发有限公司,涿州市天择机械厂(北),河北省涿州市远方名流房地产开发有限公司549,物探局8号院,电力局家属院（徐里营供电所）（2）,涿州市永泰机械厂,涿州市宏远房地产开发有限公司,涿州市京热热力有限责任公司,国税局,0649295951-涿州市伯力恒集团房地产开发有限公司-专变-174506908-涿州市伯力恒集团房地产开发有限公司1,0387553928-河北省涿州开发区管理委员会-专变-45355852-开发区管委会,涿州市郡凤凰房地产开发有限公司1,技术监督局,涿州市法院,涿州郡凤凰房地产开发有限公司4,公安局家属院,涿州市幼儿园,电力局家属院（徐里营供电所）（3）,物探局8号院1,检察院,涿州郡凤凰房地产开发有限公司-2,范阳东路公用变压器,公安局,铁路十八局一处,0607156256-河北省涿州开发区管理委员会-专变-127414742-河北省涿州市开发区管理委员会,涿州郡凤凰房地产开发有限公司2,涿州郡凤凰房地产开发有限公司3,涿州市鹏华房地产开发有限公司,涿州市开发区市政工程处,涿州鑫罡机械制造有限公司,海天之恋音乐广场,司法局家属院0637变压器,高速交警涿州大队院内,高速交警家属院3829,河北省涿州市开发区管理委员会,涿州市郡凤凰房地产开发有限公司2,0649295951-涿州市伯力恒集团房地产开发有限公司-专变-174509363-涿州市伯力恒集团房地产开发有限公司2,涿州市新兴伟业房地产开发有限公司,涿州郡凤凰房地产开发有限公司范阳中路590号-1,涿州开发区规划建设局冀星高速门口东侧,世纪嘉园小区","poweroffReason":"【停电原因】由于线路清扫导致１１０ＫＶ安泰变电站１０ＫＶ火炬街５４９线路全线停电 【变更送电】无 【发布渠道】涿州市涿州电视台（０４月３０日至０５月０９日２１：００播放２次）屏幕上方滚动","powerTime":"2020-05-10 17:23:00","powerComm":"恢复送电","subsNo":"","lineNo":"","tgNo":"","tgName":null,"infoStatus":"1","orgName":"国网涿州市供电公司","typeName":null,"infoStatusName":null,"dateDay":null,"orgNos":null,"nowTime":null,"countyName":null,"streetName":null,"villageName":null,"roadName":null,"communityName":null,"tranName":null,"sdLineName":null,"cityCode":"1340626","cityName":"国网涿州市供电公司","provinceCode":null,"stopTime":"2020-05-10 18:00:00","powerType":"全部","powerOffArea":"【全线路停电】停１１０ＫＶ安泰变电站１０ＫＶ火炬街５４９线路全线，电力局家属院（开发区供电所）变压器,东方建设基地,涿州市凡尘休闲健身服务有限公司,0387555751-保定宝发发品有限公司-专变-45355620-保定宝发发品有限公司,审计局小区0664变压器,涿州市鹏润房地产开发公司,涿州市交通局运输管理站,涿州市中房钢结构有限公司,0387554309-唐人花园-专变-45355692-唐人花园,金城花园601台区,豪门庄园,烟草公司,河北惠友商业连锁发展有限公司2,0586411199-北京田家园房地产开发有限公司涿州分公司-专变-125129399-北京田家园房地产开发有限公司涿州分公司,中国煤炭地质总局地球物理勘探研究院1600,涿州开发区规划建设局物探局门口西南角,0387554077-河北省高速公路公安交通警察总队一支队涿州-专变-45355831-河北省高速公路公安交通警察总队一支队涿州,东方生物（西）,玫瑰北街3677【纯农排变】,0387555647-涿州市京兴装饰工程有限公司-专变-45355657-京兴装饰工程公司,张段庄布厂,涿州市红杏生态园有限公司1,冀星公司涿州管理处,东乐药厂,涿州郡凤凰房地产开发有限公司1,0574519146-涿州金利房地产开发有限公司-专变-123023693-涿州市金利房地产开发有限公司消防用电,电力局办公楼,涿州市鑫鑫源工贸有限公司,冀星公司涿州管理处(高速路家属院)1,建委家属楼4121变压器,涿州市伯力恒房地产开发有限公司,X9号箱变六间房间隔FK01配电变压器,河北丰华重工机电设备制造有限公司涿州分公,物探局特勘处1,物探局特勘处2,财达证?还？,邮政局,0686000888-涿州市南海鱼村房地产开发有限公司-专变-226234059-涿州市南海鱼村房地产开发有限公司,涿州市天择机械厂(北),河北省涿州市远方名流房地产开发有限公司549,物探局8号院,电力局家属院（徐里营供电所）（2）,涿州市永泰机械厂,涿州市宏远房地产开发有限公司,涿州市京热热力有限责任公司,国税局,0649295951-涿州市伯力恒集团房地产开发有限公司-专变-174506908-涿州市伯力恒集团房地产开发有限公司1,0387553928-河北省涿州开发区管理委员会-专变-45355852-开发区管委会,涿州市郡凤凰房地产开发有限公司1,技术监督局,涿州市法院,涿州郡凤凰房地产开发有限公司4,公安局家属院,涿州市幼儿园,电力局家属院（徐里营供电所）（3）,物探局8号院1,检察院,涿州郡凤凰房地产开发有限公司-2,范阳东路公用变压器,公安局,铁路十八局一处,0607156256-河北省涿州开发区管理委员会-专变-127414742-河北省涿州市开发区管理委员会,涿州郡凤凰房地产开发有限公司2,涿州郡凤凰房地产开发有限公司3,涿州市鹏华房地产开发有限公司,涿州市开发区市政工程处,涿州鑫罡机械制造有限公司,海天之恋音乐广场,司法局家属院0637变压器,高速交警涿州大队院内,高速交警家属院3829,河北省涿州市开发区管理委员会,涿州市郡凤凰房地产开发有限公司2,0649295951-涿州市伯力恒集团房地产开发有限公司-专变-174509363-涿州市伯力恒集团房地产开发有限公司2,涿州市新兴伟业房地产开发有限公司,涿州郡凤凰房地产开发有限公司范阳中路590号-1,涿州开发区规划建设局冀星高速门口东侧,世纪嘉园小区","powerOffReason":"【停电原因】由于线路清扫导致１１０ＫＶ安泰变电站１０ＫＶ火炬街５４９线路全线停电 【变更送电】无 【发布渠道】涿州市涿州电视台（０４月３０日至０５月０９日２１：００播放２次）屏幕上方滚动","powerOffId":"2020043013000376"},{"poweroffId":2020043013000368,"sgpoweroffId":null,"subsName":"","lineName":"10kV569赵村线","pubTranName":"赵村公用照明3台区,赵村公用照明1台区,赵村公用农业9台区【纯农排变】,赵村公用照明2台区,赵村公用照明6台区,赵村公用照明4台区,","scope":"【影响街道/乡镇】赵村乡【影响客户】赵村","startTime":"2020-05-16 06:50:00","stopDate":"2020-05-16 18:00:00","orgNo":"1340610","typeCode":"计划停电","poweroffArea":"【分支停电】停１１０ＫＶ焦化厂变电站１０ＫＶ５６９赵村线路主干６４号杆１６号隔离开关以下线路，赵村公用照明3台区,赵村公用照明1台区,赵村公用农业9台区【纯农排变】,赵村公用照明2台区,赵村公用照明6台区,赵村公用照明4台区","poweroffReason":"【停电原因】由于更换低压导线导致１１０ＫＶ焦化厂变电站１０ＫＶ５６９赵村线路主干６４号杆１６号隔离开关以下线路停电 【变更送电】无 【发布渠道】河北省定州市定州日报第三版（２０２０年０５月０１日）","powerTime":"2020-05-16 17:51:48","powerComm":"已送电","subsNo":"","lineNo":"","tgNo":"","tgName":null,"infoStatus":"1","orgName":"国网定州市供电公司","typeName":null,"infoStatusName":null,"dateDay":null,"orgNos":null,"nowTime":null,"countyName":null,"streetName":null,"villageName":null,"roadName":null,"communityName":null,"tranName":null,"sdLineName":null,"cityCode":"1340610","cityName":"国网定州市供电公司","provinceCode":null,"stopTime":"2020-05-16 18:00:00","powerType":"全部","powerOffArea":"【分支停电】停１１０ＫＶ焦化厂变电站１０ＫＶ５６９赵村线路主干６４号杆１６号隔离开关以下线路，赵村公用照明3台区,赵村公用照明1台区,赵村公用农业9台区【纯农排变】,赵村公用照明2台区,赵村公用照明6台区,赵村公用照明4台区","powerOffReason":"【停电原因】由于更换低压导线导致１１０ＫＶ焦化厂变电站１０ＫＶ５６９赵村线路主干６４号杆１６号隔离开关以下线路停电 【变更送电】无 【发布渠道】河北省定州市定州日报第三版（２０２０年０５月０１日）","powerOffId":"2020043013000368"},{"poweroffId":2020043013000356,"sgpoweroffId":null,"subsName":"","lineName":"10KV冠云东路548","pubTranName":"河北钢研科技B变压器间隔配电变压器,河北钢研科技C变压器间隔配电变压器,河北钢研科技E变压器间隔配电变压器,","scope":"【影响街道/乡镇】徐里营城区 【影响客户】幸福嘉园、惠友万悦城、京中美居、惠友康庭二期、钻石广场、钻石广场小区、鹏渤牛津花园","startTime":"2020-05-10 06:00:00","stopDate":"2020-05-10 18:00:00","orgNo":"1340626","typeCode":"计划停电","poweroffArea":"【全线路停电】停１１０ＫＶ安泰变电站１０ＫＶ冠云东路５４８线路全线，涿州市鹏盛房地产开发有限公司2,河北钢研科技B变压器间隔配电变压器,涿州市鹏盛房地产开发有限公司4,涿州市鹏盛房地产开发有限公司3,涿州市鹏盛房地产开发有限公司12,涿州市鹏盛房地产开发有限公司9,涿州市惠友房地产开发有限公司2,涿州市鹏盛房地产开发有限公司11,涿州市鹏盛房地产开发有限公司5,涿州市鹏盛房地产开发有限公司14,涿州市鹏盛房地产开发有限公司6,涿州市鹏盛房地产开发有限公司13,涿州市鹏盛房地产开发有限公司7,涿州市惠友房地产开发有限公司3,涿州市鹏盛房地产开发有限公司1,涿州市惠友房地产开发有限公司1,涿州市惠友房地产开发有限公司4,河北钢研科技C变压器间隔配电变压器,涿州市鹏盛房地产开发有限公司8,涿州市鹏盛房地产开发有限公司10,河北钢研科技E变压器间隔配电变压器","poweroffReason":"【停电原因】由于线路清扫导致１１０ＫＶ安泰变电站１０ＫＶ冠云东路５４８线路全线停电 【变更送电】无 【发布渠道】涿州市涿州电视台（０４月３０日至０５月０９日２１：００播放２次）屏幕上方滚动","powerTime":"2020-05-10 17:23:51","powerComm":"恢复送电","subsNo":"","lineNo":"","tgNo":"","tgName":null,"infoStatus":"1","orgName":"国网涿州市供电公司","typeName":null,"infoStatusName":null,"dateDay":null,"orgNos":null,"nowTime":null,"countyName":null,"streetName":null,"villageName":null,"roadName":null,"communityName":null,"tranName":null,"sdLineName":null,"cityCode":"1340626","cityName":"国网涿州市供电公司","provinceCode":null,"stopTime":"2020-05-10 18:00:00","powerType":"全部","powerOffArea":"【全线路停电】停１１０ＫＶ安泰变电站１０ＫＶ冠云东路５４８线路全线，涿州市鹏盛房地产开发有限公司2,河北钢研科技B变压器间隔配电变压器,涿州市鹏盛房地产开发有限公司4,涿州市鹏盛房地产开发有限公司3,涿州市鹏盛房地产开发有限公司12,涿州市鹏盛房地产开发有限公司9,涿州市惠友房地产开发有限公司2,涿州市鹏盛房地产开发有限公司11,涿州市鹏盛房地产开发有限公司5,涿州市鹏盛房地产开发有限公司14,涿州市鹏盛房地产开发有限公司6,涿州市鹏盛房地产开发有限公司13,涿州市鹏盛房地产开发有限公司7,涿州市惠友房地产开发有限公司3,涿州市鹏盛房地产开发有限公司1,涿州市惠友房地产开发有限公司1,涿州市惠友房地产开发有限公司4,河北钢研科技C变压器间隔配电变压器,涿州市鹏盛房地产开发有限公司8,涿州市鹏盛房地产开发有限公司10,河北钢研科技E变压器间隔配电变压器","powerOffReason":"【停电原因】由于线路清扫导致１１０ＫＶ安泰变电站１０ＫＶ冠云东路５４８线路全线停电 【变更送电】无 【发布渠道】涿州市涿州电视台（０４月３０日至０５月０９日２１：００播放２次）屏幕上方滚动","powerOffId":"2020043013000356"},{"poweroffId":2020043013000354,"sgpoweroffId":null,"subsName":"","lineName":"桥梁厂515","pubTranName":"蔡家峪村6#,马圈子村11#,平顶山村5#,马圈子村1#,西清源村6#,蔡家峪村5#,山神庙村3#,蔡家峪村1#,平顶山村2#,西清源村4#,马圈子2#,山神庙6#,平顶山村3#,蔡家峪村8井变压器,山神庙7号变压器,平顶山村1#,马圈子村7#,山神庙村5#,东清源村5#,西清源3#,西清源村2#,蔡家峪村2#,马圈子3#,平顶山村4#,殷家沟村2#,马圈子村9#,西清源村5#,东清源村6#,蔡家峪村7#,西清源村8#,殷家沟村4#,山神庙村4#,西清源村1#,殷家沟村1#,马圈子村5#,西清源10#,蔡家峪乡直,马圈子村8#,山神庙村1#,殷家沟村3#,西清源9#,马圈子村4#,西清源村11#,蔡家峪村3#,马圈子村6#,蔡家峪村4#,东清源村2#,东清源村3#,马圈子村10#,山神庙村2#,","scope":"【影响街道/乡镇】紫荆关镇、蔡家峪乡【高危重要客户】无【影响客户】东清源村、西清源村、蔡家峪村、山神庙村、殷家沟村、马圈子村、平顶山村","startTime":"2020-05-10 08:00:00","stopDate":"2020-05-10 18:00:00","orgNo":"1340625","typeCode":"计划停电","poweroffArea":"【分支停电】停西清源3#,0619915173-中国移动通信集团河北有限公司易县分公司-专变-129035100-中国移动通信集团河北有限公司易县分公司变压器,西清源村2#,蔡家峪村2#,0554193164-易县雷发顺天成石材加工厂-专变-75222837-易县雷发顺天成石材加工厂,平顶山村朱俊江变压器,马圈子3#,西清源10#,山神庙村2#,蔡家峪卫生院80KVA,马圈子村10#,蔡家峪村6#,马圈子村11#,平顶山村5#,金属结构厂2,马圈子村1#,西清源村6#,殷家沟村3#,东清源村5#,平顶山村4#,殷家沟村2#,马圈子村9#,西清源村5#,东清源村6#,蔡家峪村7#,西清源村8#,西清源村11#,易县蔡家峪国有林场50KVA,蔡家峪村3#,马圈子村6#,蔡家峪村4#,东清源村2#,蔡家峪村5#,山神庙村3#,蔡家峪村1#,0579388992-易县太行矿业有限公司-专变-124403513-易县太行矿业有限公司变压器,平顶山村2#,金属结构厂1,西清源村4#,马圈子2#,山神庙7号变压器,平顶山村1#,殷家沟村1#,马圈子村5#,蔡家峪乡直,马圈子村8#,马圈子村4#,平顶山村3#,马圈子村7#,山神庙村5#,山神庙6#,蔡家峪村8井变压器,山神庙村1#,东清源村3#,殷家沟村4#,西清源9#,山神庙村4#,西清源村1#","poweroffReason":"【停电原因】由于线路检修导致３５ＫＶ大兴安变电站桥梁厂５１５线路主干００１＃杆０１＃刀闸以下线路停电【变更送电】无【发布渠道】保定市易县电视台（０５月０１日００：００时至０５月０９日２４：００时之间）屏幕上方滚动　","powerTime":"2020-05-10 17:54:33","powerComm":"已送电","subsNo":"","lineNo":"","tgNo":"","tgName":null,"infoStatus":"1","orgName":"国网易县供电公司","typeName":null,"infoStatusName":null,"dateDay":null,"orgNos":null,"nowTime":null,"countyName":null,"streetName":null,"villageName":null,"roadName":null,"communityName":null,"tranName":null,"sdLineName":null,"cityCode":"1340625","cityName":"国网易县供电公司","provinceCode":null,"stopTime":"2020-05-10 18:00:00","powerType":"全部","powerOffArea":"【分支停电】停西清源3#,0619915173-中国移动通信集团河北有限公司易县分公司-专变-129035100-中国移动通信集团河北有限公司易县分公司变压器,西清源村2#,蔡家峪村2#,0554193164-易县雷发顺天成石材加工厂-专变-75222837-易县雷发顺天成石材加工厂,平顶山村朱俊江变压器,马圈子3#,西清源10#,山神庙村2#,蔡家峪卫生院80KVA,马圈子村10#,蔡家峪村6#,马圈子村11#,平顶山村5#,金属结构厂2,马圈子村1#,西清源村6#,殷家沟村3#,东清源村5#,平顶山村4#,殷家沟村2#,马圈子村9#,西清源村5#,东清源村6#,蔡家峪村7#,西清源村8#,西清源村11#,易县蔡家峪国有林场50KVA,蔡家峪村3#,马圈子村6#,蔡家峪村4#,东清源村2#,蔡家峪村5#,山神庙村3#,蔡家峪村1#,0579388992-易县太行矿业有限公司-专变-124403513-易县太行矿业有限公司变压器,平顶山村2#,金属结构厂1,西清源村4#,马圈子2#,山神庙7号变压器,平顶山村1#,殷家沟村1#,马圈子村5#,蔡家峪乡直,马圈子村8#,马圈子村4#,平顶山村3#,马圈子村7#,山神庙村5#,山神庙6#,蔡家峪村8井变压器,山神庙村1#,东清源村3#,殷家沟村4#,西清源9#,山神庙村4#,西清源村1#","powerOffReason":"【停电原因】由于线路检修导致３５ＫＶ大兴安变电站桥梁厂５１５线路主干００１＃杆０１＃刀闸以下线路停电【变更送电】无【发布渠道】保定市易县电视台（０５月０１日００：００时至０５月０９日２４：００时之间）屏幕上方滚动　","powerOffId":"2020043013000354"},{"poweroffId":2020043013000347,"sgpoweroffId":null,"subsName":"","lineName":"西古线512","pubTranName":"西古县村3#|村中,胜利村3#村中,胜利村5#,胜利村1#|村北,上陈驿村4#村南,鸭子沟村1#|村南,胜利村4#,金坡村1#|村中,鸭子沟村2#|村中,鸭子沟村3#|村东,孟津岭村5#,鸭子沟5#村南庄,胜利村2#|村南,泥瓦铺村1#|村南,金坡村8号变压器,孟津岭村1#|村中,鸭子沟7号变压器,西古县村4#|村西,东古县3#村南,孟津岭村4#,上陈驿村2#村北,西古县7#,东古县村4#村北（综）,孟津岭2#,鸭子沟村4#|村西,泥瓦铺村2#|村北,金坡村9号变压器,西古县村6#村中,西古县村5#村西,东古县村2#|村西,金坡村2#|村东,东古县村1#|村东,上陈驿村3#村北,西古县村2#|村南,金坡村6#|村中,鸭子沟村9#,西古县村1#|村东,鸭子沟6#,鸭子沟村8#,","scope":"【影响街道/乡镇】紫荆关镇、安格庄乡、大龙华乡【高危重要客户】无【影响客户】胜利村、鸭子沟村、泥瓦铺村、东古县村、西古县村、金坡村、孟津岭村、上陈驿村","startTime":"2020-05-04 07:30:00","stopDate":"2020-05-04 16:30:00","orgNo":"1340625","typeCode":"临时停电","poweroffArea":"【分支停电】停金坡村9号变压器,金坡村迎宾阁饭店,易县鑫福源晟矿业有限公司3,易县鑫福源晟矿业有限公司2,易县鑫福源晟矿业有限公司(50),易县鑫福源晟矿业有限公司,保定申城路桥有限责任公司张石高速公路涞源至涞水段第LJM-N13项目部变压器5,胜利村5#,胜利村1#|村北,上陈驿村4#村南,保定申城路桥有限责任公司张石高速公路涞源至涞水段第LJM-N13项目部变压器2,鸭子沟村1#|村南,保定申城路桥有限责任公司张石高速公路涞源至涞水段第LJM-N13项目部变压器1,胜利村4#,金坡村1#|村中,鸭子沟村2#|村中,鸭子沟村3#|村东,孟津岭村5#,西古山庄,鸭子沟5#村南庄,胜利村2#|村南,泥瓦铺村1#|村南,金坡村郝天社变压器,0469486096-易县南湖山铁选厂(杜晓东)-专变-46819946-易县南湖山铁选厂(杜晓东),金坡村8号变压器,0469486269-保定市张石高速公路紫荆关收费站-专变-46819940-张石高速LJM-N12标(东沟),孟津岭村1#|村中,金坡村佟士新变压器,鸭子沟7号变压器,西古县村4#|村西,东古县3#村南,孟津岭村4#,鸭子沟村8#,保定申城路桥有限责任公司张石高速公路涞源至涞水段第LJM-N13项目部变压器4,易县鑫福源晟矿业有限公司1,西古县村3#|村中,胜利村3#村中,孟津岭3#【纯农排变】,上陈驿村2#村北,易县华地山庄酒店有限公司250,西古县7#,东古县村4#村北（综）,孟津岭2#,鸭子沟村4#|村西,上陈驿石材厂,0688753885-易县三利生态旅游开发有限公司-专变-228796369-易县三利生态旅游开发有限公司2号-1250KVA,泥瓦铺村2#|村北,移动基站孟津岭50,保定申城路桥有限责任公司张石高速公路涞源至涞水段第LJM-N13项目部变压器3,西古县村6#村中,西古县村5#村西,东古县村2#|村西,金坡村2#|村东,东古县村桑建志200,易县力达铁选厂,东古县村1#|村东,易县力达铁选厂变压器,易县紫荆关中心小学上陈驿小学200KVA,上陈驿村3#村北,西古县村2#|村南,易县三利生态旅游开发有限公司200KVA,金坡村6#|村中,鸭子沟村9#,西古县村1#|村东,东古山庄,鸭子沟6#","poweroffReason":"【停电原因】由于线路清扫导致１１０ＫＶ上陈驿变电站西古线５１２线路主干００５＃杆０１＃断路器０２＃刀闸以下线路停电【变更送电】无【发布渠道】通过９５５９８发布","powerTime":"2020-05-04 16:29:36","powerComm":"已送电","subsNo":"","lineNo":"","tgNo":"","tgName":null,"infoStatus":"1","orgName":"国网易县供电公司","typeName":null,"infoStatusName":null,"dateDay":null,"orgNos":null,"nowTime":null,"countyName":null,"streetName":null,"villageName":null,"roadName":null,"communityName":null,"tranName":null,"sdLineName":null,"cityCode":"1340625","cityName":"国网易县供电公司","provinceCode":null,"stopTime":"2020-05-04 16:30:00","powerType":"全部","powerOffArea":"【分支停电】停金坡村9号变压器,金坡村迎宾阁饭店,易县鑫福源晟矿业有限公司3,易县鑫福源晟矿业有限公司2,易县鑫福源晟矿业有限公司(50),易县鑫福源晟矿业有限公司,保定申城路桥有限责任公司张石高速公路涞源至涞水段第LJM-N13项目部变压器5,胜利村5#,胜利村1#|村北,上陈驿村4#村南,保定申城路桥有限责任公司张石高速公路涞源至涞水段第LJM-N13项目部变压器2,鸭子沟村1#|村南,保定申城路桥有限责任公司张石高速公路涞源至涞水段第LJM-N13项目部变压器1,胜利村4#,金坡村1#|村中,鸭子沟村2#|村中,鸭子沟村3#|村东,孟津岭村5#,西古山庄,鸭子沟5#村南庄,胜利村2#|村南,泥瓦铺村1#|村南,金坡村郝天社变压器,0469486096-易县南湖山铁选厂(杜晓东)-专变-46819946-易县南湖山铁选厂(杜晓东),金坡村8号变压器,0469486269-保定市张石高速公路紫荆关收费站-专变-46819940-张石高速LJM-N12标(东沟),孟津岭村1#|村中,金坡村佟士新变压器,鸭子沟7号变压器,西古县村4#|村西,东古县3#村南,孟津岭村4#,鸭子沟村8#,保定申城路桥有限责任公司张石高速公路涞源至涞水段第LJM-N13项目部变压器4,易县鑫福源晟矿业有限公司1,西古县村3#|村中,胜利村3#村中,孟津岭3#【纯农排变】,上陈驿村2#村北,易县华地山庄酒店有限公司250,西古县7#,东古县村4#村北（综）,孟津岭2#,鸭子沟村4#|村西,上陈驿石材厂,0688753885-易县三利生态旅游开发有限公司-专变-228796369-易县三利生态旅游开发有限公司2号-1250KVA,泥瓦铺村2#|村北,移动基站孟津岭50,保定申城路桥有限责任公司张石高速公路涞源至涞水段第LJM-N13项目部变压器3,西古县村6#村中,西古县村5#村西,东古县村2#|村西,金坡村2#|村东,东古县村桑建志200,易县力达铁选厂,东古县村1#|村东,易县力达铁选厂变压器,易县紫荆关中心小学上陈驿小学200KVA,上陈驿村3#村北,西古县村2#|村南,易县三利生态旅游开发有限公司200KVA,金坡村6#|村中,鸭子沟村9#,西古县村1#|村东,东古山庄,鸭子沟6#","powerOffReason":"【停电原因】由于线路清扫导致１１０ＫＶ上陈驿变电站西古线５１２线路主干００５＃杆０１＃断路器０２＃刀闸以下线路停电【变更送电】无【发布渠道】通过９５５９８发布","powerOffId":"2020043013000347"},{"poweroffId":2020043013000346,"sgpoweroffId":null,"subsName":"","lineName":"10kV580大奇连线","pubTranName":"小奇连公用农业4台区【纯农排变】,小奇连公用农业2台区【纯农排变】,小奇连公用照明1台区,小奇连公用照明2台区,大奇连新民居公用照明1台区,大奇连公用照明2台区,大奇连公用照明4台区,大奇连公用照明5台区,小奇连公用农业3台区【纯农排变】,大奇连公用照明6台区,定州市西城区大奇连村村民委员会（新民居二期公用设施）变压器,小奇连公用农业5台区【纯农排变】,","scope":"【影响街道/乡镇】西城区【影响客户】大奇连、小奇连、大奇连新民居","startTime":"2020-05-14 06:50:00","stopDate":"2020-05-14 18:00:00","orgNo":"1340610","typeCode":"计划停电","poweroffArea":"【分支停电】停１１０ＫＶ焦化厂变电站１０ＫＶ５８０大奇连线路主干５６号杆０２号断路器以下线路，小奇连公用农业5台区【纯农排变】,小奇连公用农业4台区【纯农排变】,小奇连公用农业2台区【纯农排变】,小奇连公用照明1台区,小奇连公用照明2台区,大奇连新民居公用照明1台区,大奇连公用照明2台区,大奇连公用照明4台区,大奇连公用照明5台区,小奇连公用农业3台区【纯农排变】,大奇连公用照明6台区,定州市西城区大奇连村村民委员会（新民居二期公用设施）变压器","poweroffReason":"【停电原因】由于更换下引线导致１１０ＫＶ焦化厂变电站１０ＫＶ５８０大奇连线路主干５６号杆０２号断路器以下线路停电 【变更送电】无 【发布渠道】河北省定州市定州日报第三版（２０２０年０５月０１日）","powerTime":"2020-05-14 17:56:44","powerComm":"已送电","subsNo":"","lineNo":"","tgNo":"","tgName":null,"infoStatus":"1","orgName":"国网定州市供电公司","typeName":null,"infoStatusName":null,"dateDay":null,"orgNos":null,"nowTime":null,"countyName":null,"streetName":null,"villageName":null,"roadName":null,"communityName":null,"tranName":null,"sdLineName":null,"cityCode":"1340610","cityName":"国网定州市供电公司","provinceCode":null,"stopTime":"2020-05-14 18:00:00","powerType":"全部","powerOffArea":"【分支停电】停１１０ＫＶ焦化厂变电站１０ＫＶ５８０大奇连线路主干５６号杆０２号断路器以下线路，小奇连公用农业5台区【纯农排变】,小奇连公用农业4台区【纯农排变】,小奇连公用农业2台区【纯农排变】,小奇连公用照明1台区,小奇连公用照明2台区,大奇连新民居公用照明1台区,大奇连公用照明2台区,大奇连公用照明4台区,大奇连公用照明5台区,小奇连公用农业3台区【纯农排变】,大奇连公用照明6台区,定州市西城区大奇连村村民委员会（新民居二期公用设施）变压器","powerOffReason":"【停电原因】由于更换下引线导致１１０ＫＶ焦化厂变电站１０ＫＶ５８０大奇连线路主干５６号杆０２号断路器以下线路停电 【变更送电】无 【发布渠道】河北省定州市定州日报第三版（２０２０年０５月０１日）","powerOffId":"2020043013000346"},{"poweroffId":2020043013000331,"sgpoweroffId":null,"subsName":"","lineName":"广场线521","pubTranName":"迎宾小区3#,友谊路1#,迎宾路2#,武装2分配电变压器,迎宾小区4#,友谊路4#,友谊路3,信用社家属楼,","scope":"【影响街道/乡镇】迎宾路、友谊路、易兴路、朝阳路【高危重要客户】无【影响客户】信用社家属楼、易水公寓、迎宾小区、宏宇小区、云蒙嘉园、金塘花园、中医院、政府家属楼","startTime":"2020-05-05 01:00:00","stopDate":"2020-05-05 08:00:00","orgNo":"1340625","typeCode":"临时停电","poweroffArea":"【分支停电】停云蒙家园,0553895854-易县金塘物业服务有限公司-专变-70269892-变压器,河北华宇房地产开发有限公司变压器,易县金塘物业服务有限公司2000KVA,信用社家属楼,政府家属楼,河北省易县中医院变压器,宏宇小区变压器,友谊路4#,迎宾小区3#,易县卫生和计划生育局200KVA,县政府1#配变,友谊路1#,迎宾路2#,云蒙嘉园二期,易县人民银行易县支行100,县政府2#配变,检察院,易洲镇政府(家属楼),易县好年景宾馆400,武装2分配电变压器,云蒙嘉园小区(宏宇房地产),易县农村信用合作社,迎宾小区4#,0553895854-易县金塘物业服务有限公司-专变-70071833-变压器,友谊路3","poweroffReason":"【停电原因】由于更换配变导致１１０ＫＶ易县变电站广场５２１线路主干０３８＃杆０２＃断路器０３＃刀闸以下线路停电【变更送电】无【发布渠道】通过９５５９８发布","powerTime":"2020-05-05 07:23:23","powerComm":"已送电","subsNo":"","lineNo":"","tgNo":"","tgName":null,"infoStatus":"1","orgName":"国网易县供电公司","typeName":null,"infoStatusName":null,"dateDay":null,"orgNos":null,"nowTime":null,"countyName":null,"streetName":null,"villageName":null,"roadName":null,"communityName":null,"tranName":null,"sdLineName":null,"cityCode":"1340625","cityName":"国网易县供电公司","provinceCode":null,"stopTime":"2020-05-05 08:00:00","powerType":"全部","powerOffArea":"【分支停电】停云蒙家园,0553895854-易县金塘物业服务有限公司-专变-70269892-变压器,河北华宇房地产开发有限公司变压器,易县金塘物业服务有限公司2000KVA,信用社家属楼,政府家属楼,河北省易县中医院变压器,宏宇小区变压器,友谊路4#,迎宾小区3#,易县卫生和计划生育局200KVA,县政府1#配变,友谊路1#,迎宾路2#,云蒙嘉园二期,易县人民银行易县支行100,县政府2#配变,检察院,易洲镇政府(家属楼),易县好年景宾馆400,武装2分配电变压器,云蒙嘉园小区(宏宇房地产),易县农村信用合作社,迎宾小区4#,0553895854-易县金塘物业服务有限公司-专变-70071833-变压器,友谊路3","powerOffReason":"【停电原因】由于更换配变导致１１０ＫＶ易县变电站广场５２１线路主干０３８＃杆０２＃断路器０３＃刀闸以下线路停电【变更送电】无【发布渠道】通过９５５９８发布","powerOffId":"2020043013000331"},{"poweroffId":2020043013000327,"sgpoweroffId":null,"subsName":"","lineName":"10kV569赵村线","pubTranName":"定州市西南佐社区村民委员会变压器,孟家庄公用照明12台区,孟家庄公用农业14台区【纯农排变】,定州市赵村镇西南佐村村委会,韩家庄公用照明4台区,客户投资_孟家庄公用照明4台区,韩家庄公用照明7台区,孟家庄公用农业4台区【纯农排变】,孟家庄公用照明19台区,韩家庄公用农业6台区【纯农排变】,孟家庄公用农业7台区【纯农排变】,韩家庄公用农业5台区【纯农排变】,韩家庄公用农业4台区【纯农排变】,孟家庄公用照明20台区,孟家庄公用照明18台区,孟家庄公用照明6台区,孟家庄公用农业12台区【纯农排变】,孟家庄公用照明16台区,孟家庄公用照明7台区,西南佐公用照明1台区,客户投资_孟家庄公用照明8台区,孟家庄公用农业10台区【纯农排变】,孟家庄煤厂,韩家庄公用照明1台区,韩家庄公用照明5台区,韩家庄公用照明6台区,韩家庄公用农业3台区【纯农排变】,孟家庄公用照明3台区,孟家庄公用农业3台区【纯农排变】,孟家庄公用农业13台区【纯农排变】,孟家庄公用农业1台区【纯农排变】,韩家庄公用照明3台区,孟家庄公用照明17台区,定州市赵村镇西南佐村村委会变压器,孟家庄公用农业15台区【纯农排变】,孟家庄公用照明13台区,孟家庄公用农业5台区【纯农排变】,孟家庄公用农业2台区【纯农排变】,孟家庄公用照明21台区,孟家庄面粉厂,孟家庄公用照明11台区,孟家庄公用照明2台区,孟家庄公用照明5台区【纯农排变】,孟家庄公用照明9台区,西南佐南口,孟家庄公用照明14台区,孟家庄公用照明10台区【纯农排变】,孟家庄公用农业11台区【纯农排变】,西南佐村北,客户投资_西南佐公用照明2台区,定州市赵村镇西南佐村村民委员会变压器,韩家庄公用照明2台区,","scope":"【影响街道/乡镇】赵村乡【影响客户】孟家庄、西南佐、韩家庄","startTime":"2020-05-16 07:00:00","stopDate":"2020-05-16 17:00:00","orgNo":"1340610","typeCode":"计划停电","poweroffArea":"【分支停电】停１１０ＫＶ焦化厂变电站１０ＫＶ５６９赵村线路主干６６号杆０２号断路器以下线路，客户投资_孟家庄公用照明8台区,孟家庄公用农业10台区【纯农排变】,孟家庄煤厂,韩家庄公用照明1台区,韩家庄公用照明5台区,韩家庄公用照明6台区,韩家庄公用农业3台区【纯农排变】,定州市西南佐社区村民委员会变压器,孟家庄公用照明12台区,孟家庄公用农业14台区【纯农排变】,定州市赵村镇西南佐村村委会,孟家庄公用照明18台区,孟家庄公用照明6台区,孟家庄公用农业12台区【纯农排变】,韩家庄公用照明4台区,客户投资_孟家庄公用照明4台区,韩家庄公用照明7台区,孟家庄公用农业4台区【纯农排变】,孟家庄公用照明19台区,韩家庄公用农业6台区【纯农排变】,孟家庄公用农业7台区【纯农排变】,韩家庄公用农业5台区【纯农排变】,韩家庄公用农业4台区【纯农排变】,孟家庄公用照明20台区,孟家庄公用照明3台区,孟家庄公用农业3台区【纯农排变】,孟家庄公用农业13台区【纯农排变】,孟家庄公用农业1台区【纯农排变】,韩家庄公用照明3台区,孟家庄公用照明17台区,定州市赵村镇西南佐村村委会变压器,孟家庄公用农业15台区【纯农排变】,孟家庄公用照明13台区,孟家庄公用农业5台区【纯农排变】,孟家庄公用农业2台区【纯农排变】,孟家庄公用照明21台区,孟家庄面粉厂,孟家庄公用照明11台区,孟家庄公用照明2台区,孟家庄公用照明5台区【纯农排变】,孟家庄公用照明9台区,西南佐南口,孟家庄公用照明14台区,孟家庄公用照明10台区【纯农排变】,孟家庄公用农业11台区【纯农排变】,西南佐村北,客户投资_西南佐公用照明2台区,定州市赵村镇西南佐村村民委员会变压器,韩家庄公用照明2台区,孟家庄公用照明16台区,孟家庄公用照明7台区,西南佐公用照明1台区","poweroffReason":"【停电原因】由于更换导线导致１１０ＫＶ焦化厂变电站１０ＫＶ５６９赵村线路主干６６号杆０２号断路器以下线路停电 【变更送电】因抢修进度加快原因，送电时间由１８：００变更为１７：００ 【发布渠道】河北省定州市定州日报第三版（２０２０年０５月０１日）","powerTime":"2020-05-16 16:45:42","powerComm":"已送电","subsNo":"","lineNo":"","tgNo":"","tgName":null,"infoStatus":"1","orgName":"国网定州市供电公司","typeName":null,"infoStatusName":null,"dateDay":null,"orgNos":null,"nowTime":null,"countyName":null,"streetName":null,"villageName":null,"roadName":null,"communityName":null,"tranName":null,"sdLineName":null,"cityCode":"1340610","cityName":"国网定州市供电公司","provinceCode":null,"stopTime":"2020-05-16 17:00:00","powerType":"全部","powerOffArea":"【分支停电】停１１０ＫＶ焦化厂变电站１０ＫＶ５６９赵村线路主干６６号杆０２号断路器以下线路，客户投资_孟家庄公用照明8台区,孟家庄公用农业10台区【纯农排变】,孟家庄煤厂,韩家庄公用照明1台区,韩家庄公用照明5台区,韩家庄公用照明6台区,韩家庄公用农业3台区【纯农排变】,定州市西南佐社区村民委员会变压器,孟家庄公用照明12台区,孟家庄公用农业14台区【纯农排变】,定州市赵村镇西南佐村村委会,孟家庄公用照明18台区,孟家庄公用照明6台区,孟家庄公用农业12台区【纯农排变】,韩家庄公用照明4台区,客户投资_孟家庄公用照明4台区,韩家庄公用照明7台区,孟家庄公用农业4台区【纯农排变】,孟家庄公用照明19台区,韩家庄公用农业6台区【纯农排变】,孟家庄公用农业7台区【纯农排变】,韩家庄公用农业5台区【纯农排变】,韩家庄公用农业4台区【纯农排变】,孟家庄公用照明20台区,孟家庄公用照明3台区,孟家庄公用农业3台区【纯农排变】,孟家庄公用农业13台区【纯农排变】,孟家庄公用农业1台区【纯农排变】,韩家庄公用照明3台区,孟家庄公用照明17台区,定州市赵村镇西南佐村村委会变压器,孟家庄公用农业15台区【纯农排变】,孟家庄公用照明13台区,孟家庄公用农业5台区【纯农排变】,孟家庄公用农业2台区【纯农排变】,孟家庄公用照明21台区,孟家庄面粉厂,孟家庄公用照明11台区,孟家庄公用照明2台区,孟家庄公用照明5台区【纯农排变】,孟家庄公用照明9台区,西南佐南口,孟家庄公用照明14台区,孟家庄公用照明10台区【纯农排变】,孟家庄公用农业11台区【纯农排变】,西南佐村北,客户投资_西南佐公用照明2台区,定州市赵村镇西南佐村村民委员会变压器,韩家庄公用照明2台区,孟家庄公用照明16台区,孟家庄公用照明7台区,西南佐公用照明1台区","powerOffReason":"【停电原因】由于更换导线导致１１０ＫＶ焦化厂变电站１０ＫＶ５６９赵村线路主干６６号杆０２号断路器以下线路停电 【变更送电】因抢修进度加快原因，送电时间由１８：００变更为１７：００ 【发布渠道】河北省定州市定州日报第三版（２０２０年０５月０１日）","powerOffId":"2020043013000327"},{"poweroffId":2020043013000326,"sgpoweroffId":null,"subsName":"","lineName":"10kV514五女店线","pubTranName":"李村店公用农业13台区【纯农排变】,李村店公用农业9台区【纯农排变】,李村店公用农业10台区【纯农排变】,李村店公用照明6台区,五女店小学公用照明台区,城旺公用照明3台区,五女店公用照明1台区,五女店公用照明2台区,赵祚公用照明4台区1台区,五女店公用照明4台区,五女店公用照明5台区,李村店公用照明9台区,李村店公用照明5台区,李村店公用照明10台区,赵祚公用照明1台区,李村店公用照明4台区,李村店公用照明2台区,城旺公用照明2台区,城旺公用照明1台区,李村店公用照明3台区,李村店公用照明7台区,赵祚公用照明3台区,五女店公用照明6台区,五女店公用照明3台区,李村店公用照明1台区,李村店公用农业11台区【纯农排变】,李村店公用农业7台区【纯农排变】,赵祚公用农业6台区,李村店公用农业8台区,李村店公用农业2台区,赵祚公用农业3台区【纯农排变】,赵祚公用照明2台区,","scope":"【影响街道/乡镇】东旺镇【影响客户】五女店村、城旺村、李村店村、赵祚村、中辛庄村西","startTime":"2020-05-09 05:30:00","stopDate":"2020-05-09 19:00:00","orgNo":"1340610","typeCode":"计划停电","poweroffArea":"【全线路停电】停３５ＫＶ东旺变电站１０ＫＶ５１４五女店线路全线,李村店公用照明7台区,李村店公用照明6台区,五女店小学公用照明台区,城旺公用照明3台区,中辛庄公用照明5台区,五女店公用照明1台区,五女店公用照明2台区,李村店公用照明3台区,赵祚公用照明4台区1台区,五女店公用照明4台区,五女店公用照明5台区,李村店公用照明9台区,李村店公用照明5台区,李村店公用照明10台区,赵祚公用照明1台区,李村店公用照明4台区,李村店公用照明2台区,城旺公用照明2台区,城旺公用照明1台区,赵祚公用照明2台区,赵祚公用照明3台区,五女店公用照明6台区,五女店公用照明3台区,李村店公用照明1台区,城旺公用农业3台区,五女店公用农业8台区【纯农排变】,李村店公用农业11台区【纯农排变】,五女店公用农业9台区【纯农排变】,赵祚公用农业1台区【纯农排变】,五女店公用农业3台区【纯农排变】,李村店公用农业9台区【纯农排变】,李村店公用农业10台区【纯农排变】,城旺公用农业2台区,变压器,五女店公用农业11台区【纯农排变】,五女店公用农业5台区【纯农排变】,李村店初级中学,0387424619-国网河北定州市供电公司(东旺供电所)-专变-45268889-东旺供电所,五女店公用农业4台区【纯农排变】,五女店公用农业6台区【纯农排变】,李村店公用农业12台区【纯农排变】,李村店公用农业13台区【纯农排变】,城旺公用农业1台区,五女店面粉厂,五女店公用农业13台区,五女店公用农业14台区【纯农排变】,五女店公用农业10台区【纯农排变】,定州市润宇包装制品有限公司变压器,李村店公用农业7台区【纯农排变】,赵祚公用农业6台区,定州市鑫润商贸有限公司变压器,李村店公用农业8台区,五女店公用农业2台区【纯农排变】,五女店公用农业15台区【纯农排变】,李村店公用农业2台区,李村店公用农业6台区【纯农排变】,五女店公用农业7台区【纯农排变】,五女店公用农业12台区【纯农排变】,赵祚公用农业3台区【纯农排变】,五女店公用农业1台区【纯农排变】","poweroffReason":"【停电原因】由于更换主变导致３５ＫＶ东旺变电站１０ＫＶ５１４五女店线路全线停电 【变更送电】因抢修进度加快原因，送电时间由２３：００变更为１９：００ 【发布渠道】河北省定州市定州日报第三版（２０２０年０５月０１日）","powerTime":"2020-05-09 18:49:23","powerComm":"已送电","subsNo":"","lineNo":"","tgNo":"","tgName":null,"infoStatus":"1","orgName":"国网定州市供电公司","typeName":null,"infoStatusName":null,"dateDay":null,"orgNos":null,"nowTime":null,"countyName":null,"streetName":null,"villageName":null,"roadName":null,"communityName":null,"tranName":null,"sdLineName":null,"cityCode":"1340610","cityName":"国网定州市供电公司","provinceCode":null,"stopTime":"2020-05-09 19:00:00","powerType":"全部","powerOffArea":"【全线路停电】停３５ＫＶ东旺变电站１０ＫＶ５１４五女店线路全线,李村店公用照明7台区,李村店公用照明6台区,五女店小学公用照明台区,城旺公用照明3台区,中辛庄公用照明5台区,五女店公用照明1台区,五女店公用照明2台区,李村店公用照明3台区,赵祚公用照明4台区1台区,五女店公用照明4台区,五女店公用照明5台区,李村店公用照明9台区,李村店公用照明5台区,李村店公用照明10台区,赵祚公用照明1台区,李村店公用照明4台区,李村店公用照明2台区,城旺公用照明2台区,城旺公用照明1台区,赵祚公用照明2台区,赵祚公用照明3台区,五女店公用照明6台区,五女店公用照明3台区,李村店公用照明1台区,城旺公用农业3台区,五女店公用农业8台区【纯农排变】,李村店公用农业11台区【纯农排变】,五女店公用农业9台区【纯农排变】,赵祚公用农业1台区【纯农排变】,五女店公用农业3台区【纯农排变】,李村店公用农业9台区【纯农排变】,李村店公用农业10台区【纯农排变】,城旺公用农业2台区,变压器,五女店公用农业11台区【纯农排变】,五女店公用农业5台区【纯农排变】,李村店初级中学,0387424619-国网河北定州市供电公司(东旺供电所)-专变-45268889-东旺供电所,五女店公用农业4台区【纯农排变】,五女店公用农业6台区【纯农排变】,李村店公用农业12台区【纯农排变】,李村店公用农业13台区【纯农排变】,城旺公用农业1台区,五女店面粉厂,五女店公用农业13台区,五女店公用农业14台区【纯农排变】,五女店公用农业10台区【纯农排变】,定州市润宇包装制品有限公司变压器,李村店公用农业7台区【纯农排变】,赵祚公用农业6台区,定州市鑫润商贸有限公司变压器,李村店公用农业8台区,五女店公用农业2台区【纯农排变】,五女店公用农业15台区【纯农排变】,李村店公用农业2台区,李村店公用农业6台区【纯农排变】,五女店公用农业7台区【纯农排变】,五女店公用农业12台区【纯农排变】,赵祚公用农业3台区【纯农排变】,五女店公用农业1台区【纯农排变】","powerOffReason":"【停电原因】由于更换主变导致３５ＫＶ东旺变电站１０ＫＶ５１４五女店线路全线停电 【变更送电】因抢修进度加快原因，送电时间由２３：００变更为１９：００ 【发布渠道】河北省定州市定州日报第三版（２０２０年０５月０１日）","powerOffId":"2020043013000326"}],"pageModel":{"pageNow":118,"totalCount":10973,"totalPage":1098,"tableRows":0,"pageCount":10,"beginCount":1170},"isExperi":"1"}