{"message":"","today":"2020-06-15","seleList":[{"poweroffId":2020042913000188,"sgpoweroffId":null,"subsName":"","lineName":"江城515","pubTranName":"刘庄汽校预付费（农网）,江西9号,江城卫生院（统管）,江城中学1号（统管）,江城东队十号,","scope":"【影响街道/乡镇】江城乡 【影响客户】江城西队、刘庄、江城乡政府、江城东队、西二环与天威西路交叉口","startTime":"2020-05-08 06:00:00","stopDate":"2020-05-08 07:30:00","orgNo":"1340617","typeCode":"计划停电","poweroffArea":"【分支停电】停１１０ＫＶ江城变电站江城５１５线路主干６８号杆开关以下,江西9号,江城卫生院（统管）,江城中学1号（统管）,江城东队十号,刘庄汽校预付费（农网）","poweroffReason":"【停电原因】由于线路检修导致１１０ＫＶ江城变电站江城５１５线路主干６８号杆开关以下停电 【变更送电】因工作进度加快原因，送电时间由１８：００变更为０７：３０ 【发布渠道】保定市满城县电视台（０４月２９日至０５月０７日１９：００－２０：００）屏幕上方滚动","powerTime":"2020-05-08 07:03:19","powerComm":"已送电","subsNo":"","lineNo":"","tgNo":"","tgName":null,"infoStatus":"1","orgName":"国网满城县供电公司","typeName":null,"infoStatusName":null,"dateDay":null,"orgNos":null,"nowTime":null,"countyName":null,"streetName":null,"villageName":null,"roadName":null,"communityName":null,"tranName":null,"sdLineName":null,"cityCode":"1340617","cityName":"国网满城县供电公司","provinceCode":null,"stopTime":"2020-05-08 07:30:00","powerType":"全部","powerOffArea":"【分支停电】停１１０ＫＶ江城变电站江城５１５线路主干６８号杆开关以下,江西9号,江城卫生院（统管）,江城中学1号（统管）,江城东队十号,刘庄汽校预付费（农网）","powerOffReason":"【停电原因】由于线路检修导致１１０ＫＶ江城变电站江城５１５线路主干６８号杆开关以下停电 【变更送电】因工作进度加快原因，送电时间由１８：００变更为０７：３０ 【发布渠道】保定市满城县电视台（０４月２９日至０５月０７日１９：００－２０：００）屏幕上方滚动","powerOffId":"2020042913000188"},{"poweroffId":2020042913000177,"sgpoweroffId":null,"subsName":"","lineName":"10kV东兴北街线533","pubTranName":"10kV钢研院520线路槐林村村北变压器,槐林0047,水电四局北院1号变,槐林村0035,X15号箱变涿州市开发区规划建设局间隔FK01配电变压器,槐林村5137,东兴街槐林北,玫瑰北街2#变压器,范阳东路公用变压器,水电四局x2箱变变压器间隔配电变压器,高速交警家属院3829,涿州郡凤凰房地产开发有限公司B变压器,涿州郡凤凰房地产开发有限公司D变压器,槐林村证券配电变压器,烟草家属院（新）,槐林村内中,电力局家属院（开发区供电所）变压器,审计局小区0664变压器,水电四局北院3号变,槐林村0034,槐林商业街中,金城花园601台区,证券公司小区A台区,10kV钢研院520线路槐林村中变压器,玫瑰北街3677【纯农排变】,东兴街槐林南,建委家属楼4121变压器,X9号箱变六间房间隔FK01配电变压器,水电四局x1号箱变变压器间隔配电变压器,水电四局x2号箱变变压器间隔配电变压器,司法局家属院0637变压器,","scope":"【影响街道/乡镇】清凉寺城区槐林商业街、东兴北街 【影响客户】槐林新村、烟草家属院、水电四局（北院）、中心广场商贸城三号楼、国税局、证券营业部、凯龙、槐林市场、御景园、惠友生活广场、电力局家属院、翔天房地产、中医院、金竹首府","startTime":"2020-05-09 05:00:00","stopDate":"2020-05-09 18:00:00","orgNo":"1340626","typeCode":"计划停电","poweroffArea":"【全线路停电】停１１０ＫＶ新业变电站１０ＫＶ东兴北街线５３３线路全线，涿州市凡尘休闲健身服务有限公司,东方建设基地,中国水利水电第四工程局有限公司3,0387555751-保定宝发发品有限公司-专变-45355620-保定宝发发品有限公司,中国水利水电第四工程局有限公司2,涿州金利房地产开发有限公司-变压器4,涿州市交通局运输管理站,涿州市中房钢结构有限公司,烟草公司,河北惠友商业连锁发展有限公司2,中国煤炭地质总局地球物理勘探研究院1600,0387554077-河北省高速公路公安交通警察总队一支队涿州-专变-45355831-河北省高速公路公安交通警察总队一支队涿州,10kV钢研院520线路槐林村村北变压器,槐林0047,东方生物（西）,水电四局北院1号变,0387555647-涿州市京兴装饰工程有限公司-专变-45355657-京兴装饰工程公司,张段庄布厂,中国水利水电第四工程局有限公司,冀星公司涿州管理处,东乐药厂,涿州市翔天房地产开发有限公司1,槐林村0035,电力局办公楼,涿州市鑫鑫源工贸有限公司-1,X15号箱变涿州市开发区规划建设局间隔FK01配电变压器,河北丰华重工机电设备制造有限公司涿州分公,物探局特勘处1,涿州金利房地产开发有限公司-变压器2,物探局特勘处2,涿州市中医院1,槐林村5137,涿州市天择机械厂(北),物探局8号院,涿州市永泰机械厂,0387554686-中国联合网络通信有限公司涿州市分公司-专变-131146658-中国联合网络通信有限公司涿州分公司2,中国水利水电第四工程局有限公司5,涿州市京热热力有限责任公司,0649295951-涿州市伯力恒集团房地产开发有限公司-专变-174506908-涿州市伯力恒集团房地产开发有限公司1,国税局,东兴街槐林北,涿州市郡凤凰房地产开发有限公司1,玫瑰北街2#变压器,涿州郡凤凰房地产开发有限公司4,公安局家属院,涿州市幼儿园,物探局8号院1,检察院,公安局,范阳东路公用变压器,铁路十八局一处,0607156256-河北省涿州开发区管理委员会-专变-127414742-河北省涿州市开发区管理委员会,涿州市鹏华房地产开发有限公司,涿州市开发区市政工程处,0387554396-涿州市鑫鑫源工贸有限公司-专变-45355617-涿州市鑫鑫源工贸有限公司,涿州凯璟酒店有限公司,涿州金利房地产开发有限公司-变压器3,涿州鑫罡机械制造有限公司,水电四局x2箱变变压器间隔配电变压器,海天之恋音乐广场,涿州金利房地产开发有限公司-变压器1,高速交警涿州大队院内,高速交警家属院3829,涿州郡凤凰房地产开发有限公司B变压器,安泰科技股份有限公司涿州新材料分公司,涿州郡凤凰房地产开发有限公司D变压器,槐林村证券配电变压器,烟草家属院（新）,河北省涿州市开发区管理委员会,涿州市郡凤凰房地产开发有限公司2,涿州市新兴伟业房地产开发有限公司,槐林村内中,电力局家属院（开发区供电所）变压器,审计局小区0664变压器,涿州市鹏润房地产开发公司,槐林村0034,0387554309-唐人花园-专变-45355692-唐人花园,金城花园601台区,豪门庄园,涿州市翔天房地产开发有限公司,0387557425-市政路灯-专变-45356719-市政路灯,涿州市证券营业部,证券公司小区A台区,0586411199-北京田家园房地产开发有限公司涿州分公司-专变-125129399-北京田家园房地产开发有限公司涿州分公司,涿州开发区规划建设局物探局门口西南角,10kV钢研院520线路槐林村中变压器,玫瑰北街3677【纯农排变】,涿州市红杏生态园有限公司1,0574519146-涿州金利房地产开发有限公司-专变-123023693-涿州市金利房地产开发有限公司消防用电,0387556448-国网河北涿州市供电有限责任公司办公楼-专变-124349617-电力局,涿州市中医院,冀星公","poweroffReason":"【停电原因】由于线路清扫导致１１０ＫＶ新业变电站１０ＫＶ东兴北街线５３３线路全线停电 【变更送电】无 【发布渠道】涿州市涿州电视台（０４月２９日至０５月０８日２１：００播放２次）屏幕上方滚动","powerTime":"2020-05-09 17:45:51","powerComm":"恢复送电","subsNo":"","lineNo":"","tgNo":"","tgName":null,"infoStatus":"1","orgName":"国网涿州市供电公司","typeName":null,"infoStatusName":null,"dateDay":null,"orgNos":null,"nowTime":null,"countyName":null,"streetName":null,"villageName":null,"roadName":null,"communityName":null,"tranName":null,"sdLineName":null,"cityCode":"1340626","cityName":"国网涿州市供电公司","provinceCode":null,"stopTime":"2020-05-09 18:00:00","powerType":"全部","powerOffArea":"【全线路停电】停１１０ＫＶ新业变电站１０ＫＶ东兴北街线５３３线路全线，涿州市凡尘休闲健身服务有限公司,东方建设基地,中国水利水电第四工程局有限公司3,0387555751-保定宝发发品有限公司-专变-45355620-保定宝发发品有限公司,中国水利水电第四工程局有限公司2,涿州金利房地产开发有限公司-变压器4,涿州市交通局运输管理站,涿州市中房钢结构有限公司,烟草公司,河北惠友商业连锁发展有限公司2,中国煤炭地质总局地球物理勘探研究院1600,0387554077-河北省高速公路公安交通警察总队一支队涿州-专变-45355831-河北省高速公路公安交通警察总队一支队涿州,10kV钢研院520线路槐林村村北变压器,槐林0047,东方生物（西）,水电四局北院1号变,0387555647-涿州市京兴装饰工程有限公司-专变-45355657-京兴装饰工程公司,张段庄布厂,中国水利水电第四工程局有限公司,冀星公司涿州管理处,东乐药厂,涿州市翔天房地产开发有限公司1,槐林村0035,电力局办公楼,涿州市鑫鑫源工贸有限公司-1,X15号箱变涿州市开发区规划建设局间隔FK01配电变压器,河北丰华重工机电设备制造有限公司涿州分公,物探局特勘处1,涿州金利房地产开发有限公司-变压器2,物探局特勘处2,涿州市中医院1,槐林村5137,涿州市天择机械厂(北),物探局8号院,涿州市永泰机械厂,0387554686-中国联合网络通信有限公司涿州市分公司-专变-131146658-中国联合网络通信有限公司涿州分公司2,中国水利水电第四工程局有限公司5,涿州市京热热力有限责任公司,0649295951-涿州市伯力恒集团房地产开发有限公司-专变-174506908-涿州市伯力恒集团房地产开发有限公司1,国税局,东兴街槐林北,涿州市郡凤凰房地产开发有限公司1,玫瑰北街2#变压器,涿州郡凤凰房地产开发有限公司4,公安局家属院,涿州市幼儿园,物探局8号院1,检察院,公安局,范阳东路公用变压器,铁路十八局一处,0607156256-河北省涿州开发区管理委员会-专变-127414742-河北省涿州市开发区管理委员会,涿州市鹏华房地产开发有限公司,涿州市开发区市政工程处,0387554396-涿州市鑫鑫源工贸有限公司-专变-45355617-涿州市鑫鑫源工贸有限公司,涿州凯璟酒店有限公司,涿州金利房地产开发有限公司-变压器3,涿州鑫罡机械制造有限公司,水电四局x2箱变变压器间隔配电变压器,海天之恋音乐广场,涿州金利房地产开发有限公司-变压器1,高速交警涿州大队院内,高速交警家属院3829,涿州郡凤凰房地产开发有限公司B变压器,安泰科技股份有限公司涿州新材料分公司,涿州郡凤凰房地产开发有限公司D变压器,槐林村证券配电变压器,烟草家属院（新）,河北省涿州市开发区管理委员会,涿州市郡凤凰房地产开发有限公司2,涿州市新兴伟业房地产开发有限公司,槐林村内中,电力局家属院（开发区供电所）变压器,审计局小区0664变压器,涿州市鹏润房地产开发公司,槐林村0034,0387554309-唐人花园-专变-45355692-唐人花园,金城花园601台区,豪门庄园,涿州市翔天房地产开发有限公司,0387557425-市政路灯-专变-45356719-市政路灯,涿州市证券营业部,证券公司小区A台区,0586411199-北京田家园房地产开发有限公司涿州分公司-专变-125129399-北京田家园房地产开发有限公司涿州分公司,涿州开发区规划建设局物探局门口西南角,10kV钢研院520线路槐林村中变压器,玫瑰北街3677【纯农排变】,涿州市红杏生态园有限公司1,0574519146-涿州金利房地产开发有限公司-专变-123023693-涿州市金利房地产开发有限公司消防用电,0387556448-国网河北涿州市供电有限责任公司办公楼-专变-124349617-电力局,涿州市中医院,冀星公","powerOffReason":"【停电原因】由于线路清扫导致１１０ＫＶ新业变电站１０ＫＶ东兴北街线５３３线路全线停电 【变更送电】无 【发布渠道】涿州市涿州电视台（０４月２９日至０５月０８日２１：００播放２次）屏幕上方滚动","powerOffId":"2020042913000177"},{"poweroffId":2020042913000175,"sgpoweroffId":null,"subsName":"","lineName":"10kV开发区线544","pubTranName":"河北燕赵房地产有限公司1,0632531893-涿州市万顺实业有限公司-专变-144783292-涿州市万顺实业有限公司,塔东622台区,涿州鹏润房地产开发有限公司,涿州市工商行政管理局,电力局仪表室,0387555621-际华三五四三针织服饰有限公司-专变-47017802-际华三五四三针织服饰有限公司2,张段庄村南（开发区所）,河北燕赵房地产有限公司3,10kv清凉寺小区0641箱变母线间隔配电变压器,赵各庄4519台区,六间房村北台区,涿州市汇元房地产开发有限公司,清凉寺小区2号变,涿州市京热热力有限责任公司,清凉寺小区门脸,涿州开发区筹建处,0387554295-计划生育局-专变-45355691-计划生育局,涿州市 工商小区,0387555621-际华三五四三针织服饰有限公司-专变-45355836-际华三五四三针织服饰有限公司1,燕赵花园1,2军欣3690,涿州市清凉寺街道办事处槐林居民委员会,0387555621-际华三五四三针织服饰有限公司-专变-125129323-际华三五四三针织服饰有限公司4,六间房599台区,开发区路灯-变压器2,赵各庄598台区,0387555621-际华三五四三针织服饰有限公司-专变-47037909-际华三五四三针织服饰有限公司3,0387553797-槐林村水乡园-专变-45355731-槐林村(水乡园),张段庄611台区,涿州市宏晟房地产开发有限公司2,涿州市朝晖物业管理有限公司,张段庄新增2台区,涿州开发区市政工程处-变压器1,赵各庄村内2号台区,涿州市联合实业集团有限公司,涿州市宏晟房地产开发有限公司,政法街公用1号柱上变压器,张段庄611台区2号变,河北涿州高新技术产业开发区管理委员会,燕赵花园3,六间房(开发区所）,涿州开发区市政工程处-变压器2,涿州市华泰房地产开发有限公司,塔东661,农行小区,1军欣593,农发行,热电厂,河北燕赵房地产有限公司2,张段庄新增1台区,燕赵花园2,","scope":"【影响街道/乡镇】徐里营城区政法街 【影响客户】六间房、塔东、赵各庄、张段庄、欣欣庄园、燕赵花园、水乡园、农行小区、汇元国际小区、军欣家园、计划生育局、清凉寺小区、三五四三厂、鹏润小区、工商小区、涿州市联合实业集团有限公司、清凉寺小区门脸、电力局仪表室、工商行政管理局、涿州市万顺实业有限公司、涿州开发区市政工程处、工商局小区、金色家园小区、涿州鑫京味食府餐饮有限公司","startTime":"2020-05-09 05:00:00","stopDate":"2020-05-09 18:00:00","orgNo":"1340626","typeCode":"计划停电","poweroffArea":"【全线路停电】停１１０ＫＶ新业变电站１０ＫＶ开发区线５４４线路全线，涿州市京热热力有限责任公司,涿州市汇元房地产开发有限公司,清凉寺小区2号变,清凉寺小区门脸,涿州开发区筹建处,0387554295-计划生育局-专变-45355691-计划生育局,涿州市 工商小区,0387555621-际华三五四三针织服饰有限公司-专变-45355836-际华三五四三针织服饰有限公司1,燕赵花园1,2军欣3690,河北燕赵房地产有限公司1,0387553797-槐林村水乡园-专变-45355731-槐林村(水乡园),张段庄611台区,涿州市宏晟房地产开发有限公司2,涿州市朝晖物业管理有限公司,张段庄新增2台区,涿州开发区市政工程处-变压器1,赵各庄村内2号台区,涿州市联合实业集团有限公司,涿州市宏晟房地产开发有限公司,政法街公用1号柱上变压器,张段庄611台区2号变,河北涿州高新技术产业开发区管理委员会,燕赵花园3,六间房(开发区所）,涿州开发区市政工程处-变压器2,塔东661,农行小区,1军欣593,农发行,热电厂,涿州市清凉寺街道办事处槐林居民委员会,0387555621-际华三五四三针织服饰有限公司-专变-125129323-际华三五四三针织服饰有限公司4,六间房599台区,开发区路灯-变压器2,赵各庄598台区,0387555621-际华三五四三针织服饰有限公司-专变-47037909-际华三五四三针织服饰有限公司3,涿州市华泰房地产开发有限公司,河北燕赵房地产有限公司2,张段庄新增1台区,燕赵花园2,0632531893-涿州市万顺实业有限公司-专变-144783292-涿州市万顺实业有限公司,涿州市工商行政管理局,0387555621-际华三五四三针织服饰有限公司-专变-47017802-际华三五四三针织服饰有限公司2,张段庄村南（开发区所）,赵各庄4519台区,六间房村北台区,塔东622台区,涿州鹏润房地产开发有限公司,电力局仪表室,河北燕赵房地产有限公司3,10kv清凉寺小区0641箱变母线间隔配电变压器","poweroffReason":"【停电原因】由于线路改造工程导致１１０ＫＶ新业变电站１０ＫＶ开发区线５４４线路全线停电 【变更送电】无 【发布渠道】涿州市涿州电视台（０４月２９日至０５月０８日２１：００播放２次）屏幕上方滚动","powerTime":"2020-05-09 17:46:09","powerComm":"恢复送电","subsNo":"","lineNo":"","tgNo":"","tgName":null,"infoStatus":"1","orgName":"国网涿州市供电公司","typeName":null,"infoStatusName":null,"dateDay":null,"orgNos":null,"nowTime":null,"countyName":null,"streetName":null,"villageName":null,"roadName":null,"communityName":null,"tranName":null,"sdLineName":null,"cityCode":"1340626","cityName":"国网涿州市供电公司","provinceCode":null,"stopTime":"2020-05-09 18:00:00","powerType":"全部","powerOffArea":"【全线路停电】停１１０ＫＶ新业变电站１０ＫＶ开发区线５４４线路全线，涿州市京热热力有限责任公司,涿州市汇元房地产开发有限公司,清凉寺小区2号变,清凉寺小区门脸,涿州开发区筹建处,0387554295-计划生育局-专变-45355691-计划生育局,涿州市 工商小区,0387555621-际华三五四三针织服饰有限公司-专变-45355836-际华三五四三针织服饰有限公司1,燕赵花园1,2军欣3690,河北燕赵房地产有限公司1,0387553797-槐林村水乡园-专变-45355731-槐林村(水乡园),张段庄611台区,涿州市宏晟房地产开发有限公司2,涿州市朝晖物业管理有限公司,张段庄新增2台区,涿州开发区市政工程处-变压器1,赵各庄村内2号台区,涿州市联合实业集团有限公司,涿州市宏晟房地产开发有限公司,政法街公用1号柱上变压器,张段庄611台区2号变,河北涿州高新技术产业开发区管理委员会,燕赵花园3,六间房(开发区所）,涿州开发区市政工程处-变压器2,塔东661,农行小区,1军欣593,农发行,热电厂,涿州市清凉寺街道办事处槐林居民委员会,0387555621-际华三五四三针织服饰有限公司-专变-125129323-际华三五四三针织服饰有限公司4,六间房599台区,开发区路灯-变压器2,赵各庄598台区,0387555621-际华三五四三针织服饰有限公司-专变-47037909-际华三五四三针织服饰有限公司3,涿州市华泰房地产开发有限公司,河北燕赵房地产有限公司2,张段庄新增1台区,燕赵花园2,0632531893-涿州市万顺实业有限公司-专变-144783292-涿州市万顺实业有限公司,涿州市工商行政管理局,0387555621-际华三五四三针织服饰有限公司-专变-47017802-际华三五四三针织服饰有限公司2,张段庄村南（开发区所）,赵各庄4519台区,六间房村北台区,塔东622台区,涿州鹏润房地产开发有限公司,电力局仪表室,河北燕赵房地产有限公司3,10kv清凉寺小区0641箱变母线间隔配电变压器","powerOffReason":"【停电原因】由于线路改造工程导致１１０ＫＶ新业变电站１０ＫＶ开发区线５４４线路全线停电 【变更送电】无 【发布渠道】涿州市涿州电视台（０４月２９日至０５月０８日２１：００播放２次）屏幕上方滚动","powerOffId":"2020042913000175"},{"poweroffId":2020042913000170,"sgpoweroffId":null,"subsName":"","lineName":"10KV朝阳路513","pubTranName":"涿州市惠友房地产开发有限公司9,","scope":"【影响街道/乡镇】清凉寺城区 【影响客户】河北省高速公路京石改扩建筹建处、钻石广场","startTime":"2020-05-09 05:00:00","stopDate":"2020-05-09 18:00:00","orgNo":"1340626","typeCode":"计划停电","poweroffArea":"【全线路停电】停１１０ＫＶ塔上变电站１０ＫＶ朝阳路５１３线路全线，涿州市惠友房地产开发有限公司9,涿州市惠友房地产开发有限公司3,涿州市惠友房地产开发有限公司7,0617081951-涿州市惠友物业服务有限公司-专变-128935715-涿州市惠友房地产开发有限公司5,涿州市惠友房地产开发有限公司1,0617081951-涿州市惠友物业服务有限公司-专变-128510313-涿州市惠友房地产开发有限公司4,涿州市惠友房地产开发有限公司6,涿州市惠友房地产开发有限公司8,0617081951-涿州市惠友物业服务有限公司-专变-128510300-涿州市惠友房地产开发有限公司2","poweroffReason":"【停电原因】由于线路改造工程导致１１０ＫＶ塔上变电站１０ＫＶ朝阳路５１３线路全线停电 【变更送电】无 【发布渠道】涿州市涿州电视台（０４月２９日至０５月０８日２１：００播放２次）屏幕上方滚动","powerTime":"2020-05-09 17:45:12","powerComm":"恢复送电","subsNo":"","lineNo":"","tgNo":"","tgName":null,"infoStatus":"1","orgName":"国网涿州市供电公司","typeName":null,"infoStatusName":null,"dateDay":null,"orgNos":null,"nowTime":null,"countyName":null,"streetName":null,"villageName":null,"roadName":null,"communityName":null,"tranName":null,"sdLineName":null,"cityCode":"1340626","cityName":"国网涿州市供电公司","provinceCode":null,"stopTime":"2020-05-09 18:00:00","powerType":"全部","powerOffArea":"【全线路停电】停１１０ＫＶ塔上变电站１０ＫＶ朝阳路５１３线路全线，涿州市惠友房地产开发有限公司9,涿州市惠友房地产开发有限公司3,涿州市惠友房地产开发有限公司7,0617081951-涿州市惠友物业服务有限公司-专变-128935715-涿州市惠友房地产开发有限公司5,涿州市惠友房地产开发有限公司1,0617081951-涿州市惠友物业服务有限公司-专变-128510313-涿州市惠友房地产开发有限公司4,涿州市惠友房地产开发有限公司6,涿州市惠友房地产开发有限公司8,0617081951-涿州市惠友物业服务有限公司-专变-128510300-涿州市惠友房地产开发有限公司2","powerOffReason":"【停电原因】由于线路改造工程导致１１０ＫＶ塔上变电站１０ＫＶ朝阳路５１３线路全线停电 【变更送电】无 【发布渠道】涿州市涿州电视台（０４月２９日至０５月０８日２１：００播放２次）屏幕上方滚动","powerOffId":"2020042913000170"},{"poweroffId":2020042913000106,"sgpoweroffId":null,"subsName":"","lineName":"10kV514王庄农业线","pubTranName":"王庄农排2台区【纯农排变】新乡,梁庄综合3台区514,贾庄农排1台区514【纯农排变】,郭庄农排2台区【纯农排变】,王庄路灯,贾庄综合1台区514,王庄农排3台区【纯农排变】新乡,王庄农排1台区【纯农排变】新乡,郭庄综合3台区,王庄综合1台区,贾庄农排3台区【纯农排变】,郭庄综合1台区,王庄农排5台区【纯农排变】,郭庄综合2台区,南忠卫农排16台区【纯农排变】,梁庄综合1台区514,梁庄综合2台区514,王庄农排4台区【纯农排变】新乡,东南街农排4台区【纯农排变】,南忠卫农排15台区【纯农排变】,王庄综合5台区【冬季采暖设施】,贾庄综合4台区[纯农排变】,贾庄综合3台区514,王庄综合2台区,王庄综合3台区,贾庄综合2台区514,王庄综合4台区,郭庄农排1台区【纯农排变】,","scope":"【影响街道/乡镇】蠡吾镇【高危重要客户】无【影响客户】贾庄村、王庄村、梁庄村、郭庄村","startTime":"2020-05-08 06:00:00","stopDate":"2020-05-08 08:00:00","orgNo":"1340616","typeCode":"计划停电","poweroffArea":"【全线路停电】停３５ＫＶ王庄变电站１０ＫＶ王庄农业５１４线路全线，梁庄综合2台区514,贾庄综合4台区[纯农排变】,郭庄综合2台区,南忠卫农排10台区【纯农排变】,河北蠡县新城毛纺有限公司变压器,正鑫煤厂,蠡县梁庄扎花厂变压器,0667401862-蠡县伏羲砂石料厂-专变-208425925-蠡县伏羲砂石料厂,王庄村里冰袋,王庄农排2台区【纯农排变】新乡,小刚农用,王庄冷库,王庄面粉厂,锅炉房,贾庄农排1台区514【纯农排变】,贾庄综合2台区514,梁庄农排1台区514【纯农排变】,蠡县万隆煤炭销售有限公司变压器,河北中北橡胶机带有限公司变压器,王庄综合2台区,贾庄农排2台区514【纯农排变】,南忠卫农排16台区【纯农排变】,环形带,0660806400-河北英达物流有限公司-专变-195782521-河北英达物流有限公司,蠡县远鸿纺织有限公司,河北沈三开电器制造有限公司变压器,南忠卫农排15台区【纯农排变】,王庄东一,蠡县橡胶厂变压器,王庄浇地,贾庄农排3台区【纯农排变】,0469338209-王庄东二台-专变-46778813-王庄东二,大华纺织厂变压器,蠡县郭庄冷雪冷食厂变压器,王庄板厂,郭庄综合1台区,蠡县王庄边立织布厂变压器,保定中瑞胶带制造有限公司变压器,贾庄综合1台区514,梁庄综合1台区514,德茂装卸站,八里庄塑料厂,王庄农排4台区【纯农排变】新乡,王庄农排1台区【纯农排变】新乡,王庄综合5台区【冬季采暖设施】,王庄开花厂变压器,梁庄综合3台区514,保定中瑞胶带制造有限公司,王庄农排5台区【纯农排变】,郭庄综合3台区,0667908594-河北太平洋危货储运销售有限公司-专变-208448641-河北太平洋危货储运销售有限公司变压器,郭庄农排1台区【纯农排变】,王庄路灯,王庄农排3台区【纯农排变】新乡,王庄综合4台区,贾庄冰袋,王庄农用,敬老院,贾庄综合3台区514,东南街农排3台区【纯农排变】,贾庄庆祥,蠡县正鑫煤炭购销有限公司,南关鸡厂,保定博新橡胶机带有限公司变压器,王庄综合3台区,王庄综合1台区,河北长瑞商品混凝土有限公司变压器,东南街农排4台区【纯农排变】,龙辉,郭庄农排3台区【纯农排变】,蠡县宇大公路工程材料供应处,贾庄农排4台区【纯农排变】,贾庄浇地,蠡县橡胶厂,道桥养护,盛隆纺纱厂变压器,郭庄农排2台区【纯农排变】,保定强胜水利工程有公司变压器","poweroffReason":"【停电原因】由于更换电杆导致３５ＫＶ王庄变电站１０ＫＶ王庄农业５１４线路全线停电【变更送电】因天气原因导致无法工作，送电时间由１８：００变更为０８:００【发布渠道】河北省保定市蠡县电视台（０４月２９日至０５月０７日２０：００至２２：００之间）屏幕上方滚动","powerTime":"2020-05-08 07:07:52","powerComm":"已送电","subsNo":"","lineNo":"","tgNo":"","tgName":null,"infoStatus":"1","orgName":"国网蠡县供电公司","typeName":null,"infoStatusName":null,"dateDay":null,"orgNos":null,"nowTime":null,"countyName":null,"streetName":null,"villageName":null,"roadName":null,"communityName":null,"tranName":null,"sdLineName":null,"cityCode":"1340616","cityName":"国网蠡县供电公司","provinceCode":null,"stopTime":"2020-05-08 08:00:00","powerType":"全部","powerOffArea":"【全线路停电】停３５ＫＶ王庄变电站１０ＫＶ王庄农业５１４线路全线，梁庄综合2台区514,贾庄综合4台区[纯农排变】,郭庄综合2台区,南忠卫农排10台区【纯农排变】,河北蠡县新城毛纺有限公司变压器,正鑫煤厂,蠡县梁庄扎花厂变压器,0667401862-蠡县伏羲砂石料厂-专变-208425925-蠡县伏羲砂石料厂,王庄村里冰袋,王庄农排2台区【纯农排变】新乡,小刚农用,王庄冷库,王庄面粉厂,锅炉房,贾庄农排1台区514【纯农排变】,贾庄综合2台区514,梁庄农排1台区514【纯农排变】,蠡县万隆煤炭销售有限公司变压器,河北中北橡胶机带有限公司变压器,王庄综合2台区,贾庄农排2台区514【纯农排变】,南忠卫农排16台区【纯农排变】,环形带,0660806400-河北英达物流有限公司-专变-195782521-河北英达物流有限公司,蠡县远鸿纺织有限公司,河北沈三开电器制造有限公司变压器,南忠卫农排15台区【纯农排变】,王庄东一,蠡县橡胶厂变压器,王庄浇地,贾庄农排3台区【纯农排变】,0469338209-王庄东二台-专变-46778813-王庄东二,大华纺织厂变压器,蠡县郭庄冷雪冷食厂变压器,王庄板厂,郭庄综合1台区,蠡县王庄边立织布厂变压器,保定中瑞胶带制造有限公司变压器,贾庄综合1台区514,梁庄综合1台区514,德茂装卸站,八里庄塑料厂,王庄农排4台区【纯农排变】新乡,王庄农排1台区【纯农排变】新乡,王庄综合5台区【冬季采暖设施】,王庄开花厂变压器,梁庄综合3台区514,保定中瑞胶带制造有限公司,王庄农排5台区【纯农排变】,郭庄综合3台区,0667908594-河北太平洋危货储运销售有限公司-专变-208448641-河北太平洋危货储运销售有限公司变压器,郭庄农排1台区【纯农排变】,王庄路灯,王庄农排3台区【纯农排变】新乡,王庄综合4台区,贾庄冰袋,王庄农用,敬老院,贾庄综合3台区514,东南街农排3台区【纯农排变】,贾庄庆祥,蠡县正鑫煤炭购销有限公司,南关鸡厂,保定博新橡胶机带有限公司变压器,王庄综合3台区,王庄综合1台区,河北长瑞商品混凝土有限公司变压器,东南街农排4台区【纯农排变】,龙辉,郭庄农排3台区【纯农排变】,蠡县宇大公路工程材料供应处,贾庄农排4台区【纯农排变】,贾庄浇地,蠡县橡胶厂,道桥养护,盛隆纺纱厂变压器,郭庄农排2台区【纯农排变】,保定强胜水利工程有公司变压器","powerOffReason":"【停电原因】由于更换电杆导致３５ＫＶ王庄变电站１０ＫＶ王庄农业５１４线路全线停电【变更送电】因天气原因导致无法工作，送电时间由１８：００变更为０８:００【发布渠道】河北省保定市蠡县电视台（０４月２９日至０５月０７日２０：００至２２：００之间）屏幕上方滚动","powerOffId":"2020042913000106"},{"poweroffId":2020042913000097,"sgpoweroffId":null,"subsName":"","lineName":"10kV515育才路线","pubTranName":"育才路综合六台区,代庄综合三台区,育才路综合2台区,育才路综合7台区,代庄综合4台区,育才路综合1台区,永盛南大街路灯,代庄综合5台区,代庄综合二台区,育才路综合4台区,育才路综合5台区,育才路综合三台区,代庄综合一台区,","scope":"【影响街道/乡镇】蠡吾镇【高危重要客户】无【影响客户】戴庄村、育才东路、蠡县老网通、蠡县公安局","startTime":"2020-05-08 06:00:00","stopDate":"2020-05-08 08:00:00","orgNo":"1340616","typeCode":"计划停电","poweroffArea":"【全线路停电】停３５ＫＶ王庄变电站１０ＫＶ育才路５１５线路全线，育才路综合4台区,代庄综合三台区,里县网通,育才路综合三台区,蠡县建投天然气有限公司变压器,蠡县中洲水业有限公司,育才路综合2台区,永盛南大街路灯,修理厂,代庄综合5台区,育才路综合7台区,0667182659-蠡县中洲水业有限公司-专变-208423493-蠡县中洲水业有限公司,代庄综合4台区,育才路公用2台区,代永发,代庄综合二台区,0581501949-蠡县万隆生物质热能转化有限公司-专变-124696842-蠡县万隆生物质热能转化有限公司变压器,郭彦浦,代庄东浇地,育才路综合1台区,河北蒲公英食品有限公司变压器安装,克民变压器,兴波老高计,蠡县青山变压器,保定龙军建材有限公司变压器,育才路综合5台区,代庄综合一台区,育才路综合六台区,蠡县天河物业管理有限公司变压器","poweroffReason":"【停电原因】由于更换电杆导致３５ＫＶ王庄变电站１０ＫＶ育才路５１５线路全线停电【变更送电】因天气原因导致无法工作，送电时间由１８：００变更为０８:００【发布渠道】河北省保定市蠡县电视台（０４月２９日至０５月０７日２０：００至２２：００之间）屏幕上方滚动","powerTime":"2020-05-08 07:08:13","powerComm":"已送电","subsNo":"","lineNo":"","tgNo":"","tgName":null,"infoStatus":"1","orgName":"国网蠡县供电公司","typeName":null,"infoStatusName":null,"dateDay":null,"orgNos":null,"nowTime":null,"countyName":null,"streetName":null,"villageName":null,"roadName":null,"communityName":null,"tranName":null,"sdLineName":null,"cityCode":"1340616","cityName":"国网蠡县供电公司","provinceCode":null,"stopTime":"2020-05-08 08:00:00","powerType":"全部","powerOffArea":"【全线路停电】停３５ＫＶ王庄变电站１０ＫＶ育才路５１５线路全线，育才路综合4台区,代庄综合三台区,里县网通,育才路综合三台区,蠡县建投天然气有限公司变压器,蠡县中洲水业有限公司,育才路综合2台区,永盛南大街路灯,修理厂,代庄综合5台区,育才路综合7台区,0667182659-蠡县中洲水业有限公司-专变-208423493-蠡县中洲水业有限公司,代庄综合4台区,育才路公用2台区,代永发,代庄综合二台区,0581501949-蠡县万隆生物质热能转化有限公司-专变-124696842-蠡县万隆生物质热能转化有限公司变压器,郭彦浦,代庄东浇地,育才路综合1台区,河北蒲公英食品有限公司变压器安装,克民变压器,兴波老高计,蠡县青山变压器,保定龙军建材有限公司变压器,育才路综合5台区,代庄综合一台区,育才路综合六台区,蠡县天河物业管理有限公司变压器","powerOffReason":"【停电原因】由于更换电杆导致３５ＫＶ王庄变电站１０ＫＶ育才路５１５线路全线停电【变更送电】因天气原因导致无法工作，送电时间由１８：００变更为０８:００【发布渠道】河北省保定市蠡县电视台（０４月２９日至０５月０７日２０：００至２２：００之间）屏幕上方滚动","powerOffId":"2020042913000097"},{"poweroffId":2020042913000095,"sgpoweroffId":null,"subsName":"","lineName":"南店头线513","pubTranName":"葛堡2467变压器,","scope":"【影响街道/乡镇】南店头乡【高危重要客户】无【影响客户】葛堡村","startTime":"2020-05-02 07:30:00","stopDate":"2020-05-02 18:00:00","orgNo":"1340622","typeCode":"临时停电","poweroffArea":"【分支停电】停３５ＫＶ北罗变电站南店头线５１３线路０８５号杆葛堡２４６７分支刀闸以下线路葛堡2467变压器","poweroffReason":"【停电原因】由于安装变压器导致３５ＫＶ北罗变电站南店头线５１３线路０８５号杆葛堡２４６７分支刀闸以下线路停电【变更送电】无【发布渠道】通过９５５９８发布","powerTime":"2020-05-02 17:37:25","powerComm":"已送电","subsNo":"","lineNo":"","tgNo":"","tgName":null,"infoStatus":"1","orgName":"国网唐县供电公司","typeName":null,"infoStatusName":null,"dateDay":null,"orgNos":null,"nowTime":null,"countyName":null,"streetName":null,"villageName":null,"roadName":null,"communityName":null,"tranName":null,"sdLineName":null,"cityCode":"1340622","cityName":"国网唐县供电公司","provinceCode":null,"stopTime":"2020-05-02 18:00:00","powerType":"全部","powerOffArea":"【分支停电】停３５ＫＶ北罗变电站南店头线５１３线路０８５号杆葛堡２４６７分支刀闸以下线路葛堡2467变压器","powerOffReason":"【停电原因】由于安装变压器导致３５ＫＶ北罗变电站南店头线５１３线路０８５号杆葛堡２４６７分支刀闸以下线路停电【变更送电】无【发布渠道】通过９５５９８发布","powerOffId":"2020042913000095"},{"poweroffId":2020042913000082,"sgpoweroffId":null,"subsName":"","lineName":"10kV512东西齐线","pubTranName":"东齐综合3台区变压器,徐庄综合4台区（留史）,东齐农排4台区变压器【纯农排变】,东齐综合2台区变压器,西齐综合1台区变压器,刘营农排1台区变压器【纯农排变】,刘营综合10台区变压器,王营综合6台区变压器,王营农排4台区变压器【纯农排变】,东齐综合4台区变压器,东齐综合5台区变压器,西齐综合2台区变压器,徐庄农排3台区变压器【纯农排变】,刘营农排3台区变压器【纯农排变】,刘营综合9台区变压器,西齐综合5台区变压器,徐庄综合1台区变压器,王营综合4台区变压器,王营综合7台区变压器,刘营综合1台区变压器,王营综合3台区变压器,徐庄综合3台区变压器,王营农排3台区变压器【纯农排变】,东齐综合6台区变压器,王营综合10台区变压器,周营农排2台区变压器【纯农排变】,徐庄综合2台区变压器,徐庄农排2台区变压器【纯农排变】,王营综合5台区变压器,王营农排7台区变压器【纯农排变】,王营综合8台区变压器,王营综合2台区变压器,刘营综合3台区变压器,东齐综合1台区变压器,刘营综合7台区变压器,刘营综合8台区变压器,西齐综合4台区变压器,西齐综合3台区变压器,刘营综合2台区变压器,王营综合1台区变压器,王营综合9台区变压器,刘营综合6台区变压器,西齐农排3台区变压器【纯农排变】,刘营农排5台区变压器【纯农排变】,刘营综合4台区变压器,刘营综合5台区变压器,","scope":"【影响街道/乡镇】留史镇【高危重要客户】无【影响客户】东齐村（东齐庄村）、西齐村(西齐庄村)、刘营村（刘家营村）、徐庄村（徐家庄村）、王营村（王家营村）","startTime":"2020-04-29 08:24:41","stopDate":"2020-04-29 10:00:00","orgNo":"1340616","typeCode":"电网故障停限电","poweroffArea":"【全线路停电】停１１０ＫＶ留史变电站１０ＫＶ东西齐５１２线路全线，天润泽,王栓合,东齐综合4台区变压器,东齐综合2台区变压器,周营农排2台区变压器【纯农排变】,小彦,小双,蠡县留史西齐庄亚杰冷库变压器,刘营农排3台区变压器【纯农排变】,先进面粉厂,汉中,刘营综合10台区变压器,蠡县顺祥建材制造有限公司,徐庄综合2台区变压器,蠡县颐群苑养羊农民专业合作社,保定双建建筑工程有限公司,王营综合5台区变压器,王营农排4台区变压器【纯农排变】,东齐综合1台区变压器,王营农排1台区变压器【纯农排变】,诺斯特,西齐农排3台区变压器【纯农排变】,南革厂,徐庄农排1台区变压器【纯农排变】,王营农排2台区变压器【纯农排变】,伟亿水貂养殖变压器,净化,刘营综合6台区变压器,地中豪,刘营综合2台区变压器,刘营综合7台区变压器,徐庄综合1台区变压器,刘营综合1台区变压器,天王,变压器,王营综合1台区变压器,刘营综合9台区变压器,西齐农排2台区变压器【纯农排变】,王营综合2台区变压器,王营综合3台区变压器,徐庄农排2台区变压器【纯农排变】,刘营农排4台区变压器【纯农排变】,东齐农排3台区变压器【纯农排变】,王营农排7台区变压器【纯农排变】,天瑞泽,蠡县顺祥建材制造有限公司变压器,东齐农排4台区变压器【纯农排变】,蠡县福康养老服务有限公司变压器,西齐综合1台区变压器,徐庄农排3台区变压器【纯农排变】,王营综合9台区变压器,刘营综合5台区变压器,刘营农排2台区变压器【纯农排变】,刘营综合8台区变压器,跃斌,王营综合7台区变压器,王营农排5台区变压器【纯农排变】,0590422220-蠡县德盛皮革有限公司-专变-125591173-蠡县德盛皮革有限公司,刘营综合3台区变压器,王营农排3台区变压器【纯农排变】,王营综合4台区变压器,东齐综合5台区变压器,西齐综合4台区变压器,河北伟亿水貂养殖有限公司,王营综合8台区变压器,0596710273-中国移动通信集团河北有限公司蠡县分公司-专变-126221169-中国移动通信集团河北有限公司蠡县分公司王村基站变压器,东齐农排1台区变压器【纯农排变】,西齐综合3台区变压器,中国移动通信集团河北有限公司蠡县分公司,刘营农排5台区变压器【纯农排变】,刘营综合4台区变压器,王营综合6台区变压器,东齐农排2台区变压器【纯农排变】,王营加油站,徐庄厂北,西齐综合5台区变压器,王营综合10台区变压器,刘营农排1台区变压器【纯农排变】,东齐综合6台区变压器,徐庄综合3台区变压器,东齐综合3台区变压器,西齐综合2台区变压器,西齐农排1台区变压器【纯农排变】,徐庄综合4台区（留史）,周营农排1台区变压器【纯农排变】","poweroffReason":"【停电原因】由于站外开关掉闸导致１１０ＫＶ留史变电站１０ＫＶ东西齐５１２线路全线停电【变更送电】因抢修进度加快原因，送电时间由１６：００变更为１０：００【发布渠道】通过９５５９８发布","powerTime":"2020-04-29 09:37:56","powerComm":"已送电","subsNo":"","lineNo":"","tgNo":"","tgName":null,"infoStatus":"1","orgName":"国网蠡县供电公司","typeName":null,"infoStatusName":null,"dateDay":null,"orgNos":null,"nowTime":null,"countyName":null,"streetName":null,"villageName":null,"roadName":null,"communityName":null,"tranName":null,"sdLineName":null,"cityCode":"1340616","cityName":"国网蠡县供电公司","provinceCode":null,"stopTime":"2020-04-29 10:00:00","powerType":"全部","powerOffArea":"【全线路停电】停１１０ＫＶ留史变电站１０ＫＶ东西齐５１２线路全线，天润泽,王栓合,东齐综合4台区变压器,东齐综合2台区变压器,周营农排2台区变压器【纯农排变】,小彦,小双,蠡县留史西齐庄亚杰冷库变压器,刘营农排3台区变压器【纯农排变】,先进面粉厂,汉中,刘营综合10台区变压器,蠡县顺祥建材制造有限公司,徐庄综合2台区变压器,蠡县颐群苑养羊农民专业合作社,保定双建建筑工程有限公司,王营综合5台区变压器,王营农排4台区变压器【纯农排变】,东齐综合1台区变压器,王营农排1台区变压器【纯农排变】,诺斯特,西齐农排3台区变压器【纯农排变】,南革厂,徐庄农排1台区变压器【纯农排变】,王营农排2台区变压器【纯农排变】,伟亿水貂养殖变压器,净化,刘营综合6台区变压器,地中豪,刘营综合2台区变压器,刘营综合7台区变压器,徐庄综合1台区变压器,刘营综合1台区变压器,天王,变压器,王营综合1台区变压器,刘营综合9台区变压器,西齐农排2台区变压器【纯农排变】,王营综合2台区变压器,王营综合3台区变压器,徐庄农排2台区变压器【纯农排变】,刘营农排4台区变压器【纯农排变】,东齐农排3台区变压器【纯农排变】,王营农排7台区变压器【纯农排变】,天瑞泽,蠡县顺祥建材制造有限公司变压器,东齐农排4台区变压器【纯农排变】,蠡县福康养老服务有限公司变压器,西齐综合1台区变压器,徐庄农排3台区变压器【纯农排变】,王营综合9台区变压器,刘营综合5台区变压器,刘营农排2台区变压器【纯农排变】,刘营综合8台区变压器,跃斌,王营综合7台区变压器,王营农排5台区变压器【纯农排变】,0590422220-蠡县德盛皮革有限公司-专变-125591173-蠡县德盛皮革有限公司,刘营综合3台区变压器,王营农排3台区变压器【纯农排变】,王营综合4台区变压器,东齐综合5台区变压器,西齐综合4台区变压器,河北伟亿水貂养殖有限公司,王营综合8台区变压器,0596710273-中国移动通信集团河北有限公司蠡县分公司-专变-126221169-中国移动通信集团河北有限公司蠡县分公司王村基站变压器,东齐农排1台区变压器【纯农排变】,西齐综合3台区变压器,中国移动通信集团河北有限公司蠡县分公司,刘营农排5台区变压器【纯农排变】,刘营综合4台区变压器,王营综合6台区变压器,东齐农排2台区变压器【纯农排变】,王营加油站,徐庄厂北,西齐综合5台区变压器,王营综合10台区变压器,刘营农排1台区变压器【纯农排变】,东齐综合6台区变压器,徐庄综合3台区变压器,东齐综合3台区变压器,西齐综合2台区变压器,西齐农排1台区变压器【纯农排变】,徐庄综合4台区（留史）,周营农排1台区变压器【纯农排变】","powerOffReason":"【停电原因】由于站外开关掉闸导致１１０ＫＶ留史变电站１０ＫＶ东西齐５１２线路全线停电【变更送电】因抢修进度加快原因，送电时间由１６：００变更为１０：００【发布渠道】通过９５５９８发布","powerOffId":"2020042913000082"},{"poweroffId":2020042913000069,"sgpoweroffId":null,"subsName":"","lineName":"双河庄512","pubTranName":"东卫厂4#,河槽村2#,龙门沟村7#,骆驼峪6#,双合庄1#,龙门沟4#,河槽4#,双峰村3号,龙门沟10#,龙门沟9#,双峰4#,河槽3#,东卫厂3#,皮岗2#,双合庄5#,皮岗村3#,双合庄6#,龙门沟1#,双合庄2#,骆驼峪1#,双峰1#,座山台3#,座山台1#,牛岗2#,双合庄3#,骆驼峪7#,龙门沟5#,东卫厂1#,东杜岗9#,座山台2#,双合庄4#,龙门沟6#,河西5#,座山台4#,龙门沟村3#,皮岗村1#,双峰5#,双峰2#,牛岗村3#,富岗村2#,龙门沟8#,龙门沟12#,骆驼峪村5#,东卫厂5#,骆驼峪2#,龙门沟11#,河槽1#,骆驼峪4#【纯农排变】,牛岗1#,龙门沟2#,皮岗4#,东卫厂2#,骆驼峪3#,富岗村1#,","scope":"【影响街道/乡镇】牛岗乡、富岗乡【高危重要客户】无【影响客户】骆驼峪村、东卫厂村、皮岗村、牛岗村、座山台村、河漕村、富岗村、双峰村、双合庄村、龙门沟村、东杜岗村","startTime":"2020-04-29 07:32:58","stopDate":"2020-04-29 10:00:00","orgNo":"1340625","typeCode":"电网故障停限电","poweroffArea":"【全线路停电】停易县忆缘河道铁选有限公司,东卫厂4#,牛岗村民委员会200,河槽村2#,龙门沟村7#,骆驼峪6#,0651772572-易县泰林安牧业有限公司-专变-177357561-易县泰林安牧业有限公司250KVA,骆驼峪村委会50,双合庄1#,易县牛岗中心小学630KVA,华龙石材厂变压器,龙门沟4#,河槽4#,双峰村3号,中国移动骆驼峪,龙门沟10#,易县台裕福石材厂250KVA,易县牛岗乡卫生院,双峰1#,座山台3#,座山台1#,易县铁？矿产建材有限公司,牛岗2#,双合庄3#,骆驼峪7#,龙门沟5#,东卫厂1#,东杜岗9#,座山台2#,易县利国土地整理公司皮岗2号50KVA,双合庄4#,龙门沟6#,河西5#,座山台4#,龙门沟村3#,皮岗村1#,座山台村委会200,易县铁？矿产建材有限公司001,惠达石材厂,易县龙山振兴石材厂,龙门沟9#,保定兴易钙石粉厂,双峰4#,河槽3#,东卫厂3#,刘立新板厂,皮岗2#,易县华龙石材厂250,双合庄5#,金宝砂场,皮岗村3#,双合庄6#,龙门沟1#,李爱明变压器,双合庄2#,骆驼峪1#,瑞通公司(水),双峰5#,双峰2#,龙门沟8#,龙门沟12#,易县龙门沟花岗石矿,龙门沟郭振兴板厂,龙门沟贾振春,易县龙门沟花岗石矿001,骆驼峪村5#,东卫厂5#,郭振兴板厂(200),骆驼峪4#【纯农排变】,易县利国土地整理公司皮岗村50KVA,丰达石材厂,牛岗村3#,富岗村2#,牛岗1#,龙门沟2#,皮岗4#,东卫厂2#,骆驼峪3#,富岗村1#,骆驼峪2#,龙门沟11#,河槽1#","poweroffReason":"【停电原因】由于东杜岗９＃台区避雷器烧毁导致３５ＫＶ双峰变电站双河庄５１２线路全线停电【变更送电】因抢修进度加快原因，送电时间由１２：００变更为１０：００【发布渠道】通过９５５９８发布","powerTime":"2020-04-29 09:30:17","powerComm":"已送电","subsNo":"","lineNo":"","tgNo":"","tgName":null,"infoStatus":"1","orgName":"国网易县供电公司","typeName":null,"infoStatusName":null,"dateDay":null,"orgNos":null,"nowTime":null,"countyName":null,"streetName":null,"villageName":null,"roadName":null,"communityName":null,"tranName":null,"sdLineName":null,"cityCode":"1340625","cityName":"国网易县供电公司","provinceCode":null,"stopTime":"2020-04-29 10:00:00","powerType":"全部","powerOffArea":"【全线路停电】停易县忆缘河道铁选有限公司,东卫厂4#,牛岗村民委员会200,河槽村2#,龙门沟村7#,骆驼峪6#,0651772572-易县泰林安牧业有限公司-专变-177357561-易县泰林安牧业有限公司250KVA,骆驼峪村委会50,双合庄1#,易县牛岗中心小学630KVA,华龙石材厂变压器,龙门沟4#,河槽4#,双峰村3号,中国移动骆驼峪,龙门沟10#,易县台裕福石材厂250KVA,易县牛岗乡卫生院,双峰1#,座山台3#,座山台1#,易县铁？矿产建材有限公司,牛岗2#,双合庄3#,骆驼峪7#,龙门沟5#,东卫厂1#,东杜岗9#,座山台2#,易县利国土地整理公司皮岗2号50KVA,双合庄4#,龙门沟6#,河西5#,座山台4#,龙门沟村3#,皮岗村1#,座山台村委会200,易县铁？矿产建材有限公司001,惠达石材厂,易县龙山振兴石材厂,龙门沟9#,保定兴易钙石粉厂,双峰4#,河槽3#,东卫厂3#,刘立新板厂,皮岗2#,易县华龙石材厂250,双合庄5#,金宝砂场,皮岗村3#,双合庄6#,龙门沟1#,李爱明变压器,双合庄2#,骆驼峪1#,瑞通公司(水),双峰5#,双峰2#,龙门沟8#,龙门沟12#,易县龙门沟花岗石矿,龙门沟郭振兴板厂,龙门沟贾振春,易县龙门沟花岗石矿001,骆驼峪村5#,东卫厂5#,郭振兴板厂(200),骆驼峪4#【纯农排变】,易县利国土地整理公司皮岗村50KVA,丰达石材厂,牛岗村3#,富岗村2#,牛岗1#,龙门沟2#,皮岗4#,东卫厂2#,骆驼峪3#,富岗村1#,骆驼峪2#,龙门沟11#,河槽1#","powerOffReason":"【停电原因】由于东杜岗９＃台区避雷器烧毁导致３５ＫＶ双峰变电站双河庄５１２线路全线停电【变更送电】因抢修进度加快原因，送电时间由１２：００变更为１０：００【发布渠道】通过９５５９８发布","powerOffId":"2020042913000069"},{"poweroffId":2020042913000056,"sgpoweroffId":null,"subsName":"","lineName":"10KV太平庄575","pubTranName":"太平庄1349,","scope":"【影响街道/乡镇】刁窝乡 【影响客户】太平庄","startTime":"2020-04-29 07:12:20","stopDate":"2020-04-29 09:30:00","orgNo":"1340626","typeCode":"电网故障停限电","poweroffArea":"【单台区停电】停２２０ＫＶ豆庄变电站１０ＫＶ太平庄５７５线路１３４９公变台区，太平庄1349","poweroffReason":"【停电原因】由于低压空开烧毁导致２２０ＫＶ豆庄变电站１０ＫＶ太平庄５７５线路１３４９公变台区停电 【变更送电】无 【发布渠道】通过９５５９８发布","powerTime":"2020-04-29 09:16:14","powerComm":"恢复送电","subsNo":"","lineNo":"","tgNo":"","tgName":null,"infoStatus":"1","orgName":"国网涿州市供电公司","typeName":null,"infoStatusName":null,"dateDay":null,"orgNos":null,"nowTime":null,"countyName":null,"streetName":null,"villageName":null,"roadName":null,"communityName":null,"tranName":null,"sdLineName":null,"cityCode":"1340626","cityName":"国网涿州市供电公司","provinceCode":null,"stopTime":"2020-04-29 09:30:00","powerType":"全部","powerOffArea":"【单台区停电】停２２０ＫＶ豆庄变电站１０ＫＶ太平庄５７５线路１３４９公变台区，太平庄1349","powerOffReason":"【停电原因】由于低压空开烧毁导致２２０ＫＶ豆庄变电站１０ＫＶ太平庄５７５线路１３４９公变台区停电 【变更送电】无 【发布渠道】通过９５５９８发布","powerOffId":"2020042913000056"}],"pageModel":{"pageNow":125,"totalCount":10973,"totalPage":1098,"tableRows":0,"pageCount":10,"beginCount":1240},"isExperi":"1"}