{"message":"","today":"2020-06-15","seleList":[{"poweroffId":2020042821000048,"sgpoweroffId":null,"subsName":"","lineName":"10kV韩村站534线路","pubTranName":"0356231569-保定天马旅游展览广告有限公司-专变,","scope":"【影响街道/乡镇】竞秀区，翠园街 【高危重要客户】无 【影响客户】华中假日，天马，邮电印刷厂，桑巴蒂公司，北隆集团","startTime":"2020-05-14 07:30:00","stopDate":"2020-05-14 16:30:00","orgNo":"13406","typeCode":"计划停电","poweroffArea":"【分支停电】停0356231569-保定天马旅游展览广告有限公司-专变,0356231572-保定邮电印刷厂-专变","poweroffReason":"【停电原因】由于供电设备临时检修导致１０ＫＶ韩村变电站５３４线路翠园街３７＃杆东分支上引线以下，西分支上引线以下停电【变更送电】无【发布渠道】保定市保定有线电视台（５月６日２０时１５分至２１时４５分之间）屏幕上滚动","powerTime":"2020-05-14 16:08:07","powerComm":"已送电","subsNo":"","lineNo":"","tgNo":"","tgName":null,"infoStatus":"1","orgName":"保定供电公司","typeName":null,"infoStatusName":null,"dateDay":null,"orgNos":null,"nowTime":null,"countyName":null,"streetName":null,"villageName":null,"roadName":null,"communityName":null,"tranName":null,"sdLineName":null,"cityCode":"13406","cityName":"保定供电公司","provinceCode":null,"stopTime":"2020-05-14 16:30:00","powerType":"全部","powerOffArea":"【分支停电】停0356231569-保定天马旅游展览广告有限公司-专变,0356231572-保定邮电印刷厂-专变","powerOffReason":"【停电原因】由于供电设备临时检修导致１０ＫＶ韩村变电站５３４线路翠园街３７＃杆东分支上引线以下，西分支上引线以下停电【变更送电】无【发布渠道】保定市保定有线电视台（５月６日２０时１５分至２１时４５分之间）屏幕上滚动","powerOffId":"2020042821000048"},{"poweroffId":2020042813000489,"sgpoweroffId":null,"subsName":"","lineName":"10KV城内524","pubTranName":"劳动局家属院/就业局小区,","scope":"【影响街道/乡镇】双塔城区 【影响客户】劳动局家属院","startTime":"2020-04-28 20:15:41","stopDate":"2020-04-28 23:40:00","orgNo":"1340626","typeCode":"电网故障停限电","poweroffArea":"【单台区停电】停１１０ＫＶ涿县变电站１０ＫＶ城内５２４线路劳动局家属院公变台区，劳动局家属院/就业局小区","poweroffReason":"【停电原因】由于低压线路断线导致１１０ＫＶ涿县变电站１０ＫＶ城内５２４线路劳动局家属院公变台区停电 【变更送电】因抢修进度加快原因，送电时间由２９日０６：００变更为２８日２３：４０ 【发布渠道】通过９５５９８发布","powerTime":"2020-04-28 23:17:30","powerComm":"恢复送电","subsNo":"","lineNo":"","tgNo":"","tgName":null,"infoStatus":"1","orgName":"国网涿州市供电公司","typeName":null,"infoStatusName":null,"dateDay":null,"orgNos":null,"nowTime":null,"countyName":null,"streetName":null,"villageName":null,"roadName":null,"communityName":null,"tranName":null,"sdLineName":null,"cityCode":"1340626","cityName":"国网涿州市供电公司","provinceCode":null,"stopTime":"2020-04-28 23:40:00","powerType":"全部","powerOffArea":"【单台区停电】停１１０ＫＶ涿县变电站１０ＫＶ城内５２４线路劳动局家属院公变台区，劳动局家属院/就业局小区","powerOffReason":"【停电原因】由于低压线路断线导致１１０ＫＶ涿县变电站１０ＫＶ城内５２４线路劳动局家属院公变台区停电 【变更送电】因抢修进度加快原因，送电时间由２９日０６：００变更为２８日２３：４０ 【发布渠道】通过９５５９８发布","powerOffId":"2020042813000489"},{"poweroffId":2020042813000431,"sgpoweroffId":null,"subsName":"","lineName":"河南庄线521","pubTranName":"小庄村南2号,南宋1#分支,大庄1号,北宋营1台区柱上变压器,方上3号,北宋15,夜借1号分支,沿村分支2号,","scope":"【影响街道/乡镇】大册营乡 【影响客户】方上、沿村、北宋、南宋、大庄、小庄、夜借、北宋营","startTime":"2020-05-07 06:00:00","stopDate":"2020-05-07 18:00:00","orgNo":"1340617","typeCode":"计划停电","poweroffArea":"【全线路停电】停１１０ＫＶ大册营变电站河南庄线５２１线路全线,沿村分支2号,小庄村南2号,南宋1#分支,大庄1号,北宋营1台区柱上变压器,方上3号,北宋15,夜借1号分支","poweroffReason":"【停电原因】由于线路检修导致１１０ＫＶ大册营变电站河南庄线５２１线路全线停电 【变更送电】无 【发布渠道】保定市满城县电视台（０４月２８日１９：００－２０：００至０５月０６日１９：００－２０：００）屏幕上方滚动","powerTime":"2020-05-07 17:48:28","powerComm":"已送电","subsNo":"","lineNo":"","tgNo":"","tgName":null,"infoStatus":"1","orgName":"国网满城县供电公司","typeName":null,"infoStatusName":null,"dateDay":null,"orgNos":null,"nowTime":null,"countyName":null,"streetName":null,"villageName":null,"roadName":null,"communityName":null,"tranName":null,"sdLineName":null,"cityCode":"1340617","cityName":"国网满城县供电公司","provinceCode":null,"stopTime":"2020-05-07 18:00:00","powerType":"全部","powerOffArea":"【全线路停电】停１１０ＫＶ大册营变电站河南庄线５２１线路全线,沿村分支2号,小庄村南2号,南宋1#分支,大庄1号,北宋营1台区柱上变压器,方上3号,北宋15,夜借1号分支","powerOffReason":"【停电原因】由于线路检修导致１１０ＫＶ大册营变电站河南庄线５２１线路全线停电 【变更送电】无 【发布渠道】保定市满城县电视台（０４月２８日１９：００－２０：００至０５月０６日１９：００－２０：００）屏幕上方滚动","powerOffId":"2020042813000431"},{"poweroffId":2020042813000406,"sgpoweroffId":null,"subsName":"","lineName":"东马营512","pubTranName":"郭街变压器,米张东变压器,东一西变压器,东四变压器,李张西变压器,东二中变压器,东五西变压器,井村南变压器,胡街地北变压器【纯农排变】,胡街新变压器,东五变压器,东三东变压器,保定营变压器,保定营中变压器,东三新架变压器,胡街浇地1变压器【纯农排变】,丰元庄西变压器,东马营镇政府变压器,东二东变压器,井村变压器,马张变压器,米张变压器,东三变压器,赵张东变压器,马张南变压器,东一变压器,吴街西变压器,井村西变压器,何张南变压器,胡街地东变压器【纯农排变】,后院西变压器,胡街变压器,赵张北变压器,后院地西变压器,何张变压器,马张西变压器,李张南变压器,高张变压器,高张南变压器,后院变压器,东四南变压器,马张东变压器,东二变压器,赵张南变压器,丰元庄变压器,郭街村东变压器,吴街变压器,客户投资_东四西变压器,张村学校变压器,东四小一变压器,东三西变压器,李张北变压器,","scope":"【影响街道/乡镇】东马营镇 【高危重要客户】无 【影响客户】东一、东二、东三、东四、东五、井村、赵张、高张、米张、马张、李张、何张、丰元庄、胡街、吴街、后院、保定营、郭街、东马营镇政府、艳秋压铸厂、鑫天龙无纺布、神达化工、宋立军、孙栓良、东马营童星幼儿园、保定捷达箱包、东润物业、天润小区、东马营水厂、东马营卫生院、标爵脚垫卷材厂、天澍、赵明、徐二群、倒虹吸、乡直、蓝通热力、鹏泽房地产、张国林、李和平、同兴畜牧、东马营中学、马张小学、高张小学、知途箱包、吴斌","startTime":"2020-04-28 18:03:53","stopDate":"2020-04-28 19:30:00","orgNo":"1340612","typeCode":"电网故障停限电","poweroffArea":"【分支停电】停胡街浇地1变压器【纯农排变】,郭街变压器,马张地北变压器【纯农排变】,米张东变压器,高碑店市天龙旅游用品有限责任公司变压器,东二地变压器,东一西变压器,东四变压器,吴街排灌变压器【纯农排变】,东四小一变压器,中交第三公路工程局有限公司,何张地变压器【纯农排变】,东三西变压器,中交第三公路工程局有限公司9,中交第三公路工程局有限公司1,李张北变压器,盖春明,米张地变压器【纯农排变】,东马营中学,高碑店市同兴畜牧有限公司（井村）变压器,李张西变压器,东二中变压器,东四东,张国林养殖厂,东五西变压器,郭街南排变压器【纯农排变】,高碑店市东马营中学,李张地北变压器【纯农排变】,井村南变压器,胡街地北变压器【纯农排变】,东五南排变压器【纯农排变】,保定蓝通热力有限公司,东五地西变压器,胡街新变压器,宋立军,徐二群,乡直,东五变压器,东三地中变压器【纯农排变】,丰元庄西变压器,中交第三公路工程局有限公司7,李张浇地变压器【纯农排变】,东三东变压器,保定营变压器,赵张地变压器【纯农排变】,东四地北变压器,卫生所,保定营中变压器,东四方地变压器【纯农排变】,孙栓良,吴街地变压器【纯农排变】,高碑店市东润物业服务有限公司,中交第三公路工程局有限公司6,东三新架变压器,高碑店市东马营镇高张村幼儿园变压器,后院地变压器【纯农排变】,天澍公司,东四浇地变压器,林场砖厂,保北育林基地,张福林,马张南变压器,丰元庄浇地变压器【纯农排变】,中交第三公路工程局有限公司4,张克龙,东马营镇政府变压器,东二东变压器,井村变压器,马张变压器,高碑店市东马营标爵汽车卷材加工厂变压器,高碑店市东马营鑫天龙无纺布加工厂变压器,保定捷达箱包制造有限公司,倒洪吸变压器,高碑店市鹏泽房地产开发有限责任公司变压器02,米张变压器,高碑店市东马营中学变压器,东三变压器,高碑店市沃土土地整平服务有限公司01,吴斌,中交第三公路工程局有限公司3,东五北排变压器【纯农排变】,中学地北变压器【纯农排变】,东一变压器,井村地西变压器【纯农排变】,吴街西变压器,高碑店市东马营童星幼儿园,东二地西变压器,胡街浇地2变压器【纯农排变】,后院排灌变压器【纯农排变】,何张南变压器,中交第三公路工程局有限公司2,河北圣杰包装制品有限公司,胡街变压器,后院地西变压器,何张变压器,保定营北变压器【纯农排变】,汪庄地【纯农排变】,赵张东变压器,井村西变压器,胡街地东变压器【纯农排变】,后院西变压器,赵张北变压器,高张地变压器【纯农排变】,后院变压器,高碑店市鹏泽房地产开发有限责任公司变压器01,东一排灌变压器【纯农排变】,马张西变压器,井村地变压器【纯农排变】,李张南变压器,保定知途箱包制造有限公司变压器,高碑店市东马营镇沈各庄中心校变压器,高张变压器,高张南变压器,东马营水厂,东三地西,高碑店市沃土土地整平服务有限公司02,中交第三公路工程局有限公司12,中交第三公路工程局有限公司5,东四南变压器,马张东变压器,东二变压器,赵张南变压器,中交第三公路工程局有限公司10,丰元庄变压器,高碑店市艳秋压铸厂变压器,郭街村东变压器,吴街变压器,东三地东变压器,客户投资_东四西变压器,张村学校变压器","poweroffReason":"【停电原因】由于京雄高速项目部分支电缆挖断导致１１０ＫＶ白沟变电站１０ＫＶ东马营５１２线路０１号断路器以下停电 【变更送电】因抢修进度加快原因，送电时间由２３：００变更为１９：３０ 【发布渠道】通过９５５９８发布","powerTime":"2020-04-28 19:11:03","powerComm":"已送电","subsNo":"","lineNo":"","tgNo":"","tgName":null,"infoStatus":"1","orgName":"国网高碑店市供电公司","typeName":null,"infoStatusName":null,"dateDay":null,"orgNos":null,"nowTime":null,"countyName":null,"streetName":null,"villageName":null,"roadName":null,"communityName":null,"tranName":null,"sdLineName":null,"cityCode":"1340612","cityName":"国网高碑店市供电公司","provinceCode":null,"stopTime":"2020-04-28 19:30:00","powerType":"全部","powerOffArea":"【分支停电】停胡街浇地1变压器【纯农排变】,郭街变压器,马张地北变压器【纯农排变】,米张东变压器,高碑店市天龙旅游用品有限责任公司变压器,东二地变压器,东一西变压器,东四变压器,吴街排灌变压器【纯农排变】,东四小一变压器,中交第三公路工程局有限公司,何张地变压器【纯农排变】,东三西变压器,中交第三公路工程局有限公司9,中交第三公路工程局有限公司1,李张北变压器,盖春明,米张地变压器【纯农排变】,东马营中学,高碑店市同兴畜牧有限公司（井村）变压器,李张西变压器,东二中变压器,东四东,张国林养殖厂,东五西变压器,郭街南排变压器【纯农排变】,高碑店市东马营中学,李张地北变压器【纯农排变】,井村南变压器,胡街地北变压器【纯农排变】,东五南排变压器【纯农排变】,保定蓝通热力有限公司,东五地西变压器,胡街新变压器,宋立军,徐二群,乡直,东五变压器,东三地中变压器【纯农排变】,丰元庄西变压器,中交第三公路工程局有限公司7,李张浇地变压器【纯农排变】,东三东变压器,保定营变压器,赵张地变压器【纯农排变】,东四地北变压器,卫生所,保定营中变压器,东四方地变压器【纯农排变】,孙栓良,吴街地变压器【纯农排变】,高碑店市东润物业服务有限公司,中交第三公路工程局有限公司6,东三新架变压器,高碑店市东马营镇高张村幼儿园变压器,后院地变压器【纯农排变】,天澍公司,东四浇地变压器,林场砖厂,保北育林基地,张福林,马张南变压器,丰元庄浇地变压器【纯农排变】,中交第三公路工程局有限公司4,张克龙,东马营镇政府变压器,东二东变压器,井村变压器,马张变压器,高碑店市东马营标爵汽车卷材加工厂变压器,高碑店市东马营鑫天龙无纺布加工厂变压器,保定捷达箱包制造有限公司,倒洪吸变压器,高碑店市鹏泽房地产开发有限责任公司变压器02,米张变压器,高碑店市东马营中学变压器,东三变压器,高碑店市沃土土地整平服务有限公司01,吴斌,中交第三公路工程局有限公司3,东五北排变压器【纯农排变】,中学地北变压器【纯农排变】,东一变压器,井村地西变压器【纯农排变】,吴街西变压器,高碑店市东马营童星幼儿园,东二地西变压器,胡街浇地2变压器【纯农排变】,后院排灌变压器【纯农排变】,何张南变压器,中交第三公路工程局有限公司2,河北圣杰包装制品有限公司,胡街变压器,后院地西变压器,何张变压器,保定营北变压器【纯农排变】,汪庄地【纯农排变】,赵张东变压器,井村西变压器,胡街地东变压器【纯农排变】,后院西变压器,赵张北变压器,高张地变压器【纯农排变】,后院变压器,高碑店市鹏泽房地产开发有限责任公司变压器01,东一排灌变压器【纯农排变】,马张西变压器,井村地变压器【纯农排变】,李张南变压器,保定知途箱包制造有限公司变压器,高碑店市东马营镇沈各庄中心校变压器,高张变压器,高张南变压器,东马营水厂,东三地西,高碑店市沃土土地整平服务有限公司02,中交第三公路工程局有限公司12,中交第三公路工程局有限公司5,东四南变压器,马张东变压器,东二变压器,赵张南变压器,中交第三公路工程局有限公司10,丰元庄变压器,高碑店市艳秋压铸厂变压器,郭街村东变压器,吴街变压器,东三地东变压器,客户投资_东四西变压器,张村学校变压器","powerOffReason":"【停电原因】由于京雄高速项目部分支电缆挖断导致１１０ＫＶ白沟变电站１０ＫＶ东马营５１２线路０１号断路器以下停电 【变更送电】因抢修进度加快原因，送电时间由２３：００变更为１９：３０ 【发布渠道】通过９５５９８发布","powerOffId":"2020042813000406"},{"poweroffId":2020042813000231,"sgpoweroffId":null,"subsName":"","lineName":"下河西线516","pubTranName":"10kV516下河西线南营9号,","scope":"【影响街道/乡镇】史端乡 【高危重要客户】无 【影响客户】南营村、下河西村、徐庄","startTime":"2020-04-28 13:22:00","stopDate":"2020-04-28 19:00:00","orgNo":"1340605","typeCode":"电网故障停限电","poweroffArea":"【全线路停电】停变压器,10kV516下河西线下河西6号【纯农排变】,10kV516下河西线南营6号,10kV516下河西线南营8号,10kV516下河西线下河西供15号,中国联合网络通信有限公司徐水县分公司史端,10kV516下河西线下河西3号,10kV516下河西线下河西10号,10kV516下河西线南营9号,10kV516下河西线下河西7号【纯农排变】,河北德荣机械配件制造有限公司,0469278763河北旺金农粮食贸易有限公司900028567017,10kV516下河西线南营7号,中国联合网络通信有限公司徐水分公司史端,冀中钢模厂,10kV516下河西线下河西供67号,河北龙巢门业有限公司,客户投资_下河西供51号,10kV516下河西线徐庄供57号,保定绿世纪龙肥有限公司,河北绿风集团有限公司2号,10kV516下河西线下河西8号,10kV516下河西线下河西供84号,10kV516下河西线下河西供89号,10kV516下河西线下河西2号,10kV516下河西线下河西供50号,10kV516下河西线南营供56号,徐水县天源贸易有限公司,10kV516下河西线南营10号","poweroffReason":"【停电原因】由于Ｂ相接地导致３５ＫＶ下河西变电站下河西线５１６线路全线停电 【变更送电】因抢修进度加快原因，送电时间由２１:００变更为１９:００ 【发布渠道】通过９５５９８发布","powerTime":"2020-04-28 18:26:14","powerComm":"已送电","subsNo":"","lineNo":"","tgNo":"","tgName":null,"infoStatus":"1","orgName":"国网徐水县供电公司","typeName":null,"infoStatusName":null,"dateDay":null,"orgNos":null,"nowTime":null,"countyName":null,"streetName":null,"villageName":null,"roadName":null,"communityName":null,"tranName":null,"sdLineName":null,"cityCode":"1340605","cityName":"国网徐水县供电公司","provinceCode":null,"stopTime":"2020-04-28 19:00:00","powerType":"全部","powerOffArea":"【全线路停电】停变压器,10kV516下河西线下河西6号【纯农排变】,10kV516下河西线南营6号,10kV516下河西线南营8号,10kV516下河西线下河西供15号,中国联合网络通信有限公司徐水县分公司史端,10kV516下河西线下河西3号,10kV516下河西线下河西10号,10kV516下河西线南营9号,10kV516下河西线下河西7号【纯农排变】,河北德荣机械配件制造有限公司,0469278763河北旺金农粮食贸易有限公司900028567017,10kV516下河西线南营7号,中国联合网络通信有限公司徐水分公司史端,冀中钢模厂,10kV516下河西线下河西供67号,河北龙巢门业有限公司,客户投资_下河西供51号,10kV516下河西线徐庄供57号,保定绿世纪龙肥有限公司,河北绿风集团有限公司2号,10kV516下河西线下河西8号,10kV516下河西线下河西供84号,10kV516下河西线下河西供89号,10kV516下河西线下河西2号,10kV516下河西线下河西供50号,10kV516下河西线南营供56号,徐水县天源贸易有限公司,10kV516下河西线南营10号","powerOffReason":"【停电原因】由于Ｂ相接地导致３５ＫＶ下河西变电站下河西线５１６线路全线停电 【变更送电】因抢修进度加快原因，送电时间由２１:００变更为１９:００ 【发布渠道】通过９５５９８发布","powerOffId":"2020042813000231"},{"poweroffId":2020042813000229,"sgpoweroffId":null,"subsName":"","lineName":"扬水机站线517","pubTranName":"10kV517扬水机站线陈庄19号,","scope":"【影响街道/乡镇】史端乡 【高危重要客户】无 【影响客户】陈庄、徐庄、南营村、梁庄","startTime":"2020-04-28 13:18:00","stopDate":"2020-04-28 15:00:00","orgNo":"1340605","typeCode":"电网故障停限电","poweroffArea":"【全线路停电】停10kV517扬水机站线陈庄供61号,10kV517扬水机站线陈庄供26号【纯农排变】,10kV517扬水机站线陈庄15号,10kV517扬水机站线陈庄供40号,京石铁路客运专线有限责任公司2#变,10kV517扬水机站线陈庄9号,京石铁路客运专线有限责任公司1#变,徐水县昱东青粮油收购站,10kV517扬水机站线徐庄3号,10kV517扬水机站线南营12号,10kV517扬水机站线陈庄供49号,10kV517扬水机站线梁庄4号,10kV517扬水机站线陈庄10号【纯农排变】,10kV517扬水机站线陈庄供7号,天津钢管徐水钢铁炉料有限公司1号,10kV517扬水机站线陈庄2号,10kV517扬水机站线陈庄供85号,10kV517扬水机站线陈庄1号,10kV517扬水机站线徐庄4号【纯农排变】,10kV517扬水机站线南营5号【纯农排变】,保定龙帝钢铁有限公司,10kV517扬水机站线陈庄供24号,10kV517扬水机站线陈庄供6号,10kV517扬水机站线陈庄供71号【纯农排变】,沿村2号【纯农排变】,徐水县徐安废钢回收有限公司,保定市徐水区杰迈废旧金属回收处,10kV517扬水机站线陈庄18号【纯农排变】,陈梁庄扬水机站,陈梁庄扬水机站1号,绿风包装材料厂,弹药库,徐水县顺发水泥砖厂,刘庄硝酸钾厂,京石铁路客运专线有限责任公司3#变,10kV517扬水机站线陈庄28号【纯农排变】,崔庄供电所17号,陈庄面粉厂,陈庄顺发砖厂1号,10kV517扬水机站线陈庄供21号【纯农排变】,河北徐水恒隆泰天和废旧金属回收有限公司,10kV517扬水机站线陈庄11号,10kV517扬水机站线梁庄10号,保定安佑畜牧科技服务有限公司变压器,10kV517扬水机站线陈庄3号,10kV517扬水机站线陈庄供1号,南营果园,10kV517扬水机站线陈庄供27号,10kV517扬水机站线陈庄19号","poweroffReason":"【停电原因】由于Ｂ相接地导致３５ＫＶ下河西变电站扬水机站线５１７线路全线停电 【变更送电】因抢修进度加快原因，送电时间由１７:００变更为１５:００ 【发布渠道】通过９５５９８发布","powerTime":"2020-04-28 14:21:12","powerComm":"已送电","subsNo":"","lineNo":"","tgNo":"","tgName":null,"infoStatus":"1","orgName":"国网徐水县供电公司","typeName":null,"infoStatusName":null,"dateDay":null,"orgNos":null,"nowTime":null,"countyName":null,"streetName":null,"villageName":null,"roadName":null,"communityName":null,"tranName":null,"sdLineName":null,"cityCode":"1340605","cityName":"国网徐水县供电公司","provinceCode":null,"stopTime":"2020-04-28 15:00:00","powerType":"全部","powerOffArea":"【全线路停电】停10kV517扬水机站线陈庄供61号,10kV517扬水机站线陈庄供26号【纯农排变】,10kV517扬水机站线陈庄15号,10kV517扬水机站线陈庄供40号,京石铁路客运专线有限责任公司2#变,10kV517扬水机站线陈庄9号,京石铁路客运专线有限责任公司1#变,徐水县昱东青粮油收购站,10kV517扬水机站线徐庄3号,10kV517扬水机站线南营12号,10kV517扬水机站线陈庄供49号,10kV517扬水机站线梁庄4号,10kV517扬水机站线陈庄10号【纯农排变】,10kV517扬水机站线陈庄供7号,天津钢管徐水钢铁炉料有限公司1号,10kV517扬水机站线陈庄2号,10kV517扬水机站线陈庄供85号,10kV517扬水机站线陈庄1号,10kV517扬水机站线徐庄4号【纯农排变】,10kV517扬水机站线南营5号【纯农排变】,保定龙帝钢铁有限公司,10kV517扬水机站线陈庄供24号,10kV517扬水机站线陈庄供6号,10kV517扬水机站线陈庄供71号【纯农排变】,沿村2号【纯农排变】,徐水县徐安废钢回收有限公司,保定市徐水区杰迈废旧金属回收处,10kV517扬水机站线陈庄18号【纯农排变】,陈梁庄扬水机站,陈梁庄扬水机站1号,绿风包装材料厂,弹药库,徐水县顺发水泥砖厂,刘庄硝酸钾厂,京石铁路客运专线有限责任公司3#变,10kV517扬水机站线陈庄28号【纯农排变】,崔庄供电所17号,陈庄面粉厂,陈庄顺发砖厂1号,10kV517扬水机站线陈庄供21号【纯农排变】,河北徐水恒隆泰天和废旧金属回收有限公司,10kV517扬水机站线陈庄11号,10kV517扬水机站线梁庄10号,保定安佑畜牧科技服务有限公司变压器,10kV517扬水机站线陈庄3号,10kV517扬水机站线陈庄供1号,南营果园,10kV517扬水机站线陈庄供27号,10kV517扬水机站线陈庄19号","powerOffReason":"【停电原因】由于Ｂ相接地导致３５ＫＶ下河西变电站扬水机站线５１７线路全线停电 【变更送电】因抢修进度加快原因，送电时间由１７:００变更为１５:００ 【发布渠道】通过９５５９８发布","powerOffId":"2020042813000229"},{"poweroffId":2020042813000208,"sgpoweroffId":null,"subsName":"","lineName":"城北523线","pubTranName":"北环公用2#4069变压器,钟鸣山庄,曲庄西2669,富华公用变压器,曲庄村内0103,曲庄村6559变压器,县北村北4954变压器,三曲庄北4887,山南庄东南4950,山南庄大队4574,小王京0086,福康医院2#4385,山南庄村西0105,福康医院1#4488,山南庄村东0007,曲庄村东0478,新交警公用5247,交警公用（新）变压器,山南庄水0126变压器,县北水【纯农排变】,山南庄西南,山南庄村东4584,北环公用2594,北环公用2柱上变压器,","scope":"【影响街道/乡镇】仁厚镇、向阳街【高危重要客户】无【影响客户】山南庄村、钟鸣山庄、三曲庄村、福康养老院、保阜公路新安气体有限公司、深奥水厂、深奥水厂周边用户、消防大队、交警大队、城关派出所、六一小学、王保庄园、白求恩纪念馆、唐县汽车综合性能检测站、唐县安宁物业管理服务有限公司、唐县五保敬老院、民爆公司、国群石子机、唐县第一中学北校区、河北韩达铸造有限公司、中国石油化工股份有限公司河北唐县石油分公司、定州市冀东兴业汽车贸易有限公司唐县分公司、保定奔腾汽车贸易有限公司、小王京村、北庄子村、县北村、土产小区、新华超市、计生站、实验中学、隆泰佳苑、理想中学、鑫铎花园、阳光花园、高速交警、中山新村、北城枫景、化肥厂家属院、部队家属院、农排公司、副食家属楼、恒基花园、联通公司","startTime":"2020-05-03 06:00:00","stopDate":"2020-05-03 18:00:00","orgNo":"1340622","typeCode":"临时停电","poweroffArea":"【分支停电】停１１０ＫＶ唐县变电站城北５２３线路００５号杆断路器以下线路保定奔腾汽车贸易有限公司3247,河北保厦房地产开发集团有限公司计量点P6590,山南庄水0126变压器,新交警公用5247,曲庄村内0103,山南庄东南4950,小王京0086,唐县六一小学5254,河北保厦房地产开发集团有限公司计量点P6579,山南庄大队4574,民爆公司1938,唐县安宁物业管理服务有限公司5214,唐县六一小学10KV新建,唐县六一小学,唐县第一中学北校区2071,曲庄西2669,曲庄村东0478,国群石子机2037,敬老院0073,福康医院1#4488,纪念馆0015,配变,北环公用2594,三曲庄北4887,山南庄西南,唐县恒通天然气销售有限公司,交警公用（新）变压器,唐县金苗煤炭有限公司2948,唐县福顺百货门市部3227,唐县启明中学,福康医院2#4385,北环公用2柱上变压器,唐县六一小学160KVA,富华公用变压器,山南庄村东0007,曲庄村6559变压器,河北韩达铸造有限公司照明变压器,北环公用2#4069变压器,唐县保庄山园餐饮有限公司10KV新建工程,山南庄村东4584,山南庄村西0105,钟鸣山庄,唐县安宁物业管理服务有限公司5218,县北村北4954变压器","poweroffReason":"【停电原因】由于更换导线导致１１０ＫＶ唐县变电站城北５２３线路００５号杆断路器以下线路停电【变更送电】无【发布渠道】通过９５５９８发布","powerTime":"2020-05-03 17:58:23","powerComm":"已送电","subsNo":"","lineNo":"","tgNo":"","tgName":null,"infoStatus":"1","orgName":"国网唐县供电公司","typeName":null,"infoStatusName":null,"dateDay":null,"orgNos":null,"nowTime":null,"countyName":null,"streetName":null,"villageName":null,"roadName":null,"communityName":null,"tranName":null,"sdLineName":null,"cityCode":"1340622","cityName":"国网唐县供电公司","provinceCode":null,"stopTime":"2020-05-03 18:00:00","powerType":"全部","powerOffArea":"【分支停电】停１１０ＫＶ唐县变电站城北５２３线路００５号杆断路器以下线路保定奔腾汽车贸易有限公司3247,河北保厦房地产开发集团有限公司计量点P6590,山南庄水0126变压器,新交警公用5247,曲庄村内0103,山南庄东南4950,小王京0086,唐县六一小学5254,河北保厦房地产开发集团有限公司计量点P6579,山南庄大队4574,民爆公司1938,唐县安宁物业管理服务有限公司5214,唐县六一小学10KV新建,唐县六一小学,唐县第一中学北校区2071,曲庄西2669,曲庄村东0478,国群石子机2037,敬老院0073,福康医院1#4488,纪念馆0015,配变,北环公用2594,三曲庄北4887,山南庄西南,唐县恒通天然气销售有限公司,交警公用（新）变压器,唐县金苗煤炭有限公司2948,唐县福顺百货门市部3227,唐县启明中学,福康医院2#4385,北环公用2柱上变压器,唐县六一小学160KVA,富华公用变压器,山南庄村东0007,曲庄村6559变压器,河北韩达铸造有限公司照明变压器,北环公用2#4069变压器,唐县保庄山园餐饮有限公司10KV新建工程,山南庄村东4584,山南庄村西0105,钟鸣山庄,唐县安宁物业管理服务有限公司5218,县北村北4954变压器","powerOffReason":"【停电原因】由于更换导线导致１１０ＫＶ唐县变电站城北５２３线路００５号杆断路器以下线路停电【变更送电】无【发布渠道】通过９５５９８发布","powerOffId":"2020042813000208"},{"poweroffId":2020042813000173,"sgpoweroffId":null,"subsName":"","lineName":"10kV540南定线路","pubTranName":"西韦陀村东北,东茨村4089【纯农排变】,西韦坨村4068【纯农排变】,小岗头东北,中任村村西南2952【纯农排变】,小岗头西南4708【纯农排变】,州县庄村北1455,小岗头村4951【纯农排变】,西韦陀窑上变【纯农排变】,东茨村村西柱变,东茨正南,小岗头村中8664增,东茨正北,东韦坨村4905【纯农排变】,西韦坨村3580【纯农排变】,东韦坨村村内南9832,东茨村村内1456增,小岗头1450增,东茨东北新,小岗头村4088【纯农排变】,西韦坨村北2272,南定村3590【纯农排变】,南定村村委会3588增,东韦陀村3598【纯农排变】,东茨村南1385【纯农排变】,东韦坨村北1454,东茨村正东,东茨村正西,西韦坨村东南1452,东茨村村北变压器【纯农排变】,西韦坨村3593【纯农排变】,东伟陀村4096【纯农排变】,西韦坨村北1451,西韦坨村4087【纯农排变】,西韦陀村村内西4703【纯农排变】,","scope":"【影响街道/乡镇】义和庄乡 【影响客户】东韦陀、西韦陀、小岗头、州县庄、东茨村、南定","startTime":"2020-05-08 05:00:00","stopDate":"2020-05-08 18:00:00","orgNo":"1340626","typeCode":"计划停电","poweroffArea":"【全线路停电】停１１０ＫＶ刁窝变电站１０ＫＶ５４０南定线路全线，东茨村村西柱变,南定村村委会3588增,保定叶子农业科技有限公司1,东韦坨村东1453,东茨村南1385【纯农排变】,西韦坨村3580【纯农排变】,南定村3590【纯农排变】,涿州市筑鼎建材有限公司2,西韦坨村东南1452,小岗头村西,西韦坨村4068【纯农排变】,西韦坨村5792,南定村南4692【纯农排变】,西韦坨村3577【纯农排变】,西韦坨村3593【纯农排变】,东茨村正西,西韦坨正东道4703【纯农排变】,西韦陀村村内西4703【纯农排变】,东韦坨村东4709【纯农排变】,刘士杰料厂,小岗头村南4710【纯农排变】,小岗头西南4708【纯农排变】,西韦坨村4087【纯农排变】,0658116030-涿州市交通运输局-专变-192903412-涿州市交通运输局,涿州市南大催化剂有限责任公司,小岗头东北,州县庄村村北4719【纯农排变】,小岗头村东1332增,州县庄村北1455,东韦坨村4905【纯农排变】,义和庄供电所（东韦坨）,茨村,小岗头村4951【纯农排变】,涿州市筑鼎建材有限公司1,南定村西4705【纯农排变】,西韦坨王六坟4704【纯农排变】,东茨正南,西韦坨1483【纯农排变】,东伟陀村4096【纯农排变】,西韦陀村东北,义和庄乡西韦坨村,东茨村4089【纯农排变】,涿州玖兴食品有限公司2,中任村村西南2952【纯农排变】,东茨村,东韦陀村南4716【纯农排变】,小岗头村中8664增,西韦坨1481,西韦坨宫村道边4701【纯农排变】,义和庄供电所（茨村）,涿州玖兴食品有限公司1,西韦坨村北1451,东韦陀村3597,小岗头村4088【纯农排变】,南任村村西果园,东韦陀村3598【纯农排变】,州县庄村3596【纯农排变】,东茨村村北变压器【纯农排变】,西韦坨义里路东4700,水文站院内,西韦陀窑上变【纯农排变】,涿州玖兴食品有限公司,西韦坨猪厂西4698【纯农排变】,西韦陀变压器【纯农排变】,西韦坨八队东4699【纯农排变】,东韦坨村村内南9832,小岗头1450增,东茨村正东,东茨村4090【纯农排变】,东韦坨村东南4907【纯农排变】,小岗头村内1449增,涿州市南大催化剂有限公司,小岗头南柱上变压器【纯农排变】,东茨村村内1456增,南定村4691【纯农排变】,东韦坨村村内3061,保定叶子农业科技有限公司2,东茨东北新,西韦坨村北2272,东韦坨村北1454,东茨正北","poweroffReason":"【停电原因】由于线路清扫导致１１０ＫＶ刁窝变电站１０ＫＶ５４０南定线路全线停电 【变更送电】无 【发布渠道】涿州市涿州电视台（０４月２８日至０５月０７日２１：００播放２次）屏幕上方滚动","powerTime":"2020-05-08 17:43:04","powerComm":"恢复送电","subsNo":"","lineNo":"","tgNo":"","tgName":null,"infoStatus":"1","orgName":"国网涿州市供电公司","typeName":null,"infoStatusName":null,"dateDay":null,"orgNos":null,"nowTime":null,"countyName":null,"streetName":null,"villageName":null,"roadName":null,"communityName":null,"tranName":null,"sdLineName":null,"cityCode":"1340626","cityName":"国网涿州市供电公司","provinceCode":null,"stopTime":"2020-05-08 18:00:00","powerType":"全部","powerOffArea":"【全线路停电】停１１０ＫＶ刁窝变电站１０ＫＶ５４０南定线路全线，东茨村村西柱变,南定村村委会3588增,保定叶子农业科技有限公司1,东韦坨村东1453,东茨村南1385【纯农排变】,西韦坨村3580【纯农排变】,南定村3590【纯农排变】,涿州市筑鼎建材有限公司2,西韦坨村东南1452,小岗头村西,西韦坨村4068【纯农排变】,西韦坨村5792,南定村南4692【纯农排变】,西韦坨村3577【纯农排变】,西韦坨村3593【纯农排变】,东茨村正西,西韦坨正东道4703【纯农排变】,西韦陀村村内西4703【纯农排变】,东韦坨村东4709【纯农排变】,刘士杰料厂,小岗头村南4710【纯农排变】,小岗头西南4708【纯农排变】,西韦坨村4087【纯农排变】,0658116030-涿州市交通运输局-专变-192903412-涿州市交通运输局,涿州市南大催化剂有限责任公司,小岗头东北,州县庄村村北4719【纯农排变】,小岗头村东1332增,州县庄村北1455,东韦坨村4905【纯农排变】,义和庄供电所（东韦坨）,茨村,小岗头村4951【纯农排变】,涿州市筑鼎建材有限公司1,南定村西4705【纯农排变】,西韦坨王六坟4704【纯农排变】,东茨正南,西韦坨1483【纯农排变】,东伟陀村4096【纯农排变】,西韦陀村东北,义和庄乡西韦坨村,东茨村4089【纯农排变】,涿州玖兴食品有限公司2,中任村村西南2952【纯农排变】,东茨村,东韦陀村南4716【纯农排变】,小岗头村中8664增,西韦坨1481,西韦坨宫村道边4701【纯农排变】,义和庄供电所（茨村）,涿州玖兴食品有限公司1,西韦坨村北1451,东韦陀村3597,小岗头村4088【纯农排变】,南任村村西果园,东韦陀村3598【纯农排变】,州县庄村3596【纯农排变】,东茨村村北变压器【纯农排变】,西韦坨义里路东4700,水文站院内,西韦陀窑上变【纯农排变】,涿州玖兴食品有限公司,西韦坨猪厂西4698【纯农排变】,西韦陀变压器【纯农排变】,西韦坨八队东4699【纯农排变】,东韦坨村村内南9832,小岗头1450增,东茨村正东,东茨村4090【纯农排变】,东韦坨村东南4907【纯农排变】,小岗头村内1449增,涿州市南大催化剂有限公司,小岗头南柱上变压器【纯农排变】,东茨村村内1456增,南定村4691【纯农排变】,东韦坨村村内3061,保定叶子农业科技有限公司2,东茨东北新,西韦坨村北2272,东韦坨村北1454,东茨正北","powerOffReason":"【停电原因】由于线路清扫导致１１０ＫＶ刁窝变电站１０ＫＶ５４０南定线路全线停电 【变更送电】无 【发布渠道】涿州市涿州电视台（０４月２８日至０５月０７日２１：００播放２次）屏幕上方滚动","powerOffId":"2020042813000173"},{"poweroffId":2020042813000145,"sgpoweroffId":null,"subsName":"","lineName":"向阳会线512","pubTranName":"燕窝变压器,松树坨变压器,向阳会变压器,松树坨西,向阳会南变压器,吕家庄变压器,郭家河滩变压器,","scope":"【影响街道/乡镇】马庄乡【高危重要客户】无【影响客户】燕窝村、向阳会村、松树柁村、吕家庄村","startTime":"2020-05-16 08:00:00","stopDate":"2020-05-16 18:00:00","orgNo":"1340615","typeCode":"计划停电","poweroffArea":"【分支停电】停３５ＫＶ马庄变电站１０ＫＶ向阳会线５１２线路１７号杆至６６号杆,松树坨西,燕窝变压器,松树坨变压器,向阳会变压器,向阳会南变压器,吕家庄变压器,郭家河滩变压器","poweroffReason":"【停电原因】由于春季检修导致３５ＫＶ马庄变电站１０ＫＶ向阳会线５１２线路１７号杆至６６号杆停电【变更送电】无【发布渠道】涞源电视台（４月２９日至５月１５日８时至２３时之间）屏幕上方滚动","powerTime":"2020-05-16 17:17:38","powerComm":"已送电","subsNo":"","lineNo":"","tgNo":"","tgName":null,"infoStatus":"1","orgName":"国网涞源县供电公司","typeName":null,"infoStatusName":null,"dateDay":null,"orgNos":null,"nowTime":null,"countyName":null,"streetName":null,"villageName":null,"roadName":null,"communityName":null,"tranName":null,"sdLineName":null,"cityCode":"1340615","cityName":"国网涞源县供电公司","provinceCode":null,"stopTime":"2020-05-16 18:00:00","powerType":"全部","powerOffArea":"【分支停电】停３５ＫＶ马庄变电站１０ＫＶ向阳会线５１２线路１７号杆至６６号杆,松树坨西,燕窝变压器,松树坨变压器,向阳会变压器,向阳会南变压器,吕家庄变压器,郭家河滩变压器","powerOffReason":"【停电原因】由于春季检修导致３５ＫＶ马庄变电站１０ＫＶ向阳会线５１２线路１７号杆至６６号杆停电【变更送电】无【发布渠道】涞源电视台（４月２９日至５月１５日８时至２３时之间）屏幕上方滚动","powerOffId":"2020042813000145"},{"poweroffId":2020042813000124,"sgpoweroffId":null,"subsName":"","lineName":"东环线515","pubTranName":"515东环线西神山7#,城南站515前泉坊1号,观湖锦城,城南站515前泉坊2号,515东环线前泉坊4#,515东环线西神山5号台区,515东环线前泉坊3#,城南站515观湖锦城2,","scope":"【影响街道/乡镇】１０８国道、２０７国道、城区办【高危重要客户】无【影响客户】前泉坊村、天利车业、顶利鲜超市、西神山村","startTime":"2020-05-10 08:00:00","stopDate":"2020-05-10 17:30:00","orgNo":"1340615","typeCode":"计划停电","poweroffArea":"【全线路停电】停３５ＫＶ城南变电站１０ＫＶ东环线５１５线路全线,城南站515观湖锦城2,515东环线西神山7#,城南站515前泉坊1号,观湖锦城,公安局消防队,城南站515前泉坊2号,515东环线前泉坊4#,515东环线西神山5号台区,515东环线前泉坊3#","poweroffReason":"【停电原因】由于配合外环线５１４线路停电导致３５ＫＶ城南变电站１０ＫＶ东环线５１５线路全线停电【变更送电】因工作进度加快原因，送电时间由１８：００变更为１７：３０送电【发布渠道】涞源电视台（４月２９日至５月９日８时至２３时之间）屏幕上方滚动","powerTime":"2020-05-10 16:52:01","powerComm":"已送电","subsNo":"","lineNo":"","tgNo":"","tgName":null,"infoStatus":"1","orgName":"国网涞源县供电公司","typeName":null,"infoStatusName":null,"dateDay":null,"orgNos":null,"nowTime":null,"countyName":null,"streetName":null,"villageName":null,"roadName":null,"communityName":null,"tranName":null,"sdLineName":null,"cityCode":"1340615","cityName":"国网涞源县供电公司","provinceCode":null,"stopTime":"2020-05-10 17:30:00","powerType":"全部","powerOffArea":"【全线路停电】停３５ＫＶ城南变电站１０ＫＶ东环线５１５线路全线,城南站515观湖锦城2,515东环线西神山7#,城南站515前泉坊1号,观湖锦城,公安局消防队,城南站515前泉坊2号,515东环线前泉坊4#,515东环线西神山5号台区,515东环线前泉坊3#","powerOffReason":"【停电原因】由于配合外环线５１４线路停电导致３５ＫＶ城南变电站１０ＫＶ东环线５１５线路全线停电【变更送电】因工作进度加快原因，送电时间由１８：００变更为１７：３０送电【发布渠道】涞源电视台（４月２９日至５月９日８时至２３时之间）屏幕上方滚动","powerOffId":"2020042813000124"}],"pageModel":{"pageNow":127,"totalCount":10973,"totalPage":1098,"tableRows":0,"pageCount":10,"beginCount":1260},"isExperi":"1"}