{"message":"","today":"2020-06-15","seleList":[{"poweroffId":2020042813000108,"sgpoweroffId":null,"subsName":"","lineName":"外环线514","pubTranName":"恒星花园2箱变出线间隔配电变压器,联大高层箱变【2018配套送出及新增负荷】出线间隔配电变压器,恒星花园1箱变出线间隔配电变压器,锦绣一区箱变出线间隔配电变压器,恒星花园箱变出线间隔配电变压器,联大高层出线间隔配电变压器,联大高层2出线间隔配电变压器,后泉坊北,","scope":"【影响街道/乡镇】１０８国道、城区办【高危重要客户】无【影响客户】太平关村、南关村、西关村、新街村、旗山市场、文化馆家属楼、教育局家属楼、自来水公司家属楼、盐业公司家属楼、农业局家属楼、城关派出所、双祥小区、南山高层、上关、南关小学、涞源县第三幼儿园","startTime":"2020-05-10 08:00:00","stopDate":"2020-05-10 17:00:00","orgNo":"1340615","typeCode":"计划停电","poweroffArea":"【全线路停电】停３５ＫＶ城东变电站１０ＫＶ外环线５１４线路全线,恒星花园2箱变出线间隔配电变压器,联大高层箱变【2018配套送出及新增负荷】出线间隔配电变压器,恒星花园1箱变出线间隔配电变压器,锦绣一区箱变出线间隔配电变压器,恒星花园箱变出线间隔配电变压器,联大高层出线间隔配电变压器,联大高层2出线间隔配电变压器,涞源县城区办事处水云乡村村民委员会变压器,后泉坊北","poweroffReason":"【停电原因】由于线路消缺、培土、清扫绝缘子导致３５ＫＶ城东变电站１０ＫＶ外环线５１４线路全线停电【变更送电】因工作进度加快原因，送电时间由１８：００变更为１７：００送电【发布渠道】涞源电视台（４月２９日至５月９日８时至２３时之间）屏幕上方滚动","powerTime":"2020-05-10 16:27:49","powerComm":"已送电","subsNo":"","lineNo":"","tgNo":"","tgName":null,"infoStatus":"1","orgName":"国网涞源县供电公司","typeName":null,"infoStatusName":null,"dateDay":null,"orgNos":null,"nowTime":null,"countyName":null,"streetName":null,"villageName":null,"roadName":null,"communityName":null,"tranName":null,"sdLineName":null,"cityCode":"1340615","cityName":"国网涞源县供电公司","provinceCode":null,"stopTime":"2020-05-10 17:00:00","powerType":"全部","powerOffArea":"【全线路停电】停３５ＫＶ城东变电站１０ＫＶ外环线５１４线路全线,恒星花园2箱变出线间隔配电变压器,联大高层箱变【2018配套送出及新增负荷】出线间隔配电变压器,恒星花园1箱变出线间隔配电变压器,锦绣一区箱变出线间隔配电变压器,恒星花园箱变出线间隔配电变压器,联大高层出线间隔配电变压器,联大高层2出线间隔配电变压器,涞源县城区办事处水云乡村村民委员会变压器,后泉坊北","powerOffReason":"【停电原因】由于线路消缺、培土、清扫绝缘子导致３５ＫＶ城东变电站１０ＫＶ外环线５１４线路全线停电【变更送电】因工作进度加快原因，送电时间由１８：００变更为１７：００送电【发布渠道】涞源电视台（４月２９日至５月９日８时至２３时之间）屏幕上方滚动","powerOffId":"2020042813000108"},{"poweroffId":2020042813000105,"sgpoweroffId":null,"subsName":"","lineName":"10kV541佟村线路","pubTranName":"1331大柳【纯农排变】,大柳西1287,佟村新增4号变,佟村新增6号变,佟村新增7号变,涿州市佟村小学1柱上变压器,佟村新增14号变,佟村新增5号变,佟村新增12号变,佟村新增11号变,佟村新增15号变,佟村新增10号变,大柳村东(刁窝供电所）,大柳村西南,佟村新增13变【纯农排变】,佟村新增2号变,涿州市佟村小学2柱上变压器,佟村新增9号变,小柳村东南,佟村村东南增,1296佟村,1293小柳,佟村新增8号变,佟村内南,小柳村变压器,小柳村北柱变,1429佟村,大柳村东南,大柳东1286,大柳5535,佟村新增3号变,佟村新增1号变,佟村西地【纯农排变】,佟村（刁窝供电所）,小柳村东北柱变【纯农排变】,小柳村南内,大柳村西中,","scope":"【影响街道/乡镇】刁窝乡 【影响客户】大柳、小柳、佟村","startTime":"2020-05-08 05:00:00","stopDate":"2020-05-08 18:00:00","orgNo":"1340626","typeCode":"计划停电","poweroffArea":"【全线路停电】停１１０ＫＶ刁窝变电站１０ＫＶ５４１佟村线路全线，河北建设集团股份有限公司,1331大柳【纯农排变】,佟村南地【纯农排变】,涿州市民兵训练基地1,大柳西1287,佟村新增4号变,佟村新增6号变,佟村村西,佟村新增7号变,涿州市佟村小学1柱上变压器,涿州东京都物业服务有限公司2,佟村新增14号变,佟村新增5号变,佟村新增11号变,大柳村西南,佟村新增13变【纯农排变】,涿州市民兵训练基地2,河北京泊兴钢结构工程有限公司,0387563554-涿州京都物业服务有限公司-专变-45358788-京都,小柳西南地【纯农排变】,佟村新增9号变,佟村东南地【纯农排变】,涿州东京都物业服务有限公司1,佟村村东南增,佟村新增12号变,佟村新增15号变,佟村新增10号变,大柳村东(刁窝供电所）,佟村新增2号变,涿州市佟村小学2柱上变压器,010001285|大柳村北,小柳村东南,1329小柳,1296佟村,刁窝小柳村【纯农排变】,大柳5535,1293小柳,佟村新增8号变,佟村南口【纯农排变】,佟村内南,小柳村变压器,涿州市李扬农业科技有限公司,小柳村北柱变,涿州市大柳建筑材料厂,1429佟村,大柳村东南,大柳东1286,佟村新增3号变,佟村新增1号变,佟村西地【纯农排变】,佟村（刁窝供电所）,小柳村东北柱变【纯农排变】,小柳村南内,大柳村西中","poweroffReason":"【停电原因】由于线路清扫导致１１０ＫＶ刁窝变电站１０ＫＶ５４１佟村线路全线停电 【变更送电】无 【发布渠道】涿州市涿州电视台（０４月２８日至０５月０７日２１：００播放２次）屏幕上方滚动","powerTime":"2020-05-08 17:43:31","powerComm":"恢复送电","subsNo":"","lineNo":"","tgNo":"","tgName":null,"infoStatus":"1","orgName":"国网涿州市供电公司","typeName":null,"infoStatusName":null,"dateDay":null,"orgNos":null,"nowTime":null,"countyName":null,"streetName":null,"villageName":null,"roadName":null,"communityName":null,"tranName":null,"sdLineName":null,"cityCode":"1340626","cityName":"国网涿州市供电公司","provinceCode":null,"stopTime":"2020-05-08 18:00:00","powerType":"全部","powerOffArea":"【全线路停电】停１１０ＫＶ刁窝变电站１０ＫＶ５４１佟村线路全线，河北建设集团股份有限公司,1331大柳【纯农排变】,佟村南地【纯农排变】,涿州市民兵训练基地1,大柳西1287,佟村新增4号变,佟村新增6号变,佟村村西,佟村新增7号变,涿州市佟村小学1柱上变压器,涿州东京都物业服务有限公司2,佟村新增14号变,佟村新增5号变,佟村新增11号变,大柳村西南,佟村新增13变【纯农排变】,涿州市民兵训练基地2,河北京泊兴钢结构工程有限公司,0387563554-涿州京都物业服务有限公司-专变-45358788-京都,小柳西南地【纯农排变】,佟村新增9号变,佟村东南地【纯农排变】,涿州东京都物业服务有限公司1,佟村村东南增,佟村新增12号变,佟村新增15号变,佟村新增10号变,大柳村东(刁窝供电所）,佟村新增2号变,涿州市佟村小学2柱上变压器,010001285|大柳村北,小柳村东南,1329小柳,1296佟村,刁窝小柳村【纯农排变】,大柳5535,1293小柳,佟村新增8号变,佟村南口【纯农排变】,佟村内南,小柳村变压器,涿州市李扬农业科技有限公司,小柳村北柱变,涿州市大柳建筑材料厂,1429佟村,大柳村东南,大柳东1286,佟村新增3号变,佟村新增1号变,佟村西地【纯农排变】,佟村（刁窝供电所）,小柳村东北柱变【纯农排变】,小柳村南内,大柳村西中","powerOffReason":"【停电原因】由于线路清扫导致１１０ＫＶ刁窝变电站１０ＫＶ５４１佟村线路全线停电 【变更送电】无 【发布渠道】涿州市涿州电视台（０４月２８日至０５月０７日２１：００播放２次）屏幕上方滚动","powerOffId":"2020042813000105"},{"poweroffId":2020042813000094,"sgpoweroffId":null,"subsName":"","lineName":"百泉线518","pubTranName":"西关摩擦厂,518百泉线南关关里西,西关老虎头2台区,农业局家属楼,西关老虎头,南关瓦窑箱变出线间隔配电变压器,518百泉线新街新村,518百泉线新街后地,518百泉线南关瓦窑2#,西关箱变5#出线间隔配电变压器,518百泉线新街上关,西关大队西环,西关箱变2#出线间隔配电变压器,518百泉线新街河滩新上,双祥箱变7#出线间隔配电变压器,518百泉线硕丰园台区公用配变,西关石桥2,518百泉线西关石桥,移动箱变8#出线间隔配电变压器,西关老龙堂2,新街箱变4#出线间隔配电变压器,西美小区出线间隔配电变压器,南山路箱变6#出线间隔配电变压器,西关老虎头3号变压器,西关新村配变,西关箱变1#出线间隔配电变压器,新街盐业公司变压器,518百泉线太平关新南,西关箱变3#出线间隔配电变压器,518百泉线新街新村2号台区,南关关里西(市场),南关小学箱变出线间隔配电变压器,518百泉线西关二0九,","scope":"【影响街道/乡镇】１０８国道、城区办【高危重要客户】无【影响客户】太平关村、南关村、西关村、新街村、旗山市场、文化馆家属楼、教育局家属楼、自来水公司家属楼、盐业公司家属楼、农业局家属楼、城关派出所、双祥小区、南山高层、上关、南关小学、涞源县第三幼儿园、老虎头","startTime":"2020-05-09 07:00:00","stopDate":"2020-05-09 18:00:00","orgNo":"1340615","typeCode":"计划停电","poweroffArea":"【全线路停电】停１１０ＫＶ涞源变电站１０ＫＶ百泉线５１８线路全线,新街河滩新上,双祥箱变7#出线间隔配电变压器,518百泉线硕丰园台区公用配变,西关石桥2,518百泉线西关石桥,移动箱变8#出线间隔配电变压器,西关老龙堂2,新街箱变4#出线间隔配电变压器,西美小区出线间隔配电变压器,南山路箱变6#出线间隔配电变压器,南关小学,西关箱变2#出线间隔配电变压器,西关老虎头3号变压器,518百泉线西关二0九,西关新村配变,西关箱变1#出线间隔配电变压器,新街盐业公司变压器,518百泉线太平关新南,西关箱变3#出线间隔配电变压器,518百泉线新街新村2号台区,南关关里西(市场),南关小学箱变出线间隔配电变压器,农业局家属楼,西关摩擦厂,518百泉线南关关里西,西关老虎头2台区,西关老虎头,南关瓦窑箱变出线间隔配电变压器,518百泉线新街新村,518百泉线新街后地,518百泉线南关瓦窑2#,西关箱变5#出线间隔配电变压器,518百泉线新街上关,西关大队西环","poweroffReason":"【停电原因】由于配合西环线５１４线路停电导致１１０ＫＶ涞源变电站１０ＫＶ百泉线５１８线路全线停电【变更送电】无【发布渠道】涞源电视台（４月２９日至５月８日８时至２３时之间）屏幕上方滚动","powerTime":"2020-05-09 17:36:24","powerComm":"已送电","subsNo":"","lineNo":"","tgNo":"","tgName":null,"infoStatus":"1","orgName":"国网涞源县供电公司","typeName":null,"infoStatusName":null,"dateDay":null,"orgNos":null,"nowTime":null,"countyName":null,"streetName":null,"villageName":null,"roadName":null,"communityName":null,"tranName":null,"sdLineName":null,"cityCode":"1340615","cityName":"国网涞源县供电公司","provinceCode":null,"stopTime":"2020-05-09 18:00:00","powerType":"全部","powerOffArea":"【全线路停电】停１１０ＫＶ涞源变电站１０ＫＶ百泉线５１８线路全线,新街河滩新上,双祥箱变7#出线间隔配电变压器,518百泉线硕丰园台区公用配变,西关石桥2,518百泉线西关石桥,移动箱变8#出线间隔配电变压器,西关老龙堂2,新街箱变4#出线间隔配电变压器,西美小区出线间隔配电变压器,南山路箱变6#出线间隔配电变压器,南关小学,西关箱变2#出线间隔配电变压器,西关老虎头3号变压器,518百泉线西关二0九,西关新村配变,西关箱变1#出线间隔配电变压器,新街盐业公司变压器,518百泉线太平关新南,西关箱变3#出线间隔配电变压器,518百泉线新街新村2号台区,南关关里西(市场),南关小学箱变出线间隔配电变压器,农业局家属楼,西关摩擦厂,518百泉线南关关里西,西关老虎头2台区,西关老虎头,南关瓦窑箱变出线间隔配电变压器,518百泉线新街新村,518百泉线新街后地,518百泉线南关瓦窑2#,西关箱变5#出线间隔配电变压器,518百泉线新街上关,西关大队西环","powerOffReason":"【停电原因】由于配合西环线５１４线路停电导致１１０ＫＶ涞源变电站１０ＫＶ百泉线５１８线路全线停电【变更送电】无【发布渠道】涞源电视台（４月２９日至５月８日８时至２３时之间）屏幕上方滚动","powerOffId":"2020042813000094"},{"poweroffId":2020042813000071,"sgpoweroffId":null,"subsName":"","lineName":"歇马559线","pubTranName":"白合村3251变压器,白合2495变压器,白合村1558变压器,白合7158变压器,白合2477变压器,白合区直1537变压器,","scope":"【影响街道/乡镇】白合镇【高危重要客户】无【影响客户】白合村、白合医院","startTime":"2020-05-03 07:00:00","stopDate":"2020-05-03 18:00:00","orgNo":"1340622","typeCode":"临时停电","poweroffArea":"【分支停电】停１１０ＫＶ白合变电站歇马５５９线路白合镇分支００２号杆断路器以下线路白合村3251变压器,白合2495变压器,白合村1558变压器,白合7158变压器,白合2477变压器,白合区直1537变压器","poweroffReason":"【停电原因】由于更换电杆导致１１０ＫＶ白合变电站歇马５５９线路白合镇分支００２号杆断路器以下线路停电【变更送电】无【发布渠道】通过９５５９８发布","powerTime":"2020-05-03 17:46:43","powerComm":"已送电","subsNo":"","lineNo":"","tgNo":"","tgName":null,"infoStatus":"1","orgName":"国网唐县供电公司","typeName":null,"infoStatusName":null,"dateDay":null,"orgNos":null,"nowTime":null,"countyName":null,"streetName":null,"villageName":null,"roadName":null,"communityName":null,"tranName":null,"sdLineName":null,"cityCode":"1340622","cityName":"国网唐县供电公司","provinceCode":null,"stopTime":"2020-05-03 18:00:00","powerType":"全部","powerOffArea":"【分支停电】停１１０ＫＶ白合变电站歇马５５９线路白合镇分支００２号杆断路器以下线路白合村3251变压器,白合2495变压器,白合村1558变压器,白合7158变压器,白合2477变压器,白合区直1537变压器","powerOffReason":"【停电原因】由于更换电杆导致１１０ＫＶ白合变电站歇马５５９线路白合镇分支００２号杆断路器以下线路停电【变更送电】无【发布渠道】通过９５５９８发布","powerOffId":"2020042813000071"},{"poweroffId":2020042813000066,"sgpoweroffId":null,"subsName":"","lineName":"西环线514","pubTranName":"大北关石桥沟配变,小北关配变,涞源站514城西新村台区,涞源站514西关新和庄,太平关北配变,东关台区配变,太平南关配变,小北关2号配变,西关西环配变,中心街西片配变,山门地广场配变,壹佰户配变,局上关配变,新街西环配变,山门底广场箱变【2018配套送出及新增负荷】出线间隔配电变压器,涞源站514西环沿村,下沙河公用变配变,联合关村配变,太平关五号配变,","scope":"【影响街道/乡镇】广昌大街、中心街、沙河大街、北环路、西环路、城区办【高危重要客户】无【影响客户】太平关村、顺康小区、一百户、大北关村、小北关村、西关村、浩华小区、飞狐小区、保险公司家属楼、妇幼家属楼、幼儿园家属楼、华成小区、药材家属楼、建行家属楼、土地局家属楼、民政局家属楼、民政局、东关村、联合关村、旧汽车站、菜市场、上沙河、下沙河、一小家属楼、涞源县医院、妇幼保健院、九洲医院、涞源县职教中学、工商家属楼、地税家属楼、信合家属楼、涞源县第一幼儿园、平安里小区、新合庄、城里村","startTime":"2020-05-09 07:00:00","stopDate":"2020-05-09 18:00:00","orgNo":"1340615","typeCode":"计划停电","poweroffArea":"【全线路停电】停１１０ＫＶ涞源变电站１０ＫＶ西环线５１４线路全线,西关新和庄,大北关石桥沟配变,太平关北配变,东关台区配变,太平南关配变,小北关2号配变,西关西环配变,中心街西片配变,山门地广场配变,壹佰户配变,局上关配变,新街西环配变,山门底广场箱变【2018配套送出及新增负荷】出线间隔配电变压器,涞源站514西环沿村,下沙河公用变配变,联合关村配变,太平关五号配变,小北关配变,涞源站514城西新村台区","poweroffReason":"【停电原因】由于线路消缺、培土、清扫绝缘子导致１１０ＫＶ涞源变电站１０ＫＶ西环线５１４线路全线停电【变更送电】无【发布渠道】涞源电视台（４月２９日至５月８日８时至２３时之间）屏幕上方滚动","powerTime":"2020-05-09 17:37:12","powerComm":"已送电","subsNo":"","lineNo":"","tgNo":"","tgName":null,"infoStatus":"1","orgName":"国网涞源县供电公司","typeName":null,"infoStatusName":null,"dateDay":null,"orgNos":null,"nowTime":null,"countyName":null,"streetName":null,"villageName":null,"roadName":null,"communityName":null,"tranName":null,"sdLineName":null,"cityCode":"1340615","cityName":"国网涞源县供电公司","provinceCode":null,"stopTime":"2020-05-09 18:00:00","powerType":"全部","powerOffArea":"【全线路停电】停１１０ＫＶ涞源变电站１０ＫＶ西环线５１４线路全线,西关新和庄,大北关石桥沟配变,太平关北配变,东关台区配变,太平南关配变,小北关2号配变,西关西环配变,中心街西片配变,山门地广场配变,壹佰户配变,局上关配变,新街西环配变,山门底广场箱变【2018配套送出及新增负荷】出线间隔配电变压器,涞源站514西环沿村,下沙河公用变配变,联合关村配变,太平关五号配变,小北关配变,涞源站514城西新村台区","powerOffReason":"【停电原因】由于线路消缺、培土、清扫绝缘子导致１１０ＫＶ涞源变电站１０ＫＶ西环线５１４线路全线停电【变更送电】无【发布渠道】涞源电视台（４月２９日至５月８日８时至２３时之间）屏幕上方滚动","powerOffId":"2020042813000066"},{"poweroffId":2020042813000065,"sgpoweroffId":null,"subsName":"","lineName":"10kV525城内线","pubTranName":"东北街综合二台区变压器,北关综合一台区变压器,鲁军良,北关综合三台区变压器,蠡吾南大街综合八台区变压器,北关家属院,蠡吾南大街综合六台区变压器,国立新区,北关综合二台区变压器,北关综合四台区变压器,蠡吾北大街综合一台区变压器,","scope":"【影响街道/乡镇】蠡吾镇、蠡吾北大街、蠡吾南大街【高危重要客户】无【影响客户】北关村村东、北关村村西、东北街村北、农行附近、国立新区、老电力局院内、怡园小区、水泵厂附近","startTime":"2020-05-07 06:00:00","stopDate":"2020-05-07 17:00:00","orgNo":"1340616","typeCode":"计划停电","poweroffArea":"【分支停电】停２２０ＫＶ蠡县变电站１０ＫＶ城内５２５线路０３４号杆０２号开关０４号刀闸以下线路，蠡吾北大街综合一台区变压器,国立新区,东北街综合二台区变压器,北关综合一台区变压器,鲁军良,北关综合三台区变压器,蠡吾南大街综合八台区变压器,北关家属院,蠡吾南大街综合六台区变压器,北关综合二台区变压器,北关综合四台区变压器","poweroffReason":"【停电原因】由于变台改造导致２２０ＫＶ蠡县变电站１０ＫＶ城内５２５线路０３４号杆０２号开关０４号刀闸以下线路停电【变更送电】因工作进度加快，送电时间由１８：００变更为１７：００【发布渠道】蠡县电视台（０４月２８日至０５月０６日）屏幕上方滚动","powerTime":"2020-05-07 16:07:20","powerComm":"已送电","subsNo":"","lineNo":"","tgNo":"","tgName":null,"infoStatus":"1","orgName":"国网蠡县供电公司","typeName":null,"infoStatusName":null,"dateDay":null,"orgNos":null,"nowTime":null,"countyName":null,"streetName":null,"villageName":null,"roadName":null,"communityName":null,"tranName":null,"sdLineName":null,"cityCode":"1340616","cityName":"国网蠡县供电公司","provinceCode":null,"stopTime":"2020-05-07 17:00:00","powerType":"全部","powerOffArea":"【分支停电】停２２０ＫＶ蠡县变电站１０ＫＶ城内５２５线路０３４号杆０２号开关０４号刀闸以下线路，蠡吾北大街综合一台区变压器,国立新区,东北街综合二台区变压器,北关综合一台区变压器,鲁军良,北关综合三台区变压器,蠡吾南大街综合八台区变压器,北关家属院,蠡吾南大街综合六台区变压器,北关综合二台区变压器,北关综合四台区变压器","powerOffReason":"【停电原因】由于变台改造导致２２０ＫＶ蠡县变电站１０ＫＶ城内５２５线路０３４号杆０２号开关０４号刀闸以下线路停电【变更送电】因工作进度加快，送电时间由１８：００变更为１７：００【发布渠道】蠡县电视台（０４月２８日至０５月０６日）屏幕上方滚动","powerOffId":"2020042813000065"},{"poweroffId":2020042813000058,"sgpoweroffId":null,"subsName":"","lineName":"西留果庄线512","pubTranName":"06042|闫房子村西2台区综合,06041|闫房子村西1台区综合,云吉祥,云吉祥织布厂,未庄大队(原布厂),06072|魏庄村东3台区综合,","scope":"【影响街道/乡镇】小王果庄乡 【高危重要客户】无 【影响客户】魏庄村东、闫房子村","startTime":"2020-05-10 07:00:00","stopDate":"2020-05-10 17:00:00","orgNo":"1340613","typeCode":"计划停电","poweroffArea":"【分支停电】停06072|魏庄村东3台区综合,06042|闫房子村西2台区综合,06041|闫房子村西1台区综合,云吉祥,云吉祥织布厂,未庄大队(原布厂)","poweroffReason":"【停电原因】由于新增配变及设备导致３５ＫＶ李果庄变电站西留果庄５１２线路主线７４号杆７４号开关以下停电【变更送电】无【发布渠道】高阳县电视台（４月２９日１９时至２１时之间）屏幕下方滚动播出","powerTime":"2020-05-10 17:00:00","powerComm":"已送电","subsNo":"","lineNo":"","tgNo":"","tgName":null,"infoStatus":"1","orgName":"国网高阳县供电公司","typeName":null,"infoStatusName":null,"dateDay":null,"orgNos":null,"nowTime":null,"countyName":null,"streetName":null,"villageName":null,"roadName":null,"communityName":null,"tranName":null,"sdLineName":null,"cityCode":"1340613","cityName":"国网高阳县供电公司","provinceCode":null,"stopTime":"2020-05-10 17:00:00","powerType":"全部","powerOffArea":"【分支停电】停06072|魏庄村东3台区综合,06042|闫房子村西2台区综合,06041|闫房子村西1台区综合,云吉祥,云吉祥织布厂,未庄大队(原布厂)","powerOffReason":"【停电原因】由于新增配变及设备导致３５ＫＶ李果庄变电站西留果庄５１２线路主线７４号杆７４号开关以下停电【变更送电】无【发布渠道】高阳县电视台（４月２９日１９时至２１时之间）屏幕下方滚动播出","powerOffId":"2020042813000058"},{"poweroffId":2020042813000050,"sgpoweroffId":null,"subsName":"","lineName":"边家务线525","pubTranName":"庞佐村北新增综合,庞佐村西新增综合,庞佐西42综合,北归还大槐树新增综合,庞佐东5综合,庞佐村南126综合,辛丰庄村东北综合,北归还村东南新增综合,北归还72综合,北归还新增综合,庞佐村南新增综合,","scope":"【影响街道/乡镇】西演镇、庞口镇、庞佐乡 【高危重要客户】无 【影响客户】庞佐村（不包含庞佐村西北）、辛丰庄村东北、辛丰庄村北、北归还村东、北归还村东南、北归还村东北","startTime":"2020-05-09 06:00:00","stopDate":"2020-05-09 17:00:00","orgNo":"1340613","typeCode":"计划停电","poweroffArea":"【分支停电】停北归还1#台区113#农业【纯农排变】,庞佐村南新增综合,河北同兴电气有限公司变压器,辛丰庄村西,华北油田第三采油厂,庞佐71#农业【纯农排变】,中国石油天然气股份有限公司华北油田分公司变压器01,中国石油天然气股份有限公司华北油田分公司变压器,庞佐乡政府小区,河北同兴电气有限公司变压器02,庞佐村北新增综合,高阳县庞家佐中学变压器,华北油田1号,庞佐村西新增综合,庞佐95#农业【纯农排变】,庞佐西42综合,大东毛纺厂(子),河北同兴电气有限公司变压器01,河北同兴电气有限公司01,庞佐94#农业【纯农排变】,北归还大槐树新增综合,河北同兴电气有限公司,续惠丰变压器,庞佐东5综合,庞佐村南126综合,辛丰庄村东北综合,北归还村东南新增综合,北归还72综合,北归还新增综合","poweroffReason":"【停电原因】由于新建变台及设备导致１１０ＫＶ西演变电站边家务５２５线路庞佐西南分支３号杆３号开关以下停电【变更送电】因抢修进度加快原因，送电时间由１７:３０变更为１７:００【发布渠道】高阳县电视台（４月２９日１９时至２１时之间）屏幕下方滚动播出","powerTime":"2020-05-09 16:20:28","powerComm":"已送电","subsNo":"","lineNo":"","tgNo":"","tgName":null,"infoStatus":"1","orgName":"国网高阳县供电公司","typeName":null,"infoStatusName":null,"dateDay":null,"orgNos":null,"nowTime":null,"countyName":null,"streetName":null,"villageName":null,"roadName":null,"communityName":null,"tranName":null,"sdLineName":null,"cityCode":"1340613","cityName":"国网高阳县供电公司","provinceCode":null,"stopTime":"2020-05-09 17:00:00","powerType":"全部","powerOffArea":"【分支停电】停北归还1#台区113#农业【纯农排变】,庞佐村南新增综合,河北同兴电气有限公司变压器,辛丰庄村西,华北油田第三采油厂,庞佐71#农业【纯农排变】,中国石油天然气股份有限公司华北油田分公司变压器01,中国石油天然气股份有限公司华北油田分公司变压器,庞佐乡政府小区,河北同兴电气有限公司变压器02,庞佐村北新增综合,高阳县庞家佐中学变压器,华北油田1号,庞佐村西新增综合,庞佐95#农业【纯农排变】,庞佐西42综合,大东毛纺厂(子),河北同兴电气有限公司变压器01,河北同兴电气有限公司01,庞佐94#农业【纯农排变】,北归还大槐树新增综合,河北同兴电气有限公司,续惠丰变压器,庞佐东5综合,庞佐村南126综合,辛丰庄村东北综合,北归还村东南新增综合,北归还72综合,北归还新增综合","powerOffReason":"【停电原因】由于新建变台及设备导致１１０ＫＶ西演变电站边家务５２５线路庞佐西南分支３号杆３号开关以下停电【变更送电】因抢修进度加快原因，送电时间由１７:３０变更为１７:００【发布渠道】高阳县电视台（４月２９日１９时至２１时之间）屏幕下方滚动播出","powerOffId":"2020042813000050"},{"poweroffId":2020042813000048,"sgpoweroffId":null,"subsName":"","lineName":"下河西线516","pubTranName":"10kV516下河西线南营9号,","scope":"【影响街道/乡镇】史端乡 【高危重要客户】无 【影响客户】南营村、下河西村、徐庄","startTime":"2020-04-28 08:49:59","stopDate":"2020-04-28 10:30:00","orgNo":"1340605","typeCode":"电网故障停限电","poweroffArea":"【全线路停电】停变压器,10kV516下河西线下河西6号【纯农排变】,10kV516下河西线南营6号,10kV516下河西线南营8号,10kV516下河西线下河西供15号,中国联合网络通信有限公司徐水县分公司史端,10kV516下河西线下河西3号,10kV516下河西线下河西10号,10kV516下河西线南营9号,10kV516下河西线下河西7号【纯农排变】,河北德荣机械配件制造有限公司,0469278763河北旺金农粮食贸易有限公司900028567017,10kV516下河西线南营7号,中国联合网络通信有限公司徐水分公司史端,冀中钢模厂,10kV516下河西线下河西供67号,河北龙巢门业有限公司,客户投资_下河西供51号,10kV516下河西线徐庄供57号,保定绿世纪龙肥有限公司,河北绿风集团有限公司2号,10kV516下河西线下河西8号,10kV516下河西线下河西供84号,10kV516下河西线下河西供89号,10kV516下河西线下河西2号,10kV516下河西线下河西供50号,10kV516下河西线南营供56号,徐水县天源贸易有限公司,10kV516下河西线南营10号","poweroffReason":"【停电原因】由于Ｂ相接地导致３５ＫＶ下河西变电站下河西线５１６线路全线停电 【变更送电】因抢修进度加快原因，送电时间由１５:００变更为１０:３０ 【发布渠道】通过９５５９８发布","powerTime":"2020-04-28 10:02:26","powerComm":"已送电","subsNo":"","lineNo":"","tgNo":"","tgName":null,"infoStatus":"1","orgName":"国网徐水县供电公司","typeName":null,"infoStatusName":null,"dateDay":null,"orgNos":null,"nowTime":null,"countyName":null,"streetName":null,"villageName":null,"roadName":null,"communityName":null,"tranName":null,"sdLineName":null,"cityCode":"1340605","cityName":"国网徐水县供电公司","provinceCode":null,"stopTime":"2020-04-28 10:30:00","powerType":"全部","powerOffArea":"【全线路停电】停变压器,10kV516下河西线下河西6号【纯农排变】,10kV516下河西线南营6号,10kV516下河西线南营8号,10kV516下河西线下河西供15号,中国联合网络通信有限公司徐水县分公司史端,10kV516下河西线下河西3号,10kV516下河西线下河西10号,10kV516下河西线南营9号,10kV516下河西线下河西7号【纯农排变】,河北德荣机械配件制造有限公司,0469278763河北旺金农粮食贸易有限公司900028567017,10kV516下河西线南营7号,中国联合网络通信有限公司徐水分公司史端,冀中钢模厂,10kV516下河西线下河西供67号,河北龙巢门业有限公司,客户投资_下河西供51号,10kV516下河西线徐庄供57号,保定绿世纪龙肥有限公司,河北绿风集团有限公司2号,10kV516下河西线下河西8号,10kV516下河西线下河西供84号,10kV516下河西线下河西供89号,10kV516下河西线下河西2号,10kV516下河西线下河西供50号,10kV516下河西线南营供56号,徐水县天源贸易有限公司,10kV516下河西线南营10号","powerOffReason":"【停电原因】由于Ｂ相接地导致３５ＫＶ下河西变电站下河西线５１６线路全线停电 【变更送电】因抢修进度加快原因，送电时间由１５:００变更为１０:３０ 【发布渠道】通过９５５９８发布","powerOffId":"2020042813000048"},{"poweroffId":2020042813000039,"sgpoweroffId":null,"subsName":"","lineName":"南沙线525","pubTranName":"南沙村西南7#综合,09031|南沙村西北4#综合,10041|高阳镇小区综合,09033|南沙村西南3#综合,","scope":"【影响街道/乡镇】高阳镇、红润大街 【高危重要客户】无 【影响客户】南沙村西、高阳镇家属院","startTime":"2020-05-09 06:00:00","stopDate":"2020-05-09 12:00:00","orgNo":"1340613","typeCode":"计划停电","poweroffArea":"【分支停电】停敬联毛纺厂,聚源浴池,李双池,09031|南沙村西北4#综合,冀中铸造机械厂,09033|南沙村西南3#综合,胜利染厂,10041|高阳镇小区综合,敬联纺织厂,胡国生,南沙王明发,王三合线厂,京京纺织品公司,白鸽纺织品有限公司,北龙纺织品公司,南沙村西南7#综合,张学锦,高阳镇政府,刘大中,敬联毛呢厂,瑞达纺织品公司","poweroffReason":"【停电原因】由于更换电杆导致１１０ＫＶ田果庄变电站南沙５２５线路主线２５号杆２５号开关以下线路停电【变更送电】因抢修进度加快原因，送电时间由１４:００变更为１２:００【发布渠道】高阳县电视台（４月２９日１９时至２１时之间）屏幕下方滚动播出","powerTime":"2020-05-09 11:49:21","powerComm":"已送电","subsNo":"","lineNo":"","tgNo":"","tgName":null,"infoStatus":"1","orgName":"国网高阳县供电公司","typeName":null,"infoStatusName":null,"dateDay":null,"orgNos":null,"nowTime":null,"countyName":null,"streetName":null,"villageName":null,"roadName":null,"communityName":null,"tranName":null,"sdLineName":null,"cityCode":"1340613","cityName":"国网高阳县供电公司","provinceCode":null,"stopTime":"2020-05-09 12:00:00","powerType":"全部","powerOffArea":"【分支停电】停敬联毛纺厂,聚源浴池,李双池,09031|南沙村西北4#综合,冀中铸造机械厂,09033|南沙村西南3#综合,胜利染厂,10041|高阳镇小区综合,敬联纺织厂,胡国生,南沙王明发,王三合线厂,京京纺织品公司,白鸽纺织品有限公司,北龙纺织品公司,南沙村西南7#综合,张学锦,高阳镇政府,刘大中,敬联毛呢厂,瑞达纺织品公司","powerOffReason":"【停电原因】由于更换电杆导致１１０ＫＶ田果庄变电站南沙５２５线路主线２５号杆２５号开关以下线路停电【变更送电】因抢修进度加快原因，送电时间由１４:００变更为１２:００【发布渠道】高阳县电视台（４月２９日１９时至２１时之间）屏幕下方滚动播出","powerOffId":"2020042813000039"}],"pageModel":{"pageNow":128,"totalCount":10973,"totalPage":1098,"tableRows":0,"pageCount":10,"beginCount":1270},"isExperi":"1"}