{"message":"","today":"2020-06-15","seleList":[{"poweroffId":2020042713000365,"sgpoweroffId":null,"subsName":"","lineName":"10KV东垒子515","pubTranName":"东垒子村南,西垒子村西变压器,","scope":"【影响街道/乡镇】永阳镇 【高危重要客户】无 【影响客户】西垒子村、东垒子村","startTime":"2020-04-29 17:00:00","stopDate":"2020-04-29 19:30:00","orgNo":"1340614","typeCode":"临时停电","poweroffArea":"【全线路停电】停３５ＫＶ永阳变电站１０ＫＶ东垒子５１５线路全线，东垒子村南,西垒子村西变压器","poweroffReason":"【停电原因】由于倒运行方式导致３５ＫＶ永阳变电站１０ＫＶ东垒子５１５线路全线停电 【变更送电】因工作量大原因，送电时间由１８：３０变更为１９：３０ 【发布渠道】通过９５５９８发布","powerTime":"2020-04-29 18:35:31","powerComm":"已送电","subsNo":"","lineNo":"","tgNo":"","tgName":null,"infoStatus":"1","orgName":"国网涞水县供电公司","typeName":null,"infoStatusName":null,"dateDay":null,"orgNos":null,"nowTime":null,"countyName":null,"streetName":null,"villageName":null,"roadName":null,"communityName":null,"tranName":null,"sdLineName":null,"cityCode":"1340614","cityName":"国网涞水县供电公司","provinceCode":null,"stopTime":"2020-04-29 19:30:00","powerType":"全部","powerOffArea":"【全线路停电】停３５ＫＶ永阳变电站１０ＫＶ东垒子５１５线路全线，东垒子村南,西垒子村西变压器","powerOffReason":"【停电原因】由于倒运行方式导致３５ＫＶ永阳变电站１０ＫＶ东垒子５１５线路全线停电 【变更送电】因工作量大原因，送电时间由１８：３０变更为１９：３０ 【发布渠道】通过９５５９８发布","powerOffId":"2020042713000365"},{"poweroffId":2020042713000360,"sgpoweroffId":null,"subsName":"","lineName":"10KV丛西线514","pubTranName":"周家庄村北变压器,坛山村东变压器,丛西村东变压器,","scope":"【影响街道/乡镇】永阳镇 【高危重要客户】无 【影响客户】丛西村、檀山村、周家庄村","startTime":"2020-04-29 17:00:00","stopDate":"2020-04-29 19:30:00","orgNo":"1340614","typeCode":"临时停电","poweroffArea":"【全线路停电】停３５ＫＶ永阳变电站１０ＫＶ丛西５１４线路全线，丛西村东变压器,周家庄村北变压器,坛山村东变压器","poweroffReason":"【停电原因】由于倒运行方式导致３５ＫＶ永阳变电站１０ＫＶ丛西５１４线路全线停电 【变更送电】因工作量大原因，送电时间由１８：３０变更为１９：３０ 【发布渠道】通过９５５９８发布","powerTime":"2020-04-29 18:35:56","powerComm":"已送电","subsNo":"","lineNo":"","tgNo":"","tgName":null,"infoStatus":"1","orgName":"国网涞水县供电公司","typeName":null,"infoStatusName":null,"dateDay":null,"orgNos":null,"nowTime":null,"countyName":null,"streetName":null,"villageName":null,"roadName":null,"communityName":null,"tranName":null,"sdLineName":null,"cityCode":"1340614","cityName":"国网涞水县供电公司","provinceCode":null,"stopTime":"2020-04-29 19:30:00","powerType":"全部","powerOffArea":"【全线路停电】停３５ＫＶ永阳变电站１０ＫＶ丛西５１４线路全线，丛西村东变压器,周家庄村北变压器,坛山村东变压器","powerOffReason":"【停电原因】由于倒运行方式导致３５ＫＶ永阳变电站１０ＫＶ丛西５１４线路全线停电 【变更送电】因工作量大原因，送电时间由１８：３０变更为１９：３０ 【发布渠道】通过９５５９８发布","powerOffId":"2020042713000360"},{"poweroffId":2020042713000359,"sgpoweroffId":null,"subsName":"","lineName":"10kV536正阳街线","pubTranName":"0000005650东大街桥西区2变压器,0000004456小南关南变压器,0000006029东大街广场变压器,0014317112正阳副业3变压器,0000006150后巷街统管4变压器,0000005409新华书店家属院变压器,0000006292二期商城北变压器,0000004454大南关西变压器,0012792874东关东2区变压器,0000007222正阳街统管6变压器,0000006152二期商城变压器,0000006148后巷街统管2变压器,滨河新区配电变压器,0012834849正阳街统管5变压器,0000006097正阳副业4变压器,0000004441东关北区,0000005651东大街桥西1变压器,东大街广场西变压器,0000006153汶水街变压器,0000006149后巷街统管3变压器,二期商城西北变压器,0000006147后巷街统管1变压器,0000004458大南关东区变压器,正阳街中变压器,0000006098滨河小区变压器,0000007130曲阳县富园小区变压器,0012114550二期商城2变压器,","scope":"【影响街道/乡镇】东大街、汶水街、后巷街、正阳街、恒州镇 【影响客户】滨河小区、二期商城、旧县委、新华书店家属院、东关、大南关、小南关、富园小区、滨河新区、惠友超市、正阳副业","startTime":"2020-05-10 07:30:00","stopDate":"2020-05-10 18:00:00","orgNo":"1340619","typeCode":"计划停电","poweroffArea":"【全线路停电】停３５ＫＶ城西变电站１０ＫＶ５３６正阳街线路全线，0000007222正阳街统管6变压器,0000006152二期商城变压器,0000006148后巷街统管2变压器,滨河新区配电变压器,0012834849正阳街统管5变压器,0000006097正阳副业4变压器,0000004441东关北区,0000005651东大街桥西1变压器,东大街广场西变压器,0000004454大南关西变压器,0012792874东关东2区变压器,0012114550二期商城2变压器,0000005650东大街桥西区2变压器,0000004456小南关南变压器,0000006153汶水街变压器,0000006149后巷街统管3变压器,二期商城西北变压器,0000006147后巷街统管1变压器,0000004458大南关东区变压器,正阳街中变压器,0000006098滨河小区变压器,0000007130曲阳县富园小区变压器,0000006029东大街广场变压器,0014317112正阳副业3变压器,0000006150后巷街统管4变压器,0000005409新华书店家属院变压器,0000006292二期商城北变压器,保定市惠友万家福超级市场有限公司购物广场曲阳店变压器-001#,曲阳县逸夫小学,保定市惠友万家福超级市场有限公司购物广场曲阳店变压器,0469351923-曲阳县人民政府招待处-专变-46781473-曲阳县人民政府招待处,曲阳县潮衣酷服饰中心变压器,恒山西路路灯,0469351486-谢志明(合表用户)-专变-46781525-谢志明,曲阳县永益五金门市变压器,商城路灯,滨河路路灯","poweroffReason":"【停电原因】由于线路基建检修导致３５ＫＶ城西变电站１０ＫＶ５３６正阳街线路全线停电 【变更送电】无 【发布渠道】保定市曲阳县电视台（０４月２７日至０４月２９日１８时至２０时之间）屏幕上方滚动","powerTime":"2020-05-10 17:54:07","powerComm":"已送电","subsNo":"","lineNo":"","tgNo":"","tgName":null,"infoStatus":"1","orgName":"国网曲阳县供电公司","typeName":null,"infoStatusName":null,"dateDay":null,"orgNos":null,"nowTime":null,"countyName":null,"streetName":null,"villageName":null,"roadName":null,"communityName":null,"tranName":null,"sdLineName":null,"cityCode":"1340619","cityName":"国网曲阳县供电公司","provinceCode":null,"stopTime":"2020-05-10 18:00:00","powerType":"全部","powerOffArea":"【全线路停电】停３５ＫＶ城西变电站１０ＫＶ５３６正阳街线路全线，0000007222正阳街统管6变压器,0000006152二期商城变压器,0000006148后巷街统管2变压器,滨河新区配电变压器,0012834849正阳街统管5变压器,0000006097正阳副业4变压器,0000004441东关北区,0000005651东大街桥西1变压器,东大街广场西变压器,0000004454大南关西变压器,0012792874东关东2区变压器,0012114550二期商城2变压器,0000005650东大街桥西区2变压器,0000004456小南关南变压器,0000006153汶水街变压器,0000006149后巷街统管3变压器,二期商城西北变压器,0000006147后巷街统管1变压器,0000004458大南关东区变压器,正阳街中变压器,0000006098滨河小区变压器,0000007130曲阳县富园小区变压器,0000006029东大街广场变压器,0014317112正阳副业3变压器,0000006150后巷街统管4变压器,0000005409新华书店家属院变压器,0000006292二期商城北变压器,保定市惠友万家福超级市场有限公司购物广场曲阳店变压器-001#,曲阳县逸夫小学,保定市惠友万家福超级市场有限公司购物广场曲阳店变压器,0469351923-曲阳县人民政府招待处-专变-46781473-曲阳县人民政府招待处,曲阳县潮衣酷服饰中心变压器,恒山西路路灯,0469351486-谢志明(合表用户)-专变-46781525-谢志明,曲阳县永益五金门市变压器,商城路灯,滨河路路灯","powerOffReason":"【停电原因】由于线路基建检修导致３５ＫＶ城西变电站１０ＫＶ５３６正阳街线路全线停电 【变更送电】无 【发布渠道】保定市曲阳县电视台（０４月２７日至０４月２９日１８时至２０时之间）屏幕上方滚动","powerOffId":"2020042713000359"},{"poweroffId":2020042713000356,"sgpoweroffId":null,"subsName":"","lineName":"10kV532南关线","pubTranName":"0000004497岗子东南变压器,0000006351安康公寓变压器,0000006886明珠花园变压器,菜市场东变压器,0000006109菜市场北2变压器,0000006227东关北2区变压器,0000006108菜市场北1变压器,0000006112菜市场南4变压器,0000006142城区统管2变压器,0000006111菜市场南2变压器,水岸商都配电变压器,金地花园配电变压器,0000006110菜市场南1变压器,鼎盛小区东区配电变压器,0012457082跃进市场小区变压器,0000006145燕南街统管1变压器,0000006146燕南街统管2变压器,0000006050新汽车站小区变压器,0000006113菜市场南3变压器,0000006144商城北统管2变压器,东关北3变压器,0012271086旧中医院家属院变压器,0012576843金地家园变压器,鼎盛小区西区配电变压器,0000006141城区统管1变压器,0013373400曲阳县运输公司小区变压器,0000004498岗子西变变压器,0000005593正阳副业2变压器,0000006143商城北统管1变压器,正阳街北统管变压器,恒州路西统管变压器,0000006125点将台小区变压器,0000006361中医院家属院变压器,燕南街统管3变压器,","scope":"【影响街道/乡镇】恒州镇、燕南街、恒州路、正阳街 【影响客户】小岗子、新汽车站小区、商城、一中、邮政局、大南关菜市场、点将台小区、东关、安康公寓、中医院家属院、城区、明珠花园、卫生局办公楼、水岸商都小区、金地花园、旧中医院家属院、运输公司小区、跃进市场小区、 鼎盛庄园","startTime":"2020-05-10 07:30:00","stopDate":"2020-05-10 18:00:00","orgNo":"1340619","typeCode":"计划停电","poweroffArea":"【全线路停电】停３５ＫＶ城西变电站１０ＫＶ５３２南关线路全线，0000006227东关北2区变压器,0000006146燕南街统管2变压器,0000006050新汽车站小区变压器,0000006113菜市场南3变压器,0000006361中医院家属院变压器,东关北3变压器,0012271086旧中医院家属院变压器,0012576843金地家园变压器,0000006109菜市场北2变压器,0000006112菜市场南4变压器,0000006108菜市场北1变压器,曲阳县飞达电器有限公司飞达购物广场变压器,0000006142城区统管2变压器,0000006111菜市场南2变压器,0000006144商城北统管2变压器,曲阳县鼎盛庄园二期变压器,鼎盛小区西区配电变压器,0000006141城区统管1变压器,菜市场东变压器,0013373400曲阳县运输公司小区变压器,0000004498岗子西变变压器,0000005593正阳副业2变压器,正阳街路灯1,0000006143商城北统管1变压器,正阳街北统管变压器,恒州路西统管变压器,田世杰,0000006125点将台小区变压器,燕南街统管3变压器,0000004497岗子东南变压器,0012457082跃进市场小区变压器,0000006351安康公寓变压器,0000006886明珠花园变压器,0000006145燕南街统管1变压器,水岸商都配电变压器,金地花园配电变压器,曲阳县中医院CT,0000006110菜市场南1变压器,鼎盛小区东区配电变压器","poweroffReason":"【停电原因】由于线路基建检修导致３５ＫＶ城西变电站１０ＫＶ５３２南关线路全线停电 【变更送电】无 【发布渠道】保定市曲阳县电视台（０４月２７日至０４月２９日１８时至２０时之间）屏幕上方滚动","powerTime":"2020-05-10 17:55:11","powerComm":"已送电","subsNo":"","lineNo":"","tgNo":"","tgName":null,"infoStatus":"1","orgName":"国网曲阳县供电公司","typeName":null,"infoStatusName":null,"dateDay":null,"orgNos":null,"nowTime":null,"countyName":null,"streetName":null,"villageName":null,"roadName":null,"communityName":null,"tranName":null,"sdLineName":null,"cityCode":"1340619","cityName":"国网曲阳县供电公司","provinceCode":null,"stopTime":"2020-05-10 18:00:00","powerType":"全部","powerOffArea":"【全线路停电】停３５ＫＶ城西变电站１０ＫＶ５３２南关线路全线，0000006227东关北2区变压器,0000006146燕南街统管2变压器,0000006050新汽车站小区变压器,0000006113菜市场南3变压器,0000006361中医院家属院变压器,东关北3变压器,0012271086旧中医院家属院变压器,0012576843金地家园变压器,0000006109菜市场北2变压器,0000006112菜市场南4变压器,0000006108菜市场北1变压器,曲阳县飞达电器有限公司飞达购物广场变压器,0000006142城区统管2变压器,0000006111菜市场南2变压器,0000006144商城北统管2变压器,曲阳县鼎盛庄园二期变压器,鼎盛小区西区配电变压器,0000006141城区统管1变压器,菜市场东变压器,0013373400曲阳县运输公司小区变压器,0000004498岗子西变变压器,0000005593正阳副业2变压器,正阳街路灯1,0000006143商城北统管1变压器,正阳街北统管变压器,恒州路西统管变压器,田世杰,0000006125点将台小区变压器,燕南街统管3变压器,0000004497岗子东南变压器,0012457082跃进市场小区变压器,0000006351安康公寓变压器,0000006886明珠花园变压器,0000006145燕南街统管1变压器,水岸商都配电变压器,金地花园配电变压器,曲阳县中医院CT,0000006110菜市场南1变压器,鼎盛小区东区配电变压器","powerOffReason":"【停电原因】由于线路基建检修导致３５ＫＶ城西变电站１０ＫＶ５３２南关线路全线停电 【变更送电】无 【发布渠道】保定市曲阳县电视台（０４月２７日至０４月２９日１８时至２０时之间）屏幕上方滚动","powerOffId":"2020042713000356"},{"poweroffId":2020042713000350,"sgpoweroffId":null,"subsName":"","lineName":"沿村线516","pubTranName":"高里店光2,石柱光3,长安城光6,东高里光2,石柱光7,东高里光1,长安城光2,高里店光8,高里店光8【2019年预安排】,东高里光3,长安城光11,长安城光4,长安城光3,石柱光9,长安城光8,石柱光1,长安城光5,新高里店光4【2018年一批应急】,石柱小学,石柱光4,古桑光1【2018年四批补强】,沿村光6,石柱光11,沿村光5,沿村光3,石柱光10【2018年重过载】,长安城光1,东高里村委会,石柱光6,石柱光9【【2018年四批补强】,高里店光6,长安城光4【2018年重过载】,石柱村光5,高里店光7,石柱光2,高里乡政府公用【2018年第二批应急工程】,高里店光9,高里店光3,长安城光10,古桑光2,古桑光5,古桑光3,古桑光4,沿村光2,沿村光4,长安城光7,石柱光12【2018年四批补强】,长安城光9,","scope":"【影响街道/乡镇】高里乡 【高危重要客户】无 【影响客户】高里店、东高里、长安城、沿村、石柱、古桑、高里乡政府、高里乡长安城小学、沿村小学、安祥居饭店、瑞卓混凝土、定兴县鑫顺伟宇废旧物资回收有限公司、兴安面粉厂、桂林废旧木材收购点、仓满粮食收购、道和混凝土、东高里村委会、定兴县开明肉羊饲养场、定兴县鼎飞建材销售有限公司、晓松废品收购、克岭建材、高里乡石柱小学","startTime":"2020-04-30 07:30:00","stopDate":"2020-04-30 18:00:00","orgNo":"1340609","typeCode":"临时停电","poweroffArea":"【全线路停电】停石柱光11,长安城光1,东高里村委会,石柱光6,石柱光9【【2018年四批补强】,高里店光6,长安城光4【2018年重过载】,石柱村光5,高里店光7,石柱光2,高里乡政府公用【2018年第二批应急工程】,高里店光9,高里店光3,长安城光3,石柱光9,长安城光8,石柱光1,长安城光5,新高里店光4【2018年一批应急】,石柱小学,石柱光4,长安城光7,石柱光12【2018年四批补强】,长安城光9,石柱光10【2018年重过载】,长安城光11,长安城光4,长安城光10,高里店光2,长安城光6,东高里光2,石柱光7,东高里光1,长安城光2,高里店光8,高里店光8【2019年预安排】,古桑光1【2018年四批补强】,沿村光6,东高里光3,石柱光3,沿村光5,沿村光3,古桑光2,古桑光5,古桑光3,古桑光4,沿村光2,沿村光4","poweroffReason":"【停电原因】由于线路清扫检修导致３５ＫＶ景安变电站沿村线５１６线路全线停电 【变更送电】无 【发布渠道】通过９５５９８发布","powerTime":"2020-04-30 17:51:30","powerComm":"已送电","subsNo":"","lineNo":"","tgNo":"","tgName":null,"infoStatus":"1","orgName":"国网定兴县供电公司","typeName":null,"infoStatusName":null,"dateDay":null,"orgNos":null,"nowTime":null,"countyName":null,"streetName":null,"villageName":null,"roadName":null,"communityName":null,"tranName":null,"sdLineName":null,"cityCode":"1340609","cityName":"国网定兴县供电公司","provinceCode":null,"stopTime":"2020-04-30 18:00:00","powerType":"全部","powerOffArea":"【全线路停电】停石柱光11,长安城光1,东高里村委会,石柱光6,石柱光9【【2018年四批补强】,高里店光6,长安城光4【2018年重过载】,石柱村光5,高里店光7,石柱光2,高里乡政府公用【2018年第二批应急工程】,高里店光9,高里店光3,长安城光3,石柱光9,长安城光8,石柱光1,长安城光5,新高里店光4【2018年一批应急】,石柱小学,石柱光4,长安城光7,石柱光12【2018年四批补强】,长安城光9,石柱光10【2018年重过载】,长安城光11,长安城光4,长安城光10,高里店光2,长安城光6,东高里光2,石柱光7,东高里光1,长安城光2,高里店光8,高里店光8【2019年预安排】,古桑光1【2018年四批补强】,沿村光6,东高里光3,石柱光3,沿村光5,沿村光3,古桑光2,古桑光5,古桑光3,古桑光4,沿村光2,沿村光4","powerOffReason":"【停电原因】由于线路清扫检修导致３５ＫＶ景安变电站沿村线５１６线路全线停电 【变更送电】无 【发布渠道】通过９５５９８发布","powerOffId":"2020042713000350"},{"poweroffId":2020042713000349,"sgpoweroffId":null,"subsName":"","lineName":"10kV539水电站线","pubTranName":"0012788567小南关南2变压器,西城枫景2区配电变压器,轩和家园二期（2）配电变压器,轩和家园二期（1）配电变压器,0000005348小南关东变压器,0012510338城西南3变压器,北岳小区配电变压器,育英台2变压器,0000006124小南关东2变压器,轩和家园配电变压器,燕南街西统管柱上变压器,小南关中变压器,西城枫景4区配电变压器,西城枫景1区配电变压器,0014235536城西南1变压器,0000006198育英台变压器,西城枫景3区配电变压器,0000007223小南关北变压器,0012510337小南关北2变压器,0000006168北关大队统管2变压器,0000006529农机监理站小区2变压器,0000005327北关大队统管变压器,0000006199红十字医院变压器,","scope":"【影响街道/乡镇】燕南街、恒州镇 【影响客户】育英台、红十字医院、贡家庄、农机监理站小区、小南关、北关、旧二中、轩和家园、文物所、城西、西城枫景、轩和家园二期、北岳小区、雅馨园小区、曲阳县第一中学、河北丽庭酒店","startTime":"2020-05-10 07:30:00","stopDate":"2020-05-10 17:30:00","orgNo":"1340619","typeCode":"计划停电","poweroffArea":"【全线路停电】停３５ＫＶ城西变电站１０ＫＶ５３９水电站线路全线，0000005327北关大队统管变压器,0000006199红十字医院变压器,0012788567小南关南2变压器,西城枫景2区配电变压器,轩和家园二期（2）配电变压器,曲阳县雅馨园小区住宅楼,0000005348小南关东变压器,燕南街西统管柱上变压器,第一高级中学家属院,小南关中变压器,西城枫景4区配电变压器,西城枫景1区配电变压器,0014235536城西南1变压器,0000006198育英台变压器,0012510338城西南3变压器,曲阳县第一高级中学（2）变压器,北岳小区配电变压器,曲阳县第一高级中学,育英台2变压器,0000006124小南关东2变压器,轩和家园配电变压器,西城枫景3区配电变压器,轩和家园二期（1）配电变压器,0000007223小南关北变压器,0012510337小南关北2变压器,0000006168北关大队统管2变压器,0000006529农机监理站小区2变压器,庙前街路灯,河北丽庭酒店有限公司变压器,小南关西路灯,0469352274-曲阳县第一高级中学(2)-专变-211339982-曲阳县第一高级中学（2）,西街路灯","poweroffReason":"【停电原因】由于线路基建检修导致３５ＫＶ城西变电站１０ＫＶ５３９水电站线路全线停电 【变更送电】无 【发布渠道】保定市曲阳县电视台（０４月２７日至０４月２９日１８时至２０时之间）屏幕上方滚动","powerTime":"2020-05-10 17:23:17","powerComm":"已送电","subsNo":"","lineNo":"","tgNo":"","tgName":null,"infoStatus":"1","orgName":"国网曲阳县供电公司","typeName":null,"infoStatusName":null,"dateDay":null,"orgNos":null,"nowTime":null,"countyName":null,"streetName":null,"villageName":null,"roadName":null,"communityName":null,"tranName":null,"sdLineName":null,"cityCode":"1340619","cityName":"国网曲阳县供电公司","provinceCode":null,"stopTime":"2020-05-10 17:30:00","powerType":"全部","powerOffArea":"【全线路停电】停３５ＫＶ城西变电站１０ＫＶ５３９水电站线路全线，0000005327北关大队统管变压器,0000006199红十字医院变压器,0012788567小南关南2变压器,西城枫景2区配电变压器,轩和家园二期（2）配电变压器,曲阳县雅馨园小区住宅楼,0000005348小南关东变压器,燕南街西统管柱上变压器,第一高级中学家属院,小南关中变压器,西城枫景4区配电变压器,西城枫景1区配电变压器,0014235536城西南1变压器,0000006198育英台变压器,0012510338城西南3变压器,曲阳县第一高级中学（2）变压器,北岳小区配电变压器,曲阳县第一高级中学,育英台2变压器,0000006124小南关东2变压器,轩和家园配电变压器,西城枫景3区配电变压器,轩和家园二期（1）配电变压器,0000007223小南关北变压器,0012510337小南关北2变压器,0000006168北关大队统管2变压器,0000006529农机监理站小区2变压器,庙前街路灯,河北丽庭酒店有限公司变压器,小南关西路灯,0469352274-曲阳县第一高级中学(2)-专变-211339982-曲阳县第一高级中学（2）,西街路灯","powerOffReason":"【停电原因】由于线路基建检修导致３５ＫＶ城西变电站１０ＫＶ５３９水电站线路全线停电 【变更送电】无 【发布渠道】保定市曲阳县电视台（０４月２７日至０４月２９日１８时至２０时之间）屏幕上方滚动","powerOffId":"2020042713000349"},{"poweroffId":2020042713000344,"sgpoweroffId":null,"subsName":"","lineName":"北环一线535（备用）","pubTranName":"恒州供电所统管变压器,0012087011新农村南大道变压器,0000005516北关西区变压器,气象局变压器,北关北区变压器,0012197161新农村南变压器,0000006749清华园小区变压器,0000004504农机监理站小区变压器,","scope":"【影响街道/乡镇】恒州镇 【影响客户】西街气象局、北关部分、清华园小区、农机监理站、新农村、恒州供电所","startTime":"2020-05-10 07:30:00","stopDate":"2020-05-10 17:30:00","orgNo":"1340619","typeCode":"计划停电","poweroffArea":"【全线路停电】停３５ＫＶ城西变电站北环一线５３５线路全线，0000006749清华园小区变压器,0000004504农机监理站小区变压器,恒州供电所统管变压器,曲阳永信房地产开发有限公司变压器,0012087011新农村南大道变压器,0000005516北关西区变压器,气象局变压器,张玉昌,北关北区变压器,宏富佳园,闫建栓,杨兵谦,0012197161新农村南变压器","poweroffReason":"【停电原因】由于线路基建检修导致３５ＫＶ城西变电站北环一线５３５线路全线停电 【变更送电】无 【发布渠道】保定市曲阳县电视台（０４月２７日至０４月２９日１８时至２０时之间）屏幕上方滚动","powerTime":"2020-05-10 17:25:12","powerComm":"已送电","subsNo":"","lineNo":"","tgNo":"","tgName":null,"infoStatus":"1","orgName":"国网曲阳县供电公司","typeName":null,"infoStatusName":null,"dateDay":null,"orgNos":null,"nowTime":null,"countyName":null,"streetName":null,"villageName":null,"roadName":null,"communityName":null,"tranName":null,"sdLineName":null,"cityCode":"1340619","cityName":"国网曲阳县供电公司","provinceCode":null,"stopTime":"2020-05-10 17:30:00","powerType":"全部","powerOffArea":"【全线路停电】停３５ＫＶ城西变电站北环一线５３５线路全线，0000006749清华园小区变压器,0000004504农机监理站小区变压器,恒州供电所统管变压器,曲阳永信房地产开发有限公司变压器,0012087011新农村南大道变压器,0000005516北关西区变压器,气象局变压器,张玉昌,北关北区变压器,宏富佳园,闫建栓,杨兵谦,0012197161新农村南变压器","powerOffReason":"【停电原因】由于线路基建检修导致３５ＫＶ城西变电站北环一线５３５线路全线停电 【变更送电】无 【发布渠道】保定市曲阳县电视台（０４月２７日至０４月２９日１８时至２０时之间）屏幕上方滚动","powerOffId":"2020042713000344"},{"poweroffId":2020042713000340,"sgpoweroffId":null,"subsName":"","lineName":"10KV洛平513","pubTranName":"西洛平村南变压器,孙家坟村内2台区,西垒子村西2,东洛平村北,东垒子新台区北庄变压器,幸福庄村北台区,南洛平村北变压器,北洛平村南2,","scope":"【影响街道/乡镇】永阳镇 【高危重要客户】无 【影响客户】北洛平村、乡直村内、西洛平村、幸福庄村、南洛平村、东洛平村、孙家坟村、西垒子村、东垒子村","startTime":"2020-04-29 17:00:00","stopDate":"2020-04-29 19:30:00","orgNo":"1340614","typeCode":"临时停电","poweroffArea":"【全线路停电】停３５ＫＶ永阳变电站１０ＫＶ洛平５１３线路全线，北洛平村南2,西洛平村南变压器,孙家坟村内2台区,西垒子村西2,东洛平村北,东垒子新台区北庄变压器,幸福庄村北台区,南洛平村北变压器","poweroffReason":"【停电原因】由于倒运行方式导致３５ＫＶ永阳变电站１０ＫＶ洛平５１３线路全线停电 【变更送电】因工作量大原因，送电时间由１８：３０变更为１９：３０ 【发布渠道】通过９５５９８发布","powerTime":"2020-04-29 18:36:19","powerComm":"已送电","subsNo":"","lineNo":"","tgNo":"","tgName":null,"infoStatus":"1","orgName":"国网涞水县供电公司","typeName":null,"infoStatusName":null,"dateDay":null,"orgNos":null,"nowTime":null,"countyName":null,"streetName":null,"villageName":null,"roadName":null,"communityName":null,"tranName":null,"sdLineName":null,"cityCode":"1340614","cityName":"国网涞水县供电公司","provinceCode":null,"stopTime":"2020-04-29 19:30:00","powerType":"全部","powerOffArea":"【全线路停电】停３５ＫＶ永阳变电站１０ＫＶ洛平５１３线路全线，北洛平村南2,西洛平村南变压器,孙家坟村内2台区,西垒子村西2,东洛平村北,东垒子新台区北庄变压器,幸福庄村北台区,南洛平村北变压器","powerOffReason":"【停电原因】由于倒运行方式导致３５ＫＶ永阳变电站１０ＫＶ洛平５１３线路全线停电 【变更送电】因工作量大原因，送电时间由１８：３０变更为１９：３０ 【发布渠道】通过９５５９８发布","powerOffId":"2020042713000340"},{"poweroffId":2020042713000331,"sgpoweroffId":null,"subsName":"","lineName":"10kV538马古庄线","pubTranName":"0000004822东海子变压器,0013038040五里岗东变压器,东海子东区变压器,北马古庄东北变压器,北马古庄小学2变压器,0000005482北马古庄南变压器,五里岗小学变压器,0013038043北马古庄水井变压器,0000004780新农村变压器,0013880879东海子南区变压器,北马古庄农水井变压器【纯农排变】,0014235006北马古庄东农变压器,北马古庄东区变压器,新农村北变压器,0000004779北马古庄北区变压器,五里岗水井变压器,0014464265北马古庄南2区,0012411785北马古庄北2变压器,0000004781西海子变压器,0014316738西海子北区变压器,0012886464五里岗北变变压器,","scope":"【影响街道/乡镇】恒州镇 【影响客户】北马古庄、五里岗、新农村、东海子、西海子、曲阳县定瓷技术学校、兴居房地产、金穗农资合作社、兴泉混泥土、东海子养殖合作社、北马古庄一扬、武兴造纸厂","startTime":"2020-05-10 07:30:00","stopDate":"2020-05-10 17:30:00","orgNo":"1340619","typeCode":"计划停电","poweroffArea":"【全线路停电】停３５ＫＶ城西变电站１０ＫＶ５３８马古庄线路全线，新农村北变压器,0000004779北马古庄北区变压器,五里岗水井变压器,0014464265北马古庄南2区,0012411785北马古庄北2变压器,0000004781西海子变压器,0014316738西海子北区变压器,0012886464五里岗北变变压器,0000004822东海子变压器,0013038040五里岗东变压器,东海子东区变压器,北马古庄东北变压器,北马古庄小学2变压器,0000005482北马古庄南变压器,五里岗小学变压器,0013038043北马古庄水井变压器,北马古庄东区变压器,0000004780新农村变压器,0013880879东海子南区变压器,北马古庄农水井变压器【纯农排变】,0014235006北马古庄东农变压器","poweroffReason":"【停电原因】由于线路基建检修导致３５ＫＶ城西变电站１０ＫＶ５３８马古庄线路全线停电 【变更送电】无 【发布渠道】保定市曲阳县电视台（０４月２７日至０４月２９日１８时至２０时之间）屏幕上方滚动","powerTime":"2020-05-10 17:25:39","powerComm":"已送电","subsNo":"","lineNo":"","tgNo":"","tgName":null,"infoStatus":"1","orgName":"国网曲阳县供电公司","typeName":null,"infoStatusName":null,"dateDay":null,"orgNos":null,"nowTime":null,"countyName":null,"streetName":null,"villageName":null,"roadName":null,"communityName":null,"tranName":null,"sdLineName":null,"cityCode":"1340619","cityName":"国网曲阳县供电公司","provinceCode":null,"stopTime":"2020-05-10 17:30:00","powerType":"全部","powerOffArea":"【全线路停电】停３５ＫＶ城西变电站１０ＫＶ５３８马古庄线路全线，新农村北变压器,0000004779北马古庄北区变压器,五里岗水井变压器,0014464265北马古庄南2区,0012411785北马古庄北2变压器,0000004781西海子变压器,0014316738西海子北区变压器,0012886464五里岗北变变压器,0000004822东海子变压器,0013038040五里岗东变压器,东海子东区变压器,北马古庄东北变压器,北马古庄小学2变压器,0000005482北马古庄南变压器,五里岗小学变压器,0013038043北马古庄水井变压器,北马古庄东区变压器,0000004780新农村变压器,0013880879东海子南区变压器,北马古庄农水井变压器【纯农排变】,0014235006北马古庄东农变压器","powerOffReason":"【停电原因】由于线路基建检修导致３５ＫＶ城西变电站１０ＫＶ５３８马古庄线路全线停电 【变更送电】无 【发布渠道】保定市曲阳县电视台（０４月２７日至０４月２９日１８时至２０时之间）屏幕上方滚动","powerOffId":"2020042713000331"},{"poweroffId":2020042713000330,"sgpoweroffId":null,"subsName":"","lineName":"10kV537北环二线","pubTranName":"0000007159曲阳县正阳小区变压器,南马古庄小学变压器,曲阳县明珠新区配电变压器,0000006484南马古庄2变压器,恒源盛景配电变压器,南马古庄小学变压器2,0000006257北环路统管3#变压器,0000004495小岗子公用变压器,0000006659养路工区家属院变压器,0000004489南马古庄村变压器,0000005997养路工区变压器,0012696501北环4区变压器,0012087010南马古庄西区变压器,0012184547聚缘小区变压器,0000005434北关塔东区变压器,伟业小区配电变压器,","scope":"【影响街道/乡镇】恒州镇、北环路 【影响客户】南马古庄、新农村、北关、正阳小区、养路工区、养路工区家属院、聚缘小区、小岗子、点将台、汽车站、明珠新区、伟业小区、恒阳盛景小区","startTime":"2020-05-10 07:30:00","stopDate":"2020-05-10 17:30:00","orgNo":"1340619","typeCode":"计划停电","poweroffArea":"【全线路停电】停３５ＫＶ城西变电站１０ＫＶ５３７北环二线路全线，伟业小区配电变压器,0469352812-曲阳县中医院-专变-46781534-曲阳县中医院,曲阳县公共租赁住房住宅楼变压器,曲阳远大学校,0000006659养路工区家属院变压器,0000004489南马古庄村变压器,0000004495小岗子公用变压器,0000005997养路工区变压器,0012696501北环4区变压器,0000007159曲阳县正阳小区变压器,南马古庄小学变压器,齐国青2,中国石油天然气保定第三十加油站,0000006484南马古庄2变压器,0664314130-曲阳脑血管病医院-专变-199228762-曲阳脑血管病医院变压器,曲阳县中医医院变压器2,石油有限责任公司（马古庄),曲阳县中医医院变压器,曲阳远大学校变压器,中国铁塔股份有限公司保定市分公司,恒源盛景配电变压器,南马古庄小学变压器2,曲阳县明珠新区配电变压器,中国铁塔股份有限公司保定市分公司变压器,0000006257北环路统管3#变压器,曲阳县汽车站,0012087010南马古庄西区变压器,0012184547聚缘小区变压器,0000005434北关塔东区变压器,曲阳县远大学校","poweroffReason":"【停电原因】由于线路基建检修导致３５ＫＶ城西变电站１０ＫＶ５３７北环二线路全线停电 【变更送电】无 【发布渠道】保定市曲阳县电视台（０４月２７日至０４月２９日１８时至２０时之间）屏幕上方滚动","powerTime":"2020-05-10 17:23:33","powerComm":"已送电","subsNo":"","lineNo":"","tgNo":"","tgName":null,"infoStatus":"1","orgName":"国网曲阳县供电公司","typeName":null,"infoStatusName":null,"dateDay":null,"orgNos":null,"nowTime":null,"countyName":null,"streetName":null,"villageName":null,"roadName":null,"communityName":null,"tranName":null,"sdLineName":null,"cityCode":"1340619","cityName":"国网曲阳县供电公司","provinceCode":null,"stopTime":"2020-05-10 17:30:00","powerType":"全部","powerOffArea":"【全线路停电】停３５ＫＶ城西变电站１０ＫＶ５３７北环二线路全线，伟业小区配电变压器,0469352812-曲阳县中医院-专变-46781534-曲阳县中医院,曲阳县公共租赁住房住宅楼变压器,曲阳远大学校,0000006659养路工区家属院变压器,0000004489南马古庄村变压器,0000004495小岗子公用变压器,0000005997养路工区变压器,0012696501北环4区变压器,0000007159曲阳县正阳小区变压器,南马古庄小学变压器,齐国青2,中国石油天然气保定第三十加油站,0000006484南马古庄2变压器,0664314130-曲阳脑血管病医院-专变-199228762-曲阳脑血管病医院变压器,曲阳县中医医院变压器2,石油有限责任公司（马古庄),曲阳县中医医院变压器,曲阳远大学校变压器,中国铁塔股份有限公司保定市分公司,恒源盛景配电变压器,南马古庄小学变压器2,曲阳县明珠新区配电变压器,中国铁塔股份有限公司保定市分公司变压器,0000006257北环路统管3#变压器,曲阳县汽车站,0012087010南马古庄西区变压器,0012184547聚缘小区变压器,0000005434北关塔东区变压器,曲阳县远大学校","powerOffReason":"【停电原因】由于线路基建检修导致３５ＫＶ城西变电站１０ＫＶ５３７北环二线路全线停电 【变更送电】无 【发布渠道】保定市曲阳县电视台（０４月２７日至０４月２９日１８时至２０时之间）屏幕上方滚动","powerOffId":"2020042713000330"}],"pageModel":{"pageNow":130,"totalCount":10973,"totalPage":1098,"tableRows":0,"pageCount":10,"beginCount":1290},"isExperi":"1"}