{"message":"","today":"2020-06-15","seleList":[{"poweroffId":2020042713000176,"sgpoweroffId":null,"subsName":"","lineName":"10kV张营571线","pubTranName":"张营综合2变压器,张营综合8台区,张营综合7台区,","scope":"【影响街道/乡镇】西伏落乡 【高危重要客户】无 【影响客户】张家营村","startTime":"2020-05-10 06:00:00","stopDate":"2020-05-10 23:00:00","orgNo":"1340606","typeCode":"计划停电","poweroffArea":"【全线路停电】停１１０ＫＶ孝义变电站１０ＫＶ张营５７１线路全线，张营综合8台区,张营综合2变压器,张营综合7台区","poweroffReason":"【停电原因】由于更换导线导致１１０ＫＶ孝义变电站１０ＫＶ张营５７１线路全线停电 【变更送电】由于施工受阻工作量大原因送电时间由１８：００变更为２３：００ 【发布渠道】保定市安国电视台（０５月０２日００时至２４时之间）屏幕上方滚动","powerTime":"2020-05-10 22:19:26","powerComm":"已送电","subsNo":"","lineNo":"","tgNo":"","tgName":null,"infoStatus":"1","orgName":"国网安国市供电公司","typeName":null,"infoStatusName":null,"dateDay":null,"orgNos":null,"nowTime":null,"countyName":null,"streetName":null,"villageName":null,"roadName":null,"communityName":null,"tranName":null,"sdLineName":null,"cityCode":"1340606","cityName":"国网安国市供电公司","provinceCode":null,"stopTime":"2020-05-10 23:00:00","powerType":"全部","powerOffArea":"【全线路停电】停１１０ＫＶ孝义变电站１０ＫＶ张营５７１线路全线，张营综合8台区,张营综合2变压器,张营综合7台区","powerOffReason":"【停电原因】由于更换导线导致１１０ＫＶ孝义变电站１０ＫＶ张营５７１线路全线停电 【变更送电】由于施工受阻工作量大原因送电时间由１８：００变更为２３：００ 【发布渠道】保定市安国电视台（０５月０２日００时至２４时之间）屏幕上方滚动","powerOffId":"2020042713000176"},{"poweroffId":2020042713000172,"sgpoweroffId":null,"subsName":"","lineName":"10kV康庄574线","pubTranName":"娄营综合2变压器,康庄综合2变压器,大营综合3变压器,","scope":"【影响街道/乡镇】西伏落乡 【高危重要客户】无 【影响客户】大营村、娄营村、康庄村","startTime":"2020-05-09 06:00:00","stopDate":"2020-05-09 20:00:00","orgNo":"1340606","typeCode":"计划停电","poweroffArea":"【全线路停电】停１１０ＫＶ孝义变电站１０ＫＶ康庄５７４线路全线，大营综合3变压器,娄营综合2变压器,康庄综合2变压器","poweroffReason":"【停电原因】由于更换导线导致１１０ＫＶ孝义变电站１０ＫＶ康庄５７４线路全线停电 【变更送电】因工作进度加快原因，送电时间由２２：００变更为２０：００ 【发布渠道】保定市安国电视台（０５月０２日００时至２４时之间）屏幕上方滚动","powerTime":"2020-05-09 19:35:31","powerComm":"已送电","subsNo":"","lineNo":"","tgNo":"","tgName":null,"infoStatus":"1","orgName":"国网安国市供电公司","typeName":null,"infoStatusName":null,"dateDay":null,"orgNos":null,"nowTime":null,"countyName":null,"streetName":null,"villageName":null,"roadName":null,"communityName":null,"tranName":null,"sdLineName":null,"cityCode":"1340606","cityName":"国网安国市供电公司","provinceCode":null,"stopTime":"2020-05-09 20:00:00","powerType":"全部","powerOffArea":"【全线路停电】停１１０ＫＶ孝义变电站１０ＫＶ康庄５７４线路全线，大营综合3变压器,娄营综合2变压器,康庄综合2变压器","powerOffReason":"【停电原因】由于更换导线导致１１０ＫＶ孝义变电站１０ＫＶ康庄５７４线路全线停电 【变更送电】因工作进度加快原因，送电时间由２２：００变更为２０：００ 【发布渠道】保定市安国电视台（０５月０２日００时至２４时之间）屏幕上方滚动","powerOffId":"2020042713000172"},{"poweroffId":2020042713000169,"sgpoweroffId":null,"subsName":"","lineName":"10kV大李庄514线","pubTranName":"西张庄综合1台区变压器,东吴庄综合六台区变压器,景中康庄综合四台区,里河综合1台区变压器,","scope":"【影响街道/乡镇】郑章镇 【高危重要客户】无 【影响客户】西张庄村、大李庄村、里河村、景中村、东秋元村、西吴庄村、杨庄村、袁李村、东吴庄村","startTime":"2020-05-10 06:00:00","stopDate":"2020-05-10 18:00:00","orgNo":"1340606","typeCode":"计划停电","poweroffArea":"【全线路停电】停３５ＫＶ谢庄变电站１０ＫＶ大李庄５１４线路全线，西张庄综合1台区变压器,东吴庄综合六台区变压器,景中康庄综合四台区,里河综合1台区变压器","poweroffReason":"【停电原因】由于架设导线导致３５ＫＶ谢庄变电站１０ＫＶ大李庄５１４线路全线停电 【变更送电】无 【发布渠道】保定市安国电视台（０５月０２日００时至２４时之间）屏幕上方滚动","powerTime":"2020-05-10 17:15:29","powerComm":"已送电","subsNo":"","lineNo":"","tgNo":"","tgName":null,"infoStatus":"1","orgName":"国网安国市供电公司","typeName":null,"infoStatusName":null,"dateDay":null,"orgNos":null,"nowTime":null,"countyName":null,"streetName":null,"villageName":null,"roadName":null,"communityName":null,"tranName":null,"sdLineName":null,"cityCode":"1340606","cityName":"国网安国市供电公司","provinceCode":null,"stopTime":"2020-05-10 18:00:00","powerType":"全部","powerOffArea":"【全线路停电】停３５ＫＶ谢庄变电站１０ＫＶ大李庄５１４线路全线，西张庄综合1台区变压器,东吴庄综合六台区变压器,景中康庄综合四台区,里河综合1台区变压器","powerOffReason":"【停电原因】由于架设导线导致３５ＫＶ谢庄变电站１０ＫＶ大李庄５１４线路全线停电 【变更送电】无 【发布渠道】保定市安国电视台（０５月０２日００时至２４时之间）屏幕上方滚动","powerOffId":"2020042713000169"},{"poweroffId":2020042713000150,"sgpoweroffId":null,"subsName":"","lineName":"钢厂572","pubTranName":"北白马村2#,西张家庄村3#,西张家庄5号变,北白马村4#【纯农排变】,中白马4号变,南白马村1#,西张家庄村2#,苏家坟六号,白马乡政府配变,北白马9#变压器,中白马村2#,苏家坟村2#,南白马村5#,东白马村2#,苏家坟村1#【纯农排变】,中白马村1#,北白马村3#,西白马村3#【纯农排变】,西张家庄村1#,东白马村7#,南白马村2#,西白马村4#,店北村二号机井【纯农排变】,北白马村1#,南白马村4#,中白马村3#【纯农排变】,南白马村10#,东白马村3#,东白马村1#,东白马9号,西张家庄村4#,苏家坟村3#,东白马村4#,西白马村1#,苏家坟村5#,北白马8号变,","scope":"【影响街道/乡镇】白马乡【高危重要客户】无【影响客户】西张家庄村、中白马村、东白马村、西白马村、南白马村、北白马村、苏家坟村","startTime":"2020-04-27 11:12:36","stopDate":"2020-04-27 12:10:00","orgNo":"1340625","typeCode":"电网故障停限电","poweroffArea":"【全线路停电】停苏家坟村2#,东白马村1#,苏家坟村4#【纯农排变】,南白马面粉厂(薛占龙),西白马村4#,易县第二高级中学变压器,东白马8号变压器,南白马村1#,西张家庄5号变,东白马村2#,海泡石有限责任开发公司(明阳摩擦),西白马林果示范园(王景林),苏家坟村1#【纯农排变】,宏利海泡石厂(总厂),店北村二号机井【纯农排变】,河北万紫倾城苗木种植有限公司100KVA,东白马村7#,易县白马页岩砖厂变压器,西张家庄村3#,东白马9号,白马中心卫生院125KVA,易县建垣兴水泥砖制造有限公司变压器,贺术山机井,苏家坟村3#,东白马村4#,苏家坟村5#,易县禾康牧业有限公司630,易县第二高级中学1600KVA,北白马村4#【纯农排变】,西白马村1#,易县张林生猪定点屠宰点200,苏家坟砖厂,宏利海泡石厂(粮库),北白马8号变,西白马村3#【纯农排变】,南白马村2#,西张家庄村2#,苏家坟六号,中白马村3#【纯农排变】,南白马村4#,西张家庄村1#,易县实验中学,中白马4号变,西张家庄村4#,北白马村2#,西白马村2#【纯农排变】,南白马村5#,北白马村3#,易县第二高级中学2000KVA,易县安平土地整理服务有限公司1号50KVA,白马信用社100,福康工艺品厂,北白马9#变压器,中白马村2#,易县丰华生猪屠宰有限公司250KVA,白马乡政府配变,中白马村1#,白马初级中学800KVA,北白马村1#,东白马村3#,南白马村10#","poweroffReason":"【停电原因】由于老百姓伐树砸断电线导致１１０ＫＶ店北变电站钢厂５７２线路全线路停电【变更送电】因抢修进度加快原因，送电时间由１５：００变更为１２：１０【发布渠道】通过９５５９８发布","powerTime":"2020-04-27 11:42:51","powerComm":"已送电","subsNo":"","lineNo":"","tgNo":"","tgName":null,"infoStatus":"1","orgName":"国网易县供电公司","typeName":null,"infoStatusName":null,"dateDay":null,"orgNos":null,"nowTime":null,"countyName":null,"streetName":null,"villageName":null,"roadName":null,"communityName":null,"tranName":null,"sdLineName":null,"cityCode":"1340625","cityName":"国网易县供电公司","provinceCode":null,"stopTime":"2020-04-27 12:10:00","powerType":"全部","powerOffArea":"【全线路停电】停苏家坟村2#,东白马村1#,苏家坟村4#【纯农排变】,南白马面粉厂(薛占龙),西白马村4#,易县第二高级中学变压器,东白马8号变压器,南白马村1#,西张家庄5号变,东白马村2#,海泡石有限责任开发公司(明阳摩擦),西白马林果示范园(王景林),苏家坟村1#【纯农排变】,宏利海泡石厂(总厂),店北村二号机井【纯农排变】,河北万紫倾城苗木种植有限公司100KVA,东白马村7#,易县白马页岩砖厂变压器,西张家庄村3#,东白马9号,白马中心卫生院125KVA,易县建垣兴水泥砖制造有限公司变压器,贺术山机井,苏家坟村3#,东白马村4#,苏家坟村5#,易县禾康牧业有限公司630,易县第二高级中学1600KVA,北白马村4#【纯农排变】,西白马村1#,易县张林生猪定点屠宰点200,苏家坟砖厂,宏利海泡石厂(粮库),北白马8号变,西白马村3#【纯农排变】,南白马村2#,西张家庄村2#,苏家坟六号,中白马村3#【纯农排变】,南白马村4#,西张家庄村1#,易县实验中学,中白马4号变,西张家庄村4#,北白马村2#,西白马村2#【纯农排变】,南白马村5#,北白马村3#,易县第二高级中学2000KVA,易县安平土地整理服务有限公司1号50KVA,白马信用社100,福康工艺品厂,北白马9#变压器,中白马村2#,易县丰华生猪屠宰有限公司250KVA,白马乡政府配变,中白马村1#,白马初级中学800KVA,北白马村1#,东白马村3#,南白马村10#","powerOffReason":"【停电原因】由于老百姓伐树砸断电线导致１１０ＫＶ店北变电站钢厂５７２线路全线路停电【变更送电】因抢修进度加快原因，送电时间由１５：００变更为１２：１０【发布渠道】通过９５５９８发布","powerOffId":"2020042713000150"},{"poweroffId":2020042713000144,"sgpoweroffId":null,"subsName":"","lineName":"10kv514韩庄线","pubTranName":"东加录东变压器,","scope":"【影响街道/乡镇】新城镇 【高危重要客户】无 【影响客户】东加录村","startTime":"2020-04-27 11:06:10","stopDate":"2020-04-27 13:30:00","orgNo":"1340612","typeCode":"电网故障停限电","poweroffArea":"【单台区停电】停东加录东变压器","poweroffReason":"【停电原因】由于东加录分支水厂变压器有铁丝导致３５ＫＶ加录变电站１０ＫＶ韩庄５１４线路东加录东公变台区停电 【变更送电】因抢修进度加快原因，送电时间由１８:００变更为１３:３０ 【发布渠道】通过９５５９８发布","powerTime":"2020-04-27 13:15:48","powerComm":"已送电","subsNo":"","lineNo":"","tgNo":"","tgName":null,"infoStatus":"1","orgName":"国网高碑店市供电公司","typeName":null,"infoStatusName":null,"dateDay":null,"orgNos":null,"nowTime":null,"countyName":null,"streetName":null,"villageName":null,"roadName":null,"communityName":null,"tranName":null,"sdLineName":null,"cityCode":"1340612","cityName":"国网高碑店市供电公司","provinceCode":null,"stopTime":"2020-04-27 13:30:00","powerType":"全部","powerOffArea":"【单台区停电】停东加录东变压器","powerOffReason":"【停电原因】由于东加录分支水厂变压器有铁丝导致３５ＫＶ加录变电站１０ＫＶ韩庄５１４线路东加录东公变台区停电 【变更送电】因抢修进度加快原因，送电时间由１８:００变更为１３:３０ 【发布渠道】通过９５５９８发布","powerOffId":"2020042713000144"},{"poweroffId":2020042713000138,"sgpoweroffId":null,"subsName":"","lineName":"东邵514","pubTranName":"大方村7#,大巨村23#【纯农排变】,大巨19号变压器,大巨村22#【纯农排变】,黄山村7#,大巨村17#,新庄村7#,大巨村15#,黄山12号变压器,东邵514线路大巨村24#变压器,大方村16#,黄山村8#,黄山村10#,黄山村5#,大巨村8#,新庄村6#,大巨村12#,黄山村3号变压器,涞山9#【纯农排变】,黄山村1#,10kV东邵514线黄山村11#变压器,大巨村1#,大方村14#,黄山村6#,大巨25号变压器铭牌,贾庄村4号,大巨村11#,客户投资_大巨村2#,贾庄村3号,大方村15#,大方17号变压器,新庄村5#,东韩村1#,大方村10#,贾庄村2号【混合】,黄山村9#,大方村1#,黄山村2#,大巨村10#,大方村8#,大方19号变压器,大方村9#,大方村2#,大巨村16#,大巨村13#,大方村4#【纯农排变】,大巨村18#,大方村11#,贾庄村5号,大巨村3#,东邵东村8#变压器,大巨村14#,贾庄村6号,大方18号变压器,","scope":"【影响街道/乡镇】凌云册乡【高危重要客户】无【影响客户】北贾庄村、大方村、大巨村、东韩村、新庄村、涞山村、东邵东村、黄山村","startTime":"2020-04-27 11:01:02","stopDate":"2020-04-27 15:00:00","orgNo":"1340625","typeCode":"电网故障停限电","poweroffArea":"【全线路停电】停易县文涛页岩砖厂变压器,大方村4#【纯农排变】,黄山村6#,大巨25号变压器铭牌,贾庄村4号,大方17号变压器,大巨村1#,河北路达凯亚环保科技有限公司-250kva,大方村14#,0672889431-易县民利兴通苗木种植农民专业合作社-专变-214370048-易县民利兴通苗木种植农民专业合作社200KVA,大巨村11#,客户投资_大巨村2#,贾庄村3号,大方村3#【纯农排变】,大方村15#,新庄村5#,大方砖厂,大巨村18#,大巨面粉厂,大方村13#【纯农排变】,大方村11#,贾庄村5号,大巨村3#,大巨村6#【纯农排变】,中国人民解放军6636部队200KVA,东邵东村8#变压器,大巨村14#,黄山村4#,大方村6#【纯农排变】,贾庄村6号,中国人民解放军66336部队变压器,易县大巨志林页岩砖厂,新庄村6#,大巨村12#,黄山村3号变压器,黄山村1#,10kV东邵514线黄山村11#变压器,大方村北12#,黄山砖厂,大方村7#,易县东邵水泥制品厂变压器,大巨村23#【纯农排变】,凌云册电信营业部,大巨19号变压器,大巨村13#,东韩村1#,大巨村7#【纯农排变】,大巨村10#,大方村8#,大方19号变压器,大方村2#,东邵514线路大巨村24#变压器,河北路达凯亚环保科技有限公司-1250KVA,黄山村贾春山变压器,易县大巨志林页岩砖厂630,大巨村9#【纯农排变】,贾立江变压器,涞山9#【纯农排变】,易县凌云鹅业有限公司-大方315KVA,大巨21号变压器【纯农排变】,大巨村16#,大方村1#,大巨村5#【纯农排变】,黄山村2#,黄山张术仁砖厂,黄山蜂制品厂,刘秀田1,大方村9#,黄山贾奎礼,黄山12号变压器,大巨20号变压器,大方18号变压器,大巨村22#【纯农排变】,大方村5#【纯农排变】,变压器,黄山村7#,大巨村4#,大巨村17#,新庄村7#,中国人民解放军6636部队100KVA,大巨村15#,涞山村5#【纯农排变】,刘秀田2,大方村16#,黄山村8#,黄山村10#,黄山村5#,大巨村8#,大方村10#,贾庄村2号【混合】,黄山村9#,易县大巨志林页岩砖厂安装变压器","poweroffReason":"【停电原因】由于支瓶脱落导致３５ＫＶ凌云册变电站东邵５１４线路全线路停电【变更送电】无【发布渠道】通过９５５９８发布","powerTime":"2020-04-27 14:56:29","powerComm":"已送电","subsNo":"","lineNo":"","tgNo":"","tgName":null,"infoStatus":"1","orgName":"国网易县供电公司","typeName":null,"infoStatusName":null,"dateDay":null,"orgNos":null,"nowTime":null,"countyName":null,"streetName":null,"villageName":null,"roadName":null,"communityName":null,"tranName":null,"sdLineName":null,"cityCode":"1340625","cityName":"国网易县供电公司","provinceCode":null,"stopTime":"2020-04-27 15:00:00","powerType":"全部","powerOffArea":"【全线路停电】停易县文涛页岩砖厂变压器,大方村4#【纯农排变】,黄山村6#,大巨25号变压器铭牌,贾庄村4号,大方17号变压器,大巨村1#,河北路达凯亚环保科技有限公司-250kva,大方村14#,0672889431-易县民利兴通苗木种植农民专业合作社-专变-214370048-易县民利兴通苗木种植农民专业合作社200KVA,大巨村11#,客户投资_大巨村2#,贾庄村3号,大方村3#【纯农排变】,大方村15#,新庄村5#,大方砖厂,大巨村18#,大巨面粉厂,大方村13#【纯农排变】,大方村11#,贾庄村5号,大巨村3#,大巨村6#【纯农排变】,中国人民解放军6636部队200KVA,东邵东村8#变压器,大巨村14#,黄山村4#,大方村6#【纯农排变】,贾庄村6号,中国人民解放军66336部队变压器,易县大巨志林页岩砖厂,新庄村6#,大巨村12#,黄山村3号变压器,黄山村1#,10kV东邵514线黄山村11#变压器,大方村北12#,黄山砖厂,大方村7#,易县东邵水泥制品厂变压器,大巨村23#【纯农排变】,凌云册电信营业部,大巨19号变压器,大巨村13#,东韩村1#,大巨村7#【纯农排变】,大巨村10#,大方村8#,大方19号变压器,大方村2#,东邵514线路大巨村24#变压器,河北路达凯亚环保科技有限公司-1250KVA,黄山村贾春山变压器,易县大巨志林页岩砖厂630,大巨村9#【纯农排变】,贾立江变压器,涞山9#【纯农排变】,易县凌云鹅业有限公司-大方315KVA,大巨21号变压器【纯农排变】,大巨村16#,大方村1#,大巨村5#【纯农排变】,黄山村2#,黄山张术仁砖厂,黄山蜂制品厂,刘秀田1,大方村9#,黄山贾奎礼,黄山12号变压器,大巨20号变压器,大方18号变压器,大巨村22#【纯农排变】,大方村5#【纯农排变】,变压器,黄山村7#,大巨村4#,大巨村17#,新庄村7#,中国人民解放军6636部队100KVA,大巨村15#,涞山村5#【纯农排变】,刘秀田2,大方村16#,黄山村8#,黄山村10#,黄山村5#,大巨村8#,大方村10#,贾庄村2号【混合】,黄山村9#,易县大巨志林页岩砖厂安装变压器","powerOffReason":"【停电原因】由于支瓶脱落导致３５ＫＶ凌云册变电站东邵５１４线路全线路停电【变更送电】无【发布渠道】通过９５５９８发布","powerOffId":"2020042713000138"},{"poweroffId":2020042713000136,"sgpoweroffId":null,"subsName":"","lineName":"高里线515","pubTranName":"平堽西大街光3,平堽西街光2,平堽西大街光6,平堽西大街光5,平堽西街光【2016年重过载】,平堽东街光4,平堽东街光3,平堽东街光2,平堽北街光5,平堽东街光1,平堽北街光2【2016年重过载】,平堽南街光2,平堽南街光,平堽西大街光2,平堽西大街光1【2018年技改】,平堽北街光3,平堽北街光1,平堽北街光4,","scope":"【影响街道/乡镇】高里乡 【高危重要客户】无 【影响客户】平堽","startTime":"2020-05-09 06:00:00","stopDate":"2020-05-09 18:00:00","orgNo":"1340609","typeCode":"计划停电","poweroffArea":"【分支停电】停平堽西大街光1【2018年技改】,平堽西大街光3,平堽西街光2,平堽西大街光6,平堽西大街光5,平堽西街光【2016年重过载】,平堽东街光4,平堽东街光3,平堽东街光2,平堽北街光5,平堽东街光1,平堽北街光2【2016年重过载】,平堽南街光2,平堽南街光,平堽西大街光2,平堽北街光3,平堽北街光1,平堽北街光4","poweroffReason":"【停电原因】由于平堽西街光分支更换导线导致３５ＫＶ景安变电站高里线５１５线路主干１２８号杆５１５－０３号断路器以下线路停电 【变更送电】无 【发布渠道】保定市定兴县电视台（０５月０１日０９时１０分至２３时５０分之间）屏幕上方滚动播放","powerTime":"2020-05-09 17:45:15","powerComm":"已送电","subsNo":"","lineNo":"","tgNo":"","tgName":null,"infoStatus":"1","orgName":"国网定兴县供电公司","typeName":null,"infoStatusName":null,"dateDay":null,"orgNos":null,"nowTime":null,"countyName":null,"streetName":null,"villageName":null,"roadName":null,"communityName":null,"tranName":null,"sdLineName":null,"cityCode":"1340609","cityName":"国网定兴县供电公司","provinceCode":null,"stopTime":"2020-05-09 18:00:00","powerType":"全部","powerOffArea":"【分支停电】停平堽西大街光1【2018年技改】,平堽西大街光3,平堽西街光2,平堽西大街光6,平堽西大街光5,平堽西街光【2016年重过载】,平堽东街光4,平堽东街光3,平堽东街光2,平堽北街光5,平堽东街光1,平堽北街光2【2016年重过载】,平堽南街光2,平堽南街光,平堽西大街光2,平堽北街光3,平堽北街光1,平堽北街光4","powerOffReason":"【停电原因】由于平堽西街光分支更换导线导致３５ＫＶ景安变电站高里线５１５线路主干１２８号杆５１５－０３号断路器以下线路停电 【变更送电】无 【发布渠道】保定市定兴县电视台（０５月０１日０９时１０分至２３时５０分之间）屏幕上方滚动播放","powerOffId":"2020042713000136"},{"poweroffId":2020042713000129,"sgpoweroffId":null,"subsName":"","lineName":"邮电线513","pubTranName":"新八街排3【纯农排变】,南太平庄排4【纯农排变】,南堽上排5【纯农排变】,南太平庄光3【2019年预安排】,","scope":"【影响街道/乡镇】固城镇 【高危重要客户】无 【影响客户】南太平庄、八街村、,南堽上、塑料颗粒厂、百享气体、源通畜禽","startTime":"2020-05-10 01:00:00","stopDate":"2020-05-10 05:20:00","orgNo":"1340609","typeCode":"计划停电","poweroffArea":"【分支停电】停南太平庄光3【2019年预安排】,新八街排3【纯农排变】,南太平庄排4【纯农排变】,南堽上排5【纯农排变】","poweroffReason":"【停电原因】由于八街排３Ｔ接导线导致３５ＫＶ固城变电站邮电线５１３线路主干１０９号杆以下线路停电 【变更送电】因工作进度加快原因，送电时间由０７：００变更为０５：２０ 【发布渠道】保定市定兴县电视台（０５月０２日０９时至２３时之间）屏幕上方滚动播放","powerTime":"2020-05-10 04:51:19","powerComm":"已送电","subsNo":"","lineNo":"","tgNo":"","tgName":null,"infoStatus":"1","orgName":"国网定兴县供电公司","typeName":null,"infoStatusName":null,"dateDay":null,"orgNos":null,"nowTime":null,"countyName":null,"streetName":null,"villageName":null,"roadName":null,"communityName":null,"tranName":null,"sdLineName":null,"cityCode":"1340609","cityName":"国网定兴县供电公司","provinceCode":null,"stopTime":"2020-05-10 05:20:00","powerType":"全部","powerOffArea":"【分支停电】停南太平庄光3【2019年预安排】,新八街排3【纯农排变】,南太平庄排4【纯农排变】,南堽上排5【纯农排变】","powerOffReason":"【停电原因】由于八街排３Ｔ接导线导致３５ＫＶ固城变电站邮电线５１３线路主干１０９号杆以下线路停电 【变更送电】因工作进度加快原因，送电时间由０７：００变更为０５：２０ 【发布渠道】保定市定兴县电视台（０５月０２日０９时至２３时之间）屏幕上方滚动播放","powerOffId":"2020042713000129"},{"poweroffId":2020042713000121,"sgpoweroffId":null,"subsName":"","lineName":"宋桥线516","pubTranName":"北晋庄村北农排3#【纯农排变】,07044|三岔口村西北综合3736,07042|三岔口村东综合3673,07238|北晋庄村北新增综合5576,07045|三岔口综合3619,三岔口正南综合,07090|北晋庄村北综合3728,07091|北晋庄村西综合3729,三岔口正北综合,07082|北晋庄村西2综合3565,07043|三岔口村西南综合3672,北晋庄羊场新增综合,","scope":"【影响街道/乡镇】晋庄乡 【高危重要客户】无 【影响客户】北晋庄村北部分、三岔口村","startTime":"2020-05-08 06:00:00","stopDate":"2020-05-08 15:30:00","orgNo":"1340613","typeCode":"计划停电","poweroffArea":"【分支停电】停高阳县凯通织物厂变压器,高阳县晋庄镇北晋庄村四变压器,东方皮毛厂,晋庄中学变压器,三岔口正北综合,李红格织布厂,义兴毛纺厂,高阳县晋庄镇北晋庄村一变压器,昌旗佳润纺织品有限公司,晁小燕合线厂,金丰毛纺厂,07082|北晋庄村西2综合3565,07043|三岔口村西南综合3672,晁燕合线厂,保定凯曼毛纺织品制造有限公司变压器,高阳县盛鸿纺织品制造有限公司变压器,高阳县明远纺织有限公司变压器,苇元屯面粉厂,振华皮毛厂,王刚,北晋庄羊场新增综合,07044|三岔口村西北综合3736,曙光北毛巾厂,蒋小贺地毯厂,高阳县朋乐纺织厂变压器,07042|三岔口村东综合3673,07238|北晋庄村北新增综合5576,高阳县晋庄镇北晋庄村二变压器,07045|三岔口综合3619,三岔口正南综合,07090|北晋庄村北综合3728,07091|北晋庄村西综合3729","poweroffReason":"【停电原因】由于更换金具及导线导致３５ＫＶ杨佐变电站宋桥５１６线路主线１６号杆１６号开关以下线路停电【变更送电】因抢修进度加快原因，送电时间由１７:００变更为１５:３０【发布渠道】高阳县电视台（４月２８日１９时至２１时之间）屏幕下方滚动播出","powerTime":"2020-05-08 15:20:56","powerComm":"已送电","subsNo":"","lineNo":"","tgNo":"","tgName":null,"infoStatus":"1","orgName":"国网高阳县供电公司","typeName":null,"infoStatusName":null,"dateDay":null,"orgNos":null,"nowTime":null,"countyName":null,"streetName":null,"villageName":null,"roadName":null,"communityName":null,"tranName":null,"sdLineName":null,"cityCode":"1340613","cityName":"国网高阳县供电公司","provinceCode":null,"stopTime":"2020-05-08 15:30:00","powerType":"全部","powerOffArea":"【分支停电】停高阳县凯通织物厂变压器,高阳县晋庄镇北晋庄村四变压器,东方皮毛厂,晋庄中学变压器,三岔口正北综合,李红格织布厂,义兴毛纺厂,高阳县晋庄镇北晋庄村一变压器,昌旗佳润纺织品有限公司,晁小燕合线厂,金丰毛纺厂,07082|北晋庄村西2综合3565,07043|三岔口村西南综合3672,晁燕合线厂,保定凯曼毛纺织品制造有限公司变压器,高阳县盛鸿纺织品制造有限公司变压器,高阳县明远纺织有限公司变压器,苇元屯面粉厂,振华皮毛厂,王刚,北晋庄羊场新增综合,07044|三岔口村西北综合3736,曙光北毛巾厂,蒋小贺地毯厂,高阳县朋乐纺织厂变压器,07042|三岔口村东综合3673,07238|北晋庄村北新增综合5576,高阳县晋庄镇北晋庄村二变压器,07045|三岔口综合3619,三岔口正南综合,07090|北晋庄村北综合3728,07091|北晋庄村西综合3729","powerOffReason":"【停电原因】由于更换金具及导线导致３５ＫＶ杨佐变电站宋桥５１６线路主线１６号杆１６号开关以下线路停电【变更送电】因抢修进度加快原因，送电时间由１７:００变更为１５:３０【发布渠道】高阳县电视台（４月２８日１９时至２１时之间）屏幕下方滚动播出","powerOffId":"2020042713000121"},{"poweroffId":2020042713000112,"sgpoweroffId":null,"subsName":"","lineName":"徐果庄线512","pubTranName":"070020|徐果庄中南综合5238,070021|徐果庄村西大坑综合5240,北晋庄村东中综合,07088|佐庄村东北综合3731,07169|耿庄村北综合3686,07017|徐果庄村南综合5234,北晋庄村西北新增综合,07205|徐果庄村东综合5231,07202|阮庄村西综合3595,07198|徐果庄村里综合5237,徐果庄村南新增综合,07081|北晋庄综合3578,北晋庄西街口综合,雷庄村里新增综合,徐果庄板厂新增综合,徐果庄西南新增综合,雷庄村里东综合台区,北晋庄村北新增综合,徐果庄大队新增综合,阮庄村西南新增综合,北晋庄宋桥道综合,佐庄村北新增综合,07080|北晋庄东北方综合3572,07028|徐果庄西南综合5233,07032|雷庄综合3758,07063|雷庄村西综合3732,阮庄村北新增综合,徐果庄村东新增综合,佐庄村东南综合,07201|阮庄村东综合3715,07203|阮庄村村北综合3614,阮庄村西北新增综合,阮庄村西2号新增综合,07197|徐果庄村教堂综合5236,徐果庄大坑2号新增综合,07084|佐庄大队综合3684,阮庄村东新增综合,07092|北晋庄村东2#综合3730,07200|阮庄村南综合3716,07234|阮庄东南新增综合5546,","scope":"【影响街道/乡镇】晋庄乡 【高危重要客户】无 【影响客户】耿庄村、阮庄村、佐庄村（佐家庄）、雷庄村（雷家庄）、徐果庄村、北晋庄村北、南尖窝村","startTime":"2020-05-08 06:00:00","stopDate":"2020-05-08 16:00:00","orgNo":"1340613","typeCode":"计划停电","poweroffArea":"【分支停电】停北晋庄3号农排,07154|徐果庄农业村东北路西农排4870,07167|徐果庄村南农业7#农排4931,北晋庄7号农排,雷庄农排1号,07222|佐庄村东北农排5494,高阳县万通棉织厂电压器,永丰织物厂,刘新民变压器,阮庄3号农排台区,07202|阮庄村西综合3595,高阳县春润毛巾厂,07221|佐庄村东农排5497,徐果庄西南新增综合,07198|徐果庄村里综合5237,雷庄农排2号,佐庄村东南综合,阮庄村西南新增综合,新建毛纺厂,07028|徐果庄西南综合5233,07155|徐果庄农业村东北路东农排4869,07203|阮庄村村北综合3614,阮庄村西北4#农排,阮庄村西2号新增综合,耿庄村西北2#农排,07168|徐果庄农业村西南8#农排5081,北晋庄宋桥道综合,阮庄村西北新增综合,晋庄商店织布厂,07080|北晋庄东北方综合3572,徐果庄大队新增综合,阮庄1号台区农排,高阳县美辰纺纱厂变压器,北晋庄6号农排,高阳县平安汽车服务有限公司变压器,陈国胜地毯厂,北晋庄村西北新增综合,北晋庄西街口综合,高阳县禹恒棉织厂变压器,07223|佐庄村东北农排5496,07092|北晋庄村东2#综合3730,徐果庄村南新增综合,北晋庄9号农排,双峰针织厂,高阳县富国毛巾厂变压器,徐果庄村北新增农业,高阳县好丽纺织有限公司,高阳县兴光棉织厂变压器,三益氧化锌厂,北晋庄4号农排,李明发,高阳县康庄棉织厂变压器,07197|徐果庄村教堂综合5236,高阳县晋阳针织厂变压器,07152|徐果庄农业村西2#农排4873,07205|徐果庄村东综合5231,07224|佐庄村北农排5493,佐庄村北新增综合,07081|北晋庄综合3578,徐果庄村东新增综合,070020|徐果庄中南综合5238,北晋庄村东中综合,振国毛巾厂,07156|徐果庄农业村东6#农排4932,高阳县新源巾被厂,河北三益锌制品有限公司变压器,070021|徐果庄村西大坑综合5240,徐果庄板厂新增综合,南尖农排1台区,雷庄村里东综合台区,耿庄村西南1#农排,北晋庄村北新增综合,万兴毛巾厂,耿庄村东北农排,阮庄村西南2#农排,雷庄村里新增综合,康雄伟,北晋庄村北农排2#,07032|雷庄综合3758,徐果庄大坑2号新增综合,高阳县晋庄乡中心卫生院变压器,07200|阮庄村南综合3716,07063|雷庄村西综合3732,07153|徐果庄农业村东北路东农排4871,07225|佐庄村东边农排5492,07084|佐庄大队综合3684,阮庄村北新增综合,吉利毛巾厂,07169|耿庄村北综合3686,康新良,07151|徐果庄村西北农业1#农排4872,阮庄村东新增综合,徐果庄毛纺厂,北晋庄村北农排1#,07017|徐果庄村南综合5234,07234|阮庄东南新增综合5546,北晋庄8号农排,07201|阮庄村东综合3715,07088|佐庄村东北综合3731","poweroffReason":"【停电原因】由于更换金具及导线导致３５ＫＶ杨佐变电站徐果庄５１２线路主线１６号杆１６号开关以下线路停电【变更送电】因抢修进度加快原因，送电时间由１７:００变更为１６:００【发布渠道】高阳县电视台（４月２８日１９时至２１时之间）屏幕下方滚动播出","powerTime":"2020-05-08 15:22:46","powerComm":"已送电","subsNo":"","lineNo":"","tgNo":"","tgName":null,"infoStatus":"1","orgName":"国网高阳县供电公司","typeName":null,"infoStatusName":null,"dateDay":null,"orgNos":null,"nowTime":null,"countyName":null,"streetName":null,"villageName":null,"roadName":null,"communityName":null,"tranName":null,"sdLineName":null,"cityCode":"1340613","cityName":"国网高阳县供电公司","provinceCode":null,"stopTime":"2020-05-08 16:00:00","powerType":"全部","powerOffArea":"【分支停电】停北晋庄3号农排,07154|徐果庄农业村东北路西农排4870,07167|徐果庄村南农业7#农排4931,北晋庄7号农排,雷庄农排1号,07222|佐庄村东北农排5494,高阳县万通棉织厂电压器,永丰织物厂,刘新民变压器,阮庄3号农排台区,07202|阮庄村西综合3595,高阳县春润毛巾厂,07221|佐庄村东农排5497,徐果庄西南新增综合,07198|徐果庄村里综合5237,雷庄农排2号,佐庄村东南综合,阮庄村西南新增综合,新建毛纺厂,07028|徐果庄西南综合5233,07155|徐果庄农业村东北路东农排4869,07203|阮庄村村北综合3614,阮庄村西北4#农排,阮庄村西2号新增综合,耿庄村西北2#农排,07168|徐果庄农业村西南8#农排5081,北晋庄宋桥道综合,阮庄村西北新增综合,晋庄商店织布厂,07080|北晋庄东北方综合3572,徐果庄大队新增综合,阮庄1号台区农排,高阳县美辰纺纱厂变压器,北晋庄6号农排,高阳县平安汽车服务有限公司变压器,陈国胜地毯厂,北晋庄村西北新增综合,北晋庄西街口综合,高阳县禹恒棉织厂变压器,07223|佐庄村东北农排5496,07092|北晋庄村东2#综合3730,徐果庄村南新增综合,北晋庄9号农排,双峰针织厂,高阳县富国毛巾厂变压器,徐果庄村北新增农业,高阳县好丽纺织有限公司,高阳县兴光棉织厂变压器,三益氧化锌厂,北晋庄4号农排,李明发,高阳县康庄棉织厂变压器,07197|徐果庄村教堂综合5236,高阳县晋阳针织厂变压器,07152|徐果庄农业村西2#农排4873,07205|徐果庄村东综合5231,07224|佐庄村北农排5493,佐庄村北新增综合,07081|北晋庄综合3578,徐果庄村东新增综合,070020|徐果庄中南综合5238,北晋庄村东中综合,振国毛巾厂,07156|徐果庄农业村东6#农排4932,高阳县新源巾被厂,河北三益锌制品有限公司变压器,070021|徐果庄村西大坑综合5240,徐果庄板厂新增综合,南尖农排1台区,雷庄村里东综合台区,耿庄村西南1#农排,北晋庄村北新增综合,万兴毛巾厂,耿庄村东北农排,阮庄村西南2#农排,雷庄村里新增综合,康雄伟,北晋庄村北农排2#,07032|雷庄综合3758,徐果庄大坑2号新增综合,高阳县晋庄乡中心卫生院变压器,07200|阮庄村南综合3716,07063|雷庄村西综合3732,07153|徐果庄农业村东北路东农排4871,07225|佐庄村东边农排5492,07084|佐庄大队综合3684,阮庄村北新增综合,吉利毛巾厂,07169|耿庄村北综合3686,康新良,07151|徐果庄村西北农业1#农排4872,阮庄村东新增综合,徐果庄毛纺厂,北晋庄村北农排1#,07017|徐果庄村南综合5234,07234|阮庄东南新增综合5546,北晋庄8号农排,07201|阮庄村东综合3715,07088|佐庄村东北综合3731","powerOffReason":"【停电原因】由于更换金具及导线导致３５ＫＶ杨佐变电站徐果庄５１２线路主线１６号杆１６号开关以下线路停电【变更送电】因抢修进度加快原因，送电时间由１７:００变更为１６:００【发布渠道】高阳县电视台（４月２８日１９时至２１时之间）屏幕下方滚动播出","powerOffId":"2020042713000112"}],"pageModel":{"pageNow":133,"totalCount":10973,"totalPage":1098,"tableRows":0,"pageCount":10,"beginCount":1320},"isExperi":"1"}