{"message":"","today":"2020-06-15","seleList":[{"poweroffId":2020042713000106,"sgpoweroffId":null,"subsName":"","lineName":"北庄头线513","pubTranName":"久安庄光8,久安庄光4,北庄头光6,久安庄光11变压器【2018年重过载】,北庄头光11,久安庄光2,北庄头光5,北庄头光10,北庄头光12【灾后重建】,久安庄光7,久安庄光6,久安庄光1,北庄头光9,北庄头光2,北庄头光3,北庄头光13变压器【2018年重过载】,北庄头光7,久安庄光9,新北庄头光1,久安庄光3,久安庄光5,久安庄光10,","scope":"【影响街道/乡镇】固城镇 【高危重要客户】无 【影响客户】久安庄、北庄头、北店部分用户、建顺混凝土公司、天玺印刷厂、慧括印刷厂、新奥燃气公司、九方龙翔制品公司","startTime":"2020-05-10 01:00:00","stopDate":"2020-05-10 06:00:00","orgNo":"1340609","typeCode":"计划停电","poweroffArea":"【分支停电】停久安庄光6,久安庄光10,北庄头光11,久安庄光2,北庄头光5,北庄头光10,北庄头光12【灾后重建】,久安庄光7,久安庄光1,北庄头光9,北庄头光2,北庄头光3,北庄头光13变压器【2018年重过载】,北庄头光7,久安庄光9,新北庄头光1,久安庄光3,久安庄光5,久安庄光8,久安庄光4,北庄头光6,久安庄光11变压器【2018年重过载】","poweroffReason":"【停电原因】由于主干０４８号杆安装隔离开关导致３５ＫＶ闫台变电站北庄头线５１３线路主干０３９号杆以下线路停电 【变更送电】无 【发布渠道】保定市定兴县电视台（０５月０２日０９时１０分至２３时５０分之间）屏幕上方滚动播放","powerTime":"2020-05-10 05:02:26","powerComm":"已送电","subsNo":"","lineNo":"","tgNo":"","tgName":null,"infoStatus":"1","orgName":"国网定兴县供电公司","typeName":null,"infoStatusName":null,"dateDay":null,"orgNos":null,"nowTime":null,"countyName":null,"streetName":null,"villageName":null,"roadName":null,"communityName":null,"tranName":null,"sdLineName":null,"cityCode":"1340609","cityName":"国网定兴县供电公司","provinceCode":null,"stopTime":"2020-05-10 06:00:00","powerType":"全部","powerOffArea":"【分支停电】停久安庄光6,久安庄光10,北庄头光11,久安庄光2,北庄头光5,北庄头光10,北庄头光12【灾后重建】,久安庄光7,久安庄光1,北庄头光9,北庄头光2,北庄头光3,北庄头光13变压器【2018年重过载】,北庄头光7,久安庄光9,新北庄头光1,久安庄光3,久安庄光5,久安庄光8,久安庄光4,北庄头光6,久安庄光11变压器【2018年重过载】","powerOffReason":"【停电原因】由于主干０４８号杆安装隔离开关导致３５ＫＶ闫台变电站北庄头线５１３线路主干０３９号杆以下线路停电 【变更送电】无 【发布渠道】保定市定兴县电视台（０５月０２日０９时１０分至２３时５０分之间）屏幕上方滚动播放","powerOffId":"2020042713000106"},{"poweroffId":2020042713000094,"sgpoweroffId":null,"subsName":"","lineName":"农副业线512","pubTranName":"3号地块-4号变,康城房地产2号变—800,3号地块-3号变,3号地块-2号变,康城房地产1号变-800,南关光1,康城房地产-1000,3号地块-5号变,康城房地产2号变-800,3号地块-6号变,康城房地产6号变—1000,3号地块-9号变,执法局路灯南关村-100,变压器,3号地块-8号变,3号地块-7号变,3号地块-1号变,康城房地产-800,南关公用2,康城房地产-1250（1）,3号地块-10号变,康城房地产-6号,康城房地产5号变-800,康城房地产-1250,","scope":"【影响街道/乡镇】定兴镇 【高危重要客户】无 【影响客户】南关村、康城房地产、华兴橡塑制品有限公司","startTime":"2020-05-09 01:00:00","stopDate":"2020-05-09 06:00:00","orgNo":"1340609","typeCode":"计划停电","poweroffArea":"【全线路停电】停3号地块-8号变,3号地块-1号变,3号地块-9号变,3号地块-7号变,康城房地产-800,南关公用2,康城房地产-1250（1）,3号地块-10号变,康城房地产-6号,康城房地产-1250,康城房地产5号变-800,执法局路灯南关村-100,3号地块-5号变,康城房地产2号变-800,3号地块-6号变,康城房地产6号变—1000,3号地块-4号变,康城房地产2号变—800,3号地块-3号变,3号地块-2号变,康城房地产1号变-800,南关光1,康城房地产-1000,变压器","poweroffReason":"【停电原因】由于主干３０号杆Ｔ接电缆、安装高压计量导致３５ＫＶ城关变电站农副业线５１２线路全线停电 【变更送电】无 【发布渠道】保定市定兴县电视台（０５月０１日０９时１０分至２３时５０分之间）屏幕上方滚动播放","powerTime":"2020-05-09 05:02:32","powerComm":"已送电","subsNo":"","lineNo":"","tgNo":"","tgName":null,"infoStatus":"1","orgName":"国网定兴县供电公司","typeName":null,"infoStatusName":null,"dateDay":null,"orgNos":null,"nowTime":null,"countyName":null,"streetName":null,"villageName":null,"roadName":null,"communityName":null,"tranName":null,"sdLineName":null,"cityCode":"1340609","cityName":"国网定兴县供电公司","provinceCode":null,"stopTime":"2020-05-09 06:00:00","powerType":"全部","powerOffArea":"【全线路停电】停3号地块-8号变,3号地块-1号变,3号地块-9号变,3号地块-7号变,康城房地产-800,南关公用2,康城房地产-1250（1）,3号地块-10号变,康城房地产-6号,康城房地产-1250,康城房地产5号变-800,执法局路灯南关村-100,3号地块-5号变,康城房地产2号变-800,3号地块-6号变,康城房地产6号变—1000,3号地块-4号变,康城房地产2号变—800,3号地块-3号变,3号地块-2号变,康城房地产1号变-800,南关光1,康城房地产-1000,变压器","powerOffReason":"【停电原因】由于主干３０号杆Ｔ接电缆、安装高压计量导致３５ＫＶ城关变电站农副业线５１２线路全线停电 【变更送电】无 【发布渠道】保定市定兴县电视台（０５月０１日０９时１０分至２３时５０分之间）屏幕上方滚动播放","powerOffId":"2020042713000094"},{"poweroffId":2020042713000088,"sgpoweroffId":null,"subsName":"","lineName":"东沟河562","pubTranName":"新韩家营光3,新韩家营光5,新韩家营光2,新韩家营光6,南张庄光3,新东沟河光6【2018年重过载】,南张庄光3【2018年节能变】,北张庄光1,新韩家营光1,北张庄光3,南张庄光1,吴庄光1,新韩家营光4,","scope":"【影响街道/乡镇】小朱庄乡 【高危重要客户】无 【影响客户】北张庄、南张庄、东沟河、韩家营、吴庄、定兴县天宫寺中学、作胜工艺品厂、旺达水泥制品厂","startTime":"2020-05-07 01:00:00","stopDate":"2020-05-07 06:00:00","orgNo":"1340609","typeCode":"计划停电","poweroffArea":"【全线路停电】停新韩家营光3,新韩家营光5,新韩家营光2,新韩家营光6,南张庄光3,新东沟河光6【2018年重过载】,南张庄光3【2018年节能变】,北张庄光1,新韩家营光1,北张庄光3,南张庄光1,吴庄光1,新韩家营光4","poweroffReason":"【停电原因】由于主干０３２号杆安装隔离开关导致１１０ＫＶ小朱庄变电站东沟河线５６２线路全线停电 【变更送电】无 【发布渠道】保定市定兴县电视台（０４月２９日０９时１０分至２３时５０分之间）屏幕上方滚动播放","powerTime":"2020-05-07 05:05:29","powerComm":"已送电","subsNo":"","lineNo":"","tgNo":"","tgName":null,"infoStatus":"1","orgName":"国网定兴县供电公司","typeName":null,"infoStatusName":null,"dateDay":null,"orgNos":null,"nowTime":null,"countyName":null,"streetName":null,"villageName":null,"roadName":null,"communityName":null,"tranName":null,"sdLineName":null,"cityCode":"1340609","cityName":"国网定兴县供电公司","provinceCode":null,"stopTime":"2020-05-07 06:00:00","powerType":"全部","powerOffArea":"【全线路停电】停新韩家营光3,新韩家营光5,新韩家营光2,新韩家营光6,南张庄光3,新东沟河光6【2018年重过载】,南张庄光3【2018年节能变】,北张庄光1,新韩家营光1,北张庄光3,南张庄光1,吴庄光1,新韩家营光4","powerOffReason":"【停电原因】由于主干０３２号杆安装隔离开关导致１１０ＫＶ小朱庄变电站东沟河线５６２线路全线停电 【变更送电】无 【发布渠道】保定市定兴县电视台（０４月２９日０９时１０分至２３时５０分之间）屏幕上方滚动播放","powerOffId":"2020042713000088"},{"poweroffId":2020042713000073,"sgpoweroffId":null,"subsName":"","lineName":"显口线511","pubTranName":"西山阳4409变压器,东显口7889变压器,中山阳948变压器,张显口917变压器,张显口小学7588变压器,10kV511显口线中山阳6096台区,西显口935变压器,北山阳7313【纯农排变】变压器,中山阳1701变压器,北山阳0947变压器,西山阳5002变压器,10kV511显口线东显口6098台区,中显口597变压器,西显口936变压器,张显口4391变压器,东显口905变压器,中山阳小学7596变压器,东显口4059变压器,北山阳7058变压器,10kV511显口线西显口6097台区,东显口4975变压器,西显口4207变压器,西显口小学7574变压器,中显口4136变压器,高昌镇第二幼儿园7578变压器,东显口600变压器,西山阳1471变压器,10kV511显口线中显口6095台区,张显口915变压器,北山阳4591变压器,北山阳2309变压器,","scope":"【影响街道/乡镇】北店头乡、高昌镇、白合镇【高危重要客户】无【影响客户】中山阳、张显口、西显口、中显口、东显口、北山阳、西山阳、歇马","startTime":"2020-05-02 07:00:00","stopDate":"2020-05-02 18:00:00","orgNo":"1340622","typeCode":"临时停电","poweroffArea":"【分支停电】停３５ＫＶ山阳变电站显口线５１１线路００９号杆以下线路张显口917变压器,高昌镇北山阳村农业灌溉4565配变,唐县绿友肥料生产有限公司10KV配变,中显口933变压器,张显口小学7588变压器,振兴绒厂0919,西显口935变压器,西显口4207变压器,高昌镇西山阳村农业灌溉4598配变,西显口小学7574变压器,中显口4136变压器,东显口4975变压器,中山阳948变压器,张显口2989,中山阳面粉厂0938,高昌镇第二幼儿园7578变压器,唐县高昌镇西山阳村西农田灌溉新装6550,高昌镇北山阳村农业灌溉4572配变,东显口600变压器,西山阳1471变压器,唐县瑞丰绒业有限公司0506,张显口坝上593变压器,10kV511显口线中显口6095台区,唐县山阳医院新装7082,唐县德瑞新型建材制造有限公司新装6608,北山阳2309变压器,唐县西山阳村水利灌溉计量点P6656,中山阳1701变压器,北山阳0947变压器,高昌镇西山阳村农业灌溉4606配变,西山阳5002变压器,10kV511显口线东显口6098台区,中显口597变压器,高昌镇西山阳村农业灌溉4625配变,西山阳4409变压器,东显口7889变压器,10kV511显口线中山阳6096台区,西显口936变压器,张显口坝下916变压器,张显口4391变压器,北山阳0499变压器,西山阳943变压器,唐县北店头乡东显口村水利灌溉新装4859,东显口905变压器,唐县泰兴羊城制品有限公司1697-2,北山阳0944,高昌镇北山阳村农业灌溉4530配变,东显口大队砖厂2255,中山阳小学7596变压器,唐县振兴装饰材料加工厂新装10KV配变,东显口4059变压器,北山阳7058变压器,10kV511显口线西显口6097台区,唐县盛世绒纺织品有限公司XZ7322,高昌镇西山阳村农业灌溉4633配变,张显口915变压器,北山阳4591变压器,力达绒厂1864","poweroffReason":"【停电原因】由于架设导线导致３５ＫＶ山阳变电站显口线５１１线路００９号杆断路器以下线路停电【变更送电】无【发布渠道】通过９５５９８发布","powerTime":"2020-05-02 17:46:03","powerComm":"已送电","subsNo":"","lineNo":"","tgNo":"","tgName":null,"infoStatus":"1","orgName":"国网唐县供电公司","typeName":null,"infoStatusName":null,"dateDay":null,"orgNos":null,"nowTime":null,"countyName":null,"streetName":null,"villageName":null,"roadName":null,"communityName":null,"tranName":null,"sdLineName":null,"cityCode":"1340622","cityName":"国网唐县供电公司","provinceCode":null,"stopTime":"2020-05-02 18:00:00","powerType":"全部","powerOffArea":"【分支停电】停３５ＫＶ山阳变电站显口线５１１线路００９号杆以下线路张显口917变压器,高昌镇北山阳村农业灌溉4565配变,唐县绿友肥料生产有限公司10KV配变,中显口933变压器,张显口小学7588变压器,振兴绒厂0919,西显口935变压器,西显口4207变压器,高昌镇西山阳村农业灌溉4598配变,西显口小学7574变压器,中显口4136变压器,东显口4975变压器,中山阳948变压器,张显口2989,中山阳面粉厂0938,高昌镇第二幼儿园7578变压器,唐县高昌镇西山阳村西农田灌溉新装6550,高昌镇北山阳村农业灌溉4572配变,东显口600变压器,西山阳1471变压器,唐县瑞丰绒业有限公司0506,张显口坝上593变压器,10kV511显口线中显口6095台区,唐县山阳医院新装7082,唐县德瑞新型建材制造有限公司新装6608,北山阳2309变压器,唐县西山阳村水利灌溉计量点P6656,中山阳1701变压器,北山阳0947变压器,高昌镇西山阳村农业灌溉4606配变,西山阳5002变压器,10kV511显口线东显口6098台区,中显口597变压器,高昌镇西山阳村农业灌溉4625配变,西山阳4409变压器,东显口7889变压器,10kV511显口线中山阳6096台区,西显口936变压器,张显口坝下916变压器,张显口4391变压器,北山阳0499变压器,西山阳943变压器,唐县北店头乡东显口村水利灌溉新装4859,东显口905变压器,唐县泰兴羊城制品有限公司1697-2,北山阳0944,高昌镇北山阳村农业灌溉4530配变,东显口大队砖厂2255,中山阳小学7596变压器,唐县振兴装饰材料加工厂新装10KV配变,东显口4059变压器,北山阳7058变压器,10kV511显口线西显口6097台区,唐县盛世绒纺织品有限公司XZ7322,高昌镇西山阳村农业灌溉4633配变,张显口915变压器,北山阳4591变压器,力达绒厂1864","powerOffReason":"【停电原因】由于架设导线导致３５ＫＶ山阳变电站显口线５１１线路００９号杆断路器以下线路停电【变更送电】无【发布渠道】通过９５５９８发布","powerOffId":"2020042713000073"},{"poweroffId":2020042713000066,"sgpoweroffId":null,"subsName":"","lineName":"10kV542红星线","pubTranName":"兑坎庄综合10台区,兑坎庄综合11台区,兑坎庄综合2台区,兑坎庄综合5台区,","scope":"【影响街道/乡镇】蠡吾镇【高危重要客户】无【影响客户】兑坎庄工业区","startTime":"2020-04-27 09:02:25","stopDate":"2020-04-27 14:00:00","orgNo":"1340616","typeCode":"超电网供电能力停限电","poweroffArea":"【全线路停电】停李同营,蠡县兑坎庄橡胶制品经销部变压器,华腾,四通设备厂,保定坤隆橡胶机带有限公司变压器,保定天顺橡胶制品有限公司,河北东风橡胶机带有限公司,蠡县兑坎庄中亿胶带输送设备配件厂,保定四海橡胶机带有限公司,兑坎庄综合11台区,李贺营,李国安,保定红星橡胶制品有限公司,保定中南橡胶机带有限公司,蠡县亿丰输送设备有限公司变压器,韩素卓||2522046|兑坎庄,2522兑坎庄李云清,河北新达胶带厂变压器,2522050||2522兑坎庄,兑坎庄综合10台区,2522兑坎庄车床,蠡县东亿橡胶机带有限公司变压器安装,0684252737-保定晟诺橡胶机带制造有限公司-专变-225174124-保定晟诺橡胶机带制造有限公司,2522兑坎庄韩显增,保定天顺橡胶制品有限公司变压器,双启织布厂,中北橡,蠡县华川胶带有限公司,兑坎庄综合2台区,北方,0683783388-蠡县华隆胶带厂-专变-223538313-蠡县华隆胶带厂变压器,变压器,胜利橡,蠡县开泰输送机带有限公司变压器,华都,其林,保定中南橡胶机带有限公司变压器,蠡县兑庄农机配件维修部,李建辉,中元,鑫宝达输送设备制造有限公司变压器,兑坎庄综合5台区,李贺兵,明星,蠡县兑坎庄腾达环形带厂变压器,李建良,李保昌,保定弘强橡胶机带有限公司,蠡县爱辉橡胶厂变压器","poweroffReason":"【停电原因】由于主变过负荷导致１１０ＫＶ张岳变电站１０ＫＶ红星５４２线路全线停电【变更送电】无【发布渠道】通过９５５９８发布","powerTime":"2020-04-27 13:22:23","powerComm":"已送电","subsNo":"","lineNo":"","tgNo":"","tgName":null,"infoStatus":"1","orgName":"国网蠡县供电公司","typeName":null,"infoStatusName":null,"dateDay":null,"orgNos":null,"nowTime":null,"countyName":null,"streetName":null,"villageName":null,"roadName":null,"communityName":null,"tranName":null,"sdLineName":null,"cityCode":"1340616","cityName":"国网蠡县供电公司","provinceCode":null,"stopTime":"2020-04-27 14:00:00","powerType":"全部","powerOffArea":"【全线路停电】停李同营,蠡县兑坎庄橡胶制品经销部变压器,华腾,四通设备厂,保定坤隆橡胶机带有限公司变压器,保定天顺橡胶制品有限公司,河北东风橡胶机带有限公司,蠡县兑坎庄中亿胶带输送设备配件厂,保定四海橡胶机带有限公司,兑坎庄综合11台区,李贺营,李国安,保定红星橡胶制品有限公司,保定中南橡胶机带有限公司,蠡县亿丰输送设备有限公司变压器,韩素卓||2522046|兑坎庄,2522兑坎庄李云清,河北新达胶带厂变压器,2522050||2522兑坎庄,兑坎庄综合10台区,2522兑坎庄车床,蠡县东亿橡胶机带有限公司变压器安装,0684252737-保定晟诺橡胶机带制造有限公司-专变-225174124-保定晟诺橡胶机带制造有限公司,2522兑坎庄韩显增,保定天顺橡胶制品有限公司变压器,双启织布厂,中北橡,蠡县华川胶带有限公司,兑坎庄综合2台区,北方,0683783388-蠡县华隆胶带厂-专变-223538313-蠡县华隆胶带厂变压器,变压器,胜利橡,蠡县开泰输送机带有限公司变压器,华都,其林,保定中南橡胶机带有限公司变压器,蠡县兑庄农机配件维修部,李建辉,中元,鑫宝达输送设备制造有限公司变压器,兑坎庄综合5台区,李贺兵,明星,蠡县兑坎庄腾达环形带厂变压器,李建良,李保昌,保定弘强橡胶机带有限公司,蠡县爱辉橡胶厂变压器","powerOffReason":"【停电原因】由于主变过负荷导致１１０ＫＶ张岳变电站１０ＫＶ红星５４２线路全线停电【变更送电】无【发布渠道】通过９５５９８发布","powerOffId":"2020042713000066"},{"poweroffId":2020042713000033,"sgpoweroffId":null,"subsName":"","lineName":"北关518电力电缆","pubTranName":"盛源67号（欧韵3期南箱变）,永兴84号箱变配电变压器,盛源109号（欧韵北门）,盛源7号（石油公司）,永兴45号箱变(安顺八号),永兴83号箱变配电变压器,盛源66号（欧韵3期北箱变）,盛源108号（县社西侧）,","scope":"【影响街道/乡镇】安肃镇 【高危重要客户】无 【影响客户】建明西路家属院、欧韵华庭小区、顺心家园、县社附近、高庄、安顺苑、石油公司附近","startTime":"2020-04-27 07:21:07","stopDate":"2020-04-27 09:00:00","orgNo":"1340605","typeCode":"电网故障停限电","poweroffArea":"【全线路停电】停历城刚健鞋业有限公司,徐水建明西路83号家属院,盛源67号（欧韵3期南箱变）,永兴84号箱变配电变压器,历城鞋厂,徐春山,保定顺心家园物业管理有限公司,0555835544-徐水县恒星防腐材料厂-专变-94363926-徐水县恒星防腐材料厂,盛源108号（县社西侧）,徐水宏鑫城东加油站,高庄7号,永兴12号(安顺苑),0469275461新洋鞋业有限公司900028749104,变压器,0469276712-河北中恒泰达粮油贸易有限公司-专变-46770311-河北中恒泰达粮油贸易有限公司,盛源7号（石油公司）,河北中恒泰达粮油贸易有限公司,高庄9号【纯农排变】,保定市华艺包装制品有限公司,永兴45号箱变(安顺八号),保定市中泰汽车燃气加气有限公司,中国石油保定162加油站,河北天行健房地产开发集团有限公司3号,盛源109号（欧韵北门）,永兴83号箱变配电变压器,河北天行健房地产开发集团有限公司4号,河北天行健房地产开发集团有限公司5号,徐水县伟业五金橡胶制造有限公司,河北万瑞医疗器材有限公司变压器,盛源66号（欧韵3期北箱变）,陈二领镀锌厂,徐水县天行健物业管理有限公司,保定市徐水区秀水湾大众浴池,徐水县津保蓄电池厂,徐水县平安房地产开发有限公司,徐水县家安物业运行有限公司,高庄3号,保定市鼎居房地产开发有限公司,高庄4号,徐水县居然房地产发展有限公司,河北天行健房地产开发集团有限公司,徐水县恒星防腐材料厂1号,0751054648保定柏林正通汽车修理有限公司0014750346","poweroffReason":"【停电原因】由于Ｂ相接地导致１１０ＫＶ下河西变电站北关５１８线路全线停电 【变更送电】因抢修进度加快原因，送电时间由１３:００变更为９:００ 【发布渠道】通过９５５９８发布","powerTime":"2020-04-27 08:06:42","powerComm":"已送电","subsNo":"","lineNo":"","tgNo":"","tgName":null,"infoStatus":"1","orgName":"国网徐水县供电公司","typeName":null,"infoStatusName":null,"dateDay":null,"orgNos":null,"nowTime":null,"countyName":null,"streetName":null,"villageName":null,"roadName":null,"communityName":null,"tranName":null,"sdLineName":null,"cityCode":"1340605","cityName":"国网徐水县供电公司","provinceCode":null,"stopTime":"2020-04-27 09:00:00","powerType":"全部","powerOffArea":"【全线路停电】停历城刚健鞋业有限公司,徐水建明西路83号家属院,盛源67号（欧韵3期南箱变）,永兴84号箱变配电变压器,历城鞋厂,徐春山,保定顺心家园物业管理有限公司,0555835544-徐水县恒星防腐材料厂-专变-94363926-徐水县恒星防腐材料厂,盛源108号（县社西侧）,徐水宏鑫城东加油站,高庄7号,永兴12号(安顺苑),0469275461新洋鞋业有限公司900028749104,变压器,0469276712-河北中恒泰达粮油贸易有限公司-专变-46770311-河北中恒泰达粮油贸易有限公司,盛源7号（石油公司）,河北中恒泰达粮油贸易有限公司,高庄9号【纯农排变】,保定市华艺包装制品有限公司,永兴45号箱变(安顺八号),保定市中泰汽车燃气加气有限公司,中国石油保定162加油站,河北天行健房地产开发集团有限公司3号,盛源109号（欧韵北门）,永兴83号箱变配电变压器,河北天行健房地产开发集团有限公司4号,河北天行健房地产开发集团有限公司5号,徐水县伟业五金橡胶制造有限公司,河北万瑞医疗器材有限公司变压器,盛源66号（欧韵3期北箱变）,陈二领镀锌厂,徐水县天行健物业管理有限公司,保定市徐水区秀水湾大众浴池,徐水县津保蓄电池厂,徐水县平安房地产开发有限公司,徐水县家安物业运行有限公司,高庄3号,保定市鼎居房地产开发有限公司,高庄4号,徐水县居然房地产发展有限公司,河北天行健房地产开发集团有限公司,徐水县恒星防腐材料厂1号,0751054648保定柏林正通汽车修理有限公司0014750346","powerOffReason":"【停电原因】由于Ｂ相接地导致１１０ＫＶ下河西变电站北关５１８线路全线停电 【变更送电】因抢修进度加快原因，送电时间由１３:００变更为９:００ 【发布渠道】通过９５５９８发布","powerOffId":"2020042713000033"},{"poweroffId":2020042613000477,"sgpoweroffId":null,"subsName":"","lineName":"10kV仁和路530线路","pubTranName":"建安一公司小区（新）,","scope":"【影响街道/乡镇】双塔城区 【影响客户】建安小区","startTime":"2020-04-26 22:15:57","stopDate":"2020-04-27 02:00:00","orgNo":"1340626","typeCode":"电网故障停限电","poweroffArea":"【单台区停电】停１１０ＫＶ涿县变电站１０ＫＶ仁和路５３０线路建安一公司小区（新）公变台区","poweroffReason":"【停电原因】由于低压保险烧毁导致１１０ＫＶ涿县变电站１０ＫＶ仁和路５３０线路建安一公司小区（新）公变台区停电 【变更送电】因抢修进度加快原因，送电时间由０８：００变更为０２：００ 【发布渠道】通过９５５９８发布","powerTime":"2020-04-27 01:22:14","powerComm":"恢复送电","subsNo":"","lineNo":"","tgNo":"","tgName":null,"infoStatus":"1","orgName":"国网涿州市供电公司","typeName":null,"infoStatusName":null,"dateDay":null,"orgNos":null,"nowTime":null,"countyName":null,"streetName":null,"villageName":null,"roadName":null,"communityName":null,"tranName":null,"sdLineName":null,"cityCode":"1340626","cityName":"国网涿州市供电公司","provinceCode":null,"stopTime":"2020-04-27 02:00:00","powerType":"全部","powerOffArea":"【单台区停电】停１１０ＫＶ涿县变电站１０ＫＶ仁和路５３０线路建安一公司小区（新）公变台区","powerOffReason":"【停电原因】由于低压保险烧毁导致１１０ＫＶ涿县变电站１０ＫＶ仁和路５３０线路建安一公司小区（新）公变台区停电 【变更送电】因抢修进度加快原因，送电时间由０８：００变更为０２：００ 【发布渠道】通过９５５９８发布","powerOffId":"2020042613000477"},{"poweroffId":2020042613000463,"sgpoweroffId":null,"subsName":"","lineName":"10KV计算机站522","pubTranName":"杨庄村东南增,","scope":"【影响街道/乡镇】双塔城区 【影响客户】杨庄村","startTime":"2020-04-26 20:47:09","stopDate":"2020-04-26 23:30:00","orgNo":"1340626","typeCode":"电网故障停限电","poweroffArea":"【单台区停电】停１１０ＫＶ涿县变电站１０ＫＶ计算机站５２２线路杨庄村东南增公变台区","poweroffReason":"【停电原因】由于低压刀闸烧毁导致１１０ＫＶ涿县变电站１０ＫＶ计算机站５２２线路杨庄村东南公变台区停电 【变更送电】因抢修进度加快原因，送电时间由２７日０８：００变更为２６日２３：３０ 【发布渠道】通过９５５９８发布","powerTime":"2020-04-26 23:09:48","powerComm":"恢复送电","subsNo":"","lineNo":"","tgNo":"","tgName":null,"infoStatus":"1","orgName":"国网涿州市供电公司","typeName":null,"infoStatusName":null,"dateDay":null,"orgNos":null,"nowTime":null,"countyName":null,"streetName":null,"villageName":null,"roadName":null,"communityName":null,"tranName":null,"sdLineName":null,"cityCode":"1340626","cityName":"国网涿州市供电公司","provinceCode":null,"stopTime":"2020-04-26 23:30:00","powerType":"全部","powerOffArea":"【单台区停电】停１１０ＫＶ涿县变电站１０ＫＶ计算机站５２２线路杨庄村东南增公变台区","powerOffReason":"【停电原因】由于低压刀闸烧毁导致１１０ＫＶ涿县变电站１０ＫＶ计算机站５２２线路杨庄村东南公变台区停电 【变更送电】因抢修进度加快原因，送电时间由２７日０８：００变更为２６日２３：３０ 【发布渠道】通过９５５９８发布","powerOffId":"2020042613000463"},{"poweroffId":2020042613000462,"sgpoweroffId":null,"subsName":"","lineName":"10kV仁和路530线路","pubTranName":"防疫站小区(新)柱变,","scope":"【影响街道/乡镇】双塔城区 【影响客户】防疫站小区","startTime":"2020-04-26 20:48:27","stopDate":"2020-04-26 23:00:00","orgNo":"1340626","typeCode":"电网故障停限电","poweroffArea":"【单台区停电】停１１０ＫＶ涿县变电站１０ＫＶ仁和路５３０线路防疫站小区(新)柱变公变台区","poweroffReason":"【停电原因】由于低压空开烧毁导致１１０ＫＶ涿县变电站１０ＫＶ仁和路５３０线路防疫站小区公变台区停电 【变更送电】因抢修进度加快原因，送电时间由２７日０８：００变更为２６日２３：００ 【发布渠道】通过９５５９８发布","powerTime":"2020-04-26 22:17:51","powerComm":"恢复送电","subsNo":"","lineNo":"","tgNo":"","tgName":null,"infoStatus":"1","orgName":"国网涿州市供电公司","typeName":null,"infoStatusName":null,"dateDay":null,"orgNos":null,"nowTime":null,"countyName":null,"streetName":null,"villageName":null,"roadName":null,"communityName":null,"tranName":null,"sdLineName":null,"cityCode":"1340626","cityName":"国网涿州市供电公司","provinceCode":null,"stopTime":"2020-04-26 23:00:00","powerType":"全部","powerOffArea":"【单台区停电】停１１０ＫＶ涿县变电站１０ＫＶ仁和路５３０线路防疫站小区(新)柱变公变台区","powerOffReason":"【停电原因】由于低压空开烧毁导致１１０ＫＶ涿县变电站１０ＫＶ仁和路５３０线路防疫站小区公变台区停电 【变更送电】因抢修进度加快原因，送电时间由２７日０８：００变更为２６日２３：００ 【发布渠道】通过９５５９８发布","powerOffId":"2020042613000462"},{"poweroffId":2020042613000459,"sgpoweroffId":null,"subsName":"","lineName":"10KV渡假村514","pubTranName":"下庄村3号台区,","scope":"【影响街道/乡镇】三坡镇 【高危重要客户】无 【影响客户】下庄村","startTime":"2020-04-26 20:27:21","stopDate":"2020-04-26 23:00:00","orgNo":"1340614","typeCode":"电网故障停限电","poweroffArea":"【单台区停电】停下庄村3号台区","poweroffReason":"【停电原因】由于设备线夹烧毁导致３５ＫＶ三坡变电站１０ＫＶ渡假村５１４线路下庄村３号公变台区停电 【变更送电】无 【发布渠道】通过９５５９８发布","powerTime":"2020-04-26 22:04:18","powerComm":"已送电","subsNo":"","lineNo":"","tgNo":"","tgName":null,"infoStatus":"1","orgName":"国网涞水县供电公司","typeName":null,"infoStatusName":null,"dateDay":null,"orgNos":null,"nowTime":null,"countyName":null,"streetName":null,"villageName":null,"roadName":null,"communityName":null,"tranName":null,"sdLineName":null,"cityCode":"1340614","cityName":"国网涞水县供电公司","provinceCode":null,"stopTime":"2020-04-26 23:00:00","powerType":"全部","powerOffArea":"【单台区停电】停下庄村3号台区","powerOffReason":"【停电原因】由于设备线夹烧毁导致３５ＫＶ三坡变电站１０ＫＶ渡假村５１４线路下庄村３号公变台区停电 【变更送电】无 【发布渠道】通过９５５９８发布","powerOffId":"2020042613000459"}],"pageModel":{"pageNow":134,"totalCount":10973,"totalPage":1098,"tableRows":0,"pageCount":10,"beginCount":1330},"isExperi":"1"}