{"message":"","today":"2020-06-15","seleList":[{"poweroffId":2020042613000055,"sgpoweroffId":null,"subsName":"","lineName":"10KV檀山512","pubTranName":"北秋兰西南台区,丛西村中台区,铺头村南,北秋兰村西,铺头村内|0706,北秋兰村东2#,二十里铺村东北,铺头村东二,丛西村南专用变压器,南庞村东专用井|0702,二十里铺村东二,铺头村东变压器,北秋兰村内西台区变压器,坛山村内变压器,坛山村西北变压器,北秋兰市场变压器,坛山村西台区变压器,十里铺西井,铺头村北2台区,南庞村东变压器,丛西村南（西）变压器,行宫北（内）台区变压器,永阳供电所变压器,北秋兰村东变压器,北秋兰村南养殖场变压器,铺头村北井|0704,行宫1村南|0737,北秋兰市场2台区,","scope":"【影响街道/乡镇】永阳镇 【高危重要客户】无 【影响客户】北秋兰村、丛西村、坛山村、南庞村、铺头村、行宫村、二十里铺村","startTime":"2020-04-26 08:00:00","stopDate":"2020-04-26 18:00:00","orgNo":"1340614","typeCode":"电网故障停限电","poweroffArea":"【全线路停电】停汇源灰粉厂,丛西村西台区【纯农排变】,涞富灰粉厂,福海灰粉厂,联合灰粉厂,铺头村北2台区,玉成灰粉厂,华林实业公司,北秋兰面粉厂,宏达水泥厂,王俊力灰粉厂,南庞村东变压器,建辉灰粉厂,永阳供电所变压器,张增军灰粉厂,同顺钙粉厂,顺发灰粉厂,高科电力,北秋兰村南养殖场变压器,二十里铺村东二,北秋兰村内西台区变压器,涞水县凤福灰粉厂新增变压器,古艺坊家俱厂,坛山村内变压器,北秋兰市场变压器,刘福灰粉厂,铺头士江塑料,涞水金招水泥砖制造有限公司,涞水县德强加工250KVA专变,涞水县宝幢水泥砖厂新增变压器,二十里铺村东北,涞水县泰和灰粉厂315KVA专变,北秋兰西南台区,丛西村中台区,海开办,铺头村南,北秋兰村西,中亚灰粉厂,玉明灰粉厂,高旭灰粉厂,涞水县宗元钙粉厂200KVA专变,胜达永强公司1,洪建修配厂,0469321799-涞水县泰和灰粉厂-专变-46775202-泰岳灰粉厂,永阳供电所2,北秋兰桥西变压器【纯农排变】,坛山赵志英,铺头村东二,丛西村南专用变压器,周磊杰灰粉厂,变压器,福鑫灰厂,铺头村内|0706,北秋兰村东2#,南庞村东专用井|0702,金星石业250KVA专变,铺头村东变压器,坛山村西北变压器,北秋兰桥东【纯农排变】,十里铺西井,坛山村西台区变压器,丛西村南（西）变压器,行宫村西专用|0739【纯农排变】,行宫北（内）台区变压器,亚平灰厂,张凤福灰粉厂,涞水县明新水泥砖厂200KVA专变,北秋兰西南井【纯农排变】,北秋兰村东变压器,坛山工艺美术,海龙修配厂,高峰灰粉厂250KVA专变,铺头村北井|0704,北秋兰村西井【纯农排变】,凤福灰粉厂200KVA专变,行宫1村南|0737,北秋兰市场2台区,联富灰粉厂2","poweroffReason":"【停电原因】由于站内主变磁头烧毁导致３５ＫＶ明义变电站１０ＫＶ檀山５１２线路全线停电 【变更送电】因工作量大原因，送电时间由１５：００变更为１８：００ 【发布渠道】通过９５５９８发布","powerTime":"2020-04-26 17:51:20","powerComm":"已送电","subsNo":"","lineNo":"","tgNo":"","tgName":null,"infoStatus":"1","orgName":"国网涞水县供电公司","typeName":null,"infoStatusName":null,"dateDay":null,"orgNos":null,"nowTime":null,"countyName":null,"streetName":null,"villageName":null,"roadName":null,"communityName":null,"tranName":null,"sdLineName":null,"cityCode":"1340614","cityName":"国网涞水县供电公司","provinceCode":null,"stopTime":"2020-04-26 18:00:00","powerType":"全部","powerOffArea":"【全线路停电】停汇源灰粉厂,丛西村西台区【纯农排变】,涞富灰粉厂,福海灰粉厂,联合灰粉厂,铺头村北2台区,玉成灰粉厂,华林实业公司,北秋兰面粉厂,宏达水泥厂,王俊力灰粉厂,南庞村东变压器,建辉灰粉厂,永阳供电所变压器,张增军灰粉厂,同顺钙粉厂,顺发灰粉厂,高科电力,北秋兰村南养殖场变压器,二十里铺村东二,北秋兰村内西台区变压器,涞水县凤福灰粉厂新增变压器,古艺坊家俱厂,坛山村内变压器,北秋兰市场变压器,刘福灰粉厂,铺头士江塑料,涞水金招水泥砖制造有限公司,涞水县德强加工250KVA专变,涞水县宝幢水泥砖厂新增变压器,二十里铺村东北,涞水县泰和灰粉厂315KVA专变,北秋兰西南台区,丛西村中台区,海开办,铺头村南,北秋兰村西,中亚灰粉厂,玉明灰粉厂,高旭灰粉厂,涞水县宗元钙粉厂200KVA专变,胜达永强公司1,洪建修配厂,0469321799-涞水县泰和灰粉厂-专变-46775202-泰岳灰粉厂,永阳供电所2,北秋兰桥西变压器【纯农排变】,坛山赵志英,铺头村东二,丛西村南专用变压器,周磊杰灰粉厂,变压器,福鑫灰厂,铺头村内|0706,北秋兰村东2#,南庞村东专用井|0702,金星石业250KVA专变,铺头村东变压器,坛山村西北变压器,北秋兰桥东【纯农排变】,十里铺西井,坛山村西台区变压器,丛西村南（西）变压器,行宫村西专用|0739【纯农排变】,行宫北（内）台区变压器,亚平灰厂,张凤福灰粉厂,涞水县明新水泥砖厂200KVA专变,北秋兰西南井【纯农排变】,北秋兰村东变压器,坛山工艺美术,海龙修配厂,高峰灰粉厂250KVA专变,铺头村北井|0704,北秋兰村西井【纯农排变】,凤福灰粉厂200KVA专变,行宫1村南|0737,北秋兰市场2台区,联富灰粉厂2","powerOffReason":"【停电原因】由于站内主变磁头烧毁导致３５ＫＶ明义变电站１０ＫＶ檀山５１２线路全线停电 【变更送电】因工作量大原因，送电时间由１５：００变更为１８：００ 【发布渠道】通过９５５９８发布","powerOffId":"2020042613000055"},{"poweroffId":2020042613000054,"sgpoweroffId":null,"subsName":"","lineName":"10kV西城514线","pubTranName":"东城综合一台区变压器,北罗综合5号台区变压器,横头综合一台区变压器,西城综合9台区,","scope":"【影响街道/乡镇】西安国城乡 【高危重要客户】无 【影响客户】南流罗村（南罗）、西城村、东城村、北流罗村（北罗）、横头村、北街村、东街村、南街村、西街村","startTime":"2020-04-26 07:47:00","stopDate":"2020-04-26 10:20:00","orgNo":"1340606","typeCode":"电网故障停限电","poweroffArea":"【全线路停电】停西城综合9台区,东城综合一台区变压器,北罗综合5号台区变压器,横头综合一台区变压器","poweroffReason":"【停电原因】由于接地故障导致３５ＫＶ庞各庄变电站１０ＫＶ西城５１４线路全线停电 【变更送电】因工作进度加快原因，送电时间由１６：００变更为１０：２０ 【发布渠道】通过９５５９８发布","powerTime":"2020-04-26 09:46:19","powerComm":"已送电","subsNo":"","lineNo":"","tgNo":"","tgName":null,"infoStatus":"1","orgName":"国网安国市供电公司","typeName":null,"infoStatusName":null,"dateDay":null,"orgNos":null,"nowTime":null,"countyName":null,"streetName":null,"villageName":null,"roadName":null,"communityName":null,"tranName":null,"sdLineName":null,"cityCode":"1340606","cityName":"国网安国市供电公司","provinceCode":null,"stopTime":"2020-04-26 10:20:00","powerType":"全部","powerOffArea":"【全线路停电】停西城综合9台区,东城综合一台区变压器,北罗综合5号台区变压器,横头综合一台区变压器","powerOffReason":"【停电原因】由于接地故障导致３５ＫＶ庞各庄变电站１０ＫＶ西城５１４线路全线停电 【变更送电】因工作进度加快原因，送电时间由１６：００变更为１０：２０ 【发布渠道】通过９５５９８发布","powerOffId":"2020042613000054"},{"poweroffId":2020042613000044,"sgpoweroffId":null,"subsName":"","lineName":"西各庄512","pubTranName":"杨村排20【纯农排变】,南冬光5,辛庄光2 1,杨村排18【纯农排变】,西各庄光1,杨村排17【纯农排变】,杨村排15【纯农排变】,辛庄光1 2,西各庄光4,新姚庄排4【纯农排变】,南冬光1,西各庄光9,杨村排14【纯农排变】,姚庄光3,新吴庄光12,新辛庄 光4【灾后重建】,杨村排13【纯农排变】,南冬光7,姚庄光2,南冬光2,西各庄光8,西各庄光7,西各庄光6,新辛庄 光3【灾后重建】,西各庄排【纯农排变】,姚庄光1,吴庄光2 1,西各庄变,南冬光6,西各庄光10,南冬光3,新南冬排3【纯农排变】,西各庄光3,杨村排19【纯农排变】,西各庄光5,杨村排21【纯农排变】,姚庄排6,","scope":"【影响街道/乡镇】杨村乡 【高危重要客户】无 【影响客户】姚庄、吴庄、辛庄、南冬、西各庄、杨村部分用户","startTime":"2020-04-26 07:27:25","stopDate":"2020-04-26 11:59:59","orgNo":"1340609","typeCode":"电网故障停限电","poweroffArea":"【全线路停电】停杨村排10【纯农排变】,新辛庄 光4【灾后重建】,河北恒利弹簧有限公司200,姚庄光1,西各庄光6,西各庄排5【纯农排变】,辛庄光2 1,杨村排18【纯农排变】,西各庄小学,西各庄光9,姚庄光3,辛庄排3 1【纯农排变】,杨村排13【纯农排变】,东赵排1【纯农排变】,西各庄混1,新姚庄排4【纯农排变】,西各庄光8,吴庄排1【纯农排变】,南冬光1,西各庄排6【纯农排变】,杨村排20【纯农排变】,南冬排1【纯农排变】,南冬光5,西各庄排2【纯农排变】,西各庄光1,杨村排17【纯农排变】,杨村排1【纯农排变】,杨村排15【纯农排变】,辛庄光1 2,杨村排2,西各庄光4,吴庄大棚1【纯农排变】,东赵排2【纯农排变】,西各庄光7,新辛庄 光3【灾后重建】,西各庄排3【纯农排变】,西各庄排【纯农排变】,吴庄光2 1,西各庄变,姚庄排2【纯农排变】,姚庄排3【纯农排变】,杨村排7【纯农排变】,辛庄排1 2【纯农排变】,南冬光6,西各庄光10,南冬光3,新南冬排3【纯农排变】 ,沃丰家庭农场-250,杨村排5【纯农排变】,西各庄光3,姚庄排1【纯农排变】,杨村排19【纯农排变】,西各庄光5,杨村排21【纯农排变】,姚庄排6,吴庄排2【纯农排变】,吴庄大棚2【纯农排变】,南冬光7,姚庄光2,辛庄排2 1【纯农排变】,南冬光2,南冬排2【纯农排变】,姚庄大棚变【纯农排变】,杨村排14【纯农排变】,新吴庄光12,0694656327-定兴县杨村乡姚家庄小学-专变-239106681-姚家庄小学","poweroffReason":"【停电原因】由于线路Ｂ相接地导致３５ＫＶ杨村变电站西各庄５１２线路全线停电 【变更送电】无 【发布渠道】通过９５５９８发布","powerTime":"2020-04-26 11:10:00","powerComm":"已送电","subsNo":"","lineNo":"","tgNo":"","tgName":null,"infoStatus":"1","orgName":"国网定兴县供电公司","typeName":null,"infoStatusName":null,"dateDay":null,"orgNos":null,"nowTime":null,"countyName":null,"streetName":null,"villageName":null,"roadName":null,"communityName":null,"tranName":null,"sdLineName":null,"cityCode":"1340609","cityName":"国网定兴县供电公司","provinceCode":null,"stopTime":"2020-04-26 11:59:59","powerType":"全部","powerOffArea":"【全线路停电】停杨村排10【纯农排变】,新辛庄 光4【灾后重建】,河北恒利弹簧有限公司200,姚庄光1,西各庄光6,西各庄排5【纯农排变】,辛庄光2 1,杨村排18【纯农排变】,西各庄小学,西各庄光9,姚庄光3,辛庄排3 1【纯农排变】,杨村排13【纯农排变】,东赵排1【纯农排变】,西各庄混1,新姚庄排4【纯农排变】,西各庄光8,吴庄排1【纯农排变】,南冬光1,西各庄排6【纯农排变】,杨村排20【纯农排变】,南冬排1【纯农排变】,南冬光5,西各庄排2【纯农排变】,西各庄光1,杨村排17【纯农排变】,杨村排1【纯农排变】,杨村排15【纯农排变】,辛庄光1 2,杨村排2,西各庄光4,吴庄大棚1【纯农排变】,东赵排2【纯农排变】,西各庄光7,新辛庄 光3【灾后重建】,西各庄排3【纯农排变】,西各庄排【纯农排变】,吴庄光2 1,西各庄变,姚庄排2【纯农排变】,姚庄排3【纯农排变】,杨村排7【纯农排变】,辛庄排1 2【纯农排变】,南冬光6,西各庄光10,南冬光3,新南冬排3【纯农排变】 ,沃丰家庭农场-250,杨村排5【纯农排变】,西各庄光3,姚庄排1【纯农排变】,杨村排19【纯农排变】,西各庄光5,杨村排21【纯农排变】,姚庄排6,吴庄排2【纯农排变】,吴庄大棚2【纯农排变】,南冬光7,姚庄光2,辛庄排2 1【纯农排变】,南冬光2,南冬排2【纯农排变】,姚庄大棚变【纯农排变】,杨村排14【纯农排变】,新吴庄光12,0694656327-定兴县杨村乡姚家庄小学-专变-239106681-姚家庄小学","powerOffReason":"【停电原因】由于线路Ｂ相接地导致３５ＫＶ杨村变电站西各庄５１２线路全线停电 【变更送电】无 【发布渠道】通过９５５９８发布","powerOffId":"2020042613000044"},{"poweroffId":2020042613000037,"sgpoweroffId":null,"subsName":"","lineName":"闫台线516","pubTranName":"陈村光6,","scope":"【影响街道/乡镇】贤寓镇 【高危重要客户】无 【影响客户】陈村部分用户","startTime":"2020-04-26 07:18:08","stopDate":"2020-04-26 10:30:00","orgNo":"1340609","typeCode":"电网故障停限电","poweroffArea":"【单台区停电】停陈村光6","poweroffReason":"【停电原因】由于陈村光６配变引线脱落导致３５ＫＶ贤寓变电站闫台线５１６线路陈村光６公变台区停电 【变更送电】因抢修进度加快原因，送电时间由１１：００变更为１０：３０ 【发布渠道】通过９５５９８发布","powerTime":"2020-04-26 09:50:13","powerComm":"已送电","subsNo":"","lineNo":"","tgNo":"","tgName":null,"infoStatus":"1","orgName":"国网定兴县供电公司","typeName":null,"infoStatusName":null,"dateDay":null,"orgNos":null,"nowTime":null,"countyName":null,"streetName":null,"villageName":null,"roadName":null,"communityName":null,"tranName":null,"sdLineName":null,"cityCode":"1340609","cityName":"国网定兴县供电公司","provinceCode":null,"stopTime":"2020-04-26 10:30:00","powerType":"全部","powerOffArea":"【单台区停电】停陈村光6","powerOffReason":"【停电原因】由于陈村光６配变引线脱落导致３５ＫＶ贤寓变电站闫台线５１６线路陈村光６公变台区停电 【变更送电】因抢修进度加快原因，送电时间由１１：００变更为１０：３０ 【发布渠道】通过９５５９８发布","powerOffId":"2020042613000037"},{"poweroffId":2020042613000020,"sgpoweroffId":null,"subsName":"","lineName":"固店线563","pubTranName":"*南营邱种鸡厂,","scope":"【影响街道/乡镇】张家庄乡 【高危重要客户】无 【影响客户】南营邱种鸡厂","startTime":"2020-04-26 06:18:30","stopDate":"2020-04-26 10:00:00","orgNo":"1340609","typeCode":"电网故障停限电","poweroffArea":"【单台区停电】停南营邱种鸡厂","poweroffReason":"【停电原因】由于南营邱种鸡厂配变低压保险片烧导致１１０ＫＶ贤寓变电站固店线５６３线路南营邱种鸡厂公变台区停电 【变更送电】无 【发布渠道】通过９５５９８发布","powerTime":"2020-04-26 09:32:21","powerComm":"已送电","subsNo":"","lineNo":"","tgNo":"","tgName":null,"infoStatus":"1","orgName":"国网定兴县供电公司","typeName":null,"infoStatusName":null,"dateDay":null,"orgNos":null,"nowTime":null,"countyName":null,"streetName":null,"villageName":null,"roadName":null,"communityName":null,"tranName":null,"sdLineName":null,"cityCode":"1340609","cityName":"国网定兴县供电公司","provinceCode":null,"stopTime":"2020-04-26 10:00:00","powerType":"全部","powerOffArea":"【单台区停电】停南营邱种鸡厂","powerOffReason":"【停电原因】由于南营邱种鸡厂配变低压保险片烧导致１１０ＫＶ贤寓变电站固店线５６３线路南营邱种鸡厂公变台区停电 【变更送电】无 【发布渠道】通过９５５９８发布","powerOffId":"2020042613000020"},{"poweroffId":2020042613000013,"sgpoweroffId":null,"subsName":"","lineName":"10kV闫庄线513","pubTranName":"1大吕庄内1,1侯郎营内1,1王庄内1,1南闫庄内4,1梁庄内1,1国公营内6,1南闫庄内8,1国公营内9,1王庄内4,1高庄内2,1高庄内1,北闫庄小学1,1北闫庄内6,2国公营外8,1侯郎营内6,1北闫庄内8,1国公营内7,1侯郎营内2,1南闫庄内3,1北闫庄内4【纯农排变】,1侯郎营内7,1侯郎营内3,2王庄外9,1国公营内3,2北闫庄外8,国公营小学2,1王庄内3,1大吕庄内2,1侯郎营内5,1小吕庄内1,北闫庄小学2,1国公营内8,候郎营小学,1高庄内4,1北闫庄内5,1侯郎营内4,1大吕庄内3,1国公营内2,1小吕庄内2,1国公营内1,1王庄内2,1北闫庄内7,1北闫庄内3,王庄幼儿园,1南闫庄内2,1大吕庄内4,1中闫庄内3,1南闫庄内9,1南闫庄内10,1国公营内5,国公营小学1,国公营幼儿园,1中闫庄内1,1高庄内3,南闫庄小学,1中闫庄内2,1国公营内4,大吕庄幼儿园,1王庄内5,1北闫庄内2,1北闫庄内1,","scope":"【影响街道/乡镇】闫庄乡 【高危重要客户】无 【影响客户】北闫庄、中闫庄、侯郎营、王庄、国公营、高庄、梁庄、大吕庄、小吕庄、南闫庄","startTime":"2020-04-26 04:34:32","stopDate":"2020-04-26 09:00:00","orgNo":"1340618","typeCode":"电网故障停限电","poweroffArea":"【全线路停电】停2王庄外8【纯农排变】,1王庄内5,2小吕庄外2【纯农排变】,1北闫庄内2,1北闫庄内1,国公营兴源养猪厂,1王庄内2,0387486943-保定国路模具制造有限公司-专变-45313795-清苑县新兴模具厂,新会鸡厂分箱,2王庄外7【纯农排变】,侯郎营面粉厂,南闫庄油坊,1高庄内3,2王庄外1【纯农排变】,2大吕庄外4【纯农排变】,2梁庄外1【纯农排变】,2中闫庄外1【纯农排变】,南闫庄小学,保定市清苑区荣兴模具加工厂,2国公营外1【纯农排变】,2侯郎营外2【纯农排变】,河北建设集团有限公司,2北闫庄外4【纯农排变】,1中闫庄内2,1国公营内4,大吕庄幼儿园,王庄王更明,永生模板厂,保定市清苑县环美模盒板厂,1大吕庄内1,高庄塑料厂,保定市清苑县闫庄乡王庄第一塑料厂,高庄模盒厂,1侯郎营内1,保定市清苑区闫庄乡卫生院,南闫庄旧料加工厂,2侯郎营外7【纯农排变】,王庄村南,0387486956-保定江越电力器材有限公司-专变-45313808-保定江越电力器材有限公司,保定市洪林塑料制品制造有限公司,1王庄内1,1南闫庄内4,国公营化工厂,保定市公用事业局,1梁庄内1,清苑县侯郎营村养猪场,1国公营内6,1南闫庄内8,张印启养鸡厂,1国公营内9,1王庄内4,1高庄内2,1高庄内1,保定汇顺塑料制品制造有限公司,北闫庄小学1,2国公营外2【纯农排变】,2北闫庄外2【纯农排变】,1北闫庄内6,2国公营外8,1侯郎营内6,河北省高速公路京石改扩建筹建处,1北闫庄内8,2王庄外4【纯农排变】,1国公营内7,2高庄外（4）【纯农排变】,1侯郎营内7,1侯郎营内3,2王庄外9,2国公营外4【纯农排变】,保定市清苑区国公营小学,1国公营内3,2国公营外3【纯农排变】,2北闫庄外8,国公营小学2,1王庄内3,1大吕庄内2,清苑县新时代免烧砖厂,1侯郎营内5,2高庄外3【纯农排变】,0595710386-清苑县国通模具厂-专变-126112742-清苑县国通模具厂,2大吕庄外3【纯农排变】,1小吕庄内1,北闫庄小学2,2北闫庄外6【纯农排变】,2北闫庄外3【纯农排变】,保定市卓翰装饰材料厂,发启模盒厂,2高庄外1【纯农排变】,1国公营内8,候郎营小学,1高庄内4,2王庄外6【纯农排变】,1北闫庄内5,1侯郎营内4,2国公营外5【纯农排变】,2大吕庄外5【纯农排变】,1北闫庄内7,保定市公用事业局01,1北闫庄内3,王庄幼儿园,1南闫庄内2,2王庄外5【纯农排变】,2中闫庄外3【纯农排变】,保定市同惠劳务派遣有限公司,保定劲旅物资再生利用有限责任公司,2中闫庄外2【纯农排变】,1大吕庄内4,1中闫庄内3,1南闫庄内9,2国公营外7【纯农排变】,1南闫庄内10,2小吕庄外1【纯农排变】,1国公营内5,2小吕庄外3【纯农排变】,国公营小学1,清苑县伟业液压机械厂,国公营幼儿园,1中闫庄内1,0654684146-保定市洪林塑料制品制造有限公司-专变-219728648-保定市洪林塑料制品制造有限公司,清苑县北闫庄面粉厂,2王庄外2【纯农排变】,清苑县南阎庄金果仓储服务部,中闫庄天宇模盒厂,2王庄外3【纯农排变】,河北清香源养殖有限公司,2北闫庄外7【纯农排变】,2北闫庄外1【纯农排变】,1大吕庄内3,1国公营内2,1国公营内1,2侯郎营外5【纯农排变】,高庄塑料厂01,1侯郎营内2,|国公营寺院,2侯郎营外6【纯农排变】,2北闫庄外5【纯农排变】,1南闫庄内3,1小吕庄内2,2侯郎营外4【纯农排变】,2国公营外6【纯农排变】,2大吕庄外1【纯农排变】,1北闫庄内4【纯农排变】,2高庄外2【纯农排变】,保定市清苑区阎庄乡北阎庄小学,2侯郎营外3【纯农排变】,2侯郎营外1【纯农排变】,清苑县国瑞模具厂,清苑国公营清心浴池,保定市清苑县闫庄乡王庄金梁塑料厂,0554936695-保定江越电力器材有限公司-专变-84798839-保定江越电","poweroffReason":"【停电原因】由于主干１２５号杆东Ｔ４号杆西Ｔ３号杆侯郎营面粉厂避雷器击穿导致３５ＫＶ沙堤营变电站１０ＫＶ闫庄线５１３线路全线停电 【变更送电】因抢修进度加快原因，送电时间由１１：００变更为０９：００ 【发布渠道】通过９５５９８发布","powerTime":"2020-04-26 08:30:12","powerComm":"詹孟德通知已送电","subsNo":"","lineNo":"","tgNo":"","tgName":null,"infoStatus":"1","orgName":"国网清苑县供电公司","typeName":null,"infoStatusName":null,"dateDay":null,"orgNos":null,"nowTime":null,"countyName":null,"streetName":null,"villageName":null,"roadName":null,"communityName":null,"tranName":null,"sdLineName":null,"cityCode":"1340618","cityName":"国网清苑县供电公司","provinceCode":null,"stopTime":"2020-04-26 09:00:00","powerType":"全部","powerOffArea":"【全线路停电】停2王庄外8【纯农排变】,1王庄内5,2小吕庄外2【纯农排变】,1北闫庄内2,1北闫庄内1,国公营兴源养猪厂,1王庄内2,0387486943-保定国路模具制造有限公司-专变-45313795-清苑县新兴模具厂,新会鸡厂分箱,2王庄外7【纯农排变】,侯郎营面粉厂,南闫庄油坊,1高庄内3,2王庄外1【纯农排变】,2大吕庄外4【纯农排变】,2梁庄外1【纯农排变】,2中闫庄外1【纯农排变】,南闫庄小学,保定市清苑区荣兴模具加工厂,2国公营外1【纯农排变】,2侯郎营外2【纯农排变】,河北建设集团有限公司,2北闫庄外4【纯农排变】,1中闫庄内2,1国公营内4,大吕庄幼儿园,王庄王更明,永生模板厂,保定市清苑县环美模盒板厂,1大吕庄内1,高庄塑料厂,保定市清苑县闫庄乡王庄第一塑料厂,高庄模盒厂,1侯郎营内1,保定市清苑区闫庄乡卫生院,南闫庄旧料加工厂,2侯郎营外7【纯农排变】,王庄村南,0387486956-保定江越电力器材有限公司-专变-45313808-保定江越电力器材有限公司,保定市洪林塑料制品制造有限公司,1王庄内1,1南闫庄内4,国公营化工厂,保定市公用事业局,1梁庄内1,清苑县侯郎营村养猪场,1国公营内6,1南闫庄内8,张印启养鸡厂,1国公营内9,1王庄内4,1高庄内2,1高庄内1,保定汇顺塑料制品制造有限公司,北闫庄小学1,2国公营外2【纯农排变】,2北闫庄外2【纯农排变】,1北闫庄内6,2国公营外8,1侯郎营内6,河北省高速公路京石改扩建筹建处,1北闫庄内8,2王庄外4【纯农排变】,1国公营内7,2高庄外（4）【纯农排变】,1侯郎营内7,1侯郎营内3,2王庄外9,2国公营外4【纯农排变】,保定市清苑区国公营小学,1国公营内3,2国公营外3【纯农排变】,2北闫庄外8,国公营小学2,1王庄内3,1大吕庄内2,清苑县新时代免烧砖厂,1侯郎营内5,2高庄外3【纯农排变】,0595710386-清苑县国通模具厂-专变-126112742-清苑县国通模具厂,2大吕庄外3【纯农排变】,1小吕庄内1,北闫庄小学2,2北闫庄外6【纯农排变】,2北闫庄外3【纯农排变】,保定市卓翰装饰材料厂,发启模盒厂,2高庄外1【纯农排变】,1国公营内8,候郎营小学,1高庄内4,2王庄外6【纯农排变】,1北闫庄内5,1侯郎营内4,2国公营外5【纯农排变】,2大吕庄外5【纯农排变】,1北闫庄内7,保定市公用事业局01,1北闫庄内3,王庄幼儿园,1南闫庄内2,2王庄外5【纯农排变】,2中闫庄外3【纯农排变】,保定市同惠劳务派遣有限公司,保定劲旅物资再生利用有限责任公司,2中闫庄外2【纯农排变】,1大吕庄内4,1中闫庄内3,1南闫庄内9,2国公营外7【纯农排变】,1南闫庄内10,2小吕庄外1【纯农排变】,1国公营内5,2小吕庄外3【纯农排变】,国公营小学1,清苑县伟业液压机械厂,国公营幼儿园,1中闫庄内1,0654684146-保定市洪林塑料制品制造有限公司-专变-219728648-保定市洪林塑料制品制造有限公司,清苑县北闫庄面粉厂,2王庄外2【纯农排变】,清苑县南阎庄金果仓储服务部,中闫庄天宇模盒厂,2王庄外3【纯农排变】,河北清香源养殖有限公司,2北闫庄外7【纯农排变】,2北闫庄外1【纯农排变】,1大吕庄内3,1国公营内2,1国公营内1,2侯郎营外5【纯农排变】,高庄塑料厂01,1侯郎营内2,|国公营寺院,2侯郎营外6【纯农排变】,2北闫庄外5【纯农排变】,1南闫庄内3,1小吕庄内2,2侯郎营外4【纯农排变】,2国公营外6【纯农排变】,2大吕庄外1【纯农排变】,1北闫庄内4【纯农排变】,2高庄外2【纯农排变】,保定市清苑区阎庄乡北阎庄小学,2侯郎营外3【纯农排变】,2侯郎营外1【纯农排变】,清苑县国瑞模具厂,清苑国公营清心浴池,保定市清苑县闫庄乡王庄金梁塑料厂,0554936695-保定江越电力器材有限公司-专变-84798839-保定江越电","powerOffReason":"【停电原因】由于主干１２５号杆东Ｔ４号杆西Ｔ３号杆侯郎营面粉厂避雷器击穿导致３５ＫＶ沙堤营变电站１０ＫＶ闫庄线５１３线路全线停电 【变更送电】因抢修进度加快原因，送电时间由１１：００变更为０９：００ 【发布渠道】通过９５５９８发布","powerOffId":"2020042613000013"},{"poweroffId":2020042513000404,"sgpoweroffId":null,"subsName":"","lineName":"李果庄线511","pubTranName":"06054|李果庄3台区综合变压器,06063|李果庄村12台区综合变压器,06057|李果庄6台区综合变压器,06136|李果庄14台区综合变压器,06055|李果庄4台区综合变压器,06053|李果庄2台区综合变压器,06052|李果庄1台区综合变压器,","scope":"【影响街道/乡镇】小王果庄乡 【高危重要客户】无 【影响客户】李果庄村","startTime":"2020-05-06 07:00:00","stopDate":"2020-05-06 17:00:00","orgNo":"1340613","typeCode":"计划停电","poweroffArea":"【分支停电】停06030|李果庄村农业12台区变压器【纯农排变】,06052|李果庄1台区综合变压器,06024|李果庄村农业6台区变压器【纯农排变】,李果庄农业23台区综合【纯农排变】,06054|李果庄3台区综合变压器,李果庄农业24台区变压器【纯农排变】,06063|李果庄村12台区综合变压器,06057|李果庄6台区综合变压器,李果庄农业25台区变压器【纯农排变】,06022|李果庄村农业4台区变压器【纯农排变】,06136|李果庄14台区综合变压器,06034|李果庄村农业16台区变压器【纯农排变】,06033|李果庄村农业15台区变压器【纯农排变】,06025|李果庄村农业7台区变压器【纯农排变】,韩利利农场,06020|李果庄村农业2台区变压器【纯农排变】,韩秋变压器,06021|李果庄村农业3台区变压器【纯农排变】,06031|李果庄村农业13台区变压器【纯农排变】,06026|李果庄村农业8台区变压器【纯农排变】,06032|李果庄村农业14台区变压器【纯农排变】,06019|李果庄村农业1台区变压器【纯农排变】,李果庄瓦厂(子),李果庄南瓦厂(子),李果庄南瓦厂,06035|李果庄村农业17台区变压器【纯农排变】,06055|李果庄4台区综合变压器,06053|李果庄2台区综合变压器,李果庄,06023|李果庄村农业5台区变压器【纯农排变】,06123|李果庄村农业18变压器【纯农排变】,李果庄瓦厂","poweroffReason":"【停电原因】由于配变移位导致３５ＫＶ李果庄变电站李果庄５１１线路瓦厂主分支１号杆１号开关以下停电【变更送电】无【发布渠道】高阳县电视台（４月２６日１９时至２１时之间）屏幕下方滚动播出","powerTime":"2020-05-06 16:50:35","powerComm":"已送电","subsNo":"","lineNo":"","tgNo":"","tgName":null,"infoStatus":"1","orgName":"国网高阳县供电公司","typeName":null,"infoStatusName":null,"dateDay":null,"orgNos":null,"nowTime":null,"countyName":null,"streetName":null,"villageName":null,"roadName":null,"communityName":null,"tranName":null,"sdLineName":null,"cityCode":"1340613","cityName":"国网高阳县供电公司","provinceCode":null,"stopTime":"2020-05-06 17:00:00","powerType":"全部","powerOffArea":"【分支停电】停06030|李果庄村农业12台区变压器【纯农排变】,06052|李果庄1台区综合变压器,06024|李果庄村农业6台区变压器【纯农排变】,李果庄农业23台区综合【纯农排变】,06054|李果庄3台区综合变压器,李果庄农业24台区变压器【纯农排变】,06063|李果庄村12台区综合变压器,06057|李果庄6台区综合变压器,李果庄农业25台区变压器【纯农排变】,06022|李果庄村农业4台区变压器【纯农排变】,06136|李果庄14台区综合变压器,06034|李果庄村农业16台区变压器【纯农排变】,06033|李果庄村农业15台区变压器【纯农排变】,06025|李果庄村农业7台区变压器【纯农排变】,韩利利农场,06020|李果庄村农业2台区变压器【纯农排变】,韩秋变压器,06021|李果庄村农业3台区变压器【纯农排变】,06031|李果庄村农业13台区变压器【纯农排变】,06026|李果庄村农业8台区变压器【纯农排变】,06032|李果庄村农业14台区变压器【纯农排变】,06019|李果庄村农业1台区变压器【纯农排变】,李果庄瓦厂(子),李果庄南瓦厂(子),李果庄南瓦厂,06035|李果庄村农业17台区变压器【纯农排变】,06055|李果庄4台区综合变压器,06053|李果庄2台区综合变压器,李果庄,06023|李果庄村农业5台区变压器【纯农排变】,06123|李果庄村农业18变压器【纯农排变】,李果庄瓦厂","powerOffReason":"【停电原因】由于配变移位导致３５ＫＶ李果庄变电站李果庄５１１线路瓦厂主分支１号杆１号开关以下停电【变更送电】无【发布渠道】高阳县电视台（４月２６日１９时至２１时之间）屏幕下方滚动播出","powerOffId":"2020042513000404"},{"poweroffId":2020042513000403,"sgpoweroffId":null,"subsName":"","lineName":"袁辛线518","pubTranName":"10Kv518袁辛线小庄1号,","scope":"【影响街道/乡镇】高林营镇、安肃镇 【高危重要客户】无 【影响客户】北孤庄营、大庄、白塔铺、小庄、南孤庄营、中孤庄营、小辛安、袁家坟","startTime":"2020-04-26 06:00:00","stopDate":"2020-04-26 17:00:00","orgNo":"1340605","typeCode":"其他临时停电","poweroffArea":"【全线路停电】停保定市徐水区住房和城乡建设局,北孤庄营4号【纯农排变】,河北科华防静电地板制造有限公司,徐水县平易路石油天然气配件有限公司3号,徐水县来宾水泥制品变压器,徐水县交通运输局,10Kv518袁辛线大庄11号,10Kv518袁辛线白塔铺12号,10Kv518袁辛线小庄6号,10Kv518袁辛线大庄9号,河北徐水新洋丰肥业有限公司,徐水县平易路石油天然气配件有限公司1号,南孤庄营11号【纯农排变】,10Kv518袁辛线大庄1号,10Kv518袁辛线大庄12号,10Kv518袁辛线大庄6号,中孤庄营3号,10Kv518袁辛线大庄3号【纯农排变】,10Kv518袁辛线小庄7号【纯农排变】,10Kv518袁辛线小庄3号【纯农排变】,10Kv518袁辛线大庄4号【纯农排变】, 10Kv518袁辛线小辛安3号,河北大午农牧集团食品有限公司,10Kv518袁辛线小庄2号,10Kv518袁辛线大庄14号【纯农排变】,10Kv518袁辛线袁家坟2号,10Kv518袁辛线袁家坟3号,南孤庄营7号,北孤庄营1号【纯农排变】,徐水县平易路石油天然气配件有限公司2号, 10Kv518袁辛线白塔铺8号【纯农排变】,北孤营3号【纯农排变】,10Kv518袁辛线白塔铺7号,徐水县荣泰新型建材有限公司,10Kv518袁辛线大庄8号【纯农排变】,10Kv518袁辛线小庄4号【纯农排变】,10Kv518袁辛线大庄2号,10Kv518袁辛线袁家坟1号,10Kv518袁辛线白塔铺17号,南孤庄营6号,10Kv518袁辛线小庄5号,徐水县平易路石油天然气配件有限公司,10Kv518袁辛线白塔铺13号,河北德力食品有限公司,10Kv518袁辛线白塔铺6号,10Kv518袁辛线大庄10号,10Kv518袁辛线大庄5号,10Kv518袁辛线大庄7号,10Kv518袁辛线小庄1号,变压器,10Kv518袁辛线小庄9号,徐水县中洲自来水供应有限公司,10Kv518袁辛线大庄13号【纯农排变】, 10Kv518袁辛线小辛安4号【纯农排变】,10Kv518袁辛线小庄8号【纯农排变】","poweroffReason":"【停电原因】由于处理紧急缺陷导致３５ＫＶ郎五庄变电站袁辛线５１８线路全线停电 【变更送电】因因工作未完成原因，送电时间由１４:３０变更为１７:００ 【发布渠道】通过９５５９８发布","powerTime":"2020-04-26 16:15:43","powerComm":"已送电","subsNo":"","lineNo":"","tgNo":"","tgName":null,"infoStatus":"1","orgName":"国网徐水县供电公司","typeName":null,"infoStatusName":null,"dateDay":null,"orgNos":null,"nowTime":null,"countyName":null,"streetName":null,"villageName":null,"roadName":null,"communityName":null,"tranName":null,"sdLineName":null,"cityCode":"1340605","cityName":"国网徐水县供电公司","provinceCode":null,"stopTime":"2020-04-26 17:00:00","powerType":"全部","powerOffArea":"【全线路停电】停保定市徐水区住房和城乡建设局,北孤庄营4号【纯农排变】,河北科华防静电地板制造有限公司,徐水县平易路石油天然气配件有限公司3号,徐水县来宾水泥制品变压器,徐水县交通运输局,10Kv518袁辛线大庄11号,10Kv518袁辛线白塔铺12号,10Kv518袁辛线小庄6号,10Kv518袁辛线大庄9号,河北徐水新洋丰肥业有限公司,徐水县平易路石油天然气配件有限公司1号,南孤庄营11号【纯农排变】,10Kv518袁辛线大庄1号,10Kv518袁辛线大庄12号,10Kv518袁辛线大庄6号,中孤庄营3号,10Kv518袁辛线大庄3号【纯农排变】,10Kv518袁辛线小庄7号【纯农排变】,10Kv518袁辛线小庄3号【纯农排变】,10Kv518袁辛线大庄4号【纯农排变】, 10Kv518袁辛线小辛安3号,河北大午农牧集团食品有限公司,10Kv518袁辛线小庄2号,10Kv518袁辛线大庄14号【纯农排变】,10Kv518袁辛线袁家坟2号,10Kv518袁辛线袁家坟3号,南孤庄营7号,北孤庄营1号【纯农排变】,徐水县平易路石油天然气配件有限公司2号, 10Kv518袁辛线白塔铺8号【纯农排变】,北孤营3号【纯农排变】,10Kv518袁辛线白塔铺7号,徐水县荣泰新型建材有限公司,10Kv518袁辛线大庄8号【纯农排变】,10Kv518袁辛线小庄4号【纯农排变】,10Kv518袁辛线大庄2号,10Kv518袁辛线袁家坟1号,10Kv518袁辛线白塔铺17号,南孤庄营6号,10Kv518袁辛线小庄5号,徐水县平易路石油天然气配件有限公司,10Kv518袁辛线白塔铺13号,河北德力食品有限公司,10Kv518袁辛线白塔铺6号,10Kv518袁辛线大庄10号,10Kv518袁辛线大庄5号,10Kv518袁辛线大庄7号,10Kv518袁辛线小庄1号,变压器,10Kv518袁辛线小庄9号,徐水县中洲自来水供应有限公司,10Kv518袁辛线大庄13号【纯农排变】, 10Kv518袁辛线小辛安4号【纯农排变】,10Kv518袁辛线小庄8号【纯农排变】","powerOffReason":"【停电原因】由于处理紧急缺陷导致３５ＫＶ郎五庄变电站袁辛线５１８线路全线停电 【变更送电】因因工作未完成原因，送电时间由１４:３０变更为１７:００ 【发布渠道】通过９５５９８发布","powerOffId":"2020042513000403"},{"poweroffId":2020042513000300,"sgpoweroffId":null,"subsName":"","lineName":"兴胜579","pubTranName":"许庄东2,","scope":"【影响街道/乡镇】白沟镇、兴盛大街、滨水路 【高危重要客户】无 【影响客户】许庄村、许庄安置区、金孔雀小区、秀水鼎居小区、丽都公寓小区、河道国际电商产业园、消防中队、培京小学、金利达、富尊工业园、魅力金座、鑫天鹏、肖铁扣、贸正劳保用品有限公司、天德检测站、马德群、圣大蒂诺、许宝军、赵建辉、付玉、李玉亮","startTime":"2020-04-25 16:41:51","stopDate":"2020-04-25 18:20:00","orgNo":"1340612","typeCode":"电网故障停限电","poweroffArea":"【全线路停电】停变压器,变压器8,工业园区路灯2-1,变压器6,变压器3,保定弘图白沟垃圾综合处理厂,保定白沟新城规划建设局(团结路路灯)变压器,金利达革塑有限公司变压器,许庄变电站,白沟新城味蜀吾火锅店变压器,鹏鼎变压器,天鹏4,变压器7,0675891037-保定白沟新城培京小学-专变-216214618-变压器,保定白沟新城鑫傲峰箱包厂,顾翠平,圣大蒂诺皮具厂变台,李玉亮,高碑店市鸿鹏箱包有限公司变压器,丽都变压器,白沟新城规划建设局五一路3号路灯,保定博成箱包制造有限公司变压器,天鹏5,保定白沟新城隆盈星肉食加工厂,赵建辉2变压器,变压器5,鑫亿顺达箱包变压器,保定互赢物业服务有限责任公司,保定白沟长盛客运有限责任公司,变压器2,贸正变压器,张建明（白沟自来水厂）,许庄东2,变压器4,丽都公寓,保定白沟太强五金压铸有限公司,变压器1,马德群","poweroffReason":"【停电原因】由于主干２１号杆鹏鼎塑胶电缆被外力破坏导致１１０ＫＶ南留变电站１０ＫＶ兴胜５７９线路全线停电 【变更送电】因抢修进度加快原因，送电时间由２１：００变更为１８：２０ 【发布渠道】通过９５５９８发布","powerTime":"2020-04-25 18:08:26","powerComm":"已送电","subsNo":"","lineNo":"","tgNo":"","tgName":null,"infoStatus":"1","orgName":"国网高碑店市供电公司","typeName":null,"infoStatusName":null,"dateDay":null,"orgNos":null,"nowTime":null,"countyName":null,"streetName":null,"villageName":null,"roadName":null,"communityName":null,"tranName":null,"sdLineName":null,"cityCode":"1340612","cityName":"国网高碑店市供电公司","provinceCode":null,"stopTime":"2020-04-25 18:20:00","powerType":"全部","powerOffArea":"【全线路停电】停变压器,变压器8,工业园区路灯2-1,变压器6,变压器3,保定弘图白沟垃圾综合处理厂,保定白沟新城规划建设局(团结路路灯)变压器,金利达革塑有限公司变压器,许庄变电站,白沟新城味蜀吾火锅店变压器,鹏鼎变压器,天鹏4,变压器7,0675891037-保定白沟新城培京小学-专变-216214618-变压器,保定白沟新城鑫傲峰箱包厂,顾翠平,圣大蒂诺皮具厂变台,李玉亮,高碑店市鸿鹏箱包有限公司变压器,丽都变压器,白沟新城规划建设局五一路3号路灯,保定博成箱包制造有限公司变压器,天鹏5,保定白沟新城隆盈星肉食加工厂,赵建辉2变压器,变压器5,鑫亿顺达箱包变压器,保定互赢物业服务有限责任公司,保定白沟长盛客运有限责任公司,变压器2,贸正变压器,张建明（白沟自来水厂）,许庄东2,变压器4,丽都公寓,保定白沟太强五金压铸有限公司,变压器1,马德群","powerOffReason":"【停电原因】由于主干２１号杆鹏鼎塑胶电缆被外力破坏导致１１０ＫＶ南留变电站１０ＫＶ兴胜５７９线路全线停电 【变更送电】因抢修进度加快原因，送电时间由２１：００变更为１８：２０ 【发布渠道】通过９５５９８发布","powerOffId":"2020042513000300"},{"poweroffId":2020042513000292,"sgpoweroffId":null,"subsName":"","lineName":"北桥头515","pubTranName":"东张家庄11村东,龙王庙村内2号,麻屋庄村5#路北,北桥头村12村东,麻屋庄村6号变压器,东张庄12#村内,麻屋庄村路南2号,北桥头村11村南,东张庄村2#村西,南山北村3#村东,北桥头村9#村北,东山北村6#村北,北山北村1号村西,南山北村1#村内,东山北村2#村东,南山北村5#村东,东张家庄村14号配变,东山北9#台区,北桥头村8#村东,南山北村6#村北,中山南村3#变压器【纯农排变】,北桥头村10村内,龙王庙村7#村东,东张庄3#影视城,麻屋庄村1#,东张家庄8#村东,北山北村4#村南,北山北村6#变压器,北桥头村4#河西,麻屋庄路北东4#|,东张家庄6号村北,东山北村8#,北桥头村5#村南,麻屋庄村8号路北变压器,东张家庄7#村东,东张庄村1#村内,北山南村1#村东,龙王庙村1#村东,龙王庙村6#村中,东山北村内10号配变,龙王庙村5#村南,南山北村4#村南【纯农排变】,东张家庄10#西,北山北村3#村西,东山北村7#村北,南山北村2#变压器,北山北村2#村西,北桥头村1#村东,东山北村1#村内,麻屋庄村北7号配变,北桥头村3#村西,东山北村3#村北,南山北村7#村北,东张家庄村13号配变,北桥头村2#村内,麻屋庄村3#村南（综）变压器,龙王庙村内8号配变,东张家庄9#村北,","scope":"【影响街道/乡镇】桥头乡【高危重要客户】无【影响客户】麻屋庄村、中山南村、北山南村、北桥头村、东张家庄村、龙王庙村、北山北村、南山北村、东山北村","startTime":"2020-04-25 16:19:50","stopDate":"2020-04-25 17:30:00","orgNo":"1340625","typeCode":"电网故障停限电","poweroffArea":"【全线路停电】停麻屋庄村采矿1#,东张家庄11村东,北山北大队(蔺合春砖厂),东张庄王英面粉厂(龙王庙),北桥头村12村东,南山北钙粉厂(王术同),麻屋庄村6号变压器,易县立新钙粉厂增容500,侯宗江,老山兰灰厂(李永保),麻屋庄村路南2号,易县职教中心1000KVA-C,北桥头村11村南,龙王庙村内2号,昌盛钙粉厂(刘森),0469488816-易县越发钙粉厂-专变-46820772-易县越发钙粉厂,麻屋庄村5#路北,北桥头钙粉厂(王俊超),北山北村5号村东【纯农排变】,绿周苗木有限公司(于建立),南山北水泥厂(侯艳利),宗刚澎润土厂,易县富山石材厂80,易县职教中心2000KVA-A,东张庄12#村内,易县职教中心,东张庄村1#村内,东张庄村2#村西,易县鼎力和胜畜禽饲养有限公司A200kva,易县越发钙粉厂250,0631831253-易县兴发建材有限公司-专变-144689825-易县兴发建材有限公司变压器,美律电子（河北）有限公司变压器,南山北村3#村东,易县职教中心2000KVA-B,北桥头村9#村北,东山北村6#村北,北山北村1号村西,南山北村闫江变压器001#,南山北村1#村内,河北金泰矿业有限公司,东山北村2#村东,易县公安局桥头派出所160KVA,南山北村5#村东,东张家庄村14号配变,东山北9#台区,北桥头村8#村东,南山北村6#村北,中山南村3#变压器【纯农排变】,北桥头村10村内,易县润扬木门厂,易县天承建筑材料厂,易县鼎力和胜畜禽饲养有限公司B200kva,龙王庙村7#村东,东张庄3#影视城,麻屋庄村1#,东张家庄8#村东,北山北村4#村南,北山北村6#变压器,易县桥头乡卫生院400KVA,北桥头村4#河西,麻屋庄路北东4#|,东张家庄6号村北,东山北村8#,梁春华变压器,北桥头村5#村南,麻屋庄村8号路北变压器,东张家庄7#村东,北山南村1#村东,龙王庙村1#村东,龙王庙村6#村中,东山北村内10号配变,龙王庙村5#村南,南山北村4#村南【纯农排变】,东张家庄10#西,北山北村3#村西,东山北村7#村北,南山北村2#变压器,北山北村2#村西,北桥头村1#村东,东山北村1#村内,麻屋庄村北7号配变,北桥头村3#村西,东山北村3#村北,南山北村7#村北,北桥头村6#村内【纯农排变】,东山北村4#村东【纯农排变】,易县职业技术教育中心160KVA,纪兴种苗厂,麻屋庄面粉厂,桥头供电所,易县立新钙粉厂（杨永堂）,北桥头村2#村内,北桥头村7#【纯农排变】,麻屋庄村3#村南（综）变压器,龙王庙村内8号配变,南山北村闫江变压器,东张家庄9#村北,龙泉塑料厂(卢志刚),易县闫生大理石厂,东张家庄村4#【纯农排变】,东张家庄村13号配变,易县移动公司（南山北村）,易县双联钙粉厂800","poweroffReason":"【停电原因】由于过流跳闸导致３５ＫＶ燕城变电站北桥头５１５线路全线停电【变更送电】因抢修进度加快原因，送电时间由２０：００变更为１７：３０【发布渠道】通过９５５９８发布","powerTime":"2020-04-25 16:58:55","powerComm":"已送电","subsNo":"","lineNo":"","tgNo":"","tgName":null,"infoStatus":"1","orgName":"国网易县供电公司","typeName":null,"infoStatusName":null,"dateDay":null,"orgNos":null,"nowTime":null,"countyName":null,"streetName":null,"villageName":null,"roadName":null,"communityName":null,"tranName":null,"sdLineName":null,"cityCode":"1340625","cityName":"国网易县供电公司","provinceCode":null,"stopTime":"2020-04-25 17:30:00","powerType":"全部","powerOffArea":"【全线路停电】停麻屋庄村采矿1#,东张家庄11村东,北山北大队(蔺合春砖厂),东张庄王英面粉厂(龙王庙),北桥头村12村东,南山北钙粉厂(王术同),麻屋庄村6号变压器,易县立新钙粉厂增容500,侯宗江,老山兰灰厂(李永保),麻屋庄村路南2号,易县职教中心1000KVA-C,北桥头村11村南,龙王庙村内2号,昌盛钙粉厂(刘森),0469488816-易县越发钙粉厂-专变-46820772-易县越发钙粉厂,麻屋庄村5#路北,北桥头钙粉厂(王俊超),北山北村5号村东【纯农排变】,绿周苗木有限公司(于建立),南山北水泥厂(侯艳利),宗刚澎润土厂,易县富山石材厂80,易县职教中心2000KVA-A,东张庄12#村内,易县职教中心,东张庄村1#村内,东张庄村2#村西,易县鼎力和胜畜禽饲养有限公司A200kva,易县越发钙粉厂250,0631831253-易县兴发建材有限公司-专变-144689825-易县兴发建材有限公司变压器,美律电子（河北）有限公司变压器,南山北村3#村东,易县职教中心2000KVA-B,北桥头村9#村北,东山北村6#村北,北山北村1号村西,南山北村闫江变压器001#,南山北村1#村内,河北金泰矿业有限公司,东山北村2#村东,易县公安局桥头派出所160KVA,南山北村5#村东,东张家庄村14号配变,东山北9#台区,北桥头村8#村东,南山北村6#村北,中山南村3#变压器【纯农排变】,北桥头村10村内,易县润扬木门厂,易县天承建筑材料厂,易县鼎力和胜畜禽饲养有限公司B200kva,龙王庙村7#村东,东张庄3#影视城,麻屋庄村1#,东张家庄8#村东,北山北村4#村南,北山北村6#变压器,易县桥头乡卫生院400KVA,北桥头村4#河西,麻屋庄路北东4#|,东张家庄6号村北,东山北村8#,梁春华变压器,北桥头村5#村南,麻屋庄村8号路北变压器,东张家庄7#村东,北山南村1#村东,龙王庙村1#村东,龙王庙村6#村中,东山北村内10号配变,龙王庙村5#村南,南山北村4#村南【纯农排变】,东张家庄10#西,北山北村3#村西,东山北村7#村北,南山北村2#变压器,北山北村2#村西,北桥头村1#村东,东山北村1#村内,麻屋庄村北7号配变,北桥头村3#村西,东山北村3#村北,南山北村7#村北,北桥头村6#村内【纯农排变】,东山北村4#村东【纯农排变】,易县职业技术教育中心160KVA,纪兴种苗厂,麻屋庄面粉厂,桥头供电所,易县立新钙粉厂（杨永堂）,北桥头村2#村内,北桥头村7#【纯农排变】,麻屋庄村3#村南（综）变压器,龙王庙村内8号配变,南山北村闫江变压器,东张家庄9#村北,龙泉塑料厂(卢志刚),易县闫生大理石厂,东张家庄村4#【纯农排变】,东张家庄村13号配变,易县移动公司（南山北村）,易县双联钙粉厂800","powerOffReason":"【停电原因】由于过流跳闸导致３５ＫＶ燕城变电站北桥头５１５线路全线停电【变更送电】因抢修进度加快原因，送电时间由２０：００变更为１７：３０【发布渠道】通过９５５９８发布","powerOffId":"2020042513000292"}],"pageModel":{"pageNow":139,"totalCount":10973,"totalPage":1098,"tableRows":0,"pageCount":10,"beginCount":1380},"isExperi":"1"}