{"message":"","today":"2020-06-15","seleList":[{"poweroffId":2020042513000081,"sgpoweroffId":null,"subsName":"","lineName":"10kV512林堡线","pubTranName":"郑村农排13台区变压器【纯农排变】,郑村综合4台区变压器,郑村综合9台区变压器,郑村农排4台区变压器【纯农排变】,郑村综合7台区变压器,郑村综合1台区变压器,郑村综合5台区变压器,郑村综合6台区变压器,郑村综合2台区变压器,郑村农排5台区变压器【纯农排变】,郑村综合3台区变压器,郑村综合10台区变压器,郑村农排8台区变压器【纯农排变】,郑村农排2台区变压器【纯农排变】,郑村学校,","scope":"【影响街道/乡镇】辛兴镇【高危重要客户】无【影响客户】郑村","startTime":"2020-04-26 18:00:00","stopDate":"2020-04-26 23:59:00","orgNo":"1340616","typeCode":"临时停电","poweroffArea":"【全线路停电】停郑村砖厂,燕丰南,蠡县利强纺织有限公司,郑村综合10台区变压器,站变,郑村综合9台区变压器,郑村综合4台区变压器,郑村农排2台区变压器【纯农排变】,郑村综合5台区变压器,蠡县鑫易纺织品有限公司,郑村综合3台区变压器,郑村农排9台区变压器【纯农排变】,郑村农排3台区变压器【纯农排变】,郑村农排8台区变压器【纯农排变】,郑村农排11台区变压器【纯农排变】,周泽忠,郑村开达毛纺厂,郑村综合2台区变压器,郑村农排1台区变压器【纯农排变】,郑村农排10台区变压器【纯农排变】,郑村综合8台区变压器,变压器,郑村综合7台区变压器,郑村农排7台区变压器【纯农排变】,？县东河泡料厂,燕齐织布厂,郑村农排4台区变压器【纯农排变】,0650266489-中国移动通信集团河北有限公司蠡县分公司-专变-174520153-中国移动通信集团河北有限公司蠡县分公司郑村,方正佳苑A区变压器,蠡县和合金碇纺织厂变压器,燕丰北,郑村学校,俊秋印刷厂,蠡县鑫丰浆纱厂变压器,郑村农排12台区变压器【纯农排变】,郑村综合1台区变压器,郑村综合6台区变压器,郑村农排13台区变压器【纯农排变】,蠡县裕鑫纺织品加工厂变压器,郑村农排5台区变压器【纯农排变】,东方毛条（高计）,郑村农排6台区变压器【纯农排变】","poweroffReason":"【停电原因】由于倒运行方式导致３５ＫＶ小陈变电站１０ＫＶ林堡５１２线路全线停电【变更送电】因工作量大的原因，送电时间由１９：００变更为２３：５９【发布渠道】通过９５５９８发布","powerTime":"2020-04-26 23:09:01","powerComm":"已送电","subsNo":"","lineNo":"","tgNo":"","tgName":null,"infoStatus":"1","orgName":"国网蠡县供电公司","typeName":null,"infoStatusName":null,"dateDay":null,"orgNos":null,"nowTime":null,"countyName":null,"streetName":null,"villageName":null,"roadName":null,"communityName":null,"tranName":null,"sdLineName":null,"cityCode":"1340616","cityName":"国网蠡县供电公司","provinceCode":null,"stopTime":"2020-04-26 23:59:00","powerType":"全部","powerOffArea":"【全线路停电】停郑村砖厂,燕丰南,蠡县利强纺织有限公司,郑村综合10台区变压器,站变,郑村综合9台区变压器,郑村综合4台区变压器,郑村农排2台区变压器【纯农排变】,郑村综合5台区变压器,蠡县鑫易纺织品有限公司,郑村综合3台区变压器,郑村农排9台区变压器【纯农排变】,郑村农排3台区变压器【纯农排变】,郑村农排8台区变压器【纯农排变】,郑村农排11台区变压器【纯农排变】,周泽忠,郑村开达毛纺厂,郑村综合2台区变压器,郑村农排1台区变压器【纯农排变】,郑村农排10台区变压器【纯农排变】,郑村综合8台区变压器,变压器,郑村综合7台区变压器,郑村农排7台区变压器【纯农排变】,？县东河泡料厂,燕齐织布厂,郑村农排4台区变压器【纯农排变】,0650266489-中国移动通信集团河北有限公司蠡县分公司-专变-174520153-中国移动通信集团河北有限公司蠡县分公司郑村,方正佳苑A区变压器,蠡县和合金碇纺织厂变压器,燕丰北,郑村学校,俊秋印刷厂,蠡县鑫丰浆纱厂变压器,郑村农排12台区变压器【纯农排变】,郑村综合1台区变压器,郑村综合6台区变压器,郑村农排13台区变压器【纯农排变】,蠡县裕鑫纺织品加工厂变压器,郑村农排5台区变压器【纯农排变】,东方毛条（高计）,郑村农排6台区变压器【纯农排变】","powerOffReason":"【停电原因】由于倒运行方式导致３５ＫＶ小陈变电站１０ＫＶ林堡５１２线路全线停电【变更送电】因工作量大的原因，送电时间由１９：００变更为２３：５９【发布渠道】通过９５５９８发布","powerOffId":"2020042513000081"},{"poweroffId":2020042513000012,"sgpoweroffId":null,"subsName":"","lineName":"李家营524","pubTranName":"石家庄2#公变变压器,东盛马庄3变,东盛张八屯变压器,石家庄14号变压器,东盛温屯北变压器,郭屯03变压器,东盛阎王庄南变压器,八方达客运有限公司天桥分公司变压器,东盛马庄5变,东盛张八屯地变压器【纯农排变】,郭屯05变压器,郭屯04变压器,东盛城南供电所变压器,温屯北变压器新架,东盛马庄2变,郭屯02变压器,838充电站变压器,东盛马庄4变,东盛马庄变压器,东盛张八屯南变压器,郭屯01变压器,东盛温屯北公变,东盛马庄1变,","scope":"【影响街道/乡镇】东盛办事处 【高危重要客户】无 【影响客户】郭屯村、马庄村、华永房地产、欣知语、园林局、鹏达房地产、白象、京石高速收费站、北方风机、豆豆房地产、豆豆食品、闫各庄回迁楼、亿博豪轩小区","startTime":"2020-04-25 05:35:56","stopDate":"2020-04-25 16:00:00","orgNo":"1340612","typeCode":"电网故障停限电","poweroffArea":"【全线路停电】停东盛马庄5变,东盛张八屯地变压器【纯农排变】,郭屯05变压器,郭屯02变压器,838充电站变压器,东盛马庄变压器,东盛张八屯南变压器,东盛城南供电所变压器,东盛温屯北变压器,郭屯01变压器,东盛温屯北公变,石家庄2#公变变压器,郭屯04变压器,东盛马庄3变,东盛张八屯变压器,温屯北变压器新架,东盛马庄2变,郭屯03变压器,东盛阎王庄南变压器,八方达客运有限公司天桥分公司变压器,石家庄14号变压器,东盛马庄1变,东盛马庄4变,永安印铁变压器3,高碑店市路灯管理办公室变压器,永安印铁变压器2,河北鹏达房地产开发有限公司01,河北鹏达房地产开发有限公司变压器,高碑店市电业局变压器,高碑店市城市管理综合执法局112国道2号,河北鹏达房地产开发有限公司03,中国石化销售有限公司河北保定高碑店石油分公司,保定隆和房地产开发有限公司,高碑店市永杰汽车销售公司,温屯窗纱厂,高碑店市欣知语服饰有限公司变压器,河北北方风机制造有限公司,万通加油站,高碑店市万通发展有限责任公司变压器,高碑店市自来水公司变压器,交通局,变压器-020,河北旭坤房地产开发有限公司,河北旭坤房地产开发有限公司2#变压器,变压器-019,河北鹏达房地产开发有限公司02,高碑店市凯龙房地产开发有限公司8#变压器,0585511104-高碑店市路灯管理办公室-专变-125093165-高碑店市路灯管理办公室变压器,杨宝坤,高碑店市凯龙房地产开发有限公司3#变压器,高碑店市平生环保设备制造有限公司,河北旭坤房地产开发有限公司3#变压器,王克录,永安印铁,河北隆泰物业变压器,冀东商业公司,高碑店白象食品有限公司变压器,河北旭坤房地产开发有限公司4#变压器,河北京石高速公路开发有限公司,碑店市凯龙房地产开发有限公司变压器02,河北隆泰物业服务有限责任公司高碑店分公司1#变压器,中国石油保定第105站,高碑店市建筑集团公司变压器,高碑店市天天一泉水厂2,高碑店市康美舒空气净化设备科技有限公司,保定中油石油销售有限公司第二加油站,0609130229-河北高碑店市豆豆食品(集团)有限公司-专变-127561667-河北高碑店市豆豆食品（集团）有限公司变压器,碑店市凯龙房地产开发有限公司变压器01,高碑店市凯龙房地产开发有限公司7#变压器,高碑店市凯龙房地产开发有限公司6#变压器,温屯公变,高碑店市凯龙房地产开发有限公司5#变压器,高碑店市凯龙房地产开发有限公司4#变压器","poweroffReason":"【停电原因】由于阑珊花语院内电缆烧毁导致１１０ＫＶ马庄变电站１０ＫＶ李家营５２４线路全线停电 【变更送电】因工作量大原因，送电时间由１２：００变更为１６：００ 【发布渠道】通过９５５９８发布","powerTime":"2020-04-25 15:02:07","powerComm":"已送电","subsNo":"","lineNo":"","tgNo":"","tgName":null,"infoStatus":"1","orgName":"国网高碑店市供电公司","typeName":null,"infoStatusName":null,"dateDay":null,"orgNos":null,"nowTime":null,"countyName":null,"streetName":null,"villageName":null,"roadName":null,"communityName":null,"tranName":null,"sdLineName":null,"cityCode":"1340612","cityName":"国网高碑店市供电公司","provinceCode":null,"stopTime":"2020-04-25 16:00:00","powerType":"全部","powerOffArea":"【全线路停电】停东盛马庄5变,东盛张八屯地变压器【纯农排变】,郭屯05变压器,郭屯02变压器,838充电站变压器,东盛马庄变压器,东盛张八屯南变压器,东盛城南供电所变压器,东盛温屯北变压器,郭屯01变压器,东盛温屯北公变,石家庄2#公变变压器,郭屯04变压器,东盛马庄3变,东盛张八屯变压器,温屯北变压器新架,东盛马庄2变,郭屯03变压器,东盛阎王庄南变压器,八方达客运有限公司天桥分公司变压器,石家庄14号变压器,东盛马庄1变,东盛马庄4变,永安印铁变压器3,高碑店市路灯管理办公室变压器,永安印铁变压器2,河北鹏达房地产开发有限公司01,河北鹏达房地产开发有限公司变压器,高碑店市电业局变压器,高碑店市城市管理综合执法局112国道2号,河北鹏达房地产开发有限公司03,中国石化销售有限公司河北保定高碑店石油分公司,保定隆和房地产开发有限公司,高碑店市永杰汽车销售公司,温屯窗纱厂,高碑店市欣知语服饰有限公司变压器,河北北方风机制造有限公司,万通加油站,高碑店市万通发展有限责任公司变压器,高碑店市自来水公司变压器,交通局,变压器-020,河北旭坤房地产开发有限公司,河北旭坤房地产开发有限公司2#变压器,变压器-019,河北鹏达房地产开发有限公司02,高碑店市凯龙房地产开发有限公司8#变压器,0585511104-高碑店市路灯管理办公室-专变-125093165-高碑店市路灯管理办公室变压器,杨宝坤,高碑店市凯龙房地产开发有限公司3#变压器,高碑店市平生环保设备制造有限公司,河北旭坤房地产开发有限公司3#变压器,王克录,永安印铁,河北隆泰物业变压器,冀东商业公司,高碑店白象食品有限公司变压器,河北旭坤房地产开发有限公司4#变压器,河北京石高速公路开发有限公司,碑店市凯龙房地产开发有限公司变压器02,河北隆泰物业服务有限责任公司高碑店分公司1#变压器,中国石油保定第105站,高碑店市建筑集团公司变压器,高碑店市天天一泉水厂2,高碑店市康美舒空气净化设备科技有限公司,保定中油石油销售有限公司第二加油站,0609130229-河北高碑店市豆豆食品(集团)有限公司-专变-127561667-河北高碑店市豆豆食品（集团）有限公司变压器,碑店市凯龙房地产开发有限公司变压器01,高碑店市凯龙房地产开发有限公司7#变压器,高碑店市凯龙房地产开发有限公司6#变压器,温屯公变,高碑店市凯龙房地产开发有限公司5#变压器,高碑店市凯龙房地产开发有限公司4#变压器","powerOffReason":"【停电原因】由于阑珊花语院内电缆烧毁导致１１０ＫＶ马庄变电站１０ＫＶ李家营５２４线路全线停电 【变更送电】因工作量大原因，送电时间由１２：００变更为１６：００ 【发布渠道】通过９５５９８发布","powerOffId":"2020042513000012"},{"poweroffId":2020042513000009,"sgpoweroffId":null,"subsName":"","lineName":"东马营512","pubTranName":"胡街浇地1变压器【纯农排变】,","scope":"【影响街道/乡镇】东马营镇 【高危重要客户】无 【影响客户】胡街村","startTime":"2020-04-25 05:19:05","stopDate":"2020-04-25 07:00:00","orgNo":"1340612","typeCode":"电网故障停限电","poweroffArea":"【单台区停电】停胡街浇地1变压器【纯农排变】","poweroffReason":"【停电原因】由于京雄高速施工致使胡街浇地分支００－０１号杆碰线导致１１０ＫＶ白沟变电站１０ＫＶ东马营５１２线路胡街地１号公变台区停电 【变更送电】因抢修进度加快原因，送电时间由１２：００变更为７：００ 【发布渠道】通过９５５９８发布","powerTime":"2020-04-25 06:27:42","powerComm":"已送电","subsNo":"","lineNo":"","tgNo":"","tgName":null,"infoStatus":"1","orgName":"国网高碑店市供电公司","typeName":null,"infoStatusName":null,"dateDay":null,"orgNos":null,"nowTime":null,"countyName":null,"streetName":null,"villageName":null,"roadName":null,"communityName":null,"tranName":null,"sdLineName":null,"cityCode":"1340612","cityName":"国网高碑店市供电公司","provinceCode":null,"stopTime":"2020-04-25 07:00:00","powerType":"全部","powerOffArea":"【单台区停电】停胡街浇地1变压器【纯农排变】","powerOffReason":"【停电原因】由于京雄高速施工致使胡街浇地分支００－０１号杆碰线导致１１０ＫＶ白沟变电站１０ＫＶ东马营５１２线路胡街地１号公变台区停电 【变更送电】因抢修进度加快原因，送电时间由１２：００变更为７：００ 【发布渠道】通过９５５９８发布","powerOffId":"2020042513000009"},{"poweroffId":2020042413000513,"sgpoweroffId":null,"subsName":"","lineName":"10kV崔庄554线","pubTranName":"大韩村西2变压器,大韩村西变压器,大韩村北变压器,大韩村南变压器,","scope":"【影响街道/乡镇】辛立庄镇 【高危重要客户】无 【影响客户】大韩村","startTime":"2020-04-26 07:00:00","stopDate":"2020-04-26 12:00:00","orgNo":"1340612","typeCode":"临时停电","poweroffArea":"【分支停电】停大韩村西2变压器,大韩村西变压器,大韩村北变压器,大韩村南变压器","poweroffReason":"【停电原因】由于变压器增容导致１１０ＫＶ陈八庄变电站１０ＫＶ崔庄５５４线路０５号断路器以下停电 【变更送电】无 【发布渠道】通过９５５９８发布","powerTime":"2020-04-26 11:27:23","powerComm":"已送电","subsNo":"","lineNo":"","tgNo":"","tgName":null,"infoStatus":"1","orgName":"国网高碑店市供电公司","typeName":null,"infoStatusName":null,"dateDay":null,"orgNos":null,"nowTime":null,"countyName":null,"streetName":null,"villageName":null,"roadName":null,"communityName":null,"tranName":null,"sdLineName":null,"cityCode":"1340612","cityName":"国网高碑店市供电公司","provinceCode":null,"stopTime":"2020-04-26 12:00:00","powerType":"全部","powerOffArea":"【分支停电】停大韩村西2变压器,大韩村西变压器,大韩村北变压器,大韩村南变压器","powerOffReason":"【停电原因】由于变压器增容导致１１０ＫＶ陈八庄变电站１０ＫＶ崔庄５５４线路０５号断路器以下停电 【变更送电】无 【发布渠道】通过９５５９８发布","powerOffId":"2020042413000513"},{"poweroffId":2020042413000454,"sgpoweroffId":null,"subsName":"","lineName":"10kV574大因线","pubTranName":"龙华34号,龙华32号,大千秋16号,大千秋3号【纯农排变】,小千秋3号,龙华33号,","scope":"【影响街道/乡镇】大因镇 【高危重要客户】无 【影响客户】大千秋、大因、汉阳、龙华、南白塔、小千秋","startTime":"2020-05-10 05:00:00","stopDate":"2020-05-10 19:00:00","orgNo":"1340605","typeCode":"计划停电","poweroffArea":"【全线路停电】停大千秋10号【纯农排变】,大千秋12号,大千秋15号,大千秋16号,大千秋3号,大千秋3号【纯农排变】,大千秋4号,大千秋6号【纯农排变】,大千秋8号,大因20号【纯农排变】,大因供电所5号,汉阳1号【纯农排变】,汉阳3号,汉阳4号,客户投资_大千秋8号,龙华17号【纯农排变】,龙华21号【纯农排变】,龙华22号【纯农排变】,龙华29号,龙华2号,龙华32号,龙华33号,龙华34号,龙华4号,龙华8号,南白塔17号【纯农排变】,南白塔29号【纯农排变】,南白塔6号【纯农排变】,南白塔9号,小千秋10号,小千秋11号,小千秋12号【纯农排变】,小千秋1号【纯农排变】,小千秋2号【纯农排变】,小千秋3号,小千秋5号,小千秋6号,小千秋7号,小千秋8号,小千秋9号【纯农排变】","poweroffReason":"【停电原因】由于计划检修导致１１０ＫＶ沙口变电站１０ＫＶ大因５７４线路全线停电 【变更送电】因工作未完成原因，送电时间由１８:００变更为１９:００ 【发布渠道】通过徐水电视台游走滚动字幕播放（２０２０年０５月０３日０８:００至０５月０９日２０:００）","powerTime":"2020-05-10 18:02:26","powerComm":"已送电","subsNo":"","lineNo":"","tgNo":"","tgName":null,"infoStatus":"1","orgName":"国网徐水县供电公司","typeName":null,"infoStatusName":null,"dateDay":null,"orgNos":null,"nowTime":null,"countyName":null,"streetName":null,"villageName":null,"roadName":null,"communityName":null,"tranName":null,"sdLineName":null,"cityCode":"1340605","cityName":"国网徐水县供电公司","provinceCode":null,"stopTime":"2020-05-10 19:00:00","powerType":"全部","powerOffArea":"【全线路停电】停大千秋10号【纯农排变】,大千秋12号,大千秋15号,大千秋16号,大千秋3号,大千秋3号【纯农排变】,大千秋4号,大千秋6号【纯农排变】,大千秋8号,大因20号【纯农排变】,大因供电所5号,汉阳1号【纯农排变】,汉阳3号,汉阳4号,客户投资_大千秋8号,龙华17号【纯农排变】,龙华21号【纯农排变】,龙华22号【纯农排变】,龙华29号,龙华2号,龙华32号,龙华33号,龙华34号,龙华4号,龙华8号,南白塔17号【纯农排变】,南白塔29号【纯农排变】,南白塔6号【纯农排变】,南白塔9号,小千秋10号,小千秋11号,小千秋12号【纯农排变】,小千秋1号【纯农排变】,小千秋2号【纯农排变】,小千秋3号,小千秋5号,小千秋6号,小千秋7号,小千秋8号,小千秋9号【纯农排变】","powerOffReason":"【停电原因】由于计划检修导致１１０ＫＶ沙口变电站１０ＫＶ大因５７４线路全线停电 【变更送电】因工作未完成原因，送电时间由１８:００变更为１９:００ 【发布渠道】通过徐水电视台游走滚动字幕播放（２０２０年０５月０３日０８:００至０５月０９日２０:００）","powerOffId":"2020042413000454"},{"poweroffId":2020042413000445,"sgpoweroffId":null,"subsName":"","lineName":"10kV512后营线","pubTranName":"前营公用农业12台区【纯农排变】,前营公用农业24台区【纯农排变】,五女集东南,后营公用农业3台区【纯农排变】,后营公用照明4台区,后营公用农业5台区,前营公用农业7台区【纯农排变】,后营公用照明5台区,小五女公用照明2台区,东旺镇政府（新民居）,定州市保欣挂面厂,定州市东旺镇后营村村民委员会（后营村西)变压器,前营公用农业11台区【纯农排变】,后营公用照明2台区,后营公用农业13台区【纯农排变】,客户投资_前营公用照明2台区,前营公用农业16台区,前营公用照明8台区,定州市标牌厂,五女集公用农业4台区【纯农排变】,前营公用农业2台区【纯农排变】,前营双福面粉厂,客户投资_前营公用照明6台区,前营公用照明11台区,定州前营志诚面粉厂,后营老北头,前营公用照明9台区,前营公用农业1台区【纯农排变】,前营公用农业22台区【纯农排变】,后营大井东,变压器,后营公用农业7台区【纯农排变】,后营公用农业12台区【纯农排变】,定州市东旺镇东旺村村民委员会（田园公司村用）变压器,前营公用照明5台区,五女集公用农业3台区【纯农排变】,后营村南,前营公用照明4台区,定州市志成面业有限公司变压器2,前营公用照明10台区,前营公用农业25台区【纯农排变】,小五女公用照明1台区,前营公用农业8台区【纯农排变】,五女集公用照明4台区,定州市东旺镇五女集村村委会（五女集东北)变压器,五女集公用照明5台区,定州市东旺镇东旺村村民委员会（东旺村东）变压器,前营公用农业23台区【纯农排变】,小五女面粉厂,五女集公用照明1台区,前营公用农业3台区【纯农排变】,小五女公用照明4台区1台区,五女集公用照明6台区,东旺南口,后营公用照明8台区,后营公用农业8台区【纯农排变】,后营公用农业9台区,前营公用农业4台区【纯农排变】,五女集村公用农业1台区【纯农排变】,后营公用照明7台区,后营河沟东,前营公用农业10台区【纯农排变】,后营公用照明3台区,后营大井西,后营公用农业6台区【纯农排变】,前营公用农业20台区,后营公用农业11台区【纯农排变】,后营公用农业10台区【纯农排变】,后营公用农业2台区【纯农排变】,五女集公用农业2台区【纯农排变】,前营公用农业21台区【纯农排变】,前营公用照明12台区,后营公用照明1台区,定州市永顺养殖有限公司变压器,前营公用农业19台区【纯农排变】,李村店公用照明8台区,前营公用农业26台区,后营公用照明6台区,前营公用照明7台区,五女集公用照明3台区,后营河沟西,前营公用农业18台区,东旺南头,客户投资_前营公用照明3台区,东旺村南,五女集公用照明2台区,前营公用农业6台区【纯农排变】,前营公用农业5台区【纯农排变】,前营公用农业17台区,后营村公用农业1台区【纯农排变】,前营公用照明1台区,前营公用农业9台区【纯农排变】,五女集公用农业7台区【纯农排变】,小五女公用照明3台区1,后营公用农业4台区【纯农排变】,东旺东北,","scope":"【影响街道/乡镇】东旺镇【高危重要客户】无【影响客户】后营、前营、五女集、小五女、东旺村南、东旺村东、东旺田园公司","startTime":"2020-04-24 18:00:00","stopDate":"2020-04-24 21:00:00","orgNo":"1340610","typeCode":"其他临时停电","poweroffArea":"【全线路停电】停前营公用农业12台区【纯农排变】,前营公用农业24台区【纯农排变】,五女集东南,后营公用照明4台区,后营公用农业5台区,前营公用农业7台区【纯农排变】,东旺镇政府（新民居）,后营公用农业3台区【纯农排变】,后营公用照明5台区,小五女公用照明2台区,定州市保欣挂面厂,定州市东旺镇后营村村民委员会（后营村西)变压器,前营公用农业11台区【纯农排变】,后营公用农业13台区【纯农排变】,前营公用农业16台区,前营公用照明8台区,定州市标牌厂,前营公用农业2台区【纯农排变】,定州前营志诚面粉厂,前营公用农业1台区【纯农排变】,前营公用农业22台区【纯农排变】,变压器,后营公用农业7台区【纯农排变】,定州市东旺镇东旺村村民委员会（田园公司村用）变压器,前营公用照明5台区,五女集公用农业3台区【纯农排变】,定州市志成面业有限公司变压器2,前营公用照明10台区,前营公用农业25台区【纯农排变】,小五女公用照明1台区,前营公用农业8台区【纯农排变】,五女集公用照明5台区,定州市东旺镇东旺村村民委员会（东旺村东）变压器,前营公用农业23台区【纯农排变】,小五女面粉厂,五女集公用照明1台区,前营公用农业3台区【纯农排变】,小五女公用照明4台区1台区,五女集公用照明6台区,后营公用照明8台区,后营公用农业8台区【纯农排变】,后营公用照明2台区,客户投资_前营公用照明2台区,五女集公用农业4台区【纯农排变】,前营双福面粉厂,客户投资_前营公用照明6台区,前营公用照明11台区,后营老北头,前营公用照明9台区,后营大井东,后营公用农业12台区【纯农排变】,后营村南,前营公用照明4台区,五女集公用照明4台区,定州市东旺镇五女集村村委会（五女集东北)变压器,东旺南口,后营公用农业9台区,前营公用农业4台区【纯农排变】,后营公用照明7台区,后营河沟东,前营公用农业10台区【纯农排变】,后营大井西,后营公用农业6台区【纯农排变】,前营公用农业20台区,后营公用农业11台区【纯农排变】,后营公用农业10台区【纯农排变】,后营公用农业2台区【纯农排变】,五女集公用农业2台区【纯农排变】,前营公用农业21台区【纯农排变】,前营公用照明12台区,后营公用照明1台区,定州市永顺养殖有限公司变压器,前营公用农业19台区【纯农排变】,李村店公用照明8台区,前营公用农业26台区,后营公用照明6台区,前营公用照明7台区,五女集公用照明3台区,前营公用农业18台区,客户投资_前营公用照明3台区,东旺村南,五女集公用照明2台区,后营村公用农业1台区【纯农排变】,前营公用照明1台区,前营公用农业9台区【纯农排变】,五女集公用农业7台区【纯农排变】,后营公用农业4台区【纯农排变】,东旺东北,五女集村公用农业1台区【纯农排变】,后营公用照明3台区,后营河沟西,东旺南头,前营公用农业6台区【纯农排变】,前营公用农业5台区【纯农排变】,前营公用农业17台区,小五女公用照明3台区1","poweroffReason":"【停电原因】由于电杆倾斜需停电进行紧急检修导致３５ＫＶ东旺变电站１０ＫＶ５１２后营线路全线停电 【变更送电】无 【发布渠道】９５５９８","powerTime":"2020-04-24 20:22:08","powerComm":"已送电","subsNo":"","lineNo":"","tgNo":"","tgName":null,"infoStatus":"1","orgName":"国网定州市供电公司","typeName":null,"infoStatusName":null,"dateDay":null,"orgNos":null,"nowTime":null,"countyName":null,"streetName":null,"villageName":null,"roadName":null,"communityName":null,"tranName":null,"sdLineName":null,"cityCode":"1340610","cityName":"国网定州市供电公司","provinceCode":null,"stopTime":"2020-04-24 21:00:00","powerType":"全部","powerOffArea":"【全线路停电】停前营公用农业12台区【纯农排变】,前营公用农业24台区【纯农排变】,五女集东南,后营公用照明4台区,后营公用农业5台区,前营公用农业7台区【纯农排变】,东旺镇政府（新民居）,后营公用农业3台区【纯农排变】,后营公用照明5台区,小五女公用照明2台区,定州市保欣挂面厂,定州市东旺镇后营村村民委员会（后营村西)变压器,前营公用农业11台区【纯农排变】,后营公用农业13台区【纯农排变】,前营公用农业16台区,前营公用照明8台区,定州市标牌厂,前营公用农业2台区【纯农排变】,定州前营志诚面粉厂,前营公用农业1台区【纯农排变】,前营公用农业22台区【纯农排变】,变压器,后营公用农业7台区【纯农排变】,定州市东旺镇东旺村村民委员会（田园公司村用）变压器,前营公用照明5台区,五女集公用农业3台区【纯农排变】,定州市志成面业有限公司变压器2,前营公用照明10台区,前营公用农业25台区【纯农排变】,小五女公用照明1台区,前营公用农业8台区【纯农排变】,五女集公用照明5台区,定州市东旺镇东旺村村民委员会（东旺村东）变压器,前营公用农业23台区【纯农排变】,小五女面粉厂,五女集公用照明1台区,前营公用农业3台区【纯农排变】,小五女公用照明4台区1台区,五女集公用照明6台区,后营公用照明8台区,后营公用农业8台区【纯农排变】,后营公用照明2台区,客户投资_前营公用照明2台区,五女集公用农业4台区【纯农排变】,前营双福面粉厂,客户投资_前营公用照明6台区,前营公用照明11台区,后营老北头,前营公用照明9台区,后营大井东,后营公用农业12台区【纯农排变】,后营村南,前营公用照明4台区,五女集公用照明4台区,定州市东旺镇五女集村村委会（五女集东北)变压器,东旺南口,后营公用农业9台区,前营公用农业4台区【纯农排变】,后营公用照明7台区,后营河沟东,前营公用农业10台区【纯农排变】,后营大井西,后营公用农业6台区【纯农排变】,前营公用农业20台区,后营公用农业11台区【纯农排变】,后营公用农业10台区【纯农排变】,后营公用农业2台区【纯农排变】,五女集公用农业2台区【纯农排变】,前营公用农业21台区【纯农排变】,前营公用照明12台区,后营公用照明1台区,定州市永顺养殖有限公司变压器,前营公用农业19台区【纯农排变】,李村店公用照明8台区,前营公用农业26台区,后营公用照明6台区,前营公用照明7台区,五女集公用照明3台区,前营公用农业18台区,客户投资_前营公用照明3台区,东旺村南,五女集公用照明2台区,后营村公用农业1台区【纯农排变】,前营公用照明1台区,前营公用农业9台区【纯农排变】,五女集公用农业7台区【纯农排变】,后营公用农业4台区【纯农排变】,东旺东北,五女集村公用农业1台区【纯农排变】,后营公用照明3台区,后营河沟西,东旺南头,前营公用农业6台区【纯农排变】,前营公用农业5台区【纯农排变】,前营公用农业17台区,小五女公用照明3台区1","powerOffReason":"【停电原因】由于电杆倾斜需停电进行紧急检修导致３５ＫＶ东旺变电站１０ＫＶ５１２后营线路全线停电 【变更送电】无 【发布渠道】９５５９８","powerOffId":"2020042413000445"},{"poweroffId":2020042413000435,"sgpoweroffId":null,"subsName":"","lineName":"迪城线577","pubTranName":"于迪城20号,崔迪城12号【纯农排变】,大因供电所4号,崔迪城8号【纯农排变】,小因20号,崔迪城5号,大因31号,崔迪城11号【纯农排变】,李迪城20号,于迪城19号,于迪城13号【纯农排变】,李迪城19号,崔迪城13号【纯农排变】,崔迪城7号【纯农排变】,任庄19号,于迪城17号,李迪城13号,肖迪城8号,于迪城5号【纯农排变】,崔迪城18号,任庄18号,","scope":"【影响街道/乡镇】大因镇 【高危重要客户】无 【影响客户】任庄、于迪城、崔迪城、李迪城、肖迪城、大千秋、大因、汉阳、小千秋","startTime":"2020-05-10 05:00:00","stopDate":"2020-05-10 19:00:00","orgNo":"1340605","typeCode":"计划停电","poweroffArea":"【全线路停电】停任庄16号【纯农排变】,于迪城9号【纯农排变】,崔迪城9号【纯农排变】,李迪城15号【纯农排变】,崔迪城14号【纯农排变】,崔迪城7号【纯农排变】,于迪城4号【纯农排变】,保定蒙域王子羊绒纺织有限公司,李迪城18号,崔迪城15号【纯农排变】,肖迪城3号【纯农排变】,李迪城（农开2）【纯农排变】,大千秋13号,李迪城8号【纯农排变】,崔迪城4号【纯农排变】,李迪城2号【纯农排变】,任庄19号,变压器,于迪城17号,大因28号【纯农排变】,于迪城7号【纯农排变】,李迪城（农开1）【纯农排变】,李迪城16号【纯农排变】,于迪城6号【纯农排变】,肖迪城8号,大千秋2号【纯农排变】,崔迪城10号【纯农排变】,于迪城10号【纯农排变】,李迪城11号【纯农排变】,任庄11号【纯农排变】,大因9号【纯农排变】,徐水县宝坤建筑材料销售有限公司,肖迪城5号李迪城分箱【纯农排变】,大因27号【纯农排变】,大因7号【纯农排变】,汉阳2号【纯农排变】,李迪城9号【纯农排变】,保定市徐水区大因镇李迪城小学,大千秋9号【纯农排变】,任庄18号,李迪城5号【纯农排变】,大因10号,李迪城13号,李迪城4号【纯农排变】,蒙域王子羊绒,任庄13号【纯农排变】,于迪城5号【纯农排变】,大因25号【纯农排变】,肖迪城6号【纯农排变】,李迪城12号【纯农排变】,汉阳5号,大因32号【纯农排变】,大因16号【纯农排变】,肖迪城4号【纯农排变】,保定市徐水区大因镇于迪城幼儿园,任庄4号,崔迪城3号【纯农排变】,崔迪城18号,于迪城8号【纯农排变】,肖迪城5号【纯农排变】,大因26号【纯农排变】,大因扬水机站2号,大因扬水机站1号,任庄1号【纯农排变】,于迪城16号【纯农排变】,迪城扬水机站1号,大因扬水机站3号,于迪城20号,迪城扬水机站2号,崔迪城12号【纯农排变】,大因供电所4号,肖迪城1号【纯农排变】,崔迪城8号【纯农排变】,大千秋1号,崔迪城1号【纯农排变】,李迪城1号【纯农排变】,大千秋11号【纯农排变】,于迪城3号【纯农排变】,小因20号,任庄8号【纯农排变】,崔迪城16号【纯农排变】,崔迪城5号,任庄17号,于迪城11号,崔迪城2号【纯农排变】,大因3号【纯农排变】,于迪城14号【纯农排变】,于迪城12号【纯农排变】,0654423789-蒙域王子羊绒纺织股份有限公司-专变-183723479-蒙域王子羊绒纺织有限公司变压器,任庄7号变压器【纯农排变】,李迪城10号【纯农排变】,大因31号,李迪城6号【纯农排变】,大千秋14号【纯农排变】,大因29号【纯农排变】,任庄5号【纯农排变】,大千秋5号,于迪城15号【纯农排变】,大因30号【纯农排变】,崔迪城17号【纯农排变】,李迪城7号【纯农排变】,肖迪城2号【纯农排变】,大因12号【纯农排变】,崔迪城11号【纯农排变】,于迪城18号【纯农排变】,小千秋4号,0654783494-蒙域王子羊绒纺织股份有限公司-专变-183741219-蒙域王子羊绒纺织股份有限公司,李迪城20号,任庄15号【纯农排变】,任庄12号【纯农排变】,保定市徐水区大因镇任庄小学,大因11号【纯农排变】,任庄3号【纯农排变】,李迪城17号【纯农排变】,于迪城19号,崔迪城6号【纯农排变】,于迪城2号【纯农排变】,于迪城13号【纯农排变】,肖迪城7号【纯农排变】,李迪城19号,李迪城3号【纯农排变】,李迪城14号,大因34号,任庄2号【纯农排变】,崔迪城13号【纯农排变】,于迪城1号【纯农排变】,大因18号","poweroffReason":"【停电原因】由于计划检修导致１１０ＫＶ沙口变电站迪城５７７线路全线停电 【变更送电】因工作未完成原因，送电时间由１８:００变更为１９:００ 【发布渠道】通过河北省保定市徐水电视台游走滚动字幕播放（２０２０年０５月０３日０８:００至０５月０９日２０:００）","powerTime":"2020-05-10 18:02:51","powerComm":"已送电","subsNo":"","lineNo":"","tgNo":"","tgName":null,"infoStatus":"1","orgName":"国网徐水县供电公司","typeName":null,"infoStatusName":null,"dateDay":null,"orgNos":null,"nowTime":null,"countyName":null,"streetName":null,"villageName":null,"roadName":null,"communityName":null,"tranName":null,"sdLineName":null,"cityCode":"1340605","cityName":"国网徐水县供电公司","provinceCode":null,"stopTime":"2020-05-10 19:00:00","powerType":"全部","powerOffArea":"【全线路停电】停任庄16号【纯农排变】,于迪城9号【纯农排变】,崔迪城9号【纯农排变】,李迪城15号【纯农排变】,崔迪城14号【纯农排变】,崔迪城7号【纯农排变】,于迪城4号【纯农排变】,保定蒙域王子羊绒纺织有限公司,李迪城18号,崔迪城15号【纯农排变】,肖迪城3号【纯农排变】,李迪城（农开2）【纯农排变】,大千秋13号,李迪城8号【纯农排变】,崔迪城4号【纯农排变】,李迪城2号【纯农排变】,任庄19号,变压器,于迪城17号,大因28号【纯农排变】,于迪城7号【纯农排变】,李迪城（农开1）【纯农排变】,李迪城16号【纯农排变】,于迪城6号【纯农排变】,肖迪城8号,大千秋2号【纯农排变】,崔迪城10号【纯农排变】,于迪城10号【纯农排变】,李迪城11号【纯农排变】,任庄11号【纯农排变】,大因9号【纯农排变】,徐水县宝坤建筑材料销售有限公司,肖迪城5号李迪城分箱【纯农排变】,大因27号【纯农排变】,大因7号【纯农排变】,汉阳2号【纯农排变】,李迪城9号【纯农排变】,保定市徐水区大因镇李迪城小学,大千秋9号【纯农排变】,任庄18号,李迪城5号【纯农排变】,大因10号,李迪城13号,李迪城4号【纯农排变】,蒙域王子羊绒,任庄13号【纯农排变】,于迪城5号【纯农排变】,大因25号【纯农排变】,肖迪城6号【纯农排变】,李迪城12号【纯农排变】,汉阳5号,大因32号【纯农排变】,大因16号【纯农排变】,肖迪城4号【纯农排变】,保定市徐水区大因镇于迪城幼儿园,任庄4号,崔迪城3号【纯农排变】,崔迪城18号,于迪城8号【纯农排变】,肖迪城5号【纯农排变】,大因26号【纯农排变】,大因扬水机站2号,大因扬水机站1号,任庄1号【纯农排变】,于迪城16号【纯农排变】,迪城扬水机站1号,大因扬水机站3号,于迪城20号,迪城扬水机站2号,崔迪城12号【纯农排变】,大因供电所4号,肖迪城1号【纯农排变】,崔迪城8号【纯农排变】,大千秋1号,崔迪城1号【纯农排变】,李迪城1号【纯农排变】,大千秋11号【纯农排变】,于迪城3号【纯农排变】,小因20号,任庄8号【纯农排变】,崔迪城16号【纯农排变】,崔迪城5号,任庄17号,于迪城11号,崔迪城2号【纯农排变】,大因3号【纯农排变】,于迪城14号【纯农排变】,于迪城12号【纯农排变】,0654423789-蒙域王子羊绒纺织股份有限公司-专变-183723479-蒙域王子羊绒纺织有限公司变压器,任庄7号变压器【纯农排变】,李迪城10号【纯农排变】,大因31号,李迪城6号【纯农排变】,大千秋14号【纯农排变】,大因29号【纯农排变】,任庄5号【纯农排变】,大千秋5号,于迪城15号【纯农排变】,大因30号【纯农排变】,崔迪城17号【纯农排变】,李迪城7号【纯农排变】,肖迪城2号【纯农排变】,大因12号【纯农排变】,崔迪城11号【纯农排变】,于迪城18号【纯农排变】,小千秋4号,0654783494-蒙域王子羊绒纺织股份有限公司-专变-183741219-蒙域王子羊绒纺织股份有限公司,李迪城20号,任庄15号【纯农排变】,任庄12号【纯农排变】,保定市徐水区大因镇任庄小学,大因11号【纯农排变】,任庄3号【纯农排变】,李迪城17号【纯农排变】,于迪城19号,崔迪城6号【纯农排变】,于迪城2号【纯农排变】,于迪城13号【纯农排变】,肖迪城7号【纯农排变】,李迪城19号,李迪城3号【纯农排变】,李迪城14号,大因34号,任庄2号【纯农排变】,崔迪城13号【纯农排变】,于迪城1号【纯农排变】,大因18号","powerOffReason":"【停电原因】由于计划检修导致１１０ＫＶ沙口变电站迪城５７７线路全线停电 【变更送电】因工作未完成原因，送电时间由１８:００变更为１９:００ 【发布渠道】通过河北省保定市徐水电视台游走滚动字幕播放（２０２０年０５月０３日０８:００至０５月０９日２０:００）","powerOffId":"2020042413000435"},{"poweroffId":2020042413000430,"sgpoweroffId":null,"subsName":"","lineName":"沙口线576","pubTranName":"水磨头12号,郝王庄3号,水磨头29号,郝王庄4号配变,水磨头2号配变【纯农排变】,南公村11号配变,水磨头8号配变【纯农排变】,水磨头27号,水磨头17号配变【纯农排变】,水磨头30号,小康庄1号配变,水磨头31号,郝王庄5号【纯农排变】,南公村15号,水磨头4号配变,郝王庄12号,大辛庄2号配变,水磨头28号,水磨头13号,郝王庄11号,","scope":"【影响街道/乡镇】崔庄镇 【高危重要客户】无 【影响客户】大千秋、大辛庄、南公村、水磨头、郝王庄、沙口、新立庄、小康庄","startTime":"2020-05-10 05:00:00","stopDate":"2020-05-10 19:00:00","orgNo":"1340605","typeCode":"计划停电","poweroffArea":"【全线路停电】停水磨头8号配变【纯农排变】,大辛庄22号配变,南公村13号配变,水磨头20号配变【纯农排变】,保定市徐水区田丰胜羽绒加工厂,客户投资_水磨头19号配变,大辛庄21号配变,保定市徐水区崔庄镇大辛庄幼儿园,水磨头12号,保定市徐水区龙洋羽绒加工厂,新立庄1号配变,水磨头23号,大辛庄10号配变,郝王庄3号,水磨头26号,变压器,小康庄6号,郝王庄9号,水磨头29号,崔庄镇大辛庄小学,郝王庄8号,保定市徐水区运志羽绒加工厂,小康庄2号配变【纯农排变】,水磨头22号配变,郝王庄4号配变,水磨头2号配变【纯农排变】,0745516907保定正一养殖有限公司900028433656,郝王庄10号,水磨头10号,大辛庄26号,水磨头7号配变【纯农排变】,大辛庄供电所14号【纯农排变】,徐水县安安生猪饲养有限公司,新立庄2号【纯农排变】,南公村14号配变,水磨头21号【纯农排变】,郝王庄2号【纯农排变】,南公村11号配变,保定市徐水区鑫祥羽绒厂,水磨头28号,小康庄5号,保定市顺通利达商贸有限公司,南公村2号配变,水磨头16号配变【纯农排变】,小康庄3号配变【纯农排变】,水磨头13号,郝王庄11号,水磨头15号,水磨头14号【纯农排变】,新生水泥构件厂,水磨头6号配变,大千秋7号【纯农排变】,郝王庄1号配变,小康庄7号,水磨头24号,水磨头18号配变,大辛庄供电所8号配变,水磨头9号配变,大辛庄35号配变,郝王庄6号【纯农排变】,大辛庄供电所15号,水磨头4号配变,郝王庄12号,客户投资_大辛庄29号配变,大辛庄2号配变,恒达羽绒加工厂,大辛庄31号配变【纯农排变】,曙东羽绒加工厂,富源羽绒加工厂,保定茂衡有色金属有限公司,大辛庄8号配变,南公村5号配变,南公村1号配变【纯农排变】,沙口11号【纯农排变】,沙口14号【纯农排变】,水磨头11号,东方羽毛加工厂2号,南公村12号配变,大辛庄供电所7号配变【纯农排变】,利明羽绒厂,艳辉羽绒厂,鑫祥羽绒加工厂,庆丰粉碎加工厂,鑫源羽绒厂,大辛庄33号配变,客户投资_水磨头1号配变,水磨头3号配变【纯农排变】,郝王庄7号配变【纯农排变】,大辛庄36号配变,南公村7号配变【纯农排变】,南公村3号配变,南公村10号配变,大辛庄3号配变,小康庄4号,客户投资_大辛庄25号配变,保定市徐水区昱通羽绒加工厂,水磨头25号,大辛庄20号【纯农排变】,水磨头5号【纯农排变】,徐水县立新养猪场,0469092455保定市徐水区郝磊羽绒加工厂900028879317,水磨头27号,水磨头17号配变【纯农排变】,水磨头30号,客户投资_大辛庄9号配变,大辛庄供电所6号【纯农排变】,小康庄1号配变,水磨头31号,郝王庄5号【纯农排变】,南公村15号","poweroffReason":"【停电原因】由于计划检修导致１１０ＫＶ沙口变电站沙口线５７６线路全线停电 【变更送电】因工作未完成原因，送电时间由１８:００变更为１９:００ 【发布渠道】通过河北省保定市徐水电视台游走滚动字幕播放（２０２０年０５月０３日０８:００至０５月０９日２０:００）","powerTime":"2020-05-10 18:03:12","powerComm":"已送电","subsNo":"","lineNo":"","tgNo":"","tgName":null,"infoStatus":"1","orgName":"国网徐水县供电公司","typeName":null,"infoStatusName":null,"dateDay":null,"orgNos":null,"nowTime":null,"countyName":null,"streetName":null,"villageName":null,"roadName":null,"communityName":null,"tranName":null,"sdLineName":null,"cityCode":"1340605","cityName":"国网徐水县供电公司","provinceCode":null,"stopTime":"2020-05-10 19:00:00","powerType":"全部","powerOffArea":"【全线路停电】停水磨头8号配变【纯农排变】,大辛庄22号配变,南公村13号配变,水磨头20号配变【纯农排变】,保定市徐水区田丰胜羽绒加工厂,客户投资_水磨头19号配变,大辛庄21号配变,保定市徐水区崔庄镇大辛庄幼儿园,水磨头12号,保定市徐水区龙洋羽绒加工厂,新立庄1号配变,水磨头23号,大辛庄10号配变,郝王庄3号,水磨头26号,变压器,小康庄6号,郝王庄9号,水磨头29号,崔庄镇大辛庄小学,郝王庄8号,保定市徐水区运志羽绒加工厂,小康庄2号配变【纯农排变】,水磨头22号配变,郝王庄4号配变,水磨头2号配变【纯农排变】,0745516907保定正一养殖有限公司900028433656,郝王庄10号,水磨头10号,大辛庄26号,水磨头7号配变【纯农排变】,大辛庄供电所14号【纯农排变】,徐水县安安生猪饲养有限公司,新立庄2号【纯农排变】,南公村14号配变,水磨头21号【纯农排变】,郝王庄2号【纯农排变】,南公村11号配变,保定市徐水区鑫祥羽绒厂,水磨头28号,小康庄5号,保定市顺通利达商贸有限公司,南公村2号配变,水磨头16号配变【纯农排变】,小康庄3号配变【纯农排变】,水磨头13号,郝王庄11号,水磨头15号,水磨头14号【纯农排变】,新生水泥构件厂,水磨头6号配变,大千秋7号【纯农排变】,郝王庄1号配变,小康庄7号,水磨头24号,水磨头18号配变,大辛庄供电所8号配变,水磨头9号配变,大辛庄35号配变,郝王庄6号【纯农排变】,大辛庄供电所15号,水磨头4号配变,郝王庄12号,客户投资_大辛庄29号配变,大辛庄2号配变,恒达羽绒加工厂,大辛庄31号配变【纯农排变】,曙东羽绒加工厂,富源羽绒加工厂,保定茂衡有色金属有限公司,大辛庄8号配变,南公村5号配变,南公村1号配变【纯农排变】,沙口11号【纯农排变】,沙口14号【纯农排变】,水磨头11号,东方羽毛加工厂2号,南公村12号配变,大辛庄供电所7号配变【纯农排变】,利明羽绒厂,艳辉羽绒厂,鑫祥羽绒加工厂,庆丰粉碎加工厂,鑫源羽绒厂,大辛庄33号配变,客户投资_水磨头1号配变,水磨头3号配变【纯农排变】,郝王庄7号配变【纯农排变】,大辛庄36号配变,南公村7号配变【纯农排变】,南公村3号配变,南公村10号配变,大辛庄3号配变,小康庄4号,客户投资_大辛庄25号配变,保定市徐水区昱通羽绒加工厂,水磨头25号,大辛庄20号【纯农排变】,水磨头5号【纯农排变】,徐水县立新养猪场,0469092455保定市徐水区郝磊羽绒加工厂900028879317,水磨头27号,水磨头17号配变【纯农排变】,水磨头30号,客户投资_大辛庄9号配变,大辛庄供电所6号【纯农排变】,小康庄1号配变,水磨头31号,郝王庄5号【纯农排变】,南公村15号","powerOffReason":"【停电原因】由于计划检修导致１１０ＫＶ沙口变电站沙口线５７６线路全线停电 【变更送电】因工作未完成原因，送电时间由１８:００变更为１９:００ 【发布渠道】通过河北省保定市徐水电视台游走滚动字幕播放（２０２０年０５月０３日０８:００至０５月０９日２０:００）","powerOffId":"2020042413000430"},{"poweroffId":2020042413000424,"sgpoweroffId":null,"subsName":"","lineName":"北公村线571","pubTranName":"京港澳高速徐水服务区汽车充电站东,南公村8号配变【纯农排变】,京港澳高速徐水服务区汽车充电站西,","scope":"【影响街道/乡镇】崔庄镇 【高危重要客户】无 【影响客户】南公村、北公村","startTime":"2020-05-10 05:00:00","stopDate":"2020-05-10 19:00:00","orgNo":"1340605","typeCode":"计划停电","poweroffArea":"【全线路停电】停北公村2号配变,客户投资_北公村3号,北公村4号配变,南公村4号配变【纯农排变】,北公村1号配变【纯农排变】,南公村6号配变【纯农排变】,京港澳高速徐水服务区汽车充电站东,南公村8号配变【纯农排变】,京港澳高速徐水服务区汽车充电站西,河北省高速公路京石改扩建筹建处变压器,河北省高速公路禄发实业总公司徐水服务区,南公村9号配变","poweroffReason":"【停电原因】由于线路检修导致１１０ＫＶ沙口变电站北公村５７１线路全线停电 【变更送电】因工作未完成原因，送电时间由１８:００变更为１９:００ 【发布渠道】通过河北省保定市徐水电视台游走滚动字幕播放（２０２０年０５月０３日０８:００至０５月０９日２０:００）","powerTime":"2020-05-10 18:03:28","powerComm":"已送电","subsNo":"","lineNo":"","tgNo":"","tgName":null,"infoStatus":"1","orgName":"国网徐水县供电公司","typeName":null,"infoStatusName":null,"dateDay":null,"orgNos":null,"nowTime":null,"countyName":null,"streetName":null,"villageName":null,"roadName":null,"communityName":null,"tranName":null,"sdLineName":null,"cityCode":"1340605","cityName":"国网徐水县供电公司","provinceCode":null,"stopTime":"2020-05-10 19:00:00","powerType":"全部","powerOffArea":"【全线路停电】停北公村2号配变,客户投资_北公村3号,北公村4号配变,南公村4号配变【纯农排变】,北公村1号配变【纯农排变】,南公村6号配变【纯农排变】,京港澳高速徐水服务区汽车充电站东,南公村8号配变【纯农排变】,京港澳高速徐水服务区汽车充电站西,河北省高速公路京石改扩建筹建处变压器,河北省高速公路禄发实业总公司徐水服务区,南公村9号配变","powerOffReason":"【停电原因】由于线路检修导致１１０ＫＶ沙口变电站北公村５７１线路全线停电 【变更送电】因工作未完成原因，送电时间由１８:００变更为１９:００ 【发布渠道】通过河北省保定市徐水电视台游走滚动字幕播放（２０２０年０５月０３日０８:００至０５月０９日２０:００）","powerOffId":"2020042413000424"},{"poweroffId":2020042413000422,"sgpoweroffId":null,"subsName":"","lineName":"大次良线511","pubTranName":"大次良16号,大次良23号,","scope":"【影响街道/乡镇】遂城镇 【高危重要客户】无 【影响客户】大次良","startTime":"2020-05-09 07:00:00","stopDate":"2020-05-09 18:00:00","orgNo":"1340605","typeCode":"计划停电","poweroffArea":"【分支停电】停大次良16号,大次良23号","poweroffReason":"【停电原因】由于线路检修导致３５ＫＶ广门变电站大次良５１１线路１６号杆分段开关以下线路停电 【变更送电】无 【发布渠道】通过河北省保定市徐水电视台游走滚动字幕播放（２０２０年０５月０２日０８:００至０５月０８日２０:００）","powerTime":"2020-05-09 17:50:17","powerComm":"已送电","subsNo":"","lineNo":"","tgNo":"","tgName":null,"infoStatus":"1","orgName":"国网徐水县供电公司","typeName":null,"infoStatusName":null,"dateDay":null,"orgNos":null,"nowTime":null,"countyName":null,"streetName":null,"villageName":null,"roadName":null,"communityName":null,"tranName":null,"sdLineName":null,"cityCode":"1340605","cityName":"国网徐水县供电公司","provinceCode":null,"stopTime":"2020-05-09 18:00:00","powerType":"全部","powerOffArea":"【分支停电】停大次良16号,大次良23号","powerOffReason":"【停电原因】由于线路检修导致３５ＫＶ广门变电站大次良５１１线路１６号杆分段开关以下线路停电 【变更送电】无 【发布渠道】通过河北省保定市徐水电视台游走滚动字幕播放（２０２０年０５月０２日０８:００至０５月０８日２０:００）","powerOffId":"2020042413000422"}],"pageModel":{"pageNow":142,"totalCount":10973,"totalPage":1098,"tableRows":0,"pageCount":10,"beginCount":1410},"isExperi":"1"}