{"message":"","today":"2020-06-15","seleList":[{"poweroffId":2020042413000414,"sgpoweroffId":null,"subsName":"","lineName":"正村线525","pubTranName":"王辛庄3号【纯农排变】,","scope":"【影响街道/乡镇】正村乡 【高危重要客户】无 【影响客户】王辛庄村","startTime":"2020-05-04 07:00:00","stopDate":"2020-05-04 09:30:00","orgNo":"1340605","typeCode":"计划停电","poweroffArea":"【分支停电】停王辛庄10号【纯农排变】,王辛庄11号【纯农排变】,王辛庄12号【纯农排变】,王辛庄14号,王辛庄1号,王辛庄2号,王辛庄3号【纯农排变】,王辛庄6号【纯农排变】,王辛庄8号【纯农排变】,王辛庄9号【纯农排变】","poweroffReason":"【停电原因】由于线路检修导致１１０ＫＶ遂城变电站正村线５２５线路王辛庄２１号杆分段开关以下线路停电 【变更送电】因抢修进度加快原因，送电时间由１８:００变更为０９:３０ 【发布渠道】通过电视台滚动字幕播放（０４月２７日０８:００至０５月０３日２０:００）","powerTime":"2020-05-04 08:50:31","powerComm":"已送电","subsNo":"","lineNo":"","tgNo":"","tgName":null,"infoStatus":"1","orgName":"国网徐水县供电公司","typeName":null,"infoStatusName":null,"dateDay":null,"orgNos":null,"nowTime":null,"countyName":null,"streetName":null,"villageName":null,"roadName":null,"communityName":null,"tranName":null,"sdLineName":null,"cityCode":"1340605","cityName":"国网徐水县供电公司","provinceCode":null,"stopTime":"2020-05-04 09:30:00","powerType":"全部","powerOffArea":"【分支停电】停王辛庄10号【纯农排变】,王辛庄11号【纯农排变】,王辛庄12号【纯农排变】,王辛庄14号,王辛庄1号,王辛庄2号,王辛庄3号【纯农排变】,王辛庄6号【纯农排变】,王辛庄8号【纯农排变】,王辛庄9号【纯农排变】","powerOffReason":"【停电原因】由于线路检修导致１１０ＫＶ遂城变电站正村线５２５线路王辛庄２１号杆分段开关以下线路停电 【变更送电】因抢修进度加快原因，送电时间由１８:００变更为０９:３０ 【发布渠道】通过电视台滚动字幕播放（０４月２７日０８:００至０５月０３日２０:００）","powerOffId":"2020042413000414"},{"poweroffId":2020042413000403,"sgpoweroffId":null,"subsName":"","lineName":"曲水线518","pubTranName":"北孙各庄11号,曲水2号,南孙各庄7号【纯农排变】,河北建设集团股份有限公司,北孙各庄6号,北孙各庄14号,北孙各庄16号,佃头14号,北孙各庄3号,佃头2号,盘山渠1号,南孙各庄1号,曲水1号【纯农排变】,北孙各庄1号,北孙各庄17号,三盛热收缩膜有限公司,佃头1号,南孙各庄8号【纯农排变】,北孙各庄13号,保定振通市政路桥有限公司2号,保定振通市政路桥有限公司1号,佃头7号【纯农排变】,大王店东街 2号,佃头6号,北孙各庄4号【纯农排变】,保定树圣工艺品制造有限责任公司,东黑山14号【纯农排变】,北孙各庄8号,南孙各庄5号【纯农排变】,南孙各庄16号,佃头4号,北孙各庄18号,南孙各庄11号,北孙各庄9号,保定市徐水区大王店镇佃头小学,南孙各庄10号,南孙各庄2号【纯农排变】,曲水7号,南孙各庄18号,南孙各庄13号,佃头8号【纯农排变】,曲水4号【纯农排变】,佃头9号,南孙各庄4号【纯农排变】,曲水8号,东黑山6号【纯农排变】,北孙各庄2号【纯农排变】,佃头13号,北孙各庄5号,南孙各庄12号,东黑山8号,佃头5号,曲水6号,北孙各庄10号【纯农排变】,0747048235河北建设集团股份有限公司900028776331,曲水 5号,南孙各庄14号,南孙各庄6号,北孙各庄7号,佃头11号【纯农排变】,佃头10号【纯农排变】,南孙各庄15号,佃头12号,东黑山3号,南孙各庄3号,曲水3号,大王店东街4号【纯农排变】,北孙各庄15号,南孙各庄17号,南孙各庄9号,佃头3号【纯农排变】,变压器,北孙各庄幼儿园,","scope":"【影响街道/乡镇】大王店镇 【高危重要客户】无 【影响客户】北孙各庄、曲水、南孙各庄、佃头、盘山渠、大王店东街村、东黑山村","startTime":"2020-05-09 06:00:00","stopDate":"2020-05-09 18:00:00","orgNo":"1340605","typeCode":"计划停电","poweroffArea":"【全线路停电】停北孙各庄11号,曲水2号,南孙各庄7号【纯农排变】,河北建设集团股份有限公司,北孙各庄6号,北孙各庄14号,北孙各庄16号,佃头14号,北孙各庄3号,佃头2号,盘山渠1号,南孙各庄1号,曲水1号【纯农排变】,北孙各庄1号,北孙各庄17号,三盛热收缩膜有限公司,佃头1号,南孙各庄8号【纯农排变】,北孙各庄13号,保定振通市政路桥有限公司2号,保定振通市政路桥有限公司1号,佃头7号【纯农排变】,大王店东街 2号,南孙各庄11号,佃头6号,北孙各庄4号【纯农排变】,保定树圣工艺品制造有限责任公司,东黑山14号【纯农排变】,北孙各庄8号,南孙各庄5号【纯农排变】,南孙各庄16号,佃头4号,北孙各庄18号,南孙各庄2号【纯农排变】,曲水7号,南孙各庄18号,南孙各庄13号,佃头8号【纯农排变】,曲水4号【纯农排变】,佃头9号,南孙各庄4号【纯农排变】,曲水8号,东黑山6号【纯农排变】,北孙各庄2号【纯农排变】,北孙各庄9号,保定市徐水区大王店镇佃头小学,南孙各庄10号,佃头13号,南孙各庄9号,北孙各庄5号,南孙各庄12号,东黑山8号,佃头5号,曲水6号,北孙各庄10号【纯农排变】,0747048235河北建设集团股份有限公司900028776331,曲水 5号,南孙各庄14号,南孙各庄6号,北孙各庄7号,佃头11号【纯农排变】,佃头10号【纯农排变】,南孙各庄15号,佃头12号,东黑山3号,南孙各庄3号,曲水3号,大王店东街4号【纯农排变】,北孙各庄15号,南孙各庄17号,佃头3号【纯农排变】,变压器,北孙各庄幼儿园","poweroffReason":"【停电原因】由于线路检修导致３５ＫＶ黑山变电站曲水５１８线路全线停电 【变更送电】无 【发布渠道】通过河北省保定市徐水电视台游走滚动字幕播放（２０２０年０５月０２日０８:００至０５月０８日２０:００）","powerTime":"2020-05-09 17:51:11","powerComm":"已送电","subsNo":"","lineNo":"","tgNo":"","tgName":null,"infoStatus":"1","orgName":"国网徐水县供电公司","typeName":null,"infoStatusName":null,"dateDay":null,"orgNos":null,"nowTime":null,"countyName":null,"streetName":null,"villageName":null,"roadName":null,"communityName":null,"tranName":null,"sdLineName":null,"cityCode":"1340605","cityName":"国网徐水县供电公司","provinceCode":null,"stopTime":"2020-05-09 18:00:00","powerType":"全部","powerOffArea":"【全线路停电】停北孙各庄11号,曲水2号,南孙各庄7号【纯农排变】,河北建设集团股份有限公司,北孙各庄6号,北孙各庄14号,北孙各庄16号,佃头14号,北孙各庄3号,佃头2号,盘山渠1号,南孙各庄1号,曲水1号【纯农排变】,北孙各庄1号,北孙各庄17号,三盛热收缩膜有限公司,佃头1号,南孙各庄8号【纯农排变】,北孙各庄13号,保定振通市政路桥有限公司2号,保定振通市政路桥有限公司1号,佃头7号【纯农排变】,大王店东街 2号,南孙各庄11号,佃头6号,北孙各庄4号【纯农排变】,保定树圣工艺品制造有限责任公司,东黑山14号【纯农排变】,北孙各庄8号,南孙各庄5号【纯农排变】,南孙各庄16号,佃头4号,北孙各庄18号,南孙各庄2号【纯农排变】,曲水7号,南孙各庄18号,南孙各庄13号,佃头8号【纯农排变】,曲水4号【纯农排变】,佃头9号,南孙各庄4号【纯农排变】,曲水8号,东黑山6号【纯农排变】,北孙各庄2号【纯农排变】,北孙各庄9号,保定市徐水区大王店镇佃头小学,南孙各庄10号,佃头13号,南孙各庄9号,北孙各庄5号,南孙各庄12号,东黑山8号,佃头5号,曲水6号,北孙各庄10号【纯农排变】,0747048235河北建设集团股份有限公司900028776331,曲水 5号,南孙各庄14号,南孙各庄6号,北孙各庄7号,佃头11号【纯农排变】,佃头10号【纯农排变】,南孙各庄15号,佃头12号,东黑山3号,南孙各庄3号,曲水3号,大王店东街4号【纯农排变】,北孙各庄15号,南孙各庄17号,佃头3号【纯农排变】,变压器,北孙各庄幼儿园","powerOffReason":"【停电原因】由于线路检修导致３５ＫＶ黑山变电站曲水５１８线路全线停电 【变更送电】无 【发布渠道】通过河北省保定市徐水电视台游走滚动字幕播放（２０２０年０５月０２日０８:００至０５月０８日２０:００）","powerOffId":"2020042413000403"},{"poweroffId":2020042413000385,"sgpoweroffId":null,"subsName":"","lineName":"10kV519北小王线","pubTranName":"10KV519北小王线20885台区变压器,10KV519北小王线南邑47731台区变压器,10KV519北小王线40035台区变压器,","scope":"【影响街道/乡镇】北杨村乡【高危重要客户】无【影响客户】北小王部分、南邑部分","startTime":"2020-04-25 05:00:00","stopDate":"2020-04-25 18:00:00","orgNo":"1340608","typeCode":"其他临时停电","poweroffArea":"【分支停电】停10KV519北小王线20885台区变压器,10KV519北小王线南邑47731台区变压器,10KV519北小王线40035台区变压器","poweroffReason":"【停电原因】由于刀闸发热，需停电进行紧急消缺导致１１０ＫＶ博野变电站北小王５１９线路主干４７号杆开关以下线路停电【变更送电】无【发布渠道】通过９５５９８发布","powerTime":"2020-04-25 17:51:15","powerComm":"已送电","subsNo":"","lineNo":"","tgNo":"","tgName":null,"infoStatus":"1","orgName":"国网博野县供电公司","typeName":null,"infoStatusName":null,"dateDay":null,"orgNos":null,"nowTime":null,"countyName":null,"streetName":null,"villageName":null,"roadName":null,"communityName":null,"tranName":null,"sdLineName":null,"cityCode":"1340608","cityName":"国网博野县供电公司","provinceCode":null,"stopTime":"2020-04-25 18:00:00","powerType":"全部","powerOffArea":"【分支停电】停10KV519北小王线20885台区变压器,10KV519北小王线南邑47731台区变压器,10KV519北小王线40035台区变压器","powerOffReason":"【停电原因】由于刀闸发热，需停电进行紧急消缺导致１１０ＫＶ博野变电站北小王５１９线路主干４７号杆开关以下线路停电【变更送电】无【发布渠道】通过９５５９８发布","powerOffId":"2020042413000385"},{"poweroffId":2020042413000382,"sgpoweroffId":null,"subsName":"","lineName":"林庄线516","pubTranName":"10kV516林庄线林庄2号【纯农排变】,10kV516林庄线刘庄7号,10kV516林庄线刘庄4号【纯农排变】,10kV516林庄线刘庄10号,10kV516林庄线刘庄供18号【纯农排变】,10kV516林庄线刘庄9号【纯农排变】,10kV516林庄线刘庄3号,10kV516林庄线刘庄5号【纯农排变】,10kV516林庄线刘庄6号【纯农排变】,10kV516林庄线林庄供33号【纯农排变】,10kV516林庄线林庄3号,10kV516林庄线林庄供32号【纯农排变】,10kV516林庄线林庄供59号,10kV516林庄线刘庄供69号,10kV516林庄线刘庄2号,10kV516林庄线刘庄1号【纯农排变】,10kV516林庄线林庄1号【纯农排变】,10kV516林庄线林庄4号,","scope":"【影响街道/乡镇】史端乡 【高危重要客户】无 【影响客户】林庄、刘庄","startTime":"2020-04-24 15:28:00","stopDate":"2020-04-24 18:00:00","orgNo":"1340605","typeCode":"电网故障停限电","poweroffArea":"【全线路停电】停10kV516林庄线刘庄10号,10kV516林庄线刘庄供18号【纯农排变】,10kV516林庄线刘庄9号【纯农排变】,10kV516林庄线刘庄3号,10kV516林庄线刘庄5号【纯农排变】,10kV516林庄线刘庄6号【纯农排变】,10kV516林庄线林庄供33号【纯农排变】,10kV516林庄线林庄3号,10kV516林庄线林庄供32号【纯农排变】,10kV516林庄线林庄供59号,10kV516林庄线刘庄供69号,10kV516林庄线刘庄2号,10kV516林庄线刘庄1号【纯农排变】,10kV516林庄线林庄1号【纯农排变】,10kV516林庄线林庄4号,10kV516林庄线刘庄4号【纯农排变】,10kV516林庄线林庄2号【纯农排变】,10kV516林庄线刘庄7号","poweroffReason":"【停电原因】由于Ｂ相接地导致３５ＫＶ史端变电站林庄５１６线路全线停电 【变更送电】因抢修进度加快原因，送电时间由１９:００变更为１８:００ 【发布渠道】通过９５５９８发布","powerTime":"2020-04-24 17:28:04","powerComm":"已送电","subsNo":"","lineNo":"","tgNo":"","tgName":null,"infoStatus":"1","orgName":"国网徐水县供电公司","typeName":null,"infoStatusName":null,"dateDay":null,"orgNos":null,"nowTime":null,"countyName":null,"streetName":null,"villageName":null,"roadName":null,"communityName":null,"tranName":null,"sdLineName":null,"cityCode":"1340605","cityName":"国网徐水县供电公司","provinceCode":null,"stopTime":"2020-04-24 18:00:00","powerType":"全部","powerOffArea":"【全线路停电】停10kV516林庄线刘庄10号,10kV516林庄线刘庄供18号【纯农排变】,10kV516林庄线刘庄9号【纯农排变】,10kV516林庄线刘庄3号,10kV516林庄线刘庄5号【纯农排变】,10kV516林庄线刘庄6号【纯农排变】,10kV516林庄线林庄供33号【纯农排变】,10kV516林庄线林庄3号,10kV516林庄线林庄供32号【纯农排变】,10kV516林庄线林庄供59号,10kV516林庄线刘庄供69号,10kV516林庄线刘庄2号,10kV516林庄线刘庄1号【纯农排变】,10kV516林庄线林庄1号【纯农排变】,10kV516林庄线林庄4号,10kV516林庄线刘庄4号【纯农排变】,10kV516林庄线林庄2号【纯农排变】,10kV516林庄线刘庄7号","powerOffReason":"【停电原因】由于Ｂ相接地导致３５ＫＶ史端变电站林庄５１６线路全线停电 【变更送电】因抢修进度加快原因，送电时间由１９:００变更为１８:００ 【发布渠道】通过９５５９８发布","powerOffId":"2020042413000382"},{"poweroffId":2020042413000368,"sgpoweroffId":null,"subsName":"","lineName":"大龙华线517","pubTranName":"尧舜口村10#,酸枣沟村1#|村北,小龙华村4#,刘家沟村3#|村西,刘家沟村7#村北,河北村2#|村西,国网河北电动汽车服务有限公司（北）,大龙华村7#,马兰台村3#村南,东三里铺村7#变压器,尧舜口村8#,小龙华村2#|村西,尧舜口村4#村东,小寨村3#|村西,大龙华村2#|村北,赵家沟村6#变压器,大龙华村8#,刘家沟村5#村南,小龙华村3#,小寨村5#,野里店3#变压器,东三里铺村9#变压器,野里店村村北2#,小龙华村5#变压器,马兰台村2#村南,赵家沟村2#|村中,赵家沟村4#|村北,酸枣沟村2#|村南,刘家沟村2#|村中,大龙华6#村北,赵家沟村5#,河北村1#|村东,大龙华宿舍楼,酸枣沟村3#村东,刘家沟村1#|村南,东三里铺村4#村中,大龙华村1#|村南,大龙华村3#|村东,大龙华村4#|村东,尧舜口村9#,尧舜口村1#|村中,小寨村4#村南,东三里铺村1#|村中,赵家沟村7#,马兰台村1#|村中,东三里铺村8#变压器,刘家沟村9#,刘家沟村4#|村北,尧舜口村5#村南,国网河北电动汽车服务有限公司（南）,赵家沟村3#|村中,赵家沟村1#|村南,大龙华5#,大龙华村10#,尧舜口村3#|村东,河北村3#村南,刘家沟村8#村南,小龙华村1#|村东,东三里铺3#,马兰台村4#村中,刘家沟村11#变压器,东三里铺村5#村南,小寨村2#|村中,小寨村6#,野里店村1#|村西,小寨村1#|村南,刘家沟村6#村中,大龙华村9#,东三里铺2#,","scope":"【影响街道/乡镇】大龙华乡【高危重要客户】无【影响客户】大龙华村、小龙华村、酸枣沟村、小寨村、野里店村、马兰台村、东三里铺村、赵家沟村、刘家沟村、尧舜口村、河北村","startTime":"2020-04-24 16:25:00","stopDate":"2020-04-24 19:00:00","orgNo":"1340625","typeCode":"电网故障停限电","poweroffArea":"【全线路停电】停大龙华村2#|村北,大龙华6#村北,大龙华5#,大龙华中心小学1250KVA,大龙华村4#|村东,尧舜口村1#|村中,东三里铺村1#|村中,大龙华教学点100KVA,尧舜口村8#,刘家沟村6#村中,易县天成纸业有限公司200KVA,东三里铺2#,易县大龙华乡卫生院变压器,马兰台村4#村中,东三里铺村5#村南,小寨村2#|村中,易县顺和水泥制品厂,刘家沟村3#|村西,河北村2#|村西,国网河北电动汽车服务有限公司（北）,东三里铺村6#,0546378218-安格庄供电所-专变-47851693-安格庄供电所,尧舜口村7#,小龙华村2#|村西,马兰台村3#村南,野里店村1#|村西,小寨村5#,马兰台村5#村西,刘家沟村5#村南,小寨村6#,大龙华村10#,易县鑫良建材销售有限公司B500,刘家沟村9#,小龙华村1#|村东,国网河北电动汽车服务有限公司（南）,易县龙华百姓水泥制品销售处变压器,龙华乡政府,小寨村1#|村南,刘家沟村10#【纯农排变】,大龙华宿舍楼,小寨村4#村南,大龙华村7#,大龙华新建饭店,大龙华水泥砖厂(廉力),野里店村村北2#,易县腾辉矿产建材有限公司630,东三里铺村8#变压器,展鹏铁砂厂(2#),天成纸业有限公司(80KVA),小龙华村委会5号200,东三里铺村委会1号100,小龙华村委会3号50,天成纸业有限公司(1000KVA),大龙华村8#,中国移动通讯集团河北有限公司易县分公司,野里店3#变压器,东三里铺村9#变压器,易县金景盛矿业有限公司变压器1,马兰台村2#村南,华侨陵园,小龙华村3#,小龙华村5#变压器,刘家沟村4#|村北,马兰台村1#|村中,变压器,河北村3#村南,易县东正商品混凝土有限公司2,大龙华村9#,刘家沟村8#村南,高碑店市建筑企业（集团）公司变压器315,尧舜口村6#,尧舜口村5#村南,东三里铺村2号100,0469486331-易县云蒙山石材厂-专变-46819944-易县玉泉山石材有限公司,小龙华村委会2号50,易县金景盛矿业有限公司变压器2,高碑店市建筑企业（集团）公司变压器630,易县东正商品混凝土有限公司1,赵家沟村3#|村中,尧舜口村4#村东,小寨村3#|村西,大龙华中心小学100KVA,赵家沟村6#变压器,赵家沟村7#,东三里铺3#,大龙华村3#|村东,赵家沟村4#|村北,刘家沟村2#|村中,北头村佟建军变压器,小龙华村委会4号50,大龙华村1#|村南,尧舜口村10#,酸枣沟村1#|村北,酸枣沟村3#村东,刘家沟村1#|村南,易县腾辉矿产建材有限公司变压器,东三里铺村4#村中,泥瓦铺村郝春友160KVA,尧舜口村3#|村东,赵家沟村1#|村南,易县鑫良建材销售有限公司A500,赵家沟村2#|村中,易县鑫良建材销售有限公司C250,易县易源光伏电力开发有限公司160KVA,河北圣煌电力安装工程有限公司200,酸枣沟村2#|村南,赵家沟村5#,河北村1#|村东,易县大龙华服装厂,刘家沟村11#变压器,小龙华村4#,易县先创建材有限公司250,小龙华小学200KVA,尧舜口村9#,刘家沟村7#村北,易县聚峰园鱼饲养农民专业合作社变压器,易县金景盛矿业有限公司变压器3,东三里铺村7#变压器","poweroffReason":"【停电原因】由于站内开关故障导致１１０ＫＶ西陵变电站大龙华线５１７线路全线路停电【变更送电】因抢修进度加快原因，送电时间由２０：００变更为１９：００【发布渠道】通过９５５９８发布","powerTime":"2020-04-24 18:40:58","powerComm":"已送电","subsNo":"","lineNo":"","tgNo":"","tgName":null,"infoStatus":"1","orgName":"国网易县供电公司","typeName":null,"infoStatusName":null,"dateDay":null,"orgNos":null,"nowTime":null,"countyName":null,"streetName":null,"villageName":null,"roadName":null,"communityName":null,"tranName":null,"sdLineName":null,"cityCode":"1340625","cityName":"国网易县供电公司","provinceCode":null,"stopTime":"2020-04-24 19:00:00","powerType":"全部","powerOffArea":"【全线路停电】停大龙华村2#|村北,大龙华6#村北,大龙华5#,大龙华中心小学1250KVA,大龙华村4#|村东,尧舜口村1#|村中,东三里铺村1#|村中,大龙华教学点100KVA,尧舜口村8#,刘家沟村6#村中,易县天成纸业有限公司200KVA,东三里铺2#,易县大龙华乡卫生院变压器,马兰台村4#村中,东三里铺村5#村南,小寨村2#|村中,易县顺和水泥制品厂,刘家沟村3#|村西,河北村2#|村西,国网河北电动汽车服务有限公司（北）,东三里铺村6#,0546378218-安格庄供电所-专变-47851693-安格庄供电所,尧舜口村7#,小龙华村2#|村西,马兰台村3#村南,野里店村1#|村西,小寨村5#,马兰台村5#村西,刘家沟村5#村南,小寨村6#,大龙华村10#,易县鑫良建材销售有限公司B500,刘家沟村9#,小龙华村1#|村东,国网河北电动汽车服务有限公司（南）,易县龙华百姓水泥制品销售处变压器,龙华乡政府,小寨村1#|村南,刘家沟村10#【纯农排变】,大龙华宿舍楼,小寨村4#村南,大龙华村7#,大龙华新建饭店,大龙华水泥砖厂(廉力),野里店村村北2#,易县腾辉矿产建材有限公司630,东三里铺村8#变压器,展鹏铁砂厂(2#),天成纸业有限公司(80KVA),小龙华村委会5号200,东三里铺村委会1号100,小龙华村委会3号50,天成纸业有限公司(1000KVA),大龙华村8#,中国移动通讯集团河北有限公司易县分公司,野里店3#变压器,东三里铺村9#变压器,易县金景盛矿业有限公司变压器1,马兰台村2#村南,华侨陵园,小龙华村3#,小龙华村5#变压器,刘家沟村4#|村北,马兰台村1#|村中,变压器,河北村3#村南,易县东正商品混凝土有限公司2,大龙华村9#,刘家沟村8#村南,高碑店市建筑企业（集团）公司变压器315,尧舜口村6#,尧舜口村5#村南,东三里铺村2号100,0469486331-易县云蒙山石材厂-专变-46819944-易县玉泉山石材有限公司,小龙华村委会2号50,易县金景盛矿业有限公司变压器2,高碑店市建筑企业（集团）公司变压器630,易县东正商品混凝土有限公司1,赵家沟村3#|村中,尧舜口村4#村东,小寨村3#|村西,大龙华中心小学100KVA,赵家沟村6#变压器,赵家沟村7#,东三里铺3#,大龙华村3#|村东,赵家沟村4#|村北,刘家沟村2#|村中,北头村佟建军变压器,小龙华村委会4号50,大龙华村1#|村南,尧舜口村10#,酸枣沟村1#|村北,酸枣沟村3#村东,刘家沟村1#|村南,易县腾辉矿产建材有限公司变压器,东三里铺村4#村中,泥瓦铺村郝春友160KVA,尧舜口村3#|村东,赵家沟村1#|村南,易县鑫良建材销售有限公司A500,赵家沟村2#|村中,易县鑫良建材销售有限公司C250,易县易源光伏电力开发有限公司160KVA,河北圣煌电力安装工程有限公司200,酸枣沟村2#|村南,赵家沟村5#,河北村1#|村东,易县大龙华服装厂,刘家沟村11#变压器,小龙华村4#,易县先创建材有限公司250,小龙华小学200KVA,尧舜口村9#,刘家沟村7#村北,易县聚峰园鱼饲养农民专业合作社变压器,易县金景盛矿业有限公司变压器3,东三里铺村7#变压器","powerOffReason":"【停电原因】由于站内开关故障导致１１０ＫＶ西陵变电站大龙华线５１７线路全线路停电【变更送电】因抢修进度加快原因，送电时间由２０：００变更为１９：００【发布渠道】通过９５５９８发布","powerOffId":"2020042413000368"},{"poweroffId":2020042413000335,"sgpoweroffId":null,"subsName":"","lineName":"10kV东吕I线540线路","pubTranName":"0556973793-东吕一街头村委会村西-专变-104865832-东吕一街村委会村西,0387489896-清苑县鑫力起重索具制造厂-专变-45315538-清苑县鑫力起重索具制造厂,佳力起重,东吕杜成立配件加工,保定鼎力索具有限公司,东吕一街村委会东,清苑县志发链条加工厂,上海轶鹰机械有限公司清苑分公司,东吕东四,河北恩派克起重液压机械有限公司,清苑县飞翔起重机械厂,清苑县宏利锚链厂,保定大力起重机械有限公司,保定鼎力索具有限公司01,河北力雕起重设备制造有限公司,0646559580-中国铁塔股份有限公司保定市分公司-专变-169916015-中国移动通信集团河北有限公司保定分公司,保定巨鹰起重机械制造有限公司,东吕四街野外,东吕四街野外新增,清苑县东吕月宽配件加工厂,东吕村西,杨继军,东吕畜牧场,东吕寇建生配件加工,河北神雕起重设备制造有限公司,东吕西六,佳力起重001,东吕西五,东吕四街村西南,东吕一街野外,上海轶鹰起重机械有限公司清苑分公司,0658714380-清苑县宇航起重机械制造有限公司-专变-202679187-清苑县宇航起重机械制造有限公司,河北君达起重机械制造有限公司,","scope":"【影响街道/乡镇】东吕乡 【高危重要客户】无 【影响客户】东吕四街村","startTime":"2020-04-24 14:46:10","stopDate":"2020-04-24 16:30:00","orgNo":"1340618","typeCode":"电网故障停限电","poweroffArea":"【全线路停电】停0556973793-东吕一街头村委会村西-专变-104865832-东吕一街村委会村西,0387489896-清苑县鑫力起重索具制造厂-专变-45315538-清苑县鑫力起重索具制造厂,佳力起重,东吕杜成立配件加工,保定鼎力索具有限公司,东吕一街村委会东,清苑县志发链条加工厂,上海轶鹰机械有限公司清苑分公司,东吕东四,河北恩派克起重液压机械有限公司,清苑县飞翔起重机械厂,0658714380-清苑县宇航起重机械制造有限公司-专变-202679187-清苑县宇航起重机械制造有限公司,清苑县宏利锚链厂,保定大力起重机械有限公司,保定鼎力索具有限公司01,河北力雕起重设备制造有限公司,0646559580-中国铁塔股份有限公司保定市分公司-专变-169916015-中国移动通信集团河北有限公司保定分公司,保定巨鹰起重机械制造有限公司,东吕四街野外,东吕四街野外新增,清苑县东吕月宽配件加工厂,东吕村西,杨继军,东吕畜牧场,东吕寇建生配件加工,河北神雕起重设备制造有限公司,东吕西六,佳力起重001,东吕西五,东吕四街村西南,东吕一街野外,上海轶鹰起重机械有限公司清苑分公司,河北君达起重机械制造有限公司","poweroffReason":"【停电原因】由于主干５２号杆西Ｔ２号杆南Ｔ１号杆鼎力锁具高压ＣＴ烧毁导致１１０ＫＶ东闾变电站１０ＫＶ东吕Ｉ线５４０线路全线停电 【变更送电】因抢修进度加快原因，送电时间由２０：００变更为１６：３０ 【发布渠道】通过９５５９８发布","powerTime":"2020-04-24 15:59:32","powerComm":"薛鹏通知已送电","subsNo":"","lineNo":"","tgNo":"","tgName":null,"infoStatus":"1","orgName":"国网清苑县供电公司","typeName":null,"infoStatusName":null,"dateDay":null,"orgNos":null,"nowTime":null,"countyName":null,"streetName":null,"villageName":null,"roadName":null,"communityName":null,"tranName":null,"sdLineName":null,"cityCode":"1340618","cityName":"国网清苑县供电公司","provinceCode":null,"stopTime":"2020-04-24 16:30:00","powerType":"全部","powerOffArea":"【全线路停电】停0556973793-东吕一街头村委会村西-专变-104865832-东吕一街村委会村西,0387489896-清苑县鑫力起重索具制造厂-专变-45315538-清苑县鑫力起重索具制造厂,佳力起重,东吕杜成立配件加工,保定鼎力索具有限公司,东吕一街村委会东,清苑县志发链条加工厂,上海轶鹰机械有限公司清苑分公司,东吕东四,河北恩派克起重液压机械有限公司,清苑县飞翔起重机械厂,0658714380-清苑县宇航起重机械制造有限公司-专变-202679187-清苑县宇航起重机械制造有限公司,清苑县宏利锚链厂,保定大力起重机械有限公司,保定鼎力索具有限公司01,河北力雕起重设备制造有限公司,0646559580-中国铁塔股份有限公司保定市分公司-专变-169916015-中国移动通信集团河北有限公司保定分公司,保定巨鹰起重机械制造有限公司,东吕四街野外,东吕四街野外新增,清苑县东吕月宽配件加工厂,东吕村西,杨继军,东吕畜牧场,东吕寇建生配件加工,河北神雕起重设备制造有限公司,东吕西六,佳力起重001,东吕西五,东吕四街村西南,东吕一街野外,上海轶鹰起重机械有限公司清苑分公司,河北君达起重机械制造有限公司","powerOffReason":"【停电原因】由于主干５２号杆西Ｔ２号杆南Ｔ１号杆鼎力锁具高压ＣＴ烧毁导致１１０ＫＶ东闾变电站１０ＫＶ东吕Ｉ线５４０线路全线停电 【变更送电】因抢修进度加快原因，送电时间由２０：００变更为１６：３０ 【发布渠道】通过９５５９８发布","powerOffId":"2020042413000335"},{"poweroffId":2020042413000329,"sgpoweroffId":null,"subsName":"","lineName":"南城司516","pubTranName":"岭子南村1#|村内,黄土台村3#村西,枣格庄村2#|村北,南城司村6#村南（综）,长岭村7#变,尚庄7号变压器,南城司村12#变压器,曹格庄村2#|丁家沟,杨家沟村3#村北（综）,营安村2#|村西,枣格庄村4#村北（综）,枣各庄6号变压器,北城司村8#村北（综）,北城司村1#|村东,黄土台村1#|村南,辛庄村4号变,长岭村6#村北（综）,长岭村8#变,北城司村3#村东,长岭村2#|大队,白麻村6#变,南台3#村西（综）,北城司村7#村北,枣格庄村5#村南（综）,南城司村8#村东（综）,南城司5#村南,长岭村3#|下水壶,杨家沟村6#变压器,白麻村3#|村东北,尚庄村4#村北（综）,营安村5#变,营安村3#村北（综）,辛庄3号变铁路,曹格庄村1#|村内,南城司村1#|村内,长岭村1#|村西,南城司村7#村北,白麻村7#变,杨家沟村4#村东（综）,长岭村9号变,营安村4#变,岭子村3#村南（综）,大兴安村6#变,南城司村11#,北城司村4#村北,南城司村4#|村北,长岭村5#,尚庄村1#|村内,杨家沟村1#|大队,南城司村9#村南,北城司村6#村北,南台村1#|村内,杨家沟村2#|村东,尚庄村3#村西（综）,宋格庄村1#|村内,枣格庄村1#|村南,恩村4#村东（综）,尚庄村6井变压器,南城司村2#|村西,长岭村4#村西（综）,南城司村10#,曹格庄村3#村南,白麻村4#变,白麻村5#变,尚庄村2#村东（综）,宋格庄村2#村内(综),黄土台村4#,北城司村5#村北（综）,黄土台村2#|村北,尚庄村5#变,曹格庄村4台区,营安村1#|村东,辛庄村1#|村内,白麻村2#|村南,辛庄村2#村北（综）,北城司村2#|村西,白麻村8号变压器,南城司13号变,枣格庄村3#村北（综),宋格庄村3#,白麻村1#|村北,南台村2#,南城司村3#|市场,","scope":"【影响街道/乡镇】南城司乡、紫荆关镇【高危重要客户】无【影响客户】南城司村、北城司村、曹各庄村、辛庄村、宋各庄村、岭子南村、长岭村、南台村、尚庄村、白麻村、营安村、黄土台村、杨家沟村、枣各庄村、","startTime":"2020-04-24 14:44:18","stopDate":"2020-04-24 19:00:00","orgNo":"1340625","typeCode":"电网故障停限电","poweroffArea":"【全线路停电】停白麻村6#变,易县聚融砂厂变压器2,南台3#村西（综）,北城司村7#村北,营安村2#|村西,南城司5#村南,易县鼎隆石材加工厂A400,长岭村3#|下水壶,营安村5#变,易县恒升石材厂250,易县鼎隆石材加工厂变压器2,福建石语石材加工厂变压器2,长岭村9号变,营安村4#变,66209部队(200KVA),杨家沟村2#|村东,易县大丰石材加工厂315,尚庄村3#村西（综）,南城司中心小学100KVA,白麻村康金凯变压器,易县昆龙花岗岩办公专用配变80KVA,宋格庄村1#|村内,易县恒升石材厂变压器2,枣格庄村1#|村南,恩村4#村东（综）,北城司村8#村北（综）,杨家沟村3#村北（综）,岭子南村1#|村内,黄土台村3#村西,枣格庄村2#|村北,南城司村6#村南（综）,长岭村7#变,尚庄7号变压器,易县森然食用菌种植有限公司,南城司村12#变压器,曹格庄村2#|丁家沟,枣格庄村4#村北（综）,易县泰宇石材厂变压器,岭子村3#村南（综）,南城司村11#,北城司村4#村北,南城司村4#|村北,长岭村5#,尚庄村1#|村内,易县恒升石材厂变压器1,杨家沟村1#|大队,易县鼎隆石材加工厂变夺器,南城司派出所80KVA,易县新福升源石材加工厂变压器2,南城司村9#村南,移动公司北城司基站50,易县鼎隆石材加工厂b250,北城司村6#村北,0621467679-易县宾顺矿产品有限公司-专变-129453586-易县宾顺矿产品有限公司变压器,南台村1#|村内,黄土台村1#|村南,易县泰宇石材厂250,枣各庄6号变压器,大兴安村6#变,河北长城物资储运经营公司(50KV),北城司村1#|村东,河北长城物资储运经营公司(200KV),辛庄村4号变,易县丰岩石材加工厂250,66209部队(100KVA),长岭村6#村北（综）,长岭村8#变,南城司乡政府(王克友),北城司村3#村东,长岭村2#|大队,易县连军花岗岩矿变压器,尚庄村6井变压器,0621467679-易县宾顺矿产品有限公司-专变-141668865-易县宾顺矿产品有限公司变压器,福建石语石材加工厂变压器1,南城司村2#|村西,王海变压器,中国人民解放军66209部队变压器1,长岭村4#村西（综）,南城司村10#,曹格庄村3#村南,北京铁路局南城司车站250KVA,南城司中心小学400KVA,白麻村4#变,南城司村3#|市场,易县泉商石材有限公司变压器1,白麻村5#变,易县聚融砂厂变压器1,尚庄村2#村东（综）,宋格庄村2#村内(综),易县丰岩石材加工厂250KVA,黄土台村4#,易县福升源石材加工厂变压器,北城司村5#村北（综）,河北长城物资储运经营公司(80KV),枣格庄村5#村南（综）,南城司村8#村东（综）,易县鼎隆石材加工厂变压器1,易县新福升源石材加工厂变压器1,杨家沟村6#变压器,白麻村3#|村东北,易县雅韵旅游开发有限公司250KVA,易县福升源石材加工厂630,尚庄村4#村北（综）,营安村3#村北（综）,辛庄3号变铁路,曹格庄村1#|村内,南城司村1#|村内,长岭村1#|村西,南城司村7#村北,易县福升源石材加工厂315,白麻村7#变,易县泉商石材有限公司变压器2,南城司乡卫生院250KVA,杨家沟村4#村东（综）,黄土台村2#|村北,尚庄村5#变,曹格庄村4台区,营安村1#|村东,辛庄村1#|村内,白麻村2#|村南,辛庄村2#村北（综）,易县鼎隆石材250,北城司村2#|村西,中国人民解放军66209部队变压器2,白麻村8号变压器,易县丰岩石材加工厂500KVA,南城司13号变,枣格庄村3#村北（综),宋格庄村3#,白麻村1#|村北,南台村2#","poweroffReason":"【停电原因】由于速断跳闸导致３５ＫＶ大兴安变电站南城司５１６线路全线路停电【变更送电】无【发布渠道】通过９５５９８发布","powerTime":"2020-04-24 18:43:40","powerComm":"已送电","subsNo":"","lineNo":"","tgNo":"","tgName":null,"infoStatus":"1","orgName":"国网易县供电公司","typeName":null,"infoStatusName":null,"dateDay":null,"orgNos":null,"nowTime":null,"countyName":null,"streetName":null,"villageName":null,"roadName":null,"communityName":null,"tranName":null,"sdLineName":null,"cityCode":"1340625","cityName":"国网易县供电公司","provinceCode":null,"stopTime":"2020-04-24 19:00:00","powerType":"全部","powerOffArea":"【全线路停电】停白麻村6#变,易县聚融砂厂变压器2,南台3#村西（综）,北城司村7#村北,营安村2#|村西,南城司5#村南,易县鼎隆石材加工厂A400,长岭村3#|下水壶,营安村5#变,易县恒升石材厂250,易县鼎隆石材加工厂变压器2,福建石语石材加工厂变压器2,长岭村9号变,营安村4#变,66209部队(200KVA),杨家沟村2#|村东,易县大丰石材加工厂315,尚庄村3#村西（综）,南城司中心小学100KVA,白麻村康金凯变压器,易县昆龙花岗岩办公专用配变80KVA,宋格庄村1#|村内,易县恒升石材厂变压器2,枣格庄村1#|村南,恩村4#村东（综）,北城司村8#村北（综）,杨家沟村3#村北（综）,岭子南村1#|村内,黄土台村3#村西,枣格庄村2#|村北,南城司村6#村南（综）,长岭村7#变,尚庄7号变压器,易县森然食用菌种植有限公司,南城司村12#变压器,曹格庄村2#|丁家沟,枣格庄村4#村北（综）,易县泰宇石材厂变压器,岭子村3#村南（综）,南城司村11#,北城司村4#村北,南城司村4#|村北,长岭村5#,尚庄村1#|村内,易县恒升石材厂变压器1,杨家沟村1#|大队,易县鼎隆石材加工厂变夺器,南城司派出所80KVA,易县新福升源石材加工厂变压器2,南城司村9#村南,移动公司北城司基站50,易县鼎隆石材加工厂b250,北城司村6#村北,0621467679-易县宾顺矿产品有限公司-专变-129453586-易县宾顺矿产品有限公司变压器,南台村1#|村内,黄土台村1#|村南,易县泰宇石材厂250,枣各庄6号变压器,大兴安村6#变,河北长城物资储运经营公司(50KV),北城司村1#|村东,河北长城物资储运经营公司(200KV),辛庄村4号变,易县丰岩石材加工厂250,66209部队(100KVA),长岭村6#村北（综）,长岭村8#变,南城司乡政府(王克友),北城司村3#村东,长岭村2#|大队,易县连军花岗岩矿变压器,尚庄村6井变压器,0621467679-易县宾顺矿产品有限公司-专变-141668865-易县宾顺矿产品有限公司变压器,福建石语石材加工厂变压器1,南城司村2#|村西,王海变压器,中国人民解放军66209部队变压器1,长岭村4#村西（综）,南城司村10#,曹格庄村3#村南,北京铁路局南城司车站250KVA,南城司中心小学400KVA,白麻村4#变,南城司村3#|市场,易县泉商石材有限公司变压器1,白麻村5#变,易县聚融砂厂变压器1,尚庄村2#村东（综）,宋格庄村2#村内(综),易县丰岩石材加工厂250KVA,黄土台村4#,易县福升源石材加工厂变压器,北城司村5#村北（综）,河北长城物资储运经营公司(80KV),枣格庄村5#村南（综）,南城司村8#村东（综）,易县鼎隆石材加工厂变压器1,易县新福升源石材加工厂变压器1,杨家沟村6#变压器,白麻村3#|村东北,易县雅韵旅游开发有限公司250KVA,易县福升源石材加工厂630,尚庄村4#村北（综）,营安村3#村北（综）,辛庄3号变铁路,曹格庄村1#|村内,南城司村1#|村内,长岭村1#|村西,南城司村7#村北,易县福升源石材加工厂315,白麻村7#变,易县泉商石材有限公司变压器2,南城司乡卫生院250KVA,杨家沟村4#村东（综）,黄土台村2#|村北,尚庄村5#变,曹格庄村4台区,营安村1#|村东,辛庄村1#|村内,白麻村2#|村南,辛庄村2#村北（综）,易县鼎隆石材250,北城司村2#|村西,中国人民解放军66209部队变压器2,白麻村8号变压器,易县丰岩石材加工厂500KVA,南城司13号变,枣格庄村3#村北（综),宋格庄村3#,白麻村1#|村北,南台村2#","powerOffReason":"【停电原因】由于速断跳闸导致３５ＫＶ大兴安变电站南城司５１６线路全线路停电【变更送电】无【发布渠道】通过９５５９８发布","powerOffId":"2020042413000329"},{"poweroffId":2020042413000294,"sgpoweroffId":null,"subsName":"","lineName":"10kV515东侯佐线","pubTranName":"东侯综合2台区变压器,东侯农排4台区变压器【纯农排变】,东侯综合5台区变压器,中艺,东侯综合9台区变压器,北江机械制造厂,天德皮草变压器,东侯农排8台区【纯农排变】,蠡县正忠制革污水处理有限公司3,东侯综合1台区变压器,东侯农排3台区变压器【纯农排变】,中艺皮草有限公司,海青皮毛,榆林村农排1台区变压器【纯农排变】,榆林村农排3台区变压器【纯农排变】,蠡县正忠制革污水处理有限公司,东侯综合7台区变压器,榆林村综合2台区变压器,榆林村农排2台区变压器【纯农排变】,东侯农排2台区变压器【纯农排变】,东侯农排1台区变压器【纯农排变】,蠡县正忠皮草有限公司,东侯综合10台区变压器,天德皮草,亚亨皮革,正忠四号,榆林村综合1台区变压器,东侯综合3台区变压器,东侯农排6台区变压器【纯农排变】,蠡县正忠制革污水处理有限公司2,东侯农排5台区变压器【纯农排变】,东候面粉厂,东侯综合8台区变压器,","scope":"【影响街道/乡镇】鲍墟乡、留史镇【高危重要客户】无【影响客户】榆林村、东侯佐村、蠡县正忠制革污水处理有限公司","startTime":"2020-04-24 13:32:19","stopDate":"2020-04-24 15:10:00","orgNo":"1340616","typeCode":"电网故障停限电","poweroffArea":"【全线路停电】停中艺,蠡县正忠皮草有限公司,东侯农排8台区【纯农排变】,天德皮草变压器,东侯农排6台区变压器【纯农排变】,东侯综合8台区变压器,北江机械制造厂,天德皮草,蠡县正忠制革污水处理有限公司,东侯综合7台区变压器,东侯综合2台区变压器,东侯农排4台区变压器【纯农排变】,东侯综合10台区变压器,正忠四号,亚亨皮革,榆林村农排3台区变压器【纯农排变】,榆林村综合2台区变压器,蠡县正忠制革污水处理有限公司3,东侯农排1台区变压器【纯农排变】,榆林村农排1台区变压器【纯农排变】,东候面粉厂,榆林村农排2台区变压器【纯农排变】,蠡县正忠制革污水处理有限公司2,东侯农排2台区变压器【纯农排变】,东侯综合1台区变压器,东侯农排3台区变压器【纯农排变】,东侯综合3台区变压器,东侯综合9台区变压器,东侯农排5台区变压器【纯农排变】,海青皮毛,榆林村综合1台区变压器,东侯综合5台区变压器,中艺皮草有限公司","poweroffReason":"【停电原因】由于站外开关掉闸导致１１０ＫＶ留史变电站１０ＫＶ东侯佐５１５线路全线停电【变更送电】因抢修进度加快原因，送电时间由２３：００变更为１５：１０【发布渠道】通过９５５９８发布","powerTime":"2020-04-24 14:43:35","powerComm":"已送电","subsNo":"","lineNo":"","tgNo":"","tgName":null,"infoStatus":"1","orgName":"国网蠡县供电公司","typeName":null,"infoStatusName":null,"dateDay":null,"orgNos":null,"nowTime":null,"countyName":null,"streetName":null,"villageName":null,"roadName":null,"communityName":null,"tranName":null,"sdLineName":null,"cityCode":"1340616","cityName":"国网蠡县供电公司","provinceCode":null,"stopTime":"2020-04-24 15:10:00","powerType":"全部","powerOffArea":"【全线路停电】停中艺,蠡县正忠皮草有限公司,东侯农排8台区【纯农排变】,天德皮草变压器,东侯农排6台区变压器【纯农排变】,东侯综合8台区变压器,北江机械制造厂,天德皮草,蠡县正忠制革污水处理有限公司,东侯综合7台区变压器,东侯综合2台区变压器,东侯农排4台区变压器【纯农排变】,东侯综合10台区变压器,正忠四号,亚亨皮革,榆林村农排3台区变压器【纯农排变】,榆林村综合2台区变压器,蠡县正忠制革污水处理有限公司3,东侯农排1台区变压器【纯农排变】,榆林村农排1台区变压器【纯农排变】,东候面粉厂,榆林村农排2台区变压器【纯农排变】,蠡县正忠制革污水处理有限公司2,东侯农排2台区变压器【纯农排变】,东侯综合1台区变压器,东侯农排3台区变压器【纯农排变】,东侯综合3台区变压器,东侯综合9台区变压器,东侯农排5台区变压器【纯农排变】,海青皮毛,榆林村综合1台区变压器,东侯综合5台区变压器,中艺皮草有限公司","powerOffReason":"【停电原因】由于站外开关掉闸导致１１０ＫＶ留史变电站１０ＫＶ东侯佐５１５线路全线停电【变更送电】因抢修进度加快原因，送电时间由２３：００变更为１５：１０【发布渠道】通过９５５９８发布","powerOffId":"2020042413000294"},{"poweroffId":2020042413000275,"sgpoweroffId":null,"subsName":"","lineName":"梁家营线511","pubTranName":"东黄河北变压器,","scope":"【影响街道/乡镇】梁家营乡 【高危重要客户】无 【影响客户】东黄河村","startTime":"2020-04-24 13:13:53","stopDate":"2020-04-24 16:00:00","orgNo":"1340612","typeCode":"电网故障停限电","poweroffArea":"【单台区停电】停东黄河北变压器","poweroffReason":"【停电原因】由于东黄河大分支０７号杆东黄河排灌分支Ｔ接刀闸烧坏导致１１０ＫＶ太平庄变电站１０ＫＶ梁家营５１１线路东黄河北公变台区停电 【变更送电】因抢修进度加快原因，送电时间由１９：００变更为１６：００ 【发布渠道】通过９５５９８发布","powerTime":"2020-04-24 15:12:36","powerComm":"已送电","subsNo":"","lineNo":"","tgNo":"","tgName":null,"infoStatus":"1","orgName":"国网高碑店市供电公司","typeName":null,"infoStatusName":null,"dateDay":null,"orgNos":null,"nowTime":null,"countyName":null,"streetName":null,"villageName":null,"roadName":null,"communityName":null,"tranName":null,"sdLineName":null,"cityCode":"1340612","cityName":"国网高碑店市供电公司","provinceCode":null,"stopTime":"2020-04-24 16:00:00","powerType":"全部","powerOffArea":"【单台区停电】停东黄河北变压器","powerOffReason":"【停电原因】由于东黄河大分支０７号杆东黄河排灌分支Ｔ接刀闸烧坏导致１１０ＫＶ太平庄变电站１０ＫＶ梁家营５１１线路东黄河北公变台区停电 【变更送电】因抢修进度加快原因，送电时间由１９：００变更为１６：００ 【发布渠道】通过９５５９８发布","powerOffId":"2020042413000275"},{"poweroffId":2020042413000271,"sgpoweroffId":null,"subsName":"","lineName":"10kV565永新庄纸厂线","pubTranName":"永兴庄第二造纸厂（3）变压器2,","scope":"【影响街道/乡镇】南庄镇【高危重要客户】无【影响客户】永兴庄无纺厂、永兴家园、蠡县东辰织业有限公司","startTime":"2020-04-24 13:10:26","stopDate":"2020-04-24 15:30:00","orgNo":"1340616","typeCode":"电网故障停限电","poweroffArea":"【全线路停电】停蠡县东辰织业有限公司,永兴庄第二造纸厂（2）,永兴庄无纺厂,永兴庄第二造纸厂四号,永兴庄第二造纸厂（3）变压器2,永兴家园变压器,永兴庄第二造纸厂（3）变压器1,永兴庄第二造纸厂（1）","poweroffReason":"【停电原因】由于站内１０ＫＶ２号母线接地导致１１０ＫＶ南庄变电站１０ＫＶ永新庄纸厂５６５线路全线停电【变更送电】因抢修进度加快原因，送电时间由２３：００变更为１５：３０【发布渠道】通过９５５９８发布","powerTime":"2020-04-24 15:02:56","powerComm":"已送电","subsNo":"","lineNo":"","tgNo":"","tgName":null,"infoStatus":"1","orgName":"国网蠡县供电公司","typeName":null,"infoStatusName":null,"dateDay":null,"orgNos":null,"nowTime":null,"countyName":null,"streetName":null,"villageName":null,"roadName":null,"communityName":null,"tranName":null,"sdLineName":null,"cityCode":"1340616","cityName":"国网蠡县供电公司","provinceCode":null,"stopTime":"2020-04-24 15:30:00","powerType":"全部","powerOffArea":"【全线路停电】停蠡县东辰织业有限公司,永兴庄第二造纸厂（2）,永兴庄无纺厂,永兴庄第二造纸厂四号,永兴庄第二造纸厂（3）变压器2,永兴家园变压器,永兴庄第二造纸厂（3）变压器1,永兴庄第二造纸厂（1）","powerOffReason":"【停电原因】由于站内１０ＫＶ２号母线接地导致１１０ＫＶ南庄变电站１０ＫＶ永新庄纸厂５６５线路全线停电【变更送电】因抢修进度加快原因，送电时间由２３：００变更为１５：３０【发布渠道】通过９５５９８发布","powerOffId":"2020042413000271"}],"pageModel":{"pageNow":143,"totalCount":10973,"totalPage":1098,"tableRows":0,"pageCount":10,"beginCount":1420},"isExperi":"1"}