{"message":"","today":"2020-06-15","seleList":[{"poweroffId":2020042413000263,"sgpoweroffId":null,"subsName":"","lineName":"吕村线533","pubTranName":"吕村3#,吕村5#,朔内村3#,台坛7号变压器,东娄山村9#,北林村2#,吕村7#变压器,吕村9号变压器【纯农排变】,吕村6#,尉都村10号变压器,台坛村2#,朔内村5#,东娄山村2#,南林村7#,朔内村2#,东城阳村3#,西城阳村4#,东城阳村1#,西城阳村5号,东城阳村2#,西城阳村2#,沈村4#,台坛村1#,台坛村6#,北林7#,沈村1#,东城阳4#,南林村6#,台坛村4#,台坛村5#,尉都村4#,吕村2#,吕村8号变压器【纯农排变】,北林村6#,南林村1#,沈村3#,东娄山村8#,尉都村7#,朔内村7#,南林村4#,南林村5#,东娄山10号变压器,尉都村9#,东娄山11号变压器,北林村3#,东娄山村7#,朔内村4#,南林村3#,西城阳村1#,东娄山村4#,东娄山村3#,","scope":"【影响街道/乡镇】尉都乡、塘湖镇【高危重要客户】无【影响客户】西城阳村、东城阳村、台坛村、朔内村、东娄山村、吕村、南林村、北林村、沈村","startTime":"2020-04-24 13:07:07","stopDate":"2020-04-24 16:00:00","orgNo":"1340625","typeCode":"电网故障停限电","poweroffArea":"【全线路停电】停吕村4#,北林村1#,台坛村6#,东娄山村2#,孔山村1#村东（农）,沈村2#,北京地矿东娄山（B）,北林村4#【纯农排变】,绿地土地4号,易县林海页岩矿业有限公司50KVA,东娄山村3#,北林村2#,吕村7#变压器,吕村9号变压器【纯农排变】,林明采沙场-B250,吕村6#,尉都村10号变压器,台坛村2#,中冶地勘东娄山3号100,朔内村5#,南林村7#,朔内村2#,尉都村3#,易县晨尧采砂场315KVA,东城阳村3#,尉都纸厂,滑金柱变压器,西城阳村4#,易县林海页岩矿业有限公司变压器2,东城阳村1#,易县林海页岩矿业有限公司变压器1,林明采沙场-C100,林明采沙场-A250,西城阳村5号,东城阳村2#,中冶地勘2号160,西城阳村2#,沈村4#,泰和土地整理服务有限公司-吕村50KVA,台坛村1#,北林7#,尉都面粉厂,孔山村2#村东（农）,沈村1#,东城阳4#,中冶地勘吕村50,南林村6#,绿地土地6号,易县方远建材有限公司变压器,中冶地勘东娄山2号50,尉都村4#,吕村1#,朔内村1#,绿地土地3号,东娄山村8#,台坛村4#,台坛村5#,东娄山村1#,吕村2#,吕村8号变压器【纯农排变】,绿地土地2号,易县雷鸣土地整理服务有限公司-1号170112309245-100KVA,北林村6#,南林村1#,东娄山村6#,尉都村2#,吕村马术河变压器,沈村3#,尉都村7#,西城阳村3#,朔内村7#,北京地矿东娄山A,易县长宇石材加工厂,台坛村3#,河北大午农牧集团有限公司变压器,南林村4#,南林村5#,东娄山10号变压器,尉都村9#,东娄山11号变压器,北林村3#,绿地土地1号,东娄山村7#,朔内村6#,朔内村4#,石家庄市紫光艺术品有限公司,南林村3#,绿地土地5号,西城阳村1#,东娄山村4#,北林村5#,吕村3#,东娄山村5#,南林村2#,吕村5#,朔内村3#,台坛7号变压器,东娄山村9#","poweroffReason":"【停电原因】由于线路接地导致１１０ＫＶ塘湖变电站吕村５３３线路全线路停电【变更送电】因抢修进度加快原因，送电时间由１８：００变更为１６：００【发布渠道】通过９５５９８发布","powerTime":"2020-04-24 15:24:01","powerComm":"已送电","subsNo":"","lineNo":"","tgNo":"","tgName":null,"infoStatus":"1","orgName":"国网易县供电公司","typeName":null,"infoStatusName":null,"dateDay":null,"orgNos":null,"nowTime":null,"countyName":null,"streetName":null,"villageName":null,"roadName":null,"communityName":null,"tranName":null,"sdLineName":null,"cityCode":"1340625","cityName":"国网易县供电公司","provinceCode":null,"stopTime":"2020-04-24 16:00:00","powerType":"全部","powerOffArea":"【全线路停电】停吕村4#,北林村1#,台坛村6#,东娄山村2#,孔山村1#村东（农）,沈村2#,北京地矿东娄山（B）,北林村4#【纯农排变】,绿地土地4号,易县林海页岩矿业有限公司50KVA,东娄山村3#,北林村2#,吕村7#变压器,吕村9号变压器【纯农排变】,林明采沙场-B250,吕村6#,尉都村10号变压器,台坛村2#,中冶地勘东娄山3号100,朔内村5#,南林村7#,朔内村2#,尉都村3#,易县晨尧采砂场315KVA,东城阳村3#,尉都纸厂,滑金柱变压器,西城阳村4#,易县林海页岩矿业有限公司变压器2,东城阳村1#,易县林海页岩矿业有限公司变压器1,林明采沙场-C100,林明采沙场-A250,西城阳村5号,东城阳村2#,中冶地勘2号160,西城阳村2#,沈村4#,泰和土地整理服务有限公司-吕村50KVA,台坛村1#,北林7#,尉都面粉厂,孔山村2#村东（农）,沈村1#,东城阳4#,中冶地勘吕村50,南林村6#,绿地土地6号,易县方远建材有限公司变压器,中冶地勘东娄山2号50,尉都村4#,吕村1#,朔内村1#,绿地土地3号,东娄山村8#,台坛村4#,台坛村5#,东娄山村1#,吕村2#,吕村8号变压器【纯农排变】,绿地土地2号,易县雷鸣土地整理服务有限公司-1号170112309245-100KVA,北林村6#,南林村1#,东娄山村6#,尉都村2#,吕村马术河变压器,沈村3#,尉都村7#,西城阳村3#,朔内村7#,北京地矿东娄山A,易县长宇石材加工厂,台坛村3#,河北大午农牧集团有限公司变压器,南林村4#,南林村5#,东娄山10号变压器,尉都村9#,东娄山11号变压器,北林村3#,绿地土地1号,东娄山村7#,朔内村6#,朔内村4#,石家庄市紫光艺术品有限公司,南林村3#,绿地土地5号,西城阳村1#,东娄山村4#,北林村5#,吕村3#,东娄山村5#,南林村2#,吕村5#,朔内村3#,台坛7号变压器,东娄山村9#","powerOffReason":"【停电原因】由于线路接地导致１１０ＫＶ塘湖变电站吕村５３３线路全线路停电【变更送电】因抢修进度加快原因，送电时间由１８：００变更为１６：００【发布渠道】通过９５５９８发布","powerOffId":"2020042413000263"},{"poweroffId":2020042413000260,"sgpoweroffId":null,"subsName":"","lineName":"10kV566南陈纸厂线","pubTranName":"宋岗综合8台区,蠡县永兴庄摩托车修理店,宋岗农用,宋岗果园,永兴庄综合1台区,宋岗综合7台区,宋岗综合1台区,永兴庄综合3台区,堤内陈综合2台区,堤内陈综合1台区,堤内养猪厂,南陈综合4台区,永兴庄综合2台区,永兴庄综合4台区,宋岗综合4台区,宋岗西农,宋岗综合3台区,永兴庄小学综合5台区柱上变压器,南陈综合2台区,宋岗综合2台区,宋岗综合6台区,南陈综合1台区（宋岗）,宋岗综合5台区,","scope":"【影响街道/乡镇】南庄镇【高危重要客户】无【影响客户】利源造纸有限公司、宋岗村、堤内陈村、南陈村、永兴庄村","startTime":"2020-04-24 13:04:10","stopDate":"2020-04-24 15:30:00","orgNo":"1340616","typeCode":"电网故障停限电","poweroffArea":"【全线路停电】停堤内陈综合2台区,宋岗综合8台区,蠡县永兴庄摩托车修理店,宋岗农用,宋岗果园,永兴庄综合1台区,宋岗综合7台区,宋岗综合1台区,永兴庄综合3台区,宋岗综合5台区,堤内陈综合1台区,堤内养猪厂,南陈综合4台区,永兴庄综合2台区,永兴庄综合4台区,宋岗综合4台区,宋岗西农,宋岗综合3台区,永兴庄小学综合5台区柱上变压器,南陈综合2台区,宋岗综合2台区,宋岗综合6台区,南陈综合1台区（宋岗）","poweroffReason":"【停电原因】由于站内１０ＫＶ２号母线接地导致１１０ＫＶ南庄变电站１０ＫＶ南陈纸厂５６６线路全线停电【变更送电】因抢修进度加快原因，送电时间由２３：００变更为１５：３０【发布渠道】通过９５５９８发布","powerTime":"2020-04-24 15:03:27","powerComm":"已送电","subsNo":"","lineNo":"","tgNo":"","tgName":null,"infoStatus":"1","orgName":"国网蠡县供电公司","typeName":null,"infoStatusName":null,"dateDay":null,"orgNos":null,"nowTime":null,"countyName":null,"streetName":null,"villageName":null,"roadName":null,"communityName":null,"tranName":null,"sdLineName":null,"cityCode":"1340616","cityName":"国网蠡县供电公司","provinceCode":null,"stopTime":"2020-04-24 15:30:00","powerType":"全部","powerOffArea":"【全线路停电】停堤内陈综合2台区,宋岗综合8台区,蠡县永兴庄摩托车修理店,宋岗农用,宋岗果园,永兴庄综合1台区,宋岗综合7台区,宋岗综合1台区,永兴庄综合3台区,宋岗综合5台区,堤内陈综合1台区,堤内养猪厂,南陈综合4台区,永兴庄综合2台区,永兴庄综合4台区,宋岗综合4台区,宋岗西农,宋岗综合3台区,永兴庄小学综合5台区柱上变压器,南陈综合2台区,宋岗综合2台区,宋岗综合6台区,南陈综合1台区（宋岗）","powerOffReason":"【停电原因】由于站内１０ＫＶ２号母线接地导致１１０ＫＶ南庄变电站１０ＫＶ南陈纸厂５６６线路全线停电【变更送电】因抢修进度加快原因，送电时间由２３：００变更为１５：３０【发布渠道】通过９５５９８发布","powerOffId":"2020042413000260"},{"poweroffId":2020042413000257,"sgpoweroffId":null,"subsName":"","lineName":"10kV567三孟尝线","pubTranName":"中孟农排4台区【纯农排变】,中孟尝综合8台区,中孟综合2台区,西孟综合6台区,中孟综合5台区,西孟综合1台区,中孟农排11台区【纯农排变】,东孟尝综合4台区,东孟综合2台区,西孟综合5台区,西孟综合4台区,东孟综合1台区,东孟农排4台区【纯农排变】,永兴庄农排1台区【纯农排变】,西孟尝农排8台区【纯农排变】,中孟农排10台区【纯农排变】,中孟尝小学,中孟农排1台区【纯农排变】,东孟尝综合5台区,中孟尝综合7台区,中孟尝农排13台区【纯农排变】,中孟农排3台区【纯农排变】,西孟农排7台区【纯农排变】,中孟综合3台区,中孟综合6台区,西孟综合2台区,中孟尝综合9台区,东孟综合3台区,中孟综合1台区,东孟农排3台区【纯农排变】,永兴庄农排2台区【纯农排变】,西孟农排3台区【纯农排变】,西孟综合3台区,永兴庄农排4台区【纯农排变】,中孟综合4台区,","scope":"【影响街道/乡镇】鲍墟乡、南庄镇【高危重要客户】无【影响客户】西孟尝村、中孟尝村、东孟尝村、","startTime":"2020-04-24 13:01:26","stopDate":"2020-04-24 15:30:00","orgNo":"1340616","typeCode":"电网故障停限电","poweroffArea":"【全线路停电】停南陈农排1台区【纯农排变】,西孟农排4台区【纯农排变】,中孟农排9台区【纯农排变】,中孟尝综合7台区,东孟综合1台区,中孟农排1台区【纯农排变】,中孟农排4台区【纯农排变】,中孟综合1台区,东孟综合3台区,永兴庄农排4台区【纯农排变】,中孟尝综合8台区,东孟尝综合5台区,西孟尝农排8台区【纯农排变】,西孟农排5台区【纯农排变】,东孟农排4台区【纯农排变】,西孟农排2台区【纯农排变】,中孟农排10台区【纯农排变】,中孟尝小学,中孟尝农排13台区【纯农排变】,东孟农排2台区【纯农排变】,西孟农排1台区【纯农排变】,西孟农排7台区【纯农排变】,中孟综合5台区,中孟农排11台区【纯农排变】,东孟尝综合4台区,西孟综合4台区,中国移动通信河北有限公司蠡县分公司变压器,西孟综合3台区,东孟农排3台区【纯农排变】,联通,中孟农排5台区【纯农排变】,中孟综合4台区,中孟综合3台区,西孟农排6台区【纯农排变】,西孟综合6台区,东孟农排7台区【纯农排变】,永兴庄农排1台区【纯农排变】,中孟面粉厂,东孟农排1台区【纯农排变】,中孟农排12台区【纯农排变】,东孟综合2台区,中孟农排14台区【纯农排变】,种子站,中孟农排3台区【纯农排变】,西孟农排3台区【纯农排变】,西孟综合5台区,东孟农排6台区【纯农排变】,中孟综合6台区,东孟农排5台区【纯农排变】,中孟综合2台区,中孟尝综合9台区,中孟农排2台区【纯农排变】,中孟农排7台区【纯农排变】,永兴庄农排2台区【纯农排变】,中孟农排6台区【纯农排变】,中孟农排8台区【纯农排变】,西孟综合1台区,西孟综合2台区","poweroffReason":"【停电原因】由于站内１０ＫＶ２号母线接地导致１１０ＫＶ南庄变电站１０ＫＶ三孟尝５６７线路全线停电【变更送电】因抢修进度加快原因，送电时间由２３：００变更为１５：３０【发布渠道】通过９５５９８发布","powerTime":"2020-04-24 15:03:59","powerComm":"已送电","subsNo":"","lineNo":"","tgNo":"","tgName":null,"infoStatus":"1","orgName":"国网蠡县供电公司","typeName":null,"infoStatusName":null,"dateDay":null,"orgNos":null,"nowTime":null,"countyName":null,"streetName":null,"villageName":null,"roadName":null,"communityName":null,"tranName":null,"sdLineName":null,"cityCode":"1340616","cityName":"国网蠡县供电公司","provinceCode":null,"stopTime":"2020-04-24 15:30:00","powerType":"全部","powerOffArea":"【全线路停电】停南陈农排1台区【纯农排变】,西孟农排4台区【纯农排变】,中孟农排9台区【纯农排变】,中孟尝综合7台区,东孟综合1台区,中孟农排1台区【纯农排变】,中孟农排4台区【纯农排变】,中孟综合1台区,东孟综合3台区,永兴庄农排4台区【纯农排变】,中孟尝综合8台区,东孟尝综合5台区,西孟尝农排8台区【纯农排变】,西孟农排5台区【纯农排变】,东孟农排4台区【纯农排变】,西孟农排2台区【纯农排变】,中孟农排10台区【纯农排变】,中孟尝小学,中孟尝农排13台区【纯农排变】,东孟农排2台区【纯农排变】,西孟农排1台区【纯农排变】,西孟农排7台区【纯农排变】,中孟综合5台区,中孟农排11台区【纯农排变】,东孟尝综合4台区,西孟综合4台区,中国移动通信河北有限公司蠡县分公司变压器,西孟综合3台区,东孟农排3台区【纯农排变】,联通,中孟农排5台区【纯农排变】,中孟综合4台区,中孟综合3台区,西孟农排6台区【纯农排变】,西孟综合6台区,东孟农排7台区【纯农排变】,永兴庄农排1台区【纯农排变】,中孟面粉厂,东孟农排1台区【纯农排变】,中孟农排12台区【纯农排变】,东孟综合2台区,中孟农排14台区【纯农排变】,种子站,中孟农排3台区【纯农排变】,西孟农排3台区【纯农排变】,西孟综合5台区,东孟农排6台区【纯农排变】,中孟综合6台区,东孟农排5台区【纯农排变】,中孟综合2台区,中孟尝综合9台区,中孟农排2台区【纯农排变】,中孟农排7台区【纯农排变】,永兴庄农排2台区【纯农排变】,中孟农排6台区【纯农排变】,中孟农排8台区【纯农排变】,西孟综合1台区,西孟综合2台区","powerOffReason":"【停电原因】由于站内１０ＫＶ２号母线接地导致１１０ＫＶ南庄变电站１０ＫＶ三孟尝５６７线路全线停电【变更送电】因抢修进度加快原因，送电时间由２３：００变更为１５：３０【发布渠道】通过９５５９８发布","powerOffId":"2020042413000257"},{"poweroffId":2020042413000254,"sgpoweroffId":null,"subsName":"","lineName":"10kV568楮岗线","pubTranName":"李东农排11台区【纯农排变】,李西农排12台区【纯农排变】,褚岗综合6台区,褚岗农排1台区【纯农排变】,褚岗综合2台区,李西综合13台区变压器,李东综合8台区,李东农排6台区【纯农排变】,李东农排2台区【纯农排变】,李西综合12台区,李东农排16台区【纯农排变】,李东综合9台区,褚岗综合8台区,李东农排15台区【纯农排变】,褚岗综合1台区,李西农排6台区【纯农排变】,李东综合1台区,李东综合6台区,李东农排12台区【纯农排变】,褚岗综合7台区,李西综合7台区,李西综合2台区,李东综合3台区,李西综合4台区,李东综合4台区,李西综合10台区,褚岗农排4台区【纯农排变】,褚岗综合5台区,李西综合9台区,李西综合5台区,褚岗综合4台区,李西农排4台区【纯农排变】,褚岗农排8台区【纯农排变】,李西综合6台区【纯农排变】,李西综合3台区,李西综合8台区,褚岗农排7台区【纯农排变】,褚岗综合3台区,李东综合7台区,李西综合1台区,李东综合2台区,李东农排7台区【纯农排变】,李东农排13台区【纯农排变】,李东综合5台区,褚岗农排10台区【纯农排变】,李西农排2台区【纯农排变】,褚岗农排5台区【纯农排变】,李西综合11台区,李东农排10台区【纯农排变】,李西农排10台区【纯农排变】,李东农排9台区【纯农排变】,","scope":"【影响街道/乡镇】南庄镇【高危重要客户】无【影响客户】褚岗村、李岗西村（李西）、李岗东村（李东）、李岗南村（李南）","startTime":"2020-04-24 12:58:47","stopDate":"2020-04-24 15:30:00","orgNo":"1340616","typeCode":"电网故障停限电","poweroffArea":"【全线路停电】停褚岗综合5台区,李西农排8台区【纯农排变】,李东综合6台区,褚岗农排8台区【纯农排变】,李西农排12台区【纯农排变】,褚岗综合4台区,李西农排6台区【纯农排变】,李东综合8台区,李西农排9台区【纯农排变】,李东老开,李西综合5台区,蠡县华奥工艺制香厂,李东农排4台区【纯农排变】,褚岗综合1台区,褚岗农排3台区【纯农排变】,李东二强,棉油厂,褚岗综合8台区,加油站,李东农排10台区【纯农排变】,李西农排10台区【纯农排变】,李西综合12台区合8台区,","poweroffReason":"【停电原因】由于站内１０ＫＶ２号母线接地导致１１０ＫＶ南庄变电站１０ＫＶ楮岗５６８线路全线停电【变更送电】因抢修进度加快原因，送电时间由２３：００变更为１５：３０【发布渠道】通过９５５９８发布","powerTime":"2020-04-24 15:07:15","powerComm":"已送电","subsNo":"","lineNo":"","tgNo":"","tgName":null,"infoStatus":"1","orgName":"国网蠡县供电公司","typeName":null,"infoStatusName":null,"dateDay":null,"orgNos":null,"nowTime":null,"countyName":null,"streetName":null,"villageName":null,"roadName":null,"communityName":null,"tranName":null,"sdLineName":null,"cityCode":"1340616","cityName":"国网蠡县供电公司","provinceCode":null,"stopTime":"2020-04-24 15:30:00","powerType":"全部","powerOffArea":"【全线路停电】停褚岗综合5台区,李西农排8台区【纯农排变】,李东综合6台区,褚岗农排8台区【纯农排变】,李西农排12台区【纯农排变】,褚岗综合4台区,李西农排6台区【纯农排变】,李东综合8台区,李西农排9台区【纯农排变】,李东老开,李西综合5台区,蠡县华奥工艺制香厂,李东农排4台区【纯农排变】,褚岗综合1台区,褚岗农排3台区【纯农排变】,李东二强,棉油厂,褚岗综合8台区,加油站,李东农排10台区【纯农排变】,李西农排10台区【纯农排变】,李西综合12台区合8台区,","powerOffReason":"【停电原因】由于站内１０ＫＶ２号母线接地导致１１０ＫＶ南庄变电站１０ＫＶ楮岗５６８线路全线停电【变更送电】因抢修进度加快原因，送电时间由２３：００变更为１５：３０【发布渠道】通过９５５９８发布","powerOffId":"2020042413000254"},{"poweroffId":2020042413000250,"sgpoweroffId":null,"subsName":"","lineName":"南胡渠线515","pubTranName":"南营1号,","scope":"【影响街道/乡镇】史端乡 【高危重要客户】无 【影响客户】徐庄、南营村、下河西村","startTime":"2020-04-24 12:52:00","stopDate":"2020-04-24 14:30:00","orgNo":"1340605","typeCode":"电网故障停限电","poweroffArea":"【全线路停电】停徐庄7号,河北普康医疗设备有限公司,南营1号,天津鑫利泰再生资源回收有限公司,徐水县长峰金工有限公司2号,南营4号,徐庄2号,徐庄1号,徐水县长峰金属结构有限公司,南营2号,下河西供35号,徐水县中鼎废旧金属回收有限公司,南营13号,徐庄5号,南营3号,河北普康医疗设备有限公司3号","poweroffReason":"【停电原因】由于Ｂ相接地导致３５ＫＶ下河西变电站南胡渠线５１５线路全线停电 【变更送电】因抢修进度加快原因，送电时间由１８:００变更为１４:３０ 【发布渠道】通过９５５９８发布","powerTime":"2020-04-24 14:02:32","powerComm":"已送电","subsNo":"","lineNo":"","tgNo":"","tgName":null,"infoStatus":"1","orgName":"国网徐水县供电公司","typeName":null,"infoStatusName":null,"dateDay":null,"orgNos":null,"nowTime":null,"countyName":null,"streetName":null,"villageName":null,"roadName":null,"communityName":null,"tranName":null,"sdLineName":null,"cityCode":"1340605","cityName":"国网徐水县供电公司","provinceCode":null,"stopTime":"2020-04-24 14:30:00","powerType":"全部","powerOffArea":"【全线路停电】停徐庄7号,河北普康医疗设备有限公司,南营1号,天津鑫利泰再生资源回收有限公司,徐水县长峰金工有限公司2号,南营4号,徐庄2号,徐庄1号,徐水县长峰金属结构有限公司,南营2号,下河西供35号,徐水县中鼎废旧金属回收有限公司,南营13号,徐庄5号,南营3号,河北普康医疗设备有限公司3号","powerOffReason":"【停电原因】由于Ｂ相接地导致３５ＫＶ下河西变电站南胡渠线５１５线路全线停电 【变更送电】因抢修进度加快原因，送电时间由１８:００变更为１４:３０ 【发布渠道】通过９５５９８发布","powerOffId":"2020042413000250"},{"poweroffId":2020042413000245,"sgpoweroffId":null,"subsName":"","lineName":"下河西线516","pubTranName":"10kV516下河西线下河西供51号,","scope":"【影响街道/乡镇】史端乡 【高危重要客户】无 【影响客户】下河西村、南营村、徐庄","startTime":"2020-04-24 12:53:33","stopDate":"2020-04-24 15:00:00","orgNo":"1340605","typeCode":"电网故障停限电","poweroffArea":"【全线路停电】停10kV516下河西线下河西6号,10kV516下河西线南营6号,10kV516下河西线南营8号,河北金鼎天力吊索具有限公司,10kV516下河西线下河西供15号,中国联合网络通信有限公司徐水县分公司史端,10kV516下河西线下河西3号,10kV516下河西线南营9号,10kV516下河西线下河西7号,河北德荣机械配件制造有限公司,徐水县双隆粮食贸易有限公司,10kV516下河西线南营7号,中国联合网络通信有限公司徐水分公司史端,冀中钢模厂,10kV516下河西线下河西供67号,河北龙巢门业有限公司,10kV516下河西线徐庄供57号,保定绿世纪龙肥有限公司,河北绿风集团有限公司2号,长峰金工有限公司1号,10kV516下河西线下河西8号,变压器,10kV516下河西线下河西供84号,10kV516下河西线下河西供51号,10kV516下河西线下河西供89号,10kV516下河西线下河西2号,10kV516下河西线下河西供50号,10kV516下河西线南营供56号,徐水县天源贸易有限公司,10kV516下河西线南营10号","poweroffReason":"【停电原因】由于Ｂ相接地导致３５ＫＶ下河西变电站下河西线５１６线路全线停电 【变更送电】因抢修进度加快原因，送电时间由１８:００变更为１５:００ 【发布渠道】通过９５５９８发布","powerTime":"2020-04-24 14:15:26","powerComm":"已送电","subsNo":"","lineNo":"","tgNo":"","tgName":null,"infoStatus":"1","orgName":"国网徐水县供电公司","typeName":null,"infoStatusName":null,"dateDay":null,"orgNos":null,"nowTime":null,"countyName":null,"streetName":null,"villageName":null,"roadName":null,"communityName":null,"tranName":null,"sdLineName":null,"cityCode":"1340605","cityName":"国网徐水县供电公司","provinceCode":null,"stopTime":"2020-04-24 15:00:00","powerType":"全部","powerOffArea":"【全线路停电】停10kV516下河西线下河西6号,10kV516下河西线南营6号,10kV516下河西线南营8号,河北金鼎天力吊索具有限公司,10kV516下河西线下河西供15号,中国联合网络通信有限公司徐水县分公司史端,10kV516下河西线下河西3号,10kV516下河西线南营9号,10kV516下河西线下河西7号,河北德荣机械配件制造有限公司,徐水县双隆粮食贸易有限公司,10kV516下河西线南营7号,中国联合网络通信有限公司徐水分公司史端,冀中钢模厂,10kV516下河西线下河西供67号,河北龙巢门业有限公司,10kV516下河西线徐庄供57号,保定绿世纪龙肥有限公司,河北绿风集团有限公司2号,长峰金工有限公司1号,10kV516下河西线下河西8号,变压器,10kV516下河西线下河西供84号,10kV516下河西线下河西供51号,10kV516下河西线下河西供89号,10kV516下河西线下河西2号,10kV516下河西线下河西供50号,10kV516下河西线南营供56号,徐水县天源贸易有限公司,10kV516下河西线南营10号","powerOffReason":"【停电原因】由于Ｂ相接地导致３５ＫＶ下河西变电站下河西线５１６线路全线停电 【变更送电】因抢修进度加快原因，送电时间由１８:００变更为１５:００ 【发布渠道】通过９５５９８发布","powerOffId":"2020042413000245"},{"poweroffId":2020042413000243,"sgpoweroffId":null,"subsName":"","lineName":"10kV570四鲍墟线","pubTranName":"北鲍墟综合7台区,南保去综合3台区,东保去综合4台区,西鲍墟综合7台区,北鲍墟综合8台区,南鲍墟综合9台区,南保去综合1台区,西鲍墟综合6台区,西鲍墟综合8台区,北鲍墟综合9台区,南鲍墟综合4台区,北保去综合2台区,客户投资_北保去综合3台区,东保去综合3台区,西保去综合4台区,西保去综合3台区,南保去综合2台区,东保去综合1台区,南鲍墟综合10台区,西保去综合2台区,西保去综合5台区,南鲍墟综合6台区,西鲍墟综合9台区【冬季供暖设施】,东鲍墟综合6台区,西保去综合1台区,南鲍墟农排8台区,北鲍墟综合5台区,北保去综合1台区,东鲍墟综合7台区,南鲍墟综合7台区,北鲍墟综合4台区,北鲍墟综合6台区,南鲍墟综合5台区,南鲍墟综合8台区,北鲍墟综合10台区【冬季供暖设施】,东鲍墟综合5台区,东保去综合2台区,","scope":"【影响街道/乡镇】鲍墟乡【高危重要客户】无【影响客户】东鲍墟村、西鲍墟村、南鲍墟村、北鲍墟村","startTime":"2020-04-24 12:55:00","stopDate":"2020-04-24 15:30:00","orgNo":"1340616","typeCode":"电网故障停限电","poweroffArea":"【全线路停电】停进托,东鲍墟综合7台区,南鲍墟综合7台区,东保去综合4台区,西鲍墟综合7台区,北鲍墟综合8台区,南保去综合1台区,西鲍墟综合6台区,西鲍墟综合8台区,北鲍墟综合9台区,北鲍墟综合10台区【冬季供暖设施】,东保去综合3台区,西保去综合1台区,瑞兴宏景变压器500,南保去综合2台区,西保去综合2台区,西保去综合5台区,南鲍墟综合6台区,西鲍墟综合9台区【冬季供暖设施】,北鲍墟综合4台区,蠡县亿帮洁日化有限公司,北鲍墟综合6台区,南鲍墟综合5台区,南鲍墟综合8台区,东鲍墟综合5台区,东保去综合2台区,客户投资_北保去综合3台区,南鲍墟农排8台区,北鲍墟综合5台区,保去社办厂,北鲍墟综合7台区,保定江雄商品混凝土有限公司变压器,南保去综合3台区,南鲍墟综合9台区,东保去综合1台区,南保红亮,保去中学变压器,南鲍墟综合10台区,瑞兴宏景变压器315,种子站,东鲍墟综合6台区,文瑞,南鲍墟综合4台区,北保去综合2台区,西保去综合4台区,西保去综合3台区,北保去综合1台区","poweroffReason":"【停电原因】由于站内１０ＫＶ２号母线接地导致１１０ＫＶ南庄变电站１０ＫＶ四鲍墟５７０线路全线停电【变更送电】因抢修进度加快原因，送电时间由２３：００变更为１５：３０【发布渠道】通过９５５９８发布","powerTime":"2020-04-24 15:08:35","powerComm":"已送电","subsNo":"","lineNo":"","tgNo":"","tgName":null,"infoStatus":"1","orgName":"国网蠡县供电公司","typeName":null,"infoStatusName":null,"dateDay":null,"orgNos":null,"nowTime":null,"countyName":null,"streetName":null,"villageName":null,"roadName":null,"communityName":null,"tranName":null,"sdLineName":null,"cityCode":"1340616","cityName":"国网蠡县供电公司","provinceCode":null,"stopTime":"2020-04-24 15:30:00","powerType":"全部","powerOffArea":"【全线路停电】停进托,东鲍墟综合7台区,南鲍墟综合7台区,东保去综合4台区,西鲍墟综合7台区,北鲍墟综合8台区,南保去综合1台区,西鲍墟综合6台区,西鲍墟综合8台区,北鲍墟综合9台区,北鲍墟综合10台区【冬季供暖设施】,东保去综合3台区,西保去综合1台区,瑞兴宏景变压器500,南保去综合2台区,西保去综合2台区,西保去综合5台区,南鲍墟综合6台区,西鲍墟综合9台区【冬季供暖设施】,北鲍墟综合4台区,蠡县亿帮洁日化有限公司,北鲍墟综合6台区,南鲍墟综合5台区,南鲍墟综合8台区,东鲍墟综合5台区,东保去综合2台区,客户投资_北保去综合3台区,南鲍墟农排8台区,北鲍墟综合5台区,保去社办厂,北鲍墟综合7台区,保定江雄商品混凝土有限公司变压器,南保去综合3台区,南鲍墟综合9台区,东保去综合1台区,南保红亮,保去中学变压器,南鲍墟综合10台区,瑞兴宏景变压器315,种子站,东鲍墟综合6台区,文瑞,南鲍墟综合4台区,北保去综合2台区,西保去综合4台区,西保去综合3台区,北保去综合1台区","powerOffReason":"【停电原因】由于站内１０ＫＶ２号母线接地导致１１０ＫＶ南庄变电站１０ＫＶ四鲍墟５７０线路全线停电【变更送电】因抢修进度加快原因，送电时间由２３：００变更为１５：３０【发布渠道】通过９５５９８发布","powerOffId":"2020042413000243"},{"poweroffId":2020042413000231,"sgpoweroffId":null,"subsName":"","lineName":"大燕桥线513","pubTranName":"易县国鑫能源有限公司250kva,北石楼4台区机井变压器,中鑫矿业办公生活区80,鹁鸽岩村4#村东,神石庄村2#【纯农排变】,易县先创建材有限公司二期B1250,大雁桥7台区变压器,神石庄钙粉厂,大雁桥3#|大牌楼变压器【纯农排变】,南石楼9台区变压器,冯家庄1#,易县南石楼石灰厂变压器2,杨格庄村4#村南【纯农排变】,东旮旯村晋永海-100KVA,南石楼8台区,龙里华村【纯农排变】,西水冶村2#变压器,大南头村2#村东,西水冶3台区变压器,南石楼村2#|北变压器,神石庄信用社,易县金景盛矿业有限公司变压器4,东水冶村2台区变压器,北石楼村2#村东北（综）变压器,小南头村2#变压器,神石庄村委会1号,杨格庄村2#|村北,易县金景盛矿业有限公司变压器5,杨格庄村6#变压器,南石楼村1#|南变压器,神石庄村1#,易县东水矿业有限公司变压器2,西水冶灌渠,鹁鸽岩村2#|村中,神石庄中心小学400KVA,大南头村1#|村南,西水冶村1#变压器,北石楼3号公用,神石庄16#【纯农排变】,神石庄7号变压器,神石庄村8#,龙堂村1#|村北,大南头村4#变压器,三和庄村1#,大雁桥村4#村东（综）变压器,杨格庄村3#村北,大雁桥村5#村北（综）变压器,神石庄20台区变压器,南石楼村4#|陈家庄北变压器,杨格庄村5#变压器,小南头村1#|村东,南石楼6号公用,龙塘村2#村东,大南头村5#,大雁桥村2#|村东北变压器,客户投资_神石庄10#,北福地村1#,胜利北渠,大雁桥8台区变压器,新畔石8台区机井变压器,三合庄2#|村东北变压器,易县盛奇达建材有限公司A2500,鼎晟钙业变压器,鹁鸽岩村1#|村北,南石楼5#村西(农)变压器,","scope":"【影响街道/乡镇】裴山镇、西陵镇、高村乡【高危重要客户】无【影响客户】北东庄村、小南头村、大南头村、龙堂村、鹁鸽岩村、冯家庄村、杨格庄村、三合庄村、南石楼村、北福地村、西水冶村、柏木井村、北石楼村、大雁桥村、东水冶村","startTime":"2020-04-24 12:39:33","stopDate":"2020-04-24 14:00:00","orgNo":"1340625","typeCode":"电网故障停限电","poweroffArea":"【全线路停电】停北石楼村2#村东北（综）变压器,河北德正鸿业建材有限公司变压器400KVA(1),大南头村2#村东,河北德正鸿业建材有限公司变压器400KVA(2),神石庄村张洪超变压器,南石楼村2#|北变压器,西水冶3台区变压器,北石楼3号公用,易县众鑫森辉建材制造有限公司,龙塘村3#【纯农排变】,大龙华乡卫生院野里店分院80KVA,神石庄16#【纯农排变】,易县中鑫矿业有限公司800,易县先创建材有限公司二期A1250,神石庄7号变压器,神石庄村8#,易县先创建材有限公司二期C250,龙堂村1#|村北,大南头村4#变压器,易县盛奇达建材有限公司B2000,三和庄村1#,先创易成矿山开采有限公司250,南石楼庆福石料石灰,大雁桥村4#村东（综）变压器,客户投资_神石庄10#,杨格庄村3#村北,易县大正建材有限公司50,大雁桥村5#村北（综）变压器,南石楼张庆福石灰厂山下,易县东水矿业有限公司变压器1,易县东水矿业有限公司变压器3,神石庄20台区变压器,南石楼村4#|陈家庄北变压器,杨格庄村5#变压器,小南头村1#|村东,南石楼6号公用,龙塘村2#村东,裕兴木材变压器,大南头村5#,河北德正鸿业建材有限公司变压器100KVA,大雁桥村2#|村东北变压器,东旮旯村4#|村东,农|10116【纯农排变】,神石庄信用社,三和庄村3#,易县南石楼石灰厂变压器1,易县金景盛矿业有限公司变压器4,鹁鸽岩村3#|村南,东水冶村2台区变压器,小南头村2#变压器,南石楼村7#村北(综)变压器,南石楼村张俊青变压器,神石庄村委会1号,杨格庄村2#|村北,北石楼5台区【纯农排变】,易县金景盛矿业有限公司变压器5,南石楼村3#|七队分支【纯农排变】,易县金景盛矿业有限公司变压器7,神石庄村史全才变压器,桂英钙粉厂（160KVA）,易县先创易成矿山开采有限公司1250,大龙华野里店教学点160KVA,神石庄荣建木材加工厂,易县盛奇达建材有限公司A2500,东水冶2台区变压器,鼎晟钙业变压器,鹁鸽岩村5#变压器,易县大正建材有限公司160,东旮旯村晋永海-100KVA,鹁鸽岩村6#变压器,易县国鑫能源有限公司250kva,北石楼4台区机井变压器,杨格庄村1#|村中,易县东水矿业有限公司,中鑫矿业办公生活区80,东旮旯村7台区机井柱上变压器,易县金景盛矿业有限公司变压器8,陈海录变压器,胜利北渠,鹁鸽岩村1#|村北,大雁桥8台区变压器,南石楼5#村西(农)变压器,大雁桥村1#|村中变压器,北白虹张金良,西水冶灌渠,杨格庄村6#变压器,南石楼村1#|南变压器,神石庄村1#,北石楼村1#|村中变压器,神石庄村委会3号,易县众和发牲畜饲养有限公司50,易县东水矿业有限公司变压器2,鹁鸽岩村2#|村中,大南头村3#变压器,神石庄中心小学400KVA,大南头村1#|村南,西水冶村1#变压器,北福地村1#,新畔石8台区机井变压器,三合庄2#|村东北变压器,神石庄村2#【纯农排变】,鹁鸽岩村4#村东,大雁桥9台区变压器,易县先创建材有限公司二期B1250,大雁桥7台区变压器,神石庄村19#【纯农排变】,神石庄村委会2号,义民面粉厂(郭术凯),神石庄钙粉厂,大雁桥3#|大牌楼变压器【纯农排变】,南石楼9台区变压器,冯家庄1#,东水冶村1台区变压器,易县金景盛矿业有限公司变压器6,易县南石楼石灰厂变压器2,大雁桥6号变压器,杨格庄村4#村南【纯农排变】,南石楼8台区,龙里华村【纯农排变】,西水冶村2#变压器,东水冶村3#","poweroffReason":"【停电原因】由于线路接地导致１１０ＫＶ西陵变电站大燕桥５１３线路全线路停电【变更送电】因抢修进度加快原因，送电时间由１７：００变更为１４：００【发布渠道】通过９５５９８发布","powerTime":"2020-04-24 13:20:29","powerComm":"已送电","subsNo":"","lineNo":"","tgNo":"","tgName":null,"infoStatus":"1","orgName":"国网易县供电公司","typeName":null,"infoStatusName":null,"dateDay":null,"orgNos":null,"nowTime":null,"countyName":null,"streetName":null,"villageName":null,"roadName":null,"communityName":null,"tranName":null,"sdLineName":null,"cityCode":"1340625","cityName":"国网易县供电公司","provinceCode":null,"stopTime":"2020-04-24 14:00:00","powerType":"全部","powerOffArea":"【全线路停电】停北石楼村2#村东北（综）变压器,河北德正鸿业建材有限公司变压器400KVA(1),大南头村2#村东,河北德正鸿业建材有限公司变压器400KVA(2),神石庄村张洪超变压器,南石楼村2#|北变压器,西水冶3台区变压器,北石楼3号公用,易县众鑫森辉建材制造有限公司,龙塘村3#【纯农排变】,大龙华乡卫生院野里店分院80KVA,神石庄16#【纯农排变】,易县中鑫矿业有限公司800,易县先创建材有限公司二期A1250,神石庄7号变压器,神石庄村8#,易县先创建材有限公司二期C250,龙堂村1#|村北,大南头村4#变压器,易县盛奇达建材有限公司B2000,三和庄村1#,先创易成矿山开采有限公司250,南石楼庆福石料石灰,大雁桥村4#村东（综）变压器,客户投资_神石庄10#,杨格庄村3#村北,易县大正建材有限公司50,大雁桥村5#村北（综）变压器,南石楼张庆福石灰厂山下,易县东水矿业有限公司变压器1,易县东水矿业有限公司变压器3,神石庄20台区变压器,南石楼村4#|陈家庄北变压器,杨格庄村5#变压器,小南头村1#|村东,南石楼6号公用,龙塘村2#村东,裕兴木材变压器,大南头村5#,河北德正鸿业建材有限公司变压器100KVA,大雁桥村2#|村东北变压器,东旮旯村4#|村东,农|10116【纯农排变】,神石庄信用社,三和庄村3#,易县南石楼石灰厂变压器1,易县金景盛矿业有限公司变压器4,鹁鸽岩村3#|村南,东水冶村2台区变压器,小南头村2#变压器,南石楼村7#村北(综)变压器,南石楼村张俊青变压器,神石庄村委会1号,杨格庄村2#|村北,北石楼5台区【纯农排变】,易县金景盛矿业有限公司变压器5,南石楼村3#|七队分支【纯农排变】,易县金景盛矿业有限公司变压器7,神石庄村史全才变压器,桂英钙粉厂（160KVA）,易县先创易成矿山开采有限公司1250,大龙华野里店教学点160KVA,神石庄荣建木材加工厂,易县盛奇达建材有限公司A2500,东水冶2台区变压器,鼎晟钙业变压器,鹁鸽岩村5#变压器,易县大正建材有限公司160,东旮旯村晋永海-100KVA,鹁鸽岩村6#变压器,易县国鑫能源有限公司250kva,北石楼4台区机井变压器,杨格庄村1#|村中,易县东水矿业有限公司,中鑫矿业办公生活区80,东旮旯村7台区机井柱上变压器,易县金景盛矿业有限公司变压器8,陈海录变压器,胜利北渠,鹁鸽岩村1#|村北,大雁桥8台区变压器,南石楼5#村西(农)变压器,大雁桥村1#|村中变压器,北白虹张金良,西水冶灌渠,杨格庄村6#变压器,南石楼村1#|南变压器,神石庄村1#,北石楼村1#|村中变压器,神石庄村委会3号,易县众和发牲畜饲养有限公司50,易县东水矿业有限公司变压器2,鹁鸽岩村2#|村中,大南头村3#变压器,神石庄中心小学400KVA,大南头村1#|村南,西水冶村1#变压器,北福地村1#,新畔石8台区机井变压器,三合庄2#|村东北变压器,神石庄村2#【纯农排变】,鹁鸽岩村4#村东,大雁桥9台区变压器,易县先创建材有限公司二期B1250,大雁桥7台区变压器,神石庄村19#【纯农排变】,神石庄村委会2号,义民面粉厂(郭术凯),神石庄钙粉厂,大雁桥3#|大牌楼变压器【纯农排变】,南石楼9台区变压器,冯家庄1#,东水冶村1台区变压器,易县金景盛矿业有限公司变压器6,易县南石楼石灰厂变压器2,大雁桥6号变压器,杨格庄村4#村南【纯农排变】,南石楼8台区,龙里华村【纯农排变】,西水冶村2#变压器,东水冶村3#","powerOffReason":"【停电原因】由于线路接地导致１１０ＫＶ西陵变电站大燕桥５１３线路全线路停电【变更送电】因抢修进度加快原因，送电时间由１７：００变更为１４：００【发布渠道】通过９５５９８发布","powerOffId":"2020042413000231"},{"poweroffId":2020042413000226,"sgpoweroffId":null,"subsName":"","lineName":"10kV513赵庄线","pubTranName":"西夫综合13台区变压器,赵庄综合1台区变压器,贾町综合4台区变压器,西夫综合6台区变压器,赵庄综合11台区变压器,西曹综合2台区变压器,西曹综合10台区变压器,西曹综合3台区变压器,赵庄综合16台区,中夫综合7台区变压器,贾町农排4台区变压器【纯农排变】,东曹综合4台区变压器,西侯农排2台区变压器【纯农排变】,东曹综合6台区变压器,西曹综合9台区变压器,赵庄综合14台区变压器,贾町综合2台区变压器,赵庄综合8台区变压器,东曹综合5台区变压器,赵庄综合13台区变压器,赵庄综合9台区变压器,赵庄综合15台区变压器,赵庄综合4台区变压器,西曹综合1台区变压器,西曹综合7台区变压器,东曹综合1台区变压器,西夫综合14台区变压器,贾町综合3台区变压器,赵庄综合17台区,中夫农排3台区变压器【纯农排变】,西夫综合5台区变压器,赵庄综合6台区变压器,中夫综合9台区变压器,中夫综合10台区变压器,西夫综合8台区变压器,中夫综合11台区变压器,","scope":"【影响街道/乡镇】留史镇【高危重要客户】无【影响客户】西曹佐村、西五夫村（西伍夫村）、中五夫村（中伍夫村）、西候佐村、东候佐村、赵庄村、北五夫村（北伍夫村）、贾町村、东曹佐村","startTime":"2020-05-03 05:00:00","stopDate":"2020-05-03 18:00:00","orgNo":"1340616","typeCode":"计划停电","poweroffArea":"【全线路停电】停0469430413-赵庄中学-专变-46809855-赵庄中学,赵庄综合8台区变压器,蠡县鼎裕辉绒毛有限公司变压器,赵庄面粉,西夫综合14台区变压器,赵庄综合9台区变压器,贾町综合2台区变压器,赵庄综合11台区变压器,东曹综合5台区变压器,中夫综合10台区变压器,西曹综合3台区变压器,赵庄综合14台区变压器,赵庄综合6台区变压器,西曹农排1台区变压器【纯农排变】,西夫综合5台区变压器,贾町综合4台区变压器,赵庄综合15台区变压器,中夫综合7台区变压器,中夫综合11台区变压器,蠡县留史镇一中变压器,东曹综合6台区变压器,东曹农排4台区变压器【纯农排变】,蠡县尚博饲养厂变压器,西夫农排8台区变压器【纯农排变】,赵庄综合13台区变压器,西夫综合8台区变压器,西曹综合10台区变压器,中夫农排3台区变压器【纯农排变】,西侯农排2台区变压器【纯农排变】,西侯农排1台区变压器【纯农排变】,西曹农排3台区变压器【纯农排变】,西曹农排2台区变压器【纯农排变】,赵庄综合1台区变压器,西夫农排4台区变压器【纯农排变】,西曹综合9台区变压器,0690915123-蠡县聚福物业服务有限公司-专变-234172226-蠡县聚福物业服务有限公司变压器,赵庄综合4台区变压器,贾町农排4台区变压器【纯农排变】,东曹综合4台区变压器,西曹综合1台区变压器,赵庄综合16台区,西夫综合13台区变压器,西夫综合6台区变压器,贾町农排1台区变压器【纯农排变】,西曹综合7台区变压器,中夫综合9台区变压器,东曹综合1台区变压器,西曹综合2台区变压器,贾町综合3台区变压器,赵庄综合17台区,中国移动通信集团河北有限公司蠡县分公司西夫村变压器","poweroffReason":"【停电原因】由于更换电杆、更换导线导致１１０ＫＶ留史变电站１０ＫＶ赵庄５１３线路全线停电【变更送电】无【发布渠道】河北省保定市蠡县电视台（２０２０年０４月２４日至２０２０年０５月０２日２０：００至２２：００之间）屏幕上方滚动","powerTime":"2020-05-03 17:20:32","powerComm":"已送电","subsNo":"","lineNo":"","tgNo":"","tgName":null,"infoStatus":"1","orgName":"国网蠡县供电公司","typeName":null,"infoStatusName":null,"dateDay":null,"orgNos":null,"nowTime":null,"countyName":null,"streetName":null,"villageName":null,"roadName":null,"communityName":null,"tranName":null,"sdLineName":null,"cityCode":"1340616","cityName":"国网蠡县供电公司","provinceCode":null,"stopTime":"2020-05-03 18:00:00","powerType":"全部","powerOffArea":"【全线路停电】停0469430413-赵庄中学-专变-46809855-赵庄中学,赵庄综合8台区变压器,蠡县鼎裕辉绒毛有限公司变压器,赵庄面粉,西夫综合14台区变压器,赵庄综合9台区变压器,贾町综合2台区变压器,赵庄综合11台区变压器,东曹综合5台区变压器,中夫综合10台区变压器,西曹综合3台区变压器,赵庄综合14台区变压器,赵庄综合6台区变压器,西曹农排1台区变压器【纯农排变】,西夫综合5台区变压器,贾町综合4台区变压器,赵庄综合15台区变压器,中夫综合7台区变压器,中夫综合11台区变压器,蠡县留史镇一中变压器,东曹综合6台区变压器,东曹农排4台区变压器【纯农排变】,蠡县尚博饲养厂变压器,西夫农排8台区变压器【纯农排变】,赵庄综合13台区变压器,西夫综合8台区变压器,西曹综合10台区变压器,中夫农排3台区变压器【纯农排变】,西侯农排2台区变压器【纯农排变】,西侯农排1台区变压器【纯农排变】,西曹农排3台区变压器【纯农排变】,西曹农排2台区变压器【纯农排变】,赵庄综合1台区变压器,西夫农排4台区变压器【纯农排变】,西曹综合9台区变压器,0690915123-蠡县聚福物业服务有限公司-专变-234172226-蠡县聚福物业服务有限公司变压器,赵庄综合4台区变压器,贾町农排4台区变压器【纯农排变】,东曹综合4台区变压器,西曹综合1台区变压器,赵庄综合16台区,西夫综合13台区变压器,西夫综合6台区变压器,贾町农排1台区变压器【纯农排变】,西曹综合7台区变压器,中夫综合9台区变压器,东曹综合1台区变压器,西曹综合2台区变压器,贾町综合3台区变压器,赵庄综合17台区,中国移动通信集团河北有限公司蠡县分公司西夫村变压器","powerOffReason":"【停电原因】由于更换电杆、更换导线导致１１０ＫＶ留史变电站１０ＫＶ赵庄５１３线路全线停电【变更送电】无【发布渠道】河北省保定市蠡县电视台（２０２０年０４月２４日至２０２０年０５月０２日２０：００至２２：００之间）屏幕上方滚动","powerOffId":"2020042413000226"},{"poweroffId":2020042413000224,"sgpoweroffId":null,"subsName":"","lineName":"10kV郎庄线574","pubTranName":"1郎庄内5,1郎庄内14,西赵庄内1号,1管庄内2,郎庄幼儿园,1杨庄内2（郎庄线590）,2郎庄外15【纯农排变】,1郎庄内6,郎庄内2,1郎庄内9,郎庄内4,1郎庄内13,1郎庄内12,1腾庄内2,郎庄内3,1杨庄内1,滕庄小学,1郎庄内16,1东五尧都市桃源内4,1东五尧都市桃源内2,1腾庄内4,1西赵庄内2,郎庄内1号,1东五尧都市桃源内1,1东五尧都市桃源内5,1腾庄内5,1腾庄内1,2杨庄外3【纯农排变】,1滕庄内7,1腾庄内3,1郎庄内11,1郎庄内8,1郎庄内15,1管庄内6,1东五尧都市桃源内3,1郎庄内7(郎庄590）,1腾庄内6,郎庄外4【纯农排变】,1郎庄内10,","scope":"【影响街道/乡镇】清苑镇、五尧乡 【高危重要客户】无 【影响客户】郎庄、西赵庄、管庄、都市桃源、腾庄、杨庄","startTime":"2020-04-24 12:30:51","stopDate":"2020-04-24 15:00:00","orgNo":"1340618","typeCode":"电网故障停限电","poweroffArea":"【全线路停电】停清苑县博皓塑料制品制造厂01,2管庄外1【纯农排变】,2郎庄外15【纯农排变】,1郎庄内6,西五尧李连祥草坪场,保定常青实业有限公司,2管庄外6【纯农排变】,清苑县博皓塑料制品制造厂,2管庄外3【纯农排变】,1郎庄内5,保定市金水湾纸业有限公司,1郎庄内14,西赵庄内1号,清苑县金水湾纸业有限公司01,2腾庄外3【纯农排变】,2腾庄外5【纯农排变】,1管庄内2,2西赵庄外2【纯农排变】,郎庄幼儿园,西五尧陈云才杆厂,郎庄外8【纯农排变】,1杨庄内2（郎庄线590）,2杨庄外5【纯农排变】,2西赵庄外3【纯农排变】,2郎庄外13【纯农排变】,2杨庄外2【纯农排变】,安庄外3【纯农排变】,郎庄内2,2杨庄外4【纯农排变】,郎庄外11【纯农排变】,滕庄小学,1郎庄内16,1东五尧都市桃源内4,顺发先进化工有限公司,1东五尧都市桃源内2,郎庄外10【纯农排变】,1腾庄内4,2郎庄外14【纯农排变】,2腾庄外8【纯农排变】,2腾庄外9【纯农排变】,安庄外1【纯农排变】,2管庄外5【纯农排变】,2郎庄外12【纯农排变】,郎庄外6【纯农排变】,清苑县兴旺氧化锌有限公司,滕庄郭红起养牛厂,袁进彪粉碎厂,2管庄外4【纯农排变】,1西赵庄内2,郎庄内1号,2杨庄外1【纯农排变】,2管庄外2【纯农排变】,1东五尧都市桃源内1,1东五尧都市桃源内5,1腾庄内5,1腾庄内1,2杨庄外3【纯农排变】,1滕庄内7,1腾庄内3,1郎庄内11,兴盛养牛场,清苑县格杰机械厂,1郎庄内8,1郎庄内15,1管庄内6,领峰绿源科技保定有限公司,保定常青实业集团有限公司,1东五尧都市桃源内3,1郎庄内7(郎庄590）,安庄外4【纯农排变】,1腾庄内6,2郎庄外7【纯农排变】,清苑县金水湾纸业有限公司,郎庄外4【纯农排变】,保定市南市区宇源园艺种植中心,1郎庄内10,1郎庄内9,0679869755-保定市宏图汽车零配件制造有限公司-专变-219725860-保定市宏图汽车零配件制造有限公司,2腾庄外4【纯农排变】,程长会,郎庄外9【纯农排变】,清苑县财政局,安庄外2【纯农排变】,农大2分厂仝保柱砖厂,郎庄外5【纯农排变】,2腾庄外2【纯农排变】,2腾庄外6【纯农排变】,郎庄内4,2腾庄外7【纯农排变】,2腾庄外10【纯农排变】,1郎庄内13,清苑县大兴奶牛养殖有限公司,1郎庄内12,2腾庄外1【纯农排变】,1腾庄内2,保定市清苑县中兴机械配件加工厂,郎庄内3,1杨庄内1","poweroffReason":"【停电原因】由于主干３５号杆分支１号杆郎庄纸厂树搭线导致１１０ＫＶ赵庄变电站１０ＫＶ郎庄线５７４线路全线停电 【变更送电】因抢修进度加快原因，送电时间由１８：００变更为１５：００ 【发布渠道】通过９５５９８发布","powerTime":"2020-04-24 14:23:36","powerComm":"郎宏斌通知已送电","subsNo":"","lineNo":"","tgNo":"","tgName":null,"infoStatus":"1","orgName":"国网清苑县供电公司","typeName":null,"infoStatusName":null,"dateDay":null,"orgNos":null,"nowTime":null,"countyName":null,"streetName":null,"villageName":null,"roadName":null,"communityName":null,"tranName":null,"sdLineName":null,"cityCode":"1340618","cityName":"国网清苑县供电公司","provinceCode":null,"stopTime":"2020-04-24 15:00:00","powerType":"全部","powerOffArea":"【全线路停电】停清苑县博皓塑料制品制造厂01,2管庄外1【纯农排变】,2郎庄外15【纯农排变】,1郎庄内6,西五尧李连祥草坪场,保定常青实业有限公司,2管庄外6【纯农排变】,清苑县博皓塑料制品制造厂,2管庄外3【纯农排变】,1郎庄内5,保定市金水湾纸业有限公司,1郎庄内14,西赵庄内1号,清苑县金水湾纸业有限公司01,2腾庄外3【纯农排变】,2腾庄外5【纯农排变】,1管庄内2,2西赵庄外2【纯农排变】,郎庄幼儿园,西五尧陈云才杆厂,郎庄外8【纯农排变】,1杨庄内2（郎庄线590）,2杨庄外5【纯农排变】,2西赵庄外3【纯农排变】,2郎庄外13【纯农排变】,2杨庄外2【纯农排变】,安庄外3【纯农排变】,郎庄内2,2杨庄外4【纯农排变】,郎庄外11【纯农排变】,滕庄小学,1郎庄内16,1东五尧都市桃源内4,顺发先进化工有限公司,1东五尧都市桃源内2,郎庄外10【纯农排变】,1腾庄内4,2郎庄外14【纯农排变】,2腾庄外8【纯农排变】,2腾庄外9【纯农排变】,安庄外1【纯农排变】,2管庄外5【纯农排变】,2郎庄外12【纯农排变】,郎庄外6【纯农排变】,清苑县兴旺氧化锌有限公司,滕庄郭红起养牛厂,袁进彪粉碎厂,2管庄外4【纯农排变】,1西赵庄内2,郎庄内1号,2杨庄外1【纯农排变】,2管庄外2【纯农排变】,1东五尧都市桃源内1,1东五尧都市桃源内5,1腾庄内5,1腾庄内1,2杨庄外3【纯农排变】,1滕庄内7,1腾庄内3,1郎庄内11,兴盛养牛场,清苑县格杰机械厂,1郎庄内8,1郎庄内15,1管庄内6,领峰绿源科技保定有限公司,保定常青实业集团有限公司,1东五尧都市桃源内3,1郎庄内7(郎庄590）,安庄外4【纯农排变】,1腾庄内6,2郎庄外7【纯农排变】,清苑县金水湾纸业有限公司,郎庄外4【纯农排变】,保定市南市区宇源园艺种植中心,1郎庄内10,1郎庄内9,0679869755-保定市宏图汽车零配件制造有限公司-专变-219725860-保定市宏图汽车零配件制造有限公司,2腾庄外4【纯农排变】,程长会,郎庄外9【纯农排变】,清苑县财政局,安庄外2【纯农排变】,农大2分厂仝保柱砖厂,郎庄外5【纯农排变】,2腾庄外2【纯农排变】,2腾庄外6【纯农排变】,郎庄内4,2腾庄外7【纯农排变】,2腾庄外10【纯农排变】,1郎庄内13,清苑县大兴奶牛养殖有限公司,1郎庄内12,2腾庄外1【纯农排变】,1腾庄内2,保定市清苑县中兴机械配件加工厂,郎庄内3,1杨庄内1","powerOffReason":"【停电原因】由于主干３５号杆分支１号杆郎庄纸厂树搭线导致１１０ＫＶ赵庄变电站１０ＫＶ郎庄线５７４线路全线停电 【变更送电】因抢修进度加快原因，送电时间由１８：００变更为１５：００ 【发布渠道】通过９５５９８发布","powerOffId":"2020042413000224"}],"pageModel":{"pageNow":144,"totalCount":10973,"totalPage":1098,"tableRows":0,"pageCount":10,"beginCount":1430},"isExperi":"1"}