{"message":"","today":"2020-06-15","seleList":[{"poweroffId":2020042413000219,"sgpoweroffId":null,"subsName":"","lineName":"沈村511","pubTranName":"西街4号变压器,东庄村7#,曲城村2#,东火山村3#,东火山村2#,北街村1#,孝村4#,东火山村6#,曲城村4#【纯农排变】,东庄村3#【纯农排变】,南街村1#,西街村3#,东庄村9#,南街村11#变压器,裴山供电所变压器,尉都村5#,南街村3#,东庄村6#,东庄村12#,东庄村13#,裴山镇政府2号变压器,西邵村6#变压器,南街10#,南街村6#,西邵村3#,黄金庄村1#,南庄村4#,孝村2#,西邵村2#,西邵村4#,裴山镇政府1#,北邵村9号变压器,西邵村1#,尉都村6#,尉都乡政府1#,孝村5#,曲城村3#,西街村1#,东庄村8#,南街村2#,南街村9#,西邵村5#,尉都村8#,东火山村1#,曲城村5#,东庄村11#,东庄村5#,","scope":"【影响街道/乡镇】裴山镇、尉都乡【高危重要客户】无【影响客户】南街村、西街村、北街村、东火山村、尉都村、孝村、西邵村、曲城村、黄金庄村、东庄村","startTime":"2020-04-24 12:40:03","stopDate":"2020-04-24 15:30:00","orgNo":"1340625","typeCode":"电网故障停限电","poweroffArea":"【全线路停电】停东庄村6#,南街村1#,东庄村13#,王志恒板厂,西街村3#,易县雷鸣土地整理服务有限公司-2号170112310818-100KVA,东庄村9#,0665049765-易县农村信用联社股份有限公司-专变-201072765-裴山信用社80KVA,南街村11#变压器,裴山供电所变压器,尉都村5#,尚晓东板厂,南街村3#,周占良,魏复兴板厂,东庄村12#,王术申养殖厂(板厂),尉都乡卫生院80KVA,东庄村2#【纯农排变】,裴山镇政府2号变压器,西邵村6#变压器,曲城村3#,马连平板厂,曲城村1#【纯农排变】,西街村1#,河北省易县曲城酒厂变压器,东庄村4#【纯农排变】,南街10#,南街村6#,西邵村3#,易县尉都腾达石材有限公司变压器001#,黄金庄村1#,东庄村8#,南庄村4#,孝村崔克林(农业),孝村2#,西邵村2#,西邵村4#,魏洪源,黄金庄村2#【纯农排变】,东霍山x英鞋垫厂(董红忠),裴山镇政府1#,北邵村9号变压器,西邵村1#,沙莲娜北变,沙莲娜南变,尉都村6#,北京地矿西邵村350KVA-A100,尉都乡政府1#,易县尉都腾达石材有限公司变压器,东火山村民委员会200,尉都中心小学变压器,东庄村10#,西邵面粉厂,曲城酒厂,修配厂,孝村5#,魏喜元板厂,灌渠,裴山粮库,北京地矿西邵村350KVA-B100,南庄面粉厂,李金强面粉厂(石板厂),易县西邵康足鞋垫厂(王世清),北京地矿西邵村350KVA-C50,东庄村1#,易县裴山镇中心小学-采暖250,东庄村5#,南街村2#,李顺吉板厂,南街村9#,西邵村5#,尉都村8#,黄学军面粉厂,曲城村5#,东火山9#,东火山张建光石板厂,尉都中心小学800KVA,金利重质碳酸钙厂变压器,易县公安局尉都派出所50KVA,北京地矿西邵村350KVA-E50,北街村1#,变压器,孝村1#【纯农排变】,东火山村1#,北京地矿西邵村350KVA-D50,孝村3#【纯农排变】,东庄村11#,尉都村1#,东庄村7#,孝村塑料颗粒厂,西街4号变压器,曲城村2#,东火山村3#,东火山村2#,孝村4#,国英远哲农作物种植合作社80,裴山小光石材厂,供销社石材加工厂(张瑞江),东火山村6#,易县尉都易兴石子厂(500),曲城村4#【纯农排变】,东庄村3#【纯农排变】","poweroffReason":"【停电原因】由于线路B相接地导致３５ＫＶ裴山变电站沈村５１１线路全线路停电【变更送电】因抢修进度加快原因，送电时间由１７：００变更为１５：３０【发布渠道】通过９５５９８发布","powerTime":"2020-04-24 14:58:18","powerComm":"已送电","subsNo":"","lineNo":"","tgNo":"","tgName":null,"infoStatus":"1","orgName":"国网易县供电公司","typeName":null,"infoStatusName":null,"dateDay":null,"orgNos":null,"nowTime":null,"countyName":null,"streetName":null,"villageName":null,"roadName":null,"communityName":null,"tranName":null,"sdLineName":null,"cityCode":"1340625","cityName":"国网易县供电公司","provinceCode":null,"stopTime":"2020-04-24 15:30:00","powerType":"全部","powerOffArea":"【全线路停电】停东庄村6#,南街村1#,东庄村13#,王志恒板厂,西街村3#,易县雷鸣土地整理服务有限公司-2号170112310818-100KVA,东庄村9#,0665049765-易县农村信用联社股份有限公司-专变-201072765-裴山信用社80KVA,南街村11#变压器,裴山供电所变压器,尉都村5#,尚晓东板厂,南街村3#,周占良,魏复兴板厂,东庄村12#,王术申养殖厂(板厂),尉都乡卫生院80KVA,东庄村2#【纯农排变】,裴山镇政府2号变压器,西邵村6#变压器,曲城村3#,马连平板厂,曲城村1#【纯农排变】,西街村1#,河北省易县曲城酒厂变压器,东庄村4#【纯农排变】,南街10#,南街村6#,西邵村3#,易县尉都腾达石材有限公司变压器001#,黄金庄村1#,东庄村8#,南庄村4#,孝村崔克林(农业),孝村2#,西邵村2#,西邵村4#,魏洪源,黄金庄村2#【纯农排变】,东霍山x英鞋垫厂(董红忠),裴山镇政府1#,北邵村9号变压器,西邵村1#,沙莲娜北变,沙莲娜南变,尉都村6#,北京地矿西邵村350KVA-A100,尉都乡政府1#,易县尉都腾达石材有限公司变压器,东火山村民委员会200,尉都中心小学变压器,东庄村10#,西邵面粉厂,曲城酒厂,修配厂,孝村5#,魏喜元板厂,灌渠,裴山粮库,北京地矿西邵村350KVA-B100,南庄面粉厂,李金强面粉厂(石板厂),易县西邵康足鞋垫厂(王世清),北京地矿西邵村350KVA-C50,东庄村1#,易县裴山镇中心小学-采暖250,东庄村5#,南街村2#,李顺吉板厂,南街村9#,西邵村5#,尉都村8#,黄学军面粉厂,曲城村5#,东火山9#,东火山张建光石板厂,尉都中心小学800KVA,金利重质碳酸钙厂变压器,易县公安局尉都派出所50KVA,北京地矿西邵村350KVA-E50,北街村1#,变压器,孝村1#【纯农排变】,东火山村1#,北京地矿西邵村350KVA-D50,孝村3#【纯农排变】,东庄村11#,尉都村1#,东庄村7#,孝村塑料颗粒厂,西街4号变压器,曲城村2#,东火山村3#,东火山村2#,孝村4#,国英远哲农作物种植合作社80,裴山小光石材厂,供销社石材加工厂(张瑞江),东火山村6#,易县尉都易兴石子厂(500),曲城村4#【纯农排变】,东庄村3#【纯农排变】","powerOffReason":"【停电原因】由于线路B相接地导致３５ＫＶ裴山变电站沈村５１１线路全线路停电【变更送电】因抢修进度加快原因，送电时间由１７：００变更为１５：３０【发布渠道】通过９５５９８发布","powerOffId":"2020042413000219"},{"poweroffId":2020042413000217,"sgpoweroffId":null,"subsName":"","lineName":"李家营524","pubTranName":"东盛马庄1变,东盛城南供电所变压器,温屯北变压器新架,东盛马庄2变,郭屯02变压器,838充电站变压器,东盛马庄变压器,东盛张八屯南变压器,郭屯01变压器,东盛温屯北公变,东盛马庄4变,石家庄2#公变变压器,东盛马庄3变,东盛张八屯变压器,石家庄14号变压器,东盛温屯北变压器,郭屯03变压器,东盛阎王庄南变压器,八方达客运有限公司天桥分公司变压器,东盛马庄5变,东盛张八屯地变压器【纯农排变】,郭屯05变压器,郭屯04变压器,","scope":"【影响街道/乡镇】东盛办事处 【高危重要客户】无 【影响客户】郭屯村、马庄村、华永房地产、欣知语、园林局、鹏达房地产、白象、京石高速收费站、北方风机、豆豆房地产、豆豆食品、闫各庄回迁楼、亿博豪轩小区","startTime":"2020-04-24 12:22:24","stopDate":"2020-04-24 14:00:00","orgNo":"1340612","typeCode":"电网故障停限电","poweroffArea":"【全线路停电】停东盛马庄5变,东盛张八屯地变压器【纯农排变】,郭屯05变压器,郭屯02变压器,838充电站变压器,东盛马庄变压器,东盛张八屯南变压器,东盛城南供电所变压器,东盛温屯北变压器,郭屯01变压器,东盛温屯北公变,石家庄2#公变变压器,郭屯04变压器,东盛马庄3变,东盛张八屯变压器,温屯北变压器新架,东盛马庄2变,郭屯03变压器,东盛阎王庄南变压器,八方达客运有限公司天桥分公司变压器,石家庄14号变压器,东盛马庄1变,东盛马庄4变,永安印铁变压器3,高碑店市路灯管理办公室变压器,永安印铁变压器2,河北鹏达房地产开发有限公司01,河北鹏达房地产开发有限公司变压器,高碑店市电业局变压器,高碑店市城市管理综合执法局112国道2号,河北鹏达房地产开发有限公司03,中国石化销售有限公司河北保定高碑店石油分公司,保定隆和房地产开发有限公司,高碑店市永杰汽车销售公司,温屯窗纱厂,高碑店市欣知语服饰有限公司变压器,河北北方风机制造有限公司,万通加油站,高碑店市万通发展有限责任公司变压器,高碑店市自来水公司变压器,交通局,变压器-020,河北旭坤房地产开发有限公司,河北旭坤房地产开发有限公司2#变压器,变压器-019,河北鹏达房地产开发有限公司02,高碑店市凯龙房地产开发有限公司8#变压器,0585511104-高碑店市路灯管理办公室-专变-125093165-高碑店市路灯管理办公室变压器,杨宝坤,高碑店市凯龙房地产开发有限公司3#变压器,高碑店市平生环保设备制造有限公司,河北旭坤房地产开发有限公司3#变压器,王克录,永安印铁,河北隆泰物业变压器,冀东商业公司,高碑店白象食品有限公司变压器,河北旭坤房地产开发有限公司4#变压器,河北京石高速公路开发有限公司,碑店市凯龙房地产开发有限公司变压器02,河北隆泰物业服务有限责任公司高碑店分公司1#变压器,中国石油保定第105站,高碑店市建筑集团公司变压器,高碑店市天天一泉水厂2,高碑店市康美舒空气净化设备科技有限公司,保定中油石油销售有限公司第二加油站,0609130229-河北高碑店市豆豆食品(集团)有限公司-专变-127561667-河北高碑店市豆豆食品（集团）有限公司变压器,碑店市凯龙房地产开发有限公司变压器01,高碑店市凯龙房地产开发有限公司7#变压器,高碑店市凯龙房地产开发有限公司6#变压器,温屯公变,高碑店市凯龙房地产开发有限公司5#变压器,高碑店市凯龙房地产开发有限公司4#变压器","poweroffReason":"【停电原因】由于郭屯分支有塑料袋刮线上导致１１０ＫＶ马庄变电站１０ＫＶ李家营５２４线路全线停电 【变更送电】因抢修进度加快原因，送电时间由１７：００变更为１４：００ 【发布渠道】通过９５５９８发布","powerTime":"2020-04-24 13:55:25","powerComm":"已送电","subsNo":"","lineNo":"","tgNo":"","tgName":null,"infoStatus":"1","orgName":"国网高碑店市供电公司","typeName":null,"infoStatusName":null,"dateDay":null,"orgNos":null,"nowTime":null,"countyName":null,"streetName":null,"villageName":null,"roadName":null,"communityName":null,"tranName":null,"sdLineName":null,"cityCode":"1340612","cityName":"国网高碑店市供电公司","provinceCode":null,"stopTime":"2020-04-24 14:00:00","powerType":"全部","powerOffArea":"【全线路停电】停东盛马庄5变,东盛张八屯地变压器【纯农排变】,郭屯05变压器,郭屯02变压器,838充电站变压器,东盛马庄变压器,东盛张八屯南变压器,东盛城南供电所变压器,东盛温屯北变压器,郭屯01变压器,东盛温屯北公变,石家庄2#公变变压器,郭屯04变压器,东盛马庄3变,东盛张八屯变压器,温屯北变压器新架,东盛马庄2变,郭屯03变压器,东盛阎王庄南变压器,八方达客运有限公司天桥分公司变压器,石家庄14号变压器,东盛马庄1变,东盛马庄4变,永安印铁变压器3,高碑店市路灯管理办公室变压器,永安印铁变压器2,河北鹏达房地产开发有限公司01,河北鹏达房地产开发有限公司变压器,高碑店市电业局变压器,高碑店市城市管理综合执法局112国道2号,河北鹏达房地产开发有限公司03,中国石化销售有限公司河北保定高碑店石油分公司,保定隆和房地产开发有限公司,高碑店市永杰汽车销售公司,温屯窗纱厂,高碑店市欣知语服饰有限公司变压器,河北北方风机制造有限公司,万通加油站,高碑店市万通发展有限责任公司变压器,高碑店市自来水公司变压器,交通局,变压器-020,河北旭坤房地产开发有限公司,河北旭坤房地产开发有限公司2#变压器,变压器-019,河北鹏达房地产开发有限公司02,高碑店市凯龙房地产开发有限公司8#变压器,0585511104-高碑店市路灯管理办公室-专变-125093165-高碑店市路灯管理办公室变压器,杨宝坤,高碑店市凯龙房地产开发有限公司3#变压器,高碑店市平生环保设备制造有限公司,河北旭坤房地产开发有限公司3#变压器,王克录,永安印铁,河北隆泰物业变压器,冀东商业公司,高碑店白象食品有限公司变压器,河北旭坤房地产开发有限公司4#变压器,河北京石高速公路开发有限公司,碑店市凯龙房地产开发有限公司变压器02,河北隆泰物业服务有限责任公司高碑店分公司1#变压器,中国石油保定第105站,高碑店市建筑集团公司变压器,高碑店市天天一泉水厂2,高碑店市康美舒空气净化设备科技有限公司,保定中油石油销售有限公司第二加油站,0609130229-河北高碑店市豆豆食品(集团)有限公司-专变-127561667-河北高碑店市豆豆食品（集团）有限公司变压器,碑店市凯龙房地产开发有限公司变压器01,高碑店市凯龙房地产开发有限公司7#变压器,高碑店市凯龙房地产开发有限公司6#变压器,温屯公变,高碑店市凯龙房地产开发有限公司5#变压器,高碑店市凯龙房地产开发有限公司4#变压器","powerOffReason":"【停电原因】由于郭屯分支有塑料袋刮线上导致１１０ＫＶ马庄变电站１０ＫＶ李家营５２４线路全线停电 【变更送电】因抢修进度加快原因，送电时间由１７：００变更为１４：００ 【发布渠道】通过９５５９８发布","powerOffId":"2020042413000217"},{"poweroffId":2020042413000213,"sgpoweroffId":null,"subsName":"","lineName":"天边561","pubTranName":"老军屯光2,新小朱庄光7,大朱庄光3,新西黄河光1,小朱庄光3,天边光7【灾后重建】,李各庄光4,新小朱庄光5,李各庄光2,新小朱庄光8,小朱庄村西公用（养猪场),李各庄光7,西黄河光5,天宫寺光11,新李各庄光6【2018年重过载】,新小朱庄光6,天边光1,新小朱庄光1,天边光2,小朱庄光1,老军屯光1,天边排5【纯农排变】,新西黄河光2,新小朱庄光9,天边光6,新小朱庄光3,西黄河养鸡场公用,北张庄综合,新小朱庄光2,新西黄河光3,新西黄河光4,新小朱庄光4,小朱庄光7,天边光4,小朱庄供电所,老军屯排3,新老军屯光4,李各庄光3,新小朱庄光12,新小朱庄光13,","scope":"【影响街道/乡镇】小朱庄乡 【高危重要客户】无 【影响客户】大朱庄、小朱庄、老君屯、李各庄、天边、西黄河、宏星面粉厂、海明铜制品加工厂、兴盛水泥构件厂、洪良保温建材加工厂、小朱庄幼儿园、祥润恒泰、凝聚新型建材、小朱庄供电所、洪刚拔丝厂、起航肉鸡孵化厂","startTime":"2020-04-24 12:10:36","stopDate":"2020-04-24 14:00:00","orgNo":"1340609","typeCode":"电网故障停限电","poweroffArea":"【全线路停电】停小朱庄排2【纯农排变】,大朱庄光1,老军屯排2【纯农排变】,大朱庄水泥板厂—200,李各庄光5,新西黄河光4,新小朱庄光1,天边光2,小朱庄光1,老军屯光1,0011688792*宏星面粉厂,0011688806小朱庄村委会,新西黄河光2,天边排1【纯农排变】,老军屯光2,小朱庄排3【纯农排变】,西黄河排1【纯农排变】,大朱庄光4,定兴县洪刚拔丝厂,天边光3,新小朱庄光5,李各庄光7,西黄河光5,新李各庄光6【2018年重过载】,天边光4,大朱庄光2,天边排5【纯农排变】,0011688787*起航肉鸡孵化厂,0011688783李各庄加工厂,天边排3【纯农排变】,小朱庄供电所,新小朱庄光3,西黄河养鸡场公用,瑞峰环卫-200,洪刚拔丝厂250配变,小朱庄排6【纯农排变】,北张庄综合,新小朱庄光2,250,天边排4【纯农排变】,新西黄河光3,大朱庄排4【纯农排变】,新小朱庄光12,新小朱庄光13,天边光5,新小朱庄光9,大朱庄村委会-250,大朱庄排5【纯农排变】,0011688803*大朱庄小学,李各庄排2【纯农排变】,老军屯光3,李各庄光3,小朱庄村西公用（养猪场),小朱庄排5【纯农排变】,新小朱庄光6,李各庄光1,老军屯排3,新老军屯光4,新小朱庄光4,老军屯排1【纯农排变】,大朱庄排2【纯农排变】,西黄河排2【纯农排变】,天边排2【纯农排变】,李各庄光2,*宏星面粉厂,高速东引线5号变-100,新小朱庄光8,小朱庄光7,天边光1,大朱庄排1【纯农排变】,0655071383-定兴县海明铜制品加工厂-专变-183764988-海明铜制品-250,天边光6,李各庄排1【纯农排变】,李各庄光4,大朱庄小学-400,天宫寺光11,小朱庄排4【纯农排变】,新小朱庄光7,大朱庄光3,洪良保温建材加工厂-250,大朱庄排3【纯农排变】,西黄河排3【纯农排变】,新西黄河光1,小朱庄排1【纯农排变】,100,小朱庄幼儿园,祥润恒泰,小朱庄光3,凝聚新型建材-315,天边光7【灾后重建】","poweroffReason":"【停电原因】由于小朱庄面粉厂分支树倒砸线导致１１０ＫＶ小朱庄变电站天边线５６１线路全线停电 【变更送电】因抢修进度加快原因，送电时间由１６：００变更为１４：００ 【发布渠道】通过９５５９８发布","powerTime":"2020-04-24 13:40:51","powerComm":"已送电","subsNo":"","lineNo":"","tgNo":"","tgName":null,"infoStatus":"1","orgName":"国网定兴县供电公司","typeName":null,"infoStatusName":null,"dateDay":null,"orgNos":null,"nowTime":null,"countyName":null,"streetName":null,"villageName":null,"roadName":null,"communityName":null,"tranName":null,"sdLineName":null,"cityCode":"1340609","cityName":"国网定兴县供电公司","provinceCode":null,"stopTime":"2020-04-24 14:00:00","powerType":"全部","powerOffArea":"【全线路停电】停小朱庄排2【纯农排变】,大朱庄光1,老军屯排2【纯农排变】,大朱庄水泥板厂—200,李各庄光5,新西黄河光4,新小朱庄光1,天边光2,小朱庄光1,老军屯光1,0011688792*宏星面粉厂,0011688806小朱庄村委会,新西黄河光2,天边排1【纯农排变】,老军屯光2,小朱庄排3【纯农排变】,西黄河排1【纯农排变】,大朱庄光4,定兴县洪刚拔丝厂,天边光3,新小朱庄光5,李各庄光7,西黄河光5,新李各庄光6【2018年重过载】,天边光4,大朱庄光2,天边排5【纯农排变】,0011688787*起航肉鸡孵化厂,0011688783李各庄加工厂,天边排3【纯农排变】,小朱庄供电所,新小朱庄光3,西黄河养鸡场公用,瑞峰环卫-200,洪刚拔丝厂250配变,小朱庄排6【纯农排变】,北张庄综合,新小朱庄光2,250,天边排4【纯农排变】,新西黄河光3,大朱庄排4【纯农排变】,新小朱庄光12,新小朱庄光13,天边光5,新小朱庄光9,大朱庄村委会-250,大朱庄排5【纯农排变】,0011688803*大朱庄小学,李各庄排2【纯农排变】,老军屯光3,李各庄光3,小朱庄村西公用（养猪场),小朱庄排5【纯农排变】,新小朱庄光6,李各庄光1,老军屯排3,新老军屯光4,新小朱庄光4,老军屯排1【纯农排变】,大朱庄排2【纯农排变】,西黄河排2【纯农排变】,天边排2【纯农排变】,李各庄光2,*宏星面粉厂,高速东引线5号变-100,新小朱庄光8,小朱庄光7,天边光1,大朱庄排1【纯农排变】,0655071383-定兴县海明铜制品加工厂-专变-183764988-海明铜制品-250,天边光6,李各庄排1【纯农排变】,李各庄光4,大朱庄小学-400,天宫寺光11,小朱庄排4【纯农排变】,新小朱庄光7,大朱庄光3,洪良保温建材加工厂-250,大朱庄排3【纯农排变】,西黄河排3【纯农排变】,新西黄河光1,小朱庄排1【纯农排变】,100,小朱庄幼儿园,祥润恒泰,小朱庄光3,凝聚新型建材-315,天边光7【灾后重建】","powerOffReason":"【停电原因】由于小朱庄面粉厂分支树倒砸线导致１１０ＫＶ小朱庄变电站天边线５６１线路全线停电 【变更送电】因抢修进度加快原因，送电时间由１６：００变更为１４：００ 【发布渠道】通过９５５９８发布","powerOffId":"2020042413000213"},{"poweroffId":2020042413000210,"sgpoweroffId":null,"subsName":"","lineName":"北庄头线513","pubTranName":"北庄头光2,北庄头光3,北庄头光13变压器【2018年重过载】,北庄头光7,久安庄光9,新北庄头光1,久安庄光3,久安庄光5,久安庄光8,久安庄光4,北庄头光6,久安庄光11变压器【2018年重过载】,北店光25,北庄头光11,久安庄光6,久安庄光10,久安庄光2,北庄头光5,北庄头光10,北庄头光12【灾后重建】,久安庄光7,久安庄光1,北庄头光9,","scope":"【影响街道/乡镇】固城镇 【高危重要客户】无 【影响客户】久安庄、北庄头、北店部分用户、河北荣达畜禽有限公司、闫台中学、鑫雷彩印厂","startTime":"2020-04-24 12:07:25","stopDate":"2020-04-24 14:00:00","orgNo":"1340609","typeCode":"电网故障停限电","poweroffArea":"【全线路停电】停0680344470-定兴县天玺印刷有限公司-专变-219708543-天玺印刷-200,久安庄光7,北庄头农5【纯农排变】,0011676991荣达畜禽有限公司,久安庄光9,北庄头光8,新北庄头光1,北店排5【纯农排变】,北庄头光5,北店排13【纯农排变】,北店排14【纯农排变】,定兴县第二中学,荣达畜禽五号变-800,久安庄光11变压器【2018年重过载】,0011677018*河北荣达畜禽有限公司,久安庄光3,久安庄农4【纯农排变】,久安庄光4,定兴县鑫雷彩印厂,北庄头农8【纯农排变】,久安庄光5,北庄头农4【纯农排变】,北庄头农6【纯农排变】,北庄头光7,北庄头农2【纯农排变】,久安庄农3【纯农排变】,久安庄光8,北庄头光10,北庄头光12【灾后重建】,北庄头农7【纯农排变】,北店光25,北庄头光11,荣达畜禽四号变-800,久安庄光6,久安庄光1,0617301024-河北建顺混凝土制造有限公司-专变-128608857-建顺250变压器,北庄头光2,北店排17【纯农排变】,久安庄农2【纯农排变】,北庄头光3,北庄头光13变压器【2018年重过载】,北庄头光6,新奥燃气-80,久安庄农1【纯农排变】,北店排4【纯农排变】,0694617296-定兴县第二中学闫台分校-专变-237547930-闫台二中分校一号便,北庄头光9,久安庄光10,北庄头农3【纯农排变】,久安庄光2,北店排3【纯农排变】,北店排18【纯农排变】,250,北庄头农1【纯农排变】","poweroffReason":"【停电原因】由于北庄头天然气厂跌落保险脱落导致３５ＫＶ闫台变电站北庄头线５１３线路全线停电 【变更送电】因抢修进度加快原因，送电时间由１６：００变更为１４：００ 【发布渠道】通过９５５９８发布","powerTime":"2020-04-24 13:27:26","powerComm":"已送电","subsNo":"","lineNo":"","tgNo":"","tgName":null,"infoStatus":"1","orgName":"国网定兴县供电公司","typeName":null,"infoStatusName":null,"dateDay":null,"orgNos":null,"nowTime":null,"countyName":null,"streetName":null,"villageName":null,"roadName":null,"communityName":null,"tranName":null,"sdLineName":null,"cityCode":"1340609","cityName":"国网定兴县供电公司","provinceCode":null,"stopTime":"2020-04-24 14:00:00","powerType":"全部","powerOffArea":"【全线路停电】停0680344470-定兴县天玺印刷有限公司-专变-219708543-天玺印刷-200,久安庄光7,北庄头农5【纯农排变】,0011676991荣达畜禽有限公司,久安庄光9,北庄头光8,新北庄头光1,北店排5【纯农排变】,北庄头光5,北店排13【纯农排变】,北店排14【纯农排变】,定兴县第二中学,荣达畜禽五号变-800,久安庄光11变压器【2018年重过载】,0011677018*河北荣达畜禽有限公司,久安庄光3,久安庄农4【纯农排变】,久安庄光4,定兴县鑫雷彩印厂,北庄头农8【纯农排变】,久安庄光5,北庄头农4【纯农排变】,北庄头农6【纯农排变】,北庄头光7,北庄头农2【纯农排变】,久安庄农3【纯农排变】,久安庄光8,北庄头光10,北庄头光12【灾后重建】,北庄头农7【纯农排变】,北店光25,北庄头光11,荣达畜禽四号变-800,久安庄光6,久安庄光1,0617301024-河北建顺混凝土制造有限公司-专变-128608857-建顺250变压器,北庄头光2,北店排17【纯农排变】,久安庄农2【纯农排变】,北庄头光3,北庄头光13变压器【2018年重过载】,北庄头光6,新奥燃气-80,久安庄农1【纯农排变】,北店排4【纯农排变】,0694617296-定兴县第二中学闫台分校-专变-237547930-闫台二中分校一号便,北庄头光9,久安庄光10,北庄头农3【纯农排变】,久安庄光2,北店排3【纯农排变】,北店排18【纯农排变】,250,北庄头农1【纯农排变】","powerOffReason":"【停电原因】由于北庄头天然气厂跌落保险脱落导致３５ＫＶ闫台变电站北庄头线５１３线路全线停电 【变更送电】因抢修进度加快原因，送电时间由１６：００变更为１４：００ 【发布渠道】通过９５５９８发布","powerOffId":"2020042413000210"},{"poweroffId":2020042413000205,"sgpoweroffId":null,"subsName":"","lineName":"邢果庄线516","pubTranName":"北陶口村南2号综合,邢果庄村北变综合,赵口村南综合,北陶口南2#25综合,赵口村正南综合,邢果庄村西南综合,赵口村西北综合,北陶口北1#36综合,邢果庄村南综合,赵口村北综合,北陶口西北综合,邢果庄东北综合,赵口村东南综合,赵口村西南综合,赵口村东综合,赵口村东北综合,赵口村西综合,邢果庄西变综合,陶口店村里2号综合,","scope":"【影响街道/乡镇】蒲口乡 【高危重要客户】无 【影响客户】赵口村、邢果庄村、北陶口村东、北陶口村北、北陶口村里部分","startTime":"2020-04-24 11:58:38","stopDate":"2020-04-24 14:00:00","orgNo":"1340613","typeCode":"电网故障停限电","poweroffArea":"【全线路停电】停赵口村南综合,陶口店村里2号综合,友谊毛纺有限公司,赵口村西综合,邢果庄村北变综合,高阳县南蒲口乡赵口村八号变压器,赵口二中队,赵口砖厂,北陶口村南2号综合,赵口村西北综合,邢果庄西变综合,杨全轧花厂,高阳县南蒲口乡邢果庄村委会一变压器,赵口农厂,高阳县南蒲口乡邢果庄村委会五变压器,高阳县南蒲口乡赵口村六号变压器,北陶口村北农业变压器,赵口农业,赵口村正南综合,北陶口农业,北陶口西北综合,高阳县南蒲口乡邢果庄村委会二变压器,高阳县南蒲口乡赵口村十号变压器,高阳县南蒲口乡赵口村九号变压器,邢果庄东北综合,成都华川公路建设集团有限公司变压器,赵口村东南综合,赵口村东综合,高阳县南蒲口乡邢果庄村委会三变压器,邢果庄农业,高阳县南蒲口乡赵口村七号变压器,赵口村北综合,赵口村东北综合,高阳县南蒲口乡邢果庄村委会四变压器,北陶口南2#25综合,北陶口安新地农业变压器,高阳县南蒲口乡北陶口村变压器,邢果庄村西南综合,赵口村西南综合,高阳县南蒲口乡赵口村三号变压器,高阳县南蒲口乡赵口村五号台区,高阳县南蒲口乡赵口村一号变压器,北陶口北1#36综合,邢果庄村南综合","poweroffReason":"【停电原因】由于汽车撞杆导致３５ＫＶ赵口变电站邢果庄５１６线路全线停电【变更送电】因抢修进度加快原因，送电时间由１９：００变更为１４：００【发布渠道】通过９５５９８发布","powerTime":"2020-04-24 13:46:38","powerComm":"已送电","subsNo":"","lineNo":"","tgNo":"","tgName":null,"infoStatus":"1","orgName":"国网高阳县供电公司","typeName":null,"infoStatusName":null,"dateDay":null,"orgNos":null,"nowTime":null,"countyName":null,"streetName":null,"villageName":null,"roadName":null,"communityName":null,"tranName":null,"sdLineName":null,"cityCode":"1340613","cityName":"国网高阳县供电公司","provinceCode":null,"stopTime":"2020-04-24 14:00:00","powerType":"全部","powerOffArea":"【全线路停电】停赵口村南综合,陶口店村里2号综合,友谊毛纺有限公司,赵口村西综合,邢果庄村北变综合,高阳县南蒲口乡赵口村八号变压器,赵口二中队,赵口砖厂,北陶口村南2号综合,赵口村西北综合,邢果庄西变综合,杨全轧花厂,高阳县南蒲口乡邢果庄村委会一变压器,赵口农厂,高阳县南蒲口乡邢果庄村委会五变压器,高阳县南蒲口乡赵口村六号变压器,北陶口村北农业变压器,赵口农业,赵口村正南综合,北陶口农业,北陶口西北综合,高阳县南蒲口乡邢果庄村委会二变压器,高阳县南蒲口乡赵口村十号变压器,高阳县南蒲口乡赵口村九号变压器,邢果庄东北综合,成都华川公路建设集团有限公司变压器,赵口村东南综合,赵口村东综合,高阳县南蒲口乡邢果庄村委会三变压器,邢果庄农业,高阳县南蒲口乡赵口村七号变压器,赵口村北综合,赵口村东北综合,高阳县南蒲口乡邢果庄村委会四变压器,北陶口南2#25综合,北陶口安新地农业变压器,高阳县南蒲口乡北陶口村变压器,邢果庄村西南综合,赵口村西南综合,高阳县南蒲口乡赵口村三号变压器,高阳县南蒲口乡赵口村五号台区,高阳县南蒲口乡赵口村一号变压器,北陶口北1#36综合,邢果庄村南综合","powerOffReason":"【停电原因】由于汽车撞杆导致３５ＫＶ赵口变电站邢果庄５１６线路全线停电【变更送电】因抢修进度加快原因，送电时间由１９：００变更为１４：００【发布渠道】通过９５５９８发布","powerOffId":"2020042413000205"},{"poweroffId":2020042413000201,"sgpoweroffId":null,"subsName":"","lineName":"10kV560杨村线","pubTranName":"西杨村公用农业3台区【纯农排变】,西杨村公用农业2台区【纯农排变】,西杨村公用农业4台区【纯农排变】,西杨村公用农业5台区【纯农排变】,","scope":"【影响街道/乡镇】叮咛店镇【高危重要客户】无【影响客户】西杨村","startTime":"2020-04-24 13:30:00","stopDate":"2020-04-24 15:00:00","orgNo":"1340610","typeCode":"其他临时停电","poweroffArea":"【分支停电】停西杨村公用农业3台区【纯农排变】,西杨村公用农业2台区【纯农排变】,西杨村公用农业4台区【纯农排变】,西杨村公用农业5台区【纯农排变】","poweroffReason":"【停电原因】由于电杆倾斜需停电进行紧急检修导致１１０ＫＶ叮咛店变电站１０ＫＶ５６０杨村线路主干４６号杆１７号隔离开关以下线路停电 【变更送电】无 【发布渠道】９５５９８","powerTime":"2020-04-24 14:48:01","powerComm":"已送电","subsNo":"","lineNo":"","tgNo":"","tgName":null,"infoStatus":"1","orgName":"国网定州市供电公司","typeName":null,"infoStatusName":null,"dateDay":null,"orgNos":null,"nowTime":null,"countyName":null,"streetName":null,"villageName":null,"roadName":null,"communityName":null,"tranName":null,"sdLineName":null,"cityCode":"1340610","cityName":"国网定州市供电公司","provinceCode":null,"stopTime":"2020-04-24 15:00:00","powerType":"全部","powerOffArea":"【分支停电】停西杨村公用农业3台区【纯农排变】,西杨村公用农业2台区【纯农排变】,西杨村公用农业4台区【纯农排变】,西杨村公用农业5台区【纯农排变】","powerOffReason":"【停电原因】由于电杆倾斜需停电进行紧急检修导致１１０ＫＶ叮咛店变电站１０ＫＶ５６０杨村线路主干４６号杆１７号隔离开关以下线路停电 【变更送电】无 【发布渠道】９５５９８","powerOffId":"2020042413000201"},{"poweroffId":2020042413000192,"sgpoweroffId":null,"subsName":"","lineName":"10kV衣巾店525线","pubTranName":"小史变压器,","scope":"【影响街道/乡镇】梁家营乡 【高危重要客户】无 【影响客户】小史村","startTime":"2020-04-24 11:36:43","stopDate":"2020-04-24 17:00:00","orgNo":"1340612","typeCode":"电网故障停限电","poweroffArea":"【单台区停电】停小史变压器","poweroffReason":"【停电原因】由于小史分支弓子线断导致１１０ＫＶ太平庄变电站１０ＫＶ衣巾店５２５线路小史村公变台区停电 【变更送电】无 【发布渠道】通过９５５９８发布","powerTime":"2020-04-24 16:33:39","powerComm":"已送电","subsNo":"","lineNo":"","tgNo":"","tgName":null,"infoStatus":"1","orgName":"国网高碑店市供电公司","typeName":null,"infoStatusName":null,"dateDay":null,"orgNos":null,"nowTime":null,"countyName":null,"streetName":null,"villageName":null,"roadName":null,"communityName":null,"tranName":null,"sdLineName":null,"cityCode":"1340612","cityName":"国网高碑店市供电公司","provinceCode":null,"stopTime":"2020-04-24 17:00:00","powerType":"全部","powerOffArea":"【单台区停电】停小史变压器","powerOffReason":"【停电原因】由于小史分支弓子线断导致１１０ＫＶ太平庄变电站１０ＫＶ衣巾店５２５线路小史村公变台区停电 【变更送电】无 【发布渠道】通过９５５９８发布","powerOffId":"2020042413000192"},{"poweroffId":2020042413000172,"sgpoweroffId":null,"subsName":"","lineName":"田庄526电力电缆","pubTranName":"李庄供49号变压器,振奎胶帽厂,李庄3号变压器,田庄供148号变压器,田庄供16号变压器,徐水县盛芳园花卉有限公司,商庄13号【纯农排变】,田庄供72号变压器,商庄17号【纯农排变】,田庄7号变压器,商庄9号,北徐城2号,商庄16号【纯农排变】,商庄2号【纯农排变】,田庄供54号变压器,商庄10号,商庄11号,李庄1号变压器,徐水县永存塑料包装厂,李庄供144号变压器,田庄供73号变压器【纯农排变】,北徐城5号,田庄供105号变压器,田庄供134号变压器,田庄供136号变压器【纯农排变】,沿村8号,田庄6号变压器,北徐城1号【纯农排变】,青鸟火柴厂,商庄14号【纯农排变】,商庄12号【纯农排变】,田庄3号变压器,李庄田庄合用变压器,李庄2号变压器【纯农排变】,沿村6号,沿村4号【纯农排变】,沿村3号【纯农排变】,李庄供68号变压器,商庄4号,商庄3号【纯农排变】,田庄供74变压器【纯农排变】,李庄供137号变压器【纯农排变】,田庄供18号变压器,田庄8号变压器,建新冷食部,李庄5号变压器【纯农排变】,田庄供133号变压器,田庄供12号变压器,津保高速公路徐水服务站,商庄6号【纯农排变】,沿村9号,北徐城（供电所2号）,田庄与李庄合用变压器,商庄7号【纯农排变】,田庄4号变压器,商庄8号【纯农排变】,田庄5号变压器,商庄1号【纯农排变】,沿村7号,","scope":"【影响街道/乡镇】崔庄镇、安肃镇 【高危重要客户】无 【影响客户】李庄、田庄、北徐城、沿村、商庄","startTime":"2020-04-24 11:02:00","stopDate":"2020-04-24 12:30:00","orgNo":"1340605","typeCode":"电网故障停限电","poweroffArea":"【全线路停电】停李庄供137号变压器【纯农排变】,田庄供54号变压器,北徐城1号【纯农排变】,李庄3号变压器,李庄供49号变压器,李庄5号变压器【纯农排变】,田庄供16号变压器,李庄田庄合用变压器,田庄供133号变压器,田庄供18号变压器,沿村6号,商庄12号【纯农排变】,商庄9号,商庄11号,北徐城2号,商庄2号【纯农排变】,田庄供72号变压器,田庄供12号变压器,李庄供68号变压器,商庄14号【纯农排变】,商庄7号【纯农排变】,田庄供136号变压器【纯农排变】,李庄1号变压器,田庄供134号变压器,田庄7号变压器,田庄与李庄合用变压器,商庄1号【纯农排变】,商庄13号【纯农排变】,田庄6号变压器,北徐城5号,沿村8号,田庄供73号变压器【纯农排变】,建新冷食部,徐水县盛芳园花卉有限公司,北徐城（供电所2号）,徐水县永存塑料包装厂,振奎胶帽厂,津保高速公路徐水服务站,田庄供148号变压器,商庄8号【纯农排变】,商庄6号【纯农排变】,田庄5号变压器,田庄供74变压器【纯农排变】,李庄2号变压器【纯农排变】,沿村3号【纯农排变】,商庄4号,青鸟火柴厂,田庄3号变压器,商庄17号【纯农排变】,沿村7号,商庄16号【纯农排变】,沿村9号,沿村4号【纯农排变】,李庄供144号变压器,商庄10号,商庄3号【纯农排变】,田庄4号变压器,田庄8号变压器,田庄供105号变压器","poweroffReason":"【停电原因】由于Ｂ相接地导致１１０ＫＶ下河西变电站田庄５２６线路全线停电 【变更送电】因工作进度加快原因，送电时间由１８:００变更为１２:３０ 【发布渠道】通过９５５９８发布","powerTime":"2020-04-24 12:06:33","powerComm":"已送电","subsNo":"","lineNo":"","tgNo":"","tgName":null,"infoStatus":"1","orgName":"国网徐水县供电公司","typeName":null,"infoStatusName":null,"dateDay":null,"orgNos":null,"nowTime":null,"countyName":null,"streetName":null,"villageName":null,"roadName":null,"communityName":null,"tranName":null,"sdLineName":null,"cityCode":"1340605","cityName":"国网徐水县供电公司","provinceCode":null,"stopTime":"2020-04-24 12:30:00","powerType":"全部","powerOffArea":"【全线路停电】停李庄供137号变压器【纯农排变】,田庄供54号变压器,北徐城1号【纯农排变】,李庄3号变压器,李庄供49号变压器,李庄5号变压器【纯农排变】,田庄供16号变压器,李庄田庄合用变压器,田庄供133号变压器,田庄供18号变压器,沿村6号,商庄12号【纯农排变】,商庄9号,商庄11号,北徐城2号,商庄2号【纯农排变】,田庄供72号变压器,田庄供12号变压器,李庄供68号变压器,商庄14号【纯农排变】,商庄7号【纯农排变】,田庄供136号变压器【纯农排变】,李庄1号变压器,田庄供134号变压器,田庄7号变压器,田庄与李庄合用变压器,商庄1号【纯农排变】,商庄13号【纯农排变】,田庄6号变压器,北徐城5号,沿村8号,田庄供73号变压器【纯农排变】,建新冷食部,徐水县盛芳园花卉有限公司,北徐城（供电所2号）,徐水县永存塑料包装厂,振奎胶帽厂,津保高速公路徐水服务站,田庄供148号变压器,商庄8号【纯农排变】,商庄6号【纯农排变】,田庄5号变压器,田庄供74变压器【纯农排变】,李庄2号变压器【纯农排变】,沿村3号【纯农排变】,商庄4号,青鸟火柴厂,田庄3号变压器,商庄17号【纯农排变】,沿村7号,商庄16号【纯农排变】,沿村9号,沿村4号【纯农排变】,李庄供144号变压器,商庄10号,商庄3号【纯农排变】,田庄4号变压器,田庄8号变压器,田庄供105号变压器","powerOffReason":"【停电原因】由于Ｂ相接地导致１１０ＫＶ下河西变电站田庄５２６线路全线停电 【变更送电】因工作进度加快原因，送电时间由１８:００变更为１２:３０ 【发布渠道】通过９５５９８发布","powerOffId":"2020042413000172"},{"poweroffId":2020042413000142,"sgpoweroffId":null,"subsName":"","lineName":"10KV庄里511","pubTranName":"岭南台村南,柏林城村内,南庄村内,庄头艾家庄,道沟村内,庄里村内2,铁角村内,高铺村东台区,罗古台大泽路口台区变压器,","scope":"【影响街道/乡镇】九龙镇 【高危重要客户】无 【影响客户】罗古台村、铁角村、南庄村、柏林成村、庄里村、庄头村、道沟村、高铺村、岭南台村","startTime":"2020-05-10 06:00:00","stopDate":"2020-05-10 18:00:00","orgNo":"1340614","typeCode":"计划停电","poweroffArea":"【分支停电】停庄里村内2,铁角村内,高铺村东台区,罗古台大泽路口台区变压器,岭南台村南,柏林城村内,南庄村内,庄头艾家庄,道沟村内","poweroffReason":"【停电原因】由于更换导线导致３５ＫＶ镇厂变电站１０ＫＶ庄里５１１线路６３号杆至１０７号杆停电 【变更送电】无 【发布渠道】保定市涞水电视台（０４月２５日０时至０５月１０日０时之间）屏幕上方滚动","powerTime":"2020-05-10 17:46:49","powerComm":"已送电","subsNo":"","lineNo":"","tgNo":"","tgName":null,"infoStatus":"1","orgName":"国网涞水县供电公司","typeName":null,"infoStatusName":null,"dateDay":null,"orgNos":null,"nowTime":null,"countyName":null,"streetName":null,"villageName":null,"roadName":null,"communityName":null,"tranName":null,"sdLineName":null,"cityCode":"1340614","cityName":"国网涞水县供电公司","provinceCode":null,"stopTime":"2020-05-10 18:00:00","powerType":"全部","powerOffArea":"【分支停电】停庄里村内2,铁角村内,高铺村东台区,罗古台大泽路口台区变压器,岭南台村南,柏林城村内,南庄村内,庄头艾家庄,道沟村内","powerOffReason":"【停电原因】由于更换导线导致３５ＫＶ镇厂变电站１０ＫＶ庄里５１１线路６３号杆至１０７号杆停电 【变更送电】无 【发布渠道】保定市涞水电视台（０４月２５日０时至０５月１０日０时之间）屏幕上方滚动","powerOffId":"2020042413000142"},{"poweroffId":2020042413000122,"sgpoweroffId":null,"subsName":"","lineName":"10kV东文山517","pubTranName":"西长堤村东北变压器,南七山西台变压器,上车亭小东坡台区变压器,南兵上村西台区变压器,牛各庄村内变压器,北兵上村西变变压器,西武山东台变压器,淮河村西南变压器,东文山东台,东长堤村东北变压器,北七山北台区变压器,","scope":"【影响街道/乡镇】东文山乡 【高危重要客户】无 【影响客户】南兵上村、北兵上村、东文山村东、西武山村、淮河村、南七山村、北七山村、东长堤村、西长堤村、牛各庄村、上车亭村南及西南用户","startTime":"2020-05-10 05:00:00","stopDate":"2020-05-10 18:00:00","orgNo":"1340614","typeCode":"计划停电","poweroffArea":"【全线路停电】停北七山北台区变压器,西长堤村东北变压器,南七山西台变压器,上车亭小东坡台区变压器,南兵上村西台区变压器,牛各庄村内变压器,北兵上村西变变压器,西武山东台变压器,淮河村西南变压器,东文山东台,东长堤村东北变压器","poweroffReason":"【停电原因】由于更换导线导致１１０ＫＶ涞水变电站１０ＫＶ东文山５１７线路全线停电 【变更送电】无 【发布渠道】保定市涞水县电视台（２０２０年０４月２５日０时至２０２０年０５月１０日０时之间）屏幕上方滚动","powerTime":"2020-05-10 17:23:32","powerComm":"已送电","subsNo":"","lineNo":"","tgNo":"","tgName":null,"infoStatus":"1","orgName":"国网涞水县供电公司","typeName":null,"infoStatusName":null,"dateDay":null,"orgNos":null,"nowTime":null,"countyName":null,"streetName":null,"villageName":null,"roadName":null,"communityName":null,"tranName":null,"sdLineName":null,"cityCode":"1340614","cityName":"国网涞水县供电公司","provinceCode":null,"stopTime":"2020-05-10 18:00:00","powerType":"全部","powerOffArea":"【全线路停电】停北七山北台区变压器,西长堤村东北变压器,南七山西台变压器,上车亭小东坡台区变压器,南兵上村西台区变压器,牛各庄村内变压器,北兵上村西变变压器,西武山东台变压器,淮河村西南变压器,东文山东台,东长堤村东北变压器","powerOffReason":"【停电原因】由于更换导线导致１１０ＫＶ涞水变电站１０ＫＶ东文山５１７线路全线停电 【变更送电】无 【发布渠道】保定市涞水县电视台（２０２０年０４月２５日０时至２０２０年０５月１０日０时之间）屏幕上方滚动","powerOffId":"2020042413000122"}],"pageModel":{"pageNow":145,"totalCount":10973,"totalPage":1098,"tableRows":0,"pageCount":10,"beginCount":1440},"isExperi":"1"}