{"message":"","today":"2020-06-15","seleList":[{"poweroffId":2020042313000252,"sgpoweroffId":null,"subsName":"","lineName":"10KV普利庄532","pubTranName":"普利庄内0190,","scope":"【影响街道/乡镇】百尺竿镇 【高危重要客户】无 【影响客户】普利庄村","startTime":"2020-04-25 05:00:00","stopDate":"2020-04-25 12:00:00","orgNo":"1340626","typeCode":"临时停电","poweroffArea":"【单台区停电】停普利庄内0190","poweroffReason":"【停电原因】由于低压台区迁址导致１１０ＫＶ宋营变电站１０ＫＶ普利庄５３２线路普利庄内０１９０公变台区停电 【变更送电】无 【发布渠道】通过９５５９８发布","powerTime":"2020-04-25 11:44:31","powerComm":"恢复送电","subsNo":"","lineNo":"","tgNo":"","tgName":null,"infoStatus":"1","orgName":"国网涿州市供电公司","typeName":null,"infoStatusName":null,"dateDay":null,"orgNos":null,"nowTime":null,"countyName":null,"streetName":null,"villageName":null,"roadName":null,"communityName":null,"tranName":null,"sdLineName":null,"cityCode":"1340626","cityName":"国网涿州市供电公司","provinceCode":null,"stopTime":"2020-04-25 12:00:00","powerType":"全部","powerOffArea":"【单台区停电】停普利庄内0190","powerOffReason":"【停电原因】由于低压台区迁址导致１１０ＫＶ宋营变电站１０ＫＶ普利庄５３２线路普利庄内０１９０公变台区停电 【变更送电】无 【发布渠道】通过９５５９８发布","powerOffId":"2020042313000252"},{"poweroffId":2020042313000244,"sgpoweroffId":null,"subsName":"","lineName":"10KV松马517","pubTranName":"房一村西,","scope":"【影响街道/乡镇】松林店镇 【高危重要客户】无 【影响客户】房一村","startTime":"2020-04-25 07:00:00","stopDate":"2020-04-25 12:00:00","orgNo":"1340626","typeCode":"临时停电","poweroffArea":"【单台区停电】停房一村西","poweroffReason":"【停电原因】由于低压台区迁址导致３５ＫＶ松林店变电站１０ＫＶ松马５１７线路房一村西公变台区停电 【变更送电】无 【发布渠道】通过９５５９８发布","powerTime":"2020-04-25 11:44:50","powerComm":"恢复送电","subsNo":"","lineNo":"","tgNo":"","tgName":null,"infoStatus":"1","orgName":"国网涿州市供电公司","typeName":null,"infoStatusName":null,"dateDay":null,"orgNos":null,"nowTime":null,"countyName":null,"streetName":null,"villageName":null,"roadName":null,"communityName":null,"tranName":null,"sdLineName":null,"cityCode":"1340626","cityName":"国网涿州市供电公司","provinceCode":null,"stopTime":"2020-04-25 12:00:00","powerType":"全部","powerOffArea":"【单台区停电】停房一村西","powerOffReason":"【停电原因】由于低压台区迁址导致３５ＫＶ松林店变电站１０ＫＶ松马５１７线路房一村西公变台区停电 【变更送电】无 【发布渠道】通过９５５９８发布","powerOffId":"2020042313000244"},{"poweroffId":2020042313000239,"sgpoweroffId":null,"subsName":"","lineName":"10KV松马517","pubTranName":"房树四村村西新增,","scope":"【影响街道/乡镇】松林店镇 【高危重要客户】无 【影响客户】房四村","startTime":"2020-04-25 07:00:00","stopDate":"2020-04-25 12:00:00","orgNo":"1340626","typeCode":"临时停电","poweroffArea":"【单台区停电】停房树四村村西新增","poweroffReason":"【停电原因】由于低压台区迁址导致３５ＫＶ松林店变电站１０ＫＶ松马５１７线路房树四村村西新增公变台区停电 【变更送电】无 【发布渠道】通过９５５９８发布","powerTime":"2020-04-25 11:44:01","powerComm":"恢复送电","subsNo":"","lineNo":"","tgNo":"","tgName":null,"infoStatus":"1","orgName":"国网涿州市供电公司","typeName":null,"infoStatusName":null,"dateDay":null,"orgNos":null,"nowTime":null,"countyName":null,"streetName":null,"villageName":null,"roadName":null,"communityName":null,"tranName":null,"sdLineName":null,"cityCode":"1340626","cityName":"国网涿州市供电公司","provinceCode":null,"stopTime":"2020-04-25 12:00:00","powerType":"全部","powerOffArea":"【单台区停电】停房树四村村西新增","powerOffReason":"【停电原因】由于低压台区迁址导致３５ＫＶ松林店变电站１０ＫＶ松马５１７线路房树四村村西新增公变台区停电 【变更送电】无 【发布渠道】通过９５５９８发布","powerOffId":"2020042313000239"},{"poweroffId":2020042313000214,"sgpoweroffId":null,"subsName":"","lineName":"10kV史家寨513线","pubTranName":"双庙2号配变变压器,513照旺台8#配变,双庙1号配变变压器,513双庙配变配变,513照旺台15#配变,513柳树底3#配变,华泰庄苑公用配变,","scope":"【影响街道/乡镇】城关镇 【影响客户】照旺台、柳树底、天宇名苑、白沟新村、白山沟、山水一品、华泰庄园、双庙、阳光家园、瑞祥园、窑沟、欣荣小区、恩德家园","startTime":"2020-05-02 05:00:00","stopDate":"2020-05-02 13:00:00","orgNo":"1340611","typeCode":"计划停电","poweroffArea":"【分支停电】停１１０ＫＶ阜平变电站１０ＫＶ史家寨５１３线路柳树底分支１号杆５１３－８号开关及以下线路，华泰庄苑公用配变,513照旺台8#配变,513双庙配变配变,513照旺台15#配变,513柳树底3#配变,双庙2号配变变压器,双庙1号配变变压器","poweroffReason":"【停电原因】由于引线搭接导致１１０ＫＶ阜平变电站１０ＫＶ史家寨５１３线路柳树底分支１号杆５１３－８号开关及以下线路停电 【变更送电】因进度提前原因，送电时间由１５：００变更为１３：００ 【发布渠道】保定市阜平电视台（４月２３日１８时至５月２日２２时之间）","powerTime":"2020-05-02 12:39:35","powerComm":"全部送电","subsNo":"","lineNo":"","tgNo":"","tgName":null,"infoStatus":"1","orgName":"国网阜平县供电公司","typeName":null,"infoStatusName":null,"dateDay":null,"orgNos":null,"nowTime":null,"countyName":null,"streetName":null,"villageName":null,"roadName":null,"communityName":null,"tranName":null,"sdLineName":null,"cityCode":"1340611","cityName":"国网阜平县供电公司","provinceCode":null,"stopTime":"2020-05-02 13:00:00","powerType":"全部","powerOffArea":"【分支停电】停１１０ＫＶ阜平变电站１０ＫＶ史家寨５１３线路柳树底分支１号杆５１３－８号开关及以下线路，华泰庄苑公用配变,513照旺台8#配变,513双庙配变配变,513照旺台15#配变,513柳树底3#配变,双庙2号配变变压器,双庙1号配变变压器","powerOffReason":"【停电原因】由于引线搭接导致１１０ＫＶ阜平变电站１０ＫＶ史家寨５１３线路柳树底分支１号杆５１３－８号开关及以下线路停电 【变更送电】因进度提前原因，送电时间由１５：００变更为１３：００ 【发布渠道】保定市阜平电视台（４月２３日１８时至５月２日２２时之间）","powerOffId":"2020042313000214"},{"poweroffId":2020042313000197,"sgpoweroffId":null,"subsName":"","lineName":"10kV518大定线","pubTranName":"大定公用照明5台区,东赵庄公用照明10台区,南大定村公用照明2台区,大定公用农业3台区【纯农排变】,南大定村公用照明3台区,南大定公用照明1台区,东赵庄公用照明11台区,东赵庄村东赵庄庄儿公用照明5台区,大定公用照明8台区,大定公用农业4台区【纯农排变】,大定公用照明6台区,东赵庄公用照明9台区,东赵庄公用照明5台区,大定公用照明7台区,东赵庄公用照明13台区,大定公用照明4台区,东赵庄公用照明4台区,","scope":"【影响街道/乡镇】西城乡【影响客户】大定、东赵庄","startTime":"2020-05-07 07:00:00","stopDate":"2020-05-07 08:00:00","orgNo":"1340610","typeCode":"计划停电","poweroffArea":"【分支停电】停１１０ＫＶ李亲顾变电站１０ＫＶ５１８大定线路主干１２０号杆０３号断路器以下线路，大定公用农业4台区【纯农排变】,大定公用照明5台区,东赵庄公用照明10台区,南大定村公用照明2台区,大定公用农业3台区【纯农排变】,南大定村公用照明3台区,南大定公用照明1台区,东赵庄村东赵庄庄儿公用照明5台区,大定公用照明8台区,大定公用照明6台区,东赵庄公用照明11台区,东赵庄公用照明9台区,东赵庄公用照明5台区,大定公用照明7台区,东赵庄公用照明13台区,大定公用照明4台区,东赵庄公用照明4台区","poweroffReason":"【停电原因】由于更换导线、更换电杆导致１１０ＫＶ李亲顾变电站１０ＫＶ５１８大定线路０３号断路器以下线路停电 【变更送电】因抢修进度加快原因，送电时间由１８：００变更为０８：００ 【发布渠道】河北省定州市定州日报第三版（２０２０年０４月２４日）","powerTime":"2020-05-07 07:49:57","powerComm":"已送电","subsNo":"","lineNo":"","tgNo":"","tgName":null,"infoStatus":"1","orgName":"国网定州市供电公司","typeName":null,"infoStatusName":null,"dateDay":null,"orgNos":null,"nowTime":null,"countyName":null,"streetName":null,"villageName":null,"roadName":null,"communityName":null,"tranName":null,"sdLineName":null,"cityCode":"1340610","cityName":"国网定州市供电公司","provinceCode":null,"stopTime":"2020-05-07 08:00:00","powerType":"全部","powerOffArea":"【分支停电】停１１０ＫＶ李亲顾变电站１０ＫＶ５１８大定线路主干１２０号杆０３号断路器以下线路，大定公用农业4台区【纯农排变】,大定公用照明5台区,东赵庄公用照明10台区,南大定村公用照明2台区,大定公用农业3台区【纯农排变】,南大定村公用照明3台区,南大定公用照明1台区,东赵庄村东赵庄庄儿公用照明5台区,大定公用照明8台区,大定公用照明6台区,东赵庄公用照明11台区,东赵庄公用照明9台区,东赵庄公用照明5台区,大定公用照明7台区,东赵庄公用照明13台区,大定公用照明4台区,东赵庄公用照明4台区","powerOffReason":"【停电原因】由于更换导线、更换电杆导致１１０ＫＶ李亲顾变电站１０ＫＶ５１８大定线路０３号断路器以下线路停电 【变更送电】因抢修进度加快原因，送电时间由１８：００变更为０８：００ 【发布渠道】河北省定州市定州日报第三版（２０２０年０４月２４日）","powerOffId":"2020042313000197"},{"poweroffId":2020042313000191,"sgpoweroffId":null,"subsName":"","lineName":"10kV524李亲顾线","pubTranName":"李亲顾村公用照明12台区,李亲顾公用照明13台区,李亲顾公用照明17台区,李亲顾村公用照明2台区,李亲顾公用照明18台区,李亲顾公用照明10台区,李亲顾公用照明23台区,李亲顾公用照明22台区,李亲顾村公用照明8台区,李亲顾公用照明20台区,李亲顾公用照明21台区,李亲顾公用照明14台区,李亲顾公用照明6台区,李亲顾公用照明19台区,李亲顾公用照明3台区,李亲顾村公用照明11台区,李亲顾公用照明9台区,李亲顾公用照明5台区,李亲顾村李亲顾庄公用照明7台区,李亲顾公用照明15台区,李亲顾公用照明16台区,李亲顾公用照明1台区,","scope":"【影响街道/乡镇】李亲顾镇【高危重要客户】无【影响客户】李亲顾村","startTime":"2020-04-23 15:52:22","stopDate":"2020-04-23 17:00:00","orgNo":"1340610","typeCode":"电网故障停限电","poweroffArea":"【全线路停电】停李亲顾公用照明1台区,李亲顾公用照明3台区,李亲顾村公用照明11台区,李亲顾公用照明10台区,李亲顾村公用照明2台区,李亲顾公用照明15台区,李亲顾村公用照明12台区,李亲顾公用照明4台区,李亲顾公用照明6台区,李亲顾公用照明5台区,李亲顾公用照明14台区,李亲顾公用照明16台区,李亲顾公用照明13台区,李亲顾公用照明19台区,李亲顾公用照明21台区,李亲顾公用照明22台区,李亲顾公用照明23台区,李亲顾村公用农业1台区,李亲顾村李亲顾庄公用照明7台区,李亲顾村公用照明8台区,李亲顾公用照明9台区,李亲顾公用照明20台区,李亲顾公用照明17台区,李亲顾公用照明18台区","poweroffReason":"【停电原因】由于线路开关掉闸导致１１０ＫＶ李亲顾变电站１０ＫＶ５２４李亲顾线路全线停电 【变更送电】因抢修进度加快原因，送电时间由２１：００变更为１７：００ 【发布渠道】９５５９８","powerTime":"2020-04-23 16:29:00","powerComm":"已送电","subsNo":"","lineNo":"","tgNo":"","tgName":null,"infoStatus":"1","orgName":"国网定州市供电公司","typeName":null,"infoStatusName":null,"dateDay":null,"orgNos":null,"nowTime":null,"countyName":null,"streetName":null,"villageName":null,"roadName":null,"communityName":null,"tranName":null,"sdLineName":null,"cityCode":"1340610","cityName":"国网定州市供电公司","provinceCode":null,"stopTime":"2020-04-23 17:00:00","powerType":"全部","powerOffArea":"【全线路停电】停李亲顾公用照明1台区,李亲顾公用照明3台区,李亲顾村公用照明11台区,李亲顾公用照明10台区,李亲顾村公用照明2台区,李亲顾公用照明15台区,李亲顾村公用照明12台区,李亲顾公用照明4台区,李亲顾公用照明6台区,李亲顾公用照明5台区,李亲顾公用照明14台区,李亲顾公用照明16台区,李亲顾公用照明13台区,李亲顾公用照明19台区,李亲顾公用照明21台区,李亲顾公用照明22台区,李亲顾公用照明23台区,李亲顾村公用农业1台区,李亲顾村李亲顾庄公用照明7台区,李亲顾村公用照明8台区,李亲顾公用照明9台区,李亲顾公用照明20台区,李亲顾公用照明17台区,李亲顾公用照明18台区","powerOffReason":"【停电原因】由于线路开关掉闸导致１１０ＫＶ李亲顾变电站１０ＫＶ５２４李亲顾线路全线停电 【变更送电】因抢修进度加快原因，送电时间由２１：００变更为１７：００ 【发布渠道】９５５９８","powerOffId":"2020042313000191"},{"poweroffId":2020042313000186,"sgpoweroffId":null,"subsName":"","lineName":"10kV568体品园线","pubTranName":"客户投资_大奇连公用照明3台区,大奇连公用照明7台区,","scope":"【影响街道/乡镇】西城区【影响客户】大奇连","startTime":"2020-05-06 06:50:00","stopDate":"2020-05-06 18:00:00","orgNo":"1340610","typeCode":"计划停电","poweroffArea":"【分支停电】停１１０ＫＶ焦化厂变电站１０ＫＶ５６８体品园线路体品２分支１２号杆０８号隔离开关以下线路，客户投资_大奇连公用照明3台区,大奇连公用照明7台区","poweroffReason":"【停电原因】由于换导线、更换电杆、更换下引线导致１１０ＫＶ焦化厂变电站１０ＫＶ５６８体品园线路体品２分支１２号杆０８号隔离开关以下线路停电 【变更送电】无 【发布渠道】河北省定州市定州日报第三版（２０２０年０４月２４日）","powerTime":"2020-05-06 17:55:43","powerComm":"已送电","subsNo":"","lineNo":"","tgNo":"","tgName":null,"infoStatus":"1","orgName":"国网定州市供电公司","typeName":null,"infoStatusName":null,"dateDay":null,"orgNos":null,"nowTime":null,"countyName":null,"streetName":null,"villageName":null,"roadName":null,"communityName":null,"tranName":null,"sdLineName":null,"cityCode":"1340610","cityName":"国网定州市供电公司","provinceCode":null,"stopTime":"2020-05-06 18:00:00","powerType":"全部","powerOffArea":"【分支停电】停１１０ＫＶ焦化厂变电站１０ＫＶ５６８体品园线路体品２分支１２号杆０８号隔离开关以下线路，客户投资_大奇连公用照明3台区,大奇连公用照明7台区","powerOffReason":"【停电原因】由于换导线、更换电杆、更换下引线导致１１０ＫＶ焦化厂变电站１０ＫＶ５６８体品园线路体品２分支１２号杆０８号隔离开关以下线路停电 【变更送电】无 【发布渠道】河北省定州市定州日报第三版（２０２０年０４月２４日）","powerOffId":"2020042313000186"},{"poweroffId":2020042313000181,"sgpoweroffId":null,"subsName":"","lineName":"10kV522商场线","pubTranName":"文庙街公用照明4台区,（184）劳改大队公用照明2台区,文庙街公用照明3台区,（177）文庙街公用照明2台区,河北锦虎房地产开发有限公司 金地花园2变压器2,中山塑料厂,定州监狱家属院,（26）文庙街公用照明1台区,","scope":"【影响街道/乡镇】文庙街【高危重要客户】８６４０部队【影响客户】监狱家属院、金地花园小区、中山塑料厂","startTime":"2020-05-06 07:00:00","stopDate":"2020-05-06 18:00:00","orgNo":"1340610","typeCode":"计划停电","poweroffArea":"【分支停电】停１１０ＫＶ总司屯变电站１０ＫＶ５２２商场线路文庙分支０１号杆０４号断路器以下线路，（26）文庙街公用照明1台区,文庙街公用照明4台区,（184）劳改大队公用照明2台区,文庙街公用照明3台区,（177）文庙街公用照明2台区,河北锦虎房地产开发有限公司 金地花园2变压器2,中山塑料厂,定州监狱家属院","poweroffReason":"【停电原因】由于新增配变、新架导线、新增电杆导致１１０ＫＶ总司屯变电站１０ＫＶ５２２商场线路文庙分支０１号杆０４号断路器以下线路停电 【变更送电】无 【发布渠道】河北省定州市定州日报第三版（２０２０年０４月２４日）","powerTime":"2020-05-06 17:45:41","powerComm":"已送电","subsNo":"","lineNo":"","tgNo":"","tgName":null,"infoStatus":"1","orgName":"国网定州市供电公司","typeName":null,"infoStatusName":null,"dateDay":null,"orgNos":null,"nowTime":null,"countyName":null,"streetName":null,"villageName":null,"roadName":null,"communityName":null,"tranName":null,"sdLineName":null,"cityCode":"1340610","cityName":"国网定州市供电公司","provinceCode":null,"stopTime":"2020-05-06 18:00:00","powerType":"全部","powerOffArea":"【分支停电】停１１０ＫＶ总司屯变电站１０ＫＶ５２２商场线路文庙分支０１号杆０４号断路器以下线路，（26）文庙街公用照明1台区,文庙街公用照明4台区,（184）劳改大队公用照明2台区,文庙街公用照明3台区,（177）文庙街公用照明2台区,河北锦虎房地产开发有限公司 金地花园2变压器2,中山塑料厂,定州监狱家属院","powerOffReason":"【停电原因】由于新增配变、新架导线、新增电杆导致１１０ＫＶ总司屯变电站１０ＫＶ５２２商场线路文庙分支０１号杆０４号断路器以下线路停电 【变更送电】无 【发布渠道】河北省定州市定州日报第三版（２０２０年０４月２４日）","powerOffId":"2020042313000181"},{"poweroffId":2020042313000179,"sgpoweroffId":null,"subsName":"","lineName":"10kV511王习线","pubTranName":"小流村公用照明1台区,小流公用照明4台区,","scope":"【影响街道/乡镇】大鹿庄乡【影响客户】小流村","startTime":"2020-05-09 06:40:00","stopDate":"2020-05-09 18:00:00","orgNo":"1340610","typeCode":"计划停电","poweroffArea":"【分支停电】停３５ＫＶ大辛庄变电站１０ＫＶ５１１王习线路小流２分支０６号杆７１号隔离开关以下线路，小流村公用照明1台区,小流公用照明4台区","poweroffReason":"【停电原因】由于更换低压导线、更换电杆、更换下引线导致３５ＫＶ大辛庄变电站１０ＫＶ５１１王习线路小流２分支０６号杆７１号隔离开关以下线路停电 【变更送电】无 【发布渠道】河北省定州市定州日报第三版（２０２０年０４月２４日）","powerTime":"2020-05-09 17:19:36","powerComm":"已送电","subsNo":"","lineNo":"","tgNo":"","tgName":null,"infoStatus":"1","orgName":"国网定州市供电公司","typeName":null,"infoStatusName":null,"dateDay":null,"orgNos":null,"nowTime":null,"countyName":null,"streetName":null,"villageName":null,"roadName":null,"communityName":null,"tranName":null,"sdLineName":null,"cityCode":"1340610","cityName":"国网定州市供电公司","provinceCode":null,"stopTime":"2020-05-09 18:00:00","powerType":"全部","powerOffArea":"【分支停电】停３５ＫＶ大辛庄变电站１０ＫＶ５１１王习线路小流２分支０６号杆７１号隔离开关以下线路，小流村公用照明1台区,小流公用照明4台区","powerOffReason":"【停电原因】由于更换低压导线、更换电杆、更换下引线导致３５ＫＶ大辛庄变电站１０ＫＶ５１１王习线路小流２分支０６号杆７１号隔离开关以下线路停电 【变更送电】无 【发布渠道】河北省定州市定州日报第三版（２０２０年０４月２４日）","powerOffId":"2020042313000179"},{"poweroffId":2020042313000176,"sgpoweroffId":null,"subsName":"","lineName":"10kV581大屯线","pubTranName":"大屯公用农业5台区【纯农排变】,","scope":"【影响街道/乡镇】西城区【影响客户】大屯、奇连屯、经济开发区","startTime":"2020-05-06 06:40:00","stopDate":"2020-05-06 17:20:00","orgNo":"1340610","typeCode":"计划停电","poweroffArea":"【分支停电】停１１０ＫＶ焦化厂变电站１０ＫＶ５８１大屯线路主干１１１号杆０３号断路器以下线路，奇连屯公用农业15台区【纯农排变】,奇连屯公用农业2台区【纯农排变】,大屯公用农业2台区【纯农排变】,奇连屯公用农业14台区【纯农排变】,奇连屯公用农业6台区【纯农排变】,奇连屯公用农业3台区【纯农排变】,奇连屯公用农业10台区【纯农排变】,奇连屯公用农业1台区【纯农排变】,奇连屯公用农业4台区【纯农排变】,奇连屯公用农业9台区【纯农排变】,大屯公用农业3台区【纯农排变】,奇连屯公用农业16台区【纯农排变】,奇连屯公用农业5台区【纯农排变】,大屯公用农业5台区【纯农排变】,奇连屯公用农业11台区【纯农排变】,大屯公用农业4台区【纯农排变】,奇连屯公用农业12台区【纯农排变】,大屯公用农业1台区【纯农排变】","poweroffReason":"【停电原因】由于更换导线导致１１０ＫＶ焦化厂变电站１０ＫＶ５８１大屯线路主干１１１号杆０３号断路器以下线路停电 【变更送电】因抢修进度加快原因，送电时间由１８：００变更为１７：２０ 【发布渠道】河北省定州市定州日报第三版（２０２０年０４月２４日）","powerTime":"2020-05-06 16:56:03","powerComm":"已送电","subsNo":"","lineNo":"","tgNo":"","tgName":null,"infoStatus":"1","orgName":"国网定州市供电公司","typeName":null,"infoStatusName":null,"dateDay":null,"orgNos":null,"nowTime":null,"countyName":null,"streetName":null,"villageName":null,"roadName":null,"communityName":null,"tranName":null,"sdLineName":null,"cityCode":"1340610","cityName":"国网定州市供电公司","provinceCode":null,"stopTime":"2020-05-06 17:20:00","powerType":"全部","powerOffArea":"【分支停电】停１１０ＫＶ焦化厂变电站１０ＫＶ５８１大屯线路主干１１１号杆０３号断路器以下线路，奇连屯公用农业15台区【纯农排变】,奇连屯公用农业2台区【纯农排变】,大屯公用农业2台区【纯农排变】,奇连屯公用农业14台区【纯农排变】,奇连屯公用农业6台区【纯农排变】,奇连屯公用农业3台区【纯农排变】,奇连屯公用农业10台区【纯农排变】,奇连屯公用农业1台区【纯农排变】,奇连屯公用农业4台区【纯农排变】,奇连屯公用农业9台区【纯农排变】,大屯公用农业3台区【纯农排变】,奇连屯公用农业16台区【纯农排变】,奇连屯公用农业5台区【纯农排变】,大屯公用农业5台区【纯农排变】,奇连屯公用农业11台区【纯农排变】,大屯公用农业4台区【纯农排变】,奇连屯公用农业12台区【纯农排变】,大屯公用农业1台区【纯农排变】","powerOffReason":"【停电原因】由于更换导线导致１１０ＫＶ焦化厂变电站１０ＫＶ５８１大屯线路主干１１１号杆０３号断路器以下线路停电 【变更送电】因抢修进度加快原因，送电时间由１８：００变更为１７：２０ 【发布渠道】河北省定州市定州日报第三版（２０２０年０４月２４日）","powerOffId":"2020042313000176"}],"pageModel":{"pageNow":147,"totalCount":10973,"totalPage":1098,"tableRows":0,"pageCount":10,"beginCount":1460},"isExperi":"1"}