{"message":"","today":"2020-06-15","seleList":[{"poweroffId":2020042313000170,"sgpoweroffId":null,"subsName":"","lineName":"10kV512流沙线","pubTranName":"连台公用农业10台区1【纯农排变】,连台公用农业4台区（1）【纯农排变】,连台公用农业17台区1【纯农排变】,连台公用农业9台区（1）【纯农排变】,连台2号,连台公用农业24台区1【纯农排变】,沙流公用照明4台区,连台1＃,连台公用农业25台区1【纯农排变】,连台公用农业18台区1【纯农排变】,连台公用农业11台区1【纯农排变】,连台公用农业26台区1【纯农排变】,连台公用农业1台区【纯农排变】,连台公用农业20台区1【纯农排变】,连台公用农业19台区1【纯农排变】,连台公用农业48台区1【纯农排变】,连台公用农业14台区1【纯农排变】,连台村梨园南,连台公用农业22台区1【纯农排变】,连台公用农业6台区（1）【纯农排变】,连台公用农业3台区(1)【纯农排变】,连台公用农业8台区（1）【纯农排变】,连台公用农业21台区1【纯农排变】,连台公用农业16台区【纯农排变】,连台公用农业15台区1【纯农排变】,连台公用农业7台区（1）【纯农排变】,连台公用农业5台区（1）【纯农排变】,连台公用农业23台区【纯农排变】,连台公用农业2台区（1）【纯农排变】,连台公用农业12台区1【纯农排变】,连台公用农业13台区1【纯农排变】,","scope":"【影响街道/乡镇】息仲镇【影响客户】连台","startTime":"2020-05-10 07:00:00","stopDate":"2020-05-10 18:00:00","orgNo":"1340610","typeCode":"计划停电","poweroffArea":"【分支停电】停３５ＫＶ息仲变电站１０ＫＶ５１２流沙线路主干１８号杆０１号断路器以下线路，连台公用农业10台区1【纯农排变】,连台公用农业4台区（1）【纯农排变】,连台公用农业17台区1【纯农排变】,连台公用农业9台区（1）【纯农排变】,连台2号,连台公用农业24台区1【纯农排变】,连台公用农业13台区1【纯农排变】,连台公用农业6台区（1）【纯农排变】,连台公用农业3台区(1)【纯农排变】,连台公用农业8台区（1）【纯农排变】,连台公用农业21台区1【纯农排变】,连台公用农业16台区【纯农排变】,连台公用农业15台区1【纯农排变】,连台公用农业7台区（1）【纯农排变】,连台公用农业5台区（1）【纯农排变】,连台公用农业23台区【纯农排变】,连台公用农业2台区（1）【纯农排变】,连台公用农业12台区1【纯农排变】,连台公用农业22台区1【纯农排变】,连台1＃,连台公用农业25台区1【纯农排变】,连台公用农业18台区1【纯农排变】,连台公用农业11台区1【纯农排变】,连台公用农业26台区1【纯农排变】,连台公用农业1台区【纯农排变】,连台公用农业20台区1【纯农排变】,连台公用农业19台区1【纯农排变】,连台公用农业48台区1【纯农排变】,连台公用农业14台区1【纯农排变】,连台村梨园南","poweroffReason":"【停电原因】由于更换导线导致３５ＫＶ息仲变电站１０ＫＶ５１２流沙线路主干１８号杆０１号断路器以下线路停电 【变更送电】无 【发布渠道】河北省定州市定州日报第三版（２０２０年０４月２４日）","powerTime":"2020-05-10 17:01:27","powerComm":"已送电","subsNo":"","lineNo":"","tgNo":"","tgName":null,"infoStatus":"1","orgName":"国网定州市供电公司","typeName":null,"infoStatusName":null,"dateDay":null,"orgNos":null,"nowTime":null,"countyName":null,"streetName":null,"villageName":null,"roadName":null,"communityName":null,"tranName":null,"sdLineName":null,"cityCode":"1340610","cityName":"国网定州市供电公司","provinceCode":null,"stopTime":"2020-05-10 18:00:00","powerType":"全部","powerOffArea":"【分支停电】停３５ＫＶ息仲变电站１０ＫＶ５１２流沙线路主干１８号杆０１号断路器以下线路，连台公用农业10台区1【纯农排变】,连台公用农业4台区（1）【纯农排变】,连台公用农业17台区1【纯农排变】,连台公用农业9台区（1）【纯农排变】,连台2号,连台公用农业24台区1【纯农排变】,连台公用农业13台区1【纯农排变】,连台公用农业6台区（1）【纯农排变】,连台公用农业3台区(1)【纯农排变】,连台公用农业8台区（1）【纯农排变】,连台公用农业21台区1【纯农排变】,连台公用农业16台区【纯农排变】,连台公用农业15台区1【纯农排变】,连台公用农业7台区（1）【纯农排变】,连台公用农业5台区（1）【纯农排变】,连台公用农业23台区【纯农排变】,连台公用农业2台区（1）【纯农排变】,连台公用农业12台区1【纯农排变】,连台公用农业22台区1【纯农排变】,连台1＃,连台公用农业25台区1【纯农排变】,连台公用农业18台区1【纯农排变】,连台公用农业11台区1【纯农排变】,连台公用农业26台区1【纯农排变】,连台公用农业1台区【纯农排变】,连台公用农业20台区1【纯农排变】,连台公用农业19台区1【纯农排变】,连台公用农业48台区1【纯农排变】,连台公用农业14台区1【纯农排变】,连台村梨园南","powerOffReason":"【停电原因】由于更换导线导致３５ＫＶ息仲变电站１０ＫＶ５１２流沙线路主干１８号杆０１号断路器以下线路停电 【变更送电】无 【发布渠道】河北省定州市定州日报第三版（２０２０年０４月２４日）","powerOffId":"2020042313000170"},{"poweroffId":2020042313000166,"sgpoweroffId":null,"subsName":"","lineName":"10kV521塔宣村线","pubTranName":"塔宣村庄公用照明6台区箱变出线间隔配电变压器,杨庄子照明6台区4队(3),杨庄子公用照明9台区,杨庄子公用照明8台区,计生委公用照明一台区(1),杨庄子照明5台区2队(2),塔宣村公用照明3台区1,塔宣村公用照明4台区1,杨庄子公用照明5台区箱变出线间隔配电变压器,杨庄子公用照明11台区箱变出线间隔配电变压器,孔会同公用农业1台区【纯农排变】,","scope":"【影响街道/乡镇】西城区、赵村镇【影响客户】杨庄子、计生委、水厂、塔宣村、塔宣村铁路以东、新华城小区、缔景城小区","startTime":"2020-05-04 07:00:00","stopDate":"2020-05-04 08:30:00","orgNo":"1340610","typeCode":"计划停电","poweroffArea":"【全线路停电】停１１０ＫＶ定县变电站１０ＫＶ５２１塔宣村线路全线,杨庄子照明6台区4队(3),杨庄子公用照明9台区,杨庄子公用照明8台区,计生委公用照明一台区(1),杨庄子照明5台区2队(2),塔宣村公用照明3台区1,塔宣村公用照明4台区1,保定中乾房地产开发有限公司变压器1,定州市住房和城乡建设局变压器,定州市荣盛健身器材厂变压器,定州市恒达健身器材有限公司变压器,新华机械配件厂,中国石油保定第十二加油站,0669831380-定州市市政工程管理处-专变-211338067-定州市市政工程管理处变压器,0651632618-定州市交通运输局-专变-177363339-定州市交通运输局变压器,河北新华房地产开发有限公司物业变压器,杨庄子公用照明5台区箱变出线间隔配电变压器,定州市新宗食品有限公司,定州市荣盛体育用品厂,杨庄子一队,定州市第二医院变压器,塔宣村公用照明1台区1,定州恒宇塑胶制品厂,任占良,孔会同面粉厂,定州市华安体育用品有限公司,保定中乾房地产开发有限公司变压器,定州市恒通车床加工厂变压器,王会同面粉厂,定州市国立医药材料有限公司,定州市自来水公司1,李锅底,定州市鑫达体育用品厂,定州市自来水公司,河北新华房地产开发有限公司商业变压器,中国移动通信集团河北有限公司定州分公司变压器,定州市竞辉水泥制品厂变压器,杨庄子公用照明11台区箱变出线间隔配电变压器,0663053955-定州市中洲水业有限公司-专变-202642599-定州市中洲水业有限公司变压器,定州市伊利雪糕批发部变压器,定州市会兰面业有限公司变压器,塔宣村公用照明5台区1,0579077120-定州市润腾房地产开发有限公司-专变-124346418-定州市润腾房地产开发有限公司,河北宏孚森美石化销售有限公司变压器,河北新华房地产开发有限公司供暖变压器,定州市福利液化气站,定州市杨岳军机械零部件厂变压器,河北新华房地产开发有限公司照明变压器,路通水泥管厂变压器,定州市建宏钢材经销处变压器,定州市北方汽车部件三厂,定州市永红车轴厂,孔会同公用农业1台区【纯农排变】,定州市环城医院变压器,定州市盛源建材通体砖厂变压器,塔宣村公用照明2台区1,北方汽车部件变压器,北方汽车配件1,定州市涧河海鲜坊变压器,定州市商品混凝土有限公司,塔宣村庄公用照明6台区箱变出线间隔配电变压器,定州市鑫达体育用品厂变压器,杨庄子社区居民委员会变压器（新华社区）,环城供电所,定州市谍影飞扬文化传媒有限公司变压器,定州市汇丰面粉厂,定州市润腾房地产开发有限公司变压器,保定市南水北调工程建设委员会办公室变压器,中兴路路灯1,自来水公司,定州市华新公司,北方汽车部件有限公司","poweroffReason":"【停电原因】由于安装电缆头、接引导致１１０ＫＶ定县变电站１０ＫＶ５２１塔宣村线路全线停电 【变更送电】因抢修进度加快原因，送电时间由１８：００变更为０８：３０ 【发布渠道】河北省定州市定州日报第三版（２０２０年０４月２４日）　","powerTime":"2020-05-04 08:08:00","powerComm":"已送电","subsNo":"","lineNo":"","tgNo":"","tgName":null,"infoStatus":"1","orgName":"国网定州市供电公司","typeName":null,"infoStatusName":null,"dateDay":null,"orgNos":null,"nowTime":null,"countyName":null,"streetName":null,"villageName":null,"roadName":null,"communityName":null,"tranName":null,"sdLineName":null,"cityCode":"1340610","cityName":"国网定州市供电公司","provinceCode":null,"stopTime":"2020-05-04 08:30:00","powerType":"全部","powerOffArea":"【全线路停电】停１１０ＫＶ定县变电站１０ＫＶ５２１塔宣村线路全线,杨庄子照明6台区4队(3),杨庄子公用照明9台区,杨庄子公用照明8台区,计生委公用照明一台区(1),杨庄子照明5台区2队(2),塔宣村公用照明3台区1,塔宣村公用照明4台区1,保定中乾房地产开发有限公司变压器1,定州市住房和城乡建设局变压器,定州市荣盛健身器材厂变压器,定州市恒达健身器材有限公司变压器,新华机械配件厂,中国石油保定第十二加油站,0669831380-定州市市政工程管理处-专变-211338067-定州市市政工程管理处变压器,0651632618-定州市交通运输局-专变-177363339-定州市交通运输局变压器,河北新华房地产开发有限公司物业变压器,杨庄子公用照明5台区箱变出线间隔配电变压器,定州市新宗食品有限公司,定州市荣盛体育用品厂,杨庄子一队,定州市第二医院变压器,塔宣村公用照明1台区1,定州恒宇塑胶制品厂,任占良,孔会同面粉厂,定州市华安体育用品有限公司,保定中乾房地产开发有限公司变压器,定州市恒通车床加工厂变压器,王会同面粉厂,定州市国立医药材料有限公司,定州市自来水公司1,李锅底,定州市鑫达体育用品厂,定州市自来水公司,河北新华房地产开发有限公司商业变压器,中国移动通信集团河北有限公司定州分公司变压器,定州市竞辉水泥制品厂变压器,杨庄子公用照明11台区箱变出线间隔配电变压器,0663053955-定州市中洲水业有限公司-专变-202642599-定州市中洲水业有限公司变压器,定州市伊利雪糕批发部变压器,定州市会兰面业有限公司变压器,塔宣村公用照明5台区1,0579077120-定州市润腾房地产开发有限公司-专变-124346418-定州市润腾房地产开发有限公司,河北宏孚森美石化销售有限公司变压器,河北新华房地产开发有限公司供暖变压器,定州市福利液化气站,定州市杨岳军机械零部件厂变压器,河北新华房地产开发有限公司照明变压器,路通水泥管厂变压器,定州市建宏钢材经销处变压器,定州市北方汽车部件三厂,定州市永红车轴厂,孔会同公用农业1台区【纯农排变】,定州市环城医院变压器,定州市盛源建材通体砖厂变压器,塔宣村公用照明2台区1,北方汽车部件变压器,北方汽车配件1,定州市涧河海鲜坊变压器,定州市商品混凝土有限公司,塔宣村庄公用照明6台区箱变出线间隔配电变压器,定州市鑫达体育用品厂变压器,杨庄子社区居民委员会变压器（新华社区）,环城供电所,定州市谍影飞扬文化传媒有限公司变压器,定州市汇丰面粉厂,定州市润腾房地产开发有限公司变压器,保定市南水北调工程建设委员会办公室变压器,中兴路路灯1,自来水公司,定州市华新公司,北方汽车部件有限公司","powerOffReason":"【停电原因】由于安装电缆头、接引导致１１０ＫＶ定县变电站１０ＫＶ５２１塔宣村线路全线停电 【变更送电】因抢修进度加快原因，送电时间由１８：００变更为０８：３０ 【发布渠道】河北省定州市定州日报第三版（２０２０年０４月２４日）　","powerOffId":"2020042313000166"},{"poweroffId":2020042313000164,"sgpoweroffId":null,"subsName":"","lineName":"10KV色南515线","pubTranName":"宫井营东2变压器,","scope":"【影响街道/乡镇】张六庄乡 【高危重要客户】无 【影响客户】宫井营村","startTime":"2020-04-23 15:03:49","stopDate":"2020-04-23 18:30:00","orgNo":"1340612","typeCode":"电网故障停限电","poweroffArea":"【单台区停电】停宫井营东2变压器","poweroffReason":"【停电原因】由于荣乌高速修路把线碰断导致３５ＫＶ久安变电站１０ＫＶ色南５１５线路宫井营东２公变台区停电 【变更送电】因抢修进度加快原因，送电时间由２２：００变更为１８：３０ 【发布渠道】通过９５５９８发布","powerTime":"2020-04-23 18:16:29","powerComm":"已送电","subsNo":"","lineNo":"","tgNo":"","tgName":null,"infoStatus":"1","orgName":"国网高碑店市供电公司","typeName":null,"infoStatusName":null,"dateDay":null,"orgNos":null,"nowTime":null,"countyName":null,"streetName":null,"villageName":null,"roadName":null,"communityName":null,"tranName":null,"sdLineName":null,"cityCode":"1340612","cityName":"国网高碑店市供电公司","provinceCode":null,"stopTime":"2020-04-23 18:30:00","powerType":"全部","powerOffArea":"【单台区停电】停宫井营东2变压器","powerOffReason":"【停电原因】由于荣乌高速修路把线碰断导致３５ＫＶ久安变电站１０ＫＶ色南５１５线路宫井营东２公变台区停电 【变更送电】因抢修进度加快原因，送电时间由２２：００变更为１８：３０ 【发布渠道】通过９５５９８发布","powerOffId":"2020042313000164"},{"poweroffId":2020042313000163,"sgpoweroffId":null,"subsName":"","lineName":"10kV511王习线","pubTranName":"小流村公用照明2台区,小流公用照明6台区,","scope":"【影响街道/乡镇】大鹿庄镇【影响客户】小流村","startTime":"2020-05-10 06:50:00","stopDate":"2020-05-10 18:00:00","orgNo":"1340610","typeCode":"计划停电","poweroffArea":"【分支停电】停３５ＫＶ大辛庄变电站１０ＫＶ５１１王习线路主干７５号杆２９号隔离开关以下线路，小流公用照明6台区,小流村公用照明2台区","poweroffReason":"【停电原因】由于更换低压导线、更换下引线导致３５ＫＶ大辛庄变电站１０ＫＶ５１１王习线路主干７５号杆２９号隔离开关以下线路停电 【变更送电】无 【发布渠道】河北省定州市定州日报第三版（２０２０年０４月２４日）","powerTime":"2020-05-10 17:56:15","powerComm":"已送电","subsNo":"","lineNo":"","tgNo":"","tgName":null,"infoStatus":"1","orgName":"国网定州市供电公司","typeName":null,"infoStatusName":null,"dateDay":null,"orgNos":null,"nowTime":null,"countyName":null,"streetName":null,"villageName":null,"roadName":null,"communityName":null,"tranName":null,"sdLineName":null,"cityCode":"1340610","cityName":"国网定州市供电公司","provinceCode":null,"stopTime":"2020-05-10 18:00:00","powerType":"全部","powerOffArea":"【分支停电】停３５ＫＶ大辛庄变电站１０ＫＶ５１１王习线路主干７５号杆２９号隔离开关以下线路，小流公用照明6台区,小流村公用照明2台区","powerOffReason":"【停电原因】由于更换低压导线、更换下引线导致３５ＫＶ大辛庄变电站１０ＫＶ５１１王习线路主干７５号杆２９号隔离开关以下线路停电 【变更送电】无 【发布渠道】河北省定州市定州日报第三版（２０２０年０４月２４日）","powerOffId":"2020042313000163"},{"poweroffId":2020042313000151,"sgpoweroffId":null,"subsName":"","lineName":"海龙线517","pubTranName":"华汽幼儿园公变变压器,五厂公变变压器,五厂北公变,财政局公变变压器,车身厂门口公变变压器,五厂南公变,房产局公变1,液压管件公变变压器,公安局公变变压器,地税局大厅公变变压器,远东小区公变变压器,技术监督局变压器,十八局远东小区02号公变,农行变压器,芙蓉小区公变变压器,海龙建材公变变压器,八中变压器,广播电视局变压器,国税局公变变压器,房开公变变压器,","scope":"【影响街道/乡镇】团结东路、幸福南路、五一南路、昌盛路、结福胡同、结盟巷 【高危重要客户】高碑店市第二幼儿园、公安局、中国银行高碑店支行、中国农业银行高碑店市支行、广播电视局、八中 【影响客户】华汽幼儿园小区、车身厂家属楼、海龙建材家属楼、海龙公寓、液压管件家属楼、计量局家属楼、远东小区、财政局家属楼、房产局家属楼、税鑫园小区、地税局服务大厅、鑫祥园小区、五厂北区、尚品东方小区、锦绣华庭小区、水榭花都小区、公安局小区、芙蓉小区、广播局家属楼、哈贝教育、润景花园小区、华润公寓、天阔幸福家园、海龙商业有限责任公司、景融稼源生态园餐厅、博旭房地产、植物公园管理处、嘉德丽景房地产、牛秀英、欧亚塑料有限公司、河北华达公路工程咨询监理有限公司、天宏塑料制品厂、同兴粮油、市场监督管理局、鑫瑞申有限公司、胜贝双金属线材有限公司、淇仑餐饮、旺佳物业、万和物业公司、汇华物业、高碑店悦华食府、天阔英雄房地产、嘉林物业、河北元和房地产、保定长城汽车制造有限公司","startTime":"2020-04-23 14:40:23","stopDate":"2020-04-23 18:30:00","orgNo":"1340612","typeCode":"电网故障停限电","poweroffArea":"【全线路停电】停房开公变变压器,公安局公变变压器,河北凌云机电有限公司受电点变压器,高碑店市工业和信息化局变压器,地税局大厅公变变压器,华达工程监理公司,0387447896-高碑店市植物公园管理处-专变-130228648-植物园箱变,元和房地产公司,中国银行股份有限公司高碑店支行变压器,远东小区公变变压器,技术监督局变压器,公安局,保定长城汽车公司1,农行新,技术监督局,高碑店市路灯管理办公室（团结路中）变压器,高碑店市海龙商业有限责任公司,十八局远东小区02号公变,农行变压器,鑫瑞申有限公司,变压器,芙蓉小区公变变压器,海龙建材公变变压器,0693257242-高碑店市第二幼儿园-专变-237503079-高碑店市第二幼儿园变压器,八中变压器,广播电视局变压器,国税局公变变压器,欧亚塑料有限公司,电线厂,华汽幼儿园公变变压器,润景花园小区,五厂公变变压器,五厂北公变,财政局公变变压器,车身厂门口公变变压器,0387449140-海龙公寓-专变-45281872-海龙公寓,万和物业公司,五厂南公变,八中,0387447809-润景花园小区2-专变-45281911-润景花园小区2,牛秀英,高碑店市嘉林物业服务有限公司,0586498752-高碑店市汇华物业服务有限公司-专变-125141073-高碑店市鑫天祥房地产开发有限公司变压器,河北元和房地产开发有限公司,嘉德丽景房地产,电视局,房产局公变1,液压管件公变变压器,0586498752-高碑店市汇华物业服务有限公司-专变-125143992-高碑店市鑫天祥房地产开发有限公司变压器,淇沦食府,同兴粮油,高碑店市高碑店悦华食府,天宏塑料制品厂","poweroffReason":"【停电原因】由于五一路分支０８号杆锦绣华庭高压电缆头烧毁导致１１０ＫＶ马庄变电站１０ＫＶ海龙５１７线路全线停电 【变更送电】因抢修进度加快原因，送电时间由２１：００变更为１８：３０ 【发布渠道】通过９５５９８发布","powerTime":"2020-04-23 18:09:38","powerComm":"已送电","subsNo":"","lineNo":"","tgNo":"","tgName":null,"infoStatus":"1","orgName":"国网高碑店市供电公司","typeName":null,"infoStatusName":null,"dateDay":null,"orgNos":null,"nowTime":null,"countyName":null,"streetName":null,"villageName":null,"roadName":null,"communityName":null,"tranName":null,"sdLineName":null,"cityCode":"1340612","cityName":"国网高碑店市供电公司","provinceCode":null,"stopTime":"2020-04-23 18:30:00","powerType":"全部","powerOffArea":"【全线路停电】停房开公变变压器,公安局公变变压器,河北凌云机电有限公司受电点变压器,高碑店市工业和信息化局变压器,地税局大厅公变变压器,华达工程监理公司,0387447896-高碑店市植物公园管理处-专变-130228648-植物园箱变,元和房地产公司,中国银行股份有限公司高碑店支行变压器,远东小区公变变压器,技术监督局变压器,公安局,保定长城汽车公司1,农行新,技术监督局,高碑店市路灯管理办公室（团结路中）变压器,高碑店市海龙商业有限责任公司,十八局远东小区02号公变,农行变压器,鑫瑞申有限公司,变压器,芙蓉小区公变变压器,海龙建材公变变压器,0693257242-高碑店市第二幼儿园-专变-237503079-高碑店市第二幼儿园变压器,八中变压器,广播电视局变压器,国税局公变变压器,欧亚塑料有限公司,电线厂,华汽幼儿园公变变压器,润景花园小区,五厂公变变压器,五厂北公变,财政局公变变压器,车身厂门口公变变压器,0387449140-海龙公寓-专变-45281872-海龙公寓,万和物业公司,五厂南公变,八中,0387447809-润景花园小区2-专变-45281911-润景花园小区2,牛秀英,高碑店市嘉林物业服务有限公司,0586498752-高碑店市汇华物业服务有限公司-专变-125141073-高碑店市鑫天祥房地产开发有限公司变压器,河北元和房地产开发有限公司,嘉德丽景房地产,电视局,房产局公变1,液压管件公变变压器,0586498752-高碑店市汇华物业服务有限公司-专变-125143992-高碑店市鑫天祥房地产开发有限公司变压器,淇沦食府,同兴粮油,高碑店市高碑店悦华食府,天宏塑料制品厂","powerOffReason":"【停电原因】由于五一路分支０８号杆锦绣华庭高压电缆头烧毁导致１１０ＫＶ马庄变电站１０ＫＶ海龙５１７线路全线停电 【变更送电】因抢修进度加快原因，送电时间由２１：００变更为１８：３０ 【发布渠道】通过９５５９８发布","powerOffId":"2020042313000151"},{"poweroffId":2020042313000114,"sgpoweroffId":null,"subsName":"","lineName":"10kV永和575线","pubTranName":"大营农业9变压器,大营农业8变压器,","scope":"【影响街道/乡镇】西伏落乡 【高危重要客户】无 【影响客户】同仁堂、双宁药业、美兰达、康胜华、静美污水处理厂","startTime":"2020-04-23 12:06:26","stopDate":"2020-04-23 13:10:00","orgNo":"1340606","typeCode":"电网故障停限电","poweroffArea":"【全线路停电】停大营农业8变压器,大营农业9变压器","poweroffReason":"【停电原因】由于站内开关掉闸导致１１０ＫＶ孝义变电站１０ＫＶ永和５７５线路全线停电 【变更送电】因抢修进度加快原因，送电时间由１７：００变更为１３：１０ 【发布渠道】通过９５５９８发布","powerTime":"2020-04-23 12:59:14","powerComm":"已送电","subsNo":"","lineNo":"","tgNo":"","tgName":null,"infoStatus":"1","orgName":"国网安国市供电公司","typeName":null,"infoStatusName":null,"dateDay":null,"orgNos":null,"nowTime":null,"countyName":null,"streetName":null,"villageName":null,"roadName":null,"communityName":null,"tranName":null,"sdLineName":null,"cityCode":"1340606","cityName":"国网安国市供电公司","provinceCode":null,"stopTime":"2020-04-23 13:10:00","powerType":"全部","powerOffArea":"【全线路停电】停大营农业8变压器,大营农业9变压器","powerOffReason":"【停电原因】由于站内开关掉闸导致１１０ＫＶ孝义变电站１０ＫＶ永和５７５线路全线停电 【变更送电】因抢修进度加快原因，送电时间由１７：００变更为１３：１０ 【发布渠道】通过９５５９８发布","powerOffId":"2020042313000114"},{"poweroffId":2020042313000088,"sgpoweroffId":null,"subsName":"","lineName":"文苑线527","pubTranName":"北后公变变压器,肖风义公用变压器,水电家园2变压器,水电家园3变压器,国税（线路）,铁运处公变变压器,工行小区变压器,水电家园1变压器,水电家园4变压器,水电家园5变压器,田星小区公变变压器,高洁变压器,","scope":"【影响街道/乡镇】文苑路、迎宾路、五一路 【高危重要客户】无 【影响客户】高洁小区、水电家园小区、教育局小区(一小家属楼）、工行小区、肖凤仪小区、国税局小区、田星小区、天奕商厦、铁运处小区、工商银行、市医院、教育局","startTime":"2020-04-25 07:00:00","stopDate":"2020-04-25 17:00:00","orgNo":"1340612","typeCode":"临时停电","poweroffArea":"【全线路停电】停北后,河北嘉德丽景房地产开发有限公司,国税局,变压器,迎宾中路路灯,河北嘉德丽景房地产开发有限公司变压器,高洁变压器,水电家园5变压器,肖风义公用变压器,北后公变变压器,水电家园2变压器,教委,水电家园3变压器,国税（线路）,铁运处公变变压器,高碑店市国家税务局,工行小区变压器,0601060205-高碑店市医院-专变-126754658-高碑店市医院变压器,高碑店市城市管理综合执法局五一路一号,水电家园1变压器,水电家园4变压器,魏华,田星小区公变变压器,新运处西,光明化工厂,中国工商银行股份有限公司高碑店支行","poweroffReason":"【停电原因】由于清扫立杆导致１１０ＫＶ方家务变电站１０ＫＶ文苑５２７线路全线停电 【变更送电】因工作量大原因，送电时间由１５：００变更为１７：００ 【发布渠道】通过９５５９８发布","powerTime":"2020-04-25 16:45:16","powerComm":"已送电","subsNo":"","lineNo":"","tgNo":"","tgName":null,"infoStatus":"1","orgName":"国网高碑店市供电公司","typeName":null,"infoStatusName":null,"dateDay":null,"orgNos":null,"nowTime":null,"countyName":null,"streetName":null,"villageName":null,"roadName":null,"communityName":null,"tranName":null,"sdLineName":null,"cityCode":"1340612","cityName":"国网高碑店市供电公司","provinceCode":null,"stopTime":"2020-04-25 17:00:00","powerType":"全部","powerOffArea":"【全线路停电】停北后,河北嘉德丽景房地产开发有限公司,国税局,变压器,迎宾中路路灯,河北嘉德丽景房地产开发有限公司变压器,高洁变压器,水电家园5变压器,肖风义公用变压器,北后公变变压器,水电家园2变压器,教委,水电家园3变压器,国税（线路）,铁运处公变变压器,高碑店市国家税务局,工行小区变压器,0601060205-高碑店市医院-专变-126754658-高碑店市医院变压器,高碑店市城市管理综合执法局五一路一号,水电家园1变压器,水电家园4变压器,魏华,田星小区公变变压器,新运处西,光明化工厂,中国工商银行股份有限公司高碑店支行","powerOffReason":"【停电原因】由于清扫立杆导致１１０ＫＶ方家务变电站１０ＫＶ文苑５２７线路全线停电 【变更送电】因工作量大原因，送电时间由１５：００变更为１７：００ 【发布渠道】通过９５５９８发布","powerOffId":"2020042313000088"},{"poweroffId":2020042313000087,"sgpoweroffId":null,"subsName":"","lineName":"博旭线529","pubTranName":"中海油小区3变压器,阳光888北间隔配电,海洋花园东1号公变间隔配电变压器,客户投资_闫家务西（村内400）,中海油小区7变压器,看守所变压器,三小公变变压器,闫家务西公变（100）,中海油小区2变压器,新泰西路2号公变,阳光888南间隔配电变压器,五一路二幼公变,闫家务西2变压器,海洋花园西2号公变间隔配电变压器,中海油小区4变压器,中海油小区5变压器,112线公变变压器,客户投资_五一南变压器,闫家务北变压器,中海油小区6变压器,中海油小区1变压器,中海油小区8变压器,和平东路一号公变变压器,闫家务东公变（200）,五一北变压器,五一中变压器,","scope":"【影响街道/乡镇】国道１１２线、五一路 【高危重要客户】北环路医院、东环路小学（三小）、二幼 【影响客户】电业局小区、栋梁小区、海洋花园小区、阳光８８８小区、海洋花园Ａ、Ｂ、Ｄ区、闫家务村（村西部分）、闫家务安置区、世界城小区、消防中队、 盛欣化工厂、振兴铸造","startTime":"2020-04-25 07:00:00","stopDate":"2020-04-25 17:00:00","orgNo":"1340612","typeCode":"临时停电","poweroffArea":"【全线路停电】停新新装饰处,0555535385-高碑店市兴泰房地产开发有限公司-专变-118521885-高碑店市和平办事处闫家务村变压器2,中海油小区5变压器,112线公变变压器,五一路二幼公变,中海油小区1变压器,河北鹏润房地产开发有限公司高碑店分公司,高碑店市栋梁小区2,隆基泰和实业有限公司变压器02,0726623750-高碑店市兴泰房地产开发有限公司02,中海油小区8变压器,0387437635-国网河北高碑店市供电公司-专变-45274394-电业局,隆基泰和实业有限公司（海洋花园D区）变压器,宏光塑料制品,隆基泰和实业有限公司变压器01,和平东路一号公变变压器,河北隆泰物业服务有限责任公司变压器,路灯厂,高碑店市和平办事处闫家务村变压器1,闫家务东公变（200）,计量箱,五一北变压器,中海油小区7变压器,高碑店市栋梁小区3,五一中变压器,0726623750-高碑店市兴泰房地产开发有限公司01,中海油小区3变压器,0387450665-东方伟业机械设备制造厂-专变-45283287-东方伟业机械设备制造,0387451163-高碑店市北环路社区卫生服务站-专变-45283284-北环路社区卫生服务站变压器,0564891104-河北隆泰物业服务有限责任公司高碑店分公司-专变-118624993-隆基泰和实业有限公司（世界城小区）变压器,中海油小区4变压器,盛欣化工厂,阳光888北间隔配电,阳光三期,海洋花园东1号公变间隔配电变压器,高碑店市路灯管理办公室变压器,中海实业公司高碑店基地分公司2#变压器,河北隆泰物业有限责任公司受电点变压器,客户投资_闫家务西（村内400）,高碑店市路灯管理办公室（电业局东）变压器,闫家务北变压器,海洋花园西2号公变间隔配电变压器,高碑店市兴泰房地产开发有限公司变压器,高碑店市栋梁小区,客户投资_五一南变压器,中海油小区6变压器,0573430990-高碑店市兴泰房地产开发有限公司-专变-120547919-隆基泰和实业有限公司变压器,看守所变压器,高碑店市振兴盛业铸造有限责任公司,三小公变变压器,闫家务西公变（100）,中海实业公司高碑店基地分公司3#变压器,中海油小区2变压器,新泰西路2号公变,阳光888南间隔配电变压器,高碑店市九香食品有限公司,闫家务西2变压器","poweroffReason":"【停电原因】由于清扫立杆导致１１０ＫＶ方家务变电站１０ＫＶ博旭５２９线路全线停电 【变更送电】因工作量大原因，送电时间由１５：００变更为１７：００ 【发布渠道】通过９５５９８发布","powerTime":"2020-04-25 16:48:05","powerComm":"已送电","subsNo":"","lineNo":"","tgNo":"","tgName":null,"infoStatus":"1","orgName":"国网高碑店市供电公司","typeName":null,"infoStatusName":null,"dateDay":null,"orgNos":null,"nowTime":null,"countyName":null,"streetName":null,"villageName":null,"roadName":null,"communityName":null,"tranName":null,"sdLineName":null,"cityCode":"1340612","cityName":"国网高碑店市供电公司","provinceCode":null,"stopTime":"2020-04-25 17:00:00","powerType":"全部","powerOffArea":"【全线路停电】停新新装饰处,0555535385-高碑店市兴泰房地产开发有限公司-专变-118521885-高碑店市和平办事处闫家务村变压器2,中海油小区5变压器,112线公变变压器,五一路二幼公变,中海油小区1变压器,河北鹏润房地产开发有限公司高碑店分公司,高碑店市栋梁小区2,隆基泰和实业有限公司变压器02,0726623750-高碑店市兴泰房地产开发有限公司02,中海油小区8变压器,0387437635-国网河北高碑店市供电公司-专变-45274394-电业局,隆基泰和实业有限公司（海洋花园D区）变压器,宏光塑料制品,隆基泰和实业有限公司变压器01,和平东路一号公变变压器,河北隆泰物业服务有限责任公司变压器,路灯厂,高碑店市和平办事处闫家务村变压器1,闫家务东公变（200）,计量箱,五一北变压器,中海油小区7变压器,高碑店市栋梁小区3,五一中变压器,0726623750-高碑店市兴泰房地产开发有限公司01,中海油小区3变压器,0387450665-东方伟业机械设备制造厂-专变-45283287-东方伟业机械设备制造,0387451163-高碑店市北环路社区卫生服务站-专变-45283284-北环路社区卫生服务站变压器,0564891104-河北隆泰物业服务有限责任公司高碑店分公司-专变-118624993-隆基泰和实业有限公司（世界城小区）变压器,中海油小区4变压器,盛欣化工厂,阳光888北间隔配电,阳光三期,海洋花园东1号公变间隔配电变压器,高碑店市路灯管理办公室变压器,中海实业公司高碑店基地分公司2#变压器,河北隆泰物业有限责任公司受电点变压器,客户投资_闫家务西（村内400）,高碑店市路灯管理办公室（电业局东）变压器,闫家务北变压器,海洋花园西2号公变间隔配电变压器,高碑店市兴泰房地产开发有限公司变压器,高碑店市栋梁小区,客户投资_五一南变压器,中海油小区6变压器,0573430990-高碑店市兴泰房地产开发有限公司-专变-120547919-隆基泰和实业有限公司变压器,看守所变压器,高碑店市振兴盛业铸造有限责任公司,三小公变变压器,闫家务西公变（100）,中海实业公司高碑店基地分公司3#变压器,中海油小区2变压器,新泰西路2号公变,阳光888南间隔配电变压器,高碑店市九香食品有限公司,闫家务西2变压器","powerOffReason":"【停电原因】由于清扫立杆导致１１０ＫＶ方家务变电站１０ＫＶ博旭５２９线路全线停电 【变更送电】因工作量大原因，送电时间由１５：００变更为１７：００ 【发布渠道】通过９５５９８发布","powerOffId":"2020042313000087"},{"poweroffId":2020042313000077,"sgpoweroffId":null,"subsName":"","lineName":"上下台线511","pubTranName":"涞源县农业农村局变压器,白崖子,河北省高速公路荣乌管理处1613593-900025885609,上下台配变,北道神2变配变,河北省高速公路荣乌管理处1613546-900025885587,0730195058河北省高速公路荣乌管理处变压器-900025886983,雁宿崖配变,杏树台光伏2,胡海配变,杏树台村配变,杏树台2配变,小张家坟2配变,下泉门配变,北道神1变配变,中交建冀交高速公路投资发展有限公司变压器,张家坟村光伏变压器【光伏】,下泉门村配变,河北省高速公路荣乌管理处变压器-900025886991,白崖子配变,上下台3配变,河北省高速公路荣乌管理处1613594-900025885662,上下台2配变,河北省高速公路荣乌管理处1613644-900025885562,河北省高速公路荣乌管理处1613545-900025887003,杏树台光伏3,河北省高速公路荣乌管理处1613548-900025885566,涞源县银坊镇合婚台村村民委员会变压器,河北省高速公路荣乌管理处变压器-900025886908,营尔村新建台区【三批中心村】,合婚台村光伏变压器【光伏】,河北省高速公路荣乌管理处1613584-900025886905,张拴选厂,刘国福铁选,张家坟小学变压器,杏树台光伏1,枣儿沟变压器,黄家庄配变,大张家坟变压器,河北省高速公路荣乌管理处1613549-900025885555,河北省高速公路荣乌管理处1613586-900025885559,黄家庄,河北省高速公路荣乌管理处1613592-900025885597,营尔台区配变【三批中心村】,河北省高速公路荣乌管理处1613550-900025885601,河北省高速公路荣乌管理处1613588-900025885591,合婚台配变,杏树台配变,杏树台村2配变,合婚台,涞源县银坊镇上下台村村民委员会变压器,","scope":"【影响街道/乡镇】银坊镇【高危重要客户】无【影响客户】大张家坟、枣儿沟、雁宿崖、合婚台、黄家庄、白崖子、杏树台、下权门、上权门、石塘庄、北道神、上下台、营尔、胡海","startTime":"2020-04-23 09:40:31","stopDate":"2020-04-23 10:50:04","orgNo":"1340615","typeCode":"电网故障停限电","poweroffArea":"【全线路停电】停涞源县农业农村局变压器,白崖子,河北省高速公路荣乌管理处1613593-900025885609,上下台配变,北道神2变配变,河北省高速公路荣乌管理处1613546-900025885587,0730195058河北省高速公路荣乌管理处变压器-900025886983,雁宿崖配变,杏树台光伏2,胡海配变,杏树台村配变,杏树台2配变,小张家坟2配变,下泉门配变,北道神1变配变,中交建冀交高速公路投资发展有限公司变压器,张家坟村光伏变压器【光伏】,下泉门村配变,河北省高速公路荣乌管理处变压器-900025886991,白崖子配变,上下台3配变,河北省高速公路荣乌管理处1613594-900025885662,上下台2配变,河北省高速公路荣乌管理处1613644-900025885562,河北省高速公路荣乌管理处1613545-900025887003,杏树台光伏3,河北省高速公路荣乌管理处1613548-900025885566,涞源县银坊镇合婚台村村民委员会变压器,河北省高速公路荣乌管理处变压器-900025886908,营尔村新建台区【三批中心村】,合婚台村光伏变压器【光伏】,河北省高速公路荣乌管理处1613584-900025886905,张拴选厂,刘国福铁选,张家坟小学变压器,杏树台光伏1,枣儿沟变压器,黄家庄配变,大张家坟变压器,河北省高速公路荣乌管理处1613549-900025885555,河北省高速公路荣乌管理处1613586-900025885559,黄家庄,河北省高速公路荣乌管理处1613592-900025885597,营尔台区配变【三批中心村】,河北省高速公路荣乌管理处1613550-900025885601,河北省高速公路荣乌管理处1613588-900025885591,合婚台配变,杏树台配变,杏树台村2配变,合婚台,涞源县银坊镇上下台村村民委员会变压器","poweroffReason":"【停电原因】由于速断掉闸导致３５ＫＶ张家坟变电站１０ＫＶ上下台线５１１线路全线停电【变更送电】无【发布渠道】通过９５５９８发布","powerTime":"2020-04-23 10:15:41","powerComm":"已送电","subsNo":"","lineNo":"","tgNo":"","tgName":null,"infoStatus":"1","orgName":"国网涞源县供电公司","typeName":null,"infoStatusName":null,"dateDay":null,"orgNos":null,"nowTime":null,"countyName":null,"streetName":null,"villageName":null,"roadName":null,"communityName":null,"tranName":null,"sdLineName":null,"cityCode":"1340615","cityName":"国网涞源县供电公司","provinceCode":null,"stopTime":"2020-04-23 10:50:04","powerType":"全部","powerOffArea":"【全线路停电】停涞源县农业农村局变压器,白崖子,河北省高速公路荣乌管理处1613593-900025885609,上下台配变,北道神2变配变,河北省高速公路荣乌管理处1613546-900025885587,0730195058河北省高速公路荣乌管理处变压器-900025886983,雁宿崖配变,杏树台光伏2,胡海配变,杏树台村配变,杏树台2配变,小张家坟2配变,下泉门配变,北道神1变配变,中交建冀交高速公路投资发展有限公司变压器,张家坟村光伏变压器【光伏】,下泉门村配变,河北省高速公路荣乌管理处变压器-900025886991,白崖子配变,上下台3配变,河北省高速公路荣乌管理处1613594-900025885662,上下台2配变,河北省高速公路荣乌管理处1613644-900025885562,河北省高速公路荣乌管理处1613545-900025887003,杏树台光伏3,河北省高速公路荣乌管理处1613548-900025885566,涞源县银坊镇合婚台村村民委员会变压器,河北省高速公路荣乌管理处变压器-900025886908,营尔村新建台区【三批中心村】,合婚台村光伏变压器【光伏】,河北省高速公路荣乌管理处1613584-900025886905,张拴选厂,刘国福铁选,张家坟小学变压器,杏树台光伏1,枣儿沟变压器,黄家庄配变,大张家坟变压器,河北省高速公路荣乌管理处1613549-900025885555,河北省高速公路荣乌管理处1613586-900025885559,黄家庄,河北省高速公路荣乌管理处1613592-900025885597,营尔台区配变【三批中心村】,河北省高速公路荣乌管理处1613550-900025885601,河北省高速公路荣乌管理处1613588-900025885591,合婚台配变,杏树台配变,杏树台村2配变,合婚台,涞源县银坊镇上下台村村民委员会变压器","powerOffReason":"【停电原因】由于速断掉闸导致３５ＫＶ张家坟变电站１０ＫＶ上下台线５１１线路全线停电【变更送电】无【发布渠道】通过９５５９８发布","powerOffId":"2020042313000077"},{"poweroffId":2020042313000056,"sgpoweroffId":null,"subsName":"","lineName":"10kV泰安路567","pubTranName":"泰安路公安局公用变压器,直属库010#|1316,局属属楼公用变压器,涞定路加油站变压器,南王庄村西,电力局4#楼,冷库,泰安路南段107#|1327,涞定路口公用变压器,","scope":"【影响街道/乡镇】涞水镇 【高危重要客户】无 【影响客户】南王庄村、冷库、区测队、加油站对面、悦来顺附近、西颐机械、太行机械、悦来顺宾馆、直属库、怡园小区、捷成物业、涞水县医院、涞水县公安局、温馨家园小区、安居一区、怡海小区、泰安小区、电力局12345号楼、福生电器、文成时代、泰安路汽车站路口到电影院下坡两侧、红升工业园小区、香槟怡园、金润名典小区、涞水县第三中学附近","startTime":"2020-04-23 08:35:00","stopDate":"2020-04-23 10:30:00","orgNo":"1340614","typeCode":"电网故障停限电","poweroffArea":"【全线路停电】停区测队,局属属楼公用变压器,安居一区,冷库,涞定路加油站变压器,西颐机械公司,涞定路口公用变压器,0684102380-北京恒睿宏达房地产开发有限公司-专变-223614666-北京恒瑞宏达房地产开发有限公司630KVA专变,温馨家园,县医院,泰安路公安局公用变压器,0688801180-北京恒睿宏达房地产开发有限公司-专变-228800438-北京恒睿宏达1130KVA专变,0688801180-北京恒睿宏达房地产开发有限公司-专变-228800435-北京恒睿宏达1130KVA专变,0554955809-京津房地产怡海二期主供-专变-82134831-京津房地产怡海二期主供2000,捷成物业公司,兴阳房地产开发有限公司315KVA专变,0684104634-北京恒睿宏达房地产开发有限公司-专变-223614563-北京恒睿宏达房地产开发有限公司630KVA专变,县医院1,涞水县医院,医院JP柜038#,幸福家园小区,0688797083-北京恒睿宏达房地产开发有限公司-专变-228800361-北京恒睿宏达房地产开发有限公司1260KVA,电力局4#楼,涞水县医院1000KVA专变,0607363658-涞水县医院-专变-127435679-涞水县医院800KVA专变,悦来顺饭店,泰安路南段107#|1327,涞水县京津房地产开发有限公司新增变压器1250KVA,太行机械配件,直属库010#|1316,北京恒睿宏达房地产开发有限公司630KVA专变,南王庄村西","poweroffReason":"【停电原因】由于速断跳闸导致１１０ＫＶ郭下变电站１０ＫＶ泰安路５６７线路全线停电 【变更送电】因抢修进度加快原因，送电时间由１２：００变更为１０：３０ 【发布渠道】通过９５５９８发布","powerTime":"2020-04-23 10:16:03","powerComm":"已送电","subsNo":"","lineNo":"","tgNo":"","tgName":null,"infoStatus":"1","orgName":"国网涞水县供电公司","typeName":null,"infoStatusName":null,"dateDay":null,"orgNos":null,"nowTime":null,"countyName":null,"streetName":null,"villageName":null,"roadName":null,"communityName":null,"tranName":null,"sdLineName":null,"cityCode":"1340614","cityName":"国网涞水县供电公司","provinceCode":null,"stopTime":"2020-04-23 10:30:00","powerType":"全部","powerOffArea":"【全线路停电】停区测队,局属属楼公用变压器,安居一区,冷库,涞定路加油站变压器,西颐机械公司,涞定路口公用变压器,0684102380-北京恒睿宏达房地产开发有限公司-专变-223614666-北京恒瑞宏达房地产开发有限公司630KVA专变,温馨家园,县医院,泰安路公安局公用变压器,0688801180-北京恒睿宏达房地产开发有限公司-专变-228800438-北京恒睿宏达1130KVA专变,0688801180-北京恒睿宏达房地产开发有限公司-专变-228800435-北京恒睿宏达1130KVA专变,0554955809-京津房地产怡海二期主供-专变-82134831-京津房地产怡海二期主供2000,捷成物业公司,兴阳房地产开发有限公司315KVA专变,0684104634-北京恒睿宏达房地产开发有限公司-专变-223614563-北京恒睿宏达房地产开发有限公司630KVA专变,县医院1,涞水县医院,医院JP柜038#,幸福家园小区,0688797083-北京恒睿宏达房地产开发有限公司-专变-228800361-北京恒睿宏达房地产开发有限公司1260KVA,电力局4#楼,涞水县医院1000KVA专变,0607363658-涞水县医院-专变-127435679-涞水县医院800KVA专变,悦来顺饭店,泰安路南段107#|1327,涞水县京津房地产开发有限公司新增变压器1250KVA,太行机械配件,直属库010#|1316,北京恒睿宏达房地产开发有限公司630KVA专变,南王庄村西","powerOffReason":"【停电原因】由于速断跳闸导致１１０ＫＶ郭下变电站１０ＫＶ泰安路５６７线路全线停电 【变更送电】因抢修进度加快原因，送电时间由１２：００变更为１０：３０ 【发布渠道】通过９５５９８发布","powerOffId":"2020042313000056"}],"pageModel":{"pageNow":148,"totalCount":10973,"totalPage":1098,"tableRows":0,"pageCount":10,"beginCount":1470},"isExperi":"1"}