{"message":"","today":"2020-06-15","seleList":[{"poweroffId":2020042221000062,"sgpoweroffId":null,"subsName":"","lineName":"10kV朝阳路站531线路","pubTranName":"B409柱上变压器,B1399柱上变压器,B1416柱上变压器,","scope":"【影响街道/乡镇】新市区、东风路、百花路、花园街、小集后街、集贸胡同 【高危重要客户】无 【影响客户】紫竹园小区、第一医院宿舍、橡胶二厂宿舍、精文公寓","startTime":"2020-04-22 16:05:00","stopDate":"2020-04-22 20:30:00","orgNo":"13406","typeCode":"电网故障停限电","poweroffArea":"【分支停电】停0356184515-市1第一医院-2#专变,0356184515-市第一医院-1#专变,B1416柱上变压器,B409柱上变压器,0356241762-保定市城市之家酒店管理有限公司百花店-1-配电室-变压器-1,0356319375-北京华联综合超市股份有限公司保定分公司-1#专变,B1399柱上变压器","poweroffReason":"【停电原因】由于分支开关短路导致１０ＫＶ朝阳变电站５３１线路百花路２１号杆开关以下停电【变更送电】因抢修进度加快，原定２２:００送电现计划２０:３０送电【发布渠道】通过９５５９８发布","powerTime":"2020-04-22 20:09:53","powerComm":"已送电","subsNo":"","lineNo":"","tgNo":"","tgName":null,"infoStatus":"1","orgName":"保定供电公司","typeName":null,"infoStatusName":null,"dateDay":null,"orgNos":null,"nowTime":null,"countyName":null,"streetName":null,"villageName":null,"roadName":null,"communityName":null,"tranName":null,"sdLineName":null,"cityCode":"13406","cityName":"保定供电公司","provinceCode":null,"stopTime":"2020-04-22 20:30:00","powerType":"全部","powerOffArea":"【分支停电】停0356184515-市1第一医院-2#专变,0356184515-市第一医院-1#专变,B1416柱上变压器,B409柱上变压器,0356241762-保定市城市之家酒店管理有限公司百花店-1-配电室-变压器-1,0356319375-北京华联综合超市股份有限公司保定分公司-1#专变,B1399柱上变压器","powerOffReason":"【停电原因】由于分支开关短路导致１０ＫＶ朝阳变电站５３１线路百花路２１号杆开关以下停电【变更送电】因抢修进度加快，原定２２:００送电现计划２０:３０送电【发布渠道】通过９５５９８发布","powerOffId":"2020042221000062"},{"poweroffId":2020042221000020,"sgpoweroffId":null,"subsName":"","lineName":"10kV七一路站533线路","pubTranName":"C611柱上变压器,","scope":"【影响街道/乡镇】莲池区韩村乡 【高危重要客户】无 【影响客户】韩村","startTime":"2020-04-22 08:50:00","stopDate":"2020-04-22 11:00:00","orgNo":"13406","typeCode":"电网故障停限电","poweroffArea":"【单台区停电】停C611柱上变压器","poweroffReason":"【停电原因】由于低压刀闸烧导致１０ＫＶ七一变电站５３３线路Ｃ６１１公变台区停电【变更送电】无【发布渠道】通过９５５９８发布","powerTime":"2020-04-22 10:52:06","powerComm":"已送电","subsNo":"","lineNo":"","tgNo":"","tgName":null,"infoStatus":"1","orgName":"保定供电公司","typeName":null,"infoStatusName":null,"dateDay":null,"orgNos":null,"nowTime":null,"countyName":null,"streetName":null,"villageName":null,"roadName":null,"communityName":null,"tranName":null,"sdLineName":null,"cityCode":"13406","cityName":"保定供电公司","provinceCode":null,"stopTime":"2020-04-22 11:00:00","powerType":"全部","powerOffArea":"【单台区停电】停C611柱上变压器","powerOffReason":"【停电原因】由于低压刀闸烧导致１０ＫＶ七一变电站５３３线路Ｃ６１１公变台区停电【变更送电】无【发布渠道】通过９５５９８发布","powerOffId":"2020042221000020"},{"poweroffId":2020042221000018,"sgpoweroffId":null,"subsName":"","lineName":"10kV前卫站586线路","pubTranName":"C390柱上变压器,","scope":"【影响街道/乡镇】北市区韩庄乡 【高危重要客户】无 【影响客户】徐庄村","startTime":"2020-04-22 08:30:00","stopDate":"2020-04-22 11:00:00","orgNo":"13406","typeCode":"电网故障停限电","poweroffArea":"【单台区停电】停C390柱上变压器","poweroffReason":"【停电原因】由于低压刀闸烧导致１０ＫＶ前卫变电站５８６线路Ｃ３９０公变台区停电【变更送电】无【发布渠道】通过９５５９８发布","powerTime":"2020-04-22 10:33:03","powerComm":"已送电","subsNo":"","lineNo":"","tgNo":"","tgName":null,"infoStatus":"1","orgName":"保定供电公司","typeName":null,"infoStatusName":null,"dateDay":null,"orgNos":null,"nowTime":null,"countyName":null,"streetName":null,"villageName":null,"roadName":null,"communityName":null,"tranName":null,"sdLineName":null,"cityCode":"13406","cityName":"保定供电公司","provinceCode":null,"stopTime":"2020-04-22 11:00:00","powerType":"全部","powerOffArea":"【单台区停电】停C390柱上变压器","powerOffReason":"【停电原因】由于低压刀闸烧导致１０ＫＶ前卫变电站５８６线路Ｃ３９０公变台区停电【变更送电】无【发布渠道】通过９５５９８发布","powerOffId":"2020042221000018"},{"poweroffId":2020042213000325,"sgpoweroffId":null,"subsName":"","lineName":"10KV檀山512","pubTranName":"行宫北（内）台区变压器,北秋兰村东变压器,行宫1村南|0737,铺头村北2台区,南庞村东变压器,二十里铺村东二,坛山村内变压器,北秋兰西南台区,丛西村中台区,铺头村南,丛西村南专用变压器,十里铺西井,","scope":"【影响街道/乡镇】永阳镇 【高危重要客户】无 【影响客户】北秋兰村、丛西村、檀山村、南庞村、铺头村、行宫村、二十里铺村","startTime":"2020-04-25 06:00:00","stopDate":"2020-04-25 19:59:00","orgNo":"1340614","typeCode":"临时停电","poweroffArea":"【全线路停电】停铺头村北2台区,南庞村东变压器,二十里铺村东二,坛山村内变压器,北秋兰西南台区,丛西村中台区,铺头村南,丛西村南专用变压器,十里铺西井,行宫北（内）台区变压器,北秋兰村东变压器,行宫1村南|0737","poweroffReason":"【停电原因】由于线路检修导致３５ＫＶ明义变电站１０ＫＶ檀山５１２线路全线停电 【变更送电】因工作进度加快原因，送电时间由２１：００变更为１９：５９ 【发布渠道】通过９５５９８发布","powerTime":"2020-04-25 19:42:37","powerComm":"已送电","subsNo":"","lineNo":"","tgNo":"","tgName":null,"infoStatus":"1","orgName":"国网涞水县供电公司","typeName":null,"infoStatusName":null,"dateDay":null,"orgNos":null,"nowTime":null,"countyName":null,"streetName":null,"villageName":null,"roadName":null,"communityName":null,"tranName":null,"sdLineName":null,"cityCode":"1340614","cityName":"国网涞水县供电公司","provinceCode":null,"stopTime":"2020-04-25 19:59:00","powerType":"全部","powerOffArea":"【全线路停电】停铺头村北2台区,南庞村东变压器,二十里铺村东二,坛山村内变压器,北秋兰西南台区,丛西村中台区,铺头村南,丛西村南专用变压器,十里铺西井,行宫北（内）台区变压器,北秋兰村东变压器,行宫1村南|0737","powerOffReason":"【停电原因】由于线路检修导致３５ＫＶ明义变电站１０ＫＶ檀山５１２线路全线停电 【变更送电】因工作进度加快原因，送电时间由２１：００变更为１９：５９ 【发布渠道】通过９５５９８发布","powerOffId":"2020042213000325"},{"poweroffId":2020042213000321,"sgpoweroffId":null,"subsName":"","lineName":"10KV杨家庄516","pubTranName":"樊家台村内变压器,东明义村东三变压器,明义所配变,冀家沟村内变压器,南封村村内变压器,南秋兰村西水变压器,南封村幼儿园变压器,曹家庄村内二台区变压器,杨家庄村北二台区,杨家庄村内变压器,北封村村西混变压器,东官庄村内3,曹家庄村南变压器,西官庄村南变压器,东官庄村北【冬季供暖设施】,明义卫生院变压器,","scope":"【影响街道/乡镇】明义乡 【高危重要客户】无 【影响客户】杨家庄村、曹家庄村、南封村、北封村、冀家沟村、东官庄村、西官庄村、东明义村、樊家台村、南秋兰村","startTime":"2020-04-25 06:00:00","stopDate":"2020-04-25 19:59:00","orgNo":"1340614","typeCode":"临时停电","poweroffArea":"【全线路停电】停西官庄村南变压器,东官庄村北【冬季供暖设施】,曹家庄村内二台区变压器,杨家庄村北二台区,北封村村西混变压器,明义卫生院变压器,樊家台村内变压器,东明义村东三变压器,明义所配变,冀家沟村内变压器,南封村村内变压器,南秋兰村西水变压器,南封村幼儿园变压器,杨家庄村内变压器,东官庄村内3,曹家庄村南变压器","poweroffReason":"【停电原因】由于线路检修导致３５ＫＶ明义变电站１０ＫＶ杨家庄５１６线路全线停电 【变更送电】因工作进度加快原因，送电时间由２１：００变更为１９：５９ 【发布渠道】通过９５５９８发布","powerTime":"2020-04-25 19:42:54","powerComm":"已送电","subsNo":"","lineNo":"","tgNo":"","tgName":null,"infoStatus":"1","orgName":"国网涞水县供电公司","typeName":null,"infoStatusName":null,"dateDay":null,"orgNos":null,"nowTime":null,"countyName":null,"streetName":null,"villageName":null,"roadName":null,"communityName":null,"tranName":null,"sdLineName":null,"cityCode":"1340614","cityName":"国网涞水县供电公司","provinceCode":null,"stopTime":"2020-04-25 19:59:00","powerType":"全部","powerOffArea":"【全线路停电】停西官庄村南变压器,东官庄村北【冬季供暖设施】,曹家庄村内二台区变压器,杨家庄村北二台区,北封村村西混变压器,明义卫生院变压器,樊家台村内变压器,东明义村东三变压器,明义所配变,冀家沟村内变压器,南封村村内变压器,南秋兰村西水变压器,南封村幼儿园变压器,杨家庄村内变压器,东官庄村内3,曹家庄村南变压器","powerOffReason":"【停电原因】由于线路检修导致３５ＫＶ明义变电站１０ＫＶ杨家庄５１６线路全线停电 【变更送电】因工作进度加快原因，送电时间由２１：００变更为１９：５９ 【发布渠道】通过９５５９８发布","powerOffId":"2020042213000321"},{"poweroffId":2020042213000317,"sgpoweroffId":null,"subsName":"","lineName":"10KV东永阳515","pubTranName":"居士村西2,二十里铺村西变压器,周家庄村西变压器,东永阳村南,铺头村西变压器,西永阳村东,南庞村西变压器,居士肖树安大棚井,二十里铺机井构件厂变压器,居士村东井,东永阳大街|0685,居士村西1,周家庄村东变压器,东永阳村东台区,东永阳1村北|0681,二十里铺市场,南庞村西2#,西永阳村内二台区变压器,","scope":"【影响街道/乡镇】永阳镇 【高危重要客户】无 【影响客户】二十里铺村、铺头村、居士村、西永阳村、东永阳村、南庞村、周家庄村","startTime":"2020-04-25 06:00:00","stopDate":"2020-04-25 19:59:00","orgNo":"1340614","typeCode":"临时停电","poweroffArea":"【全线路停电】停二十里铺市场,南庞村西2#,西永阳村内二台区变压器,居士村西2,二十里铺村西变压器,周家庄村西变压器,东永阳村南,永阳信用社,铺头村西变压器,西永阳村东,南庞村西变压器,居士肖树安大棚井,二十里铺机井构件厂变压器,居士村东井,东永阳大街|0685,居士村西1,周家庄村东变压器,东永阳村东台区,东永阳1村北|0681,永阳中学(1)","poweroffReason":"【停电原因】由于线路检修导致３５ＫＶ明义变电站１０ＫＶ东永阳５１５线路全线停电 【变更送电】因工作进度加快原因，送电时间由２１：００变更为１９：５９ 【发布渠道】通过９５５９８发布","powerTime":"2020-04-25 19:43:09","powerComm":"已送电","subsNo":"","lineNo":"","tgNo":"","tgName":null,"infoStatus":"1","orgName":"国网涞水县供电公司","typeName":null,"infoStatusName":null,"dateDay":null,"orgNos":null,"nowTime":null,"countyName":null,"streetName":null,"villageName":null,"roadName":null,"communityName":null,"tranName":null,"sdLineName":null,"cityCode":"1340614","cityName":"国网涞水县供电公司","provinceCode":null,"stopTime":"2020-04-25 19:59:00","powerType":"全部","powerOffArea":"【全线路停电】停二十里铺市场,南庞村西2#,西永阳村内二台区变压器,居士村西2,二十里铺村西变压器,周家庄村西变压器,东永阳村南,永阳信用社,铺头村西变压器,西永阳村东,南庞村西变压器,居士肖树安大棚井,二十里铺机井构件厂变压器,居士村东井,东永阳大街|0685,居士村西1,周家庄村东变压器,东永阳村东台区,东永阳1村北|0681,永阳中学(1)","powerOffReason":"【停电原因】由于线路检修导致３５ＫＶ明义变电站１０ＫＶ东永阳５１５线路全线停电 【变更送电】因工作进度加快原因，送电时间由２１：００变更为１９：５９ 【发布渠道】通过９５５９８发布","powerOffId":"2020042213000317"},{"poweroffId":2020042213000314,"sgpoweroffId":null,"subsName":"","lineName":"10KV明义514","pubTranName":"南桥头村西2变压器,南桥头村内2变压器,西明义村西变压器,台头村南1变压器,西明义村南变压器,抬头村西南2台区变压器,南桥头村内3变压器,南桥头村南变压器,丁家洼村南变压器,南北庄村东三台区,西明义村北2变压器,西明义村南2台区,二十里铺村南变压器,南桥头村东2变压器,南桥头村内变压器,南桥头村西3台区变压器,西明义村北变压器,南桥头村东3台区变压器,西明义村内3台区变压器,南桥头村南三台区,南桥头村西变压器,西明义村内变压器,南桥头村南2变压器,台头村东2变压器,精神病医院配电变压器,台头苗圃厂2变压器,丁家洼村北1变压器,三沟子村西北变压器,","scope":"【影响街道/乡镇】明义乡 【高危重要客户】无 【影响客户】西明义村、西官庄村、南北庄村、丁家洼村、三沟子村、南桥头村、樊家台村、台头村、二十里铺村","startTime":"2020-04-25 06:00:00","stopDate":"2020-04-25 19:59:00","orgNo":"1340614","typeCode":"临时停电","poweroffArea":"【全线路停电】停涞水县福泰石灰制造有限公司新增变压器250KVA,台头村东南专变压器,西明义村西水100变压器,南北庄村东1变压器,南桥头村南变压器,丁家洼村南变压器,南桥头村西2变压器,三沟子村南变压器,西明义村北水变压器,三沟子村内变压器,南桥头村内2变压器,西明义村西变压器,南北庄村内二变压器,西明义村西北井变压器,台头村南1变压器,西明义村南变压器,抬头村西南2台区变压器,西明义村南2台区,二十里铺村南变压器,南北庄村东2变压器,南桥头村东2变压器,南北庄村南变压器,南桥头村内变压器,三沟子村东变压器,南桥头村西3台区变压器,西明义村北变压器,南桥头村东3台区变压器,台头村北变压器,丁家洼村内变压器,丁家洼村西变压器,台头村东南专2变压器,丁家洼村北2变压器,南北庄村东三台区,西明义村北2变压器,南桥头村内3变压器,丁家洼村西北变压器,西明义村西水变压器,三沟子村北变压器,西明义村内3台区变压器,樊家台村内2变压器,朝运红盛315KVA变压器,南桥头村南三台区,冉冉幼儿园变压器,丁家洼村北1变压器,丁家洼村内2变压器,三沟子村西北变压器,樊家台村西混用变压器,台头村南2变压器,南北庄村内变压器,南桥头村西变压器,南北庄村北变压器,西明义村内变压器,南桥头村西180变压器,南桥头村南2变压器,台头村北专变压器,台头村东变压器,台头村东2变压器,南桥头村西水变压器,樊家台村南变压器,精神病医院配电变压器,南桥头村东变压器,台头苗圃厂2变压器","poweroffReason":"【停电原因】由于线路检修导致３５ＫＶ明义变电站１０ＫＶ明义５１４线路全线停电 【变更送电】因工作进度加快原因，送电时间由２１：００变更为１９：５９ 【发布渠道】通过９５５９８发布","powerTime":"2020-04-25 19:43:24","powerComm":"已送电","subsNo":"","lineNo":"","tgNo":"","tgName":null,"infoStatus":"1","orgName":"国网涞水县供电公司","typeName":null,"infoStatusName":null,"dateDay":null,"orgNos":null,"nowTime":null,"countyName":null,"streetName":null,"villageName":null,"roadName":null,"communityName":null,"tranName":null,"sdLineName":null,"cityCode":"1340614","cityName":"国网涞水县供电公司","provinceCode":null,"stopTime":"2020-04-25 19:59:00","powerType":"全部","powerOffArea":"【全线路停电】停涞水县福泰石灰制造有限公司新增变压器250KVA,台头村东南专变压器,西明义村西水100变压器,南北庄村东1变压器,南桥头村南变压器,丁家洼村南变压器,南桥头村西2变压器,三沟子村南变压器,西明义村北水变压器,三沟子村内变压器,南桥头村内2变压器,西明义村西变压器,南北庄村内二变压器,西明义村西北井变压器,台头村南1变压器,西明义村南变压器,抬头村西南2台区变压器,西明义村南2台区,二十里铺村南变压器,南北庄村东2变压器,南桥头村东2变压器,南北庄村南变压器,南桥头村内变压器,三沟子村东变压器,南桥头村西3台区变压器,西明义村北变压器,南桥头村东3台区变压器,台头村北变压器,丁家洼村内变压器,丁家洼村西变压器,台头村东南专2变压器,丁家洼村北2变压器,南北庄村东三台区,西明义村北2变压器,南桥头村内3变压器,丁家洼村西北变压器,西明义村西水变压器,三沟子村北变压器,西明义村内3台区变压器,樊家台村内2变压器,朝运红盛315KVA变压器,南桥头村南三台区,冉冉幼儿园变压器,丁家洼村北1变压器,丁家洼村内2变压器,三沟子村西北变压器,樊家台村西混用变压器,台头村南2变压器,南北庄村内变压器,南桥头村西变压器,南北庄村北变压器,西明义村内变压器,南桥头村西180变压器,南桥头村南2变压器,台头村北专变压器,台头村东变压器,台头村东2变压器,南桥头村西水变压器,樊家台村南变压器,精神病医院配电变压器,南桥头村东变压器,台头苗圃厂2变压器","powerOffReason":"【停电原因】由于线路检修导致３５ＫＶ明义变电站１０ＫＶ明义５１４线路全线停电 【变更送电】因工作进度加快原因，送电时间由２１：００变更为１９：５９ 【发布渠道】通过９５５９８发布","powerOffId":"2020042213000314"},{"poweroffId":2020042213000297,"sgpoweroffId":null,"subsName":"","lineName":"西各庄512","pubTranName":"杨村排20【纯农排变】,南冬光5,辛庄光2 1,杨村排18【纯农排变】,西各庄光1,杨村排17【纯农排变】,杨村排15【纯农排变】,辛庄光1 2,西各庄光4,新姚庄排4【纯农排变】,南冬光1,西各庄光9,杨村排14【纯农排变】,姚庄光3,新吴庄光12,新辛庄 光4【灾后重建】,杨村排13【纯农排变】,姚庄光1,南冬光7,姚庄光2,南冬光2,西各庄光8,西各庄光7,西各庄光6,新辛庄 光3【灾后重建】,西各庄排【纯农排变】,吴庄光2 1,西各庄变,南冬光6,西各庄光10,南冬光3,新南冬排3【纯农排变】,西各庄光3,杨村排19【纯农排变】,西各庄光5,杨村排21【纯农排变】,姚庄排6,","scope":"【影响街道/乡镇】杨村乡 【高危重要客户】无 【影响客户】姚庄、吴庄、辛庄、南冬、西各庄、杨村部分用户","startTime":"2020-04-22 18:43:52","stopDate":"2020-04-22 22:00:00","orgNo":"1340609","typeCode":"电网故障停限电","poweroffArea":"【全线路停电】停杨村排10【纯农排变】,新辛庄 光4【灾后重建】,河北恒利弹簧有限公司200,姚庄光1,西各庄光6,西各庄排5【纯农排变】,辛庄光2 1,杨村排18【纯农排变】,西各庄小学,西各庄光9,姚庄光3,辛庄排3 1【纯农排变】,杨村排13【纯农排变】,东赵排1【纯农排变】,西各庄混1,新姚庄排4【纯农排变】,西各庄光8,吴庄排1【纯农排变】,南冬光1,西各庄排6【纯农排变】,杨村排20【纯农排变】,南冬排1【纯农排变】,南冬光5,西各庄排2【纯农排变】,西各庄光1,杨村排17【纯农排变】,杨村排1【纯农排变】,杨村排15【纯农排变】,辛庄光1 2,杨村排2,西各庄光4,吴庄大棚1【纯农排变】,东赵排2【纯农排变】,西各庄光7,新辛庄 光3【灾后重建】,西各庄排3【纯农排变】,西各庄排【纯农排变】,吴庄光2 1,西各庄变,姚庄排2【纯农排变】,姚庄排3【纯农排变】,杨村排7【纯农排变】,辛庄排1 2【纯农排变】,南冬光6,西各庄光10,南冬光3,新南冬排3【纯农排变】 ,沃丰家庭农场-250,杨村排5【纯农排变】,西各庄光3,姚庄排1【纯农排变】,杨村排19【纯农排变】,西各庄光5,杨村排21【纯农排变】,姚庄排6,吴庄排2【纯农排变】,吴庄大棚2【纯农排变】,南冬光7,姚庄光2,辛庄排2 1【纯农排变】,南冬光2,南冬排2【纯农排变】,姚庄大棚变【纯农排变】,杨村排14【纯农排变】,新吴庄光12,0694656327-定兴县杨村乡姚家庄小学-专变-239106681-姚家庄小学","poweroffReason":"【停电原因】由于西各庄小学避雷器烧毁导致３５ＫＶ杨村变电站西各庄５１２线路全线停电 【变更送电】因抢修进度加快原因，送电时间由２３日００：００变更为２２日２２：００ 【发布渠道】通过９５５９８发布","powerTime":"2020-04-22 21:29:13","powerComm":"已送电","subsNo":"","lineNo":"","tgNo":"","tgName":null,"infoStatus":"1","orgName":"国网定兴县供电公司","typeName":null,"infoStatusName":null,"dateDay":null,"orgNos":null,"nowTime":null,"countyName":null,"streetName":null,"villageName":null,"roadName":null,"communityName":null,"tranName":null,"sdLineName":null,"cityCode":"1340609","cityName":"国网定兴县供电公司","provinceCode":null,"stopTime":"2020-04-22 22:00:00","powerType":"全部","powerOffArea":"【全线路停电】停杨村排10【纯农排变】,新辛庄 光4【灾后重建】,河北恒利弹簧有限公司200,姚庄光1,西各庄光6,西各庄排5【纯农排变】,辛庄光2 1,杨村排18【纯农排变】,西各庄小学,西各庄光9,姚庄光3,辛庄排3 1【纯农排变】,杨村排13【纯农排变】,东赵排1【纯农排变】,西各庄混1,新姚庄排4【纯农排变】,西各庄光8,吴庄排1【纯农排变】,南冬光1,西各庄排6【纯农排变】,杨村排20【纯农排变】,南冬排1【纯农排变】,南冬光5,西各庄排2【纯农排变】,西各庄光1,杨村排17【纯农排变】,杨村排1【纯农排变】,杨村排15【纯农排变】,辛庄光1 2,杨村排2,西各庄光4,吴庄大棚1【纯农排变】,东赵排2【纯农排变】,西各庄光7,新辛庄 光3【灾后重建】,西各庄排3【纯农排变】,西各庄排【纯农排变】,吴庄光2 1,西各庄变,姚庄排2【纯农排变】,姚庄排3【纯农排变】,杨村排7【纯农排变】,辛庄排1 2【纯农排变】,南冬光6,西各庄光10,南冬光3,新南冬排3【纯农排变】 ,沃丰家庭农场-250,杨村排5【纯农排变】,西各庄光3,姚庄排1【纯农排变】,杨村排19【纯农排变】,西各庄光5,杨村排21【纯农排变】,姚庄排6,吴庄排2【纯农排变】,吴庄大棚2【纯农排变】,南冬光7,姚庄光2,辛庄排2 1【纯农排变】,南冬光2,南冬排2【纯农排变】,姚庄大棚变【纯农排变】,杨村排14【纯农排变】,新吴庄光12,0694656327-定兴县杨村乡姚家庄小学-专变-239106681-姚家庄小学","powerOffReason":"【停电原因】由于西各庄小学避雷器烧毁导致３５ＫＶ杨村变电站西各庄５１２线路全线停电 【变更送电】因抢修进度加快原因，送电时间由２３日００：００变更为２２日２２：００ 【发布渠道】通过９５５９８发布","powerOffId":"2020042213000297"},{"poweroffId":2020042213000284,"sgpoweroffId":null,"subsName":"","lineName":"开发区II线568","pubTranName":"广源泡沫塑料制造-200,0651097998-河北微纳环保科技有限公司-专变-176982813-河北微纳-315,保定赛德丽-1000,0651104469-河北京格输送设备制造有限公司-专变-176982648-河北京格-315,广源泡沫塑料制造-315,保定赛德丽-500,宏庚环保-250,0586892525-定兴县恒通汽车维修服务中心-专变-125195158-变压器,九地龙象复合材料-250,0645605279-保定九地龙象合成材料制造有限公司-专变-169479839-九地龙象合成材料-250,奥克家居有限公司-500,粮食局军粮供应站-100,河北微纳-315,","scope":"【影响街道/乡镇】定兴镇 【高危重要客户】无 【影响客户】广源泡沫塑料制造有限公司、保定九地龙象合成材料、河北京格输送设备制造有限公司、河北微纳环保科技有限公司、宏庚环保、恒通汽车维修服务中心 、奥克家居有限公司、粮食局军粮供应站、赛德丽自动化环保设备有限公司、三禾农业、定兴县城市管理行政执法局两合庄路灯","startTime":"2020-04-23 01:00:00","stopDate":"2020-04-23 06:00:00","orgNo":"1340609","typeCode":"其他临时停电","poweroffArea":"【分支停电】停广源泡沫塑料制造-200,0651097998-河北微纳环保科技有限公司-专变-176982813-河北微纳-315,保定赛德丽-1000,0651104469-河北京格输送设备制造有限公司-专变-176982648-河北京格-315,广源泡沫塑料制造-315,保定赛德丽-500,宏庚环保-250,0586892525-定兴县恒通汽车维修服务中心-专变-125195158-变压器,九地龙象复合材料-250,0645605279-保定九地龙象合成材料制造有限公司-专变-169479839-九地龙象合成材料-250,奥克家居有限公司-500,粮食局军粮供应站-100,河北微纳-315","poweroffReason":"【停电原因】由于主干１１４号杆避雷器引线脱落，需停电进行紧急消缺导致２２０ＫＶ柳卓开关站开发区Ⅱ线５６８线路主干１０５号杆５６８－０３号断路器以下线路停电 【变更送电】无 【发布渠道】通过９５５９８发布","powerTime":"2020-04-23 05:32:04","powerComm":"已送电","subsNo":"","lineNo":"","tgNo":"","tgName":null,"infoStatus":"1","orgName":"国网定兴县供电公司","typeName":null,"infoStatusName":null,"dateDay":null,"orgNos":null,"nowTime":null,"countyName":null,"streetName":null,"villageName":null,"roadName":null,"communityName":null,"tranName":null,"sdLineName":null,"cityCode":"1340609","cityName":"国网定兴县供电公司","provinceCode":null,"stopTime":"2020-04-23 06:00:00","powerType":"全部","powerOffArea":"【分支停电】停广源泡沫塑料制造-200,0651097998-河北微纳环保科技有限公司-专变-176982813-河北微纳-315,保定赛德丽-1000,0651104469-河北京格输送设备制造有限公司-专变-176982648-河北京格-315,广源泡沫塑料制造-315,保定赛德丽-500,宏庚环保-250,0586892525-定兴县恒通汽车维修服务中心-专变-125195158-变压器,九地龙象复合材料-250,0645605279-保定九地龙象合成材料制造有限公司-专变-169479839-九地龙象合成材料-250,奥克家居有限公司-500,粮食局军粮供应站-100,河北微纳-315","powerOffReason":"【停电原因】由于主干１１４号杆避雷器引线脱落，需停电进行紧急消缺导致２２０ＫＶ柳卓开关站开发区Ⅱ线５６８线路主干１０５号杆５６８－０３号断路器以下线路停电 【变更送电】无 【发布渠道】通过９５５９８发布","powerOffId":"2020042213000284"},{"poweroffId":2020042213000241,"sgpoweroffId":null,"subsName":"","lineName":"10KV白庄512","pubTranName":"双树村南0822,","scope":"【影响街道/乡镇】义和庄乡 【高危重要客户】无 【影响客户】双树","startTime":"2020-04-22 16:21:07","stopDate":"2020-04-22 19:20:00","orgNo":"1340626","typeCode":"电网故障停限电","poweroffArea":"【单台区停电】停双树村南0822","poweroffReason":"【停电原因】由于低压空开烧毁导致３５ＫＶ码头变电站１０ＫＶ白庄５１２线路双树村南０８２２公变台区停电 【变更送电】因抢修进度加快原因，送电时间由２３：００变更为１９：２０ 【发布渠道】通过９５５９８发布","powerTime":"2020-04-22 18:50:20","powerComm":"恢复送电","subsNo":"","lineNo":"","tgNo":"","tgName":null,"infoStatus":"1","orgName":"国网涿州市供电公司","typeName":null,"infoStatusName":null,"dateDay":null,"orgNos":null,"nowTime":null,"countyName":null,"streetName":null,"villageName":null,"roadName":null,"communityName":null,"tranName":null,"sdLineName":null,"cityCode":"1340626","cityName":"国网涿州市供电公司","provinceCode":null,"stopTime":"2020-04-22 19:20:00","powerType":"全部","powerOffArea":"【单台区停电】停双树村南0822","powerOffReason":"【停电原因】由于低压空开烧毁导致３５ＫＶ码头变电站１０ＫＶ白庄５１２线路双树村南０８２２公变台区停电 【变更送电】因抢修进度加快原因，送电时间由２３：００变更为１９：２０ 【发布渠道】通过９５５９８发布","powerOffId":"2020042213000241"}],"pageModel":{"pageNow":150,"totalCount":10973,"totalPage":1098,"tableRows":0,"pageCount":10,"beginCount":1490},"isExperi":"1"}