{"message":"","today":"2020-06-15","seleList":[{"poweroffId":2020042213000209,"sgpoweroffId":null,"subsName":"","lineName":"10kV523上庄线","pubTranName":"0643630565-涞水鹏渤房地产开发有限公司-专变-161912061-鹏渤房地产250KVA变压器,交通局大坝2,上庄村,义合庄台区,天硕大酒店,天硕大酒店2,京通水上乐园,上庄新井台区,段春雨,南极科普800KVA专变,义合庄2,0681499722-涞水县星辰酒店-专变-219745609-涞水县星辰酒店315KV变压器专变,紫石口小南庄,0684527800-河北野三坡旅游投资有限公司-专变-223614548-河北野三坡旅游投资有限公司100KVA专变,上庄二台区,路政50,","scope":"【影响街道/乡镇】三坡镇 【高危重要客户】无 【影响客户】上庄村、义合庄村、紫石口小南台村、鹏渤房地产","startTime":"2020-04-22 15:10:38","stopDate":"2020-04-22 17:00:08","orgNo":"1340614","typeCode":"电网故障停限电","poweroffArea":"【全线路停电】停义合庄2,0681499722-涞水县星辰酒店-专变-219745609-涞水县星辰酒店315KV变压器专变,紫石口小南庄,0684527800-河北野三坡旅游投资有限公司-专变-223614548-河北野三坡旅游投资有限公司100KVA专变,上庄二台区,路政50,0643630565-涞水鹏渤房地产开发有限公司-专变-161912061-鹏渤房地产250KVA变压器,交通局大坝2,上庄村,义合庄台区,天硕大酒店,天硕大酒店2,京通水上乐园,上庄新井台区,段春雨,南极科普800KVA专变","poweroffReason":"【停电原因】由于Ａ相接地导致１１０ＫＶ三坡变电站１０ＫＶ上庄５２３线路全线停电 【变更送电】无 【发布渠道】通过９５５９８发布","powerTime":"2020-04-22 16:43:57","powerComm":"已送电","subsNo":"","lineNo":"","tgNo":"","tgName":null,"infoStatus":"1","orgName":"国网涞水县供电公司","typeName":null,"infoStatusName":null,"dateDay":null,"orgNos":null,"nowTime":null,"countyName":null,"streetName":null,"villageName":null,"roadName":null,"communityName":null,"tranName":null,"sdLineName":null,"cityCode":"1340614","cityName":"国网涞水县供电公司","provinceCode":null,"stopTime":"2020-04-22 17:00:08","powerType":"全部","powerOffArea":"【全线路停电】停义合庄2,0681499722-涞水县星辰酒店-专变-219745609-涞水县星辰酒店315KV变压器专变,紫石口小南庄,0684527800-河北野三坡旅游投资有限公司-专变-223614548-河北野三坡旅游投资有限公司100KVA专变,上庄二台区,路政50,0643630565-涞水鹏渤房地产开发有限公司-专变-161912061-鹏渤房地产250KVA变压器,交通局大坝2,上庄村,义合庄台区,天硕大酒店,天硕大酒店2,京通水上乐园,上庄新井台区,段春雨,南极科普800KVA专变","powerOffReason":"【停电原因】由于Ａ相接地导致１１０ＫＶ三坡变电站１０ＫＶ上庄５２３线路全线停电 【变更送电】无 【发布渠道】通过９５５９８发布","powerOffId":"2020042213000209"},{"poweroffId":2020042213000206,"sgpoweroffId":null,"subsName":"","lineName":"10kV524汤家庄线","pubTranName":"蓬头东山变压器,蓬头村东北,蓬头村东混用2台区,汤家庄东坡根,0469324538-刘烨-专变-46775759-刘烨,蓬头李海山（100）,1涞水荣盛伟业房地产开发有限公司630KVA专变,蓬头沙峪变压器,蓬头学校台区,小丰口黑石变压器,汤家庄黄岩根,蓬头（南2）,汤家庄村,荣盛伟业房地产开发有限公司新增变压器,汤家庄西塔变压器【冬季供暖设施】,汤家庄六九队变压器,红鳟鱼养殖场（刘烨）变压器,涞水荣盛伟业房地产开发有限公司3260KVA专变,蓬头村东（混用）,涞水荣盛伟业房地产开发有限公司1#630KVA专变,汤家庄3台区,涞水荣盛伟业房地产开发有限公司1000KVA专变,荣盛伟业房地产开发有限公司1000KVA专变,海勇水泥砖厂,蓬头九十队变压器,蓬头新村,涞水荣盛伟业房地产开发有限公司新增变压器,汤家庄4台区,蓬头村,汤家庄红旗山,荣盛伟业房地产新增变压器,汤家庄二台区,蓬头新村2台区,","scope":"【影响街道/乡镇】赵各庄镇、其中口乡 【高危重要客户】无 【影响客户】蓬头村、汤家庄村、小丰口村、荣盛集团（月亮湾）、阿尔卡地亚酒店","startTime":"2020-04-22 15:00:31","stopDate":"2020-04-22 17:00:00","orgNo":"1340614","typeCode":"电网故障停限电","poweroffArea":"【全线路停电】停蓬头李海山（100）,蓬头东山变压器,蓬头村东北,蓬头村东混用2台区,汤家庄东坡根,0469324538-刘烨-专变-46775759-刘烨,1涞水荣盛伟业房地产开发有限公司630KVA专变,蓬头沙峪变压器,蓬头学校台区,汤家庄黄岩根,蓬头（南2）,荣盛伟业房地产开发有限公司新增变压器,汤家庄六九队变压器,红鳟鱼养殖场（刘烨）变压器,小丰口黑石变压器,汤家庄村,汤家庄西塔变压器【冬季供暖设施】,涞水荣盛伟业房地产开发有限公司3260KVA专变,蓬头村东（混用）,涞水荣盛伟业房地产开发有限公司1#630KVA专变,荣盛伟业房地产开发有限公司1000KVA专变,汤家庄3台区,涞水荣盛伟业房地产开发有限公司1000KVA专变,海勇水泥砖厂,蓬头九十队变压器,蓬头新村,涞水荣盛伟业房地产开发有限公司新增变压器,汤家庄4台区,蓬头村,汤家庄红旗山,荣盛伟业房地产新增变压器,汤家庄二台区,蓬头新村2台区","poweroffReason":"【停电原因】由于过流跳闸导致１１０ＫＶ三坡变电站１０ＫＶ汤家庄５２４线路全线停电 【变更送电】因抢修进度加快原因，送电时间由１８：００变更为１７：００ 【发布渠道】通过９５５９８发布","powerTime":"2020-04-22 16:15:53","powerComm":"已送电","subsNo":"","lineNo":"","tgNo":"","tgName":null,"infoStatus":"1","orgName":"国网涞水县供电公司","typeName":null,"infoStatusName":null,"dateDay":null,"orgNos":null,"nowTime":null,"countyName":null,"streetName":null,"villageName":null,"roadName":null,"communityName":null,"tranName":null,"sdLineName":null,"cityCode":"1340614","cityName":"国网涞水县供电公司","provinceCode":null,"stopTime":"2020-04-22 17:00:00","powerType":"全部","powerOffArea":"【全线路停电】停蓬头李海山（100）,蓬头东山变压器,蓬头村东北,蓬头村东混用2台区,汤家庄东坡根,0469324538-刘烨-专变-46775759-刘烨,1涞水荣盛伟业房地产开发有限公司630KVA专变,蓬头沙峪变压器,蓬头学校台区,汤家庄黄岩根,蓬头（南2）,荣盛伟业房地产开发有限公司新增变压器,汤家庄六九队变压器,红鳟鱼养殖场（刘烨）变压器,小丰口黑石变压器,汤家庄村,汤家庄西塔变压器【冬季供暖设施】,涞水荣盛伟业房地产开发有限公司3260KVA专变,蓬头村东（混用）,涞水荣盛伟业房地产开发有限公司1#630KVA专变,荣盛伟业房地产开发有限公司1000KVA专变,汤家庄3台区,涞水荣盛伟业房地产开发有限公司1000KVA专变,海勇水泥砖厂,蓬头九十队变压器,蓬头新村,涞水荣盛伟业房地产开发有限公司新增变压器,汤家庄4台区,蓬头村,汤家庄红旗山,荣盛伟业房地产新增变压器,汤家庄二台区,蓬头新村2台区","powerOffReason":"【停电原因】由于过流跳闸导致１１０ＫＶ三坡变电站１０ＫＶ汤家庄５２４线路全线停电 【变更送电】因抢修进度加快原因，送电时间由１８：００变更为１７：００ 【发布渠道】通过９５５９８发布","powerOffId":"2020042213000206"},{"poweroffId":2020042213000180,"sgpoweroffId":null,"subsName":"","lineName":"10kV田西良站593线路","pubTranName":"10kVB895.B896箱式变电站B895配电变压器,10kVB889.B890箱式变电站B889配电变压器,10kVB1384.B1385箱式变电站B1384配电变压器,10kVB891.B892箱式变电站B892配电变压器,10kVB893.B894箱式变电站B893配电变压器,10kVB889.B890箱式变电站B890配电变压器,10kVB1484配电室B1484配电变压器,10kVB1382.B1383箱式变电站B1383配电变压器,10kVB1382.B1383箱式变电站B1382配电变压器,10kVB891.B892箱式变电站B891配电变压器,10kVB893.B894箱式变电站B894配电变压器,10kVB860配电室B860配电变压器,10kVB895.B896箱式变电站B896配电变压器,10kVB1384.B1385箱式变电站B1385配电变压器,","scope":"【影响街道/乡镇】高新区、北三环、阳光北大街 【高危重要客户】无 【影响客户】宏孚庄园、康城香槟小镇、卫士小区","startTime":"2020-04-22 13:30:00","stopDate":"2020-04-22 20:10:00","orgNo":"13406","typeCode":"电网故障停限电","poweroffArea":"【全线路停电】停10kVB1382.B1383箱式变电站B1382配电变压器,变压器,10kVB1484配电室B1484配电变压器,0636777387-保定玻璃屋休闲服务有限公司-专变-148442090-变压器,0604586577-保定市公安局-专变,0572904690-保定市城市管理行政执法局-1-配电室-变压器-1,0636777387-保定玻璃屋休闲服务有限公司-专变-148442097-电动机,10kVB1384.B1385箱式变电站B1384配电变压器,10kVB891.B892箱式变电站B892配电变压器,0356269247-保定古达电力安装有限公司-专变,0356212599-保定市富达金属防腐股份合作公司-专变,10kVB893.B894箱式变电站B893配电变压器,0356220767-保定市起通索具设备有限公司-专变,10kVB889.B890箱式变电站B890配电变压器,10kVB1382.B1383箱式变电站B1383配电变压器,10kVB891.B892箱式变电站B891配电变压器,0356267805-保定市宏孚房地产开发有限责任公司-专变,10kVB889.B890箱式变电站B889配电变压器,10kVB1384.B1385箱式变电站B1385配电变压器,0637551438-保定市绿溪谷花卉科普乐园有限公司-专变-148480386-变压器,10kVB860配电室B860配电变压器,0356220754-保定市莲池区进财养殖场-专变-206284037-变压器,10kVB895.B896箱式变电站B896配电变压器,0356467902-保定市瑞赢物业管理有限公司-专变,0356222617-韩庄乡杨村村民委员会-专变,10kVB895.B896箱式变电站B895配电变压器,10kVB893.B894箱式变电站B894配电变压器,0637551438-保定市绿溪谷花卉科普乐园有限公司-专变-148487210-变压器","poweroffReason":"【停电原因】由于分支开关短路导致１０ＫＶ田西良变电站５９３线路全线停电【变更送电】因抢修进度加快，原定１７：３０送电现计划１９:３０送电【发布渠道】通过９５５９８发布","powerTime":"2020-04-22 19:56:50","powerComm":"已送电","subsNo":"","lineNo":"","tgNo":"","tgName":null,"infoStatus":"1","orgName":"保定供电公司","typeName":null,"infoStatusName":null,"dateDay":null,"orgNos":null,"nowTime":null,"countyName":null,"streetName":null,"villageName":null,"roadName":null,"communityName":null,"tranName":null,"sdLineName":null,"cityCode":"13406","cityName":"保定供电公司","provinceCode":null,"stopTime":"2020-04-22 20:10:00","powerType":"全部","powerOffArea":"【全线路停电】停10kVB1382.B1383箱式变电站B1382配电变压器,变压器,10kVB1484配电室B1484配电变压器,0636777387-保定玻璃屋休闲服务有限公司-专变-148442090-变压器,0604586577-保定市公安局-专变,0572904690-保定市城市管理行政执法局-1-配电室-变压器-1,0636777387-保定玻璃屋休闲服务有限公司-专变-148442097-电动机,10kVB1384.B1385箱式变电站B1384配电变压器,10kVB891.B892箱式变电站B892配电变压器,0356269247-保定古达电力安装有限公司-专变,0356212599-保定市富达金属防腐股份合作公司-专变,10kVB893.B894箱式变电站B893配电变压器,0356220767-保定市起通索具设备有限公司-专变,10kVB889.B890箱式变电站B890配电变压器,10kVB1382.B1383箱式变电站B1383配电变压器,10kVB891.B892箱式变电站B891配电变压器,0356267805-保定市宏孚房地产开发有限责任公司-专变,10kVB889.B890箱式变电站B889配电变压器,10kVB1384.B1385箱式变电站B1385配电变压器,0637551438-保定市绿溪谷花卉科普乐园有限公司-专变-148480386-变压器,10kVB860配电室B860配电变压器,0356220754-保定市莲池区进财养殖场-专变-206284037-变压器,10kVB895.B896箱式变电站B896配电变压器,0356467902-保定市瑞赢物业管理有限公司-专变,0356222617-韩庄乡杨村村民委员会-专变,10kVB895.B896箱式变电站B895配电变压器,10kVB893.B894箱式变电站B894配电变压器,0637551438-保定市绿溪谷花卉科普乐园有限公司-专变-148487210-变压器","powerOffReason":"【停电原因】由于分支开关短路导致１０ＫＶ田西良变电站５９３线路全线停电【变更送电】因抢修进度加快，原定１７：３０送电现计划１９:３０送电【发布渠道】通过９５５９８发布","powerOffId":"2020042213000180"},{"poweroffId":2020042213000178,"sgpoweroffId":null,"subsName":"","lineName":"机床厂515","pubTranName":"高三街西变压器,","scope":"【影响街道/乡镇】和平办事处 【高危重要客户】无 【影响客户】高三村","startTime":"2020-04-22 13:15:01","stopDate":"2020-04-22 15:00:00","orgNo":"1340612","typeCode":"电网故障停限电","poweroffArea":"【单台区停电】停高三街西变压器","poweroffReason":"【停电原因】由于弓子线断导致２２０ＫＶ高碑店变电站１０ＫＶ机床厂５１５线路高三街西公变台区停电 【变更送电】因抢修进度加快原因，送电时间由１８：００变更为１５：００ 【发布渠道】通过９５５９８发布","powerTime":"2020-04-22 14:39:03","powerComm":"已送电","subsNo":"","lineNo":"","tgNo":"","tgName":null,"infoStatus":"1","orgName":"国网高碑店市供电公司","typeName":null,"infoStatusName":null,"dateDay":null,"orgNos":null,"nowTime":null,"countyName":null,"streetName":null,"villageName":null,"roadName":null,"communityName":null,"tranName":null,"sdLineName":null,"cityCode":"1340612","cityName":"国网高碑店市供电公司","provinceCode":null,"stopTime":"2020-04-22 15:00:00","powerType":"全部","powerOffArea":"【单台区停电】停高三街西变压器","powerOffReason":"【停电原因】由于弓子线断导致２２０ＫＶ高碑店变电站１０ＫＶ机床厂５１５线路高三街西公变台区停电 【变更送电】因抢修进度加快原因，送电时间由１８：００变更为１５：００ 【发布渠道】通过９５５９８发布","powerOffId":"2020042213000178"},{"poweroffId":2020042213000175,"sgpoweroffId":null,"subsName":"","lineName":"舍龙城515","pubTranName":"西韩村3#,凌云册村10#,北韩村6#,南韩村5#,太平庄村1#,东韩村5#,南韩村3#【纯农排变】,凌云册村1#,北韩村3#,北韩村5#,东韩村4#,北韩村7#,南韩村2#,北韩村2#,","scope":"【影响街道/乡镇】凌云册乡【高危重要客户】无【影响客户】太平庄村、凌云册村、北韩村、西韩村、东韩村、南韩村","startTime":"2020-04-22 12:59:39","stopDate":"2020-04-22 15:00:00","orgNo":"1340625","typeCode":"电网故障停限电","poweroffArea":"【全线路停电】停北韩村3#,南韩村5#,凌云册村10#,东韩村4#,北韩村6#,东韩村5#,易县南山石场变压器,北韩村2#,南韩村3#【纯农排变】,南韩村2#,南韩村(吴顺平石子厂),北韩村4#【纯农排变】,西韩村2#【纯农排变】,凌云册村1#,北韩村7#,西韩村1#【纯农排变】,太平庄面粉厂,太平庄村1#,西韩村3#,南韩村4#【纯农排变】,北韩村1#【纯农排变】,易县金谷园大酒店,北韩村5#","poweroffReason":"【停电原因】由于树断砸线导致３５ＫＶ凌云册变电站舍龙城５１５线路全线停电【变更送电】因抢修进度加快原因，送电时间由１９：００变更为１５：００【发布渠道】通过９５５９８发布","powerTime":"2020-04-22 14:15:55","powerComm":"已送电","subsNo":"","lineNo":"","tgNo":"","tgName":null,"infoStatus":"1","orgName":"国网易县供电公司","typeName":null,"infoStatusName":null,"dateDay":null,"orgNos":null,"nowTime":null,"countyName":null,"streetName":null,"villageName":null,"roadName":null,"communityName":null,"tranName":null,"sdLineName":null,"cityCode":"1340625","cityName":"国网易县供电公司","provinceCode":null,"stopTime":"2020-04-22 15:00:00","powerType":"全部","powerOffArea":"【全线路停电】停北韩村3#,南韩村5#,凌云册村10#,东韩村4#,北韩村6#,东韩村5#,易县南山石场变压器,北韩村2#,南韩村3#【纯农排变】,南韩村2#,南韩村(吴顺平石子厂),北韩村4#【纯农排变】,西韩村2#【纯农排变】,凌云册村1#,北韩村7#,西韩村1#【纯农排变】,太平庄面粉厂,太平庄村1#,西韩村3#,南韩村4#【纯农排变】,北韩村1#【纯农排变】,易县金谷园大酒店,北韩村5#","powerOffReason":"【停电原因】由于树断砸线导致３５ＫＶ凌云册变电站舍龙城５１５线路全线停电【变更送电】因抢修进度加快原因，送电时间由１９：００变更为１５：００【发布渠道】通过９５５９８发布","powerOffId":"2020042213000175"},{"poweroffId":2020042213000172,"sgpoweroffId":null,"subsName":"","lineName":"金台南583","pubTranName":"泰元北大街4#,金台路2#,金台路4#,靖远北大街1#,靖远北大街5#,金台路6#,养路工区,厂东关村1#,泰元北大街3#,金台路12#,厂东关村9#,金台路8#,靖远北大街4#,金台路10#,厂东关村7#,厂东关12#,泰元北大街6#,靖远北大街3#,电力局充电桩配电变压器,厂东关村3#,靖远北大街2#,厂东关村2#,泰元北大街5#,","scope":"【影响街道/乡镇】城管处、泰元北大街、金台路、靖远北大街 【高危重要客户】无 【影响客户】厂东关村","startTime":"2020-04-22 12:57:21","stopDate":"2020-04-22 18:00:00","orgNo":"1340625","typeCode":"电网故障停限电","poweroffArea":"【全线路停电】停厂东关村1#,泰元北大街5#,养路工区,厂东关村7#,靖远北大街5#,泰元北大街4#,金台路2#,金台路4#,易县易水医院变压器,靖远北大街1#,金台路6#,泰元北大街3#,河北兰姆大叔食品科技有限公司200,金台路12#,厂东关村9#,易县一千零一夜商务酒店有限公司,靖远北大街4#,易县海铭湾洗浴服务部250,金台路10#,河北易县医院,厂东关12#,泰元北大街6#,靖远北大街3#,电力局充电桩配电变压器,厂东关村3#,百益城,景安物业增容1号-1000KVA,和平小区(于占河),靖远北大街2#,0586857887-易县景安物业服务有限公司-专变-125162662-易县景安物业服务有限公司变压器,厂东关村2#,河北景安房地产开发有限公司800KVA-易县520线,燕都名苑小区,金台路8#,景安物业增容2号-1000KVA","poweroffReason":"【停电原因】由于大风原因异物挂线导致１１０ＫＶ店北变电站金台南５８３线路全线停电【变更送电】因抢修进度加快原因，送电时间由１９：００变更为１８：００【发布渠道】通过９５５９８发布","powerTime":"2020-04-22 17:44:51","powerComm":"已送电","subsNo":"","lineNo":"","tgNo":"","tgName":null,"infoStatus":"1","orgName":"国网易县供电公司","typeName":null,"infoStatusName":null,"dateDay":null,"orgNos":null,"nowTime":null,"countyName":null,"streetName":null,"villageName":null,"roadName":null,"communityName":null,"tranName":null,"sdLineName":null,"cityCode":"1340625","cityName":"国网易县供电公司","provinceCode":null,"stopTime":"2020-04-22 18:00:00","powerType":"全部","powerOffArea":"【全线路停电】停厂东关村1#,泰元北大街5#,养路工区,厂东关村7#,靖远北大街5#,泰元北大街4#,金台路2#,金台路4#,易县易水医院变压器,靖远北大街1#,金台路6#,泰元北大街3#,河北兰姆大叔食品科技有限公司200,金台路12#,厂东关村9#,易县一千零一夜商务酒店有限公司,靖远北大街4#,易县海铭湾洗浴服务部250,金台路10#,河北易县医院,厂东关12#,泰元北大街6#,靖远北大街3#,电力局充电桩配电变压器,厂东关村3#,百益城,景安物业增容1号-1000KVA,和平小区(于占河),靖远北大街2#,0586857887-易县景安物业服务有限公司-专变-125162662-易县景安物业服务有限公司变压器,厂东关村2#,河北景安房地产开发有限公司800KVA-易县520线,燕都名苑小区,金台路8#,景安物业增容2号-1000KVA","powerOffReason":"【停电原因】由于大风原因异物挂线导致１１０ＫＶ店北变电站金台南５８３线路全线停电【变更送电】因抢修进度加快原因，送电时间由１９：００变更为１８：００【发布渠道】通过９５５９８发布","powerOffId":"2020042213000172"},{"poweroffId":2020042213000168,"sgpoweroffId":null,"subsName":"","lineName":"阳元街518","pubTranName":"鑫苑小区,阳元街直供4#,城关医院直供,阳元街直供1#,路家庄村1#,平安家园1,友谊路2#,南环小区2#,路家庄5#,南环小区直供1#,南环路3#,阳元街直供3#,金色家园1配电变压器,阳元街直供2#,阳元南街直供1#,西环路村6#,南关村1#,阳元南街2#,","scope":"【影响街道/乡镇】城管处、友谊路、阳元北大街、易兴路、西环路、朝阳路、南环路【高危重要客户】无【影响客户】路家庄村、金色家园小区、平安家园小区、南环小区、鑫苑小区","startTime":"2020-04-22 12:52:34","stopDate":"2020-04-22 14:00:00","orgNo":"1340625","typeCode":"电网故障停限电","poweroffArea":"【全线路停电】停阳元街直供2#,阳元南街直供1#,易水河东,西环路村6#,阳元南街2#,南关村1#,城关医院直供,易县住房和城乡建设局80,河北智联房地产开发有限公司A-2000KVA,易县我爱我家物业管理有限公司变压器,鑫苑小区,0588988396-河北普华房地产开发有限公司-专变-125426310-河北普华房地产开发有限公司变压器,珠峰石业,阳元街直供4#,河北卓澳房地产开发有限公司变压器,南关铸造厂,春雨房地产东区1000,河北华宇房地产开发有限公司b-2000KVA,农发行,易县一条龙烤鸭店,工艺品厂,路家庄村1#,0469136005-棉麻公司-专变-46725774-棉麻公司,建安公司,易县龙烁供热有限责任公司变压器,河北昌百房地产开发有限公司3*2000KVA,友谊路2#,西苑小区,南环小区2#,李嘉成200,春雨房地产开发有限公司,河北华宇房地产开发有限公司A-2000KVA,路家庄5#,河北智联房地产开发有限公司B-2000KVA,南环小区直供1#,南环路3#,易县妇幼保健院,河北景安地产开发有限公司变压器,河北傲美酒店有限公司400,河北昌百房地产开发有限公司B,东市村张保术变压器,阳元街直供1#,河北昌百房地产开发有限公司C,平安家园1,易县宝华酒店,惠东物业公司工地,阳元街直供3#,0588988396-河北普华房地产开发有限公司-专变-125417964-河北普华房地产开发有限公司变压器,房产小区(100KVA),易县鑫正物业管理服务有限公司增容2500,房产小区(200KVA),金色家园1配电变压器","poweroffReason":"【停电原因】由于异物挂线导致３５ＫＶ易水变电站阳元街５１８线路全线停电【变更送电】因抢修进度加快原因，送电时间由１９：００变更为１４：００【发布渠道】通过９５５９８发布","powerTime":"2020-04-22 13:43:04","powerComm":"已送电","subsNo":"","lineNo":"","tgNo":"","tgName":null,"infoStatus":"1","orgName":"国网易县供电公司","typeName":null,"infoStatusName":null,"dateDay":null,"orgNos":null,"nowTime":null,"countyName":null,"streetName":null,"villageName":null,"roadName":null,"communityName":null,"tranName":null,"sdLineName":null,"cityCode":"1340625","cityName":"国网易县供电公司","provinceCode":null,"stopTime":"2020-04-22 14:00:00","powerType":"全部","powerOffArea":"【全线路停电】停阳元街直供2#,阳元南街直供1#,易水河东,西环路村6#,阳元南街2#,南关村1#,城关医院直供,易县住房和城乡建设局80,河北智联房地产开发有限公司A-2000KVA,易县我爱我家物业管理有限公司变压器,鑫苑小区,0588988396-河北普华房地产开发有限公司-专变-125426310-河北普华房地产开发有限公司变压器,珠峰石业,阳元街直供4#,河北卓澳房地产开发有限公司变压器,南关铸造厂,春雨房地产东区1000,河北华宇房地产开发有限公司b-2000KVA,农发行,易县一条龙烤鸭店,工艺品厂,路家庄村1#,0469136005-棉麻公司-专变-46725774-棉麻公司,建安公司,易县龙烁供热有限责任公司变压器,河北昌百房地产开发有限公司3*2000KVA,友谊路2#,西苑小区,南环小区2#,李嘉成200,春雨房地产开发有限公司,河北华宇房地产开发有限公司A-2000KVA,路家庄5#,河北智联房地产开发有限公司B-2000KVA,南环小区直供1#,南环路3#,易县妇幼保健院,河北景安地产开发有限公司变压器,河北傲美酒店有限公司400,河北昌百房地产开发有限公司B,东市村张保术变压器,阳元街直供1#,河北昌百房地产开发有限公司C,平安家园1,易县宝华酒店,惠东物业公司工地,阳元街直供3#,0588988396-河北普华房地产开发有限公司-专变-125417964-河北普华房地产开发有限公司变压器,房产小区(100KVA),易县鑫正物业管理服务有限公司增容2500,房产小区(200KVA),金色家园1配电变压器","powerOffReason":"【停电原因】由于异物挂线导致３５ＫＶ易水变电站阳元街５１８线路全线停电【变更送电】因抢修进度加快原因，送电时间由１９：００变更为１４：００【发布渠道】通过９５５９８发布","powerOffId":"2020042213000168"},{"poweroffId":2020042213000107,"sgpoweroffId":null,"subsName":"","lineName":"10kV雷庄线537","pubTranName":"刘庄06号变压器,","scope":"【影响街道/乡镇】北城办事处 【高危重要客户】无 【影响客户】刘庄村","startTime":"2020-04-22 10:22:57","stopDate":"2020-04-22 15:00:00","orgNo":"1340612","typeCode":"电网故障停限电","poweroffArea":"【单台区停电】停刘庄06号变压器","poweroffReason":"【停电原因】由于有铁丝挂线导致１１０ＫＶ各庄变电站１０ＫＶ雷庄５３７线路刘庄０６号公变台区停电 【变更送电】无 【发布渠道】通过９５５９８发布","powerTime":"2020-04-22 14:55:32","powerComm":"已送电","subsNo":"","lineNo":"","tgNo":"","tgName":null,"infoStatus":"1","orgName":"国网高碑店市供电公司","typeName":null,"infoStatusName":null,"dateDay":null,"orgNos":null,"nowTime":null,"countyName":null,"streetName":null,"villageName":null,"roadName":null,"communityName":null,"tranName":null,"sdLineName":null,"cityCode":"1340612","cityName":"国网高碑店市供电公司","provinceCode":null,"stopTime":"2020-04-22 15:00:00","powerType":"全部","powerOffArea":"【单台区停电】停刘庄06号变压器","powerOffReason":"【停电原因】由于有铁丝挂线导致１１０ＫＶ各庄变电站１０ＫＶ雷庄５３７线路刘庄０６号公变台区停电 【变更送电】无 【发布渠道】通过９５５９８发布","powerOffId":"2020042213000107"},{"poweroffId":2020042213000051,"sgpoweroffId":null,"subsName":"","lineName":"十里铺线513","pubTranName":"大屯南变压器,","scope":"【影响街道/乡镇】东马营镇 【高危重要客户】无 【影响客户】大屯村","startTime":"2020-04-22 08:20:46","stopDate":"2020-04-22 11:00:00","orgNo":"1340612","typeCode":"电网故障停限电","poweroffArea":"【单台区停电】停大屯南变压器","poweroffReason":"【停电原因】由于大车刮断线导致１１０ＫＶ太平庄变电站１０ＫＶ十里铺５１３线路大屯南公变台区停电 【变更送电】无 【发布渠道】通过９５５９８发布","powerTime":"2020-04-22 10:02:39","powerComm":"已送电","subsNo":"","lineNo":"","tgNo":"","tgName":null,"infoStatus":"1","orgName":"国网高碑店市供电公司","typeName":null,"infoStatusName":null,"dateDay":null,"orgNos":null,"nowTime":null,"countyName":null,"streetName":null,"villageName":null,"roadName":null,"communityName":null,"tranName":null,"sdLineName":null,"cityCode":"1340612","cityName":"国网高碑店市供电公司","provinceCode":null,"stopTime":"2020-04-22 11:00:00","powerType":"全部","powerOffArea":"【单台区停电】停大屯南变压器","powerOffReason":"【停电原因】由于大车刮断线导致１１０ＫＶ太平庄变电站１０ＫＶ十里铺５１３线路大屯南公变台区停电 【变更送电】无 【发布渠道】通过９５５９８发布","powerOffId":"2020042213000051"},{"poweroffId":2020042213000002,"sgpoweroffId":null,"subsName":"","lineName":"10kV569赵村线","pubTranName":"孟家庄公用照明14台区,孟家庄公用照明10台区【纯农排变】,孟家庄公用农业11台区【纯农排变】,孟家庄公用照明11台区,孟家庄公用照明2台区,西南佐公用照明1台区,孟家庄公用照明5台区【纯农排变】,孟家庄公用照明20台区,韩家庄公用照明2台区,孟家庄公用照明16台区,韩家庄公用照明3台区,孟家庄公用照明17台区,孟家庄公用照明9台区,韩家庄公用照明1台区,韩家庄公用照明5台区,韩家庄公用农业4台区【纯农排变】,孟家庄公用农业13台区【纯农排变】,客户投资_孟家庄公用照明8台区,韩家庄公用农业3台区【纯农排变】,孟家庄公用照明7台区,韩家庄公用照明6台区,孟家庄公用照明12台区,韩家庄公用照明4台区,孟家庄公用照明18台区,孟家庄公用照明3台区,客户投资_孟家庄公用照明4台区,孟家庄公用照明6台区,韩家庄公用照明7台区,孟家庄公用照明13台区,孟家庄公用农业12台区【纯农排变】,客户投资_西南佐公用照明2台区,","scope":"【影响街道/乡镇】赵村乡【高危重要客户】无【影响客户】西南佐、韩家庄、孟家庄","startTime":"2020-04-22 03:31:39","stopDate":"2020-04-22 07:00:00","orgNo":"1340610","typeCode":"电网故障停限电","poweroffArea":"【分支停电】停孟家庄公用农业11台区【纯农排变】,孟家庄公用照明11台区,孟家庄公用照明2台区,西南佐公用照明1台区,孟家庄公用照明5台区【纯农排变】,孟家庄公用照明20台区,孟家庄公用照明14台区,孟家庄公用照明10台区【纯农排变】,客户投资_西南佐公用照明2台区,韩家庄公用照明2台区,孟家庄公用照明16台区,韩家庄公用照明3台区,孟家庄公用照明17台区,孟家庄公用照明9台区,韩家庄公用照明1台区,韩家庄公用照明5台区,韩家庄公用农业4台区【纯农排变】,孟家庄公用农业13台区【纯农排变】,客户投资_孟家庄公用照明8台区,韩家庄公用农业3台区【纯农排变】,孟家庄公用照明7台区,韩家庄公用照明6台区,孟家庄公用照明12台区,韩家庄公用照明4台区,孟家庄公用照明18台区,孟家庄公用照明3台区,客户投资_孟家庄公用照明4台区,孟家庄公用照明6台区,韩家庄公用照明7台区,孟家庄公用照明13台区,孟家庄公用农业12台区【纯农排变】","poweroffReason":"【停电原因】由于线路开关掉闸导致１１０ＫＶ焦化厂变电站１０ＫＶ５６９赵村线路主干６６号杆０２号断路器以下线路停电 【变更送电】因抢修进度加快原因，送电时间由１２:００变更为０７:００ 【发布渠道】９５５９８","powerTime":"2020-04-22 06:45:40","powerComm":"已送电","subsNo":"","lineNo":"","tgNo":"","tgName":null,"infoStatus":"1","orgName":"国网定州市供电公司","typeName":null,"infoStatusName":null,"dateDay":null,"orgNos":null,"nowTime":null,"countyName":null,"streetName":null,"villageName":null,"roadName":null,"communityName":null,"tranName":null,"sdLineName":null,"cityCode":"1340610","cityName":"国网定州市供电公司","provinceCode":null,"stopTime":"2020-04-22 07:00:00","powerType":"全部","powerOffArea":"【分支停电】停孟家庄公用农业11台区【纯农排变】,孟家庄公用照明11台区,孟家庄公用照明2台区,西南佐公用照明1台区,孟家庄公用照明5台区【纯农排变】,孟家庄公用照明20台区,孟家庄公用照明14台区,孟家庄公用照明10台区【纯农排变】,客户投资_西南佐公用照明2台区,韩家庄公用照明2台区,孟家庄公用照明16台区,韩家庄公用照明3台区,孟家庄公用照明17台区,孟家庄公用照明9台区,韩家庄公用照明1台区,韩家庄公用照明5台区,韩家庄公用农业4台区【纯农排变】,孟家庄公用农业13台区【纯农排变】,客户投资_孟家庄公用照明8台区,韩家庄公用农业3台区【纯农排变】,孟家庄公用照明7台区,韩家庄公用照明6台区,孟家庄公用照明12台区,韩家庄公用照明4台区,孟家庄公用照明18台区,孟家庄公用照明3台区,客户投资_孟家庄公用照明4台区,孟家庄公用照明6台区,韩家庄公用照明7台区,孟家庄公用照明13台区,孟家庄公用农业12台区【纯农排变】","powerOffReason":"【停电原因】由于线路开关掉闸导致１１０ＫＶ焦化厂变电站１０ＫＶ５６９赵村线路主干６６号杆０２号断路器以下线路停电 【变更送电】因抢修进度加快原因，送电时间由１２:００变更为０７:００ 【发布渠道】９５５９８","powerOffId":"2020042213000002"}],"pageModel":{"pageNow":151,"totalCount":10973,"totalPage":1098,"tableRows":0,"pageCount":10,"beginCount":1500},"isExperi":"1"}