{"message":"","today":"2020-06-15","seleList":[{"poweroffId":2020042113000242,"sgpoweroffId":null,"subsName":"","lineName":"10kV511齐村线","pubTranName":"太合综合4台区变压器,太恒综合5台区变压器,太恒综合7台区变压器,陵阳综合3台区变压器,陵阳综合4台区变压器,陵阳综合7台区变压器,太恒综合2台区变压器,太合综合1台区变压器,陵阳综合5台区变压器,太白综合4台区变压器,太白综合3台区变压器,陵阳综合11台区变压器,太恒综合9台区变压器,太合综合2台区变压器,陵阳农排3台区【纯农排变】,陵阳综合6台区变压器,太合综合3台区变压器,太恒综合1台区,太合综合5台区变压器,太白综合2台区变压器,太恒综合10台区变压器,陵阳综合9台区变压器,陵阳综合8台区变压器,陵阳综合1台区变压器,太恒综合8台区变压器,太恒综合3台区变压器,太白综合1台区变压器,陵阳综合2台区变压器,陵阳综合10台区变压器,太恒综合4台区变压器,陵阳综合12台区变压器,太恒综合11台区变压器,","scope":"【影响街道/乡镇】大百尺镇【高危重要客户】无【影响客户】陵阳村、太恒庄村、太白庄村、太合庄村","startTime":"2020-04-21 17:08:25","stopDate":"2020-04-21 20:00:00","orgNo":"1340616","typeCode":"电网故障停限电","poweroffArea":"【全线路停电】停太恒综合11台区变压器,蠡县三联纺织品有限公司3,蠡县彬彬纺织品有限公司,太恒综合5台区变压器,0469436189-蠡县鑫卓纺织品有限公司-专变-46810298-盼发巾被厂2号,保定三江皮毛纺织品有限公司,0469432246-蠡县思佳纺织厂-专变-46810231-王明毛巾厂,0469432217-盼发巾被厂一号-专变-46810379-盼发巾被厂1号,太白综合4台区变压器,保定三江皮毛纺织有限公司,陵阳综合10台区变压器,太恒综合7台区变压器,石展敦毛巾厂,陵阳农排3台区【纯农排变】,0469434822-蠡县腾宏纺织厂-专变-46810275-蠡县三联纺织品有限公司,太合综合3台区变压器,0469434372-蠡县恒佳纺织厂-专变-46810276-蠡县三联纺织品有限公司,陵阳农排5台区【纯农排变】,陵阳农排2台区【纯农排变】,蠡县思绮纺织品有限公司,太恒综合2台区变压器,太恒综合4台区变压器,太恒综合10台区变压器,陵阳学斌毛巾厂变压器,陵阳综合12台区变压器,太恒综合9台区变压器,陵阳综合4台区变压器,陵阳工业（东南）,蠡县裕积纺织品有限公司变压器,陵阳综合6台区变压器,陵阳综合1台区变压器,0469432679-蠡县宏强毛巾厂-专变-46810219-宏强毛巾厂,0469434398-蠡县旭博纺织有限公司-专变-46810218-老偏毛巾厂,太白综合2台区变压器,蠡县九州纺织品有限公司,陵阳综合2台区变压器,陵阳综合11台区变压器,太恒综合3台区变压器,天伦纺织品有限公司,艳召巾被厂,0562626175-蠡县宇通纺织品有限公司-专变-118457890-蠡县陵阳征昌巾被厂变压器,0469432666-蠡县军格奶牛厂-专变-46810281-蠡县军格奶牛厂,陵阳综合3台区变压器,0469433744-蠡县凌阳村国昌毛巾厂-专变-46810233-国昌毛巾厂,陵阳合股厂,太白综合3台区变压器,0469432653-海滨毛巾厂-专变-46810277-海滨毛巾厂,陵阳综合8台区变压器,太恒综合1台区,中国移动通信集团河北有限公司蠡县分公司太恒村变压器,太合农排4台区【纯农排变】,0469436134-蠡县祥泰纺织厂-专变-127135980-蠡县鑫民纺织有限公司变压器,0469432709-蠡县三昊纺织品厂-专变-46810217-朱顺雷毛巾厂,陵阳综合5台区变压器,0469436219-蠡县博川纺织有限公司-专变-46810355-朱满仓毛巾厂,0469434385-蠡县金欧纺织厂-专变-46810187-学礼毛巾厂,明浩纺织品,陵阳综合7台区变压器,建坡面粉厂,陵阳综合9台区变压器,太白综合1台区变压器,太恒综合8台区变压器,太合综合5台区变压器,蠡县天伦纺织品有限责任公司变压器,志开毛巾厂,太合综合2台区变压器,0469433890-太恒小学-专变-46810244-太恒学校,百尺二中,太合综合1台区变压器,0469434907-太白二面-专变-46810380-太白二面,太合综合4台区变压器,0469436235-蠡县格雅巾被厂-专变-46810191-东兴毛巾厂,0469433799-二联毛巾厂-专变-46810236-二联毛巾厂,蠡县锦棉纺织品有限公司","poweroffReason":"【停电原因】由于线路接地导致３５ＫＶ握纽庄变电站１０ＫＶ齐村５１１线路全线停电【变更送电】因抢修进度加快原因，送电时间由２２：００变更为２０：００【发布渠道】通过９５５９８发布","powerTime":"2020-04-21 19:15:43","powerComm":"已送电","subsNo":"","lineNo":"","tgNo":"","tgName":null,"infoStatus":"1","orgName":"国网蠡县供电公司","typeName":null,"infoStatusName":null,"dateDay":null,"orgNos":null,"nowTime":null,"countyName":null,"streetName":null,"villageName":null,"roadName":null,"communityName":null,"tranName":null,"sdLineName":null,"cityCode":"1340616","cityName":"国网蠡县供电公司","provinceCode":null,"stopTime":"2020-04-21 20:00:00","powerType":"全部","powerOffArea":"【全线路停电】停太恒综合11台区变压器,蠡县三联纺织品有限公司3,蠡县彬彬纺织品有限公司,太恒综合5台区变压器,0469436189-蠡县鑫卓纺织品有限公司-专变-46810298-盼发巾被厂2号,保定三江皮毛纺织品有限公司,0469432246-蠡县思佳纺织厂-专变-46810231-王明毛巾厂,0469432217-盼发巾被厂一号-专变-46810379-盼发巾被厂1号,太白综合4台区变压器,保定三江皮毛纺织有限公司,陵阳综合10台区变压器,太恒综合7台区变压器,石展敦毛巾厂,陵阳农排3台区【纯农排变】,0469434822-蠡县腾宏纺织厂-专变-46810275-蠡县三联纺织品有限公司,太合综合3台区变压器,0469434372-蠡县恒佳纺织厂-专变-46810276-蠡县三联纺织品有限公司,陵阳农排5台区【纯农排变】,陵阳农排2台区【纯农排变】,蠡县思绮纺织品有限公司,太恒综合2台区变压器,太恒综合4台区变压器,太恒综合10台区变压器,陵阳学斌毛巾厂变压器,陵阳综合12台区变压器,太恒综合9台区变压器,陵阳综合4台区变压器,陵阳工业（东南）,蠡县裕积纺织品有限公司变压器,陵阳综合6台区变压器,陵阳综合1台区变压器,0469432679-蠡县宏强毛巾厂-专变-46810219-宏强毛巾厂,0469434398-蠡县旭博纺织有限公司-专变-46810218-老偏毛巾厂,太白综合2台区变压器,蠡县九州纺织品有限公司,陵阳综合2台区变压器,陵阳综合11台区变压器,太恒综合3台区变压器,天伦纺织品有限公司,艳召巾被厂,0562626175-蠡县宇通纺织品有限公司-专变-118457890-蠡县陵阳征昌巾被厂变压器,0469432666-蠡县军格奶牛厂-专变-46810281-蠡县军格奶牛厂,陵阳综合3台区变压器,0469433744-蠡县凌阳村国昌毛巾厂-专变-46810233-国昌毛巾厂,陵阳合股厂,太白综合3台区变压器,0469432653-海滨毛巾厂-专变-46810277-海滨毛巾厂,陵阳综合8台区变压器,太恒综合1台区,中国移动通信集团河北有限公司蠡县分公司太恒村变压器,太合农排4台区【纯农排变】,0469436134-蠡县祥泰纺织厂-专变-127135980-蠡县鑫民纺织有限公司变压器,0469432709-蠡县三昊纺织品厂-专变-46810217-朱顺雷毛巾厂,陵阳综合5台区变压器,0469436219-蠡县博川纺织有限公司-专变-46810355-朱满仓毛巾厂,0469434385-蠡县金欧纺织厂-专变-46810187-学礼毛巾厂,明浩纺织品,陵阳综合7台区变压器,建坡面粉厂,陵阳综合9台区变压器,太白综合1台区变压器,太恒综合8台区变压器,太合综合5台区变压器,蠡县天伦纺织品有限责任公司变压器,志开毛巾厂,太合综合2台区变压器,0469433890-太恒小学-专变-46810244-太恒学校,百尺二中,太合综合1台区变压器,0469434907-太白二面-专变-46810380-太白二面,太合综合4台区变压器,0469436235-蠡县格雅巾被厂-专变-46810191-东兴毛巾厂,0469433799-二联毛巾厂-专变-46810236-二联毛巾厂,蠡县锦棉纺织品有限公司","powerOffReason":"【停电原因】由于线路接地导致３５ＫＶ握纽庄变电站１０ＫＶ齐村５１１线路全线停电【变更送电】因抢修进度加快原因，送电时间由２２：００变更为２０：００【发布渠道】通过９５５９８发布","powerOffId":"2020042113000242"},{"poweroffId":2020042113000220,"sgpoweroffId":null,"subsName":"","lineName":"塔崖驿线535","pubTranName":"535大东沟苑家庄配变,535马家屯村东配变,王安镇机井,535榆树台村中配变,535东杏花8队配变,535二道河村中2#配变,535东杏花3队配变,535占王跑村南配变,535王安镇村南配变,535西沟门村中配变,535榆树台村中2#配变,535板铺庄新村配变,【光伏】535山炮村光伏变压器,王安镇政府,535塔崖驿村南配变,塔崖驿镇政府,535东杏花村东20配变,塔崖驿迁建区,535塔崖驿村南2#配变,535东杏花村西20配变,535塔崖驿新庄台区配变,535大东沟村中配变,535五十亩地村西配变,山炮村西,535塔崖驿迁建区西区配变（新）,535良庄子配变,535王安镇村东配变,535王安镇村西配变,535大平梁村北配变,535山炮村东配变,535大东沟王家沟台区配变,塔崖驿535二道河村南,535塔崖驿西台配变,535塔崖驿迁建区东区配变（新）,马屯机井,535黄岩头桑园台区配变,535塔崖驿村西配变,535塔崖驿村东配变,王安镇迁建区东出线间隔配电变压器（新）,535乌龙背村西配变,535西杏花村中配变,东二道河3#【三批中心村】,535东杏花村东2#配变,535西杏花良庄子2号变,535板铺庄村中2#配变,王安镇迁建区西出线间隔配电变压器（新）,535王安镇村北配变,535大东沟狗儿台配变,535黄崖头网泉配变,535山炮村南配变,535东杏花村30配变,535板铺庄迁建区配变,535东杏花村中2号变,535塔崖驿村北配变,535板铺庄村中配变,535黄崖头东西庄配变,535五十亩地机井配变,535山炮村中配变,535山炮迁建区【三批中心村】,535塔崖驿村西2#配变,535黄崖头机井配变,535东杏花4队配变,535小赵庄北配变,535张家台村北配变,535二道河村中配变,【光伏】板铺庄村光伏变压器,535东二道河杨须沟配变,535西杏花四方地配变,535增寺岭配变,535东杏花村中配变,","scope":"【影响街道/乡镇】塔崖驿乡、王安镇乡【高危重要客户】无【影响客户】塔崖驿迁建区、塔崖驿医院、塔崖驿学校、塔崖驿政府、塔崖驿联通、移动、山炮、王安镇、刘家庄、大东沟、板铺庄、东杏花、二道河、榆树台、塔崖驿、西杏花、五十亩地","startTime":"2020-04-21 16:27:22","stopDate":"2020-04-21 18:00:00","orgNo":"1340615","typeCode":"电网故障停限电","poweroffArea":"【全线路停电】停李红喜,马屯机井,535黄岩头桑园台区配变,0469331019-涞源县银山口铅锌矿-专变-46777361-银山口庆喜选厂,涞源县云燕畜禽销售农民专业合作社变压器01,535塔崖驿村西配变,535塔崖驿村东配变,王安镇迁建区东出线间隔配电变压器（新）,535乌龙背村西配变,535五十亩地机井配变,535西杏花村中配变,535西杏花良庄子2号变,535板铺庄村中2#配变,王安镇迁建区西出线间隔配电变压器（新）,涞源县桑园水电有限公司变压器,河北省涞源县王安镇中学变压器01,河北省涞源县王安镇中学变压器,涞源县金腾矿业有限公司,塔崖驿金选厂,东二道河3#【三批中心村】,535东杏花村东2#配变,535王安镇村北配变,535大东沟狗儿台配变,涞源县辉浩畜禽饲养有限公司变压器,535黄崖头网泉配变,535山炮村南配变,涞源县王安镇中心小学中心幼儿园变压器,535东杏花村30配变,535板铺庄迁建区配变,涞源县庆合选厂变压器,涞源县王安镇中心卫生院变压器,535东杏花村中2号变,535塔崖驿村北配变,535板铺庄村中配变,李红喜01,河北建设集团有限公司张石高速涞源至涞水段第LJM-N9项目部变压器,涞源县塔崖驿乡卫生院变压器01,变压器006#,535黄崖头东西庄配变,535山炮村中配变,535山炮迁建区【三批中心村】,涞源县塔崖驿乡东杏花村村民委员会变压器,535塔崖驿村西2#配变,535黄崖头机井配变,涞源县顺泰选矿厂变压器,535二道河村中配变,恒泰非金属加工厂,保定庆丰制衣有限公司变压器,银山口庆喜铅锌选厂变压器,涞源县农村信用联社股份有限公司变压器,535大东沟苑家庄配变,涞源县东杰建筑材料有限公司变压器,涞源县塔崖驿乡卫生院变压器,涞源县公安局塔崖驿派出所变压器,535马家屯村东配变,王安镇机井,535榆树台村中配变,535占王跑村南配变,涞源县金腾矿业有限公司变压器01,535王安镇村南配变,涞源县塔崖驿乡西杏花村村民委员会变压器01,535东杏花4队配变,535小赵庄北配变,涞源县云燕畜禽销售农民专业合作社变压器,冀北电力有限公司检修分公司变压器,涞源县金腾矿业有限公司变压器,涞源县旺杨农作物种植农民专业合作社变压器,涞源县塔崖驿乡西杏花村村民委员会变压器,535张家台村北配变,【光伏】板铺庄村光伏变压器,535东二道河杨须沟配变,535西杏花四方地配变,535增寺岭配变,535东杏花村中配变,535西沟门村中配变,涞源县塔崖驿乡大东沟村村民委员会变压器,535榆树台村中2#配变,535板铺庄新村配变,塔崖驿乡黄岩头水电站变压器,【光伏】535山炮村光伏变压器,涞源县辉浩畜禽饲养有限公司变压器2,变压器005#,涞源县塔崖驿乡塔崖驿村水电站变压器,王安镇政府,535塔崖驿村南配变,塔崖驿镇政府,535东杏花村东20配变,塔崖驿迁建区,535塔崖驿村南2#配变,涞源县塔崖驿乡中心小学变压器,535东杏花8队配变,535二道河村中2#配变,涞源县阳晨箱包厂变压器,535东杏花3队配变,北京铁路局北京供电段变压器,涞源县银乾砂石销售有限公司变压器,利民沙场地,535东杏花村西20配变,535大东沟村中配变,涞源县德林铅锌选矿厂01,535五十亩地村西配变,山炮村西,涞源县德林铅锌选矿厂02,涞源县德林铅锌选矿厂,涞源县小白家庭农场变压器,535塔崖驿新庄台区配变,中国移动通信集团河北有限公司涞源分公司变压器,涞源县塔崖驿乡中心小学变压器01,涞源县顺泰选矿厂变压器01,535塔崖驿迁建区西区配变（新）,涞源县王安镇马家屯村村民委员会变压器,535良庄子配变,535王安镇村东配变,保定市交通局公路管理处易县养路工区变压器,陈金喜铁选,535王安镇村西配变,高庆喜铁选,535大平","poweroffReason":"【停电原因】由于过流３段掉闸导致１１０ＫＶ王安镇变电站１０ＫＶ塔崖驿线５３５线路全线停电【变更送电】因抢修进度加快，原定２１：００送电现计划１８：００送电【发布渠道】通过９５５９８发布","powerTime":"2020-04-21 17:35:21","powerComm":"已送电","subsNo":"","lineNo":"","tgNo":"","tgName":null,"infoStatus":"1","orgName":"国网涞源县供电公司","typeName":null,"infoStatusName":null,"dateDay":null,"orgNos":null,"nowTime":null,"countyName":null,"streetName":null,"villageName":null,"roadName":null,"communityName":null,"tranName":null,"sdLineName":null,"cityCode":"1340615","cityName":"国网涞源县供电公司","provinceCode":null,"stopTime":"2020-04-21 18:00:00","powerType":"全部","powerOffArea":"【全线路停电】停李红喜,马屯机井,535黄岩头桑园台区配变,0469331019-涞源县银山口铅锌矿-专变-46777361-银山口庆喜选厂,涞源县云燕畜禽销售农民专业合作社变压器01,535塔崖驿村西配变,535塔崖驿村东配变,王安镇迁建区东出线间隔配电变压器（新）,535乌龙背村西配变,535五十亩地机井配变,535西杏花村中配变,535西杏花良庄子2号变,535板铺庄村中2#配变,王安镇迁建区西出线间隔配电变压器（新）,涞源县桑园水电有限公司变压器,河北省涞源县王安镇中学变压器01,河北省涞源县王安镇中学变压器,涞源县金腾矿业有限公司,塔崖驿金选厂,东二道河3#【三批中心村】,535东杏花村东2#配变,535王安镇村北配变,535大东沟狗儿台配变,涞源县辉浩畜禽饲养有限公司变压器,535黄崖头网泉配变,535山炮村南配变,涞源县王安镇中心小学中心幼儿园变压器,535东杏花村30配变,535板铺庄迁建区配变,涞源县庆合选厂变压器,涞源县王安镇中心卫生院变压器,535东杏花村中2号变,535塔崖驿村北配变,535板铺庄村中配变,李红喜01,河北建设集团有限公司张石高速涞源至涞水段第LJM-N9项目部变压器,涞源县塔崖驿乡卫生院变压器01,变压器006#,535黄崖头东西庄配变,535山炮村中配变,535山炮迁建区【三批中心村】,涞源县塔崖驿乡东杏花村村民委员会变压器,535塔崖驿村西2#配变,535黄崖头机井配变,涞源县顺泰选矿厂变压器,535二道河村中配变,恒泰非金属加工厂,保定庆丰制衣有限公司变压器,银山口庆喜铅锌选厂变压器,涞源县农村信用联社股份有限公司变压器,535大东沟苑家庄配变,涞源县东杰建筑材料有限公司变压器,涞源县塔崖驿乡卫生院变压器,涞源县公安局塔崖驿派出所变压器,535马家屯村东配变,王安镇机井,535榆树台村中配变,535占王跑村南配变,涞源县金腾矿业有限公司变压器01,535王安镇村南配变,涞源县塔崖驿乡西杏花村村民委员会变压器01,535东杏花4队配变,535小赵庄北配变,涞源县云燕畜禽销售农民专业合作社变压器,冀北电力有限公司检修分公司变压器,涞源县金腾矿业有限公司变压器,涞源县旺杨农作物种植农民专业合作社变压器,涞源县塔崖驿乡西杏花村村民委员会变压器,535张家台村北配变,【光伏】板铺庄村光伏变压器,535东二道河杨须沟配变,535西杏花四方地配变,535增寺岭配变,535东杏花村中配变,535西沟门村中配变,涞源县塔崖驿乡大东沟村村民委员会变压器,535榆树台村中2#配变,535板铺庄新村配变,塔崖驿乡黄岩头水电站变压器,【光伏】535山炮村光伏变压器,涞源县辉浩畜禽饲养有限公司变压器2,变压器005#,涞源县塔崖驿乡塔崖驿村水电站变压器,王安镇政府,535塔崖驿村南配变,塔崖驿镇政府,535东杏花村东20配变,塔崖驿迁建区,535塔崖驿村南2#配变,涞源县塔崖驿乡中心小学变压器,535东杏花8队配变,535二道河村中2#配变,涞源县阳晨箱包厂变压器,535东杏花3队配变,北京铁路局北京供电段变压器,涞源县银乾砂石销售有限公司变压器,利民沙场地,535东杏花村西20配变,535大东沟村中配变,涞源县德林铅锌选矿厂01,535五十亩地村西配变,山炮村西,涞源县德林铅锌选矿厂02,涞源县德林铅锌选矿厂,涞源县小白家庭农场变压器,535塔崖驿新庄台区配变,中国移动通信集团河北有限公司涞源分公司变压器,涞源县塔崖驿乡中心小学变压器01,涞源县顺泰选矿厂变压器01,535塔崖驿迁建区西区配变（新）,涞源县王安镇马家屯村村民委员会变压器,535良庄子配变,535王安镇村东配变,保定市交通局公路管理处易县养路工区变压器,陈金喜铁选,535王安镇村西配变,高庆喜铁选,535大平","powerOffReason":"【停电原因】由于过流３段掉闸导致１１０ＫＶ王安镇变电站１０ＫＶ塔崖驿线５３５线路全线停电【变更送电】因抢修进度加快，原定２１：００送电现计划１８：００送电【发布渠道】通过９５５９８发布","powerOffId":"2020042113000220"},{"poweroffId":2020042113000182,"sgpoweroffId":null,"subsName":"","lineName":"江南线514","pubTranName":"庞村北,李铁庄村内1,庞村村南新增,庞村村北新增,李铁庄村南,庞村村西合用,九孚生化有限公司,庞村群道新增,吴庄村北1号,庞村村西,刘庄4号,张辛庄4号,刘庄新增1,庞村南100,庞村纸箱厂北边新增,刘庄西北,刘庄5号,李铁庄村西,庞村村内,庞村村南,庞村西北,梁春江机井,张辛庄村南新增【纯农排变】,保定育德学院,庞村村委会,吴庄村东,满城县庞村包装箱厂,庞村东北,李铁庄村东大井（农网）,庞村村北(与11130合用),吴庄,","scope":"【影响街道/乡镇】南韩村镇 【影响客户】庞村、李铁庄","startTime":"2020-04-30 06:00:00","stopDate":"2020-04-30 18:00:00","orgNo":"1340617","typeCode":"计划停电","poweroffArea":"【全线路停电】停１１０ＫＶ西原变电站江南线５１４线路全线,庞村北,李铁庄村内1,庞村村南新增,庞村村北新增,李铁庄村南,庞村村西合用,九孚生化有限公司,庞村群道新增,吴庄村北1号,庞村村西,刘庄4号,张辛庄4号,刘庄新增1,庞村南100,庞村纸箱厂北边新增,刘庄西北,刘庄5号,李铁庄村西,庞村村内,庞村村南,庞村西北,梁春江机井,张辛庄村南新增【纯农排变】,保定育德学院,庞村村委会,吴庄村东,满城县庞村包装箱厂,庞村东北,李铁庄村东大井（农网）,庞村村北(与11130合用),吴庄","poweroffReason":"【停电原因】由于线路检修导致１１０ＫＶ西原变电站江南线５１４线路全线停电 【变更送电】无 【发布渠道】满城县有线电视台（０４月２１日１９：００－２０：００至０４月２９日１９：００－２０：００）屏幕上方滚动","powerTime":"2020-04-30 17:46:31","powerComm":"已送电","subsNo":"","lineNo":"","tgNo":"","tgName":null,"infoStatus":"1","orgName":"国网满城县供电公司","typeName":null,"infoStatusName":null,"dateDay":null,"orgNos":null,"nowTime":null,"countyName":null,"streetName":null,"villageName":null,"roadName":null,"communityName":null,"tranName":null,"sdLineName":null,"cityCode":"1340617","cityName":"国网满城县供电公司","provinceCode":null,"stopTime":"2020-04-30 18:00:00","powerType":"全部","powerOffArea":"【全线路停电】停１１０ＫＶ西原变电站江南线５１４线路全线,庞村北,李铁庄村内1,庞村村南新增,庞村村北新增,李铁庄村南,庞村村西合用,九孚生化有限公司,庞村群道新增,吴庄村北1号,庞村村西,刘庄4号,张辛庄4号,刘庄新增1,庞村南100,庞村纸箱厂北边新增,刘庄西北,刘庄5号,李铁庄村西,庞村村内,庞村村南,庞村西北,梁春江机井,张辛庄村南新增【纯农排变】,保定育德学院,庞村村委会,吴庄村东,满城县庞村包装箱厂,庞村东北,李铁庄村东大井（农网）,庞村村北(与11130合用),吴庄","powerOffReason":"【停电原因】由于线路检修导致１１０ＫＶ西原变电站江南线５１４线路全线停电 【变更送电】无 【发布渠道】满城县有线电视台（０４月２１日１９：００－２０：００至０４月２９日１９：００－２０：００）屏幕上方滚动","powerOffId":"2020042113000182"},{"poweroffId":2020042113000176,"sgpoweroffId":null,"subsName":"","lineName":"10KV太平庄575","pubTranName":"5096河西务【纯农排变】,","scope":"【影响街道/乡镇】刁窝乡 【高危重要客户】无 【影响客户】河西务村","startTime":"2020-04-21 14:53:19","stopDate":"2020-04-21 16:00:00","orgNo":"1340626","typeCode":"电网故障停限电","poweroffArea":"【单台区停电】停5096河西务【纯农排变】","poweroffReason":"【停电原因】由于低压空开烧毁导致２２０ＫＶ豆庄变电站１０ＫＶ太平庄５７５线路５０９６河西务公变台区停电 【变更送电】因抢修进度加快原因，送电时间由２２：００变更为１６：００ 【发布渠道】通过９５５９８发布","powerTime":"2020-04-21 15:32:32","powerComm":"已送电","subsNo":"","lineNo":"","tgNo":"","tgName":null,"infoStatus":"1","orgName":"国网涿州市供电公司","typeName":null,"infoStatusName":null,"dateDay":null,"orgNos":null,"nowTime":null,"countyName":null,"streetName":null,"villageName":null,"roadName":null,"communityName":null,"tranName":null,"sdLineName":null,"cityCode":"1340626","cityName":"国网涿州市供电公司","provinceCode":null,"stopTime":"2020-04-21 16:00:00","powerType":"全部","powerOffArea":"【单台区停电】停5096河西务【纯农排变】","powerOffReason":"【停电原因】由于低压空开烧毁导致２２０ＫＶ豆庄变电站１０ＫＶ太平庄５７５线路５０９６河西务公变台区停电 【变更送电】因抢修进度加快原因，送电时间由２２：００变更为１６：００ 【发布渠道】通过９５５９８发布","powerOffId":"2020042113000176"},{"poweroffId":2020042113000166,"sgpoweroffId":null,"subsName":"","lineName":"大沟线564","pubTranName":"西靳光综14,大沟光7【灾后重建】,大沟光2【2018年重过载】,西靳村光18,两合庄村委会2,西靳光7,西靳光6【2018年技改】,新两合庄光1,西靳光2,两合庄光2,西靳光6,大沟光8,西靳村光17,西靳光12,两合庄光3,西靳光22,西靳光4,西靳光15,西靳光16,西靳光综13,西靳光23,西靳光11,西靳光10,大沟光5,西靳光1,大沟光4,西靳光19,西靳光20,西章新光2,西章光4,西章光5,西靳光21,西靳光9,大沟新光6,西章光1,两合庄新光4,西靳光5,两合庄光5,两合庄光6【2018年四批补强】,西靳光3(村西),新西章光3,西靳光8,大沟光1,","scope":"【影响街道/乡镇】定兴镇、北田乡 【高危重要客户】无 【影响客户】西章、西靳、大沟、两合庄、污水处理厂、看守所、联兴饲料、瑞驰川豪、两合庄村委会、浩天飞织、马大姐食品、保定裕康食品、保定兴建商品混凝土公司、西靳水利局、小店移动机站、京港澳高速收费站、匠工新型建筑材料、程锦扬包装制品、段振秀面粉厂、佳丽彩印厂、西靳小学、河北智德锅炉制造有限公司、保定中博华泰汽车贸易公司、河北浩天非织造布有限公司、定兴县鑫明华印刷厂、紫光新锐、德崇生物科技","startTime":"2020-04-21 14:29:49","stopDate":"2020-04-21 16:00:00","orgNo":"1340609","typeCode":"电网故障停限电","poweroffArea":"【全线路停电】停匠工新型建筑材料-1250,西靳光8,两合庄光2,变压器,0636254730-河北马大姐食品有限公司-专变-234160989-马大姐3-1000,西靳排12【纯农排变】,大沟光8,西章排3【纯农排变】,西靳排11【纯农排变】,程锦扬包装制品-200,西靳光21,0011676787段振秀面粉厂,西靳排20【纯农排变】,100,西靳排9【纯农排变】,新两合庄光1,西靳光综14,0695735889-保定裕康食品科技有限公司-专变-240159107-2-1600,大沟光7【灾后重建】,大沟光4,西靳排7【纯农排变】,西靳排10【纯农排变】,西靳村光18,西靳柴文排2,佳丽彩印厂,西靳光6【2018年技改】,西靳光20,执法局高速引线西路灯-100,西靳光2,西靳光6,西靳村光17,西靳排15【纯农排变】,0694615955-定兴县西靳小学-专变-237548026-北田乡西靳小学,0670029686-河北智德锅炉制造有限公司-专变-212363514-智德锅炉-100,西章高速收费站-400,西靳光22,河北马大姐食品有限公司-200,两合庄光6【2018年四批补强】,西靳光15,西靳光16,大沟光5,两合庄光3,保定兴建商品混凝土有限公司,西靳光23,西靳排8【纯农排变】,0011676765*定兴污水处理厂,西靳排4【纯农排变】,西靳光9,大沟新光6,定兴县瑞驰川豪建筑材料经销处,西靳排13【纯农排变】,西章新光2,0671776655-保定中博华泰汽车贸易公司-专变-212352292-中博华泰-200,西靳光7,大沟光2【2018年重过载】,两合庄村委会2,西靳光4,西章排2【纯农排变】,西靳排6《【纯农排变】,西靳光11,0643256462-河北浩天非织造布有限公司-专变-161934759-河北浩天非织造布有限公司-500,西靳排19【纯农排变】,西靳光1,0693545879-定兴县看守所-专变-239116232-看守所-400,0695735889-保定裕康食品科技有限公司-专变-240151795-1-1600,西靳光5,大沟混2,两合庄光5,西靳光10,新西章光3,0011676758移动公司小店机站,西靳光12,华韵兴宏纸制品制造-250,西靳光3(村西),垃圾处理站,西章排1【纯农排变】,西靳光19,西靳排14【纯农排变】,0682841058-定兴县鑫明华印刷厂-专变-223348556-鑫明华印刷厂-200,紫光新锐-250,西章排4【纯农排变】,大沟光1,执法局高速引线东-100,西靳排16【纯农排变】,德崇生物科技-400,0011676769*西靳小学,0011676786联兴饲料厂,0011676781*两合庄村委会,0011676783西靳水利排,两合庄新光4,西章光4,西章光5,0636254730-河北马大姐食品有限公司-专变-234163050-马大姐4-1000,西靳排5【纯农排变】,西章光1,西靳光综13","poweroffReason":"【停电原因】由于物华创业避雷器线脱落导致２２０ＫＶ柳卓开关站大沟线５６４线路全线停电 【变更送电】因抢修进度加快原因，送电时间由１８：００变更为１６：００ 【发布渠道】通过９５５９８发布","powerTime":"2020-04-21 15:25:10","powerComm":"已送电","subsNo":"","lineNo":"","tgNo":"","tgName":null,"infoStatus":"1","orgName":"国网定兴县供电公司","typeName":null,"infoStatusName":null,"dateDay":null,"orgNos":null,"nowTime":null,"countyName":null,"streetName":null,"villageName":null,"roadName":null,"communityName":null,"tranName":null,"sdLineName":null,"cityCode":"1340609","cityName":"国网定兴县供电公司","provinceCode":null,"stopTime":"2020-04-21 16:00:00","powerType":"全部","powerOffArea":"【全线路停电】停匠工新型建筑材料-1250,西靳光8,两合庄光2,变压器,0636254730-河北马大姐食品有限公司-专变-234160989-马大姐3-1000,西靳排12【纯农排变】,大沟光8,西章排3【纯农排变】,西靳排11【纯农排变】,程锦扬包装制品-200,西靳光21,0011676787段振秀面粉厂,西靳排20【纯农排变】,100,西靳排9【纯农排变】,新两合庄光1,西靳光综14,0695735889-保定裕康食品科技有限公司-专变-240159107-2-1600,大沟光7【灾后重建】,大沟光4,西靳排7【纯农排变】,西靳排10【纯农排变】,西靳村光18,西靳柴文排2,佳丽彩印厂,西靳光6【2018年技改】,西靳光20,执法局高速引线西路灯-100,西靳光2,西靳光6,西靳村光17,西靳排15【纯农排变】,0694615955-定兴县西靳小学-专变-237548026-北田乡西靳小学,0670029686-河北智德锅炉制造有限公司-专变-212363514-智德锅炉-100,西章高速收费站-400,西靳光22,河北马大姐食品有限公司-200,两合庄光6【2018年四批补强】,西靳光15,西靳光16,大沟光5,两合庄光3,保定兴建商品混凝土有限公司,西靳光23,西靳排8【纯农排变】,0011676765*定兴污水处理厂,西靳排4【纯农排变】,西靳光9,大沟新光6,定兴县瑞驰川豪建筑材料经销处,西靳排13【纯农排变】,西章新光2,0671776655-保定中博华泰汽车贸易公司-专变-212352292-中博华泰-200,西靳光7,大沟光2【2018年重过载】,两合庄村委会2,西靳光4,西章排2【纯农排变】,西靳排6《【纯农排变】,西靳光11,0643256462-河北浩天非织造布有限公司-专变-161934759-河北浩天非织造布有限公司-500,西靳排19【纯农排变】,西靳光1,0693545879-定兴县看守所-专变-239116232-看守所-400,0695735889-保定裕康食品科技有限公司-专变-240151795-1-1600,西靳光5,大沟混2,两合庄光5,西靳光10,新西章光3,0011676758移动公司小店机站,西靳光12,华韵兴宏纸制品制造-250,西靳光3(村西),垃圾处理站,西章排1【纯农排变】,西靳光19,西靳排14【纯农排变】,0682841058-定兴县鑫明华印刷厂-专变-223348556-鑫明华印刷厂-200,紫光新锐-250,西章排4【纯农排变】,大沟光1,执法局高速引线东-100,西靳排16【纯农排变】,德崇生物科技-400,0011676769*西靳小学,0011676786联兴饲料厂,0011676781*两合庄村委会,0011676783西靳水利排,两合庄新光4,西章光4,西章光5,0636254730-河北马大姐食品有限公司-专变-234163050-马大姐4-1000,西靳排5【纯农排变】,西章光1,西靳光综13","powerOffReason":"【停电原因】由于物华创业避雷器线脱落导致２２０ＫＶ柳卓开关站大沟线５６４线路全线停电 【变更送电】因抢修进度加快原因，送电时间由１８：００变更为１６：００ 【发布渠道】通过９５５９８发布","powerOffId":"2020042113000166"},{"poweroffId":2020042113000163,"sgpoweroffId":null,"subsName":"","lineName":"开发区II线568","pubTranName":"广源泡沫塑料制造-200,久蝉璜节能-200,保定吉达电力建设集团-160,0651097998-河北微纳环保科技有限公司-专变-176982813-河北微纳-315,保定赛德丽-1000,0651104469-河北京格输送设备制造有限公司-专变-176982648-河北京格-315,广源泡沫塑料制造-315,保定赛德丽-500,宏庚环保-250,0586892525-定兴县恒通汽车维修服务中心-专变-125195158-变压器,九地龙象复合材料-250,紫光新锐-100,0645605279-保定九地龙象合成材料制造有限公司-专变-169479839-九地龙象合成材料-250,2号变,奥克家居有限公司-500,粮食局军粮供应站-100,紫光新锐-200,河北微纳-315,1号变,","scope":"【影响街道/乡镇】定兴镇 【高危重要客户】无 【影响客户】广源泡沫塑料制造有限公司、保定九地龙象合成材料、河北京格输送设备制造有限公司、河北微纳环保科技有限公司、宏庚环保、 鑫帆座椅、恒通汽车维修服务中心 、奥克家居有限公司、粮食局军粮供应站、赛德丽自动化环保设备有限公司、三禾农业","startTime":"2020-04-21 14:27:17","stopDate":"2020-04-21 16:00:00","orgNo":"1340609","typeCode":"电网故障停限电","poweroffArea":"【全线路停电】停0651104469-河北京格输送设备制造有限公司-专变-176982648-河北京格-315,0645605279-保定九地龙象合成材料制造有限公司-专变-169479839-九地龙象合成材料-250,0586892525-定兴县恒通汽车维修服务中心-专变-125195158-变压器,奥克家居有限公司-500,0645595552-定兴县城市管理行政执法局梁合庄段路灯-专变-169547073-梁合庄路灯2-50,广源泡沫塑料制造-200,宏庚环保-250,0651097998-河北微纳环保科技有限公司-专变-176982813-河北微纳-315,2号变,粮食局军粮供应站-100,河北微纳-315,1号变","poweroffReason":"【停电原因】由于河北维纳公司计量故障导致２２０ＫＶ柳卓开关站开发区Ⅱ线５６８线路全线停电 【变更送电】因抢修进度加快原因，送电时间由１８：００变更为１６：００ 【发布渠道】通过９５５９８发布","powerTime":"2020-04-21 15:30:50","powerComm":"已送电","subsNo":"","lineNo":"","tgNo":"","tgName":null,"infoStatus":"1","orgName":"国网定兴县供电公司","typeName":null,"infoStatusName":null,"dateDay":null,"orgNos":null,"nowTime":null,"countyName":null,"streetName":null,"villageName":null,"roadName":null,"communityName":null,"tranName":null,"sdLineName":null,"cityCode":"1340609","cityName":"国网定兴县供电公司","provinceCode":null,"stopTime":"2020-04-21 16:00:00","powerType":"全部","powerOffArea":"【全线路停电】停0651104469-河北京格输送设备制造有限公司-专变-176982648-河北京格-315,0645605279-保定九地龙象合成材料制造有限公司-专变-169479839-九地龙象合成材料-250,0586892525-定兴县恒通汽车维修服务中心-专变-125195158-变压器,奥克家居有限公司-500,0645595552-定兴县城市管理行政执法局梁合庄段路灯-专变-169547073-梁合庄路灯2-50,广源泡沫塑料制造-200,宏庚环保-250,0651097998-河北微纳环保科技有限公司-专变-176982813-河北微纳-315,2号变,粮食局军粮供应站-100,河北微纳-315,1号变","powerOffReason":"【停电原因】由于河北维纳公司计量故障导致２２０ＫＶ柳卓开关站开发区Ⅱ线５６８线路全线停电 【变更送电】因抢修进度加快原因，送电时间由１８：００变更为１６：００ 【发布渠道】通过９５５９８发布","powerOffId":"2020042113000163"},{"poweroffId":2020042113000151,"sgpoweroffId":null,"subsName":"","lineName":"10kV515八里庄线","pubTranName":"10KV515八里庄37835分支4号杆十里铺村西37835台区变压器,10KV515八里庄82850分支1号杆八里庄村内82850变压器,10KV515八里庄南祝11075分支68号杆南祝西南11043台区变压器,10KV515八里庄八里庄村11035分支2号杆八里庄11035台区变压器,10KV515八里庄13383台区变压器,10KV515八里庄十里铺11021分支27号杆十里铺11070台区变压器,10KV八里庄515线八里庄11001台区柱上变压器,10KV515八里庄十里铺11021分支22号杆十里铺村内11021台区变压器,10KV515八里庄南祝11075分支76号杆南祝村内11075台区变压器,10KV515八里庄11092分支1号杆十里铺11092台区变压器,10KV515八里庄八里庄39991分支5号杆八里庄39991台区变压器,10KV515八里庄八里庄11009分支2号杆八里庄村西11009台区变压器,10KV515八里庄11008变压器,","scope":"【影响街道/乡镇】城东乡【高危重要客户】无【影响客户】南祝、小南祝、八里庄、十里铺、许村","startTime":"2020-04-21 13:38:07","stopDate":"2020-04-21 15:30:00","orgNo":"1340608","typeCode":"电网故障停限电","poweroffArea":"【全线路停电】停10KV515八里庄82850分支1号杆八里庄村内82850变压器,10KV515八里庄南祝11075分支68号杆南祝西南11043台区变压器,10KV515八里庄八里庄村11035分支2号杆八里庄11035台区变压器,10KV515八里庄13383台区变压器,10KV515八里庄十里铺11021分支27号杆十里铺11070台区变压器,10KV八里庄515线八里庄11001台区柱上变压器,10KV515八里庄十里铺11021分支22号杆十里铺村内11021台区变压器,10KV515八里庄南祝11075分支76号杆南祝村内11075台区变压器,10KV515八里庄11008变压器,10KV515八里庄37835分支4号杆十里铺村西37835台区变压器,10KV515八里庄11092分支1号杆十里铺11092台区变压器,10KV515八里庄八里庄39991分支5号杆八里庄39991台区变压器,10KV515八里庄八里庄11009分支2号杆八里庄村西11009台区变压器","poweroffReason":"【停电原因】由于站外开关掉闸导致３５ＫＶ城东变电站八里庄５１５线路全线停电【变更送电】因抢修进度加快原因，送电时间由２０：００变更为１５：３０【发布渠道】通过９５５９８发布","powerTime":"2020-04-21 15:00:00","powerComm":"已送电","subsNo":"","lineNo":"","tgNo":"","tgName":null,"infoStatus":"1","orgName":"国网博野县供电公司","typeName":null,"infoStatusName":null,"dateDay":null,"orgNos":null,"nowTime":null,"countyName":null,"streetName":null,"villageName":null,"roadName":null,"communityName":null,"tranName":null,"sdLineName":null,"cityCode":"1340608","cityName":"国网博野县供电公司","provinceCode":null,"stopTime":"2020-04-21 15:30:00","powerType":"全部","powerOffArea":"【全线路停电】停10KV515八里庄82850分支1号杆八里庄村内82850变压器,10KV515八里庄南祝11075分支68号杆南祝西南11043台区变压器,10KV515八里庄八里庄村11035分支2号杆八里庄11035台区变压器,10KV515八里庄13383台区变压器,10KV515八里庄十里铺11021分支27号杆十里铺11070台区变压器,10KV八里庄515线八里庄11001台区柱上变压器,10KV515八里庄十里铺11021分支22号杆十里铺村内11021台区变压器,10KV515八里庄南祝11075分支76号杆南祝村内11075台区变压器,10KV515八里庄11008变压器,10KV515八里庄37835分支4号杆十里铺村西37835台区变压器,10KV515八里庄11092分支1号杆十里铺11092台区变压器,10KV515八里庄八里庄39991分支5号杆八里庄39991台区变压器,10KV515八里庄八里庄11009分支2号杆八里庄村西11009台区变压器","powerOffReason":"【停电原因】由于站外开关掉闸导致３５ＫＶ城东变电站八里庄５１５线路全线停电【变更送电】因抢修进度加快原因，送电时间由２０：００变更为１５：３０【发布渠道】通过９５５９８发布","powerOffId":"2020042113000151"},{"poweroffId":2020042113000147,"sgpoweroffId":null,"subsName":"","lineName":"钢厂572","pubTranName":"西张家庄村4#,东白马9号,苏家坟村3#,东白马村4#,西白马村1#,北白马8号变,苏家坟村5#,北白马村4#【纯农排变】,中白马4号变,南白马村1#,西张家庄村2#,苏家坟六号,白马乡政府配变,北白马9#变压器,中白马村2#,东白马村7#,西张家庄村3#,北白马村2#,西张家庄5号变,苏家坟村2#,南白马村5#,东白马村2#,苏家坟村1#【纯农排变】,中白马村1#,北白马村3#,西白马村3#【纯农排变】,西张家庄村1#,南白马村2#,西白马村4#,店北村二号机井【纯农排变】,北白马村1#,中白马村3#【纯农排变】,南白马村4#,南白马村10#,东白马村3#,东白马村1#,","scope":"【影响街道/乡镇】白马乡【高危重要客户】无【影响客户】西张家庄村、中白马村、东白马村、西白马村、南白马村、北白马村、苏家坟村","startTime":"2020-04-21 13:20:00","stopDate":"2020-04-21 15:00:00","orgNo":"1340625","typeCode":"电网故障停限电","poweroffArea":"【全线路停电】停苏家坟村2#,东白马村1#,苏家坟村4#【纯农排变】,南白马面粉厂(薛占龙),西白马村4#,易县第二高级中学变压器,东白马8号变压器,南白马村1#,西张家庄5号变,东白马村2#,海泡石有限责任开发公司(明阳摩擦),西白马林果示范园(王景林),苏家坟村1#【纯农排变】,宏利海泡石厂(总厂),店北村二号机井【纯农排变】,河北万紫倾城苗木种植有限公司100KVA,东白马村7#,易县白马页岩砖厂变压器,西张家庄村3#,东白马9号,白马中心卫生院125KVA,易县建垣兴水泥砖制造有限公司变压器,贺术山机井,苏家坟村3#,东白马村4#,苏家坟村5#,易县禾康牧业有限公司630,易县第二高级中学1600KVA,北白马村4#【纯农排变】,西白马村1#,易县张林生猪定点屠宰点200,苏家坟砖厂,宏利海泡石厂(粮库),北白马8号变,西白马村3#【纯农排变】,南白马村2#,西张家庄村2#,苏家坟六号,中白马村3#【纯农排变】,南白马村4#,西张家庄村1#,易县实验中学,中白马4号变,西张家庄村4#,北白马村2#,西白马村2#【纯农排变】,南白马村5#,北白马村3#,易县第二高级中学2000KVA,易县安平土地整理服务有限公司1号50KVA,白马信用社100,福康工艺品厂,北白马9#变压器,中白马村2#,易县丰华生猪屠宰有限公司250KVA,白马乡政府配变,中白马村1#,白马初级中学800KVA,北白马村1#,东白马村3#,南白马村10#","poweroffReason":"【停电原因】由于Ｕ型抱箍烧断导致１１０ＫＶ店北变电站钢厂５７２线路全线路停电【变更送电】因抢修进度加快原因，送电时间由１６：００变更为１５：００【发布渠道】通过９５５９８发布","powerTime":"2020-04-21 14:18:22","powerComm":"已送电","subsNo":"","lineNo":"","tgNo":"","tgName":null,"infoStatus":"1","orgName":"国网易县供电公司","typeName":null,"infoStatusName":null,"dateDay":null,"orgNos":null,"nowTime":null,"countyName":null,"streetName":null,"villageName":null,"roadName":null,"communityName":null,"tranName":null,"sdLineName":null,"cityCode":"1340625","cityName":"国网易县供电公司","provinceCode":null,"stopTime":"2020-04-21 15:00:00","powerType":"全部","powerOffArea":"【全线路停电】停苏家坟村2#,东白马村1#,苏家坟村4#【纯农排变】,南白马面粉厂(薛占龙),西白马村4#,易县第二高级中学变压器,东白马8号变压器,南白马村1#,西张家庄5号变,东白马村2#,海泡石有限责任开发公司(明阳摩擦),西白马林果示范园(王景林),苏家坟村1#【纯农排变】,宏利海泡石厂(总厂),店北村二号机井【纯农排变】,河北万紫倾城苗木种植有限公司100KVA,东白马村7#,易县白马页岩砖厂变压器,西张家庄村3#,东白马9号,白马中心卫生院125KVA,易县建垣兴水泥砖制造有限公司变压器,贺术山机井,苏家坟村3#,东白马村4#,苏家坟村5#,易县禾康牧业有限公司630,易县第二高级中学1600KVA,北白马村4#【纯农排变】,西白马村1#,易县张林生猪定点屠宰点200,苏家坟砖厂,宏利海泡石厂(粮库),北白马8号变,西白马村3#【纯农排变】,南白马村2#,西张家庄村2#,苏家坟六号,中白马村3#【纯农排变】,南白马村4#,西张家庄村1#,易县实验中学,中白马4号变,西张家庄村4#,北白马村2#,西白马村2#【纯农排变】,南白马村5#,北白马村3#,易县第二高级中学2000KVA,易县安平土地整理服务有限公司1号50KVA,白马信用社100,福康工艺品厂,北白马9#变压器,中白马村2#,易县丰华生猪屠宰有限公司250KVA,白马乡政府配变,中白马村1#,白马初级中学800KVA,北白马村1#,东白马村3#,南白马村10#","powerOffReason":"【停电原因】由于Ｕ型抱箍烧断导致１１０ＫＶ店北变电站钢厂５７２线路全线路停电【变更送电】因抢修进度加快原因，送电时间由１６：００变更为１５：００【发布渠道】通过９５５９８发布","powerOffId":"2020042113000147"},{"poweroffId":2020042113000138,"sgpoweroffId":null,"subsName":"","lineName":"娄山514","pubTranName":"松山村3#,北独乐村13#,北独乐村10#,石家统村1#,康家庄村12#,松山村11#,石家统村11#,岭东村12#,松山村4#,松山20号变压器,石家统村3#,松山19号变压器,松山村5#,松山村1#,松山村2#,松山村15#,石家统村12#,松山18号变压器,松山翻车井16#,松山村6##,石家统村10##,石家统村9#,石家统村6#,北独乐村8#【纯农排变】,","scope":"【影响街道/乡镇】独乐乡【高危重要客户】无【影响客户】松山村、石家统村","startTime":"2020-04-21 12:31:41","stopDate":"2020-04-21 15:00:00","orgNo":"1340625","typeCode":"电网故障停限电","poweroffArea":"【全线路停电】停石家统村2#【纯农排变】,松山村9#【纯农排变】,0548370724-易县盛秋林果专业合作社-专变-200784940-易县盛秋林果专业合作社2-500KVA,北独乐村8#【纯农排变】,北独乐村13#,康家庄村12#,松山村14#【纯农排变】,石家统村4#【纯农排变】,松山村11#,石家统村11#,松山村10#【纯农排变】,北独乐村10#,石家统村5#【纯农排变】,松山19号变压器,松山村7#【纯农排变】,松山村5#,石家统村10##,石家统村1#,松山20号变压器,石家统村3#,裴庄村5#【纯农排变】,松山18号变压器,松山翻车井16#,松山村17#【纯农排变】,北独乐村7#【纯农排变】,松山村1#,岭东村13#【纯农排变】,松山村13#【纯农排变】,松山村2#,松山村12#【纯农排变】,松山村15#,石家统村12#,岭东村12#,松山村4#,易县西山北乡松山村民委员会变压器,石家统8#【纯农排变】,北独乐村赵玲珍变压器,松山村8#【纯农排变】,易县移动通信集团河北有限公司易县分公司变压器,石家统村9#,易县松山林果种植农民专业合作社,松山村3#,松山村6##,0548370724-易县盛秋林果专业合作社-专变-48128207-易县盛秋林果专业合作社,石家统村6#,河北省高速公路荣乌管理处500kvA","poweroffReason":"【停电原因】由于赵玲珍专变线夹烧断导致３５ＫＶ狼牙山变电站娄山５１４线路全线停电【变更送电】因抢修进度加快原因，送电时间由１６：００变更为１５：００【发布渠道】通过９５５９８发布","powerTime":"2020-04-21 14:29:44","powerComm":"已送电","subsNo":"","lineNo":"","tgNo":"","tgName":null,"infoStatus":"1","orgName":"国网易县供电公司","typeName":null,"infoStatusName":null,"dateDay":null,"orgNos":null,"nowTime":null,"countyName":null,"streetName":null,"villageName":null,"roadName":null,"communityName":null,"tranName":null,"sdLineName":null,"cityCode":"1340625","cityName":"国网易县供电公司","provinceCode":null,"stopTime":"2020-04-21 15:00:00","powerType":"全部","powerOffArea":"【全线路停电】停石家统村2#【纯农排变】,松山村9#【纯农排变】,0548370724-易县盛秋林果专业合作社-专变-200784940-易县盛秋林果专业合作社2-500KVA,北独乐村8#【纯农排变】,北独乐村13#,康家庄村12#,松山村14#【纯农排变】,石家统村4#【纯农排变】,松山村11#,石家统村11#,松山村10#【纯农排变】,北独乐村10#,石家统村5#【纯农排变】,松山19号变压器,松山村7#【纯农排变】,松山村5#,石家统村10##,石家统村1#,松山20号变压器,石家统村3#,裴庄村5#【纯农排变】,松山18号变压器,松山翻车井16#,松山村17#【纯农排变】,北独乐村7#【纯农排变】,松山村1#,岭东村13#【纯农排变】,松山村13#【纯农排变】,松山村2#,松山村12#【纯农排变】,松山村15#,石家统村12#,岭东村12#,松山村4#,易县西山北乡松山村民委员会变压器,石家统8#【纯农排变】,北独乐村赵玲珍变压器,松山村8#【纯农排变】,易县移动通信集团河北有限公司易县分公司变压器,石家统村9#,易县松山林果种植农民专业合作社,松山村3#,松山村6##,0548370724-易县盛秋林果专业合作社-专变-48128207-易县盛秋林果专业合作社,石家统村6#,河北省高速公路荣乌管理处500kvA","powerOffReason":"【停电原因】由于赵玲珍专变线夹烧断导致３５ＫＶ狼牙山变电站娄山５１４线路全线停电【变更送电】因抢修进度加快原因，送电时间由１６：００变更为１５：００【发布渠道】通过９５５９８发布","powerOffId":"2020042113000138"},{"poweroffId":2020042113000127,"sgpoweroffId":null,"subsName":"","lineName":"10kV伊利II期II备用","pubTranName":"变压器,","scope":"【影响街道/乡镇】清风店镇【影响客户】伊利园区","startTime":"2020-04-29 05:30:00","stopDate":"2020-04-29 21:00:00","orgNo":"1340610","typeCode":"临时停电","poweroffArea":"【全线路停电】停１１０ＫＶ清风店变电站１０ＫＶ伊利ＩＩ期ＩＩ备用线路全线，变压器","poweroffReason":"【停电原因】由于站内设备例行试验导致１１０ＫＶ清风店变电站１０ＫＶ伊利ＩＩ期ＩＩ备用线路全线停电 【变更送电】无 【发布渠道】河北省定州市定州日报第三版（２０２０年０４月２２日）","powerTime":"2020-04-29 20:03:42","powerComm":"已送电","subsNo":"","lineNo":"","tgNo":"","tgName":null,"infoStatus":"1","orgName":"国网定州市供电公司","typeName":null,"infoStatusName":null,"dateDay":null,"orgNos":null,"nowTime":null,"countyName":null,"streetName":null,"villageName":null,"roadName":null,"communityName":null,"tranName":null,"sdLineName":null,"cityCode":"1340610","cityName":"国网定州市供电公司","provinceCode":null,"stopTime":"2020-04-29 21:00:00","powerType":"全部","powerOffArea":"【全线路停电】停１１０ＫＶ清风店变电站１０ＫＶ伊利ＩＩ期ＩＩ备用线路全线，变压器","powerOffReason":"【停电原因】由于站内设备例行试验导致１１０ＫＶ清风店变电站１０ＫＶ伊利ＩＩ期ＩＩ备用线路全线停电 【变更送电】无 【发布渠道】河北省定州市定州日报第三版（２０２０年０４月２２日）","powerOffId":"2020042113000127"}],"pageModel":{"pageNow":152,"totalCount":10973,"totalPage":1098,"tableRows":0,"pageCount":10,"beginCount":1510},"isExperi":"1"}