{"message":"","today":"2020-06-15","seleList":[{"poweroffId":2020042113000094,"sgpoweroffId":null,"subsName":"","lineName":"10kV572东丈线","pubTranName":"东岗村公用照明2台区,东丈村公用照明4台区,清风店东只东公用照明2台区,西岗公用照明5台区,清风店西岗公用照明6台区,东丈公用照明6台区1,西岗村公用照明2台区,东丈公用照明13台区,东丈公用照明11台区,西岗公用照明10台区,东丈公用照明5台区1,东丈公用照明16台区,东岗公用照明5台区,客户投资_西岗公用照明3台区,东丈公用照明10台区,东丈公用照明7台区,清风店西岗公用照明9台区,东丈公用照明12台区,东岗公用照明7台区,东丈公用照明15台区,东丈公用照明14台区,东丈村公用照明1台区1,东岗公用照明4台区,东只东村公用照明1台区,东岗村公用照明1台区,东岗公用农业6台区,东丈公用农业2台区【纯农排变】,0681657656-中建路桥集团有限公司-专变-220711907-中建路桥集团有限公司变压器,东丈公用农业1台区1【纯农排变】,东丈公用照明18台区,东丈公用农业7台区【纯农排变】,东岗村公用农业1台区【纯农排变】,中建路桥集团有限公司变压器,0664678065-定州市丰盛水泥制品厂-专变-201023143-定州市丰盛水泥制品厂变压器,东岗村公用农业2台区【纯农排变】,东岗公用农业5台区,鱼苗厂,东丈公用照明17台区,龙腾公司,东只东公用农业1台区【纯农排变】,东丈公用农业4台区【纯农排变】,河北曲港高速公路开发有限公司变压器,东丈公用农业10台区【纯农排变】,西岗公用农业3台区【纯农排变】,东岗公用农业4台区,东只东公用照明3台区,西岗公用农业5台区【纯农排变】,唐城公用照明1台区,东丈公用农业5台区【纯农排变】,0681653380-中建路桥集团有限公司-专变-220710604-中建路桥集团有限公司变压器,0681657656-中建路桥集团有限公司-专变-220711885-中建路桥集团有限公司变压器,西岗公用农业4台区【纯农排变】,东丈公用农业3台区【纯农排变】,定州市天成奶牛养殖中心,二十里铺公用农业4台区【纯农排变】,西岗公用农业6台区,东岗公用照明6台区,东丈村公用照明3台区,西岗村公用照明1台区,东丈公用照明8台区,东丈村公用照明2台区1,东丈公用照明9台区,","scope":"【影响街道/乡镇】清风店镇、庞村镇【影响客户】东岗村、西岗村、东丈村、东只东村","startTime":"2020-04-29 05:30:00","stopDate":"2020-04-29 20:10:00","orgNo":"1340610","typeCode":"临时停电","poweroffArea":"【全线路停电】停１１０ＫＶ清风店变电站１０ＫＶ５７２东丈线路全线，东岗公用照明6台区,东丈村公用照明3台区,西岗村公用照明1台区,东丈公用照明8台区,东丈村公用照明2台区1,东丈公用照明9台区,东岗村公用照明2台区,东丈村公用照明4台区,清风店东只东公用照明2台区,西岗公用照明5台区,清风店西岗公用照明6台区,东丈公用照明6台区1,西岗村公用照明2台区,东丈公用照明13台区,东丈公用照明11台区,西岗公用照明10台区,东丈公用照明5台区1,东丈公用照明16台区,东岗公用照明5台区,客户投资_西岗公用照明3台区,东丈公用照明10台区,东丈公用照明7台区,清风店西岗公用照明9台区,东丈公用照明12台区,东岗公用照明7台区,东丈公用照明15台区,东丈公用照明14台区,东丈村公用照明1台区1,东岗公用照明4台区,东只东村公用照明1台区,东岗村公用照明1台区,东丈公用农业1台区1【纯农排变】,东岗公用农业6台区,东丈公用农业2台区【纯农排变】,0681657656-中建路桥集团有限公司-专变-220711907-中建路桥集团有限公司变压器,东丈公用照明18台区,东丈公用农业7台区【纯农排变】,0681653380-中建路桥集团有限公司-专变-220710604-中建路桥集团有限公司变压器,0681657656-中建路桥集团有限公司-专变-220711885-中建路桥集团有限公司变压器,西岗公用农业4台区【纯农排变】,东丈公用农业3台区【纯农排变】,定州市天成奶牛养殖中心,二十里铺公用农业4台区【纯农排变】,西岗公用农业6台区,东岗村公用农业1台区【纯农排变】,中建路桥集团有限公司变压器,0664678065-定州市丰盛水泥制品厂-专变-201023143-定州市丰盛水泥制品厂变压器,东岗村公用农业2台区【纯农排变】,东岗公用农业5台区,鱼苗厂,东丈公用照明17台区,龙腾公司,东只东公用农业1台区【纯农排变】,东丈公用农业4台区【纯农排变】,河北曲港高速公路开发有限公司变压器,东丈公用农业10台区【纯农排变】,西岗公用农业3台区【纯农排变】,东岗公用农业4台区,东只东公用照明3台区,西岗公用农业5台区【纯农排变】,东丈公用农业5台区【纯农排变】,唐城公用照明1台区","poweroffReason":"【停电原因】由于站内设备例行试验导致１１０ＫＶ清风店变电站１０ＫＶ５７２东丈线路全线停电 【变更送电】因抢修进度加快原因，送电时间由２１：００变更为２０：１０ 【发布渠道】河北省定州市定州日报第三版（２０２０年０４月２２日）","powerTime":"2020-04-29 19:56:11","powerComm":"已送电","subsNo":"","lineNo":"","tgNo":"","tgName":null,"infoStatus":"1","orgName":"国网定州市供电公司","typeName":null,"infoStatusName":null,"dateDay":null,"orgNos":null,"nowTime":null,"countyName":null,"streetName":null,"villageName":null,"roadName":null,"communityName":null,"tranName":null,"sdLineName":null,"cityCode":"1340610","cityName":"国网定州市供电公司","provinceCode":null,"stopTime":"2020-04-29 20:10:00","powerType":"全部","powerOffArea":"【全线路停电】停１１０ＫＶ清风店变电站１０ＫＶ５７２东丈线路全线，东岗公用照明6台区,东丈村公用照明3台区,西岗村公用照明1台区,东丈公用照明8台区,东丈村公用照明2台区1,东丈公用照明9台区,东岗村公用照明2台区,东丈村公用照明4台区,清风店东只东公用照明2台区,西岗公用照明5台区,清风店西岗公用照明6台区,东丈公用照明6台区1,西岗村公用照明2台区,东丈公用照明13台区,东丈公用照明11台区,西岗公用照明10台区,东丈公用照明5台区1,东丈公用照明16台区,东岗公用照明5台区,客户投资_西岗公用照明3台区,东丈公用照明10台区,东丈公用照明7台区,清风店西岗公用照明9台区,东丈公用照明12台区,东岗公用照明7台区,东丈公用照明15台区,东丈公用照明14台区,东丈村公用照明1台区1,东岗公用照明4台区,东只东村公用照明1台区,东岗村公用照明1台区,东丈公用农业1台区1【纯农排变】,东岗公用农业6台区,东丈公用农业2台区【纯农排变】,0681657656-中建路桥集团有限公司-专变-220711907-中建路桥集团有限公司变压器,东丈公用照明18台区,东丈公用农业7台区【纯农排变】,0681653380-中建路桥集团有限公司-专变-220710604-中建路桥集团有限公司变压器,0681657656-中建路桥集团有限公司-专变-220711885-中建路桥集团有限公司变压器,西岗公用农业4台区【纯农排变】,东丈公用农业3台区【纯农排变】,定州市天成奶牛养殖中心,二十里铺公用农业4台区【纯农排变】,西岗公用农业6台区,东岗村公用农业1台区【纯农排变】,中建路桥集团有限公司变压器,0664678065-定州市丰盛水泥制品厂-专变-201023143-定州市丰盛水泥制品厂变压器,东岗村公用农业2台区【纯农排变】,东岗公用农业5台区,鱼苗厂,东丈公用照明17台区,龙腾公司,东只东公用农业1台区【纯农排变】,东丈公用农业4台区【纯农排变】,河北曲港高速公路开发有限公司变压器,东丈公用农业10台区【纯农排变】,西岗公用农业3台区【纯农排变】,东岗公用农业4台区,东只东公用照明3台区,西岗公用农业5台区【纯农排变】,东丈公用农业5台区【纯农排变】,唐城公用照明1台区","powerOffReason":"【停电原因】由于站内设备例行试验导致１１０ＫＶ清风店变电站１０ＫＶ５７２东丈线路全线停电 【变更送电】因抢修进度加快原因，送电时间由２１：００变更为２０：１０ 【发布渠道】河北省定州市定州日报第三版（２０２０年０４月２２日）","powerOffId":"2020042113000094"},{"poweroffId":2020042113000091,"sgpoweroffId":null,"subsName":"","lineName":"10kV571席家庄线","pubTranName":"西市邑公用照明9台区,西市邑村公用照明5台区,罗家庄公用照明4台区,新立庄村公用照明1台区,新立庄公用照明6台区,连仲公用农业7台区（土地局）【纯农排变】,新立庄公用农业2台区【纯农排变】,二十里铺公用农业5台区【纯农排变】,二十里铺村公用照明2台区,西市邑公用照明11台区,二十里铺村公用照明1台区,二十里铺公用照明4台区,罗家庄村公用照明2台区,西市邑公用照明10台区,二十里铺照明5台区,西市邑公用照明8台区,二十里铺公用农业6台区（土地局）【纯农排变】,西市邑公用照明12台区,新立庄村公用照明3台区,新立庄公用农业3台区【纯农排变】,罗家庄公用照明3台区,西市邑村公用照明13台区,连仲公用照明8台区,连仲公用照明4台区,二十里铺公用照明3台区,唐城村公用农业2台区【纯农排变】,西市邑公用照明15台区,新立庄村公用照明2台区,西市邑村公用照明2台区,新立庄公用照明5台区,罗家庄村公用照明1台区,西市邑村公用照明3台区,西市邑公用照明7台区,新立庄村公用农业1台区【纯农排变】,西市邑公用照明17台区,定州市清风店中心卫生院变压器,唐城公用农业6台区【纯农排变】,连仲公用农业6台区【纯农排变】,阳光畜牧,唐城村公用农业1台区【纯农排变】,西市邑村公用照明4台区,西市邑公用照明16台区,新立庄公用照明4台区,罗家庄公用农业1台区【纯农排变】,周红,二十里铺公用农业3台区【纯农排变】,唐城村公用农业3台区【纯农排变】,罗家庄公用农业4台区【纯农排变】,二十里铺公用农业2台区【纯农排变】,罗家庄公用农业5台区【纯农排变】,医院,西市邑村公用农业4台区【纯农排变】,二十里铺公用农业1台区【纯农排变】,东丈公用农业11台区【纯农排变】,唐城村公用农业4台区【纯农排变】,","scope":"【影响街道/乡镇】清风店镇【影响客户】二十里铺村、罗家庄村、新立庄村、连仲村、西市邑村、东丈","startTime":"2020-04-29 05:30:00","stopDate":"2020-04-29 20:00:00","orgNo":"1340610","typeCode":"临时停电","poweroffArea":"【全线路停电】停１１０ＫＶ清风店变电站１０ＫＶ５７１席家庄线路全线，新立庄公用农业3台区【纯农排变】,罗家庄公用照明3台区,连仲公用照明8台区,西市邑村公用照明4台区,西市邑公用照明16台区,新立庄公用照明4台区,二十里铺村公用照明2台区,西市邑公用照明11台区,二十里铺村公用照明1台区,二十里铺公用照明4台区,西市邑公用照明9台区,西市邑村公用照明5台区,罗家庄公用照明4台区,新立庄村公用照明1台区,新立庄公用照明6台区,罗家庄村公用照明2台区,西市邑公用照明10台区,二十里铺照明5台区,西市邑公用照明8台区,二十里铺公用农业6台区（土地局）【纯农排变】,西市邑公用照明12台区,新立庄村公用照明3台区,西市邑村公用照明13台区,连仲公用照明4台区,二十里铺公用照明3台区,唐城村公用农业2台区【纯农排变】,西市邑公用照明15台区,新立庄村公用照明2台区,西市邑村公用照明2台区,新立庄公用照明5台区,罗家庄村公用照明1台区,西市邑村公用照明3台区,西市邑公用照明7台区,新立庄村公用农业1台区【纯农排变】,西市邑公用照明17台区,定州市清风店中心卫生院变压器,唐城公用农业6台区【纯农排变】,连仲公用农业6台区【纯农排变】,阳光畜牧,唐城村公用农业1台区【纯农排变】,罗家庄公用农业1台区【纯农排变】,周红,二十里铺公用农业5台区【纯农排变】,二十里铺公用农业3台区【纯农排变】,唐城村公用农业3台区【纯农排变】,罗家庄公用农业4台区【纯农排变】,二十里铺公用农业2台区【纯农排变】,罗家庄公用农业5台区【纯农排变】,医院,西市邑村公用农业4台区【纯农排变】,二十里铺公用农业1台区【纯农排变】,东丈公用农业11台区【纯农排变】,唐城村公用农业4台区【纯农排变】,连仲公用农业7台区（土地局）【纯农排变】,新立庄公用农业2台区【纯农排变】","poweroffReason":"【停电原因】由于站内设备例行试验导致１１０ＫＶ清风店变电站１０ＫＶ５７１席家庄线路全线停电 【变更送电】因抢修进度加快原因，送电时间由２１：００变更为２０：００ 【发布渠道】河北省定州市定州日报第三版（２０２０年０４月２２日）","powerTime":"2020-04-29 19:49:04","powerComm":"已送电","subsNo":"","lineNo":"","tgNo":"","tgName":null,"infoStatus":"1","orgName":"国网定州市供电公司","typeName":null,"infoStatusName":null,"dateDay":null,"orgNos":null,"nowTime":null,"countyName":null,"streetName":null,"villageName":null,"roadName":null,"communityName":null,"tranName":null,"sdLineName":null,"cityCode":"1340610","cityName":"国网定州市供电公司","provinceCode":null,"stopTime":"2020-04-29 20:00:00","powerType":"全部","powerOffArea":"【全线路停电】停１１０ＫＶ清风店变电站１０ＫＶ５７１席家庄线路全线，新立庄公用农业3台区【纯农排变】,罗家庄公用照明3台区,连仲公用照明8台区,西市邑村公用照明4台区,西市邑公用照明16台区,新立庄公用照明4台区,二十里铺村公用照明2台区,西市邑公用照明11台区,二十里铺村公用照明1台区,二十里铺公用照明4台区,西市邑公用照明9台区,西市邑村公用照明5台区,罗家庄公用照明4台区,新立庄村公用照明1台区,新立庄公用照明6台区,罗家庄村公用照明2台区,西市邑公用照明10台区,二十里铺照明5台区,西市邑公用照明8台区,二十里铺公用农业6台区（土地局）【纯农排变】,西市邑公用照明12台区,新立庄村公用照明3台区,西市邑村公用照明13台区,连仲公用照明4台区,二十里铺公用照明3台区,唐城村公用农业2台区【纯农排变】,西市邑公用照明15台区,新立庄村公用照明2台区,西市邑村公用照明2台区,新立庄公用照明5台区,罗家庄村公用照明1台区,西市邑村公用照明3台区,西市邑公用照明7台区,新立庄村公用农业1台区【纯农排变】,西市邑公用照明17台区,定州市清风店中心卫生院变压器,唐城公用农业6台区【纯农排变】,连仲公用农业6台区【纯农排变】,阳光畜牧,唐城村公用农业1台区【纯农排变】,罗家庄公用农业1台区【纯农排变】,周红,二十里铺公用农业5台区【纯农排变】,二十里铺公用农业3台区【纯农排变】,唐城村公用农业3台区【纯农排变】,罗家庄公用农业4台区【纯农排变】,二十里铺公用农业2台区【纯农排变】,罗家庄公用农业5台区【纯农排变】,医院,西市邑村公用农业4台区【纯农排变】,二十里铺公用农业1台区【纯农排变】,东丈公用农业11台区【纯农排变】,唐城村公用农业4台区【纯农排变】,连仲公用农业7台区（土地局）【纯农排变】,新立庄公用农业2台区【纯农排变】","powerOffReason":"【停电原因】由于站内设备例行试验导致１１０ＫＶ清风店变电站１０ＫＶ５７１席家庄线路全线停电 【变更送电】因抢修进度加快原因，送电时间由２１：００变更为２０：００ 【发布渠道】河北省定州市定州日报第三版（２０２０年０４月２２日）","powerOffId":"2020042113000091"},{"poweroffId":2020042113000085,"sgpoweroffId":null,"subsName":"","lineName":"10kV576清风店线","pubTranName":"清风店南街公用照明4台区,清风店北街公用照明7台区,清风店北街公用照明6台区,清风店北街公用照明5台区,清风店东街公用照明6台区,清风店北街公用农业5台区【纯农排变】,清风店东街公用照明7台区,清南街村公用照明1台区,西街公用照明5台区,清风店东街公用照明4台区,0626019934-定州市奕城房地产开发有限公司 综合市场-专变-135794033-定州市奕城房地产开发有限公司 综合市场变压器1,吴村村公用照明3台区,定州大世界购物中心1131876,0626019934-定州市奕城房地产开发有限公司 综合市场-专变-135794039-定州市奕城房地产开发有限公司 综合市场变压器2,东街公用照明8台区,清风店北街公用农业2台区【纯农排变】,定州市清风店镇清风店西街村民委员会变压器,清风店北街公用农业3台区【纯农排变】,北街公用照明9台区,定州市清雪面业有限公司变压器,定州市天德环保科技有限公司变压器,清风店南街公用农业2台区【纯农排变】,定州市清风店镇西街村民委员会2,清风店邮局,清风店食品加工厂,定州大世界购物中心1131897,清风店东街面厂,定州市清风店镇清风店西街村民委员会变压器2,南街公用照明7台区,清风店北街公用农业1台区【纯农排变】,定州市清风店镇西街村民委员会1变压器,清风店东街村公用农业2台区【纯农排变】,清风店北街公用农业4台区【纯农排变】,镇政府,清风店南街公用照明5台区,吴村公用照明5台区,清南街公用照明3台区,清南街村公用照明2台区,客户投资_清风店西街村公用照明2台区,吴村公用照明6台区,南街公用照明6台区,清风店西街村公用农业1台区【纯农排变】,清风店北街村公用照明1台区,清风店北街村公用照明2台区,清风店西街村公用照明1台区,吴村村公用照明2台区,清风店东街公用照明5台区,清东街村公用照明1台区,清风店北街公用照明4台区,清风店西街公用照明3台区,清东街村公用照明3台区,西街公用照明4台区,清风店北街村公用照明3台区,北街公用照明8台区,清东街村公用照明2台区,","scope":"【影响街道/乡镇】清风店镇【影响客户】清风店南街、清风店西街、清风店北街、清风店东街、吴村","startTime":"2020-04-29 05:30:00","stopDate":"2020-04-29 21:00:00","orgNo":"1340610","typeCode":"临时停电","poweroffArea":"【全线路停电】停１１０ＫＶ清风店变电站１０ＫＶ５７６清风店线路全线，清风店北街村公用照明1台区,清风店北街村公用照明2台区,清风店西街村公用照明1台区,吴村村公用照明2台区,清风店东街公用照明5台区,清东街村公用照明1台区,清风店北街公用照明4台区,清风店西街公用照明3台区,清东街村公用照明3台区,西街公用照明4台区,清风店北街村公用照明3台区,北街公用照明8台区,清东街村公用照明2台区,清风店南街公用照明4台区,清风店北街公用照明7台区,清风店北街公用照明6台区,清风店北街公用照明5台区,清风店东街公用照明6台区,清风店南街公用照明5台区,吴村公用照明5台区,清南街公用照明3台区,清南街村公用照明2台区,客户投资_清风店西街村公用照明2台区,吴村公用照明6台区,南街公用照明6台区,清风店西街村公用农业1台区【纯农排变】,清风店北街公用农业5台区【纯农排变】,清风店东街公用照明7台区,清南街村公用照明1台区,西街公用照明5台区,清风店东街公用照明4台区,0626019934-定州市奕城房地产开发有限公司 综合市场-专变-135794033-定州市奕城房地产开发有限公司 综合市场变压器1,吴村村公用照明3台区,定州大世界购物中心1131876,0626019934-定州市奕城房地产开发有限公司 综合市场-专变-135794039-定州市奕城房地产开发有限公司 综合市场变压器2,东街公用照明8台区,清风店北街公用农业2台区【纯农排变】,定州市清风店镇清风店西街村民委员会变压器,清风店北街公用农业3台区【纯农排变】,北街公用照明9台区,定州市清雪面业有限公司变压器,定州市天德环保科技有限公司变压器,清风店南街公用农业2台区【纯农排变】,定州市清风店镇西街村民委员会2,清风店邮局,清风店食品加工厂,定州大世界购物中心1131897,清风店东街面厂,定州市清风店镇清风店西街村民委员会变压器2,南街公用照明7台区,清风店北街公用农业1台区【纯农排变】,定州市清风店镇西街村民委员会1变压器,清风店东街村公用农业2台区【纯农排变】,清风店北街公用农业4台区【纯农排变】,镇政府","poweroffReason":"【停电原因】由于站内设备例行试验导致１１０ＫＶ清风店变电站１０ＫＶ５７６清风店线路全线停电 【变更送电】无 【发布渠道】河北省定州市定州日报第三版（２０２０年０４月２２日）","powerTime":"2020-04-29 20:58:29","powerComm":"已送电","subsNo":"","lineNo":"","tgNo":"","tgName":null,"infoStatus":"1","orgName":"国网定州市供电公司","typeName":null,"infoStatusName":null,"dateDay":null,"orgNos":null,"nowTime":null,"countyName":null,"streetName":null,"villageName":null,"roadName":null,"communityName":null,"tranName":null,"sdLineName":null,"cityCode":"1340610","cityName":"国网定州市供电公司","provinceCode":null,"stopTime":"2020-04-29 21:00:00","powerType":"全部","powerOffArea":"【全线路停电】停１１０ＫＶ清风店变电站１０ＫＶ５７６清风店线路全线，清风店北街村公用照明1台区,清风店北街村公用照明2台区,清风店西街村公用照明1台区,吴村村公用照明2台区,清风店东街公用照明5台区,清东街村公用照明1台区,清风店北街公用照明4台区,清风店西街公用照明3台区,清东街村公用照明3台区,西街公用照明4台区,清风店北街村公用照明3台区,北街公用照明8台区,清东街村公用照明2台区,清风店南街公用照明4台区,清风店北街公用照明7台区,清风店北街公用照明6台区,清风店北街公用照明5台区,清风店东街公用照明6台区,清风店南街公用照明5台区,吴村公用照明5台区,清南街公用照明3台区,清南街村公用照明2台区,客户投资_清风店西街村公用照明2台区,吴村公用照明6台区,南街公用照明6台区,清风店西街村公用农业1台区【纯农排变】,清风店北街公用农业5台区【纯农排变】,清风店东街公用照明7台区,清南街村公用照明1台区,西街公用照明5台区,清风店东街公用照明4台区,0626019934-定州市奕城房地产开发有限公司 综合市场-专变-135794033-定州市奕城房地产开发有限公司 综合市场变压器1,吴村村公用照明3台区,定州大世界购物中心1131876,0626019934-定州市奕城房地产开发有限公司 综合市场-专变-135794039-定州市奕城房地产开发有限公司 综合市场变压器2,东街公用照明8台区,清风店北街公用农业2台区【纯农排变】,定州市清风店镇清风店西街村民委员会变压器,清风店北街公用农业3台区【纯农排变】,北街公用照明9台区,定州市清雪面业有限公司变压器,定州市天德环保科技有限公司变压器,清风店南街公用农业2台区【纯农排变】,定州市清风店镇西街村民委员会2,清风店邮局,清风店食品加工厂,定州大世界购物中心1131897,清风店东街面厂,定州市清风店镇清风店西街村民委员会变压器2,南街公用照明7台区,清风店北街公用农业1台区【纯农排变】,定州市清风店镇西街村民委员会1变压器,清风店东街村公用农业2台区【纯农排变】,清风店北街公用农业4台区【纯农排变】,镇政府","powerOffReason":"【停电原因】由于站内设备例行试验导致１１０ＫＶ清风店变电站１０ＫＶ５７６清风店线路全线停电 【变更送电】无 【发布渠道】河北省定州市定州日报第三版（２０２０年０４月２２日）","powerOffId":"2020042113000085"},{"poweroffId":2020042113000041,"sgpoweroffId":null,"subsName":"","lineName":"10kV542红星线","pubTranName":"兑坎庄综合5台区,兑坎庄综合10台区,兑坎庄综合11台区,兑坎庄综合2台区,","scope":"【影响街道/乡镇】蠡吾镇【高危重要客户】无【影响客户】兑坎庄工业区","startTime":"2020-04-21 09:15:44","stopDate":"2020-04-21 13:00:00","orgNo":"1340616","typeCode":"超电网供电能力停限电","poweroffArea":"【全线路停电】停李同营,蠡县兑坎庄橡胶制品经销部变压器,华腾,四通设备厂,保定坤隆橡胶机带有限公司变压器,保定天顺橡胶制品有限公司,河北东风橡胶机带有限公司,蠡县兑坎庄中亿胶带输送设备配件厂,保定四海橡胶机带有限公司,兑坎庄综合11台区,李贺营,李国安,保定红星橡胶制品有限公司,保定中南橡胶机带有限公司,蠡县亿丰输送设备有限公司变压器,韩素卓||2522046|兑坎庄,2522兑坎庄李云清,河北新达胶带厂变压器,2522050||2522兑坎庄,兑坎庄综合10台区,2522兑坎庄车床,蠡县东亿橡胶机带有限公司变压器安装,0684252737-保定晟诺橡胶机带制造有限公司-专变-225174124-保定晟诺橡胶机带制造有限公司,2522兑坎庄韩显增,保定天顺橡胶制品有限公司变压器,双启织布厂,中北橡,蠡县华川胶带有限公司,兑坎庄综合2台区,北方,0683783388-蠡县华隆胶带厂-专变-223538313-蠡县华隆胶带厂变压器,变压器,胜利橡,蠡县开泰输送机带有限公司变压器,华都,其林,保定中南橡胶机带有限公司变压器,蠡县兑庄农机配件维修部,李建辉,中元,鑫宝达输送设备制造有限公司变压器,兑坎庄综合5台区,李贺兵,明星,蠡县兑坎庄腾达环形带厂变压器,李建良,李保昌,保定弘强橡胶机带有限公司,蠡县爱辉橡胶厂变压器","poweroffReason":"【停电原因】由于主变过负荷导致１１０ＫＶ张岳变电站１０ＫＶ红星５４２线路全线停电【变更送电】因主变负荷恢复正常原因，送电时间由１６:３０变更为１３:００【发布渠道】通过９５５９８发布","powerTime":"2020-04-21 12:30:48","powerComm":"已送电","subsNo":"","lineNo":"","tgNo":"","tgName":null,"infoStatus":"1","orgName":"国网蠡县供电公司","typeName":null,"infoStatusName":null,"dateDay":null,"orgNos":null,"nowTime":null,"countyName":null,"streetName":null,"villageName":null,"roadName":null,"communityName":null,"tranName":null,"sdLineName":null,"cityCode":"1340616","cityName":"国网蠡县供电公司","provinceCode":null,"stopTime":"2020-04-21 13:00:00","powerType":"全部","powerOffArea":"【全线路停电】停李同营,蠡县兑坎庄橡胶制品经销部变压器,华腾,四通设备厂,保定坤隆橡胶机带有限公司变压器,保定天顺橡胶制品有限公司,河北东风橡胶机带有限公司,蠡县兑坎庄中亿胶带输送设备配件厂,保定四海橡胶机带有限公司,兑坎庄综合11台区,李贺营,李国安,保定红星橡胶制品有限公司,保定中南橡胶机带有限公司,蠡县亿丰输送设备有限公司变压器,韩素卓||2522046|兑坎庄,2522兑坎庄李云清,河北新达胶带厂变压器,2522050||2522兑坎庄,兑坎庄综合10台区,2522兑坎庄车床,蠡县东亿橡胶机带有限公司变压器安装,0684252737-保定晟诺橡胶机带制造有限公司-专变-225174124-保定晟诺橡胶机带制造有限公司,2522兑坎庄韩显增,保定天顺橡胶制品有限公司变压器,双启织布厂,中北橡,蠡县华川胶带有限公司,兑坎庄综合2台区,北方,0683783388-蠡县华隆胶带厂-专变-223538313-蠡县华隆胶带厂变压器,变压器,胜利橡,蠡县开泰输送机带有限公司变压器,华都,其林,保定中南橡胶机带有限公司变压器,蠡县兑庄农机配件维修部,李建辉,中元,鑫宝达输送设备制造有限公司变压器,兑坎庄综合5台区,李贺兵,明星,蠡县兑坎庄腾达环形带厂变压器,李建良,李保昌,保定弘强橡胶机带有限公司,蠡县爱辉橡胶厂变压器","powerOffReason":"【停电原因】由于主变过负荷导致１１０ＫＶ张岳变电站１０ＫＶ红星５４２线路全线停电【变更送电】因主变负荷恢复正常原因，送电时间由１６:３０变更为１３:００【发布渠道】通过９５５９８发布","powerOffId":"2020042113000041"},{"poweroffId":2020042113000036,"sgpoweroffId":null,"subsName":"","lineName":"龙湾头537","pubTranName":"龙湾头7#,","scope":"【影响街道/乡镇】凌云册乡【高危重要客户】无【影响客户】龙湾头村","startTime":"2020-04-30 04:00:00","stopDate":"2020-04-30 08:30:00","orgNo":"1340625","typeCode":"计划停电","poweroffArea":"【单台区停电】停龙湾头7#","poweroffReason":"【停电原因】由于更换变压器导致３５ＫＶ燕发变电站龙湾头５３７线路龙湾头村７＃公变台区停电【变更送电】无【发布渠道】保定市易县电视台（０４月２２日００时至０４月２９日２４时之间）下方滚动。","powerTime":"2020-04-30 07:59:54","powerComm":"已送电","subsNo":"","lineNo":"","tgNo":"","tgName":null,"infoStatus":"1","orgName":"国网易县供电公司","typeName":null,"infoStatusName":null,"dateDay":null,"orgNos":null,"nowTime":null,"countyName":null,"streetName":null,"villageName":null,"roadName":null,"communityName":null,"tranName":null,"sdLineName":null,"cityCode":"1340625","cityName":"国网易县供电公司","provinceCode":null,"stopTime":"2020-04-30 08:30:00","powerType":"全部","powerOffArea":"【单台区停电】停龙湾头7#","powerOffReason":"【停电原因】由于更换变压器导致３５ＫＶ燕发变电站龙湾头５３７线路龙湾头村７＃公变台区停电【变更送电】无【发布渠道】保定市易县电视台（０４月２２日００时至０４月２９日２４时之间）下方滚动。","powerOffId":"2020042113000036"},{"poweroffId":2020042113000035,"sgpoweroffId":null,"subsName":"","lineName":"10kV516耿庄线","pubTranName":"耿庄综合16台区变压器,西绪口综合2台区变压器,耿庄综合4台区变压器,耿庄综合10台区变压器,高佐综合6台区变压器,高佐综合10台区变压器,耿庄综合17台区柱上柱上变压器,高佐农排1台区变压器【纯农排变】,高佐综合5台区变压器,高佐综合12台区变压器,耿庄综合1台区变压器,耿庄综合6台区变压器,曲堤庄综合8台区变压器,耿庄综合12台区变压器,南绪口综合6台区变压器,北绪口农排8【纯农排变】,高佐综合11台区变压器,耿庄综合5台区变压器,南绪口综合10台区变压器,耿庄综合7台区变压器,南绪口综合4台区变压器,高佐综合4台区变压器,高佐综合3台区变压器,耿庄综合9台区变压器,高佐综合7台区变压器,高佐综合15台区变压器,高佐综合14台区变压器,南绪口综合3台区变压器,耿庄综合8台区变压器,耿庄综合13台区变压器,耿庄农排10台区【纯农排变】,耿庄综合2台区变压器,高佐综合9台区变压器,西绪口综合1台区变压器,高佐综合2台区变压器,高佐综合16台区柱上变压器,耿庄综合15台区变压器,南绪口综合11台区变压器【冬季供暖设施】,高佐综合13台区变压器,耿庄综合3台区变压器,西绪口综合3台区变压器,高佐综合8台区变压器,耿庄综合14台区变压器【冬季供暖设施】,南绪口综合9台区变压器,西绪口综合4台区柱上变压器,南绪口综合5台区变压器,南绪口综合1台区变压器,耿庄综合11台区变压器,南绪口综合8台区变压器,高佐综合1台区变压器,","scope":"【影响街道/乡镇】大曲堤乡【高危重要客户】无【影响客户】西绪口村、曲堤庄村外、耿庄村、高佐村、北绪口、南绪口村","startTime":"2020-04-30 06:00:00","stopDate":"2020-04-30 18:00:00","orgNo":"1340616","typeCode":"计划停电","poweroffArea":"【全线路停电】停耿庄综合2台区变压器,高佐综合9台区变压器,西绪口综合1台区变压器,蠡县达盛昌养羊农民专业合作社变压器,高佐综合2台区变压器,0630170353-蠡县金海麻山药农民专业合作社-专变-141692335-蠡县汇恩肉羊屠宰厂变压器80,高佐综合16台区柱上变压器,耿庄综合15台区变压器,南绪口综合11台区变压器【冬季供暖设施】,高佐综合13台区变压器,耿庄综合3台区变压器,蠡县根生麻山药农民专业合作社,西绪口综合3台区变压器,0469435144-鑫源制革厂-专变-46810304-鑫源,王普毛巾厂,0469432376-鑫华制革厂-专变-46810308-鑫华,（宏源）光大有限公司,亿德利,0469432884-蠡县留史朱佐鹏源皮革厂-专变-46810309-蠡县留史朱佐鹏源皮革厂,0565966139-中国移动通信集团河北有限公司蠡县分公司-专变-118727763-中国移动通信集团河北有限公司蠡县分公司耿庄村变压器,昆仑东,0469435131-万顺制革厂-专变-46810249-万顺厂,高佐综合1台区变压器,鑫龙（2）,西绪口综合2台区变压器,0628807151-蠡县南绪口老五麻山药专业合作社-专变-141400864-蠡县南绪口老五麻山药专业合作社,耿庄综合5台区变压器,制污厂北,耿庄综合16台区变压器,耿庄综合4台区变压器,神龙制衣有限公司,0469434574-强盛制革厂-专变-46810389-强盛厂,耿庄综合10台区变压器,0630170353-蠡县金海麻山药农民专业合作社-专变-141689200-蠡县汇恩肉羊屠宰厂变压器500,高佐综合6台区变压器,0621295683-耿庄村小区-专变-129725544-耿庄村小区500KVA变压器,耿庄综合13台区变压器,长城,0630366558-蠡县轩宏麻山药农民专业合作社-专变-141705847-蠡县轩宏麻山药农民专业合作社,高佐综合10台区变压器,0621295683-耿庄村小区-专变-129725540-耿庄村小区315变压器,耿庄综合17台区柱上柱上变压器,高佐农排1台区变压器【纯农排变】,南绪口综合2台区变压器,0469432826-曲堤庄村西北浇地-专变-46810202-曲堤庄村西北,地中豪,高佐综合5台区变压器,南绪口综合4台区变压器,0469434558-华运皮业有限公司-专变-46810271-华运皮业有限公司,高佐综合4台区变压器,蠡县华运皮业有限公司变压器,0469432406-蠡县天瑞祥服装有限公司-专变-46810274-汇邦北,0469431982-蠡县松林服装有限公司-专变-46810273-蠡县松林服装有限公司,0469432389-兴华制革厂-专变-46810272-兴华厂,高佐综合3台区变压器,耿庄综合9台区变压器,高佐综合8台区变压器,耿庄综合14台区变压器【冬季供暖设施】,南绪口综合9台区变压器,西绪口综合4台区柱上变压器,0469435766-蠡县大曲堤乡中心小学-专变-127945735-蠡县大曲堤乡中心小学变压器,蠡县缔明麻山药农民专业合作社变压器,天隆皮业有限公司变压器,0469432028-鑫丰制革厂-专变-46810367-鑫丰,南绪口综合1台区变压器,耿庄综合11台区变压器,南绪口综合8台区变压器,高佐综合7台区变压器,高佐综合15台区变压器,高佐综合14台区变压器,向东变压器,三亚变压器,九天变压器,红旗变压器,0584065583-蠡县三星皮业有限公司-专变-124937674-蠡县三星皮业有限公司,南绪口综合5台区变压器,变压器,昆仑变压器,三羊,南绪口综合6台区变压器,振兴中华,南绪口综合3台区变压器,0469435069-耿亚洲冷库-专变-46810346-耿亚洲冷库,耿庄综合8台区变压器,南绪口综合7台区变压器,耿庄卫生院,高佐综合12台区变压器,0469432422-建平鸡厂-专变-46810340-建平鸡厂,0469433425-旭升制革厂-专变-46810339-旭升,耿庄综合1台区变压器,鑫龙皮业有限公司,五洋皮革有限公司,中国移动通信集团河北有限公司蠡县分公司变压器,耿庄综合6台区变压器,曲堤庄综合8台区变压器,耿庄综合12台区变压器,蠡县金海麻山药农民专业合","poweroffReason":"【停电原因】由于更换电杆、更换导线导致３５ＫＶ握纽庄变电站１０ＫＶ耿庄５１６线路全线停电【变更送电】无【发布渠道】河北省保定市蠡县电视台（２０２０年４月２１日至２０２０年４月２９日２０：００至２２：００）屏幕上方滚动","powerTime":"2020-04-30 17:58:33","powerComm":"已送电","subsNo":"","lineNo":"","tgNo":"","tgName":null,"infoStatus":"1","orgName":"国网蠡县供电公司","typeName":null,"infoStatusName":null,"dateDay":null,"orgNos":null,"nowTime":null,"countyName":null,"streetName":null,"villageName":null,"roadName":null,"communityName":null,"tranName":null,"sdLineName":null,"cityCode":"1340616","cityName":"国网蠡县供电公司","provinceCode":null,"stopTime":"2020-04-30 18:00:00","powerType":"全部","powerOffArea":"【全线路停电】停耿庄综合2台区变压器,高佐综合9台区变压器,西绪口综合1台区变压器,蠡县达盛昌养羊农民专业合作社变压器,高佐综合2台区变压器,0630170353-蠡县金海麻山药农民专业合作社-专变-141692335-蠡县汇恩肉羊屠宰厂变压器80,高佐综合16台区柱上变压器,耿庄综合15台区变压器,南绪口综合11台区变压器【冬季供暖设施】,高佐综合13台区变压器,耿庄综合3台区变压器,蠡县根生麻山药农民专业合作社,西绪口综合3台区变压器,0469435144-鑫源制革厂-专变-46810304-鑫源,王普毛巾厂,0469432376-鑫华制革厂-专变-46810308-鑫华,（宏源）光大有限公司,亿德利,0469432884-蠡县留史朱佐鹏源皮革厂-专变-46810309-蠡县留史朱佐鹏源皮革厂,0565966139-中国移动通信集团河北有限公司蠡县分公司-专变-118727763-中国移动通信集团河北有限公司蠡县分公司耿庄村变压器,昆仑东,0469435131-万顺制革厂-专变-46810249-万顺厂,高佐综合1台区变压器,鑫龙（2）,西绪口综合2台区变压器,0628807151-蠡县南绪口老五麻山药专业合作社-专变-141400864-蠡县南绪口老五麻山药专业合作社,耿庄综合5台区变压器,制污厂北,耿庄综合16台区变压器,耿庄综合4台区变压器,神龙制衣有限公司,0469434574-强盛制革厂-专变-46810389-强盛厂,耿庄综合10台区变压器,0630170353-蠡县金海麻山药农民专业合作社-专变-141689200-蠡县汇恩肉羊屠宰厂变压器500,高佐综合6台区变压器,0621295683-耿庄村小区-专变-129725544-耿庄村小区500KVA变压器,耿庄综合13台区变压器,长城,0630366558-蠡县轩宏麻山药农民专业合作社-专变-141705847-蠡县轩宏麻山药农民专业合作社,高佐综合10台区变压器,0621295683-耿庄村小区-专变-129725540-耿庄村小区315变压器,耿庄综合17台区柱上柱上变压器,高佐农排1台区变压器【纯农排变】,南绪口综合2台区变压器,0469432826-曲堤庄村西北浇地-专变-46810202-曲堤庄村西北,地中豪,高佐综合5台区变压器,南绪口综合4台区变压器,0469434558-华运皮业有限公司-专变-46810271-华运皮业有限公司,高佐综合4台区变压器,蠡县华运皮业有限公司变压器,0469432406-蠡县天瑞祥服装有限公司-专变-46810274-汇邦北,0469431982-蠡县松林服装有限公司-专变-46810273-蠡县松林服装有限公司,0469432389-兴华制革厂-专变-46810272-兴华厂,高佐综合3台区变压器,耿庄综合9台区变压器,高佐综合8台区变压器,耿庄综合14台区变压器【冬季供暖设施】,南绪口综合9台区变压器,西绪口综合4台区柱上变压器,0469435766-蠡县大曲堤乡中心小学-专变-127945735-蠡县大曲堤乡中心小学变压器,蠡县缔明麻山药农民专业合作社变压器,天隆皮业有限公司变压器,0469432028-鑫丰制革厂-专变-46810367-鑫丰,南绪口综合1台区变压器,耿庄综合11台区变压器,南绪口综合8台区变压器,高佐综合7台区变压器,高佐综合15台区变压器,高佐综合14台区变压器,向东变压器,三亚变压器,九天变压器,红旗变压器,0584065583-蠡县三星皮业有限公司-专变-124937674-蠡县三星皮业有限公司,南绪口综合5台区变压器,变压器,昆仑变压器,三羊,南绪口综合6台区变压器,振兴中华,南绪口综合3台区变压器,0469435069-耿亚洲冷库-专变-46810346-耿亚洲冷库,耿庄综合8台区变压器,南绪口综合7台区变压器,耿庄卫生院,高佐综合12台区变压器,0469432422-建平鸡厂-专变-46810340-建平鸡厂,0469433425-旭升制革厂-专变-46810339-旭升,耿庄综合1台区变压器,鑫龙皮业有限公司,五洋皮革有限公司,中国移动通信集团河北有限公司蠡县分公司变压器,耿庄综合6台区变压器,曲堤庄综合8台区变压器,耿庄综合12台区变压器,蠡县金海麻山药农民专业合","powerOffReason":"【停电原因】由于更换电杆、更换导线导致３５ＫＶ握纽庄变电站１０ＫＶ耿庄５１６线路全线停电【变更送电】无【发布渠道】河北省保定市蠡县电视台（２０２０年４月２１日至２０２０年４月２９日２０：００至２２：００）屏幕上方滚动","powerOffId":"2020042113000035"},{"poweroffId":2020042113000014,"sgpoweroffId":null,"subsName":"","lineName":"东马营512","pubTranName":"后院变压器,","scope":"【影响街道/乡镇】东马营镇 【高危重要客户】无 【影响客户】后院村","startTime":"2020-04-21 07:29:02","stopDate":"2020-04-21 09:00:00","orgNo":"1340612","typeCode":"电网故障停限电","poweroffArea":"【单台区停电】停后院变压器","poweroffReason":"【停电原因】由于京雄高速施工刮线导致１１０ＫＶ白沟变电站１０ＫＶ东马营５１２线路后院公变台区停电 【变更送电】因抢修进度加快原因，送电时间由１２：００变更为９：００ 【发布渠道】通过９５５９８发布","powerTime":"2020-04-21 08:32:50","powerComm":"已送电","subsNo":"","lineNo":"","tgNo":"","tgName":null,"infoStatus":"1","orgName":"国网高碑店市供电公司","typeName":null,"infoStatusName":null,"dateDay":null,"orgNos":null,"nowTime":null,"countyName":null,"streetName":null,"villageName":null,"roadName":null,"communityName":null,"tranName":null,"sdLineName":null,"cityCode":"1340612","cityName":"国网高碑店市供电公司","provinceCode":null,"stopTime":"2020-04-21 09:00:00","powerType":"全部","powerOffArea":"【单台区停电】停后院变压器","powerOffReason":"【停电原因】由于京雄高速施工刮线导致１１０ＫＶ白沟变电站１０ＫＶ东马营５１２线路后院公变台区停电 【变更送电】因抢修进度加快原因，送电时间由１２：００变更为９：００ 【发布渠道】通过９５５９８发布","powerOffId":"2020042113000014"},{"poweroffId":2020042113000009,"sgpoweroffId":null,"subsName":"","lineName":"10KV城区553","pubTranName":"下车亭西台,东车亭村南变压器,杜家庄村西变压器,西车亭村南井变压器【纯农排变】,上车亭大队,西车亭村西内台区变压器,东车亭村东台区,杜家庄村内,下车亭63井,下车亭村西北,东文山合作社北台区变压器,下车亭东台,东文山村北变压器,东文山中学变压器,安家洼西井台区【纯农排变】,上车亭村西台区变压器,西车厅西坡井台区,上车亭北上坎,下车亭高速桥东变压器【纯农排变】,东车亭村东混用台区,下车亭村西南,西车厅村西南台区,杜家庄西南台区,杜家庄村南变压器,东文山村东,杜家庄村东台区变压器,西车亭东台区,东车亭村西台区变压器,下车亭村北2台区,上北变压器【纯农排变】,上车亭村北台区变压器,东车亭村西2台区变压器,上车亭青石坡,上车亭东台,杜家庄村东北,西车亭村北台区变压器,下车亭南2,安家洼村南台区变压器,东文山果园,北西租村柱上变压器,西车仃西山井【纯农排变】,上车厅村东二变压器,东文山村西,","scope":"【影响街道/乡镇】东文山乡 【高危重要客户】无 【影响客户】下车亭村、东车亭村、西车亭村、杜家庄村、上车亭村 、东文山村、安家洼村、文山供水有限公司、安家洼（高速收费站）、第六中学","startTime":"2020-04-21 07:03:22","stopDate":"2020-04-21 09:30:00","orgNo":"1340614","typeCode":"电网故障停限电","poweroffArea":"【全线路停电】停东车亭村东混用台区,于佩芳,上车亭杨德强,下车亭村西南,西车厅村西南台区,安家洼收费站东井【纯农排变】,杜家庄村北井台区变压器【纯农排变】,杜家庄西南台区,杜家庄村南变压器,东文山西井,东文山村东,杜家庄村东台区变压器,涞水开源化工有限公司315KVA专变,杜家庄村南井【纯农排变】,下车亭西井【纯农排变】,上车亭石料厂2,西车亭东台区,东车亭村西台区变压器,下车亭村北2台区,上北变压器【纯农排变】,保定市南水北调工程建设委员会办公室新增变压器30KVA,涞水福旺达矿业有限公司500KVA专变,下车亭63井,下车亭村西北,文山水厂315KVA专变,东文山合作社北台区变压器,涞水县涞水镇学区总校1600KVA专变,下车亭东台,东文山村北变压器,下车亭虫庙南井台区变压器【纯农排变】,东文山中学变压器,安家洼西井台区【纯农排变】,下车亭阻断井【纯农排变】,上车亭村西台区变压器,西车厅西坡井台区,富旺达800KVA专变,上车亭北上坎,下车亭高速桥东变压器【纯农排变】,保定市南水北调工程建设委员会办公室新建变压器100KVA,上车亭村北台区变压器,0670721960-翔海房地产开发集团有限公司-专变-212129533-翔海房地产开发有限公司,东车亭村西2台区变压器,上车亭青石坡,下车亭村东下河井台区变压器【纯农排变】,上车亭东台,杜家庄村东北,上车亭西山井【纯农排变】,西车亭村北台区变压器,下车亭南2,东车亭东井【纯农排变】,利华房地产开发有限公司630KVA专变,涞水开源化工有限公司200KVA专变,河南凯通建设800KVA专变,安家洼村南台区变压器,东文山果园,下车亭山坡井【纯农排变】,上车亭石料厂2-1#,北西租村柱上变压器,西车仃西山井【纯农排变】,东文山村东机井变压器【纯农排变】,安家洼村南机井【纯农排变】,上车厅村东二变压器,东文山村西,0597073193-涞水宏基商品混凝土有限公司-专变-126294522-宏基商混400KVA专变,鑫兴建筑材料厂500,鑫兴建筑材料厂500-1#,涞水县涞水镇学校总校,下车亭西台,安家洼村西南台区变压器,东车亭村南变压器,东文山阻断井【纯农排变】,0691227117-涞水县文山供水有限公司-专变-234119500-涞水县文山供水有限公司630KVA专变,杜家庄村西变压器,涞水富旺达矿业有限公司500KVA专变,西车亭村南井变压器【纯农排变】,0597181146-涞水县华梓农业技术开发有限公司-专变-126289031-华梓公司（森林公园）250KVA专变,中国联通公司,涞水县农村信用合作联社新增变压器160KVA,下车亭村东阻井【纯农排变】,上车亭大队,西车亭村西内台区变压器,东车亭村东台区,杜家庄村内","poweroffReason":"【停电原因】由于Ａ相接地导致２２０ＫＶ涞阳变电站１０ＫＶ城区５５３线路全线停电 【变更送电】因抢修进度加快原因，送电时间由１０：３０变更为０９：３０ 【发布渠道】通过９５５９８发布","powerTime":"2020-04-21 09:15:59","powerComm":"已送电","subsNo":"","lineNo":"","tgNo":"","tgName":null,"infoStatus":"1","orgName":"国网涞水县供电公司","typeName":null,"infoStatusName":null,"dateDay":null,"orgNos":null,"nowTime":null,"countyName":null,"streetName":null,"villageName":null,"roadName":null,"communityName":null,"tranName":null,"sdLineName":null,"cityCode":"1340614","cityName":"国网涞水县供电公司","provinceCode":null,"stopTime":"2020-04-21 09:30:00","powerType":"全部","powerOffArea":"【全线路停电】停东车亭村东混用台区,于佩芳,上车亭杨德强,下车亭村西南,西车厅村西南台区,安家洼收费站东井【纯农排变】,杜家庄村北井台区变压器【纯农排变】,杜家庄西南台区,杜家庄村南变压器,东文山西井,东文山村东,杜家庄村东台区变压器,涞水开源化工有限公司315KVA专变,杜家庄村南井【纯农排变】,下车亭西井【纯农排变】,上车亭石料厂2,西车亭东台区,东车亭村西台区变压器,下车亭村北2台区,上北变压器【纯农排变】,保定市南水北调工程建设委员会办公室新增变压器30KVA,涞水福旺达矿业有限公司500KVA专变,下车亭63井,下车亭村西北,文山水厂315KVA专变,东文山合作社北台区变压器,涞水县涞水镇学区总校1600KVA专变,下车亭东台,东文山村北变压器,下车亭虫庙南井台区变压器【纯农排变】,东文山中学变压器,安家洼西井台区【纯农排变】,下车亭阻断井【纯农排变】,上车亭村西台区变压器,西车厅西坡井台区,富旺达800KVA专变,上车亭北上坎,下车亭高速桥东变压器【纯农排变】,保定市南水北调工程建设委员会办公室新建变压器100KVA,上车亭村北台区变压器,0670721960-翔海房地产开发集团有限公司-专变-212129533-翔海房地产开发有限公司,东车亭村西2台区变压器,上车亭青石坡,下车亭村东下河井台区变压器【纯农排变】,上车亭东台,杜家庄村东北,上车亭西山井【纯农排变】,西车亭村北台区变压器,下车亭南2,东车亭东井【纯农排变】,利华房地产开发有限公司630KVA专变,涞水开源化工有限公司200KVA专变,河南凯通建设800KVA专变,安家洼村南台区变压器,东文山果园,下车亭山坡井【纯农排变】,上车亭石料厂2-1#,北西租村柱上变压器,西车仃西山井【纯农排变】,东文山村东机井变压器【纯农排变】,安家洼村南机井【纯农排变】,上车厅村东二变压器,东文山村西,0597073193-涞水宏基商品混凝土有限公司-专变-126294522-宏基商混400KVA专变,鑫兴建筑材料厂500,鑫兴建筑材料厂500-1#,涞水县涞水镇学校总校,下车亭西台,安家洼村西南台区变压器,东车亭村南变压器,东文山阻断井【纯农排变】,0691227117-涞水县文山供水有限公司-专变-234119500-涞水县文山供水有限公司630KVA专变,杜家庄村西变压器,涞水富旺达矿业有限公司500KVA专变,西车亭村南井变压器【纯农排变】,0597181146-涞水县华梓农业技术开发有限公司-专变-126289031-华梓公司（森林公园）250KVA专变,中国联通公司,涞水县农村信用合作联社新增变压器160KVA,下车亭村东阻井【纯农排变】,上车亭大队,西车亭村西内台区变压器,东车亭村东台区,杜家庄村内","powerOffReason":"【停电原因】由于Ａ相接地导致２２０ＫＶ涞阳变电站１０ＫＶ城区５５３线路全线停电 【变更送电】因抢修进度加快原因，送电时间由１０：３０变更为０９：３０ 【发布渠道】通过９５５９８发布","powerOffId":"2020042113000009"},{"poweroffId":2020042113000001,"sgpoweroffId":null,"subsName":"","lineName":"10kV百楼站526线路","pubTranName":"1西大夫庄内1,","scope":"【影响街道/乡镇】百楼乡 【高危重要客户】无 【影响客户】西大夫庄","startTime":"2020-04-21 02:13:28","stopDate":"2020-04-21 14:00:00","orgNo":"1340618","typeCode":"电网故障停限电","poweroffArea":"【单台区停电】停1西大夫庄内1","poweroffReason":"【停电原因】由于低压线断导致１１０ＫＶ百楼变电站１０ＫＶ百楼站５２６线路１西大夫庄内１号公变台区停电 【变更送电】无 【发布渠道】通过９５５９８发布","powerTime":"2020-04-21 13:18:07","powerComm":"王建利通知已送电","subsNo":"","lineNo":"","tgNo":"","tgName":null,"infoStatus":"1","orgName":"国网清苑县供电公司","typeName":null,"infoStatusName":null,"dateDay":null,"orgNos":null,"nowTime":null,"countyName":null,"streetName":null,"villageName":null,"roadName":null,"communityName":null,"tranName":null,"sdLineName":null,"cityCode":"1340618","cityName":"国网清苑县供电公司","provinceCode":null,"stopTime":"2020-04-21 14:00:00","powerType":"全部","powerOffArea":"【单台区停电】停1西大夫庄内1","powerOffReason":"【停电原因】由于低压线断导致１１０ＫＶ百楼变电站１０ＫＶ百楼站５２６线路１西大夫庄内１号公变台区停电 【变更送电】无 【发布渠道】通过９５５９８发布","powerOffId":"2020042113000001"},{"poweroffId":2020042021000095,"sgpoweroffId":null,"subsName":"","lineName":"10kV七一路站532线路","pubTranName":"B191柱上变压器,10kVB690配电室B690配电变压器,10kVY0464配电室Y0464配电变压器,","scope":"【影响街道/乡镇】新市区、五一九路、省印西街、天鹅路、阳光大街 【高危重要客户】无 【影响客户】华瑞科技苑、科技成教学院、商场宿舍","startTime":"2020-04-20 22:00:00","stopDate":"2020-04-21 00:20:00","orgNo":"13406","typeCode":"电网故障停限电","poweroffArea":"【分支停电】停B191柱上变压器,10kVB690配电室B690配电变压器,10kVY0464配电室Y0464配电变压器","poweroffReason":"【停电原因】由于分支开关短路导致１０ＫＶ七一路变电站５３２线路ＨＫ-０４环网柜３号间隔出线１号杆以下停电【变更送电】无【发布渠道】通过９５５９８发布","powerTime":"2020-04-20 23:25:06","powerComm":"已送电","subsNo":"","lineNo":"","tgNo":"","tgName":null,"infoStatus":"1","orgName":"保定供电公司","typeName":null,"infoStatusName":null,"dateDay":null,"orgNos":null,"nowTime":null,"countyName":null,"streetName":null,"villageName":null,"roadName":null,"communityName":null,"tranName":null,"sdLineName":null,"cityCode":"13406","cityName":"保定供电公司","provinceCode":null,"stopTime":"2020-04-21 00:20:00","powerType":"全部","powerOffArea":"【分支停电】停B191柱上变压器,10kVB690配电室B690配电变压器,10kVY0464配电室Y0464配电变压器","powerOffReason":"【停电原因】由于分支开关短路导致１０ＫＶ七一路变电站５３２线路ＨＫ-０４环网柜３号间隔出线１号杆以下停电【变更送电】无【发布渠道】通过９５５９８发布","powerOffId":"2020042021000095"}],"pageModel":{"pageNow":154,"totalCount":10973,"totalPage":1098,"tableRows":0,"pageCount":10,"beginCount":1530},"isExperi":"1"}