{"message":"","today":"2020-06-15","seleList":[{"poweroffId":2020042021000090,"sgpoweroffId":null,"subsName":"","lineName":"10kV利民路站561线路","pubTranName":"B778柱上变压器,","scope":"【影响街道/乡镇】新市区天威中路、环城南路、多祥街 【高危重要客户】无 【影响客户】多祥街26号院、417大院","startTime":"2020-04-20 21:50:00","stopDate":"2020-04-21 00:00:00","orgNo":"13406","typeCode":"电网故障停限电","poweroffArea":"【单台区停电】停B778柱上变压器","poweroffReason":"【停电原因】由于低压保险片烧导致１０ＫＶ利民路变电站５６１线路Ｂ７７８公变台区停电【变更送电】无【发布渠道】通过９５５９８发布","powerTime":"2020-04-20 23:43:49","powerComm":"已送电","subsNo":"","lineNo":"","tgNo":"","tgName":null,"infoStatus":"1","orgName":"保定供电公司","typeName":null,"infoStatusName":null,"dateDay":null,"orgNos":null,"nowTime":null,"countyName":null,"streetName":null,"villageName":null,"roadName":null,"communityName":null,"tranName":null,"sdLineName":null,"cityCode":"13406","cityName":"保定供电公司","provinceCode":null,"stopTime":"2020-04-21 00:00:00","powerType":"全部","powerOffArea":"【单台区停电】停B778柱上变压器","powerOffReason":"【停电原因】由于低压保险片烧导致１０ＫＶ利民路变电站５６１线路Ｂ７７８公变台区停电【变更送电】无【发布渠道】通过９５５９８发布","powerOffId":"2020042021000090"},{"poweroffId":2020042013000479,"sgpoweroffId":null,"subsName":"","lineName":"辛立庄553","pubTranName":"杨辛庄北变压器,","scope":"【影响街道/乡镇】辛立庄镇 【高危重要客户】无 【影响客户】杨辛庄村","startTime":"2020-04-20 22:28:05","stopDate":"2020-04-20 23:59:00","orgNo":"1340612","typeCode":"电网故障停限电","poweroffArea":"【单台区停电】停杨辛庄北变压器","poweroffReason":"【停电原因】由于杨辛庄１号农排灌有树杈导致１１０ＫＶ陈八庄变电站１０ＫＶ辛立庄５５３线路杨辛庄村公变台区停电 【变更送电】因抢修进度加快原因，送电时间由２１日８：３０变更为２０日２３：５９ 【发布渠道】通过９５５９８发布","powerTime":"2020-04-20 23:51:11","powerComm":"已送电","subsNo":"","lineNo":"","tgNo":"","tgName":null,"infoStatus":"1","orgName":"国网高碑店市供电公司","typeName":null,"infoStatusName":null,"dateDay":null,"orgNos":null,"nowTime":null,"countyName":null,"streetName":null,"villageName":null,"roadName":null,"communityName":null,"tranName":null,"sdLineName":null,"cityCode":"1340612","cityName":"国网高碑店市供电公司","provinceCode":null,"stopTime":"2020-04-20 23:59:00","powerType":"全部","powerOffArea":"【单台区停电】停杨辛庄北变压器","powerOffReason":"【停电原因】由于杨辛庄１号农排灌有树杈导致１１０ＫＶ陈八庄变电站１０ＫＶ辛立庄５５３线路杨辛庄村公变台区停电 【变更送电】因抢修进度加快原因，送电时间由２１日８：３０变更为２０日２３：５９ 【发布渠道】通过９５５９８发布","powerOffId":"2020042013000479"},{"poweroffId":2020042013000478,"sgpoweroffId":null,"subsName":"","lineName":"李家营524","pubTranName":"永安印铁变压器3,东盛阎王庄南变压器,温屯北变压器新架,高碑店市路灯管理办公室变压器,永安印铁变压器2,河北鹏达房地产开发有限公司01,河北鹏达房地产开发有限公司变压器,东盛张八屯地变压器【纯农排变】,高碑店市电业局变压器,郭屯02变压器,高碑店市城市管理综合执法局112国道2号,河北鹏达房地产开发有限公司03,中国石化销售有限公司河北保定高碑店石油分公司,高碑店市永杰汽车销售公司,八方达客运有限公司天桥分公司变压器,温屯窗纱厂,高碑店市欣知语服饰有限公司变压器,河北北方风机制造有限公司,东盛马庄5变,万通加油站,高碑店市万通发展有限责任公司变压器,高碑店市自来水公司变压器,交通局,变压器-020,变压器-019,东盛马庄1变,郭屯05变压器,河北鹏达房地产开发有限公司02,0585511104-高碑店市路灯管理办公室-专变-125093165-高碑店市路灯管理办公室变压器,838充电站变压器,杨宝坤,东盛马庄变压器,高碑店市平生环保设备制造有限公司,东盛张八屯南变压器,王克录,东盛马庄4变,郭屯04变压器,永安印铁,冀东商业公司,高碑店白象食品有限公司变压器,河北京石高速公路开发有限公司,东盛城南供电所变压器,中国石油保定第105站,东盛温屯北变压器,东盛马庄3变,高碑店市建筑集团公司变压器,高碑店市天天一泉水厂2,郭屯01变压器,高碑店市康美舒空气净化设备科技有限公司,东盛温屯北公变,保定中油石油销售有限公司第二加油站,0609130229-河北高碑店市豆豆食品(集团)有限公司-专变-127561667-河北高碑店市豆豆食品（集团）有限公司变压器,温屯公变,东盛张八屯变压器,东盛马庄2变,郭屯03变压器,","scope":"【影响街道/乡镇】东盛办事处 【高危重要客户】无 【影响客户】郭屯村、马庄村、华永房地产、欣知语、园林局、鹏达房地产、白象、京石高速收费站、北方风机、豆豆房地产、豆豆食品、天天一泉","startTime":"2020-04-21 06:00:00","stopDate":"2020-04-21 08:00:00","orgNo":"1340612","typeCode":"其他临时停电","poweroffArea":"【分支停电】停永安印铁变压器3,东盛阎王庄南变压器,温屯北变压器新架,高碑店市路灯管理办公室变压器,永安印铁变压器2,河北鹏达房地产开发有限公司01,河北鹏达房地产开发有限公司变压器,东盛张八屯地变压器【纯农排变】,高碑店市电业局变压器,郭屯02变压器,高碑店市城市管理综合执法局112国道2号,河北鹏达房地产开发有限公司03,中国石化销售有限公司河北保定高碑店石油分公司,高碑店市永杰汽车销售公司,八方达客运有限公司天桥分公司变压器,温屯窗纱厂,高碑店市欣知语服饰有限公司变压器,河北北方风机制造有限公司,东盛马庄5变,万通加油站,高碑店市万通发展有限责任公司变压器,高碑店市自来水公司变压器,交通局,变压器-020,变压器-019,东盛马庄1变,郭屯05变压器,河北鹏达房地产开发有限公司02,0585511104-高碑店市路灯管理办公室-专变-125093165-高碑店市路灯管理办公室变压器,838充电站变压器,杨宝坤,东盛马庄变压器,高碑店市平生环保设备制造有限公司,东盛张八屯南变压器,王克录,东盛马庄4变,郭屯04变压器,永安印铁,冀东商业公司,高碑店白象食品有限公司变压器,河北京石高速公路开发有限公司,东盛城南供电所变压器,中国石油保定第105站,东盛温屯北变压器,东盛马庄3变,高碑店市建筑集团公司变压器,高碑店市天天一泉水厂2,郭屯01变压器,高碑店市康美舒空气净化设备科技有限公司,东盛温屯北公变,保定中油石油销售有限公司第二加油站,0609130229-河北高碑店市豆豆食品(集团)有限公司-专变-127561667-河北高碑店市豆豆食品（集团）有限公司变压器,温屯公变,东盛张八屯变压器,东盛马庄2变,郭屯03变压器","poweroffReason":"【停电原因】由于天天一泉分支刀闸打火需紧急处理导致１１０ＫＶ马庄变电站１０ＫＶ李家营５２４线路０１号断路器以下停电 【变更送电】无 【发布渠道】通过９５５９８发布","powerTime":"2020-04-21 07:58:43","powerComm":"已送电","subsNo":"","lineNo":"","tgNo":"","tgName":null,"infoStatus":"1","orgName":"国网高碑店市供电公司","typeName":null,"infoStatusName":null,"dateDay":null,"orgNos":null,"nowTime":null,"countyName":null,"streetName":null,"villageName":null,"roadName":null,"communityName":null,"tranName":null,"sdLineName":null,"cityCode":"1340612","cityName":"国网高碑店市供电公司","provinceCode":null,"stopTime":"2020-04-21 08:00:00","powerType":"全部","powerOffArea":"【分支停电】停永安印铁变压器3,东盛阎王庄南变压器,温屯北变压器新架,高碑店市路灯管理办公室变压器,永安印铁变压器2,河北鹏达房地产开发有限公司01,河北鹏达房地产开发有限公司变压器,东盛张八屯地变压器【纯农排变】,高碑店市电业局变压器,郭屯02变压器,高碑店市城市管理综合执法局112国道2号,河北鹏达房地产开发有限公司03,中国石化销售有限公司河北保定高碑店石油分公司,高碑店市永杰汽车销售公司,八方达客运有限公司天桥分公司变压器,温屯窗纱厂,高碑店市欣知语服饰有限公司变压器,河北北方风机制造有限公司,东盛马庄5变,万通加油站,高碑店市万通发展有限责任公司变压器,高碑店市自来水公司变压器,交通局,变压器-020,变压器-019,东盛马庄1变,郭屯05变压器,河北鹏达房地产开发有限公司02,0585511104-高碑店市路灯管理办公室-专变-125093165-高碑店市路灯管理办公室变压器,838充电站变压器,杨宝坤,东盛马庄变压器,高碑店市平生环保设备制造有限公司,东盛张八屯南变压器,王克录,东盛马庄4变,郭屯04变压器,永安印铁,冀东商业公司,高碑店白象食品有限公司变压器,河北京石高速公路开发有限公司,东盛城南供电所变压器,中国石油保定第105站,东盛温屯北变压器,东盛马庄3变,高碑店市建筑集团公司变压器,高碑店市天天一泉水厂2,郭屯01变压器,高碑店市康美舒空气净化设备科技有限公司,东盛温屯北公变,保定中油石油销售有限公司第二加油站,0609130229-河北高碑店市豆豆食品(集团)有限公司-专变-127561667-河北高碑店市豆豆食品（集团）有限公司变压器,温屯公变,东盛张八屯变压器,东盛马庄2变,郭屯03变压器","powerOffReason":"【停电原因】由于天天一泉分支刀闸打火需紧急处理导致１１０ＫＶ马庄变电站１０ＫＶ李家营５２４线路０１号断路器以下停电 【变更送电】无 【发布渠道】通过９５５９８发布","powerOffId":"2020042013000478"},{"poweroffId":2020042013000404,"sgpoweroffId":null,"subsName":"","lineName":"10kV韩村512线","pubTranName":"路根综合4,辛安综合四,韩村综合6,辛安综合7,韩村综合8,新安内西综合3变压器,常庄综合10变压器,路根综合五号J,辛安综合6,","scope":"【影响街道/乡镇】郑章镇 【高危重要客户】无 【影响客户】辛安村、路根村、韩村、梨园村","startTime":"2020-04-28 06:00:00","stopDate":"2020-04-28 18:00:00","orgNo":"1340606","typeCode":"临时停电","poweroffArea":"【全线路停电】停路根综合五号J,辛安综合7,常庄综合10变压器,韩村综合8,新安内西综合3变压器,辛安综合6,路根综合4,辛安综合四,韩村综合6","poweroffReason":"【停电原因】由于常庄站韩村５１２更换ＣＴ导致３５ＫＶ常庄变电站１０ＫＶ韩村５１２线路全线停电 【变更送电】无 【发布渠道】保定市安国电视台（０４月２０日００时至２４时之间）屏幕上方滚动","powerTime":"2020-04-28 17:59:54","powerComm":"已送电","subsNo":"","lineNo":"","tgNo":"","tgName":null,"infoStatus":"1","orgName":"国网安国市供电公司","typeName":null,"infoStatusName":null,"dateDay":null,"orgNos":null,"nowTime":null,"countyName":null,"streetName":null,"villageName":null,"roadName":null,"communityName":null,"tranName":null,"sdLineName":null,"cityCode":"1340606","cityName":"国网安国市供电公司","provinceCode":null,"stopTime":"2020-04-28 18:00:00","powerType":"全部","powerOffArea":"【全线路停电】停路根综合五号J,辛安综合7,常庄综合10变压器,韩村综合8,新安内西综合3变压器,辛安综合6,路根综合4,辛安综合四,韩村综合6","powerOffReason":"【停电原因】由于常庄站韩村５１２更换ＣＴ导致３５ＫＶ常庄变电站１０ＫＶ韩村５１２线路全线停电 【变更送电】无 【发布渠道】保定市安国电视台（０４月２０日００时至２４时之间）屏幕上方滚动","powerOffId":"2020042013000404"},{"poweroffId":2020042013000393,"sgpoweroffId":null,"subsName":"","lineName":"梁各庄线523","pubTranName":"王贾庄村12台区,王贾庄村2#|村内,王贾庄村3#|村南,王贾庄村4#|道边,王贾庄村6#村内,王贾庄村8#村东,王贾庄村9#,下黄蒿10#变压器,下黄蒿12#,下黄蒿13#,下黄蒿14#,下黄蒿村1#|村东,下黄蒿村2#|村西,下黄蒿村3#|村北,下黄蒿村4#|村北,下黄蒿村5#西山,下黄蒿村6#村南,下黄蒿村7#村北,下黄蒿村8#村东,梁格庄村13#戏台西,梁格庄村5#,梁格庄村7#|镇政府,梁格庄村8#|村西南,王贾庄11台区变压器,王贾庄14#,王贾庄7台区变压器,王贾庄村1#|村北,下黄蒿村9#村东北,北石门7#,北石门8台区变压器,北石门9#,北石门村1#|村东,北石门村2#|村西,下黄蒿11#,北石门村3#|村北,梁格庄19#,梁格庄村1#,梁格庄村10#,梁格庄村11#信用社,王贾庄村10#村中,北石门6台区变压器,梁格庄18#卫生院,","scope":"【影响街道/乡镇】西陵镇、梁格庄镇【高危重要客户】无【影响客户】梁格庄村、王贾庄村、下黄蒿村、北石门村","startTime":"2020-04-20 17:30:14","stopDate":"2020-04-20 21:00:00","orgNo":"1340625","typeCode":"电网故障停限电","poweroffArea":"【分支停电】停北石门6台区变压器,北石门7#,北石门8台区变压器,北石门9#,北石门村1#|村东,北石门村2#|村西,北石门村3#|村北,北石门村4#|北山【纯农排变】,梁格庄18#卫生院,梁格庄19#,梁格庄村1#,梁格庄村10#,梁格庄村11#信用社,梁格庄村13#戏台西,梁格庄村5#,梁格庄村7#|镇政府,梁格庄村8#|村西南,王贾庄11台区变压器,王贾庄14#,王贾庄7台区变压器,王贾庄村1#|村北,王贾庄村10#村中,王贾庄村12台区,王贾庄村2#|村内,王贾庄村3#|村南,王贾庄村4#|道边,王贾庄村6#村内,王贾庄村8#村东,王贾庄村9#,下黄蒿10#变压器,下黄蒿11#,下黄蒿12#,下黄蒿13#,下黄蒿14#,下黄蒿村1#|村东,下黄蒿村2#|村西,下黄蒿村3#|村北,下黄蒿村4#|村北,下黄蒿村5#西山,下黄蒿村6#村南,下黄蒿村7#村北,下黄蒿村8#村东,下黄蒿村9#村东北","poweroffReason":"【停电原因】由于大风起火导致１１０ＫＶ西陵变电站梁各庄线５２３线路０２５号杆以下线路停电【变更送电】因抢修进度加快原因，送电时间由２３：００变更为２１：００【发布渠道】通过９５５９８发布","powerTime":"2020-04-20 20:28:52","powerComm":"已送电","subsNo":"","lineNo":"","tgNo":"","tgName":null,"infoStatus":"1","orgName":"国网易县供电公司","typeName":null,"infoStatusName":null,"dateDay":null,"orgNos":null,"nowTime":null,"countyName":null,"streetName":null,"villageName":null,"roadName":null,"communityName":null,"tranName":null,"sdLineName":null,"cityCode":"1340625","cityName":"国网易县供电公司","provinceCode":null,"stopTime":"2020-04-20 21:00:00","powerType":"全部","powerOffArea":"【分支停电】停北石门6台区变压器,北石门7#,北石门8台区变压器,北石门9#,北石门村1#|村东,北石门村2#|村西,北石门村3#|村北,北石门村4#|北山【纯农排变】,梁格庄18#卫生院,梁格庄19#,梁格庄村1#,梁格庄村10#,梁格庄村11#信用社,梁格庄村13#戏台西,梁格庄村5#,梁格庄村7#|镇政府,梁格庄村8#|村西南,王贾庄11台区变压器,王贾庄14#,王贾庄7台区变压器,王贾庄村1#|村北,王贾庄村10#村中,王贾庄村12台区,王贾庄村2#|村内,王贾庄村3#|村南,王贾庄村4#|道边,王贾庄村6#村内,王贾庄村8#村东,王贾庄村9#,下黄蒿10#变压器,下黄蒿11#,下黄蒿12#,下黄蒿13#,下黄蒿14#,下黄蒿村1#|村东,下黄蒿村2#|村西,下黄蒿村3#|村北,下黄蒿村4#|村北,下黄蒿村5#西山,下黄蒿村6#村南,下黄蒿村7#村北,下黄蒿村8#村东,下黄蒿村9#村东北","powerOffReason":"【停电原因】由于大风起火导致１１０ＫＶ西陵变电站梁各庄线５２３线路０２５号杆以下线路停电【变更送电】因抢修进度加快原因，送电时间由２３：００变更为２１：００【发布渠道】通过９５５９８发布","powerOffId":"2020042013000393"},{"poweroffId":2020042013000373,"sgpoweroffId":null,"subsName":"","lineName":"阳元街518","pubTranName":"南关村1#,城关医院直供,阳元街直供1#,平安家园1,鑫苑小区,阳元街直供4#,路家庄村1#,友谊路2#,南环小区2#,路家庄5#,南环小区直供1#,南环路3#,阳元街直供3#,金色家园1配电变压器,阳元街直供2#,阳元南街直供1#,西环路村6#,阳元南街2#,","scope":"【影响街道/乡镇】城管处、友谊路、阳元北大街、易兴路、西环路、朝阳路、南环路【高危重要客户】无【影响客户】路家庄村、金色家园小区、平安家园小区、南环小区、鑫苑小区","startTime":"2020-04-20 16:37:43","stopDate":"2020-04-20 20:00:00","orgNo":"1340625","typeCode":"电网故障停限电","poweroffArea":"【全线路停电】停阳元街直供2#,阳元南街直供1#,易水河东,西环路村6#,阳元南街2#,南关村1#,城关医院直供,易县住房和城乡建设局80,河北智联房地产开发有限公司A-2000KVA,易县我爱我家物业管理有限公司变压器,鑫苑小区,0588988396-河北普华房地产开发有限公司-专变-125426310-河北普华房地产开发有限公司变压器,珠峰石业,阳元街直供4#,河北卓澳房地产开发有限公司变压器,南关铸造厂,春雨房地产东区1000,河北华宇房地产开发有限公司b-2000KVA,农发行,易县一条龙烤鸭店,工艺品厂,路家庄村1#,0469136005-棉麻公司-专变-46725774-棉麻公司,建安公司,易县龙烁供热有限责任公司变压器,河北昌百房地产开发有限公司3*2000KVA,友谊路2#,西苑小区,南环小区2#,李嘉成200,春雨房地产开发有限公司,河北华宇房地产开发有限公司A-2000KVA,路家庄5#,河北智联房地产开发有限公司B-2000KVA,南环小区直供1#,南环路3#,易县妇幼保健院,河北景安地产开发有限公司变压器,河北傲美酒店有限公司400,河北昌百房地产开发有限公司B,东市村张保术变压器,阳元街直供1#,河北昌百房地产开发有限公司C,平安家园1,易县宝华酒店,惠东物业公司工地,阳元街直供3#,0588988396-河北普华房地产开发有限公司-专变-125417964-河北普华房地产开发有限公司变压器,房产小区(100KVA),易县鑫正物业管理服务有限公司增容2500,房产小区(200KVA),金色家园1配电变压器","poweroffReason":"【停电原因】由于速断跳闸导致３５ＫＶ易水变电站阳元街５１８线路全线停电【变更送电】无【发布渠道】通过９５５９８发布","powerTime":"2020-04-20 19:07:05","powerComm":"已送电","subsNo":"","lineNo":"","tgNo":"","tgName":null,"infoStatus":"1","orgName":"国网易县供电公司","typeName":null,"infoStatusName":null,"dateDay":null,"orgNos":null,"nowTime":null,"countyName":null,"streetName":null,"villageName":null,"roadName":null,"communityName":null,"tranName":null,"sdLineName":null,"cityCode":"1340625","cityName":"国网易县供电公司","provinceCode":null,"stopTime":"2020-04-20 20:00:00","powerType":"全部","powerOffArea":"【全线路停电】停阳元街直供2#,阳元南街直供1#,易水河东,西环路村6#,阳元南街2#,南关村1#,城关医院直供,易县住房和城乡建设局80,河北智联房地产开发有限公司A-2000KVA,易县我爱我家物业管理有限公司变压器,鑫苑小区,0588988396-河北普华房地产开发有限公司-专变-125426310-河北普华房地产开发有限公司变压器,珠峰石业,阳元街直供4#,河北卓澳房地产开发有限公司变压器,南关铸造厂,春雨房地产东区1000,河北华宇房地产开发有限公司b-2000KVA,农发行,易县一条龙烤鸭店,工艺品厂,路家庄村1#,0469136005-棉麻公司-专变-46725774-棉麻公司,建安公司,易县龙烁供热有限责任公司变压器,河北昌百房地产开发有限公司3*2000KVA,友谊路2#,西苑小区,南环小区2#,李嘉成200,春雨房地产开发有限公司,河北华宇房地产开发有限公司A-2000KVA,路家庄5#,河北智联房地产开发有限公司B-2000KVA,南环小区直供1#,南环路3#,易县妇幼保健院,河北景安地产开发有限公司变压器,河北傲美酒店有限公司400,河北昌百房地产开发有限公司B,东市村张保术变压器,阳元街直供1#,河北昌百房地产开发有限公司C,平安家园1,易县宝华酒店,惠东物业公司工地,阳元街直供3#,0588988396-河北普华房地产开发有限公司-专变-125417964-河北普华房地产开发有限公司变压器,房产小区(100KVA),易县鑫正物业管理服务有限公司增容2500,房产小区(200KVA),金色家园1配电变压器","powerOffReason":"【停电原因】由于速断跳闸导致３５ＫＶ易水变电站阳元街５１８线路全线停电【变更送电】无【发布渠道】通过９５５９８发布","powerOffId":"2020042013000373"},{"poweroffId":2020042013000336,"sgpoweroffId":null,"subsName":"","lineName":"10kV石庄线516","pubTranName":"马西浇地变压器,","scope":"【影响街道/乡镇】方官镇 【高危重要客户】无 【影响客户】高碑店市联通铸造有限责任公司","startTime":"2020-04-20 15:25:55","stopDate":"2020-04-20 17:00:00","orgNo":"1340612","typeCode":"电网故障停限电","poweroffArea":"【分支停电】停高碑店市联通铸造有限责任公司2","poweroffReason":"【停电原因】由于联通铸造厂变压器跌落烧导致３５ＫＶ方官变电站１０ＫＶ石庄５１６线路３号断路器以下停电 【变更送电】因抢修进度加快原因，送电时间由２０：００变更为１７：００ 【发布渠道】通过９５５９８发布","powerTime":"2020-04-20 16:45:16","powerComm":"已送电","subsNo":"","lineNo":"","tgNo":"","tgName":null,"infoStatus":"1","orgName":"国网高碑店市供电公司","typeName":null,"infoStatusName":null,"dateDay":null,"orgNos":null,"nowTime":null,"countyName":null,"streetName":null,"villageName":null,"roadName":null,"communityName":null,"tranName":null,"sdLineName":null,"cityCode":"1340612","cityName":"国网高碑店市供电公司","provinceCode":null,"stopTime":"2020-04-20 17:00:00","powerType":"全部","powerOffArea":"【分支停电】停高碑店市联通铸造有限责任公司2","powerOffReason":"【停电原因】由于联通铸造厂变压器跌落烧导致３５ＫＶ方官变电站１０ＫＶ石庄５１６线路３号断路器以下停电 【变更送电】因抢修进度加快原因，送电时间由２０：００变更为１７：００ 【发布渠道】通过９５５９８发布","powerOffId":"2020042013000336"},{"poweroffId":2020042013000333,"sgpoweroffId":null,"subsName":"","lineName":"10kV李麻营线514","pubTranName":"辛龙庄南2变压器,顿豆夏变压器,尚垡南台变压器,良辛庄东变台,宋渔池西南,胡娄集西南柱上变压器,供电所变压器,肖官营镇政府变压器,马官屯东南变压器,","scope":"【影响街道/乡镇】肖官营乡 【高危重要客户】水利局 【影响客户】顿豆夏村、郭辛庄村、胡娄集村、荒辛庄村、李麻营村、良辛庄村、马官屯村、孟良营村、尚垡村、宋鱼池村、肖官营村、肖官营市场、兴隆庄村、顿书凯、高碑店市辉煌伟业养殖有限公司、顿书军、张勇面粉厂、保定中油第三加油站、卓电强、乡政府、窦风林、河北航行机械铸造有限公司、仁达养殖厂、肖官营中学、高碑店市大广新型建材有限公司、高碑店市看守所、腾达工业、高碑店市公安局治安拘留所、廊坊盛翔道桥工程有限公司、肖官营洛津水泥制品厂、河北禾木田农业发展有限公司、尚垡中心学校","startTime":"2020-04-20 15:23:34","stopDate":"2020-04-20 18:00:00","orgNo":"1340612","typeCode":"电网故障停限电","poweroffArea":"【全线路停电】停国网高碑店市供电公司肖官营供电所变压器,荒辛庄排灌三变压器【纯农排变】,宋鱼池排灌五变压器【纯农排变】,兴隆庄西南变压器,宋鱼池排灌二变压器【纯农排变】,肖官营东变压器,宋渔池西南,尚垡东南变压器,胡娄集排6柱上变压器,胡娄集排灌五变压器【纯农排变】,兴隆庄排灌变压器【纯农排变】,高碑店市广大新型建材有限公司变压器,李麻营变压器,荒辛庄东变压器,郭辛庄排灌一变压器【纯农排变】,顿书凯,尚垡排灌四变压器【纯农排变】,窦风林,孟良营西南,胡娄集排灌三变压器【纯农排变】,肖官营排4柱上变压器,马官屯排灌二变压器【纯农排变】,吴恒,尚垡排灌一变压器,胡娄集南变压器,郭辛庄西台变压器,马官屯排灌一变压器【纯农排变】,孟良营中变压器,顿豆夏北变压器,胡娄集排灌一变压器【纯农排变】,尚垡东北变压器,河北航行机械铸造有限公司西#1,尚垡排灌二变压器【纯农排变】,顿豆夏排灌一变压器【纯农排变】,顿豆夏排灌三变压器【纯农排变】,孟良营南台变压器,胡娄集东台变压器,肖官营排5柱上变压器,孟良营排灌二变压器【纯农排变】,李麻营排灌三变压器【纯农排变】,胡娄集西南柱上变压器,李麻营东台变压器,供电所变压器,兴隆庄北变压器,顿豆夏排灌二变压器【纯农排变】,尚垡西南变压器,马官屯东台变压器,肖官营排灌二变压器【纯农排变】,肖官营镇政府变压器,胡娄集西台变压器,李麻营排灌一变压器【纯农排变】,顿书军,良辛庄变压器,张勇面粉厂,尚垡排灌五变压器【纯农排变】,肖官营市场变压器,高碑店市腾达工业有限责任公司变压器,尚垡排灌三变压器【纯农排变】,尚垡南台变压器,0387439051-高碑店市仁达养殖有限责任公司-专变-45275636-王长春,辛龙庄南2变压器,李麻营排灌二变压器【纯农排变】,孟良营排灌一变压器【纯农排变】,变压器,高碑店市水利局受电点变压器,石料厂,高碑店市国有军粮供应有限公司,尚垡西台变压器,宋鱼池排灌三变压器【纯农排变】,高碑店市肖官营洛津水泥制品厂,荒辛庄变压器,孟良营北台变压器,宋鱼池东南变压器,卓电强,宋鱼池西变压器,荒辛庄排灌二变压器【纯农排变】,肖官营砖厂（北）,河北航行机械铸造有限公司西#2,荒辛庄排灌一变压器【纯农排变】,吴辉,河北禾木田农业发展有限公司,顿豆夏变压器,马官屯西台变压器,良辛庄东变台,李麻营西台变压器,宋鱼池东北台变压器,郭辛庄排灌二变压器【纯农排变】,高碑店市肖官营乡肖官营中学,高碑店市肖官营乡尚垡中心学校变压器,良辛庄排灌变压器【纯农排变】,马官屯南台变压器,高碑店市肖官营乡胡娄集幼儿园,高碑店市公安局变压器,胡娄集排灌二变压器【纯农排变】,兴隆庄南变压器,郭辛庄变压器,马官屯东南变压器,高碑店市肖官营乡兴隆庄中心小学,胡娄集排灌四变压器【纯农排变】","poweroffReason":"【停电原因】由于粮站分支有铁丝导致３５ＫＶ方官变电站１０ＫＶ李麻营５１４线路全线停电 【变更送电】因抢修进度加快原因，送电时间由２０：００变更为１８：００ 【发布渠道】通过９５５９８发布","powerTime":"2020-04-20 17:48:15","powerComm":"已送电","subsNo":"","lineNo":"","tgNo":"","tgName":null,"infoStatus":"1","orgName":"国网高碑店市供电公司","typeName":null,"infoStatusName":null,"dateDay":null,"orgNos":null,"nowTime":null,"countyName":null,"streetName":null,"villageName":null,"roadName":null,"communityName":null,"tranName":null,"sdLineName":null,"cityCode":"1340612","cityName":"国网高碑店市供电公司","provinceCode":null,"stopTime":"2020-04-20 18:00:00","powerType":"全部","powerOffArea":"【全线路停电】停国网高碑店市供电公司肖官营供电所变压器,荒辛庄排灌三变压器【纯农排变】,宋鱼池排灌五变压器【纯农排变】,兴隆庄西南变压器,宋鱼池排灌二变压器【纯农排变】,肖官营东变压器,宋渔池西南,尚垡东南变压器,胡娄集排6柱上变压器,胡娄集排灌五变压器【纯农排变】,兴隆庄排灌变压器【纯农排变】,高碑店市广大新型建材有限公司变压器,李麻营变压器,荒辛庄东变压器,郭辛庄排灌一变压器【纯农排变】,顿书凯,尚垡排灌四变压器【纯农排变】,窦风林,孟良营西南,胡娄集排灌三变压器【纯农排变】,肖官营排4柱上变压器,马官屯排灌二变压器【纯农排变】,吴恒,尚垡排灌一变压器,胡娄集南变压器,郭辛庄西台变压器,马官屯排灌一变压器【纯农排变】,孟良营中变压器,顿豆夏北变压器,胡娄集排灌一变压器【纯农排变】,尚垡东北变压器,河北航行机械铸造有限公司西#1,尚垡排灌二变压器【纯农排变】,顿豆夏排灌一变压器【纯农排变】,顿豆夏排灌三变压器【纯农排变】,孟良营南台变压器,胡娄集东台变压器,肖官营排5柱上变压器,孟良营排灌二变压器【纯农排变】,李麻营排灌三变压器【纯农排变】,胡娄集西南柱上变压器,李麻营东台变压器,供电所变压器,兴隆庄北变压器,顿豆夏排灌二变压器【纯农排变】,尚垡西南变压器,马官屯东台变压器,肖官营排灌二变压器【纯农排变】,肖官营镇政府变压器,胡娄集西台变压器,李麻营排灌一变压器【纯农排变】,顿书军,良辛庄变压器,张勇面粉厂,尚垡排灌五变压器【纯农排变】,肖官营市场变压器,高碑店市腾达工业有限责任公司变压器,尚垡排灌三变压器【纯农排变】,尚垡南台变压器,0387439051-高碑店市仁达养殖有限责任公司-专变-45275636-王长春,辛龙庄南2变压器,李麻营排灌二变压器【纯农排变】,孟良营排灌一变压器【纯农排变】,变压器,高碑店市水利局受电点变压器,石料厂,高碑店市国有军粮供应有限公司,尚垡西台变压器,宋鱼池排灌三变压器【纯农排变】,高碑店市肖官营洛津水泥制品厂,荒辛庄变压器,孟良营北台变压器,宋鱼池东南变压器,卓电强,宋鱼池西变压器,荒辛庄排灌二变压器【纯农排变】,肖官营砖厂（北）,河北航行机械铸造有限公司西#2,荒辛庄排灌一变压器【纯农排变】,吴辉,河北禾木田农业发展有限公司,顿豆夏变压器,马官屯西台变压器,良辛庄东变台,李麻营西台变压器,宋鱼池东北台变压器,郭辛庄排灌二变压器【纯农排变】,高碑店市肖官营乡肖官营中学,高碑店市肖官营乡尚垡中心学校变压器,良辛庄排灌变压器【纯农排变】,马官屯南台变压器,高碑店市肖官营乡胡娄集幼儿园,高碑店市公安局变压器,胡娄集排灌二变压器【纯农排变】,兴隆庄南变压器,郭辛庄变压器,马官屯东南变压器,高碑店市肖官营乡兴隆庄中心小学,胡娄集排灌四变压器【纯农排变】","powerOffReason":"【停电原因】由于粮站分支有铁丝导致３５ＫＶ方官变电站１０ＫＶ李麻营５１４线路全线停电 【变更送电】因抢修进度加快原因，送电时间由２０：００变更为１８：００ 【发布渠道】通过９５５９８发布","powerOffId":"2020042013000333"},{"poweroffId":2020042013000322,"sgpoweroffId":null,"subsName":"","lineName":"10kV511中管头线","pubTranName":"0000005473中管头中区变压器,0000005474中管头南区变压器,中管头小学变压器,中管头中3区变压器,0000005472中管头北区变压器,中管头西2区变压器,中管头农8变压器【纯农排变】,0000005471中管头西区变压器,中管头中4区变压器,0012742813中管头中2区变压器,","scope":"【影响街道/乡镇】燕赵镇【高危重要客户】无【影响客户】中管头","startTime":"2020-04-21 06:30:00","stopDate":"2020-04-22 02:00:00","orgNo":"1340619","typeCode":"其他临时停电","poweroffArea":"【全线路停电】停0000005782中管头统管南农4号变压器,保定市南水北调工程建设委员会办公室变压器,中管头西2区变压器,0664931274-保定市南水北调工程建设委员会办公室-专变-201062655-保定市南水北调工程建设委员会办公室变压器,中管头农8变压器【纯农排变】,0000005781中管头统管北农3号变压器【纯农排变】,0000005780中管头统管西北农2号变压器,0000005783中管头统管西农5号变压器【纯农排变】,0000005471中管头西区变压器,中管头中4区变压器,0012742813中管头中2区变压器,0000005473中管头中区变压器,0000005474中管头南区变压器,袁分树冷库,中管头小学变压器,中管头中3区变压器,中管头第二冷库,中管头第一冷库,0000005472中管头北区变压器,0000006456中管头统管农6#变压器","poweroffReason":"【停电原因】由于站内开关的操作机构严重缺陷，需停电进行紧急消缺导致３５ＫＶ管头变电站１０ＫＶ５１１中管头线路全线停电【变更送电】因工作未完工原因，送电时间由２１日１６:３０变更为２２日０２:００【发布渠道】通过９５５９８发布","powerTime":"2020-04-22 01:02:32","powerComm":"已送电","subsNo":"","lineNo":"","tgNo":"","tgName":null,"infoStatus":"1","orgName":"国网曲阳县供电公司","typeName":null,"infoStatusName":null,"dateDay":null,"orgNos":null,"nowTime":null,"countyName":null,"streetName":null,"villageName":null,"roadName":null,"communityName":null,"tranName":null,"sdLineName":null,"cityCode":"1340619","cityName":"国网曲阳县供电公司","provinceCode":null,"stopTime":"2020-04-22 02:00:00","powerType":"全部","powerOffArea":"【全线路停电】停0000005782中管头统管南农4号变压器,保定市南水北调工程建设委员会办公室变压器,中管头西2区变压器,0664931274-保定市南水北调工程建设委员会办公室-专变-201062655-保定市南水北调工程建设委员会办公室变压器,中管头农8变压器【纯农排变】,0000005781中管头统管北农3号变压器【纯农排变】,0000005780中管头统管西北农2号变压器,0000005783中管头统管西农5号变压器【纯农排变】,0000005471中管头西区变压器,中管头中4区变压器,0012742813中管头中2区变压器,0000005473中管头中区变压器,0000005474中管头南区变压器,袁分树冷库,中管头小学变压器,中管头中3区变压器,中管头第二冷库,中管头第一冷库,0000005472中管头北区变压器,0000006456中管头统管农6#变压器","powerOffReason":"【停电原因】由于站内开关的操作机构严重缺陷，需停电进行紧急消缺导致３５ＫＶ管头变电站１０ＫＶ５１１中管头线路全线停电【变更送电】因工作未完工原因，送电时间由２１日１６:３０变更为２２日０２:００【发布渠道】通过９５５９８发布","powerOffId":"2020042013000322"},{"poweroffId":2020042013000320,"sgpoweroffId":null,"subsName":"","lineName":"10kV513燕赵线","pubTranName":"第五中学2变压器,燕赵农19变压器【纯农排变】,0000004957郑留营村变压器,0014436405刘堡内东2区变压器,燕赵中学1变压器,燕赵地税分局变压器,北留营农19变压器【纯农排变】,燕赵南4区变压器,燕赵农20变压器【纯农排变】,西沟南小学变压器,燕赵中学2变压器,刘堡内农5变压器【纯农排变】,0000006276北留营东,0000004954刘堡内北区变压器,0000004941北留营南变压器,0000005602西沟南北(混)变压器,北留营农13变压器【纯农排变】,0000006732刘堡内东区变压器,刘堡内农6变压器【纯农排变】,0014418536刘堡内西区,北留营南2变压器,0014324756燕赵西南区变压器,0000004975西沟南南区变压器,北留营农16变压器【纯农排变】,0000006459燕赵北2区变压器,0000005793西沟南统管南农1号变压器,燕赵派出所变压器,燕赵农18变压器【纯农排变】,0012689961北留营东2区变压器,0014444182北留营西南区,燕赵小学变压器,0000004948燕赵南区变压器,0000004968燕赵北区变压器,0014448825东沟南新增,西沟南北区变压器,燕赵镇人民政府变压器,北留营农18变压器【纯农排变】,燕赵北统管配电变压器,堡内幼儿园变压器,燕赵农16变压器【纯农排变】,刘堡内东3变压器,0000005636燕赵中区变压器,0000006581北留营中区变压器,曲阳县第五中学变压器,0014324755燕赵北4区变压器,北留营农22变压器【纯农排变】,燕赵农22变压器【纯农排变】,0013158427燕赵北3区变压器,0012892424北留营西区变压器,0000004943刘堡内中区变压器,燕赵医院变压器,北留营农17变压器【纯农排变】,0012891923中管头南2变压器,0012685601西沟南东区变压器,北留营北2区变压器,燕赵农17变压器【纯农排变】,0000004960燕赵西区变压器,北留营农20变压器,郑留营小学变压器,西沟南农3变压器【纯农排变】,0000005792郑留营统管东农1号变压器,燕赵农15变压器【纯农排变】,0000005626刘堡内统管农2变压器【纯农排变】,0000004942北留营北变压器,第五中学1变压器,0000004946燕赵东区变压器,0000006786郑留营北区,北留营小学1变压器,西沟南农4变压器【纯农排变】,北留营农15变压器【纯农排变】,北留营小学变压器,0014325935刘堡内北2区变压器,0012742818燕赵中2区变压器,郑留营东1区变压器,刘堡内西2变压器,0000005993燕赵1变压器,郑留营幼儿园变压器,北留营农21变压器1【纯农排变】,0012907904郑留营东区变压器,0000006411北留营统管农8#变压器,0014324754燕赵中3区变压器,燕赵中4区变压器,0012646108燕赵农12变压器,北留营西2区变压器,0000005797燕赵统管南农5号变压器【纯农排变】,0014466787燕赵西2区,燕赵中学变压器,西沟南北2区,","scope":"【影响街道/乡镇】燕赵镇【高危重要客户】无【影响客户】燕赵、北留营、郑留营、东沟南、西沟南、中管头部分、刘堡内","startTime":"2020-04-21 06:30:00","stopDate":"2020-04-22 02:00:00","orgNo":"1340619","typeCode":"其他临时停电","poweroffArea":"【全线路停电】停北留营农16变压器【纯农排变】,0000005791郑留营统管东农2号变压器,0000006732刘堡内东区变压器,0000005792郑留营统管东农1号变压器,0000005787北留营统管北农7号变压器,0000005789北留营统管西4号变压器,0000006786郑留营北区,北留营小学1变压器,西沟南农4变压器【纯农排变】,北留营农15变压器【纯农排变】,北留营小学变压器,0000005602西沟南北(混)变压器,0012339745刘堡内西农变压器,北留营农13变压器【纯农排变】,0000004960燕赵西区变压器,燕赵奶牛养殖基地2#,刘堡内西2变压器,北留营农20变压器,郑留营小学变压器,西沟南农3变压器【纯农排变】,燕赵农15变压器【纯农排变】,东沟南梁英2#,0000005626刘堡内统管农2变压器【纯农排变】,0000004942北留营北变压器,西沟南村张国胜,第五中学1变压器,0012339244刘堡内东农变压器,曲阳县同盛食品有限公司变压器,0000004946燕赵东区变压器,曲阳县丰磊石材雕刻厂变压器,0000005785北留营统管南农2号变压器,0000004944东沟南变压器,曲阳县刘燕物业管理有限公司变压器,0012742818燕赵中2区变压器,0000005796燕赵统管北农9号变压器【纯农排变】,曲阳县西沟南石料加工厂,燕赵农22变压器【纯农排变】,0000004975西沟南南区变压器,0000006459燕赵北2区变压器,燕赵派出所变压器,0012689961北留营东2区变压器,燕赵医院,0000004948燕赵南区变压器,燕赵农19变压器【纯农排变】,燕赵地税分局变压器,北留营农19变压器【纯农排变】,0013037903北留营农12变压器,0014325935刘堡内北2区变压器,郑留营东1区变压器,0000005993燕赵1变压器,0012891923中管头南2变压器,曲阳县第五中学变压器,0000006535北留营农9#变压器,0000006619北留营农10#变压器,0014324755燕赵北4区变压器,曲阳县农发投美丽乡村建设有限公司变压器,北留营农22变压器【纯农排变】,0013158427燕赵北3区变压器,0000005790北留营统管北农6号变压器,0012892424北留营西区变压器,0000004943刘堡内中区变压器,0014324756燕赵西南区变压器,0000005793西沟南统管南农1号变压器,0000005784北留营统管南农1号,燕赵农18变压器【纯农排变】,0014444182北留营西南区,河北博汇桥梁模板有限公司变压器,燕赵小学变压器,0000007020西沟南农2#变压器,0000005919刘堡内统管农1变压器【纯农排变】,0000005788北留营统管西农5号变压器,燕赵农16变压器【纯农排变】,西沟南小学变压器,0012958947刘堡内农4变压器【纯农排变】,0014448825东沟南新增,西沟南北区变压器,北留营农18变压器【纯农排变】,0000006407燕赵统管农10#变压器【纯农排变】,堡内幼儿园变压器,刘堡内东3变压器,燕赵奶牛养殖基地,0000004957郑留营村变压器,粮站,刘堡内王增哲,0000004941北留营南变压器,曲阳县刘堡内大理石雕刻厂变压器,北留营北2区变压器,燕赵农17变压器【纯农排变】,曲阳县西沟南石料加工厂001,0012646108燕赵农12变压器,燕赵镇人民政府变压器,0000005918刘堡内统管农3变压器【纯农排变】,燕赵北统管配电变压器,0000005798燕赵统管西农6号变压器【纯农排变】,0000005636燕赵中区变压器,0000006581北留营中区变压器,第五中学2变压器,0014436405刘堡内东2区变压器,东沟南冰棍厂（梁英）,燕赵农20变压器【纯农排变】,中国联合网络通信有限公司曲阳县分,刘堡内农5变压器【纯农排变】,0000006276北留营东,0000004954刘堡内北区变压器,燕赵医院变压器,燕赵面粉厂变压器,0000005786北留营统管西农3号变压器,北留营农17变压器【纯农排变】,0012685601西沟南东区变压器,郑留营幼儿园变压器,彭荣献面粉厂,北留营农21变压器1【纯农排变】,0012907904郑留营东区变压器,0000006411北","poweroffReason":"【停电原因】由于站内开关的操作机构严重缺陷，需停电进行紧急消缺导致３５ＫＶ管头变电站１０ＫＶ５１３燕赵线路全线停电【变更送电】因工作未完工原因，送电时间由２１日１６:３０变更为２２日０２:００【发布渠道】通过９５５９８发布","powerTime":"2020-04-22 01:02:59","powerComm":"已送电","subsNo":"","lineNo":"","tgNo":"","tgName":null,"infoStatus":"1","orgName":"国网曲阳县供电公司","typeName":null,"infoStatusName":null,"dateDay":null,"orgNos":null,"nowTime":null,"countyName":null,"streetName":null,"villageName":null,"roadName":null,"communityName":null,"tranName":null,"sdLineName":null,"cityCode":"1340619","cityName":"国网曲阳县供电公司","provinceCode":null,"stopTime":"2020-04-22 02:00:00","powerType":"全部","powerOffArea":"【全线路停电】停北留营农16变压器【纯农排变】,0000005791郑留营统管东农2号变压器,0000006732刘堡内东区变压器,0000005792郑留营统管东农1号变压器,0000005787北留营统管北农7号变压器,0000005789北留营统管西4号变压器,0000006786郑留营北区,北留营小学1变压器,西沟南农4变压器【纯农排变】,北留营农15变压器【纯农排变】,北留营小学变压器,0000005602西沟南北(混)变压器,0012339745刘堡内西农变压器,北留营农13变压器【纯农排变】,0000004960燕赵西区变压器,燕赵奶牛养殖基地2#,刘堡内西2变压器,北留营农20变压器,郑留营小学变压器,西沟南农3变压器【纯农排变】,燕赵农15变压器【纯农排变】,东沟南梁英2#,0000005626刘堡内统管农2变压器【纯农排变】,0000004942北留营北变压器,西沟南村张国胜,第五中学1变压器,0012339244刘堡内东农变压器,曲阳县同盛食品有限公司变压器,0000004946燕赵东区变压器,曲阳县丰磊石材雕刻厂变压器,0000005785北留营统管南农2号变压器,0000004944东沟南变压器,曲阳县刘燕物业管理有限公司变压器,0012742818燕赵中2区变压器,0000005796燕赵统管北农9号变压器【纯农排变】,曲阳县西沟南石料加工厂,燕赵农22变压器【纯农排变】,0000004975西沟南南区变压器,0000006459燕赵北2区变压器,燕赵派出所变压器,0012689961北留营东2区变压器,燕赵医院,0000004948燕赵南区变压器,燕赵农19变压器【纯农排变】,燕赵地税分局变压器,北留营农19变压器【纯农排变】,0013037903北留营农12变压器,0014325935刘堡内北2区变压器,郑留营东1区变压器,0000005993燕赵1变压器,0012891923中管头南2变压器,曲阳县第五中学变压器,0000006535北留营农9#变压器,0000006619北留营农10#变压器,0014324755燕赵北4区变压器,曲阳县农发投美丽乡村建设有限公司变压器,北留营农22变压器【纯农排变】,0013158427燕赵北3区变压器,0000005790北留营统管北农6号变压器,0012892424北留营西区变压器,0000004943刘堡内中区变压器,0014324756燕赵西南区变压器,0000005793西沟南统管南农1号变压器,0000005784北留营统管南农1号,燕赵农18变压器【纯农排变】,0014444182北留营西南区,河北博汇桥梁模板有限公司变压器,燕赵小学变压器,0000007020西沟南农2#变压器,0000005919刘堡内统管农1变压器【纯农排变】,0000005788北留营统管西农5号变压器,燕赵农16变压器【纯农排变】,西沟南小学变压器,0012958947刘堡内农4变压器【纯农排变】,0014448825东沟南新增,西沟南北区变压器,北留营农18变压器【纯农排变】,0000006407燕赵统管农10#变压器【纯农排变】,堡内幼儿园变压器,刘堡内东3变压器,燕赵奶牛养殖基地,0000004957郑留营村变压器,粮站,刘堡内王增哲,0000004941北留营南变压器,曲阳县刘堡内大理石雕刻厂变压器,北留营北2区变压器,燕赵农17变压器【纯农排变】,曲阳县西沟南石料加工厂001,0012646108燕赵农12变压器,燕赵镇人民政府变压器,0000005918刘堡内统管农3变压器【纯农排变】,燕赵北统管配电变压器,0000005798燕赵统管西农6号变压器【纯农排变】,0000005636燕赵中区变压器,0000006581北留营中区变压器,第五中学2变压器,0014436405刘堡内东2区变压器,东沟南冰棍厂（梁英）,燕赵农20变压器【纯农排变】,中国联合网络通信有限公司曲阳县分,刘堡内农5变压器【纯农排变】,0000006276北留营东,0000004954刘堡内北区变压器,燕赵医院变压器,燕赵面粉厂变压器,0000005786北留营统管西农3号变压器,北留营农17变压器【纯农排变】,0012685601西沟南东区变压器,郑留营幼儿园变压器,彭荣献面粉厂,北留营农21变压器1【纯农排变】,0012907904郑留营东区变压器,0000006411北","powerOffReason":"【停电原因】由于站内开关的操作机构严重缺陷，需停电进行紧急消缺导致３５ＫＶ管头变电站１０ＫＶ５１３燕赵线路全线停电【变更送电】因工作未完工原因，送电时间由２１日１６:３０变更为２２日０２:００【发布渠道】通过９５５９８发布","powerOffId":"2020042013000320"}],"pageModel":{"pageNow":155,"totalCount":10973,"totalPage":1098,"tableRows":0,"pageCount":10,"beginCount":1540},"isExperi":"1"}