{"message":"","today":"2020-06-15","seleList":[{"poweroffId":2020042013000203,"sgpoweroffId":null,"subsName":"","lineName":"10kV杨家务线512","pubTranName":"军庄北变压器,东义合西南,东务新北变压器,韩庄西变压器,马东变压器,东务村北2,西仓东,韩庄变压器,","scope":"【影响街道/乡镇】方官镇、新城镇、肖官营乡 【高危重要客户】无 【影响客户】马东村、马西村、雷李庄村、肖鱼池村、袁家营村、金东村（金钗营）、金中村、李庄村、毛庄村、东仓村、西仓村、韩庄村、张庄村、西义合村、东宋村、东务村、东义合村、军庄村、石辛庄村、西宋村、西务村、天津通鼓风机有限公司、河北高碑店市鼓风机厂、河北高鼓环保设备有限公司、河北鑫宏远冶金设备制造有限公司、高碑店市宏润风机制造有限公司、高碑店市红日风机厂、河北腾浩风机制造有限公司、高碑店市工业风机制造厂、鸿旭金属粉末加工有限公司、河北科隆风机有限公司、中国移动通信高碑店分公司、保定富瑞康管道有限公司","startTime":"2020-04-20 10:40:00","stopDate":"2020-04-20 12:00:00","orgNo":"1340612","typeCode":"电网故障停限电","poweroffArea":"【全线路停电】停韩庄北地变压器【纯农排变】,张庄变压器,肖鱼池变压器,东宋地变压器【纯农排变】,东宋变压器,军庄东变压器,西务地3变压器【纯农排变】,西义合变压器,毛庄北地变压器,中国移动通信集体河北有限公司高碑店分公司,东务地变压器【纯农排变】,马东变压器,西义合地2变压器,东务变压器,金东地变压器【纯农排变】,0610660612-高碑店市科隆商贸有限公司-专变-223551278-河北科隆风机有限公司变压器,保定富瑞康管道有限公司,韩庄南水变压器【纯农排变】,东务村北2,毛庄变压器,毛庄西变压器,西仓东,西义合地变压器【纯农排变】,东务新北变压器,东务村南变压器,河北高碑店市鼓风机厂变压器,金东西变压器,东务西变压器,军庄地变压器【纯农排变】,0387449762-天津通鼓风机有限公司河北分公司-专变-226995247-天津风机五厂变压器,肖鱼池地变压器,韩庄变压器,金柴营变压器,东义合水3变压器,西宋南变压器,军庄西变压器,石辛庄水3变压器,西务变压器,李庄地2变压器【纯农排变】,石辛庄变压器,韩庄东南水变压器【纯农排变】,东务南变压器【纯农排变】,东仓地2变压器【纯农排变】,西仓村2变压器,高碑店市鸿旭金属粉末加工有限公司,西务北变压器,西务南变压器,东义合水2变压器,西仓地变压器【纯农排变】,金中变压器,西务地6变压器【纯农排变】,东务地2变压器【纯农排变】,东仓地变压器【纯农排变】,西务地5变压器【纯农排变】,马西变压器,金东地2变压器【纯农排变】,西务地变压器【纯农排变】,天津风机五厂(谷1),韩庄西变压器,东义合地变压器,西仓地2变压器【纯农排变】,东仓变压器,雷李庄变压器,马东北地变压器【纯农排变】,韩庄水变压器【纯农排变】,西仓变压器,河北鑫宏远冶金设备制造有限公司变压器,军庄新地变压器,西加录地变压器【纯农排变】,西务新地变压器,东义合变压器,李庄变压器512线,河北高鼓环保设备有限公司,东宋排灌变压器,石辛庄水4变压器,军庄北变压器,肖鱼池东变压器,李庄北变压器,李庄浇地变压器【纯农排变】,军庄北地变压器【纯农排变】,金东新变压器,东宋南水变压器,石辛庄地变压器【纯农排变】,东义合西南,高碑店市鸿旭金属粉末加工有限公司变压器,东务北变压器,张庄水变压器,李庄西变压器,西宋变压器,马东东变压器,马东南地变压器【纯农排变】,西务地4变压器【纯农排变】","poweroffReason":"【停电原因】由于李庄分支１１号杆有铁丝导致３５ＫＶ加录变电站１０ＫＶ杨家务５１２线路全线停电 【变更送电】因抢修进度加快原因，送电时间由１３：００变更为１２：００ 【发布渠道】通过９５５９８发布","powerTime":"2020-04-20 11:49:47","powerComm":"已送电","subsNo":"","lineNo":"","tgNo":"","tgName":null,"infoStatus":"1","orgName":"国网高碑店市供电公司","typeName":null,"infoStatusName":null,"dateDay":null,"orgNos":null,"nowTime":null,"countyName":null,"streetName":null,"villageName":null,"roadName":null,"communityName":null,"tranName":null,"sdLineName":null,"cityCode":"1340612","cityName":"国网高碑店市供电公司","provinceCode":null,"stopTime":"2020-04-20 12:00:00","powerType":"全部","powerOffArea":"【全线路停电】停韩庄北地变压器【纯农排变】,张庄变压器,肖鱼池变压器,东宋地变压器【纯农排变】,东宋变压器,军庄东变压器,西务地3变压器【纯农排变】,西义合变压器,毛庄北地变压器,中国移动通信集体河北有限公司高碑店分公司,东务地变压器【纯农排变】,马东变压器,西义合地2变压器,东务变压器,金东地变压器【纯农排变】,0610660612-高碑店市科隆商贸有限公司-专变-223551278-河北科隆风机有限公司变压器,保定富瑞康管道有限公司,韩庄南水变压器【纯农排变】,东务村北2,毛庄变压器,毛庄西变压器,西仓东,西义合地变压器【纯农排变】,东务新北变压器,东务村南变压器,河北高碑店市鼓风机厂变压器,金东西变压器,东务西变压器,军庄地变压器【纯农排变】,0387449762-天津通鼓风机有限公司河北分公司-专变-226995247-天津风机五厂变压器,肖鱼池地变压器,韩庄变压器,金柴营变压器,东义合水3变压器,西宋南变压器,军庄西变压器,石辛庄水3变压器,西务变压器,李庄地2变压器【纯农排变】,石辛庄变压器,韩庄东南水变压器【纯农排变】,东务南变压器【纯农排变】,东仓地2变压器【纯农排变】,西仓村2变压器,高碑店市鸿旭金属粉末加工有限公司,西务北变压器,西务南变压器,东义合水2变压器,西仓地变压器【纯农排变】,金中变压器,西务地6变压器【纯农排变】,东务地2变压器【纯农排变】,东仓地变压器【纯农排变】,西务地5变压器【纯农排变】,马西变压器,金东地2变压器【纯农排变】,西务地变压器【纯农排变】,天津风机五厂(谷1),韩庄西变压器,东义合地变压器,西仓地2变压器【纯农排变】,东仓变压器,雷李庄变压器,马东北地变压器【纯农排变】,韩庄水变压器【纯农排变】,西仓变压器,河北鑫宏远冶金设备制造有限公司变压器,军庄新地变压器,西加录地变压器【纯农排变】,西务新地变压器,东义合变压器,李庄变压器512线,河北高鼓环保设备有限公司,东宋排灌变压器,石辛庄水4变压器,军庄北变压器,肖鱼池东变压器,李庄北变压器,李庄浇地变压器【纯农排变】,军庄北地变压器【纯农排变】,金东新变压器,东宋南水变压器,石辛庄地变压器【纯农排变】,东义合西南,高碑店市鸿旭金属粉末加工有限公司变压器,东务北变压器,张庄水变压器,李庄西变压器,西宋变压器,马东东变压器,马东南地变压器【纯农排变】,西务地4变压器【纯农排变】","powerOffReason":"【停电原因】由于李庄分支１１号杆有铁丝导致３５ＫＶ加录变电站１０ＫＶ杨家务５１２线路全线停电 【变更送电】因抢修进度加快原因，送电时间由１３：００变更为１２：００ 【发布渠道】通过９５５９８发布","powerOffId":"2020042013000203"},{"poweroffId":2020042013000180,"sgpoweroffId":null,"subsName":"","lineName":"10kV车屯线515","pubTranName":"车屯东南变压器,","scope":"【影响街道/乡镇】肖官营镇 【高危重要客户】无 【影响客户】车屯村","startTime":"2020-04-20 10:00:00","stopDate":"2020-04-20 13:30:00","orgNo":"1340612","typeCode":"电网故障停限电","poweroffArea":"【单台区停电】停车屯东南变压器","poweroffReason":"【停电原因】由于弓子线烧毁导致３５ＫＶ方官变电站１０ＫＶ车屯５１５线路车屯东南公变台区停电 【变更送电】因抢修进度加快原因，送电时间由１６：００变更为１３：３０ 【发布渠道】通过９５５９８发布","powerTime":"2020-04-20 13:03:55","powerComm":"已送电","subsNo":"","lineNo":"","tgNo":"","tgName":null,"infoStatus":"1","orgName":"国网高碑店市供电公司","typeName":null,"infoStatusName":null,"dateDay":null,"orgNos":null,"nowTime":null,"countyName":null,"streetName":null,"villageName":null,"roadName":null,"communityName":null,"tranName":null,"sdLineName":null,"cityCode":"1340612","cityName":"国网高碑店市供电公司","provinceCode":null,"stopTime":"2020-04-20 13:30:00","powerType":"全部","powerOffArea":"【单台区停电】停车屯东南变压器","powerOffReason":"【停电原因】由于弓子线烧毁导致３５ＫＶ方官变电站１０ＫＶ车屯５１５线路车屯东南公变台区停电 【变更送电】因抢修进度加快原因，送电时间由１６：００变更为１３：３０ 【发布渠道】通过９５５９８发布","powerOffId":"2020042013000180"},{"poweroffId":2020042013000148,"sgpoweroffId":null,"subsName":"","lineName":"10KV铜矿512","pubTranName":"太平村河西岗台区,蔡树庵机井,河西机井2,保定市恒通水电矿产资源开发有限公司新增变压器,中国移动通信集团河北有限公司涞水分公司50KVA专变,大龙门村南,杏黄铁矿,太平村林里,北龙门村东,东升选厂井,河北野三坡旅游投资有限公司新增变压器200KVA,恒通六号坑口,大龙门村,北庄村西,北庄村内,恒通六号坑2,恒通六号坑口1#,北龙门北港,北庄村西二台区变压器,大龙门北河沿,大龙门西城门,太平村村内,万源铁矿,太平村大楼台区,河北野三坡旅游投资有限公司新增变压器,杏黄铁矿2号,北庄天一居台区变压器,北庄村内二台区变压器,龙门天关(1),北龙门桥头台区,蔡树庵村,龙门天关(3),杏黄村,太平村大台,白龙潭金矿,河西机井,恒泰矿业机井,恒泰矿业公司,宏利选矿厂,宏利选矿厂1,太平村五里铺,蔡树庵庄户涧,桑园涧林场,北龙门村,北庄台,河北野三坡旅游投资有限公司新增变压器1#,河西村,桑园涧林场250KVA专变,北庄横儿岭,北龙门村北,恒泰矿业公司1,镇厂大街4台区,太平村林里新台区,镇厂镇政府台区,下杏黄1台区,宏利选矿三厂,","scope":"【影响街道/乡镇】九龙镇 【高危重要客户】无 【影响客户】北庄村、河西村、太平村、北龙门村、大龙门村、杏黄村、蔡树庵村","startTime":"2020-04-20 09:23:47","stopDate":"2020-04-20 12:00:00","orgNo":"1340614","typeCode":"电网故障停限电","poweroffArea":"【全线路停电】停大龙门村南,杏黄铁矿,太平村林里,北龙门村东,东升选厂井,太平村大台,白龙潭金矿,河西机井,恒泰矿业机井,恒泰矿业公司,宏利选矿厂,宏利选矿厂1,太平村五里铺,蔡树庵庄户涧,桑园涧林场,北龙门村,北庄台,河北野三坡旅游投资有限公司新增变压器1#,河西村,桑园涧林场250KVA专变,北庄横儿岭,北龙门村北,恒泰矿业公司1,镇厂大街4台区,太平村林里新台区,镇厂镇政府台区,下杏黄1台区,宏利选矿三厂,蔡树庵机井,河西机井2,保定市恒通水电矿产资源开发有限公司新增变压器,中国移动通信集团河北有限公司涞水分公司50KVA专变,河北野三坡旅游投资有限公司新增变压器200KVA,恒通六号坑口,大龙门村,北庄村西,北庄村内,恒通六号坑2,恒通六号坑口1#,北龙门北港,北庄村西二台区变压器,大龙门北河沿,大龙门西城门,太平村村内,万源铁矿,太平村大楼台区,河北野三坡旅游投资有限公司新增变压器,杏黄铁矿2号,北庄天一居台区变压器,北庄村内二台区变压器,龙门天关(1),北龙门桥头台区,蔡树庵村,龙门天关(3),杏黄村,太平村河西岗台区","poweroffReason":"【停电原因】由于速断跳闸导致３５ＫＶ镇厂变电站１０ＫＶ铜矿５１２线路全线停电 【变更送电】无 【发布渠道】通过９５５９８发布","powerTime":"2020-04-20 11:02:21","powerComm":"已送电","subsNo":"","lineNo":"","tgNo":"","tgName":null,"infoStatus":"1","orgName":"国网涞水县供电公司","typeName":null,"infoStatusName":null,"dateDay":null,"orgNos":null,"nowTime":null,"countyName":null,"streetName":null,"villageName":null,"roadName":null,"communityName":null,"tranName":null,"sdLineName":null,"cityCode":"1340614","cityName":"国网涞水县供电公司","provinceCode":null,"stopTime":"2020-04-20 12:00:00","powerType":"全部","powerOffArea":"【全线路停电】停大龙门村南,杏黄铁矿,太平村林里,北龙门村东,东升选厂井,太平村大台,白龙潭金矿,河西机井,恒泰矿业机井,恒泰矿业公司,宏利选矿厂,宏利选矿厂1,太平村五里铺,蔡树庵庄户涧,桑园涧林场,北龙门村,北庄台,河北野三坡旅游投资有限公司新增变压器1#,河西村,桑园涧林场250KVA专变,北庄横儿岭,北龙门村北,恒泰矿业公司1,镇厂大街4台区,太平村林里新台区,镇厂镇政府台区,下杏黄1台区,宏利选矿三厂,蔡树庵机井,河西机井2,保定市恒通水电矿产资源开发有限公司新增变压器,中国移动通信集团河北有限公司涞水分公司50KVA专变,河北野三坡旅游投资有限公司新增变压器200KVA,恒通六号坑口,大龙门村,北庄村西,北庄村内,恒通六号坑2,恒通六号坑口1#,北龙门北港,北庄村西二台区变压器,大龙门北河沿,大龙门西城门,太平村村内,万源铁矿,太平村大楼台区,河北野三坡旅游投资有限公司新增变压器,杏黄铁矿2号,北庄天一居台区变压器,北庄村内二台区变压器,龙门天关(1),北龙门桥头台区,蔡树庵村,龙门天关(3),杏黄村,太平村河西岗台区","powerOffReason":"【停电原因】由于速断跳闸导致３５ＫＶ镇厂变电站１０ＫＶ铜矿５１２线路全线停电 【变更送电】无 【发布渠道】通过９５５９８发布","powerOffId":"2020042013000148"},{"poweroffId":2020042013000124,"sgpoweroffId":null,"subsName":"","lineName":"10kV522富奥线","pubTranName":"河北蠡县双健经编厂,","scope":"【影响街道/乡镇】万安镇【高危重要客户】无【影响客户】富奥纺织有限公司","startTime":"2020-04-29 06:00:00","stopDate":"2020-04-29 18:00:00","orgNo":"1340616","typeCode":"计划停电","poweroffArea":"【全线路停电】停蠡县双建经编有限公司变压器,保定富奥纺织有限公司变压器,河北蠡县双健经编厂","poweroffReason":"【停电原因】由于更换电杆、更换导线、安装开关导致１１０ＫＶ刘铭庄变电站１０ＫＶ富奥５２２线路全线停电【变更送电】无【发布渠道】蠡县电视台（２０２０年０４月２０日至２０２０年０４月２８日２０：００至２２：００之间）屏幕上方滚动","powerTime":"2020-04-29 17:46:04","powerComm":"已送电","subsNo":"","lineNo":"","tgNo":"","tgName":null,"infoStatus":"1","orgName":"国网蠡县供电公司","typeName":null,"infoStatusName":null,"dateDay":null,"orgNos":null,"nowTime":null,"countyName":null,"streetName":null,"villageName":null,"roadName":null,"communityName":null,"tranName":null,"sdLineName":null,"cityCode":"1340616","cityName":"国网蠡县供电公司","provinceCode":null,"stopTime":"2020-04-29 18:00:00","powerType":"全部","powerOffArea":"【全线路停电】停蠡县双建经编有限公司变压器,保定富奥纺织有限公司变压器,河北蠡县双健经编厂","powerOffReason":"【停电原因】由于更换电杆、更换导线、安装开关导致１１０ＫＶ刘铭庄变电站１０ＫＶ富奥５２２线路全线停电【变更送电】无【发布渠道】蠡县电视台（２０２０年０４月２０日至２０２０年０４月２８日２０：００至２２：００之间）屏幕上方滚动","powerOffId":"2020042013000124"},{"poweroffId":2020042013000112,"sgpoweroffId":null,"subsName":"","lineName":"10kV524元南线","pubTranName":"元南综合10台区,杨南农排5台区【纯农排变】,元南综合11台区,元东农排6台区【纯农排变】,元南综合12台区,元南综合1台区,元南综合2台区,元东农排9台区【纯农排变】,元东综合11台区,元东综合1台区,杨西农排4台区【纯农排变】,元东综合6台区,元东综合2台区,元东农排3台区【纯农排变】,元南综合6台区,元南综合9台区,杨南农排7台区【纯农排变】,杨东农排7台区【纯农排变】,元南农排6台区【纯农排变】,元东综合8台区,元南综合5台区,元南农排5台区【纯农排变】,元南农排2台区【纯农排变】,元南农排1台区【纯农排变】,元营农排8台区【纯农排变】,元东农排4台区【纯农排变】,元东农排5台区【纯农排变】,元东农排10台区【纯农排变】,杨西农排10台区【纯农排变】,元东综合10台区,元南综合8台区,元东农排1台区【纯农排变】,元南农排4台区【纯农排变】,杨南农排6台区【纯农排变】,元南综合4台区,元南农排3台区【纯农排变】,元南综合7台区,元东综合9台区,元南农排8台区【纯农排变】,杨南农排9台区【纯农排变】,元东综合4台区,元南综合3台区,","scope":"【影响街道/乡镇】桑元镇【高危重要客户】无【影响客户】元南村、元东村","startTime":"2020-04-29 06:00:00","stopDate":"2020-04-29 18:00:00","orgNo":"1340616","typeCode":"计划停电","poweroffArea":"【全线路停电】停元南综合4台区,元东农排3台区【纯农排变】,元东综合1台区,元东农排2台区【纯农排变】,蠡县森源材料有限公司,元营农排8台区【纯农排变】,杨南农排7台区【纯农排变】,元南综合12台区,元东综合11台区,元东农排1台区【纯农排变】,元东综合10台区,元东综合8台区,元南综合3台区,元南综合7台区,元东农排6台区【纯农排变】,蠡县双蚨盛,元南综合2台区,元南农排6台区【纯农排变】,保定美雅纺织有限公司变压器,元南农排4台区【纯农排变】,蠡县森源材料有限公司变压器,元南综合1台区,杨南农排6台区【纯农排变】,元东综合4台区,蠡县贺林农资门市部,元东综合9台区,恒威变压器,元东综合6台区,杨南农排9台区【纯农排变】,元南综合11台区,元南综合9台区,元南农排3台区【纯农排变】,杨西农排4台区【纯农排变】,蠡县勤学毛纺厂,友谊纺织,鹤祥种业养殖公司,杨南农排5台区【纯农排变】,元南综合10台区,元东农排4台区【纯农排变】,元东农排10台区【纯农排变】,元南农排2台区【纯农排变】,元南农排5台区【纯农排变】,蠡县睿霖染化有限公司,元南农排1台区【纯农排变】,杨东农排7台区【纯农排变】,双兴公司,元南综合6台区,元东农排9台区【纯农排变】,元东综合2台区,雅尔公司,杨西农排10台区【纯农排变】,元南综合8台区,元南综合5台区,元南农排8台区【纯农排变】,元东农排5台区【纯农排变】","poweroffReason":"【停电原因】由于更换电杆、更换导线、安装开关导致１１０ＫＶ刘铭庄变电站１０ＫＶ元南５２４线路全线停电【变更送电】无【发布渠道】蠡县电视台（２０２０年０４月２０日至２０２０年０４月２８日２０：００至２２：００之间）屏幕上方滚动","powerTime":"2020-04-29 17:46:15","powerComm":"已送电","subsNo":"","lineNo":"","tgNo":"","tgName":null,"infoStatus":"1","orgName":"国网蠡县供电公司","typeName":null,"infoStatusName":null,"dateDay":null,"orgNos":null,"nowTime":null,"countyName":null,"streetName":null,"villageName":null,"roadName":null,"communityName":null,"tranName":null,"sdLineName":null,"cityCode":"1340616","cityName":"国网蠡县供电公司","provinceCode":null,"stopTime":"2020-04-29 18:00:00","powerType":"全部","powerOffArea":"【全线路停电】停元南综合4台区,元东农排3台区【纯农排变】,元东综合1台区,元东农排2台区【纯农排变】,蠡县森源材料有限公司,元营农排8台区【纯农排变】,杨南农排7台区【纯农排变】,元南综合12台区,元东综合11台区,元东农排1台区【纯农排变】,元东综合10台区,元东综合8台区,元南综合3台区,元南综合7台区,元东农排6台区【纯农排变】,蠡县双蚨盛,元南综合2台区,元南农排6台区【纯农排变】,保定美雅纺织有限公司变压器,元南农排4台区【纯农排变】,蠡县森源材料有限公司变压器,元南综合1台区,杨南农排6台区【纯农排变】,元东综合4台区,蠡县贺林农资门市部,元东综合9台区,恒威变压器,元东综合6台区,杨南农排9台区【纯农排变】,元南综合11台区,元南综合9台区,元南农排3台区【纯农排变】,杨西农排4台区【纯农排变】,蠡县勤学毛纺厂,友谊纺织,鹤祥种业养殖公司,杨南农排5台区【纯农排变】,元南综合10台区,元东农排4台区【纯农排变】,元东农排10台区【纯农排变】,元南农排2台区【纯农排变】,元南农排5台区【纯农排变】,蠡县睿霖染化有限公司,元南农排1台区【纯农排变】,杨东农排7台区【纯农排变】,双兴公司,元南综合6台区,元东农排9台区【纯农排变】,元东综合2台区,雅尔公司,杨西农排10台区【纯农排变】,元南综合8台区,元南综合5台区,元南农排8台区【纯农排变】,元东农排5台区【纯农排变】","powerOffReason":"【停电原因】由于更换电杆、更换导线、安装开关导致１１０ＫＶ刘铭庄变电站１０ＫＶ元南５２４线路全线停电【变更送电】无【发布渠道】蠡县电视台（２０２０年０４月２０日至２０２０年０４月２８日２０：００至２２：００之间）屏幕上方滚动","powerOffId":"2020042013000112"},{"poweroffId":2020042013000107,"sgpoweroffId":null,"subsName":"","lineName":"10kV黄陀线528","pubTranName":"1黄陀内6,南候内2号,南侯村内5,南候内3号,1南侯内12,1大福村内17,1南侯村内8,黄陀村内4,南候内1号,1南侯内10,1南侯村内7,1南侯村内6,1南侯内9,1南侯内11,1黄陀内12,南候小学,南候内4号,","scope":"【影响街道/乡镇】石桥乡、清苑镇 【高危重要客户】无 【影响客户】黄陀村、南侯村、大福村","startTime":"2020-04-29 05:30:00","stopDate":"2020-04-29 18:00:00","orgNo":"1340618","typeCode":"计划停电","poweroffArea":"【分支停电】停1南侯内10,1南侯村内7,2南侯外12【纯农排变】,1大福村内17,1南侯村内8,南候内1号,2南候外8【纯农排变】,2南候外7【纯农排变】,南候外1【纯农排变】,黄陀村内4,2南侯外9【纯农排变】,黄陀村内1号,2黄陀外3黄陀外4【纯农排变】,黄陀外22【纯农排变】,1黄陀内6,2南侯外13【纯农排变】,南候内2号,1黄陀内7,南候外6【纯农排变】,南侯村内5,南候内3号,1南侯内12,2南侯外14【纯农排变】,2黄陀外18【纯农排变】,南候刘金良,1南侯村内6,2南侯外11【纯农排变】,南候外2【纯农排变】,南候外3【纯农排变】,1南侯内9,1南侯内11,1黄陀内12,南候小学,南候外5【纯农排变】,2南侯外10【纯农排变】,2南候外4【纯农排变】,南候内4号","poweroffReason":"【停电原因】由于线路改造导致１１０ＫＶ中冉变电站１０ＫＶ黄陀线５２８线路主干７３号杆分支５４号杆至８３号杆停电 【变更送电】无 【发布渠道】保定市清苑区电视台（２０２０年０４月２１日１９时至２０２０年０４月２８日２０时之间）屏幕上方滚动","powerTime":"2020-04-29 17:39:55","powerComm":"张倩通知已送电","subsNo":"","lineNo":"","tgNo":"","tgName":null,"infoStatus":"1","orgName":"国网清苑县供电公司","typeName":null,"infoStatusName":null,"dateDay":null,"orgNos":null,"nowTime":null,"countyName":null,"streetName":null,"villageName":null,"roadName":null,"communityName":null,"tranName":null,"sdLineName":null,"cityCode":"1340618","cityName":"国网清苑县供电公司","provinceCode":null,"stopTime":"2020-04-29 18:00:00","powerType":"全部","powerOffArea":"【分支停电】停1南侯内10,1南侯村内7,2南侯外12【纯农排变】,1大福村内17,1南侯村内8,南候内1号,2南候外8【纯农排变】,2南候外7【纯农排变】,南候外1【纯农排变】,黄陀村内4,2南侯外9【纯农排变】,黄陀村内1号,2黄陀外3黄陀外4【纯农排变】,黄陀外22【纯农排变】,1黄陀内6,2南侯外13【纯农排变】,南候内2号,1黄陀内7,南候外6【纯农排变】,南侯村内5,南候内3号,1南侯内12,2南侯外14【纯农排变】,2黄陀外18【纯农排变】,南候刘金良,1南侯村内6,2南侯外11【纯农排变】,南候外2【纯农排变】,南候外3【纯农排变】,1南侯内9,1南侯内11,1黄陀内12,南候小学,南候外5【纯农排变】,2南侯外10【纯农排变】,2南候外4【纯农排变】,南候内4号","powerOffReason":"【停电原因】由于线路改造导致１１０ＫＶ中冉变电站１０ＫＶ黄陀线５２８线路主干７３号杆分支５４号杆至８３号杆停电 【变更送电】无 【发布渠道】保定市清苑区电视台（２０２０年０４月２１日１９时至２０２０年０４月２８日２０时之间）屏幕上方滚动","powerOffId":"2020042013000107"},{"poweroffId":2020042013000102,"sgpoweroffId":null,"subsName":"","lineName":"加录线521","pubTranName":"王瓜园南变压器,南衣巾07号变压器,王马街03号变压器,南衣巾12号变压器,赵庄东1变压器,南衣巾10号变压器,王马街01号变压器,南衣巾04号变压器,南衣巾05号变压器,王马街05号变压器,赵庄北1变压器,南衣巾03号变压器,南衣巾09号变压器,南衣巾08号变压器,南衣巾01号变压器,南衣巾11号变压器,王马街02号变压器,南衣巾02号变压器,五北北变压器,王马街06号变压器,王马街04号变压器,新城北关东变压器,","scope":"【影响街道/乡镇】新城镇、方官镇、梁家营镇 【高危重要客户】无 【影响客户】孙家湾村、七里铺村、五南村、五北村、解家营村、凡庄村、王瓜园村、北关市场、南衣巾村、王马街村、华家店、方庄村、湛杨庄村、赵庄村、崔学刚、北关煤厂、北关面粉厂、杨振鹏、方官镇污水处理有限公司、湛杨庄中心小学","startTime":"2020-04-29 06:00:00","stopDate":"2020-04-29 18:00:00","orgNo":"1340612","typeCode":"计划停电","poweroffArea":"【全线路停电】停赵庄北1变压器,南衣巾03号变压器,南衣巾01号变压器,王马街02号变压器,南衣巾02号变压器,五北北变压器,王马街06号变压器,南衣巾09号变压器,南衣巾11号变压器,新城北关东变压器,南衣巾07号变压器,王马街03号变压器,南衣巾12号变压器,赵庄东1变压器,南衣巾10号变压器,王马街01号变压器,南衣巾04号变压器,南衣巾05号变压器,王马街05号变压器,南衣巾08号变压器,王马街04号变压器,南衣巾水变压器【纯农排变】,五南南台变压器,王马街西水变压器【纯农排变】,方庄变压器,方庄北变压器,北关北变压器,北场水变压器,七里铺水变压器,解家营变压器,五北变压器,孙家湾水变压器【纯农排变】,南衣巾06号变压器,方庄西水变压器【纯农排变】,凡庄变压器,变压器,赵庄南变压器,扬庄东变压器,赵庄北变压器（新城）,五南变压器,客户投资_王瓜园变压器,崔学刚北关煤厂,北关面粉厂,花家店东变压器,汇通路桥建设集团再生水建设有限公司变压器02,汇通路桥建设集团再生水建设有限公司变压器01,花家店水变压器【纯农排变】,赵庄水变压器【纯农排变】,高碑店市嘉嘉物业服务有限公司,孙家湾变压器,赵庄变压器,华家店村用变压器,赵庄东变压器,七里铺变压器,杨庄西水变压器【纯农排变】,五北东水变压器【纯农排变】,孙家湾水2变压器,北关市场变压器,杨振鹏、杨庄东水2变压器,解家营南柱上变压器,扬庄变压器,王马街东水变压器【纯农排变】,高碑店市梁家营乡湛杨庄中心小学变压器,王瓜园南变压器,五南水变压器【纯农排变】,方庄水变压器【纯农排变】","poweroffReason":"【停电原因】由于更换导线导致１１０ＫＶ太平庄变电站１０ＫＶ加录５２１线路全线停电 【变更送电】无 【发布渠道】高碑店电视台（４月２１日８:００至４月２８日１６:００）屏幕上方滚动播出","powerTime":"2020-04-29 17:57:51","powerComm":"已送电","subsNo":"","lineNo":"","tgNo":"","tgName":null,"infoStatus":"1","orgName":"国网高碑店市供电公司","typeName":null,"infoStatusName":null,"dateDay":null,"orgNos":null,"nowTime":null,"countyName":null,"streetName":null,"villageName":null,"roadName":null,"communityName":null,"tranName":null,"sdLineName":null,"cityCode":"1340612","cityName":"国网高碑店市供电公司","provinceCode":null,"stopTime":"2020-04-29 18:00:00","powerType":"全部","powerOffArea":"【全线路停电】停赵庄北1变压器,南衣巾03号变压器,南衣巾01号变压器,王马街02号变压器,南衣巾02号变压器,五北北变压器,王马街06号变压器,南衣巾09号变压器,南衣巾11号变压器,新城北关东变压器,南衣巾07号变压器,王马街03号变压器,南衣巾12号变压器,赵庄东1变压器,南衣巾10号变压器,王马街01号变压器,南衣巾04号变压器,南衣巾05号变压器,王马街05号变压器,南衣巾08号变压器,王马街04号变压器,南衣巾水变压器【纯农排变】,五南南台变压器,王马街西水变压器【纯农排变】,方庄变压器,方庄北变压器,北关北变压器,北场水变压器,七里铺水变压器,解家营变压器,五北变压器,孙家湾水变压器【纯农排变】,南衣巾06号变压器,方庄西水变压器【纯农排变】,凡庄变压器,变压器,赵庄南变压器,扬庄东变压器,赵庄北变压器（新城）,五南变压器,客户投资_王瓜园变压器,崔学刚北关煤厂,北关面粉厂,花家店东变压器,汇通路桥建设集团再生水建设有限公司变压器02,汇通路桥建设集团再生水建设有限公司变压器01,花家店水变压器【纯农排变】,赵庄水变压器【纯农排变】,高碑店市嘉嘉物业服务有限公司,孙家湾变压器,赵庄变压器,华家店村用变压器,赵庄东变压器,七里铺变压器,杨庄西水变压器【纯农排变】,五北东水变压器【纯农排变】,孙家湾水2变压器,北关市场变压器,杨振鹏、杨庄东水2变压器,解家营南柱上变压器,扬庄变压器,王马街东水变压器【纯农排变】,高碑店市梁家营乡湛杨庄中心小学变压器,王瓜园南变压器,五南水变压器【纯农排变】,方庄水变压器【纯农排变】","powerOffReason":"【停电原因】由于更换导线导致１１０ＫＶ太平庄变电站１０ＫＶ加录５２１线路全线停电 【变更送电】无 【发布渠道】高碑店电视台（４月２１日８:００至４月２８日１６:００）屏幕上方滚动播出","powerOffId":"2020042013000102"},{"poweroffId":2020042013000099,"sgpoweroffId":null,"subsName":"","lineName":"阳光线521","pubTranName":"电力花园3号箱变间隔配电变压器,闫家务南变压器,职中变压器,建安公寓公变,农发行公变,付庄3变压器,闫家务东1变压器,电力花园1号箱变间隔配电变压器,付庄小区箱变变压器,建安变压器,锅炉厂公变,付庄2变压器,环岛公变变压器,付庄1变压器,闫家务南1变压器,富民路公变变压器,检察院公变1,付庄变压器,电力花园2号箱变间隔配电变压器,新世纪公变,邮政储蓄小区变压器,付庄小区变压器,老地税公变,付庄东变压器,付庄北台变压器,","scope":"【影响街道/乡镇】迎宾东路、新昌大街、光华南大街、兴文街、文苑路、富民路、民欣胡同、迎宾路东环岛 【高危重要客户】卫生和计划生育局、中国人民银行、检察院 【影响客户】付庄村、闫家务村、电力花园小区、付庄小区、地税小区、新检察院小区、中国人行小区、锅炉辅机平房、建安公寓、职中门脸、农行家属楼、公园大道小区、金都小区、诺林湾三期、邮政小区、天平小区、新城国税所平房、职中家属楼、职中平房、阳光商厦、河北向鑫机电设备有限公司、家兴购物广场、兴泰房地产、双硕物业、实达物业、检察院、人行、李小北、锅炉辅机厂、中国邮政集团高碑店市分公司、付庄面粉厂、福利风机厂、五处大修厂（游乐堡）、高建集团建装公司、付庄基地（十八局四处基地）、河北鼎誉房地产、河北创世房地产(安洁物业)、徐金峰、人民防空办公室、高碑店明仁眼科医院、中国石油保定119站、河北高碑店农村商业银行（张八屯信用社）、新华书店","startTime":"2020-04-20 08:46:00","stopDate":"2020-04-20 10:00:00","orgNo":"1340612","typeCode":"电网故障停限电","poweroffArea":"【全线路停电】停0562791183-保定津联物业服务有限公司-专变-118501320-天津市兴建房地产开发公司（金都3号）2#,职中变压器,高碑店市人民防空办公室变压器,建安公寓公变,天津市兴建房地产开发公司（金都3号）5#-01,高碑店市人民法院变压器,农发行公变,河北宝姚水泵制造有限公司,高碑店市兴泰房地产开发有限公司1,付庄3变压器,河北华达公路工程咨询监理有限公司变压器01,河北创世房地产开发有限公司变压器02,高碑店市强林物业服务有限公司变压器,高碑店市路灯管理办公室（东环岛路灯）变压器,闫家务东1变压器,高碑店市鑫远房地产开发有限公司变压器02,高碑店市人民法院,闫家务东变压器,天津市兴建房地产开发公司（金都3号）6#,电力花园1号箱变间隔配电变压器,付庄小区箱变变压器,高碑店市路灯管理办公室变压器,建安变压器,高碑店市路灯管理办公室（富民路路灯变压器,锅炉厂公变,付庄2变压器,天津市兴建房地产开发公司（金都3号）7#,高碑店市城市管理综合执法局迎宾路2号,高碑店市国家税务局,环岛公变变压器,付庄1变压器,邮政局,高碑店市地方税务局,人行,徐金峰变压器,闫家务南1变压器,河北创世房地产开发有限公司变压器01,锅炉辅机厂,检察院,天津市兴建房地产开发公司（金都3号）3#变压器,高碑店市鑫远房地产开发有限公司变压器04,高碑店市鑫远房地产开发有限公司变压器03,福利风机厂,高碑店市兴泰房地产开发有限公司2,富民路公变变压器,检察院公变1,高碑店市鑫远房地产开发有限公司变压器01,张八屯信用社,河北创世房地产开发有限公司(安洁物业),0696412691-高碑店市德安房地产开发有限公司02,诺林湾3期,天奕商厦2号箱变,高碑店明仁眼科医院,电力花园3号箱变间隔配电变压器,闫家务南变压器,0562791066-保定津联物业服务有限公司-专变-118501293-天津市兴建房地产开发公司（金都花园2号）变压器,环岛高杆灯,天奕商厦1#,高建集团建装公司,新华书店,天津市兴建房地产开发公司（金都花园2号）变压器,中国石油保定119站,付庄变压器,电力花园2号箱变间隔配电变压器,付庄面粉厂,高碑店市卫生和计划生育局,新世纪公变,李小北,河北华达公路工程咨询监理有限公司变压器02,邮政储蓄小区变压器,付庄小区变压器,付庄北台变压器,老地税公变,天津市兴建房地产开发公司（金都3号）1#,0696412691-高碑店市德安房地产开发有限公司01,0696412691-高碑店市德安房地产开发有限公司03,付庄东变压器,付庄面粉厂2,天津市兴建房地产开发公司（金都3号）4#,五处大修厂","poweroffReason":"【停电原因】由于主干０９号杆付庄新区高压计量故障导致１１０ＫＶ马庄变电站１０ＫＶ阳光５２１线路全线停电 【变更送电】因抢修进度加快原因，送电时间由１５：００变更为１０：００ 【发布渠道】通过９５５９８发布","powerTime":"2020-04-20 09:26:59","powerComm":"已送电","subsNo":"","lineNo":"","tgNo":"","tgName":null,"infoStatus":"1","orgName":"国网高碑店市供电公司","typeName":null,"infoStatusName":null,"dateDay":null,"orgNos":null,"nowTime":null,"countyName":null,"streetName":null,"villageName":null,"roadName":null,"communityName":null,"tranName":null,"sdLineName":null,"cityCode":"1340612","cityName":"国网高碑店市供电公司","provinceCode":null,"stopTime":"2020-04-20 10:00:00","powerType":"全部","powerOffArea":"【全线路停电】停0562791183-保定津联物业服务有限公司-专变-118501320-天津市兴建房地产开发公司（金都3号）2#,职中变压器,高碑店市人民防空办公室变压器,建安公寓公变,天津市兴建房地产开发公司（金都3号）5#-01,高碑店市人民法院变压器,农发行公变,河北宝姚水泵制造有限公司,高碑店市兴泰房地产开发有限公司1,付庄3变压器,河北华达公路工程咨询监理有限公司变压器01,河北创世房地产开发有限公司变压器02,高碑店市强林物业服务有限公司变压器,高碑店市路灯管理办公室（东环岛路灯）变压器,闫家务东1变压器,高碑店市鑫远房地产开发有限公司变压器02,高碑店市人民法院,闫家务东变压器,天津市兴建房地产开发公司（金都3号）6#,电力花园1号箱变间隔配电变压器,付庄小区箱变变压器,高碑店市路灯管理办公室变压器,建安变压器,高碑店市路灯管理办公室（富民路路灯变压器,锅炉厂公变,付庄2变压器,天津市兴建房地产开发公司（金都3号）7#,高碑店市城市管理综合执法局迎宾路2号,高碑店市国家税务局,环岛公变变压器,付庄1变压器,邮政局,高碑店市地方税务局,人行,徐金峰变压器,闫家务南1变压器,河北创世房地产开发有限公司变压器01,锅炉辅机厂,检察院,天津市兴建房地产开发公司（金都3号）3#变压器,高碑店市鑫远房地产开发有限公司变压器04,高碑店市鑫远房地产开发有限公司变压器03,福利风机厂,高碑店市兴泰房地产开发有限公司2,富民路公变变压器,检察院公变1,高碑店市鑫远房地产开发有限公司变压器01,张八屯信用社,河北创世房地产开发有限公司(安洁物业),0696412691-高碑店市德安房地产开发有限公司02,诺林湾3期,天奕商厦2号箱变,高碑店明仁眼科医院,电力花园3号箱变间隔配电变压器,闫家务南变压器,0562791066-保定津联物业服务有限公司-专变-118501293-天津市兴建房地产开发公司（金都花园2号）变压器,环岛高杆灯,天奕商厦1#,高建集团建装公司,新华书店,天津市兴建房地产开发公司（金都花园2号）变压器,中国石油保定119站,付庄变压器,电力花园2号箱变间隔配电变压器,付庄面粉厂,高碑店市卫生和计划生育局,新世纪公变,李小北,河北华达公路工程咨询监理有限公司变压器02,邮政储蓄小区变压器,付庄小区变压器,付庄北台变压器,老地税公变,天津市兴建房地产开发公司（金都3号）1#,0696412691-高碑店市德安房地产开发有限公司01,0696412691-高碑店市德安房地产开发有限公司03,付庄东变压器,付庄面粉厂2,天津市兴建房地产开发公司（金都3号）4#,五处大修厂","powerOffReason":"【停电原因】由于主干０９号杆付庄新区高压计量故障导致１１０ＫＶ马庄变电站１０ＫＶ阳光５２１线路全线停电 【变更送电】因抢修进度加快原因，送电时间由１５：００变更为１０：００ 【发布渠道】通过９５５９８发布","powerOffId":"2020042013000099"},{"poweroffId":2020042013000098,"sgpoweroffId":null,"subsName":"","lineName":"10kV段庄线514","pubTranName":"2张马庄外3【纯农排变】,2付家营外17【纯农排变】,2大李各庄小村外6【纯农排变】,2大李各庄小村外8【纯农排变】,2付家营外10【纯农排变】,2北段庄外12【纯农排变】,2北段庄外22【纯农排变】,2付家营外19【纯农排变】,2大李各庄小村外1【纯农排变】,1北李各庄内2,李庄第二中学3变压器,张马庄小学变压器,1北段庄内9,2张马庄外2【纯农排变】,1付家营内4,1北李各庄内7,2南辛力外3【纯农排变】,2北李各庄外13【纯农排变】,北李各庄幼儿园变压器,2寺上外3【纯农排变】,2寺上外5【纯农排变】,2付家营外22【纯农排变】,1北辛力内3,2北段庄外13【纯农排变】,北辛力内4变压器,2张马庄外4【纯农排变】,2付家营外28【纯农排变】,2寺上外4【纯农排变】,1北段庄内3,1南辛力内1,2大李各庄小村外7【纯农排变】,2北辛力外11【纯农排变】,付家营桥头面粉厂,2北段庄外1【纯农排变】,1北段庄内6,2大李各庄小村外13【纯农排变】,1北段庄内2,2张马庄外9【纯农排变】,2北李各庄外4【纯农排变】,1北辛力内2,2南辛力外4【纯农排变】,2南辛力外13【纯农排变】,育英幼儿园变压器,2北段庄外25【纯农排变】,2北辛力外9【纯农排变】,2寺上外8【纯农排变】,2北段庄外4并台【纯农排变】,1张马庄内3,1北段庄内5,2北辛力外3【纯农排变】,2北李各庄外5【纯农排变】,2大李各庄内4,北辛力小学变压器,2北李各庄外11【纯农排变】,北李各庄小学变压器,2付家营外27【纯农排变】,2北李各庄外15【纯农排变】,2大李各庄小村外4【纯农排变】,1北段庄内4,2北李各庄外16【纯农排变】,2南辛力外2【纯农排变】,2付家营外16【纯农排变】,2北辛力外6【纯农排变】,2张马庄外10【纯农排变】,1张马庄内4,1寺上内2,2北李各庄外14【纯农排变】,2北段庄外14【纯农排变】,2北李各庄外7【纯农排变】,2北辛力外5【纯农排变】,2付家营外11【纯农排变】,2北李各庄外3【纯农排变】,北李各庄内8变压器,2北李各庄外17【纯农排变】,2北段庄外10【纯农排变】,2北辛力外2【纯农排变】,2北段庄外6【纯农排变】,1张马庄内2,2北李各庄外18【纯农排变】,2北段庄外7【纯农排变】,2大李各庄小村外9【纯农排变】,2北段庄外24【纯农排变】,1北辛力内1,1付家营内1,2北李各庄外2【纯农排变】,2北辛力外10【纯农排变】,1北段庄内1,2南辛力外10【纯农排变】,1付家营内6,2北段庄外21【纯农排变】,2北李各庄外10【纯农排变】,2北段庄外16【纯农排变】,2付家营外14【纯农排变】,2北辛力外8【纯农排变】,2北辛力外7【纯农排变】,1南辛力内2,1北李各庄内1,1寺上内1,2寺上外2【纯农排变】,2大李各庄小村外11【纯农排变】,2北段庄外10并台【纯农排变】,1北段庄内7,2北辛力外4【纯农排变】,2南辛力外9【纯农排变】,2大李各庄小村外5【纯农排变】,2张马庄外12【纯农排变】,2北段庄外19【纯农排变】,2北段庄外5【纯农排变】,2北段庄外3【纯农排变】,1付家营内7,2北段庄外9【纯农排变】","scope":"【影响街道/乡镇】李庄乡、冉庄镇、北王力乡 【高危重要客户】无 【影响客户】北李各庄、付家营、寺上、南辛力、北辛力、北段庄、张马庄、大李各庄小村","startTime":"2020-04-29 06:00:00","stopDate":"2020-04-29 18:00:00","orgNo":"1340618","typeCode":"计划停电","poweroffArea":"【全线路停电】停2付家营外17【纯农排变】,2大李各庄小村外6【纯农排变】,2大李各庄小村外8【纯农排变】,2付家营外10【纯农排变】,2北段庄外12【纯农排变】,2北段庄外22【纯农排变】,2付家营外19【纯农排变】,2大李各庄小村外1【纯农排变】,1北李各庄内2,李庄第二中学3变压器,张马庄小学变压器,1北段庄内9,2张马庄外2【纯农排变】,1付家营内4,1北李各庄内7,2南辛力外3【纯农排变】,2北李各庄外13【纯农排变】,北李各庄幼儿园变压器,2寺上外3【纯农排变】,2寺上外5【纯农排变】,2张马庄外3【纯农排变】,2北段庄外13【纯农排变】,北辛力内4变压器,2张马庄外4【纯农排变】,2付家营外28【纯农排变】,2寺上外4【纯农排变】,1北段庄内3,1南辛力内1,2大李各庄小村外7【纯农排变】,2北辛力外11【纯农排变】,付家营桥头面粉厂,2北段庄外1【纯农排变】,1北段庄内6,2大李各庄小村外13【纯农排变】,1北段庄内2,2张马庄外9【纯农排变】,2北李各庄外4【纯农排变】,1北辛力内2,2南辛力外4【纯农排变】,2南辛力外13【纯农排变】,育英幼儿园变压器,2北段庄外25【纯农排变】,2北辛力外9【纯农排变】,2寺上外8【纯农排变】,2北段庄外4并台【纯农排变】,1张马庄内3,1北段庄内5,2北辛力外3【纯农排变】,2北李各庄外5【纯农排变】,2大李各庄内4,北辛力小学变压器,2北李各庄外11【纯农排变】,北李各庄小学变压器,2付家营外27【纯农排变】,2北李各庄外15【纯农排变】,2大李各庄小村外4【纯农排变】,1北段庄内4,2北李各庄外16【纯农排变】,2南辛力外2【纯农排变】,2付家营外16【纯农排变】,2北辛力外6【纯农排变】,2张马庄外10【纯农排变】,2付家营外22【纯农排变】,1北辛力内3,1张马庄内4,1寺上内2,2北李各庄外14【纯农排变】,2北段庄外14【纯农排变】,2北李各庄外7【纯农排变】,2北辛力外5【纯农排变】,2付家营外11【纯农排变】,2北李各庄外3【纯农排变】,北李各庄内8变压器,2北李各庄外17【纯农排变】,2北段庄外10【纯农排变】,2北辛力外2【纯农排变】,2北段庄外6【纯农排变】,1张马庄内2,2北李各庄外18【纯农排变】,2北段庄外7【纯农排变】,2大李各庄小村外9【纯农排变】,2北段庄外24【纯农排变】,1北辛力内1,1付家营内1,2北李各庄外2【纯农排变】,2北辛力外10【纯农排变】,1北段庄内1,2南辛力外10【纯农排变】,1付家营内6,2北段庄外21【纯农排变】,2北李各庄外10【纯农排变】,2北段庄外16【纯农排变】,2付家营外14【纯农排变】,2北辛力外8【纯农排变】,2北辛力外7【纯农排变】,1南辛力内2,1北李各庄内1,1寺上内1,2寺上外2【纯农排变】,2大李各庄小村外11【纯农排变】,2北段庄外10并台【纯农排变】,1北段庄内7,2北辛力外4【纯农排变】,2南辛力外9【纯农排变】,2大李各庄小村外5【纯农排变】,2张马庄外12【纯农排变】,2北段庄外19【纯农排变】,2北段庄外5【纯农排变】,2北段庄外3【纯农排变】,1付家营内7,2北段庄外9【纯农排变】,2北李各庄外12【纯农排变】,1北李各庄内4,2付家营外9【纯农排变】,2南辛力外12【纯农排变】,2北段庄外2【纯农排变】,李庄第二中学变压器1,2北辛力外1【纯农排变】,2付家营外26【纯农排变】,2北段庄外8【纯农排变】,2南辛力外5【纯农排变】,2北段庄外20【纯农排变】,李庄第二中学变压器2,2大李各庄小村外10【纯农排变】,2北段庄外17【纯农排变】,2付家营外24【纯农排变】,1北段庄内8,2张马庄外1【纯农排变】,1北李各庄内3,2北李各庄外1【纯农排变】,2北段庄外12并台【纯农排变】,2张马庄外5【纯农排变】,2李庄外21【","poweroffReason":"【停电原因】由于线路清扫检修导致３５ＫＶ李庄变电站１０ＫＶ段庄线５１４线路全线停电 【变更送电】无 【发布渠道】保定市清苑区电视台（２０２０年０４月２１日１９时至２０２０年０４月２８日２０时之间）屏幕上方滚动","powerTime":"2020-04-29 17:49:45","powerComm":"张倩通知已送电","subsNo":"","lineNo":"","tgNo":"","tgName":null,"infoStatus":"1","orgName":"国网清苑县供电公司","typeName":null,"infoStatusName":null,"dateDay":null,"orgNos":null,"nowTime":null,"countyName":null,"streetName":null,"villageName":null,"roadName":null,"communityName":null,"tranName":null,"sdLineName":null,"cityCode":"1340618","cityName":"国网清苑县供电公司","provinceCode":null,"stopTime":"2020-04-29 18:00:00","powerType":"全部","powerOffArea":"【全线路停电】停2付家营外17【纯农排变】,2大李各庄小村外6【纯农排变】,2大李各庄小村外8【纯农排变】,2付家营外10【纯农排变】,2北段庄外12【纯农排变】,2北段庄外22【纯农排变】,2付家营外19【纯农排变】,2大李各庄小村外1【纯农排变】,1北李各庄内2,李庄第二中学3变压器,张马庄小学变压器,1北段庄内9,2张马庄外2【纯农排变】,1付家营内4,1北李各庄内7,2南辛力外3【纯农排变】,2北李各庄外13【纯农排变】,北李各庄幼儿园变压器,2寺上外3【纯农排变】,2寺上外5【纯农排变】,2张马庄外3【纯农排变】,2北段庄外13【纯农排变】,北辛力内4变压器,2张马庄外4【纯农排变】,2付家营外28【纯农排变】,2寺上外4【纯农排变】,1北段庄内3,1南辛力内1,2大李各庄小村外7【纯农排变】,2北辛力外11【纯农排变】,付家营桥头面粉厂,2北段庄外1【纯农排变】,1北段庄内6,2大李各庄小村外13【纯农排变】,1北段庄内2,2张马庄外9【纯农排变】,2北李各庄外4【纯农排变】,1北辛力内2,2南辛力外4【纯农排变】,2南辛力外13【纯农排变】,育英幼儿园变压器,2北段庄外25【纯农排变】,2北辛力外9【纯农排变】,2寺上外8【纯农排变】,2北段庄外4并台【纯农排变】,1张马庄内3,1北段庄内5,2北辛力外3【纯农排变】,2北李各庄外5【纯农排变】,2大李各庄内4,北辛力小学变压器,2北李各庄外11【纯农排变】,北李各庄小学变压器,2付家营外27【纯农排变】,2北李各庄外15【纯农排变】,2大李各庄小村外4【纯农排变】,1北段庄内4,2北李各庄外16【纯农排变】,2南辛力外2【纯农排变】,2付家营外16【纯农排变】,2北辛力外6【纯农排变】,2张马庄外10【纯农排变】,2付家营外22【纯农排变】,1北辛力内3,1张马庄内4,1寺上内2,2北李各庄外14【纯农排变】,2北段庄外14【纯农排变】,2北李各庄外7【纯农排变】,2北辛力外5【纯农排变】,2付家营外11【纯农排变】,2北李各庄外3【纯农排变】,北李各庄内8变压器,2北李各庄外17【纯农排变】,2北段庄外10【纯农排变】,2北辛力外2【纯农排变】,2北段庄外6【纯农排变】,1张马庄内2,2北李各庄外18【纯农排变】,2北段庄外7【纯农排变】,2大李各庄小村外9【纯农排变】,2北段庄外24【纯农排变】,1北辛力内1,1付家营内1,2北李各庄外2【纯农排变】,2北辛力外10【纯农排变】,1北段庄内1,2南辛力外10【纯农排变】,1付家营内6,2北段庄外21【纯农排变】,2北李各庄外10【纯农排变】,2北段庄外16【纯农排变】,2付家营外14【纯农排变】,2北辛力外8【纯农排变】,2北辛力外7【纯农排变】,1南辛力内2,1北李各庄内1,1寺上内1,2寺上外2【纯农排变】,2大李各庄小村外11【纯农排变】,2北段庄外10并台【纯农排变】,1北段庄内7,2北辛力外4【纯农排变】,2南辛力外9【纯农排变】,2大李各庄小村外5【纯农排变】,2张马庄外12【纯农排变】,2北段庄外19【纯农排变】,2北段庄外5【纯农排变】,2北段庄外3【纯农排变】,1付家营内7,2北段庄外9【纯农排变】,2北李各庄外12【纯农排变】,1北李各庄内4,2付家营外9【纯农排变】,2南辛力外12【纯农排变】,2北段庄外2【纯农排变】,李庄第二中学变压器1,2北辛力外1【纯农排变】,2付家营外26【纯农排变】,2北段庄外8【纯农排变】,2南辛力外5【纯农排变】,2北段庄外20【纯农排变】,李庄第二中学变压器2,2大李各庄小村外10【纯农排变】,2北段庄外17【纯农排变】,2付家营外24【纯农排变】,1北段庄内8,2张马庄外1【纯农排变】,1北李各庄内3,2北李各庄外1【纯农排变】,2北段庄外12并台【纯农排变】,2张马庄外5【纯农排变】,2李庄外21【","powerOffReason":"【停电原因】由于线路清扫检修导致３５ＫＶ李庄变电站１０ＫＶ段庄线５１４线路全线停电 【变更送电】无 【发布渠道】保定市清苑区电视台（２０２０年０４月２１日１９时至２０２０年０４月２８日２０时之间）屏幕上方滚动","powerOffId":"2020042013000098"},{"poweroffId":2020042013000079,"sgpoweroffId":null,"subsName":"","lineName":"梁家营线511","pubTranName":"巨水营东,东黄河北变压器,大商南变压器,贾家营变压器,小商新变压器,大商北变压器,巨水营变压器,小商变压器,","scope":"【影响街道/乡镇】梁家营乡 【高危重要客户】华丰首特 【影响客户】大商村、小商村、巨水营村、东黄河村、贾家营村、孙马庄村","startTime":"2020-04-20 08:18:01","stopDate":"2020-04-20 12:00:00","orgNo":"1340612","typeCode":"电网故障停限电","poweroffArea":"【全线路停电】停贾家营排灌变压器【纯农排变】,大商排灌1变压器【纯农排变】,城东排灌变压器【纯农排变】,小商新变压器,高碑店市梁家营乡王家营小学,巨水营排灌变压器【纯农排变】,梁南地变压器【纯农排变】,黄玉江,小商排灌2变压器【纯农排变】,西黄河2,杨北排灌变压器【纯农排变】,华峰钢厂,东黄河北变压器,王家营排灌东变压器【纯农排变】,大商南变压器,城内西排灌变压器,高碑店市奥伟工业有限公司,王家营排灌南变压器【纯农排变】,东黄河排灌变压器【纯农排变】,变压器,东黄河变压器,东黄河排灌东变压器【纯农排变】,巨水营地变压器,大商北变压器,杨北3变压器【纯农排变】,小商排灌3变压器【纯农排变】,孙马庄排灌变压器【纯农排变】,小商排灌变压器【纯农排变】,巨水营东,孙马庄变压器,杨北2变压器【纯农排变】,大商排灌变压器【纯农排变】,永欣加油站,华峰,小商变压器,孙马庄西变压器,蔡庄排灌变压器【纯农排变】,贾家营变压器,0387439237-首特华峰机械设备制造有限公司-专变-45276312-华峰钢厂,巨水营变压器","poweroffReason":"【停电原因】由于孙马庄分支０４号杆王家营排灌中相刀闸有铁丝导致１１０ＫＶ太平庄变电站１０ＫＶ梁家营５１１线路全线停电 【变更送电】因抢修进度加快原因，送电时间由１３：００变更为１２：００ 【发布渠道】通过９５５９８发布","powerTime":"2020-04-20 11:48:50","powerComm":"已送电","subsNo":"","lineNo":"","tgNo":"","tgName":null,"infoStatus":"1","orgName":"国网高碑店市供电公司","typeName":null,"infoStatusName":null,"dateDay":null,"orgNos":null,"nowTime":null,"countyName":null,"streetName":null,"villageName":null,"roadName":null,"communityName":null,"tranName":null,"sdLineName":null,"cityCode":"1340612","cityName":"国网高碑店市供电公司","provinceCode":null,"stopTime":"2020-04-20 12:00:00","powerType":"全部","powerOffArea":"【全线路停电】停贾家营排灌变压器【纯农排变】,大商排灌1变压器【纯农排变】,城东排灌变压器【纯农排变】,小商新变压器,高碑店市梁家营乡王家营小学,巨水营排灌变压器【纯农排变】,梁南地变压器【纯农排变】,黄玉江,小商排灌2变压器【纯农排变】,西黄河2,杨北排灌变压器【纯农排变】,华峰钢厂,东黄河北变压器,王家营排灌东变压器【纯农排变】,大商南变压器,城内西排灌变压器,高碑店市奥伟工业有限公司,王家营排灌南变压器【纯农排变】,东黄河排灌变压器【纯农排变】,变压器,东黄河变压器,东黄河排灌东变压器【纯农排变】,巨水营地变压器,大商北变压器,杨北3变压器【纯农排变】,小商排灌3变压器【纯农排变】,孙马庄排灌变压器【纯农排变】,小商排灌变压器【纯农排变】,巨水营东,孙马庄变压器,杨北2变压器【纯农排变】,大商排灌变压器【纯农排变】,永欣加油站,华峰,小商变压器,孙马庄西变压器,蔡庄排灌变压器【纯农排变】,贾家营变压器,0387439237-首特华峰机械设备制造有限公司-专变-45276312-华峰钢厂,巨水营变压器","powerOffReason":"【停电原因】由于孙马庄分支０４号杆王家营排灌中相刀闸有铁丝导致１１０ＫＶ太平庄变电站１０ＫＶ梁家营５１１线路全线停电 【变更送电】因抢修进度加快原因，送电时间由１３：００变更为１２：００ 【发布渠道】通过９５５９８发布","powerOffId":"2020042013000079"}],"pageModel":{"pageNow":157,"totalCount":10973,"totalPage":1098,"tableRows":0,"pageCount":10,"beginCount":1560},"isExperi":"1"}