{"message":"","today":"2020-06-15","seleList":[{"poweroffId":2020042013000078,"sgpoweroffId":null,"subsName":"","lineName":"10KV义和庄514","pubTranName":"长安城南1439,","scope":"【影响街道/乡镇】义和庄乡 【高危重要客户】无 【影响客户】长安城","startTime":"2020-04-20 08:15:46","stopDate":"2020-04-20 10:00:00","orgNo":"1340626","typeCode":"电网故障停限电","poweroffArea":"【单台区停电】停长安城南1439","poweroffReason":"【停电原因】由于低压空开烧毁导致３５ＫＶ码头变电站１０ＫＶ义和庄５１４线路长安城南１４３９公变台区停电 【变更送电】因抢修进度加快原因，送电时间由１５：００变更为１０：００ 【发布渠道】通过９５５９８发布","powerTime":"2020-04-20 09:30:30","powerComm":"恢复送电","subsNo":"","lineNo":"","tgNo":"","tgName":null,"infoStatus":"1","orgName":"国网涿州市供电公司","typeName":null,"infoStatusName":null,"dateDay":null,"orgNos":null,"nowTime":null,"countyName":null,"streetName":null,"villageName":null,"roadName":null,"communityName":null,"tranName":null,"sdLineName":null,"cityCode":"1340626","cityName":"国网涿州市供电公司","provinceCode":null,"stopTime":"2020-04-20 10:00:00","powerType":"全部","powerOffArea":"【单台区停电】停长安城南1439","powerOffReason":"【停电原因】由于低压空开烧毁导致３５ＫＶ码头变电站１０ＫＶ义和庄５１４线路长安城南１４３９公变台区停电 【变更送电】因抢修进度加快原因，送电时间由１５：００变更为１０：００ 【发布渠道】通过９５５９８发布","powerOffId":"2020042013000078"},{"poweroffId":2020042013000038,"sgpoweroffId":null,"subsName":"","lineName":"谭城线512","pubTranName":"南南蔡光3,北南蔡排9【2018年四批补强】,北南蔡排5【纯农排变】,南南蔡光6,谭城光1,北南蔡光综11,谭城排14【纯农排变】,大留村光7,大留村光8,北南蔡光7,谭城光1【2018年节能变】,谭城光5,北南蔡排8【纯农排变】,谭城光3,中蔡光3【2018年一批应急】,南南蔡光7【捐赠】,新北南蔡光8,新北南蔡光3【2018年一批应急】,新谭城光11,北南蔡排10【纯农排变】,新北南蔡光5【18年第四批补强】,大留村光12,新大留村光7,南南蔡光1,南留村光5,新北南蔡光4,谭城光11,新谭城村光8,南南蔡光7,北南蔡光1【2018年技改】,南南蔡光2,北南蔡乡政府,南留村光7,谭城光5【2018年节能变】,谭城排12 1【纯农排变】,北南蔡光12,中蔡光2,南留村光1,","scope":"【影响街道/乡镇】北南蔡乡 【高危重要客户】无 【影响客户】北南蔡、中蔡、南南蔡、谭城、南留村、大留村","startTime":"2020-04-20 03:02:52","stopDate":"2020-04-20 04:50:00","orgNo":"1340609","typeCode":"电网故障停限电","poweroffArea":"【全线路停电】停新北南蔡光5【18年第四批补强】,南南蔡光7,南留村光8,南南蔡光1,中蔡排2【纯农排变】,谭城光11,中蔡排1【纯农排变】,北南蔡光12,中蔡光2,北南蔡排9【纯农排变】,南南蔡排5【纯农排变】,诚皓水泥-250,谭城排5【纯农排变】,谭城排12 1【纯农排变】,谭城光5,南留村排3【纯农排变】,新谭城光11,南留村光5,南留村排4【纯农排变】,10KV谭城线512线路谭城光10变压器,南南蔡排8【纯农排变】,谭城光2,中蔡光5,北南蔡排7【纯农排变】,新谭城村光8,南留村光7,南留村排2【纯农排变】,南留村排7【纯农排变】,160,北南蔡排1【纯农排变】,中蔡排5【纯农排变】,南留村排1【纯农排变】,棉站混用,北南蔡供电所,农泰肥料-250,南留村光1,谭城光4,箱包基地,南南蔡光3,南留村光3,0695324492-北南蔡乡谭城小学-专变-239132224-315,大留村排5【纯农排变】,中蔡排4【纯农排变】,中蔡光7,北南蔡排9【2018年四批补强】,北南蔡光综11,北南蔡排5【纯农排变】,南南蔡排6【纯农排变】,南留村排6【纯农排变】,新谭城光7,南南蔡排1【纯农排变】,北南蔡排10【纯农排变】,大留村光7,南南蔡排3【纯农排变】,北南蔡光1,大留村光8,中蔡排7【纯农排变】,北南蔡排6【纯农排变】,新大留村光7,北南蔡光7,北南蔡排2【纯农排变】,中蔡光6,新南南蔡光5,南南蔡排4【纯农排变】,中蔡光4,谭城光3,0469290341-*五达化工厂-专变-46771855-*五达化工厂,南南蔡光4,南南蔡排2【纯农排变】,*谭城机站水利局混,北南蔡排3【纯农排变】,谭城排14【纯农排变】,谭城光9,新北南蔡光3【2018年一批应急】,大留村光12,北南蔡排4【纯农排变】,中蔡光3【2018年一批应急】,南留村光2,0694660359-定兴县北南蔡乡中心小学-专变-237550490-北南蔡中心小学,北南蔡光10【2018年重过载】,北南蔡光1【2018年技改】,南留村光6,谭城光5【2018年节能变】,南南蔡光6,新北南蔡光4,北南蔡排12【纯农排变】,中蔡光1,南南蔡光2,南南蔡小学-315,谭城光1【2018年节能变】,中蔡排6【纯农排变】,北南蔡排8【纯农排变】,南南蔡光7【捐赠】,南南蔡排7【纯农排变】,南留村排5【纯农排变】,新北南蔡光8,北南蔡光9,谭城光1,北南蔡光6,谭城光6,中蔡排3【纯农排变】,北南蔡乡政府,新南留村光4","poweroffReason":"【停电原因】由于谭城分支２号杆风刮异物导致３５ＫＶ大留村变电站谭城线５１２线路全线停电 【变更送电】因抢修进度加快原因，送电时间由１０：００变更为０４：５０ 【发布渠道】通过９５５９８发布","powerTime":"2020-04-20 04:12:47","powerComm":"已送电","subsNo":"","lineNo":"","tgNo":"","tgName":null,"infoStatus":"1","orgName":"国网定兴县供电公司","typeName":null,"infoStatusName":null,"dateDay":null,"orgNos":null,"nowTime":null,"countyName":null,"streetName":null,"villageName":null,"roadName":null,"communityName":null,"tranName":null,"sdLineName":null,"cityCode":"1340609","cityName":"国网定兴县供电公司","provinceCode":null,"stopTime":"2020-04-20 04:50:00","powerType":"全部","powerOffArea":"【全线路停电】停新北南蔡光5【18年第四批补强】,南南蔡光7,南留村光8,南南蔡光1,中蔡排2【纯农排变】,谭城光11,中蔡排1【纯农排变】,北南蔡光12,中蔡光2,北南蔡排9【纯农排变】,南南蔡排5【纯农排变】,诚皓水泥-250,谭城排5【纯农排变】,谭城排12 1【纯农排变】,谭城光5,南留村排3【纯农排变】,新谭城光11,南留村光5,南留村排4【纯农排变】,10KV谭城线512线路谭城光10变压器,南南蔡排8【纯农排变】,谭城光2,中蔡光5,北南蔡排7【纯农排变】,新谭城村光8,南留村光7,南留村排2【纯农排变】,南留村排7【纯农排变】,160,北南蔡排1【纯农排变】,中蔡排5【纯农排变】,南留村排1【纯农排变】,棉站混用,北南蔡供电所,农泰肥料-250,南留村光1,谭城光4,箱包基地,南南蔡光3,南留村光3,0695324492-北南蔡乡谭城小学-专变-239132224-315,大留村排5【纯农排变】,中蔡排4【纯农排变】,中蔡光7,北南蔡排9【2018年四批补强】,北南蔡光综11,北南蔡排5【纯农排变】,南南蔡排6【纯农排变】,南留村排6【纯农排变】,新谭城光7,南南蔡排1【纯农排变】,北南蔡排10【纯农排变】,大留村光7,南南蔡排3【纯农排变】,北南蔡光1,大留村光8,中蔡排7【纯农排变】,北南蔡排6【纯农排变】,新大留村光7,北南蔡光7,北南蔡排2【纯农排变】,中蔡光6,新南南蔡光5,南南蔡排4【纯农排变】,中蔡光4,谭城光3,0469290341-*五达化工厂-专变-46771855-*五达化工厂,南南蔡光4,南南蔡排2【纯农排变】,*谭城机站水利局混,北南蔡排3【纯农排变】,谭城排14【纯农排变】,谭城光9,新北南蔡光3【2018年一批应急】,大留村光12,北南蔡排4【纯农排变】,中蔡光3【2018年一批应急】,南留村光2,0694660359-定兴县北南蔡乡中心小学-专变-237550490-北南蔡中心小学,北南蔡光10【2018年重过载】,北南蔡光1【2018年技改】,南留村光6,谭城光5【2018年节能变】,南南蔡光6,新北南蔡光4,北南蔡排12【纯农排变】,中蔡光1,南南蔡光2,南南蔡小学-315,谭城光1【2018年节能变】,中蔡排6【纯农排变】,北南蔡排8【纯农排变】,南南蔡光7【捐赠】,南南蔡排7【纯农排变】,南留村排5【纯农排变】,新北南蔡光8,北南蔡光9,谭城光1,北南蔡光6,谭城光6,中蔡排3【纯农排变】,北南蔡乡政府,新南留村光4","powerOffReason":"【停电原因】由于谭城分支２号杆风刮异物导致３５ＫＶ大留村变电站谭城线５１２线路全线停电 【变更送电】因抢修进度加快原因，送电时间由１０：００变更为０４：５０ 【发布渠道】通过９５５９８发布","powerOffId":"2020042013000038"},{"poweroffId":2020041921000047,"sgpoweroffId":null,"subsName":"","lineName":"10kV鲁岗站525线路","pubTranName":"10kVY0169.Y0170.Y0171.Y0172配电室Y0172配电变压器,10kVY0167.Y0168配电室Y0168配电变压器,10kVC477.C478配电室C478配电变压器,10kVY0159.Y0160配电室Y0160配电变压器,10kVC471.C472配电室C472配电变压器,10kVC477.C478配电室C477配电变压器,10kVC473.C474配电室C474配电变压器,10kVY0163.Y0164.Y0165.Y0166配电室Y0164配电变压器,10kVY0163.Y0164.Y0165.Y0166配电室Y0166配电变压器,10kVC473.C474配电室C473配电变压器,10kVC471.C472配电室C471配电变压器,10kVY0169.Y0170.Y0171.Y0172配电室Y0170配电变压器,10kVY0161.Y0162配电室Y0162配电变压器,H0046柱上变压器,10kVC475.C476配电室C475配电变压器,10kVC475.C476配电室C476配电变压器,","scope":"【影响街道/乡镇】新市区乐凯大街、建设北路 【高危重要客户】无 【影响客户】鲁岗辛新村、城市鹭港、秀兰城市美居、石化供销宿舍、光明溶解乙炔气厂、保定市浪淘沙体育文化有限公司、河北秀兰房地产集团有限公司、保定市新市区筑宝防水材料经销部","startTime":"2020-04-19 07:00:54","stopDate":"2020-04-19 08:20:00","orgNo":"13406","typeCode":"电网故障停限电","poweroffArea":"【全线路停电】停H0046柱上变压器,10kVC475.C476配电室C475配电变压器,10kVC475.C476配电室C476配电变压器,10kVC477.C478配电室C478配电变压器,10kVC471.C472配电室C472配电变压器,10kVC477.C478配电室C477配电变压器,10kVC473.C474配电室C474配电变压器,10kVY0163.Y0164.Y0165.Y0166配电室Y0164配电变压器,10kVY0163.Y0164.Y0165.Y0166配电室Y0166配电变压器,10kVC473.C474配电室C473配电变压器,10kVC471.C472配电室C471配电变压器,10kVY0169.Y0170.Y0171.Y0172配电室Y0170配电变压器,10kVY0161.Y0162配电室Y0162配电变压器,10kVY0169.Y0170.Y0171.Y0172配电室Y0172配电变压器,10kVY0167.Y0168配电室Y0168配电变压器,10kVY0159.Y0160配电室Y0160配电变压器,0356217086-保定市新市区淑改玻璃店-专变,0711581052-保定宝硕新鼎房地产开发有限公司-柱上变压器4#,0356219095-保定市力宇商贸有限公司-1-箱式变－变压器,0715324590-保定市卓越房地产开发有限公司-变压器,0588296097-保定市新亚化工有限公司-专变,0356287416-保定中油石油销售有限公司-1-配电室-变压器-1,变压器,0357291566-保定市路灯管理处(125)-1-箱式变－变压器,0356222200-保定市国秀化工有限责任公司-专变,0356256625-保定市义新绝缘材料有限公司-专变,0711581052-保定宝硕新鼎房地产开发有限公司-柱上变压器2#,0710888136-保定水产供销公司-2#专变,0664038089-保定市浪淘沙体育文化有限公司-专变-201042236-变压器,0711581052-保定宝硕新鼎房地产开发有限公司-柱上变压器7#,0356219040-保定市震发燃料油有限责任公司-专变,0356216924-保定市茂源金属结构有限公司-专变,0711581052-保定宝硕新鼎房地产开发有限公司-柱上变压器3#,0356217536-西鲁岗村居委会-专变,0598878441-保定市新市区筑宝防水材料经销部-专变,0356220028-保定五洲汽车销售服务有限公司-1-配电室-变压器-1,0711581052-保定宝硕新鼎房地产开发有限公司-柱上变压器6#,0357356195-保定市冰轮制冷空调工程有限公司-专变,0666431011-保定市竞秀区喜事汇晋鲁味道餐厅-专变-206469715-变压器,0710888136-保定水产供销公司-1#专变,0711581052-保定宝硕新鼎房地产开发有限公司-柱上变压器5#,0711581052-保定宝硕新鼎房地产开发有限公司-柱上变压器1#,0666431011-保定市竞秀区喜事汇晋鲁味道餐厅-专变-206469711-变压器,0357991033-大唐保定供热有限责任公司-1-配电室-变压器-1","poweroffReason":"【停电原因】由于分支开关短路导致１０ＫＶ鲁岗变电站５２５线路全线停电【变更送电】因抢修进度加快，原定１１：００送电现计划０８:２０送电。【发布渠道】通过９５５９８发布","powerTime":"2020-04-19 08:09:03","powerComm":"已送电","subsNo":"","lineNo":"","tgNo":"","tgName":null,"infoStatus":"1","orgName":"保定供电公司","typeName":null,"infoStatusName":null,"dateDay":null,"orgNos":null,"nowTime":null,"countyName":null,"streetName":null,"villageName":null,"roadName":null,"communityName":null,"tranName":null,"sdLineName":null,"cityCode":"13406","cityName":"保定供电公司","provinceCode":null,"stopTime":"2020-04-19 08:20:00","powerType":"全部","powerOffArea":"【全线路停电】停H0046柱上变压器,10kVC475.C476配电室C475配电变压器,10kVC475.C476配电室C476配电变压器,10kVC477.C478配电室C478配电变压器,10kVC471.C472配电室C472配电变压器,10kVC477.C478配电室C477配电变压器,10kVC473.C474配电室C474配电变压器,10kVY0163.Y0164.Y0165.Y0166配电室Y0164配电变压器,10kVY0163.Y0164.Y0165.Y0166配电室Y0166配电变压器,10kVC473.C474配电室C473配电变压器,10kVC471.C472配电室C471配电变压器,10kVY0169.Y0170.Y0171.Y0172配电室Y0170配电变压器,10kVY0161.Y0162配电室Y0162配电变压器,10kVY0169.Y0170.Y0171.Y0172配电室Y0172配电变压器,10kVY0167.Y0168配电室Y0168配电变压器,10kVY0159.Y0160配电室Y0160配电变压器,0356217086-保定市新市区淑改玻璃店-专变,0711581052-保定宝硕新鼎房地产开发有限公司-柱上变压器4#,0356219095-保定市力宇商贸有限公司-1-箱式变－变压器,0715324590-保定市卓越房地产开发有限公司-变压器,0588296097-保定市新亚化工有限公司-专变,0356287416-保定中油石油销售有限公司-1-配电室-变压器-1,变压器,0357291566-保定市路灯管理处(125)-1-箱式变－变压器,0356222200-保定市国秀化工有限责任公司-专变,0356256625-保定市义新绝缘材料有限公司-专变,0711581052-保定宝硕新鼎房地产开发有限公司-柱上变压器2#,0710888136-保定水产供销公司-2#专变,0664038089-保定市浪淘沙体育文化有限公司-专变-201042236-变压器,0711581052-保定宝硕新鼎房地产开发有限公司-柱上变压器7#,0356219040-保定市震发燃料油有限责任公司-专变,0356216924-保定市茂源金属结构有限公司-专变,0711581052-保定宝硕新鼎房地产开发有限公司-柱上变压器3#,0356217536-西鲁岗村居委会-专变,0598878441-保定市新市区筑宝防水材料经销部-专变,0356220028-保定五洲汽车销售服务有限公司-1-配电室-变压器-1,0711581052-保定宝硕新鼎房地产开发有限公司-柱上变压器6#,0357356195-保定市冰轮制冷空调工程有限公司-专变,0666431011-保定市竞秀区喜事汇晋鲁味道餐厅-专变-206469715-变压器,0710888136-保定水产供销公司-1#专变,0711581052-保定宝硕新鼎房地产开发有限公司-柱上变压器5#,0711581052-保定宝硕新鼎房地产开发有限公司-柱上变压器1#,0666431011-保定市竞秀区喜事汇晋鲁味道餐厅-专变-206469711-变压器,0357991033-大唐保定供热有限责任公司-1-配电室-变压器-1","powerOffReason":"【停电原因】由于分支开关短路导致１０ＫＶ鲁岗变电站５２５线路全线停电【变更送电】因抢修进度加快，原定１１：００送电现计划０８:２０送电。【发布渠道】通过９５５９８发布","powerOffId":"2020041921000047"},{"poweroffId":2020041913000304,"sgpoweroffId":null,"subsName":"","lineName":"10kV526北俱佑线","pubTranName":"北俱佑村公用照明3台区,小召公用照明4台区,北俱佑公用照明7台区,小召公用照明3台区,小召村公用照明1台区,东大召公用照明1台区,大召庄公用照明2台区,北俱佑公用照明5台区,东大召公用照明2台区,东大召公用照明3台区,北俱佑公用照明6台区,北俱佑公用照明4台区,小召村公用照明2台区,北俱佑村公用照明1台区,北俱佑村公用照明2台区,赵家庄公用照明5台区,大召庄公用照明1台区,","scope":"【影响街道/乡镇】邢邑镇、李亲顾镇【高危重要客户】无【影响客户】北俱佑、大召庄、东大召、小召、油味","startTime":"2020-04-19 23:55:56","stopDate":"2020-04-20 01:40:00","orgNo":"1340610","typeCode":"电网故障停限电","poweroffArea":"【全线路停电】停油味公用农业21台区【纯农排变】,油味公用农业27台区【纯农排变】,油味公用农业20台区【纯农排变】,北俱佑公用农业14台区【纯农排变】,北俱佑公用照明7台区,北俱佑公用农业13台区,北俱佑村公用照明3台区,北俱佑村公用照明2台区,北俱佑公用照明4台区,北俱佑公用照明6台区,北俱佑村公用照明1台区,北俱佑公用照明5台区,北俱佑公用农业15台区【纯农排变】,北俱佑公用农业6台区【纯农排变】,大召庄公用照明2台区,大召庄公用照明1台区,东大召公用农业1台区【纯农排变】,东大召公用照明2台区,东大召公用农业2台区,东大召公用照明1台区,","poweroffReason":"【停电原因】由于北俱佑４分支４号杆Ｃ相支瓶绑线脱落搭担导致１１０ＫＶ李亲顾变电站１０ＫＶ５２６北俱佑线路全线停电 【变更送电】因抢修进度加快原因，送电时间由１２：００变更为０１：４０ 【发布渠道】９５５９８","powerTime":"2020-04-20 01:17:40","powerComm":"已送电","subsNo":"","lineNo":"","tgNo":"","tgName":null,"infoStatus":"1","orgName":"国网定州市供电公司","typeName":null,"infoStatusName":null,"dateDay":null,"orgNos":null,"nowTime":null,"countyName":null,"streetName":null,"villageName":null,"roadName":null,"communityName":null,"tranName":null,"sdLineName":null,"cityCode":"1340610","cityName":"国网定州市供电公司","provinceCode":null,"stopTime":"2020-04-20 01:40:00","powerType":"全部","powerOffArea":"【全线路停电】停油味公用农业21台区【纯农排变】,油味公用农业27台区【纯农排变】,油味公用农业20台区【纯农排变】,北俱佑公用农业14台区【纯农排变】,北俱佑公用照明7台区,北俱佑公用农业13台区,北俱佑村公用照明3台区,北俱佑村公用照明2台区,北俱佑公用照明4台区,北俱佑公用照明6台区,北俱佑村公用照明1台区,北俱佑公用照明5台区,北俱佑公用农业15台区【纯农排变】,北俱佑公用农业6台区【纯农排变】,大召庄公用照明2台区,大召庄公用照明1台区,东大召公用农业1台区【纯农排变】,东大召公用照明2台区,东大召公用农业2台区,东大召公用照明1台区,","powerOffReason":"【停电原因】由于北俱佑４分支４号杆Ｃ相支瓶绑线脱落搭担导致１１０ＫＶ李亲顾变电站１０ＫＶ５２６北俱佑线路全线停电 【变更送电】因抢修进度加快原因，送电时间由１２：００变更为０１：４０ 【发布渠道】９５５９８","powerOffId":"2020041913000304"},{"poweroffId":2020041913000301,"sgpoweroffId":null,"subsName":"","lineName":"10kV512子位线","pubTranName":"子位三村公用照明5台区,客户投资_西丁庄公用照明1台区,子位二村公用照明3台区,子位二村公用照明15台区,子位一村公用照明8台区,子位三村公用照明4台区,子位三村公用照明1台区,子位一村小庄公用照明2台区,寨里公用照明2台区,寨里公用照明4台区,寨里公用照明9台区,子位一村公用照明6台区,子位一村小庄公用照明1台区,子位三村公用照明9台区,子位三村公用照明6台区,寨里公用照明3台区,子位三村公用照明10台区,子位二村公用照明12台区,子位一村公用照明9台区,子位一村公用照明4台区,西丁庄公用照明2台区,寨里公用照明7台区,子位三村公用照明3台区,寨里公用照明1台区,子位二村公用照明6台区,子位二村公用照明10台区,子位一村公用照明5台区,子位二村公用照明1台区,子位二村公用照明7台区,子位一村公用照明7台区,西丁庄公用照明3台区,子位二村公用照明5台区,子位二村公用照明8台区,子位二村公用照明14台区,寨里公用照明6台区,子位二村公用照明11台区,子位二村公用照明2台区,子位一村公用照明3台区,子位二村公用照明4台区,子位三村公用照明7台区,寨里公用照明8台区,子位一村公用照明2台区,子位三村公用照明2台区,子位二村公用照明13台区,子位一村公用照明1台区,寨里公用照明10台区,寨里公用照明5台区,子位二村公用照明9台区,","scope":"【影响街道/乡镇】子位镇【高危重要客户】无【影响客户】西丁庄村、子位一村、子位二村、子位三村、寨里村","startTime":"2020-04-19 23:51:34","stopDate":"2020-04-20 01:20:00","orgNo":"1340610","typeCode":"电网故障停限电","poweroffArea":"【全线路停电】停子位三村公用照明5台区,客户投资_西丁庄公用照明1台区,子位三村公用照明6台区,子位二村公用照明10台区,子位二村公用照明12台区,寨里公用照明7台区,西丁庄公用照明2台区,子位三村公用照明3台区,子位二村公用照明13台区,子位二村公用照明2台区,子位二村公用照明1台区,子位一村公用照明3台区,子位二村公用照明4台区,子位二村公用照明3台区,子位三村公用照明4台区,子位一村公用照明1台区,寨里公用照明10台区,子位一村公用照明8台区,寨里公用照明2台区,寨里公用照明9台区,子位二村公用照明14台区,子位二村公用照明16台区,寨里公用照明6台区,子位一村公用照明9台区,子位一村小庄公用照明2台区,子位三村公用照明1台区,子位一村公用照明6台区,寨里公用照明1台区,子位二村公用照明6台区,寨里公用照明5台区,子位二村公用照明9台区,子位三村公用照明7台区,子位一村小庄公用照明1台区,子位三村公用照明9台区,寨里公用照明8台区,子位三村公用照明2台区,寨里公用照明3台区,子位三村公用照明11台区0,子位一村公用照明4台区,子位二村公用照明15台区,寨里公用照明4台区,子位三村公用照明10台区,子位二村公用照明11台区,子位一村公用照明2台区,子位二村公用照明7台区,子位一村公用照明5台区,子位一村公用照明7台区,西丁庄公用照明3台区,子位二村公用照明5台区,子位二村公用照明8台区","poweroffReason":"【停电原因】由于线路开关掉闸导致３５ＫＶ丁村变电站１０ＫＶ５１２子位线路全线停电 【变更送电】因抢修进度加快原因，送电时间由１２：００变更为０１：２０ 【发布渠道】９５５９８","powerTime":"2020-04-20 00:54:22","powerComm":"已送电","subsNo":"","lineNo":"","tgNo":"","tgName":null,"infoStatus":"1","orgName":"国网定州市供电公司","typeName":null,"infoStatusName":null,"dateDay":null,"orgNos":null,"nowTime":null,"countyName":null,"streetName":null,"villageName":null,"roadName":null,"communityName":null,"tranName":null,"sdLineName":null,"cityCode":"1340610","cityName":"国网定州市供电公司","provinceCode":null,"stopTime":"2020-04-20 01:20:00","powerType":"全部","powerOffArea":"【全线路停电】停子位三村公用照明5台区,客户投资_西丁庄公用照明1台区,子位三村公用照明6台区,子位二村公用照明10台区,子位二村公用照明12台区,寨里公用照明7台区,西丁庄公用照明2台区,子位三村公用照明3台区,子位二村公用照明13台区,子位二村公用照明2台区,子位二村公用照明1台区,子位一村公用照明3台区,子位二村公用照明4台区,子位二村公用照明3台区,子位三村公用照明4台区,子位一村公用照明1台区,寨里公用照明10台区,子位一村公用照明8台区,寨里公用照明2台区,寨里公用照明9台区,子位二村公用照明14台区,子位二村公用照明16台区,寨里公用照明6台区,子位一村公用照明9台区,子位一村小庄公用照明2台区,子位三村公用照明1台区,子位一村公用照明6台区,寨里公用照明1台区,子位二村公用照明6台区,寨里公用照明5台区,子位二村公用照明9台区,子位三村公用照明7台区,子位一村小庄公用照明1台区,子位三村公用照明9台区,寨里公用照明8台区,子位三村公用照明2台区,寨里公用照明3台区,子位三村公用照明11台区0,子位一村公用照明4台区,子位二村公用照明15台区,寨里公用照明4台区,子位三村公用照明10台区,子位二村公用照明11台区,子位一村公用照明2台区,子位二村公用照明7台区,子位一村公用照明5台区,子位一村公用照明7台区,西丁庄公用照明3台区,子位二村公用照明5台区,子位二村公用照明8台区","powerOffReason":"【停电原因】由于线路开关掉闸导致３５ＫＶ丁村变电站１０ＫＶ５１２子位线路全线停电 【变更送电】因抢修进度加快原因，送电时间由１２：００变更为０１：２０ 【发布渠道】９５５９８","powerOffId":"2020041913000301"},{"poweroffId":2020041913000294,"sgpoweroffId":null,"subsName":"","lineName":"梁家营线511","pubTranName":"大商北变压器,","scope":"【影响街道/乡镇】梁家营乡 【高危重要客户】无 【影响客户】大商村","startTime":"2020-04-19 23:28:54","stopDate":"2020-04-20 02:00:00","orgNo":"1340612","typeCode":"电网故障停限电","poweroffArea":"【单台区停电】停大商北变压器","poweroffReason":"【停电原因】由于大商分支０１号杆弓子线烧毁导致１１０ＫＶ太平庄变电站１０ＫＶ梁家营５１１线路大商北公变台区停电 【变更送电】无 【发布渠道】通过９５５９８发布","powerTime":"2020-04-20 01:38:25","powerComm":"已送电","subsNo":"","lineNo":"","tgNo":"","tgName":null,"infoStatus":"1","orgName":"国网高碑店市供电公司","typeName":null,"infoStatusName":null,"dateDay":null,"orgNos":null,"nowTime":null,"countyName":null,"streetName":null,"villageName":null,"roadName":null,"communityName":null,"tranName":null,"sdLineName":null,"cityCode":"1340612","cityName":"国网高碑店市供电公司","provinceCode":null,"stopTime":"2020-04-20 02:00:00","powerType":"全部","powerOffArea":"【单台区停电】停大商北变压器","powerOffReason":"【停电原因】由于大商分支０１号杆弓子线烧毁导致１１０ＫＶ太平庄变电站１０ＫＶ梁家营５１１线路大商北公变台区停电 【变更送电】无 【发布渠道】通过９５５９８发布","powerOffId":"2020041913000294"},{"poweroffId":2020041913000283,"sgpoweroffId":null,"subsName":"","lineName":"10kV段庄线514","pubTranName":"2北段庄外15【纯农排变】,2大李各庄小村外3【纯农排变】,2大李各庄小村外2【纯农排变】,2寺上外7【纯农排变】,2北李各庄外9【纯农排变】,2张马庄外13【纯农排变】,2付家营外23【纯农排变】,1付家营内3,2北李各庄外6【纯农排变】,2南辛力外7【纯农排变】,2付家营外12【纯农排变】,1北李各庄内6,2北段庄外23【纯农排变】,2大李各庄小村外12【纯农排变】,2南辛力外11【纯农排变】,2南辛力外6【纯农排变】,2北李各庄外8【纯农排变】,2张马庄外11【纯农排变】,2付家营外34【纯农排变】,2张马庄外8【纯农排变】,2南辛力外8【纯农排变】,2张马庄外7【纯农排变】,2北段庄外11【纯农排变】,2付家营外15【纯农排变】,1北段庄小学变压器,付家营小学变压器,2付家营外18【纯农排变】,2付家营外25【纯农排变】,保定市清苑区李庄乡北段庄幼儿园,1付家营内5,1北李各庄内5,1张马庄内1,1付家营内8,1付家营内2,1北段庄内3,1南辛力内1,2大李各庄小村外7【纯农排变】,2北辛力外11【纯农排变】,2北段庄外1【纯农排变】,1北段庄内6,2大李各庄小村外13【纯农排变】,1北段庄内2,唐河4,2张马庄外9【纯农排变】,2北李各庄外4【纯农排变】,1北辛力内2,2南辛力外4【纯农排变】,北李各庄内8变压器,2北李各庄外17【纯农排变】,2北段庄外10【纯农排变】,2北段庄外6【纯农排变】,1张马庄内2,2北辛力外2【纯农排变】,2北李各庄外18【纯农排变】,2北段庄外7【纯农排变】,2大李各庄小村外9【纯农排变】,2北段庄外24【纯农排变】,2南辛力外13【纯农排变】,育英幼儿园变压器,2北段庄外25【纯农排变】,2北辛力外9【纯农排变】,2寺上外8【纯农排变】,2北段庄外4并台【纯农排变】,1张马庄内3,1北段庄内5,2北辛力外3【纯农排变】,2北李各庄外5【纯农排变】,2大李各庄内4,北辛力小学变压器,2北李各庄外11【纯农排变】,北李各庄小学变压器,2付家营外27【纯农排变】,2北李各庄外15【纯农排变】,2大李各庄小村外4【纯农排变】,1北段庄内4,2北李各庄外16【纯农排变】,2南辛力外2【纯农排变】,2付家营外16【纯农排变】,2北辛力外6【纯农排变】,2张马庄外10【纯农排变】,2付家营外22【纯农排变】,1北辛力内3,1张马庄内4,1寺上内2,2北李各庄外14【纯农排变】,2北段庄外14【纯农排变】,2北李各庄外7【纯农排变】,2北辛力外5【纯农排变】,2付家营外11【纯农排变】,2北李各庄外3【纯农排变】,2大李各庄小村外6【纯农排变】,2大李各庄小村外8【纯农排变】,1北李各庄内2,李庄第二中学3变压器,张马庄小学变压器,1北段庄内9,2张马庄外2【纯农排变】,1付家营内4,1北李各庄内7,2南辛力外3【纯农排变】,2北李各庄外13【纯农排变】,北李各庄幼儿园变压器,0600552015-中国铁塔股份有限公司保定市分公司-专变-126728124-中国移动通信集团河北有限公司清苑分公司,2张马庄外3【纯农排变】,北辛力内4变压器,2寺上外4【纯农排变】,2北李各庄外10【纯农排变】","scope":"【影响街道/乡镇】李庄乡、冉庄镇、北王力乡 【高危重要客户】无 【影响客户】北李各庄、付家营、寺上、南辛力、北辛力、北段庄、张马庄、大李各庄小村","startTime":"2020-04-19 23:17:58","stopDate":"2020-04-20 01:40:00","orgNo":"1340618","typeCode":"电网故障停限电","poweroffArea":"【全线路停电】停2大李各庄小村外6【纯农排变】,2大李各庄小村外8【纯农排变】,1北李各庄内2,李庄第二中学3变压器,张马庄小学变压器,1北段庄内9,2张马庄外2【纯农排变】,1付家营内4,1北李各庄内7,2南辛力外3【纯农排变】,2北李各庄外13【纯农排变】,北李各庄幼儿园变压器,0600552015-中国铁塔股份有限公司保定市分公司-专变-126728124-中国移动通信集团河北有限公司清苑分公司,2张马庄外3【纯农排变】,北辛力内4变压器,2寺上外4【纯农排变】,1北段庄内3,1南辛力内1,2大李各庄小村外7【纯农排变】,2北辛力外11【纯农排变】,2北段庄外1【纯农排变】,1北段庄内6,2大李各庄小村外13【纯农排变】,1北段庄内2,唐河4,2张马庄外9【纯农排变】,2北李各庄外4【纯农排变】,1北辛力内2,2南辛力外4【纯农排变】,2南辛力外13【纯农排变】,育英幼儿园变压器,2北段庄外25【纯农排变】,2北辛力外9【纯农排变】,2寺上外8【纯农排变】,2北段庄外4并台【纯农排变】,1张马庄内3,1北段庄内5,2北辛力外3【纯农排变】,2北李各庄外5【纯农排变】,2大李各庄内4,北辛力小学变压器,2北李各庄外11【纯农排变】,北李各庄小学变压器,2付家营外27【纯农排变】,2北李各庄外15【纯农排变】,2大李各庄小村外4【纯农排变】,1北段庄内4,2北李各庄外16【纯农排变】,2南辛力外2【纯农排变】,2付家营外16【纯农排变】,2北辛力外6【纯农排变】,2张马庄外10【纯农排变】,2付家营外22【纯农排变】,1北辛力内3,1张马庄内4,1寺上内2,2北李各庄外14【纯农排变】,2北段庄外14【纯农排变】,2北李各庄外7【纯农排变】,2北辛力外5【纯农排变】,2付家营外11【纯农排变】,2北李各庄外3【纯农排变】,北李各庄内8变压器,2北李各庄外17【纯农排变】,2北段庄外10【纯农排变】,2北辛力外2【纯农排变】,2北段庄外6【纯农排变】,1张马庄内2,2北李各庄外18【纯农排变】,2北段庄外7【纯农排变】,2大李各庄小村外9【纯农排变】,2北段庄外24【纯农排变】,1北辛力内1,1付家营内1,2北李各庄外2【纯农排变】,2北辛力外10【纯农排变】,1北段庄内1,2南辛力外10【纯农排变】,1付家营内6,2北段庄外21【纯农排变】,2北李各庄外10【纯农排变】,2北段庄外16【纯农排变】,旭康农副产品有限公司,2付家营外14【纯农排变】,2北辛力外8【纯农排变】,2北辛力外7【纯农排变】,1南辛力内2,1北李各庄内1,1寺上内1,2寺上外2【纯农排变】,李庄二中,2大李各庄小村外11【纯农排变】,2北段庄外10并台【纯农排变】,1北段庄内7,2北辛力外4【纯农排变】,唐河2,2南辛力外9【纯农排变】,2大李各庄小村外5【纯农排变】,唐河3,2张马庄外12【纯农排变】,2北段庄外19【纯农排变】,2北段庄外5【纯农排变】,2北段庄外3【纯农排变】,1付家营内7,2北段庄外9【纯农排变】,2北李各庄外12【纯农排变】,1北李各庄内4,2付家营外9【纯农排变】,2南辛力外12【纯农排变】,2北段庄外2【纯农排变】,李庄第二中学变压器1,2北辛力外1【纯农排变】,2付家营外26【纯农排变】,2北段庄外8【纯农排变】,2南辛力外5【纯农排变】,2北段庄外20【纯农排变】,李庄第二中学变压器2,2大李各庄小村外10【纯农排变】,付家营砖厂,2北段庄外17【纯农排变】,2付家营外24【纯农排变】,祥和饭店,1北段庄内8,2张马庄外1【纯农排变】,1北李各庄内3,2北李各庄外1【纯农排变】,2北段庄外12并台【纯农排变】,2张马庄外5【纯农排变】,唐河6,2李庄外21【纯农排变】,2南辛力外1【纯农排变】,2寺上外6【纯农排变】,2北段庄外15【纯农排变】,2大李各庄小村外3【纯农排变】,2大","poweroffReason":"【停电原因】由于主干１１８号杆西Ｔ５号杆南Ｔ２号杆北辛力面粉厂Ｃ相避雷器烧毁导致３５ＫＶ李庄变电站１０ＫＶ段庄线５１４线路全线停电 【变更送电】因抢修进度加快原因，送电时间由０６：００变更为０１：４０ 【发布渠道】通过９５５９８发布","powerTime":"2020-04-20 01:18:46","powerComm":"胡惠娟通知已送电","subsNo":"","lineNo":"","tgNo":"","tgName":null,"infoStatus":"1","orgName":"国网清苑县供电公司","typeName":null,"infoStatusName":null,"dateDay":null,"orgNos":null,"nowTime":null,"countyName":null,"streetName":null,"villageName":null,"roadName":null,"communityName":null,"tranName":null,"sdLineName":null,"cityCode":"1340618","cityName":"国网清苑县供电公司","provinceCode":null,"stopTime":"2020-04-20 01:40:00","powerType":"全部","powerOffArea":"【全线路停电】停2大李各庄小村外6【纯农排变】,2大李各庄小村外8【纯农排变】,1北李各庄内2,李庄第二中学3变压器,张马庄小学变压器,1北段庄内9,2张马庄外2【纯农排变】,1付家营内4,1北李各庄内7,2南辛力外3【纯农排变】,2北李各庄外13【纯农排变】,北李各庄幼儿园变压器,0600552015-中国铁塔股份有限公司保定市分公司-专变-126728124-中国移动通信集团河北有限公司清苑分公司,2张马庄外3【纯农排变】,北辛力内4变压器,2寺上外4【纯农排变】,1北段庄内3,1南辛力内1,2大李各庄小村外7【纯农排变】,2北辛力外11【纯农排变】,2北段庄外1【纯农排变】,1北段庄内6,2大李各庄小村外13【纯农排变】,1北段庄内2,唐河4,2张马庄外9【纯农排变】,2北李各庄外4【纯农排变】,1北辛力内2,2南辛力外4【纯农排变】,2南辛力外13【纯农排变】,育英幼儿园变压器,2北段庄外25【纯农排变】,2北辛力外9【纯农排变】,2寺上外8【纯农排变】,2北段庄外4并台【纯农排变】,1张马庄内3,1北段庄内5,2北辛力外3【纯农排变】,2北李各庄外5【纯农排变】,2大李各庄内4,北辛力小学变压器,2北李各庄外11【纯农排变】,北李各庄小学变压器,2付家营外27【纯农排变】,2北李各庄外15【纯农排变】,2大李各庄小村外4【纯农排变】,1北段庄内4,2北李各庄外16【纯农排变】,2南辛力外2【纯农排变】,2付家营外16【纯农排变】,2北辛力外6【纯农排变】,2张马庄外10【纯农排变】,2付家营外22【纯农排变】,1北辛力内3,1张马庄内4,1寺上内2,2北李各庄外14【纯农排变】,2北段庄外14【纯农排变】,2北李各庄外7【纯农排变】,2北辛力外5【纯农排变】,2付家营外11【纯农排变】,2北李各庄外3【纯农排变】,北李各庄内8变压器,2北李各庄外17【纯农排变】,2北段庄外10【纯农排变】,2北辛力外2【纯农排变】,2北段庄外6【纯农排变】,1张马庄内2,2北李各庄外18【纯农排变】,2北段庄外7【纯农排变】,2大李各庄小村外9【纯农排变】,2北段庄外24【纯农排变】,1北辛力内1,1付家营内1,2北李各庄外2【纯农排变】,2北辛力外10【纯农排变】,1北段庄内1,2南辛力外10【纯农排变】,1付家营内6,2北段庄外21【纯农排变】,2北李各庄外10【纯农排变】,2北段庄外16【纯农排变】,旭康农副产品有限公司,2付家营外14【纯农排变】,2北辛力外8【纯农排变】,2北辛力外7【纯农排变】,1南辛力内2,1北李各庄内1,1寺上内1,2寺上外2【纯农排变】,李庄二中,2大李各庄小村外11【纯农排变】,2北段庄外10并台【纯农排变】,1北段庄内7,2北辛力外4【纯农排变】,唐河2,2南辛力外9【纯农排变】,2大李各庄小村外5【纯农排变】,唐河3,2张马庄外12【纯农排变】,2北段庄外19【纯农排变】,2北段庄外5【纯农排变】,2北段庄外3【纯农排变】,1付家营内7,2北段庄外9【纯农排变】,2北李各庄外12【纯农排变】,1北李各庄内4,2付家营外9【纯农排变】,2南辛力外12【纯农排变】,2北段庄外2【纯农排变】,李庄第二中学变压器1,2北辛力外1【纯农排变】,2付家营外26【纯农排变】,2北段庄外8【纯农排变】,2南辛力外5【纯农排变】,2北段庄外20【纯农排变】,李庄第二中学变压器2,2大李各庄小村外10【纯农排变】,付家营砖厂,2北段庄外17【纯农排变】,2付家营外24【纯农排变】,祥和饭店,1北段庄内8,2张马庄外1【纯农排变】,1北李各庄内3,2北李各庄外1【纯农排变】,2北段庄外12并台【纯农排变】,2张马庄外5【纯农排变】,唐河6,2李庄外21【纯农排变】,2南辛力外1【纯农排变】,2寺上外6【纯农排变】,2北段庄外15【纯农排变】,2大李各庄小村外3【纯农排变】,2大","powerOffReason":"【停电原因】由于主干１１８号杆西Ｔ５号杆南Ｔ２号杆北辛力面粉厂Ｃ相避雷器烧毁导致３５ＫＶ李庄变电站１０ＫＶ段庄线５１４线路全线停电 【变更送电】因抢修进度加快原因，送电时间由０６：００变更为０１：４０ 【发布渠道】通过９５５９８发布","powerOffId":"2020041913000283"},{"poweroffId":2020041913000266,"sgpoweroffId":null,"subsName":"","lineName":"10kV新昌521线","pubTranName":"杨炳成1,0694040708-高碑店市清波水务科技有限公司-专变-237515452-高碑店市清波水务科技有限公司2#变压器,北城政府2号公变,高碑店市人民政府北城办事处变压器,高碑店市园林绿化有限公司,高碑店市南海润滑油有限公司,李玉山,杨漫撒政府公变,高碑店市建设局,","scope":"【影响街道/乡镇】北城办事处 【高危重要客户】水厂 【影响客户】南海润滑油、李玉山","startTime":"2020-04-19 22:43:47","stopDate":"2020-04-20 00:30:00","orgNo":"1340612","typeCode":"电网故障停限电","poweroffArea":"【全线路停电】停高碑店市建设局,杨炳成1,0694040708-高碑店市清波水务科技有限公司-专变-237515452-高碑店市清波水务科技有限公司2#变压器,北城政府2号公变,高碑店市人民政府北城办事处变压器,高碑店市园林绿化有限公司,高碑店市南海润滑油有限公司,李玉山,杨漫撒政府公变","poweroffReason":"【停电原因】由于李玉山专变有异物导致１１０ＫＶ各庄变电站１０ＫＶ新昌５２１线路全线停电 【变更送电】因抢修进度加快原因，送电时间由１０：００变更为００：３０ 【发布渠道】通过９５５９８发布","powerTime":"2020-04-20 00:03:25","powerComm":"已送电","subsNo":"","lineNo":"","tgNo":"","tgName":null,"infoStatus":"1","orgName":"国网高碑店市供电公司","typeName":null,"infoStatusName":null,"dateDay":null,"orgNos":null,"nowTime":null,"countyName":null,"streetName":null,"villageName":null,"roadName":null,"communityName":null,"tranName":null,"sdLineName":null,"cityCode":"1340612","cityName":"国网高碑店市供电公司","provinceCode":null,"stopTime":"2020-04-20 00:30:00","powerType":"全部","powerOffArea":"【全线路停电】停高碑店市建设局,杨炳成1,0694040708-高碑店市清波水务科技有限公司-专变-237515452-高碑店市清波水务科技有限公司2#变压器,北城政府2号公变,高碑店市人民政府北城办事处变压器,高碑店市园林绿化有限公司,高碑店市南海润滑油有限公司,李玉山,杨漫撒政府公变","powerOffReason":"【停电原因】由于李玉山专变有异物导致１１０ＫＶ各庄变电站１０ＫＶ新昌５２１线路全线停电 【变更送电】因抢修进度加快原因，送电时间由１０：００变更为００：３０ 【发布渠道】通过９５５９８发布","powerOffId":"2020041913000266"},{"poweroffId":2020041913000263,"sgpoweroffId":null,"subsName":"","lineName":"桥梁厂515","pubTranName":"殷家沟村3#,东清源村5#,西清源3#,西清源村2#,蔡家峪村2#,马圈子3#,平顶山村4#,殷家沟村2#,马圈子村9#,西清源村5#,东清源村6#,蔡家峪村7#,西清源村8#,西清源村11#,蔡家峪村3#,马圈子村6#,蔡家峪村4#,东清源村2#,东清源村3#,马圈子村10#,山神庙村2#,蔡家峪村6#,马圈子村11#,平顶山村5#,马圈子村1#,西清源村6#,蔡家峪村5#,山神庙村3#,蔡家峪村1#,平顶山村2#,西清源村4#,马圈子2#,山神庙7号变压器,平顶山村1#,殷家沟村1#,马圈子村5#,西清源10#,蔡家峪乡直,马圈子村8#,马圈子村4#,马圈子村7#,山神庙村5#,山神庙6#,平顶山村3#,蔡家峪村8井变压器,山神庙村1#,殷家沟村4#,西清源9#,山神庙村4#,西清源村1#,","scope":"【影响街道/乡镇】紫荆关镇、蔡家峪乡【高危重要客户】无【影响客户】东清源村、西清源村、蔡家峪村、山神庙村、殷家沟村、马圈子村、平顶山村","startTime":"2020-04-19 22:45:10","stopDate":"2020-04-20 00:20:00","orgNo":"1340625","typeCode":"电网故障停限电","poweroffArea":"【全线路停电】停西清源3#,0619915173-中国移动通信集团河北有限公司易县分公司-专变-129035100-中国移动通信集团河北有限公司易县分公司变压器,西清源村2#,蔡家峪村2#,0554193164-易县雷发顺天成石材加工厂-专变-75222837-易县雷发顺天成石材加工厂,平顶山村朱俊江变压器,马圈子3#,西清源10#,山神庙村2#,蔡家峪卫生院80KVA,马圈子村10#,蔡家峪村6#,马圈子村11#,平顶山村5#,金属结构厂2,马圈子村1#,西清源村6#,殷家沟村3#,东清源村5#,平顶山村4#,殷家沟村2#,马圈子村9#,西清源村5#,东清源村6#,蔡家峪村7#,西清源村8#,西清源村11#,易县蔡家峪国有林场50KVA,蔡家峪村3#,马圈子村6#,蔡家峪村4#,东清源村2#,蔡家峪村5#,山神庙村3#,蔡家峪村1#,0579388992-易县太行矿业有限公司-专变-124403513-易县太行矿业有限公司变压器,平顶山村2#,金属结构厂1,西清源村4#,马圈子2#,山神庙7号变压器,平顶山村1#,殷家沟村1#,马圈子村5#,蔡家峪乡直,马圈子村8#,马圈子村4#,平顶山村3#,马圈子村7#,山神庙村5#,山神庙6#,蔡家峪村8井变压器,山神庙村1#,东清源村3#,殷家沟村4#,西清源9#,山神庙村4#,西清源村1#","poweroffReason":"【停电原因】由于速断跳闸导致３５ＫＶ大兴安变电站桥梁厂５１５线路全线停电【变更送电】因抢修进度加快原因，送电时间由０８：００变更为００：２０【发布渠道】通过９５５９８发布","powerTime":"2020-04-20 00:00:39","powerComm":"已送电","subsNo":"","lineNo":"","tgNo":"","tgName":null,"infoStatus":"1","orgName":"国网易县供电公司","typeName":null,"infoStatusName":null,"dateDay":null,"orgNos":null,"nowTime":null,"countyName":null,"streetName":null,"villageName":null,"roadName":null,"communityName":null,"tranName":null,"sdLineName":null,"cityCode":"1340625","cityName":"国网易县供电公司","provinceCode":null,"stopTime":"2020-04-20 00:20:00","powerType":"全部","powerOffArea":"【全线路停电】停西清源3#,0619915173-中国移动通信集团河北有限公司易县分公司-专变-129035100-中国移动通信集团河北有限公司易县分公司变压器,西清源村2#,蔡家峪村2#,0554193164-易县雷发顺天成石材加工厂-专变-75222837-易县雷发顺天成石材加工厂,平顶山村朱俊江变压器,马圈子3#,西清源10#,山神庙村2#,蔡家峪卫生院80KVA,马圈子村10#,蔡家峪村6#,马圈子村11#,平顶山村5#,金属结构厂2,马圈子村1#,西清源村6#,殷家沟村3#,东清源村5#,平顶山村4#,殷家沟村2#,马圈子村9#,西清源村5#,东清源村6#,蔡家峪村7#,西清源村8#,西清源村11#,易县蔡家峪国有林场50KVA,蔡家峪村3#,马圈子村6#,蔡家峪村4#,东清源村2#,蔡家峪村5#,山神庙村3#,蔡家峪村1#,0579388992-易县太行矿业有限公司-专变-124403513-易县太行矿业有限公司变压器,平顶山村2#,金属结构厂1,西清源村4#,马圈子2#,山神庙7号变压器,平顶山村1#,殷家沟村1#,马圈子村5#,蔡家峪乡直,马圈子村8#,马圈子村4#,平顶山村3#,马圈子村7#,山神庙村5#,山神庙6#,蔡家峪村8井变压器,山神庙村1#,东清源村3#,殷家沟村4#,西清源9#,山神庙村4#,西清源村1#","powerOffReason":"【停电原因】由于速断跳闸导致３５ＫＶ大兴安变电站桥梁厂５１５线路全线停电【变更送电】因抢修进度加快原因，送电时间由０８：００变更为００：２０【发布渠道】通过９５５９８发布","powerOffId":"2020041913000263"},{"poweroffId":2020041913000247,"sgpoweroffId":null,"subsName":"","lineName":"苇元屯线563","pubTranName":"07189|苇元屯村西综合3621,苇元屯村东南新增综合,田庄村南新增综合,宋桥村东2号新增综合,07190|苇元屯村西综合3637,苇元屯村东公路北17#农排【纯农排变】,南堤口村北新增综合变,07033|北堤口村东综合3737,07213|北堤口村北综合3631,07199|苇元屯村东综合3714,07061|张博士庄村东综合3726,07040|北堤口综合3661,07191|苇元屯村南综合3734,宋桥村南新增综合,07193|宋桥村东综合3626,07051|南堤口综合3688,07187|苇元屯村北综合3670,苇元屯村东15#农排【纯农排变】,07035|张卜士庄村北综合3632,07049|南堤口村东综合3629,07192|苇元屯村东综合3620,07188|苇元屯村西北综合3643,苇元屯东南1#农排【纯农排变】,07194|宋桥综合3674,07036|田庄村西综合3627,","scope":"【影响街道/乡镇】晋庄乡 【高危重要客户】无 【影响客户】苇元屯村、宋桥村、南堤口村、北堤口村、张博士庄村、田庄村","startTime":"2020-04-19 20:55:25","stopDate":"2020-04-19 23:55:00","orgNo":"1340613","typeCode":"电网故障停限电","poweroffArea":"【全线路停电】停高阳县邢家南镇南堤口村村民委员会变压器,苇元屯塑料厂,07036|田庄村西综合3627,高阳县倬奥纺织有限公司,倬奥健身工艺品厂,三岔口农业开发（村西南）,07192|苇元屯村东综合3620,红月纺织品有限公,康乐健身器材厂,宋桥村南新增综合,07213|北堤口村北综合3631,倬奥健身工艺品公司变压器,高阳县九梭织造厂,07193|宋桥村东综合3626,刘保元织布厂,高阳县嘉鑫纺织有限公司,弘昌纺织品有限公,07187|苇元屯村北综合3670,07190|苇元屯村西综合3637,南堤口村北新增综合变,07033|北堤口村东综合3737,南堤口,高阳县晋庄镇田家庄村变压器,,07035|张卜士庄村北综合3632,张博士庄刘保江,07049|南堤口村东综合3629,高阳县鑫灿纺织品制造有限公司变压器,07040|北堤口综合3661,07191|苇元屯村南综合3734田庄村南新增综合,苇元屯村东南新增综合,宋桥村东2号新增综合,07061|张博士庄村东综合3726,高阳县晋庄镇张博士庄村村委会变压器,07051|南堤口综合3688,07194|宋桥综合3674,07199|苇元屯村东综合3714,南堤口村西北,07189|苇元屯村西综合3621","poweroffReason":"【停电原因】由于风刮异物导致１１０ＫＶ芦庄变电站苇元屯５６３线路全线停电【变更送电】无【发布渠道】通过９５５９８发布","powerTime":"2020-04-19 23:11:03","powerComm":"已送电","subsNo":"","lineNo":"","tgNo":"","tgName":null,"infoStatus":"1","orgName":"国网高阳县供电公司","typeName":null,"infoStatusName":null,"dateDay":null,"orgNos":null,"nowTime":null,"countyName":null,"streetName":null,"villageName":null,"roadName":null,"communityName":null,"tranName":null,"sdLineName":null,"cityCode":"1340613","cityName":"国网高阳县供电公司","provinceCode":null,"stopTime":"2020-04-19 23:55:00","powerType":"全部","powerOffArea":"【全线路停电】停高阳县邢家南镇南堤口村村民委员会变压器,苇元屯塑料厂,07036|田庄村西综合3627,高阳县倬奥纺织有限公司,倬奥健身工艺品厂,三岔口农业开发（村西南）,07192|苇元屯村东综合3620,红月纺织品有限公,康乐健身器材厂,宋桥村南新增综合,07213|北堤口村北综合3631,倬奥健身工艺品公司变压器,高阳县九梭织造厂,07193|宋桥村东综合3626,刘保元织布厂,高阳县嘉鑫纺织有限公司,弘昌纺织品有限公,07187|苇元屯村北综合3670,07190|苇元屯村西综合3637,南堤口村北新增综合变,07033|北堤口村东综合3737,南堤口,高阳县晋庄镇田家庄村变压器,,07035|张卜士庄村北综合3632,张博士庄刘保江,07049|南堤口村东综合3629,高阳县鑫灿纺织品制造有限公司变压器,07040|北堤口综合3661,07191|苇元屯村南综合3734田庄村南新增综合,苇元屯村东南新增综合,宋桥村东2号新增综合,07061|张博士庄村东综合3726,高阳县晋庄镇张博士庄村村委会变压器,07051|南堤口综合3688,07194|宋桥综合3674,07199|苇元屯村东综合3714,南堤口村西北,07189|苇元屯村西综合3621","powerOffReason":"【停电原因】由于风刮异物导致１１０ＫＶ芦庄变电站苇元屯５６３线路全线停电【变更送电】无【发布渠道】通过９５５９８发布","powerOffId":"2020041913000247"}],"pageModel":{"pageNow":158,"totalCount":10973,"totalPage":1098,"tableRows":0,"pageCount":10,"beginCount":1570},"isExperi":"1"}