{"message":"","today":"2020-06-15","seleList":[{"poweroffId":2020041913000240,"sgpoweroffId":null,"subsName":"","lineName":"10kV东张村线550","pubTranName":"中胶人才家园B变压器母线间隔配电变压器,中胶人才家园C变压器母线间隔配电变压器,中胶人才家园A变压器母线间隔配电变压器,","scope":"【影响街道/乡镇】刁窝乡华阳东路、腾飞大街、阳光大街 【高危重要客户】无 【影响客户】塔西、沿鲁、塔东","startTime":"2020-04-22 03:30:00","stopDate":"2020-04-22 05:00:00","orgNo":"1340626","typeCode":"临时停电","poweroffArea":"【全线路停电】停0636029156-涿州市恒通荣盛房地产开发有限公司-专变-148178365-涿州市恒通荣盛房地产开发有限公司2,涿州歌华有线电视网络有限公司2,涿州超达塑胶有限公司,塔东村【纯农排变】,沿鲁村（二）,沿鲁村（三）,中胶人才家园A变压器母线间隔配电变压器,河北路蓬塑胶有限公司,中交第三公路工程局有限公司京石改扩建工程JS1项目部,塔东村（村东）,开发区市政路灯,河北中胶国际胶带有限公司,0676928367-涿州市荣安管业有限公司-专变-217765611-涿州市荣安管业有限公司,北京朗威达科技发展有限公司涿州分公司,0586418448-航天科工惯性技术有限公司涿州分公司-专变-125123639-航天科工惯性技术有限公司涿州分公司3,涿州市荣安成套设备制造有限公司,涿州瑞安化工机械有限公司1,中胶人才家园C变压器母线间隔配电变压器,京津冀中冶名信基础设施建设有限公司,涿州大童融商企业管理有限公司,中胶人才家园B变压器母线间隔配电变压器,河北省涿州开发区管理委员会,中煤地质工程总公司,涿州歌华有线电视网络有限公司1,0586418448-航天科工惯性技术有限公司涿州分公司-专变-169902775-航天科工惯性技术有限公司涿州分公司6,塔西地,河北国朔泵业有限公司,0660691424-河北省涿州开发区管理委员会-专变-197236858-河北省涿州开发区管理委员会,涿州中石油昆仑燃气有限公司,0586418448-航天科工惯性技术有限公司涿州分公司-专变-125129511-航天科工惯性技术有限公司涿州分公司4,涿州开发区市政工程处,河北省涿州开发区管理委员会（华阳路口）,卢场面粉厂,南皮县兴华建筑安装工程有限公司,涿州市中环机械厂,涿州市广汇金属结构制造有限公司","poweroffReason":"【停电原因】由于站内开关检修导致１１０ＫＶ新业变电站１０ＫＶ东张村５５０线路全线停电 【变更送电】无 【发布渠道】通过９５５９８发布","powerTime":"2020-04-22 04:31:42","powerComm":"已送电","subsNo":"","lineNo":"","tgNo":"","tgName":null,"infoStatus":"1","orgName":"国网涿州市供电公司","typeName":null,"infoStatusName":null,"dateDay":null,"orgNos":null,"nowTime":null,"countyName":null,"streetName":null,"villageName":null,"roadName":null,"communityName":null,"tranName":null,"sdLineName":null,"cityCode":"1340626","cityName":"国网涿州市供电公司","provinceCode":null,"stopTime":"2020-04-22 05:00:00","powerType":"全部","powerOffArea":"【全线路停电】停0636029156-涿州市恒通荣盛房地产开发有限公司-专变-148178365-涿州市恒通荣盛房地产开发有限公司2,涿州歌华有线电视网络有限公司2,涿州超达塑胶有限公司,塔东村【纯农排变】,沿鲁村（二）,沿鲁村（三）,中胶人才家园A变压器母线间隔配电变压器,河北路蓬塑胶有限公司,中交第三公路工程局有限公司京石改扩建工程JS1项目部,塔东村（村东）,开发区市政路灯,河北中胶国际胶带有限公司,0676928367-涿州市荣安管业有限公司-专变-217765611-涿州市荣安管业有限公司,北京朗威达科技发展有限公司涿州分公司,0586418448-航天科工惯性技术有限公司涿州分公司-专变-125123639-航天科工惯性技术有限公司涿州分公司3,涿州市荣安成套设备制造有限公司,涿州瑞安化工机械有限公司1,中胶人才家园C变压器母线间隔配电变压器,京津冀中冶名信基础设施建设有限公司,涿州大童融商企业管理有限公司,中胶人才家园B变压器母线间隔配电变压器,河北省涿州开发区管理委员会,中煤地质工程总公司,涿州歌华有线电视网络有限公司1,0586418448-航天科工惯性技术有限公司涿州分公司-专变-169902775-航天科工惯性技术有限公司涿州分公司6,塔西地,河北国朔泵业有限公司,0660691424-河北省涿州开发区管理委员会-专变-197236858-河北省涿州开发区管理委员会,涿州中石油昆仑燃气有限公司,0586418448-航天科工惯性技术有限公司涿州分公司-专变-125129511-航天科工惯性技术有限公司涿州分公司4,涿州开发区市政工程处,河北省涿州开发区管理委员会（华阳路口）,卢场面粉厂,南皮县兴华建筑安装工程有限公司,涿州市中环机械厂,涿州市广汇金属结构制造有限公司","powerOffReason":"【停电原因】由于站内开关检修导致１１０ＫＶ新业变电站１０ＫＶ东张村５５０线路全线停电 【变更送电】无 【发布渠道】通过９５５９８发布","powerOffId":"2020041913000240"},{"poweroffId":2020041913000225,"sgpoweroffId":null,"subsName":"","lineName":"桥梁厂515","pubTranName":"东清源村3#,马圈子村10#,山神庙村2#,蔡家峪村6#,马圈子村11#,平顶山村5#,马圈子村1#,西清源村6#,殷家沟村3#,东清源村5#,西清源3#,西清源村2#,蔡家峪村2#,马圈子3#,平顶山村4#,殷家沟村2#,马圈子村9#,西清源村5#,东清源村6#,蔡家峪村7#,西清源村8#,西清源村11#,蔡家峪村3#,马圈子村6#,蔡家峪村4#,东清源村2#,蔡家峪村5#,山神庙村3#,蔡家峪村1#,平顶山村2#,西清源村4#,马圈子2#,山神庙7号变压器,平顶山村1#,殷家沟村1#,马圈子村5#,西清源10#,蔡家峪乡直,马圈子村8#,马圈子村4#,马圈子村7#,山神庙村5#,山神庙6#,平顶山村3#,蔡家峪村8井变压器,山神庙村1#,殷家沟村4#,西清源9#,山神庙村4#,西清源村1#,","scope":"【影响街道/乡镇】紫荆关镇、蔡家峪乡【高危重要客户】无【影响客户】东清源村、西清源村、蔡家峪村、山神庙村、殷家沟村、马圈子村、平顶山村","startTime":"2020-04-19 18:47:31","stopDate":"2020-04-19 21:20:00","orgNo":"1340625","typeCode":"电网故障停限电","poweroffArea":"【全线路停电】停西清源3#,0619915173-中国移动通信集团河北有限公司易县分公司-专变-129035100-中国移动通信集团河北有限公司易县分公司变压器,西清源村2#,蔡家峪村2#,0554193164-易县雷发顺天成石材加工厂-专变-75222837-易县雷发顺天成石材加工厂,平顶山村朱俊江变压器,马圈子3#,西清源10#,山神庙村2#,蔡家峪卫生院80KVA,马圈子村10#,蔡家峪村6#,马圈子村11#,平顶山村5#,金属结构厂2,马圈子村1#,西清源村6#,殷家沟村3#,东清源村5#,平顶山村4#,殷家沟村2#,马圈子村9#,西清源村5#,东清源村6#,蔡家峪村7#,西清源村8#,西清源村11#,易县蔡家峪国有林场50KVA,蔡家峪村3#,马圈子村6#,蔡家峪村4#,东清源村2#,蔡家峪村5#,山神庙村3#,蔡家峪村1#,0579388992-易县太行矿业有限公司-专变-124403513-易县太行矿业有限公司变压器,平顶山村2#,金属结构厂1,西清源村4#,马圈子2#,山神庙7号变压器,平顶山村1#,殷家沟村1#,马圈子村5#,蔡家峪乡直,马圈子村8#,马圈子村4#,平顶山村3#,马圈子村7#,山神庙村5#,山神庙6#,蔡家峪村8井变压器,山神庙村1#,东清源村3#,殷家沟村4#,西清源9#,山神庙村4#,西清源村1#","poweroffReason":"【停电原因】由于速断跳闸导致３５ＫＶ大兴安变电站桥梁厂５１５线路全线停电【变更送电】因抢修进度加快原因，送电时间由２３：００变更为２１：２０【发布渠道】通过９５５９８发布","powerTime":"2020-04-19 20:58:16","powerComm":"已送电","subsNo":"","lineNo":"","tgNo":"","tgName":null,"infoStatus":"1","orgName":"国网易县供电公司","typeName":null,"infoStatusName":null,"dateDay":null,"orgNos":null,"nowTime":null,"countyName":null,"streetName":null,"villageName":null,"roadName":null,"communityName":null,"tranName":null,"sdLineName":null,"cityCode":"1340625","cityName":"国网易县供电公司","provinceCode":null,"stopTime":"2020-04-19 21:20:00","powerType":"全部","powerOffArea":"【全线路停电】停西清源3#,0619915173-中国移动通信集团河北有限公司易县分公司-专变-129035100-中国移动通信集团河北有限公司易县分公司变压器,西清源村2#,蔡家峪村2#,0554193164-易县雷发顺天成石材加工厂-专变-75222837-易县雷发顺天成石材加工厂,平顶山村朱俊江变压器,马圈子3#,西清源10#,山神庙村2#,蔡家峪卫生院80KVA,马圈子村10#,蔡家峪村6#,马圈子村11#,平顶山村5#,金属结构厂2,马圈子村1#,西清源村6#,殷家沟村3#,东清源村5#,平顶山村4#,殷家沟村2#,马圈子村9#,西清源村5#,东清源村6#,蔡家峪村7#,西清源村8#,西清源村11#,易县蔡家峪国有林场50KVA,蔡家峪村3#,马圈子村6#,蔡家峪村4#,东清源村2#,蔡家峪村5#,山神庙村3#,蔡家峪村1#,0579388992-易县太行矿业有限公司-专变-124403513-易县太行矿业有限公司变压器,平顶山村2#,金属结构厂1,西清源村4#,马圈子2#,山神庙7号变压器,平顶山村1#,殷家沟村1#,马圈子村5#,蔡家峪乡直,马圈子村8#,马圈子村4#,平顶山村3#,马圈子村7#,山神庙村5#,山神庙6#,蔡家峪村8井变压器,山神庙村1#,东清源村3#,殷家沟村4#,西清源9#,山神庙村4#,西清源村1#","powerOffReason":"【停电原因】由于速断跳闸导致３５ＫＶ大兴安变电站桥梁厂５１５线路全线停电【变更送电】因抢修进度加快原因，送电时间由２３：００变更为２１：２０【发布渠道】通过９５５９８发布","powerOffId":"2020041913000225"},{"poweroffId":2020041913000224,"sgpoweroffId":null,"subsName":"","lineName":"10kV521辛庄线","pubTranName":"南腰山内-23002660|23002660,西于家庄综合3号2425,北吴村西-23000100|23000100,西于家庄村东新增综合,北吴村综合6号7867,南腰山综合6号0415,北安全-23000270|23000270,山东头新增综合4号2407,山东头综合3号9975,南腰山综合5号2426,南吴村综合3号0831,南腰山新村-23002300|23002300,西于庄-23000130,南安全-23000210|23000210,辛庄新增综合10号2852,南腰山综合7号6001,北安全综合2号9888,东于村北-23000240|23000240,南吴村综合4号2921,西于家庄综合2号4020,马家庄村东新增综合,山东头-23000140|23000140,南安全综合4号2920,山东头综合2号,辛庄新增综合9号2419,511西于家庄综合4号6860,何家营综合3号0413,辛庄综合8号0409,东于家庄综合4号8516,马家庄综合2号,辛庄村北-23000680|23000680,辛庄新增综合12号1909,东于庄-23000920|23000920,东于庄综合3号2429,马家庄-23000230|23000230,北安全新增综合3号1910,辛庄综合7号2427,南安全-23003980|23003980,辛庄村西-23000050|23000050,何家营-23000020|23000020,南安全综合3号2431,南安全新增综合5号1903,南吴村南-23000150|23000150,南腰山西-23002650|23002650,","scope":"【影响街道/乡镇】蒲上乡、腰山镇【高危重要客户】无【影响客户】何家营、辛庄、北吴村、西于家庄、南吴村、南安全、马家庄、东于家庄、北安全、山东头、南腰山、顺平县华瑞采石厂、河北保沧大型石材有限责任公司","startTime":"2020-04-19 18:20:13","stopDate":"2020-04-19 20:30:00","orgNo":"1340621","typeCode":"电网故障停限电","poweroffArea":"【全线路停电】停辛庄新增综合10号2852,辛庄村北-23000680|23000680,辛庄新增综合12号1909,东于庄-23000920|23000920,东于庄综合3号2429,马家庄-23000230|23000230,北安全新增综合3号1910,南腰山内-23002660|23002660,西于家庄综合3号2425,北吴村西-23000100|23000100,西于家庄村东新增综合,北吴村综合6号7867,南腰山综合6号0415,北安全-23000270|23000270,山东头新增综合4号2407,山东头综合3号9975,南腰山综合5号2426,西于庄-23000130,南腰山综合7号6001,北安全综合2号9888,东于村北-23000240|23000240,南吴村综合4号2921,西于家庄综合2号4020,马家庄村东新增综合,山东头-23000140|23000140,南安全综合4号2920,山东头综合2号,辛庄新增综合9号2419,511西于家庄综合4号6860,何家营综合3号0413,辛庄综合8号0409,东于家庄综合4号8516,马家庄综合2号,南吴村综合3号0831,南腰山新村-23002300|23002300,南安全-23000210|23000210,南腰山西-23002650|23002650,辛庄综合7号2427,南安全-23003980|23003980,辛庄村西-23000050|23000050,何家营-23000020|23000020,南安全综合3号2431,南安全新增综合5号1903,南吴村南-23000150|23000150,顺平县腰山中心卫生院","poweroffReason":"【停电原因】由于树枝搭线自行脱落造成跳闸导致３５ＫＶ腰山变电站１０ＫＶ５２１辛庄线路全线停电【变更送电】因抢修进度加快原因，送电时间由２３：００变更为２０：３０【发布渠道】通过９５５９８发布","powerTime":"2020-04-19 20:11:07","powerComm":"已送电","subsNo":"","lineNo":"","tgNo":"","tgName":null,"infoStatus":"1","orgName":"国网顺平县电力局","typeName":null,"infoStatusName":null,"dateDay":null,"orgNos":null,"nowTime":null,"countyName":null,"streetName":null,"villageName":null,"roadName":null,"communityName":null,"tranName":null,"sdLineName":null,"cityCode":"1340621","cityName":"国网顺平县电力局","provinceCode":null,"stopTime":"2020-04-19 20:30:00","powerType":"全部","powerOffArea":"【全线路停电】停辛庄新增综合10号2852,辛庄村北-23000680|23000680,辛庄新增综合12号1909,东于庄-23000920|23000920,东于庄综合3号2429,马家庄-23000230|23000230,北安全新增综合3号1910,南腰山内-23002660|23002660,西于家庄综合3号2425,北吴村西-23000100|23000100,西于家庄村东新增综合,北吴村综合6号7867,南腰山综合6号0415,北安全-23000270|23000270,山东头新增综合4号2407,山东头综合3号9975,南腰山综合5号2426,西于庄-23000130,南腰山综合7号6001,北安全综合2号9888,东于村北-23000240|23000240,南吴村综合4号2921,西于家庄综合2号4020,马家庄村东新增综合,山东头-23000140|23000140,南安全综合4号2920,山东头综合2号,辛庄新增综合9号2419,511西于家庄综合4号6860,何家营综合3号0413,辛庄综合8号0409,东于家庄综合4号8516,马家庄综合2号,南吴村综合3号0831,南腰山新村-23002300|23002300,南安全-23000210|23000210,南腰山西-23002650|23002650,辛庄综合7号2427,南安全-23003980|23003980,辛庄村西-23000050|23000050,何家营-23000020|23000020,南安全综合3号2431,南安全新增综合5号1903,南吴村南-23000150|23000150,顺平县腰山中心卫生院","powerOffReason":"【停电原因】由于树枝搭线自行脱落造成跳闸导致３５ＫＶ腰山变电站１０ＫＶ５２１辛庄线路全线停电【变更送电】因抢修进度加快原因，送电时间由２３：００变更为２０：３０【发布渠道】通过９５５９８发布","powerOffId":"2020041913000224"},{"poweroffId":2020041913000220,"sgpoweroffId":null,"subsName":"","lineName":"市郊513","pubTranName":"顺河庄11号变压器,曹庄01变压器,三丈铺新增北台变压器,三丈东南变压器,曹庄07变压器,西马南变压器,曹庄04变压器,顺河庄04号变压器,曹庄南公变变压器,西马新变压器,曹庄02变压器,三丈铺西变压器,曹庄03变压器,三丈辛庄新增200配变,南方中西变压器,北方中新增西变压器,南方中南地变压器【纯农排变】,南方中北变压器,北方中中台变压器,北方中东变压器,北方中新增200变压器,南方中东变压器,北方中北变压器,北虎内变压器,北方中新增排灌【纯农排变】,北方中新增东变压器,曹庄05变压器,","scope":"【影响街道/乡镇】和平办事处 【高危重要客户】无 【影响客户】北虎村、南虎村、西马村、南方中村、北方中村、三丈铺村、三辛庄村、高一村、顺河庄村(铁路西)、三丈村、６７加油站、北方中面粉厂、东华丰宝厂 、弘景致诚厂、红旗水泥厂、南虎机房、三辛庄砖厂、顺通水泥厂、永旗水泥厂、顺新化工厂、田树河、魏志福、五七中学、鑫正牧业、张彦辉、赵贵、志华养牛厂","startTime":"2020-04-19 18:32:13","stopDate":"2020-04-19 22:00:00","orgNo":"1340612","typeCode":"电网故障停限电","poweroffArea":"【全线路停电】停南方中西变压器,北方中新增西变压器,南方中南地变压器【纯农排变】,南方中北变压器,北方中中台变压器,北方中东变压器,北方中新增200变压器,南方中东变压器,北方中北变压器,北虎内变压器,北方中新增排灌【纯农排变】,北方中新增东变压器,曹庄05变压器,高一小房变压器,张彦辉变压器,三辛庄西地变压器【纯农排变】,曹庄02变压器,三丈铺西变压器,北京弘景致诚家具制造有限公司高碑店分公司2,0694944765-高碑店市永旗新型建材制造有限责任公司01,西马北,南虎南变台,三丈北地变压器【纯农排变】,0585511830-高碑店市路灯管理办公室-专变-125094340-高碑店市路灯管理办公室变压器,北方中北地变压器【纯农排变】,三辛庄南变压器,顺河庄南地变压器【纯农排变】,南方中西南台变压器【纯农排变】,三辛庄内变压器,弘景致诚,三丈铺东变压器,顺新化工厂,0694944765-高碑店市永旗新型建材制造有限责任公司02,曹庄西变压器,魏志福变压器,曹庄南公变变压器,顺新化工厂01,南虎东地变压器【纯农排变】,北方中西变压器,西马排灌变压器【纯农排变】,三辛庄北地变压器【纯农排变】,北虎地变压器【纯农排变】,南方中南变台,北方中东地2变压器【纯农排变】,三丈铺地变压器【纯农排变】,变压器,顺通水泥制品厂,五七中学（排灌）,高碑店市曹庄林峰养殖场变压器,曹庄01变压器,高碑店市启航建材有限公司,三辛庄东,三丈东南变压器,红旗水泥制品厂,高碑店市城市管理综合执法局6号,高碑店市城市管理综合执法局#1,曹庄03变压器,三丈铺北排灌变压器【纯农排变】,南虎西变压器,北虎配变,三辛庄砖厂,鑫正牧业,北方中面粉厂,西马变压器,顺河庄11号变压器,河北合力众兴养殖有限公司,三丈北变压器,高碑店市水利局变压器,赵贵,高易铁路,三丈铺新增北台变压器,南方中东地变台【纯农排变】,董飞变压器,顺新化工厂02,西马新变压器,高碑店悦郎商贸有限公司,曹庄07变压器,三丈南地变压器【纯农排变】,高碑店市曹庄昊鑫养殖场变压器,三丈南变压器,高碑店市永旗新型建材制造有限责任公司变压器,高碑店市立平畜禽购销农民专业合作社变压器,西马南变压器,田树河,高碑店市城市管理综合执法局#2,中国石油保定67站,曹庄04变压器,顺河庄04号变压器,南虎北变压器,志华养牛场,北方中东地变压器【纯农排变】,三丈辛庄新增200配变","poweroffReason":"【停电原因】由于顺新分支１０号杆Ｂ相直瓶烧毁导致２２０ＫＶ高碑店变电站１０ＫＶ市郊５１３线路全线停电 【变更送电】因抢修进度加快原因，送电时间由２３：５９变更为２２：００ 【发布渠道】通过９５５９８发布","powerTime":"2020-04-19 21:29:56","powerComm":"已送电","subsNo":"","lineNo":"","tgNo":"","tgName":null,"infoStatus":"1","orgName":"国网高碑店市供电公司","typeName":null,"infoStatusName":null,"dateDay":null,"orgNos":null,"nowTime":null,"countyName":null,"streetName":null,"villageName":null,"roadName":null,"communityName":null,"tranName":null,"sdLineName":null,"cityCode":"1340612","cityName":"国网高碑店市供电公司","provinceCode":null,"stopTime":"2020-04-19 22:00:00","powerType":"全部","powerOffArea":"【全线路停电】停南方中西变压器,北方中新增西变压器,南方中南地变压器【纯农排变】,南方中北变压器,北方中中台变压器,北方中东变压器,北方中新增200变压器,南方中东变压器,北方中北变压器,北虎内变压器,北方中新增排灌【纯农排变】,北方中新增东变压器,曹庄05变压器,高一小房变压器,张彦辉变压器,三辛庄西地变压器【纯农排变】,曹庄02变压器,三丈铺西变压器,北京弘景致诚家具制造有限公司高碑店分公司2,0694944765-高碑店市永旗新型建材制造有限责任公司01,西马北,南虎南变台,三丈北地变压器【纯农排变】,0585511830-高碑店市路灯管理办公室-专变-125094340-高碑店市路灯管理办公室变压器,北方中北地变压器【纯农排变】,三辛庄南变压器,顺河庄南地变压器【纯农排变】,南方中西南台变压器【纯农排变】,三辛庄内变压器,弘景致诚,三丈铺东变压器,顺新化工厂,0694944765-高碑店市永旗新型建材制造有限责任公司02,曹庄西变压器,魏志福变压器,曹庄南公变变压器,顺新化工厂01,南虎东地变压器【纯农排变】,北方中西变压器,西马排灌变压器【纯农排变】,三辛庄北地变压器【纯农排变】,北虎地变压器【纯农排变】,南方中南变台,北方中东地2变压器【纯农排变】,三丈铺地变压器【纯农排变】,变压器,顺通水泥制品厂,五七中学（排灌）,高碑店市曹庄林峰养殖场变压器,曹庄01变压器,高碑店市启航建材有限公司,三辛庄东,三丈东南变压器,红旗水泥制品厂,高碑店市城市管理综合执法局6号,高碑店市城市管理综合执法局#1,曹庄03变压器,三丈铺北排灌变压器【纯农排变】,南虎西变压器,北虎配变,三辛庄砖厂,鑫正牧业,北方中面粉厂,西马变压器,顺河庄11号变压器,河北合力众兴养殖有限公司,三丈北变压器,高碑店市水利局变压器,赵贵,高易铁路,三丈铺新增北台变压器,南方中东地变台【纯农排变】,董飞变压器,顺新化工厂02,西马新变压器,高碑店悦郎商贸有限公司,曹庄07变压器,三丈南地变压器【纯农排变】,高碑店市曹庄昊鑫养殖场变压器,三丈南变压器,高碑店市永旗新型建材制造有限责任公司变压器,高碑店市立平畜禽购销农民专业合作社变压器,西马南变压器,田树河,高碑店市城市管理综合执法局#2,中国石油保定67站,曹庄04变压器,顺河庄04号变压器,南虎北变压器,志华养牛场,北方中东地变压器【纯农排变】,三丈辛庄新增200配变","powerOffReason":"【停电原因】由于顺新分支１０号杆Ｂ相直瓶烧毁导致２２０ＫＶ高碑店变电站１０ＫＶ市郊５１３线路全线停电 【变更送电】因抢修进度加快原因，送电时间由２３：５９变更为２２：００ 【发布渠道】通过９５５９８发布","powerOffId":"2020041913000220"},{"poweroffId":2020041913000216,"sgpoweroffId":null,"subsName":"","lineName":"10KV东仙坡522","pubTranName":"上胡良2650【纯农排变】,","scope":"【影响街道/乡镇】东仙坡镇 【高危重要客户】无 【影响客户】上胡良村","startTime":"2020-04-19 18:24:59","stopDate":"2020-04-19 22:00:00","orgNo":"1340626","typeCode":"电网故障停限电","poweroffArea":"【单台区停电】停上胡良2650【纯农排变】","poweroffReason":"【停电原因】由于低压空开烧毁导致１１０ＫＶ下胡良变电站１０ＫＶ东仙坡５２２线路上胡良２６５０公变台区停电 【变更送电】因抢修进度加快原因，送电时间由２３：３０变更为２２：００ 【发布渠道】通过９５５９８发布","powerTime":"2020-04-19 21:39:30","powerComm":"恢复送电","subsNo":"","lineNo":"","tgNo":"","tgName":null,"infoStatus":"1","orgName":"国网涿州市供电公司","typeName":null,"infoStatusName":null,"dateDay":null,"orgNos":null,"nowTime":null,"countyName":null,"streetName":null,"villageName":null,"roadName":null,"communityName":null,"tranName":null,"sdLineName":null,"cityCode":"1340626","cityName":"国网涿州市供电公司","provinceCode":null,"stopTime":"2020-04-19 22:00:00","powerType":"全部","powerOffArea":"【单台区停电】停上胡良2650【纯农排变】","powerOffReason":"【停电原因】由于低压空开烧毁导致１１０ＫＶ下胡良变电站１０ＫＶ东仙坡５２２线路上胡良２６５０公变台区停电 【变更送电】因抢修进度加快原因，送电时间由２３：３０变更为２２：００ 【发布渠道】通过９５５９８发布","powerOffId":"2020041913000216"},{"poweroffId":2020041913000204,"sgpoweroffId":null,"subsName":"","lineName":"10KV宋营544","pubTranName":"宋营村东,","scope":"【影响街道/乡镇】百尺竿镇 【高危重要客户】无 【影响客户】宋营村","startTime":"2020-04-19 17:43:47","stopDate":"2020-04-19 20:30:00","orgNo":"1340626","typeCode":"电网故障停限电","poweroffArea":"【单台区停电】停宋营村东","poweroffReason":"【停电原因】由于低压空开烧毁导致１１０ＫＶ宋营变电站１０ＫＶ宋营５４４线路宋营村东公变台区停电 【变更送电】因抢修进度加快原因，送电时间由２３：３０变更为２０：３０ 【发布渠道】通过９５５９８发布","powerTime":"2020-04-19 20:17:09","powerComm":"恢复送电","subsNo":"","lineNo":"","tgNo":"","tgName":null,"infoStatus":"1","orgName":"国网涿州市供电公司","typeName":null,"infoStatusName":null,"dateDay":null,"orgNos":null,"nowTime":null,"countyName":null,"streetName":null,"villageName":null,"roadName":null,"communityName":null,"tranName":null,"sdLineName":null,"cityCode":"1340626","cityName":"国网涿州市供电公司","provinceCode":null,"stopTime":"2020-04-19 20:30:00","powerType":"全部","powerOffArea":"【单台区停电】停宋营村东","powerOffReason":"【停电原因】由于低压空开烧毁导致１１０ＫＶ宋营变电站１０ＫＶ宋营５４４线路宋营村东公变台区停电 【变更送电】因抢修进度加快原因，送电时间由２３：３０变更为２０：３０ 【发布渠道】通过９５５９８发布","powerOffId":"2020041913000204"},{"poweroffId":2020041913000149,"sgpoweroffId":null,"subsName":"","lineName":"水泥厂线517","pubTranName":"大次良18号,保定市凯兴法兰制造有限公司,","scope":"【影响街道/乡镇】遂城镇 【高危重要客户】无 【影响客户】大次良村","startTime":"2020-05-03 07:00:00","stopDate":"2020-05-03 18:00:00","orgNo":"1340605","typeCode":"计划停电","poweroffArea":"【分支停电】停大次良18号,保定市凯兴法兰制造有限公司","poweroffReason":"【停电原因】由于计划检修导致３５ＫＶ大王店变电站水泥厂线５１７线路１８号杆分段开关以下线路停电 【变更送电】无 【发布渠道】通过河北省保定市徐水电视台游走滚动字幕播放（２０２０年０４月２６日０８:００至０５月０２日２０:００）","powerTime":"2020-05-03 17:21:17","powerComm":"已送电","subsNo":"","lineNo":"","tgNo":"","tgName":null,"infoStatus":"1","orgName":"国网徐水县供电公司","typeName":null,"infoStatusName":null,"dateDay":null,"orgNos":null,"nowTime":null,"countyName":null,"streetName":null,"villageName":null,"roadName":null,"communityName":null,"tranName":null,"sdLineName":null,"cityCode":"1340605","cityName":"国网徐水县供电公司","provinceCode":null,"stopTime":"2020-05-03 18:00:00","powerType":"全部","powerOffArea":"【分支停电】停大次良18号,保定市凯兴法兰制造有限公司","powerOffReason":"【停电原因】由于计划检修导致３５ＫＶ大王店变电站水泥厂线５１７线路１８号杆分段开关以下线路停电 【变更送电】无 【发布渠道】通过河北省保定市徐水电视台游走滚动字幕播放（２０２０年０４月２６日０８:００至０５月０２日２０:００）","powerOffId":"2020041913000149"},{"poweroffId":2020041913000139,"sgpoweroffId":null,"subsName":"","lineName":"10kV522兑坎庄线","pubTranName":"南关街综合二台区变压器,西南街综合三台区变压器,教育局,蠡县中学变压器,南关农排二台区变压器【纯农排变】,南关农排一台区变压器【纯农排变】,","scope":"【影响街道/乡镇】蠡吾镇【高危重要客户】无【影响客户】老教育局、蠡县中学、南关、西南街","startTime":"2020-04-28 06:00:00","stopDate":"2020-04-28 08:30:00","orgNo":"1340616","typeCode":"计划停电","poweroffArea":"【分支停电】停南关农排一台区变压器【纯农排变】,南关街综合二台区变压器,西南街综合三台区变压器,教育局,蠡县中学变压器,南关农排二台区变压器【纯农排变】","poweroffReason":"【停电原因】由于更换导线导致２２０ＫＶ蠡县变电站１０ＫＶ兑坎庄５２２线路１支线９号杆３号开关以下线路停电【变更送电】因工作进度加快原因，送电时间由１４:３０变更为８:３０【发布渠道】蠡县电视台（４月１９日至４月２７日２０：００至２２：００之间）屏幕上方滚动","powerTime":"2020-04-28 07:57:41","powerComm":"已送电","subsNo":"","lineNo":"","tgNo":"","tgName":null,"infoStatus":"1","orgName":"国网蠡县供电公司","typeName":null,"infoStatusName":null,"dateDay":null,"orgNos":null,"nowTime":null,"countyName":null,"streetName":null,"villageName":null,"roadName":null,"communityName":null,"tranName":null,"sdLineName":null,"cityCode":"1340616","cityName":"国网蠡县供电公司","provinceCode":null,"stopTime":"2020-04-28 08:30:00","powerType":"全部","powerOffArea":"【分支停电】停南关农排一台区变压器【纯农排变】,南关街综合二台区变压器,西南街综合三台区变压器,教育局,蠡县中学变压器,南关农排二台区变压器【纯农排变】","powerOffReason":"【停电原因】由于更换导线导致２２０ＫＶ蠡县变电站１０ＫＶ兑坎庄５２２线路１支线９号杆３号开关以下线路停电【变更送电】因工作进度加快原因，送电时间由１４:３０变更为８:３０【发布渠道】蠡县电视台（４月１９日至４月２７日２０：００至２２：００之间）屏幕上方滚动","powerOffId":"2020041913000139"},{"poweroffId":2020041913000111,"sgpoweroffId":null,"subsName":"","lineName":"梁家营线511","pubTranName":"贾家营变压器,","scope":"【影响街道/乡镇】梁家营乡 【高危重要客户】华丰首特 【影响客户】贾家营村","startTime":"2020-04-19 12:10:34","stopDate":"2020-04-19 13:00:00","orgNo":"1340612","typeCode":"电网故障停限电","poweroffArea":"【单台区停电】停贾家营变压器","poweroffReason":"【停电原因】由于开关跳闸导致１１０ＫＶ太平庄变电站１０ＫＶ梁家营５１１线路贾家营公变台区停电 【变更送电】因抢修进度加快原因，送电时间由２１：００变更为１３：００ 【发布渠道】通过９５５９８发布","powerTime":"2020-04-19 12:38:04","powerComm":"已送电","subsNo":"","lineNo":"","tgNo":"","tgName":null,"infoStatus":"1","orgName":"国网高碑店市供电公司","typeName":null,"infoStatusName":null,"dateDay":null,"orgNos":null,"nowTime":null,"countyName":null,"streetName":null,"villageName":null,"roadName":null,"communityName":null,"tranName":null,"sdLineName":null,"cityCode":"1340612","cityName":"国网高碑店市供电公司","provinceCode":null,"stopTime":"2020-04-19 13:00:00","powerType":"全部","powerOffArea":"【单台区停电】停贾家营变压器","powerOffReason":"【停电原因】由于开关跳闸导致１１０ＫＶ太平庄变电站１０ＫＶ梁家营５１１线路贾家营公变台区停电 【变更送电】因抢修进度加快原因，送电时间由２１：００变更为１３：００ 【发布渠道】通过９５５９８发布","powerOffId":"2020041913000111"},{"poweroffId":2020041913000108,"sgpoweroffId":null,"subsName":"","lineName":"10kV西环581（移动变）","pubTranName":"东河综合3变压器,东长仕综合4变压器,东长仕综合1变压器,西关160变压器,东长仕综合5,农民街综合2,西徐综合1变压器,","scope":"【影响街道/乡镇】祁州镇、安兴大街、西关街 【高危重要客户】无 【影响客户】祁州中学、光荣院、西关、大众汽修、华凡世纪城、烟草公司、西徐村、东河村、东长仕村、江南风景城","startTime":"2020-04-19 12:06:00","stopDate":"2020-04-19 15:00:00","orgNo":"1340606","typeCode":"电网故障停限电","poweroffArea":"【全线路停电】停东河综合3变压器,东长仕综合4变压器,东长仕综合1变压器,西关160变压器,东长仕综合5,农民街综合2,西徐综合1变压器","poweroffReason":"【停电原因】由于接地故障导致１１０ＫＶ东河变电站１０ＫＶ西环５８１线路全线停电 【变更送电】因抢修进度加快原因，送电时间由１８：００变更为１５：００ 【发布渠道】通过９５５９８发布","powerTime":"2020-04-19 14:29:19","powerComm":"已送电","subsNo":"","lineNo":"","tgNo":"","tgName":null,"infoStatus":"1","orgName":"国网安国市供电公司","typeName":null,"infoStatusName":null,"dateDay":null,"orgNos":null,"nowTime":null,"countyName":null,"streetName":null,"villageName":null,"roadName":null,"communityName":null,"tranName":null,"sdLineName":null,"cityCode":"1340606","cityName":"国网安国市供电公司","provinceCode":null,"stopTime":"2020-04-19 15:00:00","powerType":"全部","powerOffArea":"【全线路停电】停东河综合3变压器,东长仕综合4变压器,东长仕综合1变压器,西关160变压器,东长仕综合5,农民街综合2,西徐综合1变压器","powerOffReason":"【停电原因】由于接地故障导致１１０ＫＶ东河变电站１０ＫＶ西环５８１线路全线停电 【变更送电】因抢修进度加快原因，送电时间由１８：００变更为１５：００ 【发布渠道】通过９５５９８发布","powerOffId":"2020041913000108"}],"pageModel":{"pageNow":159,"totalCount":10973,"totalPage":1098,"tableRows":0,"pageCount":10,"beginCount":1580},"isExperi":"1"}