{"message":"","today":"2020-06-15","seleList":[{"poweroffId":2020041813000095,"sgpoweroffId":null,"subsName":"","lineName":"10kV白城线514","pubTranName":"2白团西街外2【纯农排变】,1白团东街内9,2边营外2【纯农排变】,2白团北街外17【纯农排变】,1北曹庄内2,1白团东街内6,1白团西街内1,1白团北街内7,1白团北街内1,1白团北街内5,2白团西街外7【纯农排变】,2边营外1【纯农排变】,1北曹庄内1,白团西街幼儿园变压器,1白团西街内2,1白团北街内2,2白城一村外3【纯农排变】,1白团东街内1,1白团西街内3,白团北街外18【纯农排变】,2白团西街外1【纯农排变】,1北曹庄内3,1白团北街内3,2白团西街外3【纯农排变】,1白团北街内8,2白城一村外5【纯农排变】,1边营内1,2白团东街外5【纯农排变】,2白团东街外14【纯农排变】,2白团西街外8【纯农排变】,2白团西街外4【纯农排变】,1白团北街内4,2白团西街外5【纯农排变】,1白团北街内6,白团北街小学变压器,2白团西街外9【纯农排变】,","scope":"【影响街道/乡镇】白团乡 【高危重要客户】无 【影响客户】白团西街村、白团北街村、白团东街村、边营、北曹庄、白城一村、樊庄村","startTime":"2020-04-18 10:09:05","stopDate":"2020-04-18 11:30:00","orgNo":"1340618","typeCode":"电网故障停限电","poweroffArea":"【全线路停电】停1北曹庄内2,2白团西街外6【纯农排变】,2白城一村外6【纯农排变】,2白团西街外10【纯农排变】,1北曹庄内1,白团西街幼儿园变压器,1白团西街内2,1白团北街内2,2白城一村外3【纯农排变】,1白团东街内1,1白团西街内3,2北曹庄外3【纯农排变】,白团北街外18【纯农排变】,2白团西街外1【纯农排变】,1北曹庄内3,1白团北街内3,2白团西街外3【纯农排变】,1白团北街内8,2白城一村外5【纯农排变】,1边营内1,2白团东街外5【纯农排变】,2白团东街外12【纯农排变】,2白团北街外16【纯农排变】,2白团东街外14【纯农排变】,2白团西街外8【纯农排变】,2白团东街外9【纯农排变】,2北曹庄外5【纯农排变】,1白团东街内6,1白团西街内1,1白团北街内7,1白团北街内1,曹庄张文星冲压厂,1白团北街内5,2白城一村外4【纯农排变】,2白团北街外2【纯农排变】,2白团东街外4【纯农排变】,白团北街猪场,2白团西街外7【纯农排变】,2边营外1【纯农排变】,0387504216-白团北街面粉厂-专变-118670397-白团北街面粉厂,2樊庄外6【纯农排变】,2白团东街外11【纯农排变】,2白团西街外4【纯农排变】,2白团东街外8【纯农排变】,1白团北街内4,2白团西街外5【纯农排变】,1白团北街内6,白团北街小学变压器,2白团北街外1【纯农排变】,2白团西街外9【纯农排变】,2边营外3【纯农排变】,2白团西街外2【纯农排变】,2白团东街外6【纯农排变】,1白团东街内9,2边营外2【纯农排变】,2白团北街外17【纯农排变】,2白团西街外11【纯农排变】,2白团东街外13【纯农排变】,清苑县新秀海绵制品有限公司","poweroffReason":"【停电原因】由于主干４２号杆西Ｔ１０号杆北Ｔ５号杆张文星冲压厂变压器跌落击穿导致３５ＫＶ白团变电站１０ＫＶ白城线５１４线路全线停电 【变更送电】因抢修进度加快原因，送电时间由１４：００变更为１１：３０ 【发布渠道】通过９５５９８发布","powerTime":"2020-04-18 11:01:33","powerComm":"李志伟通知已送电","subsNo":"","lineNo":"","tgNo":"","tgName":null,"infoStatus":"1","orgName":"国网清苑县供电公司","typeName":null,"infoStatusName":null,"dateDay":null,"orgNos":null,"nowTime":null,"countyName":null,"streetName":null,"villageName":null,"roadName":null,"communityName":null,"tranName":null,"sdLineName":null,"cityCode":"1340618","cityName":"国网清苑县供电公司","provinceCode":null,"stopTime":"2020-04-18 11:30:00","powerType":"全部","powerOffArea":"【全线路停电】停1北曹庄内2,2白团西街外6【纯农排变】,2白城一村外6【纯农排变】,2白团西街外10【纯农排变】,1北曹庄内1,白团西街幼儿园变压器,1白团西街内2,1白团北街内2,2白城一村外3【纯农排变】,1白团东街内1,1白团西街内3,2北曹庄外3【纯农排变】,白团北街外18【纯农排变】,2白团西街外1【纯农排变】,1北曹庄内3,1白团北街内3,2白团西街外3【纯农排变】,1白团北街内8,2白城一村外5【纯农排变】,1边营内1,2白团东街外5【纯农排变】,2白团东街外12【纯农排变】,2白团北街外16【纯农排变】,2白团东街外14【纯农排变】,2白团西街外8【纯农排变】,2白团东街外9【纯农排变】,2北曹庄外5【纯农排变】,1白团东街内6,1白团西街内1,1白团北街内7,1白团北街内1,曹庄张文星冲压厂,1白团北街内5,2白城一村外4【纯农排变】,2白团北街外2【纯农排变】,2白团东街外4【纯农排变】,白团北街猪场,2白团西街外7【纯农排变】,2边营外1【纯农排变】,0387504216-白团北街面粉厂-专变-118670397-白团北街面粉厂,2樊庄外6【纯农排变】,2白团东街外11【纯农排变】,2白团西街外4【纯农排变】,2白团东街外8【纯农排变】,1白团北街内4,2白团西街外5【纯农排变】,1白团北街内6,白团北街小学变压器,2白团北街外1【纯农排变】,2白团西街外9【纯农排变】,2边营外3【纯农排变】,2白团西街外2【纯农排变】,2白团东街外6【纯农排变】,1白团东街内9,2边营外2【纯农排变】,2白团北街外17【纯农排变】,2白团西街外11【纯农排变】,2白团东街外13【纯农排变】,清苑县新秀海绵制品有限公司","powerOffReason":"【停电原因】由于主干４２号杆西Ｔ１０号杆北Ｔ５号杆张文星冲压厂变压器跌落击穿导致３５ＫＶ白团变电站１０ＫＶ白城线５１４线路全线停电 【变更送电】因抢修进度加快原因，送电时间由１４：００变更为１１：３０ 【发布渠道】通过９５５９８发布","powerOffId":"2020041813000095"},{"poweroffId":2020041813000071,"sgpoweroffId":null,"subsName":"","lineName":"10KV义和庄514","pubTranName":"中任村正西变,","scope":"【影响街道/乡镇】义和庄乡 【高危重要客户】无 【影响客户】中任村","startTime":"2020-04-18 09:12:08","stopDate":"2020-04-18 10:40:00","orgNo":"1340626","typeCode":"电网故障停限电","poweroffArea":"【单台区停电】停中任村正西变","poweroffReason":"【停电原因】由于低压空开烧毁导致３５ＫＶ码头变电站１０ＫＶ义和庄５１４线路中任村正西公变台区停电 【变更送电】因抢修进度加快原因，送电时间由１８：００变更为１０：４０ 【发布渠道】通过９５５９８发布","powerTime":"2020-04-18 10:12:59","powerComm":"恢复送电","subsNo":"","lineNo":"","tgNo":"","tgName":null,"infoStatus":"1","orgName":"国网涿州市供电公司","typeName":null,"infoStatusName":null,"dateDay":null,"orgNos":null,"nowTime":null,"countyName":null,"streetName":null,"villageName":null,"roadName":null,"communityName":null,"tranName":null,"sdLineName":null,"cityCode":"1340626","cityName":"国网涿州市供电公司","provinceCode":null,"stopTime":"2020-04-18 10:40:00","powerType":"全部","powerOffArea":"【单台区停电】停中任村正西变","powerOffReason":"【停电原因】由于低压空开烧毁导致３５ＫＶ码头变电站１０ＫＶ义和庄５１４线路中任村正西公变台区停电 【变更送电】因抢修进度加快原因，送电时间由１８：００变更为１０：４０ 【发布渠道】通过９５５９８发布","powerOffId":"2020041813000071"},{"poweroffId":2020041813000041,"sgpoweroffId":null,"subsName":"","lineName":"10kV517曲堤线","pubTranName":"大曲堤综合6台区变压器,东庞综合3台区变压器,大曲堤农排10台区【纯农排变】,西庞综合7台区变压器,大曲堤综合24台区变压器,西庞综合10台区变压器,西庞农排7台区【纯农排变】,大曲堤综合17台区变压器,大曲堤综合27台区变压器,陈营综合2台区变压器,陈营综合4台区变压器,西庞农排5台区【纯农排变】,大曲堤综合7台区变压器,大曲堤综合9台区变压器,西庞综合1台区变压器,北绪口综合1台区,陈营综合3台区变压器,西庞综合8台区变压器,北绪口农排3台区【纯农排变】,大曲堤综合10台区变压器,西庞综合5台区变压器,西庞综合2台区变压器,大曲堤综合4台区,西庞综合4台区变压器,大曲堤综合12台区变压器,大曲堤农排12台区【纯农排变】,大曲堤综合18台区变压器,大曲堤农排9台区【纯农排变】,西庞农排4台区【纯农排变】,大曲堤农排7台区【纯农排变】,大曲堤农排14台区【纯农排变】,西庞综合6台区变压器,西庞农排6台区【纯农排变】,北绪口综合7台区,大曲堤综合29台区变压器,大曲堤综合28台区变压器,大曲堤综合3台区,东庞农排2台区【纯农排变】,北绪口综合4台区,西庞农排8台区【纯农排变】,大曲堤农排8台区【纯农排变】,大曲堤综合22台区变压器,大曲堤综合15台区变压器,北绪口综合8台区,北绪口综合6台区,东庞农排1台区【纯农排变】,大曲堤综合16台区变压器,大曲堤综合19台区变压器,大曲堤综合14台区变压器,大曲堤综合5台区,大曲堤综合20台区变压器,大曲堤综合13台区变压器,大曲堤综合8台区变压器,北绪口综合2台区,北绪口综合3台区,东庞综合1台区变压器,北绪口综合5台区,陈营综合1台区变压器,大曲堤综合1台区,大曲堤综合25台区变压器,大曲堤综合23台区变压器,东庞综合2台区变压器,西庞综合3台区变压器,大曲堤综合21台区变压器,大曲堤综合26台区变压器,大曲堤农排3台区【纯农排变】,大曲堤综合2台区,大曲堤综合11台区变压器,","scope":"【影响街道/乡镇】大曲堤乡【高危重要客户】无【影响客户】北绪口村、东庞果村、陈阎营村、西绪口村、大曲堤村、西庞果村、高佐村","startTime":"2020-04-18 08:27:28","stopDate":"2020-04-18 10:00:00","orgNo":"1340616","typeCode":"电网故障停限电","poweroffArea":"【全线路停电】停大曲堤综合10台区变压器,蠡县鼎源麻山药农民专业合作,大曲堤综合25台区变压器,北绪口综合2台区,北绪口农排3台区【纯农排变】,西庞综合3台区变压器,大曲堤综合18台区变压器,西庞综合4台区变压器,0604192268-蠡县曲堤德旺包装制品厂-专变-127052052-蠡县曲堤德旺包装制品厂,0469434196-粮站面粉厂-专变-46810394-粮站面粉厂,0469432510-中国联合网络通信有限公司蠡县分公司-专变-46810254-网通公司,陈营综合1台区变压器,大曲堤综合23台区变压器,大曲堤农排12台区【纯农排变】,0629312658-蠡县端阳麻山药农民专业合作社-专变-141630370-蠡县端阳麻山药农民合作社变压器,大曲堤综合19台区变压器,大曲堤综合9台区变压器,大曲堤综合15台区变压器,陈营综合3台区变压器,西庞农排6台区【纯农排变】,蠡县大曲堤乡中学,北绪口农排4台区【纯农排变】,陈营综合2台区变压器,大曲堤农排9台区【纯农排变】,蠡县凤举麻山药农民专业合作社,北绪口综合8台区,西庞综合10台区变压器,大曲堤综合12台区变压器,大曲堤综合8台区变压器,西庞综合6台区变压器,西庞农排4台区【纯农排变】,大曲堤综合3台区,大曲堤综合13台区变压器,大曲堤综合1台区,西庞综合8台区变压器,东庞综合3台区变压器,0628582416-蠡县立纯麻山药农民专业合作社-专变-140233673-蠡县曲堤建辉麻山药经销站变压器,西庞农排2台区【纯农排变】,西庞农排5台区【纯农排变】,北绪口综合3台区,西庞综合7台区变压器,大曲堤农排10台区【纯农排变】,大曲堤农排8台区【纯农排变】,西庞综合1台区变压器,大曲堤综合7台区变压器,西庞综合5台区变压器,大曲堤综合24台区变压器,东庞农排1台区【纯农排变】,北绪口综合1台区,东庞农排2台区【纯农排变】,大曲堤综合21台区变压器,大曲堤综合16台区变压器,大曲堤农排7台区【纯农排变】,西庞农排8台区【纯农排变】,大曲堤综合20台区变压器,大曲堤综合2台区,大曲堤综合22台区变压器,0619986492-蠡县鑫鑫麻山药农民专业合作社-专变-223625090-蠡县鑫鑫麻山药农民专业合作社变压器,北绪口农排2台区【纯农排变】,大曲堤综合6台区变压器,北绪口综合5台区,陈营综合4台区变压器,0565990945-中国移动通信集团河北有限公司蠡县分公司-专变-118727920-中国移动通信集团河北有限公司蠡县分公司北绪口村变压器,东庞综合2台区变压器,0469434183-曲堤乡政府-专变-46810209-纳地,大曲堤综合5台区,大曲堤农排14台区【纯农排变】,西庞综合2台区变压器,0625934386-蠡县曲堤顺杰麻山药经销站-专变-138660027-蠡县曲堤顺杰麻山药经销站,北绪口综合6台区,西庞农排7台区【纯农排变】,大曲堤综合11台区变压器,北绪口综合7台区,大曲堤综合26台区变压器,大曲堤综合17台区变压器,北绪口综合4台区,0626348757-蠡县利农麻山药农民专业合作社-专变-139242228-蠡县利农麻山药农民专业合作社变压器,大曲堤综合27台区变压器,大曲堤综合4台区,大曲堤综合29台区变压器,大曲堤综合28台区变压器,东庞综合1台区变压器,大曲堤农排3台区【纯农排变】,0618936991-蠡县卓亚纺织有限公司-专变-128914691-蠡县雅琪纺织厂变压器,西庞农排1台区【纯农排变】,大曲堤综合14台区变压器","poweroffReason":"【停电原因】由于站外开关掉闸导致３５ＫＶ握纽庄变电站１０ＫＶ曲堤５１７线路全线停电【变更送电】因抢修进度加快原因，送电时间由１２:３０变更为１０:００【发布渠道】通过９５５９８发布","powerTime":"2020-04-18 09:11:16","powerComm":"已送电","subsNo":"","lineNo":"","tgNo":"","tgName":null,"infoStatus":"1","orgName":"国网蠡县供电公司","typeName":null,"infoStatusName":null,"dateDay":null,"orgNos":null,"nowTime":null,"countyName":null,"streetName":null,"villageName":null,"roadName":null,"communityName":null,"tranName":null,"sdLineName":null,"cityCode":"1340616","cityName":"国网蠡县供电公司","provinceCode":null,"stopTime":"2020-04-18 10:00:00","powerType":"全部","powerOffArea":"【全线路停电】停大曲堤综合10台区变压器,蠡县鼎源麻山药农民专业合作,大曲堤综合25台区变压器,北绪口综合2台区,北绪口农排3台区【纯农排变】,西庞综合3台区变压器,大曲堤综合18台区变压器,西庞综合4台区变压器,0604192268-蠡县曲堤德旺包装制品厂-专变-127052052-蠡县曲堤德旺包装制品厂,0469434196-粮站面粉厂-专变-46810394-粮站面粉厂,0469432510-中国联合网络通信有限公司蠡县分公司-专变-46810254-网通公司,陈营综合1台区变压器,大曲堤综合23台区变压器,大曲堤农排12台区【纯农排变】,0629312658-蠡县端阳麻山药农民专业合作社-专变-141630370-蠡县端阳麻山药农民合作社变压器,大曲堤综合19台区变压器,大曲堤综合9台区变压器,大曲堤综合15台区变压器,陈营综合3台区变压器,西庞农排6台区【纯农排变】,蠡县大曲堤乡中学,北绪口农排4台区【纯农排变】,陈营综合2台区变压器,大曲堤农排9台区【纯农排变】,蠡县凤举麻山药农民专业合作社,北绪口综合8台区,西庞综合10台区变压器,大曲堤综合12台区变压器,大曲堤综合8台区变压器,西庞综合6台区变压器,西庞农排4台区【纯农排变】,大曲堤综合3台区,大曲堤综合13台区变压器,大曲堤综合1台区,西庞综合8台区变压器,东庞综合3台区变压器,0628582416-蠡县立纯麻山药农民专业合作社-专变-140233673-蠡县曲堤建辉麻山药经销站变压器,西庞农排2台区【纯农排变】,西庞农排5台区【纯农排变】,北绪口综合3台区,西庞综合7台区变压器,大曲堤农排10台区【纯农排变】,大曲堤农排8台区【纯农排变】,西庞综合1台区变压器,大曲堤综合7台区变压器,西庞综合5台区变压器,大曲堤综合24台区变压器,东庞农排1台区【纯农排变】,北绪口综合1台区,东庞农排2台区【纯农排变】,大曲堤综合21台区变压器,大曲堤综合16台区变压器,大曲堤农排7台区【纯农排变】,西庞农排8台区【纯农排变】,大曲堤综合20台区变压器,大曲堤综合2台区,大曲堤综合22台区变压器,0619986492-蠡县鑫鑫麻山药农民专业合作社-专变-223625090-蠡县鑫鑫麻山药农民专业合作社变压器,北绪口农排2台区【纯农排变】,大曲堤综合6台区变压器,北绪口综合5台区,陈营综合4台区变压器,0565990945-中国移动通信集团河北有限公司蠡县分公司-专变-118727920-中国移动通信集团河北有限公司蠡县分公司北绪口村变压器,东庞综合2台区变压器,0469434183-曲堤乡政府-专变-46810209-纳地,大曲堤综合5台区,大曲堤农排14台区【纯农排变】,西庞综合2台区变压器,0625934386-蠡县曲堤顺杰麻山药经销站-专变-138660027-蠡县曲堤顺杰麻山药经销站,北绪口综合6台区,西庞农排7台区【纯农排变】,大曲堤综合11台区变压器,北绪口综合7台区,大曲堤综合26台区变压器,大曲堤综合17台区变压器,北绪口综合4台区,0626348757-蠡县利农麻山药农民专业合作社-专变-139242228-蠡县利农麻山药农民专业合作社变压器,大曲堤综合27台区变压器,大曲堤综合4台区,大曲堤综合29台区变压器,大曲堤综合28台区变压器,东庞综合1台区变压器,大曲堤农排3台区【纯农排变】,0618936991-蠡县卓亚纺织有限公司-专变-128914691-蠡县雅琪纺织厂变压器,西庞农排1台区【纯农排变】,大曲堤综合14台区变压器","powerOffReason":"【停电原因】由于站外开关掉闸导致３５ＫＶ握纽庄变电站１０ＫＶ曲堤５１７线路全线停电【变更送电】因抢修进度加快原因，送电时间由１２:３０变更为１０:００【发布渠道】通过９５５９８发布","powerOffId":"2020041813000041"},{"poweroffId":2020041813000031,"sgpoweroffId":null,"subsName":"","lineName":"大马坊线556","pubTranName":"马坊村内,","scope":"【影响街道/乡镇】贤台乡 【高危重要客户】无 【影响客户】大马坊（房）村、朝华锦城","startTime":"2020-04-18 08:07:08","stopDate":"2020-04-18 12:30:00","orgNo":"1340617","typeCode":"电网故障停限电","poweroffArea":"【单台区停电】停马坊村内","poweroffReason":"【停电原因】由于低压线路烧断导致１１０ＫＶ东尹庄变电站大马坊线５５６线路马坊村内公变台区停电 【变更送电】因抢修进度加快原因，送电时间由１５：００变更为１２：３０ 【发布渠道】通过９５５９８发布","powerTime":"2020-04-18 11:55:55","powerComm":"已送电","subsNo":"","lineNo":"","tgNo":"","tgName":null,"infoStatus":"1","orgName":"国网满城县供电公司","typeName":null,"infoStatusName":null,"dateDay":null,"orgNos":null,"nowTime":null,"countyName":null,"streetName":null,"villageName":null,"roadName":null,"communityName":null,"tranName":null,"sdLineName":null,"cityCode":"1340617","cityName":"国网满城县供电公司","provinceCode":null,"stopTime":"2020-04-18 12:30:00","powerType":"全部","powerOffArea":"【单台区停电】停马坊村内","powerOffReason":"【停电原因】由于低压线路烧断导致１１０ＫＶ东尹庄变电站大马坊线５５６线路马坊村内公变台区停电 【变更送电】因抢修进度加快原因，送电时间由１５：００变更为１２：３０ 【发布渠道】通过９５５９８发布","powerOffId":"2020041813000031"},{"poweroffId":2020041813000025,"sgpoweroffId":null,"subsName":"","lineName":"513丰源庄线","pubTranName":"北任村2401,渠洛村村东南3097增【纯农排变】,屯子头6790台区增,屯子头村中2407增,罗营村东7929,屯子头西,苑庄东南,丰源庄村北（农开）3912【纯农排变】,丁各庄村内南,北任村1482,北任村西2,屯子头东北,丰源庄东,白庄2417增,北京德润通农业科技发展有限公司【纯农排变】,丁各庄村内南2410,北任村东北5504,白庄德晨达西柱上变压器【纯农排变】,北任村西1,罗营村西8842增【纯农排变】,丁各庄村内1433【纯农排变】,罗营南0807增【纯农排变】,丰源庄沙沟变【纯农排变】,北任村南1,杨村新增配变,丰源庄东道南2411,渠洛西北0811,北任村北1,苑庄西,北任村游街3602,渠洛水利公司,罗营商业街变压器,丰源庄村西南4721【纯农排变】,白庄村西,苑庄村北,丁各庄村东北,丁各庄村内西1432,丰源庄北,罗营村西8842,苑庄东,北任村南2,北任村村西4726【纯农排变】,苑庄1410增,白庄德晨达南,丰源庄村北变压器【纯农排变】,杨村村西4417,丁各庄村西北8034【纯农排变】,北任村东1,北任村西地变【纯农排变】,丰源庄1413增,北任村内1443,丁各庄村东南,白庄村东南,白庄3429增,丁各庄村西南,丁各庄村西内,丰源庄村东变压器,杨村内0836,屯子头北,义和庄白庄村北【纯农排变】,苑庄西南,苑庄西北,渠洛村东地8497【纯农排变】,丁各庄4426增,南荒村西北变【纯农排变】,","scope":"【影响街道/乡镇】义和庄乡 【高危重要客户】无 【影响客户】渠洛、罗营、杨村、北任村、丁各庄、南荒村、白庄村、屯子头、苑庄、丰源庄、涿州市水利局","startTime":"2020-04-18 07:58:02","stopDate":"2020-04-18 16:10:00","orgNo":"1340626","typeCode":"电网故障停限电","poweroffArea":"【全线路停电】停罗营家营村西7960【纯农排变】,罗营商业街变压器,河北迦美科技有限公司2,丁庄村东5503【纯农排变】,屯子头村东4694【纯农排变】,苑庄村北,河北迦美科技有限公司1,丁各庄村内西1432,罗营村西8842,涿州市新俊杰新材料科技有限公司,苑庄村南,北任村南2,白庄村西3938【纯农排变】,北任村南1,屯子头村南4446【纯农排变】,丰源庄东道南2411,北任村东北2421,北任村北1,苑庄西,西田城（村东南）,北任村西地变【纯农排变】,罗营南0807,渠洛（村北地）,丰源庄1413增,南荒村西北1436,北任村内1443,丁各庄村东南,丰源庄村西南4721【纯农排变】,屯子头村内,屯子头村南地,白庄村东南,白庄3429增,白庄德晨达西柱上变压器【纯农排变】,北任村村西4726【纯农排变】,北任村西1,苑庄5793增,罗营南0807增【纯农排变】,丁各庄村西南,丁各庄村东南3125【纯农排变】,屯子头1471台区增,涿州市农村供水有限公司,苑庄西南,白庄1414增,苑庄村南3920【纯农排变】,苑庄西北,渠洛村东地8497【纯农排变】,丁各庄4426增,南荒村西北变【纯农排变】,渠洛水利公司,白庄村西,涿州市永宾农业技术开发有限公司,丁各庄村东北,白庄村后2412,丁各庄村西内,丰源庄村东变压器,杨村内0836,屯子头北,屯子头1485台区增,义和庄白庄村北【纯农排变】,丁各庄村内1433【纯农排变】,杨村新增配变,义和庄南荒村北3148【纯农排变】,海润达2,0701264943-涿州市义和庄镇丁各庄村民委员会,苑庄村北3932【纯农排变】,罗营村东北【纯农排变】,渠洛（村西南）,涿州市彤日涂料厂,渠洛西北0811,北任村游街3602,北任村村东4695【纯农排变】,北任村村西4725【纯农排变】,渠洛村村东南3097,丰源庄北,苑庄东,苑庄1410增,杨村村西4417,丁各庄村西北8034【纯农排变】,丰源庄村东南4706【纯农排变】,苑庄村东3926【纯农排变】,白庄2417增,北京德润通农业科技发展有限公司【纯农排变】,丁各庄村内南2410,北任村东北5504,丁各庄大队前6459,义和庄供电所（丁各庄村西北）,苑庄东南,渠洛村村东南3097增【纯农排变】,白庄村北,丰源庄村北变压器【纯农排变】,白庄德晨达南,北任村1482,渠洛村村西3100,北任村小学,丰源庄东,白庄村1214【纯农排变】,屯子头6790台区增,0387571966-义和庄供电所苑庄-专变-45362957-义和庄供电所（苑庄）,屯子头西南4715【纯农排变】,罗营村西8842增【纯农排变】,涿州市兴东养殖服务有限公司,屯子头村中2407增,丰源庄1412增,渠洛村南地8510【纯农排变】,罗营村东7929,屯子头西,渠洛南0809,丰源庄村北（农开）3912【纯农排变】,丁各庄村内南,海润达1,罗营村0829,北任村西2,丰源庄沙沟变【纯农排变】,屯子头东北,义和庄供电所（丁各庄）,丰源庄1477【纯农排变】,北任村东1,北任村村北4697【纯农排变】,北任村2401","poweroffReason":"【停电原因】由于站内开关故障导致３５ＫＶ码头变电站５１３丰源庄线路全线停电 【变更送电】因抢修进度加快原因，送电时间由１８：００变更为１６：１０ 【发布渠道】通过９５５９８发布","powerTime":"2020-04-18 16:01:53","powerComm":"恢复送电","subsNo":"","lineNo":"","tgNo":"","tgName":null,"infoStatus":"1","orgName":"国网涿州市供电公司","typeName":null,"infoStatusName":null,"dateDay":null,"orgNos":null,"nowTime":null,"countyName":null,"streetName":null,"villageName":null,"roadName":null,"communityName":null,"tranName":null,"sdLineName":null,"cityCode":"1340626","cityName":"国网涿州市供电公司","provinceCode":null,"stopTime":"2020-04-18 16:10:00","powerType":"全部","powerOffArea":"【全线路停电】停罗营家营村西7960【纯农排变】,罗营商业街变压器,河北迦美科技有限公司2,丁庄村东5503【纯农排变】,屯子头村东4694【纯农排变】,苑庄村北,河北迦美科技有限公司1,丁各庄村内西1432,罗营村西8842,涿州市新俊杰新材料科技有限公司,苑庄村南,北任村南2,白庄村西3938【纯农排变】,北任村南1,屯子头村南4446【纯农排变】,丰源庄东道南2411,北任村东北2421,北任村北1,苑庄西,西田城（村东南）,北任村西地变【纯农排变】,罗营南0807,渠洛（村北地）,丰源庄1413增,南荒村西北1436,北任村内1443,丁各庄村东南,丰源庄村西南4721【纯农排变】,屯子头村内,屯子头村南地,白庄村东南,白庄3429增,白庄德晨达西柱上变压器【纯农排变】,北任村村西4726【纯农排变】,北任村西1,苑庄5793增,罗营南0807增【纯农排变】,丁各庄村西南,丁各庄村东南3125【纯农排变】,屯子头1471台区增,涿州市农村供水有限公司,苑庄西南,白庄1414增,苑庄村南3920【纯农排变】,苑庄西北,渠洛村东地8497【纯农排变】,丁各庄4426增,南荒村西北变【纯农排变】,渠洛水利公司,白庄村西,涿州市永宾农业技术开发有限公司,丁各庄村东北,白庄村后2412,丁各庄村西内,丰源庄村东变压器,杨村内0836,屯子头北,屯子头1485台区增,义和庄白庄村北【纯农排变】,丁各庄村内1433【纯农排变】,杨村新增配变,义和庄南荒村北3148【纯农排变】,海润达2,0701264943-涿州市义和庄镇丁各庄村民委员会,苑庄村北3932【纯农排变】,罗营村东北【纯农排变】,渠洛（村西南）,涿州市彤日涂料厂,渠洛西北0811,北任村游街3602,北任村村东4695【纯农排变】,北任村村西4725【纯农排变】,渠洛村村东南3097,丰源庄北,苑庄东,苑庄1410增,杨村村西4417,丁各庄村西北8034【纯农排变】,丰源庄村东南4706【纯农排变】,苑庄村东3926【纯农排变】,白庄2417增,北京德润通农业科技发展有限公司【纯农排变】,丁各庄村内南2410,北任村东北5504,丁各庄大队前6459,义和庄供电所（丁各庄村西北）,苑庄东南,渠洛村村东南3097增【纯农排变】,白庄村北,丰源庄村北变压器【纯农排变】,白庄德晨达南,北任村1482,渠洛村村西3100,北任村小学,丰源庄东,白庄村1214【纯农排变】,屯子头6790台区增,0387571966-义和庄供电所苑庄-专变-45362957-义和庄供电所（苑庄）,屯子头西南4715【纯农排变】,罗营村西8842增【纯农排变】,涿州市兴东养殖服务有限公司,屯子头村中2407增,丰源庄1412增,渠洛村南地8510【纯农排变】,罗营村东7929,屯子头西,渠洛南0809,丰源庄村北（农开）3912【纯农排变】,丁各庄村内南,海润达1,罗营村0829,北任村西2,丰源庄沙沟变【纯农排变】,屯子头东北,义和庄供电所（丁各庄）,丰源庄1477【纯农排变】,北任村东1,北任村村北4697【纯农排变】,北任村2401","powerOffReason":"【停电原因】由于站内开关故障导致３５ＫＶ码头变电站５１３丰源庄线路全线停电 【变更送电】因抢修进度加快原因，送电时间由１８：００变更为１６：１０ 【发布渠道】通过９５５９８发布","powerOffId":"2020041813000025"},{"poweroffId":2020041721000256,"sgpoweroffId":null,"subsName":"","lineName":"10kV东北郊站523线路","pubTranName":"10kVB1651箱式变电站B1651配电变压器,10kVB917.B918箱式变电站B917配电变压器,10kVB917.B918箱式变电站B918配电变压器,","scope":"【影响街道/乡镇】莲池区、东风东路、卫生路 【高危重要客户】无 【影响客户】 农垦宿舍、东方家园","startTime":"2020-04-18 00:00:00","stopDate":"2020-04-18 01:30:00","orgNo":"13406","typeCode":"其他临时停电","poweroffArea":"【分支停电】停10kVB1651箱式变电站B1651配电变压器;10kVB917.B918箱式变电站B917配电变压器;10kVB917.B918箱式变电站B918配电变压器","poweroffReason":"【停电原因】由于紧急消缺导致１０ＫＶ东北郊变电站５２３线路ＨＫ-２５环网柜６号开关以下停电【变更送电】因抢修进度加快，原定０３：００送电现计划０１：３０送电【发布渠道】通过９５５９８发布","powerTime":"2020-04-18 01:08:38","powerComm":"已送电","subsNo":"","lineNo":"","tgNo":"","tgName":null,"infoStatus":"1","orgName":"保定供电公司","typeName":null,"infoStatusName":null,"dateDay":null,"orgNos":null,"nowTime":null,"countyName":null,"streetName":null,"villageName":null,"roadName":null,"communityName":null,"tranName":null,"sdLineName":null,"cityCode":"13406","cityName":"保定供电公司","provinceCode":null,"stopTime":"2020-04-18 01:30:00","powerType":"全部","powerOffArea":"【分支停电】停10kVB1651箱式变电站B1651配电变压器;10kVB917.B918箱式变电站B917配电变压器;10kVB917.B918箱式变电站B918配电变压器","powerOffReason":"【停电原因】由于紧急消缺导致１０ＫＶ东北郊变电站５２３线路ＨＫ-２５环网柜６号开关以下停电【变更送电】因抢修进度加快，原定０３：００送电现计划０１：３０送电【发布渠道】通过９５５９８发布","powerOffId":"2020041721000256"},{"poweroffId":2020041713000490,"sgpoweroffId":null,"subsName":"","lineName":"十里铺线513","pubTranName":"大屯南变压器,","scope":"【影响街道/乡镇】东马营镇 【高危重要客户】无 【影响客户】大屯村","startTime":"2020-04-17 23:16:41","stopDate":"2020-04-18 00:30:00","orgNo":"1340612","typeCode":"电网故障停限电","poweroffArea":"【单台区停电】停大屯南变压器","poweroffReason":"【停电原因】由于田东分支大车碰线导致１１０ＫＶ太平庄变电站１０ＫＶ十里铺５１３线路大屯南公变台区停电 【变更送电】因抢修进度加快原因，送电时间由０６：００变更为００：３０ 【发布渠道】通过９５５９８发布","powerTime":"2020-04-18 00:11:06","powerComm":"已送电","subsNo":"","lineNo":"","tgNo":"","tgName":null,"infoStatus":"1","orgName":"国网高碑店市供电公司","typeName":null,"infoStatusName":null,"dateDay":null,"orgNos":null,"nowTime":null,"countyName":null,"streetName":null,"villageName":null,"roadName":null,"communityName":null,"tranName":null,"sdLineName":null,"cityCode":"1340612","cityName":"国网高碑店市供电公司","provinceCode":null,"stopTime":"2020-04-18 00:30:00","powerType":"全部","powerOffArea":"【单台区停电】停大屯南变压器","powerOffReason":"【停电原因】由于田东分支大车碰线导致１１０ＫＶ太平庄变电站１０ＫＶ十里铺５１３线路大屯南公变台区停电 【变更送电】因抢修进度加快原因，送电时间由０６：００变更为００：３０ 【发布渠道】通过９５５９８发布","powerOffId":"2020041713000490"},{"poweroffId":2020041713000480,"sgpoweroffId":null,"subsName":"","lineName":"贾北线512","pubTranName":"西新村内北配变,东新村内配变,东新村内南2号配变,西新村内中配变,西新村内南配变,东新村新增配变,小寨屯内混配变,西新村内北2号,小寨屯内南配变,西新村内东配变,东新村内东配变,东新村内北配变,东新村内南配变,","scope":"【影响街道/乡镇】贾村乡 【高危重要客户】无 【影响客户】东新村、西新村、小寨屯","startTime":"2020-04-17 21:51:40","stopDate":"2020-04-17 23:00:00","orgNo":"1340623","typeCode":"电网故障停限电","poweroffArea":"【全线路停电】停西新村内北配变,东新村内配变,东新村内南2号配变,西新村内中配变,西新村内南配变,东新村新增配变,小寨屯内混配变,西新村内北2号,小寨屯内南配变,西新村内东配变,东新村内东配变,东新村内北配变,东新村内南配变","poweroffReason":"【停电原因】由于Ｂ相接地导致３５ＫＶ贾村变电站贾北线５１２线路全线停电 【变更送电】因抢修进度加快原因，送电时间由１８日１２：００变更为１７日２３：００ 【发布渠道】通过９５５９８发布","powerTime":"2020-04-17 22:43:50","powerComm":"已送电","subsNo":"","lineNo":"","tgNo":"","tgName":null,"infoStatus":"1","orgName":"国网望都县供电公司","typeName":null,"infoStatusName":null,"dateDay":null,"orgNos":null,"nowTime":null,"countyName":null,"streetName":null,"villageName":null,"roadName":null,"communityName":null,"tranName":null,"sdLineName":null,"cityCode":"1340623","cityName":"国网望都县供电公司","provinceCode":null,"stopTime":"2020-04-17 23:00:00","powerType":"全部","powerOffArea":"【全线路停电】停西新村内北配变,东新村内配变,东新村内南2号配变,西新村内中配变,西新村内南配变,东新村新增配变,小寨屯内混配变,西新村内北2号,小寨屯内南配变,西新村内东配变,东新村内东配变,东新村内北配变,东新村内南配变","powerOffReason":"【停电原因】由于Ｂ相接地导致３５ＫＶ贾村变电站贾北线５１２线路全线停电 【变更送电】因抢修进度加快原因，送电时间由１８日１２：００变更为１７日２３：００ 【发布渠道】通过９５５９８发布","powerOffId":"2020041713000480"},{"poweroffId":2020041713000474,"sgpoweroffId":null,"subsName":"","lineName":"10KV东仙坡522","pubTranName":"东仙坡2633,","scope":"【影响街道/乡镇】东仙坡镇 【高危重要客户】无 【影响客户】东仙坡","startTime":"2020-04-17 21:32:15","stopDate":"2020-04-18 01:30:00","orgNo":"1340626","typeCode":"电网故障停限电","poweroffArea":"【单台区停电】停东仙坡2633","poweroffReason":"【停电原因】由于低压保险烧毁导致１１０ＫＶ下胡良变电站１０ＫＶ东仙坡５２２线路东仙坡２６３３公变台区停电 【变更送电】因抢修进度加快原因，送电时间由１２：００变更为０１：３０ 【发布渠道】通过９５５９８发布","powerTime":"2020-04-18 00:54:43","powerComm":"恢复送电","subsNo":"","lineNo":"","tgNo":"","tgName":null,"infoStatus":"1","orgName":"国网涿州市供电公司","typeName":null,"infoStatusName":null,"dateDay":null,"orgNos":null,"nowTime":null,"countyName":null,"streetName":null,"villageName":null,"roadName":null,"communityName":null,"tranName":null,"sdLineName":null,"cityCode":"1340626","cityName":"国网涿州市供电公司","provinceCode":null,"stopTime":"2020-04-18 01:30:00","powerType":"全部","powerOffArea":"【单台区停电】停东仙坡2633","powerOffReason":"【停电原因】由于低压保险烧毁导致１１０ＫＶ下胡良变电站１０ＫＶ东仙坡５２２线路东仙坡２６３３公变台区停电 【变更送电】因抢修进度加快原因，送电时间由１２：００变更为０１：３０ 【发布渠道】通过９５５９８发布","powerOffId":"2020041713000474"},{"poweroffId":2020041713000392,"sgpoweroffId":null,"subsName":"","lineName":"牛庄线517","pubTranName":"新内一光2【2018年重过载】,新牛家庄光5,牛家庄光7,牛家庄光9,新牛家庄光13,新牛家庄光2,牛家庄光11,新牛家庄光4,牛家庄村内光1,牛家庄光3,新张百户光1,牛家庄光8,牛家庄光10,新牛家庄光6,新牛家庄光12,张百户光7,新张百户光5,新张百户光6,张百户光3|07095174075,新张百户光2,张百户光8,新张百户混2【2018年四批补强】,古庄营光4,古庄营光2|07095174024,古庄营光3,古庄营光1|07095174023,古庄营光5,付家庄光9,新付家庄光10,新付家庄光2,付家庄光12,新付家庄光1,新付家庄光8,新付家庄光3,新付家庄光5,新付家庄光4,新付家庄光7,付家庄光11,付家庄光6,新杨各庄光6,新杨各庄光8,新杨各庄光10,新张百户光4,新杨各庄光12,新杨各庄光3,新杨各庄光5,杨各庄商品街光1|07095174007,杨各庄光2|07095174003,新杨各庄光11,新杨各庄光7,新杨各庄光9,新内二光5【2018四批补强】,新内二光3【2016年重过载】,内二光4,内二光2,内一光7,新内一光4【2018年四批补强】,内一光1,内二光1,内一光6,","scope":"【影响街道/乡镇】北田乡 【高危重要客户】无 【影响客户】牛家庄、张百户、古庄营、付家庄、杨各庄、内章村、内一村、内二村、内三村部分用户","startTime":"2020-04-28 01:00:00","stopDate":"2020-04-28 04:00:00","orgNo":"1340609","typeCode":"计划停电","poweroffArea":"【分支停电】停牛家庄光8,牛家庄光10,新牛家庄光6,新牛家庄光12,新牛家庄光5,牛家庄光7,牛家庄光9,新牛家庄光13,新牛家庄光2,牛家庄光11,新牛家庄光4,牛家庄村内光1,牛家庄光3,新张百户光1,张百户光7,新张百户光4,新张百户光5,新张百户光6,张百户光3|07095174075,新张百户光2,张百户光8,新张百户混2【2018年四批补强】,古庄营光4,古庄营光2|07095174024,古庄营光3,古庄营光1|07095174023,古庄营光5,付家庄光9,新付家庄光10,新付家庄光2,付家庄光12,新付家庄光1,新付家庄光8,新付家庄光3,新付家庄光5,新付家庄光4,新付家庄光7,付家庄光11,付家庄光6,新杨各庄光6,新杨各庄光8,新杨各庄光10,新杨各庄光12,新杨各庄光3,新杨各庄光5,杨各庄商品街光1|07095174007,杨各庄光2|07095174003,新杨各庄光11,新杨各庄光7,新杨各庄光9,新内二光5【2018四批补强】,新内二光3【2016年重过载】,内二光4,内二光2,内一光7,新内一光4【2018年四批补强】,内一光1,内二光1,内一光3,内一光6,新内一光2【2018年重过载】","poweroffReason":"【停电原因】由于付家庄排５分支０４号杆搭接引线变压器搬迁导致３５ＫＶ彭各庄变电站牛庄线５１７线路主干０９号杆以下线路停电 【变更送电】无 【发布渠道】保定市定兴县电视台（０４月２０日０９时１０分至２３时５０分之间）屏幕上方滚动播放","powerTime":"2020-04-28 03:41:10","powerComm":"已送电","subsNo":"","lineNo":"","tgNo":"","tgName":null,"infoStatus":"1","orgName":"国网定兴县供电公司","typeName":null,"infoStatusName":null,"dateDay":null,"orgNos":null,"nowTime":null,"countyName":null,"streetName":null,"villageName":null,"roadName":null,"communityName":null,"tranName":null,"sdLineName":null,"cityCode":"1340609","cityName":"国网定兴县供电公司","provinceCode":null,"stopTime":"2020-04-28 04:00:00","powerType":"全部","powerOffArea":"【分支停电】停牛家庄光8,牛家庄光10,新牛家庄光6,新牛家庄光12,新牛家庄光5,牛家庄光7,牛家庄光9,新牛家庄光13,新牛家庄光2,牛家庄光11,新牛家庄光4,牛家庄村内光1,牛家庄光3,新张百户光1,张百户光7,新张百户光4,新张百户光5,新张百户光6,张百户光3|07095174075,新张百户光2,张百户光8,新张百户混2【2018年四批补强】,古庄营光4,古庄营光2|07095174024,古庄营光3,古庄营光1|07095174023,古庄营光5,付家庄光9,新付家庄光10,新付家庄光2,付家庄光12,新付家庄光1,新付家庄光8,新付家庄光3,新付家庄光5,新付家庄光4,新付家庄光7,付家庄光11,付家庄光6,新杨各庄光6,新杨各庄光8,新杨各庄光10,新杨各庄光12,新杨各庄光3,新杨各庄光5,杨各庄商品街光1|07095174007,杨各庄光2|07095174003,新杨各庄光11,新杨各庄光7,新杨各庄光9,新内二光5【2018四批补强】,新内二光3【2016年重过载】,内二光4,内二光2,内一光7,新内一光4【2018年四批补强】,内一光1,内二光1,内一光3,内一光6,新内一光2【2018年重过载】","powerOffReason":"【停电原因】由于付家庄排５分支０４号杆搭接引线变压器搬迁导致３５ＫＶ彭各庄变电站牛庄线５１７线路主干０９号杆以下线路停电 【变更送电】无 【发布渠道】保定市定兴县电视台（０４月２０日０９时１０分至２３时５０分之间）屏幕上方滚动播放","powerOffId":"2020041713000392"}],"pageModel":{"pageNow":162,"totalCount":10973,"totalPage":1098,"tableRows":0,"pageCount":10,"beginCount":1610},"isExperi":"1"}