{"message":"","today":"2020-06-15","seleList":[{"poweroffId":2020041613000598,"sgpoweroffId":null,"subsName":"","lineName":"10KV515王营线","pubTranName":"10kV515王营线大苑33021分支3#王营线515大苑33020台区器,","scope":"【影响街道/乡镇】博野镇【高危重要客户】无【影响客户】大苑村部分","startTime":"2020-04-16 13:13:18","stopDate":"2020-04-16 15:00:00","orgNo":"1340608","typeCode":"电网故障停限电","poweroffArea":"【单台区停电】停10kV515王营线大苑33021分支3#王营线515大苑33020台区器","poweroffReason":"【停电原因】由于ＪＰ柜烧毁导致３５ＫＶ南白沙变电站王营５１５线路３３０２０公变台区停电【变更送电】无【发布渠道】通过９５５９８发布","powerTime":"2020-04-16 14:09:25","powerComm":"已送电","subsNo":"","lineNo":"","tgNo":"","tgName":null,"infoStatus":"1","orgName":"国网博野县供电公司","typeName":null,"infoStatusName":null,"dateDay":null,"orgNos":null,"nowTime":null,"countyName":null,"streetName":null,"villageName":null,"roadName":null,"communityName":null,"tranName":null,"sdLineName":null,"cityCode":"1340608","cityName":"国网博野县供电公司","provinceCode":null,"stopTime":"2020-04-16 15:00:00","powerType":"全部","powerOffArea":"【单台区停电】停10kV515王营线大苑33021分支3#王营线515大苑33020台区器","powerOffReason":"【停电原因】由于ＪＰ柜烧毁导致３５ＫＶ南白沙变电站王营５１５线路３３０２０公变台区停电【变更送电】无【发布渠道】通过９５５９８发布","powerOffId":"2020041613000598"},{"poweroffId":2020041613000554,"sgpoweroffId":null,"subsName":"","lineName":"10kV东黄线512","pubTranName":"南黄南变压器,王场南变压器,魏庄北变压器,王场6号变台,南黄村变压器,王场东南2变压器,南黄西台变压器,丰盛庄南2变压器,乔古寺东1变压器,乔古寺东2变压器,王场东南1变压器,南黄南2变压器,丰盛庄南三,丰盛庄西变压器,南黄东台区,东黄南2变压器,王场北3变压器,","scope":"【影响街道/乡镇】泗庄镇、白沟镇 【高危重要客户】无 【影响客户】南黄村、东黄村（部分）、魏庄村、乔古寺村、王场村、丰盛庄村、高碑店市泗庄东黄小学、保定白沟新城王场学校、保定海山雨鞋制造有限公司、高碑店市博荣拉链有限公司、高碑店市同兴畜牧有限公司(王家场)、张爽、利达橡塑制品厂、诚信拉杆厂、东黄丰华人造革厂、京华人造革厂、天和橡塑制品厂、魏庄砖厂、高碑店市华宝塑料制品有限责任公司、高碑店市公安局交通管理大队、社办厂、高碑店市欣荣海绵纸厂、保定博德广信皮革制品有限公司、宏丰人造革厂、三福饭店、高碑店市邓庄春晖面粉厂、新华油质化工厂、张艺萌、高碑店市鑫益隆塑胶有限公司","startTime":"2020-04-16 11:35:16","stopDate":"2020-04-16 12:30:00","orgNo":"1340612","typeCode":"电网故障停限电","poweroffArea":"【全线路停电】停丰盛庄西变压器,丰盛庄南变压器,东黄西南变压器,丰盛庄北变压器,王场东变压器,高碑店市欣荣海绵纸厂,高碑店市泗庄迪航硕鞋厂,南黄东台区,保定森泽汽车销售有限公司,丰盛庄南三,平占杰,高碑店市博荣拉链有限公司,丰盛庄西南地变压器【纯农排变】,王场6号变台,油厂东,王场东南1变压器,春晖面粉厂,乔古寺东变压器,王场西北变压器,东黄南2变压器,魏庄西地变压器,东黄地变压器【纯农排变】,南黄南变压器,魏庄村变压器,南黄村东地【纯农排变】,保定白沟新城王场学校,王场东南台变压器,丰盛庄西2变压器,高碑店市鑫益隆塑料有限公司变压器,高碑店市同兴畜牧有限公司（王家场）变压器,南黄西地变压器【纯农排变】,王场南变压器,陶文祥革厂3,王场南地变压器【纯农排变】,魏庄北变压器,魏庄西南地变压器【纯农排变】,王场北变压器,王场东地变压器【纯农排变】,交警中队,丰盛庄南2变压器,新华油质化工厂,乔古寺东北地变压器,王场西南地变压器【纯农排变】,泗庄供电所变压器,南黄南2变压器,王场北地变压器【纯农排变】,乔古寺东1变压器,南黄西台变压器,客户投资_东黄南变压器,乔古寺地变压器【纯农排变】,王志丰,王场北3变压器,于广才革厂,冯宝赤革厂,陶文祥革厂1,油厂,乔古寺东2变压器,陶文祥革厂 2,张金明革厂,乔古寺西台变压器,南黄村变压器,未庄砖厂,河北省保定市高碑店市泗庄乡高碑店泗庄供电所,丰盛庄村变压器,魏庄地变压器,0387437068-世纪大道北东台-专变-45274563-世纪大道北东台,乔古寺西南地变压器【纯农排变】,东黄村变压器,高碑店市泗庄镇东黄小学,王场东南2变压器","poweroffReason":"【停电原因】由于站内母线ＰＴ保险坏导致３５ＫＶ泗庄变电站１０ＫＶ东黄５１２线路全线停电 【变更送电】因抢修进度加快原因，送电时间由１４：３０变更为１２：３０ 【发布渠道】通过９５５９８发布","powerTime":"2020-04-16 12:18:24","powerComm":"已送电","subsNo":"","lineNo":"","tgNo":"","tgName":null,"infoStatus":"1","orgName":"国网高碑店市供电公司","typeName":null,"infoStatusName":null,"dateDay":null,"orgNos":null,"nowTime":null,"countyName":null,"streetName":null,"villageName":null,"roadName":null,"communityName":null,"tranName":null,"sdLineName":null,"cityCode":"1340612","cityName":"国网高碑店市供电公司","provinceCode":null,"stopTime":"2020-04-16 12:30:00","powerType":"全部","powerOffArea":"【全线路停电】停丰盛庄西变压器,丰盛庄南变压器,东黄西南变压器,丰盛庄北变压器,王场东变压器,高碑店市欣荣海绵纸厂,高碑店市泗庄迪航硕鞋厂,南黄东台区,保定森泽汽车销售有限公司,丰盛庄南三,平占杰,高碑店市博荣拉链有限公司,丰盛庄西南地变压器【纯农排变】,王场6号变台,油厂东,王场东南1变压器,春晖面粉厂,乔古寺东变压器,王场西北变压器,东黄南2变压器,魏庄西地变压器,东黄地变压器【纯农排变】,南黄南变压器,魏庄村变压器,南黄村东地【纯农排变】,保定白沟新城王场学校,王场东南台变压器,丰盛庄西2变压器,高碑店市鑫益隆塑料有限公司变压器,高碑店市同兴畜牧有限公司（王家场）变压器,南黄西地变压器【纯农排变】,王场南变压器,陶文祥革厂3,王场南地变压器【纯农排变】,魏庄北变压器,魏庄西南地变压器【纯农排变】,王场北变压器,王场东地变压器【纯农排变】,交警中队,丰盛庄南2变压器,新华油质化工厂,乔古寺东北地变压器,王场西南地变压器【纯农排变】,泗庄供电所变压器,南黄南2变压器,王场北地变压器【纯农排变】,乔古寺东1变压器,南黄西台变压器,客户投资_东黄南变压器,乔古寺地变压器【纯农排变】,王志丰,王场北3变压器,于广才革厂,冯宝赤革厂,陶文祥革厂1,油厂,乔古寺东2变压器,陶文祥革厂 2,张金明革厂,乔古寺西台变压器,南黄村变压器,未庄砖厂,河北省保定市高碑店市泗庄乡高碑店泗庄供电所,丰盛庄村变压器,魏庄地变压器,0387437068-世纪大道北东台-专变-45274563-世纪大道北东台,乔古寺西南地变压器【纯农排变】,东黄村变压器,高碑店市泗庄镇东黄小学,王场东南2变压器","powerOffReason":"【停电原因】由于站内母线ＰＴ保险坏导致３５ＫＶ泗庄变电站１０ＫＶ东黄５１２线路全线停电 【变更送电】因抢修进度加快原因，送电时间由１４：３０变更为１２：３０ 【发布渠道】通过９５５９８发布","powerOffId":"2020041613000554"},{"poweroffId":2020041613000549,"sgpoweroffId":null,"subsName":"","lineName":"10kV泗庄线515","pubTranName":"田庄东变压器,东大街南变压器,东大街北二,东大街中变压器,半边街北变压器,半边街南变压器,田庄西北2柱上变压器,半边街西北变压器,庞场市场变压器,泗庄市场2变压器,半边街西南变压器,泗庄田庄东南台,田庄西三变压器,田庄西2柱上变压器,庞场南变压器,客户投资_庞场东台柱上变压器,南大街村变压器,北留西排灌变压器【纯农排变】,郭街东变压器,六里街地变压器,半边街西变压器,半边街变压器,东大街西,田庄东北变压器,东大街6号变台,泗庄市场变压器,庞场南二变压器,","scope":"【影响街道/乡镇】泗庄镇、东马营镇、东大街、南大街 【高危重要客户】无 【影响客户】东大街村、半边街村、庞场村、郭街村、田庄村、六里街村、高庄村、北留村、王义明、高碑店市泗庄东大街小学、高碑店市泗庄田庄小学、汇通路桥建设集团有限公司、泗庄镇政府、高碑店市泗庄中心卫生院、泗庄邮局、纪建春、万宇箱包、中国石油第四加油站","startTime":"2020-04-16 11:30:09","stopDate":"2020-04-16 12:30:00","orgNo":"1340612","typeCode":"电网故障停限电","poweroffArea":"【全线路停电】停半边街西变压器,半边街变压器,汇通路桥建设中心03,郭街地变压器【纯农排变】,田庄东南地变压器【纯农排变】,田庄西变压器,北留西排灌变压器【纯农排变】,泗庄镇政府,高庄南变压器,高碑店市泗庄镇东大街小学,六里街南地变压器,中国移动通信集团河北有限公司高碑店分公司,郭街东变压器,田庄西北变压器,东大街东变压器,东大街南地变压器,北留西2变压器,东大街西南地变压器【纯农排变】,泗庄市场变压器,半边街2号地变压器,南大街东南2变压器,庞场南二变压器,高庄西地变压器【纯农排变】,东大街北二,0387440299-社办厂-专变-45277408-社办厂,东大街西,庞场市场变压器,保定白沟新城和源加油站变压器,东大街中变压器,加油站,高碑店市华德立成箱包有限责任公司,半边街北变压器,保定帝翔商贸有限公司,庞场南变压器,猪场,泗庄田庄北变压器,东大街北变压器,半边街南变压器,田庄西北2柱上变压器,六里街变台,半边街西北变压器,郭街西变压器,泗庄田庄西南地变压器【纯农排变】,高碑店市泗庄镇田庄村富强人造革厂变压器,南大街村变压器,变压器,高碑店市泗庄镇田庄小学变压器,东大街地变压器【纯农排变】,庞场2号地变压器【纯农排变】,东大街煤厂,汇通路桥建设中心02,汇通路桥建设中心01,北留南变压器,高碑店市同兴农林畜牧有限公司,高碑店市瑞跃晟物业管理有限公司2,田庄东变压器,高碑店市白沟机动车驾驶员培训学校,高庄村内变压器,东大街东南地变压器【纯农排变】,孙建华,东大街南变压器,半边街西地变压器,半边街地变压器【纯农排变】,南大街地变压器【纯农排变】,六里街变压器,六里街地变压器,泗庄市场2变压器,高碑店市泗庄镇东大街小学变压器,王义明变压器,半边街西南变压器,庞场3号地变压器【纯农排变】,泗庄田庄东南台,田庄西三变压器,田庄西2柱上变压器,北留西变压器,高碑店市双兴粮油商贸有限公司变压器,高庄地变压器【纯农排变】,农场,保定霖诺商贸有限公司,田庄东北变压器,客户投资_庞场东台柱上变压器,庞场北变压器,东大街6号变台,高碑店市泗庄中心卫生院变压器,高碑店市瑞跃晟物业管理有限公司1","poweroffReason":"【停电原因】由于站内母线ＰＴ保险烧导致３５ＫＶ泗庄变电站１０ＫＶ泗庄５１５线路全线停电 【变更送电】因抢修进度加快原因，送电时间由１４：３０变更为１２：３０ 【发布渠道】通过９５５９８发布","powerTime":"2020-04-16 12:20:53","powerComm":"已送电","subsNo":"","lineNo":"","tgNo":"","tgName":null,"infoStatus":"1","orgName":"国网高碑店市供电公司","typeName":null,"infoStatusName":null,"dateDay":null,"orgNos":null,"nowTime":null,"countyName":null,"streetName":null,"villageName":null,"roadName":null,"communityName":null,"tranName":null,"sdLineName":null,"cityCode":"1340612","cityName":"国网高碑店市供电公司","provinceCode":null,"stopTime":"2020-04-16 12:30:00","powerType":"全部","powerOffArea":"【全线路停电】停半边街西变压器,半边街变压器,汇通路桥建设中心03,郭街地变压器【纯农排变】,田庄东南地变压器【纯农排变】,田庄西变压器,北留西排灌变压器【纯农排变】,泗庄镇政府,高庄南变压器,高碑店市泗庄镇东大街小学,六里街南地变压器,中国移动通信集团河北有限公司高碑店分公司,郭街东变压器,田庄西北变压器,东大街东变压器,东大街南地变压器,北留西2变压器,东大街西南地变压器【纯农排变】,泗庄市场变压器,半边街2号地变压器,南大街东南2变压器,庞场南二变压器,高庄西地变压器【纯农排变】,东大街北二,0387440299-社办厂-专变-45277408-社办厂,东大街西,庞场市场变压器,保定白沟新城和源加油站变压器,东大街中变压器,加油站,高碑店市华德立成箱包有限责任公司,半边街北变压器,保定帝翔商贸有限公司,庞场南变压器,猪场,泗庄田庄北变压器,东大街北变压器,半边街南变压器,田庄西北2柱上变压器,六里街变台,半边街西北变压器,郭街西变压器,泗庄田庄西南地变压器【纯农排变】,高碑店市泗庄镇田庄村富强人造革厂变压器,南大街村变压器,变压器,高碑店市泗庄镇田庄小学变压器,东大街地变压器【纯农排变】,庞场2号地变压器【纯农排变】,东大街煤厂,汇通路桥建设中心02,汇通路桥建设中心01,北留南变压器,高碑店市同兴农林畜牧有限公司,高碑店市瑞跃晟物业管理有限公司2,田庄东变压器,高碑店市白沟机动车驾驶员培训学校,高庄村内变压器,东大街东南地变压器【纯农排变】,孙建华,东大街南变压器,半边街西地变压器,半边街地变压器【纯农排变】,南大街地变压器【纯农排变】,六里街变压器,六里街地变压器,泗庄市场2变压器,高碑店市泗庄镇东大街小学变压器,王义明变压器,半边街西南变压器,庞场3号地变压器【纯农排变】,泗庄田庄东南台,田庄西三变压器,田庄西2柱上变压器,北留西变压器,高碑店市双兴粮油商贸有限公司变压器,高庄地变压器【纯农排变】,农场,保定霖诺商贸有限公司,田庄东北变压器,客户投资_庞场东台柱上变压器,庞场北变压器,东大街6号变台,高碑店市泗庄中心卫生院变压器,高碑店市瑞跃晟物业管理有限公司1","powerOffReason":"【停电原因】由于站内母线ＰＴ保险烧导致３５ＫＶ泗庄变电站１０ＫＶ泗庄５１５线路全线停电 【变更送电】因抢修进度加快原因，送电时间由１４：３０变更为１２：３０ 【发布渠道】通过９５５９８发布","powerOffId":"2020041613000549"},{"poweroffId":2020041613000539,"sgpoweroffId":null,"subsName":"","lineName":"10kV邓庄线513","pubTranName":"邓庄北变压器,邓庄西北变压器,北黄西南台柱上变压器,凡庄2号地变压器【纯农排变】,郭庄东北台变压器,崔庄东台变压器,崔庄变压器,李南西变压器,邓庄东二变压器,小青凌地变压器【纯农排变】,郭庄西变压器,郭庄东变压器,邓庄东北,李南南台变压器,北留北变压器,客户投资_东黄北变压器,李南2号地变压器,东黄1号地变压器【纯农排变】,北留东南变压器,南黄西南台,北黄西台变压器,十九垡排灌变压器【纯农排变】,小清凌西北变压器,邓庄中变压器,十九垡北,邓庄排灌变压器【纯农排变】,","scope":"【影响街道/乡镇】泗庄镇 【高危重要客户】无 【影响客户】李南村、李北村、北黄村、东黄村（部分）、凡庄村、大董庄村、崔庄村、小董庄村、东高庄村、郭庄村、小清凌村、十九垡村、邓庄村、陶阳庄村、北留村、高碑店市金冠黄桃专业合作社、高碑店市泗庄邓庄小学、高碑店市泗庄小清凌学校、高碑店市泗庄初级中学、高碑店市晶普玻璃制造有限公司、高碑店市同兴农林畜牧有限公司、付英起、高碑店市城乡供水管理站、邓庄顺发面粉厂、郭庄面粉厂、高碑店市养路工区、高碑店市博荣拉链厂西、高碑店市博荣拉链厂东、泗庄中学、马涛、泗庄中学总校、安海林、杨金齐","startTime":"2020-04-16 11:30:15","stopDate":"2020-04-16 12:30:00","orgNo":"1340612","typeCode":"电网故障停限电","poweroffArea":"【全线路停电】停东高庄东南地变压器【纯农排变】,李南2号地变压器,凡庄地变压器【纯农排变】,北黄东北地变压器【纯农排变】,小董庄村变压器,小青凌地变压器【纯农排变】,高碑店市同兴农林畜牧有限公司,十九垡西变压器,邓庄排灌变压器【纯农排变】,南黄1号地变压器,李南东地变压器【纯农排变】,东高庄西台变压器,东高东台变压器,邓庄东北,北留北变压器,客户投资_东黄北变压器,北留1号地变压器【纯农排变】,陶阳庄变压器,十九垡中变压器,北黄地变压器【纯农排变】,李北1号地变压器【纯农排变】,高碑店市泗庄镇小清凌学校变压器,大董庄一号地【纯农排变】,凡庄1号地变压器【纯农排变】,李南地,邓庄西变压器,南黄西南台,李北东地变压器【纯农排变】,保定博德广信皮革制品有限公司,陶阳庄2号地变压器【纯农排变】,北留东南变压器,北黄西台变压器,小董庄地变压器【纯农排变】,十九垡排灌变压器【纯农排变】,李北地变压器【纯农排变】,邓庄2号地变压器【纯农排变】,郭庄东变压器,北留东变压器,邓庄1号地变压器【纯农排变】,崔场西北地变压器【纯农排变】,邓庄东二变压器,邓庄北2,大董庄地变压器【纯农排变】,东高庄东北地变压器【纯农排变】,十九垡1号地变压器【纯农排变】,高碑店市泗庄镇邓庄小学变压器,小清凌西北变压器,雄县大营镇鼎拓板材复合厂,十九垡东变压器,高碑店市晶普玻璃制造有限公司,邓庄西南变压器,大董庄东地变压器【纯农排变】,李南1号地变压器【纯农排变】,郭庄1号地变压器【纯农排变】,陶阳庄1号地变压器【纯农排变】,十九垡东地变压器,崔场南变压器,邓庄中变压器,十九垡北,崔场东地变压器,崔庄变压器,李南西变压器,高碑店市金冠黄桃专业合作社变压器,北黄2号地变压器【纯农排变】,大董庄村变压器,李北二号地变压器,郭庄西变压器,郭庄东地变压器【纯农排变】,庞场革厂,邓庄面粉厂南,郭庄面粉厂,北黄1号地变压器【纯农排变】,邓庄北变压器,十九垡西地变压器,0387440563-泗庄中学-专变-45277413-泗庄中学,东黄北地变压器,崔场地变压器【纯农排变】,李北西变压器,邓庄西北变压器,崔场变压器,郭庄地变压器【纯农排变】,王庆丰东,王庆丰西,李北西地变压器【纯农排变】,李南3号地变压器,南黄村王庆丰排灌【纯农排变】,北黄北变压器,凡庄变压器1,北黄西南台柱上变压器,高碑店市泗庄初级中学变压器,东黄1号地变压器【纯农排变】,邓庄东变压器,养路工区变压器,马涛变压器,凡庄2号地变压器【纯农排变】,变压器,郭庄东北台变压器,客户投资_李南东变压器,崔庄东台变压器,水厂,邓庄地变压器,邓庄南台变压器,邓庄3号地变压器,东高庄1号地变压器【纯农排变】,李北东变压器,李南南台变压器,李南4号地变压器","poweroffReason":"【停电原因】由于站内母线ＰＴ保险烧导致３５ＫＶ泗庄变电站１０ＫＶ邓庄５１３线路全线停电 【变更送电】因抢修进度加快原因，送电时间由１４：００变更为１２：３０ 【发布渠道】通过９５５９８发布","powerTime":"2020-04-16 12:19:49","powerComm":"已送电","subsNo":"","lineNo":"","tgNo":"","tgName":null,"infoStatus":"1","orgName":"国网高碑店市供电公司","typeName":null,"infoStatusName":null,"dateDay":null,"orgNos":null,"nowTime":null,"countyName":null,"streetName":null,"villageName":null,"roadName":null,"communityName":null,"tranName":null,"sdLineName":null,"cityCode":"1340612","cityName":"国网高碑店市供电公司","provinceCode":null,"stopTime":"2020-04-16 12:30:00","powerType":"全部","powerOffArea":"【全线路停电】停东高庄东南地变压器【纯农排变】,李南2号地变压器,凡庄地变压器【纯农排变】,北黄东北地变压器【纯农排变】,小董庄村变压器,小青凌地变压器【纯农排变】,高碑店市同兴农林畜牧有限公司,十九垡西变压器,邓庄排灌变压器【纯农排变】,南黄1号地变压器,李南东地变压器【纯农排变】,东高庄西台变压器,东高东台变压器,邓庄东北,北留北变压器,客户投资_东黄北变压器,北留1号地变压器【纯农排变】,陶阳庄变压器,十九垡中变压器,北黄地变压器【纯农排变】,李北1号地变压器【纯农排变】,高碑店市泗庄镇小清凌学校变压器,大董庄一号地【纯农排变】,凡庄1号地变压器【纯农排变】,李南地,邓庄西变压器,南黄西南台,李北东地变压器【纯农排变】,保定博德广信皮革制品有限公司,陶阳庄2号地变压器【纯农排变】,北留东南变压器,北黄西台变压器,小董庄地变压器【纯农排变】,十九垡排灌变压器【纯农排变】,李北地变压器【纯农排变】,邓庄2号地变压器【纯农排变】,郭庄东变压器,北留东变压器,邓庄1号地变压器【纯农排变】,崔场西北地变压器【纯农排变】,邓庄东二变压器,邓庄北2,大董庄地变压器【纯农排变】,东高庄东北地变压器【纯农排变】,十九垡1号地变压器【纯农排变】,高碑店市泗庄镇邓庄小学变压器,小清凌西北变压器,雄县大营镇鼎拓板材复合厂,十九垡东变压器,高碑店市晶普玻璃制造有限公司,邓庄西南变压器,大董庄东地变压器【纯农排变】,李南1号地变压器【纯农排变】,郭庄1号地变压器【纯农排变】,陶阳庄1号地变压器【纯农排变】,十九垡东地变压器,崔场南变压器,邓庄中变压器,十九垡北,崔场东地变压器,崔庄变压器,李南西变压器,高碑店市金冠黄桃专业合作社变压器,北黄2号地变压器【纯农排变】,大董庄村变压器,李北二号地变压器,郭庄西变压器,郭庄东地变压器【纯农排变】,庞场革厂,邓庄面粉厂南,郭庄面粉厂,北黄1号地变压器【纯农排变】,邓庄北变压器,十九垡西地变压器,0387440563-泗庄中学-专变-45277413-泗庄中学,东黄北地变压器,崔场地变压器【纯农排变】,李北西变压器,邓庄西北变压器,崔场变压器,郭庄地变压器【纯农排变】,王庆丰东,王庆丰西,李北西地变压器【纯农排变】,李南3号地变压器,南黄村王庆丰排灌【纯农排变】,北黄北变压器,凡庄变压器1,北黄西南台柱上变压器,高碑店市泗庄初级中学变压器,东黄1号地变压器【纯农排变】,邓庄东变压器,养路工区变压器,马涛变压器,凡庄2号地变压器【纯农排变】,变压器,郭庄东北台变压器,客户投资_李南东变压器,崔庄东台变压器,水厂,邓庄地变压器,邓庄南台变压器,邓庄3号地变压器,东高庄1号地变压器【纯农排变】,李北东变压器,李南南台变压器,李南4号地变压器","powerOffReason":"【停电原因】由于站内母线ＰＴ保险烧导致３５ＫＶ泗庄变电站１０ＫＶ邓庄５１３线路全线停电 【变更送电】因抢修进度加快原因，送电时间由１４：００变更为１２：３０ 【发布渠道】通过９５５９８发布","powerOffId":"2020041613000539"},{"poweroffId":2020041613000534,"sgpoweroffId":null,"subsName":"","lineName":"10kV水源站526线路","pubTranName":"C204柱上变压器,C518柱上变压器,C201柱上变压器,C202柱上变压器,C203柱上变压器,","scope":"【影响街道/乡镇】满城区满城镇 【高危重要客户】无 【影响客户】东马村","startTime":"2020-04-16 11:10:00","stopDate":"2020-04-16 16:00:00","orgNo":"13406","typeCode":"电网故障停限电","poweroffArea":"【分支停电】停C204柱上变压器,C518柱上变压器,C201柱上变压器,C202柱上变压器,C203柱上变压器","poweroffReason":"【停电原因】由于分支开关短路导致１０ＫＶ水源变电站５２６线路出线１４号杆西分支５号开关以下停电【变更送电】因抢修进度加快，原定17：00送电现计划16：00送电。【发布渠道】通过９５５９８发布","powerTime":"2020-04-16 15:19:00","powerComm":"已送电","subsNo":"","lineNo":"","tgNo":"","tgName":null,"infoStatus":"1","orgName":"保定供电公司","typeName":null,"infoStatusName":null,"dateDay":null,"orgNos":null,"nowTime":null,"countyName":null,"streetName":null,"villageName":null,"roadName":null,"communityName":null,"tranName":null,"sdLineName":null,"cityCode":"13406","cityName":"保定供电公司","provinceCode":null,"stopTime":"2020-04-16 16:00:00","powerType":"全部","powerOffArea":"【分支停电】停C204柱上变压器,C518柱上变压器,C201柱上变压器,C202柱上变压器,C203柱上变压器","powerOffReason":"【停电原因】由于分支开关短路导致１０ＫＶ水源变电站５２６线路出线１４号杆西分支５号开关以下停电【变更送电】因抢修进度加快，原定17：00送电现计划16：00送电。【发布渠道】通过９５５９８发布","powerOffId":"2020041613000534"},{"poweroffId":2020041613000502,"sgpoweroffId":null,"subsName":"","lineName":"10KV龙安544","pubTranName":"宋各庄村内2台区,95986部队2,史少磊别墅,总参印刷厂,配变1#,悟空寺西坡台区,龙安北五台区变压器,301粮站,王各庄北台区,郭各庄西坡井1【纯农排变】,龙安果园台区,沈家庵北三台区,刘俊生,农茂庄园,沈家庵南二,0468887700-中国联合网络通信有限公司涞水县分公司-专变-46618777-中国联通,沈家庵北台区,鑫昌水泥制品厂315KVA专变,一渡镇政府变压器,0614822773-河北华银房地产开发有限公司-专变-128150112-华银房地产630KVA变压器专变,宋各庄乡政府,东庄村西2台区,华银地产（都衙狼河）315KVA专变,鑫昌水泥制品厂400KVA专变,东庄西井【纯农排变】,悟空寺三队台区,0682615341-韩宝-专变-221628450-韩宝100KVA专变,刘宁,聚亨旅游公司250KVA专变,配变,光辉玻璃厂,东庄新增南台区,王淑萍200KVA配变,龙安西井【纯农排变】,华阳包装公司,一渡新新小镇630KVA专变,王各庄村西北井【纯农排变】,东庄东坡井【纯农排变】,聚亨旅游200KVA专变,宋各庄3队菜园台区变压器,东庄南井【纯农排变】,国达房地产1,配变3#,0614822177-河北华银房地产开发有限公司-专变-128149919-华银房地产630KVA变压器专变,涞水聚亨房地产630专变,变压器05#,中盛粮油仓储有限公司315KVA专变,0551123470-华银房地产二号桥-专变-49098997-华银房地产2#桥,配变2#,江水湾井【纯农排变】,杨路水泵房,华银房产D区,沈坡,变压器1#,蘑菇峪台区变压器,三皇山花园,0468887494-宋各庄水库-专变-46618793-宋各庄水库,李喜华林场,花园小区,北京岳恒房地产315KVA专变,聚合房地产630KVA专变,河北中盛粮油仓储有限公司315KVA专变,万泉房地产开发有限公司630KVA专变,杨路变压器,北京岳恒公司,李学华（龙安）【纯农排变】,","scope":"【影响街道/乡镇】宋各庄乡 【高危重要客户】无 【影响客户】龙安村、东庄村、悟空寺村、宋各庄村、郭各庄村、王各庄村、沈家庵村","startTime":"2020-04-26 07:00:00","stopDate":"2020-04-26 18:00:00","orgNo":"1340614","typeCode":"计划停电","poweroffArea":"【全线路停电】停华银房产D区,宋各庄村内2台区,95986部队2,史少磊别墅,总参印刷厂,配变1#,悟空寺西坡台区,龙安北五台区变压器,301粮站,王各庄北台区,郭各庄西坡井1【纯农排变】,龙安果园台区,沈家庵北三台区,刘俊生,农茂庄园,沈家庵南二,0468887700-中国联合网络通信有限公司涞水县分公司-专变-46618777-中国联通,沈家庵北台区,鑫昌水泥制品厂315KVA专变,一渡镇政府变压器,0614822773-河北华银房地产开发有限公司-专变-128150112-华银房地产630KVA变压器专变,宋各庄乡政府,东庄村西2台区,华银地产（都衙狼河）315KVA专变,鑫昌水泥制品厂400KVA专变,东庄西井【纯农排变】,悟空寺三队台区,0682615341-韩宝-专变-221628450-韩宝100KVA专变,刘宁,聚亨旅游公司250KVA专变,配变,光辉玻璃厂,东庄新增南台区,王淑萍200KVA配变,龙安西井【纯农排变】,华阳包装公司,一渡新新小镇630KVA专变,王各庄村西北井【纯农排变】,东庄东坡井【纯农排变】,聚亨旅游200KVA专变,宋各庄3队菜园台区变压器,东庄南井【纯农排变】,国达房地产1,配变3#,0614822177-河北华银房地产开发有限公司-专变-128149919-华银房地产630KVA变压器专变,涞水聚亨房地产630专变,变压器05#,中盛粮油仓储有限公司315KVA专变,0551123470-华银房地产二号桥-专变-49098997-华银房地产2#桥,配变2#,江水湾井【纯农排变】,杨路水泵房,沈坡,变压器1#,李学华（龙安）【纯农排变】,蘑菇峪台区变压器,三皇山花园,0468887494-宋各庄水库-专变-46618793-宋各庄水库,李喜华林场,花园小区,北京岳恒房地产315KVA专变,聚合房地产630KVA专变,河北中盛粮油仓储有限公司315KVA专变,万泉房地产开发有限公司630KVA专变,杨路变压器,北京岳恒公司","poweroffReason":"【停电原因】由于更换导线导致３５ＫＶ宋各庄变电站１０ＫＶ龙安５４４线路全线停电 【变更送电】无 【发布渠道】保定市涞水电视台（０４月１７日０８时至０４月２５日２２时之间）屏幕上方滚动","powerTime":"2020-04-26 17:45:24","powerComm":"已送电","subsNo":"","lineNo":"","tgNo":"","tgName":null,"infoStatus":"1","orgName":"国网涞水县供电公司","typeName":null,"infoStatusName":null,"dateDay":null,"orgNos":null,"nowTime":null,"countyName":null,"streetName":null,"villageName":null,"roadName":null,"communityName":null,"tranName":null,"sdLineName":null,"cityCode":"1340614","cityName":"国网涞水县供电公司","provinceCode":null,"stopTime":"2020-04-26 18:00:00","powerType":"全部","powerOffArea":"【全线路停电】停华银房产D区,宋各庄村内2台区,95986部队2,史少磊别墅,总参印刷厂,配变1#,悟空寺西坡台区,龙安北五台区变压器,301粮站,王各庄北台区,郭各庄西坡井1【纯农排变】,龙安果园台区,沈家庵北三台区,刘俊生,农茂庄园,沈家庵南二,0468887700-中国联合网络通信有限公司涞水县分公司-专变-46618777-中国联通,沈家庵北台区,鑫昌水泥制品厂315KVA专变,一渡镇政府变压器,0614822773-河北华银房地产开发有限公司-专变-128150112-华银房地产630KVA变压器专变,宋各庄乡政府,东庄村西2台区,华银地产（都衙狼河）315KVA专变,鑫昌水泥制品厂400KVA专变,东庄西井【纯农排变】,悟空寺三队台区,0682615341-韩宝-专变-221628450-韩宝100KVA专变,刘宁,聚亨旅游公司250KVA专变,配变,光辉玻璃厂,东庄新增南台区,王淑萍200KVA配变,龙安西井【纯农排变】,华阳包装公司,一渡新新小镇630KVA专变,王各庄村西北井【纯农排变】,东庄东坡井【纯农排变】,聚亨旅游200KVA专变,宋各庄3队菜园台区变压器,东庄南井【纯农排变】,国达房地产1,配变3#,0614822177-河北华银房地产开发有限公司-专变-128149919-华银房地产630KVA变压器专变,涞水聚亨房地产630专变,变压器05#,中盛粮油仓储有限公司315KVA专变,0551123470-华银房地产二号桥-专变-49098997-华银房地产2#桥,配变2#,江水湾井【纯农排变】,杨路水泵房,沈坡,变压器1#,李学华（龙安）【纯农排变】,蘑菇峪台区变压器,三皇山花园,0468887494-宋各庄水库-专变-46618793-宋各庄水库,李喜华林场,花园小区,北京岳恒房地产315KVA专变,聚合房地产630KVA专变,河北中盛粮油仓储有限公司315KVA专变,万泉房地产开发有限公司630KVA专变,杨路变压器,北京岳恒公司","powerOffReason":"【停电原因】由于更换导线导致３５ＫＶ宋各庄变电站１０ＫＶ龙安５４４线路全线停电 【变更送电】无 【发布渠道】保定市涞水电视台（０４月１７日０８时至０４月２５日２２时之间）屏幕上方滚动","powerOffId":"2020041613000502"},{"poweroffId":2020041613000492,"sgpoweroffId":null,"subsName":"","lineName":"10kV519北小王线","pubTranName":"10KV519北小王线40011台区变压器,","scope":"【影响街道/乡镇】北杨村乡【高危重要客户】无【影响客户】北小王部分","startTime":"2020-04-16 10:56:53","stopDate":"2020-04-16 12:30:00","orgNo":"1340608","typeCode":"电网故障停限电","poweroffArea":"【单台区停电】停10KV519北小王线40011台区变压器","poweroffReason":"【停电原因】由于ＪＰ柜烧毁导致１１０ＫＶ博野变电站北小王５１９线路４００１１公变台区停电【变更送电】因抢修进度加快原因，送电时间由１５：００变更为１２：３０【发布渠道】通过９５５９８发布","powerTime":"2020-04-16 12:12:38","powerComm":"已送电","subsNo":"","lineNo":"","tgNo":"","tgName":null,"infoStatus":"1","orgName":"国网博野县供电公司","typeName":null,"infoStatusName":null,"dateDay":null,"orgNos":null,"nowTime":null,"countyName":null,"streetName":null,"villageName":null,"roadName":null,"communityName":null,"tranName":null,"sdLineName":null,"cityCode":"1340608","cityName":"国网博野县供电公司","provinceCode":null,"stopTime":"2020-04-16 12:30:00","powerType":"全部","powerOffArea":"【单台区停电】停10KV519北小王线40011台区变压器","powerOffReason":"【停电原因】由于ＪＰ柜烧毁导致１１０ＫＶ博野变电站北小王５１９线路４００１１公变台区停电【变更送电】因抢修进度加快原因，送电时间由１５：００变更为１２：３０【发布渠道】通过９５５９８发布","powerOffId":"2020041613000492"},{"poweroffId":2020041613000477,"sgpoweroffId":null,"subsName":"","lineName":"10KV庄里511","pubTranName":"变压器,山南村内,庄里村内2,南庄南河柱上变压器,南边桥村内,铁角村内,太行重钙厂,高铺村东台区,柏林城村口,罗古台大泽路口台区变压器,桑元涧村西机井,九龙中心卫生院,罗古台前台台区,盘坡村内,北峪塔榆树峪,三道港混用2台区,清泉寺村内,岭南台村南,北边桥路边台区【纯农排变】,北峪塔水湖子,晋先房地产,南湖李生龙,北边桥村内,白草畔景区2,建武石料厂,高铺机井2,镇厂供电所2,庄头村内,北边桥东山,基泰野三坡旅游公司160KVA专变,三道港村内,南湖村内,大泽村内,保定基泰旅游315,岭南台混用,三道港狼王港台区,峨峪村东台区,创业选厂10KVA专变,杨春齐变压器,庄里水库,巨力选厂,高铺村内,创业选厂400KVA专变,东升选矿厂1,铁角七亩地,联通(九龙),农贸市场,谭爱军2,三道港混用,峨峪村内,三道港混用3台区,岭南台罐里台区,柏林城村内,九龙收费站630KVA专变,双龙山庄,顺发选厂,三道港混用4台区,0469097997-鑫鑫铁选二厂-专变-46719064-鑫鑫铁选厂2,南庄村内,巨力选厂2,罗古台柏城峪,庄头艾家庄,玉鑫养殖场,天鸿金矿,庄头双岗台区,岭南台村内,涞水农德长毛兔养殖,山南派出所台区,联合村内,北峪塔榆树峪井台区,飞龙谷,联合村山上2,北峪塔卧龙港2,道沟村内,南庄水泉台区,三道港混用1台区,","scope":"【影响街道/乡镇】九龙镇 【高危重要客户】无 【影响客户】峨峪村、联合村、盘破村、山南村、桑园涧村、罗古台村、大泽村、北峪塔村、南边桥村、南湖村、清泉寺村、铁角村、南庄村、柏林成村、庄里村、庄头村、道沟村、三道港村、高铺村、岭南台村、北边桥村、农贸市场、百草畔","startTime":"2020-04-25 07:00:00","stopDate":"2020-04-25 18:00:00","orgNo":"1340614","typeCode":"计划停电","poweroffArea":"【全线路停电】停三道港混用3台区,变压器,山南村内,庄里村内2,南庄南河柱上变压器,南边桥村内,铁角村内,太行重钙厂,高铺村东台区,柏林城村口,罗古台大泽路口台区变压器,桑元涧村西机井,九龙中心卫生院,罗古台前台台区,盘坡村内,北峪塔榆树峪,三道港混用2台区,清泉寺村内,岭南台村南,北边桥路边台区【纯农排变】,北峪塔水湖子,晋先房地产,南湖李生龙,北边桥村内,白草畔景区2,建武石料厂,高铺机井2,镇厂供电所2,庄头村内,北边桥东山,基泰野三坡旅游公司160KVA专变,三道港村内,南湖村内,大泽村内,保定基泰旅游315,岭南台混用,三道港狼王港台区,峨峪村东台区,创业选厂10KVA专变,杨春齐变压器,庄里水库,巨力选厂,高铺村内,创业选厂400KVA专变,东升选矿厂1,铁角七亩地,联通(九龙),农贸市场,谭爱军2,三道港混用,峨峪村内,三道港混用1台区,岭南台罐里台区,柏林城村内,九龙收费站630KVA专变,双龙山庄,顺发选厂,三道港混用4台区,0469097997-鑫鑫铁选二厂-专变-46719064-鑫鑫铁选厂2,南庄村内,巨力选厂2,罗古台柏城峪,庄头艾家庄,玉鑫养殖场,天鸿金矿,庄头双岗台区,岭南台村内,涞水农德长毛兔养殖,山南派出所台区,联合村内,北峪塔榆树峪井台区,飞龙谷,联合村山上2,北峪塔卧龙港2,道沟村内,南庄水泉台区","poweroffReason":"【停电原因】由于更换导线导致３５ＫＶ镇厂变电站１０ＫＶ庄里５１１线路全线停电 【变更送电】无 【发布渠道】保定市涞水电视台（０４月１７日０８时至０４月２４日２０时之间）屏幕上方滚动","powerTime":"2020-04-25 17:55:17","powerComm":"已送电","subsNo":"","lineNo":"","tgNo":"","tgName":null,"infoStatus":"1","orgName":"国网涞水县供电公司","typeName":null,"infoStatusName":null,"dateDay":null,"orgNos":null,"nowTime":null,"countyName":null,"streetName":null,"villageName":null,"roadName":null,"communityName":null,"tranName":null,"sdLineName":null,"cityCode":"1340614","cityName":"国网涞水县供电公司","provinceCode":null,"stopTime":"2020-04-25 18:00:00","powerType":"全部","powerOffArea":"【全线路停电】停三道港混用3台区,变压器,山南村内,庄里村内2,南庄南河柱上变压器,南边桥村内,铁角村内,太行重钙厂,高铺村东台区,柏林城村口,罗古台大泽路口台区变压器,桑元涧村西机井,九龙中心卫生院,罗古台前台台区,盘坡村内,北峪塔榆树峪,三道港混用2台区,清泉寺村内,岭南台村南,北边桥路边台区【纯农排变】,北峪塔水湖子,晋先房地产,南湖李生龙,北边桥村内,白草畔景区2,建武石料厂,高铺机井2,镇厂供电所2,庄头村内,北边桥东山,基泰野三坡旅游公司160KVA专变,三道港村内,南湖村内,大泽村内,保定基泰旅游315,岭南台混用,三道港狼王港台区,峨峪村东台区,创业选厂10KVA专变,杨春齐变压器,庄里水库,巨力选厂,高铺村内,创业选厂400KVA专变,东升选矿厂1,铁角七亩地,联通(九龙),农贸市场,谭爱军2,三道港混用,峨峪村内,三道港混用1台区,岭南台罐里台区,柏林城村内,九龙收费站630KVA专变,双龙山庄,顺发选厂,三道港混用4台区,0469097997-鑫鑫铁选二厂-专变-46719064-鑫鑫铁选厂2,南庄村内,巨力选厂2,罗古台柏城峪,庄头艾家庄,玉鑫养殖场,天鸿金矿,庄头双岗台区,岭南台村内,涞水农德长毛兔养殖,山南派出所台区,联合村内,北峪塔榆树峪井台区,飞龙谷,联合村山上2,北峪塔卧龙港2,道沟村内,南庄水泉台区","powerOffReason":"【停电原因】由于更换导线导致３５ＫＶ镇厂变电站１０ＫＶ庄里５１１线路全线停电 【变更送电】无 【发布渠道】保定市涞水电视台（０４月１７日０８时至０４月２４日２０时之间）屏幕上方滚动","powerOffId":"2020041613000477"},{"poweroffId":2020041613000461,"sgpoweroffId":null,"subsName":"","lineName":"10KV西垒子511","pubTranName":"西垒子村南2,东垒子1村北0671,坛山村西北道边变压器,","scope":"【影响街道/乡镇】永阳镇 【高危重要客户】无 【影响客户】西垒子村、东垒子村、坛山村西北","startTime":"2020-04-25 07:00:00","stopDate":"2020-04-25 12:00:00","orgNo":"1340614","typeCode":"计划停电","poweroffArea":"【全线路停电】停坛山村西北道边变压器,西垒子村南2,东垒子1村北0671","poweroffReason":"【停电原因】由于电缆接引导致３５ＫＶ永阳变电站１０ＫＶ西垒子５１１线路全线停电 【变更送电】无 【发布渠道】保定市涞水电视台（０４月１７日０８时至０４月２４日１７时之间）屏幕上方滚动","powerTime":"2020-04-25 11:26:23","powerComm":"已送电","subsNo":"","lineNo":"","tgNo":"","tgName":null,"infoStatus":"1","orgName":"国网涞水县供电公司","typeName":null,"infoStatusName":null,"dateDay":null,"orgNos":null,"nowTime":null,"countyName":null,"streetName":null,"villageName":null,"roadName":null,"communityName":null,"tranName":null,"sdLineName":null,"cityCode":"1340614","cityName":"国网涞水县供电公司","provinceCode":null,"stopTime":"2020-04-25 12:00:00","powerType":"全部","powerOffArea":"【全线路停电】停坛山村西北道边变压器,西垒子村南2,东垒子1村北0671","powerOffReason":"【停电原因】由于电缆接引导致３５ＫＶ永阳变电站１０ＫＶ西垒子５１１线路全线停电 【变更送电】无 【发布渠道】保定市涞水电视台（０４月１７日０８时至０４月２４日１７时之间）屏幕上方滚动","powerOffId":"2020041613000461"},{"poweroffId":2020041613000445,"sgpoweroffId":null,"subsName":"","lineName":"申庄线513","pubTranName":"10kV513申庄线马庄12号,10Kv513申庄线侯家窑2号,10Kv513申庄线申庄8号,10Kv513申庄线翟庄13号【纯农排变】,10Kv513申庄线马庄10号【纯农排变】,10Kv513申庄线高林村17号【纯农排变】,10Kv513申庄线马庄4号,10Kv513申庄线侯家窑1号,10Kv513申庄线申庄11号【纯农排变】,10Kv513申庄线申庄21号【纯农排变】,10Kv513申庄线申庄16号,10kV513申庄线高林村16号【纯农排变】,10Kv513申庄线马庄1号,10Kv513申庄线翟庄9号【纯农排变】,10Kv513申庄线申庄13号,10Kv513申庄线翟庄18号,10Kv513申庄线申庄14号,10Kv513申庄线申庄18号【纯农排变】,10Kv513申庄线申庄1号,10kV513申庄线马庄8号【纯农排变】,10Kv513申庄线翟庄10号【纯农排变】,10Kv513申庄线申庄5号,10Kv513申庄线马庄6号【纯农排变】,10Kv513申庄线马庄5号,10Kv513申庄线申庄19号,10Kv513申庄线翟庄17号【纯农排变】,10Kv513申庄线冯庄1号,10Kv513申庄线申庄6号【纯农排变】,10Kv513申庄线申庄7号,10Kv513申庄线高林村14号【纯农排变】,10kV513申庄线冯庄4号【纯农排变】,10Kv513申庄线申庄17号,10kV513申庄线高林村15号【纯农排变】,10kV513申庄线申庄3号【纯农排变】,10Kv513申庄线申庄15号【纯农排变】,10Kv513申庄线申庄9号【纯农排变】,10Kv513申庄线申庄4号,10Kv513申庄线马庄3号【纯农排变】,10Kv513申庄线侯家窑3号【纯农排变】,10kV513申庄线马庄11号,10Kv513申庄线申庄10号【纯农排变】,10Kv513申庄线马庄9号,10Kv513申庄线申庄12号,10Kv513申庄线高林村13号【纯农排变】,10Kv513申庄线冯庄3号,10Kv513申庄线冯庄2号,10Kv513申庄线马庄7号,10Kv513申庄线申庄20号【纯农排变】,10kV513申庄线高林村10号【纯农排变】,10Kv513申庄线申庄22号,10Kv513申庄线马庄2号,10Kv513申庄线高林村12号【纯农排变】,10Kv513申庄线申庄2号【纯农排变】,","scope":"【影响街道/乡镇】高林村镇 【高危重要客户】无 【影响客户】申庄、马庄、侯家窑、冯庄、高林村、翟庄","startTime":"2020-04-26 05:00:00","stopDate":"2020-04-26 09:00:00","orgNo":"1340605","typeCode":"计划停电","poweroffArea":"【分支停电】停 10Kv513申庄线冯庄3号, 10Kv513申庄线冯庄2号, 10Kv513申庄线马庄7号,10Kv513申庄线申庄20号【纯农排变】,10kV513申庄线高林村10号【纯农排变】,10Kv513申庄线申庄22号, 10Kv513申庄线马庄2号,10Kv513申庄线高林村12号【纯农排变】,10Kv513申庄线申庄2号【纯农排变】,10kV513申庄线马庄12号, 10Kv513申庄线侯家窑2号, 10Kv513申庄线申庄8号, 10Kv513申庄线翟庄13号【纯农排变】, 10Kv513申庄线马庄10号【纯农排变】,10Kv513申庄线高林村17号【纯农排变】, 10Kv513申庄线马庄4号, 10Kv513申庄线侯家窑1号,10Kv513申庄线申庄11号【纯农排变】, 10Kv513申庄线申庄21号【纯农排变】, 10Kv513申庄线申庄16号,10kV513申庄线高林村16号【纯农排变】, 10Kv513申庄线马庄1号,10Kv513申庄线翟庄9号【纯农排变】, 10Kv513申庄线申庄13号, 10Kv513申庄线翟庄18号,10Kv513申庄线申庄14号, 10Kv513申庄线申庄18号【纯农排变】, 10Kv513申庄线申庄1号,10kV513申庄线高林村15号【纯农排变】,10kV513申庄线申庄3号【纯农排变】,10Kv513申庄线申庄15号【纯农排变】, 10Kv513申庄线申庄9号【纯农排变】, 10Kv513申庄线申庄4号,10Kv513申庄线马庄3号【纯农排变】, 10Kv513申庄线侯家窑3号【纯农排变】,10kV513申庄线马庄11号,10Kv513申庄线申庄10号【纯农排变】, 10Kv513申庄线马庄9号, 10Kv513申庄线申庄12号,10Kv513申庄线高林村13号【纯农排变】,10kV513申庄线马庄8号【纯农排变】,10Kv513申庄线翟庄10号【纯农排变】, 10Kv513申庄线申庄5号,10Kv513申庄线马庄6号【纯农排变】, 10Kv513申庄线马庄5号, 10Kv513申庄线申庄19号, 10Kv513申庄线翟庄17号【纯农排变】, 10Kv513申庄线冯庄1号, 10Kv513申庄线申庄6号【纯农排变】, 10Kv513申庄线申庄7号,10Kv513申庄线高林村14号【纯农排变】,10kV513申庄线冯庄4号【纯农排变】, 10Kv513申庄线申庄17号","poweroffReason":"【停电原因】由于计划检修导致３５ＫＶ郎五庄变电站申庄线５１３线路２１号杆分段开关以下线路停电 【变更送电】无 【发布渠道】通过河北省保定市徐水电视台游走滚动字幕播放（２０２０年０４月１９日０７:００至０４月２５日２０:００）","powerTime":"2020-04-26 08:49:42","powerComm":"已送电","subsNo":"","lineNo":"","tgNo":"","tgName":null,"infoStatus":"1","orgName":"国网徐水县供电公司","typeName":null,"infoStatusName":null,"dateDay":null,"orgNos":null,"nowTime":null,"countyName":null,"streetName":null,"villageName":null,"roadName":null,"communityName":null,"tranName":null,"sdLineName":null,"cityCode":"1340605","cityName":"国网徐水县供电公司","provinceCode":null,"stopTime":"2020-04-26 09:00:00","powerType":"全部","powerOffArea":"【分支停电】停 10Kv513申庄线冯庄3号, 10Kv513申庄线冯庄2号, 10Kv513申庄线马庄7号,10Kv513申庄线申庄20号【纯农排变】,10kV513申庄线高林村10号【纯农排变】,10Kv513申庄线申庄22号, 10Kv513申庄线马庄2号,10Kv513申庄线高林村12号【纯农排变】,10Kv513申庄线申庄2号【纯农排变】,10kV513申庄线马庄12号, 10Kv513申庄线侯家窑2号, 10Kv513申庄线申庄8号, 10Kv513申庄线翟庄13号【纯农排变】, 10Kv513申庄线马庄10号【纯农排变】,10Kv513申庄线高林村17号【纯农排变】, 10Kv513申庄线马庄4号, 10Kv513申庄线侯家窑1号,10Kv513申庄线申庄11号【纯农排变】, 10Kv513申庄线申庄21号【纯农排变】, 10Kv513申庄线申庄16号,10kV513申庄线高林村16号【纯农排变】, 10Kv513申庄线马庄1号,10Kv513申庄线翟庄9号【纯农排变】, 10Kv513申庄线申庄13号, 10Kv513申庄线翟庄18号,10Kv513申庄线申庄14号, 10Kv513申庄线申庄18号【纯农排变】, 10Kv513申庄线申庄1号,10kV513申庄线高林村15号【纯农排变】,10kV513申庄线申庄3号【纯农排变】,10Kv513申庄线申庄15号【纯农排变】, 10Kv513申庄线申庄9号【纯农排变】, 10Kv513申庄线申庄4号,10Kv513申庄线马庄3号【纯农排变】, 10Kv513申庄线侯家窑3号【纯农排变】,10kV513申庄线马庄11号,10Kv513申庄线申庄10号【纯农排变】, 10Kv513申庄线马庄9号, 10Kv513申庄线申庄12号,10Kv513申庄线高林村13号【纯农排变】,10kV513申庄线马庄8号【纯农排变】,10Kv513申庄线翟庄10号【纯农排变】, 10Kv513申庄线申庄5号,10Kv513申庄线马庄6号【纯农排变】, 10Kv513申庄线马庄5号, 10Kv513申庄线申庄19号, 10Kv513申庄线翟庄17号【纯农排变】, 10Kv513申庄线冯庄1号, 10Kv513申庄线申庄6号【纯农排变】, 10Kv513申庄线申庄7号,10Kv513申庄线高林村14号【纯农排变】,10kV513申庄线冯庄4号【纯农排变】, 10Kv513申庄线申庄17号","powerOffReason":"【停电原因】由于计划检修导致３５ＫＶ郎五庄变电站申庄线５１３线路２１号杆分段开关以下线路停电 【变更送电】无 【发布渠道】通过河北省保定市徐水电视台游走滚动字幕播放（２０２０年０４月１９日０７:００至０４月２５日２０:００）","powerOffId":"2020041613000445"}],"pageModel":{"pageNow":167,"totalCount":10973,"totalPage":1098,"tableRows":0,"pageCount":10,"beginCount":1660},"isExperi":"1"}