{"message":"","today":"2020-06-15","seleList":[{"poweroffId":2020041613000293,"sgpoweroffId":null,"subsName":"","lineName":"城南线513","pubTranName":"齐庄村内,橄榄城北变压器,橄榄城南变压器,沈庄东,齐庄村内混合3号配变,沈庄中,900026217271河北钢山房地产开发集团有限公司(名都一品B4),900026213580河北钢山房地产开发集团有限公司(名都一品B5),900025788137河北钢山房地产开发集团有限公司(名都一品B2),新上齐庄村内东,0672390658-望都县金薏祥鞋厂-专变-214326498-望都县金薏祥鞋厂,沈庄西,河北钢山房地产开发集团有限公司(名都一品B3),河北钢山房地产开发集团有限公司（名都一品B区）,沈庄新上,河北钢山房地产开发集团有限公司（名都一品A区）,沈庄新上1,","scope":"【影响街道/乡镇】望都镇　 【高危重要客户】无　　 【影响客户】沈庄村、齐庄村、橄榄城、名都一品、金薏祥鞋厂","startTime":"2020-04-16 06:29:17","stopDate":"2020-04-16 10:00:00","orgNo":"1340623","typeCode":"电网故障停限电","poweroffArea":"【全线路停电】停沈庄新上1,齐庄村内,橄榄城北变压器,橄榄城南变压器,沈庄东,齐庄村内混合3号配变,沈庄中,900026217271河北钢山房地产开发集团有限公司(名都一品B4),900026213580河北钢山房地产开发集团有限公司(名都一品B5),900025788137河北钢山房地产开发集团有限公司(名都一品B2),新上齐庄村内东,0672390658-望都县金薏祥鞋厂-专变-214326498-望都县金薏祥鞋厂,沈庄西,河北钢山房地产开发集团有限公司(名都一品B3),河北钢山房地产开发集团有限公司（名都一品B区）,沈庄新上,河北钢山房地产开发集团有限公司（名都一品A区）","poweroffReason":"【停电原因】由于金薏祥鞋厂高压计量雷击导致１１０ＫＶ西堤变电站城南线５１３线路全线停电 【变更送电】因抢修进度加快原因，送电时间由１２：００变更为１０：００ 【发布渠道】通过９５５９８发布","powerTime":"2020-04-16 09:24:40","powerComm":"已送电","subsNo":"","lineNo":"","tgNo":"","tgName":null,"infoStatus":"1","orgName":"国网望都县供电公司","typeName":null,"infoStatusName":null,"dateDay":null,"orgNos":null,"nowTime":null,"countyName":null,"streetName":null,"villageName":null,"roadName":null,"communityName":null,"tranName":null,"sdLineName":null,"cityCode":"1340623","cityName":"国网望都县供电公司","provinceCode":null,"stopTime":"2020-04-16 10:00:00","powerType":"全部","powerOffArea":"【全线路停电】停沈庄新上1,齐庄村内,橄榄城北变压器,橄榄城南变压器,沈庄东,齐庄村内混合3号配变,沈庄中,900026217271河北钢山房地产开发集团有限公司(名都一品B4),900026213580河北钢山房地产开发集团有限公司(名都一品B5),900025788137河北钢山房地产开发集团有限公司(名都一品B2),新上齐庄村内东,0672390658-望都县金薏祥鞋厂-专变-214326498-望都县金薏祥鞋厂,沈庄西,河北钢山房地产开发集团有限公司(名都一品B3),河北钢山房地产开发集团有限公司（名都一品B区）,沈庄新上,河北钢山房地产开发集团有限公司（名都一品A区）","powerOffReason":"【停电原因】由于金薏祥鞋厂高压计量雷击导致１１０ＫＶ西堤变电站城南线５１３线路全线停电 【变更送电】因抢修进度加快原因，送电时间由１２：００变更为１０：００ 【发布渠道】通过９５５９８发布","powerOffId":"2020041613000293"},{"poweroffId":2020041613000290,"sgpoweroffId":null,"subsName":"","lineName":"10kV西辛庄线556","pubTranName":"1大张庄内2,1大张庄内6,1辛庄内5,1大张庄内3,1小张庄内2,1辛庄内1,2辛庄外9,1小张庄内3,1冉庄中学1变压器,2大张庄外3【纯农排变】,1大张庄内7,3冉庄中学变压器,大张庄小学变压器2,1大张庄内8,1辛庄内4,1辛庄内3,2辛庄外8柱上变压器,大张庄小学变压器1,1辛庄内2,1大张庄外2变压器,小张庄外9柱上变压器,1大张庄内4,1小张庄内1,1大张庄内1,2大张庄外4【纯农排变】,1大张庄内5,2冉庄中学变压器,","scope":"【影响街道/乡镇】冉庄镇 【高危重要客户】无 【影响客户】大张庄、小张庄、西辛庄","startTime":"2020-04-16 06:10:45","stopDate":"2020-04-16 11:10:00","orgNo":"1340618","typeCode":"电网故障停限电","poweroffArea":"【全线路停电】停2东孙庄外14【纯农排变】,1大张庄内2,1大张庄内6,1辛庄内5,2大张庄外12【纯农排变】,1大张庄内3,2三房外4【纯农排变】,1小张庄内2,保定顺通路桥工程有限公司01,1辛庄内1,2辛庄外9,2大张庄外07【纯农排变】,清苑县兴达面粉厂,大张庄外9【纯农排变】,2封庄外6【纯农排变】,1大张庄内5,2大张庄外16【纯农排变】,2大张庄外6【纯农排变】,2大张庄外11【纯农排变】,1小张庄内3,2大张庄外4【纯农排变】,保定顺通路桥工程有限公司,大张庄安置楼01,清苑县金南纸业有限公司01,1251380清苑县金南纸业有限公司03,冉庄地展馆,2大张庄外15【纯农排变】,0671603861-大张庄安置楼-专变-213878021-大张庄安置楼,0663797457-保定市示范性综合实践基地-专变-201046819-保定市示范性综合实践基地,2冉庄中学变压器,2大张庄外10【纯农排变】,2小张庄外2【纯农排变】,1冉庄中学1变压器,河北大丰牧业有限公司,2大张庄外3【纯农排变】,保定市源渤新型建筑材料有限公司,0577569942-清苑县鑫合农副产品专业合作社-专变-124226422-清苑县鑫合农副产品专业合作社,2辛庄外6【纯农排变】,3大张庄外5【纯农排变】,2小张庄外3【纯农排变】,1大张庄内7,1251377清苑县金南纸业有限公司04,3冉庄中学变压器,1647869清苑县金南纸业有限公司03,2大张庄外8【纯农排变】,2小张庄外7【纯农排变】,清苑县金南纸业有限公司,2大张庄外14【纯农排变】,2辛庄外3【纯农排变】,2小张庄外8【纯农排变】,2小张庄外4【纯农排变】,2小张庄外5【纯农排变】,大张庄小学变压器2,清苑县金南纸业有限公司02,1大张庄内8,清苑县金南纸业有限公司05,1辛庄内4,大张庄砖厂,许占良,1辛庄内3,2辛庄外8柱上变压器,2大张庄外13【纯农排变】,大张庄小学变压器1,1辛庄内2,2三房外5【纯农排变】,2辛庄外4【纯农排变】,1大张庄外2变压器,小张庄外9柱上变压器,1大张庄内4,2辛庄外7【纯农排变】,保定市清苑区冉庄镇西辛庄小学,1小张庄内1,2辛庄外5【纯农排变】,2小张庄外1【纯农排变】,大张庄安置楼,2大张庄外17【纯农排变】,1大张庄内1,2小张庄外6【纯农排变】,1251378清苑县金南纸业有限公司04","poweroffReason":"【停电原因】由于主干４４号杆线断导致１１０ＫＶ罗侯变电站１０ＫＶ西辛庄线５５６线路全线停电 【变更送电】因抢修进度加快原因，送电时间由１２：００变更为１１：１０ 【发布渠道】通过９５５９８发布","powerTime":"2020-04-16 10:44:52","powerComm":"王素通知已送电","subsNo":"","lineNo":"","tgNo":"","tgName":null,"infoStatus":"1","orgName":"国网清苑县供电公司","typeName":null,"infoStatusName":null,"dateDay":null,"orgNos":null,"nowTime":null,"countyName":null,"streetName":null,"villageName":null,"roadName":null,"communityName":null,"tranName":null,"sdLineName":null,"cityCode":"1340618","cityName":"国网清苑县供电公司","provinceCode":null,"stopTime":"2020-04-16 11:10:00","powerType":"全部","powerOffArea":"【全线路停电】停2东孙庄外14【纯农排变】,1大张庄内2,1大张庄内6,1辛庄内5,2大张庄外12【纯农排变】,1大张庄内3,2三房外4【纯农排变】,1小张庄内2,保定顺通路桥工程有限公司01,1辛庄内1,2辛庄外9,2大张庄外07【纯农排变】,清苑县兴达面粉厂,大张庄外9【纯农排变】,2封庄外6【纯农排变】,1大张庄内5,2大张庄外16【纯农排变】,2大张庄外6【纯农排变】,2大张庄外11【纯农排变】,1小张庄内3,2大张庄外4【纯农排变】,保定顺通路桥工程有限公司,大张庄安置楼01,清苑县金南纸业有限公司01,1251380清苑县金南纸业有限公司03,冉庄地展馆,2大张庄外15【纯农排变】,0671603861-大张庄安置楼-专变-213878021-大张庄安置楼,0663797457-保定市示范性综合实践基地-专变-201046819-保定市示范性综合实践基地,2冉庄中学变压器,2大张庄外10【纯农排变】,2小张庄外2【纯农排变】,1冉庄中学1变压器,河北大丰牧业有限公司,2大张庄外3【纯农排变】,保定市源渤新型建筑材料有限公司,0577569942-清苑县鑫合农副产品专业合作社-专变-124226422-清苑县鑫合农副产品专业合作社,2辛庄外6【纯农排变】,3大张庄外5【纯农排变】,2小张庄外3【纯农排变】,1大张庄内7,1251377清苑县金南纸业有限公司04,3冉庄中学变压器,1647869清苑县金南纸业有限公司03,2大张庄外8【纯农排变】,2小张庄外7【纯农排变】,清苑县金南纸业有限公司,2大张庄外14【纯农排变】,2辛庄外3【纯农排变】,2小张庄外8【纯农排变】,2小张庄外4【纯农排变】,2小张庄外5【纯农排变】,大张庄小学变压器2,清苑县金南纸业有限公司02,1大张庄内8,清苑县金南纸业有限公司05,1辛庄内4,大张庄砖厂,许占良,1辛庄内3,2辛庄外8柱上变压器,2大张庄外13【纯农排变】,大张庄小学变压器1,1辛庄内2,2三房外5【纯农排变】,2辛庄外4【纯农排变】,1大张庄外2变压器,小张庄外9柱上变压器,1大张庄内4,2辛庄外7【纯农排变】,保定市清苑区冉庄镇西辛庄小学,1小张庄内1,2辛庄外5【纯农排变】,2小张庄外1【纯农排变】,大张庄安置楼,2大张庄外17【纯农排变】,1大张庄内1,2小张庄外6【纯农排变】,1251378清苑县金南纸业有限公司04","powerOffReason":"【停电原因】由于主干４４号杆线断导致１１０ＫＶ罗侯变电站１０ＫＶ西辛庄线５５６线路全线停电 【变更送电】因抢修进度加快原因，送电时间由１２：００变更为１１：１０ 【发布渠道】通过９５５９８发布","powerOffId":"2020041613000290"},{"poweroffId":2020041613000287,"sgpoweroffId":null,"subsName":"","lineName":"横沟541","pubTranName":"北沟二变压器,衣巾店15变压器,客户投资_南沟东变压器,衣巾店12变压器,衣巾店06变压器,衣巾店11变压器,衣巾店北地变压器【纯农排变】,衣巾店04变压器,衣巾店10变压器,衣巾店05变压器,衣巾店07变压器,衣巾店08变压器,衣巾店19变压器,衣巾店03变压器,衣巾店13变压器,大铺东北变压器,衣巾店09变压器,衣巾店16变压器,","scope":"【影响街道/乡镇】方官镇 【高危重要客户】无 【影响客户】南沟村、北沟村、薛庄村、北衣巾（部分）、大铺村、半壁店村、良家井村、衣锦店村、志远科技有限公司、高新机械工业有限公司、京泰达风机制造有限责任公司、裕禾面业有限公司、河北君利环保设备有限公司、高碑店市溢丰粮食农民专业合作社、高碑店市风机总厂、刘建民面粉厂、河北保新风机制造有限公司、亢海增、方官镇总校第一幼儿园、良各庄村、马西村、高碑店市联通铸造有限责任公司、河北硕融幕墙工程有限公司、高碑店市禾田农业机械有限公司、总通风机公司","startTime":"2020-04-16 06:12:47","stopDate":"2020-04-16 09:00:00","orgNo":"1340612","typeCode":"电网故障停限电","poweroffArea":"【全线路停电】停衣巾店19变压器,薛庄南地磁卡变压器【纯农排变】,衣巾店03变压器,大铺北台变压器,河北宝隆除尘设备有限公司,大铺地变压器【纯农排变】,南沟北变压器,河北总通通风设备制造有限公司,马西北变压器,衣巾店04变压器,大铺浇地（不纯磁卡）变压器【纯农排变】,衣巾店10变压器,薛庄北地磁卡变压器【纯农排变】,半壁店东排灌变压器,良家井地（磁卡）变压器【纯农排变】,良家井西变压器,薛庄清泉奶牛养殖场,良各庄变压器,衣巾店02变压器,衣巾店05变压器,马西浇地变压器,半壁店西变压器,衣巾店07变压器,北沟二变压器,刘建民面粉厂,亢海增变压器,良各庄北地变压器【纯农排变】,衣巾店15变压器,大铺东变压器,良各庄地（不纯磁卡）变压器【纯农排变】,客户投资_南沟东变压器,风机厂北院,衣巾店12变压器,刘建民面粉厂变压器,高碑店市联通铸造有限责任公司1,良家井北台变压器,高碑店市联通铸造有限责任公司2,衣巾店06变压器,南沟新变压器,衣巾店11变压器,衣巾店08变压器,衣巾店17变压器,保新风机厂,衣巾店01变压器,衣巾店南地变压器【纯农排变】,高碑店市联通铸造有限责任公司,北衣巾地变压器【纯农排变】,高碑店市半壁店金利源面粉厂变压器,良家井南台变压器,碑店市禾田农业机械有限公司变压器,高碑店市方官镇总校第一幼儿园变压器,南沟地变压器【纯农排变】,大铺变压器,大铺东北变压器,客户投资_良各庄西变压器,衣巾店09变压器,衣巾店中学,衣巾店16变压器,衣巾店14变压器,马西地变压器【纯农排变】,侯军,北沟变压器,高新机械1,衣巾店北地变压器【纯农排变】,河北硕融幕墙工程有限公司变压器,高碑店市方官镇衣巾店小学,南沟南变压器,衣巾店18变压器,半壁店变压器,衣巾店13变压器,北沟地变压器","poweroffReason":"【停电原因】由于薛庄北排灌变台有树枝倒在高压设备线夹上导致１１０ＫＶ方官变电站１０ＫＶ横沟５４１线路全线停电 【变更送电】因抢修进度加快原因，送电时间由１２：００变更为０９：００ 【发布渠道】通过９５５９８发布","powerTime":"2020-04-16 08:22:08","powerComm":"已送电","subsNo":"","lineNo":"","tgNo":"","tgName":null,"infoStatus":"1","orgName":"国网高碑店市供电公司","typeName":null,"infoStatusName":null,"dateDay":null,"orgNos":null,"nowTime":null,"countyName":null,"streetName":null,"villageName":null,"roadName":null,"communityName":null,"tranName":null,"sdLineName":null,"cityCode":"1340612","cityName":"国网高碑店市供电公司","provinceCode":null,"stopTime":"2020-04-16 09:00:00","powerType":"全部","powerOffArea":"【全线路停电】停衣巾店19变压器,薛庄南地磁卡变压器【纯农排变】,衣巾店03变压器,大铺北台变压器,河北宝隆除尘设备有限公司,大铺地变压器【纯农排变】,南沟北变压器,河北总通通风设备制造有限公司,马西北变压器,衣巾店04变压器,大铺浇地（不纯磁卡）变压器【纯农排变】,衣巾店10变压器,薛庄北地磁卡变压器【纯农排变】,半壁店东排灌变压器,良家井地（磁卡）变压器【纯农排变】,良家井西变压器,薛庄清泉奶牛养殖场,良各庄变压器,衣巾店02变压器,衣巾店05变压器,马西浇地变压器,半壁店西变压器,衣巾店07变压器,北沟二变压器,刘建民面粉厂,亢海增变压器,良各庄北地变压器【纯农排变】,衣巾店15变压器,大铺东变压器,良各庄地（不纯磁卡）变压器【纯农排变】,客户投资_南沟东变压器,风机厂北院,衣巾店12变压器,刘建民面粉厂变压器,高碑店市联通铸造有限责任公司1,良家井北台变压器,高碑店市联通铸造有限责任公司2,衣巾店06变压器,南沟新变压器,衣巾店11变压器,衣巾店08变压器,衣巾店17变压器,保新风机厂,衣巾店01变压器,衣巾店南地变压器【纯农排变】,高碑店市联通铸造有限责任公司,北衣巾地变压器【纯农排变】,高碑店市半壁店金利源面粉厂变压器,良家井南台变压器,碑店市禾田农业机械有限公司变压器,高碑店市方官镇总校第一幼儿园变压器,南沟地变压器【纯农排变】,大铺变压器,大铺东北变压器,客户投资_良各庄西变压器,衣巾店09变压器,衣巾店中学,衣巾店16变压器,衣巾店14变压器,马西地变压器【纯农排变】,侯军,北沟变压器,高新机械1,衣巾店北地变压器【纯农排变】,河北硕融幕墙工程有限公司变压器,高碑店市方官镇衣巾店小学,南沟南变压器,衣巾店18变压器,半壁店变压器,衣巾店13变压器,北沟地变压器","powerOffReason":"【停电原因】由于薛庄北排灌变台有树枝倒在高压设备线夹上导致１１０ＫＶ方官变电站１０ＫＶ横沟５４１线路全线停电 【变更送电】因抢修进度加快原因，送电时间由１２：００变更为０９：００ 【发布渠道】通过９５５９８发布","powerOffId":"2020041613000287"},{"poweroffId":2020041613000278,"sgpoweroffId":null,"subsName":"","lineName":"10kV瓦子里512线","pubTranName":"瓦子里综合4号,瓦子里综合20号变压器,瓦子里综合3号变压器,","scope":"【影响街道/乡镇】段村乡 【高危重要客户】无 【影响客户】瓦子里村","startTime":"2020-04-16 05:40:00","stopDate":"2020-04-16 08:00:00","orgNo":"1340606","typeCode":"电网故障停限电","poweroffArea":"【全线路停电】停瓦子里综合20号变压器,瓦子里综合3号变压器,瓦子里综合4号","poweroffReason":"【停电原因】由于站内开关掉闸导致３５ＫＶ边三庄变电站１０ＫＶ瓦子里５１２线路全线停电 【变更送电】因抢修进度加快原因，送电时间由１１：３０变更为０８；００ 【发布渠道】通过９５５９８发布","powerTime":"2020-04-16 07:53:40","powerComm":"已送电","subsNo":"","lineNo":"","tgNo":"","tgName":null,"infoStatus":"1","orgName":"国网安国市供电公司","typeName":null,"infoStatusName":null,"dateDay":null,"orgNos":null,"nowTime":null,"countyName":null,"streetName":null,"villageName":null,"roadName":null,"communityName":null,"tranName":null,"sdLineName":null,"cityCode":"1340606","cityName":"国网安国市供电公司","provinceCode":null,"stopTime":"2020-04-16 08:00:00","powerType":"全部","powerOffArea":"【全线路停电】停瓦子里综合20号变压器,瓦子里综合3号变压器,瓦子里综合4号","powerOffReason":"【停电原因】由于站内开关掉闸导致３５ＫＶ边三庄变电站１０ＫＶ瓦子里５１２线路全线停电 【变更送电】因抢修进度加快原因，送电时间由１１：３０变更为０８；００ 【发布渠道】通过９５５９８发布","powerOffId":"2020041613000278"},{"poweroffId":2020041613000272,"sgpoweroffId":null,"subsName":"","lineName":"10kV香厂线525","pubTranName":"保定味群食品科技有限公司第二分公司,保定味群食品科技股份有限公司,保定成聚模具冲压有限公司01,清苑县蓝燕房地产开发有限公司,保定美田环保设备科技有限公司02,保定成聚模具冲压有限公司,1西福村新民居3,河北泽翔纺织有限公司,0589861160-河北泽翔纺织有限公司-专变-125505228-河北泽翔纺织有限公司,0564185003-河北辰力吊索具制造有限公司-专变-118534520-保定市保利润冷却设备制造有限公司,保定宝博包装材料有限公司,保定市清苑区住房和城乡建设局,1西福村内4,0562690637-保定旭升房地产开发有限公司-专变-118500818-清苑县晟光伏科技有限公司,保定蓝天诚信工贸有限公司01,保定英特盛鬃刷制造有限公司,0549255015-保定盛翔医药有限公司-专变-48227247-保定实达特型变压器制造有限公司,0554956525-清苑县住房和城乡建设局-专变-81637725-三开区北路灯,保定蓝天诚信工贸有限公司,0649077092-保定冀中生物科技有限公司-专变-174188262-保定冀中生物科技有限公司,河北海明生态科技有限公司,0387508016-保定市冀威变压器有限公司-专变-45326004-保定市冀威变压器有限公司,0631259886-国信沃德河北电梯有限公司-专变-144630020-保定国信沃德电梯有限公司,0648980519-河北冀昌电气设备有限公司-专变-174322898-河北冀昌电气设备有限公司,清苑县宝钻机械厂,东城佳苑公用,保定味群食品科技股份有限公司第二分公司,东成佳苑,1西福村内2,保定鑫日电线电缆有限公司,清苑县中信房地产开发有限公司,国税局,清苑县华泽纺织有限公司,清苑县众友酒业经销部,河北华建房地产开发有限公司,保定市保利润冷确设备制造有限公司,保定德润达印刷有限公司,清苑县城南煤厂,保定市固特汽车零部件有限公司,保定永晔变压器材料有限公司,0634624388-东成佳苑二期-专变-147977515-东成佳苑二期,东方花园,东城佳苑二期,0650276015-河北泽翔纺织有限公司-专变-174527556-河北泽翔纺织有限公司,0387507446-保定东城天阳变压器有限公司-专变-45326097-保定东城天阳变压器有限公司,1西福村内7,保定顺易兴纸制品加工有限公司01,0387507013-保定蓝天诚信工贸有限公司-专变-45326009-保定亚瑞特轴承制造有限公司,西福村内10,保定市冀农动物药业有限公司,0387507130-保定永晔变压器材料有限公司-专变-45326007-保定永晔变压器材料有限公司,0387507299-河北天象生物药业有限公司-专变-45326006-河北天象生物药业有限公司,保定市清苑区金孔雀歌厅,保定鸿通线路器材有限公司,清苑县排水管理所,保定鸿祥汽车内饰件制造有限公司,保定市万邦起重设备科技有限公司,0387507198-郑志芬-专变-45326096-郑志芬,国税局公用,河北古城香业集团股份有限公司,1西福村内1,0626298560-保定蓝天诚信工贸有限公司-专变-138792141-","scope":"【影响街道/乡镇】清苑镇 【高危重要客户】无 【影响客户】西福村、河北古城香业、味群、第三工业园区、阳光新城、国税局、老邮政楼、东方花园、西福村新民居","startTime":"2020-04-16 05:40:45","stopDate":"2020-04-16 09:00:00","orgNo":"1340618","typeCode":"电网故障停限电","poweroffArea":"【全线路停电】停保定味群食品科技有限公司第二分公司,保定味群食品科技股份有限公司,保定成聚模具冲压有限公司01,清苑县蓝燕房地产开发有限公司,保定美田环保设备科技有限公司02,保定成聚模具冲压有限公司,1西福村新民居3,河北泽翔纺织有限公司,0589861160-河北泽翔纺织有限公司-专变-125505228-河北泽翔纺织有限公司,0564185003-河北辰力吊索具制造有限公司-专变-118534520-保定市保利润冷却设备制造有限公司,保定宝博包装材料有限公司,保定市清苑区住房和城乡建设局,1西福村内4,0562690637-保定旭升房地产开发有限公司-专变-118500818-清苑县晟光伏科技有限公司,保定蓝天诚信工贸有限公司01,保定英特盛鬃刷制造有限公司,0549255015-保定盛翔医药有限公司-专变-48227247-保定实达特型变压器制造有限公司,0554956525-清苑县住房和城乡建设局-专变-81637725-三开区北路灯,保定蓝天诚信工贸有限公司,0649077092-保定冀中生物科技有限公司-专变-174188262-保定冀中生物科技有限公司,河北海明生态科技有限公司,0387508016-保定市冀威变压器有限公司-专变-45326004-保定市冀威变压器有限公司,0631259886-国信沃德河北电梯有限公司-专变-144630020-保定国信沃德电梯有限公司,0648980519-河北冀昌电气设备有限公司-专变-174322898-河北冀昌电气设备有限公司,清苑县宝钻机械厂,东城佳苑公用,保定味群食品科技股份有限公司第二分公司,东成佳苑,1西福村内2,保定鑫日电线电缆有限公司,清苑县中信房地产开发有限公司,国税局,清苑县华泽纺织有限公司,清苑县众友酒业经销部,河北华建房地产开发有限公司,保定市保利润冷确设备制造有限公司,保定德润达印刷有限公司,清苑县城南煤厂,保定市固特汽车零部件有限公司,保定永晔变压器材料有限公司,0634624388-东成佳苑二期-专变-147977515-东成佳苑二期,东方花园,东城佳苑二期,0650276015-河北泽翔纺织有限公司-专变-174527556-河北泽翔纺织有限公司,0387507446-保定东城天阳变压器有限公司-专变-45326097-保定东城天阳变压器有限公司,1西福村内7,保定顺易兴纸制品加工有限公司01,0387507013-保定蓝天诚信工贸有限公司-专变-45326009-保定亚瑞特轴承制造有限公司,西福村内10,保定市冀农动物药业有限公司,0387507130-保定永晔变压器材料有限公司-专变-45326007-保定永晔变压器材料有限公司,0387507299-河北天象生物药业有限公司-专变-45326006-河北天象生物药业有限公司,保定市清苑区金孔雀歌厅,保定鸿通线路器材有限公司,清苑县排水管理所,保定鸿祥汽车内饰件制造有限公司,保定市万邦起重设备科技有限公司,0387507198-郑志芬-专变-45326096-郑志芬,国税局公用,河北古城香业集团股份有限公司,1西福村内1,0626298560-保定蓝天诚信工贸有限公司-专变-138792141-保定蓝天诚信工贸有限公司,清苑县安泰房地产开发有限公司,东方紫园01,0514449122-保定美田环保设备科技有限公司-专变-47041632-佳蕾电磁线有限公司,紫园尚品,东方花园公用,0626298560-保定蓝天诚信工贸有限公司-专变-138792136-保定蓝天诚信工贸有限公司1,0565023706-保定蓝海实业有限公司-专变-118849944-保定蓝海实业有限公司,邮政公用,1西福村内5,保定市德顺地毯制造有限公司,0625957505-清苑县富瑞康天然气有限公司-专变-136256728-清苑县富瑞康天然气有限公司,0631645797-保定成聚模具冲压有限公司-专变-144715667-保定成聚模具冲压有限公司,保定美田环保设备科技有限公司,清苑县蓝燕房地产开发有限公司01,保定顺易兴纸制品加工有限公司,保定棉金汽车饰件制造有限公司,阳光新城公用1,东方紫园,","poweroffReason":"【停电原因】由于雷击断线导致１１０ＫＶ中冉变电站１０ＫＶ香厂线５２５线路全线停电 【变更送电】无 【发布渠道】通过９５５９８发布","powerTime":"2020-04-16 08:10:15","powerComm":"杨红梅通知已送电","subsNo":"","lineNo":"","tgNo":"","tgName":null,"infoStatus":"1","orgName":"国网清苑县供电公司","typeName":null,"infoStatusName":null,"dateDay":null,"orgNos":null,"nowTime":null,"countyName":null,"streetName":null,"villageName":null,"roadName":null,"communityName":null,"tranName":null,"sdLineName":null,"cityCode":"1340618","cityName":"国网清苑县供电公司","provinceCode":null,"stopTime":"2020-04-16 09:00:00","powerType":"全部","powerOffArea":"【全线路停电】停保定味群食品科技有限公司第二分公司,保定味群食品科技股份有限公司,保定成聚模具冲压有限公司01,清苑县蓝燕房地产开发有限公司,保定美田环保设备科技有限公司02,保定成聚模具冲压有限公司,1西福村新民居3,河北泽翔纺织有限公司,0589861160-河北泽翔纺织有限公司-专变-125505228-河北泽翔纺织有限公司,0564185003-河北辰力吊索具制造有限公司-专变-118534520-保定市保利润冷却设备制造有限公司,保定宝博包装材料有限公司,保定市清苑区住房和城乡建设局,1西福村内4,0562690637-保定旭升房地产开发有限公司-专变-118500818-清苑县晟光伏科技有限公司,保定蓝天诚信工贸有限公司01,保定英特盛鬃刷制造有限公司,0549255015-保定盛翔医药有限公司-专变-48227247-保定实达特型变压器制造有限公司,0554956525-清苑县住房和城乡建设局-专变-81637725-三开区北路灯,保定蓝天诚信工贸有限公司,0649077092-保定冀中生物科技有限公司-专变-174188262-保定冀中生物科技有限公司,河北海明生态科技有限公司,0387508016-保定市冀威变压器有限公司-专变-45326004-保定市冀威变压器有限公司,0631259886-国信沃德河北电梯有限公司-专变-144630020-保定国信沃德电梯有限公司,0648980519-河北冀昌电气设备有限公司-专变-174322898-河北冀昌电气设备有限公司,清苑县宝钻机械厂,东城佳苑公用,保定味群食品科技股份有限公司第二分公司,东成佳苑,1西福村内2,保定鑫日电线电缆有限公司,清苑县中信房地产开发有限公司,国税局,清苑县华泽纺织有限公司,清苑县众友酒业经销部,河北华建房地产开发有限公司,保定市保利润冷确设备制造有限公司,保定德润达印刷有限公司,清苑县城南煤厂,保定市固特汽车零部件有限公司,保定永晔变压器材料有限公司,0634624388-东成佳苑二期-专变-147977515-东成佳苑二期,东方花园,东城佳苑二期,0650276015-河北泽翔纺织有限公司-专变-174527556-河北泽翔纺织有限公司,0387507446-保定东城天阳变压器有限公司-专变-45326097-保定东城天阳变压器有限公司,1西福村内7,保定顺易兴纸制品加工有限公司01,0387507013-保定蓝天诚信工贸有限公司-专变-45326009-保定亚瑞特轴承制造有限公司,西福村内10,保定市冀农动物药业有限公司,0387507130-保定永晔变压器材料有限公司-专变-45326007-保定永晔变压器材料有限公司,0387507299-河北天象生物药业有限公司-专变-45326006-河北天象生物药业有限公司,保定市清苑区金孔雀歌厅,保定鸿通线路器材有限公司,清苑县排水管理所,保定鸿祥汽车内饰件制造有限公司,保定市万邦起重设备科技有限公司,0387507198-郑志芬-专变-45326096-郑志芬,国税局公用,河北古城香业集团股份有限公司,1西福村内1,0626298560-保定蓝天诚信工贸有限公司-专变-138792141-保定蓝天诚信工贸有限公司,清苑县安泰房地产开发有限公司,东方紫园01,0514449122-保定美田环保设备科技有限公司-专变-47041632-佳蕾电磁线有限公司,紫园尚品,东方花园公用,0626298560-保定蓝天诚信工贸有限公司-专变-138792136-保定蓝天诚信工贸有限公司1,0565023706-保定蓝海实业有限公司-专变-118849944-保定蓝海实业有限公司,邮政公用,1西福村内5,保定市德顺地毯制造有限公司,0625957505-清苑县富瑞康天然气有限公司-专变-136256728-清苑县富瑞康天然气有限公司,0631645797-保定成聚模具冲压有限公司-专变-144715667-保定成聚模具冲压有限公司,保定美田环保设备科技有限公司,清苑县蓝燕房地产开发有限公司01,保定顺易兴纸制品加工有限公司,保定棉金汽车饰件制造有限公司,阳光新城公用1,东方紫园,","powerOffReason":"【停电原因】由于雷击断线导致１１０ＫＶ中冉变电站１０ＫＶ香厂线５２５线路全线停电 【变更送电】无 【发布渠道】通过９５５９８发布","powerOffId":"2020041613000272"},{"poweroffId":2020041613000261,"sgpoweroffId":null,"subsName":"","lineName":"庞口线514","pubTranName":"西庞口西北新增综合变压器,03060|西庞口村东综合,西庞口村里新增综合变压器,南庞口村东综合,03061|西庞口村西综合,南庞口东南2新增综合变压器,03067|新南庞口村东南综合,西庞口村东新增综合变压器,03068|南庞口村西南综合,03062|西庞口村南综合,南庞口村西综合,西庞口村东南变压器,西庞口村西新增综合远,03066|南庞口村里综合,","scope":"【影响街道/乡镇】庞口镇 【高危重要客户】无 【影响客户】南庞口、西庞口、庞口市场","startTime":"2020-04-16 05:07:20","stopDate":"2020-04-16 10:00:00","orgNo":"1340613","typeCode":"电网故障停限电","poweroffArea":"【全线路停电】停高阳集英学校变压器,高阳县顺成农业机械配件制造有限公司变压器,李占江 2,高阳县庞口镇北庞口村村民委员会变压器,庞口索建国,张金山,高阳县三鑫农用车配件厂变压器,03062|西庞口村南综合,杨国强,上海桑沙机械进出口有限公司变压器,市管会,高阳县东梅农机配件厂变压器,03071|西庞口农业南【纯农排变】,南庞口村西综合,西庞口轴瓦厂,南庞口李贝变压器,叶志桂,索连伟,张森林,高阳县庞口镇北庞口村变压器,高阳县松杰汽车电器销售处变压器,庞口市管会(200),候建康,中国联通高阳县分公司,西庞口铸件厂,徐二迷减振器厂,西庞口弓子板厂,物资站,西庞口西北新增综合变压器,03060|西庞口村东综合,南庞口复合肥厂,庞口市场,市管会新增,张国欣,停车场(二),03070|西庞口农业中【纯农排变】,南庞口西南,保定江辉减震器有限公司变压器,03069|西庞口农业北【纯农排变】,李义,成艳军面粉厂,南庞口东南2新增综合变压器,侯喜震,西庞口村北新增,03066|南庞口村里综合,高阳县强力配件厂变压器,程树杰,高阳县双马减震器制造有限公司变压器,中国移动通信集团河北有限公司高阳分公司,庞口市场管理委员会,张保生农机厂,西庞口市场(车场),高阳县恩发物业管理有限公司变压器,西庞口集英学校2,西庞口菜园,李志红,西庞口大队学校小区,庞口市管会,03061|西庞口村西综合,西庞口村东南变压器,西庞口轴瓦厂变压器,高阳县泰宏内燃机配件厂变压器,江辉减震器厂,西庞口拔丝厂,南庞口制件厂,李占江,西庞口村西新增综合远,镇政府,西庞口村西,南庞口村东,高阳县庞口汽车农机配件城管理委员会变压器,李臣煤厂,李申,保定光达物业管理公司,保定江辉减振器有限公司变压器,高阳县庞口镇人民政府三号变压器,西庞口村里新增综合变压器,高阳县强盛仓储服务部变压器,张颜民轮胎厂,庞口津阳电机厂,高阳县地税局庞口分局,兴江机械有限公司,西庞口电镀厂,西庞口村东新增综合变压器,腾飞机件厂,李亚辉,庞口工商所,贺二强,恒光农机配件厂,高阳县农村信用联社股份有限公司变压器,王朝辉减震器厂,03068|南庞口村西南综合,高阳县角带招待所变压器,成艳轮面粉厂,高阳县昊昇三农实业有限公司变压器,西庞口李马,中国农业银行股份有限公司保定分行变压器,李顺北厂(子),东留果庄果园,03067|新南庞口村东南综合,南庞口村东综合,闫喜泉,高阳县鹏翔养殖场,李运昌农机厂,北庞口公路西,五洲宾馆,东风空气滤清器厂,亚辉厂","poweroffReason":"【停电原因】由于风刮异物导致３５ＫＶ庞口变电站庞口５１４线路全线停电【变更送电】无【发布渠道】通过９５５９８发布","powerTime":"2020-04-16 09:52:22","powerComm":"已送电","subsNo":"","lineNo":"","tgNo":"","tgName":null,"infoStatus":"1","orgName":"国网高阳县供电公司","typeName":null,"infoStatusName":null,"dateDay":null,"orgNos":null,"nowTime":null,"countyName":null,"streetName":null,"villageName":null,"roadName":null,"communityName":null,"tranName":null,"sdLineName":null,"cityCode":"1340613","cityName":"国网高阳县供电公司","provinceCode":null,"stopTime":"2020-04-16 10:00:00","powerType":"全部","powerOffArea":"【全线路停电】停高阳集英学校变压器,高阳县顺成农业机械配件制造有限公司变压器,李占江 2,高阳县庞口镇北庞口村村民委员会变压器,庞口索建国,张金山,高阳县三鑫农用车配件厂变压器,03062|西庞口村南综合,杨国强,上海桑沙机械进出口有限公司变压器,市管会,高阳县东梅农机配件厂变压器,03071|西庞口农业南【纯农排变】,南庞口村西综合,西庞口轴瓦厂,南庞口李贝变压器,叶志桂,索连伟,张森林,高阳县庞口镇北庞口村变压器,高阳县松杰汽车电器销售处变压器,庞口市管会(200),候建康,中国联通高阳县分公司,西庞口铸件厂,徐二迷减振器厂,西庞口弓子板厂,物资站,西庞口西北新增综合变压器,03060|西庞口村东综合,南庞口复合肥厂,庞口市场,市管会新增,张国欣,停车场(二),03070|西庞口农业中【纯农排变】,南庞口西南,保定江辉减震器有限公司变压器,03069|西庞口农业北【纯农排变】,李义,成艳军面粉厂,南庞口东南2新增综合变压器,侯喜震,西庞口村北新增,03066|南庞口村里综合,高阳县强力配件厂变压器,程树杰,高阳县双马减震器制造有限公司变压器,中国移动通信集团河北有限公司高阳分公司,庞口市场管理委员会,张保生农机厂,西庞口市场(车场),高阳县恩发物业管理有限公司变压器,西庞口集英学校2,西庞口菜园,李志红,西庞口大队学校小区,庞口市管会,03061|西庞口村西综合,西庞口村东南变压器,西庞口轴瓦厂变压器,高阳县泰宏内燃机配件厂变压器,江辉减震器厂,西庞口拔丝厂,南庞口制件厂,李占江,西庞口村西新增综合远,镇政府,西庞口村西,南庞口村东,高阳县庞口汽车农机配件城管理委员会变压器,李臣煤厂,李申,保定光达物业管理公司,保定江辉减振器有限公司变压器,高阳县庞口镇人民政府三号变压器,西庞口村里新增综合变压器,高阳县强盛仓储服务部变压器,张颜民轮胎厂,庞口津阳电机厂,高阳县地税局庞口分局,兴江机械有限公司,西庞口电镀厂,西庞口村东新增综合变压器,腾飞机件厂,李亚辉,庞口工商所,贺二强,恒光农机配件厂,高阳县农村信用联社股份有限公司变压器,王朝辉减震器厂,03068|南庞口村西南综合,高阳县角带招待所变压器,成艳轮面粉厂,高阳县昊昇三农实业有限公司变压器,西庞口李马,中国农业银行股份有限公司保定分行变压器,李顺北厂(子),东留果庄果园,03067|新南庞口村东南综合,南庞口村东综合,闫喜泉,高阳县鹏翔养殖场,李运昌农机厂,北庞口公路西,五洲宾馆,东风空气滤清器厂,亚辉厂","powerOffReason":"【停电原因】由于风刮异物导致３５ＫＶ庞口变电站庞口５１４线路全线停电【变更送电】无【发布渠道】通过９５５９８发布","powerOffId":"2020041613000261"},{"poweroffId":2020041613000247,"sgpoweroffId":null,"subsName":"","lineName":"大马坊线556","pubTranName":"马坊新增,","scope":"【影响街道/乡镇】贤台乡 【高危重要客户】无 【影响客户】大马坊（房）村","startTime":"2020-04-16 04:35:55","stopDate":"2020-04-16 10:30:00","orgNo":"1340617","typeCode":"电网故障停限电","poweroffArea":"【单台区停电】停马坊新增","poweroffReason":"【停电原因】由于低压线路烧断导致１１０ＫＶ东尹庄变电站大马坊线５５６线路马坊新增公变台区停电 【变更送电】因抢修进度加快原因，送电时间由１５：００变更为１０：３０ 【发布渠道】９５５９８","powerTime":"2020-04-16 09:59:58","powerComm":"已送电","subsNo":"","lineNo":"","tgNo":"","tgName":null,"infoStatus":"1","orgName":"国网满城县供电公司","typeName":null,"infoStatusName":null,"dateDay":null,"orgNos":null,"nowTime":null,"countyName":null,"streetName":null,"villageName":null,"roadName":null,"communityName":null,"tranName":null,"sdLineName":null,"cityCode":"1340617","cityName":"国网满城县供电公司","provinceCode":null,"stopTime":"2020-04-16 10:30:00","powerType":"全部","powerOffArea":"【单台区停电】停马坊新增","powerOffReason":"【停电原因】由于低压线路烧断导致１１０ＫＶ东尹庄变电站大马坊线５５６线路马坊新增公变台区停电 【变更送电】因抢修进度加快原因，送电时间由１５：００变更为１０：３０ 【发布渠道】９５５９８","powerOffId":"2020041613000247"},{"poweroffId":2020041613000215,"sgpoweroffId":null,"subsName":"","lineName":"望市线522","pubTranName":"建行家属院,北陈庄开发区,生活小区南配变,生活小区1变压器,生活小区3,河北盛港房地产开发有限公司望都分公司,河北盛港房地产开发有限公司望都分公司01,玛德房地产1,0672384936-河北尚科房地产开发有限公司-专变-214319494-河北尚科房地产开发有限公司,0673764908-保定玛德物业服务有限公司-专变-215895275-保定玛德房地产开发有限公司,保定玛德房地产开发有限公司3,0682498124-保定玛德物业服务有限公司-专变-221245373-保定玛德房地产开发有限公司,望都绿色化工商贸发展有限公司01,0682504230-保定玛德物业服务有限公司-专变-221249154-保定玛德房地产开发有限公司,望都绿色化工商贸发展有限公司,900028376845保定玛德房地产开发有限公司,生活小区2跌落开关,祥和苑箱变配电变压器,南关新上,南关村内东,南关新民居2号,新城1号箱变间隔配电变压器,北陈庄开发区2号变压器,新城1号配变2配电变压器,南关村内,辛街新民居2号配变,辛街,辛街新居,南关村南2号混合,南关新民居,900028371306保定玛德房地产开发有限公司,0682497567-保定玛德物业服务有限公司-专变-221249139-保定玛德房地产开发有限公司,","scope":"【影响街道/乡镇】望都镇　　 【高危重要客户】无　　 【影响客户】南关村、第一生活小区、建行家属院、北陈庄开发区、辛街村、绿色化工商贸发展有限公司（尧韵饭店）、祥和苑、玛德房地产、政府事物管理中心(县政府）、盛港国际","startTime":"2020-04-16 03:35:39","stopDate":"2020-04-16 06:00:00","orgNo":"1340623","typeCode":"电网故障停限电","poweroffArea":"【全线路停电】停建行家属院,北陈庄开发区,生活小区南配变,生活小区1变压器,生活小区3,生活小区2跌落开关,祥和苑箱变配电变压器,南关新上,南关村内东,南关新民居2号,新城1号箱变间隔配电变压器,北陈庄开发区2号变压器,新城1号配变2配电变压器,南关村内,辛街新民居2号配变,辛街,辛街新居,南关村南2号混合,南关新民居,900028371306保定玛德房地产开发有限公司,0682497567-保定玛德物业服务有限公司-专变-221249139-保定玛德房地产开发有限公司,河北盛港房地产开发有限公司望都分公司,河北盛港房地产开发有限公司望都分公司01,玛德房地产1,0672384936-河北尚科房地产开发有限公司-专变-214319494-河北尚科房地产开发有限公司,0673764908-保定玛德物业服务有限公司-专变-215895275-保定玛德房地产开发有限公司,保定玛德房地产开发有限公司3,0682498124-保定玛德物业服务有限公司-专变-221245373-保定玛德房地产开发有限公司,望都绿色化工商贸发展有限公司01,0682504230-保定玛德物业服务有限公司-专变-221249154-保定玛德房地产开发有限公司,望都绿色化工商贸发展有限公司,900028376845保定玛德房地产开发有限公司","poweroffReason":"【停电原因】由于站内开关跳闸导致１１０ＫＶ望都变电站望市线５２２线路全线停电 【变更送电】因抢修进度加快原因，送电时间由１２：００变更为０６：００ 【发布渠道】通过９５５９８发布","powerTime":"2020-04-16 05:41:57","powerComm":"已送电","subsNo":"","lineNo":"","tgNo":"","tgName":null,"infoStatus":"1","orgName":"国网望都县供电公司","typeName":null,"infoStatusName":null,"dateDay":null,"orgNos":null,"nowTime":null,"countyName":null,"streetName":null,"villageName":null,"roadName":null,"communityName":null,"tranName":null,"sdLineName":null,"cityCode":"1340623","cityName":"国网望都县供电公司","provinceCode":null,"stopTime":"2020-04-16 06:00:00","powerType":"全部","powerOffArea":"【全线路停电】停建行家属院,北陈庄开发区,生活小区南配变,生活小区1变压器,生活小区3,生活小区2跌落开关,祥和苑箱变配电变压器,南关新上,南关村内东,南关新民居2号,新城1号箱变间隔配电变压器,北陈庄开发区2号变压器,新城1号配变2配电变压器,南关村内,辛街新民居2号配变,辛街,辛街新居,南关村南2号混合,南关新民居,900028371306保定玛德房地产开发有限公司,0682497567-保定玛德物业服务有限公司-专变-221249139-保定玛德房地产开发有限公司,河北盛港房地产开发有限公司望都分公司,河北盛港房地产开发有限公司望都分公司01,玛德房地产1,0672384936-河北尚科房地产开发有限公司-专变-214319494-河北尚科房地产开发有限公司,0673764908-保定玛德物业服务有限公司-专变-215895275-保定玛德房地产开发有限公司,保定玛德房地产开发有限公司3,0682498124-保定玛德物业服务有限公司-专变-221245373-保定玛德房地产开发有限公司,望都绿色化工商贸发展有限公司01,0682504230-保定玛德物业服务有限公司-专变-221249154-保定玛德房地产开发有限公司,望都绿色化工商贸发展有限公司,900028376845保定玛德房地产开发有限公司","powerOffReason":"【停电原因】由于站内开关跳闸导致１１０ＫＶ望都变电站望市线５２２线路全线停电 【变更送电】因抢修进度加快原因，送电时间由１２：００变更为０６：００ 【发布渠道】通过９５５９８发布","powerOffId":"2020041613000215"},{"poweroffId":2020041613000194,"sgpoweroffId":null,"subsName":"","lineName":"10kV515齐营线","pubTranName":"刘佃庄综合六台区,刘佃庄综合10台区,齐营农排4台区【纯农排变】,正南庄农排4台区【纯农排变】,南口农排4台区【纯农排变】,刘佃庄综合8台区,西南庄综合3台区,齐营综合9台区,正南庄综合4台区,齐营综合11台区,刘佃庄综合5台区,齐营农排3台区【纯农排变】,刘佃庄农排6台区【纯农排变】,正南庄综合8台区,正南庄农排2台区【纯农排变】,正南庄综合1台区,正南庄综合5台区,东口综合20台区,齐营综合3台区,东口农排4台区【纯农排变】,齐营综合2台区,齐营综合5台区,刘佃庄综合2台区,正南庄综合3台区,齐营农排11台区【纯农排变】,齐营综合10台区,正南庄农排3台区【纯农排变】,西南庄农排1台区【纯农排变】,刘佃庄综合1台区,西南庄农排4台区【纯农排变】,正南庄综合9台区,刘佃庄综合7台区,齐营综合8台区,正南庄综合7台区,齐营综合12台区,齐营农排10台区【纯农排变】,刘佃庄农排3台区【纯农排变】,齐营综合6台区,正南庄综合6台区,西南庄综合7台区,齐营综合1台区,齐营综合7台区,刘佃庄综合9台区,刘佃庄综合4台区,刘佃庄农排8台区【纯农排变】,","scope":"【影响街道/乡镇】鲍墟乡【高危重要客户】无【影响客户】齐营村、东口村、刘佃庄村、西南庄村、正南庄村、南口村、西口村","startTime":"2020-04-16 02:43:26","stopDate":"2020-04-16 09:00:00","orgNo":"1340616","typeCode":"电网故障停限电","poweroffArea":"【全线路停电】停正南庄农排1台区【纯农排变】,齐营农排6台区【纯农排变】,刘佃庄综合六台区,正南庄农排4台区【纯农排变】,东口农排5台区【纯农排变】,刘佃庄综合4台区,东口农排8台区【纯农排变】,齐营综合12台区,刘佃庄综合5台区,正南庄农排2台区【纯农排变】,齐营综合9台区,刘佃庄农排4台区【纯农排变】,齐营综合1台区,正南庄综合2台区,刘佃庄农排1台区【纯农排变】,冷冻厂,刘佃庄农排6台区【纯农排变】,刘佃庄农排10台区【纯农排变】,紫玉养殖厂,齐营农排5台区【纯农排变】,齐营综合7台区,齐营综合10台区,齐营综合11台区,西南庄综合3台区,东口综合20台区,齐营综合8台区,西南庄农排1台区【纯农排变】,齐营农排4台区【纯农排变】,正南庄综合9台区,中口农排2台区【纯农排变】,齐营农排3台区【纯农排变】,正南庄农排3台区【纯农排变】,蠡县东口利兆特种养殖厂变压器,刘佃庄农排5台区【纯农排变】,蠡县东口绿丹蓝养殖场变压器,东口农排4台区【纯农排变】,正南庄综合6台区,齐营农排1台区【纯农排变】,正南庄综合1台区,正南庄综合4台区,东口农排10台区【纯农排变】,正南庄综合7台区,正南庄综合8台区,西南庄农排2台区【纯农排变】,正南庄综合5台区,齐营农排10台区【纯农排变】,齐营综合5台区,中国移动通信集团河北有限公司蠡县分公司刘佃庄村变压器,齐营农排2台区【纯农排变】,齐营农排11台区【纯农排变】,东口农排6台区【纯农排变】,刘佃庄综合9台区,东口农排9台区【纯农排变】,齐营农排12台区【纯农排变】,刘佃庄综合1台区,刘佃庄农排3台区【纯农排变】,东口农排7台区【纯农排变】,刘佃庄农排9台区【纯农排变】,刘佃庄农排2台区【纯农排变】,东口地,齐营农排13台区【纯农排变】,蠡县东口第二饲养厂变压器,西南庄农排4台区【纯农排变】,刘佃庄综合8台区,刘佃庄农排8台区【纯农排变】,南口农排4台区【纯农排变】,齐营综合4台区,刘佃庄综合2台区,中口农排3台区【纯农排变】,齐营综合6台区,刘佃庄农排7台区【纯农排变】,刘佃庄综合7台区,正南庄综合3台区,刘佃庄综合10台区,蠡县东口第一养殖厂变压器,南口农排5台区【纯农排变】,南口农排2台区【纯农排变】,齐营农排8台区【纯农排变】,西南庄农排3台区【纯农排变】,齐营农排9台区【纯农排变】,齐营综合2台区,齐营农排7台区【纯农排变】,中国石油天然气股份有限公司华北油田分公司,西南庄综合7台区,齐营综合3台区,东口农排2台区【纯农排变】,南口农排3台区【纯农排变】,东口农排3台区【纯农排变】","poweroffReason":"【停电原因】由于站内开关掉闸导致３５ＫＶ鲍墟变电站１０ＫＶ齐营５１５线路全线停电【变更送电】因抢修进度加快原因，送电时间由１５：００变更为０９：００【发布渠道】通过９５５９８发布","powerTime":"2020-04-16 08:29:45","powerComm":"已送电","subsNo":"","lineNo":"","tgNo":"","tgName":null,"infoStatus":"1","orgName":"国网蠡县供电公司","typeName":null,"infoStatusName":null,"dateDay":null,"orgNos":null,"nowTime":null,"countyName":null,"streetName":null,"villageName":null,"roadName":null,"communityName":null,"tranName":null,"sdLineName":null,"cityCode":"1340616","cityName":"国网蠡县供电公司","provinceCode":null,"stopTime":"2020-04-16 09:00:00","powerType":"全部","powerOffArea":"【全线路停电】停正南庄农排1台区【纯农排变】,齐营农排6台区【纯农排变】,刘佃庄综合六台区,正南庄农排4台区【纯农排变】,东口农排5台区【纯农排变】,刘佃庄综合4台区,东口农排8台区【纯农排变】,齐营综合12台区,刘佃庄综合5台区,正南庄农排2台区【纯农排变】,齐营综合9台区,刘佃庄农排4台区【纯农排变】,齐营综合1台区,正南庄综合2台区,刘佃庄农排1台区【纯农排变】,冷冻厂,刘佃庄农排6台区【纯农排变】,刘佃庄农排10台区【纯农排变】,紫玉养殖厂,齐营农排5台区【纯农排变】,齐营综合7台区,齐营综合10台区,齐营综合11台区,西南庄综合3台区,东口综合20台区,齐营综合8台区,西南庄农排1台区【纯农排变】,齐营农排4台区【纯农排变】,正南庄综合9台区,中口农排2台区【纯农排变】,齐营农排3台区【纯农排变】,正南庄农排3台区【纯农排变】,蠡县东口利兆特种养殖厂变压器,刘佃庄农排5台区【纯农排变】,蠡县东口绿丹蓝养殖场变压器,东口农排4台区【纯农排变】,正南庄综合6台区,齐营农排1台区【纯农排变】,正南庄综合1台区,正南庄综合4台区,东口农排10台区【纯农排变】,正南庄综合7台区,正南庄综合8台区,西南庄农排2台区【纯农排变】,正南庄综合5台区,齐营农排10台区【纯农排变】,齐营综合5台区,中国移动通信集团河北有限公司蠡县分公司刘佃庄村变压器,齐营农排2台区【纯农排变】,齐营农排11台区【纯农排变】,东口农排6台区【纯农排变】,刘佃庄综合9台区,东口农排9台区【纯农排变】,齐营农排12台区【纯农排变】,刘佃庄综合1台区,刘佃庄农排3台区【纯农排变】,东口农排7台区【纯农排变】,刘佃庄农排9台区【纯农排变】,刘佃庄农排2台区【纯农排变】,东口地,齐营农排13台区【纯农排变】,蠡县东口第二饲养厂变压器,西南庄农排4台区【纯农排变】,刘佃庄综合8台区,刘佃庄农排8台区【纯农排变】,南口农排4台区【纯农排变】,齐营综合4台区,刘佃庄综合2台区,中口农排3台区【纯农排变】,齐营综合6台区,刘佃庄农排7台区【纯农排变】,刘佃庄综合7台区,正南庄综合3台区,刘佃庄综合10台区,蠡县东口第一养殖厂变压器,南口农排5台区【纯农排变】,南口农排2台区【纯农排变】,齐营农排8台区【纯农排变】,西南庄农排3台区【纯农排变】,齐营农排9台区【纯农排变】,齐营综合2台区,齐营农排7台区【纯农排变】,中国石油天然气股份有限公司华北油田分公司,西南庄综合7台区,齐营综合3台区,东口农排2台区【纯农排变】,南口农排3台区【纯农排变】,东口农排3台区【纯农排变】","powerOffReason":"【停电原因】由于站内开关掉闸导致３５ＫＶ鲍墟变电站１０ＫＶ齐营５１５线路全线停电【变更送电】因抢修进度加快原因，送电时间由１５：００变更为０９：００【发布渠道】通过９５５９８发布","powerOffId":"2020041613000194"},{"poweroffId":2020041613000187,"sgpoweroffId":null,"subsName":"","lineName":"10kV南段庄线512","pubTranName":"蠡县华泽针棉织厂,蠡县宋庄金鑫纺织厂,蔡营季兴纺纱厂,清苑县南和庄泰林车床加工门市部,清苑县蔡营国强棉纺织厂,宋庄砖厂,和庄外9【纯农排变】,大柳树外7【纯农排变】,2大兴庄外3【纯农排变】,1南和庄内7,南和庄外17【纯农排变】,南和庄内1,和庄外3【纯农排变】,保定市清苑区辉煌纺织厂01,大柳树外13【纯农排变】,大柳树外12【纯农排变】,大树村外8【纯农排变】,大树外4【纯农排变】,大柳树2号,保定市清苑区辉煌纺织厂,大柳树兴华织布厂,南和庄外1【纯农排变】,1南和庄内8,大柳树外9【纯农排变】,1大兴庄内1,清苑县锦绣纺织有限公司,1大柳树内6,南和庄外16【纯农排变】,清苑县南和庄泰林车床加工门市部01,保定百佳纺织有限公司,大柳树面粉厂,保定市弘织纺织厂,和庄外10【纯农排变】,大柳树外6【纯农排变】,南和庄外14【纯农排变】,大柳树外11【纯农排变】,蔡营内1,南和庄面粉厂,2南和庄外5【纯农排变】,大树村外10【纯农排变】,1大柳树内10,清苑县蔡家营恒达绒线加工厂,南和庄拔丝厂,大柳树幼儿园配变,南邓村外1【纯农排变】,1南和庄内10,清苑县鑫丰轧花有限公司,和庄外2【纯农排变】,和庄外13【纯农排变】,大柳树织布厂,1南和庄内9,清苑县宏宇纺织有限公司,1南和庄内6,清苑县大柳树永兴织布厂,蔡营内2区,腾达毛纺厂,1大柳树内8,1大柳树内4,2南和庄外6【纯农排变】,清苑县宏强砼业有限公司,蔡营外2区【纯农排变】,2南和庄外7【纯农排变】,南和庄内2,2南和庄外8【纯农排变】,南和庄外15【纯农排变】,大柳树小学配变,南和庄李广兴板厂,南和庄李建兴织布厂,1南和庄内3,1大柳树内7,和庄外12【纯农排变】,2大兴庄外2【纯农排变】,南和庄外11【纯农排变】,蔡营外1区【纯农排变】,2大兴庄外4【纯农排变】,南和庄内4,大柳树内3,1大柳树内5,大兴庄内2,南和庄建国面粉厂,大柳树内1,保定市盛寻纺织品制造有限公司,和庄外4【纯农排变】,1南和庄内5,南和庄小学配变,大树外5【纯农排变】,1大柳树内9,蔡营内3,保定柳丰轧花有限公司,","scope":"【影响街道/乡镇】温仁乡 【高危重要客户】无 【影响客户】大柳树村、蔡营、大兴庄、南和庄","startTime":"2020-04-16 02:33:09","stopDate":"2020-04-16 09:00:00","orgNo":"1340618","typeCode":"电网故障停限电","poweroffArea":"【全线路停电】停蠡县华泽针棉织厂,蠡县宋庄金鑫纺织厂,蔡营季兴纺纱厂,清苑县南和庄泰林车床加工门市部,清苑县蔡营国强棉纺织厂,宋庄砖厂,和庄外9【纯农排变】,大柳树外7【纯农排变】,2大兴庄外3【纯农排变】,1南和庄内7,南和庄外17【纯农排变】,南和庄内1,和庄外3【纯农排变】,保定市清苑区辉煌纺织厂01,大柳树外13【纯农排变】,大柳树外12【纯农排变】,大树村外8【纯农排变】,大树外4【纯农排变】,大柳树2号,保定市清苑区辉煌纺织厂,大柳树兴华织布厂,南和庄外1【纯农排变】,1南和庄内8,大柳树外9【纯农排变】,1大兴庄内1,清苑县锦绣纺织有限公司,1大柳树内6,南和庄外16【纯农排变】,清苑县南和庄泰林车床加工门市部01,保定百佳纺织有限公司,大柳树面粉厂,保定市弘织纺织厂,和庄外10【纯农排变】,大柳树外6【纯农排变】,南和庄外14【纯农排变】,大柳树外11【纯农排变】,蔡营内1,南和庄面粉厂,2南和庄外5【纯农排变】,大树村外10【纯农排变】,1大柳树内10,清苑县蔡家营恒达绒线加工厂,南和庄拔丝厂,大柳树幼儿园配变,南邓村外1【纯农排变】,1南和庄内10,清苑县鑫丰轧花有限公司,和庄外2【纯农排变】,和庄外13【纯农排变】,大柳树织布厂,1南和庄内9,清苑县宏宇纺织有限公司,1南和庄内6,清苑县大柳树永兴织布厂,蔡营内2区,南和庄内4,大柳树内3,1大柳树内5,大兴庄内2,南和庄建国面粉厂,大柳树内1,保定市盛寻纺织品制造有限公司,和庄外4【纯农排变】,1南和庄内5,南和庄小学配变,大树外5【纯农排变】,1大柳树内9,蔡营内3,保定柳丰轧花有限公司,腾达毛纺厂,1大柳树内8,1大柳树内4,2南和庄外6【纯农排变】,清苑县宏强砼业有限公司,蔡营外2区【纯农排变】,2南和庄外7【纯农排变】,南和庄内2,2南和庄外8【纯农排变】,南和庄外15【纯农排变】,大柳树小学配变,南和庄李广兴板厂,南和庄李建兴织布厂,1南和庄内3,1大柳树内7,和庄外12【纯农排变】,2大兴庄外2【纯农排变】,南和庄外11【纯农排变】,蔡营外1区【纯农排变】,2大兴庄外4【纯农排变】","poweroffReason":"【停电原因】由于线路接地导致３５ＫＶ王盘变电站１０ＫＶ南段庄线５１２线路全线停电 【变更送电】无 【发布渠道】通过９５５９８发布","powerTime":"2020-04-16 08:02:29","powerComm":"冯斌通知已送电","subsNo":"","lineNo":"","tgNo":"","tgName":null,"infoStatus":"1","orgName":"国网清苑县供电公司","typeName":null,"infoStatusName":null,"dateDay":null,"orgNos":null,"nowTime":null,"countyName":null,"streetName":null,"villageName":null,"roadName":null,"communityName":null,"tranName":null,"sdLineName":null,"cityCode":"1340618","cityName":"国网清苑县供电公司","provinceCode":null,"stopTime":"2020-04-16 09:00:00","powerType":"全部","powerOffArea":"【全线路停电】停蠡县华泽针棉织厂,蠡县宋庄金鑫纺织厂,蔡营季兴纺纱厂,清苑县南和庄泰林车床加工门市部,清苑县蔡营国强棉纺织厂,宋庄砖厂,和庄外9【纯农排变】,大柳树外7【纯农排变】,2大兴庄外3【纯农排变】,1南和庄内7,南和庄外17【纯农排变】,南和庄内1,和庄外3【纯农排变】,保定市清苑区辉煌纺织厂01,大柳树外13【纯农排变】,大柳树外12【纯农排变】,大树村外8【纯农排变】,大树外4【纯农排变】,大柳树2号,保定市清苑区辉煌纺织厂,大柳树兴华织布厂,南和庄外1【纯农排变】,1南和庄内8,大柳树外9【纯农排变】,1大兴庄内1,清苑县锦绣纺织有限公司,1大柳树内6,南和庄外16【纯农排变】,清苑县南和庄泰林车床加工门市部01,保定百佳纺织有限公司,大柳树面粉厂,保定市弘织纺织厂,和庄外10【纯农排变】,大柳树外6【纯农排变】,南和庄外14【纯农排变】,大柳树外11【纯农排变】,蔡营内1,南和庄面粉厂,2南和庄外5【纯农排变】,大树村外10【纯农排变】,1大柳树内10,清苑县蔡家营恒达绒线加工厂,南和庄拔丝厂,大柳树幼儿园配变,南邓村外1【纯农排变】,1南和庄内10,清苑县鑫丰轧花有限公司,和庄外2【纯农排变】,和庄外13【纯农排变】,大柳树织布厂,1南和庄内9,清苑县宏宇纺织有限公司,1南和庄内6,清苑县大柳树永兴织布厂,蔡营内2区,南和庄内4,大柳树内3,1大柳树内5,大兴庄内2,南和庄建国面粉厂,大柳树内1,保定市盛寻纺织品制造有限公司,和庄外4【纯农排变】,1南和庄内5,南和庄小学配变,大树外5【纯农排变】,1大柳树内9,蔡营内3,保定柳丰轧花有限公司,腾达毛纺厂,1大柳树内8,1大柳树内4,2南和庄外6【纯农排变】,清苑县宏强砼业有限公司,蔡营外2区【纯农排变】,2南和庄外7【纯农排变】,南和庄内2,2南和庄外8【纯农排变】,南和庄外15【纯农排变】,大柳树小学配变,南和庄李广兴板厂,南和庄李建兴织布厂,1南和庄内3,1大柳树内7,和庄外12【纯农排变】,2大兴庄外2【纯农排变】,南和庄外11【纯农排变】,蔡营外1区【纯农排变】,2大兴庄外4【纯农排变】","powerOffReason":"【停电原因】由于线路接地导致３５ＫＶ王盘变电站１０ＫＶ南段庄线５１２线路全线停电 【变更送电】无 【发布渠道】通过９５５９８发布","powerOffId":"2020041613000187"}],"pageModel":{"pageNow":169,"totalCount":10973,"totalPage":1098,"tableRows":0,"pageCount":10,"beginCount":1680},"isExperi":"1"}