{"message":"","today":"2020-06-15","seleList":[{"poweroffId":2020041613000186,"sgpoweroffId":null,"subsName":"","lineName":"10kV513三埝线","pubTranName":"南埝农排1台区【纯农排变】,南埝综合4台区,南埝综合3台区,北埝综合5台区,中埝综合4台区,北埝综合2台区,北埝综合12台区,北埝农排3台区【纯农排变】,北埝综合8台区,中埝综合2台区,中埝综合3台区,北埝农排4台区【纯农排变】,南埝农排5台区【纯农排变】,南埝综合2台区,北埝综合13台区变压器,北埝综合6台区,北埝综合7台区,北埝综合4台区,南埝综合1台区,北埝综合9台区,中埝农排2台区【纯农排变】,中埝农排4台区【纯农排变】,北埝综合11台区,北埝综合10台区,中埝综合1台区,北埝综合1台区,北埝综合3台区,中埝农排5台区【纯农排变】,","scope":"【影响街道/乡镇】北埝头乡【高危重要客户】无【影响客户】北埝村、南埝村、中埝村","startTime":"2020-04-16 02:34:00","stopDate":"2020-04-16 09:30:00","orgNo":"1340616","typeCode":"电网故障停限电","poweroffArea":"【全线路停电】停北埝综合4台区,中埝综合4台区,北埝综合13台区变压器,南埝西2,北埝综合2台区,北埝综合8台区,北埝综合3台区,南埝综合3台区,南埝农排5台区【纯农排变】,中埝农排5台区【纯农排变】,中埝农排1台区【纯农排变】,南埝农排1台区【纯农排变】,中埝农排3台区【纯农排变】,中埝综合1台区,北埝综合9台区,北埝农排3台区【纯农排变】,中埝农排2台区【纯农排变】,北埝中学,北埝华松制香厂,北埝乡,南埝农排2台区【纯农排变】,北埝综合6台区,蠡县农惠粮食农民专业合作社变压器,北埝农排4台区【纯农排变】,中埝综合3台区,北埝农排9台区【纯农排变】,北埝综合12台区,北埝综合1台区,北埝综合11台区,南埝综合1台区,南埝综合4台区,北埝综合10台区,南埝农排4台区【纯农排变】,蠡县荣光棉花有限公司,北埝农排5台区【纯农排变】,北埝粮站,北埝农排2台区【纯农排变】,中埝综合2台区,北埝魏俊卿,中埝农排6台区【纯农排变】,北埝小伟,北埝综合7台区,南埝综合2台区,北埝综合5台区,北埝农排6台区【纯农排变】,北埝农排8台区【纯农排变】,中埝农排4台区【纯农排变】,河北蠡县华龙福利化工厂,北埝农排7台区【纯农排变】,南埝农排3台区【纯农排变】","poweroffReason":"【停电原因】由于站外开关掉闸导致３５ＫＶ李岗变电站１０ＫＶ三埝５１３线路全线停电【变更送电】因抢修进度加快原因，送电时间由１５：００变更为０９：３０【发布渠道】通过９５５９８发布","powerTime":"2020-04-16 09:01:44","powerComm":"已送电","subsNo":"","lineNo":"","tgNo":"","tgName":null,"infoStatus":"1","orgName":"国网蠡县供电公司","typeName":null,"infoStatusName":null,"dateDay":null,"orgNos":null,"nowTime":null,"countyName":null,"streetName":null,"villageName":null,"roadName":null,"communityName":null,"tranName":null,"sdLineName":null,"cityCode":"1340616","cityName":"国网蠡县供电公司","provinceCode":null,"stopTime":"2020-04-16 09:30:00","powerType":"全部","powerOffArea":"【全线路停电】停北埝综合4台区,中埝综合4台区,北埝综合13台区变压器,南埝西2,北埝综合2台区,北埝综合8台区,北埝综合3台区,南埝综合3台区,南埝农排5台区【纯农排变】,中埝农排5台区【纯农排变】,中埝农排1台区【纯农排变】,南埝农排1台区【纯农排变】,中埝农排3台区【纯农排变】,中埝综合1台区,北埝综合9台区,北埝农排3台区【纯农排变】,中埝农排2台区【纯农排变】,北埝中学,北埝华松制香厂,北埝乡,南埝农排2台区【纯农排变】,北埝综合6台区,蠡县农惠粮食农民专业合作社变压器,北埝农排4台区【纯农排变】,中埝综合3台区,北埝农排9台区【纯农排变】,北埝综合12台区,北埝综合1台区,北埝综合11台区,南埝综合1台区,南埝综合4台区,北埝综合10台区,南埝农排4台区【纯农排变】,蠡县荣光棉花有限公司,北埝农排5台区【纯农排变】,北埝粮站,北埝农排2台区【纯农排变】,中埝综合2台区,北埝魏俊卿,中埝农排6台区【纯农排变】,北埝小伟,北埝综合7台区,南埝综合2台区,北埝综合5台区,北埝农排6台区【纯农排变】,北埝农排8台区【纯农排变】,中埝农排4台区【纯农排变】,河北蠡县华龙福利化工厂,北埝农排7台区【纯农排变】,南埝农排3台区【纯农排变】","powerOffReason":"【停电原因】由于站外开关掉闸导致３５ＫＶ李岗变电站１０ＫＶ三埝５１３线路全线停电【变更送电】因抢修进度加快原因，送电时间由１５：００变更为０９：３０【发布渠道】通过９５５９８发布","powerOffId":"2020041613000186"},{"poweroffId":2020041613000183,"sgpoweroffId":null,"subsName":"","lineName":"10kV526程六市线","pubTranName":"10kv526程六市线32033变压器,10kv526程六市线42546变压器0,10kv526程六市线25016变压器,10kv526程六市线40531变压器,10kv526程六市线41013变压器,10kv526程六市线32050变压器,10kv526程六市线95836变压器0,顿庄25082照明,10kv526程六市线程什伍照明84322变压器,10kv526程六市线32035变压器,10kv526程六市线86372变压器,10kv526程六市线32067变压器,10kV526程六市线25010台区变压器,10kV526程六市线25088台区变压器,程六市照明71686,10kv526程六市线40537变压器0,10kv526程六市线95030变压器,10kv526程六市线32040变压器,10kv526程六市线86366变压器,10kv526程六市线32066变压器,10kv526程六市线41014变压器,10kv526程六市线40994变压器,10kv526程六市线32051变压器,杜田庄村25119,10kv526程六市线32022变压器,10kv526程六市线32010变压器,","scope":"【影响街道/乡镇】大程委镇【高危重要客户】无【影响客户】程六市、顿庄、杜田庄、程委","startTime":"2020-04-16 02:41:28","stopDate":"2020-04-16 06:00:00","orgNo":"1340608","typeCode":"电网故障停限电","poweroffArea":"【全线路停电】停10kv526程六市线95836变压器0,10kv526程六市线32033变压器,杜田庄村25119,10kv526程六市线42546变压器0,10kv526程六市线25016变压器,10kv526程六市线40531变压器,10kv526程六市线41013变压器,10kv526程六市线32050变压器,顿庄25082照明,10kv526程六市线程什伍照明84322变压器,10kv526程六市线32035变压器,10kv526程六市线86372变压器,10kv526程六市线32067变压器,10kV526程六市线25010台区变压器,10kV526程六市线25088台区变压器,程六市照明71686,10kv526程六市线40537变压器0,10kv526程六市线95030变压器,10kv526程六市线32040变压器,10kv526程六市线86366变压器,10kv526程六市线32066变压器,10kv526程六市线41014变压器,10kv526程六市线40994变压器,10kv526程六市线32051变压器,10kv526程六市线32022变压器,10kv526程六市线32010变压器","poweroffReason":"【停电原因】由于站外开关掉闸导致１１０ＫＶ程委变电站程六市５２６线路全线停电【变更送电】因抢修进度加快原因，送电时间由１２：００变更为０６：００【发布渠道】通过９５５９８发布","powerTime":"2020-04-16 05:25:28","powerComm":"已送电","subsNo":"","lineNo":"","tgNo":"","tgName":null,"infoStatus":"1","orgName":"国网博野县供电公司","typeName":null,"infoStatusName":null,"dateDay":null,"orgNos":null,"nowTime":null,"countyName":null,"streetName":null,"villageName":null,"roadName":null,"communityName":null,"tranName":null,"sdLineName":null,"cityCode":"1340608","cityName":"国网博野县供电公司","provinceCode":null,"stopTime":"2020-04-16 06:00:00","powerType":"全部","powerOffArea":"【全线路停电】停10kv526程六市线95836变压器0,10kv526程六市线32033变压器,杜田庄村25119,10kv526程六市线42546变压器0,10kv526程六市线25016变压器,10kv526程六市线40531变压器,10kv526程六市线41013变压器,10kv526程六市线32050变压器,顿庄25082照明,10kv526程六市线程什伍照明84322变压器,10kv526程六市线32035变压器,10kv526程六市线86372变压器,10kv526程六市线32067变压器,10kV526程六市线25010台区变压器,10kV526程六市线25088台区变压器,程六市照明71686,10kv526程六市线40537变压器0,10kv526程六市线95030变压器,10kv526程六市线32040变压器,10kv526程六市线86366变压器,10kv526程六市线32066变压器,10kv526程六市线41014变压器,10kv526程六市线40994变压器,10kv526程六市线32051变压器,10kv526程六市线32022变压器,10kv526程六市线32010变压器","powerOffReason":"【停电原因】由于站外开关掉闸导致１１０ＫＶ程委变电站程六市５２６线路全线停电【变更送电】因抢修进度加快原因，送电时间由１２：００变更为０６：００【发布渠道】通过９５５９８发布","powerOffId":"2020041613000183"},{"poweroffId":2020041613000182,"sgpoweroffId":null,"subsName":"","lineName":"10kV514花园头线","pubTranName":"张七农排2台区【纯农排变】,张七农排6台区【纯农排变】,张七农排3台区【纯农排变】,花园头农排5台区【纯农排变】,张七综合5台区,张七综合4台区,花园头综合6台区,花园头综合9台区,花园头农排10台区【纯农排变】,花园头综合7台区,花园头综合1台区,花园头综合10台区变压器,花园头综合3台区,张七综合1台区,花园头农排6台区【纯农排变】,花园头农排9台区【纯农排变】,花园头综合5台区,（李岗）张七农排4台区【纯农排变】,花园头农排8台区【纯农排变】,花园头农排1台区【纯农排变】,张七综合2台区,张七农排7台区【纯农排变】,花园头农排2台区【纯农排变】,花园头综合2台区,花园头农排4台区【纯农排变】,花园头综合4台区,张七综合3台区,花园头综合8台区,","scope":"【影响街道/乡镇】北埝头乡【高危重要客户】无【影响客户】花园头村、张七村、贾庄村","startTime":"2020-04-16 02:31:01","stopDate":"2020-04-16 07:00:00","orgNo":"1340616","typeCode":"电网故障停限电","poweroffArea":"【全线路停电】停花园头综合1台区,张七农排7台区【纯农排变】,张七农排1台区【纯农排变】,张七国顺,花园头综合5台区,花园头农排9台区【纯农排变】,蠡县美缘日化有限公司,贾庄小周,张七农排6台区【纯农排变】,花园头综合8台区,张七综合4台区,花园头农排4台区【纯农排变】,蠡县华业精细化工有限公司,花园头综合7台区,张七农排5台区【纯农排变】,花园头综合2台区,花园头农排2台区【纯农排变】,张七农排3台区【纯农排变】,（李岗）张七农排4台区【纯农排变】,花园头综合10台区变压器,花园头农排5台区【纯农排变】,花园头农排1台区【纯农排变】,花园头西南,花园头综合9台区,陈鹏飞,李西农排13台区【纯农排变】,花园头大篷,花园头东农,花园头砖厂,花园头综合3台区,花园头农排8台区【纯农排变】,张七综合3台区,花园头农排10台区【纯农排变】,蠡县冀中华联精细化工有限公司,花园头西北,张七综合2台区,花园头农排3台区【纯农排变】,贾庄农排2台区【纯农排变】,张七农排2台区【纯农排变】,花园头综合4台区,张七综合1台区,花园头综合6台区,贾庄农排1台区【纯农排变】,蠡县灵汉绳带有限公司,张七综合5台区,花园头农排6台区【纯农排变】","poweroffReason":"【停电原因】由于站外开关掉闸导致３５ＫＶ李岗变电站１０ＫＶ花园头５１４线路全线停电【变更送电】因抢修进度加快原因，送电时间由１５:００变更为０７:００【发布渠道】通过９５５９８发布","powerTime":"2020-04-16 06:16:30","powerComm":"已送电","subsNo":"","lineNo":"","tgNo":"","tgName":null,"infoStatus":"1","orgName":"国网蠡县供电公司","typeName":null,"infoStatusName":null,"dateDay":null,"orgNos":null,"nowTime":null,"countyName":null,"streetName":null,"villageName":null,"roadName":null,"communityName":null,"tranName":null,"sdLineName":null,"cityCode":"1340616","cityName":"国网蠡县供电公司","provinceCode":null,"stopTime":"2020-04-16 07:00:00","powerType":"全部","powerOffArea":"【全线路停电】停花园头综合1台区,张七农排7台区【纯农排变】,张七农排1台区【纯农排变】,张七国顺,花园头综合5台区,花园头农排9台区【纯农排变】,蠡县美缘日化有限公司,贾庄小周,张七农排6台区【纯农排变】,花园头综合8台区,张七综合4台区,花园头农排4台区【纯农排变】,蠡县华业精细化工有限公司,花园头综合7台区,张七农排5台区【纯农排变】,花园头综合2台区,花园头农排2台区【纯农排变】,张七农排3台区【纯农排变】,（李岗）张七农排4台区【纯农排变】,花园头综合10台区变压器,花园头农排5台区【纯农排变】,花园头农排1台区【纯农排变】,花园头西南,花园头综合9台区,陈鹏飞,李西农排13台区【纯农排变】,花园头大篷,花园头东农,花园头砖厂,花园头综合3台区,花园头农排8台区【纯农排变】,张七综合3台区,花园头农排10台区【纯农排变】,蠡县冀中华联精细化工有限公司,花园头西北,张七综合2台区,花园头农排3台区【纯农排变】,贾庄农排2台区【纯农排变】,张七农排2台区【纯农排变】,花园头综合4台区,张七综合1台区,花园头综合6台区,贾庄农排1台区【纯农排变】,蠡县灵汉绳带有限公司,张七综合5台区,花园头农排6台区【纯农排变】","powerOffReason":"【停电原因】由于站外开关掉闸导致３５ＫＶ李岗变电站１０ＫＶ花园头５１４线路全线停电【变更送电】因抢修进度加快原因，送电时间由１５:００变更为０７:００【发布渠道】通过９５５９８发布","powerOffId":"2020041613000182"},{"poweroffId":2020041613000178,"sgpoweroffId":null,"subsName":"","lineName":"横上线551","pubTranName":"前营变压器,菊花台小学变压器,范庄子乡直变压器,菊花二台南1号排灌变压器【纯农排变】,菊花一台南1号排灌变压器【纯农排变】,菊花一台北变压器,菊花一台南变压器,菊花一台南2号排灌变压器【纯农排变】,齐王务南2号公变变压器,菊花三台西1号排灌变压器【纯农排变】,中营东2号排灌变压器,横上南6号排灌变压器,范庄子北变压器,横上5号公变,菊花二台南2号排灌变压器【纯农排变】,尤庄子西2号公变变压器,","scope":"【影响街道/乡镇】辛桥乡 【高危重要客户】无 【影响客户】齐王务村、柳庄子村、横上村、菊花一台村、菊花二台村、菊花三台村、尤庄子村、陈庄子村、范庄子村、高庄子村、前营村、中营村、后营村、东正晟农业合作社、范庄子面粉厂、范庄子乡直、范庄子中学、李振海、王井民、王俊河、杨志彬、一台养鸭厂、移动公司、齐王务小学、范庄子小学","startTime":"2020-04-16 02:30:39","stopDate":"2020-04-16 07:30:00","orgNo":"1340612","typeCode":"电网故障停限电","poweroffArea":"【全线路停电】停横上5号公变,菊花二台南2号排灌变压器【纯农排变】,横上南6号排灌变压器,范庄子北变压器,尤庄子西2号公变变压器,菊花三台西1号排灌变压器【纯农排变】,中营东2号排灌变压器,前营变压器,菊花一台南1号排灌变压器【纯农排变】,高碑店市辛桥镇总校横上村幼儿园变压器,高碑店市辛桥镇范庄子中心小学变压器,菊花一台北变压器,尤庄子村东变压器,陈庄子东南,尤庄子村西变压器,河北军海混凝土销售有限公司,横上西南水【纯农排变】,中营变压器,横上西北排灌【纯农排变】,范庄子东变压器,一台变压器,高庄子内变压器,柳庄子磁卡变压器【纯农排变】,齐王务西北变压器,高碑店市范庄子初级中学,菊花二台南1号排灌变压器【纯农排变】,前营磁卡变压器【纯农排变】,中营排灌变压器【纯农排变】,菊花台小学变压器,范庄子乡直变压器,菊花一台南变压器,菊花一台南水变压器,客户投资_陈庄子内变压器,范庄子水变压器【纯农排变】,高碑店市东正晟农业服务农民专业合作社变压器,三台西南变压器,高庄子内2号公变,横上南水变压器【纯农排变】,尤庄子排灌变压器【纯农排变】,菊花一台南2号排灌变压器【纯农排变】,柳庄子西变压器,横上东北变压器,王俊河,尤庄子西排灌变压器【纯农排变】,陈庄子南变压器,一台养鸭场,后营变压器,尤庄子地变压器【纯农排变】,横上东南水变压器【纯农排变】,二台西变压器,范庄子中学变压器,三台南变压器,横上北变压器,后营南变压器,范庄子面粉厂,横上西水变压器【纯农排变】,横上南变压器,三台西变压器,横上东变压器,中营西变压器,二台南水变压器【纯农排变】,高庄子磁卡变压器【纯农排变】,二台北水变压器【纯农排变】,三台西水变压器【纯农排变】,高庄子东变压器,三台东变压器,陈庄子东水变压器【纯农排变】,柳庄子东变压器,范庄子南台变压器,二台东变压器,王井民,中国移动通信集团河北有限公司高碑店分公司,一台排灌变压器【纯农排变】,齐王务南水变压器【纯农排变】,齐王务南变压器,齐王务东变压器,齐王务北变压器,齐王务南2号公变变压器,高碑店市辛桥镇齐王务中心小学,齐王务西变压器","poweroffReason":"【停电原因】由于高庄子分支１２号杆变压器有异物导致１１０ＫＶ陈八庄变电站１０ＫＶ横上５５１线路全线停电 【变更送电】因抢修进度加快原因，送电时间由１２：００变更为０７：３０ 【发布渠道】通过９５５９８发布","powerTime":"2020-04-16 07:14:30","powerComm":"已送电","subsNo":"","lineNo":"","tgNo":"","tgName":null,"infoStatus":"1","orgName":"国网高碑店市供电公司","typeName":null,"infoStatusName":null,"dateDay":null,"orgNos":null,"nowTime":null,"countyName":null,"streetName":null,"villageName":null,"roadName":null,"communityName":null,"tranName":null,"sdLineName":null,"cityCode":"1340612","cityName":"国网高碑店市供电公司","provinceCode":null,"stopTime":"2020-04-16 07:30:00","powerType":"全部","powerOffArea":"【全线路停电】停横上5号公变,菊花二台南2号排灌变压器【纯农排变】,横上南6号排灌变压器,范庄子北变压器,尤庄子西2号公变变压器,菊花三台西1号排灌变压器【纯农排变】,中营东2号排灌变压器,前营变压器,菊花一台南1号排灌变压器【纯农排变】,高碑店市辛桥镇总校横上村幼儿园变压器,高碑店市辛桥镇范庄子中心小学变压器,菊花一台北变压器,尤庄子村东变压器,陈庄子东南,尤庄子村西变压器,河北军海混凝土销售有限公司,横上西南水【纯农排变】,中营变压器,横上西北排灌【纯农排变】,范庄子东变压器,一台变压器,高庄子内变压器,柳庄子磁卡变压器【纯农排变】,齐王务西北变压器,高碑店市范庄子初级中学,菊花二台南1号排灌变压器【纯农排变】,前营磁卡变压器【纯农排变】,中营排灌变压器【纯农排变】,菊花台小学变压器,范庄子乡直变压器,菊花一台南变压器,菊花一台南水变压器,客户投资_陈庄子内变压器,范庄子水变压器【纯农排变】,高碑店市东正晟农业服务农民专业合作社变压器,三台西南变压器,高庄子内2号公变,横上南水变压器【纯农排变】,尤庄子排灌变压器【纯农排变】,菊花一台南2号排灌变压器【纯农排变】,柳庄子西变压器,横上东北变压器,王俊河,尤庄子西排灌变压器【纯农排变】,陈庄子南变压器,一台养鸭场,后营变压器,尤庄子地变压器【纯农排变】,横上东南水变压器【纯农排变】,二台西变压器,范庄子中学变压器,三台南变压器,横上北变压器,后营南变压器,范庄子面粉厂,横上西水变压器【纯农排变】,横上南变压器,三台西变压器,横上东变压器,中营西变压器,二台南水变压器【纯农排变】,高庄子磁卡变压器【纯农排变】,二台北水变压器【纯农排变】,三台西水变压器【纯农排变】,高庄子东变压器,三台东变压器,陈庄子东水变压器【纯农排变】,柳庄子东变压器,范庄子南台变压器,二台东变压器,王井民,中国移动通信集团河北有限公司高碑店分公司,一台排灌变压器【纯农排变】,齐王务南水变压器【纯农排变】,齐王务南变压器,齐王务东变压器,齐王务北变压器,齐王务南2号公变变压器,高碑店市辛桥镇齐王务中心小学,齐王务西变压器","powerOffReason":"【停电原因】由于高庄子分支１２号杆变压器有异物导致１１０ＫＶ陈八庄变电站１０ＫＶ横上５５１线路全线停电 【变更送电】因抢修进度加快原因，送电时间由１２：００变更为０７：３０ 【发布渠道】通过９５５９８发布","powerOffId":"2020041613000178"},{"poweroffId":2020041613000175,"sgpoweroffId":null,"subsName":"","lineName":"10kV511扈营线","pubTranName":"户营综合4台区,户营综合7台区,户营综合9台区,户营综合8台区,农场综合3台区,户营综合1台区,户营农排1台区【纯农排变】,户营综合5台区,户营综合10台区,户营综合3台区,户营综合2台区,农场农排5台区【纯农排变】,户营综合6台区,","scope":"【影响街道/乡镇】北埝头乡【高危重要客户】无【影响客户】扈营村","startTime":"2020-04-16 02:26:20","stopDate":"2020-04-16 08:30:00","orgNo":"1340616","typeCode":"电网故障停限电","poweroffArea":"【全线路停电】停户夫永,张敦,户营农排1台区【纯农排变】,户营综合10台区,户营综合3台区,农场农排5台区【纯农排变】,农场综合3台区,户营综合4台区,志芬,谭大,建修,大胜,刘牛,谭大轻,兴茂,汉臣,户营综合1台区,建昆,户营综合9台区,王中和,万东,大根,广杰,户营综合2台区,贵州,亚明,户营综合5台区,户营综合7台区,户营综合6台区,谭清源,谭整岁,谭瑞欣,小丑,户营综合8台区,户计栓,蠡县利民辣椒大蒜专业合作社,学康,小周","poweroffReason":"【停电原因】由于站内开关掉闸导致３５ＫＶ李岗变电站１０ＫＶ扈营５１１线路全线停电【变更送电】因抢修进度加快原因，送电时间由１５:００变更为０８:３０【发布渠道】通过９５５９８发布","powerTime":"2020-04-16 07:52:42","powerComm":"已送电","subsNo":"","lineNo":"","tgNo":"","tgName":null,"infoStatus":"1","orgName":"国网蠡县供电公司","typeName":null,"infoStatusName":null,"dateDay":null,"orgNos":null,"nowTime":null,"countyName":null,"streetName":null,"villageName":null,"roadName":null,"communityName":null,"tranName":null,"sdLineName":null,"cityCode":"1340616","cityName":"国网蠡县供电公司","provinceCode":null,"stopTime":"2020-04-16 08:30:00","powerType":"全部","powerOffArea":"【全线路停电】停户夫永,张敦,户营农排1台区【纯农排变】,户营综合10台区,户营综合3台区,农场农排5台区【纯农排变】,农场综合3台区,户营综合4台区,志芬,谭大,建修,大胜,刘牛,谭大轻,兴茂,汉臣,户营综合1台区,建昆,户营综合9台区,王中和,万东,大根,广杰,户营综合2台区,贵州,亚明,户营综合5台区,户营综合7台区,户营综合6台区,谭清源,谭整岁,谭瑞欣,小丑,户营综合8台区,户计栓,蠡县利民辣椒大蒜专业合作社,学康,小周","powerOffReason":"【停电原因】由于站内开关掉闸导致３５ＫＶ李岗变电站１０ＫＶ扈营５１１线路全线停电【变更送电】因抢修进度加快原因，送电时间由１５:００变更为０８:３０【发布渠道】通过９５５９８发布","powerOffId":"2020041613000175"},{"poweroffId":2020041613000174,"sgpoweroffId":null,"subsName":"","lineName":"辛桥线557","pubTranName":"汤家营学校变压器,辛桥北变压器,太平庄西3号公变变压器,太平庄内2号公变变压器,陈八庄南变压器,太平庄东4号公变,陈八庄东变压器,杜辛庄西3号排灌变压器【纯农排变】,辛桥南3号公变变压器,辛桥公变变压器,杜辛庄北变压器,辛桥2号公变变压器,豆腐营变压器,陈八庄西南变压器,赵庄北变压器,","scope":"【影响街道/乡镇】辛桥乡 【高危重要客户】辛桥乡政府、太平庄天然气站 【影响客户】陈八庄村、太平庄村、豆腐营村、赵庄村、孤株村、辛桥村、汤家营村、杜辛庄村、王庄村、昊青、陈八庄面粉厂、杜书良、海飞食品厂、华晨彩钢责任有限公司、李文江果木基地、李文良、刘国强、刘普、马金坡、田茂、田瑞昌、田瑞强、辛桥水站、辛苑塑木加工厂、邮局、汤家营学校、辛桥水厂、正好乐器箱包厂、辛桥中学、徐家营幼儿园","startTime":"2020-04-16 02:27:07","stopDate":"2020-04-16 05:00:00","orgNo":"1340612","typeCode":"电网故障停限电","poweroffArea":"【全线路停电】停中国移动通信集团河北有限公司高碑店分公司,客户投资_陈八庄西变压器,太平庄西,辛桥2号公变变压器,辛桥北变压器,辛桥公变变压器,豆腐营南1号排灌变压器【纯农排变】,陈八庄南变压器,高碑店市辛桥镇赵庄中心小学变压器,太平庄南,高碑店市乡土六坊农产品购销农民专业合作社,太平庄北4号排灌变压器【纯农排变】,辛桥营业厅,赵庄东水变压器【纯农排变】,孤株西农变压器,河北摩尔戴克纱窗制造有限公司,汤家营变压器,刘普,孤株南台变压器,辛桥南台变压器,汤家营北变压器,杜辛庄变压器,太平庄东1号排灌变压器【纯农排变】,河北华晨门窗有限公司,辛桥制线厂,高碑店市海飞食品有限公司,豆腐营变压器,陈八庄西1号排灌变压器【纯农排变】,陈八庄西南变压器,高碑店市辛桥初级中学,陈八庄东变压器,李文江（果木基地）变压器,太平庄内2号公变变压器,华晨彩钢责任有限公司（南）,辛桥南3号公变变压器,河北如海玻璃科技有限公司,风机厂,赵庄北变压器,李文良,高碑店市会青新型建筑材料有限公司,杜辛庄北变压器,高碑店市世纪学校,太平庄东变压器变压器,太平庄北,汤家营南变压器,华晨彩钢责任有限公司(北）,赵庄西水变压器,田瑞昌,太平庄西3号公变变压器,陈八庄磁卡变压器【纯农排变】,杜辛庄西变压器,王庄变压器,赵庄南水变压器,辛桥磁卡变压器【纯农排变】,高碑店市辛桥镇总校徐家营幼儿园,汤家营学校变压器,辛桥乡政府变压器,高碑店市众鑫机动车驾驶员培训学校,赵庄西南水变压器【纯农排变】,太平庄磁卡变压器,高碑店市水利变压器,太平庄南2号排灌变压器【纯农排变】,高碑店民康医院,高碑店市辛桥太平庄幼儿园,陈八庄面粉厂,太平庄北3号排灌变压器【纯农排变】,赵庄西变压器,田茂,高碑店市海飞食品有限公司变压器,河北高碑店农村商业银行股份有限公司,杜书良变压器,汤家营西变压器,辛桥东变压器,太平庄东4号公变,高碑店市正好乐器箱包有限公司变压器,辛桥供电所变压器,豆腐营水变压器【纯农排变】,太平庄北5号排灌变压器【纯农排变】,陈八庄北2号排灌变压器【纯农排变】,陈八庄水变压器【纯农排变】,孤株北台变压器,杜辛庄西3号排灌变压器【纯农排变】,罗里庄北2号排灌变压器【纯农排变】,太平庄北水变压器,赵庄内变压器,太平庄内变压器,刘国强","poweroffReason":"【停电原因】由于辛桥分支０５号杆电容器跌落烧导致１１０ＫＶ陈八庄变电站１０ＫＶ辛桥５５７线路全线停电 【变更送电】因抢修进度加快原因，送电时间由１２：００变更为０５：００ 【发布渠道】通过９５５９８发布","powerTime":"2020-04-16 04:37:46","powerComm":"已送电","subsNo":"","lineNo":"","tgNo":"","tgName":null,"infoStatus":"1","orgName":"国网高碑店市供电公司","typeName":null,"infoStatusName":null,"dateDay":null,"orgNos":null,"nowTime":null,"countyName":null,"streetName":null,"villageName":null,"roadName":null,"communityName":null,"tranName":null,"sdLineName":null,"cityCode":"1340612","cityName":"国网高碑店市供电公司","provinceCode":null,"stopTime":"2020-04-16 05:00:00","powerType":"全部","powerOffArea":"【全线路停电】停中国移动通信集团河北有限公司高碑店分公司,客户投资_陈八庄西变压器,太平庄西,辛桥2号公变变压器,辛桥北变压器,辛桥公变变压器,豆腐营南1号排灌变压器【纯农排变】,陈八庄南变压器,高碑店市辛桥镇赵庄中心小学变压器,太平庄南,高碑店市乡土六坊农产品购销农民专业合作社,太平庄北4号排灌变压器【纯农排变】,辛桥营业厅,赵庄东水变压器【纯农排变】,孤株西农变压器,河北摩尔戴克纱窗制造有限公司,汤家营变压器,刘普,孤株南台变压器,辛桥南台变压器,汤家营北变压器,杜辛庄变压器,太平庄东1号排灌变压器【纯农排变】,河北华晨门窗有限公司,辛桥制线厂,高碑店市海飞食品有限公司,豆腐营变压器,陈八庄西1号排灌变压器【纯农排变】,陈八庄西南变压器,高碑店市辛桥初级中学,陈八庄东变压器,李文江（果木基地）变压器,太平庄内2号公变变压器,华晨彩钢责任有限公司（南）,辛桥南3号公变变压器,河北如海玻璃科技有限公司,风机厂,赵庄北变压器,李文良,高碑店市会青新型建筑材料有限公司,杜辛庄北变压器,高碑店市世纪学校,太平庄东变压器变压器,太平庄北,汤家营南变压器,华晨彩钢责任有限公司(北）,赵庄西水变压器,田瑞昌,太平庄西3号公变变压器,陈八庄磁卡变压器【纯农排变】,杜辛庄西变压器,王庄变压器,赵庄南水变压器,辛桥磁卡变压器【纯农排变】,高碑店市辛桥镇总校徐家营幼儿园,汤家营学校变压器,辛桥乡政府变压器,高碑店市众鑫机动车驾驶员培训学校,赵庄西南水变压器【纯农排变】,太平庄磁卡变压器,高碑店市水利变压器,太平庄南2号排灌变压器【纯农排变】,高碑店民康医院,高碑店市辛桥太平庄幼儿园,陈八庄面粉厂,太平庄北3号排灌变压器【纯农排变】,赵庄西变压器,田茂,高碑店市海飞食品有限公司变压器,河北高碑店农村商业银行股份有限公司,杜书良变压器,汤家营西变压器,辛桥东变压器,太平庄东4号公变,高碑店市正好乐器箱包有限公司变压器,辛桥供电所变压器,豆腐营水变压器【纯农排变】,太平庄北5号排灌变压器【纯农排变】,陈八庄北2号排灌变压器【纯农排变】,陈八庄水变压器【纯农排变】,孤株北台变压器,杜辛庄西3号排灌变压器【纯农排变】,罗里庄北2号排灌变压器【纯农排变】,太平庄北水变压器,赵庄内变压器,太平庄内变压器,刘国强","powerOffReason":"【停电原因】由于辛桥分支０５号杆电容器跌落烧导致１１０ＫＶ陈八庄变电站１０ＫＶ辛桥５５７线路全线停电 【变更送电】因抢修进度加快原因，送电时间由１２：００变更为０５：００ 【发布渠道】通过９５５９８发布","powerOffId":"2020041613000174"},{"poweroffId":2020041613000170,"sgpoweroffId":null,"subsName":"","lineName":"10kV514南环线","pubTranName":"10KV514南环线东路分支小营2466台区变压器,10KV514南环线37063分支大营2421台区变压器,10KV514南环线高庄2472分支大营2472台区变压器,10Kv南环514线37079台区变压器,10KV514南环线主干大营2424台区变压器,10KV514南环线高庄37061分支大营2460台区变压器,10KV514南环线大营37062分支大营37003台区变压器,10KV514南环线2433分支大营2433台区变压器10KV514南环线2433分支大营2433台区变压器,10KV514南环线37063分支大营2477台区变压器,10KV514南环线大营37062分支大营2461台区变压器,10Kv南环514线37081台区变压器,10KV514南环线大营博江浇地分支大营2425台区变压器,10KV514南环线浇地分支西街2445台区变压器,10KV514南环线高庄分支大营2454台区变压器,10KV514南环线高庄分支高庄2419台区变压器,10kV南环线514看守所取暖54638台区变压器,10KV514南环线370642476分支大营2476台区变压器,10KV514南环线2429分支小营2429台区变压器,10KV514南环线主干南白沙37047台区变压器,10KV514南环线大营2462台区分支大营2462台区变压器,10KV514南环线37064分支大营2463台区变压器,10KV514南环线高庄37015分支大营2415台区变压器,10KV514南环线北路分支37066台区变压器,10KV514南环线247337012分支大营2412台区变压器,10Kv南环514线37080台区变压器,10KV514南环线大营3号分支大营2423台区变压器,10KV南环514线小营37666台区变压器,10KV514南环线高庄分支高庄2418台区变压器,10Kv南环514线37078台区变压器,10KV514南环线370172459分支小营2459台区变压器,10KV514南环线高庄分支大营2438台区变压器,10KV514南环线3706237011分支37011台区变压器,10KV514南环线北路分支小营37065台区变压器,10KV514南环线大营2号分支大营2435台区变压器,10KV514南环线高庄37038分支大营2437台区变压器,10KV514南环线小营村东分支小营2475台区变压器,10KV514南环线高庄2473分支大营2473台区变压器,10KV514南环线37064分支大营37021台区变压器,10KV514南环线2433分支2471台区变压器,10KV514南环线西街37006分支西街37006台区变压器,10KV514南环线37017分支小营37017台区变压器,10KV514南环线37013分支小营2413台区变压器,","scope":"【影响街道/乡镇】博野镇【高危重要客户】无【影响客户】大营、小营、东高庄、看守所、南白沙、南街村、西街村","startTime":"2020-04-16 02:11:57","stopDate":"2020-04-16 03:30:00","orgNo":"1340608","typeCode":"电网故障停限电","poweroffArea":"【全线路停电】停10KV514南环线高庄37038分支大营2437台区变压器,10KV514南环线小营村东分支小营2475台区变压器,10KV514南环线高庄2473分支大营2473台区变压器,10KV514南环线37064分支大营37021台区变压器,10KV514南环线2433分支2471台区变压器,10KV514南环线西街37006分支西街37006台区变压器,10KV514南环线37017分支小营37017台区变压器,10KV514南环线37013分支小营2413台区变压器,10KV514南环线东路分支小营2466台区变压器,10KV514南环线高庄37061分支大营2460台区变压器,10KV514南环线高庄分支高庄2419台区变压器,10kV南环线514看守所取暖54638台区变压器,10KV514南环线370642476分支大营2476台区变压器,10KV514南环线2429分支小营2429台区变压器,10KV514南环线大营37062分支大营37003台区变压器,10KV514南环线2433分支大营2433台区变压器10KV514南环线2433分支大营2433台区变压器,10KV514南环线37063分支大营2477台区变压器,10KV514南环线大营37062分支大营2461台区变压器,10KV514南环线高庄37015分支大营2415台区变压器,10Kv南环514线37081台区变压器,10KV514南环线大营博江浇地分支大营2425台区变压器,10KV514南环线浇地分支西街2445台区变压器,10KV514南环线高庄分支大营2454台区变压器,10KV514南环线247337012分支大营2412台区变压器,10Kv南环514线37080台区变压器,10KV514南环线大营3号分支大营2423台区变压器,10KV514南环线北路分支小营37065台区变压器,10KV514南环线高庄2472分支大营2472台区变压器,10KV514南环线北路分支37066台区变压器,10KV南环514线小营37666台区变压器,10KV514南环线高庄分支高庄2418台区变压器,10Kv南环514线37078台区变压器,10KV514南环线370172459分支小营2459台区变压器,10KV514南环线高庄分支大营2438台区变压器,10KV514南环线3706237011分支37011台区变压器,10KV514南环线大营2号分支大营2435台区变压器,10KV514南环线37063分支大营2421台区变压器,10Kv南环514线37079台区变压器,10KV514南环线主干大营2424台区变压器,10KV514南环线主干南白沙37047台区变压器,10KV514南环线大营2462台区分支大营2462台区变压器,10KV514南环线37064分支大营2463台区变压器","poweroffReason":"【停电原因】由于站外开关跳闸导致３５ＫＶ南白沙变电站南环５１４线路全线停电【变更送电】因抢修进度加快原因，送电时间由１２：００变更为３：３０【发布渠道】通过９５５９８发布","powerTime":"2020-04-16 03:03:27","powerComm":"已送电","subsNo":"","lineNo":"","tgNo":"","tgName":null,"infoStatus":"1","orgName":"国网博野县供电公司","typeName":null,"infoStatusName":null,"dateDay":null,"orgNos":null,"nowTime":null,"countyName":null,"streetName":null,"villageName":null,"roadName":null,"communityName":null,"tranName":null,"sdLineName":null,"cityCode":"1340608","cityName":"国网博野县供电公司","provinceCode":null,"stopTime":"2020-04-16 03:30:00","powerType":"全部","powerOffArea":"【全线路停电】停10KV514南环线高庄37038分支大营2437台区变压器,10KV514南环线小营村东分支小营2475台区变压器,10KV514南环线高庄2473分支大营2473台区变压器,10KV514南环线37064分支大营37021台区变压器,10KV514南环线2433分支2471台区变压器,10KV514南环线西街37006分支西街37006台区变压器,10KV514南环线37017分支小营37017台区变压器,10KV514南环线37013分支小营2413台区变压器,10KV514南环线东路分支小营2466台区变压器,10KV514南环线高庄37061分支大营2460台区变压器,10KV514南环线高庄分支高庄2419台区变压器,10kV南环线514看守所取暖54638台区变压器,10KV514南环线370642476分支大营2476台区变压器,10KV514南环线2429分支小营2429台区变压器,10KV514南环线大营37062分支大营37003台区变压器,10KV514南环线2433分支大营2433台区变压器10KV514南环线2433分支大营2433台区变压器,10KV514南环线37063分支大营2477台区变压器,10KV514南环线大营37062分支大营2461台区变压器,10KV514南环线高庄37015分支大营2415台区变压器,10Kv南环514线37081台区变压器,10KV514南环线大营博江浇地分支大营2425台区变压器,10KV514南环线浇地分支西街2445台区变压器,10KV514南环线高庄分支大营2454台区变压器,10KV514南环线247337012分支大营2412台区变压器,10Kv南环514线37080台区变压器,10KV514南环线大营3号分支大营2423台区变压器,10KV514南环线北路分支小营37065台区变压器,10KV514南环线高庄2472分支大营2472台区变压器,10KV514南环线北路分支37066台区变压器,10KV南环514线小营37666台区变压器,10KV514南环线高庄分支高庄2418台区变压器,10Kv南环514线37078台区变压器,10KV514南环线370172459分支小营2459台区变压器,10KV514南环线高庄分支大营2438台区变压器,10KV514南环线3706237011分支37011台区变压器,10KV514南环线大营2号分支大营2435台区变压器,10KV514南环线37063分支大营2421台区变压器,10Kv南环514线37079台区变压器,10KV514南环线主干大营2424台区变压器,10KV514南环线主干南白沙37047台区变压器,10KV514南环线大营2462台区分支大营2462台区变压器,10KV514南环线37064分支大营2463台区变压器","powerOffReason":"【停电原因】由于站外开关跳闸导致３５ＫＶ南白沙变电站南环５１４线路全线停电【变更送电】因抢修进度加快原因，送电时间由１２：００变更为３：３０【发布渠道】通过９５５９８发布","powerOffId":"2020041613000170"},{"poweroffId":2020041613000167,"sgpoweroffId":null,"subsName":"","lineName":"高庄512","pubTranName":"皇亲庄村东南综合,03082|新殷庄西南台区综合,03081|新殷庄村里台区综合,03079|新殷庄东南台区综合,03077|新殷庄村东综合,03078|新殷庄村北综合,03090|皇亲庄西北综合,03049|高庄南台区综合,高庄东南综合,高庄西南综合台区,03010|皇亲庄1综合,03022|高庄村东新增综合,高庄东北综合,03009|皇亲庄2综合,03080|新殷庄西北台区综合,03023|高庄村西新增综合,","scope":"【影响街道/乡镇】庞口镇 【高危重要客户】无 【影响客户】皇亲庄、高家庄（高庄）、殷家庄（殷庄）","startTime":"2020-04-16 02:07:09","stopDate":"2020-04-16 10:00:00","orgNo":"1340613","typeCode":"电网故障停限电","poweroffArea":"【全线路停电】停高阳县向东机械厂变压器,高庄大队,03077|新殷庄村东综合,王富昌(包地),陈庄(路南),高庄村西,高阳县天马织物厂,高阳县科农猪业有限公司变压器,,高阳县永昌机械厂变压器,03010|皇亲庄1综合,03022|高庄村东新增综合,殷文忠变压器,0564532014-高阳县新兴机械厂-专变-118604662-高阳县新兴机械厂变压器,尹庄村委会综合2号,,高阳县昌龙机械厂,高庄东北综合,高阳县硕鑫汽车零部件制造有限公司变压器,高庄王庆雪,03009|皇亲庄2综合,河北华世嘉润滑油科技有限公司变压器,03080|新殷庄西北台区综合,03086|殷庄农业1台区【纯农排变】,03023|高庄村西新增综合,高庄面粉厂,高阳县昌泰面粉厂变压器,皇亲庄村东南综合,皇新庄,0684768193-保定昱奕机械制造有限公司-专变-223601104-保定昱奕机械制造有限公司变压器,高庄村委会变压器,张磊,东方织物厂,刘庄毛巾厂,贺庄(村东路边),0354|皇亲庄村东农业【纯农排变】,尹庄村委会1,高阳县立强机械厂变压器,高阳县双环液压机械厂变压器,闫英杰,03082|新殷庄西南台区综合,03081|新殷庄村里台区综合,03078|新殷庄村北综合,03090|皇亲庄西北综合,殷向东,高阳县雄鹰（PVC）扣板厂变压器,高庄(村南),03049|高庄南台区综合,高庄东南综合,高阳县永强机械厂变压器,高庄西南综合台区,高庄(乡院内),03079|新殷庄东南台区综合,天马织物厂,高阳县新兴机械厂变压器","poweroffReason":"【停电原因】由于风刮异物导致３５ＫＶ庞口变电站高庄５１２线路全线停电【变更送电】无【发布渠道】通过９５５９８发布","powerTime":"2020-04-16 09:26:12","powerComm":"已送电","subsNo":"","lineNo":"","tgNo":"","tgName":null,"infoStatus":"1","orgName":"国网高阳县供电公司","typeName":null,"infoStatusName":null,"dateDay":null,"orgNos":null,"nowTime":null,"countyName":null,"streetName":null,"villageName":null,"roadName":null,"communityName":null,"tranName":null,"sdLineName":null,"cityCode":"1340613","cityName":"国网高阳县供电公司","provinceCode":null,"stopTime":"2020-04-16 10:00:00","powerType":"全部","powerOffArea":"【全线路停电】停高阳县向东机械厂变压器,高庄大队,03077|新殷庄村东综合,王富昌(包地),陈庄(路南),高庄村西,高阳县天马织物厂,高阳县科农猪业有限公司变压器,,高阳县永昌机械厂变压器,03010|皇亲庄1综合,03022|高庄村东新增综合,殷文忠变压器,0564532014-高阳县新兴机械厂-专变-118604662-高阳县新兴机械厂变压器,尹庄村委会综合2号,,高阳县昌龙机械厂,高庄东北综合,高阳县硕鑫汽车零部件制造有限公司变压器,高庄王庆雪,03009|皇亲庄2综合,河北华世嘉润滑油科技有限公司变压器,03080|新殷庄西北台区综合,03086|殷庄农业1台区【纯农排变】,03023|高庄村西新增综合,高庄面粉厂,高阳县昌泰面粉厂变压器,皇亲庄村东南综合,皇新庄,0684768193-保定昱奕机械制造有限公司-专变-223601104-保定昱奕机械制造有限公司变压器,高庄村委会变压器,张磊,东方织物厂,刘庄毛巾厂,贺庄(村东路边),0354|皇亲庄村东农业【纯农排变】,尹庄村委会1,高阳县立强机械厂变压器,高阳县双环液压机械厂变压器,闫英杰,03082|新殷庄西南台区综合,03081|新殷庄村里台区综合,03078|新殷庄村北综合,03090|皇亲庄西北综合,殷向东,高阳县雄鹰（PVC）扣板厂变压器,高庄(村南),03049|高庄南台区综合,高庄东南综合,高阳县永强机械厂变压器,高庄西南综合台区,高庄(乡院内),03079|新殷庄东南台区综合,天马织物厂,高阳县新兴机械厂变压器","powerOffReason":"【停电原因】由于风刮异物导致３５ＫＶ庞口变电站高庄５１２线路全线停电【变更送电】无【发布渠道】通过９５５９８发布","powerOffId":"2020041613000167"},{"poweroffId":2020041613000162,"sgpoweroffId":null,"subsName":"","lineName":"10kV519北小王线","pubTranName":"10KV519北小王线40010台区变压器,10KV北小王519线北小王40008台区变压器,客户投资_10KV519北小王线40021台区变压器,10kV北小王519线北小王新增40024台区变压器,10KV519北小王线87647台区变压器,10KV北小王线519北小王村内42262台区变压器,10KV519北小王线40026台区变压器,10KV519北小王线40046台区变压器,10KV519北小王线20885台区变压器,10KV519北小王线40049台区变压器,10KV519北小王线40001台区变压器,10KV519北小王线南邑13061台区变压器,10KV519北小王线40048台区变压器,10KV519北小王线40011台区变压器,10KV519北小王线40031台区变压器,10KV519北小王线40030台区变压器,10KV519北小王线北小王村东照明42228台区变压器,10KV519北小王线40032台区变压器,10KV519北小王线南邑47731台区变压器,10KV519北小王线南邑小扣照明42144台区变压器,10KV519北小王89242台区变压器,10KV519北小王线南邑中学南照明42146台区变压器,10KV519北小王线85342变压器,10KV519北小王线南邑路灯07831台区变压器,10KV519北小王线40035台区变压器,","scope":"【影响街道/乡镇】北杨村乡【高危重要客户】无【影响客户】北堤圈、北小王、南邑","startTime":"2020-04-16 02:02:07","stopDate":"2020-04-16 11:30:00","orgNo":"1340608","typeCode":"电网故障停限电","poweroffArea":"【全线路停电】停10KV北小王519线北小王40008台区变压器,10kV北小王519线北小王新增40024台区变压器,10KV北小王线519北小王村内42262台区变压器,10KV519北小王线20885台区变压器,10KV519北小王线40001台区变压器,10KV519北小王线南邑13061台区变压器,10KV519北小王线40031台区变压器,10KV519北小王线北小王村东照明42228台区变压器,10KV519北小王线40049台区变压器,10KV519北小王线40011台区变压器,10KV519北小王线南邑47731台区变压器,10KV519北小王线87647台区变压器,10KV519北小王线40032台区变压器,10KV519北小王线南邑中学南照明42146台区变压器,10KV519北小王线40030台区变压器,客户投资_10KV519北小王线40021台区变压器,10KV519北小王线40010台区变压器,10KV519北小王线40026台区变压器,10KV519北小王线40046台区变压器,10KV519北小王89242台区变压器,10KV519北小王线85342变压器,10KV519北小王线南邑小扣照明42144台区变压器,10KV519北小王线南邑路灯07831台区变压器,10KV519北小王线40035台区变压器,10KV519北小王线40048台区变压器","poweroffReason":"【停电原因】由于站外开关掉闸导致１１０ＫＶ博野变电站北小王５１９线路全线停电【变更送电】因抢修进度加快原因，送电时间由１２：００变更为１１：３０【发布渠道】通过９５５９８发布","powerTime":"2020-04-16 10:55:28","powerComm":"已送电","subsNo":"","lineNo":"","tgNo":"","tgName":null,"infoStatus":"1","orgName":"国网博野县供电公司","typeName":null,"infoStatusName":null,"dateDay":null,"orgNos":null,"nowTime":null,"countyName":null,"streetName":null,"villageName":null,"roadName":null,"communityName":null,"tranName":null,"sdLineName":null,"cityCode":"1340608","cityName":"国网博野县供电公司","provinceCode":null,"stopTime":"2020-04-16 11:30:00","powerType":"全部","powerOffArea":"【全线路停电】停10KV北小王519线北小王40008台区变压器,10kV北小王519线北小王新增40024台区变压器,10KV北小王线519北小王村内42262台区变压器,10KV519北小王线20885台区变压器,10KV519北小王线40001台区变压器,10KV519北小王线南邑13061台区变压器,10KV519北小王线40031台区变压器,10KV519北小王线北小王村东照明42228台区变压器,10KV519北小王线40049台区变压器,10KV519北小王线40011台区变压器,10KV519北小王线南邑47731台区变压器,10KV519北小王线87647台区变压器,10KV519北小王线40032台区变压器,10KV519北小王线南邑中学南照明42146台区变压器,10KV519北小王线40030台区变压器,客户投资_10KV519北小王线40021台区变压器,10KV519北小王线40010台区变压器,10KV519北小王线40026台区变压器,10KV519北小王线40046台区变压器,10KV519北小王89242台区变压器,10KV519北小王线85342变压器,10KV519北小王线南邑小扣照明42144台区变压器,10KV519北小王线南邑路灯07831台区变压器,10KV519北小王线40035台区变压器,10KV519北小王线40048台区变压器","powerOffReason":"【停电原因】由于站外开关掉闸导致１１０ＫＶ博野变电站北小王５１９线路全线停电【变更送电】因抢修进度加快原因，送电时间由１２：００变更为１１：３０【发布渠道】通过９５５９８发布","powerOffId":"2020041613000162"},{"poweroffId":2020041613000161,"sgpoweroffId":null,"subsName":"","lineName":"西留果庄线512","pubTranName":"06072|魏庄村东3台区综合,06042|闫房子村西2台区综合,魏庄综合5台区,06009|小王果庄3台区综合,小王果庄综合13台区变压器,06014|小王果庄8台区综合,06064|西留果庄村东1台区综合,魏庄综合4台区,06007|小王果庄1台区综合,西留果庄综合5台区,06041|闫房子村西1台区综合,06067|何庄大队东（3）台区综合,06154|李果庄商业街17台区综合,06068|何庄大队1台区综合,小王果庄综合11台区变压器,魏庄农业4台区变压器,06069|何庄大队2台区综合,06070|魏庄村西1台区综合,魏庄农业3台区变压器,06148|李果庄村13台区综合,何庄综合4台区变压器,西留果庄综合6台区,06008|小王果庄2台区综合,06066|西留果庄村北2号综合,魏庄村西南2台区综合,","scope":"【影响街道/乡镇】小王果庄乡 【高危重要客户】无 【影响客户】李果庄村南、西留果庄村北、小王果庄村北、魏庄村、何庄村、闫房子村","startTime":"2020-04-16 02:02:27","stopDate":"2020-04-16 06:00:00","orgNo":"1340613","typeCode":"电网故障停限电","poweroffArea":"【全线路停电】停佳利织布厂,06104|何庄村农业2#【纯农排变】,李果庄小学,杨学文拔丝厂,高峰拔丝厂1#,韩建良拔丝厂,06041|闫房子村西1台区综合,闫房子村农业【纯农排变】,06113|西留果庄村农业东北【纯农排变】,付家营农业3台区【纯农排变】,西留果庄综合6台区,06008|小王果庄2台区综合,高阳县壮业窗纱有限公司变压器,06066|西留果庄村北2号综合,刘哲辉拔丝厂,魏庄村西南2台区综合,小王果庄面粉厂,高阳县公安局交通管理大队变压器,06070|魏庄村西1台区综合,马合京变压器,张克毛巾厂,雅比纺织品公司,魏庄综合5台区,06009|小王果庄3台区综合,06114|西留果庄农业2【纯农排变】,何庄综合4台区变压器,魏庄农业2台区【纯农排变】,齐春生,刘硕拔丝厂,张门楼拔丝厂,云吉祥,云吉祥织布厂,飞腾毛巾厂,大船拔丝厂,西留果庄综合5台区,刘振山拔丝厂,高峰拔丝厂2#,魏庄农业3台区变压器,06072|魏庄村东3台区综合,06042|闫房子村西2台区综合,06103|何庄村农业1#【纯农排变】,中国联合网络通信有限公司高阳县分公司,0376902074-保定佳利纺织品有限公司-专变-217726011-佳利毛巾厂2#变压器,06099|小王果庄村农业9号【纯农排变】,李果庄李庆德,06068|何庄大队1台区综合,河北省高阳县长乐织布厂变压器,高阳县中心粮油购销有限责任公司变压器,小王果庄综合11台区变压器,李果庄中学,魏庄农业4台区变压器,高阳县健康纺织有限公司变压器,06069|何庄大队2台区综合,未庄大队(原布厂),小王果庄村北,西留果庄农业3#【纯农排变】,小王果庄综合13台区变压器,高阳县百盛纺织品有限公司,06098|小王果庄村农业8号【纯农排变】,06100|小王果庄村农业10号【纯农排变】,06111|未庄村农业北【纯农排变】,06105|何庄村农业3#【纯农排变】,闫房子农业1#【纯农排变】,06014|小王果庄8台区综合,06064|西留果庄村东1台区综合,魏庄综合4台区,06007|小王果庄1台区综合,06067|何庄大队东（3）台区综合,李果庄永丰毛纺厂,06154|李果庄商业街17台区综合,06148|李果庄村13台区综合","poweroffReason":"【停电原因】由于风刮异物导致３５ＫＶ李果庄变电站西留果庄５１２线路全线停电【变更送电】因抢修进度加快原因，送电时间由１０：００变更为０６：００【发布渠道】通过９５５９８发布","powerTime":"2020-04-16 05:22:28","powerComm":"已送电","subsNo":"","lineNo":"","tgNo":"","tgName":null,"infoStatus":"1","orgName":"国网高阳县供电公司","typeName":null,"infoStatusName":null,"dateDay":null,"orgNos":null,"nowTime":null,"countyName":null,"streetName":null,"villageName":null,"roadName":null,"communityName":null,"tranName":null,"sdLineName":null,"cityCode":"1340613","cityName":"国网高阳县供电公司","provinceCode":null,"stopTime":"2020-04-16 06:00:00","powerType":"全部","powerOffArea":"【全线路停电】停佳利织布厂,06104|何庄村农业2#【纯农排变】,李果庄小学,杨学文拔丝厂,高峰拔丝厂1#,韩建良拔丝厂,06041|闫房子村西1台区综合,闫房子村农业【纯农排变】,06113|西留果庄村农业东北【纯农排变】,付家营农业3台区【纯农排变】,西留果庄综合6台区,06008|小王果庄2台区综合,高阳县壮业窗纱有限公司变压器,06066|西留果庄村北2号综合,刘哲辉拔丝厂,魏庄村西南2台区综合,小王果庄面粉厂,高阳县公安局交通管理大队变压器,06070|魏庄村西1台区综合,马合京变压器,张克毛巾厂,雅比纺织品公司,魏庄综合5台区,06009|小王果庄3台区综合,06114|西留果庄农业2【纯农排变】,何庄综合4台区变压器,魏庄农业2台区【纯农排变】,齐春生,刘硕拔丝厂,张门楼拔丝厂,云吉祥,云吉祥织布厂,飞腾毛巾厂,大船拔丝厂,西留果庄综合5台区,刘振山拔丝厂,高峰拔丝厂2#,魏庄农业3台区变压器,06072|魏庄村东3台区综合,06042|闫房子村西2台区综合,06103|何庄村农业1#【纯农排变】,中国联合网络通信有限公司高阳县分公司,0376902074-保定佳利纺织品有限公司-专变-217726011-佳利毛巾厂2#变压器,06099|小王果庄村农业9号【纯农排变】,李果庄李庆德,06068|何庄大队1台区综合,河北省高阳县长乐织布厂变压器,高阳县中心粮油购销有限责任公司变压器,小王果庄综合11台区变压器,李果庄中学,魏庄农业4台区变压器,高阳县健康纺织有限公司变压器,06069|何庄大队2台区综合,未庄大队(原布厂),小王果庄村北,西留果庄农业3#【纯农排变】,小王果庄综合13台区变压器,高阳县百盛纺织品有限公司,06098|小王果庄村农业8号【纯农排变】,06100|小王果庄村农业10号【纯农排变】,06111|未庄村农业北【纯农排变】,06105|何庄村农业3#【纯农排变】,闫房子农业1#【纯农排变】,06014|小王果庄8台区综合,06064|西留果庄村东1台区综合,魏庄综合4台区,06007|小王果庄1台区综合,06067|何庄大队东（3）台区综合,李果庄永丰毛纺厂,06154|李果庄商业街17台区综合,06148|李果庄村13台区综合","powerOffReason":"【停电原因】由于风刮异物导致３５ＫＶ李果庄变电站西留果庄５１２线路全线停电【变更送电】因抢修进度加快原因，送电时间由１０：００变更为０６：００【发布渠道】通过９５５９８发布","powerOffId":"2020041613000161"}],"pageModel":{"pageNow":170,"totalCount":10973,"totalPage":1098,"tableRows":0,"pageCount":10,"beginCount":1690},"isExperi":"1"}