{"message":"","today":"2020-06-15","seleList":[{"poweroffId":2020041613000159,"sgpoweroffId":null,"subsName":"","lineName":"10kV516北高晃线","pubTranName":"八里庄农排5台区【纯农排变】,北高晃综合11台区,段庄综合3台区,八里庄农排8台区【纯农排变】,北高晃农排12台区【纯农排变】,西柳青综合11台区,西柳青综合4台区,北高晃综合14台区,北高晃综合13台区,西柳青农排11台区【纯农排变】,北高晃综合7台区,西柳青农排3台区【纯农排变】,北高晃综合6台区,北高晃农排11台区【纯农排变】,北高晃农排6台区【纯农排变】,北高晃综合10台区,沈庄综合1台区,西柳青农排7台区【纯农排变】,沈庄综合2台区,北高晃综合15台区,西柳青农排10台区【纯农排变】,沈庄综合6台区,沈庄综合9台区【冬季供暖设施】,北高晃综合1台区,北高晃综合8台区,北高晃农排9台区【纯农排变】,北高晃综合12台区,北高晃综合9台区,西柳青综合7台区,沈庄综合11台区【煤改电】,沈庄综合7台区,沈庄综合10台区【冬季供暖设施】,北高晃综合16台区【冬季供暖设施】,西柳青综合5台区,西柳青综合8台区,西柳青综合3台区,北高晃综合5台区,北高晃综合2台区,西柳青综合1台区,西柳青农排13台区【纯农排变】,北高晃综合4台区,西柳青综合12台区【煤改电】,西柳青综合2台区,沈庄综合3台区,北高晃综合3台区,西柳青综合9台区,沈庄综合5台区,段庄综合2台区,西柳青综合6台区,段庄综合1台区,西柳青农排14台区【纯农排变】,西柳青综合10台区,西柳青农排12台区【纯农排变】,北高晃农排13台区【纯农排变】,北高晃综合17台区,","scope":"【影响街道/乡镇】蠡吾镇【高危重要客户】无【影响客户】北高晃村、八里庄村、西柳青村、段庄村、沈庄村（沈河庄村）","startTime":"2020-04-16 02:00:37","stopDate":"2020-04-16 07:30:00","orgNo":"1340616","typeCode":"电网故障停限电","poweroffArea":"【全线路停电】停北高晃农排5台区【纯农排变】,沈庄开花厂,北高晃纺纱厂,北高晃农排11台区【纯农排变】,北高晃农排10台区【纯农排变】,北高晃综合7台区,北高晃农排6台区【纯农排变】,北高晃综合1台区,北高晃农排9台区【纯农排变】,北高晃综合12台区,北高晃农排7台区【纯农排变】,北高晃堤上农业,保定亿德生物酵母制造有限公司,西柳青综合5台区,北高晃综合9台区,西柳青农排2台区【纯农排变】,西柳青综合7台区,北高晃第一纺织厂,沈庄综合11台区【煤改电】,北高晃农排15台区【纯农排变】,北高晃综合13台区,蠡县西柳青华宇纺织厂,西柳青河南南,西柳青农排11台区【纯农排变】,西柳青农排3台区【纯农排变】,北高晃农排8台区【纯农排变】,沈庄农排2台区【纯农排变】,保定永祥橡胶输送设备制造有限公司500KVA,沈庄农排1台区【纯农排变】,蠡县永丰再生胶500,北高晃农排2台区【纯农排变】,西柳青农排1台区【纯农排变】,北高晃综合6台区,沈庄综合2台区,八里庄面粉厂,北高晃综合15台区,西柳青农排10台区【纯农排变】,八里庄农排8台区【纯农排变】,北高晃农排12台区【纯农排变】,西柳青综合11台区,西柳青综合4台区,北高晃综合14台区,西柳青农排4台区【纯农排变】,西柳青农排5台区【纯农排变】,河北云岭生物科技有限公司变压器,蠡县铭福通盛服装制造厂,西柳青农排6台区【纯农排变】,沈庄综合1台区,西柳青农排7台区【纯农排变】,蠡县永丰再生胶315,沈庄综合7台区,沈庄综合10台区【冬季供暖设施】,保定源水水利工程有限公司,蠡县隆顺物业服务有限公司,西柳青农排12台区【纯农排变】,北高晃农排13台区【纯农排变】,北高晃农排1台区【纯农排变】,西柳青综合2台区,沈庄综合3台区,沈庄综合5台区,北高晃农排4台区【纯农排变】,段庄综合2台区,西柳青综合6台区,站变,南板,西柳青综合10台区,西柳青农排14台区【纯农排变】,蠡县永丰再生胶厂变压器,西柳青综合12台区【煤改电】,蠡县沈庄扎花厂变压器,北高晃综合3台区,沈庄农排3台区【纯农排变】,西柳青综合9台区,北高晃综合16台区【冬季供暖设施】,北高晃综合10台区,北高晃综合17台区,段庄农排2台区【纯农排变】,西柳青综合8台区,保定燕兆化工有限公司变压器,沈庄综合6台区,西柳青农排9台区【纯农排变】,北高晃农排14台区【纯农排变】,高晃堤内农用,北高晃农排3台区【纯农排变】,洪江塑料厂,西柳青综合3台区,北高晃综合5台区,北高晃综合2台区,沈庄综合9台区【冬季供暖设施】,北高晃综合8台区,蠡县永丰粮食农民专业合作社,八里庄农排5台区【纯农排变】,北高晃综合11台区,段庄综合3台区,八里庄农排6台区【纯农排变】,八里庄农排7台区【纯农排变】,蠡县航轩饲养场变压器,西柳青农排8台区【纯农排变】,段庄综合1台区,西柳青综合1台区,保定永祥橡胶输送设备制造有限公司,西柳青农排13台区【纯农排变】,北高晃综合4台区,蠡县纺纱厂变压器","poweroffReason":"【停电原因】由于站内开关掉闸导致３５ＫＶ王庄变电站１０ＫＶ北高晃５１６线路全线停电【变更送电】因抢修进度加快原因，送电时间由１４:００变更为０７:３０【发布渠道】通过９５５９８发布","powerTime":"2020-04-16 06:58:01","powerComm":"已送电","subsNo":"","lineNo":"","tgNo":"","tgName":null,"infoStatus":"1","orgName":"国网蠡县供电公司","typeName":null,"infoStatusName":null,"dateDay":null,"orgNos":null,"nowTime":null,"countyName":null,"streetName":null,"villageName":null,"roadName":null,"communityName":null,"tranName":null,"sdLineName":null,"cityCode":"1340616","cityName":"国网蠡县供电公司","provinceCode":null,"stopTime":"2020-04-16 07:30:00","powerType":"全部","powerOffArea":"【全线路停电】停北高晃农排5台区【纯农排变】,沈庄开花厂,北高晃纺纱厂,北高晃农排11台区【纯农排变】,北高晃农排10台区【纯农排变】,北高晃综合7台区,北高晃农排6台区【纯农排变】,北高晃综合1台区,北高晃农排9台区【纯农排变】,北高晃综合12台区,北高晃农排7台区【纯农排变】,北高晃堤上农业,保定亿德生物酵母制造有限公司,西柳青综合5台区,北高晃综合9台区,西柳青农排2台区【纯农排变】,西柳青综合7台区,北高晃第一纺织厂,沈庄综合11台区【煤改电】,北高晃农排15台区【纯农排变】,北高晃综合13台区,蠡县西柳青华宇纺织厂,西柳青河南南,西柳青农排11台区【纯农排变】,西柳青农排3台区【纯农排变】,北高晃农排8台区【纯农排变】,沈庄农排2台区【纯农排变】,保定永祥橡胶输送设备制造有限公司500KVA,沈庄农排1台区【纯农排变】,蠡县永丰再生胶500,北高晃农排2台区【纯农排变】,西柳青农排1台区【纯农排变】,北高晃综合6台区,沈庄综合2台区,八里庄面粉厂,北高晃综合15台区,西柳青农排10台区【纯农排变】,八里庄农排8台区【纯农排变】,北高晃农排12台区【纯农排变】,西柳青综合11台区,西柳青综合4台区,北高晃综合14台区,西柳青农排4台区【纯农排变】,西柳青农排5台区【纯农排变】,河北云岭生物科技有限公司变压器,蠡县铭福通盛服装制造厂,西柳青农排6台区【纯农排变】,沈庄综合1台区,西柳青农排7台区【纯农排变】,蠡县永丰再生胶315,沈庄综合7台区,沈庄综合10台区【冬季供暖设施】,保定源水水利工程有限公司,蠡县隆顺物业服务有限公司,西柳青农排12台区【纯农排变】,北高晃农排13台区【纯农排变】,北高晃农排1台区【纯农排变】,西柳青综合2台区,沈庄综合3台区,沈庄综合5台区,北高晃农排4台区【纯农排变】,段庄综合2台区,西柳青综合6台区,站变,南板,西柳青综合10台区,西柳青农排14台区【纯农排变】,蠡县永丰再生胶厂变压器,西柳青综合12台区【煤改电】,蠡县沈庄扎花厂变压器,北高晃综合3台区,沈庄农排3台区【纯农排变】,西柳青综合9台区,北高晃综合16台区【冬季供暖设施】,北高晃综合10台区,北高晃综合17台区,段庄农排2台区【纯农排变】,西柳青综合8台区,保定燕兆化工有限公司变压器,沈庄综合6台区,西柳青农排9台区【纯农排变】,北高晃农排14台区【纯农排变】,高晃堤内农用,北高晃农排3台区【纯农排变】,洪江塑料厂,西柳青综合3台区,北高晃综合5台区,北高晃综合2台区,沈庄综合9台区【冬季供暖设施】,北高晃综合8台区,蠡县永丰粮食农民专业合作社,八里庄农排5台区【纯农排变】,北高晃综合11台区,段庄综合3台区,八里庄农排6台区【纯农排变】,八里庄农排7台区【纯农排变】,蠡县航轩饲养场变压器,西柳青农排8台区【纯农排变】,段庄综合1台区,西柳青综合1台区,保定永祥橡胶输送设备制造有限公司,西柳青农排13台区【纯农排变】,北高晃综合4台区,蠡县纺纱厂变压器","powerOffReason":"【停电原因】由于站内开关掉闸导致３５ＫＶ王庄变电站１０ＫＶ北高晃５１６线路全线停电【变更送电】因抢修进度加快原因，送电时间由１４:００变更为０７:３０【发布渠道】通过９５５９８发布","powerOffId":"2020041613000159"},{"poweroffId":2020041613000154,"sgpoweroffId":null,"subsName":"","lineName":"10KV515王营线","pubTranName":"10KV王营515线东升33061台区变压器,10KV王营515线东风33058台区变压器,10kV515王营线王木33025台区,10kV515王营线徐营33012台区,10kv王营515线33041台区变压器,10kV515王营线大苑33021分支8#王营线515大苑33040台区,10KV王营515线东风33060台区变压器,10KV王营515线大苑33055台区变压器,10kV515王营线42846台区,10kV515王营线主干108#杆,10kV515王营线东风33047台区,10kV515王营线20389台区变压器,10kV515王营线东风33032台区,10kV515王营线王营33007台区,10kV515王营线东风33048台区,10KV王营515线大苑33056台区变压器,10kV515王营线大苑33021分支3#王营线515大苑33020台区器,10kV515王营线徐营村东04429,10KV王营515线东风33059台区变压器,10kV515王营线王营线515大苑33018台区,10kV515王营线王营线515徐营33014台区,10KV王营515线徐营33057台区变压器,10kV515王营线20884台区,","scope":"【影响街道/乡镇】博野镇【高危重要客户】无【影响客户】王营、徐营、大苑、小苑、东风、东升、南白沙","startTime":"2020-04-16 01:59:28","stopDate":"2020-04-16 14:00:00","orgNo":"1340608","typeCode":"电网故障停限电","poweroffArea":"【全线路停电】停10kV515王营线王营33007台区,10kV515王营线王木33025台区,10KV王营515线东风33059台区变压器,10KV王营515线大苑33056台区变压器,10kV515王营线大苑33021分支3#王营线515大苑33020台区器,10kV515王营线徐营村东04429,10kV515王营线王营线515大苑33018台区,10kV515王营线王营线515徐营33014台区,10KV王营515线徐营33057台区变压器,10kV515王营线20884台区,10KV王营515线东升33061台区变压器,10KV王营515线东风33058台区变压器,10kV515王营线徐营33012台区,10kv王营515线33041台区变压器,10kV515王营线大苑33021分支8#王营线515大苑33040台区,10KV王营515线东风33060台区变压器,10KV王营515线大苑33055台区变压器,10kV515王营线42846台区,10kV515王营线主干108#杆,10kV515王营线东风33047台区,10kV515王营线20389台区变压器,10kV515王营线东风33032台区,10kV515王营线东风33048台区","poweroffReason":"【停电原因】由于站外开关掉闸导致３５ＫＶ南白沙变电站王营５１５线路全线停电【变更送电】因故障未彻底排除原因，送电时间由１２：００变更为１４：００【发布渠道】通过９５５９８发布","powerTime":"2020-04-16 13:11:59","powerComm":"已送电","subsNo":"","lineNo":"","tgNo":"","tgName":null,"infoStatus":"1","orgName":"国网博野县供电公司","typeName":null,"infoStatusName":null,"dateDay":null,"orgNos":null,"nowTime":null,"countyName":null,"streetName":null,"villageName":null,"roadName":null,"communityName":null,"tranName":null,"sdLineName":null,"cityCode":"1340608","cityName":"国网博野县供电公司","provinceCode":null,"stopTime":"2020-04-16 14:00:00","powerType":"全部","powerOffArea":"【全线路停电】停10kV515王营线王营33007台区,10kV515王营线王木33025台区,10KV王营515线东风33059台区变压器,10KV王营515线大苑33056台区变压器,10kV515王营线大苑33021分支3#王营线515大苑33020台区器,10kV515王营线徐营村东04429,10kV515王营线王营线515大苑33018台区,10kV515王营线王营线515徐营33014台区,10KV王营515线徐营33057台区变压器,10kV515王营线20884台区,10KV王营515线东升33061台区变压器,10KV王营515线东风33058台区变压器,10kV515王营线徐营33012台区,10kv王营515线33041台区变压器,10kV515王营线大苑33021分支8#王营线515大苑33040台区,10KV王营515线东风33060台区变压器,10KV王营515线大苑33055台区变压器,10kV515王营线42846台区,10kV515王营线主干108#杆,10kV515王营线东风33047台区,10kV515王营线20389台区变压器,10kV515王营线东风33032台区,10kV515王营线东风33048台区","powerOffReason":"【停电原因】由于站外开关掉闸导致３５ＫＶ南白沙变电站王营５１５线路全线停电【变更送电】因故障未彻底排除原因，送电时间由１２：００变更为１４：００【发布渠道】通过９５５９８发布","powerOffId":"2020041613000154"},{"poweroffId":2020041613000149,"sgpoweroffId":null,"subsName":"","lineName":"钢厂572","pubTranName":"北白马村3#,北白马9#变压器,中白马村2#,东白马村7#,西张家庄村3#,东白马9号,苏家坟村3#,东白马村4#,苏家坟村5#,北白马村4#【纯农排变】,西白马村1#,北白马8号变,西白马村3#【纯农排变】,南白马村2#,店北村二号机井【纯农排变】,西张家庄村2#,苏家坟六号,白马乡政府配变,中白马村1#,北白马村1#,中白马村3#【纯农排变】,南白马村4#,南白马村10#,东白马村3#,东白马村1#,西张家庄村1#,西白马村4#,中白马4号变,南白马村1#,西张家庄村4#,北白马村2#,西张家庄5号变,苏家坟村2#,南白马村5#,东白马村2#,苏家坟村1#【纯农排变】,","scope":"【影响街道/乡镇】白马乡【高危重要客户】无【影响客户】西张家庄村、中白马村、东白马村、西白马村、南白马村、北白马村、苏家坟村","startTime":"2020-04-16 01:55:57","stopDate":"2020-04-16 07:00:00","orgNo":"1340625","typeCode":"电网故障停限电","poweroffArea":"【全线路停电】停苏家坟村2#,东白马村1#,苏家坟村4#【纯农排变】,南白马面粉厂(薛占龙),西白马村4#,易县第二高级中学变压器,东白马8号变压器,南白马村1#,西张家庄5号变,东白马村2#,海泡石有限责任开发公司(明阳摩擦),西白马林果示范园(王景林),苏家坟村1#【纯农排变】,宏利海泡石厂(总厂),店北村二号机井【纯农排变】,河北万紫倾城苗木种植有限公司100KVA,东白马村7#,易县白马页岩砖厂变压器,西张家庄村3#,东白马9号,白马中心卫生院125KVA,易县建垣兴水泥砖制造有限公司变压器,贺术山机井,苏家坟村3#,东白马村4#,苏家坟村5#,易县禾康牧业有限公司630,易县第二高级中学1600KVA,北白马村4#【纯农排变】,西白马村1#,易县张林生猪定点屠宰点200,苏家坟砖厂,宏利海泡石厂(粮库),北白马8号变,西白马村3#【纯农排变】,南白马村2#,西张家庄村2#,苏家坟六号,中白马村3#【纯农排变】,南白马村4#,西张家庄村1#,易县实验中学,中白马4号变,西张家庄村4#,北白马村2#,西白马村2#【纯农排变】,南白马村5#,北白马村3#,易县第二高级中学2000KVA,易县安平土地整理服务有限公司1号50KVA,白马信用社100,福康工艺品厂,北白马9#变压器,中白马村2#,易县丰华生猪屠宰有限公司250KVA,白马乡政府配变,中白马村1#,白马初级中学800KVA,北白马村1#,东白马村3#,南白马村10#","poweroffReason":"【停电原因】由于过流跳闸导致１１０ＫＶ店北变电站钢厂５７２线路全线路停电【变更送电】因抢修进度加快原因，送电时间由０９：００变更为０７：００【发布渠道】通过９５５９８发布","powerTime":"2020-04-16 06:30:54","powerComm":"已送电","subsNo":"","lineNo":"","tgNo":"","tgName":null,"infoStatus":"1","orgName":"国网易县供电公司","typeName":null,"infoStatusName":null,"dateDay":null,"orgNos":null,"nowTime":null,"countyName":null,"streetName":null,"villageName":null,"roadName":null,"communityName":null,"tranName":null,"sdLineName":null,"cityCode":"1340625","cityName":"国网易县供电公司","provinceCode":null,"stopTime":"2020-04-16 07:00:00","powerType":"全部","powerOffArea":"【全线路停电】停苏家坟村2#,东白马村1#,苏家坟村4#【纯农排变】,南白马面粉厂(薛占龙),西白马村4#,易县第二高级中学变压器,东白马8号变压器,南白马村1#,西张家庄5号变,东白马村2#,海泡石有限责任开发公司(明阳摩擦),西白马林果示范园(王景林),苏家坟村1#【纯农排变】,宏利海泡石厂(总厂),店北村二号机井【纯农排变】,河北万紫倾城苗木种植有限公司100KVA,东白马村7#,易县白马页岩砖厂变压器,西张家庄村3#,东白马9号,白马中心卫生院125KVA,易县建垣兴水泥砖制造有限公司变压器,贺术山机井,苏家坟村3#,东白马村4#,苏家坟村5#,易县禾康牧业有限公司630,易县第二高级中学1600KVA,北白马村4#【纯农排变】,西白马村1#,易县张林生猪定点屠宰点200,苏家坟砖厂,宏利海泡石厂(粮库),北白马8号变,西白马村3#【纯农排变】,南白马村2#,西张家庄村2#,苏家坟六号,中白马村3#【纯农排变】,南白马村4#,西张家庄村1#,易县实验中学,中白马4号变,西张家庄村4#,北白马村2#,西白马村2#【纯农排变】,南白马村5#,北白马村3#,易县第二高级中学2000KVA,易县安平土地整理服务有限公司1号50KVA,白马信用社100,福康工艺品厂,北白马9#变压器,中白马村2#,易县丰华生猪屠宰有限公司250KVA,白马乡政府配变,中白马村1#,白马初级中学800KVA,北白马村1#,东白马村3#,南白马村10#","powerOffReason":"【停电原因】由于过流跳闸导致１１０ＫＶ店北变电站钢厂５７２线路全线路停电【变更送电】因抢修进度加快原因，送电时间由０９：００变更为０７：００【发布渠道】通过９５５９８发布","powerOffId":"2020041613000149"},{"poweroffId":2020041613000137,"sgpoweroffId":null,"subsName":"","lineName":"10kV512野陈佐线","pubTranName":"北保去农排6台区【纯农排变】,南鲍墟综合9台区,西鲍墟综合8台区,野陈佐综合1台区,野陈佐农排9台区【纯农排变】,野陈佐综合3台区,野陈佐综合2台区,南保去综合1台区,东鲍墟综合5台区,西保去综合2台区,南保去综合2台区,北保去农排10台区【纯农排变】,北保去综合3台区,东保去综合3台区,东鲍墟综合7台区,南鲍墟综合6台区,西保去综合1台区,西保去综合4台区,南鲍墟综合4台区,北保去农排2台区【纯农排变】,西保去农排4台区【纯农排变】,西鲍墟综合7台区,野陈佐综合7台区,北鲍墟综合4台区,野陈佐农排1台区【纯农排变】,野陈佐综合6台区,西保去综合3台区,北鲍墟综合5台区,北鲍墟综合7台区,野陈佐综合9台区,东保去综合2台区,野陈佐农排2台区【纯农排变】,东鲍墟综合6台区,北鲍墟综合6台区,东保去农排3台区【纯农排变】,北鲍墟综合9台区,东保去综合4台区,野陈佐综合8台区,野陈佐综合4台区,东保去综合1台区,野陈佐综合10台区,西保去综合5台区,西鲍墟综合6台区,野陈佐农排11台区【纯农排变】,北保去农排3台区【纯农排变】,南保去综合3台区,北保去综合1台区,南鲍墟综合7台区,南鲍墟综合8台区,北鲍墟综合8台区,南鲍墟综合5台区,北保去综合2台区,野陈佐农排3台区【纯农排变】,野陈佐综合5台区,","scope":"【影响街道/乡镇】鲍墟乡【高危重要客户】无【影响客户】野陈佐村、东鲍墟村、北鲍墟村、西鲍墟村、南鲍墟村","startTime":"2020-04-16 01:41:27","stopDate":"2020-04-16 09:30:00","orgNo":"1340616","typeCode":"电网故障停限电","poweroffArea":"【全线路停电】停文瑞,南鲍墟综合4台区,野陈佐农排6台区【纯农排变】,南保去农排5台区【纯农排变】,北保去综合3台区,北保去农排5台区【纯农排变】,西保去综合4台区,野陈佐综合3台区,西鲍墟综合7台区,西保去农排1台区【纯农排变】,北保去农排7台区【纯农排变】,北鲍墟综合8台区,南保去综合1台区,野陈佐农排8台区【纯农排变】,西鲍墟综合6台区,西鲍墟综合8台区,东保去农排4台区【纯农排变】,野陈佐农排11台区【纯农排变】,中学农场,进托,南保去农排6台区【纯农排变】,南鲍墟综合7台区,野陈佐农排9台区【纯农排变】,野陈佐综合1台区,西保去综合1台区,瑞兴宏景变压器500,北保去农排9台区【纯农排变】,南保去综合2台区,西保去综合2台区,养牛厂,西保去综合5台区,小杰,保去社办厂,中学农场大变压器,北鲍墟综合7台区,南保去农排7台区【纯农排变】,南保去综合3台区,保去中学变压器,野陈佐农排4台区【纯农排变】,野陈佐农排1台区【纯农排变】,野陈佐综合2台区,南鲍墟综合6台区,北鲍墟综合4台区,北保去农排6台区【纯农排变】,北鲍墟综合6台区,北保去农排8台区【纯农排变】,东保去农排1台区【纯农排变】,野陈佐综合5台区,南保去农排2台区【纯农排变】,东保去农排6台区【纯农排变】,野陈佐农排2台区【纯农排变】,西保去农排4台区【纯农排变】,北鲍墟综合5台区,西保去农排3台区【纯农排变】,北保去综合2台区,北保去农排1台区【纯农排变】,蠡县春梅芦笋农民专业合作社,野陈佐综合9台区,蠡县淑亮狐饲料农民专业合作社,北保去综合1台区,西保去综合3台区,野陈佐综合10台区,野陈佐农排10台区【纯农排变】,东保去综合4台区,南保去农排1台区【纯农排变】,东鲍墟综合7台区,南保去农排4台区【纯农排变】,北鲍墟综合9台区,东保去综合3台区,野陈佐农排3台区【纯农排变】,野陈佐综合7台区,北保去农排2台区【纯农排变】,西保去农排7台区【纯农排变】,北保去农排10台区【纯农排变】,南鲍墟综合9台区,东保去农排5台区【纯农排变】,东保去综合1台区,南保红亮,瑞兴宏景变压器315,野陈佐综合4台区,北保去农排4台区【纯农排变】,东鲍墟综合6台区,北保去农排3台区【纯农排变】,西保去农排2台区【纯农排变】,东保去农排2台区【纯农排变】,西保去农排5台区【纯农排变】,野陈佐农排7台区【纯农排变】,南保去农排3台区【纯农排变】,野陈佐农排5台区【纯农排变】,野陈佐综合8台区,西保农排6台区【纯农排变】,蠡县亿帮洁日化有限公司,南鲍墟综合5台区,东保去农排3台区【纯农排变】,野陈佐综合6台区,南鲍墟综合8台区,东鲍墟综合5台区,东保去综合2台区","poweroffReason":"【停电原因】由于站内开关掉闸导致３５ＫＶ鲍墟变电站１０ＫＶ野陈佐５１２线路全线停电【变更送电】因抢修进度加快原因，送电时间由１１：００变更为０９：３０【发布渠道】通过９５５９８发布","powerTime":"2020-04-16 08:55:04","powerComm":"已送电","subsNo":"","lineNo":"","tgNo":"","tgName":null,"infoStatus":"1","orgName":"国网蠡县供电公司","typeName":null,"infoStatusName":null,"dateDay":null,"orgNos":null,"nowTime":null,"countyName":null,"streetName":null,"villageName":null,"roadName":null,"communityName":null,"tranName":null,"sdLineName":null,"cityCode":"1340616","cityName":"国网蠡县供电公司","provinceCode":null,"stopTime":"2020-04-16 09:30:00","powerType":"全部","powerOffArea":"【全线路停电】停文瑞,南鲍墟综合4台区,野陈佐农排6台区【纯农排变】,南保去农排5台区【纯农排变】,北保去综合3台区,北保去农排5台区【纯农排变】,西保去综合4台区,野陈佐综合3台区,西鲍墟综合7台区,西保去农排1台区【纯农排变】,北保去农排7台区【纯农排变】,北鲍墟综合8台区,南保去综合1台区,野陈佐农排8台区【纯农排变】,西鲍墟综合6台区,西鲍墟综合8台区,东保去农排4台区【纯农排变】,野陈佐农排11台区【纯农排变】,中学农场,进托,南保去农排6台区【纯农排变】,南鲍墟综合7台区,野陈佐农排9台区【纯农排变】,野陈佐综合1台区,西保去综合1台区,瑞兴宏景变压器500,北保去农排9台区【纯农排变】,南保去综合2台区,西保去综合2台区,养牛厂,西保去综合5台区,小杰,保去社办厂,中学农场大变压器,北鲍墟综合7台区,南保去农排7台区【纯农排变】,南保去综合3台区,保去中学变压器,野陈佐农排4台区【纯农排变】,野陈佐农排1台区【纯农排变】,野陈佐综合2台区,南鲍墟综合6台区,北鲍墟综合4台区,北保去农排6台区【纯农排变】,北鲍墟综合6台区,北保去农排8台区【纯农排变】,东保去农排1台区【纯农排变】,野陈佐综合5台区,南保去农排2台区【纯农排变】,东保去农排6台区【纯农排变】,野陈佐农排2台区【纯农排变】,西保去农排4台区【纯农排变】,北鲍墟综合5台区,西保去农排3台区【纯农排变】,北保去综合2台区,北保去农排1台区【纯农排变】,蠡县春梅芦笋农民专业合作社,野陈佐综合9台区,蠡县淑亮狐饲料农民专业合作社,北保去综合1台区,西保去综合3台区,野陈佐综合10台区,野陈佐农排10台区【纯农排变】,东保去综合4台区,南保去农排1台区【纯农排变】,东鲍墟综合7台区,南保去农排4台区【纯农排变】,北鲍墟综合9台区,东保去综合3台区,野陈佐农排3台区【纯农排变】,野陈佐综合7台区,北保去农排2台区【纯农排变】,西保去农排7台区【纯农排变】,北保去农排10台区【纯农排变】,南鲍墟综合9台区,东保去农排5台区【纯农排变】,东保去综合1台区,南保红亮,瑞兴宏景变压器315,野陈佐综合4台区,北保去农排4台区【纯农排变】,东鲍墟综合6台区,北保去农排3台区【纯农排变】,西保去农排2台区【纯农排变】,东保去农排2台区【纯农排变】,西保去农排5台区【纯农排变】,野陈佐农排7台区【纯农排变】,南保去农排3台区【纯农排变】,野陈佐农排5台区【纯农排变】,野陈佐综合8台区,西保农排6台区【纯农排变】,蠡县亿帮洁日化有限公司,南鲍墟综合5台区,东保去农排3台区【纯农排变】,野陈佐综合6台区,南鲍墟综合8台区,东鲍墟综合5台区,东保去综合2台区","powerOffReason":"【停电原因】由于站内开关掉闸导致３５ＫＶ鲍墟变电站１０ＫＶ野陈佐５１２线路全线停电【变更送电】因抢修进度加快原因，送电时间由１１：００变更为０９：３０【发布渠道】通过９５５９８发布","powerOffId":"2020041613000137"},{"poweroffId":2020041613000135,"sgpoweroffId":null,"subsName":"","lineName":"10kV胡家庄559","pubTranName":"站外专用,东文泉村南新,南郑村中2台区,南郑村西新增台区,南郭下村内,南郭下村西,南郑村中台区,南郭下村东变压器,南郭下井【纯农排变】,南郑各庄村西南,所内专用,南郭下村南混变压器,南郭下马路边台区,南郑村南2台区,南郭下村南二变压器,南郑村东2台区,南郭下村中台区,南郭下村西2,东文泉村内变压器,南郑各庄村南混新,","scope":"【影响街道/乡镇】胡家庄乡、涞水镇 【高危重要客户】无 【影响客户】南郑各庄村、北郭下村、东文泉村、西武泉村","startTime":"2020-04-16 01:36:55","stopDate":"2020-04-16 03:30:00","orgNo":"1340614","typeCode":"电网故障停限电","poweroffArea":"【全线路停电】停南郭下马路边台区,东文泉村内专用变压器【纯农排变】,南郑村南2台区,南郭下村南二变压器,南郑村东2台区,西武泉供电所,站外专用,东文泉村南新,南郑村南专变压器,南郑村中2台区,南郑村西新增台区,南郑村南2专用变压器【纯农排变】,南郑村中台区,涞水县圣金水泥制品有限公司专变250KVA,东文泉村北专变压器【纯农排变】,南郭下井【纯农排变】,南郑各庄村东专用2变压器【纯农排变】,所内专用,河北风华环保服务有限公司,东文泉村北,东文泉大坑台区,南郭下村中台区,南郭下村西2,河北风华环保服务有限公司新增1000KVA变压器,东文泉村内变压器,南郑各庄村南混新,南郑村东混变压器,南郭下村内,南郭下村西,南郭下村东变压器,河北风华环保服务有限公司新增500KVA变压器,南郑各庄村西南,风华环保服务有限公司1000KVA专变,南王庄村南专变压器,东文泉东南2,南郑村西2,南郭下村南混变压器","poweroffReason":"【停电原因】由于速断跳闸导致１１０ＫＶ郭下变电站１０ＫＶ胡家庄５５９线路全线停电 【变更送电】因抢修进度加快原因，送电时间由１２：００变更为０３：３０ 【发布渠道】通过９５５９８发布","powerTime":"2020-04-16 03:02:35","powerComm":"已送电","subsNo":"","lineNo":"","tgNo":"","tgName":null,"infoStatus":"1","orgName":"国网涞水县供电公司","typeName":null,"infoStatusName":null,"dateDay":null,"orgNos":null,"nowTime":null,"countyName":null,"streetName":null,"villageName":null,"roadName":null,"communityName":null,"tranName":null,"sdLineName":null,"cityCode":"1340614","cityName":"国网涞水县供电公司","provinceCode":null,"stopTime":"2020-04-16 03:30:00","powerType":"全部","powerOffArea":"【全线路停电】停南郭下马路边台区,东文泉村内专用变压器【纯农排变】,南郑村南2台区,南郭下村南二变压器,南郑村东2台区,西武泉供电所,站外专用,东文泉村南新,南郑村南专变压器,南郑村中2台区,南郑村西新增台区,南郑村南2专用变压器【纯农排变】,南郑村中台区,涞水县圣金水泥制品有限公司专变250KVA,东文泉村北专变压器【纯农排变】,南郭下井【纯农排变】,南郑各庄村东专用2变压器【纯农排变】,所内专用,河北风华环保服务有限公司,东文泉村北,东文泉大坑台区,南郭下村中台区,南郭下村西2,河北风华环保服务有限公司新增1000KVA变压器,东文泉村内变压器,南郑各庄村南混新,南郑村东混变压器,南郭下村内,南郭下村西,南郭下村东变压器,河北风华环保服务有限公司新增500KVA变压器,南郑各庄村西南,风华环保服务有限公司1000KVA专变,南王庄村南专变压器,东文泉东南2,南郑村西2,南郭下村南混变压器","powerOffReason":"【停电原因】由于速断跳闸导致１１０ＫＶ郭下变电站１０ＫＶ胡家庄５５９线路全线停电 【变更送电】因抢修进度加快原因，送电时间由１２：００变更为０３：３０ 【发布渠道】通过９５５９８发布","powerOffId":"2020041613000135"},{"poweroffId":2020041613000129,"sgpoweroffId":null,"subsName":"","lineName":"辛留佐线515","pubTranName":"07018|北于八村东北综合1768,07052|北于八村北综合1705,070019|辛留佐村西北综合5195,辛留佐村南2号新增综合,07077|北路台综合1729,北于八村西2号综合台区,北于八吃水井新增综合,07005|辛留佐村西综合1727,07053|北于八村西综合1706,07025|辛留佐村北综合1774,","scope":"【影响街道/乡镇】邢南乡 【高危重要客户】无 【影响客户】北于八村北、北路台村西南（部分）、辛留佐村西、北于八村东（部分）、北路台村南（部分）","startTime":"2020-04-16 01:34:31","stopDate":"2020-04-16 08:00:00","orgNo":"1340613","typeCode":"电网故障停限电","poweroffArea":"【全线路停电】停高阳县立新纺纱厂,北路台村西中北农排【纯农排变】,辛留佐3号农排【纯农排变】,高阳县辛留佐毛纺厂变压器,南晋庄村西南远6号农排【纯农排变】,立新皮毛厂,高阳县远阳纺织厂变压器,北于八村西变压器,高阳县英利地毯纱,辛留佐2号农排【纯农排变】,高阳县长天纺织有限公司,辛留佐村南2号新增综合,07053|北于八村西综合1706,艳辉毛巾厂,高阳县利阳气流纺织厂变压器,北于八西北3,兴和博宇有限公司,洪银锁,北于八农业土地开发一号【纯农排变】,高阳县邢家南镇北于八村村民委员会变压器,辛留佐4号农排【纯农排变】,辛留佐9号农排【纯农排变】,辛留佐7号农排【纯农排变】,沈永新,高阳县联城地毯纱厂变压器,高阳县兵永地毯纱厂设备,070019|辛留佐村西北综合5195,07077|北路台综合1729,07018|北于八村东北综合1768,北于八吃水井新增综合,07025|辛留佐村北综合1774,北于八西北1,高阳县灿辉纺织品制造有限公司变压器,辛留佐地毯纱厂,高阳县兵永纺织厂变压器,北于八村北4号,高阳县兵勇地毯纱厂变压器,北于八村东农业,于八乡砖厂,高阳县英利地毯纱厂,070069|路台营村东南2号农排5328【纯农排变】,070070|路台营村东南3号农排5333【纯农排变】,北于八村西2号综合台区,高阳县华阳毛纺染织有限公司变压器,辛留佐针刺厂,冯连栋,丽阳棉纺厂,北于八西北2,北路台村中南农排【纯农排变】,辛留佐纸制品厂,东飞纺织品公司,高阳县邢家南镇路台营村村民委员会三变压器,辛留佐5号农排【纯农排变】,07005|辛留佐村西综合1727,北路台村西远农排【纯农排变】,南晋庄村南4号农排【纯农排变】,高阳县高尚纺织厂变压器,高阳县邢家南镇辛留佐村村民委员会变压器,北路台村南农排【纯农排变】,北于八农业土地开发二号【纯农排变】,辛留佐6号农排【纯农排变】,辛留佐1号农排【纯农排变】,高阳县吉盛纺纱厂变压器,07052|北于八村北综合1705,辛留佐织布厂,北于八西农业,北于八远东","poweroffReason":"【停电原因】由于风刮异物导致３５ＫＶ南路台变电站辛留佐５１５线路全线停电【变更送电】因抢修进度加快原因，送电时间由１０：００变更为０８：００【发布渠道】通过９５５９８发布","powerTime":"2020-04-16 07:42:03","powerComm":"已送电","subsNo":"","lineNo":"","tgNo":"","tgName":null,"infoStatus":"1","orgName":"国网高阳县供电公司","typeName":null,"infoStatusName":null,"dateDay":null,"orgNos":null,"nowTime":null,"countyName":null,"streetName":null,"villageName":null,"roadName":null,"communityName":null,"tranName":null,"sdLineName":null,"cityCode":"1340613","cityName":"国网高阳县供电公司","provinceCode":null,"stopTime":"2020-04-16 08:00:00","powerType":"全部","powerOffArea":"【全线路停电】停高阳县立新纺纱厂,北路台村西中北农排【纯农排变】,辛留佐3号农排【纯农排变】,高阳县辛留佐毛纺厂变压器,南晋庄村西南远6号农排【纯农排变】,立新皮毛厂,高阳县远阳纺织厂变压器,北于八村西变压器,高阳县英利地毯纱,辛留佐2号农排【纯农排变】,高阳县长天纺织有限公司,辛留佐村南2号新增综合,07053|北于八村西综合1706,艳辉毛巾厂,高阳县利阳气流纺织厂变压器,北于八西北3,兴和博宇有限公司,洪银锁,北于八农业土地开发一号【纯农排变】,高阳县邢家南镇北于八村村民委员会变压器,辛留佐4号农排【纯农排变】,辛留佐9号农排【纯农排变】,辛留佐7号农排【纯农排变】,沈永新,高阳县联城地毯纱厂变压器,高阳县兵永地毯纱厂设备,070019|辛留佐村西北综合5195,07077|北路台综合1729,07018|北于八村东北综合1768,北于八吃水井新增综合,07025|辛留佐村北综合1774,北于八西北1,高阳县灿辉纺织品制造有限公司变压器,辛留佐地毯纱厂,高阳县兵永纺织厂变压器,北于八村北4号,高阳县兵勇地毯纱厂变压器,北于八村东农业,于八乡砖厂,高阳县英利地毯纱厂,070069|路台营村东南2号农排5328【纯农排变】,070070|路台营村东南3号农排5333【纯农排变】,北于八村西2号综合台区,高阳县华阳毛纺染织有限公司变压器,辛留佐针刺厂,冯连栋,丽阳棉纺厂,北于八西北2,北路台村中南农排【纯农排变】,辛留佐纸制品厂,东飞纺织品公司,高阳县邢家南镇路台营村村民委员会三变压器,辛留佐5号农排【纯农排变】,07005|辛留佐村西综合1727,北路台村西远农排【纯农排变】,南晋庄村南4号农排【纯农排变】,高阳县高尚纺织厂变压器,高阳县邢家南镇辛留佐村村民委员会变压器,北路台村南农排【纯农排变】,北于八农业土地开发二号【纯农排变】,辛留佐6号农排【纯农排变】,辛留佐1号农排【纯农排变】,高阳县吉盛纺纱厂变压器,07052|北于八村北综合1705,辛留佐织布厂,北于八西农业,北于八远东","powerOffReason":"【停电原因】由于风刮异物导致３５ＫＶ南路台变电站辛留佐５１５线路全线停电【变更送电】因抢修进度加快原因，送电时间由１０：００变更为０８：００【发布渠道】通过９５５９８发布","powerOffId":"2020041613000129"},{"poweroffId":2020041613000125,"sgpoweroffId":null,"subsName":"","lineName":"西田线517","pubTranName":"东田2#大队南综合,东田6号新增综合配变,东田4#村北综合,河北乐肯肯饮用水有限公司变压器,东田1#东南综合,东田7号新增综合配变,高阳县光荣院,东田3#大队北综合,高阳县民政局,东田1#农排【纯农排变】,城关供电所,河北瑞春市场服务有限公司变压器,10036|农贸市场综合,10019|县社南粮库小综合,东田5#村东综合,东田8号新增综合变压器,","scope":"【影响街道/乡镇】城关镇 【高危重要客户】无 【影响客户】东田村（东田果庄）、民政局（敬老院）","startTime":"2020-04-16 01:32:20","stopDate":"2020-04-16 16:00:00","orgNo":"1340613","typeCode":"电网故障停限电","poweroffArea":"【全线路停电】停高阳县民政局,东田1#农排【纯农排变】,河北乐肯肯饮用水有限公司变压器,东田2#大队南综合,10036|农贸市场综合,10019|县社南粮库小综合,东田5#村东综合,东田8号新增综合变压器,东田6号新增综合配变,东田1#东南综合,东田7号新增综合配变,高阳县光荣院,东田4#村北综合,城关供电所,东田3#大队北综合,河北瑞春市场服务有限公司变压器","poweroffReason":"【停电原因】由于风刮异物导致３５ＫＶ城南变电站西田５１７线路全线停电【变更送电】因抢修进度加快原因，送电时间由１８:００变更为１６:００【发布渠道】通过９５５９８发布","powerTime":"2020-04-16 15:02:12","powerComm":"已送电","subsNo":"","lineNo":"","tgNo":"","tgName":null,"infoStatus":"1","orgName":"国网高阳县供电公司","typeName":null,"infoStatusName":null,"dateDay":null,"orgNos":null,"nowTime":null,"countyName":null,"streetName":null,"villageName":null,"roadName":null,"communityName":null,"tranName":null,"sdLineName":null,"cityCode":"1340613","cityName":"国网高阳县供电公司","provinceCode":null,"stopTime":"2020-04-16 16:00:00","powerType":"全部","powerOffArea":"【全线路停电】停高阳县民政局,东田1#农排【纯农排变】,河北乐肯肯饮用水有限公司变压器,东田2#大队南综合,10036|农贸市场综合,10019|县社南粮库小综合,东田5#村东综合,东田8号新增综合变压器,东田6号新增综合配变,东田1#东南综合,东田7号新增综合配变,高阳县光荣院,东田4#村北综合,城关供电所,东田3#大队北综合,河北瑞春市场服务有限公司变压器","powerOffReason":"【停电原因】由于风刮异物导致３５ＫＶ城南变电站西田５１７线路全线停电【变更送电】因抢修进度加快原因，送电时间由１８:００变更为１６:００【发布渠道】通过９５５９８发布","powerOffId":"2020041613000125"},{"poweroffId":2020041613000115,"sgpoweroffId":null,"subsName":"","lineName":"10kv北港542","pubTranName":"码头新增三号变煤,郎庄0733,北港新地变压器【纯农排变】,码头新增七号变煤,码头新增五号变煤,码头新增二十号变煤,码头村正北0719煤增,码头集市0722煤增,北园子新增1台区变煤,码头新增21号变煤,北港村南,涿州市码头地税分局煤柱上变压器,涿州市码头医院煤,码头新增六号变煤,涿州市码头法庭煤,码头新增23号变煤,码头新增十六号变煤,北园子村煤增,码头村西煤增,北港0711,","scope":"【影响街道/乡镇】向阳乡 【高危重要客户】无 【影响客户】码头村、北园子、北港、郎庄、码头镇中学、码头医院","startTime":"2020-04-16 01:13:00","stopDate":"2020-04-16 03:20:00","orgNo":"1340626","typeCode":"电网故障停限电","poweroffArea":"【分支停电】停码头村西煤增,涿州市码头法庭煤,码头新增三号变煤,郎庄0733,北港新地变压器【纯农排变】,码头新增七号变煤,码头新增五号变煤,码头新增二十号变煤,码头村正北0719煤增,码头集市0722煤增,北园子新增1台区变煤,码头新增21号变煤,北港村南,涿州市码头地税分局煤柱上变压器,涿州市码头医院煤,码头新增六号变煤,北港0711,码头新增23号变煤,码头新增十六号变煤,北园子村煤增","poweroffReason":"【停电原因】由于雷雨天气导致２２０ＫＶ党庄变电站１０ＫＶ北港５４２线路北港分支０７号杆以下线路停电 【变更送电】因抢修进度加快原因，送电时间由１５：００变更为０３：２０ 【发布渠道】通过９５５９９发布","powerTime":"2020-04-16 02:56:49","powerComm":"恢复送电","subsNo":"","lineNo":"","tgNo":"","tgName":null,"infoStatus":"1","orgName":"国网涿州市供电公司","typeName":null,"infoStatusName":null,"dateDay":null,"orgNos":null,"nowTime":null,"countyName":null,"streetName":null,"villageName":null,"roadName":null,"communityName":null,"tranName":null,"sdLineName":null,"cityCode":"1340626","cityName":"国网涿州市供电公司","provinceCode":null,"stopTime":"2020-04-16 03:20:00","powerType":"全部","powerOffArea":"【分支停电】停码头村西煤增,涿州市码头法庭煤,码头新增三号变煤,郎庄0733,北港新地变压器【纯农排变】,码头新增七号变煤,码头新增五号变煤,码头新增二十号变煤,码头村正北0719煤增,码头集市0722煤增,北园子新增1台区变煤,码头新增21号变煤,北港村南,涿州市码头地税分局煤柱上变压器,涿州市码头医院煤,码头新增六号变煤,北港0711,码头新增23号变煤,码头新增十六号变煤,北园子村煤增","powerOffReason":"【停电原因】由于雷雨天气导致２２０ＫＶ党庄变电站１０ＫＶ北港５４２线路北港分支０７号杆以下线路停电 【变更送电】因抢修进度加快原因，送电时间由１５：００变更为０３：２０ 【发布渠道】通过９５５９９发布","powerOffId":"2020041613000115"},{"poweroffId":2020041613000114,"sgpoweroffId":null,"subsName":"","lineName":"10kV568工专线","pubTranName":"北祝津通油漆厂,公路标线漆厂,河北省博通饼业,10kV568工专线17064台区变压器,河北省博野县先锋印铁2,0469539833-河北春风衬布有限公司-专变-126634962-河北春风衬布有限公司,河北省博野县先锋印铁,","scope":"【影响街道/乡镇】小店镇【高危重要客户】无【影响客户】博通饼干、张营村","startTime":"2020-04-16 01:12:05","stopDate":"2020-04-16 09:30:00","orgNo":"1340608","typeCode":"电网故障停限电","poweroffArea":"【全线路停电】停河北省博野县先锋印铁,北祝津通油漆厂,公路标线漆厂,河北省博通饼业,10kV568工专线17064台区变压器,河北省博野县先锋印铁2,0469539833-河北春风衬布有限公司-专变-126634962-河北春风衬布有限公司","poweroffReason":"【停电原因】由于站外开关跳闸导致１１０ＫＶ胡庄变电站工专５６８线路全线停电【变更送电】因抢修进度加快原因，送电时间由１２：００变更为０９：３０【发布渠道】通过９５５９８发布","powerTime":"2020-04-16 08:53:44","powerComm":"已送电","subsNo":"","lineNo":"","tgNo":"","tgName":null,"infoStatus":"1","orgName":"国网博野县供电公司","typeName":null,"infoStatusName":null,"dateDay":null,"orgNos":null,"nowTime":null,"countyName":null,"streetName":null,"villageName":null,"roadName":null,"communityName":null,"tranName":null,"sdLineName":null,"cityCode":"1340608","cityName":"国网博野县供电公司","provinceCode":null,"stopTime":"2020-04-16 09:30:00","powerType":"全部","powerOffArea":"【全线路停电】停河北省博野县先锋印铁,北祝津通油漆厂,公路标线漆厂,河北省博通饼业,10kV568工专线17064台区变压器,河北省博野县先锋印铁2,0469539833-河北春风衬布有限公司-专变-126634962-河北春风衬布有限公司","powerOffReason":"【停电原因】由于站外开关跳闸导致１１０ＫＶ胡庄变电站工专５６８线路全线停电【变更送电】因抢修进度加快原因，送电时间由１２：００变更为０９：３０【发布渠道】通过９５５９８发布","powerOffId":"2020041613000114"},{"poweroffId":2020041613000112,"sgpoweroffId":null,"subsName":"","lineName":"坎苇线515","pubTranName":"03055|新南坎苇村西综合,03019|杨庄综合,03073|新陈庄西北综合,高阳县华清池洗浴变压器,杨保贵,杨庄塑料厂,高阳县海滨农机配件厂变压器,高阳县庞口镇北庞口村民委员会变压器,天剑液压机械公司,河北香格尔饮业有限公司,高阳县供电公司庞口供电所变压器,张志发厂,高阳县红月农机配件厂变压器,高阳县幸义农业机械配件厂变压器,北庞口橡胶厂,0637008400-高阳县昌泰弹簧制造有限公司-专变-148263550-高阳县昌泰弹簧制造有限公司变压器,高阳县三鑫农用车配件厂变压器,03006|北坎苇村东(2)综合,陈庄大队综合,保定绿科新型建材制造有限公司设备,03072|新陈庄西南综合,张淑娜,董永新变压器,高阳县康利达扣板厂变压器,河北凯安农业机械制造有限公司变压器,坎苇饮料厂,高阳县昌泰弹簧制造有限公司变压器,张僧第,陈庄陈新春,陈庄果园综合,保定天剑液压机械有限公司,高阳县光华液压机械有限公司变压器,高庄砖厂,北庞口村西,03007|北坎苇村西(2)综合,南坎苇村东,南坎苇,新福塑料厂,高阳县陈庄兰坤弹簧厂变压器,河北雅鑫复合材料制造有限公司变压器,高阳县东旺养猪厂变压器,张占江,北坎苇村东,陈庄村东,03059|北庞口村北新综合,张双喜,03075|新陈庄村东综合,北坎苇村北综合,03014|北坎苇大队综合,高阳县嘉信市政建设公司变压器,西庞口灯具厂,杨树德,光华液压机械厂,03074|新陈庄村北综合,保定三合井泉泵业有限公司变压器,北庞口鱼池,刘兵,庞口南坎苇村委会变压器,高阳县利军拉叉配件厂变压器,高阳县庞口加油站变压器,陈家庄村村民委员会变压器,高阳县陈庄加油站,张建军,高阳县庞口镇北庞口变压器,北庞口村北,闫长明,高阳县亚贸收获机械配件厂变压器,绵羊饲养厂变压器,北庞口村东综合,杨树科,北坎苇(东北),高阳县振兴纸箱厂变压器,北坎苇村西,03056|南坎苇村里综合,03058|北庞口村里新综合,保定德恒液压机械制造有限公司变压器,李玉坤,张东海,03057|北庞口村南新综合,保定永跃商贸有限公司变压器,高阳县文斌插秧机配件经销处变压器,03076|新陈庄村南综合,张东,李天增,蒋月明,保定天剑液压机械有限公司变压器,高阳县运生液压机械厂变压器,雨禾农业机械变压器,03091|陈庄村东南综合,陈庄村北,高阳县光峰钢圈厂变压器,北京世纪星润滑油工贸有限责任公司高阳县陈庄润滑油分装分公司变压器,南坎苇新增综合2,陈庄轮胎翻新厂,03008|北坎苇西北综合,","scope":"【影响街道/乡镇】庞口镇 【高危重要客户】无 【影响客户】陈家庄（陈庄）、南坎苇、北坎苇、东杨庄（杨庄）、北庞口","startTime":"2020-04-16 01:07:27","stopDate":"2020-04-16 09:00:00","orgNo":"1340613","typeCode":"电网故障停限电","poweroffArea":"【全线路停电】停董永新变压器,高阳县庞口镇北庞口村民委员会变压器,高阳县三鑫农用车配件厂变压器,03057|北庞口村南新综合,张志发厂,北坎苇(东北),高阳县海滨农机配件厂变压器,高阳县文斌插秧机配件经销处变压器,高阳县红月农机配件厂变压器,03074|新陈庄村北综合,保定三合井泉泵业有限公司变压器,0637008400-高阳县昌泰弹簧制造有限公司-专变-148263550-高阳县昌泰弹簧制造有限公司变压器,03006|北坎苇村东(2)综合,保定永跃商贸有限公司变压器,河北雅鑫复合材料制造有限公司变压器,03073|新陈庄西北综合,北京世纪星润滑油工贸有限责任公司高阳县陈庄润滑油分装分公司变压器,高阳县康利达扣板厂变压器,高阳县东旺养猪厂变压器,李天增,高阳县嘉信市政建设公司变压器,光华液压机械厂,张僧第,南坎苇,西庞口灯具厂,河北凯安农业机械制造有限公司变压器,北坎苇村东,03072|新陈庄西南综合,天剑液压机械公司,北庞口橡胶厂,陈庄陈新春,杨树科,陈庄果园综合,南坎苇村东,保定天剑液压机械有限公司变压器,陈庄村东,坎苇饮料厂,南坎苇新增综合2,03055|新南坎苇村西综合,高阳县利军拉叉配件厂变压器,保定德恒液压机械制造有限公司变压器,陈庄轮胎翻新厂,杨保贵,保定天剑液压机械有限公司,03058|北庞口村里新综合,03059|北庞口村北新综合,庞口南坎苇村委会变压器,蒋月明,高阳县庞口镇北庞口变压器,高阳县庞口加油站变压器,绵羊饲养厂变压器,高阳县运生液压机械厂变压器,高阳县幸义农业机械配件厂变压器,张双喜,陈家庄村村民委员会变压器,杨庄塑料厂,闫长明,张占江,高阳县陈庄加油站,张建军,高阳县昌泰弹簧制造有限公司变压器,北庞口村东综合,高庄砖厂,03056|南坎苇村里综合,北庞口村西,高阳县光华液压机械有限公司变压器,03007|北坎苇村西(2)综合,张东海,杨树德,03075|新陈庄村东综合,李玉坤,高阳县亚贸收获机械配件厂变压器,高阳县振兴纸箱厂变压器,03019|杨庄综合,保定绿科新型建材制造有限公司设备,高阳县华清池洗浴变压器,03008|北坎苇西北综合,北坎苇村北综合,03076|新陈庄村南综合,雨禾农业机械变压器,陈庄大队综合,新福塑料厂,张东,03091|陈庄村东南综合,河北香格尔饮业有限公司,高阳县陈庄兰坤弹簧厂变压器,刘兵,陈庄村北,高阳县供电公司庞口供电所变压器,03014|北坎苇大队综合,北庞口鱼池,高阳县光峰钢圈厂变压器,张淑娜,北坎苇村西,北庞口村北","poweroffReason":"【停电原因】由于风刮异物导致３５ＫＶ庞口变电站坎苇５１５线路全线停电【变更送电】无【发布渠道】通过９５５９８发布","powerTime":"2020-04-16 08:46:11","powerComm":"已送电","subsNo":"","lineNo":"","tgNo":"","tgName":null,"infoStatus":"1","orgName":"国网高阳县供电公司","typeName":null,"infoStatusName":null,"dateDay":null,"orgNos":null,"nowTime":null,"countyName":null,"streetName":null,"villageName":null,"roadName":null,"communityName":null,"tranName":null,"sdLineName":null,"cityCode":"1340613","cityName":"国网高阳县供电公司","provinceCode":null,"stopTime":"2020-04-16 09:00:00","powerType":"全部","powerOffArea":"【全线路停电】停董永新变压器,高阳县庞口镇北庞口村民委员会变压器,高阳县三鑫农用车配件厂变压器,03057|北庞口村南新综合,张志发厂,北坎苇(东北),高阳县海滨农机配件厂变压器,高阳县文斌插秧机配件经销处变压器,高阳县红月农机配件厂变压器,03074|新陈庄村北综合,保定三合井泉泵业有限公司变压器,0637008400-高阳县昌泰弹簧制造有限公司-专变-148263550-高阳县昌泰弹簧制造有限公司变压器,03006|北坎苇村东(2)综合,保定永跃商贸有限公司变压器,河北雅鑫复合材料制造有限公司变压器,03073|新陈庄西北综合,北京世纪星润滑油工贸有限责任公司高阳县陈庄润滑油分装分公司变压器,高阳县康利达扣板厂变压器,高阳县东旺养猪厂变压器,李天增,高阳县嘉信市政建设公司变压器,光华液压机械厂,张僧第,南坎苇,西庞口灯具厂,河北凯安农业机械制造有限公司变压器,北坎苇村东,03072|新陈庄西南综合,天剑液压机械公司,北庞口橡胶厂,陈庄陈新春,杨树科,陈庄果园综合,南坎苇村东,保定天剑液压机械有限公司变压器,陈庄村东,坎苇饮料厂,南坎苇新增综合2,03055|新南坎苇村西综合,高阳县利军拉叉配件厂变压器,保定德恒液压机械制造有限公司变压器,陈庄轮胎翻新厂,杨保贵,保定天剑液压机械有限公司,03058|北庞口村里新综合,03059|北庞口村北新综合,庞口南坎苇村委会变压器,蒋月明,高阳县庞口镇北庞口变压器,高阳县庞口加油站变压器,绵羊饲养厂变压器,高阳县运生液压机械厂变压器,高阳县幸义农业机械配件厂变压器,张双喜,陈家庄村村民委员会变压器,杨庄塑料厂,闫长明,张占江,高阳县陈庄加油站,张建军,高阳县昌泰弹簧制造有限公司变压器,北庞口村东综合,高庄砖厂,03056|南坎苇村里综合,北庞口村西,高阳县光华液压机械有限公司变压器,03007|北坎苇村西(2)综合,张东海,杨树德,03075|新陈庄村东综合,李玉坤,高阳县亚贸收获机械配件厂变压器,高阳县振兴纸箱厂变压器,03019|杨庄综合,保定绿科新型建材制造有限公司设备,高阳县华清池洗浴变压器,03008|北坎苇西北综合,北坎苇村北综合,03076|新陈庄村南综合,雨禾农业机械变压器,陈庄大队综合,新福塑料厂,张东,03091|陈庄村东南综合,河北香格尔饮业有限公司,高阳县陈庄兰坤弹簧厂变压器,刘兵,陈庄村北,高阳县供电公司庞口供电所变压器,03014|北坎苇大队综合,北庞口鱼池,高阳县光峰钢圈厂变压器,张淑娜,北坎苇村西,北庞口村北","powerOffReason":"【停电原因】由于风刮异物导致３５ＫＶ庞口变电站坎苇５１５线路全线停电【变更送电】无【发布渠道】通过９５５９８发布","powerOffId":"2020041613000112"}],"pageModel":{"pageNow":171,"totalCount":10973,"totalPage":1098,"tableRows":0,"pageCount":10,"beginCount":1700},"isExperi":"1"}