{"message":"","today":"2020-06-15","seleList":[{"poweroffId":2020041313000434,"sgpoweroffId":null,"subsName":"","lineName":"白洋580","pubTranName":"石门店村6#,徐家厂4#,夏庄村3#,石门店村7#,石门店村2#村内,夏庄村12#,夏庄村10#,徐家厂6#【纯农排变】,徐家厂村1#,夏庄村5#,夏庄13台区,石门店村1#,夏庄村2#,夏庄村4#,夏庄村11#,夏庄村1#,夏庄村9#,夏庄6,徐家厂村3#,徐家厂2#,夏庄村8#,徐家厂5台区变压器,夏庄7#,","scope":"【影响街道/乡镇】梁格庄镇【高危重要客户】无【影响客户】徐家厂村、夏庄村、石门店村","startTime":"2020-04-13 18:01:34","stopDate":"2020-04-13 19:30:00","orgNo":"1340625","typeCode":"电网故障停限电","poweroffArea":"【全线路停电】停石门店村1#,夏庄村2#,54001990|养路工区(3#*200KVA),电力线材厂(50KVA),石门店砖厂(吴永财),夏庄村1#,夏庄村9#,易县景安广告服务有限公司变压器,唐山公路建设总公司-临电315,易通天然石材80KVA,易县鑫圣达天然气销售有限公司变压器,梁格庄信用社100KVA,夏庄6,徐家厂村3#,夏庄砖厂,夏庄村8#,保定市交通运输局公路管理处易县养路工区变压器,纸箱厂,夏庄7#,省技术开发公司大理石厂(马建军),易县收费站,西陵审计培训中心(迎宾花园),夏庄村4#,石油物探局地调五处易县加油站,石门店伊永红,天工石材加工厂,夏庄村11#,徐家厂5台区变压器,清源大理石厂(俞),易县清源大理石厂,0630487107-韩家庄村张文广-专变-141664495-韩家庄村张文广变压器,夏庄13台区,易县永昌石质工艺品加工厂,易通天然石材厂,鼎力建材50KVA,下庄砖厂,易县裕盛达水泥厂200,徐家厂2#,张建杰,易县梁格庄镇石门店村民委员会变压器,易县交通局运管站,石门店村6#,电力线材厂(250KVA),夏庄村俞洪春变压器,徐家厂4#,夏庄村3#,易县保江液化气站变压器,石门店村7#,王建石材厂,易县佳诚食品制造有限公司-160KVA,石门店村2#村内,夏庄村12#,夏庄村10#,54001280|养路工区(2#*250KVA),赵振满石板厂,高涛大理石厂,太行石材厂,徐家厂6#【纯农排变】,梁格庄派出所50,易县景安中医医院1000KVA,徐家厂村1#,夏庄村5#,河北瑞耀天淀粉制造有限公司,石门店石料厂(杨春生)","poweroffReason":"【停电原因】由于张建军分支３号杆刀闸烧毁导致１１０ＫＶ店北变电站白洋５８０线路全线停电【变更送电】因抢修进度加快原因，送电时间２１：００变更为１９：３０【发布渠道】通过９５５９８发布","powerTime":"2020-04-13 19:05:14","powerComm":"已送电","subsNo":"","lineNo":"","tgNo":"","tgName":null,"infoStatus":"1","orgName":"国网易县供电公司","typeName":null,"infoStatusName":null,"dateDay":null,"orgNos":null,"nowTime":null,"countyName":null,"streetName":null,"villageName":null,"roadName":null,"communityName":null,"tranName":null,"sdLineName":null,"cityCode":"1340625","cityName":"国网易县供电公司","provinceCode":null,"stopTime":"2020-04-13 19:30:00","powerType":"全部","powerOffArea":"【全线路停电】停石门店村1#,夏庄村2#,54001990|养路工区(3#*200KVA),电力线材厂(50KVA),石门店砖厂(吴永财),夏庄村1#,夏庄村9#,易县景安广告服务有限公司变压器,唐山公路建设总公司-临电315,易通天然石材80KVA,易县鑫圣达天然气销售有限公司变压器,梁格庄信用社100KVA,夏庄6,徐家厂村3#,夏庄砖厂,夏庄村8#,保定市交通运输局公路管理处易县养路工区变压器,纸箱厂,夏庄7#,省技术开发公司大理石厂(马建军),易县收费站,西陵审计培训中心(迎宾花园),夏庄村4#,石油物探局地调五处易县加油站,石门店伊永红,天工石材加工厂,夏庄村11#,徐家厂5台区变压器,清源大理石厂(俞),易县清源大理石厂,0630487107-韩家庄村张文广-专变-141664495-韩家庄村张文广变压器,夏庄13台区,易县永昌石质工艺品加工厂,易通天然石材厂,鼎力建材50KVA,下庄砖厂,易县裕盛达水泥厂200,徐家厂2#,张建杰,易县梁格庄镇石门店村民委员会变压器,易县交通局运管站,石门店村6#,电力线材厂(250KVA),夏庄村俞洪春变压器,徐家厂4#,夏庄村3#,易县保江液化气站变压器,石门店村7#,王建石材厂,易县佳诚食品制造有限公司-160KVA,石门店村2#村内,夏庄村12#,夏庄村10#,54001280|养路工区(2#*250KVA),赵振满石板厂,高涛大理石厂,太行石材厂,徐家厂6#【纯农排变】,梁格庄派出所50,易县景安中医医院1000KVA,徐家厂村1#,夏庄村5#,河北瑞耀天淀粉制造有限公司,石门店石料厂(杨春生)","powerOffReason":"【停电原因】由于张建军分支３号杆刀闸烧毁导致１１０ＫＶ店北变电站白洋５８０线路全线停电【变更送电】因抢修进度加快原因，送电时间２１：００变更为１９：３０【发布渠道】通过９５５９８发布","powerOffId":"2020041313000434"},{"poweroffId":2020041313000415,"sgpoweroffId":null,"subsName":"","lineName":"10kV512沈家庄线","pubTranName":"沈家庄公用农业3台区【纯农排变】,沈家庄公用照明9台区,沈家庄公用照明3台区,沈家庄公用照明5台区,沈家庄公用农业5台区【纯农排变】,沈家庄公用农业4台区【纯农排变】,沈家庄公用农业2台区【纯农排变】,沈家庄公用照明7台区,沈家庄公用照明10台区,沈家庄公用照明6台区,沈家庄公用照明1台区,沈家庄公用农业9台区【纯农排变】,定州市瑞锋金刚石有限公司变压器,定州市明卫面粉厂变压器,定州市庞村镇庞村村民委员会(庞村五方),沈家庄公用照明8台区,沈家庄公用照明2台区,沈家庄公用照明4台区,沈家庄公用农业7台区【纯农排变】,定州市砖路镇沈家庄社区村委会变压器,沈家庄公用农业6台区【纯农排变】,沈家庄公用照明11台区,沈家庄公用农业8台区【纯农排变】,定州市尚石石业有限公司变压器,定州市庞村镇庞村村民委员会,","scope":"【影响街道/乡镇】砖路镇【高危重要客户】无【影响客户】沈家庄村","startTime":"2020-04-13 17:20:02","stopDate":"2020-04-13 18:30:00","orgNo":"1340610","typeCode":"电网故障停限电","poweroffArea":"【全线路停电】停沈家庄公用照明9台区,沈家庄公用照明3台区,沈家庄公用照明5台区,沈家庄公用农业5台区【纯农排变】,沈家庄公用农业4台区【纯农排变】,沈家庄公用农业2台区【纯农排变】,沈家庄公用照明7台区,沈家庄公用照明10台区,沈家庄公用照明6台区,沈家庄公用照明1台区,沈家庄公用照明8台区,沈家庄公用照明2台区,沈家庄公用照明4台区,沈家庄公用农业7台区【纯农排变】,定州市砖路镇沈家庄社区村委会变压器,沈家庄公用农业6台区【纯农排变】,沈家庄公用照明11台区,沈家庄公用农业8台区【纯农排变】,定州市尚石石业有限公司变压器,定州市庞村镇庞村村民委员会,沈家庄公用农业3台区【纯农排变】,沈家庄公用农业9台区【纯农排变】,定州市瑞锋金刚石有限公司变压器,定州市明卫面粉厂变压器,定州市庞村镇庞村村民委员会(庞村五方)","poweroffReason":"【停电原因】由于Ａ相接地导致３５ＫＶ北庞村变电站１０ＫＶ５１２沈家庄线路全线停电 【变更送电】因抢修进度加快原因，送电时间由２３：００变更为１８：３０ 【发布渠道】９５５９８","powerTime":"2020-04-13 18:09:16","powerComm":"已送电","subsNo":"","lineNo":"","tgNo":"","tgName":null,"infoStatus":"1","orgName":"国网定州市供电公司","typeName":null,"infoStatusName":null,"dateDay":null,"orgNos":null,"nowTime":null,"countyName":null,"streetName":null,"villageName":null,"roadName":null,"communityName":null,"tranName":null,"sdLineName":null,"cityCode":"1340610","cityName":"国网定州市供电公司","provinceCode":null,"stopTime":"2020-04-13 18:30:00","powerType":"全部","powerOffArea":"【全线路停电】停沈家庄公用照明9台区,沈家庄公用照明3台区,沈家庄公用照明5台区,沈家庄公用农业5台区【纯农排变】,沈家庄公用农业4台区【纯农排变】,沈家庄公用农业2台区【纯农排变】,沈家庄公用照明7台区,沈家庄公用照明10台区,沈家庄公用照明6台区,沈家庄公用照明1台区,沈家庄公用照明8台区,沈家庄公用照明2台区,沈家庄公用照明4台区,沈家庄公用农业7台区【纯农排变】,定州市砖路镇沈家庄社区村委会变压器,沈家庄公用农业6台区【纯农排变】,沈家庄公用照明11台区,沈家庄公用农业8台区【纯农排变】,定州市尚石石业有限公司变压器,定州市庞村镇庞村村民委员会,沈家庄公用农业3台区【纯农排变】,沈家庄公用农业9台区【纯农排变】,定州市瑞锋金刚石有限公司变压器,定州市明卫面粉厂变压器,定州市庞村镇庞村村民委员会(庞村五方)","powerOffReason":"【停电原因】由于Ａ相接地导致３５ＫＶ北庞村变电站１０ＫＶ５１２沈家庄线路全线停电 【变更送电】因抢修进度加快原因，送电时间由２３：００变更为１８：３０ 【发布渠道】９５５９８","powerOffId":"2020041313000415"},{"poweroffId":2020041313000368,"sgpoweroffId":null,"subsName":"","lineName":"部队线516","pubTranName":"艾河村西,刘家嘴光伏4,涞源县隆威土地整理有限公司变压器1,涞源县聚能农牧专业合作社变压器,艾河4,中国能源建设集团山西电力建设第三有限公司变压器,西道沟3,河北省高速公路荣乌管理处变压器,西道沟机井1,516北石佛6,刘家嘴4【三批中心村】,红泉村东,66274部队,河北建设集团天辰建筑工程有限公司变压器2,白绸5,刘家嘴2【三批中心村】,河北中凯建设工程有限公司变压器2,涞源县北石佛乡艾河村村民委员会变压器4,刘家嘴光伏2,红泉村西,保定市信达建筑工程有限公司变压器3,保定市信达建筑工程有限公司变压器5,涞源县北石佛乡刘家嘴村村民委员会变压器,保定市信达建筑工程有限公司变压器7,保定市信达建筑工程有限公司变压器1,涞源县博韬旅游开发有限公司变压器,涞源县隆威土地整理有限公司变压器2,红泉村光伏变压器【光伏】,涞源县隆威土地整理有限公司变压器4,涞源县正飞土地整理有限公司变压器2,涞源县隆威土地整理有限公司变压器5,涞源县红泉钙业有限公司变压器,北京铁路局北京供电段变压器2,涞源县北石佛乡艾河村村民委员会变压器3,红泉钙业有限公司2,北石佛4,涞源县北石佛乡西道沟村村民委员会变压器,北石佛村5,516北石佛5,涞源县沃盛硅肥厂变压器,龙河水,刘家嘴光伏3,保定市信达建筑工程有限公司变压器4,北石佛服务区充电桩2号箱变出线间隔配电变压器,刘家嘴光伏1,北石佛服务区充电桩1号箱变出线间隔配电变压器,河北省涞源县北石佛中学变压器,保定市信达建筑工程有限公司变压器2,河北建设集团天辰建筑工程有限公司变压器4,河北中凯建设工程有限公司变压器5,北京铁路局北京供电段变压器1,0683193802-涞源县富民土地开发有限责任公司-专变-221831987-涞源县富民土地开发有限责任公司变压器,涞源县北石佛乡中心小学变压器2,涞源县森漫绿化有限公司台区,涞源县北石佛乡艾河村村民委员会变压器1,河北中凯建设工程有限公司变压器3,河北尚林农业科技有限公司变压器2,涞源县隆威土地整理有限公司变压器3,涞源县双修中药材种植农民专业合作社变压器,河北建设集团天辰建筑工程有限公司变压器3,刘家嘴光伏5,涞源县肥栏畜禽饲养有限公司变压器,艾河3,涞源县正飞土地整理有限公司变压器3,涞源县北石佛乡中心小学变压器1,河北中凯建设工程有限公司变压器1,河北中凯建设工程有限公司变压器4,红泉钙业有限公司1,变压器002#,涞源县北石佛乡北石佛村村民委员会变压器,刘家嘴3【三批中心村】,涞源县北石佛乡红泉村村民委员会变压器1,白绸3,涞源县正飞土地整理有限公司变压器1,红泉钙业有限公司(水),白绸4,艾河村东,西道沟机井2,红泉钙业有限公司3,河北尚林农业科技有限公司变压器1,白绸2,涞源站516驿马岭村,刘家咀村光伏变压器【光伏】,涞源县北石佛乡红泉村村民委员会变压器2,变压器001#,北京铁路局北京供电段变压器3,涞源县北石佛乡艾河村村民委员会变压器2,516北石佛7,涞源县北石佛乡中心小学红泉小学变压器,保定市信达建筑工程有限公司变压器6,中国移动通信集团河北有限公司涞源分公司变压器,白绸1,北石佛4+1【三批中心村】,刘家嘴1【三批中心村】,涞源县","scope":"【影响街道/乡镇】北石佛乡【高危重要客户】无【影响客户】白绸、刘家嘴、艾河、红泉、北石佛、龙河水、艾河部队、北石佛小学、红泉小学、荣乌高速管理处","startTime":"2020-04-25 08:00:00","stopDate":"2020-04-25 17:00:00","orgNo":"1340615","typeCode":"计划停电","poweroffArea":"【全线路停电】停变压器002#,艾河村西,刘家嘴光伏4,涞源县隆威土地整理有限公司变压器1,涞源县聚能农牧专业合作社变压器,艾河4,中国能源建设集团山西电力建设第三有限公司变压器,西道沟3,河北省高速公路荣乌管理处变压器,西道沟机井1,516北石佛6,刘家嘴4【三批中心村】,红泉村东,66274部队,河北建设集团天辰建筑工程有限公司变压器2,白绸5,刘家嘴2【三批中心村】,河北中凯建设工程有限公司变压器2,涞源县北石佛乡艾河村村民委员会变压器4,涞源县隆威土地整理有限公司变压器4,刘家嘴光伏2,刘家嘴光伏1,河北建设集团天辰建筑工程有限公司变压器4,0683193802-涞源县富民土地开发有限责任公司-专变-221831987-涞源县富民土地开发有限责任公司变压器,河北中凯建设工程有限公司变压器3,河北建设集团天辰建筑工程有限公司变压器3,艾河3,涞源县正飞土地整理有限公司变压器3,涞源县北石佛乡中心小学变压器1,河北中凯建设工程有限公司变压器1,河北中凯建设工程有限公司变压器4,红泉钙业有限公司1,河北中凯建设工程有限公司变压器5,涞源县北石佛乡北石佛村村民委员会变压器,刘家嘴3【三批中心村】,涞源县北石佛乡红泉村村民委员会变压器1,白绸3,涞源县正飞土地整理有限公司变压器1,红泉钙业有限公司(水),白绸4,西道沟机井2,红泉钙业有限公司3,红泉钙业有限公司2,北石佛4,涞源县北石佛乡西道沟村村民委员会变压器,516北石佛5,涞源县沃盛硅肥厂变压器,刘家嘴光伏3,北石佛服务区充电桩1号箱变出线间隔配电变压器,河北省涞源县北石佛中学变压器,保定市信达建筑工程有限公司变压器2,北京铁路局北京供电段变压器1,红泉村西,保定市信达建筑工程有限公司变压器3,保定市信达建筑工程有限公司变压器5,涞源县北石佛乡刘家嘴村村民委员会变压器,保定市信达建筑工程有限公司变压器7,保定市信达建筑工程有限公司变压器1,涞源县博韬旅游开发有限公司变压器,红泉村光伏变压器【光伏】,涞源县正飞土地整理有限公司变压器2,涞源县隆威土地整理有限公司变压器5,涞源县红泉钙业有限公司变压器,涞源县北石佛乡艾河村村民委员会变压器3,龙河水,保定市信达建筑工程有限公司变压器4,北石佛服务区充电桩2号箱变出线间隔配电变压器,涞源县北石佛乡中心小学变压器2,涞源县森漫绿化有限公司台区,河北尚林农业科技有限公司变压器2,涞源县隆威土地整理有限公司变压器3,刘家嘴光伏5,涞源县肥栏畜禽饲养有限公司变压器,艾河村东,涞源县隆威土地整理有限公司变压器2,北京铁路局北京供电段变压器2,北石佛村5,河北建设集团天辰建筑工程有限公司变压器1,涞源县北石佛乡艾河村村民委员会变压器1,涞源县双修中药材种植农民专业合作社变压器,河北尚林农业科技有限公司变压器1,白绸2,涞源站516驿马岭村,刘家咀村光伏变压器【光伏】,刘家嘴1【三批中心村】,涞源县北石佛乡红泉村村民委员会变压器2,变压器001#,北京铁路局北京供电段变压器3,涞源县北石佛乡艾河村村民委员会变压器2,516北石佛7,涞源县北石佛乡中心小学红泉小学变压器,保定市信达建筑工程有限公司变压器6,中国移动通信集团河北有限公司涞源分公司变压器,白绸1,北石佛4+1【三批中心村】,涞源县北石佛乡红泉村村民委员会变压器","poweroffReason":"【停电原因】由于线路春季检修导致１１０ＫＶ涞源变电站１０ＫＶ部队线５１６线路全线停电【变更送电】无【发布渠道】涞源电视台（２０２０年４月１３日至２０２０年４月２４日）屏幕上方滚动","powerTime":"2020-04-25 16:12:25","powerComm":"已送电","subsNo":"","lineNo":"","tgNo":"","tgName":null,"infoStatus":"1","orgName":"国网涞源县供电公司","typeName":null,"infoStatusName":null,"dateDay":null,"orgNos":null,"nowTime":null,"countyName":null,"streetName":null,"villageName":null,"roadName":null,"communityName":null,"tranName":null,"sdLineName":null,"cityCode":"1340615","cityName":"国网涞源县供电公司","provinceCode":null,"stopTime":"2020-04-25 17:00:00","powerType":"全部","powerOffArea":"【全线路停电】停变压器002#,艾河村西,刘家嘴光伏4,涞源县隆威土地整理有限公司变压器1,涞源县聚能农牧专业合作社变压器,艾河4,中国能源建设集团山西电力建设第三有限公司变压器,西道沟3,河北省高速公路荣乌管理处变压器,西道沟机井1,516北石佛6,刘家嘴4【三批中心村】,红泉村东,66274部队,河北建设集团天辰建筑工程有限公司变压器2,白绸5,刘家嘴2【三批中心村】,河北中凯建设工程有限公司变压器2,涞源县北石佛乡艾河村村民委员会变压器4,涞源县隆威土地整理有限公司变压器4,刘家嘴光伏2,刘家嘴光伏1,河北建设集团天辰建筑工程有限公司变压器4,0683193802-涞源县富民土地开发有限责任公司-专变-221831987-涞源县富民土地开发有限责任公司变压器,河北中凯建设工程有限公司变压器3,河北建设集团天辰建筑工程有限公司变压器3,艾河3,涞源县正飞土地整理有限公司变压器3,涞源县北石佛乡中心小学变压器1,河北中凯建设工程有限公司变压器1,河北中凯建设工程有限公司变压器4,红泉钙业有限公司1,河北中凯建设工程有限公司变压器5,涞源县北石佛乡北石佛村村民委员会变压器,刘家嘴3【三批中心村】,涞源县北石佛乡红泉村村民委员会变压器1,白绸3,涞源县正飞土地整理有限公司变压器1,红泉钙业有限公司(水),白绸4,西道沟机井2,红泉钙业有限公司3,红泉钙业有限公司2,北石佛4,涞源县北石佛乡西道沟村村民委员会变压器,516北石佛5,涞源县沃盛硅肥厂变压器,刘家嘴光伏3,北石佛服务区充电桩1号箱变出线间隔配电变压器,河北省涞源县北石佛中学变压器,保定市信达建筑工程有限公司变压器2,北京铁路局北京供电段变压器1,红泉村西,保定市信达建筑工程有限公司变压器3,保定市信达建筑工程有限公司变压器5,涞源县北石佛乡刘家嘴村村民委员会变压器,保定市信达建筑工程有限公司变压器7,保定市信达建筑工程有限公司变压器1,涞源县博韬旅游开发有限公司变压器,红泉村光伏变压器【光伏】,涞源县正飞土地整理有限公司变压器2,涞源县隆威土地整理有限公司变压器5,涞源县红泉钙业有限公司变压器,涞源县北石佛乡艾河村村民委员会变压器3,龙河水,保定市信达建筑工程有限公司变压器4,北石佛服务区充电桩2号箱变出线间隔配电变压器,涞源县北石佛乡中心小学变压器2,涞源县森漫绿化有限公司台区,河北尚林农业科技有限公司变压器2,涞源县隆威土地整理有限公司变压器3,刘家嘴光伏5,涞源县肥栏畜禽饲养有限公司变压器,艾河村东,涞源县隆威土地整理有限公司变压器2,北京铁路局北京供电段变压器2,北石佛村5,河北建设集团天辰建筑工程有限公司变压器1,涞源县北石佛乡艾河村村民委员会变压器1,涞源县双修中药材种植农民专业合作社变压器,河北尚林农业科技有限公司变压器1,白绸2,涞源站516驿马岭村,刘家咀村光伏变压器【光伏】,刘家嘴1【三批中心村】,涞源县北石佛乡红泉村村民委员会变压器2,变压器001#,北京铁路局北京供电段变压器3,涞源县北石佛乡艾河村村民委员会变压器2,516北石佛7,涞源县北石佛乡中心小学红泉小学变压器,保定市信达建筑工程有限公司变压器6,中国移动通信集团河北有限公司涞源分公司变压器,白绸1,北石佛4+1【三批中心村】,涞源县北石佛乡红泉村村民委员会变压器","powerOffReason":"【停电原因】由于线路春季检修导致１１０ＫＶ涞源变电站１０ＫＶ部队线５１６线路全线停电【变更送电】无【发布渠道】涞源电视台（２０２０年４月１３日至２０２０年４月２４日）屏幕上方滚动","powerOffId":"2020041313000368"},{"poweroffId":2020041313000355,"sgpoweroffId":null,"subsName":"","lineName":"10kV马兰547线","pubTranName":"岔河16#公用配变,大岸底3#变压器,大岸底8#变压器,大岸底5#变压器,麻棚2#变压器,岔河11#变压器,岔河10#公用配变,麻棚1#变压器,麻棚4#变压器,岔河9#变压器,岔河15#公用配变,麻棚3#变压器,岔河8#变压器,麻棚7#公用配变,岔河14#公用配变,麻棚5#变压器,麻棚8#公用配变,岔河3#变压器,麻棚6#变压器,","scope":"【影响街道/乡镇】城南庄镇 【高危重要客户】无 【影响客户】麻棚村、麻棚美丽乡村小区、坊子村、马兰村、马兰美丽乡村小区、岔河村、三官、北桑地、大岸底","startTime":"2020-04-21 04:30:00","stopDate":"2020-04-21 19:00:00","orgNo":"1340611","typeCode":"临时停电","poweroffArea":"【全线路停电】停大岸底8#变压器,麻棚2#变压器,麻棚5#变压器,麻棚8#公用配变,岔河3#变压器,麻棚4#变压器","poweroffReason":"【停电原因】由于更换出线电缆导致１１０ＫＶ桑地变电站１０ＫＶ马兰５４７线路全线停电 【变更送电】无 【发布渠道】９５５９８","powerTime":"2020-04-21 18:07:29","powerComm":"全部送电","subsNo":"","lineNo":"","tgNo":"","tgName":null,"infoStatus":"1","orgName":"国网阜平县供电公司","typeName":null,"infoStatusName":null,"dateDay":null,"orgNos":null,"nowTime":null,"countyName":null,"streetName":null,"villageName":null,"roadName":null,"communityName":null,"tranName":null,"sdLineName":null,"cityCode":"1340611","cityName":"国网阜平县供电公司","provinceCode":null,"stopTime":"2020-04-21 19:00:00","powerType":"全部","powerOffArea":"【全线路停电】停大岸底8#变压器,麻棚2#变压器,麻棚5#变压器,麻棚8#公用配变,岔河3#变压器,麻棚4#变压器","powerOffReason":"【停电原因】由于更换出线电缆导致１１０ＫＶ桑地变电站１０ＫＶ马兰５４７线路全线停电 【变更送电】无 【发布渠道】９５５９８","powerOffId":"2020041313000355"},{"poweroffId":2020041313000306,"sgpoweroffId":null,"subsName":"","lineName":"10kV524李亲顾线","pubTranName":"客户投资_李亲顾村公用照明2台区,李亲顾村公用照明11台区,李亲顾村公用照明12台区,李亲顾公用照明13台区,李亲顾公用照明15台区,李亲顾公用照明16台区,李亲顾公用照明17台区,李亲顾公用照明18台区,李亲顾公用照明1台区,李亲顾公用照明23台区,李亲顾公用照明4台区,李亲顾公用照明5台区,李亲顾公用照明6台区,","scope":"【影响街道/乡镇】李亲顾镇【高危重要客户】无【影响客户】李亲顾村","startTime":"2020-04-24 06:30:00","stopDate":"2020-04-24 18:00:00","orgNo":"1340610","typeCode":"计划停电","poweroffArea":"【分支停电】停客户投资_李亲顾村公用照明2台区,李亲顾村公用照明11台区,李亲顾村公用照明12台区,李亲顾公用照明13台区,李亲顾公用照明15台区,李亲顾公用照明16台区,李亲顾公用照明17台区,李亲顾公用照明18台区,李亲顾公用照明1台区,李亲顾公用照明23台区,李亲顾公用照明4台区,李亲顾公用照明5台区,李亲顾公用照明6台区","poweroffReason":"【停电原因】由于新增配变导致１１０ＫＶ李亲顾变电站１０ＫＶ５２４李亲顾线路主干２６＋１杆０２号断路器以下线路停电 【变更送电】无 【发布渠道】河北省定州市定州日报第三版（２０２０年０４月１４日）","powerTime":"2020-04-24 17:56:03","powerComm":"已送电","subsNo":"","lineNo":"","tgNo":"","tgName":null,"infoStatus":"1","orgName":"国网定州市供电公司","typeName":null,"infoStatusName":null,"dateDay":null,"orgNos":null,"nowTime":null,"countyName":null,"streetName":null,"villageName":null,"roadName":null,"communityName":null,"tranName":null,"sdLineName":null,"cityCode":"1340610","cityName":"国网定州市供电公司","provinceCode":null,"stopTime":"2020-04-24 18:00:00","powerType":"全部","powerOffArea":"【分支停电】停客户投资_李亲顾村公用照明2台区,李亲顾村公用照明11台区,李亲顾村公用照明12台区,李亲顾公用照明13台区,李亲顾公用照明15台区,李亲顾公用照明16台区,李亲顾公用照明17台区,李亲顾公用照明18台区,李亲顾公用照明1台区,李亲顾公用照明23台区,李亲顾公用照明4台区,李亲顾公用照明5台区,李亲顾公用照明6台区","powerOffReason":"【停电原因】由于新增配变导致１１０ＫＶ李亲顾变电站１０ＫＶ５２４李亲顾线路主干２６＋１杆０２号断路器以下线路停电 【变更送电】无 【发布渠道】河北省定州市定州日报第三版（２０２０年０４月１４日）","powerOffId":"2020041313000306"},{"poweroffId":2020041313000299,"sgpoweroffId":null,"subsName":"","lineName":"10kV542贾村线","pubTranName":"贾村公用照明3台区,贾村公用照明4台区,贾村公用照明2台区(2),贾村公用照明1台区(1),","scope":"【影响街道/乡镇】息仲镇【高危重要客户】无【影响客户】贾村","startTime":"2020-04-25 07:00:00","stopDate":"2020-04-25 18:00:00","orgNo":"1340610","typeCode":"计划停电","poweroffArea":"【分支停电】停贾村公用照明3台区,贾村公用照明4台区,贾村公用照明2台区(2),贾村公用照明1台区(1)","poweroffReason":"【停电原因】由于新架导线导致１１０ＫＶ庞村变电站１０ＫＶ５４２贾村线路贾村４分支０１号杆１３号隔离开关以下线路停电 【变更送电】无 【发布渠道】河北省定州市定州日报第三版（２０２０年０４月１４日）","powerTime":"2020-04-25 17:55:39","powerComm":"已送电","subsNo":"","lineNo":"","tgNo":"","tgName":null,"infoStatus":"1","orgName":"国网定州市供电公司","typeName":null,"infoStatusName":null,"dateDay":null,"orgNos":null,"nowTime":null,"countyName":null,"streetName":null,"villageName":null,"roadName":null,"communityName":null,"tranName":null,"sdLineName":null,"cityCode":"1340610","cityName":"国网定州市供电公司","provinceCode":null,"stopTime":"2020-04-25 18:00:00","powerType":"全部","powerOffArea":"【分支停电】停贾村公用照明3台区,贾村公用照明4台区,贾村公用照明2台区(2),贾村公用照明1台区(1)","powerOffReason":"【停电原因】由于新架导线导致１１０ＫＶ庞村变电站１０ＫＶ５４２贾村线路贾村４分支０１号杆１３号隔离开关以下线路停电 【变更送电】无 【发布渠道】河北省定州市定州日报第三版（２０２０年０４月１４日）","powerOffId":"2020041313000299"},{"poweroffId":2020041313000297,"sgpoweroffId":null,"subsName":"","lineName":"10kV523七堡线","pubTranName":"七堡公用照明8台区,七堡公用照明16台区,七堡村公用照明2台区,七堡公用照明11台区,七堡公用照明23台区,","scope":"【影响街道/乡镇】高蓬镇【高危重要客户】无【影响客户】七堡","startTime":"2020-04-15 06:30:00","stopDate":"2020-04-15 18:00:00","orgNo":"1340610","typeCode":"临时停电","poweroffArea":"【分支停电】停七堡公用照明8台区,七堡公用照明16台区,七堡村公用照明2台区,七堡公用照明11台区,七堡公用照明23台区","poweroffReason":"【停电原因】由于更换配变导致１１０ＫＶ李亲顾变电站１０ＫＶ５２３七堡线路主干８１号杆１４号隔离开关以下线路停电 【变更送电】无 【发布渠道】河北省定州市定州日报第三版（２０２０年０４月１４日）","powerTime":"2020-04-15 17:55:51","powerComm":"已送电","subsNo":"","lineNo":"","tgNo":"","tgName":null,"infoStatus":"1","orgName":"国网定州市供电公司","typeName":null,"infoStatusName":null,"dateDay":null,"orgNos":null,"nowTime":null,"countyName":null,"streetName":null,"villageName":null,"roadName":null,"communityName":null,"tranName":null,"sdLineName":null,"cityCode":"1340610","cityName":"国网定州市供电公司","provinceCode":null,"stopTime":"2020-04-15 18:00:00","powerType":"全部","powerOffArea":"【分支停电】停七堡公用照明8台区,七堡公用照明16台区,七堡村公用照明2台区,七堡公用照明11台区,七堡公用照明23台区","powerOffReason":"【停电原因】由于更换配变导致１１０ＫＶ李亲顾变电站１０ＫＶ５２３七堡线路主干８１号杆１４号隔离开关以下线路停电 【变更送电】无 【发布渠道】河北省定州市定州日报第三版（２０２０年０４月１４日）","powerOffId":"2020041313000297"},{"poweroffId":2020041313000287,"sgpoweroffId":null,"subsName":"","lineName":"南店线517","pubTranName":"南店光20,南店光5,南店光11,北店光29,南店光11【2018年四批补强】,南店光2,南店光13,台上光8变压器,南店光1,南店光7,台上光3,台上排5【纯农排变】,南店光14,南店光16,台上光4,北店光6,南店光9,台上排6【纯农排变】,南店光10,南店光4【2018年重过载】,北店光28,台上光6,台上光2,南店光17,南店光8,北店光2,南店光3,台上排17【纯农排变】,南店排16变压器,南店光21,台上光7,北店光18,北店养殖小区公用,北店光16,南店光12,台上光1,南店光8【2018年四批补强】,北店光12,台上光5,南店光15,","scope":"【影响街道/乡镇】固城镇 【高危重要客户】无 【影响客户】北店、南店、台上、河北祥和冷暖设备有限公司","startTime":"2020-04-13 14:27:38","stopDate":"2020-04-13 15:40:00","orgNo":"1340609","typeCode":"电网故障停限电","poweroffArea":"【全线路停电】停南店排9【纯农排变】,台上排17【纯农排变】,南店排16变压器,0011677017*闫台屠宰厂(许大国),南店光21,南店光15,北店光18,0011677009*河北祥和冷暖设备有限公司,南店排15【纯农排变】,0011676990河北祥和冷暖设备有限公司,台上排3【纯农排变】,南店排14【纯农排变】,华野燃气-630,北店养殖小区公用,南店排7【纯农排变】,南店光5,台上排1【纯农排变】,南店光11【2018年四批补强】,北店光29,台上光5,白陵山台区,南店光16,台上光4,北店光6,台上排2【纯农排变】,南店光9,南店小学-315,台上光7,南店排5【纯农排变】,台上光8变压器,海德印刷厂-200,南店混4,南店光14,台上排5【纯农排变】,北店光28,台上光6,南店光2,南店光1,南店混11,北店光12,南店光20,南店光17,台上排4【纯农排变】,南店混8【纯农排变】,北店光2,北店排12【纯农排变】,南店排10【纯农排变】,北店排6【纯农排变】,北店排7【纯农排变】,南店光10,台上光2,鼎亢水泥-250,南店光8【2018年四批补强】,0011677006周福生养殖厂,南店排12【纯农排变】,南店光8,北店排10【纯农排变】,南店排6【纯农排变】,南店混16,南店光3,南店排13【纯农排变】,南店光13,台上光3,台上光1,南店光11,北店光16,南店光12,定兴县盛禾肥业有限公司,南店光7,台上排6【纯农排变】,南店光4【2018年重过载】","poweroffReason":"【停电原因】由于南店小学分支１号杆至２号杆断线导致３５ＫＶ闫台变电站南店线５１７线路全线停电 【变更送电】因抢修进度加快原因，送电时间由１８：００变更为１５：４０ 【发布渠道】通过９５５９８发布","powerTime":"2020-04-13 15:18:00","powerComm":"已送电","subsNo":"","lineNo":"","tgNo":"","tgName":null,"infoStatus":"1","orgName":"国网定兴县供电公司","typeName":null,"infoStatusName":null,"dateDay":null,"orgNos":null,"nowTime":null,"countyName":null,"streetName":null,"villageName":null,"roadName":null,"communityName":null,"tranName":null,"sdLineName":null,"cityCode":"1340609","cityName":"国网定兴县供电公司","provinceCode":null,"stopTime":"2020-04-13 15:40:00","powerType":"全部","powerOffArea":"【全线路停电】停南店排9【纯农排变】,台上排17【纯农排变】,南店排16变压器,0011677017*闫台屠宰厂(许大国),南店光21,南店光15,北店光18,0011677009*河北祥和冷暖设备有限公司,南店排15【纯农排变】,0011676990河北祥和冷暖设备有限公司,台上排3【纯农排变】,南店排14【纯农排变】,华野燃气-630,北店养殖小区公用,南店排7【纯农排变】,南店光5,台上排1【纯农排变】,南店光11【2018年四批补强】,北店光29,台上光5,白陵山台区,南店光16,台上光4,北店光6,台上排2【纯农排变】,南店光9,南店小学-315,台上光7,南店排5【纯农排变】,台上光8变压器,海德印刷厂-200,南店混4,南店光14,台上排5【纯农排变】,北店光28,台上光6,南店光2,南店光1,南店混11,北店光12,南店光20,南店光17,台上排4【纯农排变】,南店混8【纯农排变】,北店光2,北店排12【纯农排变】,南店排10【纯农排变】,北店排6【纯农排变】,北店排7【纯农排变】,南店光10,台上光2,鼎亢水泥-250,南店光8【2018年四批补强】,0011677006周福生养殖厂,南店排12【纯农排变】,南店光8,北店排10【纯农排变】,南店排6【纯农排变】,南店混16,南店光3,南店排13【纯农排变】,南店光13,台上光3,台上光1,南店光11,北店光16,南店光12,定兴县盛禾肥业有限公司,南店光7,台上排6【纯农排变】,南店光4【2018年重过载】","powerOffReason":"【停电原因】由于南店小学分支１号杆至２号杆断线导致３５ＫＶ闫台变电站南店线５１７线路全线停电 【变更送电】因抢修进度加快原因，送电时间由１８：００变更为１５：４０ 【发布渠道】通过９５５９８发布","powerOffId":"2020041313000287"},{"poweroffId":2020041313000271,"sgpoweroffId":null,"subsName":"","lineName":"10kV512台头线","pubTranName":"潘村公用照明8台区,南渠河公用农业3台区【纯农排变】,台头公用照明11台区,台头村公用农业6台区【纯农排变】,潘村公用农业9台区【纯农排变】,北古山村公用照明2台区,潘村公用农业6台区【纯农排变】,台头公用照明13台区,潘村公用农业5台区【纯农排变】,岸下公用农业2台区【纯农排变】,台头村公用照明1台区,潘村公用照明7台区,南渠河公用农业1台区【纯农排变】,客户投资_台头公用照明8台区,台头村公用照明7台区,北古山公用农业1台区【纯农排变】,台头村公用照明5台区,台头村公用照明6台区,台头公用照明9台区,台头村公用照明4台区,北古山村公用照明1台区,南古山公用照明3台区,台头公用照明15台区,北古山公用照明5台区,潘村公用照明5台区,台头公用照明14台区,台头公用照明10台区,潘村公用照明9台区,台头公用照明18台区,台头村公用农业5台区【纯农排变】,台头公用照明17台区,北古山公用照明4台区,南古山公用照明2台区,台头村公用照明3台区,台头村公用农业9台区【纯农排变】,潘村公用照明4台区,潘村公用照明1台区,潘村公用照明11台区,南古山村公用照明1台区,南古山公用照明4台区,台头村公用照明2台区,潘村公用照明12台区,潘村公用照明6台区,潘村公用照明3台区,潘村公用照明10台区,潘村公用照明2台区,北古山公用照明3台区,台头公用照明12台区,台头公用照明16台区,","scope":"【影响街道/乡镇】砖路镇【高危重要客户】无【影响客户】台头村、潘村、南古山村、北古山村、岸下村","startTime":"2020-04-13 13:51:03","stopDate":"2020-04-13 18:40:00","orgNo":"1340610","typeCode":"电网故障停限电","poweroffArea":"【全线路停电】停台头公用照明11台区,北古山村公用照明2台区,台头公用照明13台区,台头村公用照明1台区,潘村公用照明7台区,客户投资_台头公用照明8台区,台头村公用照明7台区,台头村公用照明4台区,台头公用照明15台区,北古山公用照明5台区,潘村公用照明5台区,台头公用照明14台区,台头公用照明10台区,潘村公用照明9台区,台头公用照明18台区,台头村公用农业5台区【纯农排变】,台头公用照明17台区,北古山公用照明4台区,南古山公用照明2台区,台头村公用照明3台区,台头村公用农业9台区【纯农排变】,潘村公用照明4台区,潘村公用照明1台区,潘村公用照明11台区,南古山村公用照明1台区,南古山公用照明4台区,潘村公用照明8台区,南渠河公用农业3台区【纯农排变】,台头村公用农业6台区【纯农排变】,潘村公用农业9台区【纯农排变】,潘村公用农业6台区【纯农排变】,潘村公用农业5台区【纯农排变】,岸下公用农业2台区【纯农排变】,南渠河公用农业1台区【纯农排变】,北古山公用农业1台区【纯农排变】,台头村公用照明5台区,台头村公用照明6台区,台头公用照明9台区,北古山村公用照明1台区,南古山公用照明3台区,台头村公用照明2台区,潘村公用照明12台区,潘村公用照明6台区,潘村公用照明3台区,潘村公用照明10台区,潘村公用照明2台区,北古山公用照明3台区,台头公用照明12台区,台头公用照明16台区,定州市砖路镇悟村村民委员会（悟村村东）,定州市砖路镇悟村村民委员会（悟村四号）,潘村公用农业1台区【纯农排变】,岸下公用农业4台区【纯农排变】,定州市台头小学,北京织绒,清辛庄公用农业10台区【纯农排变】,台头村公用农业7台区【纯农排变】,南古山公用农业4台区【纯农排变】,台头村公用农业4台区【纯农排变】,台头村公用农业3台区【纯农排变】,台头村公用农业2台区【纯农排变】,北渠河公用农业10台区【纯农排变】,清辛庄公用农业8台区【纯农排变】,定州市明盛肉类经销处变压器,河北通达养殖有限公司变压器,河北金宏清真肉类有限公司变压器,台头村公用农业12台区【纯农排变】,定州市砖路镇潘村村民委员会 绿色家园照明变压器1,定州市砖路镇屠宰场,定州市砖路镇悟村村民委员会（悟村北外三号）,0657741442-定州市砖路镇台头村村民委员会 盛世佳苑-专变-190906602-定州市砖路镇台头村村民委员会 盛世佳苑照明变压器1,台头村公用农业13台区【纯农排变】,0657741442-定州市砖路镇台头村村民委员会 盛世佳苑-专变-190906605-定州市砖路镇台头村村民委员会 盛世佳苑照明变压器2,南古山公用农业1台区【纯农排变】,定州市潘村京康肉食品厂变压器,南渠河公用农业2台区【纯农排变】,定州市绿野养殖有限公司变压器,丰华冷库,岸下公用农业3台区【纯农排变】,河北亿华食品有限公司变压器,北沿公用农业2台区【纯农排变】,定州市砖路镇潘村村民委员会 绿色家园照明变压器2,定州市潘村京康肉食品厂变压器1,台头公用农业14台区【纯农排变】,定州市砖路镇台头村村民委员会变压器,南古山公用农业3台区【纯农排变】,定州市永兴棉织厂变压器,潘村电信局,定州市中良肉业有限公司变压器,河北金宏清真肉类有限公司变压器1,潘村面粉厂,台头村公用农业8台区【纯农排变】,定州市保军水泥砖厂变压器,清辛庄公用农业9台区【纯农排变】,定州市丰华商贸有限公司变压器,北古山公用农业4台区【纯农排变】,潘村公用农业4台区【纯农排变】,定州市砖路镇潘村村民委员会 绿色家园公用变压器,定州市砖路镇人民政府变压器,台","poweroffReason":"【停电原因】由于台头７分支０１号杆农业８台区配变烧毁导致３５ＫＶ吴家庄变电站１０ＫＶ５１２台头线路全线停电 【变更送电】因抢修进度加快原因，送电时间由２０：００变更为１８：４０ 【发布渠道】９５５９８","powerTime":"2020-04-13 18:21:27","powerComm":"已送电","subsNo":"","lineNo":"","tgNo":"","tgName":null,"infoStatus":"1","orgName":"国网定州市供电公司","typeName":null,"infoStatusName":null,"dateDay":null,"orgNos":null,"nowTime":null,"countyName":null,"streetName":null,"villageName":null,"roadName":null,"communityName":null,"tranName":null,"sdLineName":null,"cityCode":"1340610","cityName":"国网定州市供电公司","provinceCode":null,"stopTime":"2020-04-13 18:40:00","powerType":"全部","powerOffArea":"【全线路停电】停台头公用照明11台区,北古山村公用照明2台区,台头公用照明13台区,台头村公用照明1台区,潘村公用照明7台区,客户投资_台头公用照明8台区,台头村公用照明7台区,台头村公用照明4台区,台头公用照明15台区,北古山公用照明5台区,潘村公用照明5台区,台头公用照明14台区,台头公用照明10台区,潘村公用照明9台区,台头公用照明18台区,台头村公用农业5台区【纯农排变】,台头公用照明17台区,北古山公用照明4台区,南古山公用照明2台区,台头村公用照明3台区,台头村公用农业9台区【纯农排变】,潘村公用照明4台区,潘村公用照明1台区,潘村公用照明11台区,南古山村公用照明1台区,南古山公用照明4台区,潘村公用照明8台区,南渠河公用农业3台区【纯农排变】,台头村公用农业6台区【纯农排变】,潘村公用农业9台区【纯农排变】,潘村公用农业6台区【纯农排变】,潘村公用农业5台区【纯农排变】,岸下公用农业2台区【纯农排变】,南渠河公用农业1台区【纯农排变】,北古山公用农业1台区【纯农排变】,台头村公用照明5台区,台头村公用照明6台区,台头公用照明9台区,北古山村公用照明1台区,南古山公用照明3台区,台头村公用照明2台区,潘村公用照明12台区,潘村公用照明6台区,潘村公用照明3台区,潘村公用照明10台区,潘村公用照明2台区,北古山公用照明3台区,台头公用照明12台区,台头公用照明16台区,定州市砖路镇悟村村民委员会（悟村村东）,定州市砖路镇悟村村民委员会（悟村四号）,潘村公用农业1台区【纯农排变】,岸下公用农业4台区【纯农排变】,定州市台头小学,北京织绒,清辛庄公用农业10台区【纯农排变】,台头村公用农业7台区【纯农排变】,南古山公用农业4台区【纯农排变】,台头村公用农业4台区【纯农排变】,台头村公用农业3台区【纯农排变】,台头村公用农业2台区【纯农排变】,北渠河公用农业10台区【纯农排变】,清辛庄公用农业8台区【纯农排变】,定州市明盛肉类经销处变压器,河北通达养殖有限公司变压器,河北金宏清真肉类有限公司变压器,台头村公用农业12台区【纯农排变】,定州市砖路镇潘村村民委员会 绿色家园照明变压器1,定州市砖路镇屠宰场,定州市砖路镇悟村村民委员会（悟村北外三号）,0657741442-定州市砖路镇台头村村民委员会 盛世佳苑-专变-190906602-定州市砖路镇台头村村民委员会 盛世佳苑照明变压器1,台头村公用农业13台区【纯农排变】,0657741442-定州市砖路镇台头村村民委员会 盛世佳苑-专变-190906605-定州市砖路镇台头村村民委员会 盛世佳苑照明变压器2,南古山公用农业1台区【纯农排变】,定州市潘村京康肉食品厂变压器,南渠河公用农业2台区【纯农排变】,定州市绿野养殖有限公司变压器,丰华冷库,岸下公用农业3台区【纯农排变】,河北亿华食品有限公司变压器,北沿公用农业2台区【纯农排变】,定州市砖路镇潘村村民委员会 绿色家园照明变压器2,定州市潘村京康肉食品厂变压器1,台头公用农业14台区【纯农排变】,定州市砖路镇台头村村民委员会变压器,南古山公用农业3台区【纯农排变】,定州市永兴棉织厂变压器,潘村电信局,定州市中良肉业有限公司变压器,河北金宏清真肉类有限公司变压器1,潘村面粉厂,台头村公用农业8台区【纯农排变】,定州市保军水泥砖厂变压器,清辛庄公用农业9台区【纯农排变】,定州市丰华商贸有限公司变压器,北古山公用农业4台区【纯农排变】,潘村公用农业4台区【纯农排变】,定州市砖路镇潘村村民委员会 绿色家园公用变压器,定州市砖路镇人民政府变压器,台","powerOffReason":"【停电原因】由于台头７分支０１号杆农业８台区配变烧毁导致３５ＫＶ吴家庄变电站１０ＫＶ５１２台头线路全线停电 【变更送电】因抢修进度加快原因，送电时间由２０：００变更为１８：４０ 【发布渠道】９５５９８","powerOffId":"2020041313000271"},{"poweroffId":2020041313000265,"sgpoweroffId":null,"subsName":"","lineName":"10kV511砖路线","pubTranName":"砖路公用照明4台区,砖路公用农业18台区【纯农排变】,砖路公用照明1台区,砖路公用照明12台区,砖路村公用照明8台区,砖路公用农业13台区【纯农排变】,砖路公用农业5台区【纯农排变】,砖路公用照明13台区,砖路村公用照明9台区,北渠河公用农业2台区【纯农排变】,砖路公用照明14台区,砖路公用照明11台区,砖路镇政府公用照明1台区,北渠河公用照明11台区,南渠河公用照明3台区,北渠河公用照明9台区,北宋村公用照明2台区,北渠河公用照明14台区,砖路公用照明18台区,北渠河村公用照明4台区,北渠河公用照明16台区,南渠河公用照明2台区,南渠河公用照明4台区,北渠河村公用照明2台区,砖路公用农业11台区【纯农排变】,砖路公用照明3台区,北宋公用照明8台区,南渠河公用照明5台区,北宋公用照明5台区,南渠河村公用照明1台区,北宋公用照明6台区,北渠河公用照明12台区,北渠河公用照明15台区,北渠河公用照明5台区,北宋公用照明10台区,南渠河公用照明6台区,北渠河公用照明8台区,北渠河村公用照明1台区,北渠河公用照明10台区,北渠河公用照明13台区,北宋村公用照明4台区,北宋村公用照明1台区,北宋公用照明9台区,北宋村公用照明3台区,北渠河村公用照明3台区,北渠河公用照明7台区,砖路公用农业8台区【纯农排变】,北渠河公用农业8台区【纯农排变】,砖路村公用照明7台区,砖路公用农业14台区【纯农排变】,砖路公用农业19台区【纯农排变】,砖路公用照明2台区,砖路公用农业7台区【纯农排变】,砖路公用农业4台区【纯农排变】,砖路公用照明6台区,北渠河公用农业3台区【纯农排变】,砖路公用农业6台区【纯农排变】,北宋公用照明7台区,北渠河公用照明6台区,砖路公用照明5台区,砖路公用照明15台区,北渠河公用农业6台区【纯农排变】,砖路公用照明16台区,北渠河公用农业5台区【纯农排变】,砖路公用农业17台区【纯农排变】,","scope":"【影响街道/乡镇】砖路镇【高危重要客户】无【影响客户】北宋村、南渠河、北渠河、砖路村","startTime":"2020-04-13 13:43:08","stopDate":"2020-04-13 15:40:00","orgNo":"1340610","typeCode":"电网故障停限电","poweroffArea":"【全线路停电】停北宋公用照明8台区,南渠河公用照明5台区,北宋公用照明5台区,南渠河村公用照明1台区,北宋公用照明6台区,北渠河公用照明12台区,北渠河公用照明15台区,北渠河公用照明5台区,北宋公用照明10台区,南渠河公用照明6台区,北渠河公用照明8台区,北渠河村公用照明1台区,北渠河公用照明10台区,北渠河公用照明13台区,北宋村公用照明4台区,北宋村公用照明1台区,北宋公用照明9台区,北宋村公用照明3台区,北渠河村公用照明3台区,北渠河公用照明7台区,砖路公用照明18台区,北渠河村公用照明4台区,北渠河公用照明16台区,南渠河公用照明2台区,南渠河公用照明4台区,砖路镇政府公用照明1台区,北渠河公用照明11台区,南渠河公用照明3台区,北渠河公用照明9台区,北宋村公用照明2台区,北渠河公用照明14台区,北渠河村公用照明2台区,北宋公用照明7台区,北渠河公用照明6台区,北古山公用农业5台区【纯农排变】,砖路公用农业16台区【纯农排变】,定州市金鹰铜雕工艺品厂,马铁辉,北宋公用照明11台区,砖路公用照明5台区,砖路公用农业10台区【纯农排变】,0387402246-东方铸造-专变-45256128-东方铸造,砖路公用照明15台区,保定吉信金属制品有限公司变压器1,砖路公用照明16台区,北宋公用农业1台区【纯农排变】,北渠河公用农业6台区【纯农排变】,北渠河公用农业5台区【纯农排变】,砖路公用农业17台区【纯农排变】,北宋公用农业6台区【纯农排变】,北渠河公用农业8台区【纯农排变】,砖路村公用照明7台区,北宋公用农业3台区【纯农排变】,砖路公用农业8台区【纯农排变】,定州东宇铸造有限公司变压器,定州市砖路镇人民政府（水厂）变压器,北渠河公用农业11台区【纯农排变】,砖路公用照明4台区,砖路公用农业18台区【纯农排变】,北宋公用农业8台区【纯农排变】,砖路公用照明1台区,定州市恒基伟业铸造有限公司变压器,砖路公用照明12台区,砖路公用农业13台区【纯农排变】,北宋公用农业9台区【纯农排变】,砖路公用农业5台区【纯农排变】,砖路公用农业15台区【纯农排变】,砖路公用照明13台区,砖路公用农业1台区【纯农排变】,北渠河公用农业1台区【纯农排变】,南渠河公用农业4台区【纯农排变】,砖路公用农业3台区【纯农排变】,砖路村公用照明9台区,北渠河公用农业2台区【纯农排变】,来顺面粉厂,北宋公用农业4台区【纯农排变】,0668840459-定州市东方铸造有限公司-专变-208462607-东方铸造,砖路村公用照明8台区,南渠河公用农业5台区【纯农排变】,0668840459-定州市东方铸造有限公司-专变-208465216-东方铸造,北宋面粉厂,砖路公用照明14台区,砖路浴池,0668840459-定州市东方铸造有限公司-专变-208462612-东方铸造,定州市砖路镇人民政府,砖路公用照明17台区,定州市金麦农面粉厂变压器,砖路公用照明11台区,砖路公用照明2台区,定州市腾达牧业有限公司变压器,砖路公用农业7台区【纯农排变】,砖路公用照明19台区,定州市天顺牧业有限公司,砖路公用农业4台区【纯农排变】,北渠河公用农业3台区【纯农排变】,砖路公用农业6台区【纯农排变】,0668840459-定州市东方铸造有限公司-专变-208465218-东方铸造,砖路公用农业14台区【纯农排变】,砖路公用农业19台区【纯农排变】,砖路公用照明6台区,定州市超艺工艺品加工厂变压器,北宋公用农业7台区【纯农排变】,砖路公用农业12台区【纯农排变】,北宋公用农业5台区【纯农排变】,砖路公用农业21台区【纯农排变】,砖路公用农业9台区【纯农排变】,砖路公用农业11台区【纯农排变】,北渠河公用农业4台区【","poweroffReason":"【停电原因】由于北渠河０２分支０３号杆配变烧毁导致３５ＫＶ吴家庄变电站１０ＫＶ５１１砖路线路全线停电 【变更送电】因抢修进度加快原因，送电时间由２０：００变更为１５：４０ 【发布渠道】９５５９８　　","powerTime":"2020-04-13 15:20:48","powerComm":"已送电","subsNo":"","lineNo":"","tgNo":"","tgName":null,"infoStatus":"1","orgName":"国网定州市供电公司","typeName":null,"infoStatusName":null,"dateDay":null,"orgNos":null,"nowTime":null,"countyName":null,"streetName":null,"villageName":null,"roadName":null,"communityName":null,"tranName":null,"sdLineName":null,"cityCode":"1340610","cityName":"国网定州市供电公司","provinceCode":null,"stopTime":"2020-04-13 15:40:00","powerType":"全部","powerOffArea":"【全线路停电】停北宋公用照明8台区,南渠河公用照明5台区,北宋公用照明5台区,南渠河村公用照明1台区,北宋公用照明6台区,北渠河公用照明12台区,北渠河公用照明15台区,北渠河公用照明5台区,北宋公用照明10台区,南渠河公用照明6台区,北渠河公用照明8台区,北渠河村公用照明1台区,北渠河公用照明10台区,北渠河公用照明13台区,北宋村公用照明4台区,北宋村公用照明1台区,北宋公用照明9台区,北宋村公用照明3台区,北渠河村公用照明3台区,北渠河公用照明7台区,砖路公用照明18台区,北渠河村公用照明4台区,北渠河公用照明16台区,南渠河公用照明2台区,南渠河公用照明4台区,砖路镇政府公用照明1台区,北渠河公用照明11台区,南渠河公用照明3台区,北渠河公用照明9台区,北宋村公用照明2台区,北渠河公用照明14台区,北渠河村公用照明2台区,北宋公用照明7台区,北渠河公用照明6台区,北古山公用农业5台区【纯农排变】,砖路公用农业16台区【纯农排变】,定州市金鹰铜雕工艺品厂,马铁辉,北宋公用照明11台区,砖路公用照明5台区,砖路公用农业10台区【纯农排变】,0387402246-东方铸造-专变-45256128-东方铸造,砖路公用照明15台区,保定吉信金属制品有限公司变压器1,砖路公用照明16台区,北宋公用农业1台区【纯农排变】,北渠河公用农业6台区【纯农排变】,北渠河公用农业5台区【纯农排变】,砖路公用农业17台区【纯农排变】,北宋公用农业6台区【纯农排变】,北渠河公用农业8台区【纯农排变】,砖路村公用照明7台区,北宋公用农业3台区【纯农排变】,砖路公用农业8台区【纯农排变】,定州东宇铸造有限公司变压器,定州市砖路镇人民政府（水厂）变压器,北渠河公用农业11台区【纯农排变】,砖路公用照明4台区,砖路公用农业18台区【纯农排变】,北宋公用农业8台区【纯农排变】,砖路公用照明1台区,定州市恒基伟业铸造有限公司变压器,砖路公用照明12台区,砖路公用农业13台区【纯农排变】,北宋公用农业9台区【纯农排变】,砖路公用农业5台区【纯农排变】,砖路公用农业15台区【纯农排变】,砖路公用照明13台区,砖路公用农业1台区【纯农排变】,北渠河公用农业1台区【纯农排变】,南渠河公用农业4台区【纯农排变】,砖路公用农业3台区【纯农排变】,砖路村公用照明9台区,北渠河公用农业2台区【纯农排变】,来顺面粉厂,北宋公用农业4台区【纯农排变】,0668840459-定州市东方铸造有限公司-专变-208462607-东方铸造,砖路村公用照明8台区,南渠河公用农业5台区【纯农排变】,0668840459-定州市东方铸造有限公司-专变-208465216-东方铸造,北宋面粉厂,砖路公用照明14台区,砖路浴池,0668840459-定州市东方铸造有限公司-专变-208462612-东方铸造,定州市砖路镇人民政府,砖路公用照明17台区,定州市金麦农面粉厂变压器,砖路公用照明11台区,砖路公用照明2台区,定州市腾达牧业有限公司变压器,砖路公用农业7台区【纯农排变】,砖路公用照明19台区,定州市天顺牧业有限公司,砖路公用农业4台区【纯农排变】,北渠河公用农业3台区【纯农排变】,砖路公用农业6台区【纯农排变】,0668840459-定州市东方铸造有限公司-专变-208465218-东方铸造,砖路公用农业14台区【纯农排变】,砖路公用农业19台区【纯农排变】,砖路公用照明6台区,定州市超艺工艺品加工厂变压器,北宋公用农业7台区【纯农排变】,砖路公用农业12台区【纯农排变】,北宋公用农业5台区【纯农排变】,砖路公用农业21台区【纯农排变】,砖路公用农业9台区【纯农排变】,砖路公用农业11台区【纯农排变】,北渠河公用农业4台区【","powerOffReason":"【停电原因】由于北渠河０２分支０３号杆配变烧毁导致３５ＫＶ吴家庄变电站１０ＫＶ５１１砖路线路全线停电 【变更送电】因抢修进度加快原因，送电时间由２０：００变更为１５：４０ 【发布渠道】９５５９８　　","powerOffId":"2020041313000265"}],"pageModel":{"pageNow":182,"totalCount":10973,"totalPage":1098,"tableRows":0,"pageCount":10,"beginCount":1810},"isExperi":"1"}