{"message":"","today":"2020-06-15","seleList":[{"poweroffId":2020041013000749,"sgpoweroffId":null,"subsName":"","lineName":"水库线518","pubTranName":"德山二街2号,新农村9号,德山一街6号【纯农排变】,德山二街9号,德山二街1号,德山一街9号,新农村砖厂,德山一街10号,德山二街7号,德山二街10号,德山一街1号,新农村7号,德山二街11号,新农村6号,新农村11号,解村11号【纯农排变】,保定巨腾房地产开发有限公司,德山一街3号,解村6号,德山三街9号,新农村12号,德山一街7号,新农村3号,户木18号【纯农排变】,HM供电所3号,新农村1号,新农村10号,德山二街15号,新农村2号,德山二街3号（砖厂）,新农村4号【纯农排变】,德山二街3号,518水库线供电所4号,瀑河水库,解村4号【纯农排变】,德山一街11号,徐水县涛涛家禽专业合作社,新农村5号【纯农排变】,新农村8号,","scope":"【影响街道/乡镇】户木乡、瀑河乡 【高危重要客户】无 【影响客户】德山一街村、解村、新农村、德山三街村、德山二街村","startTime":"2020-04-26 06:00:00","stopDate":"2020-04-26 18:00:00","orgNo":"1340605","typeCode":"计划停电","poweroffArea":"【全线路停电】停德山一街11号,518水库线供电所4号,户木18号【纯农排变】,解村11号【纯农排变】,德山一街9号,新农村3号,德山三街9号,解村4号【纯农排变】,新农村8号,新农村12号,德山一街7号,新农村10号,德山二街1号,新农村1号,HM供电所3号,新农村2号,德山二街11号,新农村11号,新农村9号,新农村7号,德山二街9号,德山一街6号【纯农排变】,新农村4号【纯农排变】,保定巨腾房地产开发有限公司,新农村5号【纯农排变】,德山一街3号,德山二街10号,德山二街7号,新农村6号,德山一街1号,德山二街2号,德山二街15号,德山二街3号（砖厂）,新农村砖厂,德山二街3号,德山一街10号,徐水县涛涛家禽专业合作社,解村6号,瀑河水库","poweroffReason":"【停电原因】由于计划检修导致３５ＫＶ户木变电站水库线５１８线路全线停电 【变更送电】无 【发布渠道】通过河北省保定市徐水电视台游走滚动字幕播放（２０２０年０４月１９日０８:００至０４月２５日２０:００）","powerTime":"2020-04-26 17:51:41","powerComm":"已送电","subsNo":"","lineNo":"","tgNo":"","tgName":null,"infoStatus":"1","orgName":"国网徐水县供电公司","typeName":null,"infoStatusName":null,"dateDay":null,"orgNos":null,"nowTime":null,"countyName":null,"streetName":null,"villageName":null,"roadName":null,"communityName":null,"tranName":null,"sdLineName":null,"cityCode":"1340605","cityName":"国网徐水县供电公司","provinceCode":null,"stopTime":"2020-04-26 18:00:00","powerType":"全部","powerOffArea":"【全线路停电】停德山一街11号,518水库线供电所4号,户木18号【纯农排变】,解村11号【纯农排变】,德山一街9号,新农村3号,德山三街9号,解村4号【纯农排变】,新农村8号,新农村12号,德山一街7号,新农村10号,德山二街1号,新农村1号,HM供电所3号,新农村2号,德山二街11号,新农村11号,新农村9号,新农村7号,德山二街9号,德山一街6号【纯农排变】,新农村4号【纯农排变】,保定巨腾房地产开发有限公司,新农村5号【纯农排变】,德山一街3号,德山二街10号,德山二街7号,新农村6号,德山一街1号,德山二街2号,德山二街15号,德山二街3号（砖厂）,新农村砖厂,德山二街3号,德山一街10号,徐水县涛涛家禽专业合作社,解村6号,瀑河水库","powerOffReason":"【停电原因】由于计划检修导致３５ＫＶ户木变电站水库线５１８线路全线停电 【变更送电】无 【发布渠道】通过河北省保定市徐水电视台游走滚动字幕播放（２０２０年０４月１９日０８:００至０４月２５日２０:００）","powerOffId":"2020041013000749"},{"poweroffId":2020041013000743,"sgpoweroffId":null,"subsName":"","lineName":"勺堤线514","pubTranName":"勺堤村1155变压器,勺堤4022变压器,勺堤1153变压器,勺堤4801变压器,勺堤村西4023变压器,10KV勺堤514线路勺堤6551变压器,勺堤5043变压器,岸上村南4024变压器,勺堤6046变压器,岸上1150变压器,勺堤1154变压器,10KV勺堤514线路勺堤村东6552变压器,","scope":"【影响街道/乡镇】罗庄乡【高危重要客户】无【影响客户】勺堤、岸上、南伏城村南","startTime":"2020-04-11 09:00:00","stopDate":"2020-04-11 12:00:00","orgNo":"1340622","typeCode":"其他临时停电","poweroffArea":"【全线路停电】停10KV勺堤514线路勺堤村东6552变压器,勺堤村1155变压器,勺堤4022变压器,勺堤1153变压器,勺堤4801变压器,勺堤村西4023变压器,10KV勺堤514线路勺堤6551变压器,勺堤5043变压器,岸上村南4024变压器,勺堤6046变压器,岸上1150变压器,南伏城2850变压器,勺堤1154变压器,勺堤北水3304变压器","poweroffReason":"【停电原因】由于处理紧急缺陷导致３５ＫＶ伏城变电站勺堤线５１４线路全线停电【变更送电】无【发布渠道】通过９５５９８发布","powerTime":"2020-04-11 11:37:00","powerComm":"已送电","subsNo":"","lineNo":"","tgNo":"","tgName":null,"infoStatus":"1","orgName":"国网唐县供电公司","typeName":null,"infoStatusName":null,"dateDay":null,"orgNos":null,"nowTime":null,"countyName":null,"streetName":null,"villageName":null,"roadName":null,"communityName":null,"tranName":null,"sdLineName":null,"cityCode":"1340622","cityName":"国网唐县供电公司","provinceCode":null,"stopTime":"2020-04-11 12:00:00","powerType":"全部","powerOffArea":"【全线路停电】停10KV勺堤514线路勺堤村东6552变压器,勺堤村1155变压器,勺堤4022变压器,勺堤1153变压器,勺堤4801变压器,勺堤村西4023变压器,10KV勺堤514线路勺堤6551变压器,勺堤5043变压器,岸上村南4024变压器,勺堤6046变压器,岸上1150变压器,南伏城2850变压器,勺堤1154变压器,勺堤北水3304变压器","powerOffReason":"【停电原因】由于处理紧急缺陷导致３５ＫＶ伏城变电站勺堤线５１４线路全线停电【变更送电】无【发布渠道】通过９５５９８发布","powerOffId":"2020041013000743"},{"poweroffId":2020041013000742,"sgpoweroffId":null,"subsName":"","lineName":"大沟线564","pubTranName":"新两合庄光1,西靳光2,两合庄光2,西靳光6,大沟光8,西靳村光17,西靳光12,两合庄光3,西靳光23,西靳光1,西靳光20,西章新光2,西章光4,西靳光21,西靳光19,西靳光3(村西),西靳光16,大沟光5,大沟光4,西靳光综14,大沟光7【灾后重建】,西靳村光18,两合庄村委会2,西靳光综13,西靳光7,西靳光15,西靳光6【2018年技改】,西靳光9,大沟新光6,两合庄新光4,西靳光5,两合庄光5,大沟光2【2018年重过载】,西靳光4,西靳光11,西靳光10,新西章光3,西靳光8,西靳光22,西章光1,两合庄光6【2018年四批补强】,西章光5,大沟光1,","scope":"【影响街道/乡镇】定兴镇、北田乡 【高危重要客户】无 【影响客户】西章、西靳、大沟、两合庄、污水处理厂、看守所、联兴饲料、瑞驰川豪、两合庄村委会、浩天飞织、马大姐食品、保定裕康食品、保定兴建商品混凝土公司、西靳水利局、小店移动机站、京港澳高速收费站、匠工新型建筑材料、程锦扬包装制品、段振秀面粉厂、佳丽彩印厂、西靳小学、河北智德锅炉制造有限公司、保定中博华泰汽车贸易公司、河北浩天非织造布有限公司、定兴县鑫明华印刷厂、紫光新锐、德崇生物科技","startTime":"2020-04-28 01:00:00","stopDate":"2020-04-28 07:00:00","orgNo":"1340609","typeCode":"计划停电","poweroffArea":"【全线路停电】停西靳光21,两合庄光3,西靳光23,大沟光2【2018年重过载】,西靳村光18,两合庄村委会2,西靳光综13,西靳光7,西靳光6【2018年技改】,西靳光3(村西),西靳光19,西靳光20,西章新光2,西章光4,西章光5,西靳光9,大沟新光6,两合庄新光4,西靳光5,两合庄光5,西章光1,两合庄光6【2018年四批补强】,大沟光1,西靳光4,西靳光11,西靳光10,新西章光3,西靳光8,西靳光22,西靳光15,西靳光16,大沟光5,大沟光4,西靳光综14,大沟光7【灾后重建】,西靳光1,新两合庄光1,西靳光2,两合庄光2,西靳光6,大沟光8,西靳村光17,西靳光12,大沟混2","poweroffReason":"【停电原因】由于主干０４２号杆至０７６号杆清扫检修导致２２０ＫＶ柳卓开关站大沟线５６４线路全线停电 【变更送电】无 【发布渠道】保定市定兴县电视台（０４月２０日０９时１０分至２３时５０分之间）屏幕上方滚动播放","powerTime":"2020-04-28 06:48:41","powerComm":"已送电","subsNo":"","lineNo":"","tgNo":"","tgName":null,"infoStatus":"1","orgName":"国网定兴县供电公司","typeName":null,"infoStatusName":null,"dateDay":null,"orgNos":null,"nowTime":null,"countyName":null,"streetName":null,"villageName":null,"roadName":null,"communityName":null,"tranName":null,"sdLineName":null,"cityCode":"1340609","cityName":"国网定兴县供电公司","provinceCode":null,"stopTime":"2020-04-28 07:00:00","powerType":"全部","powerOffArea":"【全线路停电】停西靳光21,两合庄光3,西靳光23,大沟光2【2018年重过载】,西靳村光18,两合庄村委会2,西靳光综13,西靳光7,西靳光6【2018年技改】,西靳光3(村西),西靳光19,西靳光20,西章新光2,西章光4,西章光5,西靳光9,大沟新光6,两合庄新光4,西靳光5,两合庄光5,西章光1,两合庄光6【2018年四批补强】,大沟光1,西靳光4,西靳光11,西靳光10,新西章光3,西靳光8,西靳光22,西靳光15,西靳光16,大沟光5,大沟光4,西靳光综14,大沟光7【灾后重建】,西靳光1,新两合庄光1,西靳光2,两合庄光2,西靳光6,大沟光8,西靳村光17,西靳光12,大沟混2","powerOffReason":"【停电原因】由于主干０４２号杆至０７６号杆清扫检修导致２２０ＫＶ柳卓开关站大沟线５６４线路全线停电 【变更送电】无 【发布渠道】保定市定兴县电视台（０４月２０日０９时１０分至２３时５０分之间）屏幕上方滚动播放","powerOffId":"2020041013000742"},{"poweroffId":2020041013000730,"sgpoweroffId":null,"subsName":"","lineName":"义和庄线524","pubTranName":"110站变,","scope":"【影响街道/乡镇】五一路、京白路、富民路、北一环 【高危重要客户】凤凰城小区、土地分局、公安小区、晨鼎小区、京呈口腔 【影响客户】保定辰鼎物业服务有限公司、王铁军、北京时代风尚房地产开发有限公司（时代东）、百德时代、高碑店市鹏飞伟业房地产开发有限公司、白金柱、中国铁塔股份有限公司保定市分公司、土普家园三期、土普家园二期、高秋生、保定市国土资源局白沟新城分局、公安局、中国移动通信集团河北有限公司保定分公司、现代城市花园、土普家园小区、宋建辉、土普家园二期商业、李二旺、郭建明、保定白沟吉兆隆无纺布厂、朱利民、魏建磊、保定黛莱箱包服饰制造有限公司（李贺群）、李明亮、王永田、高碑店市昌宏化纤有限公司、王迪、华威皮革制品厂、保定博永商贸有限公司、白沟巴拉都皮具有限公司、高碑店市白沟魏庄小区、高碑店市双力塑胶有限责任公司、保定白沟新城和同物业有限公司（秀水华庭小区）、高碑店市鑫远房地产开发有限公司（金开元小区）、河北格丽亚皮具有限公司、白沟新城建设规划局、保定白沟新城恒睿塑胶制品厂、张根青、金开元小区二期、张老黑、保定白沟新城和同物业有限公司、保定润和房地产开发有限公司（梧桐苑）、海宏","startTime":"2020-04-10 17:59:18","stopDate":"2020-04-10 20:00:00","orgNo":"1340612","typeCode":"电网故障停限电","poweroffArea":"【全线路停电】停王迪,朱利民,华威皮革制品厂,李明亮,王永田,王铁军,郭建明,李二旺,李贺群,张老黑,变压器,张民（百得时代地下室区）变压器,0607976047-白金柱-专变-127454291-变压器,付宇,宋建辉变压器,0387441566-富润花园3-专变-45278687-吕锁成3,王玉才,永轩变压器,苏艳华,0387442048-海宏工业有限公司-专变-45278576-海宏工业有限公司,魏国旺,白沟土地分局,移动公司变压器,110站变,0387442426-公安局1-专变-45278785-公安局1,0387443230保定辰鼎物业服务有限公司,张民（百得时代西区）变压器,京呈口腔,0387441058-白沟镇富润花园小区-专变-45278645-白沟镇富润花园小区,张根青,公安局2,0387442006-高秋生-专变-45278565-高秋生,0387442396-富润花园4-专变-45278566-吕锁成4,变压器160,金开元二期,张春晖,吕锁成2,凤凰城物业2,凤凰城物业1,鹏飞伟业变台,凤凰城2,董振良（秀水华庭）变台","poweroffReason":"【停电原因】由于隔离水厂分支０９号杆电缆烧导致１１０ＫＶ白沟变电站１０ＫＶ义和庄５２４线路全线停电 【变更送电】因抢修进度加快原因，送电时间由２３：５９变更为２０：００ 【发布渠道】通过９５５９８发布","powerTime":"2020-04-10 19:37:31","powerComm":"已送电","subsNo":"","lineNo":"","tgNo":"","tgName":null,"infoStatus":"1","orgName":"国网高碑店市供电公司","typeName":null,"infoStatusName":null,"dateDay":null,"orgNos":null,"nowTime":null,"countyName":null,"streetName":null,"villageName":null,"roadName":null,"communityName":null,"tranName":null,"sdLineName":null,"cityCode":"1340612","cityName":"国网高碑店市供电公司","provinceCode":null,"stopTime":"2020-04-10 20:00:00","powerType":"全部","powerOffArea":"【全线路停电】停王迪,朱利民,华威皮革制品厂,李明亮,王永田,王铁军,郭建明,李二旺,李贺群,张老黑,变压器,张民（百得时代地下室区）变压器,0607976047-白金柱-专变-127454291-变压器,付宇,宋建辉变压器,0387441566-富润花园3-专变-45278687-吕锁成3,王玉才,永轩变压器,苏艳华,0387442048-海宏工业有限公司-专变-45278576-海宏工业有限公司,魏国旺,白沟土地分局,移动公司变压器,110站变,0387442426-公安局1-专变-45278785-公安局1,0387443230保定辰鼎物业服务有限公司,张民（百得时代西区）变压器,京呈口腔,0387441058-白沟镇富润花园小区-专变-45278645-白沟镇富润花园小区,张根青,公安局2,0387442006-高秋生-专变-45278565-高秋生,0387442396-富润花园4-专变-45278566-吕锁成4,变压器160,金开元二期,张春晖,吕锁成2,凤凰城物业2,凤凰城物业1,鹏飞伟业变台,凤凰城2,董振良（秀水华庭）变台","powerOffReason":"【停电原因】由于隔离水厂分支０９号杆电缆烧导致１１０ＫＶ白沟变电站１０ＫＶ义和庄５２４线路全线停电 【变更送电】因抢修进度加快原因，送电时间由２３：５９变更为２０：００ 【发布渠道】通过９５５９８发布","powerOffId":"2020041013000730"},{"poweroffId":2020041013000725,"sgpoweroffId":null,"subsName":"","lineName":"东农业线512","pubTranName":"北罡上混2,北堽上光3,北堽上光13【2019年预安排】,南堽上光5变压器,北堽上光1【2018年节能变】,新北罡光7,新南堽上光2,南堽上光4【2018年重过载】,车站公用8,国兴光8,车站公用3【2018年重过载】,北罡上光6,新北罡上光2,北堽上光9变压器【灾后重建】,北堽上光10【2018年重过载】,南堽上光1,北堽上光11【2018年重过载】,新北罡光8,北罡混1,北罡上光5,车站公用6变压器【2018年第二批应急工程】,北罡光4,南堽上光3,国兴光9,北堽上光12,","scope":"【影响街道/乡镇】固城镇 【高危重要客户】无 【影响客户】南堽上、北堽上、国兴部分用户、固城车站部分用户、定兴县佰丰农业技术服务有限公司、保定盛业冷暖设备有限公司、固城粮库、定兴县通用机械厂、国兴纸箱厂、追月星清真肉类加工厂、北罡上小学、保定诚信辊业有限公司、定兴棉库、北罡板厂、河北恒森商品混凝土制品有限公司、鸿源废旧物资、康成废旧物资回收","startTime":"2020-04-26 01:30:00","stopDate":"2020-04-26 06:00:00","orgNo":"1340609","typeCode":"计划停电","poweroffArea":"【全线路停电】停北堽上光10【2018年重过载】,南堽上光1,北堽上光11【2018年重过载】,新北罡光8,北罡混1,北罡上光5,车站公用6变压器【2018年第二批应急工程】,北罡光4,南堽上光3,国兴光9,北堽上光12,北罡上混2,北堽上光3,北堽上光13【2019年预安排】,南堽上光5变压器,北堽上光1【2018年节能变】,新北罡光7,新南堽上光2,南堽上光4【2018年重过载】,车站公用8,国兴光8,车站公用3【2018年重过载】,北罡上光6,新北罡上光2,北堽上光9变压器【灾后重建】","poweroffReason":"【停电原因】由于１号杆Ｔ接导线导致３５ＫＶ固城变电站东农业线５１２线路全线停电 【变更送电】无 【发布渠道】保定市定兴县电视台（０４月１８日０９时１０分至２３时５０分之间）屏幕上方滚动播放","powerTime":"2020-04-26 05:18:39","powerComm":"已送电","subsNo":"","lineNo":"","tgNo":"","tgName":null,"infoStatus":"1","orgName":"国网定兴县供电公司","typeName":null,"infoStatusName":null,"dateDay":null,"orgNos":null,"nowTime":null,"countyName":null,"streetName":null,"villageName":null,"roadName":null,"communityName":null,"tranName":null,"sdLineName":null,"cityCode":"1340609","cityName":"国网定兴县供电公司","provinceCode":null,"stopTime":"2020-04-26 06:00:00","powerType":"全部","powerOffArea":"【全线路停电】停北堽上光10【2018年重过载】,南堽上光1,北堽上光11【2018年重过载】,新北罡光8,北罡混1,北罡上光5,车站公用6变压器【2018年第二批应急工程】,北罡光4,南堽上光3,国兴光9,北堽上光12,北罡上混2,北堽上光3,北堽上光13【2019年预安排】,南堽上光5变压器,北堽上光1【2018年节能变】,新北罡光7,新南堽上光2,南堽上光4【2018年重过载】,车站公用8,国兴光8,车站公用3【2018年重过载】,北罡上光6,新北罡上光2,北堽上光9变压器【灾后重建】","powerOffReason":"【停电原因】由于１号杆Ｔ接导线导致３５ＫＶ固城变电站东农业线５１２线路全线停电 【变更送电】无 【发布渠道】保定市定兴县电视台（０４月１８日０９时１０分至２３时５０分之间）屏幕上方滚动播放","powerOffId":"2020041013000725"},{"poweroffId":2020041013000708,"sgpoweroffId":null,"subsName":"","lineName":"北店线545","pubTranName":"北祖村店光12,南侯村光5,郝家房光5,北祖村店光17,南祖村店光14,南祖村店光15,侯村营光7,侯村营光3,北侯村光4,郝家房村光3,郝家房村光2,北侯村光3,西城光3,北祖村店光16,侯村营光13,永兴庄光4,北侯新光11,西城光16,西城光11,南侯新光1,南侯新光2,侯村营光15,北侯新光3,郝家房光4,郝家房光6,西城光19,北祖村店光11,永兴庄光6,北侯新光1,南祖村店光7,北侯新光4,北侯村光2,南侯村光3,南祖村店光17,北侯新光2,南祖村店光13,南侯新光3,侯村营光11,侯村营光12,南祖村店光8,西城光18,北侯村光9,北侯村光1,北祖村店光7,侯村营光9,南祖村店光18,南祖村店光9,西城光9,南祖村店光12,南祖村店光11,西城光15,南祖村店光16,南祖村店光2,南侯村光4,北侯新光8,北祖村店光18,侯村营光16,北侯新光9,永兴庄光5,南祖村店光10,南祖村店光1,北祖村店光8,西城光20,北侯新光10,北祖村店光10,西城光10,侯村营光10,北祖村店光9,西城光13,南侯新光4,北侯新光12,南祖村店光3,南祖村店光4,北侯村光7,侯村营光2,西城光6,侯村营光5,侯村营光8,西城光14,侯村营光4,永兴庄光2,北侯村光8,郝家房村光1,永光庄光1,西城光5,南祖村店光6,北侯新光5,北祖村店光14,北祖村店光13,北祖村店光19,北侯新光7,北祖村店光15,南侯新光5,西城光12,侯村营光14,北侯新光6,侯村营光6,西关村光3,北侯村光6,西城光17,","scope":"【影响街道/乡镇】定兴镇 【高危重要客户】无 【影响客户】南侯、北侯、北关村部分用户、西关村部分用户、侯村营、西城村、三街村、北祖村店、南祖村店、永兴庄、许继正渔厂、郝家房","startTime":"2020-04-21 01:00:00","stopDate":"2020-04-21 06:00:00","orgNo":"1340609","typeCode":"计划停电","poweroffArea":"【全线路停电】停南侯村光5,北祖村店光12,郝家房光5,北祖村店光17,南祖村店光14,南祖村店光15,侯村营光7,侯村营光3,北侯村光4,郝家房村光3,郝家房村光2,北侯村光3,西城光3,北祖村店光16,侯村营光13,永兴庄光4,北侯新光11,西城光16,西城光11,南侯新光1,南侯新光2,侯村营光15,北侯新光3,郝家房光4,郝家房光6,西城光19,北祖村店光11,永兴庄光6,北侯新光1,南祖村店光7,北侯新光4,北侯村光2,南侯村光3,南祖村店光17,北侯新光2,南祖村店光13,南侯新光3,侯村营光11,侯村营光12,南祖村店光8,西城光18,北侯村光9,北侯村光1,北祖村店光7,侯村营光9,南祖村店光18,南祖村店光9,西城光9,南祖村店光12,南祖村店光11,西城光15,南祖村店光16,南祖村店光2,南侯村光4,北侯新光8,北祖村店光18,侯村营光16,北侯新光9,永兴庄光5,南祖村店光10,南祖村店光1,北祖村店光8,西城光20,北侯新光10,北祖村店光10,西城光10,侯村营光10,北祖村店光9,西城光13,南侯新光4,北侯新光12,南祖村店光3,南祖村店光4,北侯村光7,侯村营光2,西城光6,侯村营光5,侯村营光8,西城光14,侯村营光4,永兴庄光2,北侯村光8,郝家房村光1,永光庄光1,西城光5,南祖村店光6,北侯新光5,北祖村店光14,北祖村店光13,北祖村店光19,北侯新光7,北祖村店光15,南侯新光5,西城光12,侯村营光14,北侯新光6,侯村营光6,西关村光3,北侯村光6,西城光17","poweroffReason":"【停电原因】由于主干０１０号杆搭接弓子线导致１１０ＫＶ兴北变电站北店线５４５线路全线停电 【变更送电】无 【发布渠道】保定市定兴县电视台（０４月１３日０９时１０分至２３时５０分之间）屏幕上方滚动播放","powerTime":"2020-04-21 05:53:08","powerComm":"已送电","subsNo":"","lineNo":"","tgNo":"","tgName":null,"infoStatus":"1","orgName":"国网定兴县供电公司","typeName":null,"infoStatusName":null,"dateDay":null,"orgNos":null,"nowTime":null,"countyName":null,"streetName":null,"villageName":null,"roadName":null,"communityName":null,"tranName":null,"sdLineName":null,"cityCode":"1340609","cityName":"国网定兴县供电公司","provinceCode":null,"stopTime":"2020-04-21 06:00:00","powerType":"全部","powerOffArea":"【全线路停电】停南侯村光5,北祖村店光12,郝家房光5,北祖村店光17,南祖村店光14,南祖村店光15,侯村营光7,侯村营光3,北侯村光4,郝家房村光3,郝家房村光2,北侯村光3,西城光3,北祖村店光16,侯村营光13,永兴庄光4,北侯新光11,西城光16,西城光11,南侯新光1,南侯新光2,侯村营光15,北侯新光3,郝家房光4,郝家房光6,西城光19,北祖村店光11,永兴庄光6,北侯新光1,南祖村店光7,北侯新光4,北侯村光2,南侯村光3,南祖村店光17,北侯新光2,南祖村店光13,南侯新光3,侯村营光11,侯村营光12,南祖村店光8,西城光18,北侯村光9,北侯村光1,北祖村店光7,侯村营光9,南祖村店光18,南祖村店光9,西城光9,南祖村店光12,南祖村店光11,西城光15,南祖村店光16,南祖村店光2,南侯村光4,北侯新光8,北祖村店光18,侯村营光16,北侯新光9,永兴庄光5,南祖村店光10,南祖村店光1,北祖村店光8,西城光20,北侯新光10,北祖村店光10,西城光10,侯村营光10,北祖村店光9,西城光13,南侯新光4,北侯新光12,南祖村店光3,南祖村店光4,北侯村光7,侯村营光2,西城光6,侯村营光5,侯村营光8,西城光14,侯村营光4,永兴庄光2,北侯村光8,郝家房村光1,永光庄光1,西城光5,南祖村店光6,北侯新光5,北祖村店光14,北祖村店光13,北祖村店光19,北侯新光7,北祖村店光15,南侯新光5,西城光12,侯村营光14,北侯新光6,侯村营光6,西关村光3,北侯村光6,西城光17","powerOffReason":"【停电原因】由于主干０１０号杆搭接弓子线导致１１０ＫＶ兴北变电站北店线５４５线路全线停电 【变更送电】无 【发布渠道】保定市定兴县电视台（０４月１３日０９时１０分至２３时５０分之间）屏幕上方滚动播放","powerOffId":"2020041013000708"},{"poweroffId":2020041013000681,"sgpoweroffId":null,"subsName":"","lineName":"沙口线576","pubTranName":"大辛庄9号配变,郝王庄11号,郝王庄12号,南公村15号,水磨头12号,水磨头19号配变【纯农排变】,水磨头27号,水磨头28号,水磨头29号,水磨头30号,水磨头31号,小康庄1号配变,新立庄1号配变,大辛庄25号配变,","scope":"【影响街道/乡镇】崔庄镇 【高危重要客户】无 【影响客户】大千秋、大辛庄、南公村、水磨头、郝王庄、沙口、新立庄、小康庄","startTime":"2020-04-25 05:00:00","stopDate":"2020-04-25 19:00:00","orgNo":"1340605","typeCode":"计划停电","poweroffArea":"【全线路停电】停大千秋7号【纯农排变】,大辛庄10号配变,大辛庄20号【纯农排变】,大辛庄21号配变,大辛庄22号配变,大辛庄25号配变,大辛庄26号,大辛庄2号配变,大辛庄31号配变【纯农排变】,大辛庄33号配变,大辛庄35号配变,大辛庄36号配变,大辛庄3号配变,大辛庄8号配变,大辛庄9号配变,大辛庄供电所14号【纯农排变】,大辛庄供电所15号,大辛庄供电所6号【纯农排变】,大辛庄供电所7号配变【纯农排变】,大辛庄供电所8号配变,郝王庄10号,郝王庄11号,郝王庄12号,郝王庄1号配变,郝王庄2号【纯农排变】,郝王庄3号,郝王庄4号配变,郝王庄5号【纯农排变】,郝王庄6号【纯农排变】,郝王庄7号配变【纯农排变】,郝王庄8号,郝王庄9号,客户投资_大辛庄25号配变,客户投资_大辛庄29号配变,客户投资_大辛庄9号配变,客户投资_郝王庄8号,客户投资_水磨头19号配变,客户投资_水磨头1号配变,南公村10号配变,南公村11号配变,南公村12号配变,南公村13号配变,南公村14号配变,南公村15号,南公村1号配变【纯农排变】,南公村2号配变,南公村3号配变,南公村5号配变,南公村7号配变【纯农排变】,沙口11号【纯农排变】,沙口14号【纯农排变】,水磨头10号,水磨头11号,水磨头12号,水磨头13号,水磨头14号【纯农排变】,水磨头15号,水磨头16号配变【纯农排变】,水磨头17号配变【纯农排变】,水磨头18号配变,水磨头19号配变【纯农排变】,水磨头1号配变【纯农排变】,水磨头20号配变【纯农排变】,水磨头21号【纯农排变】,水磨头22号配变,水磨头23号,水磨头24号,水磨头25号,水磨头26号,水磨头27号,水磨头28号,水磨头29号,水磨头2号配变【纯农排变】,水磨头30号,水磨头31号,水磨头3号配变【纯农排变】,水磨头4号配变,水磨头5号【纯农排变】,水磨头6号配变,水磨头7号配变【纯农排变】,水磨头8号配变【纯农排变】,水磨头9号配变,小康庄1号配变,小康庄2号配变【纯农排变】,小康庄3号配变【纯农排变】,小康庄4号,小康庄5号,小康庄6号,小康庄7号,新立庄1号配变,新立庄2号【纯农排变】","poweroffReason":"【停电原因】由于计划检修导致１１０ＫＶ沙口变电站沙口线５７６线路全线停电 【变更送电】因工作未完成原因，送电时间由１８:００变更为１９:００ 【发布渠道】通过河北省保定市徐水电视台游走滚动字幕播放（２０２０年０４月１８日０８:００至０４月２４日２０:００）","powerTime":"2020-04-25 18:12:11","powerComm":"已送电","subsNo":"","lineNo":"","tgNo":"","tgName":null,"infoStatus":"1","orgName":"国网徐水县供电公司","typeName":null,"infoStatusName":null,"dateDay":null,"orgNos":null,"nowTime":null,"countyName":null,"streetName":null,"villageName":null,"roadName":null,"communityName":null,"tranName":null,"sdLineName":null,"cityCode":"1340605","cityName":"国网徐水县供电公司","provinceCode":null,"stopTime":"2020-04-25 19:00:00","powerType":"全部","powerOffArea":"【全线路停电】停大千秋7号【纯农排变】,大辛庄10号配变,大辛庄20号【纯农排变】,大辛庄21号配变,大辛庄22号配变,大辛庄25号配变,大辛庄26号,大辛庄2号配变,大辛庄31号配变【纯农排变】,大辛庄33号配变,大辛庄35号配变,大辛庄36号配变,大辛庄3号配变,大辛庄8号配变,大辛庄9号配变,大辛庄供电所14号【纯农排变】,大辛庄供电所15号,大辛庄供电所6号【纯农排变】,大辛庄供电所7号配变【纯农排变】,大辛庄供电所8号配变,郝王庄10号,郝王庄11号,郝王庄12号,郝王庄1号配变,郝王庄2号【纯农排变】,郝王庄3号,郝王庄4号配变,郝王庄5号【纯农排变】,郝王庄6号【纯农排变】,郝王庄7号配变【纯农排变】,郝王庄8号,郝王庄9号,客户投资_大辛庄25号配变,客户投资_大辛庄29号配变,客户投资_大辛庄9号配变,客户投资_郝王庄8号,客户投资_水磨头19号配变,客户投资_水磨头1号配变,南公村10号配变,南公村11号配变,南公村12号配变,南公村13号配变,南公村14号配变,南公村15号,南公村1号配变【纯农排变】,南公村2号配变,南公村3号配变,南公村5号配变,南公村7号配变【纯农排变】,沙口11号【纯农排变】,沙口14号【纯农排变】,水磨头10号,水磨头11号,水磨头12号,水磨头13号,水磨头14号【纯农排变】,水磨头15号,水磨头16号配变【纯农排变】,水磨头17号配变【纯农排变】,水磨头18号配变,水磨头19号配变【纯农排变】,水磨头1号配变【纯农排变】,水磨头20号配变【纯农排变】,水磨头21号【纯农排变】,水磨头22号配变,水磨头23号,水磨头24号,水磨头25号,水磨头26号,水磨头27号,水磨头28号,水磨头29号,水磨头2号配变【纯农排变】,水磨头30号,水磨头31号,水磨头3号配变【纯农排变】,水磨头4号配变,水磨头5号【纯农排变】,水磨头6号配变,水磨头7号配变【纯农排变】,水磨头8号配变【纯农排变】,水磨头9号配变,小康庄1号配变,小康庄2号配变【纯农排变】,小康庄3号配变【纯农排变】,小康庄4号,小康庄5号,小康庄6号,小康庄7号,新立庄1号配变,新立庄2号【纯农排变】","powerOffReason":"【停电原因】由于计划检修导致１１０ＫＶ沙口变电站沙口线５７６线路全线停电 【变更送电】因工作未完成原因，送电时间由１８:００变更为１９:００ 【发布渠道】通过河北省保定市徐水电视台游走滚动字幕播放（２０２０年０４月１８日０８:００至０４月２４日２０:００）","powerOffId":"2020041013000681"},{"poweroffId":2020041013000663,"sgpoweroffId":null,"subsName":"","lineName":"屯庄线518","pubTranName":"文村1号,文村5号,文村15号,广门营6号,广门营16号,栗元庄4号,","scope":"【影响街道/乡镇】遂城镇 【高危重要客户】无 【影响客户】栗元庄、屯庄、文村、广门营","startTime":"2020-04-25 06:00:00","stopDate":"2020-04-25 19:00:00","orgNo":"1340605","typeCode":"计划停电","poweroffArea":"【全线路停电】停栗元庄3号【纯农排变】,屯庄11号【纯农排变】,文村12号【纯农排变】,文村17号,文村5号,广门营12号【纯农排变】,屯庄19号,文村15号,屯庄8号【纯农排变】,徐水县瑞鑫金属精密件制造有限公司变压器,广门营6号,文村2号,徐水县祥瑞食品有限公司,文村3号,栗元庄9号,屯庄7号【纯农排变】,广门营7号【纯农排变】,徐水县兑发无纺布厂,联谊装饰材料厂,文村砖厂1号,津联轧钢厂,屯庄22号,广门营5号,徐水县坤宇水泥砖厂,文村7号【纯农排变】,屯庄4号,文村8号,文村1号,文村16号,栗元庄11号【纯农排变】,广门营13号【纯农排变】,屯庄18号,文村6号【纯农排变】,文村9号【纯农排变】,屯庄5号,文村14号【纯农排变】,屯庄21号,文村13号【纯农排变】,文村19号,宏源毛纺厂,徐水县山海铁道配件厂,徐水县宏达管件厂,屯庄20号【纯农排变】,保定兰天群青制造有限公司,屯庄6号【纯农排变】,屯庄2号,文村20号【纯农排变】,文村10号,文村11号【纯农排变】,栗元庄4号,屯庄14号,屯庄15号【纯农排变】,屯庄9号【纯农排变】,栗元庄2号【纯农排变】,屯庄13号,屯庄3号,屯庄12号,屯庄16号,国网河北徐水县供电责任有限公司广门供电所站变,广门营16号,文村4号【纯农排变】,屯庄10号,文村18号,屯庄1号","poweroffReason":"【停电原因】由于计划检修导致３５ＫＶ广门变电站屯庄线５１８线路全线停电 【变更送电】因工作未完成原因，送电时间由１８:００变更为１９:００ 【发布渠道】通过河北省保定市徐水电视台游走滚动字幕播放（２０２０年０４月１８日０８:００至０４月２４日２０:００）","powerTime":"2020-04-25 18:11:53","powerComm":"已送电","subsNo":"","lineNo":"","tgNo":"","tgName":null,"infoStatus":"1","orgName":"国网徐水县供电公司","typeName":null,"infoStatusName":null,"dateDay":null,"orgNos":null,"nowTime":null,"countyName":null,"streetName":null,"villageName":null,"roadName":null,"communityName":null,"tranName":null,"sdLineName":null,"cityCode":"1340605","cityName":"国网徐水县供电公司","provinceCode":null,"stopTime":"2020-04-25 19:00:00","powerType":"全部","powerOffArea":"【全线路停电】停栗元庄3号【纯农排变】,屯庄11号【纯农排变】,文村12号【纯农排变】,文村17号,文村5号,广门营12号【纯农排变】,屯庄19号,文村15号,屯庄8号【纯农排变】,徐水县瑞鑫金属精密件制造有限公司变压器,广门营6号,文村2号,徐水县祥瑞食品有限公司,文村3号,栗元庄9号,屯庄7号【纯农排变】,广门营7号【纯农排变】,徐水县兑发无纺布厂,联谊装饰材料厂,文村砖厂1号,津联轧钢厂,屯庄22号,广门营5号,徐水县坤宇水泥砖厂,文村7号【纯农排变】,屯庄4号,文村8号,文村1号,文村16号,栗元庄11号【纯农排变】,广门营13号【纯农排变】,屯庄18号,文村6号【纯农排变】,文村9号【纯农排变】,屯庄5号,文村14号【纯农排变】,屯庄21号,文村13号【纯农排变】,文村19号,宏源毛纺厂,徐水县山海铁道配件厂,徐水县宏达管件厂,屯庄20号【纯农排变】,保定兰天群青制造有限公司,屯庄6号【纯农排变】,屯庄2号,文村20号【纯农排变】,文村10号,文村11号【纯农排变】,栗元庄4号,屯庄14号,屯庄15号【纯农排变】,屯庄9号【纯农排变】,栗元庄2号【纯农排变】,屯庄13号,屯庄3号,屯庄12号,屯庄16号,国网河北徐水县供电责任有限公司广门供电所站变,广门营16号,文村4号【纯农排变】,屯庄10号,文村18号,屯庄1号","powerOffReason":"【停电原因】由于计划检修导致３５ＫＶ广门变电站屯庄线５１８线路全线停电 【变更送电】因工作未完成原因，送电时间由１８:００变更为１９:００ 【发布渠道】通过河北省保定市徐水电视台游走滚动字幕播放（２０２０年０４月１８日０８:００至０４月２４日２０:００）","powerOffId":"2020041013000663"},{"poweroffId":2020041013000642,"sgpoweroffId":null,"subsName":"","lineName":"10KV义和庄514","pubTranName":"长安城南1439,","scope":"【影响街道/乡镇】义和庄乡 【高危重要客户】无 【影响客户】长安城村","startTime":"2020-04-10 16:53:21","stopDate":"2020-04-10 18:30:00","orgNo":"1340626","typeCode":"电网故障停限电","poweroffArea":"【单台区停电】停长安城南1439","poweroffReason":"【停电原因】由于低压空开烧毁导致３５ＫＶ码头变电站１０ＫＶ义和庄５１４线路长安城南１４３９公变台区停电 【变更送电】因抢修进度加快原因，送电时间由２３：００变更为１８：３０ 【发布渠道】通过９５５９８发布","powerTime":"2020-04-10 18:08:25","powerComm":"恢复送电","subsNo":"","lineNo":"","tgNo":"","tgName":null,"infoStatus":"1","orgName":"国网涿州市供电公司","typeName":null,"infoStatusName":null,"dateDay":null,"orgNos":null,"nowTime":null,"countyName":null,"streetName":null,"villageName":null,"roadName":null,"communityName":null,"tranName":null,"sdLineName":null,"cityCode":"1340626","cityName":"国网涿州市供电公司","provinceCode":null,"stopTime":"2020-04-10 18:30:00","powerType":"全部","powerOffArea":"【单台区停电】停长安城南1439","powerOffReason":"【停电原因】由于低压空开烧毁导致３５ＫＶ码头变电站１０ＫＶ义和庄５１４线路长安城南１４３９公变台区停电 【变更送电】因抢修进度加快原因，送电时间由２３：００变更为１８：３０ 【发布渠道】通过９５５９８发布","powerOffId":"2020041013000642"},{"poweroffId":2020041013000590,"sgpoweroffId":null,"subsName":"","lineName":"十里铺线513","pubTranName":"曲桥变压器,田东混用变压器,郝庄北变压器,武家村变压器,田西南变压器,田西北变压器,田东南变压器,十里铺中变压器,东马营李庄,田西排灌变压器,前孟变压器,大屯南变压器,宇航织带变压器,十里铺北变压器,曲桥南变压器,大屯北地变压器【纯农排变】,田西混用柱上变压器,梁庄南变压器,大屯内变压器,大王庄东变压器,田东北变压器,后孟西变压器,武家村南变压器,大王庄西变压器,田宜屯东村变压器,大屯西地变压器,梁庄变压器,朱庄东变压器,郝庄变压器,十里铺公变,十里铺东变压器,田西中变压器,大王庄新架变压器,前孟东变压器,田东东变压器,曲桥东变压器,大屯村东变压器,东马营李庄西变压器,朱庄西变压器,李庄东变压器,后孟变压器,曲辛庄西变压器,胡街地西变压器【纯农排变】,十里铺西变压器,保定营排灌变压器,客户投资_曲辛庄变压器,东马营小陈庄,大王庄北变压器,","scope":"【影响街道/乡镇】新城镇、东马营镇 【高危重要客户】无 【影响客户】良庄村、大屯村、武家村、朱庄村、十里铺村、曲桥村、曲辛庄村、前孟村、后孟村、小陈庄村、李庄村、大王庄村、郝庄村、田宜屯东村、田宜屯西村、大屯垃圾场、大屯小学、河北艾莫森通用机场、水办处、大屯扬水机站、平建军搅拌站、宇建尚砼、东马营村、马文武箱包加工厂、大屯煤场、东马营镇春顺养猪场、十里铺收费站、硕康食品调料有限公司、诚真海绵纸厂、保定德意隆箱包制造有限公司、王海彬、恒海压铸厂、孙凤田、中国移动高碑店分公司郝庄基站","startTime":"2020-04-10 16:11:13","stopDate":"2020-04-10 18:00:00","orgNo":"1340612","typeCode":"电网故障停限电","poweroffArea":"【全线路停电】停郝庄北变压器,大屯排灌8变压器,曲辛庄地北变压器【纯农排变】,曲桥排灌3变压器【纯农排变】,孙凤田变压器,线庄排灌变压器【纯农排变】,高碑店市东马营马文武箱包加工厂变压器,曲桥排灌2变压器【纯农排变】,朱庄地东变压器【纯农排变】,平建军搅拌站变压器,大屯排灌变压器,梁庄南变压器,大屯内变压器,十里铺中变压器,平泽华面粉厂,大屯垃圾场,高碑店市水利局变压器,郭街砖厂2,大王庄地北变压器【纯农排变】,十里铺排灌3变压器【纯农排变】,中国移动通信集体河北有限公司高碑店分公司,田西排灌变压器,前孟变压器,李庄南变压器,大屯西南地（磁卡）变压器,朱庄排灌1变压器【纯农排变】,田东南变压器,丰元庄排灌变压器,田东排灌1变压器【纯农排变】,曲桥变压器,武家村排灌变压器【纯农排变】,永固水泥制品变压器,大王庄东变压器,田东北变压器,后孟西变压器,武家村南变压器,许立强变压器,东马营李庄,高碑店市栎荧餐厨废弃物回收有限公司,大王庄地南变压器【纯农排变】,高碑店市丰民农业服务农民专业合作社变压器,田东东变压器,十里铺地中变压器,十里铺西地1变压器【纯农排变】,郭街北排灌变压器【纯农排变】,大屯南排灌变压器【纯农排变】,大屯南变压器,大王庄北变压器,张秀生,孙建华变压器,朱庄变压器,大王庄西变压器,前孟东变压器,大屯南地,曲桥东变压器,保定德意隆箱包制造有限公司,田东地南2变压器【纯农排变】,大屯村东变压器,大屯东排灌变压器【纯农排变】,朱庄西变压器,高碑店市东马营春顺养猪场,后孟浇地,高碑店市东马营诚真海绵纸厂变压器,河北艾莫森通用航空有限公司,武家村南排灌变压器【纯农排变】,李庄东变压器,保定锐麒金属制品有限公司,武家村变压器,田西北变压器,梁庄西地变压器【纯农排变】,大屯北变压器,宇航织带变压器,王海彬变压器,变压器,郭街砖厂,田西地北变压器【纯农排变】,曲辛庄地南变压器【纯农排变】,河北永固水泥制品有限公司高碑店分公司,十里铺北变压器,田东混用变压器,郝庄排灌变压器【纯农排变】,十里铺公变,曲辛庄西变压器,保定营排灌变压器,客户投资_曲辛庄变压器,朱庄东变压器,十里铺东变压器,田西中变压器,十里铺南变压器,大屯北地变压器【纯农排变】,田东排灌2变压器【纯农排变】,徐建变压器,田宜屯东村变压器,大屯西地变压器,王宾,梁庄变压器,郝庄变压器,朱庄排灌2变压器【纯农排变】,郝庄地变压器【纯农排变】,李庄排灌1变压器【纯农排变】,东马营李庄西变压器,大屯面,李庄果园变压器【纯农排变】,田西南变压器,田东地南1变压器【纯农排变】,曲桥地变压器,高碑店市鑫树山建材销售处变压器,大王庄新架变压器,曲桥南变压器,十里铺西地2变压器【纯农排变】,西张庄地变压器【纯农排变】,收费站,田西地南变压器【纯农排变】,田东地北变压器【纯农排变】,高碑店市东马营恒海压铸厂,高碑店市新城镇大屯中心小学,保定铭信商砼有限公司,李庄排灌2变压器【纯农排变】,高碑店市铭信建筑材料销售有限公司,梁庄东地2变压器【纯农排变】,后孟变压器,梁庄东地1变压器【纯农排变】,胡街地西变压器【纯农排变】,十里铺排灌5变压器【纯农排变】,十里铺西变压器,十里铺地东变压器【纯农排变】,东五地北变压器【纯农排变】,东马营小陈庄,曲桥排灌1变压器【纯农排变】,十里铺排灌4变压器【纯农排变】,高碑店市水利局河防办事处,田西混用柱上变压器,高碑店市宏明远土地整理工程有限公司变压器","poweroffReason":"【停电原因】由于梁庄东地分支０６号杆有铁丝搭线导致１１０ＫＶ太平庄变电站１０ＫＶ十里铺５１３线路全线停电 【变更送电】因抢修进度加快原因，送电时间由２２：００变更为１８：００ 【发布渠道】通过９５５９８发布","powerTime":"2020-04-10 17:40:03","powerComm":"已送电","subsNo":"","lineNo":"","tgNo":"","tgName":null,"infoStatus":"1","orgName":"国网高碑店市供电公司","typeName":null,"infoStatusName":null,"dateDay":null,"orgNos":null,"nowTime":null,"countyName":null,"streetName":null,"villageName":null,"roadName":null,"communityName":null,"tranName":null,"sdLineName":null,"cityCode":"1340612","cityName":"国网高碑店市供电公司","provinceCode":null,"stopTime":"2020-04-10 18:00:00","powerType":"全部","powerOffArea":"【全线路停电】停郝庄北变压器,大屯排灌8变压器,曲辛庄地北变压器【纯农排变】,曲桥排灌3变压器【纯农排变】,孙凤田变压器,线庄排灌变压器【纯农排变】,高碑店市东马营马文武箱包加工厂变压器,曲桥排灌2变压器【纯农排变】,朱庄地东变压器【纯农排变】,平建军搅拌站变压器,大屯排灌变压器,梁庄南变压器,大屯内变压器,十里铺中变压器,平泽华面粉厂,大屯垃圾场,高碑店市水利局变压器,郭街砖厂2,大王庄地北变压器【纯农排变】,十里铺排灌3变压器【纯农排变】,中国移动通信集体河北有限公司高碑店分公司,田西排灌变压器,前孟变压器,李庄南变压器,大屯西南地（磁卡）变压器,朱庄排灌1变压器【纯农排变】,田东南变压器,丰元庄排灌变压器,田东排灌1变压器【纯农排变】,曲桥变压器,武家村排灌变压器【纯农排变】,永固水泥制品变压器,大王庄东变压器,田东北变压器,后孟西变压器,武家村南变压器,许立强变压器,东马营李庄,高碑店市栎荧餐厨废弃物回收有限公司,大王庄地南变压器【纯农排变】,高碑店市丰民农业服务农民专业合作社变压器,田东东变压器,十里铺地中变压器,十里铺西地1变压器【纯农排变】,郭街北排灌变压器【纯农排变】,大屯南排灌变压器【纯农排变】,大屯南变压器,大王庄北变压器,张秀生,孙建华变压器,朱庄变压器,大王庄西变压器,前孟东变压器,大屯南地,曲桥东变压器,保定德意隆箱包制造有限公司,田东地南2变压器【纯农排变】,大屯村东变压器,大屯东排灌变压器【纯农排变】,朱庄西变压器,高碑店市东马营春顺养猪场,后孟浇地,高碑店市东马营诚真海绵纸厂变压器,河北艾莫森通用航空有限公司,武家村南排灌变压器【纯农排变】,李庄东变压器,保定锐麒金属制品有限公司,武家村变压器,田西北变压器,梁庄西地变压器【纯农排变】,大屯北变压器,宇航织带变压器,王海彬变压器,变压器,郭街砖厂,田西地北变压器【纯农排变】,曲辛庄地南变压器【纯农排变】,河北永固水泥制品有限公司高碑店分公司,十里铺北变压器,田东混用变压器,郝庄排灌变压器【纯农排变】,十里铺公变,曲辛庄西变压器,保定营排灌变压器,客户投资_曲辛庄变压器,朱庄东变压器,十里铺东变压器,田西中变压器,十里铺南变压器,大屯北地变压器【纯农排变】,田东排灌2变压器【纯农排变】,徐建变压器,田宜屯东村变压器,大屯西地变压器,王宾,梁庄变压器,郝庄变压器,朱庄排灌2变压器【纯农排变】,郝庄地变压器【纯农排变】,李庄排灌1变压器【纯农排变】,东马营李庄西变压器,大屯面,李庄果园变压器【纯农排变】,田西南变压器,田东地南1变压器【纯农排变】,曲桥地变压器,高碑店市鑫树山建材销售处变压器,大王庄新架变压器,曲桥南变压器,十里铺西地2变压器【纯农排变】,西张庄地变压器【纯农排变】,收费站,田西地南变压器【纯农排变】,田东地北变压器【纯农排变】,高碑店市东马营恒海压铸厂,高碑店市新城镇大屯中心小学,保定铭信商砼有限公司,李庄排灌2变压器【纯农排变】,高碑店市铭信建筑材料销售有限公司,梁庄东地2变压器【纯农排变】,后孟变压器,梁庄东地1变压器【纯农排变】,胡街地西变压器【纯农排变】,十里铺排灌5变压器【纯农排变】,十里铺西变压器,十里铺地东变压器【纯农排变】,东五地北变压器【纯农排变】,东马营小陈庄,曲桥排灌1变压器【纯农排变】,十里铺排灌4变压器【纯农排变】,高碑店市水利局河防办事处,田西混用柱上变压器,高碑店市宏明远土地整理工程有限公司变压器","powerOffReason":"【停电原因】由于梁庄东地分支０６号杆有铁丝搭线导致１１０ＫＶ太平庄变电站１０ＫＶ十里铺５１３线路全线停电 【变更送电】因抢修进度加快原因，送电时间由２２：００变更为１８：００ 【发布渠道】通过９５５９８发布","powerOffId":"2020041013000590"}],"pageModel":{"pageNow":187,"totalCount":10973,"totalPage":1098,"tableRows":0,"pageCount":10,"beginCount":1860},"isExperi":"1"}