{"message":"","today":"2020-06-15","seleList":[{"poweroffId":2020041013000307,"sgpoweroffId":null,"subsName":"","lineName":"军农场线511","pubTranName":"北王疃村内西3号配变,田庄村内西1配变,南陈庄内东2号,田庄内西,田庄内东,田庄村内东1配变,北王疃内南2,北王疃村内南,南陈庄内西2号,南陈庄内东,南陈庄内西,田庄村内东2配变,","scope":"【影响街道/乡镇】中韩庄乡 【高危重要客户】无　　 【影响客户】三民村、南陈庄、中韩庄村、北王疃村、田庄村","startTime":"2020-04-26 06:00:00","stopDate":"2020-04-26 18:00:00","orgNo":"1340623","typeCode":"计划停电","poweroffArea":"【全线路停电】停三民村北,南陈庄村北2号,北王疃村内东,北王疃村内北,北王疃村内西3号配变,田庄村内西1配变,南陈庄内东2号,北王疃鸡场南3号,三民村二队,中韩庄村内,中韩庄内西,田庄内西,北王疃村内西,北王疃村内西2号,田庄内东,田庄村内东1配变,北王疃内南2,三民村三队,北王疃村内南,南陈庄内西2号,南陈庄内东,南陈庄内西,田庄村内东2配变","poweroffReason":"【停电原因】由于更换电杆、更换导线、紧固支瓶导致３５ＫＶ曹庄变电站军农场线５１１线路全线停电 【变更送电】无 【发布渠道】保定市望都有线电视台（０４月１１日至０４月２５日１９时００分至２０时００分之间）屏幕上方滚动","powerTime":"2020-04-26 17:42:21","powerComm":"已送电","subsNo":"","lineNo":"","tgNo":"","tgName":null,"infoStatus":"1","orgName":"国网望都县供电公司","typeName":null,"infoStatusName":null,"dateDay":null,"orgNos":null,"nowTime":null,"countyName":null,"streetName":null,"villageName":null,"roadName":null,"communityName":null,"tranName":null,"sdLineName":null,"cityCode":"1340623","cityName":"国网望都县供电公司","provinceCode":null,"stopTime":"2020-04-26 18:00:00","powerType":"全部","powerOffArea":"【全线路停电】停三民村北,南陈庄村北2号,北王疃村内东,北王疃村内北,北王疃村内西3号配变,田庄村内西1配变,南陈庄内东2号,北王疃鸡场南3号,三民村二队,中韩庄村内,中韩庄内西,田庄内西,北王疃村内西,北王疃村内西2号,田庄内东,田庄村内东1配变,北王疃内南2,三民村三队,北王疃村内南,南陈庄内西2号,南陈庄内东,南陈庄内西,田庄村内东2配变","powerOffReason":"【停电原因】由于更换电杆、更换导线、紧固支瓶导致３５ＫＶ曹庄变电站军农场线５１１线路全线停电 【变更送电】无 【发布渠道】保定市望都有线电视台（０４月１１日至０４月２５日１９时００分至２０时００分之间）屏幕上方滚动","powerOffId":"2020041013000307"},{"poweroffId":2020041013000250,"sgpoweroffId":null,"subsName":"","lineName":"协议线512","pubTranName":"石井种羊基地,协议于庄（统管）,协议何家沟（统管）,协议于庄2号（统管）,孟新民,0387471934-石保定市满城县井河沿-专变-45299166-石井河沿,协议村西井（农网）,0387470058-保定市满城县石井西山-专变-45299234-石井西山,协议十八亩地（统管）,联营石渣厂新增1号200,协议大庄（统管）,永安庄小王左井,0387471598-保定市满城北沟果园井-专变-45299598-北沟果园井,协议六队（统管）,协议大队井【纯农排变】,红星肠衣厂,石井西山下2号【纯农排变】,杨树坟,石井青山峪【纯农排变】,保定市满城县永胜畜牧养殖有限公司,万顺达养殖场,王新民加油站,石井桃园,聚润建材厂,保定市满城区秀兰文化园1000,协议东沟（统管）,协议石光板（统管）,永安庄第二采石厂,协议一队（统管）,吉明纸箱厂,石井大桥新增（统管）,聚润建材厂1000,协议险下（统管）,0387468631-保定市满城县石井北沟井-专变-45299235-石井北沟井,0583144405-保定晟晔包装有限公司-专变-124847389-保定晟晔包装有限公司,永安庄村民委员会,东于河建材,李兵养殖厂变压器,联营石渣厂新增2号1000,王永涛,0387471905-刘春福-专变-45299276-石井刘春辅井,石井永昌纸箱厂,协议学校,","scope":"【影响街道/乡镇】石井乡 【高危重要客户】无 【影响客户】协议、石井","startTime":"2020-04-19 06:00:00","stopDate":"2020-04-19 18:00:00","orgNo":"1340617","typeCode":"计划停电","poweroffArea":"【全线路停电】停万顺达养殖场,聚润建材厂1000,李兵养殖厂变压器,永安庄小王左井,0387471934-石保定市满城县井河沿-专变-45299166-石井河沿,石井永昌纸箱厂,保定市满城县永胜畜牧养殖有限公司,聚润建材厂,杨树坟,石井种羊基地,石井大桥新增（统管）,王新民加油站,孟新民,联营石渣厂新增2号1000,石井桃园,保定市满城区秀兰文化园1000,协议大庄（统管）,永安庄第二采石厂,0387468631-保定市满城县石井北沟井-专变-45299235-石井北沟井,0387470058-保定市满城县石井西山-专变-45299234-石井西山,协议险下（统管）,协议一队（统管）,0583144405-保定晟晔包装有限公司-专变-124847389-保定晟晔包装有限公司,东于河建材,协议六队（统管）,协议于庄2号（统管）,协议何家沟（统管）,石井青山峪【纯农排变】,石井西山下2号【纯农排变】,王永涛,联营石渣厂新增1号200,红星肠衣厂,吉明纸箱厂,永安庄村民委员会,协议石光板（统管）,0387471905-刘春福-专变-45299276-石井刘春辅井,协议于庄（统管）,协议学校,协议东沟（统管）,协议大队井【纯农排变】,协议村西井（农网）,协议十八亩地（统管）,0387471598-保定市满城北沟果园井-专变-45299598-北沟果园井","poweroffReason":"【停电原因】由于线路检修导致３５ＫＶ石井变电站协议线５１２线路全线停电 【变更送电】无 【发布渠道】保定市满城电视台（０４月１０日１９：００－２０：００至０４月１８日１９：００－２０：００之间）屏幕上方滚动。","powerTime":"2020-04-19 17:44:21","powerComm":"已送电","subsNo":"","lineNo":"","tgNo":"","tgName":null,"infoStatus":"1","orgName":"国网满城县供电公司","typeName":null,"infoStatusName":null,"dateDay":null,"orgNos":null,"nowTime":null,"countyName":null,"streetName":null,"villageName":null,"roadName":null,"communityName":null,"tranName":null,"sdLineName":null,"cityCode":"1340617","cityName":"国网满城县供电公司","provinceCode":null,"stopTime":"2020-04-19 18:00:00","powerType":"全部","powerOffArea":"【全线路停电】停万顺达养殖场,聚润建材厂1000,李兵养殖厂变压器,永安庄小王左井,0387471934-石保定市满城县井河沿-专变-45299166-石井河沿,石井永昌纸箱厂,保定市满城县永胜畜牧养殖有限公司,聚润建材厂,杨树坟,石井种羊基地,石井大桥新增（统管）,王新民加油站,孟新民,联营石渣厂新增2号1000,石井桃园,保定市满城区秀兰文化园1000,协议大庄（统管）,永安庄第二采石厂,0387468631-保定市满城县石井北沟井-专变-45299235-石井北沟井,0387470058-保定市满城县石井西山-专变-45299234-石井西山,协议险下（统管）,协议一队（统管）,0583144405-保定晟晔包装有限公司-专变-124847389-保定晟晔包装有限公司,东于河建材,协议六队（统管）,协议于庄2号（统管）,协议何家沟（统管）,石井青山峪【纯农排变】,石井西山下2号【纯农排变】,王永涛,联营石渣厂新增1号200,红星肠衣厂,吉明纸箱厂,永安庄村民委员会,协议石光板（统管）,0387471905-刘春福-专变-45299276-石井刘春辅井,协议于庄（统管）,协议学校,协议东沟（统管）,协议大队井【纯农排变】,协议村西井（农网）,协议十八亩地（统管）,0387471598-保定市满城北沟果园井-专变-45299598-北沟果园井","powerOffReason":"【停电原因】由于线路检修导致３５ＫＶ石井变电站协议线５１２线路全线停电 【变更送电】无 【发布渠道】保定市满城电视台（０４月１０日１９：００－２０：００至０４月１８日１９：００－２０：００之间）屏幕上方滚动。","powerOffId":"2020041013000250"},{"poweroffId":2020041013000212,"sgpoweroffId":null,"subsName":"","lineName":"10KV富民屯561","pubTranName":"富民屯村,","scope":"【影响街道/乡镇】林屯乡 【高危重要客户】无 【影响客户】富民屯村","startTime":"2020-04-12 07:00:00","stopDate":"2020-04-12 18:00:00","orgNo":"1340626","typeCode":"临时停电","poweroffArea":"【单台区停电】停富民屯村","poweroffReason":"【停电原因】由于更换电杆及导线工程导致１１０ＫＶ松林店变电站１０ＫＶ富民屯５６１线路富民屯村公变台区停电 【变更送电】无 【发布渠道】通过９５５９８发布","powerTime":"2020-04-12 17:46:15","powerComm":"已送电","subsNo":"","lineNo":"","tgNo":"","tgName":null,"infoStatus":"1","orgName":"国网涿州市供电公司","typeName":null,"infoStatusName":null,"dateDay":null,"orgNos":null,"nowTime":null,"countyName":null,"streetName":null,"villageName":null,"roadName":null,"communityName":null,"tranName":null,"sdLineName":null,"cityCode":"1340626","cityName":"国网涿州市供电公司","provinceCode":null,"stopTime":"2020-04-12 18:00:00","powerType":"全部","powerOffArea":"【单台区停电】停富民屯村","powerOffReason":"【停电原因】由于更换电杆及导线工程导致１１０ＫＶ松林店变电站１０ＫＶ富民屯５６１线路富民屯村公变台区停电 【变更送电】无 【发布渠道】通过９５５９８发布","powerOffId":"2020041013000212"},{"poweroffId":2020041013000148,"sgpoweroffId":null,"subsName":"","lineName":"10KV白庄512","pubTranName":"罗营8台区,","scope":"【影响街道/乡镇】义和庄乡 【高危重要客户】无 【影响客户】罗营村","startTime":"2020-04-12 08:00:00","stopDate":"2020-04-12 18:00:00","orgNo":"1340626","typeCode":"临时停电","poweroffArea":"【单台区停电】停罗营8台区","poweroffReason":"【停电原因】由于架设导线工程导致３５ＫＶ码头变电站１０ＫＶ白庄５１２线路罗营８公变台区停电 【变更送电】无 【发布渠道】通过９５５９８发布","powerTime":"2020-04-12 17:46:34","powerComm":"已送电","subsNo":"","lineNo":"","tgNo":"","tgName":null,"infoStatus":"1","orgName":"国网涿州市供电公司","typeName":null,"infoStatusName":null,"dateDay":null,"orgNos":null,"nowTime":null,"countyName":null,"streetName":null,"villageName":null,"roadName":null,"communityName":null,"tranName":null,"sdLineName":null,"cityCode":"1340626","cityName":"国网涿州市供电公司","provinceCode":null,"stopTime":"2020-04-12 18:00:00","powerType":"全部","powerOffArea":"【单台区停电】停罗营8台区","powerOffReason":"【停电原因】由于架设导线工程导致３５ＫＶ码头变电站１０ＫＶ白庄５１２线路罗营８公变台区停电 【变更送电】无 【发布渠道】通过９５５９８发布","powerOffId":"2020041013000148"},{"poweroffId":2020041013000139,"sgpoweroffId":null,"subsName":"","lineName":"10KV冠云路516","pubTranName":"太平庄2153,","scope":"【影响街道/乡镇】桃园城区 【高危重要客户】无 【影响客户】太平庄村","startTime":"2020-04-12 07:00:00","stopDate":"2020-04-12 17:00:00","orgNo":"1340626","typeCode":"临时停电","poweroffArea":"【单台区停电】停太平庄2153","poweroffReason":"【停电原因】由于更换导线、电杆导致１１０ＫＶ涿县变电站１０ＫＶ冠云路５１６线路太平庄２１５３公变台区停电 【变更送电】无 【发布渠道】通过９５５９８发布","powerTime":"2020-04-12 16:41:13","powerComm":"恢复送电","subsNo":"","lineNo":"","tgNo":"","tgName":null,"infoStatus":"1","orgName":"国网涿州市供电公司","typeName":null,"infoStatusName":null,"dateDay":null,"orgNos":null,"nowTime":null,"countyName":null,"streetName":null,"villageName":null,"roadName":null,"communityName":null,"tranName":null,"sdLineName":null,"cityCode":"1340626","cityName":"国网涿州市供电公司","provinceCode":null,"stopTime":"2020-04-12 17:00:00","powerType":"全部","powerOffArea":"【单台区停电】停太平庄2153","powerOffReason":"【停电原因】由于更换导线、电杆导致１１０ＫＶ涿县变电站１０ＫＶ冠云路５１６线路太平庄２１５３公变台区停电 【变更送电】无 【发布渠道】通过９５５９８发布","powerOffId":"2020041013000139"},{"poweroffId":2020041013000007,"sgpoweroffId":null,"subsName":"","lineName":"10kV鲁岗站525线路","pubTranName":"0711581052-保定宝硕新鼎房地产开发有限公司-柱上变压器4#,","scope":"【影响街道/乡镇】竞秀区乐凯大街 【高危重要客户】无 【影响客户】宝硕鑫鼎","startTime":"2020-04-10 01:30:49","stopDate":"2020-04-10 06:00:00","orgNo":"13406","typeCode":"电网故障停限电","poweroffArea":"【分支停电】停0711581052-保定宝硕新鼎房地产开发有限公司-柱上变压器4#","poweroffReason":"【停电原因】由于分支开关短路导致１０ＫＶ鲁岗变电站５２５线路１３９号杆西分支开关以下停电【变更送电】无【发布渠道】通过９５５９８发布","powerTime":"2020-04-10 05:42:19","powerComm":"已送电","subsNo":"","lineNo":"","tgNo":"","tgName":null,"infoStatus":"1","orgName":"保定供电公司","typeName":null,"infoStatusName":null,"dateDay":null,"orgNos":null,"nowTime":null,"countyName":null,"streetName":null,"villageName":null,"roadName":null,"communityName":null,"tranName":null,"sdLineName":null,"cityCode":"13406","cityName":"保定供电公司","provinceCode":null,"stopTime":"2020-04-10 06:00:00","powerType":"全部","powerOffArea":"【分支停电】停0711581052-保定宝硕新鼎房地产开发有限公司-柱上变压器4#","powerOffReason":"【停电原因】由于分支开关短路导致１０ＫＶ鲁岗变电站５２５线路１３９号杆西分支开关以下停电【变更送电】无【发布渠道】通过９５５９８发布","powerOffId":"2020041013000007"},{"poweroffId":2020040921000191,"sgpoweroffId":null,"subsName":"","lineName":"10kV东北郊站532线路","pubTranName":"10kVY0198.Y0199配电室Y0199配电变压器,C607柱上变压器,C450柱上变压器,10kVY0198.Y0199配电室Y0198配电变压器,C550,C171柱上变压器,C360柱上变压器,","scope":"【影响街道/乡镇】南市区东金庄乡、五四路、金庄路、七一东路、金繁街 【高危重要客户】无 【影响客户】东金庄村、东湖雅居、米家堤、大阳法庭住宅楼","startTime":"2020-04-10 05:30:00","stopDate":"2020-04-10 06:00:00","orgNo":"13406","typeCode":"其他临时停电","poweroffArea":"【全线路停电】停C171柱上变压器,C360柱上变压器,10kVY0198.Y0199配电室Y0199配电变压器,C607柱上变压器,C450柱上变压器,10kVY0198.Y0199配电室Y0198配电变压器,0356236825-保定市公安局-1#专变,0356280747-保定市排水总公司米家堤泵站-专变,变压器,0357356300-瑞普(保定)生物药业有限公司-3#专变,0356487601-保定市北市区亨达合线厂-专变-13398473-20018272,0356232751-金庄-专变,0356280747-保定市公用事业管理局-1#专变,0356236825-保定市公安局-2#专变,0357384815-保定市北市区东金庄乡米家堤村村民委员会-专变,0357384802-保定市北市区东金庄乡米家堤村村民委员会-专变,瑞普(保定)生物药业有限公司-1#专变,0356244325-东金庄-专变,0356228833-保定市保供电力安装工程有限公司-1#专变,C550,0591295641-保定市路灯管理处-1-箱式变-变压器-1,0356235008-河北软件职业技术学院后勤集团-2#专变,0594388081-保定市华中物业服务有限公司-1#专变,0356235008-河北软件职业技术学院后勤集团-3#专变,0357356300-瑞普(保定)生物药业有限公司-2#专变,0356556493-中国电信集团公司保定市分公司-专变-1250KVA变压器,0701565903-保定铭德嘉业房地产开发有限公司-2#专变1600kVA,0701565903-保定铭德嘉业房地产开发有限公司-1#专变1600kVA,0356316956-保定市北市区新华预制构件厂-专变,0356235008-河北软件职业技术学院-专变,0356235008-河北软件职业技术学院后勤集团-1#专变","poweroffReason":"【停电原因】由于紧急消缺导致１０ＫＶ东北郊变电站５３２线路全线停电【变更送电】无【发布渠道】通过９５５９８发布","powerTime":"2020-04-10 05:42:41","powerComm":"已送电","subsNo":"","lineNo":"","tgNo":"","tgName":null,"infoStatus":"1","orgName":"保定供电公司","typeName":null,"infoStatusName":null,"dateDay":null,"orgNos":null,"nowTime":null,"countyName":null,"streetName":null,"villageName":null,"roadName":null,"communityName":null,"tranName":null,"sdLineName":null,"cityCode":"13406","cityName":"保定供电公司","provinceCode":null,"stopTime":"2020-04-10 06:00:00","powerType":"全部","powerOffArea":"【全线路停电】停C171柱上变压器,C360柱上变压器,10kVY0198.Y0199配电室Y0199配电变压器,C607柱上变压器,C450柱上变压器,10kVY0198.Y0199配电室Y0198配电变压器,0356236825-保定市公安局-1#专变,0356280747-保定市排水总公司米家堤泵站-专变,变压器,0357356300-瑞普(保定)生物药业有限公司-3#专变,0356487601-保定市北市区亨达合线厂-专变-13398473-20018272,0356232751-金庄-专变,0356280747-保定市公用事业管理局-1#专变,0356236825-保定市公安局-2#专变,0357384815-保定市北市区东金庄乡米家堤村村民委员会-专变,0357384802-保定市北市区东金庄乡米家堤村村民委员会-专变,瑞普(保定)生物药业有限公司-1#专变,0356244325-东金庄-专变,0356228833-保定市保供电力安装工程有限公司-1#专变,C550,0591295641-保定市路灯管理处-1-箱式变-变压器-1,0356235008-河北软件职业技术学院后勤集团-2#专变,0594388081-保定市华中物业服务有限公司-1#专变,0356235008-河北软件职业技术学院后勤集团-3#专变,0357356300-瑞普(保定)生物药业有限公司-2#专变,0356556493-中国电信集团公司保定市分公司-专变-1250KVA变压器,0701565903-保定铭德嘉业房地产开发有限公司-2#专变1600kVA,0701565903-保定铭德嘉业房地产开发有限公司-1#专变1600kVA,0356316956-保定市北市区新华预制构件厂-专变,0356235008-河北软件职业技术学院-专变,0356235008-河北软件职业技术学院后勤集团-1#专变","powerOffReason":"【停电原因】由于紧急消缺导致１０ＫＶ东北郊变电站５３２线路全线停电【变更送电】无【发布渠道】通过９５５９８发布","powerOffId":"2020040921000191"},{"poweroffId":2020040913000879,"sgpoweroffId":null,"subsName":"","lineName":"10kV东环路II线562线路","pubTranName":"南关2台区变压器,","scope":"【影响街道/乡镇】涞水镇 【高危重要客户】无 【影响客户】南关村","startTime":"2020-04-10 06:30:00","stopDate":"2020-04-10 08:30:00","orgNo":"1340614","typeCode":"其他临时停电","poweroffArea":"【单台区停电】停南关2台区变压器","poweroffReason":"【停电原因】由于设备线夹温度过高，需停电进行紧急消缺导致１１０ＫＶ义安变电站１０ＫＶ东环路ＩＩ线５６２线路南关２台区公变台区停电 【变更送电】无 【发布渠道】通过９５５９８发布","powerTime":"2020-04-10 07:43:31","powerComm":"已送电","subsNo":"","lineNo":"","tgNo":"","tgName":null,"infoStatus":"1","orgName":"国网涞水县供电公司","typeName":null,"infoStatusName":null,"dateDay":null,"orgNos":null,"nowTime":null,"countyName":null,"streetName":null,"villageName":null,"roadName":null,"communityName":null,"tranName":null,"sdLineName":null,"cityCode":"1340614","cityName":"国网涞水县供电公司","provinceCode":null,"stopTime":"2020-04-10 08:30:00","powerType":"全部","powerOffArea":"【单台区停电】停南关2台区变压器","powerOffReason":"【停电原因】由于设备线夹温度过高，需停电进行紧急消缺导致１１０ＫＶ义安变电站１０ＫＶ东环路ＩＩ线５６２线路南关２台区公变台区停电 【变更送电】无 【发布渠道】通过９５５９８发布","powerOffId":"2020040913000879"},{"poweroffId":2020040913000852,"sgpoweroffId":null,"subsName":"","lineName":"尚品530","pubTranName":"高碑店市昆仑房地产开发有限公司04,河北元和房地产开发有限公司4#变压器,河北鼎誉房地产开发有限公司变压器,河北元和房地产开发有限公司3#变压器,高碑店市东盛办事处高镇中心学校变压器,奥润顺达窗业公司西,河北元和房地产开发有限公司2#变压器,0712249751-河北尚轩房地产开发有限公司02,保定顺和房地产开发有限公司（西）变压器02,0710603951-高碑店市路灯管理办公室01,高碑店市威盾电子设备有限公司,河北元和房地产开发有限公司1#变压器,好妈妈商业股份有限公司变压器400,高碑店市昆仑房地产开发有限公司6#变压器,高碑店市昆仑房地产开发有限公司3#变压器,高碑店市昆仑房地产开发有限公司2#变压器,高碑店市昆仑房地产开发有限公司4#变压器,保定顺和房地产开发有限公司（西）变压器01,0721091497-河北尚轩房地产开发有限公司02,河北元和房地产开发有限公司5#变压器,河北元和房地产开发有限公司6#变压器,0691031521-高碑店市普惠健康体检有限公司-专变-234122772-高碑店市普惠健康体检有限公司,0712249751-河北尚轩房地产开发有限公司01,高碑店市城市管理综合执法局世纪大道3号,高碑店市昆仑房地产开发有限公司1#变压器,高碑店市久筑物业服务有限公司2变压器,植物园,高碑店市昆仑房地产开发有限公司03,高碑店市荣悦昌纸制品制造有限公司变压器,0712249751-河北尚轩房地产开发有限公司03,高碑店市昆仑房地产开发有限公司02,高碑店市昆仑房地产开发有限公司01,0712247973-河北尚轩房地产开发有限公司01,娃哈哈增容工程,高碑店市久筑物业服务有限公司1变压器,","scope":"【影响街道/乡镇】东盛办事处 【高危重要客户】无 【影响客户】尚轩房地产、昆仑房地产、润正房地产、人和物业、高镇中心学校、元和房地产","startTime":"2020-04-10 05:00:00","stopDate":"2020-04-10 07:00:00","orgNo":"1340612","typeCode":"其他临时停电","poweroffArea":"【全线路停电】停高碑店市威盾电子设备有限公司,高碑店市昆仑房地产开发有限公司04,河北元和房地产开发有限公司4#变压器,河北鼎誉房地产开发有限公司变压器,河北元和房地产开发有限公司3#变压器,高碑店市东盛办事处高镇中心学校变压器,奥润顺达窗业公司西,河北元和房地产开发有限公司2#变压器,0712249751-河北尚轩房地产开发有限公司02,保定顺和房地产开发有限公司（西）变压器02,0710603951-高碑店市路灯管理办公室01,河北元和房地产开发有限公司1#变压器,好妈妈商业股份有限公司变压器400,高碑店市昆仑房地产开发有限公司6#变压器,高碑店市昆仑房地产开发有限公司3#变压器,河北元和房地产开发有限公司5#变压器,高碑店市荣悦昌纸制品制造有限公司变压器,高碑店市昆仑房地产开发有限公司2#变压器,高碑店市昆仑房地产开发有限公司4#变压器,保定顺和房地产开发有限公司（西）变压器01,0721091497-河北尚轩房地产开发有限公司02,河北元和房地产开发有限公司6#变压器,0691031521-高碑店市普惠健康体检有限公司-专变-234122772-高碑店市普惠健康体检有限公司,0712249751-河北尚轩房地产开发有限公司01,高碑店市城市管理综合执法局世纪大道3号,高碑店市昆仑房地产开发有限公司1#变压器,高碑店市久筑物业服务有限公司2变压器,植物园,高碑店市昆仑房地产开发有限公司03,0712249751-河北尚轩房地产开发有限公司03,高碑店市昆仑房地产开发有限公司02,高碑店市昆仑房地产开发有限公司01,0712247973-河北尚轩房地产开发有限公司01,娃哈哈增容工程,高碑店市久筑物业服务有限公司1变压器","poweroffReason":"【停电原因】由于顺和房地产电缆头打火需紧急处理导致１１０ＫＶ马庄变电站１０ＫＶ尚品５３０线路全线停电 【变更送电】无 【发布渠道】通过９５５９８发布","powerTime":"2020-04-10 06:04:46","powerComm":"已送电","subsNo":"","lineNo":"","tgNo":"","tgName":null,"infoStatus":"1","orgName":"国网高碑店市供电公司","typeName":null,"infoStatusName":null,"dateDay":null,"orgNos":null,"nowTime":null,"countyName":null,"streetName":null,"villageName":null,"roadName":null,"communityName":null,"tranName":null,"sdLineName":null,"cityCode":"1340612","cityName":"国网高碑店市供电公司","provinceCode":null,"stopTime":"2020-04-10 07:00:00","powerType":"全部","powerOffArea":"【全线路停电】停高碑店市威盾电子设备有限公司,高碑店市昆仑房地产开发有限公司04,河北元和房地产开发有限公司4#变压器,河北鼎誉房地产开发有限公司变压器,河北元和房地产开发有限公司3#变压器,高碑店市东盛办事处高镇中心学校变压器,奥润顺达窗业公司西,河北元和房地产开发有限公司2#变压器,0712249751-河北尚轩房地产开发有限公司02,保定顺和房地产开发有限公司（西）变压器02,0710603951-高碑店市路灯管理办公室01,河北元和房地产开发有限公司1#变压器,好妈妈商业股份有限公司变压器400,高碑店市昆仑房地产开发有限公司6#变压器,高碑店市昆仑房地产开发有限公司3#变压器,河北元和房地产开发有限公司5#变压器,高碑店市荣悦昌纸制品制造有限公司变压器,高碑店市昆仑房地产开发有限公司2#变压器,高碑店市昆仑房地产开发有限公司4#变压器,保定顺和房地产开发有限公司（西）变压器01,0721091497-河北尚轩房地产开发有限公司02,河北元和房地产开发有限公司6#变压器,0691031521-高碑店市普惠健康体检有限公司-专变-234122772-高碑店市普惠健康体检有限公司,0712249751-河北尚轩房地产开发有限公司01,高碑店市城市管理综合执法局世纪大道3号,高碑店市昆仑房地产开发有限公司1#变压器,高碑店市久筑物业服务有限公司2变压器,植物园,高碑店市昆仑房地产开发有限公司03,0712249751-河北尚轩房地产开发有限公司03,高碑店市昆仑房地产开发有限公司02,高碑店市昆仑房地产开发有限公司01,0712247973-河北尚轩房地产开发有限公司01,娃哈哈增容工程,高碑店市久筑物业服务有限公司1变压器","powerOffReason":"【停电原因】由于顺和房地产电缆头打火需紧急处理导致１１０ＫＶ马庄变电站１０ＫＶ尚品５３０线路全线停电 【变更送电】无 【发布渠道】通过９５５９８发布","powerOffId":"2020040913000852"},{"poweroffId":2020040913000702,"sgpoweroffId":null,"subsName":"","lineName":"方顺桥线515","pubTranName":"南固店市场【纯农排变】,南固店村南新增3号,南固店未俊得,南固店1号【纯农排变】,南固店村内【纯农排变】,南固店西南3号【纯农排变】,南固店北3号【纯农排变】,南固店新增2号,南固店高标准农田2号【纯农排变】,南固店沟南,南固店北【纯农排变】,南固店东南【纯农排变】,南固店村南2号【纯农排变】,南固店村东,南固店果园2号,南固店西南2号【纯农排变】,南固店东北水【纯农排变】,南固店村内新增,南固店边庄,南固店学校东,南固店边庄2号,南固店高标准农田1号【纯农排变】,南固店沟南新增3号,南固店村南【纯农排变】,南固店东北【纯农排变】,南固店村西新增,南固店高标准农田4号【纯农排变】,南固店北5号,南固店西南【纯农排变】,南固店村西大坝【纯农排变】,南固店村西,南固店奶牛厂,南固店高标准农田3号【纯农排变】,南固店沟南2号,","scope":"【影响街道/乡镇】方顺桥乡 【高危重要客户】无 【影响客户】南固店村","startTime":"2020-04-18 06:00:00","stopDate":"2020-04-18 18:00:00","orgNo":"1340617","typeCode":"计划停电","poweroffArea":"【分支停电】停南固店市场【纯农排变】,南固店村南新增3号,南固店未俊得,南固店北3号【纯农排变】,南固店新增2号,南固店高标准农田2号【纯农排变】,南固店沟南,南固店北【纯农排变】,南固店东南【纯农排变】,南固店村南2号【纯农排变】,南固店村东,南固店果园2号,南固店西南2号【纯农排变】,南固店东北水【纯农排变】,南固店村内新增,南固店1号【纯农排变】,南固店村内【纯农排变】,南固店西南3号【纯农排变】,南固店边庄,南固店学校东,南固店边庄2号,南固店高标准农田1号【纯农排变】,南固店沟南新增3号,南固店村南【纯农排变】,南固店东北【纯农排变】,南固店村西新增,南固店高标准农田4号【纯农排变】,南固店北5号,南固店西南【纯农排变】,南固店村西大坝【纯农排变】,南固店村西,南固店奶牛厂,南固店高标准农田3号【纯农排变】,南固店沟南2号","poweroffReason":"【停电原因】由于线路检修导致１１０ＫＶ西原变电站方顺桥线５１５线路４５号杆开关南固店分支停电 【变更送电】无 【发布渠道】满城县有线电视台（０４月０９日１９：００－２０：００至０４月１７日１９：００－２０：００）屏幕上方滚动","powerTime":"2020-04-18 17:30:54","powerComm":"已送电","subsNo":"","lineNo":"","tgNo":"","tgName":null,"infoStatus":"1","orgName":"国网满城县供电公司","typeName":null,"infoStatusName":null,"dateDay":null,"orgNos":null,"nowTime":null,"countyName":null,"streetName":null,"villageName":null,"roadName":null,"communityName":null,"tranName":null,"sdLineName":null,"cityCode":"1340617","cityName":"国网满城县供电公司","provinceCode":null,"stopTime":"2020-04-18 18:00:00","powerType":"全部","powerOffArea":"【分支停电】停南固店市场【纯农排变】,南固店村南新增3号,南固店未俊得,南固店北3号【纯农排变】,南固店新增2号,南固店高标准农田2号【纯农排变】,南固店沟南,南固店北【纯农排变】,南固店东南【纯农排变】,南固店村南2号【纯农排变】,南固店村东,南固店果园2号,南固店西南2号【纯农排变】,南固店东北水【纯农排变】,南固店村内新增,南固店1号【纯农排变】,南固店村内【纯农排变】,南固店西南3号【纯农排变】,南固店边庄,南固店学校东,南固店边庄2号,南固店高标准农田1号【纯农排变】,南固店沟南新增3号,南固店村南【纯农排变】,南固店东北【纯农排变】,南固店村西新增,南固店高标准农田4号【纯农排变】,南固店北5号,南固店西南【纯农排变】,南固店村西大坝【纯农排变】,南固店村西,南固店奶牛厂,南固店高标准农田3号【纯农排变】,南固店沟南2号","powerOffReason":"【停电原因】由于线路检修导致１１０ＫＶ西原变电站方顺桥线５１５线路４５号杆开关南固店分支停电 【变更送电】无 【发布渠道】满城县有线电视台（０４月０９日１９：００－２０：００至０４月１７日１９：００－２０：００）屏幕上方滚动","powerOffId":"2020040913000702"}],"pageModel":{"pageNow":189,"totalCount":10973,"totalPage":1098,"tableRows":0,"pageCount":10,"beginCount":1880},"isExperi":"1"}