{"message":"","today":"2020-06-15","seleList":[{"poweroffId":2020040613000137,"sgpoweroffId":null,"subsName":"","lineName":"10kV517曲堤线","pubTranName":"大曲堤综合6台区变压器,东庞综合3台区变压器,大曲堤农排10台区【纯农排变】,西庞综合7台区变压器,大曲堤综合24台区变压器,西庞综合10台区变压器,西庞农排7台区【纯农排变】,大曲堤综合17台区变压器,大曲堤综合27台区变压器,陈营综合2台区变压器,陈营综合4台区变压器,西庞农排5台区【纯农排变】,大曲堤综合7台区变压器,大曲堤综合9台区变压器,西庞综合1台区变压器,北绪口综合1台区,陈营综合3台区变压器,西庞综合8台区变压器,北绪口农排3台区【纯农排变】,大曲堤综合10台区变压器,西庞综合5台区变压器,西庞综合2台区变压器,大曲堤综合4台区,西庞综合4台区变压器,大曲堤综合12台区变压器,大曲堤农排12台区【纯农排变】,大曲堤综合18台区变压器,大曲堤农排9台区【纯农排变】,西庞农排4台区【纯农排变】,大曲堤农排7台区【纯农排变】,大曲堤农排14台区【纯农排变】,西庞综合6台区变压器,西庞农排6台区【纯农排变】,北绪口综合7台区,大曲堤综合29台区变压器,大曲堤综合28台区变压器,大曲堤综合3台区,东庞农排2台区【纯农排变】,北绪口综合4台区,西庞农排8台区【纯农排变】,大曲堤农排8台区【纯农排变】,大曲堤综合22台区变压器,大曲堤综合15台区变压器,北绪口综合8台区,北绪口综合6台区,东庞农排1台区【纯农排变】,大曲堤综合16台区变压器,大曲堤综合19台区变压器,大曲堤综合14台区变压器,大曲堤综合5台区,大曲堤综合20台区变压器,大曲堤综合13台区变压器,大曲堤综合8台区变压器,北绪口综合2台区,北绪口综合3台区,东庞综合1台区变压器,北绪口综合5台区,陈营综合1台区变压器,大曲堤综合1台区,大曲堤综合25台区变压器,大曲堤综合23台区变压器,东庞综合2台区变压器,西庞综合3台区变压器,大曲堤综合21台区变压器,大曲堤综合26台区变压器,大曲堤农排3台区【纯农排变】,大曲堤综合2台区,大曲堤综合11台区变压器,","scope":"【影响街道/乡镇】大曲堤乡【高危重要客户】无【影响客户】北绪口村、东庞果村、陈阎营村、西绪口村、大曲堤村、西庞果村、高佐村","startTime":"2020-04-06 18:16:23","stopDate":"2020-04-06 20:10:00","orgNo":"1340616","typeCode":"电网故障停限电","poweroffArea":"【全线路停电】停大曲堤综合10台区变压器,蠡县鼎源麻山药农民专业合作,大曲堤综合25台区变压器,北绪口综合2台区,北绪口农排3台区【纯农排变】,西庞综合3台区变压器,大曲堤综合18台区变压器,西庞综合4台区变压器,0604192268-蠡县曲堤德旺包装制品厂-专变-127052052-蠡县曲堤德旺包装制品厂,0469434196-粮站面粉厂-专变-46810394-粮站面粉厂,0469432510-中国联合网络通信有限公司蠡县分公司-专变-46810254-网通公司,陈营综合1台区变压器,大曲堤综合23台区变压器,大曲堤农排12台区【纯农排变】,0629312658-蠡县端阳麻山药农民专业合作社-专变-141630370-蠡县端阳麻山药农民合作社变压器,大曲堤综合19台区变压器,大曲堤综合9台区变压器,大曲堤综合15台区变压器,陈营综合3台区变压器,西庞农排6台区【纯农排变】,蠡县大曲堤乡中学,北绪口农排4台区【纯农排变】,陈营综合2台区变压器,大曲堤农排9台区【纯农排变】,蠡县凤举麻山药农民专业合作社,北绪口综合8台区,西庞综合10台区变压器,大曲堤综合12台区变压器,大曲堤综合8台区变压器,西庞综合6台区变压器,西庞农排4台区【纯农排变】,大曲堤综合3台区,大曲堤综合13台区变压器,大曲堤综合1台区,西庞综合8台区变压器,东庞综合3台区变压器,0628582416-蠡县立纯麻山药农民专业合作社-专变-140233673-蠡县曲堤建辉麻山药经销站变压器,西庞农排2台区【纯农排变】,西庞农排5台区【纯农排变】,北绪口综合3台区,西庞综合7台区变压器,大曲堤农排10台区【纯农排变】,大曲堤农排8台区【纯农排变】,西庞综合1台区变压器,大曲堤综合7台区变压器,西庞综合5台区变压器,大曲堤综合24台区变压器,东庞农排1台区【纯农排变】,北绪口综合1台区,东庞农排2台区【纯农排变】,大曲堤综合21台区变压器,大曲堤综合16台区变压器,大曲堤农排7台区【纯农排变】,西庞农排8台区【纯农排变】,大曲堤综合20台区变压器,大曲堤综合2台区,大曲堤综合22台区变压器,0619986492-蠡县鑫鑫麻山药农民专业合作社-专变-223625090-蠡县鑫鑫麻山药农民专业合作社变压器,北绪口农排2台区【纯农排变】,大曲堤综合6台区变压器,北绪口综合5台区,陈营综合4台区变压器,0565990945-中国移动通信集团河北有限公司蠡县分公司-专变-118727920-中国移动通信集团河北有限公司蠡县分公司北绪口村变压器,东庞综合2台区变压器,0469434183-曲堤乡政府-专变-46810209-纳地,大曲堤综合5台区,大曲堤农排14台区【纯农排变】,西庞综合2台区变压器,0625934386-蠡县曲堤顺杰麻山药经销站-专变-138660027-蠡县曲堤顺杰麻山药经销站,北绪口综合6台区,西庞农排7台区【纯农排变】,大曲堤综合11台区变压器,北绪口综合7台区,大曲堤综合26台区变压器,大曲堤综合17台区变压器,北绪口综合4台区,0626348757-蠡县利农麻山药农民专业合作社-专变-139242228-蠡县利农麻山药农民专业合作社变压器,大曲堤综合27台区变压器,大曲堤综合4台区,大曲堤综合29台区变压器,大曲堤综合28台区变压器,东庞综合1台区变压器,大曲堤农排3台区【纯农排变】,0618936991-蠡县卓亚纺织有限公司-专变-128914691-蠡县雅琪纺织厂变压器,西庞农排1台区【纯农排变】,大曲堤综合14台区变压器","poweroffReason":"【停电原因】由于站外开关掉闸导致３５ＫＶ握纽庄变电站１０ＫＶ曲堤５１７线路全线停电【变更送电】因抢修进度加快原因，送电时间由２３：５９变更为２０：１０【发布渠道】通过９５５９８发布","powerTime":"2020-04-06 19:43:43","powerComm":"已送电","subsNo":"","lineNo":"","tgNo":"","tgName":null,"infoStatus":"1","orgName":"国网蠡县供电公司","typeName":null,"infoStatusName":null,"dateDay":null,"orgNos":null,"nowTime":null,"countyName":null,"streetName":null,"villageName":null,"roadName":null,"communityName":null,"tranName":null,"sdLineName":null,"cityCode":"1340616","cityName":"国网蠡县供电公司","provinceCode":null,"stopTime":"2020-04-06 20:10:00","powerType":"全部","powerOffArea":"【全线路停电】停大曲堤综合10台区变压器,蠡县鼎源麻山药农民专业合作,大曲堤综合25台区变压器,北绪口综合2台区,北绪口农排3台区【纯农排变】,西庞综合3台区变压器,大曲堤综合18台区变压器,西庞综合4台区变压器,0604192268-蠡县曲堤德旺包装制品厂-专变-127052052-蠡县曲堤德旺包装制品厂,0469434196-粮站面粉厂-专变-46810394-粮站面粉厂,0469432510-中国联合网络通信有限公司蠡县分公司-专变-46810254-网通公司,陈营综合1台区变压器,大曲堤综合23台区变压器,大曲堤农排12台区【纯农排变】,0629312658-蠡县端阳麻山药农民专业合作社-专变-141630370-蠡县端阳麻山药农民合作社变压器,大曲堤综合19台区变压器,大曲堤综合9台区变压器,大曲堤综合15台区变压器,陈营综合3台区变压器,西庞农排6台区【纯农排变】,蠡县大曲堤乡中学,北绪口农排4台区【纯农排变】,陈营综合2台区变压器,大曲堤农排9台区【纯农排变】,蠡县凤举麻山药农民专业合作社,北绪口综合8台区,西庞综合10台区变压器,大曲堤综合12台区变压器,大曲堤综合8台区变压器,西庞综合6台区变压器,西庞农排4台区【纯农排变】,大曲堤综合3台区,大曲堤综合13台区变压器,大曲堤综合1台区,西庞综合8台区变压器,东庞综合3台区变压器,0628582416-蠡县立纯麻山药农民专业合作社-专变-140233673-蠡县曲堤建辉麻山药经销站变压器,西庞农排2台区【纯农排变】,西庞农排5台区【纯农排变】,北绪口综合3台区,西庞综合7台区变压器,大曲堤农排10台区【纯农排变】,大曲堤农排8台区【纯农排变】,西庞综合1台区变压器,大曲堤综合7台区变压器,西庞综合5台区变压器,大曲堤综合24台区变压器,东庞农排1台区【纯农排变】,北绪口综合1台区,东庞农排2台区【纯农排变】,大曲堤综合21台区变压器,大曲堤综合16台区变压器,大曲堤农排7台区【纯农排变】,西庞农排8台区【纯农排变】,大曲堤综合20台区变压器,大曲堤综合2台区,大曲堤综合22台区变压器,0619986492-蠡县鑫鑫麻山药农民专业合作社-专变-223625090-蠡县鑫鑫麻山药农民专业合作社变压器,北绪口农排2台区【纯农排变】,大曲堤综合6台区变压器,北绪口综合5台区,陈营综合4台区变压器,0565990945-中国移动通信集团河北有限公司蠡县分公司-专变-118727920-中国移动通信集团河北有限公司蠡县分公司北绪口村变压器,东庞综合2台区变压器,0469434183-曲堤乡政府-专变-46810209-纳地,大曲堤综合5台区,大曲堤农排14台区【纯农排变】,西庞综合2台区变压器,0625934386-蠡县曲堤顺杰麻山药经销站-专变-138660027-蠡县曲堤顺杰麻山药经销站,北绪口综合6台区,西庞农排7台区【纯农排变】,大曲堤综合11台区变压器,北绪口综合7台区,大曲堤综合26台区变压器,大曲堤综合17台区变压器,北绪口综合4台区,0626348757-蠡县利农麻山药农民专业合作社-专变-139242228-蠡县利农麻山药农民专业合作社变压器,大曲堤综合27台区变压器,大曲堤综合4台区,大曲堤综合29台区变压器,大曲堤综合28台区变压器,东庞综合1台区变压器,大曲堤农排3台区【纯农排变】,0618936991-蠡县卓亚纺织有限公司-专变-128914691-蠡县雅琪纺织厂变压器,西庞农排1台区【纯农排变】,大曲堤综合14台区变压器","powerOffReason":"【停电原因】由于站外开关掉闸导致３５ＫＶ握纽庄变电站１０ＫＶ曲堤５１７线路全线停电【变更送电】因抢修进度加快原因，送电时间由２３：５９变更为２０：１０【发布渠道】通过９５５９８发布","powerOffId":"2020040613000137"},{"poweroffId":2020040613000136,"sgpoweroffId":null,"subsName":"","lineName":"李果庄线511","pubTranName":"06057|李果庄6台区综合变压器,李果庄农业25台区变压器【纯农排变】,06022|李果庄村农业4台区变压器【纯农排变】,06136|李果庄14台区综合变压器,建涛毛巾厂,李果庄综合25台区变压器,韩秋变压器,06021|李果庄村农业3台区变压器【纯农排变】,06031|李果庄村农业13台区变压器【纯农排变】,李果庄综合32台区,06026|李果庄村农业8台区变压器【纯农排变】,06032|李果庄村农业14台区变压器【纯农排变】,06061|李果庄10台区综合变压器,06019|李果庄村农业1台区变压器【纯农排变】,记果拔丝厂,李果庄瓦厂(子),李果庄北瓦厂,李果庄综合31台区,李果庄综合18台区变压器,06030|李果庄村农业12台区变压器【纯农排变】,建康纺织有限公司,06052|李果庄1台区综合变压器,韩艳景再生料厂,06024|李果庄村农业6台区变压器【纯农排变】,保定天腾公路工程有限公司变压器,李果庄综合19台区变压器,06056|李果庄5台区综合变压器,李果庄综合20台区变压器,李果庄综合23台区变压器,06033|李果庄村农业15台区变压器【纯农排变】,06025|李果庄村农业7台区变压器【纯农排变】,李果庄综合33台区,韩利利农场,06060|李果庄9台区综合变压器,李果庄南瓦厂,06035|李果庄村农业17台区变压器【纯农排变】,李果庄文涛拔丝厂,韩秋旺拔丝厂,06055|李果庄4台区综合变压器,06147|李果庄15台区综合变压器,高阳县景泰新型建筑材料制造有限公司变压器,06053|李果庄2台区综合变压器,李果庄综合30台区,高阳县志全纺织品有限公司变压器,06020|李果庄村农业2台区变压器【纯农排变】,06058|李果庄7台区综合变压器,李果庄农业24台区变压器【纯农排变】,06063|李果庄村12台区综合变压器,李果庄综合22台区变压器,王东来拔丝厂,李果庄农业23台区综合【纯农排变】,保定金世强纺织有限公司变压器,韩清,06054|李果庄3台区综合变压器,永利拔丝厂,高阳县合伟纺织品制造有限公司变压器,06034|李果庄村农业16台区变压器【纯农排变】,06059|李果庄8台区综合变压器,高阳县壮业窗纱有限公司变压器,06028|李果庄村农业10台区变压器【纯农排变】,李果庄综合24台区变压器,李果庄综合26台区,李果庄南瓦厂(子),王伍龙拔丝厂,李果庄综合21台区变压器,李果庄综合27台区,齐春生拔丝厂,王聚全,06029|李果庄村农业11台区变压器【纯农排变】,李果庄,韩大水,06023|李果庄村农业5台区变压器【纯农排变】,06062|李果庄11台区综合变压器,06123|李果庄村农业18变压器【纯农排变】,李果庄瓦厂,","scope":"【影响街道/乡镇】小王果庄乡 【高危重要客户】无 【影响客户】李果庄村","startTime":"2020-04-06 18:15:00","stopDate":"2020-04-06 19:30:00","orgNo":"1340613","typeCode":"电网故障停限电","poweroffArea":"【全线路停电】停06030|李果庄村农业12台区变压器【纯农排变】,建康纺织有限公司,06052|李果庄1台区综合变压器,韩艳景再生料厂,06024|李果庄村农业6台区变压器【纯农排变】,李果庄农业23台区综合【纯农排变】,保定金世强纺织有限公司变压器,06054|李果庄3台区综合变压器,06058|李果庄7台区综合变压器,李果庄农业24台区变压器【纯农排变】,06063|李果庄村12台区综合变压器,李果庄综合22台区变压器,王东来拔丝厂,06057|李果庄6台区综合变压器,李果庄农业25台区变压器【纯农排变】,06022|李果庄村农业4台区变压器【纯农排变】,06136|李果庄14台区综合变压器,建涛毛巾厂,李果庄综合25台区变压器,06034|李果庄村农业16台区变压器【纯农排变】,保定天腾公路工程有限公司变压器,李果庄综合19台区变压器,06056|李果庄5台区综合变压器,李果庄综合20台区变压器,李果庄综合23台区变压器,06033|李果庄村农业15台区变压器【纯农排变】,06025|李果庄村农业7台区变压器【纯农排变】,李果庄综合33台区,韩利利农场,高阳县志全纺织品有限公司变压器,06020|李果庄村农业2台区变压器【纯农排变】,韩秋变压器,06021|李果庄村农业3台区变压器【纯农排变】,06031|李果庄村农业13台区变压器【纯农排变】,李果庄综合32台区,06026|李果庄村农业8台区变压器【纯农排变】,06032|李果庄村农业14台区变压器【纯农排变】,06061|李果庄10台区综合变压器,06019|李果庄村农业1台区变压器【纯农排变】,记果拔丝厂,李果庄瓦厂(子),李果庄北瓦厂,李果庄综合31台区,李果庄综合18台区变压器,李果庄南瓦厂(子),永利拔丝厂,高阳县合伟纺织品制造有限公司变压器,韩清,06059|李果庄8台区综合变压器,高阳县壮业窗纱有限公司变压器,06028|李果庄村农业10台区变压器【纯农排变】,06060|李果庄9台区综合变压器,李果庄南瓦厂,06035|李果庄村农业17台区变压器【纯农排变】,李果庄文涛拔丝厂,韩秋旺拔丝厂,06055|李果庄4台区综合变压器,06147|李果庄15台区综合变压器,高阳县景泰新型建筑材料制造有限公司变压器,06053|李果庄2台区综合变压器,李果庄综合30台区,李果庄综合24台区变压器,李果庄综合26台区,王伍龙拔丝厂,李果庄综合21台区变压器,李果庄综合27台区,齐春生拔丝厂,王聚全,06029|李果庄村农业11台区变压器【纯农排变】,李果庄,韩大水,06023|李果庄村农业5台区变压器【纯农排变】,06062|李果庄11台区综合变压器,06123|李果庄村农业18变压器【纯农排变】,李果庄瓦厂","poweroffReason":"【停电原因】由于汽车撞杆导致３５ＫＶ李果庄变电站李果庄５１１线路全线停电【变更送电】因抢修进度加快原因，送电时间由２３：００变更为１９：３０【发布渠道】通过９５５９８发布","powerTime":"2020-04-06 19:10:09","powerComm":"已送电","subsNo":"","lineNo":"","tgNo":"","tgName":null,"infoStatus":"1","orgName":"国网高阳县供电公司","typeName":null,"infoStatusName":null,"dateDay":null,"orgNos":null,"nowTime":null,"countyName":null,"streetName":null,"villageName":null,"roadName":null,"communityName":null,"tranName":null,"sdLineName":null,"cityCode":"1340613","cityName":"国网高阳县供电公司","provinceCode":null,"stopTime":"2020-04-06 19:30:00","powerType":"全部","powerOffArea":"【全线路停电】停06030|李果庄村农业12台区变压器【纯农排变】,建康纺织有限公司,06052|李果庄1台区综合变压器,韩艳景再生料厂,06024|李果庄村农业6台区变压器【纯农排变】,李果庄农业23台区综合【纯农排变】,保定金世强纺织有限公司变压器,06054|李果庄3台区综合变压器,06058|李果庄7台区综合变压器,李果庄农业24台区变压器【纯农排变】,06063|李果庄村12台区综合变压器,李果庄综合22台区变压器,王东来拔丝厂,06057|李果庄6台区综合变压器,李果庄农业25台区变压器【纯农排变】,06022|李果庄村农业4台区变压器【纯农排变】,06136|李果庄14台区综合变压器,建涛毛巾厂,李果庄综合25台区变压器,06034|李果庄村农业16台区变压器【纯农排变】,保定天腾公路工程有限公司变压器,李果庄综合19台区变压器,06056|李果庄5台区综合变压器,李果庄综合20台区变压器,李果庄综合23台区变压器,06033|李果庄村农业15台区变压器【纯农排变】,06025|李果庄村农业7台区变压器【纯农排变】,李果庄综合33台区,韩利利农场,高阳县志全纺织品有限公司变压器,06020|李果庄村农业2台区变压器【纯农排变】,韩秋变压器,06021|李果庄村农业3台区变压器【纯农排变】,06031|李果庄村农业13台区变压器【纯农排变】,李果庄综合32台区,06026|李果庄村农业8台区变压器【纯农排变】,06032|李果庄村农业14台区变压器【纯农排变】,06061|李果庄10台区综合变压器,06019|李果庄村农业1台区变压器【纯农排变】,记果拔丝厂,李果庄瓦厂(子),李果庄北瓦厂,李果庄综合31台区,李果庄综合18台区变压器,李果庄南瓦厂(子),永利拔丝厂,高阳县合伟纺织品制造有限公司变压器,韩清,06059|李果庄8台区综合变压器,高阳县壮业窗纱有限公司变压器,06028|李果庄村农业10台区变压器【纯农排变】,06060|李果庄9台区综合变压器,李果庄南瓦厂,06035|李果庄村农业17台区变压器【纯农排变】,李果庄文涛拔丝厂,韩秋旺拔丝厂,06055|李果庄4台区综合变压器,06147|李果庄15台区综合变压器,高阳县景泰新型建筑材料制造有限公司变压器,06053|李果庄2台区综合变压器,李果庄综合30台区,李果庄综合24台区变压器,李果庄综合26台区,王伍龙拔丝厂,李果庄综合21台区变压器,李果庄综合27台区,齐春生拔丝厂,王聚全,06029|李果庄村农业11台区变压器【纯农排变】,李果庄,韩大水,06023|李果庄村农业5台区变压器【纯农排变】,06062|李果庄11台区综合变压器,06123|李果庄村农业18变压器【纯农排变】,李果庄瓦厂","powerOffReason":"【停电原因】由于汽车撞杆导致３５ＫＶ李果庄变电站李果庄５１１线路全线停电【变更送电】因抢修进度加快原因，送电时间由２３：００变更为１９：３０【发布渠道】通过９５５９８发布","powerOffId":"2020040613000136"},{"poweroffId":2020040613000079,"sgpoweroffId":null,"subsName":"","lineName":"老里线562","pubTranName":"新张里光2,张里光3,张里村排5【纯农排变】,老里光8变压器,老里光2变压器,老里光7变压器,张里光1,老里光4变压器,老里光1变压器,老里光12【灾后重建】,老里光3变压器,老里光10变压器,西里光4,新西里光2,老里光9变压器,老里光6变压器,西里光3,张里排3变压器,老里光5变压器,张里光4,西里光5【2019年预安排】,老里光11变压器,","scope":"【影响街道/乡镇】杨村乡 【高危重要客户】无 【影响客户】西里村、老里村、张里村、中连部分用户","startTime":"2020-04-06 12:31:39","stopDate":"2020-04-06 14:00:00","orgNo":"1340609","typeCode":"电网故障停限电","poweroffArea":"【全线路停电】停西里光4,老里排1【纯农排变】,张里排4【纯农排变】,西里光3,老里排4【纯农排变】,老里光4变压器,老里光12【灾后重建】,0696765261-定兴县老里村幼儿园-专变-240818890-160,老里光9变压器,老里光6变压器,新西里光2,老里排2【纯农排变】,张里排2【纯农排变】,西里排2【纯农排变】,老里光2变压器,张里排3变压器,西里排1【纯农排变】,老里光5变压器,老里排3【纯农排变】,中连排3【纯农排变】,张里光4,西里光5【2019年预安排】,中连排2【纯农排变】,张里排1【纯农排变】,0696791594-定兴县西里小学-专变-240818964-200,老里光1变压器,新张里光2,张里光3,西里排3【纯农排变】,张里村排5【纯农排变】,老里光8变压器,老里光7变压器,张里光1,西里光1,老里排5【纯农排变】,老里光11变压器,老里光3变压器,西里排4【纯农排变】,老里光10变压器,中国移动西里基站-50","poweroffReason":"【停电原因】由于老里村小学配变避雷器击穿导致２２０ＫＶ柳卓开关站老里线５６２线路全线停电 【变更送电】因抢修进度加快原因，送电时间由１８：００变更为１４：００ 【发布渠道】通过９５５９８发布","powerTime":"2020-04-06 13:38:44","powerComm":"已送电","subsNo":"","lineNo":"","tgNo":"","tgName":null,"infoStatus":"1","orgName":"国网定兴县供电公司","typeName":null,"infoStatusName":null,"dateDay":null,"orgNos":null,"nowTime":null,"countyName":null,"streetName":null,"villageName":null,"roadName":null,"communityName":null,"tranName":null,"sdLineName":null,"cityCode":"1340609","cityName":"国网定兴县供电公司","provinceCode":null,"stopTime":"2020-04-06 14:00:00","powerType":"全部","powerOffArea":"【全线路停电】停西里光4,老里排1【纯农排变】,张里排4【纯农排变】,西里光3,老里排4【纯农排变】,老里光4变压器,老里光12【灾后重建】,0696765261-定兴县老里村幼儿园-专变-240818890-160,老里光9变压器,老里光6变压器,新西里光2,老里排2【纯农排变】,张里排2【纯农排变】,西里排2【纯农排变】,老里光2变压器,张里排3变压器,西里排1【纯农排变】,老里光5变压器,老里排3【纯农排变】,中连排3【纯农排变】,张里光4,西里光5【2019年预安排】,中连排2【纯农排变】,张里排1【纯农排变】,0696791594-定兴县西里小学-专变-240818964-200,老里光1变压器,新张里光2,张里光3,西里排3【纯农排变】,张里村排5【纯农排变】,老里光8变压器,老里光7变压器,张里光1,西里光1,老里排5【纯农排变】,老里光11变压器,老里光3变压器,西里排4【纯农排变】,老里光10变压器,中国移动西里基站-50","powerOffReason":"【停电原因】由于老里村小学配变避雷器击穿导致２２０ＫＶ柳卓开关站老里线５６２线路全线停电 【变更送电】因抢修进度加快原因，送电时间由１８：００变更为１４：００ 【发布渠道】通过９５５９８发布","powerOffId":"2020040613000079"},{"poweroffId":2020040613000050,"sgpoweroffId":null,"subsName":"","lineName":"岗南线517","pubTranName":"大册村6#,大册村17#,大册村4#,大册村5#,大册村14#,","scope":"【影响街道/乡镇】大册营镇 【高危重要客户】无 【影响客户】马厂、大册村","startTime":"2020-04-15 06:00:00","stopDate":"2020-04-15 18:00:00","orgNo":"1340617","typeCode":"计划停电","poweroffArea":"【分支停电】停大册村6#,马厂1#（统管),大册村17#,大册村4#,大册村5#,大册村14#,马厂2#（统管）、大册村24#","poweroffReason":"【停电原因】由于线路检修导致１１０ＫＶ大册营变电站岗南线５１７线路０９号杆开关以下分支停电 【变更送电】无 【发布渠道】满城县有线电视台（０４月０６日１９：００－２０：００至０４月１４日１９：００－２０：００）屏幕上方滚动","powerTime":"2020-04-15 17:45:29","powerComm":"已送电","subsNo":"","lineNo":"","tgNo":"","tgName":null,"infoStatus":"1","orgName":"国网满城县供电公司","typeName":null,"infoStatusName":null,"dateDay":null,"orgNos":null,"nowTime":null,"countyName":null,"streetName":null,"villageName":null,"roadName":null,"communityName":null,"tranName":null,"sdLineName":null,"cityCode":"1340617","cityName":"国网满城县供电公司","provinceCode":null,"stopTime":"2020-04-15 18:00:00","powerType":"全部","powerOffArea":"【分支停电】停大册村6#,马厂1#（统管),大册村17#,大册村4#,大册村5#,大册村14#,马厂2#（统管）、大册村24#","powerOffReason":"【停电原因】由于线路检修导致１１０ＫＶ大册营变电站岗南线５１７线路０９号杆开关以下分支停电 【变更送电】无 【发布渠道】满城县有线电视台（０４月０６日１９：００－２０：００至０４月１４日１９：００－２０：００）屏幕上方滚动","powerOffId":"2020040613000050"},{"poweroffId":2020040613000038,"sgpoweroffId":null,"subsName":"","lineName":"10kV东闾北一街530线","pubTranName":"1东吕一街内3,1东吕一街内5,1东吕一街内8,1东吕二街内6,1东吕三街内5,东吕二街内1,1东吕一街内10,1东吕一街内2,东吕三街内2,1东吕三街内8,1东吕一街内11,1东吕一街内9,1东吕一街内1,1东吕一街内6,1东吕一街内7,东吕二街内3,1东吕一街内13,1东吕三街内3,1东吕一街内12,","scope":"【影响街道/乡镇】东吕乡 【高危重要客户】无 【影响客户】东吕一街村、东吕二街村、东吕三街村","startTime":"2020-04-15 06:00:00","stopDate":"2020-04-15 21:00:00","orgNo":"1340618","typeCode":"计划停电","poweroffArea":"【全线路停电】停保定市清苑区艾菲特起重机械厂,东吕杨恩占配件加工,东吕付彦微配件加工,东吕三街内2,东吕杨蕴辉,东吕东威工具公司,1东吕一街内3,清苑县凯利特起重机械厂,河北双业起重机械有限公司01,东吕苏立成配件加工,清苑县双业起重机械有限公司01,1东吕一街内5,1东吕一街内8,1东吕二街内6,清苑县威龙起重机械有限公司,保定巨鹰起重机械制造有限公司1,河北巨威起重机械制造有限公司,0387491675-东吕苏佩中配件加工-专变-45315207-东吕苏佩中配件加工,保定市清苑区天润娇纺织厂,1东吕三街内5,清苑县东吕小康链条加工厂,东吕三街村西,0575136047-清苑县威龙起重机械有限公司-专变-123928961-清苑县威龙起重机械有限公司,清苑县超凡起重设备厂,张树昌配件加工厂,东吕果园,0549287867-清苑县伟力起重机械制造有限公司-专变-175498337-清苑县伟力起重机械制造有限公司,杭州双力起重机械有限公司清苑分公司,东吕二街内1,1东吕一街内10,保定巨鹰起重机械制造有限公司-1,保定市清苑区东闾乡小天使幼儿园,清苑县旭光起重机械配件厂,河北蒙德起重机械制造有限公司,清苑县龙腾配件厂,河北凯澄起重机械有限公司,1东吕一街内2,1东吕三街内8,天航机械,河北双业起重机械有限公司,河北维大力起重设备制造有限公司,清苑县五环起重机械制造有限公司,1东吕一街内11,清苑县新宇起重机械有限公司,东吕二街村外,0575136047-清苑县威龙起重机械有限公司-专变-123928567-清苑县威龙起重机械有限公司,清苑县伟力起重机械制造有限公司东吕分公司,0387491893-清苑县巨力起重机械有限公司-专变-192915897-清苑县洪飞链条厂,1东吕一街内9,保定安泰起重机械有限公司,1东吕一街内12,清苑县绍华起重机械厂,保定三龙起重机械有限公司,0555744594-东吕村委会-专变-94729171-东吕村委会,河北佳帅起重机械制造有限公司,保定市清苑区森杰纺织厂,东吕三街村西北,1东吕一街内1,东吕杜大青配件加工,东吕李长龙配件加工,东吕东八,0387491196-东吕东三-专变-45315502-东吕东三,东吕东二,0387490470-河北佳力起重索具制造有限公司-专变-45315520-清苑县威龙起重机械有限公司1,金龙手拉葫芦配件厂,1东吕一街内6,0575136047-清苑县威龙起重机械有限公司-专变-123928595-清苑县威龙起重机械有限公司,清苑县双业起重机械有限公司,河北庆泰起重机械制造有限公司,清苑县东广起重配件厂,清苑县联合起重机械厂,0387491806-河北东特起重机械制造有限公司-专变-45315516-东吕王凤池配件加工,清苑县天航机械有限公司2,清苑县天航机械有限公司1,东吕苏占良配件加工,0387489867-河北东特起重机械制造有限公司-专变-45315515-清苑县腾飞起重设备厂,东吕二街野外,保定京鸽起重机械制造有限公司,河北宇雕起重设备有限公司,保定市清苑区艾菲特起重机械厂01,清苑县鸣宇起重设备厂,东吕杨华池配件加工01,清苑县北极星起重机械厂,清苑县东闾水厂,东吕崔同芬配件加工,东吕杨华池配件加工,保定市立荣纺织厂,1东吕一街内7,清苑县威腾起重设备制造有限公,河北巨人起重机械有限公司,保定诚然起重机械制造有限公司,东吕村委会,清苑县军民起重机械有限公司,东吕二街内3,1东吕一街内13,东吕西二,保定庆泰起重机械制造有限公司,1东吕三街内3","poweroffReason":"【停电原因】由于线路春季检修导致１１０ＫＶ东闾变电站１０ＫＶ东闾北一街５３０线路全线停电 【变更送电】因工作量大，送电时间由１８：００变更为２１：００ 【发布渠道】保定市清苑区电视台（２０２０年０４月０７日１９时至０４月１４日２０时之间）屏幕上方滚动","powerTime":"2020-04-15 20:21:12","powerComm":"郑晶晶通知已送电","subsNo":"","lineNo":"","tgNo":"","tgName":null,"infoStatus":"1","orgName":"国网清苑县供电公司","typeName":null,"infoStatusName":null,"dateDay":null,"orgNos":null,"nowTime":null,"countyName":null,"streetName":null,"villageName":null,"roadName":null,"communityName":null,"tranName":null,"sdLineName":null,"cityCode":"1340618","cityName":"国网清苑县供电公司","provinceCode":null,"stopTime":"2020-04-15 21:00:00","powerType":"全部","powerOffArea":"【全线路停电】停保定市清苑区艾菲特起重机械厂,东吕杨恩占配件加工,东吕付彦微配件加工,东吕三街内2,东吕杨蕴辉,东吕东威工具公司,1东吕一街内3,清苑县凯利特起重机械厂,河北双业起重机械有限公司01,东吕苏立成配件加工,清苑县双业起重机械有限公司01,1东吕一街内5,1东吕一街内8,1东吕二街内6,清苑县威龙起重机械有限公司,保定巨鹰起重机械制造有限公司1,河北巨威起重机械制造有限公司,0387491675-东吕苏佩中配件加工-专变-45315207-东吕苏佩中配件加工,保定市清苑区天润娇纺织厂,1东吕三街内5,清苑县东吕小康链条加工厂,东吕三街村西,0575136047-清苑县威龙起重机械有限公司-专变-123928961-清苑县威龙起重机械有限公司,清苑县超凡起重设备厂,张树昌配件加工厂,东吕果园,0549287867-清苑县伟力起重机械制造有限公司-专变-175498337-清苑县伟力起重机械制造有限公司,杭州双力起重机械有限公司清苑分公司,东吕二街内1,1东吕一街内10,保定巨鹰起重机械制造有限公司-1,保定市清苑区东闾乡小天使幼儿园,清苑县旭光起重机械配件厂,河北蒙德起重机械制造有限公司,清苑县龙腾配件厂,河北凯澄起重机械有限公司,1东吕一街内2,1东吕三街内8,天航机械,河北双业起重机械有限公司,河北维大力起重设备制造有限公司,清苑县五环起重机械制造有限公司,1东吕一街内11,清苑县新宇起重机械有限公司,东吕二街村外,0575136047-清苑县威龙起重机械有限公司-专变-123928567-清苑县威龙起重机械有限公司,清苑县伟力起重机械制造有限公司东吕分公司,0387491893-清苑县巨力起重机械有限公司-专变-192915897-清苑县洪飞链条厂,1东吕一街内9,保定安泰起重机械有限公司,1东吕一街内12,清苑县绍华起重机械厂,保定三龙起重机械有限公司,0555744594-东吕村委会-专变-94729171-东吕村委会,河北佳帅起重机械制造有限公司,保定市清苑区森杰纺织厂,东吕三街村西北,1东吕一街内1,东吕杜大青配件加工,东吕李长龙配件加工,东吕东八,0387491196-东吕东三-专变-45315502-东吕东三,东吕东二,0387490470-河北佳力起重索具制造有限公司-专变-45315520-清苑县威龙起重机械有限公司1,金龙手拉葫芦配件厂,1东吕一街内6,0575136047-清苑县威龙起重机械有限公司-专变-123928595-清苑县威龙起重机械有限公司,清苑县双业起重机械有限公司,河北庆泰起重机械制造有限公司,清苑县东广起重配件厂,清苑县联合起重机械厂,0387491806-河北东特起重机械制造有限公司-专变-45315516-东吕王凤池配件加工,清苑县天航机械有限公司2,清苑县天航机械有限公司1,东吕苏占良配件加工,0387489867-河北东特起重机械制造有限公司-专变-45315515-清苑县腾飞起重设备厂,东吕二街野外,保定京鸽起重机械制造有限公司,河北宇雕起重设备有限公司,保定市清苑区艾菲特起重机械厂01,清苑县鸣宇起重设备厂,东吕杨华池配件加工01,清苑县北极星起重机械厂,清苑县东闾水厂,东吕崔同芬配件加工,东吕杨华池配件加工,保定市立荣纺织厂,1东吕一街内7,清苑县威腾起重设备制造有限公,河北巨人起重机械有限公司,保定诚然起重机械制造有限公司,东吕村委会,清苑县军民起重机械有限公司,东吕二街内3,1东吕一街内13,东吕西二,保定庆泰起重机械制造有限公司,1东吕三街内3","powerOffReason":"【停电原因】由于线路春季检修导致１１０ＫＶ东闾变电站１０ＫＶ东闾北一街５３０线路全线停电 【变更送电】因工作量大，送电时间由１８：００变更为２１：００ 【发布渠道】保定市清苑区电视台（２０２０年０４月０７日１９时至０４月１４日２０时之间）屏幕上方滚动","powerOffId":"2020040613000038"},{"poweroffId":2020040613000037,"sgpoweroffId":null,"subsName":"","lineName":"东陶沈线570","pubTranName":"西落堡光5,西落堡轧块厂公用,西落堡光4,西落堡光3【2018年第四批补强】,沽酒村光3变压器,沽酒村光1变压器,西落堡光6变压器,沽酒村光2变压器,沽酒村光4变压器,沽酒光6变压器,西落堡光1,中陶沈光8,沽酒光7变压器,西落堡光2,沽酒村光5变压器,西落堡光7变压器,","scope":"【影响街道/乡镇】贤寓镇、张家庄乡 【高危重要客户】无 【影响客户】沽酒、荣达畜禽有限公司、玖兴种禽养殖、西落堡、西魏家庄、东陶沈、中陶沈、西落堡轧块厂","startTime":"2020-04-06 09:10:20","stopDate":"2020-04-06 14:00:00","orgNo":"1340609","typeCode":"电网故障停限电","poweroffArea":"【全线路停电】停沽酒光7变压器,0694787658-定兴县沽酒小学-专变-237560904-沽酒小学-160,河北荣达畜禽有限公司250,0687090657-保定玖兴种禽养殖有限公司-专变-227127856-玖兴种禽-200,西落堡光2,西魏家庄排6【纯农排变】,沽酒村光5变压器,沽酒村光2变压器,西落堡排1【纯农排变】,西落堡排4【纯农排变】,西落堡光4,沽酒村光3变压器,沽酒排4【纯农排变】,西落堡排3【纯农排变】,沽酒排1【纯农排变】,河北荣达畜禽有限公司50,沽酒村光1变压器,东陶沈排1【纯农排变】,中陶沈排9【纯农排变】,沽酒排3【纯农排变】,西落堡光6变压器,沽酒村光4变压器,中陶沈排10【纯农排变】,沽酒光6变压器,沽酒排2【纯农排变】,西落堡光1,中陶沈光8,沽酒排5【纯农排变】,西落堡光3【2018年第四批补强】,0695004938-定兴县西落堡小学-专变-238553588-100,西落堡光7变压器,西落堡光5,0696765258-定兴县中陶沈小学-专变-240815687-中淘沈小学,西落堡排7【纯农排变】,西落堡轧块厂公用,西落堡排5【纯农排变】","poweroffReason":"【停电原因】由于久兴种鸡厂高压计量绝缘击穿导致１１０ＫＶ贤寓变电站东陶沈线５７０线路全线停电 【变更送电】因抢修进度加快原因，送电时间由１６：００变更为１４：００ 【发布渠道】通过９５５９８发布 　　","powerTime":"2020-04-06 13:02:07","powerComm":"已送电","subsNo":"","lineNo":"","tgNo":"","tgName":null,"infoStatus":"1","orgName":"国网定兴县供电公司","typeName":null,"infoStatusName":null,"dateDay":null,"orgNos":null,"nowTime":null,"countyName":null,"streetName":null,"villageName":null,"roadName":null,"communityName":null,"tranName":null,"sdLineName":null,"cityCode":"1340609","cityName":"国网定兴县供电公司","provinceCode":null,"stopTime":"2020-04-06 14:00:00","powerType":"全部","powerOffArea":"【全线路停电】停沽酒光7变压器,0694787658-定兴县沽酒小学-专变-237560904-沽酒小学-160,河北荣达畜禽有限公司250,0687090657-保定玖兴种禽养殖有限公司-专变-227127856-玖兴种禽-200,西落堡光2,西魏家庄排6【纯农排变】,沽酒村光5变压器,沽酒村光2变压器,西落堡排1【纯农排变】,西落堡排4【纯农排变】,西落堡光4,沽酒村光3变压器,沽酒排4【纯农排变】,西落堡排3【纯农排变】,沽酒排1【纯农排变】,河北荣达畜禽有限公司50,沽酒村光1变压器,东陶沈排1【纯农排变】,中陶沈排9【纯农排变】,沽酒排3【纯农排变】,西落堡光6变压器,沽酒村光4变压器,中陶沈排10【纯农排变】,沽酒光6变压器,沽酒排2【纯农排变】,西落堡光1,中陶沈光8,沽酒排5【纯农排变】,西落堡光3【2018年第四批补强】,0695004938-定兴县西落堡小学-专变-238553588-100,西落堡光7变压器,西落堡光5,0696765258-定兴县中陶沈小学-专变-240815687-中淘沈小学,西落堡排7【纯农排变】,西落堡轧块厂公用,西落堡排5【纯农排变】","powerOffReason":"【停电原因】由于久兴种鸡厂高压计量绝缘击穿导致１１０ＫＶ贤寓变电站东陶沈线５７０线路全线停电 【变更送电】因抢修进度加快原因，送电时间由１６：００变更为１４：００ 【发布渠道】通过９５５９８发布 　　","powerOffId":"2020040613000037"},{"poweroffId":2020040613000036,"sgpoweroffId":null,"subsName":"","lineName":"10kV东闾二街529线","pubTranName":"1东吕二街内7,东吕三街内7,1东吕二街内4,东吕三街内1,东吕二街内2,东吕小学2,东吕乡政府2,1东吕三街内4,东吕三街内6,东吕小学1,东吕乡政府,东吕小学3,","scope":"【影响街道/乡镇】东吕乡 【高危重要客户】无 【影响客户】东吕三街村、东吕二街村","startTime":"2020-04-15 06:00:00","stopDate":"2020-04-15 21:00:00","orgNo":"1340618","typeCode":"计划停电","poweroffArea":"【全线路停电】停清苑县玉田起重设备有限公司04,东吕三街内1,0646533346-保定源爱商贸有限公司-专变-169920345-保定源爱商贸有限公司,东吕二街内2,清苑县玉田起重设备有限公司,河北神力索具集团有限公司,东吕蔡双柱配件加工,0387489795-保定东方机械有限公司-专变-45315218-保定东方机械有限公司,东吕张景跃配件加工,东吕乡政府,清苑县臣力起重吊索具制造有限公司,东吕小学3,1东吕二街内7,清苑县臣力起重吊索具制造有限公司01,清苑县玉田起重设备有限公司01,河北诺诺起重设备制造有限公司,东吕三街内7,清苑县神力起重机械厂,中国移动通信集团河北有限公司保定分公司,清苑县天诚起重设备厂,清苑县老山机械加工厂,1东吕二街内4,东吕三街村北,东吕苏满收配件加工,清苑东吕营业部,0598423133-清苑县博海起重机械厂-专变-126432923-清苑县博海起重机械厂,保定京鸽起重机械制造有限公司,东吕西一,保定恒力起重机械厂有限公司,东吕崔玉兴配件加工,东吕小学2,东吕教堂,保定市华欣起重机械制造有限公司,保定起重运输设备厂,河北神力索具有限公司,0666477592-保定市清苑区昱力特电力机具制造厂-专变-208302402-保定市清苑区昱力特电力机具制造厂,东吕营头道东,清苑县玉田起重设备有限公司03,0387493075-中国电信股份有限公司保定分公司-专变-45315581-中国电信集团公司河北网络资产分公司,河北辰力吊索具制造有限公司,保定市华欣起重机械制造有限公司01,东吕乡政府2,保定恒力起重机械有限公司01,0598428268-清苑县津工机械有限公司-专变-126432828-清苑县津工机械有限公司,清苑县臣力起重吊索具制造有限公司02,东吕华欣起重设备公司,清苑县天诚起重机械设备有限公司,清苑县玉田起重设备有限公司02,东吕三星配件厂,0554488806-河北神力索具集团有限公司-专变-77785653-河北神力索具有限公司,1东吕三街内4,0387493091-清苑县神力起重机械厂-专变-45315425-清苑县神力起重机械厂,0387489809-东吕苏佩中配件加工-专变-45315426-东吕苏佩中配件加工,保定京鸽起重机械制造有限公司01,东吕三街内6,清苑县圣牌起重设备厂,东吕小学1,0478109058-东吕村委会二街-专变-46910849-东吕村委会二街","poweroffReason":"【停电原因】由于线路春季检修导致１１０ＫＶ东闾变电站１０ＫＶ东闾二街５２９线路全线停电 【变更送电】因工作量大，送电时间由１８：００变更为２１：００ 【发布渠道】保定市清苑区电视台（２０２０年０４月０７日１９时至０４月１４日２０时之间）屏幕上方滚动","powerTime":"2020-04-15 20:19:57","powerComm":"郑晶晶通知已送电","subsNo":"","lineNo":"","tgNo":"","tgName":null,"infoStatus":"1","orgName":"国网清苑县供电公司","typeName":null,"infoStatusName":null,"dateDay":null,"orgNos":null,"nowTime":null,"countyName":null,"streetName":null,"villageName":null,"roadName":null,"communityName":null,"tranName":null,"sdLineName":null,"cityCode":"1340618","cityName":"国网清苑县供电公司","provinceCode":null,"stopTime":"2020-04-15 21:00:00","powerType":"全部","powerOffArea":"【全线路停电】停清苑县玉田起重设备有限公司04,东吕三街内1,0646533346-保定源爱商贸有限公司-专变-169920345-保定源爱商贸有限公司,东吕二街内2,清苑县玉田起重设备有限公司,河北神力索具集团有限公司,东吕蔡双柱配件加工,0387489795-保定东方机械有限公司-专变-45315218-保定东方机械有限公司,东吕张景跃配件加工,东吕乡政府,清苑县臣力起重吊索具制造有限公司,东吕小学3,1东吕二街内7,清苑县臣力起重吊索具制造有限公司01,清苑县玉田起重设备有限公司01,河北诺诺起重设备制造有限公司,东吕三街内7,清苑县神力起重机械厂,中国移动通信集团河北有限公司保定分公司,清苑县天诚起重设备厂,清苑县老山机械加工厂,1东吕二街内4,东吕三街村北,东吕苏满收配件加工,清苑东吕营业部,0598423133-清苑县博海起重机械厂-专变-126432923-清苑县博海起重机械厂,保定京鸽起重机械制造有限公司,东吕西一,保定恒力起重机械厂有限公司,东吕崔玉兴配件加工,东吕小学2,东吕教堂,保定市华欣起重机械制造有限公司,保定起重运输设备厂,河北神力索具有限公司,0666477592-保定市清苑区昱力特电力机具制造厂-专变-208302402-保定市清苑区昱力特电力机具制造厂,东吕营头道东,清苑县玉田起重设备有限公司03,0387493075-中国电信股份有限公司保定分公司-专变-45315581-中国电信集团公司河北网络资产分公司,河北辰力吊索具制造有限公司,保定市华欣起重机械制造有限公司01,东吕乡政府2,保定恒力起重机械有限公司01,0598428268-清苑县津工机械有限公司-专变-126432828-清苑县津工机械有限公司,清苑县臣力起重吊索具制造有限公司02,东吕华欣起重设备公司,清苑县天诚起重机械设备有限公司,清苑县玉田起重设备有限公司02,东吕三星配件厂,0554488806-河北神力索具集团有限公司-专变-77785653-河北神力索具有限公司,1东吕三街内4,0387493091-清苑县神力起重机械厂-专变-45315425-清苑县神力起重机械厂,0387489809-东吕苏佩中配件加工-专变-45315426-东吕苏佩中配件加工,保定京鸽起重机械制造有限公司01,东吕三街内6,清苑县圣牌起重设备厂,东吕小学1,0478109058-东吕村委会二街-专变-46910849-东吕村委会二街","powerOffReason":"【停电原因】由于线路春季检修导致１１０ＫＶ东闾变电站１０ＫＶ东闾二街５２９线路全线停电 【变更送电】因工作量大，送电时间由１８：００变更为２１：００ 【发布渠道】保定市清苑区电视台（２０２０年０４月０７日１９时至０４月１４日２０时之间）屏幕上方滚动","powerOffId":"2020040613000036"},{"poweroffId":2020040613000001,"sgpoweroffId":null,"subsName":"","lineName":"落堡线513","pubTranName":"东引光8,西册光6,落堡光3,南引光1,西册光5,肖庄排【纯农排变】,东册大棚2,西册光3,东册大棚1,南引养殖公用,究室光1【2018年第二批应急工程】,究室光2,落堡光9,究室光7,究室光8【2018年四批补强】,落堡光8,西册光1,东引光3,西册排7【纯农排变】,落堡光11,东册上光3,落堡光4,东引光9,落堡光7,南引光3,东册上光1,西相盖排6【纯农排变】,南引光4,落堡光2,究室光5,东引光2,南引光2,西相盖光6【2018年美丽乡村】,西册光7,落堡光9【2018年节能变】,落堡光10,西相盖新光2,落堡光12,西相盖排7【纯农排变】,究室光4,西册新光3,西厢盖光4,东册上光2,西册光8,东引光4,西册排8【纯农排变】,落堡光1,东册上光6,落堡光13,东册上光4,东引新光2,究室光1,东册上光5,东引光7,究室光3,西册光4,东引光6,东引光5,西厢盖光2,东引光1,西册光2,","scope":"【影响街道/乡镇】落堡乡 【高危重要客户】无 【影响客户】西相盖、东册、西册、东引、南引、东落堡、究室、移动机站东引、吉兴加油站、河北康城建材有限公司、燕城绿野生猪饲养有限公司、南引养殖场、东册小学、东落堡小学、东落堡幼儿园、定兴县烟花爆竹专营有限公司、究室面粉厂、究室小学、燕园肉牛饲养、移动机站、宏杰建材、保定鑫浩田粮食加工有限公司、东引小学","startTime":"2020-04-06 02:00:00","stopDate":"2020-04-06 05:00:00","orgNo":"1340609","typeCode":"其他临时停电","poweroffArea":"【全线路停电】停东引光3,落堡光2,东引光2,落堡排16【纯农排变】,东册小学,东引排3【纯农排变】,南引光1,康城建材3号变-100,南引混1,落堡排7【纯农排变】,东册排3【纯农排变】,落堡光9,落堡光9【2018年节能变】,东册上光2,东册排2【纯农排变】,西册光1,东引混7,落堡光11,东引光9,落堡光7,南引光3,南引光4,究室光5,西册排3【纯农排变】,西相盖光6【2018年美丽乡村】,西相盖排3【纯农排变】,究室排4【纯农排变】,东引排4【纯农排变】,落堡排4【纯农排变】,东册排1【纯农排变】,西厢盖排2【纯农排变】,东引光5,200,西册光7,康城建材2号变,西相盖排4【纯农排变】,东引排2【纯农排变】,南引光2,东引光8,落堡光3,0696769683-定兴县东落堡乡东落堡小学幼儿园-专变-240815697-东落堡小学幼儿园,燕园肉牛饲养-250,西册排7【纯农排变】,东册上光3,落堡光4,东册上光1,西相盖排6【纯农排变】,定兴县烟花爆竹专营有限公司,落堡排3【纯农排变】,东引排5【纯农排变】,究室光1【2018年第二批应急工程】,究室光2,东引排6【纯农排变】,吉兴加油站,落堡排1【纯农排变】,西相盖新光2,究室光4,西册光8,落堡光5,东引混9,落堡光1,落堡排6【纯农排变】,东册上光6,古桑排3【纯农排变】,落堡光13,西册排5【纯农排变】,西厢盖排1【纯农排变】,东引排8【纯农排变】,究室排6【纯农排变】,东册上光5,落堡混8,东引光7,究室光3,究室排3【纯农排变】,康城建材1号变,西册光4,*移动机站（东引）,东引光6,南引移动基站-30,西厢盖光2,东引光1,西册排6【纯农排变】,落堡排5【纯农排变】,西册光2,东引排1【纯农排变】,落堡排9【纯农排变】,东册上光4,东引新光2,东册排4【纯农排变】,究室光1,落堡排10【纯农排变】,西册光6,南引混2,西册光5,西册排2【纯农排变】,肖庄排【纯农排变】,东册大棚2,西册光3,究室排5【纯农排变】,东册大棚1,宏杰建材-200,南引养殖公用,保定鑫浩田粮食加工有限公司-250,落堡排2【纯农排变】,落堡光10,落堡光12,西册排4【纯农排变】,宏杰建材-100,西相盖排7【纯农排变】,西册新光3,西厢盖光4,南引排3【纯农排变】,东引光4,西册排8【纯农排变】,究室面粉厂,究室光7,究室光8【2018年四批补强】,究室小学-160,西册排1【纯农排变】,落堡光8,东引小学-200","poweroffReason":"【停电原因】由于避雷器导线脱落，需停电进行紧急消缺导致３５ＫＶ景安变电站落堡线５１３线路全线停电 【变更送电】无 【发布渠道】通过９５５９８发布","powerTime":"2020-04-06 04:09:14","powerComm":"已送电","subsNo":"","lineNo":"","tgNo":"","tgName":null,"infoStatus":"1","orgName":"国网定兴县供电公司","typeName":null,"infoStatusName":null,"dateDay":null,"orgNos":null,"nowTime":null,"countyName":null,"streetName":null,"villageName":null,"roadName":null,"communityName":null,"tranName":null,"sdLineName":null,"cityCode":"1340609","cityName":"国网定兴县供电公司","provinceCode":null,"stopTime":"2020-04-06 05:00:00","powerType":"全部","powerOffArea":"【全线路停电】停东引光3,落堡光2,东引光2,落堡排16【纯农排变】,东册小学,东引排3【纯农排变】,南引光1,康城建材3号变-100,南引混1,落堡排7【纯农排变】,东册排3【纯农排变】,落堡光9,落堡光9【2018年节能变】,东册上光2,东册排2【纯农排变】,西册光1,东引混7,落堡光11,东引光9,落堡光7,南引光3,南引光4,究室光5,西册排3【纯农排变】,西相盖光6【2018年美丽乡村】,西相盖排3【纯农排变】,究室排4【纯农排变】,东引排4【纯农排变】,落堡排4【纯农排变】,东册排1【纯农排变】,西厢盖排2【纯农排变】,东引光5,200,西册光7,康城建材2号变,西相盖排4【纯农排变】,东引排2【纯农排变】,南引光2,东引光8,落堡光3,0696769683-定兴县东落堡乡东落堡小学幼儿园-专变-240815697-东落堡小学幼儿园,燕园肉牛饲养-250,西册排7【纯农排变】,东册上光3,落堡光4,东册上光1,西相盖排6【纯农排变】,定兴县烟花爆竹专营有限公司,落堡排3【纯农排变】,东引排5【纯农排变】,究室光1【2018年第二批应急工程】,究室光2,东引排6【纯农排变】,吉兴加油站,落堡排1【纯农排变】,西相盖新光2,究室光4,西册光8,落堡光5,东引混9,落堡光1,落堡排6【纯农排变】,东册上光6,古桑排3【纯农排变】,落堡光13,西册排5【纯农排变】,西厢盖排1【纯农排变】,东引排8【纯农排变】,究室排6【纯农排变】,东册上光5,落堡混8,东引光7,究室光3,究室排3【纯农排变】,康城建材1号变,西册光4,*移动机站（东引）,东引光6,南引移动基站-30,西厢盖光2,东引光1,西册排6【纯农排变】,落堡排5【纯农排变】,西册光2,东引排1【纯农排变】,落堡排9【纯农排变】,东册上光4,东引新光2,东册排4【纯农排变】,究室光1,落堡排10【纯农排变】,西册光6,南引混2,西册光5,西册排2【纯农排变】,肖庄排【纯农排变】,东册大棚2,西册光3,究室排5【纯农排变】,东册大棚1,宏杰建材-200,南引养殖公用,保定鑫浩田粮食加工有限公司-250,落堡排2【纯农排变】,落堡光10,落堡光12,西册排4【纯农排变】,宏杰建材-100,西相盖排7【纯农排变】,西册新光3,西厢盖光4,南引排3【纯农排变】,东引光4,西册排8【纯农排变】,究室面粉厂,究室光7,究室光8【2018年四批补强】,究室小学-160,西册排1【纯农排变】,落堡光8,东引小学-200","powerOffReason":"【停电原因】由于避雷器导线脱落，需停电进行紧急消缺导致３５ＫＶ景安变电站落堡线５１３线路全线停电 【变更送电】无 【发布渠道】通过９５５９８发布","powerOffId":"2020040613000001"},{"poweroffId":2020040521000025,"sgpoweroffId":null,"subsName":"","lineName":"10kV朝阳路站517线路","pubTranName":"B390柱上变压器,0696317127-保定市发投热力有限公司-变压器1,0356341534-保定市路灯管理处-专变,0356523925-保定市交通局-2#专变,0627313183-河北广厦物业服务有限公司-专变-139257731-变压器,10kVY0289.Y0290配电室Y0290配电变压器,10kVY0289.Y0290配电室Y0289配电变压器,0696317127-保定市发投热力有限公司-变压器2,0356172954-保定市冶炼厂-专变,0358021766-保定职业技术学院-2#专变,","scope":"【影响街道/乡镇】莲池区、西大园南街、天威路 【高危重要客户】无 【影响客户】亢龙盛景、灵雨寺村、保定职业技术学校、交通局","startTime":"2020-04-05 17:30:34","stopDate":"2020-04-05 19:00:00","orgNo":"13406","typeCode":"电网故障停限电","poweroffArea":"【全线路停电】停0358021766-保定职业技术学院-2#专变,0696317127-保定市发投热力有限公司-变压器2,0356172954-保定市冶炼厂-专变,B390柱上变压器,0696317127-保定市发投热力有限公司-变压器1,0356341534-保定市路灯管理处-专变,0356523925-保定市交通局-2#专变,0627313183-河北广厦物业服务有限公司-专变-139257731-变压器,10kVY0289.Y0290配电室Y0290配电变压器,10kVY0289.Y0290配电室Y0289配电变压器","poweroffReason":"【停电原因】由于分支开关短路导致１０ＫＶ朝阳变电站５１７线路全线停电【变更送电】因抢修进度加快，原定22:00送电现计划19:00送电【发布渠道】通过９５５９８发布","powerTime":"2020-04-05 18:42:26","powerComm":"已送电","subsNo":"","lineNo":"","tgNo":"","tgName":null,"infoStatus":"1","orgName":"保定供电公司","typeName":null,"infoStatusName":null,"dateDay":null,"orgNos":null,"nowTime":null,"countyName":null,"streetName":null,"villageName":null,"roadName":null,"communityName":null,"tranName":null,"sdLineName":null,"cityCode":"13406","cityName":"保定供电公司","provinceCode":null,"stopTime":"2020-04-05 19:00:00","powerType":"全部","powerOffArea":"【全线路停电】停0358021766-保定职业技术学院-2#专变,0696317127-保定市发投热力有限公司-变压器2,0356172954-保定市冶炼厂-专变,B390柱上变压器,0696317127-保定市发投热力有限公司-变压器1,0356341534-保定市路灯管理处-专变,0356523925-保定市交通局-2#专变,0627313183-河北广厦物业服务有限公司-专变-139257731-变压器,10kVY0289.Y0290配电室Y0290配电变压器,10kVY0289.Y0290配电室Y0289配电变压器","powerOffReason":"【停电原因】由于分支开关短路导致１０ＫＶ朝阳变电站５１７线路全线停电【变更送电】因抢修进度加快，原定22:00送电现计划19:00送电【发布渠道】通过９５５９８发布","powerOffId":"2020040521000025"},{"poweroffId":2020040513000287,"sgpoweroffId":null,"subsName":"","lineName":"10KV明义514","pubTranName":"西明义村北变压器,二十里铺村南变压器,南北庄村东三台区,丁家洼村北1变压器,三沟子村西北变压器,南桥头村西变压器,台头村东2变压器,","scope":"【影响街道/乡镇】明义镇、永阳镇 【高危重要客户】无 【影响客户】西明义村、西官庄村、南北庄村、丁家洼村、三沟子村、南桥头村、樊家台村、台头村、二十里铺村","startTime":"2020-04-05 21:00:00","stopDate":"2020-04-05 22:10:00","orgNo":"1340614","typeCode":"其他临时停电","poweroffArea":"【全线路停电】停西明义村北变压器,二十里铺村南变压器,南北庄村东三台区,丁家洼村北1变压器,三沟子村西北变压器,南桥头村西变压器,台头村东2变压器","poweroffReason":"【停电原因】由于设备线夹过热，需停电进行紧急消缺导致３５ＫＶ明义变电站１０ＫＶ明义５１４线路全线停电 【变更送电】因抢修进度加快原因，送电时间由２３：３０变更为２２：１０ 【发布渠道】通过９５５９８发布","powerTime":"2020-04-05 21:46:42","powerComm":"已送电","subsNo":"","lineNo":"","tgNo":"","tgName":null,"infoStatus":"1","orgName":"国网涞水县供电公司","typeName":null,"infoStatusName":null,"dateDay":null,"orgNos":null,"nowTime":null,"countyName":null,"streetName":null,"villageName":null,"roadName":null,"communityName":null,"tranName":null,"sdLineName":null,"cityCode":"1340614","cityName":"国网涞水县供电公司","provinceCode":null,"stopTime":"2020-04-05 22:10:00","powerType":"全部","powerOffArea":"【全线路停电】停西明义村北变压器,二十里铺村南变压器,南北庄村东三台区,丁家洼村北1变压器,三沟子村西北变压器,南桥头村西变压器,台头村东2变压器","powerOffReason":"【停电原因】由于设备线夹过热，需停电进行紧急消缺导致３５ＫＶ明义变电站１０ＫＶ明义５１４线路全线停电 【变更送电】因抢修进度加快原因，送电时间由２３：３０变更为２２：１０ 【发布渠道】通过９５５９８发布","powerOffId":"2020040513000287"}],"pageModel":{"pageNow":195,"totalCount":10973,"totalPage":1098,"tableRows":0,"pageCount":10,"beginCount":1940},"isExperi":"1"}