{"message":"","today":"2020-06-15","seleList":[{"poweroffId":2020040313000430,"sgpoweroffId":null,"subsName":"","lineName":"10KV东永阳515","pubTranName":"居士村西2,二十里铺村西变压器,西永阳村内,南庞村南二,东永阳村南2台区,铺头村内2,周家庄村东变压器,","scope":"【影响街道/乡镇】永阳镇 【高危重要客户】无 【影响客户】二十里铺村、铺头村、居士村、西永阳村、东永阳村、南庞村、周家庄村","startTime":"2020-04-09 06:00:00","stopDate":"2020-04-09 07:30:00","orgNo":"1340614","typeCode":"临时停电","poweroffArea":"【全线路停电】停居士村西2,二十里铺村西变压器,西永阳村内,南庞村南二,东永阳村南2台区,铺头村内2,周家庄村东变压器","poweroffReason":"【停电原因】由于倒运行方式导致３５ＫＶ明义变电站１０ＫＶ东永阳５１５线路全线停电 【变更送电】无 【发布渠道】通过９５５９８发布","powerTime":"2020-04-09 07:02:55","powerComm":"已送电","subsNo":"","lineNo":"","tgNo":"","tgName":null,"infoStatus":"1","orgName":"国网涞水县供电公司","typeName":null,"infoStatusName":null,"dateDay":null,"orgNos":null,"nowTime":null,"countyName":null,"streetName":null,"villageName":null,"roadName":null,"communityName":null,"tranName":null,"sdLineName":null,"cityCode":"1340614","cityName":"国网涞水县供电公司","provinceCode":null,"stopTime":"2020-04-09 07:30:00","powerType":"全部","powerOffArea":"【全线路停电】停居士村西2,二十里铺村西变压器,西永阳村内,南庞村南二,东永阳村南2台区,铺头村内2,周家庄村东变压器","powerOffReason":"【停电原因】由于倒运行方式导致３５ＫＶ明义变电站１０ＫＶ东永阳５１５线路全线停电 【变更送电】无 【发布渠道】通过９５５９８发布","powerOffId":"2020040313000430"},{"poweroffId":2020040313000429,"sgpoweroffId":null,"subsName":"","lineName":"10V高洛线511","pubTranName":"庄疃公用1变压器,","scope":"【影响街道/乡镇】义安镇 【高危重要客户】无 【影响客户】庄疃村、天硕建材","startTime":"2020-04-08 06:00:00","stopDate":"2020-04-08 07:00:00","orgNo":"1340614","typeCode":"临时停电","poweroffArea":"【全线路停电】停涞水县天硕建筑材料制造有限公司1000KVA专变1#,庄疃公用1变压器","poweroffReason":"【停电原因】由于倒运行方式导致３５ＫＶ城东变电站１０ＫＶ高洛线５１１线路全线停电 【变更送电】无 【发布渠道】通过９５５９８发布","powerTime":"2020-04-08 06:52:38","powerComm":"已送电","subsNo":"","lineNo":"","tgNo":"","tgName":null,"infoStatus":"1","orgName":"国网涞水县供电公司","typeName":null,"infoStatusName":null,"dateDay":null,"orgNos":null,"nowTime":null,"countyName":null,"streetName":null,"villageName":null,"roadName":null,"communityName":null,"tranName":null,"sdLineName":null,"cityCode":"1340614","cityName":"国网涞水县供电公司","provinceCode":null,"stopTime":"2020-04-08 07:00:00","powerType":"全部","powerOffArea":"【全线路停电】停涞水县天硕建筑材料制造有限公司1000KVA专变1#,庄疃公用1变压器","powerOffReason":"【停电原因】由于倒运行方式导致３５ＫＶ城东变电站１０ＫＶ高洛线５１１线路全线停电 【变更送电】无 【发布渠道】通过９５５９８发布","powerOffId":"2020040313000429"},{"poweroffId":2020040313000425,"sgpoweroffId":null,"subsName":"","lineName":"10KV檀山512","pubTranName":"铺头村北2台区,南庞村东变压器,北秋兰村内西台区变压器,坛山村内变压器,二十里铺村东北,丛西村中台区,行宫1村南|0737,","scope":"【影响街道/乡镇】永阳镇 【高危重要客户】无 【影响客户】北秋兰村、丛西村、檀山村、南庞村、铺头村、行宫村、二十里铺村","startTime":"2020-04-11 06:00:00","stopDate":"2020-04-11 07:30:00","orgNo":"1340614","typeCode":"临时停电","poweroffArea":"【全线路停电】停铺头村北2台区,南庞村东变压器,北秋兰村内西台区变压器,坛山村内变压器,二十里铺村东北,丛西村中台区,行宫1村南|0737","poweroffReason":"【停电原因】由于倒运行方式导致３５ＫＶ明义变电站１０ＫＶ檀山５１２线路全线停电 【变更送电】无 【发布渠道】通过９５５９８发布","powerTime":"2020-04-11 07:03:01","powerComm":"已送电","subsNo":"","lineNo":"","tgNo":"","tgName":null,"infoStatus":"1","orgName":"国网涞水县供电公司","typeName":null,"infoStatusName":null,"dateDay":null,"orgNos":null,"nowTime":null,"countyName":null,"streetName":null,"villageName":null,"roadName":null,"communityName":null,"tranName":null,"sdLineName":null,"cityCode":"1340614","cityName":"国网涞水县供电公司","provinceCode":null,"stopTime":"2020-04-11 07:30:00","powerType":"全部","powerOffArea":"【全线路停电】停铺头村北2台区,南庞村东变压器,北秋兰村内西台区变压器,坛山村内变压器,二十里铺村东北,丛西村中台区,行宫1村南|0737","powerOffReason":"【停电原因】由于倒运行方式导致３５ＫＶ明义变电站１０ＫＶ檀山５１２线路全线停电 【变更送电】无 【发布渠道】通过９５５９８发布","powerOffId":"2020040313000425"},{"poweroffId":2020040313000424,"sgpoweroffId":null,"subsName":"","lineName":"10KV中加工业515","pubTranName":"中迈机电公司,","scope":"【影响街道/乡镇】涞水镇 【高危重要客户】无 【影响客户】中迈机电、中加工业园、车辆检测线附近","startTime":"2020-04-10 11:30:00","stopDate":"2020-04-10 15:00:00","orgNo":"1340614","typeCode":"临时停电","poweroffArea":"【全线路停电】停中迈机电公司,现代农装科技(北区1#)630,现代农装科技(南区1#)500","poweroffReason":"【停电原因】由于倒运行方式导致３５ＫＶ城东变电站１０ＫＶ中加工业５１５线路全线停电 【变更送电】因工作量大原因，送电时间由１３：３０变更为１５：００ 【发布渠道】通过９５５９８发布","powerTime":"2020-04-10 14:19:56","powerComm":"已送电","subsNo":"","lineNo":"","tgNo":"","tgName":null,"infoStatus":"1","orgName":"国网涞水县供电公司","typeName":null,"infoStatusName":null,"dateDay":null,"orgNos":null,"nowTime":null,"countyName":null,"streetName":null,"villageName":null,"roadName":null,"communityName":null,"tranName":null,"sdLineName":null,"cityCode":"1340614","cityName":"国网涞水县供电公司","provinceCode":null,"stopTime":"2020-04-10 15:00:00","powerType":"全部","powerOffArea":"【全线路停电】停中迈机电公司,现代农装科技(北区1#)630,现代农装科技(南区1#)500","powerOffReason":"【停电原因】由于倒运行方式导致３５ＫＶ城东变电站１０ＫＶ中加工业５１５线路全线停电 【变更送电】因工作量大原因，送电时间由１３：３０变更为１５：００ 【发布渠道】通过９５５９８发布","powerOffId":"2020040313000424"},{"poweroffId":2020040313000417,"sgpoweroffId":null,"subsName":"","lineName":"10kV永乐572","pubTranName":"姜各庄村中2,东官庄村东【纯农排变】,姜各庄村东专|0795【冬季供暖设施】,王各庄村中,姜各庄村中台区,姜各庄村东2|0794,姜各庄村内【冬季供暖设施】,东官庄村南1,王各庄村东,东官庄村南,王各庄村南|0836,王各庄村北混变压器,北汝河村东专二台区变压器,姜各庄村北混用台区变压器,姜各庄村西南,姜各庄东北专变压器【纯农排变】,北汝河村内混变压器,王各庄燃气站变压器,姜各庄村西混变压器,北汝河村西北混变压器,姜各庄村东新增,北汝河大队台区,北汝河村西2台区,北汝河村东混,王各庄村南二,北汝河东北专变压器区【纯农排变】,王各庄村南专【纯农排变】,","scope":"【影响街道/乡镇】胡家庄乡、明义镇 【高危重要客户】无 【影响客户】北汝河村、姜各庄村、王各庄村、东官庄村","startTime":"2020-04-03 18:47:03","stopDate":"2020-04-03 21:00:00","orgNo":"1340614","typeCode":"电网故障停限电","poweroffArea":"【分支停电】停北汝河东北专变压器区【纯农排变】,北汝河村东北专2台区,王各庄村南专【纯农排变】,姜各庄村中2,东官庄村东【纯农排变】,北汝河村边专变压器【纯农排变】,北汝河村西专【纯农排变】,姜各庄村东专|0795【冬季供暖设施】,10kV572永乐线王各庄村变压器01,王各庄面粉厂,王各庄村北二台区,王各庄村中,姜各庄村中台区,姜各庄村东2|0794,姜各庄村内【冬季供暖设施】,东官庄村南1,王各庄村东,东官庄村南,王各庄村南|0836,王各庄村北混变压器,北汝河村东专二台区变压器,姜各庄村北混用台区变压器,姜各庄村东混变压器,姜各庄村西南,姜各庄东北专变压器【纯农排变】,北汝河村内混变压器,王各庄燃气站变压器,姜各庄村西混变压器,北汝河村西北混变压器,姜各庄村东新增,北汝河大队台区,北汝河村西2台区,北汝河村东混,王各庄村南二","poweroffReason":"【停电原因】由于电杆被撞断导致１１０ＫＶ郭下变电站１０ＫＶ永乐５７２线路北汝河大分支０１号杆至３０号杆停电 【变更送电】因抢修进度加快原因，送电时间由２３：５９变更为２１：００ 【发布渠道】通过９５５９８发布","powerTime":"2020-04-03 20:38:04","powerComm":"已送电","subsNo":"","lineNo":"","tgNo":"","tgName":null,"infoStatus":"1","orgName":"国网涞水县供电公司","typeName":null,"infoStatusName":null,"dateDay":null,"orgNos":null,"nowTime":null,"countyName":null,"streetName":null,"villageName":null,"roadName":null,"communityName":null,"tranName":null,"sdLineName":null,"cityCode":"1340614","cityName":"国网涞水县供电公司","provinceCode":null,"stopTime":"2020-04-03 21:00:00","powerType":"全部","powerOffArea":"【分支停电】停北汝河东北专变压器区【纯农排变】,北汝河村东北专2台区,王各庄村南专【纯农排变】,姜各庄村中2,东官庄村东【纯农排变】,北汝河村边专变压器【纯农排变】,北汝河村西专【纯农排变】,姜各庄村东专|0795【冬季供暖设施】,10kV572永乐线王各庄村变压器01,王各庄面粉厂,王各庄村北二台区,王各庄村中,姜各庄村中台区,姜各庄村东2|0794,姜各庄村内【冬季供暖设施】,东官庄村南1,王各庄村东,东官庄村南,王各庄村南|0836,王各庄村北混变压器,北汝河村东专二台区变压器,姜各庄村北混用台区变压器,姜各庄村东混变压器,姜各庄村西南,姜各庄东北专变压器【纯农排变】,北汝河村内混变压器,王各庄燃气站变压器,姜各庄村西混变压器,北汝河村西北混变压器,姜各庄村东新增,北汝河大队台区,北汝河村西2台区,北汝河村东混,王各庄村南二","powerOffReason":"【停电原因】由于电杆被撞断导致１１０ＫＶ郭下变电站１０ＫＶ永乐５７２线路北汝河大分支０１号杆至３０号杆停电 【变更送电】因抢修进度加快原因，送电时间由２３：５９变更为２１：００ 【发布渠道】通过９５５９８发布","powerOffId":"2020040313000417"},{"poweroffId":2020040313000411,"sgpoweroffId":null,"subsName":"","lineName":"10KV中加工业515","pubTranName":"中迈机电公司,","scope":"【影响街道/乡镇】涞水镇 【高危重要客户】无 【影响客户】中迈机电、中加工业园、车辆检测线附近","startTime":"2020-04-08 06:00:00","stopDate":"2020-04-08 07:00:00","orgNo":"1340614","typeCode":"临时停电","poweroffArea":"【全线路停电】停中迈机电公司,现代农装科技(南区1#)500","poweroffReason":"【停电原因】由于倒运行方式导致３５ＫＶ城东变电站１０ＫＶ中加工业５１５线路全线停电 【变更送电】无 【发布渠道】通过９５５９８发布","powerTime":"2020-04-08 06:48:45","powerComm":"已送电","subsNo":"","lineNo":"","tgNo":"","tgName":null,"infoStatus":"1","orgName":"国网涞水县供电公司","typeName":null,"infoStatusName":null,"dateDay":null,"orgNos":null,"nowTime":null,"countyName":null,"streetName":null,"villageName":null,"roadName":null,"communityName":null,"tranName":null,"sdLineName":null,"cityCode":"1340614","cityName":"国网涞水县供电公司","provinceCode":null,"stopTime":"2020-04-08 07:00:00","powerType":"全部","powerOffArea":"【全线路停电】停中迈机电公司,现代农装科技(南区1#)500","powerOffReason":"【停电原因】由于倒运行方式导致３５ＫＶ城东变电站１０ＫＶ中加工业５１５线路全线停电 【变更送电】无 【发布渠道】通过９５５９８发布","powerOffId":"2020040313000411"},{"poweroffId":2020040313000409,"sgpoweroffId":null,"subsName":"","lineName":"10KV檀山512","pubTranName":"南庞村东变压器,北秋兰村内西台区变压器,坛山村内变压器,二十里铺村东北,丛西村中台区,铺头村东二,行宫1村南|0737,","scope":"【影响街道/乡镇】永阳镇 【高危重要客户】无 【影响客户】北秋兰村、丛西村、檀山村、南庞村、铺头村、行宫村、二十里铺村","startTime":"2020-04-09 06:00:00","stopDate":"2020-04-09 07:30:00","orgNo":"1340614","typeCode":"临时停电","poweroffArea":"【全线路停电】停南庞村东变压器,北秋兰村内西台区变压器,坛山村内变压器,二十里铺村东北,丛西村中台区,铺头村东二,行宫1村南|0737","poweroffReason":"【停电原因】由于倒运行方式导致３５ＫＶ明义变电站１０ＫＶ檀山５１２线路全线停电 【变更送电】无 【发布渠道】通过９５５９８发布","powerTime":"2020-04-09 07:05:41","powerComm":"已送电","subsNo":"","lineNo":"","tgNo":"","tgName":null,"infoStatus":"1","orgName":"国网涞水县供电公司","typeName":null,"infoStatusName":null,"dateDay":null,"orgNos":null,"nowTime":null,"countyName":null,"streetName":null,"villageName":null,"roadName":null,"communityName":null,"tranName":null,"sdLineName":null,"cityCode":"1340614","cityName":"国网涞水县供电公司","provinceCode":null,"stopTime":"2020-04-09 07:30:00","powerType":"全部","powerOffArea":"【全线路停电】停南庞村东变压器,北秋兰村内西台区变压器,坛山村内变压器,二十里铺村东北,丛西村中台区,铺头村东二,行宫1村南|0737","powerOffReason":"【停电原因】由于倒运行方式导致３５ＫＶ明义变电站１０ＫＶ檀山５１２线路全线停电 【变更送电】无 【发布渠道】通过９５５９８发布","powerOffId":"2020040313000409"},{"poweroffId":2020040313000367,"sgpoweroffId":null,"subsName":"","lineName":"10KV杨家庄516","pubTranName":"曹家庄村内二台区变压器,杨家庄村北二台区,北封村村西混变压器,","scope":"【影响街道/乡镇】明义镇 【高危重要客户】无 【影响客户】杨家庄村、曹家庄村、南封村、北封村、冀家沟村、东官庄村、西官庄村、东明义村、樊家台村、南秋兰村","startTime":"2020-04-11 06:00:00","stopDate":"2020-04-11 07:30:00","orgNo":"1340614","typeCode":"临时停电","poweroffArea":"【全线路停电】停曹家庄村内二台区变压器,杨家庄村北二台区,北封村村西混变压器,南封村村西变压器,东明义村东三变压器,西官庄村南变压器,南秋兰村西水变压器,冀家沟村北1变压器,东官庄村内2,樊家台村东混用变压器","poweroffReason":"【停电原因】由于倒运行方式导致３５ＫＶ明义变电站１０ＫＶ杨家庄５１６线路全线停电 【变更送电】无 【发布渠道】通过９５５９８发布","powerTime":"2020-04-11 07:00:51","powerComm":"已送电","subsNo":"","lineNo":"","tgNo":"","tgName":null,"infoStatus":"1","orgName":"国网涞水县供电公司","typeName":null,"infoStatusName":null,"dateDay":null,"orgNos":null,"nowTime":null,"countyName":null,"streetName":null,"villageName":null,"roadName":null,"communityName":null,"tranName":null,"sdLineName":null,"cityCode":"1340614","cityName":"国网涞水县供电公司","provinceCode":null,"stopTime":"2020-04-11 07:30:00","powerType":"全部","powerOffArea":"【全线路停电】停曹家庄村内二台区变压器,杨家庄村北二台区,北封村村西混变压器,南封村村西变压器,东明义村东三变压器,西官庄村南变压器,南秋兰村西水变压器,冀家沟村北1变压器,东官庄村内2,樊家台村东混用变压器","powerOffReason":"【停电原因】由于倒运行方式导致３５ＫＶ明义变电站１０ＫＶ杨家庄５１６线路全线停电 【变更送电】无 【发布渠道】通过９５５９８发布","powerOffId":"2020040313000367"},{"poweroffId":2020040313000364,"sgpoweroffId":null,"subsName":"","lineName":"10KV杨家庄516","pubTranName":"杨家庄村北二台区,北封村村西混变压器,曹家庄村内二台区变压器,冀家沟村内变压器,西官庄村内,东明义村内变压器,","scope":"【影响街道/乡镇】明义镇 【高危重要客户】无 【影响客户】杨家庄村、曹家庄村、南封村、北封村、冀家沟村、东官庄村、西官庄村、东明义村、樊家台村、南秋兰村","startTime":"2020-04-09 06:00:00","stopDate":"2020-04-09 07:30:00","orgNo":"1340614","typeCode":"临时停电","poweroffArea":"【全线路停电】停曹家庄村内二台区变压器,杨家庄村北二台区,北封村村西混变压器,南封村村西变压器,冀家沟村内变压器,南秋兰村西水变压器,东官庄村内2,西官庄村内,东明义村内变压器,樊家台村东混用变压器","poweroffReason":"【停电原因】由于倒运行方式导致３５ＫＶ明义变电站１０ＫＶ杨家庄５１６线路全线停电 【变更送电】无 【发布渠道】通过９５５９８发布","powerTime":"2020-04-09 07:05:17","powerComm":"已送电","subsNo":"","lineNo":"","tgNo":"","tgName":null,"infoStatus":"1","orgName":"国网涞水县供电公司","typeName":null,"infoStatusName":null,"dateDay":null,"orgNos":null,"nowTime":null,"countyName":null,"streetName":null,"villageName":null,"roadName":null,"communityName":null,"tranName":null,"sdLineName":null,"cityCode":"1340614","cityName":"国网涞水县供电公司","provinceCode":null,"stopTime":"2020-04-09 07:30:00","powerType":"全部","powerOffArea":"【全线路停电】停曹家庄村内二台区变压器,杨家庄村北二台区,北封村村西混变压器,南封村村西变压器,冀家沟村内变压器,南秋兰村西水变压器,东官庄村内2,西官庄村内,东明义村内变压器,樊家台村东混用变压器","powerOffReason":"【停电原因】由于倒运行方式导致３５ＫＶ明义变电站１０ＫＶ杨家庄５１６线路全线停电 【变更送电】无 【发布渠道】通过９５５９８发布","powerOffId":"2020040313000364"},{"poweroffId":2020040313000347,"sgpoweroffId":null,"subsName":"","lineName":"10KV明义514","pubTranName":"西明义村西变压器,二十里铺村南变压器,南桥头村内3变压器,台头村东2变压器,","scope":"【影响街道/乡镇】明义镇、永阳镇 【高危重要客户】无 【影响客户】西明义村、西官庄村、南北庄村、丁家洼村、三沟子村、南桥头村、樊家台村、台头村、二十里铺村","startTime":"2020-04-11 06:00:00","stopDate":"2020-04-11 07:30:00","orgNo":"1340614","typeCode":"临时停电","poweroffArea":"【全线路停电】停西明义村西变压器,二十里铺村南变压器,南桥头村内3变压器,三沟子村北变压器,西官庄村西专变压器【纯农排变】,丁家洼村内2变压器,南北庄村北变压器,台头村东2变压器,樊家台村南变压器","poweroffReason":"【停电原因】由于倒运行方式导致３５ＫＶ明义变电站１０ＫＶ明义５１４线路全线停电 【变更送电】无 【发布渠道】通过９５５９８发布","powerTime":"2020-04-11 07:03:20","powerComm":"已送电","subsNo":"","lineNo":"","tgNo":"","tgName":null,"infoStatus":"1","orgName":"国网涞水县供电公司","typeName":null,"infoStatusName":null,"dateDay":null,"orgNos":null,"nowTime":null,"countyName":null,"streetName":null,"villageName":null,"roadName":null,"communityName":null,"tranName":null,"sdLineName":null,"cityCode":"1340614","cityName":"国网涞水县供电公司","provinceCode":null,"stopTime":"2020-04-11 07:30:00","powerType":"全部","powerOffArea":"【全线路停电】停西明义村西变压器,二十里铺村南变压器,南桥头村内3变压器,三沟子村北变压器,西官庄村西专变压器【纯农排变】,丁家洼村内2变压器,南北庄村北变压器,台头村东2变压器,樊家台村南变压器","powerOffReason":"【停电原因】由于倒运行方式导致３５ＫＶ明义变电站１０ＫＶ明义５１４线路全线停电 【变更送电】无 【发布渠道】通过９５５９８发布","powerOffId":"2020040313000347"}],"pageModel":{"pageNow":202,"totalCount":10973,"totalPage":1098,"tableRows":0,"pageCount":10,"beginCount":2010},"isExperi":"1"}