{"message":"","today":"2020-06-15","seleList":[{"poweroffId":2020040313000115,"sgpoweroffId":null,"subsName":"","lineName":"10kV530永录线","pubTranName":"东委村9760|21009760,东委村新10830|21010830,","scope":"【影响街道/乡镇】蒲阳镇【高危重要客户】无【影响客户】东委村","startTime":"2020-04-12 07:30:00","stopDate":"2020-04-12 19:30:00","orgNo":"1340621","typeCode":"计划停电","poweroffArea":"【分支停电】停东委村9760|21009760,东委村新10830|21010830","poweroffReason":"【停电原因】由于更换变压器导致１１０ＫＶ甘城变电站１０ＫＶ５３０永录线路主干１０５号杆刀闸以下线路停电【变更送电】因计划工作进度加快原因，送电时间由２１：３０变更为１９：３０【发布渠道】顺平县电视台（０４月０４日至１１日２０时至２１时之间）屏幕上方滚动字幕","powerTime":"2020-04-12 18:32:55","powerComm":"已送电","subsNo":"","lineNo":"","tgNo":"","tgName":null,"infoStatus":"1","orgName":"国网顺平县电力局","typeName":null,"infoStatusName":null,"dateDay":null,"orgNos":null,"nowTime":null,"countyName":null,"streetName":null,"villageName":null,"roadName":null,"communityName":null,"tranName":null,"sdLineName":null,"cityCode":"1340621","cityName":"国网顺平县电力局","provinceCode":null,"stopTime":"2020-04-12 19:30:00","powerType":"全部","powerOffArea":"【分支停电】停东委村9760|21009760,东委村新10830|21010830","powerOffReason":"【停电原因】由于更换变压器导致１１０ＫＶ甘城变电站１０ＫＶ５３０永录线路主干１０５号杆刀闸以下线路停电【变更送电】因计划工作进度加快原因，送电时间由２１：３０变更为１９：３０【发布渠道】顺平县电视台（０４月０４日至１１日２０时至２１时之间）屏幕上方滚动字幕","powerOffId":"2020040313000115"},{"poweroffId":2020040313000083,"sgpoweroffId":null,"subsName":"","lineName":"10kV542红星线","pubTranName":"兑坎庄综合2台区,兑坎庄综合5台区,兑坎庄综合10台区,兑坎庄综合11台区,","scope":"【影响街道/乡镇】蠡吾镇【高危重要客户】无【影响客户】兑坎庄工业区","startTime":"2020-04-03 09:12:50","stopDate":"2020-04-03 13:00:00","orgNo":"1340616","typeCode":"超电网供电能力停限电","poweroffArea":"【全线路停电】停李同营,蠡县兑坎庄橡胶制品经销部变压器,华腾,四通设备厂,保定坤隆橡胶机带有限公司变压器,保定天顺橡胶制品有限公司,河北东风橡胶机带有限公司,蠡县兑坎庄中亿胶带输送设备配件厂,保定四海橡胶机带有限公司,兑坎庄综合11台区,李贺营,李国安,保定红星橡胶制品有限公司,保定中南橡胶机带有限公司,蠡县亿丰输送设备有限公司变压器,韩素卓||2522046|兑坎庄,2522兑坎庄李云清,河北新达胶带厂变压器,2522050||2522兑坎庄,兑坎庄综合10台区,2522兑坎庄车床,蠡县东亿橡胶机带有限公司变压器安装,0684252737-保定晟诺橡胶机带制造有限公司-专变-225174124-保定晟诺橡胶机带制造有限公司,2522兑坎庄韩显增,保定天顺橡胶制品有限公司变压器,双启织布厂,中北橡,蠡县华川胶带有限公司,兑坎庄综合2台区,北方,0683783388-蠡县华隆胶带厂-专变-223538313-蠡县华隆胶带厂变压器,变压器,胜利橡,蠡县开泰输送机带有限公司变压器,华都,其林,保定中南橡胶机带有限公司变压器,蠡县兑庄农机配件维修部,李建辉,中元,鑫宝达输送设备制造有限公司变压器,兑坎庄综合5台区,李贺兵,明星,蠡县兑坎庄腾达环形带厂变压器,李建良,李保昌,保定弘强橡胶机带有限公司,蠡县爱辉橡胶厂变压器","poweroffReason":"【停电原因】由于主变过负荷导致１１０ＫＶ张岳变电站１０ＫＶ红星５４２线路全线停电【变更送电】因主变负荷恢复正常原因，送电时间由１５:００变更为１３:００【发布渠道】通过９５５９８发布","powerTime":"2020-04-03 12:34:45","powerComm":"已送电","subsNo":"","lineNo":"","tgNo":"","tgName":null,"infoStatus":"1","orgName":"国网蠡县供电公司","typeName":null,"infoStatusName":null,"dateDay":null,"orgNos":null,"nowTime":null,"countyName":null,"streetName":null,"villageName":null,"roadName":null,"communityName":null,"tranName":null,"sdLineName":null,"cityCode":"1340616","cityName":"国网蠡县供电公司","provinceCode":null,"stopTime":"2020-04-03 13:00:00","powerType":"全部","powerOffArea":"【全线路停电】停李同营,蠡县兑坎庄橡胶制品经销部变压器,华腾,四通设备厂,保定坤隆橡胶机带有限公司变压器,保定天顺橡胶制品有限公司,河北东风橡胶机带有限公司,蠡县兑坎庄中亿胶带输送设备配件厂,保定四海橡胶机带有限公司,兑坎庄综合11台区,李贺营,李国安,保定红星橡胶制品有限公司,保定中南橡胶机带有限公司,蠡县亿丰输送设备有限公司变压器,韩素卓||2522046|兑坎庄,2522兑坎庄李云清,河北新达胶带厂变压器,2522050||2522兑坎庄,兑坎庄综合10台区,2522兑坎庄车床,蠡县东亿橡胶机带有限公司变压器安装,0684252737-保定晟诺橡胶机带制造有限公司-专变-225174124-保定晟诺橡胶机带制造有限公司,2522兑坎庄韩显增,保定天顺橡胶制品有限公司变压器,双启织布厂,中北橡,蠡县华川胶带有限公司,兑坎庄综合2台区,北方,0683783388-蠡县华隆胶带厂-专变-223538313-蠡县华隆胶带厂变压器,变压器,胜利橡,蠡县开泰输送机带有限公司变压器,华都,其林,保定中南橡胶机带有限公司变压器,蠡县兑庄农机配件维修部,李建辉,中元,鑫宝达输送设备制造有限公司变压器,兑坎庄综合5台区,李贺兵,明星,蠡县兑坎庄腾达环形带厂变压器,李建良,李保昌,保定弘强橡胶机带有限公司,蠡县爱辉橡胶厂变压器","powerOffReason":"【停电原因】由于主变过负荷导致１１０ＫＶ张岳变电站１０ＫＶ红星５４２线路全线停电【变更送电】因主变负荷恢复正常原因，送电时间由１５:００变更为１３:００【发布渠道】通过９５５９８发布","powerOffId":"2020040313000083"},{"poweroffId":2020040313000082,"sgpoweroffId":null,"subsName":"","lineName":"10kV514西潘线","pubTranName":"王村公用照明10台区,客户投资_清辛庄村公用照明1台区,王村公用照明9台区,岸下村公用照明2台区,王村公用照明2台区,岸下公用照明6台区,岸下村公用照明3台区,王村公用农业6台区【纯农排变】,清辛庄公用照明8台区,客户投资_悟村公用照明1台区,客户投资_王村公用照明6台区,岸下公用照明7台区,清辛庄公用照明5台区,岸下村公用照明1台区,王村公用照明3台区1,岸下公用农业7台区【纯农排变】,悟村公用照明4台区,客户投资_清辛庄公用照明3台区,李村公用照明2台区,岸下公用照明5台区,清辛庄公用照明10台区,王村公用照明4台区1,清辛庄村公用照明2台区,悟村公用照明2台区,清辛庄公用照明4台区,李村公用照明1台区,清辛庄公用农业7台区1【纯农排变】,客户投资_悟村公用照明3台区,岸下公用农业6台区【纯农排变】,清辛庄公用照明7台区,王村公用照明8台区,王村公用照明5台区,王村公用照明12台区,北沿村公用照明1台区,清辛庄公用照明6台区,王村公用照明11台区,客户投资_岸下村公用照明4台区,李村公用照明3台区,客户投资_王村公用照明7台区,王村公用照明1台区,北沿村公用照明2台区,清辛庄公用照明9台区,清辛庄公用照明11台区,","scope":"【影响街道/乡镇】砖路镇【高危重要客户】无【影响客户】北沿村、悟村、李村、王村、清辛庄村、岸下村、台头","startTime":"2020-04-03 09:12:24","stopDate":"2020-04-03 11:00:00","orgNo":"1340610","typeCode":"电网故障停限电","poweroffArea":"【全线路停电】停王村公用照明9台区,岸下村公用照明2台区,王村公用照明2台区,岸下公用照明6台区,岸下村公用照明3台区,王村公用农业6台区【纯农排变】,清辛庄公用照明8台区,客户投资_悟村公用照明1台区,客户投资_王村公用照明6台区,岸下公用照明7台区,清辛庄公用照明5台区,岸下村公用照明1台区,王村公用照明3台区1,岸下公用农业7台区【纯农排变】,悟村公用照明4台区,客户投资_清辛庄公用照明3台区,李村公用照明2台区,岸下公用照明5台区,清辛庄公用照明10台区,王村公用照明4台区1,清辛庄村公用照明2台区,悟村公用照明2台区,清辛庄公用照明4台区,李村公用照明1台区,清辛庄公用农业7台区1【纯农排变】,客户投资_悟村公用照明3台区,岸下公用农业6台区【纯农排变】,清辛庄公用照明7台区,王村公用照明8台区,王村公用照明5台区,王村公用照明12台区,北沿村公用照明1台区,清辛庄公用照明6台区,王村公用照明11台区,客户投资_岸下村公用照明4台区,李村公用照明3台区,客户投资_王村公用照明7台区,王村公用照明1台区,北沿村公用照明2台区,清辛庄公用照明9台区,清辛庄公用照明11台区,王村公用照明10台区,客户投资_清辛庄村公用照明1台区,中国联合网络通信有限公司定州市分公司,清辛庄公用农业3台区【纯农排变】,清辛庄公用农业11台区【纯农排变】,王村公用农业3台区【纯农排变】,定州市砖路镇南沿村村民委员会居民变压器,王村公用农业16台区【纯农排变】,李村公用农业1台区【纯农排变】,岸下公用照明8台区,定州光杰新能源科技有限公司变压器,砖路镇镇果园,定州市砖路镇悟村村民委员会（悟村二号）,王村公用农业1台区【纯农排变】,潘村公用照明15台区,吉电定州新能源科技有限公司变压器,岸下公用农业11台区【纯农排变】,岸下公用农业10台区【纯农排变】,王村公用农业2台区【纯农排变】,李村公用农业4台区【纯农排变】,定州富众养老服务有限公司变压器2,定州市砖路镇南沿村村民委员会公用变压器,南渠河公用农业7台区【纯农排变】,定州市砖路镇王村村民委员会（王村二支干）,李村公用农业5台区【纯农排变】,定州富众养老服务有限公司变压器,清辛庄公用农业6台区【纯农排变】,定州市砖路镇悟村中学变压器2,岸下公用农业8台区【纯农排变】,吉电定州新能源科技有限公司变压器1,清辛庄公用农业2台区【纯农排变】,王村公用照明14台区,定州市悟村初级中学变压器,清辛庄公用农业5台区【纯农排变】,李村公用农业3台区【纯农排变】,李村公用农业2台区【纯农排变】,岸下（农业）,北沿公用照明3台区,定州市砖路镇悟村村民委员会变压器,清辛庄公用农业1台区【纯农排变】,定州市顺发混凝土有限公司变压器,清辛庄公用农业13台区【纯农排变】,清辛庄公用农业4台区【纯农排变】,悟村公用农业1台区【纯农排变】","poweroffReason":"【停电原因】由于岸下５分支０８号杆农业配变烧毁导致３５ＫＶ吴家庄变电站１０ＫＶ５１４西潘线路全线停电 【变更送电】因抢修进度加快原因，送电时间由１８：００变更为１１：００ 【发布渠道】９５５９８","powerTime":"2020-04-03 10:35:54","powerComm":"已送电","subsNo":"","lineNo":"","tgNo":"","tgName":null,"infoStatus":"1","orgName":"国网定州市供电公司","typeName":null,"infoStatusName":null,"dateDay":null,"orgNos":null,"nowTime":null,"countyName":null,"streetName":null,"villageName":null,"roadName":null,"communityName":null,"tranName":null,"sdLineName":null,"cityCode":"1340610","cityName":"国网定州市供电公司","provinceCode":null,"stopTime":"2020-04-03 11:00:00","powerType":"全部","powerOffArea":"【全线路停电】停王村公用照明9台区,岸下村公用照明2台区,王村公用照明2台区,岸下公用照明6台区,岸下村公用照明3台区,王村公用农业6台区【纯农排变】,清辛庄公用照明8台区,客户投资_悟村公用照明1台区,客户投资_王村公用照明6台区,岸下公用照明7台区,清辛庄公用照明5台区,岸下村公用照明1台区,王村公用照明3台区1,岸下公用农业7台区【纯农排变】,悟村公用照明4台区,客户投资_清辛庄公用照明3台区,李村公用照明2台区,岸下公用照明5台区,清辛庄公用照明10台区,王村公用照明4台区1,清辛庄村公用照明2台区,悟村公用照明2台区,清辛庄公用照明4台区,李村公用照明1台区,清辛庄公用农业7台区1【纯农排变】,客户投资_悟村公用照明3台区,岸下公用农业6台区【纯农排变】,清辛庄公用照明7台区,王村公用照明8台区,王村公用照明5台区,王村公用照明12台区,北沿村公用照明1台区,清辛庄公用照明6台区,王村公用照明11台区,客户投资_岸下村公用照明4台区,李村公用照明3台区,客户投资_王村公用照明7台区,王村公用照明1台区,北沿村公用照明2台区,清辛庄公用照明9台区,清辛庄公用照明11台区,王村公用照明10台区,客户投资_清辛庄村公用照明1台区,中国联合网络通信有限公司定州市分公司,清辛庄公用农业3台区【纯农排变】,清辛庄公用农业11台区【纯农排变】,王村公用农业3台区【纯农排变】,定州市砖路镇南沿村村民委员会居民变压器,王村公用农业16台区【纯农排变】,李村公用农业1台区【纯农排变】,岸下公用照明8台区,定州光杰新能源科技有限公司变压器,砖路镇镇果园,定州市砖路镇悟村村民委员会（悟村二号）,王村公用农业1台区【纯农排变】,潘村公用照明15台区,吉电定州新能源科技有限公司变压器,岸下公用农业11台区【纯农排变】,岸下公用农业10台区【纯农排变】,王村公用农业2台区【纯农排变】,李村公用农业4台区【纯农排变】,定州富众养老服务有限公司变压器2,定州市砖路镇南沿村村民委员会公用变压器,南渠河公用农业7台区【纯农排变】,定州市砖路镇王村村民委员会（王村二支干）,李村公用农业5台区【纯农排变】,定州富众养老服务有限公司变压器,清辛庄公用农业6台区【纯农排变】,定州市砖路镇悟村中学变压器2,岸下公用农业8台区【纯农排变】,吉电定州新能源科技有限公司变压器1,清辛庄公用农业2台区【纯农排变】,王村公用照明14台区,定州市悟村初级中学变压器,清辛庄公用农业5台区【纯农排变】,李村公用农业3台区【纯农排变】,李村公用农业2台区【纯农排变】,岸下（农业）,北沿公用照明3台区,定州市砖路镇悟村村民委员会变压器,清辛庄公用农业1台区【纯农排变】,定州市顺发混凝土有限公司变压器,清辛庄公用农业13台区【纯农排变】,清辛庄公用农业4台区【纯农排变】,悟村公用农业1台区【纯农排变】","powerOffReason":"【停电原因】由于岸下５分支０８号杆农业配变烧毁导致３５ＫＶ吴家庄变电站１０ＫＶ５１４西潘线路全线停电 【变更送电】因抢修进度加快原因，送电时间由１８：００变更为１１：００ 【发布渠道】９５５９８","powerOffId":"2020040313000082"},{"poweroffId":2020040313000077,"sgpoweroffId":null,"subsName":"","lineName":"10kV唐庄线515","pubTranName":"1小营内1,客户投资_1大位庄内3,0668443401-清苑县大魏庄乳泉奶牛养殖场-专变-210338276-清苑县大魏庄乳泉奶牛养殖场,大魏庄粮食种植基地01,0573972357-大魏庄水厂-专变-124359279-大魏庄水厂,1大位庄内4,2付家营外6【纯农排变】,2小营外8【纯农排变】,小营小学1,2小营外6【纯农排变】,1唐庄内11,1唐庄内13,大魏庄中学3,大魏庄供电所,2付家营外7【纯农排变】,2付家营外33【纯农排变】,2付家营外31【纯农排变】,唐庄砖厂,大魏庄粮食种植基地02,2付家营外30【纯农排变】,大魏庄中学2,1小营内12,1小营内18,2大位庄外10【纯农排变】,2付家营外5【纯农排变】,客户投资_1大位庄内5,2唐庄外10【纯农排变】,2大位庄外6【纯农排变】,1唐庄内12,2小营外15【纯农排变】,2小营外14【纯农排变】,1西孙庄南街内5,曹庄马新发机械厂,2西孙庄南街外3【纯农排变】,2小营外5【纯农排变】,1唐庄内2,2西孙庄南街外6【纯农排变】,0387497846-四合挂面厂-专变-45319511-四合挂面厂,2付家营外21【纯农排变】,2付家营外20【纯农排变】,1唐庄内16,小营李伟光塑料厂,新尧面粉厂,森源胶合板厂,2唐庄外15【纯农排变】,1大位庄内23,中国移动河北有限公司清苑分公司,清苑县农村信用联社股份有限公司,2唐庄外5【纯农排变】,2唐庄外14【纯农排变】,大魏庄小学1,2曹庄外13【纯农排变】,2小营外4【纯农排变】,2小营外7【纯农排变】,2唐庄外6【纯农排变】,大魏庄中学4,1大位庄内21,2西孙庄南街外4【纯农排变】,1小营内11,2大位庄外7【纯农排变】,1大位庄内2,2小营外3【纯农排变】,1唐庄内3,1小营内2,2小营外13【纯农排变】,大魏庄中学1,2西孙庄南街外2【纯农排变】,1大位庄内1,2唐庄外18【纯农排变】,2付家营外32【纯农排变】,2唐庄外4【纯农排变】,2唐庄外9【纯农排变】,1唐庄内17,2付家营外8【纯农排变】,2付家营外29【纯农排变】,1大位庄内19,2小营外17【纯农排变】,2唐庄外8【纯农排变】,0387498201-大位庄中学-专变-45319532-大位庄中学,大魏庄粮食种植基地,2大位庄外11【纯农排变】,1唐庄内1,2大位庄外8【纯农排变】,1大位庄内22,1西孙庄南街内1,唐庄小学1,2小营外10【纯农排变】,2小营外16【纯农排变】,2唐庄外7【纯农排变】,1大位庄内18,1大位庄内20,2大位庄外9【纯农排变】,2小营外9【纯农排变】,","scope":"【影响街道/乡镇】阳城镇、李庄乡 【高危重要客户】无 【影响客户】唐庄、西孙庄、大魏庄、小营","startTime":"2020-04-03 09:05:18","stopDate":"2020-04-03 12:00:00","orgNo":"1340618","typeCode":"电网故障停限电","poweroffArea":"【全线路停电】停2小营外8【纯农排变】,小营小学1,2小营外6【纯农排变】,1唐庄内11,1唐庄内13,大魏庄中学3,大魏庄供电所,2付家营外33【纯农排变】,2付家营外31【纯农排变】,唐庄砖厂,大魏庄粮食种植基地02,2唐庄外15【纯农排变】,1小营内1,客户投资_1大位庄内3,0668443401-清苑县大魏庄乳泉奶牛养殖场-专变-210338276-清苑县大魏庄乳泉奶牛养殖场,大魏庄粮食种植基地01,0573972357-大魏庄水厂-专变-124359279-大魏庄水厂,1大位庄内4,2付家营外6【纯农排变】,2付家营外7【纯农排变】,2付家营外5【纯农排变】,客户投资_1大位庄内5,2唐庄外10【纯农排变】,2大位庄外6【纯农排变】,1唐庄内12,2小营外15【纯农排变】,2付家营外30【纯农排变】,大魏庄中学2,1小营内12,1小营内18,2大位庄外10【纯农排变】,2唐庄外14【纯农排变】,2小营外14【纯农排变】,1西孙庄南街内5,曹庄马新发机械厂,2西孙庄南街外3【纯农排变】,2小营外5【纯农排变】,1唐庄内2,2西孙庄南街外6【纯农排变】,0387497846-四合挂面厂-专变-45319511-四合挂面厂,2付家营外21【纯农排变】,2付家营外20【纯农排变】,1唐庄内16,小营李伟光塑料厂,新尧面粉厂,森源胶合板厂,1大位庄内23,中国移动河北有限公司清苑分公司,清苑县农村信用联社股份有限公司,2唐庄外5【纯农排变】,2曹庄外13【纯农排变】,2小营外4【纯农排变】,2小营外7【纯农排变】,2唐庄外6【纯农排变】,大魏庄中学4,1大位庄内21,2西孙庄南街外4【纯农排变】,1小营内11,2大位庄外7【纯农排变】,1大位庄内2,2小营外3【纯农排变】,1唐庄内3,1小营内2,2小营外13【纯农排变】,大魏庄中学1,2西孙庄南街外2【纯农排变】,1大位庄内1,2唐庄外18【纯农排变】,2付家营外32【纯农排变】,2唐庄外4【纯农排变】,2唐庄外9【纯农排变】,1唐庄内17,大魏庄小学1,2小营外9【纯农排变】,2付家营外8【纯农排变】,2付家营外29【纯农排变】,1大位庄内19,2小营外17【纯农排变】,2唐庄外8【纯农排变】,0387498201-大位庄中学-专变-45319532-大位庄中学,大魏庄粮食种植基地,2大位庄外11【纯农排变】,1唐庄内1,2大位庄外8【纯农排变】,1大位庄内22,1西孙庄南街内1,唐庄小学1,2小营外10【纯农排变】,2小营外16【纯农排变】,2唐庄外7【纯农排变】,1大位庄内18,1大位庄内20,2大位庄外9【纯农排变】","poweroffReason":"【停电原因】由于主干１号杆南分支５号杆新尧面粉厂配变避雷器烧毁导致３５ＫＶ大魏庄变电站１０ＫＶ唐庄线５１５线路全线停电 【变更送电】因抢修进度加快原因，送电时间由１５：００变更为１２：００ 【发布渠道】通过９５５９８发布","powerTime":"2020-04-03 11:28:25","powerComm":"赵子杰通知已送电","subsNo":"","lineNo":"","tgNo":"","tgName":null,"infoStatus":"1","orgName":"国网清苑县供电公司","typeName":null,"infoStatusName":null,"dateDay":null,"orgNos":null,"nowTime":null,"countyName":null,"streetName":null,"villageName":null,"roadName":null,"communityName":null,"tranName":null,"sdLineName":null,"cityCode":"1340618","cityName":"国网清苑县供电公司","provinceCode":null,"stopTime":"2020-04-03 12:00:00","powerType":"全部","powerOffArea":"【全线路停电】停2小营外8【纯农排变】,小营小学1,2小营外6【纯农排变】,1唐庄内11,1唐庄内13,大魏庄中学3,大魏庄供电所,2付家营外33【纯农排变】,2付家营外31【纯农排变】,唐庄砖厂,大魏庄粮食种植基地02,2唐庄外15【纯农排变】,1小营内1,客户投资_1大位庄内3,0668443401-清苑县大魏庄乳泉奶牛养殖场-专变-210338276-清苑县大魏庄乳泉奶牛养殖场,大魏庄粮食种植基地01,0573972357-大魏庄水厂-专变-124359279-大魏庄水厂,1大位庄内4,2付家营外6【纯农排变】,2付家营外7【纯农排变】,2付家营外5【纯农排变】,客户投资_1大位庄内5,2唐庄外10【纯农排变】,2大位庄外6【纯农排变】,1唐庄内12,2小营外15【纯农排变】,2付家营外30【纯农排变】,大魏庄中学2,1小营内12,1小营内18,2大位庄外10【纯农排变】,2唐庄外14【纯农排变】,2小营外14【纯农排变】,1西孙庄南街内5,曹庄马新发机械厂,2西孙庄南街外3【纯农排变】,2小营外5【纯农排变】,1唐庄内2,2西孙庄南街外6【纯农排变】,0387497846-四合挂面厂-专变-45319511-四合挂面厂,2付家营外21【纯农排变】,2付家营外20【纯农排变】,1唐庄内16,小营李伟光塑料厂,新尧面粉厂,森源胶合板厂,1大位庄内23,中国移动河北有限公司清苑分公司,清苑县农村信用联社股份有限公司,2唐庄外5【纯农排变】,2曹庄外13【纯农排变】,2小营外4【纯农排变】,2小营外7【纯农排变】,2唐庄外6【纯农排变】,大魏庄中学4,1大位庄内21,2西孙庄南街外4【纯农排变】,1小营内11,2大位庄外7【纯农排变】,1大位庄内2,2小营外3【纯农排变】,1唐庄内3,1小营内2,2小营外13【纯农排变】,大魏庄中学1,2西孙庄南街外2【纯农排变】,1大位庄内1,2唐庄外18【纯农排变】,2付家营外32【纯农排变】,2唐庄外4【纯农排变】,2唐庄外9【纯农排变】,1唐庄内17,大魏庄小学1,2小营外9【纯农排变】,2付家营外8【纯农排变】,2付家营外29【纯农排变】,1大位庄内19,2小营外17【纯农排变】,2唐庄外8【纯农排变】,0387498201-大位庄中学-专变-45319532-大位庄中学,大魏庄粮食种植基地,2大位庄外11【纯农排变】,1唐庄内1,2大位庄外8【纯农排变】,1大位庄内22,1西孙庄南街内1,唐庄小学1,2小营外10【纯农排变】,2小营外16【纯农排变】,2唐庄外7【纯农排变】,1大位庄内18,1大位庄内20,2大位庄外9【纯农排变】","powerOffReason":"【停电原因】由于主干１号杆南分支５号杆新尧面粉厂配变避雷器烧毁导致３５ＫＶ大魏庄变电站１０ＫＶ唐庄线５１５线路全线停电 【变更送电】因抢修进度加快原因，送电时间由１５：００变更为１２：００ 【发布渠道】通过９５５９８发布","powerOffId":"2020040313000077"},{"poweroffId":2020040213000512,"sgpoweroffId":null,"subsName":"","lineName":"东站545","pubTranName":"石家庄8号变压器,石家庄7号变压器,石家庄2号变压器,石家庄6号变压器,石家庄5号变压器,石家庄1号变压器,石家庄12号变压器,石家庄3号变压器,石家庄13号变压器,石家庄11号变压器,石家庄4号变压器,石家庄9号变压器,石家庄10号变压器,","scope":"【影响街道/乡镇】方官镇 【高危重要客户】无 【影响客户】石家庄村","startTime":"2020-04-03 05:00:00","stopDate":"2020-04-03 19:00:00","orgNo":"1340612","typeCode":"其他临时停电","poweroffArea":"【全线路停电】停石家庄4号变压器,石家庄9号变压器,石家庄10号变压器,石家庄6号变压器,石家庄5号变压器,石家庄1号变压器,石家庄12号变压器,石家庄3号变压器,石家庄8号变压器,石家庄7号变压器,石家庄2号变压器,石家庄13号变压器,石家庄11号变压器","poweroffReason":"【停电原因】由于电杆倾斜需紧急处理导致１１０ＫＶ方官变电站１０ＫＶ东站５４５线路全线停电 【变更送电】因工作量大原因，送电时间由１８：００变更为１９：００ 【发布渠道】通过９５５９８发布","powerTime":"2020-04-03 18:32:28","powerComm":"已送电","subsNo":"","lineNo":"","tgNo":"","tgName":null,"infoStatus":"1","orgName":"国网高碑店市供电公司","typeName":null,"infoStatusName":null,"dateDay":null,"orgNos":null,"nowTime":null,"countyName":null,"streetName":null,"villageName":null,"roadName":null,"communityName":null,"tranName":null,"sdLineName":null,"cityCode":"1340612","cityName":"国网高碑店市供电公司","provinceCode":null,"stopTime":"2020-04-03 19:00:00","powerType":"全部","powerOffArea":"【全线路停电】停石家庄4号变压器,石家庄9号变压器,石家庄10号变压器,石家庄6号变压器,石家庄5号变压器,石家庄1号变压器,石家庄12号变压器,石家庄3号变压器,石家庄8号变压器,石家庄7号变压器,石家庄2号变压器,石家庄13号变压器,石家庄11号变压器","powerOffReason":"【停电原因】由于电杆倾斜需紧急处理导致１１０ＫＶ方官变电站１０ＫＶ东站５４５线路全线停电 【变更送电】因工作量大原因，送电时间由１８：００变更为１９：００ 【发布渠道】通过９５５９８发布","powerOffId":"2020040213000512"},{"poweroffId":2020040213000469,"sgpoweroffId":null,"subsName":"","lineName":"10kV514中古屯线","pubTranName":"中古村公用照明4台区,中古村公用照明5台区,中古屯公用照明9台区,","scope":"【影响街道/乡镇】大辛庄镇【高危重要客户】无【影响客户】中古屯","startTime":"2020-04-13 07:30:00","stopDate":"2020-04-13 15:00:00","orgNo":"1340610","typeCode":"计划停电","poweroffArea":"【分支停电】停中古村公用照明4台区,中古村公用照明5台区,中古屯公用照明9台区","poweroffReason":"【停电原因】由于新架导线导致３５ＫＶ大辛庄变电站１０ＫＶ５１４中古屯线路主干６９号杆０３号断路器以下线路停电 【变更送电】无 【发布渠道】河北省定州市定州日报第三版（２０２０年０４月０３日）","powerTime":"2020-04-13 14:55:29","powerComm":"已送电","subsNo":"","lineNo":"","tgNo":"","tgName":null,"infoStatus":"1","orgName":"国网定州市供电公司","typeName":null,"infoStatusName":null,"dateDay":null,"orgNos":null,"nowTime":null,"countyName":null,"streetName":null,"villageName":null,"roadName":null,"communityName":null,"tranName":null,"sdLineName":null,"cityCode":"1340610","cityName":"国网定州市供电公司","provinceCode":null,"stopTime":"2020-04-13 15:00:00","powerType":"全部","powerOffArea":"【分支停电】停中古村公用照明4台区,中古村公用照明5台区,中古屯公用照明9台区","powerOffReason":"【停电原因】由于新架导线导致３５ＫＶ大辛庄变电站１０ＫＶ５１４中古屯线路主干６９号杆０３号断路器以下线路停电 【变更送电】无 【发布渠道】河北省定州市定州日报第三版（２０２０年０４月０３日）","powerOffId":"2020040213000469"},{"poweroffId":2020040213000462,"sgpoweroffId":null,"subsName":"","lineName":"10kV511丁村线","pubTranName":"东丁村公用照明10台区,寺底公用农业9台区【纯农排变】,东丁村公用照明8台区,西丁村公用照明9台区,寺底公用照明4台区,西丁村公用照明10台区,西丁村公用农业12台区【纯农排变】,东丁村公用农业5台区【纯农排变】,寺底公用农业4台区【纯农排变】,东丁村新民居公用照明1台区,定州市子位镇邮电分局,定州市永兴线材有限公司,丁村供电所,东丁村公用农业16台区【纯农排变】,西丁村公用农业10台区【纯农排变】,西丁村公用农业2台区【纯农排变】,寺底公用照明3台区,东丁村公用照明4台区,东丁村公用农业15台区【纯农排变】,客户投资_西丁村公用照明1台区,西丁村公用农业5台区【纯农排变】,西丁村公用农业14台区【纯农排变】,东丁村公用照明11台区,东丁村公用照明1台区,西丁村公用农业3台区【纯农排变】,东丁村公用农业11台区【纯农排变】,东丁村公用照明2台区,变压器,寺底公用照明5台区,寺底公用农业6台区【纯农排变】,西丁村公用农业15台区【纯农排变】,东丁村公用照明9台区,东丁村公用照明3台区,东丁村公用农业8台区【纯农排变】,西丁村公用照明5台区,西丁村公用农业11台区【纯农排变】,寺底公用照明1台区,西丁村公用照明8台区,寺底公用照明2台区,西丁村公用照明7台区,西丁村公用农业8台区【纯农排变】,东丁村公用照明6台区,寺底公用农业5台区【纯农排变】,西丁面粉厂,东丁东南角,定州市子位镇卫生院,寺底公用农业8台区【纯农排变】,西丁村公用农业7台区【纯农排变】,西丁村公用农业4台区【纯农排变】,定州市子位镇人民政府变压器,西丁村公用照明3台区,西丁村公用照明15台区,东丁村公用农业6台区【纯农排变】,寺底公用农业7台区【纯农排变】,东丁村公用农业14台区【纯农排变】,西丁村公用照明13台区,寺底公用照明10台区,西丁村公用农业16台区【纯农排变】,寺底公用照明8台区,寺底村杜计贞,东丁村新民居公用照明2台区,定州市丁村初级中学,东丁村公用照明12台区,东丁村公用照明7台区,西丁村公用照明6台区,东丁村公用照明5台区,西丁村公用农业6台区【纯农排变】,东丁村公用农业12台区【纯农排变】,定州市子位镇镇政府,东丁村公用农业10台区【纯农排变】,西丁村公用照明2台区,定州市寺底面粉厂,西丁村公用农业1台区【纯农排变】,客户投资_西丁村公用照明4台区,定州市丁村初级中学变压器,西丁村公用照明11台区,东丁村公用农业17台区【纯农排变】,寺底公用照明9台区,东丁村公用农业13台区【纯农排变】,","scope":"【影响街道/乡镇】子位镇【高危重要客户】无【影响客户】寺底村、西丁村、东丁村","startTime":"2020-04-14 07:00:00","stopDate":"2020-04-14 16:30:00","orgNo":"1340610","typeCode":"计划停电","poweroffArea":"【全线路停电】停东丁村公用农业16台区【纯农排变】,西丁村公用农业10台区【纯农排变】,丁村供电所, 客户投资_西丁村公用照明1台区,西丁村公用农业5台区【纯农排变】,西丁村公用农业14台区【纯农排变】,东丁村公用照明11台区,东丁村公用照明1台区,西丁村公用农业3台区【纯农排变】,东丁村公用农业11台区【纯农排变】,东丁村公用照明2台区,寺底公用照明5台区,寺底公用农业6台区【纯农排变】,寺底公用照明4台区,西丁村公用照明10台区,西丁村公用农业12台区【纯农排变】,东丁村公用农业5台区【纯农排变】,寺底公用农业4台区【纯农排变】,变压器,东丁村新民居公用照明1台区,寺底公用照明2台区,西丁村公用照明7台区,西丁村公用农业8台区【纯农排变】,东丁村公用照明6台区,寺底公用农业5台区【纯农排变】,西丁面粉厂,东丁东南角,定州市子位镇邮电分局,定州市永兴线材有限公司,定州市子位镇卫生院,定州市寺底面粉厂,西丁村公用照明8台区,西丁村公用农业2台区【纯农排变】,寺底公用照明3台区,东丁村公用照明4台区,东丁村公用农业15台区【纯农排变】,西丁村公用照明15台区,东丁村公用农业6台区【纯农排变】,寺底公用农业7台区【纯农排变】,寺底公用照明10台区,西丁村公用农业16台区【纯农排变】,寺底公用照明8台区,寺底公用农业8台区【纯农排变】,西丁村公用农业7台区【纯农排变】,西丁村公用农业4台区【纯农排变】,定州市子位镇人民政府变压器,西丁村公用照明3台区,西丁村公用农业15台区【纯农排变】,东丁村公用照明9台区,东丁村公用照明3台区,东丁村公用农业8台区【纯农排变】,西丁村公用照明5台区,西丁村公用农业11台区【纯农排变】,寺底公用照明1台区,东丁村公用照明10台区,寺底公用农业9台区【纯农排变】,东丁村公用照明8台区,西丁村公用照明9台区,东丁村新民居公用照明2台区,定州市丁村初级中学,东丁村公用农业14台区【纯农排变】,西丁村公用照明13台区,寺底村杜计贞,西丁村公用农业1台区【纯农排变】,客户投资_西丁村公用照明4台区,定州市丁村初级中学变压器,西丁村公用照明11台区,东丁村公用农业17台区【纯农排变】,寺底公用照明9台区,西丁村公用照明2台区,东丁村公用农业13台区【纯农排变】,东丁村公用照明12台区,东丁村公用照明7台区,西丁村公用照明6台区,东丁村公用照明5台区,西丁村公用农业6台区【纯农排变】,东丁村公用农业12台区【纯农排变】,定州市子位镇镇政府,东丁村公用农业10台区【纯农排变】","poweroffReason":"【停电原因】由于移位断路器导致３５ＫＶ丁村变电站１０ＫＶ５１１丁村线路全线停电 【变更送电】无 【发布渠道】河北省定州市定州日报第三版（２０２０年０４月０３日）　","powerTime":"2020-04-14 16:25:32","powerComm":"已送电","subsNo":"","lineNo":"","tgNo":"","tgName":null,"infoStatus":"1","orgName":"国网定州市供电公司","typeName":null,"infoStatusName":null,"dateDay":null,"orgNos":null,"nowTime":null,"countyName":null,"streetName":null,"villageName":null,"roadName":null,"communityName":null,"tranName":null,"sdLineName":null,"cityCode":"1340610","cityName":"国网定州市供电公司","provinceCode":null,"stopTime":"2020-04-14 16:30:00","powerType":"全部","powerOffArea":"【全线路停电】停东丁村公用农业16台区【纯农排变】,西丁村公用农业10台区【纯农排变】,丁村供电所, 客户投资_西丁村公用照明1台区,西丁村公用农业5台区【纯农排变】,西丁村公用农业14台区【纯农排变】,东丁村公用照明11台区,东丁村公用照明1台区,西丁村公用农业3台区【纯农排变】,东丁村公用农业11台区【纯农排变】,东丁村公用照明2台区,寺底公用照明5台区,寺底公用农业6台区【纯农排变】,寺底公用照明4台区,西丁村公用照明10台区,西丁村公用农业12台区【纯农排变】,东丁村公用农业5台区【纯农排变】,寺底公用农业4台区【纯农排变】,变压器,东丁村新民居公用照明1台区,寺底公用照明2台区,西丁村公用照明7台区,西丁村公用农业8台区【纯农排变】,东丁村公用照明6台区,寺底公用农业5台区【纯农排变】,西丁面粉厂,东丁东南角,定州市子位镇邮电分局,定州市永兴线材有限公司,定州市子位镇卫生院,定州市寺底面粉厂,西丁村公用照明8台区,西丁村公用农业2台区【纯农排变】,寺底公用照明3台区,东丁村公用照明4台区,东丁村公用农业15台区【纯农排变】,西丁村公用照明15台区,东丁村公用农业6台区【纯农排变】,寺底公用农业7台区【纯农排变】,寺底公用照明10台区,西丁村公用农业16台区【纯农排变】,寺底公用照明8台区,寺底公用农业8台区【纯农排变】,西丁村公用农业7台区【纯农排变】,西丁村公用农业4台区【纯农排变】,定州市子位镇人民政府变压器,西丁村公用照明3台区,西丁村公用农业15台区【纯农排变】,东丁村公用照明9台区,东丁村公用照明3台区,东丁村公用农业8台区【纯农排变】,西丁村公用照明5台区,西丁村公用农业11台区【纯农排变】,寺底公用照明1台区,东丁村公用照明10台区,寺底公用农业9台区【纯农排变】,东丁村公用照明8台区,西丁村公用照明9台区,东丁村新民居公用照明2台区,定州市丁村初级中学,东丁村公用农业14台区【纯农排变】,西丁村公用照明13台区,寺底村杜计贞,西丁村公用农业1台区【纯农排变】,客户投资_西丁村公用照明4台区,定州市丁村初级中学变压器,西丁村公用照明11台区,东丁村公用农业17台区【纯农排变】,寺底公用照明9台区,西丁村公用照明2台区,东丁村公用农业13台区【纯农排变】,东丁村公用照明12台区,东丁村公用照明7台区,西丁村公用照明6台区,东丁村公用照明5台区,西丁村公用农业6台区【纯农排变】,东丁村公用农业12台区【纯农排变】,定州市子位镇镇政府,东丁村公用农业10台区【纯农排变】","powerOffReason":"【停电原因】由于移位断路器导致３５ＫＶ丁村变电站１０ＫＶ５１１丁村线路全线停电 【变更送电】无 【发布渠道】河北省定州市定州日报第三版（２０２０年０４月０３日）　","powerOffId":"2020040213000462"},{"poweroffId":2020040213000461,"sgpoweroffId":null,"subsName":"","lineName":"10kV519工业线","pubTranName":"留宿公用农业11台区【纯农排变】,定州金龙金属制品有限公司,定州留宿弹簧厂,定州市兴华电焊网厂,宝玉刀具厂,定州市华兴丝网厂变压器,定州市华兴丝网厂1,定州市鼎祎金属制品厂变压器,定州市华兴丝网厂,0547771890-定州市华兴丝网厂-专变-48077222-定州市华兴丝网厂变压器,定州市富莱瑞斯涂料有限公司变压器,定州市福海金属制品有限公司变压器,变压器,定州市李亲顾人民政府,0387399546-定州市丰源金属制品有限公司-专变-219507165-定州市丰源金属制品有限公司变压器,0387399546-定州市丰源金属制品有限公司-专变-219510700-定州市丰源金属制品有限公司变压器,定州市旭丰网业有限公司2,定州市旭丰网业有限公司变压器,定州市亿通金属制品有限公司变压器,定州旭丰网业有限公司,定州市星泰金属制品有限公司,定州市中通金属制品有限公司变压器,","scope":"【影响街道/乡镇】李亲顾镇【高危重要客户】无【影响客户】留宿","startTime":"2020-04-12 06:30:00","stopDate":"2020-04-12 18:00:00","orgNo":"1340610","typeCode":"计划停电","poweroffArea":"【全线路停电】停留宿公用农业11台区【纯农排变】,定州金龙金属制品有限公司,定州留宿弹簧厂,定州市兴华电焊网厂,宝玉刀具厂,定州市华兴丝网厂变压器,定州市华兴丝网厂1,定州市鼎祎金属制品厂变压器,定州市华兴丝网厂,0547771890-定州市华兴丝网厂-专变-48077222-定州市华兴丝网厂变压器,定州市富莱瑞斯涂料有限公司变压器,定州市福海金属制品有限公司变压器,变压器,定州市李亲顾人民政府,0387399546-定州市丰源金属制品有限公司-专变-219507165-定州市丰源金属制品有限公司变压器,0387399546-定州市丰源金属制品有限公司-专变-219510700-定州市丰源金属制品有限公司变压器,定州市旭丰网业有限公司2,定州市旭丰网业有限公司变压器,定州市亿通金属制品有限公司变压器,定州旭丰网业有限公司,定州市星泰金属制品有限公司,定州市中通金属制品有限公司变压器","poweroffReason":"【停电原因】由于更换导线导致１１０ＫＶ李亲顾变电站１０ＫＶ５１９工业线路全线停电 【变更送电】无 【发布渠道】河北省定州市定州日报第三版（２０２０年０４月０３日）","powerTime":"2020-04-12 17:56:05","powerComm":"已送电","subsNo":"","lineNo":"","tgNo":"","tgName":null,"infoStatus":"1","orgName":"国网定州市供电公司","typeName":null,"infoStatusName":null,"dateDay":null,"orgNos":null,"nowTime":null,"countyName":null,"streetName":null,"villageName":null,"roadName":null,"communityName":null,"tranName":null,"sdLineName":null,"cityCode":"1340610","cityName":"国网定州市供电公司","provinceCode":null,"stopTime":"2020-04-12 18:00:00","powerType":"全部","powerOffArea":"【全线路停电】停留宿公用农业11台区【纯农排变】,定州金龙金属制品有限公司,定州留宿弹簧厂,定州市兴华电焊网厂,宝玉刀具厂,定州市华兴丝网厂变压器,定州市华兴丝网厂1,定州市鼎祎金属制品厂变压器,定州市华兴丝网厂,0547771890-定州市华兴丝网厂-专变-48077222-定州市华兴丝网厂变压器,定州市富莱瑞斯涂料有限公司变压器,定州市福海金属制品有限公司变压器,变压器,定州市李亲顾人民政府,0387399546-定州市丰源金属制品有限公司-专变-219507165-定州市丰源金属制品有限公司变压器,0387399546-定州市丰源金属制品有限公司-专变-219510700-定州市丰源金属制品有限公司变压器,定州市旭丰网业有限公司2,定州市旭丰网业有限公司变压器,定州市亿通金属制品有限公司变压器,定州旭丰网业有限公司,定州市星泰金属制品有限公司,定州市中通金属制品有限公司变压器","powerOffReason":"【停电原因】由于更换导线导致１１０ＫＶ李亲顾变电站１０ＫＶ５１９工业线路全线停电 【变更送电】无 【发布渠道】河北省定州市定州日报第三版（２０２０年０４月０３日）","powerOffId":"2020040213000461"},{"poweroffId":2020040213000453,"sgpoweroffId":null,"subsName":"","lineName":"10kV515留宿东线","pubTranName":"留宿公用照明15台区,留宿村公用照明4台区,定州市鑫东城金属制品有限公司变压器,良培京,成军良,定州市旭丰网业有限公司变压器,留宿公用农业6台区【纯农排变】,留宿北河二,定州市瑞昌金属制品厂变压器,0619627139-定州市汇通金属制品有限公司-专变-169310765-定州市宝弘金属制品有限公司变压器,定州市鑫丰金属制品有限公司变压器,定州市联鑫金属制品有限公司变压器,定州市伟利金属制品有限公司变压器,定州市星亚金属制品有限公司,0619627139-定州市汇通金属制品有限公司-专变-128987131-定州市宝弘金属制品有限公司变压器,定州市弘利金属制品厂变压器,留宿公用照明16台区,留宿公用照明12台区,成海军,定州市怡康金属制品有限公司变压器,定州市恒瑞网栏有限公司变压器,留宿公用照明10台区,留宿村公用照明6台区,定州市汇通金属制品有限公司变压器,定州市星亚金属制品有限公司1,留宿村公用照明7台区,定州市飞红金属网有限公司,留宿村公用照明8台区,留宿村公用照明3台区,定州市东方五金制品有限公司变压器1,留宿公用照明17台区,0649702222-定州市万盛金属制品有限公司-专变-174457268-定州市电力金属丝网有限公司变压器,留宿公用照明14台区,留宿公用照明13台区,定州市鑫炎铸造厂变压器,定州市东方五金制品有限公司变压器,定州市飞红金属网有限公司变压器,留宿公用照明11台区,客户投资_留宿村公用照明5台区,","scope":"【影响街道/乡镇】李亲顾镇【高危重要客户】无【影响客户】留宿","startTime":"2020-04-12 06:30:00","stopDate":"2020-04-12 18:00:00","orgNo":"1340610","typeCode":"计划停电","poweroffArea":"【全线路停电】停定州市怡康金属制品有限公司变压器,留宿公用照明15台区,留宿村公用照明4台区,定州市鑫东城金属制品有限公司变压器,良培京,成军良,定州市旭丰网业有限公司变压器,留宿公用农业6台区【纯农排变】,留宿北河二,定州市瑞昌金属制品厂变压器,0619627139-定州市汇通金属制品有限公司-专变-169310765-定州市宝弘金属制品有限公司变压器,定州市鑫丰金属制品有限公司变压器,定州市联鑫金属制品有限公司变压器,定州市伟利金属制品有限公司变压器,定州市星亚金属制品有限公司,0619627139-定州市汇通金属制品有限公司-专变-128987131-定州市宝弘金属制品有限公司变压器,定州市弘利金属制品厂变压器,留宿公用照明16台区,留宿公用照明12台区,成海军,留宿公用照明13台区,定州市恒瑞网栏有限公司变压器,留宿公用照明10台区,留宿村公用照明6台区,定州市汇通金属制品有限公司变压器,定州市星亚金属制品有限公司1,留宿村公用照明7台区,定州市飞红金属网有限公司,留宿村公用照明8台区,留宿村公用照明3台区,定州市东方五金制品有限公司变压器1,留宿公用照明17台区,0649702222-定州市万盛金属制品有限公司-专变-174457268-定州市电力金属丝网有限公司变压器,留宿公用照明14台区,客户投资_留宿村公用照明5台区,定州市鑫炎铸造厂变压器,定州市东方五金制品有限公司变压器,定州市飞红金属网有限公司变压器,留宿公用照明11台区","poweroffReason":"【停电原因】由于更换导线导致１１０ＫＶ李亲顾变电站１０ＫＶ５１５留宿东线路全线停电 【变更送电】无 【发布渠道】河北省定州市定州日报第三版（２０２０年０４月０３日）","powerTime":"2020-04-12 17:55:46","powerComm":"已送电","subsNo":"","lineNo":"","tgNo":"","tgName":null,"infoStatus":"1","orgName":"国网定州市供电公司","typeName":null,"infoStatusName":null,"dateDay":null,"orgNos":null,"nowTime":null,"countyName":null,"streetName":null,"villageName":null,"roadName":null,"communityName":null,"tranName":null,"sdLineName":null,"cityCode":"1340610","cityName":"国网定州市供电公司","provinceCode":null,"stopTime":"2020-04-12 18:00:00","powerType":"全部","powerOffArea":"【全线路停电】停定州市怡康金属制品有限公司变压器,留宿公用照明15台区,留宿村公用照明4台区,定州市鑫东城金属制品有限公司变压器,良培京,成军良,定州市旭丰网业有限公司变压器,留宿公用农业6台区【纯农排变】,留宿北河二,定州市瑞昌金属制品厂变压器,0619627139-定州市汇通金属制品有限公司-专变-169310765-定州市宝弘金属制品有限公司变压器,定州市鑫丰金属制品有限公司变压器,定州市联鑫金属制品有限公司变压器,定州市伟利金属制品有限公司变压器,定州市星亚金属制品有限公司,0619627139-定州市汇通金属制品有限公司-专变-128987131-定州市宝弘金属制品有限公司变压器,定州市弘利金属制品厂变压器,留宿公用照明16台区,留宿公用照明12台区,成海军,留宿公用照明13台区,定州市恒瑞网栏有限公司变压器,留宿公用照明10台区,留宿村公用照明6台区,定州市汇通金属制品有限公司变压器,定州市星亚金属制品有限公司1,留宿村公用照明7台区,定州市飞红金属网有限公司,留宿村公用照明8台区,留宿村公用照明3台区,定州市东方五金制品有限公司变压器1,留宿公用照明17台区,0649702222-定州市万盛金属制品有限公司-专变-174457268-定州市电力金属丝网有限公司变压器,留宿公用照明14台区,客户投资_留宿村公用照明5台区,定州市鑫炎铸造厂变压器,定州市东方五金制品有限公司变压器,定州市飞红金属网有限公司变压器,留宿公用照明11台区","powerOffReason":"【停电原因】由于更换导线导致１１０ＫＶ李亲顾变电站１０ＫＶ５１５留宿东线路全线停电 【变更送电】无 【发布渠道】河北省定州市定州日报第三版（２０２０年０４月０３日）","powerOffId":"2020040213000453"},{"poweroffId":2020040213000451,"sgpoweroffId":null,"subsName":"","lineName":"10kV520李辛庄线","pubTranName":"李辛庄公用照明17台区,李辛庄公用照明14台区,李辛庄公用照明15台区,李辛庄公用照明8台区,李辛庄公用照明10台区,李辛庄公用照明16台区,李辛庄公用照明6台区,李辛庄公用照明11台区,李辛庄公用照明4台区,李辛庄公用照明7台区,李辛庄公用照明5台区,李辛庄公用照明9台区,","scope":"【影响街道/乡镇】高蓬镇【高危重要客户】无【影响客户】李辛庄","startTime":"2020-04-16 06:30:00","stopDate":"2020-04-16 18:00:00","orgNo":"1340610","typeCode":"计划停电","poweroffArea":"【全线路停电】停李辛庄公用照明17台区,李辛庄公用照明9台区,李辛庄公用照明14台区,李辛庄公用照明15台区,李辛庄公用照明8台区,李辛庄公用照明10台区,李辛庄公用照明16台区,李辛庄公用照明6台区,李辛庄公用照明11台区,李辛庄公用照明4台区,李辛庄公用照明7台区,李辛庄公用照明5台区","poweroffReason":"【停电原因】由于更换低压导线、定州鸿跃五金制品有限公司高压引线接引导致１１０ＫＶ李亲顾变电站１０ＫＶ５２０李辛庄线路全线停电 【变更送电】无 【发布渠道】河北省定州市定州日报第三版（２０２０年０４月０３日）","powerTime":"2020-04-16 17:51:13","powerComm":"已送电","subsNo":"","lineNo":"","tgNo":"","tgName":null,"infoStatus":"1","orgName":"国网定州市供电公司","typeName":null,"infoStatusName":null,"dateDay":null,"orgNos":null,"nowTime":null,"countyName":null,"streetName":null,"villageName":null,"roadName":null,"communityName":null,"tranName":null,"sdLineName":null,"cityCode":"1340610","cityName":"国网定州市供电公司","provinceCode":null,"stopTime":"2020-04-16 18:00:00","powerType":"全部","powerOffArea":"【全线路停电】停李辛庄公用照明17台区,李辛庄公用照明9台区,李辛庄公用照明14台区,李辛庄公用照明15台区,李辛庄公用照明8台区,李辛庄公用照明10台区,李辛庄公用照明16台区,李辛庄公用照明6台区,李辛庄公用照明11台区,李辛庄公用照明4台区,李辛庄公用照明7台区,李辛庄公用照明5台区","powerOffReason":"【停电原因】由于更换低压导线、定州鸿跃五金制品有限公司高压引线接引导致１１０ＫＶ李亲顾变电站１０ＫＶ５２０李辛庄线路全线停电 【变更送电】无 【发布渠道】河北省定州市定州日报第三版（２０２０年０４月０３日）","powerOffId":"2020040213000451"}],"pageModel":{"pageNow":204,"totalCount":10973,"totalPage":1098,"tableRows":0,"pageCount":10,"beginCount":2030},"isExperi":"1"}