{"message":"","today":"2020-06-15","seleList":[{"poweroffId":2020040213000281,"sgpoweroffId":null,"subsName":"","lineName":"10kV511大西章线","pubTranName":"10KV511大西章线敬老院分支0001号杆变压器,10KV511大西章线东伯章5038分支13号杆东伯章村5038变压器,10KV511大西章线09151台区变压器,10KV511大西章线55060分支12号杆许村村内55060变压器,10KV511大西章线大西章09104分支10号杆大西章09104台区变压器,10Kv511大西章76537台区变压器,10KV511大西章线东伯章09003分支06号杆东伯章东北09014台区变压器,10KV511大西章线82912分支1号杆许村村西北82912台区变压器,10KV511大西章线大西章09133IC卡台区变压器【纯农排变】,10KV511大西章线东伯章09132IC卡台区变压器【纯农排变】,10KV511大西章线分支42号杆许村09107IC卡台区变压器【纯农排变】,10KV511大西章线大西章09114分支3号杆大西章09114IC卡台区变压器【纯农排变】,10KV大西章511线09154台区变压器,10KV511大西章线东伯章09007分支04号杆变压器【纯农排变】,10KV511大西章线东伯章09018分支3号杆东伯章村东北09018台区变压器,10KV511大西章线东伯章09139IC卡台区变压器【纯农排变】,10KV511大西章线小西章09086分支26号杆小西章村内09086台区变压器,10KV511大西章线许村09138台区变压器,10KV511大西章线大西章09131IC卡台区变压器【纯农排变】,10KV511大西章线大西章09130IC卡台区变压器【纯农排变】,10KV511大西章线38335分支5号杆大西章东南38335台区变压器,10KV大西章511线小西章村西09164台区柱上变压器,10KV大西章511线09153台区变压器,10KV511大西章线许村09081分支14号杆保衡路西09091台区变压器,10KV511大西章线许村09137台区变压器,10KV511大西章线大西章5039分支6号杆大西章村内5039台区变压器,10KV511大西章线东伯章09003分支18号杆东伯章村北09015台区变压器,10KV511大西章线东伯章09016分支3号杆东伯章村南09016台区变压器,10KV511大西章线东伯章09080分支2号杆保衡路东09080台区变压器,10KV大西章511线东佰章村东09165台区柱上变压器,10Kv511大西章许村路口09019台区变压器,10KV大西章511线大西章村北09166台区柱上变压器,10KV511大西章线8988分支03号杆大西章村西09041IC卡台区变压器【纯农排变】,10KV511大西章线大西章09103分支3号杆大西章09103台区变压器,10KV511大西章线许村09128分支8号杆许村村内09128台区变压器,10KV511大西章线8988分支3号杆大西章村西北8988台区变压器,10KV511大西章线许村09110分支13号杆许村09087台区变压器,10KV511大西章线大西章8049分支5号杆大西章村北学校后8049台区变压器,10KV511大西章线大西章09152台区变压器,10KV","scope":"【影响街道/乡镇】城东乡【高危重要客户】无【影响客户】大西章、东佰章、许村、小西章","startTime":"2020-04-12 06:00:00","stopDate":"2020-04-12 19:30:00","orgNo":"1340608","typeCode":"计划停电","poweroffArea":"【全线路停电】停10KV511大西章线东伯章09011分支1号杆东伯章09011IC卡台区变压器【纯农排变】,10KV511大西章线许村09134台区变压器,10KV511大西章线大西章09103分支3号杆大西章09103台区变压器,10KV511大西章线东伯章09080分支2号杆保衡路东09080台区变压器,城东养老院,10KV511大西章线许村09089分支12号杆许村村东09089台区变压器,10KV511大西章线小西章09086分支6号杆大西章村北09035台区变压器,10KV大西章511线09153台区变压器,10KV511大西章线大西章09118分支7号杆大西章09118IC卡变压器【纯农排变】,10KV511大西章线东伯章09017分支35号杆东伯章南09017IC卡台区变压器【纯农排变】,10KV511大西章线大西章09113分支5号杆大西章09113IC卡台区变压器【纯农排变】,10KV511大西章线敬老院分支1号杆城东村09098IC卡台区变压器【纯农排变】,10KV511大西章线许村09089分支6号杆许村村东09022台区变压器,树彬养殖厂,10KV511大西章线许村09136台区变压器,10KV511大西章线敬老院分支0001号杆变压器,10KV511大西章线东伯章09018分支3号杆东伯章村东北09018台区变压器,许村佳苑,10KV511大西章线82912分支1号杆许村村西北82912台区变压器,10KV511大西章线大西章09121分支12号杆大西章09119IC卡变压器【纯农排变】,10KV511大西章线许村09110分支13号杆许村09087台区变压器,10KV大西章511线小西章村西09164台区柱上变压器,10KV511大西章线09151台区变压器,10KV511大西章线东伯章09139IC卡台区变压器【纯农排变】,10KV511大西章线大西章南东09120分支6号杆大西章09120IC卡台区变压器【纯农排变】,10KV511大西章线大西章09152台区变压器,10KV511大西章线许村09128分支8号杆许村村内09128台区变压器,10KV511大西章线东伯章09008分支1号杆东伯章09008IC卡台区变压器【纯农排变】,10KV511大西章线09150台区变压器,兴达养殖厂,10KV511大西章线8988分支03号杆大西章村西09041IC卡台区变压器【纯农排变】,10KV511大西章线东伯章5038分支13号杆东伯章村5038变压器,10KV511大西章线大西章5039分支6号杆大西章村内5039台区变压器,10KV511大西章线55060分支12号杆许村村内55060变压器,10KV511大西章线东伯章09002分支6号杆东伯章09002IC卡台区变压器【纯农排变】,10KV511大西章线东伯章09090分支1号杆东伯章村南09090IC卡变压器【纯农排变】,10KV511大西章线许村09081分支9号杆城东村09097IC卡台区变压器【纯农排变】,10KV511大西章线东伯章09003分支06号杆东伯章东北09014台区变压器,10KV511大西章线大西章南东09119分支5号杆大西章09122IC卡台区变压器【纯农排变】,10KV511大西章线大西章09104分支10号杆大西章09104台区变压器,10KV511大西章线大西章09104分支5号杆大西章村内09037台区变压器,10KV511大西章线大西章09040分支05号杆大西章西南09040IC卡台区变压器【纯农排变】,10KV511大西章线许村09106分支2号杆许村09106IC卡台区变压器【纯农排变】,10KV511大西章线东伯章09009分支6号杆东伯章09009IC卡变压器【纯农排变】,10KV511大西章线许村09138台区变压器,10Kv511大西章许村路口09019台区变压器,10KV511大西章线东伯章09003分支018号杆东伯章村北09126IC卡台区变压器【纯农排变】,10KV511大西章线许村09001分支3号杆许村村西南09001IC卡变压器【纯农排变】,中国网络,10KV511大西章线54485分支4号杆大西章东北54485台区变压器,10KV511大西章线东伯章09007分支04号杆变压器【纯农排变】,10KV511大西章线电焊厂09059分支5号杆许村村村内09024台区变压器,10KV大西章511线09154台区变压器,10KV511大西章线55060分支3号杆许村09085台区变压器,10KV511大西章线东伯章09003分支18号杆东伯章村北09015台区变压器,10KV511大","poweroffReason":"【停电原因】由于线路计划检修导致３５ＫＶ城东变电站大西章５１１线路全线停电【变更送电】因施工困难原因，送电时间由１７：３０变更为１９：３０【发布渠道】保定市博野电视台（０４月０２日１９时３０分至２０时３０分之间）屏幕上方滚动","powerTime":"2020-04-12 19:26:46","powerComm":"已送电","subsNo":"","lineNo":"","tgNo":"","tgName":null,"infoStatus":"1","orgName":"国网博野县供电公司","typeName":null,"infoStatusName":null,"dateDay":null,"orgNos":null,"nowTime":null,"countyName":null,"streetName":null,"villageName":null,"roadName":null,"communityName":null,"tranName":null,"sdLineName":null,"cityCode":"1340608","cityName":"国网博野县供电公司","provinceCode":null,"stopTime":"2020-04-12 19:30:00","powerType":"全部","powerOffArea":"【全线路停电】停10KV511大西章线东伯章09011分支1号杆东伯章09011IC卡台区变压器【纯农排变】,10KV511大西章线许村09134台区变压器,10KV511大西章线大西章09103分支3号杆大西章09103台区变压器,10KV511大西章线东伯章09080分支2号杆保衡路东09080台区变压器,城东养老院,10KV511大西章线许村09089分支12号杆许村村东09089台区变压器,10KV511大西章线小西章09086分支6号杆大西章村北09035台区变压器,10KV大西章511线09153台区变压器,10KV511大西章线大西章09118分支7号杆大西章09118IC卡变压器【纯农排变】,10KV511大西章线东伯章09017分支35号杆东伯章南09017IC卡台区变压器【纯农排变】,10KV511大西章线大西章09113分支5号杆大西章09113IC卡台区变压器【纯农排变】,10KV511大西章线敬老院分支1号杆城东村09098IC卡台区变压器【纯农排变】,10KV511大西章线许村09089分支6号杆许村村东09022台区变压器,树彬养殖厂,10KV511大西章线许村09136台区变压器,10KV511大西章线敬老院分支0001号杆变压器,10KV511大西章线东伯章09018分支3号杆东伯章村东北09018台区变压器,许村佳苑,10KV511大西章线82912分支1号杆许村村西北82912台区变压器,10KV511大西章线大西章09121分支12号杆大西章09119IC卡变压器【纯农排变】,10KV511大西章线许村09110分支13号杆许村09087台区变压器,10KV大西章511线小西章村西09164台区柱上变压器,10KV511大西章线09151台区变压器,10KV511大西章线东伯章09139IC卡台区变压器【纯农排变】,10KV511大西章线大西章南东09120分支6号杆大西章09120IC卡台区变压器【纯农排变】,10KV511大西章线大西章09152台区变压器,10KV511大西章线许村09128分支8号杆许村村内09128台区变压器,10KV511大西章线东伯章09008分支1号杆东伯章09008IC卡台区变压器【纯农排变】,10KV511大西章线09150台区变压器,兴达养殖厂,10KV511大西章线8988分支03号杆大西章村西09041IC卡台区变压器【纯农排变】,10KV511大西章线东伯章5038分支13号杆东伯章村5038变压器,10KV511大西章线大西章5039分支6号杆大西章村内5039台区变压器,10KV511大西章线55060分支12号杆许村村内55060变压器,10KV511大西章线东伯章09002分支6号杆东伯章09002IC卡台区变压器【纯农排变】,10KV511大西章线东伯章09090分支1号杆东伯章村南09090IC卡变压器【纯农排变】,10KV511大西章线许村09081分支9号杆城东村09097IC卡台区变压器【纯农排变】,10KV511大西章线东伯章09003分支06号杆东伯章东北09014台区变压器,10KV511大西章线大西章南东09119分支5号杆大西章09122IC卡台区变压器【纯农排变】,10KV511大西章线大西章09104分支10号杆大西章09104台区变压器,10KV511大西章线大西章09104分支5号杆大西章村内09037台区变压器,10KV511大西章线大西章09040分支05号杆大西章西南09040IC卡台区变压器【纯农排变】,10KV511大西章线许村09106分支2号杆许村09106IC卡台区变压器【纯农排变】,10KV511大西章线东伯章09009分支6号杆东伯章09009IC卡变压器【纯农排变】,10KV511大西章线许村09138台区变压器,10Kv511大西章许村路口09019台区变压器,10KV511大西章线东伯章09003分支018号杆东伯章村北09126IC卡台区变压器【纯农排变】,10KV511大西章线许村09001分支3号杆许村村西南09001IC卡变压器【纯农排变】,中国网络,10KV511大西章线54485分支4号杆大西章东北54485台区变压器,10KV511大西章线东伯章09007分支04号杆变压器【纯农排变】,10KV511大西章线电焊厂09059分支5号杆许村村村内09024台区变压器,10KV大西章511线09154台区变压器,10KV511大西章线55060分支3号杆许村09085台区变压器,10KV511大西章线东伯章09003分支18号杆东伯章村北09015台区变压器,10KV511大","powerOffReason":"【停电原因】由于线路计划检修导致３５ＫＶ城东变电站大西章５１１线路全线停电【变更送电】因施工困难原因，送电时间由１７：３０变更为１９：３０【发布渠道】保定市博野电视台（０４月０２日１９时３０分至２０时３０分之间）屏幕上方滚动","powerOffId":"2020040213000281"},{"poweroffId":2020040213000226,"sgpoweroffId":null,"subsName":"","lineName":"贤台线519","pubTranName":"北庄10号变压器,北马变压器,北马2号配变,","scope":"【影响街道/乡镇】城关镇 【高危重要客户】无 【影响客户】北马（门脸）、桃园新区、惠欣园、汉都城、桃园街附近","startTime":"2020-04-11 06:00:00","stopDate":"2020-04-11 18:00:00","orgNo":"1340617","typeCode":"计划停电","poweroffArea":"【分支停电】停北马变压器,北马野外变压器,北庄10号变压器,北马2号配变","poweroffReason":"【停电原因】由于线路检修导致１１０ＫＶ水源变电站贤台线５１９线路２６号杆开关以下分支停电 【变更送电】无 【发布渠道】满城县有线电视台（０４月０２日１９：００－２０：００至０４月１０日１９：００－２０：００）屏幕上方滚动","powerTime":"2020-04-11 17:44:20","powerComm":"已送电","subsNo":"","lineNo":"","tgNo":"","tgName":null,"infoStatus":"1","orgName":"国网满城县供电公司","typeName":null,"infoStatusName":null,"dateDay":null,"orgNos":null,"nowTime":null,"countyName":null,"streetName":null,"villageName":null,"roadName":null,"communityName":null,"tranName":null,"sdLineName":null,"cityCode":"1340617","cityName":"国网满城县供电公司","provinceCode":null,"stopTime":"2020-04-11 18:00:00","powerType":"全部","powerOffArea":"【分支停电】停北马变压器,北马野外变压器,北庄10号变压器,北马2号配变","powerOffReason":"【停电原因】由于线路检修导致１１０ＫＶ水源变电站贤台线５１９线路２６号杆开关以下分支停电 【变更送电】无 【发布渠道】满城县有线电视台（０４月０２日１９：００－２０：００至０４月１０日１９：００－２０：００）屏幕上方滚动","powerOffId":"2020040213000226"},{"poweroffId":2020040213000210,"sgpoweroffId":null,"subsName":"","lineName":"10kV532建行线","pubTranName":"兴华北公变,兴华南变压器,兴华南2号变压器,时氏公变,","scope":"【影响街道/乡镇】向阳路、兴华南路 【高危重要客户】无 【影响客户】中医院家属楼、兴华南两侧（平房、门脸）、房产局家属楼、时氏正骨平房","startTime":"2020-04-11 06:00:00","stopDate":"2020-04-11 18:00:00","orgNo":"1340612","typeCode":"计划停电","poweroffArea":"【分支停电】停兴华北公变,中医医院,兴华南变压器,兴华南2号变压器,时氏公变","poweroffReason":"【停电原因】由于清理树障导致１１０ＫＶ马庄变电站１０ＫＶ建行５３２线路０４号断路器以下停电 【变更送电】因工作量大原因，送电时间由１７：００变更为１８：００ 【发布渠道】高碑店市高碑店电视台（０４月０３日０８时至０４月１０日１８时之间）屏幕上方滚动","powerTime":"2020-04-11 17:46:50","powerComm":"已送电","subsNo":"","lineNo":"","tgNo":"","tgName":null,"infoStatus":"1","orgName":"国网高碑店市供电公司","typeName":null,"infoStatusName":null,"dateDay":null,"orgNos":null,"nowTime":null,"countyName":null,"streetName":null,"villageName":null,"roadName":null,"communityName":null,"tranName":null,"sdLineName":null,"cityCode":"1340612","cityName":"国网高碑店市供电公司","provinceCode":null,"stopTime":"2020-04-11 18:00:00","powerType":"全部","powerOffArea":"【分支停电】停兴华北公变,中医医院,兴华南变压器,兴华南2号变压器,时氏公变","powerOffReason":"【停电原因】由于清理树障导致１１０ＫＶ马庄变电站１０ＫＶ建行５３２线路０４号断路器以下停电 【变更送电】因工作量大原因，送电时间由１７：００变更为１８：００ 【发布渠道】高碑店市高碑店电视台（０４月０３日０８时至０４月１０日１８时之间）屏幕上方滚动","powerOffId":"2020040213000210"},{"poweroffId":2020040213000209,"sgpoweroffId":null,"subsName":"","lineName":"北平路东525","pubTranName":"前庄3号,北庄村北4号,北庄1号变压器,北庄7号变压器,北庄李家街变压器,北庄五号变压器,北庄11号,北庄新增1号变压器,前庄2号变压器,北庄六号变压器,北庄前街变压器,北庄前庄变压器,县委家属楼变压器,","scope":"【影响街道/乡镇】城关镇 【高危重要客户】无 【影响客户】北庄村、中景华庭、县委家属院、幸福里、中景花园、惠友超市公寓","startTime":"2020-04-11 06:00:00","stopDate":"2020-04-11 18:00:00","orgNo":"1340617","typeCode":"计划停电","poweroffArea":"【分支停电】停前庄2号变压器,县委家属楼变压器,保定市满城县城建房地产开发有限公司2号,北庄前街变压器,北庄8号(副业),0616179666-满城县城建房地产（中景华庭B区）-专变-128480190,炒料厂2号,0387457914-保定市满城县城建房地产开发有限责任公司-专变-49082430-城建公司玉川东沿,北庄11号,北庄李家街变压器,北庄村北4号,北庄前庄变压器,北庄新增1号变压器,北庄六号变压器,保定市满城县城建房地产开发有限责任公司,北庄五号变压器,前庄3号,北庄7号变压器,交通枢纽,0584471379-保定市满城县城建房地产开发有限公司-专变-124978976-保定市满城县城建房地产开发有限公司,保定市满城县城建房地产开发有限公司1号,北庄后街,北庄三号,北庄1号变压器,保定天保电器设备结构有限公司","poweroffReason":"【停电原因】由于线路检修导致１１０ＫＶ眺山营变电站北平路东５２５线路４０号杆开关以下分支停电 【变更送电】无 【发布渠道】满城县有线电视台（０４月０２日１９：００－２０：００至０４月１０日１９：００－２０：００）屏幕上方滚动","powerTime":"2020-04-11 17:44:02","powerComm":"已送电","subsNo":"","lineNo":"","tgNo":"","tgName":null,"infoStatus":"1","orgName":"国网满城县供电公司","typeName":null,"infoStatusName":null,"dateDay":null,"orgNos":null,"nowTime":null,"countyName":null,"streetName":null,"villageName":null,"roadName":null,"communityName":null,"tranName":null,"sdLineName":null,"cityCode":"1340617","cityName":"国网满城县供电公司","provinceCode":null,"stopTime":"2020-04-11 18:00:00","powerType":"全部","powerOffArea":"【分支停电】停前庄2号变压器,县委家属楼变压器,保定市满城县城建房地产开发有限公司2号,北庄前街变压器,北庄8号(副业),0616179666-满城县城建房地产（中景华庭B区）-专变-128480190,炒料厂2号,0387457914-保定市满城县城建房地产开发有限责任公司-专变-49082430-城建公司玉川东沿,北庄11号,北庄李家街变压器,北庄村北4号,北庄前庄变压器,北庄新增1号变压器,北庄六号变压器,保定市满城县城建房地产开发有限责任公司,北庄五号变压器,前庄3号,北庄7号变压器,交通枢纽,0584471379-保定市满城县城建房地产开发有限公司-专变-124978976-保定市满城县城建房地产开发有限公司,保定市满城县城建房地产开发有限公司1号,北庄后街,北庄三号,北庄1号变压器,保定天保电器设备结构有限公司","powerOffReason":"【停电原因】由于线路检修导致１１０ＫＶ眺山营变电站北平路东５２５线路４０号杆开关以下分支停电 【变更送电】无 【发布渠道】满城县有线电视台（０４月０２日１９：００－２０：００至０４月１０日１９：００－２０：００）屏幕上方滚动","powerOffId":"2020040213000209"},{"poweroffId":2020040213000167,"sgpoweroffId":null,"subsName":"","lineName":"10kV封庄线537","pubTranName":"羊庄村西,2张登屯外10【纯农排变】,2张登店外2【纯农排变】,2羊庄外9【纯农排变】,中国移动通信集团河北有限公司保定分公司,羊庄4号,1封庄内1,2靳庄外2【纯农排变】,羊庄小学,2封庄外3【纯农排变】,清苑县羊庄村拔丝制钉厂,1羊庄内3,1靳庄内2,1羊庄内1,2羊庄外4【纯农排变】,张登屯砖厂(大),张登屯砖厂(小),羊庄幼儿园,2谢庄外7【纯农排变】,2蒋庄外15【纯农排变】,2蒋庄外16【纯农排变】,2张登外1,2封庄外1,0651491888-河北博苑建筑材料有限公司-专变-177366044-河北博苑建筑材料有限公司,保定市鑫益达锌业有限公司,1封庄内2,2张登屯外8【纯农排变】,0387481049-清苑县冉庄镇羊庄第一砖厂-专变-45309568-清苑县冉庄镇羊庄第一砖厂2,清苑县冉庄镇羊庄东砖厂1,2羊庄外2【纯农排变】,2羊庄外1【纯农排变】,2羊庄外10【纯农排变】,2张登外2,2封庄外2【纯农排变】,2羊庄外14【纯农排变】,保定清苑县万达面粉厂,清苑县冉庄镇羊庄第一砖厂1,2羊庄外5【纯农排变】,靳庄内1号,2羊庄外6【纯农排变】,0387481140-杨庄果园分箱-专变-45309724-杨庄果园分箱,2羊庄外8【纯农排变】,2靳庄外4【纯农排变】,2靳庄外5【纯农排变】,2张登屯外11【纯农排变】,清苑县会发砖厂,2羊庄外7【纯农排变】,2封庄外5【纯农排变】,1羊庄内6,2羊庄外11【纯农排变】,2谢庄外4【纯农排变】,2羊庄外3【纯农排变】,1羊庄内8,1羊庄内2,2谢庄外6【纯农排变】,清苑县国胜面粉厂2,1羊庄内7,清苑县俊发棉籽加工有限责任公司,2蒋庄外17【纯农排变】,2靳庄外3【纯农排变】,1羊庄内5,2张登店外1【纯农排变】,2靳庄外6【纯农排变】,2封庄外4【纯农排变】,2张登屯外9【纯农排变】,2羊庄外13【纯农排变】,2张登店外3【纯农排变】,2张登外3,清苑县羊庄富强面粉厂,2谢庄外5【纯农排变】,2羊庄外12【纯农排变】,清苑县盛源木炭制造有限公司,2靳庄外7【纯农排变】,清苑县国胜面粉厂1,","scope":"【影响街道/乡镇】冉庄乡 【高危重要客户】无 【影响客户】封庄、靳庄、羊庄、蒋庄、张登屯、张登店、谢庄、张登","startTime":"2020-04-11 05:30:00","stopDate":"2020-04-11 18:00:00","orgNo":"1340618","typeCode":"计划停电","poweroffArea":"【全线路停电】停1羊庄内3,羊庄村西,2张登屯外10【纯农排变】,2张登店外2【纯农排变】,2羊庄外9【纯农排变】,中国移动通信集团河北有限公司保定分公司,羊庄4号,1封庄内1,2靳庄外2【纯农排变】,羊庄小学,2封庄外3【纯农排变】,清苑县羊庄村拔丝制钉厂,1靳庄内2,1羊庄内1,2羊庄外4【纯农排变】,张登屯砖厂(大),张登屯砖厂(小),羊庄幼儿园,2谢庄外7【纯农排变】,2蒋庄外15【纯农排变】,2蒋庄外16【纯农排变】,2张登外1,2封庄外1,0651491888-河北博苑建筑材料有限公司-专变-177366044-河北博苑建筑材料有限公司,保定市鑫益达锌业有限公司,1封庄内2,2张登屯外8【纯农排变】,0387481049-清苑县冉庄镇羊庄第一砖厂-专变-45309568-清苑县冉庄镇羊庄第一砖厂2,清苑县冉庄镇羊庄东砖厂1,2封庄外2【纯农排变】,2羊庄外14【纯农排变】,保定清苑县万达面粉厂,清苑县冉庄镇羊庄第一砖厂1,2羊庄外5【纯农排变】,靳庄内1号,2羊庄外2【纯农排变】,2羊庄外1【纯农排变】,2羊庄外10【纯农排变】,2张登外2,2张登屯外11【纯农排变】,清苑县会发砖厂,2羊庄外7【纯农排变】,2封庄外5【纯农排变】,1羊庄内6,2羊庄外11【纯农排变】,2谢庄外4【纯农排变】,2羊庄外3【纯农排变】,1羊庄内8,1羊庄内2,2羊庄外6【纯农排变】,0387481140-杨庄果园分箱-专变-45309724-杨庄果园分箱,2羊庄外8【纯农排变】,2靳庄外4【纯农排变】,2靳庄外5【纯农排变】,清苑县羊庄富强面粉厂,2谢庄外5【纯农排变】,2羊庄外12【纯农排变】,清苑县盛源木炭制造有限公司,2靳庄外7【纯农排变】,清苑县国胜面粉厂1,2谢庄外6【纯农排变】,清苑县国胜面粉厂2,1羊庄内7,清苑县俊发棉籽加工有限责任公司,2蒋庄外17【纯农排变】,2靳庄外3【纯农排变】,1羊庄内5,2张登店外1【纯农排变】,2靳庄外6【纯农排变】,2封庄外4【纯农排变】,2张登屯外9【纯农排变】,2羊庄外13【纯农排变】,2张登店外3【纯农排变】,2张登外3","poweroffReason":"【停电原因】由于线路清扫检修导致２２０ＫＶ邓村变电站１０ＫＶ封庄线５３７线路全线停电 【变更送电】无 【发布渠道】保定市清苑区电视台（２０２０年０４月０３日１９时至２０２０年０４月１０日２０时之间）屏幕上方滚动","powerTime":"2020-04-11 17:54:09","powerComm":"刘立东通知已送电","subsNo":"","lineNo":"","tgNo":"","tgName":null,"infoStatus":"1","orgName":"国网清苑县供电公司","typeName":null,"infoStatusName":null,"dateDay":null,"orgNos":null,"nowTime":null,"countyName":null,"streetName":null,"villageName":null,"roadName":null,"communityName":null,"tranName":null,"sdLineName":null,"cityCode":"1340618","cityName":"国网清苑县供电公司","provinceCode":null,"stopTime":"2020-04-11 18:00:00","powerType":"全部","powerOffArea":"【全线路停电】停1羊庄内3,羊庄村西,2张登屯外10【纯农排变】,2张登店外2【纯农排变】,2羊庄外9【纯农排变】,中国移动通信集团河北有限公司保定分公司,羊庄4号,1封庄内1,2靳庄外2【纯农排变】,羊庄小学,2封庄外3【纯农排变】,清苑县羊庄村拔丝制钉厂,1靳庄内2,1羊庄内1,2羊庄外4【纯农排变】,张登屯砖厂(大),张登屯砖厂(小),羊庄幼儿园,2谢庄外7【纯农排变】,2蒋庄外15【纯农排变】,2蒋庄外16【纯农排变】,2张登外1,2封庄外1,0651491888-河北博苑建筑材料有限公司-专变-177366044-河北博苑建筑材料有限公司,保定市鑫益达锌业有限公司,1封庄内2,2张登屯外8【纯农排变】,0387481049-清苑县冉庄镇羊庄第一砖厂-专变-45309568-清苑县冉庄镇羊庄第一砖厂2,清苑县冉庄镇羊庄东砖厂1,2封庄外2【纯农排变】,2羊庄外14【纯农排变】,保定清苑县万达面粉厂,清苑县冉庄镇羊庄第一砖厂1,2羊庄外5【纯农排变】,靳庄内1号,2羊庄外2【纯农排变】,2羊庄外1【纯农排变】,2羊庄外10【纯农排变】,2张登外2,2张登屯外11【纯农排变】,清苑县会发砖厂,2羊庄外7【纯农排变】,2封庄外5【纯农排变】,1羊庄内6,2羊庄外11【纯农排变】,2谢庄外4【纯农排变】,2羊庄外3【纯农排变】,1羊庄内8,1羊庄内2,2羊庄外6【纯农排变】,0387481140-杨庄果园分箱-专变-45309724-杨庄果园分箱,2羊庄外8【纯农排变】,2靳庄外4【纯农排变】,2靳庄外5【纯农排变】,清苑县羊庄富强面粉厂,2谢庄外5【纯农排变】,2羊庄外12【纯农排变】,清苑县盛源木炭制造有限公司,2靳庄外7【纯农排变】,清苑县国胜面粉厂1,2谢庄外6【纯农排变】,清苑县国胜面粉厂2,1羊庄内7,清苑县俊发棉籽加工有限责任公司,2蒋庄外17【纯农排变】,2靳庄外3【纯农排变】,1羊庄内5,2张登店外1【纯农排变】,2靳庄外6【纯农排变】,2封庄外4【纯农排变】,2张登屯外9【纯农排变】,2羊庄外13【纯农排变】,2张登店外3【纯农排变】,2张登外3","powerOffReason":"【停电原因】由于线路清扫检修导致２２０ＫＶ邓村变电站１０ＫＶ封庄线５３７线路全线停电 【变更送电】无 【发布渠道】保定市清苑区电视台（２０２０年０４月０３日１９时至２０２０年０４月１０日２０时之间）屏幕上方滚动","powerOffId":"2020040213000167"},{"poweroffId":2020040213000157,"sgpoweroffId":null,"subsName":"","lineName":"北店线545","pubTranName":"西城光3,西城光16,北祖村店光16,侯村营光13,永兴庄光4,北侯新光11,南祖村店光17,北侯新光2,西城光11,南侯新光1,南侯新光2,北侯村光1,侯村营光15,北侯新光3,郝家房光4,郝家房光6,西城光19,北祖村店光11,永兴庄光6,北侯新光1,南祖村店光7,北侯新光4,北侯村光2,南侯村光3,南侯村光5,北祖村店光12,郝家房光5,北祖村店光17,北祖村店排7【纯农排变】,北祖村店排9【纯农排变】,北祖村店排4【纯农排变】,南祖村店光14,南祖村店光15,侯村营光7,北侯村光4,郝家房村光3,郝家房村光2,侯村营光3,北侯村光3,南祖村店光13,北祖村店排5【纯农排变】,侯村营光11,侯村营光12,南祖村店光8,西城光18,北侯村光9,北祖村店光13,北祖村店光7,侯村营光9,南祖村店光18,南祖村店光9,西城光9,南祖村店光12,南祖村店光11,西城光15,南祖村店光2,南侯村光4,北侯新光8,北祖村店光18,侯村营光16,北侯新光9,南侯新光3,永兴庄光5,南祖村店光10,南祖村店光1,南祖村店光16,北祖村店光8,北祖村店光10,西城光10,北祖村店光9,南侯新光4,北侯新光12,南祖村店光3,南祖村店光4,北侯村光7,侯村营光2,西城光6,侯村营光5,北祖村店光15,南侯新光5,西城光12,侯村营光14,北侯新光6,侯村营光6,西关村光3,北侯村光6,北关大棚排1【纯农排变】,西城光17,西城光20,北侯新光10,侯村营光10,西城光13,侯村营光8,西城光14,北祖村店排8【纯农排变】,北祖村店排6【纯农排变】,侯村营光4,永兴庄光2,北侯村光8,郝家房村光1,永光庄光1,西城光5,南祖村店光6,南祖村店排3【纯农排变】,北侯新光5,北祖村店光14,北祖村店光19,北侯新光7,","scope":"【影响街道/乡镇】定兴镇 【高危重要客户】无 【影响客户】南店、北店、南侯、北侯、侯村营、西城、郝家房、永兴庄、三街村部分用户、北关部分用户、定兴县金萍面粉厂、定兴县北侯面粉厂、定兴县金河面粉厂、定兴县洁明新型建材有限公司、北京华艺久隆文化用品有限责任公司定兴县分公司、定兴县西城食品加工有限责任公司、定兴县鑫楷养猪场、定兴县小树饭店、定兴县三联建材制造有限公司、定兴县伟记制帽有限公司","startTime":"2020-04-02 08:39:22","stopDate":"2020-04-02 10:30:00","orgNo":"1340609","typeCode":"电网故障停限电","poweroffArea":"【全线路停电】停南祖村店光7,北祖村店光12,郝家房光5,北祖村店光17,北祖村店排7【纯农排变】,北祖村店排9【纯农排变】,北祖村店排4【纯农排变】,南祖村店光14,南祖村店光15,南祖村店光16,永兴庄光5,南祖村店光10,南祖村店光1,北祖村店光8,北祖村店光10,西城光10,北祖村店光9,南侯新光4,西城光16,西城光11,南侯新光1,南侯新光2,侯村营光15,北侯新光3,郝家房光4,郝家房光6,西城光19,北祖村店光11,永兴庄光6,北侯新光7,北祖村店光15,南侯新光5,西城光12,侯村营光14,西城光17,西城光20,北侯新光10,侯村营光10,西城光13,北侯新光1,北侯新光4,北侯新光6,北侯新光8,北祖村店光18,侯村营光16,北侯新光9,西城光3,北祖村店光16,侯村营光13,永兴庄光4,北侯新光11,南祖村店光17,北侯新光2,南祖村店光13,南侯新光3,北祖村店排5【纯农排变】,侯村营光11,侯村营光12,北侯新光12,西城光14,北祖村店排8【纯农排变】,北祖村店排6【纯农排变】,南侯村光5,南祖村店光8,北侯新光5,北祖村店光14,北祖村店光13,北祖村店光19,侯村营光9,南祖村店光18,南祖村店光9,西城光9,南祖村店光12,南祖村店光11,西城光15,西城光18,北侯村光9,北侯村排3【纯农排变】,北侯村排2【纯农排变】,北侯村排6【纯农排变】,北侯村光1,北关村排1【纯农排变】,侯村营光6,西关村光3,北关排5变【纯农排变】,北侯村光6,北关大棚排1【纯农排变】,西城排4【纯农排变】,南祖村店光3,三街村排1【纯农排变】,南祖村店光4,北侯村光7,北祖村店排1【纯农排变】,侯村营光2,西城光6,三街村排2【纯农排变】,侯村营光5,南祖村店排1【纯农排变】,侯村营光8,侯村营光4,永兴庄光2,北侯村光8,郝家房村光1,永光庄光1,西城光5,西辛告排1【纯农排变】,南侯村排【纯农排变】,南祖村店光6,南祖村店排3【纯农排变】,南祖村店排2【纯农排变】,北关村排5【纯农排变】,南祖村店光2,侯村营排5【纯农排变】,侯村营排3【纯农排变】,侯村营排2【纯农排变】,侯村营排1【纯农排变】,南侯村光4,西城排3【纯农排变】,西城排2【纯农排变】,侯村营光7,西辛告排3【纯农排变】,侯村营光3,郝家房村光3,郝家房村光2,北侯村光3,北侯村排5【纯农排变】,北侯村排1【纯农排变】,北侯村光2,北侯村排4【纯农排变】,北关村排3【纯农排变】,北祖村店排3【纯农排变】,北祖村店排2【纯农排变】,北祖村店光7,北侯村光4,南侯村排1【纯农排变】,南侯村光3,北关村排2【纯农排变】,永兴庄排1【纯农排变】,西城排1【纯农排变】,许继正渔厂-排【纯农排变】,北关村排4【纯农排变】","poweroffReason":"【停电原因】由于华艺九龙计量杆电缆头铁丝搭挂导致１１０ＫＶ兴北变电站北店线５４５线路全线停电 【变更送电】因抢修进度加快原因，送电时间由１２：００变更为１０：３０ 【发布渠道】通过９５５９８发布","powerTime":"2020-04-02 10:03:25","powerComm":"已送电","subsNo":"","lineNo":"","tgNo":"","tgName":null,"infoStatus":"1","orgName":"国网定兴县供电公司","typeName":null,"infoStatusName":null,"dateDay":null,"orgNos":null,"nowTime":null,"countyName":null,"streetName":null,"villageName":null,"roadName":null,"communityName":null,"tranName":null,"sdLineName":null,"cityCode":"1340609","cityName":"国网定兴县供电公司","provinceCode":null,"stopTime":"2020-04-02 10:30:00","powerType":"全部","powerOffArea":"【全线路停电】停南祖村店光7,北祖村店光12,郝家房光5,北祖村店光17,北祖村店排7【纯农排变】,北祖村店排9【纯农排变】,北祖村店排4【纯农排变】,南祖村店光14,南祖村店光15,南祖村店光16,永兴庄光5,南祖村店光10,南祖村店光1,北祖村店光8,北祖村店光10,西城光10,北祖村店光9,南侯新光4,西城光16,西城光11,南侯新光1,南侯新光2,侯村营光15,北侯新光3,郝家房光4,郝家房光6,西城光19,北祖村店光11,永兴庄光6,北侯新光7,北祖村店光15,南侯新光5,西城光12,侯村营光14,西城光17,西城光20,北侯新光10,侯村营光10,西城光13,北侯新光1,北侯新光4,北侯新光6,北侯新光8,北祖村店光18,侯村营光16,北侯新光9,西城光3,北祖村店光16,侯村营光13,永兴庄光4,北侯新光11,南祖村店光17,北侯新光2,南祖村店光13,南侯新光3,北祖村店排5【纯农排变】,侯村营光11,侯村营光12,北侯新光12,西城光14,北祖村店排8【纯农排变】,北祖村店排6【纯农排变】,南侯村光5,南祖村店光8,北侯新光5,北祖村店光14,北祖村店光13,北祖村店光19,侯村营光9,南祖村店光18,南祖村店光9,西城光9,南祖村店光12,南祖村店光11,西城光15,西城光18,北侯村光9,北侯村排3【纯农排变】,北侯村排2【纯农排变】,北侯村排6【纯农排变】,北侯村光1,北关村排1【纯农排变】,侯村营光6,西关村光3,北关排5变【纯农排变】,北侯村光6,北关大棚排1【纯农排变】,西城排4【纯农排变】,南祖村店光3,三街村排1【纯农排变】,南祖村店光4,北侯村光7,北祖村店排1【纯农排变】,侯村营光2,西城光6,三街村排2【纯农排变】,侯村营光5,南祖村店排1【纯农排变】,侯村营光8,侯村营光4,永兴庄光2,北侯村光8,郝家房村光1,永光庄光1,西城光5,西辛告排1【纯农排变】,南侯村排【纯农排变】,南祖村店光6,南祖村店排3【纯农排变】,南祖村店排2【纯农排变】,北关村排5【纯农排变】,南祖村店光2,侯村营排5【纯农排变】,侯村营排3【纯农排变】,侯村营排2【纯农排变】,侯村营排1【纯农排变】,南侯村光4,西城排3【纯农排变】,西城排2【纯农排变】,侯村营光7,西辛告排3【纯农排变】,侯村营光3,郝家房村光3,郝家房村光2,北侯村光3,北侯村排5【纯农排变】,北侯村排1【纯农排变】,北侯村光2,北侯村排4【纯农排变】,北关村排3【纯农排变】,北祖村店排3【纯农排变】,北祖村店排2【纯农排变】,北祖村店光7,北侯村光4,南侯村排1【纯农排变】,南侯村光3,北关村排2【纯农排变】,永兴庄排1【纯农排变】,西城排1【纯农排变】,许继正渔厂-排【纯农排变】,北关村排4【纯农排变】","powerOffReason":"【停电原因】由于华艺九龙计量杆电缆头铁丝搭挂导致１１０ＫＶ兴北变电站北店线５４５线路全线停电 【变更送电】因抢修进度加快原因，送电时间由１２：００变更为１０：３０ 【发布渠道】通过９５５９８发布","powerOffId":"2020040213000157"},{"poweroffId":2020040213000155,"sgpoweroffId":null,"subsName":"","lineName":"东环路516","pubTranName":"店北8#,","scope":"【影响街道/乡镇】易州镇【高危重要客户】无【影响客户】店北村","startTime":"2020-04-12 07:00:00","stopDate":"2020-04-12 12:00:00","orgNo":"1340625","typeCode":"计划停电","poweroffArea":"【单台区停电】停店北8#","poweroffReason":"【停电原因】由于更换变压器导致３５ＫＶ燕城变电站东环路５１６线路店北村８＃公变台区停电【变更送电】无【发布渠道】保定市易县电视台（０４月０３日００时至０４月１１日２４时之间）下方滚动。","powerTime":"2020-04-12 11:24:07","powerComm":"已送电","subsNo":"","lineNo":"","tgNo":"","tgName":null,"infoStatus":"1","orgName":"国网易县供电公司","typeName":null,"infoStatusName":null,"dateDay":null,"orgNos":null,"nowTime":null,"countyName":null,"streetName":null,"villageName":null,"roadName":null,"communityName":null,"tranName":null,"sdLineName":null,"cityCode":"1340625","cityName":"国网易县供电公司","provinceCode":null,"stopTime":"2020-04-12 12:00:00","powerType":"全部","powerOffArea":"【单台区停电】停店北8#","powerOffReason":"【停电原因】由于更换变压器导致３５ＫＶ燕城变电站东环路５１６线路店北村８＃公变台区停电【变更送电】无【发布渠道】保定市易县电视台（０４月０３日００时至０４月１１日２４时之间）下方滚动。","powerOffId":"2020040213000155"},{"poweroffId":2020040213000152,"sgpoweroffId":null,"subsName":"","lineName":"流井线513","pubTranName":"李家坟村7#村东,李家坟村3#村西,匡山村4#村南,坟庄村6#村北,匡山村7#村北,坟庄14#村东【纯农排变】,坟庄村7#|村东,东留召村1#村内,坟庄村1#|村内,北留召村3#村南,北留召村5#村西,坟庄村5#村西,东留召村4#村南,匡山村5#村北,坟庄13#村南,李家坟村4#村中,北留召村7#村西,匡山村1#村内,李家坟16号,坟庄村4#学校,北留召村6#村东,匡山村10#,匡山村9#村北,坟庄11#村东,李家坟村2#村东,坟庄村16#,李家坟村1#村北,李家坟8号,北留召村4#村南,东留召村3#村北,李家坟村5#村南,东留召小学变压器,坟庄村8#村东北,匡山村2#村西,匡山村3#村东,李家坟小学变压器,李家坟10西北井【纯农排变】,坟庄村15#,坟庄10#村西北,坟庄村12#,坟庄村2#村南,匡山村8#村北,坟庄村3#村东,坟庄村9#村西,李家坟村9#村西,北留召村1#村内,北留召村2#村东,东留召村2#大队,","scope":"【影响街道/乡镇】桥头乡、流井乡 【高危重要客户】无 【影响客户】坟庄村、匡山村、北留召村、东留召村、李家坟村","startTime":"2020-04-09 03:00:00","stopDate":"2020-04-09 08:00:00","orgNo":"1340625","typeCode":"临时停电","poweroffArea":"【分支停电】停易县匡泰矿粉有限公司变压器,匡山村6#村东【纯农排变】,匡山村4#村南,易县匡山涌泉橡胶 经销部变压器,李家坟16号,李家坟村3#村西,坟庄13#村南,李家坟村2#村东,东留召小学变压器,东留召村1#村内,李家坟8号,坟庄村8#村东北,东留召村3#村北,东留召村2#大队,坟庄村1#|村内,坟庄村3#村东,坟庄村16#,匡山村7#村北,东留召村4#村南,李家坟饮料厂(保运矿业),生活垃圾场变压器,东留召村6#村东【纯农排变】,龙泉石材厂,北留召村4#村南,李家坟村4#村中,坟庄14#村东【纯农排变】,东留召村5#村西【纯农排变】,匡山村9#村北,坟庄村6#村北,51033部队,坟庄11#村东,李家坟小学变压器,坟庄10#村西北,李家坟面粉厂,修配厂,李家坟村9#村西,李家坟村5#村南,北留召村1#村内,坟庄村张宝海,李家坟10西北井【纯农排变】,东留召7#村东北,坟庄村7#|村东,坟庄村4#学校,李家坟村7#村东,北留召村2#村东,北留召村5#村西,0555679212-中国铁塔股份有限公司保定市分公司-专变-94779843-中国移动通信集团河北有限公司易县分公司变压器,匡山村1#村内,匡山村8#村北,张义,坟庄村12#,立邦橡胶厂,匡山村3#村东,匡山村5#村北,易县天达蔬菜种植园变压器,坟庄村5#村西,匡山村10#,北留召村7#村西,坟庄村2#村南,北留召村6#村东,坟庄村15#,坟庄村9#村西,李家坟村1#村北,北留召村3#村南,匡山村2#村西","poweroffReason":"【停电原因】由于立杆、安装断路器导致３５ＫＶ李家坟变电站流井线５１３线路００２号杆０１号断路器００１号杆０１号刀闸以下线路停电【变更送电】无【发布渠道】通过９５５９８发布","powerTime":"2020-04-09 07:41:56","powerComm":"已送电","subsNo":"","lineNo":"","tgNo":"","tgName":null,"infoStatus":"1","orgName":"国网易县供电公司","typeName":null,"infoStatusName":null,"dateDay":null,"orgNos":null,"nowTime":null,"countyName":null,"streetName":null,"villageName":null,"roadName":null,"communityName":null,"tranName":null,"sdLineName":null,"cityCode":"1340625","cityName":"国网易县供电公司","provinceCode":null,"stopTime":"2020-04-09 08:00:00","powerType":"全部","powerOffArea":"【分支停电】停易县匡泰矿粉有限公司变压器,匡山村6#村东【纯农排变】,匡山村4#村南,易县匡山涌泉橡胶 经销部变压器,李家坟16号,李家坟村3#村西,坟庄13#村南,李家坟村2#村东,东留召小学变压器,东留召村1#村内,李家坟8号,坟庄村8#村东北,东留召村3#村北,东留召村2#大队,坟庄村1#|村内,坟庄村3#村东,坟庄村16#,匡山村7#村北,东留召村4#村南,李家坟饮料厂(保运矿业),生活垃圾场变压器,东留召村6#村东【纯农排变】,龙泉石材厂,北留召村4#村南,李家坟村4#村中,坟庄14#村东【纯农排变】,东留召村5#村西【纯农排变】,匡山村9#村北,坟庄村6#村北,51033部队,坟庄11#村东,李家坟小学变压器,坟庄10#村西北,李家坟面粉厂,修配厂,李家坟村9#村西,李家坟村5#村南,北留召村1#村内,坟庄村张宝海,李家坟10西北井【纯农排变】,东留召7#村东北,坟庄村7#|村东,坟庄村4#学校,李家坟村7#村东,北留召村2#村东,北留召村5#村西,0555679212-中国铁塔股份有限公司保定市分公司-专变-94779843-中国移动通信集团河北有限公司易县分公司变压器,匡山村1#村内,匡山村8#村北,张义,坟庄村12#,立邦橡胶厂,匡山村3#村东,匡山村5#村北,易县天达蔬菜种植园变压器,坟庄村5#村西,匡山村10#,北留召村7#村西,坟庄村2#村南,北留召村6#村东,坟庄村15#,坟庄村9#村西,李家坟村1#村北,北留召村3#村南,匡山村2#村西","powerOffReason":"【停电原因】由于立杆、安装断路器导致３５ＫＶ李家坟变电站流井线５１３线路００２号杆０１号断路器００１号杆０１号刀闸以下线路停电【变更送电】无【发布渠道】通过９５５９８发布","powerOffId":"2020040213000152"},{"poweroffId":2020040213000151,"sgpoweroffId":null,"subsName":"","lineName":"10KV石佛533","pubTranName":"西里池村西BQ台区,石佛东北,东里池村内西,石佛西北,西沙沟村西新2321变压器【纯农排变】,里池店村南新井通变压器【纯农排变】,东城坊供电所里池店村西北,西里池2312,东里池村北变压器【纯农排变】,大洛西4275,石佛西2368,东城坊供电所小洛村西,石佛东2309,东城坊供电所大洛大队院内,石佛村西北万佛变压器【纯农排变】,宋营村东（东城坊供电所）柱上变压器,西沙沟大队BQ台区,大洛村南重建变压器,西里池东2311,西沙沟村南BQ台区,石佛村南2井通变压器,东城坊供电所石佛幼儿园柱上变压器,西里池村南新井通变压器【纯农排变】,西里池北新井通变压器【纯农排变】,西里池4448,大洛村2515,西里池村北,西沙沟东2501,里池店2314,东城坊供电所东里池村西,西里池三国文化台区,西沙沟村内2896,大洛村南新井通变压器【纯农排变】,边各庄供电所里池店,石佛村南1井通变压器,东里池村南2316,西里池村东南【纯农排变】,东里池2317,小洛村2324,东城坊供电所西里池小学B柱上变压器,西里池三国台区,西沙沟内南,西里池大队BQ台区,","scope":"【影响街道/乡镇】东城坊镇 【高危重要客户】无 【影响客户】大洛、小洛、西里池、里池店、石佛、东里池 、西沙沟","startTime":"2020-04-12 05:00:00","stopDate":"2020-04-12 18:00:00","orgNo":"1340626","typeCode":"计划停电","poweroffArea":"【全线路停电】停里池店村南新井通变压器【纯农排变】,西沙沟村西新2321变压器【纯农排变】,东城坊镇余香酒家,涿州市交通运输局,边各庄彩电所(石佛),里池店2314,小洛庄面粉厂,西里池村西BQ台区,石佛东北,东里池村内西,西里池村（海开）,石佛西北,涿州市白庆苗木种植园,涿州市聚鑫楼板厂,西沙沟南3152,东城坊供电所里池店村西北,西里池2312,涿州市汇百川机械厂,东里池村北变压器【纯农排变】,东城坊西里池村西【纯农排变】,林场,西沙沟村内2896,大洛西4275,宋营村东（东城坊供电所）柱上变压器,0387629157-涿州市多彩喷塑厂-专变-47879662-多彩喷塑,涿州市隽诚化工有限公司,西沙沟大队BQ台区,大洛村南重建变压器,西里池东2311,西沙沟村南BQ台区,东城坊西沙沟村南,东城坊供电所(东里池村北),石佛村南2井通变压器,东城坊供电所石佛幼儿园柱上变压器,西里池村南新井通变压器【纯农排变】,西里池北新井通变压器【纯农排变】,西里池4448,大洛村2515,西沙沟西2312,西里池村北,西沙沟东2501,大洛村南新井通变压器【纯农排变】,东城坊供电所东里池村西,边各庄供电所(石佛),西里池三国文化台区,大洛井4663,东城坊供电所(西里池村西北),石佛西2368,东城坊供电所小洛村西,石佛东2309,东城坊供电所大洛大队院内,小洛2419,里池店东新,石佛南(海开),涿州市三国文化发展有限公司,石佛村西北万佛变压器【纯农排变】,0668009807-涿州市博纳高品科技有限公司-专变-208452910-涿州市博纳高品科技有限公司,边各庄供电所（大洛）,东里池村南2316,边各庄供电所里池店,石佛村北,石佛村南1井通变压器,西里池三国台区,西沙沟内南,西里池大队BQ台区,东城坊西里池村南,0657625351-涿州市平盛模具厂-专变-192858959-涿州市平盛模具厂,西里池村东南【纯农排变】,东城坊供电所大洛幼儿园柱上变压器,东里池2317,东城坊西沙沟村北,小洛村2324,东城坊供电所西里池小学B柱上变压器,涿州市多彩喷塑厂,涿州市鑫升机械加工厂,涿州市鑫生保温建材厂,东城坊供电所西里池小学A柱上变压器","poweroffReason":"【停电原因】由于春季检修、线路清扫、更换导线工程导致１１０ＫＶ宋营变电站１０ＫＶ石佛５３３线路全线停电 【变更送电】无 【发布渠道】涿州电视台（０４月０２日至０４月１１日２１：００播放２次）屏幕上方滚动","powerTime":"2020-04-12 17:31:05","powerComm":"恢复送电","subsNo":"","lineNo":"","tgNo":"","tgName":null,"infoStatus":"1","orgName":"国网涿州市供电公司","typeName":null,"infoStatusName":null,"dateDay":null,"orgNos":null,"nowTime":null,"countyName":null,"streetName":null,"villageName":null,"roadName":null,"communityName":null,"tranName":null,"sdLineName":null,"cityCode":"1340626","cityName":"国网涿州市供电公司","provinceCode":null,"stopTime":"2020-04-12 18:00:00","powerType":"全部","powerOffArea":"【全线路停电】停里池店村南新井通变压器【纯农排变】,西沙沟村西新2321变压器【纯农排变】,东城坊镇余香酒家,涿州市交通运输局,边各庄彩电所(石佛),里池店2314,小洛庄面粉厂,西里池村西BQ台区,石佛东北,东里池村内西,西里池村（海开）,石佛西北,涿州市白庆苗木种植园,涿州市聚鑫楼板厂,西沙沟南3152,东城坊供电所里池店村西北,西里池2312,涿州市汇百川机械厂,东里池村北变压器【纯农排变】,东城坊西里池村西【纯农排变】,林场,西沙沟村内2896,大洛西4275,宋营村东（东城坊供电所）柱上变压器,0387629157-涿州市多彩喷塑厂-专变-47879662-多彩喷塑,涿州市隽诚化工有限公司,西沙沟大队BQ台区,大洛村南重建变压器,西里池东2311,西沙沟村南BQ台区,东城坊西沙沟村南,东城坊供电所(东里池村北),石佛村南2井通变压器,东城坊供电所石佛幼儿园柱上变压器,西里池村南新井通变压器【纯农排变】,西里池北新井通变压器【纯农排变】,西里池4448,大洛村2515,西沙沟西2312,西里池村北,西沙沟东2501,大洛村南新井通变压器【纯农排变】,东城坊供电所东里池村西,边各庄供电所(石佛),西里池三国文化台区,大洛井4663,东城坊供电所(西里池村西北),石佛西2368,东城坊供电所小洛村西,石佛东2309,东城坊供电所大洛大队院内,小洛2419,里池店东新,石佛南(海开),涿州市三国文化发展有限公司,石佛村西北万佛变压器【纯农排变】,0668009807-涿州市博纳高品科技有限公司-专变-208452910-涿州市博纳高品科技有限公司,边各庄供电所（大洛）,东里池村南2316,边各庄供电所里池店,石佛村北,石佛村南1井通变压器,西里池三国台区,西沙沟内南,西里池大队BQ台区,东城坊西里池村南,0657625351-涿州市平盛模具厂-专变-192858959-涿州市平盛模具厂,西里池村东南【纯农排变】,东城坊供电所大洛幼儿园柱上变压器,东里池2317,东城坊西沙沟村北,小洛村2324,东城坊供电所西里池小学B柱上变压器,涿州市多彩喷塑厂,涿州市鑫升机械加工厂,涿州市鑫生保温建材厂,东城坊供电所西里池小学A柱上变压器","powerOffReason":"【停电原因】由于春季检修、线路清扫、更换导线工程导致１１０ＫＶ宋营变电站１０ＫＶ石佛５３３线路全线停电 【变更送电】无 【发布渠道】涿州电视台（０４月０２日至０４月１１日２１：００播放２次）屏幕上方滚动","powerOffId":"2020040213000151"},{"poweroffId":2020040213000126,"sgpoweroffId":null,"subsName":"","lineName":"曹庄线513","pubTranName":"张町内西变压器,新贾村混合3号配变,薛庄内南,新贾村混合4号配变,张疃内南配变,新贾村混合6号配变,新贾村村内变压器,小王庄村内,大王庄内南变压器,大王庄村内变压器,太和庄村内变压器,薛庄村东,新贾村混合2号变压器,新贾村混合5号配变,小王庄村西配变,小王庄村内2号配变,大王庄内东配变,太和庄内东变压器,大王庄内中配变,太和庄村内西配变,薛庄西南,大王庄内西配变,","scope":"【影响街道/乡镇】中韩庄乡 【高危重要客户】无　　 【影响客户】太和庄、大王庄、小王庄、新贾村、张疃村、薛庄村","startTime":"2020-04-02 07:18:21","stopDate":"2020-04-02 09:00:00","orgNo":"1340623","typeCode":"电网故障停限电","poweroffArea":"【全线路停电】停张町内西变压器,新贾村混合3号配变,薛庄内南,新贾村混合4号配变,张疃内南配变,新贾村混合6号配变,新贾村村内变压器,小王庄村内,大王庄内南变压器,大王庄村内变压器,太和庄村内变压器,薛庄村东,新贾村混合2号变压器,新贾村混合5号配变,小王庄村西配变,小王庄村内2号配变,大王庄内东配变,太和庄内东变压器,大王庄内中配变,太和庄村内西配变,薛庄西南,大王庄内西配变","poweroffReason":"【停电原因】由于站内开关跳闸导致３５ＫＶ曹庄变电站曹庄５１３线路全线停电 【变更送电】因抢修进度加快原因，送电时间由１７：００变更为０９：００ 【发布渠道】通过９５５９８发布","powerTime":"2020-04-02 08:35:54","powerComm":"已送电","subsNo":"","lineNo":"","tgNo":"","tgName":null,"infoStatus":"1","orgName":"国网望都县供电公司","typeName":null,"infoStatusName":null,"dateDay":null,"orgNos":null,"nowTime":null,"countyName":null,"streetName":null,"villageName":null,"roadName":null,"communityName":null,"tranName":null,"sdLineName":null,"cityCode":"1340623","cityName":"国网望都县供电公司","provinceCode":null,"stopTime":"2020-04-02 09:00:00","powerType":"全部","powerOffArea":"【全线路停电】停张町内西变压器,新贾村混合3号配变,薛庄内南,新贾村混合4号配变,张疃内南配变,新贾村混合6号配变,新贾村村内变压器,小王庄村内,大王庄内南变压器,大王庄村内变压器,太和庄村内变压器,薛庄村东,新贾村混合2号变压器,新贾村混合5号配变,小王庄村西配变,小王庄村内2号配变,大王庄内东配变,太和庄内东变压器,大王庄内中配变,太和庄村内西配变,薛庄西南,大王庄内西配变","powerOffReason":"【停电原因】由于站内开关跳闸导致３５ＫＶ曹庄变电站曹庄５１３线路全线停电 【变更送电】因抢修进度加快原因，送电时间由１７：００变更为０９：００ 【发布渠道】通过９５５９８发布","powerOffId":"2020040213000126"}],"pageModel":{"pageNow":206,"totalCount":10973,"totalPage":1098,"tableRows":0,"pageCount":10,"beginCount":2050},"isExperi":"1"}