{"message":"","today":"2020-06-15","seleList":[{"poweroffId":2020040113000231,"sgpoweroffId":null,"subsName":"","lineName":"市头村线515","pubTranName":"谒山七号,市头村村西,谒山村南新增,谒山1号,市头村村北井,市头村村南,市头村车站新增,谒山大队（村南）,市头村新增,市头村学校台区变压器,市头村中学,虎占井,市头村老学堂,市头村大坡,新增谒山村北,谒山村内,市头村车站,市头村村东井,市头村村内,市头村大井台区变压器,市头村大坡2号【纯农排变】,市头村梨树坟,市头村南方,市头村山南,市头村山南2号,市头村小学,","scope":"【影响街道/乡镇】神星镇 【高危重要客户】无 【影响客户】市头村、谒山村","startTime":"2020-04-10 06:00:00","stopDate":"2020-04-10 17:00:00","orgNo":"1340617","typeCode":"计划停电","poweroffArea":"【分支停电】停市头村老学堂,市头村大坡,市头村村西,谒山1号,市头村村北井,市头村村南,市头村车站新增,市头村新增,市头村学校台区变压器,市头村中学,虎占井,市头村车站,市头村村东井,市头村村内,市头村大井台区变压器,市头村大坡2号【纯农排变】,市头村梨树坟,市头村南方,市头村山南,市头村山南2号,市头村小学","poweroffReason":"【停电原因】由于线路检修导致１１０ＫＶ眺山营变电站市头村线５１５线路龙源分支４２号杆开关以下停电 【变更送电】因抢修进度加快原因，送电时间由１８：００变更为１７：００ 【发布渠道】满城电视台（０４月０１日至０９日１９：００－２０：００）屏幕上方滚动","powerTime":"2020-04-10 16:36:39","powerComm":"已送电","subsNo":"","lineNo":"","tgNo":"","tgName":null,"infoStatus":"1","orgName":"国网满城县供电公司","typeName":null,"infoStatusName":null,"dateDay":null,"orgNos":null,"nowTime":null,"countyName":null,"streetName":null,"villageName":null,"roadName":null,"communityName":null,"tranName":null,"sdLineName":null,"cityCode":"1340617","cityName":"国网满城县供电公司","provinceCode":null,"stopTime":"2020-04-10 17:00:00","powerType":"全部","powerOffArea":"【分支停电】停市头村老学堂,市头村大坡,市头村村西,谒山1号,市头村村北井,市头村村南,市头村车站新增,市头村新增,市头村学校台区变压器,市头村中学,虎占井,市头村车站,市头村村东井,市头村村内,市头村大井台区变压器,市头村大坡2号【纯农排变】,市头村梨树坟,市头村南方,市头村山南,市头村山南2号,市头村小学","powerOffReason":"【停电原因】由于线路检修导致１１０ＫＶ眺山营变电站市头村线５１５线路龙源分支４２号杆开关以下停电 【变更送电】因抢修进度加快原因，送电时间由１８：００变更为１７：００ 【发布渠道】满城电视台（０４月０１日至０９日１９：００－２０：００）屏幕上方滚动","powerOffId":"2020040113000231"},{"poweroffId":2020040113000144,"sgpoweroffId":null,"subsName":"","lineName":"10kV511王家庄线","pubTranName":"仁义村公用照明2台区,管家庄公用照明2台区,南木庄公用照明2台区,东宋庄村公用照明1台区,王家庄公用照明4台区一,东宋庄公用照明2台区,北王家庄社区公用照明1台区,王家庄村公用照明3台区,西宋庄公用照明2台区,王家庄村公用照明1台区一,小瓦房村公用照明1台区,北木庄公用照明4台区,仁义村公用照明3台区,王家庄村公用照明2台区,仁义村公用照明1台区,南木庄公用农业4台区【纯农排变】,仝安庄公用照明2台区,北木庄村公用照明1台区,北王家庄社区公用照明3台区,仝安庄村公用照明1台区,王家庄公用照明7台区一,王家庄公用照明8台区一,王家庄公用照明6台区一,北王家庄社区公用照明2台区,大瓦房村公用照明1台区,北木庄村公用照明2台区,管家庄村公用照明1台区,北木庄公用照明3台区,大瓦房公用照明4台区,蔡家庄村公用照明1台区,留早北街村公用农业3台区【纯农排变】,北木庄村公用农业5台区【纯农排变】,仁义村公用农业3台区【纯农排变】,南木庄公用农业6台区,南木庄公用农业2台区【纯农排变】,南木庄公用农业5台区【纯农排变】,北木庄村公用农业6台区【纯农排变】,北木庄村公用农业4台区【纯农排变】,南木庄公用农业7台区,南木庄公用农业3台区【纯农排变】,北木庄村公用农业2台区【纯农排变】,王家庄公用农业9台区【纯农排变】,仁义村公用农业6台区【纯农排变】,蔡家庄公用照明2台区,王家庄公用照明5台区一,大瓦房公用照明3台区,北木庄公用照明5台区,南木庄村公用照明1台区,西宋庄村公用照明1台区,南木庄公用照明3台区,官家庄公用照明3台区,大瓦房村公用照明2台区,大瓦房公用照明5台区,","scope":"【影响街道/乡镇】留早镇【高危重要客户】无【影响客户】北木庄、仝安庄、管家庄、南木庄、东宋庄、西宋庄、蔡家庄、大瓦房、小瓦房、仁义村、北王家庄、留早北街村","startTime":"2020-04-01 06:30:01","stopDate":"2020-04-01 08:30:00","orgNo":"1340610","typeCode":"电网故障停限电","poweroffArea":"【全线路停电】停西宋庄村公用照明1台区,南木庄公用照明3台区,官家庄公用照明3台区,大瓦房村公用照明2台区,蔡家庄公用照明2台区,王家庄公用照明5台区一,大瓦房公用照明3台区,北木庄公用照明5台区,南木庄村公用照明1台区,大瓦房公用照明5台区,仁义村公用照明2台区,管家庄公用照明2台区,南木庄公用照明2台区,东宋庄村公用照明1台区,王家庄公用照明4台区一,东宋庄公用照明2台区,北王家庄社区公用照明1台区,王家庄村公用照明3台区,仁义村公用照明1台区,仝安庄公用照明2台区,北木庄村公用照明1台区,西宋庄公用照明2台区,王家庄村公用照明1台区一,小瓦房村公用照明1台区,北木庄公用照明4台区,仁义村公用照明3台区,王家庄村公用照明2台区,北王家庄社区公用照明3台区,仝安庄村公用照明1台区,王家庄公用照明7台区一,王家庄公用照明8台区一,王家庄公用照明6台区一,北王家庄社区公用照明2台区,大瓦房村公用照明1台区,北木庄村公用照明2台区,管家庄村公用照明1台区,北木庄公用照明3台区,大瓦房公用照明4台区,蔡家庄村公用照明1台区,南木庄公用农业4台区【纯农排变】,定州市鑫味源食品有限公司变压器2,管家庄公用农业3台区【纯农排变】,大瓦房公用农业6台区【纯农排变】,大瓦房公用农业9台区【纯农排变】,小瓦房公用农业1台区【纯农排变】,大瓦房公用农业16台区【纯农排变】,留早北街公用农业1台区【纯农排变】,定州市留早镇北王家庄村民委员会变压器1,同安庄公用照明3台区,王家庄兔业公司,定州市留早镇人民政府（水厂）变压器,西宋庄公用农业1台区【纯农排变】,北木庄公用农业7台区【纯农排变】,仁义村公用农业5台区【纯农排变】,定州市留早镇北王家庄村民委员会变压器2,仁义村公用农业1台区【纯农排变】,王家庄公用农业8台区【纯农排变】,大瓦房公用农业3台区【纯农排变】,张建光,大瓦房公用农业8台区【纯农排变】,大瓦房公用农业7台区【纯农排变】,同安庄公用农业3台区【纯农排变】,管家庄公用农业4台区【纯农排变】,王家庄公用农业3台区【纯农排变】,西宋庄公用农业2台区【纯农排变】,大瓦房公用农业5台区【纯农排变】,东宋庄公用农业1台区【纯农排变】,西宋庄公用农业3台区【纯农排变】,同安庄公用农业5台区【纯农排变】,留早北街村公用农业3台区【纯农排变】,北木庄村公用农业5台区【纯农排变】,仁义村公用农业3台区【纯农排变】,同安庄公用农业8台区【纯农排变】,大瓦房公用农业4台区【纯农排变】,北木庄村公用农业3台区【纯农排变】,定州市鑫味源食品有限公司变压器,王家庄公用农业4台区【纯农排变】,南木庄公用农业2台区【纯农排变】,同安庄公用照明4台区,大瓦房公用农业13台区【纯农排变】,同安庄公用农业7台区【纯农排变】,南木庄公用农业5台区【纯农排变】,大瓦房公用农业10台区【纯农排变】,大瓦房公用农业12台区【纯农排变】,北木庄村公用农业6台区【纯农排变】,小瓦房公用农业3台区【纯农排变】,北木庄村公用农业4台区【纯农排变】,北木庄村公用农业1台区【纯农排变】,南木庄公用农业7台区,南木庄公用农业3台区【纯农排变】,大瓦房公用农业2台区【纯农排变】,大瓦房公用农业11台区【纯农排变】,同安庄公用农业6台区【纯农排变】,王家庄公用农业1台区【纯农排变】,同安庄公用农业1台区【纯农排变】,南木庄公用农业6台区,0648251866-定州市留早镇北王家庄村村民委员会-专变-172124481-定州市留早镇北王家庄村村民委员会变压器,王家庄公用农业11台","poweroffReason":"【停电原因】由于线路开关掉闸导致３５ＫＶ留早变电站１０ＫＶ５１１王家庄线路全线停电 【变更送电】因抢修进度加快原因，送电时间由１７：００变更为０８：３０ 【发布渠道】９５５９８","powerTime":"2020-04-01 08:18:44","powerComm":"已送电","subsNo":"","lineNo":"","tgNo":"","tgName":null,"infoStatus":"1","orgName":"国网定州市供电公司","typeName":null,"infoStatusName":null,"dateDay":null,"orgNos":null,"nowTime":null,"countyName":null,"streetName":null,"villageName":null,"roadName":null,"communityName":null,"tranName":null,"sdLineName":null,"cityCode":"1340610","cityName":"国网定州市供电公司","provinceCode":null,"stopTime":"2020-04-01 08:30:00","powerType":"全部","powerOffArea":"【全线路停电】停西宋庄村公用照明1台区,南木庄公用照明3台区,官家庄公用照明3台区,大瓦房村公用照明2台区,蔡家庄公用照明2台区,王家庄公用照明5台区一,大瓦房公用照明3台区,北木庄公用照明5台区,南木庄村公用照明1台区,大瓦房公用照明5台区,仁义村公用照明2台区,管家庄公用照明2台区,南木庄公用照明2台区,东宋庄村公用照明1台区,王家庄公用照明4台区一,东宋庄公用照明2台区,北王家庄社区公用照明1台区,王家庄村公用照明3台区,仁义村公用照明1台区,仝安庄公用照明2台区,北木庄村公用照明1台区,西宋庄公用照明2台区,王家庄村公用照明1台区一,小瓦房村公用照明1台区,北木庄公用照明4台区,仁义村公用照明3台区,王家庄村公用照明2台区,北王家庄社区公用照明3台区,仝安庄村公用照明1台区,王家庄公用照明7台区一,王家庄公用照明8台区一,王家庄公用照明6台区一,北王家庄社区公用照明2台区,大瓦房村公用照明1台区,北木庄村公用照明2台区,管家庄村公用照明1台区,北木庄公用照明3台区,大瓦房公用照明4台区,蔡家庄村公用照明1台区,南木庄公用农业4台区【纯农排变】,定州市鑫味源食品有限公司变压器2,管家庄公用农业3台区【纯农排变】,大瓦房公用农业6台区【纯农排变】,大瓦房公用农业9台区【纯农排变】,小瓦房公用农业1台区【纯农排变】,大瓦房公用农业16台区【纯农排变】,留早北街公用农业1台区【纯农排变】,定州市留早镇北王家庄村民委员会变压器1,同安庄公用照明3台区,王家庄兔业公司,定州市留早镇人民政府（水厂）变压器,西宋庄公用农业1台区【纯农排变】,北木庄公用农业7台区【纯农排变】,仁义村公用农业5台区【纯农排变】,定州市留早镇北王家庄村民委员会变压器2,仁义村公用农业1台区【纯农排变】,王家庄公用农业8台区【纯农排变】,大瓦房公用农业3台区【纯农排变】,张建光,大瓦房公用农业8台区【纯农排变】,大瓦房公用农业7台区【纯农排变】,同安庄公用农业3台区【纯农排变】,管家庄公用农业4台区【纯农排变】,王家庄公用农业3台区【纯农排变】,西宋庄公用农业2台区【纯农排变】,大瓦房公用农业5台区【纯农排变】,东宋庄公用农业1台区【纯农排变】,西宋庄公用农业3台区【纯农排变】,同安庄公用农业5台区【纯农排变】,留早北街村公用农业3台区【纯农排变】,北木庄村公用农业5台区【纯农排变】,仁义村公用农业3台区【纯农排变】,同安庄公用农业8台区【纯农排变】,大瓦房公用农业4台区【纯农排变】,北木庄村公用农业3台区【纯农排变】,定州市鑫味源食品有限公司变压器,王家庄公用农业4台区【纯农排变】,南木庄公用农业2台区【纯农排变】,同安庄公用照明4台区,大瓦房公用农业13台区【纯农排变】,同安庄公用农业7台区【纯农排变】,南木庄公用农业5台区【纯农排变】,大瓦房公用农业10台区【纯农排变】,大瓦房公用农业12台区【纯农排变】,北木庄村公用农业6台区【纯农排变】,小瓦房公用农业3台区【纯农排变】,北木庄村公用农业4台区【纯农排变】,北木庄村公用农业1台区【纯农排变】,南木庄公用农业7台区,南木庄公用农业3台区【纯农排变】,大瓦房公用农业2台区【纯农排变】,大瓦房公用农业11台区【纯农排变】,同安庄公用农业6台区【纯农排变】,王家庄公用农业1台区【纯农排变】,同安庄公用农业1台区【纯农排变】,南木庄公用农业6台区,0648251866-定州市留早镇北王家庄村村民委员会-专变-172124481-定州市留早镇北王家庄村村民委员会变压器,王家庄公用农业11台","powerOffReason":"【停电原因】由于线路开关掉闸导致３５ＫＶ留早变电站１０ＫＶ５１１王家庄线路全线停电 【变更送电】因抢修进度加快原因，送电时间由１７：００变更为０８：３０ 【发布渠道】９５５９８","powerOffId":"2020040113000144"},{"poweroffId":2020040113000062,"sgpoweroffId":null,"subsName":"","lineName":"10kV521杜各庄线","pubTranName":"10kV521杜各庄线庄头营39062台区变压器,10kV521杜各庄线庄头营39069台区变压器,10kV521杜各庄线庄头39055台区变压器,10kV521杜各庄线杜各庄39058台区变压器,10kV521杜各庄线杜各庄39001台区变压器,10kV521杜各庄线杜各庄39002台区变压器,10kV521杜各庄线杜各庄39045台区变压器,10kV521杜各庄线庄头营42849台区变压器,10kV521杜各庄线庄头营39068台区变压器,10kV521杜各庄线庄头营39022台区变压器,10kV521杜各庄线杜各庄39006台区变压器,10kV521杜各庄线杜各在39047台区变压器,10kV521杜各庄线庄头营31426台区变压器,10kV521杜各庄线庄头24830台区变压器,10kV521杜各庄线杜各庄村39004台区变压器,10kV521杜各庄线杜各庄39057台区变压器,10kV521杜各庄线庄头39018台区变压器,10kV521杜各庄线庄头39054台区变压器,10kV521杜各庄线杜各庄39048台区变压器,","scope":"【影响街道/乡镇】博野镇【高危重要客户】无【影响客户】杜各庄、庄头、庄头营、北白沙、屯庄","startTime":"2020-04-01 03:38:53","stopDate":"2020-04-01 06:30:00","orgNo":"1340608","typeCode":"电网故障停限电","poweroffArea":"【全线路停电】停10kV521杜各庄线庄头24830台区变压器,10kV521杜各庄线杜各庄村39004台区变压器,10kV521杜各庄线庄头39054台区变压器,10kV521杜各庄线杜各庄39048台区变压器,10kV521杜各庄线庄头营39069台区变压器,10kV521杜各庄线庄头39055台区变压器,10kV521杜各庄线杜各庄39058台区变压器,10kV521杜各庄线杜各庄39001台区变压器,10kV521杜各庄线杜各庄39002台区变压器,10kV521杜各庄线杜各庄39045台区变压器,10kV521杜各庄线庄头营42849台区变压器,10kV521杜各庄线庄头营39068台区变压器,10kV521杜各庄线庄头营39022台区变压器,10kV521杜各庄线庄头营31426台区变压器,10kV521杜各庄线杜各庄39057台区变压器,10kV521杜各庄线庄头39018台区变压器,10kV521杜各庄线庄头营39062台区变压器,10kV521杜各庄线杜各庄39006台区变压器,10kV521杜各庄线杜各在39047台区变压器","poweroffReason":"【停电原因】由于站外开关掉闸导致１１０ＫＶ博野变电站杜各庄５２１线路全线停电【变更送电】因抢修进度加快原因，送电时间由１２：００变更为０６：３０【发布渠道】通过９５５９８发布","powerTime":"2020-04-01 06:04:17","powerComm":"已送电","subsNo":"","lineNo":"","tgNo":"","tgName":null,"infoStatus":"1","orgName":"国网博野县供电公司","typeName":null,"infoStatusName":null,"dateDay":null,"orgNos":null,"nowTime":null,"countyName":null,"streetName":null,"villageName":null,"roadName":null,"communityName":null,"tranName":null,"sdLineName":null,"cityCode":"1340608","cityName":"国网博野县供电公司","provinceCode":null,"stopTime":"2020-04-01 06:30:00","powerType":"全部","powerOffArea":"【全线路停电】停10kV521杜各庄线庄头24830台区变压器,10kV521杜各庄线杜各庄村39004台区变压器,10kV521杜各庄线庄头39054台区变压器,10kV521杜各庄线杜各庄39048台区变压器,10kV521杜各庄线庄头营39069台区变压器,10kV521杜各庄线庄头39055台区变压器,10kV521杜各庄线杜各庄39058台区变压器,10kV521杜各庄线杜各庄39001台区变压器,10kV521杜各庄线杜各庄39002台区变压器,10kV521杜各庄线杜各庄39045台区变压器,10kV521杜各庄线庄头营42849台区变压器,10kV521杜各庄线庄头营39068台区变压器,10kV521杜各庄线庄头营39022台区变压器,10kV521杜各庄线庄头营31426台区变压器,10kV521杜各庄线杜各庄39057台区变压器,10kV521杜各庄线庄头39018台区变压器,10kV521杜各庄线庄头营39062台区变压器,10kV521杜各庄线杜各庄39006台区变压器,10kV521杜各庄线杜各在39047台区变压器","powerOffReason":"【停电原因】由于站外开关掉闸导致１１０ＫＶ博野变电站杜各庄５２１线路全线停电【变更送电】因抢修进度加快原因，送电时间由１２：００变更为０６：３０【发布渠道】通过９５５９８发布","powerOffId":"2020040113000062"},{"poweroffId":2020040113000045,"sgpoweroffId":null,"subsName":"","lineName":"10kV565永新庄纸厂线","pubTranName":"永兴庄第二造纸厂（3）变压器2,","scope":"【影响街道/乡镇】南庄镇【高危重要客户】无【影响客户】永兴庄无纺厂、永兴家园、蠡县东辰织业有限公司","startTime":"2020-04-01 02:11:00","stopDate":"2020-04-01 09:00:00","orgNo":"1340616","typeCode":"电网故障停限电","poweroffArea":"【全线路停电】停蠡县东辰织业有限公司,永兴庄第二造纸厂（2）,永兴庄无纺厂,永兴庄第二造纸厂四号,永兴庄第二造纸厂（3）变压器2,永兴家园变压器,永兴庄第二造纸厂（3）变压器1,永兴庄第二造纸厂（1）","poweroffReason":"【停电原因】由于线路接地导致１１０ＫＶ南庄变电站１０ＫＶ永新庄纸厂５６５线路全线停电【变更送电】因抢修进度加快原因，送电时间由１１：００变更为０９：００【发布渠道】通过９５５９８发布","powerTime":"2020-04-01 08:25:15","powerComm":"已送电","subsNo":"","lineNo":"","tgNo":"","tgName":null,"infoStatus":"1","orgName":"国网蠡县供电公司","typeName":null,"infoStatusName":null,"dateDay":null,"orgNos":null,"nowTime":null,"countyName":null,"streetName":null,"villageName":null,"roadName":null,"communityName":null,"tranName":null,"sdLineName":null,"cityCode":"1340616","cityName":"国网蠡县供电公司","provinceCode":null,"stopTime":"2020-04-01 09:00:00","powerType":"全部","powerOffArea":"【全线路停电】停蠡县东辰织业有限公司,永兴庄第二造纸厂（2）,永兴庄无纺厂,永兴庄第二造纸厂四号,永兴庄第二造纸厂（3）变压器2,永兴家园变压器,永兴庄第二造纸厂（3）变压器1,永兴庄第二造纸厂（1）","powerOffReason":"【停电原因】由于线路接地导致１１０ＫＶ南庄变电站１０ＫＶ永新庄纸厂５６５线路全线停电【变更送电】因抢修进度加快原因，送电时间由１１：００变更为０９：００【发布渠道】通过９５５９８发布","powerOffId":"2020040113000045"},{"poweroffId":2020040113000042,"sgpoweroffId":null,"subsName":"","lineName":"10KV522程委线","pubTranName":"10kV522程委线42078分支42078台区变压器,10kV522程委线26093分支26093台区变压器,10kV522程委线16448分支16448台区变压器,10kV522程委线26005分支26005台区变压器,10kV522程委线主干26006台区变压器,10kV522程委线主干26007台区变压器,10kV522程委线522分支40869台区变压器,10kV522程委线26004分支26004台区变压器,10kV522程委线26093分支26092台区变压器【纯农排变】,","scope":"【影响街道/乡镇】大程委镇【高危重要客户】无【影响客户】程委","startTime":"2020-04-01 02:08:10","stopDate":"2020-04-01 11:00:00","orgNo":"1340608","typeCode":"电网故障停限电","poweroffArea":"【全线路停电】停10kV522程委线主干26007台区变压器,10kV522程委线42078分支42078台区变压器,博野县福源线材有限公司,博野县恒泰铜材有限公司,保定博鑫铜材有限公司,博野县程欢起铁丝经销处,变压器,10kV522程委线16448分支16448台区变压器,程委中学,博野县程委镇宏轩丝网加工厂,程委大六拔丝厂,刘永超,10kV522程委线522分支40869台区变压器,鑫奥线材有限公司,10kV522程委线26093分支26093台区变压器,博野县英达线材有限公司,10kV522程委线26004分支26004台区变压器,10kV522程委线26005分支26005台区变压器,海燕（汇发线缆）,10kV522程委线26093分支26092台区变压器【纯农排变】,10kV522程委线主干26006台区变压器,博野县刘亚明拔丝厂","poweroffReason":"【停电原因】由于站外开关掉闸导致１１０ＫＶ程委变电站程委５２２线路全线停电【变更送电】因故障无法排除原因，送电时间由１０：００变更为１１：００【发布渠道】通过９５５９８发布","powerTime":"2020-04-01 10:05:40","powerComm":"已送电","subsNo":"","lineNo":"","tgNo":"","tgName":null,"infoStatus":"1","orgName":"国网博野县供电公司","typeName":null,"infoStatusName":null,"dateDay":null,"orgNos":null,"nowTime":null,"countyName":null,"streetName":null,"villageName":null,"roadName":null,"communityName":null,"tranName":null,"sdLineName":null,"cityCode":"1340608","cityName":"国网博野县供电公司","provinceCode":null,"stopTime":"2020-04-01 11:00:00","powerType":"全部","powerOffArea":"【全线路停电】停10kV522程委线主干26007台区变压器,10kV522程委线42078分支42078台区变压器,博野县福源线材有限公司,博野县恒泰铜材有限公司,保定博鑫铜材有限公司,博野县程欢起铁丝经销处,变压器,10kV522程委线16448分支16448台区变压器,程委中学,博野县程委镇宏轩丝网加工厂,程委大六拔丝厂,刘永超,10kV522程委线522分支40869台区变压器,鑫奥线材有限公司,10kV522程委线26093分支26093台区变压器,博野县英达线材有限公司,10kV522程委线26004分支26004台区变压器,10kV522程委线26005分支26005台区变压器,海燕（汇发线缆）,10kV522程委线26093分支26092台区变压器【纯农排变】,10kV522程委线主干26006台区变压器,博野县刘亚明拔丝厂","powerOffReason":"【停电原因】由于站外开关掉闸导致１１０ＫＶ程委变电站程委５２２线路全线停电【变更送电】因故障无法排除原因，送电时间由１０：００变更为１１：００【发布渠道】通过９５５９８发布","powerOffId":"2020040113000042"},{"poweroffId":2020040113000040,"sgpoweroffId":null,"subsName":"","lineName":"10kV570四鲍墟线","pubTranName":"南保去综合2台区,西保去综合2台区,西保去综合5台区,南鲍墟综合6台区,西鲍墟综合9台区【冬季供暖设施】,东鲍墟综合6台区,北保去综合2台区,西保去综合4台区,西保去综合3台区,北保去综合1台区,东鲍墟综合7台区,南鲍墟综合7台区,东保去综合4台区,西鲍墟综合7台区,北鲍墟综合8台区,南保去综合1台区,西鲍墟综合6台区,西鲍墟综合8台区,北鲍墟综合9台区,南鲍墟综合4台区,北鲍墟综合4台区,北鲍墟综合6台区,南鲍墟综合5台区,南鲍墟综合8台区,北鲍墟综合10台区【冬季供暖设施】,东鲍墟综合5台区,东保去综合2台区,客户投资_北保去综合3台区,东保去综合3台区,西保去综合1台区,南鲍墟农排8台区,北鲍墟综合5台区,北鲍墟综合7台区,南保去综合3台区,南鲍墟综合9台区,东保去综合1台区,南鲍墟综合10台区,","scope":"【影响街道/乡镇】鲍墟乡【高危重要客户】无【影响客户】东鲍墟村、西鲍墟村、南鲍墟村、北鲍墟村","startTime":"2020-04-01 01:57:00","stopDate":"2020-04-01 04:30:00","orgNo":"1340616","typeCode":"电网故障停限电","poweroffArea":"【全线路停电】停进托,东鲍墟综合7台区,南鲍墟综合7台区,东保去综合4台区,西鲍墟综合7台区,北鲍墟综合8台区,南保去综合1台区,西鲍墟综合6台区,西鲍墟综合8台区,北鲍墟综合9台区,北鲍墟综合10台区【冬季供暖设施】,东保去综合3台区,西保去综合1台区,瑞兴宏景变压器500,南保去综合2台区,西保去综合2台区,西保去综合5台区,南鲍墟综合6台区,西鲍墟综合9台区【冬季供暖设施】,北鲍墟综合4台区,蠡县亿帮洁日化有限公司,北鲍墟综合6台区,南鲍墟综合5台区,南鲍墟综合8台区,东鲍墟综合5台区,东保去综合2台区,客户投资_北保去综合3台区,南鲍墟农排8台区,北鲍墟综合5台区,保去社办厂,北鲍墟综合7台区,保定江雄商品混凝土有限公司变压器,南保去综合3台区,南鲍墟综合9台区,东保去综合1台区,南保红亮,保去中学变压器,南鲍墟综合10台区,瑞兴宏景变压器315,种子站,东鲍墟综合6台区,文瑞,南鲍墟综合4台区,北保去综合2台区,西保去综合4台区,西保去综合3台区,北保去综合1台区","poweroffReason":"【停电原因】由于站内开关掉闸导致１１０ＫＶ南庄变电站１０ＫＶ四鲍墟５７０线路全线停电【变更送电】因抢修进度加快原因，送电时间由１１：００变更为０４：３０【【发布渠道】通过９５５９８发布","powerTime":"2020-04-01 04:05:27","powerComm":"已送电","subsNo":"","lineNo":"","tgNo":"","tgName":null,"infoStatus":"1","orgName":"国网蠡县供电公司","typeName":null,"infoStatusName":null,"dateDay":null,"orgNos":null,"nowTime":null,"countyName":null,"streetName":null,"villageName":null,"roadName":null,"communityName":null,"tranName":null,"sdLineName":null,"cityCode":"1340616","cityName":"国网蠡县供电公司","provinceCode":null,"stopTime":"2020-04-01 04:30:00","powerType":"全部","powerOffArea":"【全线路停电】停进托,东鲍墟综合7台区,南鲍墟综合7台区,东保去综合4台区,西鲍墟综合7台区,北鲍墟综合8台区,南保去综合1台区,西鲍墟综合6台区,西鲍墟综合8台区,北鲍墟综合9台区,北鲍墟综合10台区【冬季供暖设施】,东保去综合3台区,西保去综合1台区,瑞兴宏景变压器500,南保去综合2台区,西保去综合2台区,西保去综合5台区,南鲍墟综合6台区,西鲍墟综合9台区【冬季供暖设施】,北鲍墟综合4台区,蠡县亿帮洁日化有限公司,北鲍墟综合6台区,南鲍墟综合5台区,南鲍墟综合8台区,东鲍墟综合5台区,东保去综合2台区,客户投资_北保去综合3台区,南鲍墟农排8台区,北鲍墟综合5台区,保去社办厂,北鲍墟综合7台区,保定江雄商品混凝土有限公司变压器,南保去综合3台区,南鲍墟综合9台区,东保去综合1台区,南保红亮,保去中学变压器,南鲍墟综合10台区,瑞兴宏景变压器315,种子站,东鲍墟综合6台区,文瑞,南鲍墟综合4台区,北保去综合2台区,西保去综合4台区,西保去综合3台区,北保去综合1台区","powerOffReason":"【停电原因】由于站内开关掉闸导致１１０ＫＶ南庄变电站１０ＫＶ四鲍墟５７０线路全线停电【变更送电】因抢修进度加快原因，送电时间由１１：００变更为０４：３０【【发布渠道】通过９５５９８发布","powerOffId":"2020040113000040"},{"poweroffId":2020040113000037,"sgpoweroffId":null,"subsName":"","lineName":"10kV516三李岗线","pubTranName":"李南综合5台区,李西农排1台区。【纯农排变】,李南综合4台区,李南综合1台区,李南农排14台区【纯农排变】,李南农用,贾庄综合1台区,李南农排1台区【纯农排变】,李南农排10台区【纯农排变】,李南农排2台区【纯农排变】,李南建彬,蠡县圣之垣物业服务有限公司,李南农排8台区【纯农排变】,贾庄综合2台区,李南农排11台区【纯农排变】,李南农排12台区【纯农排变】,天和人家小区,李南农排7台区【纯农排变】,贾庄综合4台区。,贾庄综合3台区。,李南综合3台区,李南农排6台区【纯农排变】,蠡县兴业汽车装饰用品厂变压器,李南农排13台区【纯农排变】,李南综合2台区,李南砖厂,李岗站变,李南农排4台区【纯农排变】,李南农排5台区【纯农排变】,李南综合6台区,花园头综合12台区变压器,李南农排3台区【纯农排变】,李南农排9台区【纯农排变】,花园头农排7台区。【纯农排变】,","scope":"【影响街道/乡镇】北埝头乡【高危重要客户】无【影响客户】李南村、贾庄村、李西村、李岗村","startTime":"2020-04-01 01:53:00","stopDate":"2020-04-01 04:30:00","orgNo":"1340616","typeCode":"电网故障停限电","poweroffArea":"【全线路停电】停李南农排14台区【纯农排变】,李南农排3台区【纯农排变】,李南砖厂,李南农排8台区【纯农排变】,李南农排2台区【纯农排变】,李南农用,李南农排12台区【纯农排变】,李南农排7台区【纯农排变】,李南综合1台区,李南农排10台区【纯农排变】,李南建彬,李南综合3台区,李岗站变,李南农排5台区【纯农排变】,李南农排9台区【纯农排变】,李南农排4台区【纯农排变】,李南综合6台区,贾庄综合2台区,李南农排13台区【纯农排变】,贾庄综合1台区,李南农排11台区【纯农排变】,贾庄综合3台区。,李南综合4台区,李西农排1台区。【纯农排变】,李南综合2台区,李南农排6台区【纯农排变】,花园头农排7台区。【纯农排变】,天和人家小区,蠡县兴业汽车装饰用品厂变压器,蠡县圣之垣物业服务有限公司,李南农排1台区【纯农排变】,李南综合5台区,花园头综合12台区变压器,贾庄综合4台区。","poweroffReason":"【停电原因】由于站外开关掉闸导致３５ＫＶ李岗变电站１０ＫＶ三李岗５１６线路全线停电【变更送电】因抢修进度加快原因，送电时间由１１：００变更为０４：３０【发布渠道】通过９５５９８发布","powerTime":"2020-04-01 04:04:09","powerComm":"已送电","subsNo":"","lineNo":"","tgNo":"","tgName":null,"infoStatus":"1","orgName":"国网蠡县供电公司","typeName":null,"infoStatusName":null,"dateDay":null,"orgNos":null,"nowTime":null,"countyName":null,"streetName":null,"villageName":null,"roadName":null,"communityName":null,"tranName":null,"sdLineName":null,"cityCode":"1340616","cityName":"国网蠡县供电公司","provinceCode":null,"stopTime":"2020-04-01 04:30:00","powerType":"全部","powerOffArea":"【全线路停电】停李南农排14台区【纯农排变】,李南农排3台区【纯农排变】,李南砖厂,李南农排8台区【纯农排变】,李南农排2台区【纯农排变】,李南农用,李南农排12台区【纯农排变】,李南农排7台区【纯农排变】,李南综合1台区,李南农排10台区【纯农排变】,李南建彬,李南综合3台区,李岗站变,李南农排5台区【纯农排变】,李南农排9台区【纯农排变】,李南农排4台区【纯农排变】,李南综合6台区,贾庄综合2台区,李南农排13台区【纯农排变】,贾庄综合1台区,李南农排11台区【纯农排变】,贾庄综合3台区。,李南综合4台区,李西农排1台区。【纯农排变】,李南综合2台区,李南农排6台区【纯农排变】,花园头农排7台区。【纯农排变】,天和人家小区,蠡县兴业汽车装饰用品厂变压器,蠡县圣之垣物业服务有限公司,李南农排1台区【纯农排变】,李南综合5台区,花园头综合12台区变压器,贾庄综合4台区。","powerOffReason":"【停电原因】由于站外开关掉闸导致３５ＫＶ李岗变电站１０ＫＶ三李岗５１６线路全线停电【变更送电】因抢修进度加快原因，送电时间由１１：００变更为０４：３０【发布渠道】通过９５５９８发布","powerOffId":"2020040113000037"},{"poweroffId":2020040113000030,"sgpoweroffId":null,"subsName":"","lineName":"10kV516东西营线","pubTranName":"东营综合4台区,东营综合1台区,东营综合9台区,东营综合5台区,西营农排3台区【纯农排变】,西营综合7台区,西营综合6台区,西营综合1台区,东营综合8台区,西营农排9台区【纯农排变】,西营综合3台区,客户投资_西营综合5台区,东营综合11台区,客户投资_东营综合2台区,西营农排1台区变压器,西营农排4台区【纯农排变】,东营综合12台区,西营综合2台区,西营综合4台区,东营综合7台区,东营综合10台区【冬季供暖设施】,东营综合6台区,西营综合8台区,西营农排7台区【纯农排变】,客户投资_东营综合3台区,","scope":"【影响街道/乡镇】林堡乡【高危重要客户】无【影响客户】西营村、东营村","startTime":"2020-04-01 01:47:00","stopDate":"2020-04-01 09:00:00","orgNo":"1340616","typeCode":"电网故障停限电","poweroffArea":"【全线路停电】停东营综合4台区,西营农排1台区变压器,西营农排4台区【纯农排变】,东营综合12台区,东营综合8台区,东营综合6台区,西营农排9台区【纯农排变】,西营综合3台区,客户投资_西营综合5台区,大朋,东营温馨家园,林堡5号,东营村委会,东营浇地1号,西营综合6台区,西营农排6台区【纯农排变】,西营农排5台区【纯农排变】,西营综合1台区,东营综合5台区,客户投资_东营综合2台区,东营综合1台区,西营农排3台区【纯农排变】,西营综合7台区,东营综合11台区,林堡六,东营综合10台区【冬季供暖设施】,西营综合8台区,西营农排7台区【纯农排变】,西营综合4台区,东营村浇地5号东,东营浇地10号,东营浇地7号西,0469455377-东营村浇地五号-专变-46813156-东营村浇地5号,东营浇地8号,东营浇地7号,东营浇地6号东,东营浇地3号,东营浇地2号,东营村东北,东营浇地6号,东营浇地4号,东营浇地3号东,东营浇地10号东,东营综合7台区,渔池,东营综合9台区,东营浇地9号,蠡县磊鑫砂石料场,东营砖厂2,东营砖厂1,西营综合2台区,客户投资_东营综合3台区,保定德鑫纺织品制造有限公司变压器","poweroffReason":"【停电原因】由于线路接地导致３５ＫＶ林堡变电站１０ＫＶ东西营５１６线路全线停电【变更送电】因抢修进度加快原因，送电时间由１１：００变更为０９：００【发布渠道】通过９５５９８发布","powerTime":"2020-04-01 08:26:03","powerComm":"已送电","subsNo":"","lineNo":"","tgNo":"","tgName":null,"infoStatus":"1","orgName":"国网蠡县供电公司","typeName":null,"infoStatusName":null,"dateDay":null,"orgNos":null,"nowTime":null,"countyName":null,"streetName":null,"villageName":null,"roadName":null,"communityName":null,"tranName":null,"sdLineName":null,"cityCode":"1340616","cityName":"国网蠡县供电公司","provinceCode":null,"stopTime":"2020-04-01 09:00:00","powerType":"全部","powerOffArea":"【全线路停电】停东营综合4台区,西营农排1台区变压器,西营农排4台区【纯农排变】,东营综合12台区,东营综合8台区,东营综合6台区,西营农排9台区【纯农排变】,西营综合3台区,客户投资_西营综合5台区,大朋,东营温馨家园,林堡5号,东营村委会,东营浇地1号,西营综合6台区,西营农排6台区【纯农排变】,西营农排5台区【纯农排变】,西营综合1台区,东营综合5台区,客户投资_东营综合2台区,东营综合1台区,西营农排3台区【纯农排变】,西营综合7台区,东营综合11台区,林堡六,东营综合10台区【冬季供暖设施】,西营综合8台区,西营农排7台区【纯农排变】,西营综合4台区,东营村浇地5号东,东营浇地10号,东营浇地7号西,0469455377-东营村浇地五号-专变-46813156-东营村浇地5号,东营浇地8号,东营浇地7号,东营浇地6号东,东营浇地3号,东营浇地2号,东营村东北,东营浇地6号,东营浇地4号,东营浇地3号东,东营浇地10号东,东营综合7台区,渔池,东营综合9台区,东营浇地9号,蠡县磊鑫砂石料场,东营砖厂2,东营砖厂1,西营综合2台区,客户投资_东营综合3台区,保定德鑫纺织品制造有限公司变压器","powerOffReason":"【停电原因】由于线路接地导致３５ＫＶ林堡变电站１０ＫＶ东西营５１６线路全线停电【变更送电】因抢修进度加快原因，送电时间由１１：００变更为０９：００【发布渠道】通过９５５９８发布","powerOffId":"2020040113000030"},{"poweroffId":2020040113000026,"sgpoweroffId":null,"subsName":"","lineName":"10kV511杨南线","pubTranName":"杨西综合2台区,杨西综合7台区,杨南综合6台区,杨南综合11台区,杨南综合4台区,杨南综合5台区,杨南综合12台区,杨南农排4台区【纯农排变】,杨南综合9台区,杨南农排1台区【纯农排变】,杨南农排2台区【纯农排变】,杨西农排1台区【纯农排变】,杨南综合10台区,杨南综合7台区,杨南综合2台区,元南农排7台区【纯农排变】,杨南综合8台区,杨南综合1台区,杨南农排8台区【纯农排变】,杨西农排7台区【纯农排变】,杨南综合3台区,杨南农排3台区【纯农排变】,","scope":"【影响街道/乡镇】桑元镇【高危重要客户】无【影响客户】杨南村、杨东村、元南村、杨西村、大杨庄村","startTime":"2020-04-01 01:35:00","stopDate":"2020-04-01 04:30:00","orgNo":"1340616","typeCode":"电网故障停限电","poweroffArea":"【全线路停电】停杨南养猪场,杨南面粉厂,元南农排7台区【纯农排变】,杨南综合2台区,杨西农排1台区【纯农排变】,占文东,杨南综合9台区,杨南综合1台区,杨南农排8台区【纯农排变】,杨南综合7台区,杨南综合5台区,杨南综合6台区,蠡县光辉纺织厂,泉润纺织新增160KVA变压器,树子,杨西农排7台区【纯农排变】,蠡县泉润纺织有限公司,杨南综合3台区,杨南综合10台区,杨南农排2台区【纯农排变】,杨南综合8台区,杨南农排4台区【纯农排变】,杨西综合2台区,杨南农排1台区【纯农排变】,杨南综合12台区,杨西综合7台区,杨南农排3台区【纯农排变】,杨南综合4台区,杨南综合11台区,宏业丝棉厂","poweroffReason":"【停电原因】由于站内开关掉闸导致３５ＫＶ桑园变电站１０ＫＶ杨南５１１线路全线停电【变更送电】因抢修进度加快原因，送电时间由１１：００变更为０４：３０【发布渠道】通过９５５９８发布","powerTime":"2020-04-01 04:03:03","powerComm":"已送电","subsNo":"","lineNo":"","tgNo":"","tgName":null,"infoStatus":"1","orgName":"国网蠡县供电公司","typeName":null,"infoStatusName":null,"dateDay":null,"orgNos":null,"nowTime":null,"countyName":null,"streetName":null,"villageName":null,"roadName":null,"communityName":null,"tranName":null,"sdLineName":null,"cityCode":"1340616","cityName":"国网蠡县供电公司","provinceCode":null,"stopTime":"2020-04-01 04:30:00","powerType":"全部","powerOffArea":"【全线路停电】停杨南养猪场,杨南面粉厂,元南农排7台区【纯农排变】,杨南综合2台区,杨西农排1台区【纯农排变】,占文东,杨南综合9台区,杨南综合1台区,杨南农排8台区【纯农排变】,杨南综合7台区,杨南综合5台区,杨南综合6台区,蠡县光辉纺织厂,泉润纺织新增160KVA变压器,树子,杨西农排7台区【纯农排变】,蠡县泉润纺织有限公司,杨南综合3台区,杨南综合10台区,杨南农排2台区【纯农排变】,杨南综合8台区,杨南农排4台区【纯农排变】,杨西综合2台区,杨南农排1台区【纯农排变】,杨南综合12台区,杨西综合7台区,杨南农排3台区【纯农排变】,杨南综合4台区,杨南综合11台区,宏业丝棉厂","powerOffReason":"【停电原因】由于站内开关掉闸导致３５ＫＶ桑园变电站１０ＫＶ杨南５１１线路全线停电【变更送电】因抢修进度加快原因，送电时间由１１：００变更为０４：３０【发布渠道】通过９５５９８发布","powerOffId":"2020040113000026"},{"poweroffId":2020040113000023,"sgpoweroffId":null,"subsName":"","lineName":"北淇村536","pubTranName":"农|18034【纯农排变】,农|18046【纯农排变】,农|18022【纯农排变】,东步乐村7#村南（农）【纯农排变】,刘家庄村2#|村南,综|18036,综|18001,刘家庄村5#村东（农）【纯农排变】,南淇村1#|村中,东步乐村4#村东（综）,综|18037,综|18043,农|18045【纯农排变】,南河北村1#|村北,港里村7#村北（综）,综|18026,北河北村2#|村西,北河北村1#|村中,东步乐村6#村中（综）,胡庄村1#|村中,林泉村1#|村中,综|18029,综|18021,农|18042【纯农排变】,远台村3#|大峪,北河北村西变压器,林泉村9#村西（综）,刘家庄4#村东（综）【纯农排变】,东渭庄村1#|村中,北河北村3#|村东,南河北村2#|村南,南河北村4#村东（综）,林泉村东变压器,刘家庄村1#|村中,林泉村3#|村西1,综|18031,东步乐村3#|村东北2号,林泉村8#村南（综）,综|18035,东渭庄村2#|村东,农|18023【纯农排变】,港里村6#|村北,远台村9#|大峪东,港里村8#村南（综）,林泉村6#|村东2,综|18082,综,东步乐村2#|村北,刘家庄村3#|村北,","scope":"【影响街道/乡镇】塘湖镇、西山北乡【高危重要客户】无【影响客户】北河北村、东渭庄村、西渭庄村、北淇村、南淇村、刘家庄村、西山北村、塔峪村、沙江村、港里村、远台村、西步乐村、林泉村、南河北村、胡庄村、山西村、东步乐村","startTime":"2020-04-01 01:30:37","stopDate":"2020-04-01 03:10:00","orgNo":"1340625","typeCode":"电网故障停限电","poweroffArea":"【全线路停电】停北河北村1#|村中,综|18001,北河北村西变压器,远台村3#|大峪,综|18082,远台村9#|大峪东,农|18088【纯农排变】,东步乐村3#|村东北2号,农|18023【纯农排变】,港里村5#|村西,胡庄村1#|村中,综|18035,林泉村7#|村西2,林泉村1#|村中,综|18036,远台村7#|村北2,林泉村9#村西（综）,南河北村4#村东（综）,南淇村1#|村中,南淇村2#|村西沙江村1#|村中,综|18051,沙江村2#村东（综）,沙江村3#|村西,农|18053,山西村2#村南（农）【纯农排变】,山西村3#|村西,塔峪村2#|村北西山北村8#|村南2,塔峪村1#|村中,西渭庄村3#|村南,农|18078【纯农排变】,远台村1#|村南","poweroffReason":"【停电原因】由于线路接地导致３５ＫＶ步乐变电站北淇村５３６线路全线停电【变更送电】因抢修进度加快原因，送电时间由０４：００变更为０３：１０【发布渠道】通过９５５９８发布","powerTime":"2020-04-01 02:48:32","powerComm":"已送电","subsNo":"","lineNo":"","tgNo":"","tgName":null,"infoStatus":"1","orgName":"国网易县供电公司","typeName":null,"infoStatusName":null,"dateDay":null,"orgNos":null,"nowTime":null,"countyName":null,"streetName":null,"villageName":null,"roadName":null,"communityName":null,"tranName":null,"sdLineName":null,"cityCode":"1340625","cityName":"国网易县供电公司","provinceCode":null,"stopTime":"2020-04-01 03:10:00","powerType":"全部","powerOffArea":"【全线路停电】停北河北村1#|村中,综|18001,北河北村西变压器,远台村3#|大峪,综|18082,远台村9#|大峪东,农|18088【纯农排变】,东步乐村3#|村东北2号,农|18023【纯农排变】,港里村5#|村西,胡庄村1#|村中,综|18035,林泉村7#|村西2,林泉村1#|村中,综|18036,远台村7#|村北2,林泉村9#村西（综）,南河北村4#村东（综）,南淇村1#|村中,南淇村2#|村西沙江村1#|村中,综|18051,沙江村2#村东（综）,沙江村3#|村西,农|18053,山西村2#村南（农）【纯农排变】,山西村3#|村西,塔峪村2#|村北西山北村8#|村南2,塔峪村1#|村中,西渭庄村3#|村南,农|18078【纯农排变】,远台村1#|村南","powerOffReason":"【停电原因】由于线路接地导致３５ＫＶ步乐变电站北淇村５３６线路全线停电【变更送电】因抢修进度加快原因，送电时间由０４：００变更为０３：１０【发布渠道】通过９５５９８发布","powerOffId":"2020040113000023"}],"pageModel":{"pageNow":210,"totalCount":10973,"totalPage":1098,"tableRows":0,"pageCount":10,"beginCount":2090},"isExperi":"1"}