{"message":"","today":"2020-06-15","seleList":[{"poweroffId":2020040113000015,"sgpoweroffId":null,"subsName":"","lineName":"大教台线526","pubTranName":"02024|西龙化7综合,西龙化鸡场新增综合,大教台村西北新增,02041|北龙化西-23综合,02020|南教台19综合,02022|南佛堂西22综合,西龙化大队新增,南教台村西综合,02091|南龙化西北93综合,02092|西龙化村西94综合,西龙化村里新增综合,02075|大教台村西89综合,北龙化西南新增变压器,南佛堂村南综合,北龙化南新增综合,02036|南龙化北-24综合,南龙化村西综合,02103|石氏村东农排994【纯农排变】,南佛堂村西北新增变压器,02076|大教台村北90综合,02002|北佛堂村西4综合,02040|北龙化南 -44,北龙化村西新增变压器,北龙化西22综合,02090|南龙化西南92综合,大教台村北新增变压器,","scope":"【影响街道/乡镇】龙化乡 【高危重要客户】无 【影响客户】南佛堂、北佛堂村西、大教台村西北、南龙化村西、南教台、西龙化村","startTime":"2020-04-01 00:52:07","stopDate":"2020-04-01 07:00:00","orgNo":"1340613","typeCode":"电网故障停限电","poweroffArea":"【全线路停电】停中国石油华北油田公司第一采油厂,西龙化村里新增综合,02126|南佛堂农业开发【纯农排变】,北佛堂(村东),苑俊兴包地,南教台,大教台农业开发1,南教台农业开发,02117|北龙化农排【纯农排变】,02075|大教台村西89综合,中国石油天然气股份有限公司华北油田分公司变压器,02127|西龙化农排【纯农排变】,南教台村西综合,02091|南龙化西北93综合,大教台农业开发3,大教台西南,02125|南佛堂农排【纯农排变】,南龙化农排11号【纯农排变】,大教台农业开发2变压器,02024|西龙化7综合,02092|西龙化村西94综合,高阳县中鼎新型建筑材料制造有限公司变压器,北佛堂农业开发变压器,南龙化农排9号【纯农排变】,南龙化农排12号【纯农排变】,大教台农业开发6,02022|南佛堂西22综合,西龙化大队新增,02036|南龙化北-24综合,南龙化村西综合,南佛堂村西北新增变压器,02076|大教台村北90综合,石庄8号农排【纯农排变】,02093|南龙化农业526.91【纯农排变】,02040|北龙化南 -44,北龙化村西新增变压器,0680109462-北佛堂村委会-专变-219705732-北佛堂村委会变压器,南龙化农排13号【纯农排变】,北龙化南新增综合,大教台农业开发4,龙化砖厂,龙化砖厂(子),中国石油华北油田第一采油厂雁翎采油作业区,西龙化鸡场新增综合,大教台村西北新增,中国石油天然气股份有限公司华北油田分公司变压器01,02041|北龙化西-23综合,西龙化西南农排【纯农排变】,02020|南教台19综合,大教台农业开发7,大教台农业开发5,02103|石氏村东农排994【纯农排变】,02002|北佛堂村西4综合,02054|石氏大队88农业【纯农排变】,东留果园,北龙化西22综合,02090|南龙化西南92综合,大教台村北新增变压器,02124|南佛堂村西(水)农业【纯农排变】,南龙化新增农业2号【纯农排变】,北龙化西南新增变压器,南佛堂村南综合","poweroffReason":"【停电原因】由于汽车撞杆导致１１０ＫＶ旧城变电站大教台５２６线路全线停电【变更送电】因抢修进度加快原因，送电时间由１１：００变更为０７：００【发布渠道】通过９５５９８发布","powerTime":"2020-04-01 06:41:22","powerComm":"已送电","subsNo":"","lineNo":"","tgNo":"","tgName":null,"infoStatus":"1","orgName":"国网高阳县供电公司","typeName":null,"infoStatusName":null,"dateDay":null,"orgNos":null,"nowTime":null,"countyName":null,"streetName":null,"villageName":null,"roadName":null,"communityName":null,"tranName":null,"sdLineName":null,"cityCode":"1340613","cityName":"国网高阳县供电公司","provinceCode":null,"stopTime":"2020-04-01 07:00:00","powerType":"全部","powerOffArea":"【全线路停电】停中国石油华北油田公司第一采油厂,西龙化村里新增综合,02126|南佛堂农业开发【纯农排变】,北佛堂(村东),苑俊兴包地,南教台,大教台农业开发1,南教台农业开发,02117|北龙化农排【纯农排变】,02075|大教台村西89综合,中国石油天然气股份有限公司华北油田分公司变压器,02127|西龙化农排【纯农排变】,南教台村西综合,02091|南龙化西北93综合,大教台农业开发3,大教台西南,02125|南佛堂农排【纯农排变】,南龙化农排11号【纯农排变】,大教台农业开发2变压器,02024|西龙化7综合,02092|西龙化村西94综合,高阳县中鼎新型建筑材料制造有限公司变压器,北佛堂农业开发变压器,南龙化农排9号【纯农排变】,南龙化农排12号【纯农排变】,大教台农业开发6,02022|南佛堂西22综合,西龙化大队新增,02036|南龙化北-24综合,南龙化村西综合,南佛堂村西北新增变压器,02076|大教台村北90综合,石庄8号农排【纯农排变】,02093|南龙化农业526.91【纯农排变】,02040|北龙化南 -44,北龙化村西新增变压器,0680109462-北佛堂村委会-专变-219705732-北佛堂村委会变压器,南龙化农排13号【纯农排变】,北龙化南新增综合,大教台农业开发4,龙化砖厂,龙化砖厂(子),中国石油华北油田第一采油厂雁翎采油作业区,西龙化鸡场新增综合,大教台村西北新增,中国石油天然气股份有限公司华北油田分公司变压器01,02041|北龙化西-23综合,西龙化西南农排【纯农排变】,02020|南教台19综合,大教台农业开发7,大教台农业开发5,02103|石氏村东农排994【纯农排变】,02002|北佛堂村西4综合,02054|石氏大队88农业【纯农排变】,东留果园,北龙化西22综合,02090|南龙化西南92综合,大教台村北新增变压器,02124|南佛堂村西(水)农业【纯农排变】,南龙化新增农业2号【纯农排变】,北龙化西南新增变压器,南佛堂村南综合","powerOffReason":"【停电原因】由于汽车撞杆导致１１０ＫＶ旧城变电站大教台５２６线路全线停电【变更送电】因抢修进度加快原因，送电时间由１１：００变更为０７：００【发布渠道】通过９５５９８发布","powerOffId":"2020040113000015"},{"poweroffId":2020040113000010,"sgpoweroffId":null,"subsName":"","lineName":"菜园537","pubTranName":"长峪村8#【纯农排变】,沙岭村4#村中,长峪8队西变,于家庄村3#村北,西山北村3#,西山北村1#,北娄山村7#村中,长峪村1#,长峪村4#,沙岭村3#,西山北村2#,团山村1#,于家庄村2#,菜园村8#三队西,菜园村3#,西山北村5#,长峪村10#,长峪村6#|8队,西山北村6#,菜园村4#【纯农排变】,于家庄村1#,南娄山村8#村西,长峪村9#南井,北娄山村5#,南娄山村1#,长峪村5#,长峪村3#,于家庄村6#村北,长峪6队井变压器【纯农排变】,西步乐10#村南,","scope":"【影响街道/乡镇】西山北乡 【高危重要客户】无 【影响客户】西山北村、西步乐村、东步乐村、团山村、于家庄村、南娄山村、长峪村、菜园村、沙岭村、北娄山村、西娄山村","startTime":"2020-04-01 00:40:31","stopDate":"2020-04-01 03:10:00","orgNo":"1340625","typeCode":"电网故障停限电","poweroffArea":"【全线路停电】停西山北村2#,长峪村6#|8队,南娄山村10#【纯农排变】,河北青山种禽有限公司高压器,长峪8队西变,易县宏发钙粉厂(许建民),长峪8队北井【纯农排变】,易县通亿石材厂(郭连成),长峪村7#【纯农排变】,易县邮政局山北邮政支局,学峰养鸡厂,长峪村5#,易县永兴石材加工厂315KVA,西山北村6#,沙岭村3#,于家庄村1#,菜园村新井7#【纯农排变】,西山北乡人民政府变压器,于家庄村3#村北,长峪村1#,菜园村3#,于家庄村巩宝田西岗变压器,北娄山村7#村中,菜园村4#【纯农排变】,长峪6队井变压器【纯农排变】,于家庄村4#【纯农排变】,长峪村3#,磊鑫石材厂2#变,西步乐10#村南,长峪村10#,河北建设集团有限公司-长峪630KVA,北娄山林场,鹏程石板厂(隰连国),沙岭村4#村中,菜园村杨宁变压器,龙树石材厂,西步乐村8#新井【纯农排变】,菜园杨树岭,西山北村3#,易县西山北春山石材加工厂变压器,长峪村4#,西山北中心小学变压器,于家庄村6#村北,港里村卢忠凯变压器,0674599321-西山北村敬洪利-专变-215869052-西山北村敬洪利250KVA,敬玉河石板厂(丰磊),团山村1#,长峪村8#【纯农排变】,敬玉河石板厂2#,信诚石材厂(隰富山),0681103885-易县讴文农业开发有限责任公司-专变-219717662-易县讴文农业开发有限责任公司100KVA,菜园1队北井【纯农排变】,易县永幸石材厂,黄忠石材加工厂(80KVA),长峪村9#南井,西山北兄弟石板厂,合利石板厂(李连合),中国移动通信集团河北有限公司易县分公司安装变压器,顺达造纸厂,西山北宇达石材厂(王福详),五一面粉厂(南井),易县青山种禽有限公司变压器,北娄山村8#村北【纯农排变】,西步乐村9#【纯农排变】,敬玉河石板厂3#,西山北村10#【纯农排变】,五一面粉厂(50),西山北村郭成群变压器,易县西山北乡人民政府变压器,0677996301-南娄山村牛宝同-专变-219383403-南娄山村牛宝同50KVA,于家庄村2#,西山北石板厂(郭士彪),于家庄南石材厂,易县扶贫福利配件厂(赵海山),程宏石材长(李春喜),南娄山村1#,丰磊石板厂100(敬玉河),郭伟忠石板厂,于家庄村巩宝田北岗变压器,北娄山村5#,菜园村8#三队西,黄忠石材加工厂(50KVA),黄虎石板厂,南娄山村8#村西,保定泽疆旅游开发有限公司变压器,西山北村5#,西山北村1#,沙岭村2#【纯农排变】,南娄山村3#【纯农排变】,南娄山村7#【纯农排变】","poweroffReason":"【停电原因】由于线路接地导致３５ＫＶ步乐变电站菜园５３７线路全线停电【变更送电】因抢修进度加快原因，送电时间由０５：００变更为０３：１０【发布渠道】通过９５５９８发布","powerTime":"2020-04-01 02:44:16","powerComm":"已送电","subsNo":"","lineNo":"","tgNo":"","tgName":null,"infoStatus":"1","orgName":"国网易县供电公司","typeName":null,"infoStatusName":null,"dateDay":null,"orgNos":null,"nowTime":null,"countyName":null,"streetName":null,"villageName":null,"roadName":null,"communityName":null,"tranName":null,"sdLineName":null,"cityCode":"1340625","cityName":"国网易县供电公司","provinceCode":null,"stopTime":"2020-04-01 03:10:00","powerType":"全部","powerOffArea":"【全线路停电】停西山北村2#,长峪村6#|8队,南娄山村10#【纯农排变】,河北青山种禽有限公司高压器,长峪8队西变,易县宏发钙粉厂(许建民),长峪8队北井【纯农排变】,易县通亿石材厂(郭连成),长峪村7#【纯农排变】,易县邮政局山北邮政支局,学峰养鸡厂,长峪村5#,易县永兴石材加工厂315KVA,西山北村6#,沙岭村3#,于家庄村1#,菜园村新井7#【纯农排变】,西山北乡人民政府变压器,于家庄村3#村北,长峪村1#,菜园村3#,于家庄村巩宝田西岗变压器,北娄山村7#村中,菜园村4#【纯农排变】,长峪6队井变压器【纯农排变】,于家庄村4#【纯农排变】,长峪村3#,磊鑫石材厂2#变,西步乐10#村南,长峪村10#,河北建设集团有限公司-长峪630KVA,北娄山林场,鹏程石板厂(隰连国),沙岭村4#村中,菜园村杨宁变压器,龙树石材厂,西步乐村8#新井【纯农排变】,菜园杨树岭,西山北村3#,易县西山北春山石材加工厂变压器,长峪村4#,西山北中心小学变压器,于家庄村6#村北,港里村卢忠凯变压器,0674599321-西山北村敬洪利-专变-215869052-西山北村敬洪利250KVA,敬玉河石板厂(丰磊),团山村1#,长峪村8#【纯农排变】,敬玉河石板厂2#,信诚石材厂(隰富山),0681103885-易县讴文农业开发有限责任公司-专变-219717662-易县讴文农业开发有限责任公司100KVA,菜园1队北井【纯农排变】,易县永幸石材厂,黄忠石材加工厂(80KVA),长峪村9#南井,西山北兄弟石板厂,合利石板厂(李连合),中国移动通信集团河北有限公司易县分公司安装变压器,顺达造纸厂,西山北宇达石材厂(王福详),五一面粉厂(南井),易县青山种禽有限公司变压器,北娄山村8#村北【纯农排变】,西步乐村9#【纯农排变】,敬玉河石板厂3#,西山北村10#【纯农排变】,五一面粉厂(50),西山北村郭成群变压器,易县西山北乡人民政府变压器,0677996301-南娄山村牛宝同-专变-219383403-南娄山村牛宝同50KVA,于家庄村2#,西山北石板厂(郭士彪),于家庄南石材厂,易县扶贫福利配件厂(赵海山),程宏石材长(李春喜),南娄山村1#,丰磊石板厂100(敬玉河),郭伟忠石板厂,于家庄村巩宝田北岗变压器,北娄山村5#,菜园村8#三队西,黄忠石材加工厂(50KVA),黄虎石板厂,南娄山村8#村西,保定泽疆旅游开发有限公司变压器,西山北村5#,西山北村1#,沙岭村2#【纯农排变】,南娄山村3#【纯农排变】,南娄山村7#【纯农排变】","powerOffReason":"【停电原因】由于线路接地导致３５ＫＶ步乐变电站菜园５３７线路全线停电【变更送电】因抢修进度加快原因，送电时间由０５：００变更为０３：１０【发布渠道】通过９５５９８发布","powerOffId":"2020040113000010"},{"poweroffId":2020040113000007,"sgpoweroffId":null,"subsName":"","lineName":"10kV516耿庄线","pubTranName":"西绪口综合2台区变压器,耿庄综合5台区变压器,耿庄综合16台区变压器,耿庄综合4台区变压器,耿庄综合10台区变压器,高佐综合6台区变压器,高佐综合10台区变压器,耿庄综合17台区柱上柱上变压器,高佐农排1台区变压器【纯农排变】,高佐综合5台区变压器,高佐综合12台区变压器,耿庄综合1台区变压器,耿庄综合6台区变压器,曲堤庄综合8台区变压器,耿庄综合12台区变压器,南绪口综合6台区变压器,北绪口农排8【纯农排变】,高佐综合11台区变压器,南绪口综合10台区变压器,耿庄综合7台区变压器,南绪口综合4台区变压器,高佐综合4台区变压器,高佐综合3台区变压器,耿庄综合9台区变压器,高佐综合7台区变压器,高佐综合15台区变压器,高佐综合14台区变压器,南绪口综合3台区变压器,耿庄综合8台区变压器,耿庄综合13台区变压器,耿庄农排10台区【纯农排变】,耿庄综合2台区变压器,高佐综合9台区变压器,西绪口综合1台区变压器,高佐综合2台区变压器,高佐综合16台区柱上变压器,耿庄综合15台区变压器,南绪口综合11台区变压器【冬季供暖设施】,高佐综合13台区变压器,耿庄综合3台区变压器,西绪口综合3台区变压器,高佐综合8台区变压器,耿庄综合14台区变压器【冬季供暖设施】,南绪口综合9台区变压器,西绪口综合4台区柱上变压器,南绪口综合5台区变压器,南绪口综合1台区变压器,耿庄综合11台区变压器,南绪口综合8台区变压器,高佐综合1台区变压器,","scope":"【影响街道/乡镇】大曲堤乡【高危重要客户】无【影响客户】西绪口村、曲堤庄村外、耿庄村、高佐村、北绪口、南绪口村","startTime":"2020-04-01 00:29:00","stopDate":"2020-04-01 02:00:00","orgNo":"1340616","typeCode":"电网故障停限电","poweroffArea":"【全线路停电】停耿庄综合2台区变压器,高佐综合9台区变压器,西绪口综合1台区变压器,蠡县达盛昌养羊农民专业合作社变压器,高佐综合2台区变压器,0630170353-蠡县金海麻山药农民专业合作社-专变-141692335-蠡县汇恩肉羊屠宰厂变压器80,高佐综合16台区柱上变压器,耿庄综合15台区变压器,南绪口综合11台区变压器【冬季供暖设施】,高佐综合13台区变压器,耿庄综合3台区变压器,蠡县根生麻山药农民专业合作社,西绪口综合3台区变压器,0469435144-鑫源制革厂-专变-46810304-鑫源,王普毛巾厂,0469432376-鑫华制革厂-专变-46810308-鑫华,（宏源）光大有限公司,亿德利,0469432884-蠡县留史朱佐鹏源皮革厂-专变-46810309-蠡县留史朱佐鹏源皮革厂,0565966139-中国移动通信集团河北有限公司蠡县分公司-专变-118727763-中国移动通信集团河北有限公司蠡县分公司耿庄村变压器,昆仑东,0469435131-万顺制革厂-专变-46810249-万顺厂,高佐综合1台区变压器,鑫龙（2）,西绪口综合2台区变压器,0628807151-蠡县南绪口老五麻山药专业合作社-专变-141400864-蠡县南绪口老五麻山药专业合作社,耿庄综合5台区变压器,制污厂北,耿庄综合16台区变压器,耿庄综合4台区变压器,神龙制衣有限公司,0469434574-强盛制革厂-专变-46810389-强盛厂,耿庄综合10台区变压器,0630170353-蠡县金海麻山药农民专业合作社-专变-141689200-蠡县汇恩肉羊屠宰厂变压器500,高佐综合6台区变压器,0621295683-耿庄村小区-专变-129725544-耿庄村小区500KVA变压器,耿庄综合13台区变压器,长城,0630366558-蠡县轩宏麻山药农民专业合作社-专变-141705847-蠡县轩宏麻山药农民专业合作社,高佐综合10台区变压器,0621295683-耿庄村小区-专变-129725540-耿庄村小区315变压器,耿庄综合17台区柱上柱上变压器,高佐农排1台区变压器【纯农排变】,南绪口综合2台区变压器,0469432826-曲堤庄村西北浇地-专变-46810202-曲堤庄村西北,地中豪,高佐综合5台区变压器,南绪口综合4台区变压器,0469434558-华运皮业有限公司-专变-46810271-华运皮业有限公司,高佐综合4台区变压器,蠡县华运皮业有限公司变压器,0469432406-蠡县天瑞祥服装有限公司-专变-46810274-汇邦北,0469431982-蠡县松林服装有限公司-专变-46810273-蠡县松林服装有限公司,0469432389-兴华制革厂-专变-46810272-兴华厂,高佐综合3台区变压器,耿庄综合9台区变压器,高佐综合8台区变压器,耿庄综合14台区变压器【冬季供暖设施】,南绪口综合9台区变压器,西绪口综合4台区柱上变压器,0469435766-蠡县大曲堤乡中心小学-专变-127945735-蠡县大曲堤乡中心小学变压器,蠡县缔明麻山药农民专业合作社变压器,天隆皮业有限公司变压器,0469432028-鑫丰制革厂-专变-46810367-鑫丰,南绪口综合1台区变压器,耿庄综合11台区变压器,南绪口综合8台区变压器,高佐综合7台区变压器,高佐综合15台区变压器,高佐综合14台区变压器,向东变压器,三亚变压器,九天变压器,红旗变压器,0584065583-蠡县三星皮业有限公司-专变-124937674-蠡县三星皮业有限公司,南绪口综合5台区变压器,变压器,昆仑变压器,三羊,南绪口综合6台区变压器,振兴中华,南绪口综合3台区变压器,0469435069-耿亚洲冷库-专变-46810346-耿亚洲冷库,耿庄综合8台区变压器,南绪口综合7台区变压器,耿庄卫生院,高佐综合12台区变压器,0469432422-建平鸡厂-专变-46810340-建平鸡厂,0469433425-旭升制革厂-专变-46810339-旭升,耿庄综合1台区变压器,鑫龙皮业有限公司,五洋皮革有限公司,中国移动通信集团河北有限公司蠡县分公司变压器,耿庄综合6台区变压器,曲堤庄综合8台区变压器,耿庄综合12台区变压器,蠡县金海麻山药农民专业合","poweroffReason":"【停电原因】由于站内开关掉闸导致３５ＫＶ握纽庄变电站１０ＫＶ耿庄５１６线路全线停电【变更送电】因抢修进度加快原因，送电时间由１１：００变更为０２：００【发布渠道】通过９５５９８发布","powerTime":"2020-04-01 01:32:18","powerComm":"已送电","subsNo":"","lineNo":"","tgNo":"","tgName":null,"infoStatus":"1","orgName":"国网蠡县供电公司","typeName":null,"infoStatusName":null,"dateDay":null,"orgNos":null,"nowTime":null,"countyName":null,"streetName":null,"villageName":null,"roadName":null,"communityName":null,"tranName":null,"sdLineName":null,"cityCode":"1340616","cityName":"国网蠡县供电公司","provinceCode":null,"stopTime":"2020-04-01 02:00:00","powerType":"全部","powerOffArea":"【全线路停电】停耿庄综合2台区变压器,高佐综合9台区变压器,西绪口综合1台区变压器,蠡县达盛昌养羊农民专业合作社变压器,高佐综合2台区变压器,0630170353-蠡县金海麻山药农民专业合作社-专变-141692335-蠡县汇恩肉羊屠宰厂变压器80,高佐综合16台区柱上变压器,耿庄综合15台区变压器,南绪口综合11台区变压器【冬季供暖设施】,高佐综合13台区变压器,耿庄综合3台区变压器,蠡县根生麻山药农民专业合作社,西绪口综合3台区变压器,0469435144-鑫源制革厂-专变-46810304-鑫源,王普毛巾厂,0469432376-鑫华制革厂-专变-46810308-鑫华,（宏源）光大有限公司,亿德利,0469432884-蠡县留史朱佐鹏源皮革厂-专变-46810309-蠡县留史朱佐鹏源皮革厂,0565966139-中国移动通信集团河北有限公司蠡县分公司-专变-118727763-中国移动通信集团河北有限公司蠡县分公司耿庄村变压器,昆仑东,0469435131-万顺制革厂-专变-46810249-万顺厂,高佐综合1台区变压器,鑫龙（2）,西绪口综合2台区变压器,0628807151-蠡县南绪口老五麻山药专业合作社-专变-141400864-蠡县南绪口老五麻山药专业合作社,耿庄综合5台区变压器,制污厂北,耿庄综合16台区变压器,耿庄综合4台区变压器,神龙制衣有限公司,0469434574-强盛制革厂-专变-46810389-强盛厂,耿庄综合10台区变压器,0630170353-蠡县金海麻山药农民专业合作社-专变-141689200-蠡县汇恩肉羊屠宰厂变压器500,高佐综合6台区变压器,0621295683-耿庄村小区-专变-129725544-耿庄村小区500KVA变压器,耿庄综合13台区变压器,长城,0630366558-蠡县轩宏麻山药农民专业合作社-专变-141705847-蠡县轩宏麻山药农民专业合作社,高佐综合10台区变压器,0621295683-耿庄村小区-专变-129725540-耿庄村小区315变压器,耿庄综合17台区柱上柱上变压器,高佐农排1台区变压器【纯农排变】,南绪口综合2台区变压器,0469432826-曲堤庄村西北浇地-专变-46810202-曲堤庄村西北,地中豪,高佐综合5台区变压器,南绪口综合4台区变压器,0469434558-华运皮业有限公司-专变-46810271-华运皮业有限公司,高佐综合4台区变压器,蠡县华运皮业有限公司变压器,0469432406-蠡县天瑞祥服装有限公司-专变-46810274-汇邦北,0469431982-蠡县松林服装有限公司-专变-46810273-蠡县松林服装有限公司,0469432389-兴华制革厂-专变-46810272-兴华厂,高佐综合3台区变压器,耿庄综合9台区变压器,高佐综合8台区变压器,耿庄综合14台区变压器【冬季供暖设施】,南绪口综合9台区变压器,西绪口综合4台区柱上变压器,0469435766-蠡县大曲堤乡中心小学-专变-127945735-蠡县大曲堤乡中心小学变压器,蠡县缔明麻山药农民专业合作社变压器,天隆皮业有限公司变压器,0469432028-鑫丰制革厂-专变-46810367-鑫丰,南绪口综合1台区变压器,耿庄综合11台区变压器,南绪口综合8台区变压器,高佐综合7台区变压器,高佐综合15台区变压器,高佐综合14台区变压器,向东变压器,三亚变压器,九天变压器,红旗变压器,0584065583-蠡县三星皮业有限公司-专变-124937674-蠡县三星皮业有限公司,南绪口综合5台区变压器,变压器,昆仑变压器,三羊,南绪口综合6台区变压器,振兴中华,南绪口综合3台区变压器,0469435069-耿亚洲冷库-专变-46810346-耿亚洲冷库,耿庄综合8台区变压器,南绪口综合7台区变压器,耿庄卫生院,高佐综合12台区变压器,0469432422-建平鸡厂-专变-46810340-建平鸡厂,0469433425-旭升制革厂-专变-46810339-旭升,耿庄综合1台区变压器,鑫龙皮业有限公司,五洋皮革有限公司,中国移动通信集团河北有限公司蠡县分公司变压器,耿庄综合6台区变压器,曲堤庄综合8台区变压器,耿庄综合12台区变压器,蠡县金海麻山药农民专业合","powerOffReason":"【停电原因】由于站内开关掉闸导致３５ＫＶ握纽庄变电站１０ＫＶ耿庄５１６线路全线停电【变更送电】因抢修进度加快原因，送电时间由１１：００变更为０２：００【发布渠道】通过９５５９８发布","powerOffId":"2020040113000007"},{"poweroffId":2020033113000391,"sgpoweroffId":null,"subsName":"","lineName":"10KV大团柳511","pubTranName":"徐庄2913,","scope":"【影响街道/乡镇】东城坊镇 【高危重要客户】无 【影响客户】徐庄","startTime":"2020-03-31 23:31:42","stopDate":"2020-04-01 03:30:00","orgNo":"1340626","typeCode":"电网故障停限电","poweroffArea":"【单台区停电】停徐庄2913","poweroffReason":"【停电原因】由于低压空开烧毁导致３５ＫＶ劳动学院变电站１０ＫＶ大团柳５１１线路徐庄２９１３公变台区停电 【变更送电】因抢修进度加快原因，送电时间由１２：００变更为０３：３０ 【发布渠道】通过９５５９８发布","powerTime":"2020-04-01 02:49:52","powerComm":"恢复送电","subsNo":"","lineNo":"","tgNo":"","tgName":null,"infoStatus":"1","orgName":"国网涿州市供电公司","typeName":null,"infoStatusName":null,"dateDay":null,"orgNos":null,"nowTime":null,"countyName":null,"streetName":null,"villageName":null,"roadName":null,"communityName":null,"tranName":null,"sdLineName":null,"cityCode":"1340626","cityName":"国网涿州市供电公司","provinceCode":null,"stopTime":"2020-04-01 03:30:00","powerType":"全部","powerOffArea":"【单台区停电】停徐庄2913","powerOffReason":"【停电原因】由于低压空开烧毁导致３５ＫＶ劳动学院变电站１０ＫＶ大团柳５１１线路徐庄２９１３公变台区停电 【变更送电】因抢修进度加快原因，送电时间由１２：００变更为０３：３０ 【发布渠道】通过９５５９８发布","powerOffId":"2020033113000391"},{"poweroffId":2020033113000383,"sgpoweroffId":null,"subsName":"","lineName":"10kV泗庄线515","pubTranName":"东大街北二,东大街中变压器,半边街北变压器,客户投资_庞场东台柱上变压器,庞场南变压器,半边街南变压器,田庄西北2柱上变压器,半边街西北变压器,庞场市场变压器,泗庄市场2变压器,半边街西南变压器,泗庄田庄东南台,田庄西三变压器,田庄西2柱上变压器,南大街村变压器,北留西排灌变压器【纯农排变】,郭街东变压器,六里街地变压器,半边街西变压器,半边街变压器,东大街西,田庄东北变压器,东大街6号变台,泗庄市场变压器,庞场南二变压器,田庄东变压器,东大街南变压器,","scope":"【影响街道/乡镇】泗庄镇、东马营镇、东大街、南大街 【高危重要客户】无 【影响客户】东大街村、半边街村、庞场村、郭街村、田庄村、六里街村、高庄村、北留村、王义明、高碑店市泗庄东大街小学、高碑店市泗庄田庄小学、汇通路桥建设集团有限公司、泗庄镇政府、高碑店市泗庄中心卫生院、泗庄邮局、纪建春、万宇箱包、中国石油第四加油站","startTime":"2020-03-31 21:40:53","stopDate":"2020-03-31 23:50:00","orgNo":"1340612","typeCode":"电网故障停限电","poweroffArea":"【全线路停电】停半边街西变压器,半边街变压器,汇通路桥建设中心03,郭街地变压器【纯农排变】,田庄东南地变压器【纯农排变】,田庄西变压器,北留西排灌变压器【纯农排变】,泗庄镇政府,高庄南变压器,高碑店市泗庄镇东大街小学,六里街南地变压器,中国移动通信集团河北有限公司高碑店分公司,郭街东变压器,田庄西北变压器,东大街东变压器,东大街南地变压器,北留西2变压器,东大街西南地变压器【纯农排变】,泗庄市场变压器,半边街2号地变压器,南大街东南2变压器,庞场南二变压器,高庄西地变压器【纯农排变】,东大街北二,0387440299-社办厂-专变-45277408-社办厂,东大街西,庞场市场变压器,保定白沟新城和源加油站变压器,东大街中变压器,加油站,高碑店市华德立成箱包有限责任公司,半边街北变压器,保定帝翔商贸有限公司,庞场南变压器,猪场,泗庄田庄北变压器,东大街北变压器,半边街南变压器,田庄西北2柱上变压器,六里街变台,半边街西北变压器,郭街西变压器,泗庄田庄西南地变压器【纯农排变】,高碑店市泗庄镇田庄村富强人造革厂变压器,南大街村变压器,变压器,高碑店市泗庄镇田庄小学变压器,东大街地变压器【纯农排变】,庞场2号地变压器【纯农排变】,东大街煤厂,汇通路桥建设中心02,汇通路桥建设中心01,北留南变压器,高碑店市同兴农林畜牧有限公司,高碑店市瑞跃晟物业管理有限公司2,田庄东变压器,高碑店市白沟机动车驾驶员培训学校,高庄村内变压器,东大街东南地变压器【纯农排变】,孙建华,东大街南变压器,半边街西地变压器,半边街地变压器【纯农排变】,南大街地变压器【纯农排变】,六里街变压器,六里街地变压器,泗庄市场2变压器,高碑店市泗庄镇东大街小学变压器,王义明变压器,半边街西南变压器,庞场3号地变压器【纯农排变】,泗庄田庄东南台,田庄西三变压器,田庄西2柱上变压器,北留西变压器,高碑店市双兴粮油商贸有限公司变压器,高庄地变压器【纯农排变】,农场,保定霖诺商贸有限公司,田庄东北变压器,客户投资_庞场东台柱上变压器,庞场北变压器,东大街6号变台,高碑店市泗庄中心卫生院变压器,高碑店市瑞跃晟物业管理有限公司1","poweroffReason":"【停电原因】由于荣乌、京雄高速施工车辆碰挂导线造成田庄东南排灌分支相间放电导致３５ＫＶ泗庄变电站１０ＫＶ泗庄５１５线路全线停电 【变更送电】因抢修进度加快原因，送电时间由４月１日６：００变更为３月３１日２３：５０ 【发布渠道】通过９５５９８发布","powerTime":"2020-03-31 23:37:19","powerComm":"已送电","subsNo":"","lineNo":"","tgNo":"","tgName":null,"infoStatus":"1","orgName":"国网高碑店市供电公司","typeName":null,"infoStatusName":null,"dateDay":null,"orgNos":null,"nowTime":null,"countyName":null,"streetName":null,"villageName":null,"roadName":null,"communityName":null,"tranName":null,"sdLineName":null,"cityCode":"1340612","cityName":"国网高碑店市供电公司","provinceCode":null,"stopTime":"2020-03-31 23:50:00","powerType":"全部","powerOffArea":"【全线路停电】停半边街西变压器,半边街变压器,汇通路桥建设中心03,郭街地变压器【纯农排变】,田庄东南地变压器【纯农排变】,田庄西变压器,北留西排灌变压器【纯农排变】,泗庄镇政府,高庄南变压器,高碑店市泗庄镇东大街小学,六里街南地变压器,中国移动通信集团河北有限公司高碑店分公司,郭街东变压器,田庄西北变压器,东大街东变压器,东大街南地变压器,北留西2变压器,东大街西南地变压器【纯农排变】,泗庄市场变压器,半边街2号地变压器,南大街东南2变压器,庞场南二变压器,高庄西地变压器【纯农排变】,东大街北二,0387440299-社办厂-专变-45277408-社办厂,东大街西,庞场市场变压器,保定白沟新城和源加油站变压器,东大街中变压器,加油站,高碑店市华德立成箱包有限责任公司,半边街北变压器,保定帝翔商贸有限公司,庞场南变压器,猪场,泗庄田庄北变压器,东大街北变压器,半边街南变压器,田庄西北2柱上变压器,六里街变台,半边街西北变压器,郭街西变压器,泗庄田庄西南地变压器【纯农排变】,高碑店市泗庄镇田庄村富强人造革厂变压器,南大街村变压器,变压器,高碑店市泗庄镇田庄小学变压器,东大街地变压器【纯农排变】,庞场2号地变压器【纯农排变】,东大街煤厂,汇通路桥建设中心02,汇通路桥建设中心01,北留南变压器,高碑店市同兴农林畜牧有限公司,高碑店市瑞跃晟物业管理有限公司2,田庄东变压器,高碑店市白沟机动车驾驶员培训学校,高庄村内变压器,东大街东南地变压器【纯农排变】,孙建华,东大街南变压器,半边街西地变压器,半边街地变压器【纯农排变】,南大街地变压器【纯农排变】,六里街变压器,六里街地变压器,泗庄市场2变压器,高碑店市泗庄镇东大街小学变压器,王义明变压器,半边街西南变压器,庞场3号地变压器【纯农排变】,泗庄田庄东南台,田庄西三变压器,田庄西2柱上变压器,北留西变压器,高碑店市双兴粮油商贸有限公司变压器,高庄地变压器【纯农排变】,农场,保定霖诺商贸有限公司,田庄东北变压器,客户投资_庞场东台柱上变压器,庞场北变压器,东大街6号变台,高碑店市泗庄中心卫生院变压器,高碑店市瑞跃晟物业管理有限公司1","powerOffReason":"【停电原因】由于荣乌、京雄高速施工车辆碰挂导线造成田庄东南排灌分支相间放电导致３５ＫＶ泗庄变电站１０ＫＶ泗庄５１５线路全线停电 【变更送电】因抢修进度加快原因，送电时间由４月１日６：００变更为３月３１日２３：５０ 【发布渠道】通过９５５９８发布","powerOffId":"2020033113000383"},{"poweroffId":2020033113000350,"sgpoweroffId":null,"subsName":"","lineName":"10kV雷庄线537","pubTranName":"刘漫撒04号变压器,刘漫撒23号变压器,刘庄06号变压器,雷庄村02号变压器,刘庄01号变压器,雷庄村03号变压器,雷庄村05号变压器,刘漫撒13号变压器,刘庄09号变压器,刘漫撒18号变压器,刘庄10号变压器,刘漫撒17号变压器,刘漫撒11号变压器,刘漫撒02号变压器,雷庄村01号变压器,刘庄07号变压器,刘漫撒22号变压器,刘庄05号变压器,刘漫撒19号变压器,雷庄村07号变压器,刘漫撒09号变压器,雷庄村04号变压器,刘庄02号变压器,刘漫撒03号变压器,刘漫撒08号变压器,刘庄08号变压器,刘庄04号变压器,刘漫撒12号变压器,雷庄村08号变压器,刘庄03号变压器,雷庄村06号变压器,刘庄11号变压器,刘漫撒05号变压器,刘漫撒10号变压器,刘漫撒15号变压器,刘漫撒21号变压器,刘漫撒14号变压器,刘漫撒06号变压器,","scope":"【影响街道/乡镇】北城办事处 【高危重要客户】无 【影响客户】刘漫撒村、雷庄村、刘庄村","startTime":"2020-03-31 19:43:12","stopDate":"2020-03-31 22:50:00","orgNo":"1340612","typeCode":"电网故障停限电","poweroffArea":"【全线路停电】停刘庄09号变压器,刘漫撒18号变压器,刘漫撒07号变压器,刘庄地变压器,刘漫撒09号变压器,雷庄村04号变压器,刘庄02号变压器,刘漫撒03号变压器,刘漫撒06号变压器,刘庄10号变压器,刘漫撒17号变压器,刘漫撒11号变压器,刘漫撒02号变压器,河北新发地房地产开发有限公司,雷庄村01号变压器,刘俊杰变压器,刘庄07号变压器,刘漫撒东地变压器,刘漫撒22号变压器,刘庄05号变压器,刘漫撒19号变压器,雷庄村07号变压器,刘漫撒08号变压器,刘漫撒20号变压器,刘庄08号变压器,刘漫撒12号变压器,雷庄村08号变压器,刘庄03号变压器,高碑店市北城办事处刘漫撒学校,雷庄东地变压器【纯农排变】,雷庄村06号变压器,刘庄11号变压器,刘漫撒01号变压器,刘漫撒05号变压器,刘庄04号变压器,刘漫撒04号变压器,刘漫撒23号变压器,刘庄06号变压器,雷庄村02号变压器,刘庄面粉厂,刘庄01号变压器,雷庄村03号变压器,刘漫撒西地变压器,刘漫撒16号变压器,谭希志,刘漫撒10号变压器,刘漫撒15号变压器,刘漫撒21号变压器,刘漫撒14号变压器,雷庄村05号变压器,刘漫撒13号变压器,高碑店市绿源食品有限责任公司变压器","poweroffReason":"【停电原因】由于雷庄分支０７号杆刀闸烧坏导致１１０ＫＶ各庄变电站１０ＫＶ雷庄５３７线路全线停电 【变更送电】因抢修进度加快原因，送电时间由２３：５９变更为２２：５０ 【发布渠道】通过９５５９８发布","powerTime":"2020-03-31 22:35:50","powerComm":"已送电","subsNo":"","lineNo":"","tgNo":"","tgName":null,"infoStatus":"1","orgName":"国网高碑店市供电公司","typeName":null,"infoStatusName":null,"dateDay":null,"orgNos":null,"nowTime":null,"countyName":null,"streetName":null,"villageName":null,"roadName":null,"communityName":null,"tranName":null,"sdLineName":null,"cityCode":"1340612","cityName":"国网高碑店市供电公司","provinceCode":null,"stopTime":"2020-03-31 22:50:00","powerType":"全部","powerOffArea":"【全线路停电】停刘庄09号变压器,刘漫撒18号变压器,刘漫撒07号变压器,刘庄地变压器,刘漫撒09号变压器,雷庄村04号变压器,刘庄02号变压器,刘漫撒03号变压器,刘漫撒06号变压器,刘庄10号变压器,刘漫撒17号变压器,刘漫撒11号变压器,刘漫撒02号变压器,河北新发地房地产开发有限公司,雷庄村01号变压器,刘俊杰变压器,刘庄07号变压器,刘漫撒东地变压器,刘漫撒22号变压器,刘庄05号变压器,刘漫撒19号变压器,雷庄村07号变压器,刘漫撒08号变压器,刘漫撒20号变压器,刘庄08号变压器,刘漫撒12号变压器,雷庄村08号变压器,刘庄03号变压器,高碑店市北城办事处刘漫撒学校,雷庄东地变压器【纯农排变】,雷庄村06号变压器,刘庄11号变压器,刘漫撒01号变压器,刘漫撒05号变压器,刘庄04号变压器,刘漫撒04号变压器,刘漫撒23号变压器,刘庄06号变压器,雷庄村02号变压器,刘庄面粉厂,刘庄01号变压器,雷庄村03号变压器,刘漫撒西地变压器,刘漫撒16号变压器,谭希志,刘漫撒10号变压器,刘漫撒15号变压器,刘漫撒21号变压器,刘漫撒14号变压器,雷庄村05号变压器,刘漫撒13号变压器,高碑店市绿源食品有限责任公司变压器","powerOffReason":"【停电原因】由于雷庄分支０７号杆刀闸烧坏导致１１０ＫＶ各庄变电站１０ＫＶ雷庄５３７线路全线停电 【变更送电】因抢修进度加快原因，送电时间由２３：５９变更为２２：５０ 【发布渠道】通过９５５９８发布","powerOffId":"2020033113000350"},{"poweroffId":2020033113000345,"sgpoweroffId":null,"subsName":"","lineName":"10kV511淮南线","pubTranName":"10kv511淮南线白塔村13080台区变压器,","scope":"【影响街道/乡镇】南小王乡【高危重要客户】无【影响客户】白塔村部分","startTime":"2020-03-31 19:33:35","stopDate":"2020-03-31 20:30:00","orgNo":"1340608","typeCode":"电网故障停限电","poweroffArea":"【单台区停电】停10kv511淮南线白塔村13080台区变压器","poweroffReason":"【停电原因】由于低压线断导致３５ＫＶ南小王变电站淮南５１１线路１３０８０公变台区停电【变更送电】因抢修进度加快原因，送电时间由２２：００变更为２０：３０【发布渠道】通过９５５９８发布","powerTime":"2020-03-31 20:19:25","powerComm":"已送电","subsNo":"","lineNo":"","tgNo":"","tgName":null,"infoStatus":"1","orgName":"国网博野县供电公司","typeName":null,"infoStatusName":null,"dateDay":null,"orgNos":null,"nowTime":null,"countyName":null,"streetName":null,"villageName":null,"roadName":null,"communityName":null,"tranName":null,"sdLineName":null,"cityCode":"1340608","cityName":"国网博野县供电公司","provinceCode":null,"stopTime":"2020-03-31 20:30:00","powerType":"全部","powerOffArea":"【单台区停电】停10kv511淮南线白塔村13080台区变压器","powerOffReason":"【停电原因】由于低压线断导致３５ＫＶ南小王变电站淮南５１１线路１３０８０公变台区停电【变更送电】因抢修进度加快原因，送电时间由２２：００变更为２０：３０【发布渠道】通过９５５９８发布","powerOffId":"2020033113000345"},{"poweroffId":2020033113000280,"sgpoweroffId":null,"subsName":"","lineName":"下北头线519","pubTranName":"519下北头线灵吉2,519下北头线下北头北,519下北头线斗军湾4,519下北头线庄伙4,石窝3台区,519下北头线菜村岗2,石窝2台区,斗军湾村5台区变压器,菜村岗4台区,519下北头线斗军湾2,519下北头线下北头5台区,519下北头线庄伙1,519下北头线菜村岗1,519下北头线斗军湾1,519下北头线斗军湾3,石窝台区,519下北头线庄伙2,519下北头线灵吉1,519下北头线庄伙6,519下北头线庄伙3,519下北头线灵吉3,519下北头线下北头南,519下北头线庄伙5,","scope":"【影响街道/乡镇】白石山镇【高危重要客户】无【影响客户】下北头村、庄伙、菜村岗、斗军湾、灵吉、石窝","startTime":"2020-04-11 04:00:00","stopDate":"2020-04-11 19:10:00","orgNo":"1340615","typeCode":"计划停电","poweroffArea":"【全线路停电】停519下北头线菜村岗1,石窝3台区,519下北头线菜村岗2,石窝2台区,斗军湾村5台区变压器,菜村岗4台区,519下北头线斗军湾1,519下北头线灵吉2,519下北头线下北头北,519下北头线庄伙4,519下北头线斗军湾4,519下北头线斗军湾2,519下北头线下北头5台区,519下北头线庄伙1,519下北头线斗军湾3,石窝台区,519下北头线庄伙2,519下北头线灵吉1,519下北头线庄伙6,519下北头线庄伙3,519下北头线灵吉3,519下北头线下北头南,519下北头线庄伙5","poweroffReason":"【停电原因】由于线路检修导致１１０ＫＶ涞源变电站１０ＫＶ下北头线５１９线路全线停电【变更送电】因工作进度加快，原定２１：００送电现计划１９：１０送电【发布渠道】涞源电视台（２０２０年３月３１日至２０２０年４月１０日）屏幕上方滚动","powerTime":"2020-04-11 18:38:29","powerComm":"已送电","subsNo":"","lineNo":"","tgNo":"","tgName":null,"infoStatus":"1","orgName":"国网涞源县供电公司","typeName":null,"infoStatusName":null,"dateDay":null,"orgNos":null,"nowTime":null,"countyName":null,"streetName":null,"villageName":null,"roadName":null,"communityName":null,"tranName":null,"sdLineName":null,"cityCode":"1340615","cityName":"国网涞源县供电公司","provinceCode":null,"stopTime":"2020-04-11 19:10:00","powerType":"全部","powerOffArea":"【全线路停电】停519下北头线菜村岗1,石窝3台区,519下北头线菜村岗2,石窝2台区,斗军湾村5台区变压器,菜村岗4台区,519下北头线斗军湾1,519下北头线灵吉2,519下北头线下北头北,519下北头线庄伙4,519下北头线斗军湾4,519下北头线斗军湾2,519下北头线下北头5台区,519下北头线庄伙1,519下北头线斗军湾3,石窝台区,519下北头线庄伙2,519下北头线灵吉1,519下北头线庄伙6,519下北头线庄伙3,519下北头线灵吉3,519下北头线下北头南,519下北头线庄伙5","powerOffReason":"【停电原因】由于线路检修导致１１０ＫＶ涞源变电站１０ＫＶ下北头线５１９线路全线停电【变更送电】因工作进度加快，原定２１：００送电现计划１９：１０送电【发布渠道】涞源电视台（２０２０年３月３１日至２０２０年４月１０日）屏幕上方滚动","powerOffId":"2020033113000280"},{"poweroffId":2020033113000267,"sgpoweroffId":null,"subsName":"","lineName":"乡企线511","pubTranName":"六间房6号,六间房14号,王辛庄4号,六间房,六间房4号,西庄新增2号,六间房15号,六间房3号,六间房13号,王辛庄6号,六间房5号,于庄村西,王辛庄5号,","scope":"【影响街道/乡镇】大册营镇 【高危重要客户】无 【影响客户】六间房村、王辛庄、于庄村","startTime":"2020-04-02 07:00:00","stopDate":"2020-04-02 18:00:00","orgNo":"1340617","typeCode":"临时停电","poweroffArea":"【全线路停电】停六间房4号,六间房15号,六间房14号,保定市金霖商贸有限公司,六间房5号,云莉奶牛场,保定市满城县福利橡胶,北宋10号,六间房8号,王辛庄6号,新农丰肥料公司,于庄村西,远达纸业二分厂,王辛庄2号,满城县聚鑫门窗制造有限公司100KVA变压器,河南庄村委会,六间房10号,保定市满城恒达纸箱厂,王泽义胶厂,满城县远达铸造厂,六间房,中兴洗涤,保定轩宇俊鹏汽车销售服务有限公司,王辛庄4号,小许城3号分支【纯农排变】,远达纸业,六间房3号,六间房6号,六间房12号【纯农排变】,金星化工厂2号,保定市满城金星化工有限公司,河南庄农业,满城县大册营镇王辛庄村村民委员,六间房13号,保定市远达纸业有限公司,龙兴纸厂,保定市交通运输局徐水县养路工区4号,王辛庄油葵试验田,福利橡胶厂,福利胶厂,春良胶厂,西庄新增2号,六间房11号【纯农排变】,王辛庄村西,保定博凯瑞机械制造,王辛庄1号,利丰纸箱厂,六间房7号【纯农排变】,王辛庄5号,诚信胶业有限公司,六间房9号【纯农排变】,王辛庄3号,六间房2号,河北力强路桥工程有限公司","poweroffReason":"【停电原因】由于线路检修导致３５ＫＶ西庄变电站乡企线５１１线路全线停电 【变更送电】无 【发布渠道】通过９５５９８发布","powerTime":"2020-04-02 17:57:56","powerComm":"已送电","subsNo":"","lineNo":"","tgNo":"","tgName":null,"infoStatus":"1","orgName":"国网满城县供电公司","typeName":null,"infoStatusName":null,"dateDay":null,"orgNos":null,"nowTime":null,"countyName":null,"streetName":null,"villageName":null,"roadName":null,"communityName":null,"tranName":null,"sdLineName":null,"cityCode":"1340617","cityName":"国网满城县供电公司","provinceCode":null,"stopTime":"2020-04-02 18:00:00","powerType":"全部","powerOffArea":"【全线路停电】停六间房4号,六间房15号,六间房14号,保定市金霖商贸有限公司,六间房5号,云莉奶牛场,保定市满城县福利橡胶,北宋10号,六间房8号,王辛庄6号,新农丰肥料公司,于庄村西,远达纸业二分厂,王辛庄2号,满城县聚鑫门窗制造有限公司100KVA变压器,河南庄村委会,六间房10号,保定市满城恒达纸箱厂,王泽义胶厂,满城县远达铸造厂,六间房,中兴洗涤,保定轩宇俊鹏汽车销售服务有限公司,王辛庄4号,小许城3号分支【纯农排变】,远达纸业,六间房3号,六间房6号,六间房12号【纯农排变】,金星化工厂2号,保定市满城金星化工有限公司,河南庄农业,满城县大册营镇王辛庄村村民委员,六间房13号,保定市远达纸业有限公司,龙兴纸厂,保定市交通运输局徐水县养路工区4号,王辛庄油葵试验田,福利橡胶厂,福利胶厂,春良胶厂,西庄新增2号,六间房11号【纯农排变】,王辛庄村西,保定博凯瑞机械制造,王辛庄1号,利丰纸箱厂,六间房7号【纯农排变】,王辛庄5号,诚信胶业有限公司,六间房9号【纯农排变】,王辛庄3号,六间房2号,河北力强路桥工程有限公司","powerOffReason":"【停电原因】由于线路检修导致３５ＫＶ西庄变电站乡企线５１１线路全线停电 【变更送电】无 【发布渠道】通过９５５９８发布","powerOffId":"2020033113000267"},{"poweroffId":2020033113000264,"sgpoweroffId":null,"subsName":"","lineName":"东庄线516","pubTranName":"北于庄小学,西庄9号,于庄3号,大石桥1,河南庄大队,","scope":"【影响街道/乡镇】西庄乡 【高危重要客户】无 【影响客户】西庄村、东庄村、大石桥村、河南庄村、北于庄村","startTime":"2020-04-02 07:00:00","stopDate":"2020-04-02 18:00:00","orgNo":"1340617","typeCode":"临时停电","poweroffArea":"【全线路停电】停西庄7号,东庄4号,河南庄大队,西庄土改4【纯农排变】,西庄土改3号【纯农排变】,西庄5号,于庄2号变压器,西庄新增,于庄3号,高新区公共事业管理处路灯4号,东庄村西新增（统管）,保定国家高新技术产业开发区公共事业管理处,西庄4号,西庄8号,崔管营饮料厂,大石桥5,于庄（统管）,大石桥桥北钢厂,大石桥2号,高开区管委会7号路灯,西庄6号,西庄9号,东庄土改3号,西庄土改2【纯农排变】,东庄土改2号,大石桥3号,东庄6号,西庄乡政府,东庄3号,西庄土改1【纯农排变】,大石桥新增200（统管）,东庄8号,河南庄1,大石桥4【纯农排变】,河南庄新增2【纯农排变】,东庄5号,东庄土改4号,北于庄小学,满城县宏联胶辊厂,东庄10号,于庄土改3号,于庄土改2号,东庄村东新增变压器,于庄土改1号,大石桥土改3号,大石桥土改2号,大石桥土改1号,河南庄新增1【纯农排变】,大石桥1,于庄村内,东庄土改1号,东庄新增,东庄7号","poweroffReason":"【停电原因】由于线路检修导致３５ＫＶ西庄变电站东庄线５１６线路全线停电 【变更送电】无 【发布渠道】通过９５５９８发布","powerTime":"2020-04-02 17:57:38","powerComm":"已送电","subsNo":"","lineNo":"","tgNo":"","tgName":null,"infoStatus":"1","orgName":"国网满城县供电公司","typeName":null,"infoStatusName":null,"dateDay":null,"orgNos":null,"nowTime":null,"countyName":null,"streetName":null,"villageName":null,"roadName":null,"communityName":null,"tranName":null,"sdLineName":null,"cityCode":"1340617","cityName":"国网满城县供电公司","provinceCode":null,"stopTime":"2020-04-02 18:00:00","powerType":"全部","powerOffArea":"【全线路停电】停西庄7号,东庄4号,河南庄大队,西庄土改4【纯农排变】,西庄土改3号【纯农排变】,西庄5号,于庄2号变压器,西庄新增,于庄3号,高新区公共事业管理处路灯4号,东庄村西新增（统管）,保定国家高新技术产业开发区公共事业管理处,西庄4号,西庄8号,崔管营饮料厂,大石桥5,于庄（统管）,大石桥桥北钢厂,大石桥2号,高开区管委会7号路灯,西庄6号,西庄9号,东庄土改3号,西庄土改2【纯农排变】,东庄土改2号,大石桥3号,东庄6号,西庄乡政府,东庄3号,西庄土改1【纯农排变】,大石桥新增200（统管）,东庄8号,河南庄1,大石桥4【纯农排变】,河南庄新增2【纯农排变】,东庄5号,东庄土改4号,北于庄小学,满城县宏联胶辊厂,东庄10号,于庄土改3号,于庄土改2号,东庄村东新增变压器,于庄土改1号,大石桥土改3号,大石桥土改2号,大石桥土改1号,河南庄新增1【纯农排变】,大石桥1,于庄村内,东庄土改1号,东庄新增,东庄7号","powerOffReason":"【停电原因】由于线路检修导致３５ＫＶ西庄变电站东庄线５１６线路全线停电 【变更送电】无 【发布渠道】通过９５５９８发布","powerOffId":"2020033113000264"}],"pageModel":{"pageNow":211,"totalCount":10973,"totalPage":1098,"tableRows":0,"pageCount":10,"beginCount":2100},"isExperi":"1"}