{"message":"","today":"2020-06-15","seleList":[{"poweroffId":2020032913000275,"sgpoweroffId":null,"subsName":"","lineName":"10kV石佛511线","pubTranName":"石佛综合16号,石佛综合12台区变压器,石佛综合8台区变压器,","scope":"【影响街道/乡镇】石佛镇 【高危重要客户】无 【影响客户】石佛村","startTime":"2020-04-07 06:00:00","stopDate":"2020-04-07 18:00:00","orgNo":"1340606","typeCode":"计划停电","poweroffArea":"【全线路停电】停石佛综合8台区变压器,石佛综合16号,石佛综合12台区变压器","poweroffReason":"【停电原因】由于线路改造导致３５ＫＶ石佛变电站１０ＫＶ石佛５１１线路全线停电 【变更送电】无 【发布渠道】保定市安国电视台（０３月３１日００时至２４时之间）屏幕上方滚动","powerTime":"2020-04-07 17:31:40","powerComm":"已送电","subsNo":"","lineNo":"","tgNo":"","tgName":null,"infoStatus":"1","orgName":"国网安国市供电公司","typeName":null,"infoStatusName":null,"dateDay":null,"orgNos":null,"nowTime":null,"countyName":null,"streetName":null,"villageName":null,"roadName":null,"communityName":null,"tranName":null,"sdLineName":null,"cityCode":"1340606","cityName":"国网安国市供电公司","provinceCode":null,"stopTime":"2020-04-07 18:00:00","powerType":"全部","powerOffArea":"【全线路停电】停石佛综合8台区变压器,石佛综合16号,石佛综合12台区变压器","powerOffReason":"【停电原因】由于线路改造导致３５ＫＶ石佛变电站１０ＫＶ石佛５１１线路全线停电 【变更送电】无 【发布渠道】保定市安国电视台（０３月３１日００时至２４时之间）屏幕上方滚动","powerOffId":"2020032913000275"},{"poweroffId":2020032913000274,"sgpoweroffId":null,"subsName":"","lineName":"10kV南阳513线","pubTranName":"路景综合26台区变压器,立庄综合4台区变压器,南阳综合7台区变压器,北阳综合1台区变压器,","scope":"【影响街道/乡镇】石佛镇 【高危重要客户】无 【影响客户】南阳村、立庄村、路景村、北阳村","startTime":"2020-04-07 06:00:00","stopDate":"2020-04-07 18:00:00","orgNo":"1340606","typeCode":"计划停电","poweroffArea":"【全线路停电】停路景综合26台区变压器,立庄综合4台区变压器,南阳综合7台区变压器,北阳综合1台区变压器","poweroffReason":"【停电原因】由于线路改造导致３５ＫＶ石佛变电站１０ＫＶ南阳５１３线路全线停电 【变更送电】无 【发布渠道】保定市安国电视台（０３月３１日００时至２４时之间）屏幕上方滚动","powerTime":"2020-04-07 17:30:44","powerComm":"已送电","subsNo":"","lineNo":"","tgNo":"","tgName":null,"infoStatus":"1","orgName":"国网安国市供电公司","typeName":null,"infoStatusName":null,"dateDay":null,"orgNos":null,"nowTime":null,"countyName":null,"streetName":null,"villageName":null,"roadName":null,"communityName":null,"tranName":null,"sdLineName":null,"cityCode":"1340606","cityName":"国网安国市供电公司","provinceCode":null,"stopTime":"2020-04-07 18:00:00","powerType":"全部","powerOffArea":"【全线路停电】停路景综合26台区变压器,立庄综合4台区变压器,南阳综合7台区变压器,北阳综合1台区变压器","powerOffReason":"【停电原因】由于线路改造导致３５ＫＶ石佛变电站１０ＫＶ南阳５１３线路全线停电 【变更送电】无 【发布渠道】保定市安国电视台（０３月３１日００时至２４时之间）屏幕上方滚动","powerOffId":"2020032913000274"},{"poweroffId":2020032913000265,"sgpoweroffId":null,"subsName":"","lineName":"石门线515","pubTranName":"石门515甲村学校户,北屯南,北屯北变压器,北屯新北,","scope":"【影响街道/乡镇】涞源镇【高危重要客户】无【影响客户】北屯","startTime":"2020-03-29 19:40:41","stopDate":"2020-03-29 21:00:00","orgNo":"1340615","typeCode":"电网故障停限电","poweroffArea":"【全线路停电】停百特公司,涞源县宏伟置业房地产开发有限公司1变压器,河北雄源服装科技有限公司变压器,石门515甲村学校户,康利铁选厂,北屯南,涞源县涞源镇甲村中心小学变压器,涞源经济开发区建设发展有限公司变压器,涞源经济开发区建设发展有限公司变压器-900028426237,涞源县新砼商品混凝土有限公司2变压器,涞源县龙鑫矿业有限责任公司变压器,燎原公司,河北建设集团股份有限公司混凝土分公司变压器,北屯北变压器,涞源县存宝装卸服务部变压器,嘉太选厂,河北涞源经济开发区管理委员会2变压器,涞源经济开发区建设发展有限公司变压器-900028426179,涞源县壁正水泥制品有限公司变压器,河北涞源经济开发区管理委员会1变压器,涞源县公安局涞源镇派出所变压器,奥利新型建材公司02,涞源县新砼商品混凝土有限公司01变压器,北屯新北,曹建国,0469108095-涞源县融达石油有限责任公司-专变-46720317-融达加油站,森林选厂,奥利新型建材公司01,涞源县宏伟置业房地产开发有限公司2变压器","poweroffReason":"【停电原因】由于线路开关掉闸导致３５ＫＶ城关变电站１０ＫＶ石门线５１５线路全线停电【变更送电】因抢修进度加快，原定２３：５０送电现计划２１：００送电【发布渠道】通过９５５９８发布","powerTime":"2020-03-29 20:40:04","powerComm":"已送电","subsNo":"","lineNo":"","tgNo":"","tgName":null,"infoStatus":"1","orgName":"国网涞源县供电公司","typeName":null,"infoStatusName":null,"dateDay":null,"orgNos":null,"nowTime":null,"countyName":null,"streetName":null,"villageName":null,"roadName":null,"communityName":null,"tranName":null,"sdLineName":null,"cityCode":"1340615","cityName":"国网涞源县供电公司","provinceCode":null,"stopTime":"2020-03-29 21:00:00","powerType":"全部","powerOffArea":"【全线路停电】停百特公司,涞源县宏伟置业房地产开发有限公司1变压器,河北雄源服装科技有限公司变压器,石门515甲村学校户,康利铁选厂,北屯南,涞源县涞源镇甲村中心小学变压器,涞源经济开发区建设发展有限公司变压器,涞源经济开发区建设发展有限公司变压器-900028426237,涞源县新砼商品混凝土有限公司2变压器,涞源县龙鑫矿业有限责任公司变压器,燎原公司,河北建设集团股份有限公司混凝土分公司变压器,北屯北变压器,涞源县存宝装卸服务部变压器,嘉太选厂,河北涞源经济开发区管理委员会2变压器,涞源经济开发区建设发展有限公司变压器-900028426179,涞源县壁正水泥制品有限公司变压器,河北涞源经济开发区管理委员会1变压器,涞源县公安局涞源镇派出所变压器,奥利新型建材公司02,涞源县新砼商品混凝土有限公司01变压器,北屯新北,曹建国,0469108095-涞源县融达石油有限责任公司-专变-46720317-融达加油站,森林选厂,奥利新型建材公司01,涞源县宏伟置业房地产开发有限公司2变压器","powerOffReason":"【停电原因】由于线路开关掉闸导致３５ＫＶ城关变电站１０ＫＶ石门线５１５线路全线停电【变更送电】因抢修进度加快，原定２３：５０送电现计划２１：００送电【发布渠道】通过９５５９８发布","powerOffId":"2020032913000265"},{"poweroffId":2020032913000261,"sgpoweroffId":null,"subsName":"","lineName":"10kv514韩庄线","pubTranName":"兀术营北,驸马庄路边浇地变压器【纯农排变】,薛家营变压器,西菜园西变压器,西加录南变压器,西营变压器,西营南,","scope":"【影响街道/乡镇】新城镇 【高危重要客户】无 【影响客户】蔡各庄村（北蔡）、东加录村、东营村（东柴家营）、恩赐庄村、驸马庄村、里一村、柳各庄村、兀术营村、西菜园村、西加录村、西营村（西柴家营）、薛家营村、薛辛庄伙村、杨家务村、张贲营村、恩赐庄养殖厂、付马庄面粉厂、高碑店市鑫鹿新型建材厂、白沟子朝革塑制品有限公司、新城敬老院、高碑店市水利局、中国移动通信高碑店分公司、河北创世房地产、新城思玥户外用品加工厂、高碑店市隆顺干混砂浆制造有限公司、驸马庄幼儿园、张贲营中心小学、杨家务中心小学、高碑店市明伟新型建材有限公司","startTime":"2020-03-29 19:42:36","stopDate":"2020-03-29 22:30:00","orgNo":"1340612","typeCode":"电网故障停限电","poweroffArea":"【全线路停电】停薛家营水2变压器【纯农排变】,东加录水6变压器【纯农排变】,东营水变压器【纯农排变】,张贲营水变压器【纯农排变】,高碑店市民政局新城敬老院变压器,高碑店市新城镇张贲营中心小学变压器,西营南,张贲营西水变压器,兀术营北,东加录东变压器,里遗变压器,里遗南变压器,薛辛庄伙变压器,高碑店市电力局变压器,驸马庄路边浇地变压器【纯农排变】,西菜园变压器,驸马庄水3变压器,恩赐庄西变压器,河北创世房地产开发有限公司,张贲营水4变压器,薛辛庄伙水变压器【纯农排变】,东营西水变压器【纯农排变】,兀术营变压器,西加录变压器,高碑店市新城镇东加录中心小学,薛家营水变压器【纯农排变】,东营北变压器,东加录东北水变压器【纯农排变】,东营南水变压器,柳各庄变压器,高碑店市明伟新型建材有限公司2变压器,蔡各庄水变压器【纯农排变】,东加录东1变压器,西营变压器,西加录东南水【纯农排变】,杨家务水3变压器【纯农排变】,东营变压器,兀术营水变压器【纯农排变】,西加录东北水变压器【纯农排变】,驸马庄水变压器,恩赐庄养殖厂,里遗北变压器,客户投资_恩赐庄变压器,白沟通宝海绵纸厂变压器,西菜园西变压器,高碑店市白沟子朝革塑制品有限公司变压器,西营海开变压器【纯农排变】,驸马庄新西,达子营水变压器【纯农排变】,里遗水3变压器【纯农排变】,里遗水变压器【纯农排变】,西菜园水变压器,杨家务水2变压器【纯农排变】,西加录水变压器,东加录水变压器【纯农排变】,高碑店市水力局,薛家营南台变压器,东加录水5变压器【纯农排变】,西菜园北水变压器,柳各庄西南水变压器【纯农排变】,里遗水2变压器【纯农排变】,东加录正东水变压器【纯农排变】,东加录南水变压器【纯农排变】,高碑店市鑫鹿新型建材厂,大陈庄水变压器50【纯农排变】,薛家营变压器,杨家务东台混用变压器,驸马庄西水变压器【纯农排变】,柳各庄水3变压器,高碑店市明伟新型建材有限公司1变压器,驸马庄北地变压器【纯农排变】,高碑店市新城镇总校附马庄幼儿园变压器,张贲营西变压器,高碑店市新城镇杨家务中心小学变压器,付马庄面粉厂,东加录南变压器,西加录北水变压器【纯农排变】,西加录西水变压器【纯农排变】,恩赐庄村3变压器,驸马庄西变压器,张贲营南水变压器【纯农排变】,张贲营水5变压器,中国移动通信集体河北有限公司高碑店分公司,裴永金变压器,张贲营东变压器,驸马庄路边变压器,蔡各庄南,西加录南变压器,杨家务变压器,柳各庄西北水变压器【纯农排变】,东加录变压器,蔡各庄北变压器,0677241775-高碑店市隆顺干混砂浆制造有限公司-专变-217785147-高碑店市隆顺干混砂浆制造有限公司变压器,蔡各庄变压器,西营水变压器【纯农排变】,蔡各庄水2变压器【纯农排变】,石辛庄水2变压器【纯农排变】,柳各庄水变压器,驸马庄东变压器,杨家务水变压器,驸马庄南变压器","poweroffReason":"【停电原因】由于星路建材厂分支３号杆有铁丝搭线导致３５ＫＶ加录变电站１０ＫＶ韩庄５１４线路全线停电 【变更送电】因抢修进度加快原因，送电时间由２３：５９变更为２２：３０ 【发布渠道】通过９５５９８发布","powerTime":"2020-03-29 21:53:17","powerComm":"已送电","subsNo":"","lineNo":"","tgNo":"","tgName":null,"infoStatus":"1","orgName":"国网高碑店市供电公司","typeName":null,"infoStatusName":null,"dateDay":null,"orgNos":null,"nowTime":null,"countyName":null,"streetName":null,"villageName":null,"roadName":null,"communityName":null,"tranName":null,"sdLineName":null,"cityCode":"1340612","cityName":"国网高碑店市供电公司","provinceCode":null,"stopTime":"2020-03-29 22:30:00","powerType":"全部","powerOffArea":"【全线路停电】停薛家营水2变压器【纯农排变】,东加录水6变压器【纯农排变】,东营水变压器【纯农排变】,张贲营水变压器【纯农排变】,高碑店市民政局新城敬老院变压器,高碑店市新城镇张贲营中心小学变压器,西营南,张贲营西水变压器,兀术营北,东加录东变压器,里遗变压器,里遗南变压器,薛辛庄伙变压器,高碑店市电力局变压器,驸马庄路边浇地变压器【纯农排变】,西菜园变压器,驸马庄水3变压器,恩赐庄西变压器,河北创世房地产开发有限公司,张贲营水4变压器,薛辛庄伙水变压器【纯农排变】,东营西水变压器【纯农排变】,兀术营变压器,西加录变压器,高碑店市新城镇东加录中心小学,薛家营水变压器【纯农排变】,东营北变压器,东加录东北水变压器【纯农排变】,东营南水变压器,柳各庄变压器,高碑店市明伟新型建材有限公司2变压器,蔡各庄水变压器【纯农排变】,东加录东1变压器,西营变压器,西加录东南水【纯农排变】,杨家务水3变压器【纯农排变】,东营变压器,兀术营水变压器【纯农排变】,西加录东北水变压器【纯农排变】,驸马庄水变压器,恩赐庄养殖厂,里遗北变压器,客户投资_恩赐庄变压器,白沟通宝海绵纸厂变压器,西菜园西变压器,高碑店市白沟子朝革塑制品有限公司变压器,西营海开变压器【纯农排变】,驸马庄新西,达子营水变压器【纯农排变】,里遗水3变压器【纯农排变】,里遗水变压器【纯农排变】,西菜园水变压器,杨家务水2变压器【纯农排变】,西加录水变压器,东加录水变压器【纯农排变】,高碑店市水力局,薛家营南台变压器,东加录水5变压器【纯农排变】,西菜园北水变压器,柳各庄西南水变压器【纯农排变】,里遗水2变压器【纯农排变】,东加录正东水变压器【纯农排变】,东加录南水变压器【纯农排变】,高碑店市鑫鹿新型建材厂,大陈庄水变压器50【纯农排变】,薛家营变压器,杨家务东台混用变压器,驸马庄西水变压器【纯农排变】,柳各庄水3变压器,高碑店市明伟新型建材有限公司1变压器,驸马庄北地变压器【纯农排变】,高碑店市新城镇总校附马庄幼儿园变压器,张贲营西变压器,高碑店市新城镇杨家务中心小学变压器,付马庄面粉厂,东加录南变压器,西加录北水变压器【纯农排变】,西加录西水变压器【纯农排变】,恩赐庄村3变压器,驸马庄西变压器,张贲营南水变压器【纯农排变】,张贲营水5变压器,中国移动通信集体河北有限公司高碑店分公司,裴永金变压器,张贲营东变压器,驸马庄路边变压器,蔡各庄南,西加录南变压器,杨家务变压器,柳各庄西北水变压器【纯农排变】,东加录变压器,蔡各庄北变压器,0677241775-高碑店市隆顺干混砂浆制造有限公司-专变-217785147-高碑店市隆顺干混砂浆制造有限公司变压器,蔡各庄变压器,西营水变压器【纯农排变】,蔡各庄水2变压器【纯农排变】,石辛庄水2变压器【纯农排变】,柳各庄水变压器,驸马庄东变压器,杨家务水变压器,驸马庄南变压器","powerOffReason":"【停电原因】由于星路建材厂分支３号杆有铁丝搭线导致３５ＫＶ加录变电站１０ＫＶ韩庄５１４线路全线停电 【变更送电】因抢修进度加快原因，送电时间由２３：５９变更为２２：３０ 【发布渠道】通过９５５９８发布","powerOffId":"2020032913000261"},{"poweroffId":2020032913000189,"sgpoweroffId":null,"subsName":"","lineName":"吕村线533","pubTranName":"西城阳6号变压器,东城阳村1#,南林村7#,南林村4#,西城阳村2#,东城阳村3#,台坛村2#,台坛村4#,东城阳4#,台坛村1#,吕村7#变压器,朔内村5#,尉都村7#,沈村3#,朔内村7#,北林村2#,西城阳村1#,东娄山村7#,西城阳村4#,东娄山10号变压器,沈村1#,东娄山村2#,尉都村10号变压器,东娄山村8#,沈村4#,吕村2#,东娄山11号变压器,东城阳村2#,南林村5#,台坛村5#,东娄山村9#,尉都村9#,吕村3#,吕村6#,西城阳村5号,朔内村3#,朔内村2#,台坛7号变压器,北林7#,南林村6#,台坛村6#,北林村6#,南林村3#,朔内村4#,吕村5#,尉都村4#,北林村3#,","scope":"【影响街道/乡镇】尉都乡、塘湖镇【高危重要客户】无【影响客户】尉都村、西城阳村、东城阳村、台坛村、朔内村、东娄山村、孔山村、吕村、南林村、北林村、沈村","startTime":"2020-03-29 16:25:11","stopDate":"2020-03-29 19:30:00","orgNo":"1340625","typeCode":"电网故障停限电","poweroffArea":"【全线路停电】停北林村6#,北林7#,北林村1#【纯农排变】,南林村3#,东城阳村3#,东城阳村1#,东城阳村2#,东城阳4#,东娄山10号变压器,东娄山11号变压器,东娄山村1#,东娄山村5#【纯农排变】,东娄山村8#,东娄山村2#,东娄山村7#,东娄山村9#,东娄山村6#【纯农排变】,孔山村2#村东（农）【纯农排变】,孔山村1#村东（农）【纯农排变】,吕村5#,朔内村7#,吕村1#【纯农排变】,沈村1#,朔内村2#,朔内村3#,,吕村2#,台坛村4#,台坛村2#,台坛村3#【纯农排变】","poweroffReason":"【停电原因】由于主干６７号杆鸟窝搭线导致１１０ＫＶ塘湖变电站吕村５３３线路全线停电【变更送电】因抢修进度加快原因，送电时间由２１：００变更为１９：３０【发布渠道】通过９５５９８发布","powerTime":"2020-03-29 18:59:50","powerComm":"已送电","subsNo":"","lineNo":"","tgNo":"","tgName":null,"infoStatus":"1","orgName":"国网易县供电公司","typeName":null,"infoStatusName":null,"dateDay":null,"orgNos":null,"nowTime":null,"countyName":null,"streetName":null,"villageName":null,"roadName":null,"communityName":null,"tranName":null,"sdLineName":null,"cityCode":"1340625","cityName":"国网易县供电公司","provinceCode":null,"stopTime":"2020-03-29 19:30:00","powerType":"全部","powerOffArea":"【全线路停电】停北林村6#,北林7#,北林村1#【纯农排变】,南林村3#,东城阳村3#,东城阳村1#,东城阳村2#,东城阳4#,东娄山10号变压器,东娄山11号变压器,东娄山村1#,东娄山村5#【纯农排变】,东娄山村8#,东娄山村2#,东娄山村7#,东娄山村9#,东娄山村6#【纯农排变】,孔山村2#村东（农）【纯农排变】,孔山村1#村东（农）【纯农排变】,吕村5#,朔内村7#,吕村1#【纯农排变】,沈村1#,朔内村2#,朔内村3#,,吕村2#,台坛村4#,台坛村2#,台坛村3#【纯农排变】","powerOffReason":"【停电原因】由于主干６７号杆鸟窝搭线导致１１０ＫＶ塘湖变电站吕村５３３线路全线停电【变更送电】因抢修进度加快原因，送电时间由２１：００变更为１９：３０【发布渠道】通过９５５９８发布","powerOffId":"2020032913000189"},{"poweroffId":2020032913000183,"sgpoweroffId":null,"subsName":"","lineName":"坎下线516","pubTranName":"大坎下老道沟,大坎下村,大坎下村东,崔家沟一号,大坎下村西,大坎下庙坡,大坎下村西2号,大坎下村西南,小坨,","scope":"【影响街道/乡镇】白龙乡 【高危重要客户】无 【影响客户】大坎下村、白堡、小坨","startTime":"2020-03-31 07:30:00","stopDate":"2020-04-01 01:00:00","orgNo":"1340617","typeCode":"临时停电","poweroffArea":"【全线路停电】停中交四公局第一工程有限公司250KVA,大坎下东北,汇通路桥建设集团有限公司荣乌高速公路LJSG-9项目经理部,大坎下殷志强,保定东缘果蔬种植有限公司,大坎下4队,汉德经贸,华兴石材厂,大坎下村北,大坎下村西2号,中交四公局第一工程有限公司1000KVA,远达白云山【纯农排变】,满城县大雨水泥砖厂,大坎下庙坡,讯口3号,大坎下村西南,迈瑞达建材2厂,一级扬水站,大坎下北大碾,坎下2级扬水站,满城县汉德鞋厂,大坎下老道沟,崔家沟一号,小坨,建英养鸡场,大坎下村,大坎下村西,大坎下村东,大坎下村南","poweroffReason":"【停电原因】由于变电站施工导致３５ＫＶ龙门变电站坎下线５１６线路全线停电 【变更送电】因抢修进度加快原因，送电时间由０６：００变更为０１：００ 【发布渠道】通过９５５９８发布","powerTime":"2020-04-01 00:23:28","powerComm":"已送电","subsNo":"","lineNo":"","tgNo":"","tgName":null,"infoStatus":"1","orgName":"国网满城县供电公司","typeName":null,"infoStatusName":null,"dateDay":null,"orgNos":null,"nowTime":null,"countyName":null,"streetName":null,"villageName":null,"roadName":null,"communityName":null,"tranName":null,"sdLineName":null,"cityCode":"1340617","cityName":"国网满城县供电公司","provinceCode":null,"stopTime":"2020-04-01 01:00:00","powerType":"全部","powerOffArea":"【全线路停电】停中交四公局第一工程有限公司250KVA,大坎下东北,汇通路桥建设集团有限公司荣乌高速公路LJSG-9项目经理部,大坎下殷志强,保定东缘果蔬种植有限公司,大坎下4队,汉德经贸,华兴石材厂,大坎下村北,大坎下村西2号,中交四公局第一工程有限公司1000KVA,远达白云山【纯农排变】,满城县大雨水泥砖厂,大坎下庙坡,讯口3号,大坎下村西南,迈瑞达建材2厂,一级扬水站,大坎下北大碾,坎下2级扬水站,满城县汉德鞋厂,大坎下老道沟,崔家沟一号,小坨,建英养鸡场,大坎下村,大坎下村西,大坎下村东,大坎下村南","powerOffReason":"【停电原因】由于变电站施工导致３５ＫＶ龙门变电站坎下线５１６线路全线停电 【变更送电】因抢修进度加快原因，送电时间由０６：００变更为０１：００ 【发布渠道】通过９５５９８发布","powerOffId":"2020032913000183"},{"poweroffId":2020032913000181,"sgpoweroffId":null,"subsName":"","lineName":"李庄线515","pubTranName":"北东峪新增1号,北东峪水井,北东峪涝坡,北东峪村北,北东峪村西新增2号,李庄新增,满易公路,北东峪山东,龙门车站新增2 号,北东峪,侯庄村内,李庄村边1号,白龙供电所,龙门车站,李庄村委会,","scope":"【影响街道/乡镇】白龙乡 【高危重要客户】无 【影响客户】北东峪村、李庄村、东龙门村、侯庄、九嘉房地产、龙门水库管理处","startTime":"2020-03-31 07:30:00","stopDate":"2020-04-01 01:00:00","orgNo":"1340617","typeCode":"临时停电","poweroffArea":"【全线路停电】停讯口石厂,森林石材,0695818283-中国移动通信集团河北有限公司满城分公司-专变-240732658-中国移动通信集团河北有限公司满城分公司,讯口岭北,龙门车站新增2 号,保定市龙门水库管理处,东龙门东井,北东峪村,燕南石材三分厂,李庄村西,龙门车站,李庄村南【纯农排变】,北东峪大又岭（农网）【纯农排变】,北东峪村西新增2号,北东峪涝坡,侯庄村内,迅口打井,李庄村委会,北东峪山东,李庄南坡【纯农排变】,河北九嘉房地产开发有限公司2,北东峪东坡【纯农排变】,讯口岭北2号,晟翔采石厂,白龙供电所,河北九嘉房地产开发有限公司1,迅口机井,北东峪村西,北东峪打井,满易公路,李庄北井,李庄岭南,满城县瑞宇荒山开发有限公司,乡大井,北东峪,李庄新增,候庄打井,北东峪水井,李庄村边1号,北东峪新增1号,北东峪村北","poweroffReason":"【停电原因】由于变电站施工导致３５ＫＶ龙门变电站李庄线５１５线路全线停电 【变更送电】因抢修进度加快原因，送电时间由０６：００变更为０１：００ 【发布渠道】通过９５５９８发布","powerTime":"2020-04-01 00:23:54","powerComm":"已送电","subsNo":"","lineNo":"","tgNo":"","tgName":null,"infoStatus":"1","orgName":"国网满城县供电公司","typeName":null,"infoStatusName":null,"dateDay":null,"orgNos":null,"nowTime":null,"countyName":null,"streetName":null,"villageName":null,"roadName":null,"communityName":null,"tranName":null,"sdLineName":null,"cityCode":"1340617","cityName":"国网满城县供电公司","provinceCode":null,"stopTime":"2020-04-01 01:00:00","powerType":"全部","powerOffArea":"【全线路停电】停讯口石厂,森林石材,0695818283-中国移动通信集团河北有限公司满城分公司-专变-240732658-中国移动通信集团河北有限公司满城分公司,讯口岭北,龙门车站新增2 号,保定市龙门水库管理处,东龙门东井,北东峪村,燕南石材三分厂,李庄村西,龙门车站,李庄村南【纯农排变】,北东峪大又岭（农网）【纯农排变】,北东峪村西新增2号,北东峪涝坡,侯庄村内,迅口打井,李庄村委会,北东峪山东,李庄南坡【纯农排变】,河北九嘉房地产开发有限公司2,北东峪东坡【纯农排变】,讯口岭北2号,晟翔采石厂,白龙供电所,河北九嘉房地产开发有限公司1,迅口机井,北东峪村西,北东峪打井,满易公路,李庄北井,李庄岭南,满城县瑞宇荒山开发有限公司,乡大井,北东峪,李庄新增,候庄打井,北东峪水井,李庄村边1号,北东峪新增1号,北东峪村北","powerOffReason":"【停电原因】由于变电站施工导致３５ＫＶ龙门变电站李庄线５１５线路全线停电 【变更送电】因抢修进度加快原因，送电时间由０６：００变更为０１：００ 【发布渠道】通过９５５９８发布","powerOffId":"2020032913000181"},{"poweroffId":2020032913000178,"sgpoweroffId":null,"subsName":"","lineName":"巩庄线514","pubTranName":"白布东院,远达度假村,白堡村东新增,白布粮库2号,白布粮库门口,白布村南,白布龙王庙,白布南关堂,迅口新增,白布南元,白堡村西2号,乡政府新增,野里灰厂,京宇石材厂内（统管）,迅口村东/迅口2号,钟家店村内,钟家店村南,巩庄村南,钟家店新增,白布村西,东院新增,白布乡政府,野里村西,","scope":"【影响街道/乡镇】白龙乡 【高危重要客户】无 【影响客户】巩庄、钟（中）家店、也（野）里、白堡、训口","startTime":"2020-03-31 07:30:00","stopDate":"2020-04-01 01:00:00","orgNo":"1340617","typeCode":"临时停电","poweroffArea":"【全线路停电】停白布砖厂农用变压器,满城县庭院开发,野里灰厂,钟家店村内,富强灰厂,中家店大队,迈瑞达建材1厂,天宇石材,毛儿碾,长江加工厂,钟家店打井（统）,满城县华兴石材厂,白布李家峪,野里村东,白布南元,河北省高速公路荣乌管理处,白布岗头岭,白布南山井,中旺建材厂,野里村南,长江石材,野里村西,白堡村西2号,白布村西,迅口新增,钟家店照明,野里村内,白布连家,钟家店五队,崔路振,白布3和岭,远达度假村,白布南关堂,九龙山,白布12队,白布五分支,白堡吃水井（农网）,白布一分支打井,白布粮库门口,巩庄村南,京宇石材厂内（统管）,中家店打井,讯口2号,白布十四，十五队,石斗儿,野里村南新增,白布东院,巩庄机井,白堡村东新增,坎下村南井,未庄村南井,钟家店村南,巩庄村西2号,白布3分支,三分支双井,白布村南,0387465850-满城县大坎下张石坡石渣厂-专变-45295222-大坎下张石坡石渣厂,也里4队,神星果园,巩庄村西,巩庄村西3号,白布南大棚/毛儿碾,东院新增,钟家店新增,白布乡政府,迅口村东/迅口2号,一分支小井（农网）,白布粮库2号,乡政府新增,白布龙王庙,九龙面粉厂,中国联合网络通信有限公司满城县分,崔青波,野里石厂200KVA配变","poweroffReason":"【停电原因】由于变电站施工导致３５ＫＶ龙门变电站巩庄线５１４线路全线停电 【变更送电】因抢修进度加快原因，送电时间由０６：００变更为０１：００ 【发布渠道】通过９５５９８发布","powerTime":"2020-04-01 00:24:20","powerComm":"已送电","subsNo":"","lineNo":"","tgNo":"","tgName":null,"infoStatus":"1","orgName":"国网满城县供电公司","typeName":null,"infoStatusName":null,"dateDay":null,"orgNos":null,"nowTime":null,"countyName":null,"streetName":null,"villageName":null,"roadName":null,"communityName":null,"tranName":null,"sdLineName":null,"cityCode":"1340617","cityName":"国网满城县供电公司","provinceCode":null,"stopTime":"2020-04-01 01:00:00","powerType":"全部","powerOffArea":"【全线路停电】停白布砖厂农用变压器,满城县庭院开发,野里灰厂,钟家店村内,富强灰厂,中家店大队,迈瑞达建材1厂,天宇石材,毛儿碾,长江加工厂,钟家店打井（统）,满城县华兴石材厂,白布李家峪,野里村东,白布南元,河北省高速公路荣乌管理处,白布岗头岭,白布南山井,中旺建材厂,野里村南,长江石材,野里村西,白堡村西2号,白布村西,迅口新增,钟家店照明,野里村内,白布连家,钟家店五队,崔路振,白布3和岭,远达度假村,白布南关堂,九龙山,白布12队,白布五分支,白堡吃水井（农网）,白布一分支打井,白布粮库门口,巩庄村南,京宇石材厂内（统管）,中家店打井,讯口2号,白布十四，十五队,石斗儿,野里村南新增,白布东院,巩庄机井,白堡村东新增,坎下村南井,未庄村南井,钟家店村南,巩庄村西2号,白布3分支,三分支双井,白布村南,0387465850-满城县大坎下张石坡石渣厂-专变-45295222-大坎下张石坡石渣厂,也里4队,神星果园,巩庄村西,巩庄村西3号,白布南大棚/毛儿碾,东院新增,钟家店新增,白布乡政府,迅口村东/迅口2号,一分支小井（农网）,白布粮库2号,乡政府新增,白布龙王庙,九龙面粉厂,中国联合网络通信有限公司满城县分,崔青波,野里石厂200KVA配变","powerOffReason":"【停电原因】由于变电站施工导致３５ＫＶ龙门变电站巩庄线５１４线路全线停电 【变更送电】因抢修进度加快原因，送电时间由０６：００变更为０１：００ 【发布渠道】通过９５５９８发布","powerOffId":"2020032913000178"},{"poweroffId":2020032913000171,"sgpoweroffId":null,"subsName":"","lineName":"龙门线512","pubTranName":"迅口村北2号,铁钎坨ZB,北水峪村西,南水峪,西龙门北坡,西龙门天梁井,龙门山庄,南水峪新增,东龙门,东龙门村北,迅口村北,","scope":"【影响街道/乡镇】龙门乡 【高危重要客户】无 【影响客户】南水峪村、北水峪村、东龙门村、西龙门村、青山庄、钟家店、雷溪小镇、训口","startTime":"2020-03-31 07:30:00","stopDate":"2020-04-01 01:00:00","orgNo":"1340617","typeCode":"临时停电","poweroffArea":"【全线路停电】停满城县雄飞建材有限公司,西龙门南井2号,满城县喜壮壮养殖专业合作社,南水峪新增,铁钎坨,南水峪,钟家店2队打井【纯农排变】,汇通路桥建设集团有限公司荣乌高速公路LJSG-9项目经理部,东龙门,陈玉祥1号井,北水峪浇地【纯农排变】,南水峪西沟,0387465397-卢锴-专变-45295248-卢铠,铁钎坨ZB,龙门山庄,北水峪机井【纯农排变】,天梁井1号【纯农排变】,满城县雄飞建材有限公司200KVA,迅口村北,西龙门天梁井,玉祥2号,西龙门南井【纯农排变】,北水又村东,东龙门南井2号,财会培训中心2号,满城县白龙乡北水峪村村委会2,北水峪,青山庄,迅口村北2号,满城县城镇市政工程有限公司,康远房地产开发公司,雷溪小镇2号,南水峪黄蓝沟,南水1队,西龙门,雷溪小镇3号,西龙门北坡,东龙门村北,迅口西坡,满城县白龙乡北水峪村民委员2号100KVA,北水峪村西,西龙门打井【纯农排变】,青山庄北井,西龙门北井【纯农排变】,青山庄西井【纯农排变】,青山庄南场,满城县白龙乡北水峪村民委员会1号50KVA,南水峪机井,南水峪（农网）【纯农排变】,南水又北井,东龙门村西井【纯农排变】,钟家店,北水峪杨水站【纯农排变】,东龙门南井,北水峪新增","poweroffReason":"【停电原因】由于变电站施工导致３５ＫＶ龙门变电站龙门线５１２线路全线停电 【变更送电】因抢修进度加快原因，送电时间由０６：００变更为０１：００ 【发布渠道】通过９５５９８发布","powerTime":"2020-04-01 00:24:44","powerComm":"已送电","subsNo":"","lineNo":"","tgNo":"","tgName":null,"infoStatus":"1","orgName":"国网满城县供电公司","typeName":null,"infoStatusName":null,"dateDay":null,"orgNos":null,"nowTime":null,"countyName":null,"streetName":null,"villageName":null,"roadName":null,"communityName":null,"tranName":null,"sdLineName":null,"cityCode":"1340617","cityName":"国网满城县供电公司","provinceCode":null,"stopTime":"2020-04-01 01:00:00","powerType":"全部","powerOffArea":"【全线路停电】停满城县雄飞建材有限公司,西龙门南井2号,满城县喜壮壮养殖专业合作社,南水峪新增,铁钎坨,南水峪,钟家店2队打井【纯农排变】,汇通路桥建设集团有限公司荣乌高速公路LJSG-9项目经理部,东龙门,陈玉祥1号井,北水峪浇地【纯农排变】,南水峪西沟,0387465397-卢锴-专变-45295248-卢铠,铁钎坨ZB,龙门山庄,北水峪机井【纯农排变】,天梁井1号【纯农排变】,满城县雄飞建材有限公司200KVA,迅口村北,西龙门天梁井,玉祥2号,西龙门南井【纯农排变】,北水又村东,东龙门南井2号,财会培训中心2号,满城县白龙乡北水峪村村委会2,北水峪,青山庄,迅口村北2号,满城县城镇市政工程有限公司,康远房地产开发公司,雷溪小镇2号,南水峪黄蓝沟,南水1队,西龙门,雷溪小镇3号,西龙门北坡,东龙门村北,迅口西坡,满城县白龙乡北水峪村民委员2号100KVA,北水峪村西,西龙门打井【纯农排变】,青山庄北井,西龙门北井【纯农排变】,青山庄西井【纯农排变】,青山庄南场,满城县白龙乡北水峪村民委员会1号50KVA,南水峪机井,南水峪（农网）【纯农排变】,南水又北井,东龙门村西井【纯农排变】,钟家店,北水峪杨水站【纯农排变】,东龙门南井,北水峪新增","powerOffReason":"【停电原因】由于变电站施工导致３５ＫＶ龙门变电站龙门线５１２线路全线停电 【变更送电】因抢修进度加快原因，送电时间由０６：００变更为０１：００ 【发布渠道】通过９５５９８发布","powerOffId":"2020032913000171"},{"poweroffId":2020032913000136,"sgpoweroffId":null,"subsName":"","lineName":"10kV535东建阳线","pubTranName":"药刘庄村公用照明一台区,东建阳村公用照明一台区,东建阳公用照明6台区,东建阳公用照明7台区,辛兴公用农业6台区【纯农排变】,辛兴村西变压器,定州市铭顺农产品农民专业合作社变压器,药刘庄公用农业3台区【纯农排变】,辛兴公用农业7台区【纯农排变】,东建阳公用照明9台区,辛兴3台区变压器,辛兴公用照明5台区,东建阳村公用照明四台区,辛兴村公用照明二台区,东建阳公用照明8台区,东建阳村公用照明五台区,辛兴公用照明4台区变压器,东建阳村公用照明二台区,药刘庄公用照明2台区,辛兴公用照明6台区,辛兴村公用照明一台区,小洼里村公用照明一台区,小洼里村公用农业一台区【纯农排变】,小洼里公用照明2台区,东建阳村公用照明三台区,东建阳公用农业9台区【纯农排变】,邢西乾变压器,辛兴公用农业3台区【纯农排变】,药刘庄公用农业4台区【纯农排变】,辛兴公用农业5台区【纯农排变】,东建阳公用农业11台区【纯农排变】,辛兴公用农业2台区【纯农排变】,定州市刘浩养殖场变压器,药刘庄公用农业2台区【纯农排变】,东建阳公用农业10台区【纯农排变】,东建阳公用农业4台区【纯农排变】,药刘庄公用农业1台区【纯农排变】,辛兴公用农业1台区【纯农排变】,辛兴公用农业4台区【纯农排变】,东建阳公用农业12台区【纯农排变】,辛兴公用农业8台区【纯农排变】,东建阳公用农业5台区【纯农排变】,东建阳新占面粉厂,东建阳公用农业7台区【纯农排变】,东建阳公用农业6台区【纯农排变】,定州市慧娴车床加工厂变压器,辛兴公用农业9台区【纯农排变】,东建阳公用农业1台区【纯农排变】,东建阳公用农业2台区【纯农排变】,东建阳公用农业13台区【纯农排变】,东建阳公用农业3台区【纯农排变】,东建阳公用农业8台区【纯农排变】,","scope":"【影响街道/乡镇】杨家庄乡、大鹿庄乡【高危重要客户】无【影响客户】辛兴、药刘庄、小洼里、东建阳","startTime":"2020-03-29 13:40:28","stopDate":"2020-03-29 15:00:00","orgNo":"1340610","typeCode":"电网故障停限电","poweroffArea":"【全线路停电】停药刘庄村公用照明一台区,东建阳村公用照明一台区,东建阳公用照明6台区,东建阳公用照明7台区,辛兴公用农业7台区【纯农排变】,东建阳公用照明9台区,辛兴3台区变压器,辛兴公用照明5台区,东建阳村公用照明四台区,辛兴村公用照明二台区,东建阳公用照明8台区,东建阳村公用照明五台区,辛兴公用照明4台区变压器,东建阳村公用照明二台区,药刘庄公用照明2台区,辛兴公用照明6台区,辛兴村公用照明一台区,小洼里村公用照明一台区,小洼里村公用农业一台区【纯农排变】,小洼里公用照明2台区,东建阳村公用照明三台区,东建阳公用农业9台区【纯农排变】,邢西乾变压器,辛兴公用农业3台区【纯农排变】,药刘庄公用农业4台区【纯农排变】,辛兴公用农业5台区【纯农排变】,辛兴公用农业6台区【纯农排变】,辛兴村西变压器,定州市铭顺农产品农民专业合作社变压器,药刘庄公用农业3台区【纯农排变】,东建阳公用农业11台区【纯农排变】,辛兴公用农业2台区【纯农排变】,东建阳公用农业13台区【纯农排变】,东建阳公用农业3台区【纯农排变】,定州市刘浩养殖场变压器,辛兴公用农业8台区【纯农排变】,东建阳公用农业5台区【纯农排变】,东建阳新占面粉厂,东建阳公用农业7台区【纯农排变】,东建阳公用农业6台区【纯农排变】,定州市慧娴车床加工厂变压器,辛兴公用农业9台区【纯农排变】,东建阳公用农业1台区【纯农排变】,东建阳公用农业2台区【纯农排变】,东建阳公用农业8台区【纯农排变】,药刘庄公用农业2台区【纯农排变】,东建阳公用农业10台区【纯农排变】,东建阳公用农业4台区【纯农排变】,药刘庄公用农业1台区【纯农排变】,辛兴公用农业1台区【纯农排变】,辛兴公用农业4台区【纯农排变】,东建阳公用农业12台区【纯农排变】","poweroffReason":"【停电原因】由于主干２３号杆鸟叼铁丝搭担导致１１０ＫＶ东亭变电站１０ＫＶ５３５东建阳线路全线停电 【变更送电】因抢修进度加快原因，送电时间由２０：００变更为１５：００ 【发布渠道】９５５９８","powerTime":"2020-03-29 14:37:44","powerComm":"已送电","subsNo":"","lineNo":"","tgNo":"","tgName":null,"infoStatus":"1","orgName":"国网定州市供电公司","typeName":null,"infoStatusName":null,"dateDay":null,"orgNos":null,"nowTime":null,"countyName":null,"streetName":null,"villageName":null,"roadName":null,"communityName":null,"tranName":null,"sdLineName":null,"cityCode":"1340610","cityName":"国网定州市供电公司","provinceCode":null,"stopTime":"2020-03-29 15:00:00","powerType":"全部","powerOffArea":"【全线路停电】停药刘庄村公用照明一台区,东建阳村公用照明一台区,东建阳公用照明6台区,东建阳公用照明7台区,辛兴公用农业7台区【纯农排变】,东建阳公用照明9台区,辛兴3台区变压器,辛兴公用照明5台区,东建阳村公用照明四台区,辛兴村公用照明二台区,东建阳公用照明8台区,东建阳村公用照明五台区,辛兴公用照明4台区变压器,东建阳村公用照明二台区,药刘庄公用照明2台区,辛兴公用照明6台区,辛兴村公用照明一台区,小洼里村公用照明一台区,小洼里村公用农业一台区【纯农排变】,小洼里公用照明2台区,东建阳村公用照明三台区,东建阳公用农业9台区【纯农排变】,邢西乾变压器,辛兴公用农业3台区【纯农排变】,药刘庄公用农业4台区【纯农排变】,辛兴公用农业5台区【纯农排变】,辛兴公用农业6台区【纯农排变】,辛兴村西变压器,定州市铭顺农产品农民专业合作社变压器,药刘庄公用农业3台区【纯农排变】,东建阳公用农业11台区【纯农排变】,辛兴公用农业2台区【纯农排变】,东建阳公用农业13台区【纯农排变】,东建阳公用农业3台区【纯农排变】,定州市刘浩养殖场变压器,辛兴公用农业8台区【纯农排变】,东建阳公用农业5台区【纯农排变】,东建阳新占面粉厂,东建阳公用农业7台区【纯农排变】,东建阳公用农业6台区【纯农排变】,定州市慧娴车床加工厂变压器,辛兴公用农业9台区【纯农排变】,东建阳公用农业1台区【纯农排变】,东建阳公用农业2台区【纯农排变】,东建阳公用农业8台区【纯农排变】,药刘庄公用农业2台区【纯农排变】,东建阳公用农业10台区【纯农排变】,东建阳公用农业4台区【纯农排变】,药刘庄公用农业1台区【纯农排变】,辛兴公用农业1台区【纯农排变】,辛兴公用农业4台区【纯农排变】,东建阳公用农业12台区【纯农排变】","powerOffReason":"【停电原因】由于主干２３号杆鸟叼铁丝搭担导致１１０ＫＶ东亭变电站１０ＫＶ５３５东建阳线路全线停电 【变更送电】因抢修进度加快原因，送电时间由２０：００变更为１５：００ 【发布渠道】９５５９８","powerOffId":"2020032913000136"}],"pageModel":{"pageNow":216,"totalCount":10973,"totalPage":1098,"tableRows":0,"pageCount":10,"beginCount":2150},"isExperi":"1"}