{"message":"","today":"2020-06-15","seleList":[{"poweroffId":2020032913000094,"sgpoweroffId":null,"subsName":"","lineName":"10kV552三岗线","pubTranName":"滑岗综合9台区,滑岗农排7台区【纯农排变】,滑岗综合4台区,滑岗综合1台区,滑岗综合8台区,滑岗综合10台区,滑岗综合7台区,滑岗综合6台区,滑岗农排13台区【纯农排变】,滑岗粉厂（西南）,滑岗综合2台区,滑岗农排6台区【纯农排变】,滑岗小学综合11台区柱上变压器,滑岗农排4台区【纯农排变】,","scope":"【影响街道/乡镇】南庄镇【高危重要客户】无【影响客户】滑岗村","startTime":"2020-04-07 06:00:00","stopDate":"2020-04-07 18:00:00","orgNo":"1340616","typeCode":"计划停电","poweroffArea":"【分支停电】停滑岗综合4台区,滑岗综合1台区,滑岗综合8台区,滑岗综合10台区,滑岗综合7台区,滑岗综合6台区,滑岗农排13台区【纯农排变】,滑岗粉厂（西南）,滑岗综合2台区,滑岗农排6台区【纯农排变】,滑岗小学综合11台区柱上变压器,滑岗农排4台区【纯农排变】,滑岗综合9台区,滑岗农排7台区【纯农排变】","poweroffReason":"【停电原因】由于更换低压电杆、更换低压导线导致１１０ＫＶ南庄变电站１０ＫＶ三岗５５２线路５５号杆０３号开关０３刀闸以下停电【变更送电】无【发布渠道】河北省保定市蠡县电视台（０３月２９日至０４月０６日２０：００至２２：００之间）屏幕上方滚动","powerTime":"2020-04-07 17:51:40","powerComm":"已送电","subsNo":"","lineNo":"","tgNo":"","tgName":null,"infoStatus":"1","orgName":"国网蠡县供电公司","typeName":null,"infoStatusName":null,"dateDay":null,"orgNos":null,"nowTime":null,"countyName":null,"streetName":null,"villageName":null,"roadName":null,"communityName":null,"tranName":null,"sdLineName":null,"cityCode":"1340616","cityName":"国网蠡县供电公司","provinceCode":null,"stopTime":"2020-04-07 18:00:00","powerType":"全部","powerOffArea":"【分支停电】停滑岗综合4台区,滑岗综合1台区,滑岗综合8台区,滑岗综合10台区,滑岗综合7台区,滑岗综合6台区,滑岗农排13台区【纯农排变】,滑岗粉厂（西南）,滑岗综合2台区,滑岗农排6台区【纯农排变】,滑岗小学综合11台区柱上变压器,滑岗农排4台区【纯农排变】,滑岗综合9台区,滑岗农排7台区【纯农排变】","powerOffReason":"【停电原因】由于更换低压电杆、更换低压导线导致１１０ＫＶ南庄变电站１０ＫＶ三岗５５２线路５５号杆０３号开关０３刀闸以下停电【变更送电】无【发布渠道】河北省保定市蠡县电视台（０３月２９日至０４月０６日２０：００至２２：００之间）屏幕上方滚动","powerOffId":"2020032913000094"},{"poweroffId":2020032913000027,"sgpoweroffId":null,"subsName":"","lineName":"许庄564","pubTranName":"保定圣亚凯特商贸有限公司,高碑店市白沟王海水铝塑门窗店变压器,高碑店市鸿鹏箱包有限公司变压器,变压器250,吴成勇,李双来,变压器-067,0669288984-保定白沟新城旺百伦物业服务公司-专变-212144004-变压器,旭昇小学变压器,森贝变压器,鑫汇压铸厂,时飞,0741304030-河北鹏润房地产开发有限公司01,保定洁聪箱包配件制造有限公司,周素清,鸿鹏箱包有限公司02,保定九营箱包制造有限公司变压器,变压器-070,藏春田,变压器-068,变压器-069,保定白沟新城建明箱包配件厂变压器,高碑店市金利达革塑有限责任公司变压器,0741304030-河北鹏润房地产开发有限公司02,变压器,0490434431-高碑店市鸿鹏箱包有限公司01,0490434431-高碑店市鸿鹏箱包有限公司02,变压器400,鸿鹏箱包有限公司01,","scope":"【影响街道/乡镇】白沟镇、兴盛大街、北环路 【高危重要客户】无 【影响客户】工业园区、保定泰祥富娱乐服务有限公司、河北金利达革塑有限责任公司(生活区)、白沟王海水铝塑门窗店、河北春丽皮具有限公司、保定铂耀箱包制造有限公司、时飞、恒隆物业、李双来、吴成勇、鑫汇压铸厂、藏春田、高碑店市鸿鹏箱包有限公司、周素清、蓝末、河北广电网络集团、保定卓华箱包配件制造有限公司、白沟新城旭昇小学、鸿鹏、白沟新城建明箱包配件厂、保定九营箱包制造有限公司、互赢物业、白沟成正物业(名典苑小区)、陈建坤、张建坡、张洪良、白沟爱神箱包、张慧、李永旺","startTime":"2020-03-29 07:00:00","stopDate":"2020-03-29 12:00:00","orgNo":"1340612","typeCode":"其他临时停电","poweroffArea":"【全线路停电】停0741304030-河北鹏润房地产开发有限公司01,0490434431-高碑店市鸿鹏箱包有限公司01,0490434431-高碑店市鸿鹏箱包有限公司02,变压器400,鸿鹏箱包有限公司01,保定圣亚凯特商贸有限公司,高碑店市白沟王海水铝塑门窗店变压器,高碑店市鸿鹏箱包有限公司变压器,变压器250,吴成勇,李双来,变压器-067,0669288984-保定白沟新城旺百伦物业服务公司-专变-212144004-变压器,旭昇小学变压器,森贝变压器,鑫汇压铸厂,时飞,保定洁聪箱包配件制造有限公司,周素清,鸿鹏箱包有限公司02,保定九营箱包制造有限公司变压器,变压器-070,藏春田,变压器-068,变压器,变压器-069,保定白沟新城建明箱包配件厂变压器,高碑店市金利达革塑有限责任公司变压器,0741304030-河北鹏润房地产开发有限公司02","poweroffReason":"【停电原因】由于刀闸打火需紧急处理导致１１０ＫＶ南留变电站１０ＫＶ许庄５６４线路全线停电 【变更送电】无 【发布渠道】通过９５５９８发布","powerTime":"2020-03-29 11:53:59","powerComm":"已送电","subsNo":"","lineNo":"","tgNo":"","tgName":null,"infoStatus":"1","orgName":"国网高碑店市供电公司","typeName":null,"infoStatusName":null,"dateDay":null,"orgNos":null,"nowTime":null,"countyName":null,"streetName":null,"villageName":null,"roadName":null,"communityName":null,"tranName":null,"sdLineName":null,"cityCode":"1340612","cityName":"国网高碑店市供电公司","provinceCode":null,"stopTime":"2020-03-29 12:00:00","powerType":"全部","powerOffArea":"【全线路停电】停0741304030-河北鹏润房地产开发有限公司01,0490434431-高碑店市鸿鹏箱包有限公司01,0490434431-高碑店市鸿鹏箱包有限公司02,变压器400,鸿鹏箱包有限公司01,保定圣亚凯特商贸有限公司,高碑店市白沟王海水铝塑门窗店变压器,高碑店市鸿鹏箱包有限公司变压器,变压器250,吴成勇,李双来,变压器-067,0669288984-保定白沟新城旺百伦物业服务公司-专变-212144004-变压器,旭昇小学变压器,森贝变压器,鑫汇压铸厂,时飞,保定洁聪箱包配件制造有限公司,周素清,鸿鹏箱包有限公司02,保定九营箱包制造有限公司变压器,变压器-070,藏春田,变压器-068,变压器,变压器-069,保定白沟新城建明箱包配件厂变压器,高碑店市金利达革塑有限责任公司变压器,0741304030-河北鹏润房地产开发有限公司02","powerOffReason":"【停电原因】由于刀闸打火需紧急处理导致１１０ＫＶ南留变电站１０ＫＶ许庄５６４线路全线停电 【变更送电】无 【发布渠道】通过９５５９８发布","powerOffId":"2020032913000027"},{"poweroffId":2020032913000024,"sgpoweroffId":null,"subsName":"","lineName":"工业园563","pubTranName":"保定白沟新城旺百伦物业服务有限公司变压器,昊明皮革200,高碑店市白沟永兴革业有限责任公司变压器,张军变压器,久鼎鑫电气变台,梁国兴变台,王秋生变台,时艳清1,仙迪皮具厂,侯大午,保定牧森箱包制造有限公司,张志兴,杨书江变压器,五一路公变,露易豪丹皮具有限公司变台,0549631983-保定互赢物业服务有限公司-专变-127156794-变压器1,变压器500,保定白沟新城慈仁中医院变压器,变压器,保定永猛商贸有限公司变压器,保定白沟新城崔文箱包配件厂变压器,保定白沟新城玲勇日用百货商行,白沟新城规划建设局五一路2号路灯,于振,王洪峰,西江环保变压器,市政路灯变台2,焦桂玲,变压器400,保定白沟新城互相居民服务部,庞大力变压器,赵建辉,马春友,汽贸城5小区,回顺民,李立民,尤铁冀,保定途洒箱包制造有限公司,宋章平100,昊明皮革,河北祥宏箱包配件制造有限公司变压器,张利民,洪峰工业有限公司变台,王路政,京白路3号公变,杨文革,王建国,王新学,路灯,高文宝变压器,郎景亮,卡迪兰变压器,保定白沟新城圣乾箱包配件加工厂变压器,张春来,高恩晋,","scope":"【影响街道/乡镇】白沟镇、五一东路、兴盛大街 【高危重要客户】无 【影响客户】工业园区、白沟盛泰罗箱包制品有限公司、恒益物业、鑫纳箱包制造有限公司、铭磊加油站、雄皓箱包、静超织绳厂、布拉诺塑胶制造有限公司、河北西江环保科技有限公司、白沟吉忠热力有限责任公司、姜德强、杨书江、贯士威、梦思旅箱包制品厂、白沟爱神箱包、中国铁塔股份有限公司保定市分公司、保定开拓精密仪器制造有限责任公司、高文宝、中拓河北乳胶科技发展有限公司、赵建辉、谭文远、杨文革、河北达辉皮革制品有限公司、王新学、张志兴、空中鸟皮具有限公司、马春友、尤铁冀改宋秀实业、侯大午、广顺箱包工业、宋章平、焦桂玲、张利民、高恩晋、河北昊明人造皮革有限公司、善泽物业、保定奥宝特皮具工贸有限公司、汽贸城小区、王建国、白沟春彩皮具厂、保定烁格织带有限公司、卡迪兰皮具有限公司、张军、白沟永兴革业有限责任公司、梁国兴、白沟市政公司、保定市洪峰工业有限公司、崔文、保定白沟俊曦箱包加工厂、哈密袋鼠皮具有限公司、保定白沟新城川冀酒店","startTime":"2020-03-29 07:00:00","stopDate":"2020-03-29 12:00:00","orgNo":"1340612","typeCode":"其他临时停电","poweroffArea":"【全线路停电】停五一路公变,露易豪丹皮具有限公司变台,0549631983-保定互赢物业服务有限公司-专变-127156794-变压器1,变压器500,保定白沟新城慈仁中医院变压器,变压器,保定永猛商贸有限公司变压器,保定白沟新城崔文箱包配件厂变压器,保定白沟新城玲勇日用百货商行,白沟新城规划建设局五一路2号路灯,保定白沟新城旺百伦物业服务有限公司变压器,昊明皮革200,仙迪皮具厂,侯大午,保定牧森箱包制造有限公司,张志兴,杨书江变压器,高碑店市白沟永兴革业有限责任公司变压器,张军变压器,久鼎鑫电气变台,梁国兴变台,王秋生变台,时艳清1,于振,王洪峰,西江环保变压器,市政路灯变台2,焦桂玲,变压器400,保定白沟新城互相居民服务部,庞大力变压器,赵建辉,马春友,汽贸城5小区,回顺民,李立民,尤铁冀,保定途洒箱包制造有限公司,宋章平100,昊明皮革,河北祥宏箱包配件制造有限公司变压器,张利民,洪峰工业有限公司变台,王路政,王新学,路灯,高文宝变压器,郎景亮,卡迪兰变压器,保定白沟新城圣乾箱包配件加工厂变压器,张春来,京白路3号公变,杨文革,王建国,高恩晋","poweroffReason":"【停电原因】由于刀闸打火需紧急处理导致１１０ＫＶ南留变电站１０ＫＶ工业园５６３线路全线停电 【变更送电】无 【发布渠道】通过９５５９８发布","powerTime":"2020-03-29 11:54:21","powerComm":"已送电","subsNo":"","lineNo":"","tgNo":"","tgName":null,"infoStatus":"1","orgName":"国网高碑店市供电公司","typeName":null,"infoStatusName":null,"dateDay":null,"orgNos":null,"nowTime":null,"countyName":null,"streetName":null,"villageName":null,"roadName":null,"communityName":null,"tranName":null,"sdLineName":null,"cityCode":"1340612","cityName":"国网高碑店市供电公司","provinceCode":null,"stopTime":"2020-03-29 12:00:00","powerType":"全部","powerOffArea":"【全线路停电】停五一路公变,露易豪丹皮具有限公司变台,0549631983-保定互赢物业服务有限公司-专变-127156794-变压器1,变压器500,保定白沟新城慈仁中医院变压器,变压器,保定永猛商贸有限公司变压器,保定白沟新城崔文箱包配件厂变压器,保定白沟新城玲勇日用百货商行,白沟新城规划建设局五一路2号路灯,保定白沟新城旺百伦物业服务有限公司变压器,昊明皮革200,仙迪皮具厂,侯大午,保定牧森箱包制造有限公司,张志兴,杨书江变压器,高碑店市白沟永兴革业有限责任公司变压器,张军变压器,久鼎鑫电气变台,梁国兴变台,王秋生变台,时艳清1,于振,王洪峰,西江环保变压器,市政路灯变台2,焦桂玲,变压器400,保定白沟新城互相居民服务部,庞大力变压器,赵建辉,马春友,汽贸城5小区,回顺民,李立民,尤铁冀,保定途洒箱包制造有限公司,宋章平100,昊明皮革,河北祥宏箱包配件制造有限公司变压器,张利民,洪峰工业有限公司变台,王路政,王新学,路灯,高文宝变压器,郎景亮,卡迪兰变压器,保定白沟新城圣乾箱包配件加工厂变压器,张春来,京白路3号公变,杨文革,王建国,高恩晋","powerOffReason":"【停电原因】由于刀闸打火需紧急处理导致１１０ＫＶ南留变电站１０ＫＶ工业园５６３线路全线停电 【变更送电】无 【发布渠道】通过９５５９８发布","powerOffId":"2020032913000024"},{"poweroffId":2020032913000022,"sgpoweroffId":null,"subsName":"","lineName":"备用571","pubTranName":"许庄北,许庄东,许庄北2,许庄西,许庄中,许庄西2,","scope":"【影响街道/乡镇】白沟镇、兴盛大街、团结东路 【高危重要客户】名典苑小区 【影响客户】工业园区、互赢物业、中国建设银行保定分行、白沟成正物业、陈建坤、张建坡、保定森腾皮具制造有限公司、李永旺、魏双喜、王秋生、张洪良、张慧、力皇胶带厂","startTime":"2020-03-29 07:00:00","stopDate":"2020-03-29 12:00:00","orgNo":"1340612","typeCode":"其他临时停电","poweroffArea":"【全线路停电】停鹏润名典苑2,许庄安置区3-2变压器,规划建设局（兴胜街路灯）变压器,张建坡变压器,0628815404-保定润和房地产开发有限公司中天鞋城-专变-141336151-变压器,许庄北,许庄东,鹏润名典苑1,许庄北2,许庄西,工业园区路灯3-3,许庄安置区3-1变压器,许庄安置区2变压器,0552299974-高碑店市白沟镇许庄村(许庄安置小区)-专变-50703846-高碑店市白沟镇许庄村（许庄安置小区）变压器,河北鹏润房地产开发有限公司（美墅家）变压器,变压器-040,保定富地城房地产开发有限公司,变压器500,许庄中,保定白沟新城博炎箱包配件加工厂,天棚500,变压器-041,变压器400,许庄安置区4变压器,张洪良,保定白沟联兴塑料批发行变压器,许庄西2,保定白沟新城中茂箱包配件加工厂变压器","poweroffReason":"【停电原因】由于刀闸打火需紧急处理导致１１０ＫＶ南留变电站１０ＫＶ备用５７１线路全线停电 【变更送电】无 【发布渠道】通过９５５９８发布","powerTime":"2020-03-29 11:54:50","powerComm":"已送电","subsNo":"","lineNo":"","tgNo":"","tgName":null,"infoStatus":"1","orgName":"国网高碑店市供电公司","typeName":null,"infoStatusName":null,"dateDay":null,"orgNos":null,"nowTime":null,"countyName":null,"streetName":null,"villageName":null,"roadName":null,"communityName":null,"tranName":null,"sdLineName":null,"cityCode":"1340612","cityName":"国网高碑店市供电公司","provinceCode":null,"stopTime":"2020-03-29 12:00:00","powerType":"全部","powerOffArea":"【全线路停电】停鹏润名典苑2,许庄安置区3-2变压器,规划建设局（兴胜街路灯）变压器,张建坡变压器,0628815404-保定润和房地产开发有限公司中天鞋城-专变-141336151-变压器,许庄北,许庄东,鹏润名典苑1,许庄北2,许庄西,工业园区路灯3-3,许庄安置区3-1变压器,许庄安置区2变压器,0552299974-高碑店市白沟镇许庄村(许庄安置小区)-专变-50703846-高碑店市白沟镇许庄村（许庄安置小区）变压器,河北鹏润房地产开发有限公司（美墅家）变压器,变压器-040,保定富地城房地产开发有限公司,变压器500,许庄中,保定白沟新城博炎箱包配件加工厂,天棚500,变压器-041,变压器400,许庄安置区4变压器,张洪良,保定白沟联兴塑料批发行变压器,许庄西2,保定白沟新城中茂箱包配件加工厂变压器","powerOffReason":"【停电原因】由于刀闸打火需紧急处理导致１１０ＫＶ南留变电站１０ＫＶ备用５７１线路全线停电 【变更送电】无 【发布渠道】通过９５５９８发布","powerOffId":"2020032913000022"},{"poweroffId":2020032913000019,"sgpoweroffId":null,"subsName":"","lineName":"兴胜579","pubTranName":"天鹏5,变压器-063,保定白沟新城隆盈星肉食加工厂,赵建辉2变压器02,变压器5,鑫亿顺达箱包变压器,变压器-062,0675891037-保定白沟新城培京小学-专变-216214618-变压器,保定白沟新城鑫傲峰箱包厂,顾翠平02,圣大蒂诺皮具厂变台,李玉亮,高碑店市鸿鹏箱包有限公司变压器,丽都变压器,保定博成箱包制造有限公司变压器,赵建辉2变压器01,保定互赢物业服务有限责任公司,保定白沟长盛客运有限责任公司,马德群,许庄东2,变压器-066,变压器8,变压器,工业园区路灯2-1,变压器6,变压器3,保定弘图白沟垃圾综合处理厂,保定白沟新城规划建设局(团结路路灯)变压器,金利达革塑有限公司变压器01,许庄变电站,0649259959-保定泰荣房地产开发有限公司(秀水鼎居小区)-专变-174173550-变压器,白沟新城味蜀吾火锅店变压器,鹏鼎变压器,天鹏4,变压器7,贸正变压器,张建明（白沟自来水厂）,金利达革塑有限公司变压器02,变压器4,丽都公寓,变压器-065,保定白沟太强五金压铸有限公司,变压器2,变压器-064,顾翠平01,变压器1,白沟新城规划建设局五一路3号路灯,","scope":"【影响街道/乡镇】白沟镇、兴盛大街、滨水路 【高危重要客户】无 【影响客户】许庄村、许庄安置区、金孔雀小区、秀水鼎居小区、丽都公寓小区、河道国际电商产业园、消防中队、培京小学、金利达、富尊工业园、魅力金座、鑫天鹏、肖铁扣、贸正劳保用品有限公司、天德检测站、马德群、圣大蒂诺、许宝军、赵建辉、付玉、李玉亮","startTime":"2020-03-29 07:00:00","stopDate":"2020-03-29 12:00:00","orgNo":"1340612","typeCode":"其他临时停电","poweroffArea":"【全线路停电】停许庄东2,变压器-066,变压器8,变压器,工业园区路灯2-1,变压器6,变压器3,保定弘图白沟垃圾综合处理厂,保定白沟新城规划建设局(团结路路灯)变压器,金利达革塑有限公司变压器01,许庄变电站,0649259959-保定泰荣房地产开发有限公司(秀水鼎居小区)-专变-174173550-变压器,白沟新城味蜀吾火锅店变压器,鹏鼎变压器,天鹏4,变压器7,0675891037-保定白沟新城培京小学-专变-216214618-变压器,保定白沟新城鑫傲峰箱包厂,顾翠平02,圣大蒂诺皮具厂变台,李玉亮,高碑店市鸿鹏箱包有限公司变压器,丽都变压器,白沟新城规划建设局五一路3号路灯,保定博成箱包制造有限公司变压器,变压器-063,天鹏5,保定白沟新城隆盈星肉食加工厂,赵建辉2变压器02,变压器5,鑫亿顺达箱包变压器,变压器-062,赵建辉2变压器01,保定互赢物业服务有限责任公司,保定白沟长盛客运有限责任公司,变压器2,贸正变压器,张建明（白沟自来水厂）,金利达革塑有限公司变压器02,变压器4,丽都公寓,变压器-065,保定白沟太强五金压铸有限公司,变压器-064,顾翠平01,变压器1,马德群","poweroffReason":"【停电原因】由于刀闸打火需紧急处理导致１１０ＫＶ南留变电站１０ＫＶ兴胜５７９线路全线停电 【变更送电】无 【发布渠道】通过９５５９８发布","powerTime":"2020-03-29 11:55:31","powerComm":"已送电","subsNo":"","lineNo":"","tgNo":"","tgName":null,"infoStatus":"1","orgName":"国网高碑店市供电公司","typeName":null,"infoStatusName":null,"dateDay":null,"orgNos":null,"nowTime":null,"countyName":null,"streetName":null,"villageName":null,"roadName":null,"communityName":null,"tranName":null,"sdLineName":null,"cityCode":"1340612","cityName":"国网高碑店市供电公司","provinceCode":null,"stopTime":"2020-03-29 12:00:00","powerType":"全部","powerOffArea":"【全线路停电】停许庄东2,变压器-066,变压器8,变压器,工业园区路灯2-1,变压器6,变压器3,保定弘图白沟垃圾综合处理厂,保定白沟新城规划建设局(团结路路灯)变压器,金利达革塑有限公司变压器01,许庄变电站,0649259959-保定泰荣房地产开发有限公司(秀水鼎居小区)-专变-174173550-变压器,白沟新城味蜀吾火锅店变压器,鹏鼎变压器,天鹏4,变压器7,0675891037-保定白沟新城培京小学-专变-216214618-变压器,保定白沟新城鑫傲峰箱包厂,顾翠平02,圣大蒂诺皮具厂变台,李玉亮,高碑店市鸿鹏箱包有限公司变压器,丽都变压器,白沟新城规划建设局五一路3号路灯,保定博成箱包制造有限公司变压器,变压器-063,天鹏5,保定白沟新城隆盈星肉食加工厂,赵建辉2变压器02,变压器5,鑫亿顺达箱包变压器,变压器-062,赵建辉2变压器01,保定互赢物业服务有限责任公司,保定白沟长盛客运有限责任公司,变压器2,贸正变压器,张建明（白沟自来水厂）,金利达革塑有限公司变压器02,变压器4,丽都公寓,变压器-065,保定白沟太强五金压铸有限公司,变压器-064,顾翠平01,变压器1,马德群","powerOffReason":"【停电原因】由于刀闸打火需紧急处理导致１１０ＫＶ南留变电站１０ＫＶ兴胜５７９线路全线停电 【变更送电】无 【发布渠道】通过９５５９８发布","powerOffId":"2020032913000019"},{"poweroffId":2020032913000014,"sgpoweroffId":null,"subsName":"","lineName":"10KV向阳518","pubTranName":"南营村西内变压器柱变增,","scope":"【影响街道/乡镇】东仙坡镇 【高危重要客户】无 【影响客户】南营村","startTime":"2020-03-29 04:33:00","stopDate":"2020-03-29 09:30:00","orgNo":"1340626","typeCode":"电网故障停限电","poweroffArea":"【单台区停电】停南营村西内变压器柱变增","poweroffReason":"【停电原因】由于低压开关烧毁导致１１０ＫＶ下胡良变电站１０ＫＶ向阳５１８线路南营村西内公变台区停电 【变更送电】因抢修进度加快原因，送电时间由１０：００变更为０９：３０ 【发布渠道】通过９５５９８发布","powerTime":"2020-03-29 08:51:19","powerComm":"恢复送电","subsNo":"","lineNo":"","tgNo":"","tgName":null,"infoStatus":"1","orgName":"国网涿州市供电公司","typeName":null,"infoStatusName":null,"dateDay":null,"orgNos":null,"nowTime":null,"countyName":null,"streetName":null,"villageName":null,"roadName":null,"communityName":null,"tranName":null,"sdLineName":null,"cityCode":"1340626","cityName":"国网涿州市供电公司","provinceCode":null,"stopTime":"2020-03-29 09:30:00","powerType":"全部","powerOffArea":"【单台区停电】停南营村西内变压器柱变增","powerOffReason":"【停电原因】由于低压开关烧毁导致１１０ＫＶ下胡良变电站１０ＫＶ向阳５１８线路南营村西内公变台区停电 【变更送电】因抢修进度加快原因，送电时间由１０：００变更为０９：３０ 【发布渠道】通过９５５９８发布","powerOffId":"2020032913000014"},{"poweroffId":2020032813000145,"sgpoweroffId":null,"subsName":"","lineName":"郭村线513","pubTranName":"招庄混3配变,","scope":"【影响街道/乡镇】寺庄乡　 【高危重要客户】无　　 【影响客户】招庄","startTime":"2020-03-29 01:00:00","stopDate":"2020-03-29 05:00:00","orgNo":"1340623","typeCode":"其他临时停电","poweroffArea":"【单台区停电】停招庄混3配变","poweroffReason":"【停电原因】由于ＪＰ柜断路器发热，需停电进行紧急消缺导致３５ＫＶ白岳变电站郭村线５１３线路招庄混３公变台区停电 【变更送电】无 【发布渠道】通过９５５９８发布","powerTime":"2020-03-29 04:04:41","powerComm":"已送电","subsNo":"","lineNo":"","tgNo":"","tgName":null,"infoStatus":"1","orgName":"国网望都县供电公司","typeName":null,"infoStatusName":null,"dateDay":null,"orgNos":null,"nowTime":null,"countyName":null,"streetName":null,"villageName":null,"roadName":null,"communityName":null,"tranName":null,"sdLineName":null,"cityCode":"1340623","cityName":"国网望都县供电公司","provinceCode":null,"stopTime":"2020-03-29 05:00:00","powerType":"全部","powerOffArea":"【单台区停电】停招庄混3配变","powerOffReason":"【停电原因】由于ＪＰ柜断路器发热，需停电进行紧急消缺导致３５ＫＶ白岳变电站郭村线５１３线路招庄混３公变台区停电 【变更送电】无 【发布渠道】通过９５５９８发布","powerOffId":"2020032813000145"},{"poweroffId":2020032813000131,"sgpoweroffId":null,"subsName":"","lineName":"市区520","pubTranName":"火车站箱变间隔配电变压器,","scope":"【影响街道/乡镇】107国道、团结路、迎宾路、京广南大街 【高危重要客户】无 【影响客户】玖玖公寓、家兴商贸集团、汽车二队小区、祥和鑫园小区、天津肯德基、一百号、农行小区、家兴南库家属楼、粮局家属楼、火车站、家兴精品酒店、南市场、电影院平房家属院、家兴1959酒店、喜悦轩酒店、军隆公司、和平路派出所、顺新国美、海韵花园","startTime":"2020-03-28 18:42:31","stopDate":"2020-03-29 02:00:00","orgNo":"1340612","typeCode":"电网故障停限电","poweroffArea":"【分支停电】停河北喜悦轩酒店管理有限公司4,河北喜悦轩酒店管理有限公司3,河北喜悦轩酒店管理有限公司1,河北喜悦轩酒店管理有限公司2,河北家兴商贸集团有限公司变压器,火车站箱变间隔配电变压器,祥和鑫园小区,玖玖公寓,家兴商厦,0737321919-河北家兴商贸集团有限公司02,河北家兴商贸集团有限公司01,一百号路灯","poweroffReason":"【停电原因】由于文明路分支０２号分支箱烧坏导致２２０ＫＶ高碑店变电站１０ＫＶ市区５２０线路０２号断路器以下停电 【变更送电】因抢修进度加快原因，送电时间由０３：００变更为０２：００ 【发布渠道】通过９５５９８发布","powerTime":"2020-03-29 01:29:03","powerComm":"已送电","subsNo":"","lineNo":"","tgNo":"","tgName":null,"infoStatus":"1","orgName":"国网高碑店市供电公司","typeName":null,"infoStatusName":null,"dateDay":null,"orgNos":null,"nowTime":null,"countyName":null,"streetName":null,"villageName":null,"roadName":null,"communityName":null,"tranName":null,"sdLineName":null,"cityCode":"1340612","cityName":"国网高碑店市供电公司","provinceCode":null,"stopTime":"2020-03-29 02:00:00","powerType":"全部","powerOffArea":"【分支停电】停河北喜悦轩酒店管理有限公司4,河北喜悦轩酒店管理有限公司3,河北喜悦轩酒店管理有限公司1,河北喜悦轩酒店管理有限公司2,河北家兴商贸集团有限公司变压器,火车站箱变间隔配电变压器,祥和鑫园小区,玖玖公寓,家兴商厦,0737321919-河北家兴商贸集团有限公司02,河北家兴商贸集团有限公司01,一百号路灯","powerOffReason":"【停电原因】由于文明路分支０２号分支箱烧坏导致２２０ＫＶ高碑店变电站１０ＫＶ市区５２０线路０２号断路器以下停电 【变更送电】因抢修进度加快原因，送电时间由０３：００变更为０２：００ 【发布渠道】通过９５５９８发布","powerOffId":"2020032813000131"},{"poweroffId":2020032813000112,"sgpoweroffId":null,"subsName":"","lineName":"柠檬酸513","pubTranName":"江城东队1号,江城东队面粉厂,江西2号,66105部队,张辛庄新增,保定市新市区江城乡江城西队,刘庄(统管),吴庄1号,江东3号,张辛庄村委会（统管）,张辛庄4号,江城东队小学（统管）,东苟3号,江城东队村北,联凯印务,张辛庄,江西5号,张辛庄北新增农业【纯农排变】,保定市华成生态养殖有限公司,江城西队新增6号（统管）,江西四号(统管),保定市新市区江城乡玉兰饭店,张辛庄村内(统管),张辛庄1号,江东6号,刘庄6号,江西10号,东苟新增5号（统管）,江城西队小学（统管）,江城东队村委会,吴庄村内,江城东队村内四号(统管),张新庄村委会新增,张辛庄北新增（农网）【纯农排变】,远东织布,江东8号,0639431682-保定市鑫宇印刷有限公司-专变-148817389-保定市鑫宇印刷有限公司,时代印刷厂,刘庄1号,吴庄3号,贝蒂斯风电配套,刘庄大队广场（统管）,保定市新市区金海茶艺,江城东队7号,江西3号,上海和达汽车配件有限公司保定分公司,江城东队九号,吴庄4号,吴庄村学校新增（统管）,刘庄小学（统管）,肠衣厂,东苟新增4号【纯农排变】,保定霍亮清运有限公司,石庄14号,江城西队,刘庄2号,吴庄村(统管),江西7号,刘庄道边,河北鼎悦通信科技有限公司,江东蔬菜基地,张辛庄5号,盛日复膜厂,刘庄3号,粉丝厂,","scope":"【影响街道/乡镇】江城乡 【高危重要客户】无 【影响客户】江城东队、江城西队、刘庄、吴庄、张辛庄、阳光花园","startTime":"2020-03-28 17:52:36","stopDate":"2020-03-29 01:00:00","orgNo":"1340617","typeCode":"电网故障停限电","poweroffArea":"【全线路停电】停张辛庄,江城东队7号,江城东队九号,吴庄村学校新增（统管）,江城东队村北,66105部队,保定市新市区金海茶艺,联凯印务,江城西队,保定市新市区江城乡江城西队,江城西队小学（统管）,江城东队村委会,刘庄小学（统管）,东苟新增5号（统管）,刘庄道边,吴庄1号,张辛庄新增,吴庄3号,江城东队小学（统管）,江城西队新增6号（统管）,江西四号(统管),上海和达汽车配件有限公司保定分公司,刘庄2号,张辛庄村委会（统管）,保定市华成生态养殖有限公司江西5号,江东6号,江城东队村内四号(统管),东苟3号,东苟新增4号【纯农排变】,0639431682-保定市鑫宇印刷有限公司-专变-148817389-保定市鑫宇印刷有限公司,江东8号,河北鼎悦通信科技有限公司,江西2号,张辛庄1号,吴庄村内,时代印刷厂,张辛庄5号,江城东队1号,粉丝厂,保定霍亮清运有限公司,石庄14号,贝蒂斯风电配套,远东织布,江东蔬菜基地,张辛庄北新增农业【纯农排变】,刘庄大队广场（统管）,盛日复膜厂,张辛庄4号,肠衣厂,吴庄村(统管),保定市新市区江城乡玉兰饭店,张新庄村委会新增,江城东队面粉厂,刘庄1号,江西3号,张辛庄村内(统管),江东3号,刘庄(统管),刘庄6号,刘庄3号,吴庄4号,江西7号,张辛庄北新增（农网）【纯农排变】,江西10号","poweroffReason":"【停电原因】由于电缆断线导致１１０ＫＶ江城变电站柠檬酸５１３线路全线停电 【变更送电】因抢修进度加快原因，送电时间由２３：５９变更为０１：００ 【发布渠道】通过９５５９８发布","powerTime":"2020-03-29 00:38:56","powerComm":"已送电","subsNo":"","lineNo":"","tgNo":"","tgName":null,"infoStatus":"1","orgName":"国网满城县供电公司","typeName":null,"infoStatusName":null,"dateDay":null,"orgNos":null,"nowTime":null,"countyName":null,"streetName":null,"villageName":null,"roadName":null,"communityName":null,"tranName":null,"sdLineName":null,"cityCode":"1340617","cityName":"国网满城县供电公司","provinceCode":null,"stopTime":"2020-03-29 01:00:00","powerType":"全部","powerOffArea":"【全线路停电】停张辛庄,江城东队7号,江城东队九号,吴庄村学校新增（统管）,江城东队村北,66105部队,保定市新市区金海茶艺,联凯印务,江城西队,保定市新市区江城乡江城西队,江城西队小学（统管）,江城东队村委会,刘庄小学（统管）,东苟新增5号（统管）,刘庄道边,吴庄1号,张辛庄新增,吴庄3号,江城东队小学（统管）,江城西队新增6号（统管）,江西四号(统管),上海和达汽车配件有限公司保定分公司,刘庄2号,张辛庄村委会（统管）,保定市华成生态养殖有限公司江西5号,江东6号,江城东队村内四号(统管),东苟3号,东苟新增4号【纯农排变】,0639431682-保定市鑫宇印刷有限公司-专变-148817389-保定市鑫宇印刷有限公司,江东8号,河北鼎悦通信科技有限公司,江西2号,张辛庄1号,吴庄村内,时代印刷厂,张辛庄5号,江城东队1号,粉丝厂,保定霍亮清运有限公司,石庄14号,贝蒂斯风电配套,远东织布,江东蔬菜基地,张辛庄北新增农业【纯农排变】,刘庄大队广场（统管）,盛日复膜厂,张辛庄4号,肠衣厂,吴庄村(统管),保定市新市区江城乡玉兰饭店,张新庄村委会新增,江城东队面粉厂,刘庄1号,江西3号,张辛庄村内(统管),江东3号,刘庄(统管),刘庄6号,刘庄3号,吴庄4号,江西7号,张辛庄北新增（农网）【纯农排变】,江西10号","powerOffReason":"【停电原因】由于电缆断线导致１１０ＫＶ江城变电站柠檬酸５１３线路全线停电 【变更送电】因抢修进度加快原因，送电时间由２３：５９变更为０１：００ 【发布渠道】通过９５５９８发布","powerOffId":"2020032813000112"},{"poweroffId":2020032813000111,"sgpoweroffId":null,"subsName":"","lineName":"望双线518","pubTranName":"葛家村南混合,葛家村新上北混,李家村南边2号混,李家村南边混,李家村南混,马家村内混,马家村新区,小李家村南混1号配变,","scope":"【影响街道/乡镇】高岭乡、望都镇 【高危重要客户】无 【影响客户】葛家村、李家村、马家村、污水处理厂","startTime":"2020-03-28 17:39:51","stopDate":"2020-03-28 19:40:00","orgNo":"1340623","typeCode":"电网故障停限电","poweroffArea":"【全线路停电】停葛家村南混合,葛家村新上北混,李家村南边2号混,李家村南边混,李家村南混,马家村内混,马家村新区,小李家村南混1号配变","poweroffReason":"【停电原因】由于用户污水处理厂分支电缆挖断导致１１０ＫＶ望都变电站望双线５１８线路全线停电 【变更送电】因抢修进度加快原因，送电时间由２３：４０变更为１９：４０ 【发布渠道】通过９５５９８发布","powerTime":"2020-03-28 19:11:06","powerComm":"已送电","subsNo":"","lineNo":"","tgNo":"","tgName":null,"infoStatus":"1","orgName":"国网望都县供电公司","typeName":null,"infoStatusName":null,"dateDay":null,"orgNos":null,"nowTime":null,"countyName":null,"streetName":null,"villageName":null,"roadName":null,"communityName":null,"tranName":null,"sdLineName":null,"cityCode":"1340623","cityName":"国网望都县供电公司","provinceCode":null,"stopTime":"2020-03-28 19:40:00","powerType":"全部","powerOffArea":"【全线路停电】停葛家村南混合,葛家村新上北混,李家村南边2号混,李家村南边混,李家村南混,马家村内混,马家村新区,小李家村南混1号配变","powerOffReason":"【停电原因】由于用户污水处理厂分支电缆挖断导致１１０ＫＶ望都变电站望双线５１８线路全线停电 【变更送电】因抢修进度加快原因，送电时间由２３：４０变更为１９：４０ 【发布渠道】通过９５５９８发布","powerOffId":"2020032813000111"}],"pageModel":{"pageNow":217,"totalCount":10973,"totalPage":1098,"tableRows":0,"pageCount":10,"beginCount":2160},"isExperi":"1"}