{"message":"","today":"2020-06-15","seleList":[{"poweroffId":2020061013000068,"sgpoweroffId":null,"subsName":"","lineName":"10KV白庄512","pubTranName":"闫庄东,罗营8台区,杨坟村西4423【纯农排变】,双树南,闫庄西南,闫庄村内北,南蔡五号6948【纯农排变】,常庄村东变压器【纯农排变】,常庄村东4429【纯农排变】,涿州市南蔡幼儿园柱上变压器,义和庄供电所北蔡柱上变压器【纯农排变】,南蔡村一号变6463【纯农排变】,北蔡五号6025【纯农排变】,双树南街2949增,闫庄村西南变压器,北蔡村村西道变台,南蔡村二号变6946【纯农排变】,北蔡村2313【纯农排变】,闫庄北,杨坟北0830【纯农排变】,常庄村东2308【纯农排变】,西田城南地变【纯农排变】,南蔡三号6945【纯农排变】,闫庄南变压器,闫庄南,北蔡西北7381【纯农排变】,北蔡梨苑变【纯农排变】,永定河管理所,双树北街增,北蔡三号6449【纯农排变】,南蔡四号变6949【纯农排变】,","scope":"【影响街道/乡镇】义和庄乡 【影响客户】双树、杨坟、西田城、闫庄、北蔡、南蔡、常庄","startTime":"2020-06-20 04:00:00","stopDate":"2020-06-20 18:00:00","orgNo":"1340626","typeCode":"计划停电","poweroffArea":"【全线路停电】停３５ＫＶ码头变电站１０ＫＶ白庄５１２线路全线,涿州市温居建筑工程有限公司,闫庄东,中交路桥建设有限公司,罗营8台区,杨坟村西4423【纯农排变】,双树南,闫庄西南,闫庄村内北,杨坟（村北）,南蔡五号6948【纯农排变】,南蔡村南0339【纯农排变】,北蔡村北2号2969【纯农排变】,常庄村东变压器【纯农排变】,常庄村东4429【纯农排变】,河北中科高圣佳环保科技有限公司3,涿州市农丰养殖场,涿州市泽洋门窗加工厂,涿州市南蔡幼儿园柱上变压器,北蔡东北3号2900【纯农排变】,义和庄供电所北蔡柱上变压器【纯农排变】,北京龙伟木制品有限公司涿州分公司,杨坟村南1837【纯农排变】,南蔡村一号变6463【纯农排变】,涿州市国鼎农业技术开发有限公司1,涿州正晟农业技术有限公司,北蔡五号6025【纯农排变】,南蔡西南0338【纯农排变】,涿州鑫豆源食品有限公司,双树南街2949增,河北中科高圣佳环保科技有限公司2,涿州市水利局永定河管理所,河北中科高圣佳环保科技有限公司4,河北中科高圣佳环保科技有限公司1,闫庄村西南变压器,北蔡村村西道变台,义和庄常庄村内,南蔡村二号变6946【纯农排变】,涿州巧工建材有限公司,北蔡村2313【纯农排变】,闫庄北,杨坟北0830【纯农排变】,常庄村东2308【纯农排变】,西田城南地变【纯农排变】,双树0823增,北蔡村北1号3099【纯农排变】,北蔡四号6449,闫庄村5322,闫庄小学,北蔡东南4号3100【纯农排变】,南蔡三号6945【纯农排变】,闫庄南变压器,闫庄学校东,闫庄南,南蔡东北0337【纯农排变】,涿州市国鼎农业技术开发有限公司3,北蔡西北7381【纯农排变】,义所常庄东7988【纯农排变】,北蔡村东7376,北蔡村西南5378,北蔡村南5号2964【纯农排变】,涿州市义和庄乡北菜村民委员会,南蔡堤西1333【纯农排变】,涿州正晟农业科技有限公司,涿州市国鼎农业技术开发有限公司2,北蔡梨苑变【纯农排变】,闫庄村东南【纯农排变】,双树2409增,南蔡东南0336【纯农排变】,南蔡西北1332【纯农排变】,闫庄村内0803,永定河管理所,闫庄5826增,双树北街增,双树村南0822,闫马庄（南地）,北蔡三号6449【纯农排变】,南蔡四号变6949【纯农排变】","poweroffReason":"【停电原因】由于线路迁移工程导致３５ＫＶ码头变电站１０ＫＶ白庄５１２线路全线停电 【变更送电】无 【发布渠道】涿州市涿州电视台（０６月１０日至０６月１９日２１：００播放２次）屏幕上方滚动","powerTime":"","powerComm":"","subsNo":"","lineNo":"","tgNo":"","tgName":null,"infoStatus":"1","orgName":"国网涿州市供电公司","typeName":null,"infoStatusName":null,"dateDay":null,"orgNos":null,"nowTime":null,"countyName":null,"streetName":null,"villageName":null,"roadName":null,"communityName":null,"tranName":null,"sdLineName":null,"cityCode":"1340626","cityName":"国网涿州市供电公司","provinceCode":null,"stopTime":"2020-06-20 18:00:00","powerType":"未送电","powerOffArea":"【全线路停电】停３５ＫＶ码头变电站１０ＫＶ白庄５１２线路全线,涿州市温居建筑工程有限公司,闫庄东,中交路桥建设有限公司,罗营8台区,杨坟村西4423【纯农排变】,双树南,闫庄西南,闫庄村内北,杨坟（村北）,南蔡五号6948【纯农排变】,南蔡村南0339【纯农排变】,北蔡村北2号2969【纯农排变】,常庄村东变压器【纯农排变】,常庄村东4429【纯农排变】,河北中科高圣佳环保科技有限公司3,涿州市农丰养殖场,涿州市泽洋门窗加工厂,涿州市南蔡幼儿园柱上变压器,北蔡东北3号2900【纯农排变】,义和庄供电所北蔡柱上变压器【纯农排变】,北京龙伟木制品有限公司涿州分公司,杨坟村南1837【纯农排变】,南蔡村一号变6463【纯农排变】,涿州市国鼎农业技术开发有限公司1,涿州正晟农业技术有限公司,北蔡五号6025【纯农排变】,南蔡西南0338【纯农排变】,涿州鑫豆源食品有限公司,双树南街2949增,河北中科高圣佳环保科技有限公司2,涿州市水利局永定河管理所,河北中科高圣佳环保科技有限公司4,河北中科高圣佳环保科技有限公司1,闫庄村西南变压器,北蔡村村西道变台,义和庄常庄村内,南蔡村二号变6946【纯农排变】,涿州巧工建材有限公司,北蔡村2313【纯农排变】,闫庄北,杨坟北0830【纯农排变】,常庄村东2308【纯农排变】,西田城南地变【纯农排变】,双树0823增,北蔡村北1号3099【纯农排变】,北蔡四号6449,闫庄村5322,闫庄小学,北蔡东南4号3100【纯农排变】,南蔡三号6945【纯农排变】,闫庄南变压器,闫庄学校东,闫庄南,南蔡东北0337【纯农排变】,涿州市国鼎农业技术开发有限公司3,北蔡西北7381【纯农排变】,义所常庄东7988【纯农排变】,北蔡村东7376,北蔡村西南5378,北蔡村南5号2964【纯农排变】,涿州市义和庄乡北菜村民委员会,南蔡堤西1333【纯农排变】,涿州正晟农业科技有限公司,涿州市国鼎农业技术开发有限公司2,北蔡梨苑变【纯农排变】,闫庄村东南【纯农排变】,双树2409增,南蔡东南0336【纯农排变】,南蔡西北1332【纯农排变】,闫庄村内0803,永定河管理所,闫庄5826增,双树北街增,双树村南0822,闫马庄（南地）,北蔡三号6449【纯农排变】,南蔡四号变6949【纯农排变】","powerOffReason":"【停电原因】由于线路迁移工程导致３５ＫＶ码头变电站１０ＫＶ白庄５１２线路全线停电 【变更送电】无 【发布渠道】涿州市涿州电视台（０６月１０日至０６月１９日２１：００播放２次）屏幕上方滚动","powerOffId":"2020061013000068"},{"poweroffId":2020061013000055,"sgpoweroffId":null,"subsName":"","lineName":"10KV里渠517","pubTranName":"里渠西南变柱上变压器,邓渠村北农排,陶营西,四柳树村北7847【纯农排变】,陶营市场东变压器,陶营村北东变压器【纯农排变】,大兴庄道东变,义和庄所陶营村9614增,四树村西地变,陶营村东变压器【纯农排变】,四树村南【纯农排变】,陶营中4,大兴庄堤北变压器【纯农排变】,陶官营中台区,陶营后3,大兴庄村西南1083【纯农排变】,陶营后2,里渠商业街变压器,陶营北柱上变压器【纯农排变】,大兴庄西0794,邓渠村西交柱上变压器,陶营后4,刘家园村西0787,四树村东0793【纯农排变】,里渠村西南,里渠0784,邓渠村北柱上变压器【纯农排变】,陶营中5,大兴庄村北柱上变压器【纯农排变】,刘园子村东南变,四树东北变柱上变压器,陶营堤北【纯农排变】,陶营中6,陶营东,四柳树村内新增,陶营中2,陶营内西0800增,陶营后1,四树村东南变,","scope":"【影响街道/乡镇】义和庄乡 【影响客户】陶营、里渠、大兴庄、古城、刘园子、四树、邓渠","startTime":"2020-06-10 07:33:10","stopDate":"2020-06-10 09:00:00","orgNo":"1340626","typeCode":"电网故障停限电","poweroffArea":"【分支停电】停３５ＫＶ码头变电站１０ＫＶ里渠５１７线路０７号杆以下线路，陶营（北地）,大兴庄堤北变压器【纯农排变】,陶官营中台区,陶营后3,大兴庄村西南1083【纯农排变】,陶营后2,里渠村东南,0387571780-里渠-专变-45362773-里渠,里渠商业街变压器,陶营村北东变压器【纯农排变】,大兴庄道东变,古城北1（北地）,刘家园（村南）,义和庄所陶营村9614增,四树村西地变,里渠村村东北2927,陶营村东变压器【纯农排变】,四树村南【纯农排变】,陶营中4,古城（西南）,陶营北柱上变压器【纯农排变】,大兴庄西0794,邓渠村西交柱上变压器,陶营后4,里渠村南,刘家园村西0787,四树村东0793【纯农排变】,涿州市义和庄乡陶家营村委会5734变台陶营北地,里渠村西南,陶营（东北地）,陶营（大堤）,大兴庄（南地）,里渠0784,四树（村南）,邓渠村北柱上变压器【纯农排变】,陶营中5,大兴庄村北柱上变压器【纯农排变】,古城（西北）,四树村南0792【纯农排变】,古城东南0790,刘园子村东南变,陶营村东0797,四树东北变柱上变压器,大兴庄村南8511【纯农排变】,大兴庄内0795【纯农排变】,陶营堤北【纯农排变】,刘家园村南4717【纯农排变】,四树村东南变,邓渠内0785,陶营中2,邓渠村南4718【纯农排变】,陶营村北7746,涿州市义和庄乡大兴庄村委会,陶营内西0800增,陶营后1,陶营中6,古城0840,陶营东,四柳树村内新增,里渠西南变柱上变压器,陶营村北0799,邓渠村北农排,刘园（村西北）,陶营村东北9970【增】,陶营西,四柳树村北7847【纯农排变】,陶营市场东变压器","poweroffReason":"【停电原因】由于大车剐断线路导致３５ＫＶ码头变电站１０ＫＶ里渠５１７线路０７号杆以下线路停电 【变更送电】因抢修进度加快原因，送电时间由１４：００变更为０９：００ 【发布渠道】通过９５５９８发布","powerTime":"2020-06-10 08:28:50","powerComm":"已送电","subsNo":"","lineNo":"","tgNo":"","tgName":null,"infoStatus":"1","orgName":"国网涿州市供电公司","typeName":null,"infoStatusName":null,"dateDay":null,"orgNos":null,"nowTime":null,"countyName":null,"streetName":null,"villageName":null,"roadName":null,"communityName":null,"tranName":null,"sdLineName":null,"cityCode":"1340626","cityName":"国网涿州市供电公司","provinceCode":null,"stopTime":"2020-06-10 09:00:00","powerType":"全部","powerOffArea":"【分支停电】停３５ＫＶ码头变电站１０ＫＶ里渠５１７线路０７号杆以下线路，陶营（北地）,大兴庄堤北变压器【纯农排变】,陶官营中台区,陶营后3,大兴庄村西南1083【纯农排变】,陶营后2,里渠村东南,0387571780-里渠-专变-45362773-里渠,里渠商业街变压器,陶营村北东变压器【纯农排变】,大兴庄道东变,古城北1（北地）,刘家园（村南）,义和庄所陶营村9614增,四树村西地变,里渠村村东北2927,陶营村东变压器【纯农排变】,四树村南【纯农排变】,陶营中4,古城（西南）,陶营北柱上变压器【纯农排变】,大兴庄西0794,邓渠村西交柱上变压器,陶营后4,里渠村南,刘家园村西0787,四树村东0793【纯农排变】,涿州市义和庄乡陶家营村委会5734变台陶营北地,里渠村西南,陶营（东北地）,陶营（大堤）,大兴庄（南地）,里渠0784,四树（村南）,邓渠村北柱上变压器【纯农排变】,陶营中5,大兴庄村北柱上变压器【纯农排变】,古城（西北）,四树村南0792【纯农排变】,古城东南0790,刘园子村东南变,陶营村东0797,四树东北变柱上变压器,大兴庄村南8511【纯农排变】,大兴庄内0795【纯农排变】,陶营堤北【纯农排变】,刘家园村南4717【纯农排变】,四树村东南变,邓渠内0785,陶营中2,邓渠村南4718【纯农排变】,陶营村北7746,涿州市义和庄乡大兴庄村委会,陶营内西0800增,陶营后1,陶营中6,古城0840,陶营东,四柳树村内新增,里渠西南变柱上变压器,陶营村北0799,邓渠村北农排,刘园（村西北）,陶营村东北9970【增】,陶营西,四柳树村北7847【纯农排变】,陶营市场东变压器","powerOffReason":"【停电原因】由于大车剐断线路导致３５ＫＶ码头变电站１０ＫＶ里渠５１７线路０７号杆以下线路停电 【变更送电】因抢修进度加快原因，送电时间由１４：００变更为０９：００ 【发布渠道】通过９５５９８发布","powerOffId":"2020061013000055"},{"poweroffId":2020061013000052,"sgpoweroffId":null,"subsName":"","lineName":"10kV北王力线512","pubTranName":"0387497211-北王力西-专变-45318669-北王力西2,2罗营外1【纯农排变】,2北王力外10【纯农排变】,2北王力外8【纯农排变】,2西王力外2【纯农排变】,2西王力外9【纯农排变】,北王力堤北,2北王力外17【纯农排变】,东王力外5【纯农排变】,1北王力内5,2北王力外4【纯农排变】,2北王力外5【纯农排变】,2北王力外11【纯农排变】,北王力中学2,1北王力内12,2北王力外21【纯农排变】,2西王力外3【纯农排变】,北王力中学1,2西王力外13,2北王力外3【纯农排变】,2北王力外7【纯农排变】,1北王力内8,2西王力外8【纯农排变】,2东王力外6【纯农排变】,2北王力外22,2西王力外10【纯农排变】,2北王力外16【纯农排变】,2东王力外3【纯农排变】,西王力小学,2西王力外6【纯农排变】,2北王力外1【纯农排变】,1北王力内15,1北王力内7,2东王力外7【纯农排变】,1罗营内1,1东王力内2,2东王力外2【纯农排变】,保定市清苑区北王力中学,保定市清苑区顺腾木器加工厂,2北王力外19【纯农排变】,1北王力内9,1北王力内1,北王力内11,1北王力内17,1西王力内4,国网河北清苑县供电公司罗家营供电所,1北王力内14,1北王力内6,1西王力内10,北王力村村西,1西王力内8,1北王力内4,2西王力外4【纯农排变】,1西王力内7,2北王力外2【纯农排变】,2东王力外4【纯农排变】,清苑县西王力鑫利面粉厂,1西王力内1,李建雄猪场,西王力冰棍房,2西王力外7【纯农排变】,北王力西1,2北王力外15【纯农排变】,2西王力外11【纯农排变】,2北王力外12【纯农排变】,1西王力内6,2北王力外6【纯农排变】,客户投资_1西王力内2,2西王力外1【纯农排变】,2东王力外1【纯农排变】,北王力村委会,2北王力外14【纯农排变】,2西王力外12【纯农排变】,1北王力内16,2北王力外9【纯农排变】,2西王力外5【纯农排变】,1北王力内3,2北王力外13【纯农排变】,1东王力内1,1北王力内10,1西王力内11,北王力东2,0387497080-北王力东-专变-45318667-北王力东1,北王力村村东,保定市清苑区增亮废旧木材加工处,保定富泰隆服装有限公司,东王力付俊峰猪场,北王力中学3,1北王力内13,1西王力内9,1东王力内3,北王力砖厂东,1罗营内9,1西王力内5,2北王力外18【纯农排变】,2北王力外20【纯农排变】,北王力乡中心幼儿园,1北王力内2,1西王力内3,","scope":"【影响街道/乡镇】北王力乡 【高危重要客户】无 【影响客户】东王力、西王力、北王力、罗家营","startTime":"2020-06-10 07:15:28","stopDate":"2020-06-10 13:00:00","orgNo":"1340618","typeCode":"电网故障停限电","poweroffArea":"【全线路停电】停35kV罗家营变电站10kV北王力线512线路全线，2西王力外4【纯农排变】,1西王力内7,2北王力外2【纯农排变】,2东王力外4【纯农排变】,清苑县西王力鑫利面粉厂,1西王力内1,2北王力外12【纯农排变】,1西王力内6,2北王力外6【纯农排变】,客户投资_1西王力内2,2西王力外1【纯农排变】,2东王力外1【纯农排变】,北王力村委会,2北王力外14【纯农排变】,2西王力外12【纯农排变】,1北王力内16,2北王力外9【纯农排变】,2西王力外5【纯农排变】,1北王力内3,2北王力外13【纯农排变】,1东王力内1,1北王力内10,1西王力内11,北王力东2,0387497080-北王力东-专变-45318667-北王力东1,北王力村村东,保定市清苑区增亮废旧木材加工处,李建雄猪场,西王力冰棍房,2西王力外7【纯农排变】,北王力西1,2北王力外15【纯农排变】,2西王力外11【纯农排变】,保定富泰隆服装有限公司,东王力付俊峰猪场,1西王力内9,1东王力内3,北王力砖厂东,1西王力内5,2北王力外18【纯农排变】,2北王力外20【纯农排变】,北王力乡中心幼儿园,1北王力内2,1西王力内3,北王力中学3,1北王力内13,1罗营内9,1北王力内8,0387497211-北王力西-专变-45318669-北王力西2,2罗营外1【纯农排变】,2北王力外10【纯农排变】,2北王力外8【纯农排变】,2西王力外2【纯农排变】,2西王力外9【纯农排变】,北王力堤北,2北王力外17【纯农排变】,东王力外5【纯农排变】,1北王力内5,2北王力外4【纯农排变】,2北王力外5【纯农排变】,2北王力外11【纯农排变】,北王力中学2,1北王力内12,2北王力外21【纯农排变】,2西王力外3【纯农排变】,北王力中学1,2西王力外13,2北王力外3【纯农排变】,2北王力外7【纯农排变】,2西王力外8【纯农排变】,2东王力外6【纯农排变】,2北王力外22,2西王力外10【纯农排变】,2北王力外16【纯农排变】,2东王力外3【纯农排变】,西王力小学,2西王力外6【纯农排变】,2北王力外1【纯农排变】,1北王力内15,1北王力内7,2东王力外7【纯农排变】,1罗营内1,1东王力内2,2东王力外2【纯农排变】,保定市清苑区北王力中学,保定市清苑区顺腾木器加工厂,2北王力外19【纯农排变】,1北王力内9,1北王力内1,北王力内11,1北王力内17,1西王力内4,国网河北清苑县供电公司罗家营供电所,1北王力内14,1北王力内6,1西王力内10,北王力村村西,1西王力内8,1北王力内4","poweroffReason":"【停电原因】由于线路接地导致３５ＫＶ罗家营变电站１０ＫＶ北王力线５１２线路全线停电 【变更送电】无 【发布渠道】通过９５５９８发布","powerTime":"2020-06-10 12:03:10","powerComm":"刘宇龙通知已送电","subsNo":"","lineNo":"","tgNo":"","tgName":null,"infoStatus":"1","orgName":"国网清苑县供电公司","typeName":null,"infoStatusName":null,"dateDay":null,"orgNos":null,"nowTime":null,"countyName":null,"streetName":null,"villageName":null,"roadName":null,"communityName":null,"tranName":null,"sdLineName":null,"cityCode":"1340618","cityName":"国网清苑县供电公司","provinceCode":null,"stopTime":"2020-06-10 13:00:00","powerType":"全部","powerOffArea":"【全线路停电】停35kV罗家营变电站10kV北王力线512线路全线，2西王力外4【纯农排变】,1西王力内7,2北王力外2【纯农排变】,2东王力外4【纯农排变】,清苑县西王力鑫利面粉厂,1西王力内1,2北王力外12【纯农排变】,1西王力内6,2北王力外6【纯农排变】,客户投资_1西王力内2,2西王力外1【纯农排变】,2东王力外1【纯农排变】,北王力村委会,2北王力外14【纯农排变】,2西王力外12【纯农排变】,1北王力内16,2北王力外9【纯农排变】,2西王力外5【纯农排变】,1北王力内3,2北王力外13【纯农排变】,1东王力内1,1北王力内10,1西王力内11,北王力东2,0387497080-北王力东-专变-45318667-北王力东1,北王力村村东,保定市清苑区增亮废旧木材加工处,李建雄猪场,西王力冰棍房,2西王力外7【纯农排变】,北王力西1,2北王力外15【纯农排变】,2西王力外11【纯农排变】,保定富泰隆服装有限公司,东王力付俊峰猪场,1西王力内9,1东王力内3,北王力砖厂东,1西王力内5,2北王力外18【纯农排变】,2北王力外20【纯农排变】,北王力乡中心幼儿园,1北王力内2,1西王力内3,北王力中学3,1北王力内13,1罗营内9,1北王力内8,0387497211-北王力西-专变-45318669-北王力西2,2罗营外1【纯农排变】,2北王力外10【纯农排变】,2北王力外8【纯农排变】,2西王力外2【纯农排变】,2西王力外9【纯农排变】,北王力堤北,2北王力外17【纯农排变】,东王力外5【纯农排变】,1北王力内5,2北王力外4【纯农排变】,2北王力外5【纯农排变】,2北王力外11【纯农排变】,北王力中学2,1北王力内12,2北王力外21【纯农排变】,2西王力外3【纯农排变】,北王力中学1,2西王力外13,2北王力外3【纯农排变】,2北王力外7【纯农排变】,2西王力外8【纯农排变】,2东王力外6【纯农排变】,2北王力外22,2西王力外10【纯农排变】,2北王力外16【纯农排变】,2东王力外3【纯农排变】,西王力小学,2西王力外6【纯农排变】,2北王力外1【纯农排变】,1北王力内15,1北王力内7,2东王力外7【纯农排变】,1罗营内1,1东王力内2,2东王力外2【纯农排变】,保定市清苑区北王力中学,保定市清苑区顺腾木器加工厂,2北王力外19【纯农排变】,1北王力内9,1北王力内1,北王力内11,1北王力内17,1西王力内4,国网河北清苑县供电公司罗家营供电所,1北王力内14,1北王力内6,1西王力内10,北王力村村西,1西王力内8,1北王力内4","powerOffReason":"【停电原因】由于线路接地导致３５ＫＶ罗家营变电站１０ＫＶ北王力线５１２线路全线停电 【变更送电】无 【发布渠道】通过９５５９８发布","powerOffId":"2020061013000052"},{"poweroffId":2020061013000038,"sgpoweroffId":null,"subsName":"","lineName":"10kV大李各庄线513","pubTranName":"1大李各庄内15,2武安外8【纯农排变】,1大李各庄内3,1武安内1,1大李各庄内13,大李各庄小学1,1刘村内2,2刘村外2【纯农排变】,1刘村内1,1刘村内7,2顾家营外10【纯农排变】,1顾家营内5,1顾家营内6,1武安内6,顾家营砖厂,顾家营水厂,2大李各庄外12【纯农排变】,2大李各庄外22【纯农排变】,2武安外2【纯农排变】,1武安内5,1大李各庄内2,2大李各庄外15【纯农排变】,2大李各庄外25,1顾家营内7,1大李各庄内1,清苑县民政事业第二服务中心,1大李各庄内12,2顾家营外3【纯农排变】,2大李各庄外23【纯农排变】,2顾家营外13【纯农排变】,0387500605-清苑县苗圃总场-专变-45321375-清苑县苗圃总厂,2刘村外4【纯农排变】,2大李各庄外19【纯农排变】,1顾家营内3,1大李各庄内9,1大李各庄内11,2大李各庄外20【纯农排变】,2武安外6【纯农排变】,2大李各庄外9【纯农排变】,2刘村外8【纯农排变】,2武安外4【纯农排变】,1大李各庄内10,清苑县大李各庄谷玉雄养鸡厂,2大李各庄外10【纯农排变】,大李各庄面粉厂,1大李各庄内8,县林场南台,1武安内9,2大李各庄外1【纯农排变】,2大李各庄外3【纯农排变】,2武安外1【纯农排变】,2大李各庄外21【纯农排变】,2顾家营外1【纯农排变】,1大李各庄内6,2刘村外7【纯农排变】,刘村小学,2大李各庄外14【纯农排变】,2刘村外3【纯农排变】,2大李各庄外2【纯农排变】,2大李各庄外26,2大李各庄外16【纯农排变】,1大李各庄内14,2大李各庄外6【纯农排变】,县林场东台,2刘村外6【纯农排变】,中国移动通信集团河北有限公司清苑分公司,2顾家营外12【纯农排变】,2大李各庄外28,1大李各庄内7,2顾家营外4【纯农排变】,1武安内4,1武安内3,2大李各庄外5【纯农排变】,1武安内2,2大李各庄外11【纯农排变】,1顾家营内1,0564528789-河北鑫艺苑建筑材料有限公司-专变-219696356-清苑县大李各庄砖厂,1顾家营内2,0387500966-清苑县苗圃总场-专变-45321358-大李各庄林场1,0669051926-保定市清苑区大李各庄鑫源苗圃场-专变-210338503-保定市清苑区大李各庄鑫源苗圃场,2武安外3【纯农排变】,大李各庄林场3,1顾家营内8,2刘村外5【纯农排变】,县苗圃,0387500940-清苑县苗圃总场-专变-125674936-清苑县苗圃总场,1刘村内8,2顾家营外14【纯农排变】,1武安内7,2顾家营外9【纯农排变】,2顾家营外8【纯农排变】,中国移动通信集团河北有限公司保定分公司,县林场中,2顾家营外11【纯农排变】,1大李各庄内5,0618175321-河北泽龙投资集团有限公司-专变-128759542-河北泽龙投资集团有限公司,顾家营小学,2顾家营外5【纯农排变】,2大李各庄外4【纯农排变】,2刘村外1【纯农排变】,2大李各庄外8【纯农排变】,1武安内8,0387500995-清苑县苗圃总场-专变-45321359-大李各庄林场2,2大李各庄外7【纯农排变】,2顾家营外2【","scope":"【影响街道/乡镇】北王力乡 【高危重要客户】无 【影响客户】大李各庄、刘村、顾家营、武安村","startTime":"2020-06-10 05:58:13","stopDate":"2020-06-10 07:20:00","orgNo":"1340618","typeCode":"电网故障停限电","poweroffArea":"【全线路停电】停35kV罗家营变电站10kV大李各庄线513线路全线，1大李各庄内13,大李各庄小学1,1刘村内2,2刘村外2【纯农排变】,1刘村内1,1刘村内7,2顾家营外10【纯农排变】,1顾家营内5,1顾家营内6,1武安内6,顾家营砖厂,顾家营水厂,2大李各庄外12【纯农排变】,1大李各庄内15,2武安外8【纯农排变】,1大李各庄内3,1武安内1,2武安外2【纯农排变】,2大李各庄外22【纯农排变】,1武安内5,1大李各庄内2,1顾家营内3,1大李各庄内9,1大李各庄内11,2大李各庄外20【纯农排变】,2武安外6【纯农排变】,2大李各庄外9【纯农排变】,2刘村外8【纯农排变】,2武安外4【纯农排变】,1大李各庄内10,清苑县大李各庄谷玉雄养鸡厂,2大李各庄外10【纯农排变】,1大李各庄内8,县林场南台,1武安内9,2大李各庄外1【纯农排变】,2大李各庄外3【纯农排变】,2武安外1【纯农排变】,2大李各庄外21【纯农排变】,2顾家营外1【纯农排变】,1大李各庄内6,2刘村外7【纯农排变】,刘村小学,2大李各庄外14【纯农排变】,2刘村外3【纯农排变】,2大李各庄外2【纯农排变】,1大李各庄内1,清苑县民政事业第二服务中心,1大李各庄内12,2顾家营外3【纯农排变】,2大李各庄外23【纯农排变】,2顾家营外13【纯农排变】,0387500605-清苑县苗圃总场-专变-45321375-清苑县苗圃总厂,2刘村外4【纯农排变】,2大李各庄外19【纯农排变】,大李各庄面粉厂,2大李各庄外26,2大李各庄外16【纯农排变】,1大李各庄内14,2大李各庄外6【纯农排变】,县林场东台,2刘村外6【纯农排变】,中国移动通信集团河北有限公司清苑分公司,2顾家营外12【纯农排变】,2大李各庄外28,1大李各庄内7,2顾家营外4【纯农排变】,1武安内4,1武安内3,2大李各庄外5【纯农排变】,1武安内2,2大李各庄外11【纯农排变】,1顾家营内1,0564528789-河北鑫艺苑建筑材料有限公司-专变-219696356-清苑县大李各庄砖厂,1顾家营内2,0387500966-清苑县苗圃总场-专变-45321358-大李各庄林场1,0669051926-保定市清苑区大李各庄鑫源苗圃场-专变-210338503-保定市清苑区大李各庄鑫源苗圃场,1武安内8,0387500995-清苑县苗圃总场-专变-45321359-大李各庄林场2,2大李各庄外7【纯农排变】,2顾家营外2【纯农排变】,2大李各庄外18【纯农排变】,大李各庄小学2,2武安外5【纯农排变】,1刘村内4,武安小学,1刘村内5,1刘村内9,2武安外3【纯农排变】,大李各庄林场3,1顾家营内8,2刘村外5【纯农排变】,县苗圃,0387500940-清苑县苗圃总场-专变-125674936-清苑县苗圃总场,1刘村内8,2顾家营外14【纯农排变】,1武安内7,2顾家营外9【纯农排变】,2顾家营外8【纯农排变】,中国移动通信集团河北有限公司保定分公司,县林场中,2顾家营外11【纯农排变】,1大李各庄内5,0618175321-河北泽龙投资集团有限公司-专变-128759542-河北泽龙投资集团有限公司,顾家营小学,2顾家营外5【纯农排变】,2大李各庄外4【纯农排变】,2刘村外1【纯农排变】,2大李各庄外8【纯农排变】,2武安外7【纯农排变】,2大李各庄外13【纯农排变】,2大李各庄外17【纯农排变】,0664802604-保定市共赢建筑材料制造有限公司-专变-202052729-保定市共赢建筑材料制造有限公司,2顾家营外6【纯农排变】,1刘村内3,2大李各庄外27,河北鑫艺苑建筑材料有限公司,2大李各庄外24【纯农排变】,1刘村内6,1顾家营内4,1顾家营内7,2大李各庄外15【纯农排变】,2大李各庄外25","poweroffReason":"【停电原因】由于线路接地导致３５ＫＶ罗家营变电站１０ＫＶ大李各庄线５１３线路全线停电 【变更送电】因抢修进度加快原因，送电时间由１１：００变更为０７：２０ 【发布渠道】通过９５５９８发布","powerTime":"2020-06-10 06:43:16","powerComm":"调度通知已送电","subsNo":"","lineNo":"","tgNo":"","tgName":null,"infoStatus":"1","orgName":"国网清苑县供电公司","typeName":null,"infoStatusName":null,"dateDay":null,"orgNos":null,"nowTime":null,"countyName":null,"streetName":null,"villageName":null,"roadName":null,"communityName":null,"tranName":null,"sdLineName":null,"cityCode":"1340618","cityName":"国网清苑县供电公司","provinceCode":null,"stopTime":"2020-06-10 07:20:00","powerType":"全部","powerOffArea":"【全线路停电】停35kV罗家营变电站10kV大李各庄线513线路全线，1大李各庄内13,大李各庄小学1,1刘村内2,2刘村外2【纯农排变】,1刘村内1,1刘村内7,2顾家营外10【纯农排变】,1顾家营内5,1顾家营内6,1武安内6,顾家营砖厂,顾家营水厂,2大李各庄外12【纯农排变】,1大李各庄内15,2武安外8【纯农排变】,1大李各庄内3,1武安内1,2武安外2【纯农排变】,2大李各庄外22【纯农排变】,1武安内5,1大李各庄内2,1顾家营内3,1大李各庄内9,1大李各庄内11,2大李各庄外20【纯农排变】,2武安外6【纯农排变】,2大李各庄外9【纯农排变】,2刘村外8【纯农排变】,2武安外4【纯农排变】,1大李各庄内10,清苑县大李各庄谷玉雄养鸡厂,2大李各庄外10【纯农排变】,1大李各庄内8,县林场南台,1武安内9,2大李各庄外1【纯农排变】,2大李各庄外3【纯农排变】,2武安外1【纯农排变】,2大李各庄外21【纯农排变】,2顾家营外1【纯农排变】,1大李各庄内6,2刘村外7【纯农排变】,刘村小学,2大李各庄外14【纯农排变】,2刘村外3【纯农排变】,2大李各庄外2【纯农排变】,1大李各庄内1,清苑县民政事业第二服务中心,1大李各庄内12,2顾家营外3【纯农排变】,2大李各庄外23【纯农排变】,2顾家营外13【纯农排变】,0387500605-清苑县苗圃总场-专变-45321375-清苑县苗圃总厂,2刘村外4【纯农排变】,2大李各庄外19【纯农排变】,大李各庄面粉厂,2大李各庄外26,2大李各庄外16【纯农排变】,1大李各庄内14,2大李各庄外6【纯农排变】,县林场东台,2刘村外6【纯农排变】,中国移动通信集团河北有限公司清苑分公司,2顾家营外12【纯农排变】,2大李各庄外28,1大李各庄内7,2顾家营外4【纯农排变】,1武安内4,1武安内3,2大李各庄外5【纯农排变】,1武安内2,2大李各庄外11【纯农排变】,1顾家营内1,0564528789-河北鑫艺苑建筑材料有限公司-专变-219696356-清苑县大李各庄砖厂,1顾家营内2,0387500966-清苑县苗圃总场-专变-45321358-大李各庄林场1,0669051926-保定市清苑区大李各庄鑫源苗圃场-专变-210338503-保定市清苑区大李各庄鑫源苗圃场,1武安内8,0387500995-清苑县苗圃总场-专变-45321359-大李各庄林场2,2大李各庄外7【纯农排变】,2顾家营外2【纯农排变】,2大李各庄外18【纯农排变】,大李各庄小学2,2武安外5【纯农排变】,1刘村内4,武安小学,1刘村内5,1刘村内9,2武安外3【纯农排变】,大李各庄林场3,1顾家营内8,2刘村外5【纯农排变】,县苗圃,0387500940-清苑县苗圃总场-专变-125674936-清苑县苗圃总场,1刘村内8,2顾家营外14【纯农排变】,1武安内7,2顾家营外9【纯农排变】,2顾家营外8【纯农排变】,中国移动通信集团河北有限公司保定分公司,县林场中,2顾家营外11【纯农排变】,1大李各庄内5,0618175321-河北泽龙投资集团有限公司-专变-128759542-河北泽龙投资集团有限公司,顾家营小学,2顾家营外5【纯农排变】,2大李各庄外4【纯农排变】,2刘村外1【纯农排变】,2大李各庄外8【纯农排变】,2武安外7【纯农排变】,2大李各庄外13【纯农排变】,2大李各庄外17【纯农排变】,0664802604-保定市共赢建筑材料制造有限公司-专变-202052729-保定市共赢建筑材料制造有限公司,2顾家营外6【纯农排变】,1刘村内3,2大李各庄外27,河北鑫艺苑建筑材料有限公司,2大李各庄外24【纯农排变】,1刘村内6,1顾家营内4,1顾家营内7,2大李各庄外15【纯农排变】,2大李各庄外25","powerOffReason":"【停电原因】由于线路接地导致３５ＫＶ罗家营变电站１０ＫＶ大李各庄线５１３线路全线停电 【变更送电】因抢修进度加快原因，送电时间由１１：００变更为０７：２０ 【发布渠道】通过９５５９８发布","powerOffId":"2020061013000038"},{"poweroffId":2020061013000034,"sgpoweroffId":null,"subsName":"","lineName":"10KV辛庄头512","pubTranName":"同心街村内,代庄南井,孔村村北,杨家台西台区,赵各庄新东,王村西二台区,城内大桥东台区,王村北台区,张翠台新西台区变压器,沈家台西南井,辛庄头村西,王村南台区,东十里铺西台区,同心街村西北,东王庄高速北井,代庄村内,吴各庄东南台区,","scope":"【影响街道/乡镇】王村乡 【高危重要客户】无 【影响客户】王村、孔村、东王庄村、赵各庄村、辛庄头村、同心街村、代庄村、东十里铺村、杨家台村、沈家台村、城内大桥附近北关用户、张翠台村西","startTime":"2020-06-10 05:20:20","stopDate":"2020-06-10 08:00:00","orgNo":"1340614","typeCode":"电网故障停限电","poweroffArea":"【全线路停电】停３５ＫＶ王村变电站１０ＫＶ辛庄头５１２线路全线，辛庄头村西,同心街村内,代庄南井,孔村村北,杨家台西台区,赵各庄新东,城内大桥东台区,王村北台区,张翠台新西台区变压器,沈家台西南井,吴各庄东南台区,王村南台区,东十里铺西台区,同心街村西北,东王庄高速北井,代庄村内","poweroffReason":"【停电原因】由于Ａ相接地导致３５ＫＶ王村变电站１０ＫＶ辛庄头５１２线路全线停电 【变更送电】因抢修进度加快原因，送电时间由１０：００变更为０８：００ 【发布渠道】通过９５５９８发布","powerTime":"2020-06-10 07:46:32","powerComm":"已送电","subsNo":"","lineNo":"","tgNo":"","tgName":null,"infoStatus":"1","orgName":"国网涞水县供电公司","typeName":null,"infoStatusName":null,"dateDay":null,"orgNos":null,"nowTime":null,"countyName":null,"streetName":null,"villageName":null,"roadName":null,"communityName":null,"tranName":null,"sdLineName":null,"cityCode":"1340614","cityName":"国网涞水县供电公司","provinceCode":null,"stopTime":"2020-06-10 08:00:00","powerType":"全部","powerOffArea":"【全线路停电】停３５ＫＶ王村变电站１０ＫＶ辛庄头５１２线路全线，辛庄头村西,同心街村内,代庄南井,孔村村北,杨家台西台区,赵各庄新东,城内大桥东台区,王村北台区,张翠台新西台区变压器,沈家台西南井,吴各庄东南台区,王村南台区,东十里铺西台区,同心街村西北,东王庄高速北井,代庄村内","powerOffReason":"【停电原因】由于Ａ相接地导致３５ＫＶ王村变电站１０ＫＶ辛庄头５１２线路全线停电 【变更送电】因抢修进度加快原因，送电时间由１０：００变更为０８：００ 【发布渠道】通过９５５９８发布","powerOffId":"2020061013000034"},{"poweroffId":2020061013000029,"sgpoweroffId":null,"subsName":"","lineName":"10kV543西留营线","pubTranName":"西留营16号,史各庄32号【纯农排变】,西留营4号,史各庄20号,史各庄7号,西留营12号,史各庄30号【纯农排变】,史各庄3号【纯农排变】,农垦牧业小区2号,西留营9号【纯农排变】,史各庄31号【纯农排变】,荆塘铺10号变压器,史各庄11号【纯农排变】,史各庄17号【纯农排变】,史各庄19号,史各庄37号【纯农排变】,漕河供电所3号,史各庄6号,西留营10号【纯农排变】,史各庄4号,漕河供电所4号,正村供电所5,史各庄1号【纯农排变】,史各庄26号,史各庄5号,西留营18号,史各庄2号【纯农排变】,史各庄18号【纯农排变】,史各庄27号,西留营5号【纯农排变】,史各庄21号,史各庄25号,漕河供电所9号,史各庄38号【纯农排变】,史各庄13号【纯农排变】,史各庄8号【纯农排变】,史各庄14号【纯农排变】,南留10号,史各庄41号【纯农排变】,史各庄40号【纯农排变】,史各庄35号【纯农排变】,史各庄28号,南留8号,史各庄39号【纯农排变】,史各庄10号【纯农排变】,西留营3号【纯农排变】,史各庄9号【纯农排变】,史各庄34号【纯农排变】,史各庄33号【纯农排变】,史各庄29号【纯农排变】,荆塘铺6号,史各庄24号【纯农排变】,农垦总公司奶牛基地,史各庄23号,保定农垦牧业发展公司,史各庄22号,西留营11号,史各庄12号【纯农排变】,史各庄36号【纯农排变】,史各庄15号【纯农排变】,保定市工商经济开发公司1号,","scope":"【影响街道/乡镇】留村乡 【高危重要客户】无 【影响客户】史各庄村、西留营村、南留村、荆塘铺村","startTime":"2020-06-10 05:12:58","stopDate":"2020-06-10 08:30:00","orgNo":"1340605","typeCode":"电网故障停限电","poweroffArea":"【全线路停电】停史各庄10号【纯农排变】,西留营11号,史各庄38号【纯农排变】,漕河供电所9号,西留营10号【纯农排变】,史各庄6号,史各庄20号,史各庄23号,史各庄29号【纯农排变】,史各庄21号,史各庄39号【纯农排变】,史各庄28号,史各庄35号【纯农排变】,西留营12号,史各庄11号【纯农排变】,南留8号,史各庄1号【纯农排变】,史各庄5号,史各庄19号,农垦牧业小区2号,史各庄12号【纯农排变】,史各庄32号【纯农排变】,漕河供电所4号,史各庄18号【纯农排变】,史各庄37号【纯农排变】,西留营9号【纯农排变】,史各庄7号,史各庄33号【纯农排变】,史各庄22号,西留营3号【纯农排变】,史各庄24号【纯农排变】,史各庄14号【纯农排变】,保定市工商经济开发公司1号,史各庄27号,史各庄17号【纯农排变】,西留营5号【纯农排变】,史各庄36号【纯农排变】,史各庄13号【纯农排变】,荆塘铺10号变压器,西留营4号,西留营16号,史各庄8号【纯农排变】,史各庄3号【纯农排变】,史各庄9号【纯农排变】,史各庄4号,史各庄26号,正村供电所5,史各庄2号【纯农排变】,荆塘铺6号,西留营18号,史各庄34号【纯农排变】,南留10号,史各庄25号,史各庄15号【纯农排变】,史各庄40号【纯农排变】,史各庄30号【纯农排变】,史各庄31号【纯农排变】,保定农垦牧业发展公司,农垦总公司奶牛基地,史各庄41号【纯农排变】,漕河供电所3号","poweroffReason":"【停电原因】由于Ｂ相接地导致１１０ＫＶ留村变电站西留营线５４３线路全线停电 【变更送电】无 【发布渠道】通过９５５９８发布","powerTime":"2020-06-10 07:36:00","powerComm":"已送电","subsNo":"","lineNo":"","tgNo":"","tgName":null,"infoStatus":"1","orgName":"国网徐水县供电公司","typeName":null,"infoStatusName":null,"dateDay":null,"orgNos":null,"nowTime":null,"countyName":null,"streetName":null,"villageName":null,"roadName":null,"communityName":null,"tranName":null,"sdLineName":null,"cityCode":"1340605","cityName":"国网徐水县供电公司","provinceCode":null,"stopTime":"2020-06-10 08:30:00","powerType":"全部","powerOffArea":"【全线路停电】停史各庄10号【纯农排变】,西留营11号,史各庄38号【纯农排变】,漕河供电所9号,西留营10号【纯农排变】,史各庄6号,史各庄20号,史各庄23号,史各庄29号【纯农排变】,史各庄21号,史各庄39号【纯农排变】,史各庄28号,史各庄35号【纯农排变】,西留营12号,史各庄11号【纯农排变】,南留8号,史各庄1号【纯农排变】,史各庄5号,史各庄19号,农垦牧业小区2号,史各庄12号【纯农排变】,史各庄32号【纯农排变】,漕河供电所4号,史各庄18号【纯农排变】,史各庄37号【纯农排变】,西留营9号【纯农排变】,史各庄7号,史各庄33号【纯农排变】,史各庄22号,西留营3号【纯农排变】,史各庄24号【纯农排变】,史各庄14号【纯农排变】,保定市工商经济开发公司1号,史各庄27号,史各庄17号【纯农排变】,西留营5号【纯农排变】,史各庄36号【纯农排变】,史各庄13号【纯农排变】,荆塘铺10号变压器,西留营4号,西留营16号,史各庄8号【纯农排变】,史各庄3号【纯农排变】,史各庄9号【纯农排变】,史各庄4号,史各庄26号,正村供电所5,史各庄2号【纯农排变】,荆塘铺6号,西留营18号,史各庄34号【纯农排变】,南留10号,史各庄25号,史各庄15号【纯农排变】,史各庄40号【纯农排变】,史各庄30号【纯农排变】,史各庄31号【纯农排变】,保定农垦牧业发展公司,农垦总公司奶牛基地,史各庄41号【纯农排变】,漕河供电所3号","powerOffReason":"【停电原因】由于Ｂ相接地导致１１０ＫＶ留村变电站西留营线５４３线路全线停电 【变更送电】无 【发布渠道】通过９５５９８发布","powerOffId":"2020061013000029"},{"poweroffId":2020061013000024,"sgpoweroffId":null,"subsName":"","lineName":"北高515","pubTranName":"西北奇村22#村,西市村9#,中北奇村4#【纯农排变】,血山村7#,血山村8#,西北奇村4#,血山村9#,东北奇村1#,血山村4#村南,北高村8#村山坡,西北奇村13#,西北奇村2#,西北奇村3#,卓家庄12#变压器,西北奇村5#村西,西北奇10#,西市6#,血山10#变压器,西北奇村9#【纯农排变】,中北奇村5#,西北奇12#村,西北奇14#,中高村12#村边,卓家庄1#变压器,西北奇村6#,卓家庄村8#,东北奇村3#,西北奇20#变压器,西北奇村21#,卓家庄村3#,中北奇村2#,卓家庄村2#村东,西北奇纸厂,卓家庄村13#,西北奇村1#,卓家庄村9#【纯农排变】,西北奇村23#,北高4,民爆公司,血山村1#,西北奇11#【纯农排变】,卓家庄村10#,东北奇村5#,卓家庄村4#,中北奇村1#,卓家庄村5#,中北奇村6#村中,东北奇村4#,西北奇村16#,血山村5#,中北奇村3#,卓家庄村11#,血山村2#,血山村3#村北,东北奇村2#,西北奇村15#,西北奇村17#,卓家庄村7#,西市村5#,卓家庄村6#,","scope":"【影响街道/乡镇】高村乡【高危重要客户】无【影响客户】东北奇村、西北奇村、中北奇村、血山村、卓家庄村","startTime":"2020-06-10 02:54:44","stopDate":"2020-06-10 12:00:00","orgNo":"1340625","typeCode":"电网故障停限电","poweroffArea":"【全线路停电】停中北奇村5#,0469480014-西北奇张春芳面粉厂-专变-46818171-西北奇张春芳面粉厂,西北奇村23#,东北奇村4#,易县顺达石材厂变压器,中高村12#村边,中海石材,中海石材(学校),卓家庄面粉厂(卓庆林),河北易达矿业有限责任公司变压器,西北奇纸厂,西市村9#,血山村赵树奇变压器,易县卓家庄春龙灰厂,易县北方伟业石材有限公司,血山村2#,西北奇村5#村西,卓家庄村11#,变压器,易县天然石材工业园(1#),易县天然石材工业园(3#),易县龙山石材变压器,西北奇村17#,中北奇村6#村中,东北奇村1#,西北奇钙粉厂,血山村1#,燕龙石材有限公司,西北奇村21#,0554167424-北市村任保祥-专变-73908832-变压器,0593743360-易县龙山石材有限公司-专变-125906046-易县龙山石材有限公司变压器,中北奇村4#【纯农排变】,西北奇12#村,卓家庄村3#,血山村翟保华变压器,卓家庄村6#,东北奇村5#,卓家庄村5#,西北奇11#【纯农排变】,北高村8#村山坡,西市6#,易县明宇钙粉加工有限公司变压器,中北奇村2#,血山村4#村南,西市村5#,血山村9#,西北奇村13#,易县龙山石材有限公司变压器,东北奇村2#,血山村8#,血山10#变压器,西北奇村22#村,铭宇钙粉厂变压器,西北奇村1#,西北奇村6#,0668619301-易县鑫威家庭农场-专变-208447517-易县鑫威家庭农场50KVA,血山村5#,0469480375-珂利达石业有限公司-专变-46818143-长河石业有限公司,河北豫旺百创防水材料有限公司变压器,西北奇村4#,卓家庄村10#,卓家庄12#变压器,易县天然石材工业园(5#),卓家庄村4#,王志成,李彦芳养鸡厂,血山村3#村北,中国石化销售有限公司河北保定易县石油分公司变压器,卓家庄村7#,民爆公司,西北奇14#,西北奇村3#,西北奇村15#,卓家庄1#变压器,西北奇村16#,易县西北奇龙海石材厂变压器,易县天然石材工业园(2#),血山村7#,西北奇10#,易县金驰商品混凝土有限公司变压器,易县永泰筑路材料有限责任公司,中北奇村3#,西北奇村9#【纯农排变】,0546380563-高村供电所-专变-47853168-白马供电所,易县天然石材工业园(4#),易县龙山石材有限公司,西北奇20#变压器,龙山石材变压器,卓家庄村9#【纯农排变】,中北奇村1#,卓家庄村8#,血山袁学辉面粉厂,龙山石材集团公司(100KVA),龙山石材集团公司(80KVA),龙山石材集团公司(200KVA),卓家庄村2#村东,卓家庄水泥构件厂,0551702268-易县宇泽商贸有限责任公司-专变-49852424-变压器,西北奇村7#【纯农排变】,北京易水奇石仿古雕刻工艺品厂易县石材厂,北高4,东北奇村3#,易县长锁建材经销处变压器,卓家庄村13#,西北奇村2#","poweroffReason":"【停电原因】由于主干１９号杆断线导致３５ＫＶ易水变电站北高５１５线路全线路停电【变更送电】因故障未彻底排除原因，送电时间由１０：００变更为１２：００【发布渠道】通过９５５９８发布","powerTime":"2020-06-10 11:44:29","powerComm":"已送电","subsNo":"","lineNo":"","tgNo":"","tgName":null,"infoStatus":"1","orgName":"国网易县供电公司","typeName":null,"infoStatusName":null,"dateDay":null,"orgNos":null,"nowTime":null,"countyName":null,"streetName":null,"villageName":null,"roadName":null,"communityName":null,"tranName":null,"sdLineName":null,"cityCode":"1340625","cityName":"国网易县供电公司","provinceCode":null,"stopTime":"2020-06-10 12:00:00","powerType":"全部","powerOffArea":"【全线路停电】停中北奇村5#,0469480014-西北奇张春芳面粉厂-专变-46818171-西北奇张春芳面粉厂,西北奇村23#,东北奇村4#,易县顺达石材厂变压器,中高村12#村边,中海石材,中海石材(学校),卓家庄面粉厂(卓庆林),河北易达矿业有限责任公司变压器,西北奇纸厂,西市村9#,血山村赵树奇变压器,易县卓家庄春龙灰厂,易县北方伟业石材有限公司,血山村2#,西北奇村5#村西,卓家庄村11#,变压器,易县天然石材工业园(1#),易县天然石材工业园(3#),易县龙山石材变压器,西北奇村17#,中北奇村6#村中,东北奇村1#,西北奇钙粉厂,血山村1#,燕龙石材有限公司,西北奇村21#,0554167424-北市村任保祥-专变-73908832-变压器,0593743360-易县龙山石材有限公司-专变-125906046-易县龙山石材有限公司变压器,中北奇村4#【纯农排变】,西北奇12#村,卓家庄村3#,血山村翟保华变压器,卓家庄村6#,东北奇村5#,卓家庄村5#,西北奇11#【纯农排变】,北高村8#村山坡,西市6#,易县明宇钙粉加工有限公司变压器,中北奇村2#,血山村4#村南,西市村5#,血山村9#,西北奇村13#,易县龙山石材有限公司变压器,东北奇村2#,血山村8#,血山10#变压器,西北奇村22#村,铭宇钙粉厂变压器,西北奇村1#,西北奇村6#,0668619301-易县鑫威家庭农场-专变-208447517-易县鑫威家庭农场50KVA,血山村5#,0469480375-珂利达石业有限公司-专变-46818143-长河石业有限公司,河北豫旺百创防水材料有限公司变压器,西北奇村4#,卓家庄村10#,卓家庄12#变压器,易县天然石材工业园(5#),卓家庄村4#,王志成,李彦芳养鸡厂,血山村3#村北,中国石化销售有限公司河北保定易县石油分公司变压器,卓家庄村7#,民爆公司,西北奇14#,西北奇村3#,西北奇村15#,卓家庄1#变压器,西北奇村16#,易县西北奇龙海石材厂变压器,易县天然石材工业园(2#),血山村7#,西北奇10#,易县金驰商品混凝土有限公司变压器,易县永泰筑路材料有限责任公司,中北奇村3#,西北奇村9#【纯农排变】,0546380563-高村供电所-专变-47853168-白马供电所,易县天然石材工业园(4#),易县龙山石材有限公司,西北奇20#变压器,龙山石材变压器,卓家庄村9#【纯农排变】,中北奇村1#,卓家庄村8#,血山袁学辉面粉厂,龙山石材集团公司(100KVA),龙山石材集团公司(80KVA),龙山石材集团公司(200KVA),卓家庄村2#村东,卓家庄水泥构件厂,0551702268-易县宇泽商贸有限责任公司-专变-49852424-变压器,西北奇村7#【纯农排变】,北京易水奇石仿古雕刻工艺品厂易县石材厂,北高4,东北奇村3#,易县长锁建材经销处变压器,卓家庄村13#,西北奇村2#","powerOffReason":"【停电原因】由于主干１９号杆断线导致３５ＫＶ易水变电站北高５１５线路全线路停电【变更送电】因故障未彻底排除原因，送电时间由１０：００变更为１２：００【发布渠道】通过９５５９８发布","powerOffId":"2020061013000024"},{"poweroffId":2020061013000022,"sgpoweroffId":null,"subsName":"","lineName":"城内520线","pubTranName":"迎晖北大街4#,桂子渠村4,东关村1#,迎晖北大街3#,","scope":"【影响街道/乡镇】易州镇、金台路、迎晖北大街、靖远北大街、泰元街【高危重要客户】无【影响客户】桂子渠村、厂东关村","startTime":"2020-06-10 02:28:26","stopDate":"2020-06-10 04:00:00","orgNo":"1340625","typeCode":"电网故障停限电","poweroffArea":"【全线路停电】停木棉花开酒店有限公司500,丁街铸造厂,迎晖北大街3#,迎晖北大街4#,易县东剑家俱建材商贸有限公司,桂子渠村4,易县东环加油站,0469134357-易县易州会馆餐饮有限责任公司-专变-46725335-易县易州会馆餐饮有限责任公司,易县第二幼儿园变压器,易县兰宝商务酒店有限公司1000KVA,桂子渠村3#,东关村1#,桂子渠村2#,桂子渠1#,易县京易职业培训学校,云燕面粉厂,易县易州会馆餐饮有限责任公司变压器,易洲镇派出所80KVA","poweroffReason":"【停电原因】由于桂子渠3号变压器电缆线断导致１１０ＫＶ易县变电站城内５２０线路全线路停电【变更送电】因抢修进度加快原因，送电时间由１０：００变更为０４：００【发布渠道】通过９５５９８发布","powerTime":"2020-06-10 03:24:03","powerComm":"已送电","subsNo":"","lineNo":"","tgNo":"","tgName":null,"infoStatus":"1","orgName":"国网易县供电公司","typeName":null,"infoStatusName":null,"dateDay":null,"orgNos":null,"nowTime":null,"countyName":null,"streetName":null,"villageName":null,"roadName":null,"communityName":null,"tranName":null,"sdLineName":null,"cityCode":"1340625","cityName":"国网易县供电公司","provinceCode":null,"stopTime":"2020-06-10 04:00:00","powerType":"全部","powerOffArea":"【全线路停电】停木棉花开酒店有限公司500,丁街铸造厂,迎晖北大街3#,迎晖北大街4#,易县东剑家俱建材商贸有限公司,桂子渠村4,易县东环加油站,0469134357-易县易州会馆餐饮有限责任公司-专变-46725335-易县易州会馆餐饮有限责任公司,易县第二幼儿园变压器,易县兰宝商务酒店有限公司1000KVA,桂子渠村3#,东关村1#,桂子渠村2#,桂子渠1#,易县京易职业培训学校,云燕面粉厂,易县易州会馆餐饮有限责任公司变压器,易洲镇派出所80KVA","powerOffReason":"【停电原因】由于桂子渠3号变压器电缆线断导致１１０ＫＶ易县变电站城内５２０线路全线路停电【变更送电】因抢修进度加快原因，送电时间由１０：００变更为０４：００【发布渠道】通过９５５９８发布","powerOffId":"2020061013000022"},{"poweroffId":2020061013000019,"sgpoweroffId":null,"subsName":"","lineName":"广场线521","pubTranName":"迎宾小区3#,路家庄村4#,友谊路3,路家庄村2#,路家庄村6#,网通家属楼直供,南环路5#,文化2配电变压器,朝阳4号5分配电变压器,友谊路1#,易水3分配电变压器,信用社家属楼,友谊路4#,南环路1#,团结路1#,新华新1配电变压器,土地开发1,南环路4#,武装2分配电变压器,迎宾路2#,南环路2#,","scope":"【影响街道/乡镇】团结路、迎宾路、友谊路、阳元北大街、易兴路、朝阳路【高危重要客户】无【影响客户】路家庄村","startTime":"2020-06-10 02:24:35","stopDate":"2020-06-10 05:40:00","orgNo":"1340625","typeCode":"电网故障停限电","poweroffArea":"【全线路停电】停友谊路1#,南环路1#,网通家属楼直供,鸿华房地产变压器,南环路2#,南环路4#,云蒙家园,路家庄村6#,河北智联房地产开发有限公司变压器,人民银行,迎宾路2#,变压器,0553895854-易县金塘物业服务有限公司-专变-70269892-变压器 ,河北普华房地产开发有限公司,路家庄村2#,云蒙嘉园二期,新华新1配电变压器,县政府2#配变,董振水锅炉,中国人民财产保险股份有限公司易县支公司变压器,河北华宇房地产开发有限公司变压器,天房宾馆,检察院,易洲镇政府(家属楼),信用社家属楼,易县金塘物业服务有限公司2000KVA,文化广场,易水3分配电变压器,政府家属楼,迎宾小区3#,河北省易县中医院变压器,文化2配电变压器,武装2分配电变压器,云蒙嘉园小区(宏宇房地产),土地开发1,易县农村信用合作社,保险公司家属院,宏宇小区变压器,财达证券,0553895854-易县金塘物业服务有限公司-专变-70071833-变压器,友谊路4#,南环路5#,路家庄村4#,友谊路3,团结路1#,县政府1#配变,朝阳4号5分配电变压器","poweroffReason":"【停电原因】由于团结路１２号环网柜烧毁导致１１０ＫＶ易县变电站广场５２１线路全线停电【变更送电】因抢修进度加快原因，送电时间由１０：００变更为０５：４０【发布渠道】通过９５５９８发布","powerTime":"2020-06-10 05:19:10","powerComm":"已送电","subsNo":"","lineNo":"","tgNo":"","tgName":null,"infoStatus":"1","orgName":"国网易县供电公司","typeName":null,"infoStatusName":null,"dateDay":null,"orgNos":null,"nowTime":null,"countyName":null,"streetName":null,"villageName":null,"roadName":null,"communityName":null,"tranName":null,"sdLineName":null,"cityCode":"1340625","cityName":"国网易县供电公司","provinceCode":null,"stopTime":"2020-06-10 05:40:00","powerType":"全部","powerOffArea":"【全线路停电】停友谊路1#,南环路1#,网通家属楼直供,鸿华房地产变压器,南环路2#,南环路4#,云蒙家园,路家庄村6#,河北智联房地产开发有限公司变压器,人民银行,迎宾路2#,变压器,0553895854-易县金塘物业服务有限公司-专变-70269892-变压器 ,河北普华房地产开发有限公司,路家庄村2#,云蒙嘉园二期,新华新1配电变压器,县政府2#配变,董振水锅炉,中国人民财产保险股份有限公司易县支公司变压器,河北华宇房地产开发有限公司变压器,天房宾馆,检察院,易洲镇政府(家属楼),信用社家属楼,易县金塘物业服务有限公司2000KVA,文化广场,易水3分配电变压器,政府家属楼,迎宾小区3#,河北省易县中医院变压器,文化2配电变压器,武装2分配电变压器,云蒙嘉园小区(宏宇房地产),土地开发1,易县农村信用合作社,保险公司家属院,宏宇小区变压器,财达证券,0553895854-易县金塘物业服务有限公司-专变-70071833-变压器,友谊路4#,南环路5#,路家庄村4#,友谊路3,团结路1#,县政府1#配变,朝阳4号5分配电变压器","powerOffReason":"【停电原因】由于团结路１２号环网柜烧毁导致１１０ＫＶ易县变电站广场５２１线路全线停电【变更送电】因抢修进度加快原因，送电时间由１０：００变更为０５：４０【发布渠道】通过９５５９８发布","powerOffId":"2020061013000019"},{"poweroffId":2020060913000207,"sgpoweroffId":null,"subsName":"","lineName":"二道河线512","pubTranName":"512孤山子配变,512二道河村配变,512村西配变,","scope":"【影响街道/乡镇】城关镇【高危重要客户】无【影响客户】二道河村、孤山子","startTime":"2020-06-22 04:00:00","stopDate":"2020-06-22 06:00:00","orgNo":"1340615","typeCode":"计划停电","poweroffArea":"【全线路停电】停３５ＫＶ马圈变电站１０ＫＶ二道河线５１２线路全线,512孤山子配变,512二道河村配变,512村西配变","poweroffReason":"【停电原因】由于方式调整导致３５ＫＶ马圈变电站１０ＫＶ二道河线５１２线路全线停电【变更送电】无【发布渠道】涞源电视台（６月１０日至６月２１日８时至２３时之间）屏幕上方滚动","powerTime":"","powerComm":"","subsNo":"","lineNo":"","tgNo":"","tgName":null,"infoStatus":"1","orgName":"国网涞源县供电公司","typeName":null,"infoStatusName":null,"dateDay":null,"orgNos":null,"nowTime":null,"countyName":null,"streetName":null,"villageName":null,"roadName":null,"communityName":null,"tranName":null,"sdLineName":null,"cityCode":"1340615","cityName":"国网涞源县供电公司","provinceCode":null,"stopTime":"2020-06-22 06:00:00","powerType":"未送电","powerOffArea":"【全线路停电】停３５ＫＶ马圈变电站１０ＫＶ二道河线５１２线路全线,512孤山子配变,512二道河村配变,512村西配变","powerOffReason":"【停电原因】由于方式调整导致３５ＫＶ马圈变电站１０ＫＶ二道河线５１２线路全线停电【变更送电】无【发布渠道】涞源电视台（６月１０日至６月２１日８时至２３时之间）屏幕上方滚动","powerOffId":"2020060913000207"}],"pageModel":{"pageNow":7,"totalCount":10973,"totalPage":1098,"tableRows":0,"pageCount":10,"beginCount":60},"isExperi":"1"}