{"message":"","today":"2020-06-15","seleList":[{"poweroffId":2020032813000099,"sgpoweroffId":null,"subsName":"","lineName":"白水港线521","pubTranName":"白水港村6#,三尖峪村1#,太宁寺村4#,龙泉庄11台区,东旮旯村3#,太宁寺村1#,金龙庄3台区,金龙庄村1#,龙泉庄村2#,白水港5#,白水港村3#,南大地10台区,白水港村4#,南大地9台区,太平峪村5#,太平峪村7#,太宁寺村3#,太平峪村4#,南大地村2#,南大地村8#,三尖峪村3#,白水港7#,东旮旯5#,龙泉庄村7#,新畔石村1#,太平峪村9#,东旮旯村1#,三尖峪村2#,新畔石3农村西,龙泉庄12#,白水港村1#,太平峪村6#,龙泉庄村3#,三尖峪村4#,新畔石村5#,南大地村6#,太平峪村1#,龙泉庄村8#,南大地村5#,白水港村2#,太平峪村3#,南大地村1#,龙泉庄村9#,太平峪村8#,太平峪村10#,南大地村3#,南大地村4#,龙泉庄村6#,太和庄村1#,金龙庄村2#,太宁寺村2#,龙泉庄村4#,太平峪村2#,太宁寺村5#,龙泉庄村10#,龙泉庄村1#,龙泉庄村5#,东旮旯村2#,","scope":"【影响街道/乡镇】西陵镇【高危重要客户】无【影响客户】五道河村、金龙庄村、白水港村、三尖峪村、太平峪村、太宁寺村、龙泉庄村、南大地村、新畔石村、东旮旯村","startTime":"2020-03-28 16:49:35","stopDate":"2020-03-28 18:30:00","orgNo":"1340625","typeCode":"电网故障停限电","poweroffArea":"【全线路停电】停南大地村4#,龙泉庄11台区,太宁寺村3#,新畔石3农村西,太平峪村10#,龙泉庄村7#,太平峪村7#,龙泉庄村6#,南大地村2#,东旮旯村2#,南大地村3#,太平峪村8#,金龙庄3台区,李振权变压器,魏铁路变压器,金龙庄村2#,三尖峪村2#,南大地村8#,白水港村4#,白水港村2#,太平峪村4#,东旮旯村3#,南大地10台区,太宁寺村5#,金龙庄村1#,太平峪村9#,袁振忠,新畔石村1#,太平峪村1#,南大地9台区,南大地铁选厂,白水港村1#,太平峪村6#,林学院,太宁寺村1#,太宁寺村4#,南大地村6#,东旮旯5#,白水港7#,太宁寺村2#,白水港村6#,新畔石村5#,三尖峪村1#,白水港村3#,龙泉庄村8#,白水港5#,三尖峪村3#,东旮旯村1#,南大地村李晓震变压器,太平峪村5#,龙泉庄村4#,龙泉庄村9#,南大地村1#,耿小伟,变压器,龙泉庄12#,龙泉庄村2#,太平峪村3#,龙泉庄村1#,太平峪村2#,龙泉庄村3#,龙泉庄村10#,三尖峪村4#,太和庄村1#,南大地村5#,龙泉庄村5#","poweroffReason":"【停电原因】由于速断跳闸导致１１０ＫＶ西陵变电站白水港线５２１线路全线停电【变更送电】由于抢修进度加快原因，送电时间由２１：００变更为１８：３０【发布渠道】通过９５５９８发布","powerTime":"2020-03-28 18:04:36","powerComm":"已送电","subsNo":"","lineNo":"","tgNo":"","tgName":null,"infoStatus":"1","orgName":"国网易县供电公司","typeName":null,"infoStatusName":null,"dateDay":null,"orgNos":null,"nowTime":null,"countyName":null,"streetName":null,"villageName":null,"roadName":null,"communityName":null,"tranName":null,"sdLineName":null,"cityCode":"1340625","cityName":"国网易县供电公司","provinceCode":null,"stopTime":"2020-03-28 18:30:00","powerType":"全部","powerOffArea":"【全线路停电】停南大地村4#,龙泉庄11台区,太宁寺村3#,新畔石3农村西,太平峪村10#,龙泉庄村7#,太平峪村7#,龙泉庄村6#,南大地村2#,东旮旯村2#,南大地村3#,太平峪村8#,金龙庄3台区,李振权变压器,魏铁路变压器,金龙庄村2#,三尖峪村2#,南大地村8#,白水港村4#,白水港村2#,太平峪村4#,东旮旯村3#,南大地10台区,太宁寺村5#,金龙庄村1#,太平峪村9#,袁振忠,新畔石村1#,太平峪村1#,南大地9台区,南大地铁选厂,白水港村1#,太平峪村6#,林学院,太宁寺村1#,太宁寺村4#,南大地村6#,东旮旯5#,白水港7#,太宁寺村2#,白水港村6#,新畔石村5#,三尖峪村1#,白水港村3#,龙泉庄村8#,白水港5#,三尖峪村3#,东旮旯村1#,南大地村李晓震变压器,太平峪村5#,龙泉庄村4#,龙泉庄村9#,南大地村1#,耿小伟,变压器,龙泉庄12#,龙泉庄村2#,太平峪村3#,龙泉庄村1#,太平峪村2#,龙泉庄村3#,龙泉庄村10#,三尖峪村4#,太和庄村1#,南大地村5#,龙泉庄村5#","powerOffReason":"【停电原因】由于速断跳闸导致１１０ＫＶ西陵变电站白水港线５２１线路全线停电【变更送电】由于抢修进度加快原因，送电时间由２１：００变更为１８：３０【发布渠道】通过９５５９８发布","powerOffId":"2020032813000099"},{"poweroffId":2020032813000079,"sgpoweroffId":null,"subsName":"","lineName":"10kV苍山线511","pubTranName":"519高阜口1#配变,519高阜口4#配变,519大道4#配变,嘉鑫2#公用配变,嘉鑫3#公用配变,嘉鑫4#公用配变,519小石坊2#配变,519小石坊3#配变,519黄岸底3#配变,519大石坊1#配变,519黄岸底7#配变,519大石坊2#配变,519方太口2#配变,董家口6号公用配变,519方太口6#配变,519端路头1#配变,嘉鑫1#公用配变,519小石坊1#配变,519黄岸底5#配变,519黄岸底6#公用配变,519大道2#配变,","scope":"【影响街道/乡镇】城关镇、王林口乡 【高危重要客户】无 【影响客户】方太口、高阜口、槐树庄、大道、黄岸底、大石坊、小石坊、董家沟口、神台、南峪、端路头、海沿、苍山、嘉鑫蘑菇基地、槐树庄石材小区","startTime":"2020-03-28 15:25:31","stopDate":"2020-03-28 20:00:00","orgNo":"1340611","typeCode":"电网故障停限电","poweroffArea":"【全线路停电】停大道2#配变,大道4#配变,大石坊1#配变,大石坊2#配变,方太口2#配变,方太口6#配变,高阜口1#配变,高阜口4#配变","poweroffReason":"【停电原因】由于车挂线导致３５ＫＶ阜平西庄变电站１０ＫＶ苍山５１１线路全线停电 【变更送电】无 【发布渠道】９５５９８","powerTime":"2020-03-28 19:46:39","powerComm":"全部送电","subsNo":"","lineNo":"","tgNo":"","tgName":null,"infoStatus":"1","orgName":"国网阜平县供电公司","typeName":null,"infoStatusName":null,"dateDay":null,"orgNos":null,"nowTime":null,"countyName":null,"streetName":null,"villageName":null,"roadName":null,"communityName":null,"tranName":null,"sdLineName":null,"cityCode":"1340611","cityName":"国网阜平县供电公司","provinceCode":null,"stopTime":"2020-03-28 20:00:00","powerType":"全部","powerOffArea":"【全线路停电】停大道2#配变,大道4#配变,大石坊1#配变,大石坊2#配变,方太口2#配变,方太口6#配变,高阜口1#配变,高阜口4#配变","powerOffReason":"【停电原因】由于车挂线导致３５ＫＶ阜平西庄变电站１０ＫＶ苍山５１１线路全线停电 【变更送电】无 【发布渠道】９５５９８","powerOffId":"2020032813000079"},{"poweroffId":2020032813000061,"sgpoweroffId":null,"subsName":"","lineName":"10kV568食品园Ⅱ线","pubTranName":"清水河公用照明12台区变压器,清水河(016):照明3台区,清水河(016):照明1台区,清水河公用照明7台区,清水河公用照明8台区,北门街(009):照明3台区,客户投资_清水河(016):照明2台区,清水河公用农业9台区【纯农排变】,北门街(009):公用照明13台区,清水河：照明5台区,清水河(016):照明4台区,清水河公用照明11台区出线间隔2配电变压器,北门街公用照明8台区,清水河(016):农业1台区【纯农排变】,清水河公用照明11台区变压器,","scope":"【影响街道/乡镇】北城区【高危重要客户】无【影响客户】清水河、御墅蓝山、４２团","startTime":"2020-03-28 14:19:03","stopDate":"2020-03-28 15:30:00","orgNo":"1340610","typeCode":"电网故障停限电","poweroffArea":"【全线路停电】停清水河(016):照明3台区,北门街(009):公用照明13台区,清水河：照明5台区,清水河(016):照明4台区,清水河公用照明11台区出线间隔2配电变压器,北门街公用照明8台区,清水河(016):照明1台区,清水河公用照明7台区,清水河公用照明8台区,北门街(009):照明3台区,客户投资_清水河(016):照明2台区,建投能源定州热力有限责任公司_柱上变压器 ,清水河(016):农业7台区【纯农排变】,定州市北城区清水河社区污水处理厂变压器,定州市北城区清水河社区居民委员会变压器,靖成章,清水河公用农业9台区【纯农排变】,河北中诚安邦房地产开发有限公司变压器1,定州中标节能变压器,定州市钇轩汽车贸易有限公司变压器,0387417457-定州市职业技术教育中心-专变-45264323-定州市职业技术教育中心,0387417415-中国人民武装警察8643部队-专变-45264266-8643部队,0621494152-定州市中标节能技术服务有限公司-专变-129463653-定州市住房和城乡建设局 路灯107国道01 02 03号1变压器,河北中诚安邦房地产开发有限公司变压器,定州市云天汽车贸易有限公司变压器,定州市铸达不锈钢制品有限公司变压器,唐城村(019):农业1台区【纯农排变】,保定师专定州分校,定州市永发诚信畜牧养殖有限公司,清水河(016):农业2台区【纯农排变】,定州市滕海石材经销处,0654673706-河北保定运输集团有限责任公司第三运输公司-专变-183754008-河北保定运输集团有限责任公司第三运输公司变压器,清水河(016):农业3台区【纯农排变】,河北保定运输集团有限责任公司第三运输公司,定州市北城区清水河村委会变压器,定州市宏利棉织厂,河北中合农产品市场管理有限公司变压器2,河北中合农产品市场管理有限公司变压器1,河北中合农产品市场管理有限公司,0616759877-定州市北城区清水河村村民委员会(新民居二期)-专变-128470671-定州市北城区清水河村村民委员会（新民居二期）变压器,0617956471-定州市北城区唐城村民委员会(新民居)-专变-128651895-定州市北城区唐城村民委员会（新民居）2变压器2,清水河公用照明6台区,清水河(016):农业1台区【纯农排变】,定州市职业技术教育中心变压器,河北三仁建筑装饰工程有限公司变压器,志远孵化场,保定交通局107国道定州养路工区,0616759877-定州市北城区清水河村村民委员会(新民居二期)-专变-128470667-定州市北城区清水河村村民委员会（新民居二期）变压器,清水河公用照明11台区变压器,清水河公用照明12台区变压器,河北中诚安邦房地产开发有限公司变压器2,0621494152-定州市中标节能技术服务有限公司-专变-129453497-定州市住房和城乡建设局 路灯107国道01 02 03号2变压器,定州市公共交通有限公司变压器1,0617956471-定州市北城区唐城村民委员会(新民居)-专变-128649090-定州市北城区唐城村民委员会（新民居）1,松本制衣公司,定州市公共交通有限公司变压器2,定州市北城区唐城村民委员会（新民居）3,0617956471-定州市北城区唐城村民委员会(新民居)-专变-128651889-定州市北城区唐城村民委员会（新民居）2变压器1,定州市利康养殖厂变压器,清水河(016):农业4台区【纯农排变】,定州市华都汽车配件表面处理厂,河北保定运输集团有限责任公司第三公司变压器,定州市黎明散热器厂变压器,清水河(016):农业5台区【纯农排变】,定州市长奥汽车配件有限公司","poweroffReason":"【停电原因】由于主干１１８号杆至１１９号杆车碰线导致１１０ＫＶ清风店变电站１０ＫＶ５６８食品园ＩＩ线路全线停电 【变更送电】因抢修进度加快原因，送电时间由２０：００变更为１５：３０ 【发布渠道】９５５９８","powerTime":"2020-03-28 15:10:10","powerComm":"已送电","subsNo":"","lineNo":"","tgNo":"","tgName":null,"infoStatus":"1","orgName":"国网定州市供电公司","typeName":null,"infoStatusName":null,"dateDay":null,"orgNos":null,"nowTime":null,"countyName":null,"streetName":null,"villageName":null,"roadName":null,"communityName":null,"tranName":null,"sdLineName":null,"cityCode":"1340610","cityName":"国网定州市供电公司","provinceCode":null,"stopTime":"2020-03-28 15:30:00","powerType":"全部","powerOffArea":"【全线路停电】停清水河(016):照明3台区,北门街(009):公用照明13台区,清水河：照明5台区,清水河(016):照明4台区,清水河公用照明11台区出线间隔2配电变压器,北门街公用照明8台区,清水河(016):照明1台区,清水河公用照明7台区,清水河公用照明8台区,北门街(009):照明3台区,客户投资_清水河(016):照明2台区,建投能源定州热力有限责任公司_柱上变压器 ,清水河(016):农业7台区【纯农排变】,定州市北城区清水河社区污水处理厂变压器,定州市北城区清水河社区居民委员会变压器,靖成章,清水河公用农业9台区【纯农排变】,河北中诚安邦房地产开发有限公司变压器1,定州中标节能变压器,定州市钇轩汽车贸易有限公司变压器,0387417457-定州市职业技术教育中心-专变-45264323-定州市职业技术教育中心,0387417415-中国人民武装警察8643部队-专变-45264266-8643部队,0621494152-定州市中标节能技术服务有限公司-专变-129463653-定州市住房和城乡建设局 路灯107国道01 02 03号1变压器,河北中诚安邦房地产开发有限公司变压器,定州市云天汽车贸易有限公司变压器,定州市铸达不锈钢制品有限公司变压器,唐城村(019):农业1台区【纯农排变】,保定师专定州分校,定州市永发诚信畜牧养殖有限公司,清水河(016):农业2台区【纯农排变】,定州市滕海石材经销处,0654673706-河北保定运输集团有限责任公司第三运输公司-专变-183754008-河北保定运输集团有限责任公司第三运输公司变压器,清水河(016):农业3台区【纯农排变】,河北保定运输集团有限责任公司第三运输公司,定州市北城区清水河村委会变压器,定州市宏利棉织厂,河北中合农产品市场管理有限公司变压器2,河北中合农产品市场管理有限公司变压器1,河北中合农产品市场管理有限公司,0616759877-定州市北城区清水河村村民委员会(新民居二期)-专变-128470671-定州市北城区清水河村村民委员会（新民居二期）变压器,0617956471-定州市北城区唐城村民委员会(新民居)-专变-128651895-定州市北城区唐城村民委员会（新民居）2变压器2,清水河公用照明6台区,清水河(016):农业1台区【纯农排变】,定州市职业技术教育中心变压器,河北三仁建筑装饰工程有限公司变压器,志远孵化场,保定交通局107国道定州养路工区,0616759877-定州市北城区清水河村村民委员会(新民居二期)-专变-128470667-定州市北城区清水河村村民委员会（新民居二期）变压器,清水河公用照明11台区变压器,清水河公用照明12台区变压器,河北中诚安邦房地产开发有限公司变压器2,0621494152-定州市中标节能技术服务有限公司-专变-129453497-定州市住房和城乡建设局 路灯107国道01 02 03号2变压器,定州市公共交通有限公司变压器1,0617956471-定州市北城区唐城村民委员会(新民居)-专变-128649090-定州市北城区唐城村民委员会（新民居）1,松本制衣公司,定州市公共交通有限公司变压器2,定州市北城区唐城村民委员会（新民居）3,0617956471-定州市北城区唐城村民委员会(新民居)-专变-128651889-定州市北城区唐城村民委员会（新民居）2变压器1,定州市利康养殖厂变压器,清水河(016):农业4台区【纯农排变】,定州市华都汽车配件表面处理厂,河北保定运输集团有限责任公司第三公司变压器,定州市黎明散热器厂变压器,清水河(016):农业5台区【纯农排变】,定州市长奥汽车配件有限公司","powerOffReason":"【停电原因】由于主干１１８号杆至１１９号杆车碰线导致１１０ＫＶ清风店变电站１０ＫＶ５６８食品园ＩＩ线路全线停电 【变更送电】因抢修进度加快原因，送电时间由２０：００变更为１５：３０ 【发布渠道】９５５９８","powerOffId":"2020032813000061"},{"poweroffId":2020032813000044,"sgpoweroffId":null,"subsName":"","lineName":"江村线514","pubTranName":"东江村光18,东江村光17,东江村光12,东江村光21,西江村光9,东江村光9,西江村光3,西江村光15,西江村光18,东江村光20,东江村光8,西江村光21,东江村光19,西江村排10【纯农排变】,东江村光6,东江村光5,东江村光10,西江村光10,东江村光4,西江村光12,西江村光8,西江村光20,西江村光14,西江村光7,西江村光5,西江村光1,东江村光2,西江村光11,东江村光11,西江村光16,东江光15,东江村光1,西江村光19,西江村光6,东江村光7,西江村光13,东江村光13,西江村光2,东江村光16,西江村光4,东江村光14,西江村光17,","scope":"【影响街道/乡镇】柳卓乡 【高危重要客户】无 【影响客户】西江村、东江村、东江面粉厂、智同药厂、五合水泥制品厂、马庄、八街村部分用户、枣园、天赐康种植园、佰峰农业","startTime":"2020-03-28 11:59:30","stopDate":"2020-03-28 15:00:00","orgNo":"1340609","typeCode":"电网故障停限电","poweroffArea":"【全线路停电】停八街排4【纯农排变】,佰丰农业-250,东江村光21,西江村光3,东江村光6,东江村光4,西江村光19,西江村光21,东江村光19,西江村光11,东江村排7【纯农排变】,东江村排5【纯农排变】,西江村光15,0606362481-*河北智同生物制药有限公司-专变-127319217-智同药厂1号变,西江村排1【纯农排变】,东江村光20,东江村光8,西江村排10【纯农排变】,东江村光2,西江村光4,东江村光17,西江村光9,东江村光11,五合水泥制品,东江村光16,西江村光20,西江村光14,东江村大棚1【纯农排变】,西江村光16,东江村光5,西江村光1,东江村光9,西江村排8【纯农排变】,枣源,西江村光7,0691875244-定兴县柳卓乡西江教学点-专变-235630443-西江村教学点-200,东江村排6【纯农排变】,西江村光5,西江村排9【纯农排变】,东江村大棚2【纯农排变】,西江村光12,西江村光2,西江村排7【纯农排变】,东江光15,西江村混5,西江村排3【纯农排变】,东江村光18,西江村光10,天赐康种植园-200,东江村光12,东江村光1,西江村排6【纯农排变】,西江村排4【纯农排变】,西江村光6,东江村光7,西江村光17,东江村排3【纯农排变】,东江村光13,东江村排4【纯农排变】,东江村光10,马庄排3-2【纯农排变】,西江村光8,西江村排2【纯农排变】,东江村面粉厂,西江村光18,东江村光14,西江村光13,0606362481-*河北智同生物制药有限公司-专变-127322019-2号变","poweroffReason":"【停电原因】由于枣源分支高压计量铁丝搭担导致３５ＫＶ固城变电站江村线５１４线路全线停电 【变更送电】因抢修进度加快原因，送电时间由１６：００变更为１５：００ 【发布渠道】通过９５５９８发布","powerTime":"2020-03-28 14:15:45","powerComm":"已送电","subsNo":"","lineNo":"","tgNo":"","tgName":null,"infoStatus":"1","orgName":"国网定兴县供电公司","typeName":null,"infoStatusName":null,"dateDay":null,"orgNos":null,"nowTime":null,"countyName":null,"streetName":null,"villageName":null,"roadName":null,"communityName":null,"tranName":null,"sdLineName":null,"cityCode":"1340609","cityName":"国网定兴县供电公司","provinceCode":null,"stopTime":"2020-03-28 15:00:00","powerType":"全部","powerOffArea":"【全线路停电】停八街排4【纯农排变】,佰丰农业-250,东江村光21,西江村光3,东江村光6,东江村光4,西江村光19,西江村光21,东江村光19,西江村光11,东江村排7【纯农排变】,东江村排5【纯农排变】,西江村光15,0606362481-*河北智同生物制药有限公司-专变-127319217-智同药厂1号变,西江村排1【纯农排变】,东江村光20,东江村光8,西江村排10【纯农排变】,东江村光2,西江村光4,东江村光17,西江村光9,东江村光11,五合水泥制品,东江村光16,西江村光20,西江村光14,东江村大棚1【纯农排变】,西江村光16,东江村光5,西江村光1,东江村光9,西江村排8【纯农排变】,枣源,西江村光7,0691875244-定兴县柳卓乡西江教学点-专变-235630443-西江村教学点-200,东江村排6【纯农排变】,西江村光5,西江村排9【纯农排变】,东江村大棚2【纯农排变】,西江村光12,西江村光2,西江村排7【纯农排变】,东江光15,西江村混5,西江村排3【纯农排变】,东江村光18,西江村光10,天赐康种植园-200,东江村光12,东江村光1,西江村排6【纯农排变】,西江村排4【纯农排变】,西江村光6,东江村光7,西江村光17,东江村排3【纯农排变】,东江村光13,东江村排4【纯农排变】,东江村光10,马庄排3-2【纯农排变】,西江村光8,西江村排2【纯农排变】,东江村面粉厂,西江村光18,东江村光14,西江村光13,0606362481-*河北智同生物制药有限公司-专变-127322019-2号变","powerOffReason":"【停电原因】由于枣源分支高压计量铁丝搭担导致３５ＫＶ固城变电站江村线５１４线路全线停电 【变更送电】因抢修进度加快原因，送电时间由１６：００变更为１５：００ 【发布渠道】通过９５５９８发布","powerOffId":"2020032813000044"},{"poweroffId":2020032813000015,"sgpoweroffId":null,"subsName":"","lineName":"张华工业线515","pubTranName":"城北庄13号,城西17号,张华村10号,张华村9号,遂城26号,城北庄10号,","scope":"【影响街道/乡镇】遂城镇 【高危重要客户】无 【影响客户】张华村、城西、城北庄","startTime":"2020-03-29 09:00:00","stopDate":"2020-03-29 14:30:00","orgNo":"1340605","typeCode":"其他临时停电","poweroffArea":"【全线路停电】停张华村5号【纯农排变】,城西3号,张华村10号,城西1号,城西2号,张华村4号,城北庄7号【纯农排变】,城北庄4号【纯农排变】,城北庄12号【纯农排变】,0698534258-900000030452徐水县银盛快捷酒店001,城北庄8号【纯农排变】,徐水县乾硕纸业有限公司,保定市徐水区遂城镇城西小学,徐水县银盛包装材料制造有限公司,徐水县福兴水暖管件有限公司2号,城北庄6号【纯农排变】,城北庄5号,城西8号【纯农排变】,城北庄3号【纯农排变】,城西12号【纯农排变】,城西面粉厂,古遂造纸厂,城西6号【纯农排变】,今明后饮料公司,保定市徐水区天聚缘快捷宾馆,城西4号【纯农排变】,城西17号,张华村7号,徐水县新泽管件厂,0620290919-徐水县银盛快捷酒店-专变-129097890-徐水县银盛快捷酒店,城北庄11号,城北庄1号【纯农排变】,张华村1号,张华村2号【纯农排变】,八达工艺品厂,张华村8号,刘山纸膜包装厂,张华村9号,遂城26号,城北庄10号,保定鸿晟木业有限公司,城西13号【纯农排变】,城北6号,城西15号【纯农排变】,城西16号,张华酒厂2号,城北庄9号,城北庄2号,徐水县张华锻造有限公司,城西9号,城西7号,城北庄13号,康泰造纸厂1号,徐水县永兴法兰厂1号,城西11号,张华村3号【纯农排变】,张华酒厂1号,城西14号【纯农排变】,城西10号,城西5号【纯农排变】","poweroffReason":"【停电原因】由于处理紧急缺陷导致１１０ＫＶ遂城变电站张华工业线５１５线路全线停电 【变更送电】因抢修进度加快原因，送电时间由１６:００变更为１４:３０ 【发布渠道】通过９５５９８发布","powerTime":"2020-03-29 14:10:36","powerComm":"已送电","subsNo":"","lineNo":"","tgNo":"","tgName":null,"infoStatus":"1","orgName":"国网徐水县供电公司","typeName":null,"infoStatusName":null,"dateDay":null,"orgNos":null,"nowTime":null,"countyName":null,"streetName":null,"villageName":null,"roadName":null,"communityName":null,"tranName":null,"sdLineName":null,"cityCode":"1340605","cityName":"国网徐水县供电公司","provinceCode":null,"stopTime":"2020-03-29 14:30:00","powerType":"全部","powerOffArea":"【全线路停电】停张华村5号【纯农排变】,城西3号,张华村10号,城西1号,城西2号,张华村4号,城北庄7号【纯农排变】,城北庄4号【纯农排变】,城北庄12号【纯农排变】,0698534258-900000030452徐水县银盛快捷酒店001,城北庄8号【纯农排变】,徐水县乾硕纸业有限公司,保定市徐水区遂城镇城西小学,徐水县银盛包装材料制造有限公司,徐水县福兴水暖管件有限公司2号,城北庄6号【纯农排变】,城北庄5号,城西8号【纯农排变】,城北庄3号【纯农排变】,城西12号【纯农排变】,城西面粉厂,古遂造纸厂,城西6号【纯农排变】,今明后饮料公司,保定市徐水区天聚缘快捷宾馆,城西4号【纯农排变】,城西17号,张华村7号,徐水县新泽管件厂,0620290919-徐水县银盛快捷酒店-专变-129097890-徐水县银盛快捷酒店,城北庄11号,城北庄1号【纯农排变】,张华村1号,张华村2号【纯农排变】,八达工艺品厂,张华村8号,刘山纸膜包装厂,张华村9号,遂城26号,城北庄10号,保定鸿晟木业有限公司,城西13号【纯农排变】,城北6号,城西15号【纯农排变】,城西16号,张华酒厂2号,城北庄9号,城北庄2号,徐水县张华锻造有限公司,城西9号,城西7号,城北庄13号,康泰造纸厂1号,徐水县永兴法兰厂1号,城西11号,张华村3号【纯农排变】,张华酒厂1号,城西14号【纯农排变】,城西10号,城西5号【纯农排变】","powerOffReason":"【停电原因】由于处理紧急缺陷导致１１０ＫＶ遂城变电站张华工业线５１５线路全线停电 【变更送电】因抢修进度加快原因，送电时间由１６:００变更为１４:３０ 【发布渠道】通过９５５９８发布","powerOffId":"2020032813000015"},{"poweroffId":2020032813000004,"sgpoweroffId":null,"subsName":"","lineName":"10kV511洪善堡线","pubTranName":"齐村综合3台区,齐村综合7台区,齐村综合1台区,北佐综合5台区,后市综合12台区变压器,后市综合3台区,洪善堡综合4台区,后市综合1台区,前市综合1台区,后市综合10台区,后市农排1台区【纯农排变】,北刘佐综合1台区,齐村综合4台区,北佐综合6台区,洪善堡综合11台区,洪堡综合6台区,前市综合4台区,洪善堡综合3台区,后市综合5台区,北刘佐农排2台区【纯农排变】,后市综合9台区,北刘佐综合2台区,后市综合2台区,洪善堡农排12台区【纯农排变】,前市综合2台区,后市综合11台区变压器,后市农排3台区【纯农排变】,洪善堡综合1台区,洪善堡综合5台区,齐村综合5台区,洪善堡综合2台区,后市综合6台区,后市农排4台区【纯农排变】,中佐农排13台区【纯农排变】,齐村综合2台区,洪善堡农排7台区【纯农排变】,北刘佐综合5台区,前市综合3台区,洪善堡农排17台区【纯农排变】,洪善堡农排16台区【纯农排变】,后市农排9台区变压器【纯农排变】,洪善堡综合12台区,一队农排5台区【纯农排变】,北刘佐综合4台区,后市农排5台区【纯农排变】,后市综合4台区,后市综合8台区,后市综合7台区,洪善堡综合9台区,洪善堡综合7台区,洪善堡综合10台区,齐村综合6台区,洪堡农排1台区【纯农排变】,北刘佐综合3台区,","scope":"【影响街道/乡镇】南庄镇【高危重要客户】无【影响客户】洪善堡村、后刘市村、北刘佐村、齐村、前刘市村","startTime":"2020-03-28 07:33:53","stopDate":"2020-03-28 10:00:00","orgNo":"1340616","typeCode":"电网故障停限电","poweroffArea":"【全线路停电】停后市综合8台区,洪善堡综合7台区,后市综合11台区变压器,后市综合1台区,后市综合7台区,洪善堡综合3台区,洪善堡综合4台区,北刘佐综合3台区,后市综合3台区,洪善堡综合12台区,后市综合2台区,0469452349-洪堡孙彦卿农业台区-专变-46812916-花厂,洪善堡综合1台区,0469454329-后市宋树模农业台区-专变-46812911-后市宋树模,0469453384-冀宏橡胶制品厂-专变-46812912-洪堡胶厂,后市综合9台区,洪善堡人造皮毛厂,0469453010-中国联合网络通信有限公司蠡县分公司-专变-46812917-中国网通,北佐综合6台区,齐村综合3台区,洪善堡综合10台区,洪善堡农排16台区【纯农排变】,蠡县欧福特汽车用品厂,北刘佐农排2台区【纯农排变】,洪善堡农排4台区【纯农排变】,洪善堡综合11台区,洪善堡农排6台区【纯农排变】,前市综合4台区,后市农排9台区变压器【纯农排变】,后市农排5台区【纯农排变】,蠡县新民养猪场变压器,齐村综合7台区,前市农排1台区【纯农排变】,0469454316-后刘市面粉厂-专变-46812910-后市面粉厂,洪善堡综合5台区,一队农排5台区【纯农排变】,站变,北刘佐综合5台区,洪善堡农排12台区【纯农排变】,后市综合10台区,后市农排3台区【纯农排变】,齐村综合2台区,后市综合12台区变压器,后市综合4台区,齐村综合4台区,齐村农排1台区【纯农排变】,洪善堡综合2台区,洪善堡综合9台区,北刘佐综合2台区,后市综合6台区,中佐农排13台区【纯农排变】,后市农排1台区【纯农排变】,齐村综合6台区,齐村综合1台区,0593173310-蠡县后刘市兴光人造革废料加工厂-专变-125866393-蠡县后刘市兴光人造革废料加工厂,洪善堡农排17台区【纯农排变】,北刘佐综合1台区,洪善堡农排15台区【纯农排变】,洪堡综合6台区,后市综合5台区,北刘佐综合4台区,前市综合1台区,前市综合2台区,后市农排7台区【纯农排变】,洪善堡农排8台区【纯农排变】,齐村综合5台区,北佐综合5台区,洪善堡农排7台区【纯农排变】,0469454808-齐村段贯纯农业二台区-专变-46812914-齐村西北,前市综合3台区,后市农排4台区【纯农排变】,0469453788-齐村段贯纯农业一台区-专变-46812913-齐村东北,洪堡农排1台区【纯农排变】,0469454303-蠡县北刘佐面粉厂-专变-46812920-蠡县北刘佐面粉厂","poweroffReason":"【停电原因】由于线路接地导致３５ＫＶ洪善堡变电站１０ＫＶ洪善堡５１１线路全线停电【变更送电】因抢修进度加快原因，送电时间由１１：００变更为１０：００【发布渠道】通过９５５９８发布","powerTime":"2020-03-28 09:11:08","powerComm":"已送电","subsNo":"","lineNo":"","tgNo":"","tgName":null,"infoStatus":"1","orgName":"国网蠡县供电公司","typeName":null,"infoStatusName":null,"dateDay":null,"orgNos":null,"nowTime":null,"countyName":null,"streetName":null,"villageName":null,"roadName":null,"communityName":null,"tranName":null,"sdLineName":null,"cityCode":"1340616","cityName":"国网蠡县供电公司","provinceCode":null,"stopTime":"2020-03-28 10:00:00","powerType":"全部","powerOffArea":"【全线路停电】停后市综合8台区,洪善堡综合7台区,后市综合11台区变压器,后市综合1台区,后市综合7台区,洪善堡综合3台区,洪善堡综合4台区,北刘佐综合3台区,后市综合3台区,洪善堡综合12台区,后市综合2台区,0469452349-洪堡孙彦卿农业台区-专变-46812916-花厂,洪善堡综合1台区,0469454329-后市宋树模农业台区-专变-46812911-后市宋树模,0469453384-冀宏橡胶制品厂-专变-46812912-洪堡胶厂,后市综合9台区,洪善堡人造皮毛厂,0469453010-中国联合网络通信有限公司蠡县分公司-专变-46812917-中国网通,北佐综合6台区,齐村综合3台区,洪善堡综合10台区,洪善堡农排16台区【纯农排变】,蠡县欧福特汽车用品厂,北刘佐农排2台区【纯农排变】,洪善堡农排4台区【纯农排变】,洪善堡综合11台区,洪善堡农排6台区【纯农排变】,前市综合4台区,后市农排9台区变压器【纯农排变】,后市农排5台区【纯农排变】,蠡县新民养猪场变压器,齐村综合7台区,前市农排1台区【纯农排变】,0469454316-后刘市面粉厂-专变-46812910-后市面粉厂,洪善堡综合5台区,一队农排5台区【纯农排变】,站变,北刘佐综合5台区,洪善堡农排12台区【纯农排变】,后市综合10台区,后市农排3台区【纯农排变】,齐村综合2台区,后市综合12台区变压器,后市综合4台区,齐村综合4台区,齐村农排1台区【纯农排变】,洪善堡综合2台区,洪善堡综合9台区,北刘佐综合2台区,后市综合6台区,中佐农排13台区【纯农排变】,后市农排1台区【纯农排变】,齐村综合6台区,齐村综合1台区,0593173310-蠡县后刘市兴光人造革废料加工厂-专变-125866393-蠡县后刘市兴光人造革废料加工厂,洪善堡农排17台区【纯农排变】,北刘佐综合1台区,洪善堡农排15台区【纯农排变】,洪堡综合6台区,后市综合5台区,北刘佐综合4台区,前市综合1台区,前市综合2台区,后市农排7台区【纯农排变】,洪善堡农排8台区【纯农排变】,齐村综合5台区,北佐综合5台区,洪善堡农排7台区【纯农排变】,0469454808-齐村段贯纯农业二台区-专变-46812914-齐村西北,前市综合3台区,后市农排4台区【纯农排变】,0469453788-齐村段贯纯农业一台区-专变-46812913-齐村东北,洪堡农排1台区【纯农排变】,0469454303-蠡县北刘佐面粉厂-专变-46812920-蠡县北刘佐面粉厂","powerOffReason":"【停电原因】由于线路接地导致３５ＫＶ洪善堡变电站１０ＫＶ洪善堡５１１线路全线停电【变更送电】因抢修进度加快原因，送电时间由１１：００变更为１０：００【发布渠道】通过９５５９８发布","powerOffId":"2020032813000004"},{"poweroffId":2020032713000463,"sgpoweroffId":null,"subsName":"","lineName":"延福线517","pubTranName":"南赵堡村南农业1号【纯农排变】,延付村北街12综合,贺建农,04072|周辛庄村北综合,延福屯村东南综合2,04071|延福村北综合,延付屯,延福屯村东北新增综合,延福屯村东南综合,04075|周辛庄村东综合,04073|周辛庄村西南综合,朱叶华,延付屯(原面厂),西演镇二中,04082|延福村南综合,04060|延福屯村南综合,0645651865-高阳县天威生态种植-专变-169495841-高阳县天威生态种植变压器,南赵布双峰毛巾厂,延福屯村东南新增综合,高阳县勤兴工贸有限公司变压器,04087|周辛庄村南农业【纯农排变】,南圈头3#路南农排【纯农排变】,延福农业开发【纯农排变】,04057|延付屯村东综合,高阳县振华毛纺织有限公司设备,04059|延付屯村里综合,中国石油天然气股份有限公司华北油田分公司变压器,周杰,周家辛庄村东新增,04074|周辛庄村南综合,延付屯永生毛巾厂,尹双停,延福村东综合2,延福东农业【纯农排变】,04056|延付屯村西综合,延福村东北农业【纯农排变】,04070|延付村西综合,魏佐村西南农业,南圈头2#路南农排【纯农排变】,04069|延付村里综合,南赵堡村南农业2号【纯农排变】,04068|延付村东综合,延福屯新增农业,南赵堡村南农业3号【纯农排变】,延福村西北综合,双延学校,延福屯村西南综合,魏家佐王老民,延福桥西综合,高阳县天威生态种植变压器,延福农业开发2【纯农排变】,延福西农业【纯农排变】,04058|延付屯村东北综合,南赵布机械厂,延福屯村北综合,于新发,李武超,雨洁纺织有限公司,","scope":"【影响街道/乡镇】西演镇 【高危重要客户】无 【影响客户】周辛庄、延福、延福屯村","startTime":"2020-03-27 21:00:01","stopDate":"2020-03-27 23:00:00","orgNo":"1340613","typeCode":"电网故障停限电","poweroffArea":"【全线路停电】停南赵堡村南农业2号【纯农排变】,延福屯村东南综合,04059|延付屯村里综合,04058|延付屯村东北综合,04068|延付村东综合,04075|周辛庄村东综合,中国石油天然气股份有限公司华北油田分公司变压器,延福屯村北综合,延福农业开发2【纯农排变】,南圈头3#路南农排【纯农排变】,高阳县振华毛纺织有限公司设备,于新发,南赵布机械厂,延福农业开发【纯农排变】,04074|周辛庄村南综合,李武超,延付屯永生毛巾厂,04073|周辛庄村西南综合,延福村东综合2,雨洁纺织有限公司,尹双停,朱叶华,04056|延付屯村西综合,周家辛庄村东新增,魏佐村西南农业,延付屯(原面厂),04070|延付村西综合,西演镇二中,南圈头2#路南农排【纯农排变】,延福东农业【纯农排变】,南赵堡村南农业3号【纯农排变】,04082|延福村南综合,04069|延付村里综合,南赵堡村南农业1号【纯农排变】,延福屯村东北新增综合,延付村北街12综合,延福西农业【纯农排变】,延福桥西综合,04087|周辛庄村南农业【纯农排变】,贺建农,04060|延福屯村南综合,04057|延付屯村东综合,延福村东北农业【纯农排变】,04072|周辛庄村北综合,0645651865-高阳县天威生态种植-专变-169495841-高阳县天威生态种植变压器,双延学校,周杰,延福屯村东南综合2 ,延福屯村西南综合,南赵布双峰毛巾厂,04071|延福村北综合,延福屯新增农业,魏家佐王老民,延福屯村东南新增综合,延付屯,延福村西北综合,高阳县天威生态种植变压器,高阳县勤兴工贸有限公司变压器","poweroffReason":"【停电原因】由于汽车撞杆导致３５ＫＶ魏家佐变电站延福５１７线路全线停电【变更送电】无【发布渠道】通过９５５９８发布","powerTime":"2020-03-27 22:25:00","powerComm":"已送电","subsNo":"","lineNo":"","tgNo":"","tgName":null,"infoStatus":"1","orgName":"国网高阳县供电公司","typeName":null,"infoStatusName":null,"dateDay":null,"orgNos":null,"nowTime":null,"countyName":null,"streetName":null,"villageName":null,"roadName":null,"communityName":null,"tranName":null,"sdLineName":null,"cityCode":"1340613","cityName":"国网高阳县供电公司","provinceCode":null,"stopTime":"2020-03-27 23:00:00","powerType":"全部","powerOffArea":"【全线路停电】停南赵堡村南农业2号【纯农排变】,延福屯村东南综合,04059|延付屯村里综合,04058|延付屯村东北综合,04068|延付村东综合,04075|周辛庄村东综合,中国石油天然气股份有限公司华北油田分公司变压器,延福屯村北综合,延福农业开发2【纯农排变】,南圈头3#路南农排【纯农排变】,高阳县振华毛纺织有限公司设备,于新发,南赵布机械厂,延福农业开发【纯农排变】,04074|周辛庄村南综合,李武超,延付屯永生毛巾厂,04073|周辛庄村西南综合,延福村东综合2,雨洁纺织有限公司,尹双停,朱叶华,04056|延付屯村西综合,周家辛庄村东新增,魏佐村西南农业,延付屯(原面厂),04070|延付村西综合,西演镇二中,南圈头2#路南农排【纯农排变】,延福东农业【纯农排变】,南赵堡村南农业3号【纯农排变】,04082|延福村南综合,04069|延付村里综合,南赵堡村南农业1号【纯农排变】,延福屯村东北新增综合,延付村北街12综合,延福西农业【纯农排变】,延福桥西综合,04087|周辛庄村南农业【纯农排变】,贺建农,04060|延福屯村南综合,04057|延付屯村东综合,延福村东北农业【纯农排变】,04072|周辛庄村北综合,0645651865-高阳县天威生态种植-专变-169495841-高阳县天威生态种植变压器,双延学校,周杰,延福屯村东南综合2 ,延福屯村西南综合,南赵布双峰毛巾厂,04071|延福村北综合,延福屯新增农业,魏家佐王老民,延福屯村东南新增综合,延付屯,延福村西北综合,高阳县天威生态种植变压器,高阳县勤兴工贸有限公司变压器","powerOffReason":"【停电原因】由于汽车撞杆导致３５ＫＶ魏家佐变电站延福５１７线路全线停电【变更送电】无【发布渠道】通过９５５９８发布","powerOffId":"2020032713000463"},{"poweroffId":2020032713000452,"sgpoweroffId":null,"subsName":"","lineName":"10kV534东堤阳线","pubTranName":"南齐公用农业8台区【纯农排变】,南齐公用农业7台区【纯农排变】,南齐公用农业3台区【纯农排变】,南齐公用农业1台区【纯农排变】,南齐公用农业4台区【纯农排变】,南齐公用农业14台区【纯农排变】,南齐公用照明6台区,南齐公用照明5台区,南齐村公用照明一台区,南齐村公用照明二台区,南齐公用照明4台区,南齐村公用照明三台区,南齐公用农业11台区【纯农排变】,南齐公用农业9台区【纯农排变】,南齐公用农业6台区【纯农排变】,南齐公用农业5台区【纯农排变】,南齐公用农业10台区【纯农排变】,南齐公用农业2台区【纯农排变】,","scope":"【影响街道/乡镇】东亭镇【高危重要客户】无【影响客户】南齐","startTime":"2020-03-27 00:00:00","stopDate":"2020-03-27 01:30:00","orgNo":"1340610","typeCode":"电网故障停限电","poweroffArea":"【单台区停电】停南齐公用农业1台区【纯农排变】","poweroffReason":"【停电原因】由于南齐公用农业１台区跌落保险烧毁导致１１０ＫＶ东亭变电站１０ＫＶ５３４东堤阳线路南齐公用农业１台区停电 【变更送电】无 【发布渠道】９５５９８","powerTime":"2020-03-27 00:45:00","powerComm":"已送电","subsNo":"","lineNo":"","tgNo":"","tgName":null,"infoStatus":"1","orgName":"国网定州市供电公司","typeName":null,"infoStatusName":null,"dateDay":null,"orgNos":null,"nowTime":null,"countyName":null,"streetName":null,"villageName":null,"roadName":null,"communityName":null,"tranName":null,"sdLineName":null,"cityCode":"1340610","cityName":"国网定州市供电公司","provinceCode":null,"stopTime":"2020-03-27 01:30:00","powerType":"全部","powerOffArea":"【单台区停电】停南齐公用农业1台区【纯农排变】","powerOffReason":"【停电原因】由于南齐公用农业１台区跌落保险烧毁导致１１０ＫＶ东亭变电站１０ＫＶ５３４东堤阳线路南齐公用农业１台区停电 【变更送电】无 【发布渠道】９５５９８","powerOffId":"2020032713000452"},{"poweroffId":2020032713000443,"sgpoweroffId":null,"subsName":"","lineName":"西沟河553线","pubTranName":"东沟河光4,新东沟河光5【灾后重建】,东沟河光7,东沟河光1,新西沟河光2,新西沟河光1,新西沟河光3,新西沟河光4,西沟河排3,东沟河光3【2018年节能变】,新小王庄光2【2018年重过载】,新小王庄光1【2018年重过载】,小王庄光3,韦家庄光2,韦家庄光3,新韦家庄光1,高庄光1,东沟河光2【2018年节能变】,","scope":"【影响街道/乡镇】小朱庄乡 【高危重要客户】无 【影响客户】西沟河、东沟河、韦家庄、高庄、小王庄","startTime":"2020-04-12 08:00:00","stopDate":"2020-04-12 17:00:00","orgNo":"1340609","typeCode":"计划停电","poweroffArea":"【分支停电】停东沟河光2【2018年节能变】,东沟河光3【2018年节能变】,东沟河光4,新东沟河光5【灾后重建】,东沟河光7,东沟河光1,新西沟河光2,新西沟河光1,新西沟河光3,新西沟河光4,西沟河排3,新小王庄光2【2018年重过载】,新小王庄光1【2018年重过载】,小王庄光3,韦家庄光2,韦家庄光3,新韦家庄光1,高庄光1","poweroffReason":"【停电原因】由于主干６３号杆至８７号杆清扫检修导致１１０ＫＶ小朱庄变电站西沟河５５３线路主干５８号杆以下线路停电 【变更送电】无 【发布渠道】保定市定兴县电视台（０４月０１日０９时１０分至２３时５０分之间）屏幕上方滚动播放","powerTime":"2020-04-12 16:45:32","powerComm":"已送电","subsNo":"","lineNo":"","tgNo":"","tgName":null,"infoStatus":"1","orgName":"国网定兴县供电公司","typeName":null,"infoStatusName":null,"dateDay":null,"orgNos":null,"nowTime":null,"countyName":null,"streetName":null,"villageName":null,"roadName":null,"communityName":null,"tranName":null,"sdLineName":null,"cityCode":"1340609","cityName":"国网定兴县供电公司","provinceCode":null,"stopTime":"2020-04-12 17:00:00","powerType":"全部","powerOffArea":"【分支停电】停东沟河光2【2018年节能变】,东沟河光3【2018年节能变】,东沟河光4,新东沟河光5【灾后重建】,东沟河光7,东沟河光1,新西沟河光2,新西沟河光1,新西沟河光3,新西沟河光4,西沟河排3,新小王庄光2【2018年重过载】,新小王庄光1【2018年重过载】,小王庄光3,韦家庄光2,韦家庄光3,新韦家庄光1,高庄光1","powerOffReason":"【停电原因】由于主干６３号杆至８７号杆清扫检修导致１１０ＫＶ小朱庄变电站西沟河５５３线路主干５８号杆以下线路停电 【变更送电】无 【发布渠道】保定市定兴县电视台（０４月０１日０９时１０分至２３时５０分之间）屏幕上方滚动播放","powerOffId":"2020032713000443"},{"poweroffId":2020032713000435,"sgpoweroffId":null,"subsName":"","lineName":"姚村线515","pubTranName":"龙华大棚2,贤寓光10,龙华光6,龙华光1,龙华光9,龙华光8,龙华光7,龙华光4,龙华大棚8,龙华大棚3,龙华大棚5,龙华光3,龙华大棚1,龙华光2,龙华大棚4,龙华光5,","scope":"【影响街道/乡镇】贤寓镇 【高危重要客户】无 【影响客户】贤寓、龙华村、郭艳宝压块厂","startTime":"2020-04-12 07:00:00","stopDate":"2020-04-12 17:00:00","orgNo":"1340609","typeCode":"计划停电","poweroffArea":"【全线路停电】停龙华光5,龙华大棚2,贤寓光10,龙华光6,龙华光1,龙华光9,龙华光8,龙华光7,龙华光4,龙华大棚8,龙华大棚3,龙华大棚5,龙华光3,龙华大棚1,龙华光2,龙华大棚4","poweroffReason":"【停电原因】由于主干０７４号杆至龙华大棚分支０１０号杆拆除导线导致３５ＫＶ贤寓变电站姚村线５１５线路全线停电 【变更送电】无 【发布渠道】保定市定兴县电视台（０４月０１日０９时１０分至２３时５０分之间）屏幕上方滚动播放","powerTime":"2020-04-12 16:09:09","powerComm":"已送电","subsNo":"","lineNo":"","tgNo":"","tgName":null,"infoStatus":"1","orgName":"国网定兴县供电公司","typeName":null,"infoStatusName":null,"dateDay":null,"orgNos":null,"nowTime":null,"countyName":null,"streetName":null,"villageName":null,"roadName":null,"communityName":null,"tranName":null,"sdLineName":null,"cityCode":"1340609","cityName":"国网定兴县供电公司","provinceCode":null,"stopTime":"2020-04-12 17:00:00","powerType":"全部","powerOffArea":"【全线路停电】停龙华光5,龙华大棚2,贤寓光10,龙华光6,龙华光1,龙华光9,龙华光8,龙华光7,龙华光4,龙华大棚8,龙华大棚3,龙华大棚5,龙华光3,龙华大棚1,龙华光2,龙华大棚4","powerOffReason":"【停电原因】由于主干０７４号杆至龙华大棚分支０１０号杆拆除导线导致３５ＫＶ贤寓变电站姚村线５１５线路全线停电 【变更送电】无 【发布渠道】保定市定兴县电视台（０４月０１日０９时１０分至２３时５０分之间）屏幕上方滚动播放","powerOffId":"2020032713000435"}],"pageModel":{"pageNow":218,"totalCount":10973,"totalPage":1098,"tableRows":0,"pageCount":10,"beginCount":2170},"isExperi":"1"}