{"message":"","today":"2020-06-15","seleList":[{"poweroffId":2020032713000376,"sgpoweroffId":null,"subsName":"","lineName":"北店线514","pubTranName":"非遗小镇公用2,小店光7,小店光4,辛庄村光3,辛庄村光4,嘉会庄光3,博物馆-630（1）,紫玉府西区-315,小店光1,河北康城房地产二号地块-1000,小店光5,南关路灯1-160,小店光2,南关路灯2-100,0733904747-贯鸿房地产状元府-315-01,二中-400,贯鸿房地产-630二期,非遗小镇公用1,紫玉府西区-315临变,小店泵站,城市管理执法局路-100,博物馆-630,0733904747-贯鸿房地产状元府-315-03,0733904747-贯鸿房地产状元府-315-02,贯鸿房地产-630二期（1）,辛庄村光1,定兴镇污水处理厂315,杜庄光2,四中—500,定兴县城市管理行政执法局-50,二中-315,河北康城房地产2号地块-1000,嘉会庄光,","scope":"【影响街道/乡镇】定兴镇 【高危重要客户】无 【影响客户】公租房小区、第二实验幼儿园、执法局、吉忠热力公司、博物馆、非遗小镇、二中、定兴四中、交通局公路管理处、小店泵站、杜庄村、小店村、辛庄村、加会庄、污水处理厂、华兴橡塑、文化广电新闻出版局","startTime":"2020-04-10 01:00:00","stopDate":"2020-04-10 06:00:00","orgNo":"1340609","typeCode":"计划停电","poweroffArea":"【全线路停电】停嘉会庄光,非遗小镇公用2,小店光7,小店光4,辛庄村光3,辛庄村光4,嘉会庄光3,博物馆-630（1）,紫玉府西区-315,小店光1,河北康城房地产二号地块-1000,小店光5,南关路灯1-160,小店光2,南关路灯2-100,0733904747-贯鸿房地产状元府-315-01,二中-400,贯鸿房地产-630二期,非遗小镇公用1,紫玉府西区-315临变,小店泵站,城市管理执法局路-100,博物馆-630,0733904747-贯鸿房地产状元府-315-03,0733904747-贯鸿房地产状元府-315-02,贯鸿房地产-630二期（1）,辛庄村光1,定兴镇污水处理厂315,杜庄光2,四中—500,定兴县城市管理行政执法局-50,二中-315,河北康城房地产2号地块-1000","poweroffReason":"【停电原因】由于０９号电缆分支箱Ｔ接电缆导致３５ＫＶ城关变电站北店线５１４线路全线停电 【变更送电】无 【发布渠道】保定市定兴县电视台（０４月０２日０９时１０分至２３时５０分之间）屏幕上方滚动播放","powerTime":"2020-04-10 05:56:30","powerComm":"已送电","subsNo":"","lineNo":"","tgNo":"","tgName":null,"infoStatus":"1","orgName":"国网定兴县供电公司","typeName":null,"infoStatusName":null,"dateDay":null,"orgNos":null,"nowTime":null,"countyName":null,"streetName":null,"villageName":null,"roadName":null,"communityName":null,"tranName":null,"sdLineName":null,"cityCode":"1340609","cityName":"国网定兴县供电公司","provinceCode":null,"stopTime":"2020-04-10 06:00:00","powerType":"全部","powerOffArea":"【全线路停电】停嘉会庄光,非遗小镇公用2,小店光7,小店光4,辛庄村光3,辛庄村光4,嘉会庄光3,博物馆-630（1）,紫玉府西区-315,小店光1,河北康城房地产二号地块-1000,小店光5,南关路灯1-160,小店光2,南关路灯2-100,0733904747-贯鸿房地产状元府-315-01,二中-400,贯鸿房地产-630二期,非遗小镇公用1,紫玉府西区-315临变,小店泵站,城市管理执法局路-100,博物馆-630,0733904747-贯鸿房地产状元府-315-03,0733904747-贯鸿房地产状元府-315-02,贯鸿房地产-630二期（1）,辛庄村光1,定兴镇污水处理厂315,杜庄光2,四中—500,定兴县城市管理行政执法局-50,二中-315,河北康城房地产2号地块-1000","powerOffReason":"【停电原因】由于０９号电缆分支箱Ｔ接电缆导致３５ＫＶ城关变电站北店线５１４线路全线停电 【变更送电】无 【发布渠道】保定市定兴县电视台（０４月０２日０９时１０分至２３时５０分之间）屏幕上方滚动播放","powerOffId":"2020032713000376"},{"poweroffId":2020032713000360,"sgpoweroffId":null,"subsName":"","lineName":"肖村线511","pubTranName":"西肖村光13【灾后重建】,东肖村光5,西肖村光8,东肖村光2【2018年四批补强】,十五汲光7,新十五汲光4,西肖村光14【2018年重过载】,肖村光3,东肖村光1,新西肖村光3,西肖村光2,肖村光2,西肖村光10,肖村光4变压器,新北七光4,十五汲光2,西肖村光6变压器,十五汲光1,西肖村光4,新十五汲光3,东肖村光2,西肖村光7,新十五汲光5,东肖村光6,西肖村光1,十五汲光11【2019年预安排】,西肖村光11,北七光1【2018年重过载】,十五汲光8,十五汲光6,肖村光1,西肖村光12【灾后重建】,西肖村光5【2018年节能变】,北七养殖小区,西肖村光9,东肖村光3,","scope":"【影响街道/乡镇】北河镇 【高危重要客户】无 【影响客户】北七、东肖村、肖村、西肖村、十五汲、耿庄部分用户、史庄部分用户、六里铺部分用户","startTime":"2020-04-07 01:30:00","stopDate":"2020-04-07 05:00:00","orgNo":"1340609","typeCode":"计划停电","poweroffArea":"【全线路停电】停西肖村光13【灾后重建】,东肖村光5,西肖村光8,东肖村光2【2018年四批补强】,十五汲光7,新十五汲光4,西肖村光14【2018年重过载】,肖村光3,东肖村光1,新西肖村光3,西肖村光2,肖村光2,西肖村光10,肖村光4变压器,新北七光4,十五汲光2,西肖村光6变压器,十五汲光1,西肖村光4,新十五汲光3,东肖村光2,西肖村光7,新十五汲光5,东肖村光6,西肖村光1,十五汲光11【2019年预安排】,西肖村光11,北七光1【2018年重过载】,十五汲光8,十五汲光6,肖村光1,西肖村光12【灾后重建】,西肖村光5【2018年节能变】,北七养殖小区,西肖村光9,东肖村光3","poweroffReason":"【停电原因】由于主干４５号杆至４６号杆之间线下重杆导致１１０ＫＶ北河变电站肖村线５１１线路全线停电 【变更送电】无 【发布渠道】保定市定兴县电视台（３月３０日０９时１０分至２３时５０分之间）屏幕上方滚动播放","powerTime":"2020-04-07 04:48:23","powerComm":"已送电","subsNo":"","lineNo":"","tgNo":"","tgName":null,"infoStatus":"1","orgName":"国网定兴县供电公司","typeName":null,"infoStatusName":null,"dateDay":null,"orgNos":null,"nowTime":null,"countyName":null,"streetName":null,"villageName":null,"roadName":null,"communityName":null,"tranName":null,"sdLineName":null,"cityCode":"1340609","cityName":"国网定兴县供电公司","provinceCode":null,"stopTime":"2020-04-07 05:00:00","powerType":"全部","powerOffArea":"【全线路停电】停西肖村光13【灾后重建】,东肖村光5,西肖村光8,东肖村光2【2018年四批补强】,十五汲光7,新十五汲光4,西肖村光14【2018年重过载】,肖村光3,东肖村光1,新西肖村光3,西肖村光2,肖村光2,西肖村光10,肖村光4变压器,新北七光4,十五汲光2,西肖村光6变压器,十五汲光1,西肖村光4,新十五汲光3,东肖村光2,西肖村光7,新十五汲光5,东肖村光6,西肖村光1,十五汲光11【2019年预安排】,西肖村光11,北七光1【2018年重过载】,十五汲光8,十五汲光6,肖村光1,西肖村光12【灾后重建】,西肖村光5【2018年节能变】,北七养殖小区,西肖村光9,东肖村光3","powerOffReason":"【停电原因】由于主干４５号杆至４６号杆之间线下重杆导致１１０ＫＶ北河变电站肖村线５１１线路全线停电 【变更送电】无 【发布渠道】保定市定兴县电视台（３月３０日０９时１０分至２３时５０分之间）屏幕上方滚动播放","powerOffId":"2020032713000360"},{"poweroffId":2020032713000355,"sgpoweroffId":null,"subsName":"","lineName":"高里线515","pubTranName":"平堽肉鸡养殖小区公用,金台陈村光2,金台陈村光7,西高里光4,金台陈村光8,金台陈村光9,金台陈村光1,平堽北街光4,平堽东街光1,平堽西大街光2,平堽西大街光1,平堽西大街光3,平堽南街光2,平堽西街光,金台陈村光3,高里店光5,西高里光2,平堽东街光4,平堽西大街光1【2018年技改】,西高里光3【2018年技改】,平堽东街光2,吴村光10,平堽东街光3,平堽西街光2,西高里光1,平堽北街光3,平堽西大街光6,平堽西大街光5,金台陈村光5,平堽北街光2,金台陈村光6,西高里光3,平堽南街光,北庄光2,平堽北街光5,","scope":"【影响街道/乡镇】高里乡 【高危重要客户】无 【影响客户】陈村部分用户、西高里村、高里店村、平堽、北庄村、高里中学、北庄养殖小区、景安部分用户、惠德印刷厂、肉鸡养殖、玖兴种禽养殖、全兴面粉厂、众涵特种水产养殖、秸秆压块厂、诚远制造有限公司、国洋板材厂、诚远模具制造有限公司、高里乡平堽幼儿园、定兴县小仓鼠仓储服务有限公司、西高里小学","startTime":"2020-04-12 07:30:00","stopDate":"2020-04-12 18:00:00","orgNo":"1340609","typeCode":"计划停电","poweroffArea":"【全线路停电】停金台陈村光1,平堽肉鸡养殖小区公用,金台陈村光2,金台陈村光7,西高里光4,金台陈村光8,金台陈村光9,平堽北街光4,平堽东街光1,平堽西大街光2,平堽西大街光1,平堽西大街光3,平堽南街光2,平堽西街光,金台陈村光3,高里店光5,西高里光2,平堽东街光4,平堽西大街光1【2018年技改】,西高里光3【2018年技改】,平堽东街光2,吴村光10,平堽东街光3,平堽西街光2,西高里光1,平堽北街光3,平堽西大街光6,平堽西大街光5,金台陈村光5,平堽北街光2,金台陈村光6,西高里光3,平堽南街光,北庄光2,平堽北街光5","poweroffReason":"【停电原因】由于线路清扫检修导致３５ＫＶ景安变电站高里线５１５线路全线停电 【变更送电】无 【发布渠道】保定市定兴县电视台（４月０４日０９时１０分至２３时５０分之间）屏幕上方滚动播放","powerTime":"2020-04-12 17:17:16","powerComm":"已送电","subsNo":"","lineNo":"","tgNo":"","tgName":null,"infoStatus":"1","orgName":"国网定兴县供电公司","typeName":null,"infoStatusName":null,"dateDay":null,"orgNos":null,"nowTime":null,"countyName":null,"streetName":null,"villageName":null,"roadName":null,"communityName":null,"tranName":null,"sdLineName":null,"cityCode":"1340609","cityName":"国网定兴县供电公司","provinceCode":null,"stopTime":"2020-04-12 18:00:00","powerType":"全部","powerOffArea":"【全线路停电】停金台陈村光1,平堽肉鸡养殖小区公用,金台陈村光2,金台陈村光7,西高里光4,金台陈村光8,金台陈村光9,平堽北街光4,平堽东街光1,平堽西大街光2,平堽西大街光1,平堽西大街光3,平堽南街光2,平堽西街光,金台陈村光3,高里店光5,西高里光2,平堽东街光4,平堽西大街光1【2018年技改】,西高里光3【2018年技改】,平堽东街光2,吴村光10,平堽东街光3,平堽西街光2,西高里光1,平堽北街光3,平堽西大街光6,平堽西大街光5,金台陈村光5,平堽北街光2,金台陈村光6,西高里光3,平堽南街光,北庄光2,平堽北街光5","powerOffReason":"【停电原因】由于线路清扫检修导致３５ＫＶ景安变电站高里线５１５线路全线停电 【变更送电】无 【发布渠道】保定市定兴县电视台（４月０４日０９时１０分至２３时５０分之间）屏幕上方滚动播放","powerOffId":"2020032713000355"},{"poweroffId":2020032713000350,"sgpoweroffId":null,"subsName":"","lineName":"白沙线514","pubTranName":"白沙村校南混3109变压器,西白尧0312变压器,白沙村南新增2变压器7901,西白尧3110变压器,田家庄3112变压器,西白尧小学变压器7921,田家庄新增混用,白沙村东6545变压器,田辛庄自来水变压器7938,安里686变压器,白沙新增7902,白沙卫生院变压器7920,白沙8278台区,田家庄0683变压器,白沙村0679变压器,田家庄北新增3426变压器,白沙村西水新增7912,白沙中学变压器7929,白沙村0680变压器,白沙村0702变压器,客户投资_田辛庄村南土地整治变压器7937,田家庄小学变压器7930,白沙小学变压器7927,田家庄2506变压器,西白尧南混8022台区,白沙村内6546变压器,白沙村0700变压器,西白尧西混8023台区,田家庄0641变压器,白沙西混4742变压器,","scope":"【影响街道/乡镇】长古城乡【高危重要客户】无【影响客户】岗北村、小白尧村、新安里村、田辛庄村、西白尧村、白沙村、田家庄、东屯村","startTime":"2020-03-29 07:00:00","stopDate":"2020-03-29 19:00:00","orgNo":"1340622","typeCode":"临时停电","poweroffArea":"【全线路停电】停田家庄0683变压器,田家庄0641变压器,白沙新增7902,白沙8278台区,白沙村0679变压器,田家庄小学变压器7930,白沙西混4742变压器,西白尧0312变压器,白沙村南新增2变压器7901,田家庄3112变压器,白沙村校南混3109变压器,西白尧3110变压器,田家庄新增混用,田辛庄自来水变压器7938,田家庄北新增3426变压器,白沙村西水新增7912,白沙村0680变压器,白沙村0702变压器,客户投资_田辛庄村南土地整治变压器7937,田家庄2506变压器,西白尧南混8022台区,白沙村内6546变压器,白沙村0700变压器,西白尧小学变压器7921,白沙村东6545变压器,安里686变压器,白沙卫生院变压器7920,白沙中学变压器7929,白沙小学变压器7927,西白尧西混8023台区","poweroffReason":"【停电原因】由于更换导线导致３５ＫＶ北罗变电站白沙线５１４线路全线停电【变更送电】因工作进度加快原因，送电时间由２０：００变更为１９：００【发布渠道】通过９５５９８发布","powerTime":"2020-03-29 18:25:06","powerComm":"已送电","subsNo":"","lineNo":"","tgNo":"","tgName":null,"infoStatus":"1","orgName":"国网唐县供电公司","typeName":null,"infoStatusName":null,"dateDay":null,"orgNos":null,"nowTime":null,"countyName":null,"streetName":null,"villageName":null,"roadName":null,"communityName":null,"tranName":null,"sdLineName":null,"cityCode":"1340622","cityName":"国网唐县供电公司","provinceCode":null,"stopTime":"2020-03-29 19:00:00","powerType":"全部","powerOffArea":"【全线路停电】停田家庄0683变压器,田家庄0641变压器,白沙新增7902,白沙8278台区,白沙村0679变压器,田家庄小学变压器7930,白沙西混4742变压器,西白尧0312变压器,白沙村南新增2变压器7901,田家庄3112变压器,白沙村校南混3109变压器,西白尧3110变压器,田家庄新增混用,田辛庄自来水变压器7938,田家庄北新增3426变压器,白沙村西水新增7912,白沙村0680变压器,白沙村0702变压器,客户投资_田辛庄村南土地整治变压器7937,田家庄2506变压器,西白尧南混8022台区,白沙村内6546变压器,白沙村0700变压器,西白尧小学变压器7921,白沙村东6545变压器,安里686变压器,白沙卫生院变压器7920,白沙中学变压器7929,白沙小学变压器7927,西白尧西混8023台区","powerOffReason":"【停电原因】由于更换导线导致３５ＫＶ北罗变电站白沙线５１４线路全线停电【变更送电】因工作进度加快原因，送电时间由２０：００变更为１９：００【发布渠道】通过９５５９８发布","powerOffId":"2020032713000350"},{"poweroffId":2020032713000326,"sgpoweroffId":null,"subsName":"","lineName":"辛立庄553","pubTranName":"辛三南变压器,杜村南变压器,杨辛庄北变压器,韩村营南变压器,杜村西3变压器,杨辛庄3号农变压器【纯农排变】,杜村东1变压器,","scope":"【影响街道/乡镇】辛立庄镇 【高危重要客户】无 【影响客户】高碑店市辛立庄韩村营井龙塑料件加工厂、高碑店市辛立庄鑫宏宇木门加工厂、时成海、刘笑天、杨辛庄成江塑件厂、高碑店市强昊技术信息服务农民专业合作社、高碑店市辛立庄镇杨辛庄村村民委员会、高碑店市辛立庄峰源养猪场、高碑店市辛立庄幼儿园、高碑店市洁洁环卫服务有限公司、杨辛庄、杜村、辛二、辛三、辛一、韩村营","startTime":"2020-03-27 15:53:39","stopDate":"2020-03-27 18:00:00","orgNo":"1340612","typeCode":"电网故障停限电","poweroffArea":"【全线路停电】停杜村西3变压器,杨辛庄3号农变压器【纯农排变】,杜村东1变压器,辛三南变压器,杜村南变压器,燎原公司东,杜村东变压器,韩村营内变压器,韩村营南农变压器【纯农排变】,韩村营东变压器,高碑店市辛立庄幼儿园变压器,辛二东变压器,辛二农变压器【纯农排变】,杨辛庄南1变压器,时成海,辛三2号农变压器【纯农排变】,辛二2号农排变压器【纯农排变】,辛三东变压器,辛二西变压器,杨辛庄东变压器,杜村西1变压器,杨辛庄2号农变压器【纯农排变】,杜村南农变压器【纯农排变】,韩村营南变压器,杜村西变压器,高碑店市辛立庄远宏不锈钢厂1变压器,杨辛庄北变压器,辛三农（磁卡）变压器【纯农排变】,辛一南1变压器,变压器,杨辛庄南变压器,新一村南变压器【纯农排变】,杨辛庄1号农变压器【纯农排变】,韩村营农（磁卡）变压器【纯农排变】,高碑店市强昊技术信息服务农民专业合作社2#变压器,辛三东北变压器,柳振喜,辛三东南排灌（磁卡）变压器【纯农排变】,高碑店市强昊技术信息服务农民专业合作社1#变压器,韩村营东南变压器,高碑店市张六庄国义水泥制品厂,高碑店市辛立庄镇杨辛庄村村民委员会变压器,辛二南变压器,刘笑天,高碑店市辛立庄远宏不锈钢厂2变压器,高碑店市辛立庄峰源养猪场变压器","poweroffReason":"【停电原因】由于主干６３号杆刮上塑料布导致１１０ＫＶ陈八庄变电站１０ＫＶ辛立庄５５３线路全线停电 【变更送电】因抢修进度加快原因，送电时间由２１：００变更为１８：００ 【发布渠道】通过９５５９８发布","powerTime":"2020-03-27 17:27:24","powerComm":"已送电","subsNo":"","lineNo":"","tgNo":"","tgName":null,"infoStatus":"1","orgName":"国网高碑店市供电公司","typeName":null,"infoStatusName":null,"dateDay":null,"orgNos":null,"nowTime":null,"countyName":null,"streetName":null,"villageName":null,"roadName":null,"communityName":null,"tranName":null,"sdLineName":null,"cityCode":"1340612","cityName":"国网高碑店市供电公司","provinceCode":null,"stopTime":"2020-03-27 18:00:00","powerType":"全部","powerOffArea":"【全线路停电】停杜村西3变压器,杨辛庄3号农变压器【纯农排变】,杜村东1变压器,辛三南变压器,杜村南变压器,燎原公司东,杜村东变压器,韩村营内变压器,韩村营南农变压器【纯农排变】,韩村营东变压器,高碑店市辛立庄幼儿园变压器,辛二东变压器,辛二农变压器【纯农排变】,杨辛庄南1变压器,时成海,辛三2号农变压器【纯农排变】,辛二2号农排变压器【纯农排变】,辛三东变压器,辛二西变压器,杨辛庄东变压器,杜村西1变压器,杨辛庄2号农变压器【纯农排变】,杜村南农变压器【纯农排变】,韩村营南变压器,杜村西变压器,高碑店市辛立庄远宏不锈钢厂1变压器,杨辛庄北变压器,辛三农（磁卡）变压器【纯农排变】,辛一南1变压器,变压器,杨辛庄南变压器,新一村南变压器【纯农排变】,杨辛庄1号农变压器【纯农排变】,韩村营农（磁卡）变压器【纯农排变】,高碑店市强昊技术信息服务农民专业合作社2#变压器,辛三东北变压器,柳振喜,辛三东南排灌（磁卡）变压器【纯农排变】,高碑店市强昊技术信息服务农民专业合作社1#变压器,韩村营东南变压器,高碑店市张六庄国义水泥制品厂,高碑店市辛立庄镇杨辛庄村村民委员会变压器,辛二南变压器,刘笑天,高碑店市辛立庄远宏不锈钢厂2变压器,高碑店市辛立庄峰源养猪场变压器","powerOffReason":"【停电原因】由于主干６３号杆刮上塑料布导致１１０ＫＶ陈八庄变电站１０ＫＶ辛立庄５５３线路全线停电 【变更送电】因抢修进度加快原因，送电时间由２１：００变更为１８：００ 【发布渠道】通过９５５９８发布","powerOffId":"2020032713000326"},{"poweroffId":2020032713000325,"sgpoweroffId":null,"subsName":"","lineName":"高林营线511","pubTranName":"10Kv511高林营线田村铺10号【纯农排变】,10Kv511高林营线田村铺23号,10Kv511高林营线田村铺16号【纯农排变】,0588618260-河北大午农牧集团有限公司-专变-125429007-河北大午农牧集团有限公司,10Kv511高林营线田村铺21号,10Kv511高林营线田村铺4号,10kV511高林营线六里铺7号【纯农排变】,10Kv511高林营线田村铺18号【纯农排变】,客户投资_六里铺9号,66069部队,10kV511高林营线田村铺14号【纯农排变】,10Kv511高林营线六里铺2号,中国人民解放军71282部队保障部,徐水县东风综合铸造厂,艳利面粉加工厂,永祥斋饭店,10Kv511高林营线六里铺6号,10Kv511高林营线田村铺11号,10Kv511高林营线六里铺1号,10Kv511高林营线田村铺27号,10Kv511高林营线田村铺13号,徐水县宇晨机床加工厂,10kV511高林营线田村铺8号【纯农排变】,10Kv511高林营线田村铺26号,0014746416中铁十八局集团第五工程有限公司0750865010,10Kv511高林营线田村铺24号,10Kv511高林营线田村铺20号,河北大午农牧集团有限公司,10Kv511高林营线田村铺25号【纯农排变】,保定市徐水区高林营镇田村铺幼儿园,10Kv511高林营线田村铺1号,10Kv511高林营线六里铺3号,客户投资_田村铺12号,0014745952中铁十八局集团第五工程有限公司0750864899,10Kv511高林营线田村铺9号,田村铺小学六里铺教学点,10Kv511高林营线田村铺17号,10Kv511高林营线田村铺28号,南水北调中线干线工程建设管理局天津直管项目建设管理部,10Kv511高林营线田村铺22号,10kV511高林营线田村铺7号【纯农排变】,0748272354保定市诺德建筑废弃物处置有限公司900028900327,10Kv511高林营线六里铺5号【纯农排变】,10Kv511高林营线田村铺3号,变压器,10Kv511高林营线田村铺19号【纯农排变】,罡上砖厂,","scope":"【影响街道/乡镇】高林村镇 【高危重要客户】无 【影响客户】六里铺、田村铺","startTime":"2020-04-11 06:00:00","stopDate":"2020-04-11 19:00:00","orgNo":"1340605","typeCode":"计划停电","poweroffArea":"【分支停电】停0014746416中铁十八局集团第五工程有限公司0750865010,中国人民解放军71282部队保障部,10Kv511高林营线田村铺25号【纯农排变】,保定市徐水区高林营镇田村铺幼儿园,10Kv511高林营线田村铺1号,10Kv511高林营线六里铺3号,客户投资_田村铺12号,0014745952中铁十八局集团第五工程有限公司0750864899,10Kv511高林营线田村铺9号,田村铺小学六里铺教学点,10Kv511高林营线田村铺17号,10Kv511高林营线田村铺10号【纯农排变】,10Kv511高林营线田村铺23号,10Kv511高林营线田村铺16号【纯农排变】,客户投资_六里铺9号,0588618260-河北大午农牧集团有限公司-专变-125429007-河北大午农牧集团有限公司,10Kv511高林营线田村铺21号,10Kv511高林营线田村铺4号,10kV511高林营线六里铺7号【纯农排变】,10Kv511高林营线田村铺18号【纯农排变】,66069部队,10kV511高林营线田村铺14号【纯农排变】,10Kv511高林营线六里铺2号,南水北调中线干线工程建设管理局天津直管项目建设管理部,10Kv511高林营线田村铺28号,10Kv511高林营线田村铺22号,10kV511高林营线田村铺7号【纯农排变】,0748272354保定市诺德建筑废弃物处置有限公司900028900327,10Kv511高林营线六里铺5号【纯农排变】,10Kv511高林营线田村铺3号,变压器,10Kv511高林营线田村铺19号【纯农排变】,罡上砖厂,徐水县东风综合铸造厂,艳利面粉加工厂,永祥斋饭店,10Kv511高林营线六里铺6号,10Kv511高林营线田村铺11号,10Kv511高林营线六里铺1号,10Kv511高林营线田村铺27号,10Kv511高林营线田村铺13号,徐水县宇晨机床加工厂,10kV511高林营线田村铺8号【纯农排变】,10Kv511高林营线田村铺26号,10Kv511高林营线田村铺24号,10Kv511高林营线田村铺20号,河北大午农牧集团有限公司","poweroffReason":"【停电原因】由于计划检修导致３５ＫＶ高林营变电站高林营５１１线路２０号杆分段开关以下线路停电 【变更送电】因工作未完成原因，送电时间由１８:００变更为１９:００ 【发布渠道】通过徐水电视台滚动字幕播放（２０２０年４月４日０８:００至４月１０日２０:００）","powerTime":"2020-04-11 18:56:57","powerComm":"已送电","subsNo":"","lineNo":"","tgNo":"","tgName":null,"infoStatus":"1","orgName":"国网徐水县供电公司","typeName":null,"infoStatusName":null,"dateDay":null,"orgNos":null,"nowTime":null,"countyName":null,"streetName":null,"villageName":null,"roadName":null,"communityName":null,"tranName":null,"sdLineName":null,"cityCode":"1340605","cityName":"国网徐水县供电公司","provinceCode":null,"stopTime":"2020-04-11 19:00:00","powerType":"全部","powerOffArea":"【分支停电】停0014746416中铁十八局集团第五工程有限公司0750865010,中国人民解放军71282部队保障部,10Kv511高林营线田村铺25号【纯农排变】,保定市徐水区高林营镇田村铺幼儿园,10Kv511高林营线田村铺1号,10Kv511高林营线六里铺3号,客户投资_田村铺12号,0014745952中铁十八局集团第五工程有限公司0750864899,10Kv511高林营线田村铺9号,田村铺小学六里铺教学点,10Kv511高林营线田村铺17号,10Kv511高林营线田村铺10号【纯农排变】,10Kv511高林营线田村铺23号,10Kv511高林营线田村铺16号【纯农排变】,客户投资_六里铺9号,0588618260-河北大午农牧集团有限公司-专变-125429007-河北大午农牧集团有限公司,10Kv511高林营线田村铺21号,10Kv511高林营线田村铺4号,10kV511高林营线六里铺7号【纯农排变】,10Kv511高林营线田村铺18号【纯农排变】,66069部队,10kV511高林营线田村铺14号【纯农排变】,10Kv511高林营线六里铺2号,南水北调中线干线工程建设管理局天津直管项目建设管理部,10Kv511高林营线田村铺28号,10Kv511高林营线田村铺22号,10kV511高林营线田村铺7号【纯农排变】,0748272354保定市诺德建筑废弃物处置有限公司900028900327,10Kv511高林营线六里铺5号【纯农排变】,10Kv511高林营线田村铺3号,变压器,10Kv511高林营线田村铺19号【纯农排变】,罡上砖厂,徐水县东风综合铸造厂,艳利面粉加工厂,永祥斋饭店,10Kv511高林营线六里铺6号,10Kv511高林营线田村铺11号,10Kv511高林营线六里铺1号,10Kv511高林营线田村铺27号,10Kv511高林营线田村铺13号,徐水县宇晨机床加工厂,10kV511高林营线田村铺8号【纯农排变】,10Kv511高林营线田村铺26号,10Kv511高林营线田村铺24号,10Kv511高林营线田村铺20号,河北大午农牧集团有限公司","powerOffReason":"【停电原因】由于计划检修导致３５ＫＶ高林营变电站高林营５１１线路２０号杆分段开关以下线路停电 【变更送电】因工作未完成原因，送电时间由１８:００变更为１９:００ 【发布渠道】通过徐水电视台滚动字幕播放（２０２０年４月４日０８:００至４月１０日２０:００）","powerOffId":"2020032713000325"},{"poweroffId":2020032713000315,"sgpoweroffId":null,"subsName":"","lineName":"南胡渠线515","pubTranName":"河北普康医疗设备有限公司,10kV515南胡线南营1号,天津鑫利泰再生资源回收有限公司,10kV515南胡线徐庄6号,徐水县长峰金工有限公司2号,10kV515南胡线徐庄8号,10kV515南胡线南营4号【纯农排变】,10kV515南胡线徐庄2号,保定中天废钢回收有限公司,10kV515南胡线徐庄1号【纯农排变】,徐水县长峰金属结构有限公司,10kV515南胡线南营2号【纯农排变】,10kV515南胡线下河西供35号,徐水县中鼎废旧金属回收有限公司,10kV515南胡线南营13号,10kV515南胡线徐庄5号,10kV515南胡线南营3号【纯农排变】,高压电动机,河北普康医疗设备有限公司3号,10kV515南胡线徐庄7号【纯农排变】,","scope":"【影响街道/乡镇】史端乡 【高危重要客户】无 【影响客户】徐庄、南营、下河西","startTime":"2020-04-11 06:00:00","stopDate":"2020-04-11 18:00:00","orgNo":"1340605","typeCode":"计划停电","poweroffArea":"【全线路停电】停10kV515南胡线徐庄7号【纯农排变】,河北普康医疗设备有限公司,10kV515南胡线南营1号,天津鑫利泰再生资源回收有限公司,10kV515南胡线徐庄6号,徐水县长峰金工有限公司2号,10kV515南胡线徐庄8号,10kV515南胡线南营4号【纯农排变】,10kV515南胡线徐庄2号,保定中天废钢回收有限公司,10kV515南胡线徐庄1号【纯农排变】,徐水县长峰金属结构有限公司,10kV515南胡线南营2号【纯农排变】,10kV515南胡线下河西供35号,徐水县中鼎废旧金属回收有限公司,10kV515南胡线南营13号,10kV515南胡线徐庄5号,10kV515南胡线南营3号【纯农排变】,高压电动机,河北普康医疗设备有限公司3号","poweroffReason":"【停电原因】由于计划检修导致３５ＫＶ下河西变电站南胡渠５１５线路全线停电 【变更送电】无 【发布渠道】通过河北省保定市徐水电视台游走滚动字幕播放（２０２０年０４月０４日０８:００至０４月１０日２０:００）","powerTime":"2020-04-11 17:51:16","powerComm":"已送电","subsNo":"","lineNo":"","tgNo":"","tgName":null,"infoStatus":"1","orgName":"国网徐水县供电公司","typeName":null,"infoStatusName":null,"dateDay":null,"orgNos":null,"nowTime":null,"countyName":null,"streetName":null,"villageName":null,"roadName":null,"communityName":null,"tranName":null,"sdLineName":null,"cityCode":"1340605","cityName":"国网徐水县供电公司","provinceCode":null,"stopTime":"2020-04-11 18:00:00","powerType":"全部","powerOffArea":"【全线路停电】停10kV515南胡线徐庄7号【纯农排变】,河北普康医疗设备有限公司,10kV515南胡线南营1号,天津鑫利泰再生资源回收有限公司,10kV515南胡线徐庄6号,徐水县长峰金工有限公司2号,10kV515南胡线徐庄8号,10kV515南胡线南营4号【纯农排变】,10kV515南胡线徐庄2号,保定中天废钢回收有限公司,10kV515南胡线徐庄1号【纯农排变】,徐水县长峰金属结构有限公司,10kV515南胡线南营2号【纯农排变】,10kV515南胡线下河西供35号,徐水县中鼎废旧金属回收有限公司,10kV515南胡线南营13号,10kV515南胡线徐庄5号,10kV515南胡线南营3号【纯农排变】,高压电动机,河北普康医疗设备有限公司3号","powerOffReason":"【停电原因】由于计划检修导致３５ＫＶ下河西变电站南胡渠５１５线路全线停电 【变更送电】无 【发布渠道】通过河北省保定市徐水电视台游走滚动字幕播放（２０２０年０４月０４日０８:００至０４月１０日２０:００）","powerOffId":"2020032713000315"},{"poweroffId":2020032713000308,"sgpoweroffId":null,"subsName":"","lineName":"申庄线513","pubTranName":"10Kv513申庄线申庄20号【纯农排变】,10Kv513申庄线申庄2号【纯农排变】,10kV513申庄线马庄12号,10Kv513申庄线申庄8号,10Kv513申庄线翟庄18号,10Kv513申庄线申庄1号,10Kv513申庄线申庄15号【纯农排变】,10kV513申庄线马庄11号,10Kv513申庄线郎五庄12号【纯农排变】,","scope":"【影响街道/乡镇】高林村镇 【高危重要客户】无 【影响客户】冯庄、马庄、翟庄、申庄、高林村、侯家窑、郎五庄","startTime":"2020-04-08 05:00:00","stopDate":"2020-04-08 12:00:00","orgNo":"1340605","typeCode":"计划停电","poweroffArea":"【全线路停电】停 10Kv513申庄线冯庄3号, 10Kv513申庄线冯庄2号, 10Kv513申庄线马庄7号, 10Kv513申庄线翟庄11号【纯农排变】,10Kv513申庄线申庄20号【纯农排变】,10kV513申庄线高林村10号【纯农排变】,10Kv513申庄线申庄22号, 10Kv513申庄线马庄2号,10Kv513申庄线高林村12号【纯农排变】,10Kv513申庄线申庄2号【纯农排变】,10kV513申庄线马庄12号, 10Kv513申庄线侯家窑2号, 10Kv513申庄线申庄8号, 10Kv513申庄线翟庄13号【纯农排变】, 10Kv513申庄线马庄10号【纯农排变】,10Kv513申庄线高林村17号【纯农排变】, 10Kv513申庄线马庄4号,保定市徐水区高林村镇申庄幼儿园,高林村镇申庄小学, 10Kv513申庄线侯家窑1号,10Kv513申庄线申庄11号【纯农排变】, 10Kv513申庄线申庄21号【纯农排变】, 10Kv513申庄线申庄16号,10kV513申庄线高林村16号【纯农排变】, 10Kv513申庄线马庄1号,10Kv513申庄线翟庄9号【纯农排变】, 10Kv513申庄线申庄13号, 10Kv513申庄线翟庄18号,中国移动通信集团河北有限公司徐水分公司,10Kv513申庄线申庄14号, 10Kv513申庄线申庄18号【纯农排变】, 10Kv513申庄线申庄1号,10kV513申庄线高林村15号【纯农排变】,10kV513申庄线申庄3号【纯农排变】,10Kv513申庄线申庄15号【纯农排变】, 10Kv513申庄线申庄9号【纯农排变】, 10Kv513申庄线申庄4号,10Kv513申庄线马庄3号【纯农排变】, 10Kv513申庄线侯家窑3号【纯农排变】,10kV513申庄线马庄11号,10Kv513申庄线申庄10号【纯农排变】, 10Kv513申庄线马庄9号, 10Kv513申庄线申庄12号,10Kv513申庄线高林村13号【纯农排变】,徐水县四通散热器制造有限公司,10kV513申庄线马庄8号【纯农排变】,10Kv513申庄线翟庄10号【纯农排变】, 10Kv513申庄线郎五庄12号【纯农排变】, 10Kv513申庄线申庄5号,高顺录养猪厂,高林村砖厂,10Kv513申庄线马庄6号【纯农排变】, 10Kv513申庄线马庄5号, 10Kv513申庄线申庄19号, 10Kv513申庄线翟庄17号【纯农排变】, 10Kv513申庄线冯庄1号,10Kv513申庄线郎五庄7号【纯农排变】, 10Kv513申庄线申庄6号【纯农排变】, 10Kv513申庄线申庄7号,10Kv513申庄线高林村14号【纯农排变】,10kV513申庄线冯庄4号【纯农排变】, 10Kv513申庄线申庄17号","poweroffReason":"【停电原因】由于计划检修导致３５ＫＶ郎五庄变电站申庄５１３线路全线停电 【变更送电】因工作进度加快原因，送电时间由１８:００变更为１２:００ 【发布渠道】通过河北省保定市徐水电视台游走滚动字幕播放（２０２０年０４月０１日０８:００至０４月０７日２０:００）","powerTime":"2020-04-08 11:15:35","powerComm":"已送电","subsNo":"","lineNo":"","tgNo":"","tgName":null,"infoStatus":"1","orgName":"国网徐水县供电公司","typeName":null,"infoStatusName":null,"dateDay":null,"orgNos":null,"nowTime":null,"countyName":null,"streetName":null,"villageName":null,"roadName":null,"communityName":null,"tranName":null,"sdLineName":null,"cityCode":"1340605","cityName":"国网徐水县供电公司","provinceCode":null,"stopTime":"2020-04-08 12:00:00","powerType":"全部","powerOffArea":"【全线路停电】停 10Kv513申庄线冯庄3号, 10Kv513申庄线冯庄2号, 10Kv513申庄线马庄7号, 10Kv513申庄线翟庄11号【纯农排变】,10Kv513申庄线申庄20号【纯农排变】,10kV513申庄线高林村10号【纯农排变】,10Kv513申庄线申庄22号, 10Kv513申庄线马庄2号,10Kv513申庄线高林村12号【纯农排变】,10Kv513申庄线申庄2号【纯农排变】,10kV513申庄线马庄12号, 10Kv513申庄线侯家窑2号, 10Kv513申庄线申庄8号, 10Kv513申庄线翟庄13号【纯农排变】, 10Kv513申庄线马庄10号【纯农排变】,10Kv513申庄线高林村17号【纯农排变】, 10Kv513申庄线马庄4号,保定市徐水区高林村镇申庄幼儿园,高林村镇申庄小学, 10Kv513申庄线侯家窑1号,10Kv513申庄线申庄11号【纯农排变】, 10Kv513申庄线申庄21号【纯农排变】, 10Kv513申庄线申庄16号,10kV513申庄线高林村16号【纯农排变】, 10Kv513申庄线马庄1号,10Kv513申庄线翟庄9号【纯农排变】, 10Kv513申庄线申庄13号, 10Kv513申庄线翟庄18号,中国移动通信集团河北有限公司徐水分公司,10Kv513申庄线申庄14号, 10Kv513申庄线申庄18号【纯农排变】, 10Kv513申庄线申庄1号,10kV513申庄线高林村15号【纯农排变】,10kV513申庄线申庄3号【纯农排变】,10Kv513申庄线申庄15号【纯农排变】, 10Kv513申庄线申庄9号【纯农排变】, 10Kv513申庄线申庄4号,10Kv513申庄线马庄3号【纯农排变】, 10Kv513申庄线侯家窑3号【纯农排变】,10kV513申庄线马庄11号,10Kv513申庄线申庄10号【纯农排变】, 10Kv513申庄线马庄9号, 10Kv513申庄线申庄12号,10Kv513申庄线高林村13号【纯农排变】,徐水县四通散热器制造有限公司,10kV513申庄线马庄8号【纯农排变】,10Kv513申庄线翟庄10号【纯农排变】, 10Kv513申庄线郎五庄12号【纯农排变】, 10Kv513申庄线申庄5号,高顺录养猪厂,高林村砖厂,10Kv513申庄线马庄6号【纯农排变】, 10Kv513申庄线马庄5号, 10Kv513申庄线申庄19号, 10Kv513申庄线翟庄17号【纯农排变】, 10Kv513申庄线冯庄1号,10Kv513申庄线郎五庄7号【纯农排变】, 10Kv513申庄线申庄6号【纯农排变】, 10Kv513申庄线申庄7号,10Kv513申庄线高林村14号【纯农排变】,10kV513申庄线冯庄4号【纯农排变】, 10Kv513申庄线申庄17号","powerOffReason":"【停电原因】由于计划检修导致３５ＫＶ郎五庄变电站申庄５１３线路全线停电 【变更送电】因工作进度加快原因，送电时间由１８:００变更为１２:００ 【发布渠道】通过河北省保定市徐水电视台游走滚动字幕播放（２０２０年０４月０１日０８:００至０４月０７日２０:００）","powerOffId":"2020032713000308"},{"poweroffId":2020032713000305,"sgpoweroffId":null,"subsName":"","lineName":"10kV516市场线","pubTranName":"市场综合5出线间隔配电变压器,阳光嘉园综合5台区,阳光嘉园综合4台区,阳光嘉园综合2台区,阳光嘉园综合1台区,市场综合4台区,阳光嘉园综合6台区,市场综合2台区,市场综合3台区,阳光嘉园综合7台区,阳光嘉园综合3台区,市场综合1台区,","scope":"【影响街道/乡镇】鲍墟乡【高危重要客户】无【影响客户】东口市场、阳光嘉园","startTime":"2020-03-27 17:00:00","stopDate":"2020-03-27 20:00:00","orgNo":"1340616","typeCode":"其他临时停电","poweroffArea":"【全线路停电】停友福,市场综合5出线间隔配电变压器,阳光嘉园综合1台区,阳光嘉园综合4台区,市场综合2台区,阳光嘉园综合6台区,市场综合4台区,阳光嘉园综合5台区,市场综合3台区,阳光嘉园综合3台区,友福皮毛有限公司变压器,阳光嘉园综合2台区,阳光嘉园综合7台区,市场综合1台区","poweroffReason":"【停电原因】由于线夹接虚过热，需停电进行紧急消缺导致３５ＫＶ鲍墟变电站１０ＫＶ市场５１６线路全线停电【变更送电】无【发布渠道】通过９５５９８发布","powerTime":"2020-03-27 19:01:29","powerComm":"已送电","subsNo":"","lineNo":"","tgNo":"","tgName":null,"infoStatus":"1","orgName":"国网蠡县供电公司","typeName":null,"infoStatusName":null,"dateDay":null,"orgNos":null,"nowTime":null,"countyName":null,"streetName":null,"villageName":null,"roadName":null,"communityName":null,"tranName":null,"sdLineName":null,"cityCode":"1340616","cityName":"国网蠡县供电公司","provinceCode":null,"stopTime":"2020-03-27 20:00:00","powerType":"全部","powerOffArea":"【全线路停电】停友福,市场综合5出线间隔配电变压器,阳光嘉园综合1台区,阳光嘉园综合4台区,市场综合2台区,阳光嘉园综合6台区,市场综合4台区,阳光嘉园综合5台区,市场综合3台区,阳光嘉园综合3台区,友福皮毛有限公司变压器,阳光嘉园综合2台区,阳光嘉园综合7台区,市场综合1台区","powerOffReason":"【停电原因】由于线夹接虚过热，需停电进行紧急消缺导致３５ＫＶ鲍墟变电站１０ＫＶ市场５１６线路全线停电【变更送电】无【发布渠道】通过９５５９８发布","powerOffId":"2020032713000305"},{"poweroffId":2020032713000299,"sgpoweroffId":null,"subsName":"","lineName":"10kV515齐营线","pubTranName":"正南庄综合3台区,齐营综合10台区,正南庄农排3台区【纯农排变】,西南庄农排1台区【纯农排变】,刘佃庄综合1台区,西南庄农排4台区【纯农排变】,正南庄综合9台区,刘佃庄综合7台区,齐营综合8台区,正南庄综合7台区,齐营综合12台区,齐营农排10台区【纯农排变】,刘佃庄农排3台区【纯农排变】,齐营综合6台区,正南庄综合6台区,西南庄综合7台区,齐营综合1台区,齐营综合7台区,刘佃庄综合9台区,刘佃庄综合8台区,西南庄综合3台区,正南庄综合4台区,齐营综合11台区,刘佃庄综合5台区,齐营农排3台区【纯农排变】,刘佃庄农排6台区【纯农排变】,正南庄综合8台区,正南庄农排2台区【纯农排变】,正南庄综合1台区,正南庄综合5台区,东口综合20台区,齐营农排11台区【纯农排变】,齐营综合9台区,刘佃庄综合4台区,刘佃庄农排8台区【纯农排变】,刘佃庄综合六台区,刘佃庄综合10台区,齐营农排4台区【纯农排变】,正南庄农排4台区【纯农排变】,南口农排4台区【纯农排变】,齐营综合3台区,东口农排4台区【纯农排变】,齐营综合2台区,齐营综合5台区,刘佃庄综合2台区,","scope":"【影响街道/乡镇】鲍墟乡【高危重要客户】无【影响客户】齐营村、东口村、刘佃庄村、西南庄村、正南庄村、南口村、西口村","startTime":"2020-03-27 17:00:00","stopDate":"2020-03-27 20:00:00","orgNo":"1340616","typeCode":"其他临时停电","poweroffArea":"【全线路停电】停正南庄农排1台区【纯农排变】,齐营农排6台区【纯农排变】,刘佃庄综合六台区,正南庄农排4台区【纯农排变】,东口农排5台区【纯农排变】,刘佃庄综合4台区,东口农排8台区【纯农排变】,齐营综合12台区,刘佃庄综合5台区,正南庄农排2台区【纯农排变】,齐营综合9台区,刘佃庄农排4台区【纯农排变】,齐营综合1台区,正南庄综合2台区,刘佃庄农排1台区【纯农排变】,冷冻厂,刘佃庄农排6台区【纯农排变】,刘佃庄农排10台区【纯农排变】,紫玉养殖厂,齐营农排5台区【纯农排变】,齐营综合7台区,齐营综合10台区,齐营综合11台区,西南庄综合3台区,东口综合20台区,齐营综合8台区,西南庄农排1台区【纯农排变】,齐营农排4台区【纯农排变】,正南庄综合9台区,中口农排2台区【纯农排变】,齐营农排3台区【纯农排变】,正南庄农排3台区【纯农排变】,蠡县东口利兆特种养殖厂变压器,刘佃庄农排5台区【纯农排变】,蠡县东口绿丹蓝养殖场变压器,东口农排4台区【纯农排变】,正南庄综合6台区,齐营农排1台区【纯农排变】,正南庄综合1台区,正南庄综合4台区,东口农排10台区【纯农排变】,正南庄综合7台区,正南庄综合8台区,西南庄农排2台区【纯农排变】,正南庄综合5台区,齐营农排10台区【纯农排变】,齐营综合5台区,中国移动通信集团河北有限公司蠡县分公司刘佃庄村变压器,齐营农排2台区【纯农排变】,齐营农排11台区【纯农排变】,东口农排6台区【纯农排变】,刘佃庄综合9台区,东口农排9台区【纯农排变】,齐营农排12台区【纯农排变】,刘佃庄综合1台区,刘佃庄农排3台区【纯农排变】,东口农排7台区【纯农排变】,刘佃庄农排9台区【纯农排变】,刘佃庄农排2台区【纯农排变】,东口地,齐营农排13台区【纯农排变】,蠡县东口第二饲养厂变压器,西南庄农排4台区【纯农排变】,刘佃庄综合8台区,刘佃庄农排8台区【纯农排变】,南口农排4台区【纯农排变】,齐营综合4台区,刘佃庄综合2台区,中口农排3台区【纯农排变】,齐营综合6台区,刘佃庄农排7台区【纯农排变】,刘佃庄综合7台区,正南庄综合3台区,刘佃庄综合10台区,蠡县东口第一养殖厂变压器,南口农排5台区【纯农排变】,南口农排2台区【纯农排变】,齐营农排8台区【纯农排变】,西南庄农排3台区【纯农排变】,齐营农排9台区【纯农排变】,齐营综合2台区,齐营农排7台区【纯农排变】,中国石油天然气股份有限公司华北油田分公司,西南庄综合7台区,齐营综合3台区,东口农排2台区【纯农排变】,南口农排3台区【纯农排变】,东口农排3台区【纯农排变】","poweroffReason":"【停电原因】由于线夹接虚过热，需停电进行紧急消缺导致３５ＫＶ鲍墟变电站１０ＫＶ齐营５１５线路全线停电【变更送电】无【发布渠道】通过９５５９８发布","powerTime":"2020-03-27 19:01:15","powerComm":"已送电","subsNo":"","lineNo":"","tgNo":"","tgName":null,"infoStatus":"1","orgName":"国网蠡县供电公司","typeName":null,"infoStatusName":null,"dateDay":null,"orgNos":null,"nowTime":null,"countyName":null,"streetName":null,"villageName":null,"roadName":null,"communityName":null,"tranName":null,"sdLineName":null,"cityCode":"1340616","cityName":"国网蠡县供电公司","provinceCode":null,"stopTime":"2020-03-27 20:00:00","powerType":"全部","powerOffArea":"【全线路停电】停正南庄农排1台区【纯农排变】,齐营农排6台区【纯农排变】,刘佃庄综合六台区,正南庄农排4台区【纯农排变】,东口农排5台区【纯农排变】,刘佃庄综合4台区,东口农排8台区【纯农排变】,齐营综合12台区,刘佃庄综合5台区,正南庄农排2台区【纯农排变】,齐营综合9台区,刘佃庄农排4台区【纯农排变】,齐营综合1台区,正南庄综合2台区,刘佃庄农排1台区【纯农排变】,冷冻厂,刘佃庄农排6台区【纯农排变】,刘佃庄农排10台区【纯农排变】,紫玉养殖厂,齐营农排5台区【纯农排变】,齐营综合7台区,齐营综合10台区,齐营综合11台区,西南庄综合3台区,东口综合20台区,齐营综合8台区,西南庄农排1台区【纯农排变】,齐营农排4台区【纯农排变】,正南庄综合9台区,中口农排2台区【纯农排变】,齐营农排3台区【纯农排变】,正南庄农排3台区【纯农排变】,蠡县东口利兆特种养殖厂变压器,刘佃庄农排5台区【纯农排变】,蠡县东口绿丹蓝养殖场变压器,东口农排4台区【纯农排变】,正南庄综合6台区,齐营农排1台区【纯农排变】,正南庄综合1台区,正南庄综合4台区,东口农排10台区【纯农排变】,正南庄综合7台区,正南庄综合8台区,西南庄农排2台区【纯农排变】,正南庄综合5台区,齐营农排10台区【纯农排变】,齐营综合5台区,中国移动通信集团河北有限公司蠡县分公司刘佃庄村变压器,齐营农排2台区【纯农排变】,齐营农排11台区【纯农排变】,东口农排6台区【纯农排变】,刘佃庄综合9台区,东口农排9台区【纯农排变】,齐营农排12台区【纯农排变】,刘佃庄综合1台区,刘佃庄农排3台区【纯农排变】,东口农排7台区【纯农排变】,刘佃庄农排9台区【纯农排变】,刘佃庄农排2台区【纯农排变】,东口地,齐营农排13台区【纯农排变】,蠡县东口第二饲养厂变压器,西南庄农排4台区【纯农排变】,刘佃庄综合8台区,刘佃庄农排8台区【纯农排变】,南口农排4台区【纯农排变】,齐营综合4台区,刘佃庄综合2台区,中口农排3台区【纯农排变】,齐营综合6台区,刘佃庄农排7台区【纯农排变】,刘佃庄综合7台区,正南庄综合3台区,刘佃庄综合10台区,蠡县东口第一养殖厂变压器,南口农排5台区【纯农排变】,南口农排2台区【纯农排变】,齐营农排8台区【纯农排变】,西南庄农排3台区【纯农排变】,齐营农排9台区【纯农排变】,齐营综合2台区,齐营农排7台区【纯农排变】,中国石油天然气股份有限公司华北油田分公司,西南庄综合7台区,齐营综合3台区,东口农排2台区【纯农排变】,南口农排3台区【纯农排变】,东口农排3台区【纯农排变】","powerOffReason":"【停电原因】由于线夹接虚过热，需停电进行紧急消缺导致３５ＫＶ鲍墟变电站１０ＫＶ齐营５１５线路全线停电【变更送电】无【发布渠道】通过９５５９８发布","powerOffId":"2020032713000299"}],"pageModel":{"pageNow":219,"totalCount":10973,"totalPage":1098,"tableRows":0,"pageCount":10,"beginCount":2180},"isExperi":"1"}