{"message":"","today":"2020-06-15","seleList":[{"poweroffId":2020032713000298,"sgpoweroffId":null,"subsName":"","lineName":"袁辛线518","pubTranName":"大庄16号,10Kv518袁辛线大庄2号,10Kv518袁辛线大庄11号,袁家坟4号,10Kv518袁辛线小庄4号【纯农排变】,北孤庄营1号【纯农排变】,小庄10号,","scope":"【影响街道/乡镇】安肃镇、高林村镇 【高危重要客户】无 【影响客户】北孤庄营、白塔铺、小庄、大庄、南孤庄营、袁家坟、小辛安","startTime":"2020-04-08 05:00:00","stopDate":"2020-04-08 12:00:00","orgNo":"1340605","typeCode":"计划停电","poweroffArea":"【全线路停电】停10Kv518袁辛线大庄2号,北孤庄营4号【纯农排变】,徐水县来宾水泥制品变压器,10Kv518袁辛线白塔铺12号,10Kv518袁辛线小庄6号,10Kv518袁辛线大庄9号【纯农排变】,河北大午农牧集团有限公司,大庄16号,南孤庄营11号,10Kv518袁辛线大庄1号,保定徐水区大庄龙鹏五金加工厂,10Kv518袁辛线大庄12号,10kV518袁辛线大庄6号【纯农排变】,10Kv518袁辛线大庄3号【纯农排变】,10Kv518袁辛线小庄7号【纯农排变】,10Kv518袁辛线小庄3号【纯农排变】,10Kv518袁辛线大庄11号,袁家坟4号,10Kv518袁辛线大庄4号【纯农排变】,10kV518袁辛线小辛安3号【纯农排变】,10Kv518袁辛线袁家坟2号,10Kv518袁辛线小庄2号【纯农排变】,10Kv518袁辛线小庄4号【纯农排变】,10Kv518袁辛线大庄14号【纯农排变】,10Kv518袁辛线袁家坟3号,南孤庄营7号,0747170833保定新奥燃气有限公司900028794926, 10Kv518袁辛线白塔铺8号【纯农排变】,10Kv518袁辛线白塔铺7号【纯农排变】,徐水县荣泰新型建材有限公司,大庄15号变压器,0014641813河北大午农牧集团有限公司0720287776,10Kv518袁辛线大庄8号【纯农排变】,10Kv518袁辛线袁家坟1号,10Kv518袁辛线白塔铺17号,10Kv518袁辛线小庄5号,10Kv518袁辛线小庄1号,10Kv518袁辛线白塔铺13号,10Kv518袁辛线白塔铺6号,10Kv518袁辛线大庄10号,10kV518袁辛线大庄7号【纯农排变】,10Kv518袁辛线大庄5号【纯农排变】,10Kv518袁辛线小庄9号【纯农排变】,10Kv518袁辛线大庄13号【纯农排变】,10Kv518袁辛线小庄8号【纯农排变】, 10Kv518袁辛线小辛安4号【纯农排变】,北孤庄营1号【纯农排变】,变压器,小庄10号","poweroffReason":"【停电原因】由于计划检修导致３５ＫＶ郎五庄变电站袁辛５１８线路全线停电 【变更送电】因工作进度加快原因，送电时间由１８:００变更为１２:００ 【发布渠道】通过河北省保定市徐水电视台游走滚动字幕播放（２０２０年０４月０１日０８:００至０４月０７日２０:００）","powerTime":"2020-04-08 11:16:13","powerComm":"已送电","subsNo":"","lineNo":"","tgNo":"","tgName":null,"infoStatus":"1","orgName":"国网徐水县供电公司","typeName":null,"infoStatusName":null,"dateDay":null,"orgNos":null,"nowTime":null,"countyName":null,"streetName":null,"villageName":null,"roadName":null,"communityName":null,"tranName":null,"sdLineName":null,"cityCode":"1340605","cityName":"国网徐水县供电公司","provinceCode":null,"stopTime":"2020-04-08 12:00:00","powerType":"全部","powerOffArea":"【全线路停电】停10Kv518袁辛线大庄2号,北孤庄营4号【纯农排变】,徐水县来宾水泥制品变压器,10Kv518袁辛线白塔铺12号,10Kv518袁辛线小庄6号,10Kv518袁辛线大庄9号【纯农排变】,河北大午农牧集团有限公司,大庄16号,南孤庄营11号,10Kv518袁辛线大庄1号,保定徐水区大庄龙鹏五金加工厂,10Kv518袁辛线大庄12号,10kV518袁辛线大庄6号【纯农排变】,10Kv518袁辛线大庄3号【纯农排变】,10Kv518袁辛线小庄7号【纯农排变】,10Kv518袁辛线小庄3号【纯农排变】,10Kv518袁辛线大庄11号,袁家坟4号,10Kv518袁辛线大庄4号【纯农排变】,10kV518袁辛线小辛安3号【纯农排变】,10Kv518袁辛线袁家坟2号,10Kv518袁辛线小庄2号【纯农排变】,10Kv518袁辛线小庄4号【纯农排变】,10Kv518袁辛线大庄14号【纯农排变】,10Kv518袁辛线袁家坟3号,南孤庄营7号,0747170833保定新奥燃气有限公司900028794926, 10Kv518袁辛线白塔铺8号【纯农排变】,10Kv518袁辛线白塔铺7号【纯农排变】,徐水县荣泰新型建材有限公司,大庄15号变压器,0014641813河北大午农牧集团有限公司0720287776,10Kv518袁辛线大庄8号【纯农排变】,10Kv518袁辛线袁家坟1号,10Kv518袁辛线白塔铺17号,10Kv518袁辛线小庄5号,10Kv518袁辛线小庄1号,10Kv518袁辛线白塔铺13号,10Kv518袁辛线白塔铺6号,10Kv518袁辛线大庄10号,10kV518袁辛线大庄7号【纯农排变】,10Kv518袁辛线大庄5号【纯农排变】,10Kv518袁辛线小庄9号【纯农排变】,10Kv518袁辛线大庄13号【纯农排变】,10Kv518袁辛线小庄8号【纯农排变】, 10Kv518袁辛线小辛安4号【纯农排变】,北孤庄营1号【纯农排变】,变压器,小庄10号","powerOffReason":"【停电原因】由于计划检修导致３５ＫＶ郎五庄变电站袁辛５１８线路全线停电 【变更送电】因工作进度加快原因，送电时间由１８:００变更为１２:００ 【发布渠道】通过河北省保定市徐水电视台游走滚动字幕播放（２０２０年０４月０１日０８:００至０４月０７日２０:００）","powerOffId":"2020032713000298"},{"poweroffId":2020032713000285,"sgpoweroffId":null,"subsName":"","lineName":"丁申线514","pubTranName":"翟庄21号,10Kv514丁申线丁庄6号,10kV514丁申线丁庄18号,10Kv514丁申线翟庄20号【纯农排变】,10kV514丁申线丁庄17号,","scope":"【影响街道/乡镇】高林村镇 【高危重要客户】无 【影响客户】丁庄、翟庄、农场一队、农场二队、农场一分场","startTime":"2020-04-08 05:00:00","stopDate":"2020-04-08 12:00:00","orgNo":"1340605","typeCode":"计划停电","poweroffArea":"【全线路停电】停0739998829河北大午农牧集团食品有限公司900029020645,10Kv514丁申线丁庄1号【纯农排变】, 10Kv514丁申线翟庄4号,10kV514丁申线郎伍庄16号,10Kv514丁申线翟庄8号【纯农排变】,10Kv514丁申线翟庄7号【纯农排变】, 10Kv514丁申线翟庄12号,保定市方大木材加工有限公司, 10Kv514丁申线丁庄12号, 10Kv514丁申线丁庄14号【纯农排变】,10Kv514丁申线翟庄2号【纯农排变】, 10Kv514丁申线丁庄8号【纯农排变】, 10Kv514丁申线翟庄6号【纯农排变】,农场二队1号,大午农牧集团公司葡萄基地4号,河北大午农牧有限公司, 10Kv514丁申线翟庄1号,农场一队1号,农场一分场4号,农场二队5号,10Kv514丁申线翟庄14号【纯农排变】,10kV514丁申线丁庄3号【纯农排变】,0548854370-河北大午农牧集团有限公司-专变-48191429-河北大午农牧集团有限公司14号,翟庄21号, 10Kv514丁申线丁庄4号,河北大午农牧集团种禽有限公司, 10Kv514丁申线丁庄16号, 10Kv514丁申线丁庄2号, 10Kv514丁申线翟庄5号, 10Kv514丁申线丁庄5号,保定农场二分场,河北大午农牧集团公司6号, 10Kv514丁申线翟庄3号,大午葡萄基地9号,河北大午农牧集团肥业有限公司, 10Kv514丁申线丁庄6号, 10Kv514丁申线丁庄11号,0749680235保定市国合农垦发展有限公司900029028122, 10Kv514丁申线翟庄15号,0469088090-农场二队-专变-81426832-农场二队,10Kv514丁申线丁庄7号【纯农排变】,河北省南水北调工程建设管理中心,10kV514丁申线丁庄15号【纯农排变】, 10Kv514丁申线丁庄9号【纯农排变】, 10Kv514丁申线翟庄19号,10kV514丁申线丁庄18号,0469088061-农场二队-专变-129044336-农场二队,10Kv514丁申线翟庄20号【纯农排变】, 10Kv514丁申线翟庄16号, 10Kv514丁申线丁庄10号【纯农排变】,10kV514丁申线丁庄17号,0739998829河北大午农牧有限公司900028919794,0739998829河北大午农牧有限公司900028923773, 10Kv514丁申线丁庄13号【纯农排变】","poweroffReason":"【停电原因】由于计划检修导致３５ＫＶ郎五庄变电站丁申５１４线路全线停电 【变更送电】因工作进度加快原因，送电时间由１８:００变更为１２:００ 【发布渠道】通过河北省保定市徐水电视台游走滚动字幕播放（２０２０年０４月０１日０８:００至０４月０７日２０:００）","powerTime":"2020-04-08 11:18:30","powerComm":"已送电","subsNo":"","lineNo":"","tgNo":"","tgName":null,"infoStatus":"1","orgName":"国网徐水县供电公司","typeName":null,"infoStatusName":null,"dateDay":null,"orgNos":null,"nowTime":null,"countyName":null,"streetName":null,"villageName":null,"roadName":null,"communityName":null,"tranName":null,"sdLineName":null,"cityCode":"1340605","cityName":"国网徐水县供电公司","provinceCode":null,"stopTime":"2020-04-08 12:00:00","powerType":"全部","powerOffArea":"【全线路停电】停0739998829河北大午农牧集团食品有限公司900029020645,10Kv514丁申线丁庄1号【纯农排变】, 10Kv514丁申线翟庄4号,10kV514丁申线郎伍庄16号,10Kv514丁申线翟庄8号【纯农排变】,10Kv514丁申线翟庄7号【纯农排变】, 10Kv514丁申线翟庄12号,保定市方大木材加工有限公司, 10Kv514丁申线丁庄12号, 10Kv514丁申线丁庄14号【纯农排变】,10Kv514丁申线翟庄2号【纯农排变】, 10Kv514丁申线丁庄8号【纯农排变】, 10Kv514丁申线翟庄6号【纯农排变】,农场二队1号,大午农牧集团公司葡萄基地4号,河北大午农牧有限公司, 10Kv514丁申线翟庄1号,农场一队1号,农场一分场4号,农场二队5号,10Kv514丁申线翟庄14号【纯农排变】,10kV514丁申线丁庄3号【纯农排变】,0548854370-河北大午农牧集团有限公司-专变-48191429-河北大午农牧集团有限公司14号,翟庄21号, 10Kv514丁申线丁庄4号,河北大午农牧集团种禽有限公司, 10Kv514丁申线丁庄16号, 10Kv514丁申线丁庄2号, 10Kv514丁申线翟庄5号, 10Kv514丁申线丁庄5号,保定农场二分场,河北大午农牧集团公司6号, 10Kv514丁申线翟庄3号,大午葡萄基地9号,河北大午农牧集团肥业有限公司, 10Kv514丁申线丁庄6号, 10Kv514丁申线丁庄11号,0749680235保定市国合农垦发展有限公司900029028122, 10Kv514丁申线翟庄15号,0469088090-农场二队-专变-81426832-农场二队,10Kv514丁申线丁庄7号【纯农排变】,河北省南水北调工程建设管理中心,10kV514丁申线丁庄15号【纯农排变】, 10Kv514丁申线丁庄9号【纯农排变】, 10Kv514丁申线翟庄19号,10kV514丁申线丁庄18号,0469088061-农场二队-专变-129044336-农场二队,10Kv514丁申线翟庄20号【纯农排变】, 10Kv514丁申线翟庄16号, 10Kv514丁申线丁庄10号【纯农排变】,10kV514丁申线丁庄17号,0739998829河北大午农牧有限公司900028919794,0739998829河北大午农牧有限公司900028923773, 10Kv514丁申线丁庄13号【纯农排变】","powerOffReason":"【停电原因】由于计划检修导致３５ＫＶ郎五庄变电站丁申５１４线路全线停电 【变更送电】因工作进度加快原因，送电时间由１８:００变更为１２:００ 【发布渠道】通过河北省保定市徐水电视台游走滚动字幕播放（２０２０年０４月０１日０８:００至０４月０７日２０:００）","powerOffId":"2020032713000285"},{"poweroffId":2020032713000283,"sgpoweroffId":null,"subsName":"","lineName":"10kV河口517线","pubTranName":"517大元3#配变,517大元10#配变,517白河4#配变,517白河7#配变,517南城区11#配变,517白河3#配变,517大元1#配变,517大元2#配变,517榆树工1#配变,517白河13#配变,阜平110站517线白河6#公用配变,517当家村1#配变,517大元13#配变,517白河8#配变,517大元新村配变,517白河11#配变,517大元7#配变,517南城区6#配变,517河口1#公用配变,517白河1#配变,","scope":"【影响街道/乡镇】阜平镇 【高危重要客户】无 【影响客户】南城区、养路工区、世纪城小区、白河村、榆树工、大元村、高尖、石湖村、化肥厂生活区、小树林、龙门醋厂、新远盛达、石湖铁厂、天河矿业、河口石材小区、恒源石材、德康石材、鸿霖热力公司、凯越宾馆、中国移动公司、电力小区、供电公司、环秀山庄、养路工区及住宅楼、城关镇政府、廉租房、白河回迁房、小坝、白河学校、瑞景新园、京鑫建设集团、御河上院、滨河美居、中交华北路桥、隆昌宾馆、城市管理行政执法局","startTime":"2020-03-27 08:40:00","stopDate":"2020-03-27 15:50:00","orgNo":"1340611","typeCode":"电网故障停限电","poweroffArea":"【全线路停电】停517南城区11#配变,517白河13#配变,517白河4#配变,阜平110站517线白河6#公用配变,517大元10#配变,517大元1#配变,517白河1#配变,517河口1#公用配变,517大元新村配变,517白河11#配变","poweroffReason":"【停电原因】由于车撞杆导致１１０ＫＶ阜平变电站１０ＫＶ河口５１７线路全线停电 【变更送电】无 【发布渠道】９５５９８","powerTime":"2020-03-27 15:34:55","powerComm":"已送电","subsNo":"","lineNo":"","tgNo":"","tgName":null,"infoStatus":"1","orgName":"国网阜平县供电公司","typeName":null,"infoStatusName":null,"dateDay":null,"orgNos":null,"nowTime":null,"countyName":null,"streetName":null,"villageName":null,"roadName":null,"communityName":null,"tranName":null,"sdLineName":null,"cityCode":"1340611","cityName":"国网阜平县供电公司","provinceCode":null,"stopTime":"2020-03-27 15:50:00","powerType":"全部","powerOffArea":"【全线路停电】停517南城区11#配变,517白河13#配变,517白河4#配变,阜平110站517线白河6#公用配变,517大元10#配变,517大元1#配变,517白河1#配变,517河口1#公用配变,517大元新村配变,517白河11#配变","powerOffReason":"【停电原因】由于车撞杆导致１１０ＫＶ阜平变电站１０ＫＶ河口５１７线路全线停电 【变更送电】无 【发布渠道】９５５９８","powerOffId":"2020032713000283"},{"poweroffId":2020032713000277,"sgpoweroffId":null,"subsName":"","lineName":"郎伍庄线516","pubTranName":"郎五庄21号,郎五庄22号,郎伍庄新居民进线间隔配电变压器,","scope":"【影响街道/乡镇】高林村镇 【高危重要客户】无 【影响客户】郎五庄、大午中学、大午医院","startTime":"2020-04-08 05:00:00","stopDate":"2020-04-08 12:00:00","orgNo":"1340605","typeCode":"计划停电","poweroffArea":"【全线路停电】停10Kv516郎伍庄线郎五庄9号,保定市徐水区大午水厂,郎五庄21号,保定市徐水区大午温泉酒店有限公司,徐水县大午温泉度假村有限公司,郎五庄22号,10Kv516郎伍庄线郎五庄4号, 10Kv516郎伍庄线郎五庄20号【纯农排变】,0699844565保定大午医院900029166030, 10Kv516郎伍庄线郎五庄6号【纯农排变】,保定市徐水大午中学,徐水大午医院,保定市徐水区高林村镇郎五庄小学,徐水大午中学,河北大午农牧集团种禽有限公司,5号,10kV516郎伍庄线郎五庄8号【纯农排变】, 10Kv516郎伍庄线郎五庄19号,4号,10Kv516郎伍庄线郎五庄11号【纯农排变】,6号,大午集团公司8号（温泉）,0699844565-900005489693徐水大午医院001,河北大午集团公司5号,郎伍庄新居民进线间隔配电变压器,10Kv516郎伍庄线郎五庄17号,10Kv516郎伍庄线郎五庄10号【纯农排变】,10Kv516郎伍庄线郎五庄18号,10Kv516郎伍庄线郎五庄5号,0699844565-900005490628徐水大午医院003,0699844565-900005490623徐水大午医院005,10Kv516郎伍庄线郎五庄13号,10Kv516郎伍庄线郎五庄1号,徐水大午医院004,10Kv516郎伍庄线郎五庄3号,10Kv516郎伍庄线郎五庄2号,徐水县大午温泉酒店,10Kv516郎伍庄线郎五庄15号【纯农排变】,0699844565-900005490600徐水大午医院002,10Kv516郎伍庄线郎五庄14号","poweroffReason":"【停电原因】由于计划检修导致３５ＫＶ郎五庄变电站郎五庄５１６线路全线停电 【变更送电】因工作进度加快原因，送电时间由１８:００变更为１２:００ 【发布渠道】通过保定市徐水电视台游走滚动字幕播放（２０２０年０４月０１日０８:００至０４月０７日２０:００）","powerTime":"2020-04-08 11:20:58","powerComm":"已送电","subsNo":"","lineNo":"","tgNo":"","tgName":null,"infoStatus":"1","orgName":"国网徐水县供电公司","typeName":null,"infoStatusName":null,"dateDay":null,"orgNos":null,"nowTime":null,"countyName":null,"streetName":null,"villageName":null,"roadName":null,"communityName":null,"tranName":null,"sdLineName":null,"cityCode":"1340605","cityName":"国网徐水县供电公司","provinceCode":null,"stopTime":"2020-04-08 12:00:00","powerType":"全部","powerOffArea":"【全线路停电】停10Kv516郎伍庄线郎五庄9号,保定市徐水区大午水厂,郎五庄21号,保定市徐水区大午温泉酒店有限公司,徐水县大午温泉度假村有限公司,郎五庄22号,10Kv516郎伍庄线郎五庄4号, 10Kv516郎伍庄线郎五庄20号【纯农排变】,0699844565保定大午医院900029166030, 10Kv516郎伍庄线郎五庄6号【纯农排变】,保定市徐水大午中学,徐水大午医院,保定市徐水区高林村镇郎五庄小学,徐水大午中学,河北大午农牧集团种禽有限公司,5号,10kV516郎伍庄线郎五庄8号【纯农排变】, 10Kv516郎伍庄线郎五庄19号,4号,10Kv516郎伍庄线郎五庄11号【纯农排变】,6号,大午集团公司8号（温泉）,0699844565-900005489693徐水大午医院001,河北大午集团公司5号,郎伍庄新居民进线间隔配电变压器,10Kv516郎伍庄线郎五庄17号,10Kv516郎伍庄线郎五庄10号【纯农排变】,10Kv516郎伍庄线郎五庄18号,10Kv516郎伍庄线郎五庄5号,0699844565-900005490628徐水大午医院003,0699844565-900005490623徐水大午医院005,10Kv516郎伍庄线郎五庄13号,10Kv516郎伍庄线郎五庄1号,徐水大午医院004,10Kv516郎伍庄线郎五庄3号,10Kv516郎伍庄线郎五庄2号,徐水县大午温泉酒店,10Kv516郎伍庄线郎五庄15号【纯农排变】,0699844565-900005490600徐水大午医院002,10Kv516郎伍庄线郎五庄14号","powerOffReason":"【停电原因】由于计划检修导致３５ＫＶ郎五庄变电站郎五庄５１６线路全线停电 【变更送电】因工作进度加快原因，送电时间由１８:００变更为１２:００ 【发布渠道】通过保定市徐水电视台游走滚动字幕播放（２０２０年０４月０１日０８:００至０４月０７日２０:００）","powerOffId":"2020032713000277"},{"poweroffId":2020032713000271,"sgpoweroffId":null,"subsName":"","lineName":"北环线512","pubTranName":"十里湾华阳片公用变,城东站511三级站新村公用变,城里新村2号公用变,新城里新村公用变,石李湾靶场公用变,城里新村公用变,养老院公用变,城东站511艺唐小区公用变,东关三级站4公用变,城东站511伊家铺新村,北韩村路公用变,东关三级站新村公用变,十里湾北公用变,十里湾河滩公用变,张家村西公用变,实验小学,十里湾后片2公用变,城东站511伊家铺新村2号,张家村中公用变,书香苑小区公用变,张家村北公用变,城东站511同顺小区公用变,张家村公用变,林业局公用变,林业局,裕康小区公用变,城东站511小北关磁卡表1,城东站511四中学校公用变,东关三级站球馆公用变,南韩村公用变,矿产公用变,传输局,同裕街公用变箱变出线间隔配电变压器,小北关磁卡表2公用变,","scope":"【影响街道/乡镇】北外环、北韩村路、城关镇、城区办【高危重要客户】无【影响客户】城里村、书香苑小区、王小峰家属楼、四中小区、温元贵小区、青年新城小区、养老院、艺唐小区、民富佳苑、富兴小区、东关、小北关、城里新村、石里湾、张家村、南韩村、建材小区、矿产小区、同顺小区、伊家铺新村、朝阳花园小区、第二小学、羽毛球馆附近","startTime":"2020-03-27 14:30:03","stopDate":"2020-03-27 17:30:00","orgNo":"1340615","typeCode":"电网故障停限电","poweroffArea":"【全线路停电】停城东站511小北关磁卡表1,太行建筑有限公司变压器,城东站511四中学校公用变,0601734087-涞源县住房和城乡建设局-专变-126787694-涞源县住房和城乡建设局变压器3,0469104686-博爱学校-专变-46719947-博爱学校,南韩村公用变,0469102130-博爱学校-专变-46719946-博爱学校,0469105588-涞源县李金文沙石厂-专变-125021912-涞源县李金文沙石厂变压器,保定龙氏水务工程有限公司变压器,传输局,同裕街公用变箱变出线间隔配电变压器,小北关磁卡表2公用变,东关三级站球馆公用变,涞源县帝景物业服务有限公司变压器1,涞源县帝景物业服务有限公司变压器2,养老院公用变,涞源县帝景物业服务有限公司变压器3,0469103742-涞源县鸿程环保空心砖厂-专变-46719938-涞源县鸿程环保空心砖厂,0584106349-涞源县白石山茁旺农牧产品有限公司-专变-124952619-涞源县白石山茁旺农牧产品有限公司变压器,涞源县住房和城乡建设局变压器,矿产公用变,0469106578-昌源建材公司-专变-46719932-昌源建材公司,张家村西公用变,实验小学,涞源县住房和城乡建设局变压器2,涞源县实验小学变压器,十里湾后片2公用变,城东站511伊家铺新村2号,张家村中公用变,十里湾华阳片公用变,城东站511三级站新村公用变,0597293566-河北林凯房地产开发有限公司-专变-126315510-河北林凯房地产开发有限公司变压器,城里新村2号公用变,0469106565-河北保定水务投资有限公司涞源水厂-专变-46719926-保定水务公司涞源水厂,新城里新村公用变,石李湾靶场公用变,0469106552-河北保定水务投资有限公司涞源水厂-专变-46719925-保定水务公司涞源水厂,0469104891-河北保定水务投资有限公司涞源水厂-专变-46719924-保定水务公司涞源水厂,涞源县梅涵达房地产开发有限公司变压器6,北韩村路公用变,涞源县妇幼保健院变压器,河北林凯房地产开发有限公司变压器,东关三级站新村公用变,十里湾北公用变,十里湾河滩公用变,城东站511艺唐小区公用变,东关三级站4公用变,涞源县太行建筑有限公司变压器,城东站511伊家铺新村,涞源县气象局变压器,0469104790-妥小伟-专变-46719755-妥小伟,涞源县大北关社区卫生服务中心变压器,涞源县博爱学校变压器,0469105676-中国铁塔股份有限公司保定市分公司-专变-46719752-中国移动通信集团河北有限公司涞源,0469103162-华阳公司-专变-46719751-华阳公司,城里新村公用变,河北林凯房地产开发有限公司变压器1,书香苑小区公用变,涞源县城区办事处福寿路居民委员会变压器,张家村北公用变,城东站511同顺小区公用变,张家村公用变,林业局公用变,林业局,涞源县梅涵达房地产开发有限公司变压器7,裕康小区公用变","poweroffReason":"【停电原因】由于Ｃ相接地导致３５ＫＶ城北变电站１０ＫＶ北环线５１２线路全线停电【变更送电】因抢修进度加快，原定１８：２９送电现计划１７：３０送电【发布渠道】通过９５５９８发布","powerTime":"2020-03-27 16:58:16","powerComm":"已送电","subsNo":"","lineNo":"","tgNo":"","tgName":null,"infoStatus":"1","orgName":"国网涞源县供电公司","typeName":null,"infoStatusName":null,"dateDay":null,"orgNos":null,"nowTime":null,"countyName":null,"streetName":null,"villageName":null,"roadName":null,"communityName":null,"tranName":null,"sdLineName":null,"cityCode":"1340615","cityName":"国网涞源县供电公司","provinceCode":null,"stopTime":"2020-03-27 17:30:00","powerType":"全部","powerOffArea":"【全线路停电】停城东站511小北关磁卡表1,太行建筑有限公司变压器,城东站511四中学校公用变,0601734087-涞源县住房和城乡建设局-专变-126787694-涞源县住房和城乡建设局变压器3,0469104686-博爱学校-专变-46719947-博爱学校,南韩村公用变,0469102130-博爱学校-专变-46719946-博爱学校,0469105588-涞源县李金文沙石厂-专变-125021912-涞源县李金文沙石厂变压器,保定龙氏水务工程有限公司变压器,传输局,同裕街公用变箱变出线间隔配电变压器,小北关磁卡表2公用变,东关三级站球馆公用变,涞源县帝景物业服务有限公司变压器1,涞源县帝景物业服务有限公司变压器2,养老院公用变,涞源县帝景物业服务有限公司变压器3,0469103742-涞源县鸿程环保空心砖厂-专变-46719938-涞源县鸿程环保空心砖厂,0584106349-涞源县白石山茁旺农牧产品有限公司-专变-124952619-涞源县白石山茁旺农牧产品有限公司变压器,涞源县住房和城乡建设局变压器,矿产公用变,0469106578-昌源建材公司-专变-46719932-昌源建材公司,张家村西公用变,实验小学,涞源县住房和城乡建设局变压器2,涞源县实验小学变压器,十里湾后片2公用变,城东站511伊家铺新村2号,张家村中公用变,十里湾华阳片公用变,城东站511三级站新村公用变,0597293566-河北林凯房地产开发有限公司-专变-126315510-河北林凯房地产开发有限公司变压器,城里新村2号公用变,0469106565-河北保定水务投资有限公司涞源水厂-专变-46719926-保定水务公司涞源水厂,新城里新村公用变,石李湾靶场公用变,0469106552-河北保定水务投资有限公司涞源水厂-专变-46719925-保定水务公司涞源水厂,0469104891-河北保定水务投资有限公司涞源水厂-专变-46719924-保定水务公司涞源水厂,涞源县梅涵达房地产开发有限公司变压器6,北韩村路公用变,涞源县妇幼保健院变压器,河北林凯房地产开发有限公司变压器,东关三级站新村公用变,十里湾北公用变,十里湾河滩公用变,城东站511艺唐小区公用变,东关三级站4公用变,涞源县太行建筑有限公司变压器,城东站511伊家铺新村,涞源县气象局变压器,0469104790-妥小伟-专变-46719755-妥小伟,涞源县大北关社区卫生服务中心变压器,涞源县博爱学校变压器,0469105676-中国铁塔股份有限公司保定市分公司-专变-46719752-中国移动通信集团河北有限公司涞源,0469103162-华阳公司-专变-46719751-华阳公司,城里新村公用变,河北林凯房地产开发有限公司变压器1,书香苑小区公用变,涞源县城区办事处福寿路居民委员会变压器,张家村北公用变,城东站511同顺小区公用变,张家村公用变,林业局公用变,林业局,涞源县梅涵达房地产开发有限公司变压器7,裕康小区公用变","powerOffReason":"【停电原因】由于Ｃ相接地导致３５ＫＶ城北变电站１０ＫＶ北环线５１２线路全线停电【变更送电】因抢修进度加快，原定１８：２９送电现计划１７：３０送电【发布渠道】通过９５５９８发布","powerOffId":"2020032713000271"},{"poweroffId":2020032713000249,"sgpoweroffId":null,"subsName":"","lineName":"10kv514韩庄线","pubTranName":"兀术营北,驸马庄路边浇地变压器【纯农排变】,薛家营变压器,西菜园西变压器,西加录南变压器,西营变压器,西营南,","scope":"【影响街道/乡镇】新城镇 【高危重要客户】无 【影响客户】蔡各庄村（北蔡）、东加录村、东营村（东柴家营）、恩赐庄村、驸马庄村、里一村、柳各庄村、兀术营村、西菜园村、西加录村、西营村（西柴家营）、薛家营村、薛辛庄伙村、杨家务村、张贲营村、恩赐庄养殖厂、付马庄面粉厂、高碑店市鑫鹿新型建材厂、白沟子朝革塑制品有限公司、新城敬老院、高碑店市水利局、中国移动通信高碑店分公司、河北创世房地产、新城思玥户外用品加工厂、高碑店市隆顺干混砂浆制造有限公司、驸马庄幼儿园、张贲营中心小学、杨家务中心小学、高碑店市明伟新型建材有限公司","startTime":"2020-03-27 13:46:46","stopDate":"2020-03-27 16:00:00","orgNo":"1340612","typeCode":"电网故障停限电","poweroffArea":"【全线路停电】停薛家营水2变压器【纯农排变】,东加录水6变压器【纯农排变】,东营水变压器【纯农排变】,张贲营水变压器【纯农排变】,高碑店市民政局新城敬老院变压器,高碑店市新城镇张贲营中心小学变压器,西营南,张贲营西水变压器,兀术营北,东加录东变压器,里遗变压器,里遗南变压器,薛辛庄伙变压器,高碑店市电力局变压器,驸马庄路边浇地变压器【纯农排变】,西菜园变压器,驸马庄水3变压器,恩赐庄西变压器,河北创世房地产开发有限公司,张贲营水4变压器,薛辛庄伙水变压器【纯农排变】,东营西水变压器【纯农排变】,兀术营变压器,西加录变压器,高碑店市新城镇东加录中心小学,薛家营水变压器【纯农排变】,东营北变压器,东加录东北水变压器【纯农排变】,东营南水变压器,柳各庄变压器,高碑店市明伟新型建材有限公司2变压器,蔡各庄水变压器【纯农排变】,东加录东1变压器,西营变压器,西加录东南水【纯农排变】,杨家务水3变压器【纯农排变】,东营变压器,兀术营水变压器【纯农排变】,西加录东北水变压器【纯农排变】,驸马庄水变压器,恩赐庄养殖厂,里遗北变压器,客户投资_恩赐庄变压器,白沟通宝海绵纸厂变压器,西菜园西变压器,高碑店市白沟子朝革塑制品有限公司变压器,西营海开变压器【纯农排变】,驸马庄新西,达子营水变压器【纯农排变】,里遗水3变压器【纯农排变】,里遗水变压器【纯农排变】,西菜园水变压器,杨家务水2变压器【纯农排变】,西加录水变压器,东加录水变压器【纯农排变】,高碑店市水力局,薛家营南台变压器,东加录水5变压器【纯农排变】,西菜园北水变压器,柳各庄西南水变压器【纯农排变】,里遗水2变压器【纯农排变】,东加录正东水变压器【纯农排变】,东加录南水变压器【纯农排变】,高碑店市鑫鹿新型建材厂,大陈庄水变压器50【纯农排变】,薛家营变压器,杨家务东台混用变压器,驸马庄西水变压器【纯农排变】,柳各庄水3变压器,高碑店市明伟新型建材有限公司1变压器,驸马庄北地变压器【纯农排变】,高碑店市新城镇总校附马庄幼儿园变压器,张贲营西变压器,高碑店市新城镇杨家务中心小学变压器,付马庄面粉厂,东加录南变压器,西加录北水变压器【纯农排变】,西加录西水变压器【纯农排变】,恩赐庄村3变压器,驸马庄西变压器,张贲营南水变压器【纯农排变】,张贲营水5变压器,中国移动通信集体河北有限公司高碑店分公司,裴永金变压器,张贲营东变压器,驸马庄路边变压器,蔡各庄南,西加录南变压器,杨家务变压器,柳各庄西北水变压器【纯农排变】,东加录变压器,蔡各庄北变压器,0677241775-高碑店市隆顺干混砂浆制造有限公司-专变-217785147-高碑店市隆顺干混砂浆制造有限公司变压器,蔡各庄变压器,西营水变压器【纯农排变】,蔡各庄水2变压器【纯农排变】,石辛庄水2变压器【纯农排变】,柳各庄水变压器,驸马庄东变压器,杨家务水变压器,驸马庄南变压器","poweroffReason":"【停电原因】由于杨家务大分支有塑料布刮在线上导致３５ＫＶ加录变电站１０ＫＶ韩庄５１４线路全线停电 【变更送电】因抢修进度加快原因，送电时间由２０：００变更为１６：００ 【发布渠道】通过９５５９８发布","powerTime":"2020-03-27 15:55:51","powerComm":"已送电","subsNo":"","lineNo":"","tgNo":"","tgName":null,"infoStatus":"1","orgName":"国网高碑店市供电公司","typeName":null,"infoStatusName":null,"dateDay":null,"orgNos":null,"nowTime":null,"countyName":null,"streetName":null,"villageName":null,"roadName":null,"communityName":null,"tranName":null,"sdLineName":null,"cityCode":"1340612","cityName":"国网高碑店市供电公司","provinceCode":null,"stopTime":"2020-03-27 16:00:00","powerType":"全部","powerOffArea":"【全线路停电】停薛家营水2变压器【纯农排变】,东加录水6变压器【纯农排变】,东营水变压器【纯农排变】,张贲营水变压器【纯农排变】,高碑店市民政局新城敬老院变压器,高碑店市新城镇张贲营中心小学变压器,西营南,张贲营西水变压器,兀术营北,东加录东变压器,里遗变压器,里遗南变压器,薛辛庄伙变压器,高碑店市电力局变压器,驸马庄路边浇地变压器【纯农排变】,西菜园变压器,驸马庄水3变压器,恩赐庄西变压器,河北创世房地产开发有限公司,张贲营水4变压器,薛辛庄伙水变压器【纯农排变】,东营西水变压器【纯农排变】,兀术营变压器,西加录变压器,高碑店市新城镇东加录中心小学,薛家营水变压器【纯农排变】,东营北变压器,东加录东北水变压器【纯农排变】,东营南水变压器,柳各庄变压器,高碑店市明伟新型建材有限公司2变压器,蔡各庄水变压器【纯农排变】,东加录东1变压器,西营变压器,西加录东南水【纯农排变】,杨家务水3变压器【纯农排变】,东营变压器,兀术营水变压器【纯农排变】,西加录东北水变压器【纯农排变】,驸马庄水变压器,恩赐庄养殖厂,里遗北变压器,客户投资_恩赐庄变压器,白沟通宝海绵纸厂变压器,西菜园西变压器,高碑店市白沟子朝革塑制品有限公司变压器,西营海开变压器【纯农排变】,驸马庄新西,达子营水变压器【纯农排变】,里遗水3变压器【纯农排变】,里遗水变压器【纯农排变】,西菜园水变压器,杨家务水2变压器【纯农排变】,西加录水变压器,东加录水变压器【纯农排变】,高碑店市水力局,薛家营南台变压器,东加录水5变压器【纯农排变】,西菜园北水变压器,柳各庄西南水变压器【纯农排变】,里遗水2变压器【纯农排变】,东加录正东水变压器【纯农排变】,东加录南水变压器【纯农排变】,高碑店市鑫鹿新型建材厂,大陈庄水变压器50【纯农排变】,薛家营变压器,杨家务东台混用变压器,驸马庄西水变压器【纯农排变】,柳各庄水3变压器,高碑店市明伟新型建材有限公司1变压器,驸马庄北地变压器【纯农排变】,高碑店市新城镇总校附马庄幼儿园变压器,张贲营西变压器,高碑店市新城镇杨家务中心小学变压器,付马庄面粉厂,东加录南变压器,西加录北水变压器【纯农排变】,西加录西水变压器【纯农排变】,恩赐庄村3变压器,驸马庄西变压器,张贲营南水变压器【纯农排变】,张贲营水5变压器,中国移动通信集体河北有限公司高碑店分公司,裴永金变压器,张贲营东变压器,驸马庄路边变压器,蔡各庄南,西加录南变压器,杨家务变压器,柳各庄西北水变压器【纯农排变】,东加录变压器,蔡各庄北变压器,0677241775-高碑店市隆顺干混砂浆制造有限公司-专变-217785147-高碑店市隆顺干混砂浆制造有限公司变压器,蔡各庄变压器,西营水变压器【纯农排变】,蔡各庄水2变压器【纯农排变】,石辛庄水2变压器【纯农排变】,柳各庄水变压器,驸马庄东变压器,杨家务水变压器,驸马庄南变压器","powerOffReason":"【停电原因】由于杨家务大分支有塑料布刮在线上导致３５ＫＶ加录变电站１０ＫＶ韩庄５１４线路全线停电 【变更送电】因抢修进度加快原因，送电时间由２０：００变更为１６：００ 【发布渠道】通过９５５９８发布","powerOffId":"2020032713000249"},{"poweroffId":2020032713000221,"sgpoweroffId":null,"subsName":"","lineName":"10KV华阳桥520","pubTranName":"长岭村南,","scope":"【影响街道/乡镇】清凉寺城区 【高危重要客户】无 【影响客户】长岭村","startTime":"2020-03-27 12:31:30","stopDate":"2020-03-27 14:30:00","orgNo":"1340626","typeCode":"电网故障停限电","poweroffArea":"【单台区停电】停长岭村南","poweroffReason":"【停电原因】由于低压空开烧毁导致１１０ＫＶ塔上变电站１０ＫＶ华阳桥５２０线路长岭村南公变台区停电 【变更送电】因抢修进度加快原因，送电时间由２１：００变更为１４：３０ 【发布渠道】通过９５５９８发布","powerTime":"2020-03-27 14:10:14","powerComm":"已送电","subsNo":"","lineNo":"","tgNo":"","tgName":null,"infoStatus":"1","orgName":"国网涿州市供电公司","typeName":null,"infoStatusName":null,"dateDay":null,"orgNos":null,"nowTime":null,"countyName":null,"streetName":null,"villageName":null,"roadName":null,"communityName":null,"tranName":null,"sdLineName":null,"cityCode":"1340626","cityName":"国网涿州市供电公司","provinceCode":null,"stopTime":"2020-03-27 14:30:00","powerType":"全部","powerOffArea":"【单台区停电】停长岭村南","powerOffReason":"【停电原因】由于低压空开烧毁导致１１０ＫＶ塔上变电站１０ＫＶ华阳桥５２０线路长岭村南公变台区停电 【变更送电】因抢修进度加快原因，送电时间由２１：００变更为１４：３０ 【发布渠道】通过９５５９８发布","powerOffId":"2020032713000221"},{"poweroffId":2020032713000218,"sgpoweroffId":null,"subsName":"","lineName":"10kV513沙口线","pubTranName":"南沙口农排5台区【纯农排变】,南沙口综合27台区变压器,南沙口综合1台,南沙口综合4台区,南沙口综合32台区变压器,南沙口综合16台区,南沙口综合9台区,南沙口综合18台区,南沙口农排3台区【纯农排变】,南沙口综合15台区,南沙口综合10台区,南沙口综合12台区,南沙口综合33台区变压器,南沙口农排7台区【纯农排变】,南沙口综合8台区,南沙口综合6台区,南沙口综合14台区,南沙口综合23台区变压器,南沙口农排6台区【纯农排变】,南沙口综合2台区,南沙口农排9台区【纯农排变】,南沙口综合25台区变压器,南沙口综合19台区,南沙口综合31台区变压器,南沙口综合20台区,南沙口综合28台区变压器,南沙口农排10台区【纯农排变】,南沙口综合29台区变压器,南沙口综合11台区,南沙口综合30台区变压器,南沙口综合3台区,南沙口综合7台区,南沙口综合26台区变压器,南沙口综合21台区,南沙口综合17台区,南沙口综合5台区,南沙口农排2台区【纯农排变】,南沙口综合24台区变压器,","scope":"【影响街道/乡镇】辛兴镇【高危重要客户】无【影响客户】南沙口村","startTime":"2020-03-27 12:35:12","stopDate":"2020-03-27 14:00:00","orgNo":"1340616","typeCode":"电网故障停限电","poweroffArea":"【分支停电】停南沙口农排5台区【纯农排变】,南沙口综合27台区变压器,南沙口综合1台,南沙口综合4台区,南沙口综合32台区变压器,南沙口综合16台区,南沙口综合9台区,南沙口综合18台区,南沙口农排3台区【纯农排变】,南沙口综合15台区,南沙口综合10台区,南沙口综合12台区,南沙口综合33台区变压器,南沙口农排7台区【纯农排变】,南沙口综合8台区,南沙口综合6台区,南沙口综合14台区,南沙口综合23台区变压器,南沙口农排6台区【纯农排变】,南沙口综合2台区,南沙口农排9台区【纯农排变】,南沙口综合25台区变压器,南沙口综合19台区,南沙口综合31台区变压器,南沙口综合20台区,南沙口综合28台区变压器,南沙口农排10台区【纯农排变】,南沙口综合29台区变压器,南沙口综合11台区,南沙口综合30台区变压器,南沙口综合3台区,南沙口综合7台区,南沙口综合26台区变压器,南沙口综合21台区,南沙口综合17台区,南沙口综合5台区,南沙口农排2台区【纯农排变】,南沙口综合24台区变压器","poweroffReason":"【停电原因】由于站外开关掉闸导致１１０ＫＶ辛兴变电站１０ＫＶ沙口５１３线路０４８１支线０１６号杆０１号开关以下线路停电【变更送电】因抢修进度加快原因，送电时间由１８：００变更为１４：００【发布渠道】通过９５５９８发布","powerTime":"2020-03-27 13:51:54","powerComm":"已送电","subsNo":"","lineNo":"","tgNo":"","tgName":null,"infoStatus":"1","orgName":"国网蠡县供电公司","typeName":null,"infoStatusName":null,"dateDay":null,"orgNos":null,"nowTime":null,"countyName":null,"streetName":null,"villageName":null,"roadName":null,"communityName":null,"tranName":null,"sdLineName":null,"cityCode":"1340616","cityName":"国网蠡县供电公司","provinceCode":null,"stopTime":"2020-03-27 14:00:00","powerType":"全部","powerOffArea":"【分支停电】停南沙口农排5台区【纯农排变】,南沙口综合27台区变压器,南沙口综合1台,南沙口综合4台区,南沙口综合32台区变压器,南沙口综合16台区,南沙口综合9台区,南沙口综合18台区,南沙口农排3台区【纯农排变】,南沙口综合15台区,南沙口综合10台区,南沙口综合12台区,南沙口综合33台区变压器,南沙口农排7台区【纯农排变】,南沙口综合8台区,南沙口综合6台区,南沙口综合14台区,南沙口综合23台区变压器,南沙口农排6台区【纯农排变】,南沙口综合2台区,南沙口农排9台区【纯农排变】,南沙口综合25台区变压器,南沙口综合19台区,南沙口综合31台区变压器,南沙口综合20台区,南沙口综合28台区变压器,南沙口农排10台区【纯农排变】,南沙口综合29台区变压器,南沙口综合11台区,南沙口综合30台区变压器,南沙口综合3台区,南沙口综合7台区,南沙口综合26台区变压器,南沙口综合21台区,南沙口综合17台区,南沙口综合5台区,南沙口农排2台区【纯农排变】,南沙口综合24台区变压器","powerOffReason":"【停电原因】由于站外开关掉闸导致１１０ＫＶ辛兴变电站１０ＫＶ沙口５１３线路０４８１支线０１６号杆０１号开关以下线路停电【变更送电】因抢修进度加快原因，送电时间由１８：００变更为１４：００【发布渠道】通过９５５９８发布","powerOffId":"2020032713000218"},{"poweroffId":2020032713000185,"sgpoweroffId":null,"subsName":"","lineName":"李各庄线527","pubTranName":"姜庄西农新增,","scope":"【影响街道/乡镇】赵庄乡 【高危重要客户】无　　 【影响客户】姜庄村","startTime":"2020-04-09 06:00:00","stopDate":"2020-04-09 17:00:00","orgNo":"1340623","typeCode":"计划停电","poweroffArea":"【单台区停电】停姜庄西农新增","poweroffReason":"【停电原因】由于更换变压器导致１１０ＫＶ八里庄变电站李各庄线５２７线路姜庄西农新增公变台区停电 【变更送电】因工作提前完工原因，送电时间由１８：００变更为１７：００ 【发布渠道】保定市望都有线电视台屏幕上方滚动","powerTime":"2020-04-09 16:47:27","powerComm":"已送电","subsNo":"","lineNo":"","tgNo":"","tgName":null,"infoStatus":"1","orgName":"国网望都县供电公司","typeName":null,"infoStatusName":null,"dateDay":null,"orgNos":null,"nowTime":null,"countyName":null,"streetName":null,"villageName":null,"roadName":null,"communityName":null,"tranName":null,"sdLineName":null,"cityCode":"1340623","cityName":"国网望都县供电公司","provinceCode":null,"stopTime":"2020-04-09 17:00:00","powerType":"全部","powerOffArea":"【单台区停电】停姜庄西农新增","powerOffReason":"【停电原因】由于更换变压器导致１１０ＫＶ八里庄变电站李各庄线５２７线路姜庄西农新增公变台区停电 【变更送电】因工作提前完工原因，送电时间由１８：００变更为１７：００ 【发布渠道】保定市望都有线电视台屏幕上方滚动","powerOffId":"2020032713000185"},{"poweroffId":2020032713000137,"sgpoweroffId":null,"subsName":"","lineName":"10kV黄陀线528","pubTranName":"大福村外4【纯农排变】,2黄陀外9【纯农排变】,大福村新民居C区,大福村新民居B区,黄陀外8【纯农排变】,大福村新民居02,1黄陀内11,黄陀外19【纯农排变】,大福村新民居（B区）,1黄陀内2,黄陀外14【纯农排变】,1黄陀内14,1大福村内15,黄陀外13【纯农排变】,1黄陀内3,2黄陀外7【纯农排变】,大福村新民居,黄陀外15【纯农排变】,1黄陀村内10,1黄陀内13,黄陀外21【纯农排变】,2大福村外14【纯农排变】,大福村新民居D区01,大福村新民居01,黄陀外16【纯农排变】,2黄陀外5【纯农排变】,1黄陀内8,黄陀内5,黄陀外20【纯农排变】,黄陀外6【纯农排变】,大福村新民居D区,大福村外2【纯农排变】,黄陀外17【纯农排变】,1黄陀村内9,2黄陀外10【纯农排变】,西福村内8,大付村外3【纯农排变】,清苑县镇中学1,西福村内9,2大付村外1【纯农排变】,2大福村外5【纯农排变】,","scope":"【影响街道/乡镇】石桥乡、清苑镇 【高危重要客户】无 【影响客户】黄陀村、大福村、大福村新民居、清苑镇中学、西福村","startTime":"2020-03-29 05:30:00","stopDate":"2020-03-29 18:00:00","orgNo":"1340618","typeCode":"临时停电","poweroffArea":"【分支停电】停大福村外4【纯农排变】,2黄陀外9【纯农排变】,大福村新民居C区,大福村新民居B区,黄陀外8【纯农排变】,大福村新民居02,1黄陀内11,黄陀外19【纯农排变】,大福村新民居（B区）,1黄陀内2,黄陀外14【纯农排变】,1黄陀内14,1大福村内15,黄陀外13【纯农排变】,1黄陀内3,2黄陀外7【纯农排变】,大福村新民居,黄陀外15【纯农排变】,1黄陀村内10,1黄陀内13,黄陀外21【纯农排变】,2大福村外14【纯农排变】,大福村新民居D区01,大福村新民居01,大福村新民居D区,黄陀外16【纯农排变】,2黄陀外5【纯农排变】,1黄陀内8,黄陀内5,黄陀外20【纯农排变】,黄陀外6【纯农排变】,大福村外2【纯农排变】,2大福村外5【纯农排变】,黄陀外17【纯农排变】,1黄陀村内9,2黄陀外10【纯农排变】,西福村内8,大付村外3【纯农排变】,清苑县镇中学1,西福村内9,2大付村外1【纯农排变】","poweroffReason":"【停电原因】由于线路清扫检修导致１１０ＫＶ中冉变电站１０ＫＶ黄陀线５２８线路主干９７号杆Ｔ１号杆至东Ｔ９号杆东Ｔ５８号杆东Ｔ６３号杆停电 【变更送电】无 【发布渠道】通过９５５９８发布","powerTime":"2020-03-29 17:51:15","powerComm":"黎铁通知已送电","subsNo":"","lineNo":"","tgNo":"","tgName":null,"infoStatus":"1","orgName":"国网清苑县供电公司","typeName":null,"infoStatusName":null,"dateDay":null,"orgNos":null,"nowTime":null,"countyName":null,"streetName":null,"villageName":null,"roadName":null,"communityName":null,"tranName":null,"sdLineName":null,"cityCode":"1340618","cityName":"国网清苑县供电公司","provinceCode":null,"stopTime":"2020-03-29 18:00:00","powerType":"全部","powerOffArea":"【分支停电】停大福村外4【纯农排变】,2黄陀外9【纯农排变】,大福村新民居C区,大福村新民居B区,黄陀外8【纯农排变】,大福村新民居02,1黄陀内11,黄陀外19【纯农排变】,大福村新民居（B区）,1黄陀内2,黄陀外14【纯农排变】,1黄陀内14,1大福村内15,黄陀外13【纯农排变】,1黄陀内3,2黄陀外7【纯农排变】,大福村新民居,黄陀外15【纯农排变】,1黄陀村内10,1黄陀内13,黄陀外21【纯农排变】,2大福村外14【纯农排变】,大福村新民居D区01,大福村新民居01,大福村新民居D区,黄陀外16【纯农排变】,2黄陀外5【纯农排变】,1黄陀内8,黄陀内5,黄陀外20【纯农排变】,黄陀外6【纯农排变】,大福村外2【纯农排变】,2大福村外5【纯农排变】,黄陀外17【纯农排变】,1黄陀村内9,2黄陀外10【纯农排变】,西福村内8,大付村外3【纯农排变】,清苑县镇中学1,西福村内9,2大付村外1【纯农排变】","powerOffReason":"【停电原因】由于线路清扫检修导致１１０ＫＶ中冉变电站１０ＫＶ黄陀线５２８线路主干９７号杆Ｔ１号杆至东Ｔ９号杆东Ｔ５８号杆东Ｔ６３号杆停电 【变更送电】无 【发布渠道】通过９５５９８发布","powerOffId":"2020032713000137"}],"pageModel":{"pageNow":220,"totalCount":10973,"totalPage":1098,"tableRows":0,"pageCount":10,"beginCount":2190},"isExperi":"1"}