{"message":"","today":"2020-06-15","seleList":[{"poweroffId":2020032713000133,"sgpoweroffId":null,"subsName":"","lineName":"安仁线558","pubTranName":"岐山庄南4号排灌变压器【纯农排变】,孤株东2号排灌变压器【纯农排变】,晋家营南变压器,晋家营变压器,董家营东1号排灌变压器【纯农排变】,罗里庄东北变压器,岐山庄西南变压器,杜辛庄东4号排灌变压器【纯农排变】,岐山庄东2号排灌变压器【纯农排变】,徐家营东1号排灌变压器【纯农排变】,岐山庄东北变压器,董家营西变压器,罗里庄东变压器,徐家营南台变压器,徐家营4号公变,岐山庄北3号排灌变压器【纯农排变】,安仁4号公变变压器,小青仲南4号公变,小青仲西3号公变,徐家营北变压器,小青仲北2号公变变压器,孤株南1号排灌变压器【纯农排变】,杜辛庄东5号排灌变压器【纯农排变】,罗里庄南磁卡变压器【纯农排变】,大青仲东变压器,","scope":"【影响街道/乡镇】辛桥乡 【高危重要客户】无 【影响客户】罗里庄村、晋家营村、泗水营村、安仁村、小青仲村、大青仲村、董家营村、徐家营村、岐山庄村、梁家营村、韩立珍、李文江、小青仲农场、辛桥中心卫生院、岐山庄面粉厂、岐山庄小学、乡土六坊农业合作社","startTime":"2020-03-27 10:47:35","stopDate":"2020-03-27 12:00:00","orgNo":"1340612","typeCode":"电网故障停限电","poweroffArea":"【全线路停电】停岐山庄东2号排灌变压器【纯农排变】,罗里庄北变压器,0710057790-河北金蔬旺蔬菜贸易有限责任公司02,罗里庄西3号排灌变压器【纯农排变】,高碑店市乡土六坊农产品购销农民专业合作社,安仁北水变压器【纯农排变】,徐家营东1号排灌变压器【纯农排变】,徐家营变压器,岐山庄东北变压器,李文江,大青仲南水变压器【纯农排变】,韩立珍,徐家营南台变压器,泗水营北水变压器【纯农排变】,高碑店市辛桥镇孤株学校变压器,杜辛庄排灌变压器【纯农排变】,歧山庄面粉厂,岐山庄北3号排灌变压器【纯农排变】,大青仲东磁卡变压器【纯农排变】,汤家营南水变压器【纯农排变】,汤家营北水变压器【纯农排变】,孤株东农变压器【纯农排变】,梁家营内变压器,小青仲北2号公变变压器,中国移动通信集团河北有限公司高碑店分公司,安仁北变压器,孤株南1号排灌变压器【纯农排变】,泗水营东北台变压器,小青仲西水变压器【纯农排变】,杜辛庄东5号排灌变压器【纯农排变】,汤家营西排灌变压器,汤家营东排灌变压器【纯农排变】,泗水营南水变压器【纯农排变】,大青仲北1号排灌变压器【纯农排变】,徐家营东磁卡变压器【纯农排变】,徐家营4号公变,小青仲农场,梁家营磁卡变压器【纯农排变】,小青仲西5号排灌变压器【纯农排变】,安仁4号公变变压器,小青仲南4号公变,小青仲西3号公变,徐家营北变压器,小青仲北2号排灌变压器【纯农排变】,大青仲东变压器,大青仲南2号排灌变压器【纯农排变】,大青仲西磁卡变压器【纯农排变】,岐山庄南4号排灌变压器【纯农排变】,汤家营东南台变压器,孤株东2号排灌变压器【纯农排变】,安仁村东变压器,辛桥中心卫生院,小青仲南3号排灌变压器【纯农排变】,晋家营西水变压器【纯农排变】,杜辛庄东2号排灌变压器【纯农排变】,晋家营南变压器,晋家营变压器,岐山庄水变压器【纯农排变】,董家营东1号排灌变压器【纯农排变】,0683322778-高碑店市乡土六坊农产品购销农民专业合作社-专变-222788076-高碑店市乡土六坊农产品购销农民专业合作社变压器,高碑店市辛桥镇岐山庄小学变压器,小青仲北变压器,泗水营水变压器【纯农排变】,罗里庄东北变压器,泗水营变压器,岐山庄东变压器,罗里庄东1号排灌变压器【纯农排变】,杜辛庄东4号排灌变压器【纯农排变】,小青仲南4号排灌变压器【纯农排变】,徐家营南磁卡变压器【纯农排变】,孤株南排灌变压器【纯农排变】,岐山庄北变压器,高碑店市辛桥镇小青冢中心小学变压器,小青仲北1号排灌变压器【纯农排变】,董家营南台变压器【纯农排变】,高碑店市辛桥镇罗里庄小学,罗里庄南磁卡变压器【纯农排变】,岐山庄南1号排灌变压器【纯农排变】,董家营变压器,孤株东北排灌变压器【纯农排变】,安仁南磁卡变压器【纯农排变】,罗里庄南1号公变变压器,歧山庄小学,河北金蔬旺蔬菜贸易有限责任公司01,梁家营南水变压器【纯农排变】,岐山庄西南变压器,杜辛庄东1号排灌变压器,董家营西变压器,歧山庄南水变压器【纯农排变】,小青仲南变压器,岐山庄东南水变压器【纯农排变】,小青仲排灌变压器【纯农排变】,安仁西变压器,岐山庄内变压器,大青仲变压器,小青仲内变压器,罗里庄水变压器【纯农排变】,罗里庄东变压器","poweroffReason":"【停电原因】由于京雄高速施工车辆碰大青仲南水分支０１－０２号杆之间架空导线导致１１０ＫＶ陈八庄变电站１０ＫＶ安仁５５８线路全线停电 【变更送电】因抢修进度加快原因，送电时间由１６：００变更为１２：００ 【发布渠道】通过９５５９８发布","powerTime":"2020-03-27 11:54:25","powerComm":"已送电","subsNo":"","lineNo":"","tgNo":"","tgName":null,"infoStatus":"1","orgName":"国网高碑店市供电公司","typeName":null,"infoStatusName":null,"dateDay":null,"orgNos":null,"nowTime":null,"countyName":null,"streetName":null,"villageName":null,"roadName":null,"communityName":null,"tranName":null,"sdLineName":null,"cityCode":"1340612","cityName":"国网高碑店市供电公司","provinceCode":null,"stopTime":"2020-03-27 12:00:00","powerType":"全部","powerOffArea":"【全线路停电】停岐山庄东2号排灌变压器【纯农排变】,罗里庄北变压器,0710057790-河北金蔬旺蔬菜贸易有限责任公司02,罗里庄西3号排灌变压器【纯农排变】,高碑店市乡土六坊农产品购销农民专业合作社,安仁北水变压器【纯农排变】,徐家营东1号排灌变压器【纯农排变】,徐家营变压器,岐山庄东北变压器,李文江,大青仲南水变压器【纯农排变】,韩立珍,徐家营南台变压器,泗水营北水变压器【纯农排变】,高碑店市辛桥镇孤株学校变压器,杜辛庄排灌变压器【纯农排变】,歧山庄面粉厂,岐山庄北3号排灌变压器【纯农排变】,大青仲东磁卡变压器【纯农排变】,汤家营南水变压器【纯农排变】,汤家营北水变压器【纯农排变】,孤株东农变压器【纯农排变】,梁家营内变压器,小青仲北2号公变变压器,中国移动通信集团河北有限公司高碑店分公司,安仁北变压器,孤株南1号排灌变压器【纯农排变】,泗水营东北台变压器,小青仲西水变压器【纯农排变】,杜辛庄东5号排灌变压器【纯农排变】,汤家营西排灌变压器,汤家营东排灌变压器【纯农排变】,泗水营南水变压器【纯农排变】,大青仲北1号排灌变压器【纯农排变】,徐家营东磁卡变压器【纯农排变】,徐家营4号公变,小青仲农场,梁家营磁卡变压器【纯农排变】,小青仲西5号排灌变压器【纯农排变】,安仁4号公变变压器,小青仲南4号公变,小青仲西3号公变,徐家营北变压器,小青仲北2号排灌变压器【纯农排变】,大青仲东变压器,大青仲南2号排灌变压器【纯农排变】,大青仲西磁卡变压器【纯农排变】,岐山庄南4号排灌变压器【纯农排变】,汤家营东南台变压器,孤株东2号排灌变压器【纯农排变】,安仁村东变压器,辛桥中心卫生院,小青仲南3号排灌变压器【纯农排变】,晋家营西水变压器【纯农排变】,杜辛庄东2号排灌变压器【纯农排变】,晋家营南变压器,晋家营变压器,岐山庄水变压器【纯农排变】,董家营东1号排灌变压器【纯农排变】,0683322778-高碑店市乡土六坊农产品购销农民专业合作社-专变-222788076-高碑店市乡土六坊农产品购销农民专业合作社变压器,高碑店市辛桥镇岐山庄小学变压器,小青仲北变压器,泗水营水变压器【纯农排变】,罗里庄东北变压器,泗水营变压器,岐山庄东变压器,罗里庄东1号排灌变压器【纯农排变】,杜辛庄东4号排灌变压器【纯农排变】,小青仲南4号排灌变压器【纯农排变】,徐家营南磁卡变压器【纯农排变】,孤株南排灌变压器【纯农排变】,岐山庄北变压器,高碑店市辛桥镇小青冢中心小学变压器,小青仲北1号排灌变压器【纯农排变】,董家营南台变压器【纯农排变】,高碑店市辛桥镇罗里庄小学,罗里庄南磁卡变压器【纯农排变】,岐山庄南1号排灌变压器【纯农排变】,董家营变压器,孤株东北排灌变压器【纯农排变】,安仁南磁卡变压器【纯农排变】,罗里庄南1号公变变压器,歧山庄小学,河北金蔬旺蔬菜贸易有限责任公司01,梁家营南水变压器【纯农排变】,岐山庄西南变压器,杜辛庄东1号排灌变压器,董家营西变压器,歧山庄南水变压器【纯农排变】,小青仲南变压器,岐山庄东南水变压器【纯农排变】,小青仲排灌变压器【纯农排变】,安仁西变压器,岐山庄内变压器,大青仲变压器,小青仲内变压器,罗里庄水变压器【纯农排变】,罗里庄东变压器","powerOffReason":"【停电原因】由于京雄高速施工车辆碰大青仲南水分支０１－０２号杆之间架空导线导致１１０ＫＶ陈八庄变电站１０ＫＶ安仁５５８线路全线停电 【变更送电】因抢修进度加快原因，送电时间由１６：００变更为１２：００ 【发布渠道】通过９５５９８发布","powerOffId":"2020032713000133"},{"poweroffId":2020032713000125,"sgpoweroffId":null,"subsName":"","lineName":"东马营512","pubTranName":"马张南变压器,李张北变压器,李张西变压器,丰元庄变压器,东一西变压器,东二中变压器,何张南变压器,胡街新变压器,后院地西变压器,高张变压器,何张变压器,高张南变压器,东四南变压器,保定营中变压器,东二变压器,井村南变压器,东五变压器,丰元庄西变压器,马张西变压器,东马营镇政府变压器,东二东变压器,客户投资_东四西变压器,张村学校变压器,马张东变压器,东五西变压器,井村西变压器,李张南变压器,吴街西变压器,赵张北变压器,后院变压器,赵张南变压器,郭街村东变压器,东三变压器,东一变压器,赵张东变压器,吴街变压器,东三东变压器,胡街浇地1变压器【纯农排变】,郭街变压器,胡街地东变压器【纯农排变】,胡街变压器,井村变压器,马张变压器,米张变压器,米张东变压器,东四变压器,东四小一变压器,东三西变压器,东三新架变压器,后院西变压器,胡街地北变压器【纯农排变】,保定营变压器,","scope":"【影响街道/乡镇】东马营镇 【高危重要客户】无 【影响客户】东一、东二、东三、东四、东五、井村、赵张、高张、米张、马张、李张、何张、丰元庄、胡街、吴街、后院、保定营、郭街、东马营镇政府、艳秋压铸厂、鑫天龙无纺布、神达化工、宋立军、孙栓良、东马营童星幼儿园、保定捷达箱包、东润物业、天润小区、东马营水厂、东马营卫生院、标爵脚垫卷材厂、天澍、赵明、徐二群、倒虹吸、乡直、蓝通热力、鹏泽房地产、张国林、李和平、同兴畜牧、东马营中学、马张小学、高张小学、知途箱包、吴斌","startTime":"2020-03-27 10:41:42","stopDate":"2020-03-27 12:00:00","orgNo":"1340612","typeCode":"电网故障停限电","poweroffArea":"【全线路停电】停何张变压器,东一西变压器,东三新架变压器,马张南变压器,东马营镇政府变压器,东二东变压器,井村变压器,马张变压器,米张变压器,东三变压器,东一变压器,赵张东变压器,高张变压器,高张南变压器,东四南变压器,马张东变压器,保定营中变压器,东二变压器,赵张南变压器,郭街村东变压器,吴街变压器,客户投资_东四西变压器,张村学校变压器,井村西变压器,胡街地东变压器【纯农排变】,后院西变压器,赵张北变压器,后院变压器,马张西变压器,李张南变压器,何张南变压器,胡街新变压器,东五变压器,丰元庄西变压器,东三东变压器,胡街浇地1变压器【纯农排变】,郭街变压器,米张东变压器,东四变压器,东四小一变压器,东三西变压器,李张北变压器,丰元庄变压器,东二中变压器,李张西变压器,东五西变压器,井村南变压器,胡街地北变压器【纯农排变】,保定营变压器,吴街西变压器,胡街变压器,马张地北变压器【纯农排变】,高碑店市天龙旅游用品有限责任公司变压器,东二地变压器,吴街排灌变压器【纯农排变】,何张地变压器【纯农排变】,盖春明,米张地变压器【纯农排变】,东马营中学,高碑店市同兴畜牧有限公司（井村）变压器,东四东,张国林养殖厂,高碑店市东马营中学,郭街南排变压器【纯农排变】,李张地北变压器【纯农排变】,东五南排变压器【纯农排变】,保定蓝通热力有限公司,东五地西变压器,宋立军,徐二群,乡直,东三地中变压器【纯农排变】,李张浇地变压器【纯农排变】,赵张地变压器【纯农排变】,东四地北变压器,卫生所,东四方地变压器【纯农排变】,孙栓良,吴街地变压器【纯农排变】,高碑店市东润物业服务有限公司,高碑店市东马营镇高张村幼儿园变压器,后院地变压器【纯农排变】,天澍公司,东四浇地变压器,林场砖厂,保北育林基地,张福林,丰元庄浇地变压器【纯农排变】,张克龙,高碑店市东马营标爵汽车卷材加工厂变压器,高碑店市东马营鑫天龙无纺布加工厂变压器,保定捷达箱包制造有限公司,倒洪吸变压器,高碑店市鹏泽房地产开发有限责任公司变压器02,高碑店市东马营中学变压器,高碑店市沃土土地整平服务有限公司01,吴斌,东五北排变压器【纯农排变】,中学地北变压器【纯农排变】,井村地西变压器【纯农排变】,高碑店市东马营童星幼儿园,东二地西变压器,胡街浇地2变压器【纯农排变】,后院排灌变压器【纯农排变】,河北圣杰包装制品有限公司,后院地西变压器,保定营北变压器【纯农排变】,汪庄地【纯农排变】,高张地变压器【纯农排变】,高碑店市鹏泽房地产开发有限责任公司变压器01,东一排灌变压器【纯农排变】,井村地变压器【纯农排变】,保定知途箱包制造有限公司变压器,高碑店市东马营镇沈各庄中心校变压器,东马营水厂,东三地西,高碑店市沃土土地整平服务有限公司02,高碑店市艳秋压铸厂变压器,东三地东变压器","poweroffReason":"【停电原因】由于京雄高速施工车辆撞断后院排灌分支０３号杆导致１１０ＫＶ白沟变电站１０ＫＶ东马营５１２线路全线停电 【变更送电】因抢修进度加快原因，送电时间由１６：００变更为１２：００ 【发布渠道】通过９５５９８发布","powerTime":"2020-03-27 11:25:17","powerComm":"已送电","subsNo":"","lineNo":"","tgNo":"","tgName":null,"infoStatus":"1","orgName":"国网高碑店市供电公司","typeName":null,"infoStatusName":null,"dateDay":null,"orgNos":null,"nowTime":null,"countyName":null,"streetName":null,"villageName":null,"roadName":null,"communityName":null,"tranName":null,"sdLineName":null,"cityCode":"1340612","cityName":"国网高碑店市供电公司","provinceCode":null,"stopTime":"2020-03-27 12:00:00","powerType":"全部","powerOffArea":"【全线路停电】停何张变压器,东一西变压器,东三新架变压器,马张南变压器,东马营镇政府变压器,东二东变压器,井村变压器,马张变压器,米张变压器,东三变压器,东一变压器,赵张东变压器,高张变压器,高张南变压器,东四南变压器,马张东变压器,保定营中变压器,东二变压器,赵张南变压器,郭街村东变压器,吴街变压器,客户投资_东四西变压器,张村学校变压器,井村西变压器,胡街地东变压器【纯农排变】,后院西变压器,赵张北变压器,后院变压器,马张西变压器,李张南变压器,何张南变压器,胡街新变压器,东五变压器,丰元庄西变压器,东三东变压器,胡街浇地1变压器【纯农排变】,郭街变压器,米张东变压器,东四变压器,东四小一变压器,东三西变压器,李张北变压器,丰元庄变压器,东二中变压器,李张西变压器,东五西变压器,井村南变压器,胡街地北变压器【纯农排变】,保定营变压器,吴街西变压器,胡街变压器,马张地北变压器【纯农排变】,高碑店市天龙旅游用品有限责任公司变压器,东二地变压器,吴街排灌变压器【纯农排变】,何张地变压器【纯农排变】,盖春明,米张地变压器【纯农排变】,东马营中学,高碑店市同兴畜牧有限公司（井村）变压器,东四东,张国林养殖厂,高碑店市东马营中学,郭街南排变压器【纯农排变】,李张地北变压器【纯农排变】,东五南排变压器【纯农排变】,保定蓝通热力有限公司,东五地西变压器,宋立军,徐二群,乡直,东三地中变压器【纯农排变】,李张浇地变压器【纯农排变】,赵张地变压器【纯农排变】,东四地北变压器,卫生所,东四方地变压器【纯农排变】,孙栓良,吴街地变压器【纯农排变】,高碑店市东润物业服务有限公司,高碑店市东马营镇高张村幼儿园变压器,后院地变压器【纯农排变】,天澍公司,东四浇地变压器,林场砖厂,保北育林基地,张福林,丰元庄浇地变压器【纯农排变】,张克龙,高碑店市东马营标爵汽车卷材加工厂变压器,高碑店市东马营鑫天龙无纺布加工厂变压器,保定捷达箱包制造有限公司,倒洪吸变压器,高碑店市鹏泽房地产开发有限责任公司变压器02,高碑店市东马营中学变压器,高碑店市沃土土地整平服务有限公司01,吴斌,东五北排变压器【纯农排变】,中学地北变压器【纯农排变】,井村地西变压器【纯农排变】,高碑店市东马营童星幼儿园,东二地西变压器,胡街浇地2变压器【纯农排变】,后院排灌变压器【纯农排变】,河北圣杰包装制品有限公司,后院地西变压器,保定营北变压器【纯农排变】,汪庄地【纯农排变】,高张地变压器【纯农排变】,高碑店市鹏泽房地产开发有限责任公司变压器01,东一排灌变压器【纯农排变】,井村地变压器【纯农排变】,保定知途箱包制造有限公司变压器,高碑店市东马营镇沈各庄中心校变压器,东马营水厂,东三地西,高碑店市沃土土地整平服务有限公司02,高碑店市艳秋压铸厂变压器,东三地东变压器","powerOffReason":"【停电原因】由于京雄高速施工车辆撞断后院排灌分支０３号杆导致１１０ＫＶ白沟变电站１０ＫＶ东马营５１２线路全线停电 【变更送电】因抢修进度加快原因，送电时间由１６：００变更为１２：００ 【发布渠道】通过９５５９８发布","powerOffId":"2020032713000125"},{"poweroffId":2020032713000037,"sgpoweroffId":null,"subsName":"","lineName":"10kV河口517线","pubTranName":"517大元13#配变,517大元3#配变,517大元10#配变,517白河4#配变,517白河7#配变,517南城区11#配变,517白河3#配变,517大元1#配变,517大元2#配变,517白河1#配变,517榆树工1#配变,517白河13#配变,阜平110站517线白河6#公用配变,517当家村1#配变,517白河8#配变,517大元新村配变,517白河11#配变,517大元7#配变,517南城区6#配变,517河口1#公用配变,","scope":"【影响街道/乡镇】阜平镇 【高危重要客户】无 【影响客户】南城区、养路工区、世纪城小区、白河村、榆树工、大元村、高尖、石湖村、化肥厂生活区、小树林、龙门醋厂、新远盛达、石湖铁厂、天河矿业、河口石材小区、恒源石材、德康石材、鸿霖热力公司、凯越宾馆、中国移动公司、电力小区、供电公司、环秀山庄、养路工区及住宅楼、城关镇政府、廉租房、白河回迁房、小坝、白河学校、瑞景新园、京鑫建设集团、御河上院、滨河美居、中交华北路桥、隆昌宾馆、城市管理行政执法局","startTime":"2020-03-27 08:54:53","stopDate":"2020-03-27 11:00:00","orgNo":"1340611","typeCode":"电网故障停限电","poweroffArea":"【全线路停电】停517南城区11#配变,517白河13#配变,517白河4#配变,阜平110站517线白河6#公用配变,517大元10#配变,517大元1#配变,517白河1#配变,517河口1#公用配变,517大元新村配变,517白河11#配变","poweroffReason":"【停电原因】由于车撞杆导致１１０ＫＶ阜平变电站１０ＫＶ河口５１７线路全线停电 【变更送电】因工作提前完成，送电时间由１１：００变更为９：４５ 【发布渠道】９５５９８","powerTime":"2020-03-27 09:28:36","powerComm":"已送电","subsNo":"","lineNo":"","tgNo":"","tgName":null,"infoStatus":"1","orgName":"国网阜平县供电公司","typeName":null,"infoStatusName":null,"dateDay":null,"orgNos":null,"nowTime":null,"countyName":null,"streetName":null,"villageName":null,"roadName":null,"communityName":null,"tranName":null,"sdLineName":null,"cityCode":"1340611","cityName":"国网阜平县供电公司","provinceCode":null,"stopTime":"2020-03-27 11:00:00","powerType":"全部","powerOffArea":"【全线路停电】停517南城区11#配变,517白河13#配变,517白河4#配变,阜平110站517线白河6#公用配变,517大元10#配变,517大元1#配变,517白河1#配变,517河口1#公用配变,517大元新村配变,517白河11#配变","powerOffReason":"【停电原因】由于车撞杆导致１１０ＫＶ阜平变电站１０ＫＶ河口５１７线路全线停电 【变更送电】因工作提前完成，送电时间由１１：００变更为９：４５ 【发布渠道】９５５９８","powerOffId":"2020032713000037"},{"poweroffId":2020032621000053,"sgpoweroffId":null,"subsName":"","lineName":"10kV七一路站531线路","pubTranName":"10kVD043箱式变电站变器间隔配电变压器,","scope":"【影响街道/乡镇】北市区、复兴路 【高危重要客户】无 【影响客户】 西苑北区","startTime":"2020-03-26 21:50:00","stopDate":"2020-03-27 00:30:00","orgNo":"13406","typeCode":"电网故障停限电","poweroffArea":"【单台区停电】停10kVD043箱式变电站变器间隔配电变压器","poweroffReason":"【停电原因】由于低压刀闸烧导致１０ＫＶ七一路变电站５３１线路Ｄ０４３公变台区停电【变更送电】因抢修进度加快，原定０２:００送电现计划００:３０送电【发布渠道】通过９５５９８发布","powerTime":"2020-03-27 00:15:37","powerComm":"已送电","subsNo":"","lineNo":"","tgNo":"","tgName":null,"infoStatus":"1","orgName":"保定供电公司","typeName":null,"infoStatusName":null,"dateDay":null,"orgNos":null,"nowTime":null,"countyName":null,"streetName":null,"villageName":null,"roadName":null,"communityName":null,"tranName":null,"sdLineName":null,"cityCode":"13406","cityName":"保定供电公司","provinceCode":null,"stopTime":"2020-03-27 00:30:00","powerType":"全部","powerOffArea":"【单台区停电】停10kVD043箱式变电站变器间隔配电变压器","powerOffReason":"【停电原因】由于低压刀闸烧导致１０ＫＶ七一路变电站５３１线路Ｄ０４３公变台区停电【变更送电】因抢修进度加快，原定０２:００送电现计划００:３０送电【发布渠道】通过９５５９８发布","powerOffId":"2020032621000053"},{"poweroffId":2020032621000051,"sgpoweroffId":null,"subsName":"","lineName":"10kV朝阳路站525线路","pubTranName":"10kVY0080.Y0081配电室Y0080配电变压器,10kVY0080.Y0081配电室Y0081配电变压器,","scope":"【影响街道/乡镇】新市区、天威路 【高危重要客户】无 【影响客户】晨魏佳欣","startTime":"2020-04-08 06:00:00","stopDate":"2020-04-08 09:00:00","orgNo":"13406","typeCode":"计划停电","poweroffArea":"【分支停电】停10kVY0080.Y0081配电室Y0081配电变压器,10kVY0080.Y0081配电室Y0080配电变压器","poweroffReason":"【停电原因】由于供电设备临时检修导致１０ＫＶ朝阳路变电站５２５线路１４２号杆以下停电【变更送电】无【发布渠道】保定市保定有线电视台（０３月３１日２０时１５分至２１时４５分之间）屏幕上滚动","powerTime":"2020-04-08 08:50:52","powerComm":"已送电","subsNo":"","lineNo":"","tgNo":"","tgName":null,"infoStatus":"1","orgName":"保定供电公司","typeName":null,"infoStatusName":null,"dateDay":null,"orgNos":null,"nowTime":null,"countyName":null,"streetName":null,"villageName":null,"roadName":null,"communityName":null,"tranName":null,"sdLineName":null,"cityCode":"13406","cityName":"保定供电公司","provinceCode":null,"stopTime":"2020-04-08 09:00:00","powerType":"全部","powerOffArea":"【分支停电】停10kVY0080.Y0081配电室Y0081配电变压器,10kVY0080.Y0081配电室Y0080配电变压器","powerOffReason":"【停电原因】由于供电设备临时检修导致１０ＫＶ朝阳路变电站５２５线路１４２号杆以下停电【变更送电】无【发布渠道】保定市保定有线电视台（０３月３１日２０时１５分至２１时４５分之间）屏幕上滚动","powerOffId":"2020032621000051"},{"poweroffId":2020032621000049,"sgpoweroffId":null,"subsName":"","lineName":"10kV江城站522线路","pubTranName":"0356216735-保定向阳塑料镀膜厂-专变,","scope":"【影响街道/乡镇】新市区、康庄路 【高危重要客户】无 【影响客户】煤气公司、向阳塑料镀膜厂、冀澳","startTime":"2020-04-11 06:00:00","stopDate":"2020-04-11 12:00:00","orgNo":"13406","typeCode":"计划停电","poweroffArea":"【分支停电】停0356216735-保定向阳塑料镀膜厂-专变","poweroffReason":"【停电原因】由于供电设备临时检修导致１０ＫＶ江城变电站５２２线路康庄路３９号分支引线以下停电【变更送电】无【发布渠道】保定市保定有线电视台（４月３日２０时１５分至２１时４５分之间）屏幕上滚动","powerTime":"2020-04-11 11:50:59","powerComm":"已送电","subsNo":"","lineNo":"","tgNo":"","tgName":null,"infoStatus":"1","orgName":"保定供电公司","typeName":null,"infoStatusName":null,"dateDay":null,"orgNos":null,"nowTime":null,"countyName":null,"streetName":null,"villageName":null,"roadName":null,"communityName":null,"tranName":null,"sdLineName":null,"cityCode":"13406","cityName":"保定供电公司","provinceCode":null,"stopTime":"2020-04-11 12:00:00","powerType":"全部","powerOffArea":"【分支停电】停0356216735-保定向阳塑料镀膜厂-专变","powerOffReason":"【停电原因】由于供电设备临时检修导致１０ＫＶ江城变电站５２２线路康庄路３９号分支引线以下停电【变更送电】无【发布渠道】保定市保定有线电视台（４月３日２０时１５分至２１时４５分之间）屏幕上滚动","powerOffId":"2020032621000049"},{"poweroffId":2020032621000034,"sgpoweroffId":null,"subsName":"","lineName":"10kV江城站522线路","pubTranName":"H0052柱上变压器,10kVB1529配电室B1529配电变压器,10kVB1530配电室B1530配电变压器,","scope":"【影响街道/乡镇】竞秀区、天威西路、天威中路 【高危重要客户】无 【影响客户】天威小区、电传厂宿舍、双鹰农机有限责任公司","startTime":"2020-04-11 06:00:00","stopDate":"2020-04-11 12:00:00","orgNo":"13406","typeCode":"计划停电","poweroffArea":"【分支停电】停10kVB1530配电室B1530配电变压器,H0052柱上变压器,10kVB1529配电室B1529配电变压器,0356172039-保定双鹰农机有限责任公司-2#专变,0356172026-保定双鹰农机有限责任公司-专变,0356172039-保定双鹰农机有限责任公司-1#专变","poweroffReason":"【停电原因】由于供电设备临时检修导致１０ＫＶ江城变电站５２２线路康庄路３８号分支开关以下停电【变更送电】无【发布渠道】保定市保定有线电视台（４月３日２０时１５分至２１时４５分之间）屏幕上滚动","powerTime":"2020-04-11 11:51:27","powerComm":"已送电","subsNo":"","lineNo":"","tgNo":"","tgName":null,"infoStatus":"1","orgName":"保定供电公司","typeName":null,"infoStatusName":null,"dateDay":null,"orgNos":null,"nowTime":null,"countyName":null,"streetName":null,"villageName":null,"roadName":null,"communityName":null,"tranName":null,"sdLineName":null,"cityCode":"13406","cityName":"保定供电公司","provinceCode":null,"stopTime":"2020-04-11 12:00:00","powerType":"全部","powerOffArea":"【分支停电】停10kVB1530配电室B1530配电变压器,H0052柱上变压器,10kVB1529配电室B1529配电变压器,0356172039-保定双鹰农机有限责任公司-2#专变,0356172026-保定双鹰农机有限责任公司-专变,0356172039-保定双鹰农机有限责任公司-1#专变","powerOffReason":"【停电原因】由于供电设备临时检修导致１０ＫＶ江城变电站５２２线路康庄路３８号分支开关以下停电【变更送电】无【发布渠道】保定市保定有线电视台（４月３日２０时１５分至２１时４５分之间）屏幕上滚动","powerOffId":"2020032621000034"},{"poweroffId":2020032621000025,"sgpoweroffId":null,"subsName":"","lineName":"10kV江城站512线路","pubTranName":"0356186654-大车辛-专变,0356466576-保定市天兴汽车零部件制造有限公司-专变,0708117420-保定景鹏房地产开发有限公司-900023002410,0366055674-保定市新市区环西养殖场-专变,C102柱上变压器,C144柱上变压器,C314柱上变压器,0366751732-保定市新市区颉庄乡康庄村村民委员会-专变,0708117420-保定景鹏房地产开发有限公司-900023000335,0356285481-保定市秀兰混凝土搅拌有限公司-箱式变-1-变压器-1,0708117420-保定景鹏房地产开发有限公司-900023000332,0357989443-保定吉达电力建设集团有限责任公司-专变,0356238645-大车-专变,0356238690-保定市金鼎盛伟业机械设备厂-专变,0356238704-保定市倚天超声波科技有限公司-专变,0356183336-保定华博自动化技术有限公司-专变,0710312514-保定景欣房地产开发有限公司-900023317470,0742668940-保定景兴房地产开发有限公司-900027942280,0358109543-保定市新市区颉庄乡郎庄村村民委员会-专变,0678379242-保定市天春初级食用农产品销售农民专业合作社-,0660641315-保定市鼎瑞塑料制品制造有限公司-专变-197265408-变压器,0357328680-保定市路灯管理处-1-箱式变-变压器-1,0356238674-保定市竞秀区丫丫餐厅-专变160kVA,0356186700-大车辛庄-专变,0715337936-保定市西湖体育中心建设指挥部-315KVA变压器-1#,0357328693-保定市路灯管理处-1-箱式变-变压器-1,0356186713-保定市葆荦菔纺织厂-专变,0357328677-保定市路灯管理处-1-箱式变-变压器-1,0356238632-颉庄大队康庄-专变,0356186683-大车辛庄大理石厂-专变,0743267337-河北天业创展房地产集团有限公司-900028053584,0356272960-保定市天兴汽车装饰材料有限公司-专变,0742668940-保定景兴房地产开发有限公司-900027948654,0742668940-保定景兴房地产开发有限公司-900027942275,C315柱上变压器,0742668940-保定景兴房地产开发有限公司-900027942270,0600676647-保定市新市区国辉机械加工厂-专变,C310柱上变压器,0708117420-保定景鹏房地产开发有限公司-900023000346,0691106106-保定市西湖体育中心建设指挥部-专变1,0667194991-保定市竞秀区颉庄乡大车辛庄社区村民委员会-专变-208267277-变压器,C143柱上变压器,0356228110-保定市鑫通电器设备有限公司-专变,C567柱上变压器,C309柱上变压器,0742668940-保定景兴房地产开发有限公司-900027948617,C103柱上变压器,0698548479-保定市竞秀区","scope":"【影响街道/乡镇】新市区、西二环、七一路、江城乡、颉庄乡、富昌乡 【高危重要客户】无 【影响客户】郎庄、大车村、东辛庄村、大车辛庄、康庄、秀兰庄园","startTime":"2020-03-26 09:50:00","stopDate":"2020-03-26 14:00:00","orgNo":"13406","typeCode":"电网故障停限电","poweroffArea":"【全线路停电】停C315柱上变压器,C310柱上变压器,C143柱上变压器,C567柱上变压器,C309柱上变压器,C103柱上变压器,C102柱上变压器,C144柱上变压器,C314柱上变压器,C436柱上变压器,C311柱上变压器,C313柱上变压器,C312柱上变压器,C437柱上变压器,0358033138-保定中泰机械制造有限公司-配电室-1-变压器-1,0356238629-郎庄-专变,0356189187-保定市鑫通电器设备有限公司-1#专变,0742668940-保定景兴房地产开发有限公司-900027948647,0710312514-保定景欣房地产开发有限公司-900023314786,0356238661-颉庄乡康庄-专变,0742668940-保定景兴房地产开发有限公司-900027942261,0356189187-保定市鑫通电器设备有限公司-2#专变,0356707455-保定市新市区鑫达涂布纸厂-专变,0710312514-保定景欣房地产开发有限公司-1484147,0525092900-康庄村委会-专变,0708117420-保定景鹏房地产开发有限公司-900023002421,0356186726-保定市新市区华盛面粉加工厂-专变,0743267337-河北天业创展房地产集团有限公司-900028053580,0356240727-大祝泽西队-专变,0708883194-保定碧城房地产开发有限公司-1-315KVA-用户变压器,0708883194-保定碧城房地产开发有限公司-4-315KVA-用户变压器,0708117420-保定景鹏房地产开发有限公司-900023002387,0710312514-保定景欣房地产开发有限公司-900023317442,0708117420-保定景鹏房地产开发有限公司-900023000372,0356241821-河北建设集团有限公司-配电室-1-变压器-1,0356283629-保定市天兴汽车装饰材料有限公司-专变,0708883194-保定碧城房地产开发有限公司-3-315KVA-用户变压器,变压器,0715337936-保定市西湖体育中心建设指挥部-2#变压器,0710312514-保定景欣房地产开发有限公司-900023314666,0600676647-保定市新市区国辉机械加工厂-专变,0708117420-保定景鹏房地产开发有限公司-900023000346,0691106106-保定市西湖体育中心建设指挥部-专变1,0667194991-保定市竞秀区颉庄乡大车辛庄社区村民委员会-专变-208267277-变压器,0356228110-保定市鑫通电器设备有限公司-专变,0742668940-保定景兴房地产开发有限公司-900027948617,0698548479-保定市竞秀区颉庄乡康庄村村民委员会-专变,0691106106-保定市西湖体育中心建设指挥部-专变2,0708117420-保定景鹏房地产开发有限公司-900023002410,0366055674-保定市新市区环西养殖场-专变,0708883194-保定碧城房地产开发有限公司-2-315KVA-用户变压器,0357299443-保定市新兴造纸厂-箱式变-1-变压器-1,0715337936-保定市西湖体育中心建设指挥部-315KVA柱上变压器-3#,0356291695-保定市秀兰房地产有限公司-箱式变-1-变压器-1,0708117420-保定景鹏房地产开发有限公司-900023000321,0356183365-郎庄-专变,0356183349-郎庄-专变,0356186667-大车辛-专变,0356186696-保定市威利德铸造机械厂-专变,0579813979-保定市新市区金东变压器配件加工厂-专变,0356186654-大车辛-专变,0356466576-保定市天兴汽车零部件制造有限公司-专变,0366751732-保定市新市区颉庄乡康庄村村民委员会-专变,0708117420-保定景鹏房地产开发有限公司-900023000335,0356285481-保定市秀兰混凝土搅拌有限公司-箱式变-1-变压器-1,0708117420-保定景鹏房地产开发有限公司-900023000332,0357989443-保定吉达电力建设集团有限责任公司-专变,0356238645-大车-专变,0356238690-保定市金鼎盛伟业机械设备厂-专变,0356238704-保定市倚天超声波科技有限公司-专变,0356183336-保定华博自动化技术有限公司-专变,0710312514-保定景欣房地产开发有限公司-900023317470,0742668940-保定景兴房地产开发有限公司-900027942280,0358109543-保定市新市区颉庄乡郎庄村村民委员会-专变,0678379242-保定市天春初级食用农产品销售农民专业合作社-,0660641315-保定市鼎瑞塑料制品制造有限公司-专变-197265408-","poweroffReason":"【停电原因】由于线路接地导致１０ＫＶ江城变电站５１２线路全线停电【变更送电】无【发布渠道】通过９５５９８发布","powerTime":"2020-03-26 13:27:46","powerComm":"已送电","subsNo":"","lineNo":"","tgNo":"","tgName":null,"infoStatus":"1","orgName":"保定供电公司","typeName":null,"infoStatusName":null,"dateDay":null,"orgNos":null,"nowTime":null,"countyName":null,"streetName":null,"villageName":null,"roadName":null,"communityName":null,"tranName":null,"sdLineName":null,"cityCode":"13406","cityName":"保定供电公司","provinceCode":null,"stopTime":"2020-03-26 14:00:00","powerType":"全部","powerOffArea":"【全线路停电】停C315柱上变压器,C310柱上变压器,C143柱上变压器,C567柱上变压器,C309柱上变压器,C103柱上变压器,C102柱上变压器,C144柱上变压器,C314柱上变压器,C436柱上变压器,C311柱上变压器,C313柱上变压器,C312柱上变压器,C437柱上变压器,0358033138-保定中泰机械制造有限公司-配电室-1-变压器-1,0356238629-郎庄-专变,0356189187-保定市鑫通电器设备有限公司-1#专变,0742668940-保定景兴房地产开发有限公司-900027948647,0710312514-保定景欣房地产开发有限公司-900023314786,0356238661-颉庄乡康庄-专变,0742668940-保定景兴房地产开发有限公司-900027942261,0356189187-保定市鑫通电器设备有限公司-2#专变,0356707455-保定市新市区鑫达涂布纸厂-专变,0710312514-保定景欣房地产开发有限公司-1484147,0525092900-康庄村委会-专变,0708117420-保定景鹏房地产开发有限公司-900023002421,0356186726-保定市新市区华盛面粉加工厂-专变,0743267337-河北天业创展房地产集团有限公司-900028053580,0356240727-大祝泽西队-专变,0708883194-保定碧城房地产开发有限公司-1-315KVA-用户变压器,0708883194-保定碧城房地产开发有限公司-4-315KVA-用户变压器,0708117420-保定景鹏房地产开发有限公司-900023002387,0710312514-保定景欣房地产开发有限公司-900023317442,0708117420-保定景鹏房地产开发有限公司-900023000372,0356241821-河北建设集团有限公司-配电室-1-变压器-1,0356283629-保定市天兴汽车装饰材料有限公司-专变,0708883194-保定碧城房地产开发有限公司-3-315KVA-用户变压器,变压器,0715337936-保定市西湖体育中心建设指挥部-2#变压器,0710312514-保定景欣房地产开发有限公司-900023314666,0600676647-保定市新市区国辉机械加工厂-专变,0708117420-保定景鹏房地产开发有限公司-900023000346,0691106106-保定市西湖体育中心建设指挥部-专变1,0667194991-保定市竞秀区颉庄乡大车辛庄社区村民委员会-专变-208267277-变压器,0356228110-保定市鑫通电器设备有限公司-专变,0742668940-保定景兴房地产开发有限公司-900027948617,0698548479-保定市竞秀区颉庄乡康庄村村民委员会-专变,0691106106-保定市西湖体育中心建设指挥部-专变2,0708117420-保定景鹏房地产开发有限公司-900023002410,0366055674-保定市新市区环西养殖场-专变,0708883194-保定碧城房地产开发有限公司-2-315KVA-用户变压器,0357299443-保定市新兴造纸厂-箱式变-1-变压器-1,0715337936-保定市西湖体育中心建设指挥部-315KVA柱上变压器-3#,0356291695-保定市秀兰房地产有限公司-箱式变-1-变压器-1,0708117420-保定景鹏房地产开发有限公司-900023000321,0356183365-郎庄-专变,0356183349-郎庄-专变,0356186667-大车辛-专变,0356186696-保定市威利德铸造机械厂-专变,0579813979-保定市新市区金东变压器配件加工厂-专变,0356186654-大车辛-专变,0356466576-保定市天兴汽车零部件制造有限公司-专变,0366751732-保定市新市区颉庄乡康庄村村民委员会-专变,0708117420-保定景鹏房地产开发有限公司-900023000335,0356285481-保定市秀兰混凝土搅拌有限公司-箱式变-1-变压器-1,0708117420-保定景鹏房地产开发有限公司-900023000332,0357989443-保定吉达电力建设集团有限责任公司-专变,0356238645-大车-专变,0356238690-保定市金鼎盛伟业机械设备厂-专变,0356238704-保定市倚天超声波科技有限公司-专变,0356183336-保定华博自动化技术有限公司-专变,0710312514-保定景欣房地产开发有限公司-900023317470,0742668940-保定景兴房地产开发有限公司-900027942280,0358109543-保定市新市区颉庄乡郎庄村村民委员会-专变,0678379242-保定市天春初级食用农产品销售农民专业合作社-,0660641315-保定市鼎瑞塑料制品制造有限公司-专变-197265408-","powerOffReason":"【停电原因】由于线路接地导致１０ＫＶ江城变电站５１２线路全线停电【变更送电】无【发布渠道】通过９５５９８发布","powerOffId":"2020032621000025"},{"poweroffId":2020032613001050,"sgpoweroffId":null,"subsName":"","lineName":"义和庄线524","pubTranName":"110站变,","scope":"【影响街道/乡镇】五一路、京白路、富民路、北一环 【高危重要客户】凤凰城小区、土地分局、公安小区、晨鼎小区、京呈口腔 【影响客户】保定辰鼎物业服务有限公司、王铁军、北京时代风尚房地产开发有限公司（时代东）、百德时代、高碑店市鹏飞伟业房地产开发有限公司、白金柱、中国铁塔股份有限公司保定市分公司、土普家园三期、土普家园二期、高秋生、保定市国土资源局白沟新城分局、公安局、中国移动通信集团河北有限公司保定分公司、现代城市花园、土普家园小区、宋建辉、土普家园二期商业、李二旺、郭建明、保定白沟吉兆隆无纺布厂、朱利民、魏建磊、保定黛莱箱包服饰制造有限公司（李贺群）、李明亮、王永田、高碑店市昌宏化纤有限公司、王迪、华威皮革制品厂、保定博永商贸有限公司、白沟巴拉都皮具有限公司、高碑店市白沟魏庄小区、高碑店市双力塑胶有限责任公司、保定白沟新城和同物业有限公司（秀水华庭小区）、高碑店市鑫远房地产开发有限公司（金开元小区）、河北格丽亚皮具有限公司、白沟新城建设规划局、保定白沟新城恒睿塑胶制品厂、张根青、金开元小区二期、张老黑、保定白沟新城和同物业有限公司、保定润和房地产开发有限公司（梧桐苑）、海宏","startTime":"2020-03-26 18:58:35","stopDate":"2020-03-26 22:00:00","orgNo":"1340612","typeCode":"电网故障停限电","poweroffArea":"【全线路停电】停王迪,朱利民,华威皮革制品厂,李明亮,王永田,王铁军,郭建明,李二旺,李贺群,张老黑,变压器,张民（百得时代地下室区）变压器,0607976047-白金柱-专变-127454291-变压器,付宇,宋建辉变压器,0387441566-富润花园3-专变-45278687-吕锁成3,王玉才,永轩变压器,苏艳华,0387442048-海宏工业有限公司-专变-45278576-海宏工业有限公司,魏国旺,白沟土地分局,移动公司变压器,110站变,0387442426-公安局1-专变-45278785-公安局1,0387443230保定辰鼎物业服务有限公司,张民（百得时代西区）变压器,京呈口腔,0387441058-白沟镇富润花园小区-专变-45278645-白沟镇富润花园小区,张根青,公安局2,0387442006-高秋生-专变-45278565-高秋生,0387442396-富润花园4-专变-45278566-吕锁成4,变压器160,金开元二期,张春晖,吕锁成2,凤凰城物业2,凤凰城物业1,鹏飞伟业变台,凤凰城2,董振良（秀水华庭）变台","poweroffReason":"【停电原因】由于主干５２号杆设备线夹烧导致１１０ＫＶ白沟变电站１０ＫＶ义和庄５２４线路全线停电 【变更送电】无 【发布渠道】通过９５５９８发布","powerTime":"2020-03-26 21:30:05","powerComm":"已送电","subsNo":"","lineNo":"","tgNo":"","tgName":null,"infoStatus":"1","orgName":"国网高碑店市供电公司","typeName":null,"infoStatusName":null,"dateDay":null,"orgNos":null,"nowTime":null,"countyName":null,"streetName":null,"villageName":null,"roadName":null,"communityName":null,"tranName":null,"sdLineName":null,"cityCode":"1340612","cityName":"国网高碑店市供电公司","provinceCode":null,"stopTime":"2020-03-26 22:00:00","powerType":"全部","powerOffArea":"【全线路停电】停王迪,朱利民,华威皮革制品厂,李明亮,王永田,王铁军,郭建明,李二旺,李贺群,张老黑,变压器,张民（百得时代地下室区）变压器,0607976047-白金柱-专变-127454291-变压器,付宇,宋建辉变压器,0387441566-富润花园3-专变-45278687-吕锁成3,王玉才,永轩变压器,苏艳华,0387442048-海宏工业有限公司-专变-45278576-海宏工业有限公司,魏国旺,白沟土地分局,移动公司变压器,110站变,0387442426-公安局1-专变-45278785-公安局1,0387443230保定辰鼎物业服务有限公司,张民（百得时代西区）变压器,京呈口腔,0387441058-白沟镇富润花园小区-专变-45278645-白沟镇富润花园小区,张根青,公安局2,0387442006-高秋生-专变-45278565-高秋生,0387442396-富润花园4-专变-45278566-吕锁成4,变压器160,金开元二期,张春晖,吕锁成2,凤凰城物业2,凤凰城物业1,鹏飞伟业变台,凤凰城2,董振良（秀水华庭）变台","powerOffReason":"【停电原因】由于主干５２号杆设备线夹烧导致１１０ＫＶ白沟变电站１０ＫＶ义和庄５２４线路全线停电 【变更送电】无 【发布渠道】通过９５５９８发布","powerOffId":"2020032613001050"},{"poweroffId":2020032613001009,"sgpoweroffId":null,"subsName":"","lineName":"大高线522","pubTranName":"南留中,南留南（2）,天桥东,南留南,天津街3号公变,天津街2,天津街南,","scope":"【影响街道/乡镇】富民大街、京白路、五一路、天津街 【高危重要客户】白沟镇政府、仁和庄小区、凤凰城小区、政府小区 【影响客户】南留村、乾城地产、天奕商厦、鹏飞伟业、刘声（钟声革业)、王启龙（凤凰城）、董振良、综合办、永强塑胶、卓伟酒店、顺达辅料、肖小军、天德供水、刘宏生、合义轩李洪亮、回民刘国强、王立新、李辉(武警幼儿园）、李永旺、金山商标厂赵金山、富源厂刘建民、仁合家园小区、王梦端、泰鑫辅料、创实化纤厂、弘华伊顿","startTime":"2020-03-26 17:07:24","stopDate":"2020-03-26 22:00:00","orgNo":"1340612","typeCode":"电网故障停限电","poweroffArea":"【全线路停电】停刘建民,仁和小区北,仁和小区南,弘华伊顿(北京)国际教育投资有限公司变压器,王梦端,0683953046-仁和庄5号变台-专变-223537035-变压器,赵金山,0387444549-隆基泰和实业有限公司白沟分公司(汽配汽贸城大厅)-专变-45279414-隆基泰和实业有限公司白沟分公司（汽配汽贸城大厅）,0686701202-保定天德供水有限公司-专变-226885144-变压器,保定白沟新城二胖百货商贸经营部计量点,南留中,回顺民,河北乾城房地产开发有限公司变压器,南留南（2）,付英奎,肖小军,刘声,雅典皇宫,刘宏生,白沟新城顺达织带厂变压器,政府办公楼,天桥东,变压器,凤凰城,南留南,天津街2,天奕,仁和庄10变台变压器,李玉山变压器,天津街3号公变,周新,天津街南,电子大厦东,保定恒勤房地产开发有限公司变压器,刘国强变压器","poweroffReason":"【停电原因】由于主干５２号杆设备线夹烧导致１１０ＫＶ白沟变电站１０ＫＶ大高５２２线路全线停电 【变更送电】因抢修进度加快原因，送电时间由２３：５９变更为２２：００ 【发布渠道】通过９５５９８发布","powerTime":"2020-03-26 21:29:33","powerComm":"已送电","subsNo":"","lineNo":"","tgNo":"","tgName":null,"infoStatus":"1","orgName":"国网高碑店市供电公司","typeName":null,"infoStatusName":null,"dateDay":null,"orgNos":null,"nowTime":null,"countyName":null,"streetName":null,"villageName":null,"roadName":null,"communityName":null,"tranName":null,"sdLineName":null,"cityCode":"1340612","cityName":"国网高碑店市供电公司","provinceCode":null,"stopTime":"2020-03-26 22:00:00","powerType":"全部","powerOffArea":"【全线路停电】停刘建民,仁和小区北,仁和小区南,弘华伊顿(北京)国际教育投资有限公司变压器,王梦端,0683953046-仁和庄5号变台-专变-223537035-变压器,赵金山,0387444549-隆基泰和实业有限公司白沟分公司(汽配汽贸城大厅)-专变-45279414-隆基泰和实业有限公司白沟分公司（汽配汽贸城大厅）,0686701202-保定天德供水有限公司-专变-226885144-变压器,保定白沟新城二胖百货商贸经营部计量点,南留中,回顺民,河北乾城房地产开发有限公司变压器,南留南（2）,付英奎,肖小军,刘声,雅典皇宫,刘宏生,白沟新城顺达织带厂变压器,政府办公楼,天桥东,变压器,凤凰城,南留南,天津街2,天奕,仁和庄10变台变压器,李玉山变压器,天津街3号公变,周新,天津街南,电子大厦东,保定恒勤房地产开发有限公司变压器,刘国强变压器","powerOffReason":"【停电原因】由于主干５２号杆设备线夹烧导致１１０ＫＶ白沟变电站１０ＫＶ大高５２２线路全线停电 【变更送电】因抢修进度加快原因，送电时间由２３：５９变更为２２：００ 【发布渠道】通过９５５９８发布","powerOffId":"2020032613001009"}],"pageModel":{"pageNow":221,"totalCount":10973,"totalPage":1098,"tableRows":0,"pageCount":10,"beginCount":2200},"isExperi":"1"}