{"message":"","today":"2020-06-15","seleList":[{"poweroffId":2020032613000727,"sgpoweroffId":null,"subsName":"","lineName":"10kV529张岳线","pubTranName":"10KV515大齐线张岳03018台区变压器,10KV529张岳线大齐03109台区变压器,10KV张岳529线大齐新增03008台区变压器,10KV529张岳线张岳53835台区变压器,10KV529张岳线张岳03009台区变压器,10KV529张岳线03016台区变压器,10KV529张岳线张岳03015台区变压器,10KV529张岳线张岳03017台区变压器,10KV515大齐线03142台区变压器,10KV529张岳线03015分支6号杆台区变压器,10KV529张岳线03115（停运）台区变压器,10KV529张岳线张岳03014台区变压器,","scope":"【影响街道/乡镇】东墟乡【高危重要客户】无【影响客户】大齐部分","startTime":"2020-03-26 13:42:52","stopDate":"2020-03-26 14:40:00","orgNo":"1340608","typeCode":"电网故障停限电","poweroffArea":"【全线路停电】停张岳新居民小区,张岳王建林,10KV529张岳线张岳53835台区变压器,10KV529张岳线张岳03009台区变压器,广须,保定万龙胶带有限公司,0469529799-鑫源纺纱厂-专变-46834089-鑫源纺纱厂,保定鑫华橡胶机带有限公司,保定鑫兴橡胶机带有限公司,10KV529张岳线03016台区变压器,保定力通胶带制造有限公司,0469534577-河北鑫辉胶带有限公司-专变-216207816-鑫辉橡胶有限公司,三兴橡胶制品有限公司,10KV529张岳线张岳03015台区变压器,10KV529张岳线张岳03017台区变压器,10KV515大齐线03142台区变压器,0469534548-保定盛运橡胶机带制造有限公司-专变-46834081-大齐财发托辊厂,10KV529张岳线03015分支6号杆台区变压器,10KV529张岳线03115（停运）台区变压器,河北智博保温材料制造有限公司,0662504579-河北智博保温材料制造有限公司-专变-197603495-河北智博保温材料制造有限公司,张岳小区,10KV529张岳线张岳03014台区变压器,华联衬布,博野县鑫润输送配件销售处,张岳面粉厂,富达机带厂,鑫源帆布厂,10KV515大齐线张岳03018台区变压器,10KV529张岳线大齐03109台区变压器,河北中亚胶带有限公司,张岳怡馨花园,10KV张岳529线大齐新增03008台区变压器","poweroffReason":"【停电原因】由于线路接地导致１１０ＫＶ张岳变电站张岳５２９线路全线停电【变更送电】因抢修进度加快原因，送电时间由２２：００变更为１４：４０【发布渠道】通过９５５９８发布","powerTime":"2020-03-26 14:20:32","powerComm":"已送电","subsNo":"","lineNo":"","tgNo":"","tgName":null,"infoStatus":"1","orgName":"国网博野县供电公司","typeName":null,"infoStatusName":null,"dateDay":null,"orgNos":null,"nowTime":null,"countyName":null,"streetName":null,"villageName":null,"roadName":null,"communityName":null,"tranName":null,"sdLineName":null,"cityCode":"1340608","cityName":"国网博野县供电公司","provinceCode":null,"stopTime":"2020-03-26 14:40:00","powerType":"全部","powerOffArea":"【全线路停电】停张岳新居民小区,张岳王建林,10KV529张岳线张岳53835台区变压器,10KV529张岳线张岳03009台区变压器,广须,保定万龙胶带有限公司,0469529799-鑫源纺纱厂-专变-46834089-鑫源纺纱厂,保定鑫华橡胶机带有限公司,保定鑫兴橡胶机带有限公司,10KV529张岳线03016台区变压器,保定力通胶带制造有限公司,0469534577-河北鑫辉胶带有限公司-专变-216207816-鑫辉橡胶有限公司,三兴橡胶制品有限公司,10KV529张岳线张岳03015台区变压器,10KV529张岳线张岳03017台区变压器,10KV515大齐线03142台区变压器,0469534548-保定盛运橡胶机带制造有限公司-专变-46834081-大齐财发托辊厂,10KV529张岳线03015分支6号杆台区变压器,10KV529张岳线03115（停运）台区变压器,河北智博保温材料制造有限公司,0662504579-河北智博保温材料制造有限公司-专变-197603495-河北智博保温材料制造有限公司,张岳小区,10KV529张岳线张岳03014台区变压器,华联衬布,博野县鑫润输送配件销售处,张岳面粉厂,富达机带厂,鑫源帆布厂,10KV515大齐线张岳03018台区变压器,10KV529张岳线大齐03109台区变压器,河北中亚胶带有限公司,张岳怡馨花园,10KV张岳529线大齐新增03008台区变压器","powerOffReason":"【停电原因】由于线路接地导致１１０ＫＶ张岳变电站张岳５２９线路全线停电【变更送电】因抢修进度加快原因，送电时间由２２：００变更为１４：４０【发布渠道】通过９５５９８发布","powerOffId":"2020032613000727"},{"poweroffId":2020032613000724,"sgpoweroffId":null,"subsName":"","lineName":"10kV519北小王线","pubTranName":"10KV519北小王89242台区变压器,10KV519北小王线南邑中学南照明42146台区变压器,10KV519北小王线85342变压器,10KV519北小王线40030台区变压器,客户投资_10KV519北小王线40021台区变压器,10KV519北小王线40049台区变压器,10KV519北小王线40011台区变压器,10KV519北小王线南邑47731台区变压器,10KV519北小王线南邑小扣照明42144台区变压器,10KV519北小王线南邑路灯07831台区变压器,10KV519北小王线40035台区变压器,10KV519北小王线40048台区变压器,10KV519北小王线40010台区变压器,10KV北小王519线北小王40008台区变压器,10kV北小王519线北小王新增40024台区变压器,10KV519北小王线87647台区变压器,10KV北小王线519北小王村内42262台区变压器,10KV519北小王线40026台区变压器,10KV519北小王线40046台区变压器,10KV519北小王线20885台区变压器,10KV519北小王线40001台区变压器,10KV519北小王线南邑13061台区变压器,10KV519北小王线40031台区变压器,10KV519北小王线北小王村东照明42228台区变压器,10KV519北小王线40032台区变压器,","scope":"【影响街道/乡镇】北杨村乡【高危重要客户】无【影响客户】北堤圈、北小王、南邑","startTime":"2020-03-26 13:18:43","stopDate":"2020-03-26 15:30:00","orgNo":"1340608","typeCode":"电网故障停限电","poweroffArea":"【全线路停电】停10KV北小王519线北小王40008台区变压器,10kV北小王519线北小王新增40024台区变压器,10KV北小王线519北小王村内42262台区变压器,10KV519北小王线20885台区变压器,10KV519北小王线40001台区变压器,10KV519北小王线南邑13061台区变压器,10KV519北小王线40031台区变压器,10KV519北小王线北小王村东照明42228台区变压器,10KV519北小王线40049台区变压器,10KV519北小王线40011台区变压器,10KV519北小王线南邑47731台区变压器,10KV519北小王线87647台区变压器,10KV519北小王线40032台区变压器,10KV519北小王线南邑中学南照明42146台区变压器,10KV519北小王线40030台区变压器,客户投资_10KV519北小王线40021台区变压器,10KV519北小王线40010台区变压器,10KV519北小王线40026台区变压器,10KV519北小王线40046台区变压器,10KV519北小王89242台区变压器,10KV519北小王线85342变压器,10KV519北小王线南邑小扣照明42144台区变压器,10KV519北小王线南邑路灯07831台区变压器,10KV519北小王线40035台区变压器,10KV519北小王线40048台区变压器","poweroffReason":"【停电原因】由于线路接地导致１１０ＫＶ博野变电站北小王５１９线路全线停电【变更送电】因抢修进度加快原因，送电时间由２２：００变更为１５：３０【发布渠道】通过９５５９８发布","powerTime":"2020-03-26 15:10:05","powerComm":"已送电","subsNo":"","lineNo":"","tgNo":"","tgName":null,"infoStatus":"1","orgName":"国网博野县供电公司","typeName":null,"infoStatusName":null,"dateDay":null,"orgNos":null,"nowTime":null,"countyName":null,"streetName":null,"villageName":null,"roadName":null,"communityName":null,"tranName":null,"sdLineName":null,"cityCode":"1340608","cityName":"国网博野县供电公司","provinceCode":null,"stopTime":"2020-03-26 15:30:00","powerType":"全部","powerOffArea":"【全线路停电】停10KV北小王519线北小王40008台区变压器,10kV北小王519线北小王新增40024台区变压器,10KV北小王线519北小王村内42262台区变压器,10KV519北小王线20885台区变压器,10KV519北小王线40001台区变压器,10KV519北小王线南邑13061台区变压器,10KV519北小王线40031台区变压器,10KV519北小王线北小王村东照明42228台区变压器,10KV519北小王线40049台区变压器,10KV519北小王线40011台区变压器,10KV519北小王线南邑47731台区变压器,10KV519北小王线87647台区变压器,10KV519北小王线40032台区变压器,10KV519北小王线南邑中学南照明42146台区变压器,10KV519北小王线40030台区变压器,客户投资_10KV519北小王线40021台区变压器,10KV519北小王线40010台区变压器,10KV519北小王线40026台区变压器,10KV519北小王线40046台区变压器,10KV519北小王89242台区变压器,10KV519北小王线85342变压器,10KV519北小王线南邑小扣照明42144台区变压器,10KV519北小王线南邑路灯07831台区变压器,10KV519北小王线40035台区变压器,10KV519北小王线40048台区变压器","powerOffReason":"【停电原因】由于线路接地导致１１０ＫＶ博野变电站北小王５１９线路全线停电【变更送电】因抢修进度加快原因，送电时间由２２：００变更为１５：３０【发布渠道】通过９５５９８发布","powerOffId":"2020032613000724"},{"poweroffId":2020032613000723,"sgpoweroffId":null,"subsName":"","lineName":"10kV512台头线","pubTranName":"台头村公用照明3台区,潘村公用照明4台区,潘村公用照明11台区,南古山公用照明4台区,南渠河公用农业3台区【纯农排变】,台头村公用农业6台区【纯农排变】,潘村公用农业9台区【纯农排变】,潘村公用农业6台区【纯农排变】,台头村公用农业5台区【纯农排变】,台头村公用农业9台区【纯农排变】,南古山村公用照明1台区,潘村公用照明1台区,岸下公用农业2台区【纯农排变】,南渠河公用农业1台区【纯农排变】,潘村公用照明8台区,潘村公用农业5台区【纯农排变】,北古山公用农业1台区【纯农排变】,台头村公用照明6台区,台头公用照明9台区,北古山村公用照明1台区,南古山公用照明3台区,潘村公用照明10台区,潘村公用照明2台区,北古山公用照明3台区,潘村公用照明6台区,台头公用照明13台区,潘村公用照明3台区,台头公用照明10台区,台头村公用照明1台区,潘村公用照明7台区,客户投资_台头公用照明8台区,北古山公用照明5台区,潘村公用照明5台区,台头公用照明11台区,北古山村公用照明2台区,台头村公用照明7台区,台头村公用照明4台区,台头公用照明15台区,台头公用照明14台区,潘村公用照明9台区,台头公用照明18台区,台头公用照明17台区,北古山公用照明4台区,南古山公用照明2台区,台头公用照明12台区,台头公用照明16台区,台头村公用照明5台区,台头村公用照明2台区,潘村公用照明12台区,","scope":"【影响街道/乡镇】砖路镇【高危重要客户】无【影响客户】台头村、潘村、南古山村、北古山村、岸下村、南渠河","startTime":"2020-04-08 07:00:00","stopDate":"2020-04-08 18:00:00","orgNo":"1340610","typeCode":"计划停电","poweroffArea":"【全线路停电】停潘村公用照明3台区,台头村公用照明6台区,台头公用照明9台区,北古山村公用照明1台区,南古山公用照明3台区,潘村公用照明10台区,潘村公用照明2台区,北古山公用照明3台区,台头公用照明12台区,台头公用照明16台区,台头村公用照明5台区,台头村公用照明2台区,潘村公用照明12台区,潘村公用照明6台区,台头公用照明13台区,台头公用照明10台区,台头村公用照明1台区,潘村公用照明7台区,客户投资_台头公用照明8台区,北古山公用照明5台区,潘村公用照明5台区,台头公用照明11台区,北古山村公用照明2台区,台头村公用照明7台区,台头村公用照明4台区,台头公用照明15台区,台头公用照明14台区,潘村公用照明9台区,台头公用照明18台区,台头公用照明17台区,北古山公用照明4台区,南古山公用照明2台区,潘村公用照明14台区,台头村公用照明3台区,潘村公用照明4台区,潘村公用照明11台区,南古山公用照明4台区,潘村公用照明13台区,定州市砖路镇悟村村民委员会（悟村村东）,定州市砖路镇悟村村民委员会（悟村四号）,潘村公用农业1台区【纯农排变】,南渠河公用农业3台区【纯农排变】,台头村公用农业6台区【纯农排变】,岸下公用农业4台区【纯农排变】,定州市台头小学,北京织绒,清辛庄公用农业10台区【纯农排变】,台头村公用农业7台区【纯农排变】,南古山公用农业4台区【纯农排变】,潘村公用农业9台区【纯农排变】,台头村公用农业4台区【纯农排变】,台头村公用农业3台区【纯农排变】,台头村公用农业2台区【纯农排变】,潘村公用农业6台区【纯农排变】,北渠河公用农业10台区【纯农排变】,清辛庄公用农业8台区【纯农排变】,定州市明盛肉类经销处变压器,河北通达养殖有限公司变压器,台头村公用农业5台区【纯农排变】,河北金宏清真肉类有限公司变压器,台头村公用农业12台区【纯农排变】,定州市砖路镇潘村村民委员会 绿色家园照明变压器1,定州市砖路镇屠宰场,定州市砖路镇悟村村民委员会（悟村北外三号）,0657741442-定州市砖路镇台头村村民委员会 盛世佳苑-专变-190906602-定州市砖路镇台头村村民委员会 盛世佳苑照明变压器1,台头村公用农业9台区【纯农排变】,台头村公用农业13台区【纯农排变】,0657741442-定州市砖路镇台头村村民委员会 盛世佳苑-专变-190906605-定州市砖路镇台头村村民委员会 盛世佳苑照明变压器2,潘村公用照明1台区,南古山公用农业1台区【纯农排变】,定州市潘村京康肉食品厂变压器,南渠河公用农业2台区【纯农排变】,定州市绿野养殖有限公司变压器,丰华冷库,南古山村公用照明1台区,岸下公用农业3台区【纯农排变】,河北亿华食品有限公司变压器,北沿公用农业2台区【纯农排变】,定州市砖路镇潘村村民委员会 绿色家园照明变压器2,定州市潘村京康肉食品厂变压器1,台头公用农业14台区【纯农排变】,定州市砖路镇台头村村民委员会变压器,南古山公用农业3台区【纯农排变】,定州市永兴棉织厂变压器,潘村电信局,定州市中良肉业有限公司变压器,河北金宏清真肉类有限公司变压器1,潘村面粉厂,台头村公用农业8台区【纯农排变】,定州市保军水泥砖厂变压器,清辛庄公用农业9台区【纯农排变】,定州市丰华商贸有限公司变压器,北古山公用农业4台区【纯农排变】,潘村公用农业4台区【纯农排变】,潘村公用照明8台区,潘村公用农业5台区【纯农排变】,定州市砖路镇潘村村民委员会 绿色家园公用变压器,定州市砖路镇人民政府变压器,台头村公用农业1台区【纯农排变】,北古山公用农业2台区【纯农排","poweroffReason":"【停电原因】由于更换电杆、新立电杆导致３５ＫＶ吴家庄变电站１０ＫＶ５１２台头线路全线停电 【变更送电】无 【发布渠道】河北省定州市定州日报第三版（２０２０年０３月２７日）","powerTime":"2020-04-08 17:45:55","powerComm":"已送电","subsNo":"","lineNo":"","tgNo":"","tgName":null,"infoStatus":"1","orgName":"国网定州市供电公司","typeName":null,"infoStatusName":null,"dateDay":null,"orgNos":null,"nowTime":null,"countyName":null,"streetName":null,"villageName":null,"roadName":null,"communityName":null,"tranName":null,"sdLineName":null,"cityCode":"1340610","cityName":"国网定州市供电公司","provinceCode":null,"stopTime":"2020-04-08 18:00:00","powerType":"全部","powerOffArea":"【全线路停电】停潘村公用照明3台区,台头村公用照明6台区,台头公用照明9台区,北古山村公用照明1台区,南古山公用照明3台区,潘村公用照明10台区,潘村公用照明2台区,北古山公用照明3台区,台头公用照明12台区,台头公用照明16台区,台头村公用照明5台区,台头村公用照明2台区,潘村公用照明12台区,潘村公用照明6台区,台头公用照明13台区,台头公用照明10台区,台头村公用照明1台区,潘村公用照明7台区,客户投资_台头公用照明8台区,北古山公用照明5台区,潘村公用照明5台区,台头公用照明11台区,北古山村公用照明2台区,台头村公用照明7台区,台头村公用照明4台区,台头公用照明15台区,台头公用照明14台区,潘村公用照明9台区,台头公用照明18台区,台头公用照明17台区,北古山公用照明4台区,南古山公用照明2台区,潘村公用照明14台区,台头村公用照明3台区,潘村公用照明4台区,潘村公用照明11台区,南古山公用照明4台区,潘村公用照明13台区,定州市砖路镇悟村村民委员会（悟村村东）,定州市砖路镇悟村村民委员会（悟村四号）,潘村公用农业1台区【纯农排变】,南渠河公用农业3台区【纯农排变】,台头村公用农业6台区【纯农排变】,岸下公用农业4台区【纯农排变】,定州市台头小学,北京织绒,清辛庄公用农业10台区【纯农排变】,台头村公用农业7台区【纯农排变】,南古山公用农业4台区【纯农排变】,潘村公用农业9台区【纯农排变】,台头村公用农业4台区【纯农排变】,台头村公用农业3台区【纯农排变】,台头村公用农业2台区【纯农排变】,潘村公用农业6台区【纯农排变】,北渠河公用农业10台区【纯农排变】,清辛庄公用农业8台区【纯农排变】,定州市明盛肉类经销处变压器,河北通达养殖有限公司变压器,台头村公用农业5台区【纯农排变】,河北金宏清真肉类有限公司变压器,台头村公用农业12台区【纯农排变】,定州市砖路镇潘村村民委员会 绿色家园照明变压器1,定州市砖路镇屠宰场,定州市砖路镇悟村村民委员会（悟村北外三号）,0657741442-定州市砖路镇台头村村民委员会 盛世佳苑-专变-190906602-定州市砖路镇台头村村民委员会 盛世佳苑照明变压器1,台头村公用农业9台区【纯农排变】,台头村公用农业13台区【纯农排变】,0657741442-定州市砖路镇台头村村民委员会 盛世佳苑-专变-190906605-定州市砖路镇台头村村民委员会 盛世佳苑照明变压器2,潘村公用照明1台区,南古山公用农业1台区【纯农排变】,定州市潘村京康肉食品厂变压器,南渠河公用农业2台区【纯农排变】,定州市绿野养殖有限公司变压器,丰华冷库,南古山村公用照明1台区,岸下公用农业3台区【纯农排变】,河北亿华食品有限公司变压器,北沿公用农业2台区【纯农排变】,定州市砖路镇潘村村民委员会 绿色家园照明变压器2,定州市潘村京康肉食品厂变压器1,台头公用农业14台区【纯农排变】,定州市砖路镇台头村村民委员会变压器,南古山公用农业3台区【纯农排变】,定州市永兴棉织厂变压器,潘村电信局,定州市中良肉业有限公司变压器,河北金宏清真肉类有限公司变压器1,潘村面粉厂,台头村公用农业8台区【纯农排变】,定州市保军水泥砖厂变压器,清辛庄公用农业9台区【纯农排变】,定州市丰华商贸有限公司变压器,北古山公用农业4台区【纯农排变】,潘村公用农业4台区【纯农排变】,潘村公用照明8台区,潘村公用农业5台区【纯农排变】,定州市砖路镇潘村村民委员会 绿色家园公用变压器,定州市砖路镇人民政府变压器,台头村公用农业1台区【纯农排变】,北古山公用农业2台区【纯农排","powerOffReason":"【停电原因】由于更换电杆、新立电杆导致３５ＫＶ吴家庄变电站１０ＫＶ５１２台头线路全线停电 【变更送电】无 【发布渠道】河北省定州市定州日报第三版（２０２０年０３月２７日）","powerOffId":"2020032613000723"},{"poweroffId":2020032613000718,"sgpoweroffId":null,"subsName":"","lineName":"10kV515沙沃线","pubTranName":"10KV沙沃线515兴华511联络分支城内线511南白沙照明07405柱上变压器,10KV沙沃线515仕美家园07556台区变压器,10KV沙沃线515千禧二区07308台区变压器,10KV沙沃线515检察院07364柱上变压器,10KV沙沃线515通达胜景小区1号变压器,10KV沙沃线515人寿IC07378柱上变压器,10kV沙沃线515食品家属院32404台区变压器,10KV沙沃线515土地局07013台区变压器,10kV515沙沃线42845台区变压器,10KV沙沃线515北白沙公用1199柱上变压器,10KV沙沃线515农机家属院07094台区变压器,10KV沙沃线515千禧5号楼07392台区变压器,10KV沙沃线515棉麻家属院07387柱上变压器,10KV沙沃线515向阳小区变压器,10KV515沙沃线南白沙公用变压器,10kV515沙沃线博陵供电所08194台区变压器,10kV沙沃线515交警07068台区变压器,10kV沙沃线515小区北07320台区变压器,10KV沙沃线515通达胜景小区2号变压器,10KV沙沃线515和谐07555柱上变压器,10KV沙沃线515霍乱家属院柱上变压器,10KV沙沃线515南白沙照明07405分支南白沙照明07119柱上变压器,10KV沙沃线515北白沙村07020台区变压器,10KV沙沃线515国税小区分户变压器,10KV沙沃线515李向东07123柱上变压器,10kV沙沃线515千禧小区32407台区变压器,10KV沙沃线515通达胜景小区3号变压器,","scope":"【影响街道/乡镇】博野镇【高危重要客户】无【影响客户】盛美纺织有限公司、衬布总厂、隆兴混凝土有限公司、汇金机械配件加工厂、千禧小区、棉麻家属院、工商局西、工商局家属院、土地局家属院、农林局、农机家属院、交通局及家属院、人寿、交警大队、农行、检察院小区、通达胜景小区、北白沙村、烟草公司家属院、南白沙村、观澜逸景、观澜逸墅、娇丽园、博城饭店、食品家属院、恒源饭店、千禧二区、国税局、供销社家属院、李向东家属院、和谐家园、向阳小区","startTime":"2020-03-26 13:17:31","stopDate":"2020-03-26 14:50:00","orgNo":"1340608","typeCode":"电网故障停限电","poweroffArea":"【全线路停电】停10KV沙沃线515霍乱家属院柱上变压器,10KV沙沃线515兴华511联络分支城内线511南白沙照明07405柱上变压器,10KV沙沃线515仕美家园07556台区变压器,10KV515沙沃线南白沙公用变压器,10kV515沙沃线42845台区变压器,10KV沙沃线515北白沙公用1199柱上变压器,10KV沙沃线515农机家属院07094台区变压器,10KV沙沃线515千禧5号楼07392台区变压器,10KV沙沃线515棉麻家属院07387柱上变压器,10KV沙沃线515向阳小区变压器,10kV515沙沃线博陵供电所08194台区变压器,10kV沙沃线515交警07068台区变压器,10kV沙沃线515小区北07320台区变压器,10KV沙沃线515通达胜景小区2号变压器,10KV沙沃线515国税小区分户变压器,10KV沙沃线515李向东07123柱上变压器,10kV沙沃线515千禧小区32407台区变压器,10KV沙沃线515通达胜景小区3号变压器,10KV沙沃线515和谐07555柱上变压器,10KV沙沃线515南白沙照明07405分支南白沙照明07119柱上变压器,10KV沙沃线515北白沙村07020台区变压器,10KV沙沃线515人寿IC07378柱上变压器,10KV沙沃线515千禧二区07308台区变压器,10KV沙沃线515检察院07364柱上变压器,10KV沙沃线515通达胜景小区1号变压器,10kV沙沃线515食品家属院32404台区变压器,10KV沙沃线515土地局07013台区变压器","poweroffReason":"【停电原因】由于线路接地导致１１０ＫＶ博野变电站沙沃５１５线路全线停电【变更送电】因抢修进度加快原因，送电时间由２２：００变更为１４：５０【发布渠道】通过９５５９８发布","powerTime":"2020-03-26 14:26:12","powerComm":"已送电","subsNo":"","lineNo":"","tgNo":"","tgName":null,"infoStatus":"1","orgName":"国网博野县供电公司","typeName":null,"infoStatusName":null,"dateDay":null,"orgNos":null,"nowTime":null,"countyName":null,"streetName":null,"villageName":null,"roadName":null,"communityName":null,"tranName":null,"sdLineName":null,"cityCode":"1340608","cityName":"国网博野县供电公司","provinceCode":null,"stopTime":"2020-03-26 14:50:00","powerType":"全部","powerOffArea":"【全线路停电】停10KV沙沃线515霍乱家属院柱上变压器,10KV沙沃线515兴华511联络分支城内线511南白沙照明07405柱上变压器,10KV沙沃线515仕美家园07556台区变压器,10KV515沙沃线南白沙公用变压器,10kV515沙沃线42845台区变压器,10KV沙沃线515北白沙公用1199柱上变压器,10KV沙沃线515农机家属院07094台区变压器,10KV沙沃线515千禧5号楼07392台区变压器,10KV沙沃线515棉麻家属院07387柱上变压器,10KV沙沃线515向阳小区变压器,10kV515沙沃线博陵供电所08194台区变压器,10kV沙沃线515交警07068台区变压器,10kV沙沃线515小区北07320台区变压器,10KV沙沃线515通达胜景小区2号变压器,10KV沙沃线515国税小区分户变压器,10KV沙沃线515李向东07123柱上变压器,10kV沙沃线515千禧小区32407台区变压器,10KV沙沃线515通达胜景小区3号变压器,10KV沙沃线515和谐07555柱上变压器,10KV沙沃线515南白沙照明07405分支南白沙照明07119柱上变压器,10KV沙沃线515北白沙村07020台区变压器,10KV沙沃线515人寿IC07378柱上变压器,10KV沙沃线515千禧二区07308台区变压器,10KV沙沃线515检察院07364柱上变压器,10KV沙沃线515通达胜景小区1号变压器,10kV沙沃线515食品家属院32404台区变压器,10KV沙沃线515土地局07013台区变压器","powerOffReason":"【停电原因】由于线路接地导致１１０ＫＶ博野变电站沙沃５１５线路全线停电【变更送电】因抢修进度加快原因，送电时间由２２：００变更为１４：５０【发布渠道】通过９５５９８发布","powerOffId":"2020032613000718"},{"poweroffId":2020032613000711,"sgpoweroffId":null,"subsName":"","lineName":"10kV东黄线512","pubTranName":"王场6号变台,南黄村变压器,王场东南2变压器,南黄西台变压器,丰盛庄南2变压器,乔古寺东1变压器,乔古寺东2变压器,南黄南2变压器,王场东南1变压器,王场北3变压器,丰盛庄西变压器,南黄南变压器,王场南变压器,魏庄北变压器,丰盛庄南三,南黄东台区,东黄南2变压器,","scope":"【影响街道/乡镇】泗庄镇、白沟镇 【高危重要客户】无 【影响客户】南黄村、东黄村（部分）、魏庄村、乔古寺村、王场村、丰盛庄村、高碑店市泗庄东黄小学、保定白沟新城王场学校、保定海山雨鞋制造有限公司、高碑店市博荣拉链有限公司、高碑店市同兴畜牧有限公司(王家场)、张爽、利达橡塑制品厂、诚信拉杆厂、东黄丰华人造革厂、京华人造革厂、天和橡塑制品厂、魏庄砖厂、高碑店市华宝塑料制品有限责任公司、高碑店市公安局交通管理大队、社办厂、高碑店市欣荣海绵纸厂、保定博德广信皮革制品有限公司、宏丰人造革厂、三福饭店、高碑店市邓庄春晖面粉厂、新华油质化工厂、张艺萌、高碑店市鑫益隆塑胶有限公司","startTime":"2020-03-26 13:15:21","stopDate":"2020-03-26 16:00:00","orgNo":"1340612","typeCode":"电网故障停限电","poweroffArea":"【全线路停电】停丰盛庄西变压器,丰盛庄南变压器,东黄西南变压器,丰盛庄北变压器,王场东变压器,高碑店市欣荣海绵纸厂,高碑店市泗庄迪航硕鞋厂,南黄东台区,保定森泽汽车销售有限公司,丰盛庄南三,平占杰,高碑店市博荣拉链有限公司,丰盛庄西南地变压器【纯农排变】,王场6号变台,油厂东,王场东南1变压器,春晖面粉厂,乔古寺东变压器,王场西北变压器,东黄南2变压器,魏庄西地变压器,东黄地变压器【纯农排变】,南黄南变压器,魏庄村变压器,南黄村东地【纯农排变】,保定白沟新城王场学校,王场东南台变压器,丰盛庄西2变压器,高碑店市鑫益隆塑料有限公司变压器,高碑店市同兴畜牧有限公司（王家场）变压器,南黄西地变压器【纯农排变】,王场南变压器,陶文祥革厂3,王场南地变压器【纯农排变】,魏庄北变压器,魏庄西南地变压器【纯农排变】,王场北变压器,王场东地变压器【纯农排变】,交警中队,丰盛庄南2变压器,新华油质化工厂,乔古寺东北地变压器,王场西南地变压器【纯农排变】,泗庄供电所变压器,南黄南2变压器,王场北地变压器【纯农排变】,乔古寺东1变压器,南黄西台变压器,客户投资_东黄南变压器,乔古寺地变压器【纯农排变】,王志丰,王场北3变压器,于广才革厂,冯宝赤革厂,陶文祥革厂1,油厂,乔古寺东2变压器,陶文祥革厂 2,张金明革厂,乔古寺西台变压器,南黄村变压器,未庄砖厂,河北省保定市高碑店市泗庄乡高碑店泗庄供电所,丰盛庄村变压器,魏庄地变压器,0387437068-世纪大道北东台-专变-45274563-世纪大道北东台,乔古寺西南地变压器【纯农排变】,东黄村变压器,高碑店市泗庄镇东黄小学,王场东南2变压器","poweroffReason":"【停电原因】由于乔古寺分支０６号杆有高速修路的车碰到线导致３５ＫＶ泗庄变电站１０ＫＶ东黄５１２线路全线停电 【变更送电】因抢修进度加快原因，送电时间由２１：００变更为１６：００ 【发布渠道】通过９５５９８发布","powerTime":"2020-03-26 15:23:39","powerComm":"已送电","subsNo":"","lineNo":"","tgNo":"","tgName":null,"infoStatus":"1","orgName":"国网高碑店市供电公司","typeName":null,"infoStatusName":null,"dateDay":null,"orgNos":null,"nowTime":null,"countyName":null,"streetName":null,"villageName":null,"roadName":null,"communityName":null,"tranName":null,"sdLineName":null,"cityCode":"1340612","cityName":"国网高碑店市供电公司","provinceCode":null,"stopTime":"2020-03-26 16:00:00","powerType":"全部","powerOffArea":"【全线路停电】停丰盛庄西变压器,丰盛庄南变压器,东黄西南变压器,丰盛庄北变压器,王场东变压器,高碑店市欣荣海绵纸厂,高碑店市泗庄迪航硕鞋厂,南黄东台区,保定森泽汽车销售有限公司,丰盛庄南三,平占杰,高碑店市博荣拉链有限公司,丰盛庄西南地变压器【纯农排变】,王场6号变台,油厂东,王场东南1变压器,春晖面粉厂,乔古寺东变压器,王场西北变压器,东黄南2变压器,魏庄西地变压器,东黄地变压器【纯农排变】,南黄南变压器,魏庄村变压器,南黄村东地【纯农排变】,保定白沟新城王场学校,王场东南台变压器,丰盛庄西2变压器,高碑店市鑫益隆塑料有限公司变压器,高碑店市同兴畜牧有限公司（王家场）变压器,南黄西地变压器【纯农排变】,王场南变压器,陶文祥革厂3,王场南地变压器【纯农排变】,魏庄北变压器,魏庄西南地变压器【纯农排变】,王场北变压器,王场东地变压器【纯农排变】,交警中队,丰盛庄南2变压器,新华油质化工厂,乔古寺东北地变压器,王场西南地变压器【纯农排变】,泗庄供电所变压器,南黄南2变压器,王场北地变压器【纯农排变】,乔古寺东1变压器,南黄西台变压器,客户投资_东黄南变压器,乔古寺地变压器【纯农排变】,王志丰,王场北3变压器,于广才革厂,冯宝赤革厂,陶文祥革厂1,油厂,乔古寺东2变压器,陶文祥革厂 2,张金明革厂,乔古寺西台变压器,南黄村变压器,未庄砖厂,河北省保定市高碑店市泗庄乡高碑店泗庄供电所,丰盛庄村变压器,魏庄地变压器,0387437068-世纪大道北东台-专变-45274563-世纪大道北东台,乔古寺西南地变压器【纯农排变】,东黄村变压器,高碑店市泗庄镇东黄小学,王场东南2变压器","powerOffReason":"【停电原因】由于乔古寺分支０６号杆有高速修路的车碰到线导致３５ＫＶ泗庄变电站１０ＫＶ东黄５１２线路全线停电 【变更送电】因抢修进度加快原因，送电时间由２１：００变更为１６：００ 【发布渠道】通过９５５９８发布","powerOffId":"2020032613000711"},{"poweroffId":2020032613000710,"sgpoweroffId":null,"subsName":"","lineName":"10kV513冯村线","pubTranName":"10kV513冯村线冯村08001台区变压器,10kV513冯村线沙沃08007台区变压器,10kV513冯村线55028台区变压器,10KV513冯村线08174台区变压器,10KV513冯村线24201台区变压器,10KV513冯村线沙沃08316台区变压器,10kV513冯村线冯村村北42842台区变压器,10kV513冯村线沙沃08088台区变压器,10kv513冯村线沙沃村村内08306台区变压器,10kV513冯村线冯村55029台区变压器,10KV513冯村线08034台区变压器,10kV513冯村线08175台区变压器,10kV513冯村线08002台区变压器,","scope":"【影响街道/乡镇】博野镇【高危重要客户】无【影响客户】沙沃、冯村、西高庄、南白沙、小苑","startTime":"2020-03-26 13:13:51","stopDate":"2020-03-26 14:30:00","orgNo":"1340608","typeCode":"电网故障停限电","poweroffArea":"【全线路停电】停10KV513冯村线沙沃08316台区变压器,10kV513冯村线冯村村北42842台区变压器,10kV513冯村线沙沃08088台区变压器,10kv513冯村线沙沃村村内08306台区变压器,10kV513冯村线冯村55029台区变压器,10KV513冯村线08034台区变压器,10kV513冯村线08175台区变压器,10kV513冯村线冯村08001台区变压器,10kV513冯村线沙沃08007台区变压器,10kV513冯村线08002台区变压器,10kV513冯村线55028台区变压器,10KV513冯村线08174台区变压器,10KV513冯村线24201台区变压器","poweroffReason":"【停电原因】由于线路接地导致１１０ＫＶ博野变电站冯村５１３线路全线停电【变更送电】因抢修进度加快原因，送电时间由２２：００变更为１４：３０【发布渠道】通过９５５９８发布","powerTime":"2020-03-26 14:18:18","powerComm":"已送电","subsNo":"","lineNo":"","tgNo":"","tgName":null,"infoStatus":"1","orgName":"国网博野县供电公司","typeName":null,"infoStatusName":null,"dateDay":null,"orgNos":null,"nowTime":null,"countyName":null,"streetName":null,"villageName":null,"roadName":null,"communityName":null,"tranName":null,"sdLineName":null,"cityCode":"1340608","cityName":"国网博野县供电公司","provinceCode":null,"stopTime":"2020-03-26 14:30:00","powerType":"全部","powerOffArea":"【全线路停电】停10KV513冯村线沙沃08316台区变压器,10kV513冯村线冯村村北42842台区变压器,10kV513冯村线沙沃08088台区变压器,10kv513冯村线沙沃村村内08306台区变压器,10kV513冯村线冯村55029台区变压器,10KV513冯村线08034台区变压器,10kV513冯村线08175台区变压器,10kV513冯村线冯村08001台区变压器,10kV513冯村线沙沃08007台区变压器,10kV513冯村线08002台区变压器,10kV513冯村线55028台区变压器,10KV513冯村线08174台区变压器,10KV513冯村线24201台区变压器","powerOffReason":"【停电原因】由于线路接地导致１１０ＫＶ博野变电站冯村５１３线路全线停电【变更送电】因抢修进度加快原因，送电时间由２２：００变更为１４：３０【发布渠道】通过９５５９８发布","powerOffId":"2020032613000710"},{"poweroffId":2020032613000707,"sgpoweroffId":null,"subsName":"","lineName":"尚汲铺线515","pubTranName":"尚汲铺村光1,六里屯光4【2018年重过载】,尚汲铺光2变,肖村营排10【纯农排变】,新九汲庄光3,九汲庄光2,六里屯光2,九汲庄光4,新六里屯光1,尚汲铺光3【2018年重过载】,尚汲铺光4,九汲庄光1【2018年技改】,","scope":"【影响街道/乡镇】固城镇 【高危重要客户】无 【影响客户】六里屯、尚汲铺、九汲庄、肖村营部分用户、东肖村部分用户","startTime":"2020-03-26 13:13:48","stopDate":"2020-03-26 15:10:00","orgNo":"1340609","typeCode":"电网故障停限电","poweroffArea":"【全线路停电】停新六里屯光1,尚汲铺光3【2018年重过载】,尚汲铺光4,九汲庄光1【2018年技改】,尚汲铺村光1,六里屯光4【2018年重过载】,尚汲铺光2变,肖村营排10【纯农排变】 ,新九汲庄光3,六里屯光3,九汲庄排3【纯农排变】,九汲庄排2【纯农排变】,九汲庄光2,肖村营排5【纯农排变】,六里屯光2,尚汲铺混1,尚汲铺混2,东肖村混10,九汲庄排1【纯农排变】,六里屯排1【纯农排变】,六里屯排2【纯农排变】,肖村营排1【纯农排变】,九汲庄光4,肖村营排2【纯农排变】","poweroffReason":"【停电原因】由于主干７８号杆铁丝搭担导致１１０ＫＶ北河变电站尚汲铺线５１５线路全线停电 【变更送电】因抢修进度加快原因，送电时间由２０：００变更为１５：１０ 【发布渠道】通过９５５９８发布","powerTime":"2020-03-26 14:39:41","powerComm":"已送电","subsNo":"","lineNo":"","tgNo":"","tgName":null,"infoStatus":"1","orgName":"国网定兴县供电公司","typeName":null,"infoStatusName":null,"dateDay":null,"orgNos":null,"nowTime":null,"countyName":null,"streetName":null,"villageName":null,"roadName":null,"communityName":null,"tranName":null,"sdLineName":null,"cityCode":"1340609","cityName":"国网定兴县供电公司","provinceCode":null,"stopTime":"2020-03-26 15:10:00","powerType":"全部","powerOffArea":"【全线路停电】停新六里屯光1,尚汲铺光3【2018年重过载】,尚汲铺光4,九汲庄光1【2018年技改】,尚汲铺村光1,六里屯光4【2018年重过载】,尚汲铺光2变,肖村营排10【纯农排变】 ,新九汲庄光3,六里屯光3,九汲庄排3【纯农排变】,九汲庄排2【纯农排变】,九汲庄光2,肖村营排5【纯农排变】,六里屯光2,尚汲铺混1,尚汲铺混2,东肖村混10,九汲庄排1【纯农排变】,六里屯排1【纯农排变】,六里屯排2【纯农排变】,肖村营排1【纯农排变】,九汲庄光4,肖村营排2【纯农排变】","powerOffReason":"【停电原因】由于主干７８号杆铁丝搭担导致１１０ＫＶ北河变电站尚汲铺线５１５线路全线停电 【变更送电】因抢修进度加快原因，送电时间由２０：００变更为１５：１０ 【发布渠道】通过９５５９８发布","powerOffId":"2020032613000707"},{"poweroffId":2020032613000691,"sgpoweroffId":null,"subsName":"","lineName":"10kV515粮局线","pubTranName":"（195）旧经委公用照明2台区,（202）西关东下坡公用照明3台区,旧经委公用照明3台区,爵士山公用照明9台区中压出线间隔配电变压器,（103）工行院公用照明台区,（201）回收公用照明2台区,（62）回收公用照明台区,爵士山公用照明2台区配电变压器,（56）旧经委公用照明1台区,（40）搬运站公用照明台区,爵士山公用照明3台区中压出线间隔配电变压器,（149）西关生产院公用照明台区,爵士山公用照明4台区中压出线间隔配电变压器,爵士山公用照明5台区中压出线间隔配电变压器,爵士山公用照明1台区中压出线间隔配电变压器,爵士山公用照明7台区中压出线间隔配电变压器,（114）三公司院公用照明台区,（39）西关西街公用照明台区,客户投资_（54）西关北街公用照明台区,（53）西关东下坡公用照明1台区,（110）粮局院公用照明台区,水泥构件厂公用照明1台区,（78）西城供销社公用照明台区,爵士山公用照明6台区中压出线间隔配电变压器,爵士山公用照明8台区中压出线间隔配电变压器,（40）搬运公司公用照明台区,","scope":"【影响街道/乡镇】西关北街、明月北街、西关西街、兴华西路【高危重要客户】无【影响客户】西关地道桥、西关电影院、齿轮厂、爵士山小区、书香园小区、领秀城小区、万乐网吧、红阳小区、车站、邮政局、邮政局家属院、粮局院、搬运站院、三公司院、西关转盘、大红门超市、西城供销社家属院、市社院、生产资料公司、西关信用社、明月新城一期","startTime":"2020-04-07 00:30:00","stopDate":"2020-04-07 04:30:00","orgNo":"1340610","typeCode":"计划停电","poweroffArea":"【全线路停电】停河北东升房地产开发集团有限公司 明月新城一期物业变压器,（201）回收公用照明2台区,（62）回收公用照明台区,0663867138-建投能源定州热力有限责任公司-专变-199145306-建投能源定州热力有限责任公司变压器,定州市博陵老家肉饼店,定州市万乐网络服务有限公司,河北宏基房地产开发有限公司,爵士山公用照明3台区中压出线间隔配电变压器,副食品公司,（149）西关生产院公用照明台区,爵士山公用照明4台区中压出线间隔配电变压器,（78）西城供销社公用照明台区,一旅馆,张晓辉,高碑店隆泰物业服务有限责任公司定州分公司,0676186767-建投能源定州热力有限责任公司-专变-217732540-河北东升房地产开发集团有限公司变压器,邮政局院,爵士山公用照明6台区中压出线间隔配电变压器,电影院,爵士山公用照明8台区中压出线间隔配电变压器,生产公司,生产肉食,河北东升房地产开发集团有限公司 明月新城一期热站变压器,三公司,（40）搬运公司公用照明台区,邮政局,河北东升房地产开发集团有限公司 明月新城一期居民1变压器1,（195）旧经委公用照明2台区,河北臻万房地产开发有限公司 爵仕山公用西侧南变压器,（202）西关东下坡公用照明3台区,旧经委公用照明3台区,爵士山公用照明9台区中压出线间隔配电变压器,河北东升房地产开发集团有限公司 明月新城一期居民2变压器2,隆基泰和实业有限公司定州分公司1,（103）工行院公用照明台区,河北定州国家粮食储备库有限公司,爵士山公用照明5台区中压出线间隔配电变压器,河北臻万房地产开发有限公司 爵仕山公用西侧东变压器2,隆基泰和实业有限公司定州分公司2,隆基泰和实业有限公司定州分公司4,丰元生产资料公司,定州永泰房地产,爵士山公用照明1台区中压出线间隔配电变压器,爵士山公用照明7台区中压出线间隔配电变压器,河北臻万房地产开发有限公司 爵仕山供热变压器,（114）三公司院公用照明台区,河北臻万房地产开发有限公司 爵仕山公用西侧东变压器1,河北东升房地产开发集团有限公司 明月新城一期居民2变压器1,河北东升房地产开发集团有限公司 明月新城一期居民1变压器2,河北臻万房地产开发有限公司 爵仕山商业变压器,0630618011-定州市和盛物业服务有限公司-专变-141696074-定州领秀房地产开发有限公司1变压器1,0549289922-建投能源定州热力有限责任公司-专变-74451832-高碑店隆泰物业服务有限责任公司定州分公司,定州市志广好滋味快餐店变压器,0630618011-定州市和盛物业服务有限公司-专变-141696078-定州领秀房地产开发有限公司1变压器2,（39）西关西街公用照明台区,0656539741-河北保定运输集团有限责任公司第三运输公司-专变-187321898-河北保定运输集团有限责任公司第三运输公司变压器,博陵街路灯,明月街北路灯,客户投资_（54）西关北街公用照明台区,（53）西关东下坡公用照明1台区,定州永大房地产,隆基泰和实业有限公司定州分公司3,定州市财政局,（110）粮局院公用照明台区,水泥构件厂公用照明1台区,0630618011-定州市和盛物业服务有限公司-专变-141696083-定州领秀房地产开发有限公司2,爵士山公用照明2台区配电变压器,0387426006-定州眼科医院-专变-128956747-定州眼科医院变压器,（56）旧经委公用照明1台区,河北臻万房地产开发有限公司 爵仕山公用东侧变压器,0387428419-北京铁路局石家庄供电段-专变-216176246-北京铁路局石家庄供电段变压器,（40）搬运站公用照明台区","poweroffReason":"【停电原因】由于高压引线工程接引导致１１０ＫＶ总司屯变电站１０ＫＶ５１５粮局线路全线停电 【变更送电】无 【发布渠道】河北省定州市定州日报第三版（２０２０年０３月２７日）","powerTime":"2020-04-07 04:07:46","powerComm":"已送电","subsNo":"","lineNo":"","tgNo":"","tgName":null,"infoStatus":"1","orgName":"国网定州市供电公司","typeName":null,"infoStatusName":null,"dateDay":null,"orgNos":null,"nowTime":null,"countyName":null,"streetName":null,"villageName":null,"roadName":null,"communityName":null,"tranName":null,"sdLineName":null,"cityCode":"1340610","cityName":"国网定州市供电公司","provinceCode":null,"stopTime":"2020-04-07 04:30:00","powerType":"全部","powerOffArea":"【全线路停电】停河北东升房地产开发集团有限公司 明月新城一期物业变压器,（201）回收公用照明2台区,（62）回收公用照明台区,0663867138-建投能源定州热力有限责任公司-专变-199145306-建投能源定州热力有限责任公司变压器,定州市博陵老家肉饼店,定州市万乐网络服务有限公司,河北宏基房地产开发有限公司,爵士山公用照明3台区中压出线间隔配电变压器,副食品公司,（149）西关生产院公用照明台区,爵士山公用照明4台区中压出线间隔配电变压器,（78）西城供销社公用照明台区,一旅馆,张晓辉,高碑店隆泰物业服务有限责任公司定州分公司,0676186767-建投能源定州热力有限责任公司-专变-217732540-河北东升房地产开发集团有限公司变压器,邮政局院,爵士山公用照明6台区中压出线间隔配电变压器,电影院,爵士山公用照明8台区中压出线间隔配电变压器,生产公司,生产肉食,河北东升房地产开发集团有限公司 明月新城一期热站变压器,三公司,（40）搬运公司公用照明台区,邮政局,河北东升房地产开发集团有限公司 明月新城一期居民1变压器1,（195）旧经委公用照明2台区,河北臻万房地产开发有限公司 爵仕山公用西侧南变压器,（202）西关东下坡公用照明3台区,旧经委公用照明3台区,爵士山公用照明9台区中压出线间隔配电变压器,河北东升房地产开发集团有限公司 明月新城一期居民2变压器2,隆基泰和实业有限公司定州分公司1,（103）工行院公用照明台区,河北定州国家粮食储备库有限公司,爵士山公用照明5台区中压出线间隔配电变压器,河北臻万房地产开发有限公司 爵仕山公用西侧东变压器2,隆基泰和实业有限公司定州分公司2,隆基泰和实业有限公司定州分公司4,丰元生产资料公司,定州永泰房地产,爵士山公用照明1台区中压出线间隔配电变压器,爵士山公用照明7台区中压出线间隔配电变压器,河北臻万房地产开发有限公司 爵仕山供热变压器,（114）三公司院公用照明台区,河北臻万房地产开发有限公司 爵仕山公用西侧东变压器1,河北东升房地产开发集团有限公司 明月新城一期居民2变压器1,河北东升房地产开发集团有限公司 明月新城一期居民1变压器2,河北臻万房地产开发有限公司 爵仕山商业变压器,0630618011-定州市和盛物业服务有限公司-专变-141696074-定州领秀房地产开发有限公司1变压器1,0549289922-建投能源定州热力有限责任公司-专变-74451832-高碑店隆泰物业服务有限责任公司定州分公司,定州市志广好滋味快餐店变压器,0630618011-定州市和盛物业服务有限公司-专变-141696078-定州领秀房地产开发有限公司1变压器2,（39）西关西街公用照明台区,0656539741-河北保定运输集团有限责任公司第三运输公司-专变-187321898-河北保定运输集团有限责任公司第三运输公司变压器,博陵街路灯,明月街北路灯,客户投资_（54）西关北街公用照明台区,（53）西关东下坡公用照明1台区,定州永大房地产,隆基泰和实业有限公司定州分公司3,定州市财政局,（110）粮局院公用照明台区,水泥构件厂公用照明1台区,0630618011-定州市和盛物业服务有限公司-专变-141696083-定州领秀房地产开发有限公司2,爵士山公用照明2台区配电变压器,0387426006-定州眼科医院-专变-128956747-定州眼科医院变压器,（56）旧经委公用照明1台区,河北臻万房地产开发有限公司 爵仕山公用东侧变压器,0387428419-北京铁路局石家庄供电段-专变-216176246-北京铁路局石家庄供电段变压器,（40）搬运站公用照明台区","powerOffReason":"【停电原因】由于高压引线工程接引导致１１０ＫＶ总司屯变电站１０ＫＶ５１５粮局线路全线停电 【变更送电】无 【发布渠道】河北省定州市定州日报第三版（２０２０年０３月２７日）","powerOffId":"2020032613000691"},{"poweroffId":2020032613000629,"sgpoweroffId":null,"subsName":"","lineName":"10kV西辛庄线556","pubTranName":"1大张庄内6,","scope":"【影响街道/乡镇】冉庄镇 【高危重要客户】无 【影响客户】大张庄","startTime":"2020-03-26 12:14:54","stopDate":"2020-03-26 14:30:00","orgNo":"1340618","typeCode":"电网故障停限电","poweroffArea":"【单台区停电】停1大张庄内6","poweroffReason":"【停电原因】由于低压线断导致１１０ＫＶ罗侯变电站１０ＫＶ西辛庄线５５６线路１大张庄内６号公变台区停电 【变更送电】因抢修进度加快原因，送电时间由１９：００变更为１４：３０ 【发布渠道】通过９５５９８发布","powerTime":"2020-03-26 13:53:51","powerComm":"张强通知已送电","subsNo":"","lineNo":"","tgNo":"","tgName":null,"infoStatus":"1","orgName":"国网清苑县供电公司","typeName":null,"infoStatusName":null,"dateDay":null,"orgNos":null,"nowTime":null,"countyName":null,"streetName":null,"villageName":null,"roadName":null,"communityName":null,"tranName":null,"sdLineName":null,"cityCode":"1340618","cityName":"国网清苑县供电公司","provinceCode":null,"stopTime":"2020-03-26 14:30:00","powerType":"全部","powerOffArea":"【单台区停电】停1大张庄内6","powerOffReason":"【停电原因】由于低压线断导致１１０ＫＶ罗侯变电站１０ＫＶ西辛庄线５５６线路１大张庄内６号公变台区停电 【变更送电】因抢修进度加快原因，送电时间由１９：００变更为１４：３０ 【发布渠道】通过９５５９８发布","powerOffId":"2020032613000629"},{"poweroffId":2020032613000623,"sgpoweroffId":null,"subsName":"","lineName":"10kV忠义庄线553","pubTranName":"1齐西街内5,","scope":"【影响街道/乡镇】魏村镇 【高危重要客户】无 【影响客户】齐贤庄西街村","startTime":"2020-03-26 12:10:53","stopDate":"2020-03-26 15:40:00","orgNo":"1340618","typeCode":"电网故障停限电","poweroffArea":"【单台区停电】停1齐西街内5","poweroffReason":"【停电原因】由于低压线断导致１１０ＫＶ罗侯变电站１０ＫＶ忠义庄线５５３线路１齐西街内５号公变台区停电 【变更送电】因抢修进度加快原因，送电时间由１８：００变更为１５：４０ 【发布渠道】通过９５５９８发布","powerTime":"2020-03-26 15:18:45","powerComm":"李会军通知已送电","subsNo":"","lineNo":"","tgNo":"","tgName":null,"infoStatus":"1","orgName":"国网清苑县供电公司","typeName":null,"infoStatusName":null,"dateDay":null,"orgNos":null,"nowTime":null,"countyName":null,"streetName":null,"villageName":null,"roadName":null,"communityName":null,"tranName":null,"sdLineName":null,"cityCode":"1340618","cityName":"国网清苑县供电公司","provinceCode":null,"stopTime":"2020-03-26 15:40:00","powerType":"全部","powerOffArea":"【单台区停电】停1齐西街内5","powerOffReason":"【停电原因】由于低压线断导致１１０ＫＶ罗侯变电站１０ＫＶ忠义庄线５５３线路１齐西街内５号公变台区停电 【变更送电】因抢修进度加快原因，送电时间由１８：００变更为１５：４０ 【发布渠道】通过９５５９８发布","powerOffId":"2020032613000623"}],"pageModel":{"pageNow":223,"totalCount":10973,"totalPage":1098,"tableRows":0,"pageCount":10,"beginCount":2220},"isExperi":"1"}