{"message":"","today":"2020-06-15","seleList":[{"poweroffId":2020032613000277,"sgpoweroffId":null,"subsName":"","lineName":"10kV512野陈佐线","pubTranName":"野陈佐综合4台区,野陈佐综合10台区,西保去综合5台区,西鲍墟综合6台区,野陈佐农排11台区【纯农排变】,野陈佐综合8台区,北保去农排6台区【纯农排变】,南鲍墟综合9台区,西鲍墟综合8台区,野陈佐综合1台区,南鲍墟综合4台区,北保去综合3台区,南保去综合1台区,东鲍墟综合5台区,野陈佐综合3台区,西保去综合2台区,南保去综合2台区,北保去农排10台区【纯农排变】,东保去综合3台区,东鲍墟综合7台区,南鲍墟综合6台区,北保去农排3台区【纯农排变】,野陈佐综合6台区,西保去综合3台区,野陈佐综合5台区,南保去综合3台区,北鲍墟综合5台区,北保去综合1台区,南鲍墟综合7台区,西保去综合1台区,西保去综合4台区,北鲍墟综合7台区,野陈佐综合9台区,东保去综合2台区,野陈佐农排2台区【纯农排变】,东保去综合1台区,东鲍墟综合6台区,西保去农排4台区【纯农排变】,东保去农排3台区【纯农排变】,西鲍墟综合7台区,野陈佐综合2台区,野陈佐综合7台区,北保去农排2台区【纯农排变】,野陈佐农排9台区【纯农排变】,北鲍墟综合4台区,北鲍墟综合9台区,野陈佐农排1台区【纯农排变】,东保去综合4台区,北鲍墟综合6台区,南鲍墟综合8台区,北鲍墟综合8台区,南鲍墟综合5台区,北保去综合2台区,野陈佐农排3台区【纯农排变】,","scope":"【影响街道/乡镇】鲍墟乡【高危重要客户】无【影响客户】野陈佐村、东鲍墟村、北鲍墟村、西鲍墟村、南鲍墟村","startTime":"2020-03-26 09:21:16","stopDate":"2020-03-26 11:00:00","orgNo":"1340616","typeCode":"电网故障停限电","poweroffArea":"【全线路停电】停文瑞,南鲍墟综合4台区,野陈佐农排6台区【纯农排变】,南保去农排5台区【纯农排变】,北保去综合3台区,北保去农排5台区【纯农排变】,西保去综合4台区,野陈佐综合3台区,西鲍墟综合7台区,西保去农排1台区【纯农排变】,北保去农排7台区【纯农排变】,北鲍墟综合8台区,南保去综合1台区,野陈佐农排8台区【纯农排变】,西鲍墟综合6台区,西鲍墟综合8台区,东保去农排4台区【纯农排变】,野陈佐农排11台区【纯农排变】,中学农场,进托,南保去农排6台区【纯农排变】,南鲍墟综合7台区,野陈佐农排9台区【纯农排变】,野陈佐综合1台区,西保去综合1台区,瑞兴宏景变压器500,北保去农排9台区【纯农排变】,南保去综合2台区,西保去综合2台区,养牛厂,西保去综合5台区,小杰,保去社办厂,中学农场大变压器,北鲍墟综合7台区,南保去农排7台区【纯农排变】,南保去综合3台区,保去中学变压器,野陈佐农排4台区【纯农排变】,野陈佐农排1台区【纯农排变】,野陈佐综合2台区,南鲍墟综合6台区,北鲍墟综合4台区,北保去农排6台区【纯农排变】,北鲍墟综合6台区,北保去农排8台区【纯农排变】,东保去农排1台区【纯农排变】,野陈佐综合5台区,南保去农排2台区【纯农排变】,东保去农排6台区【纯农排变】,野陈佐农排2台区【纯农排变】,西保去农排4台区【纯农排变】,北鲍墟综合5台区,西保去农排3台区【纯农排变】,北保去综合2台区,北保去农排1台区【纯农排变】,蠡县春梅芦笋农民专业合作社,野陈佐综合9台区,蠡县淑亮狐饲料农民专业合作社,北保去综合1台区,西保去综合3台区,野陈佐综合10台区,野陈佐农排10台区【纯农排变】,东保去综合4台区,南保去农排1台区【纯农排变】,东鲍墟综合7台区,南保去农排4台区【纯农排变】,北鲍墟综合9台区,东保去综合3台区,野陈佐农排3台区【纯农排变】,野陈佐综合7台区,北保去农排2台区【纯农排变】,西保去农排7台区【纯农排变】,北保去农排10台区【纯农排变】,南鲍墟综合9台区,东保去农排5台区【纯农排变】,东保去综合1台区,南保红亮,瑞兴宏景变压器315,野陈佐综合4台区,北保去农排4台区【纯农排变】,东鲍墟综合6台区,北保去农排3台区【纯农排变】,西保去农排2台区【纯农排变】,东保去农排2台区【纯农排变】,西保去农排5台区【纯农排变】,野陈佐农排7台区【纯农排变】,南保去农排3台区【纯农排变】,野陈佐农排5台区【纯农排变】,野陈佐综合8台区,西保农排6台区【纯农排变】,蠡县亿帮洁日化有限公司,南鲍墟综合5台区,东保去农排3台区【纯农排变】,野陈佐综合6台区,南鲍墟综合8台区,东鲍墟综合5台区,东保去综合2台区","poweroffReason":"【停电原因】由于线路接地导致３５ＫＶ鲍墟变电站１０ＫＶ野陈佐５１２线路全线停电【变更送电】因抢修进度加快原因，送电时间由２３：００变更为１１：００【发布渠道】通过９５５９８发布","powerTime":"2020-03-26 10:37:46","powerComm":"已送电","subsNo":"","lineNo":"","tgNo":"","tgName":null,"infoStatus":"1","orgName":"国网蠡县供电公司","typeName":null,"infoStatusName":null,"dateDay":null,"orgNos":null,"nowTime":null,"countyName":null,"streetName":null,"villageName":null,"roadName":null,"communityName":null,"tranName":null,"sdLineName":null,"cityCode":"1340616","cityName":"国网蠡县供电公司","provinceCode":null,"stopTime":"2020-03-26 11:00:00","powerType":"全部","powerOffArea":"【全线路停电】停文瑞,南鲍墟综合4台区,野陈佐农排6台区【纯农排变】,南保去农排5台区【纯农排变】,北保去综合3台区,北保去农排5台区【纯农排变】,西保去综合4台区,野陈佐综合3台区,西鲍墟综合7台区,西保去农排1台区【纯农排变】,北保去农排7台区【纯农排变】,北鲍墟综合8台区,南保去综合1台区,野陈佐农排8台区【纯农排变】,西鲍墟综合6台区,西鲍墟综合8台区,东保去农排4台区【纯农排变】,野陈佐农排11台区【纯农排变】,中学农场,进托,南保去农排6台区【纯农排变】,南鲍墟综合7台区,野陈佐农排9台区【纯农排变】,野陈佐综合1台区,西保去综合1台区,瑞兴宏景变压器500,北保去农排9台区【纯农排变】,南保去综合2台区,西保去综合2台区,养牛厂,西保去综合5台区,小杰,保去社办厂,中学农场大变压器,北鲍墟综合7台区,南保去农排7台区【纯农排变】,南保去综合3台区,保去中学变压器,野陈佐农排4台区【纯农排变】,野陈佐农排1台区【纯农排变】,野陈佐综合2台区,南鲍墟综合6台区,北鲍墟综合4台区,北保去农排6台区【纯农排变】,北鲍墟综合6台区,北保去农排8台区【纯农排变】,东保去农排1台区【纯农排变】,野陈佐综合5台区,南保去农排2台区【纯农排变】,东保去农排6台区【纯农排变】,野陈佐农排2台区【纯农排变】,西保去农排4台区【纯农排变】,北鲍墟综合5台区,西保去农排3台区【纯农排变】,北保去综合2台区,北保去农排1台区【纯农排变】,蠡县春梅芦笋农民专业合作社,野陈佐综合9台区,蠡县淑亮狐饲料农民专业合作社,北保去综合1台区,西保去综合3台区,野陈佐综合10台区,野陈佐农排10台区【纯农排变】,东保去综合4台区,南保去农排1台区【纯农排变】,东鲍墟综合7台区,南保去农排4台区【纯农排变】,北鲍墟综合9台区,东保去综合3台区,野陈佐农排3台区【纯农排变】,野陈佐综合7台区,北保去农排2台区【纯农排变】,西保去农排7台区【纯农排变】,北保去农排10台区【纯农排变】,南鲍墟综合9台区,东保去农排5台区【纯农排变】,东保去综合1台区,南保红亮,瑞兴宏景变压器315,野陈佐综合4台区,北保去农排4台区【纯农排变】,东鲍墟综合6台区,北保去农排3台区【纯农排变】,西保去农排2台区【纯农排变】,东保去农排2台区【纯农排变】,西保去农排5台区【纯农排变】,野陈佐农排7台区【纯农排变】,南保去农排3台区【纯农排变】,野陈佐农排5台区【纯农排变】,野陈佐综合8台区,西保农排6台区【纯农排变】,蠡县亿帮洁日化有限公司,南鲍墟综合5台区,东保去农排3台区【纯农排变】,野陈佐综合6台区,南鲍墟综合8台区,东鲍墟综合5台区,东保去综合2台区","powerOffReason":"【停电原因】由于线路接地导致３５ＫＶ鲍墟变电站１０ＫＶ野陈佐５１２线路全线停电【变更送电】因抢修进度加快原因，送电时间由２３：００变更为１１：００【发布渠道】通过９５５９８发布","powerOffId":"2020032613000277"},{"poweroffId":2020032613000270,"sgpoweroffId":null,"subsName":"","lineName":"10kV516南郭丹线","pubTranName":"东丹综合4台区,客户投资_南丹综合8台区,南丹综合4台区,东丹综合9台区,南丹农排6台区【纯农排变】,西丹农排5台区【纯农排变】,西丹综合3台区,南丹综合2台区,南丹综合7台区,客户投资_西丹综合7台区,客户投资_东丹综合3台区,东丹农排2台区【纯农排变】,客户投资_南丹综合11台区,东丹综合13台区,客户投资_东丹综合2台区,大洋农排8台区【纯农排变】,东丹综合5台区,东丹综合11台区,西丹农排1台区【纯农排变】,南丹综合3台区,西丹综合1台区,西丹综合2台区,东丹综合1台区,东丹综合7台区,南丹综合5台区,东丹综合6台区,客户投资_西丹综合6台区,东丹综合8台区,南丹综合1台区,南丹综合6台区,西丹综合4台区,西丹综合5台区,客户投资_南丹综合10台区,","scope":"【影响街道/乡镇】北郭丹镇【高危重要客户】无【影响客户】东郭丹村（东丹）、南郭丹村（南丹）、西郭丹村（西丹）","startTime":"2020-03-26 09:19:00","stopDate":"2020-03-26 11:00:00","orgNo":"1340616","typeCode":"电网故障停限电","poweroffArea":"【全线路停电】停建秋厂,蠡县东丹第二毛纺厂,西丹农排1台区【纯农排变】,客户投资_南丹综合10台区,西丹综合1台区,中国移动通信集团河北有限公司蠡县分公司,南丹综合4台区,蠡县东丹第二纺织厂变压器,大洋农排8台区【纯农排变】,客户投资_东丹综合3台区,西丹综合4台区,蠡县春晟纺纱厂变压器,东丹综合11台区,东丹综合1台区,南丹综合3台区,西丹综合5台区,客户投资_南丹综合11台区,东丹综合6台区,东丹史大通,东丹综合7台区,？县旭日毛呢纺织厂,西丹浇地2,蠡县鹤彩纺织品有限公司,东丹综合8台区,东丹综合4台区,南丹综合1台区,东丹综合9台区,蠡县杰欣毛纺厂,东丹第二毛纺织厂200变压器,东丹综合5台区,南丹综合5台区,蠡县朝庆纤维加工厂,南丹综合2台区,东丹农排1台区【纯农排变】,南丹综合6台区,客户投资_西丹综合7台区,西丹综合2台区,蠡县绿源科技养殖有限公司,东丹农排2台区【纯农排变】,西丹浇地,东丹第二毛纺厂,东丹综合13台区,客户投资_南丹综合8台区,东丹第一毛纺厂,东丹浇地2,客户投资_东丹综合2台区,保定金若兰皮具有限公司,西丹综合3台区,西丹农排5台区【纯农排变】,客户投资_西丹综合6台区,南丹农排6台区【纯农排变】,南丹综合7台区","poweroffReason":"【停电原因】由于线路接地导致３５ＫＶ郭丹变电站１０ＫＶ南郭丹５１６线路全线停电【变更送电】因抢修进度加快原因，送电时间由２３：００变更为１１：００【发布渠道】通过９５５９８发布","powerTime":"2020-03-26 10:41:10","powerComm":"已送电","subsNo":"","lineNo":"","tgNo":"","tgName":null,"infoStatus":"1","orgName":"国网蠡县供电公司","typeName":null,"infoStatusName":null,"dateDay":null,"orgNos":null,"nowTime":null,"countyName":null,"streetName":null,"villageName":null,"roadName":null,"communityName":null,"tranName":null,"sdLineName":null,"cityCode":"1340616","cityName":"国网蠡县供电公司","provinceCode":null,"stopTime":"2020-03-26 11:00:00","powerType":"全部","powerOffArea":"【全线路停电】停建秋厂,蠡县东丹第二毛纺厂,西丹农排1台区【纯农排变】,客户投资_南丹综合10台区,西丹综合1台区,中国移动通信集团河北有限公司蠡县分公司,南丹综合4台区,蠡县东丹第二纺织厂变压器,大洋农排8台区【纯农排变】,客户投资_东丹综合3台区,西丹综合4台区,蠡县春晟纺纱厂变压器,东丹综合11台区,东丹综合1台区,南丹综合3台区,西丹综合5台区,客户投资_南丹综合11台区,东丹综合6台区,东丹史大通,东丹综合7台区,？县旭日毛呢纺织厂,西丹浇地2,蠡县鹤彩纺织品有限公司,东丹综合8台区,东丹综合4台区,南丹综合1台区,东丹综合9台区,蠡县杰欣毛纺厂,东丹第二毛纺织厂200变压器,东丹综合5台区,南丹综合5台区,蠡县朝庆纤维加工厂,南丹综合2台区,东丹农排1台区【纯农排变】,南丹综合6台区,客户投资_西丹综合7台区,西丹综合2台区,蠡县绿源科技养殖有限公司,东丹农排2台区【纯农排变】,西丹浇地,东丹第二毛纺厂,东丹综合13台区,客户投资_南丹综合8台区,东丹第一毛纺厂,东丹浇地2,客户投资_东丹综合2台区,保定金若兰皮具有限公司,西丹综合3台区,西丹农排5台区【纯农排变】,客户投资_西丹综合6台区,南丹农排6台区【纯农排变】,南丹综合7台区","powerOffReason":"【停电原因】由于线路接地导致３５ＫＶ郭丹变电站１０ＫＶ南郭丹５１６线路全线停电【变更送电】因抢修进度加快原因，送电时间由２３：００变更为１１：００【发布渠道】通过９５５９８发布","powerOffId":"2020032613000270"},{"poweroffId":2020032613000227,"sgpoweroffId":null,"subsName":"","lineName":"10kV525高庄线","pubTranName":"南许综合17台区,高庄综合1台区,南许综合6台区,高庄农排2台区【纯农排变】,南许综合19台区,南许综合12台区,南许综合1台区,南许综合10台区,南许综合22台区变压器,高庄农排3台区【纯农排变】,客户投资_南许综合11台区,南许综合21台区,客户投资_南许综合5台区,高庄综合3台区,南许综合20台区,南许综合18台区,南许综合24台区变压器,南许综合16台区,蠡县南许幼儿园变压器,南许综合15台区,南许农排2台区变压器【纯农排变】,南许综合3台区,南许综合13台区,南许综合14台区,南许综合7台区,客户投资_南许综合4台区,蠡县南许小学变压器,南许综合8台区,南许综合2台区,南许综合9台区,高庄综合2台区,高庄综合4台区变压器,","scope":"【影响街道/乡镇】大百尺镇【高危重要客户】无【影响客户】南许村、高庄村","startTime":"2020-03-26 08:50:00","stopDate":"2020-03-26 13:30:00","orgNo":"1340616","typeCode":"电网故障停限电","poweroffArea":"【全线路停电】停南许综合7台区,蠡县正德综合养猪场变压器,恒发毛纺厂,南许农排8台区,南许农排11台区,南许综合20台区,南许综合18台区,南许综合24台区变压器,立源毛纺厂,南许综合9台区,南许综合13台区,南许综合14台区,南许综合16台区,0664755083-中国石油天然气股份有限公司华北油田分公司-专变-202593684-中国石油天然气股份有限公司华北油田分公司变压器,南许农排十二台区,线头加工开花厂,南许农排一台区,南许综合3台区,南许面粉厂,蠡县南许幼儿园变压器,蠡县正德养殖厂,0653453811-蠡县南许二安化纤加工厂-专变-183583595-蠡县南许二安化纤加工厂变压器,南许农排五台区,南许农排2台区变压器【纯农排变】,南许农排三台区,高庄综合4台区变压器,南许综合17台区,南许农排十三台区,南许综合2台区,0683759859-蠡县宏凯棉纺织厂-专变-223596485-蠡县宏凯棉纺织厂变压器,蠡县南许小学变压器,南许综合1台区,南许农排七台区,蠡县统力毛纺厂变压器,南许综合10台区,南许农排四台区,南许村东浇地,保定利源毛纺织有限公司变压器,棉线加工厂,南许烤鸭店,南许综合22台区变压器,南许水泥制板厂,南许综合15台区,益利毛纺厂变压器,南许综合21台区,中国移动通信集团河北有限公司蠡县分公司,客户投资_南许综合11台区,高庄综合3台区,0617141804-蠡县南许二安化纤加工厂-专变-128570237-蠡县南许二安化纤加工厂变压器,南许综合8台区,0681794595-蠡县南许二安化纤加工厂-专变-219745267-蠡县南许二安化纤加工厂变压器,客户投资_南许综合5台区,南许农排六台区,树理浇地,南许农排二台区,客户投资_南许综合4台区,南许梳绒厂,南许开花厂,高庄综合2台区,高庄农排2台区【纯农排变】,南许综合19台区,南许综合12台区,高庄农排1台区【纯农排变】,高庄农排3台区【纯农排变】,高庄综合1台区,南许综合6台区","poweroffReason":"【停电原因】由于站内开关掉闸导致１１０ＫＶ刘铭庄变电站１０ＫＶ高庄５２５线路全线停电【变更送电】因抢修进度加快原因，送电时间由２３：００变更为１３：３０【发布渠道】通过９５５９８发布","powerTime":"2020-03-26 12:46:10","powerComm":"已送电","subsNo":"","lineNo":"","tgNo":"","tgName":null,"infoStatus":"1","orgName":"国网蠡县供电公司","typeName":null,"infoStatusName":null,"dateDay":null,"orgNos":null,"nowTime":null,"countyName":null,"streetName":null,"villageName":null,"roadName":null,"communityName":null,"tranName":null,"sdLineName":null,"cityCode":"1340616","cityName":"国网蠡县供电公司","provinceCode":null,"stopTime":"2020-03-26 13:30:00","powerType":"全部","powerOffArea":"【全线路停电】停南许综合7台区,蠡县正德综合养猪场变压器,恒发毛纺厂,南许农排8台区,南许农排11台区,南许综合20台区,南许综合18台区,南许综合24台区变压器,立源毛纺厂,南许综合9台区,南许综合13台区,南许综合14台区,南许综合16台区,0664755083-中国石油天然气股份有限公司华北油田分公司-专变-202593684-中国石油天然气股份有限公司华北油田分公司变压器,南许农排十二台区,线头加工开花厂,南许农排一台区,南许综合3台区,南许面粉厂,蠡县南许幼儿园变压器,蠡县正德养殖厂,0653453811-蠡县南许二安化纤加工厂-专变-183583595-蠡县南许二安化纤加工厂变压器,南许农排五台区,南许农排2台区变压器【纯农排变】,南许农排三台区,高庄综合4台区变压器,南许综合17台区,南许农排十三台区,南许综合2台区,0683759859-蠡县宏凯棉纺织厂-专变-223596485-蠡县宏凯棉纺织厂变压器,蠡县南许小学变压器,南许综合1台区,南许农排七台区,蠡县统力毛纺厂变压器,南许综合10台区,南许农排四台区,南许村东浇地,保定利源毛纺织有限公司变压器,棉线加工厂,南许烤鸭店,南许综合22台区变压器,南许水泥制板厂,南许综合15台区,益利毛纺厂变压器,南许综合21台区,中国移动通信集团河北有限公司蠡县分公司,客户投资_南许综合11台区,高庄综合3台区,0617141804-蠡县南许二安化纤加工厂-专变-128570237-蠡县南许二安化纤加工厂变压器,南许综合8台区,0681794595-蠡县南许二安化纤加工厂-专变-219745267-蠡县南许二安化纤加工厂变压器,客户投资_南许综合5台区,南许农排六台区,树理浇地,南许农排二台区,客户投资_南许综合4台区,南许梳绒厂,南许开花厂,高庄综合2台区,高庄农排2台区【纯农排变】,南许综合19台区,南许综合12台区,高庄农排1台区【纯农排变】,高庄农排3台区【纯农排变】,高庄综合1台区,南许综合6台区","powerOffReason":"【停电原因】由于站内开关掉闸导致１１０ＫＶ刘铭庄变电站１０ＫＶ高庄５２５线路全线停电【变更送电】因抢修进度加快原因，送电时间由２３：００变更为１３：３０【发布渠道】通过９５５９８发布","powerOffId":"2020032613000227"},{"poweroffId":2020032613000161,"sgpoweroffId":null,"subsName":"","lineName":"城南线513","pubTranName":"900026213580河北钢山房地产开发集团有限公司(名都一品B5),900025788137河北钢山房地产开发集团有限公司(名都一品B2),新上齐庄村内东,沈庄西,齐庄村内混合3号配变,沈庄中,河北钢山房地产开发集团有限公司(名都一品B3),河北钢山房地产开发集团有限公司（名都一品B区）,橄榄城北变压器,沈庄新上,齐庄村内,沈庄新上1,橄榄城南变压器,沈庄东,河北钢山房地产开发集团有限公司（名都一品A区）,","scope":"【影响街道/乡镇】望都镇　 【高危重要客户】无　　 【影响客户】沈庄村、齐庄村、橄榄城、名都一品","startTime":"2020-03-26 08:18:56","stopDate":"2020-03-26 12:40:00","orgNo":"1340623","typeCode":"电网故障停限电","poweroffArea":"【全线路停电】停沈庄中,900026213580河北钢山房地产开发集团有限公司(名都一品B5),900025788137河北钢山房地产开发集团有限公司(名都一品B2),新上齐庄村内东,沈庄西,齐庄村内混合3号配变,河北钢山房地产开发集团有限公司(名都一品B3),河北钢山房地产开发集团有限公司（名都一品B区）,橄榄城北变压器,沈庄新上,齐庄村内,沈庄新上1,橄榄城南变压器,沈庄东,河北钢山房地产开发集团有限公司（名都一品A区）","poweroffReason":"【停电原因】由于站内开关跳闸导致１１０ＫＶ西堤变电站城南线５１３线路全线停电 【变更送电】因抢修进度加快原因，送电时间由２０：００变更为１２：４０ 【发布渠道】通过９５５９８发布","powerTime":"2020-03-26 12:15:49","powerComm":"已送电","subsNo":"","lineNo":"","tgNo":"","tgName":null,"infoStatus":"1","orgName":"国网望都县供电公司","typeName":null,"infoStatusName":null,"dateDay":null,"orgNos":null,"nowTime":null,"countyName":null,"streetName":null,"villageName":null,"roadName":null,"communityName":null,"tranName":null,"sdLineName":null,"cityCode":"1340623","cityName":"国网望都县供电公司","provinceCode":null,"stopTime":"2020-03-26 12:40:00","powerType":"全部","powerOffArea":"【全线路停电】停沈庄中,900026213580河北钢山房地产开发集团有限公司(名都一品B5),900025788137河北钢山房地产开发集团有限公司(名都一品B2),新上齐庄村内东,沈庄西,齐庄村内混合3号配变,河北钢山房地产开发集团有限公司(名都一品B3),河北钢山房地产开发集团有限公司（名都一品B区）,橄榄城北变压器,沈庄新上,齐庄村内,沈庄新上1,橄榄城南变压器,沈庄东,河北钢山房地产开发集团有限公司（名都一品A区）","powerOffReason":"【停电原因】由于站内开关跳闸导致１１０ＫＶ西堤变电站城南线５１３线路全线停电 【变更送电】因抢修进度加快原因，送电时间由２０：００变更为１２：４０ 【发布渠道】通过９５５９８发布","powerOffId":"2020032613000161"},{"poweroffId":2020032613000156,"sgpoweroffId":null,"subsName":"","lineName":"10KV城区553","pubTranName":"西车亭村西内台区变压器,","scope":"【影响街道/乡镇】东文山乡 【高危重要客户】无 【影响客户】西车亭村","startTime":"2020-03-26 08:12:03","stopDate":"2020-03-26 13:00:00","orgNo":"1340614","typeCode":"电网故障停限电","poweroffArea":"【单台区停电】停西车亭村西内台区变压器","poweroffReason":"【停电原因】由于ＪＰ柜烧毁导致２２０ＫＶ涞阳变电站１０ＫＶ城区５５３线路西车亭村西内公变台区停电 【变更送电】因抢修进度加快原因，送电时间由１７：３０变更为１３：００ 【发布渠道】通过９５５９８发布","powerTime":"2020-03-26 12:29:12","powerComm":"已送电","subsNo":"","lineNo":"","tgNo":"","tgName":null,"infoStatus":"1","orgName":"国网涞水县供电公司","typeName":null,"infoStatusName":null,"dateDay":null,"orgNos":null,"nowTime":null,"countyName":null,"streetName":null,"villageName":null,"roadName":null,"communityName":null,"tranName":null,"sdLineName":null,"cityCode":"1340614","cityName":"国网涞水县供电公司","provinceCode":null,"stopTime":"2020-03-26 13:00:00","powerType":"全部","powerOffArea":"【单台区停电】停西车亭村西内台区变压器","powerOffReason":"【停电原因】由于ＪＰ柜烧毁导致２２０ＫＶ涞阳变电站１０ＫＶ城区５５３线路西车亭村西内公变台区停电 【变更送电】因抢修进度加快原因，送电时间由１７：３０变更为１３：００ 【发布渠道】通过９５５９８发布","powerOffId":"2020032613000156"},{"poweroffId":2020032613000155,"sgpoweroffId":null,"subsName":"","lineName":"西白涧516","pubTranName":"东白涧村5#,东白涧村1#,西白涧村7#,东罗村7#,东白涧村7#,小罗村8#,东白涧村11号变压器,西白涧村8号变压器,小罗村2#,小罗村3#,西罗村4#,西罗村3#,东白涧村4#【纯农排变】,小罗村4#,东白涧村6#,东罗村2#,小罗村7#【纯农排变】,中罗村4#,东白涧村9#,中罗村3#,东白涧村3#,西白涧村2#,小罗1#,东罗村1#,小罗村9#,小罗村5#,辛旺村7#,东白涧村8#,辛旺村6#,中罗村1#,西白涧村5#,中罗村2#,小罗6号,西罗村2#,西白涧村6#,东白涧村10#,","scope":"【影响街道/乡镇】裴山镇【高危重要客户】无【影响客户】东白涧村、北街村、舍龙城村、东罗村、中罗村、小罗村、西罗村、西白涧村","startTime":"2020-03-26 08:15:56","stopDate":"2020-03-26 09:30:00","orgNo":"1340625","typeCode":"电网故障停限电","poweroffArea":"【全线路停电】停东白涧村1#,0678209079-易县狼牙山中凯农副产品经销有限公司-专变-217785172-易县狼牙山中凯农副产品经销有限公司-50KVA,中罗村4#,西白涧村6#,东白涧村9#,东白涧村4#【纯农排变】,辛旺村7#,东白涧村7#,西白涧村5#,中罗村张宗坡100KVA,小罗1#,小罗6号,西罗村3#,东白涧村2#【纯农排变】,西白涧村4#【纯农排变】,刘宝群变压器,变压器,小罗村9#,西白涧村2#,史国强变压器,中罗村2#,西罗村4#,东白涧村6#,东白涧村11号变压器,西罗村1#【纯农排变】,东罗村5#【纯农排变】,北街村3#【纯农排变】,西白涧村8号变压器,西白涧村1#【纯农排变】,西罗村2#,舍龙城4#,中罗村3#,小罗村3#,西白涧村师泉水变压器,易县中罗村丰易养鱼场变压器,东白涧村8#,永峰石板厂,易县东白涧小雷农机具修理部变压器,辛旺村6#,东白涧渔场(板厂),东罗村2#,易县西高砂厂,东白涧村10#,小罗村5#,中罗村1#,小罗村4#,东罗村7#,0649546482-易县永杰农作物种植农民专业合作社-专变-174385930-易县永杰农作物种植农民专业合作社变压器,东白涧村3#,小罗村7#【纯农排变】,小罗村8#,易县鑫海矿业有限公司200KVA,东白涧村5#,西白涧村7#,小罗村2#,西白涧村3#【纯农排变】,易县润泽猪饲养有限公司变压器,东罗村1#","poweroffReason":"【停电原因】由于酉兴养鸡场开关烧毁导致３５ＫＶ裴山变电站西白涧５１６线路全线停电【变更送电】因抢修进度加快原因，送电时间由１２：００变更为０９：３０【发布渠道】通过９５５９８发布","powerTime":"2020-03-26 09:13:41","powerComm":"已送电","subsNo":"","lineNo":"","tgNo":"","tgName":null,"infoStatus":"1","orgName":"国网易县供电公司","typeName":null,"infoStatusName":null,"dateDay":null,"orgNos":null,"nowTime":null,"countyName":null,"streetName":null,"villageName":null,"roadName":null,"communityName":null,"tranName":null,"sdLineName":null,"cityCode":"1340625","cityName":"国网易县供电公司","provinceCode":null,"stopTime":"2020-03-26 09:30:00","powerType":"全部","powerOffArea":"【全线路停电】停东白涧村1#,0678209079-易县狼牙山中凯农副产品经销有限公司-专变-217785172-易县狼牙山中凯农副产品经销有限公司-50KVA,中罗村4#,西白涧村6#,东白涧村9#,东白涧村4#【纯农排变】,辛旺村7#,东白涧村7#,西白涧村5#,中罗村张宗坡100KVA,小罗1#,小罗6号,西罗村3#,东白涧村2#【纯农排变】,西白涧村4#【纯农排变】,刘宝群变压器,变压器,小罗村9#,西白涧村2#,史国强变压器,中罗村2#,西罗村4#,东白涧村6#,东白涧村11号变压器,西罗村1#【纯农排变】,东罗村5#【纯农排变】,北街村3#【纯农排变】,西白涧村8号变压器,西白涧村1#【纯农排变】,西罗村2#,舍龙城4#,中罗村3#,小罗村3#,西白涧村师泉水变压器,易县中罗村丰易养鱼场变压器,东白涧村8#,永峰石板厂,易县东白涧小雷农机具修理部变压器,辛旺村6#,东白涧渔场(板厂),东罗村2#,易县西高砂厂,东白涧村10#,小罗村5#,中罗村1#,小罗村4#,东罗村7#,0649546482-易县永杰农作物种植农民专业合作社-专变-174385930-易县永杰农作物种植农民专业合作社变压器,东白涧村3#,小罗村7#【纯农排变】,小罗村8#,易县鑫海矿业有限公司200KVA,东白涧村5#,西白涧村7#,小罗村2#,西白涧村3#【纯农排变】,易县润泽猪饲养有限公司变压器,东罗村1#","powerOffReason":"【停电原因】由于酉兴养鸡场开关烧毁导致３５ＫＶ裴山变电站西白涧５１６线路全线停电【变更送电】因抢修进度加快原因，送电时间由１２：００变更为０９：３０【发布渠道】通过９５５９８发布","powerOffId":"2020032613000155"},{"poweroffId":2020032613000146,"sgpoweroffId":null,"subsName":"","lineName":"金家庄线516","pubTranName":"南豹泉变压器3#,东豹泉机井变压器6,金家庄机井变压器3,北豹泉变压器3,北豹泉变压器2,南豹泉村5#,东豹泉村1#,金家庄变压器2,东豹泉村2#,北豹泉村1,北流井变压器4,北豹泉变压器6,东豹泉变压器9,北流井变压器2,东豹泉村4#,西豹泉变压器5#,东豹泉村7#,金家庄变压器6,西豹泉变压器1,金家庄变压器1,西豹泉变压器5,东流井变压器1,东流井变压器2,南豹泉村2#,西豹泉村4#,金家庄7号变压器,北豹泉变压器4,东豹泉变压器8,北豹泉村5#,北流井变压器1,南豹泉变压器6,西豹泉变压器3#,金家庄变压器5,东豹泉村10#,","scope":"【影响街道/乡镇】流井乡【高危重要客户】无【影响客户】东豹泉村、西豹泉村、南豹泉村、北豹泉村、金家庄村、东流井村、北流井村","startTime":"2020-03-26 08:16:00","stopDate":"2020-03-26 09:40:00","orgNo":"1340625","typeCode":"电网故障停限电","poweroffArea":"【全线路停电】停西豹泉机井变压器2【纯农排变】,西豹泉变压器5,东豹泉机井变压器6,北豹泉变压器6,变压器,易县岩峰建材有限公司变压器,东豹泉村4#,金家庄变压器5,易县广荣猪饲养有限公司变压器,易县岩锋建材有限公司变压器,西豹泉变压器3#,东豹泉村10#,北豹泉村1,东豹泉村5#【纯农排变】,李秀江,西豹泉变压器5#,南豹泉村4#【纯农排变】,西豹泉张恒军(生淇),高维有东流井,金家庄机井变压器3,西豹泉村4#,东豹泉村3#,金家庄变压器2,北流井变压器1,东流井变压器1,南豹泉村5#,北豹泉变压器2,北豹泉村5#,北流井变压器4,东豹泉变压器8,河北京煤太行化工有限公司变压器,南豹泉变压器6,北豹泉变压器3,北豹泉变压器4,金家庄7号变压器,东流井变压器2,东豹泉村2#,绿苑养猪厂,0660809076-易县中悦同兴混凝土制造有限公司-专变-195780480-易县中悦同兴混凝土制造有限公司315KVA,北流井变压器2,金家庄变压器6,金家庄变压器1,东豹泉村1#,西豹泉变压器1,东豹泉村7#,东豹泉变压器9,南豹泉变压器3#,南豹泉村2#,金家庄变压器4","poweroffReason":"【停电原因】由于中悦混凝土公司变压器线夹烧毁导致３５ＫＶ李家坟变电站金家庄线５１６线路全线停电【变更送电】因抢修进度加快原因，送电时间由１２：００变更为０９：４０【发布渠道】通过９５５９８发布","powerTime":"2020-03-26 09:19:58","powerComm":"已送电","subsNo":"","lineNo":"","tgNo":"","tgName":null,"infoStatus":"1","orgName":"国网易县供电公司","typeName":null,"infoStatusName":null,"dateDay":null,"orgNos":null,"nowTime":null,"countyName":null,"streetName":null,"villageName":null,"roadName":null,"communityName":null,"tranName":null,"sdLineName":null,"cityCode":"1340625","cityName":"国网易县供电公司","provinceCode":null,"stopTime":"2020-03-26 09:40:00","powerType":"全部","powerOffArea":"【全线路停电】停西豹泉机井变压器2【纯农排变】,西豹泉变压器5,东豹泉机井变压器6,北豹泉变压器6,变压器,易县岩峰建材有限公司变压器,东豹泉村4#,金家庄变压器5,易县广荣猪饲养有限公司变压器,易县岩锋建材有限公司变压器,西豹泉变压器3#,东豹泉村10#,北豹泉村1,东豹泉村5#【纯农排变】,李秀江,西豹泉变压器5#,南豹泉村4#【纯农排变】,西豹泉张恒军(生淇),高维有东流井,金家庄机井变压器3,西豹泉村4#,东豹泉村3#,金家庄变压器2,北流井变压器1,东流井变压器1,南豹泉村5#,北豹泉变压器2,北豹泉村5#,北流井变压器4,东豹泉变压器8,河北京煤太行化工有限公司变压器,南豹泉变压器6,北豹泉变压器3,北豹泉变压器4,金家庄7号变压器,东流井变压器2,东豹泉村2#,绿苑养猪厂,0660809076-易县中悦同兴混凝土制造有限公司-专变-195780480-易县中悦同兴混凝土制造有限公司315KVA,北流井变压器2,金家庄变压器6,金家庄变压器1,东豹泉村1#,西豹泉变压器1,东豹泉村7#,东豹泉变压器9,南豹泉变压器3#,南豹泉村2#,金家庄变压器4","powerOffReason":"【停电原因】由于中悦混凝土公司变压器线夹烧毁导致３５ＫＶ李家坟变电站金家庄线５１６线路全线停电【变更送电】因抢修进度加快原因，送电时间由１２：００变更为０９：４０【发布渠道】通过９５５９８发布","powerOffId":"2020032613000146"},{"poweroffId":2020032613000136,"sgpoweroffId":null,"subsName":"","lineName":"10kV望亭线551","pubTranName":"望亭中学2柱上变压器,后米阳内2号,后米阳外4【纯农排变】,小望亭内1,大望亭外3号【纯农排变】,大望亭外2号【纯农排变】,1前米阳内3,大望亭内9,固上外1号【纯农排变】,1大望亭内13,前后米阳合用【纯农排变】,小望亭内2,前米阳外2【纯农排变】,1前米阳内5,1大望亭内8,固上外2号【纯农排变】,大望亭内5号,1大望亭内12,1前米阳内4,1大望亭内15,望亭镇中心幼儿园柱上变压器,小候村西南1【纯农排变】,前米阳小学柱上变压器,大望亭小学2,1东安内11,小侯村外6号【纯农排变】,1前米阳内2,后米阳外2【纯农排变】,大望亭内6号,1大望亭内16,1大望亭内19,大望亭1号,望亭中学4柱上变压器,大望亭小学1,前米阳外3【纯农排变】,大望亭2号,前米阳外1【纯农排变】,大望亭外1号【纯农排变】,后米阳外3【纯农排变】,望亭中学3柱上变压器,1前米阳内1,望亭中学1柱上变压器,固上外3【纯农排变】,2小侯村外2【纯农排变】,1后米阳内3,1小望亭内5,","scope":"【影响街道/乡镇】望亭乡 【高危重要客户】无 【影响客户】前米阳、后米阳、大望亭、小望亭、小侯村","startTime":"2020-03-26 08:05:17","stopDate":"2020-03-26 12:40:00","orgNo":"1340618","typeCode":"电网故障停限电","poweroffArea":"【全线路停电】停1大望亭内16,0387505987-夏金水-专变-45324916-夏金水,0648948913-保定鸿展金属制品制造有限公司-专变-174383163-保定鸿展金属制品制造有限公司,前米阳外2【纯农排变】,0387506225-程郡鸡厂-专变-45324886-程郡鸡厂,大望亭孵化厂,1前米阳内5,1大望亭内8,固上外2号【纯农排变】,大望亭内5号,1大望亭内12,1前米阳内4,0387505697-清苑县大望亭益达养殖场-专变-128080819-清苑县大望亭益达养殖场,1大望亭内15,望亭镇中心幼儿园柱上变压器,0387506238-望亭段占林鸡场-专变-45324893-望亭段占林鸡场,0548483189-河北春赏金属合金制造有限公司-专变-48120109-保定天贸金属有限公司,小候村西南1【纯农排变】,前米阳小学柱上变压器,0387505176-小望亭村北西箱-专变-45325065-变压器,大望亭小学2,清苑县兰珍蛋鸡养殖基地,1东安内11,0573968165-后米阳村委会-专变-121576915-后米阳村委会,1小望亭内5,小侯村外6号【纯农排变】,1前米阳内2,后米阳外2【纯农排变】,大望亭内6号,0387504870-保定恒益电力电器设备有限公司-专变-121540910-保定恒鑫电力电器设备有限公司,振兴鸡厂,1大望亭内19,大望亭1号,望亭中学4柱上变压器,大望亭小学1,保定市金谷牧业有限公司,前米阳外3【纯农排变】,0387505482-前米阳村东河边-专变-45325022-前米阳村东河边,后米阳河边,0648948913-保定鸿展金属制品制造有限公司-专变-174386323-保定鸿展金属制品制造有限公司,0548476754-河北春赏金属合金制造有限公司-专变-48120040-保定天贸金属有限公司,大望亭2号,前米阳外1【纯农排变】,大望亭外1号【纯农排变】,0387506254-大望亭面粉厂-专变-45324934-大望亭面粉厂,东安周满义,后米阳外3【纯农排变】,望亭中学3柱上变压器,1前米阳内1,望亭中学1柱上变压器,清苑县大望亭水厂,固上外3【纯农排变】,0387505701-小候村周大庄-专变-124295114-小候村周大庄,2小侯村外2【纯农排变】,1后米阳内3,望亭中学2柱上变压器,后米阳内2号,后米阳外4【纯农排变】,0387506300-大望亭贾顺养鸡厂-专变-45324948-大望亭贾顺养鸡厂,小望亭内1,大望亭红旗养鸡厂,大望亭外3号【纯农排变】,大望亭外2号【纯农排变】,1前米阳内3,大望亭内9,固上外1号【纯农排变】,1大望亭内13,0387504900-前米阳村东-专变-45325146-前米阳村东,前后米阳合用【纯农排变】,小望亭内2","poweroffReason":"【停电原因】由于主干７４号杆Ｔ１６号杆Ｔ１５号杆米阳砖厂变压器跌落引线搭横担导致１０ＫＶ戎官营开关变电站１０ＫＶ望亭线５５１线路全线停电 【变更送电】因抢修进度加快原因，送电时间由１４：００变更为１２：４０ 【发布渠道】通过９５５９８发布","powerTime":"2020-03-26 12:13:46","powerComm":"高立杰通知已送电","subsNo":"","lineNo":"","tgNo":"","tgName":null,"infoStatus":"1","orgName":"国网清苑县供电公司","typeName":null,"infoStatusName":null,"dateDay":null,"orgNos":null,"nowTime":null,"countyName":null,"streetName":null,"villageName":null,"roadName":null,"communityName":null,"tranName":null,"sdLineName":null,"cityCode":"1340618","cityName":"国网清苑县供电公司","provinceCode":null,"stopTime":"2020-03-26 12:40:00","powerType":"全部","powerOffArea":"【全线路停电】停1大望亭内16,0387505987-夏金水-专变-45324916-夏金水,0648948913-保定鸿展金属制品制造有限公司-专变-174383163-保定鸿展金属制品制造有限公司,前米阳外2【纯农排变】,0387506225-程郡鸡厂-专变-45324886-程郡鸡厂,大望亭孵化厂,1前米阳内5,1大望亭内8,固上外2号【纯农排变】,大望亭内5号,1大望亭内12,1前米阳内4,0387505697-清苑县大望亭益达养殖场-专变-128080819-清苑县大望亭益达养殖场,1大望亭内15,望亭镇中心幼儿园柱上变压器,0387506238-望亭段占林鸡场-专变-45324893-望亭段占林鸡场,0548483189-河北春赏金属合金制造有限公司-专变-48120109-保定天贸金属有限公司,小候村西南1【纯农排变】,前米阳小学柱上变压器,0387505176-小望亭村北西箱-专变-45325065-变压器,大望亭小学2,清苑县兰珍蛋鸡养殖基地,1东安内11,0573968165-后米阳村委会-专变-121576915-后米阳村委会,1小望亭内5,小侯村外6号【纯农排变】,1前米阳内2,后米阳外2【纯农排变】,大望亭内6号,0387504870-保定恒益电力电器设备有限公司-专变-121540910-保定恒鑫电力电器设备有限公司,振兴鸡厂,1大望亭内19,大望亭1号,望亭中学4柱上变压器,大望亭小学1,保定市金谷牧业有限公司,前米阳外3【纯农排变】,0387505482-前米阳村东河边-专变-45325022-前米阳村东河边,后米阳河边,0648948913-保定鸿展金属制品制造有限公司-专变-174386323-保定鸿展金属制品制造有限公司,0548476754-河北春赏金属合金制造有限公司-专变-48120040-保定天贸金属有限公司,大望亭2号,前米阳外1【纯农排变】,大望亭外1号【纯农排变】,0387506254-大望亭面粉厂-专变-45324934-大望亭面粉厂,东安周满义,后米阳外3【纯农排变】,望亭中学3柱上变压器,1前米阳内1,望亭中学1柱上变压器,清苑县大望亭水厂,固上外3【纯农排变】,0387505701-小候村周大庄-专变-124295114-小候村周大庄,2小侯村外2【纯农排变】,1后米阳内3,望亭中学2柱上变压器,后米阳内2号,后米阳外4【纯农排变】,0387506300-大望亭贾顺养鸡厂-专变-45324948-大望亭贾顺养鸡厂,小望亭内1,大望亭红旗养鸡厂,大望亭外3号【纯农排变】,大望亭外2号【纯农排变】,1前米阳内3,大望亭内9,固上外1号【纯农排变】,1大望亭内13,0387504900-前米阳村东-专变-45325146-前米阳村东,前后米阳合用【纯农排变】,小望亭内2","powerOffReason":"【停电原因】由于主干７４号杆Ｔ１６号杆Ｔ１５号杆米阳砖厂变压器跌落引线搭横担导致１０ＫＶ戎官营开关变电站１０ＫＶ望亭线５５１线路全线停电 【变更送电】因抢修进度加快原因，送电时间由１４：００变更为１２：４０ 【发布渠道】通过９５５９８发布","powerOffId":"2020032613000136"},{"poweroffId":2020032613000116,"sgpoweroffId":null,"subsName":"","lineName":"10kV515彭家庄线","pubTranName":"韩家庄公用照明4台区1,彭家庄公用照明1台区,南城村公用农业3台区【纯农排变】,南城村公用照明1台区,韩家庄公用农业1台区一【纯农排变】,寺底公用照明7台区,楼底公用照明9台区,楼底公用照明2台区,南城村公用照明2台区,韩家庄公用照明1台区一,北城村公用照明3台区,彭家庄公用照明7台区,彭家庄公用照明4台区,彭家庄公用照明6台区,北城村公用农业7台区【纯农排变】,楼底公用照明11台区,楼底公用照明6台区,彭家庄公用照明2台区一,北城村公用照明2台区,楼底公用照明5台区,彭家庄公用照明5台区,彭家庄公用照明3台区,北城村公用照明1台区,韩家庄公用照明2台区一,北城村公用照明5台区,楼底公用照明1台区,楼底公用照明10台区,楼底公用照明7台区,彭家庄公用照明8台区,寺底公用照明6台区,韩家庄公用照明3台区一,楼底公用照明3台区,楼底公用照明12台区,北城村公用照明4台区,楼底公用照明4台区,楼底公用照明8台区,","scope":"【影响街道/乡镇】李亲顾镇【高危重要客户】无【影响客户】彭家庄、韩家庄、楼底、南城村、北城村、寺底","startTime":"2020-03-26 07:49:36","stopDate":"2020-03-26 10:30:00","orgNo":"1340610","typeCode":"电网故障停限电","poweroffArea":"【全线路停电】停楼底公用照明5台区,韩家庄公用农业5台区一【纯农排变】,北城村公用照明1台区,彭家庄公用农业8台区【纯农排变】,楼底公用照明2台区,北城村公用农业1台区【纯农排变】,韩家庄公用农业1台区一【纯农排变】,彭家庄公用照明4台区,楼底公用农业1台区【纯农排变】,彭家庄公用照明1台区,楼底公用照明7台区,北城村公用照明2台区,楼底公用农业4台区【纯农排变】,楼底公用照明8台区,寺底公用照明6台区,定州市鸿运服装加工厂,彭家庄公用农业11台区【纯农排变】,楼底公用照明4台区,彭家庄公用照明3台区,北城村公用照明5台区,北城村公用照明4台区,南城村公用农业1台区【纯农排变】,定州市娄底面粉厂,楼底公用农业5台区【纯农排变】,楼底公用农业2台区【纯农排变】,韩家庄公用照明1台区一,0654273182-河北瑞洪源纺织品有限公司-专变-183727435-河北瑞洪源纺织品有限公司变压器,北城村公用照明3台区,寺底公用农业10台区【纯农排变】,定州市娄底保旗面厂,楼底公用照明11台区,彭家庄公用农业5台区【纯农排变】,楼底公用农业8台区【纯农排变】,楼底公用照明12台区,楼底公用照明3台区,寺底公用农业12台区【纯农排变】,北城村公用农业7台区【纯农排变】,市庄中学,彭家庄公用农业6台区【纯农排变】,南城村公用照明1台区,定州市高志宾淀粉厂,彭家庄公用农业4台区【纯农排变】,韩家庄公用照明4台区1,彭家庄公用照明2台区一,韩家庄公用农业4台区一【纯农排变】,彭家庄公用照明7台区,楼底公用农业17台区【纯农排变】,韩家庄公用照明2台区一,楼底公用照明6台区,北城村公用农业5台区【纯农排变】,彭家庄公用照明8台区,韩家庄公用农业2台区一【纯农排变】,楼底公用农业12台区【纯农排变】,南城村公用农业3台区【纯农排变】,北城村公用农业4台区【纯农排变】,定州市百福面粉厂变压器,南城村公用农业2台区【纯农排变】,楼底公用农业16台区【纯农排变】,南城村公用照明2台区,韩家庄公用农业3台区一【纯农排变】,彭家庄公用照明5台区,彭家庄公用农业3台区【纯农排变】,楼底公用照明9台区,楼底公用农业13台区【纯农排变】,彭家庄公用农业12台区【纯农排变】,定州市南城面粉厂,楼底公用农业15台区【纯农排变】,彭家庄公用农业7台区【纯农排变】,寺底公用农业13台区【纯农排变】,彭家庄公用照明6台区,北城村公用农业6台区【纯农排变】,楼底公用农业3台区【纯农排变】,彭家庄公用农业1台区【纯农排变】,北城村公用农业2台区【纯农排变】,楼底公用照明10台区,楼底公用照明1台区,北城村公用农业3台区【纯农排变】,彭家庄公用农业10台区【纯农排变】,楼底公用农业9台区【纯农排变】,彭家庄公用农业2台区【纯农排变】,楼底公用农业10台区【纯农排变】,楼底公用农业11台区【纯农排变】,楼底公用农业14台区【纯农排变】,楼底公用农业7台区【纯农排变】,彭家庄公用农业9台区【纯农排变】,韩家庄公用照明3台区一,寺底公用农业11台区【纯农排变】,楼底公用农业6台区【纯农排变】,寺底公用照明7台区","poweroffReason":"【停电原因】由于恶劣天气彭家庄照明２台区电话线断搭中相避雷器线夹导致３５ＫＶ丁村变电站１０ＫＶ５１５彭家庄线路全线停电 【变更送电】因抢修进度加快原因，送电时间由１８：００变更为１０：３０ 【发布渠道】９５５９８","powerTime":"2020-03-26 10:14:59","powerComm":"已送电","subsNo":"","lineNo":"","tgNo":"","tgName":null,"infoStatus":"1","orgName":"国网定州市供电公司","typeName":null,"infoStatusName":null,"dateDay":null,"orgNos":null,"nowTime":null,"countyName":null,"streetName":null,"villageName":null,"roadName":null,"communityName":null,"tranName":null,"sdLineName":null,"cityCode":"1340610","cityName":"国网定州市供电公司","provinceCode":null,"stopTime":"2020-03-26 10:30:00","powerType":"全部","powerOffArea":"【全线路停电】停楼底公用照明5台区,韩家庄公用农业5台区一【纯农排变】,北城村公用照明1台区,彭家庄公用农业8台区【纯农排变】,楼底公用照明2台区,北城村公用农业1台区【纯农排变】,韩家庄公用农业1台区一【纯农排变】,彭家庄公用照明4台区,楼底公用农业1台区【纯农排变】,彭家庄公用照明1台区,楼底公用照明7台区,北城村公用照明2台区,楼底公用农业4台区【纯农排变】,楼底公用照明8台区,寺底公用照明6台区,定州市鸿运服装加工厂,彭家庄公用农业11台区【纯农排变】,楼底公用照明4台区,彭家庄公用照明3台区,北城村公用照明5台区,北城村公用照明4台区,南城村公用农业1台区【纯农排变】,定州市娄底面粉厂,楼底公用农业5台区【纯农排变】,楼底公用农业2台区【纯农排变】,韩家庄公用照明1台区一,0654273182-河北瑞洪源纺织品有限公司-专变-183727435-河北瑞洪源纺织品有限公司变压器,北城村公用照明3台区,寺底公用农业10台区【纯农排变】,定州市娄底保旗面厂,楼底公用照明11台区,彭家庄公用农业5台区【纯农排变】,楼底公用农业8台区【纯农排变】,楼底公用照明12台区,楼底公用照明3台区,寺底公用农业12台区【纯农排变】,北城村公用农业7台区【纯农排变】,市庄中学,彭家庄公用农业6台区【纯农排变】,南城村公用照明1台区,定州市高志宾淀粉厂,彭家庄公用农业4台区【纯农排变】,韩家庄公用照明4台区1,彭家庄公用照明2台区一,韩家庄公用农业4台区一【纯农排变】,彭家庄公用照明7台区,楼底公用农业17台区【纯农排变】,韩家庄公用照明2台区一,楼底公用照明6台区,北城村公用农业5台区【纯农排变】,彭家庄公用照明8台区,韩家庄公用农业2台区一【纯农排变】,楼底公用农业12台区【纯农排变】,南城村公用农业3台区【纯农排变】,北城村公用农业4台区【纯农排变】,定州市百福面粉厂变压器,南城村公用农业2台区【纯农排变】,楼底公用农业16台区【纯农排变】,南城村公用照明2台区,韩家庄公用农业3台区一【纯农排变】,彭家庄公用照明5台区,彭家庄公用农业3台区【纯农排变】,楼底公用照明9台区,楼底公用农业13台区【纯农排变】,彭家庄公用农业12台区【纯农排变】,定州市南城面粉厂,楼底公用农业15台区【纯农排变】,彭家庄公用农业7台区【纯农排变】,寺底公用农业13台区【纯农排变】,彭家庄公用照明6台区,北城村公用农业6台区【纯农排变】,楼底公用农业3台区【纯农排变】,彭家庄公用农业1台区【纯农排变】,北城村公用农业2台区【纯农排变】,楼底公用照明10台区,楼底公用照明1台区,北城村公用农业3台区【纯农排变】,彭家庄公用农业10台区【纯农排变】,楼底公用农业9台区【纯农排变】,彭家庄公用农业2台区【纯农排变】,楼底公用农业10台区【纯农排变】,楼底公用农业11台区【纯农排变】,楼底公用农业14台区【纯农排变】,楼底公用农业7台区【纯农排变】,彭家庄公用农业9台区【纯农排变】,韩家庄公用照明3台区一,寺底公用农业11台区【纯农排变】,楼底公用农业6台区【纯农排变】,寺底公用照明7台区","powerOffReason":"【停电原因】由于恶劣天气彭家庄照明２台区电话线断搭中相避雷器线夹导致３５ＫＶ丁村变电站１０ＫＶ５１５彭家庄线路全线停电 【变更送电】因抢修进度加快原因，送电时间由１８：００变更为１０：３０ 【发布渠道】９５５９８","powerOffId":"2020032613000116"},{"poweroffId":2020032613000096,"sgpoweroffId":null,"subsName":"","lineName":"菜园537","pubTranName":"西山北村3#,于家庄村3#村北,西山北村1#,长峪村5#,长峪村3#,于家庄村6#村北,长峪6队井变压器【纯农排变】,西步乐10#村南,西山北村6#,北娄山村7#村中,长峪村1#,长峪村4#,西山北村2#,团山村1#,于家庄村2#,菜园村8#三队西,菜园村3#,西山北村5#,长峪村10#,沙岭村3#,长峪村6#|8队,菜园村4#【纯农排变】,于家庄村1#,南娄山村8#村西,长峪村9#南井,北娄山村5#,南娄山村1#,长峪村8#【纯农排变】,沙岭村4#村中,长峪8队西变,","scope":"【影响街道/乡镇】西山北乡 【高危重要客户】无 【影响客户】西山北村、西步乐村、东步乐村、团山村、于家庄村、南娄山村、长峪村、菜园村、沙岭村、北娄山村、西娄山村","startTime":"2020-03-26 07:25:14","stopDate":"2020-03-26 10:00:00","orgNo":"1340625","typeCode":"电网故障停限电","poweroffArea":"【全线路停电】停西山北村2#,长峪村6#|8队,南娄山村10#【纯农排变】,河北青山种禽有限公司高压器,长峪8队西变,易县宏发钙粉厂(许建民),长峪8队北井【纯农排变】,易县通亿石材厂(郭连成),长峪村7#【纯农排变】,易县邮政局山北邮政支局,学峰养鸡厂,长峪村5#,易县永兴石材加工厂315KVA,西山北村6#,沙岭村3#,于家庄村1#,菜园村新井7#【纯农排变】,西山北乡人民政府变压器,于家庄村3#村北,长峪村1#,菜园村3#,于家庄村巩宝田西岗变压器,北娄山村7#村中,菜园村4#【纯农排变】,长峪6队井变压器【纯农排变】,于家庄村4#【纯农排变】,长峪村3#,磊鑫石材厂2#变,西步乐10#村南,长峪村10#,河北建设集团有限公司-长峪630KVA,北娄山林场,鹏程石板厂(隰连国),沙岭村4#村中,菜园村杨宁变压器,龙树石材厂,西步乐村8#新井【纯农排变】,菜园杨树岭,西山北村3#,易县西山北春山石材加工厂变压器,长峪村4#,西山北中心小学变压器,于家庄村6#村北,港里村卢忠凯变压器,0674599321-西山北村敬洪利-专变-215869052-西山北村敬洪利250KVA,敬玉河石板厂(丰磊),团山村1#,长峪村8#【纯农排变】,敬玉河石板厂2#,信诚石材厂(隰富山),0681103885-易县讴文农业开发有限责任公司-专变-219717662-易县讴文农业开发有限责任公司100KVA,菜园1队北井【纯农排变】,易县永幸石材厂,黄忠石材加工厂(80KVA),长峪村9#南井,西山北兄弟石板厂,合利石板厂(李连合),中国移动通信集团河北有限公司易县分公司安装变压器,顺达造纸厂,西山北宇达石材厂(王福详),五一面粉厂(南井),易县青山种禽有限公司变压器,北娄山村8#村北【纯农排变】,西步乐村9#【纯农排变】,敬玉河石板厂3#,西山北村10#【纯农排变】,五一面粉厂(50),西山北村郭成群变压器,易县西山北乡人民政府变压器,0677996301-南娄山村牛宝同-专变-219383403-南娄山村牛宝同50KVA,于家庄村2#,西山北石板厂(郭士彪),于家庄南石材厂,易县扶贫福利配件厂(赵海山),程宏石材长(李春喜),南娄山村1#,丰磊石板厂100(敬玉河),郭伟忠石板厂,于家庄村巩宝田北岗变压器,北娄山村5#,菜园村8#三队西,黄忠石材加工厂(50KVA),黄虎石板厂,南娄山村8#村西,保定泽疆旅游开发有限公司变压器,西山北村5#,西山北村1#,沙岭村2#【纯农排变】,南娄山村3#【纯农排变】,南娄山村7#【纯农排变】","poweroffReason":"【停电原因】由于南娄山分支３６号杆线断导致３５ＫＶ步乐变电站菜园５３７线路全线停电【变更送电】由于抢修进度加快，送电时间由１１：００变更为１０：００【发布渠道】通过９５５９８发布","powerTime":"2020-03-26 09:38:25","powerComm":"已送电","subsNo":"","lineNo":"","tgNo":"","tgName":null,"infoStatus":"1","orgName":"国网易县供电公司","typeName":null,"infoStatusName":null,"dateDay":null,"orgNos":null,"nowTime":null,"countyName":null,"streetName":null,"villageName":null,"roadName":null,"communityName":null,"tranName":null,"sdLineName":null,"cityCode":"1340625","cityName":"国网易县供电公司","provinceCode":null,"stopTime":"2020-03-26 10:00:00","powerType":"全部","powerOffArea":"【全线路停电】停西山北村2#,长峪村6#|8队,南娄山村10#【纯农排变】,河北青山种禽有限公司高压器,长峪8队西变,易县宏发钙粉厂(许建民),长峪8队北井【纯农排变】,易县通亿石材厂(郭连成),长峪村7#【纯农排变】,易县邮政局山北邮政支局,学峰养鸡厂,长峪村5#,易县永兴石材加工厂315KVA,西山北村6#,沙岭村3#,于家庄村1#,菜园村新井7#【纯农排变】,西山北乡人民政府变压器,于家庄村3#村北,长峪村1#,菜园村3#,于家庄村巩宝田西岗变压器,北娄山村7#村中,菜园村4#【纯农排变】,长峪6队井变压器【纯农排变】,于家庄村4#【纯农排变】,长峪村3#,磊鑫石材厂2#变,西步乐10#村南,长峪村10#,河北建设集团有限公司-长峪630KVA,北娄山林场,鹏程石板厂(隰连国),沙岭村4#村中,菜园村杨宁变压器,龙树石材厂,西步乐村8#新井【纯农排变】,菜园杨树岭,西山北村3#,易县西山北春山石材加工厂变压器,长峪村4#,西山北中心小学变压器,于家庄村6#村北,港里村卢忠凯变压器,0674599321-西山北村敬洪利-专变-215869052-西山北村敬洪利250KVA,敬玉河石板厂(丰磊),团山村1#,长峪村8#【纯农排变】,敬玉河石板厂2#,信诚石材厂(隰富山),0681103885-易县讴文农业开发有限责任公司-专变-219717662-易县讴文农业开发有限责任公司100KVA,菜园1队北井【纯农排变】,易县永幸石材厂,黄忠石材加工厂(80KVA),长峪村9#南井,西山北兄弟石板厂,合利石板厂(李连合),中国移动通信集团河北有限公司易县分公司安装变压器,顺达造纸厂,西山北宇达石材厂(王福详),五一面粉厂(南井),易县青山种禽有限公司变压器,北娄山村8#村北【纯农排变】,西步乐村9#【纯农排变】,敬玉河石板厂3#,西山北村10#【纯农排变】,五一面粉厂(50),西山北村郭成群变压器,易县西山北乡人民政府变压器,0677996301-南娄山村牛宝同-专变-219383403-南娄山村牛宝同50KVA,于家庄村2#,西山北石板厂(郭士彪),于家庄南石材厂,易县扶贫福利配件厂(赵海山),程宏石材长(李春喜),南娄山村1#,丰磊石板厂100(敬玉河),郭伟忠石板厂,于家庄村巩宝田北岗变压器,北娄山村5#,菜园村8#三队西,黄忠石材加工厂(50KVA),黄虎石板厂,南娄山村8#村西,保定泽疆旅游开发有限公司变压器,西山北村5#,西山北村1#,沙岭村2#【纯农排变】,南娄山村3#【纯农排变】,南娄山村7#【纯农排变】","powerOffReason":"【停电原因】由于南娄山分支３６号杆线断导致３５ＫＶ步乐变电站菜园５３７线路全线停电【变更送电】由于抢修进度加快，送电时间由１１：００变更为１０：００【发布渠道】通过９５５９８发布","powerOffId":"2020032613000096"}],"pageModel":{"pageNow":225,"totalCount":10973,"totalPage":1098,"tableRows":0,"pageCount":10,"beginCount":2240},"isExperi":"1"}