{"message":"","today":"2020-06-15","seleList":[{"poweroffId":2020032413000209,"sgpoweroffId":null,"subsName":"","lineName":"中良沟564","pubTranName":"二屯2820,","scope":"【影响街道/乡镇】林屯乡 【高危重要客户】无 【影响客户】二屯","startTime":"2020-03-24 16:28:00","stopDate":"2020-03-24 19:30:00","orgNo":"1340626","typeCode":"电网故障停限电","poweroffArea":"【单台区停电】停二屯2820","poweroffReason":"【停电原因】由于低压空开烧毁导致１１０ＫＶ松林店变电站中良沟５６４线路二屯２８２０公变台区停电 【变更送电】因抢修进度加快原因，送电时间由２３：５９变更为１９：３０ 【发布渠道】通过９５５９８发布","powerTime":"2020-03-24 19:03:15","powerComm":"恢复送电","subsNo":"","lineNo":"","tgNo":"","tgName":null,"infoStatus":"1","orgName":"国网涿州市供电公司","typeName":null,"infoStatusName":null,"dateDay":null,"orgNos":null,"nowTime":null,"countyName":null,"streetName":null,"villageName":null,"roadName":null,"communityName":null,"tranName":null,"sdLineName":null,"cityCode":"1340626","cityName":"国网涿州市供电公司","provinceCode":null,"stopTime":"2020-03-24 19:30:00","powerType":"全部","powerOffArea":"【单台区停电】停二屯2820","powerOffReason":"【停电原因】由于低压空开烧毁导致１１０ＫＶ松林店变电站中良沟５６４线路二屯２８２０公变台区停电 【变更送电】因抢修进度加快原因，送电时间由２３：５９变更为１９：３０ 【发布渠道】通过９５５９８发布","powerOffId":"2020032413000209"},{"poweroffId":2020032413000187,"sgpoweroffId":null,"subsName":"","lineName":"10kV514南环线","pubTranName":"10KV514南环线高庄37038分支大营2437台区变压器,10KV514南环线小营村东分支小营2475台区变压器,10KV514南环线高庄2473分支大营2473台区变压器,10KV514南环线37064分支大营37021台区变压器,10KV514南环线2433分支2471台区变压器,10KV514南环线西街37006分支西街37006台区变压器,10KV514南环线37017分支小营37017台区变压器,10KV514南环线37013分支小营2413台区变压器,10KV514南环线东路分支小营2466台区变压器,10KV514南环线高庄37061分支大营2460台区变压器,10KV514南环线高庄分支高庄2419台区变压器,10kV南环线514看守所取暖54638台区变压器,10KV514南环线370642476分支大营2476台区变压器,10KV514南环线2429分支小营2429台区变压器,10KV514南环线大营37062分支大营37003台区变压器,10KV514南环线2433分支大营2433台区变压器10KV514南环线2433分支大营2433台区变压器,10KV514南环线37063分支大营2477台区变压器,10KV514南环线大营37062分支大营2461台区变压器,10Kv南环514线37081台区变压器,10KV514南环线大营博江浇地分支大营2425台区变压器,10KV514南环线浇地分支西街2445台区变压器,10KV514南环线高庄分支大营2454台区变压器,10KV514南环线247337012分支大营2412台区变压器,10Kv南环514线37080台区变压器,10KV514南环线大营3号分支大营2423台区变压器,10KV514南环线北路分支小营37065台区变压器,10KV514南环线高庄2472分支大营2472台区变压器,10KV514南环线北路分支37066台区变压器,10KV南环514线小营37666台区变压器,10KV514南环线高庄分支高庄2418台区变压器,10Kv南环514线37078台区变压器,10KV514南环线370172459分支小营2459台区变压器,10KV514南环线高庄分支大营2438台区变压器,10KV514南环线3706237011分支37011台区变压器,10KV514南环线大营2号分支大营2435台区变压器,10KV514南环线37063分支大营2421台区变压器,10Kv南环514线37079台区变压器,10KV514南环线主干大营2424台区变压器,10KV514南环线主干南白沙37047台区变压器,10KV514南环线大营2462台区分支大营2462台区变压器,10KV514南环线37064分支大营2463台区变压器,10KV514南环线高庄37015分支大营2415台区变压器,","scope":"【影响街道/乡镇】博野镇【高危重要客户】无【影响客户】大营、小营、东高庄、看守所、南白沙、南街村、西街村","startTime":"2020-03-24 15:40:04","stopDate":"2020-03-24 17:30:00","orgNo":"1340608","typeCode":"电网故障停限电","poweroffArea":"【全线路停电】停10KV514南环线高庄37038分支大营2437台区变压器,10KV514南环线小营村东分支小营2475台区变压器,10KV514南环线高庄2473分支大营2473台区变压器,10KV514南环线37064分支大营37021台区变压器,10KV514南环线2433分支2471台区变压器,10KV514南环线西街37006分支西街37006台区变压器,10KV514南环线37017分支小营37017台区变压器,10KV514南环线37013分支小营2413台区变压器,10KV514南环线东路分支小营2466台区变压器,10KV514南环线高庄37061分支大营2460台区变压器,10KV514南环线高庄分支高庄2419台区变压器,10kV南环线514看守所取暖54638台区变压器,10KV514南环线370642476分支大营2476台区变压器,10KV514南环线2429分支小营2429台区变压器,10KV514南环线大营37062分支大营37003台区变压器,10KV514南环线2433分支大营2433台区变压器10KV514南环线2433分支大营2433台区变压器,10KV514南环线37063分支大营2477台区变压器,10KV514南环线大营37062分支大营2461台区变压器,10KV514南环线高庄37015分支大营2415台区变压器,10Kv南环514线37081台区变压器,10KV514南环线大营博江浇地分支大营2425台区变压器,10KV514南环线浇地分支西街2445台区变压器,10KV514南环线高庄分支大营2454台区变压器,10KV514南环线247337012分支大营2412台区变压器,10Kv南环514线37080台区变压器,10KV514南环线大营3号分支大营2423台区变压器,10KV514南环线北路分支小营37065台区变压器,10KV514南环线高庄2472分支大营2472台区变压器,10KV514南环线北路分支37066台区变压器,10KV南环514线小营37666台区变压器,10KV514南环线高庄分支高庄2418台区变压器,10Kv南环514线37078台区变压器,10KV514南环线370172459分支小营2459台区变压器,10KV514南环线高庄分支大营2438台区变压器,10KV514南环线3706237011分支37011台区变压器,10KV514南环线大营2号分支大营2435台区变压器,10KV514南环线37063分支大营2421台区变压器,10Kv南环514线37079台区变压器,10KV514南环线主干大营2424台区变压器,10KV514南环线主干南白沙37047台区变压器,10KV514南环线大营2462台区分支大营2462台区变压器,10KV514南环线37064分支大营2463台区变压器","poweroffReason":"【停电原因】由于站外开关跳闸导致３５ＫＶ南白沙变电站南环５１４线路全线停电【变更送电】因抢修进度加快原因，送电时间由２３：００变更为１７：３０【发布渠道】通过９５５９８发布","powerTime":"2020-03-24 16:49:01","powerComm":"已送电","subsNo":"","lineNo":"","tgNo":"","tgName":null,"infoStatus":"1","orgName":"国网博野县供电公司","typeName":null,"infoStatusName":null,"dateDay":null,"orgNos":null,"nowTime":null,"countyName":null,"streetName":null,"villageName":null,"roadName":null,"communityName":null,"tranName":null,"sdLineName":null,"cityCode":"1340608","cityName":"国网博野县供电公司","provinceCode":null,"stopTime":"2020-03-24 17:30:00","powerType":"全部","powerOffArea":"【全线路停电】停10KV514南环线高庄37038分支大营2437台区变压器,10KV514南环线小营村东分支小营2475台区变压器,10KV514南环线高庄2473分支大营2473台区变压器,10KV514南环线37064分支大营37021台区变压器,10KV514南环线2433分支2471台区变压器,10KV514南环线西街37006分支西街37006台区变压器,10KV514南环线37017分支小营37017台区变压器,10KV514南环线37013分支小营2413台区变压器,10KV514南环线东路分支小营2466台区变压器,10KV514南环线高庄37061分支大营2460台区变压器,10KV514南环线高庄分支高庄2419台区变压器,10kV南环线514看守所取暖54638台区变压器,10KV514南环线370642476分支大营2476台区变压器,10KV514南环线2429分支小营2429台区变压器,10KV514南环线大营37062分支大营37003台区变压器,10KV514南环线2433分支大营2433台区变压器10KV514南环线2433分支大营2433台区变压器,10KV514南环线37063分支大营2477台区变压器,10KV514南环线大营37062分支大营2461台区变压器,10KV514南环线高庄37015分支大营2415台区变压器,10Kv南环514线37081台区变压器,10KV514南环线大营博江浇地分支大营2425台区变压器,10KV514南环线浇地分支西街2445台区变压器,10KV514南环线高庄分支大营2454台区变压器,10KV514南环线247337012分支大营2412台区变压器,10Kv南环514线37080台区变压器,10KV514南环线大营3号分支大营2423台区变压器,10KV514南环线北路分支小营37065台区变压器,10KV514南环线高庄2472分支大营2472台区变压器,10KV514南环线北路分支37066台区变压器,10KV南环514线小营37666台区变压器,10KV514南环线高庄分支高庄2418台区变压器,10Kv南环514线37078台区变压器,10KV514南环线370172459分支小营2459台区变压器,10KV514南环线高庄分支大营2438台区变压器,10KV514南环线3706237011分支37011台区变压器,10KV514南环线大营2号分支大营2435台区变压器,10KV514南环线37063分支大营2421台区变压器,10Kv南环514线37079台区变压器,10KV514南环线主干大营2424台区变压器,10KV514南环线主干南白沙37047台区变压器,10KV514南环线大营2462台区分支大营2462台区变压器,10KV514南环线37064分支大营2463台区变压器","powerOffReason":"【停电原因】由于站外开关跳闸导致３５ＫＶ南白沙变电站南环５１４线路全线停电【变更送电】因抢修进度加快原因，送电时间由２３：００变更为１７：３０【发布渠道】通过９５５９８发布","powerOffId":"2020032413000187"},{"poweroffId":2020032413000177,"sgpoweroffId":null,"subsName":"","lineName":"10kV不老树513线","pubTranName":"大车沟1#,大车沟2#,不老树3#配变,不老树4#配变,不老树5#,龙王庙光伏2号,龙王庙光伏7号,龙王庙光伏6号,龙王庙光伏4号,北栗元铺1#,北栗元铺4#,北栗元铺配变2#,北栗元铺配变3#,不老树1#,不老树1#【18M】,不老树2#配变,龙王庙光伏1号,","scope":"【影响街道/乡镇】天生桥镇 【高危重要客户】无 【影响客户】北栗元铺、龙王庙、于家台、下河、不老树、沟口","startTime":"2020-04-12 09:00:00","stopDate":"2020-04-12 16:00:00","orgNo":"1340611","typeCode":"计划停电","poweroffArea":"【分支停电】停大车沟1#,大车沟2#,北栗元铺1#,北栗元铺4#,北栗元铺配变2#,北栗元铺配变3#,不老树1#,不老树1#【18M】,不老树2#配变,不老树3#配变,不老树4#配变,不老树5#,龙王庙光伏2号,龙王庙光伏7号,龙王庙光伏6号,龙王庙光伏4号,龙王庙光伏1号","poweroffReason":"【停电原因】由于引线搭接导致３５ＫＶ天生桥变电站１０ＫＶ不老树５１３线路主干６２号杆５１３—３号刀闸动触头及以下线路停电 【变更送电】无 【发布渠道】保定市阜平电视台（３月２４日１８时至４月１１日１２时）飞播","powerTime":"2020-04-12 15:41:43","powerComm":"全部送电","subsNo":"","lineNo":"","tgNo":"","tgName":null,"infoStatus":"1","orgName":"国网阜平县供电公司","typeName":null,"infoStatusName":null,"dateDay":null,"orgNos":null,"nowTime":null,"countyName":null,"streetName":null,"villageName":null,"roadName":null,"communityName":null,"tranName":null,"sdLineName":null,"cityCode":"1340611","cityName":"国网阜平县供电公司","provinceCode":null,"stopTime":"2020-04-12 16:00:00","powerType":"全部","powerOffArea":"【分支停电】停大车沟1#,大车沟2#,北栗元铺1#,北栗元铺4#,北栗元铺配变2#,北栗元铺配变3#,不老树1#,不老树1#【18M】,不老树2#配变,不老树3#配变,不老树4#配变,不老树5#,龙王庙光伏2号,龙王庙光伏7号,龙王庙光伏6号,龙王庙光伏4号,龙王庙光伏1号","powerOffReason":"【停电原因】由于引线搭接导致３５ＫＶ天生桥变电站１０ＫＶ不老树５１３线路主干６２号杆５１３—３号刀闸动触头及以下线路停电 【变更送电】无 【发布渠道】保定市阜平电视台（３月２４日１８时至４月１１日１２时）飞播","powerOffId":"2020032413000177"},{"poweroffId":2020032413000166,"sgpoweroffId":null,"subsName":"","lineName":"10kV恒开515线","pubTranName":"南湾3#公用配变,南湾2号光伏2号配变变压器,马驹石美丽乡村1号配变中压出线间隔配电变压器,515槐场2#配变,515马驹石1#配变,515南叼窝1#配变,515南湾1##配变,515南湾2#配变,515上庄2#配变,515史家寨2#配变,515上庄1#配变,515南湾1##配变【18M】,515南叼窝4#配变,515土岭3#配变,515土岭2#配变,红土山5号公用配变【18M】,515红土山1#配变,","scope":"【影响街道/乡镇】王林口镇、史家寨乡 【高危重要客户】无 【影响客户】土岭、王长沟、吉了庵、世纪华庭小区、庄上、史家寨、东台、笛子口、西笛子口、东笛子口、庙台、家北、吉家台、凹里、西凹、北凹、东凹、张家凹、下庄、红土山、槐庄、小条村、李家台、草家台、董家村、岭根、小工、七亩地、槐场、雷堡、上雷堡、下雷堡、口上、山峪、北木石、南木石、大南地、圣水岭、李家沟、龙火、苏家台、沙角湾、保竹、桑林沟门、红岗地、苹果石、小火岭、南湾、北湾、辛庄、榆林沟、柳峪、马驹石、叼窝口村、南叼窝、北叼窝、大沟、别石沟、上庄、东湾、史家寨美丽乡村、史家寨蘑菇棚、凹里蘑菇棚、下庄蘑菇棚、红土山蘑菇棚、董家村蘑菇棚、西家凹养鸡场、白家台养鸡场、马驹石养鸡场、南湾养鸡场、马驹石美丽乡村、雷堡蘑菇棚、史家寨乡政府、笛子口蘑菇棚、雷堡养鸡场、史家寨派出所、史家寨医院、史家寨信用社、史家寨中学、马驹石小学、下庄小学、凹里小学、红土山小学、南湾小学、土岭小学、庄上小学","startTime":"2020-04-11 07:30:00","stopDate":"2020-04-11 20:00:00","orgNo":"1340611","typeCode":"计划停电","poweroffArea":"【全线路停电】停515红土山1#配变,515槐场2#配变,515马驹石1#配变,515南叼窝1#配变,515南湾1##配变,515南湾2#配变,515上庄2#配变,515史家寨2#配变,515上庄1#配变,515南湾1##配变【18M】,515南叼窝4#配变,515土岭3#配变,515土岭2#配变,红土山5号公用配变【18M】,马驹石美丽乡村1号配变中压出线间隔配电变压器,南湾3#公用配变,南湾2号光伏2号配变变压器","poweroffReason":"【停电原因】由于引线搭接导致３５ＫＶ城北变电站１０ＫＶ恒开５１５线路全线停电 【变更送电】因工作量大，送电时间由１８：３０变更为２０：００ 【发布渠道】保定市阜平电视台（３月２４日１６时至４月１０日０９时）飞播","powerTime":"2020-04-11 19:42:30","powerComm":"全部送电","subsNo":"","lineNo":"","tgNo":"","tgName":null,"infoStatus":"1","orgName":"国网阜平县供电公司","typeName":null,"infoStatusName":null,"dateDay":null,"orgNos":null,"nowTime":null,"countyName":null,"streetName":null,"villageName":null,"roadName":null,"communityName":null,"tranName":null,"sdLineName":null,"cityCode":"1340611","cityName":"国网阜平县供电公司","provinceCode":null,"stopTime":"2020-04-11 20:00:00","powerType":"全部","powerOffArea":"【全线路停电】停515红土山1#配变,515槐场2#配变,515马驹石1#配变,515南叼窝1#配变,515南湾1##配变,515南湾2#配变,515上庄2#配变,515史家寨2#配变,515上庄1#配变,515南湾1##配变【18M】,515南叼窝4#配变,515土岭3#配变,515土岭2#配变,红土山5号公用配变【18M】,马驹石美丽乡村1号配变中压出线间隔配电变压器,南湾3#公用配变,南湾2号光伏2号配变变压器","powerOffReason":"【停电原因】由于引线搭接导致３５ＫＶ城北变电站１０ＫＶ恒开５１５线路全线停电 【变更送电】因工作量大，送电时间由１８：３０变更为２０：００ 【发布渠道】保定市阜平电视台（３月２４日１６时至４月１０日０９时）飞播","powerOffId":"2020032413000166"},{"poweroffId":2020032413000163,"sgpoweroffId":null,"subsName":"","lineName":"10kV羊道548线","pubTranName":"下庄7#公用配变,花山1#,菜池9#公用配变,菜池2#公用配变,菜池12#公用配变,菜池5#公用配变,二道庄2#公用配变,二道庄3#公用配变,大岸底7#公用配变,下庄8#公用配变,花山公用,菜池美丽乡村6号公用配变中压出线间隔配电变压器,大岸底小学采暖1号配变变压器【18M】,大岸地1#公用配变,大岸地4#公用配变,二道庄7#公用配变,","scope":"【影响街道/乡镇】城南庄镇、下庄乡 【高危重要客户】无 【影响客户】栗元庄村、石牛河、长石崖村、东台村、王庭沟、河西台、桑林坪村、干石沟、大沙地、下庄、水峪沟、保张滩、木福沟、锯齿沟、旧营村、陈南沟、面盆、木桥村、二道庄、康家坪、羊道村、大河村、菜池村、花塔村、趴北石、中国移动通信集团河北有限公司阜平分公司、阜平县军发石材加工厂、阜平县城南庄镇八里沟铁矿","startTime":"2020-04-11 07:00:00","stopDate":"2020-04-11 15:30:00","orgNo":"1340611","typeCode":"计划停电","poweroffArea":"【分支停电】停下庄7#公用配变,花山1#,菜池9#公用配变,菜池2#公用配变,菜池12#公用配变,菜池5#公用配变,二道庄2#公用配变,二道庄3#公用配变,大岸底7#公用配变,下庄8#公用配变,花山公用,菜池美丽乡村6号公用配变中压出线间隔配电变压器,大岸底小学采暖1号配变变压器【18M】,大岸地1#公用配变,大岸地4#公用配变,二道庄7#公用配变","poweroffReason":"【停电原因】由于引线搭接导致１１０ＫＶ桑地变电站１０ＫＶ羊道５４８线路主干３５号杆５４８—２号刀闸动触头及以下线路停电 【变更送电】无 【发布渠道】保定市阜平电视台（３月２４日１８时至４月１０日１８时）飞播","powerTime":"2020-04-11 15:16:59","powerComm":"全部送电","subsNo":"","lineNo":"","tgNo":"","tgName":null,"infoStatus":"1","orgName":"国网阜平县供电公司","typeName":null,"infoStatusName":null,"dateDay":null,"orgNos":null,"nowTime":null,"countyName":null,"streetName":null,"villageName":null,"roadName":null,"communityName":null,"tranName":null,"sdLineName":null,"cityCode":"1340611","cityName":"国网阜平县供电公司","provinceCode":null,"stopTime":"2020-04-11 15:30:00","powerType":"全部","powerOffArea":"【分支停电】停下庄7#公用配变,花山1#,菜池9#公用配变,菜池2#公用配变,菜池12#公用配变,菜池5#公用配变,二道庄2#公用配变,二道庄3#公用配变,大岸底7#公用配变,下庄8#公用配变,花山公用,菜池美丽乡村6号公用配变中压出线间隔配电变压器,大岸底小学采暖1号配变变压器【18M】,大岸地1#公用配变,大岸地4#公用配变,二道庄7#公用配变","powerOffReason":"【停电原因】由于引线搭接导致１１０ＫＶ桑地变电站１０ＫＶ羊道５４８线路主干３５号杆５４８—２号刀闸动触头及以下线路停电 【变更送电】无 【发布渠道】保定市阜平电视台（３月２４日１８时至４月１０日１８时）飞播","powerOffId":"2020032413000163"},{"poweroffId":2020032413000159,"sgpoweroffId":null,"subsName":"","lineName":"10kV平阳543线","pubTranName":"北水峪5#公用配变,北水峪7#公用配变,北水峪8号公用配变,北水峪小学采暖1号变压器【18M】,北水峪小学采暖2号变压器【18M】,各老1号公用配变,各老2号公用配变,各老2号公用配变【18M】,平阳19#公用配变,平阳1号公用配变,平阳20#公用配变,平阳21#公用配变,平阳22#公用配变,平阳23#公用配变,平阳24#公用配变,各老3号公用配变,各老村公用配变【光伏】,各老村食用菌1#公用配变,平阳10号公用配变,平阳14号公用配变,北水峪2号公用配变,北水峪3#公用配变,北水峪4号公用配变,","scope":"【影响街道/乡镇】平阳镇 【高危重要客户】无 【影响客户】平阳村、平阳桥、平阳劳动沟、平阳大河窑、平阳镇政府、平阳北沟、平阳台南、平阳小区、各老村、羊角村、台南村、北水峪村、东水峪、南水峪、山咀头村、阜平县国泰果品有限责任公司、阜平县和谐水产养殖专业合作社、阜平县宏祥建筑工程有限责任公司、阜平县金成饭店、阜平县景泰矿产品经销有限公司、阜平县平阳石子加工厂、阜平县平阳镇平阳供销社小区、阜平县淇瑞祥混凝土搅拌有限公司、阜平县润沃煤炭购销有限公司、阜平县三岩寨敬老院、阜平县兴隆水泥砖厂、中国联合网络通信有限公司阜平县分公司、中国铁塔股份有限公司保定市分公司、中国移动通信集团河北有限公司阜平分公司","startTime":"2020-04-12 05:30:00","stopDate":"2020-04-12 19:00:00","orgNo":"1340611","typeCode":"计划停电","poweroffArea":"【全线路停电】停各老3号公用配变,各老村公用配变【光伏】,各老村食用菌1#公用配变,平阳10号公用配变,平阳14号公用配变,北水峪2号公用配变,北水峪3#公用配变,北水峪4号公用配变,北水峪5#公用配变,北水峪7#公用配变,北水峪8号公用配变,北水峪小学采暖1号变压器【18M】,北水峪小学采暖2号变压器【18M】,各老1号公用配变,各老2号公用配变,各老2号公用配变【18M】,平阳19#公用配变,平阳1号公用配变,平阳20#公用配变,平阳21#公用配变,平阳22#公用配变,平阳23#公用配变,平阳24#公用配变","poweroffReason":"【停电原因】由于引线搭接导致１１０ＫＶ平阳变电站１０ＫＶ平阳５４３线路全线停电 【变更送电】无 【发布渠道】保定市阜平电视台（３月２４日１８时至４月１１日１８时）飞播","powerTime":"2020-04-12 18:47:36","powerComm":"全部送电","subsNo":"","lineNo":"","tgNo":"","tgName":null,"infoStatus":"1","orgName":"国网阜平县供电公司","typeName":null,"infoStatusName":null,"dateDay":null,"orgNos":null,"nowTime":null,"countyName":null,"streetName":null,"villageName":null,"roadName":null,"communityName":null,"tranName":null,"sdLineName":null,"cityCode":"1340611","cityName":"国网阜平县供电公司","provinceCode":null,"stopTime":"2020-04-12 19:00:00","powerType":"全部","powerOffArea":"【全线路停电】停各老3号公用配变,各老村公用配变【光伏】,各老村食用菌1#公用配变,平阳10号公用配变,平阳14号公用配变,北水峪2号公用配变,北水峪3#公用配变,北水峪4号公用配变,北水峪5#公用配变,北水峪7#公用配变,北水峪8号公用配变,北水峪小学采暖1号变压器【18M】,北水峪小学采暖2号变压器【18M】,各老1号公用配变,各老2号公用配变,各老2号公用配变【18M】,平阳19#公用配变,平阳1号公用配变,平阳20#公用配变,平阳21#公用配变,平阳22#公用配变,平阳23#公用配变,平阳24#公用配变","powerOffReason":"【停电原因】由于引线搭接导致１１０ＫＶ平阳变电站１０ＫＶ平阳５４３线路全线停电 【变更送电】无 【发布渠道】保定市阜平电视台（３月２４日１８时至４月１１日１８时）飞播","powerOffId":"2020032413000159"},{"poweroffId":2020032413000155,"sgpoweroffId":null,"subsName":"","lineName":"10kV王林口540线","pubTranName":"前岭2#公用配变,前岭2#公用配变【18M】,刘家沟2#公用配变,马坊1#公用配变,马坊2#公用配变,马沙沟1#公用配变,马沙沟2#公用配变,平阳11#公用配变,白山1#公用配变,东王林口1#公用配变,王快小区6#配变中压出线间隔配电变压器,王快小区8#配变中压出线间隔配电变压器,王快小区9#配变中压出线间隔配电变压器,五丈湾1#公用配变,五丈湾10#公用配变,五丈湾11#公用配变,五丈湾12#公用配变,五丈湾13#公用配变,五丈湾14#公用配变,五丈湾2#公用配变,前岭3#公用配变,王快13#公用配变【18M】,王快小区11#配变中压出线间隔配电变压器,王快9#公用配变,前岭4#公用配变,马沙沟小区1号配变中压出线间隔配电变压器,前岭1#公用配变,王快小区10#配变中压出线间隔配电变压器,东王林口2#公用配变,东王林口田野希望小学采暖1号变压器【18M】,刘家沟1#公用配变,马沙沟小区2号配变中压出间隔配电变压器,马沙沟小区3#公用配变,前岭5#公用配变,王快1#公用配变,王快13#公用配变,王快12#公用配变,王快11#公用配变,王快10#公用配变,西王林口7#公用配变,西王林口6#公用配变,五丈湾6#公用配变,五丈湾9#公用配变,皂火峪村公用配变【光伏】,皂火峪2#公用配变变压器,皂火峪1#公用配变,王快小区5#配变中压出线间隔配电变压器,西王林口4#公用配变,王快小区7#配变中压出线间隔配电变压器,王快小区1#配变中压出线间隔配电变压器,王快7#公用配变,","scope":"【影响街道/乡镇】平阳镇 【高危重要客户】无 【影响客户】铁岭村、铁岭西沟、王快村、后沟村、王快二十亩地村、单岗岭村、黄家坡村、王快土洞沟村、刘家峪村、核桃树沟村、王快石门沟村、王快大车峪村、刘树峪村、寨沟村、石门沟村、白山村、皂火峪村、五丈湾村、庙尔沟村、庙南村、保家庄村、鸭沟村、郄家沟村、上白岔村、下白岔村、坡河村、王快劳动沟村、前岭村、桑元村、樊家工村、杜木沟村、立北沟村，西王林口村、赵望沟村，马沙沟、马坊村、东王林口村、刘家沟村、保定申成路桥有限责任公司、保定市沃原农业科技有限公司、保定天航绿色食品保鲜有限公司、阜平县博嘉农业综合开发有限公司、阜平县仓房岭农牧业开发有限公司、阜平县昌盛水泥砖厂、阜平县东泰劳务服务处、阜平县福泉牧业有限公司、阜平县福瑞嘉食用菌专业合作社、阜平县阜裕投资有限责任公司、阜平县富因达斯水貂专业合作社、阜平县盖宇天然饮料食品有限公司、阜平县合盛食用菌种植专业合作社、阜平县亨瑞畜饲养有限公司、阜平县恒泰水貂养殖有限公司、阜平县交警大队平阳分队、阜平县教师发展中心、阜平县金阳泰铝塑门窗加工厂、阜平县巨鑫煤业有限公司、阜平县凯润旅游开发有限公司、阜平县林发绿化有限公司、阜平县隆昌型煤加工有限公司、阜平县平阳镇后沟井、阜平县平阳镇黄家坡水、阜平县平阳镇石门沟水专、阜平县平阳镇五凤岭水专、阜平县平阳中心卫生院、阜平县瑞冠水泥制品有限公司、阜平县泰博牧业有限公司、阜平县铁岭庆丰肉牛饲养场、阜平县王林口乡人民政府、阜平县王林口乡卫生院、阜平县王林口乡西王林口小学、阜平县王林口镇小区、阜平县鑫阜达食用菌专业合作社、阜平县鑫巨经贸有限公司、阜平县鑫腾达宾馆、阜平县胭脂河清林采砂场、阜平县垚鑫土地整治工程有限公司、阜平县宇晖商贸有限公司、阜平县越升煤炭购销处、阜平鑫鑫水泥制品厂、河北宝山农业科技有限公司、河北光存生物科技有限公司、河北国和万霖农业科技有限公司、河北国和兴阜农业发展有限公司、河北建设集团股份有限公司阜平分公司、河北交通投资集团保阜高速公路有限公司、河北绿金生物科技有限公司、河北青林农业技术开发有限公司、孟现明煤场、石家庄德润环保科技有限公司、银泰葫芦峪(阜平)农业科技开发有限公司、中城投集团第五工程局有限公司、中国联合网络通信有限公司阜平县分公司、中国石化销售有限公司河北保定阜平石油分公司、中国石油天然气股份有限公司河北保定销售分公司、中国铁塔股份有限公司保定市分公司、中国移动通信集团河北有限公司阜平分公司","startTime":"2020-04-12 05:30:00","stopDate":"2020-04-12 19:00:00","orgNo":"1340611","typeCode":"计划停电","poweroffArea":"【全线路停电】停前岭3#公用配变,前岭4#公用配变,马沙沟小区1号配变中压出线间隔配电变压器,前岭1#公用配变,前岭2#公用配变,前岭2#公用配变【18M】,刘家沟2#公用配变,马坊1#公用配变,马坊2#公用配变,马沙沟1#公用配变,马沙沟2#公用配变,平阳11#公用配变,白山1#公用配变,东王林口1#公用配变,东王林口2#公用配变,东王林口田野希望小学采暖1号变压器【18M】,刘家沟1#公用配变,马沙沟小区2号配变中压出间隔配电变压器,马沙沟小区3#公用配变,前岭5#公用配变,王快1#公用配变,王快13#公用配变,王快12#公用配变,王快11#公用配变,王快10#公用配变,王快13#公用配变【18M】,王快小区5#配变中压出线间隔配电变压器,王快小区7#配变中压出线间隔配电变压器,王快小区1#配变中压出线间隔配电变压器,王快7#公用配变,王快小区10#配变中压出线间隔配电变压器,王快小区11#配变中压出线间隔配电变压器,王快9#公用配变,西王林口4#公用配变,皂火峪村公用配变【光伏】,皂火峪2#公用配变变压器,皂火峪1#公用配变,西王林口7#公用配变,西王林口6#公用配变,王快小区6#配变中压出线间隔配电变压器,王快小区8#配变中压出线间隔配电变压器,王快小区9#配变中压出线间隔配电变压器,五丈湾1#公用配变,五丈湾10#公用配变,五丈湾11#公用配变,五丈湾12#公用配变,五丈湾13#公用配变,五丈湾14#公用配变,五丈湾2#公用配变,五丈湾6#公用配变,五丈湾9#公用配变","poweroffReason":"【停电原因】由于引线搭接导致１１０ＫＶ平阳变电站１０ＫＶ王林口５４０线路全线停电 【变更送电】无 【发布渠道】保定市阜平电视台（３月２４日１８时至４月１１日１８时）飞播","powerTime":"2020-04-12 18:48:16","powerComm":"全部送电","subsNo":"","lineNo":"","tgNo":"","tgName":null,"infoStatus":"1","orgName":"国网阜平县供电公司","typeName":null,"infoStatusName":null,"dateDay":null,"orgNos":null,"nowTime":null,"countyName":null,"streetName":null,"villageName":null,"roadName":null,"communityName":null,"tranName":null,"sdLineName":null,"cityCode":"1340611","cityName":"国网阜平县供电公司","provinceCode":null,"stopTime":"2020-04-12 19:00:00","powerType":"全部","powerOffArea":"【全线路停电】停前岭3#公用配变,前岭4#公用配变,马沙沟小区1号配变中压出线间隔配电变压器,前岭1#公用配变,前岭2#公用配变,前岭2#公用配变【18M】,刘家沟2#公用配变,马坊1#公用配变,马坊2#公用配变,马沙沟1#公用配变,马沙沟2#公用配变,平阳11#公用配变,白山1#公用配变,东王林口1#公用配变,东王林口2#公用配变,东王林口田野希望小学采暖1号变压器【18M】,刘家沟1#公用配变,马沙沟小区2号配变中压出间隔配电变压器,马沙沟小区3#公用配变,前岭5#公用配变,王快1#公用配变,王快13#公用配变,王快12#公用配变,王快11#公用配变,王快10#公用配变,王快13#公用配变【18M】,王快小区5#配变中压出线间隔配电变压器,王快小区7#配变中压出线间隔配电变压器,王快小区1#配变中压出线间隔配电变压器,王快7#公用配变,王快小区10#配变中压出线间隔配电变压器,王快小区11#配变中压出线间隔配电变压器,王快9#公用配变,西王林口4#公用配变,皂火峪村公用配变【光伏】,皂火峪2#公用配变变压器,皂火峪1#公用配变,西王林口7#公用配变,西王林口6#公用配变,王快小区6#配变中压出线间隔配电变压器,王快小区8#配变中压出线间隔配电变压器,王快小区9#配变中压出线间隔配电变压器,五丈湾1#公用配变,五丈湾10#公用配变,五丈湾11#公用配变,五丈湾12#公用配变,五丈湾13#公用配变,五丈湾14#公用配变,五丈湾2#公用配变,五丈湾6#公用配变,五丈湾9#公用配变","powerOffReason":"【停电原因】由于引线搭接导致１１０ＫＶ平阳变电站１０ＫＶ王林口５４０线路全线停电 【变更送电】无 【发布渠道】保定市阜平电视台（３月２４日１８时至４月１１日１８时）飞播","powerOffId":"2020032413000155"},{"poweroffId":2020032413000137,"sgpoweroffId":null,"subsName":"","lineName":"10kV北庄545线","pubTranName":"车道2#公用配变变压器,土门6#公用配变,北庄5号公用配变,长角1#公用配变,车道3#公用配变变压器【18M】,北庄食用菌公用配变,长角2#公用配变,东板峪3号公用配变,东板峪食用菌2#公用配变,北庄1#公用配变【18M】,土门8#公用配变,长角村食用菌1号公用配变变压器,车道5#公用配变变压器,土门7#公用配变,石湖2#公用配变,","scope":"【影响街道/乡镇】平阳镇 【高危重要客户】无 【影响客户】北庄村、金家口村、河泽村、半岛沟门村、黄岸村、东板峪村、长角村、朱岸村、车道村、大庙村、五支村、枣岸村、石湖村、唐野村、柳河村、坡子村、大湾村、土门村、南工村、桃河村、桃河沟村、阜平久丰农业科技有限公司、阜平县大韩农业开发有限公司、阜平县福东林果种植专业合作社、阜平县福寿山林果种植园、阜平县国有粮食购销一库、阜平县宁瑞畜牧饲养有限公司、阜平县鑫东建材购销有限公司、河北宝山农业科技有限公司、河北诚威建筑工程有限责任公司、河北冠阳农业科技开发有限公司、河北国和万霖农业科技有限公司、河北交通投资集团保阜高速公路有限公司、中国移动通信集团河北有限公司阜平分公司","startTime":"2020-04-12 05:00:00","stopDate":"2020-04-12 19:00:00","orgNo":"1340611","typeCode":"计划停电","poweroffArea":"【全线路停电】停北庄食用菌公用配变,长角2#公用配变,东板峪3号公用配变,东板峪食用菌2#公用配变,阜平县大韩农业开发有限公司,北庄1#公用配变【18M】,土门8#公用配变,车道5#公用配变变压器,土门7#公用配变,石湖2#公用配变,车道2#公用配变变压器,土门6#公用配变,北庄5号公用配变,长角村食用菌1号公用配变变压器","poweroffReason":"【停电原因】由于引线搭接导致１１０ＫＶ平阳变电站１０ＫＶ北庄５４５线路全线停电 【变更送电】无 【发布渠道】保定市阜平电视台（３月２４日１８时至４月１１日１８时）飞播","powerTime":"2020-04-12 18:48:37","powerComm":"全部送电","subsNo":"","lineNo":"","tgNo":"","tgName":null,"infoStatus":"1","orgName":"国网阜平县供电公司","typeName":null,"infoStatusName":null,"dateDay":null,"orgNos":null,"nowTime":null,"countyName":null,"streetName":null,"villageName":null,"roadName":null,"communityName":null,"tranName":null,"sdLineName":null,"cityCode":"1340611","cityName":"国网阜平县供电公司","provinceCode":null,"stopTime":"2020-04-12 19:00:00","powerType":"全部","powerOffArea":"【全线路停电】停北庄食用菌公用配变,长角2#公用配变,东板峪3号公用配变,东板峪食用菌2#公用配变,阜平县大韩农业开发有限公司,北庄1#公用配变【18M】,土门8#公用配变,车道5#公用配变变压器,土门7#公用配变,石湖2#公用配变,车道2#公用配变变压器,土门6#公用配变,北庄5号公用配变,长角村食用菌1号公用配变变压器","powerOffReason":"【停电原因】由于引线搭接导致１１０ＫＶ平阳变电站１０ＫＶ北庄５４５线路全线停电 【变更送电】无 【发布渠道】保定市阜平电视台（３月２４日１８时至４月１１日１８时）飞播","powerOffId":"2020032413000137"},{"poweroffId":2020032413000132,"sgpoweroffId":null,"subsName":"","lineName":"10kV白家峪544线","pubTranName":"白家峪2井公用配变变压器【18M】,白家峪3#公用配变变压器,白家峪3号食用菌公用配变,白家峪村公用配变【光伏】,冯家6#公用配变变压器,冯家口1#公用配变变压器【18M】,白家峪2井公用配变变压器,冯家口1#公用配变变压器,冯家口2#公用配变变压器,白家峪1#公用配变变压器,白家峪1#食用菌公用配变,白家峪2#食用菌公用配变,","scope":"【影响街道/乡镇】平阳镇 【高危重要客户】无 【影响客户】平阳村北、白家峪村、白家峪新民居、上平阳村、上平阳小东沟村、冯家口村、吉利沟村、元子沟村、于家店村、土门村、杨树洼村、水么村、牛巴村、立彦头村、罗峪村下、阜平久丰农业科技有限公司、阜平县博嘉农业综合开发有限公司、阜平县富民林果种植专业合作社、阜平县平阳镇白家峪村村民委员会、阜平县平阳镇北沟小区、阜平县平阳镇中心小学、阜平县日月矿产品加工经销处、阜平县腾达高产奶牛养殖有限公司、阜平县鑫隆长石建材加工厂、阜平县宇金废菌棒加工厂、阜平英利光伏电力开发有限公司、国家电投集团阜平新能源发电有限公司、河北宝山农业科技有限公司、河北冠阳农业科技开发有限公司、河北建设集团股份有限公司阜平分公司、河北圣马皇冠皮具有限公司、平阳镇万顺养殖场、银泰葫芦峪(阜平)农业科技开发有限公司、中太建设集团股份有限公司","startTime":"2020-04-12 05:30:00","stopDate":"2020-04-12 19:00:00","orgNo":"1340611","typeCode":"计划停电","poweroffArea":"【全线路停电】停白家峪3#公用配变变压器,白家峪2井公用配变变压器,冯家口1#公用配变变压器,冯家口2#公用配变变压器,白家峪1#公用配变变压器,白家峪1#食用菌公用配变,白家峪2#食用菌公用配变,白家峪2井公用配变变压器【18M】,白家峪3号食用菌公用配变,白家峪村公用配变【光伏】,冯家6#公用配变变压器","poweroffReason":"【停电原因】由于引线搭接导致１１０ＫＶ平阳变电站１０ＫＶ白家峪５４４线路全线停电 【变更送电】无 【发布渠道】保定市阜平电视台（３月２４日１８时至４月１１日１８时）飞播","powerTime":"2020-04-12 18:48:57","powerComm":"全部送电","subsNo":"","lineNo":"","tgNo":"","tgName":null,"infoStatus":"1","orgName":"国网阜平县供电公司","typeName":null,"infoStatusName":null,"dateDay":null,"orgNos":null,"nowTime":null,"countyName":null,"streetName":null,"villageName":null,"roadName":null,"communityName":null,"tranName":null,"sdLineName":null,"cityCode":"1340611","cityName":"国网阜平县供电公司","provinceCode":null,"stopTime":"2020-04-12 19:00:00","powerType":"全部","powerOffArea":"【全线路停电】停白家峪3#公用配变变压器,白家峪2井公用配变变压器,冯家口1#公用配变变压器,冯家口2#公用配变变压器,白家峪1#公用配变变压器,白家峪1#食用菌公用配变,白家峪2#食用菌公用配变,白家峪2井公用配变变压器【18M】,白家峪3号食用菌公用配变,白家峪村公用配变【光伏】,冯家6#公用配变变压器","powerOffReason":"【停电原因】由于引线搭接导致１１０ＫＶ平阳变电站１０ＫＶ白家峪５４４线路全线停电 【变更送电】无 【发布渠道】保定市阜平电视台（３月２４日１８时至４月１１日１８时）飞播","powerOffId":"2020032413000132"},{"poweroffId":2020032413000130,"sgpoweroffId":null,"subsName":"","lineName":"10kV苍山线511","pubTranName":"519董家沟口4#配变,519大石坊1#配变,519小石坊1#配变,519海沿1#配变,519苍山3#配变,519董家沟口5#配变,519苍山1#配变,519小石坊2#配变,519董家沟口2#配变,519大石坊3配变,519大道3#配变,519董家沟口1#配变,519大石坊5#配变,519神台2#配变,519苍山2#配变,519南峪2#配变,519黄岸底4#配变,519南峪1#配变,519大石坊2#配变,519董家沟口3#配变,519小石坊3#配变,519神台1#配变,","scope":"【影响街道/乡镇】阜平镇 【高危重要客户】无 【影响客户】苍山村、南峪村、董家沟口、大石坊村、槐树庄村、大道村、黄岸底村、海沿村、耑路头、槐树庄中学、小石坊村、高阜口村、神台村、方太口村","startTime":"2020-04-12 07:30:00","stopDate":"2020-04-12 20:00:00","orgNo":"1340611","typeCode":"计划停电","poweroffArea":"【分支停电】停519董家沟口5#配变,519董家沟口4#配变,519大石坊1#配变,519小石坊1#配变,519海沿1#配变,519苍山3#配变,519苍山1#配变,519小石坊2#配变,519董家沟口2#配变,519大道3#配变,519董家沟口1#配变,519大石坊5#配变,519神台2#配变,519苍山2#配变,519南峪2#配变,519黄岸底4#配变,519南峪1#配变,519大石坊2#配变,519董家沟口3#配变,519小石坊3#配变,519神台1#配变,519大石坊3配变","poweroffReason":"【停电原因】由于安装开关导致３５ＫＶ阜平西庄变电站１０ＫＶ苍山线５１１线路主干０１号杆５１１—１号刀闸动触头及以下线路停电 【变更送电】因工作量较大，送电时间由１８：３０变更为２０：００ 【发布渠道】阜平电视台（３月２４日１８时至４月１１日２２时）飞播","powerTime":"2020-04-12 19:19:41","powerComm":"全部送电","subsNo":"","lineNo":"","tgNo":"","tgName":null,"infoStatus":"1","orgName":"国网阜平县供电公司","typeName":null,"infoStatusName":null,"dateDay":null,"orgNos":null,"nowTime":null,"countyName":null,"streetName":null,"villageName":null,"roadName":null,"communityName":null,"tranName":null,"sdLineName":null,"cityCode":"1340611","cityName":"国网阜平县供电公司","provinceCode":null,"stopTime":"2020-04-12 20:00:00","powerType":"全部","powerOffArea":"【分支停电】停519董家沟口5#配变,519董家沟口4#配变,519大石坊1#配变,519小石坊1#配变,519海沿1#配变,519苍山3#配变,519苍山1#配变,519小石坊2#配变,519董家沟口2#配变,519大道3#配变,519董家沟口1#配变,519大石坊5#配变,519神台2#配变,519苍山2#配变,519南峪2#配变,519黄岸底4#配变,519南峪1#配变,519大石坊2#配变,519董家沟口3#配变,519小石坊3#配变,519神台1#配变,519大石坊3配变","powerOffReason":"【停电原因】由于安装开关导致３５ＫＶ阜平西庄变电站１０ＫＶ苍山线５１１线路主干０１号杆５１１—１号刀闸动触头及以下线路停电 【变更送电】因工作量较大，送电时间由１８：３０变更为２０：００ 【发布渠道】阜平电视台（３月２４日１８时至４月１１日２２时）飞播","powerOffId":"2020032413000130"}],"pageModel":{"pageNow":230,"totalCount":10973,"totalPage":1098,"tableRows":0,"pageCount":10,"beginCount":2290},"isExperi":"1"}