{"message":"","today":"2020-06-15","seleList":[{"poweroffId":2020032213000003,"sgpoweroffId":null,"subsName":"","lineName":"10kV514南环线","pubTranName":"10KV514南环线大营37062分支大营37003台区变压器,10KV514南环线2433分支大营2433台区变压器10KV514南环线2433分支大营2433台区变压器,10KV514南环线37063分支大营2477台区变压器,10KV514南环线大营37062分支大营2461台区变压器,10KV514南环线高庄37015分支大营2415台区变压器,10Kv南环514线37081台区变压器,10KV514南环线大营博江浇地分支大营2425台区变压器,10KV514南环线浇地分支西街2445台区变压器,10KV514南环线高庄分支大营2454台区变压器,10KV514南环线247337012分支大营2412台区变压器,10KV514南环线大营3号分支大营2423台区变压器,10Kv南环514线37080台区变压器,10KV514南环线北路分支小营37065台区变压器,10KV514南环线高庄2472分支大营2472台区变压器,10Kv南环514线37078台区变压器,10KV514南环线370172459分支小营2459台区变压器,10KV514南环线高庄分支大营2438台区变压器,10KV514南环线3706237011分支37011台区变压器,10KV514南环线大营2号分支大营2435台区变压器,10KV514南环线大营37062分支大营37045台区变压器【纯农排变】,10KV514南环线37063分支大营2421台区变压器,10Kv南环514线37079台区变压器,10KV514南环线主干大营2424台区变压器,10KV514南环线主干南白沙37047台区变压器,10KV514南环线大营2462台区分支大营2462台区变压器,10KV514南环线37064分支大营2463台区变压器,10KV514南环线高庄37061分支大营2460台区变压器,10KV514南环线高庄37038分支大营2437台区变压器,10KV514南环线小营村东分支小营2475台区变压器,10KV514南环线高庄2473分支大营2473台区变压器,10KV514南环线37064分支大营37021台区变压器,10KV514南环线2433分支2471台区变压器,10KV514南环线西街37006分支西街37006台区变压器,10KV514南环线37017分支小营37017台区变压器,10KV514南环线37013分支小营2413台区变压器,10KV514南环线东路分支小营2466台区变压器,10KV514南环线高庄分支高庄2419台区变压器,10kV南环线514看守所取暖54638台区变压器,10KV514南环线370642476分支大营2476台区变压器,10KV514南环线2429分支小营2429台区变压器,","scope":"【影响街道/乡镇】博野镇【高危重要客户】无【影响客户】大营、小营、东高庄、看守所、南白沙、南街村、西街村","startTime":"2020-03-22 02:17:51","stopDate":"2020-03-22 12:00:00","orgNo":"1340608","typeCode":"电网故障停限电","poweroffArea":"【全线路停电】停10KV514南环线大营37062分支大营37003台区变压器,10KV514南环线2433分支大营2433台区变压器10KV514南环线2433分支大营2433台区变压器,10KV514南环线37063分支大营2477台区变压器,10KV514南环线大营37062分支大营2461台区变压器,10KV514南环线高庄37015分支大营2415台区变压器,10Kv南环514线37081台区变压器,10KV514南环线大营博江浇地分支大营2425台区变压器,10KV514南环线浇地分支西街2445台区变压器,10KV514南环线高庄分支大营2454台区变压器,10KV514南环线247337012分支大营2412台区变压器,10KV514南环线大营3号分支大营2423台区变压器,10Kv南环514线37080台区变压器,10KV514南环线北路分支小营37065台区变压器,10KV514南环线高庄2472分支大营2472台区变压器,10Kv南环514线37078台区变压器,10KV514南环线370172459分支小营2459台区变压器,10KV514南环线高庄分支大营2438台区变压器,10KV514南环线3706237011分支37011台区变压器,10KV514南环线大营2号分支大营2435台区变压器,10KV514南环线大营37062分支大营37045台区变压器【纯农排变】,10KV514南环线37063分支大营2421台区变压器,10Kv南环514线37079台区变压器,10KV514南环线主干大营2424台区变压器,10KV514南环线主干南白沙37047台区变压器,10KV514南环线大营2462台区分支大营2462台区变压器,10KV514南环线37064分支大营2463台区变压器,10KV514南环线高庄37061分支大营2460台区变压器,10KV514南环线高庄37038分支大营2437台区变压器,10KV514南环线小营村东分支小营2475台区变压器,10KV514南环线高庄2473分支大营2473台区变压器,10KV514南环线37064分支大营37021台区变压器,10KV514南环线2433分支2471台区变压器,10KV514南环线西街37006分支西街37006台区变压器,10KV514南环线37017分支小营37017台区变压器,10KV514南环线37013分支小营2413台区变压器,10KV514南环线东路分支小营2466台区变压器,10KV514南环线高庄分支高庄2419台区变压器,10kV南环线514看守所取暖54638台区变压器,10KV514南环线370642476分支大营2476台区变压器,10KV514南环线2429分支小营2429台区变压器","poweroffReason":"【停电原因】由于站外开关跳闸导致３５ＫＶ南白沙变电站南环５１４线路全线停电【变更送电】无【发布渠道】通过９５５９８发布","powerTime":"2020-03-22 11:22:45","powerComm":"已送电","subsNo":"","lineNo":"","tgNo":"","tgName":null,"infoStatus":"1","orgName":"国网博野县供电公司","typeName":null,"infoStatusName":null,"dateDay":null,"orgNos":null,"nowTime":null,"countyName":null,"streetName":null,"villageName":null,"roadName":null,"communityName":null,"tranName":null,"sdLineName":null,"cityCode":"1340608","cityName":"国网博野县供电公司","provinceCode":null,"stopTime":"2020-03-22 12:00:00","powerType":"全部","powerOffArea":"【全线路停电】停10KV514南环线大营37062分支大营37003台区变压器,10KV514南环线2433分支大营2433台区变压器10KV514南环线2433分支大营2433台区变压器,10KV514南环线37063分支大营2477台区变压器,10KV514南环线大营37062分支大营2461台区变压器,10KV514南环线高庄37015分支大营2415台区变压器,10Kv南环514线37081台区变压器,10KV514南环线大营博江浇地分支大营2425台区变压器,10KV514南环线浇地分支西街2445台区变压器,10KV514南环线高庄分支大营2454台区变压器,10KV514南环线247337012分支大营2412台区变压器,10KV514南环线大营3号分支大营2423台区变压器,10Kv南环514线37080台区变压器,10KV514南环线北路分支小营37065台区变压器,10KV514南环线高庄2472分支大营2472台区变压器,10Kv南环514线37078台区变压器,10KV514南环线370172459分支小营2459台区变压器,10KV514南环线高庄分支大营2438台区变压器,10KV514南环线3706237011分支37011台区变压器,10KV514南环线大营2号分支大营2435台区变压器,10KV514南环线大营37062分支大营37045台区变压器【纯农排变】,10KV514南环线37063分支大营2421台区变压器,10Kv南环514线37079台区变压器,10KV514南环线主干大营2424台区变压器,10KV514南环线主干南白沙37047台区变压器,10KV514南环线大营2462台区分支大营2462台区变压器,10KV514南环线37064分支大营2463台区变压器,10KV514南环线高庄37061分支大营2460台区变压器,10KV514南环线高庄37038分支大营2437台区变压器,10KV514南环线小营村东分支小营2475台区变压器,10KV514南环线高庄2473分支大营2473台区变压器,10KV514南环线37064分支大营37021台区变压器,10KV514南环线2433分支2471台区变压器,10KV514南环线西街37006分支西街37006台区变压器,10KV514南环线37017分支小营37017台区变压器,10KV514南环线37013分支小营2413台区变压器,10KV514南环线东路分支小营2466台区变压器,10KV514南环线高庄分支高庄2419台区变压器,10kV南环线514看守所取暖54638台区变压器,10KV514南环线370642476分支大营2476台区变压器,10KV514南环线2429分支小营2429台区变压器","powerOffReason":"【停电原因】由于站外开关跳闸导致３５ＫＶ南白沙变电站南环５１４线路全线停电【变更送电】无【发布渠道】通过９５５９８发布","powerOffId":"2020032213000003"},{"poweroffId":2020032121000002,"sgpoweroffId":null,"subsName":"","lineName":"10kV大阳站535线路","pubTranName":"C159柱上变压器,H0054柱上变压器,C161柱上变压器,10kVB1094.B1107箱式变电站B1094配电变压器,10kVB1094.B1107箱式变电站B1107配电变压器,10kVB529箱式变电站B529配电变压器,C124柱上变压器,C125柱上变压器,C160柱上变压器,C317柱上变压器,C066柱上变压器,C316柱上变压器,C566柱上变压器,C320柱上变压器,C318柱上变压器,C064柱上变压器,C137柱上变压器,C071柱上变压器,C319柱上变压器,C065柱上变压器,","scope":"【影响街道/乡镇】北市区东金庄乡、杨庄乡大阳西街、大阳东街、天威东路 【高危重要客户】无 【影响客户】东后营村、吉恒园、付村","startTime":"2020-03-21 13:30:00","stopDate":"2020-03-21 16:30:00","orgNo":"13406","typeCode":"电网故障停限电","poweroffArea":"【单台区停电】停C316柱上变压器","poweroffReason":"【停电原因】由于低压保险片烧导致１０ＫＶ大阳变电站５３５线路Ｃ３１６公变台区停电【变更送电】无【发布渠道】通过９５５９８发布","powerTime":"2020-03-21 16:07:05","powerComm":"已送电","subsNo":"","lineNo":"","tgNo":"","tgName":null,"infoStatus":"1","orgName":"保定供电公司","typeName":null,"infoStatusName":null,"dateDay":null,"orgNos":null,"nowTime":null,"countyName":null,"streetName":null,"villageName":null,"roadName":null,"communityName":null,"tranName":null,"sdLineName":null,"cityCode":"13406","cityName":"保定供电公司","provinceCode":null,"stopTime":"2020-03-21 16:30:00","powerType":"全部","powerOffArea":"【单台区停电】停C316柱上变压器","powerOffReason":"【停电原因】由于低压保险片烧导致１０ＫＶ大阳变电站５３５线路Ｃ３１６公变台区停电【变更送电】无【发布渠道】通过９５５９８发布","powerOffId":"2020032121000002"},{"poweroffId":2020032113000115,"sgpoweroffId":null,"subsName":"","lineName":"10kV547刘村线","pubTranName":"刘村农排11台区【纯农排变】,随东综合14台区,刘村农排17台区【纯农排变】,随东农排11台区【纯农排变】,随东综合2台区,刘村农排13台区【纯农排变】,随东农排4台区【纯农排变】,刘村农排4台区【纯农排变】,随东综合13台区,随东农排2台区【纯农排变】,刘村综合2台区,刘村农排19台区【纯农排变】,随东综合6台区,随东综合9台区,随东综合15台区,随东农排17台区【纯农排变】,刘村综合3台区,刘村综合5台区,随东农排15台区【纯农排变】,随东综合8台区,随东综合5台区,刘村综合12台区,刘村农排18台区【纯农排变】,随东综合12台区,随东农排8台区【纯农排变】,刘村农排22台区【纯农排变】,刘村农排16台区【纯农排变】,随东农排19台区【纯农排变】,刘村综合8台区,刘村综合11台区,刘村农排15台区【纯农排变】,随东农排14台区【纯农排变】,随东综合10台区,刘村综合10台区,刘村农排7台区【纯农排变】,刘村综合1台区,刘村综合4台区,随东农排7台区【纯农排变】,随东农排9台区【纯农排变】,刘村综合14台区,随东综合11台区,随东综合3台区,随东综合4台区,刘村农排3台区【纯农排变】,随东综合7台区,随东农排5台区【纯农排变】,随东农排16台区【纯农排变】,刘村综合15台区,刘村综合7台区,刘村农排12台区【纯农排变】,随东农排12台区【纯农排变】,随东农排18台区【纯农排变】,随东农排13台区【纯农排变】,刘村农排10台区【纯农排变】,随东综合1台区,刘村综合6台区,刘村农排21台区【纯农排变】,","scope":"【影响街道/乡镇】蠡吾镇【高危重要客户】无【影响客户】随东村","startTime":"2020-03-21 15:30:00","stopDate":"2020-03-21 19:00:00","orgNo":"1340616","typeCode":"其他临时停电","poweroffArea":"【分支停电】停随东综合14台区,随东综合6台区,刘村综合5台区,刘村综合1台区,随东综合7台区,随东综合12台区,随东农排11台区【纯农排变】,随东农排1台区【纯农排变】,随东综合13台区,随东综合15台区,随东综合8台区,随东综合11台区,随东农排14台区【纯农排变】,随东农排13台区【纯农排变】,随东农排7台区【纯农排变】,随东农排12台区【纯农排变】,随东农排5台区【纯农排变】,随东农排4台区【纯农排变】,随东农排6台区【纯农排变】,随东综合9台区,随东综合10台区,随东农排19台区【纯农排变】,随东农排2台区【纯农排变】,随东农排8台区【纯农排变】,随东农排15台区【纯农排变】,随东农排17台区【纯农排变】,随东综合5台区,随东综合3台区,随东综合2台区,随东综合1台区,随东农排9台区【纯农排变】,随东农排18台区【纯农排变】,随东农排16台区【纯农排变】,随东综合4台区,刘村综合15台区,刘村综合10台区,刘村农排1台区【纯农排变】,刘村综合2台区,刘村综合8台区,刘村综合11台区,刘村综合4台区,刘村综合3台区,刘村综合12台区,刘村农排13台区【纯农排变】,刘村农排21台区【纯农排变】,刘村综合14台区,刘村综合6台区,刘村农排2台区【纯农排变】,刘村农排3台区【纯农排变】,刘村综合7台区,刘村农排5台区【纯农排变】,刘村农排7台区【纯农排变】,刘村农排10台区【纯农排变】,刘村农排19台区【纯农排变】,刘村农排22台区【纯农排变】,刘村农排6台区【纯农排变】,刘村农排17台区【纯农排变】,刘村农排18台区【纯农排变】,刘村农排8台区【纯农排变】,刘村农排11台区【纯农排变】,刘村农排14台区【纯农排变】,刘村农排20台区【纯农排变】,刘村农排16台区【纯农排变】,刘村农排4台区【纯农排变】,刘村农排15台区【纯农排变】,刘村农排12台区【纯农排变】,刘村农排9台区【纯农排变】","poweroffReason":"【停电原因】由于线路严重缺陷，需停电进行紧急消缺导致１１０ＫＶ中滑变电站１０ＫＶ刘村５４７线路７９号杆０６号开关以下停电【变更送电】因抢修进度加快原因，送电时间由２３：００变更为１９：００【发布渠道】通过９５５９８发布","powerTime":"2020-03-21 18:25:02","powerComm":"已送电","subsNo":"","lineNo":"","tgNo":"","tgName":null,"infoStatus":"1","orgName":"国网蠡县供电公司","typeName":null,"infoStatusName":null,"dateDay":null,"orgNos":null,"nowTime":null,"countyName":null,"streetName":null,"villageName":null,"roadName":null,"communityName":null,"tranName":null,"sdLineName":null,"cityCode":"1340616","cityName":"国网蠡县供电公司","provinceCode":null,"stopTime":"2020-03-21 19:00:00","powerType":"全部","powerOffArea":"【分支停电】停随东综合14台区,随东综合6台区,刘村综合5台区,刘村综合1台区,随东综合7台区,随东综合12台区,随东农排11台区【纯农排变】,随东农排1台区【纯农排变】,随东综合13台区,随东综合15台区,随东综合8台区,随东综合11台区,随东农排14台区【纯农排变】,随东农排13台区【纯农排变】,随东农排7台区【纯农排变】,随东农排12台区【纯农排变】,随东农排5台区【纯农排变】,随东农排4台区【纯农排变】,随东农排6台区【纯农排变】,随东综合9台区,随东综合10台区,随东农排19台区【纯农排变】,随东农排2台区【纯农排变】,随东农排8台区【纯农排变】,随东农排15台区【纯农排变】,随东农排17台区【纯农排变】,随东综合5台区,随东综合3台区,随东综合2台区,随东综合1台区,随东农排9台区【纯农排变】,随东农排18台区【纯农排变】,随东农排16台区【纯农排变】,随东综合4台区,刘村综合15台区,刘村综合10台区,刘村农排1台区【纯农排变】,刘村综合2台区,刘村综合8台区,刘村综合11台区,刘村综合4台区,刘村综合3台区,刘村综合12台区,刘村农排13台区【纯农排变】,刘村农排21台区【纯农排变】,刘村综合14台区,刘村综合6台区,刘村农排2台区【纯农排变】,刘村农排3台区【纯农排变】,刘村综合7台区,刘村农排5台区【纯农排变】,刘村农排7台区【纯农排变】,刘村农排10台区【纯农排变】,刘村农排19台区【纯农排变】,刘村农排22台区【纯农排变】,刘村农排6台区【纯农排变】,刘村农排17台区【纯农排变】,刘村农排18台区【纯农排变】,刘村农排8台区【纯农排变】,刘村农排11台区【纯农排变】,刘村农排14台区【纯农排变】,刘村农排20台区【纯农排变】,刘村农排16台区【纯农排变】,刘村农排4台区【纯农排变】,刘村农排15台区【纯农排变】,刘村农排12台区【纯农排变】,刘村农排9台区【纯农排变】","powerOffReason":"【停电原因】由于线路严重缺陷，需停电进行紧急消缺导致１１０ＫＶ中滑变电站１０ＫＶ刘村５４７线路７９号杆０６号开关以下停电【变更送电】因抢修进度加快原因，送电时间由２３：００变更为１９：００【发布渠道】通过９５５９８发布","powerOffId":"2020032113000115"},{"poweroffId":2020032113000105,"sgpoweroffId":null,"subsName":"","lineName":"10kV512野陈佐线","pubTranName":"野陈佐综合4台区,野陈佐综合10台区,西保去综合5台区,西鲍墟综合6台区,野陈佐农排11台区【纯农排变】,北保去农排3台区【纯农排变】,野陈佐综合5台区,南保去综合3台区,北保去综合1台区,南鲍墟综合7台区,西保去综合1台区,西保去综合4台区,东保去综合1台区,西保去农排4台区【纯农排变】,西鲍墟综合7台区,野陈佐综合7台区,北鲍墟综合4台区,野陈佐农排1台区【纯农排变】,北鲍墟综合6台区,南鲍墟综合8台区,北鲍墟综合8台区,南鲍墟综合5台区,北保去综合2台区,野陈佐农排3台区【纯农排变】,野陈佐综合6台区,西保去综合3台区,北鲍墟综合5台区,北鲍墟综合7台区,野陈佐综合9台区,东保去综合2台区,野陈佐农排2台区【纯农排变】,东鲍墟综合6台区,东保去农排3台区【纯农排变】,野陈佐综合2台区,北保去农排2台区【纯农排变】,野陈佐农排9台区【纯农排变】,北鲍墟综合9台区,东保去综合4台区,野陈佐综合8台区,北保去农排6台区【纯农排变】,南鲍墟综合9台区,西鲍墟综合8台区,野陈佐综合1台区,南鲍墟综合4台区,北保去综合3台区,南保去综合1台区,东鲍墟综合5台区,野陈佐综合3台区,西保去综合2台区,南保去综合2台区,北保去农排10台区【纯农排变】,东保去综合3台区,东鲍墟综合7台区,南鲍墟综合6台区,","scope":"【影响街道/乡镇】鲍墟乡【高危重要客户】无【影响客户】野陈佐村、东鲍墟村、北鲍墟村、西鲍墟村、南鲍墟村","startTime":"2020-03-21 12:10:00","stopDate":"2020-03-21 14:30:00","orgNo":"1340616","typeCode":"电网故障停限电","poweroffArea":"【全线路停电】停文瑞,南鲍墟综合4台区,野陈佐农排6台区【纯农排变】,南保去农排5台区【纯农排变】,北保去综合3台区,北保去农排5台区【纯农排变】,西保去综合4台区,野陈佐综合3台区,西鲍墟综合7台区,西保去农排1台区【纯农排变】,北保去农排7台区【纯农排变】,北鲍墟综合8台区,南保去综合1台区,野陈佐农排8台区【纯农排变】,西鲍墟综合6台区,西鲍墟综合8台区,东保去农排4台区【纯农排变】,野陈佐农排11台区【纯农排变】,中学农场,进托,南保去农排6台区【纯农排变】,南鲍墟综合7台区,野陈佐农排9台区【纯农排变】,野陈佐综合1台区,西保去综合1台区,瑞兴宏景变压器500,北保去农排9台区【纯农排变】,南保去综合2台区,西保去综合2台区,养牛厂,西保去综合5台区,小杰,保去社办厂,中学农场大变压器,北鲍墟综合7台区,南保去农排7台区【纯农排变】,南保去综合3台区,保去中学变压器,野陈佐农排4台区【纯农排变】,野陈佐农排1台区【纯农排变】,野陈佐综合2台区,南鲍墟综合6台区,北鲍墟综合4台区,北保去农排6台区【纯农排变】,北鲍墟综合6台区,北保去农排8台区【纯农排变】,东保去农排1台区【纯农排变】,野陈佐综合5台区,南保去农排2台区【纯农排变】,东保去农排6台区【纯农排变】,野陈佐农排2台区【纯农排变】,西保去农排4台区【纯农排变】,北鲍墟综合5台区,西保去农排3台区【纯农排变】,北保去综合2台区,北保去农排1台区【纯农排变】,蠡县春梅芦笋农民专业合作社,野陈佐综合9台区,蠡县淑亮狐饲料农民专业合作社,北保去综合1台区,西保去综合3台区,野陈佐综合10台区,野陈佐农排10台区【纯农排变】,东保去综合4台区,南保去农排1台区【纯农排变】,东鲍墟综合7台区,南保去农排4台区【纯农排变】,北鲍墟综合9台区,东保去综合3台区,野陈佐农排3台区【纯农排变】,野陈佐综合7台区,北保去农排2台区【纯农排变】,西保去农排7台区【纯农排变】,北保去农排10台区【纯农排变】,南鲍墟综合9台区,东保去农排5台区【纯农排变】,东保去综合1台区,南保红亮,瑞兴宏景变压器315,野陈佐综合4台区,北保去农排4台区【纯农排变】,东鲍墟综合6台区,北保去农排3台区【纯农排变】,西保去农排2台区【纯农排变】,东保去农排2台区【纯农排变】,西保去农排5台区【纯农排变】,野陈佐农排7台区【纯农排变】,南保去农排3台区【纯农排变】,野陈佐农排5台区【纯农排变】,野陈佐综合8台区,西保农排6台区【纯农排变】,蠡县亿帮洁日化有限公司,南鲍墟综合5台区,东保去农排3台区【纯农排变】,野陈佐综合6台区,南鲍墟综合8台区,东鲍墟综合5台区,东保去综合2台区","poweroffReason":"【停电原因】由于站内开关掉闸导致３５ＫＶ鲍墟变电站１０ＫＶ野陈佐５１２线路全线停电【变更送电】因抢修进度加快原因，送电时间由２３：００变更为１４：３０【发布渠道】通过９５５９８发布","powerTime":"2020-03-21 14:05:56","powerComm":"已送电","subsNo":"","lineNo":"","tgNo":"","tgName":null,"infoStatus":"1","orgName":"国网蠡县供电公司","typeName":null,"infoStatusName":null,"dateDay":null,"orgNos":null,"nowTime":null,"countyName":null,"streetName":null,"villageName":null,"roadName":null,"communityName":null,"tranName":null,"sdLineName":null,"cityCode":"1340616","cityName":"国网蠡县供电公司","provinceCode":null,"stopTime":"2020-03-21 14:30:00","powerType":"全部","powerOffArea":"【全线路停电】停文瑞,南鲍墟综合4台区,野陈佐农排6台区【纯农排变】,南保去农排5台区【纯农排变】,北保去综合3台区,北保去农排5台区【纯农排变】,西保去综合4台区,野陈佐综合3台区,西鲍墟综合7台区,西保去农排1台区【纯农排变】,北保去农排7台区【纯农排变】,北鲍墟综合8台区,南保去综合1台区,野陈佐农排8台区【纯农排变】,西鲍墟综合6台区,西鲍墟综合8台区,东保去农排4台区【纯农排变】,野陈佐农排11台区【纯农排变】,中学农场,进托,南保去农排6台区【纯农排变】,南鲍墟综合7台区,野陈佐农排9台区【纯农排变】,野陈佐综合1台区,西保去综合1台区,瑞兴宏景变压器500,北保去农排9台区【纯农排变】,南保去综合2台区,西保去综合2台区,养牛厂,西保去综合5台区,小杰,保去社办厂,中学农场大变压器,北鲍墟综合7台区,南保去农排7台区【纯农排变】,南保去综合3台区,保去中学变压器,野陈佐农排4台区【纯农排变】,野陈佐农排1台区【纯农排变】,野陈佐综合2台区,南鲍墟综合6台区,北鲍墟综合4台区,北保去农排6台区【纯农排变】,北鲍墟综合6台区,北保去农排8台区【纯农排变】,东保去农排1台区【纯农排变】,野陈佐综合5台区,南保去农排2台区【纯农排变】,东保去农排6台区【纯农排变】,野陈佐农排2台区【纯农排变】,西保去农排4台区【纯农排变】,北鲍墟综合5台区,西保去农排3台区【纯农排变】,北保去综合2台区,北保去农排1台区【纯农排变】,蠡县春梅芦笋农民专业合作社,野陈佐综合9台区,蠡县淑亮狐饲料农民专业合作社,北保去综合1台区,西保去综合3台区,野陈佐综合10台区,野陈佐农排10台区【纯农排变】,东保去综合4台区,南保去农排1台区【纯农排变】,东鲍墟综合7台区,南保去农排4台区【纯农排变】,北鲍墟综合9台区,东保去综合3台区,野陈佐农排3台区【纯农排变】,野陈佐综合7台区,北保去农排2台区【纯农排变】,西保去农排7台区【纯农排变】,北保去农排10台区【纯农排变】,南鲍墟综合9台区,东保去农排5台区【纯农排变】,东保去综合1台区,南保红亮,瑞兴宏景变压器315,野陈佐综合4台区,北保去农排4台区【纯农排变】,东鲍墟综合6台区,北保去农排3台区【纯农排变】,西保去农排2台区【纯农排变】,东保去农排2台区【纯农排变】,西保去农排5台区【纯农排变】,野陈佐农排7台区【纯农排变】,南保去农排3台区【纯农排变】,野陈佐农排5台区【纯农排变】,野陈佐综合8台区,西保农排6台区【纯农排变】,蠡县亿帮洁日化有限公司,南鲍墟综合5台区,东保去农排3台区【纯农排变】,野陈佐综合6台区,南鲍墟综合8台区,东鲍墟综合5台区,东保去综合2台区","powerOffReason":"【停电原因】由于站内开关掉闸导致３５ＫＶ鲍墟变电站１０ＫＶ野陈佐５１２线路全线停电【变更送电】因抢修进度加快原因，送电时间由２３：００变更为１４：３０【发布渠道】通过９５５９８发布","powerOffId":"2020032113000105"},{"poweroffId":2020032113000087,"sgpoweroffId":null,"subsName":"","lineName":"北幸线571","pubTranName":"石象光11【2018年节能变】,新石象光6,石像光10变压器,坊上排4【纯农排变】,坊上光5,南幸排10【纯农排变】,南幸排11【纯农排变】,北幸排 14【纯农排变】,石像光12,石象排19【纯农排变】,坊上光3,南幸排16【纯农排变】,北幸光13,北幸光11,南幸排8【纯农排变】,北幸光11【2018年重过载】,石像光7,石像光3,南幸排9【纯农排变】,坊上光1,石像光11,北幸光5,南幸排15【纯农排变】,北幸光3,石象光4变压器【2018年第二批应急工程】,石像光2,北幸光8,石象光1【2018年重过载】,石像光5,北幸光10,石像光10,石像光9,石像光8,石像光4,坊上光4,北幸光15,","scope":"【影响街道/乡镇】贤寓镇、北河镇 【高危重要客户】无 【影响客户】坊上、康城农产品开发公司、恒昌面粉厂、北幸面粉厂、西肖村砖厂、恒利砖厂、西肖村部分用户、石象部分用户、北幸小学、北幸部分用户、南幸部分用户、南幸小学、石象小学","startTime":"2020-03-21 10:58:39","stopDate":"2020-03-21 12:00:00","orgNo":"1340609","typeCode":"电网故障停限电","poweroffArea":"【全线路停电】停石像光9,0583162212-定兴县三禾农业有限公司-专变-124857129-变压器,坊上排2【纯农排变】,0583162212-定兴县三禾农业有限公司-专变-127871667-三禾农业315变压器,南幸排8【纯农排变】,北幸光11【2018年重过载】,石像光3,北幸排 14【纯农排变】,南幸排10【纯农排变】,南幸排11【纯农排变】,北幸排13【纯农排变】,北幸面粉厂1,0469297036-北幸村(混)-专变-46772374-北幸村(混),石象排19【纯农排变】,北幸光13,西肖村排6【纯农排变】,北幸光15,北幸小学-250,石像光10,坊上排3【纯农排变】,坊上排1【纯农排变】,康城农业合作社-400,石像光8,康城农业合作社-315,石像排12【纯农排变】,北幸光3,石像光2,石象光1【2018年重过载】,石象光11【2018年节能变】,坊上光5,肖村排1【纯农排变】,石像光12,石像排8【纯农排变】,*北幸面粉厂2,南幸排16【纯农排变】,北幸光11,石像排2【纯农排变】,石像光7,石像排9【纯农排变】,北幸光5,石像排7【纯农排变】,石像光4,坊上光4,石像排1【纯农排变】,南幸排9【纯农排变】,坊上光1,北幸排18【纯农排变】,石像光11,南幸排15【纯农排变】,石像排13【纯农排变】,0696770049-定兴县三连幼儿园-专变-240815702-160,北幸排12【纯农排变】,坊上光3,北幸光10,北幸排17【纯农排变】,坊上光2,康城农产品开发公司,石象光4变压器【2018年第二批应急工程】,北幸光8,石像中心小学-400,石像光5,北幸排11【纯农排变】,北幸光4,石像排11【纯农排变】,新石象光6,石像光10变压器,坊上排4【纯农排变】","poweroffReason":"【停电原因】由于石象大棚分支２号杆至３号杆断线导致１１０ＫＶ贤寓变电站北幸线５７１线路全线停电 【变更送电】因抢修进度加快原因，送电时间由１６：００变更为１２：００ 【发布渠道】通过９５５９８发布","powerTime":"2020-03-21 11:34:43","powerComm":"已送电","subsNo":"","lineNo":"","tgNo":"","tgName":null,"infoStatus":"1","orgName":"国网定兴县供电公司","typeName":null,"infoStatusName":null,"dateDay":null,"orgNos":null,"nowTime":null,"countyName":null,"streetName":null,"villageName":null,"roadName":null,"communityName":null,"tranName":null,"sdLineName":null,"cityCode":"1340609","cityName":"国网定兴县供电公司","provinceCode":null,"stopTime":"2020-03-21 12:00:00","powerType":"全部","powerOffArea":"【全线路停电】停石像光9,0583162212-定兴县三禾农业有限公司-专变-124857129-变压器,坊上排2【纯农排变】,0583162212-定兴县三禾农业有限公司-专变-127871667-三禾农业315变压器,南幸排8【纯农排变】,北幸光11【2018年重过载】,石像光3,北幸排 14【纯农排变】,南幸排10【纯农排变】,南幸排11【纯农排变】,北幸排13【纯农排变】,北幸面粉厂1,0469297036-北幸村(混)-专变-46772374-北幸村(混),石象排19【纯农排变】,北幸光13,西肖村排6【纯农排变】,北幸光15,北幸小学-250,石像光10,坊上排3【纯农排变】,坊上排1【纯农排变】,康城农业合作社-400,石像光8,康城农业合作社-315,石像排12【纯农排变】,北幸光3,石像光2,石象光1【2018年重过载】,石象光11【2018年节能变】,坊上光5,肖村排1【纯农排变】,石像光12,石像排8【纯农排变】,*北幸面粉厂2,南幸排16【纯农排变】,北幸光11,石像排2【纯农排变】,石像光7,石像排9【纯农排变】,北幸光5,石像排7【纯农排变】,石像光4,坊上光4,石像排1【纯农排变】,南幸排9【纯农排变】,坊上光1,北幸排18【纯农排变】,石像光11,南幸排15【纯农排变】,石像排13【纯农排变】,0696770049-定兴县三连幼儿园-专变-240815702-160,北幸排12【纯农排变】,坊上光3,北幸光10,北幸排17【纯农排变】,坊上光2,康城农产品开发公司,石象光4变压器【2018年第二批应急工程】,北幸光8,石像中心小学-400,石像光5,北幸排11【纯农排变】,北幸光4,石像排11【纯农排变】,新石象光6,石像光10变压器,坊上排4【纯农排变】","powerOffReason":"【停电原因】由于石象大棚分支２号杆至３号杆断线导致１１０ＫＶ贤寓变电站北幸线５７１线路全线停电 【变更送电】因抢修进度加快原因，送电时间由１６：００变更为１２：００ 【发布渠道】通过９５５９８发布","powerOffId":"2020032113000087"},{"poweroffId":2020032113000068,"sgpoweroffId":null,"subsName":"","lineName":"三里线525","pubTranName":"北河市场（车站）光3,红树营排4【纯农排变】,中国网通（集团）有限公司定兴县分公司,红树营排3【纯农排变】,三禾农业315变压器,北河市场光2,100,北河市场光4,西刘庄光5,东刘庄光6变压器【煤改电】,变压器,新华养殖场,北河市场光5,0469298505-柳卓板厂-专变-46772360-*柳卓板厂,东刘庄排1【纯农排变】,东刘庄光4【煤改电】,东刘庄光1变压器【煤改电】,*定兴县殡仪馆,*64加油站,西刘庄光2,*定兴安泰恒信新型保温材料厂,西刘庄排4【纯农排变】,200,红树营排5-2【纯农排变】,西刘庄光1,东刘庄光2【煤改电】,北河市场光6,西刘庄排1【纯农排变】,西刘庄排3【纯农排变】,西刘庄光3,红树营排6【纯农排变】,红树营南,西刘庄排2【纯农排变】,北幸村(混),东刘庄排2【纯农排变】,东刘庄光3【煤改电】,东刘庄光7【煤改电】,东刘庄光5【煤改电】,中国移动通信集团河北有限公司保定分公司,宏庚环保-250,*北河执法区,东刘庄大棚,西刘庄光4,","scope":"【影响街道/乡镇】北河镇、柳卓乡 【高危重要客户】无 【影响客户】西刘庄、东刘庄、红树营、６４加油站、柳卓板厂、殡仪馆、北河粮库、北河市场、北河车站、三禾农业","startTime":"2020-03-21 10:23:05","stopDate":"2020-03-21 12:00:00","orgNo":"1340609","typeCode":"电网故障停限电","poweroffArea":"【全线路停电】停东刘庄光4【煤改电】,西刘庄排3【纯农排变】,东刘庄光6变压器【煤改电】,*北河执法区,变压器,100,*64加油站,西刘庄排1【纯农排变】,西刘庄光2,*定兴县殡仪馆,东刘庄光2【煤改电】,红树营排4【纯农排变】,北河市场光6,中国网通（集团）有限公司定兴县分公司,红树营排3【纯农排变】,三禾农业315变压器,北河市场光2,中国移动通信集团河北有限公司保定分公司,红树营排5-2【纯农排变】,宏庚环保-250,西刘庄光1,北河市场（车站）光3,西刘庄光5,红树营南,西刘庄光3,东刘庄大棚,北幸村(混),*定兴安泰恒信新型保温材料厂,北河市场光5,北河市场光4,红树营排6【纯农排变】,200,东刘庄排2【纯农排变】,新华养殖场,东刘庄光5【煤改电】,东刘庄排1【纯农排变】,东刘庄光3【煤改电】,东刘庄光7【煤改电】,西刘庄排2【纯农排变】,西刘庄排4【纯农排变】,西刘庄光4,0469298505-柳卓板厂-专变-46772360-*柳卓板厂,东刘庄光1变压器【煤改电】","poweroffReason":"【停电原因】由于火葬场分支１号杆电缆外力破坏导致１１０ＫＶ北河变电站三里线５２５线路全线停电 【变更送电】因抢修进度加快原因，送电时间由１８：００变更为１２：００ 【发布渠道】通过９５５９８发布","powerTime":"2020-03-21 11:05:42","powerComm":"已送电","subsNo":"","lineNo":"","tgNo":"","tgName":null,"infoStatus":"1","orgName":"国网定兴县供电公司","typeName":null,"infoStatusName":null,"dateDay":null,"orgNos":null,"nowTime":null,"countyName":null,"streetName":null,"villageName":null,"roadName":null,"communityName":null,"tranName":null,"sdLineName":null,"cityCode":"1340609","cityName":"国网定兴县供电公司","provinceCode":null,"stopTime":"2020-03-21 12:00:00","powerType":"全部","powerOffArea":"【全线路停电】停东刘庄光4【煤改电】,西刘庄排3【纯农排变】,东刘庄光6变压器【煤改电】,*北河执法区,变压器,100,*64加油站,西刘庄排1【纯农排变】,西刘庄光2,*定兴县殡仪馆,东刘庄光2【煤改电】,红树营排4【纯农排变】,北河市场光6,中国网通（集团）有限公司定兴县分公司,红树营排3【纯农排变】,三禾农业315变压器,北河市场光2,中国移动通信集团河北有限公司保定分公司,红树营排5-2【纯农排变】,宏庚环保-250,西刘庄光1,北河市场（车站）光3,西刘庄光5,红树营南,西刘庄光3,东刘庄大棚,北幸村(混),*定兴安泰恒信新型保温材料厂,北河市场光5,北河市场光4,红树营排6【纯农排变】,200,东刘庄排2【纯农排变】,新华养殖场,东刘庄光5【煤改电】,东刘庄排1【纯农排变】,东刘庄光3【煤改电】,东刘庄光7【煤改电】,西刘庄排2【纯农排变】,西刘庄排4【纯农排变】,西刘庄光4,0469298505-柳卓板厂-专变-46772360-*柳卓板厂,东刘庄光1变压器【煤改电】","powerOffReason":"【停电原因】由于火葬场分支１号杆电缆外力破坏导致１１０ＫＶ北河变电站三里线５２５线路全线停电 【变更送电】因抢修进度加快原因，送电时间由１８：００变更为１２：００ 【发布渠道】通过９５５９８发布","powerOffId":"2020032113000068"},{"poweroffId":2020032113000057,"sgpoweroffId":null,"subsName":"","lineName":"西良淀线536","pubTranName":"西良淀村南综合变压器,石庄鸡场新增,西良淀综合变压器,齐王庄综合变压器,西淀大队20综合变压器,齐王庄村东新增综合变压器,西良淀鸡场新增,西良淀村东新增综合变压器,齐王庄村里新增综合变压器,","scope":"【影响街道/乡镇】龙化乡 【高危重要客户】无 【影响客户】西良淀、齐王庄","startTime":"2020-03-21 10:02:00","stopDate":"2020-03-21 20:00:00","orgNo":"1340613","typeCode":"电网故障停限电","poweroffArea":"【全线路停电】停石庄3号农排变压器【纯农排变】,石庄2号农排变压器【纯农排变】,西良淀村东22农业变压器【纯农排变】,西淀大队20综合变压器,石庄1号农排变压器【纯农排变】,齐王庄村东农排变压器【纯农排变】,西良淀村南综合变压器,石庄(西北),西良淀村西21农业变压器【纯农排变】,石庄鸡场新增,中国石油集团渤海钻探工程有限公司第五钻井工程分公司,旧城9#农排变压器【纯农排变】,西良淀西南127综合变压器【纯农排变】,西良淀综合变压器,石庄4号农排变压器【纯农排变】,齐王庄综合变压器,石庄王宝昌,石庄(河套北横),石庄5号农排变压器【纯农排变】,齐王庄村东新增综合变压器,开锋管厂,石庄大队,旧城浇地,齐王庄村南农排变压器【纯农排变】,石庄7号农排变压器【纯农排变】,石庄(齐庄南),西良淀鸡场新增,高阳县宝山塑料厂变压器,西良淀村东新增综合变压器,西良淀东北126农业变压器【纯农排变】,石庄(河套北井),宫劲松,王文杰,齐王庄村里新增综合变压器,王青,王普","poweroffReason":"【停电原因】由于汽车撞杆导致１１０ＫＶ旧城变电站西良淀５３６线路全线停电【变更送电】无【发布渠道】通过９５５９８发布","powerTime":"2020-03-21 13:32:21","powerComm":"已送电","subsNo":"","lineNo":"","tgNo":"","tgName":null,"infoStatus":"1","orgName":"国网高阳县供电公司","typeName":null,"infoStatusName":null,"dateDay":null,"orgNos":null,"nowTime":null,"countyName":null,"streetName":null,"villageName":null,"roadName":null,"communityName":null,"tranName":null,"sdLineName":null,"cityCode":"1340613","cityName":"国网高阳县供电公司","provinceCode":null,"stopTime":"2020-03-21 20:00:00","powerType":"全部","powerOffArea":"【全线路停电】停石庄3号农排变压器【纯农排变】,石庄2号农排变压器【纯农排变】,西良淀村东22农业变压器【纯农排变】,西淀大队20综合变压器,石庄1号农排变压器【纯农排变】,齐王庄村东农排变压器【纯农排变】,西良淀村南综合变压器,石庄(西北),西良淀村西21农业变压器【纯农排变】,石庄鸡场新增,中国石油集团渤海钻探工程有限公司第五钻井工程分公司,旧城9#农排变压器【纯农排变】,西良淀西南127综合变压器【纯农排变】,西良淀综合变压器,石庄4号农排变压器【纯农排变】,齐王庄综合变压器,石庄王宝昌,石庄(河套北横),石庄5号农排变压器【纯农排变】,齐王庄村东新增综合变压器,开锋管厂,石庄大队,旧城浇地,齐王庄村南农排变压器【纯农排变】,石庄7号农排变压器【纯农排变】,石庄(齐庄南),西良淀鸡场新增,高阳县宝山塑料厂变压器,西良淀村东新增综合变压器,西良淀东北126农业变压器【纯农排变】,石庄(河套北井),宫劲松,王文杰,齐王庄村里新增综合变压器,王青,王普","powerOffReason":"【停电原因】由于汽车撞杆导致１１０ＫＶ旧城变电站西良淀５３６线路全线停电【变更送电】无【发布渠道】通过９５５９８发布","powerOffId":"2020032113000057"},{"poweroffId":2020032113000039,"sgpoweroffId":null,"subsName":"","lineName":"韩村线513","pubTranName":"南召光5,韩村光6,韩村光7,新尤旺光5【2019年预安排】,皂马排4【纯农排变】,韩村光9,北田混7,新大佟村光1【2018年秋冬季重过载】,新北田光1,南召光3,尤旺光3【2018年节能变】,尤旺光1【2018年重过载】,佟高庄光10,杨村排4【纯农排变】,韩村排1【纯农排变】,王官光4,韩村光3,韩村光4,新佟高庄村光8,北田光7,韩村光1,新章村排5【纯农排变】,新大佟村光3【2019年预安排】,榆林光3,榆林光8【2018年秋冬季重过载】,新佟高庄村光9,南召光4,大佟村光7【2018年四批补强】,韩村光5,新佟高庄光5,新北田光6【2019年预安排】,新佟高庄光1,杨村排6【纯农排变】,新佟高庄光7,曹村光3,新北田光3【2019年预安排】,南召光2,榆林光4,大佟村光4,新榆林光1,佟北庄光1,新王官排2【纯农排变】,新榆林光2,新韩村光2,皂马光1【2018年技改】,大佟村光2,皂马光6,皂马光3,新佟高庄光6,新佟高庄光4,尤旺光4,杨村排3【纯农排变】,皂马大棚排1【纯农排变】,新大佟村光2【2018年重过载】,曹村光8,佟北庄光3,佟高庄大棚排1【纯农排变】,曹村光5【2018年节能变】,曹村光4,新佟高庄光2,曹村光5,王官光1,大佟村光6,尤旺光2【2018年四批补强】,新王官排3【纯农排变】,尤旺光3,曹村光4【2018年四批补强】,韩村光8,农排鸡厂【纯农排变】,章村光6,新佟高庄光3,","scope":"【影响街道/乡镇】北田乡 【高危重要客户】无 【影响客户】东韩村、章村、曹村、榆林、北田、南召、大佟村、佟北庄、尤旺、佟高庄、王官、皂马","startTime":"2020-03-21 09:28:26","stopDate":"2020-03-21 11:00:00","orgNo":"1340609","typeCode":"电网故障停限电","poweroffArea":"【全线路停电】停新北田光3【2019年预安排】,曹村光1,新佟高庄光1,曹村排3【纯农排变】,章村光2,大佟村排2【纯农排变】,杨村排6【纯农排变】,皂马光1,榆林混1,新佟高庄光7,曹村光3,会军建材城,新榆林光1,榆林排5【纯农排变】,南召光3,曹村排7【纯农排变】,尤旺排5【纯农排变】,章村光4,尤旺光3【2018年节能变】,大佟村排4【纯农排变】,韩村排2【纯农排变】,曹村排8【纯农排变】,尤旺排6【纯农排变】,王官光4,0694616378-定兴县北田乡章村小学-专变-237547951-章村小学,皂马光3,新佟高庄光6,曹村光5,章村农排7【纯农排变】,韩村排5【纯农排变】,王官光1,大佟村光6,新尤旺光5【2019年预安排】,尤旺排2【纯农排变】,曹村排6【纯农排变】,王官排4 1【纯农排变】,曹村光2,韩村光9,北田混7,尤旺光1【2018年重过载】,佟高庄光10,韩村排3【纯农排变】,榆林排4【纯农排变】,杨村排4【纯农排变】,尤旺排1【纯农排变】,韩村排1【纯农排变】,大佟村排5【纯农排变】,尤旺光2【2018年四批补强】,新王官排3【纯农排变】,南召排2【纯农排变】,王官光3,尤旺光3,北田排3【纯农排变】,曹村光4【2018年四批补强】,佟北庄排3【纯农排变】,韩村光8,皂马排1【纯农排变】,北田光5,曹村面,榆林排2【纯农排变】,0469291487-*北田小学-专变-46771861-*北田小学,北田排2【纯农排变】,大佟村排1【纯农排变】,佟高庄排7|09105132075【纯农排变】,新北田光6【2019年预安排】,北田排5【纯农排变】,新榆林光2,新韩村光2,佟北庄光2,王官光2,南召光2,韩村排4【纯农排变】,榆林光4,大佟村光4,章村排1【纯农排变】,章村农排3【纯农排变】,新大佟村光2【2018年重过载】,皂马混2,杨村排2【纯农排变】,大佟村光5,章村排2【纯农排变】,榆林光6,榆林光7,佟北庄光1,皂马光5,北田排4【纯农排变】,新王官排2【纯农排变】,章村光6,新佟高庄光3,杨保安,榆林排3【纯农排变】,农排鸡厂【纯农排变】,章村农排5【纯农排变】,新佟高庄光5,佟北庄排1【纯农排变】,尤旺排4【纯农排变】,韩村光3,曹村排4【纯农排变】,章村农排6【纯农排变】,韩村光4,新佟高庄村光8,北田光7,新北田光2【2018年一批应急】,韩村光1,韩村村排6【纯农排变】,佟高庄排3【纯农排变】,新章村排5【纯农排变】,章村光3,尤旺光2,榆林小学,新大佟村光3【2019年预安排】,100,佟高庄排2【纯农排变】,南召河防,佟北庄排2【纯农排变】,榆林光3,曹村排2【纯农排变】,0694658277-定兴县北田中学-专变-237548824-北田中学2号便,曹村光6,榆林光8【2018年秋冬季重过载】,0694658277-定兴县北田中学-专变-237550411-北田中学1号便,新佟高庄村光9,北田农贸公用,北田排1【纯农排变】,南召光4,大佟村光7【2018年四批补强】,榆林光5,王官光5,佟高庄排6【纯农排变】,韩村光5,北田排6【纯农排变】,皂马排3【纯农排变】,韩村光6,韩村光7,大佟村中心小学,章村光1【2018年重过载】,新大佟村光1【2018年秋冬季重过载】,皂马光1【2018年技改】,北田光4,杨村排11【纯农排变】,新皂马光2,250KVA,大佟村光2,曹村排1【纯农排变】,南召排1【纯农排变】,皂马光6,新佟高庄光4,曹村排5【纯农排变】,曹村光7,尤旺光4,新北田光1,杨村排3【纯农排变】,皂马大棚排1【纯农排变】,南召光1,佟高庄排4【纯农排变】,北田学习-400,皂马排4【纯农排变】,北田乡春蕾小学,章村农排4【纯农排变】,南召光5,曹村光8,佟北庄光3,佟高庄大棚排1【纯农排变】,佟高庄排1【纯农排变】,王官光6,尤旺光6,曹村光5【2018年节能变】,佟高庄排5【纯农排变】,曹村光4,0696770270-定兴县北田小学-专变-240818269","poweroffReason":"【停电原因】由于榆林排２分支１号杆施工车辆碰线导致３５ＫＶ大留村变电站韩村线５１３线路全线停电 【变更送电】因抢修进度加快原因，送电时间由１４：００变更为１１：００ 【发布渠道】通过９５５９８发布","powerTime":"2020-03-21 10:21:21","powerComm":"已送电","subsNo":"","lineNo":"","tgNo":"","tgName":null,"infoStatus":"1","orgName":"国网定兴县供电公司","typeName":null,"infoStatusName":null,"dateDay":null,"orgNos":null,"nowTime":null,"countyName":null,"streetName":null,"villageName":null,"roadName":null,"communityName":null,"tranName":null,"sdLineName":null,"cityCode":"1340609","cityName":"国网定兴县供电公司","provinceCode":null,"stopTime":"2020-03-21 11:00:00","powerType":"全部","powerOffArea":"【全线路停电】停新北田光3【2019年预安排】,曹村光1,新佟高庄光1,曹村排3【纯农排变】,章村光2,大佟村排2【纯农排变】,杨村排6【纯农排变】,皂马光1,榆林混1,新佟高庄光7,曹村光3,会军建材城,新榆林光1,榆林排5【纯农排变】,南召光3,曹村排7【纯农排变】,尤旺排5【纯农排变】,章村光4,尤旺光3【2018年节能变】,大佟村排4【纯农排变】,韩村排2【纯农排变】,曹村排8【纯农排变】,尤旺排6【纯农排变】,王官光4,0694616378-定兴县北田乡章村小学-专变-237547951-章村小学,皂马光3,新佟高庄光6,曹村光5,章村农排7【纯农排变】,韩村排5【纯农排变】,王官光1,大佟村光6,新尤旺光5【2019年预安排】,尤旺排2【纯农排变】,曹村排6【纯农排变】,王官排4 1【纯农排变】,曹村光2,韩村光9,北田混7,尤旺光1【2018年重过载】,佟高庄光10,韩村排3【纯农排变】,榆林排4【纯农排变】,杨村排4【纯农排变】,尤旺排1【纯农排变】,韩村排1【纯农排变】,大佟村排5【纯农排变】,尤旺光2【2018年四批补强】,新王官排3【纯农排变】,南召排2【纯农排变】,王官光3,尤旺光3,北田排3【纯农排变】,曹村光4【2018年四批补强】,佟北庄排3【纯农排变】,韩村光8,皂马排1【纯农排变】,北田光5,曹村面,榆林排2【纯农排变】,0469291487-*北田小学-专变-46771861-*北田小学,北田排2【纯农排变】,大佟村排1【纯农排变】,佟高庄排7|09105132075【纯农排变】,新北田光6【2019年预安排】,北田排5【纯农排变】,新榆林光2,新韩村光2,佟北庄光2,王官光2,南召光2,韩村排4【纯农排变】,榆林光4,大佟村光4,章村排1【纯农排变】,章村农排3【纯农排变】,新大佟村光2【2018年重过载】,皂马混2,杨村排2【纯农排变】,大佟村光5,章村排2【纯农排变】,榆林光6,榆林光7,佟北庄光1,皂马光5,北田排4【纯农排变】,新王官排2【纯农排变】,章村光6,新佟高庄光3,杨保安,榆林排3【纯农排变】,农排鸡厂【纯农排变】,章村农排5【纯农排变】,新佟高庄光5,佟北庄排1【纯农排变】,尤旺排4【纯农排变】,韩村光3,曹村排4【纯农排变】,章村农排6【纯农排变】,韩村光4,新佟高庄村光8,北田光7,新北田光2【2018年一批应急】,韩村光1,韩村村排6【纯农排变】,佟高庄排3【纯农排变】,新章村排5【纯农排变】,章村光3,尤旺光2,榆林小学,新大佟村光3【2019年预安排】,100,佟高庄排2【纯农排变】,南召河防,佟北庄排2【纯农排变】,榆林光3,曹村排2【纯农排变】,0694658277-定兴县北田中学-专变-237548824-北田中学2号便,曹村光6,榆林光8【2018年秋冬季重过载】,0694658277-定兴县北田中学-专变-237550411-北田中学1号便,新佟高庄村光9,北田农贸公用,北田排1【纯农排变】,南召光4,大佟村光7【2018年四批补强】,榆林光5,王官光5,佟高庄排6【纯农排变】,韩村光5,北田排6【纯农排变】,皂马排3【纯农排变】,韩村光6,韩村光7,大佟村中心小学,章村光1【2018年重过载】,新大佟村光1【2018年秋冬季重过载】,皂马光1【2018年技改】,北田光4,杨村排11【纯农排变】,新皂马光2,250KVA,大佟村光2,曹村排1【纯农排变】,南召排1【纯农排变】,皂马光6,新佟高庄光4,曹村排5【纯农排变】,曹村光7,尤旺光4,新北田光1,杨村排3【纯农排变】,皂马大棚排1【纯农排变】,南召光1,佟高庄排4【纯农排变】,北田学习-400,皂马排4【纯农排变】,北田乡春蕾小学,章村农排4【纯农排变】,南召光5,曹村光8,佟北庄光3,佟高庄大棚排1【纯农排变】,佟高庄排1【纯农排变】,王官光6,尤旺光6,曹村光5【2018年节能变】,佟高庄排5【纯农排变】,曹村光4,0696770270-定兴县北田小学-专变-240818269","powerOffReason":"【停电原因】由于榆林排２分支１号杆施工车辆碰线导致３５ＫＶ大留村变电站韩村线５１３线路全线停电 【变更送电】因抢修进度加快原因，送电时间由１４：００变更为１１：００ 【发布渠道】通过９５５９８发布","powerOffId":"2020032113000039"},{"poweroffId":2020032113000019,"sgpoweroffId":null,"subsName":"","lineName":"10kV城南513线","pubTranName":"齐庄村内混合3号配变,新上齐庄村内东,齐庄村西【纯农排变】,齐庄村内,","scope":"【影响街道/乡镇】望都镇　 【高危重要客户】无　　 【影响客户】齐庄村","startTime":"2020-03-21 09:30:00","stopDate":"2020-03-21 13:30:00","orgNo":"1340623","typeCode":"其他临时停电","poweroffArea":"【分支停电】停齐庄村内混合3号配变,新上齐庄村内东,齐庄村西【纯农排变】,齐庄村内","poweroffReason":"【停电原因】由于城南５１３线路导线打火，需停电进行紧急消缺导致１１０ＫＶ西堤变电站城南５１３线路０２８号杆５１３２号开关以下线路停电 【变更送电】无 【发布渠道】通过９５５９８发布","powerTime":"2020-03-21 13:07:12","powerComm":"已送电","subsNo":"","lineNo":"","tgNo":"","tgName":null,"infoStatus":"1","orgName":"国网望都县供电公司","typeName":null,"infoStatusName":null,"dateDay":null,"orgNos":null,"nowTime":null,"countyName":null,"streetName":null,"villageName":null,"roadName":null,"communityName":null,"tranName":null,"sdLineName":null,"cityCode":"1340623","cityName":"国网望都县供电公司","provinceCode":null,"stopTime":"2020-03-21 13:30:00","powerType":"全部","powerOffArea":"【分支停电】停齐庄村内混合3号配变,新上齐庄村内东,齐庄村西【纯农排变】,齐庄村内","powerOffReason":"【停电原因】由于城南５１３线路导线打火，需停电进行紧急消缺导致１１０ＫＶ西堤变电站城南５１３线路０２８号杆５１３２号开关以下线路停电 【变更送电】无 【发布渠道】通过９５５９８发布","powerOffId":"2020032113000019"},{"poweroffId":2020032113000018,"sgpoweroffId":null,"subsName":"","lineName":"新民居I线556","pubTranName":"韩家营13号,客户投资_韩家营5号,","scope":"【影响街道/乡镇】大王店镇 【高危重要客户】无 【影响客户】韩家营、河北徐水经济开发区管委会","startTime":"2020-03-21 07:53:15","stopDate":"2020-03-21 10:00:00","orgNo":"1340605","typeCode":"电网故障停限电","poweroffArea":"【全线路停电】停保定天冠电力设备制造有限公司,韩家营13号,0605829336-河北徐水经济开发区管委会-专变-127232703-河北徐水经济开发区管委会,徐水经济开发区管理委员会,0665000490-河北徐水经济开发区管理委员会-专变-201066586-河北徐水经济开发区管理委员会,0670201442-保定市上实交通汽车部件有限公司-专变-210388766-保定市上实交通汽车部件有限公司变压器,0605829961-河北徐水经济开发区管委会-专变-127232908-河北徐水经济开发区管委会,0620770563-长城汽车股份有限公司徐水哈弗分公司-专变-129310906-长城汽车股份有限公司徐水哈弗分公司,0665001350-河北徐水经济开发区管理委员会-专变-201071675-河北徐水经济开发区管理委员会,0746539039保定铭锐汽车部件制造有限公司900028607558,百度云计算技术(保定徐水)有限公,天冠电力设备制造有限公司,0605831043-河北徐水经济开发区管委会-专变-127229972-河北徐水经济开发区管委会,0717968785-900024463297-变压器,保定冠博天然气能源有限公司,客户投资_韩家营5号,0605829727-河北徐水经济开发区管委会-专变-127229562-河北徐水经济开发区管委会,保定光启超材料技术有限公司,河北徐水经济开发区管理委员会,0733629471-900026250051-变压器","poweroffReason":"【停电原因】由于Ｂ相接地导致１１０ＫＶ大王店变电站新民居线５５６线路全线停电 【变更送电】无 【发布渠道】通过９５５９８发布","powerTime":"2020-03-21 09:03:06","powerComm":"已送电","subsNo":"","lineNo":"","tgNo":"","tgName":null,"infoStatus":"1","orgName":"国网徐水县供电公司","typeName":null,"infoStatusName":null,"dateDay":null,"orgNos":null,"nowTime":null,"countyName":null,"streetName":null,"villageName":null,"roadName":null,"communityName":null,"tranName":null,"sdLineName":null,"cityCode":"1340605","cityName":"国网徐水县供电公司","provinceCode":null,"stopTime":"2020-03-21 10:00:00","powerType":"全部","powerOffArea":"【全线路停电】停保定天冠电力设备制造有限公司,韩家营13号,0605829336-河北徐水经济开发区管委会-专变-127232703-河北徐水经济开发区管委会,徐水经济开发区管理委员会,0665000490-河北徐水经济开发区管理委员会-专变-201066586-河北徐水经济开发区管理委员会,0670201442-保定市上实交通汽车部件有限公司-专变-210388766-保定市上实交通汽车部件有限公司变压器,0605829961-河北徐水经济开发区管委会-专变-127232908-河北徐水经济开发区管委会,0620770563-长城汽车股份有限公司徐水哈弗分公司-专变-129310906-长城汽车股份有限公司徐水哈弗分公司,0665001350-河北徐水经济开发区管理委员会-专变-201071675-河北徐水经济开发区管理委员会,0746539039保定铭锐汽车部件制造有限公司900028607558,百度云计算技术(保定徐水)有限公,天冠电力设备制造有限公司,0605831043-河北徐水经济开发区管委会-专变-127229972-河北徐水经济开发区管委会,0717968785-900024463297-变压器,保定冠博天然气能源有限公司,客户投资_韩家营5号,0605829727-河北徐水经济开发区管委会-专变-127229562-河北徐水经济开发区管委会,保定光启超材料技术有限公司,河北徐水经济开发区管理委员会,0733629471-900026250051-变压器","powerOffReason":"【停电原因】由于Ｂ相接地导致１１０ＫＶ大王店变电站新民居线５５６线路全线停电 【变更送电】无 【发布渠道】通过９５５９８发布","powerOffId":"2020032113000018"}],"pageModel":{"pageNow":234,"totalCount":10973,"totalPage":1098,"tableRows":0,"pageCount":10,"beginCount":2330},"isExperi":"1"}