{"message":"","today":"2020-06-15","seleList":[{"poweroffId":2020032113000004,"sgpoweroffId":null,"subsName":"","lineName":"10kV城南513线","pubTranName":"橄榄城北变压器,齐庄村内混合3号配变,橄榄城南变压器,沈庄东,沈庄新上1,","scope":"【影响街道/乡镇】望都镇　 【高危重要客户】无　　 【影响客户】沈庄村、齐庄村、橄榄城、名都一品","startTime":"2020-03-21 04:20:47","stopDate":"2020-03-21 05:30:00","orgNo":"1340623","typeCode":"电网故障停限电","poweroffArea":"【全线路停电】停橄榄城北变压器,齐庄村内混合3号配变,橄榄城南变压器,沈庄东,沈庄新上1","poweroffReason":"【停电原因】由于线路Ａ相接地导致１１０ＫＶ西堤变电站城南５１３线路全线停电 【变更送电】因抢修进度加快原因，送电时间由１７：００变更为０５：３０ 【发布渠道】通过９５５９８发布","powerTime":"2020-03-21 04:56:35","powerComm":"已送电","subsNo":"","lineNo":"","tgNo":"","tgName":null,"infoStatus":"1","orgName":"国网望都县供电公司","typeName":null,"infoStatusName":null,"dateDay":null,"orgNos":null,"nowTime":null,"countyName":null,"streetName":null,"villageName":null,"roadName":null,"communityName":null,"tranName":null,"sdLineName":null,"cityCode":"1340623","cityName":"国网望都县供电公司","provinceCode":null,"stopTime":"2020-03-21 05:30:00","powerType":"全部","powerOffArea":"【全线路停电】停橄榄城北变压器,齐庄村内混合3号配变,橄榄城南变压器,沈庄东,沈庄新上1","powerOffReason":"【停电原因】由于线路Ａ相接地导致１１０ＫＶ西堤变电站城南５１３线路全线停电 【变更送电】因抢修进度加快原因，送电时间由１７：００变更为０５：３０ 【发布渠道】通过９５５９８发布","powerOffId":"2020032113000004"},{"poweroffId":2020032021000027,"sgpoweroffId":null,"subsName":"","lineName":"10kV韩村站534线路","pubTranName":"10kVB874.B875箱式变电站B874配电变压器,10kVB874.B875箱式变电站B875配电变压器,10kVB872.B873箱式变电站B873配电变压器,10kVB872.B873箱式变电站B872配电变压器,B1421柱上变压器,","scope":"【影响街道/乡镇】新市区朝阳北大街、复兴中路、化纤路、翠园街 【高危重要客户】无 【影响客户】宁和小区、世茂国际、保定极致汽车销售服务有限公司、保定星光国际商务酒店有限公司、保定银信商贸有限公司","startTime":"2020-03-20 16:00:00","stopDate":"2020-03-20 18:00:00","orgNo":"13406","typeCode":"电网故障停限电","poweroffArea":"【全线路停电】停10kVB874.B875箱式变电站B874配电变压器,10kVB874.B875箱式变电站B875配电变压器,10kVB872.B873箱式变电站B873配电变压器,10kVB872.B873箱式变电站B872配电变压器,0356213622-中国联合网络通信有限公司保定市分公司-1#专变,变压器,0637410715-保定市康泰房地产开发有限公司-专变-148438012-变压器,0670657997-保定市宇威房地产开发有限公司-专变-212075156-变压器,0356345116-保定高新区公共事业管理处-1-箱式变-变压器-,0356309374-保定源盛房地产开发有限公司-1-配电室-变压器-1,0357564604-保定极致汽车销售服务有限公司-1-箱式变-变压器-,0356251154-河北省保定市中级人民法院-1#专变,0356215471-保定市银信投资担保有限公司-1-箱式变-变压器-13401714,0356269250-展拜邸(保定)墙纸有限公司-1-配电室-变压器-1,0356231569-保定天马旅游展览广告有限公司-专变,0704855412-保定宝硕置业房地产开发有限公司3#专变,B1421柱上变压器,0704855412-保定宝硕置业开发房地产有限公司-5#专变,0637410715-保定市康泰房地产开发有限公司-专变-148435393-变压器,0356307495-保定市华中假日大酒店有限公司-2#专变,0670657997-保定市宇威房地产开发有限公司-专变-212075165-变压器,0356286497-保定星光国际商务酒店有限公司-2#专变,0356215471-保定市银信投资担保有限公司-1-箱式变-变压器-13398648,0358121860-保定市城乡规划管理局-1-箱式变-变压器-,0704855412-保定宝硕置业房地产开发有限公司2#专变,0356278522-保定雪花电器工程实业有限公司-专变,0704855412-保定宝硕置业房地产开发有限公司1#专变,0356231572-保定邮电印刷厂-专变,0356269250-展拜邸(保定)墙纸有限公司-1-配电室-变压器-2,0356231585-保定佰盛房地产开发有限公司-专变,0357991020-保定市快乐物业管理有限公司-专变","poweroffReason":"【停电原因】由于分支开关短路导致１０ＫＶ韩村变电站５３４线路全线停电【变更送电】因抢修进度加快，原定20:00送电现计划18:00送电【发布渠道】通过９５５９８发布","powerTime":"2020-03-20 17:25:07","powerComm":"已送电","subsNo":"","lineNo":"","tgNo":"","tgName":null,"infoStatus":"1","orgName":"保定供电公司","typeName":null,"infoStatusName":null,"dateDay":null,"orgNos":null,"nowTime":null,"countyName":null,"streetName":null,"villageName":null,"roadName":null,"communityName":null,"tranName":null,"sdLineName":null,"cityCode":"13406","cityName":"保定供电公司","provinceCode":null,"stopTime":"2020-03-20 18:00:00","powerType":"全部","powerOffArea":"【全线路停电】停10kVB874.B875箱式变电站B874配电变压器,10kVB874.B875箱式变电站B875配电变压器,10kVB872.B873箱式变电站B873配电变压器,10kVB872.B873箱式变电站B872配电变压器,0356213622-中国联合网络通信有限公司保定市分公司-1#专变,变压器,0637410715-保定市康泰房地产开发有限公司-专变-148438012-变压器,0670657997-保定市宇威房地产开发有限公司-专变-212075156-变压器,0356345116-保定高新区公共事业管理处-1-箱式变-变压器-,0356309374-保定源盛房地产开发有限公司-1-配电室-变压器-1,0357564604-保定极致汽车销售服务有限公司-1-箱式变-变压器-,0356251154-河北省保定市中级人民法院-1#专变,0356215471-保定市银信投资担保有限公司-1-箱式变-变压器-13401714,0356269250-展拜邸(保定)墙纸有限公司-1-配电室-变压器-1,0356231569-保定天马旅游展览广告有限公司-专变,0704855412-保定宝硕置业房地产开发有限公司3#专变,B1421柱上变压器,0704855412-保定宝硕置业开发房地产有限公司-5#专变,0637410715-保定市康泰房地产开发有限公司-专变-148435393-变压器,0356307495-保定市华中假日大酒店有限公司-2#专变,0670657997-保定市宇威房地产开发有限公司-专变-212075165-变压器,0356286497-保定星光国际商务酒店有限公司-2#专变,0356215471-保定市银信投资担保有限公司-1-箱式变-变压器-13398648,0358121860-保定市城乡规划管理局-1-箱式变-变压器-,0704855412-保定宝硕置业房地产开发有限公司2#专变,0356278522-保定雪花电器工程实业有限公司-专变,0704855412-保定宝硕置业房地产开发有限公司1#专变,0356231572-保定邮电印刷厂-专变,0356269250-展拜邸(保定)墙纸有限公司-1-配电室-变压器-2,0356231585-保定佰盛房地产开发有限公司-专变,0357991020-保定市快乐物业管理有限公司-专变","powerOffReason":"【停电原因】由于分支开关短路导致１０ＫＶ韩村变电站５３４线路全线停电【变更送电】因抢修进度加快，原定20:00送电现计划18:00送电【发布渠道】通过９５５９８发布","powerOffId":"2020032021000027"},{"poweroffId":2020032013000251,"sgpoweroffId":null,"subsName":"","lineName":"10kV中相578","pubTranName":"涿州市北新幼儿园柱上变压器,北辛0979,北辛村内西,西代屯村新增2号变,西代屯村新增1号变,北辛村东内,朱庄村内南,朱庄村内0981,朱庄村西地（豆庄供电所）,朱庄村新增配变,","scope":"【影响街道/乡镇】豆庄乡 【高危重要客户】无 【影响客户】北辛村、朱庄、西代屯","startTime":"2020-03-21 04:00:00","stopDate":"2020-03-21 06:00:00","orgNo":"1340626","typeCode":"其他临时停电","poweroffArea":"【分支停电】停涿州市北新幼儿园柱上变压器,柳合营供电所（北辛庄村南地）,北辛0979,北辛村内西,北辛村海开东南地变台【纯农排变】,西代屯村新增2号变,西代屯村新增1号变,北辛村东内,朱庄村内南,朱庄村西3,北辛村西3,朱庄村内0981,朱庄村西地（豆庄供电所）,朱庄村新增配变","poweroffReason":"【停电原因】由于中相５７８线北辛朱庄分支０３-０４号电杆倾斜，需停电进行紧急抢修导致２２０ＫＶ豆庄变电站１０ＫＶ中相５７８线路北辛朱庄分支０３-０４号杆以下线路停电 【变更送电】无 【发布渠道】通过９５５９８发布","powerTime":"2020-03-21 05:33:50","powerComm":"恢复送电","subsNo":"","lineNo":"","tgNo":"","tgName":null,"infoStatus":"1","orgName":"国网涿州市供电公司","typeName":null,"infoStatusName":null,"dateDay":null,"orgNos":null,"nowTime":null,"countyName":null,"streetName":null,"villageName":null,"roadName":null,"communityName":null,"tranName":null,"sdLineName":null,"cityCode":"1340626","cityName":"国网涿州市供电公司","provinceCode":null,"stopTime":"2020-03-21 06:00:00","powerType":"全部","powerOffArea":"【分支停电】停涿州市北新幼儿园柱上变压器,柳合营供电所（北辛庄村南地）,北辛0979,北辛村内西,北辛村海开东南地变台【纯农排变】,西代屯村新增2号变,西代屯村新增1号变,北辛村东内,朱庄村内南,朱庄村西3,北辛村西3,朱庄村内0981,朱庄村西地（豆庄供电所）,朱庄村新增配变","powerOffReason":"【停电原因】由于中相５７８线北辛朱庄分支０３-０４号电杆倾斜，需停电进行紧急抢修导致２２０ＫＶ豆庄变电站１０ＫＶ中相５７８线路北辛朱庄分支０３-０４号杆以下线路停电 【变更送电】无 【发布渠道】通过９５５９８发布","powerOffId":"2020032013000251"},{"poweroffId":2020032013000197,"sgpoweroffId":null,"subsName":"","lineName":"车站线513","pubTranName":"留村10号,北常保15号,留村13号,留村12号,留村6号,留村1号,北常保1号,留村3号,北常保3号,留村9号,北常保14号,留村5号,北常保8号,留村4号,北常保4号,北常保6号,留村11号,北常保10号,","scope":"【影响街道/乡镇】留村镇 【高危重要客户】无 【影响客户】北常堡村、留村","startTime":"2020-03-20 18:02:00","stopDate":"2020-03-20 20:00:00","orgNo":"1340605","typeCode":"电网故障停限电","poweroffArea":"【全线路停电】停留村12号,留村13号,徐水县美好生活超市有限公司,留村9号,海燕电线二厂,漕河地税分局,保定中盾塑胶有限公司变压器,留村1号,留村8号【纯农排变】,留村4号,北常保6号,北常保15号,留村3号,中国移动通信集团河北有限公司徐水分公司留,留村10号,留村医院,徐水盛安精神病康复医院,北常保2号【纯农排变】,保定光阳天然气利用有限公司,保定友星体育用品有限公司,北常保4号,北常保7号【纯农排变】,保定乾坤福商贸有限公司,保定天骏挂车制造有限公司,海燕电线二厂2号,中国邮政储蓄银行徐水县支行,北常保5号【纯农排变】,保定天福泵阀制造有限公司,保定市公安头盔厂,保定六合食品有限公司,保定六合食品有限公司1号,保定裕泰管件有限公司3号,裕泰管件有限公司2号,北常保14号,留村6号,北常保3号,北常保10号,0637414296-保定市徐水区住房和城乡建设局路灯-专变-148444957-徐水县住房和城乡建设局路灯,留村11号,天意橡胶厂,保定市天意橡胶厂分厂,裕泰管件有限公司1号,留村5号,云飞塑料制品厂,南高桥木器厂,水利局仓库,留村信用社,留村面粉厂,北常保1号,北常保8号,海燕电线厂","poweroffReason":"【停电原因】由于Ｂ相接地导致漕河变电站车站线５１３线路全线停电 【变更送电】因抢修进度加快原因，送电时间由２２:００变更为２０:００ 【发布渠道】通过９５５９８发布","powerTime":"2020-03-20 19:15:27","powerComm":"已送电","subsNo":"","lineNo":"","tgNo":"","tgName":null,"infoStatus":"1","orgName":"国网徐水县供电公司","typeName":null,"infoStatusName":null,"dateDay":null,"orgNos":null,"nowTime":null,"countyName":null,"streetName":null,"villageName":null,"roadName":null,"communityName":null,"tranName":null,"sdLineName":null,"cityCode":"1340605","cityName":"国网徐水县供电公司","provinceCode":null,"stopTime":"2020-03-20 20:00:00","powerType":"全部","powerOffArea":"【全线路停电】停留村12号,留村13号,徐水县美好生活超市有限公司,留村9号,海燕电线二厂,漕河地税分局,保定中盾塑胶有限公司变压器,留村1号,留村8号【纯农排变】,留村4号,北常保6号,北常保15号,留村3号,中国移动通信集团河北有限公司徐水分公司留,留村10号,留村医院,徐水盛安精神病康复医院,北常保2号【纯农排变】,保定光阳天然气利用有限公司,保定友星体育用品有限公司,北常保4号,北常保7号【纯农排变】,保定乾坤福商贸有限公司,保定天骏挂车制造有限公司,海燕电线二厂2号,中国邮政储蓄银行徐水县支行,北常保5号【纯农排变】,保定天福泵阀制造有限公司,保定市公安头盔厂,保定六合食品有限公司,保定六合食品有限公司1号,保定裕泰管件有限公司3号,裕泰管件有限公司2号,北常保14号,留村6号,北常保3号,北常保10号,0637414296-保定市徐水区住房和城乡建设局路灯-专变-148444957-徐水县住房和城乡建设局路灯,留村11号,天意橡胶厂,保定市天意橡胶厂分厂,裕泰管件有限公司1号,留村5号,云飞塑料制品厂,南高桥木器厂,水利局仓库,留村信用社,留村面粉厂,北常保1号,北常保8号,海燕电线厂","powerOffReason":"【停电原因】由于Ｂ相接地导致漕河变电站车站线５１３线路全线停电 【变更送电】因抢修进度加快原因，送电时间由２２:００变更为２０:００ 【发布渠道】通过９５５９８发布","powerOffId":"2020032013000197"},{"poweroffId":2020032013000190,"sgpoweroffId":null,"subsName":"","lineName":"太保营线514","pubTranName":"东庄1号,师庄12号,南高桥12号,南高桥4号【纯农排变】,师庄9号,师庄11号,南高桥1号【纯农排变】,常乐1号,师庄8号,东庄5号,南庄2号【纯农排变】,师庄13号,太保营6号,师庄15号,东庄2号,太保营27号,太保营20号,田庄2号,师庄16号,师庄7号,太保营28号,太保营15号,太保营19号,南高桥18号,师庄14号,太保营4号,太保营8号【纯农排变】,留东营7号【纯农排变】,常乐13号,南庄1号,常乐10号,南高桥16号,留东营8号,南高桥9号【纯农排变】,留东营1号,师庄6号【纯农排变】,南高桥15号,太保营17号,常乐14号,东庄4号【纯农排变】,师庄1号,田庄3号,客户投资_常乐12号,太保营16号,太保营18号,北高桥19号,常乐2号,留东营2号,师庄10号,南高桥10号,南高桥13号,师庄5号,师庄3号,太保营7号,田庄1号【纯农排变】,常乐3号【纯农排变】,南庄3号【纯农排变】,南高桥17号,北高桥18号,常乐5号,南高桥11号,南高桥2号,常乐9号,常乐6号,师庄2号【纯农排变】,","scope":"【影响街道/乡镇】留村镇 【高危重要客户】无 【影响客户】北高桥村、南高桥村、留东营村、东庄村、南庄村、田庄村、师庄村、常乐村、太保营","startTime":"2020-03-20 18:02:00","stopDate":"2020-03-20 20:00:00","orgNo":"1340605","typeCode":"电网故障停限电","poweroffArea":"【全线路停电】停常乐10号,太保营15号,北高桥19号,常乐2号,太保营20号,南高桥14号【纯农排变】,太保营14号,保定市徐水区留村乡中学,北高桥18号,师庄6号【纯农排变】,田庄1号【纯农排变】,南庄4号【纯农排变】,东庄3号【纯农排变】,太保营18号,南高桥8号【纯农排变】,南高桥17号,太保营28号,变压器,东庄1号,保定市徐水区留村乡师庄小学,河北爱博欣农业有限公司,保定均合金属材料有限公司,太保营19号,南高桥12号,保定市润丰实业有限公司,保定市津瑞建筑混凝土有限公司,刘东营面粉二厂,客户投资_常乐12号,南高桥13号,常乐1号,东庄5号,留东营3号【纯农排变】,师庄7号,保定市浩宇伟业汽车贸易有限公司,太保营4号,师庄11号,太保营17号,留东营6号【纯农排变】,师庄10号,北高桥6号【纯农排变】,保定凯达石油产品销售有限公司,南庄2号【纯农排变】,保定市祥瑞制冷设备有限公司,太保营7号,保定市鑫茆达再生资源回收有限公司,南高桥2号,保定市徐水区正旭构件厂,太保营24号,保定市徐水区全乐编制制品厂,南高桥6号【纯农排变】,留东营2号,常乐11号,保定市正汇包装彩印有限公司,南庄1号,保定市徐水区二力钢结构制品经销处,保定市亨通乐汽车贸易有限公司,田庄2号,南庄3号【纯农排变】,太保营3号,师庄12号,太保营2号,常乐5号,太保营11号,东庄2号,徐水县祥久金属材料焊接加工厂, 师庄14号,师庄13号,南高桥5号【纯农排变】,0682547015-河北悦康志德医药贸易有限公司-专变-221712106-河北悦康志德医药贸易有限公司,南高桥15号,北高桥2号【纯农排变】,留东营5号【纯农排变】,留东营7号【纯农排变】,徐水县新兴节能耐火材料厂,太保营13号,太保营23号,留东营4号,常乐4号【纯农排变】,太保营10号,李丰收林业养殖场,常乐8号【纯农排变】,留东营1号,太保营12号,留东营8号,太保营16号,太保营1号,保定轲龙废旧金属回收有限公司,师庄4号【纯农排变】,常乐7号【纯农排变】,太保营21号,田庄3号,田庄4号【纯农排变】,师庄9号,华威汽车装饰件厂,精华碳素厂,东庄4号【纯农排变】,南高桥16号,南高桥4号【纯农排变】,太保营9号,保定是润丰实业有限公司,师庄8号,太保营6号,师庄15号,太保营27号,南高桥3号【纯农排变】,师庄16号,南高桥18号,常乐9号,常乐6号,南高桥1号【纯农排变】,师庄2号【纯农排变】,南高桥7号【纯农排变】,南高桥9号【纯农排变】,师庄1号,保定市徐水区北常保东奇五金建材经销处,太保营26号,保定五洲汽车销售服务有限公司,南高桥11号,师庄3号,常乐14号,保定市恒领汽车贸易有限公司,常乐13号,师庄5号,常乐3号【纯农排变】,南高桥10号,太保营8号【纯农排变】,保定市徐水区留村乡南高桥小学,太保营22号,保定市德刚商贸有限公司,太保营5号","poweroffReason":"【停电原因】由于Ｂ相接地导致３５ＫＶ漕河变电站太保营线５１４线路全线停电 【变更送电】无 【发布渠道】通过９５５９８发布","powerTime":"2020-03-20 19:15:12","powerComm":"已送电","subsNo":"","lineNo":"","tgNo":"","tgName":null,"infoStatus":"1","orgName":"国网徐水县供电公司","typeName":null,"infoStatusName":null,"dateDay":null,"orgNos":null,"nowTime":null,"countyName":null,"streetName":null,"villageName":null,"roadName":null,"communityName":null,"tranName":null,"sdLineName":null,"cityCode":"1340605","cityName":"国网徐水县供电公司","provinceCode":null,"stopTime":"2020-03-20 20:00:00","powerType":"全部","powerOffArea":"【全线路停电】停常乐10号,太保营15号,北高桥19号,常乐2号,太保营20号,南高桥14号【纯农排变】,太保营14号,保定市徐水区留村乡中学,北高桥18号,师庄6号【纯农排变】,田庄1号【纯农排变】,南庄4号【纯农排变】,东庄3号【纯农排变】,太保营18号,南高桥8号【纯农排变】,南高桥17号,太保营28号,变压器,东庄1号,保定市徐水区留村乡师庄小学,河北爱博欣农业有限公司,保定均合金属材料有限公司,太保营19号,南高桥12号,保定市润丰实业有限公司,保定市津瑞建筑混凝土有限公司,刘东营面粉二厂,客户投资_常乐12号,南高桥13号,常乐1号,东庄5号,留东营3号【纯农排变】,师庄7号,保定市浩宇伟业汽车贸易有限公司,太保营4号,师庄11号,太保营17号,留东营6号【纯农排变】,师庄10号,北高桥6号【纯农排变】,保定凯达石油产品销售有限公司,南庄2号【纯农排变】,保定市祥瑞制冷设备有限公司,太保营7号,保定市鑫茆达再生资源回收有限公司,南高桥2号,保定市徐水区正旭构件厂,太保营24号,保定市徐水区全乐编制制品厂,南高桥6号【纯农排变】,留东营2号,常乐11号,保定市正汇包装彩印有限公司,南庄1号,保定市徐水区二力钢结构制品经销处,保定市亨通乐汽车贸易有限公司,田庄2号,南庄3号【纯农排变】,太保营3号,师庄12号,太保营2号,常乐5号,太保营11号,东庄2号,徐水县祥久金属材料焊接加工厂, 师庄14号,师庄13号,南高桥5号【纯农排变】,0682547015-河北悦康志德医药贸易有限公司-专变-221712106-河北悦康志德医药贸易有限公司,南高桥15号,北高桥2号【纯农排变】,留东营5号【纯农排变】,留东营7号【纯农排变】,徐水县新兴节能耐火材料厂,太保营13号,太保营23号,留东营4号,常乐4号【纯农排变】,太保营10号,李丰收林业养殖场,常乐8号【纯农排变】,留东营1号,太保营12号,留东营8号,太保营16号,太保营1号,保定轲龙废旧金属回收有限公司,师庄4号【纯农排变】,常乐7号【纯农排变】,太保营21号,田庄3号,田庄4号【纯农排变】,师庄9号,华威汽车装饰件厂,精华碳素厂,东庄4号【纯农排变】,南高桥16号,南高桥4号【纯农排变】,太保营9号,保定是润丰实业有限公司,师庄8号,太保营6号,师庄15号,太保营27号,南高桥3号【纯农排变】,师庄16号,南高桥18号,常乐9号,常乐6号,南高桥1号【纯农排变】,师庄2号【纯农排变】,南高桥7号【纯农排变】,南高桥9号【纯农排变】,师庄1号,保定市徐水区北常保东奇五金建材经销处,太保营26号,保定五洲汽车销售服务有限公司,南高桥11号,师庄3号,常乐14号,保定市恒领汽车贸易有限公司,常乐13号,师庄5号,常乐3号【纯农排变】,南高桥10号,太保营8号【纯农排变】,保定市徐水区留村乡南高桥小学,太保营22号,保定市德刚商贸有限公司,太保营5号","powerOffReason":"【停电原因】由于Ｂ相接地导致３５ＫＶ漕河变电站太保营线５１４线路全线停电 【变更送电】无 【发布渠道】通过９５５９８发布","powerOffId":"2020032013000190"},{"poweroffId":2020032013000174,"sgpoweroffId":null,"subsName":"","lineName":"河图线510","pubTranName":"大赛村西南,大赛村北新增1号,高荆,大赛村西新增2号,大赛正南,大赛村内三坑,大赛村西新增3号,大赛村东新增1号,大赛野外新增9号,高荆村东新增3号,高荆村西北,高荆村西南,高荆村东新增,高荆正北,大赛大队,高荆村东新增2,高荆村东200,","scope":"【影响街道/乡镇】方顺桥乡 【高危重要客户】无 【影响客户】大赛、高荆、五里铺机井","startTime":"2020-03-29 07:00:00","stopDate":"2020-03-29 18:00:00","orgNo":"1340617","typeCode":"计划停电","poweroffArea":"【全线路停电】停大塞合线厂,兴隆面粉厂,高荆村西北,益民面粉厂,抄纸屯综合塑料厂,五里铺新增2号【纯农排变】,大赛村西新增2号,大塞堂新社,高荆村野外新增4号【纯农排变】,高井花厂,高荆村西村外【纯农排变】,高荆村野外新增5号【纯农排变】,高荆村东,大赛村东新增1号,大赛新增浇地1号【纯农排变】,大赛村蔬菜基地3号【纯农排变】,大塞稀土厂,高荆村西新增,高标准大赛1号【纯农排变】,大赛野外新增9号,高井村南,交警支队,高井精细化工,五里铺新增【纯农排变】,大赛大队,大赛正南,大赛村西南,高荆村野外新增3号【纯农排变】,高荆村西南,高荆村野外新增2号【纯农排变】,大赛村西新增3号,大赛村蔬菜基地新增1号【纯农排变】,高荆新增2号,大赛野外新增4号【纯农排变】,高井野外新增,国新塑料,高荆村东新增2,大赛野外新增6号【纯农排变】,大塞西,大赛野外新增5号【纯农排变】,高井桥西,大塞村,大赛村蔬菜基地新增2号【纯农排变】,大赛村,大赛村东北107国道,大赛新增8号【纯农排变】,大赛满常,大塞北50,金虎塑料厂,河北建设集团有限公司,井驿村,大赛村东2号,大赛东新增1号【纯农排变】,大赛村内三坑,五里铺村南,高荆村东200,高荆村野外新增1号【纯农排变】,高荆村东新增,高荆村北,大赛东新增2号【纯农排变】,大赛新增浇地2号【纯农排变】,高荆,高荆新增【纯农排变】,保阜高速公路,大塞东,大赛村北路东,大赛新增7号【纯农排变】,高荆新增1号,大塞南50,高荆村东新增3号,大赛村北新增1号,井义2片,五里铺（原砖厂）,0387480219-保定市天兴制衣有限公司-专变-45308254-冀开电力器材有限公司,大赛纸箱厂,0387480567-保定市满城县冀开电力器材有限公司-专变-45308097-冀开电力器材有限公司,大塞东南,孙增路养鸡场,金双雨养殖厂,高井榨油厂,保定氧化锌避雷器,高荆正北,大赛东新增3号【纯农排变】,光明塑料厂,长明塑料","poweroffReason":"【停电原因】由于线路检修导致２２０ＫＶ南郊变电站河图线５１０线路全线停电 【变更送电】无 【发布渠道】满城县有线电视台（０３月２０日１９：００－２０：００至０３月２８日１９：００－２０：００）屏幕上方滚动","powerTime":"2020-03-29 17:04:46","powerComm":"已送电","subsNo":"","lineNo":"","tgNo":"","tgName":null,"infoStatus":"1","orgName":"国网满城县供电公司","typeName":null,"infoStatusName":null,"dateDay":null,"orgNos":null,"nowTime":null,"countyName":null,"streetName":null,"villageName":null,"roadName":null,"communityName":null,"tranName":null,"sdLineName":null,"cityCode":"1340617","cityName":"国网满城县供电公司","provinceCode":null,"stopTime":"2020-03-29 18:00:00","powerType":"全部","powerOffArea":"【全线路停电】停大塞合线厂,兴隆面粉厂,高荆村西北,益民面粉厂,抄纸屯综合塑料厂,五里铺新增2号【纯农排变】,大赛村西新增2号,大塞堂新社,高荆村野外新增4号【纯农排变】,高井花厂,高荆村西村外【纯农排变】,高荆村野外新增5号【纯农排变】,高荆村东,大赛村东新增1号,大赛新增浇地1号【纯农排变】,大赛村蔬菜基地3号【纯农排变】,大塞稀土厂,高荆村西新增,高标准大赛1号【纯农排变】,大赛野外新增9号,高井村南,交警支队,高井精细化工,五里铺新增【纯农排变】,大赛大队,大赛正南,大赛村西南,高荆村野外新增3号【纯农排变】,高荆村西南,高荆村野外新增2号【纯农排变】,大赛村西新增3号,大赛村蔬菜基地新增1号【纯农排变】,高荆新增2号,大赛野外新增4号【纯农排变】,高井野外新增,国新塑料,高荆村东新增2,大赛野外新增6号【纯农排变】,大塞西,大赛野外新增5号【纯农排变】,高井桥西,大塞村,大赛村蔬菜基地新增2号【纯农排变】,大赛村,大赛村东北107国道,大赛新增8号【纯农排变】,大赛满常,大塞北50,金虎塑料厂,河北建设集团有限公司,井驿村,大赛村东2号,大赛东新增1号【纯农排变】,大赛村内三坑,五里铺村南,高荆村东200,高荆村野外新增1号【纯农排变】,高荆村东新增,高荆村北,大赛东新增2号【纯农排变】,大赛新增浇地2号【纯农排变】,高荆,高荆新增【纯农排变】,保阜高速公路,大塞东,大赛村北路东,大赛新增7号【纯农排变】,高荆新增1号,大塞南50,高荆村东新增3号,大赛村北新增1号,井义2片,五里铺（原砖厂）,0387480219-保定市天兴制衣有限公司-专变-45308254-冀开电力器材有限公司,大赛纸箱厂,0387480567-保定市满城县冀开电力器材有限公司-专变-45308097-冀开电力器材有限公司,大塞东南,孙增路养鸡场,金双雨养殖厂,高井榨油厂,保定氧化锌避雷器,高荆正北,大赛东新增3号【纯农排变】,光明塑料厂,长明塑料","powerOffReason":"【停电原因】由于线路检修导致２２０ＫＶ南郊变电站河图线５１０线路全线停电 【变更送电】无 【发布渠道】满城县有线电视台（０３月２０日１９：００－２０：００至０３月２８日１９：００－２０：００）屏幕上方滚动","powerOffId":"2020032013000174"},{"poweroffId":2020032013000131,"sgpoweroffId":null,"subsName":"","lineName":"10kV张丰工业线541","pubTranName":"东张丰11号,西张丰17号【纯农排变】,安肃供电所14号（特殊教育学校）,西张丰2号,西张丰16号【纯农排变】,","scope":"【影响街道/乡镇】安肃镇 【高危重要客户】无 【影响客户】东张丰、西张丰、农场家属院、特殊教育学校","startTime":"2020-03-20 16:47:43","stopDate":"2020-03-20 20:00:00","orgNo":"1340605","typeCode":"电网故障停限电","poweroffArea":"【分支停电】停徐水职教中心1号,西张丰11号,东张丰13号,东张丰12号【纯农排变】,东张丰4号,西张丰7号【纯农排变】,西张丰18号,东张丰8号【纯农排变】,西张丰1号,东张丰9号,东张丰10号【纯农排变】,徐水县顺益吊索具有限公司,西张丰15号【纯农排变】,东张丰村14号,东张丰1号,西张丰17号【纯农排变】,0589798060-国营保定农场(家属院)-专变-125480259-国营保定农场（家属院）,安肃供电所14号（特殊教育学校）,东张丰2号,东张丰11号,保定市祥达房地产开发有限公司,职教中心2号,东张丰3号【纯农排变】,聋哑学校,西张丰20号,徐水县恒星防腐材料厂2号,西张丰12号【纯农排变】,东张丰5号,西张丰6号【纯农排变】,徐水县职业技术教育中心3号,西张丰19号【纯农排变】,西张丰4号【纯农排变】,西张丰10号,东张丰7号,保定市鼎居房地产开发有限公司,西张丰2号,西张丰16号【纯农排变】,徐水县中洲自来水供应有限公司","poweroffReason":"【停电原因】由于设备线夹烧断导致２２０ＫＶ张丰变电站张丰工业线５４１线路０３号杆分段开关以下线路停电 【变更送电】无 【发布渠道】通过９５５９８发布","powerTime":"2020-03-20 19:00:48","powerComm":"已送电","subsNo":"","lineNo":"","tgNo":"","tgName":null,"infoStatus":"1","orgName":"国网徐水县供电公司","typeName":null,"infoStatusName":null,"dateDay":null,"orgNos":null,"nowTime":null,"countyName":null,"streetName":null,"villageName":null,"roadName":null,"communityName":null,"tranName":null,"sdLineName":null,"cityCode":"1340605","cityName":"国网徐水县供电公司","provinceCode":null,"stopTime":"2020-03-20 20:00:00","powerType":"全部","powerOffArea":"【分支停电】停徐水职教中心1号,西张丰11号,东张丰13号,东张丰12号【纯农排变】,东张丰4号,西张丰7号【纯农排变】,西张丰18号,东张丰8号【纯农排变】,西张丰1号,东张丰9号,东张丰10号【纯农排变】,徐水县顺益吊索具有限公司,西张丰15号【纯农排变】,东张丰村14号,东张丰1号,西张丰17号【纯农排变】,0589798060-国营保定农场(家属院)-专变-125480259-国营保定农场（家属院）,安肃供电所14号（特殊教育学校）,东张丰2号,东张丰11号,保定市祥达房地产开发有限公司,职教中心2号,东张丰3号【纯农排变】,聋哑学校,西张丰20号,徐水县恒星防腐材料厂2号,西张丰12号【纯农排变】,东张丰5号,西张丰6号【纯农排变】,徐水县职业技术教育中心3号,西张丰19号【纯农排变】,西张丰4号【纯农排变】,西张丰10号,东张丰7号,保定市鼎居房地产开发有限公司,西张丰2号,西张丰16号【纯农排变】,徐水县中洲自来水供应有限公司","powerOffReason":"【停电原因】由于设备线夹烧断导致２２０ＫＶ张丰变电站张丰工业线５４１线路０３号杆分段开关以下线路停电 【变更送电】无 【发布渠道】通过９５５９８发布","powerOffId":"2020032013000131"},{"poweroffId":2020032013000110,"sgpoweroffId":null,"subsName":"","lineName":"10kV杨家务线512","pubTranName":"军庄北变压器,东务新北变压器,韩庄西变压器,马东变压器,东务村北2,西仓东,韩庄变压器,东义合西南,","scope":"【影响街道/乡镇】方官镇、新城镇、肖官营乡 【高危重要客户】无 【影响客户】马东村、马西村、雷李庄村、肖鱼池村、袁家营村、金东村（金钗营）、金中村、李庄村、毛庄村、东仓村、西仓村、韩庄村、张庄村、西义合村、东宋村、东务村、东义合村、军庄村、石辛庄村、西宋村、西务村、天津通鼓风机有限公司、河北高碑店市鼓风机厂、河北高鼓环保设备有限公司、河北鑫宏远冶金设备制造有限公司、高碑店市宏润风机制造有限公司、高碑店市红日风机厂、河北腾浩风机制造有限公司、高碑店市工业风机制造厂、鸿旭金属粉末加工有限公司、河北科隆风机有限公司、中国移动通信高碑店分公司、保定富瑞康管道有限公司","startTime":"2020-03-20 15:39:31","stopDate":"2020-03-20 18:00:00","orgNo":"1340612","typeCode":"电网故障停限电","poweroffArea":"【全线路停电】停韩庄北地变压器【纯农排变】,张庄变压器,肖鱼池变压器,东宋地变压器【纯农排变】,东宋变压器,军庄东变压器,西务地3变压器【纯农排变】,西义合变压器,毛庄北地变压器,中国移动通信集体河北有限公司高碑店分公司,东务地变压器【纯农排变】,马东变压器,西义合地2变压器,东务变压器,金东地变压器【纯农排变】,0610660612-高碑店市科隆商贸有限公司-专变-223551278-河北科隆风机有限公司变压器,保定富瑞康管道有限公司,韩庄南水变压器【纯农排变】,东务村北2,毛庄变压器,毛庄西变压器,西仓东,西义合地变压器【纯农排变】,东务新北变压器,东务村南变压器,河北高碑店市鼓风机厂变压器,金东西变压器,东务西变压器,军庄地变压器【纯农排变】,0387449762-天津通鼓风机有限公司河北分公司-专变-226995247-天津风机五厂变压器,肖鱼池地变压器,韩庄变压器,金柴营变压器,东义合水3变压器,西宋南变压器,军庄西变压器,石辛庄水3变压器,西务变压器,李庄地2变压器【纯农排变】,石辛庄变压器,韩庄东南水变压器【纯农排变】,东务南变压器【纯农排变】,东仓地2变压器【纯农排变】,西仓村2变压器,高碑店市鸿旭金属粉末加工有限公司,西务北变压器,西务南变压器,东义合水2变压器,西仓地变压器【纯农排变】,金中变压器,西务地6变压器【纯农排变】,东务地2变压器【纯农排变】,东仓地变压器【纯农排变】,西务地5变压器【纯农排变】,马西变压器,金东地2变压器【纯农排变】,西务地变压器【纯农排变】,天津风机五厂(谷1),韩庄西变压器,东义合地变压器,西仓地2变压器【纯农排变】,东仓变压器,雷李庄变压器,马东北地变压器【纯农排变】,韩庄水变压器【纯农排变】,西仓变压器,河北鑫宏远冶金设备制造有限公司变压器,军庄新地变压器,西加录地变压器【纯农排变】,西务新地变压器,东义合变压器,李庄变压器512线,河北高鼓环保设备有限公司,东宋排灌变压器,石辛庄水4变压器,军庄北变压器,肖鱼池东变压器,李庄北变压器,李庄浇地变压器【纯农排变】,军庄北地变压器【纯农排变】,金东新变压器,东宋南水变压器,石辛庄地变压器【纯农排变】,东义合西南,高碑店市鸿旭金属粉末加工有限公司变压器,东务北变压器,张庄水变压器,李庄西变压器,西宋变压器,马东东变压器,马东南地变压器【纯农排变】,西务地4变压器【纯农排变】","poweroffReason":"【停电原因】由于肖鱼池分支移动公司变台上有树杈导致３５ＫＶ加录变电站１０ＫＶ杨家务５１２线路全线停电 【变更送电】因抢修进度加快原因，送电时间由１９：００变更为１８：００ 【发布渠道】通过９５５９８发布","powerTime":"2020-03-20 17:28:01","powerComm":"已送电","subsNo":"","lineNo":"","tgNo":"","tgName":null,"infoStatus":"1","orgName":"国网高碑店市供电公司","typeName":null,"infoStatusName":null,"dateDay":null,"orgNos":null,"nowTime":null,"countyName":null,"streetName":null,"villageName":null,"roadName":null,"communityName":null,"tranName":null,"sdLineName":null,"cityCode":"1340612","cityName":"国网高碑店市供电公司","provinceCode":null,"stopTime":"2020-03-20 18:00:00","powerType":"全部","powerOffArea":"【全线路停电】停韩庄北地变压器【纯农排变】,张庄变压器,肖鱼池变压器,东宋地变压器【纯农排变】,东宋变压器,军庄东变压器,西务地3变压器【纯农排变】,西义合变压器,毛庄北地变压器,中国移动通信集体河北有限公司高碑店分公司,东务地变压器【纯农排变】,马东变压器,西义合地2变压器,东务变压器,金东地变压器【纯农排变】,0610660612-高碑店市科隆商贸有限公司-专变-223551278-河北科隆风机有限公司变压器,保定富瑞康管道有限公司,韩庄南水变压器【纯农排变】,东务村北2,毛庄变压器,毛庄西变压器,西仓东,西义合地变压器【纯农排变】,东务新北变压器,东务村南变压器,河北高碑店市鼓风机厂变压器,金东西变压器,东务西变压器,军庄地变压器【纯农排变】,0387449762-天津通鼓风机有限公司河北分公司-专变-226995247-天津风机五厂变压器,肖鱼池地变压器,韩庄变压器,金柴营变压器,东义合水3变压器,西宋南变压器,军庄西变压器,石辛庄水3变压器,西务变压器,李庄地2变压器【纯农排变】,石辛庄变压器,韩庄东南水变压器【纯农排变】,东务南变压器【纯农排变】,东仓地2变压器【纯农排变】,西仓村2变压器,高碑店市鸿旭金属粉末加工有限公司,西务北变压器,西务南变压器,东义合水2变压器,西仓地变压器【纯农排变】,金中变压器,西务地6变压器【纯农排变】,东务地2变压器【纯农排变】,东仓地变压器【纯农排变】,西务地5变压器【纯农排变】,马西变压器,金东地2变压器【纯农排变】,西务地变压器【纯农排变】,天津风机五厂(谷1),韩庄西变压器,东义合地变压器,西仓地2变压器【纯农排变】,东仓变压器,雷李庄变压器,马东北地变压器【纯农排变】,韩庄水变压器【纯农排变】,西仓变压器,河北鑫宏远冶金设备制造有限公司变压器,军庄新地变压器,西加录地变压器【纯农排变】,西务新地变压器,东义合变压器,李庄变压器512线,河北高鼓环保设备有限公司,东宋排灌变压器,石辛庄水4变压器,军庄北变压器,肖鱼池东变压器,李庄北变压器,李庄浇地变压器【纯农排变】,军庄北地变压器【纯农排变】,金东新变压器,东宋南水变压器,石辛庄地变压器【纯农排变】,东义合西南,高碑店市鸿旭金属粉末加工有限公司变压器,东务北变压器,张庄水变压器,李庄西变压器,西宋变压器,马东东变压器,马东南地变压器【纯农排变】,西务地4变压器【纯农排变】","powerOffReason":"【停电原因】由于肖鱼池分支移动公司变台上有树杈导致３５ＫＶ加录变电站１０ＫＶ杨家务５１２线路全线停电 【变更送电】因抢修进度加快原因，送电时间由１９：００变更为１８：００ 【发布渠道】通过９５５９８发布","powerOffId":"2020032013000110"},{"poweroffId":2020032013000092,"sgpoweroffId":null,"subsName":"","lineName":"10kV552三岗线","pubTranName":"另岗农排9台区【纯农排变】,滑岗综合7台区,另岗农排4台区【纯农排变】,滑岗农排5台区【纯农排变】,滑岗综合8台区,滑岗农排10台区【纯农排变】,另岗农排10台区【纯农排变】,滑岗农排6台区【纯农排变】,滑岗综合6台区,另岗综合3台区,另岗综合5台区,滑岗综合10台区,另岗综合6台区,滑岗小学综合11台区柱上变压器,滑岗农排9台区【纯农排变】,滑岗综合4台区,另岗综合2台区,滑岗农排7台区【纯农排变】,滑岗综合3台区,另岗综合1台区,","scope":"【影响街道/乡镇】南庄镇 【高危重要客户】无 【影响客户】滑岗村、另岗村","startTime":"2020-03-20 12:19:24","stopDate":"2020-03-20 13:30:00","orgNo":"1340616","typeCode":"电网故障停限电","poweroffArea":"【全线路停电】停滑岗综合3台区,另岗南农,滑岗综合10台区,另岗东农,另岗综合1台区,另岗农排1台区【纯农排变】,滑岗综合7台区,另岗农排4台区【纯农排变】,滑岗粉厂（西南）,滑岗农排9台区【纯农排变】,另岗综合5台区,滑岗农排5台区【纯农排变】,滑岗农排10台区【纯农排变】,宋岗供电所,另岗东南农,另岗农排10台区【纯农排变】,滑岗综合8台区,滑岗综合4台区,滑岗农排8台区【纯农排变】,另岗农排5台区【纯农排变】,另岗综合6台区,另岗综合2台区,另岗综合3台区,滑岗农排6台区【纯农排变】,滑岗粉厂,滑岗农排7台区【纯农排变】,滑岗农排4台区【纯农排变】,滑岗综合6台区,滑岗小学综合11台区柱上变压器,另岗农排9台区【纯农排变】","poweroffReason":"【停电原因】由于站外开关掉闸导致１１０ＫＶ南庄变电站１０ＫＶ三岗５５２线路全线停电【变更送电】因抢修进度加快原因，送电时间由２１：３０变更为１３：３０【发布渠道】通过９５５９８发布","powerTime":"2020-03-20 12:56:15","powerComm":"已送电","subsNo":"","lineNo":"","tgNo":"","tgName":null,"infoStatus":"1","orgName":"国网蠡县供电公司","typeName":null,"infoStatusName":null,"dateDay":null,"orgNos":null,"nowTime":null,"countyName":null,"streetName":null,"villageName":null,"roadName":null,"communityName":null,"tranName":null,"sdLineName":null,"cityCode":"1340616","cityName":"国网蠡县供电公司","provinceCode":null,"stopTime":"2020-03-20 13:30:00","powerType":"全部","powerOffArea":"【全线路停电】停滑岗综合3台区,另岗南农,滑岗综合10台区,另岗东农,另岗综合1台区,另岗农排1台区【纯农排变】,滑岗综合7台区,另岗农排4台区【纯农排变】,滑岗粉厂（西南）,滑岗农排9台区【纯农排变】,另岗综合5台区,滑岗农排5台区【纯农排变】,滑岗农排10台区【纯农排变】,宋岗供电所,另岗东南农,另岗农排10台区【纯农排变】,滑岗综合8台区,滑岗综合4台区,滑岗农排8台区【纯农排变】,另岗农排5台区【纯农排变】,另岗综合6台区,另岗综合2台区,另岗综合3台区,滑岗农排6台区【纯农排变】,滑岗粉厂,滑岗农排7台区【纯农排变】,滑岗农排4台区【纯农排变】,滑岗综合6台区,滑岗小学综合11台区柱上变压器,另岗农排9台区【纯农排变】","powerOffReason":"【停电原因】由于站外开关掉闸导致１１０ＫＶ南庄变电站１０ＫＶ三岗５５２线路全线停电【变更送电】因抢修进度加快原因，送电时间由２１：３０变更为１３：３０【发布渠道】通过９５５９８发布","powerOffId":"2020032013000092"},{"poweroffId":2020032013000084,"sgpoweroffId":null,"subsName":"","lineName":"10kV东闾北一街530线","pubTranName":"1东吕三街内5,","scope":"【影响街道/乡镇】东吕乡 【高危重要客户】无 【影响客户】东吕三街村","startTime":"2020-03-20 11:19:23","stopDate":"2020-03-20 13:20:00","orgNo":"1340618","typeCode":"电网故障停限电","poweroffArea":"【单台区停电】停1东吕三街内5","poweroffReason":"【停电原因】由于低压线断导致１１０ＫＶ东闾变电站１０ＫＶ东闾北一街５３０线路１东吕三街内５号公变台区停电 【变更送电】因抢修进度加快原因，送电时间由１７：００变更为１３：２０ 【发布渠道】通过９５５９８发布","powerTime":"2020-03-20 12:46:58","powerComm":"刘丰收通知已送电","subsNo":"","lineNo":"","tgNo":"","tgName":null,"infoStatus":"1","orgName":"国网清苑县供电公司","typeName":null,"infoStatusName":null,"dateDay":null,"orgNos":null,"nowTime":null,"countyName":null,"streetName":null,"villageName":null,"roadName":null,"communityName":null,"tranName":null,"sdLineName":null,"cityCode":"1340618","cityName":"国网清苑县供电公司","provinceCode":null,"stopTime":"2020-03-20 13:20:00","powerType":"全部","powerOffArea":"【单台区停电】停1东吕三街内5","powerOffReason":"【停电原因】由于低压线断导致１１０ＫＶ东闾变电站１０ＫＶ东闾北一街５３０线路１东吕三街内５号公变台区停电 【变更送电】因抢修进度加快原因，送电时间由１７：００变更为１３：２０ 【发布渠道】通过９５５９８发布","powerOffId":"2020032013000084"}],"pageModel":{"pageNow":235,"totalCount":10973,"totalPage":1098,"tableRows":0,"pageCount":10,"beginCount":2340},"isExperi":"1"}