{"message":"","today":"2020-06-15","seleList":[{"poweroffId":2020031913000596,"sgpoweroffId":null,"subsName":"","lineName":"10kV523七堡线","pubTranName":"七堡公用照明9台区,七堡公用照明16台区,七堡村公用照明2台区,七堡公用照明11台区,七堡村公用照明1台区,七堡公用照明8台区,七堡公用照明15台区,","scope":"【影响街道/乡镇】高蓬镇【高危重要客户】无【影响客户】七堡","startTime":"2020-03-30 07:00:00","stopDate":"2020-03-30 17:00:00","orgNo":"1340610","typeCode":"计划停电","poweroffArea":"【分支停电】停七堡公用照明8台区,七堡公用照明15台区,七堡公用照明9台区,七堡公用照明16台区,七堡村公用照明2台区,七堡公用照明11台区,七堡村公用照明1台区","poweroffReason":"【停电原因】由于更换电杆导致１１０ＫＶ李亲顾变电站１０ＫＶ５２３七堡线路主干８１号杆１４号隔离开关以下线路停电 【变更送电】无 【发布渠道】河北省定州市定州日报第三版（２０２０年０３月２０日）","powerTime":"2020-03-30 16:55:31","powerComm":"已送电","subsNo":"","lineNo":"","tgNo":"","tgName":null,"infoStatus":"1","orgName":"国网定州市供电公司","typeName":null,"infoStatusName":null,"dateDay":null,"orgNos":null,"nowTime":null,"countyName":null,"streetName":null,"villageName":null,"roadName":null,"communityName":null,"tranName":null,"sdLineName":null,"cityCode":"1340610","cityName":"国网定州市供电公司","provinceCode":null,"stopTime":"2020-03-30 17:00:00","powerType":"全部","powerOffArea":"【分支停电】停七堡公用照明8台区,七堡公用照明15台区,七堡公用照明9台区,七堡公用照明16台区,七堡村公用照明2台区,七堡公用照明11台区,七堡村公用照明1台区","powerOffReason":"【停电原因】由于更换电杆导致１１０ＫＶ李亲顾变电站１０ＫＶ５２３七堡线路主干８１号杆１４号隔离开关以下线路停电 【变更送电】无 【发布渠道】河北省定州市定州日报第三版（２０２０年０３月２０日）","powerOffId":"2020031913000596"},{"poweroffId":2020031913000592,"sgpoweroffId":null,"subsName":"","lineName":"方城514","pubTranName":"方城村2#,南胡解村2#,城角村1#,燕子村3#,北胡解村1#,百福村1#,燕子村4#,方城村1#,方城村5#,燕子村1#,大胡解村2#,百福村8#,百福村9#,百福村7#,大胡解村3#,军营村1#,百福村10#,百福村3#,城角村5#,大胡解村1#,百福村6#【纯农排变】,百福村2#,百福村11#,燕子村5#,","scope":"【影响街道/乡镇】高陌乡、高村乡【高危重要客户】无【影响客户】城角村、军营村、大胡解村、百福村、燕子村、方城村、南胡解村、西沈村、北胡解村","startTime":"2020-03-19 15:15:00","stopDate":"2020-03-19 16:20:00","orgNo":"1340625","typeCode":"电网故障停限电","poweroffArea":"【全线路停电】停城角村3#【纯农排变】,军营村2#,大胡解村2#,百福村2#,军营村1#,燕子村3#,百福村4#【纯农排变】,方城村4#【纯农排变】,百福村7#,南胡解村1#,河北惠东预制混凝土制造有限公司变压器,燕子村4#,百福村11#,百福村1#,西沈村3#【纯农排变】,方城村5#,燕子村1#,北胡解村1#,南胡解村2#,北胡解村2#,百福村9#,方城村2#,城角村孙志辉250KVA,方城村3#【纯农排变】,大胡解村4#,大胡解村1#,燕子村5#,百福村10#,河北惠东房地产开发有限公司变压器,城角村4#,百福村3#,百福中学,大胡解村3#,燕子村2#,百福村6#【纯农排变】,方城村1#,城角村1#,城角村5#,百福村8#,百福村5#【纯农排变】,城角村2#【纯农排变】","poweroffReason":"【停电原因】由于线路接地导致３５ＫＶ高陌变电站方城５１４线路全线停电【变更送电】由于抢修进度加快原因，送电时间由１８：００变更为１６：２０【发布渠道】通过９５５９８发布","powerTime":"2020-03-19 15:51:50","powerComm":"已送电","subsNo":"","lineNo":"","tgNo":"","tgName":null,"infoStatus":"1","orgName":"国网易县供电公司","typeName":null,"infoStatusName":null,"dateDay":null,"orgNos":null,"nowTime":null,"countyName":null,"streetName":null,"villageName":null,"roadName":null,"communityName":null,"tranName":null,"sdLineName":null,"cityCode":"1340625","cityName":"国网易县供电公司","provinceCode":null,"stopTime":"2020-03-19 16:20:00","powerType":"全部","powerOffArea":"【全线路停电】停城角村3#【纯农排变】,军营村2#,大胡解村2#,百福村2#,军营村1#,燕子村3#,百福村4#【纯农排变】,方城村4#【纯农排变】,百福村7#,南胡解村1#,河北惠东预制混凝土制造有限公司变压器,燕子村4#,百福村11#,百福村1#,西沈村3#【纯农排变】,方城村5#,燕子村1#,北胡解村1#,南胡解村2#,北胡解村2#,百福村9#,方城村2#,城角村孙志辉250KVA,方城村3#【纯农排变】,大胡解村4#,大胡解村1#,燕子村5#,百福村10#,河北惠东房地产开发有限公司变压器,城角村4#,百福村3#,百福中学,大胡解村3#,燕子村2#,百福村6#【纯农排变】,方城村1#,城角村1#,城角村5#,百福村8#,百福村5#【纯农排变】,城角村2#【纯农排变】","powerOffReason":"【停电原因】由于线路接地导致３５ＫＶ高陌变电站方城５１４线路全线停电【变更送电】由于抢修进度加快原因，送电时间由１８：００变更为１６：２０【发布渠道】通过９５５９８发布","powerOffId":"2020031913000592"},{"poweroffId":2020031913000585,"sgpoweroffId":null,"subsName":"","lineName":"汇通线534","pubTranName":"东盛李家营变压器,东盛高镇西变压器,东盛柳屯西北变压器,d李家营东台,苏家务04号变压器,东盛李家营北变压器,东盛温屯南地变压器,东盛办事处柳家屯变压器,苏家务01号变压器,东盛高镇新变压器,东盛高镇北变压器,东盛高镇东变压器,东盛柳屯西变压器,东盛柳屯新架,东盛柳屯南变压器,高镇中变,东盛罗家营公变,苏家务02号变压器,东盛龙赵庄地变压器【纯农排变】,高镇新2变,苏家务03号变压器,苏家务05号变压器,东盛柳屯北变压器,东盛柳屯西地变压器,东盛温屯东地变压器,","scope":"【影响街道/乡镇】东盛办事处 【高危重要客户】无 【影响客户】李家营村、高镇村、苏家务村、中路安公司、蔬菜种子公司、世纪小学、建设局、殡仪管理所、众营物业、麻家营（部分）","startTime":"2020-03-19 15:13:56","stopDate":"2020-03-19 16:00:00","orgNo":"1340612","typeCode":"电网故障停限电","poweroffArea":"【全线路停电】停杨景坤,蔬菜种子公司,汇通图腾国际物流有限公司2号变压器,河北中格尚木木业有限公司,东盛李家营变压器,高碑店市三义厚再生水建设有限公司2,汇通图腾国际物流有限公司,东盛柳屯北变压器,高碑店市城市管理综合行政执法局#2,汇通图腾国际物流有限公司533,高碑店市建设局变压器,高碑店市三义厚再生水建设有限公司,定兴县宏升建材销售部变压器,0387451512-河北英泰环境工程有限公司-专变-219725347-河北英泰环境工程有限公司534线路变压器,苏家务04号变压器,0387451512-河北英泰环境工程有限公司-专变-219725350-河北英泰环境工程有限公司534线路2号变压器,东盛李家营北变压器,东盛温屯南地变压器,天阔临变南,东盛龙赵庄地变压器【纯农排变】,高碑店市城市管理综合执法局#2,苏家务01号变压器,东盛高镇新变压器,高碑店市城市管理综合执法局#1,柳屯面粉厂,汇通路桥桥梁公司,东盛高镇北变压器,东盛高镇东变压器,0712290629-河北鑫宏源印刷包装有限责任公司04,东盛苏家务地变压器【纯农排变】,赵少强,0711281343-河北鑫宏源印刷包装有限责任公司03,东盛兴发变压器,河北省高碑店市殡葬管理所,高碑店市城市管理综合行政执法局#1,高碑店市华强机械制造有限公司变压器,东盛柳屯西变压器,0387437518-河北雄领炉料制造有限公司-专变-45274571-义青工业辅料厂,东盛柳屯新架,高碑店市佰特商贸有限公司2变压器,东盛柳屯南变压器,高碑店市震源橡胶模具加工厂变压器,高碑店市路灯管理办公室,高碑店市佰特商贸有限公司1变压器,高镇中变,汇通图腾国际物流有限公司1号变压器,河北东奥建筑工程有限公司高碑店分公司,东盛罗家营公变,东盛柳屯排灌变压器【纯农排变】,苏家务02号变压器,高镇新2变,0706418143-高碑店市中玻玻璃有限公司变压器01,东盛柳屯西地变压器,东盛温屯东地变压器,苏家务03号变压器,苏家务05号变压器,东盛高镇西变压器,东盛柳屯西北变压器,东盛办事处柳家屯变压器,河北中路安交通科技有限公司,姬金华,河北鑫宏源印刷包装有限责任公司800,河北鑫宏源印刷包装有限责任公司01,0708293793-河北鑫宏源印刷包装有限责任公司02,d李家营东台","poweroffReason":"【停电原因】由于中路安公司着火导致１１０ＫＶ马庄变电站１０ＫＶ汇通５３４线路全线停电 【变更送电】因抢修进度加快原因，送电时间由２１：００变更为１６：００ 【发布渠道】通过９５５９８发布","powerTime":"2020-03-19 15:46:02","powerComm":"已送电","subsNo":"","lineNo":"","tgNo":"","tgName":null,"infoStatus":"1","orgName":"国网高碑店市供电公司","typeName":null,"infoStatusName":null,"dateDay":null,"orgNos":null,"nowTime":null,"countyName":null,"streetName":null,"villageName":null,"roadName":null,"communityName":null,"tranName":null,"sdLineName":null,"cityCode":"1340612","cityName":"国网高碑店市供电公司","provinceCode":null,"stopTime":"2020-03-19 16:00:00","powerType":"全部","powerOffArea":"【全线路停电】停杨景坤,蔬菜种子公司,汇通图腾国际物流有限公司2号变压器,河北中格尚木木业有限公司,东盛李家营变压器,高碑店市三义厚再生水建设有限公司2,汇通图腾国际物流有限公司,东盛柳屯北变压器,高碑店市城市管理综合行政执法局#2,汇通图腾国际物流有限公司533,高碑店市建设局变压器,高碑店市三义厚再生水建设有限公司,定兴县宏升建材销售部变压器,0387451512-河北英泰环境工程有限公司-专变-219725347-河北英泰环境工程有限公司534线路变压器,苏家务04号变压器,0387451512-河北英泰环境工程有限公司-专变-219725350-河北英泰环境工程有限公司534线路2号变压器,东盛李家营北变压器,东盛温屯南地变压器,天阔临变南,东盛龙赵庄地变压器【纯农排变】,高碑店市城市管理综合执法局#2,苏家务01号变压器,东盛高镇新变压器,高碑店市城市管理综合执法局#1,柳屯面粉厂,汇通路桥桥梁公司,东盛高镇北变压器,东盛高镇东变压器,0712290629-河北鑫宏源印刷包装有限责任公司04,东盛苏家务地变压器【纯农排变】,赵少强,0711281343-河北鑫宏源印刷包装有限责任公司03,东盛兴发变压器,河北省高碑店市殡葬管理所,高碑店市城市管理综合行政执法局#1,高碑店市华强机械制造有限公司变压器,东盛柳屯西变压器,0387437518-河北雄领炉料制造有限公司-专变-45274571-义青工业辅料厂,东盛柳屯新架,高碑店市佰特商贸有限公司2变压器,东盛柳屯南变压器,高碑店市震源橡胶模具加工厂变压器,高碑店市路灯管理办公室,高碑店市佰特商贸有限公司1变压器,高镇中变,汇通图腾国际物流有限公司1号变压器,河北东奥建筑工程有限公司高碑店分公司,东盛罗家营公变,东盛柳屯排灌变压器【纯农排变】,苏家务02号变压器,高镇新2变,0706418143-高碑店市中玻玻璃有限公司变压器01,东盛柳屯西地变压器,东盛温屯东地变压器,苏家务03号变压器,苏家务05号变压器,东盛高镇西变压器,东盛柳屯西北变压器,东盛办事处柳家屯变压器,河北中路安交通科技有限公司,姬金华,河北鑫宏源印刷包装有限责任公司800,河北鑫宏源印刷包装有限责任公司01,0708293793-河北鑫宏源印刷包装有限责任公司02,d李家营东台","powerOffReason":"【停电原因】由于中路安公司着火导致１１０ＫＶ马庄变电站１０ＫＶ汇通５３４线路全线停电 【变更送电】因抢修进度加快原因，送电时间由２１：００变更为１６：００ 【发布渠道】通过９５５９８发布","powerOffId":"2020031913000585"},{"poweroffId":2020031913000547,"sgpoweroffId":null,"subsName":"","lineName":"江村线514","pubTranName":"东江村光1,西江村光19,西江村光6,东江村光7,西江村光13,东江村光14,西江村光17,东江村光13,西江村光2,东江村光16,西江村光4,东江村光17,东江村光21,西江村光9,东江村光9,西江村光7,西江村光5,西江村光1,东江村光2,西江村光11,东江村光11,西江村光3,西江村光15,西江村光18,东江光15,东江村光20,东江村光8,西江村光21,东江村光19,西江村排10【纯农排变】,东江村光6,东江村光5,东江村光10,西江村光10,东江村光4,西江村光12,西江村光8,西江村光20,西江村光14,西江村光16,东江村光18,东江村光12,","scope":"【影响街道/乡镇】柳卓乡 【高危重要客户】无 【影响客户】西江村、东江村、东江面粉厂、智同药厂、五合水泥制品厂、马庄、八街村部分用户、枣园、天赐康种植园、佰峰农业","startTime":"2020-03-19 13:51:57","stopDate":"2020-03-19 16:00:00","orgNo":"1340609","typeCode":"电网故障停限电","poweroffArea":"【全线路停电】停八街排4【纯农排变】,佰丰农业-250,东江村光21,西江村光3,东江村光6,东江村光4,西江村光19,西江村光21,东江村光19,西江村光11,东江村排7【纯农排变】,东江村排5【纯农排变】,西江村光15,0606362481-*河北智同生物制药有限公司-专变-127319217-智同药厂1号变,西江村排1【纯农排变】,东江村光20,东江村光8,西江村排10【纯农排变】,东江村光2,西江村光4,东江村光17,西江村光9,东江村光11,五合水泥制品,东江村光16,西江村光20,西江村光14,东江村大棚1【纯农排变】,西江村光16,东江村光5,西江村光1,东江村光9,西江村排8【纯农排变】,枣源,西江村光7,0691875244-定兴县柳卓乡西江教学点-专变-235630443-西江村教学点-200,东江村排6【纯农排变】,西江村光5,西江村排9【纯农排变】,东江村大棚2【纯农排变】,西江村光12,西江村光2,西江村排7【纯农排变】,东江光15,西江村混5,西江村排3【纯农排变】,东江村光18,西江村光10,天赐康种植园-200,东江村光12,东江村光1,西江村排6【纯农排变】,西江村排4【纯农排变】,西江村光6,东江村光7,西江村光17,东江村排3【纯农排变】,东江村光13,东江村排4【纯农排变】,东江村光10,马庄排3-2【纯农排变】,西江村光8,西江村排2【纯农排变】,东江村面粉厂,西江村光18,东江村光14,西江村光13,0606362481-*河北智同生物制药有限公司-专变-127322019-2号变","poweroffReason":"【停电原因】由于主干２７号杆铁丝搭担导致３５ＫＶ固城变电站江村线５１４线路全线停电 【变更送电】因抢修进度加快原因，送电时间由２０：００变更为１６：００ 【发布渠道】通过９５５９８发布","powerTime":"2020-03-19 15:25:20","powerComm":"已送电","subsNo":"","lineNo":"","tgNo":"","tgName":null,"infoStatus":"1","orgName":"国网定兴县供电公司","typeName":null,"infoStatusName":null,"dateDay":null,"orgNos":null,"nowTime":null,"countyName":null,"streetName":null,"villageName":null,"roadName":null,"communityName":null,"tranName":null,"sdLineName":null,"cityCode":"1340609","cityName":"国网定兴县供电公司","provinceCode":null,"stopTime":"2020-03-19 16:00:00","powerType":"全部","powerOffArea":"【全线路停电】停八街排4【纯农排变】,佰丰农业-250,东江村光21,西江村光3,东江村光6,东江村光4,西江村光19,西江村光21,东江村光19,西江村光11,东江村排7【纯农排变】,东江村排5【纯农排变】,西江村光15,0606362481-*河北智同生物制药有限公司-专变-127319217-智同药厂1号变,西江村排1【纯农排变】,东江村光20,东江村光8,西江村排10【纯农排变】,东江村光2,西江村光4,东江村光17,西江村光9,东江村光11,五合水泥制品,东江村光16,西江村光20,西江村光14,东江村大棚1【纯农排变】,西江村光16,东江村光5,西江村光1,东江村光9,西江村排8【纯农排变】,枣源,西江村光7,0691875244-定兴县柳卓乡西江教学点-专变-235630443-西江村教学点-200,东江村排6【纯农排变】,西江村光5,西江村排9【纯农排变】,东江村大棚2【纯农排变】,西江村光12,西江村光2,西江村排7【纯农排变】,东江光15,西江村混5,西江村排3【纯农排变】,东江村光18,西江村光10,天赐康种植园-200,东江村光12,东江村光1,西江村排6【纯农排变】,西江村排4【纯农排变】,西江村光6,东江村光7,西江村光17,东江村排3【纯农排变】,东江村光13,东江村排4【纯农排变】,东江村光10,马庄排3-2【纯农排变】,西江村光8,西江村排2【纯农排变】,东江村面粉厂,西江村光18,东江村光14,西江村光13,0606362481-*河北智同生物制药有限公司-专变-127322019-2号变","powerOffReason":"【停电原因】由于主干２７号杆铁丝搭担导致３５ＫＶ固城变电站江村线５１４线路全线停电 【变更送电】因抢修进度加快原因，送电时间由２０：００变更为１６：００ 【发布渠道】通过９５５９８发布","powerOffId":"2020031913000547"},{"poweroffId":2020031913000540,"sgpoweroffId":null,"subsName":"","lineName":"10KV色南515线","pubTranName":"小义新架北台变压器,高碑店市正德昊远房地产开发有限公司2变压器,宫程东变压器,张六庄大义村东台变压器,色北北台柱上变压器,张六庄王庄小区变台,张六庄兴隆庄村内新架变压器,姚庄变压器,兴隆庄小区,大义中台变压器,王庄变压器1,姚庄新架南台变压器,张六庄兴隆庄中2变压器,张六庄色南村南台变压器,南宫井东南台变压器,马庄变压器,马庄南地变压器,石庄新架北台,张六庄色北变压器,宫井营东2变压器,李云台1号地变压器【纯农排变】,","scope":"【影响街道/乡镇】张六庄乡 【高危重要客户】无 【影响客户】李云台村（部分）、永安庄村（部分）、王庄村、兴隆庄小区、石庄村、兴隆庄村、苗圃场、王庄水厂、国义水泥制品厂、银迈畜牧养殖场、南宫井中学、娃哈哈水厂、刘艳林、崔俊才、南宫井（部分）、色北村、色西村、色南村、黄街村、大义村、小义村、马庄村、宫井营（部分）、姚庄村、兴隆庄（部分）","startTime":"2020-03-19 13:41:39","stopDate":"2020-03-19 15:00:00","orgNo":"1340612","typeCode":"电网故障停限电","poweroffArea":"【全线路停电】停张六庄兴隆庄东北地变压器【纯农排变】,张六庄永安庄东地2变压器【纯农排变】,高碑店市张六庄乡南宫井小学,变压器,张六庄色南村南台变压器,张六庄南宫井张地2变压器【纯农排变】,张六庄南宫井张地1变压器【纯农排变】,张六庄大义西南地变压器【纯农排变】,高碑店市张六庄乡兴隆庄小学变压器,张六庄色北变压器,宫井营东2变压器,石庄地变压器【纯农排变】,王庄排灌2变压器【纯农排变】,张六庄兴隆庄东南地变压器【纯农排变】,姚庄地1变压器【纯农排变】,张六庄南宫井南地变压器【纯农排变】,小义变压器,石庄变压器,张六庄兴隆庄村内新架变压器,苗莆厂,李云台1号地变压器【纯农排变】,高碑店市同茂家庭农场,张六庄色南西地变压器【纯农排变】,张六庄色南西南地变压器【纯农排变】,王庄变压器1,姚庄新架南台变压器,刘艳林,张六庄色南南地变压器【纯农排变】,张六庄大义地变压器【纯农排变】,娃哈哈厂,兴隆庄西北地变压器【纯农排变】,宫井营程东地2变压器【纯农排变】,马庄南地变压器,李云台地变压器【纯农排变】,高碑店市正德昊远房地产开发有限公司2变压器,张六庄色西变压器,南宫井东地变压器【纯农排变】,宫程东变压器,王庄地变压器【纯农排变】,张六庄永安庄东变压器,马庄变压器,高碑店市水利局变压器,小义新架北台变压器,张六庄王庄小区变台,张六庄小义东地变压器【纯农排变】,张六庄色南东南地变压器【纯农排变】,高碑店市张六庄乡色南小学变压器,高碑店市嘉利业塑胶有限公司变压器,张六庄色北东南地变压器【纯农排变】,张六庄大义村东台变压器,张六庄黄街地变压器【纯农排变】,张六庄永安庄东地变压器【纯农排变】,张六庄兴隆庄中变压器,张六庄色北西地变压器【纯农排变】,大义西北地变压器【纯农排变】,张六庄兴隆庄中2变压器,张六庄黄街变压器,李云台东南地变压器【纯农排变】,姚庄地2变压器【纯农排变】,张六庄兴隆庄西地1变压器【纯农排变】,张六庄色西地变压器【纯农排变】,小义2队变压器【纯农排变】,张六庄兴隆庄东变压器,张六庄色南村变压器,南宫井队地变压器【纯农排变】,兴隆庄小区,姚庄变压器,张六庄兴隆庄西地变压器【纯农排变】,大义中台变压器,石庄新架北台,高碑店市银迈畜禽养殖有限公司变压器,色北南台变压器,张六庄李云台东变压器,张六庄色南北地变压器【纯农排变】,张六庄色北地变压器【纯农排变】,宫井营东地变压器【纯农排变】,马庄地变压器【纯农排变】,张六庄小义南地变压器【纯农排变】,色北北台柱上变压器,南宫井东南台变压器,张六庄大义变压器","poweroffReason":"【停电原因】由于林场刨树扫线导致３５ＫＶ久安变电站１０ＫＶ色南５１５线路全线停电 【变更送电】因抢修进度加快原因，送电时间由１９：００变更为１５：００ 【发布渠道】通过９５５９８发布","powerTime":"2020-03-19 14:23:39","powerComm":"已送电","subsNo":"","lineNo":"","tgNo":"","tgName":null,"infoStatus":"1","orgName":"国网高碑店市供电公司","typeName":null,"infoStatusName":null,"dateDay":null,"orgNos":null,"nowTime":null,"countyName":null,"streetName":null,"villageName":null,"roadName":null,"communityName":null,"tranName":null,"sdLineName":null,"cityCode":"1340612","cityName":"国网高碑店市供电公司","provinceCode":null,"stopTime":"2020-03-19 15:00:00","powerType":"全部","powerOffArea":"【全线路停电】停张六庄兴隆庄东北地变压器【纯农排变】,张六庄永安庄东地2变压器【纯农排变】,高碑店市张六庄乡南宫井小学,变压器,张六庄色南村南台变压器,张六庄南宫井张地2变压器【纯农排变】,张六庄南宫井张地1变压器【纯农排变】,张六庄大义西南地变压器【纯农排变】,高碑店市张六庄乡兴隆庄小学变压器,张六庄色北变压器,宫井营东2变压器,石庄地变压器【纯农排变】,王庄排灌2变压器【纯农排变】,张六庄兴隆庄东南地变压器【纯农排变】,姚庄地1变压器【纯农排变】,张六庄南宫井南地变压器【纯农排变】,小义变压器,石庄变压器,张六庄兴隆庄村内新架变压器,苗莆厂,李云台1号地变压器【纯农排变】,高碑店市同茂家庭农场,张六庄色南西地变压器【纯农排变】,张六庄色南西南地变压器【纯农排变】,王庄变压器1,姚庄新架南台变压器,刘艳林,张六庄色南南地变压器【纯农排变】,张六庄大义地变压器【纯农排变】,娃哈哈厂,兴隆庄西北地变压器【纯农排变】,宫井营程东地2变压器【纯农排变】,马庄南地变压器,李云台地变压器【纯农排变】,高碑店市正德昊远房地产开发有限公司2变压器,张六庄色西变压器,南宫井东地变压器【纯农排变】,宫程东变压器,王庄地变压器【纯农排变】,张六庄永安庄东变压器,马庄变压器,高碑店市水利局变压器,小义新架北台变压器,张六庄王庄小区变台,张六庄小义东地变压器【纯农排变】,张六庄色南东南地变压器【纯农排变】,高碑店市张六庄乡色南小学变压器,高碑店市嘉利业塑胶有限公司变压器,张六庄色北东南地变压器【纯农排变】,张六庄大义村东台变压器,张六庄黄街地变压器【纯农排变】,张六庄永安庄东地变压器【纯农排变】,张六庄兴隆庄中变压器,张六庄色北西地变压器【纯农排变】,大义西北地变压器【纯农排变】,张六庄兴隆庄中2变压器,张六庄黄街变压器,李云台东南地变压器【纯农排变】,姚庄地2变压器【纯农排变】,张六庄兴隆庄西地1变压器【纯农排变】,张六庄色西地变压器【纯农排变】,小义2队变压器【纯农排变】,张六庄兴隆庄东变压器,张六庄色南村变压器,南宫井队地变压器【纯农排变】,兴隆庄小区,姚庄变压器,张六庄兴隆庄西地变压器【纯农排变】,大义中台变压器,石庄新架北台,高碑店市银迈畜禽养殖有限公司变压器,色北南台变压器,张六庄李云台东变压器,张六庄色南北地变压器【纯农排变】,张六庄色北地变压器【纯农排变】,宫井营东地变压器【纯农排变】,马庄地变压器【纯农排变】,张六庄小义南地变压器【纯农排变】,色北北台柱上变压器,南宫井东南台变压器,张六庄大义变压器","powerOffReason":"【停电原因】由于林场刨树扫线导致３５ＫＶ久安变电站１０ＫＶ色南５１５线路全线停电 【变更送电】因抢修进度加快原因，送电时间由１９：００变更为１５：００ 【发布渠道】通过９５５９８发布","powerOffId":"2020031913000540"},{"poweroffId":2020031913000503,"sgpoweroffId":null,"subsName":"","lineName":"10kV任王力线512","pubTranName":"1任王力内2,","scope":"【影响街道/乡镇】李庄乡 【高危重要客户】无 【影响客户】任王力","startTime":"2020-03-19 12:10:28","stopDate":"2020-03-19 14:30:00","orgNo":"1340618","typeCode":"电网故障停限电","poweroffArea":"【单台区停电】停1任王力内2","poweroffReason":"【停电原因】由于低压线断导致３５ＫＶ李庄变电站１０ＫＶ任王力线５１２线路１任王力内２号公变台区停电 【变更送电】因抢修进度加快原因，送电时间由１８：００变更为１４：３０ 【发布渠道】通过９５５９８发布","powerTime":"2020-03-19 14:00:08","powerComm":"史红亮通知已送电","subsNo":"","lineNo":"","tgNo":"","tgName":null,"infoStatus":"1","orgName":"国网清苑县供电公司","typeName":null,"infoStatusName":null,"dateDay":null,"orgNos":null,"nowTime":null,"countyName":null,"streetName":null,"villageName":null,"roadName":null,"communityName":null,"tranName":null,"sdLineName":null,"cityCode":"1340618","cityName":"国网清苑县供电公司","provinceCode":null,"stopTime":"2020-03-19 14:30:00","powerType":"全部","powerOffArea":"【单台区停电】停1任王力内2","powerOffReason":"【停电原因】由于低压线断导致３５ＫＶ李庄变电站１０ＫＶ任王力线５１２线路１任王力内２号公变台区停电 【变更送电】因抢修进度加快原因，送电时间由１８：００变更为１４：３０ 【发布渠道】通过９５５９８发布","powerOffId":"2020031913000503"},{"poweroffId":2020031913000496,"sgpoweroffId":null,"subsName":"","lineName":"10kV刘指挥线511","pubTranName":"1曹庄内16,","scope":"【影响街道/乡镇】阳城镇 【高危重要客户】无 【影响客户】曹庄","startTime":"2020-03-19 11:57:47","stopDate":"2020-03-19 13:30:00","orgNo":"1340618","typeCode":"电网故障停限电","poweroffArea":"【单台区停电】停1曹庄内16","poweroffReason":"【停电原因】由于低压线断导致３５ＫＶ大魏庄变电站１０ＫＶ刘指挥线５１１线路１曹庄内１６号公变台区停电 【变更送电】因抢修进度加快原因，送电时间由１８：００变更为１３：３０ 【发布渠道】通过９５５９８发布","powerTime":"2020-03-19 13:08:52","powerComm":"许文乐通知已送电","subsNo":"","lineNo":"","tgNo":"","tgName":null,"infoStatus":"1","orgName":"国网清苑县供电公司","typeName":null,"infoStatusName":null,"dateDay":null,"orgNos":null,"nowTime":null,"countyName":null,"streetName":null,"villageName":null,"roadName":null,"communityName":null,"tranName":null,"sdLineName":null,"cityCode":"1340618","cityName":"国网清苑县供电公司","provinceCode":null,"stopTime":"2020-03-19 13:30:00","powerType":"全部","powerOffArea":"【单台区停电】停1曹庄内16","powerOffReason":"【停电原因】由于低压线断导致３５ＫＶ大魏庄变电站１０ＫＶ刘指挥线５１１线路１曹庄内１６号公变台区停电 【变更送电】因抢修进度加快原因，送电时间由１８：００变更为１３：３０ 【发布渠道】通过９５５９８发布","powerOffId":"2020031913000496"},{"poweroffId":2020031913000492,"sgpoweroffId":null,"subsName":"","lineName":"10kV515支曹线","pubTranName":"0012883934南杏树中区变压器,南杏树中1变压器,南杏树中2区变压器,0000005393南杏树东变压器,0000006059南杏树东2变压器,南杏树东3区变压器,0012997390南杏树村稻田农井变压器【纯农排变】,0469462917南杏树农东变压器,0469463343南杏树农灌3变压器,南杏树农2变压器,南杏树农4区变压器【纯农排变】,0469463617南杏树农北变压器,","scope":"【影响街道/乡镇】东旺乡【高危重要客户】无【影响客户】南杏树村","startTime":"2020-03-28 06:30:00","stopDate":"2020-03-28 17:30:00","orgNo":"1340619","typeCode":"计划停电","poweroffArea":"【分支停电】停0012883934南杏树中区变压器,南杏树中1变压器,南杏树中2区变压器,0000005393南杏树东变压器,0000006059南杏树东2变压器,南杏树东3区变压器,0012996921南杏树村村正东边农井变压器【纯农排变】,0012997390南杏树村稻田农井变压器【纯农排变】,0469462917南杏树农东变压器,0012996891南杏树村高台农井变压器【纯农排变】,0012996899南杏树村谷家坟农井变压器【纯农排变】,0012996905南杏树村于家坟农井变压器【纯农排变】,0469463343南杏树农灌3变压器,南杏树农2变压器,南杏树农4区变压器【纯农排变】,0469463617南杏树农北变压器","poweroffReason":"【停电原因】由于线路检修导致３５ＫＶ辛庄变电站１０ＫＶ５１５支曹线路南杏树支线００３号杆０２断路器以下停电【变更送电】无【发布渠道】保定市曲阳县电视台（０３月１９日至０３月２１日１８时至２０时之间）屏幕上方滚动","powerTime":"2020-03-28 17:18:27","powerComm":"已全部送电","subsNo":"","lineNo":"","tgNo":"","tgName":null,"infoStatus":"1","orgName":"国网曲阳县供电公司","typeName":null,"infoStatusName":null,"dateDay":null,"orgNos":null,"nowTime":null,"countyName":null,"streetName":null,"villageName":null,"roadName":null,"communityName":null,"tranName":null,"sdLineName":null,"cityCode":"1340619","cityName":"国网曲阳县供电公司","provinceCode":null,"stopTime":"2020-03-28 17:30:00","powerType":"全部","powerOffArea":"【分支停电】停0012883934南杏树中区变压器,南杏树中1变压器,南杏树中2区变压器,0000005393南杏树东变压器,0000006059南杏树东2变压器,南杏树东3区变压器,0012996921南杏树村村正东边农井变压器【纯农排变】,0012997390南杏树村稻田农井变压器【纯农排变】,0469462917南杏树农东变压器,0012996891南杏树村高台农井变压器【纯农排变】,0012996899南杏树村谷家坟农井变压器【纯农排变】,0012996905南杏树村于家坟农井变压器【纯农排变】,0469463343南杏树农灌3变压器,南杏树农2变压器,南杏树农4区变压器【纯农排变】,0469463617南杏树农北变压器","powerOffReason":"【停电原因】由于线路检修导致３５ＫＶ辛庄变电站１０ＫＶ５１５支曹线路南杏树支线００３号杆０２断路器以下停电【变更送电】无【发布渠道】保定市曲阳县电视台（０３月１９日至０３月２１日１８时至２０时之间）屏幕上方滚动","powerOffId":"2020031913000492"},{"poweroffId":2020031913000491,"sgpoweroffId":null,"subsName":"","lineName":"台北线513","pubTranName":"东邸村东3区变压器,北东郭东北农3变压器【纯农排变】,南东郭小学变压器,南东郭东1区变压器,东邸村小学变压器,邸村乡政府变压器,沙道村1区变压器,南东郭西南区变压器,东郭明德小学变压器,南东郭西1区变压器,东诸侯东南农变压器【纯农排变】,穆台北南农变压器,王台北村1区变压器,东邸村中学变压器,申台北变压器,北东郭北区,东诸侯西南农变压器【纯农排变】,雕刻小镇北园区变压器,北东郭小学变压器,沙道东区变压器,邸村卫生院变压器,东邸村中学2变压器,台北幼儿园变压器,北东郭北农1变压器,0000004716北东郭东区变压器,沙道西2区变压器,沙道西3区配电变压器,0000005433东邸村东区变压器,东邸村中区配电变压器,穆台北中区变压器,王台北小学变压器,北东郭北农变压器【纯农排变】,穆台北农灌变压器,东邸村小学2变压器,东邸村东2区变压器,","scope":"【影响街道/乡镇】邸村乡【高危重要客户】无【影响客户】王台北、南东郭、北东郭、东邸村、穆台北、沙道、申台北、文德、东诸侯南","startTime":"2020-03-27 02:00:00","stopDate":"2020-03-27 09:30:00","orgNo":"1340619","typeCode":"临时停电","poweroffArea":"【全线路停电】停王晓丽,王台北大理石雕刻厂,北东郭北农1变压器,曲阳县西郭大理石雕刻建材厂,曲阳县神雕雕塑有限公司,穆台北光明工艺雕刻厂,0000006429东诸侯南农变压器,曲阳县平栓石材加工厂变压器,曲阳县泽睿农机配件有限公司变压器,0000004716北东郭东区变压器,沙道西2区变压器,沙道西3区配电变压器,曲阳县双义石材雕刻厂变压器,0000005433东邸村东区变压器,南东郭刘占周,王台北小学变压器,曲阳县增道石材雕刻厂,穆台北三龙雕刻厂,0012918843王台北西北农变压器【纯农排变】,曲阳县中原雕刻石材厂,曲阳县艺仁雕刻厂变压器,曲阳县鹏远石材雕刻厂变压器,王台北村南,曲阳县隆盛艺术雕刻厂,申台北申志会,北东郭北农变压器【纯农排变】,王台北东农,王台北西,申台北申玉坡石板厂,河北省曲阳长城雕刻有限公司变压器,王台北开发区石材雕刻厂2,曲阳县园鑫石材加工厂变压器,穆台北农灌变压器,曲阳县华龙雕刻有限公司(3),曲阳县华龙雕刻有限公司(2),文德乡王台北农灌,穆台北艺林雕刻厂,曲阳县奇新石材销售部变压器,东邸村小学2变压器,东邸村东2区变压器,王台北王建功石材厂,曲阳县翠林工艺雕刻厂,曲阳县顺永石材雕刻厂变压器,东邸村东3区变压器,华通胶业,王立强,穆增民石板厂,曲阳县恒硕雕塑有限公司变压器,曲阳县中旺石材雕刻厂变压器,邢永强,王台北大理石雕刻厂30,曲阳县丰硕石材雕塑有限公司变压器001,曲阳县点铖石材有限公司变压器,东邸村中区配电变压器,穆台北中区变压器,曲阳县君友石材雕刻厂变压器,曲阳县永顺雕塑石材加工厂2,曲阳县会民石材雕刻厂,王台北开发区石材雕刻厂,曲阳县国鑫雕刻石材厂,曲阳县向亮石材雕刻厂,曲阳县侨圣雕刻有限公司,王增强加工厂,河北跃轩园林雕刻工程有限公司,曲阳县申台北同章石材雕刻厂,曲阳县茗盛石材雕刻厂变压器,北东郭东北农3变压器【纯农排变】,南东郭小学变压器,曲阳县中原雕刻石材有限公司变压器001,南东郭东1区变压器,邸村乡政府变压器,邢增道,沙道村1区变压器,南东郭西南区变压器,鹏超石材雕刻厂,张会龙石板厂（2）,申台北（申全喜）,曲阳县德华园林雕刻厂变压器,曲阳县奉华雕刻厂2,曲阳县兴泰石材雕刻厂变压器,曲阳县峰凯艺术雕刻厂变压器,曲阳县京曲农副产品有限公司变压器,曲阳县岩涛石材雕刻厂变压器,曲阳东亮石材雕刻厂变压器,曲阳县神雕雕塑有限公司002,河北省曲阳县台北工美雕刻厂,华冠石材雕刻厂,曲阳县恒通石材雕刻有限公司2,东郭明德小学变压器,南东郭西1区变压器,曲阳县国兴石材雕塑有限公司变压器,永庄石板厂,穆会明石板厂,张会龙石板厂（1）,曲阳县恒威石材经销部变压器,穆台北穆立浩,石艺有限公司,曲阳县神雕雕塑有限公司001,曲阳县明正石木雕刻厂变压器,曲阳县王台北大理石雕刻厂变压器,曲阳县鹏超石材雕刻厂1,曲阳县超磊工艺雕刻厂,曲阳县胜龙石材雕刻厂2,曲阳县康和石材雕刻厂变压器,曲阳县王少卿石材加工厂变压器,曲阳县华利雕刻石材有限公司1#,曲阳县华冠石材雕刻厂2,东诸侯东南农变压器【纯农排变】,穆台北张洪波1#,穆台北张洪波2#,曲阳县恒通石材雕刻厂,曲阳县全军石材加工销售处变压器,穆台北南农变压器,王台北村1区变压器,曲阳县颖硕石材雕刻厂变压器,穆法水,东邸村中学变压器,曲阳县磊达石材雕刻厂,天龙雕刻石材工艺雕刻厂1#,曲阳县王台北建筑工艺雕刻厂变压器,天龙雕刻石材工艺雕刻厂2#,申台北变压器,京磊石材雕塑有限公司,曲阳县长兴雕刻厂变压器,曲阳县龙坤工艺雕刻石材加工厂","poweroffReason":"【停电原因】由于线路检修导致３５ＫＶ邸村变电站１０ＫＶ台北５１３线路全线停电【变更送电】因工作未完工原因，送电时间由０８:００变更为０９:３０【发布渠道】通过９５５９８发布","powerTime":"2020-03-27 09:22:14","powerComm":"已送电","subsNo":"","lineNo":"","tgNo":"","tgName":null,"infoStatus":"1","orgName":"国网曲阳县供电公司","typeName":null,"infoStatusName":null,"dateDay":null,"orgNos":null,"nowTime":null,"countyName":null,"streetName":null,"villageName":null,"roadName":null,"communityName":null,"tranName":null,"sdLineName":null,"cityCode":"1340619","cityName":"国网曲阳县供电公司","provinceCode":null,"stopTime":"2020-03-27 09:30:00","powerType":"全部","powerOffArea":"【全线路停电】停王晓丽,王台北大理石雕刻厂,北东郭北农1变压器,曲阳县西郭大理石雕刻建材厂,曲阳县神雕雕塑有限公司,穆台北光明工艺雕刻厂,0000006429东诸侯南农变压器,曲阳县平栓石材加工厂变压器,曲阳县泽睿农机配件有限公司变压器,0000004716北东郭东区变压器,沙道西2区变压器,沙道西3区配电变压器,曲阳县双义石材雕刻厂变压器,0000005433东邸村东区变压器,南东郭刘占周,王台北小学变压器,曲阳县增道石材雕刻厂,穆台北三龙雕刻厂,0012918843王台北西北农变压器【纯农排变】,曲阳县中原雕刻石材厂,曲阳县艺仁雕刻厂变压器,曲阳县鹏远石材雕刻厂变压器,王台北村南,曲阳县隆盛艺术雕刻厂,申台北申志会,北东郭北农变压器【纯农排变】,王台北东农,王台北西,申台北申玉坡石板厂,河北省曲阳长城雕刻有限公司变压器,王台北开发区石材雕刻厂2,曲阳县园鑫石材加工厂变压器,穆台北农灌变压器,曲阳县华龙雕刻有限公司(3),曲阳县华龙雕刻有限公司(2),文德乡王台北农灌,穆台北艺林雕刻厂,曲阳县奇新石材销售部变压器,东邸村小学2变压器,东邸村东2区变压器,王台北王建功石材厂,曲阳县翠林工艺雕刻厂,曲阳县顺永石材雕刻厂变压器,东邸村东3区变压器,华通胶业,王立强,穆增民石板厂,曲阳县恒硕雕塑有限公司变压器,曲阳县中旺石材雕刻厂变压器,邢永强,王台北大理石雕刻厂30,曲阳县丰硕石材雕塑有限公司变压器001,曲阳县点铖石材有限公司变压器,东邸村中区配电变压器,穆台北中区变压器,曲阳县君友石材雕刻厂变压器,曲阳县永顺雕塑石材加工厂2,曲阳县会民石材雕刻厂,王台北开发区石材雕刻厂,曲阳县国鑫雕刻石材厂,曲阳县向亮石材雕刻厂,曲阳县侨圣雕刻有限公司,王增强加工厂,河北跃轩园林雕刻工程有限公司,曲阳县申台北同章石材雕刻厂,曲阳县茗盛石材雕刻厂变压器,北东郭东北农3变压器【纯农排变】,南东郭小学变压器,曲阳县中原雕刻石材有限公司变压器001,南东郭东1区变压器,邸村乡政府变压器,邢增道,沙道村1区变压器,南东郭西南区变压器,鹏超石材雕刻厂,张会龙石板厂（2）,申台北（申全喜）,曲阳县德华园林雕刻厂变压器,曲阳县奉华雕刻厂2,曲阳县兴泰石材雕刻厂变压器,曲阳县峰凯艺术雕刻厂变压器,曲阳县京曲农副产品有限公司变压器,曲阳县岩涛石材雕刻厂变压器,曲阳东亮石材雕刻厂变压器,曲阳县神雕雕塑有限公司002,河北省曲阳县台北工美雕刻厂,华冠石材雕刻厂,曲阳县恒通石材雕刻有限公司2,东郭明德小学变压器,南东郭西1区变压器,曲阳县国兴石材雕塑有限公司变压器,永庄石板厂,穆会明石板厂,张会龙石板厂（1）,曲阳县恒威石材经销部变压器,穆台北穆立浩,石艺有限公司,曲阳县神雕雕塑有限公司001,曲阳县明正石木雕刻厂变压器,曲阳县王台北大理石雕刻厂变压器,曲阳县鹏超石材雕刻厂1,曲阳县超磊工艺雕刻厂,曲阳县胜龙石材雕刻厂2,曲阳县康和石材雕刻厂变压器,曲阳县王少卿石材加工厂变压器,曲阳县华利雕刻石材有限公司1#,曲阳县华冠石材雕刻厂2,东诸侯东南农变压器【纯农排变】,穆台北张洪波1#,穆台北张洪波2#,曲阳县恒通石材雕刻厂,曲阳县全军石材加工销售处变压器,穆台北南农变压器,王台北村1区变压器,曲阳县颖硕石材雕刻厂变压器,穆法水,东邸村中学变压器,曲阳县磊达石材雕刻厂,天龙雕刻石材工艺雕刻厂1#,曲阳县王台北建筑工艺雕刻厂变压器,天龙雕刻石材工艺雕刻厂2#,申台北变压器,京磊石材雕塑有限公司,曲阳县长兴雕刻厂变压器,曲阳县龙坤工艺雕刻石材加工厂","powerOffReason":"【停电原因】由于线路检修导致３５ＫＶ邸村变电站１０ＫＶ台北５１３线路全线停电【变更送电】因工作未完工原因，送电时间由０８:００变更为０９:３０【发布渠道】通过９５５９８发布","powerOffId":"2020031913000491"},{"poweroffId":2020031913000484,"sgpoweroffId":null,"subsName":"","lineName":"吴庄线516","pubTranName":"干河沟供162号变压器,南邵庄11号变压器,南邵庄供100#箱变 配电变压器,南邵庄供101#高压间隔配电变压器,南邵庄供102#箱变配电变压器,南邵庄供149号高压间隔配电变压器,南邵庄供152号变压器,南邵庄供153号变压器,南邵庄供154号变压器,王铁庄供160号变压器,","scope":"【影响街道/乡镇】崔庄镇 【高危重要客户】无 【影响客户】北邵庄、干沟、南邵庄、商平庄、吴庄、张庄","startTime":"2020-03-19 12:32:00","stopDate":"2020-03-19 14:00:00","orgNo":"1340605","typeCode":"电网故障停限电","poweroffArea":"【全线路停电】停北邵供65号变压器【纯农排变】,北邵庄1号变压器【纯农排变】,北邵庄2号变压器【纯农排变】,北邵庄3号变压器,北邵庄4号变压器,北邵庄6号变压器,北邵庄供103号变压器,北邵庄供106号变压器,北邵庄供125号变压器,北邵庄供129号变压器,北邵庄供29号变压器【纯农排变】,北邵庄供42号变压器,干沟供52号变压器,干河沟5号变压器,干河沟供162号变压器,客户投资_商平庄6号,南邵供34号变压器,南邵庄10号变压器,南邵庄11号变压器,南邵庄12号变压器,南邵庄13号变压器,南邵庄1号变压器,南邵庄2号变压器,南邵庄3号变压器,南邵庄4号变压器,南邵庄5号变压器,南邵庄8号变压器【纯农排变】,南邵庄9号变压器,南邵庄供100#箱变 配电变压器,南邵庄供101#高压间隔配电变压器,南邵庄供102#箱变配电变压器,南邵庄供110号变压器,南邵庄供149号高压间隔配电变压器,南邵庄供152号变压器,南邵庄供153号变压器,南邵庄供154号变压器,南邵庄供28号变压器【纯农排变】,南邵庄供32号变压器,南邵庄供43号变压器,南邵庄供67号变压器,南邵庄供69号变压器,南邵庄供75号变压器,南邵庄供77号变压器,南邵庄供91号变压器,南邵庄供99号变压器,商平庄供123号变压器,商平庄供2号变压器,商平庄供46号变压器,商平庄供83号变压器,王铁庄供160号变压器,王铁庄供33号变压器,吴庄12号变压器,张庄2号变压器【纯农排变】,张庄3号变压器,张庄供113号变压器","poweroffReason":"【停电原因】由于Ｂ相接地导致３５ＫＶ崔庄变电站吴庄线５１６线路全线停电 【变更送电】因抢修进度加快原因，送电时间由１５:００变更为１４:００ 【发布渠道】通过９５５９８发布","powerTime":"2020-03-19 13:29:49","powerComm":"已送电","subsNo":"","lineNo":"","tgNo":"","tgName":null,"infoStatus":"1","orgName":"国网徐水县供电公司","typeName":null,"infoStatusName":null,"dateDay":null,"orgNos":null,"nowTime":null,"countyName":null,"streetName":null,"villageName":null,"roadName":null,"communityName":null,"tranName":null,"sdLineName":null,"cityCode":"1340605","cityName":"国网徐水县供电公司","provinceCode":null,"stopTime":"2020-03-19 14:00:00","powerType":"全部","powerOffArea":"【全线路停电】停北邵供65号变压器【纯农排变】,北邵庄1号变压器【纯农排变】,北邵庄2号变压器【纯农排变】,北邵庄3号变压器,北邵庄4号变压器,北邵庄6号变压器,北邵庄供103号变压器,北邵庄供106号变压器,北邵庄供125号变压器,北邵庄供129号变压器,北邵庄供29号变压器【纯农排变】,北邵庄供42号变压器,干沟供52号变压器,干河沟5号变压器,干河沟供162号变压器,客户投资_商平庄6号,南邵供34号变压器,南邵庄10号变压器,南邵庄11号变压器,南邵庄12号变压器,南邵庄13号变压器,南邵庄1号变压器,南邵庄2号变压器,南邵庄3号变压器,南邵庄4号变压器,南邵庄5号变压器,南邵庄8号变压器【纯农排变】,南邵庄9号变压器,南邵庄供100#箱变 配电变压器,南邵庄供101#高压间隔配电变压器,南邵庄供102#箱变配电变压器,南邵庄供110号变压器,南邵庄供149号高压间隔配电变压器,南邵庄供152号变压器,南邵庄供153号变压器,南邵庄供154号变压器,南邵庄供28号变压器【纯农排变】,南邵庄供32号变压器,南邵庄供43号变压器,南邵庄供67号变压器,南邵庄供69号变压器,南邵庄供75号变压器,南邵庄供77号变压器,南邵庄供91号变压器,南邵庄供99号变压器,商平庄供123号变压器,商平庄供2号变压器,商平庄供46号变压器,商平庄供83号变压器,王铁庄供160号变压器,王铁庄供33号变压器,吴庄12号变压器,张庄2号变压器【纯农排变】,张庄3号变压器,张庄供113号变压器","powerOffReason":"【停电原因】由于Ｂ相接地导致３５ＫＶ崔庄变电站吴庄线５１６线路全线停电 【变更送电】因抢修进度加快原因，送电时间由１５:００变更为１４:００ 【发布渠道】通过９５５９８发布","powerOffId":"2020031913000484"}],"pageModel":{"pageNow":239,"totalCount":10973,"totalPage":1098,"tableRows":0,"pageCount":10,"beginCount":2380},"isExperi":"1"}