{"message":"","today":"2020-06-15","seleList":[{"poweroffId":2020031913000319,"sgpoweroffId":null,"subsName":"","lineName":"贾东线511","pubTranName":"南韩庄村南【纯农排变】,南韩庄内中,南韩庄内东配变,南韩庄内西,南韩庄内南,","scope":"【影响街道/乡镇】贾村乡 【高危重要客户】无　　 【影响客户】南韩庄","startTime":"2020-03-19 09:00:00","stopDate":"2020-03-19 11:00:00","orgNo":"1340623","typeCode":"其他临时停电","poweroffArea":"【分支停电】停南韩庄村南【纯农排变】,南韩庄内中,南韩庄内东配变,南韩庄内西,南韩庄内南","poweroffReason":"【停电原因】由于Ｃ相引线发热，需停电进行紧急消缺导致３５ＫＶ贾村变电站贾东线５１１线路０２３号杆５１１３号开关以下线路停电 【变更送电】无 【发布渠道】通过９５５９８发布","powerTime":"2020-03-19 10:42:49","powerComm":"已送电","subsNo":"","lineNo":"","tgNo":"","tgName":null,"infoStatus":"1","orgName":"国网望都县供电公司","typeName":null,"infoStatusName":null,"dateDay":null,"orgNos":null,"nowTime":null,"countyName":null,"streetName":null,"villageName":null,"roadName":null,"communityName":null,"tranName":null,"sdLineName":null,"cityCode":"1340623","cityName":"国网望都县供电公司","provinceCode":null,"stopTime":"2020-03-19 11:00:00","powerType":"全部","powerOffArea":"【分支停电】停南韩庄村南【纯农排变】,南韩庄内中,南韩庄内东配变,南韩庄内西,南韩庄内南","powerOffReason":"【停电原因】由于Ｃ相引线发热，需停电进行紧急消缺导致３５ＫＶ贾村变电站贾东线５１１线路０２３号杆５１１３号开关以下线路停电 【变更送电】无 【发布渠道】通过９５５９８发布","powerOffId":"2020031913000319"},{"poweroffId":2020031913000315,"sgpoweroffId":null,"subsName":"","lineName":"奇峰塔514","pubTranName":"孔格庄村11#,孔格庄村2#,孔格庄村3#,孔格庄村4#,孔格庄村5#,孔格庄村6#,孔格庄村8#,孔各庄村9#变压器,高庄3#,高庄村1#,高庄村2#,高庄村4#,高庄村5#,高庄村6#变,高庄村7#变,高庄村8#变,九源村1#,九源村2#,孔格庄村7#,九源村3#,九源村4#,九源村5#,九源村6#,九源村7#,君玉村1#,君玉村2#,君玉村3#,君玉村4#,君玉村5号变压器,孔格庄村1#,孔格庄村10#,","scope":"【影响街道/乡镇】紫荆关镇【高危重要客户】无【影响客户】君玉村、高庄村、孔各庄村、九源村","startTime":"2020-03-19 07:12:26","stopDate":"2020-03-19 10:00:00","orgNo":"1340625","typeCode":"电网故障停限电","poweroffArea":"【分支停电】停高庄3#,高庄村1#,高庄村2#,高庄村4#,高庄村5#,高庄村6#变,高庄村7#变,高庄村8#变,九源村1#,九源村2#,九源村3#,九源村4#,九源村5#,九源村6#,九源村7#,君玉村1#,君玉村2#,君玉村3#,君玉村4#,君玉村5号变压器,孔格庄村1#,孔格庄村10#,孔格庄村11#,孔格庄村2#,孔格庄村3#,孔格庄村4#,孔格庄村5#,孔格庄村6#,孔格庄村7#,孔格庄村8#,孔各庄村9#变压器","poweroffReason":"【停电原因】由于大风造成线断导致３５ＫＶ大兴安变电站奇峰塔５１４线路２６号杆以下线路停电【变更送电】无【发布渠道】通过９５５９８发布","powerTime":"2020-03-19 09:10:42","powerComm":"已送电","subsNo":"","lineNo":"","tgNo":"","tgName":null,"infoStatus":"1","orgName":"国网易县供电公司","typeName":null,"infoStatusName":null,"dateDay":null,"orgNos":null,"nowTime":null,"countyName":null,"streetName":null,"villageName":null,"roadName":null,"communityName":null,"tranName":null,"sdLineName":null,"cityCode":"1340625","cityName":"国网易县供电公司","provinceCode":null,"stopTime":"2020-03-19 10:00:00","powerType":"全部","powerOffArea":"【分支停电】停高庄3#,高庄村1#,高庄村2#,高庄村4#,高庄村5#,高庄村6#变,高庄村7#变,高庄村8#变,九源村1#,九源村2#,九源村3#,九源村4#,九源村5#,九源村6#,九源村7#,君玉村1#,君玉村2#,君玉村3#,君玉村4#,君玉村5号变压器,孔格庄村1#,孔格庄村10#,孔格庄村11#,孔格庄村2#,孔格庄村3#,孔格庄村4#,孔格庄村5#,孔格庄村6#,孔格庄村7#,孔格庄村8#,孔各庄村9#变压器","powerOffReason":"【停电原因】由于大风造成线断导致３５ＫＶ大兴安变电站奇峰塔５１４线路２６号杆以下线路停电【变更送电】无【发布渠道】通过９５５９８发布","powerOffId":"2020031913000315"},{"poweroffId":2020031913000307,"sgpoweroffId":null,"subsName":"","lineName":"西王庄线521","pubTranName":"西王庄村西综合24,西王庄村南综合65,西王庄村南综合,安庄村西新增综合,","scope":"【影响街道/乡镇】西演镇、庞口镇 【高危重要客户】无 【影响客户】西王庄村南、姜齐庄村北","startTime":"2020-03-19 06:45:00","stopDate":"2020-03-19 09:00:00","orgNo":"1340613","typeCode":"电网故障停限电","poweroffArea":"【分支停电】停西王庄村南综合,安庄村西新增综合,西王庄村西综合24,西王庄农业76#【纯农排变】,西王庄村西12#农业【纯农排变】,西王庄东南21#农业【纯农排变】,西王庄村南综合65","poweroffReason":"【停电原因】由于外力破坏导致１１０ＫＶ西演变电站西王庄５２１线路西王庄村西南分支１２７号杆１２７号开关以下停电【变更送电】因抢修进度加快原因，送电时间由１２：００变更为０９：００【发布渠道】通过９５５９８发布","powerTime":"2020-03-19 08:12:06","powerComm":"已送电","subsNo":"","lineNo":"","tgNo":"","tgName":null,"infoStatus":"1","orgName":"国网高阳县供电公司","typeName":null,"infoStatusName":null,"dateDay":null,"orgNos":null,"nowTime":null,"countyName":null,"streetName":null,"villageName":null,"roadName":null,"communityName":null,"tranName":null,"sdLineName":null,"cityCode":"1340613","cityName":"国网高阳县供电公司","provinceCode":null,"stopTime":"2020-03-19 09:00:00","powerType":"全部","powerOffArea":"【分支停电】停西王庄村南综合,安庄村西新增综合,西王庄村西综合24,西王庄农业76#【纯农排变】,西王庄村西12#农业【纯农排变】,西王庄东南21#农业【纯农排变】,西王庄村南综合65","powerOffReason":"【停电原因】由于外力破坏导致１１０ＫＶ西演变电站西王庄５２１线路西王庄村西南分支１２７号杆１２７号开关以下停电【变更送电】因抢修进度加快原因，送电时间由１２：００变更为０９：００【发布渠道】通过９５５９８发布","powerOffId":"2020031913000307"},{"poweroffId":2020031913000296,"sgpoweroffId":null,"subsName":"","lineName":"10kV514王庄农业线","pubTranName":"王庄板厂,东南街农排4台区【纯农排变】,王庄冷库,贾庄农排4台区【纯农排变】,郭庄农排2台区【纯农排变】,0469338209-王庄东二台-专变-46778813-王庄东二,王庄综合3台区,贾庄冰袋,保定中瑞胶带制造有限公司,贾庄综合2台区514,八里庄塑料厂,敬老院,蠡县万隆煤炭销售有限公司变压器,梁庄综合1台区514,郭庄综合2台区,蠡县宇大公路工程材料供应处,王庄综合2台区,0667401862-蠡县伏羲砂石料厂-专变-208425925-蠡县伏羲砂石料厂,0660806400-河北英达物流有限公司-专变-195782521-河北英达物流有限公司,王庄综合4台区,东南街农排3台区【纯农排变】,贾庄庆祥,贾庄农排3台区【纯农排变】,道桥养护,南忠卫农排10台区【纯农排变】,南忠卫农排16台区【纯农排变】,河北蠡县新城毛纺有限公司变压器,保定强胜水利工程有公司变压器,王庄农排3台区【纯农排变】新乡,王庄农排1台区【纯农排变】新乡,蠡县橡胶厂变压器,蠡县正鑫煤炭购销有限公司,贾庄综合1台区514,王庄农排2台区【纯农排变】新乡,盛隆纺纱厂变压器,王庄综合1台区,郭庄综合1台区,王庄开花厂变压器,王庄综合5台区【冬季采暖设施】,王庄东一,大华纺织厂变压器,河北长瑞商品混凝土有限公司变压器,南忠卫农排15台区【纯农排变】,锅炉房,保定中瑞胶带制造有限公司变压器,王庄浇地,王庄路灯,蠡县橡胶厂,贾庄综合3台区514,蠡县郭庄冷雪冷食厂变压器,蠡县远鸿纺织有限公司,小刚农用,河北中北橡胶机带有限公司变压器,德茂装卸站,正鑫煤厂,王庄农排4台区【纯农排变】新乡,郭庄农排3台区【纯农排变】,0667908594-河北太平洋危货储运销售有限公司-专变-208448641-河北太平洋危货储运销售有限公司变压器,王庄面粉厂,南关鸡厂,蠡县梁庄扎花厂变压器,贾庄综合4台区[纯农排变】,梁庄综合2台区514,郭庄综合3台区,河北沈三开电器制造有限公司变压器,环形带,贾庄农排1台区514【纯农排变】,郭庄农排1台区【纯农排变】,蠡县王庄边立织布厂变压器,王庄农排5台区【纯农排变】,梁庄农排1台区514【纯农排变】,贾庄农排2台区514【纯农排变】,龙辉,梁庄综合3台区514,王庄村里冰袋,王庄农用,贾庄浇地,保定博新橡胶机带有限公司变压器,","scope":"【影响街道/乡镇】蠡吾镇【高危重要客户】无【影响客户】贾庄村、王庄村、梁庄村、郭庄村","startTime":"2020-03-19 06:21:01","stopDate":"2020-03-19 08:00:00","orgNo":"1340616","typeCode":"电网故障停限电","poweroffArea":"【全线路停电】停梁庄综合2台区514,贾庄综合4台区[纯农排变】,郭庄综合2台区,南忠卫农排10台区【纯农排变】,河北蠡县新城毛纺有限公司变压器,正鑫煤厂,蠡县梁庄扎花厂变压器,0667401862-蠡县伏羲砂石料厂-专变-208425925-蠡县伏羲砂石料厂,王庄村里冰袋,王庄农排2台区【纯农排变】新乡,小刚农用,王庄冷库,王庄面粉厂,锅炉房,贾庄农排1台区514【纯农排变】,贾庄综合2台区514,梁庄农排1台区514【纯农排变】,蠡县万隆煤炭销售有限公司变压器,河北中北橡胶机带有限公司变压器,王庄综合2台区,贾庄农排2台区514【纯农排变】,南忠卫农排16台区【纯农排变】,环形带,0660806400-河北英达物流有限公司-专变-195782521-河北英达物流有限公司,蠡县远鸿纺织有限公司,河北沈三开电器制造有限公司变压器,南忠卫农排15台区【纯农排变】,王庄东一,蠡县橡胶厂变压器,王庄浇地,贾庄农排3台区【纯农排变】,0469338209-王庄东二台-专变-46778813-王庄东二,大华纺织厂变压器,蠡县郭庄冷雪冷食厂变压器,王庄板厂,郭庄综合1台区,蠡县王庄边立织布厂变压器,保定中瑞胶带制造有限公司变压器,贾庄综合1台区514,梁庄综合1台区514,德茂装卸站,八里庄塑料厂,王庄农排4台区【纯农排变】新乡,王庄农排1台区【纯农排变】新乡,王庄综合5台区【冬季采暖设施】,王庄开花厂变压器,梁庄综合3台区514,保定中瑞胶带制造有限公司,王庄农排5台区【纯农排变】,郭庄综合3台区,0667908594-河北太平洋危货储运销售有限公司-专变-208448641-河北太平洋危货储运销售有限公司变压器,郭庄农排1台区【纯农排变】,王庄路灯,王庄农排3台区【纯农排变】新乡,王庄综合4台区,贾庄冰袋,王庄农用,敬老院,贾庄综合3台区514,东南街农排3台区【纯农排变】,贾庄庆祥,蠡县正鑫煤炭购销有限公司,南关鸡厂,保定博新橡胶机带有限公司变压器,王庄综合3台区,王庄综合1台区,河北长瑞商品混凝土有限公司变压器,东南街农排4台区【纯农排变】,龙辉,郭庄农排3台区【纯农排变】,蠡县宇大公路工程材料供应处,贾庄农排4台区【纯农排变】,贾庄浇地,蠡县橡胶厂,道桥养护,盛隆纺纱厂变压器,郭庄农排2台区【纯农排变】,保定强胜水利工程有公司变压器","poweroffReason":"【停电原因】由于站外开关掉闸导致３５ＫＶ王庄变电站１０ＫＶ王庄农业５１４线路全线停电【变更送电】因抢修进度加快原因，送电时间由１５：００变更为０８：００【发布渠道】通过９５５９８发布","powerTime":"2020-03-19 07:26:27","powerComm":"已送电","subsNo":"","lineNo":"","tgNo":"","tgName":null,"infoStatus":"1","orgName":"国网蠡县供电公司","typeName":null,"infoStatusName":null,"dateDay":null,"orgNos":null,"nowTime":null,"countyName":null,"streetName":null,"villageName":null,"roadName":null,"communityName":null,"tranName":null,"sdLineName":null,"cityCode":"1340616","cityName":"国网蠡县供电公司","provinceCode":null,"stopTime":"2020-03-19 08:00:00","powerType":"全部","powerOffArea":"【全线路停电】停梁庄综合2台区514,贾庄综合4台区[纯农排变】,郭庄综合2台区,南忠卫农排10台区【纯农排变】,河北蠡县新城毛纺有限公司变压器,正鑫煤厂,蠡县梁庄扎花厂变压器,0667401862-蠡县伏羲砂石料厂-专变-208425925-蠡县伏羲砂石料厂,王庄村里冰袋,王庄农排2台区【纯农排变】新乡,小刚农用,王庄冷库,王庄面粉厂,锅炉房,贾庄农排1台区514【纯农排变】,贾庄综合2台区514,梁庄农排1台区514【纯农排变】,蠡县万隆煤炭销售有限公司变压器,河北中北橡胶机带有限公司变压器,王庄综合2台区,贾庄农排2台区514【纯农排变】,南忠卫农排16台区【纯农排变】,环形带,0660806400-河北英达物流有限公司-专变-195782521-河北英达物流有限公司,蠡县远鸿纺织有限公司,河北沈三开电器制造有限公司变压器,南忠卫农排15台区【纯农排变】,王庄东一,蠡县橡胶厂变压器,王庄浇地,贾庄农排3台区【纯农排变】,0469338209-王庄东二台-专变-46778813-王庄东二,大华纺织厂变压器,蠡县郭庄冷雪冷食厂变压器,王庄板厂,郭庄综合1台区,蠡县王庄边立织布厂变压器,保定中瑞胶带制造有限公司变压器,贾庄综合1台区514,梁庄综合1台区514,德茂装卸站,八里庄塑料厂,王庄农排4台区【纯农排变】新乡,王庄农排1台区【纯农排变】新乡,王庄综合5台区【冬季采暖设施】,王庄开花厂变压器,梁庄综合3台区514,保定中瑞胶带制造有限公司,王庄农排5台区【纯农排变】,郭庄综合3台区,0667908594-河北太平洋危货储运销售有限公司-专变-208448641-河北太平洋危货储运销售有限公司变压器,郭庄农排1台区【纯农排变】,王庄路灯,王庄农排3台区【纯农排变】新乡,王庄综合4台区,贾庄冰袋,王庄农用,敬老院,贾庄综合3台区514,东南街农排3台区【纯农排变】,贾庄庆祥,蠡县正鑫煤炭购销有限公司,南关鸡厂,保定博新橡胶机带有限公司变压器,王庄综合3台区,王庄综合1台区,河北长瑞商品混凝土有限公司变压器,东南街农排4台区【纯农排变】,龙辉,郭庄农排3台区【纯农排变】,蠡县宇大公路工程材料供应处,贾庄农排4台区【纯农排变】,贾庄浇地,蠡县橡胶厂,道桥养护,盛隆纺纱厂变压器,郭庄农排2台区【纯农排变】,保定强胜水利工程有公司变压器","powerOffReason":"【停电原因】由于站外开关掉闸导致３５ＫＶ王庄变电站１０ＫＶ王庄农业５１４线路全线停电【变更送电】因抢修进度加快原因，送电时间由１５：００变更为０８：００【发布渠道】通过９５５９８发布","powerOffId":"2020031913000296"},{"poweroffId":2020031913000284,"sgpoweroffId":null,"subsName":"","lineName":"10kV514花园头线","pubTranName":"花园头综合3台区,张七综合1台区,花园头综合5台区,（李岗）张七农排4台区【纯农排变】,花园头综合7台区,花园头综合10台区变压器,张七综合2台区,花园头综合1台区,花园头农排6台区【纯农排变】,花园头农排9台区【纯农排变】,花园头农排8台区【纯农排变】,花园头农排1台区【纯农排变】,花园头农排4台区【纯农排变】,花园头综合4台区,张七综合3台区,花园头综合8台区,张七农排2台区【纯农排变】,张七农排6台区【纯农排变】,张七农排3台区【纯农排变】,花园头农排5台区【纯农排变】,张七综合5台区,张七综合4台区,花园头综合6台区,花园头综合9台区,花园头农排10台区【纯农排变】,张七农排7台区【纯农排变】,花园头农排2台区【纯农排变】,花园头综合2台区,","scope":"【影响街道/乡镇】北埝头乡【高危重要客户】无【影响客户】花园头村、张七村、贾庄村","startTime":"2020-03-19 05:32:13","stopDate":"2020-03-19 09:00:00","orgNo":"1340616","typeCode":"电网故障停限电","poweroffArea":"【全线路停电】停花园头综合1台区,张七农排7台区【纯农排变】,张七农排1台区【纯农排变】,张七国顺,花园头综合5台区,花园头农排9台区【纯农排变】,蠡县美缘日化有限公司,贾庄小周,张七农排6台区【纯农排变】,花园头综合8台区,张七综合4台区,花园头农排4台区【纯农排变】,蠡县华业精细化工有限公司,花园头综合7台区,张七农排5台区【纯农排变】,花园头综合2台区,花园头农排2台区【纯农排变】,张七农排3台区【纯农排变】,（李岗）张七农排4台区【纯农排变】,花园头综合10台区变压器,花园头农排5台区【纯农排变】,花园头农排1台区【纯农排变】,花园头西南,花园头综合9台区,陈鹏飞,李西农排13台区【纯农排变】,花园头大篷,花园头东农,花园头砖厂,花园头综合3台区,花园头农排8台区【纯农排变】,张七综合3台区,花园头农排10台区【纯农排变】,蠡县冀中华联精细化工有限公司,花园头西北,张七综合2台区,花园头农排3台区【纯农排变】,贾庄农排2台区【纯农排变】,张七农排2台区【纯农排变】,花园头综合4台区,张七综合1台区,花园头综合6台区,贾庄农排1台区【纯农排变】,蠡县灵汉绳带有限公司,张七综合5台区,花园头农排6台区【纯农排变】","poweroffReason":"【停电原因】由于站外开关掉闸导致３５ＫＶ李岗变电站１０ＫＶ花园头５１４线路全线停电【变更送电】因抢修进度加快原因，送电时间由１５：３０变更为０９：００【发布渠道】通过９５５９８发布","powerTime":"2020-03-19 08:21:08","powerComm":"已送电","subsNo":"","lineNo":"","tgNo":"","tgName":null,"infoStatus":"1","orgName":"国网蠡县供电公司","typeName":null,"infoStatusName":null,"dateDay":null,"orgNos":null,"nowTime":null,"countyName":null,"streetName":null,"villageName":null,"roadName":null,"communityName":null,"tranName":null,"sdLineName":null,"cityCode":"1340616","cityName":"国网蠡县供电公司","provinceCode":null,"stopTime":"2020-03-19 09:00:00","powerType":"全部","powerOffArea":"【全线路停电】停花园头综合1台区,张七农排7台区【纯农排变】,张七农排1台区【纯农排变】,张七国顺,花园头综合5台区,花园头农排9台区【纯农排变】,蠡县美缘日化有限公司,贾庄小周,张七农排6台区【纯农排变】,花园头综合8台区,张七综合4台区,花园头农排4台区【纯农排变】,蠡县华业精细化工有限公司,花园头综合7台区,张七农排5台区【纯农排变】,花园头综合2台区,花园头农排2台区【纯农排变】,张七农排3台区【纯农排变】,（李岗）张七农排4台区【纯农排变】,花园头综合10台区变压器,花园头农排5台区【纯农排变】,花园头农排1台区【纯农排变】,花园头西南,花园头综合9台区,陈鹏飞,李西农排13台区【纯农排变】,花园头大篷,花园头东农,花园头砖厂,花园头综合3台区,花园头农排8台区【纯农排变】,张七综合3台区,花园头农排10台区【纯农排变】,蠡县冀中华联精细化工有限公司,花园头西北,张七综合2台区,花园头农排3台区【纯农排变】,贾庄农排2台区【纯农排变】,张七农排2台区【纯农排变】,花园头综合4台区,张七综合1台区,花园头综合6台区,贾庄农排1台区【纯农排变】,蠡县灵汉绳带有限公司,张七综合5台区,花园头农排6台区【纯农排变】","powerOffReason":"【停电原因】由于站外开关掉闸导致３５ＫＶ李岗变电站１０ＫＶ花园头５１４线路全线停电【变更送电】因抢修进度加快原因，送电时间由１５：３０变更为０９：００【发布渠道】通过９５５９８发布","powerOffId":"2020031913000284"},{"poweroffId":2020031913000275,"sgpoweroffId":null,"subsName":"","lineName":"10kv514韩庄线","pubTranName":"西营变压器,西营南,兀术营北,驸马庄路边浇地变压器【纯农排变】,薛家营变压器,西菜园西变压器,西加录南变压器,","scope":"【影响街道/乡镇】新城镇 【高危重要客户】无 【影响客户】蔡各庄村（北蔡）、东加录村、东营村（东柴家营）、恩赐庄村、驸马庄村、里一村、柳各庄村、兀术营村、西菜园村、西加录村、西营村（西柴家营）、薛家营村、薛辛庄伙村、杨家务村、张贲营村、恩赐庄养殖厂、付马庄面粉厂、高碑店市鑫鹿新型建材厂、白沟子朝革塑制品有限公司、新城敬老院、高碑店市水利局、中国移动通信高碑店分公司、河北创世房地产、新城思玥户外用品加工厂、高碑店市隆顺干混砂浆制造有限公司、驸马庄幼儿园、张贲营中心小学、杨家务中心小学、高碑店市明伟新型建材有限公司","startTime":"2020-03-19 04:35:01","stopDate":"2020-03-19 10:00:00","orgNo":"1340612","typeCode":"电网故障停限电","poweroffArea":"【全线路停电】停薛家营水2变压器【纯农排变】,东加录水6变压器【纯农排变】,东营水变压器【纯农排变】,张贲营水变压器【纯农排变】,高碑店市民政局新城敬老院变压器,高碑店市新城镇张贲营中心小学变压器,西营南,张贲营西水变压器,兀术营北,东加录东变压器,里遗变压器,里遗南变压器,薛辛庄伙变压器,高碑店市电力局变压器,驸马庄路边浇地变压器【纯农排变】,西菜园变压器,驸马庄水3变压器,恩赐庄西变压器,河北创世房地产开发有限公司,张贲营水4变压器,薛辛庄伙水变压器【纯农排变】,东营西水变压器【纯农排变】,兀术营变压器,西加录变压器,高碑店市新城镇东加录中心小学,薛家营水变压器【纯农排变】,东营北变压器,东加录东北水变压器【纯农排变】,东营南水变压器,柳各庄变压器,高碑店市明伟新型建材有限公司2变压器,蔡各庄水变压器【纯农排变】,东加录东1变压器,西营变压器,西加录东南水【纯农排变】,杨家务水3变压器【纯农排变】,东营变压器,兀术营水变压器【纯农排变】,西加录东北水变压器【纯农排变】,驸马庄水变压器,恩赐庄养殖厂,里遗北变压器,客户投资_恩赐庄变压器,白沟通宝海绵纸厂变压器,西菜园西变压器,高碑店市白沟子朝革塑制品有限公司变压器,西营海开变压器【纯农排变】,驸马庄新西,达子营水变压器【纯农排变】,里遗水3变压器【纯农排变】,里遗水变压器【纯农排变】,西菜园水变压器,杨家务水2变压器【纯农排变】,西加录水变压器,东加录水变压器【纯农排变】,高碑店市水力局,薛家营南台变压器,东加录水5变压器【纯农排变】,西菜园北水变压器,柳各庄西南水变压器【纯农排变】,里遗水2变压器【纯农排变】,东加录正东水变压器【纯农排变】,东加录南水变压器【纯农排变】,高碑店市鑫鹿新型建材厂,大陈庄水变压器50【纯农排变】,薛家营变压器,杨家务东台混用变压器,驸马庄西水变压器【纯农排变】,柳各庄水3变压器,高碑店市明伟新型建材有限公司1变压器,驸马庄北地变压器【纯农排变】,高碑店市新城镇总校附马庄幼儿园变压器,张贲营西变压器,高碑店市新城镇杨家务中心小学变压器,付马庄面粉厂,东加录南变压器,西加录北水变压器【纯农排变】,西加录西水变压器【纯农排变】,恩赐庄村3变压器,驸马庄西变压器,张贲营南水变压器【纯农排变】,张贲营水5变压器,中国移动通信集体河北有限公司高碑店分公司,裴永金变压器,张贲营东变压器,驸马庄路边变压器,蔡各庄南,西加录南变压器,杨家务变压器,柳各庄西北水变压器【纯农排变】,东加录变压器,蔡各庄北变压器,0677241775-高碑店市隆顺干混砂浆制造有限公司-专变-217785147-高碑店市隆顺干混砂浆制造有限公司变压器,蔡各庄变压器,西营水变压器【纯农排变】,蔡各庄水2变压器【纯农排变】,石辛庄水2变压器【纯农排变】,柳各庄水变压器,驸马庄东变压器,杨家务水变压器,驸马庄南变压器","poweroffReason":"【停电原因】由于兀术营变台避雷器烧毁导致３５ＫＶ加录变电站１０ＫＶ韩庄５１４线路全线停电 【变更送电】无 【发布渠道】通过９５５９８发布","powerTime":"2020-03-19 09:17:19","powerComm":"已送电","subsNo":"","lineNo":"","tgNo":"","tgName":null,"infoStatus":"1","orgName":"国网高碑店市供电公司","typeName":null,"infoStatusName":null,"dateDay":null,"orgNos":null,"nowTime":null,"countyName":null,"streetName":null,"villageName":null,"roadName":null,"communityName":null,"tranName":null,"sdLineName":null,"cityCode":"1340612","cityName":"国网高碑店市供电公司","provinceCode":null,"stopTime":"2020-03-19 10:00:00","powerType":"全部","powerOffArea":"【全线路停电】停薛家营水2变压器【纯农排变】,东加录水6变压器【纯农排变】,东营水变压器【纯农排变】,张贲营水变压器【纯农排变】,高碑店市民政局新城敬老院变压器,高碑店市新城镇张贲营中心小学变压器,西营南,张贲营西水变压器,兀术营北,东加录东变压器,里遗变压器,里遗南变压器,薛辛庄伙变压器,高碑店市电力局变压器,驸马庄路边浇地变压器【纯农排变】,西菜园变压器,驸马庄水3变压器,恩赐庄西变压器,河北创世房地产开发有限公司,张贲营水4变压器,薛辛庄伙水变压器【纯农排变】,东营西水变压器【纯农排变】,兀术营变压器,西加录变压器,高碑店市新城镇东加录中心小学,薛家营水变压器【纯农排变】,东营北变压器,东加录东北水变压器【纯农排变】,东营南水变压器,柳各庄变压器,高碑店市明伟新型建材有限公司2变压器,蔡各庄水变压器【纯农排变】,东加录东1变压器,西营变压器,西加录东南水【纯农排变】,杨家务水3变压器【纯农排变】,东营变压器,兀术营水变压器【纯农排变】,西加录东北水变压器【纯农排变】,驸马庄水变压器,恩赐庄养殖厂,里遗北变压器,客户投资_恩赐庄变压器,白沟通宝海绵纸厂变压器,西菜园西变压器,高碑店市白沟子朝革塑制品有限公司变压器,西营海开变压器【纯农排变】,驸马庄新西,达子营水变压器【纯农排变】,里遗水3变压器【纯农排变】,里遗水变压器【纯农排变】,西菜园水变压器,杨家务水2变压器【纯农排变】,西加录水变压器,东加录水变压器【纯农排变】,高碑店市水力局,薛家营南台变压器,东加录水5变压器【纯农排变】,西菜园北水变压器,柳各庄西南水变压器【纯农排变】,里遗水2变压器【纯农排变】,东加录正东水变压器【纯农排变】,东加录南水变压器【纯农排变】,高碑店市鑫鹿新型建材厂,大陈庄水变压器50【纯农排变】,薛家营变压器,杨家务东台混用变压器,驸马庄西水变压器【纯农排变】,柳各庄水3变压器,高碑店市明伟新型建材有限公司1变压器,驸马庄北地变压器【纯农排变】,高碑店市新城镇总校附马庄幼儿园变压器,张贲营西变压器,高碑店市新城镇杨家务中心小学变压器,付马庄面粉厂,东加录南变压器,西加录北水变压器【纯农排变】,西加录西水变压器【纯农排变】,恩赐庄村3变压器,驸马庄西变压器,张贲营南水变压器【纯农排变】,张贲营水5变压器,中国移动通信集体河北有限公司高碑店分公司,裴永金变压器,张贲营东变压器,驸马庄路边变压器,蔡各庄南,西加录南变压器,杨家务变压器,柳各庄西北水变压器【纯农排变】,东加录变压器,蔡各庄北变压器,0677241775-高碑店市隆顺干混砂浆制造有限公司-专变-217785147-高碑店市隆顺干混砂浆制造有限公司变压器,蔡各庄变压器,西营水变压器【纯农排变】,蔡各庄水2变压器【纯农排变】,石辛庄水2变压器【纯农排变】,柳各庄水变压器,驸马庄东变压器,杨家务水变压器,驸马庄南变压器","powerOffReason":"【停电原因】由于兀术营变台避雷器烧毁导致３５ＫＶ加录变电站１０ＫＶ韩庄５１４线路全线停电 【变更送电】无 【发布渠道】通过９５５９８发布","powerOffId":"2020031913000275"},{"poweroffId":2020031913000262,"sgpoweroffId":null,"subsName":"","lineName":"10kV512野陈佐线","pubTranName":"北保去综合3台区,南保去综合1台区,东鲍墟综合5台区,西保去综合2台区,南保去综合2台区,北保去农排10台区【纯农排变】,东保去综合3台区,东鲍墟综合7台区,南鲍墟综合6台区,西保去综合1台区,西保去综合4台区,南鲍墟综合4台区,西保去农排4台区【纯农排变】,西鲍墟综合7台区,野陈佐综合7台区,北鲍墟综合4台区,野陈佐农排1台区【纯农排变】,野陈佐综合4台区,东保去综合1台区,野陈佐综合10台区,西保去综合5台区,西鲍墟综合6台区,野陈佐农排11台区【纯农排变】,北保去农排3台区【纯农排变】,野陈佐综合5台区,南保去综合3台区,北保去综合1台区,南鲍墟综合7台区,南鲍墟综合8台区,北鲍墟综合8台区,南鲍墟综合5台区,北保去综合2台区,野陈佐农排3台区【纯农排变】,野陈佐综合6台区,西保去综合3台区,北鲍墟综合5台区,北鲍墟综合7台区,野陈佐综合9台区,东保去综合2台区,野陈佐农排2台区【纯农排变】,东鲍墟综合6台区,北鲍墟综合6台区,东保去农排3台区【纯农排变】,野陈佐综合2台区,北保去农排2台区【纯农排变】,北鲍墟综合9台区,东保去综合4台区,野陈佐综合8台区,北保去农排6台区【纯农排变】,南鲍墟综合9台区,西鲍墟综合8台区,野陈佐综合1台区,野陈佐农排9台区【纯农排变】,野陈佐综合3台区,","scope":"【影响街道/乡镇】鲍墟乡【高危重要客户】无【影响客户】野陈佐村、东鲍墟村、北鲍墟村、西鲍墟村、南鲍墟村","startTime":"2020-03-19 04:13:38","stopDate":"2020-03-19 07:00:00","orgNo":"1340616","typeCode":"电网故障停限电","poweroffArea":"【全线路停电】停文瑞,南鲍墟综合4台区,野陈佐农排6台区【纯农排变】,南保去农排5台区【纯农排变】,北保去综合3台区,北保去农排5台区【纯农排变】,西保去综合4台区,野陈佐综合3台区,西鲍墟综合7台区,西保去农排1台区【纯农排变】,北保去农排7台区【纯农排变】,北鲍墟综合8台区,南保去综合1台区,野陈佐农排8台区【纯农排变】,西鲍墟综合6台区,西鲍墟综合8台区,东保去农排4台区【纯农排变】,野陈佐农排11台区【纯农排变】,中学农场,进托,南保去农排6台区【纯农排变】,南鲍墟综合7台区,野陈佐农排9台区【纯农排变】,野陈佐综合1台区,西保去综合1台区,瑞兴宏景变压器500,北保去农排9台区【纯农排变】,南保去综合2台区,西保去综合2台区,养牛厂,西保去综合5台区,小杰,保去社办厂,中学农场大变压器,北鲍墟综合7台区,南保去农排7台区【纯农排变】,南保去综合3台区,保去中学变压器,野陈佐农排4台区【纯农排变】,野陈佐农排1台区【纯农排变】,野陈佐综合2台区,南鲍墟综合6台区,北鲍墟综合4台区,北保去农排6台区【纯农排变】,北鲍墟综合6台区,北保去农排8台区【纯农排变】,东保去农排1台区【纯农排变】,野陈佐综合5台区,南保去农排2台区【纯农排变】,东保去农排6台区【纯农排变】,野陈佐农排2台区【纯农排变】,西保去农排4台区【纯农排变】,北鲍墟综合5台区,西保去农排3台区【纯农排变】,北保去综合2台区,北保去农排1台区【纯农排变】,蠡县春梅芦笋农民专业合作社,野陈佐综合9台区,蠡县淑亮狐饲料农民专业合作社,北保去综合1台区,西保去综合3台区,野陈佐综合10台区,野陈佐农排10台区【纯农排变】,东保去综合4台区,南保去农排1台区【纯农排变】,东鲍墟综合7台区,南保去农排4台区【纯农排变】,北鲍墟综合9台区,东保去综合3台区,野陈佐农排3台区【纯农排变】,野陈佐综合7台区,北保去农排2台区【纯农排变】,西保去农排7台区【纯农排变】,北保去农排10台区【纯农排变】,南鲍墟综合9台区,东保去农排5台区【纯农排变】,东保去综合1台区,南保红亮,瑞兴宏景变压器315,野陈佐综合4台区,北保去农排4台区【纯农排变】,东鲍墟综合6台区,北保去农排3台区【纯农排变】,西保去农排2台区【纯农排变】,东保去农排2台区【纯农排变】,西保去农排5台区【纯农排变】,野陈佐农排7台区【纯农排变】,南保去农排3台区【纯农排变】,野陈佐农排5台区【纯农排变】,野陈佐综合8台区,西保农排6台区【纯农排变】,蠡县亿帮洁日化有限公司,南鲍墟综合5台区,东保去农排3台区【纯农排变】,野陈佐综合6台区,南鲍墟综合8台区,东鲍墟综合5台区,东保去综合2台区","poweroffReason":"【停电原因】由于站内开关掉闸导致３５ＫＶ鲍墟变电站１０ＫＶ野陈佐５１２线路全线停电【变更送电】因抢修进度加快原因，送电时间由１５：００变更为０７：００【发布渠道】通过９５５９８发布","powerTime":"2020-03-19 06:33:02","powerComm":"已送电","subsNo":"","lineNo":"","tgNo":"","tgName":null,"infoStatus":"1","orgName":"国网蠡县供电公司","typeName":null,"infoStatusName":null,"dateDay":null,"orgNos":null,"nowTime":null,"countyName":null,"streetName":null,"villageName":null,"roadName":null,"communityName":null,"tranName":null,"sdLineName":null,"cityCode":"1340616","cityName":"国网蠡县供电公司","provinceCode":null,"stopTime":"2020-03-19 07:00:00","powerType":"全部","powerOffArea":"【全线路停电】停文瑞,南鲍墟综合4台区,野陈佐农排6台区【纯农排变】,南保去农排5台区【纯农排变】,北保去综合3台区,北保去农排5台区【纯农排变】,西保去综合4台区,野陈佐综合3台区,西鲍墟综合7台区,西保去农排1台区【纯农排变】,北保去农排7台区【纯农排变】,北鲍墟综合8台区,南保去综合1台区,野陈佐农排8台区【纯农排变】,西鲍墟综合6台区,西鲍墟综合8台区,东保去农排4台区【纯农排变】,野陈佐农排11台区【纯农排变】,中学农场,进托,南保去农排6台区【纯农排变】,南鲍墟综合7台区,野陈佐农排9台区【纯农排变】,野陈佐综合1台区,西保去综合1台区,瑞兴宏景变压器500,北保去农排9台区【纯农排变】,南保去综合2台区,西保去综合2台区,养牛厂,西保去综合5台区,小杰,保去社办厂,中学农场大变压器,北鲍墟综合7台区,南保去农排7台区【纯农排变】,南保去综合3台区,保去中学变压器,野陈佐农排4台区【纯农排变】,野陈佐农排1台区【纯农排变】,野陈佐综合2台区,南鲍墟综合6台区,北鲍墟综合4台区,北保去农排6台区【纯农排变】,北鲍墟综合6台区,北保去农排8台区【纯农排变】,东保去农排1台区【纯农排变】,野陈佐综合5台区,南保去农排2台区【纯农排变】,东保去农排6台区【纯农排变】,野陈佐农排2台区【纯农排变】,西保去农排4台区【纯农排变】,北鲍墟综合5台区,西保去农排3台区【纯农排变】,北保去综合2台区,北保去农排1台区【纯农排变】,蠡县春梅芦笋农民专业合作社,野陈佐综合9台区,蠡县淑亮狐饲料农民专业合作社,北保去综合1台区,西保去综合3台区,野陈佐综合10台区,野陈佐农排10台区【纯农排变】,东保去综合4台区,南保去农排1台区【纯农排变】,东鲍墟综合7台区,南保去农排4台区【纯农排变】,北鲍墟综合9台区,东保去综合3台区,野陈佐农排3台区【纯农排变】,野陈佐综合7台区,北保去农排2台区【纯农排变】,西保去农排7台区【纯农排变】,北保去农排10台区【纯农排变】,南鲍墟综合9台区,东保去农排5台区【纯农排变】,东保去综合1台区,南保红亮,瑞兴宏景变压器315,野陈佐综合4台区,北保去农排4台区【纯农排变】,东鲍墟综合6台区,北保去农排3台区【纯农排变】,西保去农排2台区【纯农排变】,东保去农排2台区【纯农排变】,西保去农排5台区【纯农排变】,野陈佐农排7台区【纯农排变】,南保去农排3台区【纯农排变】,野陈佐农排5台区【纯农排变】,野陈佐综合8台区,西保农排6台区【纯农排变】,蠡县亿帮洁日化有限公司,南鲍墟综合5台区,东保去农排3台区【纯农排变】,野陈佐综合6台区,南鲍墟综合8台区,东鲍墟综合5台区,东保去综合2台区","powerOffReason":"【停电原因】由于站内开关掉闸导致３５ＫＶ鲍墟变电站１０ＫＶ野陈佐５１２线路全线停电【变更送电】因抢修进度加快原因，送电时间由１５：００变更为０７：００【发布渠道】通过９５５９８发布","powerOffId":"2020031913000262"},{"poweroffId":2020031913000162,"sgpoweroffId":null,"subsName":"","lineName":"大高线522","pubTranName":"南留中,南留南（2）,天桥东,南留南,天津街3号公变,天津街2,天津街南,","scope":"【影响街道/乡镇】富民大街、京白路、五一路、天津街 【高危重要客户】白沟镇政府、仁和庄小区、凤凰城小区、政府小区 【影响客户】南留村、乾城地产、天奕商厦、鹏飞伟业、刘声（钟声革业)、王启龙（凤凰城）、董振良、综合办、永强塑胶、卓伟酒店、顺达辅料、肖小军、天德供水、刘宏生、合义轩李洪亮、回民刘国强、王立新、李辉(武警幼儿园）、李永旺、金山商标厂赵金山、富源厂刘建民、仁合家园小区、王梦端、泰鑫辅料、创实化纤厂、弘华伊顿","startTime":"2020-03-19 01:20:25","stopDate":"2020-03-19 11:30:00","orgNo":"1340612","typeCode":"电网故障停限电","poweroffArea":"【全线路停电】停刘建民,仁和小区北,仁和小区南,弘华伊顿(北京)国际教育投资有限公司变压器,王梦端,0683953046-仁和庄5号变台-专变-223537035-变压器,赵金山,0387444549-隆基泰和实业有限公司白沟分公司(汽配汽贸城大厅)-专变-45279414-隆基泰和实业有限公司白沟分公司（汽配汽贸城大厅）,0686701202-保定天德供水有限公司-专变-226885144-变压器,保定白沟新城二胖百货商贸经营部计量点,南留中,回顺民,河北乾城房地产开发有限公司变压器,南留南（2）,付英奎,肖小军,刘声,雅典皇宫,刘宏生,白沟新城顺达织带厂变压器,政府办公楼,天桥东,变压器,凤凰城,南留南,天津街2,天奕,仁和庄10变台变压器,李玉山变压器,天津街3号公变,周新,天津街南,电子大厦东,保定恒勤房地产开发有限公司变压器,刘国强变压器","poweroffReason":"【停电原因】由于天德水厂用户变压器故障导致１１０ＫＶ白沟变电站１０ＫＶ大高５２２线路全线停电 【变更送电】因抢修进度加快原因，送电时间由１６：００变更为１１：３０ 【发布渠道】通过９５５９８发布","powerTime":"2020-03-19 11:00:06","powerComm":"已送电","subsNo":"","lineNo":"","tgNo":"","tgName":null,"infoStatus":"1","orgName":"国网高碑店市供电公司","typeName":null,"infoStatusName":null,"dateDay":null,"orgNos":null,"nowTime":null,"countyName":null,"streetName":null,"villageName":null,"roadName":null,"communityName":null,"tranName":null,"sdLineName":null,"cityCode":"1340612","cityName":"国网高碑店市供电公司","provinceCode":null,"stopTime":"2020-03-19 11:30:00","powerType":"全部","powerOffArea":"【全线路停电】停刘建民,仁和小区北,仁和小区南,弘华伊顿(北京)国际教育投资有限公司变压器,王梦端,0683953046-仁和庄5号变台-专变-223537035-变压器,赵金山,0387444549-隆基泰和实业有限公司白沟分公司(汽配汽贸城大厅)-专变-45279414-隆基泰和实业有限公司白沟分公司（汽配汽贸城大厅）,0686701202-保定天德供水有限公司-专变-226885144-变压器,保定白沟新城二胖百货商贸经营部计量点,南留中,回顺民,河北乾城房地产开发有限公司变压器,南留南（2）,付英奎,肖小军,刘声,雅典皇宫,刘宏生,白沟新城顺达织带厂变压器,政府办公楼,天桥东,变压器,凤凰城,南留南,天津街2,天奕,仁和庄10变台变压器,李玉山变压器,天津街3号公变,周新,天津街南,电子大厦东,保定恒勤房地产开发有限公司变压器,刘国强变压器","powerOffReason":"【停电原因】由于天德水厂用户变压器故障导致１１０ＫＶ白沟变电站１０ＫＶ大高５２２线路全线停电 【变更送电】因抢修进度加快原因，送电时间由１６：００变更为１１：３０ 【发布渠道】通过９５５９８发布","powerOffId":"2020031913000162"},{"poweroffId":2020031913000135,"sgpoweroffId":null,"subsName":"","lineName":"10KV东方515","pubTranName":"西皋村,西皋庄村中内大队院内,西皋村村北井【纯农排变】,下坡店2167,西皋庄村南（局属）,张飞店2075,下坡店村北井【纯农排变】,西皋村2072,西皋庄南2083,西皋村村东,下坡店村,西皋庄村中内,西皋庄村北2073,西皋庄北2183,","scope":"【影响街道/乡镇】桃园城区 【高危重要客户】无 【影响客户】西皋村、西皋庄、忠义店、下坡店","startTime":"2020-03-19 01:20:56","stopDate":"2020-03-19 03:15:00","orgNo":"1340626","typeCode":"电网故障停限电","poweroffArea":"【分支停电】停西皋庄村中内,西皋庄河套【纯农排变】,西皋庄村北2073,西皋村村北井【纯农排变】,西皋庄村南（局属）,西皋村2072,西皋庄南2083,西皋村村东,西皋庄2058【纯农排变】,西皋庄北2183,西皋庄4099【纯农排变】,西皋村,西皋庄村中内大队院内,下坡店村,下坡店村北井【纯农排变】,下坡店2167,张飞店2075","poweroffReason":"【停电原因】由于大风外力破坏导致１１０ＫＶ涿县变电站１０ＫＶ东方５１５线路西皋庄西南分支０５号杆以下线路停电 【变更送电】因抢修进度加快原因，送电时间由０４：００变更为０３：１５ 【发布渠道】通过９５５９８发布","powerTime":"2020-03-19 02:47:55","powerComm":"恢复送电","subsNo":"","lineNo":"","tgNo":"","tgName":null,"infoStatus":"1","orgName":"国网涿州市供电公司","typeName":null,"infoStatusName":null,"dateDay":null,"orgNos":null,"nowTime":null,"countyName":null,"streetName":null,"villageName":null,"roadName":null,"communityName":null,"tranName":null,"sdLineName":null,"cityCode":"1340626","cityName":"国网涿州市供电公司","provinceCode":null,"stopTime":"2020-03-19 03:15:00","powerType":"全部","powerOffArea":"【分支停电】停西皋庄村中内,西皋庄河套【纯农排变】,西皋庄村北2073,西皋村村北井【纯农排变】,西皋庄村南（局属）,西皋村2072,西皋庄南2083,西皋村村东,西皋庄2058【纯农排变】,西皋庄北2183,西皋庄4099【纯农排变】,西皋村,西皋庄村中内大队院内,下坡店村,下坡店村北井【纯农排变】,下坡店2167,张飞店2075","powerOffReason":"【停电原因】由于大风外力破坏导致１１０ＫＶ涿县变电站１０ＫＶ东方５１５线路西皋庄西南分支０５号杆以下线路停电 【变更送电】因抢修进度加快原因，送电时间由０４：００变更为０３：１５ 【发布渠道】通过９５５９８发布","powerOffId":"2020031913000135"},{"poweroffId":2020031913000047,"sgpoweroffId":null,"subsName":"","lineName":"10kV北宋村536线","pubTranName":"翟庄内1,1翟庄内2号,1翟庄内3号,","scope":"【影响街道/乡镇】东吕乡 【高危重要客户】无 【影响客户】翟庄","startTime":"2020-03-19 00:13:32","stopDate":"2020-03-19 06:40:00","orgNo":"1340618","typeCode":"电网故障停限电","poweroffArea":"【分支停电】停翟庄外6区【纯农排变】,翟庄外5区【纯农排变】,翟庄外4【纯农排变】,翟庄外7区【纯农排变】,翟庄外3【纯农排变】,翟庄外2【纯农排变】,翟庄内1,清苑县翟庄利民保鲜库,1翟庄内2号,翟庄外8区【纯农排变】,翟庄外1【纯农排变】,1翟庄内3号","poweroffReason":"【停电原因】由于导线断线导致１１０ＫＶ东闾变电站１０ＫＶ北宋村５３６线路主干５０号杆分支６１号杆至６３号杆停电 【变更送电】因抢修进度加快原因，送电时间由１２：００变更为０６：４０ 【发布渠道】通过９５５９８发布","powerTime":"2020-03-19 06:12:51","powerComm":"杨红梅通知已送电","subsNo":"","lineNo":"","tgNo":"","tgName":null,"infoStatus":"1","orgName":"国网清苑县供电公司","typeName":null,"infoStatusName":null,"dateDay":null,"orgNos":null,"nowTime":null,"countyName":null,"streetName":null,"villageName":null,"roadName":null,"communityName":null,"tranName":null,"sdLineName":null,"cityCode":"1340618","cityName":"国网清苑县供电公司","provinceCode":null,"stopTime":"2020-03-19 06:40:00","powerType":"全部","powerOffArea":"【分支停电】停翟庄外6区【纯农排变】,翟庄外5区【纯农排变】,翟庄外4【纯农排变】,翟庄外7区【纯农排变】,翟庄外3【纯农排变】,翟庄外2【纯农排变】,翟庄内1,清苑县翟庄利民保鲜库,1翟庄内2号,翟庄外8区【纯农排变】,翟庄外1【纯农排变】,1翟庄内3号","powerOffReason":"【停电原因】由于导线断线导致１１０ＫＶ东闾变电站１０ＫＶ北宋村５３６线路主干５０号杆分支６１号杆至６３号杆停电 【变更送电】因抢修进度加快原因，送电时间由１２：００变更为０６：４０ 【发布渠道】通过９５５９８发布","powerOffId":"2020031913000047"}],"pageModel":{"pageNow":242,"totalCount":10973,"totalPage":1098,"tableRows":0,"pageCount":10,"beginCount":2410},"isExperi":"1"}