{"message":"","today":"2020-06-15","seleList":[{"poweroffId":2020031813001333,"sgpoweroffId":null,"subsName":"","lineName":"西环线514","pubTranName":"涞源站514西关新和庄,大北关石桥沟配变,太平关北配变,印刷厂配变,东关台区配变,饮食配变,太平南关配变,工商公用变配变,电影院配变,小北关2号配变,交通局北院,西关西环配变,新街西环配变,山门底广场箱变【2018配套送出及新增负荷】出线间隔配电变压器,妇幼公用变配变,汽车站变压器,涞源站514西环沿村,下沙河公用变配变,汽车站配变,地税局配变,刘振堂配变,土产配变,张玉军门口配变,技术监督局变压器,联合关村配变,太平关五号配变,小北关配变,涞源站514城西新村台区,信合公用变配变,民政局配变,涞源站514龚志伟,中心街西片配变,山门地广场配变,保险公司配变,壹佰户配变,局上关配变,幼儿园（冬季取暖政府投资）,公共资源交易中心,","scope":"【影响街道/乡镇】广昌大街、中心街、沙河大街、北环路、西环路、城区办【高危重要客户】无【影响客户】太平关村、顺康小区、一百户、大北关村、小北关村、西关村、浩华小区、飞狐小区、保险公司家属楼、妇幼家属楼、幼儿园家属楼、华成小区、药材家属楼、建行家属楼、土地局家属楼、民政局家属楼、民政局、东关村、联合关村、旧汽车站、菜市场、上沙河、下沙河、一小家属楼、涞源县医院、妇幼保健院、九洲医院、涞源县职教中学、工商家属楼、地税家属楼、信合家属楼、涞源县第一幼儿园、平安里小区、新合庄、来福祥鸭货、县医院东边","startTime":"2020-03-18 21:47:38","stopDate":"2020-03-18 23:40:00","orgNo":"1340615","typeCode":"电网故障停限电","poweroffArea":"【全线路停电】停涞源站514西关新和庄,大北关石桥沟配变,涞源县九洲家具城变压器,太平关北配变,印刷厂配变,涞源县第一小学变压器,东关台区配变,涞源县住房和城乡建设局变压器,饮食配变,太平南关配变,中国移动通信集团河北有限公司涞源,工商公用变配变,电影院配变,0469544002-刘文玉煤场-专变-46835589-刘文玉煤场,涞源县澳龙豆捞变压器,小北关2号配变,交通局北院,涞源县万都房地产开发有限公司变压器,西关西环配变,民政局配变,涞源站514龚志伟, 变压器,中心街西片配变,山门地广场配变,保险公司配变,壹佰户配变,变压器01,涞源县路凯客运有限责任公司变压器1,变压器,涞源县亿客隆商城变压器,局上关配变,幼儿园（冬季取暖政府投资）,公共资源交易中心,新街西环配变,山门底广场箱变【2018配套送出及新增负荷】出线间隔配电变压器,涞源县路凯客运有限责任公司变压器2,妇幼公用变配变,涞源县住房和城乡建设局变压器2,0620340193-河北省涞源县医院-专变-129182829-河北省涞源县医院变压器1,涞源通信分公司,海鲜酒楼,汽车站变压器,保定市陆运兴酒店有限公司变压器,河北省涞源县医院变压器,涞源站514西环沿村,河北赢拓建筑工程有限公司变压器,下沙河公用变配变,汽车站配变,地税局配变,刘振堂配变,土产配变,张玉军门口配变,技术监督局变压器,福奈特干洗店,联合关村配变,太平关五号配变,小北关配变,涞源站514城西新村台区,涞源锦和购物中心变压器,信合公用变配变,变压器02","poweroffReason":"【停电原因】由于主干线路引线断裂导致１１０ＫＶ涞源变电站１０ＫＶ西环线５１４线路全线停电【变更送电】因抢修进度加快，原定１９日０２：４８送电现计划１８日２３：４０送电【发布渠道】通过９５５９８发布","powerTime":"2020-03-18 23:11:11","powerComm":"已送电","subsNo":"","lineNo":"","tgNo":"","tgName":null,"infoStatus":"1","orgName":"国网涞源县供电公司","typeName":null,"infoStatusName":null,"dateDay":null,"orgNos":null,"nowTime":null,"countyName":null,"streetName":null,"villageName":null,"roadName":null,"communityName":null,"tranName":null,"sdLineName":null,"cityCode":"1340615","cityName":"国网涞源县供电公司","provinceCode":null,"stopTime":"2020-03-18 23:40:00","powerType":"全部","powerOffArea":"【全线路停电】停涞源站514西关新和庄,大北关石桥沟配变,涞源县九洲家具城变压器,太平关北配变,印刷厂配变,涞源县第一小学变压器,东关台区配变,涞源县住房和城乡建设局变压器,饮食配变,太平南关配变,中国移动通信集团河北有限公司涞源,工商公用变配变,电影院配变,0469544002-刘文玉煤场-专变-46835589-刘文玉煤场,涞源县澳龙豆捞变压器,小北关2号配变,交通局北院,涞源县万都房地产开发有限公司变压器,西关西环配变,民政局配变,涞源站514龚志伟, 变压器,中心街西片配变,山门地广场配变,保险公司配变,壹佰户配变,变压器01,涞源县路凯客运有限责任公司变压器1,变压器,涞源县亿客隆商城变压器,局上关配变,幼儿园（冬季取暖政府投资）,公共资源交易中心,新街西环配变,山门底广场箱变【2018配套送出及新增负荷】出线间隔配电变压器,涞源县路凯客运有限责任公司变压器2,妇幼公用变配变,涞源县住房和城乡建设局变压器2,0620340193-河北省涞源县医院-专变-129182829-河北省涞源县医院变压器1,涞源通信分公司,海鲜酒楼,汽车站变压器,保定市陆运兴酒店有限公司变压器,河北省涞源县医院变压器,涞源站514西环沿村,河北赢拓建筑工程有限公司变压器,下沙河公用变配变,汽车站配变,地税局配变,刘振堂配变,土产配变,张玉军门口配变,技术监督局变压器,福奈特干洗店,联合关村配变,太平关五号配变,小北关配变,涞源站514城西新村台区,涞源锦和购物中心变压器,信合公用变配变,变压器02","powerOffReason":"【停电原因】由于主干线路引线断裂导致１１０ＫＶ涞源变电站１０ＫＶ西环线５１４线路全线停电【变更送电】因抢修进度加快，原定１９日０２：４８送电现计划１８日２３：４０送电【发布渠道】通过９５５９８发布","powerOffId":"2020031813001333"},{"poweroffId":2020031813001325,"sgpoweroffId":null,"subsName":"","lineName":"10kV藏庄线511","pubTranName":"1臧庄内8,1南刘口内12,1南刘口内2,1东木欠庄内4,1南刘口内3,1南刘口内9,1臧庄内6,1南刘口内6,1北刘口内1,1南刘口内11,1北刘口内6,1臧庄内10,1臧庄内2,1臧庄内9,2北刘口外14,1南刘口内4,1东木欠庄内3,1臧庄内4,1臧庄内5,臧庄幼儿园,1北刘口内8,1南刘口内7,1南刘口内8,1南刘口内5,1南刘口内10,1北刘口内7,1臧庄内7,臧庄小学,南刘口明德小学,1南刘口内1,1臧庄内3,1臧庄内11,1东木欠庄内2,1东木欠庄内1,1臧庄内1,","scope":"【影响街道/乡镇】望亭乡 【高危重要客户】无 【影响客户】东木欠庄、臧庄、南刘口、北刘口","startTime":"2020-03-18 21:45:57","stopDate":"2020-03-19 00:40:00","orgNo":"1340618","typeCode":"电网故障停限电","poweroffArea":"【全线路停电】停0387487021-清苑县恒达有色金属经销处-专变-45313702-清苑县恒达有色金属经销处,0387487005-南刘口果园-专变-45313691-南刘口果园1台,清苑县光华铜板有限公司,2东木欠庄外4【纯农排变】,1臧庄内8,1南刘口内12,|清苑县永顺金属制品有限公司,保定市交通运输局清苑区养路工区,1南刘口内2,1东木欠庄内4,清苑县光华铜板有限公司02,1南刘口内3,2臧庄外14【纯农排变】,1南刘口内9,保定市府河污水导排应急工程指挥部,1臧庄内6,1南刘口内6,清苑县方全电力材料有限公司,2臧庄外13【纯农排变】,2臧庄外9【纯农排变】,0672325991-南刘口村委会-专变-215912465-南刘口村委会,2臧庄外10【纯农排变】,1北刘口内1,清苑县方全电力材料有限公司02,0387487917-清苑县臧庄增军苗圃种植基地-专变-45313711-臧庄村北,1南刘口内11,南刘口村南,1北刘口内6,1臧庄内10,南刘口村西,0387486998-南刘口村委会养殖场-专变-124295166-南刘口村东2号,0603047033-容坤无公害蔬菜种植基地-专变-126949993-容坤无公害蔬菜种植基地,2臧庄外7【纯农排变】,0387487379-南刘口果园-专变-45314025-南刘口果园2台,1臧庄内2,清苑县光华铜板有限公司01,河北光辉农业产品开发有限公司,0387487715-清苑县永顺金属制品有限公司-专变-45313698-清苑县永顺金属制品有限公司,0387487018-南刘口成林鸡场-专变-45313697-南刘口成林鸡场,1南刘口内7,清苑县臧庄自然苗木种植场,1臧庄内7,臧庄小学,2东木欠庄外5【纯农排变】,1东木欠庄内1,刘国清养鱼场,2北刘口外5【纯农排变】,1臧庄内9,河北光辉农产品开发有限公司,2北刘口外14,1南刘口内4,清苑县方全电力材料有限公司03,保定市清苑区光辉铜米加工厂,2臧庄外8【纯农排变】,1东木欠庄内3,南刘口村正南,1臧庄内4,1臧庄内5,2东木欠庄外2【纯农排变】,臧庄幼儿园,1北刘口内8,1南刘口内8,1南刘口内5,1南刘口内10,保定市清苑区保坤养殖场,2臧庄外11【纯农排变】,2东木欠庄外3【纯农排变】,0579488416-南刘口村委会-专变-124419232-南刘口村委会,1北刘口内7,清苑县望亭乡南刘口水厂,0387488200-南刘口村南-专变-45313865-南刘口村南1,东木欠庄村北,南刘口明德小学,南刘口村东3,0387487366-南刘口村委会养殖场-专变-124292791-南刘口村东1号,保定市榆茂有色金属回收有限公司,1南刘口内1,容坤无公害蔬菜种植基地,清苑县方全电力材料有限公司01,1臧庄内3,2臧庄外6【纯农排变】,2北刘口外4【纯农排变】,保定海旺有色金属销售有限公司,0670064193-清苑县月阳福帝休闲农业观光有限公司-专变-212351143-清苑县月阳福帝休闲农业观光有限公司,南园区种植基地,1臧庄内11,南刘口村南2,1东木欠庄内2,2臧庄外12【纯农排变】,1臧庄内1,保定市清苑区纪营养殖场","poweroffReason":"【停电原因】由于主干１号杆开关掉闸导致３５ＫＶ刘口变电站１０ＫＶ藏庄线５１１线路全线停电 【变更送电】因抢修进度加快原因，送电时间由１０：００变更为００：４０ 【发布渠道】通过９５５９８发布","powerTime":"2020-03-19 00:17:18","powerComm":"杨红梅通知已送电","subsNo":"","lineNo":"","tgNo":"","tgName":null,"infoStatus":"1","orgName":"国网清苑县供电公司","typeName":null,"infoStatusName":null,"dateDay":null,"orgNos":null,"nowTime":null,"countyName":null,"streetName":null,"villageName":null,"roadName":null,"communityName":null,"tranName":null,"sdLineName":null,"cityCode":"1340618","cityName":"国网清苑县供电公司","provinceCode":null,"stopTime":"2020-03-19 00:40:00","powerType":"全部","powerOffArea":"【全线路停电】停0387487021-清苑县恒达有色金属经销处-专变-45313702-清苑县恒达有色金属经销处,0387487005-南刘口果园-专变-45313691-南刘口果园1台,清苑县光华铜板有限公司,2东木欠庄外4【纯农排变】,1臧庄内8,1南刘口内12,|清苑县永顺金属制品有限公司,保定市交通运输局清苑区养路工区,1南刘口内2,1东木欠庄内4,清苑县光华铜板有限公司02,1南刘口内3,2臧庄外14【纯农排变】,1南刘口内9,保定市府河污水导排应急工程指挥部,1臧庄内6,1南刘口内6,清苑县方全电力材料有限公司,2臧庄外13【纯农排变】,2臧庄外9【纯农排变】,0672325991-南刘口村委会-专变-215912465-南刘口村委会,2臧庄外10【纯农排变】,1北刘口内1,清苑县方全电力材料有限公司02,0387487917-清苑县臧庄增军苗圃种植基地-专变-45313711-臧庄村北,1南刘口内11,南刘口村南,1北刘口内6,1臧庄内10,南刘口村西,0387486998-南刘口村委会养殖场-专变-124295166-南刘口村东2号,0603047033-容坤无公害蔬菜种植基地-专变-126949993-容坤无公害蔬菜种植基地,2臧庄外7【纯农排变】,0387487379-南刘口果园-专变-45314025-南刘口果园2台,1臧庄内2,清苑县光华铜板有限公司01,河北光辉农业产品开发有限公司,0387487715-清苑县永顺金属制品有限公司-专变-45313698-清苑县永顺金属制品有限公司,0387487018-南刘口成林鸡场-专变-45313697-南刘口成林鸡场,1南刘口内7,清苑县臧庄自然苗木种植场,1臧庄内7,臧庄小学,2东木欠庄外5【纯农排变】,1东木欠庄内1,刘国清养鱼场,2北刘口外5【纯农排变】,1臧庄内9,河北光辉农产品开发有限公司,2北刘口外14,1南刘口内4,清苑县方全电力材料有限公司03,保定市清苑区光辉铜米加工厂,2臧庄外8【纯农排变】,1东木欠庄内3,南刘口村正南,1臧庄内4,1臧庄内5,2东木欠庄外2【纯农排变】,臧庄幼儿园,1北刘口内8,1南刘口内8,1南刘口内5,1南刘口内10,保定市清苑区保坤养殖场,2臧庄外11【纯农排变】,2东木欠庄外3【纯农排变】,0579488416-南刘口村委会-专变-124419232-南刘口村委会,1北刘口内7,清苑县望亭乡南刘口水厂,0387488200-南刘口村南-专变-45313865-南刘口村南1,东木欠庄村北,南刘口明德小学,南刘口村东3,0387487366-南刘口村委会养殖场-专变-124292791-南刘口村东1号,保定市榆茂有色金属回收有限公司,1南刘口内1,容坤无公害蔬菜种植基地,清苑县方全电力材料有限公司01,1臧庄内3,2臧庄外6【纯农排变】,2北刘口外4【纯农排变】,保定海旺有色金属销售有限公司,0670064193-清苑县月阳福帝休闲农业观光有限公司-专变-212351143-清苑县月阳福帝休闲农业观光有限公司,南园区种植基地,1臧庄内11,南刘口村南2,1东木欠庄内2,2臧庄外12【纯农排变】,1臧庄内1,保定市清苑区纪营养殖场","powerOffReason":"【停电原因】由于主干１号杆开关掉闸导致３５ＫＶ刘口变电站１０ＫＶ藏庄线５１１线路全线停电 【变更送电】因抢修进度加快原因，送电时间由１０：００变更为００：４０ 【发布渠道】通过９５５９８发布","powerOffId":"2020031813001325"},{"poweroffId":2020031813001309,"sgpoweroffId":null,"subsName":"","lineName":"10kV557三滑村线","pubTranName":"西滑综合3台区,中滑综合4台区,西滑综合1台区,中滑综合9台区,中滑农排2台区【纯农排变】,中石油150加油站,0469342417-西滑胜利冷库-专变-46779642-西滑胜利冷库,西滑农排2台区【纯农排变】,西滑农排3台区【纯农排变】,中滑综合5台区,中滑综合11台区,中滑综合2台区,西滑综合4台区,中滑农排3台区【纯农排变】,西滑综合6台区,中滑综合1台区,中滑综合12台区,西滑第三板厂,西滑综合2台区,西滑综合7台区,西滑综合5台区,西滑农排1台区【纯农排变】,中滑综合10台区,西滑四板厂,蠡县宏宇纺纱厂变压器,蠡县蠡州城乡建设投资有限公司,西滑第二板厂,蠡县碧中海洗浴宾馆变压器,西滑第一板厂,","scope":"【影响街道/乡镇】蠡吾镇【高危重要客户】无【影响客户】中滑村、西滑村","startTime":"2020-03-18 21:42:02","stopDate":"2020-03-19 00:30:00","orgNo":"1340616","typeCode":"电网故障停限电","poweroffArea":"【全线路停电】停西滑综合5台区,西滑第二板厂,西滑第一板厂,中滑综合1台区,中滑综合12台区,西滑综合1台区,西滑农排1台区【纯农排变】,中滑综合10台区,西滑四板厂,蠡县宏宇纺纱厂变压器,蠡县蠡州城乡建设投资有限公司,蠡县碧中海洗浴宾馆变压器,西滑农排3台区【纯农排变】,中滑综合5台区,中滑综合11台区,中滑综合2台区,西滑综合4台区,中滑农排3台区【纯农排变】,西滑综合6台区,西滑第三板厂,西滑综合2台区,西滑综合7台区,西滑综合3台区,中滑综合4台区,中滑综合9台区,中滑农排2台区【纯农排变】,西滑农排2台区【纯农排变】,中石油150加油站,0469342417-西滑胜利冷库-专变-46779642-西滑胜利冷库","poweroffReason":"【停电原因】由于站外开关掉闸导致１１０ＫＶ中滑变电站１０ＫＶ三滑５５７线路全线停电【变更送电】因抢修进度加快原因，送电时间由 １９日１０：３０变更为１９日００：３０【发布渠道】通过９５５９８发布","powerTime":"2020-03-18 23:52:28","powerComm":"已送电","subsNo":"","lineNo":"","tgNo":"","tgName":null,"infoStatus":"1","orgName":"国网蠡县供电公司","typeName":null,"infoStatusName":null,"dateDay":null,"orgNos":null,"nowTime":null,"countyName":null,"streetName":null,"villageName":null,"roadName":null,"communityName":null,"tranName":null,"sdLineName":null,"cityCode":"1340616","cityName":"国网蠡县供电公司","provinceCode":null,"stopTime":"2020-03-19 00:30:00","powerType":"全部","powerOffArea":"【全线路停电】停西滑综合5台区,西滑第二板厂,西滑第一板厂,中滑综合1台区,中滑综合12台区,西滑综合1台区,西滑农排1台区【纯农排变】,中滑综合10台区,西滑四板厂,蠡县宏宇纺纱厂变压器,蠡县蠡州城乡建设投资有限公司,蠡县碧中海洗浴宾馆变压器,西滑农排3台区【纯农排变】,中滑综合5台区,中滑综合11台区,中滑综合2台区,西滑综合4台区,中滑农排3台区【纯农排变】,西滑综合6台区,西滑第三板厂,西滑综合2台区,西滑综合7台区,西滑综合3台区,中滑综合4台区,中滑综合9台区,中滑农排2台区【纯农排变】,西滑农排2台区【纯农排变】,中石油150加油站,0469342417-西滑胜利冷库-专变-46779642-西滑胜利冷库","powerOffReason":"【停电原因】由于站外开关掉闸导致１１０ＫＶ中滑变电站１０ＫＶ三滑５５７线路全线停电【变更送电】因抢修进度加快原因，送电时间由 １９日１０：３０变更为１９日００：３０【发布渠道】通过９５５９８发布","powerOffId":"2020031813001309"},{"poweroffId":2020031813001254,"sgpoweroffId":null,"subsName":"","lineName":"10kV514东五夫线","pubTranName":"悟儿头综合3台区,东伍夫综合4台区,悟儿头综合2台区,张庄农排3台区【纯农排变】,南五夫农排9台区【纯农排变】,东五夫综合6台区,马佐综合4台区,东伍夫综合2台区,石庄村综合1台区,南五夫综合9台区,东五夫综合7台区,东五夫农排16台区【纯农排变】,东伍夫农排10台区【纯农排变】,东伍夫综合3台区,东伍夫农排4台区【纯农排变】,南五夫农排3台区【纯农排变】,南伍夫综合1台区,南伍夫综合5台区,东伍夫农排6台区【纯农排变】,东五夫综合8台区,东伍夫综合10台区,南伍夫综合4台区,于林村农排3台区【纯农排变】,东五夫综合9台区,东伍夫综合1台区,东伍夫农排14台区【纯农排变】,吾尔头综合1台区,东伍夫农排5台区【纯农排变】,东伍夫农排1台区【纯农排变】,于林村农排2台区【纯农排变】,南五夫综合6台区,东五夫综合5台区,张庄农排2台区【纯农排变】,东伍夫农排3台区【纯农排变】,东五夫综合11台区,于林村农排1台区【纯农排变】,南伍夫综合3台区,吾尔头农排2台区【纯农排变】,南伍夫综合2台区,南五夫综合7台区,马佐综合3台区,马佐综合1台区,张庄综合2台区,南五夫综合8台区,张庄综合3台区,马佐农排3台区【纯农排变】,张庄综合1台区,南五夫农排10台区【纯农排变】,东伍夫农排2台区【纯农排变】,东伍夫农排7台区【纯农排变】,张庄综合5台区,张庄综合4台区,马佐综合2台区,","scope":"【影响街道/乡镇】鲍墟乡【高危重要客户】无【影响客户】南五夫村、东五夫村、张庄村、马佐村、悟儿头村、榆林村","startTime":"2020-03-18 21:34:02","stopDate":"2020-03-19 07:00:00","orgNo":"1340616","typeCode":"电网故障停限电","poweroffArea":"【全线路停电】停南五夫综合7台区,南五夫农排9台区【纯农排变】,马佐农排1台区【纯农排变】,东伍夫农排11台区【纯农排变】,东伍夫农排15台区【纯农排变】,东五夫综合9台区,张庄综合2台区,东五夫综合11台区,东伍夫农排7台区【纯农排变】,南五夫农排3台区【纯农排变】,张庄农排2台区【纯农排变】,南五夫农排4台区【纯农排变】,东伍夫农排1台区【纯农排变】,东五夫农排16台区【纯农排变】,张庄农排1台区【纯农排变】,东伍夫综合2台区,于林村农排2台区【纯农排变】,南伍夫综合5台区,于林村农排3台区【纯农排变】,南五夫农排12台区【纯农排变】,东伍夫农排5台区【纯农排变】,悟儿头综合2台区,南五夫农排8台区【纯农排变】,南伍夫综合3台区,邢台市龙翔钻探有限公司变压器,乡政府,石庄件厂,马佐综合1台区,吾尔头农排1台区【纯农排变】,保去砖厂小,东五夫综合6台区,东伍夫农排10台区【纯农排变】,张庄农排3台区【纯农排变】,南五夫农排11台区【纯农排变】,马佐综合4台区,南伍夫综合1台区,于林村农排1台区【纯农排变】,东伍夫农排6台区【纯农排变】,东伍夫综合10台区,东伍夫农排14台区【纯农排变】,马佐革区西,捂儿头农用正北,南五夫综合8台区,南五夫综合9台区,东伍夫农排2台区【纯农排变】,南五夫面粉厂,悟儿头综合3台区,南伍夫综合4台区,鲍墟供电所变压器,石庄村综合1台区,东伍夫农排12台区【纯农排变】,马佐农排3台区【纯农排变】,东伍夫综合1台区,东伍夫农排8台区【纯农排变】,张庄综合5台区,马佐综合3台区,南五夫综合6台区,东伍夫农排9台区【纯农排变】,东伍夫农排3台区【纯农排变】,南伍夫农排2台区【纯农排变】,马佐农排4台区【纯农排变】,东伍夫农排13台区【纯农排变】,东五夫综合8台区,张庄农排4台区【纯农排变】,保去砖厂大,捂儿头面粉厂,南五夫农排6台区【纯农排变】,南五夫农排10台区【纯农排变】,东伍夫农排4台区【纯农排变】,张庄综合3台区,吾尔头农排2台区【纯农排变】,东五夫综合7台区,南五夫农排7台区【纯农排变】,吾尔头综合1台区,南伍夫农排1台区【纯农排变】,张庄综合1台区,张庄综合4台区,东伍夫综合3台区,马佐综合2台区,东五夫综合5台区,马佐农排2台区【纯农排变】,南五夫农排5台区【纯农排变】,东伍夫综合4台区,南伍夫综合2台区","poweroffReason":"【停电原因】由于站内开关掉闸导致３５ＫＶ鲍墟变电站１０ＫＶ东五夫５１４线路全线停电【变更送电】因抢修进度加快原因，送电时间由１０：３０变更为０７：００【发布渠道】通过９５５９８发布","powerTime":"2020-03-19 06:32:26","powerComm":"已送电","subsNo":"","lineNo":"","tgNo":"","tgName":null,"infoStatus":"1","orgName":"国网蠡县供电公司","typeName":null,"infoStatusName":null,"dateDay":null,"orgNos":null,"nowTime":null,"countyName":null,"streetName":null,"villageName":null,"roadName":null,"communityName":null,"tranName":null,"sdLineName":null,"cityCode":"1340616","cityName":"国网蠡县供电公司","provinceCode":null,"stopTime":"2020-03-19 07:00:00","powerType":"全部","powerOffArea":"【全线路停电】停南五夫综合7台区,南五夫农排9台区【纯农排变】,马佐农排1台区【纯农排变】,东伍夫农排11台区【纯农排变】,东伍夫农排15台区【纯农排变】,东五夫综合9台区,张庄综合2台区,东五夫综合11台区,东伍夫农排7台区【纯农排变】,南五夫农排3台区【纯农排变】,张庄农排2台区【纯农排变】,南五夫农排4台区【纯农排变】,东伍夫农排1台区【纯农排变】,东五夫农排16台区【纯农排变】,张庄农排1台区【纯农排变】,东伍夫综合2台区,于林村农排2台区【纯农排变】,南伍夫综合5台区,于林村农排3台区【纯农排变】,南五夫农排12台区【纯农排变】,东伍夫农排5台区【纯农排变】,悟儿头综合2台区,南五夫农排8台区【纯农排变】,南伍夫综合3台区,邢台市龙翔钻探有限公司变压器,乡政府,石庄件厂,马佐综合1台区,吾尔头农排1台区【纯农排变】,保去砖厂小,东五夫综合6台区,东伍夫农排10台区【纯农排变】,张庄农排3台区【纯农排变】,南五夫农排11台区【纯农排变】,马佐综合4台区,南伍夫综合1台区,于林村农排1台区【纯农排变】,东伍夫农排6台区【纯农排变】,东伍夫综合10台区,东伍夫农排14台区【纯农排变】,马佐革区西,捂儿头农用正北,南五夫综合8台区,南五夫综合9台区,东伍夫农排2台区【纯农排变】,南五夫面粉厂,悟儿头综合3台区,南伍夫综合4台区,鲍墟供电所变压器,石庄村综合1台区,东伍夫农排12台区【纯农排变】,马佐农排3台区【纯农排变】,东伍夫综合1台区,东伍夫农排8台区【纯农排变】,张庄综合5台区,马佐综合3台区,南五夫综合6台区,东伍夫农排9台区【纯农排变】,东伍夫农排3台区【纯农排变】,南伍夫农排2台区【纯农排变】,马佐农排4台区【纯农排变】,东伍夫农排13台区【纯农排变】,东五夫综合8台区,张庄农排4台区【纯农排变】,保去砖厂大,捂儿头面粉厂,南五夫农排6台区【纯农排变】,南五夫农排10台区【纯农排变】,东伍夫农排4台区【纯农排变】,张庄综合3台区,吾尔头农排2台区【纯农排变】,东五夫综合7台区,南五夫农排7台区【纯农排变】,吾尔头综合1台区,南伍夫农排1台区【纯农排变】,张庄综合1台区,张庄综合4台区,东伍夫综合3台区,马佐综合2台区,东五夫综合5台区,马佐农排2台区【纯农排变】,南五夫农排5台区【纯农排变】,东伍夫综合4台区,南伍夫综合2台区","powerOffReason":"【停电原因】由于站内开关掉闸导致３５ＫＶ鲍墟变电站１０ＫＶ东五夫５１４线路全线停电【变更送电】因抢修进度加快原因，送电时间由１０：３０变更为０７：００【发布渠道】通过９５５９８发布","powerOffId":"2020031813001254"},{"poweroffId":2020031813001233,"sgpoweroffId":null,"subsName":"","lineName":"井尔峪线511","pubTranName":"柏木井5台区,神石庄村6#,北白涧村4#村东变压器,神石庄17#【纯农排变】,神石庄14台区,北白涧6台区,西大北头村1#,井尔峪5#,北白涧3#,井尔峪村1#,神石庄村5#,西大北头村3#,柏木井村3#【纯农排变】,西大北头6#区机井变压器,东大北头村6#,西大北头4#,西大北头8#机井变压器,井尔峪村7#,井尔峪村6#,神石庄村11#,柳林庄村1#,柳林庄6#变压器,神石庄村4#,北东庄村2#,井尔峪村8#,柳林庄村3#【纯农排变】,西大北头7#机井变压器,东大北头5#,柳林庄村2#,神石庄村13#,东大北头村1#,西大北头村2#南,井尔峪村2#,柳林庄5台区,北白涧村1#,柏木井村6台区机井变压器,北白涧村2#,神石庄18#【纯农排变】,西大北头村5#,神石庄9#,东大北头村3#,北白涧村7台区机井变压器,神石庄村12#,北白涧村5#,柏木井村1#,神石庄村3#,北东庄1台,综|10030,井尔峪村4#,柏木井村2#|北,","scope":"【影响街道/乡镇】西陵镇、高村乡【高危重要客户】无【影响客户】柏木井村、北白涧村、西大北头村、柳林庄村、东大北头村、神石庄村、北东庄村、井尔峪村","startTime":"2020-03-18 21:31:57","stopDate":"2020-03-18 23:30:00","orgNo":"1340625","typeCode":"电网故障停限电","poweroffArea":"【全线路停电】停柏木井村3#【纯农排变】,易县北白涧村延会运通砖厂变压器,西大北头4#,柳林庄5台区,东大北头村3#,东大北头村1#,神石庄村3#,北东庄村武国栋变压器,易县得文矿产品开发有限公司变压器,西大北头村5#,北白涧村7台区机井变压器,易县建立鞋厂变压器,王胜利养猪厂,北东庄村2#,北福地村(李贺军),仁忠山石球厂,易县大鹏石料厂200,柳林庄6#变压器,神石庄9#,柏木井村1#,易县宝山物资经销处160KVA,神石庄15台区【纯农排变】,井尔峪村6#,神石庄村6#,易县鼎鑫矿产品开发有限公司变压器,北白涧村1#,井尔峪村7#,柳林庄村4#,东大北头村6#,张晓杰,神石庄14台区,东大北头村4#【纯农排变】,井尔峪村1#,神石庄村4#,保定市张石高速公路筹建处,宝山物资经销处80KVA变压器,井尔峪村8#,神石庄18#【纯农排变】,0588882601-易县隆鑫膨润土矿-专变-125370179-易县隆鑫膨润土矿变压器,北白涧6台区,北东庄1台,北白涧村4#村东变压器,井尔峪村2#,柳林庄村牛宝仓100KVA,东大北头村王学武变压器,北白涧村2#,西大北头村3#,易县宝山物资经销处,西大北头村2#南,神石庄17#【纯农排变】,柳林庄村1#,西大北头村1#,【全线路停电】停西大北头8#机井变压器,神石庄村11#,柏木井5台区,北白涧3#,柳林庄村3#【纯农排变】,井尔峪5#,北白涧村5#,神石庄村12#,西大北头7#机井变压器,西大北头6#区机井变压器,井尔峪村4#,东大北头5#,神石庄村5#,神石庄村13#,易县德文矿产品开发公司石料加工厂,易县德文矿产品开发公司,柏木井村6台区机井变压器,柏木井村4#,柳林庄村2#,柏木井村2#|北,综|10030,东大北头村2#","poweroffReason":"【停电原因】由于北白涧１＃台区分支Ｂ相支瓶脱落导致１１０ＫＶ西陵变电站井尔峪５１１线路全线停电【变更送电】由于抢修进度加快原因，送电时间由１９日０８：００变更为１８日２３：３０【发布渠道】通过９５５９８发布","powerTime":"2020-03-18 23:08:08","powerComm":"已送电","subsNo":"","lineNo":"","tgNo":"","tgName":null,"infoStatus":"1","orgName":"国网易县供电公司","typeName":null,"infoStatusName":null,"dateDay":null,"orgNos":null,"nowTime":null,"countyName":null,"streetName":null,"villageName":null,"roadName":null,"communityName":null,"tranName":null,"sdLineName":null,"cityCode":"1340625","cityName":"国网易县供电公司","provinceCode":null,"stopTime":"2020-03-18 23:30:00","powerType":"全部","powerOffArea":"【全线路停电】停柏木井村3#【纯农排变】,易县北白涧村延会运通砖厂变压器,西大北头4#,柳林庄5台区,东大北头村3#,东大北头村1#,神石庄村3#,北东庄村武国栋变压器,易县得文矿产品开发有限公司变压器,西大北头村5#,北白涧村7台区机井变压器,易县建立鞋厂变压器,王胜利养猪厂,北东庄村2#,北福地村(李贺军),仁忠山石球厂,易县大鹏石料厂200,柳林庄6#变压器,神石庄9#,柏木井村1#,易县宝山物资经销处160KVA,神石庄15台区【纯农排变】,井尔峪村6#,神石庄村6#,易县鼎鑫矿产品开发有限公司变压器,北白涧村1#,井尔峪村7#,柳林庄村4#,东大北头村6#,张晓杰,神石庄14台区,东大北头村4#【纯农排变】,井尔峪村1#,神石庄村4#,保定市张石高速公路筹建处,宝山物资经销处80KVA变压器,井尔峪村8#,神石庄18#【纯农排变】,0588882601-易县隆鑫膨润土矿-专变-125370179-易县隆鑫膨润土矿变压器,北白涧6台区,北东庄1台,北白涧村4#村东变压器,井尔峪村2#,柳林庄村牛宝仓100KVA,东大北头村王学武变压器,北白涧村2#,西大北头村3#,易县宝山物资经销处,西大北头村2#南,神石庄17#【纯农排变】,柳林庄村1#,西大北头村1#,【全线路停电】停西大北头8#机井变压器,神石庄村11#,柏木井5台区,北白涧3#,柳林庄村3#【纯农排变】,井尔峪5#,北白涧村5#,神石庄村12#,西大北头7#机井变压器,西大北头6#区机井变压器,井尔峪村4#,东大北头5#,神石庄村5#,神石庄村13#,易县德文矿产品开发公司石料加工厂,易县德文矿产品开发公司,柏木井村6台区机井变压器,柏木井村4#,柳林庄村2#,柏木井村2#|北,综|10030,东大北头村2#","powerOffReason":"【停电原因】由于北白涧１＃台区分支Ｂ相支瓶脱落导致１１０ＫＶ西陵变电站井尔峪５１１线路全线停电【变更送电】由于抢修进度加快原因，送电时间由１９日０８：００变更为１８日２３：３０【发布渠道】通过９５５９８发布","powerOffId":"2020031813001233"},{"poweroffId":2020031813001221,"sgpoweroffId":null,"subsName":"","lineName":"百泉线518","pubTranName":"518百泉线南关华荣公司,西关箱变5#出线间隔配电变压器,518百泉线新街上关,龙凤庄园,涞源站518杏花湾接待中心,西关大队西环,新街盐业公司变压器,518百泉线太平关新南,518百泉线太平关油站新,西关箱变3#出线间隔配电变压器,518百泉线南关学校变压器,西关新村配变,西关箱变1#出线间隔配电变压器,518百泉线南山假日台区,西关木龙坝,518百泉线新街新村2号台区,南关关里西(市场),南关小学箱变出线间隔配电变压器,农业局家属楼,西关摩擦厂,518百泉线南关关里西,518百泉线刘栋公用配变,西关老虎头2台区,西关老虎头,南关瓦窑箱变出线间隔配电变压器,518百泉线南关瓦窑2#,南山路箱变6#出线间隔配电变压器,西关箱变2#出线间隔配电变压器,西关老虎头3号变压器,518百泉线新街河滩新上,双祥箱变7#出线间隔配电变压器,派出所,涞源站518鼎宇物业台区,518百泉线硕丰园台区公用配变,西关石桥2,518百泉线西关石桥,移动箱变8#出线间隔配电变压器,518百泉线西关二0九,518百泉线西关独山城新区,旧车站变压器,西关老龙堂2,新街箱变4#出线间隔配电变压器,518百泉线新街新村,邮政局,518百泉线新街后地,西美小区出线间隔配电变压器,","scope":"【影响街道/乡镇】１０８国道、城区办【高危重要客户】无【影响客户】太平关村、南关村、西关村、新街村、旗山市场、文化馆家属楼、教育局家属楼、自来水公司家属楼、盐业公司家属楼、农业局家属楼、城关派出所、双祥小区、南山高层、上关、南关小学、涞源县第三幼儿园、南山广场","startTime":"2020-03-18 21:42:48","stopDate":"2020-03-18 23:20:00","orgNo":"1340615","typeCode":"电网故障停限电","poweroffArea":"【全线路停电】停旧车站变压器,涞源县鼎宇物业服务有限公司变压器,涞源县天丰建筑器材租赁站变压器,518百泉线新街河滩新上,双祥箱变7#出线间隔配电变压器,267路灯变压器,石油公司加油站,派出所,保定通源公司,辛虎,涞源站518鼎宇物业台区,电力宾馆,518百泉线硕丰园台区公用配变,西关石桥2,庞大涞源分公司,518百泉线西关石桥,移动箱变8#出线间隔配电变压器,涞源县祥通公交客运有限公司变压器,西关老龙堂2,新街箱变4#出线间隔配电变压器,西美小区出线间隔配电变压器,南山路箱变6#出线间隔配电变压器,涞源县诚达商贸有限公司,南关小学,西关箱变2#出线间隔配电变压器,涞源县华荣酒店有限公司变压器,西关老虎头3号变压器,中国移动通信集团有限公司涞源分公司变压器,518百泉线西关二0九,518百泉线西关独山城新区,龙凤庄园,西关新村配变,变压器1号,西关箱变1#出线间隔配电变压器,瑞旺煤站,新街盐业公司变压器,518百泉线太平关新南,518百泉线太平关油站新,涞源县三利钢球厂变压器,西关箱变3#出线间隔配电变压器,天顺矿选机械修造厂,木楦厂,518百泉线南关学校变压器,0469542686-潘英鹤-专变-46835550-潘英鹤,518百泉线南山假日台区,南关大桥路灯,西关木龙坝,蓬天阁酒家,四通煤厂,变压器02号,黄金山,大顺达煤站,518百泉线新街新村2号台区,南关关里西(市场),南关小学箱变出线间隔配电变压器,农业局家属楼,西关摩擦厂,518百泉线南关关里西,518百泉线刘栋公用配变,涞源县富瑞能源有限公司变压器,西关老虎头2台区,西关老虎头,南关瓦窑箱变出线间隔配电变压器,518百泉线新街新村,邮政局,涞源县银诺建筑防水工程有限公司变压器,518百泉线新街后地,518百泉线南关瓦窑2#,518百泉线南关华荣公司,西关箱变5#出线间隔配电变压器,518百泉线新街上关,涞源站518杏花湾接待中心,涞源县鸿丰达水泥制品有限公司变压器,涞源县第一小学城关校区变压器,西关大队西环","poweroffReason":"【停电原因】由于主干线路引线断裂导致１１０ＫＶ涞源变电站１０ＫＶ百泉线５１８线路全线停电【变更送电】因抢修进度加快，原定１９日０１：００送电现计划１８日２３：２０送电【发布渠道】通过９５５９８发布","powerTime":"2020-03-18 23:05:08","powerComm":"已送电","subsNo":"","lineNo":"","tgNo":"","tgName":null,"infoStatus":"1","orgName":"国网涞源县供电公司","typeName":null,"infoStatusName":null,"dateDay":null,"orgNos":null,"nowTime":null,"countyName":null,"streetName":null,"villageName":null,"roadName":null,"communityName":null,"tranName":null,"sdLineName":null,"cityCode":"1340615","cityName":"国网涞源县供电公司","provinceCode":null,"stopTime":"2020-03-18 23:20:00","powerType":"全部","powerOffArea":"【全线路停电】停旧车站变压器,涞源县鼎宇物业服务有限公司变压器,涞源县天丰建筑器材租赁站变压器,518百泉线新街河滩新上,双祥箱变7#出线间隔配电变压器,267路灯变压器,石油公司加油站,派出所,保定通源公司,辛虎,涞源站518鼎宇物业台区,电力宾馆,518百泉线硕丰园台区公用配变,西关石桥2,庞大涞源分公司,518百泉线西关石桥,移动箱变8#出线间隔配电变压器,涞源县祥通公交客运有限公司变压器,西关老龙堂2,新街箱变4#出线间隔配电变压器,西美小区出线间隔配电变压器,南山路箱变6#出线间隔配电变压器,涞源县诚达商贸有限公司,南关小学,西关箱变2#出线间隔配电变压器,涞源县华荣酒店有限公司变压器,西关老虎头3号变压器,中国移动通信集团有限公司涞源分公司变压器,518百泉线西关二0九,518百泉线西关独山城新区,龙凤庄园,西关新村配变,变压器1号,西关箱变1#出线间隔配电变压器,瑞旺煤站,新街盐业公司变压器,518百泉线太平关新南,518百泉线太平关油站新,涞源县三利钢球厂变压器,西关箱变3#出线间隔配电变压器,天顺矿选机械修造厂,木楦厂,518百泉线南关学校变压器,0469542686-潘英鹤-专变-46835550-潘英鹤,518百泉线南山假日台区,南关大桥路灯,西关木龙坝,蓬天阁酒家,四通煤厂,变压器02号,黄金山,大顺达煤站,518百泉线新街新村2号台区,南关关里西(市场),南关小学箱变出线间隔配电变压器,农业局家属楼,西关摩擦厂,518百泉线南关关里西,518百泉线刘栋公用配变,涞源县富瑞能源有限公司变压器,西关老虎头2台区,西关老虎头,南关瓦窑箱变出线间隔配电变压器,518百泉线新街新村,邮政局,涞源县银诺建筑防水工程有限公司变压器,518百泉线新街后地,518百泉线南关瓦窑2#,518百泉线南关华荣公司,西关箱变5#出线间隔配电变压器,518百泉线新街上关,涞源站518杏花湾接待中心,涞源县鸿丰达水泥制品有限公司变压器,涞源县第一小学城关校区变压器,西关大队西环","powerOffReason":"【停电原因】由于主干线路引线断裂导致１１０ＫＶ涞源变电站１０ＫＶ百泉线５１８线路全线停电【变更送电】因抢修进度加快，原定１９日０１：００送电现计划１８日２３：２０送电【发布渠道】通过９５５９８发布","powerOffId":"2020031813001221"},{"poweroffId":2020031813001216,"sgpoweroffId":null,"subsName":"","lineName":"彤霞线518","pubTranName":"彤霞内西混5,大西堤村西混合,彤霞混合4号,北韩庄混合3号,北韩庄混合1,彤霞路边混7配变,彤霞西北,","scope":"【影响街道/乡镇】望都镇　　 【高危重要客户】无　　 【影响客户】大西堤、彤霞村、北韩庄","startTime":"2020-03-18 23:00:00","stopDate":"2020-03-19 01:00:00","orgNo":"1340623","typeCode":"其他临时停电","poweroffArea":"【全线路停电】停彤霞内西混5,大西堤村西混合,彤霞混合4号,北韩庄混合3号,北韩庄混合1,彤霞路边混7配变,彤霞西北","poweroffReason":"【停电原因】由于Ａ相刀闸发热，需停电进行紧急消缺导致１１０ＫＶ西堤变电站彤霞线５１８线路全线停电 【变更送电】无 【发布渠道】通过９５５９８发布","powerTime":"2020-03-19 00:33:18","powerComm":"已送电","subsNo":"","lineNo":"","tgNo":"","tgName":null,"infoStatus":"1","orgName":"国网望都县供电公司","typeName":null,"infoStatusName":null,"dateDay":null,"orgNos":null,"nowTime":null,"countyName":null,"streetName":null,"villageName":null,"roadName":null,"communityName":null,"tranName":null,"sdLineName":null,"cityCode":"1340623","cityName":"国网望都县供电公司","provinceCode":null,"stopTime":"2020-03-19 01:00:00","powerType":"全部","powerOffArea":"【全线路停电】停彤霞内西混5,大西堤村西混合,彤霞混合4号,北韩庄混合3号,北韩庄混合1,彤霞路边混7配变,彤霞西北","powerOffReason":"【停电原因】由于Ａ相刀闸发热，需停电进行紧急消缺导致１１０ＫＶ西堤变电站彤霞线５１８线路全线停电 【变更送电】无 【发布渠道】通过９５５９８发布","powerOffId":"2020031813001216"},{"poweroffId":2020031813001142,"sgpoweroffId":null,"subsName":"","lineName":"圈头西线515","pubTranName":"西田村东13号综合,西田村东新增综合,南圈头17号堤南综合,","scope":"【影响街道/乡镇】西演镇、城关镇 【高危重要客户】无 【影响客户】西田村村东部分、南圈头村村西南部分及农业、东田村南部分农业","startTime":"2020-03-18 21:11:45","stopDate":"2020-03-19 02:00:00","orgNo":"1340613","typeCode":"电网故障停限电","poweroffArea":"【全线路停电】停高阳县马辉冷库变压器,南圈头工业区,0675564294-中国石油天然气股份有限公司华北油田分公司-专变-216182473-中国石油天然气股份有限公司华北油田分公司变压器,恒利纺织印染有限公司,西田村东13号综合,李同利,齐金柱,兰云纺织品有限公司,刘洪,李瑞英,如是河北纺织品制造有限公司,雨水提升泵站变压器,李伯学,保定军良纺织品制造有限公司变压器,高阳县海盛纺织品制造有限公司变压器,高阳县高润纺织有限公司变压器,洁倩纺织有限公司,保定东恩纺织品有限公司变压器,如是河北纺织品制造有限公司变压器,高阳县卫东巾被厂变压器,0688692870-保定贯英纺织品有限公司-专变-230607641-保定贯英纺织品有限公司变压器,高阳县赢科节水灌溉设备制造有限公司变压器,南圈头1#路北农排【纯农排变】,崔双英,高阳县平兴电脑绣花加工厂变压器,东恩纺织有限公司,鑫启源纺织厂,南圈头12#堤南农排【纯农排变】,西田村东新增综合,隆阳纺织品有限公司,郭建军变压器,南圈头17号堤南综合,佳棉纺织品公司,高阳县林萌纺织品有限公司变压器,保定少康纺织品有限公司变压器,东田2#农排【纯农排变】,高阳县军良织物厂变压器,河北旭生纺织有限公司变压器,高阳县万佳纺织品有限公司变压器,高阳县住房和城乡建设局变压器,刘磊,高阳县久发纺纱厂变压器,正奇无纺布有限公司变压器,梦翠娇纺织品有限公司,潘玉柱,高阳县？道汽车运输有限公司变压器,保定强力塑料制品制造有限公司变压器,保定顺帆商贸有限公司变压器,高阳县伟恒纺织品制造有限公司变压器,东田3#农排【纯农排变】,高阳县蕴泽纺织品制造有限公司变压器,苏斌,白义宗,高阳县宝发纺织机械制造有限公司变压器,李俊生,0672226382-河北卡缦纺织品制造有限公司-专变-212380752-河北卡缦纺织品制造有限公司变压器,高阳县阳光纺织有限公司,新新纺织品有限公司,齐保树","poweroffReason":"【停电原因】由于风刮异物导致１１０ＫＶ田果庄变电站圈头西５１５线路全线停电【变更送电】因抢修进度加快原因，送电时间由１０：００变更为０２：００【发布渠道】通过９５５９８发布","powerTime":"2020-03-19 01:31:07","powerComm":"已送电","subsNo":"","lineNo":"","tgNo":"","tgName":null,"infoStatus":"1","orgName":"国网高阳县供电公司","typeName":null,"infoStatusName":null,"dateDay":null,"orgNos":null,"nowTime":null,"countyName":null,"streetName":null,"villageName":null,"roadName":null,"communityName":null,"tranName":null,"sdLineName":null,"cityCode":"1340613","cityName":"国网高阳县供电公司","provinceCode":null,"stopTime":"2020-03-19 02:00:00","powerType":"全部","powerOffArea":"【全线路停电】停高阳县马辉冷库变压器,南圈头工业区,0675564294-中国石油天然气股份有限公司华北油田分公司-专变-216182473-中国石油天然气股份有限公司华北油田分公司变压器,恒利纺织印染有限公司,西田村东13号综合,李同利,齐金柱,兰云纺织品有限公司,刘洪,李瑞英,如是河北纺织品制造有限公司,雨水提升泵站变压器,李伯学,保定军良纺织品制造有限公司变压器,高阳县海盛纺织品制造有限公司变压器,高阳县高润纺织有限公司变压器,洁倩纺织有限公司,保定东恩纺织品有限公司变压器,如是河北纺织品制造有限公司变压器,高阳县卫东巾被厂变压器,0688692870-保定贯英纺织品有限公司-专变-230607641-保定贯英纺织品有限公司变压器,高阳县赢科节水灌溉设备制造有限公司变压器,南圈头1#路北农排【纯农排变】,崔双英,高阳县平兴电脑绣花加工厂变压器,东恩纺织有限公司,鑫启源纺织厂,南圈头12#堤南农排【纯农排变】,西田村东新增综合,隆阳纺织品有限公司,郭建军变压器,南圈头17号堤南综合,佳棉纺织品公司,高阳县林萌纺织品有限公司变压器,保定少康纺织品有限公司变压器,东田2#农排【纯农排变】,高阳县军良织物厂变压器,河北旭生纺织有限公司变压器,高阳县万佳纺织品有限公司变压器,高阳县住房和城乡建设局变压器,刘磊,高阳县久发纺纱厂变压器,正奇无纺布有限公司变压器,梦翠娇纺织品有限公司,潘玉柱,高阳县？道汽车运输有限公司变压器,保定强力塑料制品制造有限公司变压器,保定顺帆商贸有限公司变压器,高阳县伟恒纺织品制造有限公司变压器,东田3#农排【纯农排变】,高阳县蕴泽纺织品制造有限公司变压器,苏斌,白义宗,高阳县宝发纺织机械制造有限公司变压器,李俊生,0672226382-河北卡缦纺织品制造有限公司-专变-212380752-河北卡缦纺织品制造有限公司变压器,高阳县阳光纺织有限公司,新新纺织品有限公司,齐保树","powerOffReason":"【停电原因】由于风刮异物导致１１０ＫＶ田果庄变电站圈头西５１５线路全线停电【变更送电】因抢修进度加快原因，送电时间由１０：００变更为０２：００【发布渠道】通过９５５９８发布","powerOffId":"2020031813001142"},{"poweroffId":2020031813001125,"sgpoweroffId":null,"subsName":"","lineName":"10kV薛留营站529线路","pubTranName":"0356175256-保定银座商城有限公司-5#专变,0696327971-保定市发投热力有限公司-专变变压器02,0696327971-保定市发投热力有限公司-专变变压器03,0696327971-保定市发投热力有限公司-专变变压器01,0593982152-保定市华创房地产开发有限公司-专变,0356175256-保定银座商城有限公司-6#专变,0356582999-保定市华创房地产开发有限公司-2#专变,0356175256-保定银座商城有限公司-1#专变,0356582999-保定市华创房地产开发有限公司-1#专变,0356175256-保定银座商城有限公司-2#专变,","scope":"【影响街道/乡镇】北市区、建华南大街 【高危重要客户】无 【影响客户】运输五公司","startTime":"2020-03-18 20:30:00","stopDate":"2020-03-18 23:30:00","orgNo":"13406","typeCode":"电网故障停限电","poweroffArea":"【全线路停电】停0696327971-保定市发投热力有限公司-专变变压器01,0593982152-保定市华创房地产开发有限公司-专变,0356175256-保定银座商城有限公司-6#专变,0356582999-保定市华创房地产开发有限公司-2#专变,0356175256-保定银座商城有限公司-1#专变,0356582999-保定市华创房地产开发有限公司-1#专变,0356175256-保定银座商城有限公司-2#专变,0356175256-保定银座商城有限公司-5#专变,0696327971-保定市发投热力有限公司-专变变压器02,0696327971-保定市发投热力有限公司-专变变压器03","poweroffReason":"【停电原因】由于分支开关短路导致１０ＫＶ薛留营变电站５２９线路全线停电【变更送电】因抢修进度加快，原定00:30送电现计划23:30送电【发布渠道】通过９５５９８发布","powerTime":"2020-03-18 23:17:36","powerComm":"已送电","subsNo":"","lineNo":"","tgNo":"","tgName":null,"infoStatus":"1","orgName":"保定供电公司","typeName":null,"infoStatusName":null,"dateDay":null,"orgNos":null,"nowTime":null,"countyName":null,"streetName":null,"villageName":null,"roadName":null,"communityName":null,"tranName":null,"sdLineName":null,"cityCode":"13406","cityName":"保定供电公司","provinceCode":null,"stopTime":"2020-03-18 23:30:00","powerType":"全部","powerOffArea":"【全线路停电】停0696327971-保定市发投热力有限公司-专变变压器01,0593982152-保定市华创房地产开发有限公司-专变,0356175256-保定银座商城有限公司-6#专变,0356582999-保定市华创房地产开发有限公司-2#专变,0356175256-保定银座商城有限公司-1#专变,0356582999-保定市华创房地产开发有限公司-1#专变,0356175256-保定银座商城有限公司-2#专变,0356175256-保定银座商城有限公司-5#专变,0696327971-保定市发投热力有限公司-专变变压器02,0696327971-保定市发投热力有限公司-专变变压器03","powerOffReason":"【停电原因】由于分支开关短路导致１０ＫＶ薛留营变电站５２９线路全线停电【变更送电】因抢修进度加快，原定00:30送电现计划23:30送电【发布渠道】通过９５５９８发布","powerOffId":"2020031813001125"},{"poweroffId":2020031813001097,"sgpoweroffId":null,"subsName":"","lineName":"10kV邓庄线513","pubTranName":"郭庄西变压器,邓庄北变压器,邓庄西北变压器,北黄西南台柱上变压器,凡庄2号地变压器【纯农排变】,郭庄东北台变压器,崔庄东台变压器,崔庄变压器,李南西变压器,邓庄东二变压器,小青凌地变压器【纯农排变】,郭庄东变压器,邓庄东北,李南南台变压器,北留北变压器,客户投资_东黄北变压器,李南2号地变压器,东黄1号地变压器【纯农排变】,北留东南变压器,南黄西南台,北黄西台变压器,十九垡排灌变压器【纯农排变】,小清凌西北变压器,邓庄中变压器,十九垡北,邓庄排灌变压器【纯农排变】,","scope":"【影响街道/乡镇】泗庄镇 【高危重要客户】无 【影响客户】李南村、李北村、北黄村、东黄村（部分）、凡庄村、大董庄村、崔庄村、小董庄村、东高庄村、郭庄村、小清凌村、十九垡村、邓庄村、陶阳庄村、北留村、高碑店市金冠黄桃专业合作社、高碑店市泗庄邓庄小学、高碑店市泗庄小清凌学校、高碑店市泗庄初级中学、高碑店市晶普玻璃制造有限公司、高碑店市同兴农林畜牧有限公司、付英起、高碑店市城乡供水管理站、邓庄顺发面粉厂、郭庄面粉厂、高碑店市养路工区、高碑店市博荣拉链厂西、高碑店市博荣拉链厂东、泗庄中学、马涛、泗庄中学总校、安海林、杨金齐","startTime":"2020-03-18 21:09:29","stopDate":"2020-03-18 23:00:00","orgNo":"1340612","typeCode":"电网故障停限电","poweroffArea":"【全线路停电】停东高庄东南地变压器【纯农排变】,李南2号地变压器,凡庄地变压器【纯农排变】,北黄东北地变压器【纯农排变】,小董庄村变压器,小青凌地变压器【纯农排变】,高碑店市同兴农林畜牧有限公司,十九垡西变压器,邓庄排灌变压器【纯农排变】,南黄1号地变压器,李南东地变压器【纯农排变】,东高庄西台变压器,东高东台变压器,邓庄东北,北留北变压器,客户投资_东黄北变压器,北留1号地变压器【纯农排变】,陶阳庄变压器,十九垡中变压器,北黄地变压器【纯农排变】,李北1号地变压器【纯农排变】,高碑店市泗庄镇小清凌学校变压器,大董庄一号地【纯农排变】,凡庄1号地变压器【纯农排变】,李南地,邓庄西变压器,南黄西南台,李北东地变压器【纯农排变】,保定博德广信皮革制品有限公司,陶阳庄2号地变压器【纯农排变】,北留东南变压器,北黄西台变压器,小董庄地变压器【纯农排变】,十九垡排灌变压器【纯农排变】,李北地变压器【纯农排变】,邓庄2号地变压器【纯农排变】,郭庄东变压器,北留东变压器,邓庄1号地变压器【纯农排变】,崔场西北地变压器【纯农排变】,邓庄东二变压器,邓庄北2,大董庄地变压器【纯农排变】,东高庄东北地变压器【纯农排变】,十九垡1号地变压器【纯农排变】,高碑店市泗庄镇邓庄小学变压器,小清凌西北变压器,雄县大营镇鼎拓板材复合厂,十九垡东变压器,高碑店市晶普玻璃制造有限公司,邓庄西南变压器,大董庄东地变压器【纯农排变】,李南1号地变压器【纯农排变】,郭庄1号地变压器【纯农排变】,陶阳庄1号地变压器【纯农排变】,十九垡东地变压器,崔场南变压器,邓庄中变压器,十九垡北,崔场东地变压器,崔庄变压器,李南西变压器,高碑店市金冠黄桃专业合作社变压器,北黄2号地变压器【纯农排变】,大董庄村变压器,李北二号地变压器,郭庄西变压器,郭庄东地变压器【纯农排变】,庞场革厂,邓庄面粉厂南,郭庄面粉厂,北黄1号地变压器【纯农排变】,邓庄北变压器,十九垡西地变压器,0387440563-泗庄中学-专变-45277413-泗庄中学,东黄北地变压器,崔场地变压器【纯农排变】,李北西变压器,邓庄西北变压器,崔场变压器,郭庄地变压器【纯农排变】,王庆丰东,王庆丰西,李北西地变压器【纯农排变】,李南3号地变压器,南黄村王庆丰排灌【纯农排变】,北黄北变压器,凡庄变压器1,北黄西南台柱上变压器,高碑店市泗庄初级中学变压器,东黄1号地变压器【纯农排变】,邓庄东变压器,养路工区变压器,马涛变压器,凡庄2号地变压器【纯农排变】,变压器,郭庄东北台变压器,客户投资_李南东变压器,崔庄东台变压器,水厂,邓庄地变压器,邓庄南台变压器,邓庄3号地变压器,东高庄1号地变压器【纯农排变】,李北东变压器,李南南台变压器,李南4号地变压器","poweroffReason":"【停电原因】由于邓庄小学变压器烧导致３５ＫＶ泗庄变电站１０ＫＶ邓庄５１３线路全线停电 【变更送电】因抢修进度加快原因，送电时间由１９日０８：００变更为１８日２３：００ 【发布渠道】通过９５５９８发布","powerTime":"2020-03-18 22:41:32","powerComm":"已送电","subsNo":"","lineNo":"","tgNo":"","tgName":null,"infoStatus":"1","orgName":"国网高碑店市供电公司","typeName":null,"infoStatusName":null,"dateDay":null,"orgNos":null,"nowTime":null,"countyName":null,"streetName":null,"villageName":null,"roadName":null,"communityName":null,"tranName":null,"sdLineName":null,"cityCode":"1340612","cityName":"国网高碑店市供电公司","provinceCode":null,"stopTime":"2020-03-18 23:00:00","powerType":"全部","powerOffArea":"【全线路停电】停东高庄东南地变压器【纯农排变】,李南2号地变压器,凡庄地变压器【纯农排变】,北黄东北地变压器【纯农排变】,小董庄村变压器,小青凌地变压器【纯农排变】,高碑店市同兴农林畜牧有限公司,十九垡西变压器,邓庄排灌变压器【纯农排变】,南黄1号地变压器,李南东地变压器【纯农排变】,东高庄西台变压器,东高东台变压器,邓庄东北,北留北变压器,客户投资_东黄北变压器,北留1号地变压器【纯农排变】,陶阳庄变压器,十九垡中变压器,北黄地变压器【纯农排变】,李北1号地变压器【纯农排变】,高碑店市泗庄镇小清凌学校变压器,大董庄一号地【纯农排变】,凡庄1号地变压器【纯农排变】,李南地,邓庄西变压器,南黄西南台,李北东地变压器【纯农排变】,保定博德广信皮革制品有限公司,陶阳庄2号地变压器【纯农排变】,北留东南变压器,北黄西台变压器,小董庄地变压器【纯农排变】,十九垡排灌变压器【纯农排变】,李北地变压器【纯农排变】,邓庄2号地变压器【纯农排变】,郭庄东变压器,北留东变压器,邓庄1号地变压器【纯农排变】,崔场西北地变压器【纯农排变】,邓庄东二变压器,邓庄北2,大董庄地变压器【纯农排变】,东高庄东北地变压器【纯农排变】,十九垡1号地变压器【纯农排变】,高碑店市泗庄镇邓庄小学变压器,小清凌西北变压器,雄县大营镇鼎拓板材复合厂,十九垡东变压器,高碑店市晶普玻璃制造有限公司,邓庄西南变压器,大董庄东地变压器【纯农排变】,李南1号地变压器【纯农排变】,郭庄1号地变压器【纯农排变】,陶阳庄1号地变压器【纯农排变】,十九垡东地变压器,崔场南变压器,邓庄中变压器,十九垡北,崔场东地变压器,崔庄变压器,李南西变压器,高碑店市金冠黄桃专业合作社变压器,北黄2号地变压器【纯农排变】,大董庄村变压器,李北二号地变压器,郭庄西变压器,郭庄东地变压器【纯农排变】,庞场革厂,邓庄面粉厂南,郭庄面粉厂,北黄1号地变压器【纯农排变】,邓庄北变压器,十九垡西地变压器,0387440563-泗庄中学-专变-45277413-泗庄中学,东黄北地变压器,崔场地变压器【纯农排变】,李北西变压器,邓庄西北变压器,崔场变压器,郭庄地变压器【纯农排变】,王庆丰东,王庆丰西,李北西地变压器【纯农排变】,李南3号地变压器,南黄村王庆丰排灌【纯农排变】,北黄北变压器,凡庄变压器1,北黄西南台柱上变压器,高碑店市泗庄初级中学变压器,东黄1号地变压器【纯农排变】,邓庄东变压器,养路工区变压器,马涛变压器,凡庄2号地变压器【纯农排变】,变压器,郭庄东北台变压器,客户投资_李南东变压器,崔庄东台变压器,水厂,邓庄地变压器,邓庄南台变压器,邓庄3号地变压器,东高庄1号地变压器【纯农排变】,李北东变压器,李南南台变压器,李南4号地变压器","powerOffReason":"【停电原因】由于邓庄小学变压器烧导致３５ＫＶ泗庄变电站１０ＫＶ邓庄５１３线路全线停电 【变更送电】因抢修进度加快原因，送电时间由１９日０８：００变更为１８日２３：００ 【发布渠道】通过９５５９８发布","powerOffId":"2020031813001097"}],"pageModel":{"pageNow":244,"totalCount":10973,"totalPage":1098,"tableRows":0,"pageCount":10,"beginCount":2430},"isExperi":"1"}