{"message":"","today":"2020-06-15","seleList":[{"poweroffId":2020031813001072,"sgpoweroffId":null,"subsName":"","lineName":"10kV薛留营站527线路","pubTranName":"B421柱上变压器,B497柱上变压器,B489柱上变压器,B496柱上变压器【纯农排变】,B094柱上变压器,B1283柱上变压器,B097柱上变压器,B096柱上变压器,B1788柱上变压器,B494柱上变压器,B490柱上变压器,B492柱上变压器,B084柱上变压器,B493柱上变压器,10kVB230配电室B230配电变压器,B495柱上变压器,B420柱上变压器,B491柱上变压器,B422柱上变压器,","scope":"【影响街道/乡镇】北市区、光华路、西关大街、环城西路、金台驿街、恒祥大街、莲池北大街、新华路、南一胡同、西河沿、茂跃胡同 【高危重要客户】无 【影响客户】朱家园、花椒园、邮电宿舍、汽改宿舍、糖酒宿舍、邮电局单身楼、银行宿舍、汽装厂宿舍","startTime":"2020-03-18 20:30:00","stopDate":"2020-03-18 22:30:00","orgNo":"13406","typeCode":"电网故障停限电","poweroffArea":"【全线路停电】停0356237365-河北省保定第一糖烟酒公司-1-配电室变压器,B422柱上变压器,0567230852-保定市鑫龙嘉投资有限公司-1-配电室变压器,0356385556-市政维护处路灯-1-箱式变-变压器,0356233190-河北保定食品大厦-专变,B097柱上变压器,0696323807-保定市发投热力有限公司-专变-2,B421柱上变压器,B490柱上变压器,B497柱上变压器,B492柱上变压器,0356327383-保定市邮政局-2#专变,B084柱上变压器,变压器,0356235965-保定金台酒店有限公司-1-配电室变压器,B489柱上变压器,B496柱上变压器【纯农排变】,0356319375-北京华联综合超市股份有限公司保定分公司-2#专变,B094柱上变压器,B495柱上变压器,0696323807-保定市发投热力有限公司-专变-1,B1283柱上变压器,B420柱上变压器,B491柱上变压器,B494柱上变压器,0550015628-保定市市区集中供热管理办公室-1-箱式变-变压器,B096柱上变压器,B493柱上变压器,B1788柱上变压器,10kVB230配电室B230配电变压器","poweroffReason":"【停电原因】由于分支开关短路导致１０ＫＶ薛留营变电站５２７线路全线停电【变更送电】因抢修进度加快，原定00:30送电现计划22:30送电。【发布渠道】通过９５５９８发布","powerTime":"2020-03-18 21:50:23","powerComm":"已送电","subsNo":"","lineNo":"","tgNo":"","tgName":null,"infoStatus":"1","orgName":"保定供电公司","typeName":null,"infoStatusName":null,"dateDay":null,"orgNos":null,"nowTime":null,"countyName":null,"streetName":null,"villageName":null,"roadName":null,"communityName":null,"tranName":null,"sdLineName":null,"cityCode":"13406","cityName":"保定供电公司","provinceCode":null,"stopTime":"2020-03-18 22:30:00","powerType":"全部","powerOffArea":"【全线路停电】停0356237365-河北省保定第一糖烟酒公司-1-配电室变压器,B422柱上变压器,0567230852-保定市鑫龙嘉投资有限公司-1-配电室变压器,0356385556-市政维护处路灯-1-箱式变-变压器,0356233190-河北保定食品大厦-专变,B097柱上变压器,0696323807-保定市发投热力有限公司-专变-2,B421柱上变压器,B490柱上变压器,B497柱上变压器,B492柱上变压器,0356327383-保定市邮政局-2#专变,B084柱上变压器,变压器,0356235965-保定金台酒店有限公司-1-配电室变压器,B489柱上变压器,B496柱上变压器【纯农排变】,0356319375-北京华联综合超市股份有限公司保定分公司-2#专变,B094柱上变压器,B495柱上变压器,0696323807-保定市发投热力有限公司-专变-1,B1283柱上变压器,B420柱上变压器,B491柱上变压器,B494柱上变压器,0550015628-保定市市区集中供热管理办公室-1-箱式变-变压器,B096柱上变压器,B493柱上变压器,B1788柱上变压器,10kVB230配电室B230配电变压器","powerOffReason":"【停电原因】由于分支开关短路导致１０ＫＶ薛留营变电站５２７线路全线停电【变更送电】因抢修进度加快，原定00:30送电现计划22:30送电。【发布渠道】通过９５５９８发布","powerOffId":"2020031813001072"},{"poweroffId":2020031813001053,"sgpoweroffId":null,"subsName":"","lineName":"前柳滩线517","pubTranName":"后柳西综合,后柳村北2号,前柳村西南2号综合,后柳西南综合,前柳综合,西柳南变37综合,后柳东综合,后柳村西北2号综合,西柳北变2综合,西柳村西综合变压器,后柳北综合,前柳村东南新增综合,前柳村北综合,西柳村西北变压器,","scope":"【影响街道/乡镇】蒲口乡 【高危重要客户】无 【影响客户】前柳滩、邢果庄、北陶口、后柳滩（部分）、西柳滩、赵口","startTime":"2020-03-18 21:00:08","stopDate":"2020-03-19 03:00:00","orgNo":"1340613","typeCode":"电网故障停限电","poweroffArea":"【全线路停电】停后柳大队农业【纯农排变】,前柳村南【纯农排变】,后柳农业【纯农排变】,西柳村西综合变压器,飞跃针刺厂,后柳北综合,高阳县南蒲口乡西柳滩村委会变压器,丽华毛呢厂,高阳县睿达合线厂变压器减容,兴华工艺制品厂,高阳县棉野纺织制造有限公司变压器,赵口供电所,前柳村东南新增综合,蒲口中学,张庆余,前柳农业西远1#【纯农排变】,后柳针刺厂,高阳县南蒲口乡前柳滩村村民委员会一变压器,金鑫毛纺厂,美华染织有限公司,前柳村北综合,前柳村西农业【纯农排变】,西柳村西北变压器,西柳滩1#农排【纯农排变】,西柳北变2综合,杨学寨,后柳东综合,后柳西综合,0672217658-高阳县三柳粮食购销站-专变-213320561-李老铁变压器,乔建强,高阳县雄沐建筑装饰工程有限公司变压器,高阳县南蒲口乡后柳滩村村民委员会变压器,前柳综合,高阳县南蒲口乡前柳滩村村民委员会二变压器,西柳南变37综合,西柳滩2#农排【纯农排变】,南俊杰变压器,后柳南农业【纯农排变】,前柳村南农业【纯农排变】,赵小辉,后柳村西北2号综合,保定卓上饰品公司,前柳农业西远2#农业【纯农排变】,保定联想铸造有限公司,后柳村北2号,前柳村西南2号综合,上海思棉家纺有限公司变压器,高阳县南蒲口乡西柳滩村委会二变压器,后柳西南综合,上海思棉家纺高阳分公司","poweroffReason":"【停电原因】由于风刮异物导致３５ＫＶ赵口变电站前柳滩５１７线路全线停电【变更送电】因抢修进度加快原因，送电时间由１０：００变更为０３：００【发布渠道】通过９５５９８发布","powerTime":"2020-03-19 02:33:07","powerComm":"已送电","subsNo":"","lineNo":"","tgNo":"","tgName":null,"infoStatus":"1","orgName":"国网高阳县供电公司","typeName":null,"infoStatusName":null,"dateDay":null,"orgNos":null,"nowTime":null,"countyName":null,"streetName":null,"villageName":null,"roadName":null,"communityName":null,"tranName":null,"sdLineName":null,"cityCode":"1340613","cityName":"国网高阳县供电公司","provinceCode":null,"stopTime":"2020-03-19 03:00:00","powerType":"全部","powerOffArea":"【全线路停电】停后柳大队农业【纯农排变】,前柳村南【纯农排变】,后柳农业【纯农排变】,西柳村西综合变压器,飞跃针刺厂,后柳北综合,高阳县南蒲口乡西柳滩村委会变压器,丽华毛呢厂,高阳县睿达合线厂变压器减容,兴华工艺制品厂,高阳县棉野纺织制造有限公司变压器,赵口供电所,前柳村东南新增综合,蒲口中学,张庆余,前柳农业西远1#【纯农排变】,后柳针刺厂,高阳县南蒲口乡前柳滩村村民委员会一变压器,金鑫毛纺厂,美华染织有限公司,前柳村北综合,前柳村西农业【纯农排变】,西柳村西北变压器,西柳滩1#农排【纯农排变】,西柳北变2综合,杨学寨,后柳东综合,后柳西综合,0672217658-高阳县三柳粮食购销站-专变-213320561-李老铁变压器,乔建强,高阳县雄沐建筑装饰工程有限公司变压器,高阳县南蒲口乡后柳滩村村民委员会变压器,前柳综合,高阳县南蒲口乡前柳滩村村民委员会二变压器,西柳南变37综合,西柳滩2#农排【纯农排变】,南俊杰变压器,后柳南农业【纯农排变】,前柳村南农业【纯农排变】,赵小辉,后柳村西北2号综合,保定卓上饰品公司,前柳农业西远2#农业【纯农排变】,保定联想铸造有限公司,后柳村北2号,前柳村西南2号综合,上海思棉家纺有限公司变压器,高阳县南蒲口乡西柳滩村委会二变压器,后柳西南综合,上海思棉家纺高阳分公司","powerOffReason":"【停电原因】由于风刮异物导致３５ＫＶ赵口变电站前柳滩５１７线路全线停电【变更送电】因抢修进度加快原因，送电时间由１０：００变更为０３：００【发布渠道】通过９５５９８发布","powerOffId":"2020031813001053"},{"poweroffId":2020031813001013,"sgpoweroffId":null,"subsName":"","lineName":"10kV前卫站581线路","pubTranName":"0607052684-保定市城色酒店管理有限公司复兴中路分公司-专变,0356239273-保定市莲池区韩庄乡冯庄村村民委员会-专变-183547368-变压器,0712845672-小明星艺术幼儿园-1#专变315kVA,","scope":"【影响街道/乡镇】韩庄乡、前卫路、复兴中路 【高危重要客户】无 【影响客户】冯庄、城色酒店、小明星幼儿园、鑫丰装饰市场、雨水泵站","startTime":"2020-03-18 20:30:00","stopDate":"2020-03-19 14:00:00","orgNo":"13406","typeCode":"电网故障停限电","poweroffArea":"【分支停电】停0607052684-保定市城色酒店管理有限公司复兴中路分公司-专变,0356239273-保定市莲池区韩庄乡冯庄村村民委员会-专变-183547368-变压器,0712845672-小明星艺术幼儿园-1#专变315kVA","poweroffReason":"【停电原因】由于分支开关短路导致１０ＫＶ前卫变电站５８１线路ＨＫ－１９环网柜２号开关以下停电【变更送电】因抢修进度加快，原定１６:００送电现计划１４:００送电【发布渠道】通过９５５９８发布","powerTime":"2020-03-19 13:10:58","powerComm":"已送电","subsNo":"","lineNo":"","tgNo":"","tgName":null,"infoStatus":"1","orgName":"保定供电公司","typeName":null,"infoStatusName":null,"dateDay":null,"orgNos":null,"nowTime":null,"countyName":null,"streetName":null,"villageName":null,"roadName":null,"communityName":null,"tranName":null,"sdLineName":null,"cityCode":"13406","cityName":"保定供电公司","provinceCode":null,"stopTime":"2020-03-19 14:00:00","powerType":"全部","powerOffArea":"【分支停电】停0607052684-保定市城色酒店管理有限公司复兴中路分公司-专变,0356239273-保定市莲池区韩庄乡冯庄村村民委员会-专变-183547368-变压器,0712845672-小明星艺术幼儿园-1#专变315kVA","powerOffReason":"【停电原因】由于分支开关短路导致１０ＫＶ前卫变电站５８１线路ＨＫ－１９环网柜２号开关以下停电【变更送电】因抢修进度加快，原定１６:００送电现计划１４:００送电【发布渠道】通过９５５９８发布","powerOffId":"2020031813001013"},{"poweroffId":2020031813001012,"sgpoweroffId":null,"subsName":"","lineName":"10kV杨家务线512","pubTranName":"东义合西南,军庄北变压器,东务新北变压器,韩庄西变压器,马东变压器,东务村北2,西仓东,韩庄变压器,","scope":"【影响街道/乡镇】方官镇、新城镇、肖官营乡 【高危重要客户】无 【影响客户】马东村、马西村、雷李庄村、肖鱼池村、袁家营村、金东村（金钗营）、金中村、李庄村、毛庄村、东仓村、西仓村、韩庄村、张庄村、西义合村、东宋村、东务村、东义合村、军庄村、石辛庄村、西宋村、西务村、天津通鼓风机有限公司、河北高碑店市鼓风机厂、河北高鼓环保设备有限公司、河北鑫宏远冶金设备制造有限公司、高碑店市宏润风机制造有限公司、高碑店市红日风机厂、河北腾浩风机制造有限公司、高碑店市工业风机制造厂、鸿旭金属粉末加工有限公司、河北科隆风机有限公司、中国移动通信高碑店分公司、保定富瑞康管道有限公司","startTime":"2020-03-18 20:52:28","stopDate":"2020-03-19 11:00:00","orgNo":"1340612","typeCode":"电网故障停限电","poweroffArea":"【全线路停电】停韩庄北地变压器【纯农排变】,张庄变压器,肖鱼池变压器,东宋地变压器【纯农排变】,东宋变压器,军庄东变压器,西务地3变压器【纯农排变】,西义合变压器,毛庄北地变压器,中国移动通信集体河北有限公司高碑店分公司,东务地变压器【纯农排变】,马东变压器,西义合地2变压器,东务变压器,金东地变压器【纯农排变】,0610660612-高碑店市科隆商贸有限公司-专变-223551278-河北科隆风机有限公司变压器,保定富瑞康管道有限公司,韩庄南水变压器【纯农排变】,东务村北2,毛庄变压器,毛庄西变压器,西仓东,西义合地变压器【纯农排变】,东务新北变压器,东务村南变压器,河北高碑店市鼓风机厂变压器,金东西变压器,东务西变压器,军庄地变压器【纯农排变】,0387449762-天津通鼓风机有限公司河北分公司-专变-226995247-天津风机五厂变压器,肖鱼池地变压器,韩庄变压器,金柴营变压器,东义合水3变压器,西宋南变压器,军庄西变压器,石辛庄水3变压器,西务变压器,李庄地2变压器【纯农排变】,石辛庄变压器,韩庄东南水变压器【纯农排变】,东务南变压器【纯农排变】,东仓地2变压器【纯农排变】,西仓村2变压器,高碑店市鸿旭金属粉末加工有限公司,西务北变压器,西务南变压器,东义合水2变压器,西仓地变压器【纯农排变】,金中变压器,西务地6变压器【纯农排变】,东务地2变压器【纯农排变】,东仓地变压器【纯农排变】,西务地5变压器【纯农排变】,马西变压器,金东地2变压器【纯农排变】,西务地变压器【纯农排变】,天津风机五厂(谷1),韩庄西变压器,东义合地变压器,西仓地2变压器【纯农排变】,东仓变压器,雷李庄变压器,马东北地变压器【纯农排变】,韩庄水变压器【纯农排变】,西仓变压器,河北鑫宏远冶金设备制造有限公司变压器,军庄新地变压器,西加录地变压器【纯农排变】,西务新地变压器,东义合变压器,李庄变压器512线,河北高鼓环保设备有限公司,东宋排灌变压器,石辛庄水4变压器,军庄北变压器,肖鱼池东变压器,李庄北变压器,李庄浇地变压器【纯农排变】,军庄北地变压器【纯农排变】,金东新变压器,东宋南水变压器,石辛庄地变压器【纯农排变】,东义合西南,高碑店市鸿旭金属粉末加工有限公司变压器,东务北变压器,张庄水变压器,李庄西变压器,西宋变压器,马东东变压器,马东南地变压器【纯农排变】,西务地4变压器【纯农排变】","poweroffReason":"【停电原因】由于东务分支直瓶坏导致３５ＫＶ加录变电站１０ＫＶ杨家务５１２线路全线停电 【变更送电】因抢修进度加快原因，送电时间由１６：００变更为１１：００ 【发布渠道】通过９５５９８发布","powerTime":"2020-03-19 10:19:41","powerComm":"已送电","subsNo":"","lineNo":"","tgNo":"","tgName":null,"infoStatus":"1","orgName":"国网高碑店市供电公司","typeName":null,"infoStatusName":null,"dateDay":null,"orgNos":null,"nowTime":null,"countyName":null,"streetName":null,"villageName":null,"roadName":null,"communityName":null,"tranName":null,"sdLineName":null,"cityCode":"1340612","cityName":"国网高碑店市供电公司","provinceCode":null,"stopTime":"2020-03-19 11:00:00","powerType":"全部","powerOffArea":"【全线路停电】停韩庄北地变压器【纯农排变】,张庄变压器,肖鱼池变压器,东宋地变压器【纯农排变】,东宋变压器,军庄东变压器,西务地3变压器【纯农排变】,西义合变压器,毛庄北地变压器,中国移动通信集体河北有限公司高碑店分公司,东务地变压器【纯农排变】,马东变压器,西义合地2变压器,东务变压器,金东地变压器【纯农排变】,0610660612-高碑店市科隆商贸有限公司-专变-223551278-河北科隆风机有限公司变压器,保定富瑞康管道有限公司,韩庄南水变压器【纯农排变】,东务村北2,毛庄变压器,毛庄西变压器,西仓东,西义合地变压器【纯农排变】,东务新北变压器,东务村南变压器,河北高碑店市鼓风机厂变压器,金东西变压器,东务西变压器,军庄地变压器【纯农排变】,0387449762-天津通鼓风机有限公司河北分公司-专变-226995247-天津风机五厂变压器,肖鱼池地变压器,韩庄变压器,金柴营变压器,东义合水3变压器,西宋南变压器,军庄西变压器,石辛庄水3变压器,西务变压器,李庄地2变压器【纯农排变】,石辛庄变压器,韩庄东南水变压器【纯农排变】,东务南变压器【纯农排变】,东仓地2变压器【纯农排变】,西仓村2变压器,高碑店市鸿旭金属粉末加工有限公司,西务北变压器,西务南变压器,东义合水2变压器,西仓地变压器【纯农排变】,金中变压器,西务地6变压器【纯农排变】,东务地2变压器【纯农排变】,东仓地变压器【纯农排变】,西务地5变压器【纯农排变】,马西变压器,金东地2变压器【纯农排变】,西务地变压器【纯农排变】,天津风机五厂(谷1),韩庄西变压器,东义合地变压器,西仓地2变压器【纯农排变】,东仓变压器,雷李庄变压器,马东北地变压器【纯农排变】,韩庄水变压器【纯农排变】,西仓变压器,河北鑫宏远冶金设备制造有限公司变压器,军庄新地变压器,西加录地变压器【纯农排变】,西务新地变压器,东义合变压器,李庄变压器512线,河北高鼓环保设备有限公司,东宋排灌变压器,石辛庄水4变压器,军庄北变压器,肖鱼池东变压器,李庄北变压器,李庄浇地变压器【纯农排变】,军庄北地变压器【纯农排变】,金东新变压器,东宋南水变压器,石辛庄地变压器【纯农排变】,东义合西南,高碑店市鸿旭金属粉末加工有限公司变压器,东务北变压器,张庄水变压器,李庄西变压器,西宋变压器,马东东变压器,马东南地变压器【纯农排变】,西务地4变压器【纯农排变】","powerOffReason":"【停电原因】由于东务分支直瓶坏导致３５ＫＶ加录变电站１０ＫＶ杨家务５１２线路全线停电 【变更送电】因抢修进度加快原因，送电时间由１６：００变更为１１：００ 【发布渠道】通过９５５９８发布","powerOffId":"2020031813001012"},{"poweroffId":2020031813001008,"sgpoweroffId":null,"subsName":"","lineName":"北于八线514","pubTranName":"07019|北于八东南综合1699,070044|南于八远东综合5341,北于八村东南新增综合,070062|南于八面粉厂村东综合5345,070061|南于八村里综合5344,","scope":"【影响街道/乡镇】邢南乡 【高危重要客户】无 【影响客户】北于八村东、南于八村东北","startTime":"2020-03-18 20:52:22","stopDate":"2020-03-19 02:00:00","orgNo":"1340613","typeCode":"电网故障停限电","poweroffArea":"【全线路停电】停梁新刚,07019|北于八东南综合1699,东风毛呢厂,北于八村东南新增综合,北于八面粉厂,保定旭腾纺织品有限公司,070044|南于八远东综合5341,中国移动通信集团河北有限公司高阳分公司变压器,高阳县金锐纺织品有限公司,华阳毛纺染织公司,高阳县胡掺毛巾厂变压器,070062|南于八面粉厂村东综合5345,华阳毛染有限公司,保定雪莹家纺有限公司变压器,葛延谦,070061|南于八村里综合5344,高阳县金锐纺织品有限公司变压器,红军毛巾厂,北于八村东变压器,北于八洗毛厂,明光染厂","poweroffReason":"【停电原因】由于风刮异物导致３５ＫＶ南路台变电站北于八５１４线路全线停电【变更送电】因抢修进度加快原因，送电时间由１０：００变更为０２：００【发布渠道】通过９５５９８发布","powerTime":"2020-03-19 01:33:36","powerComm":"已送电","subsNo":"","lineNo":"","tgNo":"","tgName":null,"infoStatus":"1","orgName":"国网高阳县供电公司","typeName":null,"infoStatusName":null,"dateDay":null,"orgNos":null,"nowTime":null,"countyName":null,"streetName":null,"villageName":null,"roadName":null,"communityName":null,"tranName":null,"sdLineName":null,"cityCode":"1340613","cityName":"国网高阳县供电公司","provinceCode":null,"stopTime":"2020-03-19 02:00:00","powerType":"全部","powerOffArea":"【全线路停电】停梁新刚,07019|北于八东南综合1699,东风毛呢厂,北于八村东南新增综合,北于八面粉厂,保定旭腾纺织品有限公司,070044|南于八远东综合5341,中国移动通信集团河北有限公司高阳分公司变压器,高阳县金锐纺织品有限公司,华阳毛纺染织公司,高阳县胡掺毛巾厂变压器,070062|南于八面粉厂村东综合5345,华阳毛染有限公司,保定雪莹家纺有限公司变压器,葛延谦,070061|南于八村里综合5344,高阳县金锐纺织品有限公司变压器,红军毛巾厂,北于八村东变压器,北于八洗毛厂,明光染厂","powerOffReason":"【停电原因】由于风刮异物导致３５ＫＶ南路台变电站北于八５１４线路全线停电【变更送电】因抢修进度加快原因，送电时间由１０：００变更为０２：００【发布渠道】通过９５５９８发布","powerOffId":"2020031813001008"},{"poweroffId":2020031813001007,"sgpoweroffId":null,"subsName":"","lineName":"10kV514花园头线","pubTranName":"花园头综合8台区,花园头综合3台区,张七综合1台区,花园头综合5台区,（李岗）张七农排4台区【纯农排变】,花园头综合7台区,花园头综合10台区变压器,张七综合2台区,花园头综合1台区,花园头农排6台区【纯农排变】,花园头农排9台区【纯农排变】,花园头农排8台区【纯农排变】,花园头农排1台区【纯农排变】,花园头农排4台区【纯农排变】,花园头综合4台区,张七综合3台区,张七农排2台区【纯农排变】,张七农排6台区【纯农排变】,张七农排3台区【纯农排变】,花园头农排5台区【纯农排变】,张七综合5台区,张七综合4台区,花园头综合6台区,花园头综合9台区,花园头农排10台区【纯农排变】,张七农排7台区【纯农排变】,花园头农排2台区【纯农排变】,花园头综合2台区,","scope":"【影响街道/乡镇】北埝头乡【高危重要客户】无【影响客户】花园头村、张七村、贾庄村","startTime":"2020-03-18 20:51:00","stopDate":"2020-03-18 23:30:00","orgNo":"1340616","typeCode":"电网故障停限电","poweroffArea":"【全线路停电】停花园头综合1台区,张七农排7台区【纯农排变】,张七农排1台区【纯农排变】,张七国顺,花园头综合5台区,花园头农排9台区【纯农排变】,蠡县美缘日化有限公司,贾庄小周,张七农排6台区【纯农排变】,花园头综合8台区,张七综合4台区,花园头农排4台区【纯农排变】,蠡县华业精细化工有限公司,花园头综合7台区,张七农排5台区【纯农排变】,花园头综合2台区,花园头农排2台区【纯农排变】,张七农排3台区【纯农排变】,（李岗）张七农排4台区【纯农排变】,花园头综合10台区变压器,花园头农排5台区【纯农排变】,花园头农排1台区【纯农排变】,花园头西南,花园头综合9台区,陈鹏飞,李西农排13台区【纯农排变】,花园头大篷,花园头东农,花园头砖厂,花园头综合3台区,花园头农排8台区【纯农排变】,张七综合3台区,花园头农排10台区【纯农排变】,蠡县冀中华联精细化工有限公司,花园头西北,张七综合2台区,花园头农排3台区【纯农排变】,贾庄农排2台区【纯农排变】,张七农排2台区【纯农排变】,花园头综合4台区,张七综合1台区,花园头综合6台区,贾庄农排1台区【纯农排变】,蠡县灵汉绳带有限公司,张七综合5台区,花园头农排6台区【纯农排变】","poweroffReason":"【停电原因】由于站外开关掉闸导致３５ＫＶ李岗变电站１０ＫＶ花园头５１４线路全线停电【变更送电】因抢修进度加快原因，送电时间由１１：００变更为2３：３０【发布渠道】通过９５５９８发布","powerTime":"2020-03-18 23:05:55","powerComm":"已送电","subsNo":"","lineNo":"","tgNo":"","tgName":null,"infoStatus":"1","orgName":"国网蠡县供电公司","typeName":null,"infoStatusName":null,"dateDay":null,"orgNos":null,"nowTime":null,"countyName":null,"streetName":null,"villageName":null,"roadName":null,"communityName":null,"tranName":null,"sdLineName":null,"cityCode":"1340616","cityName":"国网蠡县供电公司","provinceCode":null,"stopTime":"2020-03-18 23:30:00","powerType":"全部","powerOffArea":"【全线路停电】停花园头综合1台区,张七农排7台区【纯农排变】,张七农排1台区【纯农排变】,张七国顺,花园头综合5台区,花园头农排9台区【纯农排变】,蠡县美缘日化有限公司,贾庄小周,张七农排6台区【纯农排变】,花园头综合8台区,张七综合4台区,花园头农排4台区【纯农排变】,蠡县华业精细化工有限公司,花园头综合7台区,张七农排5台区【纯农排变】,花园头综合2台区,花园头农排2台区【纯农排变】,张七农排3台区【纯农排变】,（李岗）张七农排4台区【纯农排变】,花园头综合10台区变压器,花园头农排5台区【纯农排变】,花园头农排1台区【纯农排变】,花园头西南,花园头综合9台区,陈鹏飞,李西农排13台区【纯农排变】,花园头大篷,花园头东农,花园头砖厂,花园头综合3台区,花园头农排8台区【纯农排变】,张七综合3台区,花园头农排10台区【纯农排变】,蠡县冀中华联精细化工有限公司,花园头西北,张七综合2台区,花园头农排3台区【纯农排变】,贾庄农排2台区【纯农排变】,张七农排2台区【纯农排变】,花园头综合4台区,张七综合1台区,花园头综合6台区,贾庄农排1台区【纯农排变】,蠡县灵汉绳带有限公司,张七综合5台区,花园头农排6台区【纯农排变】","powerOffReason":"【停电原因】由于站外开关掉闸导致３５ＫＶ李岗变电站１０ＫＶ花园头５１４线路全线停电【变更送电】因抢修进度加快原因，送电时间由１１：００变更为2３：３０【发布渠道】通过９５５９８发布","powerOffId":"2020031813001007"},{"poweroffId":2020031813000993,"sgpoweroffId":null,"subsName":"","lineName":"梁家营线511","pubTranName":"大商北变压器,贾家营变压器,小商新变压器,巨水营变压器,小商变压器,巨水营东,东黄河北变压器,大商南变压器,","scope":"【影响街道/乡镇】梁家营乡 【高危重要客户】华丰首特 【影响客户】大商村、小商村、巨水营村、东黄河村、贾家营村、孙马庄村","startTime":"2020-03-18 20:53:31","stopDate":"2020-03-18 23:30:00","orgNo":"1340612","typeCode":"电网故障停限电","poweroffArea":"【全线路停电】停贾家营排灌变压器【纯农排变】,大商排灌1变压器【纯农排变】,城东排灌变压器【纯农排变】,小商新变压器,高碑店市梁家营乡王家营小学,巨水营排灌变压器【纯农排变】,梁南地变压器【纯农排变】,黄玉江,小商排灌2变压器【纯农排变】,西黄河2,杨北排灌变压器【纯农排变】,华峰钢厂,东黄河北变压器,王家营排灌东变压器【纯农排变】,大商南变压器,城内西排灌变压器,高碑店市奥伟工业有限公司,王家营排灌南变压器【纯农排变】,东黄河排灌变压器【纯农排变】,变压器,东黄河变压器,东黄河排灌东变压器【纯农排变】,巨水营地变压器,大商北变压器,杨北3变压器【纯农排变】,小商排灌3变压器【纯农排变】,孙马庄排灌变压器【纯农排变】,小商排灌变压器【纯农排变】,巨水营东,孙马庄变压器,杨北2变压器【纯农排变】,大商排灌变压器【纯农排变】,永欣加油站,华峰,小商变压器,孙马庄西变压器,蔡庄排灌变压器【纯农排变】,贾家营变压器,0387439237-首特华峰机械设备制造有限公司-专变-45276312-华峰钢厂,巨水营变压器","poweroffReason":"【停电原因】由于梁南排灌变压器中相避雷器引线断导致１１０ＫＶ太平庄变电站１０ＫＶ梁家营５１１线路全线停电 【变更送电】因抢修进度加快原因，送电时间由１９日０８：００变更为１８日２３：３０ 【发布渠道】通过９５５９８发布","powerTime":"2020-03-18 23:08:24","powerComm":"已送电","subsNo":"","lineNo":"","tgNo":"","tgName":null,"infoStatus":"1","orgName":"国网高碑店市供电公司","typeName":null,"infoStatusName":null,"dateDay":null,"orgNos":null,"nowTime":null,"countyName":null,"streetName":null,"villageName":null,"roadName":null,"communityName":null,"tranName":null,"sdLineName":null,"cityCode":"1340612","cityName":"国网高碑店市供电公司","provinceCode":null,"stopTime":"2020-03-18 23:30:00","powerType":"全部","powerOffArea":"【全线路停电】停贾家营排灌变压器【纯农排变】,大商排灌1变压器【纯农排变】,城东排灌变压器【纯农排变】,小商新变压器,高碑店市梁家营乡王家营小学,巨水营排灌变压器【纯农排变】,梁南地变压器【纯农排变】,黄玉江,小商排灌2变压器【纯农排变】,西黄河2,杨北排灌变压器【纯农排变】,华峰钢厂,东黄河北变压器,王家营排灌东变压器【纯农排变】,大商南变压器,城内西排灌变压器,高碑店市奥伟工业有限公司,王家营排灌南变压器【纯农排变】,东黄河排灌变压器【纯农排变】,变压器,东黄河变压器,东黄河排灌东变压器【纯农排变】,巨水营地变压器,大商北变压器,杨北3变压器【纯农排变】,小商排灌3变压器【纯农排变】,孙马庄排灌变压器【纯农排变】,小商排灌变压器【纯农排变】,巨水营东,孙马庄变压器,杨北2变压器【纯农排变】,大商排灌变压器【纯农排变】,永欣加油站,华峰,小商变压器,孙马庄西变压器,蔡庄排灌变压器【纯农排变】,贾家营变压器,0387439237-首特华峰机械设备制造有限公司-专变-45276312-华峰钢厂,巨水营变压器","powerOffReason":"【停电原因】由于梁南排灌变压器中相避雷器引线断导致１１０ＫＶ太平庄变电站１０ＫＶ梁家营５１１线路全线停电 【变更送电】因抢修进度加快原因，送电时间由１９日０８：００变更为１８日２３：３０ 【发布渠道】通过９５５９８发布","powerOffId":"2020031813000993"},{"poweroffId":2020031813000961,"sgpoweroffId":null,"subsName":"","lineName":"代庄线544","pubTranName":"卫生局综合,佟麟阁公用出线间隔配电变压器,河北省保定市高阳县龙泉小区2期东台区出线配电变压器,高阳县龙泉花园小区三区壹号综合箱变配变配电变压器,10007|土地局家属院综合,赵通村南11号综合,10017|气象站小区综合,高阳县龙泉花园小区三区贰号综合箱变配变配电变压器,10016|东关后街综合,10014|东关公用综合,SQ商贸城小区综合,代庄2#村北综合,10015|富康小区综合,10056|幸福街小区综合,10055|石油公司综合,10111|房地产综合开发公司综合,龙泉花园1出线配电变压器,10054|水利局小区综合,SQ东园小区,","scope":"【影响街道/乡镇】高阳镇 【高危重要客户】无 【影响客户】代庄（代家庄）村北部分用户、赵通村南部分用户、东关村","startTime":"2020-03-18 20:45:38","stopDate":"2020-03-19 02:00:00","orgNo":"1340613","typeCode":"电网故障停限电","poweroffArea":"【全线路停电】停10014|东关公用综合,10055|石油公司综合,河北宏润新型面料有限公司变压器,骆增新,文浩纺织有限公司,高阳县高哈托运处变压器,高阳县鑫丰印染厂变压器,高阳县龙泉花园小区三区壹号综合箱变配变配电变压器,文浩毛巾厂,河北省保定市高阳县龙泉小区2期东台区出线配电变压器,10016|东关后街综合,大业纺织品公司,代庄农排【纯农排变】,卫生局综合,高阳县龙泉花园小区三区贰号综合箱变配变配电变压器,巨马公司,东关大队,佟麟阁公用出线间隔配电变压器,东关刘艳明,河北蓝瑞照明科技有限公司变压器,国网河北省电力公司高阳县供电分公司变压器,代庄2#村北综合,杨屯织物厂,东风塑料厂,10015|富康小区综合,王耀先(1),龙泉花园1出线配电变压器,赵通村南11号综合,SQ东园小区,10054|水利局小区综合,东外环路灯,10056|幸福街小区综合,电力局仪表,石油公司,王闯拔丝厂,10017|气象站小区综合,电力宾馆,高阳县石榴园毛巾厂变压器,10007|土地局家属院综合,齐振山,刘二子,SQ商贸城小区综合,荧光染料厂王德成,郭胜利,10111|房地产综合开发公司综合,王文仁,泽乐巾被厂,河北长润房地产开发有限公司变压器,东街大队农业","poweroffReason":"【停电原因】由于风刮异物导致１１０ＫＶ城东变电站代庄５４４线路全线停电【变更送电】因抢修进度加快原因，送电时间由１０：００变更为０２：００【发布渠道】通过９５５９８发布","powerTime":"2020-03-19 01:30:20","powerComm":"已送电","subsNo":"","lineNo":"","tgNo":"","tgName":null,"infoStatus":"1","orgName":"国网高阳县供电公司","typeName":null,"infoStatusName":null,"dateDay":null,"orgNos":null,"nowTime":null,"countyName":null,"streetName":null,"villageName":null,"roadName":null,"communityName":null,"tranName":null,"sdLineName":null,"cityCode":"1340613","cityName":"国网高阳县供电公司","provinceCode":null,"stopTime":"2020-03-19 02:00:00","powerType":"全部","powerOffArea":"【全线路停电】停10014|东关公用综合,10055|石油公司综合,河北宏润新型面料有限公司变压器,骆增新,文浩纺织有限公司,高阳县高哈托运处变压器,高阳县鑫丰印染厂变压器,高阳县龙泉花园小区三区壹号综合箱变配变配电变压器,文浩毛巾厂,河北省保定市高阳县龙泉小区2期东台区出线配电变压器,10016|东关后街综合,大业纺织品公司,代庄农排【纯农排变】,卫生局综合,高阳县龙泉花园小区三区贰号综合箱变配变配电变压器,巨马公司,东关大队,佟麟阁公用出线间隔配电变压器,东关刘艳明,河北蓝瑞照明科技有限公司变压器,国网河北省电力公司高阳县供电分公司变压器,代庄2#村北综合,杨屯织物厂,东风塑料厂,10015|富康小区综合,王耀先(1),龙泉花园1出线配电变压器,赵通村南11号综合,SQ东园小区,10054|水利局小区综合,东外环路灯,10056|幸福街小区综合,电力局仪表,石油公司,王闯拔丝厂,10017|气象站小区综合,电力宾馆,高阳县石榴园毛巾厂变压器,10007|土地局家属院综合,齐振山,刘二子,SQ商贸城小区综合,荧光染料厂王德成,郭胜利,10111|房地产综合开发公司综合,王文仁,泽乐巾被厂,河北长润房地产开发有限公司变压器,东街大队农业","powerOffReason":"【停电原因】由于风刮异物导致１１０ＫＶ城东变电站代庄５４４线路全线停电【变更送电】因抢修进度加快原因，送电时间由１０：００变更为０２：００【发布渠道】通过９５５９８发布","powerOffId":"2020031813000961"},{"poweroffId":2020031813000958,"sgpoweroffId":null,"subsName":"","lineName":"10KV里渠517","pubTranName":"古城村北（农开）【纯农排变】,","scope":"【影响街道/乡镇】义和庄乡 【高危重要客户】无 【影响客户】古城村","startTime":"2020-03-18 20:45:45","stopDate":"2020-03-19 00:40:00","orgNo":"1340626","typeCode":"电网故障停限电","poweroffArea":"【分支停电】停古城0840,古城东南0790,古城村北（农开）【纯农排变】","poweroffReason":"【停电原因】由于大风外力破坏导致３５ＫＶ码头变电站１０ＫＶ里渠５１７线路古城分支１５号杆以下线路停电 【变更送电】因抢修进度加快原因，送电时间由１２：００变更为００：４０ 【发布渠道】通过９５５９８发布","powerTime":"2020-03-19 00:21:29","powerComm":"恢复送电","subsNo":"","lineNo":"","tgNo":"","tgName":null,"infoStatus":"1","orgName":"国网涿州市供电公司","typeName":null,"infoStatusName":null,"dateDay":null,"orgNos":null,"nowTime":null,"countyName":null,"streetName":null,"villageName":null,"roadName":null,"communityName":null,"tranName":null,"sdLineName":null,"cityCode":"1340626","cityName":"国网涿州市供电公司","provinceCode":null,"stopTime":"2020-03-19 00:40:00","powerType":"全部","powerOffArea":"【分支停电】停古城0840,古城东南0790,古城村北（农开）【纯农排变】","powerOffReason":"【停电原因】由于大风外力破坏导致３５ＫＶ码头变电站１０ＫＶ里渠５１７线路古城分支１５号杆以下线路停电 【变更送电】因抢修进度加快原因，送电时间由１２：００变更为００：４０ 【发布渠道】通过９５５９８发布","powerOffId":"2020031813000958"},{"poweroffId":2020031813000955,"sgpoweroffId":null,"subsName":"","lineName":"10kV548北王线","pubTranName":"南王农排6台区【纯农排变】,东滑综合4台区,客户投资_陈村综合2台区,南王综合4台区,北王综合11台区,北王农排5台区【纯农排变】,东滑综合1台区,东滑综合8台区,北王综合8台区（小学）,陈村农排8台区【纯农排变】,陈村农排4台区【纯农排变】,南王农排9台区【纯农排变】,中滑综合3台区,东滑综合11台区,南王综合7台区,北王综合4台区,南王综合5台区,陈村农排11台区【纯农排变】,陈村综合4台区,客户投资_中滑综合6台区,陈村综合6台区,北王农排4台区【纯农排变】,中滑农排1台区【纯农排变】,北王综合1台区,南王综合1台区,陈村农排9台区【纯农排变】,蠡吾镇三中【冬季供暖设施】,陈村综合7台区（小学）,北王综合2台区,东滑综合9台区,北王综合6台区,北王农排1台区【纯农排变】,东滑综合7台区,南王农排10台区【纯农排变】,南王综合6台区,东滑综合5台区,陈村综合1台区,南王综合2台区,中滑综合7台区,陈村综合3台区,南王农排2台区【纯农排变】,东滑农排2台区【纯农排变】,北王农排6台区【纯农排变】,东滑综合6台区,南王综合3台区,东滑综合3台区【新乡】,陈村农排6台区【纯农排变】,北王综合10台区,南王综合10台区（小学）,南王农排1台区【纯农排变】,南王综合8台区,北王综合9台区变压器,北王综合3台区,北王综合5台区,中滑综合8台区,东滑综合10台区,南王农排7台区【纯农排变】,陈村综合5台区,南王综合9台区,东滑综合2台区,北王综合7台区,","scope":"【影响街道/乡镇】蠡吾镇【高危重要客户】无【影响客户】陈村（北陈村）、北王村、南王村、东滑村","startTime":"2020-03-18 20:43:13","stopDate":"2020-03-19 00:00:00","orgNo":"1340616","typeCode":"电网故障停限电","poweroffArea":"【全线路停电】停东滑综合6台区,南王农排4台区【纯农排变】,变压器,陈村综合1台区,中滑综合7台区,陈村综合3台区,东滑农排2台区【纯农排变】,北王农排6台区【纯农排变】,陈村农排9台区【纯农排变】,南王农排8台区【纯农排变】,南王综合2台区,南王农排2台区【纯农排变】,河北鹏宇商品混凝土有限公司,南王综合3台区,中滑综合3台区,东滑综合11台区,蠡县东滑永发板厂变压器,南王农排5台区【纯农排变】,南王综合7台区,北王综合4台区,陈村综合4台区,陈村综合6台区,陈村农排5台区【纯农排变】,中滑农排1台区【纯农排变】,陈村综合7台区（小学）,北王农排7台区【纯农排变】,北王综合1台区,南王综合1台区,蠡吾镇三中【冬季供暖设施】,东滑综合9台区,北王综合6台区,南王农排6台区【纯农排变】,陈村大壮,陈村农排7台区【纯农排变】,陈村农排1台区【纯农排变】,蠡县明盛毛纺厂变压器,新乡农排10台区【纯农排变】,保定嵘玥房地产开发有限公司,东滑综合2台区,南王农排9台区【纯农排变】,南王综合5台区,陈村农排11台区【纯农排变】,陈村农排3台区【纯农排变】,客户投资_中滑综合6台区,东滑农排3台区【纯农排变】,北王农排4台区【纯农排变】,北王综合2台区,南王农排3台区【纯农排变】,蠡县公交客运有限责任公司变压器,北王农排1台区【纯农排变】,蠡县鑫恒,东滑综合5台区,客户投资_陈村综合2台区,北王综合3台区,北王综合5台区,陈村农排2台区【纯农排变】,东滑综合7台区,南王农排10台区【纯农排变】,南王综合6台区,东滑综合4台区,南王综合4台区,北王综合7台区,北王农排5台区【纯农排变】,南王农排7台区【纯农排变】,东滑农排4台区【纯农排变】,北王农排8台区【纯农排变】,中滑综合8台区,东滑综合10台区,陈村综合5台区,南王综合9台区,北王综合9台区变压器,蠡县蠡吾镇北陈村永顺纺织厂变压器,东滑综合3台区【新乡】,陈村农排6台区【纯农排变】,北王综合10台区,南王综合10台区（小学）,南王综合8台区,南王农排1台区【纯农排变】,北王综合11台区,东滑综合1台区,东滑综合8台区,蠡县新乡新诚彩钢厂变压器,北王综合8台区（小学）,陈村农排8台区【纯农排变】,陈村农排4台区【纯农排变】,北王农排2台区【纯农排变】","poweroffReason":"【停电原因】由于站内开关掉闸导致１１０ＫＶ中滑变电站１０ＫＶ北王５４８线路全线停电【变更送电】因抢修进度加快原因，送电时间由１９日１１：００变更为１９日００：００【发布渠道】通过９５５９８发布","powerTime":"2020-03-18 23:27:05","powerComm":"已送电","subsNo":"","lineNo":"","tgNo":"","tgName":null,"infoStatus":"1","orgName":"国网蠡县供电公司","typeName":null,"infoStatusName":null,"dateDay":null,"orgNos":null,"nowTime":null,"countyName":null,"streetName":null,"villageName":null,"roadName":null,"communityName":null,"tranName":null,"sdLineName":null,"cityCode":"1340616","cityName":"国网蠡县供电公司","provinceCode":null,"stopTime":"2020-03-19 00:00:00","powerType":"全部","powerOffArea":"【全线路停电】停东滑综合6台区,南王农排4台区【纯农排变】,变压器,陈村综合1台区,中滑综合7台区,陈村综合3台区,东滑农排2台区【纯农排变】,北王农排6台区【纯农排变】,陈村农排9台区【纯农排变】,南王农排8台区【纯农排变】,南王综合2台区,南王农排2台区【纯农排变】,河北鹏宇商品混凝土有限公司,南王综合3台区,中滑综合3台区,东滑综合11台区,蠡县东滑永发板厂变压器,南王农排5台区【纯农排变】,南王综合7台区,北王综合4台区,陈村综合4台区,陈村综合6台区,陈村农排5台区【纯农排变】,中滑农排1台区【纯农排变】,陈村综合7台区（小学）,北王农排7台区【纯农排变】,北王综合1台区,南王综合1台区,蠡吾镇三中【冬季供暖设施】,东滑综合9台区,北王综合6台区,南王农排6台区【纯农排变】,陈村大壮,陈村农排7台区【纯农排变】,陈村农排1台区【纯农排变】,蠡县明盛毛纺厂变压器,新乡农排10台区【纯农排变】,保定嵘玥房地产开发有限公司,东滑综合2台区,南王农排9台区【纯农排变】,南王综合5台区,陈村农排11台区【纯农排变】,陈村农排3台区【纯农排变】,客户投资_中滑综合6台区,东滑农排3台区【纯农排变】,北王农排4台区【纯农排变】,北王综合2台区,南王农排3台区【纯农排变】,蠡县公交客运有限责任公司变压器,北王农排1台区【纯农排变】,蠡县鑫恒,东滑综合5台区,客户投资_陈村综合2台区,北王综合3台区,北王综合5台区,陈村农排2台区【纯农排变】,东滑综合7台区,南王农排10台区【纯农排变】,南王综合6台区,东滑综合4台区,南王综合4台区,北王综合7台区,北王农排5台区【纯农排变】,南王农排7台区【纯农排变】,东滑农排4台区【纯农排变】,北王农排8台区【纯农排变】,中滑综合8台区,东滑综合10台区,陈村综合5台区,南王综合9台区,北王综合9台区变压器,蠡县蠡吾镇北陈村永顺纺织厂变压器,东滑综合3台区【新乡】,陈村农排6台区【纯农排变】,北王综合10台区,南王综合10台区（小学）,南王综合8台区,南王农排1台区【纯农排变】,北王综合11台区,东滑综合1台区,东滑综合8台区,蠡县新乡新诚彩钢厂变压器,北王综合8台区（小学）,陈村农排8台区【纯农排变】,陈村农排4台区【纯农排变】,北王农排2台区【纯农排变】","powerOffReason":"【停电原因】由于站内开关掉闸导致１１０ＫＶ中滑变电站１０ＫＶ北王５４８线路全线停电【变更送电】因抢修进度加快原因，送电时间由１９日１１：００变更为１９日００：００【发布渠道】通过９５５９８发布","powerOffId":"2020031813000955"}],"pageModel":{"pageNow":245,"totalCount":10973,"totalPage":1098,"tableRows":0,"pageCount":10,"beginCount":2440},"isExperi":"1"}